Executable + params: ../../build/sierpi_intel_omp_tsunami_parallel_release -o 32768 -k 10 -A 1 -d 20 -a 8 -t 100
Problem size with different number of CPUs using function optimization
THREADS	MTPS	TIMESTEPS	TIMESTEP_SIZE	SECONDS_FOR_SIMULATION	AVERAGE_TRIANGLES	AVERAGE_PARTITIONS
80	55.7687	100	0.000491318		1.9047e+07	1158.4
64	51.1107	100	0.000491318		1.9047e+07	1158.4
60	49.3017	100	0.000491318		1.9047e+07	1158.4
40	55.4864	100	0.000491318		1.9047e+07	1158.4
32	48.9943	100	0.000491318		1.9047e+07	1158.4
30	36.3724	100	0.000491318		1.9047e+07	1158.4
20	23.3357	100	0.000491318		1.9047e+07	1158.4
16	20.4317	100	0.000491318		1.9047e+07	1158.4
10	12.6894	100	0.000491318		1.9047e+07	1158.4
8	11.7338	100	0.000491318		1.9047e+07	1158.4
4	8.64371	100	0.000491318		1.9047e+07	1158.4
2	4.95155	100	0.000491318		1.9047e+07	1158.4
1	2.52585	100	0.000491318		1.9047e+07	1158.4
