0	0
10.0926	0
20.1851	0
30.2775	0
40.3698	0
50.4621	0
60.5542	0
70.6463	0
80.7383	0
90.8303	0
100.922	0
111.014	0
121.106	0
131.198	0
141.289	0
151.381	0
161.422	0
171.451	0
181.36	0
191.269	0
201.184	0
211.102	0
221.017	0
230.932	0
240.846	0
250.761	0
260.643	0
270.526	0
280.408	0
290.295	0
300.183	0
310.071	1.81899e-12
321.936	7.27596e-12
331.824	1.18234e-11
341.712	1.63709e-11
351.6	2.45564e-11
361.487	3.36513e-11
371.375	4.63842e-11
381.245	6.18456e-11
391.132	8.0945e-11
400.971	1.04592e-10
410.735	1.33696e-10
420.5	1.68257e-10
430.265	2.11003e-10
440.01	2.62844e-10
451.48	3.36513e-10
461.039	4.09273e-10
470.598	4.94765e-10
480.19	5.939e-10
491.708	7.34872e-10
501.283	8.70386e-10
510.76	1.025e-09
520.193	1.19871e-09
531.512	1.44064e-09
540.927	1.66892e-09
550.338	1.92631e-09
561.626	2.27647e-09
571.014	2.60479e-09
580.403	2.97041e-09
591.669	3.46245e-09
601.073	3.92174e-09
610.477	4.43106e-09
621.761	5.11318e-09
631.165	5.74528e-09
640.569	6.44104e-09
651.854	7.36782e-09
661.258	8.22456e-09
670.661	9.16407e-09
680.065	1.01918e-08
691.349	1.15451e-08
700.753	1.27757e-08
710.147	1.40981e-08
721.387	1.58061e-08
730.753	1.73332e-08
740.124	1.89539e-08
751.375	2.10266e-08
760.748	2.28592e-08
770.121	2.47883e-08
781.369	2.72275e-08
790.742	2.93576e-08
800.115	3.15686e-08
811.362	3.43198e-08
820.735	3.66808e-08
830.108	3.90937e-08
841.356	4.20405e-08
850.729	4.4527e-08
860.102	4.70282e-08
871.349	5.00331e-08
880.722	5.25251e-08
890.095	5.49962e-08
901.343	5.79166e-08
910.716	6.03022e-08
920.088	6.26333e-08
931.336	6.53481e-08
940.709	6.75327e-08
950.081	6.96409e-08
961.329	7.20638e-08
970.701	7.39901e-08
980.074	7.58337e-08
991.321	7.79373e-08
1000.69	7.96044e-08
1010.07	8.12006e-08
1021.31	8.30378e-08
1030.69	8.45175e-08
1040.06	8.59682e-08
1051.31	8.76989e-08
1060.68	8.91614e-08
1070.05	9.06721e-08
1081.3	9.25984e-08
1090.67	9.43446e-08
1100.04	9.62673e-08
1111.29	9.88803e-08
1120.66	1.01381e-07
1130.04	1.04247e-07
1141.28	1.08269e-07
1150.66	1.12198e-07
1160.03	1.16747e-07
1171.28	1.23156e-07
1180.65	1.29407e-07
1190.02	1.36605e-07
1201.27	1.46658e-07
1210.64	1.56361e-07
1220.01	1.67413e-07
1231.26	1.8266e-07
1240.63	1.97199e-07
1250	2.13577e-07
1261.25	2.35898e-07
1270.62	2.56939e-07
1281.87	2.85401e-07
1291.24	3.1204e-07
1300.61	3.41552e-07
1311.81	3.80937e-07
1321.13	4.17382e-07
1330.44	4.57439e-07
1341.64	5.10739e-07
1350.99	5.59845e-07
1360.33	6.1348e-07
1371.54	6.84257e-07
1380.89	7.48968e-07
1390.23	8.19253e-07
1401.42	9.11678e-07
1410.74	9.96134e-07
1420.05	1.08763e-06
1431.2	1.20658e-06
1440.49	1.31375e-06
1451.64	1.45205e-06
1460.95	1.57593e-06
1470.26	1.70745e-06
1481.42	1.87528e-06
1490.73	2.02399e-06
1500.05	2.18073e-06
1511.22	2.37966e-06
1520.53	2.5547e-06
1531.71	2.77625e-06
1541.02	2.97072e-06
1550.33	3.17462e-06
1561.51	3.4322e-06
1570.73	3.65597e-06
1581.69	3.93563e-06
1590.83	4.18069e-06
1600.04	4.43933e-06
1611.14	4.76778e-06
1620.36	5.05481e-06
1631.41	5.41769e-06
1640.63	5.73653e-06
1651.68	6.14015e-06
1660.9	6.49511e-06
1670.11	6.86809e-06
1681.17	7.34096e-06
1690.38	7.75745e-06
1701.44	8.28597e-06
1710.66	8.75185e-06
1721.71	9.34345e-06
1730.93	9.86525e-06
1740.14	1.04148e-05
1751.2	1.11131e-05
1760.41	1.17292e-05
1771.47	1.2512e-05
1780.68	1.32021e-05
1791.74	1.40773e-05
1800.96	1.48471e-05
1810.17	1.56548e-05
1821.23	1.66753e-05
1830.44	1.75695e-05
1841.48	1.86947e-05
1850.68	1.96782e-05
1861.72	2.09149e-05
1870.93	2.19944e-05
1880.14	2.31187e-05
1891.19	2.45286e-05
1900.39	2.57555e-05
1911.44	2.72919e-05
1920.65	2.86273e-05
1931.7	3.02979e-05
1940.91	3.17488e-05
1950.12	3.32549e-05
1961.17	3.51376e-05
1970.37	3.67716e-05
1981.42	3.88139e-05
1990.63	4.05863e-05
2001.68	4.28014e-05
2010.89	4.47239e-05
2020.1	4.67187e-05
2031.15	4.92121e-05
2040.35	5.13764e-05
2051.4	5.4082e-05
2060.61	5.64308e-05
2071.66	5.93675e-05
2080.87	6.19173e-05
2090.08	6.45645e-05
2101.12	6.7875e-05
2110.33	7.07504e-05
2121.38	7.00314e-05
2130.59	6.89404e-05
2141.64	6.78966e-05
2150.85	6.72334e-05
2160.05	6.67464e-05
2171.1	6.63805e-05
2180.31	6.62469e-05
2191.36	6.62797e-05
2200.57	6.64591e-05
2211.62	6.68473e-05
2220.82	6.73083e-05
2230.03	6.78891e-05
2241.08	6.87384e-05
2250.29	6.95691e-05
2261.34	7.07094e-05
2270.54	7.17767e-05
2281.59	7.31958e-05
2290.8	7.44925e-05
2300.01	7.58926e-05
2311.06	7.77092e-05
2320.26	7.93377e-05
2331.31	8.14309e-05
2340.52	8.32929e-05
2351.57	8.56715e-05
2360.78	8.77766e-05
2371.83	9.04541e-05
2381.03	9.28152e-05
2390.24	9.5298e-05
2401.29	9.84429e-05
2410.5	0.000101206
2421.55	0.0001047
2430.75	0.000107764
2441.8	0.000111632
2451.01	0.000115021
2460.22	0.000118564
2471.26	0.000123026
2480.46	0.000126931
2491.51	0.000131849
2500.71	0.000136134
2511.71	0.000141468
2520.86	0.000146073
2530.01	0.000150818
2541.02	0.000156703
2550.19	0.000161756
2561.2	0.000167993
2570.37	0.000173336
2581.38	0.000179923
2590.55	0.000185563
2601.56	0.000192516
2610.73	0.000198471
2621.74	0.000205817
2630.91	0.000212114
2640.08	0.000218579
2651.09	0.000226569
2660.26	0.000233432
2671.27	0.000241929
2680.44	0.000249241
2691.45	0.00025831
2700.62	0.000266129
2711.63	0.000275843
2720.8	0.000284231
2731.81	0.000294667
2740.98	0.000303688
2750.15	0.000313018
2761.16	0.000324639
2770.33	0.000334693
2781.34	0.000347221
2790.49	0.000358038
2801.47	0.000371511
2810.62	0.000383171
2821.59	0.000397703
2830.74	0.000410283
2841.72	0.000425965
2850.86	0.000439544
2860.01	0.000457402
2870.99	0.000497282
2880.14	0.000530388
2891.11	0.000569841
2900.26	0.000602451
2911.24	0.000641265
2920.38	0.000673374
2931.36	0.000711691
2940.51	0.000743515
2951.49	0.000781689
2960.63	0.000813588
2971.61	0.000852109
2980.76	0.000884529
2991.73	0.000923968
3000.88	0.000957405
3010.03	0.000991473
3021.01	0.00103334
3030.15	0.00106917
3041.13	0.00111345
3050.28	0.00115155
3061.25	0.00119883
3070.4	0.00123944
3081.38	0.0012894
3090.53	0.00133195
3101.5	0.00138404
3110.65	0.00142831
3121.63	0.00148252
3130.77	0.00152866
3141.75	0.00158536
3150.9	0.00163385
3160.04	0.00168362
3171.02	0.00174527
3180.17	0.00179846
3191.14	0.00186471
3200.29	0.00192214
3211.27	0.00199395
3220.42	0.00205639
3231.39	0.00213467
3240.54	0.00220291
3251.52	0.0023397
3260.66	0.00249239
3271.64	0.00266669
3280.79	0.00280552
3291.76	0.00296656
3300.91	0.00309812
3310.06	0.00322917
3321.03	0.0033882
3330.18	0.00352412
3341.16	0.00369356
3350.3	0.00384071
3361.28	0.0040228
3370.43	0.00417864
3381.4	0.00437114
3390.55	0.00453732
3401.53	0.00474588
3410.67	0.00492933
3421.65	0.00516349
3430.8	0.00541575
3441.77	0.00592548
3450.92	0.0063336
3460.07	0.00673358
3471.04	0.00721867
3480.19	0.0076402
3491.17	0.00817109
3500.31	0.00862567
3511.29	0.00919368
3520.44	0.00970159
3531.41	0.0108233
3540.56	0.0116931
3551.54	0.0127616
3560.68	0.0137426
3571.66	0.0153133
3580.81	0.0173347
3591.78	0.0200429
3600.93	0.0245322
3610.08	0.0283364
3621.05	0.0325779
3630.2	0.0358947
3641.18	0.0396167
3650.32	0.0426275
3661.3	0.0461664
3670.45	0.0490747
3681.42	0.0525905
3690.57	0.055566
3701.54	0.0591348
3710.69	0.0620507
3721.67	0.0654652
3730.81	0.0682737
3741.79	0.0716505
3750.94	0.0744968
3760.08	0.0773869
3771.06	0.0809144
3780.21	0.0838867
3791.18	0.0874586
3800.33	0.0904212
3811.31	0.0939592
3820.45	0.0969066
3831.43	0.100465
3840.58	0.103467
3851.55	0.107129
3860.7	0.11024
3871.68	0.114044
3880.83	0.11727
3891.8	0.121207
3900.95	0.124548
3910.1	0.127952
3921.07	0.132137
3930.22	0.135717
3941.2	0.140134
3950.34	0.143914
3961.32	0.148567
3970.47	0.152541
3981.44	0.15743
3990.59	0.161615
4001.57	0.166789
4010.72	0.171249
4021.69	0.176807
4030.84	0.181633
4041.82	0.187686
4050.97	0.192969
4060.13	0.198497
4071.13	0.205482
4080.31	0.211615
4091.31	0.219383
4100.49	0.226223
4111.49	0.234906
4120.67	0.242559
4131.67	0.252269
4140.84	0.260819
4150.02	0.269801
4161.02	0.281171
4170.2	0.291154
4181.2	0.303765
4190.38	0.314812
4201.39	0.328733
4210.57	0.340893
4221.59	0.356162
4230.77	0.369437
4241.81	0.38603
4251.06	0.400461
4260.31	0.415345
4271.41	0.433763
4280.66	0.449532
4291.83	0.469009
4301.16	0.485599
4310.5	0.502409
4321.71	0.522761
4331.05	0.539782
4340.4	0.55678
4351.62	0.577002
4360.97	0.593592
4370.32	0.609835
4381.54	0.628717
4390.89	0.64381
4400.24	0.658195
4411.46	0.67435
4420.81	0.686745
4430.16	0.698035
4441.38	0.709946
4450.73	0.718357
4460.08	0.725258
4471.3	0.73137
4480.65	0.734516
4490	0.735769
4501.22	0.734622
4510.57	0.731341
4521.79	0.724482
4531.14	0.716242
4540.49	0.70564
4551.71	0.689733
4561.06	0.673785
4570.41	0.655374
4581.63	0.630029
4590.98	0.60622
4600.33	0.580004
4611.55	0.545439
4620.9	0.514125
4630.25	0.48061
4641.47	0.437612
4650.82	0.39957
4660.17	0.359619
4671.39	0.309283
4680.74	0.265437
4690.09	0.219934
4701.31	0.163222
4710.66	0.114338
4720.01	0.0638297
4731.23	0.00101626
4740.58	-0.0392478
4751.8	-0.0547333
4761.15	-0.0805242
4770.5	-0.101759
4781.72	-0.122133
4791.07	-0.135903
4800.42	-0.139231
4811.64	-0.155833
4820.99	-0.166329
4830.35	-0.175187
4841.57	-0.184513
4850.92	-0.190611
4860.27	-0.196515
4871.49	-0.203331
4880.84	-0.208637
4890.2	-0.213523
4901.43	-0.205442
4910.81	-0.211082
4920.18	-0.216218
4931.43	-0.221394
4940.8	-0.225025
4950.17	-0.228172
4961.42	-0.231451
4970.79	-0.233873
4980.17	-0.236085
4991.42	-0.238177
5000.79	-0.239807
5010.16	-0.241284
5021.41	-0.24301
5030.78	-0.244431
5040.15	-0.245813
5051.4	-0.247394
5060.77	-0.248633
5070.15	-0.24979
5081.4	-0.250966
5090.77	-0.244051
5100.14	-0.2451
5111.39	-0.246602
5120.76	-0.247977
5130.13	-0.249187
5141.38	-0.250418
5150.75	-0.25126
5160.13	-0.251956
5171.38	-0.25262
5180.75	-0.253042
5190.12	-0.253354
5201.37	-0.253599
5210.74	-0.253703
5220.11	-0.253725
5231.36	-0.253655
5240.73	-0.253524
5250.11	-0.253333
5261.35	-0.253035
5270.73	-0.252719
5280.1	-0.25231
5291.34	-0.251794
5300.66	-0.25135
5311.84	-0.250797
5321.16	-0.250185
5330.49	-0.249566
5341.71	-0.248814
5351.05	-0.248178
5360.39	-0.247533
5371.61	-0.246746
5380.95	-0.246078
5390.29	-0.2454
5401.47	-0.244573
5410.79	-0.243872
5420.11	-0.243162
5431.29	-0.242297
5440.58	-0.241565
5451.73	-0.240667
5461.02	-0.239908
5470.31	-0.235298
5481.49	-0.234896
5490.8	-0.234554
5500.1	-0.234206
5511.27	-0.23378
5520.58	-0.233419
5531.76	-0.232977
5541.07	-0.2326
5550.38	-0.232217
5561.56	-0.231749
5570.87	-0.231353
5580.18	-0.230953
5591.36	-0.230468
5600.62	-0.230061
5611.58	-0.229575
5620.74	-0.229166
5631.85	-0.228664
5641.09	-0.228242
5650.3	-0.227817
5661.36	-0.2273
5670.57	-0.226862
5681.63	-0.226328
5690.84	-0.225872
5700.06	-0.225406
5711.11	-0.224831
5720.33	-0.224336
5731.38	-0.223722
5740.6	-0.223192
5751.66	-0.222533
5760.87	-0.221962
5770.08	-0.221372
5781.14	-0.220635
5790.36	-0.219998
5801.41	-0.219202
5810.63	-0.218513
5821.68	-0.217656
5830.9	-0.216965
5840.11	-0.216241
5851.15	-0.215335
5860.35	-0.214549
5871.39	-0.213573
5880.59	-0.212732
5891.63	-0.211676
5900.84	-0.210706
5910.05	-0.209714
5921.1	-0.208497
5930.31	-0.207463
5941.36	-0.206198
5950.56	-0.205125
5961.61	-0.203817
5970.82	-0.20271
5980.03	-0.201589
5991.08	-0.200225
6000.29	-0.199074
6011.34	-0.197676
6020.54	-0.196498
6031.59	-0.195068
6040.8	-0.193863
6050.01	-0.192648
6061.06	-0.191175
6070.27	-0.189936
6081.32	-0.188438
6090.52	-0.187178
6101.57	-0.185656
6110.78	-0.184379
6121.83	-0.182836
6131.04	-0.181543
6140.25	-0.180243
6151.29	-0.178676
6160.5	-0.177365
6171.55	-0.175785
6180.76	-0.174464
6191.81	-0.172996
6201.02	-0.171945
6210.22	-0.170855
6221.27	-0.169505
6230.48	-0.168354
6241.53	-0.166948
6250.74	-0.16576
6261.79	-0.164319
6271	-0.163106
6280.2	-0.161885
6291.25	-0.160409
6300.46	-0.159172
6311.51	-0.157679
6320.72	-0.156428
6331.77	-0.154919
6340.97	-0.153655
6350.18	-0.152385
6361.23	-0.150853
6370.44	-0.149569
6381.49	-0.148019
6390.7	-0.146721
6401.75	-0.145153
6410.95	-0.14384
6420.16	-0.142519
6431.21	-0.140928
6440.42	-0.139603
6451.47	-0.138017
6460.68	-0.1367
6471.73	-0.135128
6480.93	-0.133825
6490.14	-0.132527
6501.19	-0.130975
6510.4	-0.129686
6521.45	-0.128141
6530.65	-0.126854
6541.7	-0.125306
6550.91	-0.12401
6560.12	-0.122709
6571.17	-0.121137
6580.38	-0.119816
6591.43	-0.118216
6600.63	-0.116869
6611.68	-0.114408
6620.89	-0.111771
6630.1	-0.109264
6641.09	-0.106434
6650.24	-0.104191
6661.22	-0.101609
6670.4	-0.0995219
6681.4	-0.0970733
6690.58	-0.0950593
6701.58	-0.0926518
6710.75	-0.0906389
6721.76	-0.0882005
6730.93	-0.0861515
6740.11	-0.0841007
6751.11	-0.081644
6760.29	-0.0795982
6771.29	-0.0771349
6780.47	-0.0750641
6791.47	-0.0725416
6800.65	-0.0703976
6811.65	-0.0667886
6820.83	-0.0630629
6831.83	-0.0587712
6841.01	-0.0553235
6850.18	-0.0519277
6861.18	-0.0478404
6870.36	-0.0443761
6881.36	-0.040139
6890.54	-0.0366188
6901.54	-0.032436
6910.72	-0.0289319
6921.72	-0.0231278
6930.9	-0.0177413
6940.07	-0.0127832
6951.08	-0.0066963
6960.25	-0.00152692
6971.26	0.00694017
6980.43	0.0146527
6991.43	0.0270449
7000.61	0.0380597
7011.61	0.0477696
7020.77	0.0538026
7031.74	0.0588504
7040.89	0.0617189
7050.04	0.0637069
7061.02	0.0652089
7070.16	0.0660732
7081.14	0.0670801
7090.29	0.0679147
7101.26	0.0686653
7110.41	0.0689586
7121.39	0.0690029
7130.54	0.0689804
7141.51	0.0690955
7150.66	0.0693896
7161.64	0.0700001
7170.78	0.0706764
7181.76	0.0715423
7190.91	0.0721688
7200.06	0.0726197
7211.03	0.0729057
7220.18	0.0729669
7231.16	0.0728935
7240.3	0.0727547
7251.28	0.0725415
7260.43	0.0723506
7271.41	0.0721158
7280.55	0.0719062
7291.53	0.0716267
7300.68	0.071382
7311.65	0.071123
7320.8	0.0709873
7331.78	0.0709722
7340.92	0.0710907
7350.07	0.0712999
7361.05	0.0715924
7370.2	0.0717924
7381.17	0.0718933
7390.32	0.0718225
7401.3	0.0715473
7410.44	0.0711862
7421.42	0.0706498
7430.57	0.0701619
7441.55	0.0695708
7450.69	0.0690928
7461.67	0.0685459
7470.82	0.0681158
7481.79	0.0676412
7490.94	0.0672984
7500.09	0.067027
7511.07	0.0668292
7520.21	0.0667938
7531.19	0.0669201
7540.34	0.0671626
7551.31	0.0675979
7560.46	0.0680579
7571.44	0.0686964
7580.59	0.0692815
7591.56	0.0700317
7600.71	0.0706916
7611.69	0.0715248
7620.83	0.0722556
7631.81	0.0731794
7640.96	0.0739899
7650.11	0.0748382
7661.08	0.0759058
7670.23	0.076835
7681.21	0.0779924
7690.35	0.0789853
7701.33	0.0801971
7710.48	0.08121
7721.45	0.0824093
7730.6	0.0833791
7741.58	0.0844892
7750.73	0.0853585
7761.7	0.086325
7770.85	0.0870625
7781.83	0.087864
7790.97	0.088463
7800.12	0.0890009
7811.1	0.0895691
7820.25	0.0899821
7831.22	0.0904119
7840.37	0.0907214
7851.35	0.0910431
7860.5	0.0912758
7871.47	0.0915187
7880.62	0.0916932
7891.6	0.0918686
7900.74	0.0919839
7911.72	0.0920806
7920.87	0.0921229
7930.02	0.092128
7940.99	0.0920851
7950.14	0.0920105
7961.12	0.0918801
7970.26	0.0917434
7981.24	0.0915543
7990.39	0.091382
8001.37	0.0911639
8010.51	0.0909755
8021.49	0.0907418
8030.64	0.0905379
8041.61	0.0902752
8050.76	0.0900325
8061.74	0.0896987
8070.89	0.0893723
8080.03	0.0889896
8091.01	0.08844
8100.16	0.087895
8111.13	0.0871246
8120.28	0.0863797
8131.26	0.0853596
8140.41	0.0844062
8151.38	0.0831451
8160.53	0.0820052
8171.51	0.0805446
8180.66	0.0792624
8191.63	0.0776624
8200.78	0.0762907
8211.76	0.0746136
8220.9	0.0732006
8230.05	0.0717813
8241.03	0.0700775
8250.18	0.0686617
8261.15	0.0669711
8270.3	0.0655706
8281.28	0.0639008
8290.43	0.0625186
8301.4	0.0608724
8310.55	0.0595124
8321.53	0.0578984
8330.67	0.0565721
8341.68	0.0550055
8350.85	0.0537289
8360.02	0.0524841
8371.03	0.0510386
8380.2	0.0498787
8391.21	0.0485443
8400.38	0.0474817
8411.39	0.0462649
8420.56	0.0452967
8431.57	0.0441838
8440.74	0.0432902
8451.75	0.0422478
8460.92	0.0413944
8470.09	0.0405454
8481.1	0.0395195
8490.27	0.0386483
8501.28	0.0375712
8510.45	0.0366387
8521.46	0.0354694
8530.63	0.0344482
8541.64	0.0331631
8550.81	0.0320419
8561.82	0.0306375
8570.99	0.029421
8580.17	0.0281654
8591.18	0.0266138
8600.36	0.0252886
8611.38	0.0236641
8620.57	0.0222859
8631.59	0.0206036
8640.78	0.0191739
8651.8	0.0174078
8660.99	0.0158649
8670.17	0.0142085
8681.19	0.0119242
8690.38	0.0081858
8701.4	0.00511318
8710.59	0.00108205
8721.66	-0.00320821
8730.91	-0.00446521
8740.16	-0.00808666
8751.26	-0.0118238
8760.51	-0.0146941
8771.61	-0.017836
8780.86	-0.0202519
8790.11	-0.022511
8801.21	-0.0212422
8810.46	-0.023217
8821.56	-0.0261064
8830.81	-0.0281331
8840.06	-0.0298877
8851.16	-0.0317408
8860.41	-0.0331391
8871.51	-0.0346316
8880.76	-0.0357981
8890.01	-0.0369191
8901.11	-0.0382253
8910.36	-0.0392839
8921.46	-0.0405186
8930.71	-0.0415171
8941.81	-0.0426779
8951.06	-0.0436134
8960.31	-0.0419116
8971.41	-0.0433396
8980.66	-0.0444592
8991.76	-0.0456605
9001.01	-0.0465498
9010.26	-0.0473479
9021.35	-0.0482
9030.6	-0.0488332
9041.7	-0.049514
9050.95	-0.0500245
9060.2	-0.0504905
9071.3	-0.0509993
9080.55	-0.0513883
9091.65	-0.0518269
9100.9	-0.0521733
9110.15	-0.0525223
9121.25	-0.0529506
9130.5	-0.0532119
9141.6	-0.0534711
9150.87	-0.0536974
9160.16	-0.0539314
9171.32	-0.0542191
9180.62	-0.0544619
9191.79	-0.054755
9201.11	-0.0549984
9210.42	-0.0552393
9221.58	-0.0555231
9230.89	-0.0557543
9240.2	-0.0559793
9251.38	-0.0562401
9260.69	-0.0564488
9270	-0.0522266
9281.18	-0.0526085
9290.49	-0.0529127
9301.67	-0.0532596
9310.97	-0.0535338
9320.29	-0.053793
9331.46	-0.0540816
9340.77	-0.0543027
9351.73	-0.0545363
9360.86	-0.0547102
9371.85	-0.0548966
9381.1	-0.0550355
9390.35	-0.0551593
9401.46	-0.0552892
9410.69	-0.0553815
9421.74	-0.0554742
9430.96	-0.0555374
9440.17	-0.0555887
9451.23	-0.0556354
9460.44	-0.0556626
9471.5	-0.0556821
9480.71	-0.0556865
9491.77	-0.0556771
9500.98	-0.0556572
9510.2	-0.0556267
9521.26	-0.0555766
9530.47	-0.0555239
9541.53	-0.0554481
9550.74	-0.0553749
9561.8	-0.0552757
9571.01	-0.0551845
9580.23	-0.0550856
9591.28	-0.0549526
9600.5	-0.0548215
9611.56	-0.0546542
9620.77	-0.0545071
9631.83	-0.0543223
9641.04	-0.054162
9650.26	-0.0540124
9661.31	-0.0538995
9670.53	-0.0537958
9681.59	-0.0536607
9690.8	-0.05354
9700.01	-0.0534124
9711.07	-0.0532508
9720.29	-0.0531097
9731.34	-0.0529331
9740.56	-0.0527803
9751.61	-0.0525907
9760.82	-0.0524279
9770.02	-0.052261
9781.06	-0.0520555
9790.26	-0.0518803
9801.31	-0.0516654
9810.52	-0.051483
9821.57	-0.0512601
9830.78	-0.0510713
9841.83	-0.0508411
9851.03	-0.0506465
9860.24	-0.0504494
9871.29	-0.0502096
9880.5	-0.0500071
9891.55	-0.049761
9900.76	-0.0495534
9911.81	-0.0493012
9921.01	-0.0493465
9930.22	-0.0491622
9941.27	-0.0489396
9950.48	-0.0487527
9961.53	-0.0485265
9970.74	-0.0483363
9981.79	-0.0481058
9990.99	-0.0479119
10000.2	-0.0477163
10011.3	-0.047479
10020.5	-0.0472793
10031.5	-0.0470369
10040.7	-0.0468327
10051.8	-0.0465847
10061	-0.0463756
10070.2	-0.0461641
10081.2	-0.045907
10090.4	-0.0456899
10101.5	-0.0454257
10110.7	-0.0452014
10121.7	-0.0449272
10131	-0.0446946
10140.2	-0.0444582
10151.2	-0.0420394
10160.4	-0.0417335
10171.5	-0.0413641
10180.7	-0.0410542
10191.7	-0.04068
10200.9	-0.0403662
10210.1	-0.0400506
10221.2	-0.0396694
10230.4	-0.0393498
10241.4	-0.0389639
10250.7	-0.0386403
10261.7	-0.0382745
10270.9	-0.0380088
10280.1	-0.0377407
10291.2	-0.0374158
10300.4	-0.0371422
10311.4	-0.0368104
10320.6	-0.036531
10331.7	-0.0361921
10340.9	-0.0359067
10350.1	-0.0356186
10361.1	-0.0352691
10370.4	-0.0349747
10381.4	-0.0346177
10390.6	-0.0343171
10401.7	-0.0339528
10410.9	-0.0336459
10420.1	-0.0333362
10431.1	-0.0329612
10440.3	-0.0326473
10451.3	-0.0322672
10460.4	-0.0319486
10471.4	-0.0315656
10480.6	-0.0312459
10491.6	-0.0308615
10500.8	-0.0305404
10511.8	-0.030154
10520.9	-0.0298308
10530.1	-0.0295066
10541.1	-0.029116
10550.3	-0.0287891
10561.3	-0.0283953
10570.5	-0.0280656
10581.5	-0.0276683
10590.6	-0.0273358
10601.7	-0.0269352
10610.8	-0.0266001
10620	-0.0262648
10631	-0.0258624
10640.2	-0.025527
10651.2	-0.0251243
10660.4	-0.0247886
10671.4	-0.0243857
10680.5	-0.0240499
10691.5	-0.0236468
10700.7	-0.0233109
10711.7	-0.0228702
10720.9	-0.0224907
10730.1	-0.0221147
10741.1	-0.0216683
10750.3	-0.0213001
10761.3	-0.0208629
10770.4	-0.0205022
10781.4	-0.0200739
10790.6	-0.0197206
10801.6	-0.0193009
10810.8	-0.0189547
10821.8	-0.0185432
10831	-0.0182037
10840.1	-0.0178671
10851.1	-0.0174671
10860.3	-0.017137
10871.3	-0.0167448
10880.5	-0.0164212
10891.5	-0.0160369
10900.7	-0.0157198
10911.7	-0.0153433
10920.9	-0.0150326
10930	-0.0147256
10941	-0.0143609
10950.1	-0.0140599
10961.1	-0.0137022
10970.3	-0.013407
10981.2	-0.013056
10990.4	-0.0127662
11001.4	-0.0124217
11010.5	-0.0121371
11021.5	-0.0117986
11030.6	-0.0115189
11041.6	-0.0111861
11050.8	-0.0109111
11061.7	-0.0105845
11070.9	-0.0102993
11080	-0.0100267
11091	-0.00971331
11100.2	-0.00946162
11111.1	-0.00916872
11120.3	-0.00893077
11131.3	-0.00865098
11140.4	-0.00842154
11151.4	-0.00815123
11160.5	-0.00793162
11171.5	-0.00767414
11180.6	-0.00746393
11191.6	-0.00721601
11200.8	-0.00701226
11211.8	-0.00677026
11220.9	-0.00656997
11230	-0.00637035
11241	-0.00613096
11250.2	-0.00593114
11261.1	-0.00569037
11270.3	-0.00548847
11281.3	-0.00524423
11290.4	-0.00503889
11301.4	-0.00479039
11310.5	-0.00458156
11321.5	-0.00432879
11330.7	-0.00411619
11341.6	-0.00385852
11350.8	-0.00364151
11361.8	-0.00337819
11370.9	-0.00315621
11380.1	-0.00293184
11391	-0.00265971
11400.2	-0.00243082
11411.2	-0.00215411
11420.3	-0.00192636
11431.3	-0.00165703
11440.4	-0.00143424
11451.4	-0.00116716
11460.6	-0.000943691
11471.5	-0.000673339
11480.7	-0.000343102
11491.7	9.9645e-05
11500.8	0.000475524
11511.8	0.000928564
11520.9	0.00130484
11530.1	0.00167855
11541.1	0.00212287
11550.2	0.00248966
11561.2	0.00292609
11570.3	0.00328694
11581.3	0.00371565
11590.5	0.00406908
11601.4	0.00448931
11610.6	0.00483725
11621.6	0.00525329
11630.7	0.00559962
11641.7	0.00601962
11650.8	0.00637313
11661.8	0.00680102
11671	0.00716059
11680.1	0.00752286
11691.1	0.00837338
11700.2	0.00921864
11711.2	0.0101538
11720.3	0.0108634
11731.3	0.0116359
11740.5	0.0122195
11751.4	0.012863
11760.6	0.0133743
11771.6	0.0139667
11780.7	0.0146945
11791.7	0.0154781
11800.8	0.0160505
11811.8	0.0167146
11821	0.017232
11830.1	0.0180124
11841.1	0.0191993
11850.2	0.0206768
11861.2	0.0229488
11870.4	0.0243239
11881.4	0.0259206
11890.6	0.0272462
11901.6	0.0288442
11910.8	0.0301863
11921.8	0.0317999
11931	0.0331777
11940.1	0.0346098
11951.1	0.0363953
11960.3	0.0379158
11971.3	0.0397584
11980.5	0.0413122
11991.5	0.0432088
