0	0
11.4083	0
21.3905	0
31.1924	0
40.4035	0
50.3855	0
60.2694	0
70.2513	0
80.2331	0
90.2148	0
100.196	0
110.113	0
121.334	0
131.12	0
140.904	0
150.689	0
160.473	0
170.258	0
180.043	0
191.225	-7.27596e-12
201.009	-1.36424e-11
210.793	-2.00089e-11
220.577	-2.63753e-11
230.361	-3.27418e-11
240.146	-4.54747e-11
251.328	-6.00267e-11
261.112	-7.54881e-11
270.896	-9.45874e-11
280.68	-1.17325e-10
290.464	-1.42791e-10
300.248	-1.74623e-10
310.032	-2.11003e-10
321.214	-2.59206e-10
330.997	-3.08319e-10
340.732	-3.63798e-10
350.44	-4.25644e-10
360.087	-4.93856e-10
371.115	-5.82986e-10
380.738	-6.68479e-10
390.281	-7.61247e-10
401.103	-8.75843e-10
410.552	-9.83164e-10
420.001	-1.09867e-09
430.801	-1.23782e-09
440.251	-1.36515e-09
451.052	-1.51613e-09
460.481	-1.65164e-09
471.192	-1.81171e-09
480.523	-1.95814e-09
491.184	-2.13549e-09
500.513	-2.30193e-09
511.166	-2.50657e-09
520.477	-2.70211e-09
531.112	-2.94403e-09
540.411	-3.17505e-09
551.035	-3.46245e-09
560.331	-3.73711e-09
570.955	-4.07817e-09
580.251	-4.40286e-09
590.875	-4.81214e-09
600.171	-5.20868e-09
610.795	-5.71617e-09
620.091	-6.21731e-09
630.715	-6.86578e-09
640.011	-7.51152e-09
650.635	-8.34825e-09
661.258	-9.3105e-09
670.546	-1.02646e-08
681.139	-1.14969e-08
690.401	-1.27129e-08
700.985	-1.42745e-08
710.247	-1.58052e-08
720.831	-1.7757e-08
730.093	-1.96542e-08
740.678	-2.20489e-08
751.262	-2.47019e-08
760.524	-2.72457e-08
771.108	-3.04171e-08
780.37	-3.3433e-08
790.954	-3.7162e-08
800.216	-4.06762e-08
810.8	-4.49845e-08
820.061	-4.90109e-08
830.646	-5.39048e-08
841.23	-5.91072e-08
850.491	-6.39047e-08
861.075	-6.96546e-08
870.337	-7.49087e-08
880.921	-8.11497e-08
890.182	-8.6794e-08
900.766	-9.34278e-08
910.027	-9.9365e-08
920.611	-1.06265e-07
931.195	-1.1324e-07
940.456	-1.19365e-07
951.04	-1.26338e-07
960.301	-1.32371e-07
970.885	-1.39129e-07
980.146	-1.44867e-07
990.73	-1.51154e-07
1001.31	-1.57075e-07
1010.57	-1.61886e-07
1021.16	-1.66873e-07
1030.42	-1.7071e-07
1041	-1.74393e-07
1050.26	-1.76902e-07
1060.85	-1.78831e-07
1070.11	-1.79585e-07
1080.69	-1.79236e-07
1091.28	-1.7742e-07
1100.54	-1.74475e-07
1111.12	-1.69371e-07
1120.38	-1.63213e-07
1130.97	-1.54022e-07
1140.23	-1.43897e-07
1150.81	-1.2969e-07
1160.07	-1.14727e-07
1170.65	-9.44437e-08
1181.24	-7.04313e-08
1190.5	-4.60759e-08
1201.08	-1.40644e-08
1210.34	1.79107e-08
1220.93	5.938e-08
1230.19	1.0033e-07
1240.77	1.5293e-07
1250.03	2.04771e-07
1260.6	2.71082e-07
1271.14	3.45058e-07
1280.37	4.16275e-07
1290.91	5.05117e-07
1300.13	5.8932e-07
1310.66	6.93036e-07
1321.19	8.04727e-07
1330.39	9.09031e-07
1340.91	1.03585e-06
1350.12	1.15374e-06
1360.65	1.29644e-06
1371.18	1.44786e-06
1380.39	1.58777e-06
1390.92	1.75653e-06
1400.12	1.91215e-06
1410.64	2.09988e-06
1421.17	2.29857e-06
1430.37	2.48205e-06
1440.87	2.70283e-06
1450.02	2.90595e-06
1460.46	3.15114e-06
1470.91	3.41132e-06
1480.05	3.65217e-06
1490.5	3.94358e-06
1500.95	4.25349e-06
1510.09	4.54093e-06
1520.54	4.88936e-06
1530.99	5.26056e-06
1540.12	5.60504e-06
1550.51	6.02102e-06
1560.83	6.46121e-06
1571.15	6.93052e-06
1580.18	7.36643e-06
1590.5	7.89529e-06
1600.82	8.45888e-06
1611.13	9.05937e-06
1620.16	9.61684e-06
1630.48	1.02925e-05
1640.8	1.1011e-05
1651.12	1.1774e-05
1660.15	1.24792e-05
1670.47	1.33292e-05
1680.79	1.42275e-05
1691.11	1.51751e-05
1700.13	1.60455e-05
1710.45	1.70885e-05
1720.77	1.81841e-05
1731.09	1.93332e-05
1740.12	2.03837e-05
1750.44	2.16368e-05
1760.76	2.29473e-05
1771.08	2.43165e-05
1780.1	2.55642e-05
1790.42	2.70481e-05
1800.74	2.85957e-05
1811.06	3.02091e-05
1820.09	3.16764e-05
1830.41	3.3419e-05
1840.73	3.52339e-05
1851.05	3.71239e-05
1860.07	3.88413e-05
1870.39	4.08797e-05
1880.71	4.30016e-05
1891.03	4.52103e-05
1900.06	4.72167e-05
1910.38	4.95975e-05
1920.7	5.20752e-05
1931.01	5.46538e-05
1940.04	5.6996e-05
1950.36	5.97747e-05
1960.68	6.26663e-05
1971	6.56753e-05
1980.03	6.84084e-05
1990.34	6.73242e-05
2000.66	6.59024e-05
2010.98	6.47504e-05
2020.01	6.39484e-05
2030.33	6.32516e-05
2040.65	6.27736e-05
2050.96	6.24999e-05
2061.28	6.24171e-05
2070.31	6.2492e-05
2080.63	6.27363e-05
2090.95	6.31408e-05
2101.27	6.36973e-05
2110.29	6.43032e-05
2120.61	6.51262e-05
2130.93	6.60835e-05
2141.25	6.71708e-05
2150.28	6.82263e-05
2160.59	6.9549e-05
2170.91	7.09943e-05
2181.23	7.25611e-05
2190.26	7.40314e-05
2200.58	7.58254e-05
2210.89	7.77415e-05
2221.21	7.97811e-05
2230.24	8.16685e-05
2240.56	8.39453e-05
2250.88	8.63523e-05
2261.19	8.88929e-05
2270.22	9.12283e-05
2280.54	9.40294e-05
2290.86	9.69754e-05
2301.18	0.000100071
2310.2	0.000102906
2320.52	0.000106296
2330.84	0.000109851
2341.16	0.000113575
2350.19	0.000116979
2360.5	0.00012104
2370.82	0.00012529
2381.14	0.000129716
2390.17	0.000133722
2400.49	0.000138442
2410.8	0.000143304
2421.12	0.000148305
2430.15	0.000152791
2440.47	0.000158042
2450.79	0.000163427
2461.1	0.000168948
2470.13	0.000173892
2480.45	0.000179677
2490.77	0.00018561
2501.09	0.000191699
2510.11	0.000197161
2520.43	0.000203565
2530.75	0.000210151
2541.07	0.000216929
2550.1	0.000223027
2560.41	0.000230199
2570.73	0.000237601
2581.05	0.000245245
2590.08	0.000252144
2600.4	0.000260283
2610.7	0.000268689
2621	0.000277392
2630.02	0.000285275
2640.34	0.000294588
2650.66	0.000304236
2660.98	0.000314234
2670	0.000323279
2680.32	0.000333968
2690.64	0.000345046
2700.95	0.000356527
2711.27	0.000368428
2720.3	0.000379198
2730.62	0.00039193
2740.93	0.000412645
2751.25	0.000446058
2760.28	0.000475202
2770.59	0.000508299
2780.91	0.000541113
2791.23	0.00057362
2800.26	0.000601823
2810.57	0.000633812
2820.89	0.000665599
2831.21	0.000697261
2840.23	0.000724932
2850.55	0.000756606
2860.87	0.000788437
2871.19	0.000820534
2880.21	0.000848928
2890.53	0.000881834
2900.85	0.000915337
2911.16	0.00094955
2920.19	0.000980156
2930.51	0.001016
2940.82	0.00105285
2951.14	0.00109063
2960.17	0.0011243
2970.48	0.00116338
2980.8	0.00120307
2991.12	0.00124336
3000.15	0.00127912
3010.46	0.00132065
3020.78	0.00136298
3031.1	0.00140624
3040.12	0.00144497
3050.44	0.0014904
3060.76	0.00153724
3071.07	0.00158565
3080.1	0.00162943
3090.42	0.00168123
3100.73	0.00173506
3111.05	0.00179109
3120.08	0.00184204
3130.39	0.00195868
3140.71	0.00208738
3151.03	0.00220861
3160.05	0.00230954
3170.37	0.00242055
3180.69	0.00252874
3191	0.00263603
3200.03	0.0027306
3210.34	0.002841
3220.66	0.00295533
3230.98	0.00307433
3240	0.00318154
3250.32	0.00330709
3260.64	0.00343612
3270.95	0.00356952
3281.27	0.00370861
3290.3	0.00383626
3300.61	0.00399032
3310.93	0.00415443
3321.24	0.00444842
3330.27	0.00473323
3340.59	0.00504736
3350.9	0.00535829
3361.22	0.00567768
3370.25	0.00597174
3380.56	0.006321
3390.88	0.00668035
3401.19	0.00705757
3410.22	0.00741202
3420.54	0.00815292
3430.85	0.00883265
3441.17	0.00952841
3450.2	0.0101789
3460.51	0.0112033
3470.83	0.0126134
3481.14	0.0141944
3490.17	0.0170518
3500.49	0.0236016
3510.8	0.0305855
3521.12	0.0368883
3530.15	0.0419811
3540.46	0.0468391
3550.78	0.0515304
3561.1	0.055432
3570.12	0.0591031
3580.44	0.0636271
3590.76	0.0684512
3601.07	0.0733744
3610.1	0.0777227
3620.42	0.0829747
3630.73	0.0885164
3641.05	0.0942167
3650.08	0.0992095
3660.39	0.105047
3670.71	0.11111
3681.03	0.117266
3690.05	0.12253
3700.37	0.128358
3710.69	0.134091
3721	0.139773
3730.03	0.144675
3740.35	0.150146
3750.67	0.15553
3760.98	0.160943
3770.01	0.165722
3780.33	0.17116
3790.67	0.176517
3801.02	0.1818
3810.07	0.186398
3820.42	0.191627
3830.76	0.196815
3841.11	0.201985
3850.16	0.206527
3860.51	0.21174
3870.86	0.216936
3881.21	0.222095
3890.26	0.226597
3900.61	0.231761
3910.96	0.236973
3920.02	0.241595
3930.37	0.246989
3940.73	0.252559
3951.08	0.258322
3960.15	0.263504
3970.5	0.269564
3980.86	0.275781
3991.21	0.282178
4000.27	0.287926
4010.63	0.29465
4020.99	0.301519
4030.05	0.307637
4040.4	0.314737
4050.76	0.321933
4061.12	0.329218
4070.19	0.335675
4080.56	0.343182
4090.95	0.350878
4100.07	0.357812
4110.49	0.36599
4120.93	0.374497
4130.07	0.382258
4140.53	0.391559
4151.02	0.401435
4160.22	0.410638
4170.74	0.421892
4181.25	0.434061
4190.45	0.445568
4200.97	0.459828
4210.17	0.473377
4220.69	0.490206
4231.21	0.508597
4240.41	0.526086
4250.92	0.547818
4260.13	0.568494
4270.64	0.594177
4281.16	0.622194
4290.36	0.648721
4300.88	0.681404
4310.08	0.712092
4320.6	0.74952
4331.11	0.789367
4340.32	0.8261
4350.83	0.870024
4360.03	0.909949
4370.55	0.956964
4381.07	1.00503
4390.27	1.04753
4400.79	1.09605
4411.3	1.14384
4420.51	1.18446
4431.02	1.2288
4440.22	1.26515
4450.74	1.30311
4461.26	1.33642
4470.46	1.361
4480.98	1.38301
4490.18	1.39617
4500.7	1.40323
4511.21	1.40064
4520.42	1.38947
4530.93	1.36531
4540.13	1.33316
4550.65	1.28257
4561.17	1.2159
4570.37	1.14337
4580.89	1.04328
4590.09	0.939852
4600.61	0.802437
4611.12	0.642442
4620.33	0.480701
4630.84	0.264571
4640.08	0.0380235
4650.66	-0.144194
4661.24	-0.215042
4670.49	-0.263875
4681.08	-0.28784
4690.34	-0.318292
4700.92	-0.344164
4710.18	-0.361289
4720.77	-0.378434
4730.03	-0.385135
4740.61	-0.40069
4751.2	-0.4128
4760.46	-0.4213
4771.04	-0.429612
4780.31	-0.435222
4790.89	-0.441469
4800.15	-0.446695
4810.74	-0.452204
4821.32	-0.443083
4830.58	-0.441785
4841.17	-0.448156
4850.43	-0.45304
4861.01	-0.457666
4870.27	-0.460995
4880.86	-0.464149
4890.12	-0.466465
4900.7	-0.468749
4911.29	-0.470762
4920.55	-0.471771
4931.11	-0.473092
4940.34	-0.474164
4950.88	-0.475383
4960.1	-0.476418
4970.63	-0.477539
4981.16	-0.478567
4990.37	-0.479375
5000.88	-0.480175
5010.1	-0.471037
5020.63	-0.472047
5031.15	-0.472951
5040.37	-0.474364
5050.89	-0.475679
5060.1	-0.476652
5070.62	-0.477555
5081.14	-0.478212
5090.35	-0.47861
5100.87	-0.47889
5110.04	-0.478994
5120.49	-0.47897
5130.94	-0.478811
5140.08	-0.478571
5150.53	-0.478194
5160.98	-0.477717
5170.12	-0.477225
5180.57	-0.476584
5191.02	-0.475862
5200.16	-0.475208
5210.57	-0.474424
5220.91	-0.473576
5231.22	-0.472673
5240.25	-0.471831
5250.57	-0.470522
5260.89	-0.469087
5271.21	-0.467621
5280.24	-0.46631
5290.56	-0.464776
5300.88	-0.463201
5311.2	-0.461582
5320.23	-0.460127
5330.54	-0.458418
5340.86	-0.456659
5351.18	-0.454849
5360.21	-0.453224
5370.53	-0.451302
5380.85	-0.449299
5391.17	-0.447232
5400.2	-0.4329
5410.52	-0.431596
5420.83	-0.430275
5431.15	-0.428944
5440.18	-0.427775
5450.5	-0.42644
5460.82	-0.425111
5471.14	-0.423789
5480.17	-0.422641
5490.49	-0.421346
5500.81	-0.420071
5511.13	-0.418821
5520.15	-0.41775
5530.47	-0.416554
5540.79	-0.415389
5551.11	-0.414256
5560.14	-0.413291
5570.46	-0.412218
5580.78	-0.411177
5591.1	-0.410166
5600.13	-0.409304
5610.44	-0.408341
5620.76	-0.407399
5631.08	-0.406469
5640.11	-0.405662
5650.43	-0.404741
5660.75	-0.403815
5671.07	-0.40288
5680.1	-0.402048
5690.42	-0.401077
5700.73	-0.40008
5711.05	-0.399051
5720.08	-0.398121
5730.4	-0.397019
5740.72	-0.395872
5751.04	-0.394677
5760.07	-0.393753
5770.39	-0.393186
5780.71	-0.393296
5791.02	-0.393233
5800.05	-0.393048
5810.37	-0.392696
5820.69	-0.392082
5831.01	-0.390986
5840.04	-0.389927
5850.36	-0.388609
5860.68	-0.387177
5870.99	-0.385636
5880.02	-0.384199
5890.34	-0.382458
5900.66	-0.380613
5910.98	-0.378665
5920.01	-0.376878
5930.33	-0.374743
5940.65	-0.37251
5950.96	-0.37018
5961.28	-0.367756
5970.31	-0.365559
5980.63	-0.36297
5990.95	-0.360309
6001.27	-0.357586
6010.3	-0.355159
6020.62	-0.352339
6030.93	-0.349474
6041.25	-0.346566
6050.28	-0.343988
6060.6	-0.341003
6070.92	-0.337977
6081.24	-0.334908
6090.27	-0.332188
6100.58	-0.329037
6110.9	-0.325841
6121.22	-0.3226
6130.25	-0.319726
6140.57	-0.316388
6150.89	-0.312986
6161.21	-0.309526
6170.24	-0.305294
6180.55	-0.300182
6190.86	-0.295085
6201.17	-0.290035
6210.2	-0.285667
6220.52	-0.280731
6230.83	-0.275842
6241.15	-0.270979
6250.18	-0.266729
6260.5	-0.261857
6270.81	-0.256954
6281.13	-0.252027
6290.16	-0.247721
6300.47	-0.242816
6310.79	-0.237921
6321.11	-0.233019
6330.14	-0.228701
6340.45	-0.223708
6350.77	-0.218626
6361.09	-0.212292
6370.12	-0.204007
6380.43	-0.195105
6390.75	-0.186705
6401.07	-0.178598
6410.09	-0.171588
6420.41	-0.163554
6430.73	-0.155595
6441.05	-0.147746
6450.07	-0.140853
6460.39	-0.131299
6470.71	-0.118691
6481.02	-0.107384
6490.05	-0.0973194
6500.37	-0.0855155
6510.69	-0.0689158
6521	-0.0501542
6530.03	-0.0305163
6540.35	0.0045497
6550.67	0.0683737
6560.98	0.111559
6570.01	0.140534
6580.33	0.161274
6590.64	0.172742
6600.96	0.177292
6611.28	0.174581
6620.31	0.175041
6630.62	0.177036
6640.94	0.180032
6651.26	0.180591
6660.28	0.179628
6670.6	0.179129
6680.92	0.179566
6691.24	0.179739
6700.26	0.178647
6710.58	0.177934
6720.9	0.179318
6731.21	0.181618
6740.24	0.182291
6750.56	0.181244
6760.88	0.179923
6771.19	0.179223
6780.22	0.178699
6790.54	0.177244
6800.85	0.175075
6811.17	0.173404
6820.2	0.172703
6830.52	0.171906
6840.83	0.170014
6851.15	0.166977
6860.18	0.164013
6870.49	0.160796
6880.81	0.157753
6891.13	0.154906
6900.16	0.152814
6910.47	0.150858
6920.79	0.148785
6931.11	0.145991
6940.13	0.142903
6950.45	0.138922
6960.77	0.134694
6971.08	0.130346
6980.11	0.126703
6990.43	0.123214
7000.75	0.120682
7011.06	0.118706
7020.09	0.116885
7030.41	0.114404
7040.72	0.111719
7051.04	0.10922
7060.07	0.107327
7070.39	0.105504
7080.7	0.104077
7091.02	0.103084
7100.05	0.10246
7110.36	0.101748
7120.68	0.100798
7131	0.0996095
7140.02	0.0985025
7150.34	0.0972972
7160.66	0.0962306
7170.97	0.0953631
7180	0.0948117
7190.32	0.09442
7200.64	0.0942273
7210.95	0.0941965
7221.27	0.0943643
7230.3	0.0947224
7240.61	0.0953827
7250.93	0.0962605
7261.25	0.0972677
7270.27	0.0981537
7280.59	0.0990006
7290.91	0.099475
7301.23	0.09947
7310.25	0.0991208
7320.57	0.0984973
7330.89	0.0978289
7341.2	0.0972502
7350.23	0.0968526
7360.55	0.0964865
7370.86	0.0961082
7381.18	0.0955843
7390.21	0.0949522
7400.53	0.0940991
7410.84	0.0933185
7421.16	0.0928958
7430.19	0.0930038
7440.5	0.0937509
7450.82	0.0950583
7461.14	0.0966433
7470.16	0.0979702
7480.48	0.0991376
7490.8	0.0997954
7501.12	0.100005
7510.14	0.0999912
7520.46	0.100005
7530.78	0.100294
7541.09	0.101022
7550.12	0.102036
7560.44	0.103531
7570.76	0.105214
7581.07	0.106928
7590.1	0.1084
7600.42	0.110086
7610.73	0.111871
7621.05	0.113849
7630.08	0.115759
7640.4	0.118088
7650.73	0.120432
7661.08	0.122588
7670.13	0.124168
7680.48	0.125509
7690.83	0.12633
7701.17	0.126706
7710.23	0.126789
7720.57	0.126766
7730.92	0.126768
7741.27	0.126899
7750.32	0.127153
7760.67	0.127598
7771.02	0.12819
7780.07	0.12882
7790.42	0.129671
7800.76	0.130676
7811.11	0.131852
7820.16	0.133026
7830.51	0.134522
7840.86	0.136157
7851.21	0.137896
7860.26	0.139491
7870.61	0.141398
7880.95	0.14342
7890.01	0.145303
7900.35	0.147598
7910.7	0.150037
7921.05	0.15259
7930.1	0.154887
7940.45	0.157551
7950.81	0.160234
7961.16	0.162917
7970.22	0.165251
7980.58	0.167875
7990.93	0.170396
8001.29	0.172725
8010.35	0.174516
8020.71	0.17617
8031.06	0.177302
8040.13	0.17781
8050.48	0.177813
8060.84	0.177217
8071.19	0.176064
8080.26	0.174637
8090.61	0.172559
8100.97	0.170018
8110.03	0.16741
8120.38	0.163975
8130.74	0.160043
8141.1	0.155627
8150.16	0.151398
8160.51	0.14621
8170.87	0.140726
8181.23	0.135028
8190.29	0.129923
8200.64	0.123996
8211	0.117996
8220.07	0.112697
8230.44	0.106601
8240.84	0.100466
8251.27	0.0943427
8260.4	0.0890423
8270.85	0.083122
8280	0.0781213
8290.5	0.0726664
8301.01	0.0675699
8310.22	0.0634626
8320.73	0.0592118
8331.25	0.0554596
8340.45	0.0525894
8350.97	0.0497624
8360.17	0.0476499
8370.69	0.045585
8381.21	0.0438107
8390.41	0.0424277
8400.93	0.0409725
8410.13	0.0397673
8420.65	0.0384399
8431.16	0.0371545
8440.36	0.0360611
8450.88	0.0348389
8460.08	0.0337759
8470.6	0.0325321
8481.12	0.0312094
8490.32	0.0299488
8500.84	0.0283605
8510.04	0.026835
8520.56	0.0249528
8531.07	0.0229607
8540.28	0.0211492
8550.79	0.0188092
8561.31	0.0151407
8570.51	0.00873197
8581.03	0.00236267
8590.23	-0.00230862
8600.75	-0.00867041
8611.27	-0.0131867
8620.46	-0.0185774
8630.98	-0.0245414
8640.18	-0.0293647
8650.7	-0.0274002
8661.21	-0.0331968
8670.42	-0.037355
8680.93	-0.0415774
8690.13	-0.0450189
8700.65	-0.0487956
8711.17	-0.052249
8720.37	-0.0550342
8730.89	-0.059345
8740.09	-0.0618718
8750.61	-0.0642607
8761.12	-0.066351
8770.32	-0.068
8780.84	-0.0697447
8790.04	-0.071259
8800.56	-0.0729575
8811.08	-0.0746157
8820.28	-0.0760878
8830.8	-0.0776528
8841.3	-0.0791035
8850.46	-0.0802618
8860.91	-0.081446
8870.05	-0.0823857
8880.5	-0.0799681
8890.95	-0.0808569
8900.09	-0.0815402
8910.54	-0.082222
8920.99	-0.0827818
8930.13	-0.083161
8940.58	-0.0834856
8951.02	-0.083715
8960.1	-0.0838527
8970.43	-0.0839547
8980.74	-0.08425
8991.06	-0.0845109
9000.09	-0.0846956
9010.41	-0.0848223
9020.73	-0.0848121
9031.05	-0.0848338
9040.08	-0.0848784
9050.4	-0.0849572
9060.72	-0.085064
9071.04	-0.0851964
9080.06	-0.0853316
9090.38	-0.085506
9100.7	-0.0856993
9111.02	-0.0859094
9120.05	-0.0841916
9130.37	-0.0848331
9140.69	-0.0854432
9151.01	-0.0860261
9160.04	-0.0865166
9170.36	-0.0870575
9180.67	-0.0898769
9190.99	-0.0905431
9200.02	-0.0910946
9210.34	-0.0916905
9220.66	-0.0922516
9230.98	-0.0927795
9240.01	-0.0932157
9250.33	-0.0936861
9260.65	-0.0941281
9270.97	-0.0945432
9281.28	-0.0949326
9290.31	-0.0952534
9300.63	-0.0955927
9310.95	-0.0959019
9321.27	-0.0961843
9330.3	-0.0964115
9340.62	-0.0966505
9350.94	-0.0968691
9361.26	-0.0970686
9370.29	-0.0972283
9380.6	-0.0973946
9390.92	-0.0975438
9401.24	-0.0976749
9410.27	-0.097775
9420.59	-0.0978732
9430.91	-0.0979546
9441.23	-0.0980198
9450.26	-0.0980638
9460.58	-0.0980995
9470.89	-0.0981891
9481.21	-0.0983654
9490.24	-0.0984918
9500.56	-0.098607
9510.88	-0.0986928
9521.2	-0.0987513
9530.23	-0.0987811
9540.55	-0.0987923
9550.87	-0.0987802
9561.18	-0.0987114
9570.21	-0.0985495
9580.53	-0.0983558
9590.85	-0.0981519
9601.17	-0.0979371
9610.2	-0.0977398
9620.52	-0.0975031
9630.84	-0.0972541
9641.16	-0.0969924
9650.19	-0.0967527
9660.5	-0.0964665
9670.82	-0.096167
9681.14	-0.0958541
9690.17	-0.0955694
9700.49	-0.0952315
9710.81	-0.0948804
9721.13	-0.0945161
9730.16	-0.0941867
9740.48	-0.0937981
9750.79	-0.093397
9761.11	-0.0929834
9770.14	-0.0926116
9780.46	-0.0921756
9790.78	-0.091728
9801.1	-0.0912691
9810.13	-0.0908586
9820.45	-0.0903797
9830.77	-0.0898909
9841.08	-0.0893927
9850.11	-0.0889495
9860.43	-0.0884351
9870.75	-0.0879126
9881.07	-0.0880019
9890.1	-0.0876026
9900.42	-0.0871405
9910.74	-0.0866722
9921.06	-0.0861977
9930.08	-0.0857755
9940.4	-0.0852842
9950.72	-0.084784
9961.04	-0.0842754
9970.07	-0.0838239
9980.39	-0.0833008
9990.71	-0.0827706
10001	-0.0822336
10010.1	-0.0817583
10020.4	-0.0812093
10030.7	-0.0806541
10041	-0.0800931
10050	-0.0795976
10060.4	-0.0790288
10070.7	-0.0784579
10081	-0.0778846
10090	-0.0773806
10100.3	-0.0768016
10110.7	-0.0760599
10121	-0.0753217
10130	-0.0746785
10140.3	-0.0739459
10150.6	-0.073216
10161	-0.0724885
10171.3	-0.0717631
10180.3	-0.07113
10190.6	-0.0704082
10200.9	-0.0696902
10211.2	-0.068973
10220.3	-0.0683462
10230.6	-0.0676315
10240.9	-0.0669185
10251.2	-0.0662073
10260.2	-0.0655868
10270.6	-0.0648788
10280.9	-0.0641726
10291.2	-0.0634681
10300.2	-0.0628531
10310.5	-0.0621516
10320.8	-0.0614519
10331.2	-0.0607538
10340.2	-0.0601445
10350.5	-0.05945
10360.8	-0.0587575
10371.1	-0.0580671
10380.2	-0.0574648
10390.5	-0.0567786
10400.8	-0.0560947
10411.1	-0.0554132
10420.1	-0.0548189
10430.5	-0.0541421
10440.8	-0.0534678
10451.1	-0.0527962
10460.1	-0.0522108
10470.4	-0.0515444
10480.8	-0.0508808
10491.1	-0.0502202
10500.1	-0.0496448
10510.4	-0.0489904
10520.7	-0.0483394
10531.1	-0.0476919
10540.1	-0.0471283
10550.4	-0.0464875
10560.7	-0.0458503
10571	-0.0452168
10580.1	-0.0446656
10590.4	-0.0439901
10600.7	-0.0432959
10611	-0.0426145
10620	-0.0420302
10630.4	-0.0413752
10640.7	-0.0407332
10651	-0.0401032
10660	-0.0395614
10670.3	-0.0389521
10680.7	-0.0383528
10691	-0.0377628
10700	-0.0372538
10710.3	-0.0366798
10720.6	-0.0361134
10731	-0.0355543
10741.3	-0.034905
10750.3	-0.0343663
10760.6	-0.0337797
10770.9	-0.03322
10781.2	-0.0326832
10790.3	-0.0322296
10800.6	-0.0317277
10810.9	-0.0312447
10821.2	-0.0307796
10830.3	-0.030386
10840.6	-0.0299498
10850.9	-0.0295263
10861.2	-0.0291136
10870.2	-0.0287598
10880.6	-0.0283624
10890.9	-0.0279708
10901.2	-0.0275835
10910.2	-0.0272472
10920.5	-0.0268645
10930.8	-0.0264825
10941.2	-0.0261002
10950.2	-0.0257652
10960.5	-0.0253813
10970.8	-0.0249961
10981.1	-0.0246088
10990.2	-0.0242679
11000.5	-0.0238754
11010.8	-0.0234791
11021.1	-0.0230787
11030.1	-0.0227247
11040.5	-0.0223161
11050.8	-0.0219035
11061.1	-0.021489
11070.1	-0.0211316
11080.4	-0.0207278
11090.8	-0.0203262
11101.1	-0.0199241
11110.1	-0.0195702
11120.4	-0.0191617
11130.7	-0.0187475
11141.1	-0.0182075
11150.1	-0.0176416
11160.4	-0.0169669
11170.7	-0.0162754
11181	-0.0155754
11190.1	-0.0149602
11200.4	-0.0142564
11210.7	-0.0135534
11221	-0.0128531
11230	-0.0122445
11240.4	-0.0115538
11250.7	-0.0108671
11261	-0.0101826
11270	-0.00957948
11280.3	-0.00888057
11290.7	-0.00817407
11301	-0.00746234
11311.3	-0.00674609
11320.3	-0.00611576
11330.6	-0.00479639
11340.9	-0.00294689
11351.3	-0.00124237
11360.3	0.000113625
11370.6	0.00151053
11380.9	0.00275517
11391.2	0.00387868
11400.3	0.00480266
11410.6	0.00579494
11420.9	0.00710982
11431.2	0.00834295
11440.3	0.0092607
11450.6	0.0102214
11460.9	0.0111511
11471.2	0.0120635
11480.2	0.0133742
11490.5	0.0148901
11500.9	0.0180924
11511.2	0.0236242
11520.2	0.0277904
11530.5	0.0332515
11540.8	0.039181
11551.2	0.0453623
11560.2	0.0514278
11570.5	0.0584777
11580.8	0.0659953
11591.1	0.0739842
11600.2	0.0810038
11610.5	0.088805
11620.8	0.0965602
11631.1	0.103958
11640.1	0.110018
11650.5	0.116346
11660.8	0.121927
11671.1	0.126736
11680.1	0.130175
11690.4	0.133101
11700.8	0.135115
11711.1	0.136514
11720.1	0.137443
11730.4	0.138297
11740.7	0.138977
11751.1	0.139592
11760.1	0.140166
11770.4	0.140849
11780.8	0.141484
11791.1	0.142045
11800.2	0.142522
11810.5	0.143131
11820.9	0.143857
11831.2	0.144707
11840.3	0.145533
11850.6	0.14651
11861	0.147443
11870	0.148186
11880.4	0.14894
11890.7	0.149585
11901.1	0.150096
11910.1	0.150433
11920.5	0.150717
11930.8	0.150915
11941.2	0.151016
11950.3	0.151012
11960.6	0.150926
11971	0.150811
11980	0.150733
11990.4	0.150688
