0	0
14.5872	0
29.174	0
43.7609	0
58.3477	0
72.9347	0
87.522	0
102.11	0
116.427	0
130.743	-9.09495e-13
145.06	-1.81899e-12
159.377	-3.63798e-12
173.693	-6.36646e-12
188.01	-1.00044e-11
202.467	-1.54614e-11
216.924	-2.27374e-11
231.381	-3.27418e-11
245.705	-4.54747e-11
260.161	-6.27551e-11
274.618	-8.36735e-11
289.075	-1.09139e-10
303.531	-1.39153e-10
317.988	-1.72804e-10
332.311	-2.09184e-10
346.645	-2.46473e-10
360.291	-2.81034e-10
374.626	-3.12866e-10
388.96	-3.36513e-10
403.295	-3.46517e-10
417.629	-3.36513e-10
431.637	-2.98314e-10
445.283	-2.25555e-10
459.29	-1.04592e-10
472.885	7.27596e-11
486.892	3.31056e-10
500.9	6.85759e-10
514.907	1.16052e-09
528.914	1.78261e-09
542.475	2.55932e-09
556.035	3.54066e-09
569.595	4.76757e-09
583.155	6.28916e-09
596.715	8.16181e-09
610.275	1.04519e-08
623.835	1.32104e-08
637.395	1.64791e-08
650.955	2.02972e-08
664.515	2.4701e-08
678.047	2.97214e-08
691.606	3.54221e-08
705.166	4.18222e-08
718.726	4.89345e-08
732.285	5.67652e-08
745.845	6.53154e-08
759.404	7.45849e-08
772.964	8.45739e-08
786.496	9.52641e-08
800.055	1.06706e-07
813.615	1.18897e-07
827.174	1.31862e-07
840.733	1.45639e-07
854.292	1.60278e-07
867.82	1.75806e-07
881.347	1.92341e-07
894.874	2.09985e-07
908.401	2.28863e-07
921.928	2.49129e-07
935.455	2.70961e-07
948.982	2.94574e-07
962.509	3.20219e-07
976.036	3.48185e-07
989.563	3.78811e-07
1003.09	4.12481e-07
1016.62	4.49636e-07
1030.14	4.90766e-07
1043.67	5.36418e-07
1057.2	5.87197e-07
1070.72	6.43769e-07
1084.25	7.06867e-07
1097.78	7.77287e-07
1111.3	8.559e-07
1124.83	9.43649e-07
1138.36	1.04155e-06
1151.88	1.15071e-06
1165.41	1.2723e-06
1178.94	1.4076e-06
1192.46	1.55797e-06
1205.99	1.72487e-06
1219.52	1.90987e-06
1233.04	2.11464e-06
1246.57	2.34099e-06
1260.09	2.59083e-06
1273.62	2.86621e-06
1287.15	3.16934e-06
1300.67	3.50256e-06
1314.2	3.8684e-06
1327.72	4.27177e-06
1341.25	4.71702e-06
1354.78	5.20721e-06
1368.3	5.74448e-06
1381.83	6.33053e-06
1395.35	6.96685e-06
1408.88	7.65481e-06
1422.41	8.39582e-06
1435.93	9.19138e-06
1449.46	1.00432e-05
1462.98	1.09532e-05
1476.51	1.19238e-05
1490.03	1.29575e-05
1503.56	1.40575e-05
1517.09	1.52274e-05
1530.61	1.64712e-05
1544.14	1.77935e-05
1557.66	1.91994e-05
1571.19	2.06949e-05
1584.71	2.22863e-05
1598.24	2.39806e-05
1611.77	2.57857e-05
1625.29	2.77098e-05
1638.82	2.97622e-05
1652.34	3.19526e-05
1665.87	3.42916e-05
1679.39	3.67904e-05
1692.68	3.94139e-05
1705.97	4.2212e-05
1719.26	4.51921e-05
1732.55	4.83608e-05
1745.84	5.17243e-05
1759.13	5.52885e-05
1772.42	5.90594e-05
1785.71	6.30435e-05
1798.99	6.72475e-05
1812.34	7.16963e-05
1825.68	7.63825e-05
1839.02	8.1315e-05
1852.36	8.65039e-05
1865.7	9.19603e-05
1879.04	9.76966e-05
1892.39	0.000103726
1905.73	0.000110065
1919.07	0.000116729
1932.41	0.000123737
1945.75	0.000131107
1959.09	0.000138861
1972.43	0.000147021
1985.78	0.000155609
1999.12	0.000164652
2012.46	0.000161738
2025.8	0.000159659
2039.14	0.000158333
2052.48	0.000157691
2065.82	0.000157676
2079.16	0.000158242
2092.51	0.000159345
2105.85	0.000160952
2119.19	0.000163036
2132.53	0.000165576
2145.87	0.000168556
2159.21	0.000171967
2172.55	0.000175803
2185.89	0.000180062
2199.23	0.000184748
2212.58	0.000189867
2225.92	0.00019543
2239.26	0.000201451
2252.6	0.000207945
2265.94	0.000214933
2279.22	0.000222406
2292.56	0.00023045
2305.9	0.000239061
2319.25	0.000248271
2332.59	0.000258109
2345.93	0.000268608
2359.27	0.000279804
2372.61	0.000291732
2385.89	0.000304402
2399.18	0.000317841
2412.52	0.000332029
2425.86	0.000346853
2439.2	0.00036228
2452.54	0.000378291
2465.88	0.000394884
2479.11	0.000411918
2492.33	0.000429548
2505.56	0.000447801
2518.78	0.000466712
2532.01	0.000486325
2545.24	0.000506688
2558.46	0.00052786
2571.69	0.000549905
2584.92	0.000572898
2598.14	0.00059692
2611.37	0.000622064
2624.6	0.000648423
2637.82	0.00067609
2651.05	0.000705155
2664.27	0.000735709
2677.5	0.000767838
2690.73	0.000801632
2703.95	0.00083718
2717.18	0.000874577
2730.4	0.000913923
2743.63	0.00100587
2756.86	0.00109821
2770.08	0.00118988
2783.31	0.00128045
2796.53	0.00136984
2809.76	0.00145826
2822.99	0.00154613
2836.21	0.00163397
2849.43	0.00172245
2862.64	0.00181227
2875.86	0.00190416
2889.08	0.00199885
2902.3	0.00209711
2915.52	0.0021997
2928.74	0.00230735
2941.96	0.00242081
2955.18	0.00254085
2968.4	0.00266578
2981.62	0.0027948
2994.84	0.00292763
3008.06	0.00306434
3021.28	0.0032053
3034.5	0.00335122
3047.71	0.00350307
3060.93	0.00366214
3074.15	0.00382997
3087.37	0.00400801
3100.59	0.00419762
3113.81	0.00464541
3127.03	0.00507197
3140.25	0.00546929
3153.47	0.00584312
3166.69	0.00620454
3179.91	0.00656701
3193.12	0.00694386
3206.34	0.00734726
3219.56	0.0077887
3232.78	0.00826424
3246	0.00876332
3259.22	0.00928938
3272.44	0.00985162
3285.66	0.0104657
3298.88	0.0118495
3312.09	0.0132343
3325.31	0.0144645
3338.53	0.0157451
3351.75	0.0172809
3364.97	0.0191416
3378.19	0.0213088
3391.41	0.0263308
3404.63	0.0301187
3417.84	0.033762
3431.06	0.0376243
3444.28	0.0415847
3457.5	0.0455379
3470.72	0.0494663
3483.94	0.0533989
3497.16	0.0573796
3510.37	0.0614495
3523.59	0.0655995
3536.81	0.0698244
3550.03	0.0741406
3563.25	0.0785995
3576.47	0.0832533
3589.69	0.0881268
3602.9	0.0932156
3616.12	0.098501
3629.34	0.103963
3642.56	0.109589
3655.78	0.115373
3669	0.121314
3682.21	0.127417
3695.43	0.133692
3708.65	0.140157
3721.87	0.146833
3735.09	0.153738
3748.31	0.160888
3761.52	0.168292
3774.74	0.175954
3787.96	0.183878
3801.18	0.192064
3814.4	0.200511
3827.62	0.20922
3840.84	0.218196
3854.05	0.227443
3867.27	0.236973
3880.49	0.246799
3893.71	0.256936
3906.93	0.267397
3920.15	0.278191
3933.37	0.289323
3946.59	0.300791
3959.8	0.312588
3973.02	0.324699
3986.24	0.337105
3999.46	0.34978
4012.68	0.362697
4025.9	0.375823
4039.12	0.389121
4052.34	0.40255
4065.56	0.416064
4078.77	0.429611
4091.99	0.443132
4105.21	0.456564
4118.43	0.469833
4131.65	0.482861
4144.87	0.495564
4158.09	0.507854
4171.31	0.519638
4184.53	0.53082
4197.75	0.541305
4210.97	0.550996
4224.19	0.559793
4237.69	0.567767
4251.19	0.574609
4264.68	0.580218
4278.18	0.584495
4291.68	0.587343
4305.18	0.58867
4318.68	0.588387
4332.18	0.586413
4345.68	0.582671
4359.18	0.577095
4372.68	0.569628
4386.18	0.560222
4399.68	0.548841
4413.17	0.535461
4426.67	0.520072
4440.17	0.502675
4453.67	0.483285
4467.17	0.461929
4480.67	0.438646
4494.17	0.413489
4507.67	0.38651
4521.17	0.357762
4534.67	0.327322
4548.17	0.295235
4561.67	0.261605
4575.17	0.226602
4588.67	0.190577
4602.17	0.152339
4615.67	0.113249
4629.17	0.0750764
4642.67	0.0237279
4656.17	-0.00997151
4669.67	-0.0416182
4683.17	-0.0691095
4696.67	-0.0941842
4710.17	-0.116175
4723.67	-0.105809
4737.17	-0.120456
4750.67	-0.133558
4764.17	-0.15074
4777.67	-0.16439
4791.17	-0.177173
4804.67	-0.189096
4818.17	-0.200437
4831.67	-0.211297
4845.19	-0.221214
4858.72	-0.229066
4872.25	-0.235871
4885.77	-0.24196
4899.3	-0.247621
4912.83	-0.253023
4926.35	-0.25826
4939.88	-0.246127
4953.41	-0.251358
4966.94	-0.256353
4980.46	-0.260847
4993.99	-0.266225
5007.52	-0.2705
5021.04	-0.27393
5034.57	-0.276731
5048.1	-0.279065
5061.62	-0.281038
5075.15	-0.282747
5088.68	-0.284239
5102.21	-0.285546
5115.73	-0.286696
5129.26	-0.287709
5142.79	-0.288431
5156.31	-0.289227
5169.84	-0.290023
5183.37	-0.290585
5196.89	-0.291071
5210.42	-0.291475
5223.95	-0.291793
5237.47	-0.292024
5251	-0.292168
5264.53	-0.292226
5278.06	-0.292201
5291.58	-0.292095
5305.11	-0.291911
5318.64	-0.291661
5332.16	-0.287305
5345.69	-0.285078
5359.22	-0.285265
5372.74	-0.285368
5386.27	-0.285386
5399.8	-0.285322
5413.33	-0.285153
5426.85	-0.284887
5440.38	-0.28453
5453.91	-0.284088
5467.43	-0.283567
5480.96	-0.282972
5494.49	-0.282308
5508.01	-0.281579
5521.54	-0.280788
5535.07	-0.279939
5548.6	-0.279032
5562.12	-0.278068
5575.65	-0.277048
5589.18	-0.275972
5602.7	-0.274842
5616.23	-0.273657
5629.76	-0.272418
5643.05	-0.271149
5656.34	-0.269828
5669.63	-0.268456
5682.91	-0.267031
5696.2	-0.265554
5709.49	-0.264072
5722.78	-0.262529
5736.07	-0.260949
5749.36	-0.259335
5762.65	-0.257691
5775.94	-0.256019
5789.23	-0.254238
5802.51	-0.252429
5815.86	-0.250588
5829.2	-0.248723
5842.54	-0.246836
5855.88	-0.244928
5869.22	-0.242999
5882.56	-0.241049
5895.91	-0.239077
5909.25	-0.237082
5922.59	-0.235063
5935.93	-0.233019
5949.27	-0.230948
5962.61	-0.228849
5975.96	-0.22672
5989.3	-0.22456
6002.64	-0.222369
6015.98	-0.220144
6029.32	-0.217887
6042.66	-0.215597
6056	-0.213274
6069.35	-0.210918
6082.69	-0.217693
6096.03	-0.216251
6109.37	-0.213728
6122.71	-0.211111
6136.05	-0.208442
6149.4	-0.205742
6162.74	-0.203025
6176.08	-0.200297
6189.42	-0.197562
6202.76	-0.19482
6216.1	-0.192068
6229.45	-0.189304
6242.79	-0.186523
6256.13	-0.183722
6269.47	-0.180897
6282.81	-0.178043
6296.15	-0.175157
6309.44	-0.172248
6322.78	-0.169289
6336.12	-0.166289
6349.46	-0.163247
6362.8	-0.160159
6376.15	-0.157054
6389.49	-0.153948
6402.83	-0.150849
6416.17	-0.14776
6429.51	-0.14468
6442.85	-0.141602
6456.2	-0.138521
6469.54	-0.135424
6482.88	-0.132302
6496.22	-0.129143
6509.56	-0.125937
6522.9	-0.122677
6536.25	-0.115871
6549.59	-0.10962
6562.93	-0.103943
6576.27	-0.09874
6589.61	-0.0938753
6602.95	-0.0892081
6616.3	-0.0846139
6629.64	-0.0799935
6642.98	-0.0752733
6656.32	-0.0704017
6669.61	-0.0653637
6682.95	-0.0602748
6696.29	-0.0551871
6709.63	-0.050088
6722.97	-0.0449281
6736.26	-0.0396586
6749.6	-0.0299289
6762.94	-0.0206939
6776.28	-0.0116509
6789.62	-0.0032815
6802.96	0.00516817
6816.31	0.0139939
6829.65	0.0230252
6842.87	0.0393413
6856.1	0.0512471
6869.33	0.0622999
6882.55	0.0713424
6895.78	0.0787759
6909.01	0.0846675
6922.23	0.0892123
6935.46	0.0926965
6948.68	0.0954048
6961.91	0.0975628
6975.14	0.0993532
6988.36	0.100754
7001.59	0.101754
7014.82	0.102525
7028.04	0.10329
7041.27	0.104207
7054.49	0.105309
7067.72	0.106531
7080.95	0.107771
7094.17	0.108926
7107.4	0.109922
7120.63	0.110715
7133.85	0.111285
7147.08	0.111627
7160.3	0.111762
7173.53	0.111747
7186.76	0.111656
7199.98	0.111559
7213.2	0.111491
7226.42	0.111446
7239.64	0.111385
7252.86	0.11125
7266.08	0.110986
7279.3	0.110551
7292.52	0.109918
7305.74	0.109081
7318.96	0.108051
7332.18	0.106856
7345.39	0.10554
7358.61	0.10416
7371.83	0.10278
7385.05	0.101459
7398.27	0.100249
7411.49	0.0991842
7424.71	0.0982853
7437.93	0.0975564
7451.15	0.0969894
7464.37	0.0965687
7477.59	0.096275
7490.81	0.0960895
7504.03	0.0959948
7517.24	0.0959761
7530.46	0.0960196
7543.68	0.0961111
7556.9	0.0962347
7570.12	0.0963718
7583.34	0.0965006
7596.56	0.0965972
7609.78	0.0966368
7623	0.0965952
7636.22	0.096451
7649.44	0.0961876
7662.66	0.0957948
7675.88	0.0952692
7689.1	0.0946145
7702.31	0.0938403
7715.53	0.092961
7728.75	0.0919939
7741.97	0.0909575
7755.19	0.08987
7768.41	0.0887484
7781.63	0.0876076
7794.85	0.0864608
7808.07	0.085319
7821.29	0.0841918
7834.51	0.0830871
7847.73	0.0820115
7860.95	0.0809696
7874.17	0.0799637
7887.38	0.0789935
7900.6	0.0780554
7913.82	0.0771418
7927.04	0.0762419
7940.26	0.0753413
7953.48	0.0744227
7966.7	0.0734674
7979.92	0.0724556
7993.14	0.0713684
8006.36	0.0701884
8019.58	0.0689008
8032.8	0.0674942
8046.02	0.0659608
8059.24	0.0642964
8072.46	0.0625003
8085.67	0.0605741
8098.89	0.0585218
8112.11	0.0563483
8125.33	0.0540588
8138.55	0.0516581
8151.77	0.0491496
8164.99	0.046536
8178.21	0.0438189
8191.43	0.040999
8204.65	0.0380744
8217.87	0.0350384
8231.09	0.0318645
8244.31	0.0285324
8257.53	0.0250466
8270.75	0.0211154
8283.96	0.0168981
8297.18	0.010721
8310.4	0.0067247
8323.62	0.00300823
8336.84	-0.000135432
8350.06	-0.00298094
8363.28	-0.00179743
8376.5	-0.00330585
8389.72	-0.00379006
8402.94	-0.0059587
8416.16	-0.00840337
8429.38	-0.0104892
8442.6	-0.0126392
8455.82	-0.0151041
8469.03	-0.0174471
8482.25	-0.0200321
8495.47	-0.0222229
8508.69	-0.0241994
8521.91	-0.0235391
8535.13	-0.0251022
8548.35	-0.0266272
8561.57	-0.0281021
8574.79	-0.0282197
8588.01	-0.0296249
8601.23	-0.0311002
8614.45	-0.032467
8627.67	-0.0336813
8640.89	-0.0347875
8654.11	-0.0358174
8667.32	-0.0367827
8680.54	-0.0377013
8693.76	-0.0386261
8706.98	-0.0395048
8720.2	-0.0403475
8733.42	-0.0411919
8746.64	-0.0420277
8759.86	-0.0431295
8773.08	-0.0441195
8786.3	-0.0450162
8799.52	-0.0458338
8812.74	-0.0465834
8825.96	-0.0472725
8839.18	-0.0479069
8852.4	-0.048491
8865.61	-0.0490315
8878.83	-0.0462736
8892.05	-0.0445807
8905.27	-0.0449358
8918.49	-0.0451796
8931.71	-0.0454028
8944.93	-0.0456063
8958.15	-0.045791
8971.37	-0.0459583
8984.59	-0.0460962
8997.81	-0.0462095
9011.03	-0.0463027
9024.25	-0.0463795
9037.47	-0.0464433
9050.69	-0.0464972
9063.9	-0.0465439
9077.12	-0.0465856
9090.34	-0.0466245
9103.56	-0.0466623
9116.78	-0.0467008
9130	-0.046741
9143.22	-0.0467836
9156.44	-0.046827
9169.66	-0.0468746
9182.88	-0.0469879
9196.1	-0.0470936
9209.32	-0.0471907
9222.54	-0.047278
9235.76	-0.0473546
9248.98	-0.0474196
9262.19	-0.0474684
9275.41	-0.0475013
9288.63	-0.0475184
9301.85	-0.0475201
9315.07	-0.0475065
9328.29	-0.0474781
9341.51	-0.047435
9354.73	-0.0474815
9367.95	-0.0475021
9381.17	-0.0474983
9394.39	-0.0474715
9407.61	-0.047423
9420.83	-0.0473538
9434.05	-0.0472651
9447.27	-0.0471579
9460.48	-0.0470329
9473.7	-0.0468911
9486.92	-0.0467332
9500.14	-0.0465599
9513.36	-0.0463719
9526.58	-0.04617
9539.8	-0.0459551
9553.02	-0.045728
9566.24	-0.0444039
9579.46	-0.0442229
9592.68	-0.0440388
9605.9	-0.0438509
9619.12	-0.0436583
9632.34	-0.0434605
9645.56	-0.0432567
9658.77	-0.0430465
9671.99	-0.0428294
9685.21	-0.0426049
9698.43	-0.0423726
9711.65	-0.0421322
9724.87	-0.0418834
9738.09	-0.041626
9751.31	-0.0413598
9764.53	-0.0410846
9777.75	-0.0408006
9790.97	-0.0405076
9804.19	-0.0402056
9817.41	-0.0398947
9830.63	-0.039574
9843.85	-0.0392437
9857.06	-0.0389039
9870.28	-0.0385548
9883.5	-0.0381966
9896.72	-0.0378294
9909.94	-0.037352
9923.16	-0.0368741
9936.38	-0.0363952
9949.6	-0.0359149
9962.82	-0.0354327
9976.04	-0.0349483
9989.26	-0.0344615
10002.5	-0.0339721
10015.7	-0.0334799
10028.9	-0.0329847
10042.1	-0.0324865
10055.4	-0.0319853
10068.6	-0.0314811
10081.8	-0.0309737
10095	-0.0304633
10108.2	-0.0299497
10121.5	-0.0294329
10134.7	-0.0289129
10147.9	-0.0283897
10161.1	-0.0278632
10174.3	-0.0273335
10187.5	-0.0268005
10200.8	-0.0262642
10214	-0.0257245
10227.2	-0.0251815
10240.4	-0.0246351
10253.6	-0.0240873
10266.9	-0.0235377
10280.1	-0.0229863
10293.3	-0.0224391
10306.5	-0.0219008
10319.7	-0.0213702
10333	-0.0208461
10346.2	-0.0203275
10359.4	-0.0198132
10372.6	-0.0193025
10385.8	-0.0187945
10399.1	-0.0182883
10412.3	-0.0177833
10425.5	-0.0172788
10438.7	-0.0167742
10451.9	-0.0161552
10465.2	-0.0155455
10478.4	-0.014944
10491.6	-0.0143497
10504.8	-0.0137617
10518	-0.013179
10531.3	-0.012601
10544.5	-0.012027
10557.7	-0.0114562
10570.9	-0.0108884
10584.1	-0.0103232
10597.3	-0.00976039
10610.6	-0.00919979
10623.8	-0.0086413
10637	-0.00808485
10650.2	-0.00753037
10663.4	-0.00688382
10676.7	-0.00627868
10689.9	-0.00570792
10703.1	-0.0051655
10716.3	-0.00464627
10729.5	-0.00414585
10742.8	-0.0036605
10756	-0.00318705
10769.2	-0.00272284
10782.4	-0.00226574
10795.6	-0.00181359
10808.9	-0.00136497
10822.1	-0.000918434
10835.3	-0.000472768
10848.6	-2.69541e-05
10862.1	0.000429469
10875.6	0.000875086
10889.1	0.00131316
10902.6	0.00174652
10916.1	0.00215828
10929.6	0.00255484
10943.1	0.00294151
10956.6	0.00332277
10970.1	0.00370239
10983.6	0.00408358
10997.1	0.00446892
11010.6	0.00486007
11024.1	0.00525866
11037.6	0.00566575
11051.1	0.00608135
11064.6	0.00650512
11078.1	0.00700461
11091.6	0.00758451
11105	0.00821444
11118.5	0.00887648
11132	0.00955413
11145.5	0.0102352
11159	0.010912
11172.5	0.011581
11186	0.0122419
11199.5	0.0128963
11213	0.0135477
11226.5	0.0148751
11240	0.0165257
11253.5	0.0181145
11267.2	0.0195197
11280.8	0.0207112
11294.4	0.0229041
11308	0.0244081
11322	0.025505
11335.9	0.0263793
11349.8	0.0271811
11363.8	0.0279837
11377.7	0.0288043
11391.6	0.0296496
11405.6	0.0305345
11419.5	0.0314412
11433.4	0.0323601
11447.4	0.0332815
11461.3	0.0342047
11475.2	0.0351298
11489.2	0.0360578
11503.1	0.0369903
11517	0.0379202
11530.9	0.0388337
11544.9	0.0397142
11558.8	0.0405491
11572.7	0.0413305
11586.7	0.0420556
11600.6	0.0427256
11614.5	0.0433442
11628.5	0.0439163
11642.4	0.0444467
11656.3	0.0449401
11670.3	0.0454
11684.2	0.0458283
11698.1	0.0462241
11712.1	0.0465841
11726	0.0469024
11739.9	0.0471712
11753.9	0.0473816
11767.8	0.0475249
11781.7	0.0475933
11795.7	0.0475812
11809.6	0.0474852
11823.5	0.0473049
11837.4	0.0470429
11851.4	0.0467041
11865.3	0.0462956
11879.2	0.0458262
11893.2	0.0453053
11907.1	0.0447426
11921	0.0441469
11935	0.0435261
11948.9	0.0428865
11962.8	0.0422328
11976.8	0.0415681
11990.7	0.0408942
