0	0
16.0343	0
24.0513	0
32.0683	0
40.0852	0
56.119	0
64.1359	0
72.1528	0
80.1697	0
96.2037	0
104.221	0
112.238	0
120.255	0
136.157	0
144.109	0
152.06	0
167.808	0
175.825	-9.09495e-13
183.842	-1.81899e-12
191.859	-2.72848e-12
207.75	-4.54747e-12
215.768	-5.45697e-12
223.758	-7.27596e-12
231.748	-9.09495e-12
247.729	-1.27329e-11
255.719	-1.54614e-11
263.709	-1.81899e-11
271.699	-2.09184e-11
287.68	-2.63753e-11
295.67	-2.91038e-11
303.66	-3.18323e-11
311.65	-3.36513e-11
327.517	-3.45608e-11
335.507	-3.36513e-11
343.345	-3.09228e-11
351.182	-2.54659e-11
366.856	-5.45697e-12
374.693	1.00044e-11
382.53	3.00133e-11
390.366	5.63887e-11
405.907	1.28239e-10
413.611	1.76442e-10
421.315	2.3374e-10
436.723	3.82897e-10
444.427	4.77485e-10
452.131	5.87534e-10
467.539	8.62201e-10
475.256	1.03046e-09
482.974	1.22236e-09
490.691	1.44064e-09
506.126	1.96542e-09
513.839	2.27828e-09
521.297	2.61662e-09
536.212	3.41151e-09
543.67	3.87536e-09
551.128	4.38922e-09
566.043	5.58066e-09
573.501	6.26824e-09
580.965	7.02403e-09
595.892	8.76207e-09
603.355	9.75615e-09
610.819	1.0843e-08
625.746	1.33232e-08
633.21	1.4732e-08
640.672	1.62599e-08
655.596	1.9696e-08
663.058	2.16132e-08
670.52	2.36678e-08
685.444	2.82043e-08
692.885	3.06873e-08
700.326	3.33221e-08
715.209	3.90655e-08
722.65	4.21842e-08
730.091	4.54729e-08
744.973	5.2567e-08
752.413	5.63732e-08
767.295	6.45023e-08
774.736	6.88215e-08
782.177	7.3308e-08
797.059	8.27731e-08
804.5	8.77462e-08
811.941	9.28767e-08
826.823	1.036e-07
834.263	1.09188e-07
841.704	1.14925e-07
856.586	1.26842e-07
864.026	1.3302e-07
871.465	1.39346e-07
886.344	1.52449e-07
893.784	1.59231e-07
901.223	1.66171e-07
916.104	1.80552e-07
923.544	1.88007e-07
930.985	1.9565e-07
945.867	2.11541e-07
953.307	2.19817e-07
960.748	2.28333e-07
975.629	2.46161e-07
983.07	2.55515e-07
990.511	2.65195e-07
1005.39	2.85644e-07
1012.83	2.96476e-07
1020.27	3.07759e-07
1035.15	3.31838e-07
1042.59	3.44719e-07
1050.04	3.58224e-07
1064.92	3.8731e-07
1072.36	4.03002e-07
1087.24	4.36984e-07
1094.68	4.55408e-07
1102.12	4.74881e-07
1117	5.17286e-07
1124.44	5.40384e-07
1131.88	5.64862e-07
1146.76	6.18343e-07
1154.2	6.47548e-07
1161.64	6.78542e-07
1176.52	7.46355e-07
1183.96	7.8342e-07
1191.4	8.22763e-07
1206.29	9.08843e-07
1213.73	9.55873e-07
1221.17	1.00577e-06
1236.05	1.11483e-06
1243.49	1.17434e-06
1250.93	1.23742e-06
1265.81	1.37507e-06
1273.25	1.45005e-06
1280.69	1.52942e-06
1295.57	1.70228e-06
1303.01	1.79626e-06
1310.45	1.8956e-06
1325.27	2.11053e-06
1332.68	2.22709e-06
1340.08	2.35056e-06
1354.9	2.61988e-06
1362.31	2.76634e-06
1377.13	3.08395e-06
1384.54	3.25546e-06
1391.95	3.43564e-06
1406.76	3.82257e-06
1414.17	4.02959e-06
1421.58	4.24583e-06
1436.21	4.70057e-06
1443.52	4.94202e-06
1450.84	5.19306e-06
1465.47	5.72474e-06
1472.78	6.00579e-06
1480.09	6.29732e-06
1494.72	6.91287e-06
1502.04	7.23751e-06
1516.67	7.92223e-06
1523.98	8.2831e-06
1531.29	8.65688e-06
1545.92	9.44504e-06
1553.24	9.86046e-06
1560.55	1.02909e-05
1575.18	1.1199e-05
1582.49	1.16782e-05
1597.12	1.269e-05
1604.44	1.32243e-05
1611.75	1.37786e-05
1626.38	1.49507e-05
1633.69	1.55705e-05
1641.01	1.6214e-05
1655.64	1.75767e-05
1662.95	1.8298e-05
1670.26	1.90475e-05
1684.89	2.0636e-05
1692.21	2.14776e-05
1706.83	2.32615e-05
1714.15	2.42059e-05
1721.46	2.51866e-05
1736.09	2.726e-05
1743.41	2.83543e-05
1750.72	2.94881e-05
1765.34	3.18759e-05
1772.66	3.31324e-05
1787.28	3.57733e-05
1794.6	3.71594e-05
1801.91	3.85902e-05
1816.54	4.15897e-05
1823.85	4.31591e-05
1831.16	4.47781e-05
1845.79	4.81659e-05
1853.1	4.9937e-05
1860.42	5.17612e-05
1875.05	5.55741e-05
1882.36	5.75657e-05
1896.99	6.17271e-05
1904.3	6.39002e-05
1911.62	6.61374e-05
1926.24	7.08118e-05
1933.56	7.32531e-05
1940.87	7.57666e-05
1955.5	8.10198e-05
1962.81	8.37642e-05
1970.13	8.65906e-05
1984.75	9.24997e-05
1992.07	9.55879e-05
2006.7	0.000102046
2014.01	0.000105422
2021.32	0.000108901
2035.95	0.000111186
2043.26	0.000110079
2050.58	0.000109153
2065.21	0.000107808
2072.52	0.000107372
2087.15	0.000106939
2094.46	0.000106929
2101.77	0.00010705
2116.4	0.000107664
2123.72	0.000108147
2131.03	0.000108743
2145.66	0.00011026
2152.97	0.000111176
2160.28	0.000112194
2174.91	0.000114528
2182.23	0.000115842
2196.85	0.00011876
2204.17	0.000120364
2211.48	0.000122063
2226.11	0.000125752
2233.42	0.000127744
2240.74	0.000129834
2255.36	0.000134318
2262.68	0.000136715
2277.3	0.000141829
2284.62	0.000144551
2291.93	0.000147386
2306.56	0.000153407
2313.87	0.000156599
2321.19	0.000159916
2335.81	0.000166941
2343.13	0.000170656
2350.44	0.00017451
2365.07	0.000182654
2372.38	0.000186952
2387.01	0.000196023
2394.32	0.000200804
2401.64	0.000205755
2416.26	0.000216195
2423.57	0.000221655
2430.83	0.000227231
2445.35	0.000238808
2452.61	0.0002448
2467.12	0.000257177
2474.38	0.000263559
2481.64	0.000270071
2496.16	0.000283485
2503.42	0.000290391
2510.68	0.000297432
2525.19	0.000311938
2532.45	0.00031941
2546.97	0.000334817
2554.23	0.000342763
2561.49	0.00035088
2576.01	0.000367651
2583.26	0.000376322
2590.52	0.000385193
2605.04	0.000403575
2612.3	0.000413105
2626.82	0.000432896
2634.08	0.000443178
2641.33	0.000453733
2655.85	0.000475703
2663.11	0.000487139
2670.37	0.000498891
2684.89	0.00052338
2692.14	0.000536139
2706.66	0.000562739
2713.92	0.0005766
2721.18	0.000590851
2735.7	0.000620566
2742.96	0.000636056
2750.21	0.000651983
2764.73	0.000685205
2771.99	0.000724144
2786.51	0.000802071
2793.77	0.000840841
2801.02	0.000879399
2815.54	0.000955807
2822.8	0.000993666
2830.06	0.00103133
2844.58	0.00110622
2851.83	0.00114356
2866.35	0.00121835
2873.61	0.00125594
2880.87	0.00129378
2895.39	0.00137049
2902.64	0.00140954
2917.16	0.00148947
2924.42	0.00153053
2931.68	0.00157243
2946.19	0.00165913
2953.45	0.0017041
2960.71	0.00175026
2975.23	0.00184638
2982.49	0.00189612
2997	0.00199838
3004.26	0.00205078
3011.52	0.002104
3026.04	0.00221293
3033.3	0.00226872
3040.55	0.00232546
3055.07	0.00244217
3062.33	0.00250234
3076.85	0.00262697
3084.1	0.00269173
3091.36	0.00275833
3105.88	0.00289766
3113.14	0.00297069
3120.4	0.00304615
3134.91	0.00320491
3142.17	0.00328849
3156.69	0.00366616
3163.95	0.00384634
3171.2	0.00402027
3185.72	0.00435202
3192.98	0.00451211
3200.24	0.00467018
3214.75	0.00498617
3222.01	0.00514701
3236.53	0.0054814
3243.79	0.00565761
3251.05	0.00584159
3265.56	0.00622499
3272.82	0.00642323
3280.08	0.006626
3294.6	0.00704832
3301.85	0.0072705
3316.37	0.00774607
3323.63	0.00800369
3330.89	0.00855481
3345.4	0.00962461
3352.66	0.0101304
3367.18	0.011142
3374.44	0.0116776
3381.7	0.0122491
3396.21	0.0135321
3403.47	0.0142163
3410.73	0.0149182
3425.25	0.017669
3432.5	0.0189057
3447.02	0.0214544
3454.28	0.0228476
3461.54	0.0243336
3476.05	0.0275534
3483.31	0.0293596
3490.57	0.0313132
3505.09	0.0353828
3512.35	0.0374024
3526.86	0.0413306
3534.12	0.0432414
3541.38	0.0451387
3555.9	0.0489639
3563.16	0.0509193
3570.42	0.0529135
3584.93	0.0570257
3592.19	0.0591431
3606.71	0.0635022
3613.97	0.0657497
3621.23	0.0680477
3635.74	0.072803
3643	0.0752592
3650.26	0.0777638
3664.78	0.0829004
3672.04	0.0855233
3686.55	0.0908626
3693.81	0.0935772
3701.07	0.0963227
3715.59	0.101917
3722.85	0.104771
3730.11	0.10767
3744.62	0.113612
3751.88	0.116663
3766.4	0.122941
3773.66	0.126174
3780.92	0.129472
3795.44	0.136266
3802.7	0.139763
3817.23	0.146964
3824.51	0.150666
3831.78	0.154432
3846.34	0.162157
3853.61	0.166116
3860.89	0.17014
3875.44	0.178392
3882.72	0.182624
3897.27	0.191312
3904.55	0.195774
3911.83	0.200318
3926.38	0.209667
3933.66	0.214478
3940.94	0.219383
3955.49	0.229484
3962.77	0.234683
3970.04	0.239983
3984.6	0.250886
3991.87	0.25649
4006.43	0.267998
4013.7	0.2739
4020.98	0.279899
4035.54	0.292178
4042.81	0.298455
4050.09	0.304819
4064.64	0.3178
4071.92	0.324409
4086.47	0.337845
4093.75	0.344663
4101.03	0.35154
4115.58	0.365448
4122.86	0.372465
4130.14	0.379513
4144.69	0.39367
4151.97	0.40076
4166.66	0.415042
4174.07	0.42221
4181.48	0.429335
4196.31	0.443405
4203.72	0.450322
4211.13	0.45714
4225.96	0.470422
4233.38	0.476855
4240.79	0.483128
4255.62	0.495127
4263.04	0.50082
4270.45	0.506286
4285.28	0.516469
4292.7	0.521151
4300.11	0.525537
4314.94	0.533349
4322.36	0.536741
4337.19	0.542408
4344.6	0.544649
4352.06	0.546484
4366.99	0.548818
4374.43	0.549284
4381.87	0.549265
4396.75	0.547714
4404.19	0.546156
4411.63	0.544057
4426.52	0.538197
4433.96	0.534413
4441.4	0.530049
4456.28	0.519546
4463.72	0.513394
4471.16	0.506636
4486.04	0.491285
4493.48	0.482689
4500.93	0.473477
4515.81	0.453216
4523.25	0.442172
4530.69	0.430524
4545.57	0.405442
4553.01	0.392024
4560.45	0.378035
4575.33	0.348384
4582.77	0.332745
4590.21	0.316578
4605.09	0.282729
4612.53	0.265092
4627.41	0.228506
4634.85	0.209529
4642.29	0.190112
4657.17	0.150221
4664.6	0.129959
4672.05	0.109608
4686.93	0.0658833
4694.37	0.0433084
4701.81	0.0224901
4716.69	-0.0164994
4724.13	-0.0391172
4731.57	-0.0570256
4746.45	-0.0867561
4753.9	-0.0992004
4761.34	-0.108019
4776.22	-0.123078
4783.66	-0.131011
4791.1	-0.139063
4805.98	-0.137186
4813.42	-0.14386
4820.86	-0.149974
4835.75	-0.163071
4843.19	-0.169442
4850.63	-0.175249
4865.51	-0.18559
4872.95	-0.190153
4880.39	-0.194359
4895.27	-0.201927
4902.71	-0.205409
4910.15	-0.208334
4925.04	-0.214506
4932.48	-0.217197
4947.36	-0.222381
4954.8	-0.224865
4962.24	-0.227274
4977.12	-0.231847
4984.56	-0.234
4992	-0.236059
5006.89	-0.239899
5014.33	-0.228828
5021.77	-0.230622
5036.65	-0.233949
5044.09	-0.235747
5051.53	-0.237984
5066.41	-0.241842
5073.85	-0.243467
5081.29	-0.244917
5096.18	-0.24737
5103.62	-0.248404
5111.06	-0.249328
5125.94	-0.250885
5133.35	-0.251534
5140.76	-0.25211
5155.57	-0.253077
5162.98	-0.253479
5170.39	-0.253836
5185.21	-0.25443
5192.62	-0.254675
5200.03	-0.25489
5214.84	-0.255081
5222.25	-0.255185
5237.07	-0.255397
5244.48	-0.25543
5251.89	-0.255452
5266.7	-0.255459
5274.11	-0.255442
5281.52	-0.255412
5296.24	-0.255309
5303.56	-0.255236
5310.87	-0.255147
5325.5	-0.254923
5332.81	-0.254786
5340.13	-0.254634
5354.76	-0.254281
5362.07	-0.254081
5376.7	-0.25364
5384.02	-0.253394
5391.33	-0.250458
5405.96	-0.248322
5413.27	-0.248299
5420.59	-0.248258
5435.22	-0.248125
5442.53	-0.248034
5457.16	-0.247803
5464.47	-0.247659
5471.79	-0.247494
5486.42	-0.247108
5493.73	-0.246887
5501.04	-0.246649
5515.67	-0.246123
5522.99	-0.245837
5530.3	-0.245535
5544.93	-0.244889
5552.24	-0.244545
5566.87	-0.243819
5574.19	-0.243438
5581.5	-0.243044
5596.13	-0.242221
5603.44	-0.241793
5610.75	-0.241354
5625.38	-0.240441
5632.7	-0.239967
5640.01	-0.239481
5654.63	-0.238474
5661.95	-0.237952
5676.58	-0.236873
5683.89	-0.236314
5691.2	-0.235743
5705.83	-0.234564
5713.14	-0.233955
5720.45	-0.233333
5735.08	-0.23205
5742.4	-0.231388
5757.03	-0.230024
5764.34	-0.229338
5771.65	-0.228636
5786.28	-0.227194
5793.6	-0.226458
5800.91	-0.225712
5815.54	-0.224193
5822.85	-0.223421
5830.17	-0.22264
5844.8	-0.220975
5852.11	-0.220129
5866.74	-0.218413
5874.05	-0.217545
5881.37	-0.216669
5896	-0.214899
5903.31	-0.214004
5910.63	-0.213103
5925.25	-0.211284
5932.57	-0.210365
5947.2	-0.20851
5954.51	-0.207574
5961.83	-0.206632
5976.45	-0.204729
5983.77	-0.203769
5991.08	-0.202802
6005.71	-0.200849
6013.03	-0.199863
6020.34	-0.198871
6034.97	-0.196865
6042.28	-0.195852
6056.91	-0.193807
6064.23	-0.192774
6071.54	-0.191734
6086.17	-0.189636
6093.48	-0.188577
6100.8	-0.187512
6115.43	-0.185364
6122.74	-0.18428
6130.05	-0.183191
6144.68	-0.181157
6152	-0.180193
6166.63	-0.178209
6173.94	-0.177197
6181.25	-0.176177
6195.88	-0.174114
6203.2	-0.173074
6210.51	-0.17203
6225.14	-0.169927
6232.45	-0.168869
6247.08	-0.16674
6254.4	-0.165668
6261.71	-0.16459
6276.34	-0.162418
6283.65	-0.161322
6290.97	-0.160219
6305.6	-0.15799
6312.91	-0.156863
6320.23	-0.155728
6334.86	-0.153431
6342.17	-0.152268
6356.8	-0.149913
6364.11	-0.148719
6371.43	-0.147515
6386.06	-0.145075
6393.37	-0.143838
6400.68	-0.142594
6415.3	-0.140091
6422.62	-0.138836
6437.18	-0.136338
6444.44	-0.135094
6451.7	-0.13385
6466.22	-0.131363
6473.48	-0.130119
6480.74	-0.128873
6495.25	-0.126371
6502.51	-0.125113
6517.03	-0.122576
6524.29	-0.121296
6531.55	-0.120005
6546.07	-0.11739
6553.32	-0.116065
6560.58	-0.114726
6575.1	-0.109256
6582.36	-0.106704
6596.88	-0.101944
6604.14	-0.099714
6611.39	-0.0975646
6625.91	-0.0934472
6633.17	-0.0914498
6640.43	-0.0894753
6654.95	-0.0855482
6662.21	-0.0835756
6676.72	-0.0795719
6683.98	-0.0775282
6691.24	-0.0754493
6705.76	-0.0712508
6713.02	-0.0691449
6720.28	-0.0670366
6734.79	-0.0628018
6742.05	-0.0606643
6756.57	-0.0563127
6763.83	-0.054084
6771.09	-0.0518115
6785.6	-0.0436443
6792.86	-0.0397249
6800.12	-0.0359577
6814.64	-0.0286925
6821.9	-0.0250918
6836.42	-0.0177635
6843.67	-0.014003
6850.93	-0.0101761
6865.45	-0.00255243
6872.71	0.00116847
6887.23	0.0129743
6894.49	0.0179241
6901.74	0.0226462
6916.26	0.0319307
6923.52	0.0365299
6930.78	0.0410401
6945.3	0.0501904
6952.56	0.0548919
6967.07	0.0632625
6974.33	0.0666573
6981.59	0.0695149
6996.11	0.0737044
7003.37	0.075221
7010.63	0.0764952
7025.14	0.0786143
7032.4	0.0795421
7046.92	0.0812195
7054.18	0.0819849
7061.44	0.0827107
7075.96	0.0840934
7083.21	0.0847815
7090.47	0.0854866
7104.99	0.0869729
7112.25	0.0877464
7126.77	0.0892852
7134.03	0.090014
7141.28	0.0906911
7155.8	0.0918305
7163.06	0.0922725
7170.32	0.0926241
7184.84	0.0930712
7192.1	0.0931849
7206.61	0.0932607
7213.87	0.0932538
7221.13	0.0932374
7235.65	0.0932306
7242.91	0.0932614
7250.17	0.093324
7264.68	0.0935488
7271.94	0.0937034
7286.46	0.0940527
7293.72	0.0942235
7300.98	0.0943747
7315.49	0.0945707
7322.75	0.0945965
7330.01	0.0945653
7344.53	0.094321
7351.79	0.0941087
7366.31	0.0935217
7373.56	0.0931592
7380.82	0.0927609
7395.34	0.0918917
7402.6	0.0914389
7417.12	0.090541
7424.38	0.0901119
7431.64	0.0897054
7446.15	0.0889813
7453.41	0.0886717
7460.67	0.0884003
7475.19	0.0879761
7482.45	0.0878229
7496.96	0.0876279
7504.22	0.0875821
7511.48	0.0875677
7526.04	0.0876235
7533.31	0.0876888
7540.59	0.087776
7555.14	0.0880078
7562.42	0.0881485
7576.98	0.0884709
7584.25	0.0886491
7591.53	0.0888364
7606.08	0.0892302
7613.36	0.0894324
7620.64	0.0896352
7635.19	0.0900312
7642.47	0.0902189
7657.02	0.0905584
7664.3	0.0907042
7671.58	0.0908302
7686.13	0.0910122
7693.41	0.0910636
7700.68	0.0910861
7715.24	0.0910399
7722.52	0.0909698
7737.07	0.0907358
7744.35	0.090573
7751.62	0.0903811
7766.18	0.089916
7773.45	0.0896461
7780.73	0.0893538
7795.29	0.0887099
7802.56	0.0883621
7817.12	0.0876243
7824.39	0.0872378
7831.67	0.0868419
7846.22	0.0860284
7853.5	0.0856139
7860.78	0.085196
7875.33	0.0843557
7882.61	0.0839358
7897.16	0.083102
7904.44	0.0826898
7911.72	0.0822817
7926.27	0.0814787
7933.55	0.0810839
7940.83	0.0806931
7955.38	0.0799205
7962.66	0.0795363
7977.21	0.0787644
7984.49	0.0783728
7991.77	0.0779746
8006.32	0.077149
8013.6	0.0767167
8020.87	0.0762682
8035.43	0.0753136
8042.7	0.0748033
8057.26	0.0737074
8064.54	0.073119
8071.81	0.0725022
8086.37	0.0711802
8093.64	0.0704743
8100.92	0.0697384
8115.47	0.0681775
8122.75	0.0673533
8130.03	0.066501
8144.58	0.064715
8151.86	0.063783
8166.41	0.0618459
8173.69	0.0608425
8180.97	0.0598171
8195.52	0.0577033
8202.8	0.0566162
8210.08	0.0555098
8224.63	0.0532404
8231.91	0.0520778
8246.46	0.049697
8253.74	0.0484781
8261.02	0.0472397
8275.57	0.0447006
8282.85	0.0433977
8290.12	0.0420707
8304.68	0.0393366
8311.95	0.0379244
8326.51	0.0349916
8333.79	0.0334618
8341.06	0.0318801
8355.62	0.0285202
8362.89	0.0267276
8370.17	0.0248609
8384.73	0.0209158
8392	0.0188155
8406.56	0.0136183
8413.83	0.0110966
8421.11	0.00813267
8435.66	0.0028805
8442.94	0.000433682
8450.22	-0.00181481
8464.77	-0.00559013
8472.05	-0.00713269
8486.6	-0.0101549
8493.88	-0.00917579
8501.16	-0.010433
8515.71	-0.0122586
8522.99	-0.0138555
8530.27	-0.0152443
8544.82	-0.0177502
8552.1	-0.0189108
8566.65	-0.0212631
8573.93	-0.0224595
8581.21	-0.0236199
8595.76	-0.0260467
8603.04	-0.0271371
8610.31	-0.028168
8624.87	-0.0300897
8632.14	-0.0309924
8646.7	-0.0305425
8653.98	-0.0312725
8661.25	-0.0319727
8675.81	-0.0333045
8683.08	-0.0329707
8690.36	-0.0336106
8704.91	-0.0349557
8712.19	-0.0355597
8726.75	-0.036659
8734.02	-0.037162
8741.3	-0.0376375
8755.85	-0.0385201
8763.13	-0.0389335
8770.41	-0.0393323
8784.96	-0.0400963
8792.24	-0.0404654
8806.79	-0.0411849
8814.07	-0.0415374
8821.35	-0.0418864
8835.9	-0.0425319
8843.18	-0.0428585
8850.46	-0.0431875
8865.01	-0.0440585
8872.29	-0.0444613
8886.84	-0.0452091
8894.12	-0.0455565
8901.39	-0.0458876
8915.95	-0.0465034
8923.23	-0.0467894
8930.5	-0.0470615
8945.06	-0.0475653
8952.33	-0.047798
8966.89	-0.0482269
8974.17	-0.048424
8981.44	-0.0486099
8996	-0.0461093
9003.27	-0.0446105
9010.55	-0.0447751
9025.1	-0.0450211
9032.38	-0.0451357
9046.94	-0.0453488
9054.21	-0.0454477
9061.49	-0.0455415
9076.04	-0.0457037
9083.32	-0.045773
9090.6	-0.0458351
9105.15	-0.045939
9112.43	-0.0459816
9126.98	-0.0460502
9134.26	-0.0460768
9141.54	-0.0460989
9156.09	-0.0461309
9163.37	-0.0461415
9170.65	-0.0461491
9185.2	-0.0461561
9192.48	-0.0461563
9207.03	-0.0461504
9214.31	-0.0461449
9221.58	-0.0461378
9236.14	-0.046119
9243.42	-0.0461075
9250.69	-0.0460944
9265.25	-0.0460641
9272.52	-0.0460468
9287.08	-0.0460078
9294.35	-0.045986
9301.63	-0.0459633
9316.19	-0.0459144
9323.46	-0.0459041
9330.74	-0.0458905
9345.29	-0.0458532
9352.57	-0.0458297
9367.13	-0.0457715
9374.4	-0.0457356
9381.68	-0.0456954
9396.23	-0.045603
9403.51	-0.045551
9410.79	-0.0454953
9425.34	-0.0454301
9432.62	-0.0454175
9447.17	-0.0453739
9454.45	-0.0453432
9461.73	-0.045307
9476.28	-0.0452187
9483.56	-0.045167
9490.84	-0.0451105
9505.39	-0.0449836
9512.67	-0.0449135
9527.22	-0.0447608
9534.5	-0.0446784
9541.77	-0.0445922
9556.33	-0.0444086
9563.61	-0.0443114
9570.88	-0.0442107
9585.43	-0.0439994
9592.69	-0.0438891
9607.21	-0.0436593
9614.47	-0.0435399
9621.73	-0.0434177
9636.25	-0.0431647
9643.5	-0.0430342
9650.76	-0.0429011
9665.28	-0.0426272
9672.54	-0.0423834
9687.06	-0.0421468
9694.32	-0.0420282
9701.57	-0.0419093
9716.09	-0.0416702
9723.35	-0.0415499
9730.61	-0.0414289
9745.13	-0.0411848
9752.39	-0.0410615
9766.9	-0.0408121
9774.16	-0.0406853
9781.42	-0.0405569
9795.94	-0.0402954
9803.2	-0.0401622
9810.46	-0.0400273
9824.97	-0.0397527
9832.23	-0.0396128
9846.75	-0.0393281
9854.01	-0.0370487
9861.27	-0.0368565
9875.79	-0.0364709
9883.05	-0.0363295
9890.3	-0.0361874
9904.82	-0.0359004
9912.08	-0.0357553
9926.6	-0.0354615
9933.86	-0.0353126
9941.12	-0.0351623
9955.63	-0.034857
9962.89	-0.0347019
9970.15	-0.0345451
9984.67	-0.0342262
9991.93	-0.034064
10006.4	-0.0337339
10013.7	-0.0335659
10021	-0.0333959
10035.5	-0.0330498
10042.7	-0.0328737
10057.3	-0.0325152
10064.5	-0.0323328
10071.8	-0.0321482
10086.3	-0.0317726
10093.6	-0.0315816
10100.8	-0.0313883
10115.3	-0.0309953
10122.6	-0.0307956
10137.1	-0.0303897
10144.4	-0.0301835
10151.6	-0.0299752
10166.1	-0.0295525
10173.4	-0.029338
10180.7	-0.0291215
10195.2	-0.0286824
10202.4	-0.0284598
10217	-0.0280088
10224.2	-0.0277804
10231.5	-0.0275501
10246	-0.0270838
10253.2	-0.0268479
10260.5	-0.0266101
10275	-0.0261292
10282.3	-0.0258861
10296.8	-0.0253947
10304.1	-0.0251464
10311.3	-0.0248965
10325.8	-0.0243937
10333.1	-0.0241423
10340.4	-0.0238908
10354.9	-0.0233872
10362.1	-0.0231348
10376.6	-0.0226298
10383.9	-0.0223771
10391.2	-0.022124
10405.7	-0.0216167
10412.9	-0.0213624
10420.2	-0.0211076
10434.7	-0.0205962
10442	-0.0203395
10456.5	-0.0198244
10463.7	-0.0195659
10471	-0.0193069
10485.5	-0.0187872
10492.8	-0.0185265
10500	-0.0182654
10514.6	-0.0177417
10521.8	-0.0174311
10536.3	-0.0168162
10543.6	-0.0165118
10550.9	-0.0162093
10565.4	-0.01561
10572.6	-0.015313
10587.1	-0.0147287
10594.4	-0.0144411
10601.7	-0.0141562
10616.2	-0.013594
10623.4	-0.0133164
10630.7	-0.013041
10645.2	-0.0124958
10652.5	-0.0122258
10667	-0.0116904
10674.3	-0.0114247
10681.5	-0.0111603
10696	-0.0106348
10703.3	-0.0103737
10710.5	-0.0101135
10725.1	-0.00959564
10732.3	-0.00933794
10746.8	-0.00882477
10754.1	-0.00856922
10761.4	-0.00831435
10775.9	-0.00780654
10783.1	-0.00755368
10790.4	-0.00730155
10804.9	-0.00679958
10812.2	-0.00652119
10826.7	-0.00599734
10833.9	-0.00574946
10841.2	-0.00550951
10855.7	-0.00504969
10863	-0.00482819
10870.2	-0.00461132
10884.8	-0.00418902
10892	-0.00398249
10906.5	-0.00357635
10913.8	-0.00337594
10921.1	-0.00317684
10935.6	-0.00278138
10942.8	-0.00258452
10950.1	-0.00238794
10964.6	-0.00199492
10971.9	-0.00179818
10986.4	-0.00140362
10993.6	-0.00120563
11000.9	-0.00100687
11015.4	-0.000616261
11022.7	-0.000423648
11037.3	-4.24666e-05
11044.5	0.000146772
11051.8	0.000335517
11066.4	0.000712607
11073.7	0.000901272
11080.9	0.00109012
11095.5	0.00146867
11102.8	0.00165404
11110	0.00183617
11124.6	0.00219361
11131.9	0.00237019
11146.4	0.00272168
11153.7	0.0028975
11161	0.00307388
11175.5	0.00342948
11182.8	0.00360916
11190.1	0.00379039
11204.8	0.00416161
11212.2	0.00435189
11227	0.0047387
11234.4	0.00493522
11241.8	0.00513379
11256.7	0.00553704
11264.1	0.00578412
11271.5	0.00605372
11286.3	0.00663699
11293.7	0.00694216
11301.2	0.00725233
11316	0.00787951
11323.4	0.00819563
11330.8	0.00851284
11345.6	0.00914794
11353.1	0.00946488
11360.5	0.00978094
11375.5	0.0104196
11383.2	0.010742
11390.8	0.0110629
11406.1	0.0116993
11413.8	0.0120144
11421.4	0.0123269
11436.8	0.0129445
11444.4	0.0137296
11452.1	0.0145239
11467.4	0.0160206
11475	0.0166987
11482.7	0.0173236
11490.3	0.0178991
11505.6	0.0192483
11513.3	0.0197898
11520.9	0.0203225
11536.2	0.0213953
11543.9	0.0219468
11551.5	0.0225025
11566.8	0.0236027
11574.5	0.0241582
11582.1	0.024655
11597.4	0.0256018
11605.1	0.0261021
11612.7	0.026623
11620.4	0.0271578
11635.7	0.0282493
11643.3	0.0288025
11651	0.0293613
11666.3	0.0304963
11673.9	0.0310688
11681.6	0.0316416
11696.9	0.0327846
11704.5	0.0333539
11712.2	0.0339207
11727.5	0.0350394
11735.1	0.0355874
11742.8	0.0361252
11750.4	0.0366516
11765.7	0.037668
11773.4	0.0381579
11781	0.0386359
11796.3	0.0395574
11804	0.0400009
11811.6	0.0404326
11826.9	0.0412605
11834.6	0.0416565
11842.2	0.0420407
11857.5	0.042774
11865.2	0.0431236
11872.9	0.0434622
11880.5	0.0437899
11895.8	0.044413
11903.5	0.0447082
11911.1	0.044992
11926.4	0.0455229
11934.1	0.0457683
11941.7	0.045999
11957	0.0464119
11964.7	0.0465921
11972.3	0.0467536
11987.6	0.0470183
11995.3	0.047121
