CPUS: 0 1 2 3 4 5 6 7 8 9 10 11
SPLIT SIZES: 128 512 2048 4096
Split Size: 128
Threads	MTPS	SPEEDUP	SPEEDUP_PER	KML_SPEEDUP	KML_SPEEDUP_TO_NONAFFINITY
1	2.61483	1.0000	1.0000	1.0000	-.0037
2	5.69396	2.1775	1.0887	1.8275	-.1639
3	6.99731	2.6760	.8920	2.7825	.0358
4	8.36081	3.1974	.7993	3.5963	.1204
5	10.118	3.8694	.7738	4.4056	.1342
6	11.7669	4.5000	.7500	5.2343	.1587
7	13.4288	5.1356	.7336	5.5566	.0778
8	14.9841	5.7304	.7163	5.9925	.0417
9	16.5544	6.3309	.7034	6.4523	.0152
10	17.9161	6.8517	.6851	6.9106	.0047
11	19.3131	7.3859	.6714	7.4360	.0029
12	20.4456	7.8190	.6515	7.8610	.0015
Split Size: 512
Threads	MTPS	SPEEDUP	SPEEDUP_PER	KML_SPEEDUP	KML_SPEEDUP_TO_NONAFFINITY
1	4.01804	1.0000	1.0000	1.0000	.0285
2	7.97779	1.9854	.9927	1.8631	-.0348
3	10.6973	2.6623	.8874	2.7299	.0546
4	13.0428	3.2460	.8115	3.5664	.1300
5	15.8388	3.9419	.7883	4.3566	.1367
6	18.3426	4.5650	.7608	5.0810	.1447
7	21.0905	5.2489	.7498	5.4490	.0677
8	23.3306	5.8064	.7258	5.8739	.0404
9	25.6689	6.3884	.7098	6.3042	.0149
10	27.577	6.8632	.6863	6.7243	.0077
11	29.7822	7.4121	.6738	7.2341	.0038
12	31.2964	7.7889	.6490	7.5773	.0005
Split Size: 2048
Threads	MTPS	SPEEDUP	SPEEDUP_PER	KML_SPEEDUP	KML_SPEEDUP_TO_NONAFFINITY
1	4.48512	1.0000	1.0000	1.0000	-.0097
2	8.74176	1.9490	.9745	1.9383	-.0152
3	12.1417	2.7071	.9023	2.8142	.0293
4	15.1157	3.3701	.8425	3.6922	.0848
5	18.3632	4.0942	.8188	4.5114	.0911
6	21.2632	4.7408	.7901	5.2845	.1037
7	24.0529	5.3628	.7661	5.7349	.0589
8	26.628	5.9369	.7421	6.2060	.0350
9	29.0499	6.4769	.7196	6.6433	.0156
10	31.1858	6.9531	.6953	7.0532	.0044
11	33.422	7.4517	.6774	7.5423	.0022
12	34.8178	7.7629	.6469	7.8491	.0011
Split Size: 4096
Threads	MTPS	SPEEDUP	SPEEDUP_PER	KML_SPEEDUP	KML_SPEEDUP_TO_NONAFFINITY
1	4.5615	1.0000	1.0000	1.0000	-.0054
2	8.8788	1.9464	.9732	1.9443	-.0065
3	12.0833	2.6489	.8829	2.8006	.0514
4	15.4767	3.3928	.8482	3.6208	.0613
5	18.6172	4.0813	.8162	4.3763	.0664
6	21.3397	4.6782	.7797	5.0902	.0821
7	23.9386	5.2479	.7497	5.5186	.0458
8	26.2655	5.7580	.7197	5.8971	.0185
9	28.257	6.1946	.6882	6.3019	.0117
10	29.902	6.5552	.6555	6.6516	.0091
11	31.8854	6.9901	.6354	6.9408	-.0124
12	32.5116	7.1273	.5939	7.2191	.0073
