0	0	353244
10.9753	0	376700
20.938	0	391970
30.8999	0	405438
40.8619	0	417498
50.809	0	426670
60.6497	0	433436
70.4588	0	439026
80.2663	0	444492
90.023	0	449182
100.644	0	453442
110.257	0	456696
120.831	0	460058
130.45	0	463286
140.106	0	466632
150.776	0	469926
160.418	0	472854
170.115	0	475506
180.952	0	478988
190.959	0	481598
200.094	0	483970
210.26	0	486796
220.426	0	489670
230.592	0	492580
240.759	0	495096
250.942	0	497800
260.124	0	500446
270.324	0	503246
280.521	0	506114
290.718	0	508622
300.915	0	511084
310.093	0	513860
320.29	0	517030
330.473	0	520450
340.65	0	524048
350.818	0	527692
360.984	0	531436
370.133	0	534884
380.298	0	538860
390.463	0	542636
400.629	0	545762
410.799	0	549438
420.973	0	553278
430.129	0	556642
440.302	0	560244
450.476	0	563860
460.65	0	567776
470.823	0	571506
480.997	0	575602
490.153	0	578680
500.304	0	582342
510.376	0	585814
520.37	0	589270
530.34	0	593152
540.304	0	596836
550.268	0	600500
560.236	0	603956
570.209	0	607668
580.197	0	611520
590.189	0	615342
600.19	0	619564
610.193	0	623388
620.206	0	627256
630.247	0	631292
640.447	0	635138
650.724	0	639172
661.02	0	643312
670.261	0	647530
680.517	0	651988
690.773	0	656216
700.011	0	660310
710.282	0	664894
720.552	0	669434
730.823	0	673930
740.067	0	678192
750.323	0	682686
760.566	0	687100
770.808	0	691656
780.025	0	695674
790.267	0	700202
800.509	0	704750
810.742	0	709586
820.953	0	714022
830.135	0	718468
840.335	0	723286
850.533	0	727958
860.73	0	732776
870.927	0	737394
880.104	0	741658
890.301	0	746132
900.498	0	751102
910.695	0	755924
920.88	0	760702
930.041	0	765608
940.215	0	770690
950.381	0	775762
960.547	0	780542
970.714	0	785902
980.881	0	790948
990.031	0	795338
1000.2	0	801088
1010.36	0	806164
1020.53	0	811440
1030.7	0	816742
1040.87	0	821652
1050.02	0	826206
1060.18	0	831514
1070.35	0	837134
1080.52	0	842370
1090.69	0	847868
1100.85	0	853324
1110	0	858046
1120.17	0	863358
1130.34	0	868714
1140.51	0	873800
1150.68	0	878568
1160.84	0	883726
1171.01	0	888642
1180.16	0	892596
1190.33	0	897904
1200.5	0	902714
1210.67	0	907450
1220.84	0	912418
1231.01	0	917016
1240.16	0	921646
1250.33	0	926282
1260.5	0	931224
1270.67	0	935472
1280.84	0	939904
1291.01	0	944512
1300.16	0	948812
1310.33	0	953678
1320.5	0	958288
1330.66	0	963150
1340.83	0	967856
1351	0	972760
1360.15	0	977242
1370.28	0	982074
1380.31	0	986334
1390.29	0	990788
1400.26	0	995218
1410.22	0	999738
1420.18	0	1004724
1430.15	0	1009256
1440.11	0	1014020
1450.08	0	1018918
1460.04	0	1024020
1470	0	1028974
1480.96	0	1034732
1490.93	0	1039900
1500.89	0	1045056
1510.85	0	1049538
1520.81	0	1054198
1530.78	0	1058618
1540.74	0	1061996
1550.7	0	1065710
1560.66	0	1069044
1570.62	0	1072278
1580.59	0	1075646
1590.55	0	1079396
1600.51	0	1082826
1610.47	0	1086722
1620.44	0	1090410
1630.4	0	1093704
1640.36	0	1097222
1650.32	0	1101096
1660.28	0	1104434
1670.25	0	1107894
1680.21	0	1111512
1690.17	0	1115354
1700.13	0	1118872
1710.1	0	1122584
1720.06	0	1126560
1730.02	0	1129692
1740.98	0	1133160
1750.94	0	1136684
1760.9	0	1139928
1770.87	0	1143280
1780.83	0	1146258
1790.79	0	1149530
1800.75	-5.45697e-12	1152782
1810.72	-1.09139e-11	1156212
1820.68	-1.63709e-11	1159818
1830.64	-2.45564e-11	1163236
1840.6	-3.27418e-11	1167004
1850.57	-4.18368e-11	1170436
1860.53	-5.09317e-11	1174040
1870.53	-6.00267e-11	1177206
1880.54	-6.91216e-11	1180686
1890.7	-7.82165e-11	1184296
1900.92	-9.27685e-11	1187370
1910.14	-1.09139e-10	1190950
1920.5	-1.27329e-10	1194178
1930.84	-1.50067e-10	1197420
1940.12	-1.74623e-10	1200270
1950.42	-2.06455e-10	1203334
1960.72	-2.43745e-10	1206704
1970	-2.84672e-10	1209798
1980.31	-3.38332e-10	1212750
1990.62	-4.01997e-10	1216230
2000.93	-4.77485e-10	1219556
2010.21	-5.56611e-10	1222362
2020.54	-6.61203e-10	1225344
2030.85	-7.84894e-10	1228568
2040.13	-9.14952e-10	1231164
2050.44	-1.08321e-09	1234474
2060.74	-1.28148e-09	1237542
2070.05	-1.48975e-09	1240556
2080.43	-1.76169e-09	1243916
2090.88	-2.08274e-09	1247352
2100.21	-2.41562e-09	1250712
2110.62	-2.84854e-09	1254218
2120.02	-3.30147e-09	1257618
2130.48	-3.88809e-09	1260816
2140.93	-4.56839e-09	1264764
2150.33	-5.27598e-09	1267998
2160.74	-6.18093e-09	1271284
2170.03	-7.11043e-09	1274414
2180.35	-8.29823e-09	1277764
2190.66	-9.66884e-09	1281254
2200.98	-1.12532e-08	1285064
2210.29	-1.28912e-08	1288036
2220.65	-1.49766e-08	1291776
2230.97	-1.7365e-08	1295072
2240.24	-1.98133e-08	1298378
2250.56	-2.29165e-08	1300584
2260.86	-2.64699e-08	1303422
2270.15	-3.01079e-08	1306044
2280.48	-3.47018e-08	1308169
2290.82	-3.99541e-08	1310607
2300.11	-4.53001e-08	1312933
2310.42	-5.20167e-08	1314503
2320.73	-5.96592e-08	1317183
2330.02	-6.74245e-08	1319653
2340.34	-7.71661e-08	1322145
2350.68	-8.82228e-08	1324311
2361.03	-1.00761e-07	1326471
2370.35	-1.13465e-07	1329229
2380.7	-1.29308e-07	1331589
2391.01	-1.4712e-07	1333865
2400.29	-1.65079e-07	1335697
2410.64	-1.8752e-07	1337397
2420.02	-2.10272e-07	1339103
2430.38	-2.38358e-07	1340957
2440.68	-2.69722e-07	1343091
2450.99	-3.04885e-07	1344355
2460.26	-3.4013e-07	1346231
2470.6	-3.8384e-07	1348419
2480.94	-4.32741e-07	1350122
2490.25	-4.81626e-07	1352132
2500.69	-5.42533e-07	1354536
2510.04	-6.03027e-07	1357326
2520.35	-6.76862e-07	1359944
2530.66	-7.59027e-07	1363016
2541.01	-8.50765e-07	1366124
2550.29	-9.41478e-07	1368726
2560.59	-1.05264e-06	1371906
2570.9	-1.17578e-06	1375164
2580.2	-1.29816e-06	1378644
2590.53	-1.44776e-06	1382384
2600.85	-1.61291e-06	1385450
2610.16	-1.77646e-06	1388192
2620.49	-1.97573e-06	1392040
2630.82	-2.19508e-06	1395384
2640.1	-2.41123e-06	1398844
2650.46	-2.67517e-06	1402278
2660.8	-2.96438e-06	1405445
2670.12	-3.24951e-06	1408611
2680.48	-3.59583e-06	1412129
2690.83	-3.97458e-06	1416073
2700.12	-4.34547e-06	1418905
2710.5	-4.79682e-06	1422211
2720.86	-5.28936e-06	1425341
2730.15	-5.76951e-06	1427663
2740.48	-6.34895e-06	1430291
2750.81	-6.9814e-06	1432561
2760.21	-7.60521e-06	1435281
2770.59	-8.35312e-06	1437999
2780.94	-9.16329e-06	1440123
2790.26	-9.95337e-06	1443179
2800.77	-1.0917e-05	1445115
2810.23	-1.18554e-05	1447677
2820.64	-1.29717e-05	1449981
2830.07	-1.40634e-05	1452081
2840.55	-1.53716e-05	1454693
2851.05	-1.67903e-05	1457019
2860.51	-1.81682e-05	1459163
2871.01	-1.98156e-05	1461511
2880.49	-2.14155e-05	1463649
2891.03	-2.33283e-05	1466357
2900.43	-2.51596e-05	1468469
2910.95	-2.73603e-05	1470911
2920.41	-2.94835e-05	1473557
2930.74	-3.19684e-05	1476429
2940.1	-3.43766e-05	1479491
2950.46	-3.72297e-05	1482703
2960.83	-4.02895e-05	1485861
2970.26	-4.32647e-05	1489201
2980.62	-4.67526e-05	1492391
2990.97	-5.0483e-05	1496153
3000.25	-5.40454e-05	1499284
3010.56	-5.82561e-05	1502560
3020.86	-6.27516e-05	1506040
3030.16	-6.70674e-05	1509018
3040.48	-7.21496e-05	1511864
3050.83	-7.75841e-05	1513728
3060.19	-8.28019e-05	1516288
3070.59	-8.89518e-05	1519454
3080.95	-9.54701e-05	1522282
3090.43	-0.000101787	1524844
3101	-0.000109252	1528017
3110.48	-0.000116344	1530741
3120	-0.000123863	1533349
3130.97	-0.000133026	1536399
3141.01	-0.000141925	1539415
3150.65	-0.000150938	1542345
3160.75	-0.000160889	1545540
3170.87	-0.00017142	1548594
3180.99	-0.000182529	1551548
3191.12	-0.000194246	1554626
3200.12	-0.000205185	1557424
3210.26	-0.000218124	1560088
3220.4	-0.000231739	1562950
3230.54	-0.000246058	1565848
3240.63	-0.000261034	1569058
3250.7	-0.000276723	1572082
3260.76	-0.000293185	1575289
3270.83	-0.00031045	1577909
3280.9	-0.000328544	1581079
3290.97	-0.000347497	1584151
3301.04	-0.00036734	1586676
3310.84	-0.000387535	1589596
3320.3	-0.000407898	1591846
3330.85	-0.000431589	1594508
3340.6	-0.000454487	1597041
3350.3	-0.000478221	1599555
3361.04	-0.000505683	1602755
3370.71	-0.000531473	1605199
3380.38	-0.000558309	1607966
3390.05	-0.000586221	1610338
3400.8	-0.000618528	1613422
3410.47	-0.000648809	1616110
3420.18	-0.000680364	1618452
3431.06	-0.000717148	1621973
3440.91	-0.000751806	1624843
3450.73	-0.000787624	1628173
3460.51	-0.000824623	1631241
3470.11	-0.000862244	1633501
3480.67	-0.000905115	1636571
3490.14	-0.000944967	1639106
3500.66	-0.000990835	1642040
3510.11	-0.00103348	1645359
3520.57	-0.00108237	1648431
3530.97	-0.00113273	1651923
3540.33	-0.0011796	1654738
3550.73	-0.00123346	1658126
3560.08	-0.00128358	1661118
3570.48	-0.00134117	1664293
3580.97	-0.00140105	1667545
3590.55	-0.00145689	1670476
3600.13	-0.00151381	1673398
3610.76	-0.00157837	1677004
3620.33	-0.00163802	1680012
3630.96	-0.00170647	1683060
3640.53	-0.00177039	1685923
3650.09	-0.00183664	1688443
3660.72	-0.00191262	1691857
3670.32	-0.0019834	1695075
3681.01	-0.00206514	1698030
3690.63	-0.00214162	1701006
3700.25	-0.00222118	1703656
3710.96	-0.00231377	1706598
3720.62	-0.00240139	1709572
3730.31	-0.00248993	1712174
3741.03	-0.00256196	1715794
3750.56	-0.00263545	1718243
3761.04	-0.00272796	1721027
3770.48	-0.00282251	1724017
3781	-0.00294008	1727313
3790.38	-0.00305128	1730233
3800.82	-0.00317773	1733444
3810.27	-0.00329855	1736386
3820.78	-0.00339133	1740037
3830.24	-0.00351406	1743253
3840.77	-0.00367743	1746786
3850.29	-0.00384207	1750289
3860.86	-0.00401789	1753625
3870.37	-0.00417688	1756653
3880.95	-0.00436818	1760139
3890.44	-0.00455776	1763024
3900.98	-0.00478846	1766417
3910.42	-0.00501158	1769021
3920.8	-0.00527206	1771866
3930.14	-0.0055172	1774572
3940.52	-0.005799	1777408
3950.89	-0.00608885	1780279
3960.23	-0.0063555	1782592
3970.62	-0.00665274	1785242
3981.04	-0.00695659	1788026
3990.44	-0.00724032	1790250
4000.87	-0.00756653	1792027
4010.32	-0.0078703	1793768
4020.81	-0.00821544	1795872
4030.25	-0.0085312	1798412
4040.73	-0.00888578	1800942
4050.17	-0.00920738	1803364
4060.66	-0.00956809	1806757
4070.1	-0.00989718	1809463
4080.64	-0.0102706	1812024
4090.14	-0.0106132	1814632
4100.7	-0.0110002	1817862
4110.17	-0.0113517	1820561
4120.62	-0.0117432	1823004
4130.02	-0.0120971	1825379
4140.47	-0.01249	1827792
4150.92	-0.0128803	1829850
4160.31	-0.0132272	1831862
4170.74	-0.0136056	1834560
4180.11	-0.0139376	1836872
4190.47	-0.0142936	1839775
4200.91	-0.0146377	1842937
4210.35	-0.0149341	1845394
4220.88	-0.0152461	1848567
4230.33	-0.0155076	1851163
4240.79	-0.0157749	1854279
4250.21	-0.0159936	1856819
4260.67	-0.0162105	1859725
4270.09	-0.0163805	1862179
4280.55	-0.0165396	1865021
4290.98	-0.0166652	1868438
4300.32	-0.0167483	1871121
4310.7	-0.0168067	1874130
4320.03	-0.0168276	1877356
4330.41	-0.0168147	1880711
4340.78	-0.0167627	1883703
4350.14	-0.0166822	1886672
4360.54	-0.0165561	1890121
4370.96	-0.016392	1893883
4380.33	-0.0162108	1897640
4390.74	-0.0159695	1901600
4400.13	-0.0157117	1904711
4410.54	-0.0153695	1908899
4420.91	-0.0149753	1912326
4430.19	-0.0143561	1915208
4440.5	-0.0135825	1918643
4450.81	-0.0127825	1921819
4460.09	-0.0124014	1924456
4470.4	-0.0119601	1927455
4480.72	-0.011188	1930726
4490.04	-0.0102935	1933941
4500.41	-0.00915209	1937589
4510.78	-0.0079479	1940837
4520.1	-0.0070532	1943822
4530.47	-0.0056156	1947295
4540.8	-0.0035488	1950124
4550.09	-0.00132698	1952970
4560.4	0.00131929	1956064
4570.71	0.00408674	1958719
4581.03	0.00837899	1961334
4590.32	0.0129804	1964033
4600.68	0.0175128	1966845
4610.06	0.0215661	1969598
4620.49	0.0265872	1971280
4630.93	0.0321891	1973243
4640.36	0.0374954	1975961
4650.78	0.0426013	1978409
4660.16	0.0479967	1980207
4670.58	0.0572061	1982644
4680.99	0.0674442	1985444
4690.35	0.0775462	1987183
4700.76	0.0889301	1989911
4710.12	0.0998344	1992106
4720.52	0.113794	1994882
4730.93	0.133884	1997520
4740.29	0.150712	2000008
4750.71	0.170993	2002698
4760.1	0.19022	2004938
4770.52	0.212187	2008029
4780.86	0.23509	2009996
4790.18	0.256343	2012357
4800.68	0.282076	2014628
4810.17	0.329064	2016867
4820.55	0.364052	2020019
4830.91	0.397551	2022503
4840.24	0.422316	2024753
4850.71	0.449834	2027806
4860.11	0.47116	2030009
4870.56	0.492852	2032336
4880.91	0.512085	2034717
4890.18	0.526931	2036339
4900.48	0.541825	2038529
4910.83	0.554432	2040553
4920.12	0.564743	2042840
4930.6	0.574923	2045443
4940.95	0.581694	2048388
4950.25	0.587524	2051065
4960.66	0.593551	2054192
4970.02	0.598412	2057102
4980.39	0.603331	2060333
4990.95	0.606942	2063398
5000.5	0.609145	2066227
5010.05	0.610292	2068781
5020.58	0.611805	2072060
5031.01	0.611442	2074625
5040.49	0.609999	2077066
5051.02	0.60732	2080269
5060.52	0.603889	2082912
5070.87	0.599299	2085569
5080.27	0.594206	2088063
5091.08	0.58723	2090486
5100.8	0.580007	2093268
5110.53	0.571965	2095758
5120.27	0.563144	2098336
5130.05	0.553556	2101297
5140.93	0.542043	2104485
5150.73	0.531045	2107510
5160.54	0.517927	2110011
5170.41	0.50205	2113083
5180.38	0.483553	2115919
5190.39	0.465804	2118742
5200.43	0.446512	2121715
5210.47	0.427095	2124598
5220.51	0.406602	2127612
5230.55	0.385035	2130382
5240.59	0.362717	2132842
5250.39	0.340083	2134854
5260.98	0.288525	2137437
5270.38	0.250475	2139135
5280.9	0.206827	2141566
5290.38	0.170752	2143402
5300.78	0.13042	2145760
5310.05	0.0951574	2147479
5320.35	0.0569152	2149515
5330.71	0.0189053	2152109
5340.09	-0.0134093	2154480
5350.45	-0.0475433	2156602
5360.8	-0.0786097	2158801
5370.17	-0.104005	2161315
5380.59	-0.129181	2164269
5391.05	-0.150911	2166491
5400.48	-0.167734	2168693
5410.97	-0.18327	2171224
5420.42	-0.194897	2173269
5430.82	-0.205316	2175252
5440.19	-0.212862	2177946
5450.59	-0.218702	2180483
5460.98	-0.22422	2182688
5470.29	-0.22677	2184864
5480.62	-0.231723	2186965
5490.08	-0.235878	2189472
5500.93	-0.240937	2191536
5510.42	-0.246372	2193787
5520.84	-0.253033	2196947
5530.22	-0.259752	2198843
5540.74	-0.268202	2201402
5550.43	-0.276838	2203029
5560.71	-0.286844	2205604
5570.1	-0.296681	2207535
5580.54	-0.308315	2209597
5590.76	-0.32036	2211792
5601.07	-0.333057	2213136
5610.24	-0.344657	2214769
5620.56	-0.357907	2216251
5630.47	-0.37064	2218136
5640.93	-0.383851	2220180
5650.71	-0.395742	2222054
5660.63	-0.40711	2223371
5670.95	-0.417903	2225427
5680.12	-0.426351	2227139
5690.43	-0.434239	2228823
5700.75	-0.440061	2231102
5711.05	-0.443725	2233143
5720.18	-0.445284	2234893
5730.5	-0.444308	2236923
5740.76	-0.441706	2239019
5750.44	-0.437598	2240936
5760.01	-0.432356	2243175
5770.59	-0.42502	2244539
5780.14	-0.417021	2245753
5790.84	-0.406591	2247760
5800.33	-0.396412	2249541
5810.82	-0.375024	2251473
5820.31	-0.355879	2253361
5830.73	-0.333528	2254476
5840.11	-0.311552	2255909
5850.42	-0.257938	2257643
5860.74	-0.21097	2259876
5870.15	-0.168399	2261903
5880.61	-0.125656	2263808
5890.02	-0.0872535	2265591
5900.48	-0.0482675	2267357
5910.92	-0.0115783	2269652
5920.27	0.0188515	2272090
5930.6	0.0487642	2274641
5940.93	0.0756379	2277163
5950.28	0.0962924	2278930
5960.79	0.115843	2280702
5970.17	0.129607	2282691
5980.64	0.140004	2284858
5990.04	0.146804	2286642
6000.48	0.148911	2288679
6010.93	0.148755	2290628
6020.37	0.146901	2292503
6030.95	0.143952	2294923
6040.55	0.140662	2297625
6050.03	0.136835	2299709
6060.59	0.131984	2301963
6070.1	0.127148	2304098
6080.67	0.121171	2307261
6090.32	0.117741	2309961
6101	0.109942	2313134
6110.57	0.102451	2315414
6120.41	0.0943882	2318617
6131.03	0.0855195	2321466
6140.64	0.0780204	2324332
6150.47	0.0703397	2328013
6160.44	0.0622313	2330857
6170.09	0.0541336	2333965
6180.81	0.0451512	2337878
6190.52	0.0370625	2341047
6200.25	0.028865	2344486
6211.01	0.0196103	2348623
6220.91	0.0109283	2351840
6230.59	0.00235049	2354549
6240.16	-0.00616675	2357277
6250.88	-0.0157413	2360297
6260.73	-0.0245328	2362532
6270.67	-0.0333558	2365717
6280.64	-0.0421138	2368652
6290.41	-0.0505523	2371439
6300.06	-0.0587092	2373894
6310.71	-0.0674359	2376511
6320.4	-0.0750664	2379253
6330.93	-0.0829418	2382189
6340.33	-0.0895472	2384694
6350.76	-0.0963382	2386729
6360.23	-0.101963	2388538
6370.72	-0.107548	2390154
6380.15	-0.111951	2392388
6390.57	-0.116101	2394870
6400.99	-0.119454	2397296
6410.38	-0.12175	2399823
6420.85	-0.123489	2402665
6430.25	-0.124781	2405917
6440.75	-0.124418	2409277
6450.2	-0.123216	2412659
6460.64	-0.122226	2416609
6470.04	-0.121143	2419719
6480.49	-0.119605	2423222
6491	-0.11778	2426503
6500.41	-0.115872	2429557
6510.83	-0.113503	2433088
6520.12	-0.111221	2436622
6530.43	-0.108551	2440282
6540.74	-0.105764	2443992
6550.11	-0.103153	2447035
6560.65	-0.100157	2450476
6570.03	-0.0974686	2453815
6580.4	-0.0945056	2456635
6590.8	-0.0915677	2460826
6600.34	-0.0889317	2464284
6610.95	-0.0860839	2467366
6620.79	-0.0835413	2471134
6630.38	-0.0811699	2474904
6640.96	-0.0786857	2479392
6650.53	-0.0765694	2482616
6660.99	-0.0744122	2486554
6670.53	-0.0725881	2489589
6680.09	-0.0708977	2492921
6690.65	-0.0691908	2495980
6700.12	-0.0677932	2499371
6710.63	-0.0663781	2501947
6720.04	-0.0652215	2504939
6730.49	-0.0640412	2507300
6740.92	-0.062955	2510588
6750.3	-0.0620422	2512297
6760.79	-0.0610782	2515506
6770.37	-0.0602338	2517473
6780.99	-0.0593246	2520709
6790.56	-0.0585138	2523128
6800.05	-0.0577071	2526136
6810.54	-0.0567969	2528967
6821	-0.055857	2531526
6830.4	-0.0549769	2534298
6840.89	-0.0539468	2537534
6850.3	-0.0529744	2540415
6860.76	-0.0518367	2543285
6870.21	-0.0507554	2546317
6880.75	-0.0494862	2550218
6890.21	-0.0482904	2553421
6900.68	-0.0469056	2557332
6910.1	-0.0456046	2560297
6920.6	-0.0440956	2563469
6930.07	-0.0426848	2566452
6940.61	-0.041059	2570641
6950.09	-0.0395516	2574147
6960.61	-0.037833	2577620
6970.05	-0.0362565	2581382
6980.52	-0.0344744	2585012
6990.99	-0.0326653	2588490
7000.44	-0.0310162	2591484
7010.96	-0.0291726	2595311
7020.44	-0.0275134	2597886
7030.95	-0.0256855	2600923
7040.39	-0.0240639	2604083
7050.08	-0.0224296	2607227
7060.79	-0.0206693	2610401
7070.29	-0.0191583	2612526
7080.84	-0.0175442	2615814
7090.34	-0.0161566	2618840
7100.89	-0.0146952	2622544
7110.31	-0.0134649	2625994
7120.82	-0.0121808	2628855
7130.6	-0.0110693	2632183
7140.29	-0.0100479	2635206
7150.52	-0.00905498	2639926
7160.03	-0.00820871	2643559
7170.52	-0.0073567	2647214
7181.01	-0.00658558	2650751
7190.48	-0.00595432	2653445
7200.01	-0.00537852	2656567
7210.63	-0.00517327	2659240
7220.22	-0.0046284	2661974
7230.2	-0.00403206	2664519
7240.19	-0.00357125	2668666
7250.12	-0.00337223	2672103
7260.23	-0.00317124	2675497
7270.37	-0.00295628	2678910
7280.51	-0.00272059	2681685
7290.65	-0.00247187	2684356
7300.79	-0.00221963	2687136
7310.93	-0.00197141	2689410
7321.07	-0.0017322	2693162
7330.08	-0.00152935	2694816
7340.18	-0.00131419	2698135
7350.06	-0.0011172	2700404
7361.1	-0.00091513	2702818
7370.12	-0.000766518	2705200
7380.06	-0.000621921	2707602
7390.1	-0.000498158	2711065
7400.12	-0.000395651	2713436
7410.16	-0.000311108	2716244
7420.23	-0.000245399	2718915
7430.35	-0.000198338	2720935
7440.39	-0.000166598	2723583
7450.45	-0.000143388	2726102
7460.3	-0.000121943	2729042
7470.96	-0.000103714	2731699
7480.53	-9.65781e-05	2734448
7490.1	-7.60969e-05	2736710
7500.46	-1.2542e-05	2739495
7510.8	0.000111752	2742400
7520.08	0.000283138	2745717
7530.4	0.000542649	2748864
7541.02	0.000886596	2751766
7550.86	0.00127375	2754298
7560.25	0.00170577	2756637
7570.66	0.00211809	2759519
7580.52	0.00254948	2762481
7590.43	0.00313439	2764845
7600.34	0.00384298	2767569
7610.25	0.00464271	2770259
7620.16	0.00551058	2773171
7630.07	0.00643002	2775349
7641.08	0.00749468	2777480
7650.99	0.00847827	2780068
7660.9	0.009476	2782144
7670.81	0.0104794	2784223
7680.72	0.0114789	2786276
7690.63	0.0124629	2787314
7700.55	0.0134176	2789080
7710.6	0.0143415	2790112
7720.7	0.0152098	2791720
7730.82	0.0160046	2793827
7740.93	0.0167132	2795334
7751.05	0.0173256	2797531
7760.04	0.0177829	2799312
7770.15	0.0181947	2802092
7780.28	0.0184948	2804375
7790.41	0.0186813	2805986
7800.53	0.0187545	2808107
7810.64	0.0187165	2809612
7820.76	0.0185703	2811359
7830.87	0.0183203	2813173
7840.99	0.0179721	2815623
7851.11	0.0175326	2817710
7860.1	0.0170716	2819217
7870.04	0.0164929	2821601
7881.06	0.0157784	2824056
7890.97	0.0150804	2826514
7900.88	0.0143408	2829106
7910.78	0.0135698	2831693
7920.69	0.0127764	2834868
7930.59	0.0119694	2837665
7940.49	0.0111567	2841145
7950.4	0.0103449	2844335
7960.3	0.00953931	2847290
7970.2	0.00874398	2850303
7980.11	0.00796145	2853344
7990.01	0.00719293	2856740
8001.02	0.0063554	2860103
8010.92	0.00561506	2862725
8020.82	0.00488526	2864849
8030.73	0.00416309	2867520
8040.63	0.00344514	2869867
8050.54	0.00272756	2872699
8060.44	0.00200632	2875541
8070.34	0.00127726	2878169
8080.25	0.000536234	2880296
8090.15	-0.000220804	2882473
8100.06	-0.000997739	2885081
8111.02	-0.0018856	2887373
8120.55	-0.00268468	2889545
8131.03	-0.00359807	2892313
8140.38	-0.0044443	2894768
8150.8	-0.00542204	2896645
8160.21	-0.00634086	2898909
8170.52	-0.00739269	2901060
8180.82	-0.00847868	2902947
8190.18	-0.00947586	2905246
8200.9	-0.0106331	2907572
8210.27	-0.0116753	2910420
8220.59	-0.0127335	2912774
8230.89	-0.0138094	2914979
8240.17	-0.0148931	2916751
8250.69	-0.0163146	2919030
8260.27	-0.0177168	2921034
8270.94	-0.0189494	2923409
8280.45	-0.0197241	2925390
8290.13	-0.0211276	2927198
8300.94	-0.0228444	2930020
8310.62	-0.024394	2932165
8320.13	-0.0259083	2934897
8330.62	-0.0275779	2937799
8340.04	-0.0290903	2940052
8350.83	-0.0308432	2942929
8360.21	-0.0323919	2945119
8370.65	-0.034141	2947704
8380.09	-0.0357551	2950013
8390.64	-0.0375973	2951960
8400.25	-0.0392951	2953799
8410.79	-0.0411757	2955407
8420.24	-0.0428949	2956760
8430.74	-0.0448506	2958088
8440.21	-0.0466512	2959627
8450.74	-0.0486854	2961196
8460.19	-0.0505284	2963376
8470.69	-0.0525835	2964747
8480.09	-0.0544201	2966529
8490.51	-0.0564447	2968256
8500.04	-0.0582731	2970287
8510.51	-0.0602414	2972795
8520.95	-0.0621458	2974092
8530.36	-0.0637994	2976072
8540.81	-0.0655525	2977076
8550.21	-0.0670462	2978588
8560.68	-0.0686066	2980596
8570.2	-0.0699236	2981996
8580.86	-0.0712758	2983569
8590.58	-0.072388	2985016
8600.03	-0.0733522	2986333
8610.48	-0.074279	2988217
8620.02	-0.0749894	2989591
8630.62	-0.0756229	2991010
8640.07	-0.0760444	2993474
8650.53	-0.0763488	2995134
8660.98	-0.0764793	2996314
8670.39	-0.0764459	2997264
8680.88	-0.0762377	2998549
8690.33	-0.0758944	2999909
8700.91	-0.0753333	3001645
8710.36	-0.0746747	3003220
8720.83	-0.0737705	3004916
8730.27	-0.0727993	3006135
8740.75	-0.0715497	3008019
8750.18	-0.0702724	3009390
8760.76	-0.0686703	3011349
8770.39	-0.0670586	3012470
8780.92	-0.0651317	3014098
8790.4	-0.0632532	3015361
8800.13	-0.0611908	3016002
8810.25	-0.0589013	3016621
8820.46	-0.0564551	3017088
8830.67	-0.0538786	3017918
8840.88	-0.051182	3018103
8851.09	-0.0483771	3018664
8860.16	-0.0458036	3020110
8870.08	-0.0429115	3021062
8880.69	-0.0397377	3022971
8890.23	-0.0368219	3023852
8900.79	-0.0335504	3025582
8910.07	-0.0305363	3026167
8920.4	-0.0245244	3027334
8930.71	-0.0200439	3029146
8940.07	-0.0161567	3030098
8950.57	-0.0117574	3030685
8960.03	-0.00766054	3031805
8970.5	-0.00308078	3032946
8980.95	0.00139437	3033809
8990.39	0.00530846	3034399
9000.99	0.00956845	3035715
9010.49	0.0132978	3036306
9020.98	0.0173531	3036811
9030.5	0.0209558	3037068
9040.98	0.024778	3037172
9050.27	0.0280118	3038133
9060.65	0.0314617	3038698
9070.04	0.0344496	3039881
9080.56	0.0376672	3040607
9090.86	0.0406783	3041713
9100.15	0.0432587	3042775
9110.62	0.0460023	3043778
9120.1	0.0483345	3045391
9130.65	0.0507573	3047354
9140.24	0.0528039	3049791
9150.56	0.0548428	3051142
9160.88	0.0567156	3053634
9170.21	0.0583368	3056040
9180.58	0.0599021	3059092
9190.06	0.0612706	3061873
9200.68	0.0625128	3065328
9210.14	0.0634947	3068408
9220.5	0.0644908	3071405
9230.92	0.0654195	3074487
9240.31	0.0661633	3077696
9250.75	0.0665149	3080636
9260.11	0.0671927	3083585
9270.52	0.0677135	3086140
9280.98	0.06817	3088503
9290.36	0.0685259	3090608
9300.86	0.068834	3093433
9310.28	0.0690436	3096092
9320.66	0.0694042	3097890
9330	0.069513	3099743
9340.38	0.0696873	3101414
9350.79	0.0698777	3103248
9360.18	0.07007	3105082
9370.61	0.0702704	3106982
9380.98	0.0704413	3109086
9390.43	0.0705802	3110830
9400.87	0.0707395	3112707
9410.26	0.0708958	3114788
9420.7	0.071077	3116356
9430.1	0.0712399	3117594
9440.56	0.0714191	3120410
9450.98	0.0716	3123259
9460.37	0.0717696	3125819
9470.78	0.0719657	3127738
9480.17	0.0721486	3129755
9490.65	0.0723565	3131400
9500.12	0.0725461	3133057
9510.6	0.0727564	3134628
9520.03	0.0729435	3135445
9530.5	0.0731444	3136790
9540.97	0.0733326	3138632
9550.34	0.0734866	3140544
9560.76	0.0736368	3142873
9570.14	0.0737507	3143613
9580.64	0.0738529	3144355
9590.07	0.0739193	3144286
9600.43	0.0739619	3144978
9610.82	0.0739704	3147397
9620.21	0.0739468	3147924
9630.63	0.0738829	3148819
9640.04	0.0737883	3149350
9650.53	0.0736382	3150542
9661	0.0734393	3151145
9670.44	0.0732167	3151653
9680.9	0.0729216	3153055
9690.29	0.0726132	3153200
9700.68	0.072224	3154601
9710.04	0.0718312	3154963
9720.51	0.0713469	3155157
9730.03	0.0708676	3156054
9740.6	0.0702951	3157739
9750.04	0.0697457	3158410
9760.51	0.0690923	3160495
9770.95	0.0683919	3161483
9780.22	0.0677266	3162007
9790.52	0.0669415	3163110
9800.84	0.0661097	3163812
9810.25	0.0653143	3165722
9820.79	0.0643816	3166929
9830.16	0.0635143	3168239
9840.63	0.0625013	3168835
9850.18	0.0615368	3169945
9860.61	0.060438	3170669
9870.92	0.0593068	3170431
9880.2	0.0582529	3169635
9890.51	0.0570445	3169463
9901.02	0.0557642	3169215
9910.41	0.0545565	3169237
9921.06	0.0532044	3168876
9930.57	0.0519819	3169652
9940.95	0.0504464	3170762
9950.24	0.0487841	3171642
9960.62	0.0470518	3172064
9970.95	0.044999	3172730
9980.22	0.0428683	3174525
9990.53	0.0403233	3175095
10000.9	0.0377672	3176741
10010.2	0.0355193	3178589
10020.5	0.0330538	3180365
10030.8	0.0305795	3182298
10040.1	0.0282958	3184067
10050.5	0.0256561	3185191
10060.8	0.0228846	3186457
10070.3	0.0202629	3186945
10080.8	0.0172883	3189100
10090.2	0.0145817	3190793
10100.7	0.0115566	3193304
10111	0.0085563	3195827
10120.3	0.0058543	3197953
10130.6	0.00285187	3200482
10141	-0.000161935	3202469
10150.4	-0.00287577	3205092
10160.9	-0.00588778	3208128
10170.3	-0.00855529	3209848
10180.8	-0.0114596	3211019
10190.3	-0.0140206	3212244
10200.7	-0.016761	3215279
10210	-0.0191164	3216993
10220.3	-0.0216487	3219193
10230.6	-0.0240921	3221980
10240.9	-0.0264468	3223874
10250.2	-0.0284879	3226518
10260.6	-0.0306623	3228399
10271	-0.0327466	3230311
10280.4	-0.0345316	3233915
10290.8	-0.0364019	3236943
10300.2	-0.0379794	3238560
10310.6	-0.0396143	3240028
10320.1	-0.0409882	3241261
10330.6	-0.0424042	3243299
10340	-0.0435455	3245023
10350.5	-0.044729	3247144
10360	-0.0457182	3249004
10370.6	-0.0467115	3251004
10380	-0.0474919	3253362
10390.5	-0.0482889	3255652
10401	-0.0488898	3257883
10410.5	-0.0492871	3260386
10420.3	-0.0496419	3263386
10430.8	-0.0499856	3265927
10440.3	-0.0502335	3267697
10450.7	-0.0504231	3269779
10460	-0.0505528	3271543
10470.5	-0.0506571	3272897
10481	-0.0507017	3274936
10490.3	-0.0506811	3275763
10500.7	-0.0505985	3277047
10511	-0.0504628	3279159
10520.2	-0.0502969	3279877
10530.6	-0.0500617	3281173
10540.9	-0.0497735	3282841
10550.2	-0.0494706	3284334
10560.5	-0.0490872	3286645
10570.9	-0.0486512	3288073
10580.6	-0.0482056	3289655
10590.2	-0.0477219	3291048
10600.8	-0.0471448	3292254
10610.4	-0.0465873	3294524
10621	-0.0459265	3296659
10630.3	-0.0453159	3298814
10640.6	-0.0446081	3301127
10650.9	-0.0438711	3302665
10660.2	-0.0431859	3304261
10670.5	-0.0424044	3305508
10680.8	-0.0416048	3306294
10690.1	-0.0408712	3306814
10700.7	-0.0400214	3306434
10710.1	-0.0392644	3306973
10720.8	-0.0384029	3308431
10730.3	-0.0376452	3309840
10740.7	-0.0368162	3312110
10750.1	-0.0360867	3313491
10760.4	-0.0352892	3314913
10770.7	-0.0345095	3316012
10781	-0.0337503	3317108
10790.3	-0.0330825	3319000
10800.7	-0.032369	3321630
10810	-0.0317549	3323561
10820.3	-0.031108	3323736
10830.7	-0.0305013	3325498
10840	-0.0299926	3327036
10850.4	-0.0294708	3327855
10860.7	-0.0289983	3328369
10870.1	-0.0286146	3328445
10880.7	-0.0282338	3329244
10890.4	-0.0279358	3330269
10900	-0.0276873	3331170
10910.3	-0.027476	3331744
10920.7	-0.0273229	3333559
10930	-0.027236	3334238
10940.4	-0.0271971	3334567
10950.8	-0.0272201	3336103
10960.3	-0.0272954	3338020
10970.3	-0.0274313	3340038
10980.8	-0.0276379	3342310
10990.2	-0.0278777	3344736
11000.7	-0.0282045	3346309
11011	-0.0285936	3347767
11020.3	-0.0289968	3348758
11030.6	-0.0295052	3349934
11041	-0.0300763	3351212
11050.3	-0.030643	3352668
11060.7	-0.0313364	3353590
11070.1	-0.0320136	3354174
11080.6	-0.0328148	3355229
11090.4	-0.0336189	3357052
11100.9	-0.0345222	3359294
11110.3	-0.0353755	3361089
11120.8	-0.0363636	3362891
11130.2	-0.0372879	3365140
11140.8	-0.0383544	3366499
11150.4	-0.0393406	3367208
11161.1	-0.0404697	3367429
11170.7	-0.0415013	3367719
11180.3	-0.0425487	3368793
11191	-0.0437289	3370186
11200.6	-0.0447905	3372171
11210.1	-0.0458542	3373898
11220.8	-0.0470423	3375366
11230.2	-0.0480996	3376435
11240.8	-0.0492688	3378279
11250.2	-0.0503071	3379142
11260.7	-0.051435	3379755
11270	-0.0524324	3380179
11280.5	-0.0535183	3379417
11291	-0.0545849	3378817
11300.5	-0.0555186	3377342
11311	-0.056523	3376052
11320.5	-0.057396	3375744
11330.4	-0.0582717	3375477
11340	-0.0590913	3375085
11350.8	-0.0599691	3375609
11360.5	-0.0607258	3375506
11370.6	-0.0614703	3375792
11380.7	-0.0621744	3376436
11390.8	-0.0628372	3377423
11400.6	-0.0634423	3378412
11410.3	-0.0640078	3378689
11420.1	-0.0645398	3379432
11430.7	-0.0650728	3380622
11440.2	-0.065513	3380519
11450.7	-0.0659645	3381013
11460.3	-0.0663516	3380988
11470.9	-0.06676	3381156
11480.6	-0.0670867	3381617
11490.2	-0.0673649	3382717
11500.8	-0.0674478	3383203
11510.4	-0.067617	3383693
11520.1	-0.0677798	3384891
11530.9	-0.0679539	3386379
11540.6	-0.0681027	3388204
11550.2	-0.0682451	3389887
11561	-0.068401	3392119
11570.7	-0.0685399	3393579
11580.4	-0.0686783	3394695
11590.1	-0.0688191	3395383
11600.8	-0.0689844	3395721
11610.5	-0.0691356	3395789
11620.2	-0.0692859	3395824
11630	-0.0694367	3395695
11640.9	-0.0696072	3394351
11650.7	-0.0697649	3392997
11660.5	-0.0699277	3391999
11670.3	-0.0700962	3390979
11680.1	-0.0702713	3390391
11691	-0.0704746	3389991
11700.8	-0.0706663	3389722
11710.6	-0.0708661	3389412
11720.5	-0.0710717	3389692
11730.3	-0.0712808	3390044
11740.2	-0.0714913	3391323
11750.1	-0.071702	3392482
11761	-0.0719358	3393780
11770.9	-0.0721458	3395506
11780.8	-0.0723556	3397187
11790.7	-0.0725642	3399862
11800.7	-0.0727676	3402103
11810.8	-0.0729619	3403614
11820.8	-0.0731423	3405836
11830.8	-0.073298	3407488
11840.9	-0.0734203	3408764
11850.9	-0.0735046	3410228
11861	-0.0735501	3411375
11871	-0.0735485	3412359
11881.1	-0.0735041	3413353
11890.1	-0.0734388	3414198
11900.2	-0.073339	3414680
11910.4	-0.0732104	3414847
11920.5	-0.0730508	3414741
11930.7	-0.0728576	3415166
11940.8	-0.0726281	3415520
11951	-0.0723603	3416131
11961.1	-0.0720531	3416839
11970.6	-0.0717295	3417344
11981	-0.0713298	3417949
11990.5	-0.0709294	3418002
12000.3	-0.0704759	3418659
12011	-0.0699368	3419012
12020.6	-0.0694135	3419342
12030.3	-0.0688549	3419010
12040.2	-0.0682415	3419280
12050.2	-0.0675969	3419734
12060.2	-0.0669282	3419424
12070.1	-0.0662376	3420864
12080.4	-0.0654698	3420732
12091.1	-0.0646266	3421637
12100	-0.0638852	3421507
12110	-0.063012	3422212
12120	-0.0621018	3422670
12130	-0.0611597	3423389
12140.7	-0.0601296	3425040
12150.1	-0.0592003	3426392
12160.8	-0.0581193	3427783
12170.8	-0.0570966	3429200
12180.8	-0.0560662	3430390
12190.8	-0.055034	3431201
12200.6	-0.0540242	3431934
12210.5	-0.0530021	3432343
12220.2	-0.0520152	3433202
12230.7	-0.0509639	3433265
12240.2	-0.0500242	3432903
12250.7	-0.0489733	3433010
12260.4	-0.0479685	3433851
12270.5	-0.0471371	3434039
12280.1	-0.0463897	3434368
12290.8	-0.0453481	3434379
12300.7	-0.0443091	3434916
12310.2	-0.0433044	3435318
12320.3	-0.0420223	3434958
12330.3	-0.0407491	3436024
12340.9	-0.0394812	3435954
12350.7	-0.0383614	3436867
12360.5	-0.0372501	3437286
12370.5	-0.0361225	3436893
12380.6	-0.0349927	3436860
12390.5	-0.03389	3436772
12400.5	-0.032784	3436347
12410.5	-0.0316753	3436554
12420.2	-0.0305972	3437041
12430.8	-0.0294412	3437655
12440.3	-0.0284076	3438255
12450.9	-0.027264	3439722
12460.4	-0.0262301	3440894
12470.9	-0.0250631	3441661
12480.6	-0.0239696	3443549
12490.3	-0.0228561	3444819
12500	-0.0217344	3446966
12510.7	-0.0204825	3448806
12520.4	-0.0193326	3450180
12530.3	-0.0181625	3452248
12540.1	-0.0169817	3454243
12551	-0.0156549	3456783
12560.8	-0.014445	3459152
12570.6	-0.0132174	3461547
12580.4	-0.0119692	3464263
12590.2	-0.0106981	3466688
12600	-0.00940253	3468463
12610.9	-0.00793325	3470630
12620.8	-0.00658429	3472023
12630.6	-0.00521082	3472644
12640.3	-0.00383044	3473995
12650.8	-0.00231319	3475998
12660.2	-0.000926931	3477644
12670.7	0.000637687	3479199
12680.2	0.00208211	3480921
12691.1	0.00376349	3482042
12700.9	0.00530173	3483426
12710.7	0.006864	3484597
12720.5	0.00844165	3485334
12730.3	0.0100566	3486383
12740.1	0.0116914	3486659
12750	0.0133679	3487144
12761.1	0.0152581	3487218
12771	0.0169839	3487212
12781	0.0187369	3487930
12791	0.0205234	3487824
12801	0.0223305	3487495
12811	0.024153	3487037
12820.7	0.0259415	3486653
12830.4	0.0277436	3486578
12840.4	0.0296057	3486439
12850.3	0.0314678	3486532
12860.1	0.0333322	3487135
12871	0.0354098	3487713
12880.4	0.0372101	3488934
12890.1	0.0390709	3490015
12900.7	0.0410967	3490901
12910.1	0.0429072	3491746
12920.9	0.0449706	3493290
12930.6	0.0468409	3494363
12940.4	0.0487054	3495808
12950.2	0.0505619	3497800
12961	0.0526128	3499389
12970.8	0.0544456	3501146
12980.6	0.0562639	3502757
12990.3	0.0580655	3504343
13000.1	0.0598486	3505925
13010.9	0.0618056	3508164
13020.7	0.0635429	3510169
13030.5	0.0652556	3512201
13040.3	0.0669418	3513717
13050	0.0685999	3515086
13060.9	0.0704071	3516277
13070.7	0.0720002	3517033
13080.4	0.0735601	3517153
13090.2	0.0750855	3517214
13101	0.0767381	3516942
13110.8	0.0781815	3516495
13120.4	0.0795627	3516402
13131	0.0810527	3515495
13140.6	0.0823626	3514967
13150.3	0.083632	3515373
13161	0.0849944	3515653
13170.6	0.0861755	3515656
13180.1	0.0872968	3516608
13190.5	0.088482	3517805
13200.1	0.0895277	3518213
13210.6	0.090625	3518858
13220	0.0915608	3520010
13230.6	0.0925619	3520950
13240	0.0934178	3522240
13250.4	0.094312	3524139
13260.9	0.0951588	3525712
13270.3	0.095881	3528069
13280.7	0.0966339	3529269
13290.2	0.0972774	3530493
13300.7	0.0979451	3531303
13310.2	0.0985039	3532264
13320.7	0.0990823	3533274
13330.1	0.0995656	3534057
13340.6	0.100059	3535887
13350	0.100467	3536936
13360.5	0.100883	3538263
13370.1	0.101229	3539965
13380.7	0.101577	3541466
13390.2	0.101855	3543138
13400.6	0.102132	3545117
13410.1	0.102353	3545696
13420.6	0.102571	3545595
13430	0.102741	3545388
13440.5	0.102904	3546426
13451	0.103041	3546948
13460.4	0.103143	3547673
13470.8	0.103234	3547704
13480.2	0.103298	3547518
13490.7	0.103351	3547535
13500.1	0.103382	3548164
13510.7	0.103399	3548278
13520.2	0.1034	3548212
13530.7	0.103386	3548212
13540.2	0.10336	3549026
13550.6	0.103317	3549018
13561	0.103261	3548834
13570.4	0.103199	3548811
13580.9	0.103116	3548211
13590.3	0.103031	3548717
13600.8	0.102923	3548662
13610.2	0.102814	3549060
13620.7	0.10268	3549304
13630.2	0.102546	3548941
13640.8	0.102383	3548219
13650.2	0.102224	3549508
13660.5	0.102034	3549679
13670.9	0.101827	3549706
13680.2	0.101626	3549677
13690.5	0.101384	3549989
13700.8	0.10112	3549571
13710.3	0.100859	3548436
13720.8	0.100546	3547939
13730.4	0.100239	3547375
13740.8	0.0998803	3546531
13750.1	0.0995355	3546773
13760.6	0.099121	3545913
13770	0.0987206	3545699
13780.5	0.0982449	3545671
13790.9	0.0977387	3545517
13800.3	0.0972538	3545284
13810.7	0.0966817	3544269
13820.1	0.0961359	3543474
13830.5	0.095494	3544056
13841	0.0948143	3544410
13850.3	0.0941697	3543983
13860.8	0.0934168	3543607
13870.2	0.0927057	3543404
13880.7	0.0918721	3543384
13890.1	0.0910876	3542707
13900.4	0.0901906	3543112
13910.1	0.0893165	3542526
13920.6	0.0883204	3542409
13930	0.0873929	3542361
13940.5	0.0863186	3542507
13950	0.0853156	3542230
13960.5	0.0841652	3542019
13970	0.0830831	3542582
13980.5	0.081851	3542677
13991	0.0805876	3543272
14000.4	0.079408	3543489
14010.8	0.0780738	3543768
14020.4	0.0768015	3543558
14031	0.0753593	3543823
14040.5	0.0740309	3543338
14050.1	0.0726713	3542872
14060.6	0.0711335	3543144
14070.9	0.0695941	3543580
14080.4	0.0681509	3543177
14091	0.0665076	3542713
14100.5	0.0650012	3541413
14110.8	0.0633367	3540763
14120.3	0.06179	3540350
14130.7	0.060058	3540342
14140.2	0.0584588	3539567
14150.7	0.0566564	3538642
14160.2	0.0550075	3539539
14170.9	0.0531334	3539943
14180.5	0.0514217	3540403
14190	0.0497045	3541389
14200.4	0.0478297	3541864
14210.7	0.0459353	3542920
14221	0.044022	3543282
14230.3	0.0422699	3543276
14240.7	0.0403204	3542637
14250.1	0.0385456	3541483
14260.7	0.0365274	3540109
14270.1	0.0347194	3538659
14280.6	0.0327159	3537910
14290.9	0.0307231	3536498
14300.3	0.0289316	3535996
14310.7	0.0269171	3535725
14320.2	0.0251078	3535511
14330.6	0.0231026	3534925
14340	0.0213032	3535182
14350.7	0.0192784	3534357
14360.1	0.0175	3533892
14371.1	0.0154263	3534410
14380.9	0.0135821	3533572
14390.6	0.0117712	3533419
14400.4	0.00996167	3533141
14410.1	0.00815953	3532602
14421	0.00616982	3531392
14431	0.00435841	3530500
14441	0.00254164	3529474
14451.1	0.000736231	3527592
14460	-0.000859325	3526752
14471	-0.0028037	3525263
14480.8	-0.00453966	3523238
14490.8	-0.00630457	3520582
14500.9	-0.00806071	3517897
14510.9	-0.00980876	3515363
14521	-0.0115494	3512041
14531	-0.0132832	3509972
14540.5	-0.0149112	3507622
14550.5	-0.0166188	3504632
14560.5	-0.0183359	3501141
14570.6	-0.0200481	3497785
14580.6	-0.0217558	3494237
14590.6	-0.0234496	3490859
14600.5	-0.0251249	3487579
14610.6	-0.0268205	3483598
14620.6	-0.0285086	3478415
14630.2	-0.0301144	3473728
14640.9	-0.0319224	3468556
14650.4	-0.0334951	3464953
14660.8	-0.0352377	3461294
14670.2	-0.0368022	3457314
14680.7	-0.0385424	3453733
14690.2	-0.0401098	3451011
14700.8	-0.0418601	3447630
14710.4	-0.0434528	3444048
14720.1	-0.0450417	3441105
14730.6	-0.0467468	3437601
14741	-0.0484393	3433313
14750.4	-0.0499546	3429010
14760.9	-0.0516345	3423412
14770.4	-0.0531472	3418978
14780.9	-0.0548135	3413503
14790.4	-0.0563025	3408800
14800	-0.0578016	3403611
14810.5	-0.0594054	3398258
14820.9	-0.0609895	3392581
14830.4	-0.0624067	3386847
14841	-0.0639647	3379436
14850.5	-0.0653451	3373237
14860.1	-0.0667222	3367456
14870.8	-0.0682348	3360951
14880.2	-0.069535	3355302
14890.6	-0.0709542	3348326
14901	-0.0723457	3340833
14910.4	-0.0735748	3335175
14921	-0.0749265	3329063
14930.7	-0.076138	3322709
14940.6	-0.0773358	3317308
14950.5	-0.0784979	3311793
14960.4	-0.0796213	3305956
14970	-0.0806814	3301150
14980.5	-0.0817835	3295322
14990	-0.0827317	3289791
15000.6	-0.0837329	3283927
15010	-0.0845815	3277882
15020.6	-0.0854658	3272044
15031	-0.0862774	3266370
15040.4	-0.0869525	3261067
15050.9	-0.0876464	3254894
15060.4	-0.088215	3249806
15071	-0.088783	3244248
15080.5	-0.0892303	3239692
15091	-0.089662	3233835
15100.5	-0.0899923	3228072
15110.1	-0.0902682	3222268
15120.6	-0.0905035	3215687
15131	-0.0906707	3209375
15140.4	-0.0907624	3204091
15150.8	-0.0907992	3198290
15160.4	-0.0907728	3193543
15170.8	-0.0906773	3188598
15180.1	-0.0905334	3184057
15190.4	-0.09031	3178272
15200.6	-0.0900197	3172231
15210.8	-0.0896621	3166094
15221	-0.089236	3159772
15230.1	-0.0887931	3155130
15240.3	-0.0882341	3149594
15250.5	-0.0876036	3143974
15260.7	-0.0869007	3137816
15270.9	-0.086124	3131910
15280	-0.0853611	3125807
15290.2	-0.0844414	3118973
15300.4	-0.083445	3111978
15310.6	-0.0823712	3104797
15320.7	-0.0812195	3097893
15330.9	-0.0799899	3091068
15340.1	-0.0788165	3085247
15350.3	-0.0774392	3078127
15360.4	-0.0759852	3070974
15370.6	-0.0744561	3064782
15380.8	-0.0728538	3058091
15391	-0.0711798	3051157
15400.2	-0.0696131	3044255
15410.5	-0.067809	3037262
15420.8	-0.0659428	3030571
15430.1	-0.0642303	3024632
15440.5	-0.0622466	3018819
15450.9	-0.0601284	3013024
15460.3	-0.0580534	3006886
15470.8	-0.0555881	3000234
15480.2	-0.053282	2994848
15490.8	-0.0506155	2989026
15500.4	-0.0481538	2983588
15511.1	-0.0454252	2976728
15520.7	-0.0429567	2971863
15530.2	-0.0404512	2967404
15540.8	-0.0376073	2961468
15550.3	-0.0350203	2955356
15560.8	-0.0321347	2949865
15570.4	-0.0294684	2944559
15581.1	-0.0264888	2937967
15590.7	-0.0238134	2931241
15600.3	-0.0211414	2925309
15610.9	-0.0181921	2918123
15620.3	-0.0155725	2913331
15630.7	-0.0126877	2906752
15641	-0.00985167	2900936
15650.3	-0.00732705	2895546
15660.5	-0.00456688	2890325
15670.8	-0.00186629	2884375
15680.1	0.000505959	2880133
15690.4	0.0030717	2874724
15700.7	0.00555925	2869225
15711	0.00796339	2863647
15720.2	0.01005	2858733
15730.5	0.0122746	2852780
15740.8	0.0143909	2846834
15750.1	0.0162066	2841816
15760.6	0.0181171	2835636
15770.1	0.0197337	2830782
15780.6	0.0213977	2824978
15790.1	0.022761	2819193
15800.5	0.0241329	2813320
15811	0.0253544	2806421
15820.4	0.0263292	2801124
15830.1	0.0271986	2795863
15840.8	0.028008	2790128
15850.5	0.0285609	2785135
15861	0.0289685	2779164
15870.5	0.0291564	2774657
15880.8	0.0291644	2769030
15890	0.0290559	2763901
15900.4	0.0284779	2758786
15911.1	0.0282114	2752766
15920.6	0.0278673	2747754
15930.1	0.027377	2742903
15940.7	0.0266141	2737951
15950.2	0.0257708	2732664
15960.1	0.0247603	2726963
15970.9	0.0235148	2721032
15980.4	0.0223304	2716272
15990.9	0.0209022	2710539
16000.3	0.0195423	2705918
16010.7	0.0179383	2701263
16020	0.0164365	2696384
16030.3	0.0147026	2691015
16040.7	0.0128764	2686027
16051	0.0100176	2681392
16060.3	0.00742393	2676576
16070.9	0.00475403	2671839
16080.3	0.00245188	2667171
16090.9	-0.0001427	2661673
16100.5	-0.00257294	2656204
16110.1	-0.00509979	2650537
16120.7	-0.00808137	2643739
16130.1	-0.0108076	2637594
16141	-0.0139466	2630312
16150.7	-0.016713	2624146
16160	-0.0193626	2618029
16170.6	-0.022351	2611464
16181	-0.0252589	2605742
16190.3	-0.0278544	2599566
16200.7	-0.0307473	2593409
16210.5	-0.0334821	2588296
16220.9	-0.0363674	2582488
16230.2	-0.0389024	2578212
16240.5	-0.0416438	2573001
16250.8	-0.0442864	2567873
16260	-0.0465704	2562107
16270.4	-0.0490027	2556717
16280.7	-0.0513289	2550672
16290	-0.0533283	2545544
16300.4	-0.0554397	2539820
16311.1	-0.0574967	2533052
16320.4	-0.0591324	2527524
16330.5	-0.0607862	2521349
16340.9	-0.0623218	2515662
16350.6	-0.0636054	2510069
16360.6	-0.0647651	2504292
16371	-0.0657971	2498958
16380.6	-0.0666117	2493669
16390.3	-0.0672389	2488179
16401	-0.067707	2481761
16410.7	-0.0679734	2476576
16421	-0.0681981	2471254
16430.3	-0.0678693	2465666
16440.7	-0.0678142	2460138
16450.1	-0.0676721	2454237
16460.4	-0.0672982	2448315
16470.8	-0.066784	2441983
16480.1	-0.0662149	2436309
16490.6	-0.0654638	2430615
16500.1	-0.0646935	2424339
16510.4	-0.063777	2418484
16520.9	-0.0627492	2411990
16530.8	-0.0617056	2406998
16540.4	-0.0606212	2402182
16551	-0.059352	2396648
16560.4	-0.0581581	2391855
16571	-0.0567505	2386617
16580.4	-0.0554652	2382518
16591	-0.053955	2377664
16600	-0.0526473	2373273
16610.7	-0.0510697	2368945
16620.1	-0.04966	2363845
16630.5	-0.0480766	2358755
16641	-0.0464838	2353606
16650.9	-0.044973	2349722
16660.3	-0.043531	2345474
16670.9	-0.0419408	2340700
16680.4	-0.0405103	2336523
16691	-0.0389569	2332116
16700.4	-0.0376008	2327551
16710.8	-0.0361269	2322606
16720.2	-0.0348336	2318577
16730.7	-0.0334358	2313908
16740.8	-0.032126	2309832
16750.6	-0.0309065	2305729
16760.2	-0.0297621	2301964
16770.8	-0.0285447	2297695
16780.3	-0.0275016	2294216
16790.8	-0.026401	2291049
16800.2	-0.0254681	2286939
16810.7	-0.0244799	2282605
16820.4	-0.0236105	2278451
16830.1	-0.022781	2274873
16840.1	-0.0219818	2270114
16850.3	-0.0212025	2265302
16860.6	-0.0204608	2260887
16870.3	-0.0197982	2256085
16880.4	-0.0191429	2251580
16890.5	-0.0185206	2246808
16900.3	-0.0179415	2241842
16910.5	-0.0173703	2237195
16920.9	-0.0168121	2232057
16930.2	-0.0163314	2228052
16940.6	-0.0158091	2223060
16951	-0.0153034	2218238
16960.6	-0.014853	2213609
16970.1	-0.0144156	2209642
16980.8	-0.0139273	2204794
16990.6	-0.0134902	2199682
17000.9	-0.0130361	2194770
17011.1	-0.0125922	2189793
17020.5	-0.0121774	2185322
17030	-0.0117621	2181299
17040.6	-0.0112981	2176413
17050.6	-0.0108548	2171909
17061	-0.0103955	2166629
17070.1	-0.00998281	2162259
17080.6	-0.00950888	2157062
17091	-0.00902888	2151627
17100.1	-0.0086041	2147443
17110.9	-0.00809474	2141840
17120.6	-0.00762977	2136998
17130.3	-0.00715913	2132070
17141	-0.00663032	2126428
17150.8	-0.00614185	2121159
17161.1	-0.00562143	2115950
17170.2	-0.00515419	2111627
17180.5	-0.00461933	2106988
17190.8	-0.00407985	2102508
17200.1	-0.00359162	2099355
17210.4	-0.00304765	2094784
17220.5	-0.00251569	2089767
17230.6	-0.00198644	2085479
17241	-0.0014407	2081057
17250.3	-0.00095953	2077271
17260.7	-0.000424028	2072723
17270	4.56292e-05	2068607
17280.4	0.000565525	2064712
17290.9	0.0010751	2060012
17300.2	0.00151831	2056545
17310.6	0.00200469	2052637
17321	0.00247674	2048520
17330.3	0.00288307	2045269
17340.7	0.00332372	2041710
17350	0.00369936	2038679
17360.6	0.0041069	2034980
17370.9	0.00448265	2031174
17380.6	0.00481569	2027274
17390.4	0.00512798	2022799
17400.3	0.00542208	2018952
17410.7	0.00570751	2014554
17420	0.0059398	2010425
17430.4	0.00617733	2006067
17440.9	0.00639008	2001265
17450.8	0.00657012	1997492
17460.6	0.00672636	1994041
17470.4	0.00686184	1990473
17480.2	0.00697688	1987202
17490.6	0.00707615	1983530
17501	0.00715402	1980219
17510.3	0.00720447	1977140
17520.7	0.0072405	1973913
17530.9	0.00725489	1971261
17540.2	0.00725059	1968272
17550.5	0.00722702	1965227
17560.8	0.00718439	1962346
17570.1	0.00713032	1959698
17580.9	0.00704909	1956513
17590.2	0.00696534	1953913
17600.7	0.00685628	1951108
17611.1	0.00673296	1948166
17620.8	0.00660666	1945942
17630.1	0.0064757	1943154
17640.5	0.00632073	1940094
17650.8	0.00615748	1936795
17660.9	0.00599318	1933842
17670.9	0.00582462	1931915
17680.9	0.00565273	1929286
17691	0.00547738	1926505
17700	0.00531996	1924315
17711.2	0.00512615	1921159
17721.3	0.00495533	1919046
17731.4	0.00478689	1916971
17740.1	0.00464594	1914980
17750.2	0.00448721	1912540
17760.5	0.0043351	1909899
17770.8	0.0041919	1907151
17781.4	0.00405371	1903721
17790.7	0.00394441	1901140
17801.4	0.0038295	1898250
17810.6	0.00374254	1895464
17821.4	0.00365533	1892587
17831.1	0.00359018	1889555
17840.9	0.00353867	1886601
17850.6	0.00350115	1884061
17860.3	0.00347793	1881411
17871	0.00346919	1878374
17881.3	0.00347748	1875701
17890.1	0.00349716	1873230
17901.2	0.00353927	1870135
17910.6	0.00358946	1867663
17920.3	0.00365417	1865103
17931	0.00374093	1862540
17940.6	0.00383175	1859885
17950.2	0.00393395	1857029
17960.9	0.00405996	1853909
17970.3	0.00418138	1850960
17981	0.00433024	1847361
17990.3	0.00446652	1844126
18000.6	0.00462568	1841125
18010.1	0.0047787	1838090
18020.6	0.00496643	1836150
18030.1	0.00514375	1834370
18040.6	0.00532747	1831057
18050.1	0.00542313	1827886
18060.8	0.00554623	1824824
18070.4	0.00566524	1821805
18080	0.00578442	1818498
18090.6	0.00590287	1815990
18100.1	0.00600306	1813760
18110.6	0.00611587	1811606
18120.1	0.00621987	1808920
18130.6	0.0063365	1806399
18140.1	0.00643942	1803682
18151	0.00655152	1800537
18160.8	0.00664456	1797651
18170.6	0.00672881	1795043
18180.2	0.00680138	1792558
18190.8	0.00686848	1789458
18200.2	0.00691731	1786878
18210.8	0.00695813	1784805
18220.2	0.00698253	1782246
18230.7	0.00699577	1779151
18240.1	0.00699505	1776796
18250.4	0.0069805	1773997
18260.7	0.00695155	1770919
18271	0.00690829	1767507
18280.3	0.00685723	1764524
18290.9	0.00678476	1761505
18300.5	0.00670718	1759442
18310.1	0.00661791	1757003
18320.9	0.00650382	1753991
18330.6	0.00638927	1751736
18340.3	0.00626575	1749260
18350.7	0.00612073	1747757
18360.1	0.00597948	1746389
18370.5	0.00581272	1744710
18380.8	0.00563721	1742615
18390.1	0.00547004	1739837
18400.5	0.00527397	1737418
18410.9	0.00506953	1734861
18420.2	0.00487772	1732179
18430.6	0.00465637	1729318
18440.9	0.00442693	1726681
18450.4	0.00421175	1723972
18460.9	0.00396586	1720762
18470.4	0.00373901	1718346
18480.2	0.00349922	1716001
18491.1	0.00323145	1713344
18500.3	0.00299942	1711024
18510.5	0.00274272	1708242
18520.1	0.00250067	1705210
18530.9	0.00222732	1702415
18540.8	0.00197961	1699890
18550.4	0.00173951	1697633
18560.2	0.00149586	1694880
18570.6	0.0012408	1691922
18580.4	0.00100588	1689708
18590.8	0.000761317	1686787
18600.2	0.000545753	1684433
18610.6	0.000311208	1681775
18620.1	0.000105444	1679627
18630.4	-0.000111838	1677015
18640.9	-0.00032253	1674489
18650.7	-0.000508071	1672078
18660.8	-0.000690171	1670026
18670.7	-0.000855939	1667592
18680.6	-0.0010108	1665307
18690.7	-0.00115668	1662967
18701.1	-0.00129436	1660260
18710.4	-0.00140582	1658442
18720.7	-0.00151699	1656199
18730.6	-0.00161074	1653638
18741	-0.00169552	1651528
18750.3	-0.00175845	1649474
18760.7	-0.00181485	1647186
18770	-0.00185186	1645297
18780.5	-0.00187831	1643158
18790.9	-0.00188955	1641388
18800.2	-0.00189037	1639670
18810.6	-0.00188307	1637619
18821.1	-0.00186467	1635595
18830.3	-0.0018349	1633523
18840.8	-0.00178151	1631638
18850	-0.00171318	1629454
18860.5	-0.00161052	1627477
18870.9	-0.00147942	1625634
18880.2	-0.00133876	1623872
18890.6	-0.00115357	1621712
18901.1	-0.00094013	1619439
18910.4	-0.000726886	1617322
18920.8	-0.000460558	1615322
18930.1	-0.000200191	1613438
18940.5	0.00011964	1611328
18950.9	0.000468469	1609349
18960.2	0.000803366	1607520
18970.7	0.00120864	1605620
18981.1	0.0016447	1603024
18990.4	0.00205866	1601136
19000.8	0.00255449	1598951
19010.1	0.00302237	1596926
19020.5	0.00357963	1595098
19031	0.00416987	1592883
19040.3	0.00472234	1590948
19050.7	0.00537523	1588854
19061.1	0.00606122	1587293
19070.4	0.00669858	1585511
19080.8	0.00744629	1583198
19090.1	0.00813777	1581371
19100.6	0.00894521	1579237
19111	0.00978307	1577147
19120.3	0.0105525	1575119
19130.7	0.0114447	1572497
19141.2	0.0123636	1570117
19150.4	0.0132017	1567619
19160.9	0.0141673	1565037
19170.1	0.0150455	1562865
19180.6	0.0160556	1560395
19191	0.0170888	1558376
19200.3	0.0180264	1556229
19210.7	0.019102	1553968
19220	0.0200757	1552110
19230.5	0.0211894	1549961
19240.9	0.0223206	1548147
19250.2	0.0233388	1546124
19260.6	0.0244965	1544289
19271.1	0.0256646	1542049
19280.3	0.0267096	1540792
19290.8	0.0278903	1539243
19300	0.0289423	1537654
19310.5	0.0301262	1535718
19320.9	0.0313078	1533981
19330.2	0.032354	1532305
19340.6	0.0335239	1530320
19351.1	0.0346834	1528742
19360.4	0.0357033	1527107
19370.8	0.0368356	1525334
19380.1	0.0378266	1524158
19390.5	0.0389214	1522313
19400.9	0.0399921	1520464
19410.2	0.0409212	1518281
19420.6	0.0419317	1516541
19431	0.0429117	1514792
19440.2	0.043757	1513059
19450.7	0.0446725	1511737
19461.1	0.0455479	1509794
19470.4	0.04629	1508000
19480.8	0.0470821	1506069
19490	0.0477463	1505120
19500.5	0.0484465	1503620
19510.9	0.0490949	1502001
19520.2	0.0496265	1500584
19530.6	0.0501727	1498995
19541	0.0506627	1497644
19550.3	0.0510501	1496535
19560.7	0.0514301	1494939
19570.7	0.0517392	1493527
19580.4	0.0519807	1492102
19590.8	0.05218	1490534
19600.1	0.0523011	1489292
19610.4	0.0523717	1488302
19620.5	0.0523733	1486784
19630.6	0.0523062	1485526
19640.8	0.0521671	1483763
19650	0.0519786	1482519
19660.4	0.0516943	1480887
19670.8	0.0513369	1479721
19680.4	0.0509392	1478290
19691	0.0504238	1476807
19700.6	0.0498953	1475091
19710.4	0.0492926	1473429
19720.8	0.0485867	1471685
19730.1	0.0479042	1470485
19740.5	0.0470771	1469512
19750.7	0.0462155	1467940
19760.7	0.0453055	1466859
19770.8	0.0443489	1465214
19781.1	0.0433169	1463742
19790.6	0.0423206	1462255
19800.3	0.0412764	1461013
19810.9	0.0400876	1459787
19820.4	0.0389869	1458404
19830.5	0.0377882	1457330
19840.9	0.036519	1456518
19850.2	0.0353725	1455044
19860.4	0.0340722	1453472
19870.6	0.0327691	1451828
19880.8	0.0314383	1450247
19891	0.0300871	1448587
19900.2	0.0288702	1447107
19910.6	0.0274896	1445841
19921.1	0.0261159	1444771
19930.6	0.0248733	1443444
19941	0.0235503	1442292
19950.4	0.0223572	1440905
19960.9	0.0214379	1439123
19970.8	0.0206269	1437262
19980	0.019604	1435863
19990.5	0.0183144	1433922
