PARAMS: -t 100 -n 40 -A 1 -d 16
SPLITTING_SIZE	MTPS	AVERAGE_TRIANGLES	AVERAGE_PARTITIONS
1024	52.2427	1.21872e+06	2358.88
2048	56.2058	1.21872e+06	1180.99
3072	56.1831	1.21872e+06	632.74
4096	54.7318	1.21872e+06	593.86
5120	54.9554	1.21872e+06	344.75
6144	55.021	1.21872e+06	336.52
7168	54.2478	1.21872e+06	325.94
8192	50.2968	1.21872e+06	300.59
9216	50.3827	1.21872e+06	186.52
10240	49.0628	1.21872e+06	185.88
11264	50.733	1.21872e+06	182.42
12288	50.5693	1.21872e+06	178.38
13312	49.5959	1.21872e+06	177.84
14336	45.8193	1.21872e+06	175.18
15360	49.179	1.21872e+06	170.86
16384	47.8203	1.21872e+06	160.48
17408	48.6077	1.21872e+06	109.12
18432	46.4822	1.21872e+06	108.2
19456	44.1643	1.21872e+06	107.38
20480	44.6852	1.21872e+06	105.82
21504	44.7135	1.21872e+06	104.04
22528	46.6485	1.21872e+06	102.8
23552	46.6187	1.21872e+06	101.02
24576	46.1533	1.21872e+06	99.36
25600	46.8268	1.21872e+06	98.62
26624	42.6069	1.21872e+06	98
27648	40.7731	1.21872e+06	98
28672	46.2791	1.21872e+06	97.5
29696	43.6125	1.21872e+06	96.04
30720	43.3743	1.21872e+06	93.72
31744	39.7253	1.21872e+06	91.48
32768	44.4428	1.21872e+06	88.48
33792	43.4376	1.21872e+06	66
34816	41.1005	1.21872e+06	66
35840	43.508	1.21872e+06	65.58
36864	46.9083	1.21872e+06	64.94
37888	43.3907	1.21872e+06	63.98
38912	43.9426	1.21872e+06	62.28
39936	30.501	1.21872e+06	60.24
40960	42.7828	1.21872e+06	57.72
41984	32.5365	1.21872e+06	55.66
43008	44.6788	1.21872e+06	54.08
44032	42.487	1.21872e+06	52.84
45056	33.1771	1.21872e+06	51.6
46080	42.7419	1.21872e+06	50.88
47104	31.6112	1.21872e+06	50.43
48128	40.9812	1.21872e+06	50.06
49152	40.0164	1.21872e+06	49.94
50176	36.9257	1.21872e+06	49.12
51200	38.786	1.21872e+06	48.2
52224	37.0502	1.21872e+06	48
53248	38.1245	1.21872e+06	48
54272	37.9063	1.21872e+06	47.88
55296	37.0725	1.21872e+06	46.8
56320	37.3439	1.21872e+06	46
57344	36.9867	1.21872e+06	46
58368	30.2741	1.21872e+06	46
59392	29.4621	1.21872e+06	46
60416	37.4655	1.21872e+06	46
61440	37.2264	1.21872e+06	46
62464	28.9982	1.21872e+06	46
63488	36.1189	1.21872e+06	46
64512	37.0297	1.21872e+06	46
65536	29.1705	1.21872e+06	46
PARAMS: -t 100 -n 40 -A 1 -d 18
SPLITTING_SIZE	MTPS	AVERAGE_TRIANGLES	AVERAGE_PARTITIONS
1024	55.6144	4.79929e+06	9339.72
2048	57.4129	4.79929e+06	4667.69
3072	61.0814	4.79929e+06	2404.2
4096	60.038	4.79929e+06	2318.89
5120	60.862	4.79929e+06	1230.45
6144	61.393	4.79929e+06	1213.52
7168	60.7908	4.79929e+06	1198.55
8192	59.589	4.79929e+06	1162.81
9216	61.5726	4.79929e+06	642.52
10240	60.839	4.79929e+06	637.42
11264	59.808	4.79929e+06	627.86
12288	60.4629	4.79929e+06	621.36
13312	61.5358	4.79929e+06	618.07
14336	61.9827	4.79929e+06	612.64
15360	60.6365	4.79929e+06	606.22
16384	60.2622	4.79929e+06	586
17408	58.6659	4.79929e+06	345.86
18432	58.1062	4.79929e+06	344.72
19456	60.0481	4.79929e+06	343.14
20480	59.5576	4.79929e+06	341.13
21504	58.9089	4.79929e+06	338.44
22528	59.3602	4.79929e+06	335.58
23552	56.7097	4.79929e+06	333.28
24576	58.8034	4.79929e+06	331.16
25600	58.3604	4.79929e+06	328.66
26624	55.8523	4.79929e+06	325.84
27648	57.8821	4.79929e+06	322.51
28672	58.1602	4.79929e+06	321.18
29696	58.5586	4.79929e+06	317.82
30720	56.5265	4.79929e+06	313.96
31744	58.2232	4.79929e+06	306.85
32768	58.4864	4.79929e+06	296.06
33792	54.3198	4.79929e+06	186
34816	58.4862	4.79929e+06	186
35840	55.9509	4.79929e+06	186
36864	58.1626	4.79929e+06	186
37888	56.6625	4.79929e+06	186
38912	56.3262	4.79929e+06	186
39936	55.5768	4.79929e+06	185.9
40960	58.7532	4.79929e+06	184.84
41984	51.3999	4.79929e+06	183.18
43008	54.5688	4.79929e+06	181.06
44032	56.2081	4.79929e+06	179.06
45056	57.876	4.79929e+06	178.26
46080	53.1435	4.79929e+06	178
47104	58.1451	4.79929e+06	178
48128	54.9306	4.79929e+06	178
49152	57.5996	4.79929e+06	178
50176	57.4967	4.79929e+06	178
51200	54.7359	4.79929e+06	178
52224	58.2658	4.79929e+06	177.84
53248	53.3747	4.79929e+06	177.26
54272	53.8327	4.79929e+06	176.3
55296	52.1334	4.79929e+06	175.1
56320	56.1626	4.79929e+06	173.88
57344	57.2099	4.79929e+06	172.72
58368	57.714	4.79929e+06	172.36
59392	56.1524	4.79929e+06	171.86
60416	51.7553	4.79929e+06	169.62
61440	54.252	4.79929e+06	168.24
62464	53.5594	4.79929e+06	168
63488	53.9422	4.79929e+06	168
64512	52.6475	4.79929e+06	166.1
65536	51.7662	4.79929e+06	159.54
PARAMS: -t 100 -n 40 -A 1 -d 20
SPLITTING_SIZE	MTPS	AVERAGE_TRIANGLES	AVERAGE_PARTITIONS
1024	56.323	1.90469e+07	37171
2048	60.9122	1.90469e+07	18574.6
3072	64.1747	1.90469e+07	9429.25
4096	64.1952	1.90469e+07	9277.21
5120	65.6006	1.90469e+07	4781.6
6144	65.8349	1.90469e+07	4744.69
7168	65.7685	1.90469e+07	4707.4
8192	65.4997	1.90469e+07	4635.1
9216	65.8577	1.90469e+07	2425.27
10240	65.7252	1.90469e+07	2410.81
11264	66.2066	1.90469e+07	2395.21
12288	66.0918	1.90469e+07	2380.49
13312	66.1617	1.90469e+07	2367.64
14336	65.978	1.90469e+07	2357.24
15360	65.8557	1.90469e+07	2342.7
16384	65.6037	1.90469e+07	2304.06
17408	64.6425	1.90469e+07	1231.04
18432	65.4444	1.90469e+07	1227.88
19456	65.2125	1.90469e+07	1225.02
20480	65.4894	1.90469e+07	1221.42
21504	65.2941	1.90469e+07	1215.88
22528	65.2166	1.90469e+07	1212.02
23552	65.1976	1.90469e+07	1208.96
24576	65.8644	1.90469e+07	1205.42
25600	65.4113	1.90469e+07	1201.5
26624	65.0861	1.90469e+07	1197.66
27648	64.9642	1.90469e+07	1194.52
28672	64.3469	1.90469e+07	1192.1
29696	65.8499	1.90469e+07	1190.72
30720	65.0286	1.90469e+07	1187.6
31744	65.6179	1.90469e+07	1175.38
32768	65.3521	1.90469e+07	1158.74
33792	63.9528	1.90469e+07	641.56
34816	65.1187	1.90469e+07	640.5
35840	64.3834	1.90469e+07	639.38
36864	63.6768	1.90469e+07	638.74
37888	64.6148	1.90469e+07	637.96
38912	64.292	1.90469e+07	635.9
39936	64.3698	1.90469e+07	633.36
40960	64.51	1.90469e+07	630
41984	64.5183	1.90469e+07	626.42
43008	64.6262	1.90469e+07	623.68
44032	65.4746	1.90469e+07	621.78
45056	64.7133	1.90469e+07	620.26
46080	64.2848	1.90469e+07	619.36
47104	64.8727	1.90469e+07	618.64
48128	64.1162	1.90469e+07	617.88
49152	64.8096	1.90469e+07	616.84
50176	64.3378	1.90469e+07	615.92
51200	64.8405	1.90469e+07	614.98
52224	63.8527	1.90469e+07	614.3
53248	64.2239	1.90469e+07	613.8
54272	63.4881	1.90469e+07	612.76
55296	64.4538	1.90469e+07	612
56320	64.1961	1.90469e+07	611.02
57344	63.8131	1.90469e+07	609.74
58368	64.4203	1.90469e+07	608.18
59392	64.8062	1.90469e+07	606.98
60416	64.3928	1.90469e+07	605.7
61440	64.7727	1.90469e+07	604.46
62464	63.7692	1.90469e+07	604
63488	64.4825	1.90469e+07	601.66
64512	63.0121	1.90469e+07	593.74
65536	64.2085	1.90469e+07	586
