output_2012_06_10_sierpi_intel_omp_tsunami_parallel_release_d20_a8_t100.txt
Executable + params: ../../build/sierpi_intel_omp_tsunami_parallel_release -o 32768 -A 1 -d 20 -a 8 -t 100
Problem size with different number of CPUs using function optimization
THREADS	MTPS	TIMESTEPS	TIMESTEP_SIZE	SECONDS_FOR_SIMULATION	AVERAGE_TRIANGLES	AVERAGE_PARTITIONS
40	53.0427	100	0.000491318		1.9047e+07	1158.74
32	46.8384	100	0.000491318		1.9047e+07	1158.74
30	34.4982	100	0.000491318		1.9047e+07	1158.74
20	23.0032	100	0.000491318		1.9047e+07	1158.74
16	20.5348	100	0.000491318		1.9047e+07	1158.74
10	12.6828	100	0.000491318		1.9047e+07	1158.74
8	11.7374	100	0.000491318		1.9047e+07	1158.74
4	8.56832	100	0.000491318		1.9047e+07	1158.74
2	4.95574	100	0.000491318		1.9047e+07	1158.74
1	2.53309	100	0.000491318		1.9047e+07	1158.74

output_2012_06_10_sierpi_intel_tbb_forced_scan_tsunami_parallel_release_d20_a8_t100.txt
Executable + params: ../../build/sierpi_intel_tbb_forced_scan_tsunami_parallel_release -o 32768 -A 1 -d 20 -a 8 -t 100
Problem size with different number of CPUs using function optimization
THREADS	MTPS	TIMESTEPS	TIMESTEP_SIZE	SECONDS_FOR_SIMULATION	AVERAGE_TRIANGLES	AVERAGE_PARTITIONS
40	60.8778	100	0.000491318		1.9047e+07	963.71
32	50.4136	100	0.000491318		1.9047e+07	773.72
30	39.0958	100	0.000491318		1.9047e+07	756.66
20	26.233	100	0.000491318		1.9047e+07	533.26
16	20.7118	100	0.000491318		1.9047e+07	433.08
10	13.3665	100	0.000491318		1.9047e+07	289.05
8	12.5587	100	0.000491318		1.9047e+07	236.11
4	8.65547	100	0.000491318		1.9047e+07	133.26
2	4.58205	100	0.000491318		1.9047e+07	75.89
1	2.39221	100	0.000491318		1.9047e+07	48

output_2012_06_10_sierpi_intel_tbb_sacsp_tsunami_parallel_release_d20_a8_t100.txt
Executable + params: ../../build/sierpi_intel_tbb_sacsp_tsunami_parallel_release -o 32768 -A 1 -d 20 -a 8 -t 100
Problem size with different number of CPUs using function optimization
THREADS	MTPS	TIMESTEPS	TIMESTEP_SIZE	SECONDS_FOR_SIMULATION	AVERAGE_TRIANGLES	AVERAGE_PARTITIONS
40	72.3428	100	0.000491318		1.9047e+07	1158.74
32	62.2994	100	0.000491318		1.9047e+07	1158.74
30	48.1879	100	0.000491318		1.9047e+07	1158.74
20	28.3052	100	0.000491318		1.9047e+07	1158.74
16	24.3347	100	0.000491318		1.9047e+07	1158.74
10	14.2886	100	0.000491318		1.9047e+07	1158.74
8	13.4695	100	0.000491318		1.9047e+07	1158.74
4	11.7323	100	0.000491318		1.9047e+07	1158.74
2	6.10363	100	0.000491318		1.9047e+07	1158.74
1	3.09874	100	0.000491318		1.9047e+07	1158.74

output_2012_06_10_sierpi_intel_tbb_scan_sacsp_tsunami_parallel_release_d20_a8_t100.txt
Executable + params: ../../build/sierpi_intel_tbb_scan_sacsp_tsunami_parallel_release -o 32768 -A 1 -d 20 -a 8 -t 100
Problem size with different number of CPUs using function optimization
THREADS	MTPS	TIMESTEPS	TIMESTEP_SIZE	SECONDS_FOR_SIMULATION	AVERAGE_TRIANGLES	AVERAGE_PARTITIONS
40	65.1686	100	0.000491318		1.9047e+07	963.71
32	53.2483	100	0.000491318		1.9047e+07	773.72
30	40.2595	100	0.000491318		1.9047e+07	756.66
20	26.1566	100	0.000491318		1.9047e+07	533.26
16	22.809	100	0.000491318		1.9047e+07	433.08
10	13.6757	100	0.000491318		1.9047e+07	289.05
8	13.359	100	0.000491318		1.9047e+07	236.11
4	8.92207	100	0.000491318		1.9047e+07	133.26
2	4.69172	100	0.000491318		1.9047e+07	75.89
1	2.44028	100	0.000491318		1.9047e+07	48

output_2012_06_10_sierpi_intel_tbb_scan_tsunami_parallel_release_d20_a8_t100.txt
Executable + params: ../../build/sierpi_intel_tbb_scan_tsunami_parallel_release -o 32768 -A 1 -d 20 -a 8 -t 100
Problem size with different number of CPUs using function optimization
THREADS	MTPS	TIMESTEPS	TIMESTEP_SIZE	SECONDS_FOR_SIMULATION	AVERAGE_TRIANGLES	AVERAGE_PARTITIONS
40	61.75	100	0.000491318		1.9047e+07	963.71
32	50.9033	100	0.000491318		1.9047e+07	773.72
30	44.6314	100	0.000491318		1.9047e+07	756.66
20	25.0769	100	0.000491318		1.9047e+07	533.26
16	21.4086	100	0.000491318		1.9047e+07	433.08
10	13.541	100	0.000491318		1.9047e+07	289.05
8	12.6868	100	0.000491318		1.9047e+07	236.11
4	8.65305	100	0.000491318		1.9047e+07	133.26
2	4.60583	100	0.000491318		1.9047e+07	75.89
1	2.39727	100	0.000491318		1.9047e+07	48

output_2012_06_10_sierpi_intel_tbb_taskaffinities_scan_sacsp_tsunami_parallel_release_d20_a8_t100.txt
Executable + params: ../../build/sierpi_intel_tbb_taskaffinities_scan_sacsp_tsunami_parallel_release -o 32768 -A 1 -d 20 -a 8 -t 100
Problem size with different number of CPUs using function optimization
THREADS	MTPS	TIMESTEPS	TIMESTEP_SIZE	SECONDS_FOR_SIMULATION	AVERAGE_TRIANGLES	AVERAGE_PARTITIONS
40	64.6245	100	0.000491318		1.9047e+07	963.71
32	52.1064	100	0.000491318		1.9047e+07	773.72
30	41.0951	100	0.000491318		1.9047e+07	756.66
20	26.1514	100	0.000491318		1.9047e+07	533.26
16	23.5732	100	0.000491318		1.9047e+07	433.08
10	13.6463	100	0.000491318		1.9047e+07	289.05
8	12.918	100	0.000491318		1.9047e+07	236.11
4	8.95796	100	0.000491318		1.9047e+07	133.26
2	4.70344	100	0.000491318		1.9047e+07	75.89
1	2.4372	100	0.000491318		1.9047e+07	48

output_2012_06_10_sierpi_intel_tbb_taskaffinities_scan_tsunami_parallel_release_d20_a8_t100.txt
Executable + params: ../../build/sierpi_intel_tbb_taskaffinities_scan_tsunami_parallel_release -o 32768 -A 1 -d 20 -a 8 -t 100
Problem size with different number of CPUs using function optimization
THREADS	MTPS	TIMESTEPS	TIMESTEP_SIZE	SECONDS_FOR_SIMULATION	AVERAGE_TRIANGLES	AVERAGE_PARTITIONS
40	49.9495	100	0.000491318		1.9047e+07	963.71
32	49.5516	100	0.000491318		1.9047e+07	773.72
30	40.599	100	0.000491318		1.9047e+07	756.66
20	24.4507	100	0.000491318		1.9047e+07	533.26
16	21.1311	100	0.000491318		1.9047e+07	433.08
10	13.3644	100	0.000491318		1.9047e+07	289.05
8	14.5348	100	0.000491318		1.9047e+07	236.11
4	8.6905	100	0.000491318		1.9047e+07	133.26
2	4.59263	100	0.000491318		1.9047e+07	75.89
1	2.39257	100	0.000491318		1.9047e+07	48

output_2012_06_10_sierpi_intel_tbb_tsunami_parallel_release_d20_a8_t100.txt
Executable + params: ../../build/sierpi_intel_tbb_tsunami_parallel_release -o 32768 -A 1 -d 20 -a 8 -t 100
Problem size with different number of CPUs using function optimization
THREADS	MTPS	TIMESTEPS	TIMESTEP_SIZE	SECONDS_FOR_SIMULATION	AVERAGE_TRIANGLES	AVERAGE_PARTITIONS
40	63.727	100	0.000491318		1.9047e+07	1158.74
32	54.2842	100	0.000491318		1.9047e+07	1158.74
30	43.1682	100	0.000491318		1.9047e+07	1158.74
20	24.9815	100	0.000491318		1.9047e+07	1158.74
16	21.1523	100	0.000491318		1.9047e+07	1158.74
10	12.9489	100	0.000491318		1.9047e+07	1158.74
8	11.9993	100	0.000491318		1.9047e+07	1158.74
4	8.92319	100	0.000491318		1.9047e+07	1158.74
2	4.98636	100	0.000491318		1.9047e+07	1158.74
1	2.53045	100	0.000491318		1.9047e+07	1158.74

