                                "u[1] = 0

                                   h[1] = 10

                                   u[2] = 0

                                   h[2] = 10

                                   U[1] = 0

                                   H[1] = 10

                                   U[2] = 0

                                   H[2] = 10"


