%%MatrixMarket matrix array real general
6 6
0.
0.
-.1666666667e-1
0.
-.8333333333e-2
0.
0.
.1666666667
.6666666667e-1
0.
.6666666667e-1
0.
0.
0.
-.1666666667e-1
0.
.1666666667e-1
0.
0.
.1666666667
.1333333333
0.
.3333333333e-1
0.
0.
.1666666667
.1333333333
0.
.6666666667e-1
0.
0.
0.
.3333333333e-1
0.
-.8333333333e-2
0.
