0	0	35832	35832	
36.0427	0	35650	35650	
72.2269	0	35678	35678	
108.411	0	35746	35746	
144.595	0	35848	35848	
180.779	0	35842	35842	
216.989	0	35810	35810	
253.198	0	35776	35776	
289.407	0	35820	35820	
325.616	0	35852	35852	
361.825	0	35842	35842	
398.035	0	35876	35876	
434.244	0	35884	35884	
470.453	0	35918	35918	
507.441	0	35878	35878	
544.429	0	35798	35798	
581.563	0	35702	35702	
618.697	0	35634	35634	
655.831	0	35572	35572	
692.965	0	35514	35514	
730.099	0	35512	35512	
767.233	0	35490	35490	
804.367	0	35458	35458	
841.502	0	35470	35470	
878.636	0	35480	35480	
915.77	0	35454	35454	
952.904	0	35536	35536	
990.038	0	35554	35554	
1027.17	0	35558	35558	
1064.31	0	35582	35582	
1101.44	0	35636	35636	
1138.57	0	35694	35694	
1175.71	0	35750	35750	
1211.97	0	35820	35820	
1248.23	0	35846	35846	
1284.49	0	35868	35868	
1320.75	0	35924	35924	
1357.01	0	35954	35954	
1393.27	0	35990	35990	
1429.53	0	36042	36042	
1465.79	0	36098	36098	
1502.05	0	36170	36170	
1538.31	0	36248	36248	
1574.54	0	36314	36314	
1610.76	0	36364	36364	
1646.99	0	36404	36404	
1683.21	0	36466	36466	
1719.44	0	36512	36512	
1755.66	0	36572	36572	
1791.89	0	36622	36622	
1828.11	0	36654	36654	
1864.34	0	36726	36726	
1900.56	0	36790	36790	
1936.79	0	36872	36872	
1973.01	0	36960	36960	
2009.2	0	37020	37020	
2045.39	0	37058	37058	
2081.57	0	37146	37146	
2117.76	0	37174	37174	
2153.95	0	37232	37232	
2190.14	0	37280	37280	
2226.32	0	37360	37360	
2262.51	0	37414	37414	
2298.7	0	37504	37504	
2334.88	0	37570	37570	
2371.07	0	37644	37644	
2407.26	0	37684	37684	
2443.45	0	37776	37776	
2479.32	0	37846	37846	
2515.19	0	37924	37924	
2551.06	0	37982	37982	
2586.94	0	38046	38046	
2622.81	0	38078	38078	
2658.68	0	38110	38110	
2694.55	0	38168	38168	
2730.18	0	38298	38298	
2765.8	0	38406	38406	
2801.43	0	38456	38456	
2836.83	0	38536	38536	
2872.23	0	38574	38574	
2907.64	0	38634	38634	
2943.04	0	38706	38706	
2978.44	0	38790	38790	
3013.84	0	38838	38838	
3049.24	0	38890	38890	
3084.27	0	38964	38964	
3119.29	0	39038	39038	
3154.31	0	39102	39102	
3189.34	0	39188	39188	
3224.36	0	39254	39254	
3259.38	0	39328	39328	
3294.02	0	39418	39418	
3328.65	0	39526	39526	
3363.29	0	39570	39570	
3397.92	0	39622	39622	
3432.56	0	39686	39686	
3467.19	0	39750	39750	
3501.83	0	39830	39830	
3536.46	0	39890	39890	
3571.1	0	39948	39948	
3605.73	0	40048	40048	
3640.37	0	40152	40152	
3675	0	40198	40198	
3709.64	0	40284	40284	
3744.27	0	40354	40354	
3778.91	0	40408	40408	
3813.54	0	40494	40494	
3848.18	0	40594	40594	
3882.82	0	40678	40678	
3917.45	0	40794	40794	
3952.09	0	40856	40856	
3986.72	0	40926	40926	
4021.36	0	41002	41002	
4055.99	0	41058	41058	
4090.63	0	41152	41152	
4125.26	0	41258	41258	
4159.9	0	41314	41314	
4194.53	0	41400	41400	
4229.17	0	41480	41480	
4263.8	0	41554	41554	
4298.44	0	41618	41618	
4333.07	0	41688	41688	
4367.71	0	41776	41776	
4402.34	0	41842	41842	
4436.98	0	41930	41930	
4471.61	0	42030	42030	
4506.25	0	42122	42122	
4540.88	0	42214	42214	
4575.52	0	42280	42280	
4610.15	0	42348	42348	
4644.79	0	42396	42396	
4679.42	0	42452	42452	
4714.06	0	42590	42590	
4748.69	0	42716	42716	
4783.33	0	42772	42772	
4817.97	0	42826	42826	
4852.6	0	42896	42896	
4887.24	0	43004	43004	
4921.87	0	43140	43140	
4956.51	0	43218	43218	
4991.14	0	43288	43288	
5025.78	0	43410	43410	
5060.41	0	43518	43518	
5095.05	0	43604	43604	
5129.68	0	43666	43666	
5164.32	0	43746	43746	
5198.95	0	43838	43838	
5233.59	0	43912	43912	
5268.22	0	43966	43966	
5302.86	0	44080	44080	
5337.49	0	44174	44174	
5372.13	0	44242	44242	
5406.76	0	44332	44332	
5441.4	0	44446	44446	
5476.03	0	44560	44560	
5510.67	0	44688	44688	
5545.3	0	44778	44778	
5579.94	0	44816	44816	
5614.57	0	44952	44952	
5649.21	0	45054	45054	
5683.84	0	45146	45146	
5718.48	0	45192	45192	
5753.11	0	45266	45266	
5787.75	0	45318	45318	
5822.38	0	45434	45434	
5857.02	0	45568	45568	
5891.65	0	45672	45672	
5926.29	0	45750	45750	
5960.92	0	45776	45776	
5995.56	0	45852	45852	
6030.19	0	46030	46030	
6064.83	0	46160	46160	
6099.46	0	46244	46244	
6134.1	0	46306	46306	
6168.73	0	46384	46384	
6203.37	0	46492	46492	
6238	0	46596	46596	
6272.64	0	46700	46700	
6307.27	0	46770	46770	
6341.91	0	46856	46856	
6376.54	0	46904	46904	
6411.18	0	47026	47026	
6445.81	0	47140	47140	
6480.45	0	47238	47238	
6515.08	0	47296	47296	
6549.72	0	47354	47354	
6584.35	0	47442	47442	
6618.99	0	47596	47596	
6653.62	0	47682	47682	
6688.26	0	47808	47808	
6722.89	0	47914	47914	
6757.52	0	47974	47974	
6792.16	0	48098	48098	
6826.79	0	48242	48242	
6861.43	0	48306	48306	
6896.06	0	48384	48384	
6930.7	0	48444	48444	
6965.33	0	48548	48548	
6999.96	0	48668	48668	
7034.6	0	48760	48760	
7069.23	0	48874	48874	
7103.87	0	48942	48942	
7138.5	0	49032	49032	
7173.14	0	49162	49162	
7207.77	0	49270	49270	
7242.4	0	49400	49400	
7277.04	0	49490	49490	
7311.67	0	49582	49582	
7346.31	0	49684	49684	
7380.94	0	49830	49830	
7415.58	0	49944	49944	
7450.21	0	50016	50016	
7484.84	0	50112	50112	
7519.48	0	50220	50220	
7554.11	0	50340	50340	
7588.75	0	50454	50454	
7623.38	0	50584	50584	
7658.01	0	50678	50678	
7692.65	0	50776	50776	
7727.28	0	50888	50888	
7761.92	0	51018	51018	
7796.55	0	51124	51124	
7831.19	0	51222	51222	
7865.82	0	51302	51302	
7900.45	0	51432	51432	
7935.09	0	51556	51556	
7969.72	0	51668	51668	
8004.36	0	51796	51796	
8038.99	0	51894	51894	
8073.63	0	51982	51982	
8108.26	0	52100	52100	
8142.9	0	52234	52234	
8177.53	0	52368	52368	
8212.17	0	52464	52464	
8246.8	0	52536	52536	
8281.44	0	52640	52640	
8316.07	0	52770	52770	
8350.71	0	52886	52886	
8385.34	0	52992	52992	
8419.98	0	53136	53136	
8454.61	0	53256	53256	
8489.25	0	53382	53382	
8523.88	0	53534	53534	
8558.52	0	53624	53624	
8593.15	0	53768	53768	
8627.79	0	53848	53848	
8662.42	0	53932	53932	
8697.06	0	54070	54070	
8731.69	0	54194	54194	
8766.33	0	54302	54302	
8800.96	0	54396	54396	
8835.6	0	54538	54538	
8870.23	0	54672	54672	
8904.87	0	54794	54794	
8939.5	0	54934	54934	
8974.14	0	55068	55068	
9008.77	0	55192	55192	
9043.41	0	55316	55316	
9078.04	0	55442	55442	
9112.68	0	55566	55566	
9147.31	0	55692	55692	
9181.95	0	55798	55798	
9216.58	0	55918	55918	
9251.22	0	56014	56014	
9285.85	0	56180	56180	
9320.49	0	56358	56358	
9355.12	0	56484	56484	
9389.76	0	56620	56620	
9424.39	0	56720	56720	
9459.02	0	56860	56860	
9493.66	0	56984	56984	
9528.29	0	57158	57158	
9562.93	0	57258	57258	
9597.56	0	57390	57390	
9632.2	0	57550	57550	
9666.83	0	57686	57686	
9701.47	0	57834	57834	
9736.1	0	57998	57998	
9770.74	0	58118	58118	
9805.37	0	58200	58200	
9840.01	0	58322	58322	
9874.64	0	58462	58462	
9909.28	0	58588	58588	
9943.91	0	58784	58784	
9978.55	0	58872	58872	
10013.2	0	58972	58972	
10047.8	0	59128	59128	
10082.5	0	59266	59266	
10117.1	0	59392	59392	
10151.7	0	59538	59538	
10186.4	0	59686	59686	
10221	0	59810	59810	
10255.6	0	59980	59980	
10290.3	0	60138	60138	
10324.9	0	60268	60268	
10359.5	0	60408	60408	
10394.2	0	60508	60508	
10428.8	0	60628	60628	
10463.4	0	60748	60748	
10498.1	0	60890	60890	
10532.7	0	61032	61032	
10567.3	0	61186	61186	
10602	0	61294	61294	
10636.6	0	61444	61444	
10671.2	0	61566	61566	
10705.9	0	61730	61730	
10740.5	0	61864	61864	
10775.1	0	62010	62010	
10809.8	0	62164	62164	
10844.4	0	62322	62322	
10879.1	0	62410	62410	
10913.7	0	62574	62574	
10948.3	0	62708	62708	
10983	0	62842	62842	
11017.6	0	62976	62976	
11052.2	0	63158	63158	
11086.9	0	63282	63282	
11121.5	0	63402	63402	
11156.1	0	63560	63560	
11190.8	0	63686	63686	
11225.4	0	63852	63852	
11260	0	63978	63978	
11294.7	0	64106	64106	
11329.3	0	64206	64206	
11363.9	0	64376	64376	
11398.6	0	64534	64534	
11433.2	0	64680	64680	
11467.9	0	64810	64810	
11502.5	0	64980	64980	
11537.1	0	65158	65158	
11571.8	0	65296	65296	
11606.4	0	65454	65454	
11641	0	65604	65604	
11675.7	0	65762	65762	
11710.4	0	65906	65906	
11745.1	0	66052	66052	
11779.8	0	66250	66250	
11814.5	0	66376	66376	
11849.2	0	66528	66528	
11884.2	0	66700	66700	
11919.3	0	66826	66826	
11954.3	0	66996	66996	
11989.3	0	67184	67184	
12024.3	0	67338	67338	
12059	0	67544	67544	
12093.6	0	67708	67708	
12128.2	0	67868	67868	
12162.9	0	67976	67976	
12197.5	0	68130	68130	
12232.1	0	68262	68262	
12266.8	0	68460	68460	
12301.4	0	68584	68584	
12336.1	0	68762	68762	
12370.7	0	68924	68924	
12405.3	0	69088	69088	
12440	0	69226	69226	
12474.6	0	69378	69378	
12509.2	0	69540	69540	
12543.9	0	69706	69706	
12578.5	0	69840	69840	
12613.1	0	70028	70028	
12647.8	0	70212	70212	
12682.4	0	70342	70342	
12717	0	70560	70560	
12751.7	0	70748	70748	
12786.3	0	70960	70960	
12820.9	0	71116	71116	
12855.6	0	71260	71260	
12890.2	0	71422	71422	
12924.8	0	71588	71588	
12959.5	0	71750	71750	
12994.1	0	71936	71936	
13028.7	0	72104	72104	
13063.4	0	72276	72276	
13098	0	72448	72448	
13132.7	0	72572	72572	
13167.3	0	72764	72764	
13201.9	0	73014	73014	
13236.6	0	73184	73184	
13271.2	0	73360	73360	
13305.8	0	73514	73514	
13340.5	0	73666	73666	
13375.1	0	73856	73856	
13409.7	0	74092	74092	
13444.4	0	74330	74330	
13479	0	74472	74472	
13513.6	0	74610	74610	
13548.3	0	74740	74740	
13582.9	0	74878	74878	
13617.5	0	75128	75128	
13652.2	0	75278	75278	
13686.8	0	75512	75512	
13721.4	0	75670	75670	
13756.1	0	75810	75810	
13790.7	0	75968	75968	
13825.4	0	76214	76214	
13860	0	76404	76404	
13894.6	0	76522	76522	
13929.3	0	76652	76652	
13963.9	0	76842	76842	
13998.5	0	77028	77028	
14033.2	0	77258	77258	
14067.8	0	77428	77428	
14102.4	0	77592	77592	
14137.1	0	77740	77740	
14171.7	0	77926	77926	
14206.3	0	78076	78076	
14241	0	78284	78284	
14275.6	0	78488	78488	
14310.2	0	78656	78656	
14344.9	0	78796	78796	
14379.5	0	78932	78932	
14414.2	0	79146	79146	
14448.8	0	79330	79330	
14483.4	0	79486	79486	
14518.1	0	79628	79628	
14552.7	0	79796	79796	
14587.3	0	79926	79926	
14622	0	80080	80080	
14656.6	0	80304	80304	
14691.2	0	80542	80542	
14725.9	0	80756	80756	
14760.5	0	80902	80902	
14795.1	0	81038	81038	
14829.8	0	81230	81230	
14864.4	0	81544	81544	
14899	0	81798	81798	
14933.7	0	82008	82008	
14968.3	0	82182	82182	
15002.9	0	82336	82336	
15037.6	0	82512	82512	
15072.2	0	82736	82736	
15106.9	0	82894	82894	
15141.5	0	83116	83116	
15176.1	0	83282	83282	
15210.8	0	83492	83492	
15245.4	0	83694	83694	
15280	0	83946	83946	
15314.7	0	84154	84154	
15349.3	0	84352	84352	
15383.9	0	84562	84562	
15418.6	0	84776	84776	
15453.2	0	85028	85028	
15487.8	0	85240	85240	
15522.5	0	85442	85442	
15557.1	0	85678	85678	
15591.7	0	85870	85870	
15626.4	0	86106	86106	
15661	0	86274	86274	
15695.7	0	86544	86544	
15730.3	0	86718	86718	
15764.9	0	86868	86868	
15799.6	0	87062	87062	
15834.2	0	87238	87238	
15868.8	0	87478	87478	
15903.5	0	87770	87770	
15938.1	0	87994	87994	
15972.7	0	88164	88164	
16007.4	0	88326	88326	
16042	0	88560	88560	
16076.6	0	88768	88768	
16111.3	0	89022	89022	
16145.9	0	89206	89206	
16180.5	0	89406	89406	
16215.2	0	89614	89614	
16249.8	0	89880	89880	
16284.5	0	90048	90048	
16319.1	0	90228	90228	
16353.7	0	90428	90428	
16388.4	0	90658	90658	
16423	0	90858	90858	
16457.6	0	91022	91022	
16492.3	0	91228	91228	
16526.9	0	91458	91458	
16561.5	0	91662	91662	
16596.2	0	91858	91858	
16630.8	0	92096	92096	
16665.4	0	92312	92312	
16700.1	0	92530	92530	
16734.7	0	92780	92780	
16769.3	0	92992	92992	
16804	0	93224	93224	
16838.6	0	93418	93418	
16873.3	0	93622	93622	
16907.9	0	93794	93794	
16942.5	0	94000	94000	
16977.2	0	94250	94250	
17011.8	0	94420	94420	
17046.4	0	94648	94648	
17081.1	0	94794	94794	
17115.7	0	94988	94988	
17150.3	0	95227	95227	
17185	0	95533	95533	
17219.6	0	95837	95837	
17254.2	0	96045	96045	
17288.9	0	96242	96242	
17323.5	0	96428	96428	
17358.1	9.09495e-13	96679	96679	
17392.8	9.09495e-13	96903	96903	
17427.4	1.81899e-12	97171	97171	
17462	2.72848e-12	97433	97433	
17496.7	2.72848e-12	97629	97629	
17531.3	3.63798e-12	97888	97888	
17566	3.63798e-12	98094	98094	
17600.6	4.54747e-12	98317	98317	
17635.2	5.45697e-12	98581	98581	
17669.9	6.36646e-12	98809	98809	
17704.5	7.27596e-12	99010	99010	
17739.1	8.18545e-12	99286	99286	
17773.8	9.09495e-12	99548	99548	
17808.4	9.09495e-12	99758	99758	
17843	1.00044e-11	100010	100010	
17877.7	1.09139e-11	100242	100242	
17912.3	1.18234e-11	100442	100442	
17946.9	1.27329e-11	100651	100651	
17981.6	1.36424e-11	100891	100891	
18016.2	1.45519e-11	101149	101149	
18050.8	1.54614e-11	101374	101374	
18085.5	1.63709e-11	101655	101655	
18120.1	1.72804e-11	101890	101890	
18154.7	1.81899e-11	102139	102139	
18189.4	1.90994e-11	102306	102306	
18224	2.09184e-11	102439	102439	
18258.7	2.27374e-11	102650	102650	
18293.3	2.45564e-11	102874	102874	
18327.9	2.63753e-11	103124	103124	
18362.6	2.81943e-11	103336	103336	
18397.2	3.00133e-11	103487	103487	
18431.8	3.27418e-11	103705	103705	
18466.5	3.54703e-11	103904	103904	
18501.1	3.81988e-11	104135	104135	
18535.7	4.09273e-11	104361	104361	
18570.4	4.36557e-11	104621	104621	
18605	4.72937e-11	104829	104829	
18639.6	5.09317e-11	104986	104986	
18674.3	5.54792e-11	105155	105155	
18708.9	6.00267e-11	105347	105347	
18743.5	6.45741e-11	105556	105556	
18778.2	7.00311e-11	105782	105782	
18812.8	7.54881e-11	105996	105996	
18847.4	8.0945e-11	106189	106189	
18882.1	8.73115e-11	106333	106333	
18916.7	9.45874e-11	106522	106522	
18951.4	1.01863e-10	106751	106751	
18986	1.10049e-10	107016	107016	
19020.6	1.19144e-10	107204	107204	
19055.3	1.28239e-10	107396	107396	
19089.9	1.38243e-10	107572	107572	
19124.5	1.49157e-10	107714	107714	
19159.2	1.60981e-10	107952	107952	
19193.8	1.72804e-10	108142	108142	
19228.4	1.86446e-10	108367	108367	
19263.1	2.00998e-10	108567	108567	
19297.7	2.1646e-10	108720	108720	
19332.3	2.32831e-10	108917	108917	
19367	2.50111e-10	109090	109090	
19401.6	2.6921e-10	109296	109296	
19436.2	2.89219e-10	109496	109496	
19470.9	3.11047e-10	109659	109659	
19505.5	3.33785e-10	109802	109802	
19540.1	3.58341e-10	109920	109920	
19574.8	3.84716e-10	110086	110086	
19609.4	4.1382e-10	110291	110291	
19644.1	4.44743e-10	110474	110474	
19678.7	4.77485e-10	110761	110761	
19713.3	5.12046e-10	110967	110967	
19748	5.49335e-10	111138	111138	
19782.6	5.89353e-10	111391	111391	
19817.2	6.32099e-10	111578	111578	
19851.9	6.77574e-10	111742	111742	
19886.5	7.25777e-10	111967	111967	
19921.1	7.77618e-10	112169	112169	
19955.8	8.33097e-10	112416	112416	
19990.4	8.92214e-10	112639	112639	
20025	9.54969e-10	112809	112809	
20059.7	1.02227e-09	113006	113006	
20094.3	1.09412e-09	113236	113236	
20128.9	1.16961e-09	113436	113436	
20163.6	1.25056e-09	113658	113658	
20198.2	1.33696e-09	113839	113839	
20232.9	1.42882e-09	114036	114036	
20267.5	1.52613e-09	114223	114223	
20302.1	1.62981e-09	114430	114430	
20336.8	1.73986e-09	114651	114651	
20371.4	1.85719e-09	114862	114862	
20406	1.98179e-09	115077	115077	
20440.7	2.11367e-09	115257	115257	
20475.3	2.25373e-09	115486	115486	
20509.9	2.40198e-09	115665	115665	
20544.6	2.55932e-09	115893	115893	
20579.2	2.72667e-09	116169	116169	
20613.8	2.90402e-09	116382	116382	
20648.5	3.09228e-09	116579	116579	
20683.1	3.29146e-09	116797	116797	
20717.7	3.50246e-09	117005	117005	
20752.4	3.7262e-09	117137	117137	
20787	3.96358e-09	117340	117340	
20821.6	4.2146e-09	117509	117509	
20856.3	4.48017e-09	117760	117760	
20890.9	4.7612e-09	117942	117942	
20925.5	5.05861e-09	118145	118145	
20960.2	5.37329e-09	118337	118337	
20994.8	5.70526e-09	118569	118569	
21029.5	6.05633e-09	118769	118769	
21064.1	6.4274e-09	118996	118996	
21098.7	6.81939e-09	119194	119194	
21133.4	7.23321e-09	119395	119395	
21168	7.66977e-09	119541	119541	
21202.6	8.13088e-09	119732	119732	
21237.3	8.61746e-09	119925	119925	
21271.9	9.13042e-09	120134	120134	
21306.5	9.67157e-09	120273	120273	
21341.2	1.02418e-08	120441	120441	
21375.8	1.0843e-08	120604	120604	
21410.4	1.1476e-08	120769	120769	
21445.1	1.21427e-08	120943	120943	
21479.7	1.28448e-08	121070	121070	
21514.3	1.35842e-08	121260	121260	
21549	1.43627e-08	121462	121462	
21583.6	1.51813e-08	121708	121708	
21618.2	1.60426e-08	121906	121906	
21652.9	1.69484e-08	122070	122070	
21687.5	1.79007e-08	122239	122239	
21722.2	1.8902e-08	122379	122379	
21756.8	1.99543e-08	122587	122587	
21791.4	2.10593e-08	122861	122861	
21826.1	2.22199e-08	123079	123079	
21860.7	2.34386e-08	123253	123253	
21895.3	2.47182e-08	123428	123428	
21930	2.60607e-08	123597	123597	
21964.6	2.74695e-08	123768	123768	
21999.2	2.89465e-08	123982	123982	
22033.9	3.04963e-08	124191	124191	
22068.5	3.21206e-08	124351	124351	
22103.1	3.38232e-08	124521	124521	
22137.8	3.56076e-08	124726	124726	
22172.4	3.74766e-08	124936	124936	
22207	3.94339e-08	125146	125146	
22241.7	4.1483e-08	125306	125306	
22276.3	4.36285e-08	125530	125530	
22310.9	4.58731e-08	125713	125713	
22345.6	4.82223e-08	125876	125876	
22380.2	5.06789e-08	126066	126066	
22414.8	5.32482e-08	126276	126276	
22449.5	5.59348e-08	126516	126516	
22484.1	5.87424e-08	126746	126746	
22518.8	6.16765e-08	126898	126898	
22553.4	6.47424e-08	127067	127067	
22588	6.79447e-08	127216	127216	
22622.7	7.12889e-08	127368	127368	
22657.3	7.47796e-08	127578	127578	
22691.9	7.8423e-08	127777	127777	
22726.6	8.22256e-08	128004	128004	
22761.2	8.61928e-08	128175	128175	
22795.8	9.03301e-08	128324	128324	
22830.5	9.46447e-08	128521	128521	
22865.1	9.91431e-08	128749	128749	
22899.7	1.03832e-07	128989	128989	
22934.4	1.08718e-07	129173	129173	
22969	1.1381e-07	129308	129308	
23003.6	1.19113e-07	129503	129503	
23038.3	1.24636e-07	129681	129681	
23072.9	1.30387e-07	129859	129859	
23107.5	1.36374e-07	130135	130135	
23142.2	1.42605e-07	130372	130372	
23176.8	1.4909e-07	130577	130577	
23211.5	1.55836e-07	130731	130731	
23246.1	1.62853e-07	130864	130864	
23280.7	1.70151e-07	130981	130981	
23315.4	1.7774e-07	131193	131193	
23350	1.85629e-07	131406	131406	
23384.6	1.93828e-07	131642	131642	
23419.3	2.02349e-07	131796	131796	
23453.9	2.11203e-07	132004	132004	
23488.5	2.20401e-07	132187	132187	
23523.2	2.29954e-07	132422	132422	
23557.8	2.39875e-07	132632	132632	
23592.4	2.50176e-07	132847	132847	
23627.1	2.60869e-07	133013	133013	
23661.7	2.71969e-07	133197	133197	
23696.3	2.83488e-07	133358	133358	
23731	2.9544e-07	133509	133509	
23765.6	3.0784e-07	133653	133653	
23800.2	3.20703e-07	133762	133762	
23834.9	3.34044e-07	133951	133951	
23869.5	3.47878e-07	134069	134069	
23904.1	3.62222e-07	134274	134274	
23938.8	3.77092e-07	134509	134509	
23973.4	3.92505e-07	134731	134731	
24008.1	4.08479e-07	134968	134968	
24042.7	4.25031e-07	135189	135189	
24077.3	4.42182e-07	135415	135415	
24112	4.59948e-07	135576	135576	
24146.6	4.7835e-07	135706	135706	
24181.2	4.97408e-07	135831	135831	
24215.9	5.17143e-07	135985	135985	
24250.5	5.37576e-07	136131	136131	
24285.1	5.58728e-07	136379	136379	
24319.8	5.80621e-07	136566	136566	
24354.4	6.03278e-07	136802	136802	
24389	6.26721e-07	136994	136994	
24423.7	6.50974e-07	137205	137205	
24458.3	6.76062e-07	137405	137405	
24492.9	7.02007e-07	137531	137531	
24527.6	7.28836e-07	137722	137722	
24562.2	7.56576e-07	137840	137840	
24596.8	7.85251e-07	137976	137976	
24631.5	8.14891e-07	138117	138117	
24666.1	8.45521e-07	138252	138252	
24700.8	8.77169e-07	138484	138484	
24735.4	9.09865e-07	138640	138640	
24770	9.43636e-07	138816	138816	
24804.7	9.78512e-07	139073	139073	
24839.3	1.01452e-06	139206	139206	
24873.9	1.0517e-06	139414	139414	
24908.6	1.09015e-06	139529	139529	
24943.3	1.12977e-06	139665	139665	
24977.9	1.17065e-06	139761	139761	
25012.5	1.21286e-06	139941	139941	
25047.2	1.25642e-06	140127	140127	
25081.8	1.30139e-06	140287	140287	
25116.4	1.3478e-06	140497	140497	
25151.1	1.39568e-06	140653	140653	
25185.7	1.44506e-06	140825	140825	
25220.3	1.49593e-06	141042	141042	
25255	1.54831e-06	141296	141296	
25289.6	1.60223e-06	141541	141541	
25324.3	1.6577e-06	141676	141676	
25358.9	1.71461e-06	141839	141839	
25393.5	1.7728e-06	141998	141998	
25428.2	1.83217e-06	142171	142171	
25462.8	1.89265e-06	142327	142327	
25497.4	1.95423e-06	142511	142511	
25532.1	2.01696e-06	142693	142693	
25566.7	2.08097e-06	142901	142901	
25601.3	2.14645e-06	143014	143014	
25636	2.21363e-06	143197	143197	
25670.6	2.28278e-06	143350	143350	
25705.2	2.35419e-06	143566	143566	
25739.9	2.42815e-06	143740	143740	
25774.5	2.505e-06	144009	144009	
25809.1	2.58516e-06	144240	144240	
25843.8	2.66908e-06	144426	144426	
25878.4	2.75728e-06	144653	144653	
25913	2.85032e-06	144865	144865	
25947.7	2.94878e-06	145052	145052	
25982.3	3.05345e-06	145102	145102	
26016.9	3.07004e-06	145221	145221	
26051.6	3.1009e-06	145452	145452	
26086.2	3.15013e-06	145704	145704	
26120.8	3.21879e-06	145912	145912	
26155.5	3.30619e-06	146120	146120	
26190.1	3.41066e-06	146308	146308	
26224.7	3.53015e-06	146504	146504	
26259.4	3.66014e-06	146665	146665	
26294	3.79926e-06	146817	146817	
26328.7	3.94794e-06	147025	147025	
26363.3	4.10735e-06	147257	147257	
26397.9	4.27896e-06	147410	147410	
26432.6	4.46437e-06	147645	147645	
26467.2	4.67241e-06	147821	147821	
26501.8	4.95409e-06	148006	148006	
26536.5	5.20477e-06	148192	148192	
26571.1	5.48742e-06	148445	148445	
26605.7	5.79578e-06	148711	148711	
26640.4	6.12582e-06	148963	148963	
26675	6.47836e-06	149191	149191	
26709.6	6.8455e-06	149406	149406	
26744.3	7.22934e-06	149609	149609	
26778.9	7.62623e-06	149813	149813	
26813.5	8.07813e-06	150013	150013	
26848.2	8.60253e-06	150164	150164	
26882.8	9.21274e-06	150362	150362	
26917.4	9.89511e-06	150492	150492	
26952.1	1.06007e-05	150658	150658	
26986.7	1.13954e-05	150830	150830	
27021.3	1.23364e-05	150985	150985	
27056	1.35089e-05	151195	151195	
27090.6	1.49807e-05	151414	151414	
27125.2	1.46068e-05	151597	151597	
27159.9	1.56675e-05	151763	151763	
27194.5	1.74416e-05	151993	151993	
27229.1	1.96589e-05	152195	152195	
27263.8	2.22593e-05	152401	152401	
27298.4	2.51338e-05	152535	152535	
27333	2.82938e-05	152713	152713	
27367.7	3.17561e-05	152923	152923	
27402.3	3.54962e-05	153060	153060	
27436.9	3.88757e-05	153148	153148	
27471.6	4.32571e-05	153280	153280	
27506.2	4.8416e-05	153463	153463	
27540.9	5.4192e-05	153676	153676	
27575.5	6.05154e-05	153890	153890	
27610.1	6.73336e-05	154125	154125	
27644.8	7.46789e-05	154322	154322	
27679.4	8.26145e-05	154516	154516	
27714	9.12388e-05	154721	154721	
27748.7	0.000100643	154950	154950	
27783.3	0.000110917	155131	155131	
27817.9	0.000122148	155286	155286	
27852.6	0.000134429	155478	155478	
27887.2	0.000147848	155663	155663	
27921.8	0.000162474	155795	155795	
27956.5	0.000178417	155970	155970	
27991.1	0.00019581	156199	156199	
28025.7	0.00021478	156436	156436	
28060.4	0.000235446	156582	156582	
28095	0.000257925	156777	156777	
28129.6	0.000282336	156985	156985	
28164.3	0.000308813	157147	157147	
28198.9	0.0003375	157353	157353	
28233.5	0.000368556	157513	157513	
28268.2	0.000402148	157672	157672	
28302.8	0.000438453	157850	157850	
28337.4	0.000477658	158035	158035	
28372.1	0.000519964	158265	158265	
28406.7	0.000565585	158440	158440	
28441.3	0.000614747	158612	158612	
28476	0.00066768	158800	158800	
28510.6	0.000724623	158909	158909	
28545.2	0.000785815	159083	159083	
28579.9	0.000851509	159224	159224	
28614.5	0.00092196	159380	159380	
28649.1	0.000997438	159613	159613	
28683.8	0.00107822	159742	159742	
28718.4	0.00116458	159911	159911	
28753	0.00125683	160055	160055	
28787.7	0.00135525	160169	160169	
28822.3	0.00146015	160395	160395	
28856.9	0.00157184	160519	160519	
28891.6	0.00169064	160678	160678	
28926.2	0.00181684	160903	160903	
28960.8	0.00195078	161101	161101	
28995.5	0.00209276	161287	161287	
29030.1	0.00224311	161439	161439	
29064.7	0.00240214	161598	161598	
29099.4	0.00257016	161739	161739	
29134	0.00274747	161796	161796	
29168.6	0.00293439	161919	161919	
29203.3	0.00313119	162066	162066	
29237.9	0.00333817	162252	162252	
29272.5	0.00355558	162438	162438	
29307.2	0.00378368	162571	162571	
29341.8	0.00402271	162716	162716	
29376.4	0.00427289	162939	162939	
29411.1	0.00453442	163178	163178	
29445.7	0.00480747	163329	163329	
29480.3	0.00509221	163480	163480	
29515	0.00538876	163607	163607	
29549.6	0.00569722	163770	163770	
29584.2	0.00601766	163972	163972	
29618.9	0.00635013	164142	164142	
29653.5	0.00669461	164299	164299	
29688.1	0.00705108	164414	164414	
29722.8	0.00741946	164617	164617	
29757.4	0.00779964	164839	164839	
29792	0.00819146	165019	165019	
29826.7	0.00859472	165195	165195	
29861.3	0.00900917	165402	165402	
29895.9	0.00943453	165524	165524	
29930.6	0.00987045	165707	165707	
29965.2	0.0103165	165867	165867	
29999.8	0.0107724	166089	166089	
30034.5	0.0112375	166288	166288	
30069.1	0.0117113	166436	166436	
30103.7	0.0121932	166650	166650	
30138.4	0.0126826	166831	166831	
30173	0.0131788	166960	166960	
30207.6	0.0136811	167095	167095	
30242.3	0.0141886	167226	167226	
30276.9	0.0147006	167446	167446	
30311.5	0.0152161	167685	167685	
30346.2	0.0157343	167970	167970	
30380.8	0.016254	168183	168183	
30415.4	0.0167744	168438	168438	
30450.1	0.0172944	168656	168656	
30484.7	0.0178128	168787	168787	
30519.3	0.0183286	168926	168926	
30554	0.0188406	169217	169217	
30588.6	0.0193476	169371	169371	
30623.2	0.0198484	169515	169515	
30657.8	0.0203418	169705	169705	
30692.5	0.0208265	169957	169957	
30727.1	0.0213013	170134	170134	
30761.7	0.021765	170321	170321	
30796.4	0.0222162	170468	170468	
30831	0.0226537	170647	170647	
30865.6	0.0230762	170793	170793	
30900.3	0.0234825	171051	171051	
30934.9	0.0238713	171198	171198	
30969.5	0.0242414	171470	171470	
31004.2	0.0245917	171639	171639	
31038.8	0.024921	171775	171775	
31073.4	0.0252281	171946	171946	
31108	0.0255119	172083	172083	
31142.7	0.0257714	172289	172289	
31177.3	0.0260056	172496	172496	
31211.9	0.0262135	172644	172644	
31246.6	0.0263942	172819	172819	
31281.2	0.0265469	173059	173059	
31315.8	0.0266709	173214	173214	
31350.5	0.0267653	173445	173445	
31385.1	0.0268296	173560	173560	
31419.7	0.0268632	173721	173721	
31454.4	0.0268655	173871	173871	
31489	0.0268362	174016	174016	
31523.6	0.026775	174199	174199	
31558.3	0.0266815	174333	174333	
31592.9	0.0265556	174423	174423	
31627.5	0.0263972	174588	174588	
31662.2	0.0262063	174815	174815	
31696.8	0.0259829	174946	174946	
31731.4	0.0257273	175056	175056	
31766	0.0254396	175231	175231	
31800.7	0.0251202	175407	175407	
31835.3	0.0247694	175659	175659	
31869.9	0.0243879	175821	175821	
31904.6	0.0239761	176011	176011	
31939.2	0.0235346	176120	176120	
31973.8	0.0230643	176315	176315	
32008.5	0.0225659	176433	176433	
32043.1	0.0220402	176670	176670	
32077.7	0.0214882	176927	176927	
32112.4	0.0209109	177177	177177	
32147	0.0203093	177374	177374	
32181.6	0.0196845	177558	177558	
32216.3	0.0190378	177750	177750	
32250.9	0.0183703	177929	177929	
32285.5	0.0176832	178082	178082	
32320.1	0.0169779	178279	178279	
32354.8	0.0162556	178441	178441	
32389.4	0.0155179	178605	178605	
32424	0.0147659	178773	178773	
32458.7	0.0140012	178953	178953	
32493.3	0.0132252	179068	179068	
32527.9	0.0124393	179285	179285	
32562.6	0.011645	179523	179523	
32597.2	0.0108437	179706	179706	
32631.8	0.0100369	179899	179899	
32666.5	0.00922596	180099	180099	
32701.1	0.00841241	180284	180284	
32735.7	0.00759766	180427	180427	
32770.4	0.00678312	180613	180613	
32805	0.00597016	180805	180805	
32839.6	0.00516018	181034	181034	
32874.2	0.00435449	181263	181263	
32908.9	0.00355442	181487	181487	
32943.5	0.00276124	181629	181629	
32978.1	0.00197618	181915	181915	
33012.8	0.00120044	182149	182149	
33047.4	0.000435189	182372	182372	
33082	-0.00031847	182552	182552	
33116.7	-0.00105947	182721	182721	
33151.3	-0.00178679	182874	182874	
33185.9	-0.00249947	183045	183045	
33220.6	-0.00319658	183249	183249	
33255.2	-0.00387726	183426	183426	
33289.8	-0.00454071	183634	183634	
33324.4	-0.00518616	183865	183865	
33359.1	-0.00581291	184065	184065	
33393.7	-0.00642032	184320	184320	
33428.3	-0.00700779	184516	184516	
33463	-0.0075748	184699	184699	
33497.6	-0.00812086	184893	184893	
33532.2	-0.00864554	185050	185050	
33566.9	-0.00914848	185171	185171	
33601.5	-0.00962937	185246	185246	
33636.1	-0.0100879	185462	185462	
33670.8	-0.010524	185666	185666	
33705.4	-0.0109373	185915	185915	
33740	-0.0113279	186194	186194	
33774.7	-0.0116956	186421	186421	
33809.3	-0.0120404	186599	186599	
33843.9	-0.0123624	186802	186802	
33878.5	-0.0126616	186967	186967	
33913.2	-0.0129381	187127	187127	
33947.8	-0.0131921	187291	187291	
33982.4	-0.0134238	187420	187420	
34017.1	-0.0136334	187660	187660	
34051.7	-0.0138213	187863	187863	
34086.3	-0.0139876	188106	188106	
34121	-0.0141329	188308	188308	
34155.6	-0.0142577	188490	188490	
34190.2	-0.0143624	188725	188725	
34224.9	-0.0144475	188868	188868	
34259.5	-0.014514	188961	188961	
34294.1	-0.0145605	189123	189123	
34328.7	-0.014588	189286	189286	
34363.4	-0.014592	189525	189525	
34398	-0.0145936	189663	189663	
34432.6	-0.0145581	189835	189835	
34467.3	-0.0145045	190084	190084	
34501.9	-0.0144565	190292	190292	
34536.5	-0.014407	190508	190508	
34571.2	-0.0143339	190773	190773	
34605.8	-0.0142344	190968	190968	
34640.4	-0.0141222	191170	191170	
34675	-0.0140019	191370	191370	
34709.7	-0.0138688	191596	191596	
34744.3	-0.0137014	191694	191694	
34778.9	-0.0135693	191906	191906	
34813.6	-0.0134123	192089	192089	
34848.2	-0.0132315	192256	192256	
34882.8	-0.0130383	192472	192472	
34917.5	-0.0128367	192729	192729	
34952.1	-0.0126342	192860	192860	
34986.7	-0.0124264	193086	193086	
35021.4	-0.0122122	193308	193308	
35056	-0.0119888	193611	193611	
35090.6	-0.0117585	193813	193813	
35125.2	-0.0115215	194023	194023	
35159.9	-0.0112805	194217	194217	
35194.5	-0.0110368	194456	194456	
35229.1	-0.0107895	194617	194617	
35263.8	-0.0105419	194700	194700	
35298.4	-0.0102957	194873	194873	
35333	-0.0100495	195087	195087	
35367.7	-0.00980207	195279	195279	
35402.3	-0.00955307	195534	195534	
35436.9	-0.00930281	195690	195690	
35471.5	-0.00905191	195910	195910	
35506.2	-0.00880092	196089	196089	
35540.8	-0.00855022	196303	196303	
35575.4	-0.00830016	196488	196488	
35610.1	-0.00805122	196589	196589	
35644.7	-0.00780401	196740	196740	
35679.3	-0.00755918	196909	196909	
35714	-0.00731724	197182	197182	
35748.6	-0.00707877	197407	197407	
35783.2	-0.00684421	197621	197621	
35817.9	-0.00661377	197886	197886	
35852.5	-0.00638746	198171	198171	
35887.1	-0.00616519	198422	198422	
35921.7	-0.00594692	198582	198582	
35956.4	-0.00573264	198741	198741	
35991	-0.00552238	198879	198879	
36025.6	-0.00531621	199050	199050	
36060.3	-0.00511422	199255	199255	
36094.9	-0.00491654	199398	199398	
36129.5	-0.0047233	199645	199645	
36164.2	-0.00453467	199857	199857	
36198.8	-0.00435074	200127	200127	
36233.4	-0.00417161	200286	200286	
36268	-0.00399728	200580	200580	
36302.7	-0.00382773	200680	200680	
36337.3	-0.00366294	200818	200818	
36371.9	-0.00350285	201080	201080	
36406.6	-0.00334745	201320	201320	
36441.2	-0.00319672	201497	201497	
36475.8	-0.00305068	201686	201686	
36510.5	-0.0029093	201860	201860	
36545.1	-0.00277253	202090	202090	
36579.7	-0.00264029	202316	202316	
36614.3	-0.00251244	202528	202528	
36649	-0.0023888	202725	202725	
36683.6	-0.00226916	202932	202932	
36718.2	-0.00215328	203126	203126	
36752.9	-0.00204094	203287	203287	
36787.5	-0.00193192	203474	203474	
36822.1	-0.00182601	203655	203655	
36856.8	-0.00172304	203925	203925	
36891.4	-0.00162287	204152	204152	
36926	-0.00152533	204332	204332	
36960.6	-0.0014303	204517	204517	
36995.3	-0.00133762	204664	204664	
37029.9	-0.00124711	204957	204957	
37064.5	-0.00115859	205148	205148	
37099.2	-0.00107185	205375	205375	
37133.8	-0.000986684	205522	205522	
37168.4	-0.00090286	205746	205746	
37203.1	-0.00082017	205930	205930	
37237.7	-0.000738412	206070	206070	
37272.3	-0.000657396	206224	206224	
37306.9	-0.000576951	206450	206450	
37341.6	-0.000496918	206660	206660	
37376.2	-0.000417146	206908	206908	
37410.8	-0.000337495	207115	207115	
37445.5	-0.000257825	207272	207272	
37480.1	-0.000177998	207444	207444	
37514.7	-9.78783e-05	207621	207621	
37549.4	-1.73309e-05	207882	207882	
37584	6.37745e-05	208097	208097	
37618.6	0.000145562	208300	208300	
37653.2	0.000228146	208508	208508	
37687.9	0.000311631	208731	208731	
37722.5	0.000396107	208901	208901	
37757.1	0.000481653	209063	209063	
37791.8	0.000568333	209219	209219	
37826.4	0.000656199	209407	209407	
37861	0.00074529	209621	209621	
37895.7	0.000835631	209888	209888	
37930.3	0.000927233	210077	210077	
37964.9	0.0010201	210276	210276	
37999.5	0.0011142	210451	210451	
38034.2	0.00120953	210631	210631	
38068.8	0.00130602	210798	210798	
38103.4	0.00140363	211065	211065	
38138.1	0.00150228	211287	211287	
38172.7	0.0016019	211600	211600	
38207.3	0.00170238	211796	211796	
38242	0.00180363	211989	211989	
38276.6	0.00190552	212115	212115	
38311.2	0.00200792	212197	212197	
38345.8	0.0021107	212383	212383	
38380.5	0.00221371	212740	212740	
38415.1	0.00231679	212877	212877	
38449.7	0.00241976	213105	213105	
38484.4	0.00252246	213272	213272	
38519	0.00262468	213443	213443	
38553.6	0.00272624	213652	213652	
38588.2	0.00282692	213832	213832	
38622.9	0.00292652	214022	214022	
38657.5	0.0030248	214195	214195	
38692.1	0.00312155	214409	214409	
38726.8	0.00321653	214593	214593	
38761.4	0.00330951	214756	214756	
38796	0.00340025	214958	214958	
38830.7	0.00348852	215110	215110	
38865.3	0.00357407	215368	215368	
38899.9	0.00365666	215714	215714	
38934.5	0.00373605	215890	215890	
38969.2	0.003812	216130	216130	
39003.8	0.00388428	216356	216356	
39038.4	0.00395263	216614	216614	
39073.1	0.00401683	216825	216825	
39107.7	0.00407665	217062	217062	
39142.3	0.00413185	217282	217282	
39176.9	0.00418221	217510	217510	
39211.6	0.0042275	217746	217746	
39246.2	0.00426752	217975	217975	
39280.8	0.00430205	218204	218204	
39315.5	0.0043309	218418	218418	
39350.1	0.00435386	218596	218596	
39384.7	0.00437077	218754	218754	
39419.4	0.00438146	218948	218948	
39454	0.00438575	219229	219229	
39488.6	0.00438351	219405	219405	
39523.2	0.0043746	219648	219648	
39557.9	0.0043589	219829	219829	
39592.5	0.00433629	220091	220091	
39627.1	0.00430669	220292	220292	
39661.8	0.00427	220570	220570	
39696.4	0.00422617	220768	220768	
39731	0.00417513	220936	220936	
39765.6	0.00411685	221128	221128	
39800.3	0.00405129	221375	221375	
39834.9	0.00397845	221566	221566	
39869.5	0.00389833	221740	221740	
39904.2	0.00381095	221851	221851	
39938.8	0.00371633	222041	222041	
39973.4	0.00361453	222330	222330	
40008.1	0.00350561	222487	222487	
40042.7	0.00338964	222817	222817	
40077.3	0.00326671	222956	222956	
40111.9	0.00313694	223128	223128	
40146.6	0.00300045	223283	223283	
40181.2	0.00285736	223553	223553	
40215.8	0.00270783	223750	223750	
40250.5	0.00255203	223933	223933	
40285.1	0.00239013	224169	224169	
40319.7	0.00222232	224372	224372	
40354.3	0.00204881	224558	224558	
40389	0.0018698	224729	224729	
40423.6	0.00168554	224960	224960	
40458.2	0.00149625	225172	225172	
40492.9	0.00130219	225439	225439	
40527.5	0.00110362	225716	225716	
40562.1	0.000900806	225918	225918	
40596.7	0.000694039	226119	226119	
40631.4	0.000483605	226302	226302	
40666	0.000269803	226581	226581	
40700.6	5.29396e-05	226705	226705	
40735.3	-0.000166672	226931	226931	
40769.9	-0.00038871	227197	227197	
40804.5	-0.00061285	227389	227389	
40839.1	-0.000838759	227660	227660	
40873.8	-0.0010661	227939	227939	
40908.4	-0.00129454	228128	228128	
40943	-0.00152373	228333	228333	
40977.7	-0.00175333	228510	228510	
41012.3	-0.00198299	228669	228669	
41046.9	-0.00221237	228899	228899	
41081.5	-0.00244111	229085	229085	
41116.2	-0.00266888	229232	229232	
41150.8	-0.00289531	229402	229402	
41185.4	-0.00312008	229607	229607	
41220.1	-0.00334284	229821	229821	
41254.7	-0.00356324	230069	230069	
41289.3	-0.00378096	230320	230320	
41324	-0.00399567	230493	230493	
41358.6	-0.00420703	230672	230672	
41393.2	-0.00441473	230928	230928	
41427.8	-0.00461845	231233	231233	
41462.5	-0.00481788	231328	231328	
41497.1	-0.00501274	231467	231467	
41531.7	-0.00520271	231621	231621	
41566.4	-0.00538752	231867	231867	
41601	-0.0055669	232050	232050	
41635.6	-0.00574058	232326	232326	
41670.2	-0.00590829	232583	232583	
41704.9	-0.00606981	232797	232797	
41739.5	-0.00622489	232898	232898	
41774.1	-0.0063733	233098	233098	
41808.8	-0.00651485	233300	233300	
41843.4	-0.00664933	233519	233519	
41878	-0.00677655	233696	233696	
41912.6	-0.00689633	233884	233884	
41947.3	-0.0070085	234020	234020	
41981.9	-0.00711291	234201	234201	
42016.5	-0.00720941	234383	234383	
42051.2	-0.00729788	234602	234602	
42085.8	-0.00737819	234871	234871	
42120.4	-0.00745021	235010	235010	
42155	-0.00751389	235190	235190	
42189.7	-0.00756921	235403	235403	
42224.3	-0.00761616	235548	235548	
42258.9	-0.00765475	235726	235726	
42293.6	-0.00768503	235934	235934	
42328.2	-0.00770702	236221	236221	
42362.8	-0.00772079	236516	236516	
42397.4	-0.00772639	236634	236634	
42432.1	-0.00772388	236786	236786	
42466.7	-0.0077133	236947	236947	
42501.3	-0.00769468	237014	237014	
42536	-0.00766805	237205	237205	
42570.6	-0.00763445	237359	237359	
42605.2	-0.00759322	237559	237559	
42639.8	-0.00754382	237800	237800	
42674.5	-0.00748447	238031	238031	
42709.1	-0.00741734	238252	238252	
42743.7	-0.00734291	238537	238537	
42778.4	-0.00726178	238825	238825	
42813	-0.00717461	239189	239189	
42847.6	-0.00708004	239551	239551	
42882.2	-0.00697931	239743	239743	
42916.9	-0.00687267	240065	240065	
42951.5	-0.00676041	240209	240209	
42986.1	-0.00664311	240426	240426	
43020.7	-0.00651975	240537	240537	
43055.4	-0.00639006	240800	240800	
43090	-0.00625494	240937	240937	
43124.6	-0.0061154	241248	241248	
43159.3	-0.00597207	241491	241491	
43193.9	-0.00582525	241781	241781	
