0	0	32768	32768	
135.718	0	32768	32768	
271.435	0	32768	32768	
407.153	0	32768	32768	
542.871	0	32768	32768	
678.589	0	32768	32768	
814.306	0	32768	32768	
950.024	0	32768	32768	
1085.74	0	32768	32768	
1221.46	0	32768	32768	
1357.18	0	32768	32768	
1492.89	0	32768	32768	
1628.61	0	32768	32768	
1764.33	0	32768	32768	
1900.05	0	32768	32768	
2035.77	0	32768	32768	
2171.48	0	32768	32768	
2307.2	0	32768	32768	
2442.92	0	32768	32768	
2578.64	0	32768	32768	
2714.35	0	32768	32768	
2850.07	0	32768	32768	
2985.79	0	32768	32768	
3121.51	-9.09495e-13	32768	32768	
3257.23	-2.72848e-12	32768	32768	
3392.94	-7.27596e-12	32768	32768	
3528.66	-2.72848e-12	32768	32768	
3664.38	7.82165e-11	32768	32768	
3800.1	4.52019e-10	32768	32768	
3935.81	1.65528e-09	32768	32768	
4071.53	4.77939e-09	32768	32768	
4207.25	1.17225e-08	32768	32768	
4342.97	2.53976e-08	32768	32768	
4478.68	4.98176e-08	32768	32768	
4614.4	8.99718e-08	32768	32768	
4750.12	1.51505e-07	32768	32768	
4885.84	2.40177e-07	32768	32768	
5021.56	3.61185e-07	32768	32768	
5157.27	5.18393e-07	32768	32768	
5292.99	7.1353e-07	32768	32768	
5428.71	9.45363e-07	32768	32768	
5564.43	1.20875e-06	32768	32768	
5700.14	1.49337e-06	32768	32768	
5835.86	1.78169e-06	32768	32768	
5971.58	2.04573e-06	32768	32768	
6107.3	2.24204e-06	32768	32768	
6243.02	2.30467e-06	32768	32768	
6378.73	2.13661e-06	32768	32768	
6514.45	1.60147e-06	32768	32768	
6650.17	5.19492e-07	32768	32768	
6785.89	-1.32549e-06	32768	32768	
6921.6	-4.15761e-06	32768	32768	
7057.32	-8.14513e-06	32768	32768	
7193.04	-1.32846e-05	32768	32768	
7328.76	-1.92154e-05	32768	32768	
7464.47	-2.49494e-05	32768	32768	
7600.19	-2.85083e-05	32768	32768	
7735.91	-2.64733e-05	32768	32768	
7871.63	-1.34682e-05	32768	32768	
8007.35	1.83786e-05	32768	32768	
8143.06	7.9931e-05	32768	32768	
8278.78	0.000185415	32768	32768	
8414.5	0.000352567	32768	32768	
8550.22	0.000602471	32768	32768	
8685.93	0.000958998	32768	32768	
8821.65	0.00144781	32768	32768	
8957.37	0.00209492	32768	32768	
9093.09	0.00292487	32768	32768	
9228.8	0.00395862	32768	32768	
9364.52	0.00521135	32768	32768	
9500.24	0.00669027	32768	32768	
9635.96	0.00839286	32768	32768	
9771.68	0.0103055	32768	32768	
9907.39	0.0124027	32768	32768	
10043.1	0.0146476	32768	32768	
10178.8	0.0169925	32768	32768	
10314.5	0.0193811	32768	32768	
10450.3	0.0217508	32768	32768	
10586	0.0240354	32768	32768	
10721.7	0.0261688	32768	32768	
10857.4	0.0280881	32768	32768	
10993.1	0.0297363	32768	32768	
11128.9	0.0310654	32768	32768	
11264.6	0.0320379	32768	32768	
11400.3	0.0326281	32768	32768	
11536	0.0328228	32768	32768	
11671.7	0.0326209	32768	32768	
11807.4	0.0320325	32768	32768	
11943.2	0.0310781	32768	32768	
12078.9	0.0297863	32768	32768	
12214.6	0.0281925	32768	32768	
12350.3	0.0263371	32768	32768	
12486	0.0242634	32768	32768	
12621.7	0.0220165	32768	32768	
12757.5	0.0196413	32768	32768	
12893.2	0.0171821	32768	32768	
13028.9	0.0146812	32768	32768	
13164.6	0.0121782	32768	32768	
13300.3	0.00970984	32768	32768	
13436.1	0.0073094	32768	32768	
13571.8	0.0050065	32768	32768	
13707.5	0.00282705	32768	32768	
13843.2	0.000793169	32768	32768	
13978.9	-0.00107678	32768	32768	
14114.6	-0.00276813	32768	32768	
14250.4	-0.00426979	32768	32768	
14386.1	-0.00557412	32768	32768	
14521.8	-0.00667681	32768	32768	
14657.5	-0.00757667	32768	32768	
14793.2	-0.00827546	32768	32768	
14928.9	-0.00877772	32768	32768	
15064.7	-0.00909055	32768	32768	
15200.4	-0.00922341	32768	32768	
15336.1	-0.0091879	32768	32768	
15471.8	-0.00899753	32768	32768	
15607.5	-0.0086675	32768	32768	
15743.3	-0.00821438	32768	32768	
15879	-0.00765592	32768	32768	
16014.7	-0.00701068	32768	32768	
16150.4	-0.00629779	32768	32768	
16286.1	-0.00553662	32768	32768	
16421.8	-0.0047465	32768	32768	
16557.6	-0.00394639	32768	32768	
16693.3	-0.00315462	32768	32768	
16829	-0.00238863	32768	32768	
16964.7	-0.00166467	32768	32768	
17100.4	-0.000997644	32768	32768	
17236.2	-0.000400878	32768	32768	
17371.9	0.00011404	32768	32768	
17507.6	0.000537388	32768	32768	
17643.3	0.000861416	32768	32768	
17779	0.00108041	32768	32768	
17914.7	0.00119073	32768	32768	
18050.5	0.0011908	32768	32768	
18186.2	0.0010811	32768	32768	
18321.9	0.00086408	32768	32768	
18457.6	0.000544062	32768	32768	
18593.3	0.000127124	32768	32768	
18729	-0.000379061	32768	32768	
18864.8	-0.000965406	32768	32768	
19000.5	-0.0016216	32768	32768	
19136.2	-0.00233635	32768	32768	
19271.9	-0.00309758	32768	32768	
19407.6	-0.00389269	32768	32768	
19543.4	-0.00470876	32768	32768	
19679.1	-0.00553285	32768	32768	
19814.8	-0.00635216	32768	32768	
19950.5	-0.00715429	32768	32768	
20086.2	-0.00792744	32768	32768	
20221.9	-0.00866058	32768	32768	
20357.7	-0.00934359	32768	32768	
20493.4	-0.00996747	32768	32768	
20629.1	-0.0105244	32768	32768	
20764.8	-0.0110078	32768	32768	
20900.5	-0.0114124	32768	32768	
21036.2	-0.0117344	32768	32768	
21172	-0.0119713	32768	32768	
21307.7	-0.012122	32768	32768	
21443.4	-0.0121866	32768	32768	
21579.1	-0.0121665	32768	32768	
21714.8	-0.0120643	32768	32768	
21850.6	-0.0118837	32768	32768	
21986.3	-0.0116291	32768	32768	
22122	-0.0113062	32768	32768	
22257.7	-0.0109209	32768	32768	
22393.4	-0.01048	32768	32768	
22529.1	-0.00999075	32768	32768	
22664.9	-0.0094606	32768	32768	
22800.6	-0.00889728	32768	32768	
22936.3	-0.00830857	32768	32768	
23072	-0.00770222	32768	32768	
23207.7	-0.00708585	32768	32768	
23343.4	-0.00646684	32768	32768	
23479.2	-0.00585224	32768	32768	
23614.9	-0.00524872	32768	32768	
23750.6	-0.00466245	32768	32768	
23886.3	-0.00409912	32768	32768	
24022	-0.0035638	32768	32768	
24157.8	-0.003061	32768	32768	
24293.5	-0.00259457	32768	32768	
24429.2	-0.00216774	32768	32768	
24564.9	-0.00178305	32768	32768	
24700.6	-0.00144242	32768	32768	
24836.3	-0.0011471	32768	32768	
24972.1	-0.000897731	32768	32768	
25107.8	-0.000694337	32768	32768	
25243.5	-0.000536364	32768	32768	
25379.2	-0.000422715	32768	32768	
25514.9	-0.000351786	32768	32768	
25650.6	-0.000321508	32768	32768	
25786.4	-0.000329396	32768	32768	
25922.1	-0.000372593	32768	32768	
26057.8	-0.000447925	32768	32768	
26193.5	-0.000551954	32768	32768	
26329.2	-0.000681026	32768	32768	
26465	-0.000831335	32768	32768	
26600.7	-0.000998967	32768	32768	
26736.4	-0.00117996	32768	32768	
26872.1	-0.00137036	32768	32768	
27007.8	-0.00156626	32768	32768	
27143.5	-0.00176387	32768	32768	
27279.3	-0.00195952	32768	32768	
27415	-0.00214977	32768	32768	
27550.7	-0.00233138	32768	32768	
27686.4	-0.0025014	32768	32768	
27822.1	-0.00265716	32768	32768	
27957.9	-0.00279632	32768	32768	
28093.6	-0.0029169	32768	32768	
28229.3	-0.00301726	32768	32768	
28365	-0.00309615	32768	32768	
28500.7	-0.00315268	32768	32768	
28636.4	-0.00318637	32768	32768	
28772.2	-0.00319708	32768	32768	
28907.9	-0.00318507	32768	32768	
29043.6	-0.00315092	32768	32768	
29179.3	-0.00309557	32768	32768	
29315	-0.00302023	32768	32768	
29450.7	-0.00292643	32768	32768	
29586.5	-0.00281594	32768	32768	
29722.2	-0.00269071	32768	32768	
29857.9	-0.00255293	32768	32768	
29993.6	-0.00240489	32768	32768	
30129.3	-0.00224899	32768	32768	
30265.1	-0.00208772	32768	32768	
30400.8	-0.00192356	32768	32768	
30536.5	-0.00175901	32768	32768	
30672.2	-0.00159649	32768	32768	
30807.9	-0.00143835	32768	32768	
30943.6	-0.00128683	32768	32768	
31079.4	-0.00114401	32768	32768	
31215.1	-0.00101177	32768	32768	
31350.8	-0.000891839	32768	32768	
31486.5	-0.000785679	32768	32768	
31622.2	-0.000694536	32768	32768	
31757.9	-0.000619401	32768	32768	
31893.7	-0.000561008	32768	32768	
32029.4	-0.000519827	32768	32768	
32165.1	-0.000496066	32768	32768	
32300.8	-0.000489676	32768	32768	
32436.5	-0.000500357	32768	32768	
32572.3	-0.000527568	32768	32768	
32708	-0.000570545	32768	32768	
32843.7	-0.000628316	32768	32768	
32979.4	-0.00069972	32768	32768	
33115.1	-0.000783429	32768	32768	
33250.8	-0.000877973	32768	32768	
33386.6	-0.000981764	32768	32768	
33522.3	-0.00109312	32768	32768	
33658	-0.00121029	32768	32768	
33793.7	-0.00133148	32768	32768	
33929.4	-0.00145489	32768	32768	
34065.1	-0.00157871	32768	32768	
34200.9	-0.00170118	32768	32768	
34336.6	-0.00182058	32768	32768	
34472.3	-0.00193528	32768	32768	
34608	-0.00204372	32768	32768	
34743.7	-0.00214447	32768	32768	
34879.5	-0.00223621	32768	32768	
35015.2	-0.00231776	32768	32768	
35150.9	-0.00238809	32768	32768	
35286.6	-0.00244632	32768	32768	
35422.3	-0.00249172	32768	32768	
35558	-0.00252372	32768	32768	
35693.8	-0.00254193	32768	32768	
35829.5	-0.0025461	32768	32768	
35965.2	-0.00253614	32768	32768	
36100.9	-0.00251212	32768	32768	
36236.6	-0.00247423	32768	32768	
36372.3	-0.00242283	32768	32768	
36508.1	-0.00235837	32768	32768	
36643.8	-0.00228144	32768	32768	
36779.5	-0.00219272	32768	32768	
36915.2	-0.002093	32768	32768	
37050.9	-0.00198311	32768	32768	
37186.7	-0.00186399	32768	32768	
37322.4	-0.00173661	32768	32768	
37458.1	-0.00160197	32768	32768	
37593.8	-0.00146112	32768	32768	
37729.5	-0.00131511	32768	32768	
37865.2	-0.001165	32768	32768	
38001	-0.00101183	32768	32768	
38136.7	-0.000856627	32768	32768	
38272.4	-0.000700392	32768	32768	
38408.1	-0.000544086	32768	32768	
38543.8	-0.000388622	32768	32768	
38679.5	-0.000234862	32768	32768	
38815.3	-8.3606e-05	32768	32768	
38951	6.44066e-05	32768	32768	
39086.7	0.000208506	32768	32768	
39222.4	0.000348094	32768	32768	
39358.1	0.000482644	32768	32768	
39493.9	0.000611704	32768	32768	
39629.6	0.000734896	32768	32768	
39765.3	0.000851915	32768	32768	
39901	0.000962527	32768	32768	
40036.7	0.00106657	32768	32768	
40172.4	0.00116394	32768	32768	
40308.2	0.00125461	32768	32768	
40443.9	0.00133859	32768	32768	
40579.6	0.00141596	32768	32768	
40715.3	0.00148684	32768	32768	
40851	0.00155139	32768	32768	
40986.8	0.00160983	32768	32768	
41122.5	0.00166237	32768	32768	
41258.2	0.00170927	32768	32768	
41393.9	0.0017508	32768	32768	
41529.6	0.00178726	32768	32768	
41665.3	0.00181893	32768	32768	
41801.1	0.00184612	32768	32768	
41936.8	0.00186909	32768	32768	
42072.5	0.00188815	32768	32768	
42208.2	0.00190356	32768	32768	
42343.9	0.00191556	32768	32768	
42479.6	0.00192439	32768	32768	
42615.4	0.00193025	32768	32768	
42751.1	0.00193332	32768	32768	
42886.8	0.00193376	32768	32768	
43022.5	0.00193168	32768	32768	
43158.2	0.00192718	32768	32768	
