0	0	524288	524288	
30.9506	0	524288	524288	
61.9012	0	524288	524288	
92.8519	0	524288	524288	
123.802	0	524288	524288	
154.753	0	524288	524288	
185.704	0	524288	524288	
216.654	0	524288	524288	
247.605	0	524288	524288	
278.556	0	524288	524288	
309.506	0	524288	524288	
340.457	0	524288	524288	
371.407	0	524288	524288	
402.358	0	524288	524288	
433.309	0	524288	524288	
464.259	0	524288	524288	
495.21	0	524288	524288	
526.161	0	524288	524288	
557.111	0	524288	524288	
588.062	0	524288	524288	
619.012	0	524288	524288	
649.963	0	524288	524288	
680.914	0	524288	524288	
711.864	0	524288	524288	
742.815	0	524288	524288	
773.766	0	524288	524288	
804.716	0	524288	524288	
835.667	0	524288	524288	
866.617	0	524288	524288	
897.568	0	524288	524288	
928.519	0	524288	524288	
959.469	0	524288	524288	
990.42	0	524288	524288	
1021.37	0	524288	524288	
1052.32	0	524288	524288	
1083.27	0	524288	524288	
1114.22	0	524288	524288	
1145.17	0	524288	524288	
1176.12	0	524288	524288	
1207.07	0	524288	524288	
1238.02	0	524288	524288	
1268.98	0	524288	524288	
1299.93	0	524288	524288	
1330.88	0	524288	524288	
1361.83	0	524288	524288	
1392.78	0	524288	524288	
1423.73	0	524288	524288	
1454.68	0	524288	524288	
1485.63	0	524288	524288	
1516.58	0	524288	524288	
1547.53	0	524288	524288	
1578.48	0	524288	524288	
1609.43	0	524288	524288	
1640.38	0	524288	524288	
1671.33	0	524288	524288	
1702.28	0	524288	524288	
1733.23	0	524288	524288	
1764.19	0	524288	524288	
1795.14	0	524288	524288	
1826.09	0	524288	524288	
1857.04	0	524288	524288	
1887.99	0	524288	524288	
1918.94	0	524288	524288	
1949.89	0	524288	524288	
1980.84	0	524288	524288	
2011.79	0	524288	524288	
2042.74	0	524288	524288	
2073.69	0	524288	524288	
2104.64	0	524288	524288	
2135.59	0	524288	524288	
2166.54	0	524288	524288	
2197.49	0	524288	524288	
2228.44	0	524288	524288	
2259.4	0	524288	524288	
2290.35	0	524288	524288	
2321.3	0	524288	524288	
2352.25	0	524288	524288	
2383.2	0	524288	524288	
2414.15	0	524288	524288	
2445.1	0	524288	524288	
2476.05	0	524288	524288	
2507	0	524288	524288	
2537.95	0	524288	524288	
2568.9	0	524288	524288	
2599.85	0	524288	524288	
2630.8	0	524288	524288	
2661.75	0	524288	524288	
2692.7	0	524288	524288	
2723.65	0	524288	524288	
2754.61	0	524288	524288	
2785.56	0	524288	524288	
2816.51	0	524288	524288	
2847.46	0	524288	524288	
2878.41	0	524288	524288	
2909.36	0	524288	524288	
2940.31	0	524288	524288	
2971.26	0	524288	524288	
3002.21	0	524288	524288	
3033.16	0	524288	524288	
3064.11	0	524288	524288	
3095.06	0	524288	524288	
3126.01	0	524288	524288	
3156.96	0	524288	524288	
3187.91	0	524288	524288	
3218.86	0	524288	524288	
3249.82	0	524288	524288	
3280.77	0	524288	524288	
3311.72	0	524288	524288	
3342.67	0	524288	524288	
3373.62	0	524288	524288	
3404.57	0	524288	524288	
3435.52	0	524288	524288	
3466.47	0	524288	524288	
3497.42	0	524288	524288	
3528.37	0	524288	524288	
3559.32	0	524288	524288	
3590.27	0	524288	524288	
3621.22	0	524288	524288	
3652.17	0	524288	524288	
3683.12	0	524288	524288	
3714.07	0	524288	524288	
3745.03	0	524288	524288	
3775.98	0	524288	524288	
3806.93	0	524288	524288	
3837.88	0	524288	524288	
3868.83	0	524288	524288	
3899.78	0	524288	524288	
3930.73	0	524288	524288	
3961.68	0	524288	524288	
3992.63	0	524288	524288	
4023.58	0	524288	524288	
4054.53	0	524288	524288	
4085.48	0	524288	524288	
4116.43	0	524288	524288	
4147.38	0	524288	524288	
4178.33	0	524288	524288	
4209.28	0	524288	524288	
4240.24	0	524288	524288	
4271.19	0	524288	524288	
4302.14	0	524288	524288	
4333.09	0	524288	524288	
4364.04	0	524288	524288	
4394.99	0	524288	524288	
4425.94	0	524288	524288	
4456.89	0	524288	524288	
4487.84	0	524288	524288	
4518.79	0	524288	524288	
4549.74	0	524288	524288	
4580.69	0	524288	524288	
4611.64	0	524288	524288	
4642.59	0	524288	524288	
4673.54	0	524288	524288	
4704.49	0	524288	524288	
4735.45	0	524288	524288	
4766.4	0	524288	524288	
4797.35	0	524288	524288	
4828.3	0	524288	524288	
4859.25	0	524288	524288	
4890.2	0	524288	524288	
4921.15	0	524288	524288	
4952.1	0	524288	524288	
4983.05	0	524288	524288	
5014	0	524288	524288	
5044.95	0	524288	524288	
5075.9	0	524288	524288	
5106.85	0	524288	524288	
5137.8	0	524288	524288	
5168.75	0	524288	524288	
5199.7	0	524288	524288	
5230.66	0	524288	524288	
5261.61	0	524288	524288	
5292.56	0	524288	524288	
5323.51	0	524288	524288	
5354.46	0	524288	524288	
5385.41	0	524288	524288	
5416.36	0	524288	524288	
5447.31	0	524288	524288	
5478.26	0	524288	524288	
5509.21	0	524288	524288	
5540.16	0	524288	524288	
5571.11	0	524288	524288	
5602.06	0	524288	524288	
5633.01	0	524288	524288	
5663.96	0	524288	524288	
5694.91	0	524288	524288	
5725.86	0	524288	524288	
5756.82	0	524288	524288	
5787.77	0	524288	524288	
5818.72	0	524288	524288	
5849.67	0	524288	524288	
5880.62	0	524288	524288	
5911.57	0	524288	524288	
5942.52	0	524288	524288	
5973.47	0	524288	524288	
6004.42	0	524288	524288	
6035.37	0	524288	524288	
6066.32	0	524288	524288	
6097.27	0	524288	524288	
6128.22	0	524288	524288	
6159.17	0	524288	524288	
6190.12	0	524288	524288	
6221.07	0	524288	524288	
6252.03	0	524288	524288	
6282.98	0	524288	524288	
6313.93	0	524288	524288	
6344.88	0	524288	524288	
6375.83	0	524288	524288	
6406.78	0	524288	524288	
6437.73	0	524288	524288	
6468.68	0	524288	524288	
6499.63	0	524288	524288	
6530.58	0	524288	524288	
6561.53	0	524288	524288	
6592.48	0	524288	524288	
6623.43	0	524288	524288	
6654.38	0	524288	524288	
6685.33	0	524288	524288	
6716.28	0	524288	524288	
6747.24	0	524288	524288	
6778.19	0	524288	524288	
6809.14	0	524288	524288	
6840.09	0	524288	524288	
6871.04	0	524288	524288	
6901.99	0	524288	524288	
6932.94	0	524288	524288	
6963.89	0	524288	524288	
6994.84	0	524288	524288	
7025.79	0	524288	524288	
7056.74	0	524288	524288	
7087.69	0	524288	524288	
7118.64	0	524288	524288	
7149.59	0	524288	524288	
7180.54	0	524288	524288	
7211.49	0	524288	524288	
7242.45	0	524288	524288	
7273.4	0	524288	524288	
7304.35	0	524288	524288	
7335.3	0	524288	524288	
7366.25	0	524288	524288	
7397.2	0	524288	524288	
7428.15	0	524288	524288	
7459.1	0	524288	524288	
7490.05	0	524288	524288	
7521	0	524288	524288	
7551.95	0	524288	524288	
7582.9	0	524288	524288	
7613.85	0	524288	524288	
7644.8	0	524288	524288	
7675.75	0	524288	524288	
7706.7	0	524288	524288	
7737.66	0	524288	524288	
7768.61	0	524288	524288	
7799.56	0	524288	524288	
7830.51	0	524288	524288	
7861.46	0	524288	524288	
7892.41	0	524288	524288	
7923.36	0	524288	524288	
7954.31	0	524288	524288	
7985.26	0	524288	524288	
8016.21	0	524288	524288	
8047.16	0	524288	524288	
8078.11	0	524288	524288	
8109.06	0	524288	524288	
8140.01	0	524288	524288	
8170.96	0	524288	524288	
8201.91	0	524288	524288	
8232.87	0	524288	524288	
8263.82	0	524288	524288	
8294.77	0	524288	524288	
8325.72	0	524288	524288	
8356.67	0	524288	524288	
8387.62	0	524288	524288	
8418.57	0	524288	524288	
8449.52	0	524288	524288	
8480.47	0	524288	524288	
8511.42	0	524288	524288	
8542.37	0	524288	524288	
8573.32	0	524288	524288	
8604.27	0	524288	524288	
8635.22	0	524288	524288	
8666.17	0	524288	524288	
8697.12	0	524288	524288	
8728.08	0	524288	524288	
8759.03	0	524288	524288	
8789.98	0	524288	524288	
8820.93	0	524288	524288	
8851.88	0	524288	524288	
8882.83	0	524288	524288	
8913.78	0	524288	524288	
8944.73	0	524288	524288	
8975.68	0	524288	524288	
9006.63	0	524288	524288	
9037.58	0	524288	524288	
9068.53	0	524288	524288	
9099.48	0	524288	524288	
9130.43	0	524288	524288	
9161.38	0	524288	524288	
9192.33	0	524288	524288	
9223.29	0	524288	524288	
9254.24	0	524288	524288	
9285.19	0	524288	524288	
9316.14	0	524288	524288	
9347.09	0	524288	524288	
9378.04	0	524288	524288	
9408.99	0	524288	524288	
9439.94	0	524288	524288	
9470.89	0	524288	524288	
9501.84	0	524288	524288	
9532.79	0	524288	524288	
9563.74	0	524288	524288	
9594.69	0	524288	524288	
9625.64	0	524288	524288	
9656.59	0	524288	524288	
9687.54	0	524288	524288	
9718.5	0	524288	524288	
9749.45	0	524288	524288	
9780.4	0	524288	524288	
9811.35	0	524288	524288	
9842.3	0	524288	524288	
9873.25	0	524288	524288	
9904.2	0	524288	524288	
9935.15	0	524288	524288	
9966.1	0	524288	524288	
9997.05	0	524288	524288	
10028	0	524288	524288	
10059	0	524288	524288	
10089.9	0	524288	524288	
10120.9	0	524288	524288	
10151.8	0	524288	524288	
10182.8	0	524288	524288	
10213.7	0	524288	524288	
10244.7	0	524288	524288	
10275.6	0	524288	524288	
10306.6	0	524288	524288	
10337.5	0	524288	524288	
10368.5	0	524288	524288	
10399.4	0	524288	524288	
10430.4	0	524288	524288	
10461.3	0	524288	524288	
10492.3	0	524288	524288	
10523.2	0	524288	524288	
10554.2	0	524288	524288	
10585.1	0	524288	524288	
10616.1	0	524288	524288	
10647	0	524288	524288	
10678	0	524288	524288	
10708.9	0	524288	524288	
10739.9	0	524288	524288	
10770.8	0	524288	524288	
10801.8	0	524288	524288	
10832.7	0	524288	524288	
10863.7	0	524288	524288	
10894.6	0	524288	524288	
10925.6	0	524288	524288	
10956.5	0	524288	524288	
10987.5	0	524288	524288	
11018.4	0	524288	524288	
11049.4	0	524288	524288	
11080.3	0	524288	524288	
11111.3	0	524288	524288	
11142.2	0	524288	524288	
11173.2	0	524288	524288	
11204.1	0	524288	524288	
11235.1	0	524288	524288	
11266	0	524288	524288	
11297	0	524288	524288	
11327.9	0	524288	524288	
11358.9	0	524288	524288	
11389.8	0	524288	524288	
11420.8	0	524288	524288	
11451.7	0	524288	524288	
11482.7	0	524288	524288	
11513.6	0	524288	524288	
11544.6	0	524288	524288	
11575.5	0	524288	524288	
11606.5	0	524288	524288	
11637.4	0	524288	524288	
11668.4	0	524288	524288	
11699.3	0	524288	524288	
11730.3	0	524288	524288	
11761.2	0	524288	524288	
11792.2	0	524288	524288	
11823.1	0	524288	524288	
11854.1	0	524288	524288	
11885	0	524288	524288	
11916	0	524288	524288	
11946.9	0	524288	524288	
11977.9	0	524288	524288	
12008.8	0	524288	524288	
12039.8	0	524288	524288	
12070.7	0	524288	524288	
12101.7	0	524288	524288	
12132.6	0	524288	524288	
12163.6	0	524288	524288	
12194.5	0	524288	524288	
12225.5	0	524288	524288	
12256.4	0	524288	524288	
12287.4	0	524288	524288	
12318.3	0	524288	524288	
12349.3	0	524288	524288	
12380.2	0	524288	524288	
12411.2	0	524288	524288	
12442.1	0	524288	524288	
12473.1	0	524288	524288	
12504.1	0	524288	524288	
12535	0	524288	524288	
12566	0	524288	524288	
12596.9	0	524288	524288	
12627.9	0	524288	524288	
12658.8	0	524288	524288	
12689.8	0	524288	524288	
12720.7	0	524288	524288	
12751.7	0	524288	524288	
12782.6	0	524288	524288	
12813.6	0	524288	524288	
12844.5	0	524288	524288	
12875.5	0	524288	524288	
12906.4	0	524288	524288	
12937.4	0	524288	524288	
12968.3	0	524288	524288	
12999.3	0	524288	524288	
13030.2	0	524288	524288	
13061.2	0	524288	524288	
13092.1	0	524288	524288	
13123.1	0	524288	524288	
13154	0	524288	524288	
13185	0	524288	524288	
13215.9	0	524288	524288	
13246.9	0	524288	524288	
13277.8	0	524288	524288	
13308.8	0	524288	524288	
13339.7	0	524288	524288	
13370.7	0	524288	524288	
13401.6	0	524288	524288	
13432.6	0	524288	524288	
13463.5	0	524288	524288	
13494.5	0	524288	524288	
13525.4	0	524288	524288	
13556.4	0	524288	524288	
13587.3	0	524288	524288	
13618.3	0	524288	524288	
13649.2	0	524288	524288	
13680.2	0	524288	524288	
13711.1	0	524288	524288	
13742.1	0	524288	524288	
13773	0	524288	524288	
13804	0	524288	524288	
13834.9	0	524288	524288	
13865.9	0	524288	524288	
13896.8	0	524288	524288	
13927.8	0	524288	524288	
13958.7	0	524288	524288	
13989.7	0	524288	524288	
14020.6	0	524288	524288	
14051.6	0	524288	524288	
14082.5	0	524288	524288	
14113.5	0	524288	524288	
14144.4	0	524288	524288	
14175.4	0	524288	524288	
14206.3	0	524288	524288	
14237.3	0	524288	524288	
14268.2	0	524288	524288	
14299.2	0	524288	524288	
14330.1	0	524288	524288	
14361.1	0	524288	524288	
14392	0	524288	524288	
14423	0	524288	524288	
14453.9	0	524288	524288	
14484.9	0	524288	524288	
14515.8	0	524288	524288	
14546.8	0	524288	524288	
14577.7	0	524288	524288	
14608.7	0	524288	524288	
14639.6	0	524288	524288	
14670.6	0	524288	524288	
14701.5	0	524288	524288	
14732.5	0	524288	524288	
14763.4	0	524288	524288	
14794.4	0	524288	524288	
14825.3	0	524288	524288	
14856.3	0	524288	524288	
14887.2	0	524288	524288	
14918.2	0	524288	524288	
14949.2	0	524288	524288	
14980.1	0	524288	524288	
15011.1	0	524288	524288	
15042	0	524288	524288	
15073	0	524288	524288	
15103.9	0	524288	524288	
15134.9	0	524288	524288	
15165.8	0	524288	524288	
15196.8	0	524288	524288	
15227.7	0	524288	524288	
15258.7	0	524288	524288	
15289.6	0	524288	524288	
15320.6	0	524288	524288	
15351.5	0	524288	524288	
15382.5	0	524288	524288	
15413.4	0	524288	524288	
15444.4	0	524288	524288	
15475.3	0	524288	524288	
15506.3	0	524288	524288	
15537.2	0	524288	524288	
15568.2	0	524288	524288	
15599.1	0	524288	524288	
15630.1	0	524288	524288	
15661	0	524288	524288	
15692	0	524288	524288	
15722.9	0	524288	524288	
15753.9	0	524288	524288	
15784.8	0	524288	524288	
15815.8	0	524288	524288	
15846.7	0	524288	524288	
15877.7	0	524288	524288	
15908.6	0	524288	524288	
15939.6	0	524288	524288	
15970.5	0	524288	524288	
16001.5	0	524288	524288	
16032.4	0	524288	524288	
16063.4	0	524288	524288	
16094.3	0	524288	524288	
16125.3	0	524288	524288	
16156.2	0	524288	524288	
16187.2	0	524288	524288	
16218.1	0	524288	524288	
16249.1	0	524288	524288	
16280	0	524288	524288	
16311	0	524288	524288	
16341.9	0	524288	524288	
16372.9	0	524288	524288	
16403.8	0	524288	524288	
16434.8	0	524288	524288	
16465.7	0	524288	524288	
16496.7	0	524288	524288	
16527.6	0	524288	524288	
16558.6	0	524288	524288	
16589.5	0	524288	524288	
16620.5	0	524288	524288	
16651.4	0	524288	524288	
16682.4	0	524288	524288	
16713.3	0	524288	524288	
16744.3	0	524288	524288	
16775.2	0	524288	524288	
16806.2	0	524288	524288	
16837.1	0	524288	524288	
16868.1	0	524288	524288	
16899	0	524288	524288	
16930	0	524288	524288	
16960.9	0	524288	524288	
16991.9	0	524288	524288	
17022.8	0	524288	524288	
17053.8	0	524288	524288	
17084.7	0	524288	524288	
17115.7	0	524288	524288	
17146.6	0	524288	524288	
17177.6	0	524288	524288	
17208.5	0	524288	524288	
17239.5	0	524288	524288	
17270.4	0	524288	524288	
17301.4	-4.54747e-13	524288	524288	
17332.3	-4.54747e-13	524288	524288	
17363.3	-9.09495e-13	524288	524288	
17394.2	-1.36424e-12	524288	524288	
17425.2	-1.36424e-12	524288	524288	
17456.2	-1.81899e-12	524288	524288	
17487.1	-2.27374e-12	524288	524288	
17518.1	-2.72848e-12	524288	524288	
17549	-3.63798e-12	524288	524288	
17580	-4.54747e-12	524288	524288	
17610.9	-5.45697e-12	524288	524288	
17641.9	-6.82121e-12	524288	524288	
17672.8	-8.6402e-12	524288	524288	
17703.8	-1.09139e-11	524288	524288	
17734.7	-1.36424e-11	524288	524288	
17765.7	-1.68257e-11	524288	524288	
17796.6	-2.09184e-11	524288	524288	
17827.6	-2.59206e-11	524288	524288	
17858.5	-3.22871e-11	524288	524288	
17889.5	-3.9563e-11	524288	524288	
17920.4	-4.8658e-11	524288	524288	
17951.4	-6.00267e-11	524288	524288	
17982.3	-7.36691e-11	524288	524288	
18013.3	-9.04947e-11	524288	524288	
18044.2	-1.10504e-10	524288	524288	
18075.2	-1.3506e-10	524288	524288	
18106.1	-1.64619e-10	524288	524288	
18137.1	-2.00544e-10	524288	524288	
18168	-2.4329e-10	524288	524288	
18199	-2.94676e-10	524288	524288	
18229.9	-3.56977e-10	524288	524288	
18260.9	-4.311e-10	524288	524288	
18291.8	-5.20231e-10	524288	524288	
18322.8	-6.26187e-10	524288	524288	
18353.7	-7.53062e-10	524288	524288	
18384.7	-9.04492e-10	524288	524288	
18415.6	-1.08412e-09	524288	524288	
18446.6	-1.29739e-09	524288	524288	
18477.5	-1.55023e-09	524288	524288	
18508.5	-1.84946e-09	524288	524288	
18539.4	-2.20325e-09	524288	524288	
18570.4	-2.62025e-09	524288	524288	
18601.3	-3.11184e-09	524288	524288	
18632.3	-3.68982e-09	524288	524288	
18663.2	-4.3683e-09	524288	524288	
18694.2	-5.16411e-09	524288	524288	
18725.1	-6.09543e-09	524288	524288	
18756.1	-7.18364e-09	524288	524288	
18787	-8.45375e-09	524288	524288	
18818	-9.93396e-09	524288	524288	
18848.9	-1.16561e-08	524288	524288	
18879.9	-1.3657e-08	524288	524288	
18910.8	-1.59775e-08	524288	524288	
18941.8	-1.86656e-08	524288	524288	
18972.7	-2.17747e-08	524288	524288	
19003.7	-2.53649e-08	524288	524288	
19034.6	-2.95049e-08	524288	524288	
19065.6	-3.42725e-08	524288	524288	
19096.5	-3.97536e-08	524288	524288	
19127.5	-4.60468e-08	524288	524288	
19158.4	-5.32614e-08	524288	524288	
19189.4	-6.1521e-08	524288	524288	
19220.3	-7.09624e-08	524288	524288	
19251.3	-8.17404e-08	524288	524288	
19282.2	-9.40258e-08	524288	524288	
19313.2	-1.0801e-07	524288	524288	
19344.1	-1.23905e-07	524288	524288	
19375.1	-1.41947e-07	524288	524288	
19406	-1.62396e-07	524288	524288	
19437	-1.85541e-07	524288	524288	
19467.9	-2.11701e-07	524288	524288	
19498.9	-2.41228e-07	524288	524288	
19529.8	-2.74506e-07	524288	524288	
19560.8	-3.11963e-07	524288	524288	
19591.7	-3.54063e-07	524288	524288	
19622.7	-4.01315e-07	524288	524288	
19653.6	-4.54277e-07	524288	524288	
19684.6	-5.13558e-07	524288	524288	
19715.5	-5.79817e-07	524288	524288	
19746.5	-6.53774e-07	524288	524288	
19777.4	-7.3621e-07	524288	524288	
19808.4	-8.27969e-07	524288	524288	
19839.3	-9.29965e-07	524288	524288	
19870.3	-1.04318e-06	524288	524288	
19901.2	-1.16867e-06	524288	524288	
19932.2	-1.30759e-06	524288	524288	
19963.2	-1.46114e-06	524288	524288	
19994.1	-1.63064e-06	524288	524288	
20025.1	-1.81747e-06	524288	524288	
20056	-2.02312e-06	524288	524288	
20087	-2.24917e-06	524288	524288	
20117.9	-2.49729e-06	524288	524288	
20148.9	-2.76924e-06	524288	524288	
20179.8	-3.06688e-06	524288	524288	
20210.8	-3.39217e-06	524288	524288	
20241.7	-3.74717e-06	524288	524288	
20272.7	-4.13401e-06	524288	524288	
20303.6	-4.55493e-06	524288	524288	
20334.6	-5.01224e-06	524288	524288	
20365.5	-5.50835e-06	524288	524288	
20396.5	-6.04572e-06	524288	524288	
20427.4	-6.62689e-06	524288	524288	
20458.4	-7.25443e-06	524288	524288	
20489.3	-7.93097e-06	524288	524288	
20520.3	-8.65916e-06	524288	524288	
20551.2	-9.44164e-06	524288	524288	
20582.2	-1.02811e-05	524288	524288	
20613.1	-1.118e-05	524288	524288	
20644.1	-1.2141e-05	524288	524288	
20675	-1.31666e-05	524288	524288	
20706	-1.4259e-05	524288	524288	
20736.9	-1.54203e-05	524288	524288	
20767.9	-1.66526e-05	524288	524288	
20798.8	-1.79576e-05	524288	524288	
20829.8	-1.93366e-05	524288	524288	
20860.7	-2.07906e-05	524288	524288	
20891.7	-2.23204e-05	524288	524288	
20922.6	-2.39261e-05	524288	524288	
20953.6	-2.56073e-05	524288	524288	
20984.5	-2.73629e-05	524288	524288	
21015.5	-2.91912e-05	524288	524288	
21046.4	-3.10897e-05	524288	524288	
21077.4	-3.30551e-05	524288	524288	
21108.3	-3.50828e-05	524288	524288	
21139.3	-3.71673e-05	524288	524288	
21170.2	-3.9302e-05	524288	524288	
21201.2	-4.14788e-05	524288	524288	
21232.1	-4.36881e-05	524288	524288	
21263.1	-4.59189e-05	524288	524288	
21294	-4.81581e-05	524288	524288	
21325	-5.03911e-05	524288	524288	
21355.9	-5.2601e-05	524288	524288	
21386.9	-5.47687e-05	524288	524288	
21417.8	-5.68729e-05	524288	524288	
21448.8	-5.88894e-05	524288	524288	
21479.7	-6.07916e-05	524288	524288	
21510.7	-6.25498e-05	524288	524288	
21541.6	-6.4131e-05	524288	524288	
21572.6	-6.54992e-05	524288	524288	
21603.5	-6.66146e-05	524288	524288	
21634.5	-6.74338e-05	524288	524288	
21665.4	-6.79093e-05	524288	524288	
21696.4	-6.79896e-05	524288	524288	
21727.3	-6.76186e-05	524288	524288	
21758.3	-6.67358e-05	524288	524288	
21789.2	-6.52757e-05	524288	524288	
21820.2	-6.31679e-05	524288	524288	
21851.1	-6.03367e-05	524288	524288	
21882.1	-5.67009e-05	524288	524288	
21913	-5.21737e-05	524288	524288	
21944	-4.66622e-05	524288	524288	
21974.9	-4.00678e-05	524288	524288	
22005.9	-3.22854e-05	524288	524288	
22036.8	-2.32035e-05	524288	524288	
22067.8	-1.27042e-05	524288	524288	
22098.7	-6.62678e-07	524288	524288	
22129.7	1.30527e-05	524288	524288	
22160.6	2.85805e-05	524288	524288	
22191.6	4.60665e-05	524288	524288	
22222.5	6.56633e-05	524288	524288	
22253.5	8.75312e-05	524288	524288	
22284.4	0.000111837	524288	524288	
22315.4	0.000138756	524288	524288	
22346.3	0.00016847	524288	524288	
22377.3	0.000201166	524288	524288	
22408.3	0.000237043	524288	524288	
22439.2	0.000276302	524288	524288	
22470.2	0.000319153	524288	524288	
22501.1	0.000365814	524288	524288	
22532.1	0.000416506	524288	524288	
22563	0.00047146	524288	524288	
22594	0.00053091	524288	524288	
22624.9	0.000595097	524288	524288	
22655.9	0.000664267	524288	524288	
22686.8	0.000738671	524288	524288	
22717.8	0.000818564	524288	524288	
22748.7	0.000904204	524288	524288	
22779.7	0.000995855	524288	524288	
22810.6	0.00109378	524288	524288	
22841.6	0.00119825	524288	524288	
22872.5	0.00130953	524288	524288	
22903.5	0.00142789	524288	524288	
22934.4	0.0015536	524288	524288	
22965.4	0.00168692	524288	524288	
22996.3	0.00182814	524288	524288	
23027.3	0.0019775	524288	524288	
23058.2	0.00213528	524288	524288	
23089.2	0.00230172	524288	524288	
23120.1	0.00247709	524288	524288	
23151.1	0.00266163	524288	524288	
23182	0.00285557	524288	524288	
23213	0.00305914	524288	524288	
23243.9	0.00327258	524288	524288	
23274.9	0.00349609	524288	524288	
23305.8	0.00372986	524288	524288	
23336.8	0.0039741	524288	524288	
23367.7	0.00422897	524288	524288	
23398.7	0.00449462	524288	524288	
23429.6	0.00477122	524288	524288	
23460.6	0.00505888	524288	524288	
23491.5	0.00535771	524288	524288	
23522.5	0.00566781	524288	524288	
23553.4	0.00598925	524288	524288	
23584.4	0.00632207	524288	524288	
23615.3	0.00666631	524288	524288	
23646.3	0.00702198	524288	524288	
23677.2	0.00738905	524288	524288	
23708.2	0.0077675	524288	524288	
23739.1	0.00815724	524288	524288	
23770.1	0.00855819	524288	524288	
23801	0.00897024	524288	524288	
23832	0.00939323	524288	524288	
23862.9	0.009827	524288	524288	
23893.9	0.0102713	524288	524288	
23924.8	0.010726	524288	524288	
23955.8	0.0111908	524288	524288	
23986.7	0.0116654	524288	524288	
24017.7	0.0121495	524288	524288	
24048.6	0.0126427	524288	524288	
24079.6	0.0131446	524288	524288	
24110.5	0.013655	524288	524288	
24141.5	0.0141733	524288	524288	
24172.4	0.014699	524288	524288	
24203.4	0.0152317	524288	524288	
24234.3	0.0157709	524288	524288	
24265.3	0.0163161	524288	524288	
24296.2	0.0168666	524288	524288	
24327.2	0.0174218	524288	524288	
24358.1	0.0179812	524288	524288	
24389.1	0.018544	524288	524288	
24420	0.0191097	524288	524288	
24451	0.0196775	524288	524288	
24481.9	0.0202467	524288	524288	
24512.9	0.0208166	524288	524288	
24543.8	0.0213864	524288	524288	
24574.8	0.0219554	524288	524288	
24605.7	0.0225228	524288	524288	
24636.7	0.0230878	524288	524288	
24667.6	0.0236495	524288	524288	
24698.6	0.0242072	524288	524288	
24729.5	0.02476	524288	524288	
24760.5	0.025307	524288	524288	
24791.4	0.0258475	524288	524288	
24822.4	0.0263806	524288	524288	
24853.3	0.0269055	524288	524288	
24884.3	0.0274212	524288	524288	
24915.3	0.0279269	524288	524288	
24946.2	0.0284218	524288	524288	
24977.2	0.0289051	524288	524288	
25008.1	0.0293759	524288	524288	
25039.1	0.0298334	524288	524288	
25070	0.0302767	524288	524288	
25101	0.0307051	524288	524288	
25131.9	0.0311178	524288	524288	
25162.9	0.0315139	524288	524288	
25193.8	0.0318928	524288	524288	
25224.8	0.0322538	524288	524288	
25255.7	0.032596	524288	524288	
25286.7	0.0329188	524288	524288	
25317.6	0.0332216	524288	524288	
25348.6	0.0335037	524288	524288	
25379.5	0.0337645	524288	524288	
25410.5	0.0340034	524288	524288	
25441.4	0.0342198	524288	524288	
25472.4	0.0344133	524288	524288	
25503.3	0.0345833	524288	524288	
25534.3	0.0347293	524288	524288	
25565.2	0.0348511	524288	524288	
25596.2	0.0349481	524288	524288	
25627.1	0.0350201	524288	524288	
25658.1	0.0350667	524288	524288	
25689	0.0350876	524288	524288	
25720	0.0350827	524288	524288	
25750.9	0.0350517	524288	524288	
25781.9	0.0349944	524288	524288	
25812.8	0.0349108	524288	524288	
25843.8	0.0348008	524288	524288	
25874.7	0.0346643	524288	524288	
25905.7	0.0345013	524288	524288	
25936.6	0.034312	524288	524288	
25967.6	0.0340963	524288	524288	
25998.5	0.0338544	524288	524288	
26029.5	0.0335865	524288	524288	
26060.4	0.0332928	524288	524288	
26091.4	0.0329734	524288	524288	
26122.3	0.0326288	524288	524288	
26153.3	0.0322592	524288	524288	
26184.2	0.031865	524288	524288	
26215.2	0.0314465	524288	524288	
26246.1	0.0310042	524288	524288	
26277.1	0.0305386	524288	524288	
26308	0.0300501	524288	524288	
26339	0.0295392	524288	524288	
26369.9	0.0290066	524288	524288	
26400.9	0.0284529	524288	524288	
26431.8	0.0278785	524288	524288	
26462.8	0.0272842	524288	524288	
26493.7	0.0266707	524288	524288	
26524.7	0.0260386	524288	524288	
26555.6	0.0253887	524288	524288	
26586.6	0.0247216	524288	524288	
26617.5	0.0240382	524288	524288	
26648.5	0.0233392	524288	524288	
26679.4	0.0226255	524288	524288	
26710.4	0.0218978	524288	524288	
26741.3	0.0211569	524288	524288	
26772.3	0.0204038	524288	524288	
26803.2	0.0196392	524288	524288	
26834.2	0.018864	524288	524288	
26865.1	0.0180791	524288	524288	
26896.1	0.0172854	524288	524288	
26927	0.0164837	524288	524288	
26958	0.0156749	524288	524288	
26988.9	0.0148599	524288	524288	
27019.9	0.0140396	524288	524288	
27050.8	0.0132149	524288	524288	
27081.8	0.0123866	524288	524288	
27112.7	0.0115556	524288	524288	
27143.7	0.0107229	524288	524288	
27174.6	0.00988916	524288	524288	
27205.6	0.00905538	524288	524288	
27236.5	0.00822235	524288	524288	
27267.5	0.00739093	524288	524288	
27298.4	0.00656192	524288	524288	
27329.4	0.00573614	524288	524288	
27360.3	0.00491439	524288	524288	
27391.3	0.00409743	524288	524288	
27422.3	0.00328604	524288	524288	
27453.2	0.00248096	524288	524288	
27484.2	0.0016829	524288	524288	
27515.1	0.000892575	524288	524288	
27546.1	0.000110669	524288	524288	
27577	-0.000662157	524288	524288	
27608	-0.00142527	524288	524288	
27638.9	-0.00217804	524288	524288	
27669.9	-0.00291989	524288	524288	
27700.8	-0.00365024	524288	524288	
27731.8	-0.00436856	524288	524288	
27762.7	-0.00507432	524288	524288	
27793.7	-0.00576704	524288	524288	
27824.6	-0.00644625	524288	524288	
27855.6	-0.00711151	524288	524288	
27886.5	-0.00776242	524288	524288	
27917.5	-0.00839858	524288	524288	
27948.4	-0.00901964	524288	524288	
27979.4	-0.00962527	524288	524288	
28010.3	-0.0102152	524288	524288	
28041.3	-0.0107891	524288	524288	
28072.2	-0.0113467	524288	524288	
28103.2	-0.0118879	524288	524288	
28134.1	-0.0124124	524288	524288	
28165.1	-0.0129201	524288	524288	
28196	-0.0134108	524288	524288	
28227	-0.0138844	524288	524288	
28257.9	-0.0143409	524288	524288	
28288.9	-0.0147801	524288	524288	
28319.8	-0.015202	524288	524288	
28350.8	-0.0156067	524288	524288	
28381.7	-0.015994	524288	524288	
28412.7	-0.0163642	524288	524288	
28443.6	-0.0167171	524288	524288	
28474.6	-0.017053	524288	524288	
28505.5	-0.0173718	524288	524288	
28536.5	-0.0176738	524288	524288	
28567.4	-0.0179589	524288	524288	
28598.4	-0.0182275	524288	524288	
28629.3	-0.0184797	524288	524288	
28660.3	-0.0187156	524288	524288	
28691.2	-0.0189356	524288	524288	
28722.2	-0.0191397	524288	524288	
28753.1	-0.0193283	524288	524288	
28784.1	-0.0195015	524288	524288	
28815	-0.0196598	524288	524288	
28846	-0.0198032	524288	524288	
28876.9	-0.0199322	524288	524288	
28907.9	-0.020047	524288	524288	
28938.8	-0.0201479	524288	524288	
28969.8	-0.0202353	524288	524288	
29000.7	-0.0203094	524288	524288	
29031.7	-0.0203706	524288	524288	
29062.6	-0.0204192	524288	524288	
29093.6	-0.0204555	524288	524288	
29124.5	-0.02048	524288	524288	
29155.5	-0.0204928	524288	524288	
29186.4	-0.0204945	524288	524288	
29217.4	-0.0204852	524288	524288	
29248.3	-0.0204654	524288	524288	
29279.3	-0.0204354	524288	524288	
29310.2	-0.0203955	524288	524288	
29341.2	-0.0203461	524288	524288	
29372.1	-0.0202875	524288	524288	
29403.1	-0.0202201	524288	524288	
29434	-0.0201441	524288	524288	
29465	-0.0200599	524288	524288	
29495.9	-0.0199677	524288	524288	
29526.9	-0.019868	524288	524288	
29557.8	-0.019761	524288	524288	
29588.8	-0.019647	524288	524288	
29619.7	-0.0195262	524288	524288	
29650.7	-0.0193991	524288	524288	
29681.6	-0.0192657	524288	524288	
29712.6	-0.0191264	524288	524288	
29743.5	-0.0189815	524288	524288	
29774.5	-0.0188311	524288	524288	
29805.4	-0.0186755	524288	524288	
29836.4	-0.018515	524288	524288	
29867.3	-0.0183497	524288	524288	
29898.3	-0.0181798	524288	524288	
29929.3	-0.0180055	524288	524288	
29960.2	-0.017827	524288	524288	
29991.2	-0.0176444	524288	524288	
30022.1	-0.017458	524288	524288	
30053.1	-0.0172678	524288	524288	
30084	-0.017074	524288	524288	
30115	-0.0168767	524288	524288	
30145.9	-0.016676	524288	524288	
30176.9	-0.0164721	524288	524288	
30207.8	-0.016265	524288	524288	
30238.8	-0.0160547	524288	524288	
30269.7	-0.0158415	524288	524288	
30300.7	-0.0156253	524288	524288	
30331.6	-0.0154063	524288	524288	
30362.6	-0.0151843	524288	524288	
30393.5	-0.0149596	524288	524288	
30424.5	-0.0147321	524288	524288	
30455.4	-0.0145019	524288	524288	
30486.4	-0.0142689	524288	524288	
30517.3	-0.0140333	524288	524288	
30548.3	-0.0137949	524288	524288	
30579.2	-0.0135538	524288	524288	
30610.2	-0.0133101	524288	524288	
30641.1	-0.0130636	524288	524288	
30672.1	-0.0128144	524288	524288	
30703	-0.0125625	524288	524288	
30734	-0.0123079	524288	524288	
30764.9	-0.0120505	524288	524288	
30795.9	-0.0117903	524288	524288	
30826.8	-0.0115274	524288	524288	
30857.8	-0.0112616	524288	524288	
30888.7	-0.010993	524288	524288	
30919.7	-0.0107215	524288	524288	
30950.6	-0.0104472	524288	524288	
30981.6	-0.01017	524288	524288	
31012.5	-0.00988984	524288	524288	
31043.5	-0.0096068	524288	524288	
31074.4	-0.00932083	524288	524288	
31105.4	-0.00903193	524288	524288	
31136.3	-0.00874009	524288	524288	
31167.3	-0.00844532	524288	524288	
31198.2	-0.00814762	524288	524288	
31229.2	-0.00784701	524288	524288	
31260.1	-0.00754349	524288	524288	
31291.1	-0.00723709	524288	524288	
31322	-0.00692784	524288	524288	
31353	-0.00661577	524288	524288	
31383.9	-0.00630092	524288	524288	
31414.9	-0.00598334	524288	524288	
31445.8	-0.00566308	524288	524288	
31476.8	-0.00534021	524288	524288	
31507.7	-0.00501478	524288	524288	
31538.7	-0.00468687	524288	524288	
31569.6	-0.00435658	524288	524288	
31600.6	-0.00402398	524288	524288	
31631.5	-0.00368917	524288	524288	
31662.5	-0.00335227	524288	524288	
31693.4	-0.00301337	524288	524288	
31724.4	-0.00267261	524288	524288	
31755.3	-0.00233011	524288	524288	
31786.3	-0.001986	524288	524288	
31817.2	-0.00164043	524288	524288	
31848.2	-0.00129355	524288	524288	
31879.1	-0.000945508	524288	524288	
31910.1	-0.000596475	524288	524288	
31941	-0.000246618	524288	524288	
31972	0.000103885	524288	524288	
32002.9	0.000454852	524288	524288	
32033.9	0.000806094	524288	524288	
32064.8	0.00115742	524288	524288	
32095.8	0.00150862	524288	524288	
32126.7	0.0018595	524288	524288	
32157.7	0.00220984	524288	524288	
32188.6	0.00255944	524288	524288	
32219.6	0.00290807	524288	524288	
32250.5	0.00325552	524288	524288	
32281.5	0.00360155	524288	524288	
32312.4	0.00394594	524288	524288	
32343.4	0.00428846	524288	524288	
32374.4	0.00462888	524288	524288	
32405.3	0.00496696	524288	524288	
32436.3	0.00530246	524288	524288	
32467.2	0.00563516	524288	524288	
32498.2	0.00596481	524288	524288	
32529.1	0.00629118	524288	524288	
32560.1	0.00661402	524288	524288	
32591	0.00693312	524288	524288	
32622	0.00724823	524288	524288	
32652.9	0.00755911	524288	524288	
32683.9	0.00786555	524288	524288	
32714.8	0.00816731	524288	524288	
32745.8	0.00846417	524288	524288	
32776.7	0.00875591	524288	524288	
32807.7	0.00904231	524288	524288	
32838.6	0.00932316	524288	524288	
32869.6	0.00959826	524288	524288	
32900.5	0.00986739	524288	524288	
32931.5	0.0101304	524288	524288	
32962.4	0.010387	524288	524288	
32993.4	0.0106371	524288	524288	
33024.3	0.0108804	524288	524288	
33055.3	0.0111169	524288	524288	
33086.2	0.0113463	524288	524288	
33117.2	0.0115686	524288	524288	
33148.1	0.0117834	524288	524288	
33179.1	0.0119908	524288	524288	
33210	0.0121905	524288	524288	
33241	0.0123824	524288	524288	
33271.9	0.0125665	524288	524288	
33302.9	0.0127425	524288	524288	
33333.8	0.0129105	524288	524288	
33364.8	0.0130703	524288	524288	
33395.7	0.0132218	524288	524288	
33426.7	0.013365	524288	524288	
33457.6	0.0134997	524288	524288	
33488.6	0.0136261	524288	524288	
33519.5	0.0137438	524288	524288	
33550.5	0.0138531	524288	524288	
33581.4	0.0139538	524288	524288	
33612.4	0.0140459	524288	524288	
33643.3	0.0141294	524288	524288	
33674.3	0.0142043	524288	524288	
33705.2	0.0142706	524288	524288	
33736.2	0.0143283	524288	524288	
33767.1	0.0143776	524288	524288	
33798.1	0.0144183	524288	524288	
33829	0.0144505	524288	524288	
33860	0.0144744	524288	524288	
33890.9	0.0144899	524288	524288	
33921.9	0.0144972	524288	524288	
33952.8	0.0144963	524288	524288	
33983.8	0.0144873	524288	524288	
34014.7	0.0144703	524288	524288	
34045.7	0.0144454	524288	524288	
34076.6	0.0144128	524288	524288	
34107.6	0.0143725	524288	524288	
34138.5	0.0143246	524288	524288	
34169.5	0.0142693	524288	524288	
34200.4	0.0142068	524288	524288	
34231.4	0.0141372	524288	524288	
34262.3	0.0140606	524288	524288	
34293.3	0.0139772	524288	524288	
34324.2	0.0138871	524288	524288	
34355.2	0.0137905	524288	524288	
34386.1	0.0136877	524288	524288	
34417.1	0.0135787	524288	524288	
34448	0.0134637	524288	524288	
34479	0.013343	524288	524288	
34509.9	0.0132167	524288	524288	
34540.9	0.013085	524288	524288	
34571.8	0.0129481	524288	524288	
34602.8	0.0128061	524288	524288	
34633.7	0.0126594	524288	524288	
34664.7	0.0125081	524288	524288	
34695.6	0.0123523	524288	524288	
34726.6	0.0121924	524288	524288	
34757.5	0.0120284	524288	524288	
34788.5	0.0118607	524288	524288	
34819.4	0.0116893	524288	524288	
34850.4	0.0115146	524288	524288	
34881.4	0.0113367	524288	524288	
34912.3	0.0111558	524288	524288	
34943.3	0.0109722	524288	524288	
34974.2	0.010786	524288	524288	
35005.2	0.0105974	524288	524288	
35036.1	0.0104066	524288	524288	
35067.1	0.0102139	524288	524288	
35098	0.0100195	524288	524288	
35129	0.00982343	524288	524288	
35159.9	0.00962601	524288	524288	
35190.9	0.00942741	524288	524288	
35221.8	0.00922781	524288	524288	
35252.8	0.00902739	524288	524288	
35283.7	0.00882636	524288	524288	
35314.7	0.00862487	524288	524288	
35345.6	0.0084231	524288	524288	
35376.6	0.00822124	524288	524288	
35407.5	0.00801945	524288	524288	
35438.5	0.00781789	524288	524288	
35469.4	0.00761672	524288	524288	
35500.4	0.00741611	524288	524288	
35531.3	0.0072162	524288	524288	
35562.3	0.00701715	524288	524288	
35593.2	0.0068191	524288	524288	
35624.2	0.00662219	524288	524288	
35655.1	0.00642656	524288	524288	
35686.1	0.00623233	524288	524288	
35717	0.00603964	524288	524288	
35748	0.0058486	524288	524288	
35778.9	0.00565935	524288	524288	
35809.9	0.00547197	524288	524288	
35840.8	0.0052866	524288	524288	
35871.8	0.00510333	524288	524288	
35902.7	0.00492225	524288	524288	
35933.7	0.00474347	524288	524288	
35964.6	0.00456707	524288	524288	
35995.6	0.00439314	524288	524288	
36026.5	0.00422176	524288	524288	
36057.5	0.00405299	524288	524288	
36088.4	0.00388693	524288	524288	
36119.4	0.00372362	524288	524288	
36150.3	0.00356313	524288	524288	
36181.3	0.00340552	524288	524288	
36212.2	0.00325084	524288	524288	
36243.2	0.00309913	524288	524288	
36274.1	0.00295045	524288	524288	
36305.1	0.00280482	524288	524288	
36336	0.00266229	524288	524288	
36367	0.00252289	524288	524288	
36397.9	0.00238663	524288	524288	
36428.9	0.00225354	524288	524288	
36459.8	0.00212364	524288	524288	
36490.8	0.00199695	524288	524288	
36521.7	0.00187347	524288	524288	
36552.7	0.0017532	524288	524288	
36583.6	0.00163616	524288	524288	
36614.6	0.00152233	524288	524288	
36645.5	0.00141172	524288	524288	
36676.5	0.00130431	524288	524288	
36707.4	0.00120009	524288	524288	
36738.4	0.00109904	524288	524288	
36769.3	0.00100115	524288	524288	
36800.3	0.000906389	524288	524288	
36831.2	0.000814735	524288	524288	
36862.2	0.000726157	524288	524288	
36893.1	0.000640623	524288	524288	
36924.1	0.000558097	524288	524288	
36955	0.000478542	524288	524288	
36986	0.000401917	524288	524288	
37016.9	0.000328177	524288	524288	
37047.9	0.000257276	524288	524288	
37078.8	0.000189166	524288	524288	
37109.8	0.000123794	524288	524288	
37140.7	6.11063e-05	524288	524288	
37171.7	1.04735e-06	524288	524288	
37202.6	-5.64417e-05	524288	524288	
37233.6	-0.000111422	524288	524288	
37264.5	-0.000163955	524288	524288	
37295.5	-0.000214107	524288	524288	
37326.4	-0.000261944	524288	524288	
37357.4	-0.000307534	524288	524288	
37388.4	-0.000350949	524288	524288	
37419.3	-0.000392259	524288	524288	
37450.3	-0.000431538	524288	524288	
37481.2	-0.000468861	524288	524288	
37512.2	-0.000504305	524288	524288	
37543.1	-0.000537947	524288	524288	
37574.1	-0.000569866	524288	524288	
37605	-0.000600142	524288	524288	
37636	-0.000628856	524288	524288	
37666.9	-0.000656091	524288	524288	
37697.9	-0.000681928	524288	524288	
37728.8	-0.000706452	524288	524288	
37759.8	-0.000729746	524288	524288	
37790.7	-0.000751897	524288	524288	
37821.7	-0.000772988	524288	524288	
37852.6	-0.000793107	524288	524288	
37883.6	-0.000812338	524288	524288	
37914.5	-0.000830768	524288	524288	
37945.5	-0.000848484	524288	524288	
37976.4	-0.000865572	524288	524288	
38007.4	-0.000882119	524288	524288	
38038.3	-0.000898209	524288	524288	
38069.3	-0.00091393	524288	524288	
38100.2	-0.000929367	524288	524288	
38131.2	-0.000944604	524288	524288	
38162.1	-0.000959727	524288	524288	
38193.1	-0.000974818	524288	524288	
38224	-0.000989961	524288	524288	
38255	-0.00100524	524288	524288	
38285.9	-0.00102073	524288	524288	
38316.9	-0.00103652	524288	524288	
38347.8	-0.00105268	524288	524288	
38378.8	-0.0010693	524288	524288	
38409.7	-0.00108644	524288	524288	
38440.7	-0.00110419	524288	524288	
38471.6	-0.00112261	524288	524288	
38502.6	-0.00114179	524288	524288	
38533.5	-0.00116178	524288	524288	
38564.5	-0.00118266	524288	524288	
38595.4	-0.0012045	524288	524288	
38626.4	-0.00122736	524288	524288	
38657.3	-0.0012513	524288	524288	
38688.3	-0.00127638	524288	524288	
38719.2	-0.00130266	524288	524288	
38750.2	-0.0013302	524288	524288	
38781.1	-0.00135905	524288	524288	
38812.1	-0.00138926	524288	524288	
38843	-0.00142089	524288	524288	
38874	-0.00145397	524288	524288	
38904.9	-0.00148856	524288	524288	
38935.9	-0.00152469	524288	524288	
38966.8	-0.0015624	524288	524288	
38997.8	-0.00160173	524288	524288	
39028.7	-0.00164272	524288	524288	
39059.7	-0.00168538	524288	524288	
39090.6	-0.00172975	524288	524288	
39121.6	-0.00177586	524288	524288	
39152.5	-0.00182373	524288	524288	
39183.5	-0.00187337	524288	524288	
39214.4	-0.0019248	524288	524288	
39245.4	-0.00197803	524288	524288	
39276.3	-0.00203308	524288	524288	
39307.3	-0.00208995	524288	524288	
39338.2	-0.00214864	524288	524288	
39369.2	-0.00220915	524288	524288	
39400.1	-0.00227149	524288	524288	
39431.1	-0.00233565	524288	524288	
39462	-0.00240162	524288	524288	
39493	-0.00246939	524288	524288	
39523.9	-0.00253894	524288	524288	
39554.9	-0.00261026	524288	524288	
39585.8	-0.00268333	524288	524288	
39616.8	-0.00275812	524288	524288	
39647.7	-0.00283461	524288	524288	
39678.7	-0.00291278	524288	524288	
39709.6	-0.00299258	524288	524288	
39740.6	-0.00307399	524288	524288	
39771.5	-0.00315697	524288	524288	
39802.5	-0.00324148	524288	524288	
39833.4	-0.00332748	524288	524288	
39864.4	-0.00341493	524288	524288	
39895.4	-0.00350377	524288	524288	
39926.3	-0.00359396	524288	524288	
39957.3	-0.00368545	524288	524288	
39988.2	-0.00377819	524288	524288	
40019.2	-0.00387212	524288	524288	
40050.1	-0.00396718	524288	524288	
40081.1	-0.00406331	524288	524288	
40112	-0.00416045	524288	524288	
40143	-0.00425855	524288	524288	
40173.9	-0.00435752	524288	524288	
40204.9	-0.00445732	524288	524288	
40235.8	-0.00455786	524288	524288	
40266.8	-0.00465908	524288	524288	
40297.7	-0.00476091	524288	524288	
40328.7	-0.00486328	524288	524288	
40359.6	-0.00496612	524288	524288	
40390.6	-0.00506934	524288	524288	
40421.5	-0.00517288	524288	524288	
40452.5	-0.00527667	524288	524288	
40483.4	-0.00538061	524288	524288	
40514.4	-0.00548464	524288	524288	
40545.3	-0.00558868	524288	524288	
40576.3	-0.00569265	524288	524288	
40607.2	-0.00579648	524288	524288	
40638.2	-0.00590007	524288	524288	
40669.1	-0.00600337	524288	524288	
40700.1	-0.00610628	524288	524288	
40731	-0.00620873	524288	524288	
40762	-0.00631065	524288	524288	
40792.9	-0.00641194	524288	524288	
40823.9	-0.00651254	524288	524288	
40854.8	-0.00661238	524288	524288	
40885.8	-0.00671136	524288	524288	
40916.7	-0.00680942	524288	524288	
40947.7	-0.00690649	524288	524288	
40978.6	-0.00700249	524288	524288	
41009.6	-0.00709734	524288	524288	
41040.5	-0.00719098	524288	524288	
41071.5	-0.00728333	524288	524288	
41102.4	-0.00737433	524288	524288	
41133.4	-0.0074639	524288	524288	
41164.3	-0.00755199	524288	524288	
41195.3	-0.00763853	524288	524288	
41226.2	-0.00772345	524288	524288	
41257.2	-0.00780669	524288	524288	
41288.1	-0.00788819	524288	524288	
41319.1	-0.0079679	524288	524288	
41350	-0.00804576	524288	524288	
41381	-0.00812171	524288	524288	
41411.9	-0.0081957	524288	524288	
41442.9	-0.00826769	524288	524288	
41473.8	-0.00833761	524288	524288	
41504.8	-0.00840544	524288	524288	
41535.7	-0.00847112	524288	524288	
41566.7	-0.00853462	524288	524288	
41597.6	-0.00859588	524288	524288	
41628.6	-0.00865489	524288	524288	
41659.5	-0.0087116	524288	524288	
41690.5	-0.00876598	524288	524288	
41721.4	-0.008818	524288	524288	
41752.4	-0.00886763	524288	524288	
41783.3	-0.00891486	524288	524288	
41814.3	-0.00895965	524288	524288	
41845.2	-0.00900199	524288	524288	
41876.2	-0.00904186	524288	524288	
41907.1	-0.00907924	524288	524288	
41938.1	-0.00911413	524288	524288	
41969	-0.00914651	524288	524288	
42000	-0.00917638	524288	524288	
42030.9	-0.00920374	524288	524288	
42061.9	-0.00922857	524288	524288	
42092.8	-0.00925089	524288	524288	
42123.8	-0.00927069	524288	524288	
42154.7	-0.00928798	524288	524288	
42185.7	-0.00930277	524288	524288	
42216.6	-0.00931506	524288	524288	
42247.6	-0.00932488	524288	524288	
42278.5	-0.00933223	524288	524288	
42309.5	-0.00933714	524288	524288	
42340.5	-0.00933962	524288	524288	
42371.4	-0.00933969	524288	524288	
42402.4	-0.00933739	524288	524288	
42433.3	-0.00933273	524288	524288	
42464.3	-0.00932574	524288	524288	
42495.2	-0.00931646	524288	524288	
42526.2	-0.00930492	524288	524288	
42557.1	-0.00929115	524288	524288	
42588.1	-0.0092752	524288	524288	
42619	-0.00925709	524288	524288	
42650	-0.00923687	524288	524288	
42680.9	-0.00921458	524288	524288	
42711.9	-0.00919026	524288	524288	
42742.8	-0.00916397	524288	524288	
42773.8	-0.00913575	524288	524288	
42804.7	-0.00910564	524288	524288	
42835.7	-0.00907369	524288	524288	
42866.6	-0.00903997	524288	524288	
42897.6	-0.00900451	524288	524288	
42928.5	-0.00896738	524288	524288	
42959.5	-0.00892863	524288	524288	
42990.4	-0.00888832	524288	524288	
43021.4	-0.0088465	524288	524288	
43052.3	-0.00880323	524288	524288	
43083.3	-0.00875858	524288	524288	
43114.2	-0.00871259	524288	524288	
43145.2	-0.00866534	524288	524288	
43176.1	-0.00861688	524288	524288	
