0	0	131072	131072	
64.3792	0	131072	131072	
128.758	0	131072	131072	
193.138	0	131072	131072	
257.517	0	131072	131072	
321.896	0	131072	131072	
386.275	0	131072	131072	
450.655	0	131072	131072	
515.034	0	131072	131072	
579.413	0	131072	131072	
643.792	0	131072	131072	
708.171	0	131072	131072	
772.551	0	131072	131072	
836.93	0	131072	131072	
901.309	0	131072	131072	
965.688	0	131072	131072	
1030.07	0	131072	131072	
1094.45	0	131072	131072	
1158.83	0	131072	131072	
1223.21	0	131072	131072	
1287.58	0	131072	131072	
1351.96	0	131072	131072	
1416.34	0	131072	131072	
1480.72	0	131072	131072	
1545.1	0	131072	131072	
1609.48	0	131072	131072	
1673.86	0	131072	131072	
1738.24	0	131072	131072	
1802.62	0	131072	131072	
1867	0	131072	131072	
1931.38	0	131072	131072	
1995.76	0	131072	131072	
2060.14	0	131072	131072	
2124.51	0	131072	131072	
2188.89	0	131072	131072	
2253.27	0	131072	131072	
2317.65	0	131072	131072	
2382.03	0	131072	131072	
2446.41	0	131072	131072	
2510.79	0	131072	131072	
2575.17	0	131072	131072	
2639.55	0	131072	131072	
2703.93	0	131072	131072	
2768.31	0	131072	131072	
2832.69	0	131072	131072	
2897.07	0	131072	131072	
2961.44	0	131072	131072	
3025.82	0	131072	131072	
3090.2	0	131072	131072	
3154.58	0	131072	131072	
3218.96	0	131072	131072	
3283.34	0	131072	131072	
3347.72	0	131072	131072	
3412.1	0	131072	131072	
3476.48	0	131072	131072	
3540.86	0	131072	131072	
3605.24	0	131072	131072	
3669.62	0	131072	131072	
3733.99	0	131072	131072	
3798.37	0	131072	131072	
3862.75	0	131072	131072	
3927.13	0	131072	131072	
3991.51	0	131072	131072	
4055.89	0	131072	131072	
4120.27	0	131072	131072	
4184.65	0	131072	131072	
4249.03	0	131072	131072	
4313.41	0	131072	131072	
4377.79	0	131072	131072	
4442.17	0	131072	131072	
4506.55	0	131072	131072	
4570.92	0	131072	131072	
4635.3	0	131072	131072	
4699.68	0	131072	131072	
4764.06	0	131072	131072	
4828.44	0	131072	131072	
4892.82	0	131072	131072	
4957.2	0	131072	131072	
5021.58	0	131072	131072	
5085.96	0	131072	131072	
5150.34	0	131072	131072	
5214.72	0	131072	131072	
5279.1	0	131072	131072	
5343.48	0	131072	131072	
5407.85	0	131072	131072	
5472.23	0	131072	131072	
5536.61	0	131072	131072	
5600.99	0	131072	131072	
5665.37	0	131072	131072	
5729.75	0	131072	131072	
5794.13	0	131072	131072	
5858.51	0	131072	131072	
5922.89	0	131072	131072	
5987.27	0	131072	131072	
6051.65	0	131072	131072	
6116.03	0	131072	131072	
6180.41	0	131072	131072	
6244.78	0	131072	131072	
6309.16	0	131072	131072	
6373.54	0	131072	131072	
6437.92	0	131072	131072	
6502.3	0	131072	131072	
6566.68	0	131072	131072	
6631.06	0	131072	131072	
6695.44	0	131072	131072	
6759.82	0	131072	131072	
6824.2	0	131072	131072	
6888.58	0	131072	131072	
6952.96	0	131072	131072	
7017.34	0	131072	131072	
7081.71	0	131072	131072	
7146.09	0	131072	131072	
7210.47	0	131072	131072	
7274.85	0	131072	131072	
7339.23	0	131072	131072	
7403.61	0	131072	131072	
7467.99	0	131072	131072	
7532.37	0	131072	131072	
7596.75	-4.54747e-13	131072	131072	
7661.13	-4.54747e-13	131072	131072	
7725.51	-4.54747e-13	131072	131072	
7789.89	-4.54747e-13	131072	131072	
7854.27	-4.54747e-13	131072	131072	
7918.64	-4.54747e-13	131072	131072	
7983.02	0	131072	131072	
8047.4	0	131072	131072	
8111.78	0	131072	131072	
8176.16	0	131072	131072	
8240.54	0	131072	131072	
8304.92	0	131072	131072	
8369.3	0	131072	131072	
8433.68	0	131072	131072	
8498.06	0	131072	131072	
8562.44	0	131072	131072	
8626.82	0	131072	131072	
8691.2	0	131072	131072	
8755.57	0	131072	131072	
8819.95	0	131072	131072	
8884.33	0	131072	131072	
8948.71	0	131072	131072	
9013.09	0	131072	131072	
9077.47	0	131072	131072	
9141.85	0	131072	131072	
9206.23	0	131072	131072	
9270.61	0	131072	131072	
9334.99	0	131072	131072	
9399.37	0	131072	131072	
9463.75	0	131072	131072	
9528.12	0	131072	131072	
9592.5	0	131072	131072	
9656.88	0	131072	131072	
9721.26	0	131072	131072	
9785.64	0	131072	131072	
9850.02	0	131072	131072	
9914.4	0	131072	131072	
9978.78	0	131072	131072	
10043.2	0	131072	131072	
10107.5	0	131072	131072	
10171.9	0	131072	131072	
10236.3	0	131072	131072	
10300.7	0	131072	131072	
10365.1	0	131072	131072	
10429.4	0	131072	131072	
10493.8	0	131072	131072	
10558.2	-4.54747e-13	131072	131072	
10622.6	-4.54747e-13	131072	131072	
10687	-4.54747e-13	131072	131072	
10751.3	-4.54747e-13	131072	131072	
10815.7	-4.54747e-13	131072	131072	
10880.1	-4.54747e-13	131072	131072	
10944.5	-4.54747e-13	131072	131072	
11008.8	-4.54747e-13	131072	131072	
11073.2	0	131072	131072	
11137.6	0	131072	131072	
11202	0	131072	131072	
11266.4	0	131072	131072	
11330.7	0	131072	131072	
11395.1	0	131072	131072	
11459.5	0	131072	131072	
11523.9	0	131072	131072	
11588.3	0	131072	131072	
11652.6	0	131072	131072	
11717	0	131072	131072	
11781.4	0	131072	131072	
11845.8	0	131072	131072	
11910.2	0	131072	131072	
11974.5	0	131072	131072	
12038.9	0	131072	131072	
12103.3	0	131072	131072	
12167.7	0	131072	131072	
12232.1	0	131072	131072	
12296.4	0	131072	131072	
12360.8	0	131072	131072	
12425.2	0	131072	131072	
12489.6	0	131072	131072	
12553.9	0	131072	131072	
12618.3	0	131072	131072	
12682.7	0	131072	131072	
12747.1	0	131072	131072	
12811.5	0	131072	131072	
12875.8	0	131072	131072	
12940.2	0	131072	131072	
13004.6	0	131072	131072	
13069	0	131072	131072	
13133.4	0	131072	131072	
13197.7	0	131072	131072	
13262.1	0	131072	131072	
13326.5	0	131072	131072	
13390.9	0	131072	131072	
13455.3	0	131072	131072	
13519.6	0	131072	131072	
13584	0	131072	131072	
13648.4	0	131072	131072	
13712.8	0	131072	131072	
13777.2	0	131072	131072	
13841.5	0	131072	131072	
13905.9	0	131072	131072	
13970.3	0	131072	131072	
14034.7	0	131072	131072	
14099	0	131072	131072	
14163.4	0	131072	131072	
14227.8	0	131072	131072	
14292.2	0	131072	131072	
14356.6	0	131072	131072	
14420.9	0	131072	131072	
14485.3	-4.54747e-13	131072	131072	
14549.7	-4.54747e-13	131072	131072	
14614.1	-4.54747e-13	131072	131072	
14678.5	-4.54747e-13	131072	131072	
14742.8	-4.54747e-13	131072	131072	
14807.2	-4.54747e-13	131072	131072	
14871.6	-4.54747e-13	131072	131072	
14936	0	131072	131072	
15000.4	0	131072	131072	
15064.7	0	131072	131072	
15129.1	0	131072	131072	
15193.5	0	131072	131072	
15257.9	0	131072	131072	
15322.3	0	131072	131072	
15386.6	0	131072	131072	
15451	0	131072	131072	
15515.4	0	131072	131072	
15579.8	0	131072	131072	
15644.2	0	131072	131072	
15708.5	0	131072	131072	
15772.9	0	131072	131072	
15837.3	0	131072	131072	
15901.7	0	131072	131072	
15966	0	131072	131072	
16030.4	0	131072	131072	
16094.8	0	131072	131072	
16159.2	0	131072	131072	
16223.6	0	131072	131072	
16287.9	0	131072	131072	
16352.3	0	131072	131072	
16416.7	0	131072	131072	
16481.1	0	131072	131072	
16545.5	0	131072	131072	
16609.8	0	131072	131072	
16674.2	0	131072	131072	
16738.6	0	131072	131072	
16803	0	131072	131072	
16867.4	0	131072	131072	
16931.7	0	131072	131072	
16996.1	0	131072	131072	
17060.5	0	131072	131072	
17124.9	0	131072	131072	
17189.3	0	131072	131072	
17253.6	0	131072	131072	
17318	0	131072	131072	
17382.4	0	131072	131072	
17446.8	0	131072	131072	
17511.1	0	131072	131072	
17575.5	0	131072	131072	
17639.9	0	131072	131072	
17704.3	0	131072	131072	
17768.7	0	131072	131072	
17833	0	131072	131072	
17897.4	0	131072	131072	
17961.8	0	131072	131072	
18026.2	0	131072	131072	
18090.6	0	131072	131072	
18154.9	0	131072	131072	
18219.3	0	131072	131072	
18283.7	0	131072	131072	
18348.1	0	131072	131072	
18412.5	0	131072	131072	
18476.8	0	131072	131072	
18541.2	0	131072	131072	
18605.6	0	131072	131072	
18670	0	131072	131072	
18734.4	0	131072	131072	
18798.7	0	131072	131072	
18863.1	0	131072	131072	
18927.5	0	131072	131072	
18991.9	0	131072	131072	
19056.2	0	131072	131072	
19120.6	0	131072	131072	
19185	0	131072	131072	
19249.4	0	131072	131072	
19313.8	0	131072	131072	
19378.1	0	131072	131072	
19442.5	0	131072	131072	
19506.9	0	131072	131072	
19571.3	0	131072	131072	
19635.7	0	131072	131072	
19700	-4.54747e-13	131072	131072	
19764.4	-4.54747e-13	131072	131072	
19828.8	-4.54747e-13	131072	131072	
19893.2	-4.54747e-13	131072	131072	
19957.6	-4.54747e-13	131072	131072	
20021.9	-4.54747e-13	131072	131072	
20086.3	-4.54747e-13	131072	131072	
20150.7	-4.54747e-13	131072	131072	
20215.1	0	131072	131072	
20279.5	0	131072	131072	
20343.8	0	131072	131072	
20408.2	0	131072	131072	
20472.6	0	131072	131072	
20537	0	131072	131072	
20601.4	0	131072	131072	
20665.7	0	131072	131072	
20730.1	0	131072	131072	
20794.5	0	131072	131072	
20858.9	0	131072	131072	
20923.2	0	131072	131072	
20987.6	0	131072	131072	
21052	0	131072	131072	
21116.4	0	131072	131072	
21180.8	0	131072	131072	
21245.1	0	131072	131072	
21309.5	0	131072	131072	
21373.9	0	131072	131072	
21438.3	0	131072	131072	
21502.7	0	131072	131072	
21567	0	131072	131072	
21631.4	0	131072	131072	
21695.8	0	131072	131072	
21760.2	0	131072	131072	
21824.6	0	131072	131072	
21888.9	0	131072	131072	
21953.3	0	131072	131072	
22017.7	0	131072	131072	
22082.1	0	131072	131072	
22146.5	0	131072	131072	
22210.8	0	131072	131072	
22275.2	0	131072	131072	
22339.6	0	131072	131072	
22404	0	131072	131072	
22468.3	0	131072	131072	
22532.7	0	131072	131072	
22597.1	0	131072	131072	
22661.5	-4.54747e-13	131072	131072	
22725.9	-4.54747e-13	131072	131072	
22790.2	-4.54747e-13	131072	131072	
22854.6	-4.54747e-13	131072	131072	
22919	-4.54747e-13	131072	131072	
22983.4	-4.54747e-13	131072	131072	
23047.8	0	131072	131072	
23112.1	0	131072	131072	
23176.5	0	131072	131072	
23240.9	0	131072	131072	
23305.3	0	131072	131072	
23369.7	0	131072	131072	
23434	0	131072	131072	
23498.4	0	131072	131072	
23562.8	0	131072	131072	
23627.2	0	131072	131072	
23691.6	0	131072	131072	
23755.9	0	131072	131072	
23820.3	0	131072	131072	
23884.7	0	131072	131072	
23949.1	0	131072	131072	
24013.4	0	131072	131072	
24077.8	0	131072	131072	
24142.2	0	131072	131072	
24206.6	0	131072	131072	
24271	0	131072	131072	
24335.3	0	131072	131072	
24399.7	0	131072	131072	
24464.1	0	131072	131072	
24528.5	0	131072	131072	
24592.9	0	131072	131072	
24657.2	0	131072	131072	
24721.6	0	131072	131072	
24786	0	131072	131072	
24850.4	0	131072	131072	
24914.8	0	131072	131072	
24979.1	0	131072	131072	
25043.5	0	131072	131072	
25107.9	0	131072	131072	
25172.3	0	131072	131072	
25236.7	0	131072	131072	
25301	0	131072	131072	
25365.4	0	131072	131072	
25429.8	0	131072	131072	
25494.2	0	131072	131072	
25558.6	0	131072	131072	
25622.9	0	131072	131072	
25687.3	0	131072	131072	
25751.7	0	131072	131072	
25816.1	0	131072	131072	
25880.4	0	131072	131072	
25944.8	0	131072	131072	
26009.2	0	131072	131072	
26073.6	0	131072	131072	
26138	0	131072	131072	
26202.3	0	131072	131072	
26266.7	0	131072	131072	
26331.1	0	131072	131072	
26395.5	0	131072	131072	
26459.9	0	131072	131072	
26524.2	0	131072	131072	
26588.6	0	131072	131072	
26653	0	131072	131072	
26717.4	0	131072	131072	
26781.8	0	131072	131072	
26846.1	0	131072	131072	
26910.5	0	131072	131072	
26974.9	0	131072	131072	
27039.3	0	131072	131072	
27103.7	0	131072	131072	
27168	0	131072	131072	
27232.4	0	131072	131072	
27296.8	0	131072	131072	
27361.2	0	131072	131072	
27425.5	0	131072	131072	
27489.9	0	131072	131072	
27554.3	0	131072	131072	
27618.7	0	131072	131072	
27683.1	0	131072	131072	
27747.4	0	131072	131072	
27811.8	0	131072	131072	
27876.2	0	131072	131072	
27940.6	0	131072	131072	
28005	0	131072	131072	
28069.3	0	131072	131072	
28133.7	0	131072	131072	
28198.1	0	131072	131072	
28262.5	0	131072	131072	
28326.9	0	131072	131072	
28391.2	0	131072	131072	
28455.6	0	131072	131072	
28520	-4.54747e-13	131072	131072	
28584.4	-4.54747e-13	131072	131072	
28648.8	-4.54747e-13	131072	131072	
28713.1	-4.54747e-13	131072	131072	
28777.5	-4.54747e-13	131072	131072	
28841.9	-4.54747e-13	131072	131072	
28906.3	-4.54747e-13	131072	131072	
28970.7	-4.54747e-13	131072	131072	
29035	0	131072	131072	
29099.4	0	131072	131072	
29163.8	0	131072	131072	
29228.2	0	131072	131072	
29292.5	0	131072	131072	
29356.9	0	131072	131072	
29421.3	0	131072	131072	
29485.7	0	131072	131072	
29550.1	0	131072	131072	
29614.4	0	131072	131072	
29678.8	0	131072	131072	
29743.2	0	131072	131072	
29807.6	0	131072	131072	
29872	0	131072	131072	
29936.3	0	131072	131072	
30000.7	0	131072	131072	
30065.1	0	131072	131072	
30129.5	0	131072	131072	
30193.9	0	131072	131072	
30258.2	0	131072	131072	
30322.6	0	131072	131072	
30387	0	131072	131072	
30451.4	0	131072	131072	
30515.8	0	131072	131072	
30580.1	0	131072	131072	
30644.5	0	131072	131072	
30708.9	0	131072	131072	
30773.3	0	131072	131072	
30837.6	0	131072	131072	
30902	0	131072	131072	
30966.4	0	131072	131072	
31030.8	0	131072	131072	
31095.2	0	131072	131072	
31159.5	0	131072	131072	
31223.9	0	131072	131072	
31288.3	0	131072	131072	
31352.7	0	131072	131072	
31417.1	0	131072	131072	
31481.4	0	131072	131072	
31545.8	0	131072	131072	
31610.2	0	131072	131072	
31674.6	0	131072	131072	
31739	0	131072	131072	
31803.3	0	131072	131072	
31867.7	0	131072	131072	
31932.1	0	131072	131072	
31996.5	0	131072	131072	
32060.9	0	131072	131072	
32125.2	0	131072	131072	
32189.6	4.54747e-13	131072	131072	
32254	4.54747e-13	131072	131072	
32318.4	4.54747e-13	131072	131072	
32382.7	9.09495e-13	131072	131072	
32447.1	1.36424e-12	131072	131072	
32511.5	1.36424e-12	131072	131072	
32575.9	1.81899e-12	131072	131072	
32640.3	2.27374e-12	131072	131072	
32704.6	3.18323e-12	131072	131072	
32769	4.09273e-12	131072	131072	
32833.4	5.00222e-12	131072	131072	
32897.8	5.91172e-12	131072	131072	
32962.2	7.27596e-12	131072	131072	
33026.5	8.6402e-12	131072	131072	
33090.9	1.04592e-11	131072	131072	
33155.3	1.27329e-11	131072	131072	
33219.7	1.54614e-11	131072	131072	
33284.1	1.86446e-11	131072	131072	
33348.4	2.22826e-11	131072	131072	
33412.8	2.68301e-11	131072	131072	
33477.2	3.22871e-11	131072	131072	
33541.6	3.81988e-11	131072	131072	
33606	4.54747e-11	131072	131072	
33670.3	5.41149e-11	131072	131072	
33734.7	6.45741e-11	131072	131072	
33799.1	7.63976e-11	131072	131072	
33863.5	9.004e-11	131072	131072	
33927.9	1.05956e-10	131072	131072	
33992.2	1.24601e-10	131072	131072	
34056.6	1.45974e-10	131072	131072	
34121	1.70985e-10	131072	131072	
34185.4	1.99634e-10	131072	131072	
34249.7	2.32831e-10	131072	131072	
34314.1	2.71029e-10	131072	131072	
34378.5	3.14685e-10	131072	131072	
34442.9	3.64707e-10	131072	131072	
34507.3	4.22006e-10	131072	131072	
34571.6	4.87489e-10	131072	131072	
34636	5.61613e-10	131072	131072	
34700.4	6.46196e-10	131072	131072	
34764.8	7.42148e-10	131072	131072	
34829.2	8.50378e-10	131072	131072	
34893.5	9.72705e-10	131072	131072	
34957.9	1.11095e-09	131072	131072	
35022.3	1.26647e-09	131072	131072	
35086.7	1.44064e-09	131072	131072	
35151.1	1.63664e-09	131072	131072	
35215.4	1.85537e-09	131072	131072	
35279.8	2.10002e-09	131072	131072	
35344.2	2.37242e-09	131072	131072	
35408.6	2.67528e-09	131072	131072	
35473	3.01179e-09	131072	131072	
35537.3	3.38468e-09	131072	131072	
35601.7	3.79714e-09	131072	131072	
35666.1	4.25234e-09	131072	131072	
35730.5	4.75393e-09	131072	131072	
35794.8	5.30508e-09	131072	131072	
35859.2	5.91035e-09	131072	131072	
35923.6	6.57292e-09	131072	131072	
35988	7.29733e-09	131072	131072	
36052.4	8.08768e-09	131072	131072	
36116.7	8.94852e-09	131072	131072	
36181.1	9.88393e-09	131072	131072	
36245.5	1.08985e-08	131072	131072	
36309.9	1.19971e-08	131072	131072	
36374.3	1.31845e-08	131072	131072	
36438.6	1.44655e-08	131072	131072	
36503	1.58457e-08	131072	131072	
36567.4	1.73295e-08	131072	131072	
36631.8	1.89225e-08	131072	131072	
36696.2	2.06305e-08	131072	131072	
36760.5	2.24595e-08	131072	131072	
36824.9	2.44158e-08	131072	131072	
36889.3	2.65072e-08	131072	131072	
36953.7	2.87414e-08	131072	131072	
37018.1	3.11275e-08	131072	131072	
37082.4	3.36772e-08	131072	131072	
37146.8	3.6403e-08	131072	131072	
37211.2	3.93211e-08	131072	131072	
37275.6	4.24507e-08	131072	131072	
37339.9	4.58149e-08	131072	131072	
37404.3	4.94442e-08	131072	131072	
37468.7	5.33751e-08	131072	131072	
37533.1	5.76524e-08	131072	131072	
37597.5	6.23327e-08	131072	131072	
37661.8	6.74859e-08	131072	131072	
37726.2	7.31975e-08	131072	131072	
37790.6	7.9574e-08	131072	131072	
37855	8.67453e-08	131072	131072	
37919.4	9.48703e-08	131072	131072	
37983.7	1.04143e-07	131072	131072	
38048.1	1.14797e-07	131072	131072	
38112.5	1.27119e-07	131072	131072	
38176.9	1.4145e-07	131072	131072	
38241.3	1.58202e-07	131072	131072	
38305.6	1.77866e-07	131072	131072	
38370	2.01029e-07	131072	131072	
38434.4	2.28387e-07	131072	131072	
38498.8	2.60763e-07	131072	131072	
38563.2	2.99129e-07	131072	131072	
38627.5	3.44628e-07	131072	131072	
38691.9	3.98601e-07	131072	131072	
38756.3	4.6261e-07	131072	131072	
38820.7	5.38482e-07	131072	131072	
38885.1	6.28332e-07	131072	131072	
38949.4	7.34614e-07	131072	131072	
39013.8	8.6016e-07	131072	131072	
39078.2	1.00823e-06	131072	131072	
39142.6	1.18258e-06	131072	131072	
39206.9	1.38748e-06	131072	131072	
39271.3	1.62785e-06	131072	131072	
39335.7	1.90926e-06	131072	131072	
39400.1	2.23806e-06	131072	131072	
39464.5	2.62144e-06	131072	131072	
39528.8	3.06752e-06	131072	131072	
39593.2	3.58548e-06	131072	131072	
39657.6	4.18561e-06	131072	131072	
39722	4.87949e-06	131072	131072	
39786.4	5.68006e-06	131072	131072	
39850.7	6.6018e-06	131072	131072	
39915.1	7.6608e-06	131072	131072	
39979.5	8.87497e-06	131072	131072	
40043.9	1.02642e-05	131072	131072	
40108.3	1.18504e-05	131072	131072	
40172.6	1.36577e-05	131072	131072	
40237	1.5713e-05	131072	131072	
40301.4	1.80455e-05	131072	131072	
40365.8	2.06873e-05	131072	131072	
40430.2	2.36735e-05	131072	131072	
40494.5	2.70424e-05	131072	131072	
40558.9	3.08357e-05	131072	131072	
40623.3	3.50987e-05	131072	131072	
40687.7	3.98803e-05	131072	131072	
40752	4.52336e-05	131072	131072	
40816.4	5.12155e-05	131072	131072	
40880.8	5.78877e-05	131072	131072	
40945.2	6.53159e-05	131072	131072	
41009.6	7.35707e-05	131072	131072	
41073.9	8.27276e-05	131072	131072	
41138.3	9.28668e-05	131072	131072	
41202.7	0.000104074	131072	131072	
41267.1	0.000116438	131072	131072	
41331.5	0.000130057	131072	131072	
41395.8	0.00014503	131072	131072	
41460.2	0.000161465	131072	131072	
41524.6	0.000179471	131072	131072	
41589	0.000199166	131072	131072	
41653.4	0.000220672	131072	131072	
41717.7	0.000244116	131072	131072	
41782.1	0.000269628	131072	131072	
41846.5	0.000297345	131072	131072	
41910.9	0.000327408	131072	131072	
41975.3	0.00035996	131072	131072	
42039.6	0.000395151	131072	131072	
42104	0.00043313	131072	131072	
42168.4	0.000474054	131072	131072	
42232.8	0.000518077	131072	131072	
42297.1	0.000565359	131072	131072	
42361.5	0.000616057	131072	131072	
42425.9	0.000670333	131072	131072	
42490.3	0.000728344	131072	131072	
42554.7	0.00079025	131072	131072	
42619	0.000856206	131072	131072	
42683.4	0.000926366	131072	131072	
42747.8	0.00100088	131072	131072	
42812.2	0.00107989	131072	131072	
42876.6	0.00116354	131072	131072	
42940.9	0.00125196	131072	131072	
43005.3	0.00134528	131072	131072	
43069.7	0.00144361	131072	131072	
43134.1	0.00154705	131072	131072	
43198.5	0.00165571	131072	131072	
