0	0	35832	35832	
36.0427	0	35650	35650	
72.2269	0	35678	35678	
108.411	0	35746	35746	
144.595	0	35848	35848	
180.779	0	35842	35842	
216.989	0	35810	35810	
253.198	0	35776	35776	
289.407	0	35820	35820	
325.616	0	35852	35852	
361.825	0	35842	35842	
398.035	0	35876	35876	
434.244	0	35884	35884	
470.453	0	35918	35918	
507.441	0	35878	35878	
544.429	0	35798	35798	
581.563	0	35702	35702	
618.697	0	35634	35634	
655.831	0	35572	35572	
692.965	0	35514	35514	
730.099	0	35512	35512	
767.233	0	35490	35490	
804.367	0	35458	35458	
841.502	0	35470	35470	
878.636	0	35480	35480	
915.77	0	35454	35454	
952.904	0	35536	35536	
990.038	0	35554	35554	
1027.17	0	35558	35558	
1064.31	0	35582	35582	
1101.44	0	35636	35636	
1138.57	0	35694	35694	
1175.71	0	35750	35750	
1211.97	0	35820	35820	
1248.23	0	35846	35846	
1284.49	0	35868	35868	
1320.75	0	35924	35924	
1357.01	0	35954	35954	
1393.27	0	35990	35990	
1429.53	0	36042	36042	
1465.79	0	36098	36098	
1502.05	0	36170	36170	
1538.31	0	36248	36248	
1574.54	0	36314	36314	
1610.76	0	36364	36364	
1646.99	0	36404	36404	
1683.21	0	36466	36466	
1719.44	0	36512	36512	
1755.66	0	36572	36572	
1791.89	0	36622	36622	
1828.11	0	36654	36654	
1864.34	0	36726	36726	
1900.56	0	36790	36790	
1936.79	0	36872	36872	
1973.01	0	36960	36960	
2009.2	0	37020	37020	
2045.39	0	37058	37058	
2081.57	0	37146	37146	
2117.76	0	37174	37174	
2153.95	0	37232	37232	
2190.14	0	37280	37280	
2226.32	0	37360	37360	
2262.51	0	37414	37414	
2298.7	0	37504	37504	
2334.88	0	37570	37570	
2371.07	0	37644	37644	
2407.26	0	37684	37684	
2443.45	0	37776	37776	
2479.32	0	37846	37846	
2515.19	0	37924	37924	
2551.06	0	37982	37982	
2586.94	0	38046	38046	
2622.81	0	38078	38078	
2658.68	0	38110	38110	
2694.55	0	38168	38168	
2730.18	0	38298	38298	
2765.8	0	38406	38406	
2801.43	0	38456	38456	
2836.83	0	38536	38536	
2872.23	0	38574	38574	
2907.64	0	38634	38634	
2943.04	0	38706	38706	
2978.44	0	38790	38790	
3013.84	0	38838	38838	
3049.24	0	38890	38890	
3084.27	0	38964	38964	
3119.29	0	39038	39038	
3154.31	0	39102	39102	
3189.34	0	39188	39188	
3224.36	0	39254	39254	
3259.38	0	39328	39328	
3294.02	0	39418	39418	
3328.65	0	39526	39526	
3363.29	0	39570	39570	
3397.92	0	39622	39622	
3432.56	0	39686	39686	
3467.19	0	39750	39750	
3501.83	0	39830	39830	
3536.46	0	39890	39890	
3571.1	0	39948	39948	
3605.73	0	40048	40048	
3640.37	0	40152	40152	
3675	0	40198	40198	
3709.64	0	40284	40284	
3744.27	0	40354	40354	
3778.91	0	40408	40408	
3813.54	0	40494	40494	
3848.18	0	40594	40594	
3882.82	0	40678	40678	
3917.45	0	40794	40794	
3952.09	0	40856	40856	
3986.72	0	40926	40926	
4021.36	0	41002	41002	
4055.99	0	41058	41058	
4090.63	0	41152	41152	
4125.26	0	41258	41258	
4159.9	0	41314	41314	
4194.53	0	41400	41400	
4229.17	0	41480	41480	
4263.8	0	41554	41554	
4298.44	0	41618	41618	
4333.07	0	41688	41688	
4367.71	0	41776	41776	
4402.34	0	41842	41842	
4436.98	0	41930	41930	
4471.61	0	42030	42030	
4506.25	0	42122	42122	
4540.88	0	42214	42214	
4575.52	0	42280	42280	
4610.15	0	42348	42348	
4644.79	0	42396	42396	
4679.42	0	42452	42452	
4714.06	0	42590	42590	
4748.69	0	42716	42716	
4783.33	0	42772	42772	
4817.97	0	42826	42826	
4852.6	0	42896	42896	
4887.24	0	43004	43004	
4921.87	0	43140	43140	
4956.51	0	43218	43218	
4991.14	0	43288	43288	
5025.78	0	43410	43410	
5060.41	0	43518	43518	
5095.05	0	43604	43604	
5129.68	0	43666	43666	
5164.32	0	43746	43746	
5198.95	0	43838	43838	
5233.59	0	43912	43912	
5268.22	0	43966	43966	
5302.86	0	44080	44080	
5337.49	0	44174	44174	
5372.13	0	44242	44242	
5406.76	0	44332	44332	
5441.4	0	44446	44446	
5476.03	0	44560	44560	
5510.67	0	44688	44688	
5545.3	0	44778	44778	
5579.94	0	44816	44816	
5614.57	0	44952	44952	
5649.21	0	45054	45054	
5683.84	0	45146	45146	
5718.48	0	45192	45192	
5753.11	0	45266	45266	
5787.75	0	45318	45318	
5822.38	0	45434	45434	
5857.02	0	45568	45568	
5891.65	0	45672	45672	
5926.29	0	45750	45750	
5960.92	0	45776	45776	
5995.56	0	45852	45852	
6030.19	0	46030	46030	
6064.83	0	46160	46160	
6099.46	0	46244	46244	
6134.1	0	46306	46306	
6168.73	0	46384	46384	
6203.37	0	46492	46492	
6238	0	46596	46596	
6272.64	0	46700	46700	
6307.27	0	46770	46770	
6341.91	0	46856	46856	
6376.54	0	46904	46904	
6411.18	0	47026	47026	
6445.81	0	47140	47140	
6480.45	0	47238	47238	
6515.08	0	47296	47296	
6549.72	0	47354	47354	
6584.35	0	47442	47442	
6618.99	0	47596	47596	
6653.62	0	47682	47682	
6688.26	0	47808	47808	
6722.89	0	47914	47914	
6757.52	0	47974	47974	
6792.16	0	48098	48098	
6826.79	0	48242	48242	
6861.43	0	48306	48306	
6896.06	0	48384	48384	
6930.7	0	48444	48444	
6965.33	0	48548	48548	
6999.96	0	48668	48668	
7034.6	0	48760	48760	
7069.23	0	48874	48874	
7103.87	0	48942	48942	
7138.5	0	49032	49032	
7173.14	0	49162	49162	
7207.77	0	49270	49270	
7242.4	0	49400	49400	
7277.04	0	49490	49490	
7311.67	0	49582	49582	
7346.31	0	49684	49684	
7380.94	0	49830	49830	
7415.58	0	49944	49944	
7450.21	0	50016	50016	
7484.84	0	50112	50112	
7519.48	0	50220	50220	
7554.11	0	50340	50340	
7588.75	0	50454	50454	
7623.38	0	50584	50584	
7658.01	0	50678	50678	
7692.65	0	50776	50776	
7727.28	0	50888	50888	
7761.92	0	51018	51018	
7796.55	0	51124	51124	
7831.19	0	51222	51222	
7865.82	0	51302	51302	
7900.45	0	51432	51432	
7935.09	0	51556	51556	
7969.72	0	51668	51668	
8004.36	0	51796	51796	
8038.99	0	51894	51894	
8073.63	0	51982	51982	
8108.26	0	52100	52100	
8142.9	0	52234	52234	
8177.53	0	52368	52368	
8212.17	0	52464	52464	
8246.8	0	52536	52536	
8281.44	0	52640	52640	
8316.07	0	52770	52770	
8350.71	0	52886	52886	
8385.34	0	52992	52992	
8419.98	0	53136	53136	
8454.61	0	53256	53256	
8489.25	0	53382	53382	
8523.88	0	53534	53534	
8558.52	0	53624	53624	
8593.15	0	53768	53768	
8627.79	0	53848	53848	
8662.42	0	53932	53932	
8697.06	0	54070	54070	
8731.69	0	54194	54194	
8766.33	0	54302	54302	
8800.96	0	54396	54396	
8835.6	0	54538	54538	
8870.23	0	54672	54672	
8904.87	0	54794	54794	
8939.5	0	54934	54934	
8974.14	0	55068	55068	
9008.77	0	55192	55192	
9043.41	0	55316	55316	
9078.04	0	55442	55442	
9112.68	0	55566	55566	
9147.31	0	55692	55692	
9181.95	0	55798	55798	
9216.58	0	55918	55918	
9251.22	0	56014	56014	
9285.85	0	56180	56180	
9320.49	0	56358	56358	
9355.12	0	56484	56484	
9389.76	0	56620	56620	
9424.39	0	56720	56720	
9459.02	0	56860	56860	
9493.66	0	56984	56984	
9528.29	0	57158	57158	
9562.93	0	57258	57258	
9597.56	0	57390	57390	
9632.2	0	57550	57550	
9666.83	0	57686	57686	
9701.47	0	57834	57834	
9736.1	0	57998	57998	
9770.74	0	58118	58118	
9805.37	0	58200	58200	
9840.01	0	58322	58322	
9874.64	0	58462	58462	
9909.28	0	58588	58588	
9943.91	0	58784	58784	
9978.55	0	58872	58872	
10013.2	0	58972	58972	
10047.8	0	59128	59128	
10082.5	0	59266	59266	
10117.1	0	59392	59392	
10151.7	0	59538	59538	
10186.4	0	59686	59686	
10221	0	59810	59810	
10255.6	0	59980	59980	
10290.3	0	60138	60138	
10324.9	0	60268	60268	
10359.5	0	60408	60408	
10394.2	0	60508	60508	
10428.8	0	60628	60628	
10463.4	0	60748	60748	
10498.1	0	60890	60890	
10532.7	0	61032	61032	
10567.3	0	61186	61186	
10602	0	61294	61294	
10636.6	0	61444	61444	
10671.2	0	61566	61566	
10705.9	0	61730	61730	
10740.5	0	61864	61864	
10775.1	0	62010	62010	
10809.8	0	62164	62164	
10844.4	0	62322	62322	
10879.1	0	62410	62410	
10913.7	0	62574	62574	
10948.3	0	62708	62708	
10983	0	62842	62842	
11017.6	0	62976	62976	
11052.2	0	63158	63158	
11086.9	0	63282	63282	
11121.5	0	63402	63402	
11156.1	0	63560	63560	
11190.8	0	63686	63686	
11225.4	0	63852	63852	
11260	0	63978	63978	
11294.7	0	64106	64106	
11329.3	0	64206	64206	
11363.9	0	64376	64376	
11398.6	0	64534	64534	
11433.2	0	64680	64680	
11467.9	0	64810	64810	
11502.5	0	64980	64980	
11537.1	0	65158	65158	
11571.8	0	65296	65296	
11606.4	0	65454	65454	
11641	0	65604	65604	
11675.7	0	65762	65762	
11710.4	0	65906	65906	
11745.1	0	66052	66052	
11779.8	0	66250	66250	
11814.5	0	66376	66376	
11849.2	0	66528	66528	
11884.2	0	66700	66700	
11919.3	0	66826	66826	
11954.3	0	66996	66996	
11989.3	0	67184	67184	
12024.3	0	67338	67338	
12059	0	67544	67544	
12093.6	0	67708	67708	
12128.2	0	67868	67868	
12162.9	0	67976	67976	
12197.5	0	68130	68130	
12232.1	0	68262	68262	
12266.8	0	68460	68460	
12301.4	0	68584	68584	
12336.1	0	68762	68762	
12370.7	0	68924	68924	
12405.3	0	69088	69088	
12440	0	69226	69226	
12474.6	0	69378	69378	
12509.2	0	69540	69540	
12543.9	0	69706	69706	
12578.5	0	69840	69840	
12613.1	0	70028	70028	
12647.8	0	70212	70212	
12682.4	0	70342	70342	
12717	0	70560	70560	
12751.7	0	70748	70748	
12786.3	0	70960	70960	
12820.9	0	71116	71116	
12855.6	0	71260	71260	
12890.2	0	71422	71422	
12924.8	0	71588	71588	
12959.5	0	71750	71750	
12994.1	0	71936	71936	
13028.7	0	72104	72104	
13063.4	0	72276	72276	
13098	0	72448	72448	
13132.7	0	72572	72572	
13167.3	0	72764	72764	
13201.9	0	73014	73014	
13236.6	0	73184	73184	
13271.2	0	73360	73360	
13305.8	0	73514	73514	
13340.5	0	73666	73666	
13375.1	0	73856	73856	
13409.7	0	74092	74092	
13444.4	0	74330	74330	
13479	0	74472	74472	
13513.6	0	74610	74610	
13548.3	0	74740	74740	
13582.9	0	74878	74878	
13617.5	0	75128	75128	
13652.2	0	75278	75278	
13686.8	0	75512	75512	
13721.4	0	75670	75670	
13756.1	0	75810	75810	
13790.7	0	75968	75968	
13825.4	0	76214	76214	
13860	0	76404	76404	
13894.6	0	76522	76522	
13929.3	0	76652	76652	
13963.9	0	76842	76842	
13998.5	0	77028	77028	
14033.2	0	77258	77258	
14067.8	0	77428	77428	
14102.4	0	77592	77592	
14137.1	0	77740	77740	
14171.7	0	77926	77926	
14206.3	0	78076	78076	
14241	0	78284	78284	
14275.6	0	78488	78488	
14310.2	0	78656	78656	
14344.9	0	78796	78796	
14379.5	0	78932	78932	
14414.2	0	79146	79146	
14448.8	0	79330	79330	
14483.4	0	79486	79486	
14518.1	0	79628	79628	
14552.7	0	79796	79796	
14587.3	0	79926	79926	
14622	0	80080	80080	
14656.6	0	80304	80304	
14691.2	0	80542	80542	
14725.9	0	80756	80756	
14760.5	0	80902	80902	
14795.1	0	81038	81038	
14829.8	0	81230	81230	
14864.4	0	81544	81544	
14899	0	81798	81798	
14933.7	0	82008	82008	
14968.3	0	82182	82182	
15002.9	0	82336	82336	
15037.6	0	82512	82512	
15072.2	0	82736	82736	
15106.9	0	82894	82894	
15141.5	0	83116	83116	
15176.1	0	83282	83282	
15210.8	0	83492	83492	
15245.4	0	83694	83694	
15280	0	83946	83946	
15314.7	0	84154	84154	
15349.3	0	84352	84352	
15383.9	0	84562	84562	
15418.6	0	84776	84776	
15453.2	0	85028	85028	
15487.8	0	85240	85240	
15522.5	0	85442	85442	
15557.1	0	85678	85678	
15591.7	0	85870	85870	
15626.4	0	86106	86106	
15661	0	86274	86274	
15695.7	0	86544	86544	
15730.3	0	86718	86718	
15764.9	0	86868	86868	
15799.6	0	87062	87062	
15834.2	0	87238	87238	
15868.8	0	87478	87478	
15903.5	0	87770	87770	
15938.1	0	87994	87994	
15972.7	0	88164	88164	
16007.4	0	88326	88326	
16042	0	88560	88560	
16076.6	0	88768	88768	
16111.3	0	89022	89022	
16145.9	0	89206	89206	
16180.5	0	89406	89406	
16215.2	0	89614	89614	
16249.8	0	89880	89880	
16284.5	0	90048	90048	
16319.1	0	90228	90228	
16353.7	0	90428	90428	
16388.4	0	90658	90658	
16423	0	90858	90858	
16457.6	0	91022	91022	
16492.3	0	91228	91228	
16526.9	0	91458	91458	
16561.5	0	91662	91662	
16596.2	0	91858	91858	
16630.8	0	92096	92096	
16665.4	0	92312	92312	
16700.1	0	92530	92530	
16734.7	0	92780	92780	
16769.3	0	92992	92992	
16804	0	93224	93224	
16838.6	0	93418	93418	
16873.3	0	93622	93622	
16907.9	0	93794	93794	
16942.5	0	94000	94000	
16977.2	0	94250	94250	
17011.8	0	94420	94420	
17046.4	0	94648	94648	
17081.1	0	94794	94794	
17115.7	0	94988	94988	
17150.3	0	95227	95227	
17185	0	95533	95533	
17219.6	0	95837	95837	
17254.2	0	96045	96045	
17288.9	0	96242	96242	
17323.5	0	96428	96428	
17358.1	0	96679	96679	
17392.8	0	96903	96903	
17427.4	0	97171	97171	
17462	0	97433	97433	
17496.7	0	97629	97629	
17531.3	0	97888	97888	
17566	0	98094	98094	
17600.6	0	98317	98317	
17635.2	0	98581	98581	
17669.9	0	98809	98809	
17704.5	0	99010	99010	
17739.1	0	99286	99286	
17773.8	0	99548	99548	
17808.4	0	99758	99758	
17843	0	100010	100010	
17877.7	0	100242	100242	
17912.3	0	100442	100442	
17946.9	0	100651	100651	
17981.6	0	100891	100891	
18016.2	0	101149	101149	
18050.8	0	101374	101374	
18085.5	0	101655	101655	
18120.1	0	101890	101890	
18154.7	0	102139	102139	
18189.4	0	102306	102306	
18224	0	102439	102439	
18258.7	0	102650	102650	
18293.3	0	102874	102874	
18327.9	0	103124	103124	
18362.6	0	103336	103336	
18397.2	0	103487	103487	
18431.8	0	103705	103705	
18466.5	0	103904	103904	
18501.1	0	104135	104135	
18535.7	0	104361	104361	
18570.4	0	104621	104621	
18605	0	104829	104829	
18639.6	0	104986	104986	
18674.3	0	105155	105155	
18708.9	0	105347	105347	
18743.5	0	105556	105556	
18778.2	0	105782	105782	
18812.8	0	105996	105996	
18847.4	0	106189	106189	
18882.1	0	106333	106333	
18916.7	0	106522	106522	
18951.4	0	106751	106751	
18986	0	107016	107016	
19020.6	0	107204	107204	
19055.3	0	107396	107396	
19089.9	0	107572	107572	
19124.5	0	107714	107714	
19159.2	0	107952	107952	
19193.8	0	108142	108142	
19228.4	0	108367	108367	
19263.1	0	108567	108567	
19297.7	0	108720	108720	
19332.3	0	108917	108917	
19367	0	109090	109090	
19401.6	0	109296	109296	
19436.2	0	109496	109496	
19470.9	0	109659	109659	
19505.5	0	109802	109802	
19540.1	0	109920	109920	
19574.8	0	110086	110086	
19609.4	0	110291	110291	
19644.1	0	110474	110474	
19678.7	0	110761	110761	
19713.3	0	110967	110967	
19748	0	111138	111138	
19782.6	0	111391	111391	
19817.2	0	111578	111578	
19851.9	0	111742	111742	
19886.5	0	111967	111967	
19921.1	0	112169	112169	
19955.8	0	112416	112416	
19990.4	0	112639	112639	
20025	0	112809	112809	
20059.7	0	113006	113006	
20094.3	0	113236	113236	
20128.9	0	113436	113436	
20163.6	0	113658	113658	
20198.2	0	113839	113839	
20232.9	0	114036	114036	
20267.5	0	114223	114223	
20302.1	0	114430	114430	
20336.8	0	114651	114651	
20371.4	0	114862	114862	
20406	0	115077	115077	
20440.7	0	115257	115257	
20475.3	0	115486	115486	
20509.9	0	115665	115665	
20544.6	0	115893	115893	
20579.2	0	116169	116169	
20613.8	0	116382	116382	
20648.5	0	116579	116579	
20683.1	0	116797	116797	
20717.7	0	117005	117005	
20752.4	0	117137	117137	
20787	0	117340	117340	
20821.6	0	117509	117509	
20856.3	0	117760	117760	
20890.9	0	117942	117942	
20925.5	0	118145	118145	
20960.2	0	118337	118337	
20994.8	0	118569	118569	
21029.5	0	118769	118769	
21064.1	0	118996	118996	
21098.7	0	119194	119194	
21133.4	0	119395	119395	
21168	0	119541	119541	
21202.6	0	119732	119732	
21237.3	0	119925	119925	
21271.9	0	120134	120134	
21306.5	0	120273	120273	
21341.2	0	120441	120441	
21375.8	0	120604	120604	
21410.4	0	120769	120769	
21445.1	0	120943	120943	
21479.7	0	121070	121070	
21514.3	0	121260	121260	
21549	0	121462	121462	
21583.6	0	121708	121708	
21618.2	0	121906	121906	
21652.9	0	122070	122070	
21687.5	0	122239	122239	
21722.2	0	122379	122379	
21756.8	0	122587	122587	
21791.4	0	122861	122861	
21826.1	0	123079	123079	
21860.7	0	123253	123253	
21895.3	0	123428	123428	
21930	0	123597	123597	
21964.6	0	123768	123768	
21999.2	0	123982	123982	
22033.9	0	124191	124191	
22068.5	0	124351	124351	
22103.1	0	124521	124521	
22137.8	0	124726	124726	
22172.4	0	124936	124936	
22207	0	125146	125146	
22241.7	0	125306	125306	
22276.3	0	125530	125530	
22310.9	0	125713	125713	
22345.6	0	125876	125876	
22380.2	0	126066	126066	
22414.8	0	126276	126276	
22449.5	0	126516	126516	
22484.1	0	126746	126746	
22518.8	0	126898	126898	
22553.4	0	127067	127067	
22588	0	127216	127216	
22622.7	0	127368	127368	
22657.3	0	127578	127578	
22691.9	0	127777	127777	
22726.6	0	128004	128004	
22761.2	0	128175	128175	
22795.8	0	128324	128324	
22830.5	0	128521	128521	
22865.1	0	128749	128749	
22899.7	0	128989	128989	
22934.4	0	129173	129173	
22969	0	129308	129308	
23003.6	0	129503	129503	
23038.3	0	129681	129681	
23072.9	0	129859	129859	
23107.5	0	130135	130135	
23142.2	0	130372	130372	
23176.8	0	130577	130577	
23211.5	0	130731	130731	
23246.1	0	130864	130864	
23280.7	0	130981	130981	
23315.4	0	131193	131193	
23350	0	131406	131406	
23384.6	0	131642	131642	
23419.3	0	131796	131796	
23453.9	0	132004	132004	
23488.5	0	132187	132187	
23523.2	0	132422	132422	
23557.8	0	132632	132632	
23592.4	0	132847	132847	
23627.1	0	133013	133013	
23661.7	0	133197	133197	
23696.3	0	133358	133358	
23731	0	133509	133509	
23765.6	0	133653	133653	
23800.2	0	133762	133762	
23834.9	0	133951	133951	
23869.5	0	134069	134069	
23904.1	0	134274	134274	
23938.8	0	134509	134509	
23973.4	0	134731	134731	
24008.1	0	134968	134968	
24042.7	0	135189	135189	
24077.3	0	135415	135415	
24112	0	135576	135576	
24146.6	0	135706	135706	
24181.2	0	135831	135831	
24215.9	0	135985	135985	
24250.5	0	136131	136131	
24285.1	0	136379	136379	
24319.8	0	136566	136566	
24354.4	0	136802	136802	
24389	0	136994	136994	
24423.7	0	137205	137205	
24458.3	0	137405	137405	
24492.9	0	137531	137531	
24527.6	0	137722	137722	
24562.2	0	137840	137840	
24596.8	0	137976	137976	
24631.5	0	138117	138117	
24666.1	0	138252	138252	
24700.8	0	138484	138484	
24735.4	0	138640	138640	
24770	0	138816	138816	
24804.7	0	139073	139073	
24839.3	0	139206	139206	
24873.9	0	139414	139414	
24908.6	0	139529	139529	
24943.3	0	139665	139665	
24977.9	0	139761	139761	
25012.5	0	139941	139941	
25047.2	0	140127	140127	
25081.8	0	140287	140287	
25116.4	0	140497	140497	
25151.1	0	140653	140653	
25185.7	0	140825	140825	
25220.3	0	141042	141042	
25255	0	141296	141296	
25289.6	0	141541	141541	
25324.3	0	141676	141676	
25358.9	0	141839	141839	
25393.5	0	141998	141998	
25428.2	0	142171	142171	
25462.8	0	142327	142327	
25497.4	0	142511	142511	
25532.1	0	142693	142693	
25566.7	0	142901	142901	
25601.3	0	143014	143014	
25636	0	143197	143197	
25670.6	0	143350	143350	
25705.2	0	143566	143566	
25739.9	0	143740	143740	
25774.5	0	144009	144009	
25809.1	0	144240	144240	
25843.8	0	144426	144426	
25878.4	0	144653	144653	
25913	0	144865	144865	
25947.7	0	145052	145052	
25982.3	0	145102	145102	
26016.9	0	145221	145221	
26051.6	0	145452	145452	
26086.2	0	145704	145704	
26120.8	0	145912	145912	
26155.5	0	146120	146120	
26190.1	0	146308	146308	
26224.7	0	146504	146504	
26259.4	0	146665	146665	
26294	0	146817	146817	
26328.7	0	147025	147025	
26363.3	0	147257	147257	
26397.9	0	147410	147410	
26432.6	0	147645	147645	
26467.2	0	147821	147821	
26501.8	0	148006	148006	
26536.5	0	148192	148192	
26571.1	0	148445	148445	
26605.7	0	148711	148711	
26640.4	0	148963	148963	
26675	0	149191	149191	
26709.6	0	149406	149406	
26744.3	0	149609	149609	
26778.9	0	149813	149813	
26813.5	0	150013	150013	
26848.2	0	150164	150164	
26882.8	0	150362	150362	
26917.4	0	150492	150492	
26952.1	0	150658	150658	
26986.7	0	150830	150830	
27021.3	0	150985	150985	
27056	0	151195	151195	
27090.6	0	151414	151414	
27125.2	0	151597	151597	
27159.9	0	151763	151763	
27194.5	0	151993	151993	
27229.1	0	152195	152195	
27263.8	0	152401	152401	
27298.4	0	152535	152535	
27333	0	152713	152713	
27367.7	0	152923	152923	
27402.3	0	153060	153060	
27436.9	0	153148	153148	
27471.6	0	153280	153280	
27506.2	0	153463	153463	
27540.9	0	153676	153676	
27575.5	0	153890	153890	
27610.1	0	154125	154125	
27644.8	0	154322	154322	
27679.4	0	154516	154516	
27714	0	154721	154721	
27748.7	0	154950	154950	
27783.3	0	155131	155131	
27817.9	0	155286	155286	
27852.6	0	155478	155478	
27887.2	0	155663	155663	
27921.8	0	155795	155795	
27956.5	0	155970	155970	
27991.1	0	156199	156199	
28025.7	0	156436	156436	
28060.4	0	156582	156582	
28095	0	156777	156777	
28129.6	0	156985	156985	
28164.3	0	157147	157147	
28198.9	0	157353	157353	
28233.5	0	157513	157513	
28268.2	0	157672	157672	
28302.8	0	157850	157850	
28337.4	0	158035	158035	
28372.1	0	158265	158265	
28406.7	0	158440	158440	
28441.3	0	158612	158612	
28476	0	158800	158800	
28510.6	0	158909	158909	
28545.2	0	159083	159083	
28579.9	0	159224	159224	
28614.5	0	159380	159380	
28649.1	0	159613	159613	
28683.8	0	159742	159742	
28718.4	0	159911	159911	
28753	0	160055	160055	
28787.7	0	160169	160169	
28822.3	0	160395	160395	
28856.9	0	160519	160519	
28891.6	0	160678	160678	
28926.2	0	160903	160903	
28960.8	0	161101	161101	
28995.5	0	161287	161287	
29030.1	0	161439	161439	
29064.7	0	161598	161598	
29099.4	0	161739	161739	
29134	0	161796	161796	
29168.6	0	161919	161919	
29203.3	0	162066	162066	
29237.9	0	162252	162252	
29272.5	0	162438	162438	
29307.2	0	162571	162571	
29341.8	0	162716	162716	
29376.4	0	162939	162939	
29411.1	0	163178	163178	
29445.7	0	163329	163329	
29480.3	0	163480	163480	
29515	0	163607	163607	
29549.6	0	163770	163770	
29584.2	0	163972	163972	
29618.9	0	164142	164142	
29653.5	0	164299	164299	
29688.1	0	164414	164414	
29722.8	0	164617	164617	
29757.4	0	164839	164839	
29792	0	165019	165019	
29826.7	0	165195	165195	
29861.3	0	165402	165402	
29895.9	0	165524	165524	
29930.6	0	165707	165707	
29965.2	0	165867	165867	
29999.8	0	166089	166089	
30034.5	0	166288	166288	
30069.1	0	166436	166436	
30103.7	0	166650	166650	
30138.4	0	166831	166831	
30173	0	166960	166960	
30207.6	0	167095	167095	
30242.3	0	167226	167226	
30276.9	0	167446	167446	
30311.5	0	167685	167685	
30346.2	0	167970	167970	
30380.8	0	168183	168183	
30415.4	0	168438	168438	
30450.1	0	168656	168656	
30484.7	0	168787	168787	
30519.3	0	168926	168926	
30554	0	169217	169217	
30588.6	0	169371	169371	
30623.2	0	169515	169515	
30657.8	0	169705	169705	
30692.5	0	169957	169957	
30727.1	0	170134	170134	
30761.7	0	170321	170321	
30796.4	0	170468	170468	
30831	0	170647	170647	
30865.6	0	170793	170793	
30900.3	0	171051	171051	
30934.9	0	171198	171198	
30969.5	0	171470	171470	
31004.2	0	171639	171639	
31038.8	0	171775	171775	
31073.4	0	171946	171946	
31108	0	172083	172083	
31142.7	0	172289	172289	
31177.3	0	172496	172496	
31211.9	0	172644	172644	
31246.6	0	172819	172819	
31281.2	0	173059	173059	
31315.8	0	173214	173214	
31350.5	0	173445	173445	
31385.1	0	173560	173560	
31419.7	0	173721	173721	
31454.4	0	173871	173871	
31489	0	174016	174016	
31523.6	0	174199	174199	
31558.3	0	174333	174333	
31592.9	0	174423	174423	
31627.5	0	174588	174588	
31662.2	0	174815	174815	
31696.8	0	174946	174946	
31731.4	0	175056	175056	
31766	0	175231	175231	
31800.7	0	175407	175407	
31835.3	0	175659	175659	
31869.9	0	175821	175821	
31904.6	0	176011	176011	
31939.2	0	176120	176120	
31973.8	0	176315	176315	
32008.5	0	176433	176433	
32043.1	0	176670	176670	
32077.7	0	176927	176927	
32112.4	0	177177	177177	
32147	0	177374	177374	
32181.6	0	177558	177558	
32216.3	0	177750	177750	
32250.9	0	177929	177929	
32285.5	0	178082	178082	
32320.1	0	178279	178279	
32354.8	0	178441	178441	
32389.4	0	178605	178605	
32424	0	178773	178773	
32458.7	0	178953	178953	
32493.3	0	179068	179068	
32527.9	0	179285	179285	
32562.6	0	179523	179523	
32597.2	0	179706	179706	
32631.8	0	179899	179899	
32666.5	0	180099	180099	
32701.1	0	180284	180284	
32735.7	0	180427	180427	
32770.4	0	180613	180613	
32805	0	180805	180805	
32839.6	0	181034	181034	
32874.2	0	181263	181263	
32908.9	0	181487	181487	
32943.5	0	181629	181629	
32978.1	0	181915	181915	
33012.8	0	182149	182149	
33047.4	0	182372	182372	
33082	0	182552	182552	
33116.7	0	182721	182721	
33151.3	0	182874	182874	
33185.9	0	183045	183045	
33220.6	0	183249	183249	
33255.2	0	183426	183426	
33289.8	0	183634	183634	
33324.4	0	183865	183865	
33359.1	0	184065	184065	
33393.7	0	184320	184320	
33428.3	0	184516	184516	
33463	0	184699	184699	
33497.6	0	184893	184893	
33532.2	0	185050	185050	
33566.9	0	185171	185171	
33601.5	0	185246	185246	
33636.1	0	185462	185462	
33670.8	0	185666	185666	
33705.4	0	185915	185915	
33740	0	186194	186194	
33774.7	0	186421	186421	
33809.3	0	186599	186599	
33843.9	0	186802	186802	
33878.5	0	186967	186967	
33913.2	0	187127	187127	
33947.8	0	187291	187291	
33982.4	0	187420	187420	
34017.1	0	187660	187660	
34051.7	0	187863	187863	
34086.3	0	188106	188106	
34121	0	188308	188308	
34155.6	0	188490	188490	
34190.2	0	188725	188725	
34224.9	0	188868	188868	
34259.5	0	188961	188961	
34294.1	0	189123	189123	
34328.7	4.54747e-13	189286	189286	
34363.4	9.09495e-13	189525	189525	
34398	1.36424e-12	189663	189663	
34432.6	1.36424e-12	189835	189835	
34467.3	1.81899e-12	190084	190084	
34501.9	2.27374e-12	190292	190292	
34536.5	2.72848e-12	190508	190508	
34571.2	2.72848e-12	190773	190773	
34605.8	3.18323e-12	190968	190968	
34640.4	3.63798e-12	191170	191170	
34675	4.09273e-12	191370	191370	
34709.7	4.54747e-12	191596	191596	
34744.3	5.00222e-12	191694	191694	
34778.9	5.45697e-12	191906	191906	
34813.6	5.91172e-12	192089	192089	
34848.2	6.36646e-12	192256	192256	
34882.8	6.82121e-12	192472	192472	
34917.5	7.27596e-12	192729	192729	
34952.1	7.7307e-12	192860	192860	
34986.7	8.18545e-12	193086	193086	
35021.4	8.6402e-12	193308	193308	
35056	9.09495e-12	193611	193611	
35090.6	9.54969e-12	193813	193813	
35125.2	1.00044e-11	194023	194023	
35159.9	1.04592e-11	194217	194217	
35194.5	1.09139e-11	194456	194456	
35229.1	1.18234e-11	194617	194617	
35263.8	1.27329e-11	194700	194700	
35298.4	1.31877e-11	194873	194873	
35333	1.40972e-11	195087	195087	
35367.7	1.50067e-11	195279	195279	
35402.3	1.59162e-11	195534	195534	
35436.9	1.68257e-11	195690	195690	
35471.5	1.72804e-11	195910	195910	
35506.2	1.81899e-11	196089	196089	
35540.8	1.90994e-11	196303	196303	
35575.4	2.00089e-11	196488	196488	
35610.1	2.09184e-11	196589	196589	
35644.7	2.18279e-11	196740	196740	
35679.3	2.27374e-11	196909	196909	
35714	2.36469e-11	197182	197182	
35748.6	2.45564e-11	197407	197407	
35783.2	2.54659e-11	197621	197621	
35817.9	2.63753e-11	197886	197886	
35852.5	2.72848e-11	198171	198171	
35887.1	2.81943e-11	198422	198422	
35921.7	2.91038e-11	198582	198582	
35956.4	3.00133e-11	198741	198741	
35991	3.09228e-11	198879	198879	
36025.6	3.22871e-11	199050	199050	
36060.3	3.36513e-11	199255	199255	
36094.9	3.50155e-11	199398	199398	
36129.5	3.63798e-11	199645	199645	
36164.2	3.7744e-11	199857	199857	
36198.8	3.91083e-11	200127	200127	
36233.4	4.04725e-11	200286	200286	
36268	4.18368e-11	200580	200580	
36302.7	4.3201e-11	200680	200680	
36337.3	4.45652e-11	200818	200818	
36371.9	4.63842e-11	201080	201080	
36406.6	4.82032e-11	201320	201320	
36441.2	5.00222e-11	201497	201497	
36475.8	5.18412e-11	201686	201686	
36510.5	5.36602e-11	201860	201860	
36545.1	5.59339e-11	202090	202090	
36579.7	5.82077e-11	202316	202316	
36614.3	6.04814e-11	202528	202528	
36649	6.27551e-11	202725	202725	
36683.6	6.54836e-11	202932	202932	
36718.2	6.82121e-11	203126	203126	
36752.9	7.09406e-11	203287	203287	
36787.5	7.36691e-11	203474	203474	
36822.1	7.68523e-11	203655	203655	
36856.8	8.00355e-11	203925	203925	
36891.4	8.36735e-11	204152	204152	
36926	8.73115e-11	204332	204332	
36960.6	9.14042e-11	204517	204517	
36995.3	9.54969e-11	204664	204664	
37029.9	9.95897e-11	204957	204957	
37064.5	1.04137e-10	205148	205148	
37099.2	1.09139e-10	205375	205375	
37133.8	1.14142e-10	205522	205522	
37168.4	1.19599e-10	205746	205746	
37203.1	1.25056e-10	205930	205930	
37237.7	1.30967e-10	206070	206070	
37272.3	1.37334e-10	206224	206224	
37306.9	1.44155e-10	206450	206450	
37341.6	1.50976e-10	206660	206660	
37376.2	1.58252e-10	206908	206908	
37410.8	1.65983e-10	207115	207115	
37445.5	1.74168e-10	207272	207272	
37480.1	1.82808e-10	207444	207444	
37514.7	1.91903e-10	207621	207621	
37549.4	2.01453e-10	207882	207882	
37584	2.11458e-10	208097	208097	
37618.6	2.21917e-10	208300	208300	
37653.2	2.33285e-10	208508	208508	
37687.9	2.45109e-10	208731	208731	
37722.5	2.57387e-10	208901	208901	
37757.1	2.70575e-10	209063	209063	
37791.8	2.84217e-10	209219	209219	
37826.4	2.98769e-10	209407	209407	
37861	3.13776e-10	209621	209621	
37895.7	3.29692e-10	209888	209888	
37930.3	3.46517e-10	210077	210077	
37964.9	3.64253e-10	210276	210276	
37999.5	3.82897e-10	210451	210451	
38034.2	4.02451e-10	210631	210631	
38068.8	4.22915e-10	210798	210798	
38103.4	4.44743e-10	211065	211065	
38138.1	4.6748e-10	211287	211287	
38172.7	4.91582e-10	211600	211600	
38207.3	5.16593e-10	211796	211796	
38242	5.42968e-10	211989	211989	
38276.6	5.70708e-10	212115	212115	
38311.2	5.99812e-10	212197	212197	
38345.8	6.3028e-10	212383	212383	
38380.5	6.62112e-10	212740	212740	
38415.1	6.95309e-10	212877	212877	
38449.7	7.30324e-10	213105	213105	
38484.4	7.67159e-10	213272	213272	
38519	8.05812e-10	213443	213443	
38553.6	8.46285e-10	213652	213652	
38588.2	8.88576e-10	213832	213832	
38622.9	9.33142e-10	214022	214022	
38657.5	9.79526e-10	214195	214195	
38692.1	1.02818e-09	214409	214409	
38726.8	1.07957e-09	214593	214593	
38761.4	1.13323e-09	214756	214756	
38796	1.18916e-09	214958	214958	
38830.7	1.24783e-09	215110	215110	
38865.3	1.30922e-09	215368	215368	
38899.9	1.37379e-09	215714	215714	
38934.5	1.44109e-09	215890	215890	
38969.2	1.51158e-09	216130	216130	
39003.8	1.58525e-09	216356	216356	
39038.4	1.66256e-09	216614	216614	
39073.1	1.7435e-09	216825	216825	
39107.7	1.82808e-09	217062	217062	
39142.3	1.91631e-09	217282	217282	
39176.9	2.00862e-09	217510	217510	
39211.6	2.10503e-09	217746	217746	
39246.2	2.20598e-09	217975	217975	
39280.8	2.31148e-09	218204	218204	
39315.5	2.42153e-09	218418	218418	
39350.1	2.53658e-09	218596	218596	
39384.7	2.65663e-09	218754	218754	
39419.4	2.78214e-09	218948	218948	
39454	2.91311e-09	219229	219229	
39488.6	3.04999e-09	219405	219405	
39523.2	3.19278e-09	219648	219648	
39557.9	3.34194e-09	219829	219829	
39592.5	3.49746e-09	220091	220091	
39627.1	3.65981e-09	220292	220292	
39661.8	3.82943e-09	220570	220570	
39696.4	4.00632e-09	220768	220768	
39731	4.19095e-09	220936	220936	
39765.6	4.38331e-09	221128	221128	
39800.3	4.58385e-09	221375	221375	
39834.9	4.79304e-09	221566	221566	
39869.5	5.01132e-09	221740	221740	
39904.2	5.23869e-09	221851	221851	
39938.8	5.47561e-09	222041	222041	
39973.4	5.72254e-09	222330	222330	
40008.1	5.97993e-09	222487	222487	
40042.7	6.24823e-09	222817	222817	
40077.3	6.52744e-09	222956	222956	
40111.9	6.81848e-09	223128	223128	
40146.6	7.1218e-09	223283	223283	
40181.2	7.43739e-09	223553	223553	
40215.8	7.76618e-09	223750	223750	
40250.5	8.1086e-09	223933	223933	
40285.1	8.46467e-09	224169	224169	
40319.7	8.83529e-09	224372	224372	
40354.3	9.22091e-09	224558	224558	
40389	9.62245e-09	224729	224729	
40423.6	1.00404e-08	224960	224960	
40458.2	1.04751e-08	225172	225172	
40492.9	1.09271e-08	225439	225439	
40527.5	1.13973e-08	225716	225716	
40562.1	1.18862e-08	225918	225918	
40596.7	1.23946e-08	226119	226119	
40631.4	1.2923e-08	226302	226302	
40666	1.34723e-08	226581	226581	
40700.6	1.40431e-08	226705	226705	
40735.3	1.46365e-08	226931	226931	
40769.9	1.52531e-08	227197	227197	
40804.5	1.58939e-08	227389	227389	
40839.1	1.65596e-08	227660	227660	
40873.8	1.72508e-08	227939	227939	
40908.4	1.79689e-08	228128	228128	
40943	1.87147e-08	228333	228333	
40977.7	1.94891e-08	228510	228510	
41012.3	2.02936e-08	228669	228669	
41046.9	2.11285e-08	228899	228899	
41081.5	2.19952e-08	229085	229085	
41116.2	2.28947e-08	229232	229232	
41150.8	2.38283e-08	229402	229402	
41185.4	2.47974e-08	229607	229607	
41220.1	2.58028e-08	229821	229821	
41254.7	2.68456e-08	230069	230069	
41289.3	2.79274e-08	230320	230320	
41324	2.90497e-08	230493	230493	
41358.6	3.02134e-08	230672	230672	
41393.2	3.14203e-08	230928	230928	
41427.8	3.26718e-08	231233	231233	
41462.5	3.39692e-08	231328	231328	
41497.1	3.53139e-08	231467	231467	
41531.7	3.67077e-08	231621	231621	
41566.4	3.81524e-08	231867	231867	
41601	3.96494e-08	232050	232050	
41635.6	4.1201e-08	232326	232326	
41670.2	4.28086e-08	232583	232583	
41704.9	4.44738e-08	232797	232797	
41739.5	4.61987e-08	232898	232898	
41774.1	4.79854e-08	233098	233098	
41808.8	4.98353e-08	233300	233300	
41843.4	5.17512e-08	233519	233519	
41878	5.37348e-08	233696	233696	
41912.6	5.57884e-08	233884	233884	
41947.3	5.79143e-08	234020	234020	
41981.9	6.01149e-08	234201	234201	
42016.5	6.23922e-08	234383	234383	
42051.2	6.47487e-08	234602	234602	
42085.8	6.71871e-08	234871	234871	
42120.4	6.971e-08	235010	235010	
42155	7.23203e-08	235190	235190	
42189.7	7.50201e-08	235403	235403	
42224.3	7.78127e-08	235548	235548	
42258.9	8.07008e-08	235726	235726	
42293.6	8.36876e-08	235934	235934	
42328.2	8.67758e-08	236221	236221	
42362.8	8.99686e-08	236516	236516	
42397.4	9.32691e-08	236634	236634	
42432.1	9.66807e-08	236786	236786	
42466.7	1.00207e-07	236947	236947	
42501.3	1.03851e-07	237014	237014	
42536	1.07617e-07	237205	237205	
42570.6	1.11508e-07	237359	237359	
42605.2	1.15528e-07	237559	237559	
42639.8	1.1968e-07	237800	237800	
42674.5	1.2397e-07	238031	238031	
42709.1	1.28401e-07	238252	238252	
42743.7	1.32976e-07	238537	238537	
42778.4	1.37701e-07	238825	238825	
42813	1.42579e-07	239189	239189	
42847.6	1.47616e-07	239551	239551	
42882.2	1.52816e-07	239743	239743	
42916.9	1.58183e-07	240065	240065	
42951.5	1.63723e-07	240209	240209	
42986.1	1.6944e-07	240426	240426	
43020.7	1.75339e-07	240537	240537	
43055.4	1.81426e-07	240800	240800	
43090	1.87707e-07	240937	240937	
43124.6	1.94186e-07	241248	241248	
43159.3	2.0087e-07	241491	241491	
43193.9	2.07764e-07	241781	241781	
