0	0	131072	131072	
64.3792	0	131072	131072	
128.758	0	131072	131072	
193.138	0	131072	131072	
257.517	0	131072	131072	
321.896	0	131072	131072	
386.275	0	131072	131072	
450.655	0	131072	131072	
515.034	0	131072	131072	
579.413	0	131072	131072	
643.792	0	131072	131072	
708.171	0	131072	131072	
772.551	0	131072	131072	
836.93	0	131072	131072	
901.309	0	131072	131072	
965.688	0	131072	131072	
1030.07	0	131072	131072	
1094.45	0	131072	131072	
1158.83	0	131072	131072	
1223.21	0	131072	131072	
1287.58	0	131072	131072	
1351.96	0	131072	131072	
1416.34	0	131072	131072	
1480.72	0	131072	131072	
1545.1	0	131072	131072	
1609.48	0	131072	131072	
1673.86	0	131072	131072	
1738.24	0	131072	131072	
1802.62	0	131072	131072	
1867	0	131072	131072	
1931.38	0	131072	131072	
1995.76	0	131072	131072	
2060.14	0	131072	131072	
2124.51	0	131072	131072	
2188.89	0	131072	131072	
2253.27	0	131072	131072	
2317.65	0	131072	131072	
2382.03	0	131072	131072	
2446.41	0	131072	131072	
2510.79	0	131072	131072	
2575.17	0	131072	131072	
2639.55	0	131072	131072	
2703.93	0	131072	131072	
2768.31	0	131072	131072	
2832.69	0	131072	131072	
2897.07	0	131072	131072	
2961.44	0	131072	131072	
3025.82	0	131072	131072	
3090.2	0	131072	131072	
3154.58	0	131072	131072	
3218.96	0	131072	131072	
3283.34	0	131072	131072	
3347.72	0	131072	131072	
3412.1	0	131072	131072	
3476.48	0	131072	131072	
3540.86	0	131072	131072	
3605.24	0	131072	131072	
3669.62	0	131072	131072	
3733.99	0	131072	131072	
3798.37	0	131072	131072	
3862.75	0	131072	131072	
3927.13	0	131072	131072	
3991.51	0	131072	131072	
4055.89	2.72848e-12	131072	131072	
4120.27	9.09495e-12	131072	131072	
4184.65	2.45564e-11	131072	131072	
4249.03	5.72982e-11	131072	131072	
4313.41	1.2551e-10	131072	131072	
4377.79	2.56478e-10	131072	131072	
4442.17	4.96584e-10	131072	131072	
4506.55	9.1859e-10	131072	131072	
4570.92	1.63345e-09	131072	131072	
4635.3	2.80306e-09	131072	131072	
4699.68	4.65752e-09	131072	131072	
4764.06	7.51243e-09	131072	131072	
4828.44	1.1788e-08	131072	131072	
4892.82	1.80307e-08	131072	131072	
4957.2	2.69292e-08	131072	131072	
5021.58	3.93284e-08	131072	131072	
5085.96	5.62386e-08	131072	131072	
5150.34	7.88323e-08	131072	131072	
5214.72	1.08437e-07	131072	131072	
5279.1	1.46512e-07	131072	131072	
5343.48	1.9461e-07	131072	131072	
5407.85	2.54332e-07	131072	131072	
5472.23	3.27263e-07	131072	131072	
5536.61	4.14907e-07	131072	131072	
5600.99	5.18598e-07	131072	131072	
5665.37	6.39428e-07	131072	131072	
5729.75	7.78158e-07	131072	131072	
5794.13	9.35146e-07	131072	131072	
5858.51	1.11027e-06	131072	131072	
5922.89	1.30289e-06	131072	131072	
5987.27	1.51178e-06	131072	131072	
6051.65	1.73513e-06	131072	131072	
6116.03	1.97052e-06	131072	131072	
6180.41	2.21496e-06	131072	131072	
6244.78	2.46483e-06	131072	131072	
6309.16	2.71598e-06	131072	131072	
6373.54	2.96366e-06	131072	131072	
6437.92	3.20253e-06	131072	131072	
6502.3	3.42657e-06	131072	131072	
6566.68	3.629e-06	131072	131072	
6631.06	3.80206e-06	131072	131072	
6695.44	3.93675e-06	131072	131072	
6759.82	4.02241e-06	131072	131072	
6824.2	4.04628e-06	131072	131072	
6888.58	3.99282e-06	131072	131072	
6952.96	3.84298e-06	131072	131072	
7017.34	3.5733e-06	131072	131072	
7081.71	3.15488e-06	131072	131072	
7146.09	2.55231e-06	131072	131072	
7210.47	1.72248e-06	131072	131072	
7274.85	6.13445e-07	131072	131072	
7339.23	-8.36741e-07	131072	131072	
7403.61	-2.7009e-06	131072	131072	
7467.99	-5.06343e-06	131072	131072	
7532.37	-8.02043e-06	131072	131072	
7596.75	-1.16794e-05	131072	131072	
7661.13	-1.61576e-05	131072	131072	
7725.51	-2.15801e-05	131072	131072	
7789.89	-2.80751e-05	131072	131072	
7854.27	-3.57685e-05	131072	131072	
7918.64	-4.47757e-05	131072	131072	
7983.02	-5.51899e-05	131072	131072	
8047.4	-6.70686e-05	131072	131072	
8111.78	-8.04145e-05	131072	131072	
8176.16	-9.5153e-05	131072	131072	
8240.54	-0.000111105	131072	131072	
8304.92	-0.000127954	131072	131072	
8369.3	-0.000145207	131072	131072	
8433.68	-0.000162151	131072	131072	
8498.06	-0.000177806	131072	131072	
8562.44	-0.000190871	131072	131072	
8626.82	-0.000199664	131072	131072	
8691.2	-0.000202069	131072	131072	
8755.57	-0.000195475	131072	131072	
8819.95	-0.00017672	131072	131072	
8884.33	-0.000142041	131072	131072	
8948.71	-8.70358e-05	131072	131072	
9013.09	-6.63373e-06	131072	131072	
9077.47	0.000104918	131072	131072	
9141.85	0.000254043	131072	131072	
9206.23	0.000447808	131072	131072	
9270.61	0.000693859	131072	131072	
9334.99	0.00100034	131072	131072	
9399.37	0.00137578	131072	131072	
9463.75	0.00182893	131072	131072	
9528.12	0.00236862	131072	131072	
9592.5	0.00300353	131072	131072	
9656.88	0.00374198	131072	131072	
9721.26	0.00459169	131072	131072	
9785.64	0.00555953	131072	131072	
9850.02	0.0066513	131072	131072	
9914.4	0.00787141	131072	131072	
9978.78	0.00922271	131072	131072	
10043.2	0.0107063	131072	131072	
10107.5	0.0123212	131072	131072	
10171.9	0.0140644	131072	131072	
10236.3	0.0159307	131072	131072	
10300.7	0.0179126	131072	131072	
10365.1	0.0200002	131072	131072	
10429.4	0.0221814	131072	131072	
10493.8	0.0244422	131072	131072	
10558.2	0.0267663	131072	131072	
10622.6	0.0291358	131072	131072	
10687	0.0315311	131072	131072	
10751.3	0.0339316	131072	131072	
10815.7	0.0363153	131072	131072	
10880.1	0.03866	131072	131072	
10944.5	0.0409428	131072	131072	
11008.8	0.0431411	131072	131072	
11073.2	0.0452325	131072	131072	
11137.6	0.0471953	131072	131072	
11202	0.0490088	131072	131072	
11266.4	0.0506536	131072	131072	
11330.7	0.0521119	131072	131072	
11395.1	0.0533674	131072	131072	
11459.5	0.0544061	131072	131072	
11523.9	0.0552158	131072	131072	
11588.3	0.0557867	131072	131072	
11652.6	0.0561113	131072	131072	
11717	0.0561843	131072	131072	
11781.4	0.0560029	131072	131072	
11845.8	0.0555666	131072	131072	
11910.2	0.0548771	131072	131072	
11974.5	0.0539385	131072	131072	
12038.9	0.0527568	131072	131072	
12103.3	0.0513401	131072	131072	
12167.7	0.0496982	131072	131072	
12232.1	0.0478429	131072	131072	
12296.4	0.0457871	131072	131072	
12360.8	0.0435454	131072	131072	
12425.2	0.0411333	131072	131072	
12489.6	0.0385675	131072	131072	
12553.9	0.0358653	131072	131072	
12618.3	0.0330447	131072	131072	
12682.7	0.0301243	131072	131072	
12747.1	0.0271227	131072	131072	
12811.5	0.0240586	131072	131072	
12875.8	0.0209509	131072	131072	
12940.2	0.017818	131072	131072	
13004.6	0.0146779	131072	131072	
13069	0.0115484	131072	131072	
13133.4	0.00844646	131072	131072	
13197.7	0.00538826	131072	131072	
13262.1	0.00238928	131072	131072	
13326.5	-0.000535951	131072	131072	
13390.9	-0.00337387	131072	131072	
13455.3	-0.00611197	131072	131072	
13519.6	-0.0087388	131072	131072	
13584	-0.011244	131072	131072	
13648.4	-0.0136184	131072	131072	
13712.8	-0.0158539	131072	131072	
13777.2	-0.0179436	131072	131072	
13841.5	-0.0198815	131072	131072	
13905.9	-0.0216629	131072	131072	
13970.3	-0.0232842	131072	131072	
14034.7	-0.0247426	131072	131072	
14099	-0.0260363	131072	131072	
14163.4	-0.0271645	131072	131072	
14227.8	-0.0281273	131072	131072	
14292.2	-0.0289256	131072	131072	
14356.6	-0.0295608	131072	131072	
14420.9	-0.0300352	131072	131072	
14485.3	-0.0303518	131072	131072	
14549.7	-0.0305139	131072	131072	
14614.1	-0.0305256	131072	131072	
14678.5	-0.0303912	131072	131072	
14742.8	-0.0301156	131072	131072	
14807.2	-0.0297039	131072	131072	
14871.6	-0.0291617	131072	131072	
14936	-0.0284948	131072	131072	
15000.4	-0.0277092	131072	131072	
15064.7	-0.0268111	131072	131072	
15129.1	-0.025807	131072	131072	
15193.5	-0.0247037	131072	131072	
15257.9	-0.0235078	131072	131072	
15322.3	-0.0222264	131072	131072	
15386.6	-0.0208664	131072	131072	
15451	-0.0194353	131072	131072	
15515.4	-0.0179401	131072	131072	
15579.8	-0.0163884	131072	131072	
15644.2	-0.0147878	131072	131072	
15708.5	-0.0131457	131072	131072	
15772.9	-0.01147	131072	131072	
15837.3	-0.00976846	131072	131072	
15901.7	-0.00804884	131072	131072	
15966	-0.00631908	131072	131072	
16030.4	-0.00458711	131072	131072	
16094.8	-0.00286087	131072	131072	
16159.2	-0.00114831	131072	131072	
16223.6	0.000542668	131072	131072	
16287.9	0.00220419	131072	131072	
16352.3	0.00382847	131072	131072	
16416.7	0.00540785	131072	131072	
16481.1	0.0069348	131072	131072	
16545.5	0.00840199	131072	131072	
16609.8	0.00980229	131072	131072	
16674.2	0.0111288	131072	131072	
16738.6	0.0123751	131072	131072	
16803	0.0135347	131072	131072	
16867.4	0.014602	131072	131072	
16931.7	0.0155714	131072	131072	
16996.1	0.016438	131072	131072	
17060.5	0.0171973	131072	131072	
17124.9	0.0178453	131072	131072	
17189.3	0.0183786	131072	131072	
17253.6	0.0187944	131072	131072	
17318	0.0190905	131072	131072	
17382.4	0.0192653	131072	131072	
17446.8	0.019318	131072	131072	
17511.1	0.0192482	131072	131072	
17575.5	0.0190565	131072	131072	
17639.9	0.0187439	131072	131072	
17704.3	0.0183123	131072	131072	
17768.7	0.0177641	131072	131072	
17833	0.0171026	131072	131072	
17897.4	0.0163315	131072	131072	
17961.8	0.0154552	131072	131072	
18026.2	0.0144789	131072	131072	
18090.6	0.0134081	131072	131072	
18154.9	0.012249	131072	131072	
18219.3	0.0110084	131072	131072	
18283.7	0.00969317	131072	131072	
18348.1	0.00831104	131072	131072	
18412.5	0.00686985	131072	131072	
18476.8	0.00537782	131072	131072	
18541.2	0.00384342	131072	131072	
18605.6	0.00227531	131072	131072	
18670	0.000682316	131072	131072	
18734.4	-0.000926683	131072	131072	
18798.7	-0.00254277	131072	131072	
18863.1	-0.00415706	131072	131072	
18927.5	-0.00576077	131072	131072	
18991.9	-0.00734526	131072	131072	
19056.2	-0.00890211	131072	131072	
19120.6	-0.0104231	131072	131072	
19185	-0.0119005	131072	131072	
19249.4	-0.0133267	131072	131072	
19313.8	-0.0146946	131072	131072	
19378.1	-0.0159977	131072	131072	
19442.5	-0.0172297	131072	131072	
19506.9	-0.0183849	131072	131072	
19571.3	-0.0194584	131072	131072	
19635.7	-0.0204457	131072	131072	
19700	-0.0213427	131072	131072	
19764.4	-0.0221462	131072	131072	
19828.8	-0.0228535	131072	131072	
19893.2	-0.0234626	131072	131072	
19957.6	-0.0239721	131072	131072	
20021.9	-0.0243812	131072	131072	
20086.3	-0.0246897	131072	131072	
20150.7	-0.0248981	131072	131072	
20215.1	-0.0250076	131072	131072	
20279.5	-0.0250196	131072	131072	
20343.8	-0.0249364	131072	131072	
20408.2	-0.0247609	131072	131072	
20472.6	-0.024496	131072	131072	
20537	-0.0241457	131072	131072	
20601.4	-0.0237139	131072	131072	
20665.7	-0.0232053	131072	131072	
20730.1	-0.0226247	131072	131072	
20794.5	-0.0219772	131072	131072	
20858.9	-0.0212684	131072	131072	
20923.2	-0.0205039	131072	131072	
20987.6	-0.0196895	131072	131072	
21052	-0.0188314	131072	131072	
21116.4	-0.0179354	131072	131072	
21180.8	-0.0170079	131072	131072	
21245.1	-0.016055	131072	131072	
21309.5	-0.0150827	131072	131072	
21373.9	-0.0140971	131072	131072	
21438.3	-0.0131042	131072	131072	
21502.7	-0.0121097	131072	131072	
21567	-0.0111192	131072	131072	
21631.4	-0.0101381	131072	131072	
21695.8	-0.00917148	131072	131072	
21760.2	-0.00822426	131072	131072	
21824.6	-0.00730099	131072	131072	
21888.9	-0.00640591	131072	131072	
21953.3	-0.00554294	131072	131072	
22017.7	-0.00471566	131072	131072	
22082.1	-0.00392725	131072	131072	
22146.5	-0.00318056	131072	131072	
22210.8	-0.00247805	131072	131072	
22275.2	-0.00182179	131072	131072	
22339.6	-0.00121349	131072	131072	
22404	-0.000654468	131072	131072	
22468.3	-0.000145692	131072	131072	
22532.7	0.000312252	131072	131072	
22597.1	0.00071912	131072	131072	
22661.5	0.00107501	131072	131072	
22725.9	0.00138035	131072	131072	
22790.2	0.00163588	131072	131072	
22854.6	0.00184261	131072	131072	
22919	0.00200184	131072	131072	
22983.4	0.00211512	131072	131072	
23047.8	0.00218424	131072	131072	
23112.1	0.00221117	131072	131072	
23176.5	0.0021981	131072	131072	
23240.9	0.00214735	131072	131072	
23305.3	0.00206139	131072	131072	
23369.7	0.00194282	131072	131072	
23434	0.00179431	131072	131072	
23498.4	0.00161861	131072	131072	
23562.8	0.00141851	131072	131072	
23627.2	0.00119683	131072	131072	
23691.6	0.000956388	131072	131072	
23755.9	0.000699987	131072	131072	
23820.3	0.000430394	131072	131072	
23884.7	0.000150321	131072	131072	
23949.1	-0.00013759	131072	131072	
24013.4	-0.000430786	131072	131072	
24077.8	-0.000726813	131072	131072	
24142.2	-0.00102333	131072	131072	
24206.6	-0.00131812	131072	131072	
24271	-0.00160911	131072	131072	
24335.3	-0.00189436	131072	131072	
24399.7	-0.00217207	131072	131072	
24464.1	-0.00244063	131072	131072	
24528.5	-0.00269855	131072	131072	
24592.9	-0.00294454	131072	131072	
24657.2	-0.00317743	131072	131072	
24721.6	-0.00339626	131072	131072	
24786	-0.00360019	131072	131072	
24850.4	-0.00378858	131072	131072	
24914.8	-0.00396092	131072	131072	
24979.1	-0.00411684	131072	131072	
25043.5	-0.00425616	131072	131072	
25107.9	-0.0043788	131072	131072	
25172.3	-0.00448483	131072	131072	
25236.7	-0.00457445	131072	131072	
25301	-0.00464795	131072	131072	
25365.4	-0.00470575	131072	131072	
25429.8	-0.00474838	131072	131072	
25494.2	-0.00477642	131072	131072	
25558.6	-0.00479056	131072	131072	
25622.9	-0.00479155	131072	131072	
25687.3	-0.00478019	131072	131072	
25751.7	-0.00475734	131072	131072	
25816.1	-0.00472389	131072	131072	
25880.4	-0.00468077	131072	131072	
25944.8	-0.00462892	131072	131072	
26009.2	-0.00456929	131072	131072	
26073.6	-0.00450283	131072	131072	
26138	-0.00443049	131072	131072	
26202.3	-0.0043532	131072	131072	
26266.7	-0.00427188	131072	131072	
26331.1	-0.00418741	131072	131072	
26395.5	-0.00410063	131072	131072	
26459.9	-0.00401235	131072	131072	
26524.2	-0.00392334	131072	131072	
26588.6	-0.00383431	131072	131072	
26653	-0.00374593	131072	131072	
26717.4	-0.0036588	131072	131072	
26781.8	-0.00357347	131072	131072	
26846.1	-0.00349044	131072	131072	
26910.5	-0.00341013	131072	131072	
26974.9	-0.00333291	131072	131072	
27039.3	-0.0032591	131072	131072	
27103.7	-0.00318895	131072	131072	
27168	-0.00312266	131072	131072	
27232.4	-0.00306035	131072	131072	
27296.8	-0.00300213	131072	131072	
27361.2	-0.002948	131072	131072	
27425.5	-0.00289798	131072	131072	
27489.9	-0.00285198	131072	131072	
27554.3	-0.00280991	131072	131072	
27618.7	-0.00277162	131072	131072	
27683.1	-0.00273694	131072	131072	
27747.4	-0.00270567	131072	131072	
27811.8	-0.00267757	131072	131072	
27876.2	-0.00265238	131072	131072	
27940.6	-0.00262983	131072	131072	
28005	-0.00260964	131072	131072	
28069.3	-0.0025915	131072	131072	
28133.7	-0.0025751	131072	131072	
28198.1	-0.00256014	131072	131072	
28262.5	-0.00254631	131072	131072	
28326.9	-0.00253331	131072	131072	
28391.2	-0.00252083	131072	131072	
28455.6	-0.00250858	131072	131072	
28520	-0.00249628	131072	131072	
28584.4	-0.00248368	131072	131072	
28648.8	-0.00247052	131072	131072	
28713.1	-0.00245658	131072	131072	
28777.5	-0.00244164	131072	131072	
28841.9	-0.0024255	131072	131072	
28906.3	-0.00240801	131072	131072	
28970.7	-0.00238902	131072	131072	
29035	-0.00236839	131072	131072	
29099.4	-0.00234602	131072	131072	
29163.8	-0.00232184	131072	131072	
29228.2	-0.00229579	131072	131072	
29292.5	-0.00226783	131072	131072	
29356.9	-0.00223794	131072	131072	
29421.3	-0.00220613	131072	131072	
29485.7	-0.00217243	131072	131072	
29550.1	-0.00213688	131072	131072	
29614.4	-0.00209953	131072	131072	
29678.8	-0.00206047	131072	131072	
29743.2	-0.00201979	131072	131072	
29807.6	-0.0019776	131072	131072	
29872	-0.00193401	131072	131072	
29936.3	-0.00188916	131072	131072	
30000.7	-0.00184318	131072	131072	
30065.1	-0.00179623	131072	131072	
30129.5	-0.00174847	131072	131072	
30193.9	-0.00170006	131072	131072	
30258.2	-0.00165118	131072	131072	
30322.6	-0.00160199	131072	131072	
30387	-0.00155269	131072	131072	
30451.4	-0.00150345	131072	131072	
30515.8	-0.00145445	131072	131072	
30580.1	-0.00140589	131072	131072	
30644.5	-0.00135796	131072	131072	
30708.9	-0.00131084	131072	131072	
30773.3	-0.00126472	131072	131072	
30837.6	-0.00121978	131072	131072	
30902	-0.00117622	131072	131072	
30966.4	-0.00113421	131072	131072	
31030.8	-0.00109394	131072	131072	
31095.2	-0.00105558	131072	131072	
31159.5	-0.00101931	131072	131072	
31223.9	-0.000985293	131072	131072	
31288.3	-0.000953706	131072	131072	
31352.7	-0.000924705	131072	131072	
31417.1	-0.000898449	131072	131072	
31481.4	-0.000875088	131072	131072	
31545.8	-0.000854765	131072	131072	
31610.2	-0.000837621	131072	131072	
31674.6	-0.000823783	131072	131072	
31739	-0.000813376	131072	131072	
31803.3	-0.000806512	131072	131072	
31867.7	-0.000803295	131072	131072	
31932.1	-0.000803819	131072	131072	
31996.5	-0.000808167	131072	131072	
32060.9	-0.00081641	131072	131072	
32125.2	-0.000828605	131072	131072	
32189.6	-0.000844799	131072	131072	
32254	-0.000865022	131072	131072	
32318.4	-0.00088929	131072	131072	
32382.7	-0.000917604	131072	131072	
32447.1	-0.000949947	131072	131072	
32511.5	-0.000986288	131072	131072	
32575.9	-0.00102657	131072	131072	
32640.3	-0.00107074	131072	131072	
32704.6	-0.0011187	131072	131072	
32769	-0.00117034	131072	131072	
32833.4	-0.00122554	131072	131072	
32897.8	-0.00128416	131072	131072	
32962.2	-0.00134603	131072	131072	
33026.5	-0.00141098	131072	131072	
33090.9	-0.00147879	131072	131072	
33155.3	-0.00154926	131072	131072	
33219.7	-0.00162213	131072	131072	
33284.1	-0.00169717	131072	131072	
33348.4	-0.00177409	131072	131072	
33412.8	-0.00185262	131072	131072	
33477.2	-0.00193245	131072	131072	
33541.6	-0.00201326	131072	131072	
33606	-0.00209474	131072	131072	
33670.3	-0.00217655	131072	131072	
33734.7	-0.00225834	131072	131072	
33799.1	-0.00233976	131072	131072	
33863.5	-0.00242047	131072	131072	
33927.9	-0.00250009	131072	131072	
33992.2	-0.00257828	131072	131072	
34056.6	-0.00265468	131072	131072	
34121	-0.00272893	131072	131072	
34185.4	-0.00280068	131072	131072	
34249.7	-0.00286959	131072	131072	
34314.1	-0.00293533	131072	131072	
34378.5	-0.00299759	131072	131072	
34442.9	-0.00305606	131072	131072	
34507.3	-0.00311044	131072	131072	
34571.6	-0.00316046	131072	131072	
34636	-0.00320588	131072	131072	
34700.4	-0.00324646	131072	131072	
34764.8	-0.00328199	131072	131072	
34829.2	-0.0033123	131072	131072	
34893.5	-0.00333721	131072	131072	
34957.9	-0.00335661	131072	131072	
35022.3	-0.00337038	131072	131072	
35086.7	-0.00337845	131072	131072	
35151.1	-0.00338077	131072	131072	
35215.4	-0.00337733	131072	131072	
35279.8	-0.00336814	131072	131072	
35344.2	-0.00335323	131072	131072	
35408.6	-0.00333268	131072	131072	
35473	-0.00330658	131072	131072	
35537.3	-0.00327507	131072	131072	
35601.7	-0.0032383	131072	131072	
35666.1	-0.00319643	131072	131072	
35730.5	-0.00314969	131072	131072	
35794.8	-0.00309829	131072	131072	
35859.2	-0.00304248	131072	131072	
35923.6	-0.00298254	131072	131072	
35988	-0.00291874	131072	131072	
36052.4	-0.00285139	131072	131072	
36116.7	-0.00278081	131072	131072	
36181.1	-0.00270731	131072	131072	
36245.5	-0.00263124	131072	131072	
36309.9	-0.00255295	131072	131072	
36374.3	-0.00247277	131072	131072	
36438.6	-0.00239106	131072	131072	
36503	-0.00230817	131072	131072	
36567.4	-0.00222444	131072	131072	
36631.8	-0.00214022	131072	131072	
36696.2	-0.00205583	131072	131072	
36760.5	-0.00197161	131072	131072	
36824.9	-0.00188786	131072	131072	
36889.3	-0.00180488	131072	131072	
36953.7	-0.00172296	131072	131072	
37018.1	-0.00164236	131072	131072	
37082.4	-0.00156333	131072	131072	
37146.8	-0.00148608	131072	131072	
37211.2	-0.00141083	131072	131072	
37275.6	-0.00133776	131072	131072	
37339.9	-0.00126701	131072	131072	
37404.3	-0.00119871	131072	131072	
37468.7	-0.00113298	131072	131072	
37533.1	-0.00106989	131072	131072	
37597.5	-0.0010095	131072	131072	
37661.8	-0.000951817	131072	131072	
37726.2	-0.000896856	131072	131072	
37790.6	-0.000844587	131072	131072	
37855	-0.000794958	131072	131072	
37919.4	-0.000747895	131072	131072	
37983.7	-0.000703297	131072	131072	
38048.1	-0.000661043	131072	131072	
38112.5	-0.00062099	131072	131072	
38176.9	-0.000582976	131072	131072	
38241.3	-0.000546819	131072	131072	
38305.6	-0.000512322	131072	131072	
38370	-0.00047927	131072	131072	
38434.4	-0.00044744	131072	131072	
38498.8	-0.000416592	131072	131072	
38563.2	-0.000386479	131072	131072	
38627.5	-0.000356849	131072	131072	
38691.9	-0.00032744	131072	131072	
38756.3	-0.00029799	131072	131072	
38820.7	-0.000268235	131072	131072	
38885.1	-0.000237911	131072	131072	
38949.4	-0.000206757	131072	131072	
39013.8	-0.000174517	131072	131072	
39078.2	-0.000140942	131072	131072	
39142.6	-0.000105791	131072	131072	
39206.9	-6.88337e-05	131072	131072	
39271.3	-2.98506e-05	131072	131072	
39335.7	1.1363e-05	131072	131072	
39400.1	5.49974e-05	131072	131072	
39464.5	0.000101227	131072	131072	
39528.8	0.000150207	131072	131072	
39593.2	0.000202076	131072	131072	
39657.6	0.000256951	131072	131072	
39722	0.000314931	131072	131072	
39786.4	0.000376093	131072	131072	
39850.7	0.00044049	131072	131072	
39915.1	0.000508155	131072	131072	
39979.5	0.000579101	131072	131072	
40043.9	0.000653314	131072	131072	
40108.3	0.000730762	131072	131072	
40172.6	0.000811388	131072	131072	
40237	0.000895115	131072	131072	
40301.4	0.000981843	131072	131072	
40365.8	0.00107145	131072	131072	
40430.2	0.00116381	131072	131072	
40494.5	0.00125875	131072	131072	
40558.9	0.0013561	131072	131072	
40623.3	0.00145566	131072	131072	
40687.7	0.00155723	131072	131072	
40752	0.00166057	131072	131072	
40816.4	0.00176546	131072	131072	
40880.8	0.00187165	131072	131072	
40945.2	0.00197886	131072	131072	
41009.6	0.00208684	131072	131072	
41073.9	0.0021953	131072	131072	
41138.3	0.00230397	131072	131072	
41202.7	0.00241254	131072	131072	
41267.1	0.00252073	131072	131072	
41331.5	0.00262824	131072	131072	
41395.8	0.00273478	131072	131072	
41460.2	0.00284006	131072	131072	
41524.6	0.00294377	131072	131072	
41589	0.00304565	131072	131072	
41653.4	0.00314539	131072	131072	
41717.7	0.00324274	131072	131072	
41782.1	0.00333741	131072	131072	
41846.5	0.00342915	131072	131072	
41910.9	0.00351772	131072	131072	
41975.3	0.00360286	131072	131072	
42039.6	0.00368436	131072	131072	
42104	0.00376201	131072	131072	
42168.4	0.00383559	131072	131072	
42232.8	0.00390493	131072	131072	
42297.1	0.00396986	131072	131072	
42361.5	0.00403021	131072	131072	
42425.9	0.00408585	131072	131072	
42490.3	0.00413666	131072	131072	
42554.7	0.00418252	131072	131072	
42619	0.00422335	131072	131072	
42683.4	0.00425907	131072	131072	
42747.8	0.00428962	131072	131072	
42812.2	0.00431497	131072	131072	
42876.6	0.00433508	131072	131072	
42940.9	0.00434994	131072	131072	
43005.3	0.00435957	131072	131072	
43069.7	0.00436398	131072	131072	
43134.1	0.00436321	131072	131072	
43198.5	0.00435731	131072	131072	
