0	0	524288	524288	
30.9506	0	524288	524288	
61.9012	0	524288	524288	
92.8519	0	524288	524288	
123.802	0	524288	524288	
154.753	0	524288	524288	
185.704	0	524288	524288	
216.654	0	524288	524288	
247.605	0	524288	524288	
278.556	0	524288	524288	
309.506	0	524288	524288	
340.457	0	524288	524288	
371.407	0	524288	524288	
402.358	0	524288	524288	
433.309	0	524288	524288	
464.259	0	524288	524288	
495.21	0	524288	524288	
526.161	0	524288	524288	
557.111	0	524288	524288	
588.062	0	524288	524288	
619.012	0	524288	524288	
649.963	0	524288	524288	
680.914	0	524288	524288	
711.864	0	524288	524288	
742.815	0	524288	524288	
773.766	0	524288	524288	
804.716	0	524288	524288	
835.667	0	524288	524288	
866.617	0	524288	524288	
897.568	0	524288	524288	
928.519	0	524288	524288	
959.469	0	524288	524288	
990.42	0	524288	524288	
1021.37	0	524288	524288	
1052.32	0	524288	524288	
1083.27	0	524288	524288	
1114.22	0	524288	524288	
1145.17	0	524288	524288	
1176.12	0	524288	524288	
1207.07	0	524288	524288	
1238.02	0	524288	524288	
1268.98	0	524288	524288	
1299.93	0	524288	524288	
1330.88	0	524288	524288	
1361.83	0	524288	524288	
1392.78	0	524288	524288	
1423.73	0	524288	524288	
1454.68	0	524288	524288	
1485.63	0	524288	524288	
1516.58	0	524288	524288	
1547.53	0	524288	524288	
1578.48	0	524288	524288	
1609.43	0	524288	524288	
1640.38	0	524288	524288	
1671.33	0	524288	524288	
1702.28	0	524288	524288	
1733.23	0	524288	524288	
1764.19	0	524288	524288	
1795.14	0	524288	524288	
1826.09	0	524288	524288	
1857.04	0	524288	524288	
1887.99	0	524288	524288	
1918.94	0	524288	524288	
1949.89	0	524288	524288	
1980.84	0	524288	524288	
2011.79	0	524288	524288	
2042.74	0	524288	524288	
2073.69	0	524288	524288	
2104.64	0	524288	524288	
2135.59	0	524288	524288	
2166.54	0	524288	524288	
2197.49	0	524288	524288	
2228.44	0	524288	524288	
2259.4	0	524288	524288	
2290.35	0	524288	524288	
2321.3	0	524288	524288	
2352.25	0	524288	524288	
2383.2	0	524288	524288	
2414.15	0	524288	524288	
2445.1	0	524288	524288	
2476.05	0	524288	524288	
2507	0	524288	524288	
2537.95	0	524288	524288	
2568.9	0	524288	524288	
2599.85	0	524288	524288	
2630.8	0	524288	524288	
2661.75	0	524288	524288	
2692.7	0	524288	524288	
2723.65	0	524288	524288	
2754.61	0	524288	524288	
2785.56	0	524288	524288	
2816.51	0	524288	524288	
2847.46	0	524288	524288	
2878.41	0	524288	524288	
2909.36	0	524288	524288	
2940.31	0	524288	524288	
2971.26	0	524288	524288	
3002.21	0	524288	524288	
3033.16	0	524288	524288	
3064.11	0	524288	524288	
3095.06	0	524288	524288	
3126.01	0	524288	524288	
3156.96	0	524288	524288	
3187.91	0	524288	524288	
3218.86	0	524288	524288	
3249.82	0	524288	524288	
3280.77	0	524288	524288	
3311.72	0	524288	524288	
3342.67	0	524288	524288	
3373.62	0	524288	524288	
3404.57	0	524288	524288	
3435.52	0	524288	524288	
3466.47	0	524288	524288	
3497.42	0	524288	524288	
3528.37	0	524288	524288	
3559.32	0	524288	524288	
3590.27	0	524288	524288	
3621.22	0	524288	524288	
3652.17	0	524288	524288	
3683.12	0	524288	524288	
3714.07	0	524288	524288	
3745.03	0	524288	524288	
3775.98	0	524288	524288	
3806.93	0	524288	524288	
3837.88	0	524288	524288	
3868.83	0	524288	524288	
3899.78	0	524288	524288	
3930.73	0	524288	524288	
3961.68	0	524288	524288	
3992.63	0	524288	524288	
4023.58	0	524288	524288	
4054.53	0	524288	524288	
4085.48	0	524288	524288	
4116.43	0	524288	524288	
4147.38	0	524288	524288	
4178.33	0	524288	524288	
4209.28	0	524288	524288	
4240.24	0	524288	524288	
4271.19	0	524288	524288	
4302.14	0	524288	524288	
4333.09	0	524288	524288	
4364.04	0	524288	524288	
4394.99	0	524288	524288	
4425.94	0	524288	524288	
4456.89	0	524288	524288	
4487.84	0	524288	524288	
4518.79	0	524288	524288	
4549.74	0	524288	524288	
4580.69	0	524288	524288	
4611.64	0	524288	524288	
4642.59	0	524288	524288	
4673.54	0	524288	524288	
4704.49	0	524288	524288	
4735.45	0	524288	524288	
4766.4	0	524288	524288	
4797.35	0	524288	524288	
4828.3	0	524288	524288	
4859.25	0	524288	524288	
4890.2	0	524288	524288	
4921.15	0	524288	524288	
4952.1	0	524288	524288	
4983.05	0	524288	524288	
5014	0	524288	524288	
5044.95	0	524288	524288	
5075.9	0	524288	524288	
5106.85	0	524288	524288	
5137.8	0	524288	524288	
5168.75	0	524288	524288	
5199.7	0	524288	524288	
5230.66	0	524288	524288	
5261.61	0	524288	524288	
5292.56	0	524288	524288	
5323.51	0	524288	524288	
5354.46	0	524288	524288	
5385.41	0	524288	524288	
5416.36	0	524288	524288	
5447.31	0	524288	524288	
5478.26	0	524288	524288	
5509.21	0	524288	524288	
5540.16	0	524288	524288	
5571.11	0	524288	524288	
5602.06	0	524288	524288	
5633.01	0	524288	524288	
5663.96	0	524288	524288	
5694.91	0	524288	524288	
5725.86	0	524288	524288	
5756.82	0	524288	524288	
5787.77	0	524288	524288	
5818.72	0	524288	524288	
5849.67	0	524288	524288	
5880.62	0	524288	524288	
5911.57	0	524288	524288	
5942.52	0	524288	524288	
5973.47	0	524288	524288	
6004.42	0	524288	524288	
6035.37	0	524288	524288	
6066.32	0	524288	524288	
6097.27	0	524288	524288	
6128.22	0	524288	524288	
6159.17	0	524288	524288	
6190.12	0	524288	524288	
6221.07	0	524288	524288	
6252.03	0	524288	524288	
6282.98	-9.09495e-13	524288	524288	
6313.93	-1.81899e-12	524288	524288	
6344.88	-3.63798e-12	524288	524288	
6375.83	-6.36646e-12	524288	524288	
6406.78	-1.09139e-11	524288	524288	
6437.73	-1.72804e-11	524288	524288	
6468.68	-2.72848e-11	524288	524288	
6499.63	-4.27463e-11	524288	524288	
6530.58	-6.63931e-11	524288	524288	
6561.53	-1.00954e-10	524288	524288	
6592.48	-1.52795e-10	524288	524288	
6623.43	-2.28283e-10	524288	524288	
6654.38	-3.36513e-10	524288	524288	
6685.33	-4.91127e-10	524288	524288	
6716.28	-7.09406e-10	524288	524288	
6747.24	-1.01591e-09	524288	524288	
6778.19	-1.44246e-09	524288	524288	
6809.14	-2.02908e-09	524288	524288	
6840.09	-2.83308e-09	524288	524288	
6871.04	-3.92447e-09	524288	524288	
6901.99	-5.39603e-09	524288	524288	
6932.94	-7.366e-09	524288	524288	
6963.89	-9.98534e-09	524288	524288	
6994.84	-1.34478e-08	524288	524288	
7025.79	-1.79925e-08	524288	524288	
7056.74	-2.39233e-08	524288	524288	
7087.69	-3.16149e-08	524288	524288	
7118.64	-4.1533e-08	524288	524288	
7149.59	-5.42477e-08	524288	524288	
7180.54	-7.04586e-08	524288	524288	
7211.49	-9.1014e-08	524288	524288	
7242.45	-1.1694e-07	524288	524288	
7273.4	-1.49472e-07	524288	524288	
7304.35	-1.90084e-07	524288	524288	
7335.3	-2.40534e-07	524288	524288	
7366.25	-3.02902e-07	524288	524288	
7397.2	-3.79639e-07	524288	524288	
7428.15	-4.73616e-07	524288	524288	
7459.1	-5.88186e-07	524288	524288	
7490.05	-7.2724e-07	524288	524288	
7521	-8.9528e-07	524288	524288	
7551.95	-1.09748e-06	524288	524288	
7582.9	-1.33977e-06	524288	524288	
7613.85	-1.62892e-06	524288	524288	
7644.8	-1.97259e-06	524288	524288	
7675.75	-2.37948e-06	524288	524288	
7706.7	-2.85936e-06	524288	524288	
7737.66	-3.42318e-06	524288	524288	
7768.61	-4.08316e-06	524288	524288	
7799.56	-4.85292e-06	524288	524288	
7830.51	-5.74751e-06	524288	524288	
7861.46	-6.78353e-06	524288	524288	
7892.41	-7.97922e-06	524288	524288	
7923.36	-9.35454e-06	524288	524288	
7954.31	-1.09312e-05	524288	524288	
7985.26	-1.27329e-05	524288	524288	
8016.21	-1.4785e-05	524288	524288	
8047.16	-1.7115e-05	524288	524288	
8078.11	-1.97522e-05	524288	524288	
8109.06	-2.27282e-05	524288	524288	
8140.01	-2.60762e-05	524288	524288	
8170.96	-2.98314e-05	524288	524288	
8201.91	-3.40311e-05	524288	524288	
8232.87	-3.87139e-05	524288	524288	
8263.82	-4.39205e-05	524288	524288	
8294.77	-4.96926e-05	524288	524288	
8325.72	-5.60734e-05	524288	524288	
8356.67	-6.31068e-05	524288	524288	
8387.62	-7.08376e-05	524288	524288	
8418.57	-7.93104e-05	524288	524288	
8449.52	-8.85698e-05	524288	524288	
8480.47	-9.86594e-05	524288	524288	
8511.42	-0.000109621	524288	524288	
8542.37	-0.000121495	524288	524288	
8573.32	-0.000134318	524288	524288	
8604.27	-0.000148121	524288	524288	
8635.22	-0.000162934	524288	524288	
8666.17	-0.000178775	524288	524288	
8697.12	-0.000195657	524288	524288	
8728.08	-0.000213583	524288	524288	
8759.03	-0.000232544	524288	524288	
8789.98	-0.000252518	524288	524288	
8820.93	-0.000273464	524288	524288	
8851.88	-0.000295327	524288	524288	
8882.83	-0.000318026	524288	524288	
8913.78	-0.000341459	524288	524288	
8944.73	-0.000365493	524288	524288	
8975.68	-0.000389966	524288	524288	
9006.63	-0.000414678	524288	524288	
9037.58	-0.00043939	524288	524288	
9068.53	-0.000463818	524288	524288	
9099.48	-0.000487629	524288	524288	
9130.43	-0.000510435	524288	524288	
9161.38	-0.000531788	524288	524288	
9192.33	-0.000551174	524288	524288	
9223.29	-0.000568009	524288	524288	
9254.24	-0.000581632	524288	524288	
9285.19	-0.000591299	524288	524288	
9316.14	-0.000596176	524288	524288	
9347.09	-0.000595338	524288	524288	
9378.04	-0.00058776	524288	524288	
9408.99	-0.000572312	524288	524288	
9439.94	-0.000547758	524288	524288	
9470.89	-0.000512746	524288	524288	
9501.84	-0.000465814	524288	524288	
9532.79	-0.000405379	524288	524288	
9563.74	-0.000329741	524288	524288	
9594.69	-0.000237083	524288	524288	
9625.64	-0.00012547	524288	524288	
9656.59	7.14481e-06	524288	524288	
9687.54	0.000162919	524288	524288	
9718.5	0.000344113	524288	524288	
9749.45	0.000553081	524288	524288	
9780.4	0.000792262	524288	524288	
9811.35	0.00106417	524288	524288	
9842.3	0.00137138	524288	524288	
9873.25	0.0017165	524288	524288	
9904.2	0.00210218	524288	524288	
9935.15	0.00253106	524288	524288	
9966.1	0.00300578	524288	524288	
9997.05	0.00352894	524288	524288	
10028	0.00410307	524288	524288	
10059	0.0047306	524288	524288	
10089.9	0.00541388	524288	524288	
10120.9	0.00615509	524288	524288	
10151.8	0.00695625	524288	524288	
10182.8	0.00781916	524288	524288	
10213.7	0.00874542	524288	524288	
10244.7	0.00973635	524288	524288	
10275.6	0.010793	524288	524288	
10306.6	0.0119161	524288	524288	
10337.5	0.0131061	524288	524288	
10368.5	0.014363	524288	524288	
10399.4	0.0156864	524288	524288	
10430.4	0.0170757	524288	524288	
10461.3	0.0185297	524288	524288	
10492.3	0.0200469	524288	524288	
10523.2	0.0216252	524288	524288	
10554.2	0.0232622	524288	524288	
10585.1	0.0249551	524288	524288	
10616.1	0.0267006	524288	524288	
10647	0.0284949	524288	524288	
10678	0.0303339	524288	524288	
10708.9	0.0322131	524288	524288	
10739.9	0.0341276	524288	524288	
10770.8	0.0360721	524288	524288	
10801.8	0.0380409	524288	524288	
10832.7	0.0400282	524288	524288	
10863.7	0.0420277	524288	524288	
10894.6	0.0440332	524288	524288	
10925.6	0.0460379	524288	524288	
10956.5	0.048035	524288	524288	
10987.5	0.0500178	524288	524288	
11018.4	0.0519792	524288	524288	
11049.4	0.0539122	524288	524288	
11080.3	0.0558098	524288	524288	
11111.3	0.0576652	524288	524288	
11142.2	0.0594715	524288	524288	
11173.2	0.061222	524288	524288	
11204.1	0.0629102	524288	524288	
11235.1	0.0645298	524288	524288	
11266	0.0660748	524288	524288	
11297	0.0675394	524288	524288	
11327.9	0.0689182	524288	524288	
11358.9	0.0702062	524288	524288	
11389.8	0.0713986	524288	524288	
11420.8	0.0724911	524288	524288	
11451.7	0.0734798	524288	524288	
11482.7	0.0743612	524288	524288	
11513.6	0.0751323	524288	524288	
11544.6	0.0757906	524288	524288	
11575.5	0.0763338	524288	524288	
11606.5	0.0767603	524288	524288	
11637.4	0.0770688	524288	524288	
11668.4	0.0772586	524288	524288	
11699.3	0.0773293	524288	524288	
11730.3	0.0772808	524288	524288	
11761.2	0.0771137	524288	524288	
11792.2	0.0768289	524288	524288	
11823.1	0.0764276	524288	524288	
11854.1	0.0759113	524288	524288	
11885	0.075282	524288	524288	
11916	0.0745419	524288	524288	
11946.9	0.0736935	524288	524288	
11977.9	0.0727397	524288	524288	
12008.8	0.0716834	524288	524288	
12039.8	0.0705279	524288	524288	
12070.7	0.0692767	524288	524288	
12101.7	0.0679334	524288	524288	
12132.6	0.0665017	524288	524288	
12163.6	0.0649856	524288	524288	
12194.5	0.0633889	524288	524288	
12225.5	0.0617159	524288	524288	
12256.4	0.0599706	524288	524288	
12287.4	0.0581572	524288	524288	
12318.3	0.0562799	524288	524288	
12349.3	0.0543429	524288	524288	
12380.2	0.0523506	524288	524288	
12411.2	0.0503069	524288	524288	
12442.1	0.0482162	524288	524288	
12473.1	0.0460826	524288	524288	
12504.1	0.04391	524288	524288	
12535	0.0417026	524288	524288	
12566	0.0394643	524288	524288	
12596.9	0.0371989	524288	524288	
12627.9	0.0349102	524288	524288	
12658.8	0.0326021	524288	524288	
12689.8	0.030278	524288	524288	
12720.7	0.0279415	524288	524288	
12751.7	0.0255961	524288	524288	
12782.6	0.0232451	524288	524288	
12813.6	0.0208918	524288	524288	
12844.5	0.0185395	524288	524288	
12875.5	0.016191	524288	524288	
12906.4	0.0138496	524288	524288	
12937.4	0.011518	524288	524288	
12968.3	0.00919906	524288	524288	
12999.3	0.00689559	524288	524288	
13030.2	0.00461022	524288	524288	
13061.2	0.00234552	524288	524288	
13092.1	0.000103984	524288	524288	
13123.1	-0.00211196	524288	524288	
13154	-0.00429996	524288	524288	
13185	-0.00645775	524288	524288	
13215.9	-0.00858313	524288	524288	
13246.9	-0.010674	524288	524288	
13277.8	-0.0127282	524288	524288	
13308.8	-0.0147438	524288	524288	
13339.7	-0.0167189	524288	524288	
13370.7	-0.0186515	524288	524288	
13401.6	-0.02054	524288	524288	
13432.6	-0.0223825	524288	524288	
13463.5	-0.0241774	524288	524288	
13494.5	-0.0259231	524288	524288	
13525.4	-0.0276181	524288	524288	
13556.4	-0.0292608	524288	524288	
13587.3	-0.03085	524288	524288	
13618.3	-0.0323841	524288	524288	
13649.2	-0.0338621	524288	524288	
13680.2	-0.0352826	524288	524288	
13711.1	-0.0366445	524288	524288	
13742.1	-0.0379468	524288	524288	
13773	-0.0391886	524288	524288	
13804	-0.0403688	524288	524288	
13834.9	-0.0414867	524288	524288	
13865.9	-0.0425415	524288	524288	
13896.8	-0.0435326	524288	524288	
13927.8	-0.0444593	524288	524288	
13958.7	-0.0453211	524288	524288	
13989.7	-0.0461176	524288	524288	
14020.6	-0.0468484	524288	524288	
14051.6	-0.0475134	524288	524288	
14082.5	-0.0481121	524288	524288	
14113.5	-0.0486447	524288	524288	
14144.4	-0.049111	524288	524288	
14175.4	-0.0495112	524288	524288	
14206.3	-0.0498453	524288	524288	
14237.3	-0.0501136	524288	524288	
14268.2	-0.0503165	524288	524288	
14299.2	-0.0504543	524288	524288	
14330.1	-0.0505274	524288	524288	
14361.1	-0.0505365	524288	524288	
14392	-0.0504822	524288	524288	
14423	-0.0503652	524288	524288	
14453.9	-0.0501862	524288	524288	
14484.9	-0.0499461	524288	524288	
14515.8	-0.0496459	524288	524288	
14546.8	-0.0492864	524288	524288	
14577.7	-0.0488689	524288	524288	
14608.7	-0.0483943	524288	524288	
14639.6	-0.0478638	524288	524288	
14670.6	-0.0472787	524288	524288	
14701.5	-0.0466403	524288	524288	
14732.5	-0.0459498	524288	524288	
14763.4	-0.0452087	524288	524288	
14794.4	-0.0444183	524288	524288	
14825.3	-0.0435801	524288	524288	
14856.3	-0.0426957	524288	524288	
14887.2	-0.0417664	524288	524288	
14918.2	-0.0407939	524288	524288	
14949.2	-0.0397798	524288	524288	
14980.1	-0.0387257	524288	524288	
15011.1	-0.0376331	524288	524288	
15042	-0.0365038	524288	524288	
15073	-0.0353395	524288	524288	
15103.9	-0.0341418	524288	524288	
15134.9	-0.0329124	524288	524288	
15165.8	-0.031653	524288	524288	
15196.8	-0.0303654	524288	524288	
15227.7	-0.0290513	524288	524288	
15258.7	-0.0277124	524288	524288	
15289.6	-0.0263505	524288	524288	
15320.6	-0.0249673	524288	524288	
15351.5	-0.0235646	524288	524288	
15382.5	-0.0221442	524288	524288	
15413.4	-0.0207077	524288	524288	
15444.4	-0.019257	524288	524288	
15475.3	-0.0177939	524288	524288	
15506.3	-0.01632	524288	524288	
15537.2	-0.0148371	524288	524288	
15568.2	-0.0133471	524288	524288	
15599.1	-0.0118516	524288	524288	
15630.1	-0.0103524	524288	524288	
15661	-0.00885128	524288	524288	
15692	-0.00734999	524288	524288	
15722.9	-0.00585027	524288	524288	
15753.9	-0.00435386	524288	524288	
15784.8	-0.00286251	524288	524288	
15815.8	-0.00137796	524288	524288	
15846.7	9.80644e-05	524288	524288	
15877.7	0.00156383	524288	524288	
15908.6	0.00301762	524288	524288	
15939.6	0.00445771	524288	524288	
15970.5	0.00588241	524288	524288	
16001.5	0.00729002	524288	524288	
16032.4	0.00867885	524288	524288	
16063.4	0.0100472	524288	524288	
16094.3	0.0113935	524288	524288	
16125.3	0.0127161	524288	524288	
16156.2	0.0140132	524288	524288	
16187.2	0.0152834	524288	524288	
16218.1	0.0165251	524288	524288	
16249.1	0.0177366	524288	524288	
16280	0.0189165	524288	524288	
16311	0.0200633	524288	524288	
16341.9	0.0211755	524288	524288	
16372.9	0.0222516	524288	524288	
16403.8	0.0232903	524288	524288	
16434.8	0.0242902	524288	524288	
16465.7	0.02525	524288	524288	
16496.7	0.0261684	524288	524288	
16527.6	0.0270442	524288	524288	
16558.6	0.0278762	524288	524288	
16589.5	0.0286634	524288	524288	
16620.5	0.0294046	524288	524288	
16651.4	0.0300989	524288	524288	
16682.4	0.0307453	524288	524288	
16713.3	0.031343	524288	524288	
16744.3	0.0318911	524288	524288	
16775.2	0.0323889	524288	524288	
16806.2	0.0328358	524288	524288	
16837.1	0.0332311	524288	524288	
16868.1	0.0335744	524288	524288	
16899	0.0338652	524288	524288	
16930	0.0341032	524288	524288	
16960.9	0.034288	524288	524288	
16991.9	0.0344196	524288	524288	
17022.8	0.0344977	524288	524288	
17053.8	0.0345225	524288	524288	
17084.7	0.0344938	524288	524288	
17115.7	0.0344119	524288	524288	
17146.6	0.0342771	524288	524288	
17177.6	0.0340896	524288	524288	
17208.5	0.0338497	524288	524288	
17239.5	0.0335582	524288	524288	
17270.4	0.0332153	524288	524288	
17301.4	0.032822	524288	524288	
17332.3	0.0323788	524288	524288	
17363.3	0.0318866	524288	524288	
17394.2	0.0313462	524288	524288	
17425.2	0.0307588	524288	524288	
17456.2	0.0301252	524288	524288	
17487.1	0.0294466	524288	524288	
17518.1	0.0287242	524288	524288	
17549	0.0279593	524288	524288	
17580	0.0271531	524288	524288	
17610.9	0.0263071	524288	524288	
17641.9	0.0254227	524288	524288	
17672.8	0.0245014	524288	524288	
17703.8	0.0235447	524288	524288	
17734.7	0.0225543	524288	524288	
17765.7	0.0215318	524288	524288	
17796.6	0.0204788	524288	524288	
17827.6	0.0193971	524288	524288	
17858.5	0.0182885	524288	524288	
17889.5	0.0171547	524288	524288	
17920.4	0.0159976	524288	524288	
17951.4	0.0148191	524288	524288	
17982.3	0.0136209	524288	524288	
18013.3	0.0124049	524288	524288	
18044.2	0.0111731	524288	524288	
18075.2	0.00992741	524288	524288	
18106.1	0.00866966	524288	524288	
18137.1	0.00740179	524288	524288	
18168	0.00612571	524288	524288	
18199	0.00484334	524288	524288	
18229.9	0.00355656	524288	524288	
18260.9	0.00226726	524288	524288	
18291.8	0.000977319	524288	524288	
18322.8	-0.00031141	524288	524288	
18353.7	-0.0015971	524288	524288	
18384.7	-0.00287793	524288	524288	
18415.6	-0.00415212	524288	524288	
18446.6	-0.00541792	524288	524288	
18477.5	-0.0066736	524288	524288	
18508.5	-0.00791747	524288	524288	
18539.4	-0.00914788	524288	524288	
18570.4	-0.0103632	524288	524288	
18601.3	-0.0115619	524288	524288	
18632.3	-0.0127424	524288	524288	
18663.2	-0.0139032	524288	524288	
18694.2	-0.0150429	524288	524288	
18725.1	-0.0161601	524288	524288	
18756.1	-0.0172535	524288	524288	
18787	-0.0183217	524288	524288	
18818	-0.0193635	524288	524288	
18848.9	-0.0203777	524288	524288	
18879.9	-0.0213631	524288	524288	
18910.8	-0.0223188	524288	524288	
18941.8	-0.0232436	524288	524288	
18972.7	-0.0241367	524288	524288	
19003.7	-0.0249969	524288	524288	
19034.6	-0.0258236	524288	524288	
19065.6	-0.0266159	524288	524288	
19096.5	-0.0273731	524288	524288	
19127.5	-0.0280945	524288	524288	
19158.4	-0.0287794	524288	524288	
19189.4	-0.0294272	524288	524288	
19220.3	-0.0300375	524288	524288	
19251.3	-0.0306099	524288	524288	
19282.2	-0.0311438	524288	524288	
19313.2	-0.031639	524288	524288	
19344.1	-0.0320952	524288	524288	
19375.1	-0.0325122	524288	524288	
19406	-0.0328897	524288	524288	
19437	-0.0332278	524288	524288	
19467.9	-0.0335262	524288	524288	
19498.9	-0.033785	524288	524288	
19529.8	-0.0340043	524288	524288	
19560.8	-0.0341842	524288	524288	
19591.7	-0.0343247	524288	524288	
19622.7	-0.0344262	524288	524288	
19653.6	-0.0344889	524288	524288	
19684.6	-0.034513	524288	524288	
19715.5	-0.034499	524288	524288	
19746.5	-0.0344472	524288	524288	
19777.4	-0.0343581	524288	524288	
19808.4	-0.0342322	524288	524288	
19839.3	-0.03407	524288	524288	
19870.3	-0.0338721	524288	524288	
19901.2	-0.0336391	524288	524288	
19932.2	-0.0333718	524288	524288	
19963.2	-0.0330707	524288	524288	
19994.1	-0.0327368	524288	524288	
20025.1	-0.0323706	524288	524288	
20056	-0.0319732	524288	524288	
20087	-0.0315452	524288	524288	
20117.9	-0.0310877	524288	524288	
20148.9	-0.0306015	524288	524288	
20179.8	-0.0300876	524288	524288	
20210.8	-0.029547	524288	524288	
20241.7	-0.0289806	524288	524288	
20272.7	-0.0283896	524288	524288	
20303.6	-0.0277749	524288	524288	
20334.6	-0.0271378	524288	524288	
20365.5	-0.0264791	524288	524288	
20396.5	-0.0258002	524288	524288	
20427.4	-0.0251021	524288	524288	
20458.4	-0.0243861	524288	524288	
20489.3	-0.0236532	524288	524288	
20520.3	-0.0229047	524288	524288	
20551.2	-0.0221418	524288	524288	
20582.2	-0.0213657	524288	524288	
20613.1	-0.0205777	524288	524288	
20644.1	-0.0197789	524288	524288	
20675	-0.0189706	524288	524288	
20706	-0.0181541	524288	524288	
20736.9	-0.0173306	524288	524288	
20767.9	-0.0165014	524288	524288	
20798.8	-0.0156676	524288	524288	
20829.8	-0.0148306	524288	524288	
20860.7	-0.0139916	524288	524288	
20891.7	-0.0131518	524288	524288	
20922.6	-0.0123124	524288	524288	
20953.6	-0.0114747	524288	524288	
20984.5	-0.0106399	524288	524288	
21015.5	-0.00980916	524288	524288	
21046.4	-0.00898365	524288	524288	
21077.4	-0.00816456	524288	524288	
21108.3	-0.00735303	524288	524288	
21139.3	-0.00655018	524288	524288	
21170.2	-0.00575712	524288	524288	
21201.2	-0.00497495	524288	524288	
21232.1	-0.00420471	524288	524288	
21263.1	-0.00344744	524288	524288	
21294	-0.00270415	524288	524288	
21325	-0.00197582	524288	524288	
21355.9	-0.00126341	524288	524288	
21386.9	-0.000567814	524288	524288	
21417.8	0.000110066	524288	524288	
21448.8	0.000769383	524288	524288	
21479.7	0.00140932	524288	524288	
21510.7	0.0020291	524288	524288	
21541.6	0.00262798	524288	524288	
21572.6	0.00320526	524288	524288	
21603.5	0.00376027	524288	524288	
21634.5	0.0042924	524288	524288	
21665.4	0.00480106	524288	524288	
21696.4	0.00528572	524288	524288	
21727.3	0.00574588	524288	524288	
21758.3	0.00618109	524288	524288	
21789.2	0.00659094	524288	524288	
21820.2	0.00697509	524288	524288	
21851.1	0.00733321	524288	524288	
21882.1	0.00766503	524288	524288	
21913	0.00797034	524288	524288	
21944	0.00824895	524288	524288	
21974.9	0.00850075	524288	524288	
22005.9	0.00872565	524288	524288	
22036.8	0.00892362	524288	524288	
22067.8	0.00909467	524288	524288	
22098.7	0.00923886	524288	524288	
22129.7	0.00935629	524288	524288	
22160.6	0.00944711	524288	524288	
22191.6	0.00951153	524288	524288	
22222.5	0.00954977	524288	524288	
22253.5	0.00956213	524288	524288	
22284.4	0.00954894	524288	524288	
22315.4	0.00951056	524288	524288	
22346.3	0.0094474	524288	524288	
22377.3	0.00935991	524288	524288	
22408.3	0.0092486	524288	524288	
22439.2	0.00911398	524288	524288	
22470.2	0.00895661	524288	524288	
22501.1	0.00877711	524288	524288	
22532.1	0.0085761	524288	524288	
22563	0.00835426	524288	524288	
22594	0.00811228	524288	524288	
22624.9	0.00785088	524288	524288	
22655.9	0.00757083	524288	524288	
22686.8	0.0072729	524288	524288	
22717.8	0.0069579	524288	524288	
22748.7	0.00662666	524288	524288	
22779.7	0.00628002	524288	524288	
22810.6	0.00591886	524288	524288	
22841.6	0.00554406	524288	524288	
22872.5	0.00515651	524288	524288	
22903.5	0.00475714	524288	524288	
22934.4	0.00434686	524288	524288	
22965.4	0.0039266	524288	524288	
22996.3	0.00349732	524288	524288	
23027.3	0.00305995	524288	524288	
23058.2	0.00261543	524288	524288	
23089.2	0.00216473	524288	524288	
23120.1	0.00170879	524288	524288	
23151.1	0.00124856	524288	524288	
23182	0.000784974	524288	524288	
23213	0.000318977	524288	524288	
23243.9	-0.000148506	524288	524288	
23274.9	-0.000616556	524288	524288	
23305.8	-0.00108427	524288	524288	
23336.8	-0.00155074	524288	524288	
23367.7	-0.00201511	524288	524288	
23398.7	-0.00247651	524288	524288	
23429.6	-0.00293409	524288	524288	
23460.6	-0.00338703	524288	524288	
23491.5	-0.00383453	524288	524288	
23522.5	-0.00427581	524288	524288	
23553.4	-0.00471011	524288	524288	
23584.4	-0.0051367	524288	524288	
23615.3	-0.00555488	524288	524288	
23646.3	-0.00596397	524288	524288	
23677.2	-0.00636333	524288	524288	
23708.2	-0.00675232	524288	524288	
23739.1	-0.00713037	524288	524288	
23770.1	-0.00749692	524288	524288	
23801	-0.00785143	524288	524288	
23832	-0.00819342	524288	524288	
23862.9	-0.00852243	524288	524288	
23893.9	-0.00883802	524288	524288	
23924.8	-0.0091398	524288	524288	
23955.8	-0.00942741	524288	524288	
23986.7	-0.00970054	524288	524288	
24017.7	-0.00995887	524288	524288	
24048.6	-0.0102022	524288	524288	
24079.6	-0.0104302	524288	524288	
24110.5	-0.0106428	524288	524288	
24141.5	-0.0108398	524288	524288	
24172.4	-0.011021	524288	524288	
24203.4	-0.0111865	524288	524288	
24234.3	-0.011336	524288	524288	
24265.3	-0.0114697	524288	524288	
24296.2	-0.0115875	524288	524288	
24327.2	-0.0116895	524288	524288	
24358.1	-0.0117757	524288	524288	
24389.1	-0.0118463	524288	524288	
24420	-0.0119013	524288	524288	
24451	-0.011941	524288	524288	
24481.9	-0.0119655	524288	524288	
24512.9	-0.011975	524288	524288	
24543.8	-0.0119698	524288	524288	
24574.8	-0.0119502	524288	524288	
24605.7	-0.0119163	524288	524288	
24636.7	-0.0118687	524288	524288	
24667.6	-0.0118075	524288	524288	
24698.6	-0.0117331	524288	524288	
24729.5	-0.0116459	524288	524288	
24760.5	-0.0115463	524288	524288	
24791.4	-0.0114347	524288	524288	
24822.4	-0.0113115	524288	524288	
24853.3	-0.0111772	524288	524288	
24884.3	-0.0110321	524288	524288	
24915.3	-0.0108767	524288	524288	
24946.2	-0.0107116	524288	524288	
24977.2	-0.0105371	524288	524288	
25008.1	-0.0103538	524288	524288	
25039.1	-0.0101622	524288	524288	
25070	-0.00996265	524288	524288	
25101	-0.00975577	524288	524288	
25131.9	-0.00954202	524288	524288	
25162.9	-0.0093219	524288	524288	
25193.8	-0.0090959	524288	524288	
25224.8	-0.00886453	524288	524288	
25255.7	-0.00862829	524288	524288	
25286.7	-0.00838765	524288	524288	
25317.6	-0.00814311	524288	524288	
25348.6	-0.00789515	524288	524288	
25379.5	-0.00764424	524288	524288	
25410.5	-0.00739084	524288	524288	
25441.4	-0.00713542	524288	524288	
25472.4	-0.00687842	524288	524288	
25503.3	-0.00662027	524288	524288	
25534.3	-0.00636142	524288	524288	
25565.2	-0.00610226	524288	524288	
25596.2	-0.0058432	524288	524288	
25627.1	-0.00558463	524288	524288	
25658.1	-0.00532692	524288	524288	
25689	-0.00507043	524288	524288	
25720	-0.00481552	524288	524288	
25750.9	-0.0045625	524288	524288	
25781.9	-0.00431169	524288	524288	
25812.8	-0.00406339	524288	524288	
25843.8	-0.00381788	524288	524288	
25874.7	-0.00357543	524288	524288	
25905.7	-0.00333629	524288	524288	
25936.6	-0.00310068	524288	524288	
25967.6	-0.00286882	524288	524288	
25998.5	-0.00264092	524288	524288	
26029.5	-0.00241714	524288	524288	
26060.4	-0.00219765	524288	524288	
26091.4	-0.00198261	524288	524288	
26122.3	-0.00177214	524288	524288	
26153.3	-0.00156635	524288	524288	
26184.2	-0.00136534	524288	524288	
26215.2	-0.0011692	524288	524288	
26246.1	-0.000977997	524288	524288	
26277.1	-0.000791774	524288	524288	
26308	-0.000610572	524288	524288	
26339	-0.000434413	524288	524288	
26369.9	-0.000263308	524288	524288	
26400.9	-9.72515e-05	524288	524288	
26431.8	6.37729e-05	524288	524288	
26462.8	0.000219794	524288	524288	
26493.7	0.000370852	524288	524288	
26524.7	0.000516998	524288	524288	
26555.6	0.000658294	524288	524288	
26586.6	0.000794809	524288	524288	
26617.5	0.000926625	524288	524288	
26648.5	0.00105383	524288	524288	
26679.4	0.00117652	524288	524288	
26710.4	0.00129479	524288	524288	
26741.3	0.00140876	524288	524288	
26772.3	0.00151853	524288	524288	
26803.2	0.00162423	524288	524288	
26834.2	0.00172598	524288	524288	
26865.1	0.0018239	524288	524288	
26896.1	0.00191811	524288	524288	
26927	0.00200876	524288	524288	
26958	0.00209597	524288	524288	
26988.9	0.00217987	524288	524288	
27019.9	0.00226059	524288	524288	
27050.8	0.00233825	524288	524288	
27081.8	0.002413	524288	524288	
27112.7	0.00248495	524288	524288	
27143.7	0.00255422	524288	524288	
27174.6	0.00262093	524288	524288	
27205.6	0.00268521	524288	524288	
27236.5	0.00274715	524288	524288	
27267.5	0.00280687	524288	524288	
27298.4	0.00286446	524288	524288	
27329.4	0.00292003	524288	524288	
27360.3	0.00297364	524288	524288	
27391.3	0.0030254	524288	524288	
27422.3	0.00307536	524288	524288	
27453.2	0.0031236	524288	524288	
27484.2	0.00317018	524288	524288	
27515.1	0.00321514	524288	524288	
27546.1	0.00325853	524288	524288	
27577	0.00330038	524288	524288	
27608	0.00334072	524288	524288	
27638.9	0.00337957	524288	524288	
27669.9	0.00341692	524288	524288	
27700.8	0.00345279	524288	524288	
27731.8	0.00348717	524288	524288	
27762.7	0.00352002	524288	524288	
27793.7	0.00355134	524288	524288	
27824.6	0.00358109	524288	524288	
27855.6	0.00360921	524288	524288	
27886.5	0.00363567	524288	524288	
27917.5	0.0036604	524288	524288	
27948.4	0.00368333	524288	524288	
27979.4	0.0037044	524288	524288	
28010.3	0.00372351	524288	524288	
28041.3	0.00374059	524288	524288	
28072.2	0.00375553	524288	524288	
28103.2	0.00376824	524288	524288	
28134.1	0.00377861	524288	524288	
28165.1	0.00378652	524288	524288	
28196	0.00379187	524288	524288	
28227	0.00379453	524288	524288	
28257.9	0.00379438	524288	524288	
28288.9	0.00379129	524288	524288	
28319.8	0.00378513	524288	524288	
28350.8	0.00377577	524288	524288	
28381.7	0.00376307	524288	524288	
28412.7	0.00374689	524288	524288	
28443.6	0.00372711	524288	524288	
28474.6	0.00370358	524288	524288	
28505.5	0.00367616	524288	524288	
28536.5	0.00364474	524288	524288	
28567.4	0.00360916	524288	524288	
28598.4	0.00356931	524288	524288	
28629.3	0.00352505	524288	524288	
28660.3	0.00347626	524288	524288	
28691.2	0.00342282	524288	524288	
28722.2	0.00336461	524288	524288	
28753.1	0.00330152	524288	524288	
28784.1	0.00323346	524288	524288	
28815	0.00316031	524288	524288	
28846	0.00308199	524288	524288	
28876.9	0.00299841	524288	524288	
28907.9	0.00290949	524288	524288	
28938.8	0.00281517	524288	524288	
28969.8	0.00271539	524288	524288	
29000.7	0.00261008	524288	524288	
29031.7	0.00249921	524288	524288	
29062.6	0.00238275	524288	524288	
29093.6	0.00226068	524288	524288	
29124.5	0.00213297	524288	524288	
29155.5	0.00199962	524288	524288	
29186.4	0.00186066	524288	524288	
29217.4	0.00171608	524288	524288	
29248.3	0.00156593	524288	524288	
29279.3	0.00141025	524288	524288	
29310.2	0.00124909	524288	524288	
29341.2	0.00108251	524288	524288	
29372.1	0.0009106	524288	524288	
29403.1	0.000733436	524288	524288	
29434	0.000551124	524288	524288	
29465	0.000363774	524288	524288	
29495.9	0.000171511	524288	524288	
29526.9	-2.55308e-05	524288	524288	
29557.8	-0.000227204	524288	524288	
29588.8	-0.00043335	524288	524288	
29619.7	-0.000643801	524288	524288	
29650.7	-0.000858376	524288	524288	
29681.6	-0.00107688	524288	524288	
29712.6	-0.00129912	524288	524288	
29743.5	-0.00152488	524288	524288	
29774.5	-0.00175394	524288	524288	
29805.4	-0.00198607	524288	524288	
29836.4	-0.00222103	524288	524288	
29867.3	-0.00245856	524288	524288	
29898.3	-0.00269842	524288	524288	
29929.3	-0.00294033	524288	524288	
29960.2	-0.00318403	524288	524288	
29991.2	-0.00342924	524288	524288	
30022.1	-0.00367566	524288	524288	
30053.1	-0.00392302	524288	524288	
30084	-0.004171	524288	524288	
30115	-0.00441931	524288	524288	
30145.9	-0.00466765	524288	524288	
30176.9	-0.0049157	524288	524288	
30207.8	-0.00516314	524288	524288	
30238.8	-0.00540967	524288	524288	
30269.7	-0.00565497	524288	524288	
30300.7	-0.00589871	524288	524288	
30331.6	-0.00614058	524288	524288	
30362.6	-0.00638026	524288	524288	
30393.5	-0.00661742	524288	524288	
30424.5	-0.00685175	524288	524288	
30455.4	-0.00708293	524288	524288	
30486.4	-0.00731065	524288	524288	
30517.3	-0.0075346	524288	524288	
30548.3	-0.00775446	524288	524288	
30579.2	-0.00796993	524288	524288	
30610.2	-0.00818072	524288	524288	
30641.1	-0.00838653	524288	524288	
30672.1	-0.00858707	524288	524288	
30703	-0.00878205	524288	524288	
30734	-0.00897122	524288	524288	
30764.9	-0.00915428	524288	524288	
30795.9	-0.009331	524288	524288	
30826.8	-0.0095011	524288	524288	
30857.8	-0.00966437	524288	524288	
30888.7	-0.00982055	524288	524288	
30919.7	-0.00996942	524288	524288	
30950.6	-0.0101108	524288	524288	
30981.6	-0.0102444	524288	524288	
31012.5	-0.0103702	524288	524288	
31043.5	-0.0104878	524288	524288	
31074.4	-0.0105972	524288	524288	
31105.4	-0.0106981	524288	524288	
31136.3	-0.0107905	524288	524288	
31167.3	-0.0108742	524288	524288	
31198.2	-0.0109491	524288	524288	
31229.2	-0.0110151	524288	524288	
31260.1	-0.0110721	524288	524288	
31291.1	-0.01112	524288	524288	
31322	-0.0111587	524288	524288	
31353	-0.0111882	524288	524288	
31383.9	-0.0112084	524288	524288	
31414.9	-0.0112194	524288	524288	
31445.8	-0.0112211	524288	524288	
31476.8	-0.0112135	524288	524288	
31507.7	-0.0111967	524288	524288	
31538.7	-0.0111706	524288	524288	
31569.6	-0.0111353	524288	524288	
31600.6	-0.0110908	524288	524288	
31631.5	-0.0110373	524288	524288	
31662.5	-0.0109748	524288	524288	
31693.4	-0.0109033	524288	524288	
31724.4	-0.0108231	524288	524288	
31755.3	-0.0107342	524288	524288	
31786.3	-0.0106368	524288	524288	
31817.2	-0.010531	524288	524288	
31848.2	-0.0104169	524288	524288	
31879.1	-0.0102948	524288	524288	
31910.1	-0.0101647	524288	524288	
31941	-0.010027	524288	524288	
31972	-0.00988171	524288	524288	
32002.9	-0.00972914	524288	524288	
32033.9	-0.00956949	524288	524288	
32064.8	-0.00940298	524288	524288	
32095.8	-0.00922985	524288	524288	
32126.7	-0.00905034	524288	524288	
32157.7	-0.00886471	524288	524288	
32188.6	-0.00867321	524288	524288	
32219.6	-0.00847611	524288	524288	
32250.5	-0.00827368	524288	524288	
32281.5	-0.0080662	524288	524288	
32312.4	-0.00785395	524288	524288	
32343.4	-0.00763721	524288	524288	
32374.4	-0.0074163	524288	524288	
32405.3	-0.00719149	524288	524288	
32436.3	-0.00696309	524288	524288	
32467.2	-0.0067314	524288	524288	
32498.2	-0.00649672	524288	524288	
32529.1	-0.00625937	524288	524288	
32560.1	-0.00601965	524288	524288	
32591	-0.00577786	524288	524288	
32622	-0.00553432	524288	524288	
32652.9	-0.00528934	524288	524288	
32683.9	-0.00504321	524288	524288	
32714.8	-0.00479625	524288	524288	
32745.8	-0.00454877	524288	524288	
32776.7	-0.00430105	524288	524288	
32807.7	-0.00405341	524288	524288	
32838.6	-0.00380614	524288	524288	
32869.6	-0.00355953	524288	524288	
32900.5	-0.00331386	524288	524288	
32931.5	-0.00306943	524288	524288	
32962.4	-0.00282651	524288	524288	
32993.4	-0.00258538	524288	524288	
33024.3	-0.00234629	524288	524288	
33055.3	-0.00210952	524288	524288	
33086.2	-0.00187531	524288	524288	
33117.2	-0.00164392	524288	524288	
33148.1	-0.00141558	524288	524288	
33179.1	-0.00119054	524288	524288	
33210	-0.000969005	524288	524288	
33241	-0.000751203	524288	524288	
33271.9	-0.000537341	524288	524288	
33302.9	-0.000327619	524288	524288	
33333.8	-0.000122228	524288	524288	
33364.8	7.86489e-05	524288	524288	
33395.7	0.000274839	524288	524288	
33426.7	0.000466178	524288	524288	
33457.6	0.000652513	524288	524288	
33488.6	0.000833699	524288	524288	
33519.5	0.0010096	524288	524288	
33550.5	0.0011801	524288	524288	
33581.4	0.00134507	524288	524288	
33612.4	0.00150441	524288	524288	
33643.3	0.00165803	524288	524288	
33674.3	0.00180585	524288	524288	
33705.2	0.00194778	524288	524288	
33736.2	0.00208377	524288	524288	
33767.1	0.00221377	524288	524288	
33798.1	0.00233771	524288	524288	
33829	0.00245558	524288	524288	
33860	0.00256735	524288	524288	
33890.9	0.002673	524288	524288	
33921.9	0.00277253	524288	524288	
33952.8	0.00286595	524288	524288	
33983.8	0.00295326	524288	524288	
34014.7	0.00303449	524288	524288	
34045.7	0.00310967	524288	524288	
34076.6	0.00317884	524288	524288	
34107.6	0.00324206	524288	524288	
34138.5	0.00329937	524288	524288	
34169.5	0.00335085	524288	524288	
34200.4	0.00339657	524288	524288	
34231.4	0.0034366	524288	524288	
34262.3	0.00347105	524288	524288	
34293.3	0.00349999	524288	524288	
34324.2	0.00352355	524288	524288	
34355.2	0.00354181	524288	524288	
34386.1	0.00355491	524288	524288	
34417.1	0.00356295	524288	524288	
34448	0.00356607	524288	524288	
34479	0.00356439	524288	524288	
34509.9	0.00355806	524288	524288	
34540.9	0.00354721	524288	524288	
34571.8	0.00353198	524288	524288	
34602.8	0.00351253	524288	524288	
34633.7	0.00348901	524288	524288	
34664.7	0.00346156	524288	524288	
34695.6	0.00343036	524288	524288	
34726.6	0.00339555	524288	524288	
34757.5	0.00335731	524288	524288	
34788.5	0.00331579	524288	524288	
34819.4	0.00327116	524288	524288	
34850.4	0.00322358	524288	524288	
34881.4	0.00317323	524288	524288	
34912.3	0.00312026	524288	524288	
34943.3	0.00306485	524288	524288	
34974.2	0.00300716	524288	524288	
35005.2	0.00294736	524288	524288	
35036.1	0.00288561	524288	524288	
35067.1	0.00282207	524288	524288	
35098	0.00275691	524288	524288	
35129	0.00269029	524288	524288	
35159.9	0.00262237	524288	524288	
35190.9	0.0025533	524288	524288	
35221.8	0.00248323	524288	524288	
35252.8	0.00241231	524288	524288	
35283.7	0.0023407	524288	524288	
35314.7	0.00226853	524288	524288	
35345.6	0.00219594	524288	524288	
35376.6	0.00212307	524288	524288	
35407.5	0.00205005	524288	524288	
35438.5	0.00197701	524288	524288	
35469.4	0.00190407	524288	524288	
35500.4	0.00183135	524288	524288	
35531.3	0.00175897	524288	524288	
35562.3	0.00168703	524288	524288	
35593.2	0.00161564	524288	524288	
35624.2	0.00154489	524288	524288	
35655.1	0.00147489	524288	524288	
35686.1	0.00140572	524288	524288	
35717	0.00133746	524288	524288	
35748	0.00127019	524288	524288	
35778.9	0.00120399	524288	524288	
35809.9	0.00113892	524288	524288	
35840.8	0.00107505	524288	524288	
35871.8	0.00101243	524288	524288	
35902.7	0.000951115	524288	524288	
35933.7	0.000891151	524288	524288	
35964.6	0.000832578	524288	524288	
35995.6	0.000775433	524288	524288	
36026.5	0.000719745	524288	524288	
36057.5	0.000665541	524288	524288	
36088.4	0.000612841	524288	524288	
36119.4	0.000561659	524288	524288	
36150.3	0.000512007	524288	524288	
36181.3	0.000463891	524288	524288	
36212.2	0.000417311	524288	524288	
36243.2	0.000372264	524288	524288	
36274.1	0.000328742	524288	524288	
36305.1	0.000286734	524288	524288	
36336	0.000246222	524288	524288	
36367	0.000207188	524288	524288	
36397.9	0.000169607	524288	524288	
36428.9	0.000133451	524288	524288	
36459.8	9.86906e-05	524288	524288	
36490.8	6.52902e-05	524288	524288	
36521.7	3.3213e-05	524288	524288	
36552.7	2.41849e-06	524288	524288	
36583.6	-2.71363e-05	524288	524288	
36614.6	-5.54971e-05	524288	524288	
36645.5	-8.27119e-05	524288	524288	
36676.5	-0.000108831	524288	524288	
36707.4	-0.000133906	524288	524288	
36738.4	-0.000157993	524288	524288	
36769.3	-0.000181145	524288	524288	
36800.3	-0.000203421	524288	524288	
36831.2	-0.000224879	524288	524288	
36862.2	-0.000245579	524288	524288	
36893.1	-0.00026558	524288	524288	
36924.1	-0.000284945	524288	524288	
36955	-0.000303735	524288	524288	
36986	-0.000322011	524288	524288	
37016.9	-0.000339838	524288	524288	
37047.9	-0.000357276	524288	524288	
37078.8	-0.000374388	524288	524288	
37109.8	-0.000391235	524288	524288	
37140.7	-0.000407881	524288	524288	
37171.7	-0.000424384	524288	524288	
37202.6	-0.000440806	524288	524288	
37233.6	-0.000457206	524288	524288	
37264.5	-0.000473642	524288	524288	
37295.5	-0.000490171	524288	524288	
37326.4	-0.000506849	524288	524288	
37357.4	-0.000523731	524288	524288	
37388.4	-0.000540869	524288	524288	
37419.3	-0.000558314	524288	524288	
37450.3	-0.000576117	524288	524288	
37481.2	-0.000594324	524288	524288	
37512.2	-0.000612983	524288	524288	
37543.1	-0.000632136	524288	524288	
37574.1	-0.000651825	524288	524288	
37605	-0.00067209	524288	524288	
37636	-0.000692969	524288	524288	
37666.9	-0.000714495	524288	524288	
37697.9	-0.000736703	524288	524288	
37728.8	-0.000759622	524288	524288	
37759.8	-0.00078328	524288	524288	
37790.7	-0.000807703	524288	524288	
37821.7	-0.000832913	524288	524288	
37852.6	-0.00085893	524288	524288	
37883.6	-0.000885772	524288	524288	
37914.5	-0.000913454	524288	524288	
37945.5	-0.000941988	524288	524288	
37976.4	-0.000971385	524288	524288	
38007.4	-0.00100165	524288	524288	
38038.3	-0.00103279	524288	524288	
38069.3	-0.0010648	524288	524288	
38100.2	-0.00109769	524288	524288	
38131.2	-0.00113145	524288	524288	
38162.1	-0.00116608	524288	524288	
38193.1	-0.00120156	524288	524288	
38224	-0.00123788	524288	524288	
38255	-0.00127504	524288	524288	
38285.9	-0.00131301	524288	524288	
38316.9	-0.00135177	524288	524288	
38347.8	-0.00139131	524288	524288	
38378.8	-0.00143159	524288	524288	
38409.7	-0.0014726	524288	524288	
38440.7	-0.0015143	524288	524288	
38471.6	-0.00155667	524288	524288	
38502.6	-0.00159967	524288	524288	
38533.5	-0.00164326	524288	524288	
38564.5	-0.00168741	524288	524288	
38595.4	-0.00173207	524288	524288	
38626.4	-0.00177721	524288	524288	
38657.3	-0.00182278	524288	524288	
38688.3	-0.00186874	524288	524288	
38719.2	-0.00191503	524288	524288	
38750.2	-0.00196162	524288	524288	
38781.1	-0.00200844	524288	524288	
38812.1	-0.00205544	524288	524288	
38843	-0.00210257	524288	524288	
38874	-0.00214978	524288	524288	
38904.9	-0.00219701	524288	524288	
38935.9	-0.00224419	524288	524288	
38966.8	-0.00229127	524288	524288	
38997.8	-0.00233819	524288	524288	
39028.7	-0.00238488	524288	524288	
39059.7	-0.00243128	524288	524288	
39090.6	-0.00247733	524288	524288	
39121.6	-0.00252297	524288	524288	
39152.5	-0.00256811	524288	524288	
39183.5	-0.00261271	524288	524288	
39214.4	-0.00265668	524288	524288	
39245.4	-0.00269997	524288	524288	
39276.3	-0.00274251	524288	524288	
39307.3	-0.00278422	524288	524288	
39338.2	-0.00282504	524288	524288	
39369.2	-0.00286489	524288	524288	
39400.1	-0.00290372	524288	524288	
39431.1	-0.00294145	524288	524288	
39462	-0.002978	524288	524288	
39493	-0.00301332	524288	524288	
39523.9	-0.00304733	524288	524288	
39554.9	-0.00307997	524288	524288	
39585.8	-0.00311117	524288	524288	
39616.8	-0.00314085	524288	524288	
39647.7	-0.00316896	524288	524288	
39678.7	-0.00319543	524288	524288	
39709.6	-0.00322019	524288	524288	
39740.6	-0.00324318	524288	524288	
39771.5	-0.00326434	524288	524288	
39802.5	-0.00328361	524288	524288	
39833.4	-0.00330091	524288	524288	
39864.4	-0.00331621	524288	524288	
39895.4	-0.00332943	524288	524288	
39926.3	-0.00334052	524288	524288	
39957.3	-0.00334942	524288	524288	
39988.2	-0.0033561	524288	524288	
40019.2	-0.00336048	524288	524288	
40050.1	-0.00336252	524288	524288	
40081.1	-0.00336218	524288	524288	
40112	-0.00335941	524288	524288	
40143	-0.00335417	524288	524288	
40173.9	-0.00334641	524288	524288	
40204.9	-0.00333609	524288	524288	
40235.8	-0.00332318	524288	524288	
40266.8	-0.00330764	524288	524288	
40297.7	-0.00328945	524288	524288	
40328.7	-0.00326856	524288	524288	
40359.6	-0.00324496	524288	524288	
40390.6	-0.00321862	524288	524288	
40421.5	-0.00318951	524288	524288	
40452.5	-0.00315762	524288	524288	
40483.4	-0.00312293	524288	524288	
40514.4	-0.00308542	524288	524288	
40545.3	-0.00304509	524288	524288	
40576.3	-0.00300192	524288	524288	
40607.2	-0.00295592	524288	524288	
40638.2	-0.00290707	524288	524288	
40669.1	-0.00285538	524288	524288	
40700.1	-0.00280086	524288	524288	
40731	-0.00274349	524288	524288	
40762	-0.00268331	524288	524288	
40792.9	-0.00262031	524288	524288	
40823.9	-0.00255452	524288	524288	
40854.8	-0.00248594	524288	524288	
40885.8	-0.00241461	524288	524288	
40916.7	-0.00234055	524288	524288	
40947.7	-0.00226377	524288	524288	
40978.6	-0.00218432	524288	524288	
41009.6	-0.00210223	524288	524288	
41040.5	-0.00201752	524288	524288	
41071.5	-0.00193025	524288	524288	
41102.4	-0.00184044	524288	524288	
41133.4	-0.00174815	524288	524288	
41164.3	-0.00165342	524288	524288	
41195.3	-0.0015563	524288	524288	
41226.2	-0.00145685	524288	524288	
41257.2	-0.00135511	524288	524288	
41288.1	-0.00125115	524288	524288	
41319.1	-0.00114502	524288	524288	
41350	-0.0010368	524288	524288	
41381	-0.000926537	524288	524288	
41411.9	-0.000814307	524288	524288	
41442.9	-0.000700179	524288	524288	
41473.8	-0.000584223	524288	524288	
41504.8	-0.000466515	524288	524288	
41535.7	-0.000347131	524288	524288	
41566.7	-0.000226148	524288	524288	
41597.6	-0.000103648	524288	524288	
41628.6	2.02886e-05	524288	524288	
41659.5	0.000145577	524288	524288	
41690.5	0.000272132	524288	524288	
41721.4	0.000399867	524288	524288	
41752.4	0.000528693	524288	524288	
41783.3	0.000658519	524288	524288	
41814.3	0.000789255	524288	524288	
41845.2	0.000920808	524288	524288	
41876.2	0.00105308	524288	524288	
41907.1	0.00118599	524288	524288	
41938.1	0.00131942	524288	524288	
41969	0.0014533	524288	524288	
42000	0.00158751	524288	524288	
42030.9	0.00172196	524288	524288	
42061.9	0.00185655	524288	524288	
42092.8	0.00199119	524288	524288	
42123.8	0.00212577	524288	524288	
42154.7	0.00226019	524288	524288	
42185.7	0.00239435	524288	524288	
42216.6	0.00252816	524288	524288	
42247.6	0.00266151	524288	524288	
42278.5	0.0027943	524288	524288	
42309.5	0.00292644	524288	524288	
42340.5	0.00305782	524288	524288	
42371.4	0.00318835	524288	524288	
42402.4	0.00331792	524288	524288	
42433.3	0.00344644	524288	524288	
42464.3	0.00357381	524288	524288	
42495.2	0.00369994	524288	524288	
42526.2	0.00382472	524288	524288	
42557.1	0.00394807	524288	524288	
42588.1	0.00406988	524288	524288	
42619	0.00419008	524288	524288	
42650	0.00430856	524288	524288	
42680.9	0.00442523	524288	524288	
42711.9	0.00454001	524288	524288	
42742.8	0.00465281	524288	524288	
42773.8	0.00476355	524288	524288	
42804.7	0.00487213	524288	524288	
42835.7	0.00497848	524288	524288	
42866.6	0.00508251	524288	524288	
42897.6	0.00518415	524288	524288	
42928.5	0.00528332	524288	524288	
42959.5	0.00537995	524288	524288	
42990.4	0.00547395	524288	524288	
43021.4	0.00556526	524288	524288	
43052.3	0.00565381	524288	524288	
43083.3	0.00573953	524288	524288	
43114.2	0.00582236	524288	524288	
43145.2	0.00590223	524288	524288	
43176.1	0.00597909	524288	524288	
