0	0	131072	131072	
64.3792	0	131072	131072	
128.758	0	131072	131072	
193.138	0	131072	131072	
257.517	0	131072	131072	
321.896	0	131072	131072	
386.275	0	131072	131072	
450.655	0	131072	131072	
515.034	0	131072	131072	
579.413	0	131072	131072	
643.792	0	131072	131072	
708.171	0	131072	131072	
772.551	0	131072	131072	
836.93	0	131072	131072	
901.309	0	131072	131072	
965.688	0	131072	131072	
1030.07	0	131072	131072	
1094.45	0	131072	131072	
1158.83	0	131072	131072	
1223.21	0	131072	131072	
1287.58	0	131072	131072	
1351.96	0	131072	131072	
1416.34	0	131072	131072	
1480.72	0	131072	131072	
1545.1	0	131072	131072	
1609.48	0	131072	131072	
1673.86	0	131072	131072	
1738.24	0	131072	131072	
1802.62	0	131072	131072	
1867	0	131072	131072	
1931.38	0	131072	131072	
1995.76	0	131072	131072	
2060.14	0	131072	131072	
2124.51	0	131072	131072	
2188.89	0	131072	131072	
2253.27	0	131072	131072	
2317.65	0	131072	131072	
2382.03	0	131072	131072	
2446.41	0	131072	131072	
2510.79	0	131072	131072	
2575.17	0	131072	131072	
2639.55	0	131072	131072	
2703.93	0	131072	131072	
2768.31	0	131072	131072	
2832.69	0	131072	131072	
2897.07	0	131072	131072	
2961.44	0	131072	131072	
3025.82	0	131072	131072	
3090.2	0	131072	131072	
3154.58	0	131072	131072	
3218.96	0	131072	131072	
3283.34	0	131072	131072	
3347.72	0	131072	131072	
3412.1	0	131072	131072	
3476.48	0	131072	131072	
3540.86	0	131072	131072	
3605.24	0	131072	131072	
3669.62	0	131072	131072	
3733.99	0	131072	131072	
3798.37	0	131072	131072	
3862.75	0	131072	131072	
3927.13	0	131072	131072	
3991.51	0	131072	131072	
4055.89	0	131072	131072	
4120.27	0	131072	131072	
4184.65	0	131072	131072	
4249.03	0	131072	131072	
4313.41	0	131072	131072	
4377.79	0	131072	131072	
4442.17	0	131072	131072	
4506.55	0	131072	131072	
4570.92	0	131072	131072	
4635.3	0	131072	131072	
4699.68	0	131072	131072	
4764.06	0	131072	131072	
4828.44	0	131072	131072	
4892.82	0	131072	131072	
4957.2	0	131072	131072	
5021.58	0	131072	131072	
5085.96	0	131072	131072	
5150.34	0	131072	131072	
5214.72	0	131072	131072	
5279.1	0	131072	131072	
5343.48	0	131072	131072	
5407.85	0	131072	131072	
5472.23	0	131072	131072	
5536.61	0	131072	131072	
5600.99	0	131072	131072	
5665.37	0	131072	131072	
5729.75	0	131072	131072	
5794.13	0	131072	131072	
5858.51	0	131072	131072	
5922.89	0	131072	131072	
5987.27	0	131072	131072	
6051.65	0	131072	131072	
6116.03	0	131072	131072	
6180.41	0	131072	131072	
6244.78	0	131072	131072	
6309.16	0	131072	131072	
6373.54	0	131072	131072	
6437.92	0	131072	131072	
6502.3	0	131072	131072	
6566.68	0	131072	131072	
6631.06	0	131072	131072	
6695.44	0	131072	131072	
6759.82	0	131072	131072	
6824.2	0	131072	131072	
6888.58	0	131072	131072	
6952.96	0	131072	131072	
7017.34	0	131072	131072	
7081.71	0	131072	131072	
7146.09	0	131072	131072	
7210.47	0	131072	131072	
7274.85	0	131072	131072	
7339.23	0	131072	131072	
7403.61	0	131072	131072	
7467.99	0	131072	131072	
7532.37	0	131072	131072	
7596.75	0	131072	131072	
7661.13	0	131072	131072	
7725.51	0	131072	131072	
7789.89	0	131072	131072	
7854.27	0	131072	131072	
7918.64	0	131072	131072	
7983.02	0	131072	131072	
8047.4	0	131072	131072	
8111.78	0	131072	131072	
8176.16	0	131072	131072	
8240.54	0	131072	131072	
8304.92	0	131072	131072	
8369.3	0	131072	131072	
8433.68	0	131072	131072	
8498.06	0	131072	131072	
8562.44	0	131072	131072	
8626.82	0	131072	131072	
8691.2	0	131072	131072	
8755.57	0	131072	131072	
8819.95	0	131072	131072	
8884.33	0	131072	131072	
8948.71	0	131072	131072	
9013.09	0	131072	131072	
9077.47	0	131072	131072	
9141.85	0	131072	131072	
9206.23	0	131072	131072	
9270.61	0	131072	131072	
9334.99	0	131072	131072	
9399.37	0	131072	131072	
9463.75	0	131072	131072	
9528.12	0	131072	131072	
9592.5	0	131072	131072	
9656.88	0	131072	131072	
9721.26	0	131072	131072	
9785.64	0	131072	131072	
9850.02	0	131072	131072	
9914.4	0	131072	131072	
9978.78	0	131072	131072	
10043.2	0	131072	131072	
10107.5	0	131072	131072	
10171.9	0	131072	131072	
10236.3	0	131072	131072	
10300.7	0	131072	131072	
10365.1	0	131072	131072	
10429.4	0	131072	131072	
10493.8	0	131072	131072	
10558.2	0	131072	131072	
10622.6	0	131072	131072	
10687	0	131072	131072	
10751.3	0	131072	131072	
10815.7	0	131072	131072	
10880.1	0	131072	131072	
10944.5	0	131072	131072	
11008.8	0	131072	131072	
11073.2	0	131072	131072	
11137.6	0	131072	131072	
11202	0	131072	131072	
11266.4	0	131072	131072	
11330.7	0	131072	131072	
11395.1	0	131072	131072	
11459.5	0	131072	131072	
11523.9	0	131072	131072	
11588.3	0	131072	131072	
11652.6	0	131072	131072	
11717	0	131072	131072	
11781.4	0	131072	131072	
11845.8	0	131072	131072	
11910.2	0	131072	131072	
11974.5	0	131072	131072	
12038.9	0	131072	131072	
12103.3	0	131072	131072	
12167.7	0	131072	131072	
12232.1	0	131072	131072	
12296.4	0	131072	131072	
12360.8	0	131072	131072	
12425.2	0	131072	131072	
12489.6	0	131072	131072	
12553.9	0	131072	131072	
12618.3	0	131072	131072	
12682.7	0	131072	131072	
12747.1	0	131072	131072	
12811.5	0	131072	131072	
12875.8	0	131072	131072	
12940.2	0	131072	131072	
13004.6	0	131072	131072	
13069	0	131072	131072	
13133.4	0	131072	131072	
13197.7	0	131072	131072	
13262.1	0	131072	131072	
13326.5	0	131072	131072	
13390.9	0	131072	131072	
13455.3	0	131072	131072	
13519.6	0	131072	131072	
13584	0	131072	131072	
13648.4	0	131072	131072	
13712.8	0	131072	131072	
13777.2	0	131072	131072	
13841.5	0	131072	131072	
13905.9	0	131072	131072	
13970.3	0	131072	131072	
14034.7	0	131072	131072	
14099	0	131072	131072	
14163.4	0	131072	131072	
14227.8	0	131072	131072	
14292.2	0	131072	131072	
14356.6	0	131072	131072	
14420.9	0	131072	131072	
14485.3	0	131072	131072	
14549.7	0	131072	131072	
14614.1	0	131072	131072	
14678.5	0	131072	131072	
14742.8	0	131072	131072	
14807.2	0	131072	131072	
14871.6	0	131072	131072	
14936	0	131072	131072	
15000.4	0	131072	131072	
15064.7	0	131072	131072	
15129.1	0	131072	131072	
15193.5	0	131072	131072	
15257.9	0	131072	131072	
15322.3	0	131072	131072	
15386.6	0	131072	131072	
15451	0	131072	131072	
15515.4	0	131072	131072	
15579.8	0	131072	131072	
15644.2	0	131072	131072	
15708.5	0	131072	131072	
15772.9	0	131072	131072	
15837.3	0	131072	131072	
15901.7	0	131072	131072	
15966	0	131072	131072	
16030.4	0	131072	131072	
16094.8	0	131072	131072	
16159.2	0	131072	131072	
16223.6	0	131072	131072	
16287.9	0	131072	131072	
16352.3	0	131072	131072	
16416.7	0	131072	131072	
16481.1	0	131072	131072	
16545.5	0	131072	131072	
16609.8	0	131072	131072	
16674.2	0	131072	131072	
16738.6	0	131072	131072	
16803	0	131072	131072	
16867.4	0	131072	131072	
16931.7	0	131072	131072	
16996.1	0	131072	131072	
17060.5	0	131072	131072	
17124.9	0	131072	131072	
17189.3	0	131072	131072	
17253.6	0	131072	131072	
17318	0	131072	131072	
17382.4	0	131072	131072	
17446.8	0	131072	131072	
17511.1	0	131072	131072	
17575.5	0	131072	131072	
17639.9	0	131072	131072	
17704.3	0	131072	131072	
17768.7	0	131072	131072	
17833	0	131072	131072	
17897.4	0	131072	131072	
17961.8	0	131072	131072	
18026.2	0	131072	131072	
18090.6	0	131072	131072	
18154.9	0	131072	131072	
18219.3	0	131072	131072	
18283.7	0	131072	131072	
18348.1	0	131072	131072	
18412.5	0	131072	131072	
18476.8	0	131072	131072	
18541.2	0	131072	131072	
18605.6	0	131072	131072	
18670	0	131072	131072	
18734.4	0	131072	131072	
18798.7	0	131072	131072	
18863.1	0	131072	131072	
18927.5	0	131072	131072	
18991.9	0	131072	131072	
19056.2	0	131072	131072	
19120.6	0	131072	131072	
19185	0	131072	131072	
19249.4	0	131072	131072	
19313.8	0	131072	131072	
19378.1	0	131072	131072	
19442.5	0	131072	131072	
19506.9	0	131072	131072	
19571.3	0	131072	131072	
19635.7	0	131072	131072	
19700	0	131072	131072	
19764.4	0	131072	131072	
19828.8	0	131072	131072	
19893.2	0	131072	131072	
19957.6	0	131072	131072	
20021.9	0	131072	131072	
20086.3	0	131072	131072	
20150.7	0	131072	131072	
20215.1	0	131072	131072	
20279.5	0	131072	131072	
20343.8	0	131072	131072	
20408.2	0	131072	131072	
20472.6	0	131072	131072	
20537	0	131072	131072	
20601.4	0	131072	131072	
20665.7	0	131072	131072	
20730.1	0	131072	131072	
20794.5	0	131072	131072	
20858.9	0	131072	131072	
20923.2	0	131072	131072	
20987.6	0	131072	131072	
21052	0	131072	131072	
21116.4	0	131072	131072	
21180.8	0	131072	131072	
21245.1	0	131072	131072	
21309.5	0	131072	131072	
21373.9	4.54747e-13	131072	131072	
21438.3	9.09495e-13	131072	131072	
21502.7	1.36424e-12	131072	131072	
21567	1.81899e-12	131072	131072	
21631.4	2.72848e-12	131072	131072	
21695.8	3.63798e-12	131072	131072	
21760.2	5.00222e-12	131072	131072	
21824.6	6.36646e-12	131072	131072	
21888.9	8.6402e-12	131072	131072	
21953.3	1.09139e-11	131072	131072	
22017.7	1.40972e-11	131072	131072	
22082.1	1.77351e-11	131072	131072	
22146.5	2.27374e-11	131072	131072	
22210.8	2.86491e-11	131072	131072	
22275.2	3.5925e-11	131072	131072	
22339.6	4.502e-11	131072	131072	
22404	5.63887e-11	131072	131072	
22468.3	7.04858e-11	131072	131072	
22532.7	8.77662e-11	131072	131072	
22597.1	1.08685e-10	131072	131072	
22661.5	1.34605e-10	131072	131072	
22725.9	1.65528e-10	131072	131072	
22790.2	2.02817e-10	131072	131072	
22854.6	2.48292e-10	131072	131072	
22919	3.02407e-10	131072	131072	
22983.4	3.67436e-10	131072	131072	
23047.8	4.45198e-10	131072	131072	
23112.1	5.37511e-10	131072	131072	
23176.5	6.46651e-10	131072	131072	
23240.9	7.75799e-10	131072	131072	
23305.3	9.27685e-10	131072	131072	
23369.7	1.1064e-09	131072	131072	
23434	1.31558e-09	131072	131072	
23498.4	1.55933e-09	131072	131072	
23562.8	1.84309e-09	131072	131072	
23627.2	2.17233e-09	131072	131072	
23691.6	2.55341e-09	131072	131072	
23755.9	2.99224e-09	131072	131072	
23820.3	3.49701e-09	131072	131072	
23884.7	4.0759e-09	131072	131072	
23949.1	4.73756e-09	131072	131072	
24013.4	5.49198e-09	131072	131072	
24077.8	6.34964e-09	131072	131072	
24142.2	7.32143e-09	131072	131072	
24206.6	8.41965e-09	131072	131072	
24271	9.65747e-09	131072	131072	
24335.3	1.10485e-08	131072	131072	
24399.7	1.26079e-08	131072	131072	
24464.1	1.43514e-08	131072	131072	
24528.5	1.62945e-08	131072	131072	
24592.9	1.8455e-08	131072	131072	
24657.2	2.08506e-08	131072	131072	
24721.6	2.34995e-08	131072	131072	
24786	2.64208e-08	131072	131072	
24850.4	2.96336e-08	131072	131072	
24914.8	3.31574e-08	131072	131072	
24979.1	3.70123e-08	131072	131072	
25043.5	4.12174e-08	131072	131072	
25107.9	4.57926e-08	131072	131072	
25172.3	5.07566e-08	131072	131072	
25236.7	5.61272e-08	131072	131072	
25301	6.19216e-08	131072	131072	
25365.4	6.81548e-08	131072	131072	
25429.8	7.484e-08	131072	131072	
25494.2	8.19887e-08	131072	131072	
25558.6	8.96098e-08	131072	131072	
25622.9	9.77075e-08	131072	131072	
25687.3	1.06284e-07	131072	131072	
25751.7	1.15335e-07	131072	131072	
25816.1	1.24852e-07	131072	131072	
25880.4	1.34821e-07	131072	131072	
25944.8	1.45219e-07	131072	131072	
26009.2	1.56019e-07	131072	131072	
26073.6	1.67181e-07	131072	131072	
26138	1.78658e-07	131072	131072	
26202.3	1.90393e-07	131072	131072	
26266.7	2.02316e-07	131072	131072	
26331.1	2.14346e-07	131072	131072	
26395.5	2.26388e-07	131072	131072	
26459.9	2.38336e-07	131072	131072	
26524.2	2.50067e-07	131072	131072	
26588.6	2.61447e-07	131072	131072	
26653	2.72328e-07	131072	131072	
26717.4	2.8255e-07	131072	131072	
26781.8	2.91945e-07	131072	131072	
26846.1	3.00336e-07	131072	131072	
26910.5	3.07546e-07	131072	131072	
26974.9	3.13401e-07	131072	131072	
27039.3	3.1774e-07	131072	131072	
27103.7	3.20425e-07	131072	131072	
27168	3.21356e-07	131072	131072	
27232.4	3.20485e-07	131072	131072	
27296.8	3.17842e-07	131072	131072	
27361.2	3.13558e-07	131072	131072	
27425.5	3.07899e-07	131072	131072	
27489.9	3.01303e-07	131072	131072	
27554.3	2.94433e-07	131072	131072	
27618.7	2.88226e-07	131072	131072	
27683.1	2.83963e-07	131072	131072	
27747.4	2.83348e-07	131072	131072	
27811.8	2.88596e-07	131072	131072	
27876.2	3.02542e-07	131072	131072	
27940.6	3.2876e-07	131072	131072	
28005	3.71708e-07	131072	131072	
28069.3	4.36884e-07	131072	131072	
28133.7	5.31013e-07	131072	131072	
28198.1	6.62248e-07	131072	131072	
28262.5	8.40404e-07	131072	131072	
28326.9	1.07722e-06	131072	131072	
28391.2	1.38664e-06	131072	131072	
28455.6	1.78514e-06	131072	131072	
28520	2.29209e-06	131072	131072	
28584.4	2.9301e-06	131072	131072	
28648.8	3.7255e-06	131072	131072	
28713.1	4.70874e-06	131072	131072	
28777.5	5.91492e-06	131072	131072	
28841.9	7.38431e-06	131072	131072	
28906.3	9.16289e-06	131072	131072	
28970.7	1.1303e-05	131072	131072	
29035	1.38639e-05	131072	131072	
29099.4	1.69125e-05	131072	131072	
29163.8	2.0524e-05	131072	131072	
29228.2	2.47826e-05	131072	131072	
29292.5	2.97822e-05	131072	131072	
29356.9	3.56273e-05	131072	131072	
29421.3	4.24336e-05	131072	131072	
29485.7	5.03285e-05	131072	131072	
29550.1	5.94525e-05	131072	131072	
29614.4	6.99591e-05	131072	131072	
29678.8	8.20161e-05	131072	131072	
29743.2	9.58059e-05	131072	131072	
29807.6	0.000111526	131072	131072	
29872	0.00012939	131072	131072	
29936.3	0.000149628	131072	131072	
30000.7	0.000172486	131072	131072	
30065.1	0.000198225	131072	131072	
30129.5	0.000227128	131072	131072	
30193.9	0.000259488	131072	131072	
30258.2	0.00029562	131072	131072	
30322.6	0.000335852	131072	131072	
30387	0.00038053	131072	131072	
30451.4	0.000430012	131072	131072	
30515.8	0.000484672	131072	131072	
30580.1	0.000544896	131072	131072	
30644.5	0.00061108	131072	131072	
30708.9	0.000683633	131072	131072	
30773.3	0.000762967	131072	131072	
30837.6	0.000849504	131072	131072	
30902	0.000943667	131072	131072	
30966.4	0.00104588	131072	131072	
31030.8	0.00115656	131072	131072	
31095.2	0.00127614	131072	131072	
31159.5	0.00140501	131072	131072	
31223.9	0.00154357	131072	131072	
31288.3	0.00169221	131072	131072	
31352.7	0.00185128	131072	131072	
31417.1	0.00202113	131072	131072	
31481.4	0.00220207	131072	131072	
31545.8	0.00239437	131072	131072	
31610.2	0.00259829	131072	131072	
31674.6	0.00281403	131072	131072	
31739	0.00304176	131072	131072	
31803.3	0.00328159	131072	131072	
31867.7	0.00353359	131072	131072	
31932.1	0.00379778	131072	131072	
31996.5	0.0040741	131072	131072	
32060.9	0.00436246	131072	131072	
32125.2	0.00466268	131072	131072	
32189.6	0.00497454	131072	131072	
32254	0.00529773	131072	131072	
32318.4	0.00563188	131072	131072	
32382.7	0.00597655	131072	131072	
32447.1	0.00633122	131072	131072	
32511.5	0.00669532	131072	131072	
32575.9	0.00706819	131072	131072	
32640.3	0.00744911	131072	131072	
32704.6	0.00783728	131072	131072	
32769	0.00823185	131072	131072	
32833.4	0.0086319	131072	131072	
32897.8	0.00903644	131072	131072	
32962.2	0.00944443	131072	131072	
33026.5	0.00985479	131072	131072	
33090.9	0.0102664	131072	131072	
33155.3	0.010678	131072	131072	
33219.7	0.0110885	131072	131072	
33284.1	0.0114965	131072	131072	
33348.4	0.0119009	131072	131072	
33412.8	0.0123003	131072	131072	
33477.2	0.0126935	131072	131072	
33541.6	0.0130791	131072	131072	
33606	0.0134559	131072	131072	
33670.3	0.0138226	131072	131072	
33734.7	0.014178	131072	131072	
33799.1	0.0145208	131072	131072	
33863.5	0.0148498	131072	131072	
33927.9	0.0151639	131072	131072	
33992.2	0.0154621	131072	131072	
34056.6	0.0157433	131072	131072	
34121	0.0160066	131072	131072	
34185.4	0.016251	131072	131072	
34249.7	0.0164758	131072	131072	
34314.1	0.0166802	131072	131072	
34378.5	0.0168637	131072	131072	
34442.9	0.0170256	131072	131072	
34507.3	0.0171656	131072	131072	
34571.6	0.0172832	131072	131072	
34636	0.0173784	131072	131072	
34700.4	0.0174508	131072	131072	
34764.8	0.0175004	131072	131072	
34829.2	0.0175274	131072	131072	
34893.5	0.0175319	131072	131072	
34957.9	0.0175141	131072	131072	
35022.3	0.0174744	131072	131072	
35086.7	0.0174133	131072	131072	
35151.1	0.0173313	131072	131072	
35215.4	0.017229	131072	131072	
35279.8	0.0171071	131072	131072	
35344.2	0.0169664	131072	131072	
35408.6	0.0168078	131072	131072	
35473	0.0166321	131072	131072	
35537.3	0.0164404	131072	131072	
35601.7	0.0162336	131072	131072	
35666.1	0.0160128	131072	131072	
35730.5	0.0157791	131072	131072	
35794.8	0.0155335	131072	131072	
35859.2	0.0152773	131072	131072	
35923.6	0.0150114	131072	131072	
35988	0.0147371	131072	131072	
36052.4	0.0144555	131072	131072	
36116.7	0.0141677	131072	131072	
36181.1	0.0138747	131072	131072	
36245.5	0.0135776	131072	131072	
36309.9	0.0132774	131072	131072	
36374.3	0.0129751	131072	131072	
36438.6	0.0126715	131072	131072	
36503	0.0123677	131072	131072	
36567.4	0.0120643	131072	131072	
36631.8	0.0117621	131072	131072	
36696.2	0.0114618	131072	131072	
36760.5	0.011164	131072	131072	
36824.9	0.0108691	131072	131072	
36889.3	0.0105778	131072	131072	
36953.7	0.0102903	131072	131072	
37018.1	0.010007	131072	131072	
37082.4	0.00972809	131072	131072	
37146.8	0.00945373	131072	131072	
37211.2	0.00918401	131072	131072	
37275.6	0.00891895	131072	131072	
37339.9	0.00865851	131072	131072	
37404.3	0.00840256	131072	131072	
37468.7	0.00815092	131072	131072	
37533.1	0.00790337	131072	131072	
37597.5	0.00765962	131072	131072	
37661.8	0.00741934	131072	131072	
37726.2	0.00718214	131072	131072	
37790.6	0.00694763	131072	131072	
37855	0.00671536	131072	131072	
37919.4	0.00648486	131072	131072	
37983.7	0.00625565	131072	131072	
38048.1	0.00602722	131072	131072	
38112.5	0.00579906	131072	131072	
38176.9	0.00557067	131072	131072	
38241.3	0.00534154	131072	131072	
38305.6	0.00511118	131072	131072	
38370	0.0048791	131072	131072	
38434.4	0.00464484	131072	131072	
38498.8	0.00440798	131072	131072	
38563.2	0.0041681	131072	131072	
38627.5	0.00392484	131072	131072	
38691.9	0.00367787	131072	131072	
38756.3	0.00342689	131072	131072	
38820.7	0.00317166	131072	131072	
38885.1	0.00291199	131072	131072	
38949.4	0.00264773	131072	131072	
39013.8	0.00237877	131072	131072	
39078.2	0.00210509	131072	131072	
39142.6	0.00182668	131072	131072	
39206.9	0.00154363	131072	131072	
39271.3	0.00125604	131072	131072	
39335.7	0.000964093	131072	131072	
39400.1	0.000668014	131072	131072	
39464.5	0.00036808	131072	131072	
39528.8	6.46198e-05	131072	131072	
39593.2	-0.000241993	131072	131072	
39657.6	-0.000551337	131072	131072	
39722	-0.000862952	131072	131072	
39786.4	-0.00117634	131072	131072	
39850.7	-0.00149095	131072	131072	
39915.1	-0.00180624	131072	131072	
39979.5	-0.00212159	131072	131072	
40043.9	-0.00243639	131072	131072	
40108.3	-0.00275	131072	131072	
40172.6	-0.00306177	131072	131072	
40237	-0.00337102	131072	131072	
40301.4	-0.00367709	131072	131072	
40365.8	-0.0039793	131072	131072	
40430.2	-0.00427698	131072	131072	
40494.5	-0.00456946	131072	131072	
40558.9	-0.00485609	131072	131072	
40623.3	-0.00513622	131072	131072	
40687.7	-0.00540923	131072	131072	
40752	-0.00567453	131072	131072	
40816.4	-0.00593153	131072	131072	
40880.8	-0.00617969	131072	131072	
40945.2	-0.00641851	131072	131072	
41009.6	-0.00664749	131072	131072	
41073.9	-0.00686621	131072	131072	
41138.3	-0.00707425	131072	131072	
41202.7	-0.00727127	131072	131072	
41267.1	-0.00745695	131072	131072	
41331.5	-0.00763102	131072	131072	
41395.8	-0.00779325	131072	131072	
41460.2	-0.00794347	131072	131072	
41524.6	-0.00808154	131072	131072	
41589	-0.00820738	131072	131072	
41653.4	-0.00832095	131072	131072	
41717.7	-0.00842227	131072	131072	
41782.1	-0.00851138	131072	131072	
41846.5	-0.00858838	131072	131072	
41910.9	-0.00865342	131072	131072	
41975.3	-0.00870668	131072	131072	
42039.6	-0.00874837	131072	131072	
42104	-0.00877876	131072	131072	
42168.4	-0.00879815	131072	131072	
42232.8	-0.00880685	131072	131072	
42297.1	-0.00880523	131072	131072	
42361.5	-0.00879368	131072	131072	
42425.9	-0.0087726	131072	131072	
42490.3	-0.00874243	131072	131072	
42554.7	-0.00870361	131072	131072	
42619	-0.00865663	131072	131072	
42683.4	-0.00860195	131072	131072	
42747.8	-0.00854008	131072	131072	
42812.2	-0.0084715	131072	131072	
42876.6	-0.00839674	131072	131072	
42940.9	-0.00831629	131072	131072	
43005.3	-0.00823067	131072	131072	
43069.7	-0.00814037	131072	131072	
43134.1	-0.00804589	131072	131072	
43198.5	-0.00794773	131072	131072	
