0	0	38812	38812	
18.4875	0	38616	38616	
37.1736	0	38692	38692	
55.6611	0	38852	38852	
74.1486	0	39016	39016	
92.6361	0	39192	39192	
111.1	0	39364	39364	
129.564	0	39488	39488	
148.029	0	39604	39604	
166.348	0	39574	39574	
184.668	0	39600	39600	
202.987	0	39540	39540	
221.307	0	39570	39570	
239.627	0	39608	39608	
257.946	0	39684	39684	
276.266	0	39760	39760	
294.585	0	39850	39850	
312.905	0	39930	39930	
331.224	0	39984	39984	
349.544	0	40028	40028	
367.864	0	40116	40116	
386.183	0	40192	40192	
404.503	0	40250	40250	
422.822	0	40302	40302	
441.142	0	40406	40406	
459.461	0	40470	40470	
477.781	0	40492	40492	
496.051	0	40530	40530	
514.322	0	40576	40576	
532.592	0	40584	40584	
550.863	0	40620	40620	
569.133	0	40610	40610	
587.404	0	40598	40598	
605.674	0	40648	40648	
623.944	0	40716	40716	
642.215	0	40758	40758	
660.485	0	40802	40802	
678.756	0	40894	40894	
697.026	0	40964	40964	
715.296	0	41010	41010	
733.567	0	41106	41106	
751.837	0	41174	41174	
770.108	0	41212	41212	
788.378	0	41274	41274	
806.648	0	41336	41336	
824.919	0	41412	41412	
843.189	0	41466	41466	
861.46	0	41548	41548	
879.73	0	41612	41612	
898	0	41698	41698	
916.271	0	41764	41764	
934.541	0	41866	41866	
952.812	0	41976	41976	
971.082	0	42038	42038	
989.352	0	42134	42134	
1007.62	0	42232	42232	
1025.89	0	42308	42308	
1044.16	0	42416	42416	
1062.43	0	42476	42476	
1080.7	0	42572	42572	
1098.97	0	42650	42650	
1117.25	0	42768	42768	
1135.52	0	42890	42890	
1153.79	0	42998	42998	
1172.06	0	43136	43136	
1190.33	0	43212	43212	
1208.6	0	43348	43348	
1226.87	0	43446	43446	
1244.88	0	43530	43530	
1262.9	0	43602	43602	
1280.92	0	43668	43668	
1298.93	0	43778	43778	
1316.95	0	43866	43866	
1334.97	0	44006	44006	
1352.64	0	44094	44094	
1370.31	0	44182	44182	
1387.98	0	44252	44252	
1405.64	0	44414	44414	
1422.93	0	44558	44558	
1440.22	0	44656	44656	
1457.51	0	44762	44762	
1474.8	0	44840	44840	
1492.09	0	44926	44926	
1509.38	0	45014	45014	
1526.51	0	45090	45090	
1543.63	0	45162	45162	
1560.76	0	45270	45270	
1577.88	0	45422	45422	
1595.01	0	45490	45490	
1612.13	0	45620	45620	
1629.26	0	45728	45728	
1646.39	0	45826	45826	
1663.51	0	45916	45916	
1680.64	0	46048	46048	
1697.76	0	46140	46140	
1714.76	0	46274	46274	
1731.76	0	46392	46392	
1748.76	0	46486	46486	
1765.76	0	46608	46608	
1782.76	0	46680	46680	
1799.76	0	46746	46746	
1816.76	0	46882	46882	
1833.76	0	46978	46978	
1850.76	0	47092	47092	
1867.76	0	47200	47200	
1884.76	0	47284	47284	
1901.76	0	47336	47336	
1918.76	0	47422	47422	
1935.76	0	47542	47542	
1952.76	0	47702	47702	
1969.76	0	47788	47788	
1986.76	0	47964	47964	
2003.76	0	48034	48034	
2020.76	0	48192	48192	
2037.76	0	48270	48270	
2054.76	0	48414	48414	
2071.74	0	48532	48532	
2088.72	0	48590	48590	
2105.69	0	48640	48640	
2122.67	0	48828	48828	
2139.65	0	48920	48920	
2156.63	0	48998	48998	
2173.61	0	49066	49066	
2190.58	0	49140	49140	
2207.56	0	49218	49218	
2224.54	0	49424	49424	
2241.52	0	49568	49568	
2258.49	0	49714	49714	
2275.47	0	49810	49810	
2292.45	-9.09495e-13	49952	49952	
2309.43	-1.81899e-12	50036	50036	
2326.41	-1.81899e-12	50134	50134	
2343.38	-2.72848e-12	50232	50232	
2360.36	-3.63798e-12	50310	50310	
2377.34	-4.54747e-12	50418	50418	
2394.32	-5.45697e-12	50538	50538	
2411.3	-6.36646e-12	50632	50632	
2428.27	-7.27596e-12	50758	50758	
2445.25	-8.18545e-12	50866	50866	
2462.23	-9.09495e-12	50988	50988	
2479.21	-1.00044e-11	51086	51086	
2496.16	-1.09139e-11	51220	51220	
2513.11	-1.18234e-11	51402	51402	
2530.06	-1.36424e-11	51546	51546	
2547.02	-1.54614e-11	51642	51642	
2563.97	-1.72804e-11	51778	51778	
2580.92	-1.90994e-11	51870	51870	
2597.87	-2.09184e-11	51984	51984	
2614.52	-2.27374e-11	52064	52064	
2631.16	-2.54659e-11	52174	52174	
2647.8	-2.81943e-11	52250	52250	
2664.44	-3.09228e-11	52432	52432	
2681.08	-3.36513e-11	52594	52594	
2697.73	-3.72893e-11	52684	52684	
2714.37	-4.09273e-11	52750	52750	
2731.01	-4.45652e-11	52848	52848	
2747.56	-4.91127e-11	52936	52936	
2764.1	-5.36602e-11	53084	53084	
2780.65	-5.91172e-11	53220	53220	
2797.19	-6.45741e-11	53376	53376	
2813.74	-7.09406e-11	53482	53482	
2830.28	-7.7307e-11	53600	53600	
2846.83	-8.4583e-11	53720	53720	
2863.38	-9.1859e-11	53854	53854	
2879.92	-1.00044e-10	53932	53932	
2896.47	-1.09139e-10	54094	54094	
2913.01	-1.18234e-10	54194	54194	
2929.56	-1.28239e-10	54286	54286	
2946.1	-1.39153e-10	54446	54446	
2962.65	-1.50976e-10	54536	54536	
2979.2	-1.63709e-10	54682	54682	
2995.74	-1.77351e-10	54772	54772	
3012.29	-1.91903e-10	54866	54866	
3028.83	-2.07365e-10	54976	54976	
3045.38	-2.23736e-10	55116	55116	
3061.93	-2.41016e-10	55304	55304	
3078.47	-2.60115e-10	55422	55422	
3095.02	-2.80124e-10	55570	55570	
3111.56	-3.01043e-10	55702	55702	
3128.11	-3.2378e-10	55838	55838	
3144.65	-3.47427e-10	55976	55976	
3161.2	-3.72893e-10	56108	56108	
3177.72	-4.00178e-10	56196	56196	
3194.23	-4.29281e-10	56316	56316	
3210.75	-4.60204e-10	56446	56446	
3227.26	-4.92037e-10	56586	56586	
3243.78	-5.26597e-10	56662	56662	
3260.29	-5.62977e-10	56784	56784	
3276.81	-6.01176e-10	56888	56888	
3293.32	-6.42103e-10	56998	56998	
3309.84	-6.8485e-10	57168	57168	
3326.35	-7.30324e-10	57318	57318	
3342.87	-7.78527e-10	57508	57508	
3359.38	-8.2855e-10	57626	57626	
3375.9	-8.813e-10	57802	57802	
3392.41	-9.37689e-10	57952	57952	
3408.93	-9.96806e-10	58078	58078	
3425.44	-1.05865e-09	58206	58206	
3441.96	-1.12414e-09	58312	58312	
3458.47	-1.19235e-09	58426	58426	
3474.99	-1.2642e-09	58528	58528	
3491.5	-1.33969e-09	58654	58654	
3508.02	-1.41881e-09	58792	58792	
3524.53	-1.50158e-09	58886	58886	
3541.05	-1.58889e-09	59020	59020	
3557.56	-1.67984e-09	59124	59124	
3574.07	-1.77533e-09	59254	59254	
3590.58	-1.87538e-09	59382	59382	
3607.09	-1.97997e-09	59556	59556	
3623.6	-2.08911e-09	59702	59702	
3640.11	-2.2028e-09	59832	59832	
3656.62	-2.32194e-09	59960	59960	
3673.13	-2.44563e-09	60136	60136	
3689.64	-2.57478e-09	60276	60276	
3706.15	-2.70938e-09	60404	60404	
3722.66	-2.84945e-09	60534	60534	
3739.17	-2.99497e-09	60632	60632	
3755.68	-3.14685e-09	60730	60730	
3772.19	-3.3051e-09	60870	60870	
3788.7	-3.46972e-09	61028	61028	
3805.21	-3.64071e-09	61216	61216	
3821.72	-3.81806e-09	61340	61340	
3838.23	-4.00178e-09	61410	61410	
3854.74	-4.19277e-09	61552	61552	
3871.25	-4.39104e-09	61730	61730	
3887.76	-4.59659e-09	61880	61880	
3904.27	-4.80941e-09	62026	62026	
3920.78	-5.02951e-09	62172	62172	
3937.29	-5.25779e-09	62312	62312	
3953.8	-5.49335e-09	62430	62430	
3970.31	-5.73709e-09	62596	62596	
3986.82	-5.98902e-09	62738	62738	
4003.33	-6.25005e-09	62894	62894	
4019.84	-6.51926e-09	62988	62988	
4036.35	-6.79756e-09	63096	63096	
4052.86	-7.08496e-09	63216	63216	
4069.37	-7.38146e-09	63382	63382	
4085.88	-7.68705e-09	63562	63562	
4102.39	-8.00173e-09	63694	63694	
4118.9	-8.32551e-09	63830	63830	
4135.41	-8.6593e-09	63966	63966	
4151.92	-9.00309e-09	64060	64060	
4168.43	-9.35688e-09	64258	64258	
4184.94	-9.72068e-09	64410	64410	
4201.45	-1.00954e-08	64594	64594	
4217.96	-1.04801e-08	64700	64700	
4234.47	-1.08757e-08	64848	64848	
4250.98	-1.12814e-08	65032	65032	
4267.49	-1.16979e-08	65192	65192	
4284	-1.21254e-08	65356	65356	
4300.51	-1.25647e-08	65486	65486	
4317.02	-1.30149e-08	65632	65632	
4333.53	-1.3476e-08	65788	65788	
4350.04	-1.39489e-08	65880	65880	
4366.55	-1.44337e-08	66006	66006	
4383.06	-1.49294e-08	66132	66132	
4399.57	-1.54369e-08	66286	66286	
4416.08	-1.59562e-08	66452	66452	
4432.59	-1.64873e-08	66542	66542	
4449.1	-1.70303e-08	66648	66648	
4465.61	-1.75851e-08	66838	66838	
4482.12	-1.81526e-08	67016	67016	
4498.63	-1.8732e-08	67208	67208	
4515.14	-1.93231e-08	67340	67340	
4531.65	-1.99261e-08	67510	67510	
4548.16	-2.05418e-08	67642	67642	
4564.67	-2.11694e-08	67782	67782	
4581.18	-2.18097e-08	67954	67954	
4597.69	-2.24618e-08	68090	68090	
4614.2	-2.31266e-08	68234	68234	
4630.71	-2.38033e-08	68368	68368	
4647.22	-2.44918e-08	68504	68504	
4663.73	-2.5193e-08	68610	68610	
4680.24	-2.5906e-08	68740	68740	
4696.75	-2.66309e-08	68932	68932	
4713.26	-2.73676e-08	69118	69118	
4729.77	-2.8117e-08	69310	69310	
4746.28	-2.88783e-08	69438	69438	
4762.79	-2.96504e-08	69556	69556	
4779.3	-3.04344e-08	69734	69734	
4795.81	-3.12302e-08	69918	69918	
4812.32	-3.20379e-08	70098	70098	
4828.83	-3.28564e-08	70270	70270	
4845.34	-3.36859e-08	70418	70418	
4861.85	-3.45262e-08	70598	70598	
4878.36	-3.53775e-08	70738	70738	
4894.87	-3.62397e-08	70878	70878	
4911.38	-3.71128e-08	71024	71024	
4927.89	-3.7996e-08	71238	71238	
4944.4	-3.88891e-08	71350	71350	
4960.91	-3.97922e-08	71482	71482	
4977.42	-4.07053e-08	71638	71638	
4993.93	-4.16276e-08	71794	71794	
5010.44	-4.25589e-08	71952	71952	
5026.95	-4.34993e-08	72130	72130	
5043.46	-4.44479e-08	72284	72284	
5059.97	-4.54056e-08	72480	72480	
5076.48	-4.63715e-08	72636	72636	
5092.99	-4.73447e-08	72796	72796	
5109.5	-4.8326e-08	72980	72980	
5126.01	-4.93146e-08	73104	73104	
5142.52	-5.03096e-08	73286	73286	
5159.03	-5.1311e-08	73402	73402	
5175.54	-5.23187e-08	73556	73556	
5192.05	-5.33328e-08	73754	73754	
5208.56	-5.43523e-08	73932	73932	
5225.07	-5.53764e-08	74104	74104	
5241.58	-5.6406e-08	74238	74238	
5258.09	-5.74391e-08	74400	74400	
5274.6	-5.84769e-08	74540	74540	
5291.11	-5.95182e-08	74730	74730	
5307.62	-6.05623e-08	74886	74886	
5324.13	-6.16092e-08	75026	75026	
5340.64	-6.26587e-08	75208	75208	
5357.15	-6.37101e-08	75356	75356	
5373.66	-6.47633e-08	75486	75486	
5390.17	-6.58174e-08	75688	75688	
5406.68	-6.68724e-08	75896	75896	
5423.19	-6.79274e-08	76074	76074	
5439.7	-6.89815e-08	76264	76264	
5456.21	-7.00356e-08	76430	76430	
5472.72	-7.10879e-08	76598	76598	
5489.23	-7.21393e-08	76734	76734	
5505.74	-7.31879e-08	76916	76916	
5522.25	-7.42339e-08	77042	77042	
5538.77	-7.52771e-08	77198	77198	
5555.28	-7.63166e-08	77344	77344	
5571.79	-7.73525e-08	77514	77514	
5588.3	-7.83839e-08	77652	77652	
5604.81	-7.94098e-08	77784	77784	
5621.32	-8.04303e-08	77954	77954	
5637.83	-8.14453e-08	78070	78070	
5654.34	-8.24539e-08	78252	78252	
5670.85	-8.34552e-08	78462	78462	
5687.36	-8.44493e-08	78632	78632	
5703.87	-8.54361e-08	78850	78850	
5720.38	-8.64147e-08	78992	78992	
5736.89	-8.73852e-08	79158	79158	
5753.4	-8.83465e-08	79292	79292	
5769.91	-8.92987e-08	79438	79438	
5786.42	-9.0241e-08	79600	79600	
5802.93	-9.11732e-08	79780	79780	
5819.44	-9.20945e-08	79940	79940	
5835.95	-9.30058e-08	80128	80128	
5852.46	-9.39053e-08	80296	80296	
5868.97	-9.47939e-08	80476	80476	
5885.48	-9.56707e-08	80608	80608	
5901.99	-9.65356e-08	80834	80834	
5918.5	-9.73878e-08	80980	80980	
5935.01	-9.82272e-08	81136	81136	
5951.52	-9.9054e-08	81318	81318	
5968.03	-9.9868e-08	81522	81522	
5984.54	-1.00668e-07	81678	81678	
6001.05	-1.01456e-07	81880	81880	
6017.56	-1.0223e-07	82094	82094	
6034.07	-1.0299e-07	82266	82266	
6050.58	-1.03737e-07	82414	82414	
6067.09	-1.04471e-07	82546	82546	
6083.6	-1.05191e-07	82686	82686	
6100.11	-1.05898e-07	82840	82840	
6116.62	-1.06591e-07	83034	83034	
6133.13	-1.07271e-07	83210	83210	
6149.64	-1.07938e-07	83368	83368	
6166.15	-1.08592e-07	83536	83536	
6182.66	-1.09234e-07	83718	83718	
6199.17	-1.09864e-07	83892	83892	
6215.68	-1.10483e-07	84042	84042	
6232.19	-1.11091e-07	84244	84244	
6248.7	-1.11689e-07	84444	84444	
6265.21	-1.12277e-07	84612	84612	
6281.71	-1.12857e-07	84770	84770	
6298.22	-1.13429e-07	84942	84942	
6314.73	-1.13995e-07	85140	85140	
6331.24	-1.14555e-07	85326	85326	
6347.75	-1.15112e-07	85470	85470	
6364.26	-1.15666e-07	85622	85622	
6380.77	-1.16219e-07	85774	85774	
6397.28	-1.16773e-07	86008	86008	
6413.79	-1.17328e-07	86148	86148	
6430.3	-1.17889e-07	86346	86346	
6446.81	-1.18456e-07	86526	86526	
6463.32	-1.19032e-07	86664	86664	
6479.83	-1.19619e-07	86880	86880	
6496.34	-1.20219e-07	87042	87042	
6512.85	-1.20835e-07	87172	87172	
6529.36	-1.21468e-07	87354	87354	
6545.87	-1.22123e-07	87568	87568	
6562.38	-1.22801e-07	87730	87730	
6578.89	-1.23505e-07	87936	87936	
6595.4	-1.24237e-07	88154	88154	
6611.91	-1.25e-07	88336	88336	
6628.42	-1.25797e-07	88448	88448	
6644.93	-1.26631e-07	88588	88588	
6661.44	-1.27504e-07	88824	88824	
6677.95	-1.28421e-07	88990	88990	
6694.46	-1.29384e-07	89194	89194	
6710.97	-1.30397e-07	89382	89382	
6727.48	-1.31464e-07	89520	89520	
6743.99	-1.32589e-07	89686	89686	
6760.5	-1.33778e-07	89886	89886	
6777.01	-1.35034e-07	90026	90026	
6793.52	-1.36363e-07	90202	90202	
6810.03	-1.37772e-07	90348	90348	
6826.54	-1.39267e-07	90510	90510	
6843.05	-1.40854e-07	90756	90756	
6859.56	-1.42541e-07	90958	90958	
6876.07	-1.44332e-07	91128	91128	
6892.58	-1.46238e-07	91344	91344	
6909.09	-1.48264e-07	91500	91500	
6925.6	-1.5042e-07	91676	91676	
6942.11	-1.52712e-07	91910	91910	
6958.62	-1.55152e-07	92044	92044	
6975.13	-1.57747e-07	92262	92262	
6991.64	-1.60509e-07	92460	92460	
7008.15	-1.63449e-07	92616	92616	
7024.65	-1.66579e-07	92808	92808	
7041.16	-1.69912e-07	93008	93008	
7057.67	-1.73462e-07	93192	93192	
7074.18	-1.77243e-07	93370	93370	
7090.69	-1.81272e-07	93572	93572	
7107.2	-1.85566e-07	93754	93754	
7123.71	-1.90137e-07	93932	93932	
7140.22	-1.94966e-07	94104	94104	
7156.73	-1.99996e-07	94290	94290	
7173.24	-2.05193e-07	94482	94482	
7189.75	-2.10534e-07	94696	94696	
7206.26	-2.1601e-07	94928	94928	
7222.77	-2.21617e-07	95088	95088	
7239.28	-2.27364e-07	95226	95226	
7255.79	-2.3326e-07	95388	95388	
7272.3	-2.39324e-07	95582	95582	
7288.81	-2.4558e-07	95758	95758	
7305.32	-2.52055e-07	95950	95950	
7321.83	-2.58782e-07	96142	96142	
7338.34	-2.65801e-07	96352	96352	
7354.85	-2.73153e-07	96590	96590	
7371.36	-2.80887e-07	96790	96790	
7387.87	-2.89053e-07	96998	96998	
7404.38	-2.97704e-07	97204	97204	
7420.88	-3.0689e-07	97364	97364	
7437.39	-3.16658e-07	97558	97558	
7453.9	-3.27055e-07	97742	97742	
7470.41	-3.38126e-07	97960	97960	
7486.92	-3.49917e-07	98140	98140	
7503.43	-3.57228e-07	98308	98308	
7519.94	-3.65412e-07	98480	98480	
7536.45	-3.7413e-07	98702	98702	
7552.96	-3.83247e-07	98880	98880	
7569.47	-3.92771e-07	99066	99066	
7585.98	-4.02802e-07	99244	99244	
7602.49	-4.13473e-07	99372	99372	
7619	-4.24935e-07	99556	99556	
7635.51	-4.37357e-07	99766	99766	
7652.02	-4.50916e-07	99996	99996	
7668.53	-4.6579e-07	100212	100212	
7685.04	-4.82166e-07	100396	100396	
7701.55	-5.0023e-07	100522	100522	
7718.06	-5.2018e-07	100752	100752	
7734.57	-5.42221e-07	100926	100926	
7751.08	-5.66605e-07	101170	101170	
7767.59	-5.92788e-07	101408	101408	
7784.1	-6.20535e-07	101634	101634	
7800.61	-6.4979e-07	101874	101874	
7817.11	-6.80601e-07	102046	102046	
7833.62	-7.13094e-07	102234	102234	
7850.13	-7.47484e-07	102438	102438	
7866.64	-7.84089e-07	102634	102634	
7883.15	-8.23176e-07	102838	102838	
7899.66	-8.63495e-07	102964	102964	
7916.17	-8.57342e-07	103162	103162	
7932.68	-8.63963e-07	103398	103398	
7949.19	-8.82091e-07	103632	103632	
7965.7	-9.10487e-07	103870	103870	
7982.21	-9.47636e-07	104088	104088	
7998.72	-9.92215e-07	104246	104246	
8015.23	-1.04334e-06	104404	104404	
8031.74	-1.10064e-06	104610	104610	
8048.25	-1.16423e-06	104800	104800	
8064.76	-1.2346e-06	105016	105016	
8081.27	-1.31256e-06	105236	105236	
8097.78	-1.39918e-06	105418	105418	
8114.29	-1.49458e-06	105628	105628	
8130.8	-1.75262e-06	105846	105846	
8147.31	-2.06462e-06	106066	106066	
8163.82	-2.39081e-06	106250	106250	
8180.33	-2.73037e-06	106476	106476	
8196.84	-3.08231e-06	106686	106686	
8213.35	-3.43624e-06	106892	106892	
8229.86	-3.79839e-06	107116	107116	
8246.37	-4.19414e-06	107360	107360	
8262.88	-4.11918e-06	107610	107610	
8279.39	-4.26282e-06	107830	107830	
8295.9	-4.48458e-06	108016	108016	
8312.41	-4.83973e-06	108200	108200	
8328.92	-5.38434e-06	108412	108412	
8345.43	-6.11681e-06	108650	108650	
8361.94	-7.97755e-06	108874	108874	
8378.45	-9.29275e-06	109050	109050	
8394.96	-1.06388e-05	109278	109278	
8411.47	-1.22304e-05	109462	109462	
8427.98	-1.40075e-05	109636	109636	
8444.49	-1.59242e-05	109900	109900	
8461	-1.79679e-05	110146	110146	
8477.51	-2.01448e-05	110374	110374	
8494.02	-2.24714e-05	110578	110578	
8510.53	-2.49658e-05	110788	110788	
8527.04	-2.76279e-05	111006	111006	
8543.55	-3.04705e-05	111192	111192	
8560.06	-3.35292e-05	111456	111456	
8576.57	-3.68352e-05	111698	111698	
8593.08	-4.04048e-05	111864	111864	
8609.59	-4.424e-05	112024	112024	
8626.1	-4.83399e-05	112176	112176	
8642.61	-5.27055e-05	112468	112468	
8659.12	-5.73425e-05	112738	112738	
8675.63	-6.22582e-05	112920	112920	
8692.14	-6.74602e-05	113122	113122	
8708.65	-7.29609e-05	113352	113352	
8725.16	-7.87783e-05	113590	113590	
8741.67	-8.49363e-05	113836	113836	
8758.18	-9.14607e-05	114028	114028	
8774.69	-9.8376e-05	114238	114238	
8791.2	-0.000105703	114410	114410	
8807.71	-0.000113458	114598	114598	
8824.22	-0.000121654	114746	114746	
8840.73	-0.000130304	115080	115080	
8857.24	-0.000139417	115342	115342	
8873.75	-0.000149003	115582	115582	
8890.26	-0.000159074	115816	115816	
8906.77	-0.000169643	116046	116046	
8923.28	-0.000180727	116250	116250	
8939.79	-0.000192341	116474	116474	
8956.3	-0.000204503	116698	116698	
8972.81	-0.000217227	116860	116860	
8989.32	-0.000230526	117082	117082	
9005.83	-0.000244413	117260	117260	
9022.34	-0.000258897	117534	117534	
9038.85	-0.000273988	117830	117830	
9055.36	-0.000289693	118074	118074	
9071.87	-0.00030602	118268	118268	
9088.38	-0.000322979	118424	118424	
9104.89	-0.000340578	118612	118612	
9121.4	-0.000358829	118854	118854	
9137.91	-0.000377742	119106	119106	
9154.41	-0.000397328	119416	119416	
9170.92	-0.000417596	119648	119648	
9187.43	-0.000438553	119868	119868	
9203.94	-0.000460207	120058	120058	
9220.45	-0.000482562	120266	120266	
9236.96	-0.000505618	120498	120498	
9253.47	-0.000529377	120728	120728	
9269.98	-0.000553837	120934	120934	
9286.49	-0.000578995	121218	121218	
9303	-0.000604845	121450	121450	
9319.51	-0.000631382	121696	121696	
9336.02	-0.000658596	121916	121916	
9352.53	-0.000686478	122160	122160	
9369.04	-0.000715013	122350	122350	
9385.55	-0.000744186	122614	122614	
9402.06	-0.000773978	122782	122782	
9418.57	-0.000804366	123044	123044	
9435.08	-0.000835324	123318	123318	
9451.59	-0.000866823	123534	123534	
9468.1	-0.000898831	123834	123834	
9484.61	-0.000931311	124112	124112	
9501.12	-0.000964223	124276	124276	
9517.63	-0.000997522	124544	124544	
9534.14	-0.00103116	124742	124742	
9550.65	-0.00106508	125016	125016	
9567.16	-0.00109922	125250	125250	
9583.67	-0.00113352	125514	125514	
9600.18	-0.0011679	125762	125762	
9616.69	-0.00120228	125996	125996	
9633.2	-0.00123656	126238	126238	
9649.71	-0.00127066	126438	126438	
9666.22	-0.00130445	126716	126716	
9682.73	-0.00133782	126954	126954	
9699.24	-0.00137064	127200	127200	
9715.75	-0.00140277	127462	127462	
9732.26	-0.00143404	127720	127720	
9748.77	-0.00146429	127952	127952	
9765.28	-0.00149334	128212	128212	
9781.79	-0.00152098	128456	128456	
9798.3	-0.001547	128702	128702	
9814.81	-0.00157116	128940	128940	
9831.32	-0.00159321	129190	129190	
9847.83	-0.00161287	129452	129452	
9864.34	-0.00162985	129728	129728	
9880.85	-0.00164383	129990	129990	
9897.36	-0.00165447	130232	130232	
9913.87	-0.0016614	130506	130506	
9930.38	-0.00166424	130744	130744	
9946.89	-0.00166256	131010	131010	
9963.4	-0.00165591	131220	131220	
9979.91	-0.00164382	131456	131456	
9996.42	-0.00162577	131724	131724	
10012.9	-0.00160124	131998	131998	
10029.4	-0.00156964	132300	132300	
10045.9	-0.00153037	132580	132580	
10062.5	-0.00148279	132854	132854	
10079	-0.00142622	133130	133130	
10095.5	-0.00135996	133430	133430	
10112	-0.00128325	133622	133622	
10128.5	-0.00119531	133886	133886	
10145	-0.00109532	134088	134088	
10161.5	-0.000982427	134306	134306	
10178	-0.000855741	134586	134586	
10194.5	-0.000714336	134828	134828	
10211	-0.000557253	135106	135106	
10227.6	-0.000383501	135388	135388	
10244.1	-0.000192057	135626	135626	
10260.6	1.81305e-05	135880	135880	
10277.1	0.000248141	136158	136158	
10293.6	0.000499077	136422	136422	
10310.1	0.000772065	136672	136672	
10326.6	0.00106825	136900	136900	
10343.1	0.00138879	137146	137146	
10359.6	0.00173486	137330	137330	
10376.1	0.00210765	137614	137614	
10392.7	0.00250833	137868	137868	
10409.2	0.00293809	138118	138118	
10425.7	0.0033981	138368	138368	
10442.2	0.00388954	138582	138582	
10458.7	0.00441356	138840	138840	
10475.2	0.00497128	139128	139128	
10491.7	0.00556381	139462	139462	
10508.2	0.00619221	139778	139778	
10524.7	0.0068575	140020	140020	
10541.2	0.00756067	140222	140222	
10557.8	0.00830264	140448	140448	
10574.3	0.00908426	140724	140724	
10590.8	0.00990634	140908	140908	
10607.3	0.0107696	141224	141224	
10623.8	0.0116747	141454	141454	
10640.3	0.0126221	141736	141736	
10656.8	0.0136124	142038	142038	
10673.3	0.0146458	142246	142246	
10689.8	0.0157227	142484	142484	
10706.3	0.0168431	142744	142744	
10722.9	0.0180071	142994	142994	
10739.4	0.0192146	143232	143232	
10755.9	0.0204653	143442	143442	
10772.4	0.0217589	143686	143686	
10788.9	0.0230948	143946	143946	
10805.4	0.0244725	144244	144244	
10821.9	0.0258911	144524	144524	
10838.4	0.0273496	144788	144788	
10854.9	0.0288471	145062	145062	
10871.4	0.0303823	145294	145294	
10888	0.0319537	145592	145592	
10904.5	0.0335599	145834	145834	
10921	0.0351991	146120	146120	
10937.5	0.0368697	146390	146390	
10954	0.0385695	146636	146636	
10970.5	0.0402965	146852	146852	
10987	0.0420485	147112	147112	
11003.5	0.0438231	147388	147388	
11020	0.0456178	147688	147688	
11036.5	0.04743	147952	147952	
11053.1	0.049257	148204	148204	
11069.6	0.0510958	148488	148488	
11086.1	0.0529438	148716	148716	
11102.6	0.0547977	148948	148948	
11119.1	0.0566545	149256	149256	
11135.6	0.0585112	149520	149520	
11152.1	0.0603644	149776	149776	
11168.6	0.0622108	150094	150094	
11185.1	0.0640473	150362	150362	
11201.6	0.0658705	150640	150640	
11218.2	0.067677	150902	150902	
11234.7	0.0694636	151124	151124	
11251.2	0.0712268	151352	151352	
11267.7	0.0729635	151618	151618	
11284.2	0.0746702	151866	151866	
11300.7	0.0763439	152064	152064	
11317.2	0.0779812	152330	152330	
11333.7	0.0795792	152546	152546	
11350.2	0.0811348	152796	152796	
11366.7	0.0826451	153062	153062	
11383.3	0.0841071	153320	153320	
11399.8	0.0855183	153598	153598	
11416.3	0.086876	153912	153912	
11432.8	0.0881777	154154	154154	
11449.3	0.0894211	154404	154404	
11465.8	0.0906039	154702	154702	
11482.3	0.0917241	154960	154960	
11498.8	0.0927798	155178	155178	
11515.3	0.0937693	155392	155392	
11531.8	0.094691	155634	155634	
11548.4	0.0955434	155904	155904	
11564.9	0.0963254	156300	156300	
11581.4	0.0970358	156644	156644	
11597.9	0.0976739	156976	156976	
11614.4	0.0982388	157216	157216	
11630.9	0.09873	157476	157476	
11647.4	0.0991473	157754	157754	
11663.9	0.0994903	158044	158044	
11680.4	0.0997591	158326	158326	
11696.9	0.0999539	158542	158542	
11713.5	0.100075	158812	158812	
11730	0.100123	159072	159072	
11746.5	0.100098	159294	159294	
11763	0.100001	159540	159540	
11779.5	0.0998333	159770	159770	
11796	0.0995957	160030	160030	
11812.5	0.0992895	160304	160304	
11829	0.098916	160632	160632	
11845.5	0.0984765	160960	160960	
11862	0.0979727	161332	161332	
11878.6	0.0974062	161704	161704	
11895.1	0.0967786	162014	162014	
11911.6	0.0960919	162298	162298	
11928.1	0.0953477	162640	162640	
11944.6	0.0945466	162980	162980	
11961.1	0.0936936	163272	163272	
11977.7	0.0927893	163514	163514	
11994.2	0.0918358	163788	163788	
12010.7	0.0908355	164044	164044	
12027.2	0.0897904	164314	164314	
12043.7	0.0887025	164692	164692	
12060.2	0.0875737	164988	164988	
12076.7	0.0864066	165280	165280	
12093.3	0.0852031	165554	165554	
12109.8	0.0839656	165810	165810	
12126.3	0.0826961	166144	166144	
12142.8	0.0813967	166464	166464	
12159.3	0.0800695	166786	166786	
12175.8	0.0787165	167052	167052	
12192.3	0.0773396	167308	167308	
12208.9	0.0759412	167548	167548	
12225.4	0.0745227	167840	167840	
12241.9	0.073086	168186	168186	
12258.4	0.0716323	168518	168518	
12274.9	0.0701638	168820	168820	
12291.4	0.068682	169142	169142	
12307.9	0.0671885	169456	169456	
12324.4	0.0656848	169684	169684	
12341	0.0641723	170016	170016	
12357.5	0.0626522	170370	170370	
12374	0.0611263	170688	170688	
12390.5	0.0595953	171034	171034	
12407	0.0580604	171296	171296	
12423.5	0.056522	171592	171592	
12440	0.054982	171896	171896	
12456.5	0.053441	172180	172180	
12473.1	0.0518997	172510	172510	
12489.6	0.0503588	172824	172824	
12506.1	0.0488191	173196	173196	
12522.6	0.0472812	173478	173478	
12539.1	0.0457456	173770	173770	
12555.6	0.0442129	174092	174092	
12572.1	0.0426835	174394	174394	
12588.6	0.041158	174714	174714	
12605.1	0.0396365	174986	174986	
12621.6	0.0381195	175248	175248	
12638.2	0.0366072	175484	175484	
12654.7	0.0350999	175894	175894	
12671.2	0.0335979	176202	176202	
12687.7	0.0321012	176562	176562	
12704.2	0.0306101	176890	176890	
12720.7	0.0291246	177220	177220	
12737.2	0.027645	177402	177402	
12753.7	0.0261713	177782	177782	
12770.2	0.0247037	178100	178100	
12786.7	0.0232421	178400	178400	
12803.3	0.0217866	178696	178696	
12819.8	0.0203374	179006	179006	
12836.3	0.0188945	179292	179292	
12852.8	0.0174579	179590	179590	
12869.3	0.0160278	179948	179948	
12885.8	0.0146041	180234	180234	
12902.3	0.013187	180524	180524	
12918.8	0.0117765	180860	180860	
12935.3	0.0103728	181156	181156	
12951.8	0.0089759	181484	181484	
12968.4	0.00758597	181822	181822	
12984.9	0.0062031	182092	182092	
13001.4	0.00482746	182446	182446	
13017.9	0.00345917	182688	182688	
13034.4	0.00209842	182968	182968	
13050.9	0.000745373	183274	183274	
13067.4	-0.000599771	183678	183678	
13083.9	-0.00193681	184034	184034	
13100.4	-0.00326551	184364	184364	
13116.9	-0.00458565	184666	184666	
13133.5	-0.00589698	184972	184972	
13150	-0.00719924	185258	185258	
13166.5	-0.00849216	185674	185674	
13183	-0.00977546	186050	186050	
13199.5	-0.0110488	186378	186378	
13216	-0.012312	186760	186760	
13232.5	-0.0135646	187076	187076	
13249	-0.0148064	187386	187386	
13265.5	-0.0160371	187722	187722	
13282	-0.0172562	188102	188102	
13298.5	-0.0184635	188434	188434	
13315.1	-0.0196587	188766	188766	
13331.6	-0.0208414	189020	189020	
13348.1	-0.0220113	189308	189308	
13364.6	-0.023168	189618	189618	
13381.1	-0.0243112	189958	189958	
13397.6	-0.0254406	190270	190270	
13414.1	-0.0265559	190578	190578	
13430.6	-0.0276567	190886	190886	
13447.1	-0.0287427	191230	191230	
13463.6	-0.0298136	191662	191662	
13480.2	-0.0308692	191948	191948	
13496.7	-0.0319091	192290	192290	
13513.2	-0.032933	192628	192628	
13529.7	-0.0339407	192992	192992	
13546.2	-0.0349318	193390	193390	
13562.7	-0.0359062	193726	193726	
13579.2	-0.0368636	194160	194160	
13595.7	-0.0378038	194534	194534	
13612.2	-0.0387265	194846	194846	
13628.7	-0.0396315	195088	195088	
13645.3	-0.0405186	195328	195328	
13661.8	-0.0413877	195644	195644	
13678.3	-0.0422385	195966	195966	
13694.8	-0.043071	196344	196344	
13711.3	-0.0438848	196722	196722	
13727.8	-0.0446799	197076	197076	
13744.3	-0.0454562	197438	197438	
13760.8	-0.0462135	197724	197724	
13777.3	-0.0469517	198088	198088	
13793.8	-0.0476707	198410	198410	
13810.4	-0.0483705	198712	198712	
13826.9	-0.0490509	199006	199006	
13843.4	-0.0497119	199286	199286	
13859.9	-0.0503533	199580	199580	
13876.4	-0.0509753	199874	199874	
13892.9	-0.0515776	200266	200266	
13909.4	-0.0521603	200734	200734	
13925.9	-0.0527233	201110	201110	
13942.4	-0.0532667	201462	201462	
13958.9	-0.0537904	201702	201702	
13975.5	-0.0542944	202016	202016	
13992	-0.0547787	202364	202364	
14008.5	-0.0552433	202724	202724	
14025	-0.0556883	203052	203052	
14041.5	-0.0561135	203400	203400	
14058	-0.0565192	203648	203648	
14074.5	-0.0569052	203962	203962	
14091	-0.0572716	204230	204230	
14107.5	-0.0576183	204648	204648	
14124	-0.0579456	205024	205024	
14140.6	-0.0582532	205332	205332	
14157.1	-0.0585414	205688	205688	
14173.6	-0.05881	206056	206056	
14190.1	-0.0590591	206344	206344	
14206.6	-0.0592886	206652	206652	
14223.1	-0.0594987	206962	206962	
14239.6	-0.0596891	207290	207290	
14256.1	-0.05986	207650	207650	
14272.6	-0.0600112	208034	208034	
14289.1	-0.0601427	208306	208306	
14305.7	-0.0602544	208582	208582	
14322.2	-0.0603459	208960	208960	
14338.7	-0.0604175	209398	209398	
14355.2	-0.0604691	209702	209702	
14371.7	-0.060501	210036	210036	
14388.2	-0.0605121	210356	210356	
14404.7	-0.0605031	210714	210714	
14421.2	-0.0604772	211070	211070	
14437.7	-0.0604347	211350	211350	
14454.2	-0.060328	211658	211658	
14470.8	-0.0602438	211926	211926	
14487.3	-0.0601509	212212	212212	
14503.8	-0.0600445	212510	212510	
14520.3	-0.0599214	212890	212890	
14536.8	-0.0598079	213364	213364	
14553.3	-0.0596878	213760	213760	
14569.8	-0.0595461	214098	214098	
14586.3	-0.0594012	214466	214466	
14602.8	-0.0592383	214740	214740	
14619.3	-0.0590468	215064	215064	
14635.9	-0.0588285	215352	215352	
14652.4	-0.0584354	215674	215674	
14668.9	-0.0580477	216028	216028	
14685.4	-0.0576856	216346	216346	
14701.9	-0.0573277	216698	216698	
14718.4	-0.0569612	216988	216988	
14734.9	-0.0565855	217286	217286	
14751.4	-0.0561911	217646	217646	
14767.9	-0.0557775	218094	218094	
14784.4	-0.0553457	218490	218490	
14801	-0.0548971	218796	218796	
14817.5	-0.0544388	219116	219116	
14834	-0.0539609	219390	219390	
14850.5	-0.0534637	219674	219674	
14867	-0.0529474	220022	220022	
14883.5	-0.0524104	220390	220390	
14900	-0.0518529	220716	220716	
14916.5	-0.0512778	221086	221086	
14933	-0.0506872	221418	221418	
14949.5	-0.0500823	221778	221778	
14966.1	-0.0494634	222170	222170	
14982.6	-0.0488307	222506	222506	
14999.1	-0.048184	222874	222874	
15015.6	-0.0475228	223232	223232	
15032.1	-0.0468459	223606	223606	
15048.6	-0.0461526	224026	224026	
15065.1	-0.0454423	224432	224432	
15081.6	-0.044715	224786	224786	
15098.1	-0.0439711	225138	225138	
15114.6	-0.0432116	225466	225466	
15131.2	-0.0424375	225740	225740	
15147.7	-0.04165	226044	226044	
15164.2	-0.04085	226368	226368	
15180.7	-0.0400383	226714	226714	
15197.2	-0.0392154	227220	227220	
15213.7	-0.0383812	227656	227656	
15230.2	-0.0375357	228162	228162	
15246.7	-0.0366789	228528	228528	
15263.2	-0.0358106	228870	228870	
15279.7	-0.0349312	229158	229158	
15296.3	-0.0340411	229460	229460	
15312.8	-0.0331408	229830	229830	
15329.3	-0.032231	230240	230240	
15345.8	-0.0313121	230682	230682	
15362.3	-0.0303844	231092	231092	
15378.8	-0.0294482	231490	231490	
15395.3	-0.0285037	231892	231892	
15411.8	-0.0275514	232288	232288	
15428.3	-0.0265917	232660	232660	
15444.8	-0.025625	233060	233060	
15461.4	-0.024652	233478	233478	
15477.9	-0.0236731	233850	233850	
15494.4	-0.0226888	234160	234160	
15510.9	-0.0216997	234520	234520	
15527.4	-0.0207061	234862	234862	
15543.9	-0.0197085	235210	235210	
15560.4	-0.0187071	235620	235620	
15576.9	-0.0177021	236024	236024	
15593.4	-0.0166938	236446	236446	
15609.9	-0.0156824	236908	236908	
15626.5	-0.0146682	237338	237338	
15643	-0.0136512	237682	237682	
15659.5	-0.012632	238080	238080	
15676	-0.011611	238448	238448	
15692.5	-0.0105886	238802	238802	
15709	-0.00956529	239166	239166	
15725.5	-0.00854171	239530	239530	
15742	-0.00751834	239858	239858	
15758.5	-0.0064957	240156	240156	
15775	-0.00547423	240528	240528	
15791.6	-0.00445432	240914	240914	
15808.1	-0.00343635	241312	241312	
15824.6	-0.00242062	241692	241692	
15841.1	-0.00140744	242110	242110	
15857.6	-0.000397091	242560	242560	
15874.1	0.000610137	242958	242958	
15890.6	0.00161394	243342	243342	
15907.1	0.00261401	243650	243650	
15923.6	0.00361003	244030	244030	
15940.1	0.00460168	244376	244376	
15956.7	0.00558862	244746	244746	
15973.2	0.00657055	245060	245060	
15989.7	0.00754714	245416	245416	
16006.2	0.00851809	245824	245824	
16022.7	0.00948311	246236	246236	
16039.2	0.0104419	246634	246634	
16055.7	0.0113942	247072	247072	
16072.2	0.0123396	247408	247408	
16088.7	0.013278	247858	247858	
16105.2	0.014209	248262	248262	
16121.8	0.0151322	248638	248638	
16138.3	0.0160476	249024	249024	
16154.8	0.0169546	249482	249482	
16171.3	0.0178531	249796	249796	
16187.8	0.0187427	250126	250126	
16204.3	0.0196232	250516	250516	
16220.8	0.0204941	250924	250924	
16237.3	0.0213553	251330	251330	
16253.8	0.0222063	251728	251728	
16270.3	0.0230468	252108	252108	
16286.9	0.0238766	252440	252440	
16303.4	0.0246953	252848	252848	
16319.9	0.0255026	253274	253274	
16336.4	0.0262982	253640	253640	
16352.9	0.0270817	253998	253998	
16369.4	0.0278529	254296	254296	
16385.9	0.0286113	254678	254678	
16402.4	0.0293567	255018	255018	
16418.9	0.0300888	255432	255432	
16435.4	0.0308071	255822	255822	
16452	0.0315114	256208	256208	
16468.5	0.0322013	256588	256588	
16485	0.0328764	256980	256980	
16501.5	0.0335364	257334	257334	
16518	0.0341808	257744	257744	
16534.5	0.0348093	258148	258148	
16551	0.0354215	258538	258538	
16567.5	0.0360171	258948	258948	
16584	0.0365956	259420	259420	
16600.5	0.0371568	259782	259782	
16617.1	0.0377002	260172	260172	
16633.6	0.0382255	260548	260548	
16650.1	0.0387325	260912	260912	
16666.6	0.0392206	261310	261310	
16683.1	0.0396896	261712	261712	
16699.6	0.0401393	262102	262102	
16716.1	0.0405692	262462	262462	
16732.6	0.0409791	262740	262740	
16749.1	0.0413686	263134	263134	
16765.6	0.0417376	263556	263556	
16782.2	0.0420856	264006	264006	
16798.7	0.0424126	264432	264432	
16815.2	0.0427181	264780	264780	
16831.7	0.043002	265168	265168	
16848.2	0.0432641	265606	265606	
16864.7	0.0435042	265972	265972	
16881.2	0.0437221	266336	266336	
16897.7	0.0439175	266666	266666	
16914.2	0.0440904	267134	267134	
16930.7	0.0442406	267574	267574	
16947.3	0.044368	267978	267978	
16963.8	0.0444726	268442	268442	
16980.3	0.0445541	268788	268788	
16996.8	0.0446126	269188	269188	
17013.3	0.0446481	269602	269602	
17029.8	0.0446605	269916	269916	
17046.3	0.0446499	270262	270262	
17062.8	0.0446162	270576	270576	
17079.3	0.0445595	270982	270982	
17095.8	0.0444798	271426	271426	
17112.4	0.0443773	271812	271812	
17128.9	0.0442521	272264	272264	
17145.4	0.0441042	272668	272668	
17161.9	0.0439338	273042	273042	
17178.4	0.043741	273412	273412	
17194.9	0.0435259	273874	273874	
17211.4	0.0432889	274366	274366	
17227.9	0.0430299	274808	274808	
17244.4	0.0427493	275284	275284	
17260.9	0.0424472	275716	275716	
17277.5	0.0421238	276070	276070	
17294	0.0417794	276424	276424	
17310.5	0.0414142	276878	276878	
17327	0.0410285	277320	277320	
17343.5	0.0406225	277828	277828	
17360	0.0401965	278298	278298	
17376.5	0.0397507	278738	278738	
17393	0.0392855	279178	279178	
17409.5	0.0388012	279608	279608	
17426	0.038298	279980	279980	
17442.6	0.0377763	280372	280372	
17459.1	0.0372365	280766	280766	
17475.6	0.0366788	281122	281122	
17492.1	0.0361037	281556	281556	
17508.6	0.0355115	282033	282033	
17525.1	0.0349026	282573	282573	
17541.6	0.0342775	283160	283160	
17558.1	0.0336365	283617	283617	
17574.6	0.03298	284015	284015	
17591.1	0.0323086	284447	284447	
17607.7	0.0316227	284884	284884	
17624.2	0.0309228	285302	285302	
17640.7	0.0302093	285728	285728	
17657.2	0.0294829	286142	286142	
17673.7	0.0287439	286592	286592	
17690.2	0.027993	286896	286896	
17706.7	0.0272308	287219	287219	
17723.2	0.0264577	287649	287649	
17739.7	0.0256744	288263	288263	
17756.2	0.0248815	288767	288767	
17772.8	0.0240796	289327	289327	
17789.3	0.0232692	289797	289797	
17805.8	0.022451	290359	290359	
17822.3	0.0216257	290773	290773	
17838.8	0.0207938	291161	291161	
17855.3	0.019956	291603	291603	
17871.8	0.019113	292027	292027	
17888.3	0.0182653	292539	292539	
17904.8	0.0174136	292897	292897	
17921.4	0.0165586	293257	293257	
17937.9	0.0157008	293677	293677	
17954.4	0.0148409	294045	294045	
17970.9	0.0139794	294415	294415	
17987.4	0.013117	294873	294873	
18003.9	0.0122543	295331	295331	
18020.4	0.0113918	295821	295821	
18036.9	0.0105302	296227	296227	
18053.4	0.00966982	296685	296685	
18069.9	0.00881136	297171	297171	
18086.5	0.00795527	297592	297592	
18103	0.00710206	298014	298014	
18119.5	0.00625219	298473	298473	
18136	0.00540611	298856	298856	
18152.5	0.00456426	299267	299267	
18169	0.00372705	299761	299761	
18185.5	0.00289486	300218	300218	
18202	0.00206806	300744	300744	
18218.5	0.001247	301219	301219	
18235	0.000431998	301669	301669	
18251.6	-0.000376642	302097	302097	
18268.1	-0.00117864	302493	302493	
18284.6	-0.00197373	302921	302921	
18301.1	-0.00276168	303381	303381	
18317.6	-0.00354227	303800	303800	
18334.1	-0.00431529	304288	304288	
18350.6	-0.00508056	304731	304731	
18367.1	-0.00583791	305121	305121	
18383.6	-0.0065872	305563	305563	
18400.1	-0.00732828	305983	305983	
18416.7	-0.00806104	306453	306453	
18433.2	-0.00878536	306882	306882	
18449.7	-0.00950116	307392	307392	
18466.2	-0.0102083	307894	307894	
18482.7	-0.0109068	308298	308298	
18499.2	-0.0115965	308792	308792	
18515.7	-0.0122774	309230	309230	
18532.2	-0.0129495	309547	309547	
18548.7	-0.0136125	310033	310033	
18565.2	-0.0142667	310452	310452	
18581.8	-0.0149117	310830	310830	
18598.3	-0.0155478	311200	311200	
18614.8	-0.0161747	311614	311614	
18631.3	-0.0167925	311991	311991	
18647.8	-0.017401	312462	312462	
18664.3	-0.0180004	312924	312924	
18680.8	-0.0185905	313342	313342	
18697.3	-0.0191712	313755	313755	
18713.8	-0.0197425	314188	314188	
18730.3	-0.0203044	314673	314673	
18746.9	-0.0208569	315118	315118	
18763.4	-0.0213997	315606	315606	
18779.9	-0.0219329	316110	316110	
18796.4	-0.0224564	316509	316509	
18812.9	-0.0229702	316940	316940	
18829.4	-0.023474	317386	317386	
18845.9	-0.023968	317785	317785	
18862.4	-0.0244518	318189	318189	
18878.9	-0.0249256	318659	318659	
18895.4	-0.0253891	319120	319120	
18912	-0.0258423	319564	319564	
18928.5	-0.0262851	319948	319948	
18945	-0.0267174	320336	320336	
18961.5	-0.027139	320743	320743	
18978	-0.0275499	321227	321227	
18994.5	-0.02795	321694	321694	
19011	-0.0283392	322180	322180	
19027.5	-0.0287174	322667	322667	
19044	-0.0290844	323077	323077	
19060.5	-0.0294403	323501	323501	
19077	-0.0297848	323975	323975	
19093.6	-0.030118	324465	324465	
19110.1	-0.0304398	324918	324918	
19126.6	-0.03075	325366	325366	
19143.1	-0.0310487	325828	325828	
19159.6	-0.0313358	326325	326325	
19176.1	-0.0316112	326733	326733	
19192.6	-0.0318748	327099	327099	
19209.1	-0.0321268	327524	327524	
19225.6	-0.032367	327984	327984	
19242.1	-0.0325954	328338	328338	
19258.7	-0.032812	328765	328765	
19275.2	-0.0330169	329135	329135	
19291.7	-0.03321	329535	329535	
19308.2	-0.0333914	329933	329933	
19324.7	-0.0335611	330323	330323	
19341.2	-0.0337191	330800	330800	
19357.7	-0.0338654	331301	331301	
19374.2	-0.0340002	331713	331713	
19390.7	-0.0341234	332106	332106	
19407.2	-0.0342352	332501	332501	
19423.8	-0.0343356	332941	332941	
19440.3	-0.0344247	333413	333413	
19456.8	-0.0345025	333835	333835	
19473.3	-0.0345691	334241	334241	
19489.8	-0.0346246	334656	334656	
19506.3	-0.034669	335065	335065	
19522.8	-0.0347026	335442	335442	
19539.3	-0.0347252	335823	335823	
19555.8	-0.0347371	336212	336212	
19572.3	-0.0347383	336624	336624	
19588.9	-0.0347288	336969	336969	
19605.4	-0.0347088	337391	337391	
19621.9	-0.0346783	337779	337779	
19638.4	-0.0346373	338215	338215	
19654.9	-0.034586	338627	338627	
19671.4	-0.0345245	339036	339036	
19687.9	-0.0344527	339514	339514	
19704.4	-0.0343707	339861	339861	
19720.9	-0.0342786	340233	340233	
19737.5	-0.0341764	340541	340541	
19754	-0.0340642	340879	340879	
19770.5	-0.033942	341181	341181	
19787	-0.0338099	341571	341571	
19803.5	-0.0336679	342016	342016	
19820	-0.0335161	342450	342450	
19836.5	-0.0333545	342880	342880	
19853	-0.0331831	343255	343255	
19869.5	-0.033002	343667	343667	
19886	-0.0328112	344029	344029	
19902.6	-0.0326109	344423	344423	
19919.1	-0.032401	344783	344783	
19935.6	-0.0321816	345176	345176	
19952.1	-0.0319527	345495	345495	
19968.6	-0.0317146	345695	345695	
19985.1	-0.0314672	346027	346027	
20001.6	-0.0312106	346383	346383	
20018.1	-0.0309449	346802	346802	
20034.6	-0.0306703	347277	347277	
20051.1	-0.0303868	347752	347752	
20067.7	-0.0300946	348118	348118	
20084.2	-0.0297938	348438	348438	
20100.7	-0.0294846	348744	348744	
20117.2	-0.0291671	349043	349043	
20133.7	-0.0288415	349394	349394	
20150.2	-0.0285079	349816	349816	
20166.7	-0.0281666	350215	350215	
20183.2	-0.0278177	350612	350612	
20199.7	-0.0274614	350965	350965	
20216.2	-0.0270981	351262	351262	
20232.8	-0.0267277	351560	351560	
20249.3	-0.0263507	351888	351888	
20265.8	-0.0259671	352302	352302	
20282.3	-0.0255774	352692	352692	
20298.8	-0.0251815	353049	353049	
20315.3	-0.0247799	353392	353392	
20331.8	-0.0243728	353699	353699	
20348.3	-0.0239603	354095	354095	
20364.8	-0.0235427	354601	354601	
20381.3	-0.0231203	355056	355056	
20397.9	-0.0226932	355318	355318	
20414.4	-0.0222616	355678	355678	
20430.9	-0.0218259	356032	356032	
20447.4	-0.0213861	356408	356408	
20463.9	-0.0209425	356721	356721	
20480.4	-0.0204953	357048	357048	
20496.9	-0.0200446	357409	357409	
20513.4	-0.0195906	357843	357843	
20529.9	-0.0191334	358140	358140	
20546.4	-0.0186731	358524	358524	
20563	-0.01821	358859	358859	
20579.5	-0.0177441	359157	359157	
20596	-0.0172754	359462	359462	
20612.5	-0.0168042	359776	359776	
20629	-0.0163305	360130	360130	
20645.5	-0.0158543	360477	360477	
20662	-0.0153757	360775	360775	
20678.5	-0.0148947	361122	361122	
20695	-0.0144115	361619	361619	
20711.5	-0.0139261	362044	362044	
20728.1	-0.0134385	362635	362635	
20744.6	-0.0129487	363161	363161	
20761.1	-0.0124569	363678	363678	
20777.6	-0.011963	364016	364016	
20794.1	-0.0114671	364447	364447	
20810.6	-0.0109694	364664	364664	
20827.1	-0.0104698	364934	364934	
20843.6	-0.00996841	365200	365200	
20860.1	-0.00946544	365604	365604	
20876.6	-0.00896096	365967	365967	
20893.2	-0.00845513	366241	366241	
20909.7	-0.0079481	366655	366655	
20926.2	-0.00744007	367024	367024	
20942.7	-0.00693125	367390	367390	
20959.2	-0.00642189	367701	367701	
20975.7	-0.00591224	368074	368074	
20992.2	-0.0054026	368573	368573	
21008.7	-0.0048933	369052	369052	
21025.2	-0.00438468	369481	369481	
21041.7	-0.00387713	369829	369829	
21058.3	-0.00337105	370197	370197	
21074.8	-0.00286688	370691	370691	
21091.3	-0.00236508	371229	371229	
21107.8	-0.00186614	371673	371673	
21124.3	-0.00137056	372069	372069	
21140.8	-0.000878889	372314	372314	
21157.3	-0.000391671	372619	372619	
21173.8	9.05165e-05	372855	372855	
21190.3	0.000567085	373316	373316	
21206.8	0.00103743	373735	373735	
21223.3	0.00150094	374197	374197	
21239.9	0.00195698	374744	374744	
21256.4	0.00240494	375208	375208	
21272.9	0.00284417	375654	375654	
21289.4	0.00327406	376084	376084	
21305.9	0.00369397	376475	376475	
21322.4	0.0041033	376843	376843	
21338.9	0.00450142	377221	377221	
21355.4	0.00488775	377641	377641	
21371.9	0.00526173	377936	377936	
21388.4	0.00562279	378299	378299	
21405	0.00597041	378678	378678	
21421.5	0.00630409	379104	379104	
21438	0.00662338	379542	379542	
21454.5	0.00692782	379906	379906	
21471	0.00721704	380319	380319	
21487.5	0.00749067	380808	380808	
21504	0.0077484	381276	381276	
21520.5	0.00798996	381689	381689	
21537	0.00821512	382104	382104	
21553.5	0.00842372	382473	382473	
21570.1	0.00861561	382830	382830	
21586.6	0.00879072	383205	383205	
21603.1	0.00894903	383669	383669	
21619.6	0.00909055	384088	384088	
21636.1	0.00921534	384507	384507	
21652.6	0.00932354	384896	384896	
21669.1	0.0094153	385313	385313	
21685.6	0.00949085	385761	385761	
21702.1	0.00955044	386143	386143	
21718.6	0.00959439	386515	386515	
21735.2	0.00962306	386903	386903	
21751.7	0.00963683	387241	387241	
21768.2	0.00963614	387660	387660	
21784.7	0.00962147	388057	388057	
21801.2	0.00959332	388443	388443	
21817.7	0.00955225	388768	388768	
21834.2	0.00949881	389134	389134	
21850.7	0.00943362	389655	389655	
21867.2	0.0093573	390016	390016	
21883.7	0.00927049	390367	390367	
21900.3	0.00917385	390729	390729	
21916.8	0.00906808	391121	391121	
21933.3	0.00895385	391465	391465	
21949.8	0.00883188	391920	391920	
21966.3	0.00870287	392307	392307	
21982.8	0.00856752	392682	392682	
21999.3	0.00842655	393199	393199	
22015.8	0.00828067	393767	393767	
22032.3	0.00813058	394096	394096	
22048.8	0.00797696	394409	394409	
22065.4	0.0078205	394726	394726	
22081.9	0.00766186	395083	395083	
22098.4	0.00750169	395489	395489	
22114.9	0.00734062	395863	395863	
22131.4	0.00717925	396204	396204	
22147.9	0.00701816	396584	396584	
22164.4	0.00685791	396977	396977	
22180.9	0.00669901	397315	397315	
22197.4	0.00654197	397648	397648	
22213.9	0.00638724	398019	398019	
22230.5	0.00623524	398375	398375	
22247	0.00608637	398770	398770	
22263.5	0.00594097	399225	399225	
22280	0.00579938	399629	399629	
22296.5	0.00566186	399995	399995	
22313	0.00552865	400482	400482	
22329.5	0.00539995	400942	400942	
22346	0.00527593	401264	401264	
22362.5	0.00515669	401676	401676	
22379	0.00504233	401995	401995	
22395.6	0.00493287	402407	402407	
22412.1	0.00482833	402835	402835	
22428.6	0.00472866	403266	403266	
22445.1	0.00463377	403641	403641	
22461.6	0.00454356	403924	403924	
22478.1	0.00445787	404319	404319	
22494.6	0.0043765	404693	404693	
22511.1	0.00429922	405088	405088	
22527.6	0.00422576	405410	405410	
22544.1	0.00415584	405739	405739	
22560.7	0.0040891	406121	406121	
22577.2	0.0040252	406362	406362	
22593.7	0.00396374	406735	406735	
22610.2	0.00390429	407123	407123	
22626.7	0.00384643	407557	407557	
22643.2	0.00378968	407939	407939	
22659.7	0.00373356	408337	408337	
22676.2	0.00367758	408631	408631	
22692.7	0.00362122	408970	408970	
22709.2	0.00356396	409333	409333	
22725.8	0.00350528	409723	409723	
22742.3	0.00344464	410040	410040	
22758.8	0.00338152	410342	410342	
22775.3	0.00331539	410754	410754	
22791.8	0.00324572	411060	411060	
22808.3	0.003172	411467	411467	
22824.8	0.00309374	411871	411871	
22841.3	0.00301044	412189	412189	
22857.8	0.00292163	412492	412492	
22874.3	0.00282687	412828	412828	
22890.9	0.00272571	413161	413161	
22907.4	0.00261777	413529	413529	
22923.9	0.00250266	413889	413889	
22940.4	0.00238002	414227	414227	
22956.9	0.00224954	414702	414702	
22973.4	0.00211091	415095	415095	
22989.9	0.00196389	415442	415442	
23006.4	0.00180823	415799	415799	
23022.9	0.00164375	416091	416091	
23039.4	0.00147028	416509	416509	
23056	0.00128771	416960	416960	
23072.5	0.00109594	417225	417225	
23089	0.000894928	417577	417577	
23105.5	0.000684658	417858	417858	
23122	0.000465153	418298	418298	
23138.5	0.000236475	418747	418747	
23155	-1.27709e-06	419128	419128	
23171.5	-0.000247968	419488	419488	
23188	-0.000503426	419855	419855	
23204.6	-0.000767442	420142	420142	
23221.1	-0.00103978	420454	420454	
23237.6	-0.00132015	420881	420881	
23254.1	-0.00160825	421287	421287	
23270.6	-0.00190375	421641	421641	
23287.1	-0.00220626	422071	422071	
23303.6	-0.0025154	422393	422393	
23320.1	-0.00283072	422781	422781	
23336.6	-0.00315179	423168	423168	
23353.1	-0.00347812	423615	423615	
23369.7	-0.00380923	424039	424039	
23386.2	-0.00414459	424385	424385	
23402.7	-0.00448367	424753	424753	
23419.2	-0.00482593	425110	425110	
23435.7	-0.0051708	425396	425396	
23452.2	-0.00551772	425779	425779	
23468.7	-0.00586609	426107	426107	
23485.2	-0.00621534	426545	426545	
23501.7	-0.00656488	426902	426902	
23518.2	-0.00691411	427253	427253	
23534.8	-0.00726244	427698	427698	
23551.3	-0.00760927	428109	428109	
23567.8	-0.00795403	428437	428437	
23584.3	-0.00829613	428843	428843	
23600.8	-0.00863499	429236	429236	
23617.3	-0.00897006	429658	429658	
23633.8	-0.00930078	430037	430037	
23650.3	-0.00962662	430445	430445	
23666.8	-0.00994705	430796	430796	
23683.3	-0.0102616	431143	431143	
23699.9	-0.0105697	431509	431509	
23716.4	-0.010871	431904	431904	
23732.9	-0.0111649	432257	432257	
23749.4	-0.0114512	432726	432726	
23765.9	-0.0117293	433117	433117	
23782.4	-0.011999	433424	433424	
23798.9	-0.0122598	433747	433747	
23815.4	-0.0125114	434120	434120	
23831.9	-0.0127537	434454	434454	
23848.4	-0.0129862	434966	434966	
23865	-0.0132088	435324	435324	
23881.5	-0.0134213	435760	435760	
23898	-0.0136234	436106	436106	
23914.5	-0.0138151	436506	436506	
23931	-0.0139962	436777	436777	
23947.5	-0.0141666	436981	436981	
23964	-0.0143262	437408	437408	
23980.5	-0.0144751	437805	437805	
23997	-0.0146131	438104	438104	
24013.5	-0.0147402	438459	438459	
24030.1	-0.0148565	438817	438817	
24046.6	-0.0149621	439121	439121	
24063.1	-0.0150569	439543	439543	
24079.6	-0.015141	439929	439929	
24096.1	-0.0152145	440299	440299	
24112.6	-0.0152775	440594	440594	
24129.1	-0.01533	440986	440986	
24145.6	-0.0153723	441329	441329	
24162.1	-0.0154044	441622	441622	
24178.6	-0.0154264	441987	441987	
24195.2	-0.0154384	442206	442206	
24211.7	-0.0154407	442510	442510	
24228.2	-0.0154334	442920	442920	
24244.7	-0.0154166	443248	443248	
24261.2	-0.0153906	443508	443508	
24277.7	-0.0153554	443907	443907	
24294.2	-0.0153113	444232	444232	
24310.7	-0.0152586	444484	444484	
24327.2	-0.0151973	444826	444826	
24343.7	-0.0151278	445178	445178	
24360.3	-0.0150503	445581	445581	
24376.8	-0.014965	446040	446040	
24393.3	-0.0148721	446460	446460	
24409.8	-0.0147719	446853	446853	
24426.3	-0.0146647	447164	447164	
24442.8	-0.0145506	447467	447467	
24459.3	-0.01443	447833	447833	
24475.8	-0.0143029	448167	448167	
24492.3	-0.0141698	448505	448505	
24508.8	-0.0140307	448926	448926	
24525.4	-0.013886	449247	449247	
24541.9	-0.0137358	449515	449515	
24558.4	-0.0135803	449860	449860	
24574.9	-0.0134197	450226	450226	
24591.4	-0.0132542	450606	450606	
24607.9	-0.0130839	451013	451013	
24624.4	-0.0129091	451409	451409	
24640.9	-0.0127298	451707	451707	
24657.4	-0.0125463	452058	452058	
24673.9	-0.0123586	452436	452436	
24690.5	-0.0121668	452849	452849	
24707	-0.0119711	453194	453194	
24723.5	-0.0117716	453485	453485	
24740	-0.0115684	453700	453700	
24756.5	-0.0113616	454015	454015	
24773	-0.0111512	454334	454334	
24789.5	-0.0109375	454648	454648	
24806	-0.0107204	455040	455040	
24822.5	-0.0105001	455420	455420	
24839	-0.0102766	455803	455803	
24855.6	-0.0100502	456177	456177	
24872.1	-0.00982079	456558	456558	
24888.6	-0.00958863	456939	456939	
24905.1	-0.00935382	457324	457324	
24921.6	-0.00911648	457594	457594	
24938.1	-0.00887675	458027	458027	
24954.6	-0.00863478	458434	458434	
24971.1	-0.00839072	458824	458824	
24987.6	-0.00814473	459176	459176	
25004.1	-0.00789698	459584	459584	
25020.7	-0.00764765	459987	459987	
25037.2	-0.00739692	460419	460419	
25053.7	-0.00714497	460729	460729	
25070.2	-0.00689201	460977	460977	
25086.7	-0.00663822	461175	461175	
25103.2	-0.00638382	461531	461531	
25119.7	-0.00612901	461842	461842	
25136.2	-0.00587401	462188	462188	
25152.7	-0.00561904	462479	462479	
25169.2	-0.0053643	462866	462866	
25185.8	-0.00511003	463453	463453	
25202.3	-0.00485646	463936	463936	
25218.8	-0.0046038	464344	464344	
25235.3	-0.00435229	464703	464703	
25251.8	-0.00410217	465132	465132	
25268.3	-0.00385365	465566	465566	
25284.8	-0.00360698	465975	465975	
25301.3	-0.00336239	466440	466440	
25317.8	-0.00312012	466767	466767	
25334.3	-0.00288038	467098	467098	
25350.9	-0.00264343	467496	467496	
25367.4	-0.00240948	467855	467855	
25383.9	-0.00217876	468249	468249	
25400.4	-0.00195151	468600	468600	
25416.9	-0.00172793	468949	468949	
25433.4	-0.00150826	469214	469214	
25449.9	-0.00129269	469533	469533	
25466.4	-0.00108145	469896	469896	
25482.9	-0.000874729	470223	470223	
25499.4	-0.000672723	470628	470628	
25516	-0.000475623	470956	470956	
25532.5	-0.000283608	471356	471356	
25549	-9.68527e-05	471792	471792	
25565.5	8.44774e-05	472237	472237	
25582	0.000260225	472731	472731	
25598.5	0.000430239	473167	473167	
25615	0.000594379	473640	473640	
25631.5	0.000752511	474025	474025	
25648	0.00090451	474335	474335	
25664.5	0.00105026	474569	474569	
25681.1	0.00118965	474925	474925	
25697.6	0.00132258	475278	475278	
25714.1	0.00144896	475654	475654	
25730.6	0.00156871	475994	475994	
25747.1	0.00168175	476469	476469	
25763.6	0.00178802	476882	476882	
25780.1	0.00188746	477142	477142	
25796.6	0.00198003	477446	477446	
25813.1	0.00206567	477780	477780	
25829.6	0.00214437	478210	478210	
25846.2	0.00221609	478578	478578	
25862.7	0.00228083	479042	479042	
25879.2	0.00233858	479305	479305	
25895.7	0.00238936	479639	479639	
25912.2	0.00243317	479890	479890	
25928.7	0.00247003	480173	480173	
25945.2	0.00249996	480560	480560	
25961.7	0.00252299	480893	480893	
25978.2	0.00253916	481312	481312	
25994.7	0.00254851	481678	481678	
26011.3	0.0025511	482073	482073	
26027.8	0.00254702	482408	482408	
26044.3	0.00253636	482779	482779	
26060.8	0.00251923	483226	483226	
26077.3	0.00249573	483646	483646	
26093.8	0.00246603	484034	484034	
26110.3	0.00243025	484298	484298	
26126.8	0.00238857	484597	484597	
26143.3	0.00234116	485045	485045	
26159.8	0.0022882	485453	485453	
26176.4	0.00222987	485862	485862	
26192.9	0.00216632	486235	486235	
26209.4	0.00209771	486611	486611	
26225.9	0.00202421	486883	486883	
26242.4	0.00194599	487086	487086	
26258.9	0.00186323	487409	487409	
26275.4	0.00177613	487821	487821	
26291.9	0.00168491	488074	488074	
26308.4	0.00158982	488351	488351	
26324.9	0.00149111	488705	488705	
26341.5	0.00138906	489088	489088	
26358	0.00128395	489371	489371	
26374.5	0.00117607	489798	489798	
26391	0.00106572	490149	490149	
26407.5	0.000953176	490515	490515	
26424	0.000838717	490894	490894	
26440.5	0.000722602	491285	491285	
26457	0.000605082	491610	491610	
26473.5	0.000486396	491948	491948	
26490	0.000366781	492233	492233	
26506.6	0.000246474	492664	492664	
26523.1	0.000125714	493103	493103	
26539.6	4.74922e-06	493431	493431	
26556.1	-0.000116163	493738	493738	
26572.6	-0.000236759	494057	494057	
26589.1	-0.000356772	494387	494387	
26605.6	-0.00047593	494793	494793	
26622.1	-0.000593966	495238	495238	
26638.6	-0.000710618	495555	495555	
26655.1	-0.000825632	495885	495885	
26671.7	-0.000938763	496216	496216	
26688.2	-0.00104978	496610	496610	
26704.7	-0.00115845	496959	496959	
26721.2	-0.00126457	497478	497478	
26737.7	-0.00136792	497950	497950	
26754.2	-0.00146832	498436	498436	
26770.7	-0.00156556	498897	498897	
26787.2	-0.00165946	499306	499306	
26803.7	-0.00174984	499761	499761	
26820.2	-0.00183652	500010	500010	
26836.8	-0.00191934	500486	500486	
26853.3	-0.00199812	500933	500933	
26869.8	-0.00207272	501325	501325	
26886.3	-0.002143	501780	501780	
26902.8	-0.0022088	502268	502268	
26919.3	-0.00227001	502664	502664	
26935.8	-0.0023265	503165	503165	
26952.3	-0.00237816	503656	503656	
26968.8	-0.00242488	504117	504117	
26985.3	-0.00246658	504486	504486	
27001.9	-0.00250316	504865	504865	
27018.4	-0.00253454	505232	505232	
27034.9	-0.00256067	505628	505628	
27051.4	-0.00258147	506033	506033	
27067.9	-0.00259691	506494	506494	
27084.4	-0.00260694	506814	506814	
27100.9	-0.00261153	507301	507301	
27117.4	-0.00261067	507703	507703	
27133.9	-0.00260433	508127	508127	
27150.4	-0.00259253	508577	508577	
27167	-0.00257526	509094	509094	
27183.5	-0.00255253	509578	509578	
27200	-0.00252436	510065	510065	
27216.5	-0.00249078	510635	510635	
27233	-0.0024518	511134	511134	
27249.5	-0.00240748	511470	511470	
27266	-0.00235784	511901	511901	
27282.5	-0.00230294	512378	512378	
27299	-0.00224282	512802	512802	
27315.5	-0.00217754	513174	513174	
27332.1	-0.00210718	513605	513605	
27348.6	-0.00203179	514013	514013	
27365.1	-0.00195147	514356	514356	
27381.6	-0.00186631	514722	514722	
27398.1	-0.00177641	515125	515125	
27414.6	-0.00168188	515531	515531	
27431.1	-0.00158285	515936	515936	
27447.6	-0.00147946	516337	516337	
27464.1	-0.00137183	516712	516712	
27480.6	-0.00126014	517111	517111	
27497.2	-0.00114452	517539	517539	
27513.7	-0.00102514	517949	517949	
27530.2	-0.000902136	518324	518324	
27546.7	-0.000775632	518777	518777	
27563.2	-0.000645757	519140	519140	
27579.7	-0.000512672	519492	519492	
27596.2	-0.00037552	519836	519836	
27612.7	-0.000234594	520268	520268	
27629.2	-9.01367e-05	520575	520575	
27645.7	5.68857e-05	520899	520899	
27662.3	0.00020548	521285	521285	
27678.8	0.000354653	521582	521582	
27695.3	0.000503768	521773	521773	
27711.8	0.000653296	522071	522071	
27728.3	0.000803913	522329	522329	
27744.8	0.000956543	522655	522655	
27761.3	0.0011117	522998	522998	
27777.8	0.00126959	523385	523385	
27794.3	0.00143002	523679	523679	
27810.8	0.00159256	524139	524139	
27827.4	0.00175663	524590	524590	
27843.9	0.00192144	524861	524861	
27860.4	0.00208642	525139	525139	
27876.9	0.00225107	525518	525518	
27893.4	0.00241509	525971	525971	
27909.9	0.00257833	526232	526232	
27926.4	0.0027408	526470	526470	
27942.9	0.00290265	526849	526849	
27959.4	0.00306403	527137	527137	
27976	0.00322512	527305	527305	
27992.5	0.00338603	527539	527539	
28009	0.00354664	527897	527897	
28025.5	0.00370678	528178	528178	
28042	0.00386622	528467	528467	
28058.5	0.00402485	528727	528727	
28075	0.00418238	529016	529016	
28091.5	0.00433861	529343	529343	
28108.1	0.00449335	529723	529723	
28124.6	0.0046465	530248	530248	
28141.1	0.00479803	530715	530715	
28157.6	0.00494789	531009	531009	
28174.1	0.00509612	531392	531392	
28190.6	0.0052427	531793	531793	
28207.1	0.00538754	532118	532118	
28223.6	0.00553053	532588	532588	
28240.1	0.00567155	532873	532873	
28256.7	0.00581044	533168	533168	
28273.2	0.00594707	533393	533393	
28289.7	0.00608126	533462	533462	
28306.2	0.00621289	533664	533664	
28322.7	0.00634179	533886	533886	
28339.2	0.00646782	534256	534256	
28355.7	0.00659081	534597	534597	
28372.2	0.0067106	535060	535060	
28388.7	0.00682708	535448	535448	
28405.2	0.00694012	535903	535903	
28421.8	0.00704965	536436	536436	
28438.3	0.00715562	536845	536845	
28454.8	0.007258	537276	537276	
28471.3	0.00735676	537613	537613	
28487.8	0.00745189	537851	537851	
28504.3	0.00754333	538040	538040	
28520.8	0.00763104	538283	538283	
28537.3	0.00771496	538463	538463	
28553.8	0.00779501	538634	538634	
28570.3	0.00787114	538928	538928	
28586.9	0.00794329	539262	539262	
28603.4	0.00801142	539643	539643	
28619.9	0.00807551	540102	540102	
28636.4	0.00813556	540511	540511	
28652.9	0.00819158	540813	540813	
28669.4	0.00824358	541207	541207	
28685.9	0.00829155	541653	541653	
28702.4	0.0083355	541999	541999	
28718.9	0.00837541	542385	542385	
28735.4	0.00841126	542710	542710	
28752	0.00844301	543009	543009	
28768.5	0.00847063	543263	543263	
28785	0.00849409	543579	543579	
28801.5	0.00851334	543899	543899	
28818	0.00852835	544308	544308	
28834.5	0.00853912	544626	544626	
28851	0.00854562	544927	544927	
28867.5	0.00854785	545391	545391	
28884	0.00854581	545823	545823	
28900.5	0.00853951	546057	546057	
28917.1	0.00852896	546435	546435	
28933.6	0.00851418	546892	546892	
28950.1	0.0084952	547202	547202	
28966.6	0.00847203	547543	547543	
28983.1	0.0084447	547945	547945	
28999.6	0.00841324	548413	548413	
29016.1	0.00837768	548840	548840	
29032.6	0.00833804	549232	549232	
29049.1	0.00829435	549680	549680	
29065.6	0.00824663	550135	550135	
29082.2	0.0081949	550516	550516	
29098.7	0.00813918	550862	550862	
29115.2	0.0080795	551189	551189	
29131.7	0.00801586	551346	551346	
29148.2	0.00794828	551759	551759	
29164.7	0.00787678	552028	552028	
29181.2	0.00780139	552455	552455	
29197.7	0.00772212	552865	552865	
29214.2	0.007639	553153	553153	
29230.7	0.00755205	553501	553501	
29247.3	0.00746131	553920	553920	
29263.8	0.0073668	554268	554268	
29280.3	0.00726855	554628	554628	
29296.8	0.00716659	554983	554983	
29313.3	0.00706093	555382	555382	
29329.8	0.00695162	555809	555809	
29346.3	0.00683867	556183	556183	
29362.8	0.00672212	556632	556632	
29379.3	0.00660199	557114	557114	
29395.8	0.00647833	557505	557505	
29412.4	0.00635118	557903	557903	
29428.9	0.00622057	558305	558305	
29445.4	0.00608656	558613	558613	
29461.9	0.00594919	558960	558960	
29478.4	0.00580854	559358	559358	
29494.9	0.00566465	559792	559792	
29511.4	0.00551759	560136	560136	
29527.9	0.00536744	560381	560381	
29544.4	0.00521426	560582	560582	
29560.9	0.00505812	560881	560881	
29577.5	0.00489911	561120	561120	
29594	0.0047373	561551	561551	
29610.5	0.00457278	561953	561953	
29627	0.00440562	562377	562377	
29643.5	0.00423592	562815	562815	
29660	0.00406378	563066	563066	
29676.5	0.00388927	563403	563403	
29693	0.00371251	563640	563640	
29709.5	0.00353358	564015	564015	
29726	0.00335259	564352	564352	
29742.6	0.00316965	564665	564665	
29759.1	0.00298485	564925	564925	
29775.6	0.0027983	565157	565157	
29792.1	0.00261012	565476	565476	
29808.6	0.00242039	565767	565767	
29825.1	0.00222925	566148	566148	
29841.6	0.00203678	566536	566536	
29858.1	0.00184311	566945	566945	
29874.6	0.00164833	567352	567352	
29891.1	0.00145256	567775	567775	
29907.7	0.00125589	568126	568126	
29924.2	0.00105844	568478	568478	
29940.7	0.000860308	568802	568802	
29957.2	0.000661582	569048	569048	
29973.7	0.000462361	569313	569313	
29990.2	0.000262735	569596	569596	
30006.7	6.27901e-05	569969	569969	
30023.2	-0.000137392	570348	570348	
30039.7	-0.000337734	570744	570744	
30056.2	-0.000538162	571241	571241	
30072.8	-0.000738609	571658	571658	
30089.3	-0.000939009	571930	571930	
30105.8	-0.0011393	572265	572265	
30122.3	-0.00133944	572568	572568	
30138.8	-0.00153936	572878	572878	
30155.3	-0.00173903	573069	573069	
30171.8	-0.00193841	573413	573413	
30188.3	-0.00213747	573602	573602	
30204.8	-0.00233617	573831	573831	
30221.3	-0.00253449	574138	574138	
30237.9	-0.00273241	574508	574508	
30254.4	-0.00292993	574847	574847	
30270.9	-0.00312702	575260	575260	
30287.4	-0.00332367	575649	575649	
30303.9	-0.00351989	576031	576031	
30320.4	-0.00371567	576430	576430	
30336.9	-0.00391102	576840	576840	
30353.4	-0.00410593	577237	577237	
30369.9	-0.00430041	577628	577628	
30386.4	-0.00449446	577861	577861	
30403	-0.0046881	578262	578262	
30419.5	-0.00488133	578517	578517	
30436	-0.00507415	578713	578713	
30452.5	-0.00526657	578932	578932	
30469	-0.00545861	579140	579140	
30485.5	-0.00565025	579492	579492	
30502	-0.00584151	579908	579908	
30518.5	-0.00603239	580241	580241	
30535	-0.00622289	580642	580642	
30551.5	-0.00641299	581069	581069	
30568.1	-0.00660269	581370	581370	
30584.6	-0.00679198	581908	581908	
30601.1	-0.00698085	582278	582278	
30617.6	-0.00716926	582733	582733	
30634.1	-0.00735719	582970	582970	
30650.6	-0.00754461	583349	583349	
30667.1	-0.00773149	583595	583595	
30683.6	-0.00791776	583858	583858	
30700.1	-0.00810339	584252	584252	
30716.6	-0.00828833	584470	584470	
30733.2	-0.00847251	584846	584846	
30749.7	-0.00865587	585276	585276	
30766.2	-0.00883833	585694	585694	
30782.7	-0.00901984	586108	586108	
30799.2	-0.0092003	586500	586500	
30815.7	-0.00937964	586878	586878	
30832.2	-0.00955776	587241	587241	
30848.7	-0.00973457	587589	587589	
30865.2	-0.00990997	588005	588005	
30881.7	-0.0100839	588464	588464	
30898.3	-0.0102561	588936	588936	
30914.8	-0.0104267	589289	589289	
30931.3	-0.0105953	589570	589570	
30947.8	-0.010762	589885	589885	
30964.3	-0.0109266	590188	590188	
30980.8	-0.011089	590525	590525	
30997.3	-0.011249	590796	590796	
31013.8	-0.0114065	591290	591290	
31030.3	-0.0115614	591531	591531	
31046.8	-0.0117135	591990	591990	
31063.4	-0.0118627	592384	592384	
31079.9	-0.0120089	592807	592807	
31096.4	-0.0121519	593189	593189	
31112.9	-0.0122916	593497	593497	
31129.4	-0.0124279	593809	593809	
31145.9	-0.0125606	594206	594206	
31162.4	-0.0126896	594695	594695	
31178.9	-0.0128148	595078	595078	
31195.4	-0.012936	595406	595406	
31211.9	-0.0130531	595552	595552	
31228.5	-0.013166	595859	595859	
31245	-0.0132746	596215	596215	
31261.5	-0.0133788	596520	596520	
31278	-0.0134784	596714	596714	
31294.5	-0.0135734	596959	596959	
31311	-0.0136637	597180	597180	
31327.5	-0.0137491	597624	597624	
31344	-0.0138296	598040	598040	
31360.5	-0.013905	598502	598502	
31377	-0.0139754	598896	598896	
31393.6	-0.0140406	599351	599351	
31410.1	-0.0141006	599707	599707	
31426.6	-0.0141553	600096	600096	
31443.1	-0.0142047	600251	600251	
31459.6	-0.0142487	600469	600469	
31476.1	-0.0142873	600763	600763	
31492.6	-0.0143204	600966	600966	
31509.1	-0.0143481	601248	601248	
31525.6	-0.0143703	601404	601404	
31542.1	-0.014387	601752	601752	
31558.7	-0.0143982	601980	601980	
31575.2	-0.0144039	602275	602275	
31591.7	-0.0144041	602717	602717	
31608.2	-0.0143989	603224	603224	
31624.7	-0.0143882	603659	603659	
31641.2	-0.014372	603992	603992	
31657.7	-0.0143505	604356	604356	
31674.2	-0.0143236	604741	604741	
31690.7	-0.0142914	605101	605101	
31707.2	-0.0142539	605550	605550	
31723.8	-0.0142112	605904	605904	
31740.3	-0.0141633	606193	606193	
31756.8	-0.0141103	606553	606553	
31773.3	-0.0140522	606832	606832	
31789.8	-0.0139892	607096	607096	
31806.3	-0.0139213	607368	607368	
31822.8	-0.0138485	607651	607651	
31839.3	-0.013771	607728	607728	
31855.8	-0.0136887	608004	608004	
31872.3	-0.0136019	608359	608359	
31888.9	-0.0135105	608723	608723	
31905.4	-0.0134146	609152	609152	
31921.9	-0.0133144	609721	609721	
31938.4	-0.0132099	610138	610138	
31954.9	-0.0131013	610464	610464	
31971.4	-0.0129885	610771	610771	
31987.9	-0.0128718	611180	611180	
32004.4	-0.0127512	611358	611358	
32020.9	-0.0126269	611650	611650	
32037.4	-0.0124989	611974	611974	
32054	-0.0123675	612331	612331	
32070.5	-0.0122327	612754	612754	
32087	-0.0120947	613147	613147	
32103.5	-0.0119537	613502	613502	
32120	-0.0118098	613842	613842	
32136.5	-0.0116631	614202	614202	
32153	-0.0115139	614455	614455	
32169.5	-0.0113622	614679	614679	
32186	-0.0112083	614982	614982	
32202.5	-0.0110521	615285	615285	
32219.1	-0.0108939	615622	615622	
32235.6	-0.0107339	615938	615938	
32252.1	-0.0105722	616357	616357	
32268.6	-0.0104091	616730	616730	
32285.1	-0.0102446	617072	617072	
32301.6	-0.0100792	617470	617470	
32318.1	-0.00991288	617859	617859	
32334.6	-0.00974594	618188	618188	
32351.1	-0.00957853	618568	618568	
32367.6	-0.00941081	619013	619013	
32384.2	-0.00924292	619409	619409	
32400.7	-0.00907498	619810	619810	
32417.2	-0.00890706	620198	620198	
32433.7	-0.00873926	620613	620613	
32450.2	-0.00857163	620941	620941	
32466.7	-0.00840425	621233	621233	
32483.2	-0.00823719	621543	621543	
32499.7	-0.00807054	621826	621826	
32516.2	-0.00790439	622127	622127	
32532.7	-0.00773887	622443	622443	
32549.3	-0.00757407	622847	622847	
32565.8	-0.00741012	623141	623141	
32582.3	-0.00724708	623624	623624	
32598.8	-0.00708503	624126	624126	
32615.3	-0.00692399	624473	624473	
32631.8	-0.00676396	624801	624801	
32648.3	-0.00660491	625076	625076	
32664.8	-0.00644677	625420	625420	
32681.3	-0.00628948	625847	625847	
32697.8	-0.00613296	626132	626132	
32714.4	-0.00597713	626545	626545	
32730.9	-0.00582195	627006	627006	
32747.4	-0.00566735	627450	627450	
32763.9	-0.0055133	627803	627803	
32780.4	-0.0053598	628146	628146	
32796.9	-0.00520681	628425	628425	
32813.4	-0.00505434	628870	628870	
32829.9	-0.00490237	629185	629185	
32846.4	-0.00475087	629438	629438	
32862.9	-0.00459981	629694	629694	
32879.5	-0.00444913	629904	629904	
32896	-0.00429877	630304	630304	
32912.5	-0.00414865	630612	630612	
32929	-0.0039987	630960	630960	
32945.5	-0.00384884	631409	631409	
32962	-0.00369899	631802	631802	
32978.5	-0.00354909	632149	632149	
32995	-0.0033991	632454	632454	
33011.5	-0.00324896	632781	632781	
33028	-0.00309867	633301	633301	
33044.6	-0.0029482	633626	633626	
33061.1	-0.00279756	634035	634035	
33077.6	-0.00264676	634373	634373	
33094.1	-0.00249581	634737	634737	
33110.6	-0.00234474	635125	635125	
33127.1	-0.00219359	635497	635497	
33143.6	-0.00204239	635834	635834	
33160.1	-0.0018912	636293	636293	
33176.6	-0.00174006	636683	636683	
33193.2	-0.00158906	637123	637123	
33209.7	-0.00143826	637680	637680	
33226.2	-0.00128775	638109	638109	
33242.7	-0.00113763	638439	638439	
33259.2	-0.000987997	638866	638866	
33275.7	-0.000838952	639317	639317	
33292.2	-0.000690609	639689	639689	
33308.7	-0.000543083	640073	640073	
33325.2	-0.000396491	640572	640572	
33341.7	-0.00025095	640845	640845	
33358.3	-0.000106578	641361	641361	
33374.8	3.65043e-05	641786	641786	
33391.3	0.000178174	642133	642133	
33407.8	0.000318299	642535	642535	
33424.3	0.000456749	642978	642978	
33440.8	0.000593406	643370	643370	
33457.3	0.000728161	643822	643822	
33473.8	0.000860909	644146	644146	
33490.3	0.000991558	644626	644626	
33506.8	0.00111999	645120	645120	
33523.4	0.00124603	645489	645489	
33539.9	0.00136952	645960	645960	
33556.4	0.00149026	646386	646386	
33572.9	0.00160805	646724	646724	
33589.4	0.00172264	647190	647190	
33605.9	0.00183379	647604	647604	
33622.4	0.00194127	648010	648010	
33638.9	0.00204485	648408	648408	
33655.4	0.00214425	648863	648863	
33671.9	0.00223937	649183	649183	
33688.5	0.00233035	649554	649554	
33705	0.00241752	649968	649968	
33721.5	0.00250127	650544	650544	
33738	0.00258195	650893	650893	
33754.5	0.00265976	651195	651195	
33771	0.00273483	651490	651490	
33787.5	0.0028072	651765	651765	
33804	0.0028769	652193	652193	
33820.5	0.00294391	652517	652517	
33837	0.00300824	652945	652945	
33853.6	0.00306987	653323	653323	
33870.1	0.00312881	653703	653703	
33886.6	0.0031851	653990	653990	
33903.1	0.00323881	654368	654368	
33919.6	0.00329005	654842	654842	
33936.1	0.00333889	655257	655257	
33952.6	0.00338543	655691	655691	
33969.1	0.00342973	656047	656047	
33985.6	0.00347184	656456	656456	
34002.1	0.00351182	656851	656851	
34018.7	0.00354974	657161	657161	
34035.2	0.00358565	657515	657515	
34051.7	0.00361966	657828	657828	
34068.2	0.00365188	658052	658052	
34084.7	0.00368242	658385	658385	
34101.2	0.00371143	658720	658720	
34117.7	0.00373904	659022	659022	
34134.2	0.00376541	659255	659255	
34150.7	0.00379065	659608	659608	
34167.2	0.00381488	660000	660000	
34183.8	0.00383818	660341	660341	
34200.3	0.00386062	660740	660740	
34216.8	0.00388226	661203	661203	
34233.3	0.00390311	661548	661548	
34249.8	0.00392319	661767	661767	
34266.3	0.00394251	662033	662033	
34282.8	0.00396106	662427	662427	
34299.3	0.00397882	662802	662802	
34315.8	0.00399577	663162	663162	
34332.3	0.00401186	663355	663355	
34348.9	0.00402704	663667	663667	
34365.4	0.00404125	663893	663893	
34381.9	0.00405441	664163	664163	
34398.4	0.00406643	664513	664513	
34414.9	0.0040772	664777	664777	
34431.4	0.00408662	665077	665077	
34447.9	0.00409456	665401	665401	
34464.4	0.0041009	665881	665881	
34480.9	0.00410551	666244	666244	
34497.4	0.00410829	666637	666637	
34514	0.00410909	666901	666901	
34530.5	0.0041078	667287	667287	
34547	0.00410431	667640	667640	
34563.5	0.0040985	667946	667946	
34580	0.00409028	668187	668187	
34596.5	0.00407955	668572	668572	
34613	0.00406623	668836	668836	
34629.5	0.00405024	669188	669188	
34646	0.00403154	669540	669540	
34662.5	0.00401009	669875	669875	
34679.1	0.00398586	670190	670190	
34695.6	0.00395886	670559	670559	
34712.1	0.00392911	671128	671128	
34728.6	0.00389665	671610	671610	
34745.1	0.00386154	671984	671984	
34761.6	0.00382389	672465	672465	
34778.1	0.0037838	672788	672788	
34794.6	0.0037414	672946	672946	
34811.1	0.00369685	673267	673267	
34827.6	0.00365032	673679	673679	
34844.2	0.00360203	673845	673845	
34860.7	0.00355218	674258	674258	
34877.2	0.00350101	674542	674542	
34893.7	0.00344878	674982	674982	
34910.2	0.00339577	675398	675398	
34926.7	0.00334225	676018	676018	
34943.2	0.00328854	676423	676423	
34959.7	0.00323494	676871	676871	
34976.2	0.00318177	677379	677379	
34992.7	0.00312935	677868	677868	
35009.3	0.00307802	678166	678166	
35025.8	0.0030281	678489	678489	
35042.3	0.00297993	678845	678845	
35058.8	0.00293381	679194	679194	
35075.3	0.00289006	679694	679694	
35091.8	0.002849	679985	679985	
35108.3	0.00281089	680387	680387	
35124.8	0.00277602	680837	680837	
35141.3	0.00274464	681283	681283	
35157.8	0.00271696	681760	681760	
35174.4	0.00269318	682139	682139	
35190.9	0.00267347	682568	682568	
35207.4	0.00265796	682993	682993	
35223.9	0.00264674	683316	683316	
35240.4	0.00263987	683768	683768	
35256.9	0.00263735	684186	684186	
35273.4	0.00263915	684467	684467	
35289.9	0.00264521	684937	684937	
35306.4	0.0026554	685299	685299	
35322.9	0.00266958	685470	685470	
35339.5	0.00268753	685695	685695	
35356	0.00270902	686089	686089	
35372.5	0.00273378	686443	686443	
35389	0.00276153	686802	686802	
35405.5	0.0027919	687095	687095	
35422	0.00282453	687662	687662	
35438.5	0.00285906	688064	688064	
35455	0.00289504	688616	688616	
35471.5	0.00293206	689005	689005	
35488.1	0.00296966	689327	689327	
35504.6	0.00302261	689692	689692	
35521.1	0.00304447	689879	689879	
35537.6	0.00307458	690249	690249	
35554.1	0.00310174	690575	690575	
35570.6	0.00312992	690871	690871	
35587.1	0.00314971	691081	691081	
35603.6	0.00317472	691454	691454	
35620.1	0.00320142	691795	691795	
35636.7	0.00323996	692245	692245	
35653.2	0.00325795	692702	692702	
35669.7	0.00327277	693046	693046	
35686.2	0.00328153	693502	693502	
35702.7	0.00327877	693878	693878	
35719.2	0.00327738	694362	694362	
35735.7	0.00326413	694798	694798	
35752.2	0.00324248	695194	695194	
35768.7	0.0032129	695419	695419	
35785.2	0.00317652	695858	695858	
35801.8	0.00313309	696180	696180	
35818.3	0.00308246	696592	696592	
35834.8	0.00302438	697024	697024	
35851.3	0.00295876	697409	697409	
35867.8	0.00288555	697836	697836	
35884.3	0.0028047	698142	698142	
35900.8	0.0027162	698549	698549	
35917.3	0.00262014	698880	698880	
35933.8	0.00251677	699256	699256	
35950.3	0.00240647	699634	699634	
35966.9	0.00228974	700101	700101	
35983.4	0.0021671	700359	700359	
35999.9	0.00203909	700605	700605	
36016.4	0.00190624	700958	700958	
36032.9	0.0017691	701248	701248	
36049.4	0.0016282	701603	701603	
36065.9	0.00148409	702246	702246	
36082.4	0.00133734	702703	702703	
36098.9	0.00118855	703195	703195	
36115.4	0.00103834	703578	703578	
36132	0.000887401	703896	703896	
36148.5	0.000736411	704327	704327	
36165	0.000586087	704778	704778	
36181.5	0.000437148	705142	705142	
36198	0.000290305	705648	705648	
36214.5	0.000146253	706057	706057	
36231	5.66116e-06	706543	706543	
36247.5	-0.000130825	706894	706894	
36264	-0.000262584	707276	707276	
36280.5	-0.000389011	707664	707664	
36297.1	-0.000509516	707902	707902	
36313.6	-0.000623493	708250	708250	
36330.1	-0.000730329	708671	708671	
36346.6	-0.000829444	708978	708978	
36363.1	-0.000920342	709301	709301	
36379.6	-0.00100265	709716	709716	
36396.1	-0.00107613	710043	710043	
36412.6	-0.00114065	710364	710364	
36429.1	-0.00119617	710761	710761	
36445.6	-0.00124275	711176	711176	
36462.2	-0.00128049	711521	711521	
36478.7	-0.00130957	711851	711851	
36495.2	-0.00133016	712259	712259	
36511.7	-0.00134248	712685	712685	
36528.2	-0.00134673	712978	712978	
36544.7	-0.00134316	713238	713238	
36561.2	-0.00133199	713446	713446	
36577.7	-0.0013135	713832	713832	
36594.2	-0.00128795	714197	714197	
36610.7	-0.00125567	714663	714663	
36627.3	-0.00121699	715019	715019	
36643.8	-0.00117226	715330	715330	
36660.3	-0.00112188	715808	715808	
36676.8	-0.00106624	716161	716161	
36693.3	-0.00100578	716547	716547	
36709.8	-0.000940971	716885	716885	
36726.3	-0.000872301	717212	717212	
36742.8	-0.0008003	717413	717413	
36759.3	-0.000725525	717705	717705	
36775.8	-0.000648555	718064	718064	
36792.4	-0.000569983	718434	718434	
36808.9	-0.000490405	718846	718846	
36825.4	-0.000410406	719202	719202	
36841.9	-0.000330553	719483	719483	
36858.4	-0.000251385	719954	719954	
36874.9	-0.000173405	720367	720367	
36891.4	-9.70833e-05	720649	720649	
36907.9	-2.28523e-05	720990	720990	
36924.4	4.88879e-05	721349	721349	
36940.9	0.000117767	721697	721697	
36957.5	0.000183441	722173	722173	
36974	0.000245589	722536	722536	
36990.5	0.000303912	722889	722889	
37007	0.00035813	723143	723143	
37023.5	0.000407989	723539	723539	
37040	0.000453257	723916	723916	
37056.5	0.000493729	724239	724239	
37073	0.000529231	724581	724581	
37089.5	0.000559618	724964	724964	
37106	0.000584781	725496	725496	
37122.6	0.000604643	725828	725828	
37139.1	0.00061916	726278	726278	
37155.6	0.000628323	726669	726669	
37172.1	0.000632151	727036	727036	
37188.6	0.000630694	727472	727472	
37205.1	0.000624029	727682	727682	
37221.6	0.000612256	728017	728017	
37238.1	0.000595496	728474	728474	
37254.6	0.000573889	728920	728920	
37271.1	0.000547593	729411	729411	
37287.7	0.000516778	729786	729786	
37304.2	0.000481624	730151	730151	
37320.7	0.000442324	730448	730448	
37337.2	0.000399078	730800	730800	
37353.7	0.00035209	731260	731260	
37370.2	0.000301575	731625	731625	
37386.7	0.00024775	732004	732004	
37403.2	0.000190837	732333	732333	
37419.7	0.000131063	732727	732727	
37436.2	6.86575e-05	733159	733159	
37452.8	3.8524e-06	733431	733431	
37469.3	-6.31193e-05	733723	733723	
37485.8	-0.000132025	734108	734108	
37502.3	-0.000202635	734569	734569	
37518.8	-0.000274721	734927	734927	
37535.3	-0.000348063	735295	735295	
37551.8	-0.000422447	735652	735652	
37568.3	-0.000497664	735901	735901	
37584.8	-0.000573517	736106	736106	
37601.3	-0.000649817	736458	736458	
37617.9	-0.000726383	736697	736697	
37634.4	-0.000803043	736950	736950	
37650.9	-0.000879632	737378	737378	
37667.4	-0.00095599	737694	737694	
37683.9	-0.00103197	738190	738190	
37700.4	-0.00110741	738653	738653	
37716.9	-0.00118217	739084	739084	
37733.4	-0.00125611	739401	739401	
37749.9	-0.00132907	739877	739877	
37766.4	-0.0014009	740239	740239	
37783	-0.00147146	740608	740608	
37799.5	-0.00154059	741123	741123	
37816	-0.00160811	741535	741535	
37832.5	-0.00167387	741856	741856	
37849	-0.00173768	742266	742266	
37865.5	-0.00179935	742572	742572	
37882	-0.00185869	742803	742803	
37898.5	-0.00191549	743178	743178	
37915	-0.00196955	743431	743431	
37931.5	-0.00202066	743880	743880	
37948.1	-0.0020686	744335	744335	
37964.6	-0.00211317	744769	744769	
37981.1	-0.00215416	745064	745064	
37997.6	-0.00219138	745425	745425	
38014.1	-0.00222464	745821	745821	
38030.6	-0.00225379	746249	746249	
38047.1	-0.00227866	746652	746652	
38063.6	-0.00229913	747018	747018	
38080.1	-0.00231509	747355	747355	
38096.6	-0.00232645	747812	747812	
38113.2	-0.00233314	748196	748196	
38129.7	-0.00233512	748620	748620	
38146.2	-0.00233235	748921	748921	
38162.7	-0.00232482	749294	749294	
38179.2	-0.00231253	749653	749653	
38195.7	-0.00229549	750069	750069	
38212.2	-0.00227374	750504	750504	
38228.7	-0.0022473	750918	750918	
38245.2	-0.00221623	751303	751303	
38261.7	-0.00218056	751697	751697	
38278.3	-0.00214035	752000	752000	
38294.8	-0.00209567	752409	752409	
38311.3	-0.00204659	752666	752666	
38327.8	-0.00199317	752994	752994	
38344.3	-0.00193551	753453	753453	
38360.8	-0.0018737	753884	753884	
38377.3	-0.00180785	754304	754304	
38393.8	-0.00173808	754711	754711	
38410.3	-0.00166452	755199	755199	
38426.8	-0.00158734	755655	755655	
38443.4	-0.00150672	755978	755978	
38459.9	-0.00142286	756355	756355	
38476.4	-0.00133598	756769	756769	
38492.9	-0.00124634	757151	757151	
38509.4	-0.0011542	757590	757590	
38525.9	-0.00105987	758020	758020	
38542.4	-0.000963644	758562	758562	
38558.9	-0.000865869	759026	759026	
38575.4	-0.000766888	759406	759406	
38591.9	-0.000667062	759880	759880	
38608.5	-0.000566761	760272	760272	
38625	-0.000466358	760674	760674	
38641.5	-0.000366233	761005	761005	
38658	-0.000266764	761247	761247	
38674.5	-0.000168325	761580	761580	
38691	-7.12856e-05	761814	761814	
38707.5	2.39907e-05	762138	762138	
38724	0.000117148	762576	762576	
38740.5	0.000207839	763050	763050	
38757	0.000295728	763440	763440	
38773.6	0.000380505	763905	763905	
38790.1	0.000461892	764337	764337	
38806.6	0.000539646	764810	764810	
38823.1	0.000613549	765208	765208	
38839.6	0.000683402	765496	765496	
38856.1	0.000749014	765870	765870	
38872.6	0.000810203	766233	766233	
38889.1	0.000866799	766497	766497	
38905.6	0.000918643	766873	766873	
38922.1	0.000965587	767227	767227	
38938.7	0.00100749	767616	767616	
38955.2	0.0010442	767894	767894	
38971.7	0.0010756	768319	768319	
38988.2	0.00110157	768748	768748	
39004.7	0.00112202	769095	769095	
39021.2	0.00113371	769316	769316	
39037.7	0.00114432	769687	769687	
39054.2	0.00114261	770116	770116	
39070.7	0.00114649	770523	770523	
39087.2	0.00114088	770925	770925	
39103.8	0.00113066	771311	771311	
39120.3	0.00111195	771487	771487	
39136.8	0.0010966	771951	771951	
39153.3	0.00107399	772500	772500	
39169.8	0.00104392	772849	772849	
39186.3	0.00100182	773189	773189	
39202.8	0.000950315	773635	773635	
39219.3	0.000894514	774083	774083	
39235.8	0.000835241	774393	774393	
39252.3	0.000773994	774773	774773	
39268.9	0.000711268	775045	775045	
39285.4	0.000647603	775375	775375	
39301.9	0.000582095	775793	775793	
39318.4	0.000513982	776169	776169	
39334.9	0.000442086	776648	776648	
39351.4	0.000365796	777015	777015	
39367.9	0.000284863	777309	777309	
39384.4	0.000199768	777471	777471	
39400.9	0.000111416	777946	777946	
39417.4	2.07222e-05	778359	778359	
39434	-7.16696e-05	778743	778743	
39450.5	-0.000165404	779059	779059	
39467	-0.00026033	779408	779408	
39483.5	-0.00035633	779730	779730	
39500	-0.000453319	780045	780045	
39516.5	-0.000551201	780321	780321	
39533	-0.000649843	780731	780731	
39549.5	-0.000749082	781045	781045	
39566	-0.000848728	781414	781414	
39582.5	-0.000948569	781792	781792	
39599.1	-0.00104838	782138	782138	
39615.6	-0.00114795	782585	782585	
39632.1	-0.0012471	783058	783058	
39648.6	-0.0013457	783471	783471	
39665.1	-0.00144359	783891	783891	
39681.6	-0.00154061	784239	784239	
39698.1	-0.00163658	784608	784608	
39714.6	-0.00173126	785007	785007	
39731.1	-0.0018244	785359	785359	
39747.6	-0.00191567	785671	785671	
39764.2	-0.0020047	786035	786035	
39780.7	-0.00209106	786445	786445	
39797.2	-0.00217427	786744	786744	
39813.7	-0.00225387	787143	787143	
39830.2	-0.00232937	787711	787711	
39846.7	-0.00240035	788238	788238	
39863.2	-0.00246642	788605	788605	
39879.7	-0.00252724	789022	789022	
39896.2	-0.00258253	789439	789439	
39912.7	-0.00263208	789664	789664	
39929.3	-0.00267573	789940	789940	
39945.8	-0.00271336	790296	790296	
39962.3	-0.00274493	790656	790656	
39978.8	-0.0027704	791064	791064	
39995.3	-0.00278976	791599	791599	
40011.8	-0.00280298	792011	792011	
40028.3	-0.00281004	792338	792338	
40044.8	-0.00281086	792879	792879	
40061.3	-0.00280536	793342	793342	
40077.8	-0.00279344	793744	793744	
40094.4	-0.00277498	794204	794204	
40110.9	-0.00274989	794671	794671	
40127.4	-0.00271808	795042	795042	
40143.9	-0.00267947	795369	795369	
40160.4	-0.00263405	795720	795720	
40176.9	-0.00258181	796125	796125	
40193.4	-0.00252282	796482	796482	
40209.9	-0.00245714	796985	796985	
40226.4	-0.00238415	797444	797444	
40242.9	-0.002304	797933	797933	
40259.5	-0.00221867	798299	798299	
40276	-0.0021699	798654	798654	
40292.5	-0.0020913	799096	799096	
40309	-0.00200253	799643	799643	
40325.5	-0.00189236	800055	800055	
40342	-0.0017867	800478	800478	
40358.5	-0.00167844	800874	800874	
40375	-0.00155926	801239	801239	
40391.5	-0.00143703	801650	801650	
40408	-0.00131295	801907	801907	
40424.6	-0.00111547	802149	802149	
40441.1	-0.000945837	802541	802541	
40457.6	-0.000786926	802923	802923	
40474.1	-0.000660101	803370	803370	
40490.6	-0.000529797	803946	803946	
40507.1	-0.000392629	804347	804347	
40523.6	-0.000251372	804758	804758	
40540.1	-0.000107265	805149	805149	
40556.6	3.55528e-05	805496	805496	
40573.1	0.000175079	805903	805903	
40589.7	0.000319302	806186	806186	
40606.2	0.000460641	806436	806436	
40622.7	0.000596423	806868	806868	
40639.2	0.00073934	807173	807173	
40655.7	0.000854641	807618	807618	
40672.2	0.00095672	808038	808038	
40688.7	0.00104988	808455	808455	
40705.2	0.00112712	808817	808817	
40721.7	0.00120219	809179	809179	
40738.2	0.00124907	809617	809617	
40754.8	0.00135615	810145	810145	
40771.3	0.00142157	810518	810518	
40787.8	0.00148756	810945	810945	
40804.3	0.00155863	811414	811414	
40820.8	0.00163419	811533	811533	
40837.3	0.00166398	811912	811912	
40853.8	0.00177744	812396	812396	
40870.3	0.00191132	812848	812848	
40886.8	0.00198133	813221	813221	
40903.3	0.00199914	813720	813720	
40919.9	0.00205175	814072	814072	
40936.4	0.00209826	814445	814445	
40952.9	0.00214031	814863	814863	
40969.4	0.0021748	815331	815331	
40985.9	0.00220438	815700	815700	
41002.4	0.0022251	816110	816110	
41018.9	0.0022413	816460	816460	
41035.4	0.00225339	816963	816963	
41051.9	0.00225986	817518	817518	
41068.4	0.0022644	817940	817940	
41085	0.00226779	818354	818354	
41101.5	0.00226922	818725	818725	
41118	0.0022691	819064	819064	
41134.5	0.00226533	819408	819408	
41151	0.00225684	819868	819868	
41167.5	0.00224363	820368	820368	
41184	0.00222673	820824	820824	
41200.5	0.00220697	821257	821257	
41217	0.00218493	821808	821808	
41233.5	0.00216139	821983	821983	
41250.1	0.00213681	822470	822470	
41266.6	0.00211136	822778	822778	
41283.1	0.002085	823253	823253	
41299.6	0.00205753	823741	823741	
41316.1	0.00202846	824223	824223	
41332.6	0.00199711	824792	824792	
41349.1	0.00196283	825129	825129	
41365.6	0.00192526	825489	825489	
41382.1	0.00188432	825775	825775	
41398.7	0.00184024	826090	826090	
41415.2	0.00179345	826662	826662	
41431.7	0.00174448	827068	827068	
41448.2	0.00169381	827532	827532	
41464.7	0.00164175	827932	827932	
41481.2	0.00158841	828296	828296	
41497.7	0.00153368	828599	828599	
41514.2	0.00147725	828916	828916	
41530.7	0.00141868	829279	829279	
41547.2	0.00135746	829721	829721	
41563.8	0.00129313	830254	830254	
41580.3	0.00122533	830682	830682	
41596.8	0.00115389	831037	831037	
41613.3	0.00107883	831291	831291	
41629.8	0.00100032	831692	831692	
41646.3	0.000918651	831993	831993	
41662.8	0.000834154	832159	832159	
41679.3	0.000747138	832379	832379	
41695.8	0.000657851	832745	832745	
41712.3	0.000566462	833118	833118	
41728.9	0.000473058	833604	833604	
41745.4	0.000377663	833907	833907	
41761.9	0.000280276	834365	834365	
41778.4	0.00018091	834833	834833	
41794.9	7.95909e-05	835415	835415	
41811.4	-2.34887e-05	835945	835945	
41827.9	-0.000128149	836363	836363	
41844.4	-0.000234104	836760	836760	
41860.9	-0.000341041	837069	837069	
41877.5	-0.000448508	837332	837332	
41894	-0.000556128	837745	837745	
41910.5	-0.000663483	838037	838037	
41927	-0.000770191	838395	838395	
41943.5	-0.000875776	838682	838682	
41960	-0.000979867	838879	838879	
41976.5	-0.00108206	839292	839292	
41993	-0.00118196	839793	839793	
42009.5	-0.00127916	840327	840327	
42026	-0.00137326	840931	840931	
42042.6	-0.00146385	841569	841569	
42059.1	-0.00155056	841991	841991	
42075.6	-0.001633	842725	842725	
42092.1	-0.00171079	843272	843272	
42108.6	-0.0017836	843668	843668	
42125.1	-0.00185106	844035	844035	
42141.6	-0.00191285	844347	844347	
42158.1	-0.00196864	844707	844707	
42174.6	-0.00201809	845023	845023	
42191.1	-0.00206088	845456	845456	
42207.7	-0.00209671	845833	845833	
42224.2	-0.00212529	846345	846345	
42240.7	-0.00214634	846770	846770	
42257.2	-0.00215966	847175	847175	
42273.7	-0.00216505	847640	847640	
42290.2	-0.00216239	848152	848152	
42306.7	-0.00215167	848546	848546	
42323.2	-0.00213298	848820	848820	
42339.7	-0.00210663	849299	849299	
42356.2	-0.00207297	849847	849847	
42372.8	-0.00203227	850217	850217	
42389.3	-0.00198487	850651	850651	
42405.8	-0.00193098	851239	851239	
42422.3	-0.00187075	851751	851751	
42438.8	-0.00178595	852126	852126	
42455.3	-0.00171583	852611	852611	
42471.8	-0.00164488	852885	852885	
42488.3	-0.00157259	853271	853271	
42504.8	-0.00147776	853515	853515	
42521.3	-0.00139471	853922	853922	
42537.9	-0.00132836	854203	854203	
42554.4	-0.00125494	854791	854791	
42570.9	-0.00117772	855184	855184	
42587.4	-0.00109868	855514	855514	
42603.9	-0.00101989	855944	855944	
42620.4	-0.000941228	856540	856540	
42636.9	-0.000860703	857293	857293	
42653.4	-0.000835009	857969	857969	
42669.9	-0.000758116	858426	858426	
42686.4	-0.000685953	858767	858767	
42703	-0.000612852	859193	859193	
42719.5	-0.000529963	859556	859556	
42736	-0.000438697	859975	859975	
42752.5	-0.000345685	860375	860375	
42769	-0.000251473	860781	860781	
42785.5	-0.000151809	861339	861339	
42802	-3.74726e-05	861871	861871	
42818.5	5.86492e-05	862120	862120	
42835	0.000267986	862463	862463	
42851.5	0.000425742	862867	862867	
42868.1	0.000580992	863239	863239	
42884.6	0.000728254	863566	863566	
42901.1	0.000884479	863998	863998	
42917.6	0.00104303	864528	864528	
42934.1	0.00120096	864866	864866	
42950.6	0.00135442	865372	865372	
42967.1	0.00150843	865858	865858	
42983.6	0.00166512	866277	866277	
43000.1	0.00182562	866741	866741	
43016.6	0.00198993	867052	867052	
43033.2	0.00215811	867446	867446	
43049.7	0.00233013	867747	867747	
43066.2	0.00250568	868060	868060	
43082.7	0.00268414	868381	868381	
43099.2	0.0028647	868761	868761	
43115.7	0.0030466	869188	869188	
43132.2	0.00322915	869455	869455	
43148.7	0.00341193	869897	869897	
43165.2	0.0035948	870383	870383	
43181.7	0.00377781	870866	870866	
43198.3	0.00396107	871358	871358	
