0	0	38812	38812	
18.4875	0	38616	38616	
37.1736	0	38692	38692	
55.6611	0	38852	38852	
74.1486	0	39016	39016	
92.6361	0	39192	39192	
111.1	0	39364	39364	
129.564	0	39488	39488	
148.029	0	39604	39604	
166.348	0	39574	39574	
184.668	0	39600	39600	
202.987	0	39540	39540	
221.307	0	39570	39570	
239.627	0	39608	39608	
257.946	0	39684	39684	
276.266	0	39760	39760	
294.585	0	39850	39850	
312.905	0	39930	39930	
331.224	0	39984	39984	
349.544	0	40028	40028	
367.864	0	40116	40116	
386.183	0	40192	40192	
404.503	0	40250	40250	
422.822	0	40302	40302	
441.142	0	40406	40406	
459.461	0	40470	40470	
477.781	0	40492	40492	
496.051	0	40530	40530	
514.322	0	40576	40576	
532.592	0	40584	40584	
550.863	0	40620	40620	
569.133	0	40610	40610	
587.404	0	40598	40598	
605.674	0	40648	40648	
623.944	0	40716	40716	
642.215	0	40758	40758	
660.485	0	40802	40802	
678.756	0	40894	40894	
697.026	0	40964	40964	
715.296	0	41010	41010	
733.567	0	41106	41106	
751.837	0	41174	41174	
770.108	0	41212	41212	
788.378	0	41274	41274	
806.648	0	41336	41336	
824.919	0	41412	41412	
843.189	0	41466	41466	
861.46	0	41548	41548	
879.73	0	41612	41612	
898	0	41698	41698	
916.271	0	41764	41764	
934.541	0	41866	41866	
952.812	0	41976	41976	
971.082	0	42038	42038	
989.352	0	42134	42134	
1007.62	0	42232	42232	
1025.89	0	42308	42308	
1044.16	0	42416	42416	
1062.43	0	42476	42476	
1080.7	0	42572	42572	
1098.97	0	42650	42650	
1117.25	0	42768	42768	
1135.52	0	42890	42890	
1153.79	0	42998	42998	
1172.06	0	43136	43136	
1190.33	0	43212	43212	
1208.6	0	43348	43348	
1226.87	0	43446	43446	
1244.88	0	43530	43530	
1262.9	0	43602	43602	
1280.92	0	43668	43668	
1298.93	0	43778	43778	
1316.95	0	43866	43866	
1334.97	0	44006	44006	
1352.64	0	44094	44094	
1370.31	0	44182	44182	
1387.98	0	44252	44252	
1405.64	0	44414	44414	
1422.93	0	44558	44558	
1440.22	0	44656	44656	
1457.51	0	44762	44762	
1474.8	0	44840	44840	
1492.09	0	44926	44926	
1509.38	0	45014	45014	
1526.51	0	45090	45090	
1543.63	0	45162	45162	
1560.76	0	45270	45270	
1577.88	0	45422	45422	
1595.01	0	45490	45490	
1612.13	0	45620	45620	
1629.26	0	45728	45728	
1646.39	0	45826	45826	
1663.51	0	45916	45916	
1680.64	0	46048	46048	
1697.76	0	46140	46140	
1714.76	0	46274	46274	
1731.76	0	46392	46392	
1748.76	0	46486	46486	
1765.76	0	46608	46608	
1782.76	0	46680	46680	
1799.76	0	46746	46746	
1816.76	0	46882	46882	
1833.76	0	46978	46978	
1850.76	0	47092	47092	
1867.76	0	47200	47200	
1884.76	0	47284	47284	
1901.76	0	47336	47336	
1918.76	0	47422	47422	
1935.76	0	47542	47542	
1952.76	0	47702	47702	
1969.76	0	47788	47788	
1986.76	0	47964	47964	
2003.76	0	48034	48034	
2020.76	0	48192	48192	
2037.76	0	48270	48270	
2054.76	0	48414	48414	
2071.74	0	48532	48532	
2088.72	0	48590	48590	
2105.69	0	48640	48640	
2122.67	0	48828	48828	
2139.65	0	48920	48920	
2156.63	0	48998	48998	
2173.61	0	49066	49066	
2190.58	0	49140	49140	
2207.56	0	49218	49218	
2224.54	0	49424	49424	
2241.52	0	49568	49568	
2258.49	0	49714	49714	
2275.47	0	49810	49810	
2292.45	0	49952	49952	
2309.43	0	50036	50036	
2326.41	0	50134	50134	
2343.38	0	50232	50232	
2360.36	0	50310	50310	
2377.34	0	50418	50418	
2394.32	0	50538	50538	
2411.3	0	50632	50632	
2428.27	0	50758	50758	
2445.25	0	50866	50866	
2462.23	0	50988	50988	
2479.21	0	51086	51086	
2496.16	0	51220	51220	
2513.11	0	51402	51402	
2530.06	0	51546	51546	
2547.02	0	51642	51642	
2563.97	0	51778	51778	
2580.92	0	51870	51870	
2597.87	0	51984	51984	
2614.52	0	52064	52064	
2631.16	0	52174	52174	
2647.8	0	52250	52250	
2664.44	0	52432	52432	
2681.08	0	52594	52594	
2697.73	0	52684	52684	
2714.37	0	52750	52750	
2731.01	0	52848	52848	
2747.56	0	52936	52936	
2764.1	0	53084	53084	
2780.65	0	53220	53220	
2797.19	0	53376	53376	
2813.74	0	53482	53482	
2830.28	0	53600	53600	
2846.83	0	53720	53720	
2863.38	0	53854	53854	
2879.92	0	53932	53932	
2896.47	0	54094	54094	
2913.01	0	54194	54194	
2929.56	0	54286	54286	
2946.1	0	54446	54446	
2962.65	0	54536	54536	
2979.2	0	54682	54682	
2995.74	0	54772	54772	
3012.29	0	54866	54866	
3028.83	0	54976	54976	
3045.38	0	55116	55116	
3061.93	0	55304	55304	
3078.47	0	55422	55422	
3095.02	0	55570	55570	
3111.56	0	55702	55702	
3128.11	0	55838	55838	
3144.65	0	55976	55976	
3161.2	0	56108	56108	
3177.72	0	56196	56196	
3194.23	0	56316	56316	
3210.75	0	56446	56446	
3227.26	0	56586	56586	
3243.78	0	56662	56662	
3260.29	0	56784	56784	
3276.81	0	56888	56888	
3293.32	0	56998	56998	
3309.84	0	57168	57168	
3326.35	0	57318	57318	
3342.87	0	57508	57508	
3359.38	0	57626	57626	
3375.9	0	57802	57802	
3392.41	0	57952	57952	
3408.93	0	58078	58078	
3425.44	0	58206	58206	
3441.96	0	58312	58312	
3458.47	0	58426	58426	
3474.99	0	58528	58528	
3491.5	0	58654	58654	
3508.02	0	58792	58792	
3524.53	0	58886	58886	
3541.05	0	59020	59020	
3557.56	0	59124	59124	
3574.07	0	59254	59254	
3590.58	0	59382	59382	
3607.09	0	59556	59556	
3623.6	0	59702	59702	
3640.11	0	59832	59832	
3656.62	0	59960	59960	
3673.13	0	60136	60136	
3689.64	0	60276	60276	
3706.15	0	60404	60404	
3722.66	0	60534	60534	
3739.17	0	60632	60632	
3755.68	0	60730	60730	
3772.19	0	60870	60870	
3788.7	0	61028	61028	
3805.21	0	61216	61216	
3821.72	0	61340	61340	
3838.23	0	61410	61410	
3854.74	0	61552	61552	
3871.25	0	61730	61730	
3887.76	0	61880	61880	
3904.27	0	62026	62026	
3920.78	0	62172	62172	
3937.29	0	62312	62312	
3953.8	0	62430	62430	
3970.31	0	62596	62596	
3986.82	0	62738	62738	
4003.33	0	62894	62894	
4019.84	0	62988	62988	
4036.35	0	63096	63096	
4052.86	0	63216	63216	
4069.37	0	63382	63382	
4085.88	0	63562	63562	
4102.39	0	63694	63694	
4118.9	0	63830	63830	
4135.41	0	63966	63966	
4151.92	0	64060	64060	
4168.43	0	64258	64258	
4184.94	0	64410	64410	
4201.45	0	64594	64594	
4217.96	0	64700	64700	
4234.47	0	64848	64848	
4250.98	0	65032	65032	
4267.49	0	65192	65192	
4284	0	65356	65356	
4300.51	0	65486	65486	
4317.02	0	65632	65632	
4333.53	0	65788	65788	
4350.04	0	65880	65880	
4366.55	0	66006	66006	
4383.06	0	66132	66132	
4399.57	0	66286	66286	
4416.08	0	66452	66452	
4432.59	0	66542	66542	
4449.1	0	66648	66648	
4465.61	0	66838	66838	
4482.12	0	67016	67016	
4498.63	0	67208	67208	
4515.14	0	67340	67340	
4531.65	0	67510	67510	
4548.16	0	67642	67642	
4564.67	0	67782	67782	
4581.18	0	67954	67954	
4597.69	0	68090	68090	
4614.2	0	68234	68234	
4630.71	0	68368	68368	
4647.22	0	68504	68504	
4663.73	0	68610	68610	
4680.24	0	68740	68740	
4696.75	0	68932	68932	
4713.26	0	69118	69118	
4729.77	0	69310	69310	
4746.28	0	69438	69438	
4762.79	0	69556	69556	
4779.3	0	69734	69734	
4795.81	0	69918	69918	
4812.32	0	70098	70098	
4828.83	0	70270	70270	
4845.34	0	70418	70418	
4861.85	0	70598	70598	
4878.36	0	70738	70738	
4894.87	0	70878	70878	
4911.38	0	71024	71024	
4927.89	0	71238	71238	
4944.4	0	71350	71350	
4960.91	0	71482	71482	
4977.42	0	71638	71638	
4993.93	0	71794	71794	
5010.44	0	71952	71952	
5026.95	0	72130	72130	
5043.46	0	72284	72284	
5059.97	0	72480	72480	
5076.48	0	72636	72636	
5092.99	0	72796	72796	
5109.5	0	72980	72980	
5126.01	0	73104	73104	
5142.52	0	73286	73286	
5159.03	0	73402	73402	
5175.54	0	73556	73556	
5192.05	0	73754	73754	
5208.56	0	73932	73932	
5225.07	0	74104	74104	
5241.58	0	74238	74238	
5258.09	0	74400	74400	
5274.6	0	74540	74540	
5291.11	0	74730	74730	
5307.62	0	74886	74886	
5324.13	0	75026	75026	
5340.64	0	75208	75208	
5357.15	0	75356	75356	
5373.66	0	75486	75486	
5390.17	0	75688	75688	
5406.68	0	75896	75896	
5423.19	0	76074	76074	
5439.7	0	76264	76264	
5456.21	0	76430	76430	
5472.72	0	76598	76598	
5489.23	0	76734	76734	
5505.74	0	76916	76916	
5522.25	0	77042	77042	
5538.77	0	77198	77198	
5555.28	0	77344	77344	
5571.79	0	77514	77514	
5588.3	0	77652	77652	
5604.81	0	77784	77784	
5621.32	0	77954	77954	
5637.83	0	78070	78070	
5654.34	0	78252	78252	
5670.85	0	78462	78462	
5687.36	0	78632	78632	
5703.87	0	78850	78850	
5720.38	0	78992	78992	
5736.89	0	79158	79158	
5753.4	0	79292	79292	
5769.91	0	79438	79438	
5786.42	0	79600	79600	
5802.93	0	79780	79780	
5819.44	0	79940	79940	
5835.95	0	80128	80128	
5852.46	0	80296	80296	
5868.97	0	80476	80476	
5885.48	0	80608	80608	
5901.99	0	80834	80834	
5918.5	0	80980	80980	
5935.01	0	81136	81136	
5951.52	0	81318	81318	
5968.03	0	81522	81522	
5984.54	0	81678	81678	
6001.05	0	81880	81880	
6017.56	0	82094	82094	
6034.07	0	82266	82266	
6050.58	0	82414	82414	
6067.09	0	82546	82546	
6083.6	0	82686	82686	
6100.11	0	82840	82840	
6116.62	0	83034	83034	
6133.13	0	83210	83210	
6149.64	0	83368	83368	
6166.15	0	83536	83536	
6182.66	0	83718	83718	
6199.17	0	83892	83892	
6215.68	0	84042	84042	
6232.19	0	84244	84244	
6248.7	0	84444	84444	
6265.21	0	84612	84612	
6281.71	0	84770	84770	
6298.22	0	84942	84942	
6314.73	0	85140	85140	
6331.24	0	85326	85326	
6347.75	0	85470	85470	
6364.26	0	85622	85622	
6380.77	0	85774	85774	
6397.28	0	86008	86008	
6413.79	0	86148	86148	
6430.3	0	86346	86346	
6446.81	0	86526	86526	
6463.32	0	86664	86664	
6479.83	0	86880	86880	
6496.34	0	87042	87042	
6512.85	0	87172	87172	
6529.36	0	87354	87354	
6545.87	0	87568	87568	
6562.38	0	87730	87730	
6578.89	0	87936	87936	
6595.4	0	88154	88154	
6611.91	0	88336	88336	
6628.42	0	88448	88448	
6644.93	0	88588	88588	
6661.44	0	88824	88824	
6677.95	0	88990	88990	
6694.46	0	89194	89194	
6710.97	0	89382	89382	
6727.48	0	89520	89520	
6743.99	0	89686	89686	
6760.5	0	89886	89886	
6777.01	0	90026	90026	
6793.52	0	90202	90202	
6810.03	0	90348	90348	
6826.54	0	90510	90510	
6843.05	0	90756	90756	
6859.56	0	90958	90958	
6876.07	0	91128	91128	
6892.58	0	91344	91344	
6909.09	0	91500	91500	
6925.6	0	91676	91676	
6942.11	0	91910	91910	
6958.62	0	92044	92044	
6975.13	0	92262	92262	
6991.64	0	92460	92460	
7008.15	0	92616	92616	
7024.65	0	92808	92808	
7041.16	0	93008	93008	
7057.67	0	93192	93192	
7074.18	0	93370	93370	
7090.69	0	93572	93572	
7107.2	0	93754	93754	
7123.71	0	93932	93932	
7140.22	0	94104	94104	
7156.73	0	94290	94290	
7173.24	0	94482	94482	
7189.75	0	94696	94696	
7206.26	0	94928	94928	
7222.77	0	95088	95088	
7239.28	0	95226	95226	
7255.79	0	95388	95388	
7272.3	0	95582	95582	
7288.81	0	95758	95758	
7305.32	0	95950	95950	
7321.83	0	96142	96142	
7338.34	0	96352	96352	
7354.85	0	96590	96590	
7371.36	0	96790	96790	
7387.87	0	96998	96998	
7404.38	0	97204	97204	
7420.88	0	97364	97364	
7437.39	0	97558	97558	
7453.9	0	97742	97742	
7470.41	0	97960	97960	
7486.92	0	98140	98140	
7503.43	0	98308	98308	
7519.94	0	98480	98480	
7536.45	0	98702	98702	
7552.96	0	98880	98880	
7569.47	0	99066	99066	
7585.98	0	99244	99244	
7602.49	0	99372	99372	
7619	0	99556	99556	
7635.51	0	99766	99766	
7652.02	0	99996	99996	
7668.53	0	100212	100212	
7685.04	0	100396	100396	
7701.55	0	100522	100522	
7718.06	0	100752	100752	
7734.57	0	100926	100926	
7751.08	0	101170	101170	
7767.59	0	101408	101408	
7784.1	0	101634	101634	
7800.61	0	101874	101874	
7817.11	0	102046	102046	
7833.62	0	102234	102234	
7850.13	0	102438	102438	
7866.64	0	102634	102634	
7883.15	0	102838	102838	
7899.66	0	102964	102964	
7916.17	0	103162	103162	
7932.68	0	103398	103398	
7949.19	0	103632	103632	
7965.7	0	103870	103870	
7982.21	0	104088	104088	
7998.72	0	104246	104246	
8015.23	0	104404	104404	
8031.74	0	104610	104610	
8048.25	0	104800	104800	
8064.76	0	105016	105016	
8081.27	0	105236	105236	
8097.78	0	105418	105418	
8114.29	0	105628	105628	
8130.8	0	105846	105846	
8147.31	0	106066	106066	
8163.82	0	106250	106250	
8180.33	0	106476	106476	
8196.84	0	106686	106686	
8213.35	0	106892	106892	
8229.86	0	107116	107116	
8246.37	0	107360	107360	
8262.88	0	107610	107610	
8279.39	0	107830	107830	
8295.9	0	108016	108016	
8312.41	0	108200	108200	
8328.92	0	108412	108412	
8345.43	0	108650	108650	
8361.94	0	108874	108874	
8378.45	0	109050	109050	
8394.96	0	109278	109278	
8411.47	0	109462	109462	
8427.98	0	109636	109636	
8444.49	0	109900	109900	
8461	0	110146	110146	
8477.51	0	110374	110374	
8494.02	0	110578	110578	
8510.53	0	110788	110788	
8527.04	0	111006	111006	
8543.55	0	111192	111192	
8560.06	0	111456	111456	
8576.57	0	111698	111698	
8593.08	0	111864	111864	
8609.59	0	112024	112024	
8626.1	0	112176	112176	
8642.61	0	112468	112468	
8659.12	0	112738	112738	
8675.63	0	112920	112920	
8692.14	0	113122	113122	
8708.65	0	113352	113352	
8725.16	0	113590	113590	
8741.67	0	113836	113836	
8758.18	0	114028	114028	
8774.69	0	114238	114238	
8791.2	0	114410	114410	
8807.71	0	114598	114598	
8824.22	0	114746	114746	
8840.73	0	115080	115080	
8857.24	0	115342	115342	
8873.75	0	115582	115582	
8890.26	0	115816	115816	
8906.77	0	116046	116046	
8923.28	0	116250	116250	
8939.79	0	116474	116474	
8956.3	0	116698	116698	
8972.81	0	116860	116860	
8989.32	0	117082	117082	
9005.83	0	117260	117260	
9022.34	0	117534	117534	
9038.85	0	117830	117830	
9055.36	0	118074	118074	
9071.87	0	118268	118268	
9088.38	0	118424	118424	
9104.89	0	118612	118612	
9121.4	0	118854	118854	
9137.91	0	119106	119106	
9154.41	0	119416	119416	
9170.92	0	119648	119648	
9187.43	0	119868	119868	
9203.94	0	120058	120058	
9220.45	0	120266	120266	
9236.96	0	120498	120498	
9253.47	0	120728	120728	
9269.98	0	120934	120934	
9286.49	0	121218	121218	
9303	0	121450	121450	
9319.51	0	121696	121696	
9336.02	0	121916	121916	
9352.53	0	122160	122160	
9369.04	0	122350	122350	
9385.55	0	122614	122614	
9402.06	0	122782	122782	
9418.57	0	123044	123044	
9435.08	0	123318	123318	
9451.59	0	123534	123534	
9468.1	0	123834	123834	
9484.61	0	124112	124112	
9501.12	0	124276	124276	
9517.63	0	124544	124544	
9534.14	0	124742	124742	
9550.65	0	125016	125016	
9567.16	0	125250	125250	
9583.67	0	125514	125514	
9600.18	0	125762	125762	
9616.69	0	125996	125996	
9633.2	0	126238	126238	
9649.71	0	126438	126438	
9666.22	0	126716	126716	
9682.73	0	126954	126954	
9699.24	0	127200	127200	
9715.75	0	127462	127462	
9732.26	0	127720	127720	
9748.77	0	127952	127952	
9765.28	0	128212	128212	
9781.79	0	128456	128456	
9798.3	0	128702	128702	
9814.81	0	128940	128940	
9831.32	0	129190	129190	
9847.83	0	129452	129452	
9864.34	0	129728	129728	
9880.85	0	129990	129990	
9897.36	0	130232	130232	
9913.87	0	130506	130506	
9930.38	0	130744	130744	
9946.89	0	131010	131010	
9963.4	0	131220	131220	
9979.91	0	131456	131456	
9996.42	0	131724	131724	
10012.9	0	131998	131998	
10029.4	0	132300	132300	
10045.9	0	132580	132580	
10062.5	0	132854	132854	
10079	0	133130	133130	
10095.5	0	133430	133430	
10112	0	133622	133622	
10128.5	0	133886	133886	
10145	0	134088	134088	
10161.5	0	134306	134306	
10178	0	134586	134586	
10194.5	0	134828	134828	
10211	0	135106	135106	
10227.6	0	135388	135388	
10244.1	0	135626	135626	
10260.6	0	135880	135880	
10277.1	0	136158	136158	
10293.6	0	136422	136422	
10310.1	0	136672	136672	
10326.6	0	136900	136900	
10343.1	0	137146	137146	
10359.6	0	137330	137330	
10376.1	0	137614	137614	
10392.7	0	137868	137868	
10409.2	0	138118	138118	
10425.7	0	138368	138368	
10442.2	0	138582	138582	
10458.7	0	138840	138840	
10475.2	0	139128	139128	
10491.7	0	139462	139462	
10508.2	0	139778	139778	
10524.7	0	140020	140020	
10541.2	0	140222	140222	
10557.8	0	140448	140448	
10574.3	0	140724	140724	
10590.8	0	140908	140908	
10607.3	0	141224	141224	
10623.8	0	141454	141454	
10640.3	0	141736	141736	
10656.8	0	142038	142038	
10673.3	0	142246	142246	
10689.8	0	142484	142484	
10706.3	0	142744	142744	
10722.9	0	142994	142994	
10739.4	0	143232	143232	
10755.9	0	143442	143442	
10772.4	0	143686	143686	
10788.9	0	143946	143946	
10805.4	0	144244	144244	
10821.9	0	144524	144524	
10838.4	0	144788	144788	
10854.9	0	145062	145062	
10871.4	0	145294	145294	
10888	0	145592	145592	
10904.5	0	145834	145834	
10921	0	146120	146120	
10937.5	0	146390	146390	
10954	0	146636	146636	
10970.5	0	146852	146852	
10987	0	147112	147112	
11003.5	0	147388	147388	
11020	0	147688	147688	
11036.5	0	147952	147952	
11053.1	0	148204	148204	
11069.6	0	148488	148488	
11086.1	0	148716	148716	
11102.6	0	148948	148948	
11119.1	0	149256	149256	
11135.6	0	149520	149520	
11152.1	0	149776	149776	
11168.6	0	150094	150094	
11185.1	0	150362	150362	
11201.6	0	150640	150640	
11218.2	0	150902	150902	
11234.7	0	151124	151124	
11251.2	0	151352	151352	
11267.7	0	151618	151618	
11284.2	0	151866	151866	
11300.7	0	152064	152064	
11317.2	0	152330	152330	
11333.7	0	152546	152546	
11350.2	0	152796	152796	
11366.7	0	153062	153062	
11383.3	0	153320	153320	
11399.8	0	153598	153598	
11416.3	0	153912	153912	
11432.8	0	154154	154154	
11449.3	0	154404	154404	
11465.8	0	154702	154702	
11482.3	0	154960	154960	
11498.8	0	155178	155178	
11515.3	0	155392	155392	
11531.8	0	155634	155634	
11548.4	0	155904	155904	
11564.9	0	156300	156300	
11581.4	0	156644	156644	
11597.9	0	156976	156976	
11614.4	0	157216	157216	
11630.9	0	157476	157476	
11647.4	0	157754	157754	
11663.9	0	158044	158044	
11680.4	0	158326	158326	
11696.9	0	158542	158542	
11713.5	0	158812	158812	
11730	0	159072	159072	
11746.5	0	159294	159294	
11763	0	159540	159540	
11779.5	0	159770	159770	
11796	0	160030	160030	
11812.5	0	160304	160304	
11829	0	160632	160632	
11845.5	0	160960	160960	
11862	0	161332	161332	
11878.6	0	161704	161704	
11895.1	0	162014	162014	
11911.6	0	162298	162298	
11928.1	0	162640	162640	
11944.6	0	162980	162980	
11961.1	0	163272	163272	
11977.7	0	163514	163514	
11994.2	0	163788	163788	
12010.7	0	164044	164044	
12027.2	0	164314	164314	
12043.7	0	164692	164692	
12060.2	0	164988	164988	
12076.7	0	165280	165280	
12093.3	0	165554	165554	
12109.8	0	165810	165810	
12126.3	0	166144	166144	
12142.8	0	166464	166464	
12159.3	0	166786	166786	
12175.8	0	167052	167052	
12192.3	0	167308	167308	
12208.9	0	167548	167548	
12225.4	0	167840	167840	
12241.9	0	168186	168186	
12258.4	0	168518	168518	
12274.9	0	168820	168820	
12291.4	0	169142	169142	
12307.9	0	169456	169456	
12324.4	0	169684	169684	
12341	0	170016	170016	
12357.5	0	170370	170370	
12374	0	170688	170688	
12390.5	0	171034	171034	
12407	0	171296	171296	
12423.5	0	171592	171592	
12440	0	171896	171896	
12456.5	0	172180	172180	
12473.1	0	172510	172510	
12489.6	0	172824	172824	
12506.1	0	173196	173196	
12522.6	0	173478	173478	
12539.1	0	173770	173770	
12555.6	0	174092	174092	
12572.1	0	174394	174394	
12588.6	0	174714	174714	
12605.1	0	174986	174986	
12621.6	0	175248	175248	
12638.2	0	175484	175484	
12654.7	0	175894	175894	
12671.2	0	176202	176202	
12687.7	0	176562	176562	
12704.2	0	176890	176890	
12720.7	0	177220	177220	
12737.2	0	177402	177402	
12753.7	0	177782	177782	
12770.2	0	178100	178100	
12786.7	0	178400	178400	
12803.3	0	178696	178696	
12819.8	0	179006	179006	
12836.3	0	179292	179292	
12852.8	0	179590	179590	
12869.3	0	179948	179948	
12885.8	0	180234	180234	
12902.3	0	180524	180524	
12918.8	0	180860	180860	
12935.3	0	181156	181156	
12951.8	0	181484	181484	
12968.4	0	181822	181822	
12984.9	0	182092	182092	
13001.4	0	182446	182446	
13017.9	0	182688	182688	
13034.4	0	182968	182968	
13050.9	0	183274	183274	
13067.4	0	183678	183678	
13083.9	0	184034	184034	
13100.4	0	184364	184364	
13116.9	0	184666	184666	
13133.5	0	184972	184972	
13150	0	185258	185258	
13166.5	0	185674	185674	
13183	0	186050	186050	
13199.5	0	186378	186378	
13216	0	186760	186760	
13232.5	0	187076	187076	
13249	0	187386	187386	
13265.5	0	187722	187722	
13282	0	188102	188102	
13298.5	0	188434	188434	
13315.1	0	188766	188766	
13331.6	0	189020	189020	
13348.1	0	189308	189308	
13364.6	0	189618	189618	
13381.1	0	189958	189958	
13397.6	0	190270	190270	
13414.1	0	190578	190578	
13430.6	0	190886	190886	
13447.1	0	191230	191230	
13463.6	0	191662	191662	
13480.2	0	191948	191948	
13496.7	0	192290	192290	
13513.2	0	192628	192628	
13529.7	0	192992	192992	
13546.2	0	193390	193390	
13562.7	0	193726	193726	
13579.2	0	194160	194160	
13595.7	0	194534	194534	
13612.2	0	194846	194846	
13628.7	0	195088	195088	
13645.3	0	195328	195328	
13661.8	0	195644	195644	
13678.3	0	195966	195966	
13694.8	0	196344	196344	
13711.3	0	196722	196722	
13727.8	0	197076	197076	
13744.3	0	197438	197438	
13760.8	0	197724	197724	
13777.3	0	198088	198088	
13793.8	0	198410	198410	
13810.4	0	198712	198712	
13826.9	0	199006	199006	
13843.4	0	199286	199286	
13859.9	0	199580	199580	
13876.4	0	199874	199874	
13892.9	0	200266	200266	
13909.4	0	200734	200734	
13925.9	0	201110	201110	
13942.4	0	201462	201462	
13958.9	0	201702	201702	
13975.5	0	202016	202016	
13992	0	202364	202364	
14008.5	0	202724	202724	
14025	0	203052	203052	
14041.5	0	203400	203400	
14058	0	203648	203648	
14074.5	0	203962	203962	
14091	0	204230	204230	
14107.5	0	204648	204648	
14124	0	205024	205024	
14140.6	0	205332	205332	
14157.1	0	205688	205688	
14173.6	0	206056	206056	
14190.1	0	206344	206344	
14206.6	0	206652	206652	
14223.1	0	206962	206962	
14239.6	0	207290	207290	
14256.1	0	207650	207650	
14272.6	0	208034	208034	
14289.1	0	208306	208306	
14305.7	0	208582	208582	
14322.2	0	208960	208960	
14338.7	0	209398	209398	
14355.2	0	209702	209702	
14371.7	0	210036	210036	
14388.2	0	210356	210356	
14404.7	0	210714	210714	
14421.2	0	211070	211070	
14437.7	0	211350	211350	
14454.2	0	211658	211658	
14470.8	0	211926	211926	
14487.3	0	212212	212212	
14503.8	0	212510	212510	
14520.3	0	212890	212890	
14536.8	0	213364	213364	
14553.3	0	213760	213760	
14569.8	0	214098	214098	
14586.3	0	214466	214466	
14602.8	0	214740	214740	
14619.3	0	215064	215064	
14635.9	0	215352	215352	
14652.4	0	215674	215674	
14668.9	0	216028	216028	
14685.4	0	216346	216346	
14701.9	0	216698	216698	
14718.4	0	216988	216988	
14734.9	0	217286	217286	
14751.4	0	217646	217646	
14767.9	0	218094	218094	
14784.4	0	218490	218490	
14801	0	218796	218796	
14817.5	0	219116	219116	
14834	0	219390	219390	
14850.5	0	219674	219674	
14867	0	220022	220022	
14883.5	0	220390	220390	
14900	0	220716	220716	
14916.5	0	221086	221086	
14933	0	221418	221418	
14949.5	0	221778	221778	
14966.1	0	222170	222170	
14982.6	0	222506	222506	
14999.1	0	222874	222874	
15015.6	0	223232	223232	
15032.1	0	223606	223606	
15048.6	0	224026	224026	
15065.1	0	224432	224432	
15081.6	0	224786	224786	
15098.1	0	225138	225138	
15114.6	0	225466	225466	
15131.2	0	225740	225740	
15147.7	0	226044	226044	
15164.2	0	226368	226368	
15180.7	0	226714	226714	
15197.2	0	227220	227220	
15213.7	0	227656	227656	
15230.2	0	228162	228162	
15246.7	0	228528	228528	
15263.2	0	228870	228870	
15279.7	0	229158	229158	
15296.3	0	229460	229460	
15312.8	0	229830	229830	
15329.3	0	230240	230240	
15345.8	0	230682	230682	
15362.3	0	231092	231092	
15378.8	0	231490	231490	
15395.3	0	231892	231892	
15411.8	0	232288	232288	
15428.3	0	232660	232660	
15444.8	0	233060	233060	
15461.4	0	233478	233478	
15477.9	0	233850	233850	
15494.4	0	234160	234160	
15510.9	0	234520	234520	
15527.4	0	234862	234862	
15543.9	0	235210	235210	
15560.4	0	235620	235620	
15576.9	0	236024	236024	
15593.4	0	236446	236446	
15609.9	0	236908	236908	
15626.5	0	237338	237338	
15643	0	237682	237682	
15659.5	0	238080	238080	
15676	0	238448	238448	
15692.5	0	238802	238802	
15709	0	239166	239166	
15725.5	0	239530	239530	
15742	0	239858	239858	
15758.5	0	240156	240156	
15775	0	240528	240528	
15791.6	0	240914	240914	
15808.1	0	241312	241312	
15824.6	0	241692	241692	
15841.1	0	242110	242110	
15857.6	0	242560	242560	
15874.1	0	242958	242958	
15890.6	0	243342	243342	
15907.1	0	243650	243650	
15923.6	0	244030	244030	
15940.1	0	244376	244376	
15956.7	0	244746	244746	
15973.2	0	245060	245060	
15989.7	0	245416	245416	
16006.2	0	245824	245824	
16022.7	0	246236	246236	
16039.2	0	246634	246634	
16055.7	0	247072	247072	
16072.2	0	247408	247408	
16088.7	0	247858	247858	
16105.2	0	248262	248262	
16121.8	0	248638	248638	
16138.3	0	249024	249024	
16154.8	0	249482	249482	
16171.3	0	249796	249796	
16187.8	0	250126	250126	
16204.3	0	250516	250516	
16220.8	0	250924	250924	
16237.3	0	251330	251330	
16253.8	0	251728	251728	
16270.3	0	252108	252108	
16286.9	0	252440	252440	
16303.4	0	252848	252848	
16319.9	0	253274	253274	
16336.4	0	253640	253640	
16352.9	0	253998	253998	
16369.4	0	254296	254296	
16385.9	0	254678	254678	
16402.4	0	255018	255018	
16418.9	0	255432	255432	
16435.4	0	255822	255822	
16452	0	256208	256208	
16468.5	0	256588	256588	
16485	0	256980	256980	
16501.5	0	257334	257334	
16518	0	257744	257744	
16534.5	0	258148	258148	
16551	0	258538	258538	
16567.5	0	258948	258948	
16584	0	259420	259420	
16600.5	0	259782	259782	
16617.1	0	260172	260172	
16633.6	0	260548	260548	
16650.1	0	260912	260912	
16666.6	0	261310	261310	
16683.1	0	261712	261712	
16699.6	0	262102	262102	
16716.1	0	262462	262462	
16732.6	0	262740	262740	
16749.1	0	263134	263134	
16765.6	0	263556	263556	
16782.2	0	264006	264006	
16798.7	0	264432	264432	
16815.2	0	264780	264780	
16831.7	0	265168	265168	
16848.2	0	265606	265606	
16864.7	0	265972	265972	
16881.2	0	266336	266336	
16897.7	0	266666	266666	
16914.2	0	267134	267134	
16930.7	0	267574	267574	
16947.3	0	267978	267978	
16963.8	0	268442	268442	
16980.3	0	268788	268788	
16996.8	0	269188	269188	
17013.3	0	269602	269602	
17029.8	0	269916	269916	
17046.3	0	270262	270262	
17062.8	0	270576	270576	
17079.3	0	270982	270982	
17095.8	0	271426	271426	
17112.4	0	271812	271812	
17128.9	0	272264	272264	
17145.4	0	272668	272668	
17161.9	0	273042	273042	
17178.4	0	273412	273412	
17194.9	0	273874	273874	
17211.4	0	274366	274366	
17227.9	0	274808	274808	
17244.4	0	275284	275284	
17260.9	0	275716	275716	
17277.5	0	276070	276070	
17294	0	276424	276424	
17310.5	0	276878	276878	
17327	0	277320	277320	
17343.5	0	277828	277828	
17360	0	278298	278298	
17376.5	0	278738	278738	
17393	0	279178	279178	
17409.5	0	279608	279608	
17426	0	279980	279980	
17442.6	0	280372	280372	
17459.1	0	280766	280766	
17475.6	0	281122	281122	
17492.1	0	281556	281556	
17508.6	0	282033	282033	
17525.1	0	282573	282573	
17541.6	0	283160	283160	
17558.1	0	283617	283617	
17574.6	0	284015	284015	
17591.1	0	284447	284447	
17607.7	0	284884	284884	
17624.2	0	285302	285302	
17640.7	0	285728	285728	
17657.2	0	286142	286142	
17673.7	0	286592	286592	
17690.2	0	286896	286896	
17706.7	0	287219	287219	
17723.2	0	287649	287649	
17739.7	0	288263	288263	
17756.2	0	288767	288767	
17772.8	0	289327	289327	
17789.3	0	289797	289797	
17805.8	0	290359	290359	
17822.3	0	290773	290773	
17838.8	0	291161	291161	
17855.3	0	291603	291603	
17871.8	0	292027	292027	
17888.3	0	292539	292539	
17904.8	0	292897	292897	
17921.4	0	293257	293257	
17937.9	0	293677	293677	
17954.4	0	294045	294045	
17970.9	0	294415	294415	
17987.4	0	294873	294873	
18003.9	0	295331	295331	
18020.4	0	295821	295821	
18036.9	0	296227	296227	
18053.4	0	296685	296685	
18069.9	0	297171	297171	
18086.5	0	297592	297592	
18103	0	298014	298014	
18119.5	0	298473	298473	
18136	0	298856	298856	
18152.5	0	299267	299267	
18169	0	299761	299761	
18185.5	0	300218	300218	
18202	0	300744	300744	
18218.5	0	301219	301219	
18235	0	301669	301669	
18251.6	0	302097	302097	
18268.1	0	302493	302493	
18284.6	0	302921	302921	
18301.1	0	303381	303381	
18317.6	0	303800	303800	
18334.1	0	304288	304288	
18350.6	0	304731	304731	
18367.1	0	305121	305121	
18383.6	0	305563	305563	
18400.1	0	305983	305983	
18416.7	0	306453	306453	
18433.2	0	306882	306882	
18449.7	0	307392	307392	
18466.2	0	307894	307894	
18482.7	0	308298	308298	
18499.2	0	308792	308792	
18515.7	0	309230	309230	
18532.2	0	309547	309547	
18548.7	0	310033	310033	
18565.2	0	310452	310452	
18581.8	0	310830	310830	
18598.3	0	311200	311200	
18614.8	0	311614	311614	
18631.3	0	311991	311991	
18647.8	0	312462	312462	
18664.3	0	312924	312924	
18680.8	0	313342	313342	
18697.3	0	313755	313755	
18713.8	0	314188	314188	
18730.3	0	314673	314673	
18746.9	0	315118	315118	
18763.4	0	315606	315606	
18779.9	0	316110	316110	
18796.4	0	316509	316509	
18812.9	0	316940	316940	
18829.4	0	317386	317386	
18845.9	0	317785	317785	
18862.4	0	318189	318189	
18878.9	0	318659	318659	
18895.4	0	319120	319120	
18912	0	319564	319564	
18928.5	0	319948	319948	
18945	0	320336	320336	
18961.5	0	320743	320743	
18978	0	321227	321227	
18994.5	0	321694	321694	
19011	0	322180	322180	
19027.5	0	322667	322667	
19044	0	323077	323077	
19060.5	0	323501	323501	
19077	0	323975	323975	
19093.6	0	324465	324465	
19110.1	0	324918	324918	
19126.6	0	325366	325366	
19143.1	0	325828	325828	
19159.6	0	326325	326325	
19176.1	0	326733	326733	
19192.6	0	327099	327099	
19209.1	0	327524	327524	
19225.6	0	327984	327984	
19242.1	0	328338	328338	
19258.7	0	328765	328765	
19275.2	0	329135	329135	
19291.7	0	329535	329535	
19308.2	0	329933	329933	
19324.7	0	330323	330323	
19341.2	0	330800	330800	
19357.7	0	331301	331301	
19374.2	0	331713	331713	
19390.7	0	332106	332106	
19407.2	0	332501	332501	
19423.8	0	332941	332941	
19440.3	0	333413	333413	
19456.8	0	333835	333835	
19473.3	0	334241	334241	
19489.8	0	334656	334656	
19506.3	0	335065	335065	
19522.8	0	335442	335442	
19539.3	0	335823	335823	
19555.8	0	336212	336212	
19572.3	0	336624	336624	
19588.9	0	336969	336969	
19605.4	0	337391	337391	
19621.9	0	337779	337779	
19638.4	0	338215	338215	
19654.9	0	338627	338627	
19671.4	0	339036	339036	
19687.9	0	339514	339514	
19704.4	0	339861	339861	
19720.9	0	340233	340233	
19737.5	0	340541	340541	
19754	0	340879	340879	
19770.5	0	341181	341181	
19787	0	341571	341571	
19803.5	0	342016	342016	
19820	0	342450	342450	
19836.5	0	342880	342880	
19853	0	343255	343255	
19869.5	0	343667	343667	
19886	0	344029	344029	
19902.6	0	344423	344423	
19919.1	0	344783	344783	
19935.6	0	345176	345176	
19952.1	0	345495	345495	
19968.6	0	345695	345695	
19985.1	0	346027	346027	
20001.6	0	346383	346383	
20018.1	0	346802	346802	
20034.6	0	347277	347277	
20051.1	0	347752	347752	
20067.7	0	348118	348118	
20084.2	0	348438	348438	
20100.7	0	348744	348744	
20117.2	0	349043	349043	
20133.7	0	349394	349394	
20150.2	0	349816	349816	
20166.7	0	350215	350215	
20183.2	0	350612	350612	
20199.7	0	350965	350965	
20216.2	0	351262	351262	
20232.8	0	351560	351560	
20249.3	0	351888	351888	
20265.8	0	352302	352302	
20282.3	0	352692	352692	
20298.8	0	353049	353049	
20315.3	0	353392	353392	
20331.8	0	353699	353699	
20348.3	0	354095	354095	
20364.8	0	354601	354601	
20381.3	0	355056	355056	
20397.9	0	355318	355318	
20414.4	0	355678	355678	
20430.9	0	356032	356032	
20447.4	0	356408	356408	
20463.9	0	356721	356721	
20480.4	0	357048	357048	
20496.9	0	357409	357409	
20513.4	0	357843	357843	
20529.9	0	358140	358140	
20546.4	0	358524	358524	
20563	0	358859	358859	
20579.5	0	359157	359157	
20596	0	359462	359462	
20612.5	0	359776	359776	
20629	0	360130	360130	
20645.5	0	360477	360477	
20662	0	360775	360775	
20678.5	0	361122	361122	
20695	0	361619	361619	
20711.5	0	362044	362044	
20728.1	0	362635	362635	
20744.6	0	363161	363161	
20761.1	0	363678	363678	
20777.6	0	364016	364016	
20794.1	0	364447	364447	
20810.6	0	364664	364664	
20827.1	0	364934	364934	
20843.6	0	365200	365200	
20860.1	0	365604	365604	
20876.6	0	365967	365967	
20893.2	0	366241	366241	
20909.7	0	366655	366655	
20926.2	0	367024	367024	
20942.7	0	367390	367390	
20959.2	0	367701	367701	
20975.7	0	368074	368074	
20992.2	0	368573	368573	
21008.7	0	369052	369052	
21025.2	0	369481	369481	
21041.7	0	369829	369829	
21058.3	0	370197	370197	
21074.8	0	370691	370691	
21091.3	0	371229	371229	
21107.8	0	371673	371673	
21124.3	0	372069	372069	
21140.8	0	372314	372314	
21157.3	0	372619	372619	
21173.8	0	372855	372855	
21190.3	0	373316	373316	
21206.8	0	373735	373735	
21223.3	0	374197	374197	
21239.9	0	374744	374744	
21256.4	0	375208	375208	
21272.9	0	375654	375654	
21289.4	0	376084	376084	
21305.9	0	376475	376475	
21322.4	0	376843	376843	
21338.9	0	377221	377221	
21355.4	0	377641	377641	
21371.9	0	377936	377936	
21388.4	0	378299	378299	
21405	0	378678	378678	
21421.5	0	379104	379104	
21438	0	379542	379542	
21454.5	0	379906	379906	
21471	0	380319	380319	
21487.5	0	380808	380808	
21504	0	381276	381276	
21520.5	0	381689	381689	
21537	0	382104	382104	
21553.5	0	382473	382473	
21570.1	0	382830	382830	
21586.6	0	383205	383205	
21603.1	0	383669	383669	
21619.6	0	384088	384088	
21636.1	0	384507	384507	
21652.6	0	384896	384896	
21669.1	0	385313	385313	
21685.6	0	385761	385761	
21702.1	0	386143	386143	
21718.6	0	386515	386515	
21735.2	0	386903	386903	
21751.7	0	387241	387241	
21768.2	0	387660	387660	
21784.7	0	388057	388057	
21801.2	0	388443	388443	
21817.7	0	388768	388768	
21834.2	0	389134	389134	
21850.7	0	389655	389655	
21867.2	0	390016	390016	
21883.7	0	390367	390367	
21900.3	0	390729	390729	
21916.8	0	391121	391121	
21933.3	0	391465	391465	
21949.8	0	391920	391920	
21966.3	0	392307	392307	
21982.8	0	392682	392682	
21999.3	0	393199	393199	
22015.8	0	393767	393767	
22032.3	0	394096	394096	
22048.8	0	394409	394409	
22065.4	0	394726	394726	
22081.9	0	395083	395083	
22098.4	0	395489	395489	
22114.9	0	395863	395863	
22131.4	0	396204	396204	
22147.9	0	396584	396584	
22164.4	0	396977	396977	
22180.9	0	397315	397315	
22197.4	0	397648	397648	
22213.9	0	398019	398019	
22230.5	0	398375	398375	
22247	0	398770	398770	
22263.5	0	399225	399225	
22280	0	399629	399629	
22296.5	0	399995	399995	
22313	0	400482	400482	
22329.5	0	400942	400942	
22346	0	401264	401264	
22362.5	0	401676	401676	
22379	0	401995	401995	
22395.6	0	402407	402407	
22412.1	0	402835	402835	
22428.6	0	403266	403266	
22445.1	0	403641	403641	
22461.6	0	403924	403924	
22478.1	0	404319	404319	
22494.6	0	404693	404693	
22511.1	0	405088	405088	
22527.6	0	405410	405410	
22544.1	0	405739	405739	
22560.7	0	406121	406121	
22577.2	0	406362	406362	
22593.7	0	406735	406735	
22610.2	0	407123	407123	
22626.7	0	407557	407557	
22643.2	0	407939	407939	
22659.7	0	408337	408337	
22676.2	0	408631	408631	
22692.7	0	408970	408970	
22709.2	0	409333	409333	
22725.8	0	409723	409723	
22742.3	0	410040	410040	
22758.8	0	410342	410342	
22775.3	0	410754	410754	
22791.8	0	411060	411060	
22808.3	0	411467	411467	
22824.8	0	411871	411871	
22841.3	0	412189	412189	
22857.8	0	412492	412492	
22874.3	0	412828	412828	
22890.9	0	413161	413161	
22907.4	0	413529	413529	
22923.9	0	413889	413889	
22940.4	0	414227	414227	
22956.9	0	414702	414702	
22973.4	0	415095	415095	
22989.9	0	415442	415442	
23006.4	0	415799	415799	
23022.9	0	416091	416091	
23039.4	0	416509	416509	
23056	0	416960	416960	
23072.5	0	417225	417225	
23089	0	417577	417577	
23105.5	0	417858	417858	
23122	0	418298	418298	
23138.5	0	418747	418747	
23155	0	419128	419128	
23171.5	0	419488	419488	
23188	0	419855	419855	
23204.6	0	420142	420142	
23221.1	0	420454	420454	
23237.6	0	420881	420881	
23254.1	0	421287	421287	
23270.6	0	421641	421641	
23287.1	0	422071	422071	
23303.6	0	422393	422393	
23320.1	0	422781	422781	
23336.6	0	423168	423168	
23353.1	0	423615	423615	
23369.7	0	424039	424039	
23386.2	0	424385	424385	
23402.7	0	424753	424753	
23419.2	0	425110	425110	
23435.7	0	425396	425396	
23452.2	0	425779	425779	
23468.7	0	426107	426107	
23485.2	0	426545	426545	
23501.7	0	426902	426902	
23518.2	0	427253	427253	
23534.8	0	427698	427698	
23551.3	0	428109	428109	
23567.8	0	428437	428437	
23584.3	0	428843	428843	
23600.8	0	429236	429236	
23617.3	0	429658	429658	
23633.8	0	430037	430037	
23650.3	0	430445	430445	
23666.8	0	430796	430796	
23683.3	0	431143	431143	
23699.9	0	431509	431509	
23716.4	0	431904	431904	
23732.9	0	432257	432257	
23749.4	0	432726	432726	
23765.9	0	433117	433117	
23782.4	0	433424	433424	
23798.9	0	433747	433747	
23815.4	0	434120	434120	
23831.9	0	434454	434454	
23848.4	0	434966	434966	
23865	0	435324	435324	
23881.5	0	435760	435760	
23898	0	436106	436106	
23914.5	0	436506	436506	
23931	0	436777	436777	
23947.5	0	436981	436981	
23964	0	437408	437408	
23980.5	0	437805	437805	
23997	0	438104	438104	
24013.5	0	438459	438459	
24030.1	0	438817	438817	
24046.6	0	439121	439121	
24063.1	0	439543	439543	
24079.6	0	439929	439929	
24096.1	0	440299	440299	
24112.6	0	440594	440594	
24129.1	0	440986	440986	
24145.6	0	441329	441329	
24162.1	0	441622	441622	
24178.6	0	441987	441987	
24195.2	0	442206	442206	
24211.7	0	442510	442510	
24228.2	0	442920	442920	
24244.7	0	443248	443248	
24261.2	0	443508	443508	
24277.7	0	443907	443907	
24294.2	0	444232	444232	
24310.7	0	444484	444484	
24327.2	0	444826	444826	
24343.7	0	445178	445178	
24360.3	0	445581	445581	
24376.8	0	446040	446040	
24393.3	0	446460	446460	
24409.8	0	446853	446853	
24426.3	0	447164	447164	
24442.8	0	447467	447467	
24459.3	0	447833	447833	
24475.8	0	448167	448167	
24492.3	0	448505	448505	
24508.8	0	448926	448926	
24525.4	0	449247	449247	
24541.9	0	449515	449515	
24558.4	0	449860	449860	
24574.9	0	450226	450226	
24591.4	0	450606	450606	
24607.9	0	451013	451013	
24624.4	0	451409	451409	
24640.9	0	451707	451707	
24657.4	0	452058	452058	
24673.9	0	452436	452436	
24690.5	0	452849	452849	
24707	0	453194	453194	
24723.5	0	453485	453485	
24740	0	453700	453700	
24756.5	0	454015	454015	
24773	0	454334	454334	
24789.5	0	454648	454648	
24806	0	455040	455040	
24822.5	0	455420	455420	
24839	0	455803	455803	
24855.6	0	456177	456177	
24872.1	0	456558	456558	
24888.6	0	456939	456939	
24905.1	0	457324	457324	
24921.6	0	457594	457594	
24938.1	0	458027	458027	
24954.6	0	458434	458434	
24971.1	0	458824	458824	
24987.6	0	459176	459176	
25004.1	0	459584	459584	
25020.7	0	459987	459987	
25037.2	0	460419	460419	
25053.7	0	460729	460729	
25070.2	0	460977	460977	
25086.7	0	461175	461175	
25103.2	0	461531	461531	
25119.7	0	461842	461842	
25136.2	0	462188	462188	
25152.7	0	462479	462479	
25169.2	0	462866	462866	
25185.8	0	463453	463453	
25202.3	0	463936	463936	
25218.8	0	464344	464344	
25235.3	0	464703	464703	
25251.8	0	465132	465132	
25268.3	0	465566	465566	
25284.8	0	465975	465975	
25301.3	0	466440	466440	
25317.8	0	466767	466767	
25334.3	0	467098	467098	
25350.9	0	467496	467496	
25367.4	0	467855	467855	
25383.9	0	468249	468249	
25400.4	0	468600	468600	
25416.9	0	468949	468949	
25433.4	0	469214	469214	
25449.9	0	469533	469533	
25466.4	0	469896	469896	
25482.9	0	470223	470223	
25499.4	0	470628	470628	
25516	0	470956	470956	
25532.5	0	471356	471356	
25549	0	471792	471792	
25565.5	0	472237	472237	
25582	0	472731	472731	
25598.5	0	473167	473167	
25615	0	473640	473640	
25631.5	0	474025	474025	
25648	0	474335	474335	
25664.5	0	474569	474569	
25681.1	0	474925	474925	
25697.6	0	475278	475278	
25714.1	0	475654	475654	
25730.6	0	475994	475994	
25747.1	0	476469	476469	
25763.6	0	476882	476882	
25780.1	0	477142	477142	
25796.6	0	477446	477446	
25813.1	0	477780	477780	
25829.6	0	478210	478210	
25846.2	0	478578	478578	
25862.7	0	479042	479042	
25879.2	0	479305	479305	
25895.7	0	479639	479639	
25912.2	0	479890	479890	
25928.7	0	480173	480173	
25945.2	0	480560	480560	
25961.7	0	480893	480893	
25978.2	0	481312	481312	
25994.7	0	481678	481678	
26011.3	0	482073	482073	
26027.8	0	482408	482408	
26044.3	0	482779	482779	
26060.8	0	483226	483226	
26077.3	0	483646	483646	
26093.8	0	484034	484034	
26110.3	0	484298	484298	
26126.8	0	484597	484597	
26143.3	0	485045	485045	
26159.8	0	485453	485453	
26176.4	0	485862	485862	
26192.9	0	486235	486235	
26209.4	0	486611	486611	
26225.9	0	486883	486883	
26242.4	0	487086	487086	
26258.9	0	487409	487409	
26275.4	0	487821	487821	
26291.9	0	488074	488074	
26308.4	0	488351	488351	
26324.9	0	488705	488705	
26341.5	0	489088	489088	
26358	0	489371	489371	
26374.5	0	489798	489798	
26391	0	490149	490149	
26407.5	0	490515	490515	
26424	0	490894	490894	
26440.5	0	491285	491285	
26457	0	491610	491610	
26473.5	0	491948	491948	
26490	0	492233	492233	
26506.6	0	492664	492664	
26523.1	0	493103	493103	
26539.6	0	493431	493431	
26556.1	0	493738	493738	
26572.6	0	494057	494057	
26589.1	0	494387	494387	
26605.6	0	494793	494793	
26622.1	0	495238	495238	
26638.6	0	495555	495555	
26655.1	0	495885	495885	
26671.7	0	496216	496216	
26688.2	0	496610	496610	
26704.7	0	496959	496959	
26721.2	0	497478	497478	
26737.7	0	497950	497950	
26754.2	0	498436	498436	
26770.7	0	498897	498897	
26787.2	0	499306	499306	
26803.7	0	499761	499761	
26820.2	0	500010	500010	
26836.8	0	500486	500486	
26853.3	0	500933	500933	
26869.8	0	501325	501325	
26886.3	0	501780	501780	
26902.8	0	502268	502268	
26919.3	0	502664	502664	
26935.8	0	503165	503165	
26952.3	0	503656	503656	
26968.8	0	504117	504117	
26985.3	0	504486	504486	
27001.9	0	504865	504865	
27018.4	0	505232	505232	
27034.9	0	505628	505628	
27051.4	0	506033	506033	
27067.9	0	506494	506494	
27084.4	0	506814	506814	
27100.9	0	507301	507301	
27117.4	0	507703	507703	
27133.9	0	508127	508127	
27150.4	0	508577	508577	
27167	0	509094	509094	
27183.5	0	509578	509578	
27200	0	510065	510065	
27216.5	0	510635	510635	
27233	0	511134	511134	
27249.5	0	511470	511470	
27266	0	511901	511901	
27282.5	0	512378	512378	
27299	0	512802	512802	
27315.5	0	513174	513174	
27332.1	0	513605	513605	
27348.6	0	514013	514013	
27365.1	0	514356	514356	
27381.6	0	514722	514722	
27398.1	0	515125	515125	
27414.6	0	515531	515531	
27431.1	0	515936	515936	
27447.6	0	516337	516337	
27464.1	0	516712	516712	
27480.6	0	517111	517111	
27497.2	0	517539	517539	
27513.7	0	517949	517949	
27530.2	0	518324	518324	
27546.7	0	518777	518777	
27563.2	0	519140	519140	
27579.7	0	519492	519492	
27596.2	0	519836	519836	
27612.7	0	520268	520268	
27629.2	0	520575	520575	
27645.7	0	520899	520899	
27662.3	0	521285	521285	
27678.8	0	521582	521582	
27695.3	0	521773	521773	
27711.8	0	522071	522071	
27728.3	0	522329	522329	
27744.8	0	522655	522655	
27761.3	0	522998	522998	
27777.8	0	523385	523385	
27794.3	0	523679	523679	
27810.8	0	524139	524139	
27827.4	0	524590	524590	
27843.9	0	524861	524861	
27860.4	0	525139	525139	
27876.9	0	525518	525518	
27893.4	0	525971	525971	
27909.9	0	526232	526232	
27926.4	0	526470	526470	
27942.9	0	526849	526849	
27959.4	0	527137	527137	
27976	0	527305	527305	
27992.5	0	527539	527539	
28009	0	527897	527897	
28025.5	0	528178	528178	
28042	0	528467	528467	
28058.5	0	528727	528727	
28075	0	529016	529016	
28091.5	0	529343	529343	
28108.1	0	529723	529723	
28124.6	0	530248	530248	
28141.1	0	530715	530715	
28157.6	0	531009	531009	
28174.1	0	531392	531392	
28190.6	0	531793	531793	
28207.1	0	532118	532118	
28223.6	0	532588	532588	
28240.1	0	532873	532873	
28256.7	0	533168	533168	
28273.2	0	533393	533393	
28289.7	0	533462	533462	
28306.2	0	533664	533664	
28322.7	0	533886	533886	
28339.2	0	534256	534256	
28355.7	0	534597	534597	
28372.2	0	535060	535060	
28388.7	0	535448	535448	
28405.2	0	535903	535903	
28421.8	0	536436	536436	
28438.3	0	536845	536845	
28454.8	0	537276	537276	
28471.3	0	537613	537613	
28487.8	0	537851	537851	
28504.3	0	538040	538040	
28520.8	0	538283	538283	
28537.3	0	538463	538463	
28553.8	0	538634	538634	
28570.3	0	538928	538928	
28586.9	0	539262	539262	
28603.4	0	539643	539643	
28619.9	0	540102	540102	
28636.4	0	540511	540511	
28652.9	0	540813	540813	
28669.4	0	541207	541207	
28685.9	0	541653	541653	
28702.4	0	541999	541999	
28718.9	0	542385	542385	
28735.4	0	542710	542710	
28752	0	543009	543009	
28768.5	0	543263	543263	
28785	0	543579	543579	
28801.5	0	543899	543899	
28818	0	544308	544308	
28834.5	0	544626	544626	
28851	0	544927	544927	
28867.5	0	545391	545391	
28884	0	545823	545823	
28900.5	0	546057	546057	
28917.1	0	546435	546435	
28933.6	0	546892	546892	
28950.1	0	547202	547202	
28966.6	0	547543	547543	
28983.1	0	547945	547945	
28999.6	0	548413	548413	
29016.1	0	548840	548840	
29032.6	0	549232	549232	
29049.1	0	549680	549680	
29065.6	0	550135	550135	
29082.2	0	550516	550516	
29098.7	0	550862	550862	
29115.2	0	551189	551189	
29131.7	0	551346	551346	
29148.2	0	551759	551759	
29164.7	0	552028	552028	
29181.2	0	552455	552455	
29197.7	0	552865	552865	
29214.2	0	553153	553153	
29230.7	0	553501	553501	
29247.3	0	553920	553920	
29263.8	0	554268	554268	
29280.3	0	554628	554628	
29296.8	0	554983	554983	
29313.3	0	555382	555382	
29329.8	0	555809	555809	
29346.3	0	556183	556183	
29362.8	0	556632	556632	
29379.3	0	557114	557114	
29395.8	0	557505	557505	
29412.4	0	557903	557903	
29428.9	0	558305	558305	
29445.4	0	558613	558613	
29461.9	0	558960	558960	
29478.4	0	559358	559358	
29494.9	0	559792	559792	
29511.4	0	560136	560136	
29527.9	0	560381	560381	
29544.4	0	560582	560582	
29560.9	0	560881	560881	
29577.5	0	561120	561120	
29594	0	561551	561551	
29610.5	0	561953	561953	
29627	0	562377	562377	
29643.5	0	562815	562815	
29660	0	563066	563066	
29676.5	0	563403	563403	
29693	0	563640	563640	
29709.5	0	564015	564015	
29726	0	564352	564352	
29742.6	0	564665	564665	
29759.1	0	564925	564925	
29775.6	0	565157	565157	
29792.1	0	565476	565476	
29808.6	0	565767	565767	
29825.1	0	566148	566148	
29841.6	0	566536	566536	
29858.1	0	566945	566945	
29874.6	0	567352	567352	
29891.1	0	567775	567775	
29907.7	0	568126	568126	
29924.2	0	568478	568478	
29940.7	0	568802	568802	
29957.2	0	569048	569048	
29973.7	0	569313	569313	
29990.2	0	569596	569596	
30006.7	0	569969	569969	
30023.2	0	570348	570348	
30039.7	0	570744	570744	
30056.2	0	571241	571241	
30072.8	0	571658	571658	
30089.3	0	571930	571930	
30105.8	0	572265	572265	
30122.3	0	572568	572568	
30138.8	0	572878	572878	
30155.3	0	573069	573069	
30171.8	0	573413	573413	
30188.3	0	573602	573602	
30204.8	0	573831	573831	
30221.3	0	574138	574138	
30237.9	0	574508	574508	
30254.4	0	574847	574847	
30270.9	0	575260	575260	
30287.4	0	575649	575649	
30303.9	0	576031	576031	
30320.4	0	576430	576430	
30336.9	0	576840	576840	
30353.4	0	577237	577237	
30369.9	0	577628	577628	
30386.4	0	577861	577861	
30403	0	578262	578262	
30419.5	0	578517	578517	
30436	0	578713	578713	
30452.5	0	578932	578932	
30469	0	579140	579140	
30485.5	0	579492	579492	
30502	0	579908	579908	
30518.5	0	580241	580241	
30535	0	580642	580642	
30551.5	0	581069	581069	
30568.1	0	581370	581370	
30584.6	0	581908	581908	
30601.1	0	582278	582278	
30617.6	0	582733	582733	
30634.1	0	582970	582970	
30650.6	0	583349	583349	
30667.1	0	583595	583595	
30683.6	0	583858	583858	
30700.1	0	584252	584252	
30716.6	0	584470	584470	
30733.2	0	584846	584846	
30749.7	0	585276	585276	
30766.2	0	585694	585694	
30782.7	0	586108	586108	
30799.2	0	586500	586500	
30815.7	0	586878	586878	
30832.2	0	587241	587241	
30848.7	0	587589	587589	
30865.2	0	588005	588005	
30881.7	0	588464	588464	
30898.3	0	588936	588936	
30914.8	0	589289	589289	
30931.3	0	589570	589570	
30947.8	0	589885	589885	
30964.3	0	590188	590188	
30980.8	0	590525	590525	
30997.3	0	590796	590796	
31013.8	0	591290	591290	
31030.3	0	591531	591531	
31046.8	0	591990	591990	
31063.4	0	592384	592384	
31079.9	0	592807	592807	
31096.4	0	593189	593189	
31112.9	0	593497	593497	
31129.4	0	593809	593809	
31145.9	0	594206	594206	
31162.4	0	594695	594695	
31178.9	0	595078	595078	
31195.4	0	595406	595406	
31211.9	0	595552	595552	
31228.5	0	595859	595859	
31245	0	596215	596215	
31261.5	0	596520	596520	
31278	0	596714	596714	
31294.5	0	596959	596959	
31311	0	597180	597180	
31327.5	0	597624	597624	
31344	0	598040	598040	
31360.5	0	598502	598502	
31377	0	598896	598896	
31393.6	0	599351	599351	
31410.1	0	599707	599707	
31426.6	0	600096	600096	
31443.1	0	600251	600251	
31459.6	0	600469	600469	
31476.1	0	600763	600763	
31492.6	0	600966	600966	
31509.1	0	601248	601248	
31525.6	0	601404	601404	
31542.1	0	601752	601752	
31558.7	0	601980	601980	
31575.2	0	602275	602275	
31591.7	0	602717	602717	
31608.2	0	603224	603224	
31624.7	0	603659	603659	
31641.2	0	603992	603992	
31657.7	0	604356	604356	
31674.2	0	604741	604741	
31690.7	0	605101	605101	
31707.2	0	605550	605550	
31723.8	0	605904	605904	
31740.3	0	606193	606193	
31756.8	0	606553	606553	
31773.3	0	606832	606832	
31789.8	0	607096	607096	
31806.3	0	607368	607368	
31822.8	0	607651	607651	
31839.3	0	607728	607728	
31855.8	0	608004	608004	
31872.3	0	608359	608359	
31888.9	0	608723	608723	
31905.4	0	609152	609152	
31921.9	0	609721	609721	
31938.4	0	610138	610138	
31954.9	0	610464	610464	
31971.4	0	610771	610771	
31987.9	0	611180	611180	
32004.4	0	611358	611358	
32020.9	0	611650	611650	
32037.4	0	611974	611974	
32054	0	612331	612331	
32070.5	0	612754	612754	
32087	0	613147	613147	
32103.5	0	613502	613502	
32120	0	613842	613842	
32136.5	0	614202	614202	
32153	0	614455	614455	
32169.5	0	614679	614679	
32186	0	614982	614982	
32202.5	0	615285	615285	
32219.1	0	615622	615622	
32235.6	0	615938	615938	
32252.1	0	616357	616357	
32268.6	0	616730	616730	
32285.1	0	617072	617072	
32301.6	0	617470	617470	
32318.1	0	617859	617859	
32334.6	0	618188	618188	
32351.1	0	618568	618568	
32367.6	0	619013	619013	
32384.2	0	619409	619409	
32400.7	0	619810	619810	
32417.2	0	620198	620198	
32433.7	0	620613	620613	
32450.2	0	620941	620941	
32466.7	0	621233	621233	
32483.2	0	621543	621543	
32499.7	0	621826	621826	
32516.2	0	622127	622127	
32532.7	0	622443	622443	
32549.3	0	622847	622847	
32565.8	0	623141	623141	
32582.3	0	623624	623624	
32598.8	0	624126	624126	
32615.3	0	624473	624473	
32631.8	0	624801	624801	
32648.3	0	625076	625076	
32664.8	0	625420	625420	
32681.3	0	625847	625847	
32697.8	0	626132	626132	
32714.4	0	626545	626545	
32730.9	0	627006	627006	
32747.4	0	627450	627450	
32763.9	0	627803	627803	
32780.4	0	628146	628146	
32796.9	0	628425	628425	
32813.4	0	628870	628870	
32829.9	0	629185	629185	
32846.4	0	629438	629438	
32862.9	0	629694	629694	
32879.5	0	629904	629904	
32896	0	630304	630304	
32912.5	0	630612	630612	
32929	0	630960	630960	
32945.5	0	631409	631409	
32962	0	631802	631802	
32978.5	0	632149	632149	
32995	0	632454	632454	
33011.5	0	632781	632781	
33028	0	633301	633301	
33044.6	0	633626	633626	
33061.1	0	634035	634035	
33077.6	0	634373	634373	
33094.1	0	634737	634737	
33110.6	0	635125	635125	
33127.1	0	635497	635497	
33143.6	0	635834	635834	
33160.1	0	636293	636293	
33176.6	0	636683	636683	
33193.2	0	637123	637123	
33209.7	0	637680	637680	
33226.2	0	638109	638109	
33242.7	0	638439	638439	
33259.2	0	638866	638866	
33275.7	0	639317	639317	
33292.2	0	639689	639689	
33308.7	0	640073	640073	
33325.2	0	640572	640572	
33341.7	0	640845	640845	
33358.3	0	641361	641361	
33374.8	0	641786	641786	
33391.3	0	642133	642133	
33407.8	0	642535	642535	
33424.3	0	642978	642978	
33440.8	0	643370	643370	
33457.3	0	643822	643822	
33473.8	0	644146	644146	
33490.3	0	644626	644626	
33506.8	0	645120	645120	
33523.4	0	645489	645489	
33539.9	0	645960	645960	
33556.4	0	646386	646386	
33572.9	0	646724	646724	
33589.4	0	647190	647190	
33605.9	0	647604	647604	
33622.4	0	648010	648010	
33638.9	0	648408	648408	
33655.4	0	648863	648863	
33671.9	0	649183	649183	
33688.5	0	649554	649554	
33705	0	649968	649968	
33721.5	0	650544	650544	
33738	0	650893	650893	
33754.5	0	651195	651195	
33771	0	651490	651490	
33787.5	4.54747e-13	651765	651765	
33804	4.54747e-13	652193	652193	
33820.5	9.09495e-13	652517	652517	
33837	1.36424e-12	652945	652945	
33853.6	1.81899e-12	653323	653323	
33870.1	1.81899e-12	653703	653703	
33886.6	2.27374e-12	653990	653990	
33903.1	2.72848e-12	654368	654368	
33919.6	3.18323e-12	654842	654842	
33936.1	3.18323e-12	655257	655257	
33952.6	3.63798e-12	655691	655691	
33969.1	4.09273e-12	656047	656047	
33985.6	4.09273e-12	656456	656456	
34002.1	4.54747e-12	656851	656851	
34018.7	5.00222e-12	657161	657161	
34035.2	5.45697e-12	657515	657515	
34051.7	5.45697e-12	657828	657828	
34068.2	5.91172e-12	658052	658052	
34084.7	6.36646e-12	658385	658385	
34101.2	6.82121e-12	658720	658720	
34117.7	7.27596e-12	659022	659022	
34134.2	7.7307e-12	659255	659255	
34150.7	8.18545e-12	659608	659608	
34167.2	8.6402e-12	660000	660000	
34183.8	9.09495e-12	660341	660341	
34200.3	9.54969e-12	660740	660740	
34216.8	1.00044e-11	661203	661203	
34233.3	1.04592e-11	661548	661548	
34249.8	1.09139e-11	661767	661767	
34266.3	1.13687e-11	662033	662033	
34282.8	1.18234e-11	662427	662427	
34299.3	1.22782e-11	662802	662802	
34315.8	1.27329e-11	663162	663162	
34332.3	1.31877e-11	663355	663355	
34348.9	1.36424e-11	663667	663667	
34365.4	1.40972e-11	663893	663893	
34381.9	1.45519e-11	664163	664163	
34398.4	1.50067e-11	664513	664513	
34414.9	1.54614e-11	664777	664777	
34431.4	1.59162e-11	665077	665077	
34447.9	1.63709e-11	665401	665401	
34464.4	1.68257e-11	665881	665881	
34480.9	1.72804e-11	666244	666244	
34497.4	1.77351e-11	666637	666637	
34514	1.81899e-11	666901	666901	
34530.5	1.86446e-11	667287	667287	
34547	1.90994e-11	667640	667640	
34563.5	1.95541e-11	667946	667946	
34580	2.00089e-11	668187	668187	
34596.5	2.04636e-11	668572	668572	
34613	2.09184e-11	668836	668836	
34629.5	2.13731e-11	669188	669188	
34646	2.18279e-11	669540	669540	
34662.5	2.22826e-11	669875	669875	
34679.1	2.27374e-11	670190	670190	
34695.6	2.31921e-11	670559	670559	
34712.1	2.36469e-11	671128	671128	
34728.6	2.45564e-11	671610	671610	
34745.1	2.54659e-11	671984	671984	
34761.6	2.63753e-11	672465	672465	
34778.1	2.72848e-11	672788	672788	
34794.6	2.77396e-11	672946	672946	
34811.1	2.86491e-11	673267	673267	
34827.6	2.95586e-11	673679	673679	
34844.2	3.04681e-11	673845	673845	
34860.7	3.13776e-11	674258	674258	
34877.2	3.18323e-11	674542	674542	
34893.7	3.27418e-11	674982	674982	
34910.2	3.36513e-11	675398	675398	
34926.7	3.45608e-11	676018	676018	
34943.2	3.50155e-11	676423	676423	
34959.7	3.5925e-11	676871	676871	
34976.2	3.68345e-11	677379	677379	
34992.7	3.7744e-11	677868	677868	
35009.3	3.86535e-11	678166	678166	
35025.8	3.9563e-11	678489	678489	
35042.3	4.04725e-11	678845	678845	
35058.8	4.1382e-11	679194	679194	
35075.3	4.22915e-11	679694	679694	
35091.8	4.3201e-11	679985	679985	
35108.3	4.41105e-11	680387	680387	
35124.8	4.502e-11	680837	680837	
35141.3	4.59295e-11	681283	681283	
35157.8	4.6839e-11	681760	681760	
35174.4	4.77485e-11	682139	682139	
35190.9	4.8658e-11	682568	682568	
35207.4	4.95675e-11	682993	682993	
35223.9	5.0477e-11	683316	683316	
35240.4	5.13865e-11	683768	683768	
35256.9	5.22959e-11	684186	684186	
35273.4	5.32054e-11	684467	684467	
35289.9	5.41149e-11	684937	684937	
35306.4	5.50244e-11	685299	685299	
35322.9	5.59339e-11	685470	685470	
35339.5	5.68434e-11	685695	685695	
35356	5.77529e-11	686089	686089	
35372.5	5.86624e-11	686443	686443	
35389	5.95719e-11	686802	686802	
35405.5	6.04814e-11	687095	687095	
35422	6.13909e-11	687662	687662	
35438.5	6.23004e-11	688064	688064	
35455	6.32099e-11	688616	688616	
35471.5	6.41194e-11	689005	689005	
35488.1	6.50289e-11	689327	689327	
35504.6	6.59384e-11	689692	689692	
35521.1	6.68479e-11	689879	689879	
35537.6	6.77574e-11	690249	690249	
35554.1	6.86668e-11	690575	690575	
35570.6	6.95763e-11	690871	690871	
35587.1	7.04858e-11	691081	691081	
35603.6	7.13953e-11	691454	691454	
35620.1	7.23048e-11	691795	691795	
35636.7	7.32143e-11	692245	692245	
35653.2	7.41238e-11	692702	692702	
35669.7	7.50333e-11	693046	693046	
35686.2	7.59428e-11	693502	693502	
35702.7	7.68523e-11	693878	693878	
35719.2	7.77618e-11	694362	694362	
35735.7	7.86713e-11	694798	694798	
35752.2	7.95808e-11	695194	695194	
35768.7	8.04903e-11	695419	695419	
35785.2	8.13998e-11	695858	695858	
35801.8	8.23093e-11	696180	696180	
35818.3	8.32188e-11	696592	696592	
35834.8	8.41283e-11	697024	697024	
35851.3	8.50378e-11	697409	697409	
35867.8	8.59472e-11	697836	697836	
35884.3	8.68567e-11	698142	698142	
35900.8	8.77662e-11	698549	698549	
35917.3	8.86757e-11	698880	698880	
35933.8	8.95852e-11	699256	699256	
35950.3	9.04947e-11	699634	699634	
35966.9	9.14042e-11	700101	700101	
35983.4	9.23137e-11	700359	700359	
35999.9	9.32232e-11	700605	700605	
36016.4	9.41327e-11	700958	700958	
36032.9	9.50422e-11	701248	701248	
36049.4	9.59517e-11	701603	701603	
36065.9	9.68612e-11	702246	702246	
36082.4	9.77707e-11	702703	702703	
36098.9	9.86802e-11	703195	703195	
36115.4	9.95897e-11	703578	703578	
36132	1.00499e-10	703896	703896	
36148.5	1.01409e-10	704327	704327	
36165	1.02318e-10	704778	704778	
36181.5	1.03682e-10	705142	705142	
36198	1.04592e-10	705648	705648	
36214.5	1.05956e-10	706057	706057	
36231	1.0732e-10	706543	706543	
36247.5	1.08685e-10	706894	706894	
36264	1.10049e-10	707276	707276	
36280.5	1.11413e-10	707664	707664	
36297.1	1.12777e-10	707902	707902	
36313.6	1.14142e-10	708250	708250	
36330.1	1.15506e-10	708671	708671	
36346.6	1.1687e-10	708978	708978	
36363.1	1.18234e-10	709301	709301	
36379.6	1.19599e-10	709716	709716	
36396.1	1.20963e-10	710043	710043	
36412.6	1.22327e-10	710364	710364	
36429.1	1.23691e-10	710761	710761	
36445.6	1.25056e-10	711176	711176	
36462.2	1.2642e-10	711521	711521	
36478.7	1.27784e-10	711851	711851	
36495.2	1.29148e-10	712259	712259	
36511.7	1.30512e-10	712685	712685	
36528.2	1.31877e-10	712978	712978	
36544.7	1.33241e-10	713238	713238	
36561.2	1.3506e-10	713446	713446	
36577.7	1.36879e-10	713832	713832	
36594.2	1.38698e-10	714197	714197	
36610.7	1.40517e-10	714663	714663	
36627.3	1.42336e-10	715019	715019	
36643.8	1.44155e-10	715330	715330	
36660.3	1.45974e-10	715808	715808	
36676.8	1.47793e-10	716161	716161	
36693.3	1.49612e-10	716547	716547	
36709.8	1.51431e-10	716885	716885	
36726.3	1.5325e-10	717212	717212	
36742.8	1.55069e-10	717413	717413	
36759.3	1.56888e-10	717705	717705	
36775.8	1.58707e-10	718064	718064	
36792.4	1.60981e-10	718434	718434	
36808.9	1.63254e-10	718846	718846	
36825.4	1.65528e-10	719202	719202	
36841.9	1.67802e-10	719483	719483	
36858.4	1.70076e-10	719954	719954	
36874.9	1.72349e-10	720367	720367	
36891.4	1.74623e-10	720649	720649	
36907.9	1.76897e-10	720990	720990	
36924.4	1.7917e-10	721349	721349	
36940.9	1.81444e-10	721697	721697	
36957.5	1.84173e-10	722173	722173	
36974	1.86901e-10	722536	722536	
36990.5	1.8963e-10	722889	722889	
37007	1.92358e-10	723143	723143	
37023.5	1.95087e-10	723539	723539	
37040	1.97815e-10	723916	723916	
37056.5	2.00544e-10	724239	724239	
37073	2.03727e-10	724581	724581	
37089.5	2.0691e-10	724964	724964	
37106	2.10093e-10	725496	725496	
37122.6	2.13277e-10	725828	725828	
37139.1	2.1646e-10	726278	726278	
37155.6	2.19643e-10	726669	726669	
37172.1	2.23281e-10	727036	727036	
37188.6	2.26919e-10	727472	727472	
37205.1	2.30557e-10	727682	727682	
37221.6	2.34195e-10	728017	728017	
37238.1	2.37833e-10	728474	728474	
37254.6	2.41471e-10	728920	728920	
37271.1	2.45564e-10	729411	729411	
37287.7	2.49656e-10	729786	729786	
37304.2	2.53749e-10	730151	730151	
37320.7	2.57842e-10	730448	730448	
37337.2	2.61934e-10	730800	730800	
37353.7	2.66482e-10	731260	731260	
37370.2	2.71029e-10	731625	731625	
37386.7	2.75577e-10	732004	732004	
37403.2	2.80124e-10	732333	732333	
37419.7	2.85127e-10	732727	732727	
37436.2	2.90129e-10	733159	733159	
37452.8	2.95131e-10	733431	733431	
37469.3	3.00588e-10	733723	733723	
37485.8	3.06045e-10	734108	734108	
37502.3	3.11502e-10	734569	734569	
37518.8	3.16959e-10	734927	734927	
37535.3	3.22871e-10	735295	735295	
37551.8	3.28782e-10	735652	735652	
37568.3	3.34694e-10	735901	735901	
37584.8	3.41061e-10	736106	736106	
37601.3	3.47427e-10	736458	736458	
37617.9	3.53793e-10	736697	736697	
37634.4	3.6016e-10	736950	736950	
37650.9	3.66981e-10	737378	737378	
37667.4	3.73802e-10	737694	737694	
37683.9	3.81078e-10	738190	738190	
37700.4	3.88354e-10	738653	738653	
37716.9	3.9563e-10	739084	739084	
37733.4	4.03361e-10	739401	739401	
37749.9	4.11092e-10	739877	739877	
37766.4	4.18822e-10	740239	740239	
37783	4.27008e-10	740608	740608	
37799.5	4.35193e-10	741123	741123	
37816	4.43833e-10	741535	741535	
37832.5	4.52474e-10	741856	741856	
37849	4.61569e-10	742266	742266	
37865.5	4.70664e-10	742572	742572	
37882	4.80213e-10	742803	742803	
37898.5	4.89763e-10	743178	743178	
37915	4.99767e-10	743431	743431	
37931.5	5.09772e-10	743880	743880	
37948.1	5.20231e-10	744335	744335	
37964.6	5.3069e-10	744769	744769	
37981.1	5.41604e-10	745064	745064	
37997.6	5.52518e-10	745425	745425	
38014.1	5.63887e-10	745821	745821	
38030.6	5.75255e-10	746249	746249	
38047.1	5.87079e-10	746652	746652	
38063.6	5.98902e-10	747018	747018	
38080.1	6.1118e-10	747355	747355	
38096.6	6.23913e-10	747812	747812	
38113.2	6.36646e-10	748196	748196	
38129.7	6.49834e-10	748620	748620	
38146.2	6.63022e-10	748921	748921	
38162.7	6.76664e-10	749294	749294	
38179.2	6.90761e-10	749653	749653	
38195.7	7.05313e-10	750069	750069	
38212.2	7.19865e-10	750504	750504	
38228.7	7.34872e-10	750918	750918	
38245.2	7.50333e-10	751303	751303	
38261.7	7.66249e-10	751697	751697	
38278.3	7.82165e-10	752000	752000	
38294.8	7.98536e-10	752409	752409	
38311.3	8.15362e-10	752666	752666	
38327.8	8.32642e-10	752994	752994	
38344.3	8.49923e-10	753453	753453	
38360.8	8.67658e-10	753884	753884	
38377.3	8.85848e-10	754304	754304	
38393.8	9.04492e-10	754711	754711	
38410.3	9.23592e-10	755199	755199	
38426.8	9.43146e-10	755655	755655	
38443.4	9.63155e-10	755978	755978	
38459.9	9.83619e-10	756355	756355	
38476.4	1.00454e-09	756769	756769	
38492.9	1.02591e-09	757151	757151	
38509.4	1.04774e-09	757590	757590	
38525.9	1.07002e-09	758020	758020	
38542.4	1.09276e-09	758562	758562	
38558.9	1.11595e-09	759026	759026	
38575.4	1.1396e-09	759406	759406	
38591.9	1.1637e-09	759880	759880	
38608.5	1.18825e-09	760272	760272	
38625	1.21372e-09	760674	760674	
38641.5	1.23964e-09	761005	761005	
38658	1.26602e-09	761247	761247	
38674.5	1.29285e-09	761580	761580	
38691	1.32013e-09	761814	761814	
38707.5	1.34833e-09	762138	762138	
38724	1.37697e-09	762576	762576	
38740.5	1.40608e-09	763050	763050	
38757	1.43609e-09	763440	763440	
38773.6	1.46656e-09	763905	763905	
38790.1	1.49748e-09	764337	764337	
38806.6	1.52932e-09	764810	764810	
38823.1	1.5616e-09	765208	765208	
38839.6	1.5948e-09	765496	765496	
38856.1	1.62845e-09	765870	765870	
38872.6	1.66301e-09	766233	766233	
38889.1	1.69803e-09	766497	766497	
38905.6	1.73395e-09	766873	766873	
38922.1	1.77079e-09	767227	767227	
38938.7	1.80808e-09	767616	767616	
38955.2	1.84627e-09	767894	767894	
38971.7	1.88538e-09	768319	768319	
38988.2	1.9254e-09	768748	768748	
39004.7	1.96587e-09	769095	769095	
39021.2	2.00725e-09	769316	769316	
39037.7	2.04955e-09	769687	769687	
39054.2	2.09275e-09	770116	770116	
39070.7	2.13686e-09	770523	770523	
39087.2	2.18188e-09	770925	770925	
39103.8	2.22781e-09	771311	771311	
39120.3	2.27465e-09	771487	771487	
39136.8	2.32239e-09	771951	771951	
39153.3	2.37105e-09	772500	772500	
39169.8	2.42062e-09	772849	772849	
39186.3	2.4711e-09	773189	773189	
39202.8	2.52248e-09	773635	773635	
39219.3	2.57523e-09	774083	774083	
39235.8	2.62889e-09	774393	774393	
39252.3	2.68346e-09	774773	774773	
39268.9	2.7394e-09	775045	775045	
39285.4	2.79624e-09	775375	775375	
39301.9	2.85445e-09	775793	775793	
39318.4	2.91357e-09	776169	776169	
39334.9	2.97405e-09	776648	776648	
39351.4	3.03544e-09	777015	777015	
39367.9	3.09819e-09	777309	777309	
39384.4	3.16186e-09	777471	777471	
39400.9	3.22689e-09	777946	777946	
39417.4	3.29328e-09	778359	778359	
39434	3.36104e-09	778743	778743	
39450.5	3.43016e-09	779059	779059	
39467	3.50065e-09	779408	779408	
39483.5	3.5725e-09	779730	779730	
39500	3.64571e-09	780045	780045	
39516.5	3.72029e-09	780321	780321	
39533	3.79623e-09	780731	780731	
39549.5	3.87354e-09	781045	781045	
39566	3.95266e-09	781414	781414	
39582.5	4.03315e-09	781792	781792	
39599.1	4.11501e-09	782138	782138	
39615.6	4.19868e-09	782585	782585	
39632.1	4.28372e-09	783058	783058	
39648.6	4.37058e-09	783471	783471	
39665.1	4.4588e-09	783891	783891	
39681.6	4.54884e-09	784239	784239	
39698.1	4.6407e-09	784608	784608	
39714.6	4.73437e-09	785007	785007	
39731.1	4.82987e-09	785359	785359	
39747.6	4.92719e-09	785671	785671	
39764.2	5.02632e-09	786035	786035	
39780.7	5.12728e-09	786445	786445	
39797.2	5.23005e-09	786744	786744	
39813.7	5.33464e-09	787143	787143	
39830.2	5.44105e-09	787711	787711	
39846.7	5.54974e-09	788238	788238	
39863.2	5.66024e-09	788605	788605	
39879.7	5.77302e-09	789022	789022	
39896.2	5.88761e-09	789439	789439	
39912.7	6.00448e-09	789664	789664	
39929.3	6.12363e-09	789940	789940	
39945.8	6.24459e-09	790296	790296	
39962.3	6.36783e-09	790656	790656	
39978.8	6.49334e-09	791064	791064	
39995.3	6.62158e-09	791599	791599	
40011.8	6.75209e-09	792011	792011	
40028.3	6.88487e-09	792338	792338	
40044.8	7.01993e-09	792879	792879	
40061.3	7.15772e-09	793342	793342	
40077.8	7.29779e-09	793744	793744	
40094.4	7.44058e-09	794204	794204	
40110.9	7.5861e-09	794671	794671	
40127.4	7.73389e-09	795042	795042	
40143.9	7.88441e-09	795369	795369	
40160.4	8.03766e-09	795720	795720	
40176.9	8.19364e-09	796125	796125	
40193.4	8.3528e-09	796482	796482	
40209.9	8.51469e-09	796985	796985	
40226.4	8.67931e-09	797444	797444	
40242.9	8.84711e-09	797933	797933	
40259.5	9.01764e-09	798299	798299	
40276	9.19135e-09	798654	798654	
40292.5	9.36825e-09	799096	799096	
40309	9.54833e-09	799643	799643	
40325.5	9.73159e-09	800055	800055	
40342	9.91804e-09	800478	800478	
40358.5	1.01077e-08	800874	800874	
40375	1.03009e-08	801239	801239	
40391.5	1.04974e-08	801650	801650	
40408	1.06975e-08	801907	801907	
40424.6	1.09012e-08	802149	802149	
40441.1	1.11081e-08	802541	802541	
40457.6	1.13187e-08	802923	802923	
40474.1	1.15333e-08	803370	803370	
40490.6	1.17516e-08	803946	803946	
40507.1	1.19735e-08	804347	804347	
40523.6	1.21995e-08	804758	804758	
40540.1	1.24292e-08	805149	805149	
40556.6	1.26629e-08	805496	805496	
40573.1	1.29007e-08	805903	805903	
40589.7	1.31427e-08	806186	806186	
40606.2	1.33887e-08	806436	806436	
40622.7	1.36392e-08	806868	806868	
40639.2	1.38939e-08	807173	807173	
40655.7	1.41531e-08	807618	807618	
40672.2	1.44169e-08	808038	808038	
40688.7	1.46852e-08	808455	808455	
40705.2	1.4958e-08	808817	808817	
40721.7	1.52354e-08	809179	809179	
40738.2	1.55173e-08	809617	809617	
40754.8	1.58043e-08	810145	810145	
40771.3	1.60962e-08	810518	810518	
40787.8	1.63927e-08	810945	810945	
40804.3	1.66947e-08	811414	811414	
40820.8	1.70016e-08	811533	811533	
40837.3	1.73136e-08	811912	811912	
40853.8	1.7631e-08	812396	812396	
40870.3	1.79539e-08	812848	812848	
40886.8	1.82818e-08	813221	813221	
40903.3	1.86155e-08	813720	813720	
40919.9	1.89548e-08	814072	814072	
40936.4	1.92995e-08	814445	814445	
40952.9	1.96501e-08	814863	814863	
40969.4	2.00066e-08	815331	815331	
40985.9	2.0369e-08	815700	815700	
41002.4	2.07374e-08	816110	816110	
41018.9	2.11121e-08	816460	816460	
41035.4	2.14927e-08	816963	816963	
41051.9	2.18797e-08	817518	817518	
41068.4	2.22731e-08	817940	817940	
41085	2.26732e-08	818354	818354	
41101.5	2.30798e-08	818725	818725	
41118	2.34932e-08	819064	819064	
41134.5	2.39133e-08	819408	819408	
41151	2.43404e-08	819868	819868	
41167.5	2.47742e-08	820368	820368	
41184	2.52153e-08	820824	820824	
41200.5	2.56637e-08	821257	821257	
41217	2.61193e-08	821808	821808	
41233.5	2.65823e-08	821983	821983	
41250.1	2.70529e-08	822470	822470	
41266.6	2.75309e-08	822778	822778	
41283.1	2.80165e-08	823253	823253	
41299.6	2.85104e-08	823741	823741	
41316.1	2.9012e-08	824223	824223	
41332.6	2.95217e-08	824792	824792	
41349.1	3.00397e-08	825129	825129	
41365.6	3.05658e-08	825489	825489	
41382.1	3.11006e-08	825775	825775	
41398.7	3.1644e-08	826090	826090	
41415.2	3.21961e-08	826662	826662	
41431.7	3.27568e-08	827068	827068	
41448.2	3.33266e-08	827532	827532	
41464.7	3.39055e-08	827932	827932	
41481.2	3.44935e-08	828296	828296	
41497.7	3.50906e-08	828599	828599	
41514.2	3.56972e-08	828916	828916	
41530.7	3.63134e-08	829279	829279	
41547.2	3.69396e-08	829721	829721	
41563.8	3.75753e-08	830254	830254	
41580.3	3.82211e-08	830682	830682	
41596.8	3.88768e-08	831037	831037	
41613.3	3.9543e-08	831291	831291	
41629.8	4.02197e-08	831692	831692	
41646.3	4.09068e-08	831993	831993	
41662.8	4.16048e-08	832159	832159	
41679.3	4.23138e-08	832379	832379	
41695.8	4.30337e-08	832745	832745	
41712.3	4.37644e-08	833118	833118	
41728.9	4.45066e-08	833604	833604	
41745.4	4.52605e-08	833907	833907	
41761.9	4.60259e-08	834365	834365	
41778.4	4.68031e-08	834833	834833	
41794.9	4.75925e-08	835415	835415	
41811.4	4.83938e-08	835945	835945	
41827.9	4.92073e-08	836363	836363	
41844.4	5.00331e-08	836760	836760	
41860.9	5.08721e-08	837069	837069	
41877.5	5.17234e-08	837332	837332	
41894	5.25879e-08	837745	837745	
41910.5	5.34656e-08	838037	838037	
41927	5.43569e-08	838395	838395	
41943.5	5.52614e-08	838682	838682	
41960	5.61795e-08	838879	838879	
41976.5	5.71117e-08	839292	839292	
41993	5.8058e-08	839793	839793	
42009.5	5.90185e-08	840327	840327	
42026	5.99935e-08	840931	840931	
42042.6	6.0983e-08	841569	841569	
42059.1	6.19875e-08	841991	841991	
42075.6	6.30071e-08	842725	842725	
42092.1	6.40416e-08	843272	843272	
42108.6	6.50916e-08	843668	843668	
42125.1	6.61571e-08	844035	844035	
42141.6	6.72385e-08	844347	844347	
42158.1	6.83362e-08	844707	844707	
42174.6	6.94499e-08	845023	845023	
42191.1	7.05804e-08	845456	845456	
42207.7	7.17278e-08	845833	845833	
42224.2	7.28919e-08	846345	846345	
42240.7	7.40729e-08	846770	846770	
42257.2	7.52716e-08	847175	847175	
42273.7	7.64876e-08	847640	847640	
42290.2	7.77218e-08	848152	848152	
42306.7	7.89737e-08	848546	848546	
42323.2	8.02443e-08	848820	848820	
42339.7	8.1533e-08	849299	849299	
42356.2	8.28409e-08	849847	849847	
42372.8	8.41674e-08	850217	850217	
42389.3	8.55134e-08	850651	850651	
42405.8	8.6879e-08	851239	851239	
42422.3	8.82642e-08	851751	851751	
42438.8	8.96694e-08	852126	852126	
42455.3	9.1095e-08	852611	852611	
42471.8	9.25411e-08	852885	852885	
42488.3	9.40081e-08	853271	853271	
42504.8	9.5496e-08	853515	853515	
42521.3	9.70053e-08	853922	853922	
42537.9	9.85365e-08	854203	854203	
42554.4	1.00089e-07	854791	854791	
42570.9	1.01664e-07	855184	855184	
42587.4	1.03262e-07	855514	855514	
42603.9	1.04882e-07	855944	855944	
42620.4	1.06525e-07	856540	856540	
42636.9	1.08191e-07	857293	857293	
42653.4	1.09881e-07	857969	857969	
42669.9	1.11595e-07	858426	858426	
42686.4	1.13333e-07	858767	858767	
42703	1.15096e-07	859193	859193	
42719.5	1.16883e-07	859556	859556	
42736	1.18695e-07	859975	859975	
42752.5	1.20533e-07	860375	860375	
42769	1.22396e-07	860781	860781	
42785.5	1.24286e-07	861339	861339	
42802	1.26201e-07	861871	861871	
42818.5	1.28144e-07	862120	862120	
42835	1.30114e-07	862463	862463	
42851.5	1.3211e-07	862867	862867	
42868.1	1.34135e-07	863239	863239	
42884.6	1.36188e-07	863566	863566	
42901.1	1.38269e-07	863998	863998	
42917.6	1.40378e-07	864528	864528	
42934.1	1.42517e-07	864866	864866	
42950.6	1.44685e-07	865372	865372	
42967.1	1.46883e-07	865858	865858	
42983.6	1.49111e-07	866277	866277	
43000.1	1.5137e-07	866741	866741	
43016.6	1.5366e-07	867052	867052	
43033.2	1.5598e-07	867446	867446	
43049.7	1.58333e-07	867747	867747	
43066.2	1.60717e-07	868060	868060	
43082.7	1.63133e-07	868381	868381	
43099.2	1.65583e-07	868761	868761	
43115.7	1.68065e-07	869188	869188	
43132.2	1.70581e-07	869455	869455	
43148.7	1.73131e-07	869897	869897	
43165.2	1.75716e-07	870383	870383	
43181.7	1.78335e-07	870866	870866	
43198.3	1.80989e-07	871358	871358	
