0	0	38812	38812	
18.4875	0	38616	38616	
37.1736	0	38692	38692	
55.6611	0	38852	38852	
74.1486	0	39016	39016	
92.6361	0	39192	39192	
111.1	0	39364	39364	
129.564	0	39488	39488	
148.029	0	39604	39604	
166.348	0	39574	39574	
184.668	0	39600	39600	
202.987	0	39540	39540	
221.307	0	39570	39570	
239.627	0	39608	39608	
257.946	0	39684	39684	
276.266	0	39760	39760	
294.585	0	39850	39850	
312.905	0	39930	39930	
331.224	0	39984	39984	
349.544	0	40028	40028	
367.864	0	40116	40116	
386.183	0	40192	40192	
404.503	0	40250	40250	
422.822	0	40302	40302	
441.142	0	40406	40406	
459.461	0	40470	40470	
477.781	0	40492	40492	
496.051	0	40530	40530	
514.322	0	40576	40576	
532.592	0	40584	40584	
550.863	0	40620	40620	
569.133	0	40610	40610	
587.404	0	40598	40598	
605.674	0	40648	40648	
623.944	0	40716	40716	
642.215	0	40758	40758	
660.485	0	40802	40802	
678.756	0	40894	40894	
697.026	0	40964	40964	
715.296	0	41010	41010	
733.567	0	41106	41106	
751.837	0	41174	41174	
770.108	0	41212	41212	
788.378	0	41274	41274	
806.648	0	41336	41336	
824.919	0	41412	41412	
843.189	0	41466	41466	
861.46	0	41548	41548	
879.73	0	41612	41612	
898	0	41698	41698	
916.271	0	41764	41764	
934.541	0	41866	41866	
952.812	0	41976	41976	
971.082	0	42038	42038	
989.352	0	42134	42134	
1007.62	0	42232	42232	
1025.89	0	42308	42308	
1044.16	0	42416	42416	
1062.43	0	42476	42476	
1080.7	0	42572	42572	
1098.97	0	42650	42650	
1117.25	0	42768	42768	
1135.52	0	42890	42890	
1153.79	0	42998	42998	
1172.06	0	43136	43136	
1190.33	0	43212	43212	
1208.6	0	43348	43348	
1226.87	0	43446	43446	
1244.88	0	43530	43530	
1262.9	0	43602	43602	
1280.92	0	43668	43668	
1298.93	0	43778	43778	
1316.95	0	43866	43866	
1334.97	0	44006	44006	
1352.64	0	44094	44094	
1370.31	0	44182	44182	
1387.98	0	44252	44252	
1405.64	0	44414	44414	
1422.93	0	44558	44558	
1440.22	0	44656	44656	
1457.51	0	44762	44762	
1474.8	0	44840	44840	
1492.09	0	44926	44926	
1509.38	0	45014	45014	
1526.51	0	45090	45090	
1543.63	0	45162	45162	
1560.76	0	45270	45270	
1577.88	0	45422	45422	
1595.01	0	45490	45490	
1612.13	0	45620	45620	
1629.26	0	45728	45728	
1646.39	0	45826	45826	
1663.51	0	45916	45916	
1680.64	0	46048	46048	
1697.76	0	46140	46140	
1714.76	0	46274	46274	
1731.76	0	46392	46392	
1748.76	0	46486	46486	
1765.76	0	46608	46608	
1782.76	0	46680	46680	
1799.76	0	46746	46746	
1816.76	0	46882	46882	
1833.76	0	46978	46978	
1850.76	0	47092	47092	
1867.76	0	47200	47200	
1884.76	0	47284	47284	
1901.76	0	47336	47336	
1918.76	0	47422	47422	
1935.76	0	47542	47542	
1952.76	0	47702	47702	
1969.76	0	47788	47788	
1986.76	0	47964	47964	
2003.76	0	48034	48034	
2020.76	0	48192	48192	
2037.76	0	48270	48270	
2054.76	0	48414	48414	
2071.74	0	48532	48532	
2088.72	0	48590	48590	
2105.69	0	48640	48640	
2122.67	0	48828	48828	
2139.65	0	48920	48920	
2156.63	0	48998	48998	
2173.61	0	49066	49066	
2190.58	0	49140	49140	
2207.56	0	49218	49218	
2224.54	0	49424	49424	
2241.52	0	49568	49568	
2258.49	0	49714	49714	
2275.47	0	49810	49810	
2292.45	0	49952	49952	
2309.43	0	50036	50036	
2326.41	0	50134	50134	
2343.38	0	50232	50232	
2360.36	0	50310	50310	
2377.34	0	50418	50418	
2394.32	0	50538	50538	
2411.3	0	50632	50632	
2428.27	0	50758	50758	
2445.25	0	50866	50866	
2462.23	0	50988	50988	
2479.21	0	51086	51086	
2496.16	0	51220	51220	
2513.11	0	51402	51402	
2530.06	0	51546	51546	
2547.02	0	51642	51642	
2563.97	0	51778	51778	
2580.92	0	51870	51870	
2597.87	0	51984	51984	
2614.52	0	52064	52064	
2631.16	0	52174	52174	
2647.8	0	52250	52250	
2664.44	0	52432	52432	
2681.08	0	52594	52594	
2697.73	0	52684	52684	
2714.37	0	52750	52750	
2731.01	0	52848	52848	
2747.56	0	52936	52936	
2764.1	0	53084	53084	
2780.65	0	53220	53220	
2797.19	0	53376	53376	
2813.74	0	53482	53482	
2830.28	0	53600	53600	
2846.83	0	53720	53720	
2863.38	0	53854	53854	
2879.92	0	53932	53932	
2896.47	0	54094	54094	
2913.01	0	54194	54194	
2929.56	0	54286	54286	
2946.1	0	54446	54446	
2962.65	0	54536	54536	
2979.2	0	54682	54682	
2995.74	0	54772	54772	
3012.29	0	54866	54866	
3028.83	0	54976	54976	
3045.38	0	55116	55116	
3061.93	0	55304	55304	
3078.47	0	55422	55422	
3095.02	0	55570	55570	
3111.56	0	55702	55702	
3128.11	0	55838	55838	
3144.65	0	55976	55976	
3161.2	0	56108	56108	
3177.72	0	56196	56196	
3194.23	0	56316	56316	
3210.75	0	56446	56446	
3227.26	0	56586	56586	
3243.78	0	56662	56662	
3260.29	0	56784	56784	
3276.81	0	56888	56888	
3293.32	0	56998	56998	
3309.84	0	57168	57168	
3326.35	0	57318	57318	
3342.87	0	57508	57508	
3359.38	0	57626	57626	
3375.9	0	57802	57802	
3392.41	0	57952	57952	
3408.93	0	58078	58078	
3425.44	0	58206	58206	
3441.96	0	58312	58312	
3458.47	0	58426	58426	
3474.99	0	58528	58528	
3491.5	0	58654	58654	
3508.02	0	58792	58792	
3524.53	0	58886	58886	
3541.05	0	59020	59020	
3557.56	0	59124	59124	
3574.07	0	59254	59254	
3590.58	0	59382	59382	
3607.09	0	59556	59556	
3623.6	0	59702	59702	
3640.11	0	59832	59832	
3656.62	0	59960	59960	
3673.13	0	60136	60136	
3689.64	0	60276	60276	
3706.15	0	60404	60404	
3722.66	0	60534	60534	
3739.17	0	60632	60632	
3755.68	0	60730	60730	
3772.19	0	60870	60870	
3788.7	0	61028	61028	
3805.21	0	61216	61216	
3821.72	0	61340	61340	
3838.23	0	61410	61410	
3854.74	0	61552	61552	
3871.25	0	61730	61730	
3887.76	0	61880	61880	
3904.27	0	62026	62026	
3920.78	0	62172	62172	
3937.29	0	62312	62312	
3953.8	0	62430	62430	
3970.31	0	62596	62596	
3986.82	0	62738	62738	
4003.33	0	62894	62894	
4019.84	0	62988	62988	
4036.35	0	63096	63096	
4052.86	0	63216	63216	
4069.37	0	63382	63382	
4085.88	0	63562	63562	
4102.39	0	63694	63694	
4118.9	0	63830	63830	
4135.41	0	63966	63966	
4151.92	0	64060	64060	
4168.43	0	64258	64258	
4184.94	0	64410	64410	
4201.45	0	64594	64594	
4217.96	0	64700	64700	
4234.47	0	64848	64848	
4250.98	0	65032	65032	
4267.49	0	65192	65192	
4284	0	65356	65356	
4300.51	0	65486	65486	
4317.02	0	65632	65632	
4333.53	0	65788	65788	
4350.04	0	65880	65880	
4366.55	0	66006	66006	
4383.06	0	66132	66132	
4399.57	0	66286	66286	
4416.08	0	66452	66452	
4432.59	0	66542	66542	
4449.1	0	66648	66648	
4465.61	0	66838	66838	
4482.12	0	67016	67016	
4498.63	0	67208	67208	
4515.14	0	67340	67340	
4531.65	0	67510	67510	
4548.16	0	67642	67642	
4564.67	0	67782	67782	
4581.18	0	67954	67954	
4597.69	0	68090	68090	
4614.2	0	68234	68234	
4630.71	0	68368	68368	
4647.22	0	68504	68504	
4663.73	0	68610	68610	
4680.24	0	68740	68740	
4696.75	0	68932	68932	
4713.26	0	69118	69118	
4729.77	0	69310	69310	
4746.28	0	69438	69438	
4762.79	0	69556	69556	
4779.3	0	69734	69734	
4795.81	0	69918	69918	
4812.32	0	70098	70098	
4828.83	0	70270	70270	
4845.34	0	70418	70418	
4861.85	0	70598	70598	
4878.36	0	70738	70738	
4894.87	0	70878	70878	
4911.38	0	71024	71024	
4927.89	0	71238	71238	
4944.4	0	71350	71350	
4960.91	0	71482	71482	
4977.42	0	71638	71638	
4993.93	0	71794	71794	
5010.44	0	71952	71952	
5026.95	0	72130	72130	
5043.46	0	72284	72284	
5059.97	0	72480	72480	
5076.48	0	72636	72636	
5092.99	0	72796	72796	
5109.5	0	72980	72980	
5126.01	0	73104	73104	
5142.52	0	73286	73286	
5159.03	0	73402	73402	
5175.54	0	73556	73556	
5192.05	0	73754	73754	
5208.56	0	73932	73932	
5225.07	0	74104	74104	
5241.58	0	74238	74238	
5258.09	0	74400	74400	
5274.6	0	74540	74540	
5291.11	0	74730	74730	
5307.62	0	74886	74886	
5324.13	0	75026	75026	
5340.64	0	75208	75208	
5357.15	0	75356	75356	
5373.66	0	75486	75486	
5390.17	0	75688	75688	
5406.68	0	75896	75896	
5423.19	0	76074	76074	
5439.7	0	76264	76264	
5456.21	0	76430	76430	
5472.72	0	76598	76598	
5489.23	0	76734	76734	
5505.74	0	76916	76916	
5522.25	0	77042	77042	
5538.77	0	77198	77198	
5555.28	0	77344	77344	
5571.79	0	77514	77514	
5588.3	0	77652	77652	
5604.81	0	77784	77784	
5621.32	0	77954	77954	
5637.83	0	78070	78070	
5654.34	0	78252	78252	
5670.85	0	78462	78462	
5687.36	0	78632	78632	
5703.87	0	78850	78850	
5720.38	0	78992	78992	
5736.89	0	79158	79158	
5753.4	0	79292	79292	
5769.91	0	79438	79438	
5786.42	0	79600	79600	
5802.93	0	79780	79780	
5819.44	0	79940	79940	
5835.95	0	80128	80128	
5852.46	0	80296	80296	
5868.97	0	80476	80476	
5885.48	0	80608	80608	
5901.99	0	80834	80834	
5918.5	0	80980	80980	
5935.01	0	81136	81136	
5951.52	0	81318	81318	
5968.03	0	81522	81522	
5984.54	0	81678	81678	
6001.05	0	81880	81880	
6017.56	0	82094	82094	
6034.07	0	82266	82266	
6050.58	0	82414	82414	
6067.09	0	82546	82546	
6083.6	0	82686	82686	
6100.11	0	82840	82840	
6116.62	0	83034	83034	
6133.13	0	83210	83210	
6149.64	0	83368	83368	
6166.15	0	83536	83536	
6182.66	0	83718	83718	
6199.17	0	83892	83892	
6215.68	0	84042	84042	
6232.19	0	84244	84244	
6248.7	0	84444	84444	
6265.21	0	84612	84612	
6281.71	0	84770	84770	
6298.22	0	84942	84942	
6314.73	0	85140	85140	
6331.24	0	85326	85326	
6347.75	0	85470	85470	
6364.26	0	85622	85622	
6380.77	0	85774	85774	
6397.28	0	86008	86008	
6413.79	0	86148	86148	
6430.3	0	86346	86346	
6446.81	0	86526	86526	
6463.32	0	86664	86664	
6479.83	0	86880	86880	
6496.34	0	87042	87042	
6512.85	0	87172	87172	
6529.36	0	87354	87354	
6545.87	0	87568	87568	
6562.38	0	87730	87730	
6578.89	0	87936	87936	
6595.4	0	88154	88154	
6611.91	0	88336	88336	
6628.42	0	88448	88448	
6644.93	0	88588	88588	
6661.44	0	88824	88824	
6677.95	0	88990	88990	
6694.46	0	89194	89194	
6710.97	0	89382	89382	
6727.48	0	89520	89520	
6743.99	0	89686	89686	
6760.5	0	89886	89886	
6777.01	0	90026	90026	
6793.52	0	90202	90202	
6810.03	0	90348	90348	
6826.54	0	90510	90510	
6843.05	0	90756	90756	
6859.56	0	90958	90958	
6876.07	0	91128	91128	
6892.58	0	91344	91344	
6909.09	0	91500	91500	
6925.6	0	91676	91676	
6942.11	0	91910	91910	
6958.62	0	92044	92044	
6975.13	0	92262	92262	
6991.64	0	92460	92460	
7008.15	0	92616	92616	
7024.65	0	92808	92808	
7041.16	0	93008	93008	
7057.67	0	93192	93192	
7074.18	0	93370	93370	
7090.69	0	93572	93572	
7107.2	0	93754	93754	
7123.71	0	93932	93932	
7140.22	0	94104	94104	
7156.73	0	94290	94290	
7173.24	0	94482	94482	
7189.75	0	94696	94696	
7206.26	0	94928	94928	
7222.77	0	95088	95088	
7239.28	0	95226	95226	
7255.79	0	95388	95388	
7272.3	0	95582	95582	
7288.81	0	95758	95758	
7305.32	0	95950	95950	
7321.83	0	96142	96142	
7338.34	0	96352	96352	
7354.85	0	96590	96590	
7371.36	0	96790	96790	
7387.87	0	96998	96998	
7404.38	0	97204	97204	
7420.88	0	97364	97364	
7437.39	0	97558	97558	
7453.9	0	97742	97742	
7470.41	0	97960	97960	
7486.92	0	98140	98140	
7503.43	0	98308	98308	
7519.94	0	98480	98480	
7536.45	0	98702	98702	
7552.96	0	98880	98880	
7569.47	0	99066	99066	
7585.98	0	99244	99244	
7602.49	0	99372	99372	
7619	0	99556	99556	
7635.51	0	99766	99766	
7652.02	0	99996	99996	
7668.53	0	100212	100212	
7685.04	0	100396	100396	
7701.55	0	100522	100522	
7718.06	0	100752	100752	
7734.57	0	100926	100926	
7751.08	0	101170	101170	
7767.59	0	101408	101408	
7784.1	0	101634	101634	
7800.61	0	101874	101874	
7817.11	0	102046	102046	
7833.62	0	102234	102234	
7850.13	0	102438	102438	
7866.64	0	102634	102634	
7883.15	0	102838	102838	
7899.66	0	102964	102964	
7916.17	0	103162	103162	
7932.68	0	103398	103398	
7949.19	0	103632	103632	
7965.7	0	103870	103870	
7982.21	0	104088	104088	
7998.72	0	104246	104246	
8015.23	0	104404	104404	
8031.74	0	104610	104610	
8048.25	0	104800	104800	
8064.76	0	105016	105016	
8081.27	0	105236	105236	
8097.78	0	105418	105418	
8114.29	0	105628	105628	
8130.8	0	105846	105846	
8147.31	0	106066	106066	
8163.82	0	106250	106250	
8180.33	0	106476	106476	
8196.84	0	106686	106686	
8213.35	0	106892	106892	
8229.86	0	107116	107116	
8246.37	0	107360	107360	
8262.88	0	107610	107610	
8279.39	0	107830	107830	
8295.9	0	108016	108016	
8312.41	0	108200	108200	
8328.92	0	108412	108412	
8345.43	0	108650	108650	
8361.94	-4.54747e-13	108874	108874	
8378.45	-4.54747e-13	109050	109050	
8394.96	-9.09495e-13	109278	109278	
8411.47	-9.09495e-13	109462	109462	
8427.98	-1.36424e-12	109636	109636	
8444.49	-1.36424e-12	109900	109900	
8461	-1.81899e-12	110146	110146	
8477.51	-1.81899e-12	110374	110374	
8494.02	-2.27374e-12	110578	110578	
8510.53	-2.27374e-12	110788	110788	
8527.04	-2.72848e-12	111006	111006	
8543.55	-2.72848e-12	111192	111192	
8560.06	-3.18323e-12	111456	111456	
8576.57	-3.63798e-12	111698	111698	
8593.08	-4.09273e-12	111864	111864	
8609.59	-4.09273e-12	112024	112024	
8626.1	-4.54747e-12	112176	112176	
8642.61	-5.00222e-12	112468	112468	
8659.12	-5.45697e-12	112738	112738	
8675.63	-5.91172e-12	112920	112920	
8692.14	-6.36646e-12	113122	113122	
8708.65	-6.36646e-12	113352	113352	
8725.16	-6.82121e-12	113590	113590	
8741.67	-7.27596e-12	113836	113836	
8758.18	-7.7307e-12	114028	114028	
8774.69	-8.18545e-12	114238	114238	
8791.2	-8.6402e-12	114410	114410	
8807.71	-9.09495e-12	114598	114598	
8824.22	-9.09495e-12	114746	114746	
8840.73	-9.54969e-12	115080	115080	
8857.24	-1.00044e-11	115342	115342	
8873.75	-1.04592e-11	115582	115582	
8890.26	-1.09139e-11	115816	115816	
8906.77	-1.13687e-11	116046	116046	
8923.28	-1.18234e-11	116250	116250	
8939.79	-1.22782e-11	116474	116474	
8956.3	-1.27329e-11	116698	116698	
8972.81	-1.31877e-11	116860	116860	
8989.32	-1.36424e-11	117082	117082	
9005.83	-1.40972e-11	117260	117260	
9022.34	-1.45519e-11	117534	117534	
9038.85	-1.50067e-11	117830	117830	
9055.36	-1.54614e-11	118074	118074	
9071.87	-1.59162e-11	118268	118268	
9088.38	-1.63709e-11	118424	118424	
9104.89	-1.68257e-11	118612	118612	
9121.4	-1.72804e-11	118854	118854	
9137.91	-1.77351e-11	119106	119106	
9154.41	-1.81899e-11	119416	119416	
9170.92	-1.86446e-11	119648	119648	
9187.43	-1.90994e-11	119868	119868	
9203.94	-1.95541e-11	120058	120058	
9220.45	-2.00089e-11	120266	120266	
9236.96	-2.04636e-11	120498	120498	
9253.47	-2.09184e-11	120728	120728	
9269.98	-2.13731e-11	120934	120934	
9286.49	-2.18279e-11	121218	121218	
9303	-2.22826e-11	121450	121450	
9319.51	-2.27374e-11	121696	121696	
9336.02	-2.31921e-11	121916	121916	
9352.53	-2.36469e-11	122160	122160	
9369.04	-2.45564e-11	122350	122350	
9385.55	-2.54659e-11	122614	122614	
9402.06	-2.59206e-11	122782	122782	
9418.57	-2.68301e-11	123044	123044	
9435.08	-2.77396e-11	123318	123318	
9451.59	-2.86491e-11	123534	123534	
9468.1	-2.95586e-11	123834	123834	
9484.61	-3.04681e-11	124112	124112	
9501.12	-3.13776e-11	124276	124276	
9517.63	-3.22871e-11	124544	124544	
9534.14	-3.31966e-11	124742	124742	
9550.65	-3.41061e-11	125016	125016	
9567.16	-3.50155e-11	125250	125250	
9583.67	-3.5925e-11	125514	125514	
9600.18	-3.68345e-11	125762	125762	
9616.69	-3.7744e-11	125996	125996	
9633.2	-3.86535e-11	126238	126238	
9649.71	-3.9563e-11	126438	126438	
9666.22	-4.04725e-11	126716	126716	
9682.73	-4.1382e-11	126954	126954	
9699.24	-4.22915e-11	127200	127200	
9715.75	-4.3201e-11	127462	127462	
9732.26	-4.41105e-11	127720	127720	
9748.77	-4.54747e-11	127952	127952	
9765.28	-4.6839e-11	128212	128212	
9781.79	-4.82032e-11	128456	128456	
9798.3	-4.95675e-11	128702	128702	
9814.81	-5.09317e-11	128940	128940	
9831.32	-5.22959e-11	129190	129190	
9847.83	-5.36602e-11	129452	129452	
9864.34	-5.50244e-11	129728	129728	
9880.85	-5.63887e-11	129990	129990	
9897.36	-5.77529e-11	130232	130232	
9913.87	-5.91172e-11	130506	130506	
9930.38	-6.09361e-11	130744	130744	
9946.89	-6.27551e-11	131010	131010	
9963.4	-6.45741e-11	131220	131220	
9979.91	-6.63931e-11	131456	131456	
9996.42	-6.82121e-11	131724	131724	
10012.9	-7.00311e-11	131998	131998	
10029.4	-7.18501e-11	132300	132300	
10045.9	-7.36691e-11	132580	132580	
10062.5	-7.54881e-11	132854	132854	
10079	-7.7307e-11	133130	133130	
10095.5	-7.9126e-11	133430	133430	
10112	-8.13998e-11	133622	133622	
10128.5	-8.36735e-11	133886	133886	
10145	-8.59472e-11	134088	134088	
10161.5	-8.8221e-11	134306	134306	
10178	-9.04947e-11	134586	134586	
10194.5	-9.27685e-11	134828	134828	
10211	-9.50422e-11	135106	135106	
10227.6	-9.77707e-11	135388	135388	
10244.1	-1.00499e-10	135626	135626	
10260.6	-1.03228e-10	135880	135880	
10277.1	-1.05956e-10	136158	136158	
10293.6	-1.08685e-10	136422	136422	
10310.1	-1.11413e-10	136672	136672	
10326.6	-1.14142e-10	136900	136900	
10343.1	-1.17325e-10	137146	137146	
10359.6	-1.20508e-10	137330	137330	
10376.1	-1.23691e-10	137614	137614	
10392.7	-1.26875e-10	137868	137868	
10409.2	-1.30058e-10	138118	138118	
10425.7	-1.33241e-10	138368	138368	
10442.2	-1.36424e-10	138582	138582	
10458.7	-1.40062e-10	138840	138840	
10475.2	-1.437e-10	139128	139128	
10491.7	-1.47338e-10	139462	139462	
10508.2	-1.50976e-10	139778	139778	
10524.7	-1.54614e-10	140020	140020	
10541.2	-1.58707e-10	140222	140222	
10557.8	-1.628e-10	140448	140448	
10574.3	-1.66892e-10	140724	140724	
10590.8	-1.70985e-10	140908	140908	
10607.3	-1.75078e-10	141224	141224	
10623.8	-1.79625e-10	141454	141454	
10640.3	-1.84173e-10	141736	141736	
10656.8	-1.8872e-10	142038	142038	
10673.3	-1.93268e-10	142246	142246	
10689.8	-1.97815e-10	142484	142484	
10706.3	-2.02817e-10	142744	142744	
10722.9	-2.0782e-10	142994	142994	
10739.4	-2.12822e-10	143232	143232	
10755.9	-2.17824e-10	143442	143442	
10772.4	-2.23281e-10	143686	143686	
10788.9	-2.28738e-10	143946	143946	
10805.4	-2.34195e-10	144244	144244	
10821.9	-2.39652e-10	144524	144524	
10838.4	-2.45564e-10	144788	144788	
10854.9	-2.51475e-10	145062	145062	
10871.4	-2.57387e-10	145294	145294	
10888	-2.63753e-10	145592	145592	
10904.5	-2.7012e-10	145834	145834	
10921	-2.76486e-10	146120	146120	
10937.5	-2.82853e-10	146390	146390	
10954	-2.89674e-10	146636	146636	
10970.5	-2.96495e-10	146852	146852	
10987	-3.03316e-10	147112	147112	
11003.5	-3.10592e-10	147388	147388	
11020	-3.17868e-10	147688	147688	
11036.5	-3.25144e-10	147952	147952	
11053.1	-3.3242e-10	148204	148204	
11069.6	-3.40151e-10	148488	148488	
11086.1	-3.47882e-10	148716	148716	
11102.6	-3.56067e-10	148948	148948	
11119.1	-3.64253e-10	149256	149256	
11135.6	-3.72438e-10	149520	149520	
11152.1	-3.81078e-10	149776	149776	
11168.6	-3.89718e-10	150094	150094	
11185.1	-3.98359e-10	150362	150362	
11201.6	-4.07454e-10	150640	150640	
11218.2	-4.16549e-10	150902	150902	
11234.7	-4.25644e-10	151124	151124	
11251.2	-4.35193e-10	151352	151352	
11267.7	-4.44743e-10	151618	151618	
11284.2	-4.54747e-10	151866	151866	
11300.7	-4.64752e-10	152064	152064	
11317.2	-4.74756e-10	152330	152330	
11333.7	-4.85215e-10	152546	152546	
11350.2	-4.95675e-10	152796	152796	
11366.7	-5.06589e-10	153062	153062	
11383.3	-5.17502e-10	153320	153320	
11399.8	-5.28871e-10	153598	153598	
11416.3	-5.4024e-10	153912	153912	
11432.8	-5.52063e-10	154154	154154	
11449.3	-5.63887e-10	154404	154404	
11465.8	-5.7571e-10	154702	154702	
11482.3	-5.87988e-10	154960	154960	
11498.8	-6.00267e-10	155178	155178	
11515.3	-6.12999e-10	155392	155392	
11531.8	-6.26187e-10	155634	155634	
11548.4	-6.39375e-10	155904	155904	
11564.9	-6.53017e-10	156300	156300	
11581.4	-6.6666e-10	156644	156644	
11597.9	-6.80757e-10	156976	156976	
11614.4	-6.94854e-10	157216	157216	
11630.9	-7.09406e-10	157476	157476	
11647.4	-7.23958e-10	157754	157754	
11663.9	-7.38964e-10	158044	158044	
11680.4	-7.53971e-10	158326	158326	
11696.9	-7.69433e-10	158542	158542	
11713.5	-7.84894e-10	158812	158812	
11730	-8.0081e-10	159072	159072	
11746.5	-8.17181e-10	159294	159294	
11763	-8.33552e-10	159540	159540	
11779.5	-8.50378e-10	159770	159770	
11796	-8.67203e-10	160030	160030	
11812.5	-8.84484e-10	160304	160304	
11829	-9.02219e-10	160632	160632	
11845.5	-9.19954e-10	160960	160960	
11862	-9.38144e-10	161332	161332	
11878.6	-9.56788e-10	161704	161704	
11895.1	-9.75888e-10	162014	162014	
11911.6	-9.94987e-10	162298	162298	
11928.1	-1.01454e-09	162640	162640	
11944.6	-1.03455e-09	162980	162980	
11961.1	-1.05456e-09	163272	163272	
11977.7	-1.07502e-09	163514	163514	
11994.2	-1.09594e-09	163788	163788	
12010.7	-1.11731e-09	164044	164044	
12027.2	-1.13869e-09	164314	164314	
12043.7	-1.16052e-09	164692	164692	
12060.2	-1.1828e-09	164988	164988	
12076.7	-1.20554e-09	165280	165280	
12093.3	-1.22827e-09	165554	165554	
12109.8	-1.25146e-09	165810	165810	
12126.3	-1.27511e-09	166144	166144	
12142.8	-1.29921e-09	166464	166464	
12159.3	-1.32377e-09	166786	166786	
12175.8	-1.34878e-09	167052	167052	
12192.3	-1.37379e-09	167308	167308	
12208.9	-1.39926e-09	167548	167548	
12225.4	-1.42518e-09	167840	167840	
12241.9	-1.45155e-09	168186	168186	
12258.4	-1.47838e-09	168518	168518	
12274.9	-1.50567e-09	168820	168820	
12291.4	-1.53341e-09	169142	169142	
12307.9	-1.5616e-09	169456	169456	
12324.4	-1.59025e-09	169684	169684	
12341	-1.61936e-09	170016	170016	
12357.5	-1.64891e-09	170370	170370	
12374	-1.67847e-09	170688	170688	
12390.5	-1.70849e-09	171034	171034	
12407	-1.73941e-09	171296	171296	
12423.5	-1.77079e-09	171592	171592	
12440	-1.80216e-09	171896	171896	
12456.5	-1.83445e-09	172180	172180	
12473.1	-1.86719e-09	172510	172510	
12489.6	-1.90039e-09	172824	172824	
12506.1	-1.93404e-09	173196	173196	
12522.6	-1.96815e-09	173478	173478	
12539.1	-2.00271e-09	173770	173770	
12555.6	-2.03772e-09	174092	174092	
12572.1	-2.07319e-09	174394	174394	
12588.6	-2.10912e-09	174714	174714	
12605.1	-2.1455e-09	174986	174986	
12621.6	-2.18279e-09	175248	175248	
12638.2	-2.22053e-09	175484	175484	
12654.7	-2.25873e-09	175894	175894	
12671.2	-2.29738e-09	176202	176202	
12687.7	-2.33649e-09	176562	176562	
12704.2	-2.37651e-09	176890	176890	
12720.7	-2.41698e-09	177220	177220	
12737.2	-2.45791e-09	177402	177402	
12753.7	-2.49929e-09	177782	177782	
12770.2	-2.54158e-09	178100	178100	
12786.7	-2.58433e-09	178400	178400	
12803.3	-2.62753e-09	178696	178696	
12819.8	-2.67164e-09	179006	179006	
12836.3	-2.71621e-09	179292	179292	
12852.8	-2.76123e-09	179590	179590	
12869.3	-2.80716e-09	179948	179948	
12885.8	-2.85354e-09	180234	180234	
12902.3	-2.90038e-09	180524	180524	
12918.8	-2.94813e-09	180860	180860	
12935.3	-2.99633e-09	181156	181156	
12951.8	-3.04544e-09	181484	181484	
12968.4	-3.09501e-09	181822	181822	
12984.9	-3.14503e-09	182092	182092	
13001.4	-3.19596e-09	182446	182446	
13017.9	-3.24735e-09	182688	182688	
13034.4	-3.29965e-09	182968	182968	
13050.9	-3.3524e-09	183274	183274	
13067.4	-3.40606e-09	183678	183678	
13083.9	-3.46063e-09	184034	184034	
13100.4	-3.51565e-09	184364	184364	
13116.9	-3.57159e-09	184666	184666	
13133.5	-3.62797e-09	184972	184972	
13150	-3.68527e-09	185258	185258	
13166.5	-3.74348e-09	185674	185674	
13183	-3.80214e-09	186050	186050	
13199.5	-3.86171e-09	186378	186378	
13216	-3.9222e-09	186760	186760	
13232.5	-3.98313e-09	187076	187076	
13249	-4.04498e-09	187386	187386	
13265.5	-4.10773e-09	187722	187722	
13282	-4.17094e-09	188102	188102	
13298.5	-4.23506e-09	188434	188434	
13315.1	-4.30009e-09	188766	188766	
13331.6	-4.36603e-09	189020	189020	
13348.1	-4.43242e-09	189308	189308	
13364.6	-4.49973e-09	189618	189618	
13381.1	-4.56794e-09	189958	189958	
13397.6	-4.63706e-09	190270	190270	
13414.1	-4.70709e-09	190578	190578	
13430.6	-4.77803e-09	190886	190886	
13447.1	-4.84988e-09	191230	191230	
13463.6	-4.92219e-09	191662	191662	
13480.2	-4.9954e-09	191948	191948	
13496.7	-5.06952e-09	192290	192290	
13513.2	-5.14456e-09	192628	192628	
13529.7	-5.2205e-09	192992	192992	
13546.2	-5.29735e-09	193390	193390	
13562.7	-5.37557e-09	193726	193726	
13579.2	-5.45469e-09	194160	194160	
13595.7	-5.53428e-09	194534	194534	
13612.2	-5.61522e-09	194846	194846	
13628.7	-5.69707e-09	195088	195088	
13645.3	-5.77984e-09	195328	195328	
13661.8	-5.86351e-09	195644	195644	
13678.3	-5.9481e-09	195966	195966	
13694.8	-6.03359e-09	196344	196344	
13711.3	-6.11999e-09	196722	196722	
13727.8	-6.2073e-09	197076	197076	
13744.3	-6.29598e-09	197438	197438	
13760.8	-6.38556e-09	197724	197724	
13777.3	-6.47606e-09	198088	198088	
13793.8	-6.56746e-09	198410	198410	
13810.4	-6.65977e-09	198712	198712	
13826.9	-6.75345e-09	199006	199006	
13843.4	-6.84804e-09	199286	199286	
13859.9	-6.94354e-09	199580	199580	
13876.4	-7.0404e-09	199874	199874	
13892.9	-7.13817e-09	200266	200266	
13909.4	-7.23685e-09	200734	200734	
13925.9	-7.33689e-09	201110	201110	
13942.4	-7.43785e-09	201462	201462	
13958.9	-7.54017e-09	201702	201702	
13975.5	-7.64339e-09	202016	202016	
13992	-7.74753e-09	202364	202364	
14008.5	-7.85303e-09	202724	202724	
14025	-7.95944e-09	203052	203052	
14041.5	-8.06722e-09	203400	203400	
14058	-8.1759e-09	203648	203648	
14074.5	-8.28595e-09	203962	203962	
14091	-8.39736e-09	204230	204230	
14107.5	-8.50969e-09	204648	204648	
14124	-8.62337e-09	205024	205024	
14140.6	-8.73797e-09	205332	205332	
14157.1	-8.85393e-09	205688	205688	
14173.6	-8.9708e-09	206056	206056	
14190.1	-9.08904e-09	206344	206344	
14206.6	-9.20863e-09	206652	206652	
14223.1	-9.3296e-09	206962	206962	
14239.6	-9.45147e-09	207290	207290	
14256.1	-9.57471e-09	207650	207650	
14272.6	-9.69931e-09	208034	208034	
14289.1	-9.82482e-09	208306	208306	
14305.7	-9.95169e-09	208582	208582	
14322.2	-1.00799e-08	208960	208960	
14338.7	-1.02095e-08	209398	209398	
14355.2	-1.03405e-08	209702	209702	
14371.7	-1.04728e-08	210036	210036	
14388.2	-1.06061e-08	210356	210356	
14404.7	-1.07407e-08	210714	210714	
14421.2	-1.08766e-08	211070	211070	
14437.7	-1.1014e-08	211350	211350	
14454.2	-1.11527e-08	211658	211658	
14470.8	-1.12927e-08	211926	211926	
14487.3	-1.14342e-08	212212	212212	
14503.8	-1.1577e-08	212510	212510	
14520.3	-1.17211e-08	212890	212890	
14536.8	-1.18666e-08	213364	213364	
14553.3	-1.20135e-08	213760	213760	
14569.8	-1.21618e-08	214098	214098	
14586.3	-1.23114e-08	214466	214466	
14602.8	-1.24624e-08	214740	214740	
14619.3	-1.26151e-08	215064	215064	
14635.9	-1.27693e-08	215352	215352	
14652.4	-1.29248e-08	215674	215674	
14668.9	-1.30817e-08	216028	216028	
14685.4	-1.324e-08	216346	216346	
14701.9	-1.33996e-08	216698	216698	
14718.4	-1.3561e-08	216988	216988	
14734.9	-1.37238e-08	217286	217286	
14751.4	-1.3888e-08	217646	217646	
14767.9	-1.4054e-08	218094	218094	
14784.4	-1.42213e-08	218490	218490	
14801	-1.439e-08	218796	218796	
14817.5	-1.45606e-08	219116	219116	
14834	-1.47324e-08	219390	219390	
14850.5	-1.49062e-08	219674	219674	
14867	-1.50812e-08	220022	220022	
14883.5	-1.52577e-08	220390	220390	
14900	-1.54359e-08	220716	220716	
14916.5	-1.56156e-08	221086	221086	
14933	-1.5797e-08	221418	221418	
14949.5	-1.59803e-08	221778	221778	
14966.1	-1.61649e-08	222170	222170	
14982.6	-1.63514e-08	222506	222506	
14999.1	-1.65392e-08	222874	222874	
15015.6	-1.67288e-08	223232	223232	
15032.1	-1.69202e-08	223606	223606	
15048.6	-1.71135e-08	224026	224026	
15065.1	-1.73081e-08	224432	224432	
15081.6	-1.75046e-08	224786	224786	
15098.1	-1.77029e-08	225138	225138	
15114.6	-1.79029e-08	225466	225466	
15131.2	-1.81049e-08	225740	225740	
15147.7	-1.83086e-08	226044	226044	
15164.2	-1.85137e-08	226368	226368	
15180.7	-1.87206e-08	226714	226714	
15197.2	-1.89298e-08	227220	227220	
15213.7	-1.91408e-08	227656	227656	
15230.2	-1.93536e-08	228162	228162	
15246.7	-1.95682e-08	228528	228528	
15263.2	-1.97847e-08	228870	228870	
15279.7	-2.0003e-08	229158	229158	
15296.3	-2.02231e-08	229460	229460	
15312.8	-2.0445e-08	229830	229830	
15329.3	-2.06692e-08	230240	230240	
15345.8	-2.08952e-08	230682	230682	
15362.3	-2.11235e-08	231092	231092	
15378.8	-2.13536e-08	231490	231490	
15395.3	-2.15855e-08	231892	231892	
15411.8	-2.18197e-08	232288	232288	
15428.3	-2.20562e-08	232660	232660	
15444.8	-2.22944e-08	233060	233060	
15461.4	-2.2535e-08	233478	233478	
15477.9	-2.27778e-08	233850	233850	
15494.4	-2.30225e-08	234160	234160	
15510.9	-2.32694e-08	234520	234520	
15527.4	-2.35186e-08	234862	234862	
15543.9	-2.37701e-08	235210	235210	
15560.4	-2.40238e-08	235620	235620	
15576.9	-2.42799e-08	236024	236024	
15593.4	-2.45382e-08	236446	236446	
15609.9	-2.47987e-08	236908	236908	
15626.5	-2.5062e-08	237338	237338	
15643	-2.53276e-08	237682	237682	
15659.5	-2.55955e-08	238080	238080	
15676	-2.5866e-08	238448	238448	
15692.5	-2.61389e-08	238802	238802	
15709	-2.64145e-08	239166	239166	
15725.5	-2.66923e-08	239530	239530	
15742	-2.69729e-08	239858	239858	
15758.5	-2.72562e-08	240156	240156	
15775	-2.75422e-08	240528	240528	
15791.6	-2.7831e-08	240914	240914	
15808.1	-2.81225e-08	241312	241312	
15824.6	-2.84167e-08	241692	241692	
15841.1	-2.87137e-08	242110	242110	
15857.6	-2.90138e-08	242560	242560	
15874.1	-2.93167e-08	242958	242958	
15890.6	-2.96227e-08	243342	243342	
15907.1	-2.99315e-08	243650	243650	
15923.6	-3.02434e-08	244030	244030	
15940.1	-3.05586e-08	244376	244376	
15956.7	-3.08769e-08	244746	244746	
15973.2	-3.11984e-08	245060	245060	
15989.7	-3.15231e-08	245416	245416	
16006.2	-3.1851e-08	245824	245824	
16022.7	-3.21825e-08	246236	246236	
16039.2	-3.25172e-08	246634	246634	
16055.7	-3.28555e-08	247072	247072	
16072.2	-3.31975e-08	247408	247408	
16088.7	-3.35431e-08	247858	247858	
16105.2	-3.38923e-08	248262	248262	
16121.8	-3.42452e-08	248638	248638	
16138.3	-3.46022e-08	249024	249024	
16154.8	-3.49628e-08	249482	249482	
16171.3	-3.53275e-08	249796	249796	
16187.8	-3.56963e-08	250126	250126	
16204.3	-3.60692e-08	250516	250516	
16220.8	-3.64462e-08	250924	250924	
16237.3	-3.68273e-08	251330	251330	
16253.8	-3.72129e-08	251728	251728	
16270.3	-3.76031e-08	252108	252108	
16286.9	-3.79973e-08	252440	252440	
16303.4	-3.83966e-08	252848	252848	
16319.9	-3.88004e-08	253274	253274	
16336.4	-3.92088e-08	253640	253640	
16352.9	-3.96221e-08	253998	253998	
16369.4	-4.00405e-08	254296	254296	
16385.9	-4.04639e-08	254678	254678	
16402.4	-4.08922e-08	255018	255018	
16418.9	-4.13261e-08	255432	255432	
16435.4	-4.17654e-08	255822	255822	
16452	-4.22101e-08	256208	256208	
16468.5	-4.26603e-08	256588	256588	
16485	-4.31164e-08	256980	256980	
16501.5	-4.35784e-08	257334	257334	
16518	-4.40464e-08	257744	257744	
16534.5	-4.45202e-08	258148	258148	
16551	-4.50004e-08	258538	258538	
16567.5	-4.5487e-08	258948	258948	
16584	-4.598e-08	259420	259420	
16600.5	-4.64793e-08	259782	259782	
16617.1	-4.69854e-08	260172	260172	
16633.6	-4.74984e-08	260548	260548	
16650.1	-4.80186e-08	260912	260912	
16666.6	-4.85456e-08	261310	261310	
16683.1	-4.90804e-08	261712	261712	
16699.6	-4.96225e-08	262102	262102	
16716.1	-5.01723e-08	262462	262462	
16732.6	-5.07298e-08	262740	262740	
16749.1	-5.12955e-08	263134	263134	
16765.6	-5.18689e-08	263556	263556	
16782.2	-5.2451e-08	264006	264006	
16798.7	-5.30413e-08	264432	264432	
16815.2	-5.36406e-08	264780	264780	
16831.7	-5.42486e-08	265168	265168	
16848.2	-5.48657e-08	265606	265606	
16864.7	-5.54919e-08	265972	265972	
16881.2	-5.61276e-08	266336	266336	
16897.7	-5.67729e-08	266666	266666	
16914.2	-5.74282e-08	267134	267134	
16930.7	-5.80935e-08	267574	267574	
16947.3	-5.87693e-08	267978	267978	
16963.8	-5.94555e-08	268442	268442	
16980.3	-6.01526e-08	268788	268788	
16996.8	-6.08607e-08	269188	269188	
17013.3	-6.15796e-08	269602	269602	
17029.8	-6.23099e-08	269916	269916	
17046.3	-6.30521e-08	270262	270262	
17062.8	-6.38061e-08	270576	270576	
17079.3	-6.45723e-08	270982	270982	
17095.8	-6.53508e-08	271426	271426	
17112.4	-6.61421e-08	271812	271812	
17128.9	-6.69465e-08	272264	272264	
17145.4	-6.77642e-08	272668	272668	
17161.9	-6.85955e-08	273042	273042	
17178.4	-6.94404e-08	273412	273412	
17194.9	-7.02994e-08	273874	273874	
17211.4	-7.11725e-08	274366	274366	
17227.9	-7.20602e-08	274808	274808	
17244.4	-7.29628e-08	275284	275284	
17260.9	-7.3881e-08	275716	275716	
17277.5	-7.48146e-08	276070	276070	
17294	-7.57641e-08	276424	276424	
17310.5	-7.673e-08	276878	276878	
17327	-7.77122e-08	277320	277320	
17343.5	-7.87113e-08	277828	277828	
17360	-7.97277e-08	278298	278298	
17376.5	-8.07613e-08	278738	278738	
17393	-8.18131e-08	279178	279178	
17409.5	-8.28827e-08	279608	279608	
17426	-8.39709e-08	279980	279980	
17442.6	-8.50782e-08	280372	280372	
17459.1	-8.62046e-08	280766	280766	
17475.6	-8.73511e-08	281122	281122	
17492.1	-8.85175e-08	281556	281556	
17508.6	-8.97039e-08	282033	282033	
17525.1	-9.09113e-08	282573	282573	
17541.6	-9.214e-08	283160	283160	
17558.1	-9.33901e-08	283617	283617	
17574.6	-9.4662e-08	284015	284015	
17591.1	-9.59562e-08	284447	284447	
17607.7	-9.72732e-08	284884	284884	
17624.2	-9.86133e-08	285302	285302	
17640.7	-9.99771e-08	285728	285728	
17657.2	-1.01365e-07	286142	286142	
17673.7	-1.02777e-07	286592	286592	
17690.2	-1.04214e-07	286896	286896	
17706.7	-1.05677e-07	287219	287219	
17723.2	-1.07165e-07	287649	287649	
17739.7	-1.0868e-07	288263	288263	
17756.2	-1.10221e-07	288767	288767	
17772.8	-1.11789e-07	289327	289327	
17789.3	-1.13384e-07	289797	289797	
17805.8	-1.15008e-07	290359	290359	
17822.3	-1.1666e-07	290773	290773	
17838.8	-1.18341e-07	291161	291161	
17855.3	-1.20051e-07	291603	291603	
17871.8	-1.21792e-07	292027	292027	
17888.3	-1.23563e-07	292539	292539	
17904.8	-1.25364e-07	292897	292897	
17921.4	-1.27197e-07	293257	293257	
17937.9	-1.29063e-07	293677	293677	
17954.4	-1.3096e-07	294045	294045	
17970.9	-1.32891e-07	294415	294415	
17987.4	-1.34855e-07	294873	294873	
18003.9	-1.36853e-07	295331	295331	
18020.4	-1.38887e-07	295821	295821	
18036.9	-1.40955e-07	296227	296227	
18053.4	-1.43059e-07	296685	296685	
18069.9	-1.45199e-07	297171	297171	
18086.5	-1.47376e-07	297592	297592	
18103	-1.49591e-07	298014	298014	
18119.5	-1.51843e-07	298473	298473	
18136	-1.54135e-07	298856	298856	
18152.5	-1.56466e-07	299267	299267	
18169	-1.58837e-07	299761	299761	
18185.5	-1.61248e-07	300218	300218	
18202	-1.63701e-07	300744	300744	
18218.5	-1.66196e-07	301219	301219	
18235	-1.68734e-07	301669	301669	
18251.6	-1.71315e-07	302097	302097	
18268.1	-1.7394e-07	302493	302493	
18284.6	-1.7661e-07	302921	302921	
18301.1	-1.79326e-07	303381	303381	
18317.6	-1.82088e-07	303800	303800	
18334.1	-1.84898e-07	304288	304288	
18350.6	-1.87755e-07	304731	304731	
18367.1	-1.90661e-07	305121	305121	
18383.6	-1.93617e-07	305563	305563	
18400.1	-1.96623e-07	305983	305983	
18416.7	-1.99681e-07	306453	306453	
18433.2	-2.02791e-07	306882	306882	
18449.7	-2.05954e-07	307392	307392	
18466.2	-2.09172e-07	307894	307894	
18482.7	-2.12443e-07	308298	308298	
18499.2	-2.15771e-07	308792	308792	
18515.7	-2.19156e-07	309230	309230	
18532.2	-2.22598e-07	309547	309547	
18548.7	-2.26099e-07	310033	310033	
18565.2	-2.2966e-07	310452	310452	
18581.8	-2.33281e-07	310830	310830	
18598.3	-2.36964e-07	311200	311200	
18614.8	-2.40709e-07	311614	311614	
18631.3	-2.44518e-07	311991	311991	
18647.8	-2.48391e-07	312462	312462	
18664.3	-2.52329e-07	312924	312924	
18680.8	-2.56333e-07	313342	313342	
18697.3	-2.60405e-07	313755	313755	
18713.8	-2.64546e-07	314188	314188	
18730.3	-2.68755e-07	314673	314673	
18746.9	-2.73035e-07	315118	315118	
18763.4	-2.77387e-07	315606	315606	
18779.9	-2.81811e-07	316110	316110	
18796.4	-2.86309e-07	316509	316509	
18812.9	-2.90882e-07	316940	316940	
18829.4	-2.95531e-07	317386	317386	
18845.9	-3.00257e-07	317785	317785	
18862.4	-3.05061e-07	318189	318189	
18878.9	-3.09945e-07	318659	318659	
18895.4	-3.1491e-07	319120	319120	
18912	-3.19958e-07	319564	319564	
18928.5	-3.25088e-07	319948	319948	
18945	-3.30303e-07	320336	320336	
18961.5	-3.35604e-07	320743	320743	
18978	-3.40992e-07	321227	321227	
18994.5	-3.46469e-07	321694	321694	
19011	-3.52036e-07	322180	322180	
19027.5	-3.57694e-07	322667	322667	
19044	-3.63445e-07	323077	323077	
19060.5	-3.6929e-07	323501	323501	
19077	-3.7523e-07	323975	323975	
19093.6	-3.81268e-07	324465	324465	
19110.1	-3.87404e-07	324918	324918	
19126.6	-3.93641e-07	325366	325366	
19143.1	-3.9998e-07	325828	325828	
19159.6	-4.06424e-07	326325	326325	
19176.1	-4.12973e-07	326733	326733	
19192.6	-4.19631e-07	327099	327099	
19209.1	-4.26399e-07	327524	327524	
19225.6	-4.33284e-07	327984	327984	
19242.1	-4.40288e-07	328338	328338	
19258.7	-4.47413e-07	328765	328765	
19275.2	-4.54661e-07	329135	329135	
19291.7	-4.62033e-07	329535	329535	
19308.2	-4.69529e-07	329933	329933	
19324.7	-4.7715e-07	330323	330323	
19341.2	-4.84897e-07	330800	330800	
19357.7	-4.9277e-07	331301	331301	
19374.2	-5.00771e-07	331713	331713	
19390.7	-5.089e-07	332106	332106	
19407.2	-5.17155e-07	332501	332501	
19423.8	-5.25534e-07	332941	332941	
19440.3	-5.34037e-07	333413	333413	
19456.8	-5.42661e-07	333835	333835	
19473.3	-5.51405e-07	334241	334241	
19489.8	-5.60269e-07	334656	334656	
19506.3	-5.69251e-07	335065	335065	
19522.8	-5.78352e-07	335442	335442	
19539.3	-5.87573e-07	335823	335823	
19555.8	-5.96915e-07	336212	336212	
19572.3	-6.0638e-07	336624	336624	
19588.9	-6.15972e-07	336969	336969	
19605.4	-6.25693e-07	337391	337391	
19621.9	-6.35548e-07	337779	337779	
19638.4	-6.45542e-07	338215	338215	
19654.9	-6.55681e-07	338627	338627	
19671.4	-6.65971e-07	339036	339036	
19687.9	-6.7642e-07	339514	339514	
19704.4	-6.87035e-07	339861	339861	
19720.9	-6.97825e-07	340233	340233	
19737.5	-7.08798e-07	340541	340541	
19754	-7.19965e-07	340879	340879	
19770.5	-7.31335e-07	341181	341181	
19787	-7.42917e-07	341571	341571	
19803.5	-7.54722e-07	342016	342016	
19820	-7.6676e-07	342450	342450	
19836.5	-7.7904e-07	342880	342880	
19853	-7.91872e-07	343255	343255	
19869.5	-8.04873e-07	343667	343667	
19886	-8.18128e-07	344029	344029	
19902.6	-8.31625e-07	344423	344423	
19919.1	-8.45348e-07	344783	344783	
19935.6	-8.59281e-07	345176	345176	
19952.1	-8.7341e-07	345495	345495	
19968.6	-8.87727e-07	345695	345695	
19985.1	-9.0223e-07	346027	346027	
20001.6	-9.16921e-07	346383	346383	
20018.1	-9.31828e-07	346802	346802	
20034.6	-9.46956e-07	347277	347277	
20051.1	-9.62317e-07	347752	347752	
20067.7	-9.77931e-07	348118	348118	
20084.2	-9.93833e-07	348438	348438	
20100.7	-1.01006e-06	348744	348744	
20117.2	-1.02664e-06	349043	349043	
20133.7	-1.04362e-06	349394	349394	
20150.2	-1.06103e-06	349816	349816	
20166.7	-1.07891e-06	350215	350215	
20183.2	-1.09729e-06	350612	350612	
20199.7	-1.11621e-06	350965	350965	
20216.2	-1.1357e-06	351262	351262	
20232.8	-1.15579e-06	351560	351560	
20249.3	-1.17653e-06	351888	351888	
20265.8	-1.19793e-06	352302	352302	
20282.3	-1.22002e-06	352692	352692	
20298.8	-1.27071e-06	353049	353049	
20315.3	-1.31344e-06	353392	353392	
20331.8	-1.35226e-06	353699	353699	
20348.3	-1.38836e-06	354095	354095	
20364.8	-1.42268e-06	354601	354601	
20381.3	-1.45595e-06	355056	355056	
20397.9	-1.48873e-06	355318	355318	
20414.4	-1.52145e-06	355678	355678	
20430.9	-1.55446e-06	356032	356032	
20447.4	-1.58803e-06	356408	356408	
20463.9	-1.62239e-06	356721	356721	
20480.4	-1.65771e-06	357048	357048	
20496.9	-1.69416e-06	357409	357409	
20513.4	-1.73192e-06	357843	357843	
20529.9	-1.77119e-06	358140	358140	
20546.4	-1.81215e-06	358524	358524	
20563	-1.85492e-06	358859	358859	
20579.5	-1.89964e-06	359157	359157	
20596	-1.94641e-06	359462	359462	
20612.5	-1.99531e-06	359776	359776	
20629	-2.04637e-06	360130	360130	
20645.5	-2.09963e-06	360477	360477	
20662	-2.15512e-06	360775	360775	
20678.5	-2.21288e-06	361122	361122	
20695	-2.27563e-06	361619	361619	
20711.5	-2.336e-06	362044	362044	
20728.1	-2.39528e-06	362635	362635	
20744.6	-2.45462e-06	363161	363161	
20761.1	-2.515e-06	363678	363678	
20777.6	-2.57831e-06	364016	364016	
20794.1	-2.63651e-06	364447	364447	
20810.6	-2.67601e-06	364664	364664	
20827.1	-2.72165e-06	364934	364934	
20843.6	-2.77281e-06	365200	365200	
20860.1	-2.82923e-06	365604	365604	
20876.6	-2.89104e-06	365967	365967	
20893.2	-2.95867e-06	366241	366241	
20909.7	-3.03259e-06	366655	366655	
20926.2	-3.11335e-06	367024	367024	
20942.7	-3.2015e-06	367390	367390	
20959.2	-3.29759e-06	367701	367701	
20975.7	-3.4021e-06	368074	368074	
20992.2	-3.51546e-06	368573	368573	
21008.7	-3.63786e-06	369052	369052	
21025.2	-3.76482e-06	369481	369481	
21041.7	-4.00877e-06	369829	369829	
21058.3	-4.27465e-06	370197	370197	
21074.8	-4.552e-06	370691	370691	
21091.3	-4.83196e-06	371229	371229	
21107.8	-5.10871e-06	371673	371673	
21124.3	-5.38009e-06	372069	372069	
21140.8	-5.64785e-06	372314	372314	
21157.3	-5.91611e-06	372619	372619	
21173.8	-6.19292e-06	372855	372855	
21190.3	-6.47905e-06	373316	373316	
21206.8	-6.76819e-06	373735	373735	
21223.3	-7.06761e-06	374197	374197	
21239.9	-7.39052e-06	374744	374744	
21256.4	-7.27119e-06	375208	375208	
21272.9	-7.35425e-06	375654	375654	
21289.4	-7.58606e-06	376084	376084	
21305.9	-7.86569e-06	376475	376475	
21322.4	-8.18578e-06	376843	376843	
21338.9	-8.59144e-06	377221	377221	
21355.4	-9.10593e-06	377641	377641	
21371.9	-9.73e-06	377936	377936	
21388.4	-1.04484e-05	378299	378299	
21405	-1.02337e-05	378678	378678	
21421.5	-1.08936e-05	379104	379104	
21438	-1.18108e-05	379542	379542	
21454.5	-1.28924e-05	379906	379906	
21471	-1.40762e-05	380319	380319	
21487.5	-1.53504e-05	380808	380808	
21504	-1.6691e-05	381276	381276	
21520.5	-1.80764e-05	381689	381689	
21537	-1.95285e-05	382104	382104	
21553.5	-2.09962e-05	382473	382473	
21570.1	-2.24728e-05	382830	382830	
21586.6	-2.39758e-05	383205	383205	
21603.1	-2.55053e-05	383669	383669	
21619.6	-2.70785e-05	384088	384088	
21636.1	-2.87121e-05	384507	384507	
21652.6	-3.04203e-05	384896	384896	
21669.1	-3.22121e-05	385313	385313	
21685.6	-3.40937e-05	385761	385761	
21702.1	-3.60705e-05	386143	386143	
21718.6	-3.81459e-05	386515	386515	
21735.2	-4.03175e-05	386903	386903	
21751.7	-4.25827e-05	387241	387241	
21768.2	-4.49404e-05	387660	387660	
21784.7	-4.73925e-05	388057	388057	
21801.2	-4.99443e-05	388443	388443	
21817.7	-5.26019e-05	388768	388768	
21834.2	-5.53717e-05	389134	389134	
21850.7	-5.82592e-05	389655	389655	
21867.2	-6.12696e-05	390016	390016	
21883.7	-6.4407e-05	390367	390367	
21900.3	-6.7675e-05	390729	390729	
21916.8	-7.10762e-05	391121	391121	
21933.3	-7.46126e-05	391465	391465	
21949.8	-7.82852e-05	391920	391920	
21966.3	-8.20949e-05	392307	392307	
21982.8	-8.60417e-05	392682	392682	
21999.3	-9.0126e-05	393199	393199	
22015.8	-9.43478e-05	393767	393767	
22032.3	-9.87071e-05	394096	394096	
22048.8	-0.000103204	394409	394409	
22065.4	-0.000107838	394726	394726	
22081.9	-0.000112609	395083	395083	
22098.4	-0.000117517	395489	395489	
22114.9	-0.000122561	395863	395863	
22131.4	-0.000127741	396204	396204	
22147.9	-0.000133055	396584	396584	
22164.4	-0.000138502	396977	396977	
22180.9	-0.000144083	397315	397315	
22197.4	-0.000149797	397648	397648	
22213.9	-0.000155642	398019	398019	
22230.5	-0.000161617	398375	398375	
22247	-0.000167722	398770	398770	
22263.5	-0.000173953	399225	399225	
22280	-0.000180309	399629	399629	
22296.5	-0.000186785	399995	399995	
22313	-0.000193377	400482	400482	
22329.5	-0.000200079	400942	400942	
22346	-0.000206884	401264	401264	
22362.5	-0.000213784	401676	401676	
22379	-0.000220772	401995	401995	
22395.6	-0.000227838	402407	402407	
22412.1	-0.000234974	402835	402835	
22428.6	-0.000242168	403266	403266	
22445.1	-0.00024941	403641	403641	
22461.6	-0.00025669	403924	403924	
22478.1	-0.000263996	404319	404319	
22494.6	-0.000271316	404693	404693	
22511.1	-0.000278636	405088	405088	
22527.6	-0.000285942	405410	405410	
22544.1	-0.00029322	405739	405739	
22560.7	-0.000300452	406121	406121	
22577.2	-0.000307622	406362	406362	
22593.7	-0.000314711	406735	406735	
22610.2	-0.000321698	407123	407123	
22626.7	-0.000328563	407557	407557	
22643.2	-0.000335284	407939	407939	
22659.7	-0.000341836	408337	408337	
22676.2	-0.000348195	408631	408631	
22692.7	-0.000354335	408970	408970	
22709.2	-0.000360228	409333	409333	
22725.8	-0.000365845	409723	409723	
22742.3	-0.000371156	410040	410040	
22758.8	-0.000376129	410342	410342	
22775.3	-0.000380731	410754	410754	
22791.8	-0.000384928	411060	411060	
22808.3	-0.000388684	411467	411467	
22824.8	-0.00039196	411871	411871	
22841.3	-0.000394718	412189	412189	
22857.8	-0.000396915	412492	412492	
22874.3	-0.000398509	412828	412828	
22890.9	-0.000399452	413161	413161	
22907.4	-0.000399698	413529	413529	
22923.9	-0.000399194	413889	413889	
22940.4	-0.000397887	414227	414227	
22956.9	-0.000395723	414702	414702	
22973.4	-0.000392641	415095	415095	
22989.9	-0.000388583	415442	415442	
23006.4	-0.000383486	415799	415799	
23022.9	-0.000377286	416091	416091	
23039.4	-0.000369916	416509	416509	
23056	-0.00036131	416960	416960	
23072.5	-0.000351399	417225	417225	
23089	-0.000340112	417577	417577	
23105.5	-0.000327378	417858	417858	
23122	-0.000313123	418298	418298	
23138.5	-0.000297272	418747	418747	
23155	-0.000279745	419128	419128	
23171.5	-0.000260463	419488	419488	
23188	-0.000239341	419855	419855	
23204.6	-0.000216295	420142	420142	
23221.1	-0.000191238	420454	420454	
23237.6	-0.000164081	420881	420881	
23254.1	-0.000134736	421287	421287	
23270.6	-0.000103112	421641	421641	
23287.1	-6.91166e-05	422071	422071	
23303.6	-3.26566e-05	422393	422393	
23320.1	6.36451e-06	422781	422781	
23336.6	4.80448e-05	423168	423168	
23353.1	9.24837e-05	423615	423615	
23369.7	0.000139782	424039	424039	
23386.2	0.000190044	424385	424385	
23402.7	0.000243374	424753	424753	
23419.2	0.000299883	425110	425110	
23435.7	0.000359685	425396	425396	
23452.2	0.000422897	425779	425779	
23468.7	0.000489637	426107	426107	
23485.2	0.000560025	426545	426545	
23501.7	0.000634177	426902	426902	
23518.2	0.000712208	427253	427253	
23534.8	0.00079423	427698	427698	
23551.3	0.000880355	428109	428109	
23567.8	0.000970693	428437	428437	
23584.3	0.00106536	428843	428843	
23600.8	0.00116446	429236	429236	
23617.3	0.00126812	429658	429658	
23633.8	0.00137645	430037	430037	
23650.3	0.00148956	430445	430445	
23666.8	0.00160757	430796	430796	
23683.3	0.00173059	431143	431143	
23699.9	0.00185874	431509	431509	
23716.4	0.00199213	431904	431904	
23732.9	0.00213086	432257	432257	
23749.4	0.00227504	432726	432726	
23765.9	0.00242477	433117	433117	
23782.4	0.00258015	433424	433424	
23798.9	0.00274129	433747	433747	
23815.4	0.00290829	434120	434120	
23831.9	0.00308123	434454	434454	
23848.4	0.00326022	434966	434966	
23865	0.00344535	435324	435324	
23881.5	0.00363669	435760	435760	
23898	0.00383435	436106	436106	
23914.5	0.0040384	436506	436506	
23931	0.0042489	436777	436777	
23947.5	0.00446595	436981	436981	
23964	0.0046896	437408	437408	
23980.5	0.00491991	437805	437805	
23997	0.00515695	438104	438104	
24013.5	0.00540077	438459	438459	
24030.1	0.00565141	438817	438817	
24046.6	0.00590891	439121	439121	
24063.1	0.00617332	439543	439543	
24079.6	0.00644466	439929	439929	
24096.1	0.00672296	440299	440299	
24112.6	0.00700825	440594	440594	
24129.1	0.00730052	440986	440986	
24145.6	0.00759978	441329	441329	
24162.1	0.00790605	441622	441622	
24178.6	0.0082193	441987	441987	
24195.2	0.00853953	442206	442206	
24211.7	0.00886671	442510	442510	
24228.2	0.00920081	442920	442920	
24244.7	0.00954181	443248	443248	
24261.2	0.00988965	443508	443508	
24277.7	0.0102443	443907	443907	
24294.2	0.0106057	444232	444232	
24310.7	0.0109737	444484	444484	
24327.2	0.0113483	444826	444826	
24343.7	0.0117295	445178	445178	
24360.3	0.0121171	445581	445581	
24376.8	0.012511	446040	446040	
24393.3	0.0129111	446460	446460	
24409.8	0.0133174	446853	446853	
24426.3	0.0137296	447164	447164	
24442.8	0.0141478	447467	447467	
24459.3	0.0145716	447833	447833	
24475.8	0.0150011	448167	448167	
24492.3	0.0154359	448505	448505	
24508.8	0.0158761	448926	448926	
24525.4	0.0163214	449247	449247	
24541.9	0.0167716	449515	449515	
24558.4	0.0172265	449860	449860	
24574.9	0.017686	450226	450226	
24591.4	0.0181499	450606	450606	
24607.9	0.018618	451013	451013	
24624.4	0.01909	451409	451409	
24640.9	0.0195657	451707	451707	
24657.4	0.020045	452058	452058	
24673.9	0.0205275	452436	452436	
24690.5	0.0210131	452849	452849	
24707	0.0215015	453194	453194	
24723.5	0.0219925	453485	453485	
24740	0.0224857	453700	453700	
24756.5	0.022981	454015	454015	
24773	0.0234781	454334	454334	
24789.5	0.0239767	454648	454648	
24806	0.0244765	455040	455040	
24822.5	0.0249772	455420	455420	
24839	0.0254786	455803	455803	
24855.6	0.0259804	456177	456177	
24872.1	0.0264823	456558	456558	
24888.6	0.0269839	456939	456939	
24905.1	0.0274851	457324	457324	
24921.6	0.0279854	457594	457594	
24938.1	0.0284846	458027	458027	
24954.6	0.0289823	458434	458434	
24971.1	0.0294783	458824	458824	
24987.6	0.0299723	459176	459176	
25004.1	0.0304639	459584	459584	
25020.7	0.0309528	459987	459987	
25037.2	0.0314386	460419	460419	
25053.7	0.0319212	460729	460729	
25070.2	0.0324001	460977	460977	
25086.7	0.0328751	461175	461175	
25103.2	0.0333458	461531	461531	
25119.7	0.0338118	461842	461842	
25136.2	0.034273	462188	462188	
25152.7	0.0347289	462479	462479	
25169.2	0.0351793	462866	462866	
25185.8	0.0356238	463453	463453	
25202.3	0.0360622	463936	463936	
25218.8	0.036494	464344	464344	
25235.3	0.0369191	464703	464703	
25251.8	0.0373371	465132	465132	
25268.3	0.0377477	465566	465566	
25284.8	0.0381507	465975	465975	
25301.3	0.0385457	466440	466440	
25317.8	0.0389324	466767	466767	
25334.3	0.0393107	467098	467098	
25350.9	0.0396801	467496	467496	
25367.4	0.0400405	467855	467855	
25383.9	0.0403916	468249	468249	
25400.4	0.0407331	468600	468600	
25416.9	0.0410648	468949	468949	
25433.4	0.0413864	469214	469214	
25449.9	0.0416978	469533	469533	
25466.4	0.0419987	469896	469896	
25482.9	0.0422888	470223	470223	
25499.4	0.0425681	470628	470628	
25516	0.0428363	470956	470956	
25532.5	0.0430932	471356	471356	
25549	0.0433386	471792	471792	
25565.5	0.0435724	472237	472237	
25582	0.0437945	472731	472731	
25598.5	0.0440046	473167	473167	
25615	0.0442026	473640	473640	
25631.5	0.0443885	474025	474025	
25648	0.0445621	474335	474335	
25664.5	0.0447233	474569	474569	
25681.1	0.044872	474925	474925	
25697.6	0.0450081	475278	475278	
25714.1	0.0451316	475654	475654	
25730.6	0.0452423	475994	475994	
25747.1	0.0453403	476469	476469	
25763.6	0.0454254	476882	476882	
25780.1	0.0454976	477142	477142	
25796.6	0.045557	477446	477446	
25813.1	0.0456034	477780	477780	
25829.6	0.0456368	478210	478210	
25846.2	0.0456573	478578	478578	
25862.7	0.0456648	479042	479042	
25879.2	0.0456593	479305	479305	
25895.7	0.0456409	479639	479639	
25912.2	0.0456095	479890	479890	
25928.7	0.0455651	480173	480173	
25945.2	0.0455079	480560	480560	
25961.7	0.0454378	480893	480893	
25978.2	0.0453549	481312	481312	
25994.7	0.0452591	481678	481678	
26011.3	0.0451506	482073	482073	
26027.8	0.0450293	482408	482408	
26044.3	0.0448954	482779	482779	
26060.8	0.0447489	483226	483226	
26077.3	0.0445898	483646	483646	
26093.8	0.0444182	484034	484034	
26110.3	0.0442343	484298	484298	
26126.8	0.0440379	484597	484597	
26143.3	0.0438293	485045	485045	
26159.8	0.0436084	485453	485453	
26176.4	0.0433755	485862	485862	
26192.9	0.0431305	486235	486235	
26209.4	0.0428736	486611	486611	
26225.9	0.0426048	486883	486883	
26242.4	0.0423242	487086	487086	
26258.9	0.042032	487409	487409	
26275.4	0.0417283	487821	487821	
26291.9	0.0414131	488074	488074	
26308.4	0.0410866	488351	488351	
26324.9	0.0407489	488705	488705	
26341.5	0.0404001	489088	489088	
26358	0.0400404	489371	489371	
26374.5	0.0396698	489798	489798	
26391	0.0392886	490149	490149	
26407.5	0.0388969	490515	490515	
26424	0.0384948	490894	490894	
26440.5	0.0380824	491285	491285	
26457	0.03766	491610	491610	
26473.5	0.0372277	491948	491948	
26490	0.0367856	492233	492233	
26506.6	0.036334	492664	492664	
26523.1	0.035873	493103	493103	
26539.6	0.0354028	493431	493431	
26556.1	0.0349235	493738	493738	
26572.6	0.0344355	494057	494057	
26589.1	0.0339388	494387	494387	
26605.6	0.0334337	494793	494793	
26622.1	0.0329203	495238	495238	
26638.6	0.032399	495555	495555	
26655.1	0.0318698	495885	495885	
26671.7	0.031333	496216	496216	
26688.2	0.0307888	496610	496610	
26704.7	0.0302375	496959	496959	
26721.2	0.0296792	497478	497478	
26737.7	0.0291142	497950	497950	
26754.2	0.0285427	498436	498436	
26770.7	0.0279649	498897	498897	
26787.2	0.0273811	499306	499306	
26803.7	0.0267914	499761	499761	
26820.2	0.0261962	500010	500010	
26836.8	0.0255956	500486	500486	
26853.3	0.0249899	500933	500933	
26869.8	0.0243793	501325	501325	
26886.3	0.0237641	501780	501780	
26902.8	0.0231444	502268	502268	
26919.3	0.0225206	502664	502664	
26935.8	0.0218928	503165	503165	
26952.3	0.0212613	503656	503656	
26968.8	0.0206262	504117	504117	
26985.3	0.019988	504486	504486	
27001.9	0.0193467	504865	504865	
27018.4	0.0187026	505232	505232	
27034.9	0.0180559	505628	505628	
27051.4	0.0174069	506033	506033	
27067.9	0.0167557	506494	506494	
27084.4	0.0161027	506814	506814	
27100.9	0.015448	507301	507301	
27117.4	0.0147919	507703	507703	
27133.9	0.0141345	508127	508127	
27150.4	0.0134762	508577	508577	
27167	0.012817	509094	509094	
27183.5	0.0121573	509578	509578	
27200	0.0114973	510065	510065	
27216.5	0.0108371	510635	510635	
27233	0.0101769	511134	511134	
27249.5	0.00951707	511470	511470	
27266	0.0088577	511901	511901	
27282.5	0.00819903	512378	512378	
27299	0.00754126	512802	512802	
27315.5	0.00688459	513174	513174	
27332.1	0.00622923	513605	513605	
27348.6	0.00557537	514013	514013	
27365.1	0.00492321	514356	514356	
27381.6	0.00427295	514722	514722	
27398.1	0.00362479	515125	515125	
27414.6	0.0029789	515531	515531	
27431.1	0.0023355	515936	515936	
27447.6	0.00169475	516337	516337	
27464.1	0.00105686	516712	516712	
27480.6	0.000421999	517111	517111	
27497.2	-0.000209642	517539	517539	
27513.7	-0.000837883	517949	517949	
27530.2	-0.00146255	518324	518324	
27546.7	-0.00208345	518777	518777	
27563.2	-0.00270043	519140	519140	
27579.7	-0.00331331	519492	519492	
27596.2	-0.00392191	519836	519836	
27612.7	-0.00452607	520268	520268	
27629.2	-0.00512563	520575	520575	
27645.7	-0.00572041	520899	520899	
27662.3	-0.00631026	521285	521285	
27678.8	-0.00689503	521582	521582	
27695.3	-0.00747454	521773	521773	
27711.8	-0.00804866	522071	522071	
27728.3	-0.00861722	522329	522329	
27744.8	-0.00918009	522655	522655	
27761.3	-0.00973711	522998	522998	
27777.8	-0.0102881	523385	523385	
27794.3	-0.0108331	523679	523679	
27810.8	-0.0113717	524139	524139	
27827.4	-0.0119041	524590	524590	
27843.9	-0.0124299	524861	524861	
27860.4	-0.0129489	525139	525139	
27876.9	-0.0134612	525518	525518	
27893.4	-0.0139666	525971	525971	
27909.9	-0.014465	526232	526232	
27926.4	-0.0149563	526470	526470	
27942.9	-0.0154403	526849	526849	
27959.4	-0.015917	527137	527137	
27976	-0.0163863	527305	527305	
27992.5	-0.016848	527539	527539	
28009	-0.017302	527897	527897	
28025.5	-0.0177484	528178	528178	
28042	-0.0181869	528467	528467	
28058.5	-0.0186177	528727	528727	
28075	-0.0190405	529016	529016	
28091.5	-0.0194552	529343	529343	
28108.1	-0.0198618	529723	529723	
28124.6	-0.0202602	530248	530248	
28141.1	-0.0206504	530715	530715	
28157.6	-0.0210321	531009	531009	
28174.1	-0.0214055	531392	531392	
28190.6	-0.0217704	531793	531793	
28207.1	-0.0221269	532118	532118	
28223.6	-0.022475	532588	532588	
28240.1	-0.0228144	532873	532873	
28256.7	-0.0231454	533168	533168	
28273.2	-0.0234677	533393	533393	
28289.7	-0.0237814	533462	533462	
28306.2	-0.0240865	533664	533664	
28322.7	-0.0243829	533886	533886	
28339.2	-0.0246707	534256	534256	
28355.7	-0.0249498	534597	534597	
28372.2	-0.0252203	535060	535060	
28388.7	-0.0254821	535448	535448	
28405.2	-0.0257353	535903	535903	
28421.8	-0.0259798	536436	536436	
28438.3	-0.0262157	536845	536845	
28454.8	-0.0264429	537276	537276	
28471.3	-0.0266617	537613	537613	
28487.8	-0.0268718	537851	537851	
28504.3	-0.0270735	538040	538040	
28520.8	-0.0272666	538283	538283	
28537.3	-0.0274513	538463	538463	
28553.8	-0.0276277	538634	538634	
28570.3	-0.0277956	538928	538928	
28586.9	-0.0279553	539262	539262	
28603.4	-0.0281067	539643	539643	
28619.9	-0.0282499	540102	540102	
28636.4	-0.0283849	540511	540511	
28652.9	-0.0285119	540813	540813	
28669.4	-0.0286308	541207	541207	
28685.9	-0.0287418	541653	541653	
28702.4	-0.0288449	541999	541999	
28718.9	-0.0289401	542385	542385	
28735.4	-0.0290275	542710	542710	
28752	-0.0291072	543009	543009	
28768.5	-0.0291792	543263	543263	
28785	-0.0292435	543579	543579	
28801.5	-0.0293002	543899	543899	
28818	-0.0293493	544308	544308	
28834.5	-0.0293909	544626	544626	
28851	-0.0294251	544927	544927	
28867.5	-0.0294517	545391	545391	
28884	-0.0294708	545823	545823	
28900.5	-0.0294819	546057	546057	
28917.1	-0.0294851	546435	546435	
28933.6	-0.0294809	546892	546892	
28950.1	-0.0294658	547202	547202	
28966.6	-0.0294447	547543	547543	
28983.1	-0.0294165	547945	547945	
28999.6	-0.0294034	548413	548413	
29016.1	-0.0293878	548840	548840	
29032.6	-0.0293646	549232	549232	
29049.1	-0.0293151	549680	549680	
29065.6	-0.0292465	550135	550135	
29082.2	-0.0291868	550516	550516	
29098.7	-0.0291172	550862	550862	
29115.2	-0.0290458	551189	551189	
29131.7	-0.0289643	551346	551346	
29148.2	-0.028881	551759	551759	
29164.7	-0.0288064	552028	552028	
29181.2	-0.0287451	552455	552455	
29197.7	-0.0286562	552865	552865	
29214.2	-0.0285228	553153	553153	
29230.7	-0.0284354	553501	553501	
29247.3	-0.0283393	553920	553920	
29263.8	-0.0282363	554268	554268	
29280.3	-0.0281346	554628	554628	
29296.8	-0.0280248	554983	554983	
29313.3	-0.0279152	555382	555382	
29329.8	-0.0277998	555809	555809	
29346.3	-0.0276764	556183	556183	
29362.8	-0.0275494	556632	556632	
29379.3	-0.0274181	557114	557114	
29395.8	-0.0272863	557505	557505	
29412.4	-0.0271546	557903	557903	
29428.9	-0.0270218	558305	558305	
29445.4	-0.0268861	558613	558613	
29461.9	-0.0267465	558960	558960	
29478.4	-0.0266033	559358	559358	
29494.9	-0.0264565	559792	559792	
29511.4	-0.0263064	560136	560136	
29527.9	-0.026153	560381	560381	
29544.4	-0.0259963	560582	560582	
29560.9	-0.0258366	560881	560881	
29577.5	-0.0256737	561120	561120	
29594	-0.0255077	561551	561551	
29610.5	-0.0253384	561953	561953	
29627	-0.0251659	562377	562377	
29643.5	-0.0249902	562815	562815	
29660	-0.0248115	563066	563066	
29676.5	-0.02463	563403	563403	
29693	-0.024446	563640	563640	
29709.5	-0.0242596	564015	564015	
29726	-0.0240711	564352	564352	
29742.6	-0.0238806	564665	564665	
29759.1	-0.0236882	564925	564925	
29775.6	-0.023494	565157	565157	
29792.1	-0.0232981	565476	565476	
29808.6	-0.0231005	565767	565767	
29825.1	-0.0229012	566148	566148	
29841.6	-0.0227005	566536	566536	
29858.1	-0.0224983	566945	566945	
29874.6	-0.0222948	567352	567352	
29891.1	-0.0220901	567775	567775	
29907.7	-0.0218843	568126	568126	
29924.2	-0.0216777	568478	568478	
29940.7	-0.0214703	568802	568802	
29957.2	-0.0212624	569048	569048	
29973.7	-0.0210541	569313	569313	
29990.2	-0.0208455	569596	569596	
30006.7	-0.020637	569969	569969	
30023.2	-0.0204284	570348	570348	
30039.7	-0.0202201	570744	570744	
30056.2	-0.0200121	571241	571241	
30072.8	-0.0198045	571658	571658	
30089.3	-0.0195973	571930	571930	
30105.8	-0.0193906	572265	572265	
30122.3	-0.0191843	572568	572568	
30138.8	-0.0189786	572878	572878	
30155.3	-0.0187733	573069	573069	
30171.8	-0.0185685	573413	573413	
30188.3	-0.0183643	573602	573602	
30204.8	-0.0181605	573831	573831	
30221.3	-0.0179572	574138	574138	
30237.9	-0.0177544	574508	574508	
30254.4	-0.0175521	574847	574847	
30270.9	-0.0173503	575260	575260	
30287.4	-0.017149	575649	575649	
30303.9	-0.0169482	576031	576031	
30320.4	-0.016748	576430	576430	
30336.9	-0.0165483	576840	576840	
30353.4	-0.0163491	577237	577237	
30369.9	-0.0161505	577628	577628	
30386.4	-0.0159524	577861	577861	
30403	-0.0157548	578262	578262	
30419.5	-0.0155576	578517	578517	
30436	-0.015361	578713	578713	
30452.5	-0.0151648	578932	578932	
30469	-0.014969	579140	579140	
30485.5	-0.0147737	579492	579492	
30502	-0.0145787	579908	579908	
30518.5	-0.0143841	580241	580241	
30535	-0.0141899	580642	580642	
30551.5	-0.013996	581069	581069	
30568.1	-0.0138024	581370	581370	
30584.6	-0.0136091	581908	581908	
30601.1	-0.0134161	582278	582278	
30617.6	-0.0132234	582733	582733	
30634.1	-0.013031	582970	582970	
30650.6	-0.0128388	583349	583349	
30667.1	-0.0126469	583595	583595	
30683.6	-0.0124552	583858	583858	
30700.1	-0.0122637	584252	584252	
30716.6	-0.0120724	584470	584470	
30733.2	-0.0118812	584846	584846	
30749.7	-0.0116902	585276	585276	
30766.2	-0.0114993	585694	585694	
30782.7	-0.0113085	586108	586108	
30799.2	-0.0111178	586500	586500	
30815.7	-0.0109272	586878	586878	
30832.2	-0.0107365	587241	587241	
30848.7	-0.010546	587589	587589	
30865.2	-0.0103554	588005	588005	
30881.7	-0.0101648	588464	588464	
30898.3	-0.00997432	588936	588936	
30914.8	-0.00978382	589289	589289	
30931.3	-0.00959333	589570	589570	
30947.8	-0.00940288	589885	589885	
30964.3	-0.00921246	590188	590188	
30980.8	-0.00902208	590525	590525	
30997.3	-0.00883176	590796	590796	
31013.8	-0.00864153	591290	591290	
31030.3	-0.0084514	591531	591531	
31046.8	-0.00826139	591990	591990	
31063.4	-0.00807152	592384	592384	
31079.9	-0.0078818	592807	592807	
31096.4	-0.00769221	593189	593189	
31112.9	-0.00750271	593497	593497	
31129.4	-0.00731325	593809	593809	
31145.9	-0.00712381	594206	594206	
31162.4	-0.00693434	594695	594695	
31178.9	-0.00674476	595078	595078	
31195.4	-0.00655489	595406	595406	
31211.9	-0.00636461	595552	595552	
31228.5	-0.00617379	595859	595859	
31245	-0.00598244	596215	596215	
31261.5	-0.00579077	596520	596520	
31278	-0.00559919	596714	596714	
31294.5	-0.00540811	596959	596959	
31311	-0.00521782	597180	597180	
31327.5	-0.0050284	597624	597624	
31344	-0.00483973	598040	598040	
31360.5	-0.00465146	598502	598502	
31377	-0.00446313	598896	598896	
31393.6	-0.00427434	599351	599351	
31410.1	-0.00408482	599707	599707	
31426.6	-0.00389449	600096	600096	
31443.1	-0.00370348	600251	600251	
31459.6	-0.00351197	600469	600469	
31476.1	-0.00332019	600763	600763	
31492.6	-0.00312834	600966	600966	
31509.1	-0.00293651	601248	601248	
31525.6	-0.00274466	601404	601404	
31542.1	-0.00255266	601752	601752	
31558.7	-0.00236023	601980	601980	
31575.2	-0.00216706	602275	602275	
31591.7	-0.00197279	602717	602717	
31608.2	-0.00177709	603224	603224	
31624.7	-0.0015797	603659	603659	
31641.2	-0.00138044	603992	603992	
31657.7	-0.00117926	604356	604356	
31674.2	-0.000976175	604741	604741	
31690.7	-0.000771303	605101	605101	
31707.2	-0.000564806	605550	605550	
31723.8	-0.000356872	605904	605904	
31740.3	-0.00014768	606193	606193	
31756.8	6.26204e-05	606553	606553	
31773.3	0.000273929	606832	606832	
31789.8	0.000486205	607096	607096	
31806.3	0.000699471	607368	607368	
31822.8	0.000913804	607651	607651	
31839.3	0.00112932	607728	607728	
31855.8	0.00134617	608004	608004	
31872.3	0.0015645	608359	608359	
31888.9	0.00178442	608723	608723	
31905.4	0.00200604	609152	609152	
31921.9	0.0022294	609721	609721	
31938.4	0.0024545	610138	610138	
31954.9	0.00268129	610464	610464	
31971.4	0.00290965	610771	610771	
31987.9	0.00313944	611180	611180	
32004.4	0.00337049	611358	611358	
32020.9	0.00360258	611650	611650	
32037.4	0.00383553	611974	611974	
32054	0.00406914	612331	612331	
32070.5	0.00430325	612754	612754	
32087	0.00453772	613147	613147	
32103.5	0.00477248	613502	613502	
32120	0.00500748	613842	613842	
32136.5	0.00524272	614202	614202	
32153	0.00547824	614455	614455	
32169.5	0.00571408	614679	614679	
32186	0.0059503	614982	614982	
32202.5	0.00618696	615285	615285	
32219.1	0.00642409	615622	615622	
32235.6	0.00666172	615938	615938	
32252.1	0.00689984	616357	616357	
32268.6	0.00713841	616730	616730	
32285.1	0.00737736	617072	617072	
32301.6	0.00761662	617470	617470	
32318.1	0.00785608	617859	617859	
32334.6	0.00809563	618188	618188	
32351.1	0.00833515	618568	618568	
32367.6	0.00857451	619013	619013	
32384.2	0.0088136	619409	619409	
32400.7	0.00905228	619810	619810	
32417.2	0.00929045	620198	620198	
32433.7	0.00952798	620613	620613	
32450.2	0.00976475	620941	620941	
32466.7	0.0100006	621233	621233	
32483.2	0.0102355	621543	621543	
32499.7	0.0104692	621826	621826	
32516.2	0.0107016	622127	622127	
32532.7	0.0109325	622443	622443	
32549.3	0.0111617	622847	622847	
32565.8	0.0113892	623141	623141	
32582.3	0.0116147	623624	623624	
32598.8	0.0118381	624126	624126	
32615.3	0.0120593	624473	624473	
32631.8	0.0122781	624801	624801	
32648.3	0.0124944	625076	625076	
32664.8	0.0127082	625420	625420	
32681.3	0.0129193	625847	625847	
32697.8	0.0131276	626132	626132	
32714.4	0.0133332	626545	626545	
32730.9	0.0135358	627006	627006	
32747.4	0.0137356	627450	627450	
32763.9	0.0139324	627803	627803	
32780.4	0.0141261	628146	628146	
32796.9	0.0143169	628425	628425	
32813.4	0.0145046	628870	628870	
32829.9	0.0146892	629185	629185	
32846.4	0.0148707	629438	629438	
32862.9	0.0150492	629694	629694	
32879.5	0.0152245	629904	629904	
32896	0.0153966	630304	630304	
32912.5	0.0155657	630612	630612	
32929	0.0157316	630960	630960	
32945.5	0.0158943	631409	631409	
32962	0.0160539	631802	631802	
32978.5	0.0162103	632149	632149	
32995	0.0163635	632454	632454	
33011.5	0.0165135	632781	632781	
33028	0.0166603	633301	633301	
33044.6	0.0168038	633626	633626	
33061.1	0.0169441	634035	634035	
33077.6	0.017081	634373	634373	
33094.1	0.0172146	634737	634737	
33110.6	0.0173449	635125	635125	
33127.1	0.0174717	635497	635497	
33143.6	0.0175952	635834	635834	
33160.1	0.0177151	636293	636293	
33176.6	0.0178316	636683	636683	
33193.2	0.0179445	637123	637123	
33209.7	0.0180539	637680	637680	
33226.2	0.0181596	638109	638109	
33242.7	0.0182618	638439	638439	
33259.2	0.0183602	638866	638866	
33275.7	0.018455	639317	639317	
33292.2	0.0185461	639689	639689	
33308.7	0.0186335	640073	640073	
33325.2	0.0187171	640572	640572	
33341.7	0.0187971	640845	640845	
33358.3	0.0188732	641361	641361	
33374.8	0.0189457	641786	641786	
33391.3	0.0190143	642133	642133	
33407.8	0.0190792	642535	642535	
33424.3	0.0191404	642978	642978	
33440.8	0.0191977	643370	643370	
33457.3	0.0192511	643822	643822	
33473.8	0.0193007	644146	644146	
33490.3	0.0193461	644626	644626	
33506.8	0.0193875	645120	645120	
33523.4	0.019425	645489	645489	
33539.9	0.0194588	645960	645960	
33556.4	0.0194888	646386	646386	
33572.9	0.0195162	646724	646724	
33589.4	0.0195428	647190	647190	
33605.9	0.0195649	647604	647604	
33622.4	0.0195808	648010	648010	
33638.9	0.0195905	648408	648408	
33655.4	0.019595	648863	648863	
33671.9	0.0195937	649183	649183	
33688.5	0.0195877	649554	649554	
33705	0.0195802	649968	649968	
33721.5	0.0195693	650544	650544	
33738	0.0195541	650893	650893	
33754.5	0.0195349	651195	651195	
33771	0.0195123	651490	651490	
33787.5	0.0194861	651765	651765	
33804	0.019456	652193	652193	
33820.5	0.0194215	652517	652517	
33837	0.0193823	652945	652945	
33853.6	0.0193383	653323	653323	
33870.1	0.0192896	653703	653703	
33886.6	0.0192363	653990	653990	
33903.1	0.0191782	654368	654368	
33919.6	0.0191154	654842	654842	
33936.1	0.0190479	655257	655257	
33952.6	0.0189758	655691	655691	
33969.1	0.0188994	656047	656047	
33985.6	0.0188186	656456	656456	
34002.1	0.0187336	656851	656851	
34018.7	0.0186446	657161	657161	
34035.2	0.0185515	657515	657515	
34051.7	0.0184547	657828	657828	
34068.2	0.018354	658052	658052	
34084.7	0.0182497	658385	658385	
34101.2	0.0181419	658720	658720	
34117.7	0.0180307	659022	659022	
34134.2	0.017916	659255	659255	
34150.7	0.0177979	659608	659608	
34167.2	0.0176763	660000	660000	
34183.8	0.0175511	660341	660341	
34200.3	0.0174223	660740	660740	
34216.8	0.0172897	661203	661203	
34233.3	0.0171534	661548	661548	
34249.8	0.0170134	661767	661767	
34266.3	0.0168695	662033	662033	
34282.8	0.0167219	662427	662427	
34299.3	0.0165707	662802	662802	
34315.8	0.0164159	663162	663162	
34332.3	0.0162578	663355	663355	
34348.9	0.0160965	663667	663667	
34365.4	0.0159321	663893	663893	
34381.9	0.0157648	664163	664163	
34398.4	0.0155948	664513	664513	
34414.9	0.0154221	664777	664777	
34431.4	0.0152468	665077	665077	
34447.9	0.015069	665401	665401	
34464.4	0.0148887	665881	665881	
34480.9	0.014706	666244	666244	
34497.4	0.014521	666637	666637	
34514	0.0143337	666901	666901	
34530.5	0.0141441	667287	667287	
34547	0.0139524	667640	667640	
34563.5	0.0137586	667946	667946	
34580	0.0135627	668187	668187	
34596.5	0.013365	668572	668572	
34613	0.0131655	668836	668836	
34629.5	0.0129644	669188	669188	
34646	0.0127616	669540	669540	
34662.5	0.0125573	669875	669875	
34679.1	0.0123517	670190	670190	
34695.6	0.0121447	670559	670559	
34712.1	0.0119364	671128	671128	
34728.6	0.0117269	671610	671610	
34745.1	0.0115163	671984	671984	
34761.6	0.0113046	672465	672465	
34778.1	0.011092	672788	672788	
34794.6	0.0108785	672946	672946	
34811.1	0.0106643	673267	673267	
34827.6	0.0104494	673679	673679	
34844.2	0.0102339	673845	673845	
34860.7	0.0100181	674258	674258	
34877.2	0.00980193	674542	674542	
34893.7	0.00958567	674982	674982	
34910.2	0.00936942	675398	675398	
34926.7	0.00915331	676018	676018	
34943.2	0.00893749	676423	676423	
34959.7	0.0087221	676871	676871	
34976.2	0.00850726	677379	677379	
34992.7	0.00829311	677868	677868	
35009.3	0.00807977	678166	678166	
35025.8	0.00786737	678489	678489	
35042.3	0.00765602	678845	678845	
35058.8	0.00744586	679194	679194	
35075.3	0.007237	679694	679694	
35091.8	0.00702954	679985	679985	
35108.3	0.00682361	680387	680387	
35124.8	0.00661932	680837	680837	
35141.3	0.00641676	681283	681283	
35157.8	0.00621606	681760	681760	
35174.4	0.00601731	682139	682139	
35190.9	0.00582062	682568	682568	
35207.4	0.00562607	682993	682993	
35223.9	0.00543377	683316	683316	
35240.4	0.0052438	683768	683768	
35256.9	0.00505626	684186	684186	
35273.4	0.00487122	684467	684467	
35289.9	0.00468877	684937	684937	
35306.4	0.00450898	685299	685299	
35322.9	0.00433187	685470	685470	
35339.5	0.00415761	685695	685695	
35356	0.00398621	686089	686089	
35372.5	0.00381774	686443	686443	
35389	0.00365219	686802	686802	
35405.5	0.00348972	687095	687095	
35422	0.00333032	687662	687662	
35438.5	0.00317403	688064	688064	
35455	0.00302088	688616	688616	
35471.5	0.00287091	689005	689005	
35488.1	0.0027241	689327	689327	
35504.6	0.00258056	689692	689692	
35521.1	0.00244025	689879	689879	
35537.6	0.00230316	690249	690249	
35554.1	0.00216936	690575	690575	
35570.6	0.00203883	690871	690871	
35587.1	0.00191156	691081	691081	
35603.6	0.00178756	691454	691454	
35620.1	0.00166681	691795	691795	
35636.7	0.0015493	692245	692245	
35653.2	0.00143504	692702	692702	
35669.7	0.00132399	693046	693046	
35686.2	0.00121615	693502	693502	
35702.7	0.00111149	693878	693878	
35719.2	0.00100999	694362	694362	
35735.7	0.000911633	694798	694798	
35752.2	0.000816385	695194	695194	
35768.7	0.000724219	695419	695419	
35785.2	0.000635102	695858	695858	
35801.8	0.000549	696180	696180	
35818.3	0.000465876	696592	696592	
35834.8	0.00038569	697024	697024	
35851.3	0.000308404	697409	697409	
35867.8	0.000233972	697836	697836	
35884.3	0.000162352	698142	698142	
35900.8	9.34964e-05	698549	698549	
35917.3	2.7358e-05	698880	698880	
35933.8	-3.61121e-05	699256	699256	
35950.3	-9.69638e-05	699634	699634	
35966.9	-0.000155248	700101	700101	
35983.4	-0.000211017	700359	700359	
35999.9	-0.000264323	700605	700605	
36016.4	-0.00031522	700958	700958	
36032.9	-0.00036376	701248	701248	
36049.4	-0.00041	701603	701603	
36065.9	-0.000453992	702246	702246	
36082.4	-0.000495793	702703	702703	
36098.9	-0.000535458	703195	703195	
36115.4	-0.000573044	703578	703578	
36132	-0.000608607	703896	703896	
36148.5	-0.000642206	704327	704327	
36165	-0.000673897	704778	704778	
36181.5	-0.00070374	705142	705142	
36198	-0.000731796	705648	705648	
36214.5	-0.000758124	706057	706057	
36231	-0.000782787	706543	706543	
36247.5	-0.000805848	706894	706894	
36264	-0.000827371	707276	707276	
36280.5	-0.000847421	707664	707664	
36297.1	-0.000866064	707902	707902	
36313.6	-0.000883368	708250	708250	
36330.1	-0.000899401	708671	708671	
36346.6	-0.000914234	708978	708978	
36363.1	-0.000927941	709301	709301	
36379.6	-0.000940598	709716	709716	
36396.1	-0.000952285	710043	710043	
36412.6	-0.000963089	710364	710364	
36429.1	-0.000973096	710761	710761	
36445.6	-0.000982399	711176	711176	
36462.2	-0.000991092	711521	711521	
36478.7	-0.000999273	711851	711851	
36495.2	-0.00100704	712259	712259	
36511.7	-0.00101448	712685	712685	
36528.2	-0.0010217	712978	712978	
36544.7	-0.00102878	713238	713238	
36561.2	-0.00103579	713446	713446	
36577.7	-0.00104283	713832	713832	
36594.2	-0.00104995	714197	714197	
36610.7	-0.00105721	714663	714663	
36627.3	-0.00106467	715019	715019	
36643.8	-0.00107236	715330	715330	
36660.3	-0.00108031	715808	715808	
36676.8	-0.00108855	716161	716161	
36693.3	-0.00109708	716547	716547	
36709.8	-0.0011059	716885	716885	
36726.3	-0.00111499	717212	717212	
36742.8	-0.00112433	717413	717413	
36759.3	-0.00113388	717705	717705	
36775.8	-0.0011436	718064	718064	
36792.4	-0.00115343	718434	718434	
36808.9	-0.0011633	718846	718846	
36825.4	-0.00117314	719202	719202	
36841.9	-0.00118285	719483	719483	
36858.4	-0.00119233	719954	719954	
36874.9	-0.00120148	720367	720367	
36891.4	-0.00121018	720649	720649	
36907.9	-0.00121829	720990	720990	
36924.4	-0.00122569	721349	721349	
36940.9	-0.00123221	721697	721697	
36957.5	-0.00123771	722173	722173	
36974	-0.00124202	722536	722536	
36990.5	-0.00124499	722889	722889	
37007	-0.00124644	723143	723143	
37023.5	-0.00124623	723539	723539	
37040	-0.00124417	723916	723916	
37056.5	-0.00124011	724239	724239	
37073	-0.00123391	724581	724581	
37089.5	-0.00122541	724964	724964	
37106	-0.00121447	725496	725496	
37122.6	-0.00120096	725828	725828	
37139.1	-0.00118475	726278	726278	
37155.6	-0.00116573	726669	726669	
37172.1	-0.00114377	727036	727036	
37188.6	-0.00111878	727472	727472	
37205.1	-0.00109066	727682	727682	
37221.6	-0.00105935	728017	728017	
37238.1	-0.00102478	728474	728474	
37254.6	-0.000986929	728920	728920	
37271.1	-0.000945777	729411	729411	
37287.7	-0.000901394	729786	729786	
37304.2	-0.000853637	730151	730151	
37320.7	-0.000802833	730448	730448	
37337.2	-0.000749477	730800	730800	
37353.7	-0.000694141	731260	731260	
37370.2	-0.000637257	731625	731625	
37386.7	-0.000567122	732004	732004	
37403.2	-0.000501743	732333	732333	
37419.7	-0.000439584	732727	732727	
37436.2	-0.000392216	733159	733159	
37452.8	-0.000350644	733431	733431	
37469.3	-0.000285135	733723	733723	
37485.8	-0.000213412	734108	734108	
37502.3	-0.000139001	734569	734569	
37518.8	-7.31092e-05	734927	734927	
37535.3	-1.56963e-05	735295	735295	
37551.8	3.77792e-05	735652	735652	
37568.3	6.44301e-05	735901	735901	
37584.8	0.000110653	736106	736106	
37601.3	0.00016137	736458	736458	
37617.9	0.000210028	736697	736697	
37634.4	0.000271813	736950	736950	
37650.9	0.000324367	737378	737378	
37667.4	0.000378898	737694	737694	
37683.9	0.000427222	738190	738190	
37700.4	0.000477229	738653	738653	
37716.9	0.000523322	739084	739084	
37733.4	0.000563298	739401	739401	
37749.9	0.000600845	739877	739877	
37766.4	0.000633876	740239	740239	
37783	0.00066495	740608	740608	
37799.5	0.000693633	741123	741123	
37816	0.000719409	741535	741535	
37832.5	0.000741072	741856	741856	
37849	0.000776059	742266	742266	
37865.5	0.000790711	742572	742572	
37882	0.000797804	742803	742803	
37898.5	0.000799445	743178	743178	
37915	0.000796756	743431	743431	
37931.5	0.000789572	743880	743880	
37948.1	0.000777452	744335	744335	
37964.6	0.000760544	744769	744769	
37981.1	0.000739185	745064	745064	
37997.6	0.000713801	745425	745425	
38014.1	0.000684816	745821	745821	
38030.6	0.000652604	746249	746249	
38047.1	0.000617466	746652	746652	
38063.6	0.000579622	747018	747018	
38080.1	0.000539239	747355	747355	
38096.6	0.000496442	747812	747812	
38113.2	0.000451347	748196	748196	
38129.7	0.00040408	748620	748620	
38146.2	0.000354788	748921	748921	
38162.7	0.000303645	749294	749294	
38179.2	0.000250855	749653	749653	
38195.7	0.000196639	750069	750069	
38212.2	0.000141233	750504	750504	
38228.7	8.48748e-05	750918	750918	
38245.2	2.77949e-05	751303	751303	
38261.7	-2.97883e-05	751697	751697	
38278.3	-8.7676e-05	752000	752000	
38294.8	-0.000145692	752409	752409	
38311.3	-0.000203684	752666	752666	
38327.8	-0.000261521	752994	752994	
38344.3	-0.000319092	753453	753453	
38360.8	-0.000376302	753884	753884	
38377.3	-0.000433069	754304	754304	
38393.8	-0.00048932	754711	754711	
38410.3	-0.000544992	755199	755199	
38426.8	-0.000600026	755655	755655	
38443.4	-0.000654373	755978	755978	
38459.9	-0.000707992	756355	756355	
38476.4	-0.000760852	756769	756769	
38492.9	-0.000812935	757151	757151	
38509.4	-0.000864234	757590	757590	
38525.9	-0.000914756	758020	758020	
38542.4	-0.000964523	758562	758562	
38558.9	-0.00101357	759026	759026	
38575.4	-0.00106193	759406	759406	
38591.9	-0.00110968	759880	759880	
38608.5	-0.00115685	760272	760272	
38625	-0.00120353	760674	760674	
38641.5	-0.00124978	761005	761005	
38658	-0.0012957	761247	761247	
38674.5	-0.00134137	761580	761580	
38691	-0.00138688	761814	761814	
38707.5	-0.00143235	762138	762138	
38724	-0.00147788	762576	762576	
38740.5	-0.00152358	763050	763050	
38757	-0.00156957	763440	763440	
38773.6	-0.00161598	763905	763905	
38790.1	-0.00166291	764337	764337	
38806.6	-0.00171048	764810	764810	
38823.1	-0.0017588	765208	765208	
38839.6	-0.00180799	765496	765496	
38856.1	-0.00185815	765870	765870	
38872.6	-0.00190936	766233	766233	
38889.1	-0.00196173	766497	766497	
38905.6	-0.00201535	766873	766873	
38922.1	-0.00207028	767227	767227	
38938.7	-0.00212662	767616	767616	
38955.2	-0.00218441	767894	767894	
38971.7	-0.00224374	768319	768319	
38988.2	-0.00230464	768748	768748	
39004.7	-0.00236716	769095	769095	
39021.2	-0.00243135	769316	769316	
39037.7	-0.00249722	769687	769687	
39054.2	-0.0025648	770116	770116	
39070.7	-0.00263411	770523	770523	
39087.2	-0.00270513	770925	770925	
39103.8	-0.00277787	771311	771311	
39120.3	-0.00285232	771487	771487	
39136.8	-0.00292845	771951	771951	
39153.3	-0.00300622	772500	772500	
39169.8	-0.00308562	772849	772849	
39186.3	-0.00316658	773189	773189	
39202.8	-0.00324908	773635	773635	
39219.3	-0.00333304	774083	774083	
39235.8	-0.00341841	774393	774393	
39252.3	-0.00350512	774773	774773	
39268.9	-0.0035931	775045	775045	
39285.4	-0.00368229	775375	775375	
39301.9	-0.00377259	775793	775793	
39318.4	-0.00386392	776169	776169	
39334.9	-0.0039562	776648	776648	
39351.4	-0.00404934	777015	777015	
39367.9	-0.00414324	777309	777309	
39384.4	-0.00423782	777471	777471	
39400.9	-0.00433297	777946	777946	
39417.4	-0.00442861	778359	778359	
39434	-0.00452464	778743	778743	
39450.5	-0.00462095	779059	779059	
39467	-0.00471746	779408	779408	
39483.5	-0.00481407	779730	779730	
39500	-0.00491069	780045	780045	
39516.5	-0.00500722	780321	780321	
39533	-0.00510357	780731	780731	
39549.5	-0.00519966	781045	781045	
39566	-0.00529539	781414	781414	
39582.5	-0.00539068	781792	781792	
39599.1	-0.00548545	782138	782138	
39615.6	-0.00557962	782585	782585	
39632.1	-0.00567312	783058	783058	
39648.6	-0.00576587	783471	783471	
39665.1	-0.0058578	783891	783891	
39681.6	-0.00594886	784239	784239	
39698.1	-0.00603898	784608	784608	
39714.6	-0.00612812	785007	785007	
39731.1	-0.0062162	785359	785359	
39747.6	-0.00630321	785671	785671	
39764.2	-0.00638908	786035	786035	
39780.7	-0.00647379	786445	786445	
39797.2	-0.0065573	786744	786744	
39813.7	-0.00663958	787143	787143	
39830.2	-0.00672062	787711	787711	
39846.7	-0.00680038	788238	788238	
39863.2	-0.00687886	788605	788605	
39879.7	-0.00695605	789022	789022	
39896.2	-0.00703194	789439	789439	
39912.7	-0.00710653	789664	789664	
39929.3	-0.00717982	789940	789940	
39945.8	-0.00725183	790296	790296	
39962.3	-0.00732256	790656	790656	
39978.8	-0.00739202	791064	791064	
39995.3	-0.00746024	791599	791599	
40011.8	-0.00752724	792011	792011	
40028.3	-0.00759303	792338	792338	
40044.8	-0.00765765	792879	792879	
40061.3	-0.00772112	793342	793342	
40077.8	-0.00778346	793744	793744	
40094.4	-0.00784471	794204	794204	
40110.9	-0.0079049	794671	794671	
40127.4	-0.00796407	795042	795042	
40143.9	-0.00802224	795369	795369	
40160.4	-0.00807947	795720	795720	
40176.9	-0.00813577	796125	796125	
40193.4	-0.00819119	796482	796482	
40209.9	-0.00824577	796985	796985	
40226.4	-0.00829955	797444	797444	
40242.9	-0.00835256	797933	797933	
40259.5	-0.00840485	798299	798299	
40276	-0.00845645	798654	798654	
40292.5	-0.0085074	799096	799096	
40309	-0.00855773	799643	799643	
40325.5	-0.00860748	800055	800055	
40342	-0.00865667	800478	800478	
40358.5	-0.00870535	800874	800874	
40375	-0.00875354	801239	801239	
40391.5	-0.00880127	801650	801650	
40408	-0.00884856	801907	801907	
40424.6	-0.00889544	802149	802149	
40441.1	-0.00894193	802541	802541	
40457.6	-0.00898805	802923	802923	
40474.1	-0.00903383	803370	803370	
40490.6	-0.00907929	803946	803946	
40507.1	-0.00912444	804347	804347	
40523.6	-0.0091693	804758	804758	
40540.1	-0.00921389	805149	805149	
40556.6	-0.00925823	805496	805496	
40573.1	-0.00930232	805903	805903	
40589.7	-0.00934619	806186	806186	
40606.2	-0.00938984	806436	806436	
40622.7	-0.00943329	806868	806868	
40639.2	-0.00947654	807173	807173	
40655.7	-0.00951961	807618	807618	
40672.2	-0.0095625	808038	808038	
40688.7	-0.00960522	808455	808455	
40705.2	-0.00964776	808817	808817	
40721.7	-0.00969015	809179	809179	
40738.2	-0.00973237	809617	809617	
40754.8	-0.00977443	810145	810145	
40771.3	-0.00981633	810518	810518	
40787.8	-0.00985808	810945	810945	
40804.3	-0.00989966	811414	811414	
40820.8	-0.00994108	811533	811533	
40837.3	-0.00998234	811912	811912	
40853.8	-0.0100234	812396	812396	
40870.3	-0.0100644	812848	812848	
40886.8	-0.0101051	813221	813221	
40903.3	-0.0101457	813720	813720	
40919.9	-0.0101861	814072	814072	
40936.4	-0.0102264	814445	814445	
40952.9	-0.0102664	814863	814863	
40969.4	-0.0103063	815331	815331	
40985.9	-0.0103459	815700	815700	
41002.4	-0.0103854	816110	816110	
41018.9	-0.0104247	816460	816460	
41035.4	-0.0104638	816963	816963	
41051.9	-0.0105027	817518	817518	
41068.4	-0.0105413	817940	817940	
41085	-0.0105798	818354	818354	
41101.5	-0.010618	818725	818725	
41118	-0.010656	819064	819064	
41134.5	-0.0106938	819408	819408	
41151	-0.0107313	819868	819868	
41167.5	-0.0107686	820368	820368	
41184	-0.0108056	820824	820824	
41200.5	-0.0108423	821257	821257	
41217	-0.0108788	821808	821808	
41233.5	-0.010915	821983	821983	
41250.1	-0.0109509	822470	822470	
41266.6	-0.0109864	822778	822778	
41283.1	-0.0110217	823253	823253	
41299.6	-0.0110565	823741	823741	
41316.1	-0.011091	824223	824223	
41332.6	-0.0111252	824792	824792	
41349.1	-0.0111589	825129	825129	
41365.6	-0.0111922	825489	825489	
41382.1	-0.011225	825775	825775	
41398.7	-0.0112574	826090	826090	
41415.2	-0.0112892	826662	826662	
41431.7	-0.0113206	827068	827068	
41448.2	-0.0113513	827532	827532	
41464.7	-0.0113815	827932	827932	
41481.2	-0.0114111	828296	828296	
41497.7	-0.01144	828599	828599	
41514.2	-0.0114682	828916	828916	
41530.7	-0.0114958	829279	829279	
41547.2	-0.0115226	829721	829721	
41563.8	-0.0115486	830254	830254	
41580.3	-0.0115738	830682	830682	
41596.8	-0.0115983	831037	831037	
41613.3	-0.0116218	831291	831291	
41629.8	-0.0116445	831692	831692	
41646.3	-0.0116663	831993	831993	
41662.8	-0.0116872	832159	832159	
41679.3	-0.011707	832379	832379	
41695.8	-0.0117259	832745	832745	
41712.3	-0.0117437	833118	833118	
41728.9	-0.0117605	833604	833604	
41745.4	-0.0117761	833907	833907	
41761.9	-0.0117906	834365	834365	
41778.4	-0.0118039	834833	834833	
41794.9	-0.011816	835415	835415	
41811.4	-0.0118268	835945	835945	
41827.9	-0.0118363	836363	836363	
41844.4	-0.0118444	836760	836760	
41860.9	-0.0118512	837069	837069	
41877.5	-0.0118565	837332	837332	
41894	-0.0118603	837745	837745	
41910.5	-0.0118626	838037	838037	
41927	-0.0118634	838395	838395	
41943.5	-0.0118627	838682	838682	
41960	-0.0118605	838879	838879	
41976.5	-0.0118567	839292	839292	
41993	-0.0118513	839793	839793	
42009.5	-0.0118443	840327	840327	
42026	-0.0118358	840931	840931	
42042.6	-0.0118258	841569	841569	
42059.1	-0.0118141	841991	841991	
42075.6	-0.011801	842725	842725	
42092.1	-0.0117863	843272	843272	
42108.6	-0.01177	843668	843668	
42125.1	-0.0117523	844035	844035	
42141.6	-0.011733	844347	844347	
42158.1	-0.0117123	844707	844707	
42174.6	-0.0116901	845023	845023	
42191.1	-0.0116663	845456	845456	
42207.7	-0.0116412	845833	845833	
42224.2	-0.0116146	846345	846345	
42240.7	-0.0115865	846770	846770	
42257.2	-0.0115571	847175	847175	
42273.7	-0.0115262	847640	847640	
42290.2	-0.0114939	848152	848152	
42306.7	-0.0114603	848546	848546	
42323.2	-0.0114252	848820	848820	
42339.7	-0.0113888	849299	849299	
42356.2	-0.0113511	849847	849847	
42372.8	-0.011312	850217	850217	
42389.3	-0.0112716	850651	850651	
42405.8	-0.0112299	851239	851239	
42422.3	-0.0111869	851751	851751	
42438.8	-0.0111426	852126	852126	
42455.3	-0.011097	852611	852611	
42471.8	-0.0110502	852885	852885	
42488.3	-0.0110021	853271	853271	
42504.8	-0.0109528	853515	853515	
42521.3	-0.0109022	853922	853922	
42537.9	-0.0108504	854203	854203	
42554.4	-0.0107975	854791	854791	
42570.9	-0.0107433	855184	855184	
42587.4	-0.010688	855514	855514	
42603.9	-0.0106315	855944	855944	
42620.4	-0.0105738	856540	856540	
42636.9	-0.010515	857293	857293	
42653.4	-0.0104551	857969	857969	
42669.9	-0.0103941	858426	858426	
42686.4	-0.010332	858767	858767	
42703	-0.0102688	859193	859193	
42719.5	-0.0102046	859556	859556	
42736	-0.0101392	859975	859975	
42752.5	-0.0100729	860375	860375	
42769	-0.0100055	860781	860781	
42785.5	-0.00993706	861339	861339	
42802	-0.00986763	861871	861871	
42818.5	-0.00979721	862120	862120	
42835	-0.00972582	862463	862463	
42851.5	-0.00965346	862867	862867	
42868.1	-0.00958017	863239	863239	
42884.6	-0.00950596	863566	863566	
42901.1	-0.00943085	863998	863998	
42917.6	-0.00935488	864528	864528	
42934.1	-0.00927806	864866	864866	
42950.6	-0.00920043	865372	865372	
42967.1	-0.00912201	865858	865858	
42983.6	-0.00904284	866277	866277	
43000.1	-0.00896295	866741	866741	
43016.6	-0.00888237	867052	867052	
43033.2	-0.00880114	867446	867446	
43049.7	-0.00871929	867747	867747	
43066.2	-0.00863686	868060	868060	
43082.7	-0.00855389	868381	868381	
43099.2	-0.0084704	868761	868761	
43115.7	-0.00838644	869188	869188	
43132.2	-0.00830204	869455	869455	
43148.7	-0.00821724	869897	869897	
43165.2	-0.00813207	870383	870383	
43181.7	-0.00804656	870866	870866	
43198.3	-0.00796075	871358	871358	
