0	0	35832	35832	
36.0427	0	35650	35650	
72.2269	0	35678	35678	
108.411	0	35746	35746	
144.595	0	35848	35848	
180.779	0	35842	35842	
216.989	0	35810	35810	
253.198	0	35776	35776	
289.407	0	35820	35820	
325.616	0	35852	35852	
361.825	0	35842	35842	
398.035	0	35876	35876	
434.244	0	35884	35884	
470.453	0	35918	35918	
507.441	0	35878	35878	
544.429	0	35798	35798	
581.563	0	35702	35702	
618.697	0	35634	35634	
655.831	0	35572	35572	
692.965	0	35514	35514	
730.099	0	35512	35512	
767.233	0	35490	35490	
804.367	0	35458	35458	
841.502	0	35470	35470	
878.636	0	35480	35480	
915.77	0	35454	35454	
952.904	0	35536	35536	
990.038	0	35554	35554	
1027.17	0	35558	35558	
1064.31	0	35582	35582	
1101.44	0	35636	35636	
1138.57	0	35694	35694	
1175.71	0	35750	35750	
1211.97	0	35820	35820	
1248.23	0	35846	35846	
1284.49	0	35868	35868	
1320.75	0	35924	35924	
1357.01	0	35954	35954	
1393.27	0	35990	35990	
1429.53	0	36042	36042	
1465.79	0	36098	36098	
1502.05	0	36170	36170	
1538.31	0	36248	36248	
1574.54	0	36314	36314	
1610.76	0	36364	36364	
1646.99	0	36404	36404	
1683.21	0	36466	36466	
1719.44	0	36512	36512	
1755.66	0	36572	36572	
1791.89	0	36622	36622	
1828.11	0	36654	36654	
1864.34	0	36726	36726	
1900.56	0	36790	36790	
1936.79	0	36872	36872	
1973.01	0	36960	36960	
2009.2	0	37020	37020	
2045.39	0	37058	37058	
2081.57	0	37146	37146	
2117.76	0	37174	37174	
2153.95	0	37232	37232	
2190.14	0	37280	37280	
2226.32	0	37360	37360	
2262.51	0	37414	37414	
2298.7	0	37504	37504	
2334.88	0	37570	37570	
2371.07	0	37644	37644	
2407.26	0	37684	37684	
2443.45	0	37776	37776	
2479.32	0	37846	37846	
2515.19	0	37924	37924	
2551.06	0	37982	37982	
2586.94	0	38046	38046	
2622.81	0	38078	38078	
2658.68	0	38110	38110	
2694.55	0	38168	38168	
2730.18	0	38298	38298	
2765.8	0	38406	38406	
2801.43	0	38456	38456	
2836.83	0	38536	38536	
2872.23	0	38574	38574	
2907.64	0	38634	38634	
2943.04	0	38706	38706	
2978.44	0	38790	38790	
3013.84	0	38838	38838	
3049.24	0	38890	38890	
3084.27	0	38964	38964	
3119.29	0	39038	39038	
3154.31	0	39102	39102	
3189.34	0	39188	39188	
3224.36	0	39254	39254	
3259.38	0	39328	39328	
3294.02	0	39418	39418	
3328.65	0	39526	39526	
3363.29	0	39570	39570	
3397.92	0	39622	39622	
3432.56	0	39686	39686	
3467.19	0	39750	39750	
3501.83	0	39830	39830	
3536.46	0	39890	39890	
3571.1	0	39948	39948	
3605.73	0	40048	40048	
3640.37	0	40152	40152	
3675	0	40198	40198	
3709.64	0	40284	40284	
3744.27	0	40354	40354	
3778.91	0	40408	40408	
3813.54	0	40494	40494	
3848.18	0	40594	40594	
3882.82	0	40678	40678	
3917.45	0	40794	40794	
3952.09	0	40856	40856	
3986.72	0	40926	40926	
4021.36	0	41002	41002	
4055.99	0	41058	41058	
4090.63	0	41152	41152	
4125.26	0	41258	41258	
4159.9	0	41314	41314	
4194.53	0	41400	41400	
4229.17	0	41480	41480	
4263.8	0	41554	41554	
4298.44	0	41618	41618	
4333.07	0	41688	41688	
4367.71	0	41776	41776	
4402.34	0	41842	41842	
4436.98	0	41930	41930	
4471.61	0	42030	42030	
4506.25	0	42122	42122	
4540.88	0	42214	42214	
4575.52	0	42280	42280	
4610.15	0	42348	42348	
4644.79	0	42396	42396	
4679.42	0	42452	42452	
4714.06	0	42590	42590	
4748.69	0	42716	42716	
4783.33	0	42772	42772	
4817.97	0	42826	42826	
4852.6	0	42896	42896	
4887.24	0	43004	43004	
4921.87	0	43140	43140	
4956.51	0	43218	43218	
4991.14	0	43288	43288	
5025.78	0	43410	43410	
5060.41	0	43518	43518	
5095.05	0	43604	43604	
5129.68	0	43666	43666	
5164.32	0	43746	43746	
5198.95	0	43838	43838	
5233.59	0	43912	43912	
5268.22	0	43966	43966	
5302.86	0	44080	44080	
5337.49	0	44174	44174	
5372.13	0	44242	44242	
5406.76	0	44332	44332	
5441.4	0	44446	44446	
5476.03	0	44560	44560	
5510.67	0	44688	44688	
5545.3	0	44778	44778	
5579.94	0	44816	44816	
5614.57	0	44952	44952	
5649.21	0	45054	45054	
5683.84	0	45146	45146	
5718.48	0	45192	45192	
5753.11	0	45266	45266	
5787.75	0	45318	45318	
5822.38	0	45434	45434	
5857.02	0	45568	45568	
5891.65	0	45672	45672	
5926.29	0	45750	45750	
5960.92	0	45776	45776	
5995.56	0	45852	45852	
6030.19	0	46030	46030	
6064.83	0	46160	46160	
6099.46	0	46244	46244	
6134.1	0	46306	46306	
6168.73	0	46384	46384	
6203.37	0	46492	46492	
6238	0	46596	46596	
6272.64	0	46700	46700	
6307.27	0	46770	46770	
6341.91	0	46856	46856	
6376.54	0	46904	46904	
6411.18	0	47026	47026	
6445.81	0	47140	47140	
6480.45	0	47238	47238	
6515.08	0	47296	47296	
6549.72	0	47354	47354	
6584.35	0	47442	47442	
6618.99	0	47596	47596	
6653.62	0	47682	47682	
6688.26	0	47808	47808	
6722.89	0	47914	47914	
6757.52	0	47974	47974	
6792.16	0	48098	48098	
6826.79	0	48242	48242	
6861.43	0	48306	48306	
6896.06	0	48384	48384	
6930.7	0	48444	48444	
6965.33	0	48548	48548	
6999.96	0	48668	48668	
7034.6	0	48760	48760	
7069.23	0	48874	48874	
7103.87	0	48942	48942	
7138.5	0	49032	49032	
7173.14	0	49162	49162	
7207.77	0	49270	49270	
7242.4	0	49400	49400	
7277.04	0	49490	49490	
7311.67	0	49582	49582	
7346.31	0	49684	49684	
7380.94	0	49830	49830	
7415.58	0	49944	49944	
7450.21	0	50016	50016	
7484.84	0	50112	50112	
7519.48	0	50220	50220	
7554.11	0	50340	50340	
7588.75	0	50454	50454	
7623.38	0	50584	50584	
7658.01	0	50678	50678	
7692.65	0	50776	50776	
7727.28	0	50888	50888	
7761.92	0	51018	51018	
7796.55	0	51124	51124	
7831.19	0	51222	51222	
7865.82	0	51302	51302	
7900.45	0	51432	51432	
7935.09	0	51556	51556	
7969.72	0	51668	51668	
8004.36	0	51796	51796	
8038.99	0	51894	51894	
8073.63	0	51982	51982	
8108.26	0	52100	52100	
8142.9	0	52234	52234	
8177.53	0	52368	52368	
8212.17	0	52464	52464	
8246.8	0	52536	52536	
8281.44	0	52640	52640	
8316.07	-4.54747e-13	52770	52770	
8350.71	-4.54747e-13	52886	52886	
8385.34	-9.09495e-13	52992	52992	
8419.98	-9.09495e-13	53136	53136	
8454.61	-1.36424e-12	53256	53256	
8489.25	-1.81899e-12	53382	53382	
8523.88	-1.81899e-12	53534	53534	
8558.52	-2.27374e-12	53624	53624	
8593.15	-2.27374e-12	53768	53768	
8627.79	-2.72848e-12	53848	53848	
8662.42	-3.18323e-12	53932	53932	
8697.06	-3.63798e-12	54070	54070	
8731.69	-4.09273e-12	54194	54194	
8766.33	-4.54747e-12	54302	54302	
8800.96	-5.00222e-12	54396	54396	
8835.6	-5.45697e-12	54538	54538	
8870.23	-5.91172e-12	54672	54672	
8904.87	-6.36646e-12	54794	54794	
8939.5	-6.82121e-12	54934	54934	
8974.14	-7.27596e-12	55068	55068	
9008.77	-7.7307e-12	55192	55192	
9043.41	-8.18545e-12	55316	55316	
9078.04	-8.6402e-12	55442	55442	
9112.68	-9.09495e-12	55566	55566	
9147.31	-1.00044e-11	55692	55692	
9181.95	-1.09139e-11	55798	55798	
9216.58	-1.18234e-11	55918	55918	
9251.22	-1.22782e-11	56014	56014	
9285.85	-1.31877e-11	56180	56180	
9320.49	-1.40972e-11	56358	56358	
9355.12	-1.50067e-11	56484	56484	
9389.76	-1.59162e-11	56620	56620	
9424.39	-1.68257e-11	56720	56720	
9459.02	-1.81899e-11	56860	56860	
9493.66	-1.95541e-11	56984	56984	
9528.29	-2.09184e-11	57158	57158	
9562.93	-2.22826e-11	57258	57258	
9597.56	-2.36469e-11	57390	57390	
9632.2	-2.54659e-11	57550	57550	
9666.83	-2.72848e-11	57686	57686	
9701.47	-2.91038e-11	57834	57834	
9736.1	-3.09228e-11	57998	57998	
9770.74	-3.27418e-11	58118	58118	
9805.37	-3.50155e-11	58200	58200	
9840.01	-3.72893e-11	58322	58322	
9874.64	-3.9563e-11	58462	58462	
9909.28	-4.22915e-11	58588	58588	
9943.91	-4.502e-11	58784	58784	
9978.55	-4.77485e-11	58872	58872	
10013.2	-5.09317e-11	58972	58972	
10047.8	-5.41149e-11	59128	59128	
10082.5	-5.77529e-11	59266	59266	
10117.1	-6.13909e-11	59392	59392	
10151.7	-6.50289e-11	59538	59538	
10186.4	-6.91216e-11	59686	59686	
10221	-7.32143e-11	59810	59810	
10255.6	-7.77618e-11	59980	59980	
10290.3	-8.23093e-11	60138	60138	
10324.9	-8.73115e-11	60268	60268	
10359.5	-9.27685e-11	60408	60408	
10394.2	-9.82254e-11	60508	60508	
10428.8	-1.04137e-10	60628	60628	
10463.4	-1.10504e-10	60748	60748	
10498.1	-1.1687e-10	60890	60890	
10532.7	-1.23691e-10	61032	61032	
10567.3	-1.30967e-10	61186	61186	
10602	-1.38698e-10	61294	61294	
10636.6	-1.46429e-10	61444	61444	
10671.2	-1.54614e-10	61566	61566	
10705.9	-1.63254e-10	61730	61730	
10740.5	-1.72349e-10	61864	61864	
10775.1	-1.81899e-10	62010	62010	
10809.8	-1.91903e-10	62164	62164	
10844.4	-2.02363e-10	62322	62322	
10879.1	-2.13277e-10	62410	62410	
10913.7	-2.24645e-10	62574	62574	
10948.3	-2.36923e-10	62708	62708	
10983	-2.49656e-10	62842	62842	
11017.6	-2.62844e-10	62976	62976	
11052.2	-2.76486e-10	63158	63158	
11086.9	-2.91038e-10	63282	63282	
11121.5	-3.06045e-10	63402	63402	
11156.1	-3.21506e-10	63560	63560	
11190.8	-3.37877e-10	63686	63686	
11225.4	-3.54703e-10	63852	63852	
11260	-3.72438e-10	63978	63978	
11294.7	-3.91083e-10	64106	64106	
11329.3	-4.10182e-10	64206	64206	
11363.9	-4.30191e-10	64376	64376	
11398.6	-4.51109e-10	64534	64534	
11433.2	-4.72482e-10	64680	64680	
11467.9	-4.94765e-10	64810	64810	
11502.5	-5.18412e-10	64980	64980	
11537.1	-5.42968e-10	65158	65158	
11571.8	-5.68434e-10	65296	65296	
11606.4	-5.9481e-10	65454	65454	
11641	-6.22094e-10	65604	65604	
11675.7	-6.50289e-10	65762	65762	
11710.4	-6.79847e-10	65906	65906	
11745.1	-7.10315e-10	66052	66052	
11779.8	-7.42148e-10	66250	66250	
11814.5	-7.74889e-10	66376	66376	
11849.2	-8.08996e-10	66528	66528	
11884.2	-8.44466e-10	66700	66700	
11919.3	-8.813e-10	66826	66826	
11954.3	-9.19499e-10	66996	66996	
11989.3	-9.59062e-10	67184	67184	
12024.3	-1.00044e-09	67338	67338	
12059	-1.04274e-09	67544	67544	
12093.6	-1.08639e-09	67708	67708	
12128.2	-1.13141e-09	67868	67868	
12162.9	-1.17825e-09	67976	67976	
12197.5	-1.22645e-09	68130	68130	
12232.1	-1.27648e-09	68262	68262	
12266.8	-1.32832e-09	68460	68460	
12301.4	-1.38198e-09	68584	68584	
12336.1	-1.437e-09	68762	68762	
12370.7	-1.49385e-09	68924	68924	
12405.3	-1.55296e-09	69088	69088	
12440	-1.6139e-09	69226	69226	
12474.6	-1.67665e-09	69378	69378	
12509.2	-1.74168e-09	69540	69540	
12543.9	-1.80853e-09	69706	69706	
12578.5	-1.87765e-09	69840	69840	
12613.1	-1.94905e-09	70028	70028	
12647.8	-2.02226e-09	70212	70212	
12682.4	-2.0982e-09	70342	70342	
12717	-2.17642e-09	70560	70560	
12751.7	-2.25691e-09	70748	70748	
12786.3	-2.33968e-09	70960	70960	
12820.9	-2.42517e-09	71116	71116	
12855.6	-2.51339e-09	71260	71260	
12890.2	-2.60434e-09	71422	71422	
12924.8	-2.69756e-09	71588	71588	
12959.5	-2.79397e-09	71750	71750	
12994.1	-2.8931e-09	71936	71936	
13028.7	-2.99497e-09	72104	72104	
13063.4	-3.09956e-09	72276	72276	
13098	-3.20733e-09	72448	72448	
13132.7	-3.31829e-09	72572	72572	
13167.3	-3.43243e-09	72764	72764	
13201.9	-3.54976e-09	73014	73014	
13236.6	-3.67027e-09	73184	73184	
13271.2	-3.79396e-09	73360	73360	
13305.8	-3.92129e-09	73514	73514	
13340.5	-4.05225e-09	73666	73666	
13375.1	-4.1864e-09	73856	73856	
13409.7	-4.32465e-09	74092	74092	
13444.4	-4.46653e-09	74330	74330	
13479	-4.61205e-09	74472	74472	
13513.6	-4.7612e-09	74610	74610	
13548.3	-4.91445e-09	74740	74740	
13582.9	-5.0718e-09	74878	74878	
13617.5	-5.23323e-09	75128	75128	
13652.2	-5.39876e-09	75278	75278	
13686.8	-5.56838e-09	75512	75512	
13721.4	-5.74209e-09	75670	75670	
13756.1	-5.92036e-09	75810	75810	
13790.7	-6.10316e-09	75968	75968	
13825.4	-6.29052e-09	76214	76214	
13860	-6.48242e-09	76404	76404	
13894.6	-6.67933e-09	76522	76522	
13929.3	-6.88078e-09	76652	76652	
13963.9	-7.08724e-09	76842	76842	
13998.5	-7.29824e-09	77028	77028	
14033.2	-7.51425e-09	77258	77258	
14067.8	-7.73571e-09	77428	77428	
14102.4	-7.96217e-09	77592	77592	
14137.1	-8.19364e-09	77740	77740	
14171.7	-8.43056e-09	77926	77926	
14206.3	-8.67294e-09	78076	78076	
14241	-8.92078e-09	78284	78284	
14275.6	-9.17453e-09	78488	78488	
14310.2	-9.43373e-09	78656	78656	
14344.9	-9.69885e-09	78796	78796	
14379.5	-9.96943e-09	78932	78932	
14414.2	-1.02464e-08	79146	79146	
14448.8	-1.05292e-08	79330	79330	
14483.4	-1.0818e-08	79486	79486	
14518.1	-1.11131e-08	79628	79628	
14552.7	-1.14146e-08	79796	79796	
14587.3	-1.17225e-08	79926	79926	
14622	-1.20367e-08	80080	80080	
14656.6	-1.23573e-08	80304	80304	
14691.2	-1.26847e-08	80542	80542	
14725.9	-1.3019e-08	80756	80756	
14760.5	-1.336e-08	80902	80902	
14795.1	-1.37084e-08	81038	81038	
14829.8	-1.4064e-08	81230	81230	
14864.4	-1.44264e-08	81544	81544	
14899	-1.47966e-08	81798	81798	
14933.7	-1.5174e-08	82008	82008	
14968.3	-1.55592e-08	82182	82182	
15002.9	-1.59521e-08	82336	82336	
15037.6	-1.63527e-08	82512	82512	
15072.2	-1.67611e-08	82736	82736	
15106.9	-1.71781e-08	82894	82894	
15141.5	-1.76033e-08	83116	83116	
15176.1	-1.80366e-08	83282	83282	
15210.8	-1.84787e-08	83492	83492	
15245.4	-1.89298e-08	83694	83694	
15280	-1.939e-08	83946	83946	
15314.7	-1.98593e-08	84154	84154	
15349.3	-2.03377e-08	84352	84352	
15383.9	-2.08261e-08	84562	84562	
15418.6	-2.1324e-08	84776	84776	
15453.2	-2.18324e-08	85028	85028	
15487.8	-2.23508e-08	85240	85240	
15522.5	-2.28802e-08	85442	85442	
15557.1	-2.34204e-08	85678	85678	
15591.7	-2.39716e-08	85870	85870	
15626.4	-2.45345e-08	86106	86106	
15661	-2.51093e-08	86274	86274	
15695.7	-2.56964e-08	86544	86544	
15730.3	-2.62962e-08	86718	86718	
15764.9	-2.69088e-08	86868	86868	
15799.6	-2.7535e-08	87062	87062	
15834.2	-2.81752e-08	87238	87238	
15868.8	-2.88296e-08	87478	87478	
15903.5	-2.9499e-08	87770	87770	
15938.1	-3.01839e-08	87994	87994	
15972.7	-3.08851e-08	88164	88164	
16007.4	-3.16031e-08	88326	88326	
16042	-3.23384e-08	88560	88560	
16076.6	-3.30915e-08	88768	88768	
16111.3	-3.38637e-08	89022	89022	
16145.9	-3.46554e-08	89206	89206	
16180.5	-3.54676e-08	89406	89406	
16215.2	-3.63007e-08	89614	89614	
16249.8	-3.7156e-08	89880	89880	
16284.5	-3.80346e-08	90048	90048	
16319.1	-3.89377e-08	90228	90228	
16353.7	-3.98659e-08	90428	90428	
16388.4	-4.08209e-08	90658	90658	
16423	-4.18036e-08	90858	90858	
16457.6	-4.28149e-08	91022	91022	
16492.3	-4.38567e-08	91228	91228	
16526.9	-4.49304e-08	91458	91458	
16561.5	-4.60373e-08	91662	91662	
16596.2	-4.71791e-08	91858	91858	
16630.8	-4.83574e-08	92096	92096	
16665.4	-4.95743e-08	92312	92312	
16700.1	-5.08312e-08	92530	92530	
16734.7	-5.213e-08	92780	92780	
16769.3	-5.34724e-08	92992	92992	
16804	-5.48607e-08	93224	93224	
16838.6	-5.62973e-08	93418	93418	
16873.3	-5.77843e-08	93622	93622	
16907.9	-5.93241e-08	93794	93794	
16942.5	-6.09193e-08	94000	94000	
16977.2	-6.25719e-08	94250	94250	
17011.8	-6.42849e-08	94420	94420	
17046.4	-6.60607e-08	94648	94648	
17081.1	-6.79024e-08	94794	94794	
17115.7	-6.98128e-08	94988	94988	
17150.3	-7.17946e-08	95227	95227	
17185	-7.38514e-08	95533	95533	
17219.6	-7.5986e-08	95837	95837	
17254.2	-7.82015e-08	96045	96045	
17288.9	-8.05016e-08	96242	96242	
17323.5	-8.289e-08	96428	96428	
17358.1	-8.53697e-08	96679	96679	
17392.8	-8.79445e-08	96903	96903	
17427.4	-9.06184e-08	97171	97171	
17462	-9.33956e-08	97433	97433	
17496.7	-9.62796e-08	97629	97629	
17531.3	-9.92745e-08	97888	97888	
17566	-1.02385e-07	98094	98094	
17600.6	-1.05616e-07	98317	98317	
17635.2	-1.08971e-07	98581	98581	
17669.9	-1.12455e-07	98809	98809	
17704.5	-1.16075e-07	99010	99010	
17739.1	-1.19834e-07	99286	99286	
17773.8	-1.23739e-07	99548	99548	
17808.4	-1.27795e-07	99758	99758	
17843	-1.32009e-07	100010	100010	
17877.7	-1.36387e-07	100242	100242	
17912.3	-1.40935e-07	100442	100442	
17946.9	-1.45661e-07	100651	100651	
17981.6	-1.50572e-07	100891	100891	
18016.2	-1.55675e-07	101149	101149	
18050.8	-1.60978e-07	101374	101374	
18085.5	-1.66488e-07	101655	101655	
18120.1	-1.72213e-07	101890	101890	
18154.7	-1.78161e-07	102139	102139	
18189.4	-1.8434e-07	102306	102306	
18224	-1.9076e-07	102439	102439	
18258.7	-1.97428e-07	102650	102650	
18293.3	-2.04354e-07	102874	102874	
18327.9	-2.11548e-07	103124	103124	
18362.6	-2.19021e-07	103336	103336	
18397.2	-2.26785e-07	103487	103487	
18431.8	-2.34851e-07	103705	103705	
18466.5	-2.43232e-07	103904	103904	
18501.1	-2.5194e-07	104135	104135	
18535.7	-2.60991e-07	104361	104361	
18570.4	-2.70399e-07	104621	104621	
18605	-2.8018e-07	104829	104829	
18639.6	-2.90353e-07	104986	104986	
18674.3	-3.00936e-07	105155	105155	
18708.9	-3.11954e-07	105347	105347	
18743.5	-3.23433e-07	105556	105556	
18778.2	-3.35418e-07	105782	105782	
18812.8	-3.47931e-07	105996	105996	
18847.4	-3.6099e-07	106189	106189	
18882.1	-3.74581e-07	106333	106333	
18916.7	-3.88679e-07	106522	106522	
18951.4	-4.03259e-07	106751	106751	
18986	-4.18302e-07	107016	107016	
19020.6	-4.33803e-07	107204	107204	
19055.3	-4.49774e-07	107396	107396	
19089.9	-4.66246e-07	107572	107572	
19124.5	-4.8327e-07	107714	107714	
19159.2	-5.00919e-07	107952	107952	
19193.8	-5.19284e-07	108142	108142	
19228.4	-5.38469e-07	108367	108367	
19263.1	-5.58585e-07	108567	108567	
19297.7	-5.80206e-07	108720	108720	
19332.3	-6.02676e-07	108917	108917	
19367	-6.26038e-07	109090	109090	
19401.6	-6.50724e-07	109296	109296	
19436.2	-6.76673e-07	109496	109496	
19470.9	-7.03742e-07	109659	109659	
19505.5	-7.31896e-07	109802	109802	
19540.1	-7.61311e-07	109920	109920	
19574.8	-7.92279e-07	110086	110086	
19609.4	-8.25181e-07	110291	110291	
19644.1	-8.60244e-07	110474	110474	
19678.7	-8.97822e-07	110761	110761	
19713.3	-9.38114e-07	110967	110967	
19748	-9.81338e-07	111138	111138	
19782.6	-1.02747e-06	111391	111391	
19817.2	-1.13608e-06	111578	111578	
19851.9	-1.2216e-06	111742	111742	
19886.5	-1.29089e-06	111967	111967	
19921.1	-1.35649e-06	112169	112169	
19955.8	-1.42526e-06	112416	112416	
19990.4	-1.50154e-06	112639	112639	
20025	-1.5871e-06	112809	112809	
20059.7	-1.68325e-06	113006	113006	
20094.3	-1.79261e-06	113236	113236	
20128.9	-1.92388e-06	113436	113436	
20163.6	-2.05105e-06	113658	113658	
20198.2	-2.16045e-06	113839	113839	
20232.9	-2.27611e-06	114036	114036	
20267.5	-2.40923e-06	114223	114223	
20302.1	-2.57061e-06	114430	114430	
20336.8	-2.71289e-06	114651	114651	
20371.4	-2.95474e-06	114862	114862	
20406	-3.43753e-06	115077	115077	
20440.7	-4.21506e-06	115257	115257	
20475.3	-4.96319e-06	115486	115486	
20509.9	-5.70835e-06	115665	115665	
20544.6	-6.44875e-06	115893	115893	
20579.2	-7.22888e-06	116169	116169	
20613.8	-8.07114e-06	116382	116382	
20648.5	-8.98795e-06	116579	116579	
20683.1	-1.00007e-05	116797	116797	
20717.7	-1.10894e-05	117005	117005	
20752.4	-1.22403e-05	117137	117137	
20787	-1.34928e-05	117340	117340	
20821.6	-1.48566e-05	117509	117509	
20856.3	-1.63453e-05	117760	117760	
20890.9	-1.79614e-05	117942	117942	
20925.5	-1.97053e-05	118145	118145	
20960.2	-2.15756e-05	118337	118337	
20994.8	-2.35692e-05	118569	118569	
21029.5	-2.56828e-05	118769	118769	
21064.1	-2.79112e-05	118996	118996	
21098.7	-3.02529e-05	119194	119194	
21133.4	-3.27068e-05	119395	119395	
21168	-3.52749e-05	119541	119541	
21202.6	-3.79595e-05	119732	119732	
21237.3	-4.0762e-05	119925	119925	
21271.9	-4.36808e-05	120134	120134	
21306.5	-4.67102e-05	120273	120273	
21341.2	-4.98398e-05	120441	120441	
21375.8	-5.30543e-05	120604	120604	
21410.4	-5.6334e-05	120769	120769	
21445.1	-5.96549e-05	120943	120943	
21479.7	-6.29889e-05	121070	121070	
21514.3	-6.63043e-05	121260	121260	
21549	-6.95656e-05	121462	121462	
21583.6	-7.27335e-05	121708	121708	
21618.2	-7.57645e-05	121906	121906	
21652.9	-7.86107e-05	122070	122070	
21687.5	-8.12187e-05	122239	122239	
21722.2	-8.35293e-05	122379	122379	
21756.8	-8.54766e-05	122587	122587	
21791.4	-8.6987e-05	122861	122861	
21826.1	-8.79795e-05	123079	123079	
21860.7	-8.83641e-05	123253	123253	
21895.3	-8.80422e-05	123428	123428	
21930	-8.69058e-05	123597	123597	
21964.6	-8.48373e-05	123768	123768	
21999.2	-8.17091e-05	123982	123982	
22033.9	-7.73831e-05	124191	124191	
22068.5	-7.17107e-05	124351	124351	
22103.1	-6.45319e-05	124521	124521	
22137.8	-5.56751e-05	124726	124726	
22172.4	-4.4957e-05	124936	124936	
22207	-3.21815e-05	125146	125146	
22241.7	-1.714e-05	125306	125306	
22276.3	3.75205e-07	125530	125530	
22310.9	2.06018e-05	125713	125713	
22345.6	4.37887e-05	125876	125876	
22380.2	7.01978e-05	126066	126066	
22414.8	0.000100107	126276	126276	
22449.5	0.000133829	126516	126516	
22484.1	0.000171674	126746	126746	
22518.8	0.000213957	126898	126898	
22553.4	0.000261003	127067	127067	
22588	0.000313141	127216	127216	
22622.7	0.00037071	127368	127368	
22657.3	0.000434059	127578	127578	
22691.9	0.000503549	127777	127777	
22726.6	0.000579553	128004	128004	
22761.2	0.000662461	128175	128175	
22795.8	0.000752671	128324	128324	
22830.5	0.000850594	128521	128521	
22865.1	0.000956647	128749	128749	
22899.7	0.00107125	128989	128989	
22934.4	0.00119482	129173	129173	
22969	0.00132779	129308	129308	
23003.6	0.00147057	129503	129503	
23038.3	0.00162358	129681	129681	
23072.9	0.00178724	129859	129859	
23107.5	0.00196195	130135	130135	
23142.2	0.00214811	130372	130372	
23176.8	0.00234612	130577	130577	
23211.5	0.00255635	130731	130731	
23246.1	0.00277919	130864	130864	
23280.7	0.00301499	130981	130981	
23315.4	0.00326409	131193	131193	
23350	0.00352682	131406	131406	
23384.6	0.00380347	131642	131642	
23419.3	0.00409432	131796	131796	
23453.9	0.0043996	132004	132004	
23488.5	0.00471954	132187	132187	
23523.2	0.00505431	132422	132422	
23557.8	0.00540408	132632	132632	
23592.4	0.00576897	132847	132847	
23627.1	0.00614905	133013	133013	
23661.7	0.00654436	133197	133197	
23696.3	0.00695492	133358	133358	
23731	0.00738069	133509	133509	
23765.6	0.00782156	133653	133653	
23800.2	0.00827743	133762	133762	
23834.9	0.00874809	133951	133951	
23869.5	0.00923333	134069	134069	
23904.1	0.00973286	134274	134274	
23938.8	0.0102463	134509	134509	
23973.4	0.0107734	134731	134731	
24008.1	0.0113136	134968	134968	
24042.7	0.0118665	135189	135189	
24077.3	0.0124315	135415	135415	
24112	0.0130081	135576	135576	
24146.6	0.0135955	135706	135706	
24181.2	0.0141932	135831	135831	
24215.9	0.0148003	135985	135985	
24250.5	0.0154161	136131	136131	
24285.1	0.0160398	136379	136379	
24319.8	0.0166704	136566	136566	
24354.4	0.017307	136802	136802	
24389	0.0179486	136994	136994	
24423.7	0.0185942	137205	137205	
24458.3	0.0192427	137405	137405	
24492.9	0.019893	137531	137531	
24527.6	0.0205441	137722	137722	
24562.2	0.0211947	137840	137840	
24596.8	0.0218436	137976	137976	
24631.5	0.0224896	138117	138117	
24666.1	0.0231315	138252	138252	
24700.8	0.0237679	138484	138484	
24735.4	0.0243977	138640	138640	
24770	0.0250195	138816	138816	
24804.7	0.025632	139073	139073	
24839.3	0.0262338	139206	139206	
24873.9	0.0268238	139414	139414	
24908.6	0.0274018	139529	139529	
24943.3	0.0279639	139665	139665	
24977.9	0.0285103	139761	139761	
25012.5	0.0290395	139941	139941	
25047.2	0.0295505	140127	140127	
25081.8	0.0300419	140287	140287	
25116.4	0.0305125	140497	140497	
25151.1	0.0309613	140653	140653	
25185.7	0.0313871	140825	140825	
25220.3	0.0317888	141042	141042	
25255	0.0321655	141296	141296	
25289.6	0.032516	141541	141541	
25324.3	0.0328396	141676	141676	
25358.9	0.0331352	141839	141839	
25393.5	0.0334023	141998	141998	
25428.2	0.0336398	142171	142171	
25462.8	0.0338473	142327	142327	
25497.4	0.0340241	142511	142511	
25532.1	0.0341695	142693	142693	
25566.7	0.0342831	142901	142901	
25601.3	0.0343645	143014	143014	
25636	0.0344133	143197	143197	
25670.6	0.0344293	143350	143350	
25705.2	0.0344121	143566	143566	
25739.9	0.0343616	143740	143740	
25774.5	0.0342777	144009	144009	
25809.1	0.0341604	144240	144240	
25843.8	0.0340097	144426	144426	
25878.4	0.0338256	144653	144653	
25913	0.0336084	144865	144865	
25947.7	0.0333581	145052	145052	
25982.3	0.0330752	145102	145102	
26016.9	0.0327599	145221	145221	
26051.6	0.0324125	145452	145452	
26086.2	0.0320335	145704	145704	
26120.8	0.0316234	145912	145912	
26155.5	0.0311826	146120	146120	
26190.1	0.0307119	146308	146308	
26224.7	0.0302118	146504	146504	
26259.4	0.0296829	146665	146665	
26294	0.0291261	146817	146817	
26328.7	0.0285421	147025	147025	
26363.3	0.0279316	147257	147257	
26397.9	0.0272956	147410	147410	
26432.6	0.0266349	147645	147645	
26467.2	0.0259505	147821	147821	
26501.8	0.0252434	148006	148006	
26536.5	0.0245145	148192	148192	
26571.1	0.023765	148445	148445	
26605.7	0.0229958	148711	148711	
26640.4	0.0222081	148963	148963	
26675	0.021403	149191	149191	
26709.6	0.0205817	149406	149406	
26744.3	0.0197454	149609	149609	
26778.9	0.0188953	149813	149813	
26813.5	0.0180325	150013	150013	
26848.2	0.0171584	150164	150164	
26882.8	0.0162741	150362	150362	
26917.4	0.015381	150492	150492	
26952.1	0.0144803	150658	150658	
26986.7	0.0135732	150830	150830	
27021.3	0.012661	150985	150985	
27056	0.0117451	151195	151195	
27090.6	0.0108266	151414	151414	
27125.2	0.00990673	151597	151597	
27159.9	0.0089868	151763	151763	
27194.5	0.008068	151993	151993	
27229.1	0.00715151	152195	152195	
27263.8	0.00623851	152401	152401	
27298.4	0.00533015	152535	152535	
27333	0.00442754	152713	152713	
27367.7	0.00353177	152923	152923	
27402.3	0.0026439	153060	153060	
27436.9	0.00176494	153148	153148	
27471.6	0.000895886	153280	153280	
27506.2	3.76773e-05	153463	153463	
27540.9	-0.000808782	153676	153676	
27575.5	-0.00164263	153890	153890	
27610.1	-0.00246305	154125	154125	
27644.8	-0.00326927	154322	154322	
27679.4	-0.00406055	154516	154516	
27714	-0.00483622	154721	154721	
27748.7	-0.00559563	154950	154950	
27783.3	-0.00633821	155131	155131	
27817.9	-0.0070634	155286	155286	
27852.6	-0.00777071	155478	155478	
27887.2	-0.0084597	155663	155663	
27921.8	-0.00912996	155795	155795	
27956.5	-0.00978112	155970	155970	
27991.1	-0.0104129	156199	156199	
28025.7	-0.011025	156436	156436	
28060.4	-0.0116172	156582	156582	
28095	-0.0121893	156777	156777	
28129.6	-0.0127412	156985	156985	
28164.3	-0.0132728	157147	157147	
28198.9	-0.013784	157353	157353	
28233.5	-0.0142748	157513	157513	
28268.2	-0.0147452	157672	157672	
28302.8	-0.0151952	157850	157850	
28337.4	-0.0156249	158035	158035	
28372.1	-0.0160345	158265	158265	
28406.7	-0.0164239	158440	158440	
28441.3	-0.0167935	158612	158612	
28476	-0.0171434	158800	158800	
28510.6	-0.0174737	158909	158909	
28545.2	-0.0177848	159083	159083	
28579.9	-0.0180769	159224	159224	
28614.5	-0.0183503	159380	159380	
28649.1	-0.0186052	159613	159613	
28683.8	-0.018842	159742	159742	
28718.4	-0.0190609	159911	159911	
28753	-0.0192624	160055	160055	
28787.7	-0.0194468	160169	160169	
28822.3	-0.0196144	160395	160395	
28856.9	-0.0197657	160519	160519	
28891.6	-0.0199009	160678	160678	
28926.2	-0.0200205	160903	160903	
28960.8	-0.0201248	161101	161101	
28995.5	-0.0202143	161287	161287	
29030.1	-0.0202893	161439	161439	
29064.7	-0.0203502	161598	161598	
29099.4	-0.0203975	161739	161739	
29134	-0.0204314	161796	161796	
29168.6	-0.0204525	161919	161919	
29203.3	-0.0204609	162066	162066	
29237.9	-0.0204572	162252	162252	
29272.5	-0.0204417	162438	162438	
29307.2	-0.0204148	162571	162571	
29341.8	-0.0203767	162716	162716	
29376.4	-0.0203279	162939	162939	
29411.1	-0.0202687	163178	163178	
29445.7	-0.0201995	163329	163329	
29480.3	-0.0201206	163480	163480	
29515	-0.0200325	163607	163607	
29549.6	-0.0199521	163770	163770	
29584.2	-0.0198519	163972	163972	
29618.9	-0.0197713	164142	164142	
29653.5	-0.0196788	164299	164299	
29688.1	-0.0194258	164414	164414	
29722.8	-0.0193088	164617	164617	
29757.4	-0.0192364	164839	164839	
29792	-0.0191058	165019	165019	
29826.7	-0.0189759	165195	165195	
29861.3	-0.0186941	165402	165402	
29895.9	-0.0185059	165524	165524	
29930.6	-0.0184456	165707	165707	
29965.2	-0.0182834	165867	165867	
29999.8	-0.0181298	166089	166089	
30034.5	-0.0178318	166288	166288	
30069.1	-0.0177069	166436	166436	
30103.7	-0.0175058	166650	166650	
30138.4	-0.0172337	166831	166831	
30173	-0.0169968	166960	166960	
30207.6	-0.0167744	167095	167095	
30242.3	-0.0165556	167226	167226	
30276.9	-0.0163333	167446	167446	
30311.5	-0.0161038	167685	167685	
30346.2	-0.01587	167970	167970	
30380.8	-0.0155139	168183	168183	
30415.4	-0.0153223	168438	168438	
30450.1	-0.015063	168656	168656	
30484.7	-0.0147711	168787	168787	
30519.3	-0.0145091	168926	168926	
30554	-0.0142187	169217	169217	
30588.6	-0.0139373	169371	169371	
30623.2	-0.0136595	169515	169515	
30657.8	-0.0133784	169705	169705	
30692.5	-0.0130952	169957	169957	
30727.1	-0.0128086	170134	170134	
30761.7	-0.012519	170321	170321	
30796.4	-0.0122254	170468	170468	
30831	-0.0119268	170647	170647	
30865.6	-0.0116202	170793	170793	
30900.3	-0.0113158	171051	171051	
30934.9	-0.0110094	171198	171198	
30969.5	-0.0106957	171470	171470	
31004.2	-0.010372	171639	171639	
31038.8	-0.010038	171775	171775	
31073.4	-0.00969457	171946	171946	
31108	-0.00934302	172083	172083	
31142.7	-0.00898502	172289	172289	
31177.3	-0.00862226	172496	172496	
31211.9	-0.00825625	172644	172644	
31246.6	-0.00788809	172819	172819	
31281.2	-0.00751835	173059	173059	
31315.8	-0.00714708	173214	173214	
31350.5	-0.00677398	173445	173445	
31385.1	-0.00639859	173560	173560	
31419.7	-0.00602056	173721	173721	
31454.4	-0.00563968	173871	173871	
31489	-0.0052561	174016	174016	
31523.6	-0.00486979	174199	174199	
31558.3	-0.0044807	174333	174333	
31592.9	-0.00408898	174423	174423	
31627.5	-0.00369513	174588	174588	
31662.2	-0.00329979	174815	174815	
31696.8	-0.0029037	174946	174946	
31731.4	-0.00250753	175056	175056	
31766	-0.00211181	175231	175231	
31800.7	-0.00171794	175407	175407	
31835.3	-0.00132477	175659	175659	
31869.9	-0.000931711	175821	175821	
31904.6	-0.000538799	176011	176011	
31939.2	-0.000146437	176120	176120	
31973.8	0.000244848	176315	176315	
32008.5	0.000634597	176433	176433	
32043.1	0.00102249	176670	176670	
32077.7	0.00140831	176927	176927	
32112.4	0.00179186	177177	177177	
32147	0.00217292	177374	177374	
32181.6	0.00255119	177558	177558	
32216.3	0.00292642	177750	177750	
32250.9	0.00329836	177929	177929	
32285.5	0.00366687	178082	178082	
32320.1	0.00403187	178279	178279	
32354.8	0.00439333	178441	178441	
32389.4	0.00475104	178605	178605	
32424	0.00510439	178773	178773	
32458.7	0.00545379	178953	178953	
32493.3	0.00579961	179068	179068	
32527.9	0.00614182	179285	179285	
32562.6	0.00648018	179523	179523	
32597.2	0.00681438	179706	179706	
32631.8	0.00714413	179899	179899	
32666.5	0.00746905	180099	180099	
32701.1	0.00778868	180284	180284	
32735.7	0.0081025	180427	180427	
32770.4	0.00840996	180613	180613	
32805	0.00871053	180805	180805	
32839.6	0.00900362	181034	181034	
32874.2	0.00928875	181263	181263	
32908.9	0.00956563	181487	181487	
32943.5	0.00983394	181629	181629	
32978.1	0.0100935	181915	181915	
33012.8	0.0102596	182149	182149	
33047.4	0.0105302	182372	182372	
33082	0.0107634	182552	182552	
33116.7	0.0109833	182721	182721	
33151.3	0.0111202	182874	182874	
33185.9	0.0112927	183045	183045	
33220.6	0.0113546	183249	183249	
33255.2	0.0117373	183426	183426	
33289.8	0.0119272	183634	183634	
33324.4	0.0121024	183865	183865	
33359.1	0.0122385	184065	184065	
33393.7	0.0123627	184320	184320	
33428.3	0.012493	184516	184516	
33463	0.0125056	184699	184699	
33497.6	0.0128069	184893	184893	
33532.2	0.0129259	185050	185050	
33566.9	0.0130334	185171	185171	
33601.5	0.0131372	185246	185246	
33636.1	0.0132438	185462	185462	
33670.8	0.0133241	185666	185666	
33705.4	0.0133978	185915	185915	
33740	0.0134577	186194	186194	
33774.7	0.0135578	186421	186421	
33809.3	0.0135948	186599	186599	
33843.9	0.0136186	186802	186802	
33878.5	0.0136362	186967	186967	
33913.2	0.0136502	187127	187127	
33947.8	0.0136583	187291	187291	
33982.4	0.0136605	187420	187420	
34017.1	0.0136553	187660	187660	
34051.7	0.0136436	187863	187863	
34086.3	0.0136248	188106	188106	
34121	0.0135984	188308	188308	
34155.6	0.0135632	188490	188490	
34190.2	0.0135199	188725	188725	
34224.9	0.0134692	188868	188868	
34259.5	0.013411	188961	188961	
34294.1	0.0133448	189123	189123	
34328.7	0.0132701	189286	189286	
34363.4	0.0131867	189525	189525	
34398	0.0130946	189663	189663	
34432.6	0.0129941	189835	189835	
34467.3	0.0128853	190084	190084	
34501.9	0.0127683	190292	190292	
34536.5	0.0126432	190508	190508	
34571.2	0.0125099	190773	190773	
34605.8	0.0123682	190968	190968	
34640.4	0.0122182	191170	191170	
34675	0.0120599	191370	191370	
34709.7	0.0118938	191596	191596	
34744.3	0.0117203	191694	191694	
34778.9	0.0115401	191906	191906	
34813.6	0.0113541	192089	192089	
34848.2	0.0111633	192256	192256	
34882.8	0.0109688	192472	192472	
34917.5	0.0107715	192729	192729	
34952.1	0.0105728	192860	192860	
34986.7	0.0103735	193086	193086	
35021.4	0.0101748	193308	193308	
35056	0.00997774	193611	193611	
35090.6	0.00978319	193813	193813	
35125.2	0.0095921	194023	194023	
35159.9	0.00940533	194217	194217	
35194.5	0.00922369	194456	194456	
35229.1	0.00904789	194617	194617	
35263.8	0.00887858	194700	194700	
35298.4	0.00871629	194873	194873	
35333	0.00856145	195087	195087	
35367.7	0.00841437	195279	195279	
35402.3	0.00827523	195534	195534	
35436.9	0.00814406	195690	195690	
35471.5	0.0080208	195910	195910	
35506.2	0.00790522	196089	196089	
35540.8	0.00779701	196303	196303	
35575.4	0.00769575	196488	196488	
35610.1	0.00760092	196589	196589	
35644.7	0.00751192	196740	196740	
35679.3	0.0074281	196909	196909	
35714	0.00734872	197182	197182	
35748.6	0.00727304	197407	197407	
35783.2	0.00720025	197621	197621	
35817.9	0.00712955	197886	197886	
35852.5	0.00706014	198171	198171	
35887.1	0.00699119	198422	198422	
35921.7	0.00692193	198582	198582	
35956.4	0.00685162	198741	198741	
35991	0.00677954	198879	198879	
36025.6	0.00670506	199050	199050	
36060.3	0.00662758	199255	199255	
36094.9	0.00654656	199398	199398	
36129.5	0.00646153	199645	199645	
36164.2	0.00637208	199857	199857	
36198.8	0.00627785	200127	200127	
36233.4	0.00617855	200286	200286	
36268	0.00607394	200580	200580	
36302.7	0.00596387	200680	200680	
36337.3	0.0058482	200818	200818	
36371.9	0.00572691	201080	201080	
36406.6	0.00559998	201320	201320	
36441.2	0.00546749	201497	201497	
36475.8	0.00532952	201686	201686	
36510.5	0.00518622	201860	201860	
36545.1	0.00503773	202090	202090	
36579.7	0.00488424	202316	202316	
36614.3	0.00472591	202528	202528	
36649	0.00456296	202725	202725	
36683.6	0.00439556	202932	202932	
36718.2	0.00422393	203126	203126	
36752.9	0.00404826	203287	203287	
36787.5	0.00386877	203474	203474	
36822.1	0.0036857	203655	203655	
36856.8	0.00349928	203925	203925	
36891.4	0.00330975	204152	204152	
36926	0.00311739	204332	204332	
36960.6	0.00292247	204517	204517	
36995.3	0.00272527	204664	204664	
37029.9	0.00252608	204957	204957	
37064.5	0.00232519	205148	205148	
37099.2	0.0021229	205375	205375	
37133.8	0.00191951	205522	205522	
37168.4	0.00171532	205746	205746	
37203.1	0.00151061	205930	205930	
37237.7	0.00130571	206070	206070	
37272.3	0.00110089	206224	206224	
37306.9	0.000896466	206450	206450	
37341.6	0.000692735	206660	206660	
37376.2	0.000489996	206908	206908	
37410.8	0.000288542	207115	207115	
37445.5	8.86659e-05	207272	207272	
37480.1	-0.000109351	207444	207444	
37514.7	-0.000305235	207621	207621	
37549.4	-0.000498725	207882	207882	
37584	-0.000689574	208097	208097	
37618.6	-0.00087755	208300	208300	
37653.2	-0.00106244	208508	208508	
37687.9	-0.00124405	208731	208731	
37722.5	-0.0014222	208901	208901	
37757.1	-0.00159674	209063	209063	
37791.8	-0.00176752	209219	209219	
37826.4	-0.00193443	209407	209407	
37861	-0.00209736	209621	209621	
37895.7	-0.00225622	209888	209888	
37930.3	-0.00241096	210077	210077	
37964.9	-0.00256151	210276	210276	
37999.5	-0.00270785	210451	210451	
38034.2	-0.00284995	210631	210631	
38068.8	-0.00298783	210798	210798	
38103.4	-0.00312148	211065	211065	
38138.1	-0.00325094	211287	211287	
38172.7	-0.00337625	211600	211600	
38207.3	-0.00349747	211796	211796	
38242	-0.00361467	211989	211989	
38276.6	-0.00372792	212115	212115	
38311.2	-0.00383731	212197	212197	
38345.8	-0.00394293	212383	212383	
38380.5	-0.00404489	212740	212740	
38415.1	-0.0041433	212877	212877	
38449.7	-0.00423826	213105	213105	
38484.4	-0.00432988	213272	213272	
38519	-0.00441829	213443	213443	
38553.6	-0.0045036	213652	213652	
38588.2	-0.00458592	213832	213832	
38622.9	-0.00466538	214022	214022	
38657.5	-0.0047421	214195	214195	
38692.1	-0.0048162	214409	214409	
38726.8	-0.0048878	214593	214593	
38761.4	-0.00495702	214756	214756	
38796	-0.005024	214958	214958	
38830.7	-0.00508886	215110	215110	
38865.3	-0.00515174	215368	215368	
38899.9	-0.00521277	215714	215714	
38934.5	-0.00527209	215890	215890	
38969.2	-0.00532986	216130	216130	
39003.8	-0.00538621	216356	216356	
39038.4	-0.00544131	216614	216614	
39073.1	-0.00549531	216825	216825	
39107.7	-0.00554836	217062	217062	
39142.3	-0.00560063	217282	217282	
39176.9	-0.00565229	217510	217510	
39211.6	-0.0057035	217746	217746	
39246.2	-0.00575442	217975	217975	
39280.8	-0.00580523	218204	218204	
39315.5	-0.00585606	218418	218418	
39350.1	-0.00590709	218596	218596	
39384.7	-0.00595846	218754	218754	
39419.4	-0.00601031	218948	218948	
39454	-0.00606276	219229	219229	
39488.6	-0.00611594	219405	219405	
39523.2	-0.00616993	219648	219648	
39557.9	-0.00622482	219829	219829	
39592.5	-0.00628068	220091	220091	
39627.1	-0.00633754	220292	220292	
39661.8	-0.00639544	220570	220570	
39696.4	-0.00645436	220768	220768	
39731	-0.00651428	220936	220936	
39765.6	-0.00657516	221128	221128	
39800.3	-0.00663692	221375	221375	
39834.9	-0.00669946	221566	221566	
39869.5	-0.00676268	221740	221740	
39904.2	-0.00682644	221851	221851	
39938.8	-0.00689057	222041	222041	
39973.4	-0.0069549	222330	222330	
40008.1	-0.00701925	222487	222487	
40042.7	-0.00708341	222817	222817	
40077.3	-0.00714717	222956	222956	
40111.9	-0.0072103	223128	223128	
40146.6	-0.00727258	223283	223283	
40181.2	-0.00733376	223553	223553	
40215.8	-0.00739362	223750	223750	
40250.5	-0.00745192	223933	223933	
40285.1	-0.00750844	224169	224169	
40319.7	-0.00756295	224372	224372	
40354.3	-0.00761524	224558	224558	
40389	-0.00766511	224729	224729	
40423.6	-0.00771238	224960	224960	
40458.2	-0.00775689	225172	225172	
40492.9	-0.0077985	225439	225439	
40527.5	-0.0078371	225716	225716	
40562.1	-0.00787258	225918	225918	
40596.7	-0.0079049	226119	226119	
40631.4	-0.00793404	226302	226302	
40666	-0.00795999	226581	226581	
40700.6	-0.0079828	226705	226705	
40735.3	-0.00800255	226931	226931	
40769.9	-0.00801937	227197	227197	
40804.5	-0.0080334	227389	227389	
40839.1	-0.00804484	227660	227660	
40873.8	-0.00805391	227939	227939	
40908.4	-0.00806087	228128	228128	
40943	-0.00806601	228333	228333	
40977.7	-0.00806964	228510	228510	
41012.3	-0.00807208	228669	228669	
41046.9	-0.0080737	228899	228899	
41081.5	-0.00807484	229085	229085	
41116.2	-0.00807588	229232	229232	
41150.8	-0.00807719	229402	229402	
41185.4	-0.00807911	229607	229607	
41220.1	-0.00808201	229821	229821	
41254.7	-0.00808621	230069	230069	
41289.3	-0.00809202	230320	230320	
41324	-0.00809973	230493	230493	
41358.6	-0.00810957	230672	230672	
41393.2	-0.00812177	230928	230928	
41427.8	-0.0081365	231233	231233	
41462.5	-0.00815387	231328	231328	
41497.1	-0.00817399	231467	231467	
41531.7	-0.00819688	231621	231621	
41566.4	-0.00822254	231867	231867	
41601	-0.0082509	232050	232050	
41635.6	-0.00828188	232326	232326	
41670.2	-0.00831531	232583	232583	
41704.9	-0.008351	232797	232797	
41739.5	-0.00838873	232898	232898	
41774.1	-0.00842821	233098	233098	
41808.8	-0.00846915	233300	233300	
41843.4	-0.0085112	233519	233519	
41878	-0.008554	233696	233696	
41912.6	-0.00859717	233884	233884	
41947.3	-0.0086403	234020	234020	
41981.9	-0.00868297	234201	234201	
42016.5	-0.00872477	234383	234383	
42051.2	-0.00876526	234602	234602	
42085.8	-0.00880402	234871	234871	
42120.4	-0.00884064	235010	235010	
42155	-0.00887471	235190	235190	
42189.7	-0.00890583	235403	235403	
42224.3	-0.00893364	235548	235548	
42258.9	-0.00895777	235726	235726	
42293.6	-0.00897792	235934	235934	
42328.2	-0.00899377	236221	236221	
42362.8	-0.00900507	236516	236516	
42397.4	-0.00901157	236634	236634	
42432.1	-0.00901306	236786	236786	
42466.7	-0.00900939	236947	236947	
42501.3	-0.00900041	237014	237014	
42536	-0.00898603	237205	237205	
42570.6	-0.00896618	237359	237359	
42605.2	-0.00894084	237559	237559	
42639.8	-0.00891002	237800	237800	
42674.5	-0.00887376	238031	238031	
42709.1	-0.00883213	238252	238252	
42743.7	-0.00878525	238537	238537	
42778.4	-0.00873325	238825	238825	
42813	-0.0086763	239189	239189	
42847.6	-0.00861458	239551	239551	
42882.2	-0.00854829	239743	239743	
42916.9	-0.00847764	240065	240065	
42951.5	-0.00840286	240209	240209	
42986.1	-0.00832419	240426	240426	
43020.7	-0.00824187	240537	240537	
43055.4	-0.00815615	240800	240800	
43090	-0.00806729	240937	240937	
43124.6	-0.00797553	241248	241248	
43159.3	-0.00788114	241491	241491	
43193.9	-0.00778438	241781	241781	
