0	0	2097152	2097152	
15.3477	0	2097152	2097152	
30.6954	0	2097152	2097152	
46.0431	0	2097152	2097152	
61.3908	0	2097152	2097152	
76.7385	0	2097152	2097152	
92.0862	0	2097152	2097152	
107.434	0	2097152	2097152	
122.782	0	2097152	2097152	
138.129	0	2097152	2097152	
153.477	0	2097152	2097152	
168.825	0	2097152	2097152	
184.172	0	2097152	2097152	
199.52	0	2097152	2097152	
214.868	0	2097152	2097152	
230.215	0	2097152	2097152	
245.563	0	2097152	2097152	
260.911	0	2097152	2097152	
276.259	0	2097152	2097152	
291.606	0	2097152	2097152	
306.954	0	2097152	2097152	
322.302	0	2097152	2097152	
337.649	0	2097152	2097152	
352.997	0	2097152	2097152	
368.345	0	2097152	2097152	
383.692	0	2097152	2097152	
399.04	0	2097152	2097152	
414.388	0	2097152	2097152	
429.735	0	2097152	2097152	
445.083	0	2097152	2097152	
460.431	0	2097152	2097152	
475.779	0	2097152	2097152	
491.126	0	2097152	2097152	
506.474	0	2097152	2097152	
521.822	0	2097152	2097152	
537.169	0	2097152	2097152	
552.517	0	2097152	2097152	
567.865	0	2097152	2097152	
583.212	0	2097152	2097152	
598.56	0	2097152	2097152	
613.908	0	2097152	2097152	
629.256	0	2097152	2097152	
644.603	0	2097152	2097152	
659.951	0	2097152	2097152	
675.299	0	2097152	2097152	
690.646	0	2097152	2097152	
705.994	0	2097152	2097152	
721.342	0	2097152	2097152	
736.689	0	2097152	2097152	
752.037	0	2097152	2097152	
767.385	0	2097152	2097152	
782.732	0	2097152	2097152	
798.08	0	2097152	2097152	
813.428	0	2097152	2097152	
828.776	0	2097152	2097152	
844.123	0	2097152	2097152	
859.471	0	2097152	2097152	
874.819	0	2097152	2097152	
890.166	0	2097152	2097152	
905.514	0	2097152	2097152	
920.862	0	2097152	2097152	
936.209	0	2097152	2097152	
951.557	0	2097152	2097152	
966.905	0	2097152	2097152	
982.252	0	2097152	2097152	
997.6	0	2097152	2097152	
1012.95	0	2097152	2097152	
1028.3	0	2097152	2097152	
1043.64	0	2097152	2097152	
1058.99	0	2097152	2097152	
1074.34	0	2097152	2097152	
1089.69	0	2097152	2097152	
1105.03	0	2097152	2097152	
1120.38	0	2097152	2097152	
1135.73	0	2097152	2097152	
1151.08	0	2097152	2097152	
1166.42	0	2097152	2097152	
1181.77	0	2097152	2097152	
1197.12	0	2097152	2097152	
1212.47	0	2097152	2097152	
1227.82	0	2097152	2097152	
1243.16	0	2097152	2097152	
1258.51	0	2097152	2097152	
1273.86	0	2097152	2097152	
1289.21	0	2097152	2097152	
1304.55	0	2097152	2097152	
1319.9	0	2097152	2097152	
1335.25	0	2097152	2097152	
1350.6	0	2097152	2097152	
1365.94	0	2097152	2097152	
1381.29	0	2097152	2097152	
1396.64	0	2097152	2097152	
1411.99	0	2097152	2097152	
1427.34	0	2097152	2097152	
1442.68	0	2097152	2097152	
1458.03	0	2097152	2097152	
1473.38	0	2097152	2097152	
1488.73	0	2097152	2097152	
1504.07	0	2097152	2097152	
1519.42	0	2097152	2097152	
1534.77	0	2097152	2097152	
1550.12	0	2097152	2097152	
1565.46	0	2097152	2097152	
1580.81	0	2097152	2097152	
1596.16	0	2097152	2097152	
1611.51	0	2097152	2097152	
1626.86	0	2097152	2097152	
1642.2	0	2097152	2097152	
1657.55	0	2097152	2097152	
1672.9	0	2097152	2097152	
1688.25	0	2097152	2097152	
1703.59	0	2097152	2097152	
1718.94	0	2097152	2097152	
1734.29	0	2097152	2097152	
1749.64	0	2097152	2097152	
1764.98	0	2097152	2097152	
1780.33	0	2097152	2097152	
1795.68	0	2097152	2097152	
1811.03	0	2097152	2097152	
1826.38	0	2097152	2097152	
1841.72	0	2097152	2097152	
1857.07	0	2097152	2097152	
1872.42	0	2097152	2097152	
1887.77	0	2097152	2097152	
1903.11	0	2097152	2097152	
1918.46	0	2097152	2097152	
1933.81	0	2097152	2097152	
1949.16	0	2097152	2097152	
1964.5	0	2097152	2097152	
1979.85	0	2097152	2097152	
1995.2	0	2097152	2097152	
2010.55	0	2097152	2097152	
2025.9	0	2097152	2097152	
2041.24	0	2097152	2097152	
2056.59	0	2097152	2097152	
2071.94	0	2097152	2097152	
2087.29	0	2097152	2097152	
2102.63	0	2097152	2097152	
2117.98	0	2097152	2097152	
2133.33	0	2097152	2097152	
2148.68	0	2097152	2097152	
2164.03	0	2097152	2097152	
2179.37	0	2097152	2097152	
2194.72	0	2097152	2097152	
2210.07	0	2097152	2097152	
2225.42	0	2097152	2097152	
2240.76	0	2097152	2097152	
2256.11	0	2097152	2097152	
2271.46	0	2097152	2097152	
2286.81	0	2097152	2097152	
2302.15	0	2097152	2097152	
2317.5	0	2097152	2097152	
2332.85	0	2097152	2097152	
2348.2	0	2097152	2097152	
2363.55	0	2097152	2097152	
2378.89	0	2097152	2097152	
2394.24	0	2097152	2097152	
2409.59	0	2097152	2097152	
2424.94	0	2097152	2097152	
2440.28	0	2097152	2097152	
2455.63	0	2097152	2097152	
2470.98	0	2097152	2097152	
2486.33	0	2097152	2097152	
2501.67	0	2097152	2097152	
2517.02	0	2097152	2097152	
2532.37	0	2097152	2097152	
2547.72	0	2097152	2097152	
2563.07	0	2097152	2097152	
2578.41	0	2097152	2097152	
2593.76	0	2097152	2097152	
2609.11	0	2097152	2097152	
2624.46	0	2097152	2097152	
2639.8	0	2097152	2097152	
2655.15	0	2097152	2097152	
2670.5	0	2097152	2097152	
2685.85	0	2097152	2097152	
2701.19	0	2097152	2097152	
2716.54	0	2097152	2097152	
2731.89	0	2097152	2097152	
2747.24	0	2097152	2097152	
2762.59	0	2097152	2097152	
2777.93	0	2097152	2097152	
2793.28	0	2097152	2097152	
2808.63	0	2097152	2097152	
2823.98	0	2097152	2097152	
2839.32	0	2097152	2097152	
2854.67	0	2097152	2097152	
2870.02	0	2097152	2097152	
2885.37	0	2097152	2097152	
2900.71	0	2097152	2097152	
2916.06	0	2097152	2097152	
2931.41	0	2097152	2097152	
2946.76	0	2097152	2097152	
2962.11	0	2097152	2097152	
2977.45	0	2097152	2097152	
2992.8	0	2097152	2097152	
3008.15	0	2097152	2097152	
3023.5	0	2097152	2097152	
3038.84	0	2097152	2097152	
3054.19	0	2097152	2097152	
3069.54	0	2097152	2097152	
3084.89	0	2097152	2097152	
3100.23	0	2097152	2097152	
3115.58	0	2097152	2097152	
3130.93	0	2097152	2097152	
3146.28	0	2097152	2097152	
3161.63	0	2097152	2097152	
3176.97	0	2097152	2097152	
3192.32	0	2097152	2097152	
3207.67	0	2097152	2097152	
3223.02	0	2097152	2097152	
3238.36	0	2097152	2097152	
3253.71	0	2097152	2097152	
3269.06	0	2097152	2097152	
3284.41	0	2097152	2097152	
3299.75	0	2097152	2097152	
3315.1	0	2097152	2097152	
3330.45	0	2097152	2097152	
3345.8	0	2097152	2097152	
3361.15	0	2097152	2097152	
3376.49	0	2097152	2097152	
3391.84	0	2097152	2097152	
3407.19	0	2097152	2097152	
3422.54	0	2097152	2097152	
3437.88	0	2097152	2097152	
3453.23	0	2097152	2097152	
3468.58	0	2097152	2097152	
3483.93	0	2097152	2097152	
3499.27	0	2097152	2097152	
3514.62	0	2097152	2097152	
3529.97	0	2097152	2097152	
3545.32	0	2097152	2097152	
3560.67	0	2097152	2097152	
3576.01	0	2097152	2097152	
3591.36	0	2097152	2097152	
3606.71	0	2097152	2097152	
3622.06	0	2097152	2097152	
3637.4	0	2097152	2097152	
3652.75	0	2097152	2097152	
3668.1	0	2097152	2097152	
3683.45	0	2097152	2097152	
3698.79	0	2097152	2097152	
3714.14	0	2097152	2097152	
3729.49	0	2097152	2097152	
3744.84	0	2097152	2097152	
3760.19	0	2097152	2097152	
3775.53	0	2097152	2097152	
3790.88	0	2097152	2097152	
3806.23	0	2097152	2097152	
3821.58	0	2097152	2097152	
3836.92	0	2097152	2097152	
3852.27	0	2097152	2097152	
3867.62	0	2097152	2097152	
3882.97	0	2097152	2097152	
3898.31	0	2097152	2097152	
3913.66	0	2097152	2097152	
3929.01	0	2097152	2097152	
3944.36	0	2097152	2097152	
3959.71	0	2097152	2097152	
3975.05	0	2097152	2097152	
3990.4	0	2097152	2097152	
4005.75	0	2097152	2097152	
4021.1	0	2097152	2097152	
4036.44	0	2097152	2097152	
4051.79	0	2097152	2097152	
4067.14	0	2097152	2097152	
4082.49	0	2097152	2097152	
4097.83	0	2097152	2097152	
4113.18	0	2097152	2097152	
4128.53	0	2097152	2097152	
4143.88	0	2097152	2097152	
4159.23	0	2097152	2097152	
4174.57	0	2097152	2097152	
4189.92	0	2097152	2097152	
4205.27	0	2097152	2097152	
4220.62	0	2097152	2097152	
4235.96	0	2097152	2097152	
4251.31	0	2097152	2097152	
4266.66	0	2097152	2097152	
4282.01	0	2097152	2097152	
4297.35	0	2097152	2097152	
4312.7	0	2097152	2097152	
4328.05	0	2097152	2097152	
4343.4	0	2097152	2097152	
4358.75	0	2097152	2097152	
4374.09	0	2097152	2097152	
4389.44	0	2097152	2097152	
4404.79	0	2097152	2097152	
4420.14	0	2097152	2097152	
4435.48	0	2097152	2097152	
4450.83	0	2097152	2097152	
4466.18	0	2097152	2097152	
4481.53	0	2097152	2097152	
4496.87	0	2097152	2097152	
4512.22	0	2097152	2097152	
4527.57	0	2097152	2097152	
4542.92	0	2097152	2097152	
4558.27	0	2097152	2097152	
4573.61	0	2097152	2097152	
4588.96	0	2097152	2097152	
4604.31	0	2097152	2097152	
4619.66	0	2097152	2097152	
4635	0	2097152	2097152	
4650.35	0	2097152	2097152	
4665.7	0	2097152	2097152	
4681.05	0	2097152	2097152	
4696.39	0	2097152	2097152	
4711.74	0	2097152	2097152	
4727.09	0	2097152	2097152	
4742.44	0	2097152	2097152	
4757.79	0	2097152	2097152	
4773.13	0	2097152	2097152	
4788.48	0	2097152	2097152	
4803.83	0	2097152	2097152	
4819.18	0	2097152	2097152	
4834.52	0	2097152	2097152	
4849.87	0	2097152	2097152	
4865.22	0	2097152	2097152	
4880.57	0	2097152	2097152	
4895.91	0	2097152	2097152	
4911.26	0	2097152	2097152	
4926.61	0	2097152	2097152	
4941.96	0	2097152	2097152	
4957.31	0	2097152	2097152	
4972.65	0	2097152	2097152	
4988	0	2097152	2097152	
5003.35	0	2097152	2097152	
5018.7	0	2097152	2097152	
5034.04	0	2097152	2097152	
5049.39	0	2097152	2097152	
5064.74	0	2097152	2097152	
5080.09	0	2097152	2097152	
5095.43	0	2097152	2097152	
5110.78	0	2097152	2097152	
5126.13	0	2097152	2097152	
5141.48	0	2097152	2097152	
5156.83	0	2097152	2097152	
5172.17	0	2097152	2097152	
5187.52	0	2097152	2097152	
5202.87	0	2097152	2097152	
5218.22	0	2097152	2097152	
5233.56	0	2097152	2097152	
5248.91	0	2097152	2097152	
5264.26	0	2097152	2097152	
5279.61	0	2097152	2097152	
5294.95	0	2097152	2097152	
5310.3	0	2097152	2097152	
5325.65	0	2097152	2097152	
5341	0	2097152	2097152	
5356.35	0	2097152	2097152	
5371.69	0	2097152	2097152	
5387.04	0	2097152	2097152	
5402.39	0	2097152	2097152	
5417.74	0	2097152	2097152	
5433.08	0	2097152	2097152	
5448.43	0	2097152	2097152	
5463.78	0	2097152	2097152	
5479.13	0	2097152	2097152	
5494.47	0	2097152	2097152	
5509.82	0	2097152	2097152	
5525.17	0	2097152	2097152	
5540.52	0	2097152	2097152	
5555.87	0	2097152	2097152	
5571.21	0	2097152	2097152	
5586.56	0	2097152	2097152	
5601.91	0	2097152	2097152	
5617.26	0	2097152	2097152	
5632.6	0	2097152	2097152	
5647.95	0	2097152	2097152	
5663.3	0	2097152	2097152	
5678.65	0	2097152	2097152	
5693.99	0	2097152	2097152	
5709.34	0	2097152	2097152	
5724.69	0	2097152	2097152	
5740.04	0	2097152	2097152	
5755.39	0	2097152	2097152	
5770.73	0	2097152	2097152	
5786.08	0	2097152	2097152	
5801.43	0	2097152	2097152	
5816.78	0	2097152	2097152	
5832.12	0	2097152	2097152	
5847.47	0	2097152	2097152	
5862.82	0	2097152	2097152	
5878.17	0	2097152	2097152	
5893.51	0	2097152	2097152	
5908.86	0	2097152	2097152	
5924.21	0	2097152	2097152	
5939.56	0	2097152	2097152	
5954.91	0	2097152	2097152	
5970.25	0	2097152	2097152	
5985.6	0	2097152	2097152	
6000.95	0	2097152	2097152	
6016.3	0	2097152	2097152	
6031.64	0	2097152	2097152	
6046.99	0	2097152	2097152	
6062.34	0	2097152	2097152	
6077.69	0	2097152	2097152	
6093.03	0	2097152	2097152	
6108.38	0	2097152	2097152	
6123.73	0	2097152	2097152	
6139.08	0	2097152	2097152	
6154.43	0	2097152	2097152	
6169.77	0	2097152	2097152	
6185.12	0	2097152	2097152	
6200.47	0	2097152	2097152	
6215.82	0	2097152	2097152	
6231.16	0	2097152	2097152	
6246.51	0	2097152	2097152	
6261.86	0	2097152	2097152	
6277.21	0	2097152	2097152	
6292.56	0	2097152	2097152	
6307.9	0	2097152	2097152	
6323.25	0	2097152	2097152	
6338.6	0	2097152	2097152	
6353.95	0	2097152	2097152	
6369.29	0	2097152	2097152	
6384.64	0	2097152	2097152	
6399.99	0	2097152	2097152	
6415.34	0	2097152	2097152	
6430.68	0	2097152	2097152	
6446.03	0	2097152	2097152	
6461.38	0	2097152	2097152	
6476.73	0	2097152	2097152	
6492.08	0	2097152	2097152	
6507.42	0	2097152	2097152	
6522.77	0	2097152	2097152	
6538.12	0	2097152	2097152	
6553.47	0	2097152	2097152	
6568.81	0	2097152	2097152	
6584.16	0	2097152	2097152	
6599.51	0	2097152	2097152	
6614.86	0	2097152	2097152	
6630.2	0	2097152	2097152	
6645.55	0	2097152	2097152	
6660.9	0	2097152	2097152	
6676.25	0	2097152	2097152	
6691.6	0	2097152	2097152	
6706.94	0	2097152	2097152	
6722.29	0	2097152	2097152	
6737.64	0	2097152	2097152	
6752.99	0	2097152	2097152	
6768.33	0	2097152	2097152	
6783.68	0	2097152	2097152	
6799.03	0	2097152	2097152	
6814.38	0	2097152	2097152	
6829.72	0	2097152	2097152	
6845.07	0	2097152	2097152	
6860.42	0	2097152	2097152	
6875.77	0	2097152	2097152	
6891.12	0	2097152	2097152	
6906.46	0	2097152	2097152	
6921.81	0	2097152	2097152	
6937.16	0	2097152	2097152	
6952.51	0	2097152	2097152	
6967.85	0	2097152	2097152	
6983.2	0	2097152	2097152	
6998.55	0	2097152	2097152	
7013.9	0	2097152	2097152	
7029.24	0	2097152	2097152	
7044.59	0	2097152	2097152	
7059.94	0	2097152	2097152	
7075.29	0	2097152	2097152	
7090.64	0	2097152	2097152	
7105.98	0	2097152	2097152	
7121.33	0	2097152	2097152	
7136.68	0	2097152	2097152	
7152.03	0	2097152	2097152	
7167.37	0	2097152	2097152	
7182.72	0	2097152	2097152	
7198.07	0	2097152	2097152	
7213.42	0	2097152	2097152	
7228.76	0	2097152	2097152	
7244.11	0	2097152	2097152	
7259.46	0	2097152	2097152	
7274.81	0	2097152	2097152	
7290.16	0	2097152	2097152	
7305.5	0	2097152	2097152	
7320.85	0	2097152	2097152	
7336.2	0	2097152	2097152	
7351.55	0	2097152	2097152	
7366.89	0	2097152	2097152	
7382.24	0	2097152	2097152	
7397.59	0	2097152	2097152	
7412.94	0	2097152	2097152	
7428.28	0	2097152	2097152	
7443.63	0	2097152	2097152	
7458.98	0	2097152	2097152	
7474.33	0	2097152	2097152	
7489.68	0	2097152	2097152	
7505.02	0	2097152	2097152	
7520.37	0	2097152	2097152	
7535.72	0	2097152	2097152	
7551.07	0	2097152	2097152	
7566.41	0	2097152	2097152	
7581.76	0	2097152	2097152	
7597.11	0	2097152	2097152	
7612.46	0	2097152	2097152	
7627.8	0	2097152	2097152	
7643.15	0	2097152	2097152	
7658.5	0	2097152	2097152	
7673.85	0	2097152	2097152	
7689.2	0	2097152	2097152	
7704.54	0	2097152	2097152	
7719.89	0	2097152	2097152	
7735.24	0	2097152	2097152	
7750.59	0	2097152	2097152	
7765.93	0	2097152	2097152	
7781.28	0	2097152	2097152	
7796.63	0	2097152	2097152	
7811.98	0	2097152	2097152	
7827.32	0	2097152	2097152	
7842.67	0	2097152	2097152	
7858.02	0	2097152	2097152	
7873.37	0	2097152	2097152	
7888.72	0	2097152	2097152	
7904.06	0	2097152	2097152	
7919.41	0	2097152	2097152	
7934.76	0	2097152	2097152	
7950.11	0	2097152	2097152	
7965.45	0	2097152	2097152	
7980.8	0	2097152	2097152	
7996.15	0	2097152	2097152	
8011.5	0	2097152	2097152	
8026.84	0	2097152	2097152	
8042.19	0	2097152	2097152	
8057.54	0	2097152	2097152	
8072.89	0	2097152	2097152	
8088.24	0	2097152	2097152	
8103.58	0	2097152	2097152	
8118.93	0	2097152	2097152	
8134.28	0	2097152	2097152	
8149.63	0	2097152	2097152	
8164.97	0	2097152	2097152	
8180.32	0	2097152	2097152	
8195.67	0	2097152	2097152	
8211.02	0	2097152	2097152	
8226.36	0	2097152	2097152	
8241.71	0	2097152	2097152	
8257.06	0	2097152	2097152	
8272.41	0	2097152	2097152	
8287.76	0	2097152	2097152	
8303.1	0	2097152	2097152	
8318.45	0	2097152	2097152	
8333.8	0	2097152	2097152	
8349.15	0	2097152	2097152	
8364.49	0	2097152	2097152	
8379.84	0	2097152	2097152	
8395.19	0	2097152	2097152	
8410.54	0	2097152	2097152	
8425.88	0	2097152	2097152	
8441.23	0	2097152	2097152	
8456.58	0	2097152	2097152	
8471.93	0	2097152	2097152	
8487.28	0	2097152	2097152	
8502.62	0	2097152	2097152	
8517.97	0	2097152	2097152	
8533.32	0	2097152	2097152	
8548.67	0	2097152	2097152	
8564.01	0	2097152	2097152	
8579.36	0	2097152	2097152	
8594.71	0	2097152	2097152	
8610.06	0	2097152	2097152	
8625.4	0	2097152	2097152	
8640.75	0	2097152	2097152	
8656.1	0	2097152	2097152	
8671.45	0	2097152	2097152	
8686.8	0	2097152	2097152	
8702.14	0	2097152	2097152	
8717.49	0	2097152	2097152	
8732.84	0	2097152	2097152	
8748.19	0	2097152	2097152	
8763.53	0	2097152	2097152	
8778.88	0	2097152	2097152	
8794.23	0	2097152	2097152	
8809.58	0	2097152	2097152	
8824.92	0	2097152	2097152	
8840.27	0	2097152	2097152	
8855.62	0	2097152	2097152	
8870.97	0	2097152	2097152	
8886.32	0	2097152	2097152	
8901.66	0	2097152	2097152	
8917.01	0	2097152	2097152	
8932.36	0	2097152	2097152	
8947.71	0	2097152	2097152	
8963.05	0	2097152	2097152	
8978.4	0	2097152	2097152	
8993.75	0	2097152	2097152	
9009.1	0	2097152	2097152	
9024.44	0	2097152	2097152	
9039.79	0	2097152	2097152	
9055.14	0	2097152	2097152	
9070.49	0	2097152	2097152	
9085.84	0	2097152	2097152	
9101.18	0	2097152	2097152	
9116.53	0	2097152	2097152	
9131.88	0	2097152	2097152	
9147.23	0	2097152	2097152	
9162.57	0	2097152	2097152	
9177.92	0	2097152	2097152	
9193.27	0	2097152	2097152	
9208.62	0	2097152	2097152	
9223.96	0	2097152	2097152	
9239.31	0	2097152	2097152	
9254.66	0	2097152	2097152	
9270.01	0	2097152	2097152	
9285.36	0	2097152	2097152	
9300.7	0	2097152	2097152	
9316.05	0	2097152	2097152	
9331.4	0	2097152	2097152	
9346.75	0	2097152	2097152	
9362.09	0	2097152	2097152	
9377.44	0	2097152	2097152	
9392.79	0	2097152	2097152	
9408.14	0	2097152	2097152	
9423.48	0	2097152	2097152	
9438.83	0	2097152	2097152	
9454.18	0	2097152	2097152	
9469.53	0	2097152	2097152	
9484.88	0	2097152	2097152	
9500.22	0	2097152	2097152	
9515.57	0	2097152	2097152	
9530.92	0	2097152	2097152	
9546.27	0	2097152	2097152	
9561.61	0	2097152	2097152	
9576.96	0	2097152	2097152	
9592.31	0	2097152	2097152	
9607.66	0	2097152	2097152	
9623	0	2097152	2097152	
9638.35	0	2097152	2097152	
9653.7	0	2097152	2097152	
9669.05	0	2097152	2097152	
9684.4	0	2097152	2097152	
9699.74	0	2097152	2097152	
9715.09	0	2097152	2097152	
9730.44	0	2097152	2097152	
9745.79	0	2097152	2097152	
9761.13	0	2097152	2097152	
9776.48	0	2097152	2097152	
9791.83	0	2097152	2097152	
9807.18	0	2097152	2097152	
9822.52	0	2097152	2097152	
9837.87	0	2097152	2097152	
9853.22	0	2097152	2097152	
9868.57	0	2097152	2097152	
9883.92	0	2097152	2097152	
9899.26	0	2097152	2097152	
9914.61	0	2097152	2097152	
9929.96	0	2097152	2097152	
9945.31	0	2097152	2097152	
9960.65	0	2097152	2097152	
9976	0	2097152	2097152	
9991.35	0	2097152	2097152	
10006.7	0	2097152	2097152	
10022	0	2097152	2097152	
10037.4	0	2097152	2097152	
10052.7	0	2097152	2097152	
10068.1	0	2097152	2097152	
10083.4	0	2097152	2097152	
10098.8	0	2097152	2097152	
10114.1	0	2097152	2097152	
10129.5	0	2097152	2097152	
10144.8	0	2097152	2097152	
10160.2	0	2097152	2097152	
10175.5	0	2097152	2097152	
10190.9	0	2097152	2097152	
10206.2	0	2097152	2097152	
10221.6	0	2097152	2097152	
10236.9	0	2097152	2097152	
10252.3	0	2097152	2097152	
10267.6	0	2097152	2097152	
10283	0	2097152	2097152	
10298.3	0	2097152	2097152	
10313.7	0	2097152	2097152	
10329	0	2097152	2097152	
10344.3	0	2097152	2097152	
10359.7	0	2097152	2097152	
10375	0	2097152	2097152	
10390.4	0	2097152	2097152	
10405.7	0	2097152	2097152	
10421.1	0	2097152	2097152	
10436.4	0	2097152	2097152	
10451.8	0	2097152	2097152	
10467.1	0	2097152	2097152	
10482.5	0	2097152	2097152	
10497.8	0	2097152	2097152	
10513.2	0	2097152	2097152	
10528.5	0	2097152	2097152	
10543.9	0	2097152	2097152	
10559.2	0	2097152	2097152	
10574.6	0	2097152	2097152	
10589.9	0	2097152	2097152	
10605.3	0	2097152	2097152	
10620.6	0	2097152	2097152	
10636	0	2097152	2097152	
10651.3	0	2097152	2097152	
10666.6	0	2097152	2097152	
10682	0	2097152	2097152	
10697.3	0	2097152	2097152	
10712.7	0	2097152	2097152	
10728	0	2097152	2097152	
10743.4	0	2097152	2097152	
10758.7	0	2097152	2097152	
10774.1	0	2097152	2097152	
10789.4	0	2097152	2097152	
10804.8	0	2097152	2097152	
10820.1	0	2097152	2097152	
10835.5	0	2097152	2097152	
10850.8	0	2097152	2097152	
10866.2	0	2097152	2097152	
10881.5	0	2097152	2097152	
10896.9	0	2097152	2097152	
10912.2	0	2097152	2097152	
10927.6	0	2097152	2097152	
10942.9	0	2097152	2097152	
10958.3	0	2097152	2097152	
10973.6	0	2097152	2097152	
10988.9	0	2097152	2097152	
11004.3	0	2097152	2097152	
11019.6	0	2097152	2097152	
11035	0	2097152	2097152	
11050.3	0	2097152	2097152	
11065.7	0	2097152	2097152	
11081	0	2097152	2097152	
11096.4	0	2097152	2097152	
11111.7	0	2097152	2097152	
11127.1	0	2097152	2097152	
11142.4	0	2097152	2097152	
11157.8	0	2097152	2097152	
11173.1	0	2097152	2097152	
11188.5	0	2097152	2097152	
11203.8	0	2097152	2097152	
11219.2	0	2097152	2097152	
11234.5	0	2097152	2097152	
11249.9	0	2097152	2097152	
11265.2	0	2097152	2097152	
11280.6	0	2097152	2097152	
11295.9	0	2097152	2097152	
11311.3	0	2097152	2097152	
11326.6	0	2097152	2097152	
11341.9	0	2097152	2097152	
11357.3	0	2097152	2097152	
11372.6	0	2097152	2097152	
11388	0	2097152	2097152	
11403.3	0	2097152	2097152	
11418.7	0	2097152	2097152	
11434	0	2097152	2097152	
11449.4	0	2097152	2097152	
11464.7	0	2097152	2097152	
11480.1	0	2097152	2097152	
11495.4	0	2097152	2097152	
11510.8	0	2097152	2097152	
11526.1	0	2097152	2097152	
11541.5	0	2097152	2097152	
11556.8	0	2097152	2097152	
11572.2	0	2097152	2097152	
11587.5	0	2097152	2097152	
11602.9	0	2097152	2097152	
11618.2	0	2097152	2097152	
11633.6	0	2097152	2097152	
11648.9	0	2097152	2097152	
11664.2	0	2097152	2097152	
11679.6	0	2097152	2097152	
11694.9	0	2097152	2097152	
11710.3	0	2097152	2097152	
11725.6	0	2097152	2097152	
11741	0	2097152	2097152	
11756.3	0	2097152	2097152	
11771.7	0	2097152	2097152	
11787	0	2097152	2097152	
11802.4	0	2097152	2097152	
11817.7	0	2097152	2097152	
11833.1	0	2097152	2097152	
11848.4	0	2097152	2097152	
11863.8	0	2097152	2097152	
11879.1	0	2097152	2097152	
11894.5	0	2097152	2097152	
11909.8	0	2097152	2097152	
11925.2	0	2097152	2097152	
11940.5	0	2097152	2097152	
11955.9	0	2097152	2097152	
11971.2	0	2097152	2097152	
11986.5	0	2097152	2097152	
12001.9	0	2097152	2097152	
12017.2	0	2097152	2097152	
12032.6	0	2097152	2097152	
12047.9	0	2097152	2097152	
12063.3	0	2097152	2097152	
12078.6	0	2097152	2097152	
12094	0	2097152	2097152	
12109.3	0	2097152	2097152	
12124.7	0	2097152	2097152	
12140	0	2097152	2097152	
12155.4	0	2097152	2097152	
12170.7	0	2097152	2097152	
12186.1	0	2097152	2097152	
12201.4	0	2097152	2097152	
12216.8	0	2097152	2097152	
12232.1	0	2097152	2097152	
12247.5	0	2097152	2097152	
12262.8	0	2097152	2097152	
12278.2	0	2097152	2097152	
12293.5	0	2097152	2097152	
12308.9	0	2097152	2097152	
12324.2	0	2097152	2097152	
12339.5	0	2097152	2097152	
12354.9	0	2097152	2097152	
12370.2	0	2097152	2097152	
12385.6	0	2097152	2097152	
12400.9	0	2097152	2097152	
12416.3	0	2097152	2097152	
12431.6	0	2097152	2097152	
12447	0	2097152	2097152	
12462.3	0	2097152	2097152	
12477.7	0	2097152	2097152	
12493	0	2097152	2097152	
12508.4	0	2097152	2097152	
12523.7	0	2097152	2097152	
12539.1	0	2097152	2097152	
12554.4	0	2097152	2097152	
12569.8	0	2097152	2097152	
12585.1	0	2097152	2097152	
12600.5	0	2097152	2097152	
12615.8	0	2097152	2097152	
12631.2	0	2097152	2097152	
12646.5	0	2097152	2097152	
12661.8	0	2097152	2097152	
12677.2	0	2097152	2097152	
12692.5	0	2097152	2097152	
12707.9	0	2097152	2097152	
12723.2	0	2097152	2097152	
12738.6	0	2097152	2097152	
12753.9	0	2097152	2097152	
12769.3	0	2097152	2097152	
12784.6	0	2097152	2097152	
12800	0	2097152	2097152	
12815.3	0	2097152	2097152	
12830.7	0	2097152	2097152	
12846	0	2097152	2097152	
12861.4	0	2097152	2097152	
12876.7	0	2097152	2097152	
12892.1	0	2097152	2097152	
12907.4	0	2097152	2097152	
12922.8	0	2097152	2097152	
12938.1	0	2097152	2097152	
12953.5	0	2097152	2097152	
12968.8	0	2097152	2097152	
12984.2	0	2097152	2097152	
12999.5	0	2097152	2097152	
13014.8	0	2097152	2097152	
13030.2	0	2097152	2097152	
13045.5	0	2097152	2097152	
13060.9	0	2097152	2097152	
13076.2	0	2097152	2097152	
13091.6	0	2097152	2097152	
13106.9	0	2097152	2097152	
13122.3	0	2097152	2097152	
13137.6	0	2097152	2097152	
13153	0	2097152	2097152	
13168.3	0	2097152	2097152	
13183.7	0	2097152	2097152	
13199	0	2097152	2097152	
13214.4	0	2097152	2097152	
13229.7	0	2097152	2097152	
13245.1	0	2097152	2097152	
13260.4	0	2097152	2097152	
13275.8	0	2097152	2097152	
13291.1	0	2097152	2097152	
13306.5	0	2097152	2097152	
13321.8	0	2097152	2097152	
13337.1	0	2097152	2097152	
13352.5	0	2097152	2097152	
13367.8	0	2097152	2097152	
13383.2	0	2097152	2097152	
13398.5	0	2097152	2097152	
13413.9	0	2097152	2097152	
13429.2	0	2097152	2097152	
13444.6	0	2097152	2097152	
13459.9	0	2097152	2097152	
13475.3	0	2097152	2097152	
13490.6	0	2097152	2097152	
13506	0	2097152	2097152	
13521.3	0	2097152	2097152	
13536.7	0	2097152	2097152	
13552	0	2097152	2097152	
13567.4	0	2097152	2097152	
13582.7	0	2097152	2097152	
13598.1	0	2097152	2097152	
13613.4	0	2097152	2097152	
13628.8	0	2097152	2097152	
13644.1	0	2097152	2097152	
13659.4	0	2097152	2097152	
13674.8	0	2097152	2097152	
13690.1	0	2097152	2097152	
13705.5	0	2097152	2097152	
13720.8	0	2097152	2097152	
13736.2	0	2097152	2097152	
13751.5	0	2097152	2097152	
13766.9	0	2097152	2097152	
13782.2	0	2097152	2097152	
13797.6	0	2097152	2097152	
13812.9	0	2097152	2097152	
13828.3	0	2097152	2097152	
13843.6	0	2097152	2097152	
13859	0	2097152	2097152	
13874.3	0	2097152	2097152	
13889.7	0	2097152	2097152	
13905	0	2097152	2097152	
13920.4	0	2097152	2097152	
13935.7	0	2097152	2097152	
13951.1	0	2097152	2097152	
13966.4	0	2097152	2097152	
13981.8	0	2097152	2097152	
13997.1	0	2097152	2097152	
14012.4	0	2097152	2097152	
14027.8	0	2097152	2097152	
14043.1	0	2097152	2097152	
14058.5	0	2097152	2097152	
14073.8	0	2097152	2097152	
14089.2	0	2097152	2097152	
14104.5	0	2097152	2097152	
14119.9	0	2097152	2097152	
14135.2	0	2097152	2097152	
14150.6	0	2097152	2097152	
14165.9	0	2097152	2097152	
14181.3	0	2097152	2097152	
14196.6	0	2097152	2097152	
14212	0	2097152	2097152	
14227.3	0	2097152	2097152	
14242.7	0	2097152	2097152	
14258	0	2097152	2097152	
14273.4	0	2097152	2097152	
14288.7	0	2097152	2097152	
14304.1	0	2097152	2097152	
14319.4	0	2097152	2097152	
14334.7	0	2097152	2097152	
14350.1	0	2097152	2097152	
14365.4	0	2097152	2097152	
14380.8	0	2097152	2097152	
14396.1	0	2097152	2097152	
14411.5	0	2097152	2097152	
14426.8	0	2097152	2097152	
14442.2	0	2097152	2097152	
14457.5	0	2097152	2097152	
14472.9	0	2097152	2097152	
14488.2	0	2097152	2097152	
14503.6	0	2097152	2097152	
14518.9	0	2097152	2097152	
14534.3	0	2097152	2097152	
14549.6	0	2097152	2097152	
14565	0	2097152	2097152	
14580.3	0	2097152	2097152	
14595.7	0	2097152	2097152	
14611	0	2097152	2097152	
14626.4	0	2097152	2097152	
14641.7	0	2097152	2097152	
14657	0	2097152	2097152	
14672.4	0	2097152	2097152	
14687.7	0	2097152	2097152	
14703.1	0	2097152	2097152	
14718.4	0	2097152	2097152	
14733.8	0	2097152	2097152	
14749.1	0	2097152	2097152	
14764.5	0	2097152	2097152	
14779.8	0	2097152	2097152	
14795.2	0	2097152	2097152	
14810.5	0	2097152	2097152	
14825.9	0	2097152	2097152	
14841.2	0	2097152	2097152	
14856.6	0	2097152	2097152	
14871.9	0	2097152	2097152	
14887.3	0	2097152	2097152	
14902.6	0	2097152	2097152	
14918	0	2097152	2097152	
14933.3	0	2097152	2097152	
14948.7	0	2097152	2097152	
14964	0	2097152	2097152	
14979.4	0	2097152	2097152	
14994.7	0	2097152	2097152	
15010	0	2097152	2097152	
15025.4	0	2097152	2097152	
15040.7	0	2097152	2097152	
15056.1	0	2097152	2097152	
15071.4	0	2097152	2097152	
15086.8	0	2097152	2097152	
15102.1	0	2097152	2097152	
15117.5	0	2097152	2097152	
15132.8	0	2097152	2097152	
15148.2	0	2097152	2097152	
15163.5	0	2097152	2097152	
15178.9	0	2097152	2097152	
15194.2	0	2097152	2097152	
15209.6	0	2097152	2097152	
15224.9	0	2097152	2097152	
15240.3	0	2097152	2097152	
15255.6	0	2097152	2097152	
15271	0	2097152	2097152	
15286.3	0	2097152	2097152	
15301.7	0	2097152	2097152	
15317	0	2097152	2097152	
15332.3	0	2097152	2097152	
15347.7	0	2097152	2097152	
15363	0	2097152	2097152	
15378.4	0	2097152	2097152	
15393.7	0	2097152	2097152	
15409.1	0	2097152	2097152	
15424.4	0	2097152	2097152	
15439.8	0	2097152	2097152	
15455.1	0	2097152	2097152	
15470.5	0	2097152	2097152	
15485.8	0	2097152	2097152	
15501.2	0	2097152	2097152	
15516.5	0	2097152	2097152	
15531.9	0	2097152	2097152	
15547.2	0	2097152	2097152	
15562.6	0	2097152	2097152	
15577.9	0	2097152	2097152	
15593.3	0	2097152	2097152	
15608.6	0	2097152	2097152	
15624	0	2097152	2097152	
15639.3	0	2097152	2097152	
15654.6	0	2097152	2097152	
15670	0	2097152	2097152	
15685.3	0	2097152	2097152	
15700.7	0	2097152	2097152	
15716	0	2097152	2097152	
15731.4	0	2097152	2097152	
15746.7	0	2097152	2097152	
15762.1	0	2097152	2097152	
15777.4	0	2097152	2097152	
15792.8	0	2097152	2097152	
15808.1	0	2097152	2097152	
15823.5	0	2097152	2097152	
15838.8	0	2097152	2097152	
15854.2	0	2097152	2097152	
15869.5	0	2097152	2097152	
15884.9	0	2097152	2097152	
15900.2	0	2097152	2097152	
15915.6	0	2097152	2097152	
15930.9	0	2097152	2097152	
15946.3	0	2097152	2097152	
15961.6	0	2097152	2097152	
15977	0	2097152	2097152	
15992.3	0	2097152	2097152	
16007.6	0	2097152	2097152	
16023	0	2097152	2097152	
16038.3	0	2097152	2097152	
16053.7	0	2097152	2097152	
16069	0	2097152	2097152	
16084.4	0	2097152	2097152	
16099.7	0	2097152	2097152	
16115.1	0	2097152	2097152	
16130.4	0	2097152	2097152	
16145.8	0	2097152	2097152	
16161.1	0	2097152	2097152	
16176.5	0	2097152	2097152	
16191.8	0	2097152	2097152	
16207.2	0	2097152	2097152	
16222.5	0	2097152	2097152	
16237.9	0	2097152	2097152	
16253.2	0	2097152	2097152	
16268.6	0	2097152	2097152	
16283.9	0	2097152	2097152	
16299.3	0	2097152	2097152	
16314.6	0	2097152	2097152	
16329.9	0	2097152	2097152	
16345.3	0	2097152	2097152	
16360.6	0	2097152	2097152	
16376	0	2097152	2097152	
16391.3	0	2097152	2097152	
16406.7	0	2097152	2097152	
16422	0	2097152	2097152	
16437.4	0	2097152	2097152	
16452.7	0	2097152	2097152	
16468.1	0	2097152	2097152	
16483.4	0	2097152	2097152	
16498.8	0	2097152	2097152	
16514.1	0	2097152	2097152	
16529.5	0	2097152	2097152	
16544.8	0	2097152	2097152	
16560.2	0	2097152	2097152	
16575.5	0	2097152	2097152	
16590.9	0	2097152	2097152	
16606.2	0	2097152	2097152	
16621.6	0	2097152	2097152	
16636.9	0	2097152	2097152	
16652.2	0	2097152	2097152	
16667.6	0	2097152	2097152	
16682.9	0	2097152	2097152	
16698.3	0	2097152	2097152	
16713.6	0	2097152	2097152	
16729	0	2097152	2097152	
16744.3	0	2097152	2097152	
16759.7	0	2097152	2097152	
16775	0	2097152	2097152	
16790.4	0	2097152	2097152	
16805.7	0	2097152	2097152	
16821.1	0	2097152	2097152	
16836.4	0	2097152	2097152	
16851.8	0	2097152	2097152	
16867.1	0	2097152	2097152	
16882.5	0	2097152	2097152	
16897.8	0	2097152	2097152	
16913.2	0	2097152	2097152	
16928.5	0	2097152	2097152	
16943.9	0	2097152	2097152	
16959.2	0	2097152	2097152	
16974.6	0	2097152	2097152	
16989.9	0	2097152	2097152	
17005.2	0	2097152	2097152	
17020.6	0	2097152	2097152	
17035.9	0	2097152	2097152	
17051.3	0	2097152	2097152	
17066.6	0	2097152	2097152	
17082	0	2097152	2097152	
17097.3	0	2097152	2097152	
17112.7	0	2097152	2097152	
17128	0	2097152	2097152	
17143.4	0	2097152	2097152	
17158.7	0	2097152	2097152	
17174.1	0	2097152	2097152	
17189.4	0	2097152	2097152	
17204.8	0	2097152	2097152	
17220.1	0	2097152	2097152	
17235.5	0	2097152	2097152	
17250.8	0	2097152	2097152	
17266.2	0	2097152	2097152	
17281.5	0	2097152	2097152	
17296.9	0	2097152	2097152	
17312.2	0	2097152	2097152	
17327.5	0	2097152	2097152	
17342.9	0	2097152	2097152	
17358.2	0	2097152	2097152	
17373.6	0	2097152	2097152	
17388.9	0	2097152	2097152	
17404.3	0	2097152	2097152	
17419.6	0	2097152	2097152	
17435	0	2097152	2097152	
17450.3	0	2097152	2097152	
17465.7	0	2097152	2097152	
17481	0	2097152	2097152	
17496.4	0	2097152	2097152	
17511.7	0	2097152	2097152	
17527.1	0	2097152	2097152	
17542.4	0	2097152	2097152	
17557.8	0	2097152	2097152	
17573.1	0	2097152	2097152	
17588.5	0	2097152	2097152	
17603.8	0	2097152	2097152	
17619.2	0	2097152	2097152	
17634.5	0	2097152	2097152	
17649.8	0	2097152	2097152	
17665.2	0	2097152	2097152	
17680.5	0	2097152	2097152	
17695.9	0	2097152	2097152	
17711.2	0	2097152	2097152	
17726.6	0	2097152	2097152	
17741.9	0	2097152	2097152	
17757.3	0	2097152	2097152	
17772.6	0	2097152	2097152	
17788	0	2097152	2097152	
17803.3	0	2097152	2097152	
17818.7	0	2097152	2097152	
17834	0	2097152	2097152	
17849.4	0	2097152	2097152	
17864.7	0	2097152	2097152	
17880.1	0	2097152	2097152	
17895.4	0	2097152	2097152	
17910.8	0	2097152	2097152	
17926.1	0	2097152	2097152	
17941.5	0	2097152	2097152	
17956.8	0	2097152	2097152	
17972.2	0	2097152	2097152	
17987.5	0	2097152	2097152	
18002.8	0	2097152	2097152	
18018.2	0	2097152	2097152	
18033.5	0	2097152	2097152	
18048.9	0	2097152	2097152	
18064.2	0	2097152	2097152	
18079.6	0	2097152	2097152	
18094.9	0	2097152	2097152	
18110.3	0	2097152	2097152	
18125.6	0	2097152	2097152	
18141	0	2097152	2097152	
18156.3	0	2097152	2097152	
18171.7	0	2097152	2097152	
18187	0	2097152	2097152	
18202.4	0	2097152	2097152	
18217.7	0	2097152	2097152	
18233.1	0	2097152	2097152	
18248.4	0	2097152	2097152	
18263.8	0	2097152	2097152	
18279.1	0	2097152	2097152	
18294.5	0	2097152	2097152	
18309.8	0	2097152	2097152	
18325.1	0	2097152	2097152	
18340.5	0	2097152	2097152	
18355.8	0	2097152	2097152	
18371.2	0	2097152	2097152	
18386.5	0	2097152	2097152	
18401.9	0	2097152	2097152	
18417.2	0	2097152	2097152	
18432.6	0	2097152	2097152	
18447.9	0	2097152	2097152	
18463.3	0	2097152	2097152	
18478.6	0	2097152	2097152	
18494	0	2097152	2097152	
18509.3	0	2097152	2097152	
18524.7	0	2097152	2097152	
18540	0	2097152	2097152	
18555.4	0	2097152	2097152	
18570.7	0	2097152	2097152	
18586.1	0	2097152	2097152	
18601.4	0	2097152	2097152	
18616.8	0	2097152	2097152	
18632.1	0	2097152	2097152	
18647.4	0	2097152	2097152	
18662.8	0	2097152	2097152	
18678.1	0	2097152	2097152	
18693.5	0	2097152	2097152	
18708.8	0	2097152	2097152	
18724.2	0	2097152	2097152	
18739.5	0	2097152	2097152	
18754.9	0	2097152	2097152	
18770.2	0	2097152	2097152	
18785.6	0	2097152	2097152	
18800.9	0	2097152	2097152	
18816.3	0	2097152	2097152	
18831.6	0	2097152	2097152	
18847	0	2097152	2097152	
18862.3	0	2097152	2097152	
18877.7	0	2097152	2097152	
18893	0	2097152	2097152	
18908.4	0	2097152	2097152	
18923.7	0	2097152	2097152	
18939.1	0	2097152	2097152	
18954.4	0	2097152	2097152	
18969.8	0	2097152	2097152	
18985.1	0	2097152	2097152	
19000.4	0	2097152	2097152	
19015.8	0	2097152	2097152	
19031.1	0	2097152	2097152	
19046.5	0	2097152	2097152	
19061.8	0	2097152	2097152	
19077.2	0	2097152	2097152	
19092.5	0	2097152	2097152	
19107.9	0	2097152	2097152	
19123.2	0	2097152	2097152	
19138.6	0	2097152	2097152	
19153.9	0	2097152	2097152	
19169.3	0	2097152	2097152	
19184.6	0	2097152	2097152	
19200	0	2097152	2097152	
19215.3	0	2097152	2097152	
19230.7	0	2097152	2097152	
19246	0	2097152	2097152	
19261.4	0	2097152	2097152	
19276.7	0	2097152	2097152	
19292.1	0	2097152	2097152	
19307.4	0	2097152	2097152	
19322.7	0	2097152	2097152	
19338.1	0	2097152	2097152	
19353.4	0	2097152	2097152	
19368.8	0	2097152	2097152	
19384.1	0	2097152	2097152	
19399.5	0	2097152	2097152	
19414.8	0	2097152	2097152	
19430.2	0	2097152	2097152	
19445.5	0	2097152	2097152	
19460.9	0	2097152	2097152	
19476.2	0	2097152	2097152	
19491.6	0	2097152	2097152	
19506.9	0	2097152	2097152	
19522.3	0	2097152	2097152	
19537.6	0	2097152	2097152	
19553	0	2097152	2097152	
19568.3	0	2097152	2097152	
19583.7	0	2097152	2097152	
19599	0	2097152	2097152	
19614.4	0	2097152	2097152	
19629.7	0	2097152	2097152	
19645	0	2097152	2097152	
19660.4	0	2097152	2097152	
19675.7	0	2097152	2097152	
19691.1	0	2097152	2097152	
19706.4	0	2097152	2097152	
19721.8	0	2097152	2097152	
19737.1	0	2097152	2097152	
19752.5	0	2097152	2097152	
19767.8	0	2097152	2097152	
19783.2	0	2097152	2097152	
19798.5	0	2097152	2097152	
19813.9	0	2097152	2097152	
19829.2	0	2097152	2097152	
19844.6	0	2097152	2097152	
19859.9	0	2097152	2097152	
19875.3	0	2097152	2097152	
19890.6	0	2097152	2097152	
19906	0	2097152	2097152	
19921.3	0	2097152	2097152	
19936.7	0	2097152	2097152	
19952	0	2097152	2097152	
19967.4	0	2097152	2097152	
19982.7	0	2097152	2097152	
19998	0	2097152	2097152	
20013.4	0	2097152	2097152	
20028.7	0	2097152	2097152	
20044.1	0	2097152	2097152	
20059.4	0	2097152	2097152	
20074.8	0	2097152	2097152	
20090.1	0	2097152	2097152	
20105.5	0	2097152	2097152	
20120.8	0	2097152	2097152	
20136.2	0	2097152	2097152	
20151.5	0	2097152	2097152	
20166.9	0	2097152	2097152	
20182.2	0	2097152	2097152	
20197.6	0	2097152	2097152	
20212.9	0	2097152	2097152	
20228.3	0	2097152	2097152	
20243.6	0	2097152	2097152	
20259	0	2097152	2097152	
20274.3	0	2097152	2097152	
20289.7	0	2097152	2097152	
20305	0	2097152	2097152	
20320.3	0	2097152	2097152	
20335.7	0	2097152	2097152	
20351	0	2097152	2097152	
20366.4	0	2097152	2097152	
20381.7	0	2097152	2097152	
20397.1	0	2097152	2097152	
20412.4	0	2097152	2097152	
20427.8	0	2097152	2097152	
20443.1	0	2097152	2097152	
20458.5	0	2097152	2097152	
20473.8	0	2097152	2097152	
20489.2	0	2097152	2097152	
20504.5	0	2097152	2097152	
20519.9	0	2097152	2097152	
20535.2	0	2097152	2097152	
20550.6	0	2097152	2097152	
20565.9	0	2097152	2097152	
20581.3	0	2097152	2097152	
20596.6	0	2097152	2097152	
20612	0	2097152	2097152	
20627.3	0	2097152	2097152	
20642.7	0	2097152	2097152	
20658	0	2097152	2097152	
20673.3	0	2097152	2097152	
20688.7	0	2097152	2097152	
20704	0	2097152	2097152	
20719.4	0	2097152	2097152	
20734.7	0	2097152	2097152	
20750.1	0	2097152	2097152	
20765.4	0	2097152	2097152	
20780.8	0	2097152	2097152	
20796.1	0	2097152	2097152	
20811.5	0	2097152	2097152	
20826.8	0	2097152	2097152	
20842.2	0	2097152	2097152	
20857.5	0	2097152	2097152	
20872.9	0	2097152	2097152	
20888.2	0	2097152	2097152	
20903.6	0	2097152	2097152	
20918.9	0	2097152	2097152	
20934.3	0	2097152	2097152	
20949.6	0	2097152	2097152	
20965	0	2097152	2097152	
20980.3	0	2097152	2097152	
20995.6	0	2097152	2097152	
21011	0	2097152	2097152	
21026.3	0	2097152	2097152	
21041.7	0	2097152	2097152	
21057	0	2097152	2097152	
21072.4	0	2097152	2097152	
21087.7	0	2097152	2097152	
21103.1	0	2097152	2097152	
21118.4	0	2097152	2097152	
21133.8	0	2097152	2097152	
21149.1	0	2097152	2097152	
21164.5	0	2097152	2097152	
21179.8	0	2097152	2097152	
21195.2	0	2097152	2097152	
21210.5	0	2097152	2097152	
21225.9	0	2097152	2097152	
21241.2	0	2097152	2097152	
21256.6	0	2097152	2097152	
21271.9	0	2097152	2097152	
21287.3	0	2097152	2097152	
21302.6	0	2097152	2097152	
21317.9	0	2097152	2097152	
21333.3	0	2097152	2097152	
21348.6	0	2097152	2097152	
21364	0	2097152	2097152	
21379.3	0	2097152	2097152	
21394.7	0	2097152	2097152	
21410	0	2097152	2097152	
21425.4	0	2097152	2097152	
21440.7	0	2097152	2097152	
21456.1	0	2097152	2097152	
21471.4	0	2097152	2097152	
21486.8	0	2097152	2097152	
21502.1	0	2097152	2097152	
21517.5	0	2097152	2097152	
21532.8	0	2097152	2097152	
21548.2	0	2097152	2097152	
21563.5	0	2097152	2097152	
21578.9	0	2097152	2097152	
21594.2	0	2097152	2097152	
21609.6	0	2097152	2097152	
21624.9	0	2097152	2097152	
21640.3	0	2097152	2097152	
21655.6	0	2097152	2097152	
21670.9	0	2097152	2097152	
21686.3	0	2097152	2097152	
21701.6	0	2097152	2097152	
21717	0	2097152	2097152	
21732.3	0	2097152	2097152	
21747.7	0	2097152	2097152	
21763	0	2097152	2097152	
21778.4	0	2097152	2097152	
21793.7	0	2097152	2097152	
21809.1	0	2097152	2097152	
21824.4	0	2097152	2097152	
21839.8	0	2097152	2097152	
21855.1	0	2097152	2097152	
21870.5	0	2097152	2097152	
21885.8	0	2097152	2097152	
21901.2	0	2097152	2097152	
21916.5	0	2097152	2097152	
21931.9	0	2097152	2097152	
21947.2	0	2097152	2097152	
21962.6	0	2097152	2097152	
21977.9	0	2097152	2097152	
21993.2	0	2097152	2097152	
22008.6	0	2097152	2097152	
22023.9	0	2097152	2097152	
22039.3	0	2097152	2097152	
22054.6	0	2097152	2097152	
22070	0	2097152	2097152	
22085.3	0	2097152	2097152	
22100.7	0	2097152	2097152	
22116	0	2097152	2097152	
22131.4	0	2097152	2097152	
22146.7	0	2097152	2097152	
22162.1	0	2097152	2097152	
22177.4	0	2097152	2097152	
22192.8	0	2097152	2097152	
22208.1	0	2097152	2097152	
22223.5	0	2097152	2097152	
22238.8	0	2097152	2097152	
22254.2	0	2097152	2097152	
22269.5	0	2097152	2097152	
22284.9	0	2097152	2097152	
22300.2	0	2097152	2097152	
22315.5	0	2097152	2097152	
22330.9	0	2097152	2097152	
22346.2	0	2097152	2097152	
22361.6	0	2097152	2097152	
22376.9	0	2097152	2097152	
22392.3	0	2097152	2097152	
22407.6	0	2097152	2097152	
22423	0	2097152	2097152	
22438.3	0	2097152	2097152	
22453.7	0	2097152	2097152	
22469	0	2097152	2097152	
22484.4	0	2097152	2097152	
22499.7	0	2097152	2097152	
22515.1	0	2097152	2097152	
22530.4	0	2097152	2097152	
22545.8	0	2097152	2097152	
22561.1	0	2097152	2097152	
22576.5	0	2097152	2097152	
22591.8	0	2097152	2097152	
22607.2	0	2097152	2097152	
22622.5	0	2097152	2097152	
22637.9	0	2097152	2097152	
22653.2	0	2097152	2097152	
22668.5	0	2097152	2097152	
22683.9	0	2097152	2097152	
22699.2	0	2097152	2097152	
22714.6	0	2097152	2097152	
22729.9	0	2097152	2097152	
22745.3	0	2097152	2097152	
22760.6	0	2097152	2097152	
22776	0	2097152	2097152	
22791.3	0	2097152	2097152	
22806.7	0	2097152	2097152	
22822	0	2097152	2097152	
22837.4	0	2097152	2097152	
22852.7	0	2097152	2097152	
22868.1	0	2097152	2097152	
22883.4	0	2097152	2097152	
22898.8	0	2097152	2097152	
22914.1	0	2097152	2097152	
22929.5	0	2097152	2097152	
22944.8	0	2097152	2097152	
22960.2	0	2097152	2097152	
22975.5	0	2097152	2097152	
22990.8	0	2097152	2097152	
23006.2	0	2097152	2097152	
23021.5	0	2097152	2097152	
23036.9	0	2097152	2097152	
23052.2	0	2097152	2097152	
23067.6	0	2097152	2097152	
23082.9	0	2097152	2097152	
23098.3	0	2097152	2097152	
23113.6	0	2097152	2097152	
23129	0	2097152	2097152	
23144.3	0	2097152	2097152	
23159.7	0	2097152	2097152	
23175	0	2097152	2097152	
23190.4	0	2097152	2097152	
23205.7	0	2097152	2097152	
23221.1	0	2097152	2097152	
23236.4	0	2097152	2097152	
23251.8	0	2097152	2097152	
23267.1	0	2097152	2097152	
23282.5	0	2097152	2097152	
23297.8	0	2097152	2097152	
23313.1	0	2097152	2097152	
23328.5	0	2097152	2097152	
23343.8	0	2097152	2097152	
23359.2	0	2097152	2097152	
23374.5	0	2097152	2097152	
23389.9	0	2097152	2097152	
23405.2	0	2097152	2097152	
23420.6	0	2097152	2097152	
23435.9	0	2097152	2097152	
23451.3	0	2097152	2097152	
23466.6	0	2097152	2097152	
23482	0	2097152	2097152	
23497.3	0	2097152	2097152	
23512.7	0	2097152	2097152	
23528	0	2097152	2097152	
23543.4	0	2097152	2097152	
23558.7	0	2097152	2097152	
23574.1	0	2097152	2097152	
23589.4	0	2097152	2097152	
23604.8	0	2097152	2097152	
23620.1	0	2097152	2097152	
23635.5	0	2097152	2097152	
23650.8	0	2097152	2097152	
23666.1	0	2097152	2097152	
23681.5	0	2097152	2097152	
23696.8	0	2097152	2097152	
23712.2	0	2097152	2097152	
23727.5	0	2097152	2097152	
23742.9	0	2097152	2097152	
23758.2	0	2097152	2097152	
23773.6	0	2097152	2097152	
23788.9	0	2097152	2097152	
23804.3	0	2097152	2097152	
23819.6	0	2097152	2097152	
23835	0	2097152	2097152	
23850.3	0	2097152	2097152	
23865.7	0	2097152	2097152	
23881	0	2097152	2097152	
23896.4	0	2097152	2097152	
23911.7	0	2097152	2097152	
23927.1	0	2097152	2097152	
23942.4	0	2097152	2097152	
23957.8	0	2097152	2097152	
23973.1	0	2097152	2097152	
23988.4	0	2097152	2097152	
24003.8	0	2097152	2097152	
24019.1	0	2097152	2097152	
24034.5	0	2097152	2097152	
24049.8	0	2097152	2097152	
24065.2	0	2097152	2097152	
24080.5	0	2097152	2097152	
24095.9	0	2097152	2097152	
24111.2	0	2097152	2097152	
24126.6	0	2097152	2097152	
24141.9	0	2097152	2097152	
24157.3	0	2097152	2097152	
24172.6	0	2097152	2097152	
24188	0	2097152	2097152	
24203.3	0	2097152	2097152	
24218.7	0	2097152	2097152	
24234	0	2097152	2097152	
24249.4	0	2097152	2097152	
24264.7	0	2097152	2097152	
24280.1	0	2097152	2097152	
24295.4	0	2097152	2097152	
24310.7	0	2097152	2097152	
24326.1	0	2097152	2097152	
24341.4	0	2097152	2097152	
24356.8	0	2097152	2097152	
24372.1	0	2097152	2097152	
24387.5	0	2097152	2097152	
24402.8	0	2097152	2097152	
24418.2	0	2097152	2097152	
24433.5	0	2097152	2097152	
24448.9	0	2097152	2097152	
24464.2	0	2097152	2097152	
24479.6	0	2097152	2097152	
24494.9	0	2097152	2097152	
24510.3	0	2097152	2097152	
24525.6	0	2097152	2097152	
24541	0	2097152	2097152	
24556.3	0	2097152	2097152	
24571.7	0	2097152	2097152	
24587	0	2097152	2097152	
24602.4	0	2097152	2097152	
24617.7	0	2097152	2097152	
24633.1	0	2097152	2097152	
24648.4	0	2097152	2097152	
24663.7	0	2097152	2097152	
24679.1	0	2097152	2097152	
24694.4	0	2097152	2097152	
24709.8	0	2097152	2097152	
24725.1	0	2097152	2097152	
24740.5	0	2097152	2097152	
24755.8	0	2097152	2097152	
24771.2	0	2097152	2097152	
24786.5	0	2097152	2097152	
24801.9	0	2097152	2097152	
24817.2	0	2097152	2097152	
24832.6	0	2097152	2097152	
24847.9	0	2097152	2097152	
24863.3	0	2097152	2097152	
24878.6	0	2097152	2097152	
24894	0	2097152	2097152	
24909.3	0	2097152	2097152	
24924.7	0	2097152	2097152	
24940	0	2097152	2097152	
24955.4	0	2097152	2097152	
24970.7	0	2097152	2097152	
24986	0	2097152	2097152	
25001.4	0	2097152	2097152	
25016.7	0	2097152	2097152	
25032.1	0	2097152	2097152	
25047.4	0	2097152	2097152	
25062.8	0	2097152	2097152	
25078.1	0	2097152	2097152	
25093.5	0	2097152	2097152	
25108.8	0	2097152	2097152	
25124.2	0	2097152	2097152	
25139.5	0	2097152	2097152	
25154.9	0	2097152	2097152	
25170.2	0	2097152	2097152	
25185.6	0	2097152	2097152	
25200.9	0	2097152	2097152	
25216.3	0	2097152	2097152	
25231.6	0	2097152	2097152	
25247	0	2097152	2097152	
25262.3	0	2097152	2097152	
25277.7	0	2097152	2097152	
25293	0	2097152	2097152	
25308.3	0	2097152	2097152	
25323.7	0	2097152	2097152	
25339	0	2097152	2097152	
25354.4	0	2097152	2097152	
25369.7	0	2097152	2097152	
25385.1	0	2097152	2097152	
25400.4	0	2097152	2097152	
25415.8	0	2097152	2097152	
25431.1	0	2097152	2097152	
25446.5	0	2097152	2097152	
25461.8	0	2097152	2097152	
25477.2	0	2097152	2097152	
25492.5	0	2097152	2097152	
25507.9	0	2097152	2097152	
25523.2	0	2097152	2097152	
25538.6	0	2097152	2097152	
25553.9	0	2097152	2097152	
25569.3	0	2097152	2097152	
25584.6	0	2097152	2097152	
25600	0	2097152	2097152	
25615.3	0	2097152	2097152	
25630.7	0	2097152	2097152	
25646	0	2097152	2097152	
25661.3	0	2097152	2097152	
25676.7	0	2097152	2097152	
25692	0	2097152	2097152	
25707.4	0	2097152	2097152	
25722.7	0	2097152	2097152	
25738.1	0	2097152	2097152	
25753.4	0	2097152	2097152	
25768.8	0	2097152	2097152	
25784.1	0	2097152	2097152	
25799.5	0	2097152	2097152	
25814.8	0	2097152	2097152	
25830.2	0	2097152	2097152	
25845.5	0	2097152	2097152	
25860.9	0	2097152	2097152	
25876.2	0	2097152	2097152	
25891.6	0	2097152	2097152	
25906.9	0	2097152	2097152	
25922.3	0	2097152	2097152	
25937.6	0	2097152	2097152	
25953	0	2097152	2097152	
25968.3	0	2097152	2097152	
25983.6	0	2097152	2097152	
25999	0	2097152	2097152	
26014.3	0	2097152	2097152	
26029.7	0	2097152	2097152	
26045	0	2097152	2097152	
26060.4	0	2097152	2097152	
26075.7	0	2097152	2097152	
26091.1	0	2097152	2097152	
26106.4	0	2097152	2097152	
26121.8	0	2097152	2097152	
26137.1	0	2097152	2097152	
26152.5	0	2097152	2097152	
26167.8	0	2097152	2097152	
26183.2	0	2097152	2097152	
26198.5	0	2097152	2097152	
26213.9	0	2097152	2097152	
26229.2	0	2097152	2097152	
26244.6	0	2097152	2097152	
26259.9	0	2097152	2097152	
26275.3	0	2097152	2097152	
26290.6	0	2097152	2097152	
26305.9	0	2097152	2097152	
26321.3	0	2097152	2097152	
26336.6	0	2097152	2097152	
26352	0	2097152	2097152	
26367.3	0	2097152	2097152	
26382.7	0	2097152	2097152	
26398	0	2097152	2097152	
26413.4	0	2097152	2097152	
26428.7	0	2097152	2097152	
26444.1	0	2097152	2097152	
26459.4	0	2097152	2097152	
26474.8	0	2097152	2097152	
26490.1	0	2097152	2097152	
26505.5	0	2097152	2097152	
26520.8	0	2097152	2097152	
26536.2	0	2097152	2097152	
26551.5	0	2097152	2097152	
26566.9	0	2097152	2097152	
26582.2	0	2097152	2097152	
26597.6	0	2097152	2097152	
26612.9	0	2097152	2097152	
26628.3	0	2097152	2097152	
26643.6	0	2097152	2097152	
26658.9	0	2097152	2097152	
26674.3	0	2097152	2097152	
26689.6	0	2097152	2097152	
26705	0	2097152	2097152	
26720.3	0	2097152	2097152	
26735.7	0	2097152	2097152	
26751	0	2097152	2097152	
26766.4	0	2097152	2097152	
26781.7	-9.09495e-13	2097152	2097152	
26797.1	-9.09495e-13	2097152	2097152	
26812.4	-9.09495e-13	2097152	2097152	
26827.8	-9.09495e-13	2097152	2097152	
26843.1	-9.09495e-13	2097152	2097152	
26858.5	-9.09495e-13	2097152	2097152	
26873.8	-9.09495e-13	2097152	2097152	
26889.2	-9.09495e-13	2097152	2097152	
26904.5	-9.09495e-13	2097152	2097152	
26919.9	-9.09495e-13	2097152	2097152	
26935.2	-1.81899e-12	2097152	2097152	
26950.6	-2.72848e-12	2097152	2097152	
26965.9	-2.72848e-12	2097152	2097152	
26981.2	-2.72848e-12	2097152	2097152	
26996.6	-2.72848e-12	2097152	2097152	
27011.9	-3.63798e-12	2097152	2097152	
27027.3	-3.63798e-12	2097152	2097152	
27042.6	-4.54747e-12	2097152	2097152	
27058	-5.45697e-12	2097152	2097152	
27073.3	-6.36646e-12	2097152	2097152	
27088.7	-7.27596e-12	2097152	2097152	
27104	-8.18545e-12	2097152	2097152	
27119.4	-9.09495e-12	2097152	2097152	
27134.7	-1.00044e-11	2097152	2097152	
27150.1	-1.09139e-11	2097152	2097152	
27165.4	-1.18234e-11	2097152	2097152	
27180.8	-1.18234e-11	2097152	2097152	
27196.1	-1.27329e-11	2097152	2097152	
27211.5	-1.45519e-11	2097152	2097152	
27226.8	-1.63709e-11	2097152	2097152	
27242.2	-1.72804e-11	2097152	2097152	
27257.5	-1.90994e-11	2097152	2097152	
27272.9	-2.09184e-11	2097152	2097152	
27288.2	-2.27374e-11	2097152	2097152	
27303.5	-2.45564e-11	2097152	2097152	
27318.9	-2.63753e-11	2097152	2097152	
27334.2	-2.91038e-11	2097152	2097152	
27349.6	-3.18323e-11	2097152	2097152	
27364.9	-3.45608e-11	2097152	2097152	
27380.3	-3.81988e-11	2097152	2097152	
27395.6	-4.09273e-11	2097152	2097152	
27411	-4.45652e-11	2097152	2097152	
27426.3	-4.91127e-11	2097152	2097152	
27441.7	-5.27507e-11	2097152	2097152	
27457	-5.72982e-11	2097152	2097152	
27472.4	-6.27551e-11	2097152	2097152	
27487.7	-6.82121e-11	2097152	2097152	
27503.1	-7.45786e-11	2097152	2097152	
27518.4	-8.0945e-11	2097152	2097152	
27533.8	-8.73115e-11	2097152	2097152	
27549.1	-9.45874e-11	2097152	2097152	
27564.5	-1.02773e-10	2097152	2097152	
27579.8	-1.10958e-10	2097152	2097152	
27595.2	-1.20963e-10	2097152	2097152	
27610.5	-1.30967e-10	2097152	2097152	
27625.9	-1.41881e-10	2097152	2097152	
27641.2	-1.53705e-10	2097152	2097152	
27656.5	-1.66438e-10	2097152	2097152	
27671.9	-1.8008e-10	2097152	2097152	
27687.2	-1.94632e-10	2097152	2097152	
27702.6	-2.10093e-10	2097152	2097152	
27717.9	-2.27374e-10	2097152	2097152	
27733.3	-2.45564e-10	2097152	2097152	
27748.6	-2.64663e-10	2097152	2097152	
27764	-2.86491e-10	2097152	2097152	
27779.3	-3.09228e-10	2097152	2097152	
27794.7	-3.33785e-10	2097152	2097152	
27810	-3.6016e-10	2097152	2097152	
27825.4	-3.88354e-10	2097152	2097152	
27840.7	-4.17458e-10	2097152	2097152	
27856.1	-4.502e-10	2097152	2097152	
27871.4	-4.84761e-10	2097152	2097152	
27886.8	-5.2114e-10	2097152	2097152	
27902.1	-5.61158e-10	2097152	2097152	
27917.5	-6.03904e-10	2097152	2097152	
27932.8	-6.49379e-10	2097152	2097152	
27948.2	-6.98492e-10	2097152	2097152	
27963.5	-7.50333e-10	2097152	2097152	
27978.8	-8.05812e-10	2097152	2097152	
27994.2	-8.64929e-10	2097152	2097152	
28009.5	-9.28594e-10	2097152	2097152	
28024.9	-9.96806e-10	2097152	2097152	
28040.2	-1.06957e-09	2097152	2097152	
28055.6	-1.14687e-09	2097152	2097152	
28070.9	-1.22964e-09	2097152	2097152	
28086.3	-1.31877e-09	2097152	2097152	
28101.6	-1.41335e-09	2097152	2097152	
28117	-1.5134e-09	2097152	2097152	
28132.3	-1.62072e-09	2097152	2097152	
28147.7	-1.73441e-09	2097152	2097152	
28163	-1.85628e-09	2097152	2097152	
28178.4	-1.98543e-09	2097152	2097152	
28193.7	-2.12367e-09	2097152	2097152	
28209.1	-2.2701e-09	2097152	2097152	
28224.4	-2.42562e-09	2097152	2097152	
28239.8	-2.59115e-09	2097152	2097152	
28255.1	-2.76759e-09	2097152	2097152	
28270.5	-2.95495e-09	2097152	2097152	
28285.8	-3.15413e-09	2097152	2097152	
28301.1	-3.36513e-09	2097152	2097152	
28316.5	-3.58887e-09	2097152	2097152	
28331.8	-3.82715e-09	2097152	2097152	
28347.2	-4.07908e-09	2097152	2097152	
28362.5	-4.34738e-09	2097152	2097152	
28377.9	-4.63115e-09	2097152	2097152	
28393.2	-4.93219e-09	2097152	2097152	
28408.6	-5.25051e-09	2097152	2097152	
28423.9	-5.58884e-09	2097152	2097152	
28439.3	-5.94628e-09	2097152	2097152	
28454.6	-6.32463e-09	2097152	2097152	
28470	-6.7248e-09	2097152	2097152	
28485.3	-7.14863e-09	2097152	2097152	
28500.7	-7.59701e-09	2097152	2097152	
28516	-8.06995e-09	2097152	2097152	
28531.4	-8.57108e-09	2097152	2097152	
28546.7	-9.09949e-09	2097152	2097152	
28562.1	-9.65792e-09	2097152	2097152	
28577.4	-1.02482e-08	2097152	2097152	
28592.8	-1.08703e-08	2097152	2097152	
28608.1	-1.15278e-08	2097152	2097152	
28623.5	-1.22209e-08	2097152	2097152	
28638.8	-1.29521e-08	2097152	2097152	
28654.1	-1.37225e-08	2097152	2097152	
28669.5	-1.45346e-08	2097152	2097152	
28684.8	-1.53905e-08	2097152	2097152	
28700.2	-1.62927e-08	2097152	2097152	
28715.5	-1.72422e-08	2097152	2097152	
28730.9	-1.82408e-08	2097152	2097152	
28746.2	-1.92922e-08	2097152	2097152	
28761.6	-2.03991e-08	2097152	2097152	
28776.9	-2.15623e-08	2097152	2097152	
28792.3	-2.27856e-08	2097152	2097152	
28807.6	-2.40716e-08	2097152	2097152	
28823	-2.54231e-08	2097152	2097152	
28838.3	-2.68428e-08	2097152	2097152	
28853.7	-2.83344e-08	2097152	2097152	
28869	-2.98996e-08	2097152	2097152	
28884.4	-3.15431e-08	2097152	2097152	
28899.7	-3.32666e-08	2097152	2097152	
28915.1	-3.50756e-08	2097152	2097152	
28930.4	-3.69719e-08	2097152	2097152	
28945.8	-3.896e-08	2097152	2097152	
28961.1	-4.10437e-08	2097152	2097152	
28976.4	-4.32274e-08	2097152	2097152	
28991.8	-4.55148e-08	2097152	2097152	
29007.1	-4.79095e-08	2097152	2097152	
29022.5	-5.04169e-08	2097152	2097152	
29037.8	-5.30408e-08	2097152	2097152	
29053.2	-5.57866e-08	2097152	2097152	
29068.5	-5.86588e-08	2097152	2097152	
29083.9	-6.1661e-08	2097152	2097152	
29099.2	-6.48006e-08	2097152	2097152	
29114.6	-6.8082e-08	2097152	2097152	
29129.9	-7.15108e-08	2097152	2097152	
29145.3	-7.50924e-08	2097152	2097152	
29160.6	-7.88323e-08	2097152	2097152	
29176	-8.27367e-08	2097152	2097152	
29191.3	-8.68113e-08	2097152	2097152	
29206.7	-9.10622e-08	2097152	2097152	
29222	-9.54969e-08	2097152	2097152	
29237.4	-1.00122e-07	2097152	2097152	
29252.7	-1.04944e-07	2097152	2097152	
29268.1	-1.0997e-07	2097152	2097152	
29283.4	-1.15206e-07	2097152	2097152	
29298.8	-1.20661e-07	2097152	2097152	
29314.1	-1.26342e-07	2097152	2097152	
29329.4	-1.32257e-07	2097152	2097152	
29344.8	-1.38413e-07	2097152	2097152	
29360.1	-1.44819e-07	2097152	2097152	
29375.5	-1.51484e-07	2097152	2097152	
29390.8	-1.58416e-07	2097152	2097152	
29406.2	-1.65623e-07	2097152	2097152	
29421.5	-1.73115e-07	2097152	2097152	
29436.9	-1.80901e-07	2097152	2097152	
29452.2	-1.88991e-07	2097152	2097152	
29467.6	-1.97393e-07	2097152	2097152	
29482.9	-2.06119e-07	2097152	2097152	
29498.3	-2.15177e-07	2097152	2097152	
29513.6	-2.24579e-07	2097152	2097152	
29529	-2.34334e-07	2097152	2097152	
29544.3	-2.44454e-07	2097152	2097152	
29559.7	-2.5495e-07	2097152	2097152	
29575	-2.65831e-07	2097152	2097152	
29590.4	-2.7711e-07	2097152	2097152	
29605.7	-2.88799e-07	2097152	2097152	
29621.1	-3.0091e-07	2097152	2097152	
29636.4	-3.13454e-07	2097152	2097152	
29651.7	-3.26443e-07	2097152	2097152	
29667.1	-3.3989e-07	2097152	2097152	
29682.4	-3.53808e-07	2097152	2097152	
29697.8	-3.6821e-07	2097152	2097152	
29713.1	-3.83108e-07	2097152	2097152	
29728.5	-3.98517e-07	2097152	2097152	
29743.8	-4.14449e-07	2097152	2097152	
29759.2	-4.3092e-07	2097152	2097152	
29774.5	-4.47942e-07	2097152	2097152	
29789.9	-4.65529e-07	2097152	2097152	
29805.2	-4.83697e-07	2097152	2097152	
29820.6	-5.02458e-07	2097152	2097152	
29835.9	-5.21829e-07	2097152	2097152	
29851.3	-5.41824e-07	2097152	2097152	
29866.6	-5.6246e-07	2097152	2097152	
29882	-5.83749e-07	2097152	2097152	
29897.3	-6.0571e-07	2097152	2097152	
29912.7	-6.28356e-07	2097152	2097152	
29928	-6.51705e-07	2097152	2097152	
29943.4	-6.75772e-07	2097152	2097152	
29958.7	-7.00573e-07	2097152	2097152	
29974	-7.26126e-07	2097152	2097152	
29989.4	-7.52446e-07	2097152	2097152	
30004.7	-7.7955e-07	2097152	2097152	
30020.1	-8.07455e-07	2097152	2097152	
30035.4	-8.36178e-07	2097152	2097152	
30050.8	-8.65735e-07	2097152	2097152	
30066.1	-8.96146e-07	2097152	2097152	
30081.5	-9.27427e-07	2097152	2097152	
30096.8	-9.59595e-07	2097152	2097152	
30112.2	-9.92668e-07	2097152	2097152	
30127.5	-1.02666e-06	2097152	2097152	
30142.9	-1.0616e-06	2097152	2097152	
30158.2	-1.0975e-06	2097152	2097152	
30173.6	-1.13437e-06	2097152	2097152	
30188.9	-1.17224e-06	2097152	2097152	
30204.3	-1.21111e-06	2097152	2097152	
30219.6	-1.25103e-06	2097152	2097152	
30235	-1.29198e-06	2097152	2097152	
30250.3	-1.33401e-06	2097152	2097152	
30265.7	-1.37713e-06	2097152	2097152	
30281	-1.42134e-06	2097152	2097152	
30296.4	-1.46668e-06	2097152	2097152	
30311.7	-1.51316e-06	2097152	2097152	
30327	-1.5608e-06	2097152	2097152	
30342.4	-1.60962e-06	2097152	2097152	
30357.7	-1.65963e-06	2097152	2097152	
30373.1	-1.71085e-06	2097152	2097152	
30388.4	-1.76331e-06	2097152	2097152	
30403.8	-1.81702e-06	2097152	2097152	
30419.1	-1.872e-06	2097152	2097152	
30434.5	-1.92826e-06	2097152	2097152	
30449.8	-1.98582e-06	2097152	2097152	
30465.2	-2.04471e-06	2097152	2097152	
30480.5	-2.10494e-06	2097152	2097152	
30495.9	-2.16652e-06	2097152	2097152	
30511.2	-2.22948e-06	2097152	2097152	
30526.6	-2.29383e-06	2097152	2097152	
30541.9	-2.35959e-06	2097152	2097152	
30557.3	-2.42678e-06	2097152	2097152	
30572.6	-2.49541e-06	2097152	2097152	
30588	-2.56549e-06	2097152	2097152	
30603.3	-2.63705e-06	2097152	2097152	
30618.7	-2.7101e-06	2097152	2097152	
30634	-2.78466e-06	2097152	2097152	
30649.3	-2.86074e-06	2097152	2097152	
30664.7	-2.93836e-06	2097152	2097152	
30680	-3.01753e-06	2097152	2097152	
30695.4	-3.09828e-06	2097152	2097152	
30710.7	-3.1806e-06	2097152	2097152	
30726.1	-3.26452e-06	2097152	2097152	
30741.4	-3.35005e-06	2097152	2097152	
30756.8	-3.43721e-06	2097152	2097152	
30772.1	-3.526e-06	2097152	2097152	
30787.5	-3.61644e-06	2097152	2097152	
30802.8	-3.70855e-06	2097152	2097152	
30818.2	-3.80234e-06	2097152	2097152	
30833.5	-3.89781e-06	2097152	2097152	
30848.9	-3.99498e-06	2097152	2097152	
30864.2	-4.09386e-06	2097152	2097152	
30879.6	-4.19446e-06	2097152	2097152	
30894.9	-4.29679e-06	2097152	2097152	
30910.3	-4.40087e-06	2097152	2097152	
30925.6	-4.50669e-06	2097152	2097152	
30941	-4.61428e-06	2097152	2097152	
30956.3	-4.72363e-06	2097152	2097152	
30971.6	-4.83477e-06	2097152	2097152	
30987	-4.94768e-06	2097152	2097152	
31002.3	-5.06239e-06	2097152	2097152	
31017.7	-5.17889e-06	2097152	2097152	
31033	-5.2972e-06	2097152	2097152	
31048.4	-5.41732e-06	2097152	2097152	
31063.7	-5.53926e-06	2097152	2097152	
31079.1	-5.66302e-06	2097152	2097152	
31094.4	-5.7886e-06	2097152	2097152	
31109.8	-5.91601e-06	2097152	2097152	
31125.1	-6.04526e-06	2097152	2097152	
31140.5	-6.17634e-06	2097152	2097152	
31155.8	-6.30925e-06	2097152	2097152	
31171.2	-6.44401e-06	2097152	2097152	
31186.5	-6.5806e-06	2097152	2097152	
31201.9	-6.71904e-06	2097152	2097152	
31217.2	-6.85931e-06	2097152	2097152	
31232.6	-7.00143e-06	2097152	2097152	
31247.9	-7.14538e-06	2097152	2097152	
31263.3	-7.29118e-06	2097152	2097152	
31278.6	-7.43881e-06	2097152	2097152	
31294	-7.58827e-06	2097152	2097152	
31309.3	-7.73956e-06	2097152	2097152	
31324.6	-7.89268e-06	2097152	2097152	
31340	-8.04762e-06	2097152	2097152	
31355.3	-8.20438e-06	2097152	2097152	
31370.7	-8.36295e-06	2097152	2097152	
31386	-8.52332e-06	2097152	2097152	
31401.4	-8.6855e-06	2097152	2097152	
31416.7	-8.84946e-06	2097152	2097152	
31432.1	-9.01522e-06	2097152	2097152	
31447.4	-9.18274e-06	2097152	2097152	
31462.8	-9.35204e-06	2097152	2097152	
31478.1	-9.5231e-06	2097152	2097152	
31493.5	-9.6959e-06	2097152	2097152	
31508.8	-9.87044e-06	2097152	2097152	
31524.2	-1.00467e-05	2097152	2097152	
31539.5	-1.02247e-05	2097152	2097152	
31554.9	-1.04044e-05	2097152	2097152	
31570.2	-1.05858e-05	2097152	2097152	
31585.6	-1.07689e-05	2097152	2097152	
31600.9	-1.09536e-05	2097152	2097152	
31616.3	-1.114e-05	2097152	2097152	
31631.6	-1.1328e-05	2097152	2097152	
31646.9	-1.15177e-05	2097152	2097152	
31662.3	-1.17089e-05	2097152	2097152	
31677.6	-1.19018e-05	2097152	2097152	
31693	-1.20962e-05	2097152	2097152	
31708.3	-1.22922e-05	2097152	2097152	
31723.7	-1.24897e-05	2097152	2097152	
31739	-1.26888e-05	2097152	2097152	
31754.4	-1.28894e-05	2097152	2097152	
31769.7	-1.30914e-05	2097152	2097152	
31785.1	-1.3295e-05	2097152	2097152	
31800.4	-1.35e-05	2097152	2097152	
31815.8	-1.37064e-05	2097152	2097152	
31831.1	-1.39142e-05	2097152	2097152	
31846.5	-1.41235e-05	2097152	2097152	
31861.8	-1.43341e-05	2097152	2097152	
31877.2	-1.45461e-05	2097152	2097152	
31892.5	-1.47594e-05	2097152	2097152	
31907.9	-1.4974e-05	2097152	2097152	
31923.2	-1.51899e-05	2097152	2097152	
31938.6	-1.5407e-05	2097152	2097152	
31953.9	-1.56254e-05	2097152	2097152	
31969.2	-1.58451e-05	2097152	2097152	
31984.6	-1.60659e-05	2097152	2097152	
31999.9	-1.62879e-05	2097152	2097152	
32015.3	-1.65111e-05	2097152	2097152	
32030.6	-1.67354e-05	2097152	2097152	
32046	-1.69608e-05	2097152	2097152	
32061.3	-1.71873e-05	2097152	2097152	
32076.7	-1.74149e-05	2097152	2097152	
32092	-1.76435e-05	2097152	2097152	
32107.4	-1.78731e-05	2097152	2097152	
32122.7	-1.81037e-05	2097152	2097152	
32138.1	-1.83352e-05	2097152	2097152	
32153.4	-1.85677e-05	2097152	2097152	
32168.8	-1.88012e-05	2097152	2097152	
32184.1	-1.90355e-05	2097152	2097152	
32199.5	-1.92706e-05	2097152	2097152	
32214.8	-1.95066e-05	2097152	2097152	
32230.2	-1.97435e-05	2097152	2097152	
32245.5	-1.99811e-05	2097152	2097152	
32260.9	-2.02195e-05	2097152	2097152	
32276.2	-2.04586e-05	2097152	2097152	
32291.6	-2.06984e-05	2097152	2097152	
32306.9	-2.09389e-05	2097152	2097152	
32322.2	-2.11801e-05	2097152	2097152	
32337.6	-2.14219e-05	2097152	2097152	
32352.9	-2.16644e-05	2097152	2097152	
32368.3	-2.19074e-05	2097152	2097152	
32383.6	-2.2151e-05	2097152	2097152	
32399	-2.23951e-05	2097152	2097152	
32414.3	-2.26398e-05	2097152	2097152	
32429.7	-2.28849e-05	2097152	2097152	
32445	-2.31305e-05	2097152	2097152	
32460.4	-2.33766e-05	2097152	2097152	
32475.7	-2.3623e-05	2097152	2097152	
32491.1	-2.38699e-05	2097152	2097152	
32506.4	-2.41171e-05	2097152	2097152	
32521.8	-2.43647e-05	2097152	2097152	
32537.1	-2.46125e-05	2097152	2097152	
32552.5	-2.48607e-05	2097152	2097152	
32567.8	-2.51091e-05	2097152	2097152	
32583.2	-2.53578e-05	2097152	2097152	
32598.5	-2.56067e-05	2097152	2097152	
32613.9	-2.58559e-05	2097152	2097152	
32629.2	-2.61051e-05	2097152	2097152	
32644.5	-2.63546e-05	2097152	2097152	
32659.9	-2.66042e-05	2097152	2097152	
32675.2	-2.68538e-05	2097152	2097152	
32690.6	-2.71036e-05	2097152	2097152	
32705.9	-2.73534e-05	2097152	2097152	
32721.3	-2.76033e-05	2097152	2097152	
32736.6	-2.78532e-05	2097152	2097152	
32752	-2.81031e-05	2097152	2097152	
32767.3	-2.83529e-05	2097152	2097152	
32782.7	-2.86027e-05	2097152	2097152	
32798	-2.88525e-05	2097152	2097152	
32813.4	-2.91021e-05	2097152	2097152	
32828.7	-2.93517e-05	2097152	2097152	
32844.1	-2.96011e-05	2097152	2097152	
32859.4	-2.98504e-05	2097152	2097152	
32874.8	-3.00995e-05	2097152	2097152	
32890.1	-3.03484e-05	2097152	2097152	
32905.5	-3.05971e-05	2097152	2097152	
32920.8	-3.08456e-05	2097152	2097152	
32936.2	-3.10938e-05	2097152	2097152	
32951.5	-3.13417e-05	2097152	2097152	
32966.8	-3.15894e-05	2097152	2097152	
32982.2	-3.18367e-05	2097152	2097152	
32997.5	-3.20838e-05	2097152	2097152	
33012.9	-3.23304e-05	2097152	2097152	
33028.2	-3.25768e-05	2097152	2097152	
33043.6	-3.28227e-05	2097152	2097152	
33058.9	-3.30683e-05	2097152	2097152	
33074.3	-3.33134e-05	2097152	2097152	
33089.6	-3.35581e-05	2097152	2097152	
33105	-3.38023e-05	2097152	2097152	
33120.3	-3.40461e-05	2097152	2097152	
33135.7	-3.42894e-05	2097152	2097152	
33151	-3.45322e-05	2097152	2097152	
33166.4	-3.47745e-05	2097152	2097152	
33181.7	-3.50162e-05	2097152	2097152	
33197.1	-3.52574e-05	2097152	2097152	
33212.4	-3.5498e-05	2097152	2097152	
33227.8	-3.57381e-05	2097152	2097152	
33243.1	-3.59775e-05	2097152	2097152	
33258.5	-3.62163e-05	2097152	2097152	
33273.8	-3.64545e-05	2097152	2097152	
33289.2	-3.66921e-05	2097152	2097152	
33304.5	-3.6929e-05	2097152	2097152	
33319.8	-3.71652e-05	2097152	2097152	
33335.2	-3.74007e-05	2097152	2097152	
33350.5	-3.76355e-05	2097152	2097152	
33365.9	-3.78696e-05	2097152	2097152	
33381.2	-3.8103e-05	2097152	2097152	
33396.6	-3.83356e-05	2097152	2097152	
33411.9	-3.85674e-05	2097152	2097152	
33427.3	-3.87985e-05	2097152	2097152	
33442.6	-3.90288e-05	2097152	2097152	
33458	-3.92582e-05	2097152	2097152	
33473.3	-3.94869e-05	2097152	2097152	
33488.7	-3.97147e-05	2097152	2097152	
33504	-3.99416e-05	2097152	2097152	
33519.4	-4.01677e-05	2097152	2097152	
33534.7	-4.03929e-05	2097152	2097152	
33550.1	-4.06173e-05	2097152	2097152	
33565.4	-4.08407e-05	2097152	2097152	
33580.8	-4.10632e-05	2097152	2097152	
33596.1	-4.12847e-05	2097152	2097152	
33611.5	-4.15054e-05	2097152	2097152	
33626.8	-4.1725e-05	2097152	2097152	
33642.1	-4.19437e-05	2097152	2097152	
33657.5	-4.21614e-05	2097152	2097152	
33672.8	-4.23781e-05	2097152	2097152	
33688.2	-4.25938e-05	2097152	2097152	
33703.5	-4.28085e-05	2097152	2097152	
33718.9	-4.30221e-05	2097152	2097152	
33734.2	-4.32347e-05	2097152	2097152	
33749.6	-4.34461e-05	2097152	2097152	
33764.9	-4.36566e-05	2097152	2097152	
33780.3	-4.38659e-05	2097152	2097152	
33795.6	-4.40741e-05	2097152	2097152	
33811	-4.42812e-05	2097152	2097152	
33826.3	-4.44872e-05	2097152	2097152	
33841.7	-4.4692e-05	2097152	2097152	
33857	-4.48956e-05	2097152	2097152	
33872.4	-4.50981e-05	2097152	2097152	
33887.7	-4.52994e-05	2097152	2097152	
33903.1	-4.54995e-05	2097152	2097152	
33918.4	-4.56984e-05	2097152	2097152	
33933.8	-4.58961e-05	2097152	2097152	
33949.1	-4.60925e-05	2097152	2097152	
33964.4	-4.62876e-05	2097152	2097152	
33979.8	-4.64815e-05	2097152	2097152	
33995.1	-4.66741e-05	2097152	2097152	
34010.5	-4.68655e-05	2097152	2097152	
34025.8	-4.70555e-05	2097152	2097152	
34041.2	-4.72442e-05	2097152	2097152	
34056.5	-4.74315e-05	2097152	2097152	
34071.9	-4.76175e-05	2097152	2097152	
34087.2	-4.78022e-05	2097152	2097152	
34102.6	-4.79855e-05	2097152	2097152	
34117.9	-4.81674e-05	2097152	2097152	
34133.3	-4.83479e-05	2097152	2097152	
34148.6	-4.85269e-05	2097152	2097152	
34164	-4.87046e-05	2097152	2097152	
34179.3	-4.88808e-05	2097152	2097152	
34194.7	-4.90555e-05	2097152	2097152	
34210	-4.92288e-05	2097152	2097152	
34225.4	-4.94006e-05	2097152	2097152	
34240.7	-4.9571e-05	2097152	2097152	
34256.1	-4.97398e-05	2097152	2097152	
34271.4	-4.9907e-05	2097152	2097152	
34286.8	-5.00728e-05	2097152	2097152	
34302.1	-5.0237e-05	2097152	2097152	
34317.4	-5.03996e-05	2097152	2097152	
34332.8	-5.05607e-05	2097152	2097152	
34348.1	-5.07202e-05	2097152	2097152	
34363.5	-5.08781e-05	2097152	2097152	
34378.8	-5.10343e-05	2097152	2097152	
34394.2	-5.1189e-05	2097152	2097152	
34409.5	-5.1342e-05	2097152	2097152	
34424.9	-5.14933e-05	2097152	2097152	
34440.2	-5.1643e-05	2097152	2097152	
34455.6	-5.1791e-05	2097152	2097152	
34470.9	-5.19373e-05	2097152	2097152	
34486.3	-5.20819e-05	2097152	2097152	
34501.6	-5.22248e-05	2097152	2097152	
34517	-5.2366e-05	2097152	2097152	
34532.3	-5.25054e-05	2097152	2097152	
34547.7	-5.26431e-05	2097152	2097152	
34563	-5.2779e-05	2097152	2097152	
34578.4	-5.29131e-05	2097152	2097152	
34593.7	-5.30454e-05	2097152	2097152	
34609.1	-5.31759e-05	2097152	2097152	
34624.4	-5.33046e-05	2097152	2097152	
34639.7	-5.34315e-05	2097152	2097152	
34655.1	-5.35565e-05	2097152	2097152	
34670.4	-5.36797e-05	2097152	2097152	
34685.8	-5.3801e-05	2097152	2097152	
34701.1	-5.39204e-05	2097152	2097152	
34716.5	-5.4038e-05	2097152	2097152	
34731.8	-5.41536e-05	2097152	2097152	
34747.2	-5.42674e-05	2097152	2097152	
34762.5	-5.43792e-05	2097152	2097152	
34777.9	-5.4489e-05	2097152	2097152	
34793.2	-5.4597e-05	2097152	2097152	
34808.6	-5.4703e-05	2097152	2097152	
34823.9	-5.4807e-05	2097152	2097152	
34839.3	-5.4909e-05	2097152	2097152	
34854.6	-5.50091e-05	2097152	2097152	
34870	-5.51071e-05	2097152	2097152	
34885.3	-5.52032e-05	2097152	2097152	
34900.7	-5.52972e-05	2097152	2097152	
34916	-5.53892e-05	2097152	2097152	
34931.4	-5.54792e-05	2097152	2097152	
34946.7	-5.55671e-05	2097152	2097152	
34962	-5.56529e-05	2097152	2097152	
34977.4	-5.57367e-05	2097152	2097152	
34992.7	-5.58185e-05	2097152	2097152	
35008.1	-5.58981e-05	2097152	2097152	
35023.4	-5.59757e-05	2097152	2097152	
35038.8	-5.60511e-05	2097152	2097152	
35054.1	-5.61245e-05	2097152	2097152	
35069.5	-5.61957e-05	2097152	2097152	
35084.8	-5.62648e-05	2097152	2097152	
35100.2	-5.63318e-05	2097152	2097152	
35115.5	-5.63966e-05	2097152	2097152	
35130.9	-5.64593e-05	2097152	2097152	
35146.2	-5.65198e-05	2097152	2097152	
35161.6	-5.65782e-05	2097152	2097152	
35176.9	-5.66344e-05	2097152	2097152	
35192.3	-5.66884e-05	2097152	2097152	
35207.6	-5.67402e-05	2097152	2097152	
35223	-5.67899e-05	2097152	2097152	
35238.3	-5.68374e-05	2097152	2097152	
35253.7	-5.68826e-05	2097152	2097152	
35269	-5.69257e-05	2097152	2097152	
35284.4	-5.69665e-05	2097152	2097152	
35299.7	-5.70052e-05	2097152	2097152	
35315	-5.70416e-05	2097152	2097152	
35330.4	-5.70758e-05	2097152	2097152	
35345.7	-5.71078e-05	2097152	2097152	
35361.1	-5.71375e-05	2097152	2097152	
35376.4	-5.7165e-05	2097152	2097152	
35391.8	-5.71902e-05	2097152	2097152	
35407.1	-5.72133e-05	2097152	2097152	
35422.5	-5.7234e-05	2097152	2097152	
35437.8	-5.72525e-05	2097152	2097152	
35453.2	-5.72688e-05	2097152	2097152	
35468.5	-5.72828e-05	2097152	2097152	
35483.9	-5.72945e-05	2097152	2097152	
35499.2	-5.7304e-05	2097152	2097152	
35514.6	-5.73112e-05	2097152	2097152	
35529.9	-5.73162e-05	2097152	2097152	
35545.3	-5.73189e-05	2097152	2097152	
35560.6	-5.73193e-05	2097152	2097152	
35576	-5.73174e-05	2097152	2097152	
35591.3	-5.73133e-05	2097152	2097152	
35606.7	-5.73069e-05	2097152	2097152	
35622	-5.72982e-05	2097152	2097152	
35637.3	-5.72873e-05	2097152	2097152	
35652.7	-5.72741e-05	2097152	2097152	
35668	-5.72586e-05	2097152	2097152	
35683.4	-5.72408e-05	2097152	2097152	
35698.7	-5.72208e-05	2097152	2097152	
35714.1	-5.71985e-05	2097152	2097152	
35729.4	-5.71739e-05	2097152	2097152	
35744.8	-5.71471e-05	2097152	2097152	
35760.1	-5.7118e-05	2097152	2097152	
35775.5	-5.70866e-05	2097152	2097152	
35790.8	-5.7053e-05	2097152	2097152	
35806.2	-5.70171e-05	2097152	2097152	
35821.5	-5.69789e-05	2097152	2097152	
35836.9	-5.69385e-05	2097152	2097152	
35852.2	-5.68959e-05	2097152	2097152	
35867.6	-5.68509e-05	2097152	2097152	
35882.9	-5.68038e-05	2097152	2097152	
35898.3	-5.67544e-05	2097152	2097152	
35913.6	-5.67027e-05	2097152	2097152	
35929	-5.66488e-05	2097152	2097152	
35944.3	-5.65927e-05	2097152	2097152	
35959.6	-5.65344e-05	2097152	2097152	
35975	-5.64738e-05	2097152	2097152	
35990.3	-5.6411e-05	2097152	2097152	
36005.7	-5.6346e-05	2097152	2097152	
36021	-5.62788e-05	2097152	2097152	
36036.4	-5.62094e-05	2097152	2097152	
36051.7	-5.61377e-05	2097152	2097152	
36067.1	-5.60639e-05	2097152	2097152	
36082.4	-5.59879e-05	2097152	2097152	
36097.8	-5.59097e-05	2097152	2097152	
36113.1	-5.58293e-05	2097152	2097152	
36128.5	-5.57468e-05	2097152	2097152	
36143.8	-5.56621e-05	2097152	2097152	
36159.2	-5.55752e-05	2097152	2097152	
36174.5	-5.54862e-05	2097152	2097152	
36189.9	-5.53951e-05	2097152	2097152	
36205.2	-5.53018e-05	2097152	2097152	
36220.6	-5.52064e-05	2097152	2097152	
36235.9	-5.51088e-05	2097152	2097152	
36251.3	-5.50092e-05	2097152	2097152	
36266.6	-5.49074e-05	2097152	2097152	
36282	-5.48036e-05	2097152	2097152	
36297.3	-5.46976e-05	2097152	2097152	
36312.6	-5.45896e-05	2097152	2097152	
36328	-5.44795e-05	2097152	2097152	
36343.3	-5.43673e-05	2097152	2097152	
36358.7	-5.42531e-05	2097152	2097152	
36374	-5.41368e-05	2097152	2097152	
36389.4	-5.40185e-05	2097152	2097152	
36404.7	-5.38982e-05	2097152	2097152	
36420.1	-5.37758e-05	2097152	2097152	
36435.4	-5.36515e-05	2097152	2097152	
36450.8	-5.35251e-05	2097152	2097152	
36466.1	-5.33968e-05	2097152	2097152	
36481.5	-5.32664e-05	2097152	2097152	
36496.8	-5.31341e-05	2097152	2097152	
36512.2	-5.29999e-05	2097152	2097152	
36527.5	-5.28637e-05	2097152	2097152	
36542.9	-5.27255e-05	2097152	2097152	
36558.2	-5.25855e-05	2097152	2097152	
36573.6	-5.24435e-05	2097152	2097152	
36588.9	-5.22996e-05	2097152	2097152	
36604.3	-5.21538e-05	2097152	2097152	
36619.6	-5.20061e-05	2097152	2097152	
36634.9	-5.18566e-05	2097152	2097152	
36650.3	-5.17052e-05	2097152	2097152	
36665.6	-5.1552e-05	2097152	2097152	
36681	-5.13969e-05	2097152	2097152	
36696.3	-5.124e-05	2097152	2097152	
36711.7	-5.10813e-05	2097152	2097152	
36727	-5.09207e-05	2097152	2097152	
36742.4	-5.07584e-05	2097152	2097152	
36757.7	-5.05943e-05	2097152	2097152	
36773.1	-5.04285e-05	2097152	2097152	
36788.4	-5.02609e-05	2097152	2097152	
36803.8	-5.00916e-05	2097152	2097152	
36819.1	-4.99205e-05	2097152	2097152	
36834.5	-4.97477e-05	2097152	2097152	
36849.8	-4.95733e-05	2097152	2097152	
36865.2	-4.93971e-05	2097152	2097152	
36880.5	-4.92193e-05	2097152	2097152	
36895.9	-4.90398e-05	2097152	2097152	
36911.2	-4.88587e-05	2097152	2097152	
36926.6	-4.86759e-05	2097152	2097152	
36941.9	-4.84915e-05	2097152	2097152	
36957.2	-4.83055e-05	2097152	2097152	
36972.6	-4.81179e-05	2097152	2097152	
36987.9	-4.79287e-05	2097152	2097152	
37003.3	-4.7738e-05	2097152	2097152	
37018.6	-4.75457e-05	2097152	2097152	
37034	-4.73519e-05	2097152	2097152	
37049.3	-4.71565e-05	2097152	2097152	
37064.7	-4.69597e-05	2097152	2097152	
37080	-4.67613e-05	2097152	2097152	
37095.4	-4.65615e-05	2097152	2097152	
37110.7	-4.63602e-05	2097152	2097152	
37126.1	-4.61574e-05	2097152	2097152	
37141.4	-4.59532e-05	2097152	2097152	
37156.8	-4.57476e-05	2097152	2097152	
37172.1	-4.55406e-05	2097152	2097152	
37187.5	-4.53322e-05	2097152	2097152	
37202.8	-4.51224e-05	2097152	2097152	
37218.2	-4.49112e-05	2097152	2097152	
37233.5	-4.46987e-05	2097152	2097152	
37248.9	-4.44848e-05	2097152	2097152	
37264.2	-4.42697e-05	2097152	2097152	
37279.6	-4.40532e-05	2097152	2097152	
37294.9	-4.38354e-05	2097152	2097152	
37310.2	-4.36164e-05	2097152	2097152	
37325.6	-4.33961e-05	2097152	2097152	
37340.9	-4.31746e-05	2097152	2097152	
37356.3	-4.29518e-05	2097152	2097152	
37371.6	-4.27278e-05	2097152	2097152	
37387	-4.25026e-05	2097152	2097152	
37402.3	-4.22763e-05	2097152	2097152	
37417.7	-4.20488e-05	2097152	2097152	
37433	-4.18201e-05	2097152	2097152	
37448.4	-4.15903e-05	2097152	2097152	
37463.7	-4.13593e-05	2097152	2097152	
37479.1	-4.11273e-05	2097152	2097152	
37494.4	-4.08941e-05	2097152	2097152	
37509.8	-4.06599e-05	2097152	2097152	
37525.1	-4.04247e-05	2097152	2097152	
37540.5	-4.01883e-05	2097152	2097152	
37555.8	-3.9951e-05	2097152	2097152	
37571.2	-3.97127e-05	2097152	2097152	
37586.5	-3.94733e-05	2097152	2097152	
37601.9	-3.9233e-05	2097152	2097152	
37617.2	-3.89917e-05	2097152	2097152	
37632.5	-3.87495e-05	2097152	2097152	
37647.9	-3.85064e-05	2097152	2097152	
37663.2	-3.82623e-05	2097152	2097152	
37678.6	-3.80173e-05	2097152	2097152	
37693.9	-3.77715e-05	2097152	2097152	
37709.3	-3.75248e-05	2097152	2097152	
37724.6	-3.72772e-05	2097152	2097152	
37740	-3.70288e-05	2097152	2097152	
37755.3	-3.67796e-05	2097152	2097152	
37770.7	-3.65296e-05	2097152	2097152	
37786	-3.62788e-05	2097152	2097152	
37801.4	-3.60272e-05	2097152	2097152	
37816.7	-3.57749e-05	2097152	2097152	
37832.1	-3.55219e-05	2097152	2097152	
37847.4	-3.52681e-05	2097152	2097152	
37862.8	-3.50137e-05	2097152	2097152	
37878.1	-3.47585e-05	2097152	2097152	
37893.5	-3.45027e-05	2097152	2097152	
37908.8	-3.42463e-05	2097152	2097152	
37924.2	-3.39892e-05	2097152	2097152	
37939.5	-3.37315e-05	2097152	2097152	
37954.9	-3.34732e-05	2097152	2097152	
37970.2	-3.32143e-05	2097152	2097152	
37985.5	-3.29549e-05	2097152	2097152	
38000.9	-3.26949e-05	2097152	2097152	
38016.2	-3.24344e-05	2097152	2097152	
38031.6	-3.21733e-05	2097152	2097152	
38046.9	-3.19118e-05	2097152	2097152	
38062.3	-3.16498e-05	2097152	2097152	
38077.6	-3.13874e-05	2097152	2097152	
38093	-3.11245e-05	2097152	2097152	
38108.3	-3.08612e-05	2097152	2097152	
38123.7	-3.05975e-05	2097152	2097152	
38139	-3.03334e-05	2097152	2097152	
38154.4	-3.00689e-05	2097152	2097152	
38169.7	-2.98041e-05	2097152	2097152	
38185.1	-2.95389e-05	2097152	2097152	
38200.4	-2.92735e-05	2097152	2097152	
38215.8	-2.90077e-05	2097152	2097152	
38231.1	-2.87417e-05	2097152	2097152	
38246.5	-2.84754e-05	2097152	2097152	
38261.8	-2.82089e-05	2097152	2097152	
38277.2	-2.79421e-05	2097152	2097152	
38292.5	-2.76752e-05	2097152	2097152	
38307.8	-2.7408e-05	2097152	2097152	
38323.2	-2.71407e-05	2097152	2097152	
38338.5	-2.68733e-05	2097152	2097152	
38353.9	-2.66057e-05	2097152	2097152	
38369.2	-2.63381e-05	2097152	2097152	
38384.6	-2.60703e-05	2097152	2097152	
38399.9	-2.58025e-05	2097152	2097152	
38415.3	-2.55346e-05	2097152	2097152	
38430.6	-2.52668e-05	2097152	2097152	
38446	-2.49989e-05	2097152	2097152	
38461.3	-2.4731e-05	2097152	2097152	
38476.7	-2.44631e-05	2097152	2097152	
38492	-2.41953e-05	2097152	2097152	
38507.4	-2.39276e-05	2097152	2097152	
38522.7	-2.366e-05	2097152	2097152	
38538.1	-2.33925e-05	2097152	2097152	
38553.4	-2.31251e-05	2097152	2097152	
38568.8	-2.28579e-05	2097152	2097152	
38584.1	-2.25909e-05	2097152	2097152	
38599.5	-2.23241e-05	2097152	2097152	
38614.8	-2.20575e-05	2097152	2097152	
38630.1	-2.17911e-05	2097152	2097152	
38645.5	-2.1525e-05	2097152	2097152	
38660.8	-2.12592e-05	2097152	2097152	
38676.2	-2.09937e-05	2097152	2097152	
38691.5	-2.07285e-05	2097152	2097152	
38706.9	-2.04637e-05	2097152	2097152	
38722.2	-2.01993e-05	2097152	2097152	
38737.6	-1.99353e-05	2097152	2097152	
38752.9	-1.96716e-05	2097152	2097152	
38768.3	-1.94085e-05	2097152	2097152	
38783.6	-1.91458e-05	2097152	2097152	
38799	-1.88835e-05	2097152	2097152	
38814.3	-1.86218e-05	2097152	2097152	
38829.7	-1.83607e-05	2097152	2097152	
38845	-1.81001e-05	2097152	2097152	
38860.4	-1.78401e-05	2097152	2097152	
38875.7	-1.75806e-05	2097152	2097152	
38891.1	-1.73219e-05	2097152	2097152	
38906.4	-1.70637e-05	2097152	2097152	
38921.8	-1.68063e-05	2097152	2097152	
38937.1	-1.65495e-05	2097152	2097152	
38952.5	-1.62935e-05	2097152	2097152	
38967.8	-1.60383e-05	2097152	2097152	
38983.1	-1.57838e-05	2097152	2097152	
38998.5	-1.55301e-05	2097152	2097152	
39013.8	-1.52772e-05	2097152	2097152	
39029.2	-1.50252e-05	2097152	2097152	
39044.5	-1.47741e-05	2097152	2097152	
39059.9	-1.45239e-05	2097152	2097152	
39075.2	-1.42746e-05	2097152	2097152	
39090.6	-1.40262e-05	2097152	2097152	
39105.9	-1.37789e-05	2097152	2097152	
39121.3	-1.35325e-05	2097152	2097152	
39136.6	-1.32872e-05	2097152	2097152	
39152	-1.30429e-05	2097152	2097152	
39167.3	-1.27997e-05	2097152	2097152	
39182.7	-1.25576e-05	2097152	2097152	
39198	-1.23167e-05	2097152	2097152	
39213.4	-1.20769e-05	2097152	2097152	
39228.7	-1.18383e-05	2097152	2097152	
39244.1	-1.16009e-05	2097152	2097152	
39259.4	-1.13648e-05	2097152	2097152	
39274.8	-1.11299e-05	2097152	2097152	
39290.1	-1.08963e-05	2097152	2097152	
39305.4	-1.0664e-05	2097152	2097152	
39320.8	-1.04331e-05	2097152	2097152	
39336.1	-1.02035e-05	2097152	2097152	
39351.5	-9.97537e-06	2097152	2097152	
39366.8	-9.74864e-06	2097152	2097152	
39382.2	-9.52336e-06	2097152	2097152	
39397.5	-9.29955e-06	2097152	2097152	
39412.9	-9.07725e-06	2097152	2097152	
39428.2	-8.85648e-06	2097152	2097152	
39443.6	-8.63728e-06	2097152	2097152	
39458.9	-8.41965e-06	2097152	2097152	
39474.3	-8.20364e-06	2097152	2097152	
39489.6	-7.98926e-06	2097152	2097152	
39505	-7.77655e-06	2097152	2097152	
39520.3	-7.56552e-06	2097152	2097152	
39535.7	-7.35622e-06	2097152	2097152	
39551	-7.14866e-06	2097152	2097152	
39566.4	-6.94286e-06	2097152	2097152	
39581.7	-6.73887e-06	2097152	2097152	
39597.1	-6.53669e-06	2097152	2097152	
39612.4	-6.33636e-06	2097152	2097152	
39627.7	-6.1379e-06	2097152	2097152	
39643.1	-5.94134e-06	2097152	2097152	
39658.4	-5.74671e-06	2097152	2097152	
39673.8	-5.55402e-06	2097152	2097152	
39689.1	-5.36331e-06	2097152	2097152	
39704.5	-5.1746e-06	2097152	2097152	
39719.8	-4.98792e-06	2097152	2097152	
39735.2	-4.80328e-06	2097152	2097152	
39750.5	-4.62072e-06	2097152	2097152	
39765.9	-4.44025e-06	2097152	2097152	
39781.2	-4.26191e-06	2097152	2097152	
39796.6	-4.08572e-06	2097152	2097152	
39811.9	-3.91169e-06	2097152	2097152	
39827.3	-3.73986e-06	2097152	2097152	
39842.6	-3.57024e-06	2097152	2097152	
39858	-3.40286e-06	2097152	2097152	
39873.3	-3.23774e-06	2097152	2097152	
39888.7	-3.07491e-06	2097152	2097152	
39904	-2.91439e-06	2097152	2097152	
39919.4	-2.75619e-06	2097152	2097152	
39934.7	-2.60035e-06	2097152	2097152	
39950.1	-2.44687e-06	2097152	2097152	
39965.4	-2.29578e-06	2097152	2097152	
39980.7	-2.14711e-06	2097152	2097152	
39996.1	-2.00087e-06	2097152	2097152	
40011.4	-1.85709e-06	2097152	2097152	
40026.8	-1.71577e-06	2097152	2097152	
40042.1	-1.57695e-06	2097152	2097152	
40057.5	-1.44064e-06	2097152	2097152	
40072.8	-1.30685e-06	2097152	2097152	
40088.2	-1.17561e-06	2097152	2097152	
40103.5	-1.04694e-06	2097152	2097152	
40118.9	-9.20842e-07	2097152	2097152	
40134.2	-7.97345e-07	2097152	2097152	
40149.6	-6.76462e-07	2097152	2097152	
40164.9	-5.5821e-07	2097152	2097152	
40180.3	-4.42601e-07	2097152	2097152	
40195.6	-3.29654e-07	2097152	2097152	
40211	-2.1938e-07	2097152	2097152	
40226.3	-1.11796e-07	2097152	2097152	
40241.7	-6.91398e-09	2097152	2097152	
40257	9.52514e-08	2097152	2097152	
40272.4	1.94689e-07	2097152	2097152	
40287.7	2.91387e-07	2097152	2097152	
40303	3.85332e-07	2097152	2097152	
40318.4	4.76515e-07	2097152	2097152	
40333.7	5.64924e-07	2097152	2097152	
40349.1	6.50549e-07	2097152	2097152	
40364.4	7.33381e-07	2097152	2097152	
40379.8	8.1341e-07	2097152	2097152	
40395.1	8.90629e-07	2097152	2097152	
40410.5	9.65028e-07	2097152	2097152	
40425.8	1.0366e-06	2097152	2097152	
40441.2	1.10534e-06	2097152	2097152	
40456.5	1.17124e-06	2097152	2097152	
40471.9	1.2343e-06	2097152	2097152	
40487.2	1.2945e-06	2097152	2097152	
40502.6	1.35185e-06	2097152	2097152	
40517.9	1.40634e-06	2097152	2097152	
40533.3	1.45797e-06	2097152	2097152	
40548.6	1.50673e-06	2097152	2097152	
40564	1.55262e-06	2097152	2097152	
40579.3	1.59564e-06	2097152	2097152	
40594.7	1.63579e-06	2097152	2097152	
40610	1.67307e-06	2097152	2097152	
40625.3	1.70747e-06	2097152	2097152	
40640.7	1.73901e-06	2097152	2097152	
40656	1.76767e-06	2097152	2097152	
40671.4	1.79346e-06	2097152	2097152	
40686.7	1.81638e-06	2097152	2097152	
40702.1	1.83644e-06	2097152	2097152	
40717.4	1.85364e-06	2097152	2097152	
40732.8	1.86798e-06	2097152	2097152	
40748.1	1.87947e-06	2097152	2097152	
40763.5	1.88811e-06	2097152	2097152	
40778.8	1.89391e-06	2097152	2097152	
40794.2	1.89687e-06	2097152	2097152	
40809.5	1.89699e-06	2097152	2097152	
40824.9	1.8943e-06	2097152	2097152	
40840.2	1.88879e-06	2097152	2097152	
40855.6	1.88048e-06	2097152	2097152	
40870.9	1.86936e-06	2097152	2097152	
40886.3	1.85546e-06	2097152	2097152	
40901.6	1.83878e-06	2097152	2097152	
40917	1.81933e-06	2097152	2097152	
40932.3	1.79712e-06	2097152	2097152	
40947.7	1.77217e-06	2097152	2097152	
40963	1.74448e-06	2097152	2097152	
40978.3	1.71407e-06	2097152	2097152	
40993.7	1.68095e-06	2097152	2097152	
41009	1.64514e-06	2097152	2097152	
41024.4	1.60664e-06	2097152	2097152	
41039.7	1.56548e-06	2097152	2097152	
41055.1	1.52167e-06	2097152	2097152	
41070.4	1.47521e-06	2097152	2097152	
41085.8	1.42614e-06	2097152	2097152	
41101.1	1.37447e-06	2097152	2097152	
41116.5	1.3202e-06	2097152	2097152	
41131.8	1.26337e-06	2097152	2097152	
41147.2	1.20398e-06	2097152	2097152	
41162.5	1.14205e-06	2097152	2097152	
41177.9	1.07761e-06	2097152	2097152	
41193.2	1.01067e-06	2097152	2097152	
41208.6	9.41251e-07	2097152	2097152	
41223.9	8.69371e-07	2097152	2097152	
41239.3	7.95052e-07	2097152	2097152	
41254.6	7.18313e-07	2097152	2097152	
41270	6.39177e-07	2097152	2097152	
41285.3	5.5766e-07	2097152	2097152	
41300.6	4.73788e-07	2097152	2097152	
41316	3.8758e-07	2097152	2097152	
41331.3	2.99059e-07	2097152	2097152	
41346.7	2.08248e-07	2097152	2097152	
41362	1.15167e-07	2097152	2097152	
41377.4	1.98406e-08	2097152	2097152	
41392.7	-7.77081e-08	2097152	2097152	
41408.1	-1.77457e-07	2097152	2097152	
41423.4	-2.79382e-07	2097152	2097152	
41438.8	-3.83459e-07	2097152	2097152	
41454.1	-4.89665e-07	2097152	2097152	
41469.5	-5.97974e-07	2097152	2097152	
41484.8	-7.08363e-07	2097152	2097152	
41500.2	-8.20806e-07	2097152	2097152	
41515.5	-9.3528e-07	2097152	2097152	
41530.9	-1.05176e-06	2097152	2097152	
41546.2	-1.17022e-06	2097152	2097152	
41561.6	-1.29063e-06	2097152	2097152	
41576.9	-1.41297e-06	2097152	2097152	
41592.3	-1.53722e-06	2097152	2097152	
41607.6	-1.66334e-06	2097152	2097152	
41622.9	-1.79132e-06	2097152	2097152	
41638.3	-1.92112e-06	2097152	2097152	
41653.6	-2.05272e-06	2097152	2097152	
41669	-2.18609e-06	2097152	2097152	
41684.3	-2.32122e-06	2097152	2097152	
41699.7	-2.45806e-06	2097152	2097152	
41715	-2.5966e-06	2097152	2097152	
41730.4	-2.73681e-06	2097152	2097152	
41745.7	-2.87866e-06	2097152	2097152	
41761.1	-3.02212e-06	2097152	2097152	
41776.4	-3.16718e-06	2097152	2097152	
41791.8	-3.31379e-06	2097152	2097152	
41807.1	-3.46195e-06	2097152	2097152	
41822.5	-3.61161e-06	2097152	2097152	
41837.8	-3.76276e-06	2097152	2097152	
41853.2	-3.91536e-06	2097152	2097152	
41868.5	-4.0694e-06	2097152	2097152	
41883.9	-4.22484e-06	2097152	2097152	
41899.2	-4.38166e-06	2097152	2097152	
41914.6	-4.53983e-06	2097152	2097152	
41929.9	-4.69932e-06	2097152	2097152	
41945.3	-4.86012e-06	2097152	2097152	
41960.6	-5.02218e-06	2097152	2097152	
41975.9	-5.1855e-06	2097152	2097152	
41991.3	-5.35003e-06	2097152	2097152	
42006.6	-5.51577e-06	2097152	2097152	
42022	-5.68267e-06	2097152	2097152	
42037.3	-5.85072e-06	2097152	2097152	
42052.7	-6.01989e-06	2097152	2097152	
42068	-6.19015e-06	2097152	2097152	
42083.4	-6.36148e-06	2097152	2097152	
42098.7	-6.53385e-06	2097152	2097152	
42114.1	-6.70724e-06	2097152	2097152	
42129.4	-6.88163e-06	2097152	2097152	
42144.8	-7.05698e-06	2097152	2097152	
42160.1	-7.23328e-06	2097152	2097152	
42175.5	-7.4105e-06	2097152	2097152	
42190.8	-7.58862e-06	2097152	2097152	
42206.2	-7.76761e-06	2097152	2097152	
42221.5	-7.94744e-06	2097152	2097152	
42236.9	-8.1281e-06	2097152	2097152	
42252.2	-8.30957e-06	2097152	2097152	
42267.6	-8.49181e-06	2097152	2097152	
42282.9	-8.6748e-06	2097152	2097152	
42298.2	-8.85853e-06	2097152	2097152	
42313.6	-9.04296e-06	2097152	2097152	
42328.9	-9.22809e-06	2097152	2097152	
42344.3	-9.41387e-06	2097152	2097152	
42359.6	-9.6003e-06	2097152	2097152	
42375	-9.78734e-06	2097152	2097152	
42390.3	-9.97498e-06	2097152	2097152	
42405.7	-1.01632e-05	2097152	2097152	
42421	-1.0352e-05	2097152	2097152	
42436.4	-1.05413e-05	2097152	2097152	
42451.7	-1.07311e-05	2097152	2097152	
42467.1	-1.09214e-05	2097152	2097152	
42482.4	-1.11122e-05	2097152	2097152	
42497.8	-1.13034e-05	2097152	2097152	
42513.1	-1.14951e-05	2097152	2097152	
42528.5	-1.16871e-05	2097152	2097152	
42543.8	-1.18796e-05	2097152	2097152	
42559.2	-1.20724e-05	2097152	2097152	
42574.5	-1.22656e-05	2097152	2097152	
42589.9	-1.24591e-05	2097152	2097152	
42605.2	-1.26529e-05	2097152	2097152	
42620.5	-1.2847e-05	2097152	2097152	
42635.9	-1.30414e-05	2097152	2097152	
42651.2	-1.3236e-05	2097152	2097152	
42666.6	-1.34308e-05	2097152	2097152	
42681.9	-1.36259e-05	2097152	2097152	
42697.3	-1.38212e-05	2097152	2097152	
42712.6	-1.40167e-05	2097152	2097152	
42728	-1.42123e-05	2097152	2097152	
42743.3	-1.4408e-05	2097152	2097152	
42758.7	-1.46039e-05	2097152	2097152	
42774	-1.47999e-05	2097152	2097152	
42789.4	-1.4996e-05	2097152	2097152	
42804.7	-1.51922e-05	2097152	2097152	
42820.1	-1.53884e-05	2097152	2097152	
42835.4	-1.55847e-05	2097152	2097152	
42850.8	-1.5781e-05	2097152	2097152	
42866.1	-1.59773e-05	2097152	2097152	
42881.5	-1.61735e-05	2097152	2097152	
42896.8	-1.63698e-05	2097152	2097152	
42912.2	-1.6566e-05	2097152	2097152	
42927.5	-1.67622e-05	2097152	2097152	
42942.9	-1.69583e-05	2097152	2097152	
42958.2	-1.71543e-05	2097152	2097152	
42973.5	-1.73502e-05	2097152	2097152	
42988.9	-1.7546e-05	2097152	2097152	
43004.2	-1.77416e-05	2097152	2097152	
43019.6	-1.79371e-05	2097152	2097152	
43034.9	-1.81324e-05	2097152	2097152	
43050.3	-1.83276e-05	2097152	2097152	
43065.6	-1.85225e-05	2097152	2097152	
43081	-1.87173e-05	2097152	2097152	
43096.3	-1.89118e-05	2097152	2097152	
43111.7	-1.91061e-05	2097152	2097152	
43127	-1.93001e-05	2097152	2097152	
43142.4	-1.94939e-05	2097152	2097152	
43157.7	-1.96873e-05	2097152	2097152	
43173.1	-1.98805e-05	2097152	2097152	
43188.4	-2.00733e-05	2097152	2097152	
