0	0
10.3657	0
20.7315	0
31.0972	0
41.4629	0
51.8287	0
62.1944	0
72.5601	0
82.9259	0
93.2916	0
103.657	0
114.023	0
124.389	0
134.755	0
145.12	0
155.486	0
165.852	0
176.217	0
186.583	0
196.949	0
207.315	0
217.68	0
228.046	0
238.412	0
248.778	0
259.143	0
269.509	0
279.875	0
290.241	0
300.606	0
310.972	0
321.338	0
331.703	0
342.069	0
352.435	0
362.801	0
373.166	0
383.532	0
393.898	0
404.264	0
414.629	0
424.995	0
435.361	0
445.727	0
456.092	0
466.458	0
476.824	0
487.189	0
497.555	0
507.921	0
518.287	0
528.652	0
539.018	0
549.384	0
559.75	0
570.115	0
580.481	0
590.847	0
601.213	0
611.578	0
621.944	0
632.31	0
642.676	0
653.041	0
663.407	0
673.773	0
684.138	0
694.504	0
704.87	0
715.236	0
725.601	0
735.967	0
746.333	0
756.699	0
767.064	0
777.43	0
787.796	0
798.162	0
808.527	0
818.893	0
829.259	0
839.624	0
849.99	0
860.356	0
870.722	0
881.087	0
891.453	0
901.819	0
912.185	0
922.55	0
932.916	0
943.282	0
953.648	0
964.013	0
974.379	0
984.745	0
995.11	0
1005.48	0
1015.84	0
1026.21	0
1036.57	0
1046.94	0
1057.3	0
1067.67	0
1078.04	0
1088.4	0
1098.77	0
1109.13	0
1119.5	0
1129.86	0
1140.23	0
1150.6	0
1160.96	0
1171.33	0
1181.69	0
1192.06	0
1202.43	0
1212.79	0
1223.16	0
1233.52	0
1243.89	0
1254.25	0
1264.62	0
1274.99	0
1285.35	0
1295.72	0
1306.08	0
1316.45	0
1326.81	0
1337.18	0
1347.55	0
1357.91	0
1368.28	0
1378.64	0
1389.01	0
1399.37	0
1409.74	0
1420.11	0
1430.47	0
1440.84	0
1451.2	0
1461.57	0
1471.93	0
1482.3	0
1492.67	0
1503.03	0
1513.4	0
1523.76	0
1534.13	0
1544.49	0
1554.86	0
1565.23	0
1575.59	0
1585.96	0
1596.32	0
1606.69	0
1617.05	0
1627.42	0
1637.79	0
1648.15	0
1658.52	0
1668.88	0
1679.25	0
1689.61	0
1699.98	0
1710.35	0
1720.71	0
1731.08	0
1741.44	0
1751.81	0
1762.17	0
1772.54	0
1782.91	0
1793.27	0
1803.64	0
1814	0
1824.37	0
1834.73	0
1845.1	0
1855.47	0
1865.83	0
1876.2	0
1886.56	0
1896.93	0
1907.3	0
1917.66	0
1928.03	0
1938.39	0
1948.76	0
1959.12	0
1969.49	0
1979.86	0
1990.22	0
2000.59	0
2010.95	0
2021.32	0
2031.68	0
2042.05	0
2052.42	0
2062.78	0
2073.15	0
2083.51	0
2093.88	0
2104.24	0
2114.61	0
2124.98	0
2135.34	0
2145.71	0
2156.07	0
2166.44	0
2176.8	0
2187.17	0
2197.54	0
2207.9	0
2218.27	0
2228.63	0
2239	0
2249.36	0
2259.73	0
2270.1	0
2280.46	0
2290.83	0
2301.19	0
2311.56	0
2321.92	0
2332.29	0
2342.66	0
2353.02	0
2363.39	0
2373.75	0
2384.12	0
2394.48	0
2404.85	0
2415.22	0
2425.58	0
2435.95	0
2446.31	0
2456.68	0
2467.04	0
2477.41	0
2487.78	0
2498.14	0
2508.51	0
2518.87	0
2529.24	0
2539.6	0
2549.97	0
2560.34	0
2570.7	0
2581.07	0
2591.43	0
2601.8	0
2612.16	0
2622.53	0
2632.9	0
2643.26	0
2653.63	0
2663.99	0
2674.36	0
2684.73	0
2695.09	0
2705.46	0
2715.82	0
2726.19	0
2736.55	0
2746.92	0
2757.29	0
2767.65	-9.09495e-13
2778.02	-9.09495e-13
2788.38	-9.09495e-13
2798.75	-1.81899e-12
2809.11	-3.63798e-12
2819.48	-5.45697e-12
2829.85	-8.18545e-12
2840.21	-1.18234e-11
2850.58	-1.81899e-11
2860.94	-2.81943e-11
2871.31	-4.09273e-11
2881.67	-6.09361e-11
2892.04	-8.91305e-11
2902.41	-1.29148e-10
2912.77	-1.86446e-10
2923.14	-2.68301e-10
2933.5	-3.82897e-10
2943.87	-5.42059e-10
2954.23	-7.63066e-10
2964.6	-1.06957e-09
2974.97	-1.48975e-09
2985.33	-2.06273e-09
2995.7	-2.84126e-09
3006.06	-3.89173e-09
3016.43	-5.30417e-09
3026.79	-7.19228e-09
3037.16	-9.70158e-09
3047.53	-1.30212e-08
3057.89	-1.73904e-08
3068.26	-2.31139e-08
3078.62	-3.05745e-08
3088.99	-4.02515e-08
3099.35	-5.27461e-08
3109.72	-6.88033e-08
3120.09	-8.93451e-08
3130.45	-1.15504e-07
3140.82	-1.4867e-07
3151.18	-1.90535e-07
3161.55	-2.43152e-07
3171.91	-3.09004e-07
3182.28	-3.91072e-07
3192.64	-4.92929e-07
3203.01	-6.18834e-07
3213.38	-7.7384e-07
3223.74	-9.63922e-07
3234.11	-1.19611e-06
3244.47	-1.47865e-06
3254.84	-1.82115e-06
3265.2	-2.23482e-06
3275.57	-2.7326e-06
3285.94	-3.32945e-06
3296.3	-4.04255e-06
3306.67	-4.89156e-06
3317.03	-5.89891e-06
3327.4	-7.0901e-06
3337.76	-8.49399e-06
3348.13	-1.01431e-05
3358.49	-1.20742e-05
3368.86	-1.4328e-05
3379.23	-1.69506e-05
3389.59	-1.99927e-05
3399.96	-2.35108e-05
3410.32	-2.75674e-05
3420.69	-3.22312e-05
3431.05	-3.75776e-05
3441.42	-4.36894e-05
3451.78	-5.06566e-05
3462.15	-5.85772e-05
3472.52	-6.75576e-05
3482.88	-7.77126e-05
3493.25	-8.91661e-05
3503.61	-0.000102051
3513.98	-0.00011651
3524.34	-0.000132696
3534.71	-0.00015077
3545.07	-0.000170905
3555.44	-0.000193283
3565.8	-0.000218097
3576.17	-0.000245549
3586.54	-0.000275852
3596.9	-0.000309229
3607.27	-0.000345913
3617.63	-0.000386144
3628	-0.000430174
3638.36	-0.000478262
3648.73	-0.000530675
3659.09	-0.000587688
3669.46	-0.000649581
3679.82	-0.000716641
3690.19	-0.000789159
3700.55	-0.00086743
3710.92	-0.00095175
3721.29	-0.00104242
3731.65	-0.00113973
3742.02	-0.00124398
3752.38	-0.00135545
3762.75	-0.00147444
3773.11	-0.00160122
3783.48	-0.00173604
3793.84	-0.00187917
3804.21	-0.00203083
3814.57	-0.00219125
3824.94	-0.0023606
3835.3	-0.00253906
3845.67	-0.00272675
3856.03	-0.00292379
3866.4	-0.00313022
3876.77	-0.00334607
3887.13	-0.00357131
3897.5	-0.00380584
3907.86	-0.00404953
3918.23	-0.00430215
3928.59	-0.00456343
3938.96	-0.00483299
3949.32	-0.00511039
3959.69	-0.00539508
3970.05	-0.00568642
3980.42	-0.00598365
3990.78	-0.00628588
4001.15	-0.00659213
4011.51	-0.00690125
4021.88	-0.00721196
4032.24	-0.00752282
4042.61	-0.00783224
4052.98	-0.00813844
4063.34	-0.00843947
4073.71	-0.00873319
4084.07	-0.00901726
4094.44	-0.00928913
4104.8	-0.00954604
4115.17	-0.00978499
4125.53	-0.0100028
4135.9	-0.010196
4146.26	-0.0103608
4156.63	-0.0104935
4166.99	-0.0105897
4177.36	-0.0106451
4187.73	-0.010655
4198.09	-0.0106144
4208.46	-0.0105183
4218.82	-0.0103611
4229.19	-0.0101374
4239.55	-0.00984117
4249.92	-0.00946643
4260.28	-0.00900692
4270.65	-0.00845621
4281.01	-0.0078077
4291.38	-0.00705469
4301.75	-0.00619032
4312.11	-0.00520766
4322.48	-0.00409972
4332.84	-0.00285949
4343.21	-0.00147995
4353.57	4.58873e-05
4363.94	0.00172491
4374.3	0.00356389
4384.67	0.00556947
4395.04	0.00774805
4405.4	0.0101058
4415.77	0.0126486
4426.13	0.015382
4436.5	0.0183112
4446.86	0.0214408
4457.23	0.0247751
4467.59	0.0283177
4477.96	0.0320719
4488.33	0.0360401
4498.69	0.040224
4509.06	0.0446249
4519.42	0.049243
4529.79	0.0540779
4540.15	0.0591284
4550.52	0.0643922
4560.89	0.0698663
4571.25	0.0755468
4581.62	0.0814288
4591.98	0.0875064
4602.35	0.0937728
4612.72	0.10022
4623.08	0.10684
4633.45	0.113621
4643.81	0.120555
4654.18	0.127628
4664.54	0.134828
4674.91	0.142142
4685.27	0.149555
4695.64	0.157052
4706.01	0.164616
4716.37	0.172231
4726.74	0.179879
4737.1	0.187541
4747.47	0.195199
4757.83	0.202833
4768.2	0.210423
4778.57	0.217949
4788.93	0.22539
4799.3	0.232724
4809.66	0.239932
4820.03	0.246991
4830.39	0.253881
4840.76	0.26058
4851.13	0.267067
4861.49	0.273322
4871.86	0.279323
4882.22	0.285052
4892.59	0.290488
4902.95	0.295613
4913.32	0.300408
4923.69	0.304857
4934.05	0.308942
4944.42	0.312647
4954.78	0.315959
4965.15	0.318862
4975.51	0.321346
4985.88	0.323397
4996.25	0.325006
5006.61	0.326164
5016.98	0.326863
5027.34	0.327096
5037.71	0.326859
5048.07	0.326147
5058.44	0.324959
5068.81	0.323292
5079.17	0.321148
5089.54	0.318528
5099.9	0.315436
5110.27	0.311875
5120.63	0.307852
5131	0.303374
5141.37	0.298449
5151.73	0.293088
5162.1	0.287299
5172.46	0.281097
5182.83	0.274494
5193.19	0.267505
5203.56	0.260144
5213.93	0.252428
5224.29	0.244375
5234.66	0.236002
5245.02	0.227329
5255.39	0.218374
5265.75	0.209158
5276.12	0.199703
5286.48	0.190029
5296.85	0.180158
5307.22	0.170113
5317.58	0.159916
5327.95	0.14959
5338.31	0.139158
5348.68	0.128644
5359.04	0.11807
5369.41	0.10746
5379.78	0.0968361
5390.14	0.0862223
5400.51	0.0756411
5410.87	0.0651149
5421.24	0.0546659
5431.6	0.0443159
5441.97	0.034086
5452.34	0.0239971
5462.7	0.0140693
5473.07	0.00432227
5483.43	-0.00522527
5493.8	-0.0145552
5504.16	-0.0236501
5514.53	-0.0324937
5524.9	-0.0410703
5535.26	-0.0493652
5545.63	-0.0573649
5555.99	-0.0650566
5566.36	-0.0724287
5576.72	-0.0794707
5587.09	-0.0861733
5597.46	-0.092528
5607.82	-0.0985278
5618.19	-0.104167
5628.55	-0.10944
5638.92	-0.114344
5649.28	-0.118876
5659.65	-0.123035
5670.02	-0.126821
5680.38	-0.130236
5690.75	-0.13328
5701.11	-0.135959
5711.48	-0.138276
5721.84	-0.140237
5732.21	-0.141849
5742.58	-0.14312
5752.94	-0.144057
5763.31	-0.144671
5773.67	-0.144972
5784.04	-0.144972
5794.4	-0.144681
5804.77	-0.144114
5815.14	-0.143284
5825.5	-0.142203
5835.87	-0.140887
5846.23	-0.139351
5856.6	-0.137609
5866.96	-0.135677
5877.33	-0.13357
5887.7	-0.131305
5898.06	-0.128897
5908.43	-0.126362
5918.79	-0.123716
5929.16	-0.120974
5939.52	-0.118151
5949.89	-0.115262
5960.26	-0.112323
5970.62	-0.109347
5980.99	-0.106349
5991.35	-0.103341
6001.72	-0.100337
6012.09	-0.0973479
6022.45	-0.0943862
6032.82	-0.0914625
6043.18	-0.0885871
6053.55	-0.0857693
6063.91	-0.083018
6074.28	-0.0803412
6084.65	-0.077746
6095.01	-0.075239
6105.38	-0.072826
6115.74	-0.0705118
6126.11	-0.0683007
6136.47	-0.0661962
6146.84	-0.0642011
6157.21	-0.0623175
6167.57	-0.0605467
6177.94	-0.0588896
6188.3	-0.0573463
6198.67	-0.0559164
6209.03	-0.0545988
6219.4	-0.0533921
6229.77	-0.0522943
6240.13	-0.0513029
6250.5	-0.0504151
6260.86	-0.0496277
6271.23	-0.0489371
6281.59	-0.0483396
6291.96	-0.0478311
6302.33	-0.0474073
6312.69	-0.0470638
6323.06	-0.0467959
6333.42	-0.0465989
6343.79	-0.0464681
6354.15	-0.0463987
6364.52	-0.0463858
6374.89	-0.0464246
6385.25	-0.0465104
6395.62	-0.0466384
6405.98	-0.046804
6416.35	-0.0470028
6426.71	-0.0472303
6437.08	-0.0474824
6447.45	-0.0477548
6457.81	-0.0480436
6468.18	-0.0483452
6478.54	-0.0486559
6488.91	-0.0489723
6499.27	-0.0492912
6509.64	-0.0496095
6520.01	-0.0499245
6530.37	-0.0502334
6540.74	-0.0505339
6551.1	-0.0508236
6561.47	-0.0511004
6571.83	-0.0513624
6582.2	-0.0516078
6592.57	-0.0518351
6602.93	-0.0520427
6613.3	-0.0522294
6623.66	-0.0523939
6634.03	-0.0525353
6644.39	-0.0526527
6654.76	-0.0527451
6665.13	-0.052812
6675.49	-0.0528528
6685.86	-0.0528669
6696.22	-0.0528539
6706.59	-0.0528135
6716.95	-0.0527454
6727.32	-0.0526494
6737.69	-0.0525254
6748.05	-0.0523734
6758.42	-0.0521932
6768.78	-0.051985
6779.15	-0.0517488
6789.52	-0.0514847
6799.88	-0.0511929
6810.25	-0.0508736
6820.61	-0.0505271
6830.98	-0.0501535
6841.34	-0.0497533
6851.71	-0.0493268
6862.08	-0.0488744
6872.44	-0.0483964
6882.81	-0.0478935
6893.17	-0.0473659
6903.54	-0.0468143
6913.9	-0.0462392
6924.27	-0.0456413
6934.64	-0.0450211
6945	-0.0443793
6955.37	-0.0437166
6965.73	-0.0430338
6976.1	-0.0423316
6986.46	-0.0416109
6996.83	-0.0408724
7007.2	-0.040117
7017.56	-0.0393457
7027.93	-0.0385593
7038.29	-0.0377589
7048.66	-0.0369455
7059.02	-0.03612
7069.39	-0.0352835
7079.76	-0.0344372
7090.12	-0.033582
7100.49	-0.0327191
7110.85	-0.0318497
7121.22	-0.0309749
7131.58	-0.0300958
7141.95	-0.0292137
7152.32	-0.0283297
7162.68	-0.0274451
7173.05	-0.026561
7183.41	-0.0256786
7193.78	-0.0247991
7204.14	-0.0239238
7214.51	-0.0230538
7224.88	-0.0221903
7235.24	-0.0213344
7245.61	-0.0204875
7255.97	-0.0196505
7266.34	-0.0188246
7276.7	-0.018011
7287.07	-0.0172106
7297.44	-0.0164247
7307.8	-0.0156543
7318.17	-0.0149003
7328.53	-0.0141638
7338.9	-0.0134458
7349.26	-0.0127471
7359.63	-0.0120688
7370	-0.0114116
7380.36	-0.0107764
7390.73	-0.010164
7401.09	-0.0095753
7411.46	-0.0090109
7421.82	-0.00847155
7432.19	-0.00795792
7442.56	-0.00747062
7452.92	-0.00701026
7463.29	-0.00657737
7473.65	-0.00617246
7484.02	-0.005796
7494.38	-0.00544839
7504.75	-0.00513003
7515.12	-0.00484124
7525.48	-0.0045823
7535.85	-0.00435345
7546.21	-0.00415488
7556.58	-0.00398674
7566.94	-0.00384912
7577.31	-0.00374205
7587.68	-0.00366553
7598.04	-0.00361949
7608.41	-0.00360384
7618.77	-0.00361838
7629.14	-0.00366292
7639.5	-0.00373717
7649.87	-0.0038408
7660.23	-0.00397343
7670.6	-0.00413463
7680.97	-0.00432389
7691.33	-0.00454068
7701.7	-0.00478439
7712.06	-0.00505437
7722.43	-0.00534991
7732.79	-0.00567026
7743.16	-0.0060146
7753.53	-0.00638207
7763.89	-0.00677178
7774.26	-0.00718276
7784.62	-0.00761403
7794.99	-0.00806454
7805.35	-0.00853322
7815.72	-0.00901895
7826.09	-0.00952058
7836.45	-0.0100369
7846.82	-0.0105668
7857.18	-0.0111089
7867.55	-0.011662
7877.91	-0.0122249
7888.28	-0.0127962
7898.64	-0.0133746
7909.01	-0.0139587
7919.38	-0.0145474
7929.74	-0.0151392
7940.11	-0.0157327
7950.47	-0.0163267
7960.84	-0.0169199
7971.2	-0.0175109
7981.57	-0.0180984
7991.94	-0.0186812
8002.3	-0.0192579
8012.67	-0.0198273
8023.03	-0.0203882
8033.4	-0.0209395
8043.76	-0.0214798
8054.13	-0.0220082
8064.5	-0.0225234
8074.86	-0.0230245
8085.23	-0.0235104
8095.59	-0.02398
8105.96	-0.0244326
8116.32	-0.0248671
8126.69	-0.0252826
8137.06	-0.0256785
8147.42	-0.0260538
8157.79	-0.0264078
8168.15	-0.02674
8178.52	-0.0270495
8188.88	-0.0273359
8199.25	-0.0275985
8209.62	-0.0278369
8219.98	-0.0280507
8230.35	-0.0282393
8240.71	-0.0284025
8251.08	-0.0285399
8261.44	-0.0286512
8271.81	-0.0287362
8282.17	-0.0287948
8292.54	-0.0288266
8302.91	-0.0288317
8313.27	-0.0288099
8323.64	-0.0287613
8334	-0.0286857
8344.37	-0.0285833
8354.73	-0.0284541
8365.1	-0.0282982
8375.47	-0.0281158
8385.83	-0.0279069
8396.2	-0.0276719
8406.56	-0.0274108
8416.93	-0.027124
8427.29	-0.0268118
8437.66	-0.0264743
8448.03	-0.0261121
8458.39	-0.0257253
8468.76	-0.0253144
8479.12	-0.0248797
8489.49	-0.0244217
8499.85	-0.0239407
8510.22	-0.0234373
8520.59	-0.0229119
8530.95	-0.0223649
8541.32	-0.0217969
8551.68	-0.0212083
8562.05	-0.0205997
8572.41	-0.0199717
8582.78	-0.0193247
8593.15	-0.0186594
8603.51	-0.0179764
8613.88	-0.0172761
8624.24	-0.0165593
8634.61	-0.0158265
8644.97	-0.0150784
8655.34	-0.0143156
8665.71	-0.0135388
8676.07	-0.0127486
8686.44	-0.0119457
8696.8	-0.0111308
8707.17	-0.0103045
8717.53	-0.00946771
8727.9	-0.00862098
8738.27	-0.00776507
8748.63	-0.00690071
8759	-0.00602865
8769.36	-0.00514963
8779.73	-0.00426441
8790.09	-0.00337375
8800.46	-0.00247843
8810.83	-0.00157921
8821.19	-0.000676883
8831.56	0.00022777
8841.92	0.00113396
8852.29	0.00204089
8862.65	0.00294777
8873.02	0.00385379
8883.39	0.00475817
8893.75	0.0056601
8904.12	0.00655878
8914.48	0.00745343
8924.85	0.00834324
8935.21	0.00922743
8945.58	0.0101052
8955.95	0.0109758
8966.31	0.0118385
8976.68	0.0126924
8987.04	0.0135369
8997.41	0.0143712
9007.77	0.0151946
9018.14	0.0160063
9028.51	0.0168057
9038.87	0.017592
9049.24	0.0183647
9059.6	0.019123
9069.97	0.0198664
9080.33	0.0205941
9090.7	0.0213057
9101.07	0.0220006
9111.43	0.0226782
9121.8	0.023338
9132.16	0.0239795
9142.53	0.0246022
9152.89	0.0252057
9163.26	0.0257897
9173.63	0.0263536
9183.99	0.0268972
9194.36	0.0274201
9204.72	0.027922
9215.09	0.0284027
9225.45	0.0288619
9235.82	0.0292995
9246.19	0.0297151
9256.55	0.0301088
9266.92	0.0304804
9277.28	0.0308298
9287.65	0.0311569
9298.01	0.0314618
9308.38	0.0317445
9318.75	0.032005
9329.11	0.0322433
9339.48	0.0324596
9349.84	0.032654
9360.21	0.0328267
9370.57	0.0329778
9380.94	0.0331076
9391.31	0.0332163
9401.67	0.0333041
9412.04	0.0333714
9422.4	0.0334184
9432.77	0.0334456
9443.13	0.0334531
9453.5	0.0334414
9463.87	0.0334109
9474.23	0.033362
9484.6	0.0332951
9494.96	0.0332107
9505.33	0.0331091
9515.69	0.0329908
9526.06	0.0328564
9536.43	0.0327062
9546.79	0.0325408
9557.16	0.0323605
9567.52	0.032166
9577.89	0.0319578
9588.25	0.0317362
9598.62	0.0315018
9608.99	0.0312551
9619.35	0.0309965
9629.72	0.0307266
9640.08	0.0304458
9650.45	0.0301546
9660.81	0.0298534
9671.18	0.0295427
9681.55	0.0292229
9691.91	0.0288945
9702.28	0.0285579
9712.64	0.0282134
9723.01	0.0278614
9733.37	0.0275024
9743.74	0.0271366
9754.11	0.0267644
9764.47	0.0263861
9774.84	0.0260021
9785.2	0.0256125
9795.57	0.0252176
9805.93	0.0248178
9816.3	0.0244131
9826.67	0.0240039
9837.03	0.0235903
9847.4	0.0231724
9857.76	0.0227504
9868.13	0.0223245
9878.49	0.0218946
9888.86	0.021461
9899.23	0.0210238
9909.59	0.0205828
9919.96	0.0201383
9930.32	0.0196901
9940.69	0.0192384
9951.05	0.0187832
9961.42	0.0183243
9971.79	0.0178618
9982.15	0.0173957
9992.52	0.0169259
10002.9	0.0164523
10013.2	0.0159749
10023.6	0.0154935
10034	0.0150083
10044.3	0.014519
10054.7	0.0140255
10065.1	0.0135279
10075.4	0.0130259
10085.8	0.0125196
10096.2	0.0120089
10106.5	0.0114937
10116.9	0.0109738
10127.3	0.0104493
10137.6	0.00992013
10148	0.00938618
10158.4	0.00884743
10168.7	0.00830386
10179.1	0.00775543
10189.5	0.00720215
10199.8	0.00664401
10210.2	0.00608102
10220.6	0.00551322
10230.9	0.00494065
10241.3	0.00436336
10251.7	0.00378141
10262	0.00319489
10272.4	0.0026039
10282.8	0.00200855
10293.1	0.00140896
10303.5	0.00080527
10313.9	0.000197639
10324.2	-0.000413769
10334.6	-0.00102877
10345	-0.00164718
10355.3	-0.00226878
10365.7	-0.00289335
10376	-0.00352068
10386.4	-0.00415051
10396.8	-0.0047826
10407.1	-0.00541669
10417.5	-0.00605251
10427.9	-0.00668979
10438.2	-0.00732825
10448.6	-0.00796759
10459	-0.00860754
10469.3	-0.0092478
10479.7	-0.00988806
10490.1	-0.010528
10500.4	-0.0111674
10510.8	-0.0118059
10521.2	-0.0124433
10531.5	-0.0130791
10541.9	-0.0137132
10552.3	-0.0143453
10562.6	-0.0149751
10573	-0.0156022
10583.4	-0.0162265
10593.7	-0.0168477
10604.1	-0.0174655
10614.5	-0.0180797
10624.8	-0.0186901
10635.2	-0.0192965
10645.6	-0.0198986
10655.9	-0.0204962
10666.3	-0.0210893
10676.7	-0.0216776
10687	-0.0222609
10697.4	-0.0228391
10707.8	-0.0234122
10718.1	-0.0239799
10728.5	-0.0245422
10738.8	-0.025099
10749.2	-0.0256503
10759.6	-0.0261959
10769.9	-0.0267358
10780.3	-0.02727
10790.7	-0.0277985
10801	-0.0283212
10811.4	-0.0288383
10821.8	-0.0293496
10832.1	-0.0298552
10842.5	-0.0303552
10852.9	-0.0308496
10863.2	-0.0313384
10873.6	-0.0318218
10884	-0.0322997
10894.3	-0.0327724
10904.7	-0.0332398
10915.1	-0.033702
10925.4	-0.0341592
10935.8	-0.0346115
10946.2	-0.0350589
10956.5	-0.0355016
10966.9	-0.0359396
10977.3	-0.0363731
10987.6	-0.0368022
10998	-0.0372269
11008.4	-0.0376475
11018.7	-0.0380639
11029.1	-0.0384763
11039.5	-0.0388847
11049.8	-0.0392893
11060.2	-0.0396901
11070.6	-0.0400873
11080.9	-0.0404808
11091.3	-0.0408707
11101.7	-0.0412572
11112	-0.0416401
11122.4	-0.0420196
11132.7	-0.0423956
11143.1	-0.0427683
11153.5	-0.0431375
11163.8	-0.0435033
11174.2	-0.0438656
11184.6	-0.0442245
11194.9	-0.0445798
11205.3	-0.0449315
11215.7	-0.0452796
11226	-0.0456239
11236.4	-0.0459644
11246.8	-0.0463009
11257.1	-0.0466334
11267.5	-0.0469616
11277.9	-0.0472856
11288.2	-0.047605
11298.6	-0.0479198
11309	-0.0482298
11319.3	-0.0485348
11329.7	-0.0488345
11340.1	-0.0491289
11350.4	-0.0494176
11360.8	-0.0497004
11371.2	-0.0499772
11381.5	-0.0502476
11391.9	-0.0505115
11402.3	-0.0507686
11412.6	-0.0510185
11423	-0.0512612
11433.4	-0.0514962
11443.7	-0.0517233
11454.1	-0.0519422
11464.5	-0.0521527
11474.8	-0.0523545
11485.2	-0.0525472
11495.5	-0.0527307
11505.9	-0.0529046
11516.3	-0.0530686
11526.6	-0.0532224
11537	-0.0533659
11547.4	-0.0534986
11557.7	-0.0536204
11568.1	-0.0537309
11578.5	-0.05383
11588.8	-0.0539172
11599.2	-0.0539925
11609.6	-0.0540555
11619.9	-0.054106
11630.3	-0.0541438
11640.7	-0.0541686
11651	-0.0541803
11661.4	-0.0541786
11671.8	-0.0541634
11682.1	-0.0541345
11692.5	-0.0540916
11702.9	-0.0540347
11713.2	-0.0539636
11723.6	-0.0538781
11734	-0.0537782
11744.3	-0.0536637
11754.7	-0.0535346
11765.1	-0.0533907
11775.4	-0.053232
11785.8	-0.0530584
11796.2	-0.0528699
11806.5	-0.0526665
11816.9	-0.0524481
11827.3	-0.0522147
11837.6	-0.0519664
11848	-0.0517031
11858.3	-0.051425
11868.7	-0.051132
11879.1	-0.0508242
11889.4	-0.0505018
11899.8	-0.0501647
11910.2	-0.0498131
11920.5	-0.0494472
11930.9	-0.0490669
11941.3	-0.0486725
11951.6	-0.0482641
11962	-0.0478418
11972.4	-0.0474059
11982.7	-0.0469564
11993.1	-0.0464936
12003.5	-0.0460176
12013.8	-0.0455287
12024.2	-0.0450271
12034.6	-0.0445128
12044.9	-0.0439863
12055.3	-0.0434476
12065.7	-0.042897
12076	-0.0423347
12086.4	-0.041761
12096.8	-0.041176
12107.1	-0.04058
12117.5	-0.0399733
12127.9	-0.0393561
12138.2	-0.0387285
12148.6	-0.0380909
12159	-0.0374435
12169.3	-0.0367864
12179.7	-0.03612
12190.1	-0.0354444
12200.4	-0.0347599
12210.8	-0.0340667
12221.1	-0.033365
12231.5	-0.0326551
12241.9	-0.0319371
12252.2	-0.0312113
12262.6	-0.0304778
12273	-0.0297369
12283.3	-0.0289887
12293.7	-0.0282335
12304.1	-0.0274714
12314.4	-0.0267027
12324.8	-0.0259274
12335.2	-0.0251459
12345.5	-0.0243582
12355.9	-0.0235645
12366.3	-0.022765
12376.6	-0.0219599
12387	-0.0211493
12397.4	-0.0203334
12407.7	-0.0195123
12418.1	-0.0186862
12428.5	-0.0178552
12438.8	-0.0170196
12449.2	-0.0161793
12459.6	-0.0153347
12469.9	-0.0144858
12480.3	-0.0136328
12490.7	-0.0127758
12501	-0.0119151
12511.4	-0.0110507
12521.8	-0.0101828
12532.1	-0.00931153
12542.5	-0.00843714
12552.9	-0.00755973
12563.2	-0.00667949
12573.6	-0.00579659
12583.9	-0.0049112
12594.3	-0.0040235
12604.7	-0.00313367
12615	-0.00224192
12625.4	-0.00134843
12635.8	-0.000453407
12646.1	0.000442945
12656.5	0.00134041
12666.9	0.00223878
12677.2	0.00313782
12687.6	0.0040373
12698	0.004937
12708.3	0.00583666
12718.7	0.00673605
12729.1	0.0076349
12739.4	0.00853296
12749.8	0.00942998
12760.2	0.0103257
12770.5	0.0112198
12780.9	0.012112
12791.3	0.0130021
12801.6	0.0138897
12812	0.0147746
12822.4	0.0156565
12832.7	0.016535
12843.1	0.01741
12853.5	0.018281
12863.8	0.0191478
12874.2	0.0200101
12884.6	0.0208676
12894.9	0.0217199
12905.3	0.0225668
12915.7	0.023408
12926	0.0242431
12936.4	0.0250719
12946.7	0.0258941
12957.1	0.0267093
12967.5	0.0275173
12977.8	0.0283178
12988.2	0.0291105
12998.6	0.0298952
13008.9	0.0306714
13019.3	0.0314391
13029.7	0.0321979
13040	0.0329476
13050.4	0.0336878
13060.8	0.0344185
13071.1	0.0351392
13081.5	0.0358499
13091.9	0.0365502
13102.2	0.0372401
13112.6	0.0379192
13123	0.0385873
13133.3	0.0392443
13143.7	0.03989
13154.1	0.0405243
13164.4	0.0411469
13174.8	0.0417577
13185.2	0.0423566
13195.5	0.0429433
13205.9	0.0435179
13216.3	0.0440802
13226.6	0.04463
13237	0.0451672
13247.4	0.0456918
13257.7	0.0462037
13268.1	0.0467028
13278.5	0.047189
13288.8	0.0476622
13299.2	0.0481225
13309.5	0.0485697
13319.9	0.0490037
13330.3	0.0494246
13340.6	0.0498324
13351	0.0502269
13361.4	0.0506082
13371.7	0.0509763
13382.1	0.0513311
13392.5	0.0516726
13402.8	0.0520009
13413.2	0.0523159
13423.6	0.0526176
13433.9	0.052906
13444.3	0.0531812
13454.7	0.0534432
13465	0.0536919
13475.4	0.0539273
13485.8	0.0541496
13496.1	0.0543587
13506.5	0.0545547
13516.9	0.0547374
13527.2	0.0549071
13537.6	0.0550637
13548	0.0552071
13558.3	0.0553375
13568.7	0.0554549
13579.1	0.0555593
13589.4	0.0556506
13599.8	0.055729
13610.2	0.0557944
13620.5	0.0558469
13630.9	0.0558864
13641.3	0.0559131
13651.6	0.0559269
13662	0.0559278
13672.3	0.0559158
13682.7	0.055891
13693.1	0.0558533
13703.4	0.0558029
13713.8	0.0557396
13724.2	0.0556635
13734.5	0.0555746
13744.9	0.0554729
13755.3	0.0553584
13765.6	0.0552311
13776	0.0550911
13786.4	0.0549382
13796.7	0.0547726
13807.1	0.0545942
13817.5	0.054403
13827.8	0.054199
13838.2	0.0539823
13848.6	0.0537527
13858.9	0.0535103
13869.3	0.0532551
13879.7	0.0529872
13890	0.0527063
13900.4	0.0524127
13910.8	0.0521062
13921.1	0.0517869
13931.5	0.0514548
13941.9	0.0511098
13952.2	0.0507519
13962.6	0.0503811
13973	0.0499975
13983.3	0.0496009
13993.7	0.0491915
14004.1	0.0487692
14014.4	0.0483339
14024.8	0.0478857
14035.1	0.0474246
14045.5	0.0469506
14055.9	0.0464636
14066.2	0.0459637
14076.6	0.0454508
14087	0.044925
14097.3	0.0443862
14107.7	0.0438346
14118.1	0.0432699
14128.4	0.0426924
14138.8	0.0421019
14149.2	0.0414985
14159.5	0.0408822
14169.9	0.040253
14180.3	0.039611
14190.6	0.0389561
14201	0.0382885
14211.4	0.037608
14221.7	0.0369149
14232.1	0.036209
14242.5	0.0354905
14252.8	0.0347594
14263.2	0.0340157
14273.6	0.0332596
14283.9	0.0324911
14294.3	0.0317103
14304.7	0.0309173
14315	0.0301121
14325.4	0.0292949
14335.8	0.0284657
14346.1	0.0276248
14356.5	0.0267722
14366.9	0.0259081
14377.2	0.0250327
14387.6	0.024146
14398	0.0232483
14408.3	0.0223398
14418.7	0.0214206
14429	0.020491
14439.4	0.0195513
14449.8	0.0186015
14460.1	0.0176421
14470.5	0.0166732
14480.9	0.0156952
14491.2	0.0147083
14501.6	0.0137129
14512	0.0127093
14522.3	0.0116978
14532.7	0.0106788
14543.1	0.00965273
14553.4	0.00861991
14563.8	0.00758077
14574.2	0.00653575
14584.5	0.00548528
14594.9	0.00442983
14605.3	0.00336987
14615.6	0.00230591
14626	0.00123845
14636.4	0.000168009
14646.7	-0.000904857
14657.1	-0.00197959
14667.5	-0.00305562
14677.8	-0.00413236
14688.2	-0.0052092
14698.6	-0.00628553
14708.9	-0.0073607
14719.3	-0.00843408
14729.7	-0.00950501
14740	-0.0105728
14750.4	-0.0116368
14760.8	-0.0126963
14771.1	-0.0137506
14781.5	-0.014799
14791.8	-0.0158408
14802.2	-0.0168752
14812.6	-0.0179016
14822.9	-0.0189191
14833.3	-0.0199271
14843.7	-0.0209248
14854	-0.0219114
14864.4	-0.0228863
14874.8	-0.0238486
14885.1	-0.0247977
14895.5	-0.0257328
14905.9	-0.0266531
14916.2	-0.027558
14926.6	-0.0284467
14937	-0.0293186
14947.3	-0.0301728
14957.7	-0.0310088
14968.1	-0.0318258
14978.4	-0.0326233
14988.8	-0.0334004
14999.2	-0.0341568
15009.5	-0.0348916
15019.9	-0.0356044
15030.3	-0.0362946
15040.6	-0.0369616
15051	-0.0376049
15061.4	-0.038224
15071.7	-0.0388185
15082.1	-0.039388
15092.5	-0.0399319
15102.8	-0.04045
15113.2	-0.0409418
15123.6	-0.0414072
15133.9	-0.0418458
15144.3	-0.0422573
15154.6	-0.0426415
15165	-0.0429983
15175.4	-0.0433276
15185.7	-0.0436291
15196.1	-0.043903
15206.5	-0.0441491
15216.8	-0.0443674
15227.2	-0.0445581
15237.6	-0.0447211
15247.9	-0.0448567
15258.3	-0.0449649
15268.7	-0.0450461
15279	-0.0451005
15289.4	-0.0451282
15299.8	-0.0451298
15310.1	-0.0451055
15320.5	-0.0450557
15330.9	-0.0449809
15341.2	-0.0448815
15351.6	-0.0447581
15362	-0.0446112
15372.3	-0.0444413
15382.7	-0.0442491
15393.1	-0.0440353
15403.4	-0.0438004
15413.8	-0.0435453
15424.2	-0.0432705
15434.5	-0.0429769
15444.9	-0.0426653
15455.3	-0.0423364
15465.6	-0.0419911
15476	-0.0416302
15486.4	-0.0412545
15496.7	-0.040865
15507.1	-0.0404625
15517.4	-0.0400479
15527.8	-0.0396222
15538.2	-0.0391862
15548.5	-0.0387409
15558.9	-0.0382871
15569.3	-0.037826
15579.6	-0.0373582
15590	-0.0368849
15600.4	-0.0364069
15610.7	-0.0359251
15621.1	-0.0354405
15631.5	-0.034954
15641.8	-0.0344664
15652.2	-0.0339786
15662.6	-0.0334915
15672.9	-0.033006
15683.3	-0.0325229
15693.7	-0.0320429
15704	-0.031567
15714.4	-0.0310957
15724.8	-0.03063
15735.1	-0.0301705
15745.5	-0.0297178
15755.9	-0.0292727
15766.2	-0.0288358
15776.6	-0.0284076
15787	-0.0279887
15797.3	-0.0275798
15807.7	-0.0271812
15818.1	-0.0267934
15828.4	-0.0264169
15838.8	-0.0260521
15849.2	-0.0256993
15859.5	-0.0253588
15869.9	-0.0250309
15880.3	-0.024716
15890.6	-0.0244141
15901	-0.0241254
15911.3	-0.0238502
15921.7	-0.0235884
15932.1	-0.0233403
15942.4	-0.0231057
15952.8	-0.0228847
15963.2	-0.0226773
15973.5	-0.0224834
15983.9	-0.0223028
15994.3	-0.0221355
16004.6	-0.0219812
16015	-0.0218399
16025.4	-0.0217111
16035.7	-0.0215948
16046.1	-0.0214906
16056.5	-0.0213981
16066.8	-0.0213172
16077.2	-0.0212473
16087.6	-0.0211882
16097.9	-0.0211395
16108.3	-0.0211006
16118.7	-0.0210713
16129	-0.0210509
16139.4	-0.0210392
16149.8	-0.0210355
16160.1	-0.0210395
16170.5	-0.0210506
16180.9	-0.0210682
16191.2	-0.021092
16201.6	-0.0211213
16212	-0.0211557
16222.3	-0.0211946
16232.7	-0.0212376
16243.1	-0.0212839
16253.4	-0.0213332
16263.8	-0.021385
16274.1	-0.0214386
16284.5	-0.0214937
16294.9	-0.0215496
16305.2	-0.0216059
16315.6	-0.0216621
16326	-0.0217177
16336.3	-0.0217722
16346.7	-0.0218252
16357.1	-0.0218763
16367.4	-0.0219249
16377.8	-0.0219708
16388.2	-0.0220134
16398.5	-0.0220524
16408.9	-0.0220875
16419.3	-0.0221182
16429.6	-0.0221442
16440	-0.0221652
16450.4	-0.0221809
16460.7	-0.022191
16471.1	-0.0221952
16481.5	-0.0221933
16491.8	-0.0221851
16502.2	-0.0221702
16512.6	-0.0221486
16522.9	-0.0221201
16533.3	-0.0220844
16543.7	-0.0220415
16554	-0.0219912
16564.4	-0.0219334
16574.8	-0.021868
16585.1	-0.0217949
16595.5	-0.0217142
16605.9	-0.0216256
16616.2	-0.0215292
16626.6	-0.021425
16636.9	-0.021313
16647.3	-0.0211932
16657.7	-0.0210656
16668	-0.0209303
16678.4	-0.0207872
16688.8	-0.0206366
16699.1	-0.0204784
16709.5	-0.0203128
16719.9	-0.0201397
16730.2	-0.0199595
16740.6	-0.0197721
16751	-0.0195776
16761.3	-0.0193763
16771.7	-0.0191682
16782.1	-0.0189535
16792.4	-0.0187323
16802.8	-0.0185048
16813.2	-0.0182712
16823.5	-0.0180316
16833.9	-0.0177862
16844.3	-0.0175352
16854.6	-0.0172787
16865	-0.0170169
16875.4	-0.01675
16885.7	-0.0164782
16896.1	-0.0162016
16906.5	-0.0159205
16916.8	-0.015635
16927.2	-0.0153453
16937.6	-0.0150516
16947.9	-0.0147541
16958.3	-0.0144529
16968.7	-0.0141483
16979	-0.0138404
16989.4	-0.0135295
16999.7	-0.0132155
17010.1	-0.0128989
17020.5	-0.0125797
17030.8	-0.012258
17041.2	-0.0119341
17051.6	-0.0116082
17061.9	-0.0112803
17072.3	-0.0109507
17082.7	-0.0106195
17093	-0.0102869
17103.4	-0.00995296
17113.8	-0.00961789
17124.1	-0.00928181
17134.5	-0.00894487
17144.9	-0.0086072
17155.2	-0.00826895
17165.6	-0.00793024
17176	-0.00759119
17186.3	-0.00725193
17196.7	-0.00691258
17207.1	-0.00657326
17217.4	-0.00623408
17227.8	-0.00589515
17238.2	-0.00555658
17248.5	-0.00521847
17258.9	-0.00488091
17269.3	-0.00454402
17279.6	-0.00420788
17290	-0.00387258
17300.4	-0.00353821
17310.7	-0.00320486
17321.1	-0.00287261
17331.5	-0.00254154
17341.8	-0.00221172
17352.2	-0.00188323
17362.5	-0.00155615
17372.9	-0.00123053
17383.3	-0.00090645
17393.6	-0.000583971
17404	-0.000263154
17414.4	5.59409e-05
17424.7	0.000373256
17435.1	0.000688735
17445.5	0.00100232
17455.8	0.00131397
17466.2	0.00162363
17476.6	0.00193125
17486.9	0.00223679
17497.3	0.00254019
17507.7	0.00284142
17518	0.00314043
17528.4	0.00343718
17538.8	0.00373164
17549.1	0.00402375
17559.5	0.00431349
17569.9	0.00460082
17580.2	0.0048857
17590.6	0.00516809
17601	0.00544796
17611.3	0.00572528
17621.7	0.006
17632.1	0.0062721
17642.4	0.00654154
17652.8	0.00680829
17663.2	0.0070723
17673.5	0.00733355
17683.9	0.00759201
17694.3	0.00784763
17704.6	0.00810039
17715	0.00835024
17725.4	0.00859715
17735.7	0.00884108
17746.1	0.009082
17756.4	0.00931987
17766.8	0.00955464
17777.2	0.00978628
17787.5	0.0100148
17797.9	0.01024
17808.3	0.010462
17818.6	0.0106807
17829	0.0108961
17839.4	0.011108
17849.7	0.0113166
17860.1	0.0115216
17870.5	0.0117232
17880.8	0.0119211
17891.2	0.0121154
17901.6	0.0123061
17911.9	0.012493
17922.3	0.0126761
17932.7	0.0128554
17943	0.0130308
17953.4	0.0132023
17963.8	0.0133698
17974.1	0.0135332
17984.5	0.0136925
17994.9	0.0138477
18005.2	0.0139986
18015.6	0.0141453
18026	0.0142877
18036.3	0.0144257
18046.7	0.0145593
18057.1	0.0146884
18067.4	0.014813
18077.8	0.014933
18088.2	0.0150484
18098.5	0.0151592
18108.9	0.0152652
18119.2	0.0153664
18129.6	0.0154628
18140	0.0155544
18150.3	0.0156412
18160.7	0.015723
18171.1	0.0157998
18181.4	0.0158717
18191.8	0.0159386
18202.2	0.0160005
18212.5	0.0160573
18222.9	0.016109
18233.3	0.0161557
18243.6	0.0161972
18254	0.0162337
18264.4	0.0162651
18274.7	0.0162914
18285.1	0.0163126
18295.5	0.0163288
18305.8	0.0163399
18316.2	0.0163459
18326.6	0.0163469
18336.9	0.016343
18347.3	0.016334
18357.7	0.0163202
18368	0.0163015
18378.4	0.016278
18388.8	0.0162497
18399.1	0.0162168
18409.5	0.0161791
18419.9	0.0161369
18430.2	0.0160902
18440.6	0.0160391
18451	0.0159836
18461.3	0.0159239
18471.7	0.01586
18482	0.0157921
18492.4	0.0157202
18502.8	0.0156444
18513.1	0.0155649
18523.5	0.0154818
18533.9	0.0153952
18544.2	0.0153051
18554.6	0.0152118
18565	0.0151154
18575.3	0.0150159
18585.7	0.0149136
18596.1	0.0148085
18606.4	0.0147009
18616.8	0.0145908
18627.2	0.0144784
18637.5	0.0143638
18647.9	0.0142472
18658.3	0.0141287
18668.6	0.0140085
18679	0.0138867
18689.4	0.0137635
18699.7	0.0136391
18710.1	0.0135135
18720.5	0.0133869
18730.8	0.0132595
18741.2	0.0131315
18751.6	0.0130029
18761.9	0.0128739
18772.3	0.0127446
18782.7	0.0126153
18793	0.0124859
18803.4	0.0123567
18813.8	0.0122279
18824.1	0.0120994
18834.5	0.0119714
18844.8	0.0118441
18855.2	0.0117176
18865.6	0.011592
18875.9	0.0114673
18886.3	0.0113437
18896.7	0.0112213
18907	0.0111001
18917.4	0.0109803
18927.8	0.0108619
18938.1	0.0107451
18948.5	0.0106297
18958.9	0.010516
18969.2	0.0104039
18979.6	0.0102936
18990	0.010185
19000.3	0.0100782
19010.7	0.00997317
19021.1	0.00986997
19031.4	0.00976862
19041.8	0.00966909
19052.2	0.0095714
19062.5	0.00947554
19072.9	0.00938147
19083.3	0.00928919
19093.6	0.00919865
19104	0.00910983
19114.4	0.00902267
19124.7	0.00893712
19135.1	0.00885314
19145.5	0.00877064
19155.8	0.00868957
19166.2	0.00860985
19176.6	0.00853139
19186.9	0.00845411
19197.3	0.00837791
19207.6	0.0083027
19218	0.00822838
19228.4	0.00815484
19238.7	0.00808196
19249.1	0.00800963
19259.5	0.00793773
19269.8	0.00786613
19280.2	0.00779472
19290.6	0.00772336
19300.9	0.00765192
19311.3	0.00758027
19321.7	0.00750826
19332	0.00743577
19342.4	0.00736265
19352.8	0.00728876
19363.1	0.00721395
19373.5	0.0071381
19383.9	0.00706106
19394.2	0.00698268
19404.6	0.00690282
19415	0.00682135
19425.3	0.00673813
19435.7	0.00665302
19446.1	0.00656587
19456.4	0.00647658
19466.8	0.00638498
19477.2	0.00629098
19487.5	0.00619442
19497.9	0.0060952
19508.3	0.00599319
19518.6	0.00588829
19529	0.00578037
19539.4	0.00566932
19549.7	0.00555506
19560.1	0.00543748
19570.5	0.00531648
19580.8	0.00519197
19591.2	0.00506388
19601.5	0.00493211
19611.9	0.00479661
19622.3	0.00465729
19632.6	0.0045141
19643	0.00436698
19653.4	0.00421587
19663.7	0.00406073
19674.1	0.00390153
19684.5	0.00373821
19694.8	0.00357076
19705.2	0.00339914
19715.6	0.00322335
19725.9	0.00304337
19736.3	0.00285919
19746.7	0.00267081
19757	0.00247823
19767.4	0.00228147
19777.8	0.00208054
19788.1	0.00187545
19798.5	0.00166625
19808.9	0.00145295
19819.2	0.00123559
19829.6	0.00101421
19840	0.000788859
19850.3	0.000559586
19860.7	0.000326443
19871.1	8.94902e-05
19881.4	-0.00015121
19891.8	-0.000395591
19902.2	-0.000643582
19912.5	-0.000895109
19922.9	-0.00115009
19933.3	-0.00140845
19943.6	-0.00167011
19954	-0.00193496
19964.3	-0.00220293
19974.7	-0.00247392
19985.1	-0.00274784
19995.4	-0.00302458
