0	0
10.2954	0
20.5908	0
30.8863	0
41.1817	0
51.4771	0
61.7725	0
72.068	0
82.3634	0
90.0849	0
100.38	0
110.676	0
120.971	0
131.267	0
141.562	0
151.857	0
162.153	0
172.448	0
180.17	0
190.465	0
200.761	0
211.056	0
221.352	0
231.647	0
241.942	0
252.238	0
262.533	0
270.255	0
280.55	0
290.846	0
301.141	0
311.437	0
321.732	0
332.027	0
342.323	0
350.044	0
360.34	0
370.635	0
380.931	0
391.226	0
401.521	0
411.817	0
422.112	0
432.408	0
440.129	0
450.425	0
460.72	0
471.016	0
481.311	0
491.606	0
501.902	0
512.197	0
522.493	0
530.214	0
540.51	0
550.805	0
561.1	0
571.396	0
581.691	0
591.987	0
602.282	0
610.004	0
620.299	0
630.595	0
640.89	0
651.185	0
661.481	0
671.776	0
682.072	0
692.367	0
700.089	0
710.384	0
720.68	0
730.975	0
741.27	0
751.566	0
761.861	0
772.157	0
782.452	0
790.174	0
800.469	0
810.764	0
821.06	0
831.355	0
841.651	0
851.946	0
862.242	0
872.537	0
880.259	0
890.554	0
900.849	0
911.145	0
921.44	0
931.736	0
942.031	0
952.327	0
960.048	0
970.343	0
980.639	0
990.934	0
1001.23	0
1011.53	0
1021.82	0
1032.12	0
1042.41	0
1050.13	0
1060.43	0
1070.72	0
1081.02	0
1091.31	0
1101.61	0
1111.91	0
1122.2	0
1132.5	0
1140.22	0
1150.51	0
1160.81	0
1171.1	0
1181.4	0
1191.7	0
1201.99	0
1212.29	0
1220.01	0
1230.3	0
1240.6	0
1250.89	0
1261.19	0
1271.48	0
1281.78	0
1292.08	0
1302.37	0
1310.09	0
1320.39	0
1330.68	0
1340.98	0
1351.27	0
1361.57	0
1371.86	0
1382.16	0
1392.46	0
1400.18	0
1410.47	0
1420.77	0
1431.06	0
1441.36	0
1451.65	0
1461.95	0
1472.25	0
1482.54	0
1490.26	0
1500.56	0
1510.85	0
1521.15	0
1531.44	0
1541.74	0
1552.03	0
1562.33	0
1570.05	0
1580.35	0
1590.64	0
1600.94	0
1611.23	0
1621.53	0
1631.82	0
1642.12	0
1652.42	0
1660.14	0
1670.43	0
1680.73	0
1691.02	0
1701.32	0
1711.61	0
1721.91	0
1732.2	0
1742.5	0
1750.22	0
1760.52	0
1770.81	0
1781.11	0
1791.4	0
1801.7	0
1811.99	0
1822.29	0
1830.01	0
1840.31	0
1850.6	0
1860.9	0
1871.19	0
1881.49	0
1891.78	0
1902.08	0
1912.37	0
1920.1	0
1930.39	0
1940.69	0
1950.98	0
1961.28	0
1971.57	0
1981.87	0
1992.16	0
2002.46	0
2010.18	0
2020.48	0
2030.77	0
2041.07	0
2051.36	0
2061.66	0
2071.95	0
2082.25	0
2092.54	0
2100.27	0
2110.56	0
2120.86	0
2131.15	0
2141.45	0
2151.74	0
2162.04	0
2172.33	0
2180.06	0
2190.35	0
2200.65	0
2210.94	0
2221.24	0
2231.53	0
2241.83	0
2252.12	0
2262.42	0
2270.14	0
2280.44	0
2290.73	0
2301.03	0
2311.32	0
2321.62	0
2331.91	0
2342.21	0
2352.5	0
2360.23	0
2370.52	0
2380.82	0
2391.11	0
2401.41	0
2411.7	0
2422	0
2432.29	0
2440.01	0
2450.31	0
2460.61	0
2470.9	0
2481.2	0
2491.49	0
2501.79	0
2512.08	0
2522.38	0
2530.1	0
2540.4	0
2550.69	0
2560.99	0
2571.28	0
2581.58	0
2591.87	0
2602.17	0
2612.46	0
2620.18	0
2630.48	0
2640.78	0
2651.07	0
2661.37	0
2671.66	0
2681.96	0
2692.25	0
2702.55	0
2710.27	0
2720.56	0
2730.86	0
2741.16	1.81899e-12
2751.45	3.63798e-12
2761.75	7.27596e-12
2772.04	1.09139e-11
2782.34	1.54614e-11
2790.06	2.09184e-11
2800.35	3.09228e-11
2810.65	4.91127e-11
2820.95	7.7307e-11
2831.24	1.23691e-10
2841.54	1.9736e-10
2851.83	3.11957e-10
2862.13	4.89308e-10
2872.42	7.62157e-10
2880.14	1.05592e-09
2890.44	1.6189e-09
2900.73	2.46109e-09
2911.03	3.70892e-09
2921.32	5.53791e-09
2931.62	8.19909e-09
2941.92	1.20353e-08
2952.21	1.75187e-08
2962.51	2.52867e-08
2970.23	3.31192e-08
2980.52	4.71236e-08
2990.82	6.65086e-08
3001.11	9.31223e-08
3011.41	1.29364e-07
3021.7	1.78323e-07
3032	2.43936e-07
3042.3	3.3118e-07
3050.02	4.14508e-07
3060.31	5.55513e-07
3070.61	7.391e-07
3080.9	9.76344e-07
3091.2	1.28068e-06
3101.49	1.66824e-06
3111.79	2.15826e-06
3122.08	2.77345e-06
3132.38	3.54039e-06
3140.1	4.23358e-06
3150.4	5.34316e-06
3160.69	6.70078e-06
3170.99	8.35093e-06
3181.28	1.03436e-05
3191.58	1.27343e-05
3201.87	1.55846e-05
3212.17	1.89616e-05
3222.46	2.29381e-05
3230.18	2.63608e-05
3240.48	3.15775e-05
3250.77	3.76203e-05
3261.07	4.45795e-05
3271.36	5.25487e-05
3281.66	6.16236e-05
3291.96	7.19009e-05
3302.25	8.34774e-05
3312.55	9.64483e-05
3320.27	0.000107148
3330.56	0.000122779
3340.86	0.00014005
3351.15	0.000159038
3361.45	0.000179813
3371.74	0.000202437
3382.04	0.000226963
3392.33	0.00025343
3400.05	0.000274573
3410.35	0.0003045
3420.64	0.000336421
3430.94	0.000370329
3441.23	0.000406207
3451.53	0.000444027
3461.82	0.000483747
3472.12	0.000525317
3482.42	0.000568678
3490.14	0.000602332
3500.43	0.000648656
3510.73	0.000696568
3521.02	0.000745986
3531.32	0.000796827
3541.61	0.000849007
3551.91	0.000902445
3562.2	0.000957064
3572.5	0.00101279
3580.22	0.00105528
3590.51	0.00111281
3600.81	0.00117129
3611.1	0.0012307
3621.4	0.00129101
3631.69	0.00135222
3641.99	0.00141433
3652.28	0.00147737
3660	0.00152528
3670.3	0.00159006
3680.59	0.00165592
3690.89	0.00172296
3701.18	0.00179129
3711.48	0.00186105
3721.77	0.00193242
3732.07	0.00200557
3742.36	0.00208073
3750.09	0.00213859
3760.38	0.00221796
3770.68	0.00230019
3780.97	0.0023857
3791.27	0.00247498
3801.56	0.00256862
3811.86	0.00266731
3822.15	0.00277187
3832.45	0.00288327
3840.17	0.00297201
3850.46	0.00309832
3860.76	0.00323523
3871.05	0.00338461
3881.35	0.00354867
3891.64	0.00373003
3901.94	0.00393176
3912.23	0.0041575
3922.53	0.00441147
3930.25	0.00462343
3940.54	0.00493921
3950.84	0.00529882
3961.13	0.0057097
3971.43	0.00618037
3981.72	0.0067206
3992.02	0.00734151
4002.31	0.00805573
4010.03	0.00866116
4020.33	0.00957406
4030.62	0.0106238
4040.92	0.0118298
4051.21	0.0132136
4061.51	0.0147989
4071.8	0.0166115
4082.1	0.0186796
4092.4	0.0210339
4100.12	0.023007
4110.41	0.0259422
4120.71	0.029259
4131	0.0329957
4141.3	0.0371928
4151.59	0.0418919
4161.89	0.0471358
4172.18	0.0529681
4182.48	0.0594326
4190.2	0.064722
4200.5	0.0723969
4210.79	0.0808209
4221.09	0.0900335
4231.38	0.100071
4241.68	0.110967
4251.97	0.12275
4262.27	0.135443
4272.56	0.149063
4280.28	0.159894
4290.58	0.175159
4300.88	0.191363
4311.17	0.208494
4321.47	0.22653
4331.76	0.245442
4342.06	0.265188
4352.35	0.285716
4360.07	0.30159
4370.37	0.323334
4380.66	0.345665
4390.96	0.368493
4401.26	0.391718
4411.55	0.41523
4421.85	0.438911
4432.14	0.462637
4442.44	0.486273
4450.16	0.503861
4460.45	0.527009
4470.75	0.54968
4481.04	0.571729
4491.34	0.593008
4501.63	0.613371
4511.93	0.632675
4522.23	0.65078
4532.52	0.667552
4540.24	0.67918
4550.54	0.693316
4560.83	0.705789
4571.13	0.716495
4581.42	0.725342
4591.72	0.73225
4602.01	0.737152
4612.31	0.739994
4620.03	0.740749
4630.33	0.739896
4640.62	0.736905
4650.92	0.731773
4661.21	0.72451
4671.51	0.71514
4681.8	0.703701
4692.1	0.690241
4702.39	0.67482
4710.11	0.66201
4720.41	0.643334
4730.71	0.622915
4741	0.600846
4751.3	0.57723
4761.59	0.552175
4771.89	0.525794
4782.18	0.498202
4792.48	0.469519
4800.2	0.447363
4810.49	0.417064
4820.79	0.38601
4831.09	0.354323
4841.38	0.322125
4851.68	0.289536
4861.97	0.256673
4872.27	0.223652
4882.56	0.190585
4890.28	0.165819
4900.58	0.13293
4910.87	0.100283
4921.17	0.0679758
4931.46	0.0361026
4941.76	0.00475161
4952.06	-0.0259929
4962.35	-0.0560516
4970.07	-0.0781002
4980.37	-0.106781
4990.66	-0.134583
5000.96	-0.161442
5011.25	-0.187303
5021.55	-0.212114
5031.84	-0.235827
5042.14	-0.2584
5052.44	-0.279797
5060.16	-0.295052
5070.45	-0.314313
5080.75	-0.33232
5091.04	-0.349053
5101.34	-0.364498
5111.63	-0.378645
5121.93	-0.391491
5132.22	-0.403035
5142.52	-0.413282
5150.24	-0.420121
5160.54	-0.428123
5170.83	-0.434865
5181.13	-0.440367
5191.42	-0.444657
5201.72	-0.447762
5212.01	-0.449716
5222.31	-0.450556
5230.03	-0.450479
5240.33	-0.449468
5250.62	-0.44746
5260.92	-0.444503
5271.21	-0.440647
5281.51	-0.435943
5291.8	-0.430447
5302.1	-0.424211
5312.39	-0.417293
5320.11	-0.41169
5330.41	-0.403714
5340.71	-0.395212
5351	-0.38624
5361.3	-0.376856
5371.59	-0.367115
5381.89	-0.357071
5392.18	-0.34678
5402.48	-0.336291
5410.2	-0.328326
5420.49	-0.317614
5430.79	-0.306838
5441.09	-0.296045
5451.38	-0.285275
5461.68	-0.27457
5471.97	-0.263966
5482.27	-0.253499
5492.56	-0.243201
5500.28	-0.235605
5510.58	-0.225672
5520.87	-0.215982
5531.17	-0.206559
5541.46	-0.197421
5551.76	-0.188588
5562.06	-0.180073
5572.35	-0.171889
5580.07	-0.165976
5590.37	-0.158397
5600.66	-0.151173
5610.96	-0.144311
5621.25	-0.137813
5631.55	-0.131681
5641.84	-0.125916
5652.14	-0.120517
5662.44	-0.115481
5670.16	-0.111941
5680.45	-0.107532
5690.75	-0.103475
5701.04	-0.0997644
5711.34	-0.0963927
5721.63	-0.0933526
5731.93	-0.0906363
5742.22	-0.0882352
5752.52	-0.0861403
5760.24	-0.0847644
5770.54	-0.0831823
5780.83	-0.0818793
5791.13	-0.080845
5801.42	-0.0800684
5811.72	-0.0795385
5822.01	-0.0792438
5832.31	-0.0791725
5840.03	-0.0792585
5850.33	-0.0795491
5860.62	-0.0800294
5870.92	-0.0806868
5881.21	-0.0815081
5891.51	-0.0824801
5901.8	-0.0835894
5912.1	-0.0848223
5922.39	-0.0861648
5930.11	-0.0872352
5940.41	-0.0887358
5950.71	-0.0903071
5961	-0.0919347
5971.3	-0.0936042
5981.59	-0.0953012
5991.89	-0.0970113
6002.18	-0.0987203
6012.48	-0.100414
6020.2	-0.101666
6030.49	-0.103299
6040.79	-0.10488
6051.09	-0.106394
6061.38	-0.10783
6071.68	-0.109176
6081.97	-0.110419
6092.27	-0.111549
6102.56	-0.112556
6110.28	-0.113224
6120.58	-0.113992
6130.87	-0.114613
6141.17	-0.115079
6151.47	-0.115384
6161.76	-0.115522
6172.06	-0.115489
6182.35	-0.115282
6190.07	-0.11501
6200.37	-0.114491
6210.66	-0.113792
6220.96	-0.112914
6231.25	-0.111858
6241.55	-0.110625
6251.85	-0.109219
6262.14	-0.107643
6272.44	-0.105901
6280.16	-0.10449
6290.45	-0.102472
6300.75	-0.100305
6311.04	-0.0979955
6321.34	-0.0955518
6331.63	-0.0929818
6341.93	-0.0902942
6352.23	-0.0874979
6362.52	-0.0846023
6370.24	-0.082371
6380.54	-0.0793245
6390.83	-0.0762051
6401.13	-0.0730228
6411.42	-0.0697874
6421.72	-0.0665087
6432.01	-0.0631965
6442.31	-0.0598603
6450.03	-0.057348
6460.33	-0.0539922
6470.62	-0.0506375
6480.92	-0.0472927
6491.21	-0.0439659
6501.51	-0.0406651
6511.8	-0.0373979
6522.1	-0.0341715
6532.39	-0.0309927
6540.12	-0.0286436
6550.41	-0.0255632
6560.71	-0.0225469
6571	-0.0196002
6581.3	-0.0167279
6591.59	-0.0139345
6601.89	-0.0112243
6612.18	-0.00860115
6622.48	-0.00606849
6630.2	-0.00423035
6640.5	-0.00186369
6650.79	0.000404276
6661.09	0.00257106
6671.38	0.00463442
6681.68	0.00659233
6691.97	0.00844296
6702.27	0.0101847
6712.56	0.011816
6720.29	0.0129662
6730.58	0.0144013
6740.88	0.0157228
6751.17	0.0169298
6761.47	0.0180215
6771.76	0.0189974
6782.06	0.0198569
6792.35	0.0205999
6800.07	0.0210804
6810.37	0.0216191
6820.66	0.0220411
6830.96	0.0223468
6841.26	0.0225369
6851.55	0.022612
6861.85	0.0225731
6872.14	0.0224214
6882.44	0.0221584
6890.16	0.021889
6900.45	0.0214354
6910.75	0.0208757
6921.04	0.0202123
6931.34	0.019448
6941.64	0.0185858
6951.93	0.0176289
6962.23	0.0165808
6972.52	0.0154453
6980.24	0.0145388
6990.54	0.0132604
7000.83	0.0119064
7011.13	0.0104815
7021.43	0.00899073
7031.72	0.00743919
7042.02	0.00583224
7052.31	0.00417538
7060.03	0.0029034
7070.33	0.00117292
7080.62	-0.000591582
7090.92	-0.00238415
7101.21	-0.00419873
7111.51	-0.00602921
7121.81	-0.00786947
7132.1	-0.00971335
7142.4	-0.0115547
7150.12	-0.0129303
7160.41	-0.0147524
7170.71	-0.0165552
7181	-0.0183327
7191.3	-0.0200788
7201.59	-0.0217879
7211.89	-0.023454
7222.19	-0.0250717
7232.48	-0.0266352
7240.2	-0.0277692
7250.5	-0.0292252
7260.79	-0.0306127
7271.09	-0.0319266
7281.38	-0.0331621
7291.68	-0.0343144
7301.97	-0.0353792
7312.27	-0.036352
7322.56	-0.0372287
7330.29	-0.0378207
7340.58	-0.0385199
7350.88	-0.0391125
7361.17	-0.0395953
7371.47	-0.039965
7381.76	-0.0402189
7392.06	-0.0403541
7402.35	-0.0403682
7410.07	-0.040298
7420.37	-0.0400952
7430.67	-0.0397661
7440.96	-0.0393091
7451.26	-0.0387232
7461.55	-0.0380075
7471.85	-0.0371617
7482.14	-0.0361853
7492.44	-0.0350787
7500.16	-0.0341635
7510.45	-0.0328303
7520.75	-0.0313689
7531.04	-0.0297807
7541.34	-0.0280676
7551.64	-0.0262318
7561.93	-0.0242756
7572.23	-0.022202
7582.52	-0.0200142
7590.24	-0.0183005
7600.54	-0.0159217
7610.83	-0.0134393
7621.13	-0.0108579
7631.42	-0.00818235
7641.72	-0.00541789
7652.01	-0.00257
7662.31	0.000355526
7670.03	0.00259697
7680.33	0.00564357
7690.62	0.00875046
7700.92	0.0119109
7711.21	0.0151179
7721.51	0.0183642
7731.8	0.0216427
7742.1	0.0249459
7752.39	0.0282662
7760.12	0.0307631
7770.41	0.034095
7780.71	0.0374231
7791	0.0407397
7801.3	0.0440372
7811.59	0.0473082
7821.89	0.0505451
7832.18	0.0537409
7842.48	0.0568884
7850.2	0.0592132
7860.49	0.06226
7870.79	0.0652403
7881.09	0.0681482
7891.38	0.0709778
7901.68	0.0737237
7911.97	0.076381
7922.27	0.078945
7932.56	0.0814114
7940.28	0.0831949
7950.58	0.0854818
7960.87	0.0876617
7971.17	0.0897321
7981.46	0.0916909
7991.76	0.0935363
8002.06	0.0952672
8012.35	0.0968827
8020.07	0.0980183
8030.37	0.0994312
8040.66	0.100729
8050.96	0.101911
8061.25	0.10298
8071.55	0.103937
8081.84	0.104783
8092.14	0.105521
8102.43	0.106152
8110.16	0.106558
8120.45	0.107009
8130.75	0.107362
8141.04	0.107618
8151.34	0.107782
8161.63	0.107856
8171.93	0.107843
8182.22	0.107747
8192.52	0.107572
8200.24	0.10739
8210.54	0.107083
8220.83	0.106706
8231.13	0.106261
8241.42	0.105752
8251.72	0.105183
8262.01	0.104555
8272.31	0.103873
8280.03	0.103327
8290.33	0.102556
8300.62	0.101737
8310.92	0.100875
8321.21	0.0999705
8331.51	0.0990269
8341.8	0.0980465
8352.1	0.0970315
8362.39	0.0959842
8370.11	0.0951788
8380.41	0.0940802
8390.71	0.092955
8401	0.0918053
8411.3	0.0906329
8421.59	0.0894397
8431.89	0.0882276
8442.18	0.0869982
8452.48	0.0857532
8460.2	0.0848102
8470.49	0.0835417
8480.79	0.0822619
8491.09	0.0809722
8501.38	0.0796739
8511.68	0.0783682
8521.97	0.0770563
8532.27	0.0757393
8542.56	0.0744181
8550.28	0.073425
8560.58	0.0720984
8570.87	0.0707697
8581.17	0.0694392
8591.47	0.0681074
8601.76	0.0667743
8612.06	0.0654402
8622.35	0.0641048
8630.07	0.0631022
8640.37	0.0617639
8650.66	0.0604231
8660.96	0.0590792
8671.26	0.0577314
8681.55	0.0563786
8691.85	0.0550196
8702.14	0.0536533
8712.44	0.0522781
8720.16	0.0512401
8730.45	0.0498459
8740.75	0.0484385
8751.04	0.0470162
8761.34	0.0455772
8771.64	0.0441198
8781.93	0.0426421
8792.23	0.0411424
8802.52	0.0396188
8810.24	0.0384595
8820.54	0.0368901
8830.83	0.0352925
8841.13	0.0336651
8851.42	0.0320066
8861.72	0.0303158
8872.02	0.0285918
8882.31	0.0268337
8890.03	0.0254924
8900.33	0.0236734
8910.62	0.0218191
8920.92	0.0199297
8931.21	0.0180052
8941.51	0.0160462
8951.8	0.0140534
8962.1	0.0120279
8972.4	0.00997075
8980.12	0.00840807
8990.41	0.00629938
9000.71	0.00416375
9011	0.00200328
9021.3	-0.000179695
9031.59	-0.00238265
9041.89	-0.00460287
9052.18	-0.00683745
9062.48	-0.00908336
9070.2	-0.0107733
9080.5	-0.0130313
9090.79	-0.0152915
9101.09	-0.0175505
9111.38	-0.0198048
9121.68	-0.0220507
9131.97	-0.0242847
9142.27	-0.026503
9152.56	-0.028702
9160.29	-0.0303365
9170.58	-0.0324931
9180.88	-0.0346206
9191.17	-0.0367156
9201.47	-0.0387745
9211.76	-0.0407942
9222.06	-0.0427715
9232.35	-0.0447032
9240.08	-0.0461204
9250.37	-0.0479654
9260.67	-0.0497572
9270.96	-0.0514931
9281.26	-0.0531709
9291.55	-0.0547881
9301.85	-0.0563428
9312.14	-0.0578331
9322.44	-0.0592573
9330.16	-0.0602811
9340.46	-0.0615859
9350.75	-0.0628208
9361.05	-0.0639847
9371.34	-0.0650767
9381.64	-0.0660962
9391.93	-0.0670426
9402.23	-0.0679158
9412.52	-0.0687154
9420.24	-0.0692669
9430.54	-0.0699382
9440.84	-0.0705365
9451.13	-0.0710625
9461.43	-0.0715169
9471.72	-0.0719006
9482.02	-0.0722145
9492.31	-0.0724601
9500.03	-0.0726001
9510.33	-0.0727293
9520.63	-0.0727943
9530.92	-0.0727969
9541.22	-0.072739
9551.51	-0.0726228
9561.81	-0.0724503
9572.1	-0.0722241
9582.4	-0.0719464
9590.12	-0.0717059
9600.41	-0.0713443
9610.71	-0.0709384
9621.01	-0.070491
9631.3	-0.0700047
9641.6	-0.0694823
9651.89	-0.0689268
9662.19	-0.0683408
9672.48	-0.0677273
9680.2	-0.0672507
9690.5	-0.0665956
9700.79	-0.0659204
9711.09	-0.065228
9721.39	-0.0645208
9731.68	-0.0638014
9741.98	-0.0630722
9752.27	-0.0623355
9762.57	-0.0615936
9770.29	-0.061035
9780.58	-0.0602888
9790.88	-0.0595429
9801.18	-0.0587989
9811.47	-0.0580585
9821.77	-0.0573231
9832.06	-0.0565941
9842.36	-0.0558727
9850.08	-0.0553372
9860.37	-0.0546315
9870.67	-0.053936
9880.96	-0.0532514
9891.26	-0.0525783
9901.56	-0.0519173
9911.85	-0.0512686
9922.15	-0.0506327
9932.44	-0.0500097
9940.16	-0.0495511
9950.46	-0.048951
9960.75	-0.0483642
9971.05	-0.0477905
9981.34	-0.04723
9991.64	-0.0466825
10001.9	-0.046148
10012.2	-0.0456263
10022.5	-0.0451174
10030.2	-0.044744
10040.5	-0.0442571
10050.8	-0.0437827
10061.1	-0.0433206
10071.4	-0.042871
10081.7	-0.0424337
10092	-0.0420087
10102.3	-0.0415962
10110	-0.0412951
10120.3	-0.0409046
10130.6	-0.040527
10140.9	-0.0401623
10151.2	-0.0398109
10161.5	-0.0394729
10171.8	-0.0391489
10182.1	-0.038839
10192.4	-0.0385436
10200.1	-0.0383319
10210.4	-0.0380629
10220.7	-0.0378097
10231	-0.0375727
10241.3	-0.0373522
10251.6	-0.0371489
10261.9	-0.0369632
10272.2	-0.0367956
10282.5	-0.0366466
10290.2	-0.0365473
10300.5	-0.0364319
10310.8	-0.0363363
10321.1	-0.0362611
10331.4	-0.0362066
10341.7	-0.0361732
10352	-0.0361614
10362.3	-0.0361713
10372.6	-0.0362035
10380.3	-0.0362423
10390.6	-0.0363138
10400.9	-0.0364082
10411.2	-0.0365255
10421.5	-0.036666
10431.8	-0.0368297
10442.1	-0.0370165
10452.4	-0.0372266
10460.1	-0.0373994
10470.4	-0.0376498
10480.7	-0.0379232
10491	-0.0382192
10501.3	-0.0385376
10511.6	-0.0388781
10521.9	-0.0392402
10532.1	-0.0396236
10542.4	-0.0400277
10550.2	-0.040344
10560.5	-0.040783
10570.8	-0.0412411
10581.1	-0.0417175
10591.3	-0.0422115
10601.6	-0.0427223
10611.9	-0.043249
10622.2	-0.0437907
10632.5	-0.0443464
10640.2	-0.0447717
10650.5	-0.0453495
10660.8	-0.0459385
10671.1	-0.0465374
10681.4	-0.0471452
10691.7	-0.0477606
10702	-0.0483825
10712.3	-0.0490095
10720	-0.0494824
10730.3	-0.0501154
10740.6	-0.05075
10750.9	-0.0513848
10761.2	-0.0520186
10771.5	-0.05265
10781.8	-0.0532775
10792.1	-0.0538999
10802.4	-0.0545157
10810.1	-0.0549725
10820.4	-0.0555736
10830.7	-0.0561644
10841	-0.0567435
10851.3	-0.0573096
10861.6	-0.0578613
10871.9	-0.0583974
10882.2	-0.0589164
10892.5	-0.0594171
10900.2	-0.0597799
10910.5	-0.0602454
10920.8	-0.0606891
10931.1	-0.0611098
10941.4	-0.0615061
10951.7	-0.061877
10962	-0.0622211
10972.3	-0.0625374
10982.6	-0.0628247
10990.3	-0.0630205
11000.6	-0.0632543
11010.9	-0.0634561
11021.2	-0.0636248
11031.5	-0.0637594
11041.8	-0.063859
11052.1	-0.0639224
11062.4	-0.0639488
11070.1	-0.0639437
11080.4	-0.0639031
11090.7	-0.0638231
11101	-0.0637029
11111.3	-0.0635416
11121.6	-0.0633385
11131.9	-0.063093
11142.1	-0.0628044
11152.4	-0.0624721
11160.2	-0.0621939
11170.5	-0.0617838
11180.8	-0.0613287
11191.1	-0.060828
11201.3	-0.0602815
11211.6	-0.0596889
11221.9	-0.0590499
11232.2	-0.0583644
11242.5	-0.0576321
11250.3	-0.0570523
11260.5	-0.0562384
11270.8	-0.0553778
11281.1	-0.0544708
11291.4	-0.0535174
11301.7	-0.0525179
11312	-0.0514727
11322.3	-0.0503822
11330	-0.0495349
11340.3	-0.0483662
11350.6	-0.0471535
11360.9	-0.0458976
11371.2	-0.0445991
11381.5	-0.0432586
11391.8	-0.0418772
11402.1	-0.0404555
11412.4	-0.0389946
11420.1	-0.0378737
11430.4	-0.0363464
11440.7	-0.0347827
11451	-0.0331835
11461.3	-0.0315501
11471.6	-0.0298837
11481.9	-0.0281855
11492.2	-0.0264568
11502.5	-0.0246989
11510.2	-0.0233621
11520.5	-0.0215563
11530.8	-0.0197251
11541.1	-0.0178699
11551.4	-0.0159922
11561.7	-0.0140935
11572	-0.0121753
11582.3	-0.0102391
11592.6	-0.00828656
11600.3	-0.00681235
11610.6	-0.00483498
11620.9	-0.00284568
11631.2	-0.000846087
11641.5	0.00116211
11651.8	0.00317723
11662.1	0.00519756
11672.4	0.00722137
11680.1	0.00874046
11690.4	0.0107662
11700.7	0.0127905
11711	0.0148118
11721.3	0.0168281
11731.6	0.0188377
11741.9	0.0208388
11752.1	0.0228296
11762.4	0.0248083
11770.2	0.0262833
11780.5	0.0282364
11790.8	0.0301724
11801.1	0.0320896
11811.3	0.0339861
11821.6	0.0358601
11831.9	0.0377101
11842.2	0.0395341
11852.5	0.0413306
11860.3	0.0426589
11870.5	0.0444033
11880.8	0.0461156
11891.1	0.0477945
11901.4	0.0494383
11911.7	0.0510458
11922	0.0526155
11932.3	0.0541461
11940	0.0552678
11950.3	0.0567273
11960.6	0.0581448
11970.9	0.0595191
11981.2	0.0608495
11991.5	0.0621352
12001.8	0.0633755
12012.1	0.06457
12022.4	0.0657181
12030.1	0.0665486
12040.4	0.067615
12050.7	0.0686345
12061	0.0696071
12071.3	0.0705331
12081.6	0.0714127
12091.9	0.0722462
12102.2	0.0730343
12112.5	0.0737776
12120.2	0.0743061
12130.5	0.0749728
12140.8	0.0755972
12151.1	0.0761803
12161.4	0.0767233
12171.7	0.0772276
12182	0.0776944
12192.3	0.0781253
12202.6	0.0785218
12210.3	0.0787977
12220.6	0.079138
12230.9	0.0794487
12241.2	0.0797313
12251.5	0.0799878
12261.8	0.08022
12272.1	0.0804296
12282.4	0.0806186
12290.1	0.0807479
12300.4	0.0809051
12310.7	0.0810465
12321	0.081174
12331.3	0.0812891
12341.6	0.0813936
12351.9	0.0814888
12362.1	0.0815764
12372.4	0.0816576
12380.2	0.0817151
12390.5	0.0817881
12400.8	0.081858
12411.1	0.0819255
12421.3	0.0819917
12431.6	0.082057
12441.9	0.082122
12452.2	0.0821872
12462.5	0.0822527
12470.3	0.0823021
12480.5	0.0823682
12490.8	0.0824347
12501.1	0.082501
12511.4	0.0825667
12521.7	0.0826313
12532	0.082694
12542.3	0.0827538
12550	0.0827963
12560.3	0.0828489
12570.6	0.0828956
12580.9	0.0829352
12591.2	0.0829663
12601.5	0.0829874
12611.8	0.0829968
12622.1	0.0829929
12632.4	0.0829741
12640.1	0.0829491
12650.4	0.0828998
12660.7	0.0828306
12671	0.0827397
12681.3	0.0826251
12691.6	0.0824851
12701.9	0.0823178
12712.2	0.0821213
12722.5	0.081894
12730.2	0.0817022
12740.5	0.0814166
12750.8	0.0810954
12761.1	0.0807371
12771.4	0.0803402
12781.7	0.0799032
12792	0.0794248
12802.3	0.0789038
12812.6	0.078339
12820.3	0.0778862
12830.6	0.0772425
12840.9	0.0765525
12851.2	0.0758156
12861.5	0.0750311
12871.8	0.0741987
12882.1	0.0733179
12892.4	0.0723887
12900.1	0.0716599
12910.4	0.0706458
12920.7	0.0695833
12931	0.0684727
12941.3	0.0673145
12951.6	0.0661093
12961.9	0.0648576
12972.2	0.0635603
12982.4	0.0622182
12990.2	0.0611829
13000.5	0.0597651
13010.8	0.0583056
13021.1	0.0568056
13031.4	0.0552667
13041.6	0.0536903
13051.9	0.0520779
13062.2	0.0504313
13072.5	0.0487521
13080.3	0.0474724
13090.5	0.0457406
13100.8	0.0439814
13111.1	0.0421968
13121.4	0.0403887
13131.7	0.0385592
13142	0.0367105
13152.3	0.0348447
13160	0.0334354
13170.3	0.0315448
13180.6	0.0296432
13190.9	0.0277327
13201.2	0.0258155
13211.5	0.023894
13221.8	0.0219703
13232.1	0.0200467
13242.4	0.0181254
13250.1	0.0166872
13260.4	0.0147752
13270.7	0.0128716
13281	0.0109783
13291.3	0.00909762
13301.6	0.00723153
13311.9	0.00538208
13322.2	0.00355123
13332.5	0.0017409
13340.2	0.000397734
13350.5	-0.00137225
13360.8	-0.00311674
13371.1	-0.00483407
13381.4	-0.00652262
13391.7	-0.00818086
13402	-0.00980735
13412.3	-0.0114007
13420	-0.0125732
13430.3	-0.0141056
13440.6	-0.0156016
13450.9	-0.0170601
13461.2	-0.0184803
13471.5	-0.0198613
13481.8	-0.0212024
13492.1	-0.022503
13502.4	-0.0237626
13510.1	-0.0246801
13520.4	-0.025867
13530.7	-0.027012
13541	-0.0281151
13551.3	-0.0291761
13561.6	-0.0301952
13571.9	-0.0311726
13582.2	-0.0321086
13592.4	-0.0330036
13600.2	-0.0336481
13610.5	-0.0344724
13620.8	-0.0352572
13631.1	-0.0360033
13641.4	-0.0367112
13651.6	-0.0373821
13661.9	-0.0380166
13672.2	-0.0386159
13682.5	-0.039181
13690.3	-0.039583
13700.6	-0.0400908
13710.8	-0.0405673
13721.1	-0.0410139
13731.4	-0.0414316
13741.7	-0.0418217
13752	-0.0421853
13762.3	-0.0425238
13770	-0.0427617
13780.3	-0.0430589
13790.6	-0.043334
13800.9	-0.0435883
13811.2	-0.0438229
13821.5	-0.0440388
13831.8	-0.0442372
13842.1	-0.0444188
13852.4	-0.0445848
13860.1	-0.0446995
13870.4	-0.0448401
13880.7	-0.0449674
13891	-0.0450819
13901.3	-0.0451844
13911.6	-0.0452755
13921.9	-0.0453557
13932.2	-0.0454256
13942.5	-0.0454854
13950.2	-0.0455239
13960.5	-0.0455671
13970.8	-0.0456011
13981.1	-0.0456261
13991.4	-0.0456424
14001.7	-0.0456499
14012	-0.0456487
14022.3	-0.0456389
14030	-0.0456259
14040.3	-0.0456009
14050.6	-0.0455671
14060.9	-0.0455245
14071.2	-0.0454729
14081.5	-0.0454123
14091.8	-0.0453425
14102.1	-0.0452634
14112.4	-0.0451748
14120.1	-0.0451022
14130.4	-0.0449968
14140.7	-0.0448818
14151	-0.0447571
14161.3	-0.0446225
14171.6	-0.0444781
14181.9	-0.044324
14192.2	-0.04416
14202.5	-0.0439865
14210.2	-0.04385
14220.5	-0.0436599
14230.8	-0.0434605
14241.1	-0.0432522
14251.4	-0.0430351
14261.7	-0.0428096
14271.9	-0.0425761
14282.2	-0.0423349
14292.5	-0.0420865
14300.3	-0.0418957
14310.6	-0.0416357
14320.9	-0.0413698
14331.1	-0.0410985
14341.4	-0.0408225
14351.7	-0.0405422
14362	-0.0402584
14372.3	-0.0399716
14380	-0.039755
14390.3	-0.0394646
14400.6	-0.039173
14410.9	-0.0388809
14421.2	-0.0385889
14431.5	-0.0382976
14441.8	-0.0380078
14452.1	-0.0377199
14462.4	-0.0374347
14470.1	-0.0372229
14480.4	-0.0369437
14490.7	-0.0366686
14501	-0.0363982
14511.3	-0.036133
14521.6	-0.0358734
14531.9	-0.0356197
14542.2	-0.0353724
14552.5	-0.0351318
14560.2	-0.0349558
14570.5	-0.0347275
14580.8	-0.0345064
14591.1	-0.0342928
14601.4	-0.0340867
14611.7	-0.0338882
14622	-0.0336972
14632.3	-0.0335136
14640	-0.0333807
14650.3	-0.0332098
14660.6	-0.0330459
14670.9	-0.0328886
14681.2	-0.0327376
14691.5	-0.0325925
14701.8	-0.0324529
14712.1	-0.0323182
14722.4	-0.0321879
14730.1	-0.0320927
14740.4	-0.0319685
14750.7	-0.0318468
14761	-0.0317269
14771.3	-0.031608
14781.6	-0.0314892
14791.9	-0.0313696
14802.2	-0.0312482
14812.5	-0.0311242
14820.2	-0.0310288
14830.5	-0.0308976
14840.8	-0.0307608
14851.1	-0.0306174
14861.4	-0.0304662
14871.7	-0.0303061
14882	-0.030136
14892.2	-0.0299547
14902.5	-0.0297611
14910.3	-0.0296072
14920.6	-0.0293892
14930.9	-0.0291558
14941.1	-0.0289059
14951.4	-0.0286383
14961.7	-0.0283519
14972	-0.0280458
14982.3	-0.027719
14990.1	-0.0274597
15000.3	-0.0270945
15010.6	-0.026706
15020.9	-0.0262936
15031.2	-0.0258567
15041.5	-0.0253944
15051.8	-0.0249064
15062.1	-0.0243922
15072.4	-0.0238513
15080.1	-0.0234281
15090.4	-0.0228402
15100.7	-0.0222252
15111	-0.0215832
15121.3	-0.0209142
15131.6	-0.0202187
15141.9	-0.0194968
15152.2	-0.0187491
15162.5	-0.0179763
15170.2	-0.0173805
15180.5	-0.0165653
15190.8	-0.0157271
15201.1	-0.014867
15211.4	-0.0139861
15221.7	-0.0130857
15232	-0.0121671
15242.3	-0.0112317
15250	-0.0105202
15260.3	-0.00955929
15270.6	-0.00858615
15280.9	-0.00760252
15291.2	-0.00661023
15301.5	-0.0056112
15311.8	-0.00460738
15322.1	-0.00360079
15332.4	-0.00259345
15340.1	-0.00183871
15350.4	-0.00083508
15360.7	0.000163562
15371	0.00115512
15381.3	0.00213751
15391.6	0.00310866
15401.9	0.00406654
15412.2	0.00500914
15422.5	0.00593452
15430.2	0.0066161
15440.5	0.0075068
15450.8	0.00837522
15461.1	0.00921965
15471.4	0.0100385
15481.7	0.0108302
15492	0.0115934
15502.2	0.0123268
15512.5	0.0130291
15520.3	0.0135348
15530.6	0.0141803
15540.9	0.014792
15551.2	0.0153693
15561.4	0.0159115
15571.7	0.0164181
15582	0.0168887
15592.3	0.0173232
15600.1	0.0176252
15610.3	0.0179962
15620.6	0.018331
15630.9	0.0186298
15641.2	0.0188931
15651.5	0.0191212
15661.8	0.0193148
15672.1	0.0194746
15682.4	0.0196012
15690.1	0.019675
15700.4	0.0197458
15710.7	0.0197862
15721	0.0197972
15731.3	0.0197799
15741.6	0.0197356
15751.9	0.0196655
15762.2	0.0195709
15772.5	0.0194533
15780.2	0.0193507
15790.5	0.019196
15800.8	0.019022
15811.1	0.0188301
15821.4	0.0186219
15831.7	0.0183986
15842	0.0181617
15852.3	0.0179126
15860	0.0177186
15870.3	0.0174513
15880.6	0.0171755
15890.9	0.0168923
15901.2	0.0166031
15911.5	0.0163088
15921.8	0.0160107
15932.1	0.0157098
15942.4	0.015407
15950.1	0.0151793
15960.4	0.0148754
15970.7	0.014572
15981	0.0142699
15991.3	0.0139695
16001.6	0.0136716
16011.9	0.0133766
16022.2	0.0130849
16032.5	0.0127969
16040.2	0.0125835
16050.5	0.0123025
16060.8	0.0120257
16071.1	0.0117533
16081.4	0.0114852
16091.7	0.0112214
16102	0.0109617
16112.3	0.0107059
16122.5	0.0104539
16130.3	0.0102671
16140.6	0.0100208
16150.9	0.00977725
16161.2	0.00953606
16171.4	0.00929673
16181.7	0.00905876
16192	0.0088216
16202.3	0.00858468
16210.1	0.00840679
16220.4	0.00816882
16230.6	0.00792938
16240.9	0.00768781
16251.2	0.00744345
16261.5	0.0071956
16271.8	0.00694359
16282.1	0.00668673
16292.4	0.00642432
16300.1	0.00622346
16310.4	0.00594969
16320.7	0.0056685
16331	0.00537923
16341.3	0.00508121
16351.6	0.0047738
16361.9	0.00445638
16372.2	0.00412834
16382.5	0.00378908
16390.2	0.00352694
16400.5	0.0031667
16410.8	0.00279374
16421.1	0.00240753
16431.4	0.0020076
16441.7	0.00159349
16452	0.00116476
16462.3	0.000720994
16470	0.000378072
16480.3	-9.29098e-05
16490.6	-0.00057992
16500.9	-0.00108327
16511.2	-0.00160324
16521.5	-0.0021401
16531.8	-0.00269408
16542.1	-0.00326537
16552.4	-0.00385416
16560.1	-0.00430731
16570.4	-0.00492705
16580.7	-0.00556462
16591	-0.00622008
16601.3	-0.00689348
16611.6	-0.00758482
16621.9	-0.00829407
16632.2	-0.00902119
16642.5	-0.00976608
16650.2	-0.0103363
16660.5	-0.011112
16670.8	-0.011905
16681.1	-0.0127152
16691.4	-0.0135422
16701.7	-0.0143858
16712	-0.0152456
16722.3	-0.0161213
16732.5	-0.0170123
16740.3	-0.0176905
16750.6	-0.0186074
16760.9	-0.0195383
16771.2	-0.0204826
16781.5	-0.0214397
16791.7	-0.0224088
16802	-0.0233892
16812.3	-0.0243802
16820.1	-0.0251297
16830.4	-0.0261368
16840.7	-0.027152
16850.9	-0.0281741
16861.2	-0.029202
16871.5	-0.0302348
16881.8	-0.0312711
16892.1	-0.0323098
16902.4	-0.0333495
16910.1	-0.0341292
16920.4	-0.0351675
16930.7	-0.036203
16941	-0.0372344
16951.3	-0.03826
16961.6	-0.0392783
16971.9	-0.0402877
16982.2	-0.0412865
16992.5	-0.0422733
17000.2	-0.0430043
17010.5	-0.0439657
17020.8	-0.0449103
17031.1	-0.0458364
17041.4	-0.0467422
17051.7	-0.0476261
17062	-0.0484864
17072.3	-0.0493213
17080	-0.0499298
17090.3	-0.0507164
17100.6	-0.0514731
17110.9	-0.0521984
17121.2	-0.0528907
17131.5	-0.0535487
17141.8	-0.0541708
17152.1	-0.0547557
17162.4	-0.0553021
17170.1	-0.0556859
17180.4	-0.0561622
17190.7	-0.0565968
17201	-0.0569889
17211.3	-0.0573375
17221.6	-0.0576419
17231.9	-0.0579013
17242.2	-0.0581153
17252.5	-0.0582832
17260.2	-0.0583787
17270.5	-0.0584653
17280.8	-0.0585051
17291.1	-0.0584981
17301.4	-0.0584442
17311.7	-0.0583437
17322	-0.0581967
17332.3	-0.0580035
17342.6	-0.0577647
17350.3	-0.0575559
17360.6	-0.0572386
17370.9	-0.0568772
17381.2	-0.0564728
17391.5	-0.056026
17401.7	-0.0555379
17412	-0.0550096
17422.3	-0.0544421
17430.1	-0.0539915
17440.4	-0.0533583
17450.7	-0.0526894
17460.9	-0.0519861
17471.2	-0.0512496
17481.5	-0.0504816
17491.8	-0.0496833
17502.1	-0.0488564
17512.4	-0.0480023
17520.1	-0.0473448
17530.4	-0.0464467
17540.7	-0.0455257
17551	-0.0445833
17561.3	-0.043621
17571.6	-0.0426404
17581.9	-0.041643
17592.2	-0.0406304
17602.5	-0.0396039
17610.2	-0.0388259
17620.5	-0.0377789
17630.8	-0.036722
17641.1	-0.0356567
17651.4	-0.0345844
17661.7	-0.0335064
17672	-0.0324239
17682.3	-0.0313381
17690	-0.0305224
17700.3	-0.0294338
17710.6	-0.0283452
17720.9	-0.0272575
17731.2	-0.0261718
17741.5	-0.0250891
17751.8	-0.0240102
17762.1	-0.022936
17772.4	-0.0218674
17780.1	-0.02107
17790.4	-0.0200129
17800.7	-0.0189632
17811	-0.0179217
17821.3	-0.0168888
17831.6	-0.0158653
17841.9	-0.0148515
17852.2	-0.0138479
17862.5	-0.0128549
17870.2	-0.0121174
17880.5	-0.011144
17890.8	-0.0101822
17901.1	-0.0092323
17911.4	-0.00829458
17921.7	-0.0073693
17932	-0.00645667
17942.3	-0.00555691
17952.6	-0.00467021
17960.3	-0.00401385
17970.6	-0.00315041
17980.9	-0.00230048
17991.2	-0.00146423
18001.5	-0.000641793
18011.8	0.000166674
18022	0.000961023
18032.3	0.0017411
18040.1	0.0023167
18050.4	0.00307142
18060.7	0.00381142
18071	0.00453652
18081.2	0.00524651
18091.5	0.0059412
18101.8	0.00662037
18112.1	0.00728378
18122.4	0.00793118
18130.2	0.00840606
18140.4	0.0090248
18150.7	0.00962675
18161	0.0102116
18171.3	0.0107791
18181.6	0.0113288
18191.9	0.0118604
18202.2	0.0123735
18212.5	0.0128678
18220.2	0.0132259
18230.5	0.0136863
18240.8	0.0141267
18251.1	0.0145467
18261.4	0.014946
18271.7	0.015324
18282	0.0156804
18292.3	0.0160148
18300	0.0162508
18310.3	0.0165455
18320.6	0.016817
18330.9	0.0170648
18341.2	0.0172886
18351.5	0.0174879
18361.8	0.0176623
18372.1	0.0178115
18382.4	0.017935
18390.1	0.0180107
18400.4	0.0180886
18410.7	0.0181399
18421	0.0181643
18431.3	0.0181615
18441.6	0.0181312
18451.9	0.0180732
18462.2	0.0179873
18472.5	0.0178731
18480.2	0.0177688
18490.5	0.0176048
18500.8	0.0174121
18511.1	0.0171905
18521.4	0.01694
18531.7	0.0166603
18542	0.0163515
18552.3	0.0160135
18562.6	0.0156463
18570.3	0.0153518
18580.6	0.0149334
18590.9	0.014486
18601.2	0.0140094
18611.5	0.013504
18621.8	0.0129697
18632.1	0.0124067
18642.3	0.0118154
18650.1	0.0113533
18660.4	0.0107128
18670.7	0.0100446
18681	0.00934906
18691.3	0.00862658
18701.5	0.00787757
18711.8	0.00710251
18722.1	0.00630192
18732.4	0.00547635
18740.2	0.00484115
18750.4	0.00397338
18760.7	0.00308244
18771	0.00216909
18781.3	0.00123413
18791.6	0.000278424
18801.9	-0.000697106
18812.2	-0.00169148
18822.5	-0.00270367
18830.2	-0.00347384
18840.5	-0.00451452
18850.8	-0.00556985
18861.1	-0.00663858
18871.4	-0.00771937
18881.7	-0.00881086
18892	-0.0099116
18902.3	-0.0110201
18910	-0.0118556
18920.3	-0.0129739
18930.6	-0.0140956
18940.9	-0.0152189
18951.2	-0.0163421
18961.5	-0.0174635
18971.8	-0.0185812
18982.1	-0.0196932
18992.4	-0.0207978
19000.1	-0.0216202
19010.4	-0.0227071
19020.7	-0.0237811
19031	-0.0248402
19041.3	-0.0258825
19051.6	-0.0269059
19061.9	-0.0279084
19072.2	-0.028888
19082.5	-0.0298427
19090.2	-0.0305413
19100.5	-0.0314477
19110.8	-0.0323238
19121.1	-0.0331678
19131.4	-0.0339777
19141.7	-0.0347518
19152	-0.0354882
19162.3	-0.0361853
19172.6	-0.0368415
19180.3	-0.0373058
19190.6	-0.0378865
19200.9	-0.0384221
19211.2	-0.0389113
19221.5	-0.0393527
19231.8	-0.0397453
19242.1	-0.0400879
19252.4	-0.0403796
19260.1	-0.0405644
19270.4	-0.0407649
19280.7	-0.0409124
19291	-0.0410063
19301.3	-0.0410461
19311.5	-0.0410315
19321.8	-0.0409624
19332.1	-0.0408385
19342.4	-0.0406599
19350.2	-0.0404901
19360.5	-0.0402162
19370.7	-0.0398882
19381	-0.0395066
19391.3	-0.039072
19401.6	-0.038585
19411.9	-0.0380463
19422.2	-0.037457
19432.5	-0.0368179
19440.2	-0.0363065
19450.5	-0.035583
19460.8	-0.0348129
19471.1	-0.0339975
19481.4	-0.0331383
19491.7	-0.0322368
19502	-0.0312944
19512.3	-0.0303127
19520	-0.0295518
19530.3	-0.0285056
19540.6	-0.027425
19550.9	-0.0263117
19561.2	-0.0251677
19571.5	-0.0239947
19581.8	-0.0227947
19592.1	-0.0215698
19602.4	-0.0203218
19610.1	-0.0193718
19620.4	-0.0180883
19630.7	-0.0167871
19641	-0.0154704
19651.3	-0.0141401
19661.6	-0.0127982
19671.9	-0.0114467
19682.2	-0.0100875
19692.5	-0.00872266
19700.2	-0.0076964
19710.5	-0.00632608
19720.8	-0.00495522
19731.1	-0.00358564
19741.4	-0.00221912
19751.7	-0.000857409
19762	0.000497798
19772.3	0.00184485
19782.6	0.00318215
19790.3	0.00417778
19800.6	0.00549431
19810.9	0.00679695
19821.2	0.00808429
19831.5	0.00935501
19841.8	0.0106078
19852.1	0.0118415
19862.4	0.0130549
19870.1	0.0139509
19880.4	0.0151262
19890.7	0.0162783
19901	0.0174062
19911.3	0.0185093
19921.5	0.0195865
19931.8	0.0206373
19942.1	0.0216608
19952.4	0.0226566
19960.2	0.0233848
19970.5	0.0243306
19980.7	0.0252472
19991	0.0261342
