0	0
17.7294	0
26.5942	0
35.4589	0
44.3236	0
53.1883	0
62.053	0
70.9178	0
88.6472	0
97.5119	0
106.377	0
115.241	0
124.106	0
132.971	0
141.836	0
150.7	0
168.43	0
177.294	0
186.159	0
195.024	0
203.889	0
212.753	0
221.618	0
230.483	0
248.212	0
257.077	0
265.942	0
274.806	0
283.671	0
292.536	0
301.401	0
310.265	0
327.995	0
336.859	0
345.724	0
354.589	0
363.454	0
372.318	0
381.183	0
390.048	0
407.777	0
416.642	0
425.507	0
434.371	0
443.236	0
452.101	0
460.966	0
478.695	0
487.56	0
496.424	0
505.289	0
514.154	0
523.019	0
531.883	0
540.748	0
558.477	0
567.342	0
576.207	0
585.072	0
593.936	0
602.801	0
611.666	0
620.53	0
638.26	0
647.125	0
655.989	0
664.854	0
673.719	0
682.584	0
691.448	0
700.313	0
718.042	0
726.907	0
735.772	0
744.637	0
753.501	0
762.366	0
771.231	0
780.095	0
797.825	0
806.69	0
815.554	0
824.419	0
833.284	0
842.149	0
851.013	0
868.743	0
877.607	0
886.472	0
895.337	0
904.202	0
913.066	0
921.931	0
930.796	0
948.525	0
957.39	0
966.255	0
975.119	0
983.984	0
992.849	0
1001.71	0
1010.58	0
1028.31	0
1037.17	0
1046.04	0
1054.9	0
1063.77	0
1072.63	0
1081.5	0
1090.36	0
1108.09	0
1116.95	0
1125.82	0
1134.68	0
1143.55	0
1152.41	0
1161.28	0
1170.14	0
1187.87	0
1196.74	0
1205.6	0
1214.47	0
1223.33	0
1232.2	0
1241.06	0
1258.79	0
1267.66	0
1276.52	0
1285.38	0
1294.25	0
1303.11	0
1311.98	0
1320.84	0
1338.57	0
1347.44	0
1356.3	0
1365.17	0
1374.03	0
1382.9	0
1391.76	0
1400.63	0
1418.36	0
1427.22	0
1436.08	0
1444.95	0
1453.81	0
1462.68	0
1471.54	0
1480.41	0
1498.14	0
1507	0
1515.87	0
1524.73	0
1533.6	0
1542.46	0
1551.33	0
1560.19	0
1577.92	0
1586.79	0
1595.65	0
1604.51	0
1613.38	0
1622.24	0
1631.11	0
1648.84	0
1657.7	0
1666.57	0
1675.43	0
1684.3	0
1693.16	0
1702.03	0
1710.89	0
1728.62	0
1737.49	0
1746.35	0
1755.21	0
1764.08	0
1772.94	0
1781.81	0
1790.67	0
1808.4	0
1817.27	0
1826.13	0
1835	0
1843.86	0
1852.73	0
1861.59	0
1870.46	0
1888.19	0
1897.05	0
1905.92	0
1914.78	0
1923.64	0
1932.51	0
1941.37	0
1950.24	0
1967.97	0
1976.83	0
1985.7	0
1994.56	0
2003.43	0
2012.29	0
2021.16	0
2030.02	0
2047.75	0
2056.62	0
2065.48	0
2074.34	0
2083.21	0
2092.07	0
2100.94	0
2118.67	0
2127.53	0
2136.4	0
2145.26	0
2154.13	0
2162.99	0
2171.86	0
2180.72	0
2198.45	0
2207.32	0
2216.18	0
2225.05	0
2233.91	0
2242.77	0
2251.64	0
2260.5	0
2278.23	0
2287.1	0
2295.96	0
2304.83	0
2313.69	0
2322.56	0
2331.42	0
2340.29	0
2358.02	0
2366.88	0
2375.75	0
2384.61	0
2393.47	0
2402.34	0
2411.2	0
2420.07	0
2437.8	-1.81899e-12
2446.66	-2.72848e-12
2455.53	-3.63798e-12
2464.39	-4.54747e-12
2473.26	-5.45697e-12
2482.12	-7.27596e-12
2490.99	-9.09495e-12
2508.72	-1.54614e-11
2517.58	-2.09184e-11
2526.45	-2.72848e-11
2535.31	-3.54703e-11
2544.17	-4.63842e-11
2553.04	-6.00267e-11
2561.9	-7.7307e-11
2570.77	-9.82254e-11
2588.5	-1.60071e-10
2597.36	-2.03727e-10
2606.23	-2.59206e-10
2615.09	-3.28328e-10
2623.96	-4.1473e-10
2632.82	-5.2205e-10
2641.69	-6.56655e-10
2650.55	-8.23093e-10
2668.28	-1.2833e-09
2677.15	-1.59616e-09
2686.01	-1.98088e-09
2694.88	-2.45291e-09
2703.74	-3.03044e-09
2712.6	-3.73529e-09
2721.47	-4.59295e-09
2730.33	-5.63523e-09
2748.06	-8.42647e-09
2756.93	-1.027e-08
2765.79	-1.24883e-08
2774.66	-1.5154e-08
2783.52	-1.83491e-08
2792.39	-2.21717e-08
2801.25	-2.67346e-08
2810.12	-3.21697e-08
2827.85	-4.62951e-08
2836.71	-5.53682e-08
2845.58	-6.60893e-08
2854.44	-7.87304e-08
2863.3	-9.3607e-08
2872.17	-1.1108e-07
2881.03	-1.31564e-07
2898.76	-1.83521e-07
2907.63	-2.16146e-07
2916.49	-2.54106e-07
2925.36	-2.98191e-07
2934.22	-3.49295e-07
2943.09	-4.0843e-07
2951.95	-4.76737e-07
2960.82	-5.55499e-07
2978.55	-7.50329e-07
2987.41	-8.69821e-07
2996.28	-1.00666e-06
3005.14	-1.16309e-06
3014	-1.34162e-06
3022.87	-1.54505e-06
3031.73	-1.77646e-06
3040.6	-2.03929e-06
3058.33	-2.67471e-06
3067.19	-3.05608e-06
3076.06	-3.4865e-06
3084.92	-3.97151e-06
3093.79	-4.51722e-06
3102.65	-5.13029e-06
3111.52	-5.81801e-06
3120.38	-6.58833e-06
3138.11	-8.41213e-06
3146.97	-9.48524e-06
3155.84	-1.06803e-05
3164.7	-1.20093e-05
3173.57	-1.34852e-05
3182.43	-1.51219e-05
3191.3	-1.69345e-05
3200.16	-1.89391e-05
3217.89	-2.35953e-05
3226.76	-2.62854e-05
3235.62	-2.92448e-05
3244.49	-3.24961e-05
3253.35	-3.60636e-05
3262.21	-3.99731e-05
3271.08	-4.42519e-05
3288.81	-5.40352e-05
3297.67	-5.9603e-05
3306.54	-6.56665e-05
3315.4	-7.22621e-05
3324.27	-7.94276e-05
3333.13	-8.72032e-05
3342	-9.56306e-05
3350.86	-0.000104754
3368.59	-0.000125273
3377.45	-0.000136767
3386.32	-0.000149152
3395.18	-0.000162482
3404.05	-0.000176813
3412.91	-0.000192203
3421.78	-0.000208711
3430.64	-0.000226399
3448.37	-0.000265569
3457.23	-0.000287181
3466.1	-0.000310235
3474.96	-0.0003348
3483.83	-0.000360945
3492.69	-0.000388741
3501.56	-0.000418261
3510.42	-0.000449575
3528.15	-0.000517878
3537.01	-0.000555011
3545.88	-0.000594226
3554.74	-0.000635594
3563.61	-0.000679183
3572.47	-0.000725059
3581.34	-0.000773288
3590.2	-0.00082393
3607.93	-0.000932683
3616.79	-0.000990898
3625.66	-0.00105173
3634.52	-0.00111523
3643.39	-0.00118141
3652.25	-0.00125031
3661.12	-0.00132194
3678.85	-0.00147342
3687.71	-0.00155325
3696.57	-0.00163579
3705.44	-0.00172098
3714.3	-0.00180879
3723.17	-0.00189914
3732.03	-0.00199195
3740.9	-0.00208713
3758.63	-0.00228408
3767.49	-0.00238556
3776.35	-0.00248881
3785.22	-0.00259362
3794.08	-0.00269978
3802.95	-0.00280701
3811.81	-0.00291505
3820.68	-0.00302357
3838.4	-0.00324067
3847.27	-0.00334848
3856.13	-0.0034552
3865	-0.00356037
3873.86	-0.00366347
3882.73	-0.00376394
3891.59	-0.0038612
3900.45	-0.0039546
3918.18	-0.00412709
3927.05	-0.00420468
3935.91	-0.00427545
3944.78	-0.00433852
3953.64	-0.004393
3962.51	-0.00443794
3971.37	-0.00447232
3980.23	-0.0044951
3997.96	-0.0045014
4006.83	-0.00448258
4015.69	-0.00444745
4024.56	-0.00439472
4033.42	-0.00432304
4042.28	-0.00423102
4051.15	-0.00411722
4060.01	-0.00398014
4077.74	-0.00363001
4086.61	-0.00341377
4095.47	-0.00316787
4104.33	-0.00289063
4113.2	-0.00258032
4122.06	-0.00223519
4130.93	-0.00185344
4148.66	-0.000972833
4157.52	-0.000470289
4166.39	7.62337e-05
4175.25	0.000668611
4184.11	0.00130872
4192.98	0.00199846
4201.84	0.00273969
4210.71	0.00353428
4228.44	0.00529096
4237.3	0.00625669
4246.17	0.00728306
4255.03	0.00837179
4263.89	0.0095246
4272.76	0.0107431
4281.62	0.0120289
4290.49	0.0133835
4308.22	0.016305
4317.08	0.0178744
4325.95	0.019518
4334.81	0.0212368
4343.67	0.0230319
4352.54	0.024904
4361.4	0.0268541
4370.27	0.0288827
4388	0.0331774
4396.86	0.0354441
4405.73	0.0377906
4414.59	0.0402168
4423.46	0.0427225
4432.32	0.0453073
4441.19	0.0479706
4450.05	0.0507118
4467.78	0.0564239
4476.64	0.0593925
4485.51	0.0624343
4494.37	0.0655476
4503.24	0.0687306
4512.1	0.0719813
4520.97	0.0752976
4538.7	0.0821169
4547.56	0.0856146
4556.43	0.0891671
4565.29	0.0927714
4574.16	0.096424
4583.02	0.100121
4591.88	0.10386
4600.75	0.107636
4618.48	0.115284
4627.34	0.119147
4636.21	0.12303
4645.07	0.12693
4653.94	0.130839
4662.8	0.134755
4671.67	0.138672
4680.53	0.142585
4698.26	0.150377
4707.13	0.154245
4715.99	0.158088
4724.86	0.161899
4733.72	0.165674
4742.58	0.169406
4751.45	0.173091
4760.31	0.176721
4778.04	0.183798
4786.91	0.187233
4795.77	0.190591
4804.64	0.193868
4813.5	0.197057
4822.37	0.200153
4831.23	0.20315
4840.1	0.206044
4857.83	0.2115
4866.69	0.214052
4875.56	0.216481
4884.42	0.218781
4893.28	0.220949
4902.15	0.222979
4911.01	0.224868
4928.74	0.228207
4937.61	0.22965
4946.47	0.230936
4955.34	0.232065
4964.2	0.233031
4973.07	0.233833
4981.93	0.234469
4990.8	0.234936
5008.53	0.235357
5017.39	0.235308
5026.26	0.235084
5035.12	0.234686
5043.98	0.234112
5052.85	0.233362
5061.71	0.232436
5070.58	0.231335
5088.31	0.228609
5097.17	0.226987
5106.04	0.225194
5114.9	0.223231
5123.77	0.221101
5132.63	0.218806
5141.5	0.216348
5150.36	0.213731
5168.09	0.20803
5176.95	0.204953
5185.82	0.20173
5194.68	0.198366
5203.55	0.194863
5212.41	0.191227
5221.28	0.187462
5230.14	0.183573
5247.87	0.175443
5256.74	0.171213
5265.6	0.166879
5274.47	0.162448
5283.33	0.157924
5292.2	0.153315
5301.06	0.148625
5318.79	0.13903
5327.65	0.134135
5336.52	0.129185
5345.38	0.124186
5354.25	0.119143
5363.11	0.114062
5371.98	0.108951
5380.84	0.103814
5398.57	0.0934926
5407.44	0.0883193
5416.3	0.0831457
5425.17	0.077978
5434.03	0.0728221
5442.9	0.0676838
5451.76	0.0625687
5460.62	0.0574826
5478.35	0.0474191
5487.22	0.0424523
5496.08	0.0375356
5504.95	0.032674
5513.81	0.0278722
5522.68	0.0231348
5531.54	0.0184663
5540.41	0.0138709
5558.14	0.00491527
5567	0.000562641
5575.87	-0.00370186
5584.73	-0.00787498
5593.6	-0.0119537
5602.46	-0.0159351
5611.32	-0.0198166
5620.19	-0.0235958
5637.92	-0.0308388
5646.78	-0.0342988
5655.65	-0.037649
5664.51	-0.0408881
5673.38	-0.0440149
5682.24	-0.0470286
5691.11	-0.0499284
5708.84	-0.0553845
5717.7	-0.0579405
5726.57	-0.0603818
5735.43	-0.0627088
5744.3	-0.0649218
5753.16	-0.0670215
5762.02	-0.0690087
5770.89	-0.0708845
5788.62	-0.0743064
5797.48	-0.0758553
5806.35	-0.0772982
5815.21	-0.0786369
5824.08	-0.0798732
5832.94	-0.0810091
5841.81	-0.0820466
5850.67	-0.0829881
5868.4	-0.084592
5877.27	-0.0852592
5886.13	-0.0858401
5895	-0.0863371
5903.86	-0.0867531
5912.72	-0.0870906
5921.59	-0.0873525
5930.45	-0.0875415
5948.18	-0.0877126
5957.05	-0.0877003
5965.91	-0.0876267
5974.78	-0.0874946
5983.64	-0.0873069
5992.51	-0.0870666
6001.37	-0.0867764
6010.24	-0.0864392
6027.97	-0.0856351
6036.83	-0.0851738
6045.7	-0.0846765
6054.56	-0.0841459
6063.42	-0.0835846
6072.29	-0.0829952
6081.15	-0.0823802
6090.02	-0.081742
6107.75	-0.0804053
6116.61	-0.0797114
6125.48	-0.0790034
6134.34	-0.0782832
6143.21	-0.077553
6152.07	-0.0768147
6160.94	-0.07607
6178.67	-0.0745686
6187.53	-0.0738152
6196.4	-0.0730621
6205.26	-0.0723106
6214.12	-0.0715622
6222.99	-0.070818
6231.85	-0.0700793
6240.72	-0.0693472
6258.45	-0.0679066
6267.31	-0.0672001
6276.18	-0.0665037
6285.04	-0.0658182
6293.91	-0.0651443
6302.77	-0.0644825
6311.64	-0.0638333
6320.5	-0.0631972
6338.23	-0.0619654
6347.1	-0.0613704
6355.96	-0.0607895
6364.83	-0.0602228
6373.69	-0.0596705
6382.55	-0.0591325
6391.42	-0.0586089
6400.28	-0.0580994
6418.01	-0.0571227
6426.88	-0.0566551
6435.74	-0.0562009
6444.61	-0.0557599
6453.47	-0.0553318
6462.34	-0.0549163
6471.2	-0.054513
6480.07	-0.0541214
6497.8	-0.053372
6506.66	-0.0530133
6515.53	-0.0526645
6524.39	-0.0523252
6533.25	-0.051995
6542.12	-0.0516732
6550.98	-0.0513594
6568.71	-0.0507537
6577.58	-0.0504607
6586.44	-0.0501736
6595.31	-0.0498917
6604.17	-0.0496147
6613.04	-0.0493419
6621.9	-0.0490729
6630.77	-0.048807
6648.5	-0.048283
6657.36	-0.0480238
6666.23	-0.0477658
6675.09	-0.0475085
6683.96	-0.0472516
6692.82	-0.0469945
6701.68	-0.0467368
6710.55	-0.0464781
6728.28	-0.0459562
6737.14	-0.0456922
6746.01	-0.0454257
6754.87	-0.0451563
6763.74	-0.0448838
6772.6	-0.0446079
6781.47	-0.0443282
6790.33	-0.0440445
6808.06	-0.0434642
6816.93	-0.0431672
6825.79	-0.0428653
6834.66	-0.0425584
6843.52	-0.0422464
6852.39	-0.0419291
6861.25	-0.0416064
6870.11	-0.0412783
6887.84	-0.0406053
6896.71	-0.0402604
6905.57	-0.0399099
6914.44	-0.0395537
6923.3	-0.039192
6932.17	-0.0388246
6941.03	-0.0384518
6958.76	-0.0376899
6967.63	-0.0373011
6976.49	-0.0369071
6985.36	-0.0365082
6994.22	-0.0361044
7003.09	-0.0356959
7011.95	-0.035283
7020.82	-0.0348658
7038.54	-0.0340193
7047.41	-0.0335904
7056.27	-0.0331582
7065.14	-0.0327228
7074	-0.0322845
7082.87	-0.0318435
7091.73	-0.0314002
7100.6	-0.0309549
7118.33	-0.0300591
7127.19	-0.0296093
7136.06	-0.0291586
7144.92	-0.0287074
7153.79	-0.028256
7162.65	-0.0278047
7171.52	-0.0273538
7180.38	-0.0269036
7198.11	-0.0260069
7206.97	-0.0255611
7215.84	-0.0251173
7224.7	-0.024676
7233.57	-0.0242375
7242.43	-0.023802
7251.3	-0.02337
7260.16	-0.0229417
7277.89	-0.0220978
7286.76	-0.0216828
7295.62	-0.0212728
7304.49	-0.0208682
7313.35	-0.0204692
7322.22	-0.0200762
7331.08	-0.0196894
7348.81	-0.0189357
7357.67	-0.0185693
7366.54	-0.0182103
7375.4	-0.0178588
7384.27	-0.0175151
7393.13	-0.0171795
7402	-0.0168521
7410.86	-0.0165333
7428.59	-0.0159218
7437.46	-0.0156295
7446.32	-0.0153465
7455.19	-0.0150728
7464.05	-0.0148087
7472.92	-0.0145543
7481.78	-0.0143096
7490.64	-0.0140748
7508.37	-0.0136352
7517.24	-0.0134306
7526.1	-0.0132362
7534.97	-0.013052
7543.83	-0.0128781
7552.7	-0.0127145
7561.56	-0.0125612
7570.43	-0.0124182
7588.16	-0.0121629
7597.02	-0.0120506
7605.89	-0.0119485
7614.75	-0.0118564
7623.62	-0.0117743
7632.48	-0.0117022
7641.34	-0.0116398
7650.21	-0.0115871
7667.94	-0.0115102
7676.8	-0.0114857
7685.67	-0.0114703
7694.53	-0.0114638
7703.4	-0.011466
7712.26	-0.0114768
7721.13	-0.011496
7738.86	-0.0115584
7747.72	-0.0116013
7756.59	-0.0116516
7765.45	-0.0117091
7774.31	-0.0117735
7783.18	-0.0118446
7792.04	-0.0119221
7800.91	-0.0120057
7818.64	-0.0121903
7827.5	-0.0122906
7836.37	-0.0123959
7845.23	-0.0125058
7854.1	-0.0126201
7862.96	-0.0127385
7871.83	-0.0128606
7880.69	-0.0129862
7898.42	-0.0132462
7907.28	-0.0133801
7916.15	-0.0135162
7925.01	-0.0136541
7933.88	-0.0137934
7942.74	-0.013934
7951.61	-0.0140753
7960.47	-0.0142173
7978.2	-0.0145014
7987.07	-0.014643
7995.93	-0.0147839
8004.8	-0.0149237
8013.66	-0.0150621
8022.53	-0.0151989
8031.39	-0.0153338
8040.25	-0.0154663
8057.98	-0.0157236
8066.85	-0.0158477
8075.71	-0.0159684
8084.58	-0.0160854
8093.44	-0.0161985
8102.31	-0.0163075
8111.17	-0.016412
8120.04	-0.0165119
8137.77	-0.0166966
8146.63	-0.0167811
8155.5	-0.01686
8164.36	-0.0169332
8173.22	-0.0170003
8182.09	-0.0170614
8190.95	-0.0171161
8208.68	-0.0172057
8217.55	-0.0172404
8226.41	-0.0172682
8235.28	-0.0172888
8244.14	-0.0173022
8253.01	-0.0173082
8261.87	-0.0173068
8270.74	-0.0172978
8288.47	-0.0172569
8297.33	-0.0172247
8306.19	-0.0171847
8315.06	-0.0171368
8323.92	-0.0170809
8332.79	-0.0170171
8341.65	-0.0169451
8350.52	-0.0168652
8368.25	-0.0166812
8377.11	-0.0165771
8385.98	-0.016465
8394.84	-0.0163448
8403.71	-0.0162168
8412.57	-0.0160808
8421.44	-0.0159369
8430.3	-0.0157852
8448.03	-0.0154587
8456.89	-0.015284
8465.76	-0.0151018
8474.62	-0.0149122
8483.49	-0.0147153
8492.35	-0.0145111
8501.22	-0.0143
8510.08	-0.0140818
8527.81	-0.0136252
8536.68	-0.013387
8545.54	-0.0131423
8554.41	-0.0128915
8563.27	-0.0126345
8572.13	-0.0123716
8581	-0.0121029
8598.73	-0.0115489
8607.59	-0.0112639
8616.46	-0.0109739
8625.32	-0.010679
8634.19	-0.0103794
8643.05	-0.0100754
8651.92	-0.00976699
8660.78	-0.00945453
8678.51	-0.00881812
8687.38	-0.00849459
8696.24	-0.00816778
8705.1	-0.0078379
8713.97	-0.00750516
8722.83	-0.00716978
8731.7	-0.00683197
8740.56	-0.00649194
8758.29	-0.00580608
8767.16	-0.00546068
8776.02	-0.00511392
8784.89	-0.00476602
8793.75	-0.00441719
8802.62	-0.00406764
8811.48	-0.00371758
8820.35	-0.00336724
8838.08	-0.00266651
8846.94	-0.00231654
8855.8	-0.00196711
8864.67	-0.00161843
8873.53	-0.0012707
8882.4	-0.000924109
8891.26	-0.000578864
8900.13	-0.000235158
8917.86	0.000446872
8926.72	0.000784819
8935.59	0.00112048
8944.45	0.00145366
8953.32	0.0017842
8962.18	0.00211192
8971.05	0.00243665
8988.77	0.00307647
8997.64	0.00339124
9006.5	0.00370238
9015.37	0.00400973
9024.23	0.00431315
9033.1	0.0046125
9041.96	0.00490764
9050.83	0.00519843
9068.56	0.00576646
9077.42	0.00604346
9086.29	0.00631561
9095.15	0.00658282
9104.02	0.00684498
9112.88	0.00710197
9121.75	0.00735372
9130.61	0.00760011
9148.34	0.0080765
9157.2	0.00830633
9166.07	0.0085305
9174.93	0.00874891
9183.8	0.00896152
9192.66	0.00916826
9201.53	0.00936907
9210.39	0.00956391
9228.12	0.00993547
9236.99	0.0101121
9245.85	0.0102826
9254.72	0.010447
9263.58	0.0106051
9272.44	0.0107571
9281.31	0.0109028
9290.17	0.0110422
9307.9	0.0113024
9316.77	0.0114231
9325.63	0.0115376
9334.5	0.0116458
9343.36	0.0117478
9352.23	0.0118435
9361.09	0.0119331
9378.82	0.0120937
9387.69	0.0121647
9396.55	0.0122297
9405.42	0.0122886
9414.28	0.0123415
9423.14	0.0123884
9432.01	0.0124293
9440.87	0.0124643
9458.6	0.0125167
9467.47	0.0125342
9476.33	0.012546
9485.2	0.0125522
9494.06	0.0125527
9502.93	0.0125476
9511.79	0.0125371
9520.66	0.0125211
9538.39	0.0124731
9547.25	0.0124412
9556.12	0.0124041
9564.98	0.0123618
9573.84	0.0123145
9582.71	0.0122622
9591.57	0.012205
9600.44	0.0121429
9618.17	0.0120044
9627.03	0.0119281
9635.9	0.0118473
9644.76	0.0117619
9653.63	0.011672
9662.49	0.0115778
9671.36	0.0114793
9680.22	0.0113765
9697.95	0.0111584
9706.82	0.0110433
9715.68	0.0109241
9724.54	0.0108011
9733.41	0.0106742
9742.27	0.0105435
9751.14	0.0104091
9760	0.010271
9777.73	0.00998401
9786.6	0.00983528
9795.46	0.00968313
9804.33	0.00952761
9813.19	0.00936878
9822.06	0.00920669
9830.92	0.00904142
9848.65	0.00870149
9857.52	0.00852695
9866.38	0.00834943
9875.24	0.00816899
9884.11	0.00798566
9892.97	0.00779951
9901.84	0.00761058
9910.7	0.00741891
9928.43	0.00702759
9937.3	0.00682803
9946.16	0.00662592
9955.03	0.00642131
9963.89	0.00621425
9972.76	0.00600479
9981.62	0.00579295
9990.49	0.0055788
10008.2	0.0051437
10017.1	0.00492284
10025.9	0.00469982
10034.8	0.00447469
10043.7	0.0042475
10052.5	0.00401827
10061.4	0.00378705
10070.3	0.00355389
10088	0.00308188
10096.9	0.00284311
10105.7	0.00260256
10114.6	0.00236027
10123.5	0.00211627
10132.3	0.0018706
10141.2	0.00162332
10150.1	0.00137445
10167.8	0.000872138
10176.6	0.000618776
10185.5	0.000363999
10194.4	0.000107851
10203.2	-0.000149627
10212.1	-0.00040839
10221	-0.000668396
10238.7	-0.00119196
10247.6	-0.00145543
10256.4	-0.00171996
10265.3	-0.00198551
10274.2	-0.00225204
10283	-0.0025195
10291.9	-0.00278784
10300.8	-0.00305701
10318.5	-0.00359767
10327.3	-0.00386906
10336.2	-0.0041411
10345.1	-0.00441374
10353.9	-0.00468692
10362.8	-0.0049606
10371.7	-0.00523474
10380.5	-0.00550927
10398.3	-0.00605935
10407.1	-0.00633479
10416	-0.00661044
10424.9	-0.00688623
10433.7	-0.00716214
10442.6	-0.0074381
10451.5	-0.00771406
10460.3	-0.00798998
10478	-0.00854149
10486.9	-0.00881698
10495.8	-0.00909223
10504.6	-0.00936719
10513.5	-0.00964182
10522.4	-0.00991607
10531.2	-0.0101899
10540.1	-0.0104632
10557.8	-0.0110083
10566.7	-0.0112799
10575.6	-0.0115509
10584.4	-0.0118211
10593.3	-0.0120907
10602.2	-0.0123594
10611	-0.0126273
10628.7	-0.0131604
10637.6	-0.0134256
10646.5	-0.0136898
10655.3	-0.0139529
10664.2	-0.014215
10673.1	-0.014476
10681.9	-0.0147358
10690.8	-0.0149945
10708.5	-0.0155082
10717.4	-0.0157631
10726.3	-0.0160168
10735.1	-0.0162691
10744	-0.01652
10752.9	-0.0167696
10761.7	-0.0170178
10770.6	-0.0172645
10788.3	-0.0177535
10797.2	-0.0179957
10806	-0.0182365
10814.9	-0.0184756
10823.8	-0.0187132
10832.6	-0.0189491
10841.5	-0.0191835
10850.4	-0.0194161
10868.1	-0.0198765
10877	-0.0201042
10885.8	-0.0203302
10894.7	-0.0205544
10903.6	-0.0207769
10912.4	-0.0209976
10921.3	-0.0212166
10930.1	-0.0214337
10947.9	-0.0218627
10956.7	-0.0220744
10965.6	-0.0222843
10974.5	-0.0224923
10983.3	-0.0226985
10992.2	-0.0229028
11001.1	-0.0231052
11018.8	-0.0235043
11027.7	-0.023701
11036.5	-0.0238957
11045.4	-0.0240885
11054.3	-0.0242793
11063.1	-0.0244681
11072	-0.0246549
11080.8	-0.0248398
11098.6	-0.0252033
11107.4	-0.025382
11116.3	-0.0255587
11125.2	-0.0257332
11134	-0.0259057
11142.9	-0.026076
11151.8	-0.0262442
11160.6	-0.0264102
11178.4	-0.0267357
11187.2	-0.0268952
11196.1	-0.0270523
11205	-0.0272073
11213.8	-0.0273599
11222.7	-0.0275102
11231.5	-0.0276581
11240.4	-0.0278037
11258.1	-0.0280876
11267	-0.0282259
11275.9	-0.0283618
11284.7	-0.028495
11293.6	-0.0286258
11302.5	-0.0287539
11311.3	-0.0288795
11320.2	-0.0290023
11337.9	-0.02924
11346.8	-0.0293547
11355.7	-0.0294665
11364.5	-0.0295756
11373.4	-0.0296817
11382.2	-0.0297849
11391.1	-0.0298852
11408.8	-0.0300766
11417.7	-0.0301676
11426.6	-0.0302556
11435.4	-0.0303403
11444.3	-0.0304218
11453.2	-0.0305
11462	-0.0305748
11470.9	-0.0306463
11488.6	-0.0307789
11497.5	-0.0308399
11506.4	-0.0308974
11515.2	-0.0309512
11524.1	-0.0310013
11532.9	-0.0310477
11541.8	-0.0310904
11550.7	-0.0311292
11568.4	-0.0311951
11577.3	-0.0312221
11586.1	-0.031245
11595	-0.0312639
11603.9	-0.0312787
11612.7	-0.0312893
11621.6	-0.0312956
11630.5	-0.0312977
11648.2	-0.0312888
11657.1	-0.0312777
11665.9	-0.0312622
11674.8	-0.0312421
11683.6	-0.0312175
11692.5	-0.0311883
11701.4	-0.0311545
11710.2	-0.031116
11728	-0.0310246
11736.8	-0.0309718
11745.7	-0.0309141
11754.6	-0.0308515
11763.4	-0.030784
11772.3	-0.0307115
11781.2	-0.0306341
11790	-0.0305516
11807.8	-0.0303714
11816.6	-0.0302737
11825.5	-0.0301708
11834.3	-0.0300628
11843.2	-0.0299495
11852.1	-0.0298311
11860.9	-0.0297074
11878.7	-0.0294442
11887.5	-0.0293047
11896.4	-0.0291599
11905.3	-0.0290098
11914.1	-0.0288544
11923	-0.0286936
11931.9	-0.0285275
11940.7	-0.028356
11958.5	-0.027997
11967.3	-0.0278095
11976.2	-0.0276166
11985	-0.0274183
11993.9	-0.0272147
12002.8	-0.0270057
12011.6	-0.0267915
12020.5	-0.0265719
12038.2	-0.0261167
12047.1	-0.0258812
12056	-0.0256404
12064.8	-0.0253944
12073.7	-0.0251432
12082.6	-0.0248867
12091.4	-0.0246251
12100.3	-0.0243583
12118	-0.0238093
12126.9	-0.0235273
12135.7	-0.0232401
12144.6	-0.022948
12153.5	-0.022651
12162.3	-0.022349
12171.2	-0.0220421
12180.1	-0.0217304
12197.8	-0.0210926
12206.7	-0.0207666
12215.5	-0.020436
12224.4	-0.0201008
12233.3	-0.019761
12242.1	-0.0194167
12251	-0.019068
12268.7	-0.0183574
12277.6	-0.0179956
12286.4	-0.0176297
12295.3	-0.0172596
12304.2	-0.0168854
12313	-0.0165072
12321.9	-0.016125
12330.8	-0.015739
12348.5	-0.0149555
12357.4	-0.0145582
12366.2	-0.0141573
12375.1	-0.0137529
12384	-0.013345
12392.8	-0.0129337
12401.7	-0.0125191
12410.6	-0.0121014
12428.3	-0.0112565
12437.1	-0.0108295
12446	-0.0103996
12454.9	-0.00996699
12463.7	-0.0095316
12472.6	-0.00909359
12481.5	-0.00865302
12490.3	-0.00821
12508.1	-0.00731693
12516.9	-0.00686707
12525.8	-0.00641511
12534.7	-0.00596115
12543.5	-0.00550528
12552.4	-0.0050476
12561.3	-0.0045882
12570.1	-0.00412718
12587.8	-0.00320065
12596.7	-0.00273534
12605.6	-0.0022688
12614.4	-0.00180113
12623.3	-0.00133242
12632.2	-0.000862783
12641	-0.000392314
12658.8	0.00055071
12667.6	0.00102306
12676.5	0.00149584
12685.4	0.00196893
12694.2	0.00244224
12703.1	0.00291567
12712	0.0033891
12720.8	0.00386244
12738.5	0.00480841
12747.4	0.00528083
12756.3	0.00575275
12765.1	0.00622404
12774	0.00669461
12782.9	0.00716435
12791.7	0.00763315
12800.6	0.00810092
12818.3	0.00903292
12827.2	0.00949694
12836.1	0.0099595
12844.9	0.0104205
12853.8	0.0108798
12862.7	0.0113374
12871.5	0.0117931
12880.4	0.0122468
12898.1	0.0131478
12907	0.013595
12915.8	0.0140398
12924.7	0.014482
12933.6	0.0149217
12942.4	0.0153587
12951.3	0.0157929
12960.2	0.0162242
12977.9	0.0170778
12986.8	0.0174998
12995.6	0.0179185
13004.5	0.0183339
13013.4	0.0187458
13022.2	0.0191541
13031.1	0.0195588
13048.8	0.0203567
13057.7	0.0207498
13066.5	0.0211389
13075.4	0.0215238
13084.3	0.0219046
13093.1	0.022281
13102	0.022653
13110.9	0.0230206
13128.6	0.0237419
13137.5	0.0240955
13146.3	0.0244443
13155.2	0.0247882
13164.1	0.0251271
13172.9	0.025461
13181.8	0.0257897
13190.6	0.0261132
13208.4	0.0267443
13217.2	0.0270517
13226.1	0.0273536
13235	0.0276499
13243.8	0.0279406
13252.7	0.0282256
13261.6	0.0285047
13270.4	0.028778
13288.2	0.0293068
13297	0.0295621
13305.9	0.0298113
13314.8	0.0300543
13323.6	0.0302911
13332.5	0.0305216
13341.3	0.0307458
13350.2	0.0309635
13367.9	0.0313795
13376.8	0.0315777
13385.7	0.0317693
13394.5	0.0319542
13403.4	0.0321323
13412.3	0.0323037
13421.1	0.0324683
13438.9	0.0327769
13447.7	0.0329207
13456.6	0.0330576
13465.5	0.0331875
13474.3	0.0333103
13483.2	0.033426
13492	0.0335346
13500.9	0.0336359
13518.6	0.0338171
13527.5	0.0338968
13536.4	0.0339692
13545.2	0.0340343
13554.1	0.034092
13563	0.0341423
13571.8	0.0341853
13580.7	0.0342208
13598.4	0.0342695
13607.3	0.0342827
13616.2	0.0342884
13625	0.0342865
13633.9	0.0342772
13642.7	0.0342602
13651.6	0.0342358
13660.5	0.0342038
13678.2	0.0341171
13687.1	0.0340624
13695.9	0.0340001
13704.8	0.0339302
13713.7	0.0338527
13722.5	0.0337677
13731.4	0.033675
13740.3	0.0335748
13758	0.0333517
13766.9	0.0332288
13775.7	0.0330983
13784.6	0.0329604
13793.4	0.0328149
13802.3	0.0326618
13811.2	0.0325013
13820	0.0323334
13837.8	0.0319751
13846.6	0.0317848
13855.5	0.0315871
13864.4	0.0313821
13873.2	0.0311698
13882.1	0.0309501
13891	0.0307232
13908.7	0.0302477
13917.6	0.0299991
13926.4	0.0297435
13935.3	0.0294807
13944.1	0.029211
13953	0.0289342
13961.9	0.0286504
13970.7	0.0283598
13988.5	0.027758
13997.3	0.0274469
14006.2	0.0271292
14015.1	0.0268048
14023.9	0.0264738
14032.8	0.0261363
14041.7	0.0257924
14050.5	0.0254421
14068.3	0.0247225
14077.1	0.0243534
14086	0.0239783
14094.8	0.023597
14103.7	0.0232099
14112.6	0.0228168
14121.4	0.022418
14130.3	0.0220135
14148	0.0211876
14156.9	0.0207665
14165.8	0.02034
14174.6	0.0199083
14183.5	0.0194714
14192.4	0.0190294
14201.2	0.0185825
14210.1	0.0181307
14227.8	0.017213
14236.7	0.0167473
14245.5	0.0162772
14254.4	0.0158027
14263.3	0.0153241
14272.1	0.0148414
14281	0.0143547
14298.7	0.0133699
14307.6	0.0128721
14316.5	0.0123708
14325.3	0.0118662
14334.2	0.0113584
14343.1	0.0108475
14351.9	0.0103337
14360.8	0.0098171
14378.5	0.00877603
14387.4	0.00825186
14396.2	0.00772545
14405.1	0.00719696
14414	0.00666652
14422.8	0.00613429
14431.7	0.00560041
14440.6	0.00506504
14458.3	0.00399043
14467.2	0.0034515
14476	0.00291169
14484.9	0.00237116
14493.8	0.00183007
14502.6	0.00128859
14511.5	0.000746858
14520.4	0.000205052
14538.1	-0.000878147
14547	-0.00141921
14555.8	-0.0019597
14564.7	-0.00249945
14573.5	-0.0030383
14582.4	-0.00357608
14591.3	-0.00411261
14600.1	-0.00464775
14617.9	-0.00571314
14626.7	-0.00624306
14635.6	-0.00677092
14644.5	-0.00729654
14653.3	-0.00781976
14662.2	-0.00834041
14671.1	-0.00885833
14688.8	-0.00988532
14697.7	-0.0103941
14706.5	-0.0108994
14715.4	-0.0114012
14724.2	-0.0118993
14733.1	-0.0123936
14742	-0.0128838
14750.8	-0.0133698
14768.6	-0.0143287
14777.4	-0.0148013
14786.3	-0.0152691
14795.2	-0.015732
14804	-0.0161897
14812.9	-0.0166423
14821.8	-0.0170895
14830.6	-0.0175311
14848.4	-0.0183974
14857.2	-0.0188218
14866.1	-0.0192401
14874.9	-0.0196522
14883.8	-0.0200581
14892.7	-0.0204575
14901.5	-0.0208504
14910.4	-0.0212367
14928.1	-0.0219888
14937	-0.0223545
14945.9	-0.0227131
14954.7	-0.0230646
14963.6	-0.0234087
14972.5	-0.0237456
14981.3	-0.024075
14990.2	-0.0243968
15007.9	-0.0250177
15016.8	-0.0253165
15025.6	-0.0256075
15034.5	-0.0258907
15043.4	-0.0261659
15052.2	-0.0264331
15061.1	-0.0266922
15078.8	-0.0271863
15087.7	-0.027421
15096.6	-0.0276476
15105.4	-0.0278659
15114.3	-0.028076
15123.2	-0.0282778
15132	-0.0284713
15140.9	-0.0286565
15158.6	-0.029002
15167.5	-0.0291622
15176.3	-0.0293142
15185.2	-0.0294578
15194.1	-0.0295932
15202.9	-0.0297203
15211.8	-0.0298392
15220.7	-0.0299498
15238.4	-0.0301467
15247.3	-0.0302329
15256.1	-0.0303111
15265	-0.0303813
15273.9	-0.0304435
15282.7	-0.0304979
15291.6	-0.0305444
15300.5	-0.0305831
15318.2	-0.0306376
15327	-0.0306535
15335.9	-0.0306619
15344.8	-0.0306629
15353.6	-0.0306566
15362.5	-0.0306431
15371.4	-0.0306225
15380.2	-0.0305949
15398	-0.030519
15406.8	-0.030471
15415.7	-0.0304163
15424.6	-0.0303552
15433.4	-0.0302877
15442.3	-0.030214
15451.2	-0.0301341
15460	-0.0300481
15477.7	-0.0298588
15486.6	-0.0297555
15495.5	-0.0296468
15504.3	-0.0295327
15513.2	-0.0294133
15522.1	-0.0292889
15530.9	-0.0291594
15548.7	-0.0288861
15557.5	-0.0287425
15566.4	-0.0285945
15575.3	-0.0284422
15584.1	-0.0282857
15593	-0.0281252
15601.9	-0.0279608
15610.7	-0.0277927
15628.4	-0.0274459
15637.3	-0.0272674
15646.2	-0.0270857
15655	-0.0269011
15663.9	-0.0267135
15672.8	-0.0265231
15681.6	-0.0263302
15690.5	-0.0261347
15708.2	-0.0257368
15717.1	-0.0255347
15726	-0.0253306
15734.8	-0.0251247
15743.7	-0.0249171
15752.6	-0.024708
15761.4	-0.0244973
15770.3	-0.0242854
15788	-0.023858
15796.9	-0.0236428
15805.7	-0.0234267
15814.6	-0.0232099
15823.5	-0.0229925
15832.3	-0.0227745
15841.2	-0.0225561
15850.1	-0.0223375
15867.8	-0.0218995
15876.7	-0.0216805
15885.5	-0.0214615
15894.4	-0.0212427
15903.3	-0.0210241
15912.1	-0.0208059
15921	-0.020588
15938.7	-0.0201539
15947.6	-0.0199378
15956.4	-0.0197224
15965.3	-0.0195077
15974.2	-0.0192939
15983	-0.019081
15991.9	-0.018869
16000.8	-0.018658
16018.5	-0.0182393
16027.4	-0.0180317
16036.2	-0.0178253
16045.1	-0.0176201
16054	-0.0174162
16062.8	-0.0172136
16071.7	-0.0170123
16080.5	-0.0168124
16098.3	-0.0164169
16107.1	-0.0162212
16116	-0.0160271
16124.9	-0.0158344
16133.7	-0.0156432
16142.6	-0.0154535
16151.5	-0.0152653
16160.3	-0.0150786
16178.1	-0.0147097
16186.9	-0.0145276
16195.8	-0.014347
16204.7	-0.0141679
16213.5	-0.0139902
16222.4	-0.0138141
16231.2	-0.0136394
16240.1	-0.0134663
16257.8	-0.0131242
16266.7	-0.0129553
16275.6	-0.0127878
16284.4	-0.0126217
16293.3	-0.0124569
16302.2	-0.0122935
16311	-0.0121314
16328.8	-0.0118109
16337.6	-0.0116525
16346.5	-0.0114953
16355.4	-0.0113393
16364.2	-0.0111844
16373.1	-0.0110306
16381.9	-0.0108779
16390.8	-0.0107262
16408.5	-0.0104257
16417.4	-0.0102769
16426.3	-0.010129
16435.1	-0.00998201
16444	-0.0098358
16452.9	-0.00969039
16461.7	-0.00954574
16470.6	-0.00940182
16488.3	-0.009116
16497.2	-0.00897404
16506.1	-0.00883267
16514.9	-0.00869185
16523.8	-0.00855155
16532.6	-0.00841173
16541.5	-0.00827237
16550.4	-0.00813343
16568.1	-0.00785669
16577	-0.00771883
16585.8	-0.00758127
16594.7	-0.00744398
16603.6	-0.00730694
16612.4	-0.00717011
16621.3	-0.00703347
16630.2	-0.00689699
16647.9	-0.00662444
16656.8	-0.00648832
16665.6	-0.00635228
16674.5	-0.00621628
16683.3	-0.00608033
16692.2	-0.00594438
16701.1	-0.00580844
16718.8	-0.00553648
16727.7	-0.00540045
16736.5	-0.00526435
16745.4	-0.00512818
16754.3	-0.00499194
16763.1	-0.0048556
16772	-0.00471917
16780.9	-0.00458263
16798.6	-0.00430923
16807.5	-0.00417235
16816.3	-0.00403536
16825.2	-0.00389824
16834	-0.003761
16842.9	-0.00362365
16851.8	-0.00348618
16860.6	-0.00334859
16878.4	-0.0030731
16887.2	-0.0029352
16896.1	-0.00279722
16905	-0.00265916
16913.8	-0.00252103
16922.7	-0.00238283
16931.6	-0.00224459
16940.4	-0.00210632
16958.2	-0.00182972
16967	-0.00169142
16975.9	-0.00155315
16984.7	-0.00141492
16993.6	-0.00127675
17002.5	-0.00113866
17011.3	-0.00100066
17020.2	-0.000862783
17037.9	-0.000587459
17046.8	-0.000450058
17055.7	-0.00031286
17064.5	-0.000175888
17073.4	-3.91669e-05
17082.3	9.728e-05
17091.1	0.000233428
17108.9	0.000504727
17117.7	0.000639826
17126.6	0.000774524
17135.4	0.000908793
17144.3	0.00104261
17153.2	0.00117594
17162	0.00130876
17170.9	0.00144105
17188.6	0.0017039
17197.5	0.00183441
17206.4	0.00196428
17215.2	0.00209346
17224.1	0.00222194
17233	0.00234969
17241.8	0.00247668
17250.7	0.00260288
17268.4	0.00285279
17277.3	0.00297646
17286.1	0.00309922
17295	0.00322106
17303.9	0.00334194
17312.7	0.00346184
17321.6	0.00358073
17330.5	0.00369859
17348.2	0.00393109
17357.1	0.00404568
17365.9	0.00415914
17374.8	0.00427143
17383.7	0.00438253
17392.5	0.00449243
17401.4	0.00460108
17410.3	0.00470848
17428	0.00491941
17436.8	0.00502289
17445.7	0.00512503
17454.6	0.0052258
17463.4	0.00532517
17472.3	0.00542314
17481.2	0.00551968
17490	0.00561478
17507.8	0.00580055
17516.6	0.00589119
17525.5	0.00598031
17534.4	0.0060679
17543.2	0.00615395
17552.1	0.00623843
17561	0.00632133
17578.7	0.00648234
17587.5	0.00656043
17596.4	0.00663689
17605.3	0.0067117
17614.1	0.00678487
17623	0.00685638
17631.9	0.00692622
17640.7	0.00699438
17658.5	0.00712563
17667.3	0.00718871
17676.2	0.00725008
17685.1	0.00730974
17693.9	0.00736768
17702.8	0.00742391
17711.7	0.0074784
17720.5	0.00753117
17738.2	0.00763152
17747.1	0.0076791
17756	0.00772494
17764.8	0.00776905
17773.7	0.00781142
17782.6	0.00785207
17791.4	0.00789098
17800.3	0.00792817
17818	0.00799739
17826.9	0.00802942
17835.8	0.00805974
17844.6	0.00808835
17853.5	0.00811527
17862.4	0.00814049
17871.2	0.00816403
17880.1	0.00818589
17897.8	0.0082246
17906.7	0.00824148
17915.5	0.00825671
17924.4	0.00827032
17933.3	0.0082823
17942.1	0.00829267
17951	0.00830144
17968.7	0.00831424
17977.6	0.0083183
17986.5	0.0083208
17995.3	0.00832178
18004.2	0.00832124
18013.1	0.00831919
18021.9	0.00831566
18030.8	0.00831065
18048.5	0.0082963
18057.4	0.00828698
18066.2	0.00827625
18075.1	0.00826414
18084	0.00825066
18092.8	0.00823583
18101.7	0.00821967
18110.6	0.0082022
18128.3	0.00816339
18137.2	0.0081421
18146	0.00811958
18154.9	0.00809584
18163.8	0.00807092
18172.6	0.00804483
18181.5	0.00801759
18190.3	0.00798922
18208.1	0.0079292
18216.9	0.00789759
18225.8	0.00786494
18234.7	0.00783129
18243.5	0.00779664
18252.4	0.00776103
18261.3	0.00772447
18270.1	0.00768699
18287.9	0.00760938
18296.7	0.00756929
18305.6	0.00752838
18314.5	0.00748666
18323.3	0.00744418
18332.2	0.00740094
18341	0.00735698
18358.8	0.00726698
18367.6	0.00722099
18376.5	0.00717437
18385.4	0.00712715
18394.2	0.00707936
18403.1	0.00703101
18412	0.00698213
18420.8	0.00693276
18438.6	0.00683259
18447.4	0.00678185
18456.3	0.0067307
18465.2	0.00667917
18474	0.00662729
18482.9	0.00657507
18491.8	0.00652255
18500.6	0.00646974
18518.3	0.00636336
18527.2	0.00630983
18536.1	0.00625611
18544.9	0.00620223
18553.8	0.00614819
18562.7	0.00609403
18571.5	0.00603977
18580.4	0.00598543
18598.1	0.00587659
18607	0.00582213
18615.9	0.00576767
18624.7	0.00571324
18633.6	0.00565884
18642.5	0.00560452
18651.3	0.00555027
18660.2	0.00549612
18677.9	0.00538819
18686.8	0.00533444
18695.6	0.00528087
18704.5	0.00522748
18713.4	0.0051743
18722.2	0.00512133
18731.1	0.00506859
18748.8	0.00496387
18757.7	0.00491192
18766.6	0.00486025
18775.4	0.00480889
18784.3	0.00475783
18793.2	0.0047071
18802	0.0046567
18810.9	0.00460665
18828.6	0.00450761
18837.5	0.00445865
18846.3	0.00441006
18855.2	0.00436186
18864.1	0.00431405
18872.9	0.00426664
18881.8	0.00421963
18890.7	0.00417304
18908.4	0.00408108
18917.3	0.00403573
18926.1	0.0039908
18935	0.0039463
18943.9	0.00390222
18952.7	0.00385856
18961.6	0.00381533
18970.4	0.00377251
18988.2	0.00368815
18997	0.00364659
19005.9	0.00360544
19014.8	0.00356471
19023.6	0.00352437
19032.5	0.00348443
19041.4	0.00344488
19050.2	0.00340572
19068	0.00332851
19076.8	0.00329045
19085.7	0.00325274
19094.6	0.00321537
19103.4	0.00317833
19112.3	0.00314161
19121.1	0.0031052
19130	0.00306908
19147.7	0.00299768
19156.6	0.00296237
19165.5	0.00292731
19174.3	0.00289246
19183.2	0.00285784
19192.1	0.0028234
19200.9	0.00278915
19218.7	0.00272112
19227.5	0.0026873
19236.4	0.0026536
19245.3	0.00261998
19254.1	0.00258644
19263	0.00255296
19271.8	0.00251951
19280.7	0.00248608
19298.4	0.00241917
19307.3	0.00238567
19316.2	0.00235209
19325	0.00231843
19333.9	0.00228466
19342.8	0.00225076
19351.6	0.00221671
19360.5	0.00218248
19378.2	0.00211343
19387.1	0.00207855
19396	0.00204341
19404.8	0.00200799
19413.7	0.00197227
19422.5	0.00193621
19431.4	0.00189981
19440.3	0.00186303
19458	0.00178826
19466.9	0.00175023
19475.7	0.00171174
19484.6	0.00167277
19493.5	0.00163329
19502.3	0.00159329
19511.2	0.00155273
19520.1	0.00151161
19537.8	0.00142758
19546.7	0.00138463
19555.5	0.00134103
19564.4	0.00129676
19573.2	0.00125181
19582.1	0.00120614
19591	0.00115974
19608.7	0.0010647
19617.6	0.00101602
19626.4	0.000966536
19635.3	0.000916241
19644.2	0.000865116
19653	0.000813145
19661.9	0.000760313
19670.8	0.000706606
19688.5	0.000596511
19697.4	0.000540097
19706.2	0.000482755
19715.1	0.000424473
19723.9	0.000365241
19732.8	0.000305048
19741.7	0.000243883
19750.5	0.000181739
19768.3	5.44781e-05
19777.1	-1.06541e-05
19786	-7.67961e-05
19794.9	-0.000143954
19803.7	-0.000212132
19812.6	-0.000281335
19821.5	-0.000351567
19830.3	-0.000422831
19848.1	-0.000568459
19856.9	-0.000642826
19865.8	-0.000718229
19874.6	-0.000794667
19883.5	-0.000872137
19892.4	-0.000950638
19901.2	-0.00103017
19910.1	-0.00111072
19927.8	-0.00127487
19936.7	-0.00135846
19945.6	-0.00144305
19954.4	-0.00152863
19963.3	-0.00161519
19972.2	-0.00170273
19981	-0.00179124
19998.8	-0.00197109
