0	0
10.2954	0
20.5908	0
30.8863	0
41.1817	0
50.0063	0
60.3018	0
70.5972	0
80.8926	0
91.188	0
100.013	0
110.308	0
120.604	0
130.899	0
141.194	0
150.019	0
160.314	0
170.61	0
180.905	0
191.201	0
200.025	0
210.321	0
220.616	0
230.912	0
241.207	0
250.032	0
260.327	0
270.623	0
280.918	0
291.213	0
300.038	0
310.333	0
320.629	0
330.924	0
341.22	0
350.044	0
360.34	0
370.635	0
380.931	0
391.226	0
400.051	0
410.346	0
420.642	0
430.937	0
441.232	0
450.057	0
460.352	0
470.648	0
480.943	0
491.239	0
500.063	0
510.359	0
520.654	0
530.95	0
541.245	0
550.07	0
560.365	0
570.661	0
580.956	0
591.251	0
600.076	0
610.371	0
620.667	0
630.962	0
641.258	0
650.082	0
660.378	0
670.673	0
680.969	0
691.264	0
700.089	0
710.384	0
720.68	0
730.975	0
741.27	0
750.095	0
760.39	0
770.686	0
780.981	0
791.277	0
800.101	0
810.397	0
820.692	0
830.988	0
841.283	0
850.108	0
860.403	0
870.699	0
880.994	0
891.289	0
900.114	0
910.409	0
920.705	0
931	0
941.296	0
950.12	0
960.416	0
970.711	0
981.007	0
991.302	0
1000.13	0
1010.42	0
1020.72	0
1031.01	0
1041.31	0
1050.13	0
1060.43	0
1070.72	0
1081.02	0
1091.31	0
1100.14	0
1110.43	0
1120.73	0
1131.03	0
1141.32	0
1150.15	0
1160.44	0
1170.74	0
1181.03	0
1191.33	0
1200.15	0
1210.45	0
1220.74	0
1231.04	0
1241.33	0
1250.16	0
1260.45	0
1270.75	0
1281.04	0
1291.34	0
1300.16	0
1310.46	0
1320.76	0
1331.05	0
1341.35	0
1350.17	0
1360.47	0
1370.76	0
1381.06	0
1391.35	0
1400.18	0
1410.47	0
1420.77	0
1431.06	0
1441.36	0
1450.18	0
1460.48	0
1470.77	0
1481.07	0
1491.37	0
1500.19	0
1510.49	0
1520.78	0
1531.08	0
1541.37	0
1550.2	0
1560.49	0
1570.79	0
1581.08	0
1591.38	0
1600.2	0
1610.5	0
1620.79	0
1631.09	0
1641.38	0
1650.21	0
1660.5	0
1670.8	0
1681.1	0
1691.39	0
1700.22	0
1710.51	0
1720.81	0
1731.1	0
1741.4	0
1750.22	0
1760.52	0
1770.81	0
1781.11	0
1791.4	0
1800.23	0
1810.52	0
1820.82	0
1831.11	0
1841.41	0
1850.23	0
1860.53	0
1870.83	0
1881.12	0
1891.42	0
1900.24	0
1910.54	0
1920.83	0
1931.13	0
1941.42	0
1950.25	0
1960.54	0
1970.84	0
1981.13	0
1991.43	0
2000.25	0
2010.55	0
2020.84	0
2031.14	0
2041.44	0
2050.26	0
2060.56	0
2070.85	0
2081.15	0
2091.44	0
2100.27	0
2110.56	0
2120.86	0
2131.15	0
2141.45	0
2150.27	0
2160.57	0
2170.86	0
2181.16	0
2191.45	0
2200.28	0
2210.57	0
2220.87	0
2231.16	0
2241.46	0
2250.28	0
2260.58	0
2270.88	0
2281.17	0
2291.47	0
2300.29	0
2310.59	0
2320.88	0
2331.18	0
2340	0
2350.3	0
2360.59	0
2370.89	0
2381.18	0
2390.01	0
2400.3	0
2410.6	0
2420.89	0
2431.19	0
2440.01	0
2450.31	0
2460.61	0
2470.9	0
2481.2	0
2490.02	0
2500.32	0
2510.61	0
2520.91	0
2531.2	0
2540.03	0
2550.32	0
2560.62	0
2570.91	0
2581.21	0
2590.03	0
2600.33	0
2610.62	0
2620.92	0
2631.22	0
2640.04	2.72848e-12
2650.34	7.27596e-12
2660.63	1.27329e-11
2670.93	1.81899e-11
2681.22	2.36469e-11
2690.05	2.91038e-11
2700.34	3.54703e-11
2710.64	4.09273e-11
2720.93	4.72937e-11
2731.23	5.36602e-11
2740.05	6.27551e-11
2750.35	7.63976e-11
2760.64	9.91349e-11
2770.94	1.33696e-10
2781.23	1.86446e-10
2790.06	2.54659e-10
2800.35	3.69255e-10
2810.65	5.41149e-10
2820.95	7.9217e-10
2831.24	1.16142e-09
2840.07	1.60708e-09
2850.36	2.33558e-09
2860.66	3.37695e-09
2870.95	4.85124e-09
2881.25	6.92853e-09
2890.07	9.35415e-09
2900.37	1.31959e-08
2910.66	1.84937e-08
2920.96	2.57469e-08
2931.25	3.56085e-08
2940.08	4.67753e-08
2950.37	6.39166e-08
2960.67	8.67803e-08
2970.96	1.17077e-07
2981.26	1.56959e-07
2990.08	2.00802e-07
3000.38	2.66134e-07
3010.67	3.50586e-07
3020.97	4.59071e-07
3031.26	5.97572e-07
3040.09	7.45616e-07
3050.38	9.60117e-07
3060.68	1.22927e-06
3070.98	1.56501e-06
3081.27	1.98137e-06
3090.09	2.41476e-06
3100.39	3.02626e-06
3110.69	3.77231e-06
3120.98	4.67743e-06
3131.28	5.7695e-06
3140.1	6.8781e-06
3150.4	8.40367e-06
3160.69	1.02162e-05
3170.99	1.23585e-05
3181.28	1.48773e-05
3190.11	1.73745e-05
3200.4	2.07312e-05
3210.7	2.46212e-05
3220.99	2.91073e-05
3231.29	3.42556e-05
3240.11	3.92481e-05
3250.41	4.58128e-05
3260.7	5.32457e-05
3271	6.16229e-05
3281.29	7.10219e-05
3290.12	7.99505e-05
3300.41	9.14534e-05
3310.71	0.000104199
3321	0.000118261
3331.3	0.000133713
3340.12	0.000148114
3350.42	0.000166321
3360.71	0.000186099
3371.01	0.000207499
3381.3	0.000230568
3390.13	0.000251699
3400.42	0.000277964
3410.72	0.000305986
3421.01	0.000335781
3431.31	0.000367356
3440.13	0.000395836
3450.43	0.000430705
3460.72	0.000467328
3471.02	0.00050568
3481.31	0.000545731
3490.14	0.000581383
3500.43	0.000624486
3510.73	0.00066917
3521.02	0.000715386
3531.32	0.000763084
3540.14	0.00080511
3550.44	0.000855428
3560.73	0.000907088
3571.03	0.000960046
3581.32	0.00101426
3590.15	0.00106171
3600.44	0.00111819
3610.74	0.00117585
3621.03	0.00123469
3631.33	0.00129473
3640.15	0.00134715
3650.45	0.00140947
3660.74	0.00147308
3671.04	0.00153807
3681.33	0.00160452
3690.15	0.00166275
3700.45	0.00173229
3710.74	0.00180374
3721.04	0.00187733
3731.33	0.00195332
3740.16	0.00202063
3750.45	0.00210202
3760.75	0.00218693
3771.04	0.00227591
3781.34	0.00236958
3790.16	0.00245419
3800.46	0.00255871
3810.75	0.00267049
3821.05	0.00279073
3831.34	0.00292087
3840.17	0.00304156
3850.46	0.00319475
3860.76	0.00336342
3871.05	0.00355019
3881.35	0.0037581
3890.17	0.00395577
3900.47	0.00421265
3910.76	0.00450218
3921.06	0.00482962
3931.35	0.00520095
3940.18	0.00555931
3950.47	0.00603093
3960.77	0.00656841
3971.06	0.0071814
3981.36	0.00788072
3990.18	0.00855796
4000.48	0.00945064
4010.77	0.0104677
4021.07	0.0116253
4031.36	0.012941
4040.18	0.0142091
4050.48	0.0158706
4060.78	0.0177495
4071.07	0.0198695
4081.37	0.0222562
4090.19	0.0245346
4100.48	0.0274893
4110.78	0.0307917
4121.08	0.0344727
4131.37	0.0385642
4140.19	0.0424227
4150.49	0.0473637
4160.79	0.0528099
4171.08	0.0587946
4181.38	0.0653509
4190.2	0.0714499
4200.5	0.0791519
4210.79	0.0875133
4221.09	0.0965612
4231.38	0.10632
4240.21	0.115266
4250.5	0.126398
4260.8	0.13829
4271.09	0.150951
4281.39	0.164384
4290.21	0.176511
4300.51	0.191367
4310.8	0.206971
4321.1	0.223301
4331.39	0.240329
4340.22	0.255451
4350.51	0.273672
4360.81	0.292465
4371.1	0.311774
4381.4	0.331531
4390.22	0.348767
4400.52	0.369158
4410.82	0.389769
4421.11	0.410509
4431.41	0.431279
4440.23	0.449028
4450.53	0.469577
4460.82	0.489851
4471.12	0.509738
4481.41	0.529122
4490.24	0.545249
4500.53	0.563392
4510.83	0.580705
4521.12	0.597074
4531.42	0.612391
4540.24	0.624602
4550.54	0.637689
4560.83	0.649438
4571.13	0.659761
4581.42	0.668576
4590.25	0.674878
4600.54	0.680709
4610.84	0.68485
4621.13	0.687254
4631.43	0.687886
4640.25	0.686996
4650.55	0.684274
4660.85	0.679733
4671.14	0.673377
4681.44	0.665218
4690.26	0.656808
4700.56	0.645373
4710.85	0.632228
4721.15	0.617423
4731.44	0.601016
4740.27	0.585726
4750.56	0.566522
4760.86	0.54592
4771.15	0.524004
4781.45	0.500861
4790.27	0.480119
4800.57	0.454947
4810.86	0.428823
4821.16	0.401846
4831.45	0.374121
4840.28	0.349837
4850.57	0.320994
4860.87	0.291698
4871.16	0.262051
4881.46	0.232156
4890.28	0.20641
4900.58	0.176318
4910.87	0.146259
4921.17	0.116327
4931.47	0.0866114
4940.29	0.0613803
4950.59	0.0322974
4960.88	0.00367195
4971.18	-0.0244193
4980	-0.048017
4990.3	-0.0749259
5000.59	-0.101104
5010.89	-0.12649
5021.18	-0.151027
5030.01	-0.171346
5040.3	-0.194175
5050.6	-0.21602
5060.89	-0.236843
5071.19	-0.25661
5080.01	-0.27269
5090.31	-0.29042
5100.6	-0.307022
5110.9	-0.32248
5121.19	-0.336781
5130.02	-0.348112
5140.31	-0.360249
5150.61	-0.371219
5160.9	-0.381027
5171.2	-0.389682
5180.02	-0.396193
5190.32	-0.402743
5200.62	-0.408186
5210.91	-0.412545
5221.21	-0.415846
5230.03	-0.417856
5240.33	-0.419274
5250.62	-0.419725
5260.92	-0.419248
5271.21	-0.417882
5280.04	-0.416034
5290.33	-0.413127
5300.63	-0.409455
5310.92	-0.405062
5321.22	-0.399995
5330.04	-0.395153
5340.34	-0.388964
5350.63	-0.382239
5360.93	-0.375028
5371.22	-0.367379
5380.05	-0.360511
5390.34	-0.352176
5400.64	-0.34354
5410.94	-0.334647
5421.23	-0.325545
5430.06	-0.317608
5440.35	-0.308229
5450.65	-0.29876
5460.94	-0.28924
5471.24	-0.279707
5480.06	-0.271552
5490.36	-0.262087
5500.65	-0.252705
5510.95	-0.243435
5521.24	-0.234306
5530.07	-0.226612
5540.36	-0.217809
5550.66	-0.209214
5560.95	-0.200846
5571.25	-0.192723
5580.07	-0.185967
5590.37	-0.178338
5600.66	-0.170995
5610.96	-0.163945
5621.25	-0.157199
5630.08	-0.151664
5640.37	-0.145498
5650.67	-0.139651
5660.97	-0.134126
5671.26	-0.128924
5680.09	-0.124722
5690.38	-0.120118
5700.68	-0.115835
5710.97	-0.111868
5721.27	-0.108214
5730.09	-0.105327
5740.39	-0.102241
5750.68	-0.0994515
5760.98	-0.0969517
5771.27	-0.0947339
5780.1	-0.0930512
5790.39	-0.0913349
5800.69	-0.0898756
5810.98	-0.0886635
5821.28	-0.0876885
5830.1	-0.0870336
5840.4	-0.0864706
5850.69	-0.0861137
5860.99	-0.0859512
5871.28	-0.0859714
5880.11	-0.0861249
5890.4	-0.0864521
5900.7	-0.0869269
5911	-0.0875366
5921.29	-0.0882685
5930.12	-0.0889832
5940.41	-0.0899075
5950.71	-0.0909168
5961	-0.091998
5971.3	-0.093138
5980.12	-0.0941521
5990.42	-0.0953668
6000.71	-0.0966033
6011.01	-0.097849
6021.3	-0.0990913
6030.13	-0.100144
6040.42	-0.101348
6050.72	-0.102514
6061.01	-0.103631
6071.31	-0.104689
6080.13	-0.10554
6090.43	-0.10646
6100.72	-0.107291
6111.02	-0.108025
6121.31	-0.108654
6130.14	-0.109104
6140.43	-0.109517
6150.73	-0.109805
6161.03	-0.109963
6171.32	-0.109984
6180.15	-0.109892
6190.44	-0.10965
6200.74	-0.109264
6211.03	-0.108729
6221.33	-0.108046
6230.15	-0.107341
6240.45	-0.106381
6250.74	-0.105273
6261.04	-0.104018
6271.33	-0.10262
6280.16	-0.101309
6290.45	-0.0996512
6300.75	-0.0978599
6311.04	-0.0959397
6321.34	-0.0938958
6330.16	-0.0920497
6340.46	-0.0897916
6350.76	-0.0874274
6361.05	-0.0849639
6371.35	-0.0824084
6380.17	-0.0801503
6390.47	-0.0774438
6400.76	-0.0746671
6411.06	-0.071828
6421.35	-0.0689348
6430.18	-0.0664178
6440.47	-0.0634453
6450.77	-0.0604416
6461.06	-0.0574147
6471.36	-0.0543725
6480.18	-0.0517585
6490.48	-0.0487083
6500.77	-0.0456644
6511.07	-0.0426341
6521.36	-0.0396243
6530.19	-0.0370659
6540.48	-0.034112
6550.78	-0.0311972
6561.08	-0.0283275
6571.37	-0.0255085
6580.2	-0.0231367
6590.49	-0.0204261
6600.79	-0.0177809
6611.08	-0.0152057
6621.38	-0.0127047
6630.2	-0.0106232
6640.5	-0.00827049
6650.79	-0.00600278
6661.09	-0.00382326
6671.38	-0.00173489
6680.21	-1.94938e-05
6690.5	0.00189253
6700.8	0.00370624
6711.09	0.00541957
6721.39	0.00703071
6730.21	0.0083291
6740.51	0.00974629
6750.8	0.0110572
6761.1	0.0122608
6771.39	0.0133563
6780.22	0.0142088
6790.51	0.0151019
6800.81	0.0158857
6811.11	0.0165601
6821.4	0.0171252
6830.23	0.0175229
6840.52	0.0178861
6850.82	0.0181416
6861.11	0.0182904
6871.41	0.0183335
6880.23	0.0182875
6890.53	0.0181384
6900.82	0.0178882
6911.12	0.017539
6921.41	0.0170929
6930.24	0.0166354
6940.53	0.0160163
6950.83	0.015308
6961.12	0.0145136
6971.42	0.0136365
6980.24	0.0128214
6990.54	0.0118
7000.84	0.0107065
7011.13	0.00954482
7021.43	0.00831935
7030.25	0.00722151
7040.55	0.00588943
7050.84	0.00450663
7061.14	0.003078
7071.43	0.00160854
7080.26	0.000320382
7090.55	-0.00121126
7100.85	-0.00276885
7111.14	-0.00434703
7121.44	-0.00594037
7130.26	-0.007314
7140.56	-0.00892094
7150.85	-0.0105273
7161.15	-0.0121276
7171.44	-0.0137163
7180.27	-0.0150647
7190.56	-0.0166173
7200.86	-0.0181427
7211.16	-0.0196356
7221.45	-0.0210906
7230.28	-0.0223037
7240.57	-0.0236747
7250.87	-0.0249933
7261.16	-0.0262545
7271.46	-0.0274536
7280.28	-0.0284284
7290.58	-0.0294999
7300.87	-0.0304964
7311.17	-0.0314137
7321.46	-0.0322479
7330.29	-0.0328937
7340.58	-0.0335633
7350.88	-0.0341392
7361.17	-0.0346181
7371.47	-0.0349971
7380.29	-0.0352402
7390.59	-0.0354261
7400.88	-0.0355046
7411.18	-0.0354734
7420	-0.035358
7430.3	-0.0351185
7440.59	-0.0347646
7450.89	-0.0342952
7461.18	-0.0337095
7470.01	-0.0331145
7480.3	-0.0323115
7490.6	-0.0313913
7500.9	-0.0303542
7511.19	-0.0292008
7520.02	-0.0281203
7530.31	-0.0267535
7540.61	-0.0252738
7550.9	-0.0236829
7561.2	-0.0219829
7570.02	-0.0204407
7580.32	-0.0185447
7590.61	-0.0165472
7600.91	-0.0144516
7611.2	-0.0122614
7620.03	-0.0103117
7630.32	-0.00795612
7640.62	-0.00551768
7650.91	-0.00300093
7661.21	-0.000410742
7670.03	0.00186402
7680.33	0.00457694
7690.62	0.0073482
7700.92	0.0101721
7711.21	0.0130429
7720.04	0.0155363
7730.33	0.018478
7740.63	0.0214491
7750.92	0.0244434
7761.22	0.0274543
7770.04	0.0300436
7780.34	0.0330686
7790.63	0.0360921
7800.93	0.0391075
7811.23	0.0421086
7820.05	0.0446648
7830.35	0.0476228
7840.64	0.0505488
7850.94	0.053437
7861.23	0.0562815
7870.06	0.0586809
7880.35	0.0614299
7890.65	0.0641202
7900.94	0.0667466
7911.24	0.0693047
7920.06	0.0714396
7930.36	0.0738594
7940.65	0.0761991
7950.95	0.0784553
7961.24	0.0806249
7970.07	0.0824133
7980.36	0.0844146
7990.66	0.086322
8000.95	0.0881336
8011.25	0.0898478
8020.07	0.0912387
8030.37	0.0927692
8040.66	0.0941996
8050.96	0.0955297
8061.25	0.0967594
8070.08	0.0977338
8080.37	0.0987781
8090.67	0.0997234
8100.97	0.100571
8111.26	0.101322
8120.09	0.101889
8130.38	0.102464
8140.68	0.102948
8150.97	0.103341
8161.27	0.103646
8170.09	0.103839
8180.39	0.103986
8190.68	0.104052
8200.98	0.10404
8211.27	0.103951
8220.1	0.103816
8230.39	0.103592
8240.69	0.1033
8250.98	0.102942
8261.28	0.10252
8270.1	0.102111
8280.4	0.101579
8290.69	0.100991
8300.99	0.100351
8311.28	0.0996599
8320.11	0.0990295
8330.4	0.0982516
8340.7	0.0974305
8351	0.0965685
8361.29	0.0956679
8370.12	0.094867
8380.41	0.0939008
8390.71	0.0929024
8401	0.0918738
8411.3	0.090817
8420.12	0.0898902
8430.42	0.0887861
8440.71	0.0876591
8451.01	0.0865109
8461.3	0.0853432
8470.13	0.0843278
8480.42	0.0831276
8490.72	0.081912
8501.01	0.0806821
8511.31	0.0794393
8520.13	0.0783644
8530.43	0.0771001
8540.73	0.0758256
8551.02	0.0745415
8561.32	0.0732487
8570.14	0.0721341
8580.44	0.0708263
8590.73	0.0695111
8601.03	0.0681886
8611.32	0.066859
8620.15	0.0657137
8630.44	0.0643708
8640.74	0.0630205
8651.03	0.0616625
8661.33	0.0602965
8670.15	0.0591188
8680.45	0.0577364
8690.74	0.0563442
8701.04	0.0549415
8711.33	0.0535276
8720.16	0.0523059
8730.45	0.0508685
8740.75	0.0494171
8751.05	0.0479508
8761.34	0.0464684
8770.17	0.0451842
8780.46	0.0436692
8790.76	0.0421352
8801.05	0.0405811
8811.35	0.0390059
8820.17	0.0376384
8830.47	0.0360217
8840.76	0.0343815
8851.06	0.0327171
8861.35	0.0310278
8870.18	0.0295596
8880.47	0.0278228
8890.77	0.0260599
8901.06	0.0242709
8911.36	0.0224556
8920.18	0.0208789
8930.48	0.0190154
8940.77	0.0171266
8951.07	0.015213
8961.37	0.0132754
8970.19	0.0115961
8980.49	0.00961648
8990.78	0.00761594
9001.08	0.0055959
9011.37	0.00355793
9020.2	0.00179813
9030.49	-0.000268468
9040.79	-0.00234768
9051.08	-0.00443739
9061.38	-0.00653534
9070.2	-0.00833834
9080.5	-0.0104452
9090.79	-0.0125533
9101.09	-0.0146599
9111.38	-0.0167623
9120.21	-0.018559
9130.5	-0.0206462
9140.8	-0.0227213
9151.09	-0.0247812
9161.39	-0.026823
9170.21	-0.0285567
9180.51	-0.0305574
9190.81	-0.0325319
9201.1	-0.0344773
9211.4	-0.0363908
9220.22	-0.0380036
9230.52	-0.0398507
9240.81	-0.0416584
9251.11	-0.0434242
9261.4	-0.0451456
9270.23	-0.046584
9280.52	-0.0482169
9290.82	-0.0497993
9301.11	-0.051329
9311.41	-0.0528043
9320.23	-0.0540243
9330.53	-0.0553941
9340.82	-0.0567051
9351.12	-0.057956
9361.42	-0.0591455
9370.24	-0.0601156
9380.54	-0.061189
9390.83	-0.0621987
9401.13	-0.0631443
9411.42	-0.0640254
9420.25	-0.0647291
9430.54	-0.06549
9440.84	-0.0661863
9451.13	-0.0668183
9461.43	-0.0673862
9470.25	-0.0678225
9480.55	-0.0682732
9490.84	-0.0686618
9501.14	-0.0689894
9511.43	-0.0692571
9520.26	-0.0694397
9530.55	-0.0695993
9540.85	-0.0697027
9551.14	-0.0697515
9561.44	-0.0697474
9570.26	-0.069703
9580.56	-0.0696052
9590.86	-0.0694597
9601.15	-0.0692684
9611.45	-0.0690334
9620.27	-0.0687988
9630.57	-0.0684881
9640.86	-0.0681399
9651.16	-0.0677562
9661.45	-0.0673393
9670.28	-0.0669573
9680.57	-0.0664846
9690.87	-0.0659851
9701.16	-0.0654609
9711.46	-0.0649143
9720.28	-0.0644295
9730.58	-0.0638468
9740.87	-0.0632477
9751.17	-0.0626341
9761.47	-0.0620081
9770.29	-0.061463
9780.59	-0.0608188
9790.88	-0.0601673
9801.18	-0.0595103
9810	-0.0589439
9820.3	-0.0582808
9830.59	-0.0576164
9840.89	-0.0569522
9851.18	-0.0562894
9860.01	-0.0557234
9870.3	-0.0550664
9880.6	-0.054414
9890.89	-0.0537672
9901.19	-0.0531268
9910.01	-0.0525836
9920.31	-0.0519572
9930.6	-0.0513393
9940.9	-0.0507306
9951.19	-0.0501315
9960.02	-0.049626
9970.31	-0.049046
9980.61	-0.048477
9990.91	-0.0479191
10001.2	-0.0473728
10010	-0.0469139
10020.3	-0.0463897
10030.6	-0.0458778
10040.9	-0.0453782
10051.2	-0.0448913
10060	-0.0444841
10070.3	-0.0440211
10080.6	-0.0435711
10090.9	-0.0431345
10101.2	-0.0427113
10110	-0.0423593
10120.3	-0.0419615
10130.6	-0.0415776
10140.9	-0.0412079
10151.2	-0.0408525
10160	-0.0405594
10170.3	-0.0402312
10180.6	-0.039918
10190.9	-0.0396201
10201.2	-0.0393376
10210.1	-0.0391081
10220.3	-0.0388552
10230.6	-0.0386187
10240.9	-0.0383988
10251.2	-0.0381958
10260.1	-0.0380355
10270.4	-0.0378648
10280.6	-0.037712
10290.9	-0.0375773
10301.2	-0.037461
10310.1	-0.0373763
10320.4	-0.037295
10330.7	-0.0372331
10340.9	-0.0371907
10351.2	-0.0371681
10360.1	-0.0371647
10370.4	-0.0371794
10380.7	-0.0372146
10391	-0.0372703
10401.3	-0.0373466
10410.1	-0.0374286
10420.4	-0.0375437
10430.7	-0.0376796
10441	-0.0378363
10451.3	-0.038014
10460.1	-0.0381828
10470.4	-0.0383989
10480.7	-0.0386355
10491	-0.0388925
10501.3	-0.0391695
10510.1	-0.0394227
10520.4	-0.0397362
10530.7	-0.0400688
10541	-0.0404201
10551.3	-0.0407897
10560.1	-0.0411206
10570.4	-0.0415226
10580.7	-0.0419413
10591	-0.0423759
10601.3	-0.0428258
10610.1	-0.0432231
10620.4	-0.0436994
10630.7	-0.0441888
10641	-0.0446904
10651.3	-0.0452032
10660.1	-0.0456511
10670.4	-0.0461825
10680.7	-0.0467223
10691	-0.0472697
10701.3	-0.0478234
10710.1	-0.0483024
10720.4	-0.0488651
10730.7	-0.049431
10741	-0.049999
10751.3	-0.0505678
10760.1	-0.0510551
10770.4	-0.0516223
10780.7	-0.0521868
10791	-0.0527475
10801.3	-0.0533029
10810.1	-0.053774
10820.4	-0.0543166
10830.7	-0.0548503
10841	-0.0553741
10851.3	-0.0558864
10860.1	-0.0563157
10870.4	-0.0568037
10880.7	-0.0572767
10891	-0.0577336
10901.3	-0.058173
10910.1	-0.0585349
10920.4	-0.0589387
10930.7	-0.0593216
10941	-0.0596824
10951.3	-0.0600199
10960.1	-0.0602899
10970.4	-0.0605812
10980.7	-0.060846
10991	-0.0610832
11001.3	-0.0612918
11010.1	-0.0614471
11020.4	-0.0615998
11030.7	-0.061721
11041	-0.0618098
11051.3	-0.0618651
11060.2	-0.0618854
11070.5	-0.0618764
11080.7	-0.0618317
11091	-0.0617504
11101.3	-0.0616317
11110.2	-0.0614997
11120.5	-0.0613098
11130.8	-0.0610807
11141	-0.0608118
11151.3	-0.0605025
11160.2	-0.0602048
11170.5	-0.0598193
11180.8	-0.059392
11191.1	-0.0589228
11201.3	-0.0584112
11210.2	-0.0579387
11220.5	-0.0573479
11230.8	-0.056714
11241.1	-0.0560371
11251.4	-0.0553171
11260.2	-0.0546657
11270.5	-0.0538657
11280.8	-0.0530226
11291.1	-0.0521368
11301.4	-0.0512083
11310.2	-0.0503787
11320.5	-0.0493718
11330.8	-0.0483232
11341.1	-0.0472333
11351.4	-0.0461025
11360.2	-0.0451011
11370.5	-0.0438959
11380.8	-0.0426516
11391.1	-0.0413687
11401.4	-0.040048
11410.2	-0.0388864
11420.5	-0.0374977
11430.8	-0.0360735
11441.1	-0.0346147
11451.4	-0.0331224
11460.2	-0.0318174
11470.5	-0.0302654
11480.8	-0.0286829
11491.1	-0.027071
11501.4	-0.0254307
11510.2	-0.0240032
11520.5	-0.0223137
11530.8	-0.0205994
11541.1	-0.0188617
11551.4	-0.0171018
11560.2	-0.0155769
11570.5	-0.0137796
11580.8	-0.0119642
11591.1	-0.0101322
11601.4	-0.00828495
11610.2	-0.00669062
11620.5	-0.00481912
11630.8	-0.00293674
11641.1	-0.00104503
11651.4	0.000854432
11660.2	0.00248751
11670.5	0.00439716
11680.8	0.00631001
11691.1	0.00822443
11701.4	0.0101388
11710.2	0.0117784
11720.5	0.0136884
11730.8	0.0155936
11741.1	0.0174925
11751.4	0.0193834
11760.2	0.0209965
11770.5	0.0228683
11780.8	0.0247275
11791.1	0.0265724
11801.4	0.0284016
11810.2	0.0299558
11820.5	0.0317516
11830.8	0.0335272
11841.1	0.0352812
11851.4	0.0370122
11860.3	0.0384764
11870.5	0.0401607
11880.8	0.0418181
11891.1	0.0434471
11901.4	0.0450467
11910.3	0.0463933
11920.6	0.0479349
11930.8	0.0494438
11941.1	0.0509189
11951.4	0.0523594
11960.3	0.0535658
11970.6	0.0549396
11980.9	0.0562764
11991.2	0.0575756
12001.4	0.0588367
12010.3	0.0598868
12020.6	0.0610757
12030.9	0.0622253
12041.2	0.0633354
12051.5	0.0644058
12060.3	0.0652916
12070.6	0.0662882
12080.9	0.0672452
12091.2	0.0681627
12101.5	0.0690412
12110.3	0.0697634
12120.6	0.0705703
12130.9	0.0713394
12141.2	0.0720714
12151.5	0.0727668
12160.3	0.0733345
12170.6	0.0739643
12180.9	0.07456
12191.2	0.0751225
12201.5	0.0756528
12210.3	0.0760826
12220.6	0.0765561
12230.9	0.0770005
12241.2	0.0774171
12250	0.0777528
12260.3	0.0781208
12270.6	0.0784643
12280.9	0.0787846
12291.2	0.0790829
12300	0.0793219
12310.3	0.0795826
12320.6	0.0798246
12330.9	0.0800492
12341.2	0.0802574
12350	0.0804237
12360.3	0.0806043
12370.6	0.0807715
12380.9	0.0809262
12391.2	0.0810691
12400	0.0811829
12410.3	0.0813061
12420.6	0.0814196
12430.9	0.0815239
12441.2	0.0816195
12450	0.0816948
12460.3	0.0817751
12470.6	0.0818474
12480.9	0.0819119
12491.2	0.0819687
12500	0.082011
12510.3	0.0820528
12520.6	0.0820864
12530.9	0.0821112
12541.2	0.0821269
12550	0.0821327
12560.3	0.08213
12570.6	0.0821164
12580.9	0.0820912
12591.2	0.0820535
12600	0.0820106
12610.3	0.0819474
12620.6	0.081869
12630.9	0.0817743
12641.2	0.0816623
12650.1	0.0815517
12660.3	0.0814045
12670.6	0.0812366
12680.9	0.0810468
12691.2	0.0808339
12700.1	0.0806321
12710.4	0.0803731
12720.7	0.0800876
12730.9	0.0797742
12741.2	0.0794319
12750.1	0.0791145
12760.4	0.0787154
12770.7	0.0782842
12781	0.0778197
12791.2	0.0773211
12800.1	0.0768659
12810.4	0.0763014
12820.7	0.0757004
12831	0.0750619
12841.3	0.0743855
12850.1	0.073775
12860.4	0.0730264
12870.7	0.0722384
12881	0.0714106
12891.3	0.0705427
12900.1	0.0697668
12910.4	0.0688242
12920.7	0.0678414
12931	0.0668183
12941.3	0.0657554
12950.1	0.0648126
12960.4	0.0636763
12970.7	0.0625011
12981	0.0612876
12991.3	0.0600365
13000.1	0.0589347
13010.4	0.0576157
13020.7	0.0562614
13031	0.0548728
13041.3	0.0534509
13050.1	0.0522066
13060.4	0.0507261
13070.7	0.0492158
13081	0.0476771
13091.3	0.0461114
13100.1	0.044749
13110.4	0.0431371
13120.7	0.0415025
13131	0.0398469
13141.3	0.0381719
13150.1	0.0367221
13160.4	0.0350157
13170.7	0.033295
13181	0.0315616
13191.3	0.0298175
13200.1	0.0283154
13210.4	0.0265562
13220.7	0.0247916
13231	0.0230234
13241.3	0.0212534
13250.1	0.0197363
13260.4	0.0179681
13270.7	0.0162035
13281	0.0144442
13291.3	0.0126922
13300.1	0.0111976
13310.4	0.00946367
13320.7	0.00774199
13331	0.00603422
13341.3	0.00434199
13350.1	0.00290511
13360.4	0.00124596
13370.7	-0.000393201
13381	-0.00201094
13391.3	-0.00360586
13400.1	-0.00495378
13410.4	-0.00650287
13420.7	-0.00802553
13431	-0.00952064
13441.3	-0.0109871
13450.2	-0.0122206
13460.4	-0.0136314
13470.7	-0.0150109
13481	-0.0163585
13491.3	-0.0176733
13500.2	-0.0187739
13510.5	-0.0200264
13520.8	-0.0212448
13531	-0.0224286
13541.3	-0.0235774
13550.2	-0.0245342
13560.5	-0.0256178
13570.8	-0.0266659
13581.1	-0.0276788
13591.3	-0.0286564
13600.2	-0.0294663
13610.5	-0.0303788
13620.8	-0.0312565
13631.1	-0.0320999
13641.4	-0.0329093
13650.2	-0.0335763
13660.5	-0.0343238
13670.8	-0.0350386
13681.1	-0.0357214
13691.4	-0.0363727
13700.2	-0.0369065
13710.5	-0.0375013
13720.8	-0.0380665
13731.1	-0.0386031
13741.4	-0.0391117
13750.2	-0.0395259
13760.5	-0.0399846
13770.8	-0.0404176
13781.1	-0.0408256
13791.4	-0.0412095
13800.2	-0.04152
13810.5	-0.0418612
13820.8	-0.0421805
13831.1	-0.0424786
13841.4	-0.0427565
13850.2	-0.0429789
13860.5	-0.0432209
13870.8	-0.0434445
13881.1	-0.0436504
13891.4	-0.0438393
13900.2	-0.0439881
13910.5	-0.044147
13920.8	-0.0442906
13931.1	-0.0444193
13941.4	-0.0445336
13950.2	-0.0446206
13960.5	-0.0447095
13970.8	-0.0447853
13981.1	-0.0448484
13991.4	-0.044899
14000.2	-0.0449329
14010.5	-0.0449614
14020.8	-0.0449784
14031.1	-0.0449841
14041.4	-0.0449787
14050.2	-0.0449655
14060.5	-0.0449401
14070.8	-0.0449042
14081.1	-0.0448581
14091.4	-0.0448017
14100.2	-0.0447454
14110.5	-0.0446706
14120.8	-0.0445861
14131.1	-0.0444919
14141.4	-0.0443884
14150.2	-0.0442922
14160.5	-0.0441715
14170.8	-0.0440418
14181.1	-0.0439034
14191.4	-0.0437563
14200.2	-0.0436235
14210.5	-0.043461
14220.8	-0.0432904
14231.1	-0.0431121
14241.4	-0.0429263
14250.3	-0.0427613
14260.5	-0.0425622
14270.8	-0.0423566
14281.1	-0.0421446
14291.4	-0.0419266
14300.3	-0.0417352
14310.6	-0.041507
14320.9	-0.0412739
14331.1	-0.0410363
14341.4	-0.0407945
14350.3	-0.0405843
14360.6	-0.040336
14370.9	-0.0400849
14381.2	-0.0398312
14391.4	-0.0395756
14400.3	-0.0393553
14410.6	-0.0390972
14420.9	-0.0388384
14431.2	-0.0385793
14441.5	-0.0383204
14450.3	-0.0380989
14460.6	-0.0378414
14470.9	-0.0375853
14481.2	-0.0373309
14491.5	-0.0370786
14500.3	-0.0368643
14510.6	-0.0366169
14520.9	-0.0363725
14531.2	-0.0361314
14541.5	-0.0358938
14550.3	-0.0356932
14560.6	-0.0354629
14570.9	-0.0352366
14581.2	-0.0350145
14590	-0.0348276
14600.3	-0.0346136
14610.6	-0.0344038
14620.9	-0.0341984
14631.2	-0.0339973
14640	-0.0338281
14650.3	-0.0336345
14660.6	-0.0334447
14670.9	-0.0332585
14681.2	-0.0330755
14690	-0.0329211
14700.3	-0.0327434
14710.6	-0.032568
14720.9	-0.0323944
14731.2	-0.0322221
14740	-0.0320752
14750.3	-0.0319041
14760.6	-0.0317328
14770.9	-0.0315607
14781.2	-0.0313871
14790	-0.0312366
14800.3	-0.0310585
14810.6	-0.0308768
14820.9	-0.030691
14831.2	-0.0305002
14840	-0.030332
14850.3	-0.0301298
14860.6	-0.0299203
14870.9	-0.0297028
14881.2	-0.0294763
14890	-0.0292745
14900.3	-0.0290293
14910.6	-0.0287728
14920.9	-0.0285044
14931.2	-0.0282231
14940	-0.0279712
14950.3	-0.0276641
14960.6	-0.027342
14970.9	-0.0270043
14981.2	-0.0266504
14990.1	-0.0263335
15000.3	-0.0259477
15010.6	-0.025544
15020.9	-0.0251219
15031.2	-0.0246809
15040.1	-0.0242876
15050.4	-0.0238108
15060.7	-0.0233141
15070.9	-0.0227976
15081.2	-0.022261
15090.1	-0.0217851
15100.4	-0.0212111
15110.7	-0.0206172
15121	-0.0200034
15131.2	-0.0193701
15140.1	-0.0188118
15150.4	-0.0181429
15160.7	-0.0174554
15171	-0.01675
15181.3	-0.0160272
15190.1	-0.0153944
15200.4	-0.0146412
15210.7	-0.0138729
15221	-0.0130902
15231.3	-0.0122942
15240.1	-0.0116021
15250.4	-0.0107841
15260.7	-0.00995581
15271	-0.00911853
15281.3	-0.00827346
15290.1	-0.00754389
15300.4	-0.00668781
15310.7	-0.00582776
15321	-0.00496511
15331.3	-0.00410132
15340.1	-0.00336109
15350.4	-0.002499
15360.7	-0.00163993
15371	-0.000785345
15381.3	6.32688e-05
15390.1	0.000784789
15400.4	0.00161844
15410.7	0.00244196
15421	0.00325395
15431.3	0.00405303
15440.1	0.00472664
15450.4	0.00549818
15460.7	0.00625306
15471	0.00699007
15481.3	0.00770804
15490.1	0.00830745
15500.4	0.00898719
15510.7	0.0096449
15521	0.0102797
15531.3	0.0108907
15540.1	0.0113949
15550.4	0.0119598
15560.7	0.012499
15571	0.0130118
15581.3	0.0134979
15590.1	0.0138931
15600.4	0.0143286
15610.7	0.0147366
15621	0.0151168
15631.3	0.0154693
15640.1	0.0157493
15650.4	0.0160503
15660.7	0.0163238
15671	0.0165701
15681.3	0.0167895
15690.1	0.0169563
15700.4	0.0171268
15710.7	0.0172715
15721	0.0173911
15731.3	0.0174863
15740.1	0.0175489
15750.4	0.0176004
15760.7	0.0176294
15771	0.0176368
15781.3	0.0176233
15790.2	0.0175958
15800.4	0.0175458
15810.7	0.0174775
15821	0.0173917
15831.3	0.0172894
15840.2	0.0171892
15850.5	0.0170586
15860.8	0.0169141
15871	0.0167565
15881.3	0.0165869
15890.2	0.0164325
15900.5	0.0162427
15910.8	0.0160433
15921.1	0.0158351
15931.3	0.0156189
15940.2	0.0154278
15950.5	0.0151988
15960.8	0.0149639
15971.1	0.0147238
15981.4	0.0144791
15990.2	0.0142661
16000.5	0.0140144
16010.8	0.0137596
16021.1	0.0135023
16031.4	0.0132428
16040.2	0.0130189
16050.5	0.0127563
16060.8	0.0124924
16071.1	0.0122276
16081.4	0.0119618
16090.2	0.0117335
16100.5	0.0114666
16110.8	0.0111991
16121.1	0.0109311
16131.4	0.0106625
16140.2	0.0104318
16150.5	0.0101619
16160.8	0.00989106
16171.1	0.00961919
16181.4	0.00934603
16190.2	0.00911068
16200.5	0.00883443
16210.8	0.0085561
16221.1	0.00827536
16231.4	0.00799184
16240.2	0.00774632
16250.5	0.00745662
16260.8	0.00716301
16271.1	0.00686505
16281.4	0.0065623
16290.2	0.00629865
16300.5	0.00598578
16310.8	0.00566678
16321.1	0.00534119
16331.4	0.00500851
16340.2	0.00471735
16350.5	0.00437023
16360.8	0.00401465
16371.1	0.00365014
16381.4	0.00327621
16390.2	0.00294787
16400.5	0.00255526
16410.8	0.00215195
16421.1	0.00173752
16431.4	0.00131155
16440.2	0.000936945
16450.5	0.000488507
16460.8	2.7445e-05
16471.1	-0.000446585
16481.4	-0.000933903
16490.2	-0.00136241
16500.5	-0.00187518
16510.8	-0.00240203
16521.1	-0.00294318
16531.4	-0.00349884
16540.2	-0.00398679
16550.5	-0.00456982
16560.8	-0.00516776
16571.1	-0.00578071
16581.4	-0.00640871
16590.3	-0.006959
16600.5	-0.00761499
16610.8	-0.00828601
16621.1	-0.00897198
16631.4	-0.00967279
16640.3	-0.0102852
16650.6	-0.0110131
16660.9	-0.0117554
16671.1	-0.0125117
16681.4	-0.0132818
16690.3	-0.0139526
16700.6	-0.0147473
16710.9	-0.0155547
16721.2	-0.0163745
16731.4	-0.017206
16740.3	-0.0179277
16750.6	-0.0187796
16760.9	-0.0196418
16771.2	-0.0205134
16781.5	-0.021394
16790.3	-0.0221553
16800.6	-0.0230504
16810.9	-0.0239522
16821.2	-0.0248599
16831.5	-0.0257727
16840.3	-0.0265584
16850.6	-0.0274781
16860.9	-0.0284002
16871.2	-0.0293238
16881.5	-0.0302477
16890.3	-0.0310391
16900.6	-0.031961
16910.9	-0.0328802
16921.2	-0.0337956
16930	-0.0345763
16940.3	-0.0354816
16950.6	-0.0363797
16960.9	-0.0372696
16971.2	-0.03815
16980	-0.038896
16990.3	-0.0397554
17000.6	-0.0406018
17010.9	-0.0414339
17021.2	-0.0422505
17030	-0.0429372
17040.3	-0.0437217
17050.6	-0.0444872
17060.9	-0.0452324
17071.2	-0.0459561
17080	-0.0465585
17090.3	-0.0472393
17100.6	-0.0478953
17110.9	-0.0485254
17121.2	-0.0491284
17130	-0.0496231
17140.3	-0.0501732
17150.6	-0.0506934
17160.9	-0.0511827
17171.2	-0.0516402
17180	-0.0520064
17190.3	-0.0524026
17200.6	-0.0527648
17210.9	-0.0530921
17221.2	-0.0533839
17230	-0.0536054
17240.3	-0.0538299
17250.6	-0.0540173
17260.9	-0.0541674
17271.2	-0.0542798
17280	-0.0543459
17290.3	-0.0543875
17300.6	-0.0543908
17310.9	-0.0543557
17321.2	-0.0542823
17330.1	-0.0541888
17340.3	-0.0540443
17350.6	-0.0538618
17360.9	-0.0536416
17371.2	-0.0533841
17380.1	-0.0531339
17390.4	-0.052808
17400.6	-0.0524462
17410.9	-0.052049
17421.2	-0.0516169
17430.1	-0.0512195
17440.4	-0.0507249
17450.7	-0.0501977
17460.9	-0.0496388
17471.2	-0.0490491
17480.1	-0.0485199
17490.4	-0.0478756
17500.7	-0.0472033
17511	-0.0465042
17521.3	-0.0457793
17530.1	-0.0451382
17540.4	-0.0443684
17550.7	-0.0435761
17561	-0.0427624
17571.3	-0.0419286
17580.1	-0.0411988
17590.4	-0.0403307
17600.7	-0.0394459
17611	-0.0385456
17621.3	-0.037631
17630.1	-0.0368366
17640.4	-0.0358986
17650.7	-0.0349496
17661	-0.0339909
17671.3	-0.0330235
17680.1	-0.0321884
17690.4	-0.0312079
17700.7	-0.030222
17711	-0.0292317
17721.3	-0.0282379
17730.1	-0.0273841
17740.4	-0.0263866
17750.7	-0.0253885
17761	-0.0243906
17771.3	-0.0233939
17780.1	-0.0225411
17790.4	-0.0215487
17800.7	-0.0205598
17811	-0.019575
17821.3	-0.0185953
17830.1	-0.0177599
17840.4	-0.0167911
17850.7	-0.0158291
17861	-0.0148745
17871.3	-0.0139278
17880.1	-0.0131232
17890.4	-0.0121928
17900.7	-0.0112719
17911	-0.0103609
17921.3	-0.00946018
17930.1	-0.00869674
17940.4	-0.00781639
17950.7	-0.00694754
17961	-0.00609054
17971.3	-0.00524574
17980.1	-0.00453158
17990.4	-0.0037103
18000.7	-0.00290212
18011	-0.00210734
18021.3	-0.00132624
18030.1	-0.000667814
18040.4	8.71617e-05
18050.7	0.000827689
18061	0.00155351
18071.3	0.00226437
18080.1	0.00286157
18090.4	0.00354396
18100.7	0.00421066
18111	0.00486141
18121.3	0.00549596
18130.2	0.00602676
18140.4	0.00663052
18150.7	0.00721732
18161	0.00778689
18171.3	0.00833894
18180.2	0.00879798
18190.5	0.00931676
18200.7	0.0098172
18211	0.010299
18221.3	0.0107619
18230.2	0.0111433
18240.5	0.0115702
18250.8	0.0119772
18261.1	0.0123641
18271.3	0.0127305
18280.2	0.0130279
18290.5	0.0133554
18300.8	0.0136614
18311.1	0.0139457
18321.4	0.0142079
18330.2	0.0144148
18340.5	0.0146351
18350.8	0.0148324
18361.1	0.0150063
18371.4	0.0151566
18380.2	0.0152664
18390.5	0.0153721
18400.8	0.0154532
18411.1	0.0155097
18421.4	0.0155411
18430.2	0.0155479
18440.5	0.0155323
18450.8	0.015491
18461.1	0.0154239
18471.4	0.0153308
18480.2	0.0152301
18490.5	0.0150882
18500.8	0.0149199
18511.1	0.0147251
18521.4	0.0145037
18530.2	0.0142928
18540.5	0.0140219
18550.8	0.0137244
18561.1	0.0134003
18571.4	0.0130496
18580.2	0.0127279
18590.5	0.0123282
18600.8	0.0119022
18611.1	0.0114502
18621.4	0.0109723
18630.2	0.0105423
18640.5	0.0100171
18650.8	0.00946682
18661.1	0.00889183
18671.4	0.00829251
18680.2	0.00775974
18690.5	0.00711634
18700.8	0.00644988
18711.1	0.00576089
18721.4	0.00504993
18730.2	0.00442352
18740.5	0.00367341
18750.8	0.00290317
18761.1	0.00211353
18771.4	0.00130526
18780.2	0.000598226
18790.5	-0.000242486
18800.8	-0.00109941
18811.1	-0.00197162
18821.4	-0.00285813
18830.2	-0.00362862
18840.5	-0.00453897
18850.8	-0.00546061
18861.1	-0.0063924
18871.4	-0.00733316
18880.2	-0.00814575
18890.5	-0.00909991
18900.8	-0.0100595
18911.1	-0.0110231
18921.4	-0.0119894
18930.3	-0.0128188
18940.5	-0.0137864
18950.8	-0.0147526
18961.1	-0.015716
18971.4	-0.0166751
18980.3	-0.0174925
18990.6	-0.0184395
19000.8	-0.0193777
19011.1	-0.0203055
19021.4	-0.0212215
19030.3	-0.021996
19040.6	-0.0228856
19050.9	-0.0237589
19061.2	-0.0246141
19071.4	-0.0254497
19080.3	-0.0261491
19090.6	-0.0269442
19100.9	-0.0277152
19111.2	-0.0284607
19121.5	-0.0291791
19130.3	-0.0297723
19140.6	-0.0304368
19150.9	-0.0310701
19161.2	-0.0316711
19171.5	-0.0322384
19180.3	-0.0326968
19190.6	-0.0331983
19200.9	-0.0336626
19211.2	-0.0340888
19221.5	-0.0344758
19230.3	-0.0347757
19240.6	-0.0350876
19250.9	-0.0353578
19261.2	-0.0355857
19270	-0.0357467
19280.3	-0.0358943
19290.6	-0.0359978
19300.9	-0.0360568
19311.2	-0.0360712
19320	-0.0360477
19330.3	-0.0359783
19340.6	-0.0358637
19350.9	-0.035704
19361.2	-0.0354991
19370	-0.0352877
19380.3	-0.0349996
19390.6	-0.0346672
19400.9	-0.0342908
19411.2	-0.0338709
19420	-0.0334769
19430.3	-0.032978
19440.6	-0.0324375
19450.9	-0.0318562
19461.2	-0.0312351
19470	-0.0306717
19480.3	-0.0299791
19490.6	-0.0292495
19500.9	-0.0284839
19511.2	-0.0276837
19520	-0.0269712
19530.3	-0.0261099
19540.6	-0.0252175
19550.9	-0.0242955
19561.2	-0.0233452
19570	-0.0225093
19580.3	-0.0215104
19590.6	-0.0204874
19600.9	-0.0194419
19611.2	-0.0183754
19620	-0.0174458
19630.3	-0.0163444
19640.6	-0.0152265
19650.9	-0.0140937
19661.2	-0.0129475
19670	-0.0119557
19680.3	-0.0107889
19690.6	-0.00961331
19700.9	-0.0084304
19711.2	-0.00724175
19720.1	-0.0062195
19730.4	-0.00502423
19740.6	-0.00382752
19750.9	-0.00263084
19761.2	-0.00143563
19770.1	-0.000413399
19780.4	0.000775381
19790.7	0.00195876
19800.9	0.00313543
19811.2	0.00430412
19820.1	0.00529857
19830.4	0.00644919
19840.7	0.0075884
19851	0.0087151
19861.2	0.0098282
19870.1	0.0107707
19880.4	0.0118558
19890.7	0.0129246
19901	0.013976
19911.3	0.0150092
19920.1	0.0158797
19930.4	0.0168771
19940.7	0.017854
19951	0.0188099
19961.3	0.0197441
19970.1	0.0205272
19980.4	0.0214195
19990.7	0.0222886
