0	0
13.2971	0
26.5942	0
39.8912	0
53.1883	0
66.4854	0
79.7825	0
93.0796	0
106.377	0
119.674	0
132.971	0
146.268	0
159.565	0
172.862	0
186.159	0
199.456	0
212.753	0
226.05	0
239.347	0
252.645	0
265.942	0
279.239	0
292.536	0
305.833	0
319.13	0
332.427	0
345.724	0
359.021	0
372.318	0
385.615	0
398.912	0
412.21	0
425.507	0
438.804	0
452.101	0
465.398	0
478.695	0
491.992	0
505.289	0
518.586	0
531.883	0
545.18	0
558.477	0
571.775	0
585.072	0
598.369	0
611.666	0
624.963	0
638.26	0
651.557	0
664.854	0
678.151	0
691.448	0
704.745	0
718.042	0
731.34	0
744.637	0
757.934	0
771.231	0
784.528	0
797.825	0
811.122	0
824.419	0
837.716	0
851.013	0
864.31	0
877.607	0
890.904	0
904.202	0
917.499	0
930.796	0
944.093	0
957.39	0
970.687	0
983.984	0
997.281	0
1010.58	0
1023.88	0
1037.17	0
1050.47	0
1063.77	0
1077.06	0
1090.36	0
1103.66	0
1116.95	0
1130.25	0
1143.55	0
1156.85	0
1170.14	0
1183.44	0
1196.74	0
1210.03	0
1223.33	0
1236.63	0
1249.93	0
1263.22	0
1276.52	0
1289.82	0
1303.11	0
1316.41	0
1329.71	0
1343.01	0
1356.3	0
1369.6	0
1382.9	0
1396.19	0
1409.49	0
1422.79	0
1436.08	0
1449.38	0
1462.68	0
1475.98	0
1489.27	0
1502.57	0
1515.87	0
1529.16	0
1542.46	0
1555.76	0
1569.06	0
1582.35	0
1595.65	0
1608.95	0
1622.24	0
1635.54	0
1648.84	0
1662.14	0
1675.43	0
1688.73	0
1702.03	0
1715.32	0
1728.62	0
1741.92	0
1755.21	0
1768.51	0
1781.81	0
1795.11	0
1808.4	0
1821.7	0
1835	0
1848.29	0
1861.59	0
1874.89	0
1888.19	0
1901.48	0
1914.78	0
1928.08	0
1941.37	0
1954.67	0
1967.97	0
1981.27	0
1994.56	0
2007.86	0
2021.16	0
2034.45	0
2047.75	0
2061.05	0
2074.34	0
2087.64	0
2100.94	0
2114.24	0
2127.53	0
2140.83	0
2154.13	0
2167.42	0
2180.72	0
2194.02	0
2207.32	0
2220.61	0
2233.91	0
2247.21	0
2260.5	0
2273.8	0
2287.1	0
2300.4	0
2313.69	0
2326.99	0
2340.29	0
2353.58	0
2366.88	0
2380.18	0
2393.47	0
2406.77	0
2420.07	0
2433.37	0
2446.66	0
2459.96	0
2473.26	0
2486.55	0
2499.85	0
2513.15	0
2526.45	0
2539.74	0
2553.04	0
2566.34	-9.09495e-13
2579.63	-9.09495e-13
2592.93	-1.81899e-12
2606.23	-2.72848e-12
2619.53	-4.54747e-12
2632.82	-7.27596e-12
2646.12	-1.18234e-11
2659.42	-1.90994e-11
2672.71	-3.09228e-11
2686.01	-4.82032e-11
2699.31	-7.45786e-11
2712.6	-1.14596e-10
2725.9	-1.74623e-10
2739.2	-2.62844e-10
2752.5	-3.93811e-10
2765.79	-5.86624e-10
2779.09	-8.64929e-10
2792.39	-1.26602e-09
2805.68	-1.83991e-09
2818.98	-2.65482e-09
2832.28	-3.80351e-09
2845.58	-5.41149e-09
2858.87	-7.64794e-09
2872.17	-1.07366e-08
2885.47	-1.4973e-08
2898.76	-2.07456e-08
2912.06	-2.85636e-08
2925.36	-3.90837e-08
2938.65	-5.31527e-08
2951.95	-7.18537e-08
2965.25	-9.65656e-08
2978.55	-1.2903e-07
2991.84	-1.71433e-07
3005.14	-2.26508e-07
3018.44	-2.97642e-07
3031.73	-3.89023e-07
3045.03	-5.05785e-07
3058.33	-6.54198e-07
3071.63	-8.41868e-07
3084.92	-1.07798e-06
3098.22	-1.37357e-06
3111.52	-1.7418e-06
3124.81	-2.19834e-06
3138.11	-2.7617e-06
3151.41	-3.45365e-06
3164.7	-4.29969e-06
3178	-5.32952e-06
3191.3	-6.57758e-06
3204.59	-8.08361e-06
3217.89	-9.89324e-06
3231.19	-1.20587e-05
3244.49	-1.46393e-05
3257.78	-1.77024e-05
3271.08	-2.13239e-05
3284.38	-2.5589e-05
3297.67	-3.05932e-05
3310.97	-3.64427e-05
3324.27	-4.32551e-05
3337.56	-5.11606e-05
3350.86	-6.03021e-05
3364.16	-7.08363e-05
3377.45	-8.29341e-05
3390.75	-9.67809e-05
3404.05	-0.000112578
3417.34	-0.00013054
3430.64	-0.000150901
3443.94	-0.000173908
3457.23	-0.000199825
3470.53	-0.000228932
3483.83	-0.000261523
3497.12	-0.000297907
3510.42	-0.000338409
3523.72	-0.000383365
3537.01	-0.000433122
3550.31	-0.00048804
3563.61	-0.000548484
3576.9	-0.000614826
3590.2	-0.000687442
3603.5	-0.000766708
3616.79	-0.000852996
3630.09	-0.000946671
3643.39	-0.00104809
3656.68	-0.00115758
3669.98	-0.00127547
3683.28	-0.00140204
3696.57	-0.00153754
3709.87	-0.00168218
3723.17	-0.00183612
3736.46	-0.00199945
3749.76	-0.00217221
3763.06	-0.00235435
3776.35	-0.00254571
3789.65	-0.00274605
3802.95	-0.00295501
3816.24	-0.00317208
3829.54	-0.00339663
3842.84	-0.00362785
3856.13	-0.00386475
3869.43	-0.00410618
3882.72	-0.00435072
3896.02	-0.00459678
3909.32	-0.00484249
3922.61	-0.00508572
3935.91	-0.00532407
3949.21	-0.00555482
3962.5	-0.00577496
3975.8	-0.00598113
3989.1	-0.00616963
4002.39	-0.00633639
4015.69	-0.00647699
4028.99	-0.00658662
4042.28	-0.00666007
4055.58	-0.00669177
4068.88	-0.00667573
4082.17	-0.00660557
4095.47	-0.00647455
4108.76	-0.00627554
4122.06	-0.00600104
4135.36	-0.00564325
4148.65	-0.00519401
4161.95	-0.00464491
4175.25	-0.00398725
4188.54	-0.00321215
4201.84	-0.00231056
4215.14	-0.00127327
4228.43	-9.10662e-05
4241.73	0.00124532
4255.03	0.00274506
4268.32	0.00441722
4281.62	0.00627066
4294.92	0.00831396
4308.21	0.0105553
4321.51	0.0130026
4334.81	0.0156629
4348.11	0.018543
4361.4	0.0216488
4374.7	0.0249855
4388	0.0285574
4401.29	0.0323679
4414.59	0.0364192
4427.89	0.0407126
4441.18	0.0452482
4454.48	0.0500248
4467.78	0.0550398
4481.07	0.0602895
4494.37	0.0657686
4507.67	0.0714703
4520.97	0.0773867
4534.26	0.0835079
4547.56	0.089823
4560.86	0.0963192
4574.15	0.102983
4587.45	0.109797
4600.75	0.116747
4614.05	0.123813
4627.34	0.130975
4640.64	0.138213
4653.94	0.145505
4667.23	0.152827
4680.53	0.160155
4693.83	0.167465
4707.12	0.174731
4720.42	0.181926
4733.72	0.189024
4747.02	0.195996
4760.31	0.202817
4773.61	0.209457
4786.91	0.215891
4800.2	0.22209
4813.5	0.228027
4826.8	0.233677
4840.09	0.239014
4853.39	0.244013
4866.69	0.24865
4879.99	0.252902
4893.28	0.256748
4906.58	0.260167
4919.88	0.263141
4933.17	0.265654
4946.47	0.267688
4959.77	0.269232
4973.07	0.270273
4986.36	0.270801
4999.66	0.270809
5012.96	0.270291
5026.25	0.269243
5039.55	0.267664
5052.85	0.265554
5066.14	0.262917
5079.44	0.259756
5092.74	0.25608
5106.04	0.251898
5119.33	0.247219
5132.63	0.242058
5145.93	0.23643
5159.22	0.230352
5172.52	0.223841
5185.82	0.216919
5199.11	0.209607
5212.41	0.201929
5225.71	0.193909
5239.01	0.185573
5252.3	0.176949
5265.6	0.168064
5278.9	0.158948
5292.19	0.149628
5305.49	0.140137
5318.79	0.130503
5332.08	0.120758
5345.38	0.110932
5358.68	0.101056
5371.98	0.0911612
5385.27	0.081277
5398.57	0.0714332
5411.87	0.061659
5425.16	0.0519827
5438.46	0.0424319
5451.76	0.033033
5465.06	0.0238114
5478.35	0.0147913
5491.65	0.00599555
5504.95	-0.00255439
5518.24	-0.0108385
5531.54	-0.0188384
5544.84	-0.0265371
5558.13	-0.0339197
5571.43	-0.0409725
5584.73	-0.047684
5598.03	-0.054044
5611.32	-0.0600446
5624.62	-0.0656791
5637.92	-0.0709431
5651.21	-0.0758335
5664.51	-0.0803492
5677.81	-0.0844905
5691.11	-0.0882596
5704.4	-0.0916601
5717.7	-0.094697
5731	-0.097377
5744.29	-0.0997078
5757.59	-0.101699
5770.89	-0.10336
5784.18	-0.104703
5797.48	-0.105739
5810.78	-0.106483
5824.08	-0.106948
5837.37	-0.107148
5850.67	-0.107099
5863.97	-0.106816
5877.26	-0.106316
5890.56	-0.105614
5903.86	-0.104726
5917.16	-0.103669
5930.45	-0.102458
5943.75	-0.101111
5957.05	-0.0996429
5970.34	-0.0980689
5983.64	-0.0964043
5996.94	-0.0946638
6010.23	-0.0928614
6023.53	-0.0910109
6036.83	-0.089125
6050.13	-0.0872161
6063.42	-0.0852956
6076.72	-0.0833746
6090.02	-0.0814629
6103.31	-0.0795699
6116.61	-0.0777042
6129.91	-0.0758734
6143.21	-0.0740847
6156.5	-0.072344
6169.8	-0.0706569
6183.1	-0.0690281
6196.39	-0.0674614
6209.69	-0.0659601
6222.99	-0.0645268
6236.29	-0.0631634
6249.58	-0.0618711
6262.88	-0.0606507
6276.18	-0.0595024
6289.47	-0.0584258
6302.77	-0.0574201
6316.07	-0.0564841
6329.36	-0.055616
6342.66	-0.054814
6355.96	-0.0540756
6369.26	-0.0533983
6382.55	-0.0527793
6395.85	-0.0522154
6409.15	-0.0517036
6422.44	-0.0512404
6435.74	-0.0508223
6449.04	-0.0504458
6462.34	-0.0501072
6475.63	-0.049803
6488.93	-0.0495296
6502.23	-0.0492832
6515.52	-0.0490603
6528.82	-0.0488574
6542.12	-0.048671
6555.41	-0.0484978
6568.71	-0.0483345
6582.01	-0.048178
6595.31	-0.0480252
6608.6	-0.0478733
6621.9	-0.0477195
6635.2	-0.0475612
6648.49	-0.047396
6661.79	-0.0472215
6675.09	-0.0470357
6688.39	-0.0468365
6701.68	-0.0466222
6714.98	-0.046391
6728.28	-0.0461416
6741.57	-0.0458724
6754.87	-0.0455825
6768.17	-0.0452706
6781.47	-0.0449361
6794.76	-0.0445781
6808.06	-0.0441961
6821.36	-0.0437897
6834.65	-0.0433586
6847.95	-0.0429026
6861.25	-0.0424217
6874.55	-0.0419161
6887.84	-0.041386
6901.14	-0.0408318
6914.44	-0.0402539
6927.73	-0.039653
6941.03	-0.0390297
6954.33	-0.0383849
6967.62	-0.0377195
6980.92	-0.0370344
6994.22	-0.0363307
7007.52	-0.0356097
7020.81	-0.0348725
7034.11	-0.0341205
7047.41	-0.033355
7060.7	-0.0325776
7074	-0.0317896
7087.3	-0.0309926
7100.6	-0.0301882
7113.89	-0.0293781
7127.19	-0.0285639
7140.49	-0.0277472
7153.78	-0.0269297
7167.08	-0.0261133
7180.38	-0.0252994
7193.68	-0.02449
7206.97	-0.0236866
7220.27	-0.0228911
7233.57	-0.0221049
7246.86	-0.0213299
7260.16	-0.0205676
7273.46	-0.0198196
7286.76	-0.0190874
7300.05	-0.0183726
7313.35	-0.0176767
7326.65	-0.0170009
7339.94	-0.0163466
7353.24	-0.0157151
7366.54	-0.0151076
7379.83	-0.0145252
7393.13	-0.013969
7406.43	-0.0134399
7419.73	-0.0129388
7433.02	-0.0124665
7446.32	-0.0120237
7459.62	-0.011611
7472.91	-0.011229
7486.21	-0.010878
7499.51	-0.0105584
7512.8	-0.0102705
7526.1	-0.0100144
7539.4	-0.00979015
7552.7	-0.00959765
7565.99	-0.00943679
7579.29	-0.00930732
7592.59	-0.00920892
7605.88	-0.00914114
7619.18	-0.00910349
7632.48	-0.00909535
7645.77	-0.00911604
7659.07	-0.00916478
7672.37	-0.00924073
7685.67	-0.00934296
7698.96	-0.00947047
7712.26	-0.0096222
7725.56	-0.00979702
7738.85	-0.00999373
7752.15	-0.0102111
7765.45	-0.0104478
7778.74	-0.0107025
7792.04	-0.0109739
7805.34	-0.0112604
7818.64	-0.0115606
7831.93	-0.0118732
7845.23	-0.0121964
7858.53	-0.0125289
7871.82	-0.0128691
7885.12	-0.0132154
7898.42	-0.0135663
7911.71	-0.0139203
7925.01	-0.0142758
7938.31	-0.0146313
7951.61	-0.0149852
7964.9	-0.0153362
7978.2	-0.0156827
7991.5	-0.0160233
8004.79	-0.0163565
8018.09	-0.0166811
8031.39	-0.0169957
8044.68	-0.0172991
8057.98	-0.0175899
8071.28	-0.0178671
8084.58	-0.0181294
8097.87	-0.0183758
8111.17	-0.0186053
8124.47	-0.018817
8137.76	-0.0190098
8151.06	-0.0191831
8164.36	-0.0193359
8177.65	-0.0194677
8190.95	-0.0195777
8204.25	-0.0196655
8217.55	-0.0197304
8230.84	-0.019772
8244.14	-0.01979
8257.44	-0.0197841
8270.73	-0.019754
8284.03	-0.0196995
8297.33	-0.0196205
8310.62	-0.019517
8323.92	-0.019389
8337.22	-0.0192365
8350.52	-0.0190597
8363.81	-0.0188588
8377.11	-0.018634
8390.41	-0.0183857
8403.7	-0.0181141
8417	-0.0178197
8430.3	-0.017503
8443.59	-0.0171644
8456.89	-0.0168044
8470.19	-0.0164238
8483.49	-0.016023
8496.78	-0.0156028
8510.08	-0.0151639
8523.38	-0.0147069
8536.67	-0.0142327
8549.97	-0.013742
8563.27	-0.0132357
8576.56	-0.0127146
8589.86	-0.0121795
8603.16	-0.0116314
8616.46	-0.0110711
8629.75	-0.0104995
8643.05	-0.00991756
8656.35	-0.00932623
8669.64	-0.00872643
8682.94	-0.00811911
8696.24	-0.00750521
8709.53	-0.00688569
8722.83	-0.00626149
8736.13	-0.00563357
8749.43	-0.00500287
8762.72	-0.00437032
8776.02	-0.00373687
8789.32	-0.00310343
8802.61	-0.00247091
8815.91	-0.00184022
8829.21	-0.00121224
8842.51	-0.00058783
8855.8	3.21475e-05
8869.1	0.00064686
8882.4	0.00125549
8895.69	0.00185726
8908.99	0.00245137
8922.29	0.0030371
8935.58	0.00361371
8948.88	0.00418051
8962.18	0.00473682
8975.48	0.005282
8988.77	0.00581543
9002.07	0.00633654
9015.37	0.00684475
9028.66	0.00733955
9041.96	0.00782044
9055.26	0.00828695
9068.55	0.00873866
9081.85	0.00917516
9095.15	0.00959609
9108.45	0.0100011
9121.74	0.0103899
9135.04	0.0107623
9148.34	0.0111179
9161.63	0.0114566
9174.93	0.0117783
9188.23	0.0120827
9201.53	0.0123698
9214.82	0.0126395
9228.12	0.0128918
9241.42	0.0131267
9254.71	0.0133441
9268.01	0.0135442
9281.31	0.0137269
9294.6	0.0138924
9307.9	0.0140409
9321.2	0.0141725
9334.5	0.0142873
9347.79	0.0143856
9361.09	0.0144676
9374.39	0.0145335
9387.68	0.0145835
9400.98	0.0146181
9414.28	0.0146374
9427.57	0.0146418
9440.87	0.0146315
9454.17	0.014607
9467.47	0.0145685
9480.76	0.0145164
9494.06	0.0144511
9507.36	0.0143729
9520.65	0.0142822
9533.95	0.0141793
9547.25	0.0140647
9560.55	0.0139386
9573.84	0.0138015
9587.14	0.0136537
9600.44	0.0134955
9613.73	0.0133274
9627.03	0.0131496
9640.33	0.0129625
9653.62	0.0127664
9666.92	0.0125617
9680.22	0.0123486
9693.52	0.0121274
9706.81	0.0118985
9720.11	0.011662
9733.41	0.0114183
9746.7	0.0111676
9760	0.0109101
9773.3	0.0106461
9786.6	0.0103757
9799.89	0.0100992
9813.19	0.00981667
9826.49	0.00952835
9839.78	0.00923438
9853.08	0.0089349
9866.38	0.00863004
9879.67	0.00831993
9892.97	0.00800468
9906.27	0.00768439
9919.57	0.00735915
9932.86	0.00702906
9946.16	0.00669418
9959.46	0.0063546
9972.75	0.00601038
9986.05	0.00566159
9999.35	0.00530829
10012.6	0.00495054
10025.9	0.00458839
10039.2	0.00422191
10052.5	0.00385116
10065.8	0.00347618
10079.1	0.00309706
10092.4	0.00271385
10105.7	0.00232663
10119	0.00193547
10132.3	0.00154045
10145.6	0.00114166
10158.9	0.000739188
10172.2	0.000333144
10185.5	-7.63653e-05
10198.8	-0.000489225
10212.1	-0.000905308
10225.4	-0.00132448
10238.7	-0.0017466
10252	-0.00217152
10265.3	-0.00259908
10278.6	-0.0030291
10291.9	-0.00346142
10305.2	-0.00389585
10318.5	-0.00433219
10331.8	-0.00477025
10345.1	-0.00520982
10358.4	-0.00565069
10371.7	-0.00609264
10385	-0.00653544
10398.3	-0.00697888
10411.6	-0.00742271
10424.9	-0.00786671
10438.2	-0.00831064
10451.4	-0.00875425
10464.7	-0.00919732
10478	-0.00963961
10491.3	-0.0100809
10504.6	-0.0105209
10517.9	-0.0109594
10531.2	-0.0113962
10544.5	-0.0118311
10557.8	-0.0122638
10571.1	-0.0126942
10584.4	-0.013122
10597.7	-0.013547
10611	-0.0139691
10624.3	-0.0143881
10637.6	-0.0148037
10650.9	-0.0152159
10664.2	-0.0156245
10677.5	-0.0160293
10690.8	-0.0164302
10704.1	-0.0168271
10717.4	-0.0172199
10730.7	-0.0176086
10744	-0.0179929
10757.3	-0.0183728
10770.6	-0.0187483
10783.9	-0.0191193
10797.2	-0.0194858
10810.5	-0.0198478
10823.8	-0.0202051
10837.1	-0.0205579
10850.4	-0.020906
10863.7	-0.0212495
10877	-0.0215885
10890.3	-0.0219229
10903.5	-0.0222527
10916.8	-0.022578
10930.1	-0.0228988
10943.4	-0.0232151
10956.7	-0.023527
10970	-0.0238346
10983.3	-0.0241378
10996.6	-0.0244367
11009.9	-0.0247314
11023.2	-0.0250219
11036.5	-0.0253082
11049.8	-0.0255903
11063.1	-0.0258684
11076.4	-0.0261424
11089.7	-0.0264123
11103	-0.0266782
11116.3	-0.02694
11129.6	-0.0271979
11142.9	-0.0274516
11156.2	-0.0277014
11169.5	-0.027947
11182.8	-0.0281886
11196.1	-0.028426
11209.4	-0.0286592
11222.7	-0.028888
11236	-0.0291126
11249.3	-0.0293327
11262.6	-0.0295482
11275.9	-0.0297591
11289.2	-0.0299653
11302.5	-0.0301665
11315.8	-0.0303627
11329.1	-0.0305536
11342.4	-0.0307392
11355.7	-0.0309193
11368.9	-0.0310936
11382.2	-0.031262
11395.5	-0.0314242
11408.8	-0.0315802
11422.1	-0.0317295
11435.4	-0.0318721
11448.7	-0.0320076
11462	-0.0321359
11475.3	-0.0322567
11488.6	-0.0323697
11501.9	-0.0324747
11515.2	-0.0325714
11528.5	-0.0326596
11541.8	-0.032739
11555.1	-0.0328094
11568.4	-0.0328704
11581.7	-0.0329218
11595	-0.0329635
11608.3	-0.032995
11621.6	-0.0330162
11634.9	-0.0330267
11648.2	-0.0330265
11661.5	-0.0330151
11674.8	-0.0329925
11688.1	-0.0329583
11701.4	-0.0329124
11714.7	-0.0328544
11728	-0.0327844
11741.3	-0.0327019
11754.6	-0.0326069
11767.9	-0.0324992
11781.2	-0.0323786
11794.5	-0.032245
11807.8	-0.0320982
11821	-0.0319381
11834.3	-0.0317646
11847.6	-0.0315776
11860.9	-0.0313769
11874.2	-0.0311626
11887.5	-0.0309345
11900.8	-0.0306927
11914.1	-0.0304369
11927.4	-0.0301674
11940.7	-0.0298839
11954	-0.0295865
11967.3	-0.0292752
11980.6	-0.0289501
11993.9	-0.0286112
12007.2	-0.0282585
12020.5	-0.0278921
12033.8	-0.027512
12047.1	-0.0271184
12060.4	-0.0267113
12073.7	-0.0262909
12087	-0.0258572
12100.3	-0.0254104
12113.6	-0.0249507
12126.9	-0.0244781
12140.2	-0.0239928
12153.5	-0.0234951
12166.8	-0.022985
12180.1	-0.0224628
12193.4	-0.0219286
12206.7	-0.0213827
12220	-0.0208253
12233.3	-0.0202565
12246.6	-0.0196767
12259.9	-0.019086
12273.1	-0.0184847
12286.4	-0.017873
12299.7	-0.0172513
12313	-0.0166197
12326.3	-0.0159785
12339.6	-0.0153281
12352.9	-0.0146686
12366.2	-0.0140004
12379.5	-0.0133237
12392.8	-0.0126389
12406.1	-0.0119463
12419.4	-0.0112462
12432.7	-0.0105389
12446	-0.00982467
12459.3	-0.0091039
12472.6	-0.00837691
12485.9	-0.00764404
12499.2	-0.00690561
12512.5	-0.00616199
12525.8	-0.00541352
12539.1	-0.00466056
12552.4	-0.00390346
12565.7	-0.00314259
12579	-0.00237831
12592.3	-0.001611
12605.6	-0.000841039
12618.9	-6.87951e-05
12632.2	0.000705346
12645.5	0.001481
12658.8	0.00225778
12672.1	0.00303529
12685.4	0.00381314
12698.7	0.00459094
12712	0.00536829
12725.2	0.00614479
12738.5	0.00692004
12751.8	0.00769364
12765.1	0.00846519
12778.4	0.00923429
12791.7	0.0100005
12805	0.0107635
12818.3	0.0115228
12831.6	0.0122781
12844.9	0.0130289
12858.2	0.0137748
12871.5	0.0145155
12884.8	0.0152506
12898.1	0.0159796
12911.4	0.0167022
12924.7	0.0174179
12938	0.0181265
12951.3	0.0188275
12964.6	0.0195205
12977.9	0.0202052
12991.2	0.0208813
13004.5	0.0215483
13017.8	0.0222059
13031.1	0.0228538
13044.4	0.0234915
13057.7	0.0241189
13071	0.0247355
13084.3	0.025341
13097.6	0.0259351
13110.9	0.0265175
13124.2	0.0270879
13137.5	0.0276459
13150.8	0.0281914
13164.1	0.028724
13177.3	0.0292434
13190.6	0.0297494
13203.9	0.0302417
13217.2	0.0307201
13230.5	0.0311843
13243.8	0.0316341
13257.1	0.0320692
13270.4	0.0324894
13283.7	0.0328945
13297	0.0332843
13310.3	0.0336586
13323.6	0.0340172
13336.9	0.03436
13350.2	0.0346866
13363.5	0.0349971
13376.8	0.0352911
13390.1	0.0355686
13403.4	0.0358293
13416.7	0.0360732
13430	0.0363001
13443.3	0.0365099
13456.6	0.0367024
13469.9	0.0368776
13483.2	0.0370353
13496.5	0.0371754
13509.8	0.0372978
13523.1	0.0374025
13536.4	0.0374892
13549.7	0.0375581
13563	0.0376089
13576.3	0.0376416
13589.6	0.0376562
13602.9	0.0376526
13616.2	0.0376307
13629.4	0.0375905
13642.7	0.037532
13656	0.0374551
13669.3	0.0373598
13682.6	0.037246
13695.9	0.0371139
13709.2	0.0369633
13722.5	0.0367943
13735.8	0.0366068
13749.1	0.0364009
13762.4	0.0361766
13775.7	0.0359339
13789	0.0356728
13802.3	0.0353935
13815.6	0.0350959
13828.9	0.0347801
13842.2	0.0344461
13855.5	0.0340941
13868.8	0.0337241
13882.1	0.0333361
13895.4	0.0329304
13908.7	0.0325069
13922	0.0320658
13935.3	0.0316073
13948.6	0.0311314
13961.9	0.0306383
13975.2	0.0301282
13988.5	0.0296011
14001.8	0.0290573
14015.1	0.028497
14028.4	0.0279203
14041.7	0.0273274
14055	0.0267186
14068.3	0.0260941
14081.6	0.0254541
14094.8	0.0247989
14108.1	0.0241287
14121.4	0.0234438
14134.7	0.0227445
14148	0.022031
14161.3	0.0213038
14174.6	0.020563
14187.9	0.0198091
14201.2	0.0190424
14214.5	0.0182633
14227.8	0.0174721
14241.1	0.0166693
14254.4	0.0158551
14267.7	0.0150302
14281	0.0141948
14294.3	0.0133494
14307.6	0.0124946
14320.9	0.0116307
14334.2	0.0107583
14347.5	0.0098778
14360.8	0.00898981
14374.1	0.00809484
14387.4	0.00719341
14400.7	0.0062861
14414	0.00537348
14427.3	0.00445612
14440.6	0.00353463
14453.9	0.00260961
14467.2	0.00168168
14480.5	0.00075148
14493.8	-0.00018035
14507.1	-0.00111316
14520.4	-0.00204627
14533.7	-0.00297903
14546.9	-0.00391074
14560.2	-0.00484071
14573.5	-0.00576825
14586.8	-0.00669265
14600.1	-0.00761321
14613.4	-0.00852919
14626.7	-0.0094399
14640	-0.0103446
14653.3	-0.0112426
14666.6	-0.0121331
14679.9	-0.0130154
14693.2	-0.0138888
14706.5	-0.0147525
14719.8	-0.0156059
14733.1	-0.0164483
14746.4	-0.0172788
14759.7	-0.0180968
14773	-0.0189017
14786.3	-0.0196927
14799.6	-0.0204691
14812.9	-0.0212303
14826.2	-0.0219757
14839.5	-0.0227045
14852.8	-0.0234162
14866.1	-0.0241102
14879.4	-0.0247858
14892.7	-0.0254425
14906	-0.0260798
14919.3	-0.0266972
14932.6	-0.027294
14945.9	-0.02787
14959.2	-0.0284245
14972.5	-0.0289572
14985.8	-0.0294677
14999	-0.0299555
15012.3	-0.0304205
15025.6	-0.0308622
15038.9	-0.0312804
15052.2	-0.0316748
15065.5	-0.0320453
15078.8	-0.0323915
15092.1	-0.0327135
15105.4	-0.0330111
15118.7	-0.0332841
15132	-0.0335327
15145.3	-0.0337567
15158.6	-0.0339561
15171.9	-0.0341312
15185.2	-0.0342819
15198.5	-0.0344083
15211.8	-0.0345108
15225.1	-0.0345894
15238.4	-0.0346444
15251.7	-0.0346761
15265	-0.0346848
15278.3	-0.0346709
15291.6	-0.0346347
15304.9	-0.0345766
15318.2	-0.034497
15331.5	-0.0343965
15344.8	-0.0342755
15358.1	-0.0341346
15371.4	-0.0339742
15384.7	-0.033795
15398	-0.0335975
15411.3	-0.0333824
15424.6	-0.0331504
15437.9	-0.032902
15451.1	-0.0326379
15464.4	-0.0323589
15477.7	-0.0320655
15491	-0.0317587
15504.3	-0.031439
15517.6	-0.0311072
15530.9	-0.0307641
15544.2	-0.0304103
15557.5	-0.0300467
15570.8	-0.0296739
15584.1	-0.0292928
15597.4	-0.0289041
15610.7	-0.0285085
15624	-0.0281068
15637.3	-0.0276997
15650.6	-0.0272878
15663.9	-0.0268721
15677.2	-0.026453
15690.5	-0.0260313
15703.8	-0.0256078
15717.1	-0.0251829
15730.4	-0.0247575
15743.7	-0.024332
15757	-0.0239071
15770.3	-0.0234833
15783.6	-0.0230613
15796.9	-0.0226415
15810.2	-0.0222244
15823.5	-0.0218106
15836.8	-0.0214004
15850.1	-0.0209944
15863.4	-0.0205928
15876.7	-0.0201961
15890	-0.0198046
15903.2	-0.0194187
15916.5	-0.0190386
15929.8	-0.0186646
15943.1	-0.0182969
15956.4	-0.0179357
15969.7	-0.0175812
15983	-0.0172336
15996.3	-0.0168929
16009.6	-0.0165593
16022.9	-0.0162329
16036.2	-0.0159136
16049.5	-0.0156015
16062.8	-0.0152966
16076.1	-0.0149988
16089.4	-0.0147082
16102.7	-0.0144246
16116	-0.0141479
16129.3	-0.0138781
16142.6	-0.0136149
16155.9	-0.0133583
16169.2	-0.013108
16182.5	-0.0128639
16195.8	-0.0126258
16209.1	-0.0123934
16222.4	-0.0121666
16235.7	-0.0119451
16249	-0.0117287
16262.3	-0.011517
16275.6	-0.0113099
16288.9	-0.0111071
16302.2	-0.0109083
16315.5	-0.0107132
16328.8	-0.0105215
16342.1	-0.010333
16355.4	-0.0101474
16368.6	-0.00996438
16381.9	-0.00978367
16395.2	-0.00960498
16408.5	-0.00942806
16421.8	-0.00925262
16435.1	-0.0090784
16448.4	-0.00890513
16461.7	-0.00873258
16475	-0.00856048
16488.3	-0.0083886
16501.6	-0.00821672
16514.9	-0.00804461
16528.2	-0.00787205
16541.5	-0.00769886
16554.8	-0.00752484
16568.1	-0.00734981
16581.4	-0.00717362
16594.7	-0.00699609
16608	-0.00681709
16621.3	-0.0066365
16634.6	-0.00645418
16647.9	-0.00627005
16661.2	-0.00608399
16674.5	-0.00589595
16687.8	-0.00570584
16701.1	-0.00551361
16714.4	-0.00531922
16727.7	-0.00512263
16741	-0.00492384
16754.3	-0.00472284
16767.6	-0.00451962
16780.9	-0.00431421
16794.2	-0.00410663
16807.5	-0.00389692
16820.7	-0.00368513
16834	-0.00347133
16847.3	-0.00325557
16860.6	-0.00303793
16873.9	-0.00281851
16887.2	-0.00259739
16900.5	-0.00237468
16913.8	-0.00215049
16927.1	-0.00192493
16940.4	-0.00169814
16953.7	-0.00147023
16967	-0.00124134
16980.3	-0.00101161
16993.6	-0.000781195
17006.9	-0.000550232
17020.2	-0.000318877
17033.5	-8.72845e-05
17046.8	0.000144387
17060.1	0.000375976
17073.4	0.000607323
17086.7	0.000838263
17100	0.00106863
17113.3	0.00129827
17126.6	0.001527
17139.9	0.00175467
17153.2	0.00198111
17166.5	0.00220615
17179.8	0.00242965
17193.1	0.00265143
17206.4	0.00287134
17219.7	0.00308922
17233	0.00330493
17246.3	0.00351831
17259.6	0.00372921
17272.8	0.00393749
17286.1	0.00414301
17299.4	0.00434564
17312.7	0.00454525
17326	0.0047417
17339.3	0.00493487
17352.6	0.00512464
17365.9	0.0053109
17379.2	0.00549354
17392.5	0.00567246
17405.8	0.00584754
17419.1	0.0060187
17432.4	0.00618585
17445.7	0.00634891
17459	0.00650778
17472.3	0.00666239
17485.6	0.00681269
17498.9	0.00695859
17512.2	0.00710004
17525.5	0.00723698
17538.8	0.00736936
17552.1	0.00749715
17565.4	0.00762029
17578.7	0.00773874
17592	0.00785249
17605.3	0.0079615
17618.6	0.00806575
17631.9	0.00816522
17645.2	0.0082599
17658.5	0.00834977
17671.8	0.00843485
17685.1	0.00851511
17698.4	0.00859057
17711.7	0.00866124
17724.9	0.00872712
17738.2	0.00878823
17751.5	0.00884459
17764.8	0.00889621
17778.1	0.00894313
17791.4	0.00898537
17804.7	0.00902297
17818	0.00905595
17831.3	0.00908436
17844.6	0.00910824
17857.9	0.00912762
17871.2	0.00914257
17884.5	0.00915311
17897.8	0.00915931
17911.1	0.00916122
17924.4	0.0091589
17937.7	0.0091524
17951	0.00914178
17964.3	0.00912712
17977.6	0.00910846
17990.9	0.00908589
18004.2	0.00905947
18017.5	0.00902926
18030.8	0.00899536
18044.1	0.00895782
18057.4	0.00891672
18070.7	0.00887215
18084	0.00882419
18097.3	0.00877291
18110.6	0.00871841
18123.9	0.00866076
18137.2	0.00860006
18150.5	0.00853639
18163.8	0.00846984
18177.1	0.00840051
18190.3	0.00832849
18203.6	0.00825386
18216.9	0.00817674
18230.2	0.00809721
18243.5	0.00801538
18256.8	0.00793134
18270.1	0.00784519
18283.4	0.00775704
18296.7	0.007667
18310	0.00757515
18323.3	0.00748161
18336.6	0.00738649
18349.9	0.00728989
18363.2	0.00719192
18376.5	0.00709269
18389.8	0.0069923
18403.1	0.00689086
18416.4	0.00678849
18429.7	0.00668528
18443	0.00658136
18456.3	0.00647684
18469.6	0.00637181
18482.9	0.00626639
18496.2	0.00616069
18509.5	0.00605481
18522.8	0.00594887
18536.1	0.00584297
18549.4	0.00573721
18562.7	0.0056317
18576	0.00552654
18589.3	0.00542184
18602.6	0.0053177
18615.9	0.0052142
18629.2	0.00511145
18642.4	0.00500955
18655.7	0.00490858
18669	0.00480863
18682.3	0.00470979
18695.6	0.00461214
18708.9	0.00451577
18722.2	0.00442075
18735.5	0.00432715
18748.8	0.00423504
18762.1	0.0041445
18775.4	0.00405558
18788.7	0.00396834
18802	0.00388284
18815.3	0.00379912
18828.6	0.00371724
18841.9	0.00363723
18855.2	0.00355913
18868.5	0.00348297
18881.8	0.00340878
18895.1	0.00333658
18908.4	0.00326638
18921.7	0.0031982
18935	0.00313204
18948.3	0.0030679
18961.6	0.00300578
18974.9	0.00294566
18988.2	0.00288754
19001.5	0.00283138
19014.8	0.00277716
19028.1	0.00272485
19041.4	0.00267442
19054.7	0.00262581
19068	0.00257897
19081.3	0.00253387
19094.5	0.00249042
19107.8	0.00244858
19121.1	0.00240826
19134.4	0.0023694
19147.7	0.00233192
19161	0.00229573
19174.3	0.00226074
19187.6	0.00222686
19200.9	0.00219399
19214.2	0.00216204
19227.5	0.00213089
19240.8	0.00210044
19254.1	0.00207057
19267.4	0.00204117
19280.7	0.00201213
19294	0.00198331
19307.3	0.00195461
19320.6	0.00192588
19333.9	0.001897
19347.2	0.00186785
19360.5	0.00183829
19373.8	0.00180819
19387.1	0.00177742
19400.4	0.00174584
19413.7	0.00171331
19427	0.00167971
19440.3	0.00164491
19453.6	0.00160875
19466.9	0.00157112
19480.2	0.00153189
19493.5	0.00149091
19506.8	0.00144806
19520.1	0.00140322
19533.4	0.00135625
19546.6	0.00130705
19559.9	0.00125547
19573.2	0.00120142
19586.5	0.00114476
19599.8	0.0010854
19613.1	0.00102322
19626.4	0.000958125
19639.7	0.000890007
19653	0.000818771
19666.3	0.000744328
19679.6	0.000666588
19692.9	0.00058547
19706.2	0.000500896
19719.5	0.000412792
19732.8	0.000321091
19746.1	0.00022573
19759.4	0.000126652
19772.7	2.38044e-05
19786	-8.28588e-05
19799.3	-0.000193378
19812.6	-0.000307789
19825.9	-0.000426119
19839.2	-0.000548393
19852.5	-0.000674626
19865.8	-0.000804829
19879.1	-0.000939007
19892.4	-0.00107716
19905.7	-0.00121927
19919	-0.00136533
19932.3	-0.00151531
19945.6	-0.00166919
19958.9	-0.00182693
19972.2	-0.00198847
19985.5	-0.00215377
19998.7	-0.00232277
