0	0
10.0538	0
20.1077	0
30.1615	0
40.2154	0
50.2692	0
60.323	0
70.3769	0
80.4307	0
90.4846	0
100.538	0
110.592	0
120.646	0
130.7	0
140.754	0
150.808	0
160.861	0
170.001	0
180.055	0
190.109	0
200.163	0
210.217	0
220.27	0
230.324	0
240.378	0
250.432	0
260.486	0
270.54	0
280.594	0
290.647	0
300.701	0
310.755	0
320.809	0
330.863	0
340.003	0
350.056	0
360.11	0
370.164	0
380.218	0
390.272	0
400.326	0
410.379	0
420.433	0
430.487	0
440.541	0
450.595	0
460.649	0
470.702	0
480.756	0
490.81	0
500.864	0
510.004	0
520.058	0
530.112	0
540.165	0
550.219	0
560.273	0
570.327	0
580.381	0
590.435	0
600.488	0
610.542	0
620.596	0
630.65	0
640.704	0
650.758	0
660.811	0
670.865	0
680.005	0
690.059	0
700.113	0
710.167	0
720.22	0
730.274	0
740.328	0
750.382	0
760.436	0
770.49	0
780.544	0
790.597	0
800.651	0
810.705	0
820.759	0
830.813	0
840.867	0
850.006	0
860.06	0
870.114	0
880.168	0
890.222	0
900.276	0
910.329	0
920.383	0
930.437	0
940.491	0
950.545	0
960.599	0
970.652	0
980.706	0
990.76	0
1000.81	0
1010.87	0
1020.01	0
1030.06	0
1040.12	0
1050.17	0
1060.22	0
1070.28	0
1080.33	0
1090.38	0
1100.44	0
1110.49	0
1120.55	9.09495e-13
1130.6	1.00044e-11
1140.65	6.54836e-11
1150.71	3.81078e-10
1160.76	1.98179e-09
1170.82	9.36961e-09
1180.87	4.04443e-08
1190.01	1.41522e-07
1200.06	5.16793e-07
1210.12	1.73451e-06
1220.17	5.36222e-06
1230.22	1.5302e-05
1240.28	4.03928e-05
1250.33	9.88371e-05
1260.39	0.000224652
1270.44	0.000475339
1280.49	0.000938315
1290.55	0.00173195
1300.6	0.00299645
1310.66	0.00487174
1320.71	0.00746417
1330.76	0.0108104
1340.82	0.0148509
1350.87	0.0194261
1360.01	0.0238512
1370.06	0.0287641
1380.12	0.033487
1390.17	0.0378434
1400.23	0.0417554
1410.28	0.0452501
1420.33	0.0484466
1430.39	0.0515339
1440.44	0.0547477
1450.49	0.0583519
1460.55	0.0626282
1470.6	0.0678772
1480.66	0.0744337
1490.71	0.0826992
1500.76	0.0931884
1510.82	0.106582
1520.87	0.123768
1530.01	0.143618
1540.07	0.171314
1550.12	0.206541
1560.17	0.250745
1570.23	0.305213
1580.28	0.370897
1590.33	0.448235
1600.39	0.537025
1610.44	0.636354
1620.5	0.744633
1630.55	0.859694
1640.6	0.978979
1650.66	1.09975
1660.71	1.2193
1670.77	1.33513
1680.82	1.44508
1690.87	1.54738
1700.01	1.63258
1710.07	1.71678
1720.12	1.79034
1730.17	1.85287
1740.23	1.90423
1750.28	1.94452
1760.34	1.97398
1770.39	1.993
1780.44	2.00199
1790.5	2.0014
1800.55	1.99163
1810.61	1.97308
1820.66	1.94614
1830.71	1.91122
1840.77	1.86881
1850.82	1.81942
1860.87	1.76356
1870.01	1.70751
1880.07	1.64024
1890.12	1.56705
1900.18	1.48756
1910.23	1.40119
1920.28	1.3072
1930.34	1.20491
1940.39	1.09385
1950.44	0.973895
1960.5	0.845398
1970.55	0.709163
1980.61	0.566416
1990.66	0.418719
2000.71	0.267867
2010.77	0.115783
2020.82	-0.0355763
2030.88	-0.184317
2040.02	-0.315792
2050.07	-0.454884
2060.12	-0.587004
2070.18	-0.711289
2080.23	-0.827245
2090.28	-0.934698
2100.34	-1.03368
2110.39	-1.1243
2120.45	-1.20656
2130.5	-1.28028
2140.55	-1.34498
2150.61	-1.39996
2160.66	-1.44441
2170.72	-1.47751
2180.77	-1.49865
2190.82	-1.5076
2200.88	-1.50459
2210.02	-1.49205
2220.07	-1.46854
2230.12	-1.43628
2240.18	-1.39693
2250.23	-1.35219
2260.29	-1.30364
2270.34	-1.25269
2280.39	-1.20044
2290.45	-1.14776
2300.5	-1.09525
2310.56	-1.04337
2320.61	-0.992437
2330.66	-0.942686
2340.72	-0.894311
2350.77	-0.84745
2360.82	-0.80218
2370.88	-0.758498
2380.02	-0.720092
2390.07	-0.679123
2400.13	-0.639266
2410.18	-0.60026
2420.23	-0.561851
2430.29	-0.523837
2440.34	-0.486097
2450.39	-0.448609
2460.45	-0.411455
2470.5	-0.3748
2480.56	-0.338869
2490.61	-0.303918
2500.66	-0.270195
2510.72	-0.237921
2520.77	-0.207269
2530.83	-0.178359
2540.88	-0.151257
2550.02	-0.128211
2560.07	-0.10461
2570.13	-0.0828225
2580.18	-0.0628202
2590.23	-0.0445748
2600.29	-0.0280591
2610.34	-0.0132471
2620.4	-0.000111057
2630.45	0.0113813
2640.5	0.0212693
2650.56	0.0296008
2660.61	0.036432
2670.67	0.0418268
2680.72	0.0458548
2690.77	0.0485895
2700.83	0.0501062
2710.88	0.0504813
2720.02	0.0498957
2730.07	0.0483027
2740.13	0.0457892
2750.18	0.042431
2760.24	0.0383043
2770.29	0.0334856
2780.34	0.0280512
2790.4	0.0220764
2800.45	0.0156339
2810.5	0.00879229
2820.56	0.00161426
2830.61	-0.00584451
2840.67	-0.0135359
2850.72	-0.0214192
2860.77	-0.0294596
2870.83	-0.0376264
2880.88	-0.0458906
2890.02	-0.0534624
2900.07	-0.0618255
2910.13	-0.0701872
2920.18	-0.0785041
2930.24	-0.0867276
2940.29	-0.0948052
2950.34	-0.102682
2960.4	-0.110302
2970.45	-0.117611
2980.5	-0.124559
2990.56	-0.1311
3000.61	-0.137192
3010.67	-0.1428
3020.72	-0.147896
3030.77	-0.152462
3040.83	-0.156485
3050.88	-0.159964
3060.02	-0.162661
3070.07	-0.165133
3080.13	-0.167113
3090.18	-0.168639
3100.24	-0.169759
3110.29	-0.170525
3120.34	-0.170994
3130.4	-0.171226
3140.45	-0.171279
3150.5	-0.171206
3160.56	-0.171056
3170.61	-0.170869
3180.66	-0.170675
3190.72	-0.170497
3200.77	-0.170347
3210.83	-0.170232
3220.88	-0.170148
3230.02	-0.170095
3240.07	-0.170053
3250.13	-0.170014
3260.18	-0.169965
3270.23	-0.169891
3280.29	-0.169775
3290.34	-0.169602
3300.39	-0.169357
3310.45	-0.169023
3320.5	-0.168584
3330.55	-0.168025
3340.61	-0.167325
3350.66	-0.166467
3360.72	-0.165428
3370.77	-0.164184
3380.82	-0.162708
3390.88	-0.160973
3400.02	-0.159149
3410.07	-0.156845
3420.12	-0.154209
3430.18	-0.151223
3440.23	-0.147877
3450.28	-0.14417
3460.34	-0.140113
3470.39	-0.135724
3480.44	-0.131032
3490.5	-0.126076
3500.55	-0.120898
3510.6	-0.115547
3520.66	-0.11007
3530.71	-0.104515
3540.76	-0.0989254
3550.82	-0.0933386
3560.87	-0.0877866
3570.01	-0.0827902
3580.06	-0.0773668
3590.12	-0.0720308
3600.17	-0.0667884
3610.22	-0.0616414
3620.28	-0.0565882
3630.33	-0.0516248
3640.38	-0.0467457
3650.44	-0.0419448
3660.49	-0.0372157
3670.54	-0.0325526
3680.6	-0.0279502
3690.65	-0.0234051
3700.7	-0.018916
3710.76	-0.0144844
3720.81	-0.0101157
3730.86	-0.0058195
3740	-0.00198883
3750.05	0.00212523
3760.11	0.0061128
3770.16	0.00994791
3780.21	0.0136024
3790.27	0.0170472
3800.32	0.020254
3810.37	0.0231961
3820.43	0.0258498
3830.48	0.0281952
3840.53	0.0302164
3850.59	0.031902
3860.64	0.0332452
3870.69	0.0342434
3880.75	0.0348983
3890.8	0.0352157
3900.85	0.0352055
3910.91	0.0348809
3920.05	0.034327
3930.1	0.0334508
3940.15	0.0323159
3950.21	0.0309452
3960.26	0.0293625
3970.31	0.0275913
3980.37	0.0256546
3990.42	0.0235738
4000.47	0.0213687
4010.53	0.019057
4020.58	0.0166542
4030.63	0.0141746
4040.69	0.0116308
4050.74	0.00903485
4060.79	0.00639865
4070.85	0.0037343
4080.9	0.00105465
4090.04	-0.00138314
4100.09	-0.00405308
4110.15	-0.0066959
4120.2	-0.00929571
4130.25	-0.0118365
4140.31	-0.0143027
4150.36	-0.0166797
4160.41	-0.0189541
4170.47	-0.0211145
4180.52	-0.0231515
4190.58	-0.0250581
4200.63	-0.0268298
4210.68	-0.0284647
4220.74	-0.0299632
4230.79	-0.0313281
4240.84	-0.0325643
4250.9	-0.0336786
4260.04	-0.0345925
4270.09	-0.0354975
4280.15	-0.0363066
4290.2	-0.0370298
4300.25	-0.0376763
4310.31	-0.0382546
4320.36	-0.0387713
4330.41	-0.0392311
4340.47	-0.0396363
4350.52	-0.0399862
4360.58	-0.040277
4370.63	-0.0405018
4380.68	-0.0406507
4390.74	-0.040711
4400.79	-0.0406678
4410.84	-0.0405043
4420.9	-0.0402028
4430.04	-0.0397936
4440.09	-0.0391786
4450.15	-0.0383744
4460.2	-0.0373657
4470.25	-0.0361391
4480.31	-0.0346836
4490.36	-0.0329904
4500.41	-0.031053
4510.47	-0.0288674
4520.52	-0.0264313
4530.58	-0.0237441
4540.63	-0.0208063
4550.68	-0.0176191
4560.74	-0.0141838
4570.79	-0.0105013
4580.84	-0.00657137
4590.9	-0.00239268
4600.04	0.00162463
4610.09	0.00628839
4620.15	0.0112145
4630.2	0.01641
4640.25	0.0218821
4650.31	0.0276368
4660.36	0.033678
4670.41	0.0400053
4680.47	0.0466132
4690.52	0.0534896
4700.58	0.0606147
4710.63	0.067961
4720.68	0.075493
4730.74	0.0831682
4740.79	0.0909381
4750.84	0.0987501
4760.9	0.106549
4770.04	0.113581
4780.09	0.121204
4790.15	0.128659
4800.2	0.135902
4810.25	0.142893
4820.31	0.149601
4830.36	0.156001
4840.41	0.162074
4850.47	0.167807
4860.52	0.173195
4870.58	0.178235
4880.63	0.182926
4890.68	0.187273
4900.74	0.191276
4910.79	0.194939
4920.85	0.198261
4930.9	0.201243
4940.04	0.203653
4950.09	0.205967
4960.15	0.207917
4970.2	0.209488
4980.25	0.210664
4990.31	0.211425
5000.36	0.211748
5010.42	0.211612
5020.47	0.210994
5030.52	0.209874
5040.58	0.208234
5050.63	0.206059
5060.68	0.20334
5070.74	0.200072
5080.79	0.196259
5090.85	0.191908
5100.9	0.187032
5110.04	0.18216
5120.09	0.17634
5130.15	0.170061
5140.2	0.163354
5150.26	0.156249
5160.31	0.148775
5170.36	0.140963
5180.42	0.132842
5190.47	0.124439
5200.52	0.115779
5210.58	0.106888
5220.63	0.0977882
5230.69	0.0885045
5240.74	0.0790606
5250.79	0.0694815
5260.85	0.059794
5270.9	0.0500268
5280.04	0.0411043
5290.09	0.0312727
5300.15	0.0214576
5310.2	0.0116964
5320.26	0.00202816
5330.31	-0.00750656
5340.36	-0.0168662
5350.42	-0.0260084
5360.47	-0.0348907
5370.53	-0.0434706
5380.58	-0.051706
5390.63	-0.0595555
5400.69	-0.0669789
5410.74	-0.0739371
5420.79	-0.0803924
5430.85	-0.0863092
5440.9	-0.0916538
5450.04	-0.0959893
5460.1	-0.100156
5470.15	-0.103668
5480.2	-0.1065
5490.26	-0.108635
5500.31	-0.110058
5510.36	-0.11076
5520.42	-0.110734
5530.47	-0.109982
5540.53	-0.108512
5550.58	-0.106336
5560.63	-0.103474
5570.69	-0.0999515
5580.74	-0.0958014
5590.8	-0.0910616
5600.85	-0.085776
5610.9	-0.0799929
5620.04	-0.0743482
5630.1	-0.0677645
5640.15	-0.0608452
5650.2	-0.0536502
5660.26	-0.0462406
5670.31	-0.0386776
5680.37	-0.0310218
5690.42	-0.0233326
5700.47	-0.0156677
5710.53	-0.00808277
5720.58	-0.000630602
5730.63	0.00663877
5740.69	0.0136785
5750.74	0.0204449
5760.8	0.0268981
5770.85	0.0330015
5780.9	0.0387222
5790.04	0.0435661
5800.1	0.0484784
5810.15	0.0529338
5820.2	0.0569144
5830.26	0.0604065
5840.31	0.0634008
5850.37	0.0658923
5860.42	0.0678807
5870.47	0.0693707
5880.53	0.0703718
5890.58	0.0708985
5900.64	0.0709702
5910.69	0.070611
5920.74	0.0698495
5930.8	0.068718
5940.85	0.0672525
5950.9	0.0654913
5960.04	0.0636676
5970.1	0.0614545
5980.15	0.0590647
5990.21	0.0565386
6000.26	0.0539153
6010.31	0.0512313
6020.37	0.0485207
6030.42	0.0458138
6040.48	0.0431377
6050.53	0.0405155
6060.58	0.0379667
6070.64	0.0355071
6080.69	0.033149
6090.74	0.0309014
6100.8	0.0287706
6110.85	0.0267602
6120.91	0.0248719
6130.05	0.023261
6140.1	0.021604
6150.15	0.0200654
6160.21	0.0186423
6170.26	0.0173318
6180.31	0.016131
6190.37	0.0150379
6200.42	0.0140507
6210.48	0.0131689
6220.53	0.0123929
6230.58	0.0117239
6240.64	0.0111641
6250.69	0.0107166
6260.75	0.0103848
6270.8	0.0101726
6280.85	0.0100838
6290.91	0.010122
6300.05	0.0102695
6310.1	0.0105581
6320.15	0.0109804
6330.21	0.0115371
6340.26	0.0122276
6350.32	0.0130505
6360.37	0.0140034
6370.42	0.0150831
6380.48	0.0162857
6390.53	0.0176069
6400.59	0.0190421
6410.64	0.0205864
6420.69	0.0222351
6430.75	0.0239832
6440.8	0.0258257
6450.85	0.0277576
6460.91	0.0297737
6470.05	0.031675
6480.1	0.0338362
6490.16	0.0360644
6500.21	0.0383526
6510.26	0.0406932
6520.32	0.0430779
6530.37	0.0454979
6540.43	0.0479438
6550.48	0.0504056
6560.53	0.0528731
6570.59	0.055336
6580.64	0.0577841
6590.69	0.0602069
6600.75	0.0625947
6610.8	0.0649378
6620.86	0.0672271
6630.91	0.0694539
6640.05	0.071417
6650.1	0.073502
6660.16	0.0755018
6670.21	0.0774094
6680.27	0.079218
6690.32	0.0809211
6700.37	0.0825121
6710.43	0.0839846
6720.48	0.0853318
6730.53	0.0865468
6740.59	0.0876224
6750.64	0.0885511
6760.7	0.0893247
6770.75	0.089935
6780.8	0.0903732
6790.86	0.0906306
6800.91	0.0906982
6810.05	0.0905878
6820.1	0.0902696
6830.16	0.0897379
6840.21	0.088986
6850.27	0.0880083
6860.32	0.0868006
6870.37	0.08536
6880.43	0.0836852
6890.48	0.0817763
6900.54	0.0796348
6910.59	0.0772633
6920.64	0.0746657
6930.7	0.0718463
6940.75	0.06881
6950.8	0.065562
6960.86	0.0621074
6970.91	0.0584512
6980.05	0.0549565
6990.11	0.0509284
7000.16	0.0467117
7010.21	0.0423107
7020.27	0.0377299
7030.32	0.0329742
7040.37	0.0280493
7050.43	0.0229623
7060.48	0.0177218
7070.54	0.0123383
7080.59	0.0068247
7090.64	0.00119619
7100.7	-0.00452947
7110.75	-0.010332
7120.81	-0.0161888
7130.86	-0.0220752
7140.91	-0.0279647
7150.05	-0.0332984
7160.11	-0.0391169
7170.16	-0.0448572
7180.21	-0.0504918
7190.27	-0.0559944
7200.32	-0.0613406
7210.38	-0.0665087
7220.43	-0.0714796
7230.48	-0.0762377
7240.54	-0.0807708
7250.59	-0.0850703
7260.64	-0.0891313
7270.7	-0.0929519
7280.75	-0.0965338
7290.81	-0.0998809
7300.86	-0.103
7310.91	-0.105898
7320.05	-0.108349
7330.11	-0.110852
7340.16	-0.113163
7350.21	-0.11529
7360.27	-0.117243
7370.32	-0.119029
7380.37	-0.120655
7390.43	-0.122127
7400.48	-0.123449
7410.54	-0.124624
7420.59	-0.125656
7430.64	-0.126545
7440.7	-0.127296
7450.75	-0.127908
7460.8	-0.128386
7470.86	-0.128731
7480.91	-0.128948
7490.05	-0.129039
7500.1	-0.129025
7510.16	-0.1289
7520.21	-0.128671
7530.27	-0.128346
7540.32	-0.127935
7550.37	-0.127449
7560.43	-0.126897
7570.48	-0.126291
7580.53	-0.125642
7590.59	-0.124962
7600.64	-0.124262
7610.69	-0.123553
7620.75	-0.122846
7630.8	-0.122153
7640.85	-0.121482
7650.91	-0.120844
7660.05	-0.120298
7670.1	-0.119743
7680.16	-0.119241
7690.21	-0.118799
7700.26	-0.118421
7710.32	-0.11811
7720.37	-0.117869
7730.42	-0.117699
7740.48	-0.117601
7750.53	-0.117575
7760.58	-0.117622
7770.64	-0.117739
7780.69	-0.117925
7790.75	-0.118179
7800.8	-0.118498
7810.85	-0.118879
7820.91	-0.119321
7830.05	-0.119772
7840.1	-0.12032
7850.15	-0.120918
7860.21	-0.121562
7870.26	-0.122249
7880.31	-0.122974
7890.37	-0.123732
7900.42	-0.12452
7910.48	-0.125331
7920.53	-0.126163
7930.58	-0.127011
7940.64	-0.127871
7950.69	-0.12874
7960.74	-0.129615
7970.8	-0.130495
7980.85	-0.131377
7990.91	-0.132262
8000.04	-0.133069
8010.1	-0.133958
8020.15	-0.13485
8030.21	-0.135746
8040.26	-0.136645
8050.31	-0.137548
8060.37	-0.138454
8070.42	-0.139361
8080.47	-0.140266
8090.53	-0.141166
8100.58	-0.142056
8110.64	-0.142929
8120.69	-0.143777
8130.74	-0.144593
8140.8	-0.145365
8150.85	-0.146084
8160.9	-0.146739
8170.04	-0.147268
8180.1	-0.147766
8190.15	-0.148166
8200.21	-0.148456
8210.26	-0.148626
8220.31	-0.148666
8230.37	-0.148569
8240.42	-0.148326
8250.47	-0.147934
8260.53	-0.147388
8270.58	-0.146687
8280.64	-0.145833
8290.69	-0.144826
8300.74	-0.143673
8310.8	-0.142379
8320.85	-0.140952
8330.9	-0.139403
8340.04	-0.137898
8350.1	-0.136147
8360.15	-0.134308
8370.21	-0.132395
8380.26	-0.130422
8390.31	-0.128401
8400.37	-0.126345
8410.42	-0.124266
8420.47	-0.122175
8430.53	-0.12008
8440.58	-0.117991
8450.64	-0.115916
8460.69	-0.113858
8470.74	-0.111825
8480.8	-0.109819
8490.85	-0.107845
8500.9	-0.105903
8510.04	-0.104169
8520.1	-0.102297
8530.15	-0.100463
8540.21	-0.0986665
8550.26	-0.0969084
8560.31	-0.0951873
8570.37	-0.093501
8580.42	-0.0918462
8590.47	-0.0902179
8600.53	-0.0886096
8610.58	-0.0870127
8620.64	-0.0854169
8630.69	-0.0838098
8640.74	-0.0821774
8650.8	-0.0805039
8660.85	-0.0787724
8670.91	-0.0769651
8680.05	-0.0752409
8690.1	-0.0732384
8700.15	-0.0711081
8710.21	-0.0688336
8720.26	-0.0664007
8730.31	-0.0637969
8740.37	-0.0610127
8750.42	-0.0580412
8760.48	-0.054879
8770.53	-0.0515255
8780.58	-0.0479836
8790.64	-0.0442592
8800.69	-0.0403612
8810.74	-0.0363009
8820.8	-0.0320922
8830.85	-0.0277506
8840.91	-0.0232934
8850.05	-0.0191564
8860.1	-0.0145298
8870.15	-0.00984249
8880.21	-0.00511378
8890.26	-0.000362779
8900.32	0.00439197
8910.37	0.00913267
8920.42	0.0138425
8930.48	0.0185056
8940.53	0.0231074
8950.58	0.0276345
8960.64	0.0320747
8970.69	0.0364172
8980.75	0.0406523
8990.8	0.0447716
9000.85	0.048768
9010.91	0.0526353
9020.05	0.0560349
9030.1	0.0596431
9040.15	0.0631107
9050.21	0.0664357
9060.26	0.069617
9070.32	0.0726542
9080.37	0.0755477
9090.42	0.0782986
9100.48	0.0809085
9110.53	0.0833796
9120.58	0.0857146
9130.64	0.0879166
9140.69	0.0899888
9150.75	0.0919348
9160.8	0.0937583
9170.85	0.095463
9180.91	0.0970528
9190.05	0.0984014
9200.1	0.0997819
9210.15	0.101058
9220.21	0.102233
9230.26	0.103309
9240.32	0.104291
9250.37	0.10518
9260.42	0.105978
9270.48	0.106689
9280.53	0.107313
9290.58	0.107854
9300.64	0.108313
9310.69	0.108693
9320.75	0.108995
9330.8	0.109222
9340.85	0.109378
9350.91	0.109465
9360.05	0.109489
9370.1	0.109457
9380.16	0.10937
9390.21	0.109233
9400.26	0.10905
9410.32	0.108829
9420.37	0.108574
9430.42	0.108292
9440.48	0.107988
9450.53	0.107667
9460.59	0.107334
9470.64	0.106991
9480.69	0.106643
9490.75	0.10629
9500.8	0.105932
9510.85	0.105571
9520.91	0.105203
9530.05	0.104861
9540.1	0.104474
9550.16	0.104071
9560.21	0.103648
9570.26	0.103201
9580.32	0.102723
9590.37	0.10221
9600.43	0.101658
9610.48	0.101061
9620.53	0.100415
9630.59	0.0997162
9640.64	0.098961
9650.69	0.0981461
9660.75	0.0972686
9670.8	0.0963256
9680.86	0.0953146
9690.91	0.094233
9700.05	0.0931863
9710.1	0.0919627
9720.16	0.0906608
9730.21	0.0892778
9740.26	0.0878108
9750.32	0.086257
9760.37	0.0846135
9770.43	0.0828779
9780.48	0.0810477
9790.53	0.0791213
9800.59	0.0770974
9810.64	0.0749757
9820.7	0.0727568
9830.75	0.0704421
9840.8	0.0680345
9850.86	0.065538
9860.91	0.0629577
9870.05	0.060545
9880.1	0.0578245
9890.16	0.0550431
9900.21	0.0522113
9910.27	0.0493404
9920.32	0.0464428
9930.37	0.0435316
9940.43	0.0406208
9950.48	0.0377244
9960.54	0.0348568
9970.59	0.0320322
9980.64	0.0292643
9990.7	0.0265665
10000.8	0.0239509
10010.8	0.0214285
10020.9	0.019009
10030.9	0.0167003
10040.1	0.0147029
10050.1	0.0126213
10060.2	0.0106631
10070.2	0.00882879
10080.3	0.00711676
10090.3	0.00552363
10100.4	0.00404432
10110.4	0.00267225
10120.5	0.00139966
10130.5	0.000217891
10140.6	-0.000882253
10150.6	-0.00191015
10160.7	-0.00287497
10170.8	-0.00378535
10180.8	-0.00464901
10190.9	-0.00547246
10200.9	-0.00626075
10210.1	-0.00694974
10220.1	-0.00767872
10230.2	-0.00837722
10240.2	-0.00904314
10250.3	-0.00967256
10260.3	-0.0102598
10270.4	-0.0107977
10280.4	-0.0112777
10290.5	-0.0116903
10300.5	-0.0120254
10310.6	-0.0122724
10320.6	-0.0124209
10330.7	-0.0124607
10340.8	-0.0123826
10350.8	-0.0121783
10360.9	-0.0118409
10370.9	-0.0113653
10380.1	-0.0108102
10390.1	-0.0100634
10400.2	-0.00917483
10410.2	-0.00814757
10420.3	-0.00698708
10430.3	-0.00570113
10440.4	-0.00429968
10450.4	-0.00279481
10460.5	-0.00120054
10470.5	0.000467439
10480.6	0.00219194
10490.6	0.00395462
10500.7	0.00573628
10510.8	0.00751718
10520.8	0.00927741
10530.9	0.0109972
10540.9	0.0126574
10550.1	0.0140994
10560.1	0.0155957
10570.2	0.0169827
10580.2	0.0182462
10590.3	0.0193745
10600.3	0.0203579
10610.4	0.0211892
10620.4	0.0218639
10630.5	0.0223801
10640.5	0.022739
10650.6	0.0229441
10660.6	0.0230021
10670.7	0.0229221
10680.8	0.0227156
10690.8	0.0223966
10700.9	0.0219812
10710	0.0215346
10720.1	0.0209855
10730.1	0.0203951
10740.2	0.0197846
10750.2	0.0191751
10760.3	0.0185877
10770.3	0.0180432
10780.4	0.017561
10790.4	0.0171597
10800.5	0.0168556
10810.5	0.0166632
10820.6	0.0165945
10830.6	0.0166588
10840.7	0.0168628
10850.8	0.0172099
10860.8	0.0177006
10870.9	0.0183325
10880	0.019025
10890.1	0.0199092
10900.1	0.0209116
10910.2	0.0220196
10920.2	0.0232185
10930.3	0.0244924
10940.3	0.0258239
10950.4	0.0271948
10960.4	0.0285866
10970.5	0.0299808
10980.5	0.031359
10990.6	0.0327035
11000.6	0.0339976
11010.7	0.0352256
11020.8	0.0363733
11030.8	0.0374277
11040.9	0.0383776
11050	0.0391424
11060.1	0.0398676
11070.1	0.0404649
11080.2	0.0409295
11090.2	0.0412579
11100.3	0.0414482
11110.3	0.0414999
11120.4	0.0414134
11130.4	0.0411905
11140.5	0.0408339
11150.5	0.0403472
11160.6	0.0397347
11170.6	0.0390017
11180.7	0.0381538
11190.8	0.0371974
11200.8	0.0361394
11210.9	0.0349871
11220	0.0338642
11230.1	0.0325535
11240.1	0.0311717
11250.2	0.0297272
11260.2	0.0282284
11270.3	0.0266837
11280.3	0.0251014
11290.4	0.0234896
11300.4	0.021856
11310.5	0.020208
11320.5	0.0185522
11330.6	0.0168949
11340.6	0.0152417
11350.7	0.0135974
11360.8	0.0119663
11370.8	0.0103516
11380.9	0.00875621
11390	0.00732434
11400.1	0.00577103
11410.1	0.00424144
11420.2	0.00273615
11430.2	0.00125536
11440.3	-0.00020091
11450.3	-0.00163278
11460.4	-0.00304033
11470.4	-0.00442353
11480.5	-0.00578211
11490.5	-0.00711546
11500.6	-0.00842255
11510.6	-0.00970193
11520.7	-0.0109516
11530.8	-0.0121692
11540.8	-0.0133517
11550.9	-0.0144959
11560	-0.0154998
11570.1	-0.0165608
11580.1	-0.0175726
11590.2	-0.0185317
11600.2	-0.0194346
11610.3	-0.0202784
11620.3	-0.0210608
11630.4	-0.0217803
11640.4	-0.0224364
11650.5	-0.0230296
11660.5	-0.0235616
11670.6	-0.0240353
11680.6	-0.0244547
11690.7	-0.0248253
11700.8	-0.0251535
11710.8	-0.025447
11720.9	-0.0257142
11730	-0.0259423
11740.1	-0.0261859
11750.1	-0.0264319
11760.2	-0.026691
11770.2	-0.0269738
11780.3	-0.0272907
11790.3	-0.0276516
11800.4	-0.0280659
11810.4	-0.0285423
11820.5	-0.0290882
11830.5	-0.02971
11840.6	-0.0304128
11850.6	-0.0312001
11860.7	-0.0320738
11870.8	-0.0330342
11880.8	-0.0340799
11890.9	-0.0352076
11900	-0.0362998
11910.1	-0.0375688
11920.1	-0.0389003
11930.2	-0.0402844
11940.2	-0.0417097
11950.3	-0.0431633
11960.3	-0.0446312
11970.4	-0.0460984
11980.4	-0.0475489
11990.5	-0.0489665
12000.5	-0.0503344
12010.6	-0.0516358
12020.6	-0.052854
12030.7	-0.0539727
12040.8	-0.0549763
12050.8	-0.05585
12060.9	-0.0565799
12070	-0.0571081
12080.1	-0.0575296
12090.1	-0.0577744
12100.2	-0.0578344
12110.2	-0.0577028
12120.3	-0.057375
12130.3	-0.0568479
12140.4	-0.0561207
12150.4	-0.0551944
12160.5	-0.054072
12170.5	-0.0527585
12180.6	-0.0512609
12190.6	-0.0495882
12200.7	-0.0477512
12210.8	-0.0457625
12220.8	-0.0436364
12230.9	-0.0413887
12240.9	-0.0390364
12250.1	-0.0368224
12260.1	-0.0343216
12270.2	-0.0317709
12280.2	-0.0291901
12290.3	-0.0265988
12300.3	-0.0240161
12310.4	-0.0214605
12320.4	-0.0189493
12330.5	-0.0164982
12340.5	-0.0141213
12350.6	-0.0118309
12360.6	-0.00963668
12370.7	-0.00754632
12380.8	-0.00556488
12390.8	-0.00369496
12400.9	-0.00193673
12410.9	-0.000288043
12420.1	0.00111927
12430.1	0.0025723
12440.2	0.00393323
12450.2	0.00521094
12460.3	0.00641521
12470.3	0.00755632
12480.4	0.00864464
12490.4	0.00969022
12500.5	0.0107024
12510.5	0.0116896
12520.6	0.0126588
12530.6	0.0136153
12540.7	0.0145628
12550.8	0.0155031
12560.8	0.0164358
12570.9	0.0173587
12580	0.0181856
12590.1	0.0190765
12600.1	0.0199403
12610.2	0.0207681
12620.2	0.0215496
12630.3	0.0222733
12640.3	0.0229274
12650.4	0.0234995
12660.4	0.0239769
12670.5	0.0243473
12680.5	0.0245988
12690.6	0.0247201
12700.6	0.0247009
12710.7	0.0245321
12720.8	0.0242058
12730.8	0.0237155
12740.9	0.0230563
12750	0.0223077
12760.1	0.0213184
12770.1	0.0201551
12780.2	0.0188192
12790.2	0.0173137
12800.3	0.0156427
12810.3	0.0138121
12820.4	0.0118285
12830.4	0.00969998
12840.5	0.00743527
12850.5	0.00504403
12860.6	0.00253653
12870.6	-7.63952e-05
12880.7	-0.00278349
12890.8	-0.00557317
12900.8	-0.00843357
12910.9	-0.0113527
12920	-0.0140471
12930.1	-0.0170444
12940.1	-0.0200648
12950.2	-0.0230959
12960.2	-0.0261256
12970.3	-0.0291416
12980.3	-0.0321317
12990.4	-0.0350839
13000.4	-0.0379864
13010.5	-0.0408277
13020.5	-0.0435966
13030.6	-0.0462823
13040.6	-0.0488746
13050.7	-0.051364
13060.8	-0.0537415
13070.8	-0.0559991
13080.9	-0.0581298
13090	-0.0599516
13100.1	-0.0618241
13110.1	-0.0635551
13120.2	-0.065142
13130.2	-0.0665833
13140.3	-0.0678785
13150.3	-0.0690287
13160.4	-0.0700358
13170.4	-0.0709029
13180.5	-0.0716341
13190.5	-0.0722341
13200.6	-0.0727087
13210.6	-0.0730641
13220.7	-0.0733071
13230.8	-0.0734448
13240.8	-0.0734845
13250.9	-0.0734337
13260	-0.0733153
13270.1	-0.0731126
13280.1	-0.0728409
13290.2	-0.0725073
13300.2	-0.0721189
13310.3	-0.0716823
13320.3	-0.071204
13330.4	-0.0706903
13340.4	-0.0701473
13350.5	-0.0695811
13360.5	-0.0689978
13370.6	-0.0684034
13380.6	-0.067804
13390.7	-0.0672061
13400.8	-0.0666161
13410.8	-0.0660409
13420.9	-0.0654875
13430	-0.0650097
13440.1	-0.0645188
13450.1	-0.064072
13460.2	-0.0636773
13470.2	-0.0633428
13480.3	-0.0630766
13490.3	-0.0628868
13500.4	-0.0627811
13510.4	-0.0627669
13520.5	-0.0628508
13530.5	-0.063039
13540.6	-0.0633364
13550.7	-0.0637473
13560.7	-0.0642744
13570.8	-0.0649194
13580.8	-0.0656824
13590.9	-0.0665621
13600	-0.0674608
13610.1	-0.0685543
13620.1	-0.0697521
13630.2	-0.071047
13640.2	-0.0724306
13650.3	-0.073893
13660.3	-0.0754235
13670.4	-0.0770102
13680.4	-0.0786405
13690.5	-0.0803013
13700.5	-0.0819791
13710.6	-0.0836603
13720.7	-0.0853311
13730.7	-0.0869783
13740.8	-0.0885888
13750.8	-0.0901501
13760.9	-0.0916505
13770	-0.0929525
13780.1	-0.0943072
13790.1	-0.095572
13800.2	-0.096739
13810.2	-0.0978013
13820.3	-0.0987532
13830.3	-0.0995904
13840.4	-0.100309
13850.4	-0.100908
13860.5	-0.101385
13870.5	-0.10174
13880.6	-0.101974
13890.7	-0.10209
13900.7	-0.102088
13910.8	-0.101974
13920.8	-0.10175
13930.9	-0.101421
13940	-0.101035
13950.1	-0.10052
13960.1	-0.0999146
13970.2	-0.0992251
13980.2	-0.0984571
13990.3	-0.097616
14000.3	-0.0967074
14010.4	-0.0957367
14020.4	-0.0947089
14030.5	-0.0936291
14040.5	-0.0925017
14050.6	-0.091331
14060.7	-0.090121
14070.7	-0.0888753
14080.8	-0.0875972
14090.8	-0.0862897
14100.9	-0.0849556
14110	-0.0837217
14120.1	-0.0823434
14130.1	-0.080945
14140.2	-0.0795284
14150.2	-0.0780952
14160.3	-0.0766469
14170.3	-0.0751849
14180.4	-0.0737102
14190.4	-0.0722239
14200.5	-0.0707266
14210.5	-0.069219
14220.6	-0.0677012
14230.7	-0.0661734
14240.7	-0.0646353
14250.8	-0.0630863
14260.8	-0.0615256
14270.9	-0.059952
14280	-0.0585089
14290.1	-0.056906
14300.1	-0.0552848
14310.2	-0.0536427
14320.2	-0.0519769
14330.3	-0.0502846
14340.3	-0.0485624
14350.4	-0.0468072
14360.4	-0.0450156
14370.5	-0.0431844
14380.5	-0.0413103
14390.6	-0.0393904
14400.7	-0.0374222
14410.7	-0.0354032
14420.8	-0.0333318
14430.8	-0.0312065
14440.9	-0.0290269
14450	-0.0269981
14460.1	-0.0247151
14470.1	-0.0223795
14480.2	-0.0199937
14490.2	-0.0175603
14500.3	-0.0150833
14510.3	-0.012567
14520.4	-0.0100168
14530.4	-0.00743859
14540.5	-0.0048392
14550.6	-0.00222602
14560.6	0.000392919
14570.7	0.00300903
14580.7	0.00561322
14590.8	0.00819602
14600.8	0.0107476
14610.9	0.013258
14620	0.0154959
14630.1	0.0178995
14640.1	0.0202327
14650.2	0.0224857
14660.2	0.0246493
14670.3	0.0267147
14680.3	0.028674
14690.4	0.03052
14700.4	0.0322464
14710.5	0.033848
14720.6	0.035321
14730.6	0.0366626
14740.7	0.0378714
14750.7	0.0389472
14760.8	0.0398914
14770.8	0.0407063
14780.9	0.0413959
14790	0.0419181
14800.1	0.0423828
14810.1	0.0427392
14820.2	0.0429949
14830.2	0.043158
14840.3	0.043237
14850.3	0.0432409
14860.4	0.0431784
14870.4	0.0430584
14880.5	0.0428894
14890.6	0.0426794
14900.6	0.0424362
14910.7	0.0421665
14920.7	0.0418766
14930.8	0.0415719
14940.8	0.041257
14950.9	0.0409357
14960	0.0406406
14970.1	0.0403147
14980.1	0.0399889
14990.2	0.0396639
15000.2	0.0393402
15010.3	0.0390172
15020.3	0.0386943
15030.4	0.0383702
15040.4	0.0380435
15050.5	0.0377125
15060.6	0.0373754
15070.6	0.0370301
15080.7	0.0366745
15090.7	0.0363067
15100.8	0.0359245
15110.8	0.0355258
15120.9	0.0351086
15130	0.0347113
15140.1	0.0342528
15150.1	0.0337695
15160.2	0.0332593
15170.2	0.0327199
15180.3	0.0321492
15190.3	0.0315448
15200.4	0.0309045
15210.4	0.0302259
15220.5	0.0295068
15230.6	0.0287452
15240.6	0.0279393
15250.7	0.0270873
15260.7	0.0261881
15270.8	0.025241
15280.8	0.0242455
15290.9	0.0232021
15300	0.0222128
15310.1	0.0210813
15320.1	0.0199067
15330.2	0.0186924
15340.2	0.0174421
15350.3	0.0161607
15360.3	0.0148537
15370.4	0.0135271
15380.4	0.0121876
15390.5	0.0108427
15400.6	0.00950005
15410.6	0.00816763
15420.7	0.00685374
15430.7	0.00556675
15440.8	0.00431496
15450.8	0.00310654
15460.9	0.00194937
15470	0.000948169
15480.1	-9.08141e-05
15490.1	-0.00105828
15500.2	-0.00194849
15510.2	-0.00275647
15520.3	-0.00347808
15530.3	-0.00411002
15540.4	-0.0046499
15550.4	-0.00509626
15560.5	-0.00544849
15570.6	-0.00570693
15580.6	-0.00587273
15590.7	-0.00594786
15600.7	-0.00593505
15610.8	-0.00583775
15620.8	-0.00566003
15630.9	-0.00540653
15640	-0.00511464
15650.1	-0.00473114
15660.1	-0.004288
15670.2	-0.00379147
15680.2	-0.00324802
15690.3	-0.00266436
15700.3	-0.00204729
15710.4	-0.0014037
15720.5	-0.000740456
15730.5	-6.43851e-05
15740.6	0.000617832
15750.6	0.00129972
15760.7	0.00197508
15770.7	0.00263806
15780.8	0.00328324
15790.8	0.00390568
15800.9	0.00450098
15810	0.0050154
15820.1	0.00554888
15830.1	0.00604592
15840.2	0.00650464
15850.2	0.00692377
15860.3	0.00730271
15870.3	0.00764147
15880.4	0.00794061
15890.5	0.00820124
15900.5	0.00842489
15910.6	0.00861349
15920.6	0.00876929
15930.7	0.00889476
15940.7	0.00899253
15950.8	0.00906532
15960.8	0.00911589
15970.9	0.00914694
15980	0.00916041
15990.1	0.00916131
16000.1	0.00914989
16010.2	0.00912831
16020.2	0.00909854
16030.3	0.00906242
16040.3	0.00902163
16050.4	0.00897774
16060.5	0.00893226
16070.5	0.00888668
16080.6	0.00884251
16090.6	0.00880132
16100.7	0.00876479
16110.7	0.00873472
16120.8	0.00871306
16130.8	0.00870188
16140.9	0.00870342
16150	0.00871785
16160.1	0.0087503
16170.1	0.00880257
16180.2	0.00887724
16190.2	0.00897686
16200.3	0.00910397
16210.3	0.00926106
16220.4	0.00945051
16230.5	0.00967462
16240.5	0.00993553
16250.6	0.0102353
16260.6	0.0105756
16270.7	0.0109584
16280.7	0.0113849
16290.8	0.0118567
16300.8	0.0123748
16310.9	0.0129401
16320	0.0134957
16330.1	0.014153
16340.1	0.0148591
16350.2	0.015614
16360.2	0.0164174
16370.3	0.0172688
16380.3	0.0181674
16390.4	0.0191122
16400.5	0.0201017
16410.5	0.0211342
16420.6	0.0222078
16430.6	0.0233203
16440.7	0.0244691
16450.7	0.0256516
16460.8	0.0268646
16470.8	0.028105
16480.9	0.0293694
16490	0.0305366
16500.1	0.0318363
16510.1	0.0331487
16520.2	0.0344694
16530.2	0.0357938
16540.3	0.0371172
16550.3	0.0384345
16560.4	0.0397405
16570.5	0.0410299
16580.5	0.0422973
16590.6	0.0435372
16600.6	0.0447444
16610.7	0.0459135
16620.7	0.0470397
16630.8	0.0481183
16640.8	0.0491452
16650.9	0.0501165
16660	0.0509486
16670.1	0.0518055
16680.1	0.052599
16690.2	0.0533277
16700.2	0.0539907
16710.6	0.0546037
16720.6	0.0551323
16730.7	0.0555955
16740.7	0.0559941
16750.8	0.0563296
16760.9	0.0566038
16770.9	0.0568186
16780.1	0.0569642
16790.1	0.0570721
16800.2	0.0571277
16810.2	0.0571337
16820.3	0.057093
16830.3	0.0570084
16840.4	0.0568827
16850.2	0.0567236
16860.2	0.0565251
16870.3	0.056294
16880.3	0.0560328
16890.4	0.055744
16900.4	0.0554303
16910.5	0.0550942
16920.5	0.054738
16930.6	0.0543643
16940.6	0.0539757
16950.7	0.0535748
16960.8	0.0531646
16970.8	0.052748
16980.9	0.0523285
16990	0.0519475
17000.1	0.0515324
17010.6	0.0511042
17020.7	0.0507102
17030.7	0.0503332
17040.8	0.0499777
17050.1	0.0496726
17060.8	0.0493533
17070.8	0.0490896
17080	0.0488805
17090.2	0.0486912
