0	0
10.3071	0
20.614	0
30.9208	0
41.2276	0
51.5343	0
61.8411	0
72.1479	0
82.4549	0
92.5783	0
102.801	0
113.025	0
123.148	-9.09495e-13
133.271	-1.81899e-12
143.579	-2.72848e-12
153.887	-4.54747e-12
164.01	-7.27596e-12
174.318	-1.09139e-11
184.591	-1.54614e-11
194.864	-2.09184e-11
205.137	-2.72848e-11
215.411	-3.54703e-11
225.684	-4.54747e-11
235.957	-5.72982e-11
246.23	-7.09406e-11
256.503	-8.6402e-11
266.776	-1.04592e-10
277.049	-1.24601e-10
287.322	-1.47338e-10
297.45	-1.71894e-10
307.723	-1.9827e-10
317.799	-2.26464e-10
327.875	-2.56478e-10
337.951	-2.874e-10
348.028	-3.19233e-10
358.104	-3.51065e-10
368.18	-3.81988e-10
378.256	-4.12001e-10
388.161	-4.38376e-10
398.066	-4.61114e-10
407.971	-4.78394e-10
417.876	-4.88399e-10
427.781	-4.89308e-10
437.686	-4.78394e-10
447.608	-4.52019e-10
457.531	-4.07454e-10
467.453	-3.41061e-10
477.376	-2.48292e-10
487.292	-1.23691e-10
496.881	3.36513e-11
506.469	2.32831e-10
516.058	4.81123e-10
525.646	7.87622e-10
535.235	1.16052e-09
544.823	1.60981e-09
554.412	2.14823e-09
564.008	2.78942e-09
573.604	3.54248e-09
583.2	4.41651e-09
592.796	5.41695e-09
602.392	6.55018e-09
611.988	7.82074e-09
621.582	9.2341e-09
631.177	1.07957e-08
640.771	1.25101e-08
650.365	1.43855e-08
669.526	1.86365e-08
679.093	2.10166e-08
688.66	2.35659e-08
698.227	2.62798e-08
707.794	2.91539e-08
717.361	3.21797e-08
726.928	3.53511e-08
736.495	3.8659e-08
746.062	4.2096e-08
755.629	4.5653e-08
765.195	4.93237e-08
774.762	5.31008e-08
784.329	5.6978e-08
793.896	6.09507e-08
803.463	6.50152e-08
813.029	6.91698e-08
822.596	7.34153e-08
832.163	7.77545e-08
841.728	8.2191e-08
851.293	8.6734e-08
860.858	9.13942e-08
870.424	9.61863e-08
889.554	1.06246e-07
899.121	1.11565e-07
908.687	1.17117e-07
918.254	1.22944e-07
927.82	1.29087e-07
937.387	1.35601e-07
946.953	1.42543e-07
956.519	1.49981e-07
966.086	1.57989e-07
975.652	1.66651e-07
985.219	1.76059e-07
994.785	1.86314e-07
1004.35	1.97523e-07
1013.92	2.09807e-07
1023.48	2.2329e-07
1033.05	2.38108e-07
1042.62	2.54405e-07
1052.18	2.72334e-07
1061.75	2.92059e-07
1071.32	3.13756e-07
1080.88	3.37611e-07
1090.45	3.63825e-07
1100.01	3.92612e-07
1119.15	4.58827e-07
1128.71	4.96757e-07
1138.28	5.38261e-07
1147.85	5.8363e-07
1157.41	6.33173e-07
1166.98	6.87217e-07
1176.54	7.46109e-07
1186.11	8.10215e-07
1195.68	8.79924e-07
1205.24	9.55646e-07
1214.81	1.03781e-06
1224.37	1.12688e-06
1233.94	1.22334e-06
1243.51	1.32768e-06
1253.07	1.44045e-06
1262.64	1.56221e-06
1272.2	1.69356e-06
1281.77	1.8351e-06
1291.3	1.98687e-06
1300.82	2.15093e-06
1310.35	2.32827e-06
1329.4	2.72553e-06
1338.92	2.94642e-06
1348.45	3.18264e-06
1357.97	3.43451e-06
1367.5	3.70233e-06
1377.02	3.98636e-06
1386.55	4.28688e-06
1396.07	4.60421e-06
1405.48	4.93443e-06
1414.88	5.28171e-06
1424.29	5.64648e-06
1433.69	6.02919e-06
1443.09	6.43038e-06
1452.5	6.85065e-06
1461.9	7.29066e-06
1471.31	7.75118e-06
1480.71	8.23303e-06
1490.11	8.73714e-06
1508.92	9.81631e-06
1518.33	1.03937e-05
1527.73	1.0998e-05
1537.14	1.16306e-05
1546.54	1.22931e-05
1555.94	1.29871e-05
1565.35	1.37143e-05
1574.75	1.44766e-05
1584.15	1.52761e-05
1593.56	1.61146e-05
1602.96	1.69946e-05
1612.37	1.79182e-05
1621.77	1.88879e-05
1631.17	1.99063e-05
1640.58	2.0976e-05
1659.39	2.32807e-05
1668.79	2.45208e-05
1678.19	2.58225e-05
1687.6	2.71876e-05
1697	2.86179e-05
1706.4	3.01149e-05
1715.81	3.16803e-05
1725.21	3.33156e-05
1734.62	3.50222e-05
1744.01	3.68004e-05
1753.42	3.86544e-05
1762.82	4.05847e-05
1772.22	4.2593e-05
1781.63	4.46811e-05
1791.03	4.68511e-05
1800.43	4.91035e-05
1819.23	5.38729e-05
1828.64	5.63935e-05
1838.04	5.90085e-05
1847.45	6.1721e-05
1856.85	6.45342e-05
1866.25	6.74518e-05
1875.66	7.04777e-05
1885.06	7.36158e-05
1894.46	7.68705e-05
1903.87	8.02465e-05
1913.27	8.37484e-05
1922.67	8.73812e-05
1932.08	9.11504e-05
1941.48	9.50612e-05
1950.88	9.91194e-05
1960.29	0.000103331
1979.09	0.000112239
1988.5	0.00011695
1997.9	0.000115073
2007.3	0.000113538
2016.71	0.00011232
2026.11	0.000111397
2035.51	0.000110751
2044.92	0.000110365
2054.32	0.000110223
2063.72	0.000110312
2073.13	0.00011062
2082.53	0.000111136
2091.93	0.000111849
2101.34	0.000112752
2110.74	0.000113838
2120.14	0.0001151
2138.95	0.000118136
2148.35	0.000119903
2157.76	0.000121833
2167.16	0.000123925
2176.56	0.000126178
2185.96	0.000128594
2195.37	0.000131173
2204.77	0.000133917
2214.17	0.000136829
2223.58	0.000139912
2232.98	0.00014317
2242.38	0.000146607
2251.79	0.000150229
2261.19	0.000154041
2270.59	0.000158049
2289.4	0.00016668
2298.8	0.000171317
2308.21	0.000176177
2317.61	0.00018127
2327.01	0.000186604
2336.42	0.000192186
2345.82	0.000198027
2355.22	0.000204136
2364.63	0.000210522
2374.03	0.000217209
2383.43	0.00022417
2392.83	0.000231376
2402.16	0.000238772
2411.49	0.000246391
2420.82	0.000254225
2430.16	0.000262269
2448.82	0.000278981
2458.16	0.00028765
2467.49	0.000296534
2476.82	0.000305636
2486.15	0.000314965
2495.49	0.00032453
2504.82	0.00033434
2514.15	0.000344406
2523.48	0.000354742
2532.82	0.000365362
2542.15	0.000376281
2551.48	0.000387517
2560.81	0.000399087
2570.15	0.000411011
2588.81	0.000436009
2598.15	0.000449128
2607.48	0.000462691
2616.81	0.000476719
2626.14	0.000491234
2635.48	0.00050626
2644.81	0.000521817
2654.14	0.000537927
2663.47	0.000554611
2672.81	0.000571892
2682.14	0.000589793
2691.47	0.000608336
2700.8	0.000627548
2710.14	0.000647453
2728.8	0.000716983
2738.13	0.000766011
2747.47	0.000814889
2756.8	0.000863451
2766.13	0.000911619
2775.46	0.00095939
2784.8	0.0010068
2794.13	0.00105392
2803.46	0.00110085
2812.79	0.0011477
2822.13	0.00119461
2831.46	0.00124174
2840.79	0.00128925
2850.12	0.0013373
2868.79	0.00143574
2878.12	0.00148649
2887.45	0.00153851
2896.78	0.00159199
2906.12	0.0016471
2915.45	0.00170404
2924.78	0.00176297
2934.11	0.00182409
2943.44	0.00188699
2952.78	0.00195139
2962.11	0.00201715
2971.44	0.0020842
2980.77	0.00215253
2990.11	0.00222221
3008.77	0.00236607
3018.1	0.00244063
3027.43	0.00251727
3036.77	0.00259628
3046.1	0.00267801
3055.43	0.00276279
3064.76	0.00285095
3074.09	0.00294281
3083.43	0.00303866
3092.76	0.00313879
3102.09	0.00324351
3111.42	0.0034873
3120.75	0.00372239
3130.09	0.00394673
3148.75	0.00436643
3158.08	0.00456682
3167.41	0.00476527
3176.75	0.00496518
3186.08	0.00516986
3195.41	0.00538247
3204.74	0.00560604
3214.07	0.00584359
3223.41	0.00609006
3232.74	0.00634413
3242.07	0.00660602
3251.4	0.00687717
3260.73	0.00716023
3270.07	0.0074591
3288.73	0.0084718
3298.06	0.00915719
3307.39	0.0097999
3316.73	0.0104208
3326.06	0.0110588
3335.39	0.0117495
3344.72	0.0125189
3354.05	0.0133842
3363.39	0.0143129
3372.72	0.0152736
3382.05	0.0173691
3391.38	0.0191327
3400.72	0.0208483
3410.05	0.0227137
3428.71	0.0270408
3438.04	0.0294496
3447.38	0.0321718
3456.71	0.0351632
3466.04	0.0381866
3475.37	0.0411309
3484.71	0.0439812
3494.04	0.046724
3503.37	0.0494259
3512.7	0.0521574
3522.03	0.0549639
3531.37	0.0578597
3540.7	0.0608402
3550.03	0.0638962
3568.7	0.0702221
3578.03	0.0735057
3587.36	0.0768834
3596.69	0.0803629
3606.03	0.0839439
3615.36	0.0876185
3624.69	0.0913725
3634.02	0.0951909
3643.36	0.0990613
3652.69	0.102977
3662.02	0.106939
3671.36	0.11095
3680.69	0.11502
3690.02	0.119156
3708.69	0.127667
3718.02	0.132059
3727.35	0.136553
3736.69	0.141155
3746.02	0.145873
3755.35	0.150707
3764.71	0.15567
3774.06	0.16075
3783.42	0.165944
3792.77	0.17125
3802.13	0.176666
3811.49	0.182193
3820.84	0.187833
3830.2	0.193591
3848.91	0.205489
3858.26	0.211645
3867.62	0.217952
3876.98	0.224422
3886.33	0.231065
3895.69	0.237893
3905.04	0.244918
3914.4	0.25215
3923.76	0.259598
3933.11	0.26727
3942.47	0.275174
3951.82	0.283313
3961.18	0.291693
3970.54	0.300317
3989.25	0.318304
3998.6	0.327671
4007.96	0.337287
4017.32	0.347151
4026.67	0.357264
4036.03	0.367623
4045.38	0.378225
4054.74	0.389066
4064.1	0.400137
4073.45	0.411431
4082.81	0.422937
4092.17	0.434639
4101.52	0.446523
4110.88	0.458568
4120.41	0.470979
4139.47	0.496128
4149	0.508805
4158.53	0.521505
4168.06	0.53419
4177.59	0.546826
4187.13	0.559367
4196.66	0.571767
4206.19	0.583982
4215.73	0.595961
4225.26	0.607656
4234.8	0.619014
4244.33	0.629979
4253.86	0.640497
4263.4	0.650509
4272.93	0.659955
4282.46	0.668776
4292	0.67691
4301.56	0.684319
4311.13	0.690911
4320.7	0.69662
4330.27	0.701386
4349.4	0.707837
4358.97	0.709403
4368.53	0.709786
4378.1	0.708933
4387.67	0.706792
4397.23	0.703315
4406.8	0.698458
4416.37	0.692182
4425.93	0.684449
4435.5	0.675229
4445.07	0.664498
4454.63	0.652232
4464.2	0.638416
4473.76	0.623038
4483.33	0.606094
4492.89	0.587586
4502.46	0.567519
4512.02	0.545907
4521.59	0.522769
4531.15	0.498128
4540.72	0.472014
4550.29	0.444471
4569.42	0.385256
4578.99	0.353691
4588.55	0.320945
4598.12	0.286966
4607.69	0.251703
4617.25	0.215248
4626.82	0.178176
4636.39	0.140708
4645.95	0.103345
4655.52	0.0586363
4665.09	0.0194402
4674.65	-0.0173956
4684.22	-0.0479989
4693.79	-0.0859825
4703.35	-0.11302
4712.92	-0.13724
4722.49	-0.153985
4732.06	-0.167931
4741.62	-0.182442
4751.19	-0.197018
4760.76	-0.211453
4770.32	-0.201777
4789.46	-0.222561
4799.02	-0.231318
4808.59	-0.242731
4818.16	-0.252261
4827.72	-0.260939
4837.29	-0.268609
4846.86	-0.275418
4856.42	-0.281579
4865.99	-0.2873
4875.56	-0.292763
4885.12	-0.297977
4894.69	-0.302686
4904.26	-0.307137
4913.82	-0.311336
4923.39	-0.315305
4932.96	-0.31906
4942.52	-0.322603
4952.09	-0.325931
4961.66	-0.329046
4971.22	-0.331953
4980.79	-0.31871
4990.36	-0.321502
5009.41	-0.327338
5018.93	-0.329975
5028.46	-0.333063
5037.99	-0.335688
5047.51	-0.337917
5057.04	-0.339803
5066.56	-0.341394
5076.09	-0.342728
5085.61	-0.34384
5095.14	-0.34475
5104.66	-0.345486
5114.19	-0.346074
5123.71	-0.346536
5133.24	-0.346889
5142.76	-0.34715
5152.29	-0.347332
5161.69	-0.347442
5171.1	-0.347496
5180.5	-0.3474
5199.31	-0.347196
5208.71	-0.347102
5218.12	-0.346879
5227.52	-0.346631
5236.93	-0.346354
5246.33	-0.346048
5255.73	-0.345712
5265.14	-0.345343
5274.54	-0.344941
5283.95	-0.344504
5293.35	-0.344032
5302.75	-0.343524
5312.16	-0.342981
5321.56	-0.342403
5330.97	-0.341791
5340.37	-0.341146
5359.18	-0.339757
5368.58	-0.336475
5377.99	-0.332757
5387.39	-0.332491
5396.8	-0.332192
5406.2	-0.331861
5415.6	-0.331498
5425.01	-0.331104
5434.41	-0.330677
5443.82	-0.33021
5453.22	-0.329706
5462.62	-0.329165
5472.02	-0.32859
5481.42	-0.327981
5490.83	-0.327341
5500.23	-0.32667
5519.03	-0.325245
5528.44	-0.324492
5537.84	-0.323713
5547.25	-0.32291
5556.65	-0.322083
5566.05	-0.321234
5575.45	-0.320362
5584.85	-0.319467
5594.26	-0.318549
5603.66	-0.317607
5613.07	-0.316641
5622.47	-0.315654
5631.87	-0.314648
5641.28	-0.313624
5650.68	-0.312585
5660.09	-0.31153
5678.89	-0.309376
5688.3	-0.308277
5697.7	-0.307163
5707.11	-0.306033
5716.51	-0.304887
5725.91	-0.303724
5735.32	-0.302543
5744.72	-0.301397
5754.13	-0.300221
5763.53	-0.299022
5772.93	-0.297797
5782.34	-0.296547
5791.74	-0.29527
5801.15	-0.293965
5810.55	-0.29256
5829.36	-0.28966
5838.76	-0.288165
5848.17	-0.286641
5857.57	-0.285088
5866.98	-0.283506
5876.38	-0.281896
5885.78	-0.280258
5895.19	-0.278593
5904.59	-0.2769
5914	-0.275181
5923.4	-0.273435
5932.8	-0.271664
5942.21	-0.269867
5951.61	-0.268045
5961.02	-0.266199
5970.42	-0.26433
5989.23	-0.260522
5998.63	-0.25905
6008.04	-0.257505
6017.44	-0.255903
6026.84	-0.254255
6036.25	-0.25257
6045.65	-0.250855
6055.06	-0.249112
6064.46	-0.247346
6073.86	-0.245558
6083.27	-0.243747
6092.67	-0.241916
6102.08	-0.240063
6111.48	-0.238187
6120.88	-0.236276
6130.29	-0.234334
6149.1	-0.230353
6158.5	-0.228316
6167.9	-0.22625
6177.31	-0.224153
6186.71	-0.222026
6196.12	-0.21987
6205.52	-0.217684
6214.92	-0.215468
6224.33	-0.213223
6233.72	-0.210952
6243.13	-0.208654
6252.53	-0.206342
6261.92	-0.204025
6271.26	-0.20172
6280.59	-0.199415
6299.25	-0.19481
6308.59	-0.19251
6317.92	-0.19021
6327.25	-0.187907
6336.59	-0.185599
6345.92	-0.183282
6355.25	-0.180954
6364.58	-0.178609
6373.92	-0.176244
6383.25	-0.173857
6392.58	-0.171445
6401.91	-0.169005
6411.25	-0.164189
6420.58	-0.159575
6439.25	-0.151025
6448.58	-0.147053
6457.91	-0.14324
6467.24	-0.139549
6476.58	-0.135941
6485.91	-0.132381
6495.24	-0.128834
6504.57	-0.125273
6513.91	-0.121674
6523.24	-0.118016
6532.57	-0.114281
6541.91	-0.110491
6551.24	-0.106684
6560.57	-0.102875
6579.24	-0.0952315
6588.57	-0.0913663
6597.9	-0.0874399
6607.23	-0.0834273
6616.57	-0.0759145
6625.9	-0.0687299
6635.23	-0.0617529
6644.56	-0.0551432
6653.9	-0.0486695
6663.23	-0.0421864
6672.56	-0.0355837
6681.9	-0.0288025
6691.23	-0.0218307
6700.56	-0.0148843
6719.23	0.00382701
6728.56	0.0136925
6737.89	0.0229749
6747.22	0.0316133
6756.56	0.0400455
6765.89	0.0483318
6775.22	0.0563458
6784.55	0.0650017
6793.89	0.0738752
6803.22	0.0818218
6812.55	0.0883351
6821.89	0.0934184
6831.22	0.0973351
6840.55	0.10016
6859.22	0.103932
6868.55	0.105423
6877.88	0.106787
6887.21	0.108023
6896.55	0.109124
6905.88	0.110106
6915.21	0.111002
6924.54	0.111877
6933.88	0.11279
6943.21	0.113785
6952.54	0.114877
6961.88	0.116039
6971.21	0.117207
6980.54	0.118304
6999.21	0.11999
7008.54	0.12048
7017.87	0.120714
7027.2	0.120712
7036.54	0.120515
7045.87	0.120183
7055.2	0.119777
7064.53	0.119359
7073.87	0.118983
7083.2	0.118693
7092.53	0.118518
7101.87	0.118466
7111.2	0.118525
7120.53	0.118662
7139.2	0.118979
7148.53	0.119051
7157.86	0.119004
7167.19	0.118805
7176.53	0.118439
7185.86	0.117902
7195.19	0.117206
7204.52	0.11637
7213.86	0.115421
7223.19	0.11439
7232.52	0.11331
7241.86	0.112214
7251.19	0.111132
7260.52	0.110095
7279.19	0.108253
7288.52	0.107484
7297.85	0.106833
7307.18	0.106304
7316.52	0.105897
7325.85	0.105607
7335.18	0.105427
7344.52	0.105347
7353.85	0.105356
7363.18	0.105444
7372.51	0.105601
7381.85	0.105819
7391.18	0.106091
7400.51	0.106412
7419.18	0.107189
7428.51	0.107638
7437.84	0.108125
7447.2	0.108647
7456.56	0.109198
7465.91	0.10977
7475.27	0.110355
7484.62	0.110944
7493.98	0.111526
7503.34	0.112088
7512.69	0.112618
7522.05	0.113105
7531.4	0.113539
7540.76	0.11391
7550.12	0.11421
7568.83	0.114582
7578.19	0.114652
7587.54	0.114646
7596.9	0.114568
7606.25	0.114425
7615.61	0.114224
7624.97	0.113972
7634.32	0.113677
7643.68	0.113347
7653.03	0.11299
7662.39	0.112613
7671.75	0.112221
7681.1	0.111821
7690.46	0.111418
7709.17	0.110622
7718.53	0.110237
7727.88	0.109867
7737.24	0.109514
7746.6	0.109182
7755.95	0.108873
7765.31	0.108588
7774.66	0.108328
7784.02	0.108091
7793.38	0.107876
7802.73	0.107678
7812.09	0.107492
7821.44	0.107311
7830.8	0.107127
7840.16	0.10693
7858.87	0.106462
7868.23	0.106169
7877.58	0.105825
7886.94	0.105422
7896.29	0.10495
7905.65	0.104406
7915.01	0.103784
7924.36	0.103081
7933.72	0.102296
7943.08	0.101429
7952.43	0.100483
7961.79	0.0994589
7971.14	0.0983613
7980.5	0.0971945
7999.21	0.0946729
8008.57	0.0933283
8017.92	0.0919348
8027.28	0.0904971
8036.64	0.0890201
8045.99	0.0875081
8055.35	0.0859651
8064.71	0.084395
8074.06	0.0828013
8083.42	0.0811871
8092.77	0.0795553
8102.13	0.0779084
8111.49	0.0762485
8120.84	0.0745771
8130.2	0.0728952
8148.91	0.0694998
8158.27	0.0677843
8167.62	0.0660538
8176.98	0.0643048
8186.34	0.0625324
8195.69	0.0607308
8205.05	0.0588932
8214.4	0.0570118
8223.76	0.0550778
8233.12	0.0530821
8242.47	0.0510149
8251.83	0.0488659
8261.19	0.0466246
8270.54	0.0442789
8289.25	0.0392097
8298.61	0.036458
8307.97	0.0335093
8317.32	0.0303365
8326.68	0.026962
8336.04	0.0234015
8345.39	0.019638
8354.75	0.015367
8364.1	0.0105533
8373.46	0.00563646
8382.82	0.00182677
8392.17	-0.00305182
8401.53	-0.00675235
8410.88	-0.00984089
8420.24	-0.0127147
8438.95	-0.0158597
8448.31	-0.0177754
8457.67	-0.019066
8467.02	-0.0209946
8476.38	-0.0233282
8485.73	-0.0252904
8495.09	-0.0270849
8504.45	-0.0287409
8513.8	-0.0303064
8523.16	-0.0320007
8532.52	-0.0336193
8541.87	-0.035336
8551.23	-0.0368316
8560.58	-0.0381656
8579.3	-0.0404958
8588.65	-0.0415331
8598.01	-0.0425024
8607.36	-0.0407932
8616.72	-0.0415338
8626.08	-0.0422387
8635.43	-0.0420467
8644.79	-0.0428873
8654.15	-0.043802
8663.5	-0.0446312
8672.86	-0.0453901
8682.21	-0.0460917
8691.57	-0.0467424
8700.93	-0.0473473
8710.28	-0.0479141
8729	-0.0489674
8738.35	-0.0494678
8747.71	-0.0499567
8757.06	-0.0504368
8766.42	-0.0509103
8775.78	-0.0513783
8785.13	-0.0518414
8794.49	-0.0522022
8803.85	-0.052586
8813.2	-0.0529858
8822.56	-0.0535586
8831.91	-0.0540988
8841.27	-0.0546098
8850.63	-0.0550942
8869.34	-0.055991
8878.69	-0.0564061
8888.05	-0.0568005
8897.41	-0.057175
8906.76	-0.0575307
8916.12	-0.0578684
8925.48	-0.0581891
8934.83	-0.0584936
8944.19	-0.0587827
8953.54	-0.0590574
8962.9	-0.0555332
8972.26	-0.053301
8981.61	-0.0536394
8990.97	-0.0539181
9000.33	-0.054185
9019.04	-0.0546841
9028.39	-0.0549153
9037.75	-0.055128
9047.11	-0.0553234
9056.46	-0.0555028
9065.82	-0.0556673
9075.18	-0.055818
9084.53	-0.0559559
9093.89	-0.056082
9103.24	-0.0561973
9112.6	-0.0563028
9121.96	-0.0563997
9131.31	-0.0564887
9140.67	-0.0565709
9150.02	-0.0566469
9168.74	-0.0567826
9178.09	-0.0568425
9187.45	-0.0568969
9196.81	-0.056946
9206.16	-0.0569899
9215.52	-0.0570286
9224.87	-0.0570619
9234.23	-0.0570898
9243.59	-0.0571122
9252.94	-0.0571289
9262.3	-0.0571405
9271.66	-0.057147
9281.01	-0.0571623
9290.37	-0.0571677
9309.08	-0.0571498
9318.44	-0.057127
9327.79	-0.0570914
9337.15	-0.0570439
9346.51	-0.0569854
9355.84	-0.0569167
9365.17	-0.0568386
9374.5	-0.0567514
9383.84	-0.0567486
9393.17	-0.056732
9402.5	-0.0567022
9411.83	-0.0566602
9421.17	-0.0566065
9430.5	-0.0565419
9449.17	-0.0563819
9458.5	-0.0562875
9467.83	-0.0561843
9477.16	-0.0560725
9486.5	-0.0559525
9495.83	-0.0558248
9505.16	-0.0556897
9514.5	-0.0555474
9523.83	-0.0553982
9533.16	-0.0552424
9542.49	-0.0550802
9551.83	-0.0549119
9561.16	-0.0547376
9570.49	-0.0545575
9589.16	-0.0541808
9598.49	-0.0539845
9607.82	-0.053783
9617.16	-0.0535766
9626.49	-0.0533654
9635.82	-0.0531497
9645.15	-0.0530961
9654.49	-0.0528984
9663.82	-0.0527009
9673.15	-0.0525033
9682.49	-0.0523052
9691.82	-0.0521064
9701.15	-0.0519067
9710.48	-0.0517057
9729.15	-0.051299
9738.48	-0.0510929
9747.81	-0.0508821
9757.15	-0.0506668
9766.48	-0.050447
9775.81	-0.0502229
9785.15	-0.0499945
9794.48	-0.0497619
9803.81	-0.049525
9813.14	-0.049284
9822.48	-0.0490388
9831.81	-0.0487894
9841.14	-0.0485359
9850.47	-0.0482774
9869.14	-0.0476677
9878.47	-0.0473203
9887.81	-0.0469719
9897.14	-0.0466223
9906.47	-0.0462712
9915.8	-0.0459186
9925.14	-0.0455642
9934.47	-0.0452081
9943.8	-0.0448501
9953.14	-0.04449
9962.47	-0.0441278
9971.8	-0.0437635
9981.13	-0.0433969
9990.47	-0.0430281
10009.1	-0.0422832
10018.5	-0.0419071
10027.8	-0.0415285
10037.1	-0.0411473
10046.5	-0.0407635
10055.8	-0.040377
10065.1	-0.0399878
10074.5	-0.039596
10083.8	-0.0392014
10093.1	-0.0388042
10102.5	-0.0384043
10111.8	-0.0380018
10121.1	-0.0375966
10130.5	-0.0371888
10149.1	-0.0363655
10158.5	-0.03595
10167.8	-0.035532
10177.1	-0.0351115
10186.5	-0.0346886
10195.8	-0.0342632
10205.1	-0.0338354
10214.5	-0.0334053
10223.8	-0.0329729
10233.1	-0.0325383
10242.5	-0.0321046
10251.8	-0.0316715
10261.1	-0.0312389
10270.4	-0.0308063
10289.1	-0.0299408
10298.4	-0.0295075
10307.8	-0.0290736
10317.1	-0.0286389
10326.4	-0.0282035
10335.8	-0.027767
10345.1	-0.0273295
10354.4	-0.0268911
10363.8	-0.0264517
10373.1	-0.0260115
10382.4	-0.0255705
10391.8	-0.0251288
10401.1	-0.0246865
10410.4	-0.0242437
10429.1	-0.0233567
10438.4	-0.0229126
10447.8	-0.0224682
10457.1	-0.0220236
10466.4	-0.0215819
10475.8	-0.0211428
10485.1	-0.0206217
10494.4	-0.0201091
10503.8	-0.0196044
10513.1	-0.0191071
10522.4	-0.0186169
10531.8	-0.0181333
10541.1	-0.0176559
10550.4	-0.0171843
10569.1	-0.0162576
10578.4	-0.0158018
10587.8	-0.0153507
10597.1	-0.0149038
10606.4	-0.0144609
10615.8	-0.0140217
10625.1	-0.0135858
10634.4	-0.013153
10643.8	-0.0127231
10653.1	-0.0122958
10662.4	-0.0118713
10671.8	-0.0114494
10681.1	-0.0110302
10690.4	-0.0106135
10709.1	-0.00978778
10718.4	-0.00931787
10727.8	-0.00887325
10737.1	-0.00845046
10746.4	-0.00804645
10755.8	-0.00765855
10765.1	-0.0072844
10774.4	-0.0069219
10783.8	-0.00656925
10793.1	-0.00622483
10802.4	-0.00588724
10811.7	-0.00555526
10821.1	-0.00522779
10830.4	-0.00490392
10849.1	-0.00426384
10858.4	-0.00394634
10867.7	-0.00362983
10877.1	-0.00331389
10886.4	-0.00299794
10895.7	-0.00268779
10905.1	-0.00238254
10914.4	-0.00208128
10923.7	-0.00178315
10933.1	-0.00148732
10942.4	-0.00119303
10951.7	-0.000899579
10961.1	-0.000606739
10970.4	-0.000314254
10989.1	0.000246249
10998.4	0.000518261
11007.7	0.000787029
11017.1	0.00105398
11026.4	0.00132102
11035.8	0.00158838
11045.1	0.00185707
11054.5	0.00212797
11063.9	0.00240173
11073.2	0.00267886
11082.6	0.00295974
11091.9	0.00324467
11101.3	0.00353377
11110.6	0.00382707
11129.3	0.00449352
11138.9	0.00490922
11148.4	0.00535123
11157.9	0.0058092
11167.5	0.00627559
11177	0.0067502
11186.5	0.00722918
11196.1	0.00770939
11205.6	0.00818886
11215.1	0.00866618
11224.7	0.0091404
11234.2	0.00961094
11243.7	0.0100775
11253.3	0.0105397
11262.8	0.0109972
11272.3	0.0114496
11281.9	0.0118968
11291.4	0.0123384
11300.9	0.0134683
11310.5	0.0146064
11320	0.0156759
11339.1	0.0175327
11348.7	0.0183125
11358.2	0.0194032
11367.8	0.0200553
11377.3	0.0207964
11386.9	0.0215246
11396.4	0.0222706
11406	0.0230197
11415.5	0.0237688
11425	0.0245315
11434.6	0.0251923
11444.1	0.0258392
11453.7	0.0265294
11463.2	0.0272917
11472.8	0.0281012
11482.3	0.0289314
11491.9	0.0297691
11501.4	0.0306153
11511	0.031478
11520.5	0.0323629
11530.1	0.0332671
11549.1	0.0350963
11558.7	0.0360209
11568.2	0.0369525
11577.8	0.037888
11587.3	0.0388222
11596.9	0.0397498
11606.4	0.0406674
11616	0.0415733
11625.5	0.0424662
11635.1	0.0433449
11644.6	0.0442072
11654.1	0.0450506
11663.7	0.0458726
11673.2	0.0466719
11682.8	0.0474482
11692.3	0.0482024
11701.9	0.0489357
11711.4	0.0496498
11721.2	0.0503663
11731	0.0510664
11740.9	0.051752
11750.7	0.0524237
11760.5	0.0530829
11770.3	0.0537262
11780.2	0.0543505
11790	0.0549519
11809.7	0.0560656
11819.5	0.0565678
11829.4	0.0570279
11839.2	0.0574426
11849	0.0578101
11858.9	0.05813
11868.7	0.0584032
11878.6	0.058632
11888.4	0.0588196
11898.2	0.0589701
11908.1	0.0590875
11917.9	0.0591762
11927.7	0.0592399
11937.6	0.0592817
11947.4	0.0593041
11957.2	0.0593087
11967.1	0.0592969
11976.9	0.0592693
11986.8	0.0592265
11996.6	0.0591693
