0	0
11.4355	0
20.0121	0
31.4474	0
40.0239	0
51.4591	0
60.0354	0
71.4705	0
80.0467	0
91.4817	0
100.058	0
111.493	0
120.069	0
131.504	0
140.08	0
151.515	0
160.072	0
171.44	0
182.786	0
191.194	0
202.404	0
210.812	0
222.023	0
230.431	0
241.641	0
250.049	0
261.259	0
272.44	0
280.825	9.09495e-13
292.006	4.54747e-12
300.391	7.27596e-12
311.572	1.09139e-11
322.752	1.54614e-11
331.137	2.09184e-11
342.318	2.91038e-11
350.703	3.72893e-11
361.883	5.09317e-11
370.269	6.36646e-11
381.449	8.54925e-11
392.582	1.12777e-10
400.896	1.38243e-10
411.982	1.7917e-10
420.297	2.17369e-10
431.396	2.77396e-10
442.499	3.51974e-10
450.761	4.17458e-10
461.606	5.18412e-10
472.42	6.38465e-10
480.531	7.43057e-10
491.345	9.04947e-10
502.159	1.09412e-09
510.27	1.25692e-09
520.984	1.50158e-09
531.656	1.78352e-09
542.327	2.10639e-09
550.313	2.37833e-09
560.96	2.78578e-09
571.6	3.24781e-09
582.222	3.76986e-09
590.188	4.20459e-09
600.81	4.84761e-09
611.432	5.56975e-09
622.054	6.3792e-09
630.02	7.04858e-09
640.642	8.03084e-09
651.263	9.12678e-09
661.885	1.03473e-08
672.507	1.17016e-08
680.473	1.28093e-08
691.094	1.44146e-08
701.716	1.61699e-08
712.337	1.80789e-08
720.297	1.96114e-08
730.894	2.17888e-08
741.491	2.41262e-08
752.088	2.66282e-08
760.036	2.86145e-08
770.632	3.1413e-08
781.229	3.43853e-08
791.826	3.75321e-08
802.423	4.08472e-08
810.37	4.34393e-08
820.967	4.70272e-08
831.563	5.07571e-08
842.16	5.46152e-08
850.108	5.75847e-08
860.704	6.16337e-08
871.301	6.57728e-08
881.897	6.99874e-08
892.494	7.42657e-08
900.441	7.75071e-08
911.038	8.18645e-08
921.634	8.62528e-08
932.231	9.0663e-08
940.178	9.39808e-08
950.775	9.84164e-08
961.371	1.02862e-07
971.968	1.07318e-07
982.564	1.11789e-07
990.511	1.15157e-07
1001.11	1.19675e-07
1011.7	1.24242e-07
1022.3	1.28877e-07
1030.25	1.32414e-07
1040.84	1.37237e-07
1051.44	1.42216e-07
1062.04	1.47395e-07
1072.63	1.52827e-07
1080.58	1.57102e-07
1091.18	1.63125e-07
1101.77	1.69589e-07
1112.37	1.76579e-07
1120.32	1.82226e-07
1130.91	1.90381e-07
1141.51	1.99359e-07
1152.1	2.09287e-07
1160.05	2.17444e-07
1170.65	2.29387e-07
1181.24	2.427e-07
1191.84	2.57563e-07
1202.44	2.74162e-07
1210.38	2.87876e-07
1220.98	3.08021e-07
1231.58	3.30503e-07
1242.17	3.5557e-07
1250.12	3.76224e-07
1260.72	4.06459e-07
1271.31	4.40045e-07
1281.91	4.77296e-07
1292.5	5.18547e-07
1300.45	5.52321e-07
1311.05	6.01434e-07
1321.59	6.55277e-07
1332.13	7.14504e-07
1340.03	7.62719e-07
1350.57	8.32428e-07
1361.11	9.08777e-07
1371.65	9.92273e-07
1382.19	1.08345e-06
1390.1	1.15748e-06
1400.64	1.26441e-06
1411.18	1.38113e-06
1421.72	1.50796e-06
1432.24	1.64496e-06
1440.13	1.75445e-06
1450.64	1.90976e-06
1461.13	2.07561e-06
1471.65	2.2527e-06
1482.16	2.441e-06
1490.03	2.58943e-06
1500.54	2.79796e-06
1511.05	3.0185e-06
1521.56	3.25144e-06
1532.07	3.49724e-06
1542.58	3.75645e-06
1550.47	3.96e-06
1560.98	4.24417e-06
1571.49	4.54346e-06
1581.82	4.85363e-06
1592.16	5.18029e-06
1602.49	5.52444e-06
1610.25	5.79467e-06
1620.58	6.17208e-06
1630.92	6.57021e-06
1641.25	6.99042e-06
1651.59	7.43417e-06
1661.92	7.90304e-06
1672.26	8.39871e-06
1680.01	8.78912e-06
1690.35	9.33605e-06
1700.68	9.91497e-06
1711.02	1.0528e-05
1721.35	1.11772e-05
1731.69	1.18651e-05
1742.02	1.2594e-05
1752.36	1.33664e-05
1760.11	1.39758e-05
1770.45	1.483e-05
1780.78	1.57338e-05
1791.12	1.66887e-05
1801.45	1.76964e-05
1811.79	1.87584e-05
1822.12	1.98762e-05
1832.46	2.10511e-05
1840.21	2.19707e-05
1850.54	2.32492e-05
1860.88	2.45891e-05
1871.21	2.5992e-05
1881.55	2.74596e-05
1891.88	2.89939e-05
1902.22	3.05969e-05
1912.56	3.22707e-05
1920.31	3.3574e-05
1930.64	3.53777e-05
1940.98	3.72594e-05
1951.31	3.9222e-05
1961.65	4.12688e-05
1971.98	4.34033e-05
1982.32	4.56291e-05
1990.07	4.73608e-05
2000.4	4.97562e-05
2010.74	5.22543e-05
2021.07	5.48598e-05
2031.41	5.75774e-05
2041.74	6.04123e-05
2052.08	6.33697e-05
2062.41	6.64551e-05
2070.17	6.88567e-05
2080.5	7.21805e-05
2090.84	7.56492e-05
2101.17	7.79614e-05
2111.51	7.65909e-05
2121.84	7.54974e-05
2132.18	7.46614e-05
2142.51	7.40655e-05
2150.26	7.37673e-05
2160.6	7.35571e-05
2170.93	7.35496e-05
2181.27	7.37333e-05
2191.6	7.40983e-05
2201.94	7.46359e-05
2212.27	7.53385e-05
2220.02	7.597e-05
2230.36	7.69471e-05
2240.69	7.80747e-05
2251.03	7.93493e-05
2261.36	8.07686e-05
2271.7	8.23311e-05
2282.03	8.40362e-05
2292.37	8.58839e-05
2300.12	8.7364e-05
2310.45	8.94643e-05
2320.79	9.17118e-05
2331.12	9.41094e-05
2341.46	9.66607e-05
2351.79	9.937e-05
2362.12	0.000102242
2372.46	0.000105282
2380.21	0.000107675
2390.55	0.000111023
2400.88	0.000114556
2411.21	0.00011828
2421.55	0.000122204
2431.88	0.000126335
2442.22	0.00013068
2452.55	0.00013525
2460.3	0.00013883
2470.64	0.000143813
2480.97	0.000149048
2491.31	0.000154525
2501.64	0.000160225
2511.98	0.000166135
2522.31	0.000172246
2530.06	0.000176956
2540.4	0.000183404
2550.73	0.00019004
2561.07	0.000196867
2571.4	0.000203888
2581.74	0.000211106
2592.07	0.00021853
2602.41	0.000226168
2610.16	0.000232042
2620.49	0.000240078
2630.83	0.000248358
2641.16	0.000256897
2651.5	0.000265709
2661.83	0.000274812
2672.17	0.000284225
2682.5	0.000293967
2690.25	0.000301502
2700.59	0.000311872
2710.92	0.000322629
2721.26	0.000333796
2731.6	0.000345393
2741.93	0.000357442
2752.27	0.000369964
2760.02	0.000379678
2770.35	0.000393077
2780.69	0.000407007
2791.02	0.000421491
2801.36	0.00043655
2811.69	0.000452211
2822.03	0.000468498
2832.36	0.000485439
2840.12	0.000498591
2850.45	0.000534099
2860.79	0.000575466
2871.12	0.000616624
2881.46	0.000657473
2891.8	0.000698003
2902.15	0.000738275
2912.51	0.000778291
2920.28	0.000808188
2930.63	0.000847987
2940.99	0.000887833
2951.34	0.000927872
2961.7	0.000968258
2972.06	0.00100916
2982.41	0.00105074
2990.18	0.00108248
3000.53	0.00112568
3010.89	0.00117005
3021.24	0.00121575
3031.6	0.00126296
3041.96	0.00131183
3052.31	0.0013624
3060.08	0.0014013
3070.43	0.00145432
3080.79	0.00150852
3091.14	0.00156387
3101.5	0.00162039
3111.86	0.00167817
3122.21	0.00173732
3132.57	0.00179803
3140.33	0.00184472
3150.69	0.0019087
3161.04	0.00197493
3171.4	0.00204369
3181.75	0.00211526
3192.11	0.00218991
3202.46	0.0022679
3210.23	0.00232873
3220.59	0.00241319
3230.94	0.00252895
3241.3	0.00272291
3251.65	0.0029074
3262.01	0.00308332
3272.36	0.00325272
3280.13	0.00337707
3290.49	0.00354148
3300.84	0.00370691
3311.2	0.00387604
3321.55	0.0040514
3331.91	0.00423483
3342.26	0.00442517
3350.03	0.00457162
3360.38	0.00477184
3370.74	0.00497878
3381.09	0.0051945
3391.45	0.0054217
3401.81	0.00566318
3412.16	0.00592118
3422.52	0.00646287
3430.28	0.00685483
3440.64	0.00736224
3450.99	0.0078686
3461.35	0.0083934
3471.7	0.00895093
3482.06	0.00952864
3492.41	0.0101268
3500.18	0.0106015
3510.54	0.011626
3520.89	0.0128023
3531.25	0.0139099
3541.6	0.0151795
3551.96	0.0166033
3562.31	0.0192752
3570.08	0.0211964
3580.44	0.0240508
3590.79	0.027391
3601.15	0.0308495
3611.5	0.0340077
3621.86	0.0369208
3632.21	0.0397857
3642.57	0.0426686
3650.34	0.0448574
3660.69	0.0478398
3671.05	0.0508965
3681.4	0.0539841
3691.76	0.0570563
3702.12	0.0601025
3712.47	0.0631463
3720.24	0.0654502
3730.59	0.0685766
3740.95	0.071779
3751.31	0.0750498
3761.66	0.0783667
3772.02	0.0817073
3782.37	0.0850591
3790.14	0.0875801
3800.5	0.0909595
3810.85	0.0943748
3821.22	0.0978491
3831.61	0.101397
3841.99	0.105024
3852.38	0.108733
3860.17	0.111571
3870.55	0.115432
3880.93	0.11939
3891.32	0.123453
3901.7	0.127634
3912.09	0.13194
3922.47	0.136377
3930.26	0.139794
3940.64	0.144467
3951.03	0.14928
3961.41	0.154239
3971.8	0.159355
3982.18	0.164646
3992.57	0.170129
4000.36	0.17438
4010.74	0.18025
4021.13	0.186367
4031.51	0.192751
4041.89	0.199421
4052.28	0.206395
4060.07	0.211838
4070.45	0.219389
4080.84	0.227294
4091.22	0.235566
4101.61	0.244218
4111.99	0.253258
4122.38	0.262695
4130.17	0.270036
4140.55	0.280179
4150.94	0.29073
4161.32	0.301689
4171.71	0.313055
4182.09	0.324823
4192.48	0.336983
4200.26	0.346353
4210.65	0.359166
4221.04	0.372324
4231.42	0.385797
4241.87	0.399636
4252.35	0.413746
4260.2	0.424459
4270.67	0.438875
4281.14	0.453386
4291.61	0.467926
4302.15	0.482516
4310.06	0.493383
4320.6	0.507706
4331.14	0.521765
4341.69	0.535465
4352.23	0.548707
4360.14	0.558279
4370.69	0.570481
4381.24	0.581945
4391.78	0.592566
4402.33	0.602237
4410.24	0.608802
4420.78	0.616549
4431.33	0.623048
4441.88	0.628192
4452.42	0.631879
4460.33	0.633628
4470.88	0.634527
4481.43	0.633708
4491.97	0.631086
4502.52	0.626589
4510.43	0.621945
4520.98	0.614013
4531.52	0.604051
4542.07	0.592024
4552.62	0.577909
4560.53	0.565946
4571.07	0.54816
4581.62	0.528288
4592.17	0.506357
4600.08	0.488578
4610.62	0.463138
4621.17	0.435769
4631.71	0.406538
4642.26	0.375521
4650.17	0.351135
4660.72	0.317189
4671.26	0.281689
4681.81	0.244716
4692.36	0.206373
4700.27	0.176757
4710.81	0.13614
4721.36	0.0948545
4731.91	0.0506904
4742.45	0.00960537
4750.36	-0.0184181
4760.91	-0.0524916
4771.48	-0.0755899
4782.08	-0.0936863
4790.03	-0.107134
4800.62	-0.113199
4811.22	-0.128341
4821.82	-0.140682
4832.41	-0.151149
4840.36	-0.15797
4850.96	-0.165895
4861.56	-0.173388
4872.15	-0.180438
4880.1	-0.185378
4890.7	-0.178585
4901.29	-0.182983
4911.89	-0.190206
4922.49	-0.196229
4930.43	-0.200105
4941.03	-0.204586
4951.63	-0.208461
4962.22	-0.211877
4970.17	-0.21421
4980.77	-0.21709
4991.36	-0.219288
5001.96	-0.221491
5012.56	-0.223467
5020.51	-0.224941
5031.1	-0.226868
5041.7	-0.228721
5052.3	-0.230477
5060.24	-0.231721
5070.84	-0.233273
5081.44	-0.234597
5092.03	-0.227417
5102.63	-0.228761
5110.58	-0.229925
5121.17	-0.231683
5131.77	-0.233205
5142.37	-0.23448
5150.31	-0.235288
5160.91	-0.236195
5171.51	-0.236926
5182.1	-0.237497
5190.05	-0.237832
5200.65	-0.238165
5211.25	-0.238381
5221.84	-0.238494
5232.44	-0.238515
5240.39	-0.238478
5250.98	-0.238365
5261.58	-0.23819
5272.13	-0.237912
5280.04	-0.237649
5290.58	-0.237288
5301.12	-0.236921
5311.66	-0.236513
5322.2	-0.23601
5330.11	-0.235628
5340.65	-0.235111
5351.19	-0.234585
5361.73	-0.234048
5372.27	-0.233499
5380.17	-0.233078
5390.71	-0.232507
5401.25	-0.231921
5411.79	-0.231323
5422.3	-0.230713
5430.19	-0.230248
5440.68	-0.229616
5451.2	-0.228963
5461.71	-0.227041
5472.22	-0.224678
5480.09	-0.224486
5490.6	-0.224217
5501.11	-0.223936
5511.62	-0.223641
5522.14	-0.223334
5530.02	-0.223092
5540.53	-0.222755
5551.04	-0.222402
5561.56	-0.222034
5572.06	-0.221652
5582.44	-0.221261
5590.19	-0.220961
5600.52	-0.22055
5610.86	-0.220128
5621.2	-0.219693
5631.53	-0.219247
5641.87	-0.218789
5652.2	-0.218319
5662.54	-0.217836
5670.29	-0.217465
5680.62	-0.216958
5690.96	-0.216434
5701.3	-0.215893
5711.63	-0.215333
5721.97	-0.214752
5732.3	-0.214151
5740.05	-0.213685
5750.39	-0.213044
5760.72	-0.212379
5771.06	-0.211689
5781.4	-0.210973
5791.73	-0.210231
5802.07	-0.209462
5812.4	-0.208665
5820.15	-0.208049
5830.49	-0.207234
5840.82	-0.20638
5851.16	-0.205491
5861.49	-0.204572
5871.83	-0.203625
5882.17	-0.202652
5892.5	-0.201637
5900.25	-0.200821
5910.59	-0.199713
5920.92	-0.198586
5931.26	-0.19744
5941.59	-0.196278
5951.93	-0.1951
5962.27	-0.193909
5970.02	-0.193006
5980.35	-0.191792
5990.69	-0.190566
6001.02	-0.189328
6011.36	-0.18808
6021.69	-0.186821
6032.03	-0.185553
6042.36	-0.184275
6050.12	-0.18331
6060.45	-0.182016
6070.79	-0.180713
6081.12	-0.179401
6091.46	-0.178081
6101.79	-0.176752
6112.13	-0.175416
6122.46	-0.174073
6130.22	-0.17306
6140.55	-0.171705
6150.89	-0.170343
6161.22	-0.168976
6171.56	-0.167603
6181.89	-0.166225
6192.23	-0.164843
6202.56	-0.169111
6210.31	-0.168495
6220.65	-0.167492
6230.99	-0.166118
6241.32	-0.164717
6251.66	-0.163297
6261.99	-0.161863
6272.33	-0.160422
6280.08	-0.159336
6290.41	-0.157886
6300.75	-0.156433
6311.08	-0.154978
6321.42	-0.153522
6331.76	-0.152065
6342.09	-0.150605
6352.43	-0.149144
6360.18	-0.148046
6370.51	-0.146579
6380.85	-0.145108
6391.18	-0.143633
6401.52	-0.142152
6411.86	-0.140666
6422.19	-0.139173
6432.53	-0.137673
6440.28	-0.136543
6450.61	-0.13503
6460.95	-0.133509
6471.28	-0.131986
6481.62	-0.130465
6491.95	-0.128949
6502.29	-0.127439
6510.04	-0.126313
6520.38	-0.124817
6530.71	-0.123328
6541.05	-0.121845
6551.38	-0.120366
6561.72	-0.118888
6572.05	-0.117408
6582.39	-0.115925
6590.14	-0.114808
6600.48	-0.113311
6610.81	-0.111804
6621.15	-0.110283
6631.48	-0.108748
6641.82	-0.106778
6652.15	-0.103678
6662.49	-0.100781
6670.24	-0.0987296
6680.58	-0.0961338
6690.91	-0.0936681
6701.25	-0.0913003
6711.58	-0.0890002
6721.92	-0.0867403
6732.26	-0.084497
6740.01	-0.0828134
6750.34	-0.0805538
6760.68	-0.0782666
6771.01	-0.0759596
6781.35	-0.0736497
6791.68	-0.0713415
6802.02	-0.06903
6812.36	-0.0667044
6820.11	-0.0649422
6830.44	-0.0625572
6840.78	-0.0601205
6851.11	-0.0562866
6861.45	-0.0521334
6871.78	-0.048146
6882.12	-0.0442722
6892.47	-0.0404199
6900.24	-0.0375039
6910.59	-0.0335431
6920.95	-0.0295114
6931.31	-0.0255031
6941.66	-0.0215383
6952.02	-0.0175493
6962.37	-0.0114726
6970.14	-0.00706182
6980.5	-0.00158612
6990.85	0.00406476
7001.21	0.00975948
7011.56	0.0185165
7021.92	0.0266491
7032.28	0.0350477
7040.04	0.0412675
7050.4	0.0481756
7060.76	0.0530353
7071.11	0.0563981
7081.47	0.058968
7091.82	0.0609613
7102.18	0.0625063
7112.53	0.0638106
7120.3	0.0646958
7130.66	0.0657167
7141.01	0.0664893
7151.37	0.0670234
7161.73	0.0674256
7172.08	0.0678366
7182.44	0.0683687
7190.2	0.0688784
7200.56	0.0696854
7210.92	0.0705587
7221.27	0.0713898
7231.63	0.0720898
7241.98	0.072614
7252.34	0.0729616
7260.11	0.0731242
7270.46	0.0732468
7280.82	0.0733057
7291.17	0.0733391
7301.53	0.0733704
7311.89	0.0734119
7322.24	0.0734747
7330.01	0.0735461
7340.37	0.073692
7350.72	0.0739158
7361.08	0.0742277
7371.43	0.0746163
7381.79	0.0750467
7392.14	0.0754678
7402.5	0.0758261
7410.27	0.0760273
7420.62	0.0761857
7430.98	0.0762154
7441.34	0.0761311
7451.69	0.0759593
7462.05	0.0757296
7472.4	0.0754683
7480.17	0.0752642
7490.53	0.0749941
7500.88	0.0747389
7511.24	0.0745121
7521.59	0.0743291
7531.95	0.0742061
7542.31	0.0741585
7550.07	0.0741796
7560.43	0.0742883
7570.79	0.0744889
7581.14	0.0747752
7591.5	0.0751359
7601.85	0.0755578
7612.21	0.0760279
7622.57	0.0765356
7630.33	0.0769364
7640.69	0.0774936
7651.06	0.0780754
7661.44	0.0786809
7671.83	0.0793081
7682.21	0.0799551
7690	0.0804511
7700.39	0.0811218
7710.77	0.0817957
7721.16	0.0824628
7731.54	0.0831111
7741.93	0.0837283
7752.31	0.0843021
7760.1	0.084697
7770.49	0.0851687
7780.87	0.0855703
7791.25	0.0858962
7801.64	0.0861432
7812.02	0.0863101
7822.41	0.0863981
7830.2	0.0864141
7840.58	0.0863722
7850.97	0.086263
7861.35	0.0860927
7871.74	0.0858681
7882.12	0.0855953
7892.51	0.0852801
7900.3	0.0850189
7910.68	0.0846407
7921.07	0.0842312
7931.45	0.083793
7941.84	0.0833287
7952.22	0.0828411
7960.01	0.0824623
7970.39	0.0819434
7980.78	0.0814135
7991.16	0.0808791
8001.55	0.0803466
8011.93	0.0798224
8022.32	0.0793122
8030.11	0.0789412
8040.49	0.0784638
8050.88	0.0780061
8061.26	0.0775655
8071.65	0.0771367
8082.03	0.0767121
8092.42	0.0762823
8100.21	0.0759503
8110.59	0.0754857
8120.98	0.0749866
8131.36	0.0744434
8141.75	0.0738483
8152.13	0.073196
8162.52	0.0724837
8170.3	0.0719099
8180.69	0.0710937
8191.07	0.0702228
8201.46	0.069303
8211.84	0.068341
8222.23	0.0673442
8230.02	0.0665782
8240.4	0.0655378
8250.79	0.0644812
8261.17	0.0634133
8271.56	0.0623377
8281.94	0.0612568
8292.33	0.0601721
8300.12	0.0593564
8310.5	0.0582657
8320.89	0.0571712
8331.27	0.0560727
8341.66	0.0549697
8352.04	0.0538624
8362.43	0.052751
8370.22	0.0519151
8380.6	0.0507976
8390.99	0.0496773
8401.37	0.0485542
8411.76	0.0474273
8422.14	0.046295
8432.52	0.0451541
8440.31	0.0442901
8450.7	0.0431222
8461.08	0.0419289
8471.47	0.040701
8481.85	0.0394272
8492.24	0.0380944
8500.03	0.0370475
8510.41	0.035575
8520.8	0.0339978
8531.18	0.0322936
8541.57	0.0304341
8551.95	0.0283812
8562.34	0.0260796
8570.13	0.0241455
8580.51	0.0212121
8590.9	0.0178099
8601.28	0.0135895
8611.67	0.00893456
8622.05	0.00307508
8632.44	-0.00140801
8640.22	-0.00425098
8650.61	-0.00587665
8660.99	-0.0093838
8671.38	-0.0123977
8681.76	-0.0153907
8692.15	-0.018119
8702.53	-0.020586
8710.32	-0.0198533
8720.71	-0.0218916
8731.09	-0.0243869
8741.48	-0.0265048
8751.86	-0.0283407
8762.25	-0.0299609
8770.04	-0.0310717
8780.42	-0.0324511
8790.81	-0.0337386
8801.19	-0.0349596
8811.58	-0.0361625
8821.96	-0.0372765
8832.35	-0.0383166
8840.14	-0.0390542
8850.52	-0.0399864
8860.91	-0.040865
8871.29	-0.0389032
8881.68	-0.0390458
8892.06	-0.0399669
8902.45	-0.0408527
8910.23	-0.0414681
8920.62	-0.0422329
8931	-0.0429415
8941.39	-0.0435991
8951.77	-0.0442113
8962.16	-0.0447837
8972.54	-0.0453207
8980.3	-0.0457011
8990.63	-0.0461846
9000.97	-0.0466444
9011.3	-0.0470837
9021.64	-0.047505
9031.97	-0.0479104
9042.31	-0.0482444
9050.06	-0.0484558
9060.4	-0.0487683
9070.73	-0.0491395
9081.07	-0.0494939
9091.4	-0.0498325
9101.74	-0.0501559
9112.07	-0.0504647
9122.41	-0.050759
9130.16	-0.0509702
9140.5	-0.0512392
9150.83	-0.0514939
9161.17	-0.0517343
9171.5	-0.0519607
9181.84	-0.0521733
9192.17	-0.0523725
9202.51	-0.0525574
9210.26	-0.0498646
9220.6	-0.0485618
9230.93	-0.048804
9241.27	-0.0490304
9251.6	-0.0492417
9261.94	-0.0494386
9272.27	-0.0496213
9280.03	-0.0497466
9290.36	-0.049898
9300.7	-0.0500323
9311.03	-0.0501499
9321.37	-0.0502521
9331.7	-0.05034
9342.04	-0.0504149
9352.37	-0.0504776
9360.13	-0.0505174
9370.46	-0.0505614
9380.8	-0.050596
9391.13	-0.0506209
9401.47	-0.0506361
9411.8	-0.050642
9422.14	-0.0506389
9432.47	-0.0506273
9440.23	-0.0506133
9450.56	-0.0505879
9460.9	-0.0505551
9471.23	-0.0505152
9481.57	-0.0504685
9491.9	-0.0504152
9502.24	-0.0503556
9512.57	-0.0502902
9520.33	-0.0502375
9530.66	-0.0501625
9541	-0.0500907
9551.33	-0.0500111
9561.67	-0.0499219
9572	-0.0498234
9582.34	-0.0497164
9590.09	-0.0496309
9600.43	-0.0495105
9610.76	-0.0494524
9621.1	-0.0493836
9631.43	-0.0493047
9641.77	-0.0492165
9652.1	-0.0491194
9662.44	-0.0490142
9670.19	-0.0489301
9680.53	-0.0488118
9690.86	-0.0486866
9701.2	-0.048555
9711.53	-0.0484174
9721.87	-0.0482742
9732.2	-0.0481255
9742.54	-0.0479717
9750.29	-0.047853
9760.63	-0.0476906
9770.96	-0.0475236
9781.3	-0.0473521
9791.63	-0.0471763
9801.97	-0.0469962
9812.3	-0.046812
9820.06	-0.0466712
9830.39	-0.04648
9840.73	-0.0462849
9851.06	-0.046086
9861.4	-0.0458835
9871.73	-0.0456772
9882.07	-0.0456794
9892.4	-0.0454895
9900.15	-0.0453465
9910.49	-0.0451552
9920.83	-0.0449628
9931.16	-0.0447694
9941.5	-0.0445746
9951.83	-0.0443784
9962.17	-0.0441807
9972.5	-0.0439811
9980.26	-0.0438303
9990.59	-0.0436273
10000.9	-0.0434221
10011.3	-0.0432145
10021.6	-0.0430045
10031.9	-0.0410329
10042.3	-0.04075
10050	-0.0405364
10060.4	-0.0402494
10070.7	-0.03996
10081	-0.039668
10091.4	-0.0393903
10101.7	-0.0391605
10112	-0.0389282
10122.4	-0.0386931
10130.1	-0.0385149
10140.5	-0.0382745
10150.8	-0.0380309
10161.1	-0.0377839
10171.5	-0.0375334
10181.8	-0.0372792
10192.1	-0.0370213
10202.5	-0.0367596
10210.2	-0.0365608
10220.6	-0.0362922
10230.9	-0.0360197
10241.2	-0.0357431
10251.6	-0.0354624
10261.9	-0.0351777
10272.2	-0.0348889
10282.6	-0.0345959
10290.3	-0.0343734
10300.7	-0.0340732
10311	-0.0337688
10321.3	-0.0334602
10331.7	-0.0331478
10342	-0.0328333
10352.4	-0.0325172
10360.1	-0.0322791
10370.5	-0.0319599
10380.8	-0.0316386
10391.2	-0.0313149
10401.6	-0.0309887
10411.9	-0.0306598
10422.3	-0.0303282
10430	-0.0300776
10440.4	-0.029741
10450.8	-0.0294014
10461.1	-0.0290588
10471.5	-0.0287132
10481.8	-0.0283646
10492.2	-0.0280131
10502.5	-0.0276586
10510.3	-0.0273909
10520.7	-0.0270314
10531	-0.0266691
10541.4	-0.0263041
10551.7	-0.0259364
10562.1	-0.0255666
10572.4	-0.0251955
10580.2	-0.0249163
10590.6	-0.024543
10600.9	-0.0241687
10611.3	-0.0237935
10621.6	-0.0234175
10632	-0.0230408
10642.3	-0.0226636
10650.1	-0.0223803
10660.5	-0.0220024
10670.8	-0.0216095
10681.2	-0.021175
10691.5	-0.0207451
10701.9	-0.0203196
10712.2	-0.0198982
10720	-0.0195849
10730.4	-0.0191706
10740.7	-0.0187602
10751.1	-0.0183535
10761.4	-0.0179505
10771.8	-0.0175511
10782.1	-0.0171554
10792.5	-0.0167634
10800.3	-0.0164717
10810.6	-0.016086
10821	-0.0157036
10831.3	-0.0153247
10841.7	-0.0149501
10852	-0.0145812
10862.4	-0.0142176
10870.2	-0.0139481
10880.5	-0.0135926
10890.9	-0.0132411
10901.2	-0.0128933
10911.6	-0.0125488
10922	-0.0122073
10932.3	-0.0118686
10940.1	-0.0115861
10950.4	-0.0112269
10960.8	-0.0108846
10971.1	-0.0105562
10981.5	-0.0102391
10991.9	-0.00993102
11002.2	-0.00963016
11012.6	-0.00933485
11020.3	-0.00911619
11030.7	-0.00882742
11041	-0.00854091
11051.4	-0.00825749
11061.8	-0.00797974
11072.1	-0.00770678
11082.5	-0.0074377
11090.2	-0.00723786
11100.6	-0.00697333
11110.9	-0.00671019
11121.3	-0.00644764
11131.7	-0.00618495
11142	-0.00592144
11152.4	-0.00565656
11160.1	-0.00545668
11170.5	-0.00518841
11180.9	-0.00491821
11191.2	-0.00464615
11201.6	-0.00437217
11211.9	-0.00409618
11222.3	-0.00381803
11230	-0.00360786
11240.4	-0.00332483
11250.8	-0.00303847
11261.2	-0.00274966
11271.6	-0.00246454
11282	-0.0021827
11292.4	-0.00190231
11300.2	-0.00169234
11310.6	-0.00141209
11321	-0.00113072
11331.4	-0.000847424
11341.8	-0.000561531
11352.1	-0.000272494
11362.5	8.30192e-05
11370.3	0.000410212
11380.7	0.00086192
11391.1	0.00132318
11401.5	0.00178826
11411.9	0.00225379
11422.3	0.00271796
11430.1	0.00306472
11440.5	0.00352489
11450.9	0.00398152
11461.3	0.00443431
11471.7	0.0048834
11482.1	0.0053319
11490.2	0.00568203
11501.1	0.00615798
11512	0.00663819
11520.2	0.00700053
11531.1	0.0074843
11542	0.00796737
11550.2	0.00832894
11561.1	0.00932344
11572	0.0104391
11580.2	0.0112141
11591.1	0.0121567
11602	0.0129975
11610.2	0.013579
11621.1	0.0143109
11632.1	0.0149984
11640.2	0.0156926
11651.2	0.01655
11662.1	0.0173054
11670.2	0.0178156
11681.2	0.0184727
11692.1	0.0194819
11700.3	0.0205835
11711.2	0.0221329
11722.1	0.0235878
11730.3	0.024624
11741.2	0.0259943
11752.1	0.027306
11760.3	0.0282851
11771.2	0.0296353
11782.1	0.0310365
11790.3	0.0321032
11801.2	0.0335312
11812.1	0.0349702
11820.3	0.0360639
11831.2	0.0375516
11842.2	0.0390825
11850.4	0.0402616
11861.4	0.0418492
11872.4	0.0434211
11880.7	0.0445722
11891.8	0.046029
11900.1	0.0470534
11911.2	0.0483316
11922.3	0.0495283
11930.6	0.0503863
11941.7	0.051491
11952.7	0.0525555
11961.1	0.0533249
11972.1	0.0543048
11980.5	0.0550006
11991.7	0.0558876
