0	0
12.9672	0
25.9342	0
38.9011	0
51.868	0
64.8348	0
77.8018	0
90.7691	0
103.737	0
116.704	0
129.431	0
142.157	0
154.882	-9.09495e-13
167.608	-1.81899e-12
180.334	-2.72848e-12
193.06	-4.54747e-12
205.911	-7.27596e-12
218.762	-1.09139e-11
231.613	-1.54614e-11
244.464	-2.09184e-11
257.195	-2.72848e-11
270.046	-3.45608e-11
282.896	-4.27463e-11
295.747	-5.18412e-11
308.597	-6.09361e-11
321.447	-6.82121e-11
333.577	-7.27596e-11
346.319	-7.27596e-11
359.06	-6.54836e-11
371.19	-4.82032e-11
383.932	-1.54614e-11
396.674	3.81988e-11
409.415	1.18234e-10
422.157	2.31921e-10
434.608	3.83807e-10
446.738	5.80258e-10
459.19	8.41283e-10
471.641	1.17507e-09
483.725	1.58252e-09
496.176	2.10184e-09
508.627	2.74122e-09
521.078	3.52065e-09
533.529	4.46289e-09
545.582	5.55792e-09
557.636	6.85759e-09
569.689	8.39191e-09
581.743	1.01936e-08
593.796	1.23018e-08
605.85	1.47584e-08
617.903	1.76105e-08
629.956	2.09129e-08
642.01	2.47246e-08
654.063	2.90966e-08
666.116	3.40715e-08
678.169	3.96894e-08
690.198	4.59759e-08
702.251	5.29935e-08
714.304	6.07733e-08
726.357	6.93599e-08
738.41	7.8785e-08
750.463	8.90714e-08
762.516	1.00235e-07
774.569	1.12286e-07
786.597	1.25209e-07
798.626	1.39034e-07
810.679	1.53803e-07
822.731	1.69501e-07
834.784	1.86144e-07
846.837	2.03758e-07
858.89	2.22368e-07
870.914	2.41966e-07
882.938	2.62638e-07
894.962	2.84442e-07
906.986	3.07443e-07
919.01	3.31722e-07
931.034	3.57373e-07
943.058	3.84509e-07
955.082	4.13259e-07
967.106	4.43772e-07
979.13	4.76222e-07
991.154	5.10805e-07
1003.18	5.47744e-07
1015.2	5.87293e-07
1027.23	6.29737e-07
1039.25	6.75395e-07
1051.27	7.24621e-07
1063.3	7.77804e-07
1075.32	8.35375e-07
1087.35	8.97803e-07
1099.37	9.65598e-07
1111.39	1.03932e-06
1123.42	1.11955e-06
1135.44	1.20695e-06
1147.46	1.30221e-06
1159.49	1.40605e-06
1171.51	1.51928e-06
1183.53	1.64272e-06
1195.56	1.77728e-06
1207.58	1.92391e-06
1219.6	2.08361e-06
1231.63	2.25746e-06
1243.65	2.4466e-06
1255.68	2.65224e-06
1267.7	2.87567e-06
1279.72	3.11825e-06
1291.75	3.38143e-06
1303.77	3.66674e-06
1315.79	3.97582e-06
1327.81	4.3104e-06
1339.84	4.6723e-06
1351.86	5.06533e-06
1363.88	5.49258e-06
1375.91	5.95637e-06
1387.93	6.45852e-06
1399.95	7.00053e-06
1411.98	7.58364e-06
1424	8.20899e-06
1436.02	8.87763e-06
1448.05	9.59063e-06
1460.07	1.03491e-05
1472.09	1.11543e-05
1484.12	1.20077e-05
1496.14	1.29108e-05
1508.16	1.38655e-05
1520.18	1.48739e-05
1532.21	1.59382e-05
1544.23	1.70613e-05
1556.25	1.82461e-05
1568.28	1.94959e-05
1580.3	2.08146e-05
1592.32	2.22062e-05
1604.34	2.36752e-05
1616.37	2.52267e-05
1628.39	2.68659e-05
1640.41	2.85986e-05
1652.44	3.04312e-05
1664.46	3.23701e-05
1676.48	3.44227e-05
1688.5	3.65964e-05
1700.32	3.88587e-05
1712.13	4.12518e-05
1723.94	4.3781e-05
1735.75	4.64508e-05
1747.57	4.92656e-05
1759.38	5.22295e-05
1771.19	5.53468e-05
1783	5.86217e-05
1794.82	6.20585e-05
1806.67	6.56764e-05
1818.53	6.94675e-05
1830.39	7.34375e-05
1842.25	7.75924e-05
1854.11	8.1939e-05
1865.97	8.64847e-05
1877.83	9.12374e-05
1889.69	9.62059e-05
1901.55	0.0001014
1913.41	0.00010683
1925.27	0.000112508
1937.13	0.000118447
1948.98	0.000124659
1960.84	0.000131159
1972.7	0.000137962
1984.56	0.000145084
1996.42	0.000152543
2008.28	0.000160356
2020.14	0.000168541
2032	0.000166042
2043.86	0.000164196
2055.72	0.000162946
2067.57	0.000162242
2079.43	0.000162046
2091.29	0.000162321
2103.15	0.000163037
2115.01	0.000164166
2126.87	0.000165688
2138.73	0.000167586
2150.59	0.000169846
2162.45	0.000172458
2174.3	0.000175415
2186.16	0.000178714
2198.02	0.000182354
2209.88	0.000186337
2221.74	0.000190666
2233.6	0.000195349
2245.46	0.000200393
2257.31	0.000205809
2269.17	0.00021161
2281.03	0.00021781
2292.84	0.000224398
2304.7	0.000231444
2316.56	0.000238941
2328.42	0.00024691
2340.27	0.000255372
2352.13	0.000264349
2363.99	0.000273865
2375.85	0.000283944
2387.71	0.000294613
2399.52	0.000305851
2411.32	0.000317756
2423.18	0.00033031
2435.04	0.000343415
2446.9	0.000357035
2458.76	0.000371146
2470.62	0.000385737
2482.37	0.000400675
2494.13	0.000416083
2505.89	0.000431974
2517.64	0.000448362
2529.4	0.000465269
2541.16	0.000482722
2552.91	0.00050075
2564.67	0.00051939
2576.43	0.000538684
2588.18	0.000558676
2599.94	0.00057942
2611.7	0.000600972
2623.45	0.000623395
2635.21	0.000646755
2646.97	0.000671115
2658.72	0.000696541
2670.48	0.000723095
2682.24	0.000750841
2693.99	0.000779839
2705.75	0.000810154
2717.51	0.000841848
2729.26	0.000874989
2741.02	0.000909649
2752.78	0.000945904
2764.53	0.0010296
2776.29	0.00111351
2788.05	0.00119692
2799.8	0.00127946
2811.56	0.00136104
2823.32	0.00144175
2835.07	0.00152183
2846.82	0.00160158
2858.57	0.00168145
2870.32	0.00176191
2882.07	0.00184346
2893.82	0.00192663
2905.58	0.00201194
2917.33	0.00209994
2929.08	0.00219117
2940.83	0.00228617
2952.58	0.00238547
2964.33	0.00248962
2976.08	0.00259751
2987.83	0.00270854
2999.58	0.00282246
3011.33	0.00293926
3023.08	0.00305911
3034.83	0.00318238
3046.58	0.00330959
3058.33	0.00344146
3070.08	0.00357886
3081.83	0.0037228
3093.58	0.00387426
3105.33	0.00403416
3117.08	0.00420333
3128.83	0.00459881
3140.58	0.00497797
3152.33	0.00533514
3164.08	0.00567313
3175.83	0.00599858
3187.58	0.00632016
3199.33	0.00664695
3211.08	0.00698762
3222.84	0.00735025
3234.59	0.0077426
3246.34	0.00816171
3258.09	0.00859947
3269.84	0.0090568
3281.59	0.00953865
3293.34	0.0100538
3305.09	0.0106153
3316.84	0.0118711
3328.59	0.0131262
3340.34	0.0142696
3352.09	0.0154123
3363.84	0.0166897
3375.59	0.0181751
3387.34	0.0198836
3399.09	0.0217942
3410.84	0.026192
3422.59	0.0297426
3434.34	0.0330265
3446.09	0.0362642
3457.84	0.0395006
3469.59	0.0427291
3481.34	0.0459563
3493.09	0.049202
3504.84	0.0524905
3516.59	0.0558438
3528.34	0.0592804
3540.09	0.0627939
3551.84	0.0663704
3563.59	0.0700169
3575.34	0.0737608
3587.08	0.0776335
3598.83	0.0816565
3610.58	0.0858383
3622.33	0.0901764
3634.08	0.0946633
3645.83	0.0992905
3657.58	0.104052
3669.33	0.108943
3681.08	0.113963
3692.83	0.119112
3704.58	0.124394
3716.33	0.129819
3728.08	0.135397
3739.83	0.141142
3751.58	0.147063
3763.33	0.153169
3775.08	0.159466
3786.83	0.165954
3798.58	0.172634
3810.33	0.179506
3822.08	0.186567
3833.83	0.193816
3845.58	0.201252
3857.33	0.208877
3869.08	0.216691
3880.83	0.224699
3892.58	0.232905
3904.33	0.241314
3916.08	0.24993
3927.83	0.258755
3939.58	0.267789
3951.33	0.277029
3963.08	0.28647
3974.83	0.2961
3986.58	0.305909
3998.33	0.31588
4010.08	0.325996
4021.83	0.336235
4033.58	0.346576
4045.33	0.356994
4057.08	0.36746
4068.83	0.377947
4080.58	0.388422
4092.33	0.398849
4104.08	0.409191
4115.83	0.419406
4127.58	0.429451
4139.33	0.439278
4151.08	0.448838
4162.83	0.458081
4174.58	0.466952
4186.34	0.475398
4198.09	0.483364
4209.84	0.490795
4221.59	0.497636
4233.34	0.503833
4245.09	0.509332
4257.09	0.51418
4269.09	0.51819
4281.09	0.52131
4293.09	0.523486
4305.08	0.524669
4317.08	0.524811
4329.08	0.523866
4341.08	0.521793
4353.08	0.518554
4365.08	0.514115
4377.08	0.508446
4389.08	0.501522
4401.08	0.493324
4413.08	0.483837
4425.08	0.473052
4437.08	0.460967
4449.08	0.447583
4461.08	0.432911
4473.07	0.416963
4485.07	0.399759
4497.07	0.381325
4509.07	0.36169
4521.07	0.340886
4533.07	0.318949
4545.07	0.295929
4557.07	0.271871
4569.07	0.246835
4581.07	0.220898
4593.07	0.194196
4605.07	0.166205
4617.07	0.137361
4629.07	0.108273
4641.07	0.0797183
4653.07	0.052277
4665.07	0.0150049
4677.07	-0.0100511
4689.07	-0.034921
4701.07	-0.0573105
4713.07	-0.0771914
4725.07	-0.0945649
4737.07	-0.0824926
4749.07	-0.0935099
4761.07	-0.105881
4773.07	-0.115069
4785.07	-0.128498
4797.07	-0.139809
4809.07	-0.150303
4821.07	-0.160193
4833.07	-0.169618
4845.07	-0.178593
4857.07	-0.186648
4869.07	-0.193236
4881.09	-0.199095
4893.12	-0.204419
4905.14	-0.209365
4917.16	-0.214042
4929.19	-0.21851
4941.21	-0.222807
4953.24	-0.210487
4965.26	-0.214647
4977.28	-0.217955
4989.31	-0.221877
5001.33	-0.226681
5013.36	-0.230649
5025.38	-0.233944
5037.4	-0.236706
5049.43	-0.239054
5061.45	-0.241085
5073.48	-0.242857
5085.5	-0.244437
5097.52	-0.245852
5109.55	-0.247125
5121.57	-0.248273
5133.6	-0.249312
5145.62	-0.250254
5157.64	-0.250953
5169.67	-0.251707
5181.69	-0.252469
5193.72	-0.253078
5205.74	-0.253632
5217.76	-0.254128
5229.79	-0.254564
5241.81	-0.254939
5253.84	-0.255253
5265.86	-0.255506
5277.88	-0.255698
5289.91	-0.25583
5301.93	-0.255904
5313.96	-0.25592
5325.98	-0.255886
5338	-0.251523
5350.03	-0.250005
5362.05	-0.250311
5374.08	-0.250551
5386.1	-0.250726
5398.12	-0.250838
5410.15	-0.250889
5422.17	-0.250863
5434.2	-0.250763
5446.22	-0.250596
5458.24	-0.250364
5470.27	-0.250073
5482.29	-0.249725
5494.32	-0.249324
5506.34	-0.248874
5518.37	-0.248377
5530.39	-0.247835
5542.41	-0.24725
5554.44	-0.246625
5566.46	-0.24596
5578.49	-0.245253
5590.51	-0.244507
5602.53	-0.24372
5614.56	-0.242895
5626.58	-0.242031
5638.61	-0.241128
5650.63	-0.240188
5662.65	-0.23921
5674.68	-0.238195
5686.7	-0.237142
5698.73	-0.236052
5710.75	-0.234925
5722.77	-0.233787
5734.59	-0.232628
5746.4	-0.23144
5758.21	-0.230221
5770.02	-0.22897
5781.84	-0.227686
5793.65	-0.226311
5805.46	-0.224903
5817.27	-0.223469
5829.09	-0.222014
5840.9	-0.22054
5852.71	-0.219052
5864.52	-0.217552
5876.33	-0.216041
5888.15	-0.21452
5899.96	-0.21299
5911.82	-0.211446
5923.68	-0.209893
5935.54	-0.208331
5947.4	-0.20676
5959.26	-0.205179
5971.11	-0.203588
5982.97	-0.201985
5994.83	-0.20037
6006.69	-0.198742
6018.55	-0.1971
6030.41	-0.195442
6042.27	-0.193768
6054.13	-0.192077
6065.99	-0.190369
6077.85	-0.188642
6089.71	-0.186897
6101.57	-0.192993
6113.43	-0.191937
6125.28	-0.190612
6137.14	-0.189274
6149	-0.187924
6160.86	-0.18656
6172.72	-0.184483
6184.58	-0.182347
6196.44	-0.180175
6208.3	-0.177984
6220.16	-0.175783
6232.02	-0.17358
6243.88	-0.171378
6255.74	-0.169178
6267.6	-0.166981
6279.45	-0.164784
6291.31	-0.162586
6303.17	-0.160384
6315.03	-0.158176
6326.89	-0.155958
6338.75	-0.153727
6350.61	-0.151481
6362.47	-0.149217
6374.33	-0.146933
6386.19	-0.144626
6398.05	-0.142294
6409.91	-0.139936
6421.77	-0.137549
6433.62	-0.135151
6445.43	-0.132761
6457.29	-0.130366
6469.15	-0.127977
6481.01	-0.125596
6492.87	-0.123219
6504.73	-0.120844
6516.59	-0.118465
6528.45	-0.116076
6540.31	-0.11367
6552.17	-0.11124
6564.03	-0.108781
6575.88	-0.106288
6587.74	-0.103757
6599.6	-0.0984592
6611.46	-0.0935598
6623.32	-0.0890654
6635.18	-0.0849191
6647.04	-0.0810407
6658.9	-0.0773435
6670.76	-0.0737461
6682.62	-0.070179
6694.48	-0.0665866
6706.34	-0.0629266
6718.2	-0.0591682
6730.06	-0.0552883
6741.91	-0.0513807
6753.77	-0.0474711
6765.63	-0.0435575
6777.49	-0.0396169
6789.35	-0.035612
6801.21	-0.0315013
6813.07	-0.0240202
6824.88	-0.0169161
6836.74	-0.00994378
6848.6	-0.00341373
6860.46	0.00304253
6872.32	0.00966309
6884.17	0.0164503
6896.03	0.0232714
6907.89	0.0355623
6919.75	0.044916
6931.61	0.0534699
6943.47	0.0607529
6955.33	0.0669361
6967.19	0.0720658
6979.05	0.076223
6990.91	0.079551
7002.77	0.0822194
7014.58	0.0843778
7026.33	0.0861622
7038.09	0.0876942
7049.85	0.0889835
7061.6	0.090023
7073.36	0.0908694
7085.12	0.0916248
7096.87	0.0923904
7108.63	0.0932276
7120.39	0.0941477
7132.14	0.0951221
7143.9	0.0961009
7155.66	0.0970303
7167.41	0.0978639
7179.17	0.0985672
7190.93	0.0991197
7202.68	0.0995144
7214.44	0.0997594
7226.2	0.0998784
7237.95	0.0999064
7249.71	0.0998806
7261.47	0.0998307
7273.22	0.0997718
7284.98	0.099703
7296.74	0.0996101
7308.49	0.0994714
7320.25	0.0992627
7332	0.0989625
7343.75	0.0985539
7355.5	0.0980269
7367.25	0.0973786
7379	0.0966142
7390.75	0.0957473
7402.5	0.0947993
7414.25	0.0937973
7426	0.0927722
7437.75	0.0917553
7449.5	0.0907754
7461.26	0.0898564
7473.01	0.0890165
7484.76	0.0882668
7496.51	0.0876126
7508.26	0.0870536
7520.01	0.0865858
7531.76	0.0862026
7543.51	0.0858961
7555.26	0.085658
7567.01	0.08548
7578.76	0.0853538
7590.51	0.085271
7602.26	0.0852226
7614.01	0.0851986
7625.76	0.0851882
7637.51	0.0851792
7649.26	0.0851585
7661.01	0.0851125
7672.76	0.0850274
7684.51	0.0848906
7696.26	0.0846905
7708.02	0.084418
7719.77	0.0840666
7731.52	0.0836329
7743.27	0.0831163
7755.02	0.0825194
7766.77	0.081847
7778.52	0.0811062
7790.27	0.0803051
7802.02	0.0794529
7813.77	0.0785589
7825.52	0.0776323
7837.27	0.0766818
7849.02	0.0757156
7860.77	0.0747411
7872.52	0.073765
7884.27	0.0727931
7896.02	0.0718306
7907.77	0.0708815
7919.52	0.0699491
7931.27	0.0690352
7943.02	0.0681403
7954.78	0.0672634
7966.53	0.0664018
7978.28	0.065551
7990.03	0.0647048
8001.78	0.0638558
8013.53	0.0629951
8025.28	0.0621129
8037.03	0.061199
8048.78	0.0602433
8060.53	0.0592356
8072.28	0.0581669
8084.03	0.057029
8095.78	0.0558149
8107.53	0.0545191
8119.28	0.0531371
8131.03	0.051666
8142.78	0.0501034
8154.53	0.0484479
8166.28	0.0466982
8178.04	0.0448532
8189.79	0.0429118
8201.54	0.0408721
8213.29	0.0387314
8225.04	0.0364861
8236.79	0.034125
8248.54	0.0316348
8260.29	0.0290093
8272.04	0.0262549
8283.79	0.0232133
8295.54	0.0199192
8307.29	0.0165318
8319.04	0.0116058
8330.79	0.00815483
8342.54	0.00494517
8354.29	0.00213273
8366.04	-0.000408239
8377.79	-0.0027719
8389.54	-0.00132569
8401.29	-0.00262439
8413.05	-0.00307818
8424.8	-0.00481737
8436.55	-0.00691125
8448.3	-0.00868788
8460.05	-0.0104684
8471.8	-0.0124347
8483.55	-0.0142675
8495.3	-0.0160928
8507.05	-0.0181263
8518.8	-0.0199361
8530.55	-0.0216138
8542.3	-0.0203098
8554.05	-0.0217152
8565.8	-0.023079
8577.55	-0.0244204
8589.3	-0.024493
8601.05	-0.0258176
8612.8	-0.0272496
8624.55	-0.0285847
8636.31	-0.0298376
8648.06	-0.0309708
8659.81	-0.0320133
8671.56	-0.0329862
8683.31	-0.0338959
8695.06	-0.0347558
8706.81	-0.0356149
8718.56	-0.0364256
8730.31	-0.0371964
8742.06	-0.0379538
8753.81	-0.0386946
8765.56	-0.0394167
8777.31	-0.0403268
8789.06	-0.0411562
8800.81	-0.0419174
8812.56	-0.0426204
8824.31	-0.043273
8836.06	-0.0438807
8847.81	-0.0444478
8859.56	-0.0449774
8871.32	-0.0454718
8883.07	-0.0459157
8894.82	-0.0463182
8906.57	-0.0440775
8918.32	-0.0427745
8930.07	-0.0430486
8941.82	-0.0432241
8953.57	-0.0433831
8965.32	-0.0435262
8977.07	-0.0436543
8988.82	-0.0437682
9000.57	-0.0438591
9012.32	-0.0439301
9024.07	-0.0439841
9035.82	-0.0440236
9047.57	-0.044051
9059.32	-0.0440684
9071.07	-0.0440776
9082.82	-0.0440804
9094.58	-0.0440786
9106.33	-0.0440734
9118.08	-0.0440659
9129.83	-0.0440575
9141.58	-0.0440489
9153.33	-0.0440411
9165.08	-0.0440343
9176.83	-0.0440279
9188.58	-0.0440239
9200.33	-0.0440214
9212.08	-0.0440656
9223.83	-0.0441049
9235.58	-0.0441386
9247.33	-0.044166
9259.08	-0.0441865
9270.83	-0.0441997
9282.58	-0.0442026
9294.33	-0.0441954
9306.08	-0.044178
9317.83	-0.0441506
9329.59	-0.0441133
9341.34	-0.0440662
9353.09	-0.0440094
9364.84	-0.0440274
9376.59	-0.0440273
9388.34	-0.0440101
9400.09	-0.0439767
9411.84	-0.0439278
9423.59	-0.0438641
9435.34	-0.0437864
9447.09	-0.0436953
9458.84	-0.0435912
9470.59	-0.0434747
9482.34	-0.0433463
9494.09	-0.0432064
9505.84	-0.0430554
9517.59	-0.0428938
9529.34	-0.042722
9541.09	-0.0425378
9552.84	-0.0423421
9564.6	-0.0421355
9576.35	-0.0419188
9588.1	-0.0407371
9599.85	-0.0393303
9611.6	-0.0390771
9623.35	-0.0388211
9635.1	-0.0385623
9646.85	-0.0383003
9658.6	-0.0381185
9670.35	-0.0379355
9682.1	-0.0377506
9693.85	-0.0375631
9705.6	-0.0373725
9717.35	-0.0371783
9729.1	-0.03698
9740.85	-0.0367773
9752.6	-0.0365697
9764.35	-0.036357
9776.1	-0.036139
9787.86	-0.0359154
9799.61	-0.0356862
9811.36	-0.0354512
9823.11	-0.0352104
9834.86	-0.0349628
9846.61	-0.0347084
9858.36	-0.0344474
9870.11	-0.0341799
9881.86	-0.033906
9893.61	-0.0336257
9905.36	-0.0333391
9917.11	-0.0330464
9928.86	-0.0327475
9940.61	-0.0324426
9952.36	-0.0321317
9964.11	-0.031815
9975.86	-0.0314924
9987.61	-0.0311642
9999.36	-0.0308304
10011.1	-0.0304912
10022.9	-0.0301466
10034.6	-0.0297968
10046.4	-0.0294419
10058.1	-0.0290821
10069.9	-0.0287174
10081.6	-0.0283481
10093.4	-0.0279742
10105.1	-0.0275959
10116.9	-0.0272133
10128.6	-0.0268264
10140.4	-0.0264354
10152.1	-0.0260404
10163.9	-0.0256414
10175.6	-0.0252385
10187.4	-0.0248319
10199.1	-0.0244214
10210.9	-0.0240073
10222.6	-0.0235895
10234.4	-0.0231682
10246.1	-0.0227434
10257.9	-0.0223151
10269.6	-0.0218849
10281.4	-0.0214525
10293.1	-0.0210179
10304.9	-0.0205812
10316.6	-0.0201423
10328.4	-0.019706
10340.1	-0.0192718
10351.9	-0.0188438
10363.6	-0.0184211
10375.4	-0.0180029
10387.1	-0.0175884
10398.9	-0.017177
10410.6	-0.0167681
10422.4	-0.016361
10434.1	-0.0159553
10445.9	-0.0155504
10457.6	-0.0150543
10469.4	-0.0145653
10481.1	-0.0140826
10492.9	-0.0136055
10504.6	-0.0131334
10516.4	-0.0126656
10528.1	-0.0122016
10539.9	-0.0117409
10551.6	-0.011283
10563.4	-0.0108275
10575.1	-0.0103741
10586.9	-0.00992231
10598.6	-0.00947189
10610.4	-0.00902255
10622.1	-0.00857408
10633.9	-0.00812634
10645.6	-0.00767922
10657.4	-0.00723248
10669.1	-0.00678596
10680.9	-0.00633952
10692.6	-0.0058931
10704.4	-0.00536025
10716.1	-0.00485851
10727.9	-0.00438293
10739.7	-0.00392898
10751.4	-0.00349321
10763.2	-0.00307245
10774.9	-0.00266396
10786.7	-0.00226542
10798.4	-0.00187483
10810.2	-0.00149054
10822	-0.00111117
10833.7	-0.000735519
10845.5	-0.000362552
10857.5	1.63047e-05
10869.5	0.00039409
10881.5	0.000771478
10893.5	0.00114902
10905.5	0.00152715
10917.5	0.00190655
10929.5	0.00227774
10941.5	0.00264289
10953.5	0.00300384
10965.5	0.00334821
10977.5	0.00368016
10989.5	0.00400319
11001.5	0.00432024
11013.5	0.00463385
11025.5	0.00494618
11037.5	0.00525901
11049.5	0.00557385
11061.5	0.00589191
11073.5	0.00621404
11085.5	0.00654085
11097.5	0.00687237
11109.5	0.00720837
11121.6	0.00755159
11133.7	0.00789841
11145.8	0.00829157
11157.9	0.00875508
11170	0.00926515
11182.1	0.00980455
11194.2	0.0103585
11206.3	0.0109153
11218.4	0.0114675
11230.5	0.0120115
11242.7	0.0125464
11255	0.0130854
11267.4	0.0136184
11279.8	0.0141447
11292.2	0.0155111
11304.6	0.0169259
11317	0.0182482
11329.3	0.0194175
11341.7	0.0204289
11354.1	0.0223247
11366.5	0.0236613
11378.9	0.0246216
11391.3	0.025364
11403.6	0.0259993
11416	0.0265937
11428.4	0.0271925
11440.8	0.0277908
11453.2	0.0283925
11465.6	0.0290102
11477.9	0.0296415
11490.3	0.0302812
11502.7	0.0309239
11515.1	0.0315669
11527.5	0.0322097
11539.9	0.0328519
11552.3	0.0334942
11564.6	0.0341387
11577	0.0347836
11589.4	0.0354226
11601.8	0.0360467
11614.2	0.036646
11626.6	0.0372117
11638.9	0.0377378
11651.3	0.0382217
11663.7	0.0386634
11676.1	0.039065
11688.5	0.03943
11700.9	0.0397623
11713.2	0.0400659
11725.6	0.0403447
11738	0.0406021
11750.4	0.0408406
11762.8	0.0410609
11775.2	0.0412627
11787.5	0.0414434
11799.9	0.041599
11812.3	0.0417244
11824.7	0.0418135
11837.1	0.0418603
11849.5	0.0418591
11861.8	0.0418049
11874.2	0.0416941
11886.6	0.0415245
11899	0.0412955
11911.4	0.0410083
11923.8	0.0406654
11936.2	0.0402707
11948.5	0.0398291
11960.9	0.0393462
11973.3	0.0388279
11985.7	0.0382802
11998.1	0.0377089
