0	0
13.7439	0
20.6158	0
34.3595	0
41.2313	0
54.9748	0
61.8466	0
75.5901	0
82.4619	0
96.2055	0
103.077	0
116.821	0
123.693	0
130.565	0
144.196	0
151.011	0
164.642	0
171.391	0
185.012	0
191.884	0
205.628	0
212.377	0
226.121	0
232.97	9.09495e-13
246.667	2.72848e-12
253.516	3.63798e-12
260.365	4.54747e-12
274.062	6.36646e-12
280.911	8.18545e-12
294.609	1.27329e-11
301.457	1.54614e-11
315.155	2.36469e-11
322.003	2.91038e-11
335.604	4.27463e-11
342.452	5.18412e-11
355.887	7.54881e-11
362.605	9.09495e-11
376.04	1.30058e-10
382.757	1.54614e-10
396.192	2.1555e-10
402.909	2.53749e-10
416.23	3.47427e-10
422.833	4.04725e-10
436.04	5.42968e-10
442.643	6.25732e-10
455.85	8.24912e-10
462.454	9.43146e-10
475.672	1.22327e-09
482.287	1.38789e-09
495.517	1.77351e-09
502.132	1.99725e-09
515.362	2.51566e-09
521.973	2.81398e-09
534.757	3.47518e-09
541.15	3.85171e-09
553.935	4.70573e-09
560.327	5.18776e-09
573.112	6.27642e-09
585.902	7.5479e-09
592.299	8.26003e-09
605.094	9.85438e-09
611.491	1.0743e-08
624.286	1.27229e-08
630.683	1.38225e-08
643.478	1.62618e-08
656.27	1.90557e-08
662.666	2.05964e-08
675.458	2.39816e-08
681.854	2.58324e-08
694.646	2.98642e-08
701.024	3.20442e-08
713.781	3.67536e-08
720.159	3.92884e-08
732.915	4.47317e-08
745.671	5.06916e-08
752.049	5.3873e-08
764.805	6.06524e-08
771.183	6.42531e-08
783.938	7.18801e-08
790.316	7.59064e-08
803.072	8.43811e-08
815.828	9.34106e-08
822.206	9.81308e-08
834.962	1.07974e-07
841.34	1.13095e-07
854.095	1.23727e-07
860.473	1.29236e-07
873.227	1.40632e-07
885.98	1.52534e-07
892.357	1.58674e-07
905.111	1.71334e-07
911.488	1.77857e-07
924.242	1.91298e-07
930.62	1.98221e-07
943.376	2.12489e-07
956.131	2.27351e-07
962.509	2.35018e-07
975.264	2.50862e-07
981.642	2.59057e-07
994.397	2.76039e-07
1000.78	2.8485e-07
1013.53	3.0318e-07
1026.29	3.22559e-07
1032.66	3.32685e-07
1045.42	3.53914e-07
1051.8	3.65062e-07
1064.55	3.88547e-07
1070.93	4.00939e-07
1083.68	4.27169e-07
1090.06	4.41072e-07
1102.82	4.7063e-07
1115.57	5.02782e-07
1121.95	5.19936e-07
1134.71	5.56627e-07
1141.08	5.76262e-07
1153.84	6.18375e-07
1160.22	6.40965e-07
1172.97	6.89513e-07
1185.73	7.42983e-07
1192.1	7.71734e-07
1204.86	8.33642e-07
1211.24	8.66954e-07
1223.99	9.38709e-07
1230.37	9.77328e-07
1243.12	1.06052e-06
1255.88	1.1523e-06
1262.26	1.20167e-06
1275.01	1.30796e-06
1281.39	1.3651e-06
1294.14	1.48802e-06
1300.52	1.55407e-06
1313.28	1.696e-06
1325.98	1.85139e-06
1332.33	1.93472e-06
1345.03	2.11348e-06
1351.38	2.20925e-06
1364.08	2.41553e-06
1370.43	2.52651e-06
1383.13	2.76503e-06
1395.83	3.02656e-06
1402.18	3.16623e-06
1414.88	3.4639e-06
1421.23	3.62207e-06
1433.85	3.95536e-06
1440.12	4.1305e-06
1452.66	4.50023e-06
1465.2	4.89657e-06
1471.47	5.10499e-06
1484.01	5.54294e-06
1490.28	5.77275e-06
1502.81	6.25482e-06
1515.35	6.76796e-06
1521.62	7.03668e-06
1534.16	7.59948e-06
1540.43	7.89405e-06
1552.97	8.51086e-06
1565.51	9.16649e-06
1571.78	9.50968e-06
1584.32	1.02285e-05
1590.59	1.0605e-05
1603.12	1.13939e-05
1615.66	1.22338e-05
1621.93	1.26741e-05
1634.47	1.35979e-05
1640.74	1.40825e-05
1653.28	1.51e-05
1665.82	1.6186e-05
1672.09	1.67563e-05
1684.63	1.79549e-05
1690.89	1.85847e-05
1703.43	1.99091e-05
1715.97	2.13252e-05
1722.24	2.20696e-05
1734.78	2.36348e-05
1741.05	2.44569e-05
1753.59	2.61829e-05
1766.13	2.80216e-05
1772.39	2.89836e-05
1784.92	3.09978e-05
1791.19	3.20508e-05
1803.73	3.42506e-05
1810	3.53983e-05
1822.54	3.77919e-05
1835.07	4.0319e-05
1841.34	4.16349e-05
1853.88	4.43735e-05
1860.15	4.57976e-05
1872.69	4.87586e-05
1885.23	5.18753e-05
1891.49	5.34941e-05
1904.03	5.68571e-05
1910.3	5.86033e-05
1922.84	6.22301e-05
1935.38	6.60437e-05
1941.65	6.80236e-05
1954.19	7.2136e-05
1960.45	7.42713e-05
1972.99	7.87073e-05
1985.53	8.33739e-05
1991.8	8.57977e-05
2004.34	9.08346e-05
2010.61	9.34512e-05
2023.14	9.88901e-05
2035.68	0.000104616
2041.95	0.000107592
2054.49	0.000113779
2060.76	0.0001127
2073.3	0.000110956
2085.83	0.000109721
2092.1	0.00010928
2104.64	0.000108731
2110.91	0.000108614
2123.45	0.000108678
2135.99	0.000109116
2142.25	0.000109469
2154.79	0.000110428
2161.06	0.00011103
2173.6	0.000112472
2186.14	0.000114219
2192.41	0.000115205
2204.94	0.000117396
2211.21	0.0001186
2223.75	0.000121225
2230.02	0.000122645
2242.56	0.000125702
2255.1	0.000129051
2261.36	0.000130836
2273.9	0.000134632
2280.17	0.000136645
2292.71	0.000140907
2305.25	0.000145494
2311.52	0.000147912
2324.05	0.00015301
2330.32	0.000155692
2342.86	0.000161334
2355.4	0.00016736
2361.67	0.000170523
2374.21	0.00017716
2380.47	0.000180639
2393.01	0.000187933
2405.55	0.000195691
2411.82	0.000199752
2424.36	0.000208251
2430.62	0.000212693
2443.06	0.000221912
2455.51	0.00023161
2461.73	0.000236626
2474.17	0.000246975
2480.39	0.000252303
2492.84	0.000263258
2505.28	0.000274608
2511.5	0.000280431
2523.95	0.000292378
2530.17	0.000298503
2542.61	0.000311069
2555.06	0.00032407
2561.28	0.000330741
2573.72	0.000344439
2586.16	0.000358638
2592.39	0.000365937
2604.83	0.000380953
2611.05	0.000388682
2623.5	0.00040461
2635.94	0.000421204
2642.16	0.000429767
2654.6	0.000447458
2660.83	0.000456601
2673.27	0.000475513
2685.71	0.000495308
2691.93	0.000505552
2704.38	0.00052677
2710.6	0.000537755
2723.04	0.000560515
2735.49	0.000584371
2741.71	0.000596727
2754.15	0.000622332
2760.37	0.000635596
2772.82	0.000663087
2785.26	0.00069192
2791.48	0.000725259
2803.93	0.000792127
2810.15	0.00082553
2822.59	0.000891988
2835.03	0.000957821
2841.26	0.000990493
2853.7	0.00105541
2866.14	0.00111991
2872.36	0.00115209
2884.81	0.00121648
2891.03	0.00124878
2903.47	0.00131384
2915.91	0.00137985
2922.14	0.00141333
2934.58	0.00148155
2940.8	0.00151639
2953.24	0.00158781
2965.69	0.00166191
2971.91	0.00170011
2984.35	0.00177906
2990.57	0.00181993
3003.02	0.00190428
3015.46	0.00199157
3021.68	0.00203619
3034.12	0.00212727
3040.35	0.00217374
3052.79	0.00226859
3065.23	0.00236622
3071.45	0.00241619
3083.9	0.00251877
3090.12	0.00257151
3102.56	0.00268033
3115	0.00279425
3121.22	0.00285337
3133.67	0.00297639
3146.11	0.00310638
3152.33	0.00317419
3164.78	0.00331591
3171	0.00347936
3183.44	0.00379432
3195.88	0.00409156
3202.1	0.00423419
3214.55	0.00451073
3220.77	0.00464626
3233.21	0.00491625
3245.65	0.00519069
3251.88	0.0053317
3264.32	0.00562538
3270.54	0.00577965
3282.98	0.00609899
3295.43	0.00643032
3301.65	0.00660073
3314.09	0.00695347
3320.31	0.00713735
3332.75	0.00752518
3345.2	0.00794782
3351.42	0.00840621
3363.86	0.00931298
3370.08	0.00975396
3382.53	0.0106125
3394.97	0.0114884
3401.19	0.0119519
3413.63	0.0129587
3426.08	0.0140758
3432.3	0.014652
3444.74	0.0165058
3450.96	0.0175992
3463.41	0.0196843
3475.85	0.0218537
3482.07	0.0230209
3494.51	0.0255335
3500.73	0.0268658
3513.18	0.0298491
3525.62	0.0330942
3531.84	0.0347314
3544.29	0.0379566
3550.51	0.0395323
3562.95	0.0426233
3575.39	0.0456955
3581.62	0.0472485
3594.06	0.0504214
3600.28	0.0520482
3612.72	0.0553879
3625.17	0.0588443
3631.39	0.0606183
3643.83	0.0642668
3650.05	0.0661447
3662.5	0.0700128
3674.94	0.0740271
3681.16	0.0760849
3693.61	0.0802902
3706.05	0.0846011
3712.27	0.0867931
3724.71	0.0912493
3730.94	0.0935154
3743.38	0.0981315
3755.82	0.102874
3762.05	0.105298
3774.49	0.110265
3780.71	0.112812
3793.16	0.118042
3805.6	0.123463
3811.82	0.126249
3824.26	0.13197
3830.49	0.134907
3842.95	0.140936
3855.42	0.147172
3861.66	0.150363
3874.13	0.156893
3880.37	0.160233
3892.84	0.167062
3905.32	0.174098
3911.55	0.177697
3924.03	0.185061
3930.27	0.188829
3942.74	0.196546
3955.22	0.204511
3961.45	0.20859
3973.93	0.216946
3980.17	0.221224
3992.64	0.229981
4005.11	0.239006
4011.35	0.243618
4023.83	0.253036
4030.06	0.257841
4042.54	0.267633
4055.01	0.277659
4061.25	0.282755
4073.73	0.293101
4086.2	0.303637
4092.44	0.30897
4104.91	0.31975
4111.15	0.32519
4123.63	0.336154
4136.1	0.347199
4142.34	0.352741
4154.81	0.36384
4161.05	0.369385
4173.53	0.380437
4186	0.391397
4192.35	0.396926
4205.06	0.40784
4211.41	0.413209
4224.12	0.423731
4230.48	0.428867
4243.18	0.438845
4255.89	0.448375
4262.25	0.45295
4274.96	0.461673
4281.31	0.465802
4294.03	0.473549
4300.38	0.47715
4313.09	0.483757
4325.81	0.489511
4332.16	0.492046
4344.87	0.496384
4351.23	0.498171
4363.94	0.500934
4370.3	0.501894
4383.05	0.502933
4395.84	0.502732
4402.24	0.502145
4415.03	0.499966
4421.42	0.498359
4434.2	0.494092
4440.58	0.491422
4453.33	0.484983
4466.09	0.477051
4472.47	0.472518
4485.22	0.462305
4491.6	0.456623
4504.36	0.444101
4510.73	0.437261
4523.49	0.422429
4536.25	0.40607
4542.62	0.397325
4555.38	0.378719
4561.76	0.368866
4574.51	0.348088
4580.89	0.337175
4593.65	0.314332
4600.03	0.302416
4612.78	0.277632
4625.54	0.25165
4631.91	0.238243
4644.67	0.210603
4651.04	0.196357
4663.8	0.167084
4670.17	0.15213
4682.93	0.12189
4695.68	0.0914937
4702.06	0.0742854
4714.81	0.040812
4721.19	0.0254845
4733.94	-0.0041448
4740.32	-0.0168566
4753.08	-0.047147
4765.83	-0.0702464
4772.21	-0.0801076
4784.97	-0.0933222
4791.34	-0.099535
4804.1	-0.11225
4810.48	-0.118627
4823.23	-0.131027
4835.99	-0.12557
4842.37	-0.129911
4855.12	-0.140167
4861.5	-0.145301
4874.26	-0.154417
4880.63	-0.158507
4893.39	-0.165907
4906.15	-0.172371
4912.52	-0.17532
4925.28	-0.180809
4931.66	-0.183078
4944.41	-0.18756
4950.79	-0.189663
4963.55	-0.193747
4976.3	-0.197647
4982.68	-0.199525
4995.44	-0.203119
5001.81	-0.20483
5014.57	-0.208065
5020.95	-0.20959
5033.7	-0.200183
5040.08	-0.2016
5052.84	-0.204244
5065.59	-0.207522
5071.97	-0.209221
5084.73	-0.212225
5091.1	-0.213528
5103.86	-0.215798
5110.24	-0.216787
5122.99	-0.218515
5135.75	-0.219961
5142.13	-0.220592
5154.88	-0.221696
5161.26	-0.222177
5174.02	-0.223018
5180.4	-0.223385
5193.15	-0.224027
5205.85	-0.224563
5212.2	-0.224798
5224.9	-0.225055
5231.25	-0.225178
5243.95	-0.225442
5250.3	-0.225575
5263	-0.22578
5275.7	-0.225906
5282.05	-0.225957
5294.76	-0.226031
5301.11	-0.226055
5313.81	-0.226074
5320.16	-0.226069
5332.86	-0.226026
5345.56	-0.225942
5351.91	-0.225883
5364.45	-0.225735
5370.72	-0.225646
5383.25	-0.225436
5395.79	-0.225186
5402.06	-0.225043
5414.6	-0.220551
5420.87	-0.220592
5433.41	-0.220636
5445.95	-0.220633
5452.22	-0.220615
5464.76	-0.220544
5471.03	-0.220492
5483.57	-0.220352
5496.1	-0.220156
5502.37	-0.220038
5514.91	-0.219765
5521.18	-0.219611
5533.72	-0.219269
5546.26	-0.218883
5552.53	-0.218675
5565.07	-0.218229
5571.34	-0.217992
5583.88	-0.217491
5590.15	-0.217228
5602.68	-0.216676
5615.22	-0.216091
5621.49	-0.215787
5634.03	-0.215154
5640.3	-0.214826
5652.84	-0.214145
5665.38	-0.213432
5671.64	-0.213063
5684.18	-0.212301
5690.45	-0.211907
5702.99	-0.211096
5715.52	-0.210251
5721.79	-0.209816
5734.33	-0.208921
5740.6	-0.20846
5753.14	-0.207514
5765.68	-0.206532
5771.94	-0.206029
5784.48	-0.205008
5790.75	-0.204482
5803.29	-0.203402
5815.83	-0.202289
5822.1	-0.201719
5834.64	-0.200555
5840.91	-0.199959
5853.44	-0.198692
5865.98	-0.197392
5872.25	-0.196733
5884.79	-0.195396
5891.06	-0.19472
5903.6	-0.193354
5916.14	-0.191974
5922.41	-0.191279
5934.95	-0.18988
5941.22	-0.189177
5953.75	-0.187763
5960.02	-0.187052
5972.56	-0.185625
5985.1	-0.18419
5991.37	-0.183469
6003.91	-0.182022
6010.18	-0.181295
6022.72	-0.179835
6035.26	-0.178366
6041.53	-0.177629
6054.07	-0.176146
6060.33	-0.175401
6072.87	-0.173903
6085.41	-0.172394
6091.68	-0.171636
6104.22	-0.17011
6110.49	-0.169342
6123.03	-0.167798
6135.57	-0.166242
6141.84	-0.165459
6154.38	-0.169935
6160.64	-0.169471
6173.18	-0.168527
6185.72	-0.167449
6191.99	-0.16685
6204.53	-0.165648
6210.8	-0.165045
6223.34	-0.163546
6235.88	-0.161719
6242.15	-0.160792
6254.69	-0.158919
6260.96	-0.157976
6273.49	-0.156085
6286.03	-0.15419
6292.3	-0.153242
6304.84	-0.151347
6311.11	-0.150399
6323.65	-0.148505
6336.19	-0.146611
6342.46	-0.145663
6355	-0.143766
6361.27	-0.142817
6373.8	-0.140913
6380.07	-0.139958
6392.61	-0.138042
6405.15	-0.136116
6411.42	-0.135148
6423.96	-0.133201
6430.23	-0.132222
6442.77	-0.130252
6455.31	-0.128264
6461.58	-0.127263
6474.12	-0.125248
6480.38	-0.124237
6492.92	-0.122216
6505.46	-0.120199
6511.73	-0.119193
6524.21	-0.117196
6530.43	-0.116204
6542.87	-0.114224
6555.32	-0.112247
6561.54	-0.111259
6573.98	-0.109279
6580.21	-0.108286
6592.65	-0.10629
6605.09	-0.104277
6611.31	-0.103263
6623.76	-0.101216
6636.2	-0.0991409
6642.42	-0.0980921
6654.87	-0.0937902
6661.09	-0.0917733
6673.53	-0.0879927
6685.98	-0.0845033
6692.2	-0.0828463
6704.64	-0.0796624
6710.86	-0.078118
6723.31	-0.0750849
6735.75	-0.072081
6741.97	-0.0705755
6754.42	-0.0675343
6760.64	-0.065991
6773.08	-0.0628499
6785.53	-0.0596731
6791.75	-0.0580815
6804.19	-0.054894
6810.41	-0.0532948
6822.86	-0.0500703
6835.3	-0.0467846
6841.52	-0.0451087
6853.97	-0.0416734
6860.19	-0.0385699
6872.63	-0.032608
6885.07	-0.0269825
6891.3	-0.0242581
6903.74	-0.0188453
6916.18	-0.0133424
6922.41	-0.0105314
6934.85	-0.00478936
6941.07	-0.001902
6953.51	0.00371912
6965.96	0.0124849
6972.18	0.0162755
6984.62	0.023403
6990.84	0.0268921
7003.29	0.0338023
7015.73	0.0405446
7021.95	0.0440197
7034.4	0.0509892
7040.62	0.054204
7053.06	0.0597074
7065.51	0.0638499
7071.73	0.0654705
7084.17	0.0680523
7090.39	0.0691077
7102.84	0.0709244
7115.28	0.0724851
7121.5	0.0731981
7133.95	0.0745208
7140.17	0.075141
7152.61	0.0763347
7165.06	0.0775144
7171.28	0.0781137
7183.72	0.0793421
7196.16	0.0805919
7202.39	0.0812089
7214.83	0.0823836
7221.05	0.0829231
7233.5	0.0838677
7245.94	0.0846031
7252.16	0.0848897
7264.6	0.0853144
7270.83	0.0854636
7283.27	0.0856714
7295.71	0.085811
7301.93	0.0858744
7314.38	0.0860199
7320.6	0.0861112
7333.04	0.0863418
7345.49	0.0866314
7351.71	0.0867908
7364.15	0.0871136
7370.37	0.0872651
7382.82	0.0875181
7395.26	0.0876697
7401.48	0.0876973
7413.93	0.0876447
7420.15	0.0875629
7432.59	0.0872919
7445.04	0.0868917
7451.26	0.0866508
7463.7	0.0861069
7476.15	0.085509
7482.37	0.0852008
7494.81	0.084587
7501.03	0.084289
7513.48	0.0837274
7525.92	0.083228
7532.14	0.0830062
7544.59	0.0826229
7550.81	0.0824622
7563.25	0.0822017
7575.7	0.0820186
7581.92	0.081954
7594.36	0.0818734
7600.58	0.0818555
7613.03	0.0818594
7625.47	0.0819103
7631.69	0.0819512
7644.15	0.08206
7650.39	0.0821262
7662.86	0.082278
7675.34	0.0824488
7681.58	0.0825387
7694.05	0.082721
7700.29	0.0828107
7712.76	0.0829796
7725.24	0.0831241
7731.48	0.0831832
7743.95	0.0832673
7750.19	0.0832895
7762.66	0.0832874
7775.14	0.0832164
7781.38	0.083153
7793.85	0.0829682
7800.09	0.0828462
7812.56	0.0825432
7825.04	0.0821635
7831.27	0.0819462
7843.75	0.08146
7856.22	0.0809102
7862.46	0.0806137
7874.94	0.079982
7881.17	0.0796485
7893.65	0.0789511
7906.12	0.0782188
7912.36	0.0778416
7924.84	0.0770695
7931.07	0.0766761
7943.55	0.0758783
7956.02	0.0750706
7962.26	0.0746646
7974.74	0.0738509
7980.97	0.0734442
7993.45	0.0726324
8005.92	0.071824
8012.16	0.071421
8024.64	0.0706164
8030.87	0.070214
8043.35	0.069406
8055.82	0.0685889
8062.06	0.0681748
8074.54	0.0673301
8080.77	0.0668975
8093.25	0.0660061
8105.72	0.0650726
8111.96	0.0645874
8124.44	0.0635757
8130.67	0.0630474
8143.15	0.0619425
8155.62	0.0607695
8161.86	0.0601565
8174.33	0.0588764
8180.57	0.058209
8193.05	0.0568197
8205.52	0.0553583
8211.76	0.0546009
8224.23	0.0530341
8230.47	0.0522251
8242.95	0.050557
8255.42	0.0488231
8261.66	0.047932
8274.13	0.0461012
8280.37	0.0451616
8292.85	0.0432332
8305.32	0.0412375
8311.56	0.0402135
8324.03	0.0381103
8330.27	0.0370298
8342.75	0.0348056
8355.22	0.0324875
8361.46	0.0312888
8373.93	0.0287971
8380.17	0.0274956
8392.65	0.0247656
8405.12	0.0218644
8411.36	0.0203377
8423.83	0.0168766
8430.07	0.0149332
8442.55	0.0111711
8455.02	0.00724337
8461.26	0.00500586
8473.73	0.00138637
8486.21	-0.00168717
8492.44	-0.00289562
8504.92	-0.00501834
8511.16	-0.00608656
8523.63	-0.00823711
8536.11	-0.00790191
8542.34	-0.0081262
8554.82	-0.0101753
8561.06	-0.0111801
8573.53	-0.012999
8586.01	-0.014661
8592.24	-0.0154616
8604.72	-0.0171982
8610.96	-0.0180491
8623.43	-0.0199218
8635.91	-0.0216112
8642.14	-0.0224067
8654.62	-0.0239218
8660.86	-0.0246471
8673.33	-0.024074
8685.81	-0.0253141
8692.04	-0.0259116
8704.52	-0.0270666
8710.76	-0.0266646
8723.23	-0.0277993
8735.71	-0.0288998
8741.94	-0.0294061
8754.42	-0.030346
8760.66	-0.0307839
8773.13	-0.0316051
8785.61	-0.0323643
8791.84	-0.0327248
8804.32	-0.0334154
8810.56	-0.0337481
8823.03	-0.0343938
8835.51	-0.035019
8841.74	-0.035316
8854.22	-0.0359024
8860.46	-0.0361962
8872.93	-0.0367856
8885.41	-0.0374597
8891.64	-0.0378241
8904.12	-0.0385101
8910.35	-0.0388335
8922.83	-0.0394448
8935.3	-0.0400126
8941.54	-0.0402812
8954.02	-0.0407895
8960.25	-0.0410297
8972.73	-0.0414835
8985.2	-0.0419029
8991.44	-0.0421002
9003.92	-0.0424712
9010.15	-0.0426451
9022.63	-0.0394327
9035.1	-0.0396726
9041.34	-0.0397762
9053.82	-0.0399714
9060.05	-0.0400631
9072.53	-0.0402355
9085	-0.0403931
9091.24	-0.0404639
9103.72	-0.0405885
9116.19	-0.0406923
9122.43	-0.0407372
9134.9	-0.0408139
9141.14	-0.0408463
9153.62	-0.0409003
9166.09	-0.0409415
9172.33	-0.0409579
9184.8	-0.0409833
9191.04	-0.0409927
9203.52	-0.0410061
9215.99	-0.0410132
9222.23	-0.0410149
9234.7	-0.0410152
9240.94	-0.0410142
9253.42	-0.0410101
9265.89	-0.0410033
9272.13	-0.0409988
9284.6	-0.0409879
9290.84	-0.0409814
9303.32	-0.0409663
9315.79	-0.0409482
9322.03	-0.0409381
9334.5	-0.0409166
9340.74	-0.0409052
9353.22	-0.0409055
9365.69	-0.0408986
9371.93	-0.0408926
9384.4	-0.0408744
9390.64	-0.0408614
9403.11	-0.0408283
9415.59	-0.0407859
9421.83	-0.0407614
9434.3	-0.0407059
9440.54	-0.040675
9453.01	-0.0406849
9465.49	-0.0406791
9471.73	-0.0406706
9484.2	-0.0406431
9490.44	-0.0406243
9502.91	-0.040577
9515.39	-0.0405173
9521.63	-0.040483
9534.1	-0.0404059
9540.34	-0.0403633
9552.81	-0.0402701
9565.29	-0.0401666
9571.53	-0.0401113
9584	-0.0399933
9590.24	-0.0399309
9602.71	-0.0397993
9615.19	-0.0396589
9621.43	-0.0395856
9633.9	-0.0394327
9640.14	-0.0393532
9652.61	-0.0391885
9665.09	-0.0390161
9671.33	-0.0389272
9683.8	-0.038744
9690.04	-0.0386498
9702.51	-0.03798
9714.99	-0.0378191
9721.23	-0.0377384
9733.7	-0.0375763
9746.18	-0.0374128
9752.41	-0.0373304
9764.89	-0.0371643
9771.13	-0.0370804
9783.57	-0.0369112
9796.01	-0.0367392
9802.23	-0.0366517
9814.68	-0.036474
9820.9	-0.0363837
9833.34	-0.0361999
9845.79	-0.0360121
9852.01	-0.0359165
9864.45	-0.0357222
9870.68	-0.0356233
9883.12	-0.0354221
9895.56	-0.0352162
9901.78	-0.0351115
9914.23	-0.0348973
9920.45	-0.0347879
9932.89	-0.0328473
9945.34	-0.0325566
9951.56	-0.0324105
9964	-0.0321168
9970.22	-0.031969
9982.67	-0.0316717
9995.11	-0.0313718
10001.3	-0.0312207
10013.8	-0.0309163
10026.2	-0.0306087
10032.4	-0.0304537
10044.9	-0.0301412
10051.1	-0.0300235
10063.6	-0.0297853
10076	-0.029543
10082.2	-0.0294202
10094.7	-0.0291711
10100.9	-0.0290448
10113.3	-0.0287884
10125.8	-0.028527
10132	-0.0283943
10144.4	-0.0281248
10150.7	-0.0279881
10163.1	-0.0277105
10175.5	-0.0274273
10181.8	-0.0272837
10194.2	-0.0269922
10200.4	-0.0268443
10212.9	-0.0265444
10225.3	-0.026239
10231.5	-0.0260842
10244	-0.0257705
10250.2	-0.0256115
10262.7	-0.0252896
10275.1	-0.0249622
10281.3	-0.0247965
10293.8	-0.0244612
10306.2	-0.0241207
10312.4	-0.0239485
10324.9	-0.0236004
10331.1	-0.0234244
10343.5	-0.0230689
10356	-0.0227086
10362.2	-0.0225267
10374.6	-0.0221595
10380.9	-0.0219742
10393.3	-0.0216007
10405.8	-0.0212242
10412	-0.0210347
10424.4	-0.0206536
10430.6	-0.0204619
10443.1	-0.0200764
10455.5	-0.019688
10461.8	-0.0194939
10474.2	-0.0191068
10480.4	-0.0189137
10492.9	-0.0185279
10505.3	-0.0181426
10511.5	-0.01795
10524	-0.0175647
10530.2	-0.017372
10542.6	-0.0169514
10555.1	-0.0164997
10561.3	-0.0162758
10573.7	-0.0158314
10586.2	-0.0153913
10592.4	-0.0151727
10604.9	-0.0147383
10611.1	-0.0145225
10623.5	-0.0140934
10636	-0.0136678
10642.2	-0.0134562
10654.6	-0.0130355
10660.8	-0.0128263
10673.3	-0.0124102
10685.7	-0.011997
10692	-0.0117915
10704.4	-0.0113824
10710.6	-0.0111789
10723.1	-0.0107737
10735.5	-0.0103709
10741.7	-0.0101705
10754.2	-0.00977136
10760.4	-0.0095727
10772.8	-0.00917717
10785.3	-0.00878401
10791.5	-0.00858832
10804	-0.00819973
10810.2	-0.00800769
10822.6	-0.00762771
10835.1	-0.00725267
10841.3	-0.00706683
10853.7	-0.00669823
10866.2	-0.00633335
10872.4	-0.00615219
10884.8	-0.00579224
10891.1	-0.00561343
10903.5	-0.0052581
10915.9	-0.00490574
10922.2	-0.00473066
10934.6	-0.00438264
10940.8	-0.00420969
10953.3	-0.00383945
10965.7	-0.0034933
10971.9	-0.00332772
10984.4	-0.00300889
10990.6	-0.00285471
11003.1	-0.0025548
11015.5	-0.00226385
11021.7	-0.00212099
11034.2	-0.0018385
11040.4	-0.00169879
11052.9	-0.0014215
11065.4	-0.00114596
11071.6	-0.0010085
11084.1	-0.000733637
11090.3	-0.000596043
11103	-0.000314999
11115.7	-3.25387e-05
11122.1	0.000109351
11134.8	0.000392748
11141.2	0.000532113
11153.9	0.00080714
11160.2	0.000943189
11172.9	0.00121327
11185.7	0.00148173
11192	0.00161572
11204.7	0.00188393
11211.1	0.00201828
11223.8	0.00228763
11230.1	0.00242269
11242.9	0.00269383
11255.8	0.00297102
11262.3	0.00310942
11275.4	0.00338068
11282	0.0035145
11295.1	0.00378056
11301.7	0.00391337
11314.8	0.00417992
11321.3	0.0043141
11334.5	0.00458515
11341	0.00472228
11354.1	0.00500026
11360.7	0.00514127
11373.8	0.00542758
11380.4	0.00557292
11393.5	0.00586778
11400	0.00601702
11413.2	0.00631864
11426.3	0.0067404
11432.8	0.00696693
11445.9	0.00743725
11452.5	0.00767726
11465.6	0.00816073
11472.2	0.00840267
11485.3	0.00888321
11491.9	0.00912053
11505	0.00959491
11511.5	0.00983234
11524.6	0.0103084
11531.2	0.0105472
11544.3	0.0110263
11550.9	0.0112664
11564	0.0117465
11570.5	0.011986
11583.7	0.0124633
11590.2	0.0127013
11603.3	0.0131741
11616.5	0.014363
11623	0.0149456
11636.1	0.0160224
11642.7	0.0165133
11655.8	0.0174165
11662.4	0.0178364
11675.5	0.0188951
11682	0.0193763
11695.1	0.020221
11701.7	0.0206467
11714.8	0.0215432
11721.4	0.0220031
11734.5	0.0229138
11741.1	0.0233434
11754.2	0.0241786
11760.7	0.0245786
11773.8	0.0253583
11780.4	0.0257425
11793.5	0.0265099
11800.1	0.0268959
11813.2	0.027677
11826.3	0.0284731
11832.9	0.0288768
11846	0.0296942
11852.5	0.0301082
11865.7	0.0309466
11872.2	0.0313702
11885.3	0.0322207
11891.9	0.0326445
11905	0.0334792
11911.6	0.0338859
11924.7	0.0346694
11931.2	0.035044
11944.3	0.0357575
11950.9	0.0360972
11964	0.0367461
11970.6	0.037057
11983.7	0.0376563
11990.3	0.0379461
