0	0
16.3721	0
32.7437	0
49.1152	0
65.4867	0
81.8581	0
98.2296	0
114.601	0
130.973	0
147.344	0
163.716	0
180.088	0
196.46	0
212.832	0
229.204	-9.09495e-13
245.576	-1.81899e-12
261.948	-3.63798e-12
278.32	-7.27596e-12
294.692	-1.27329e-11
311.064	-2.09184e-11
327.436	-3.36513e-11
342.599	-5.09317e-11
357.761	-7.45786e-11
372.923	-1.05501e-10
388.086	-1.4461e-10
403.248	-1.92813e-10
418.411	-2.51021e-10
433.573	-3.18323e-10
448.735	-3.92902e-10
463.898	-4.72028e-10
479.06	-5.49335e-10
494.222	-6.15728e-10
509.385	-6.58474e-10
524.547	-6.58474e-10
539.709	-5.91172e-10
554.814	-4.24734e-10
569.919	-1.18234e-10
585.023	3.80169e-10
600.128	1.13323e-09
615.232	2.21826e-09
630.337	3.7262e-09
645.441	5.76529e-09
660.546	8.46376e-09
675.65	1.19726e-08
690.754	1.64673e-08
705.859	2.21517e-08
720.963	2.92621e-08
736.067	3.80733e-08
751.172	4.89017e-08
766.207	6.2053e-08
781.243	7.7981e-08
796.278	9.70658e-08
811.313	1.19675e-07
826.349	1.4618e-07
841.384	1.76971e-07
856.419	2.12466e-07
871.455	2.53122e-07
886.49	2.99444e-07
901.525	3.51873e-07
916.561	4.10818e-07
931.596	4.76673e-07
946.631	5.4984e-07
961.666	6.30743e-07
976.701	7.19846e-07
991.736	8.17663e-07
1006.77	9.24775e-07
1021.81	1.04184e-06
1036.84	1.16961e-06
1051.88	1.30893e-06
1066.91	1.46078e-06
1081.95	1.62627e-06
1096.98	1.80667e-06
1112.02	2.0034e-06
1127.05	2.21809e-06
1142.09	2.4526e-06
1157.12	2.70899e-06
1172.16	2.9896e-06
1187.19	3.297e-06
1202.23	3.63406e-06
1217.26	4.00389e-06
1232.3	4.40988e-06
1247.33	4.85571e-06
1262.36	5.34534e-06
1277.4	5.88304e-06
1292.43	6.47338e-06
1307.47	7.12128e-06
1322.5	7.832e-06
1337.54	8.61118e-06
1352.57	9.46486e-06
1367.61	1.03995e-05
1382.64	1.1422e-05
1397.68	1.25399e-05
1412.71	1.37611e-05
1427.74	1.50941e-05
1442.78	1.65482e-05
1457.81	1.81397e-05
1472.85	1.98868e-05
1487.88	2.18034e-05
1502.92	2.39007e-05
1517.95	2.61881e-05
1532.99	2.86739e-05
1548.02	3.13659e-05
1563.05	3.42714e-05
1578.09	3.73981e-05
1593.12	4.07541e-05
1608.16	4.43482e-05
1623.19	4.81905e-05
1638.23	5.22921e-05
1653.26	5.66659e-05
1668.29	6.13262e-05
1683.33	6.62895e-05
1698.36	7.15743e-05
1713.4	7.72012e-05
1728.43	8.31931e-05
1743.47	8.95756e-05
1758.5	9.63766e-05
1773.53	0.000103627
1788.57	0.000111359
1803.6	0.000119608
1818.64	0.000128402
1833.67	0.000137765
1848.71	0.000147716
1863.74	0.000158275
1878.78	0.000169464
1893.81	0.000181301
1908.85	0.000193811
1923.88	0.000207017
1938.91	0.000220947
1953.95	0.00023563
1968.98	0.000251102
1984.02	0.000267401
1999.05	0.00028457
2014.09	0.000302658
2029.12	0.00032172
2044.16	0.000341814
2059.19	0.000363006
2074.23	0.000385367
2089.26	0.000408972
2104.3	0.000433901
2119.33	0.000429239
2134.37	0.000426613
2149.4	0.000425806
2164.44	0.000426647
2179.47	0.000429005
2194.51	0.000432773
2209.54	0.00043787
2224.58	0.000444237
2239.62	0.000451835
2254.65	0.000460644
2269.69	0.00047066
2284.72	0.000481892
2299.76	0.000494364
2314.52	0.000507858
2329.28	0.000522622
2344.04	0.000538707
2358.8	0.000556173
2373.56	0.000575089
2388.32	0.000595528
2403.08	0.000617575
2417.84	0.000641317
2432.6	0.000666847
2447.36	0.000694267
2462.12	0.000723682
2476.88	0.000755203
2491.64	0.000789037
2506.4	0.000824896
2521.16	0.000862592
2535.92	0.00090201
2550.68	0.000943089
2565.44	0.000985816
2580.2	0.00103021
2594.96	0.00107632
2609.72	0.00112422
2624.48	0.00117403
2639.24	0.00122587
2654	0.0012799
2668.76	0.00133633
2683.52	0.00139537
2698.28	0.00145728
2713.04	0.00152232
2727.8	0.00159076
2742.56	0.00166287
2757.32	0.00173891
2772.08	0.00181916
2786.84	0.00190389
2801.6	0.00199338
2816.36	0.00219314
2831.12	0.00239303
2845.88	0.00259323
2860.64	0.00279127
2875.4	0.00298653
2890.16	0.00317942
2904.92	0.00337111
2919.68	0.00356319
2934.44	0.00375758
2949.2	0.00395634
2963.96	0.0041616
2978.72	0.00437553
2993.48	0.00460032
3008.24	0.0048382
3023	0.00509145
3037.76	0.00535922
3052.52	0.00563833
3067.28	0.00592794
3082.04	0.00622843
3096.8	0.00654097
3111.56	0.00686756
3126.32	0.00721097
3141.08	0.00757481
3155.84	0.00796337
3170.6	0.00838149
3185.36	0.00936321
3200.12	0.0103097
3214.88	0.0111875
3229.64	0.0120194
3244.4	0.0128413
3259.16	0.0136926
3273.92	0.0146082
3288.68	0.0156157
3303.44	0.0167348
3318.2	0.0179779
3332.96	0.0193518
3347.72	0.0208544
3362.48	0.0243361
3377.24	0.0274285
3391.99	0.030359
3406.75	0.0332614
3421.51	0.0362061
3436.27	0.0392251
3451.03	0.0423306
3465.79	0.0455258
3480.55	0.0488106
3495.31	0.0521854
3510.07	0.0556512
3524.83	0.0592103
3539.59	0.0628655
3554.35	0.0666197
3569.11	0.0704753
3583.87	0.074432
3598.63	0.0784864
3613.39	0.0826343
3628.15	0.0868722
3642.91	0.0911981
3657.67	0.0956115
3672.43	0.100113
3687.19	0.104703
3701.95	0.109381
3716.71	0.114145
3731.47	0.118993
3746.23	0.123919
3760.99	0.128917
3775.75	0.133977
3790.51	0.139092
3805.27	0.144249
3820.03	0.149439
3834.79	0.154648
3849.55	0.159865
3864.31	0.165076
3879.07	0.170267
3893.83	0.175425
3908.59	0.180536
3923.35	0.185585
3938.11	0.190558
3952.88	0.195439
3967.64	0.200214
3982.4	0.204867
3997.16	0.209383
4011.92	0.213745
4026.68	0.217937
4041.44	0.221941
4056.2	0.22574
4070.96	0.229317
4085.75	0.23266
4100.53	0.235745
4115.32	0.238553
4130.11	0.241068
4144.9	0.243271
4159.68	0.245148
4174.47	0.246681
4189.26	0.247857
4204.05	0.24866
4218.83	0.249079
4233.62	0.249101
4248.41	0.248717
4263.2	0.247918
4277.98	0.246695
4292.77	0.245044
4307.56	0.242959
4322.35	0.240437
4337.13	0.237477
4351.92	0.234079
4366.71	0.230244
4381.5	0.225975
4396.29	0.221274
4411.07	0.216147
4426.13	0.2105
4441.18	0.204426
4456.24	0.197935
4471.29	0.191039
4486.35	0.183748
4501.4	0.176074
4516.46	0.168032
4531.51	0.159638
4546.57	0.150914
4561.63	0.141885
4576.68	0.132585
4591.74	0.122981
4606.79	0.113073
4621.85	0.102894
4636.9	0.092511
4651.96	0.082015
4667.01	0.0715044
4682.07	0.0610716
4697.12	0.0507951
4712.18	0.0407372
4727.23	0.0264319
4742.29	0.0148706
4757.34	0.00445032
4772.4	-0.00496695
4787.46	-0.0135677
4802.51	-0.0215498
4817.57	-0.0289973
4832.62	-0.0359507
4847.68	-0.042435
4862.73	-0.0484704
4877.79	-0.0540766
4892.84	-0.0438616
4907.9	-0.0473944
4922.96	-0.051286
4938.01	-0.0549672
4953.07	-0.0601306
4968.12	-0.0645436
4983.18	-0.0684187
4998.23	-0.0719093
5013.29	-0.0751149
5028.34	-0.0781946
5043.4	-0.0811672
5058.46	-0.084045
5073.51	-0.0868326
5088.57	-0.0895283
5103.62	-0.0918936
5118.68	-0.0942344
5133.73	-0.096374
5148.79	-0.0983179
5163.84	-0.100092
5179.01	-0.101733
5194.17	-0.103247
5209.33	-0.104648
5224.49	-0.105948
5239.66	-0.107157
5254.82	-0.108282
5269.98	-0.109329
5285.14	-0.103537
5300.31	-0.104263
5315.47	-0.105401
5330.63	-0.106596
5345.79	-0.107631
5360.95	-0.108519
5376.12	-0.109243
5391.28	-0.109819
5406.38	-0.110264
5421.49	-0.110595
5436.59	-0.110829
5451.7	-0.110978
5466.8	-0.111056
5481.91	-0.111073
5497.01	-0.111037
5512.11	-0.110955
5527.22	-0.110833
5542.25	-0.110675
5557.29	-0.110486
5572.33	-0.110268
5587.36	-0.110023
5602.4	-0.109755
5617.43	-0.109464
5632.47	-0.109153
5647.5	-0.108823
5662.54	-0.108488
5677.57	-0.108111
5692.61	-0.107743
5707.64	-0.107378
5722.68	-0.107011
5737.71	-0.106628
5752.75	-0.106229
5767.78	-0.105815
5782.82	-0.105386
5797.86	-0.104942
5812.89	-0.104484
5827.93	-0.10401
5842.96	-0.103521
5858	-0.103018
5873.03	-0.102499
5888.07	-0.101965
5903.1	-0.101417
5918.14	-0.100853
5933.17	-0.100274
5948.21	-0.0996809
5963.24	-0.0990727
5978.28	-0.0984501
5993.32	-0.0978131
6008.35	-0.0971622
6023.39	-0.0964976
6038.42	-0.0976562
6053.46	-0.0973559
6068.49	-0.0970378
6083.53	-0.0967029
6098.56	-0.096233
6113.6	-0.0957564
6128.63	-0.0952727
6143.67	-0.0947811
6158.7	-0.0942809
6173.74	-0.0937715
6188.77	-0.093252
6203.81	-0.092718
6218.85	-0.0921698
6233.88	-0.0916077
6248.92	-0.091032
6263.95	-0.0904429
6278.99	-0.0898404
6294.02	-0.0892245
6309.06	-0.0885951
6324.09	-0.087952
6339.13	-0.0872951
6354.16	-0.0866244
6369.2	-0.0859398
6384.23	-0.0852411
6399.27	-0.0845284
6414.3	-0.0838016
6429.34	-0.0830606
6444.38	-0.0823057
6459.41	-0.0815368
6474.45	-0.0807542
6489.48	-0.0799578
6504.52	-0.0791478
6519.55	-0.0783243
6534.59	-0.0774874
6549.62	-0.0766371
6564.66	-0.075773
6579.69	-0.0748969
6594.73	-0.0740097
6609.76	-0.0731139
6624.8	-0.0722114
6639.84	-0.0713038
6654.87	-0.0703921
6669.91	-0.069477
6684.94	-0.068559
6699.98	-0.0676384
6715.01	-0.0667152
6730.05	-0.0657893
6745.08	-0.0648603
6760.12	-0.063928
6775.15	-0.062992
6790.19	-0.0620517
6805.22	-0.0611066
6820.26	-0.0601565
6835.29	-0.0592008
6850.33	-0.0582392
6865.37	-0.0572716
6880.4	-0.0562977
6895.44	-0.0553176
6910.47	-0.0541165
6925.51	-0.0529304
6940.54	-0.0517578
6955.58	-0.0494558
6970.61	-0.0472906
6985.65	-0.0452579
7000.68	-0.0433484
7015.72	-0.0415494
7030.75	-0.0398467
7045.79	-0.0382255
7060.83	-0.0366725
7075.86	-0.0351752
7090.9	-0.0337222
7105.93	-0.0323034
7120.97	-0.0309097
7136	-0.0295331
7151.04	-0.0281672
7166.07	-0.0268069
7181.11	-0.0254481
7196.14	-0.0240881
7211.18	-0.0227246
7226.21	-0.0213563
7241.25	-0.0199824
7256.28	-0.0186152
7271.32	-0.0172614
7286.36	-0.0159243
7301.39	-0.0146043
7316.43	-0.0133006
7331.46	-0.0120105
7346.5	-0.0107311
7361.53	-0.0094592
7376.57	-0.00819179
7391.6	-0.00692639
7406.64	-0.0056612
7421.67	-0.00439514
7436.71	-0.00172102
7451.74	0.000599968
7466.78	0.00266901
7481.82	0.00452105
7496.85	0.00622317
7511.89	0.00781775
7526.92	0.00934058
7541.96	0.0108198
7556.99	0.0122745
7572.03	0.0137143
7587.06	0.0151413
7602.1	0.0165516
7617.13	0.0179404
7632.17	0.0191813
7647.2	0.0203731
7662.24	0.0220446
7677.28	0.0235556
7692.31	0.0250114
7707.35	0.0264128
7722.38	0.0277341
7737.42	0.0289503
7752.45	0.0300451
7767.49	0.0310281
7782.52	0.0318904
7797.56	0.0326223
7812.59	0.0332177
7827.35	0.033666
7842.11	0.0339817
7856.87	0.0341685
7871.64	0.0342319
7886.4	0.0341775
7901.16	0.0340116
7915.92	0.0337409
7930.68	0.033373
7945.44	0.0329187
7960.2	0.0323894
7974.96	0.0317961
7989.72	0.0311484
8004.48	0.0304549
8019.24	0.0297222
8034	0.028956
8048.76	0.0281608
8063.52	0.0273409
8078.28	0.0265005
8093.04	0.0256439
8107.8	0.0247749
8122.56	0.0238971
8137.32	0.0230134
8152.08	0.0221262
8166.84	0.021237
8181.6	0.0203464
8196.36	0.0194541
8211.12	0.0185593
8225.88	0.0176605
8240.64	0.0167562
8255.4	0.0158448
8270.16	0.0149122
8284.92	0.0139497
8299.68	0.0129558
8314.44	0.0119355
8329.2	0.010195
8343.96	0.00884154
8358.72	0.00762994
8373.48	0.00653524
8388.24	0.00552462
8403	0.00457893
8417.76	0.00368611
8432.52	0.00283844
8447.28	0.00389338
8462.04	0.00336028
8476.8	0.00300353
8491.57	0.00238723
8506.33	0.00160087
8521.09	0.000930229
8535.85	0.000332372
8550.61	-0.000222342
8565.37	-0.000747093
8580.13	-0.00126632
8594.89	-0.00184007
8609.65	-0.00239635
8624.41	-0.00296384
8639.17	-0.00353349
8653.93	-0.00415785
8668.69	-0.00474314
8683.45	-0.0052989
8698.21	-0.00583178
8712.97	-0.0063275
8727.73	-0.00679706
8742.49	-0.00583107
8757.25	-0.00558997
8772.01	-0.0059292
8786.77	-0.00633532
8801.53	-0.00671487
8816.29	-0.00707191
8831.05	-0.00740786
8845.81	-0.00771181
8860.57	-0.00799057
8875.33	-0.00824631
8890.09	-0.00848099
8904.85	-0.00869642
8919.61	-0.00889421
8934.37	-0.00907587
8949.13	-0.00924273
8963.89	-0.009396
8978.65	-0.00953672
8993.41	-0.00966839
9008.17	-0.00979126
9022.93	-0.00990557
9037.69	-0.0100115
9052.45	-0.0101091
9067.21	-0.0101987
9081.97	-0.0102801
9096.74	-0.0103537
9111.5	-0.0104193
9126.26	-0.0104759
9141.02	-0.0105271
9155.78	-0.0105716
9170.54	-0.00767893
9185.3	-0.00963455
9200.06	-0.00961734
9214.82	-0.0095973
9229.58	-0.00957442
9244.34	-0.00954868
9259.1	-0.00952013
9273.86	-0.00948878
9288.62	-0.00945469
9303.38	-0.00941791
9318.14	-0.0093785
9332.9	-0.00933749
9347.66	-0.00929478
9362.42	-0.00925034
9377.18	-0.00920413
9391.94	-0.00915613
9406.7	-0.00910635
9421.46	-0.00905479
9436.22	-0.00900148
9450.98	-0.00894644
9465.74	-0.0088897
9480.5	-0.0088313
9495.26	-0.00877127
9510.02	-0.00870966
9524.78	-0.00864651
9539.54	-0.00858186
9554.3	-0.00851576
9569.06	-0.00844825
9583.82	-0.00837937
9598.58	-0.00830875
9613.34	-0.00823653
9628.1	-0.00816283
9642.86	-0.00808776
9657.63	-0.0080114
9672.39	-0.00793383
9687.15	-0.00785512
9701.91	-0.00777533
9716.67	-0.0076945
9731.43	-0.00761267
9746.19	-0.00752988
9760.95	-0.00744615
9775.71	-0.00736152
9790.47	-0.007276
9805.23	-0.00718961
9819.99	-0.00710237
9834.78	-0.00701413
9849.56	-0.00692505
9864.35	-0.00683516
9879.14	-0.00674445
9893.93	-0.00665294
9908.72	-0.00656063
9923.5	-0.00646755
9938.29	-0.00637849
9953.08	-0.00628868
9967.87	-0.00619811
9982.65	-0.00610675
9997.44	-0.0060146
10012.2	-0.00592166
10027	-0.00582792
10041.8	-0.00573338
10056.6	-0.005638
10071.4	-0.00554176
10086.2	-0.00544469
10101	-0.00534677
10115.7	-0.00524804
10130.5	-0.00514851
10145.3	-0.0050482
10160.1	-0.00494714
10174.9	-0.00484536
10189.7	-0.00474288
10204.5	-0.00463974
10219.3	-0.00453598
10234	-0.00443162
10248.8	-0.00432671
10263.6	-0.00422129
10278.4	-0.0041154
10293.2	-0.00400908
10308	-0.00390238
10322.8	-0.00379533
10337.6	-0.00368798
10352.3	-0.00358038
10367.1	-0.00347258
10381.9	-0.00336462
10396.7	-0.00325654
10411.5	-0.00314841
10426.3	-0.00304025
10441.1	-0.00293213
10455.9	-0.00282409
10470.6	-0.00271618
10485.4	-0.00260845
10500.2	-0.00250095
10515	-0.00239372
10529.8	-0.00228683
10544.6	-0.00218031
10559.4	-0.00207421
10574.2	-0.00196858
10588.9	-0.00186348
10603.7	-0.00175893
10618.5	-0.00165499
10633.6	-0.00154984
10648.6	-0.00144541
10663.7	-0.00134178
10678.7	-0.00123898
10693.8	-0.00113615
10708.9	-0.00103347
10723.9	-0.00093114
10739	-0.000829343
10754	-0.000728239
10769.1	-0.000627979
10784.1	-0.000528703
10799.2	-0.000430539
10814.2	-0.000333607
10829.3	-0.000238019
10844.4	-0.000143891
10859.4	-5.13308e-05
10874.5	3.95598e-05
10889.5	0.000128688
10904.6	0.000215966
10920.1	0.000303779
10935.6	0.000389471
10951.1	0.000472966
10966.5	0.000554197
10982	0.0006331
10997.5	0.000709617
11013	0.000783695
11028.5	0.000855287
11044	0.000924349
11059.5	0.000990841
11075	0.00105473
11090.5	0.00111598
11106.8	0.00117758
11123	0.00123621
11139.3	0.00129184
11155.6	0.00134445
11171.9	0.00139403
11188.2	0.00144057
11204.5	0.00148405
11220.8	0.00152447
11237.1	0.00156182
11253.3	0.00159612
11269.6	0.00162736
11285.9	0.00165555
11302.2	0.00168069
11318.5	0.00170282
11334.8	0.00172193
11351.1	0.00173805
11367.4	0.00175121
11383.6	0.00176142
11399.9	0.00176871
11416.2	0.00177311
11432.5	0.00177466
11448.8	0.00177339
11465.1	0.00176933
11481.4	0.00176251
11498.2	0.00175267
11515	0.00173998
11531.9	0.00172449
11548.7	0.00170624
11565.5	0.00168528
11582.4	0.00166166
11599.2	0.00163545
11616	0.00160667
11632.8	0.00157541
11649.7	0.00154169
11666.5	0.00150559
11683.3	0.00146716
11700.2	0.00142645
11716.8	0.00138392
11733.5	0.00133927
11750.2	0.00129254
11766.9	0.00124381
11783.5	0.00119312
11800.2	0.00114053
11816.9	0.0010861
11833.6	0.00102987
11850.2	0.000971915
11866.9	0.000912279
11883.6	0.000851019
11900.3	0.000788191
11916.9	0.000723847
11933.6	0.000658043
11950.3	0.000590832
11966.9	0.000522267
11983.6	0.000452401
