0	0
14.6167	0
21.9251	0
36.5419	0
43.8502	0
51.1586	0
65.7753	0
73.0837	0
80.3921	0
95.0088	0
102.317	0
116.934	0
124.242	0
131.551	0
146.167	0
153.476	0
160.784	0
175.401	0
182.709	0
190.018	0
204.634	0
211.943	0
226.56	0
233.868	0
241.176	0
255.793	0
263.101	0
270.41	0
285.026	0
292.335	0
306.952	0
314.26	0
321.568	0
336.185	0
343.493	0
350.802	0
365.419	0
372.727	0
380.035	0
394.652	0
401.96	0
416.577	0
423.886	0
431.194	0
445.811	0
453.119	0
460.427	0
475.044	0
482.352	0
496.969	0
504.278	0
511.586	0
526.203	0
533.511	0
540.819	0
555.436	0
562.745	0
570.053	0
584.67	0
591.978	0
606.595	0
613.903	0
621.212	0
635.828	0
643.137	0
650.445	0
665.062	0
672.37	0
686.987	0
694.295	0
701.604	0
716.22	0
723.529	0
730.837	0
745.454	0
752.762	0
760.071	0
774.687	0
781.996	0
796.612	0
803.921	0
811.229	0
825.846	0
833.154	0
840.463	0
855.079	0
862.388	0
877.005	0
884.313	0
891.621	0
906.238	0
913.546	0
920.855	0
935.472	0
942.78	0
950.088	0
964.705	0
972.013	0
986.63	0
993.938	0
1001.25	0
1015.86	0
1023.17	0
1030.48	0
1045.1	0
1052.41	0
1067.02	0
1074.33	0
1081.64	0
1096.26	0
1103.56	0
1110.87	0
1125.49	0
1132.8	0
1140.11	0
1154.72	0
1162.03	0
1176.65	0
1183.96	0
1191.26	0
1205.88	0
1213.19	0
1220.5	0
1235.11	0
1242.42	0
1257.04	0
1264.35	0
1271.66	0
1286.27	0
1293.58	0
1300.89	0
1315.51	0
1322.82	0
1330.12	0
1344.74	0
1352.05	0
1366.67	0
1373.97	0
1381.28	0
1395.9	0
1403.21	0
1410.52	0
1425.13	0
1432.44	0
1447.06	0
1454.37	0
1461.67	0
1476.29	0
1483.6	0
1490.91	0
1505.52	0
1512.83	0
1520.14	0
1534.76	0
1542.07	0
1556.68	0
1563.99	0
1571.3	0
1585.92	0
1593.22	0
1600.53	0
1615.15	0
1622.46	0
1637.07	0
1644.38	0
1651.69	0
1666.31	0
1673.62	0
1680.92	-9.09495e-13
1695.54	-9.09495e-13
1702.85	-9.09495e-13
1710.16	0
1724.77	0
1732.08	0
1746.7	0
1754.01	0
1761.32	0
1775.93	0
1783.24	0
1790.55	0
1805.17	0
1812.47	0
1827.09	0
1834.4	0
1841.71	0
1856.32	0
1863.63	0
1870.94	0
1885.56	0
1892.87	0
1900.17	0
1914.79	0
1922.1	0
1936.71	-9.09495e-13
1944.02	-9.09495e-13
1951.33	-9.09495e-13
1965.95	-9.09495e-13
1973.26	-9.09495e-13
1980.56	0
1995.18	0
2002.49	0
2017.1	0
2024.41	0
2031.72	0
2046.34	0
2053.65	0
2060.95	0
2075.57	0
2082.88	0
2090.19	0
2104.8	0
2112.11	0
2126.73	0
2134.04	0
2141.34	0
2155.96	0
2163.27	0
2170.58	0
2185.19	0
2192.5	0
2207.12	0
2214.42	0
2221.73	0
2236.35	0
2243.66	0
2250.96	0
2265.58	0
2272.89	0
2280.2	0
2294.81	0
2302.12	0
2316.74	0
2324.05	0
2331.35	0
2345.97	0
2353.28	0
2360.59	0
2375.2	0
2382.51	0
2397.13	0
2404.43	0
2411.74	0
2426.36	0
2433.66	0
2440.97	0
2455.59	0
2462.9	0
2470.2	0
2484.82	0
2492.13	0
2506.74	0
2514.05	0
2521.36	0
2535.98	0
2543.28	0
2550.59	0
2565.21	0
2572.52	0
2587.13	0
2594.44	0
2601.75	9.09495e-13
2616.36	1.81899e-12
2623.67	2.72848e-12
2630.98	3.63798e-12
2645.59	8.18545e-12
2652.9	1.18234e-11
2660.21	1.72804e-11
2674.83	3.36513e-11
2682.13	4.63842e-11
2696.75	8.91305e-11
2704.06	1.21872e-10
2711.36	1.65528e-10
2725.98	3.00133e-10
2733.29	4.01997e-10
2740.6	5.37511e-10
2755.21	9.44056e-10
2762.52	1.24328e-09
2777.14	2.13277e-09
2784.44	2.77669e-09
2791.75	3.6016e-09
2806.37	5.99357e-09
2813.68	7.68887e-09
2820.98	9.82709e-09
2835.6	1.58816e-08
2842.91	2.00826e-08
2850.22	2.53058e-08
2864.83	3.97695e-08
2872.14	4.96029e-08
2886.76	7.63985e-08
2894.06	9.43492e-08
2901.37	1.16142e-07
2915.99	1.74318e-07
2923.3	2.12557e-07
2930.6	2.58385e-07
2945.22	3.78338e-07
2952.53	4.55756e-07
2967.14	6.55543e-07
2974.45	7.82791e-07
2981.76	9.32074e-07
2996.38	1.31037e-06
3003.69	1.54724e-06
3010.99	1.82196e-06
3025.61	2.50611e-06
3032.92	2.92757e-06
3040.23	3.411e-06
3054.84	4.59506e-06
3062.15	5.31313e-06
3076.77	7.05092e-06
3084.08	8.09295e-06
3091.38	9.26673e-06
3106	1.20641e-05
3113.31	1.37172e-05
3120.62	1.55613e-05
3135.23	1.98922e-05
3142.54	2.24162e-05
3157.16	2.82817e-05
3164.47	3.1666e-05
3171.77	3.53812e-05
3186.39	4.3899e-05
3193.7	4.87508e-05
3201.01	5.40315e-05
3215.62	6.59843e-05
3222.93	7.27094e-05
3230.24	7.99696e-05
3244.86	9.62032e-05
3252.17	0.000105231
3266.78	0.00012524
3274.09	0.000136274
3281.4	0.000148028
3296.02	0.000173792
3303.33	0.000187848
3310.63	0.000202715
3325.25	0.000234963
3332.56	0.000252378
3347.18	0.000289871
3354.48	0.000309973
3361.79	0.000330994
3376.41	0.000375821
3383.72	0.000399637
3391.03	0.000424393
3405.64	0.00047672
3412.95	0.000504286
3420.26	0.000532779
3434.88	0.000592514
3442.18	0.000623735
3456.8	0.000688819
3464.11	0.000722651
3471.42	0.000757321
3486.03	0.000829096
3493.34	0.000866163
3500.65	0.000903988
3515.27	0.000981833
3522.58	0.00102181
3537.19	0.00110378
3544.5	0.00114574
3551.81	0.00118832
3566.43	0.00127533
3573.73	0.00131973
3581.04	0.00136472
3595.66	0.00145651
3602.97	0.00150333
3610.27	0.00155078
3624.89	0.00164773
3632.2	0.00169731
3646.82	0.00179898
3654.12	0.00185123
3661.43	0.00190455
3676.05	0.0020149
3683.36	0.00207224
3690.67	0.00213125
3705.28	0.00225521
3712.59	0.00232067
3727.21	0.00246012
3734.52	0.00253486
3741.82	0.00261353
3756.44	0.00278471
3763.75	0.00287841
3771.06	0.00297841
3785.67	0.00320053
3792.98	0.00332445
3800.29	0.00345831
3814.91	0.0037606
3822.22	0.0039317
3836.83	0.00432151
3844.14	0.00454374
3851.45	0.0047868
3866.07	0.00534434
3873.37	0.00566376
3880.68	0.00601392
3895.3	0.00681876
3902.61	0.00728016
3917.22	0.00833968
3924.53	0.00894609
3931.84	0.00960963
3946.46	0.0111278
3953.77	0.0119931
3961.07	0.0129369
3975.69	0.0150844
3983	0.0163013
3990.31	0.017623
4004.92	0.0206102
4012.23	0.0222914
4026.85	0.0260697
4034.16	0.028184
4041.47	0.0304603
4056.08	0.0355352
4063.39	0.0383525
4070.7	0.0413689
4085.31	0.048037
4092.62	0.0517077
4107.24	0.0597694
4114.55	0.0641785
4121.86	0.0688516
4136.47	0.0790232
4143.78	0.0845373
4151.09	0.0903466
4165.71	0.102876
4173.01	0.109607
4180.32	0.116654
4194.94	0.131714
4202.25	0.139729
4216.86	0.156734
4224.17	0.165721
4231.48	0.175027
4246.1	0.194579
4253.41	0.204812
4260.71	0.215339
4275.33	0.237234
4282.64	0.248579
4297.26	0.271991
4304.56	0.284026
4311.87	0.296256
4326.49	0.32122
4333.8	0.33391
4341.11	0.346708
4355.72	0.372526
4363.03	0.385492
4370.34	0.398459
4384.96	0.424278
4392.26	0.43707
4406.88	0.46226
4414.19	0.474596
4421.5	0.486714
4436.11	0.510172
4443.42	0.521445
4450.73	0.532372
4465.35	0.55306
4472.66	0.562758
4487.27	0.580714
4494.58	0.588914
4501.89	0.596558
4516.51	0.610079
4523.81	0.615908
4531.12	0.621085
4545.74	0.629408
4553.05	0.632518
4560.36	0.634906
4574.97	0.637464
4582.28	0.637614
4596.9	0.635618
4604.21	0.633462
4611.51	0.630531
4626.13	0.622348
4633.44	0.617103
4640.75	0.611095
4655.36	0.596827
4662.67	0.588589
4677.29	0.569967
4684.6	0.559616
4691.91	0.548595
4706.52	0.524622
4713.83	0.511714
4721.14	0.498222
4735.76	0.469585
4743.06	0.454492
4750.37	0.43892
4764.99	0.40645
4772.3	0.38961
4786.91	0.354873
4794.22	0.337036
4801.53	0.318928
4816.15	0.282024
4823.46	0.26329
4830.76	0.24441
4845.38	0.206335
4852.69	0.187201
4867.31	0.148892
4874.61	0.129774
4881.92	0.110721
4896.54	0.0729146
4903.85	0.0542165
4911.16	0.0356898
4925.77	-0.000749722
4933.08	-0.0186148
4940.39	-0.036213
4955.01	-0.0705231
4962.31	-0.0871945
4976.93	-0.119476
4984.24	-0.135052
4991.55	-0.15023
5006.16	-0.179335
5013.47	-0.193235
5020.78	-0.206685
5035.4	-0.232192
5042.71	-0.244232
5050.01	-0.255785
5064.63	-0.277409
5071.94	-0.287471
5086.56	-0.306074
5093.86	-0.314613
5101.17	-0.322642
5115.79	-0.337174
5123.1	-0.34368
5130.41	-0.349684
5145.02	-0.360201
5152.33	-0.364724
5166.95	-0.37233
5174.26	-0.375428
5181.57	-0.378066
5196.18	-0.382001
5203.49	-0.383316
5210.8	-0.384211
5225.42	-0.384783
5232.72	-0.384483
5240.03	-0.383809
5254.65	-0.381389
5261.96	-0.379669
5276.57	-0.375276
5283.88	-0.37263
5291.19	-0.369702
5305.81	-0.363059
5313.12	-0.359372
5320.42	-0.35546
5335.04	-0.347016
5342.35	-0.342513
5356.97	-0.333012
5364.27	-0.328042
5371.58	-0.322942
5386.2	-0.31241
5393.51	-0.307002
5400.82	-0.301517
5415.43	-0.290361
5422.74	-0.284715
5430.05	-0.279037
5444.67	-0.267631
5451.97	-0.261924
5466.59	-0.25055
5473.9	-0.244902
5481.21	-0.239291
5495.82	-0.228213
5503.13	-0.222762
5510.44	-0.217379
5525.06	-0.206844
5532.37	-0.201703
5546.98	-0.191705
5554.29	-0.186857
5561.6	-0.182116
5576.22	-0.17297
5583.52	-0.168571
5590.83	-0.164294
5605.45	-0.156111
5612.76	-0.152211
5620.07	-0.148439
5634.68	-0.141289
5641.99	-0.137913
5656.61	-0.13156
5663.92	-0.128583
5671.22	-0.125739
5685.84	-0.120448
5693.15	-0.117999
5700.46	-0.11568
5715.07	-0.111425
5722.38	-0.109486
5737	-0.105975
5744.31	-0.104398
5751.62	-0.102938
5766.23	-0.100355
5773.54	-0.0992276
5780.85	-0.0982053
5795.47	-0.0964641
5802.77	-0.0957387
5810.08	-0.0951058
5824.7	-0.0941034
5832.01	-0.0937267
5846.63	-0.0932045
5853.93	-0.0930515
5861.24	-0.0929654
5875.86	-0.0929789
5883.17	-0.0930706
5890.48	-0.0932139
5905.09	-0.0936392
5912.4	-0.0939133
5927.02	-0.0945652
5934.33	-0.0949351
5941.63	-0.0953291
5956.25	-0.0961745
5963.56	-0.0966182
5970.87	-0.0970711
5985.48	-0.0979897
5992.79	-0.0984483
6000.1	-0.0989019
6014.72	-0.0997807
6022.02	-0.100199
6036.64	-0.10098
6043.95	-0.101336
6051.26	-0.101665
6065.87	-0.102233
6073.18	-0.102467
6080.49	-0.102665
6095.11	-0.102941
6102.42	-0.103016
6117.03	-0.10303
6124.34	-0.102966
6131.65	-0.102853
6146.27	-0.102474
6153.57	-0.102206
6160.88	-0.101885
6175.5	-0.101079
6182.81	-0.100594
6190.12	-0.100054
6204.73	-0.0988056
6212.04	-0.0980983
6226.66	-0.0965182
6233.97	-0.0956462
6241.27	-0.0947203
6255.89	-0.09271
6263.2	-0.0916273
6270.51	-0.0904942
6285.12	-0.0880816
6292.43	-0.0868046
6307.05	-0.0841163
6314.36	-0.082708
6321.66	-0.0812592
6336.28	-0.0782467
6343.59	-0.0766866
6350.9	-0.0750931
6365.51	-0.0718137
6372.82	-0.0701318
6380.13	-0.0684244
6394.75	-0.0649415
6402.06	-0.0631703
6416.67	-0.0595788
6423.98	-0.0577628
6431.29	-0.0559362
6445.91	-0.0522596
6453.21	-0.050414
6460.52	-0.0485662
6475.14	-0.0448728
6482.45	-0.0430313
6497.06	-0.0393687
6504.37	-0.0375517
6511.68	-0.0357467
6526.3	-0.0321806
6533.6	-0.0304231
6540.91	-0.0286851
6555.53	-0.0252742
6562.84	-0.0236048
6570.15	-0.0219614
6584.76	-0.0187591
6592.07	-0.0172031
6606.69	-0.0141883
6614	-0.0127321
6621.3	-0.0113117
6635.92	-0.00858274
6643.23	-0.00727637
6650.54	-0.00601006
6665.15	-0.00360126
6672.46	-0.00246044
6687.08	-0.000309632
6694.39	0.000699047
6701.69	0.00166248
6716.31	0.00345171
6723.62	0.0042767
6730.93	0.00505485
6745.54	0.00646969
6752.85	0.00710608
6760.16	0.00769503
6774.78	0.00873065
6782.09	0.00917753
6796.7	0.00993036
6804.01	0.0102369
6811.32	0.0104973
6825.94	0.0108815
6833.24	0.0110064
6840.55	0.0110872
6855.17	0.0111194
6862.48	0.0110723
6877.09	0.0108559
6884.4	0.0106884
6891.71	0.0104826
6906.33	0.00996052
6913.64	0.00964642
6920.94	0.00929851
6935.56	0.00850617
6942.87	0.0080643
6950.18	0.00759374
6964.79	0.00657208
6972.1	0.00602384
6986.72	0.00485991
6994.03	0.00424725
7001.34	0.0036162
7015.95	0.00230523
7023.26	0.00162852
7030.57	0.000939832
7045.18	-0.000466903
7052.49	-0.00118164
7067.11	-0.0026255
7074.42	-0.00335129
7081.73	-0.00407742
7096.34	-0.00552403
7103.65	-0.00624119
7110.96	-0.00695207
7125.58	-0.00834845
7132.88	-0.00903074
7140.19	-0.0097003
7154.81	-0.0109951
7162.12	-0.0116172
7176.74	-0.0128036
7184.04	-0.013365
7191.35	-0.0139034
7205.97	-0.0149054
7213.28	-0.0153665
7220.59	-0.0157993
7235.2	-0.0165754
7242.51	-0.0169164
7257.13	-0.017499
7264.44	-0.0177386
7271.74	-0.0179425
7286.36	-0.0182397
7293.67	-0.0183314
7300.98	-0.0183843
7315.59	-0.0183708
7322.9	-0.0183034
7330.21	-0.0181947
7344.83	-0.0178523
7352.14	-0.0176179
7366.75	-0.0170211
7374.06	-0.0166585
7381.37	-0.016253
7395.99	-0.0153131
7403.29	-0.0147789
7410.6	-0.014202
7425.22	-0.0129213
7432.53	-0.012218
7447.14	-0.0106877
7454.45	-0.00986161
7461.76	-0.00899565
7476.38	-0.0071466
7483.69	-0.00616494
7490.99	-0.0051462
7505.61	-0.0030009
7512.92	-0.00187616
7520.23	-0.00071797
7534.84	0.00169457
7542.15	0.00294674
7556.77	0.00553713
7564.08	0.00687292
7571.39	0.00823409
7586	0.0110274
7593.31	0.0124568
7600.62	0.0139062
7615.24	0.0168595
7622.54	0.0183604
7637.16	0.0214035
7644.47	0.0229426
7651.78	0.0244916
7666.39	0.0276126
7673.7	0.0291817
7681.01	0.0307544
7695.63	0.0339047
7702.94	0.0354793
7710.24	0.0370515
7724.86	0.0401828
7732.17	0.041739
7746.79	0.0448253
7754.09	0.0463525
7761.4	0.0478674
7776.02	0.0508546
7783.33	0.0523244
7790.64	0.0537767
7805.25	0.0566239
7812.56	0.0580165
7827.18	0.0607345
7834.49	0.0620578
7841.79	0.063356
7856.41	0.0658737
7863.72	0.0670915
7871.03	0.068281
7885.65	0.0705718
7892.95	0.071672
7900.26	0.0727413
7914.88	0.0747851
7922.19	0.0757587
7936.8	0.0776075
7944.11	0.0784822
7951.42	0.0793234
7966.04	0.0809047
7973.35	0.0816447
7980.65	0.0823507
7995.27	0.0836611
8002.58	0.0842656
8017.2	0.0853738
8024.5	0.0858779
8031.81	0.0863489
8046.43	0.0871929
8053.74	0.0875664
8061.05	0.0879081
8075.66	0.0884975
8082.97	0.0887459
8090.28	0.0889642
8104.9	0.0893119
8112.2	0.0894422
8126.82	0.0896185
8134.13	0.0896654
8141.44	0.0896856
8156.05	0.0896478
8163.36	0.0895908
8170.67	0.0895092
8185.29	0.0892743
8192.6	0.0891221
8207.21	0.0887506
8214.52	0.0885324
8221.83	0.0882933
8236.45	0.0877541
8243.75	0.0874551
8251.06	0.0871371
8265.68	0.0864458
8272.99	0.0860734
8280.3	0.0856837
8294.91	0.0848541
8302.22	0.0844149
8316.84	0.0834896
8324.15	0.0830041
8331.45	0.0825038
8346.07	0.0814598
8353.38	0.0809167
8360.69	0.0803598
8375.3	0.0792055
8382.61	0.0786085
8397.23	0.0773757
8404.54	0.0767401
8411.85	0.0760919
8426.46	0.0747583
8433.77	0.0740729
8441.08	0.0733753
8455.7	0.0719435
8463	0.0712094
8470.31	0.0704631
8484.93	0.0689342
8492.24	0.0681515
8506.85	0.0665496
8514.16	0.0657303
8521.47	0.0648987
8536.09	0.0631984
8543.4	0.0623295
8550.7	0.0614481
8565.32	0.0596473
8572.63	0.0587278
8587.25	0.0568501
8594.55	0.0558918
8601.86	0.0549205
8616.48	0.0529383
8623.79	0.0519274
8631.1	0.0509032
8645.71	0.0488146
8653.02	0.0477502
8660.33	0.0466724
8674.95	0.0444764
8682.25	0.0433583
8696.87	0.0410818
8704.18	0.0399236
8711.49	0.0387522
8726.11	0.03637
8733.41	0.0351595
8740.72	0.0339362
8755.34	0.031452
8762.65	0.0301914
8777.26	0.0276345
8784.57	0.0263386
8791.88	0.0250315
8806.5	0.0223849
8813.81	0.0210461
8821.11	0.0196974
8835.73	0.016972
8843.04	0.0155961
8850.35	0.0142121
8864.96	0.0114217
8872.27	0.0100162
8886.89	0.00718768
8894.2	0.00576576
8901.51	0.00433954
8916.12	0.00147676
8923.43	4.15326e-05
8930.74	-0.00139535
8945.36	-0.00427125
8952.66	-0.0057088
8967.28	-0.00857938
8974.59	-0.0100109
8981.9	-0.0114388
8996.51	-0.0142807
9003.82	-0.0156931
9011.13	-0.0170988
9025.75	-0.0198863
9033.06	-0.0212666
9040.37	-0.0226368
9054.98	-0.0253437
9062.29	-0.0266787
9076.91	-0.0293079
9084.22	-0.0306003
9091.52	-0.0318771
9106.14	-0.0343801
9113.45	-0.0356049
9120.76	-0.0368108
9135.37	-0.0391634
9142.68	-0.0403086
9157.3	-0.0425334
9164.61	-0.0436118
9171.92	-0.0446667
9186.53	-0.0467037
9193.84	-0.0476846
9201.15	-0.0486399
9215.77	-0.0504715
9223.07	-0.051347
9230.38	-0.052195
9245	-0.0538074
9252.31	-0.0545712
9266.92	-0.0560125
9274.23	-0.0566896
9281.54	-0.0573375
9296.16	-0.058545
9303.47	-0.0591046
9310.77	-0.0596345
9325.39	-0.0606059
9332.7	-0.0610475
9340.01	-0.0614597
9354.62	-0.0621969
9361.93	-0.0625223
9376.55	-0.0630877
9383.86	-0.0633283
9391.17	-0.0635414
9405.78	-0.0638863
9413.09	-0.0640189
9420.4	-0.0641256
9435.02	-0.0642631
9442.33	-0.0642949
9456.94	-0.0642876
9464.25	-0.0642496
9471.56	-0.0641896
9486.18	-0.0640059
9493.48	-0.0638835
9500.79	-0.0637418
9515.41	-0.063403
9522.72	-0.0632073
9530.03	-0.0629951
9544.64	-0.0625243
9551.95	-0.0622671
9566.57	-0.061713
9573.88	-0.0614177
9581.18	-0.0611113
9595.8	-0.0604679
9603.11	-0.0601325
9610.42	-0.0597891
9625.03	-0.0590809
9632.34	-0.0587177
9646.96	-0.0579766
9654.27	-0.0576002
9661.58	-0.0572208
9676.19	-0.0564557
9683.5	-0.0560713
9690.81	-0.0556866
9705.43	-0.0549185
9712.73	-0.0545363
9720.04	-0.0541562
9734.66	-0.053404
9741.97	-0.053033
9756.58	-0.0523036
9763.89	-0.0519461
9771.2	-0.0515939
9785.82	-0.050907
9793.13	-0.050573
9800.43	-0.0502458
9815.05	-0.0496126
9822.36	-0.0493073
9836.98	-0.0487201
9844.28	-0.0484386
9851.59	-0.0481654
9866.21	-0.0476445
9873.52	-0.0473969
9880.83	-0.047158
9895.44	-0.0467065
9902.75	-0.046494
9910.06	-0.0462902
9924.68	-0.0459088
9931.98	-0.0457312
9946.6	-0.0454014
9953.91	-0.0452491
9961.22	-0.0451051
9975.83	-0.0448412
9983.14	-0.044721
9990.45	-0.0446085
10005.1	-0.0444057
10012.4	-0.044315
10027	-0.0441539
10034.3	-0.0440832
10041.6	-0.0440187
10056.2	-0.0439074
10063.5	-0.0438601
10070.8	-0.0438182
10085.5	-0.0437493
10092.8	-0.0437218
10100.1	-0.0436987
10114.7	-0.0436645
10122	-0.043653
10136.6	-0.0436399
10143.9	-0.0436379
10151.2	-0.0436387
10165.9	-0.0436475
10173.2	-0.0436551
10180.5	-0.0436646
10195.1	-0.0436886
10202.4	-0.0437026
10217	-0.043734
10224.3	-0.0437509
10231.6	-0.0437686
10246.2	-0.0438052
10253.6	-0.0438239
10260.9	-0.0438426
10275.5	-0.04388
10282.8	-0.0438984
10290.1	-0.0439165
10304.7	-0.0439512
10312	-0.0439676
10326.6	-0.0439985
10333.9	-0.0440128
10341.2	-0.0440262
10355.9	-0.0440503
10363.2	-0.0440609
10370.5	-0.0440705
10385.1	-0.0440867
10392.4	-0.0440931
10407	-0.0441028
10414.3	-0.044106
10421.6	-0.0441081
10436.3	-0.044109
10443.6	-0.0441079
10450.9	-0.0441056
10465.5	-0.0440979
10472.8	-0.0440925
10480.1	-0.044086
10494.7	-0.04407
10502	-0.0440604
10516.6	-0.0440384
10524	-0.0440259
10531.3	-0.0440125
10545.9	-0.0439827
10553.2	-0.0439663
10560.5	-0.043949
10575.1	-0.0439114
10582.4	-0.0438912
10597	-0.0438476
10604.3	-0.0438243
10611.7	-0.0437999
10626.3	-0.0437477
10633.6	-0.0437198
10640.9	-0.0436907
10655.5	-0.0436287
10662.8	-0.0435956
10670.1	-0.0435611
10684.7	-0.0434873
10692	-0.043448
10706.7	-0.0433639
10714	-0.043319
10721.3	-0.043272
10735.9	-0.0431715
10743.2	-0.0431177
10750.5	-0.0430614
10765.1	-0.0429408
10772.4	-0.0428762
10787.1	-0.0427378
10794.4	-0.0426636
10801.7	-0.042586
10816.3	-0.0424197
10823.6	-0.0423306
10830.9	-0.0422374
10845.5	-0.042038
10852.8	-0.0419313
10860.1	-0.0418198
10874.8	-0.0415816
10882.1	-0.0414545
10896.7	-0.0411833
10904	-0.0410388
10911.3	-0.0408882
10925.9	-0.0405676
10933.2	-0.0403973
10940.5	-0.0402201
10955.1	-0.039844
10962.5	-0.0396448
10977.1	-0.039223
10984.4	-0.0390001
10991.7	-0.0387688
11006.3	-0.0382808
11013.6	-0.0380236
11020.9	-0.0377574
11035.5	-0.0371974
11042.8	-0.0369032
11050.2	-0.0365993
11064.8	-0.0359619
11072.1	-0.0356281
11086.7	-0.0349296
11094	-0.0345646
11101.3	-0.034189
11115.9	-0.0334053
11123.2	-0.032997
11130.6	-0.0325777
11145.2	-0.0317054
11152.5	-0.0312523
11167.1	-0.030312
11174.4	-0.0298246
11181.7	-0.0293257
11196.3	-0.0282932
11203.6	-0.0277595
11210.9	-0.0272142
11225.6	-0.0260889
11232.9	-0.0255089
11240.2	-0.0249174
11254.8	-0.0236999
11262.1	-0.0230741
11276.7	-0.0217887
11284	-0.0211292
11291.3	-0.0204588
11306	-0.0190852
11313.3	-0.0183824
11320.6	-0.0176691
11335.2	-0.0162116
11342.5	-0.0154677
11357.1	-0.0139507
11364.4	-0.0131779
11371.7	-0.0123959
11386.3	-0.010805
11393.7	-0.00999671
11401	-0.00918011
11415.6	-0.00752309
11422.9	-0.00668323
11430.2	-0.00583618
11444.8	-0.00412169
11452.1	-0.00325486
11466.7	-0.00150362
11474	-0.000619876
11481.4	0.000268839
11496	0.00205978
11503.3	0.0029613
11510.6	0.00386636
11525.2	0.00568562
11532.5	0.00659907
11547.1	0.00843167
11554.4	0.00935003
11561.7	0.0102692
11576.4	0.0121086
11583.7	0.0130279
11591	0.0139465
11605.6	0.0157797
11612.9	0.0166935
11620.2	0.0176049
11634.8	0.0194187
11642.1	0.0203204
11656.8	0.0221111
11664.1	0.0229993
11671.4	0.0238823
11686	0.0256308
11693.3	0.0264955
11700.6	0.0273534
11715.2	0.0290471
11722.5	0.0298821
11737.1	0.0315268
11744.5	0.0323357
11751.8	0.0331352
11766.4	0.0347047
11773.7	0.0354741
11781	0.0362327
11795.6	0.0377168
11802.9	0.0384416
11810.2	0.0391546
11824.8	0.0405442
11832.2	0.0412203
11846.8	0.0425341
11854.1	0.0431713
11861.4	0.0437952
11876	0.0450024
11883.3	0.0455854
11890.6	0.0461544
11905.2	0.0472505
11912.5	0.0477773
11927.2	0.0487881
11934.5	0.049272
11941.8	0.0497416
11956.4	0.0506378
11963.7	0.0510645
11971	0.0514769
11985.6	0.0522591
11992.9	0.0526291
