Executable + params: ../../build/sierpi_intel_tbb_tsunami_parallel_release -o 32768 -k 10 -A 1 -d 20 -a 8 -t 100
Problem size with different number of CPUs using function optimization
THREADS	MTPS	TIMESTEPS	TIMESTEP_SIZE	SECONDS_FOR_SIMULATION	AVERAGE_TRIANGLES	AVERAGE_PARTITIONS
80	67.2779	100	0.000491318		1.9047e+07	1158.4
64	62.6628	100	0.000491318		1.9047e+07	1158.4
60	60.6353	100	0.000491318		1.9047e+07	1158.4
40	50.4899	100	0.000491318		1.9047e+07	1158.4
32	41.4889	100	0.000491318		1.9047e+07	1158.4
30	35.6392	100	0.000491318		1.9047e+07	1158.4
20	24.934	100	0.000491318		1.9047e+07	1158.4
16	21.7973	100	0.000491318		1.9047e+07	1158.4
10	12.9509	100	0.000491318		1.9047e+07	1158.4
8	11.9982	100	0.000491318		1.9047e+07	1158.4
4	8.726	100	0.000491318		1.9047e+07	1158.4
2	4.98928	100	0.000491318		1.9047e+07	1158.4
1	2.51835	100	0.000491318		1.9047e+07	1158.4
