0	0
10.0846	0
20.1691	0
30.2535	0
40.3378	0
50.0187	0
60.1029	0
70.187	0
80.271	0
90.3549	0
100.035	0
110.119	0
120.203	0
130.287	0
140.37	0
150.051	0
160.135	0
170.218	0
180.302	0
190.385	0
200.014	0
210.325	0
220.212	0
230.097	0
240.377	0
250.262	0
260.147	0
270.032	0
280.313	0
290.197	0
300.082	0
310.359	0
320.242	3.63798e-12
330.124	2.63753e-11
340.006	4.91127e-11
350.283	7.27596e-11
360.165	9.54969e-11
370.047	1.20963e-10
380.325	1.68257e-10
390.207	2.13731e-10
400.089	2.74667e-10
410.366	3.45608e-10
420.245	4.35648e-10
430.066	5.3933e-10
440.202	6.67569e-10
450.33	8.21274e-10
460.067	9.94987e-10
470.114	1.20872e-09
480.071	1.45701e-09
490.379	1.75714e-09
500.295	2.09275e-09
510.211	2.48019e-09
520.126	2.92766e-09
530.042	3.44153e-09
540.336	4.04998e-09
550.178	4.71573e-09
560.361	5.4988e-09
570.157	6.35009e-09
580.33	7.34781e-09
590.117	8.42829e-09
600.275	9.68521e-09
610.048	1.10376e-08
620.189	1.2602e-08
630.327	1.43464e-08
640.09	1.62108e-08
650.228	1.83554e-08
660.366	2.07319e-08
670.129	2.32576e-08
680.267	2.61452e-08
690.03	2.92039e-08
700.168	3.26972e-08
710.306	3.65253e-08
720.068	4.05507e-08
730.206	4.51009e-08
740.341	5.00413e-08
750.084	5.51763e-08
760.188	6.09161e-08
770.293	6.70898e-08
780.024	7.34635e-08
790.13	8.05403e-08
800.235	8.80991e-08
810.34	9.61545e-08
820.071	1.04391e-07
830.176	1.13447e-07
840.281	1.23019e-07
850.012	1.32729e-07
860.117	1.43323e-07
870.222	1.54437e-07
880.327	1.66071e-07
890.058	1.77766e-07
900.163	1.90419e-07
910.268	2.03591e-07
920.373	2.17282e-07
930.104	2.30958e-07
940.209	2.45675e-07
950.314	2.60919e-07
960.044	2.76103e-07
970.149	2.92403e-07
980.254	3.09255e-07
990.359	3.26671e-07
1000.09	3.4399e-07
1010.19	3.62559e-07
1020.3	3.81748e-07
1030.03	4.00834e-07
1040.13	4.21314e-07
1050.24	4.42493e-07
1060.34	4.64408e-07
1070.08	4.8625e-07
1080.18	5.09738e-07
1090.28	5.34102e-07
1100.02	5.58442e-07
1110.12	5.84696e-07
1120.22	6.12015e-07
1130.33	6.40483e-07
1140.06	6.69061e-07
1150.16	7.00044e-07
1160.27	7.32462e-07
1170	7.65137e-07
1180.1	8.00705e-07
1190.21	8.38063e-07
1200.31	8.77354e-07
1210.04	9.17148e-07
1220.15	9.6066e-07
1230.25	1.00656e-06
1240.36	1.05502e-06
1250.09	1.10427e-06
1260.19	1.15828e-06
1270.3	1.21542e-06
1280.03	1.27359e-06
1290.13	1.33746e-06
1300.24	1.40509e-06
1310.34	1.47671e-06
1320.06	1.54964e-06
1330.14	1.62961e-06
1340.21	1.71419e-06
1350.27	1.80376e-06
1360.33	1.89855e-06
1370.01	1.99503e-06
1380.06	2.10097e-06
1390.11	2.21308e-06
1400.16	2.3316e-06
1410.19	2.45678e-06
1420.22	2.58916e-06
1430.25	2.72909e-06
1440.28	2.87738e-06
1450.31	3.03473e-06
1460.34	3.20143e-06
1470.37	3.37771e-06
1480.03	3.55664e-06
1490.06	3.7521e-06
1500.09	3.95749e-06
1510.1	4.17242e-06
1520.07	4.3966e-06
1530.04	4.63087e-06
1540.02	4.87535e-06
1550.36	5.13982e-06
1560.33	5.40557e-06
1570.31	5.68206e-06
1580.28	5.96953e-06
1590.26	6.26828e-06
1600.23	6.57864e-06
1610.2	6.90094e-06
1620.09	7.23268e-06
1630.29	7.58827e-06
1640.12	7.94441e-06
1650.32	8.32815e-06
1660.15	8.71273e-06
1670.35	9.12737e-06
1680.18	9.54321e-06
1690.01	9.97556e-06
1700.21	1.04423e-05
1710.04	1.09109e-05
1720.24	1.14173e-05
1730.08	1.19262e-05
1740.27	1.24766e-05
1750.11	1.30303e-05
1760.3	1.36294e-05
1770.14	1.42327e-05
1780.33	1.4886e-05
1790.17	1.55442e-05
1800	1.62313e-05
1810.2	1.69762e-05
1820.03	1.77268e-05
1830.23	1.854e-05
1840.06	1.93587e-05
1850.26	2.02446e-05
1860.09	2.11351e-05
1870.29	2.20969e-05
1880.12	2.30621e-05
1890.32	2.41029e-05
1900.15	2.51455e-05
1910.35	2.6268e-05
1920.18	2.73909e-05
1930.02	2.85542e-05
1940.21	2.98043e-05
1950.05	3.10526e-05
1960.24	3.23927e-05
1970.08	3.37298e-05
1980.27	3.51643e-05
1990.11	3.65949e-05
2000.3	3.8129e-05
2010.14	3.96585e-05
2020.33	4.12984e-05
2030.17	4.29333e-05
2040	4.46227e-05
2050.2	4.64342e-05
2060.03	4.82404e-05
2070.23	5.01776e-05
2080.06	5.21096e-05
2090.26	5.41821e-05
2100.09	5.62496e-05
2110.29	5.84681e-05
2120.12	6.06819e-05
2130.32	6.30581e-05
2140.15	6.543e-05
2150.35	6.79767e-05
2160.18	7.05198e-05
2170.01	6.9436e-05
2180.21	6.82301e-05
2190.04	6.72751e-05
2200.24	6.64856e-05
2210.07	6.59055e-05
2220.27	6.54802e-05
2230.1	6.52296e-05
2240.3	6.51251e-05
2250.13	6.51653e-05
2260.33	6.5345e-05
2270.16	6.56444e-05
2280.36	6.60792e-05
2290.34	6.66222e-05
2300.18	6.72656e-05
2310.01	6.80129e-05
2320.12	6.88861e-05
2330.31	6.98723e-05
2340.15	7.09212e-05
2350.34	7.2109e-05
2360.17	7.33498e-05
2370.01	7.46838e-05
2380.2	7.61659e-05
2390.04	7.76905e-05
2400.23	7.93716e-05
2410.07	8.10904e-05
2420.26	8.29759e-05
2430.1	8.48956e-05
2440.29	8.69939e-05
2450.12	8.91238e-05
2460.32	9.14458e-05
2470.15	9.37974e-05
2480.35	9.63563e-05
2490.18	9.89434e-05
2500.02	0.000101652
2510.21	0.000104593
2520.04	0.00010756
2530.24	0.00011078
2540.07	0.000114026
2550.27	0.000117541
2560.1	0.000121064
2570.3	0.000124845
2580.13	0.000128608
2590.33	0.000132624
2600.16	0.000136604
2610.36	0.000140841
2620.19	0.000145032
2630.02	0.000149326
2640.22	0.00015389
2650.05	0.000158402
2660.25	0.000163199
2670.08	0.000167944
2680.28	0.000172993
2690.11	0.000177991
2700.29	0.000183309
2710.09	0.000188571
2720.24	0.000194186
2730.04	0.000199763
2740.2	0.000205725
2750.36	0.00021188
2760.15	0.00021801
2770.31	0.00022458
2780.11	0.000231131
2790.27	0.000238161
2800.06	0.000245178
2810.22	0.000252713
2820.02	0.000260239
2830.17	0.000268324
2840.33	0.000276707
2850.13	0.000285083
2860.29	0.000294086
2870.08	0.000303084
2880.24	0.000312758
2890.04	0.00032243
2900.19	0.000332832
2910.35	0.000344764
2920.15	0.00037073
2930.31	0.000397568
2940.1	0.000423273
2950.26	0.000449706
2960.06	0.000474973
2970.21	0.000500961
2980.01	0.000525844
2990.17	0.000551515
3000.33	0.000577109
3010.12	0.000601783
3020.28	0.000627443
3030.08	0.000652333
3040.23	0.000678386
3050.03	0.000703826
3060.19	0.000730631
3070.35	0.00075796
3080.14	0.000784898
3090.3	0.000813533
3100.1	0.000841905
3110.25	0.000872192
3120.05	0.000902212
3130.21	0.00093408
3140	0.000965425
3150.16	0.000998519
3160.32	0.0010322
3170.11	0.00106526
3180.27	0.00110019
3190.07	0.00113458
3200.23	0.00117107
3210.02	0.00120717
3220.18	0.00124569
3230.34	0.00128546
3240.13	0.00132514
3250.29	0.00136782
3260.09	0.00141056
3270.24	0.00145668
3280.04	0.00150301
3290.2	0.00155312
3300.36	0.0016049
3310.15	0.00170983
3320.31	0.00182276
3330.1	0.00192623
3340.26	0.00202905
3350.06	0.00212527
3360.21	0.00222361
3370.01	0.00231856
3380.17	0.00241867
3390.33	0.00252187
3400.12	0.00262524
3410.28	0.00273606
3420.07	0.00284589
3430.23	0.00296299
3440.03	0.00307961
3450.18	0.00320547
3460.34	0.00333775
3470.14	0.00347271
3480.3	0.00362156
3490.09	0.00379908
3500.25	0.00412358
3510.04	0.00442593
3520.2	0.00473426
3530.36	0.00504679
3540.15	0.00536
3550.31	0.00569567
3560.11	0.00602717
3570.26	0.00638577
3580.06	0.00675702
3590.22	0.0074732
3600.01	0.00810633
3610.17	0.00876419
3620.33	0.00946575
3630.12	0.0102932
3640.15	0.0116382
3650.31	0.0130669
3660.11	0.0157262
3670.26	0.0214889
3680.06	0.0290263
3690.22	0.0358177
3700.01	0.0417825
3710.17	0.0469417
3720.33	0.0515372
3730.12	0.0550215
3740.28	0.0583283
3750.08	0.0613803
3760.23	0.0644013
3770.03	0.0670197
3780.19	0.0694048
3790.34	0.0716567
3800.14	0.0737836
3810.3	0.0759291
3820.09	0.0778589
3830.25	0.079849
3840.05	0.0818876
3850.21	0.0841099
3860	0.0862287
3870.16	0.0883652
3880.32	0.0905513
3890.11	0.0927958
3900.27	0.0952686
3910.07	0.0977652
3920.23	0.100507
3930.02	0.103368
3940.18	0.106572
3950.35	0.109947
3960.23	0.113302
3970.11	0.116711
3980.35	0.120307
3990.23	0.123816
4000.11	0.127338
4010.35	0.130997
4020.23	0.134545
4030.11	0.138098
4040.36	0.141747
4050.23	0.145201
4060.11	0.148598
4070.36	0.15209
4080.24	0.155454
4090.13	0.158841
4100.01	0.1623
4110.26	0.166021
4120.15	0.169782
4130.03	0.17373
4140.28	0.178047
4150.17	0.182471
4160.06	0.187217
4170.31	0.192547
4180.19	0.198137
4190.08	0.204226
4200.33	0.211134
4210.21	0.218431
4220.1	0.22642
4230.36	0.235519
4240.26	0.245178
4250.16	0.255827
4260.09	0.267611
4270.04	0.280656
4280.36	0.295617
4290.33	0.31154
4300.3	0.329016
4310.28	0.348148
4320.3	0.369049
4330.32	0.39173
4340.35	0.416193
4350	0.441428
4360.03	0.469329
4370.06	0.498863
4380.09	0.52989
4390.11	0.56222
4400.14	0.595618
4410.17	0.629819
4420.19	0.664535
4430.22	0.69946
4440.25	0.734274
4450.27	0.768636
4460.3	0.802196
4470.33	0.834585
4480.35	0.865425
4490.01	0.893296
4500.04	0.919963
4510.06	0.943924
4520.09	0.964789
4530.12	0.982166
4540.14	0.995647
4550.17	1.00481
4560.2	1.0092
4570.22	1.00833
4580.25	1.00171
4590.28	0.988795
4600.31	0.96907
4610.33	0.942018
4620.36	0.907166
4630.01	0.86585
4640.04	0.814595
4650.07	0.754662
4660.1	0.686028
4670.12	0.608786
4680.15	0.52302
4690.18	0.428553
4700.2	0.324579
4710.23	0.209274
4720.26	0.07955
4730.29	-0.03184
4740.31	-0.0897998
4750.34	-0.116779
4760.37	-0.13921
4770.02	-0.147327
4780.05	-0.163109
4790.08	-0.174317
4800.1	-0.183251
4810.13	-0.191461
4820.16	-0.196803
4830.18	-0.204014
4840.21	-0.209804
4850.25	-0.214699
4860.34	-0.218639
4870.06	-0.222055
4880.15	-0.22553
4890.24	-0.228823
4900.35	-0.231865
4910.08	-0.225989
4920.19	-0.226902
4930.29	-0.230497
4940.02	-0.233424
4950.13	-0.235983
4960.23	-0.238152
4970.34	-0.240012
4980.07	-0.241581
4990.17	-0.243043
5000.28	-0.244065
5010.01	-0.244963
5020.11	-0.245874
5030.22	-0.24676
5040.32	-0.247642
5050.06	-0.248471
5060.16	-0.249295
5070.27	-0.250071
5080.37	-0.250788
5090.1	-0.251368
5100.21	-0.245142
5110.31	-0.245896
5120.04	-0.24677
5130.15	-0.247951
5140.25	-0.248996
5150.36	-0.249904
5160.09	-0.250639
5170.19	-0.251276
5180.3	-0.2518
5190.03	-0.252207
5200.13	-0.252541
5210.24	-0.25279
5220.34	-0.25296
5230.07	-0.253053
5240.18	-0.253083
5250.28	-0.253047
5260.01	-0.252954
5270.12	-0.252799
5280.22	-0.252585
5290.33	-0.252277
5300.06	-0.25194
5310.16	-0.251553
5320.27	-0.251127
5330.37	-0.250474
5340.1	-0.249777
5350.21	-0.249035
5360.31	-0.24827
5370.04	-0.247512
5380.14	-0.246699
5390.21	-0.245862
5400.28	-0.244997
5410.34	-0.244103
5420.03	-0.243217
5430.08	-0.242268
5440.13	-0.241293
5450.18	-0.240288
5460.22	-0.23925
5470.25	-0.238185
5480.28	-0.230214
5490.31	-0.229637
5500.34	-0.229052
5510.37	-0.228464
5520.03	-0.227897
5530.06	-0.22731
5540.09	-0.226727
5550.12	-0.226149
5560.15	-0.225578
5570.18	-0.225019
5580.21	-0.224473
5590.22	-0.223943
5600.19	-0.223433
5610.17	-0.22294
5620.14	-0.222467
5630.11	-0.222014
5640.09	-0.221581
5650.06	-0.221168
5660.04	-0.220774
5670.01	-0.220399
5680.35	-0.220028
5690.33	-0.219686
5700.29	-0.219356
5710.18	-0.219038
5720.02	-0.218727
5730.21	-0.218407
5740.05	-0.218097
5750.24	-0.21777
5760.08	-0.217447
5770.27	-0.217101
5780.11	-0.216753
5790.31	-0.216374
5800.14	-0.215989
5810.34	-0.215567
5820.17	-0.215135
5830	-0.214677
5840.2	-0.214172
5850.03	-0.213764
5860.23	-0.213288
5870.06	-0.212774
5880.26	-0.212188
5890.1	-0.211574
5900.29	-0.210821
5910.13	-0.210013
5920.32	-0.20913
5930.16	-0.208237
5940.35	-0.207273
5950.19	-0.206307
5960.02	-0.20531
5970.22	-0.204243
5980.05	-0.203185
5990.25	-0.20206
6000.08	-0.200949
6010.28	-0.199771
6020.11	-0.198613
6030.31	-0.197388
6040.14	-0.196187
6050.34	-0.19492
6060.17	-0.19368
6070.01	-0.192422
6080.2	-0.1911
6090.04	-0.18981
6100.23	-0.188457
6110.07	-0.187138
6120.26	-0.185757
6130.1	-0.184414
6140.29	-0.18301
6150.13	-0.181647
6160.33	-0.180224
6170.16	-0.178846
6180.36	-0.177409
6190.19	-0.176019
6200.02	-0.174625
6210.22	-0.173176
6220.05	-0.174007
6230.25	-0.173157
6240.08	-0.172158
6250.28	-0.17095
6260.11	-0.169762
6270.31	-0.168514
6280.14	-0.167298
6290.34	-0.166026
6300.17	-0.164793
6310.01	-0.163553
6320.2	-0.162262
6330.04	-0.161012
6340.23	-0.159711
6350.07	-0.158452
6360.27	-0.157141
6370.1	-0.155871
6380.3	-0.15455
6390.13	-0.15327
6400.33	-0.151938
6410.16	-0.150647
6420.36	-0.149303
6430.19	-0.148001
6440.02	-0.146693
6450.22	-0.145332
6460.05	-0.144018
6470.25	-0.142657
6480.08	-0.14135
6490.28	-0.140001
6500.11	-0.138708
6510.31	-0.137375
6520.14	-0.136097
6530.34	-0.134779
6540.18	-0.133514
6550.01	-0.132252
6560.21	-0.130946
6570.04	-0.129688
6580.24	-0.128382
6590.07	-0.127121
6600.27	-0.125808
6610.1	-0.124537
6620.3	-0.123212
6630.13	-0.121927
6640.33	-0.120001
6650.16	-0.11749
6660.36	-0.115019
6670.19	-0.112755
6680.02	-0.110594
6690.22	-0.108447
6700.06	-0.106448
6710.25	-0.104431
6720.09	-0.102522
6730.28	-0.100564
6740.12	-0.0986825
6750.31	-0.0967307
6760.15	-0.0948502
6770.35	-0.0929082
6780.18	-0.091045
6790.01	-0.0891864
6800.21	-0.087255
6810.04	-0.0853778
6820.24	-0.0834045
6830.07	-0.0814667
6840.27	-0.0790309
6850.15	-0.0757499
6860.03	-0.0726
6870.27	-0.0694445
6880.15	-0.066441
6890.03	-0.0634177
6900.28	-0.060221
6910.16	-0.0570976
6920.04	-0.0539866
6930.25	-0.0507713
6940.08	-0.0476269
6950.27	-0.0430868
6960.09	-0.0383067
6970.24	-0.0336167
6980.04	-0.0289916
6990.2	-0.0240976
7000.36	-0.017218
7010.15	-0.0099208
7020.31	-0.00185184
7030.11	0.00975303
7040.27	0.0312245
7050.06	0.0445017
7060.22	0.0527916
7070.02	0.0569795
7080.17	0.0586038
7090.33	0.0589179
7100.13	0.0571872
7110.29	0.0562163
7120.08	0.0563211
7130.24	0.0571763
7140.04	0.0577162
7150.19	0.0574778
7160.35	0.0571248
7170.15	0.0570944
7180.31	0.0575651
7190.1	0.0578432
7200.26	0.0579331
7210.06	0.0583724
7220.21	0.0592716
7230.01	0.0599797
7240.17	0.0600278
7250.33	0.0596591
7260.12	0.0594614
7270.28	0.0596452
7280.08	0.0598981
7290.23	0.0599504
7300.03	0.0599117
7310.19	0.0599921
7320.35	0.0601245
7330.14	0.0600271
7340.3	0.0595938
7350.1	0.0590561
7360.25	0.0586474
7370.05	0.0584826
7380.21	0.0584862
7390	0.0586094
7400.16	0.0588094
7410.32	0.0589049
7420.12	0.0586748
7430.27	0.0580289
7440.07	0.0571526
7450.23	0.0561892
7460.02	0.0553181
7470.18	0.0545173
7480.34	0.0538779
7490.14	0.0534519
7500.29	0.0531233
7510.09	0.0527288
7520.25	0.0520907
7530.04	0.0512817
7540.2	0.0504124
7550.36	0.0496948
7560.16	0.0492466
7570.31	0.049067
7580.11	0.0491501
7590.27	0.0494228
7600.06	0.0497434
7610.22	0.0500175
7620.02	0.0501821
7630.18	0.0502839
7640.34	0.0503902
7650.13	0.0505674
7660.29	0.0508838
7670.08	0.0513407
7680.24	0.051951
7690.04	0.0526132
7700.2	0.0533143
7710.36	0.0540089
7720.15	0.0547003
7730.31	0.0554944
7740.11	0.0563868
7750.26	0.0574825
7760.06	0.0587137
7770.22	0.0601446
7780.01	0.06162
7790.17	0.0631959
7800.33	0.0647996
7810.13	0.066395
7820.28	0.068148
7830.08	0.0699781
7840.24	0.0720492
7850.03	0.0742135
7860.19	0.0766003
7870.35	0.0790792
7880.15	0.0815099
7890.31	0.0840525
7900.1	0.0865428
7910.26	0.089209
7920.06	0.091903
7930.21	0.0948449
7940.01	0.0978065
7950.17	0.100945
7960.33	0.104057
7970.14	0.106946
7980	0.109671
7990.25	0.112291
8000.13	0.114638
8010.01	0.116858
8020.25	0.119084
8030.13	0.121196
8040.01	0.123281
8050.25	0.12539
8060.13	0.127318
8070.01	0.129087
8080.25	0.130703
8090.13	0.132029
8100.01	0.133119
8110.26	0.133998
8120.14	0.134589
8130.01	0.134894
8140.26	0.134855
8150.14	0.134416
8160.02	0.13354
8170.26	0.132151
8180.14	0.130361
8190.02	0.128174
8200.26	0.12555
8210.14	0.122746
8220.02	0.119728
8230.27	0.116417
8240.15	0.113069
8250.04	0.109577
8260.29	0.105812
8270.17	0.102052
8280.06	0.0981865
8290.31	0.0940918
8300.19	0.0900876
8310.08	0.086052
8320.33	0.0818522
8330.22	0.0778015
8340.1	0.0737633
8350.35	0.0696095
8360.24	0.0656672
8370.12	0.0618281
8380.02	0.0581373
8390.28	0.0545202
8400.2	0.0512721
8410.15	0.0482909
8420.11	0.0456024
8430.08	0.0432134
8440.05	0.0411197
8450.02	0.0393075
8460.37	0.0377043
8470.37	0.0363988
8480.01	0.0353362
8490.04	0.0343974
8500.06	0.0335796
8510.09	0.0328282
8520.12	0.0320872
8530.15	0.0313056
8540.17	0.0304437
8550.2	0.0294762
8560.23	0.0283921
8570.26	0.027192
8580.28	0.0258824
8590.31	0.0244718
8600.34	0.0229674
8610.36	0.0213752
8620.02	0.019766
8630.05	0.0180281
8640.07	0.0162421
8650.1	0.0144369
8660.13	0.0126479
8670.16	0.0109124
8680.18	0.00929071
8690.21	0.00793345
8700.24	0.00688307
8710.26	0.00575506
8720.29	0.00449157
8730.32	0.00373447
8740.35	0.00266254
8750	0.00160548
8760.03	0.000938818
8770.06	2.36756e-05
8780.08	-0.000922417
8790.11	-0.00189933
8800.14	-0.0032882
8810.16	-0.00519132
8820.19	-0.00694967
8830.22	-0.00867582
8840.25	-0.0103706
8850.27	-0.0119609
8860.3	-0.0134553
8870.33	-0.014923
8880.35	-0.0163665
8890.01	-0.0177423
8900.04	-0.0191246
8910.06	-0.0204285
8920.09	-0.0216932
8930.12	-0.0186291
8940.15	-0.019894
8950.17	-0.0229448
8960.2	-0.0247153
8970.23	-0.0263733
8980.25	-0.0279291
8990.28	-0.0293917
9000.31	-0.0307692
9010.34	-0.0320679
9020.36	-0.0332927
9030.02	-0.0344065
9040.05	-0.0354988
9050.07	-0.0365288
9060.1	-0.0375007
9070.13	-0.0384087
9080.16	-0.0390793
9090.18	-0.039739
9100.21	-0.0403876
9110.24	-0.041025
9120.26	-0.0416511
9130.29	-0.042266
9140.32	-0.0428696
9150.35	-0.0434619
9160	-0.0440215
9170.03	-0.0445919
9180.06	-0.0451519
9190.08	-0.0457017
9200.11	-0.0462417
9210.14	-0.0389265
9220.16	-0.0397984
9230.19	-0.0406353
9240.22	-0.0414386
9250.25	-0.0422099
9260.27	-0.0429507
9270.3	-0.0436624
9280.33	-0.0443465
9290.35	-0.0450037
9300.33	-0.0456333
9310.3	-0.0462388
9320.28	-0.0468217
9330.25	-0.047383
9340.22	-0.0479214
9350.2	-0.048434
9360.17	-0.0489227
9370.15	-0.0493893
9380.12	-0.0498349
9390.09	-0.0502551
9400.03	-0.0506494
9410.28	-0.051033
9420.12	-0.0513812
9430.32	-0.0517227
9440.15	-0.0520349
9450.35	-0.0523423
9460.18	-0.052624
9470.02	-0.0528921
9480.21	-0.0531566
9490.05	-0.0533991
9500.24	-0.0536382
9510.08	-0.0538572
9520.28	-0.0540727
9530.11	-0.0542695
9540.31	-0.0544627
9550.14	-0.0546388
9560.34	-0.0548085
9570.17	-0.0549591
9580	-0.055097
9590.2	-0.0552264
9600.03	-0.0552935
9610.23	-0.055347
9620.07	-0.0553853
9630.26	-0.0554118
9640.1	-0.055425
9650.29	-0.0554267
9660.13	-0.0554646
9670.32	-0.0555051
9680.16	-0.0555321
9690.36	-0.0555484
9700.19	-0.0555534
9710.02	-0.0555485
9720.22	-0.0555333
9730.05	-0.0555097
9740.25	-0.0554762
9750.08	-0.0554359
9760.28	-0.0553861
9770.11	-0.0553308
9780.31	-0.0552664
9790.14	-0.0551978
9800.34	-0.0551202
9810.18	-0.0550396
9820.01	-0.0549535
9830.21	-0.0548588
9840.04	-0.0547624
9850.24	-0.0546575
9860.07	-0.0545518
9870.27	-0.0544377
9880.1	-0.0543234
9890.3	-0.0542008
9900.13	-0.0540788
9910.33	-0.0539485
9920.16	-0.0523337
9930.36	-0.0522382
9940.19	-0.052145
9950.03	-0.0520506
9960.22	-0.0519514
9970.06	-0.0518543
9980.25	-0.0517519
9990.09	-0.0516516
10000.3	-0.0515457
10010.1	-0.0514417
10020.3	-0.0513318
10030.1	-0.0512237
10040.3	-0.0511094
10050.2	-0.050997
10060	-0.0508824
10070.2	-0.0507612
10080	-0.0506419
10090.2	-0.0505155
10100.1	-0.0503911
10110.3	-0.0502593
10120.1	-0.0501293
10130.3	-0.0499916
10140.1	-0.0498558
10150.3	-0.0497117
10160.2	-0.0495695
10170.4	-0.0494171
10180.2	-0.0492652
10190	-0.0491083
10200.2	-0.0489404
10210.1	-0.0487735
10220.3	-0.0485952
10230.1	-0.0484184
10240.3	-0.0482298
10250.1	-0.048043
10260.3	-0.0478441
10270.2	-0.0476473
10280.4	-0.0474381
10290.2	-0.0472313
10300	-0.0470196
10310.2	-0.046795
10320	-0.0465734
10330.2	-0.0463385
10340.1	-0.046107
10350.3	-0.0458618
10360.1	-0.0455602
10370.3	-0.0452194
10380.1	-0.044891
10390.3	-0.0445511
10400.2	-0.0442234
10410	-0.0438956
10420.2	-0.0435551
10430	-0.0432261
10440.2	-0.042884
10450.1	-0.0425531
10460.3	-0.0422086
10470.1	-0.0418751
10480.3	-0.0415277
10490.1	-0.0411913
10500.3	-0.0408408
10510.2	-0.0405013
10520.4	-0.0401475
10530.2	-0.0398047
10540	-0.0394604
10550.2	-0.0391017
10560.1	-0.0387542
10570.2	-0.0383922
10580.1	-0.0380417
10590.3	-0.0376768
10600.1	-0.0373235
10610.3	-0.0369559
10620.1	-0.0366001
10630.3	-0.0362312
10640.2	-0.0358758
10650	-0.0355206
10660.2	-0.0351525
10670	-0.0347978
10680.2	-0.0344305
10690.1	-0.0340768
10700.2	-0.0337104
10710.1	-0.0333575
10720.3	-0.0329926
10730.1	-0.0326374
10740.2	-0.0322428
10750	-0.0318659
10760.2	-0.0314787
10770.3	-0.031095
10780.1	-0.0307283
10790.3	-0.0303513
10800.1	-0.0299909
10810.2	-0.0296204
10820	-0.0292663
10830.2	-0.0289023
10840.3	-0.0285415
10850.1	-0.0281966
10860.3	-0.0278419
10870.1	-0.0275028
10880.3	-0.027154
10890.1	-0.0268203
10900.2	-0.026477
10910	-0.0261485
10920.2	-0.0258104
10930.3	-0.0254748
10940.1	-0.0251535
10950.3	-0.0248226
10960.1	-0.0245056
10970.2	-0.024179
10980	-0.0238664
10990.2	-0.0235457
11000.3	-0.0232287
11010.1	-0.0229259
11020.3	-0.0226147
11030.1	-0.0223169
11040.3	-0.0220103
11050	-0.0217165
11060.2	-0.0214135
11070	-0.0211219
11080.2	-0.0208295
11090.3	-0.0205484
11100.1	-0.0202857
11110.3	-0.0200201
11120.1	-0.0197692
11130.2	-0.0195153
11140	-0.0192765
11150.2	-0.0190342
11160.3	-0.0187965
11170.1	-0.0185708
11180.3	-0.0183393
11190.1	-0.0181176
11200.2	-0.0178884
11210	-0.0176674
11220.2	-0.0174374
11230.4	-0.017206
11240.2	-0.0169808
11250.3	-0.0167446
11260.1	-0.0165138
11270.3	-0.0162708
11280.1	-0.0160329
11290.2	-0.0157823
11300	-0.0155371
11310.2	-0.015279
11320.3	-0.0150168
11330.1	-0.0147599
11340.3	-0.0144893
11350.1	-0.014224
11360.2	-0.013945
11370	-0.0136724
11380.2	-0.0133861
11390.4	-0.0130961
11400.2	-0.012813
11410.3	-0.0125153
11420.1	-0.0122281
11430.3	-0.0119332
11440.1	-0.0116497
11450.2	-0.0113547
11460	-0.0110678
11470.2	-0.0107668
11480.3	-0.0104504
11490.1	-0.0099942
11500.3	-0.00950168
11510.1	-0.00901681
11520.2	-0.00850946
11530	-0.0080191
11540.2	-0.00751137
11550.4	-0.00700566
11560.1	-0.00652026
11570.3	-0.00602002
11580.1	-0.00554096
11590.3	-0.00504681
11600.1	-0.0045717
11610.2	-0.00407927
11620	-0.00360505
11630.2	-0.00311343
11640.3	-0.00261631
11650.1	-0.0021306
11660.3	-0.0016197
11670.1	-0.00087239
11680.2	0.000380259
11690	0.00150529
11700.2	0.00257513
11710.3	0.00354959
11720.1	0.00440525
11730.3	0.00521896
11740.1	0.00594644
11750.3	0.00667034
11760.1	0.00746116
11770.2	0.00850587
11780	0.00935689
11790.2	0.0101604
11800.3	0.0109406
11810.1	0.01166
11820.3	0.0128443
11830.1	0.0140705
11840.2	0.0163645
11850	0.019968
11860.2	0.0253275
11870.3	0.0302205
11880.1	0.0350162
11890.3	0.0396091
11900.1	0.0442514
11910.3	0.0487693
11920	0.0529406
11930.2	0.0572502
11940	0.0612441
11950.2	0.0649822
11960.3	0.0682822
11970.1	0.0710795
11980.3	0.0736509
11990.1	0.0758628
