0	0
10.8996	0
21.799	0
30.8818	0
41.7811	0
50.8637	0
61.7628	0
70.8453	0
81.7441	0
90.8264	0
101.725	0
110.789	0
121.573	0
130.501	0
141.191	0
150.097	0
160.785	0
171.472	0
180.379	0
191.065	-4.54747e-12
201.748	-1.00044e-11
210.647	-1.45519e-11
221.321	-2.00089e-11
230.215	-2.45564e-11
240.888	-3.27418e-11
251.561	-4.36557e-11
260.455	-5.27507e-11
271.128	-6.73026e-11
280.022	-8.0945e-11
290.695	-1.00954e-10
301.368	-1.23691e-10
310.262	-1.46429e-10
320.935	-1.77351e-10
331.608	-2.12822e-10
340.495	-2.46473e-10
351.092	-2.91038e-10
361.668	-3.4197e-10
370.429	-3.87445e-10
380.943	-4.48381e-10
391.336	-5.13865e-10
401.695	-5.84805e-10
410.278	-6.4756e-10
420.582	-7.25777e-10
430.889	-8.07631e-10
441.196	-8.91305e-10
451.503	-9.78616e-10
460.078	-1.04683e-09
470.334	-1.12686e-09
480.564	-1.20053e-09
490.741	-1.26329e-09
500.918	-1.3124e-09
511.09	-1.34514e-09
521.256	-1.36151e-09
531.409	-1.36151e-09
541.559	-1.34514e-09
550.012	-1.31877e-09
560.154	-1.27238e-09
570.295	-1.21054e-09
580.437	-1.13414e-09
590.579	-1.04228e-09
600.72	-9.3587e-10
610.862	-8.14907e-10
621.004	-6.83031e-10
631.145	-5.46606e-10
641.287	-4.11092e-10
651.428	-2.85581e-10
661.57	-1.7917e-10
670.019	-1.10958e-10
680.143	-6.63931e-11
690.255	-7.09406e-11
700.368	-1.36424e-10
710.48	-2.73758e-10
720.592	-4.96584e-10
730.704	-8.14907e-10
740.817	-1.23782e-09
750.929	-1.77806e-09
761.041	-2.44381e-09
771.153	-3.24599e-09
781.265	-4.19004e-09
791.377	-5.28507e-09
801.489	-6.53472e-09
811.602	-7.94171e-09
820.028	-9.23501e-09
830.14	-1.09321e-08
840.252	-1.27829e-08
850.364	-1.47811e-08
860.476	-1.69166e-08
870.588	-1.91776e-08
880.7	-2.15432e-08
890.812	-2.39961e-08
900.923	-2.65072e-08
911.035	-2.90438e-08
921.147	-3.15695e-08
931.259	-3.40387e-08
941.37	-3.64053e-08
951.482	-3.86117e-08
961.594	-4.05953e-08
970.02	-4.20305e-08
980.132	-4.34256e-08
990.243	-4.43906e-08
1000.36	-4.4839e-08
1010.47	-4.46789e-08
1020.58	-4.38131e-08
1030.69	-4.21351e-08
1040.8	-3.95303e-08
1050.91	-3.5875e-08
1061.02	-3.10374e-08
1071.14	-2.48729e-08
1081.25	-1.72276e-08
1091.36	-7.93534e-09
1101.47	3.18414e-09
1111.58	1.63209e-08
1120	2.89492e-08
1130.11	4.6316e-08
1140.22	6.63185e-08
1150.33	8.91996e-08
1160.43	1.15222e-07
1170.54	1.44662e-07
1180.65	1.77818e-07
1190.76	2.15004e-07
1200.87	2.56548e-07
1210.98	3.02807e-07
1221.09	3.54151e-07
1231.19	4.10972e-07
1241.3	4.73688e-07
1251.41	5.42736e-07
1261.52	6.18567e-07
1271.61	7.01603e-07
1280.01	7.76588e-07
1290.09	8.74421e-07
1300.16	9.81711e-07
1310.22	1.0988e-06
1320.28	1.2261e-06
1330.32	1.3636e-06
1340.35	1.51164e-06
1350.38	1.67045e-06
1360.41	1.84025e-06
1370.44	2.02122e-06
1380.47	2.21356e-06
1390.5	2.41749e-06
1400.53	2.63327e-06
1410.56	2.86122e-06
1420.6	3.10167e-06
1430.63	3.35505e-06
1440.64	3.62136e-06
1450.64	3.90106e-06
1460.62	4.19496e-06
1470.61	4.50394e-06
1480.6	4.82872e-06
1490.59	5.17014e-06
1500.58	5.52908e-06
1510.57	5.90652e-06
1520.56	6.30351e-06
1530.54	6.72119e-06
1540.51	7.15987e-06
1550.48	7.62139e-06
1560.43	8.10699e-06
1570.28	8.61273e-06
1580.12	9.14527e-06
1591.61	9.80254e-06
1601.45	1.03986e-05
1611.3	1.10267e-05
1621.14	1.16886e-05
1630.99	1.23862e-05
1640.83	1.31215e-05
1650.68	1.38965e-05
1660.52	1.47132e-05
1670.37	1.55735e-05
1680.21	1.64791e-05
1690.06	1.74314e-05
1701.54	1.86031e-05
1711.39	1.96607e-05
1721.23	2.07686e-05
1731.08	2.19279e-05
1740.92	2.31396e-05
1750.77	2.44046e-05
1760.61	2.5724e-05
1770.46	2.70989e-05
1780.3	2.85304e-05
1790.15	3.00198e-05
1801.63	3.18321e-05
1811.48	3.34513e-05
1821.32	3.51327e-05
1831.17	3.68781e-05
1841.01	3.8689e-05
1850.86	4.05676e-05
1860.7	4.25158e-05
1870.55	4.45358e-05
1880.39	4.66301e-05
1890.24	4.88011e-05
1900.08	5.10515e-05
1911.57	5.37811e-05
1921.41	5.62134e-05
1931.26	5.87345e-05
1941.1	6.13476e-05
1950.95	6.40561e-05
1960.79	6.68636e-05
1970.64	6.97737e-05
1980.48	7.27902e-05
1990.33	7.59171e-05
2000.17	7.91587e-05
2010.02	8.25192e-05
2021.5	8.31586e-05
2031.35	8.17592e-05
2041.19	8.06194e-05
2051.03	7.97214e-05
2060.88	7.90495e-05
2070.72	7.85892e-05
2080.57	7.83273e-05
2090.41	7.82517e-05
2100.26	7.83516e-05
2110.1	7.86172e-05
2121.59	7.91254e-05
2131.43	7.97225e-05
2141.27	8.0462e-05
2151.12	8.13387e-05
2160.96	8.2348e-05
2170.81	8.34863e-05
2180.65	8.47508e-05
2190.5	8.61392e-05
2200.34	8.76501e-05
2210.19	8.92828e-05
2220.03	9.10369e-05
2231.51	9.32373e-05
2241.36	9.52566e-05
2251.2	9.74002e-05
2261.05	9.96702e-05
2270.89	0.000102069
2280.74	0.000104599
2290.58	0.000107264
2300.42	0.000110067
2310.27	0.000113011
2320.11	0.000116102
2331.6	0.000119897
2341.44	0.000123319
2351.29	0.000126901
2361.13	0.000130649
2370.97	0.000134568
2380.82	0.000138663
2390.66	0.000142941
2400.51	0.000147409
2410.35	0.00015206
2420.19	0.000156881
2430.04	0.000161858
2441.52	0.000167851
2451.37	0.000173142
2461.21	0.00017857
2471.06	0.000184133
2480.9	0.000189832
2490.74	0.000195667
2500.59	0.000201642
2510.43	0.00020776
2520.28	0.000214026
2530.12	0.000220446
2541.61	0.000228141
2551.45	0.000234921
2561.3	0.00024188
2571.14	0.000249029
2580.83	0.000256266
2590.68	0.000263824
2600.52	0.000271606
2610.37	0.000279626
2620.19	0.000287876
2631.62	0.00029781
2641.42	0.000306624
2651.22	0.000315726
2661.01	0.00032513
2670.81	0.000334848
2680.61	0.000344892
2690.41	0.000355274
2700.21	0.000366007
2710	0.000377103
2721.44	0.000390526
2731.23	0.000402456
2741.03	0.000414794
2750.83	0.000427554
2760.63	0.000440754
2770.43	0.000460973
2780.22	0.000494445
2790.02	0.000527756
2801.45	0.000566289
2811.25	0.000598986
2821.05	0.000631369
2830.85	0.000663459
2840.64	0.000695299
2850.44	0.00072695
2860.24	0.000758488
2870.04	0.000789998
2881.47	0.000826851
2891.27	0.000858633
2901.06	0.000890704
2910.86	0.000923172
2920.66	0.000956144
2930.46	0.000989727
2940.26	0.00102403
2950.05	0.00105915
2961.48	0.0011013
2971.28	0.00113853
2981.08	0.0011767
2990.88	0.00121563
3000.67	0.00125522
3010.47	0.00129544
3020.27	0.00133626
3030.07	0.00137773
3041.5	0.00142701
3051.3	0.00147013
3061.09	0.00151419
3070.89	0.00155933
3080.69	0.00160571
3090.49	0.0016535
3100.28	0.00170286
3110.08	0.00175393
3121.51	0.00181589
3131.31	0.0018712
3141.11	0.0019287
3150.9	0.00198855
3160.7	0.00212509
3170.5	0.00225458
3180.3	0.00237737
3190.09	0.00249456
3201.52	0.00262624
3211.32	0.00273675
3221.12	0.00284691
3230.91	0.00295838
3240.71	0.00307272
3250.51	0.00319131
3260.31	0.00331445
3270.1	0.00344105
3281.53	0.00359279
3291.33	0.00372685
3301.13	0.00386563
3310.93	0.00401053
3320.72	0.00416311
3330.52	0.00432478
3340.32	0.00449677
3350.11	0.00484537
3361.54	0.00523591
3371.34	0.00556086
3381.14	0.0058878
3390.94	0.00622755
3400.73	0.00658575
3410.53	0.00695508
3420.33	0.00733684
3430.12	0.00774161
3441.55	0.0084651
3451.35	0.00921947
3461.15	0.00993032
3470.95	0.0107025
3480.74	0.0115403
3490.54	0.012995
3500.34	0.0145845
3510.13	0.0172221
3521.56	0.024009
3531.36	0.0305745
3541.16	0.0360814
3550.96	0.0416407
3560.75	0.0468554
3570.55	0.0518288
3580.35	0.0564479
3590.15	0.0608273
3601.58	0.0662482
3611.37	0.0710675
3621.17	0.075902
3630.97	0.0806163
3640.76	0.0853357
3650.56	0.0901369
3660.36	0.0950038
3670.16	0.099846
3681.59	0.105517
3691.39	0.11051
3701.18	0.115585
3710.98	0.120596
3720.78	0.125466
3730.58	0.13024
3740.37	0.13498
3750.17	0.139684
3761.6	0.145093
3771.4	0.149695
3781.2	0.15433
3791	0.159014
3800.79	0.163707
3810.59	0.168371
3820.48	0.173049
3830.36	0.177725
3840.24	0.182415
3850.12	0.187131
3860.01	0.191892
3871.54	0.197531
3881.42	0.202429
3891.3	0.207365
3901.19	0.212327
3911.07	0.21732
3920.95	0.222355
3930.84	0.227443
3940.73	0.232605
3950.62	0.237867
3960.51	0.243253
3970.4	0.248767
3980.28	0.254398
3990.17	0.260134
4000.06	0.265979
4011.6	0.27295
4021.49	0.279069
4031.38	0.285331
4041.27	0.291747
4051.16	0.298325
4061.05	0.30507
4070.94	0.311989
4080.84	0.319106
4090.74	0.326452
4100.65	0.334078
4110.56	0.342029
4120.51	0.350387
4130.46	0.359205
4140.43	0.368554
4150.4	0.378493
4160.38	0.389102
4170.36	0.400482
4180.38	0.412743
4190.42	0.426009
4200.46	0.440349
4210.5	0.455869
4220.54	0.472666
4230.59	0.490826
4240.63	0.510423
4250.67	0.531519
4260.71	0.554169
4270.76	0.578417
4280.8	0.604293
4290.84	0.631807
4300.88	0.66094
4310.93	0.691638
4320.97	0.723806
4331.01	0.757304
4341.05	0.791952
4351.1	0.827526
4361.14	0.863769
4371.18	0.900382
4381.22	0.937033
4391.27	0.973345
4401.31	1.0089
4411.35	1.04324
4421.39	1.07587
4431.44	1.10624
4441.48	1.1338
4451.52	1.15796
4461.56	1.17811
4471.61	1.19364
4481.65	1.20391
4490.02	1.20798
4500.06	1.20692
4510.1	1.19874
4520.15	1.18282
4530.19	1.15851
4540.23	1.12526
4550.27	1.08254
4560.32	1.02994
4570.36	0.967146
4580.4	0.893941
4590.45	0.810196
4600.49	0.715776
4610.53	0.610393
4620.57	0.493433
4630.62	0.363804
4640.66	0.2199
4650.7	0.0603618
4660.75	-0.079158
4670.79	-0.131003
4680.86	-0.186361
4690.95	-0.20787
4701.04	-0.240911
4711.14	-0.266277
4721.24	-0.286272
4731.35	-0.303636
4741.47	-0.310473
4751.58	-0.326769
4760	-0.337377
4770.12	-0.347791
4780.23	-0.356695
4790.34	-0.363699
4800.45	-0.370353
4810.56	-0.376729
4820.67	-0.382635
4830.78	-0.387929
4840.89	-0.378527
4850.99	-0.380879
4861.1	-0.386802
4871.21	-0.391727
4881.32	-0.395807
4891.43	-0.399213
4901.54	-0.402096
4911.64	-0.404595
4920.07	-0.406464
4930.18	-0.408087
4940.28	-0.409585
4950.39	-0.411021
4960.5	-0.412388
4970.61	-0.413732
4980.72	-0.415021
4990.82	-0.416231
5000.91	-0.417341
5011	-0.418337
5021.07	-0.419116
5031.14	-0.410659
5041.2	-0.411694
5051.26	-0.413226
5061.32	-0.414653
5071.37	-0.415872
5081.41	-0.41689
5091.45	-0.417683
5101.48	-0.418277
5111.51	-0.418698
5121.54	-0.418959
5131.57	-0.419076
5141.61	-0.419061
5151.64	-0.418929
5161.67	-0.41869
5170.02	-0.418418
5180.06	-0.418011
5190.09	-0.417523
5200.12	-0.416961
5210.15	-0.416334
5220.15	-0.415668
5230.14	-0.414944
5240.14	-0.414173
5250.13	-0.413356
5260.12	-0.412336
5270.11	-0.411135
5280.1	-0.409909
5290.08	-0.408656
5300.07	-0.407372
5310.06	-0.406057
5320.03	-0.40471
5331.63	-0.403097
5341.53	-0.40168
5351.38	-0.400235
5361.22	-0.398752
5371.07	-0.397233
5380.91	-0.395667
5390.76	-0.394042
5400.61	-0.392372
5410.45	-0.3867
5420.3	-0.379626
5430.14	-0.378615
5441.63	-0.377417
5451.47	-0.376377
5461.32	-0.375328
5471.16	-0.374273
5481.01	-0.373216
5490.85	-0.372161
5500.7	-0.371114
5510.54	-0.370079
5520.39	-0.36906
5530.23	-0.36806
5540.08	-0.367081
5551.56	-0.365969
5561.41	-0.365043
5571.25	-0.364141
5581.1	-0.363264
5590.94	-0.362412
5600.79	-0.361583
5610.63	-0.360776
5620.48	-0.359987
5630.32	-0.359214
5640.17	-0.358451
5650.01	-0.357693
5661.5	-0.35681
5671.35	-0.356048
5681.19	-0.355277
5691.04	-0.354491
5700.88	-0.353688
5710.73	-0.352862
5720.57	-0.35201
5730.42	-0.351127
5740.26	-0.350211
5750.11	-0.349257
5761.59	-0.348095
5771.44	-0.347208
5781.28	-0.346277
5791.13	-0.345268
5800.97	-0.344184
5810.82	-0.343027
5820.66	-0.341797
5830.51	-0.340495
5840.35	-0.338941
5850.2	-0.337636
5860.04	-0.336844
5871.53	-0.335755
5881.37	-0.334697
5891.22	-0.333535
5901.06	-0.332278
5910.91	-0.330932
5920.75	-0.329504
5930.6	-0.327997
5940.44	-0.326413
5950.29	-0.324757
5960.13	-0.323029
5971.62	-0.320924
5981.46	-0.319046
5991.31	-0.3171
6001.15	-0.315089
6011	-0.313012
6020.84	-0.310871
6030.69	-0.308668
6040.53	-0.306404
6050.38	-0.30408
6060.22	-0.301699
6070.07	-0.299272
6081.55	-0.296393
6091.4	-0.293892
6101.24	-0.291367
6111.09	-0.28882
6120.93	-0.286253
6130.78	-0.283668
6140.62	-0.281065
6150.47	-0.278434
6160.31	-0.275771
6170.16	-0.273077
6180	-0.270354
6191.49	-0.267141
6201.33	-0.264357
6211.18	-0.261547
6221.02	-0.258711
6230.87	-0.25585
6240.71	-0.252964
6250.56	-0.250054
6260.4	-0.245881
6270.25	-0.241457
6280.09	-0.23708
6291.58	-0.232064
6301.42	-0.227845
6311.27	-0.223691
6321.11	-0.219586
6330.96	-0.215509
6340.8	-0.211442
6350.65	-0.207366
6360.49	-0.203265
6370.34	-0.199149
6380.18	-0.195044
6390.03	-0.190957
6401.51	-0.186203
6411.36	-0.182123
6421.2	-0.178015
6431.05	-0.173854
6440.89	-0.169623
6450.74	-0.163514
6460.58	-0.15592
6470.43	-0.148762
6480.27	-0.14193
6490.12	-0.135261
6501.6	-0.127502
6511.45	-0.120793
6521.29	-0.114146
6531.14	-0.107574
6540.98	-0.100965
6550.81	-0.0917768
6560.61	-0.0815448
6570.41	-0.0722123
6580.21	-0.0626552
6590	-0.0528626
6601.44	-0.0366366
6611.23	-0.0215364
6621.03	-0.00263784
6630.83	0.0322287
6640.63	0.0700231
6650.43	0.0915869
6660.22	0.107105
6670.02	0.117824
6681.45	0.124408
6691.25	0.125307
6701.05	0.123194
6710.85	0.122483
6720.64	0.123208
6730.44	0.124347
6740.24	0.124135
6750.04	0.122948
6761.47	0.121841
6771.27	0.121642
6781.07	0.121649
6790.86	0.12142
6800.66	0.121932
6810.46	0.123809
6820.26	0.126272
6830.06	0.128007
6841.49	0.128719
6851.28	0.128961
6861.08	0.129395
6870.88	0.129804
6880.68	0.129768
6890.48	0.129423
6900.27	0.129258
6910.07	0.129427
6921.5	0.12952
6931.3	0.129032
6941.1	0.128027
6950.9	0.126819
6960.69	0.125665
6970.49	0.124668
6980.29	0.123918
6990.09	0.123479
7001.52	0.123144
7011.32	0.122568
7021.11	0.121377
7030.91	0.119507
7040.71	0.117091
7050.51	0.114307
7060.31	0.111347
7070.1	0.108472
7081.53	0.105578
7091.33	0.103597
7101.13	0.101904
7110.93	0.100229
7120.73	0.0984149
7130.52	0.0964964
7140.32	0.094625
7150.12	0.0929669
7161.55	0.0914766
7171.35	0.090664
7181.15	0.0902606
7190.94	0.0901407
7200.74	0.0901242
7210.54	0.0900578
7220.34	0.0898666
7230.13	0.0895546
7241.56	0.0891166
7251.36	0.0887771
7261.16	0.0885597
7270.96	0.0885124
7280.76	0.0886336
7290.55	0.088891
7300.35	0.0892555
7310.15	0.0897214
7321.58	0.0904115
7331.38	0.0911442
7341.18	0.092002
7350.97	0.0929484
7360.77	0.0939131
7370.57	0.094803
7380.37	0.0955289
7390.17	0.0960342
7401.6	0.0963356
7411.39	0.0963895
7421.19	0.0963203
7430.99	0.0961904
7440.79	0.096043
7450.59	0.0958905
7460.38	0.0957192
7470.18	0.0955085
7481.61	0.0952134
7491.41	0.0949637
7501.21	0.0947981
7511.01	0.094809
7520.8	0.0950712
7530.6	0.0956128
7540.4	0.096399
7550.2	0.0973374
7561.63	0.0984606
7571.43	0.0993201
7581.22	0.100017
7591.02	0.100554
7600.82	0.100987
7610.62	0.101411
7620.42	0.101923
7630.21	0.102597
7640.01	0.103467
7651.44	0.104722
7661.24	0.105967
7671.04	0.107331
7680.84	0.108798
7690.71	0.110382
7700.59	0.112086
7710.47	0.113916
7720.35	0.115852
7730.24	0.117843
7740.12	0.119808
7750	0.121655
7761.53	0.123549
7771.42	0.12489
7781.3	0.125957
7791.18	0.126779
7801.07	0.127412
7810.95	0.127923
7820.83	0.128374
7830.72	0.128814
7840.6	0.129273
7850.48	0.129766
7860.37	0.130303
7870.25	0.130891
7880.13	0.131539
7890.02	0.132255
7901.55	0.133179
7911.43	0.134039
7921.31	0.134942
7931.2	0.135864
7941.09	0.136772
7950.98	0.137643
7960.87	0.13846
7970.76	0.139215
7980.65	0.139911
7990.54	0.140555
8000.43	0.141154
8010.32	0.14171
8020.22	0.142221
8030.11	0.142682
8041.64	0.14314
8051.53	0.143449
8061.42	0.14366
8071.31	0.143752
8081.2	0.143693
8091.09	0.143448
8100.98	0.142977
8110.87	0.142241
8120.76	0.141203
8130.65	0.139838
8140.54	0.138134
8150.43	0.136089
8160.32	0.133715
8170.21	0.131026
8180.1	0.128044
8191.64	0.124222
8201.54	0.120674
8211.44	0.116901
8221.34	0.112932
8231.25	0.108795
8241.17	0.104535
8251.08	0.100192
8261.01	0.0957991
8270.96	0.091391
8280.92	0.0869997
8290.89	0.0826453
8300.86	0.0783447
8310.84	0.0741037
8320.85	0.0699215
8330.9	0.0658084
8340.94	0.0617908
8350.98	0.0578851
8361.03	0.0541094
8371.07	0.0504817
8381.11	0.0470183
8391.15	0.0437325
8401.2	0.0406342
8411.24	0.0377295
8421.28	0.0350206
8431.33	0.0325056
8441.37	0.0301776
8451.41	0.0280244
8461.45	0.0260282
8471.5	0.0241669
8481.54	0.0224157
8491.58	0.02075
8501.63	0.0191474
8511.66	0.0175896
8520.03	0.0163108
8530.07	0.0145867
8540.1	0.011398
8550.13	0.00727568
8560.16	0.00499483
8570.19	-7.84806e-05
8580.22	-0.00213185
8590.25	-0.00673752
8600.28	-0.0118735
8610.31	-0.0167247
8620.34	-0.0209696
8630.38	-0.0210077
8640.41	-0.0251973
8650.44	-0.0285082
8660.47	-0.0314935
8670.5	-0.034393
8680.53	-0.0370653
8690.56	-0.0395761
8700.59	-0.0419598
8710.62	-0.0442323
8720.65	-0.0471344
8730.67	-0.0499788
8740.69	-0.0524629
8750.69	-0.0546566
8760.68	-0.0566201
8770.67	-0.0583959
8780.65	-0.060022
8790.64	-0.0614991
8800.63	-0.0628195
8810.62	-0.0641019
8820.61	-0.0653429
8830.6	-0.0665394
8840.59	-0.0676893
8850.55	-0.0687894
8860.51	-0.0676613
8870.46	-0.070195
8880.34	-0.0709408
8890.19	-0.0716183
8900.03	-0.072208
8911.52	-0.0727919
8921.36	-0.0732169
8931.21	-0.0735863
8941.05	-0.0739133
8950.9	-0.0742089
8960.74	-0.0744813
8970.59	-0.0747372
8980.43	-0.0749819
8990.28	-0.0752197
9000.13	-0.0755908
9011.61	-0.0760184
9021.46	-0.0762753
9031.3	-0.0765313
9041.15	-0.0767868
9050.99	-0.0770422
9060.84	-0.0772973
9070.68	-0.0775518
9080.53	-0.0778053
9090.37	-0.0780573
9100.22	-0.0783075
9110.06	-0.0785554
9121.55	-0.0788415
9131.39	-0.0790835
9141.24	-0.0793221
9151.08	-0.0774165
9160.93	-0.0779041
9170.77	-0.0783649
9180.62	-0.0782962
9190.46	-0.0787941
9200.31	-0.0792683
9210.15	-0.079719
9220	-0.0801465
9231.49	-0.0806164
9241.33	-0.0809941
9251.18	-0.081344
9261.02	-0.0816663
9270.87	-0.0819624
9280.71	-0.0822337
9290.56	-0.0824815
9300.4	-0.0827062
9310.25	-0.0829082
9320.09	-0.0830866
9331.58	-0.0832664
9341.42	-0.0833981
9351.27	-0.0835113
9361.11	-0.0836076
9370.96	-0.0836883
9380.8	-0.0837546
9390.65	-0.0838075
9400.49	-0.0838479
9410.34	-0.0838766
9420.18	-0.0838942
9430.03	-0.0839013
9441.52	-0.0838969
9451.36	-0.0838828
9461.21	-0.0838595
9471.05	-0.0838273
9480.9	-0.0837865
9490.74	-0.0837346
9500.59	-0.0837804
9510.43	-0.08386
9520.28	-0.0839171
9530.12	-0.0839531
9541.61	-0.0839702
9551.45	-0.0839357
9561.3	-0.08383
9571.14	-0.0837137
9580.99	-0.0835873
9590.83	-0.0834509
9600.68	-0.0833047
9610.52	-0.0831489
9620.37	-0.0829836
9630.21	-0.082809
9640.06	-0.0826251
9651.54	-0.0823989
9661.39	-0.0821951
9671.23	-0.0819821
9681.08	-0.08176
9690.92	-0.0815288
9700.77	-0.0812885
9710.61	-0.081039
9720.46	-0.0807804
9730.3	-0.0805128
9740.15	-0.0802361
9751.64	-0.0799018
9761.48	-0.0796056
9771.33	-0.0793005
9781.17	-0.0789865
9791.02	-0.0786637
9800.86	-0.0783323
9810.71	-0.0779923
9820.55	-0.0776439
9830.4	-0.0772872
9840.24	-0.0769224
9850.09	-0.07655
9861.57	-0.0761061
9871.42	-0.0757179
9881.26	-0.0757951
9891.11	-0.0754363
9900.95	-0.0750741
9910.8	-0.0747081
9920.64	-0.0743383
9930.49	-0.0739646
9940.33	-0.0735871
9950.18	-0.0732057
9960.02	-0.0728187
9971.51	-0.0723589
9981.35	-0.071958
9991.2	-0.0715509
10001	-0.0711378
10010.9	-0.0707189
10020.7	-0.0702942
10030.6	-0.0698642
10040.4	-0.0694303
10050.2	-0.0689702
10061.6	-0.0683085
10071.4	-0.0677402
10081.2	-0.0671729
10091	-0.0666071
10100.8	-0.0660424
10110.6	-0.0654783
10120.4	-0.0649145
10130.2	-0.0643507
10141.6	-0.0636925
10151.4	-0.0631277
10161.2	-0.0625622
10171	-0.0619956
10180.8	-0.0614279
10190.6	-0.060859
10200.4	-0.0602887
10210.2	-0.059717
10220	-0.0591439
10231.4	-0.0584735
10241.2	-0.0578974
10251	-0.0573199
10260.8	-0.0567411
10270.6	-0.0561611
10280.4	-0.0555798
10290.2	-0.0549973
10300	-0.0544136
10311.4	-0.053731
10321.2	-0.0531447
10331	-0.0525573
10340.8	-0.0519689
10350.6	-0.0513798
10360.4	-0.0507902
10370.2	-0.0502
10380	-0.0496096
10391.5	-0.0489205
10401.3	-0.0483299
10411.1	-0.0477394
10420.9	-0.0471491
10430.7	-0.0465591
10440.5	-0.0459696
10450.3	-0.0453806
10460.1	-0.0447923
10471.5	-0.044107
10481.3	-0.0435205
10491.1	-0.042935
10500.9	-0.0423506
10510.7	-0.0417674
10520.5	-0.0411854
10530.3	-0.0406049
10540.1	-0.0400259
10551.5	-0.0393527
10561.3	-0.0387777
10571.1	-0.0382048
10580.9	-0.037634
10590.7	-0.0370654
10600.5	-0.0364996
10610.3	-0.035924
10620.1	-0.0352917
10631.5	-0.0345698
10641.3	-0.0339637
10651.1	-0.0333686
10660.9	-0.0327839
10670.7	-0.0322088
10680.5	-0.0316429
10690.3	-0.0310855
10700.1	-0.0305361
10711.5	-0.0299047
10721.3	-0.0293711
10731.1	-0.0288441
10740.9	-0.0282154
10750.7	-0.0275978
10760.5	-0.027011
10770.3	-0.026451
10780.1	-0.0259142
10791.6	-0.0253133
10801.3	-0.0248168
10811.1	-0.024335
10820.9	-0.0238658
10830.7	-0.0234102
10840.5	-0.0229691
10850.3	-0.0225412
10860.1	-0.022125
10871.6	-0.0216524
10881.4	-0.0212567
10891.2	-0.0208684
10901	-0.020486
10910.8	-0.0201083
10920.6	-0.0197343
10930.4	-0.0193628
10940.2	-0.018993
10951.6	-0.0185628
10961.4	-0.0181949
10971.2	-0.0178273
10981	-0.0174599
10990.8	-0.0170922
11000.6	-0.0167236
11010.4	-0.0163538
11020.2	-0.0159823
11031.6	-0.0155462
11041.4	-0.0151695
11051.2	-0.0147916
11061	-0.0144197
11070.8	-0.0140527
11080.6	-0.0136887
11090.4	-0.0133262
11100.2	-0.0129637
11111.6	-0.0125388
11121.4	-0.0121717
11131.2	-0.0118008
11141	-0.0113144
11150.8	-0.0107439
11160.6	-0.0101523
11170.4	-0.00954907
11180.2	-0.0089406
11190	-0.00833067
11201.4	-0.00761999
11211.2	-0.00701278
11221	-0.00640891
11230.8	-0.00580915
11240.6	-0.0052134
11250.4	-0.00462025
11260.2	-0.00402305
11270	-0.00342113
11281.5	-0.002713
11291.2	-0.00210138
11301	-0.00148792
11310.8	-0.000875059
11320.6	-0.000263874
11330.4	0.000836219
11340.2	0.0023814
11350	0.00381657
11361.5	0.00532381
11371.3	0.00647125
11381.1	0.0075004
11390.9	0.00844849
11400.7	0.00932681
11410.5	0.010138
11420.3	0.011255
11430.1	0.0121924
11441.5	0.0131345
11451.3	0.0138695
11461.1	0.014527
11470.9	0.0152822
11480.7	0.0164155
11490.5	0.0178889
11500.3	0.0208659
11510.1	0.0235586
11521.5	0.0263144
11531.3	0.0289389
11541.1	0.0317715
11550.9	0.0347473
11560.7	0.0379417
11570.5	0.0412074
11580.3	0.0447077
11590.1	0.048418
11601.5	0.0527927
11611.3	0.0566584
11621.1	0.060687
11630.9	0.0647361
11640.7	0.068711
11650.5	0.0725903
11660.3	0.0763393
11670.1	0.079857
11681.5	0.0834651
11691.3	0.0860496
11701.1	0.0882096
11710.9	0.0900262
11720.7	0.0915696
11730.6	0.0928946
11740.5	0.0940203
11750.3	0.0949567
11760.2	0.095725
11770.1	0.0963662
11781.6	0.0970206
11791.5	0.0975389
11801.4	0.0980298
11811.3	0.0985016
11821.2	0.0989702
11831.1	0.0994514
11840.9	0.099952
11850.8	0.100468
11860.7	0.100995
11870.6	0.101533
11880.5	0.102086
11890.4	0.102657
11900.3	0.103228
11910.2	0.103768
11920.1	0.104236
11931.6	0.104664
11941.5	0.104938
11951.4	0.105163
11961.3	0.105378
11971.2	0.105609
11981	0.105868
11990.9	0.106158
