0	0
10.0538	0
20.1077	0
30.1615	0
40.2154	0
50.2692	0
60.323	0
70.3769	0
80.4307	0
90.4846	0
100.538	0
110.592	0
120.646	0
130.7	0
140.754	0
150.808	0
160.861	0
170.001	0
180.055	0
190.109	0
200.163	0
210.217	0
220.27	0
230.324	0
240.378	0
250.432	0
260.486	0
270.54	0
280.594	0
290.647	0
300.701	0
310.755	0
320.809	0
330.863	0
340.003	0
350.056	0
360.11	0
370.164	0
380.218	0
390.272	0
400.326	0
410.379	0
420.433	0
430.487	0
440.541	0
450.595	0
460.649	0
470.702	0
480.756	0
490.81	0
500.864	0
510.004	0
520.058	0
530.112	0
540.165	0
550.219	0
560.273	-9.09495e-13
570.327	0
580.381	0
590.435	0
600.488	0
610.542	0
620.596	0
630.65	0
640.704	0
650.758	0
660.811	0
670.865	0
680.005	0
690.059	0
700.113	0
710.167	0
720.22	0
730.274	0
740.328	0
750.382	0
760.436	0
770.49	0
780.544	0
790.597	0
800.651	0
810.705	0
820.759	0
830.813	0
840.867	0
850.006	0
860.06	0
870.114	0
880.168	0
890.222	0
900.276	0
910.329	0
920.383	0
930.437	0
940.491	0
950.545	0
960.599	0
970.652	0
980.706	0
990.76	0
1000.81	0
1010.87	0
1020.01	0
1030.06	0
1040.12	0
1050.17	0
1060.22	0
1070.28	0
1080.33	0
1090.38	0
1100.44	0
1110.49	0
1120.55	0
1130.6	0
1140.65	0
1150.71	0
1160.76	0
1170.82	0
1180.87	0
1190.01	0
1200.06	0
1210.12	0
1220.17	0
1230.22	0
1240.28	0
1250.33	0
1260.39	0
1270.44	0
1280.49	0
1290.55	0
1300.6	0
1310.66	0
1320.71	0
1330.76	0
1340.82	0
1350.87	0
1360.01	0
1370.06	0
1380.12	0
1390.17	0
1400.23	0
1410.28	0
1420.33	0
1430.39	0
1440.44	0
1450.49	0
1460.55	0
1470.6	0
1480.66	0
1490.71	0
1500.76	0
1510.82	0
1520.87	0
1530.01	0
1540.07	0
1550.12	0
1560.17	0
1570.23	0
1580.28	0
1590.33	0
1600.39	0
1610.44	0
1620.5	0
1630.55	0
1640.6	0
1650.66	0
1660.71	0
1670.77	0
1680.82	0
1690.87	0
1700.01	0
1710.07	0
1720.12	0
1730.17	0
1740.23	0
1750.28	0
1760.34	0
1770.39	0
1780.44	0
1790.5	0
1800.55	0
1810.61	0
1820.66	0
1830.71	0
1840.77	0
1850.82	0
1860.87	0
1870.01	0
1880.07	0
1890.12	0
1900.18	0
1910.23	0
1920.28	0
1930.34	0
1940.39	0
1950.44	0
1960.5	0
1970.55	0
1980.61	0
1990.66	0
2000.71	0
2010.77	0
2020.82	0
2030.88	0
2040.02	0
2050.07	0
2060.12	0
2070.18	0
2080.23	0
2090.28	0
2100.34	0
2110.39	0
2120.45	0
2130.5	0
2140.55	0
2150.61	0
2160.66	0
2170.72	0
2180.77	0
2190.82	-9.09495e-13
2200.88	0
2210.02	0
2220.07	0
2230.12	0
2240.18	0
2250.23	0
2260.29	-9.09495e-13
2270.34	-3.63798e-12
2280.39	-1.00044e-11
2290.45	-1.63709e-11
2300.5	-2.45564e-11
2310.56	-3.91083e-11
2320.61	-6.00267e-11
2330.66	-9.45874e-11
2340.72	-1.4461e-10
2350.77	-2.24645e-10
2360.82	-3.4288e-10
2370.88	-5.19321e-10
2380.02	-7.50333e-10
2390.07	-1.11049e-09
2400.13	-1.62254e-09
2410.18	-2.3374e-09
2420.23	-3.32238e-09
2430.29	-4.66116e-09
2440.34	-6.45832e-09
2450.39	-8.83483e-09
2460.45	-1.19408e-08
2470.5	-1.59453e-08
2480.56	-2.10484e-08
2490.61	-2.74722e-08
2500.66	-3.54667e-08
2510.72	-4.53192e-08
2520.77	-5.73718e-08
2530.83	-7.20811e-08
2540.88	-9.01646e-08
2550.02	-1.10627e-07
2560.07	-1.39944e-07
2570.13	-1.81529e-07
2580.18	-2.46219e-07
2590.23	-3.55923e-07
2600.29	-5.53428e-07
2610.34	-9.19191e-07
2620.4	-1.59868e-06
2630.45	-2.84477e-06
2640.5	-5.08015e-06
2650.56	-8.98458e-06
2660.61	-1.56101e-05
2670.67	-2.65249e-05
2680.72	-4.39801e-05
2690.77	-7.10906e-05
2700.83	-0.00011201
2710.88	-0.000172078
2720.02	-0.000248838
2730.07	-0.000364883
2740.13	-0.000522714
2750.18	-0.000732145
2760.24	-0.00100346
2770.29	-0.00134683
2780.34	-0.00177162
2790.4	-0.00228557
2800.45	-0.00289401
2810.5	-0.00359913
2820.56	-0.00439948
2830.61	-0.0052897
2840.67	-0.00626072
2850.72	-0.00730026
2860.77	-0.00839374
2870.83	-0.00952554
2880.88	-0.0106803
2890.02	-0.0117383
2900.07	-0.0129009
2910.13	-0.0140543
2920.18	-0.0151941
2930.24	-0.0163193
2940.29	-0.0174314
2950.34	-0.0185335
2960.4	-0.0196293
2970.45	-0.0207217
2980.5	-0.0218118
2990.56	-0.022899
3000.61	-0.02398
3010.67	-0.02505
3020.72	-0.0261029
3030.77	-0.0271321
3040.83	-0.0281317
3050.88	-0.0290965
3060.02	-0.0299404
3070.07	-0.0308302
3080.13	-0.0316787
3090.18	-0.0324858
3100.24	-0.033252
3110.29	-0.0339774
3120.34	-0.0346617
3130.4	-0.0353037
3140.45	-0.0359009
3150.5	-0.0364498
3160.56	-0.0369457
3170.61	-0.0373826
3180.66	-0.0377533
3190.72	-0.038049
3200.77	-0.0382588
3210.83	-0.0383689
3220.88	-0.0383611
3230.02	-0.0382315
3240.07	-0.0379248
3250.13	-0.0374047
3260.18	-0.0366156
3270.23	-0.0354853
3280.29	-0.0339234
3290.34	-0.0318191
3300.39	-0.0290415
3310.45	-0.0254414
3320.5	-0.0208552
3330.55	-0.0151107
3340.61	-0.00803611
3350.66	0.000530834
3360.72	0.0107315
3370.77	0.0226755
3380.82	0.0364313
3390.88	0.052018
3400.02	0.0677482
3410.07	0.0866862
3420.12	0.107201
3430.18	0.129104
3440.23	0.152168
3450.28	0.176136
3460.34	0.200734
3470.39	0.225682
3480.44	0.250712
3490.5	0.275575
3500.55	0.300051
3510.6	0.323961
3520.66	0.347167
3530.71	0.369578
3540.76	0.39115
3550.82	0.41188
3560.87	0.431802
3570.01	0.449261
3580.06	0.467823
3590.12	0.48579
3600.17	0.503243
3610.22	0.520245
3620.28	0.536837
3630.33	0.553029
3640.38	0.568799
3650.44	0.584094
3660.49	0.598832
3670.54	0.612903
3680.6	0.626185
3690.65	0.638541
3700.7	0.649831
3710.76	0.659915
3720.81	0.668657
3730.86	0.675931
3740	0.681167
3750.05	0.685309
3760.11	0.687655
3770.16	0.688109
3780.21	0.686585
3790.27	0.683005
3800.32	0.677305
3810.37	0.669432
3820.43	0.659353
3830.48	0.647055
3840.53	0.632548
3850.59	0.61587
3860.64	0.597087
3870.69	0.576296
3880.75	0.553621
3890.8	0.529216
3900.85	0.503261
3910.91	0.475956
3920.05	0.450145
3930.1	0.420875
3940.15	0.390914
3950.21	0.360493
3960.26	0.329839
3970.31	0.299165
3980.37	0.268664
3990.42	0.238505
4000.47	0.20883
4010.53	0.179749
4020.58	0.151337
4030.63	0.123639
4040.69	0.0966703
4050.74	0.0704169
4060.79	0.0448451
4070.85	0.0199055
4080.9	-0.00446002
4090.04	-0.026163
4100.09	-0.0495966
4110.15	-0.0726165
4120.2	-0.0952596
4130.25	-0.117549
4140.31	-0.139494
4150.36	-0.161089
4160.41	-0.182318
4170.47	-0.203154
4180.52	-0.223566
4190.58	-0.243513
4200.63	-0.262955
4210.68	-0.281846
4220.74	-0.300139
4230.79	-0.317784
4240.84	-0.334725
4250.9	-0.3509
4260.04	-0.364881
4270.09	-0.379391
4280.15	-0.392904
4290.2	-0.405319
4300.25	-0.416525
4310.31	-0.426404
4320.36	-0.434832
4330.41	-0.441685
4340.47	-0.446846
4350.52	-0.450211
4360.58	-0.451692
4370.63	-0.451229
4380.68	-0.448788
4390.74	-0.44437
4400.79	-0.438005
4410.84	-0.429756
4420.9	-0.419712
4430.04	-0.409116
4440.09	-0.395967
4450.15	-0.381388
4460.2	-0.365523
4470.25	-0.348524
4480.31	-0.330546
4490.36	-0.311749
4500.41	-0.2923
4510.47	-0.272374
4520.52	-0.252159
4530.58	-0.231852
4540.63	-0.211658
4550.68	-0.191784
4560.74	-0.172435
4570.79	-0.153803
4580.84	-0.136059
4590.9	-0.119343
4600.04	-0.105128
4610.09	-0.0906316
4620.15	-0.0773524
4630.2	-0.0652753
4640.25	-0.054349
4650.31	-0.0444926
4660.36	-0.0356042
4670.41	-0.0275691
4680.47	-0.0202684
4690.52	-0.0135864
4700.58	-0.00741612
4710.63	-0.00166424
4720.68	0.00374676
4730.74	0.00887718
4740.79	0.0137703
4750.84	0.0184533
4760.9	0.0229394
4770.04	0.0268478
4780.09	0.0309531
4790.15	0.0348413
4800.2	0.038494
4810.25	0.0418912
4820.31	0.045014
4830.36	0.0478461
4840.41	0.0503758
4850.47	0.0525965
4860.52	0.0545076
4870.58	0.0561137
4880.63	0.0574245
4890.68	0.0584528
4900.74	0.0592135
4910.79	0.0597215
4920.85	0.05999
4930.9	0.0600288
4940.04	0.0598695
4950.09	0.0594803
4960.15	0.0588623
4970.2	0.0580054
4980.25	0.0568952
4990.31	0.0555146
5000.36	0.0538449
5010.42	0.0518684
5020.47	0.0495698
5030.52	0.0469384
5040.58	0.0439694
5050.63	0.0406656
5060.68	0.0370377
5070.74	0.0331056
5080.79	0.0288975
5090.85	0.0244503
5100.9	0.0198083
5110.04	0.0154619
5120.09	0.0105937
5130.15	0.00569214
5140.2	0.000818904
5150.26	-0.00396361
5160.31	-0.00859428
5170.36	-0.0130149
5180.42	-0.017172
5190.47	-0.0210179
5200.52	-0.0245128
5210.58	-0.0276251
5220.63	-0.0303328
5230.69	-0.0326239
5240.74	-0.0344965
5250.79	-0.0359592
5260.85	-0.0370302
5270.9	-0.0377368
5280.04	-0.038093
5290.09	-0.038209
5300.15	-0.0380825
5310.2	-0.037765
5320.26	-0.0373106
5330.31	-0.0367735
5340.36	-0.0362066
5350.42	-0.0356594
5360.47	-0.0351769
5370.53	-0.0347977
5380.58	-0.0345532
5390.63	-0.0344668
5400.69	-0.034554
5410.74	-0.0348221
5420.79	-0.0352706
5430.85	-0.0358924
5440.9	-0.0366743
5450.04	-0.0375089
5460.1	-0.0385433
5470.15	-0.0396761
5480.2	-0.0408816
5490.26	-0.0421333
5500.31	-0.0434051
5510.36	-0.0446717
5520.42	-0.0459094
5530.47	-0.0470966
5540.53	-0.048214
5550.58	-0.0492455
5560.63	-0.0501776
5570.69	-0.0510003
5580.74	-0.0517065
5590.8	-0.0522923
5600.85	-0.0527566
5610.9	-0.0531012
5620.04	-0.0533137
5630.1	-0.053442
5640.15	-0.0534673
5650.2	-0.0533982
5660.26	-0.0532448
5670.31	-0.0530177
5680.37	-0.0527283
5690.42	-0.0523888
5700.47	-0.0520115
5710.53	-0.0516093
5720.58	-0.0511957
5730.63	-0.0507846
5740.69	-0.0503901
5750.74	-0.0500271
5760.8	-0.049711
5770.85	-0.0494573
5780.9	-0.049282
5790.04	-0.0492042
5800.1	-0.0492233
5810.15	-0.0493673
5820.2	-0.0496515
5830.26	-0.0500902
5840.31	-0.0506966
5850.37	-0.051482
5860.42	-0.0524562
5870.47	-0.0536263
5880.53	-0.054997
5890.58	-0.0565702
5900.64	-0.0583448
5910.69	-0.0603166
5920.74	-0.0624782
5930.8	-0.0648192
5940.85	-0.0673263
5950.9	-0.0699833
5960.04	-0.0725134
5970.1	-0.0754036
5980.15	-0.078384
5990.21	-0.0814311
6000.26	-0.0845197
6010.31	-0.0876243
6020.37	-0.090719
6030.42	-0.0937778
6040.48	-0.0967753
6050.53	-0.0996867
6060.58	-0.102488
6070.64	-0.105158
6080.69	-0.107675
6090.74	-0.11002
6100.8	-0.112177
6110.85	-0.114131
6120.91	-0.115868
6130.05	-0.117252
6140.1	-0.11855
6150.15	-0.119608
6160.21	-0.12042
6170.26	-0.120984
6180.31	-0.121297
6190.37	-0.12136
6200.42	-0.121173
6210.48	-0.120736
6220.53	-0.120052
6230.58	-0.119123
6240.64	-0.117953
6250.69	-0.116543
6260.75	-0.114899
6270.8	-0.113024
6280.85	-0.110923
6290.91	-0.108602
6300.05	-0.106307
6310.1	-0.103585
6320.15	-0.100665
6330.21	-0.0975564
6340.26	-0.0942712
6350.32	-0.0908215
6360.37	-0.0872214
6370.42	-0.0834857
6380.48	-0.0796308
6390.53	-0.0756735
6400.59	-0.0716314
6410.64	-0.0675223
6420.69	-0.0633641
6430.75	-0.0591739
6440.8	-0.0549686
6450.85	-0.0507635
6460.91	-0.0465727
6470.05	-0.0427859
6480.1	-0.0386555
6490.16	-0.0345705
6500.21	-0.0305376
6510.26	-0.0265617
6520.32	-0.0226456
6530.37	-0.0187903
6540.43	-0.0149956
6550.48	-0.0112593
6560.53	-0.00757868
6570.59	-0.0039497
6580.64	-0.000367861
6590.69	0.00317176
6600.75	0.00667427
6610.8	0.0101448
6620.86	0.0135882
6630.91	0.0170091
6640.05	0.0201027
6650.1	0.0234911
6660.16	0.0268664
6670.21	0.0302304
6680.27	0.0335837
6690.32	0.0369253
6700.37	0.0402535
6710.43	0.0435648
6720.48	0.0468543
6730.53	0.0501158
6740.59	0.0533418
6750.64	0.0565233
6760.7	0.0596505
6770.75	0.0627126
6780.8	0.0656981
6790.86	0.0685954
6800.91	0.0713928
6810.05	0.0738398
6820.1	0.0764158
6830.16	0.0788613
6840.21	0.0811678
6850.27	0.0833283
6860.32	0.0853374
6870.37	0.0871913
6880.43	0.0888879
6890.48	0.0904267
6900.54	0.0918084
6910.59	0.093035
6920.64	0.0941091
6930.7	0.0950339
6940.75	0.0958125
6950.8	0.0964477
6960.86	0.0969418
6970.91	0.0972957
6980.05	0.0974957
6990.11	0.0975803
7000.16	0.0975202
7010.21	0.0973105
7020.27	0.0969452
7030.32	0.096417
7040.37	0.0957173
7050.43	0.0948371
7060.48	0.093767
7070.54	0.0924977
7080.59	0.0910206
7090.64	0.0893279
7100.7	0.0874135
7110.75	0.085273
7120.81	0.082904
7130.86	0.0803069
7140.91	0.0774844
7150.05	0.0747278
7160.11	0.0714937
7170.16	0.0680591
7180.21	0.0644384
7190.27	0.0606488
7200.32	0.0567102
7210.38	0.0526449
7220.43	0.0484776
7230.48	0.044235
7240.54	0.0399452
7250.59	0.0356378
7260.64	0.031343
7270.7	0.0270913
7280.75	0.0229132
7290.81	0.0188383
7300.86	0.0148949
7310.91	0.0111097
7320.05	0.00782646
7330.11	0.00440855
7340.16	0.0012116
7350.21	-0.0017492
7360.27	-0.00446236
7370.32	-0.00692029
7380.37	-0.00911932
7390.43	-0.0110596
7400.48	-0.0127448
7410.54	-0.0141819
7420.59	-0.0153808
7430.64	-0.0163536
7440.7	-0.0171143
7450.75	-0.0176778
7460.8	-0.0180597
7470.86	-0.0182757
7480.91	-0.0183405
7490.05	-0.0182799
7500.1	-0.0180934
7510.16	-0.0177919
7520.21	-0.0173842
7530.27	-0.0168774
7540.32	-0.0162767
7550.37	-0.0155854
7560.43	-0.0148056
7570.48	-0.0139379
7580.53	-0.0129822
7590.59	-0.0119379
7600.64	-0.0108045
7610.69	-0.00958151
7620.75	-0.00826916
7630.8	-0.00686862
7640.85	-0.00538218
7650.91	-0.00381341
7660.05	-0.00232001
7670.1	-0.000609199
7680.16	0.00116536
7690.21	0.00299451
7700.26	0.00486786
7710.32	0.00677387
7720.37	0.00870004
7730.42	0.0106331
7740.48	0.0125593
7750.53	0.0144644
7760.58	0.016334
7770.64	0.0181538
7780.69	0.0199098
7790.75	0.021588
7800.8	0.0231754
7810.85	0.0246593
7820.91	0.0260281
7830.05	0.0271635
7840.1	0.0282834
7850.15	0.0292596
7860.21	0.0300847
7870.26	0.0307523
7880.31	0.0312575
7890.37	0.0315967
7900.42	0.0317676
7910.48	0.0317695
7920.53	0.0316032
7930.58	0.0312709
7940.64	0.0307766
7950.69	0.0301257
7960.74	0.0293254
7970.8	0.0283846
7980.85	0.0273138
7990.91	0.0261257
8000.04	0.0249555
8010.1	0.0235839
8020.15	0.0221409
8030.21	0.0206455
8040.26	0.019118
8050.31	0.01758
8060.37	0.0160538
8070.42	0.0145622
8080.47	0.013128
8090.53	0.0117737
8100.58	0.0105208
8110.64	0.00938934
8120.69	0.00839753
8130.74	0.00756114
8140.8	0.0068931
8150.85	0.00640319
8160.9	0.00609771
8170.04	0.00598241
8180.1	0.00603351
8190.15	0.00626684
8200.21	0.00667481
8210.26	0.00724666
8220.31	0.00796894
8230.37	0.00882593
8240.42	0.00980018
8250.47	0.0108731
8260.53	0.0120253
8270.58	0.0132377
8280.64	0.0144913
8290.69	0.015768
8300.74	0.0170509
8310.8	0.0183245
8320.85	0.0195748
8330.9	0.0207892
8340.04	0.0218528
8350.1	0.0229693
8360.15	0.0240215
8370.21	0.025002
8380.26	0.0259037
8390.31	0.0267207
8400.37	0.0274469
8410.42	0.028077
8420.47	0.0286055
8430.53	0.0290271
8440.58	0.0293369
8450.64	0.02953
8460.69	0.0296019
8470.74	0.0295486
8480.8	0.0293667
8490.85	0.0290534
8500.9	0.0286068
8510.04	0.0280843
8520.1	0.0273814
8530.15	0.0265451
8540.21	0.0255771
8550.26	0.0244803
8560.31	0.023258
8570.37	0.0219144
8580.42	0.0204538
8590.47	0.0188812
8600.53	0.0172011
8610.58	0.0154183
8620.64	0.0135369
8630.69	0.0115606
8640.74	0.00949248
8650.8	0.00733458
8660.85	0.00508823
8670.91	0.00275382
8680.05	0.000554825
8690.1	-0.00194972
8700.15	-0.00454587
8710.21	-0.00723602
8720.26	-0.0100229
8730.31	-0.0129094
8740.37	-0.015898
8750.42	-0.0189909
8760.48	-0.0221894
8770.53	-0.0254938
8780.58	-0.0289031
8790.64	-0.0324146
8800.69	-0.0360238
8810.74	-0.0397244
8820.8	-0.043508
8830.85	-0.0473639
8840.91	-0.0512794
8850.05	-0.0548782
8860.1	-0.0588646
8870.15	-0.0628621
8880.21	-0.0668506
8890.26	-0.0708089
8900.32	-0.0747145
8910.37	-0.0785445
8920.42	-0.0822758
8930.48	-0.0858853
8940.53	-0.0893506
8950.58	-0.0926502
8960.64	-0.0957642
8970.69	-0.0986742
8980.75	-0.101364
8990.8	-0.10382
9000.85	-0.10603
9010.91	-0.107986
9020.05	-0.109539
9030.1	-0.110997
9040.15	-0.112193
9050.21	-0.113128
9060.26	-0.113808
9070.32	-0.114241
9080.37	-0.114435
9090.42	-0.114403
9100.48	-0.114158
9110.53	-0.113713
9120.58	-0.113083
9130.64	-0.112283
9140.69	-0.111329
9150.75	-0.110235
9160.8	-0.109015
9170.85	-0.107683
9180.91	-0.10625
9190.05	-0.10487
9200.1	-0.103273
9210.15	-0.101603
9220.21	-0.099865
9230.26	-0.0980637
9240.32	-0.0962022
9250.37	-0.0942819
9260.42	-0.0923036
9270.48	-0.0902668
9280.53	-0.0881703
9290.58	-0.0860128
9300.64	-0.0837925
9310.69	-0.0815082
9320.75	-0.0791588
9330.8	-0.0767442
9340.85	-0.074265
9350.91	-0.0717233
9360.05	-0.0693609
9370.1	-0.0667097
9380.16	-0.0640092
9390.21	-0.0612669
9400.26	-0.0584916
9410.32	-0.0556935
9420.37	-0.0528843
9430.42	-0.0500763
9440.48	-0.047283
9450.53	-0.0445183
9460.59	-0.0417967
9470.64	-0.0391327
9480.69	-0.0365405
9490.75	-0.0340343
9500.8	-0.0316274
9510.85	-0.0293323
9520.91	-0.0271607
9530.05	-0.0253024
9540.1	-0.0233943
9550.16	-0.0216363
9560.21	-0.0200348
9570.26	-0.0185946
9580.32	-0.0173194
9590.37	-0.0162108
9600.43	-0.0152695
9610.48	-0.0144943
9620.53	-0.013883
9630.59	-0.0134318
9640.64	-0.0131358
9650.69	-0.0129889
9660.75	-0.012984
9670.8	-0.0131131
9680.86	-0.0133672
9690.91	-0.0137368
9700.05	-0.0141644
9710.1	-0.0147258
9720.16	-0.0153721
9730.21	-0.0160924
9740.26	-0.0168757
9750.32	-0.0177116
9760.37	-0.0185897
9770.43	-0.0195005
9780.48	-0.0204349
9790.53	-0.0213846
9800.59	-0.0223424
9810.64	-0.0233016
9820.7	-0.0242567
9830.75	-0.0252029
9840.8	-0.0261363
9850.86	-0.0270534
9860.91	-0.0279514
9870.05	-0.0287493
9880.1	-0.0296044
9890.16	-0.0304338
9900.21	-0.0312351
9910.27	-0.0320056
9920.32	-0.0327423
9930.37	-0.0334415
9940.43	-0.0340988
9950.48	-0.0347094
9960.54	-0.0352676
9970.59	-0.035767
9980.64	-0.0362009
9990.7	-0.0365621
10000.8	-0.0368429
10010.8	-0.0370357
10020.9	-0.0371329
10030.9	-0.0371273
10040.1	-0.0370272
10050.1	-0.0368071
10060.2	-0.0364666
10070.2	-0.0360017
10080.3	-0.0354093
10090.3	-0.0346881
10100.4	-0.0338379
10110.4	-0.0328605
10120.5	-0.031759
10130.5	-0.0305382
10140.6	-0.0292045
10150.6	-0.0277658
10160.7	-0.0262316
10170.8	-0.0246124
10180.8	-0.0229198
10190.9	-0.0211666
10200.9	-0.019366
10210.1	-0.0176995
10220.1	-0.0158465
10230.2	-0.0139862
10240.2	-0.0121319
10250.3	-0.0102966
10260.3	-0.00849219
10270.4	-0.00672969
10280.4	-0.00501886
10290.5	-0.00336811
10300.5	-0.00178438
10310.6	-0.000273083
10320.6	0.00116189
10330.7	0.00251817
10340.8	0.00379484
10350.8	0.00499232
10360.9	0.00611226
10370.9	0.00715735
10380.1	0.00804548
10390.1	0.00895824
10400.2	0.00980839
10410.2	0.0106011
10420.3	0.0113415
10430.3	0.0120351
10440.4	0.0126869
10450.4	0.0133019
10460.5	0.0138844
10470.5	0.0144384
10480.6	0.0149673
10490.6	0.0154735
10500.7	0.0159591
10510.8	0.0164251
10520.8	0.0168717
10530.9	0.0172983
10540.9	0.0177031
10550.1	0.0180501
10560.1	0.0184057
10570.2	0.0187294
10580.2	0.0190161
10590.3	0.0192596
10600.3	0.0194529
10610.4	0.0195882
10620.4	0.0196571
10630.5	0.0196505
10640.5	0.0195593
10650.6	0.0193737
10660.6	0.0190843
10670.7	0.0186816
10680.8	0.0181566
10690.8	0.0175009
10700.9	0.016707
10710	0.0158599
10720.1	0.0147853
10730.1	0.0135573
10740.2	0.0121736
10750.2	0.0106337
10760.3	0.00893868
10770.3	0.00709178
10780.4	0.00509795
10790.4	0.0029641
10800.5	0.00069891
10810.5	-0.00168717
10820.6	-0.00418209
10830.6	-0.00677233
10840.7	-0.00944308
10850.8	-0.0121784
10860.8	-0.0149615
10870.9	-0.0177747
10880	-0.020343
10890.1	-0.0231633
10900.1	-0.0259602
10910.2	-0.0287154
10920.2	-0.0314106
10930.3	-0.0340279
10940.3	-0.03655
10950.4	-0.0389604
10960.4	-0.0412435
10970.5	-0.0433847
10980.5	-0.0453707
10990.6	-0.0471895
11000.6	-0.0488309
11010.7	-0.0502859
11020.8	-0.0515478
11030.8	-0.0526116
11040.9	-0.0534743
11050	-0.0540834
11060.1	-0.0545619
11070.1	-0.0548433
11080.2	-0.0549332
11090.2	-0.0548395
11100.3	-0.0545722
11110.3	-0.0541434
11120.4	-0.053567
11130.4	-0.0528585
11140.5	-0.0520349
11150.5	-0.0511143
11160.6	-0.0501157
11170.6	-0.0490586
11180.7	-0.0479626
11190.8	-0.0468473
11200.8	-0.0457316
11210.9	-0.0446335
11220	-0.0436649
11230.1	-0.0426462
11240.1	-0.04169
11250.2	-0.040808
11260.2	-0.0400098
11270.3	-0.0393026
11280.3	-0.0386913
11290.4	-0.0381784
11300.4	-0.0377636
11310.5	-0.0374445
11320.5	-0.0372165
11330.6	-0.0370727
11340.6	-0.0370044
11350.7	-0.0370015
11360.8	-0.0370524
11370.8	-0.0371445
11380.9	-0.0372647
11390	-0.0373869
11400.1	-0.0375232
11410.1	-0.0376487
11420.2	-0.0377509
11430.2	-0.0378182
11440.3	-0.0378402
11450.3	-0.037808
11460.4	-0.0377139
11470.4	-0.0375522
11480.5	-0.0373187
11490.5	-0.0370109
11500.6	-0.0366279
11510.6	-0.0361705
11520.7	-0.0356408
11530.8	-0.0350421
11540.8	-0.0343789
11550.9	-0.0336563
11560	-0.0329527
11570.1	-0.032133
11580.1	-0.0312715
11590.2	-0.030374
11600.2	-0.0294463
11610.3	-0.0284934
11620.3	-0.0275197
11630.4	-0.0265285
11640.4	-0.0255224
11650.5	-0.0245026
11660.5	-0.0234693
11670.6	-0.0224215
11680.6	-0.0213573
11690.7	-0.0202736
11700.8	-0.0191663
11710.8	-0.0180307
11720.9	-0.0168614
11730	-0.0157641
11740.1	-0.0145138
11750.1	-0.0132121
11760.2	-0.0118528
11770.2	-0.01043
11780.3	-0.00893833
11790.3	-0.00737307
11800.4	-0.00573021
11810.4	-0.00400662
11820.5	-0.00220019
11830.5	-0.000309832
11840.6	0.00166444
11850.6	0.00372155
11860.7	0.0058593
11870.8	0.00807451
11880.8	0.010363
11890.9	0.0127196
11900	0.0149162
11910.1	0.017386
11920.1	0.0199049
11930.2	0.022465
11940.2	0.0250583
11950.3	0.0276759
11960.3	0.0303091
11970.4	0.0329486
11980.4	0.0355851
11990.5	0.038209
12000.5	0.0408107
12010.6	0.0433805
12020.6	0.0459085
12030.7	0.0483849
12040.8	0.0507998
12050.8	0.0531436
12060.9	0.0554064
12070	0.0573853
12080.1	0.0594672
12090.1	0.0614411
12100.2	0.063298
12110.2	0.0650298
12120.3	0.0666287
12130.3	0.0680875
12140.4	0.0693999
12150.4	0.0705603
12160.5	0.0715643
12170.5	0.0724082
12180.6	0.0730898
12190.6	0.0736078
12200.7	0.0739624
12210.8	0.0741549
12220.8	0.0741882
12230.9	0.0740665
12240.9	0.0737952
12250.1	0.0734245
12260.1	0.0728878
12270.2	0.0722252
12280.2	0.0714473
12290.3	0.0705656
12300.3	0.0695928
12310.4	0.0685427
12320.4	0.0674295
12330.5	0.0662681
12340.5	0.0650742
12350.6	0.0638633
12360.6	0.0626513
12370.7	0.0614538
12380.8	0.0602862
12390.8	0.0591633
12400.9	0.0580992
12410.9	0.0571068
12420.1	0.056277
12430.1	0.0554534
12440.2	0.0547319
12450.2	0.0541196
12460.3	0.0536216
12470.3	0.053241
12480.4	0.0529785
12490.4	0.0528325
12500.5	0.0527992
12510.5	0.0528721
12520.6	0.0530425
12530.6	0.0532997
12540.7	0.0536304
12550.8	0.0540198
12560.8	0.0544511
12570.9	0.0549063
12580	0.0553248
12590.1	0.0557717
12600.1	0.0561849
12610.2	0.0565442
12620.2	0.0568298
12630.3	0.0570228
12640.3	0.0571053
12650.4	0.0570613
12660.4	0.0568769
12670.5	0.0565401
12680.5	0.0560419
12690.6	0.0553759
12700.6	0.0545386
12710.7	0.0535297
12720.8	0.0523516
12730.8	0.05101
12740.9	0.0495131
12750	0.0480266
12760.1	0.0462653
12770.1	0.0443866
12780.2	0.0424071
12790.2	0.0403449
12800.3	0.0382187
12810.3	0.0360478
12820.4	0.0338517
12830.4	0.0316492
12840.5	0.0294587
12850.5	0.0272973
12860.6	0.0251807
12870.6	0.0231232
12880.7	0.021137
12890.8	0.0192327
12900.8	0.0174185
12910.9	0.0157006
12920	0.0142262
12930.1	0.0127026
12940.1	0.0112824
12950.2	0.00996456
12960.2	0.00874652
12970.3	0.00762445
12980.3	0.0065935
12990.4	0.00564806
13000.4	0.00478198
13010.5	0.00398888
13020.5	0.00326235
13030.6	0.0025962
13040.6	0.00198469
13050.7	0.00142269
13060.8	0.000905842
13070.8	0.000430701
13080.9	-5.18885e-06
13090	-0.000368589
13100.1	-0.000732521
13110.1	-0.00105829
13120.2	-0.00134421
13130.2	-0.00158765
13140.3	-0.0017851
13150.3	-0.00193232
13160.4	-0.00202444
13170.4	-0.00205618
13180.5	-0.00202193
13190.5	-0.00191599
13200.6	-0.0017327
13210.6	-0.0014666
13220.7	-0.00111263
13230.8	-0.00066624
13240.8	-0.000123518
13250.9	0.000518668
13260	0.00119072
13270.1	0.00202833
13280.1	0.00296937
13290.2	0.00401327
13300.2	0.00515841
13310.3	0.00640211
13320.3	0.00774072
13330.4	0.00916958
13340.4	0.0106831
13350.5	0.0122749
13360.5	0.0139377
13370.6	0.0156637
13380.6	0.0174442
13390.7	0.0192701
13400.8	0.021132
13410.8	0.0230199
13420.9	0.0249236
13430	0.0266592
13440.1	0.028564
13450.1	0.0304538
13460.2	0.032318
13470.2	0.034146
13480.3	0.0359272
13490.3	0.0376515
13500.4	0.0393088
13510.4	0.0408894
13520.5	0.0423845
13530.5	0.0437853
13540.6	0.0450842
13550.7	0.0462739
13560.7	0.0473481
13570.8	0.0483014
13580.8	0.0491292
13590.9	0.0498275
13600	0.0503474
13610.1	0.0507907
13620.1	0.0510974
13630.2	0.0512664
13640.2	0.0512968
13650.3	0.0511883
13660.3	0.0509408
13670.4	0.0505545
13680.4	0.0500302
13690.5	0.0493686
13700.5	0.048571
13710.6	0.0476392
13720.7	0.0465753
13730.7	0.0453818
13740.8	0.0440619
13750.8	0.0426193
13760.9	0.0410581
13770	0.0395398
13780.1	0.0377654
13790.1	0.035887
13800.2	0.0339103
13810.2	0.0318411
13820.3	0.0296853
13830.3	0.0274486
13840.4	0.0251367
13850.4	0.0227551
13860.5	0.020309
13870.5	0.0178031
13880.6	0.0152419
13890.7	0.0126296
13900.7	0.00996984
13910.8	0.00726619
13920.8	0.00452185
13930.9	0.00173986
13940	-0.000819401
13950.1	-0.0036651
13960.1	-0.00653988
13970.2	-0.00944064
13980.2	-0.012364
13990.3	-0.0153064
14000.3	-0.0182638
14010.4	-0.0212317
14020.4	-0.0242051
14030.5	-0.0271785
14040.5	-0.0301458
14050.6	-0.0331003
14060.7	-0.0360345
14070.7	-0.0389407
14080.8	-0.0418102
14090.8	-0.0446341
14100.9	-0.0474029
14110	-0.0498641
14120.1	-0.0525007
14130.1	-0.0550535
14140.2	-0.0575125
14150.2	-0.059868
14160.3	-0.0621104
14170.3	-0.0642309
14180.4	-0.0662211
14190.4	-0.0680734
14200.5	-0.069781
14210.5	-0.0713382
14220.6	-0.0727403
14230.7	-0.0739834
14240.7	-0.0750651
14250.8	-0.0759836
14260.8	-0.0767387
14270.9	-0.0773307
14280	-0.0777288
14290.1	-0.0780147
14300.1	-0.0781445
14310.2	-0.0781221
14320.2	-0.0779519
14330.3	-0.0776393
14340.3	-0.0771896
14350.4	-0.076609
14360.4	-0.0759038
14370.5	-0.0750804
14380.5	-0.0741458
14390.6	-0.0731069
14400.7	-0.0719708
14410.7	-0.0707446
14420.8	-0.0694358
14430.8	-0.0680516
14440.9	-0.0665996
14450	-0.0652269
14460.1	-0.0636662
14470.1	-0.0620594
14480.2	-0.0604144
14490.2	-0.0587386
14500.3	-0.0570396
14510.3	-0.055325
14520.4	-0.0536021
14530.4	-0.0518784
14540.5	-0.0501608
14550.6	-0.0484564
14560.6	-0.0467719
14570.7	-0.0451136
14580.7	-0.0434876
14590.8	-0.0418998
14600.8	-0.0403553
14610.9	-0.0388594
14620	-0.0375453
14630.1	-0.0361541
14640.1	-0.0348236
14650.2	-0.0335571
14660.2	-0.0323575
14670.3	-0.0312274
14680.3	-0.0301689
14690.4	-0.0291836
14700.4	-0.0282727
14710.5	-0.0274369
14720.6	-0.0266765
14730.6	-0.0259912
14740.7	-0.0253803
14750.7	-0.0248425
14760.8	-0.0243761
14770.8	-0.0239788
14780.9	-0.0236479
14790	-0.0234019
14800.1	-0.0231882
14810.1	-0.0230303
14820.2	-0.0229237
14830.2	-0.0228637
14840.3	-0.0228452
14850.3	-0.0228631
14860.4	-0.0229119
14870.4	-0.022986
14880.5	-0.0230799
14890.6	-0.0231878
14900.6	-0.023304
14910.7	-0.0234228
14920.7	-0.0235386
14930.8	-0.0236457
14940.8	-0.0237386
14950.9	-0.0238119
14960	-0.0238571
14970.1	-0.0238784
14980.1	-0.0238652
14990.2	-0.0238126
15000.2	-0.023716
15010.3	-0.0235712
15020.3	-0.0233741
15030.4	-0.0231209
15040.4	-0.0228082
15050.5	-0.022433
15060.6	-0.0219926
15070.6	-0.0214847
15080.7	-0.0209076
15090.7	-0.0202598
15100.8	-0.0195404
15110.8	-0.0187492
15120.9	-0.0178862
15130	-0.0170399
15140.1	-0.0160421
15150.1	-0.014976
15160.2	-0.0138438
15170.2	-0.0126481
15180.3	-0.0113923
15190.3	-0.01008
15200.4	-0.00871556
15210.4	-0.00730345
15220.5	-0.00584868
15230.6	-0.00435657
15240.6	-0.00283269
15250.7	-0.00128282
15260.7	0.000287119
15270.8	0.00187115
15280.8	0.00346329
15290.9	0.00505762
15300	0.00650407
15310.1	0.00808677
15320.1	0.00965555
15330.2	0.0112054
15340.2	0.0127318
15350.3	0.0142304
15360.3	0.0156977
15370.4	0.0171301
15380.4	0.0185251
15390.5	0.0198802
15400.6	0.0211934
15410.6	0.0224635
15420.7	0.0236891
15430.7	0.0248695
15440.8	0.0260042
15450.8	0.0270927
15460.9	0.0281347
15470	0.0290413
15480.1	0.0299936
15490.1	0.0308981
15500.2	0.031754
15510.2	0.0325603
15520.3	0.0333156
15530.3	0.0340181
15540.4	0.034666
15550.4	0.0352567
15560.5	0.0357876
15570.6	0.0362559
15580.6	0.0366582
15590.7	0.0369912
15600.7	0.0372513
15610.8	0.0374346
15620.8	0.0375372
15630.9	0.037555
15640	0.037494
15650.1	0.0373382
15660.1	0.0370852
15670.2	0.0367308
15680.2	0.0362708
15690.3	0.035701
15700.3	0.0350175
15710.4	0.0342162
15720.5	0.0332933
15730.5	0.0322452
15740.6	0.0310684
15750.6	0.0297592
15760.7	0.0283145
15770.7	0.0267309
15780.8	0.0250055
15790.8	0.0231354
15800.9	0.021118
15810	0.0191543
15820.1	0.0168495
15830.1	0.0143918
15840.2	0.01178
15850.2	0.00901357
15860.3	0.00609271
15870.3	0.00301817
15880.4	-0.000208479
15890.5	-0.00358492
15900.5	-0.00710797
15910.6	-0.0107736
15920.6	-0.0145771
15930.7	-0.0185125
15940.7	-0.0225734
15950.8	-0.0267524
15960.8	-0.0310414
15970.9	-0.0354314
15980	-0.039502
15990.1	-0.0440579
16000.1	-0.0486853
16010.2	-0.0533731
16020.2	-0.0581095
16030.3	-0.0628827
16040.3	-0.0676804
16050.4	-0.07249
16060.5	-0.077299
16070.5	-0.0820946
16080.6	-0.0868642
16090.6	-0.0915949
16100.7	-0.096274
16110.7	-0.100889
16120.8	-0.105427
16130.8	-0.109876
16140.9	-0.114224
16150	-0.118078
16160.1	-0.122198
16170.1	-0.126182
16180.2	-0.130018
16190.2	-0.133694
16200.3	-0.1372
16210.3	-0.140523
16220.4	-0.143652
16230.5	-0.146577
16240.5	-0.149288
16250.6	-0.151772
16260.6	-0.154022
16270.7	-0.156025
16280.7	-0.157773
16290.8	-0.159258
16300.8	-0.16047
16310.9	-0.161401
16320	-0.161999
16330.1	-0.162378
16340.1	-0.162458
16350.2	-0.162237
16360.2	-0.161712
16370.3	-0.16088
16380.3	-0.159742
16390.4	-0.158299
16400.5	-0.156551
16410.5	-0.154503
16420.6	-0.152159
16430.6	-0.149525
16440.7	-0.146607
16450.7	-0.143412
16460.8	-0.139948
16470.8	-0.136225
16480.9	-0.132253
16490	-0.128433
16500.1	-0.124013
16510.1	-0.119375
16520.2	-0.11453
16530.2	-0.109492
16540.3	-0.104273
16550.3	-0.0988868
16560.4	-0.0933486
16570.5	-0.087673
16580.5	-0.0818762
16590.6	-0.0759745
16600.6	-0.0699851
16610.7	-0.0639256
16620.7	-0.0578138
16630.8	-0.0516677
16640.8	-0.045505
16650.9	-0.0393432
16660	-0.0337567
16670.1	-0.0276435
16680.1	-0.021579
16690.2	-0.0155785
16700.2	-0.00965637
16710.6	-0.0036587
16720.6	0.00206156
16730.7	0.00766217
16740.7	0.0131302
16750.8	0.018453
16760.9	0.0236181
16770.9	0.0286134
16780.1	0.0329972
16790.1	0.0376359
16800.2	0.0420719
16810.2	0.0462952
16820.3	0.0502968
16830.3	0.0540684
16840.4	0.057603
16850.2	0.0608105
16860.2	0.0638608
16870.3	0.0666594
16880.3	0.0692036
16890.4	0.0714918
16900.4	0.0735232
16910.5	0.0752984
16920.5	0.0768186
16930.6	0.0780862
16940.6	0.0791043
16950.7	0.0798773
16960.8	0.0804101
16970.8	0.0807085
16980.9	0.0807791
16990	0.0806517
17000.1	0.0803081
17010.6	0.0797236
17020.7	0.0789685
17030.7	0.0780267
17040.8	0.0769078
17050.1	0.0757226
17060.8	0.0741919
17070.8	0.0726102
17080	0.0710336
17090.2	0.069165
