0	0
14.7745	0
29.5491	0
44.3236	0
59.0981	0
73.8727	0
88.6472	0
103.422	0
118.196	0
132.971	0
147.745	0
162.52	0
177.294	0
192.069	0
206.843	0
221.618	0
236.393	0
251.167	0
265.942	0
280.716	0
295.491	0
310.265	0
325.04	0
339.814	0
354.589	0
369.363	0
384.138	0
398.912	0
413.687	0
428.462	0
443.236	0
458.011	0
472.785	0
487.56	0
502.334	0
517.109	0
531.883	0
546.658	0
561.432	0
576.207	0
590.981	0
605.756	0
620.53	0
635.305	0
650.08	0
664.854	0
679.629	0
694.403	0
709.178	0
723.952	0
738.727	0
753.501	0
768.276	0
783.05	0
797.825	0
812.599	0
827.374	0
842.149	0
856.923	0
871.698	0
886.472	0
901.247	0
916.021	0
930.796	0
945.57	0
960.345	0
975.119	0
989.894	0
1004.67	0
1019.44	0
1034.22	0
1048.99	0
1063.77	0
1078.54	0
1093.32	0
1108.09	0
1122.86	0
1137.64	0
1152.41	0
1167.19	0
1181.96	0
1196.74	0
1211.51	0
1226.29	0
1241.06	0
1255.84	0
1270.61	0
1285.38	0
1300.16	0
1314.93	0
1329.71	0
1344.48	0
1359.26	0
1374.03	0
1388.81	0
1403.58	0
1418.36	0
1433.13	0
1447.9	0
1462.68	0
1477.45	0
1492.23	0
1507	0
1521.78	0
1536.55	0
1551.33	0
1566.1	0
1580.88	0
1595.65	0
1610.42	0
1625.2	0
1639.97	0
1654.75	0
1669.52	0
1684.3	0
1699.07	0
1713.85	0
1728.62	0
1743.4	0
1758.17	0
1772.94	0
1787.72	0
1802.49	0
1817.27	0
1832.04	0
1846.82	0
1861.59	0
1876.37	0
1891.14	0
1905.92	0
1920.69	0
1935.46	0
1950.24	0
1965.01	0
1979.79	0
1994.56	0
2009.34	0
2024.11	0
2038.89	0
2053.66	0
2068.43	0
2083.21	0
2097.98	0
2112.76	0
2127.53	0
2142.31	0
2157.08	0
2171.86	0
2186.63	0
2201.41	0
2216.18	0
2230.95	0
2245.73	0
2260.5	0
2275.28	0
2290.05	9.09495e-13
2304.83	9.09495e-13
2319.6	1.81899e-12
2334.38	2.72848e-12
2349.15	5.45697e-12
2363.93	1.00044e-11
2378.7	1.72804e-11
2393.47	3.00133e-11
2408.25	5.18412e-11
2423.02	8.8221e-11
2437.8	1.46429e-10
2452.57	2.41016e-10
2467.35	3.93811e-10
2482.12	6.33008e-10
2496.9	1.0059e-09
2511.67	1.57979e-09
2526.45	2.452e-09
2541.22	3.7644e-09
2555.99	5.71708e-09
2570.77	8.59109e-09
2585.54	1.27757e-08
2600.32	1.88065e-08
2615.09	2.74131e-08
2629.87	3.95721e-08
2644.64	5.65869e-08
2659.42	8.01729e-08
2674.19	1.12568e-07
2688.97	1.56663e-07
2703.74	2.16155e-07
2718.51	2.95732e-07
2733.29	4.01275e-07
2748.06	5.40106e-07
2762.84	7.21248e-07
2777.61	9.55732e-07
2792.39	1.25691e-06
2807.16	1.64084e-06
2821.94	2.12661e-06
2836.71	2.73678e-06
2851.49	3.49777e-06
2866.26	4.44026e-06
2881.03	5.59958e-06
2895.81	7.01613e-06
2910.58	8.73571e-06
2925.36	1.08098e-05
2940.13	1.3296e-05
2954.91	1.62579e-05
2969.68	1.97656e-05
2984.46	2.38954e-05
2999.23	2.87302e-05
3014	3.43588e-05
3028.78	4.08762e-05
3043.55	4.83829e-05
3058.33	5.69847e-05
3073.1	6.67923e-05
3087.88	7.79203e-05
3102.65	9.04873e-05
3117.43	0.000104614
3132.2	0.000120426
3146.97	0.000138046
3161.75	0.000157604
3176.52	0.000179225
3191.3	0.00020304
3206.07	0.000229178
3220.85	0.00025777
3235.62	0.00028895
3250.39	0.000322856
3265.17	0.00035963
3279.94	0.000399425
3294.72	0.000442407
3309.49	0.000488757
3324.27	0.000538683
3339.04	0.000592425
3353.81	0.000650264
3368.59	0.000712539
3383.36	0.000779656
3398.14	0.000852111
3412.91	0.000930513
3427.69	0.0010156
3442.46	0.00110829
3457.23	0.0012097
3472.01	0.00132117
3486.78	0.00144437
3501.56	0.00158129
3516.33	0.00173433
3531.1	0.00190639
3545.88	0.0021009
3560.65	0.00232193
3575.43	0.00257428
3590.2	0.0028636
3604.97	0.00319644
3619.75	0.00358039
3634.52	0.00402419
3649.3	0.00453786
3664.07	0.00513275
3678.84	0.00582171
3693.62	0.00661915
3708.39	0.00754113
3723.17	0.00860545
3737.94	0.00983168
3752.71	0.0112412
3767.49	0.0128571
3782.26	0.0147044
3797.04	0.0168097
3811.81	0.0192012
3826.58	0.0219084
3841.36	0.0249621
3856.13	0.0283942
3870.91	0.0322369
3885.68	0.0365229
3900.45	0.0412846
3915.23	0.0465539
3930	0.0523614
3944.77	0.0587363
3959.55	0.0657052
3974.32	0.0732921
3989.1	0.0815172
4003.87	0.0903969
4018.64	0.0999426
4033.42	0.11016
4048.19	0.12105
4062.97	0.132606
4077.74	0.144814
4092.51	0.157654
4107.29	0.171096
4122.06	0.185104
4136.83	0.199634
4151.61	0.214631
4166.38	0.230036
4181.16	0.245777
4195.93	0.261779
4210.7	0.277957
4225.48	0.294219
4240.25	0.310469
4255.03	0.326604
4269.8	0.342516
4284.58	0.358095
4299.35	0.373228
4314.12	0.387801
4328.9	0.401698
4343.67	0.414805
4358.45	0.427012
4373.22	0.438209
4388	0.448292
4402.77	0.457164
4417.54	0.464732
4432.32	0.470912
4447.09	0.47563
4461.87	0.47882
4476.64	0.480427
4491.42	0.480405
4506.19	0.478723
4520.97	0.475358
4535.74	0.470301
4550.51	0.463557
4565.29	0.455139
4580.06	0.445075
4594.84	0.433404
4609.61	0.420176
4624.39	0.405452
4639.16	0.389304
4653.94	0.371812
4668.71	0.353065
4683.48	0.333162
4698.26	0.312206
4713.03	0.290308
4727.81	0.267582
4742.58	0.244149
4757.36	0.220129
4772.13	0.195646
4786.91	0.170826
4801.68	0.145792
4816.46	0.120667
4831.23	0.095572
4846	0.0706253
4860.78	0.0459407
4875.55	0.0216274
4890.33	-0.00221058
4905.1	-0.0254751
4919.88	-0.0480747
4934.65	-0.0699247
4949.43	-0.090948
4964.2	-0.111075
4978.97	-0.130244
4993.75	-0.148401
5008.52	-0.165502
5023.3	-0.181508
5038.07	-0.19639
5052.85	-0.210127
5067.62	-0.222706
5082.4	-0.23412
5097.17	-0.24437
5111.94	-0.253465
5126.72	-0.261418
5141.49	-0.26825
5156.27	-0.273988
5171.04	-0.278662
5185.82	-0.282308
5200.59	-0.284967
5215.37	-0.286682
5230.14	-0.2875
5244.91	-0.287472
5259.69	-0.286647
5274.46	-0.285081
5289.24	-0.282829
5304.01	-0.279944
5318.79	-0.276485
5333.56	-0.272506
5348.34	-0.268063
5363.11	-0.26321
5377.89	-0.258003
5392.66	-0.252492
5407.43	-0.246729
5422.21	-0.240763
5436.98	-0.234639
5451.76	-0.228403
5466.53	-0.222097
5481.31	-0.215759
5496.08	-0.209427
5510.86	-0.203134
5525.63	-0.196912
5540.4	-0.190789
5555.18	-0.18479
5569.95	-0.178939
5584.73	-0.173254
5599.5	-0.167753
5614.28	-0.162451
5629.05	-0.15736
5643.83	-0.152487
5658.6	-0.147842
5673.38	-0.143427
5688.15	-0.139245
5702.92	-0.135297
5717.7	-0.13158
5732.47	-0.128092
5747.25	-0.124827
5762.02	-0.121779
5776.8	-0.118939
5791.57	-0.116299
5806.35	-0.113848
5821.12	-0.111575
5835.89	-0.109467
5850.67	-0.107514
5865.44	-0.1057
5880.22	-0.104014
5894.99	-0.102441
5909.77	-0.100967
5924.54	-0.0995789
5939.32	-0.0982631
5954.09	-0.097006
5968.87	-0.0957946
5983.64	-0.0946163
5998.41	-0.093459
6013.19	-0.0923112
6027.96	-0.091162
6042.74	-0.0900014
6057.51	-0.0888198
6072.29	-0.0876089
6087.06	-0.0863608
6101.84	-0.0850688
6116.61	-0.083727
6131.39	-0.0823303
6146.16	-0.0808746
6160.93	-0.0793567
6175.71	-0.0777745
6190.48	-0.0761264
6205.26	-0.074412
6220.03	-0.0726315
6234.81	-0.0707862
6249.58	-0.0688779
6264.36	-0.0669093
6279.13	-0.0648837
6293.91	-0.062805
6308.68	-0.0606778
6323.45	-0.0585071
6338.23	-0.0562986
6353	-0.0540581
6367.78	-0.0517921
6382.55	-0.049507
6397.33	-0.0472098
6412.1	-0.0449076
6426.88	-0.0426074
6441.65	-0.0403164
6456.42	-0.038042
6471.2	-0.0357912
6485.97	-0.0335712
6500.75	-0.0313887
6515.52	-0.0292506
6530.3	-0.0271632
6545.07	-0.0251326
6559.85	-0.0231647
6574.62	-0.0212649
6589.4	-0.0194381
6604.17	-0.017689
6618.94	-0.0160215
6633.72	-0.0144393
6648.49	-0.0129455
6663.27	-0.0115425
6678.04	-0.0102323
6692.82	-0.0090164
6707.59	-0.00789561
6722.37	-0.00687024
6737.14	-0.00593999
6751.92	-0.00510404
6766.69	-0.00436099
6781.46	-0.00370893
6796.24	-0.0031454
6811.01	-0.00266744
6825.79	-0.0022716
6840.56	-0.00195396
6855.34	-0.00171018
6870.11	-0.0015355
6884.89	-0.00142477
6899.66	-0.00137252
6914.44	-0.00137295
6929.21	-0.00141998
6943.99	-0.00150731
6958.76	-0.00162843
6973.53	-0.00177665
6988.31	-0.00194521
7003.08	-0.00212721
7017.86	-0.00231576
7032.63	-0.00250395
7047.41	-0.00268491
7062.18	-0.00285186
7076.96	-0.00299814
7091.73	-0.00311726
7106.51	-0.0032029
7121.28	-0.00324901
7136.05	-0.00324978
7150.83	-0.00319972
7165.6	-0.00309364
7180.38	-0.00292675
7195.15	-0.00269463
7209.93	-0.00239325
7224.7	-0.00201903
7239.48	-0.00156886
7254.25	-0.00104005
7269.02	-0.000430422
7283.8	0.000261716
7298.57	0.00103757
7313.35	0.00189782
7328.12	0.00284268
7342.9	0.00387184
7357.67	0.00498448
7372.45	0.00617931
7387.22	0.00745455
7402	0.00880796
7416.77	0.0102368
7431.54	0.011738
7446.32	0.013308
7461.09	0.0149429
7475.87	0.0166382
7490.64	0.0183894
7505.42	0.0201916
7520.19	0.0220393
7534.97	0.0239273
7549.74	0.0258496
7564.51	0.0278004
7579.29	0.0297736
7594.06	0.031763
7608.84	0.0337623
7623.61	0.0357651
7638.39	0.0377651
7653.16	0.0397559
7667.94	0.0417311
7682.71	0.0436846
7697.48	0.0456101
7712.26	0.0475016
7727.03	0.0493533
7741.81	0.0511594
7756.58	0.0529146
7771.36	0.0546135
7786.13	0.0562511
7800.91	0.0578228
7815.68	0.059324
7830.45	0.0607506
7845.23	0.0620989
7860	0.0633652
7874.78	0.0645463
7889.55	0.0656395
7904.33	0.0666421
7919.1	0.067552
7933.88	0.0683673
7948.65	0.0690865
7963.42	0.0697083
7978.2	0.070232
7992.97	0.0706568
8007.75	0.0709826
8022.52	0.0712094
8037.3	0.0713374
8052.07	0.0713672
8066.85	0.0712997
8081.62	0.0711358
8096.39	0.0708769
8111.17	0.0705244
8125.94	0.0700801
8140.72	0.0695456
8155.49	0.0689231
8170.27	0.0682147
8185.04	0.0674226
8199.82	0.0665493
8214.59	0.0655971
8229.36	0.0645687
8244.14	0.0634666
8258.91	0.0622936
8273.69	0.0610523
8288.46	0.0597454
8303.24	0.0583758
8318.01	0.0569462
8332.79	0.0554594
8347.56	0.0539181
8362.33	0.0523251
8377.11	0.0506831
8391.88	0.0489948
8406.66	0.0472628
8421.43	0.0454899
8436.21	0.0436786
8450.98	0.0418315
8465.76	0.0399511
8480.53	0.0380399
8495.3	0.0361005
8510.08	0.0341351
8524.85	0.0321462
8539.63	0.0301362
8554.4	0.0281073
8569.18	0.026062
8583.95	0.0240024
8598.73	0.0219308
8613.5	0.0198495
8628.27	0.0177607
8643.05	0.0156667
8657.82	0.0135695
8672.6	0.0114714
8687.37	0.00937462
8702.15	0.00728133
8716.92	0.00519369
8731.7	0.0031139
8746.47	0.00104414
8761.24	-0.00101342
8776.02	-0.00305659
8790.79	-0.00508321
8805.57	-0.00709111
8820.34	-0.00907811
8835.12	-0.0110421
8849.89	-0.0129809
8864.67	-0.0148923
8879.44	-0.0167744
8894.22	-0.018625
8908.99	-0.0204421
8923.76	-0.0222236
8938.54	-0.0239676
8953.31	-0.0256722
8968.09	-0.0273355
8982.86	-0.0289557
8997.64	-0.030531
9012.41	-0.0320598
9027.19	-0.0335406
9041.96	-0.0349718
9056.73	-0.036352
9071.51	-0.0376799
9086.28	-0.0389543
9101.06	-0.0401741
9115.83	-0.0413384
9130.61	-0.0424463
9145.38	-0.0434971
9160.16	-0.0444902
9174.93	-0.0454251
9189.7	-0.0463015
9204.48	-0.0471193
9219.25	-0.0478783
9234.03	-0.0485786
9248.8	-0.0492206
9263.58	-0.0498045
9278.35	-0.0503308
9293.13	-0.0508002
9307.9	-0.0512135
9322.68	-0.0515715
9337.45	-0.0518753
9352.22	-0.052126
9367	-0.0523249
9381.77	-0.0524733
9396.55	-0.0525726
9411.32	-0.0526245
9426.1	-0.0526305
9440.87	-0.0525924
9455.65	-0.052512
9470.42	-0.052391
9485.19	-0.0522315
9499.97	-0.0520353
9514.74	-0.0518044
9529.52	-0.0515409
9544.29	-0.0512466
9559.07	-0.0509237
9573.84	-0.0505742
9588.62	-0.0502001
9603.39	-0.0498034
9618.17	-0.049386
9632.94	-0.0489499
9647.71	-0.048497
9662.49	-0.0480291
9677.26	-0.0475481
9692.04	-0.0470556
9706.81	-0.0465534
9721.59	-0.0460431
9736.36	-0.0455261
9751.14	-0.0450039
9765.91	-0.044478
9780.68	-0.0439495
9795.46	-0.0434198
9810.23	-0.0428899
9825.01	-0.0423608
9839.78	-0.0418336
9854.56	-0.041309
9869.33	-0.040788
9884.11	-0.040271
9898.88	-0.0397589
9913.66	-0.0392521
9928.43	-0.038751
9943.2	-0.0382561
9957.98	-0.0377677
9972.75	-0.037286
9987.53	-0.0368112
10002.3	-0.0363435
10017.1	-0.0358828
10031.9	-0.0354293
10046.6	-0.0349828
10061.4	-0.0345434
10076.2	-0.0341109
10090.9	-0.033685
10105.7	-0.0332658
10120.5	-0.0328529
10135.3	-0.0324461
10150	-0.0320452
10164.8	-0.0316499
10179.6	-0.0312599
10194.4	-0.0308749
10209.1	-0.0304947
10223.9	-0.0301188
10238.7	-0.0297471
10253.5	-0.0293792
10268.2	-0.0290148
10283	-0.0286536
10297.8	-0.0282953
10312.6	-0.0279397
10327.3	-0.0275864
10342.1	-0.0272351
10356.9	-0.0268856
10371.7	-0.0265377
10386.4	-0.026191
10401.2	-0.0258454
10416	-0.0255006
10430.8	-0.0251563
10445.5	-0.0248124
10460.3	-0.0244686
10475.1	-0.0241247
10489.9	-0.0237805
10504.6	-0.0234358
10519.4	-0.0230904
10534.2	-0.022744
10549	-0.0223965
10563.7	-0.0220477
10578.5	-0.0216973
10593.3	-0.0213451
10608.1	-0.020991
10622.8	-0.0206346
10637.6	-0.0202758
10652.4	-0.0199143
10667.2	-0.0195499
10681.9	-0.0191823
10696.7	-0.0188112
10711.5	-0.0184365
10726.3	-0.0180578
10741	-0.0176748
10755.8	-0.0172873
10770.6	-0.016895
10785.4	-0.0164975
10800.1	-0.0160946
10814.9	-0.015686
10829.7	-0.0152714
10844.5	-0.0148503
10859.2	-0.0144227
10874	-0.0139881
10888.8	-0.0135462
10903.5	-0.0130967
10918.3	-0.0126395
10933.1	-0.0121741
10947.9	-0.0117003
10962.6	-0.0112178
10977.4	-0.0107266
10992.2	-0.0102262
11007	-0.0097165
11021.7	-0.00919736
11036.5	-0.0086686
11051.3	-0.00813009
11066.1	-0.00758174
11080.8	-0.00702347
11095.6	-0.00645526
11110.4	-0.00587709
11125.2	-0.00528899
11139.9	-0.00469104
11154.7	-0.00408334
11169.5	-0.00346603
11184.3	-0.00283929
11199	-0.00220334
11213.8	-0.00155844
11228.6	-0.000904902
11243.4	-0.000243062
11258.1	0.000426695
11272.9	0.00110395
11287.7	0.00178823
11302.5	0.00247904
11317.2	0.00317585
11332	0.00387807
11346.8	0.0045851
11361.6	0.0052963
11376.3	0.00601098
11391.1	0.00672846
11405.9	0.007448
11420.7	0.00816885
11435.4	0.00889023
11450.2	0.00961136
11465	0.0103314
11479.8	0.0110496
11494.5	0.0117651
11509.3	0.012477
11524.1	0.0131845
11538.9	0.0138868
11553.6	0.014583
11568.4	0.0152724
11583.2	0.015954
11598	0.0166271
11612.7	0.0172909
11627.5	0.0179447
11642.3	0.0185877
11657	0.0192191
11671.8	0.0198384
11686.6	0.0204447
11701.4	0.0210376
11716.1	0.0216164
11730.9	0.0221806
11745.7	0.0227296
11760.5	0.023263
11775.2	0.0237803
11790	0.0242812
11804.8	0.0247654
11819.6	0.0252324
11834.3	0.0256821
11849.1	0.0261142
11863.9	0.0265286
11878.7	0.026925
11893.4	0.0273036
11908.2	0.0276641
11923	0.0280066
11937.8	0.028331
11952.5	0.0286375
11967.3	0.0289261
11982.1	0.029197
11996.9	0.0294502
12011.6	0.029686
12026.4	0.0299045
12041.2	0.030106
12056	0.0302906
12070.7	0.0304586
12085.5	0.0306102
12100.3	0.0307457
12115.1	0.0308653
12129.8	0.0309693
12144.6	0.0310579
12159.4	0.0311314
12174.2	0.0311899
12188.9	0.0312337
12203.7	0.031263
12218.5	0.031278
12233.3	0.0312788
12248	0.0312656
12262.8	0.0312386
12277.6	0.0311977
12292.4	0.0311432
12307.1	0.031075
12321.9	0.0309932
12336.7	0.0308977
12351.5	0.0307887
12366.2	0.0306659
12381	0.0305293
12395.8	0.0303788
12410.6	0.0302143
12425.3	0.0300356
12440.1	0.0298426
12454.9	0.0296351
12469.6	0.0294129
12484.4	0.0291757
12499.2	0.0289233
12514	0.0286555
12528.7	0.028372
12543.5	0.0280726
12558.3	0.0277571
12573.1	0.0274251
12587.8	0.0270764
12602.6	0.0267108
12617.4	0.0263281
12632.2	0.025928
12646.9	0.0255103
12661.7	0.025075
12676.5	0.0246218
12691.3	0.0241506
12706	0.0236612
12720.8	0.0231538
12735.6	0.0226282
12750.4	0.0220844
12765.1	0.0215225
12779.9	0.0209425
12794.7	0.0203446
12809.5	0.019729
12824.2	0.0190959
12839	0.0184456
12853.8	0.0177782
12868.6	0.0170943
12883.3	0.0163942
12898.1	0.0156784
12912.9	0.0149473
12927.7	0.0142014
12942.4	0.0134415
12957.2	0.012668
12972	0.0118817
12986.8	0.0110832
13001.5	0.0102733
13016.3	0.00945286
13031.1	0.00862258
13045.9	0.00778335
13060.6	0.00693605
13075.4	0.00608157
13090.2	0.00522084
13105	0.0043548
13119.7	0.00348444
13134.5	0.00261071
13149.3	0.00173463
13164.1	0.000857182
13178.8	-2.06193e-05
13193.6	-0.000897766
13208.4	-0.00177325
13223.1	-0.00264606
13237.9	-0.0035152
13252.7	-0.00437968
13267.5	-0.00523853
13282.2	-0.00609077
13297	-0.00693547
13311.8	-0.0077717
13326.6	-0.00859856
13341.3	-0.00941517
13356.1	-0.0102207
13370.9	-0.0110143
13385.7	-0.0117951
13400.4	-0.0125626
13415.2	-0.0133158
13430	-0.0140541
13444.8	-0.0147769
13459.5	-0.0154836
13474.3	-0.0161736
13489.1	-0.0168463
13503.9	-0.0175012
13518.6	-0.0181379
13533.4	-0.0187561
13548.2	-0.0193552
13563	-0.019935
13577.7	-0.0204952
13592.5	-0.0210355
13607.3	-0.0215557
13622.1	-0.0220556
13636.8	-0.0225351
13651.6	-0.0229941
13666.4	-0.0234326
13681.2	-0.0238504
13695.9	-0.0242476
13710.7	-0.0246243
13725.5	-0.0249805
13740.3	-0.0253162
13755	-0.0256317
13769.8	-0.0259271
13784.6	-0.0262026
13799.4	-0.0264583
13814.1	-0.0266945
13828.9	-0.0269114
13843.7	-0.0271094
13858.5	-0.0272886
13873.2	-0.0274495
13888	-0.0275923
13902.8	-0.0277173
13917.6	-0.027825
13932.3	-0.0279155
13947.1	-0.0279894
13961.9	-0.028047
13976.7	-0.0280887
13991.4	-0.0281147
14006.2	-0.0281256
14021	-0.0281217
14035.7	-0.0281034
14050.5	-0.0280711
14065.3	-0.0280251
14080.1	-0.0279658
14094.8	-0.0278937
14109.6	-0.027809
14124.4	-0.0277122
14139.2	-0.0276036
14153.9	-0.0274835
14168.7	-0.0273523
14183.5	-0.0272103
14198.3	-0.0270579
14213	-0.0268952
14227.8	-0.0267228
14242.6	-0.0265407
14257.4	-0.0263494
14272.1	-0.026149
14286.9	-0.0259398
14301.7	-0.0257221
14316.5	-0.0254961
14331.2	-0.025262
14346	-0.0250199
14360.8	-0.0247702
14375.6	-0.024513
14390.3	-0.0242485
14405.1	-0.0239767
14419.9	-0.023698
14434.7	-0.0234123
14449.4	-0.02312
14464.2	-0.022821
14479	-0.0225155
14493.8	-0.0222037
14508.5	-0.0218856
14523.3	-0.0215614
14538.1	-0.0212312
14552.9	-0.020895
14567.6	-0.020553
14582.4	-0.0202053
14597.2	-0.019852
14612	-0.0194932
14626.7	-0.019129
14641.5	-0.0187595
14656.3	-0.0183849
14671.1	-0.0180053
14685.8	-0.0176208
14700.6	-0.0172316
14715.4	-0.0168378
14730.2	-0.0164395
14744.9	-0.0160371
14759.7	-0.0156305
14774.5	-0.0152202
14789.2	-0.0148061
14804	-0.0143886
14818.8	-0.0139679
14833.6	-0.0135443
14848.3	-0.013118
14863.1	-0.0126892
14877.9	-0.0122583
14892.7	-0.0118256
14907.4	-0.0113913
14922.2	-0.0109559
14937	-0.0105195
14951.8	-0.0100827
14966.5	-0.00964566
14981.3	-0.00920886
14996.1	-0.00877265
15010.9	-0.00833741
15025.6	-0.00790354
15040.4	-0.00747144
15055.2	-0.00704151
15070	-0.00661418
15084.7	-0.00618985
15099.5	-0.00576895
15114.3	-0.00535189
15129.1	-0.00493909
15143.8	-0.00453097
15158.6	-0.00412795
15173.4	-0.00373043
15188.2	-0.00333882
15202.9	-0.00295353
15217.7	-0.00257494
15232.5	-0.00220345
15247.3	-0.00183941
15262	-0.00148321
15276.8	-0.00113518
15291.6	-0.000795669
15306.4	-0.000465003
15321.1	-0.00014349
15335.9	0.000168573
15350.7	0.000470909
15365.5	0.000763254
15380.2	0.00104536
15395	0.00131701
15409.8	0.00157797
15424.6	0.00182807
15439.3	0.00206713
15454.1	0.00229499
15468.9	0.00251152
15483.7	0.00271658
15498.4	0.00291009
15513.2	0.00309196
15528	0.00326212
15542.8	0.00342051
15557.5	0.00356711
15572.3	0.00370189
15587.1	0.00382486
15601.8	0.00393601
15616.6	0.00403537
15631.4	0.00412298
15646.2	0.00419889
15660.9	0.00426314
15675.7	0.00431581
15690.5	0.00435698
15705.3	0.00438673
15720	0.00440515
15734.8	0.00441234
15749.6	0.0044084
15764.4	0.00439343
15779.1	0.00436757
15793.9	0.0043309
15808.7	0.00428356
15823.5	0.00422565
15838.2	0.00415731
15853	0.00407864
15867.8	0.00398976
15882.6	0.00389079
15897.3	0.00378186
15912.1	0.00366306
15926.9	0.00353453
15941.7	0.00339636
15956.4	0.00324866
15971.2	0.00309155
15986	0.00292514
16000.8	0.00274951
16015.5	0.00256478
16030.3	0.00237106
16045.1	0.00216843
16059.9	0.001957
16074.6	0.00173688
16089.4	0.00150816
16104.2	0.00127096
16119	0.00102537
16133.7	0.000771505
16148.5	0.000509483
16163.3	0.000239422
16178.1	-3.85544e-05
16192.8	-0.000324313
16207.6	-0.000617716
16222.4	-0.000918615
16237.2	-0.00122685
16251.9	-0.00154226
16266.7	-0.00186466
16281.5	-0.00219385
16296.3	-0.00252964
16311	-0.00287181
16325.8	-0.00322011
16340.6	-0.00357431
16355.3	-0.00393413
16370.1	-0.00429929
16384.9	-0.0046695
16399.7	-0.00504443
16414.4	-0.00542375
16429.2	-0.00580709
16444	-0.00619409
16458.8	-0.00658436
16473.5	-0.00697747
16488.3	-0.007373
16503.1	-0.0077705
16517.9	-0.00816949
16532.6	-0.00856948
16547.4	-0.00896998
16562.2	-0.00937045
16577	-0.00977035
16591.7	-0.0101691
16606.5	-0.0105662
16621.3	-0.010961
16636.1	-0.0113529
16650.8	-0.0117414
16665.6	-0.0121257
16680.4	-0.0125053
16695.2	-0.0128794
16709.9	-0.0132476
16724.7	-0.0136091
16739.5	-0.0139632
16754.3	-0.0143093
16769	-0.0146468
16783.8	-0.014975
16798.6	-0.0152933
16813.4	-0.0156009
16828.1	-0.0158973
16842.9	-0.0161819
16857.7	-0.016454
16872.5	-0.016713
16887.2	-0.0169583
16902	-0.0171895
16916.8	-0.0174058
16931.6	-0.0176068
16946.3	-0.017792
16961.1	-0.0179609
16975.9	-0.0181131
16990.7	-0.018248
17005.4	-0.0183654
17020.2	-0.0184648
17035	-0.0185459
17049.8	-0.0186084
17064.5	-0.0186519
17079.3	-0.0186764
17094.1	-0.0186816
17108.9	-0.0186673
17123.6	-0.0186334
17138.4	-0.0185798
17153.2	-0.0185064
17167.9	-0.0184134
17182.7	-0.0183006
17197.5	-0.0181682
17212.3	-0.0180163
17227	-0.0178451
17241.8	-0.0176547
17256.6	-0.0174454
17271.4	-0.0172174
17286.1	-0.0169712
17300.9	-0.0167069
17315.7	-0.0164252
17330.5	-0.0161263
17345.2	-0.0158107
17360	-0.015479
17374.8	-0.0151317
17389.6	-0.0147694
17404.3	-0.0143926
17419.1	-0.014002
17433.9	-0.0135984
17448.7	-0.0131823
17463.4	-0.0127545
17478.2	-0.0123157
17493	-0.0118668
17507.8	-0.0114085
17522.5	-0.0109416
17537.3	-0.010467
17552.1	-0.00998542
17566.9	-0.00949786
17581.6	-0.00900514
17596.4	-0.00850815
17611.2	-0.00800778
17626	-0.00750494
17640.7	-0.00700054
17655.5	-0.00649548
17670.3	-0.00599068
17685.1	-0.00548704
17699.8	-0.00498549
17714.6	-0.00448693
17729.4	-0.00399225
17744.2	-0.00350235
17758.9	-0.00301811
17773.7	-0.0025404
17788.5	-0.0020701
17803.3	-0.00160803
17818	-0.00115503
17832.8	-0.000711908
17847.6	-0.000279463
17862.4	0.000141534
17877.1	0.000550333
17891.9	0.000946207
17906.7	0.00132845
17921.4	0.00169639
17936.2	0.00204937
17951	0.00238676
17965.8	0.00270798
17980.5	0.00301247
17995.3	0.00329968
18010.1	0.00356911
18024.9	0.00382031
18039.6	0.00405283
18054.4	0.00426627
18069.2	0.00446026
18084	0.00463449
18098.7	0.00478864
18113.5	0.00492248
18128.3	0.00503576
18143.1	0.00512832
18157.8	0.0052
18172.6	0.0052507
18187.4	0.00528036
18202.2	0.00528892
18216.9	0.00527642
18231.7	0.00524288
18246.5	0.0051884
18261.3	0.0051131
18276	0.00501713
18290.8	0.0049007
18305.6	0.00476404
18320.4	0.00460743
18335.1	0.00443116
18349.9	0.0042356
18364.7	0.00402112
18379.5	0.00378814
18394.2	0.00353711
18409	0.00326852
18423.8	0.00298288
18438.6	0.00268075
18453.3	0.00236271
18468.1	0.00202937
18482.9	0.00168137
18497.7	0.00131939
18512.4	0.000944123
18527.2	0.000556291
18542	0.000156645
18556.8	-0.000254045
18571.5	-0.000674983
18586.3	-0.00110536
18601.1	-0.00154433
18615.9	-0.00199105
18630.6	-0.00244465
18645.4	-0.00290426
18660.2	-0.00336896
18675	-0.00383787
18689.7	-0.00431005
18704.5	-0.0047846
18719.3	-0.00526057
18734	-0.00573705
18748.8	-0.00621308
18763.6	-0.00668774
18778.4	-0.0071601
18793.1	-0.00762921
18807.9	-0.00809417
18822.7	-0.00855404
18837.5	-0.00900792
18852.2	-0.00945492
18867	-0.00989415
18881.8	-0.0103247
18896.6	-0.0107458
18911.3	-0.0111566
18926.1	-0.0115562
18940.9	-0.0119439
18955.7	-0.0123189
18970.4	-0.0126804
18985.2	-0.0130277
19000	-0.0133603
19014.8	-0.0136773
19029.5	-0.0139781
19044.3	-0.0142622
19059.1	-0.0145291
19073.9	-0.0147781
19088.6	-0.0150088
19103.4	-0.0152208
19118.2	-0.0154136
19133	-0.0155869
19147.7	-0.0157402
19162.5	-0.0158735
19177.3	-0.0159863
19192.1	-0.0160784
19206.8	-0.0161498
19221.6	-0.0162003
19236.4	-0.0162297
19251.2	-0.0162381
19265.9	-0.0162254
19280.7	-0.0161918
19295.5	-0.0161372
19310.3	-0.0160618
19325	-0.0159658
19339.8	-0.0158494
19354.6	-0.0157128
19369.4	-0.0155563
19384.1	-0.0153802
19398.9	-0.0151849
19413.7	-0.0149709
19428.5	-0.0147384
19443.2	-0.014488
19458	-0.0142202
19472.8	-0.0139355
19487.5	-0.0136344
19502.3	-0.0133176
19517.1	-0.0129857
19531.9	-0.0126392
19546.6	-0.0122789
19561.4	-0.0119054
19576.2	-0.0115194
19591	-0.0111217
19605.7	-0.0107129
19620.5	-0.0102938
19635.3	-0.00986524
19650.1	-0.00942786
19664.8	-0.00898249
19679.6	-0.0085299
19694.4	-0.00807088
19709.2	-0.00760622
19723.9	-0.0071367
19738.7	-0.00666311
19753.5	-0.00618624
19768.3	-0.00570687
19783	-0.00522576
19797.8	-0.00474369
19812.6	-0.00426141
19827.4	-0.00377966
19842.1	-0.00329917
19856.9	-0.00282065
19871.7	-0.00234482
19886.5	-0.00187235
19901.2	-0.0014039
19916	-0.000940127
19930.8	-0.000481646
19945.6	-2.906e-05
19960.3	0.000417051
19975.1	0.000856134
19989.9	0.00128766
