
Threads: 
THREADS	MAGIC_NUMBER	MTPS	AVERAGE_TRIANGLES	AVERAGE_PARTITIONS
12	1	28.4396	66293.4	382.916
12	2	32.1986	66293.4	199.691
12	3	33.0817	66293.4	153.075
12	4	34.1793	66293.4	105.441
12	5	34.188	66293.4	89.2244
12	6	34.3235	66293.4	80.3029
12	7	34.1702	66293.4	65.0031
12	8	34.3529	66293.4	57.002
12	9	34.4383	66293.4	51.5075
12	10	34.3728	66293.4	48.4983
12	11	33.9696	66293.4	45.481
12	12	33.712	66293.4	42.3906
12	13	33.5545	66293.4	38.6242
12	14	33.2901	66293.4	35.3185
12	15	32.7088	66293.4	33.1796
12	16	32.4644	66293.4	31.4579
12	17	32.2056	66293.4	29.7026
12	18	31.7699	66293.4	28.7677
12	19	31.9716	66293.4	27.5769
12	20	31.5946	66293.4	26.732
12	21	30.9139	66293.4	25.936
12	22	31.0456	66293.4	24.9396
12	23	30.7998	66293.4	23.7193
12	24	30.3123	66293.4	22.8428
12	25	30.0624	66293.4	21.8804
12	26	29.8157	66293.4	21.2181

Threads: 
THREADS	MAGIC_NUMBER	MTPS	AVERAGE_TRIANGLES	AVERAGE_PARTITIONS
11	1	27.0705	66293.4	382.916
11	2	30.31	66293.4	199.691
11	3	31.5446	66293.4	153.075
11	4	32.4992	66293.4	105.441
11	5	32.577	66293.4	89.2244
11	6	32.7278	66293.4	80.3029
11	7	32.9389	66293.4	65.0031
11	8	33.1212	66293.4	57.002
11	9	32.9759	66293.4	51.5075
11	10	33.0852	66293.4	48.4983
11	11	33.0199	66293.4	45.481
11	12	32.2237	66293.4	42.3906
11	13	32.3199	66293.4	38.6242
11	14	31.9432	66293.4	35.3185
11	15	31.5511	66293.4	33.1796
11	16	31.7914	66293.4	31.4579
11	17	30.8631	66293.4	29.7026
11	18	30.6565	66293.4	28.7677
11	19	31.009	66293.4	27.5769
11	20	30.9578	66293.4	26.732
11	21	30.703	66293.4	25.936
11	22	30.2237	66293.4	24.9396
11	23	29.6366	66293.4	23.7193
11	24	29.639	66293.4	22.8428
11	25	29.3953	66293.4	21.8804
11	26	29.0014	66293.4	21.2181

Threads: 
THREADS	MAGIC_NUMBER	MTPS	AVERAGE_TRIANGLES	AVERAGE_PARTITIONS
10	1	25.2376	66293.4	382.916
10	2	28.5741	66293.4	199.691
10	3	29.5031	66293.4	153.075
10	4	30.3949	66293.4	105.441
10	5	30.6633	66293.4	89.2244
10	6	30.8251	66293.4	80.3029
10	7	30.812	66293.4	65.0031
10	8	30.8515	66293.4	57.002
10	9	30.9325	66293.4	51.5075
10	10	30.8834	66293.4	48.4983
10	11	30.7747	66293.4	45.481
10	12	30.5567	66293.4	42.3906
10	13	30.5657	66293.4	38.6242
10	14	30.166	66293.4	35.3185
10	15	29.9465	66293.4	33.1796
10	16	29.7386	66293.4	31.4579
10	17	29.4806	66293.4	29.7026
10	18	29.5031	66293.4	28.7677
10	19	29.1559	66293.4	27.5769
10	20	29.1006	66293.4	26.732
10	21	28.9743	66293.4	25.936
10	22	28.5644	66293.4	24.9396
10	23	28.245	66293.4	23.7193
10	24	27.9631	66293.4	22.8428
10	25	27.7369	66293.4	21.8804
10	26	27.5925	66293.4	21.2181

Threads: 
THREADS	MAGIC_NUMBER	MTPS	AVERAGE_TRIANGLES	AVERAGE_PARTITIONS
9	1	23.5958	66293.4	382.916
9	2	26.6488	66293.4	199.691
9	3	27.6049	66293.4	153.075
9	4	28.3981	66293.4	105.441
9	5	28.75	66293.4	89.2244
9	6	28.8373	66293.4	80.3029
9	7	28.8931	66293.4	65.0031
9	8	29.0848	66293.4	57.002
9	9	29.0778	66293.4	51.5075
9	10	29.0112	66293.4	48.4983
9	11	29.0259	66293.4	45.481
9	12	28.884	66293.4	42.3906
9	13	28.7548	66293.4	38.6242
9	14	28.5236	66293.4	35.3185
9	15	28.3183	66293.4	33.1796
9	16	28.2287	66293.4	31.4579
9	17	27.9734	66293.4	29.7026
9	18	27.6955	66293.4	28.7677
9	19	27.5161	66293.4	27.5769
9	20	27.5026	66293.4	26.732
9	21	27.3004	66293.4	25.936
9	22	27.1304	66293.4	24.9396
9	23	26.8953	66293.4	23.7193
9	24	26.6342	66293.4	22.8428
9	25	26.4545	66293.4	21.8804
9	26	26.2684	66293.4	21.2181

Threads: 
THREADS	MAGIC_NUMBER	MTPS	AVERAGE_TRIANGLES	AVERAGE_PARTITIONS
8	1	21.9869	66293.4	382.916
8	2	24.9226	66293.4	199.691
8	3	25.5938	66293.4	153.075
8	4	26.4794	66293.4	105.441
8	5	26.775	66293.4	89.2244
8	6	26.8279	66293.4	80.3029
8	7	27.0788	66293.4	65.0031
8	8	27.0874	66293.4	57.002
8	9	27.1352	66293.4	51.5075
8	10	27.1318	66293.4	48.4983
8	11	27.0325	66293.4	45.481
8	12	26.898	66293.4	42.3906
8	13	26.8415	66293.4	38.6242
8	14	26.69	66293.4	35.3185
8	15	26.6143	66293.4	33.1796
8	16	26.4549	66293.4	31.4579
8	17	26.2284	66293.4	29.7026
8	18	26.2053	66293.4	28.7677
8	19	26.041	66293.4	27.5769
8	20	25.9434	66293.4	26.732
8	21	25.7239	66293.4	25.936
8	22	25.6338	66293.4	24.9396
8	23	25.3523	66293.4	23.7193
8	24	25.1666	66293.4	22.8428
8	25	25.0241	66293.4	21.8804
8	26	24.8232	66293.4	21.2181

Threads: 
THREADS	MAGIC_NUMBER	MTPS	AVERAGE_TRIANGLES	AVERAGE_PARTITIONS
7	1	20.3811	66293.4	382.916
7	2	23.1414	66293.4	199.691
7	3	23.9024	66293.4	153.075
7	4	24.4321	66293.4	105.441
7	5	24.7791	66293.4	89.2244
7	6	24.7872	66293.4	80.3029
7	7	25.0662	66293.4	65.0031
7	8	25.0031	66293.4	57.002
7	9	25.1363	66293.4	51.5075
7	10	25.064	66293.4	48.4983
7	11	25.0345	66293.4	45.481
7	12	24.9211	66293.4	42.3906
7	13	24.9376	66293.4	38.6242
7	14	24.822	66293.4	35.3185
7	15	24.6103	66293.4	33.1796
7	16	24.5731	66293.4	31.4579
7	17	24.3973	66293.4	29.7026
7	18	24.3071	66293.4	28.7677
7	19	24.2068	66293.4	27.5769
7	20	24.0717	66293.4	26.732
7	21	24.0016	66293.4	25.936
7	22	23.8909	66293.4	24.9396
7	23	23.7693	66293.4	23.7193
7	24	23.4999	66293.4	22.8428
7	25	23.3358	66293.4	21.8804
7	26	23.2444	66293.4	21.2181

Threads: 
THREADS	MAGIC_NUMBER	MTPS	AVERAGE_TRIANGLES	AVERAGE_PARTITIONS
6	1	19.182	66293.4	382.916
6	2	21.4934	66293.4	199.691
6	3	21.9094	66293.4	153.075
6	4	22.6785	66293.4	105.441
6	5	22.71	66293.4	89.2244
6	6	22.8988	66293.4	80.3029
6	7	22.9425	66293.4	65.0031
6	8	23.0289	66293.4	57.002
6	9	22.9405	66293.4	51.5075
6	10	23.0237	66293.4	48.4983
6	11	22.9091	66293.4	45.481
6	12	22.911	66293.4	42.3906
6	13	22.7614	66293.4	38.6242
6	14	22.6871	66293.4	35.3185
6	15	22.5957	66293.4	33.1796
6	16	22.5011	66293.4	31.4579
6	17	22.3239	66293.4	29.7026
6	18	22.3412	66293.4	28.7677
6	19	22.2039	66293.4	27.5769
6	20	22.1838	66293.4	26.732
6	21	22.0548	66293.4	25.936
6	22	22.0281	66293.4	24.9396
6	23	21.848	66293.4	23.7193
6	24	21.7126	66293.4	22.8428
6	25	21.5832	66293.4	21.8804
6	26	21.5287	66293.4	21.2181

Threads: 
THREADS	MAGIC_NUMBER	MTPS	AVERAGE_TRIANGLES	AVERAGE_PARTITIONS
5	1	16.2606	66293.4	382.916
5	2	18.1962	66293.4	199.691
5	3	18.5666	66293.4	153.075
5	4	19.2613	66293.4	105.441
5	5	19.3299	66293.4	89.2244
5	6	19.4483	66293.4	80.3029
5	7	19.5441	66293.4	65.0031
5	8	19.6126	66293.4	57.002
5	9	19.6039	66293.4	51.5075
5	10	19.5942	66293.4	48.4983
5	11	19.5966	66293.4	45.481
5	12	19.6152	66293.4	42.3906
5	13	19.5579	66293.4	38.6242
5	14	19.5158	66293.4	35.3185
5	15	19.4266	66293.4	33.1796
5	16	19.3674	66293.4	31.4579
5	17	19.2407	66293.4	29.7026
5	18	19.2533	66293.4	28.7677
5	19	19.1628	66293.4	27.5769
5	20	19.1417	66293.4	26.732
5	21	19.0291	66293.4	25.936
5	22	19.0151	66293.4	24.9396
5	23	18.9309	66293.4	23.7193
5	24	18.8676	66293.4	22.8428
5	25	18.7651	66293.4	21.8804
5	26	18.7291	66293.4	21.2181

Threads: 
THREADS	MAGIC_NUMBER	MTPS	AVERAGE_TRIANGLES	AVERAGE_PARTITIONS
