THREADS	MTPS	TIMESTEPS	TIMESTEP_SIZE	SECONDS_FOR_SIMULATION	AVERAGE_TRIANGLES	AVERAGE_PARTITIONS
80	57.9525	100	0.000491318	32.8664	1.90469e+07	1158.74
79	55.0316	100	0.000491318	34.6109	1.90469e+07	1158.74
78	55.5719	100	0.000491318	34.2744	1.90469e+07	1158.74
77	55.1384	100	0.000491318	34.5438	1.90469e+07	1158.74
76	55.2914	100	0.000491318	34.4482	1.90469e+07	1158.74
75	53.0841	100	0.000491318	35.8806	1.90469e+07	1158.74
74	56.7715	100	0.000491318	33.5502	1.90469e+07	1158.74
73	53.8452	100	0.000491318	35.3735	1.90469e+07	1158.74
72	55.8528	100	0.000491318	34.102	1.90469e+07	1158.74
71	55.0713	100	0.000491318	34.5859	1.90469e+07	1158.74
70	54.17	100	0.000491318	35.1614	1.90469e+07	1158.74
69	57.8496	100	0.000491318	32.9249	1.90469e+07	1158.74
68	56.6704	100	0.000491318	33.61	1.90469e+07	1158.74
67	56.1242	100	0.000491318	33.9371	1.90469e+07	1158.74
66	56.7528	100	0.000491318	33.5612	1.90469e+07	1158.74
65	49.8471	100	0.000491318	38.2107	1.90469e+07	1158.74
64	56.81	100	0.000491318	33.5274	1.90469e+07	1158.74
63	55.202	100	0.000491318	34.504	1.90469e+07	1158.74
62	50.2409	100	0.000491318	37.9111	1.90469e+07	1158.74
61	55.3495	100	0.000491318	34.4121	1.90469e+07	1158.74
60	49.9363	100	0.000491318	38.1424	1.90469e+07	1158.74
59	55.7197	100	0.000491318	34.1834	1.90469e+07	1158.74
58	54.9542	100	0.000491318	34.6596	1.90469e+07	1158.74
57	55.1801	100	0.000491318	34.5177	1.90469e+07	1158.74
56	55.0421	100	0.000491318	34.6043	1.90469e+07	1158.74
55	54.5741	100	0.000491318	34.901	1.90469e+07	1158.74
54	55.704	100	0.000491318	34.1931	1.90469e+07	1158.74
53	56.2375	100	0.000491318	33.8687	1.90469e+07	1158.74
52	53.9058	100	0.000491318	35.3337	1.90469e+07	1158.74
51	54.2579	100	0.000491318	35.1044	1.90469e+07	1158.74
50	54.6832	100	0.000491318	34.8314	1.90469e+07	1158.74
49	49.8119	100	0.000491318	38.2377	1.90469e+07	1158.74
48	53.5293	100	0.000491318	35.5822	1.90469e+07	1158.74
47	52.9016	100	0.000491318	36.0044	1.90469e+07	1158.74
46	54.1678	100	0.000491318	35.1628	1.90469e+07	1158.74
45	50.871	100	0.000491318	37.4416	1.90469e+07	1158.74
44	55.8696	100	0.000491318	34.0917	1.90469e+07	1158.74
43	48.7493	100	0.000491318	39.0711	1.90469e+07	1158.74
42	49.5726	100	0.000491318	38.4222	1.90469e+07	1158.74
41	53.3191	100	0.000491318	35.7225	1.90469e+07	1158.74
40	52.1604	100	0.000491318	36.5161	1.90469e+07	1158.74
39	50.5077	100	0.000491318	37.7109	1.90469e+07	1158.74
38	51.791	100	0.000491318	36.7765	1.90469e+07	1158.74
37	52.3801	100	0.000491318	36.3629	1.90469e+07	1158.74
36	53.2938	100	0.000491318	35.7395	1.90469e+07	1158.74
35	52.6515	100	0.000491318	36.1754	1.90469e+07	1158.74
34	50.8797	100	0.000491318	37.4352	1.90469e+07	1158.74
33	49.6281	100	0.000491318	38.3793	1.90469e+07	1158.74
32	45.0494	100	0.000491318	42.2801	1.90469e+07	1158.74
31	47.3335	100	0.000491318	40.2398	1.90469e+07	1158.74
30	41.2839	100	0.000491318	46.1365	1.90469e+07	1158.74
29	48.5547	100	0.000491318	39.2278	1.90469e+07	1158.74
28	46.0638	100	0.000491318	41.349	1.90469e+07	1158.74
27	47.1475	100	0.000491318	40.3985	1.90469e+07	1158.74
26	46.6256	100	0.000491318	40.8508	1.90469e+07	1158.74
25	44.7991	100	0.000491318	42.5163	1.90469e+07	1158.74
24	44.1549	100	0.000491318	43.1366	1.90469e+07	1158.74
23	41.2835	100	0.000491318	46.1368	1.90469e+07	1158.74
22	39.209	100	0.000491318	48.5779	1.90469e+07	1158.74
21	40.197	100	0.000491318	47.384	1.90469e+07	1158.74
20	38.1563	100	0.000491318	49.9181	1.90469e+07	1158.74
19	36.9286	100	0.000491318	51.5777	1.90469e+07	1158.74
18	36.2681	100	0.000491318	52.517	1.90469e+07	1158.74
17	35.4916	100	0.000491318	53.666	1.90469e+07	1158.74
16	33.7832	100	0.000491318	56.3799	1.90469e+07	1158.74
15	32.4341	100	0.000491318	58.725	1.90469e+07	1158.74
14	30.7065	100	0.000491318	62.029	1.90469e+07	1158.74
13	28.5438	100	0.000491318	66.7288	1.90469e+07	1158.74
12	25.0514	100	0.000491318	76.0314	1.90469e+07	1158.74
11	25.0106	100	0.000491318	76.1552	1.90469e+07	1158.74
10	23.0404	100	0.000491318	82.6673	1.90469e+07	1158.74
9	20.7785	100	0.000491318	91.6664	1.90469e+07	1158.74
8	18.8108	100	0.000491318	101.255	1.90469e+07	1158.74
7	16.6491	100	0.000491318	114.402	1.90469e+07	1158.74
6	14.4092	100	0.000491318	132.186	1.90469e+07	1158.74
5	12.117	100	0.000491318	157.192	1.90469e+07	1158.74
4	9.80176	100	0.000491318	194.321	1.90469e+07	1158.74
3	7.48515	100	0.000491318	254.463	1.90469e+07	1158.74
2	5.09288	100	0.000491318	373.991	1.90469e+07	1158.74
1	2.66164	100	0.000491318	715.609	1.90469e+07	1158.74
