STARTING WORLD SCHEDULER SERVER
CLIENT SETUP: adding client 41738
 + TIMESTAMP: 0.137448
START TIMESTAMP: 0.137476
+++++++++++++++++++++++++++++++++++++++++++++++++++++++++++
+ Client Mapping:
  > Client 41738 (0):	

+ Core Mapping:	0 0 0 0 0 0 0 0 0 0 0 0 0 0 0 0 0 0 0 0 0 0 0 0 0 0 0 0 0 0 0 0 0 0 0 0 0 0 0 0 
+ Optimal point: 
+++++++++++++++++++++++++++++++++++++++++++++++++++++++++++
INVADE: client 41738
 + TIMESTAMP: 0.145313
RESSOURCE DISTRIBUTION CHANGED
++++++++++++++++++++++++++++++++++++++++++++++++
INVADE (41738)
  + pid: 41738
  + min_cores: 1
  + max_cores: 512
  + scalability graph: 
1, 1.36329, 1.52423, 1.62017, 1.68565, 1.73398, 1.77154, 1.80182, 1.8269, 1.84812, 1.86637, 1.88229, 1.89634, 1.90885, 1.92009, 1.93026, 1.93952, 1.94799, 1.95579, 1.963, 1.96968, 1.9759, 1.98172, 1.98716, 1.99228, 1.9971, 2.00164, 2.00594, 2.01002, 2.01389, 2.01757, 2.02108, 2.02443, 2.02763, 2.03069, 2.03362, 2.03644, 2.03914, 2.04173, 2.04423, 
Number of clients: 1

+++++++++++++++++++++++++++++++++++++++++++++++++++++++++++
+ Client Mapping:
  > Client 41738 (40):	0 1 2 3 4 5 6 7 8 9 10 11 12 13 14 15 16 17 18 19 20 21 22 23 24 25 26 27 28 29 30 31 32 33 34 35 36 37 38 39 

+ Core Mapping:	41738 41738 41738 41738 41738 41738 41738 41738 41738 41738 41738 41738 41738 41738 41738 41738 41738 41738 41738 41738 41738 41738 41738 41738 41738 41738 41738 41738 41738 41738 41738 41738 41738 41738 41738 41738 41738 41738 41738 41738 
+ Optimal point: 40 
+++++++++++++++++++++++++++++++++++++++++++++++++++++++++++
CLIENT SETUP: adding client 41740
 + TIMESTAMP: 0.173405
+++++++++++++++++++++++++++++++++++++++++++++++++++++++++++
+ Client Mapping:
  > Client 41738 (40):	0 1 2 3 4 5 6 7 8 9 10 11 12 13 14 15 16 17 18 19 20 21 22 23 24 25 26 27 28 29 30 31 32 33 34 35 36 37 38 39 
  > Client 41740 (0):	

+ Core Mapping:	41738 41738 41738 41738 41738 41738 41738 41738 41738 41738 41738 41738 41738 41738 41738 41738 41738 41738 41738 41738 41738 41738 41738 41738 41738 41738 41738 41738 41738 41738 41738 41738 41738 41738 41738 41738 41738 41738 41738 41738 
+ Optimal point: 40 
+++++++++++++++++++++++++++++++++++++++++++++++++++++++++++
INVADE: client 41740
 + TIMESTAMP: 0.173492
++++++++++++++++++++++++++++++++++++++++++++++++
 + TIMESTAMP: 0.241311
REINVADE (41738)
  + pid: 41738
  + min_cores: 1
  + max_cores: 512
  + scalability graph: 
1, 1.36329, 1.52423, 1.62017, 1.68565, 1.73398, 1.77154, 1.80182, 1.8269, 1.84812, 1.86637, 1.88229, 1.89634, 1.90885, 1.92009, 1.93026, 1.93952, 1.94799, 1.95579, 1.963, 1.96968, 1.9759, 1.98172, 1.98716, 1.99228, 1.9971, 2.00164, 2.00594, 2.01002, 2.01389, 2.01757, 2.02108, 2.02443, 2.02763, 2.03069, 2.03362, 2.03644, 2.03914, 2.04173, 2.04423, 
Number of clients: 2

+++++++++++++++++++++++++++++++++++++++++++++++++++++++++++
+ Client Mapping:
  > Client 41738 (20):	20 21 22 23 24 25 26 27 28 29 30 31 32 33 34 35 36 37 38 39 
  > Client 41740 (0):	

+ Core Mapping:	0 0 0 0 0 0 0 0 0 0 0 0 0 0 0 0 0 0 0 0 41738 41738 41738 41738 41738 41738 41738 41738 41738 41738 41738 41738 41738 41738 41738 41738 41738 41738 41738 41738 
+ Optimal point: 20 20 
+++++++++++++++++++++++++++++++++++++++++++++++++++++++++++
CLIENT SETUP: adding client 41739
 + TIMESTAMP: 0.253322
+++++++++++++++++++++++++++++++++++++++++++++++++++++++++++
+ Client Mapping:
  > Client 41738 (20):	20 21 22 23 24 25 26 27 28 29 30 31 32 33 34 35 36 37 38 39 
  > Client 41740 (0):	
  > Client 41739 (0):	

+ Core Mapping:	0 0 0 0 0 0 0 0 0 0 0 0 0 0 0 0 0 0 0 0 41738 41738 41738 41738 41738 41738 41738 41738 41738 41738 41738 41738 41738 41738 41738 41738 41738 41738 41738 41738 
+ Optimal point: 20 20 
+++++++++++++++++++++++++++++++++++++++++++++++++++++++++++
INVADE: client 41739
 + TIMESTAMP: 0.257427
RESSOURCE DISTRIBUTION CHANGED
++++++++++++++++++++++++++++++++++++++++++++++++
INVADE (41739)
  + pid: 41739
  + min_cores: 1
  + max_cores: 512
  + scalability graph: 
1, 1.36329, 1.52423, 1.62017, 1.68565, 1.73398, 1.77154, 1.80182, 1.8269, 1.84812, 1.86637, 1.88229, 1.89634, 1.90885, 1.92009, 1.93026, 1.93952, 1.94799, 1.95579, 1.963, 1.96968, 1.9759, 1.98172, 1.98716, 1.99228, 1.9971, 2.00164, 2.00594, 2.01002, 2.01389, 2.01757, 2.02108, 2.02443, 2.02763, 2.03069, 2.03362, 2.03644, 2.03914, 2.04173, 2.04423, 
Number of clients: 3

+++++++++++++++++++++++++++++++++++++++++++++++++++++++++++
+ Client Mapping:
  > Client 41738 (20):	20 21 22 23 24 25 26 27 28 29 30 31 32 33 34 35 36 37 38 39 
  > Client 41740 (0):	
  > Client 41739 (13):	0 1 2 3 4 5 6 7 8 9 10 11 12 

+ Core Mapping:	41739 41739 41739 41739 41739 41739 41739 41739 41739 41739 41739 41739 41739 0 0 0 0 0 0 0 41738 41738 41738 41738 41738 41738 41738 41738 41738 41738 41738 41738 41738 41738 41738 41738 41738 41738 41738 41738 
+ Optimal point: 14 13 13 
+++++++++++++++++++++++++++++++++++++++++++++++++++++++++++
CLIENT SETUP: adding client 41737
 + TIMESTAMP: 0.296023
+++++++++++++++++++++++++++++++++++++++++++++++++++++++++++
+ Client Mapping:
  > Client 41738 (20):	20 21 22 23 24 25 26 27 28 29 30 31 32 33 34 35 36 37 38 39 
  > Client 41740 (0):	
  > Client 41739 (13):	0 1 2 3 4 5 6 7 8 9 10 11 12 
  > Client 41737 (0):	

+ Core Mapping:	41739 41739 41739 41739 41739 41739 41739 41739 41739 41739 41739 41739 41739 0 0 0 0 0 0 0 41738 41738 41738 41738 41738 41738 41738 41738 41738 41738 41738 41738 41738 41738 41738 41738 41738 41738 41738 41738 
+ Optimal point: 14 13 13 
+++++++++++++++++++++++++++++++++++++++++++++++++++++++++++
INVADE: client 41737
 + TIMESTAMP: 0.296457
RESSOURCE DISTRIBUTION CHANGED
++++++++++++++++++++++++++++++++++++++++++++++++
INVADE (41737)
  + pid: 41737
  + min_cores: 1
  + max_cores: 512
  + scalability graph: 
1, 1.36329, 1.52423, 1.62017, 1.68565, 1.73398, 1.77154, 1.80182, 1.8269, 1.84812, 1.86637, 1.88229, 1.89634, 1.90885, 1.92009, 1.93026, 1.93952, 1.94799, 1.95579, 1.963, 1.96968, 1.9759, 1.98172, 1.98716, 1.99228, 1.9971, 2.00164, 2.00594, 2.01002, 2.01389, 2.01757, 2.02108, 2.02443, 2.02763, 2.03069, 2.03362, 2.03644, 2.03914, 2.04173, 2.04423, 
Number of clients: 4

+++++++++++++++++++++++++++++++++++++++++++++++++++++++++++
+ Client Mapping:
  > Client 41738 (20):	20 21 22 23 24 25 26 27 28 29 30 31 32 33 34 35 36 37 38 39 
  > Client 41740 (0):	
  > Client 41739 (13):	0 1 2 3 4 5 6 7 8 9 10 11 12 
  > Client 41737 (7):	13 14 15 16 17 18 19 

+ Core Mapping:	41739 41739 41739 41739 41739 41739 41739 41739 41739 41739 41739 41739 41739 41737 41737 41737 41737 41737 41737 41737 41738 41738 41738 41738 41738 41738 41738 41738 41738 41738 41738 41738 41738 41738 41738 41738 41738 41738 41738 41738 
+ Optimal point: 10 10 10 10 
+++++++++++++++++++++++++++++++++++++++++++++++++++++++++++
CLIENT SETUP: adding client 41741
 + TIMESTAMP: 0.297544
+++++++++++++++++++++++++++++++++++++++++++++++++++++++++++
+ Client Mapping:
  > Client 41738 (20):	20 21 22 23 24 25 26 27 28 29 30 31 32 33 34 35 36 37 38 39 
  > Client 41740 (0):	
  > Client 41739 (13):	0 1 2 3 4 5 6 7 8 9 10 11 12 
  > Client 41737 (7):	13 14 15 16 17 18 19 
  > Client 41741 (0):	

+ Core Mapping:	41739 41739 41739 41739 41739 41739 41739 41739 41739 41739 41739 41739 41739 41737 41737 41737 41737 41737 41737 41737 41738 41738 41738 41738 41738 41738 41738 41738 41738 41738 41738 41738 41738 41738 41738 41738 41738 41738 41738 41738 
+ Optimal point: 10 10 10 10 
+++++++++++++++++++++++++++++++++++++++++++++++++++++++++++
INVADE: client 41741
 + TIMESTAMP: 0.297818
++++++++++++++++++++++++++++++++++++++++++++++++
 + TIMESTAMP: 0.298417
REINVADE (41739)
  + pid: 41739
  + min_cores: 1
  + max_cores: 512
  + scalability graph: 
1, 1.36329, 1.52423, 1.62017, 1.68565, 1.73398, 1.77154, 1.80182, 1.8269, 1.84812, 1.86637, 1.88229, 1.89634, 1.90885, 1.92009, 1.93026, 1.93952, 1.94799, 1.95579, 1.963, 1.96968, 1.9759, 1.98172, 1.98716, 1.99228, 1.9971, 2.00164, 2.00594, 2.01002, 2.01389, 2.01757, 2.02108, 2.02443, 2.02763, 2.03069, 2.03362, 2.03644, 2.03914, 2.04173, 2.04423, 
Number of clients: 5

+++++++++++++++++++++++++++++++++++++++++++++++++++++++++++
+ Client Mapping:
  > Client 41738 (20):	20 21 22 23 24 25 26 27 28 29 30 31 32 33 34 35 36 37 38 39 
  > Client 41740 (0):	
  > Client 41739 (8):	5 6 7 8 9 10 11 12 
  > Client 41737 (7):	13 14 15 16 17 18 19 
  > Client 41741 (0):	

+ Core Mapping:	0 0 0 0 0 41739 41739 41739 41739 41739 41739 41739 41739 41737 41737 41737 41737 41737 41737 41737 41738 41738 41738 41738 41738 41738 41738 41738 41738 41738 41738 41738 41738 41738 41738 41738 41738 41738 41738 41738 
+ Optimal point: 8 8 8 8 8 
+++++++++++++++++++++++++++++++++++++++++++++++++++++++++++
++++++++++++++++++++++++++++++++++++++++++++++++
 + TIMESTAMP: 0.305392
REINVADE (41738)
  + pid: 41738
  + min_cores: 1
  + max_cores: 512
  + scalability graph: 
1, 1.36329, 1.52423, 1.62017, 1.68565, 1.73398, 1.77154, 1.80182, 1.8269, 1.84812, 1.86637, 1.88229, 1.89634, 1.90885, 1.92009, 1.93026, 1.93952, 1.94799, 1.95579, 1.963, 1.96968, 1.9759, 1.98172, 1.98716, 1.99228, 1.9971, 2.00164, 2.00594, 2.01002, 2.01389, 2.01757, 2.02108, 2.02443, 2.02763, 2.03069, 2.03362, 2.03644, 2.03914, 2.04173, 2.04423, 
Number of clients: 5

+++++++++++++++++++++++++++++++++++++++++++++++++++++++++++
+ Client Mapping:
  > Client 41738 (8):	32 33 34 35 36 37 38 39 
  > Client 41740 (0):	
  > Client 41739 (8):	5 6 7 8 9 10 11 12 
  > Client 41737 (7):	13 14 15 16 17 18 19 
  > Client 41741 (0):	

+ Core Mapping:	0 0 0 0 0 41739 41739 41739 41739 41739 41739 41739 41739 41737 41737 41737 41737 41737 41737 41737 0 0 0 0 0 0 0 0 0 0 0 0 41738 41738 41738 41738 41738 41738 41738 41738 
+ Optimal point: 8 8 8 8 8 
+++++++++++++++++++++++++++++++++++++++++++++++++++++++++++
++++++++++++++++++++++++++++++++++++++++++++++++
 + TIMESTAMP: 0.312608
REINVADE (41740)
  + pid: 41740
  + min_cores: 1
  + max_cores: 512
  + scalability graph: 
1, 1.36329, 1.52423, 1.62017, 1.68565, 1.73398, 1.77154, 1.80182, 1.8269, 1.84812, 1.86637, 1.88229, 1.89634, 1.90885, 1.92009, 1.93026, 1.93952, 1.94799, 1.95579, 1.963, 1.96968, 1.9759, 1.98172, 1.98716, 1.99228, 1.9971, 2.00164, 2.00594, 2.01002, 2.01389, 2.01757, 2.02108, 2.02443, 2.02763, 2.03069, 2.03362, 2.03644, 2.03914, 2.04173, 2.04423, 
Number of clients: 5

+++++++++++++++++++++++++++++++++++++++++++++++++++++++++++
+ Client Mapping:
  > Client 41738 (8):	32 33 34 35 36 37 38 39 
  > Client 41740 (8):	0 1 2 3 4 20 21 22 
  > Client 41739 (8):	5 6 7 8 9 10 11 12 
  > Client 41737 (7):	13 14 15 16 17 18 19 
  > Client 41741 (0):	

+ Core Mapping:	41740 41740 41740 41740 41740 41739 41739 41739 41739 41739 41739 41739 41739 41737 41737 41737 41737 41737 41737 41737 41740 41740 41740 0 0 0 0 0 0 0 0 0 41738 41738 41738 41738 41738 41738 41738 41738 
+ Optimal point: 8 8 8 8 8 
+++++++++++++++++++++++++++++++++++++++++++++++++++++++++++
++++++++++++++++++++++++++++++++++++++++++++++++
 + TIMESTAMP: 0.317669
REINVADE (41737)
  + pid: 41737
  + min_cores: 1
  + max_cores: 512
  + scalability graph: 
1, 1.36329, 1.52423, 1.62017, 1.68565, 1.73398, 1.77154, 1.80182, 1.8269, 1.84812, 1.86637, 1.88229, 1.89634, 1.90885, 1.92009, 1.93026, 1.93952, 1.94799, 1.95579, 1.963, 1.96968, 1.9759, 1.98172, 1.98716, 1.99228, 1.9971, 2.00164, 2.00594, 2.01002, 2.01389, 2.01757, 2.02108, 2.02443, 2.02763, 2.03069, 2.03362, 2.03644, 2.03914, 2.04173, 2.04423, 
Number of clients: 5

+++++++++++++++++++++++++++++++++++++++++++++++++++++++++++
+ Client Mapping:
  > Client 41738 (8):	32 33 34 35 36 37 38 39 
  > Client 41740 (8):	0 1 2 3 4 20 21 22 
  > Client 41739 (8):	5 6 7 8 9 10 11 12 
  > Client 41737 (8):	13 14 15 16 17 18 19 23 
  > Client 41741 (0):	

+ Core Mapping:	41740 41740 41740 41740 41740 41739 41739 41739 41739 41739 41739 41739 41739 41737 41737 41737 41737 41737 41737 41737 41740 41740 41740 41737 0 0 0 0 0 0 0 0 41738 41738 41738 41738 41738 41738 41738 41738 
+ Optimal point: 8 8 8 8 8 
+++++++++++++++++++++++++++++++++++++++++++++++++++++++++++
++++++++++++++++++++++++++++++++++++++++++++++++
 + TIMESTAMP: 0.3451
REINVADE (41741)
  + pid: 41741
  + min_cores: 1
  + max_cores: 512
  + scalability graph: 
1, 1.36329, 1.52423, 1.62017, 1.68565, 1.73398, 1.77154, 1.80182, 1.8269, 1.84812, 1.86637, 1.88229, 1.89634, 1.90885, 1.92009, 1.93026, 1.93952, 1.94799, 1.95579, 1.963, 1.96968, 1.9759, 1.98172, 1.98716, 1.99228, 1.9971, 2.00164, 2.00594, 2.01002, 2.01389, 2.01757, 2.02108, 2.02443, 2.02763, 2.03069, 2.03362, 2.03644, 2.03914, 2.04173, 2.04423, 
Number of clients: 5

+++++++++++++++++++++++++++++++++++++++++++++++++++++++++++
+ Client Mapping:
  > Client 41738 (8):	32 33 34 35 36 37 38 39 
  > Client 41740 (8):	0 1 2 3 4 20 21 22 
  > Client 41739 (8):	5 6 7 8 9 10 11 12 
  > Client 41737 (8):	13 14 15 16 17 18 19 23 
  > Client 41741 (8):	24 25 26 27 28 29 30 31 

+ Core Mapping:	41740 41740 41740 41740 41740 41739 41739 41739 41739 41739 41739 41739 41739 41737 41737 41737 41737 41737 41737 41737 41740 41740 41740 41737 41741 41741 41741 41741 41741 41741 41741 41741 41738 41738 41738 41738 41738 41738 41738 41738 
+ Optimal point: 8 8 8 8 8 
+++++++++++++++++++++++++++++++++++++++++++++++++++++++++++
CLIENT SHUTDOWN: client 41741
 + TIMESTAMP: 24.2953
+++++++++++++++++++++++++++++++++++++++++++++++++++++++++++
+ Client Mapping:
  > Client 41738 (8):	32 33 34 35 36 37 38 39 
  > Client 41740 (8):	0 1 2 3 4 20 21 22 
  > Client 41739 (8):	5 6 7 8 9 10 11 12 
  > Client 41737 (8):	13 14 15 16 17 18 19 23 
  > Client 41741 (0):	

+ Core Mapping:	41740 41740 41740 41740 41740 41739 41739 41739 41739 41739 41739 41739 41739 41737 41737 41737 41737 41737 41737 41737 41740 41740 41740 41737 0 0 0 0 0 0 0 0 41738 41738 41738 41738 41738 41738 41738 41738 
+ Optimal point: 8 8 8 8 8 
+++++++++++++++++++++++++++++++++++++++++++++++++++++++++++
client (41741) shutdown hint: 437.984
sum_client_shutdown_hint: 437.984
++++++++++++++++++++++++++++++++++++++++++++++++
 + TIMESTAMP: 24.2954
REINVADE (41739)
  + pid: 41739
  + min_cores: 1
  + max_cores: 512
  + scalability graph: 
1, 1.36329, 1.52423, 1.62017, 1.68565, 1.73398, 1.77154, 1.80182, 1.8269, 1.84812, 1.86637, 1.88229, 1.89634, 1.90885, 1.92009, 1.93026, 1.93952, 1.94799, 1.95579, 1.963, 1.96968, 1.9759, 1.98172, 1.98716, 1.99228, 1.9971, 2.00164, 2.00594, 2.01002, 2.01389, 2.01757, 2.02108, 2.02443, 2.02763, 2.03069, 2.03362, 2.03644, 2.03914, 2.04173, 2.04423, 
Number of clients: 4

+++++++++++++++++++++++++++++++++++++++++++++++++++++++++++
+ Client Mapping:
  > Client 41738 (8):	32 33 34 35 36 37 38 39 
  > Client 41740 (8):	0 1 2 3 4 20 21 22 
  > Client 41739 (10):	5 6 7 8 9 10 11 12 24 25 
  > Client 41737 (8):	13 14 15 16 17 18 19 23 

+ Core Mapping:	41740 41740 41740 41740 41740 41739 41739 41739 41739 41739 41739 41739 41739 41737 41737 41737 41737 41737 41737 41737 41740 41740 41740 41737 41739 41739 0 0 0 0 0 0 41738 41738 41738 41738 41738 41738 41738 41738 
+ Optimal point: 10 10 10 10 
+++++++++++++++++++++++++++++++++++++++++++++++++++++++++++
++++++++++++++++++++++++++++++++++++++++++++++++
 + TIMESTAMP: 24.2957
REINVADE (41737)
  + pid: 41737
  + min_cores: 1
  + max_cores: 512
  + scalability graph: 
1, 1.36329, 1.52423, 1.62017, 1.68565, 1.73398, 1.77154, 1.80182, 1.8269, 1.84812, 1.86637, 1.88229, 1.89634, 1.90885, 1.92009, 1.93026, 1.93952, 1.94799, 1.95579, 1.963, 1.96968, 1.9759, 1.98172, 1.98716, 1.99228, 1.9971, 2.00164, 2.00594, 2.01002, 2.01389, 2.01757, 2.02108, 2.02443, 2.02763, 2.03069, 2.03362, 2.03644, 2.03914, 2.04173, 2.04423, 
Number of clients: 4

+++++++++++++++++++++++++++++++++++++++++++++++++++++++++++
+ Client Mapping:
  > Client 41738 (8):	32 33 34 35 36 37 38 39 
  > Client 41740 (8):	0 1 2 3 4 20 21 22 
  > Client 41739 (10):	5 6 7 8 9 10 11 12 24 25 
  > Client 41737 (10):	13 14 15 16 17 18 19 23 26 27 

+ Core Mapping:	41740 41740 41740 41740 41740 41739 41739 41739 41739 41739 41739 41739 41739 41737 41737 41737 41737 41737 41737 41737 41740 41740 41740 41737 41739 41739 41737 41737 0 0 0 0 41738 41738 41738 41738 41738 41738 41738 41738 
+ Optimal point: 10 10 10 10 
+++++++++++++++++++++++++++++++++++++++++++++++++++++++++++
++++++++++++++++++++++++++++++++++++++++++++++++
 + TIMESTAMP: 24.2963
REINVADE (41738)
  + pid: 41738
  + min_cores: 1
  + max_cores: 512
  + scalability graph: 
1, 1.36329, 1.52423, 1.62017, 1.68565, 1.73398, 1.77154, 1.80182, 1.8269, 1.84812, 1.86637, 1.88229, 1.89634, 1.90885, 1.92009, 1.93026, 1.93952, 1.94799, 1.95579, 1.963, 1.96968, 1.9759, 1.98172, 1.98716, 1.99228, 1.9971, 2.00164, 2.00594, 2.01002, 2.01389, 2.01757, 2.02108, 2.02443, 2.02763, 2.03069, 2.03362, 2.03644, 2.03914, 2.04173, 2.04423, 
Number of clients: 4

+++++++++++++++++++++++++++++++++++++++++++++++++++++++++++
+ Client Mapping:
  > Client 41738 (10):	32 33 34 35 36 37 38 39 28 29 
  > Client 41740 (8):	0 1 2 3 4 20 21 22 
  > Client 41739 (10):	5 6 7 8 9 10 11 12 24 25 
  > Client 41737 (10):	13 14 15 16 17 18 19 23 26 27 

+ Core Mapping:	41740 41740 41740 41740 41740 41739 41739 41739 41739 41739 41739 41739 41739 41737 41737 41737 41737 41737 41737 41737 41740 41740 41740 41737 41739 41739 41737 41737 41738 41738 0 0 41738 41738 41738 41738 41738 41738 41738 41738 
+ Optimal point: 10 10 10 10 
+++++++++++++++++++++++++++++++++++++++++++++++++++++++++++
++++++++++++++++++++++++++++++++++++++++++++++++
 + TIMESTAMP: 24.2965
REINVADE (41740)
  + pid: 41740
  + min_cores: 1
  + max_cores: 512
  + scalability graph: 
1, 1.36329, 1.52423, 1.62017, 1.68565, 1.73398, 1.77154, 1.80182, 1.8269, 1.84812, 1.86637, 1.88229, 1.89634, 1.90885, 1.92009, 1.93026, 1.93952, 1.94799, 1.95579, 1.963, 1.96968, 1.9759, 1.98172, 1.98716, 1.99228, 1.9971, 2.00164, 2.00594, 2.01002, 2.01389, 2.01757, 2.02108, 2.02443, 2.02763, 2.03069, 2.03362, 2.03644, 2.03914, 2.04173, 2.04423, 
Number of clients: 4

+++++++++++++++++++++++++++++++++++++++++++++++++++++++++++
+ Client Mapping:
  > Client 41738 (10):	32 33 34 35 36 37 38 39 28 29 
  > Client 41740 (10):	0 1 2 3 4 20 21 22 30 31 
  > Client 41739 (10):	5 6 7 8 9 10 11 12 24 25 
  > Client 41737 (10):	13 14 15 16 17 18 19 23 26 27 

+ Core Mapping:	41740 41740 41740 41740 41740 41739 41739 41739 41739 41739 41739 41739 41739 41737 41737 41737 41737 41737 41737 41737 41740 41740 41740 41737 41739 41739 41737 41737 41738 41738 41740 41740 41738 41738 41738 41738 41738 41738 41738 41738 
+ Optimal point: 10 10 10 10 
+++++++++++++++++++++++++++++++++++++++++++++++++++++++++++
CLIENT SHUTDOWN: client 41740
 + TIMESTAMP: 24.3857
+++++++++++++++++++++++++++++++++++++++++++++++++++++++++++
+ Client Mapping:
  > Client 41738 (10):	32 33 34 35 36 37 38 39 28 29 
  > Client 41740 (0):	
  > Client 41739 (10):	5 6 7 8 9 10 11 12 24 25 
  > Client 41737 (10):	13 14 15 16 17 18 19 23 26 27 

+ Core Mapping:	0 0 0 0 0 41739 41739 41739 41739 41739 41739 41739 41739 41737 41737 41737 41737 41737 41737 41737 0 0 0 41737 41739 41739 41737 41737 41738 41738 0 0 41738 41738 41738 41738 41738 41738 41738 41738 
+ Optimal point: 10 10 10 10 
+++++++++++++++++++++++++++++++++++++++++++++++++++++++++++
client (41740) shutdown hint: 437.984
sum_client_shutdown_hint: 875.968
++++++++++++++++++++++++++++++++++++++++++++++++
 + TIMESTAMP: 24.3858
REINVADE (41739)
  + pid: 41739
  + min_cores: 1
  + max_cores: 512
  + scalability graph: 
1, 1.36329, 1.52423, 1.62017, 1.68565, 1.73398, 1.77154, 1.80182, 1.8269, 1.84812, 1.86637, 1.88229, 1.89634, 1.90885, 1.92009, 1.93026, 1.93952, 1.94799, 1.95579, 1.963, 1.96968, 1.9759, 1.98172, 1.98716, 1.99228, 1.9971, 2.00164, 2.00594, 2.01002, 2.01389, 2.01757, 2.02108, 2.02443, 2.02763, 2.03069, 2.03362, 2.03644, 2.03914, 2.04173, 2.04423, 
Number of clients: 3

+++++++++++++++++++++++++++++++++++++++++++++++++++++++++++
+ Client Mapping:
  > Client 41738 (10):	32 33 34 35 36 37 38 39 28 29 
  > Client 41739 (13):	5 6 7 8 9 10 11 12 24 25 0 1 2 
  > Client 41737 (10):	13 14 15 16 17 18 19 23 26 27 

+ Core Mapping:	41739 41739 41739 0 0 41739 41739 41739 41739 41739 41739 41739 41739 41737 41737 41737 41737 41737 41737 41737 0 0 0 41737 41739 41739 41737 41737 41738 41738 0 0 41738 41738 41738 41738 41738 41738 41738 41738 
+ Optimal point: 14 13 13 
+++++++++++++++++++++++++++++++++++++++++++++++++++++++++++
++++++++++++++++++++++++++++++++++++++++++++++++
 + TIMESTAMP: 24.3862
REINVADE (41738)
  + pid: 41738
  + min_cores: 1
  + max_cores: 512
  + scalability graph: 
1, 1.36329, 1.52423, 1.62017, 1.68565, 1.73398, 1.77154, 1.80182, 1.8269, 1.84812, 1.86637, 1.88229, 1.89634, 1.90885, 1.92009, 1.93026, 1.93952, 1.94799, 1.95579, 1.963, 1.96968, 1.9759, 1.98172, 1.98716, 1.99228, 1.9971, 2.00164, 2.00594, 2.01002, 2.01389, 2.01757, 2.02108, 2.02443, 2.02763, 2.03069, 2.03362, 2.03644, 2.03914, 2.04173, 2.04423, 
Number of clients: 3

+++++++++++++++++++++++++++++++++++++++++++++++++++++++++++
+ Client Mapping:
  > Client 41738 (14):	32 33 34 35 36 37 38 39 28 29 3 4 20 21 
  > Client 41739 (13):	5 6 7 8 9 10 11 12 24 25 0 1 2 
  > Client 41737 (10):	13 14 15 16 17 18 19 23 26 27 

+ Core Mapping:	41739 41739 41739 41738 41738 41739 41739 41739 41739 41739 41739 41739 41739 41737 41737 41737 41737 41737 41737 41737 41738 41738 0 41737 41739 41739 41737 41737 41738 41738 0 0 41738 41738 41738 41738 41738 41738 41738 41738 
+ Optimal point: 14 13 13 
+++++++++++++++++++++++++++++++++++++++++++++++++++++++++++
++++++++++++++++++++++++++++++++++++++++++++++++
 + TIMESTAMP: 24.3863
REINVADE (41737)
  + pid: 41737
  + min_cores: 1
  + max_cores: 512
  + scalability graph: 
1, 1.36329, 1.52423, 1.62017, 1.68565, 1.73398, 1.77154, 1.80182, 1.8269, 1.84812, 1.86637, 1.88229, 1.89634, 1.90885, 1.92009, 1.93026, 1.93952, 1.94799, 1.95579, 1.963, 1.96968, 1.9759, 1.98172, 1.98716, 1.99228, 1.9971, 2.00164, 2.00594, 2.01002, 2.01389, 2.01757, 2.02108, 2.02443, 2.02763, 2.03069, 2.03362, 2.03644, 2.03914, 2.04173, 2.04423, 
Number of clients: 3

+++++++++++++++++++++++++++++++++++++++++++++++++++++++++++
+ Client Mapping:
  > Client 41738 (14):	32 33 34 35 36 37 38 39 28 29 3 4 20 21 
  > Client 41739 (13):	5 6 7 8 9 10 11 12 24 25 0 1 2 
  > Client 41737 (13):	13 14 15 16 17 18 19 23 26 27 22 30 31 

+ Core Mapping:	41739 41739 41739 41738 41738 41739 41739 41739 41739 41739 41739 41739 41739 41737 41737 41737 41737 41737 41737 41737 41738 41738 41737 41737 41739 41739 41737 41737 41738 41738 41737 41737 41738 41738 41738 41738 41738 41738 41738 41738 
+ Optimal point: 14 13 13 
+++++++++++++++++++++++++++++++++++++++++++++++++++++++++++
CLIENT SHUTDOWN: client 41739
 + TIMESTAMP: 24.4242
+++++++++++++++++++++++++++++++++++++++++++++++++++++++++++
+ Client Mapping:
  > Client 41738 (14):	32 33 34 35 36 37 38 39 28 29 3 4 20 21 
  > Client 41739 (0):	
  > Client 41737 (13):	13 14 15 16 17 18 19 23 26 27 22 30 31 

+ Core Mapping:	0 0 0 41738 41738 0 0 0 0 0 0 0 0 41737 41737 41737 41737 41737 41737 41737 41738 41738 41737 41737 0 0 41737 41737 41738 41738 41737 41737 41738 41738 41738 41738 41738 41738 41738 41738 
+ Optimal point: 14 13 13 
+++++++++++++++++++++++++++++++++++++++++++++++++++++++++++
client (41739) shutdown hint: 437.984
sum_client_shutdown_hint: 1313.95
++++++++++++++++++++++++++++++++++++++++++++++++
 + TIMESTAMP: 24.4243
REINVADE (41737)
  + pid: 41737
  + min_cores: 1
  + max_cores: 512
  + scalability graph: 
1, 1.36329, 1.52423, 1.62017, 1.68565, 1.73398, 1.77154, 1.80182, 1.8269, 1.84812, 1.86637, 1.88229, 1.89634, 1.90885, 1.92009, 1.93026, 1.93952, 1.94799, 1.95579, 1.963, 1.96968, 1.9759, 1.98172, 1.98716, 1.99228, 1.9971, 2.00164, 2.00594, 2.01002, 2.01389, 2.01757, 2.02108, 2.02443, 2.02763, 2.03069, 2.03362, 2.03644, 2.03914, 2.04173, 2.04423, 
Number of clients: 2

+++++++++++++++++++++++++++++++++++++++++++++++++++++++++++
+ Client Mapping:
  > Client 41738 (14):	32 33 34 35 36 37 38 39 28 29 3 4 20 21 
  > Client 41737 (20):	13 14 15 16 17 18 19 23 26 27 22 30 31 0 1 2 5 6 7 8 

+ Core Mapping:	41737 41737 41737 41738 41738 41737 41737 41737 41737 0 0 0 0 41737 41737 41737 41737 41737 41737 41737 41738 41738 41737 41737 0 0 41737 41737 41738 41738 41737 41737 41738 41738 41738 41738 41738 41738 41738 41738 
+ Optimal point: 20 20 
+++++++++++++++++++++++++++++++++++++++++++++++++++++++++++
++++++++++++++++++++++++++++++++++++++++++++++++
 + TIMESTAMP: 24.4249
REINVADE (41738)
  + pid: 41738
  + min_cores: 1
  + max_cores: 512
  + scalability graph: 
1, 1.36329, 1.52423, 1.62017, 1.68565, 1.73398, 1.77154, 1.80182, 1.8269, 1.84812, 1.86637, 1.88229, 1.89634, 1.90885, 1.92009, 1.93026, 1.93952, 1.94799, 1.95579, 1.963, 1.96968, 1.9759, 1.98172, 1.98716, 1.99228, 1.9971, 2.00164, 2.00594, 2.01002, 2.01389, 2.01757, 2.02108, 2.02443, 2.02763, 2.03069, 2.03362, 2.03644, 2.03914, 2.04173, 2.04423, 
Number of clients: 2

+++++++++++++++++++++++++++++++++++++++++++++++++++++++++++
+ Client Mapping:
  > Client 41738 (20):	32 33 34 35 36 37 38 39 28 29 3 4 20 21 9 10 11 12 24 25 
  > Client 41737 (20):	13 14 15 16 17 18 19 23 26 27 22 30 31 0 1 2 5 6 7 8 

+ Core Mapping:	41737 41737 41737 41738 41738 41737 41737 41737 41737 41738 41738 41738 41738 41737 41737 41737 41737 41737 41737 41737 41738 41738 41737 41737 41738 41738 41737 41737 41738 41738 41737 41737 41738 41738 41738 41738 41738 41738 41738 41738 
+ Optimal point: 20 20 
+++++++++++++++++++++++++++++++++++++++++++++++++++++++++++
CLIENT SHUTDOWN: client 41737
 + TIMESTAMP: 25.0208
+++++++++++++++++++++++++++++++++++++++++++++++++++++++++++
+ Client Mapping:
  > Client 41738 (20):	32 33 34 35 36 37 38 39 28 29 3 4 20 21 9 10 11 12 24 25 
  > Client 41737 (0):	

+ Core Mapping:	0 0 0 41738 41738 0 0 0 0 41738 41738 41738 41738 0 0 0 0 0 0 0 41738 41738 0 0 41738 41738 0 0 41738 41738 0 0 41738 41738 41738 41738 41738 41738 41738 41738 
+ Optimal point: 20 20 
+++++++++++++++++++++++++++++++++++++++++++++++++++++++++++
client (41737) shutdown hint: 437.984
sum_client_shutdown_hint: 1751.94
++++++++++++++++++++++++++++++++++++++++++++++++
 + TIMESTAMP: 25.0214
REINVADE (41738)
  + pid: 41738
  + min_cores: 1
  + max_cores: 512
  + scalability graph: 
1, 1.36329, 1.52423, 1.62017, 1.68565, 1.73398, 1.77154, 1.80182, 1.8269, 1.84812, 1.86637, 1.88229, 1.89634, 1.90885, 1.92009, 1.93026, 1.93952, 1.94799, 1.95579, 1.963, 1.96968, 1.9759, 1.98172, 1.98716, 1.99228, 1.9971, 2.00164, 2.00594, 2.01002, 2.01389, 2.01757, 2.02108, 2.02443, 2.02763, 2.03069, 2.03362, 2.03644, 2.03914, 2.04173, 2.04423, 
Number of clients: 1

+++++++++++++++++++++++++++++++++++++++++++++++++++++++++++
+ Client Mapping:
  > Client 41738 (40):	32 33 34 35 36 37 38 39 28 29 3 4 20 21 9 10 11 12 24 25 0 1 2 5 6 7 8 13 14 15 16 17 18 19 22 23 26 27 30 31 

+ Core Mapping:	41738 41738 41738 41738 41738 41738 41738 41738 41738 41738 41738 41738 41738 41738 41738 41738 41738 41738 41738 41738 41738 41738 41738 41738 41738 41738 41738 41738 41738 41738 41738 41738 41738 41738 41738 41738 41738 41738 41738 41738 
+ Optimal point: 40 
+++++++++++++++++++++++++++++++++++++++++++++++++++++++++++
CLIENT SHUTDOWN: client 41738
 + TIMESTAMP: 25.2374
+++++++++++++++++++++++++++++++++++++++++++++++++++++++++++
+ Client Mapping:
  > Client 41738 (0):	

+ Core Mapping:	0 0 0 0 0 0 0 0 0 0 0 0 0 0 0 0 0 0 0 0 0 0 0 0 0 0 0 0 0 0 0 0 0 0 0 0 0 0 0 0 
+ Optimal point: 40 
+++++++++++++++++++++++++++++++++++++++++++++++++++++++++++
client (41738) shutdown hint: 437.984
sum_client_shutdown_hint: 2189.92
END TIMESTAMP: 25.2374
OVERALL TIME: 25.0999
 + sum_client_shutdown_hint: 2189.92
 + sum_client_shutdown_hint/time: 87.248
sum_client_shutdown_hint: 2189.92
