STARTING WORLD SCHEDULER SERVER
CLIENT SETUP: adding client 42672
 + TIMESTAMP: 0.291359
START TIMESTAMP: 0.291393
+++++++++++++++++++++++++++++++++++++++++++++++++++++++++++
+ Client Mapping:
  > Client 42672 (0):	

+ Core Mapping:	0 0 0 0 0 0 0 0 0 0 0 0 0 0 0 0 0 0 0 0 0 0 0 0 0 0 0 0 0 0 0 0 0 0 0 0 0 0 0 0 
+ Optimal point: 
+++++++++++++++++++++++++++++++++++++++++++++++++++++++++++
CLIENT SETUP: adding client 42668
 + TIMESTAMP: 0.291804
+++++++++++++++++++++++++++++++++++++++++++++++++++++++++++
+ Client Mapping:
  > Client 42672 (0):	
  > Client 42668 (0):	

+ Core Mapping:	0 0 0 0 0 0 0 0 0 0 0 0 0 0 0 0 0 0 0 0 0 0 0 0 0 0 0 0 0 0 0 0 0 0 0 0 0 0 0 0 
+ Optimal point: 
+++++++++++++++++++++++++++++++++++++++++++++++++++++++++++
INVADE: client 42668
 + TIMESTAMP: 0.292389
RESSOURCE DISTRIBUTION CHANGED
++++++++++++++++++++++++++++++++++++++++++++++++
INVADE (42668)
  + pid: 42668
  + min_cores: 1
  + max_cores: 512
  + scalability graph: 
1, 1.36329, 1.52423, 1.62017, 1.68565, 1.73398, 1.77154, 1.80182, 1.8269, 1.84812, 1.86637, 1.88229, 1.89634, 1.90885, 1.92009, 1.93026, 1.93952, 1.94799, 1.95579, 1.963, 1.96968, 1.9759, 1.98172, 1.98716, 1.99228, 1.9971, 2.00164, 2.00594, 2.01002, 2.01389, 2.01757, 2.02108, 2.02443, 2.02763, 2.03069, 2.03362, 2.03644, 2.03914, 2.04173, 2.04423, 
Number of clients: 2

+++++++++++++++++++++++++++++++++++++++++++++++++++++++++++
+ Client Mapping:
  > Client 42672 (0):	
  > Client 42668 (1):	0 

+ Core Mapping:	42668 0 0 0 0 0 0 0 0 0 0 0 0 0 0 0 0 0 0 0 0 0 0 0 0 0 0 0 0 0 0 0 0 0 0 0 0 0 0 0 
+ Optimal point: 39 1 
+++++++++++++++++++++++++++++++++++++++++++++++++++++++++++
CLIENT SETUP: adding client 42669
 + TIMESTAMP: 0.292521
+++++++++++++++++++++++++++++++++++++++++++++++++++++++++++
+ Client Mapping:
  > Client 42672 (0):	
  > Client 42668 (1):	0 
  > Client 42669 (0):	

+ Core Mapping:	42668 0 0 0 0 0 0 0 0 0 0 0 0 0 0 0 0 0 0 0 0 0 0 0 0 0 0 0 0 0 0 0 0 0 0 0 0 0 0 0 
+ Optimal point: 39 1 
+++++++++++++++++++++++++++++++++++++++++++++++++++++++++++
CLIENT SETUP: adding client 42674
 + TIMESTAMP: 0.29258
+++++++++++++++++++++++++++++++++++++++++++++++++++++++++++
+ Client Mapping:
  > Client 42672 (0):	
  > Client 42668 (1):	0 
  > Client 42669 (0):	
  > Client 42674 (0):	

+ Core Mapping:	42668 0 0 0 0 0 0 0 0 0 0 0 0 0 0 0 0 0 0 0 0 0 0 0 0 0 0 0 0 0 0 0 0 0 0 0 0 0 0 0 
+ Optimal point: 39 1 
+++++++++++++++++++++++++++++++++++++++++++++++++++++++++++
CLIENT SETUP: adding client 42671
 + TIMESTAMP: 0.292636
+++++++++++++++++++++++++++++++++++++++++++++++++++++++++++
+ Client Mapping:
  > Client 42672 (0):	
  > Client 42668 (1):	0 
  > Client 42669 (0):	
  > Client 42674 (0):	
  > Client 42671 (0):	

+ Core Mapping:	42668 0 0 0 0 0 0 0 0 0 0 0 0 0 0 0 0 0 0 0 0 0 0 0 0 0 0 0 0 0 0 0 0 0 0 0 0 0 0 0 
+ Optimal point: 39 1 
+++++++++++++++++++++++++++++++++++++++++++++++++++++++++++
INVADE: client 42672
 + TIMESTAMP: 0.292688
RESSOURCE DISTRIBUTION CHANGED
++++++++++++++++++++++++++++++++++++++++++++++++
INVADE (42672)
  + pid: 42672
  + min_cores: 1
  + max_cores: 512
  + scalability graph: 
1, 1.36329, 1.52423, 1.62017, 1.68565, 1.73398, 1.77154, 1.80182, 1.8269, 1.84812, 1.86637, 1.88229, 1.89634, 1.90885, 1.92009, 1.93026, 1.93952, 1.94799, 1.95579, 1.963, 1.96968, 1.9759, 1.98172, 1.98716, 1.99228, 1.9971, 2.00164, 2.00594, 2.01002, 2.01389, 2.01757, 2.02108, 2.02443, 2.02763, 2.03069, 2.03362, 2.03644, 2.03914, 2.04173, 2.04423, 
Number of clients: 5

+++++++++++++++++++++++++++++++++++++++++++++++++++++++++++
+ Client Mapping:
  > Client 42672 (1):	1 
  > Client 42668 (1):	0 
  > Client 42669 (0):	
  > Client 42674 (0):	
  > Client 42671 (0):	

+ Core Mapping:	42668 42672 0 0 0 0 0 0 0 0 0 0 0 0 0 0 0 0 0 0 0 0 0 0 0 0 0 0 0 0 0 0 0 0 0 0 0 0 0 0 
+ Optimal point: 1 1 36 1 1 
+++++++++++++++++++++++++++++++++++++++++++++++++++++++++++
CLIENT SETUP: adding client 42673
 + TIMESTAMP: 0.292817
+++++++++++++++++++++++++++++++++++++++++++++++++++++++++++
+ Client Mapping:
  > Client 42672 (1):	1 
  > Client 42668 (1):	0 
  > Client 42669 (0):	
  > Client 42674 (0):	
  > Client 42671 (0):	
  > Client 42673 (0):	

+ Core Mapping:	42668 42672 0 0 0 0 0 0 0 0 0 0 0 0 0 0 0 0 0 0 0 0 0 0 0 0 0 0 0 0 0 0 0 0 0 0 0 0 0 0 
+ Optimal point: 1 1 36 1 1 
+++++++++++++++++++++++++++++++++++++++++++++++++++++++++++
INVADE: client 42673
 + TIMESTAMP: 0.293026
RESSOURCE DISTRIBUTION CHANGED
++++++++++++++++++++++++++++++++++++++++++++++++
INVADE (42673)
  + pid: 42673
  + min_cores: 1
  + max_cores: 512
  + scalability graph: 
1, 1.36329, 1.52423, 1.62017, 1.68565, 1.73398, 1.77154, 1.80182, 1.8269, 1.84812, 1.86637, 1.88229, 1.89634, 1.90885, 1.92009, 1.93026, 1.93952, 1.94799, 1.95579, 1.963, 1.96968, 1.9759, 1.98172, 1.98716, 1.99228, 1.9971, 2.00164, 2.00594, 2.01002, 2.01389, 2.01757, 2.02108, 2.02443, 2.02763, 2.03069, 2.03362, 2.03644, 2.03914, 2.04173, 2.04423, 
Number of clients: 6

+++++++++++++++++++++++++++++++++++++++++++++++++++++++++++
+ Client Mapping:
  > Client 42672 (1):	1 
  > Client 42668 (1):	0 
  > Client 42669 (0):	
  > Client 42674 (0):	
  > Client 42671 (0):	
  > Client 42673 (1):	2 

+ Core Mapping:	42668 42672 42673 0 0 0 0 0 0 0 0 0 0 0 0 0 0 0 0 0 0 0 0 0 0 0 0 0 0 0 0 0 0 0 0 0 0 0 0 0 
+ Optimal point: 1 1 35 1 1 1 
+++++++++++++++++++++++++++++++++++++++++++++++++++++++++++
INVADE: client 42674
 + TIMESTAMP: 0.293158
RESSOURCE DISTRIBUTION CHANGED
++++++++++++++++++++++++++++++++++++++++++++++++
INVADE (42674)
  + pid: 42674
  + min_cores: 1
  + max_cores: 512
  + scalability graph: 
1, 1.36329, 1.52423, 1.62017, 1.68565, 1.73398, 1.77154, 1.80182, 1.8269, 1.84812, 1.86637, 1.88229, 1.89634, 1.90885, 1.92009, 1.93026, 1.93952, 1.94799, 1.95579, 1.963, 1.96968, 1.9759, 1.98172, 1.98716, 1.99228, 1.9971, 2.00164, 2.00594, 2.01002, 2.01389, 2.01757, 2.02108, 2.02443, 2.02763, 2.03069, 2.03362, 2.03644, 2.03914, 2.04173, 2.04423, 
Number of clients: 6

+++++++++++++++++++++++++++++++++++++++++++++++++++++++++++
+ Client Mapping:
  > Client 42672 (1):	1 
  > Client 42668 (1):	0 
  > Client 42669 (0):	
  > Client 42674 (1):	3 
  > Client 42671 (0):	
  > Client 42673 (1):	2 

+ Core Mapping:	42668 42672 42673 42674 0 0 0 0 0 0 0 0 0 0 0 0 0 0 0 0 0 0 0 0 0 0 0 0 0 0 0 0 0 0 0 0 0 0 0 0 
+ Optimal point: 1 1 35 1 1 1 
+++++++++++++++++++++++++++++++++++++++++++++++++++++++++++
INVADE: client 42669
 + TIMESTAMP: 0.293288
RESSOURCE DISTRIBUTION CHANGED
++++++++++++++++++++++++++++++++++++++++++++++++
INVADE (42669)
  + pid: 42669
  + min_cores: 1
  + max_cores: 512
  + scalability graph: 
1, 1.36329, 1.52423, 1.62017, 1.68565, 1.73398, 1.77154, 1.80182, 1.8269, 1.84812, 1.86637, 1.88229, 1.89634, 1.90885, 1.92009, 1.93026, 1.93952, 1.94799, 1.95579, 1.963, 1.96968, 1.9759, 1.98172, 1.98716, 1.99228, 1.9971, 2.00164, 2.00594, 2.01002, 2.01389, 2.01757, 2.02108, 2.02443, 2.02763, 2.03069, 2.03362, 2.03644, 2.03914, 2.04173, 2.04423, 
Number of clients: 6

+++++++++++++++++++++++++++++++++++++++++++++++++++++++++++
+ Client Mapping:
  > Client 42672 (1):	1 
  > Client 42668 (1):	0 
  > Client 42669 (1):	4 
  > Client 42674 (1):	3 
  > Client 42671 (0):	
  > Client 42673 (1):	2 

+ Core Mapping:	42668 42672 42673 42674 42669 0 0 0 0 0 0 0 0 0 0 0 0 0 0 0 0 0 0 0 0 0 0 0 0 0 0 0 0 0 0 0 0 0 0 0 
+ Optimal point: 1 1 1 1 35 1 
+++++++++++++++++++++++++++++++++++++++++++++++++++++++++++
CLIENT SETUP: adding client 42670
 + TIMESTAMP: 0.293423
+++++++++++++++++++++++++++++++++++++++++++++++++++++++++++
+ Client Mapping:
  > Client 42672 (1):	1 
  > Client 42668 (1):	0 
  > Client 42669 (1):	4 
  > Client 42674 (1):	3 
  > Client 42671 (0):	
  > Client 42673 (1):	2 
  > Client 42670 (0):	

+ Core Mapping:	42668 42672 42673 42674 42669 0 0 0 0 0 0 0 0 0 0 0 0 0 0 0 0 0 0 0 0 0 0 0 0 0 0 0 0 0 0 0 0 0 0 0 
+ Optimal point: 1 1 1 1 35 1 
+++++++++++++++++++++++++++++++++++++++++++++++++++++++++++
INVADE: client 42671
 + TIMESTAMP: 0.29348
RESSOURCE DISTRIBUTION CHANGED
++++++++++++++++++++++++++++++++++++++++++++++++
INVADE (42671)
  + pid: 42671
  + min_cores: 1
  + max_cores: 512
  + scalability graph: 
1, 1.36329, 1.52423, 1.62017, 1.68565, 1.73398, 1.77154, 1.80182, 1.8269, 1.84812, 1.86637, 1.88229, 1.89634, 1.90885, 1.92009, 1.93026, 1.93952, 1.94799, 1.95579, 1.963, 1.96968, 1.9759, 1.98172, 1.98716, 1.99228, 1.9971, 2.00164, 2.00594, 2.01002, 2.01389, 2.01757, 2.02108, 2.02443, 2.02763, 2.03069, 2.03362, 2.03644, 2.03914, 2.04173, 2.04423, 
Number of clients: 7

+++++++++++++++++++++++++++++++++++++++++++++++++++++++++++
+ Client Mapping:
  > Client 42672 (1):	1 
  > Client 42668 (1):	0 
  > Client 42669 (1):	4 
  > Client 42674 (1):	3 
  > Client 42671 (1):	5 
  > Client 42673 (1):	2 
  > Client 42670 (0):	

+ Core Mapping:	42668 42672 42673 42674 42669 42671 0 0 0 0 0 0 0 0 0 0 0 0 0 0 0 0 0 0 0 0 0 0 0 0 0 0 0 0 0 0 0 0 0 0 
+ Optimal point: 1 1 1 1 1 1 34 
+++++++++++++++++++++++++++++++++++++++++++++++++++++++++++
INVADE: client 42670
 + TIMESTAMP: 0.293631
RESSOURCE DISTRIBUTION CHANGED
++++++++++++++++++++++++++++++++++++++++++++++++
INVADE (42670)
  + pid: 42670
  + min_cores: 1
  + max_cores: 512
  + scalability graph: 
1, 1.36329, 1.52423, 1.62017, 1.68565, 1.73398, 1.77154, 1.80182, 1.8269, 1.84812, 1.86637, 1.88229, 1.89634, 1.90885, 1.92009, 1.93026, 1.93952, 1.94799, 1.95579, 1.963, 1.96968, 1.9759, 1.98172, 1.98716, 1.99228, 1.9971, 2.00164, 2.00594, 2.01002, 2.01389, 2.01757, 2.02108, 2.02443, 2.02763, 2.03069, 2.03362, 2.03644, 2.03914, 2.04173, 2.04423, 
Number of clients: 7

+++++++++++++++++++++++++++++++++++++++++++++++++++++++++++
+ Client Mapping:
  > Client 42672 (1):	1 
  > Client 42668 (1):	0 
  > Client 42669 (1):	4 
  > Client 42674 (1):	3 
  > Client 42671 (1):	5 
  > Client 42673 (1):	2 
  > Client 42670 (5):	6 7 8 9 10 

+ Core Mapping:	42668 42672 42673 42674 42669 42671 42670 42670 42670 42670 42670 0 0 0 0 0 0 0 0 0 0 0 0 0 0 0 0 0 0 0 0 0 0 0 0 0 0 0 0 0 
+ Optimal point: 6 6 6 6 6 5 5 
+++++++++++++++++++++++++++++++++++++++++++++++++++++++++++
++++++++++++++++++++++++++++++++++++++++++++++++
 + TIMESTAMP: 0.293771
REINVADE (42673)
  + pid: 42673
  + min_cores: 1
  + max_cores: 512
  + scalability graph: 
1, 1.36329, 1.52423, 1.62017, 1.68565, 1.73398, 1.77154, 1.80182, 1.8269, 1.84812, 1.86637, 1.88229, 1.89634, 1.90885, 1.92009, 1.93026, 1.93952, 1.94799, 1.95579, 1.963, 1.96968, 1.9759, 1.98172, 1.98716, 1.99228, 1.9971, 2.00164, 2.00594, 2.01002, 2.01389, 2.01757, 2.02108, 2.02443, 2.02763, 2.03069, 2.03362, 2.03644, 2.03914, 2.04173, 2.04423, 
Number of clients: 7

+++++++++++++++++++++++++++++++++++++++++++++++++++++++++++
+ Client Mapping:
  > Client 42672 (1):	1 
  > Client 42668 (1):	0 
  > Client 42669 (1):	4 
  > Client 42674 (1):	3 
  > Client 42671 (1):	5 
  > Client 42673 (5):	2 11 12 13 14 
  > Client 42670 (5):	6 7 8 9 10 

+ Core Mapping:	42668 42672 42673 42674 42669 42671 42670 42670 42670 42670 42670 42673 42673 42673 42673 0 0 0 0 0 0 0 0 0 0 0 0 0 0 0 0 0 0 0 0 0 0 0 0 0 
+ Optimal point: 6 6 6 6 6 5 5 
+++++++++++++++++++++++++++++++++++++++++++++++++++++++++++
++++++++++++++++++++++++++++++++++++++++++++++++
 + TIMESTAMP: 0.294047
REINVADE (42674)
  + pid: 42674
  + min_cores: 1
  + max_cores: 512
  + scalability graph: 
1, 1.36329, 1.52423, 1.62017, 1.68565, 1.73398, 1.77154, 1.80182, 1.8269, 1.84812, 1.86637, 1.88229, 1.89634, 1.90885, 1.92009, 1.93026, 1.93952, 1.94799, 1.95579, 1.963, 1.96968, 1.9759, 1.98172, 1.98716, 1.99228, 1.9971, 2.00164, 2.00594, 2.01002, 2.01389, 2.01757, 2.02108, 2.02443, 2.02763, 2.03069, 2.03362, 2.03644, 2.03914, 2.04173, 2.04423, 
Number of clients: 7

+++++++++++++++++++++++++++++++++++++++++++++++++++++++++++
+ Client Mapping:
  > Client 42672 (1):	1 
  > Client 42668 (1):	0 
  > Client 42669 (1):	4 
  > Client 42674 (6):	3 15 16 17 18 19 
  > Client 42671 (1):	5 
  > Client 42673 (5):	2 11 12 13 14 
  > Client 42670 (5):	6 7 8 9 10 

+ Core Mapping:	42668 42672 42673 42674 42669 42671 42670 42670 42670 42670 42670 42673 42673 42673 42673 42674 42674 42674 42674 42674 0 0 0 0 0 0 0 0 0 0 0 0 0 0 0 0 0 0 0 0 
+ Optimal point: 6 6 6 6 6 5 5 
+++++++++++++++++++++++++++++++++++++++++++++++++++++++++++
++++++++++++++++++++++++++++++++++++++++++++++++
 + TIMESTAMP: 0.294237
REINVADE (42668)
  + pid: 42668
  + min_cores: 1
  + max_cores: 512
  + scalability graph: 
1, 1.36329, 1.52423, 1.62017, 1.68565, 1.73398, 1.77154, 1.80182, 1.8269, 1.84812, 1.86637, 1.88229, 1.89634, 1.90885, 1.92009, 1.93026, 1.93952, 1.94799, 1.95579, 1.963, 1.96968, 1.9759, 1.98172, 1.98716, 1.99228, 1.9971, 2.00164, 2.00594, 2.01002, 2.01389, 2.01757, 2.02108, 2.02443, 2.02763, 2.03069, 2.03362, 2.03644, 2.03914, 2.04173, 2.04423, 
Number of clients: 7

+++++++++++++++++++++++++++++++++++++++++++++++++++++++++++
+ Client Mapping:
  > Client 42672 (1):	1 
  > Client 42668 (6):	0 20 21 22 23 24 
  > Client 42669 (1):	4 
  > Client 42674 (6):	3 15 16 17 18 19 
  > Client 42671 (1):	5 
  > Client 42673 (5):	2 11 12 13 14 
  > Client 42670 (5):	6 7 8 9 10 

+ Core Mapping:	42668 42672 42673 42674 42669 42671 42670 42670 42670 42670 42670 42673 42673 42673 42673 42674 42674 42674 42674 42674 42668 42668 42668 42668 42668 0 0 0 0 0 0 0 0 0 0 0 0 0 0 0 
+ Optimal point: 6 6 6 6 6 5 5 
+++++++++++++++++++++++++++++++++++++++++++++++++++++++++++
++++++++++++++++++++++++++++++++++++++++++++++++
 + TIMESTAMP: 0.294689
REINVADE (42669)
  + pid: 42669
  + min_cores: 1
  + max_cores: 512
  + scalability graph: 
1, 1.36329, 1.52423, 1.62017, 1.68565, 1.73398, 1.77154, 1.80182, 1.8269, 1.84812, 1.86637, 1.88229, 1.89634, 1.90885, 1.92009, 1.93026, 1.93952, 1.94799, 1.95579, 1.963, 1.96968, 1.9759, 1.98172, 1.98716, 1.99228, 1.9971, 2.00164, 2.00594, 2.01002, 2.01389, 2.01757, 2.02108, 2.02443, 2.02763, 2.03069, 2.03362, 2.03644, 2.03914, 2.04173, 2.04423, 
Number of clients: 7

+++++++++++++++++++++++++++++++++++++++++++++++++++++++++++
+ Client Mapping:
  > Client 42672 (1):	1 
  > Client 42668 (6):	0 20 21 22 23 24 
  > Client 42669 (6):	4 25 26 27 28 29 
  > Client 42674 (6):	3 15 16 17 18 19 
  > Client 42671 (1):	5 
  > Client 42673 (5):	2 11 12 13 14 
  > Client 42670 (5):	6 7 8 9 10 

+ Core Mapping:	42668 42672 42673 42674 42669 42671 42670 42670 42670 42670 42670 42673 42673 42673 42673 42674 42674 42674 42674 42674 42668 42668 42668 42668 42668 42669 42669 42669 42669 42669 0 0 0 0 0 0 0 0 0 0 
+ Optimal point: 6 6 6 6 6 5 5 
+++++++++++++++++++++++++++++++++++++++++++++++++++++++++++
++++++++++++++++++++++++++++++++++++++++++++++++
 + TIMESTAMP: 0.295987
REINVADE (42672)
  + pid: 42672
  + min_cores: 1
  + max_cores: 512
  + scalability graph: 
1, 1.36329, 1.52423, 1.62017, 1.68565, 1.73398, 1.77154, 1.80182, 1.8269, 1.84812, 1.86637, 1.88229, 1.89634, 1.90885, 1.92009, 1.93026, 1.93952, 1.94799, 1.95579, 1.963, 1.96968, 1.9759, 1.98172, 1.98716, 1.99228, 1.9971, 2.00164, 2.00594, 2.01002, 2.01389, 2.01757, 2.02108, 2.02443, 2.02763, 2.03069, 2.03362, 2.03644, 2.03914, 2.04173, 2.04423, 
Number of clients: 7

+++++++++++++++++++++++++++++++++++++++++++++++++++++++++++
+ Client Mapping:
  > Client 42672 (6):	1 30 31 32 33 34 
  > Client 42668 (6):	0 20 21 22 23 24 
  > Client 42669 (6):	4 25 26 27 28 29 
  > Client 42674 (6):	3 15 16 17 18 19 
  > Client 42671 (1):	5 
  > Client 42673 (5):	2 11 12 13 14 
  > Client 42670 (5):	6 7 8 9 10 

+ Core Mapping:	42668 42672 42673 42674 42669 42671 42670 42670 42670 42670 42670 42673 42673 42673 42673 42674 42674 42674 42674 42674 42668 42668 42668 42668 42668 42669 42669 42669 42669 42669 42672 42672 42672 42672 42672 0 0 0 0 0 
+ Optimal point: 6 6 6 6 6 5 5 
+++++++++++++++++++++++++++++++++++++++++++++++++++++++++++
++++++++++++++++++++++++++++++++++++++++++++++++
 + TIMESTAMP: 0.297619
REINVADE (42671)
  + pid: 42671
  + min_cores: 1
  + max_cores: 512
  + scalability graph: 
1, 1.36329, 1.52423, 1.62017, 1.68565, 1.73398, 1.77154, 1.80182, 1.8269, 1.84812, 1.86637, 1.88229, 1.89634, 1.90885, 1.92009, 1.93026, 1.93952, 1.94799, 1.95579, 1.963, 1.96968, 1.9759, 1.98172, 1.98716, 1.99228, 1.9971, 2.00164, 2.00594, 2.01002, 2.01389, 2.01757, 2.02108, 2.02443, 2.02763, 2.03069, 2.03362, 2.03644, 2.03914, 2.04173, 2.04423, 
Number of clients: 7

+++++++++++++++++++++++++++++++++++++++++++++++++++++++++++
+ Client Mapping:
  > Client 42672 (6):	1 30 31 32 33 34 
  > Client 42668 (6):	0 20 21 22 23 24 
  > Client 42669 (6):	4 25 26 27 28 29 
  > Client 42674 (6):	3 15 16 17 18 19 
  > Client 42671 (6):	5 35 36 37 38 39 
  > Client 42673 (5):	2 11 12 13 14 
  > Client 42670 (5):	6 7 8 9 10 

+ Core Mapping:	42668 42672 42673 42674 42669 42671 42670 42670 42670 42670 42670 42673 42673 42673 42673 42674 42674 42674 42674 42674 42668 42668 42668 42668 42668 42669 42669 42669 42669 42669 42672 42672 42672 42672 42672 42671 42671 42671 42671 42671 
+ Optimal point: 6 6 6 6 6 5 5 
+++++++++++++++++++++++++++++++++++++++++++++++++++++++++++
CLIENT SHUTDOWN: client 42668
 + TIMESTAMP: 28.0919
+++++++++++++++++++++++++++++++++++++++++++++++++++++++++++
+ Client Mapping:
  > Client 42672 (6):	1 30 31 32 33 34 
  > Client 42668 (0):	
  > Client 42669 (6):	4 25 26 27 28 29 
  > Client 42674 (6):	3 15 16 17 18 19 
  > Client 42671 (6):	5 35 36 37 38 39 
  > Client 42673 (5):	2 11 12 13 14 
  > Client 42670 (5):	6 7 8 9 10 

+ Core Mapping:	0 42672 42673 42674 42669 42671 42670 42670 42670 42670 42670 42673 42673 42673 42673 42674 42674 42674 42674 42674 0 0 0 0 0 42669 42669 42669 42669 42669 42672 42672 42672 42672 42672 42671 42671 42671 42671 42671 
+ Optimal point: 6 6 6 6 6 5 5 
+++++++++++++++++++++++++++++++++++++++++++++++++++++++++++
client (42668) shutdown hint: 437.984
sum_client_shutdown_hint: 437.984
++++++++++++++++++++++++++++++++++++++++++++++++
 + TIMESTAMP: 28.0921
REINVADE (42669)
  + pid: 42669
  + min_cores: 1
  + max_cores: 512
  + scalability graph: 
1, 1.36329, 1.52423, 1.62017, 1.68565, 1.73398, 1.77154, 1.80182, 1.8269, 1.84812, 1.86637, 1.88229, 1.89634, 1.90885, 1.92009, 1.93026, 1.93952, 1.94799, 1.95579, 1.963, 1.96968, 1.9759, 1.98172, 1.98716, 1.99228, 1.9971, 2.00164, 2.00594, 2.01002, 2.01389, 2.01757, 2.02108, 2.02443, 2.02763, 2.03069, 2.03362, 2.03644, 2.03914, 2.04173, 2.04423, 
Number of clients: 6

+++++++++++++++++++++++++++++++++++++++++++++++++++++++++++
+ Client Mapping:
  > Client 42672 (6):	1 30 31 32 33 34 
  > Client 42669 (7):	4 25 26 27 28 29 0 
  > Client 42674 (6):	3 15 16 17 18 19 
  > Client 42671 (6):	5 35 36 37 38 39 
  > Client 42673 (5):	2 11 12 13 14 
  > Client 42670 (5):	6 7 8 9 10 

+ Core Mapping:	42669 42672 42673 42674 42669 42671 42670 42670 42670 42670 42670 42673 42673 42673 42673 42674 42674 42674 42674 42674 0 0 0 0 0 42669 42669 42669 42669 42669 42672 42672 42672 42672 42672 42671 42671 42671 42671 42671 
+ Optimal point: 7 7 7 7 6 6 
+++++++++++++++++++++++++++++++++++++++++++++++++++++++++++
++++++++++++++++++++++++++++++++++++++++++++++++
 + TIMESTAMP: 28.0922
REINVADE (42672)
  + pid: 42672
  + min_cores: 1
  + max_cores: 512
  + scalability graph: 
1, 1.36329, 1.52423, 1.62017, 1.68565, 1.73398, 1.77154, 1.80182, 1.8269, 1.84812, 1.86637, 1.88229, 1.89634, 1.90885, 1.92009, 1.93026, 1.93952, 1.94799, 1.95579, 1.963, 1.96968, 1.9759, 1.98172, 1.98716, 1.99228, 1.9971, 2.00164, 2.00594, 2.01002, 2.01389, 2.01757, 2.02108, 2.02443, 2.02763, 2.03069, 2.03362, 2.03644, 2.03914, 2.04173, 2.04423, 
Number of clients: 6

+++++++++++++++++++++++++++++++++++++++++++++++++++++++++++
+ Client Mapping:
  > Client 42672 (7):	1 30 31 32 33 34 20 
  > Client 42669 (7):	4 25 26 27 28 29 0 
  > Client 42674 (6):	3 15 16 17 18 19 
  > Client 42671 (6):	5 35 36 37 38 39 
  > Client 42673 (5):	2 11 12 13 14 
  > Client 42670 (5):	6 7 8 9 10 

+ Core Mapping:	42669 42672 42673 42674 42669 42671 42670 42670 42670 42670 42670 42673 42673 42673 42673 42674 42674 42674 42674 42674 42672 0 0 0 0 42669 42669 42669 42669 42669 42672 42672 42672 42672 42672 42671 42671 42671 42671 42671 
+ Optimal point: 7 7 7 7 6 6 
+++++++++++++++++++++++++++++++++++++++++++++++++++++++++++
++++++++++++++++++++++++++++++++++++++++++++++++
 + TIMESTAMP: 28.0927
REINVADE (42671)
  + pid: 42671
  + min_cores: 1
  + max_cores: 512
  + scalability graph: 
1, 1.36329, 1.52423, 1.62017, 1.68565, 1.73398, 1.77154, 1.80182, 1.8269, 1.84812, 1.86637, 1.88229, 1.89634, 1.90885, 1.92009, 1.93026, 1.93952, 1.94799, 1.95579, 1.963, 1.96968, 1.9759, 1.98172, 1.98716, 1.99228, 1.9971, 2.00164, 2.00594, 2.01002, 2.01389, 2.01757, 2.02108, 2.02443, 2.02763, 2.03069, 2.03362, 2.03644, 2.03914, 2.04173, 2.04423, 
Number of clients: 6

+++++++++++++++++++++++++++++++++++++++++++++++++++++++++++
+ Client Mapping:
  > Client 42672 (7):	1 30 31 32 33 34 20 
  > Client 42669 (7):	4 25 26 27 28 29 0 
  > Client 42674 (6):	3 15 16 17 18 19 
  > Client 42671 (7):	5 35 36 37 38 39 21 
  > Client 42673 (5):	2 11 12 13 14 
  > Client 42670 (5):	6 7 8 9 10 

+ Core Mapping:	42669 42672 42673 42674 42669 42671 42670 42670 42670 42670 42670 42673 42673 42673 42673 42674 42674 42674 42674 42674 42672 42671 0 0 0 42669 42669 42669 42669 42669 42672 42672 42672 42672 42672 42671 42671 42671 42671 42671 
+ Optimal point: 7 7 7 7 6 6 
+++++++++++++++++++++++++++++++++++++++++++++++++++++++++++
++++++++++++++++++++++++++++++++++++++++++++++++
 + TIMESTAMP: 28.0929
REINVADE (42674)
  + pid: 42674
  + min_cores: 1
  + max_cores: 512
  + scalability graph: 
1, 1.36329, 1.52423, 1.62017, 1.68565, 1.73398, 1.77154, 1.80182, 1.8269, 1.84812, 1.86637, 1.88229, 1.89634, 1.90885, 1.92009, 1.93026, 1.93952, 1.94799, 1.95579, 1.963, 1.96968, 1.9759, 1.98172, 1.98716, 1.99228, 1.9971, 2.00164, 2.00594, 2.01002, 2.01389, 2.01757, 2.02108, 2.02443, 2.02763, 2.03069, 2.03362, 2.03644, 2.03914, 2.04173, 2.04423, 
Number of clients: 6

+++++++++++++++++++++++++++++++++++++++++++++++++++++++++++
+ Client Mapping:
  > Client 42672 (7):	1 30 31 32 33 34 20 
  > Client 42669 (7):	4 25 26 27 28 29 0 
  > Client 42674 (7):	3 15 16 17 18 19 22 
  > Client 42671 (7):	5 35 36 37 38 39 21 
  > Client 42673 (5):	2 11 12 13 14 
  > Client 42670 (5):	6 7 8 9 10 

+ Core Mapping:	42669 42672 42673 42674 42669 42671 42670 42670 42670 42670 42670 42673 42673 42673 42673 42674 42674 42674 42674 42674 42672 42671 42674 0 0 42669 42669 42669 42669 42669 42672 42672 42672 42672 42672 42671 42671 42671 42671 42671 
+ Optimal point: 7 7 7 7 6 6 
+++++++++++++++++++++++++++++++++++++++++++++++++++++++++++
++++++++++++++++++++++++++++++++++++++++++++++++
 + TIMESTAMP: 28.0947
REINVADE (42673)
  + pid: 42673
  + min_cores: 1
  + max_cores: 512
  + scalability graph: 
1, 1.36329, 1.52423, 1.62017, 1.68565, 1.73398, 1.77154, 1.80182, 1.8269, 1.84812, 1.86637, 1.88229, 1.89634, 1.90885, 1.92009, 1.93026, 1.93952, 1.94799, 1.95579, 1.963, 1.96968, 1.9759, 1.98172, 1.98716, 1.99228, 1.9971, 2.00164, 2.00594, 2.01002, 2.01389, 2.01757, 2.02108, 2.02443, 2.02763, 2.03069, 2.03362, 2.03644, 2.03914, 2.04173, 2.04423, 
Number of clients: 6

+++++++++++++++++++++++++++++++++++++++++++++++++++++++++++
+ Client Mapping:
  > Client 42672 (7):	1 30 31 32 33 34 20 
  > Client 42669 (7):	4 25 26 27 28 29 0 
  > Client 42674 (7):	3 15 16 17 18 19 22 
  > Client 42671 (7):	5 35 36 37 38 39 21 
  > Client 42673 (6):	2 11 12 13 14 23 
  > Client 42670 (5):	6 7 8 9 10 

+ Core Mapping:	42669 42672 42673 42674 42669 42671 42670 42670 42670 42670 42670 42673 42673 42673 42673 42674 42674 42674 42674 42674 42672 42671 42674 42673 0 42669 42669 42669 42669 42669 42672 42672 42672 42672 42672 42671 42671 42671 42671 42671 
+ Optimal point: 7 7 7 7 6 6 
+++++++++++++++++++++++++++++++++++++++++++++++++++++++++++
++++++++++++++++++++++++++++++++++++++++++++++++
 + TIMESTAMP: 28.0976
REINVADE (42670)
  + pid: 42670
  + min_cores: 1
  + max_cores: 512
  + scalability graph: 
1, 1.36329, 1.52423, 1.62017, 1.68565, 1.73398, 1.77154, 1.80182, 1.8269, 1.84812, 1.86637, 1.88229, 1.89634, 1.90885, 1.92009, 1.93026, 1.93952, 1.94799, 1.95579, 1.963, 1.96968, 1.9759, 1.98172, 1.98716, 1.99228, 1.9971, 2.00164, 2.00594, 2.01002, 2.01389, 2.01757, 2.02108, 2.02443, 2.02763, 2.03069, 2.03362, 2.03644, 2.03914, 2.04173, 2.04423, 
Number of clients: 6

+++++++++++++++++++++++++++++++++++++++++++++++++++++++++++
+ Client Mapping:
  > Client 42672 (7):	1 30 31 32 33 34 20 
  > Client 42669 (7):	4 25 26 27 28 29 0 
  > Client 42674 (7):	3 15 16 17 18 19 22 
  > Client 42671 (7):	5 35 36 37 38 39 21 
  > Client 42673 (6):	2 11 12 13 14 23 
  > Client 42670 (6):	6 7 8 9 10 24 

+ Core Mapping:	42669 42672 42673 42674 42669 42671 42670 42670 42670 42670 42670 42673 42673 42673 42673 42674 42674 42674 42674 42674 42672 42671 42674 42673 42670 42669 42669 42669 42669 42669 42672 42672 42672 42672 42672 42671 42671 42671 42671 42671 
+ Optimal point: 7 7 7 7 6 6 
+++++++++++++++++++++++++++++++++++++++++++++++++++++++++++
CLIENT SHUTDOWN: client 42674
 + TIMESTAMP: 28.1827
+++++++++++++++++++++++++++++++++++++++++++++++++++++++++++
+ Client Mapping:
  > Client 42672 (7):	1 30 31 32 33 34 20 
  > Client 42669 (7):	4 25 26 27 28 29 0 
  > Client 42674 (0):	
  > Client 42671 (7):	5 35 36 37 38 39 21 
  > Client 42673 (6):	2 11 12 13 14 23 
  > Client 42670 (6):	6 7 8 9 10 24 

+ Core Mapping:	42669 42672 42673 0 42669 42671 42670 42670 42670 42670 42670 42673 42673 42673 42673 0 0 0 0 0 42672 42671 0 42673 42670 42669 42669 42669 42669 42669 42672 42672 42672 42672 42672 42671 42671 42671 42671 42671 
+ Optimal point: 7 7 7 7 6 6 
+++++++++++++++++++++++++++++++++++++++++++++++++++++++++++
client (42674) shutdown hint: 437.984
sum_client_shutdown_hint: 875.968
++++++++++++++++++++++++++++++++++++++++++++++++
 + TIMESTAMP: 28.1831
REINVADE (42672)
  + pid: 42672
  + min_cores: 1
  + max_cores: 512
  + scalability graph: 
1, 1.36329, 1.52423, 1.62017, 1.68565, 1.73398, 1.77154, 1.80182, 1.8269, 1.84812, 1.86637, 1.88229, 1.89634, 1.90885, 1.92009, 1.93026, 1.93952, 1.94799, 1.95579, 1.963, 1.96968, 1.9759, 1.98172, 1.98716, 1.99228, 1.9971, 2.00164, 2.00594, 2.01002, 2.01389, 2.01757, 2.02108, 2.02443, 2.02763, 2.03069, 2.03362, 2.03644, 2.03914, 2.04173, 2.04423, 
Number of clients: 5

+++++++++++++++++++++++++++++++++++++++++++++++++++++++++++
+ Client Mapping:
  > Client 42672 (8):	1 30 31 32 33 34 20 3 
  > Client 42669 (7):	4 25 26 27 28 29 0 
  > Client 42671 (7):	5 35 36 37 38 39 21 
  > Client 42673 (6):	2 11 12 13 14 23 
  > Client 42670 (6):	6 7 8 9 10 24 

+ Core Mapping:	42669 42672 42673 42672 42669 42671 42670 42670 42670 42670 42670 42673 42673 42673 42673 0 0 0 0 0 42672 42671 0 42673 42670 42669 42669 42669 42669 42669 42672 42672 42672 42672 42672 42671 42671 42671 42671 42671 
+ Optimal point: 8 8 8 8 8 
+++++++++++++++++++++++++++++++++++++++++++++++++++++++++++
++++++++++++++++++++++++++++++++++++++++++++++++
 + TIMESTAMP: 28.1832
REINVADE (42669)
  + pid: 42669
  + min_cores: 1
  + max_cores: 512
  + scalability graph: 
1, 1.36329, 1.52423, 1.62017, 1.68565, 1.73398, 1.77154, 1.80182, 1.8269, 1.84812, 1.86637, 1.88229, 1.89634, 1.90885, 1.92009, 1.93026, 1.93952, 1.94799, 1.95579, 1.963, 1.96968, 1.9759, 1.98172, 1.98716, 1.99228, 1.9971, 2.00164, 2.00594, 2.01002, 2.01389, 2.01757, 2.02108, 2.02443, 2.02763, 2.03069, 2.03362, 2.03644, 2.03914, 2.04173, 2.04423, 
Number of clients: 5

+++++++++++++++++++++++++++++++++++++++++++++++++++++++++++
+ Client Mapping:
  > Client 42672 (8):	1 30 31 32 33 34 20 3 
  > Client 42669 (8):	4 25 26 27 28 29 0 15 
  > Client 42671 (7):	5 35 36 37 38 39 21 
  > Client 42673 (6):	2 11 12 13 14 23 
  > Client 42670 (6):	6 7 8 9 10 24 

+ Core Mapping:	42669 42672 42673 42672 42669 42671 42670 42670 42670 42670 42670 42673 42673 42673 42673 42669 0 0 0 0 42672 42671 0 42673 42670 42669 42669 42669 42669 42669 42672 42672 42672 42672 42672 42671 42671 42671 42671 42671 
+ Optimal point: 8 8 8 8 8 
+++++++++++++++++++++++++++++++++++++++++++++++++++++++++++
++++++++++++++++++++++++++++++++++++++++++++++++
 + TIMESTAMP: 28.1833
REINVADE (42671)
  + pid: 42671
  + min_cores: 1
  + max_cores: 512
  + scalability graph: 
1, 1.36329, 1.52423, 1.62017, 1.68565, 1.73398, 1.77154, 1.80182, 1.8269, 1.84812, 1.86637, 1.88229, 1.89634, 1.90885, 1.92009, 1.93026, 1.93952, 1.94799, 1.95579, 1.963, 1.96968, 1.9759, 1.98172, 1.98716, 1.99228, 1.9971, 2.00164, 2.00594, 2.01002, 2.01389, 2.01757, 2.02108, 2.02443, 2.02763, 2.03069, 2.03362, 2.03644, 2.03914, 2.04173, 2.04423, 
Number of clients: 5

+++++++++++++++++++++++++++++++++++++++++++++++++++++++++++
+ Client Mapping:
  > Client 42672 (8):	1 30 31 32 33 34 20 3 
  > Client 42669 (8):	4 25 26 27 28 29 0 15 
  > Client 42671 (8):	5 35 36 37 38 39 21 16 
  > Client 42673 (6):	2 11 12 13 14 23 
  > Client 42670 (6):	6 7 8 9 10 24 

+ Core Mapping:	42669 42672 42673 42672 42669 42671 42670 42670 42670 42670 42670 42673 42673 42673 42673 42669 42671 0 0 0 42672 42671 0 42673 42670 42669 42669 42669 42669 42669 42672 42672 42672 42672 42672 42671 42671 42671 42671 42671 
+ Optimal point: 8 8 8 8 8 
+++++++++++++++++++++++++++++++++++++++++++++++++++++++++++
++++++++++++++++++++++++++++++++++++++++++++++++
 + TIMESTAMP: 28.1844
REINVADE (42673)
  + pid: 42673
  + min_cores: 1
  + max_cores: 512
  + scalability graph: 
1, 1.36329, 1.52423, 1.62017, 1.68565, 1.73398, 1.77154, 1.80182, 1.8269, 1.84812, 1.86637, 1.88229, 1.89634, 1.90885, 1.92009, 1.93026, 1.93952, 1.94799, 1.95579, 1.963, 1.96968, 1.9759, 1.98172, 1.98716, 1.99228, 1.9971, 2.00164, 2.00594, 2.01002, 2.01389, 2.01757, 2.02108, 2.02443, 2.02763, 2.03069, 2.03362, 2.03644, 2.03914, 2.04173, 2.04423, 
Number of clients: 5

+++++++++++++++++++++++++++++++++++++++++++++++++++++++++++
+ Client Mapping:
  > Client 42672 (8):	1 30 31 32 33 34 20 3 
  > Client 42669 (8):	4 25 26 27 28 29 0 15 
  > Client 42671 (8):	5 35 36 37 38 39 21 16 
  > Client 42673 (8):	2 11 12 13 14 23 17 18 
  > Client 42670 (6):	6 7 8 9 10 24 

+ Core Mapping:	42669 42672 42673 42672 42669 42671 42670 42670 42670 42670 42670 42673 42673 42673 42673 42669 42671 42673 42673 0 42672 42671 0 42673 42670 42669 42669 42669 42669 42669 42672 42672 42672 42672 42672 42671 42671 42671 42671 42671 
+ Optimal point: 8 8 8 8 8 
+++++++++++++++++++++++++++++++++++++++++++++++++++++++++++
++++++++++++++++++++++++++++++++++++++++++++++++
 + TIMESTAMP: 28.1858
REINVADE (42670)
  + pid: 42670
  + min_cores: 1
  + max_cores: 512
  + scalability graph: 
1, 1.36329, 1.52423, 1.62017, 1.68565, 1.73398, 1.77154, 1.80182, 1.8269, 1.84812, 1.86637, 1.88229, 1.89634, 1.90885, 1.92009, 1.93026, 1.93952, 1.94799, 1.95579, 1.963, 1.96968, 1.9759, 1.98172, 1.98716, 1.99228, 1.9971, 2.00164, 2.00594, 2.01002, 2.01389, 2.01757, 2.02108, 2.02443, 2.02763, 2.03069, 2.03362, 2.03644, 2.03914, 2.04173, 2.04423, 
Number of clients: 5

+++++++++++++++++++++++++++++++++++++++++++++++++++++++++++
+ Client Mapping:
  > Client 42672 (8):	1 30 31 32 33 34 20 3 
  > Client 42669 (8):	4 25 26 27 28 29 0 15 
  > Client 42671 (8):	5 35 36 37 38 39 21 16 
  > Client 42673 (8):	2 11 12 13 14 23 17 18 
  > Client 42670 (8):	6 7 8 9 10 24 19 22 

+ Core Mapping:	42669 42672 42673 42672 42669 42671 42670 42670 42670 42670 42670 42673 42673 42673 42673 42669 42671 42673 42673 42670 42672 42671 42670 42673 42670 42669 42669 42669 42669 42669 42672 42672 42672 42672 42672 42671 42671 42671 42671 42671 
+ Optimal point: 8 8 8 8 8 
+++++++++++++++++++++++++++++++++++++++++++++++++++++++++++
CLIENT SHUTDOWN: client 42671
 + TIMESTAMP: 28.3732
+++++++++++++++++++++++++++++++++++++++++++++++++++++++++++
+ Client Mapping:
  > Client 42672 (8):	1 30 31 32 33 34 20 3 
  > Client 42669 (8):	4 25 26 27 28 29 0 15 
  > Client 42671 (0):	
  > Client 42673 (8):	2 11 12 13 14 23 17 18 
  > Client 42670 (8):	6 7 8 9 10 24 19 22 

+ Core Mapping:	42669 42672 42673 42672 42669 0 42670 42670 42670 42670 42670 42673 42673 42673 42673 42669 0 42673 42673 42670 42672 0 42670 42673 42670 42669 42669 42669 42669 42669 42672 42672 42672 42672 42672 0 0 0 0 0 
+ Optimal point: 8 8 8 8 8 
+++++++++++++++++++++++++++++++++++++++++++++++++++++++++++
client (42671) shutdown hint: 437.984
sum_client_shutdown_hint: 1313.95
++++++++++++++++++++++++++++++++++++++++++++++++
 + TIMESTAMP: 28.3736
REINVADE (42669)
  + pid: 42669
  + min_cores: 1
  + max_cores: 512
  + scalability graph: 
1, 1.36329, 1.52423, 1.62017, 1.68565, 1.73398, 1.77154, 1.80182, 1.8269, 1.84812, 1.86637, 1.88229, 1.89634, 1.90885, 1.92009, 1.93026, 1.93952, 1.94799, 1.95579, 1.963, 1.96968, 1.9759, 1.98172, 1.98716, 1.99228, 1.9971, 2.00164, 2.00594, 2.01002, 2.01389, 2.01757, 2.02108, 2.02443, 2.02763, 2.03069, 2.03362, 2.03644, 2.03914, 2.04173, 2.04423, 
Number of clients: 4

+++++++++++++++++++++++++++++++++++++++++++++++++++++++++++
+ Client Mapping:
  > Client 42672 (8):	1 30 31 32 33 34 20 3 
  > Client 42669 (10):	4 25 26 27 28 29 0 15 5 16 
  > Client 42673 (8):	2 11 12 13 14 23 17 18 
  > Client 42670 (8):	6 7 8 9 10 24 19 22 

+ Core Mapping:	42669 42672 42673 42672 42669 42669 42670 42670 42670 42670 42670 42673 42673 42673 42673 42669 42669 42673 42673 42670 42672 0 42670 42673 42670 42669 42669 42669 42669 42669 42672 42672 42672 42672 42672 0 0 0 0 0 
+ Optimal point: 10 10 10 10 
+++++++++++++++++++++++++++++++++++++++++++++++++++++++++++
++++++++++++++++++++++++++++++++++++++++++++++++
 + TIMESTAMP: 28.374
REINVADE (42673)
  + pid: 42673
  + min_cores: 1
  + max_cores: 512
  + scalability graph: 
1, 1.36329, 1.52423, 1.62017, 1.68565, 1.73398, 1.77154, 1.80182, 1.8269, 1.84812, 1.86637, 1.88229, 1.89634, 1.90885, 1.92009, 1.93026, 1.93952, 1.94799, 1.95579, 1.963, 1.96968, 1.9759, 1.98172, 1.98716, 1.99228, 1.9971, 2.00164, 2.00594, 2.01002, 2.01389, 2.01757, 2.02108, 2.02443, 2.02763, 2.03069, 2.03362, 2.03644, 2.03914, 2.04173, 2.04423, 
Number of clients: 4

+++++++++++++++++++++++++++++++++++++++++++++++++++++++++++
+ Client Mapping:
  > Client 42672 (8):	1 30 31 32 33 34 20 3 
  > Client 42669 (10):	4 25 26 27 28 29 0 15 5 16 
  > Client 42673 (10):	2 11 12 13 14 23 17 18 21 35 
  > Client 42670 (8):	6 7 8 9 10 24 19 22 

+ Core Mapping:	42669 42672 42673 42672 42669 42669 42670 42670 42670 42670 42670 42673 42673 42673 42673 42669 42669 42673 42673 42670 42672 42673 42670 42673 42670 42669 42669 42669 42669 42669 42672 42672 42672 42672 42672 42673 0 0 0 0 
+ Optimal point: 10 10 10 10 
+++++++++++++++++++++++++++++++++++++++++++++++++++++++++++
++++++++++++++++++++++++++++++++++++++++++++++++
 + TIMESTAMP: 28.3741
REINVADE (42672)
  + pid: 42672
  + min_cores: 1
  + max_cores: 512
  + scalability graph: 
1, 1.36329, 1.52423, 1.62017, 1.68565, 1.73398, 1.77154, 1.80182, 1.8269, 1.84812, 1.86637, 1.88229, 1.89634, 1.90885, 1.92009, 1.93026, 1.93952, 1.94799, 1.95579, 1.963, 1.96968, 1.9759, 1.98172, 1.98716, 1.99228, 1.9971, 2.00164, 2.00594, 2.01002, 2.01389, 2.01757, 2.02108, 2.02443, 2.02763, 2.03069, 2.03362, 2.03644, 2.03914, 2.04173, 2.04423, 
Number of clients: 4

+++++++++++++++++++++++++++++++++++++++++++++++++++++++++++
+ Client Mapping:
  > Client 42672 (10):	1 30 31 32 33 34 20 3 36 37 
  > Client 42669 (10):	4 25 26 27 28 29 0 15 5 16 
  > Client 42673 (10):	2 11 12 13 14 23 17 18 21 35 
  > Client 42670 (8):	6 7 8 9 10 24 19 22 

+ Core Mapping:	42669 42672 42673 42672 42669 42669 42670 42670 42670 42670 42670 42673 42673 42673 42673 42669 42669 42673 42673 42670 42672 42673 42670 42673 42670 42669 42669 42669 42669 42669 42672 42672 42672 42672 42672 42673 42672 42672 0 0 
+ Optimal point: 10 10 10 10 
+++++++++++++++++++++++++++++++++++++++++++++++++++++++++++
++++++++++++++++++++++++++++++++++++++++++++++++
 + TIMESTAMP: 28.3758
REINVADE (42670)
  + pid: 42670
  + min_cores: 1
  + max_cores: 512
  + scalability graph: 
1, 1.36329, 1.52423, 1.62017, 1.68565, 1.73398, 1.77154, 1.80182, 1.8269, 1.84812, 1.86637, 1.88229, 1.89634, 1.90885, 1.92009, 1.93026, 1.93952, 1.94799, 1.95579, 1.963, 1.96968, 1.9759, 1.98172, 1.98716, 1.99228, 1.9971, 2.00164, 2.00594, 2.01002, 2.01389, 2.01757, 2.02108, 2.02443, 2.02763, 2.03069, 2.03362, 2.03644, 2.03914, 2.04173, 2.04423, 
Number of clients: 4

+++++++++++++++++++++++++++++++++++++++++++++++++++++++++++
+ Client Mapping:
  > Client 42672 (10):	1 30 31 32 33 34 20 3 36 37 
  > Client 42669 (10):	4 25 26 27 28 29 0 15 5 16 
  > Client 42673 (10):	2 11 12 13 14 23 17 18 21 35 
  > Client 42670 (10):	6 7 8 9 10 24 19 22 38 39 

+ Core Mapping:	42669 42672 42673 42672 42669 42669 42670 42670 42670 42670 42670 42673 42673 42673 42673 42669 42669 42673 42673 42670 42672 42673 42670 42673 42670 42669 42669 42669 42669 42669 42672 42672 42672 42672 42672 42673 42672 42672 42670 42670 
+ Optimal point: 10 10 10 10 
+++++++++++++++++++++++++++++++++++++++++++++++++++++++++++
CLIENT SHUTDOWN: client 42672
 + TIMESTAMP: 28.394
+++++++++++++++++++++++++++++++++++++++++++++++++++++++++++
+ Client Mapping:
  > Client 42672 (0):	
  > Client 42669 (10):	4 25 26 27 28 29 0 15 5 16 
  > Client 42673 (10):	2 11 12 13 14 23 17 18 21 35 
  > Client 42670 (10):	6 7 8 9 10 24 19 22 38 39 

+ Core Mapping:	42669 0 42673 0 42669 42669 42670 42670 42670 42670 42670 42673 42673 42673 42673 42669 42669 42673 42673 42670 0 42673 42670 42673 42670 42669 42669 42669 42669 42669 0 0 0 0 0 42673 0 0 42670 42670 
+ Optimal point: 10 10 10 10 
+++++++++++++++++++++++++++++++++++++++++++++++++++++++++++
client (42672) shutdown hint: 437.984
sum_client_shutdown_hint: 1751.94
++++++++++++++++++++++++++++++++++++++++++++++++
 + TIMESTAMP: 28.3941
REINVADE (42669)
  + pid: 42669
  + min_cores: 1
  + max_cores: 512
  + scalability graph: 
1, 1.36329, 1.52423, 1.62017, 1.68565, 1.73398, 1.77154, 1.80182, 1.8269, 1.84812, 1.86637, 1.88229, 1.89634, 1.90885, 1.92009, 1.93026, 1.93952, 1.94799, 1.95579, 1.963, 1.96968, 1.9759, 1.98172, 1.98716, 1.99228, 1.9971, 2.00164, 2.00594, 2.01002, 2.01389, 2.01757, 2.02108, 2.02443, 2.02763, 2.03069, 2.03362, 2.03644, 2.03914, 2.04173, 2.04423, 
Number of clients: 3

+++++++++++++++++++++++++++++++++++++++++++++++++++++++++++
+ Client Mapping:
  > Client 42669 (14):	4 25 26 27 28 29 0 15 5 16 1 3 20 30 
  > Client 42673 (10):	2 11 12 13 14 23 17 18 21 35 
  > Client 42670 (10):	6 7 8 9 10 24 19 22 38 39 

+ Core Mapping:	42669 42669 42673 42669 42669 42669 42670 42670 42670 42670 42670 42673 42673 42673 42673 42669 42669 42673 42673 42670 42669 42673 42670 42673 42670 42669 42669 42669 42669 42669 42669 0 0 0 0 42673 0 0 42670 42670 
+ Optimal point: 14 13 13 
+++++++++++++++++++++++++++++++++++++++++++++++++++++++++++
++++++++++++++++++++++++++++++++++++++++++++++++
 + TIMESTAMP: 28.3956
REINVADE (42673)
  + pid: 42673
  + min_cores: 1
  + max_cores: 512
  + scalability graph: 
1, 1.36329, 1.52423, 1.62017, 1.68565, 1.73398, 1.77154, 1.80182, 1.8269, 1.84812, 1.86637, 1.88229, 1.89634, 1.90885, 1.92009, 1.93026, 1.93952, 1.94799, 1.95579, 1.963, 1.96968, 1.9759, 1.98172, 1.98716, 1.99228, 1.9971, 2.00164, 2.00594, 2.01002, 2.01389, 2.01757, 2.02108, 2.02443, 2.02763, 2.03069, 2.03362, 2.03644, 2.03914, 2.04173, 2.04423, 
Number of clients: 3

+++++++++++++++++++++++++++++++++++++++++++++++++++++++++++
+ Client Mapping:
  > Client 42669 (14):	4 25 26 27 28 29 0 15 5 16 1 3 20 30 
  > Client 42673 (13):	2 11 12 13 14 23 17 18 21 35 31 32 33 
  > Client 42670 (10):	6 7 8 9 10 24 19 22 38 39 

+ Core Mapping:	42669 42669 42673 42669 42669 42669 42670 42670 42670 42670 42670 42673 42673 42673 42673 42669 42669 42673 42673 42670 42669 42673 42670 42673 42670 42669 42669 42669 42669 42669 42669 42673 42673 42673 0 42673 0 0 42670 42670 
+ Optimal point: 14 13 13 
+++++++++++++++++++++++++++++++++++++++++++++++++++++++++++
++++++++++++++++++++++++++++++++++++++++++++++++
 + TIMESTAMP: 28.3973
REINVADE (42670)
  + pid: 42670
  + min_cores: 1
  + max_cores: 512
  + scalability graph: 
1, 1.36329, 1.52423, 1.62017, 1.68565, 1.73398, 1.77154, 1.80182, 1.8269, 1.84812, 1.86637, 1.88229, 1.89634, 1.90885, 1.92009, 1.93026, 1.93952, 1.94799, 1.95579, 1.963, 1.96968, 1.9759, 1.98172, 1.98716, 1.99228, 1.9971, 2.00164, 2.00594, 2.01002, 2.01389, 2.01757, 2.02108, 2.02443, 2.02763, 2.03069, 2.03362, 2.03644, 2.03914, 2.04173, 2.04423, 
Number of clients: 3

+++++++++++++++++++++++++++++++++++++++++++++++++++++++++++
+ Client Mapping:
  > Client 42669 (14):	4 25 26 27 28 29 0 15 5 16 1 3 20 30 
  > Client 42673 (13):	2 11 12 13 14 23 17 18 21 35 31 32 33 
  > Client 42670 (13):	6 7 8 9 10 24 19 22 38 39 34 36 37 

+ Core Mapping:	42669 42669 42673 42669 42669 42669 42670 42670 42670 42670 42670 42673 42673 42673 42673 42669 42669 42673 42673 42670 42669 42673 42670 42673 42670 42669 42669 42669 42669 42669 42669 42673 42673 42673 42670 42673 42670 42670 42670 42670 
+ Optimal point: 14 13 13 
+++++++++++++++++++++++++++++++++++++++++++++++++++++++++++
CLIENT SHUTDOWN: client 42669
 + TIMESTAMP: 28.5832
+++++++++++++++++++++++++++++++++++++++++++++++++++++++++++
+ Client Mapping:
  > Client 42669 (0):	
  > Client 42673 (13):	2 11 12 13 14 23 17 18 21 35 31 32 33 
  > Client 42670 (13):	6 7 8 9 10 24 19 22 38 39 34 36 37 

+ Core Mapping:	0 0 42673 0 0 0 42670 42670 42670 42670 42670 42673 42673 42673 42673 0 0 42673 42673 42670 0 42673 42670 42673 42670 0 0 0 0 0 0 42673 42673 42673 42670 42673 42670 42670 42670 42670 
+ Optimal point: 14 13 13 
+++++++++++++++++++++++++++++++++++++++++++++++++++++++++++
client (42669) shutdown hint: 437.984
sum_client_shutdown_hint: 2189.92
++++++++++++++++++++++++++++++++++++++++++++++++
 + TIMESTAMP: 28.5834
REINVADE (42673)
  + pid: 42673
  + min_cores: 1
  + max_cores: 512
  + scalability graph: 
1, 1.36329, 1.52423, 1.62017, 1.68565, 1.73398, 1.77154, 1.80182, 1.8269, 1.84812, 1.86637, 1.88229, 1.89634, 1.90885, 1.92009, 1.93026, 1.93952, 1.94799, 1.95579, 1.963, 1.96968, 1.9759, 1.98172, 1.98716, 1.99228, 1.9971, 2.00164, 2.00594, 2.01002, 2.01389, 2.01757, 2.02108, 2.02443, 2.02763, 2.03069, 2.03362, 2.03644, 2.03914, 2.04173, 2.04423, 
Number of clients: 2

+++++++++++++++++++++++++++++++++++++++++++++++++++++++++++
+ Client Mapping:
  > Client 42673 (20):	2 11 12 13 14 23 17 18 21 35 31 32 33 0 1 3 4 5 15 16 
  > Client 42670 (13):	6 7 8 9 10 24 19 22 38 39 34 36 37 

+ Core Mapping:	42673 42673 42673 42673 42673 42673 42670 42670 42670 42670 42670 42673 42673 42673 42673 42673 42673 42673 42673 42670 0 42673 42670 42673 42670 0 0 0 0 0 0 42673 42673 42673 42670 42673 42670 42670 42670 42670 
+ Optimal point: 20 20 
+++++++++++++++++++++++++++++++++++++++++++++++++++++++++++
++++++++++++++++++++++++++++++++++++++++++++++++
 + TIMESTAMP: 28.5838
REINVADE (42670)
  + pid: 42670
  + min_cores: 1
  + max_cores: 512
  + scalability graph: 
1, 1.36329, 1.52423, 1.62017, 1.68565, 1.73398, 1.77154, 1.80182, 1.8269, 1.84812, 1.86637, 1.88229, 1.89634, 1.90885, 1.92009, 1.93026, 1.93952, 1.94799, 1.95579, 1.963, 1.96968, 1.9759, 1.98172, 1.98716, 1.99228, 1.9971, 2.00164, 2.00594, 2.01002, 2.01389, 2.01757, 2.02108, 2.02443, 2.02763, 2.03069, 2.03362, 2.03644, 2.03914, 2.04173, 2.04423, 
Number of clients: 2

+++++++++++++++++++++++++++++++++++++++++++++++++++++++++++
+ Client Mapping:
  > Client 42673 (20):	2 11 12 13 14 23 17 18 21 35 31 32 33 0 1 3 4 5 15 16 
  > Client 42670 (20):	6 7 8 9 10 24 19 22 38 39 34 36 37 20 25 26 27 28 29 30 

+ Core Mapping:	42673 42673 42673 42673 42673 42673 42670 42670 42670 42670 42670 42673 42673 42673 42673 42673 42673 42673 42673 42670 42670 42673 42670 42673 42670 42670 42670 42670 42670 42670 42670 42673 42673 42673 42670 42673 42670 42670 42670 42670 
+ Optimal point: 20 20 
+++++++++++++++++++++++++++++++++++++++++++++++++++++++++++
CLIENT SHUTDOWN: client 42673
 + TIMESTAMP: 31.9528
+++++++++++++++++++++++++++++++++++++++++++++++++++++++++++
+ Client Mapping:
  > Client 42673 (0):	
  > Client 42670 (20):	6 7 8 9 10 24 19 22 38 39 34 36 37 20 25 26 27 28 29 30 

+ Core Mapping:	0 0 0 0 0 0 42670 42670 42670 42670 42670 0 0 0 0 0 0 0 0 42670 42670 0 42670 0 42670 42670 42670 42670 42670 42670 42670 0 0 0 42670 0 42670 42670 42670 42670 
+ Optimal point: 20 20 
+++++++++++++++++++++++++++++++++++++++++++++++++++++++++++
client (42673) shutdown hint: 437.984
sum_client_shutdown_hint: 2627.9
++++++++++++++++++++++++++++++++++++++++++++++++
 + TIMESTAMP: 31.9529
REINVADE (42670)
  + pid: 42670
  + min_cores: 1
  + max_cores: 512
  + scalability graph: 
1, 1.36329, 1.52423, 1.62017, 1.68565, 1.73398, 1.77154, 1.80182, 1.8269, 1.84812, 1.86637, 1.88229, 1.89634, 1.90885, 1.92009, 1.93026, 1.93952, 1.94799, 1.95579, 1.963, 1.96968, 1.9759, 1.98172, 1.98716, 1.99228, 1.9971, 2.00164, 2.00594, 2.01002, 2.01389, 2.01757, 2.02108, 2.02443, 2.02763, 2.03069, 2.03362, 2.03644, 2.03914, 2.04173, 2.04423, 
Number of clients: 1

+++++++++++++++++++++++++++++++++++++++++++++++++++++++++++
+ Client Mapping:
  > Client 42670 (40):	6 7 8 9 10 24 19 22 38 39 34 36 37 20 25 26 27 28 29 30 0 1 2 3 4 5 11 12 13 14 15 16 17 18 21 23 31 32 33 35 

+ Core Mapping:	42670 42670 42670 42670 42670 42670 42670 42670 42670 42670 42670 42670 42670 42670 42670 42670 42670 42670 42670 42670 42670 42670 42670 42670 42670 42670 42670 42670 42670 42670 42670 42670 42670 42670 42670 42670 42670 42670 42670 42670 
+ Optimal point: 40 
+++++++++++++++++++++++++++++++++++++++++++++++++++++++++++
CLIENT SHUTDOWN: client 42670
 + TIMESTAMP: 32.317
+++++++++++++++++++++++++++++++++++++++++++++++++++++++++++
+ Client Mapping:
  > Client 42670 (0):	

+ Core Mapping:	0 0 0 0 0 0 0 0 0 0 0 0 0 0 0 0 0 0 0 0 0 0 0 0 0 0 0 0 0 0 0 0 0 0 0 0 0 0 0 0 
+ Optimal point: 40 
+++++++++++++++++++++++++++++++++++++++++++++++++++++++++++
client (42670) shutdown hint: 437.984
sum_client_shutdown_hint: 3065.89
END TIMESTAMP: 32.3171
OVERALL TIME: 32.0257
 + sum_client_shutdown_hint: 3065.89
 + sum_client_shutdown_hint/time: 95.7321
sum_client_shutdown_hint: 3065.89
