STARTING WORLD SCHEDULER SERVER
CLIENT SETUP: adding client 48711
 + TIMESTAMP: 0.292176
START TIMESTAMP: 0.292221
+++++++++++++++++++++++++++++++++++++++++++++++++++++++++++
+ Client Mapping:
  > Client 48711 (0):	

+ Core Mapping:	0 0 0 0 0 0 0 0 0 0 0 0 0 0 0 0 0 0 0 0 0 0 0 0 0 0 0 0 0 0 0 0 0 0 0 0 0 0 0 0 
+ Optimal point: 
+++++++++++++++++++++++++++++++++++++++++++++++++++++++++++
INVADE: client 48711
 + TIMESTAMP: 0.292868
RESSOURCE DISTRIBUTION CHANGED
++++++++++++++++++++++++++++++++++++++++++++++++
INVADE (48711)
  + pid: 48711
  + min_cores: 1
  + max_cores: 512
  + scalability graph: 
1, 1.36329, 1.52423, 1.62017, 1.68565, 1.73398, 1.77154, 1.80182, 1.8269, 1.84812, 1.86637, 1.88229, 1.89634, 1.90885, 1.92009, 1.93026, 1.93952, 1.94799, 1.95579, 1.963, 1.96968, 1.9759, 1.98172, 1.98716, 1.99228, 1.9971, 2.00164, 2.00594, 2.01002, 2.01389, 2.01757, 2.02108, 2.02443, 2.02763, 2.03069, 2.03362, 2.03644, 2.03914, 2.04173, 2.04423, 
Number of clients: 1

+++++++++++++++++++++++++++++++++++++++++++++++++++++++++++
+ Client Mapping:
  > Client 48711 (40):	0 1 2 3 4 5 6 7 8 9 10 11 12 13 14 15 16 17 18 19 20 21 22 23 24 25 26 27 28 29 30 31 32 33 34 35 36 37 38 39 

+ Core Mapping:	48711 48711 48711 48711 48711 48711 48711 48711 48711 48711 48711 48711 48711 48711 48711 48711 48711 48711 48711 48711 48711 48711 48711 48711 48711 48711 48711 48711 48711 48711 48711 48711 48711 48711 48711 48711 48711 48711 48711 48711 
+ Optimal point: 40 
+++++++++++++++++++++++++++++++++++++++++++++++++++++++++++
CLIENT SETUP: adding client 48709
 + TIMESTAMP: 0.29334
+++++++++++++++++++++++++++++++++++++++++++++++++++++++++++
+ Client Mapping:
  > Client 48711 (40):	0 1 2 3 4 5 6 7 8 9 10 11 12 13 14 15 16 17 18 19 20 21 22 23 24 25 26 27 28 29 30 31 32 33 34 35 36 37 38 39 
  > Client 48709 (0):	

+ Core Mapping:	48711 48711 48711 48711 48711 48711 48711 48711 48711 48711 48711 48711 48711 48711 48711 48711 48711 48711 48711 48711 48711 48711 48711 48711 48711 48711 48711 48711 48711 48711 48711 48711 48711 48711 48711 48711 48711 48711 48711 48711 
+ Optimal point: 40 
+++++++++++++++++++++++++++++++++++++++++++++++++++++++++++
INVADE: client 48709
 + TIMESTAMP: 0.29348
CLIENT SETUP: adding client 48715
 + TIMESTAMP: 0.294049
+++++++++++++++++++++++++++++++++++++++++++++++++++++++++++
+ Client Mapping:
  > Client 48711 (40):	0 1 2 3 4 5 6 7 8 9 10 11 12 13 14 15 16 17 18 19 20 21 22 23 24 25 26 27 28 29 30 31 32 33 34 35 36 37 38 39 
  > Client 48709 (0):	
  > Client 48715 (0):	

+ Core Mapping:	48711 48711 48711 48711 48711 48711 48711 48711 48711 48711 48711 48711 48711 48711 48711 48711 48711 48711 48711 48711 48711 48711 48711 48711 48711 48711 48711 48711 48711 48711 48711 48711 48711 48711 48711 48711 48711 48711 48711 48711 
+ Optimal point: 20 20 
+++++++++++++++++++++++++++++++++++++++++++++++++++++++++++
CLIENT SETUP: adding client 48718
 + TIMESTAMP: 0.294127
+++++++++++++++++++++++++++++++++++++++++++++++++++++++++++
+ Client Mapping:
  > Client 48711 (40):	0 1 2 3 4 5 6 7 8 9 10 11 12 13 14 15 16 17 18 19 20 21 22 23 24 25 26 27 28 29 30 31 32 33 34 35 36 37 38 39 
  > Client 48709 (0):	
  > Client 48715 (0):	
  > Client 48718 (0):	

+ Core Mapping:	48711 48711 48711 48711 48711 48711 48711 48711 48711 48711 48711 48711 48711 48711 48711 48711 48711 48711 48711 48711 48711 48711 48711 48711 48711 48711 48711 48711 48711 48711 48711 48711 48711 48711 48711 48711 48711 48711 48711 48711 
+ Optimal point: 20 20 
+++++++++++++++++++++++++++++++++++++++++++++++++++++++++++
INVADE: client 48715
 + TIMESTAMP: 0.294189
CLIENT SETUP: adding client 48710
 + TIMESTAMP: 0.294418
+++++++++++++++++++++++++++++++++++++++++++++++++++++++++++
+ Client Mapping:
  > Client 48711 (40):	0 1 2 3 4 5 6 7 8 9 10 11 12 13 14 15 16 17 18 19 20 21 22 23 24 25 26 27 28 29 30 31 32 33 34 35 36 37 38 39 
  > Client 48709 (0):	
  > Client 48715 (0):	
  > Client 48718 (0):	
  > Client 48710 (0):	

+ Core Mapping:	48711 48711 48711 48711 48711 48711 48711 48711 48711 48711 48711 48711 48711 48711 48711 48711 48711 48711 48711 48711 48711 48711 48711 48711 48711 48711 48711 48711 48711 48711 48711 48711 48711 48711 48711 48711 48711 48711 48711 48711 
+ Optimal point: 1 1 1 37 
+++++++++++++++++++++++++++++++++++++++++++++++++++++++++++
INVADE: client 48710
 + TIMESTAMP: 0.294564
INVADE: client 48718
 + TIMESTAMP: 0.295041
CLIENT SETUP: adding client 48712
 + TIMESTAMP: 0.310089
+++++++++++++++++++++++++++++++++++++++++++++++++++++++++++
+ Client Mapping:
  > Client 48711 (40):	0 1 2 3 4 5 6 7 8 9 10 11 12 13 14 15 16 17 18 19 20 21 22 23 24 25 26 27 28 29 30 31 32 33 34 35 36 37 38 39 
  > Client 48709 (0):	
  > Client 48715 (0):	
  > Client 48718 (0):	
  > Client 48710 (0):	
  > Client 48712 (0):	

+ Core Mapping:	48711 48711 48711 48711 48711 48711 48711 48711 48711 48711 48711 48711 48711 48711 48711 48711 48711 48711 48711 48711 48711 48711 48711 48711 48711 48711 48711 48711 48711 48711 48711 48711 48711 48711 48711 48711 48711 48711 48711 48711 
+ Optimal point: 8 8 8 8 8 
+++++++++++++++++++++++++++++++++++++++++++++++++++++++++++
INVADE: client 48712
 + TIMESTAMP: 0.310188
CLIENT SETUP: adding client 48716
 + TIMESTAMP: 0.311592
+++++++++++++++++++++++++++++++++++++++++++++++++++++++++++
+ Client Mapping:
  > Client 48711 (40):	0 1 2 3 4 5 6 7 8 9 10 11 12 13 14 15 16 17 18 19 20 21 22 23 24 25 26 27 28 29 30 31 32 33 34 35 36 37 38 39 
  > Client 48709 (0):	
  > Client 48715 (0):	
  > Client 48718 (0):	
  > Client 48710 (0):	
  > Client 48712 (0):	
  > Client 48716 (0):	

+ Core Mapping:	48711 48711 48711 48711 48711 48711 48711 48711 48711 48711 48711 48711 48711 48711 48711 48711 48711 48711 48711 48711 48711 48711 48711 48711 48711 48711 48711 48711 48711 48711 48711 48711 48711 48711 48711 48711 48711 48711 48711 48711 
+ Optimal point: 7 7 7 7 6 6 
+++++++++++++++++++++++++++++++++++++++++++++++++++++++++++
INVADE: client 48716
 + TIMESTAMP: 0.311717
CLIENT SETUP: adding client 48714
 + TIMESTAMP: 0.31429
+++++++++++++++++++++++++++++++++++++++++++++++++++++++++++
+ Client Mapping:
  > Client 48711 (40):	0 1 2 3 4 5 6 7 8 9 10 11 12 13 14 15 16 17 18 19 20 21 22 23 24 25 26 27 28 29 30 31 32 33 34 35 36 37 38 39 
  > Client 48709 (0):	
  > Client 48715 (0):	
  > Client 48718 (0):	
  > Client 48710 (0):	
  > Client 48712 (0):	
  > Client 48716 (0):	
  > Client 48714 (0):	

+ Core Mapping:	48711 48711 48711 48711 48711 48711 48711 48711 48711 48711 48711 48711 48711 48711 48711 48711 48711 48711 48711 48711 48711 48711 48711 48711 48711 48711 48711 48711 48711 48711 48711 48711 48711 48711 48711 48711 48711 48711 48711 48711 
+ Optimal point: 6 6 6 6 6 5 5 
+++++++++++++++++++++++++++++++++++++++++++++++++++++++++++
INVADE: client 48714
 + TIMESTAMP: 0.314396
CLIENT SETUP: adding client 48717
 + TIMESTAMP: 0.320291
+++++++++++++++++++++++++++++++++++++++++++++++++++++++++++
+ Client Mapping:
  > Client 48711 (40):	0 1 2 3 4 5 6 7 8 9 10 11 12 13 14 15 16 17 18 19 20 21 22 23 24 25 26 27 28 29 30 31 32 33 34 35 36 37 38 39 
  > Client 48709 (0):	
  > Client 48715 (0):	
  > Client 48718 (0):	
  > Client 48710 (0):	
  > Client 48712 (0):	
  > Client 48716 (0):	
  > Client 48714 (0):	
  > Client 48717 (0):	

+ Core Mapping:	48711 48711 48711 48711 48711 48711 48711 48711 48711 48711 48711 48711 48711 48711 48711 48711 48711 48711 48711 48711 48711 48711 48711 48711 48711 48711 48711 48711 48711 48711 48711 48711 48711 48711 48711 48711 48711 48711 48711 48711 
+ Optimal point: 5 5 5 5 5 5 5 5 
+++++++++++++++++++++++++++++++++++++++++++++++++++++++++++
INVADE: client 48717
 + TIMESTAMP: 0.320396
CLIENT SETUP: adding client 48713
 + TIMESTAMP: 0.325204
+++++++++++++++++++++++++++++++++++++++++++++++++++++++++++
+ Client Mapping:
  > Client 48711 (40):	0 1 2 3 4 5 6 7 8 9 10 11 12 13 14 15 16 17 18 19 20 21 22 23 24 25 26 27 28 29 30 31 32 33 34 35 36 37 38 39 
  > Client 48709 (0):	
  > Client 48715 (0):	
  > Client 48718 (0):	
  > Client 48710 (0):	
  > Client 48712 (0):	
  > Client 48716 (0):	
  > Client 48714 (0):	
  > Client 48717 (0):	
  > Client 48713 (0):	

+ Core Mapping:	48711 48711 48711 48711 48711 48711 48711 48711 48711 48711 48711 48711 48711 48711 48711 48711 48711 48711 48711 48711 48711 48711 48711 48711 48711 48711 48711 48711 48711 48711 48711 48711 48711 48711 48711 48711 48711 48711 48711 48711 
+ Optimal point: 5 5 5 5 4 4 4 4 4 
+++++++++++++++++++++++++++++++++++++++++++++++++++++++++++
INVADE: client 48713
 + TIMESTAMP: 0.325294
++++++++++++++++++++++++++++++++++++++++++++++++
 + TIMESTAMP: 0.383142
REINVADE (48711)
  + pid: 48711
  + min_cores: 1
  + max_cores: 512
  + scalability graph: 
1, 1.36329, 1.52423, 1.62017, 1.68565, 1.73398, 1.77154, 1.80182, 1.8269, 1.84812, 1.86637, 1.88229, 1.89634, 1.90885, 1.92009, 1.93026, 1.93952, 1.94799, 1.95579, 1.963, 1.96968, 1.9759, 1.98172, 1.98716, 1.99228, 1.9971, 2.00164, 2.00594, 2.01002, 2.01389, 2.01757, 2.02108, 2.02443, 2.02763, 2.03069, 2.03362, 2.03644, 2.03914, 2.04173, 2.04423, 
Number of clients: 10

+++++++++++++++++++++++++++++++++++++++++++++++++++++++++++
+ Client Mapping:
  > Client 48711 (4):	36 37 38 39 
  > Client 48709 (0):	
  > Client 48715 (0):	
  > Client 48718 (0):	
  > Client 48710 (0):	
  > Client 48712 (0):	
  > Client 48716 (0):	
  > Client 48714 (0):	
  > Client 48717 (0):	
  > Client 48713 (0):	

+ Core Mapping:	0 0 0 0 0 0 0 0 0 0 0 0 0 0 0 0 0 0 0 0 0 0 0 0 0 0 0 0 0 0 0 0 0 0 0 0 48711 48711 48711 48711 
+ Optimal point: 4 4 4 4 4 4 4 4 4 4 
+++++++++++++++++++++++++++++++++++++++++++++++++++++++++++
++++++++++++++++++++++++++++++++++++++++++++++++
 + TIMESTAMP: 0.421756
REINVADE (48718)
  + pid: 48718
  + min_cores: 1
  + max_cores: 512
  + scalability graph: 
1, 1.36329, 1.52423, 1.62017, 1.68565, 1.73398, 1.77154, 1.80182, 1.8269, 1.84812, 1.86637, 1.88229, 1.89634, 1.90885, 1.92009, 1.93026, 1.93952, 1.94799, 1.95579, 1.963, 1.96968, 1.9759, 1.98172, 1.98716, 1.99228, 1.9971, 2.00164, 2.00594, 2.01002, 2.01389, 2.01757, 2.02108, 2.02443, 2.02763, 2.03069, 2.03362, 2.03644, 2.03914, 2.04173, 2.04423, 
Number of clients: 10

+++++++++++++++++++++++++++++++++++++++++++++++++++++++++++
+ Client Mapping:
  > Client 48711 (4):	36 37 38 39 
  > Client 48709 (0):	
  > Client 48715 (0):	
  > Client 48718 (4):	0 1 2 3 
  > Client 48710 (0):	
  > Client 48712 (0):	
  > Client 48716 (0):	
  > Client 48714 (0):	
  > Client 48717 (0):	
  > Client 48713 (0):	

+ Core Mapping:	48718 48718 48718 48718 0 0 0 0 0 0 0 0 0 0 0 0 0 0 0 0 0 0 0 0 0 0 0 0 0 0 0 0 0 0 0 0 48711 48711 48711 48711 
+ Optimal point: 4 4 4 4 4 4 4 4 4 4 
+++++++++++++++++++++++++++++++++++++++++++++++++++++++++++
++++++++++++++++++++++++++++++++++++++++++++++++
 + TIMESTAMP: 0.432012
REINVADE (48717)
  + pid: 48717
  + min_cores: 1
  + max_cores: 512
  + scalability graph: 
1, 1.36329, 1.52423, 1.62017, 1.68565, 1.73398, 1.77154, 1.80182, 1.8269, 1.84812, 1.86637, 1.88229, 1.89634, 1.90885, 1.92009, 1.93026, 1.93952, 1.94799, 1.95579, 1.963, 1.96968, 1.9759, 1.98172, 1.98716, 1.99228, 1.9971, 2.00164, 2.00594, 2.01002, 2.01389, 2.01757, 2.02108, 2.02443, 2.02763, 2.03069, 2.03362, 2.03644, 2.03914, 2.04173, 2.04423, 
Number of clients: 10

+++++++++++++++++++++++++++++++++++++++++++++++++++++++++++
+ Client Mapping:
  > Client 48711 (4):	36 37 38 39 
  > Client 48709 (0):	
  > Client 48715 (0):	
  > Client 48718 (4):	0 1 2 3 
  > Client 48710 (0):	
  > Client 48712 (0):	
  > Client 48716 (0):	
  > Client 48714 (0):	
  > Client 48717 (4):	4 5 6 7 
  > Client 48713 (0):	

+ Core Mapping:	48718 48718 48718 48718 48717 48717 48717 48717 0 0 0 0 0 0 0 0 0 0 0 0 0 0 0 0 0 0 0 0 0 0 0 0 0 0 0 0 48711 48711 48711 48711 
+ Optimal point: 4 4 4 4 4 4 4 4 4 4 
+++++++++++++++++++++++++++++++++++++++++++++++++++++++++++
++++++++++++++++++++++++++++++++++++++++++++++++
 + TIMESTAMP: 0.446921
REINVADE (48715)
  + pid: 48715
  + min_cores: 1
  + max_cores: 512
  + scalability graph: 
1, 1.36329, 1.52423, 1.62017, 1.68565, 1.73398, 1.77154, 1.80182, 1.8269, 1.84812, 1.86637, 1.88229, 1.89634, 1.90885, 1.92009, 1.93026, 1.93952, 1.94799, 1.95579, 1.963, 1.96968, 1.9759, 1.98172, 1.98716, 1.99228, 1.9971, 2.00164, 2.00594, 2.01002, 2.01389, 2.01757, 2.02108, 2.02443, 2.02763, 2.03069, 2.03362, 2.03644, 2.03914, 2.04173, 2.04423, 
Number of clients: 10

+++++++++++++++++++++++++++++++++++++++++++++++++++++++++++
+ Client Mapping:
  > Client 48711 (4):	36 37 38 39 
  > Client 48709 (0):	
  > Client 48715 (4):	8 9 10 11 
  > Client 48718 (4):	0 1 2 3 
  > Client 48710 (0):	
  > Client 48712 (0):	
  > Client 48716 (0):	
  > Client 48714 (0):	
  > Client 48717 (4):	4 5 6 7 
  > Client 48713 (0):	

+ Core Mapping:	48718 48718 48718 48718 48717 48717 48717 48717 48715 48715 48715 48715 0 0 0 0 0 0 0 0 0 0 0 0 0 0 0 0 0 0 0 0 0 0 0 0 48711 48711 48711 48711 
+ Optimal point: 4 4 4 4 4 4 4 4 4 4 
+++++++++++++++++++++++++++++++++++++++++++++++++++++++++++
++++++++++++++++++++++++++++++++++++++++++++++++
 + TIMESTAMP: 0.478875
REINVADE (48714)
  + pid: 48714
  + min_cores: 1
  + max_cores: 512
  + scalability graph: 
1, 1.36329, 1.52423, 1.62017, 1.68565, 1.73398, 1.77154, 1.80182, 1.8269, 1.84812, 1.86637, 1.88229, 1.89634, 1.90885, 1.92009, 1.93026, 1.93952, 1.94799, 1.95579, 1.963, 1.96968, 1.9759, 1.98172, 1.98716, 1.99228, 1.9971, 2.00164, 2.00594, 2.01002, 2.01389, 2.01757, 2.02108, 2.02443, 2.02763, 2.03069, 2.03362, 2.03644, 2.03914, 2.04173, 2.04423, 
Number of clients: 10

+++++++++++++++++++++++++++++++++++++++++++++++++++++++++++
+ Client Mapping:
  > Client 48711 (4):	36 37 38 39 
  > Client 48709 (0):	
  > Client 48715 (4):	8 9 10 11 
  > Client 48718 (4):	0 1 2 3 
  > Client 48710 (0):	
  > Client 48712 (0):	
  > Client 48716 (0):	
  > Client 48714 (4):	12 13 14 15 
  > Client 48717 (4):	4 5 6 7 
  > Client 48713 (0):	

+ Core Mapping:	48718 48718 48718 48718 48717 48717 48717 48717 48715 48715 48715 48715 48714 48714 48714 48714 0 0 0 0 0 0 0 0 0 0 0 0 0 0 0 0 0 0 0 0 48711 48711 48711 48711 
+ Optimal point: 4 4 4 4 4 4 4 4 4 4 
+++++++++++++++++++++++++++++++++++++++++++++++++++++++++++
++++++++++++++++++++++++++++++++++++++++++++++++
 + TIMESTAMP: 0.497031
REINVADE (48713)
  + pid: 48713
  + min_cores: 1
  + max_cores: 512
  + scalability graph: 
1, 1.36329, 1.52423, 1.62017, 1.68565, 1.73398, 1.77154, 1.80182, 1.8269, 1.84812, 1.86637, 1.88229, 1.89634, 1.90885, 1.92009, 1.93026, 1.93952, 1.94799, 1.95579, 1.963, 1.96968, 1.9759, 1.98172, 1.98716, 1.99228, 1.9971, 2.00164, 2.00594, 2.01002, 2.01389, 2.01757, 2.02108, 2.02443, 2.02763, 2.03069, 2.03362, 2.03644, 2.03914, 2.04173, 2.04423, 
Number of clients: 10

+++++++++++++++++++++++++++++++++++++++++++++++++++++++++++
+ Client Mapping:
  > Client 48711 (4):	36 37 38 39 
  > Client 48709 (0):	
  > Client 48715 (4):	8 9 10 11 
  > Client 48718 (4):	0 1 2 3 
  > Client 48710 (0):	
  > Client 48712 (0):	
  > Client 48716 (0):	
  > Client 48714 (4):	12 13 14 15 
  > Client 48717 (4):	4 5 6 7 
  > Client 48713 (4):	16 17 18 19 

+ Core Mapping:	48718 48718 48718 48718 48717 48717 48717 48717 48715 48715 48715 48715 48714 48714 48714 48714 48713 48713 48713 48713 0 0 0 0 0 0 0 0 0 0 0 0 0 0 0 0 48711 48711 48711 48711 
+ Optimal point: 4 4 4 4 4 4 4 4 4 4 
+++++++++++++++++++++++++++++++++++++++++++++++++++++++++++
++++++++++++++++++++++++++++++++++++++++++++++++
 + TIMESTAMP: 0.513905
REINVADE (48716)
  + pid: 48716
  + min_cores: 1
  + max_cores: 512
  + scalability graph: 
1, 1.36329, 1.52423, 1.62017, 1.68565, 1.73398, 1.77154, 1.80182, 1.8269, 1.84812, 1.86637, 1.88229, 1.89634, 1.90885, 1.92009, 1.93026, 1.93952, 1.94799, 1.95579, 1.963, 1.96968, 1.9759, 1.98172, 1.98716, 1.99228, 1.9971, 2.00164, 2.00594, 2.01002, 2.01389, 2.01757, 2.02108, 2.02443, 2.02763, 2.03069, 2.03362, 2.03644, 2.03914, 2.04173, 2.04423, 
Number of clients: 10

+++++++++++++++++++++++++++++++++++++++++++++++++++++++++++
+ Client Mapping:
  > Client 48711 (4):	36 37 38 39 
  > Client 48709 (0):	
  > Client 48715 (4):	8 9 10 11 
  > Client 48718 (4):	0 1 2 3 
  > Client 48710 (0):	
  > Client 48712 (0):	
  > Client 48716 (4):	20 21 22 23 
  > Client 48714 (4):	12 13 14 15 
  > Client 48717 (4):	4 5 6 7 
  > Client 48713 (4):	16 17 18 19 

+ Core Mapping:	48718 48718 48718 48718 48717 48717 48717 48717 48715 48715 48715 48715 48714 48714 48714 48714 48713 48713 48713 48713 48716 48716 48716 48716 0 0 0 0 0 0 0 0 0 0 0 0 48711 48711 48711 48711 
+ Optimal point: 4 4 4 4 4 4 4 4 4 4 
+++++++++++++++++++++++++++++++++++++++++++++++++++++++++++
++++++++++++++++++++++++++++++++++++++++++++++++
 + TIMESTAMP: 0.521104
REINVADE (48710)
  + pid: 48710
  + min_cores: 1
  + max_cores: 512
  + scalability graph: 
1, 1.36329, 1.52423, 1.62017, 1.68565, 1.73398, 1.77154, 1.80182, 1.8269, 1.84812, 1.86637, 1.88229, 1.89634, 1.90885, 1.92009, 1.93026, 1.93952, 1.94799, 1.95579, 1.963, 1.96968, 1.9759, 1.98172, 1.98716, 1.99228, 1.9971, 2.00164, 2.00594, 2.01002, 2.01389, 2.01757, 2.02108, 2.02443, 2.02763, 2.03069, 2.03362, 2.03644, 2.03914, 2.04173, 2.04423, 
Number of clients: 10

+++++++++++++++++++++++++++++++++++++++++++++++++++++++++++
+ Client Mapping:
  > Client 48711 (4):	36 37 38 39 
  > Client 48709 (0):	
  > Client 48715 (4):	8 9 10 11 
  > Client 48718 (4):	0 1 2 3 
  > Client 48710 (4):	24 25 26 27 
  > Client 48712 (0):	
  > Client 48716 (4):	20 21 22 23 
  > Client 48714 (4):	12 13 14 15 
  > Client 48717 (4):	4 5 6 7 
  > Client 48713 (4):	16 17 18 19 

+ Core Mapping:	48718 48718 48718 48718 48717 48717 48717 48717 48715 48715 48715 48715 48714 48714 48714 48714 48713 48713 48713 48713 48716 48716 48716 48716 48710 48710 48710 48710 0 0 0 0 0 0 0 0 48711 48711 48711 48711 
+ Optimal point: 4 4 4 4 4 4 4 4 4 4 
+++++++++++++++++++++++++++++++++++++++++++++++++++++++++++
++++++++++++++++++++++++++++++++++++++++++++++++
 + TIMESTAMP: 0.52219
REINVADE (48709)
  + pid: 48709
  + min_cores: 1
  + max_cores: 512
  + scalability graph: 
1, 1.36329, 1.52423, 1.62017, 1.68565, 1.73398, 1.77154, 1.80182, 1.8269, 1.84812, 1.86637, 1.88229, 1.89634, 1.90885, 1.92009, 1.93026, 1.93952, 1.94799, 1.95579, 1.963, 1.96968, 1.9759, 1.98172, 1.98716, 1.99228, 1.9971, 2.00164, 2.00594, 2.01002, 2.01389, 2.01757, 2.02108, 2.02443, 2.02763, 2.03069, 2.03362, 2.03644, 2.03914, 2.04173, 2.04423, 
Number of clients: 10

+++++++++++++++++++++++++++++++++++++++++++++++++++++++++++
+ Client Mapping:
  > Client 48711 (4):	36 37 38 39 
  > Client 48709 (4):	28 29 30 31 
  > Client 48715 (4):	8 9 10 11 
  > Client 48718 (4):	0 1 2 3 
  > Client 48710 (4):	24 25 26 27 
  > Client 48712 (0):	
  > Client 48716 (4):	20 21 22 23 
  > Client 48714 (4):	12 13 14 15 
  > Client 48717 (4):	4 5 6 7 
  > Client 48713 (4):	16 17 18 19 

+ Core Mapping:	48718 48718 48718 48718 48717 48717 48717 48717 48715 48715 48715 48715 48714 48714 48714 48714 48713 48713 48713 48713 48716 48716 48716 48716 48710 48710 48710 48710 48709 48709 48709 48709 0 0 0 0 48711 48711 48711 48711 
+ Optimal point: 4 4 4 4 4 4 4 4 4 4 
+++++++++++++++++++++++++++++++++++++++++++++++++++++++++++
++++++++++++++++++++++++++++++++++++++++++++++++
 + TIMESTAMP: 0.524915
REINVADE (48712)
  + pid: 48712
  + min_cores: 1
  + max_cores: 512
  + scalability graph: 
1, 1.36329, 1.52423, 1.62017, 1.68565, 1.73398, 1.77154, 1.80182, 1.8269, 1.84812, 1.86637, 1.88229, 1.89634, 1.90885, 1.92009, 1.93026, 1.93952, 1.94799, 1.95579, 1.963, 1.96968, 1.9759, 1.98172, 1.98716, 1.99228, 1.9971, 2.00164, 2.00594, 2.01002, 2.01389, 2.01757, 2.02108, 2.02443, 2.02763, 2.03069, 2.03362, 2.03644, 2.03914, 2.04173, 2.04423, 
Number of clients: 10

+++++++++++++++++++++++++++++++++++++++++++++++++++++++++++
+ Client Mapping:
  > Client 48711 (4):	36 37 38 39 
  > Client 48709 (4):	28 29 30 31 
  > Client 48715 (4):	8 9 10 11 
  > Client 48718 (4):	0 1 2 3 
  > Client 48710 (4):	24 25 26 27 
  > Client 48712 (4):	32 33 34 35 
  > Client 48716 (4):	20 21 22 23 
  > Client 48714 (4):	12 13 14 15 
  > Client 48717 (4):	4 5 6 7 
  > Client 48713 (4):	16 17 18 19 

+ Core Mapping:	48718 48718 48718 48718 48717 48717 48717 48717 48715 48715 48715 48715 48714 48714 48714 48714 48713 48713 48713 48713 48716 48716 48716 48716 48710 48710 48710 48710 48709 48709 48709 48709 48712 48712 48712 48712 48711 48711 48711 48711 
+ Optimal point: 4 4 4 4 4 4 4 4 4 4 
+++++++++++++++++++++++++++++++++++++++++++++++++++++++++++
CLIENT SHUTDOWN: client 48717
 + TIMESTAMP: 40.6536
+++++++++++++++++++++++++++++++++++++++++++++++++++++++++++
+ Client Mapping:
  > Client 48711 (4):	36 37 38 39 
  > Client 48709 (4):	28 29 30 31 
  > Client 48715 (4):	8 9 10 11 
  > Client 48718 (4):	0 1 2 3 
  > Client 48710 (4):	24 25 26 27 
  > Client 48712 (4):	32 33 34 35 
  > Client 48716 (4):	20 21 22 23 
  > Client 48714 (4):	12 13 14 15 
  > Client 48717 (0):	
  > Client 48713 (4):	16 17 18 19 

+ Core Mapping:	48718 48718 48718 48718 0 0 0 0 48715 48715 48715 48715 48714 48714 48714 48714 48713 48713 48713 48713 48716 48716 48716 48716 48710 48710 48710 48710 48709 48709 48709 48709 48712 48712 48712 48712 48711 48711 48711 48711 
+ Optimal point: 4 4 4 4 4 4 4 4 4 4 
+++++++++++++++++++++++++++++++++++++++++++++++++++++++++++
client (48717) shutdown hint: 437.984
sum_client_shutdown_hint: 437.984
sum_client_shutdown_hint_div_time: 0
++++++++++++++++++++++++++++++++++++++++++++++++
 + TIMESTAMP: 40.6538
REINVADE (48715)
  + pid: 48715
  + min_cores: 1
  + max_cores: 512
  + scalability graph: 
1, 1.36329, 1.52423, 1.62017, 1.68565, 1.73398, 1.77154, 1.80182, 1.8269, 1.84812, 1.86637, 1.88229, 1.89634, 1.90885, 1.92009, 1.93026, 1.93952, 1.94799, 1.95579, 1.963, 1.96968, 1.9759, 1.98172, 1.98716, 1.99228, 1.9971, 2.00164, 2.00594, 2.01002, 2.01389, 2.01757, 2.02108, 2.02443, 2.02763, 2.03069, 2.03362, 2.03644, 2.03914, 2.04173, 2.04423, 
Number of clients: 9

+++++++++++++++++++++++++++++++++++++++++++++++++++++++++++
+ Client Mapping:
  > Client 48711 (4):	36 37 38 39 
  > Client 48709 (4):	28 29 30 31 
  > Client 48715 (5):	8 9 10 11 4 
  > Client 48718 (4):	0 1 2 3 
  > Client 48710 (4):	24 25 26 27 
  > Client 48712 (4):	32 33 34 35 
  > Client 48716 (4):	20 21 22 23 
  > Client 48714 (4):	12 13 14 15 
  > Client 48713 (4):	16 17 18 19 

+ Core Mapping:	48718 48718 48718 48718 48715 0 0 0 48715 48715 48715 48715 48714 48714 48714 48714 48713 48713 48713 48713 48716 48716 48716 48716 48710 48710 48710 48710 48709 48709 48709 48709 48712 48712 48712 48712 48711 48711 48711 48711 
+ Optimal point: 5 5 5 5 4 4 4 4 4 
+++++++++++++++++++++++++++++++++++++++++++++++++++++++++++
++++++++++++++++++++++++++++++++++++++++++++++++
 + TIMESTAMP: 40.654
REINVADE (48709)
  + pid: 48709
  + min_cores: 1
  + max_cores: 512
  + scalability graph: 
1, 1.36329, 1.52423, 1.62017, 1.68565, 1.73398, 1.77154, 1.80182, 1.8269, 1.84812, 1.86637, 1.88229, 1.89634, 1.90885, 1.92009, 1.93026, 1.93952, 1.94799, 1.95579, 1.963, 1.96968, 1.9759, 1.98172, 1.98716, 1.99228, 1.9971, 2.00164, 2.00594, 2.01002, 2.01389, 2.01757, 2.02108, 2.02443, 2.02763, 2.03069, 2.03362, 2.03644, 2.03914, 2.04173, 2.04423, 
Number of clients: 9

+++++++++++++++++++++++++++++++++++++++++++++++++++++++++++
+ Client Mapping:
  > Client 48711 (4):	36 37 38 39 
  > Client 48709 (5):	28 29 30 31 5 
  > Client 48715 (5):	8 9 10 11 4 
  > Client 48718 (4):	0 1 2 3 
  > Client 48710 (4):	24 25 26 27 
  > Client 48712 (4):	32 33 34 35 
  > Client 48716 (4):	20 21 22 23 
  > Client 48714 (4):	12 13 14 15 
  > Client 48713 (4):	16 17 18 19 

+ Core Mapping:	48718 48718 48718 48718 48715 48709 0 0 48715 48715 48715 48715 48714 48714 48714 48714 48713 48713 48713 48713 48716 48716 48716 48716 48710 48710 48710 48710 48709 48709 48709 48709 48712 48712 48712 48712 48711 48711 48711 48711 
+ Optimal point: 5 5 5 5 4 4 4 4 4 
+++++++++++++++++++++++++++++++++++++++++++++++++++++++++++
++++++++++++++++++++++++++++++++++++++++++++++++
 + TIMESTAMP: 40.6545
REINVADE (48718)
  + pid: 48718
  + min_cores: 1
  + max_cores: 512
  + scalability graph: 
1, 1.36329, 1.52423, 1.62017, 1.68565, 1.73398, 1.77154, 1.80182, 1.8269, 1.84812, 1.86637, 1.88229, 1.89634, 1.90885, 1.92009, 1.93026, 1.93952, 1.94799, 1.95579, 1.963, 1.96968, 1.9759, 1.98172, 1.98716, 1.99228, 1.9971, 2.00164, 2.00594, 2.01002, 2.01389, 2.01757, 2.02108, 2.02443, 2.02763, 2.03069, 2.03362, 2.03644, 2.03914, 2.04173, 2.04423, 
Number of clients: 9

+++++++++++++++++++++++++++++++++++++++++++++++++++++++++++
+ Client Mapping:
  > Client 48711 (4):	36 37 38 39 
  > Client 48709 (5):	28 29 30 31 5 
  > Client 48715 (5):	8 9 10 11 4 
  > Client 48718 (5):	0 1 2 3 6 
  > Client 48710 (4):	24 25 26 27 
  > Client 48712 (4):	32 33 34 35 
  > Client 48716 (4):	20 21 22 23 
  > Client 48714 (4):	12 13 14 15 
  > Client 48713 (4):	16 17 18 19 

+ Core Mapping:	48718 48718 48718 48718 48715 48709 48718 0 48715 48715 48715 48715 48714 48714 48714 48714 48713 48713 48713 48713 48716 48716 48716 48716 48710 48710 48710 48710 48709 48709 48709 48709 48712 48712 48712 48712 48711 48711 48711 48711 
+ Optimal point: 5 5 5 5 4 4 4 4 4 
+++++++++++++++++++++++++++++++++++++++++++++++++++++++++++
++++++++++++++++++++++++++++++++++++++++++++++++
 + TIMESTAMP: 40.6547
REINVADE (48711)
  + pid: 48711
  + min_cores: 1
  + max_cores: 512
  + scalability graph: 
1, 1.36329, 1.52423, 1.62017, 1.68565, 1.73398, 1.77154, 1.80182, 1.8269, 1.84812, 1.86637, 1.88229, 1.89634, 1.90885, 1.92009, 1.93026, 1.93952, 1.94799, 1.95579, 1.963, 1.96968, 1.9759, 1.98172, 1.98716, 1.99228, 1.9971, 2.00164, 2.00594, 2.01002, 2.01389, 2.01757, 2.02108, 2.02443, 2.02763, 2.03069, 2.03362, 2.03644, 2.03914, 2.04173, 2.04423, 
Number of clients: 9

+++++++++++++++++++++++++++++++++++++++++++++++++++++++++++
+ Client Mapping:
  > Client 48711 (5):	36 37 38 39 7 
  > Client 48709 (5):	28 29 30 31 5 
  > Client 48715 (5):	8 9 10 11 4 
  > Client 48718 (5):	0 1 2 3 6 
  > Client 48710 (4):	24 25 26 27 
  > Client 48712 (4):	32 33 34 35 
  > Client 48716 (4):	20 21 22 23 
  > Client 48714 (4):	12 13 14 15 
  > Client 48713 (4):	16 17 18 19 

+ Core Mapping:	48718 48718 48718 48718 48715 48709 48718 48711 48715 48715 48715 48715 48714 48714 48714 48714 48713 48713 48713 48713 48716 48716 48716 48716 48710 48710 48710 48710 48709 48709 48709 48709 48712 48712 48712 48712 48711 48711 48711 48711 
+ Optimal point: 5 5 5 5 4 4 4 4 4 
+++++++++++++++++++++++++++++++++++++++++++++++++++++++++++
CLIENT SHUTDOWN: client 48709
 + TIMESTAMP: 40.752
+++++++++++++++++++++++++++++++++++++++++++++++++++++++++++
+ Client Mapping:
  > Client 48711 (5):	36 37 38 39 7 
  > Client 48709 (0):	
  > Client 48715 (5):	8 9 10 11 4 
  > Client 48718 (5):	0 1 2 3 6 
  > Client 48710 (4):	24 25 26 27 
  > Client 48712 (4):	32 33 34 35 
  > Client 48716 (4):	20 21 22 23 
  > Client 48714 (4):	12 13 14 15 
  > Client 48713 (4):	16 17 18 19 

+ Core Mapping:	48718 48718 48718 48718 48715 0 48718 48711 48715 48715 48715 48715 48714 48714 48714 48714 48713 48713 48713 48713 48716 48716 48716 48716 48710 48710 48710 48710 0 0 0 0 48712 48712 48712 48712 48711 48711 48711 48711 
+ Optimal point: 5 5 5 5 4 4 4 4 4 
+++++++++++++++++++++++++++++++++++++++++++++++++++++++++++
client (48709) shutdown hint: 437.984
sum_client_shutdown_hint: 875.968
sum_client_shutdown_hint_div_time: 0
++++++++++++++++++++++++++++++++++++++++++++++++
 + TIMESTAMP: 40.7523
REINVADE (48712)
  + pid: 48712
  + min_cores: 1
  + max_cores: 512
  + scalability graph: 
1, 1.36329, 1.52423, 1.62017, 1.68565, 1.73398, 1.77154, 1.80182, 1.8269, 1.84812, 1.86637, 1.88229, 1.89634, 1.90885, 1.92009, 1.93026, 1.93952, 1.94799, 1.95579, 1.963, 1.96968, 1.9759, 1.98172, 1.98716, 1.99228, 1.9971, 2.00164, 2.00594, 2.01002, 2.01389, 2.01757, 2.02108, 2.02443, 2.02763, 2.03069, 2.03362, 2.03644, 2.03914, 2.04173, 2.04423, 
Number of clients: 8

+++++++++++++++++++++++++++++++++++++++++++++++++++++++++++
+ Client Mapping:
  > Client 48711 (5):	36 37 38 39 7 
  > Client 48715 (5):	8 9 10 11 4 
  > Client 48718 (5):	0 1 2 3 6 
  > Client 48710 (4):	24 25 26 27 
  > Client 48712 (5):	32 33 34 35 5 
  > Client 48716 (4):	20 21 22 23 
  > Client 48714 (4):	12 13 14 15 
  > Client 48713 (4):	16 17 18 19 

+ Core Mapping:	48718 48718 48718 48718 48715 48712 48718 48711 48715 48715 48715 48715 48714 48714 48714 48714 48713 48713 48713 48713 48716 48716 48716 48716 48710 48710 48710 48710 0 0 0 0 48712 48712 48712 48712 48711 48711 48711 48711 
+ Optimal point: 5 5 5 5 5 5 5 5 
+++++++++++++++++++++++++++++++++++++++++++++++++++++++++++
++++++++++++++++++++++++++++++++++++++++++++++++
 + TIMESTAMP: 40.7528
REINVADE (48710)
  + pid: 48710
  + min_cores: 1
  + max_cores: 512
  + scalability graph: 
1, 1.36329, 1.52423, 1.62017, 1.68565, 1.73398, 1.77154, 1.80182, 1.8269, 1.84812, 1.86637, 1.88229, 1.89634, 1.90885, 1.92009, 1.93026, 1.93952, 1.94799, 1.95579, 1.963, 1.96968, 1.9759, 1.98172, 1.98716, 1.99228, 1.9971, 2.00164, 2.00594, 2.01002, 2.01389, 2.01757, 2.02108, 2.02443, 2.02763, 2.03069, 2.03362, 2.03644, 2.03914, 2.04173, 2.04423, 
Number of clients: 8

+++++++++++++++++++++++++++++++++++++++++++++++++++++++++++
+ Client Mapping:
  > Client 48711 (5):	36 37 38 39 7 
  > Client 48715 (5):	8 9 10 11 4 
  > Client 48718 (5):	0 1 2 3 6 
  > Client 48710 (5):	24 25 26 27 28 
  > Client 48712 (5):	32 33 34 35 5 
  > Client 48716 (4):	20 21 22 23 
  > Client 48714 (4):	12 13 14 15 
  > Client 48713 (4):	16 17 18 19 

+ Core Mapping:	48718 48718 48718 48718 48715 48712 48718 48711 48715 48715 48715 48715 48714 48714 48714 48714 48713 48713 48713 48713 48716 48716 48716 48716 48710 48710 48710 48710 48710 0 0 0 48712 48712 48712 48712 48711 48711 48711 48711 
+ Optimal point: 5 5 5 5 5 5 5 5 
+++++++++++++++++++++++++++++++++++++++++++++++++++++++++++
++++++++++++++++++++++++++++++++++++++++++++++++
 + TIMESTAMP: 40.7529
REINVADE (48713)
  + pid: 48713
  + min_cores: 1
  + max_cores: 512
  + scalability graph: 
1, 1.36329, 1.52423, 1.62017, 1.68565, 1.73398, 1.77154, 1.80182, 1.8269, 1.84812, 1.86637, 1.88229, 1.89634, 1.90885, 1.92009, 1.93026, 1.93952, 1.94799, 1.95579, 1.963, 1.96968, 1.9759, 1.98172, 1.98716, 1.99228, 1.9971, 2.00164, 2.00594, 2.01002, 2.01389, 2.01757, 2.02108, 2.02443, 2.02763, 2.03069, 2.03362, 2.03644, 2.03914, 2.04173, 2.04423, 
Number of clients: 8

+++++++++++++++++++++++++++++++++++++++++++++++++++++++++++
+ Client Mapping:
  > Client 48711 (5):	36 37 38 39 7 
  > Client 48715 (5):	8 9 10 11 4 
  > Client 48718 (5):	0 1 2 3 6 
  > Client 48710 (5):	24 25 26 27 28 
  > Client 48712 (5):	32 33 34 35 5 
  > Client 48716 (4):	20 21 22 23 
  > Client 48714 (4):	12 13 14 15 
  > Client 48713 (5):	16 17 18 19 29 

+ Core Mapping:	48718 48718 48718 48718 48715 48712 48718 48711 48715 48715 48715 48715 48714 48714 48714 48714 48713 48713 48713 48713 48716 48716 48716 48716 48710 48710 48710 48710 48710 48713 0 0 48712 48712 48712 48712 48711 48711 48711 48711 
+ Optimal point: 5 5 5 5 5 5 5 5 
+++++++++++++++++++++++++++++++++++++++++++++++++++++++++++
++++++++++++++++++++++++++++++++++++++++++++++++
 + TIMESTAMP: 40.7533
REINVADE (48716)
  + pid: 48716
  + min_cores: 1
  + max_cores: 512
  + scalability graph: 
1, 1.36329, 1.52423, 1.62017, 1.68565, 1.73398, 1.77154, 1.80182, 1.8269, 1.84812, 1.86637, 1.88229, 1.89634, 1.90885, 1.92009, 1.93026, 1.93952, 1.94799, 1.95579, 1.963, 1.96968, 1.9759, 1.98172, 1.98716, 1.99228, 1.9971, 2.00164, 2.00594, 2.01002, 2.01389, 2.01757, 2.02108, 2.02443, 2.02763, 2.03069, 2.03362, 2.03644, 2.03914, 2.04173, 2.04423, 
Number of clients: 8

+++++++++++++++++++++++++++++++++++++++++++++++++++++++++++
+ Client Mapping:
  > Client 48711 (5):	36 37 38 39 7 
  > Client 48715 (5):	8 9 10 11 4 
  > Client 48718 (5):	0 1 2 3 6 
  > Client 48710 (5):	24 25 26 27 28 
  > Client 48712 (5):	32 33 34 35 5 
  > Client 48716 (5):	20 21 22 23 30 
  > Client 48714 (4):	12 13 14 15 
  > Client 48713 (5):	16 17 18 19 29 

+ Core Mapping:	48718 48718 48718 48718 48715 48712 48718 48711 48715 48715 48715 48715 48714 48714 48714 48714 48713 48713 48713 48713 48716 48716 48716 48716 48710 48710 48710 48710 48710 48713 48716 0 48712 48712 48712 48712 48711 48711 48711 48711 
+ Optimal point: 5 5 5 5 5 5 5 5 
+++++++++++++++++++++++++++++++++++++++++++++++++++++++++++
++++++++++++++++++++++++++++++++++++++++++++++++
 + TIMESTAMP: 40.7534
REINVADE (48714)
  + pid: 48714
  + min_cores: 1
  + max_cores: 512
  + scalability graph: 
1, 1.36329, 1.52423, 1.62017, 1.68565, 1.73398, 1.77154, 1.80182, 1.8269, 1.84812, 1.86637, 1.88229, 1.89634, 1.90885, 1.92009, 1.93026, 1.93952, 1.94799, 1.95579, 1.963, 1.96968, 1.9759, 1.98172, 1.98716, 1.99228, 1.9971, 2.00164, 2.00594, 2.01002, 2.01389, 2.01757, 2.02108, 2.02443, 2.02763, 2.03069, 2.03362, 2.03644, 2.03914, 2.04173, 2.04423, 
Number of clients: 8

+++++++++++++++++++++++++++++++++++++++++++++++++++++++++++
+ Client Mapping:
  > Client 48711 (5):	36 37 38 39 7 
  > Client 48715 (5):	8 9 10 11 4 
  > Client 48718 (5):	0 1 2 3 6 
  > Client 48710 (5):	24 25 26 27 28 
  > Client 48712 (5):	32 33 34 35 5 
  > Client 48716 (5):	20 21 22 23 30 
  > Client 48714 (5):	12 13 14 15 31 
  > Client 48713 (5):	16 17 18 19 29 

+ Core Mapping:	48718 48718 48718 48718 48715 48712 48718 48711 48715 48715 48715 48715 48714 48714 48714 48714 48713 48713 48713 48713 48716 48716 48716 48716 48710 48710 48710 48710 48710 48713 48716 48714 48712 48712 48712 48712 48711 48711 48711 48711 
+ Optimal point: 5 5 5 5 5 5 5 5 
+++++++++++++++++++++++++++++++++++++++++++++++++++++++++++
CLIENT SHUTDOWN: client 48713
 + TIMESTAMP: 40.7863
+++++++++++++++++++++++++++++++++++++++++++++++++++++++++++
+ Client Mapping:
  > Client 48711 (5):	36 37 38 39 7 
  > Client 48715 (5):	8 9 10 11 4 
  > Client 48718 (5):	0 1 2 3 6 
  > Client 48710 (5):	24 25 26 27 28 
  > Client 48712 (5):	32 33 34 35 5 
  > Client 48716 (5):	20 21 22 23 30 
  > Client 48714 (5):	12 13 14 15 31 
  > Client 48713 (0):	

+ Core Mapping:	48718 48718 48718 48718 48715 48712 48718 48711 48715 48715 48715 48715 48714 48714 48714 48714 0 0 0 0 48716 48716 48716 48716 48710 48710 48710 48710 48710 0 48716 48714 48712 48712 48712 48712 48711 48711 48711 48711 
+ Optimal point: 5 5 5 5 5 5 5 5 
+++++++++++++++++++++++++++++++++++++++++++++++++++++++++++
client (48713) shutdown hint: 437.984
sum_client_shutdown_hint: 1313.95
sum_client_shutdown_hint_div_time: 0
++++++++++++++++++++++++++++++++++++++++++++++++
 + TIMESTAMP: 40.7864
REINVADE (48711)
  + pid: 48711
  + min_cores: 1
  + max_cores: 512
  + scalability graph: 
1, 1.36329, 1.52423, 1.62017, 1.68565, 1.73398, 1.77154, 1.80182, 1.8269, 1.84812, 1.86637, 1.88229, 1.89634, 1.90885, 1.92009, 1.93026, 1.93952, 1.94799, 1.95579, 1.963, 1.96968, 1.9759, 1.98172, 1.98716, 1.99228, 1.9971, 2.00164, 2.00594, 2.01002, 2.01389, 2.01757, 2.02108, 2.02443, 2.02763, 2.03069, 2.03362, 2.03644, 2.03914, 2.04173, 2.04423, 
Number of clients: 7

+++++++++++++++++++++++++++++++++++++++++++++++++++++++++++
+ Client Mapping:
  > Client 48711 (6):	36 37 38 39 7 16 
  > Client 48715 (5):	8 9 10 11 4 
  > Client 48718 (5):	0 1 2 3 6 
  > Client 48710 (5):	24 25 26 27 28 
  > Client 48712 (5):	32 33 34 35 5 
  > Client 48716 (5):	20 21 22 23 30 
  > Client 48714 (5):	12 13 14 15 31 

+ Core Mapping:	48718 48718 48718 48718 48715 48712 48718 48711 48715 48715 48715 48715 48714 48714 48714 48714 48711 0 0 0 48716 48716 48716 48716 48710 48710 48710 48710 48710 0 48716 48714 48712 48712 48712 48712 48711 48711 48711 48711 
+ Optimal point: 6 6 6 6 6 5 5 
+++++++++++++++++++++++++++++++++++++++++++++++++++++++++++
++++++++++++++++++++++++++++++++++++++++++++++++
 + TIMESTAMP: 40.7867
REINVADE (48710)
  + pid: 48710
  + min_cores: 1
  + max_cores: 512
  + scalability graph: 
1, 1.36329, 1.52423, 1.62017, 1.68565, 1.73398, 1.77154, 1.80182, 1.8269, 1.84812, 1.86637, 1.88229, 1.89634, 1.90885, 1.92009, 1.93026, 1.93952, 1.94799, 1.95579, 1.963, 1.96968, 1.9759, 1.98172, 1.98716, 1.99228, 1.9971, 2.00164, 2.00594, 2.01002, 2.01389, 2.01757, 2.02108, 2.02443, 2.02763, 2.03069, 2.03362, 2.03644, 2.03914, 2.04173, 2.04423, 
Number of clients: 7

+++++++++++++++++++++++++++++++++++++++++++++++++++++++++++
+ Client Mapping:
  > Client 48711 (6):	36 37 38 39 7 16 
  > Client 48715 (5):	8 9 10 11 4 
  > Client 48718 (5):	0 1 2 3 6 
  > Client 48710 (6):	24 25 26 27 28 17 
  > Client 48712 (5):	32 33 34 35 5 
  > Client 48716 (5):	20 21 22 23 30 
  > Client 48714 (5):	12 13 14 15 31 

+ Core Mapping:	48718 48718 48718 48718 48715 48712 48718 48711 48715 48715 48715 48715 48714 48714 48714 48714 48711 48710 0 0 48716 48716 48716 48716 48710 48710 48710 48710 48710 0 48716 48714 48712 48712 48712 48712 48711 48711 48711 48711 
+ Optimal point: 6 6 6 6 6 5 5 
+++++++++++++++++++++++++++++++++++++++++++++++++++++++++++
++++++++++++++++++++++++++++++++++++++++++++++++
 + TIMESTAMP: 40.7869
REINVADE (48715)
  + pid: 48715
  + min_cores: 1
  + max_cores: 512
  + scalability graph: 
1, 1.36329, 1.52423, 1.62017, 1.68565, 1.73398, 1.77154, 1.80182, 1.8269, 1.84812, 1.86637, 1.88229, 1.89634, 1.90885, 1.92009, 1.93026, 1.93952, 1.94799, 1.95579, 1.963, 1.96968, 1.9759, 1.98172, 1.98716, 1.99228, 1.9971, 2.00164, 2.00594, 2.01002, 2.01389, 2.01757, 2.02108, 2.02443, 2.02763, 2.03069, 2.03362, 2.03644, 2.03914, 2.04173, 2.04423, 
Number of clients: 7

+++++++++++++++++++++++++++++++++++++++++++++++++++++++++++
+ Client Mapping:
  > Client 48711 (6):	36 37 38 39 7 16 
  > Client 48715 (6):	8 9 10 11 4 18 
  > Client 48718 (5):	0 1 2 3 6 
  > Client 48710 (6):	24 25 26 27 28 17 
  > Client 48712 (5):	32 33 34 35 5 
  > Client 48716 (5):	20 21 22 23 30 
  > Client 48714 (5):	12 13 14 15 31 

+ Core Mapping:	48718 48718 48718 48718 48715 48712 48718 48711 48715 48715 48715 48715 48714 48714 48714 48714 48711 48710 48715 0 48716 48716 48716 48716 48710 48710 48710 48710 48710 0 48716 48714 48712 48712 48712 48712 48711 48711 48711 48711 
+ Optimal point: 6 6 6 6 6 5 5 
+++++++++++++++++++++++++++++++++++++++++++++++++++++++++++
++++++++++++++++++++++++++++++++++++++++++++++++
 + TIMESTAMP: 40.7875
REINVADE (48718)
  + pid: 48718
  + min_cores: 1
  + max_cores: 512
  + scalability graph: 
1, 1.36329, 1.52423, 1.62017, 1.68565, 1.73398, 1.77154, 1.80182, 1.8269, 1.84812, 1.86637, 1.88229, 1.89634, 1.90885, 1.92009, 1.93026, 1.93952, 1.94799, 1.95579, 1.963, 1.96968, 1.9759, 1.98172, 1.98716, 1.99228, 1.9971, 2.00164, 2.00594, 2.01002, 2.01389, 2.01757, 2.02108, 2.02443, 2.02763, 2.03069, 2.03362, 2.03644, 2.03914, 2.04173, 2.04423, 
Number of clients: 7

+++++++++++++++++++++++++++++++++++++++++++++++++++++++++++
+ Client Mapping:
  > Client 48711 (6):	36 37 38 39 7 16 
  > Client 48715 (6):	8 9 10 11 4 18 
  > Client 48718 (6):	0 1 2 3 6 19 
  > Client 48710 (6):	24 25 26 27 28 17 
  > Client 48712 (5):	32 33 34 35 5 
  > Client 48716 (5):	20 21 22 23 30 
  > Client 48714 (5):	12 13 14 15 31 

+ Core Mapping:	48718 48718 48718 48718 48715 48712 48718 48711 48715 48715 48715 48715 48714 48714 48714 48714 48711 48710 48715 48718 48716 48716 48716 48716 48710 48710 48710 48710 48710 0 48716 48714 48712 48712 48712 48712 48711 48711 48711 48711 
+ Optimal point: 6 6 6 6 6 5 5 
+++++++++++++++++++++++++++++++++++++++++++++++++++++++++++
++++++++++++++++++++++++++++++++++++++++++++++++
 + TIMESTAMP: 40.7877
REINVADE (48712)
  + pid: 48712
  + min_cores: 1
  + max_cores: 512
  + scalability graph: 
1, 1.36329, 1.52423, 1.62017, 1.68565, 1.73398, 1.77154, 1.80182, 1.8269, 1.84812, 1.86637, 1.88229, 1.89634, 1.90885, 1.92009, 1.93026, 1.93952, 1.94799, 1.95579, 1.963, 1.96968, 1.9759, 1.98172, 1.98716, 1.99228, 1.9971, 2.00164, 2.00594, 2.01002, 2.01389, 2.01757, 2.02108, 2.02443, 2.02763, 2.03069, 2.03362, 2.03644, 2.03914, 2.04173, 2.04423, 
Number of clients: 7

+++++++++++++++++++++++++++++++++++++++++++++++++++++++++++
+ Client Mapping:
  > Client 48711 (6):	36 37 38 39 7 16 
  > Client 48715 (6):	8 9 10 11 4 18 
  > Client 48718 (6):	0 1 2 3 6 19 
  > Client 48710 (6):	24 25 26 27 28 17 
  > Client 48712 (6):	32 33 34 35 5 29 
  > Client 48716 (5):	20 21 22 23 30 
  > Client 48714 (5):	12 13 14 15 31 

+ Core Mapping:	48718 48718 48718 48718 48715 48712 48718 48711 48715 48715 48715 48715 48714 48714 48714 48714 48711 48710 48715 48718 48716 48716 48716 48716 48710 48710 48710 48710 48710 48712 48716 48714 48712 48712 48712 48712 48711 48711 48711 48711 
+ Optimal point: 6 6 6 6 6 5 5 
+++++++++++++++++++++++++++++++++++++++++++++++++++++++++++
CLIENT SHUTDOWN: client 48710
 + TIMESTAMP: 40.8063
+++++++++++++++++++++++++++++++++++++++++++++++++++++++++++
+ Client Mapping:
  > Client 48711 (6):	36 37 38 39 7 16 
  > Client 48715 (6):	8 9 10 11 4 18 
  > Client 48718 (6):	0 1 2 3 6 19 
  > Client 48710 (0):	
  > Client 48712 (6):	32 33 34 35 5 29 
  > Client 48716 (5):	20 21 22 23 30 
  > Client 48714 (5):	12 13 14 15 31 

+ Core Mapping:	48718 48718 48718 48718 48715 48712 48718 48711 48715 48715 48715 48715 48714 48714 48714 48714 48711 0 48715 48718 48716 48716 48716 48716 0 0 0 0 0 48712 48716 48714 48712 48712 48712 48712 48711 48711 48711 48711 
+ Optimal point: 6 6 6 6 6 5 5 
+++++++++++++++++++++++++++++++++++++++++++++++++++++++++++
client (48710) shutdown hint: 437.984
sum_client_shutdown_hint: 1751.94
sum_client_shutdown_hint_div_time: 0
++++++++++++++++++++++++++++++++++++++++++++++++
 + TIMESTAMP: 40.8065
REINVADE (48714)
  + pid: 48714
  + min_cores: 1
  + max_cores: 512
  + scalability graph: 
1, 1.36329, 1.52423, 1.62017, 1.68565, 1.73398, 1.77154, 1.80182, 1.8269, 1.84812, 1.86637, 1.88229, 1.89634, 1.90885, 1.92009, 1.93026, 1.93952, 1.94799, 1.95579, 1.963, 1.96968, 1.9759, 1.98172, 1.98716, 1.99228, 1.9971, 2.00164, 2.00594, 2.01002, 2.01389, 2.01757, 2.02108, 2.02443, 2.02763, 2.03069, 2.03362, 2.03644, 2.03914, 2.04173, 2.04423, 
Number of clients: 6

+++++++++++++++++++++++++++++++++++++++++++++++++++++++++++
+ Client Mapping:
  > Client 48711 (6):	36 37 38 39 7 16 
  > Client 48715 (6):	8 9 10 11 4 18 
  > Client 48718 (6):	0 1 2 3 6 19 
  > Client 48712 (6):	32 33 34 35 5 29 
  > Client 48716 (5):	20 21 22 23 30 
  > Client 48714 (6):	12 13 14 15 31 17 

+ Core Mapping:	48718 48718 48718 48718 48715 48712 48718 48711 48715 48715 48715 48715 48714 48714 48714 48714 48711 48714 48715 48718 48716 48716 48716 48716 0 0 0 0 0 48712 48716 48714 48712 48712 48712 48712 48711 48711 48711 48711 
+ Optimal point: 7 7 7 7 6 6 
+++++++++++++++++++++++++++++++++++++++++++++++++++++++++++
++++++++++++++++++++++++++++++++++++++++++++++++
 + TIMESTAMP: 40.8067
REINVADE (48712)
  + pid: 48712
  + min_cores: 1
  + max_cores: 512
  + scalability graph: 
1, 1.36329, 1.52423, 1.62017, 1.68565, 1.73398, 1.77154, 1.80182, 1.8269, 1.84812, 1.86637, 1.88229, 1.89634, 1.90885, 1.92009, 1.93026, 1.93952, 1.94799, 1.95579, 1.963, 1.96968, 1.9759, 1.98172, 1.98716, 1.99228, 1.9971, 2.00164, 2.00594, 2.01002, 2.01389, 2.01757, 2.02108, 2.02443, 2.02763, 2.03069, 2.03362, 2.03644, 2.03914, 2.04173, 2.04423, 
Number of clients: 6

+++++++++++++++++++++++++++++++++++++++++++++++++++++++++++
+ Client Mapping:
  > Client 48711 (6):	36 37 38 39 7 16 
  > Client 48715 (6):	8 9 10 11 4 18 
  > Client 48718 (6):	0 1 2 3 6 19 
  > Client 48712 (7):	32 33 34 35 5 29 24 
  > Client 48716 (5):	20 21 22 23 30 
  > Client 48714 (6):	12 13 14 15 31 17 

+ Core Mapping:	48718 48718 48718 48718 48715 48712 48718 48711 48715 48715 48715 48715 48714 48714 48714 48714 48711 48714 48715 48718 48716 48716 48716 48716 48712 0 0 0 0 48712 48716 48714 48712 48712 48712 48712 48711 48711 48711 48711 
+ Optimal point: 7 7 7 7 6 6 
+++++++++++++++++++++++++++++++++++++++++++++++++++++++++++
++++++++++++++++++++++++++++++++++++++++++++++++
 + TIMESTAMP: 40.8071
REINVADE (48718)
  + pid: 48718
  + min_cores: 1
  + max_cores: 512
  + scalability graph: 
1, 1.36329, 1.52423, 1.62017, 1.68565, 1.73398, 1.77154, 1.80182, 1.8269, 1.84812, 1.86637, 1.88229, 1.89634, 1.90885, 1.92009, 1.93026, 1.93952, 1.94799, 1.95579, 1.963, 1.96968, 1.9759, 1.98172, 1.98716, 1.99228, 1.9971, 2.00164, 2.00594, 2.01002, 2.01389, 2.01757, 2.02108, 2.02443, 2.02763, 2.03069, 2.03362, 2.03644, 2.03914, 2.04173, 2.04423, 
Number of clients: 6

+++++++++++++++++++++++++++++++++++++++++++++++++++++++++++
+ Client Mapping:
  > Client 48711 (6):	36 37 38 39 7 16 
  > Client 48715 (6):	8 9 10 11 4 18 
  > Client 48718 (7):	0 1 2 3 6 19 25 
  > Client 48712 (7):	32 33 34 35 5 29 24 
  > Client 48716 (5):	20 21 22 23 30 
  > Client 48714 (6):	12 13 14 15 31 17 

+ Core Mapping:	48718 48718 48718 48718 48715 48712 48718 48711 48715 48715 48715 48715 48714 48714 48714 48714 48711 48714 48715 48718 48716 48716 48716 48716 48712 48718 0 0 0 48712 48716 48714 48712 48712 48712 48712 48711 48711 48711 48711 
+ Optimal point: 7 7 7 7 6 6 
+++++++++++++++++++++++++++++++++++++++++++++++++++++++++++
++++++++++++++++++++++++++++++++++++++++++++++++
 + TIMESTAMP: 40.8072
REINVADE (48715)
  + pid: 48715
  + min_cores: 1
  + max_cores: 512
  + scalability graph: 
1, 1.36329, 1.52423, 1.62017, 1.68565, 1.73398, 1.77154, 1.80182, 1.8269, 1.84812, 1.86637, 1.88229, 1.89634, 1.90885, 1.92009, 1.93026, 1.93952, 1.94799, 1.95579, 1.963, 1.96968, 1.9759, 1.98172, 1.98716, 1.99228, 1.9971, 2.00164, 2.00594, 2.01002, 2.01389, 2.01757, 2.02108, 2.02443, 2.02763, 2.03069, 2.03362, 2.03644, 2.03914, 2.04173, 2.04423, 
Number of clients: 6

+++++++++++++++++++++++++++++++++++++++++++++++++++++++++++
+ Client Mapping:
  > Client 48711 (6):	36 37 38 39 7 16 
  > Client 48715 (7):	8 9 10 11 4 18 26 
  > Client 48718 (7):	0 1 2 3 6 19 25 
  > Client 48712 (7):	32 33 34 35 5 29 24 
  > Client 48716 (5):	20 21 22 23 30 
  > Client 48714 (6):	12 13 14 15 31 17 

+ Core Mapping:	48718 48718 48718 48718 48715 48712 48718 48711 48715 48715 48715 48715 48714 48714 48714 48714 48711 48714 48715 48718 48716 48716 48716 48716 48712 48718 48715 0 0 48712 48716 48714 48712 48712 48712 48712 48711 48711 48711 48711 
+ Optimal point: 7 7 7 7 6 6 
+++++++++++++++++++++++++++++++++++++++++++++++++++++++++++
++++++++++++++++++++++++++++++++++++++++++++++++
 + TIMESTAMP: 40.8074
REINVADE (48711)
  + pid: 48711
  + min_cores: 1
  + max_cores: 512
  + scalability graph: 
1, 1.36329, 1.52423, 1.62017, 1.68565, 1.73398, 1.77154, 1.80182, 1.8269, 1.84812, 1.86637, 1.88229, 1.89634, 1.90885, 1.92009, 1.93026, 1.93952, 1.94799, 1.95579, 1.963, 1.96968, 1.9759, 1.98172, 1.98716, 1.99228, 1.9971, 2.00164, 2.00594, 2.01002, 2.01389, 2.01757, 2.02108, 2.02443, 2.02763, 2.03069, 2.03362, 2.03644, 2.03914, 2.04173, 2.04423, 
Number of clients: 6

+++++++++++++++++++++++++++++++++++++++++++++++++++++++++++
+ Client Mapping:
  > Client 48711 (7):	36 37 38 39 7 16 27 
  > Client 48715 (7):	8 9 10 11 4 18 26 
  > Client 48718 (7):	0 1 2 3 6 19 25 
  > Client 48712 (7):	32 33 34 35 5 29 24 
  > Client 48716 (5):	20 21 22 23 30 
  > Client 48714 (6):	12 13 14 15 31 17 

+ Core Mapping:	48718 48718 48718 48718 48715 48712 48718 48711 48715 48715 48715 48715 48714 48714 48714 48714 48711 48714 48715 48718 48716 48716 48716 48716 48712 48718 48715 48711 0 48712 48716 48714 48712 48712 48712 48712 48711 48711 48711 48711 
+ Optimal point: 7 7 7 7 6 6 
+++++++++++++++++++++++++++++++++++++++++++++++++++++++++++
++++++++++++++++++++++++++++++++++++++++++++++++
 + TIMESTAMP: 40.8075
REINVADE (48716)
  + pid: 48716
  + min_cores: 1
  + max_cores: 512
  + scalability graph: 
1, 1.36329, 1.52423, 1.62017, 1.68565, 1.73398, 1.77154, 1.80182, 1.8269, 1.84812, 1.86637, 1.88229, 1.89634, 1.90885, 1.92009, 1.93026, 1.93952, 1.94799, 1.95579, 1.963, 1.96968, 1.9759, 1.98172, 1.98716, 1.99228, 1.9971, 2.00164, 2.00594, 2.01002, 2.01389, 2.01757, 2.02108, 2.02443, 2.02763, 2.03069, 2.03362, 2.03644, 2.03914, 2.04173, 2.04423, 
Number of clients: 6

+++++++++++++++++++++++++++++++++++++++++++++++++++++++++++
+ Client Mapping:
  > Client 48711 (7):	36 37 38 39 7 16 27 
  > Client 48715 (7):	8 9 10 11 4 18 26 
  > Client 48718 (7):	0 1 2 3 6 19 25 
  > Client 48712 (7):	32 33 34 35 5 29 24 
  > Client 48716 (6):	20 21 22 23 30 28 
  > Client 48714 (6):	12 13 14 15 31 17 

+ Core Mapping:	48718 48718 48718 48718 48715 48712 48718 48711 48715 48715 48715 48715 48714 48714 48714 48714 48711 48714 48715 48718 48716 48716 48716 48716 48712 48718 48715 48711 48716 48712 48716 48714 48712 48712 48712 48712 48711 48711 48711 48711 
+ Optimal point: 7 7 7 7 6 6 
+++++++++++++++++++++++++++++++++++++++++++++++++++++++++++
CLIENT SHUTDOWN: client 48714
 + TIMESTAMP: 41.0001
+++++++++++++++++++++++++++++++++++++++++++++++++++++++++++
+ Client Mapping:
  > Client 48711 (7):	36 37 38 39 7 16 27 
  > Client 48715 (7):	8 9 10 11 4 18 26 
  > Client 48718 (7):	0 1 2 3 6 19 25 
  > Client 48712 (7):	32 33 34 35 5 29 24 
  > Client 48716 (6):	20 21 22 23 30 28 
  > Client 48714 (0):	

+ Core Mapping:	48718 48718 48718 48718 48715 48712 48718 48711 48715 48715 48715 48715 0 0 0 0 48711 0 48715 48718 48716 48716 48716 48716 48712 48718 48715 48711 48716 48712 48716 0 48712 48712 48712 48712 48711 48711 48711 48711 
+ Optimal point: 7 7 7 7 6 6 
+++++++++++++++++++++++++++++++++++++++++++++++++++++++++++
client (48714) shutdown hint: 437.984
sum_client_shutdown_hint: 2189.92
sum_client_shutdown_hint_div_time: 0
++++++++++++++++++++++++++++++++++++++++++++++++
 + TIMESTAMP: 41.0002
REINVADE (48718)
  + pid: 48718
  + min_cores: 1
  + max_cores: 512
  + scalability graph: 
1, 1.36329, 1.52423, 1.62017, 1.68565, 1.73398, 1.77154, 1.80182, 1.8269, 1.84812, 1.86637, 1.88229, 1.89634, 1.90885, 1.92009, 1.93026, 1.93952, 1.94799, 1.95579, 1.963, 1.96968, 1.9759, 1.98172, 1.98716, 1.99228, 1.9971, 2.00164, 2.00594, 2.01002, 2.01389, 2.01757, 2.02108, 2.02443, 2.02763, 2.03069, 2.03362, 2.03644, 2.03914, 2.04173, 2.04423, 
Number of clients: 5

+++++++++++++++++++++++++++++++++++++++++++++++++++++++++++
+ Client Mapping:
  > Client 48711 (7):	36 37 38 39 7 16 27 
  > Client 48715 (7):	8 9 10 11 4 18 26 
  > Client 48718 (8):	0 1 2 3 6 19 25 12 
  > Client 48712 (7):	32 33 34 35 5 29 24 
  > Client 48716 (6):	20 21 22 23 30 28 

+ Core Mapping:	48718 48718 48718 48718 48715 48712 48718 48711 48715 48715 48715 48715 48718 0 0 0 48711 0 48715 48718 48716 48716 48716 48716 48712 48718 48715 48711 48716 48712 48716 0 48712 48712 48712 48712 48711 48711 48711 48711 
+ Optimal point: 8 8 8 8 8 
+++++++++++++++++++++++++++++++++++++++++++++++++++++++++++
++++++++++++++++++++++++++++++++++++++++++++++++
 + TIMESTAMP: 41.0004
REINVADE (48711)
  + pid: 48711
  + min_cores: 1
  + max_cores: 512
  + scalability graph: 
1, 1.36329, 1.52423, 1.62017, 1.68565, 1.73398, 1.77154, 1.80182, 1.8269, 1.84812, 1.86637, 1.88229, 1.89634, 1.90885, 1.92009, 1.93026, 1.93952, 1.94799, 1.95579, 1.963, 1.96968, 1.9759, 1.98172, 1.98716, 1.99228, 1.9971, 2.00164, 2.00594, 2.01002, 2.01389, 2.01757, 2.02108, 2.02443, 2.02763, 2.03069, 2.03362, 2.03644, 2.03914, 2.04173, 2.04423, 
Number of clients: 5

+++++++++++++++++++++++++++++++++++++++++++++++++++++++++++
+ Client Mapping:
  > Client 48711 (8):	36 37 38 39 7 16 27 13 
  > Client 48715 (7):	8 9 10 11 4 18 26 
  > Client 48718 (8):	0 1 2 3 6 19 25 12 
  > Client 48712 (7):	32 33 34 35 5 29 24 
  > Client 48716 (6):	20 21 22 23 30 28 

+ Core Mapping:	48718 48718 48718 48718 48715 48712 48718 48711 48715 48715 48715 48715 48718 48711 0 0 48711 0 48715 48718 48716 48716 48716 48716 48712 48718 48715 48711 48716 48712 48716 0 48712 48712 48712 48712 48711 48711 48711 48711 
+ Optimal point: 8 8 8 8 8 
+++++++++++++++++++++++++++++++++++++++++++++++++++++++++++
++++++++++++++++++++++++++++++++++++++++++++++++
 + TIMESTAMP: 41.0009
REINVADE (48715)
  + pid: 48715
  + min_cores: 1
  + max_cores: 512
  + scalability graph: 
1, 1.36329, 1.52423, 1.62017, 1.68565, 1.73398, 1.77154, 1.80182, 1.8269, 1.84812, 1.86637, 1.88229, 1.89634, 1.90885, 1.92009, 1.93026, 1.93952, 1.94799, 1.95579, 1.963, 1.96968, 1.9759, 1.98172, 1.98716, 1.99228, 1.9971, 2.00164, 2.00594, 2.01002, 2.01389, 2.01757, 2.02108, 2.02443, 2.02763, 2.03069, 2.03362, 2.03644, 2.03914, 2.04173, 2.04423, 
Number of clients: 5

+++++++++++++++++++++++++++++++++++++++++++++++++++++++++++
+ Client Mapping:
  > Client 48711 (8):	36 37 38 39 7 16 27 13 
  > Client 48715 (8):	8 9 10 11 4 18 26 14 
  > Client 48718 (8):	0 1 2 3 6 19 25 12 
  > Client 48712 (7):	32 33 34 35 5 29 24 
  > Client 48716 (6):	20 21 22 23 30 28 

+ Core Mapping:	48718 48718 48718 48718 48715 48712 48718 48711 48715 48715 48715 48715 48718 48711 48715 0 48711 0 48715 48718 48716 48716 48716 48716 48712 48718 48715 48711 48716 48712 48716 0 48712 48712 48712 48712 48711 48711 48711 48711 
+ Optimal point: 8 8 8 8 8 
+++++++++++++++++++++++++++++++++++++++++++++++++++++++++++
++++++++++++++++++++++++++++++++++++++++++++++++
 + TIMESTAMP: 41.0012
REINVADE (48712)
  + pid: 48712
  + min_cores: 1
  + max_cores: 512
  + scalability graph: 
1, 1.36329, 1.52423, 1.62017, 1.68565, 1.73398, 1.77154, 1.80182, 1.8269, 1.84812, 1.86637, 1.88229, 1.89634, 1.90885, 1.92009, 1.93026, 1.93952, 1.94799, 1.95579, 1.963, 1.96968, 1.9759, 1.98172, 1.98716, 1.99228, 1.9971, 2.00164, 2.00594, 2.01002, 2.01389, 2.01757, 2.02108, 2.02443, 2.02763, 2.03069, 2.03362, 2.03644, 2.03914, 2.04173, 2.04423, 
Number of clients: 5

+++++++++++++++++++++++++++++++++++++++++++++++++++++++++++
+ Client Mapping:
  > Client 48711 (8):	36 37 38 39 7 16 27 13 
  > Client 48715 (8):	8 9 10 11 4 18 26 14 
  > Client 48718 (8):	0 1 2 3 6 19 25 12 
  > Client 48712 (8):	32 33 34 35 5 29 24 15 
  > Client 48716 (6):	20 21 22 23 30 28 

+ Core Mapping:	48718 48718 48718 48718 48715 48712 48718 48711 48715 48715 48715 48715 48718 48711 48715 48712 48711 0 48715 48718 48716 48716 48716 48716 48712 48718 48715 48711 48716 48712 48716 0 48712 48712 48712 48712 48711 48711 48711 48711 
+ Optimal point: 8 8 8 8 8 
+++++++++++++++++++++++++++++++++++++++++++++++++++++++++++
++++++++++++++++++++++++++++++++++++++++++++++++
 + TIMESTAMP: 41.0013
REINVADE (48716)
  + pid: 48716
  + min_cores: 1
  + max_cores: 512
  + scalability graph: 
1, 1.36329, 1.52423, 1.62017, 1.68565, 1.73398, 1.77154, 1.80182, 1.8269, 1.84812, 1.86637, 1.88229, 1.89634, 1.90885, 1.92009, 1.93026, 1.93952, 1.94799, 1.95579, 1.963, 1.96968, 1.9759, 1.98172, 1.98716, 1.99228, 1.9971, 2.00164, 2.00594, 2.01002, 2.01389, 2.01757, 2.02108, 2.02443, 2.02763, 2.03069, 2.03362, 2.03644, 2.03914, 2.04173, 2.04423, 
Number of clients: 5

+++++++++++++++++++++++++++++++++++++++++++++++++++++++++++
+ Client Mapping:
  > Client 48711 (8):	36 37 38 39 7 16 27 13 
  > Client 48715 (8):	8 9 10 11 4 18 26 14 
  > Client 48718 (8):	0 1 2 3 6 19 25 12 
  > Client 48712 (8):	32 33 34 35 5 29 24 15 
  > Client 48716 (8):	20 21 22 23 30 28 17 31 

+ Core Mapping:	48718 48718 48718 48718 48715 48712 48718 48711 48715 48715 48715 48715 48718 48711 48715 48712 48711 48716 48715 48718 48716 48716 48716 48716 48712 48718 48715 48711 48716 48712 48716 48716 48712 48712 48712 48712 48711 48711 48711 48711 
+ Optimal point: 8 8 8 8 8 
+++++++++++++++++++++++++++++++++++++++++++++++++++++++++++
CLIENT SHUTDOWN: client 48716
 + TIMESTAMP: 41.0705
+++++++++++++++++++++++++++++++++++++++++++++++++++++++++++
+ Client Mapping:
  > Client 48711 (8):	36 37 38 39 7 16 27 13 
  > Client 48715 (8):	8 9 10 11 4 18 26 14 
  > Client 48718 (8):	0 1 2 3 6 19 25 12 
  > Client 48712 (8):	32 33 34 35 5 29 24 15 
  > Client 48716 (0):	

+ Core Mapping:	48718 48718 48718 48718 48715 48712 48718 48711 48715 48715 48715 48715 48718 48711 48715 48712 48711 0 48715 48718 0 0 0 0 48712 48718 48715 48711 0 48712 0 0 48712 48712 48712 48712 48711 48711 48711 48711 
+ Optimal point: 8 8 8 8 8 
+++++++++++++++++++++++++++++++++++++++++++++++++++++++++++
client (48716) shutdown hint: 437.984
sum_client_shutdown_hint: 2627.9
sum_client_shutdown_hint_div_time: 0
++++++++++++++++++++++++++++++++++++++++++++++++
 + TIMESTAMP: 41.071
REINVADE (48718)
  + pid: 48718
  + min_cores: 1
  + max_cores: 512
  + scalability graph: 
1, 1.36329, 1.52423, 1.62017, 1.68565, 1.73398, 1.77154, 1.80182, 1.8269, 1.84812, 1.86637, 1.88229, 1.89634, 1.90885, 1.92009, 1.93026, 1.93952, 1.94799, 1.95579, 1.963, 1.96968, 1.9759, 1.98172, 1.98716, 1.99228, 1.9971, 2.00164, 2.00594, 2.01002, 2.01389, 2.01757, 2.02108, 2.02443, 2.02763, 2.03069, 2.03362, 2.03644, 2.03914, 2.04173, 2.04423, 
Number of clients: 4

+++++++++++++++++++++++++++++++++++++++++++++++++++++++++++
+ Client Mapping:
  > Client 48711 (8):	36 37 38 39 7 16 27 13 
  > Client 48715 (8):	8 9 10 11 4 18 26 14 
  > Client 48718 (10):	0 1 2 3 6 19 25 12 17 20 
  > Client 48712 (8):	32 33 34 35 5 29 24 15 

+ Core Mapping:	48718 48718 48718 48718 48715 48712 48718 48711 48715 48715 48715 48715 48718 48711 48715 48712 48711 48718 48715 48718 48718 0 0 0 48712 48718 48715 48711 0 48712 0 0 48712 48712 48712 48712 48711 48711 48711 48711 
+ Optimal point: 10 10 10 10 
+++++++++++++++++++++++++++++++++++++++++++++++++++++++++++
++++++++++++++++++++++++++++++++++++++++++++++++
 + TIMESTAMP: 41.0711
REINVADE (48711)
  + pid: 48711
  + min_cores: 1
  + max_cores: 512
  + scalability graph: 
1, 1.36329, 1.52423, 1.62017, 1.68565, 1.73398, 1.77154, 1.80182, 1.8269, 1.84812, 1.86637, 1.88229, 1.89634, 1.90885, 1.92009, 1.93026, 1.93952, 1.94799, 1.95579, 1.963, 1.96968, 1.9759, 1.98172, 1.98716, 1.99228, 1.9971, 2.00164, 2.00594, 2.01002, 2.01389, 2.01757, 2.02108, 2.02443, 2.02763, 2.03069, 2.03362, 2.03644, 2.03914, 2.04173, 2.04423, 
Number of clients: 4

+++++++++++++++++++++++++++++++++++++++++++++++++++++++++++
+ Client Mapping:
  > Client 48711 (10):	36 37 38 39 7 16 27 13 21 22 
  > Client 48715 (8):	8 9 10 11 4 18 26 14 
  > Client 48718 (10):	0 1 2 3 6 19 25 12 17 20 
  > Client 48712 (8):	32 33 34 35 5 29 24 15 

+ Core Mapping:	48718 48718 48718 48718 48715 48712 48718 48711 48715 48715 48715 48715 48718 48711 48715 48712 48711 48718 48715 48718 48718 48711 48711 0 48712 48718 48715 48711 0 48712 0 0 48712 48712 48712 48712 48711 48711 48711 48711 
+ Optimal point: 10 10 10 10 
+++++++++++++++++++++++++++++++++++++++++++++++++++++++++++
++++++++++++++++++++++++++++++++++++++++++++++++
 + TIMESTAMP: 41.0712
REINVADE (48715)
  + pid: 48715
  + min_cores: 1
  + max_cores: 512
  + scalability graph: 
1, 1.36329, 1.52423, 1.62017, 1.68565, 1.73398, 1.77154, 1.80182, 1.8269, 1.84812, 1.86637, 1.88229, 1.89634, 1.90885, 1.92009, 1.93026, 1.93952, 1.94799, 1.95579, 1.963, 1.96968, 1.9759, 1.98172, 1.98716, 1.99228, 1.9971, 2.00164, 2.00594, 2.01002, 2.01389, 2.01757, 2.02108, 2.02443, 2.02763, 2.03069, 2.03362, 2.03644, 2.03914, 2.04173, 2.04423, 
Number of clients: 4

+++++++++++++++++++++++++++++++++++++++++++++++++++++++++++
+ Client Mapping:
  > Client 48711 (10):	36 37 38 39 7 16 27 13 21 22 
  > Client 48715 (10):	8 9 10 11 4 18 26 14 23 28 
  > Client 48718 (10):	0 1 2 3 6 19 25 12 17 20 
  > Client 48712 (8):	32 33 34 35 5 29 24 15 

+ Core Mapping:	48718 48718 48718 48718 48715 48712 48718 48711 48715 48715 48715 48715 48718 48711 48715 48712 48711 48718 48715 48718 48718 48711 48711 48715 48712 48718 48715 48711 48715 48712 0 0 48712 48712 48712 48712 48711 48711 48711 48711 
+ Optimal point: 10 10 10 10 
+++++++++++++++++++++++++++++++++++++++++++++++++++++++++++
++++++++++++++++++++++++++++++++++++++++++++++++
 + TIMESTAMP: 41.0716
REINVADE (48712)
  + pid: 48712
  + min_cores: 1
  + max_cores: 512
  + scalability graph: 
1, 1.36329, 1.52423, 1.62017, 1.68565, 1.73398, 1.77154, 1.80182, 1.8269, 1.84812, 1.86637, 1.88229, 1.89634, 1.90885, 1.92009, 1.93026, 1.93952, 1.94799, 1.95579, 1.963, 1.96968, 1.9759, 1.98172, 1.98716, 1.99228, 1.9971, 2.00164, 2.00594, 2.01002, 2.01389, 2.01757, 2.02108, 2.02443, 2.02763, 2.03069, 2.03362, 2.03644, 2.03914, 2.04173, 2.04423, 
Number of clients: 4

+++++++++++++++++++++++++++++++++++++++++++++++++++++++++++
+ Client Mapping:
  > Client 48711 (10):	36 37 38 39 7 16 27 13 21 22 
  > Client 48715 (10):	8 9 10 11 4 18 26 14 23 28 
  > Client 48718 (10):	0 1 2 3 6 19 25 12 17 20 
  > Client 48712 (10):	32 33 34 35 5 29 24 15 30 31 

+ Core Mapping:	48718 48718 48718 48718 48715 48712 48718 48711 48715 48715 48715 48715 48718 48711 48715 48712 48711 48718 48715 48718 48718 48711 48711 48715 48712 48718 48715 48711 48715 48712 48712 48712 48712 48712 48712 48712 48711 48711 48711 48711 
+ Optimal point: 10 10 10 10 
+++++++++++++++++++++++++++++++++++++++++++++++++++++++++++
CLIENT SHUTDOWN: client 48712
 + TIMESTAMP: 41.1725
+++++++++++++++++++++++++++++++++++++++++++++++++++++++++++
+ Client Mapping:
  > Client 48711 (10):	36 37 38 39 7 16 27 13 21 22 
  > Client 48715 (10):	8 9 10 11 4 18 26 14 23 28 
  > Client 48718 (10):	0 1 2 3 6 19 25 12 17 20 
  > Client 48712 (0):	

+ Core Mapping:	48718 48718 48718 48718 48715 0 48718 48711 48715 48715 48715 48715 48718 48711 48715 0 48711 48718 48715 48718 48718 48711 48711 48715 0 48718 48715 48711 48715 0 0 0 0 0 0 0 48711 48711 48711 48711 
+ Optimal point: 10 10 10 10 
+++++++++++++++++++++++++++++++++++++++++++++++++++++++++++
client (48712) shutdown hint: 437.984
sum_client_shutdown_hint: 3065.89
sum_client_shutdown_hint_div_time: 0
++++++++++++++++++++++++++++++++++++++++++++++++
 + TIMESTAMP: 41.1734
REINVADE (48715)
  + pid: 48715
  + min_cores: 1
  + max_cores: 512
  + scalability graph: 
1, 1.36329, 1.52423, 1.62017, 1.68565, 1.73398, 1.77154, 1.80182, 1.8269, 1.84812, 1.86637, 1.88229, 1.89634, 1.90885, 1.92009, 1.93026, 1.93952, 1.94799, 1.95579, 1.963, 1.96968, 1.9759, 1.98172, 1.98716, 1.99228, 1.9971, 2.00164, 2.00594, 2.01002, 2.01389, 2.01757, 2.02108, 2.02443, 2.02763, 2.03069, 2.03362, 2.03644, 2.03914, 2.04173, 2.04423, 
Number of clients: 3

+++++++++++++++++++++++++++++++++++++++++++++++++++++++++++
+ Client Mapping:
  > Client 48711 (10):	36 37 38 39 7 16 27 13 21 22 
  > Client 48715 (13):	8 9 10 11 4 18 26 14 23 28 5 15 24 
  > Client 48718 (10):	0 1 2 3 6 19 25 12 17 20 

+ Core Mapping:	48718 48718 48718 48718 48715 48715 48718 48711 48715 48715 48715 48715 48718 48711 48715 48715 48711 48718 48715 48718 48718 48711 48711 48715 48715 48718 48715 48711 48715 0 0 0 0 0 0 0 48711 48711 48711 48711 
+ Optimal point: 14 13 13 
+++++++++++++++++++++++++++++++++++++++++++++++++++++++++++
++++++++++++++++++++++++++++++++++++++++++++++++
 + TIMESTAMP: 41.1736
REINVADE (48711)
  + pid: 48711
  + min_cores: 1
  + max_cores: 512
  + scalability graph: 
1, 1.36329, 1.52423, 1.62017, 1.68565, 1.73398, 1.77154, 1.80182, 1.8269, 1.84812, 1.86637, 1.88229, 1.89634, 1.90885, 1.92009, 1.93026, 1.93952, 1.94799, 1.95579, 1.963, 1.96968, 1.9759, 1.98172, 1.98716, 1.99228, 1.9971, 2.00164, 2.00594, 2.01002, 2.01389, 2.01757, 2.02108, 2.02443, 2.02763, 2.03069, 2.03362, 2.03644, 2.03914, 2.04173, 2.04423, 
Number of clients: 3

+++++++++++++++++++++++++++++++++++++++++++++++++++++++++++
+ Client Mapping:
  > Client 48711 (14):	36 37 38 39 7 16 27 13 21 22 29 30 31 32 
  > Client 48715 (13):	8 9 10 11 4 18 26 14 23 28 5 15 24 
  > Client 48718 (10):	0 1 2 3 6 19 25 12 17 20 

+ Core Mapping:	48718 48718 48718 48718 48715 48715 48718 48711 48715 48715 48715 48715 48718 48711 48715 48715 48711 48718 48715 48718 48718 48711 48711 48715 48715 48718 48715 48711 48715 48711 48711 48711 48711 0 0 0 48711 48711 48711 48711 
+ Optimal point: 14 13 13 
+++++++++++++++++++++++++++++++++++++++++++++++++++++++++++
++++++++++++++++++++++++++++++++++++++++++++++++
 + TIMESTAMP: 41.1738
REINVADE (48718)
  + pid: 48718
  + min_cores: 1
  + max_cores: 512
  + scalability graph: 
1, 1.36329, 1.52423, 1.62017, 1.68565, 1.73398, 1.77154, 1.80182, 1.8269, 1.84812, 1.86637, 1.88229, 1.89634, 1.90885, 1.92009, 1.93026, 1.93952, 1.94799, 1.95579, 1.963, 1.96968, 1.9759, 1.98172, 1.98716, 1.99228, 1.9971, 2.00164, 2.00594, 2.01002, 2.01389, 2.01757, 2.02108, 2.02443, 2.02763, 2.03069, 2.03362, 2.03644, 2.03914, 2.04173, 2.04423, 
Number of clients: 3

+++++++++++++++++++++++++++++++++++++++++++++++++++++++++++
+ Client Mapping:
  > Client 48711 (14):	36 37 38 39 7 16 27 13 21 22 29 30 31 32 
  > Client 48715 (13):	8 9 10 11 4 18 26 14 23 28 5 15 24 
  > Client 48718 (13):	0 1 2 3 6 19 25 12 17 20 33 34 35 

+ Core Mapping:	48718 48718 48718 48718 48715 48715 48718 48711 48715 48715 48715 48715 48718 48711 48715 48715 48711 48718 48715 48718 48718 48711 48711 48715 48715 48718 48715 48711 48715 48711 48711 48711 48711 48718 48718 48718 48711 48711 48711 48711 
+ Optimal point: 14 13 13 
+++++++++++++++++++++++++++++++++++++++++++++++++++++++++++
CLIENT SHUTDOWN: client 48715
 + TIMESTAMP: 41.6117
+++++++++++++++++++++++++++++++++++++++++++++++++++++++++++
+ Client Mapping:
  > Client 48711 (14):	36 37 38 39 7 16 27 13 21 22 29 30 31 32 
  > Client 48715 (0):	
  > Client 48718 (13):	0 1 2 3 6 19 25 12 17 20 33 34 35 

+ Core Mapping:	48718 48718 48718 48718 0 0 48718 48711 0 0 0 0 48718 48711 0 0 48711 48718 0 48718 48718 48711 48711 0 0 48718 0 48711 0 48711 48711 48711 48711 48718 48718 48718 48711 48711 48711 48711 
+ Optimal point: 14 13 13 
+++++++++++++++++++++++++++++++++++++++++++++++++++++++++++
client (48715) shutdown hint: 437.984
sum_client_shutdown_hint: 3503.87
sum_client_shutdown_hint_div_time: 0
++++++++++++++++++++++++++++++++++++++++++++++++
 + TIMESTAMP: 41.6125
REINVADE (48711)
  + pid: 48711
  + min_cores: 1
  + max_cores: 512
  + scalability graph: 
1, 1.36329, 1.52423, 1.62017, 1.68565, 1.73398, 1.77154, 1.80182, 1.8269, 1.84812, 1.86637, 1.88229, 1.89634, 1.90885, 1.92009, 1.93026, 1.93952, 1.94799, 1.95579, 1.963, 1.96968, 1.9759, 1.98172, 1.98716, 1.99228, 1.9971, 2.00164, 2.00594, 2.01002, 2.01389, 2.01757, 2.02108, 2.02443, 2.02763, 2.03069, 2.03362, 2.03644, 2.03914, 2.04173, 2.04423, 
Number of clients: 2

+++++++++++++++++++++++++++++++++++++++++++++++++++++++++++
+ Client Mapping:
  > Client 48711 (20):	36 37 38 39 7 16 27 13 21 22 29 30 31 32 4 5 8 9 10 11 
  > Client 48718 (13):	0 1 2 3 6 19 25 12 17 20 33 34 35 

+ Core Mapping:	48718 48718 48718 48718 48711 48711 48718 48711 48711 48711 48711 48711 48718 48711 0 0 48711 48718 0 48718 48718 48711 48711 0 0 48718 0 48711 0 48711 48711 48711 48711 48718 48718 48718 48711 48711 48711 48711 
+ Optimal point: 20 20 
+++++++++++++++++++++++++++++++++++++++++++++++++++++++++++
++++++++++++++++++++++++++++++++++++++++++++++++
 + TIMESTAMP: 41.6127
REINVADE (48718)
  + pid: 48718
  + min_cores: 1
  + max_cores: 512
  + scalability graph: 
1, 1.36329, 1.52423, 1.62017, 1.68565, 1.73398, 1.77154, 1.80182, 1.8269, 1.84812, 1.86637, 1.88229, 1.89634, 1.90885, 1.92009, 1.93026, 1.93952, 1.94799, 1.95579, 1.963, 1.96968, 1.9759, 1.98172, 1.98716, 1.99228, 1.9971, 2.00164, 2.00594, 2.01002, 2.01389, 2.01757, 2.02108, 2.02443, 2.02763, 2.03069, 2.03362, 2.03644, 2.03914, 2.04173, 2.04423, 
Number of clients: 2

+++++++++++++++++++++++++++++++++++++++++++++++++++++++++++
+ Client Mapping:
  > Client 48711 (20):	36 37 38 39 7 16 27 13 21 22 29 30 31 32 4 5 8 9 10 11 
  > Client 48718 (20):	0 1 2 3 6 19 25 12 17 20 33 34 35 14 15 18 23 24 26 28 

+ Core Mapping:	48718 48718 48718 48718 48711 48711 48718 48711 48711 48711 48711 48711 48718 48711 48718 48718 48711 48718 48718 48718 48718 48711 48711 48718 48718 48718 48718 48711 48718 48711 48711 48711 48711 48718 48718 48718 48711 48711 48711 48711 
+ Optimal point: 20 20 
+++++++++++++++++++++++++++++++++++++++++++++++++++++++++++
CLIENT SHUTDOWN: client 48711
 + TIMESTAMP: 41.7168
+++++++++++++++++++++++++++++++++++++++++++++++++++++++++++
+ Client Mapping:
  > Client 48711 (0):	
  > Client 48718 (20):	0 1 2 3 6 19 25 12 17 20 33 34 35 14 15 18 23 24 26 28 

+ Core Mapping:	48718 48718 48718 48718 0 0 48718 0 0 0 0 0 48718 0 48718 48718 0 48718 48718 48718 48718 0 0 48718 48718 48718 48718 0 48718 0 0 0 0 48718 48718 48718 0 0 0 0 
+ Optimal point: 20 20 
+++++++++++++++++++++++++++++++++++++++++++++++++++++++++++
client (48711) shutdown hint: 437.984
sum_client_shutdown_hint: 3941.86
sum_client_shutdown_hint_div_time: 0
++++++++++++++++++++++++++++++++++++++++++++++++
 + TIMESTAMP: 41.7169
REINVADE (48718)
  + pid: 48718
  + min_cores: 1
  + max_cores: 512
  + scalability graph: 
1, 1.36329, 1.52423, 1.62017, 1.68565, 1.73398, 1.77154, 1.80182, 1.8269, 1.84812, 1.86637, 1.88229, 1.89634, 1.90885, 1.92009, 1.93026, 1.93952, 1.94799, 1.95579, 1.963, 1.96968, 1.9759, 1.98172, 1.98716, 1.99228, 1.9971, 2.00164, 2.00594, 2.01002, 2.01389, 2.01757, 2.02108, 2.02443, 2.02763, 2.03069, 2.03362, 2.03644, 2.03914, 2.04173, 2.04423, 
Number of clients: 1

+++++++++++++++++++++++++++++++++++++++++++++++++++++++++++
+ Client Mapping:
  > Client 48718 (40):	0 1 2 3 6 19 25 12 17 20 33 34 35 14 15 18 23 24 26 28 4 5 7 8 9 10 11 13 16 21 22 27 29 30 31 32 36 37 38 39 

+ Core Mapping:	48718 48718 48718 48718 48718 48718 48718 48718 48718 48718 48718 48718 48718 48718 48718 48718 48718 48718 48718 48718 48718 48718 48718 48718 48718 48718 48718 48718 48718 48718 48718 48718 48718 48718 48718 48718 48718 48718 48718 48718 
+ Optimal point: 40 
+++++++++++++++++++++++++++++++++++++++++++++++++++++++++++
CLIENT SHUTDOWN: client 48718
 + TIMESTAMP: 42.5252
+++++++++++++++++++++++++++++++++++++++++++++++++++++++++++
+ Client Mapping:
  > Client 48718 (0):	

+ Core Mapping:	0 0 0 0 0 0 0 0 0 0 0 0 0 0 0 0 0 0 0 0 0 0 0 0 0 0 0 0 0 0 0 0 0 0 0 0 0 0 0 0 
+ Optimal point: 40 
+++++++++++++++++++++++++++++++++++++++++++++++++++++++++++
client (48718) shutdown hint: 437.984
sum_client_shutdown_hint: 4379.84
sum_client_shutdown_hint_div_time: 0
END TIMESTAMP: 42.5253
OVERALL TIME: 42.233
 + sum_client_shutdown_hint: 4379.84
 + sum_client_shutdown_hint/time: 103.706
sum_client_shutdown_hint: 4379.84
sum_client_shutdown_hint_div_time: 103.706
