0	0
256.387	0
512.774	0
769.161	0
1025.55	0
1281.94	0
1538.32	0
1794.71	0
2051.1	0
2307.48	0
2563.87	0.000625467
2820.26	0.00183814
3076.64	0.00418027
3333.03	0.00777739
3589.42	0.0127892
3845.81	0.0189173
4102.19	0.0256967
4358.58	0.0324252
4614.97	0.0384544
4871.35	0.0432341
5127.74	0.0464131
5384.12	0.0477952
5640.51	0.0473391
5896.9	0.0451238
6153.28	0.0413386
6409.67	0.0362501
6666.05	0.0301776
6922.44	0.0234658
7178.82	0.0164675
7435.21	0.00952564
7691.59	0.00295284
7947.98	-0.00299148
8204.37	-0.00812051
8460.75	-0.0123301
8717.14	-0.0155964
8973.53	-0.0179633
9229.91	-0.0195229
9486.3	-0.0203942
9742.69	-0.0207032
9999.08	-0.0205679
10255.5	-0.0200891
10511.8	-0.0193469
10768.2	-0.0184027
11024.6	-0.0173038
11281	-0.0160897
11537.4	-0.0147962
11793.8	-0.0134592
12050.2	-0.0121144
12306.6	-0.010797
12562.9	-0.0095386
12819.3	-0.00836579
13075.7	-0.00729795
13332.1	-0.00634677
13588.5	-0.00551651
13844.9	-0.00480513
14101.3	-0.00420586
14357.7	-0.00370874
14614	-0.00330202
14870.4	-0.00297312
15126.8	-0.00270939
15383.2	-0.00249851
15639.6	-0.00232891
15896	-0.00219015
16152.4	-0.00207338
16408.8	-0.00197176
16665.1	-0.00188077
16921.5	-0.00179831
17177.9	-0.0017245
17434.3	-0.0016612
17690.7	-0.00161125
17947.1	-0.00157761
18203.5	-0.00156253
18459.8	-0.00156688
18716.2	-0.00158968
18972.6	-0.0016281
19229	-0.00167757
19485.4	-0.00173228
19741.8	-0.00178573
19998.2	-0.00183134
