0	0
41.6463	0
83.2925	0
124.939	0
166.585	0
208.231	0
249.878	0
291.524	0
333.17	0
374.816	0
416.463	0
458.109	0
499.755	6.90216e-09
541.402	1.7282e-07
583.048	1.5129e-06
624.694	8.15168e-06
666.34	3.30144e-05
707.987	0.000110252
749.633	0.000320693
791.279	0.000839111
832.925	0.00201275
874.572	0.00446884
916.218	0.00923377
957.864	0.0178239
999.511	0.0322531
1041.16	0.0549033
1082.8	0.0882332
1124.45	0.134346
1166.1	0.194482
1207.74	0.268549
1249.39	0.354782
1291.03	0.44963
1332.68	0.547915
1374.33	0.643234
1415.97	0.728579
1457.62	0.797058
1499.27	0.842628
1540.91	0.860739
1582.56	0.848795
1624.2	0.806396
1665.85	0.735325
1707.5	0.639317
1749.14	0.52364
1790.79	0.394562
1832.44	0.258772
1874.08	0.122831
1915.73	-0.00730932
1957.37	-0.126655
1999.02	-0.231394
2040.67	-0.318985
2082.31	-0.388122
2123.96	-0.43862
2165.61	-0.471237
2207.25	-0.487462
2248.9	-0.489305
2290.54	-0.479099
2332.19	-0.459322
2373.84	-0.43245
2415.48	-0.400839
2457.13	-0.366637
2498.78	-0.331715
2540.42	-0.297624
2582.07	-0.265571
2623.71	-0.236417
2665.36	-0.21069
2707.01	-0.188615
2748.65	-0.170158
2790.3	-0.15508
2831.94	-0.142993
2873.59	-0.13342
2915.23	-0.125847
2956.88	-0.119768
2998.52	-0.114717
3040.17	-0.110291
3081.81	-0.10616
3123.46	-0.102072
3165.1	-0.0978416
3206.75	-0.0933491
3248.39	-0.0885246
3290.04	-0.0833398
3331.68	-0.0777991
3373.33	-0.0719314
3414.97	-0.065785
3456.62	-0.0594215
3498.26	-0.0529124
3539.91	-0.0463337
3581.55	-0.0397621
3623.2	-0.0332704
3664.84	-0.0269238
3706.49	-0.0207763
3748.13	-0.0148688
3789.78	-0.00922829
3831.42	-0.00386797
3873.07	0.00121085
3914.71	0.00601654
3956.36	0.0105642
3998	0.0148727
4039.65	0.0189622
4081.3	0.0228518
4122.94	0.026558
4164.59	0.0300939
4206.23	0.0334688
4247.88	0.0366878
4289.53	0.0397525
4331.17	0.0426607
4372.82	0.0454071
4414.47	0.0479835
4456.11	0.0503792
4497.76	0.0525815
4539.4	0.0545761
4581.05	0.0563477
4622.7	0.0578809
4664.34	0.0591608
4705.99	0.0601739
4747.64	0.0609086
4789.28	0.061356
4830.93	0.0615102
4872.57	0.0613683
4914.22	0.0609307
4955.87	0.060201
4997.51	0.0591854
5039.16	0.0578926
5080.8	0.0563334
5122.45	0.0545205
5164.1	0.0524677
5205.74	0.0501902
5247.39	0.047704
5289.04	0.0450256
5330.68	0.0421722
5372.33	0.0391612
5413.97	0.0360101
5455.62	0.0327365
5497.27	0.029358
5538.91	0.0258917
5580.56	0.0223546
5622.21	0.0187634
5663.85	0.0151341
5705.5	0.0114827
5747.14	0.00782434
5788.79	0.00417389
5830.44	0.000545733
5872.08	-0.00304624
5913.73	-0.00658863
5955.37	-0.0100686
5997.02	-0.0134737
6038.67	-0.0167923
6080.31	-0.0200133
6121.96	-0.0231261
6163.61	-0.026121
6205.25	-0.0289888
6246.9	-0.031721
6288.54	-0.0343098
6330.19	-0.036748
6371.84	-0.0390294
6413.48	-0.041148
6455.13	-0.0430987
6496.77	-0.044877
6538.42	-0.0464791
6580.07	-0.0479019
6621.71	-0.0491429
6663.36	-0.0502001
6705.01	-0.0510726
6746.65	-0.0517599
6788.3	-0.0522621
6829.94	-0.0525805
6871.59	-0.0527166
6913.24	-0.052673
6954.88	-0.0524529
6996.53	-0.0520605
7038.18	-0.0515004
7079.82	-0.0507783
7121.47	-0.0499005
7163.11	-0.0488741
7204.76	-0.047707
7246.41	-0.0464075
7288.05	-0.0449848
7329.7	-0.0434486
7371.35	-0.041809
7412.99	-0.0400765
7454.64	-0.0382621
7496.28	-0.036377
7537.93	-0.0344324
7579.58	-0.0324396
7621.22	-0.03041
7662.87	-0.0283547
7704.52	-0.0262847
7746.16	-0.0242106
7787.81	-0.0221427
7829.45	-0.0200906
7871.1	-0.0180638
7912.75	-0.0160708
7954.39	-0.0141198
7996.04	-0.0122182
8037.68	-0.0103729
8079.33	-0.00858996
8120.98	-0.00687484
8162.62	-0.00523237
8204.27	-0.00366672
8245.91	-0.00218142
8287.56	-0.000779431
8329.21	0.000536886
8370.85	0.00176569
8412.5	0.00290566
8454.15	0.00395593
8495.79	0.00491608
8537.44	0.00578612
8579.08	0.0065664
8620.73	0.00725766
8662.38	0.00786092
8704.02	0.00837753
8745.67	0.00880912
8787.31	0.00915755
8828.96	0.00942495
8870.61	0.00961366
8912.25	0.00972622
8953.9	0.0097654
8995.54	0.0097341
9037.19	0.00963543
9078.84	0.00947262
9120.48	0.00924904
9162.13	0.00896816
9203.77	0.00863355
9245.42	0.00824883
9287.07	0.00781767
9328.71	0.00734374
9370.36	0.00683069
9412.01	0.00628214
9453.65	0.00570161
9495.3	0.00509252
9536.94	0.00445816
9578.59	0.00380165
9620.24	0.0031259
9661.88	0.00243365
9703.53	0.00172736
9745.17	0.00100929
9786.82	0.000281418
9828.47	-0.000454543
9870.11	-0.00119713
9911.76	-0.00194513
9953.41	-0.0026976
9995.05	-0.00345379
10036.7	-0.00421318
10078.3	-0.00497544
10120	-0.00574035
10161.6	-0.00650784
10203.3	-0.00727792
10244.9	-0.00805061
10286.6	-0.00882595
10328.2	-0.00960394
10369.9	-0.0103845
10411.5	-0.0111674
10453.2	-0.0119522
10494.8	-0.0127385
10536.5	-0.0135254
10578.1	-0.0143119
10619.7	-0.0150967
10661.4	-0.0158783
10703	-0.0166548
10744.7	-0.0174241
10786.3	-0.0181838
10828	-0.0189313
10869.6	-0.0196638
10911.3	-0.0203781
10952.9	-0.021071
10994.6	-0.0217392
11036.2	-0.0223791
11077.9	-0.0229874
11119.5	-0.0235605
11161.1	-0.024095
11202.8	-0.0245876
11244.4	-0.0250351
11286.1	-0.0254346
11327.7	-0.0257834
11369.4	-0.026079
11411	-0.0263195
11452.7	-0.026503
11494.3	-0.0266284
11536	-0.0266946
11577.6	-0.0267013
11619.3	-0.0266484
11660.9	-0.0265363
11702.5	-0.0263658
11744.2	-0.0261382
11785.8	-0.0258551
11827.5	-0.0255187
11869.1	-0.0251312
11910.8	-0.0246954
11952.4	-0.0242144
11994.1	-0.0236913
12035.7	-0.0231297
12077.4	-0.0225331
12119	-0.0219054
12160.7	-0.0212503
12202.3	-0.0205718
12243.9	-0.0198737
12285.6	-0.0191599
12327.2	-0.0184342
12368.9	-0.0177001
12410.5	-0.0169614
12452.2	-0.0162213
12493.8	-0.0154831
12535.5	-0.0147497
12577.1	-0.0140239
12618.8	-0.0133083
12660.4	-0.0126053
12702.1	-0.0119168
12743.7	-0.0112448
12785.4	-0.0105909
12827	-0.00995644
12868.6	-0.00934262
12910.3	-0.0087504
12951.9	-0.00818053
12993.6	-0.00763361
13035.2	-0.00711003
13076.9	-0.00661006
13118.5	-0.0061338
13160.2	-0.00568126
13201.8	-0.00525231
13243.5	-0.00484675
13285.1	-0.0044643
13326.8	-0.00410459
13368.4	-0.00376722
13410	-0.00345173
13451.7	-0.00315766
13493.3	-0.00288447
13535	-0.00263164
13576.6	-0.00239863
13618.3	-0.00218487
13659.9	-0.00198981
13701.6	-0.00181285
13743.2	-0.00165342
13784.9	-0.00151093
13826.5	-0.00138477
13868.2	-0.00127431
13909.8	-0.00117892
13951.4	-0.00109793
13993.1	-0.00103067
14034.7	-0.000976405
14076.4	-0.000934395
14118	-0.000903852
14159.7	-0.00088395
14201.3	-0.000873823
14243	-0.000872562
14284.6	-0.000879211
14326.3	-0.000892775
14367.9	-0.000912213
14409.6	-0.000936445
14451.2	-0.000964355
14492.8	-0.000994793
14534.5	-0.00102658
14576.1	-0.00105852
14617.8	-0.00108939
14659.4	-0.00111797
14701.1	-0.00114304
14742.7	-0.0011634
14784.4	-0.00117784
14826	-0.0011852
14867.7	-0.00118437
14909.3	-0.00117427
14951	-0.00115389
14992.6	-0.00112228
15034.2	-0.00107859
15075.9	-0.00102204
15117.5	-0.000951957
15159.2	-0.000867785
15200.8	-0.000769074
15242.5	-0.000655496
15284.1	-0.000526857
15325.8	-0.000383093
15367.4	-0.000224281
15409.1	-5.0639e-05
15450.7	0.000137473
15492.4	0.000339553
15534	0.000554952
15575.7	0.000782886
15617.3	0.00102243
15658.9	0.00127254
15700.6	0.00153202
15742.2	0.00179959
15783.9	0.00207384
15825.5	0.00235326
15867.2	0.00263629
15908.8	0.00292125
15950.5	0.00320644
15992.1	0.0034901
16033.8	0.00377044
16075.4	0.00404568
16117.1	0.00431402
16158.7	0.00457371
16200.3	0.00482304
16242	0.00506036
16283.6	0.00528408
16325.3	0.00549275
16366.9	0.00568499
16408.6	0.00585958
16450.2	0.00601544
16491.9	0.00615164
16533.5	0.00626741
16575.2	0.0063622
16616.8	0.00643561
16658.5	0.00648745
16700.1	0.00651772
16741.7	0.00652665
16783.4	0.00651462
16825	0.00648227
16866.7	0.00643036
16908.3	0.0063599
16950	0.00627202
16991.6	0.00616804
17033.3	0.00604941
17074.9	0.00591773
17116.6	0.00577467
17158.2	0.00562203
17199.9	0.00546166
17241.5	0.00529545
17283.1	0.00512533
17324.8	0.00495321
17366.4	0.00478101
17408.1	0.00461056
17449.7	0.00444366
17491.4	0.004282
17533	0.00412718
17574.7	0.00398066
17616.3	0.00384377
17658	0.00371765
17699.6	0.00360332
17741.3	0.00350159
17782.9	0.00341309
17824.5	0.00333826
17866.2	0.00327736
17907.8	0.00323043
17949.5	0.00319735
17991.1	0.0031778
18032.8	0.00317131
18074.4	0.00317721
18116.1	0.00319471
18157.7	0.00322285
18199.4	0.00326059
18241	0.00330676
18282.7	0.00336009
18324.3	0.00341926
18365.9	0.00348291
18407.6	0.00354963
18449.2	0.00361801
18490.9	0.00368664
18532.5	0.00375414
18574.2	0.00381919
18615.8	0.0038805
18657.5	0.00393687
18699.1	0.0039872
18740.8	0.00403046
18782.4	0.00406577
18824.1	0.00409232
18865.7	0.00410947
18907.4	0.00411668
18949	0.00411357
18990.6	0.00409985
19032.3	0.00407541
19073.9	0.00404025
19115.6	0.00399449
19157.2	0.00393838
19198.9	0.00387228
19240.5	0.00379667
19282.2	0.00371211
19323.8	0.00361926
19365.5	0.00351885
19407.1	0.00341169
19448.8	0.00329863
19490.4	0.00318058
19532	0.00305847
19573.7	0.00293326
19615.3	0.00280593
19657	0.00267743
19698.6	0.00254874
19740.3	0.00242079
19781.9	0.0022945
19823.6	0.00217074
19865.2	0.00205034
19906.9	0.00193408
19948.5	0.00182269
19990.2	0.00171683
