0	0
26.6808	0
53.3616	0
80.0424	0
106.723	0
133.404	0
160.085	0
186.766	0
213.446	0
240.127	0
266.808	0
293.489	0
320.17	0
346.85	0
373.531	0
400.212	0
426.893	0
453.574	0
480.254	0
506.935	0
533.616	0
560.297	0
586.978	0
613.658	0
640.339	0
667.02	0
693.701	0
720.382	0
747.062	0
773.743	0
800.424	0
827.105	0
853.786	0
880.466	0
907.147	0
933.828	0
960.509	0
987.19	0
1013.87	0
1040.55	0
1067.23	0
1093.91	0
1120.59	0
1147.27	0
1173.96	0
1200.64	0
1227.32	0
1254	0
1280.68	0
1307.36	0
1334.04	0
1360.72	0
1387.4	0
1414.08	0
1440.76	0
1467.44	0
1494.12	0
1520.81	0
1547.49	0
1574.17	0
1600.85	0
1627.53	0
1654.21	0
1680.89	0
1707.57	0
1734.25	0
1760.93	0
1787.61	0
1814.29	0
1840.98	0
1867.66	0
1894.34	0
1921.02	0
1947.7	0
1974.38	0
2001.06	0
2027.74	0
2054.42	0
2081.1	0
2107.78	0
2134.46	0
2161.14	-9.09495e-13
2187.83	-9.09495e-13
2214.51	-1.81899e-12
2241.19	-4.54747e-12
2267.87	-1.00044e-11
2294.55	-2.27374e-11
2321.23	-4.91127e-11
2347.91	-1.05501e-10
2374.59	-2.20098e-10
2401.27	-4.45652e-10
2427.95	-8.79481e-10
2454.63	-1.69075e-09
2481.31	-3.17232e-09
2508	-5.81531e-09
2534.68	-1.04283e-08
2561.36	-1.83127e-08
2588.04	-3.15222e-08
2614.72	-5.323e-08
2641.4	-8.82528e-08
2668.08	-1.43765e-07
2694.76	-2.30269e-07
2721.44	-3.6288e-07
2748.12	-5.63002e-07
2774.8	-8.60453e-07
2801.48	-1.29615e-06
2828.16	-1.9254e-06
2854.84	-2.82187e-06
2881.53	-4.0823e-06
2908.21	-5.83194e-06
2934.89	-8.23076e-06
2961.57	-1.14803e-05
2988.25	-1.58311e-05
3014.93	-2.15902e-05
3041.61	-2.91292e-05
3068.29	-3.88912e-05
3094.97	-5.13975e-05
3121.65	-6.72518e-05
3148.33	-8.7143e-05
3175.01	-0.000111843
3201.69	-0.000142204
3228.37	-0.00017914
3255.05	-0.000223616
3281.73	-0.000276614
3308.41	-0.000339099
3335.09	-0.000411967
3361.77	-0.000495979
3388.45	-0.000591689
3415.13	-0.000699344
3441.81	-0.000818778
3468.49	-0.000949282
3495.17	-0.00108946
3521.85	-0.00123708
3548.53	-0.00138889
3575.21	-0.00154043
3601.89	-0.0016859
3628.57	-0.00181788
3655.25	-0.00192723
3681.93	-0.00200291
3708.61	-0.00203178
3735.29	-0.00199853
3761.97	-0.00188562
3788.65	-0.0016732
3815.33	-0.00133915
3842.01	-0.000859213
3868.69	-0.00020712
3895.37	0.000645151
3922.05	0.00172705
3948.73	0.00306903
3975.41	0.00470207
4002.09	0.0066571
4028.77	0.00896435
4055.45	0.0116526
4082.13	0.0147486
4108.81	0.0182758
4135.49	0.0222544
4162.17	0.0266996
4188.86	0.0316214
4215.54	0.0370237
4242.22	0.0429037
4268.9	0.0492512
4295.58	0.0560482
4322.26	0.0632687
4348.94	0.0708782
4375.62	0.0788341
4402.3	0.0870854
4428.98	0.0955734
4455.66	0.104232
4482.34	0.112988
4509.02	0.121764
4535.7	0.130474
4562.38	0.139033
4589.06	0.147349
4615.75	0.155332
4642.43	0.162891
4669.11	0.169935
4695.79	0.17638
4722.47	0.182142
4749.15	0.187145
4775.83	0.191321
4802.51	0.194609
4829.19	0.196956
4855.87	0.198322
4882.55	0.198677
4909.23	0.198001
4935.91	0.196288
4962.59	0.193544
4989.28	0.189784
5015.96	0.185037
5042.64	0.179344
5069.32	0.172754
5096	0.165328
5122.68	0.157135
5149.36	0.14825
5176.04	0.138756
5202.72	0.128742
5229.4	0.118299
5256.08	0.10752
5282.76	0.0965021
5309.44	0.0853384
5336.12	0.0741226
5362.8	0.0629449
5389.48	0.0518915
5416.17	0.0410439
5442.85	0.0304774
5469.53	0.0202609
5496.21	0.010456
5522.89	0.00111663
5549.57	-0.00771133
5576.25	-0.0159901
5602.93	-0.0236902
5629.61	-0.0307901
5656.29	-0.0372762
5682.97	-0.0431425
5709.65	-0.0483897
5736.33	-0.0530256
5763.01	-0.0570634
5789.69	-0.0605221
5816.38	-0.0634248
5843.06	-0.0657991
5869.74	-0.0676753
5896.42	-0.0690866
5923.1	-0.0700679
5949.78	-0.0706552
5976.46	-0.0708853
6003.14	-0.0707948
6029.82	-0.0704199
6056.5	-0.069796
6083.18	-0.0689569
6109.86	-0.0679349
6136.54	-0.0667603
6163.22	-0.0654612
6189.9	-0.0640635
6216.59	-0.0625907
6243.27	-0.0610637
6269.95	-0.059501
6296.63	-0.0579188
6323.31	-0.0563309
6349.99	-0.0547488
6376.67	-0.0531821
6403.35	-0.0516383
6430.03	-0.0501232
6456.71	-0.0486409
6483.39	-0.0471942
6510.07	-0.0457848
6536.75	-0.0444131
6563.43	-0.0430788
6590.12	-0.0417809
6616.8	-0.0405179
6643.48	-0.0392879
6670.16	-0.0380887
6696.84	-0.0369182
6723.52	-0.0357739
6750.2	-0.0346538
6776.88	-0.0335558
6803.56	-0.032478
6830.24	-0.031419
6856.92	-0.0303774
6883.6	-0.0293524
6910.29	-0.0283433
6936.97	-0.0273497
6963.65	-0.0263718
6990.33	-0.0254099
7017.01	-0.0244644
7043.69	-0.0235363
7070.37	-0.0226265
7097.05	-0.0217363
7123.73	-0.0208671
7150.41	-0.0200201
7177.09	-0.019197
7203.77	-0.0183992
7230.45	-0.0176282
7257.14	-0.0168854
7283.82	-0.0161721
7310.5	-0.0154896
7337.18	-0.0148389
7363.86	-0.014221
7390.54	-0.0136365
7417.22	-0.0130861
7443.9	-0.01257
7470.58	-0.0120883
7497.26	-0.0116411
7523.94	-0.0112281
7550.62	-0.0108487
7577.3	-0.0105022
7603.99	-0.0101878
7630.67	-0.00990455
7657.35	-0.00965114
7684.03	-0.0094263
7710.71	-0.00922857
7737.39	-0.0090564
7764.07	-0.00890817
7790.75	-0.00878219
7817.43	-0.00867673
7844.11	-0.00859004
7870.79	-0.00852036
7897.47	-0.00846595
7924.15	-0.00842511
7950.84	-0.00839619
7977.52	-0.0083776
8004.2	-0.00836783
8030.88	-0.00836545
8057.56	-0.00836916
8084.24	-0.00837775
8110.92	-0.00839013
8137.6	-0.00840533
8164.28	-0.00842252
8190.96	-0.00844098
8217.64	-0.00846015
8244.32	-0.00847955
8271	-0.00849888
8297.69	-0.00851792
8324.37	-0.0085366
8351.05	-0.00855493
8377.73	-0.00857305
8404.41	-0.00859118
8431.09	-0.00860963
8457.77	-0.00862879
8484.45	-0.00864911
8511.13	-0.0086711
8537.81	-0.00869532
8564.49	-0.00872235
8591.17	-0.00875281
8617.85	-0.00878732
8644.54	-0.00882651
8671.22	-0.008871
8697.9	-0.00892138
8724.58	-0.00897822
8751.26	-0.00904207
8777.94	-0.00911341
8804.62	-0.00919268
8831.3	-0.00928027
8857.98	-0.0093765
8884.66	-0.00948162
8911.34	-0.0095958
8938.02	-0.00971917
8964.7	-0.00985175
8991.39	-0.0099935
9018.07	-0.0101443
9044.75	-0.010304
9071.43	-0.0104722
9098.11	-0.0106487
9124.79	-0.0108331
9151.47	-0.0110249
9178.15	-0.0112235
9204.83	-0.0114284
9231.51	-0.011639
9258.19	-0.0118545
9284.87	-0.0120743
9311.55	-0.0122976
9338.23	-0.0125237
9364.92	-0.0127518
9391.6	-0.012981
9418.28	-0.0132107
9444.96	-0.0134398
9471.64	-0.0136677
9498.32	-0.0138936
9525	-0.0141166
9551.68	-0.014336
9578.36	-0.0145509
9605.04	-0.0147608
9631.72	-0.0149649
9658.4	-0.0151625
9685.08	-0.0153529
9711.77	-0.0155356
9738.45	-0.0157099
9765.13	-0.0158754
9791.81	-0.0160316
9818.49	-0.0161778
9845.17	-0.0163138
9871.85	-0.0164392
9898.53	-0.0165535
9925.21	-0.0166565
9951.89	-0.0167478
9978.57	-0.0168273
10005.3	-0.0168947
10031.9	-0.0169498
10058.6	-0.0169925
10085.3	-0.0170227
10112	-0.0170403
10138.7	-0.0170452
10165.3	-0.0170375
10192	-0.0170171
10218.7	-0.016984
10245.4	-0.0169384
10272.1	-0.0168803
10298.7	-0.0168099
10325.4	-0.0167273
10352.1	-0.0166325
10378.8	-0.016526
10405.5	-0.0164077
10432.1	-0.016278
10458.8	-0.0161371
10485.5	-0.0159853
10512.2	-0.0158227
10538.9	-0.0156498
10565.5	-0.0154667
10592.2	-0.0152738
10618.9	-0.0150714
10645.6	-0.0148599
10672.3	-0.0146394
10699	-0.0144104
10725.6	-0.0141731
10752.3	-0.0139278
10779	-0.0136749
10805.7	-0.0134146
10832.4	-0.0131473
10859	-0.0128732
10885.7	-0.0125925
10912.4	-0.0123055
10939.1	-0.0120124
10965.8	-0.0117134
10992.4	-0.0114088
11019.1	-0.0110987
11045.8	-0.0107833
11072.5	-0.0104627
11099.2	-0.010137
11125.8	-0.00980626
11152.5	-0.00947068
11179.2	-0.00913028
11205.9	-0.00878511
11232.6	-0.00843521
11259.3	-0.00808062
11285.9	-0.00772134
11312.6	-0.0073574
11339.3	-0.00698879
11366	-0.00661551
11392.7	-0.00623757
11419.3	-0.00585497
11446	-0.0054677
11472.7	-0.00507579
11499.4	-0.00467925
11526.1	-0.0042781
11552.7	-0.0038724
11579.4	-0.00346219
11606.1	-0.00304756
11632.8	-0.00262861
11659.5	-0.00220543
11686.1	-0.00177819
11712.8	-0.00134703
11739.5	-0.00091215
11766.2	-0.000473759
11792.9	-3.21016e-05
11819.5	0.000412555
11846.2	0.000859912
11872.9	0.00130965
11899.6	0.0017614
11926.3	0.0022148
11952.9	0.00266943
11979.6	0.00312486
12006.3	0.00358063
12033	0.00403625
12059.7	0.0044912
12086.4	0.00494497
12113	0.00539699
12139.7	0.00584668
12166.4	0.00629346
12193.1	0.0067367
12219.8	0.00717579
12246.4	0.00761007
12273.1	0.00803889
12299.8	0.00846157
12326.5	0.00887745
12353.2	0.00928582
12379.8	0.00968599
12406.5	0.0100772
12433.2	0.0104589
12459.9	0.0108302
12486.6	0.0111905
12513.2	0.0115389
12539.9	0.0118749
12566.6	0.0121977
12593.3	0.0125065
12620	0.0128007
12646.7	0.0130795
12673.3	0.0133422
12700	0.0135882
12726.7	0.0138166
12753.4	0.0140268
12780.1	0.0142182
12806.7	0.0143901
12833.4	0.0145417
12860.1	0.0146725
12886.8	0.0147817
12913.5	0.0148689
12940.1	0.0149333
12966.8	0.0149744
12993.5	0.0149917
13020.2	0.0149844
13046.9	0.0149523
13073.5	0.0148947
13100.2	0.0148111
13126.9	0.0147012
13153.6	0.0145645
13180.3	0.0144007
13206.9	0.0142094
13233.6	0.0139903
13260.3	0.0137431
13287	0.0134677
13313.7	0.0131638
13340.4	0.0128314
13367	0.0124704
13393.7	0.0120807
13420.4	0.0116624
13447.1	0.0112156
13473.8	0.0107404
13500.4	0.0102371
13527.1	0.00970588
13553.8	0.00914716
13580.5	0.00856133
13607.2	0.00794886
13633.8	0.0073103
13660.5	0.00664627
13687.2	0.00595747
13713.9	0.00524464
13740.6	0.00450862
13767.2	0.00375033
13793.9	0.00297073
13820.6	0.00217089
13847.3	0.00135192
13874	0.00051502
13900.6	-0.000338554
13927.3	-0.00120747
13954	-0.00209034
13980.7	-0.00298569
14007.4	-0.00389201
14034.1	-0.00480773
14060.7	-0.00573121
14087.4	-0.00666078
14114.1	-0.00759469
14140.8	-0.00853118
14167.5	-0.00946845
14194.1	-0.0104046
14220.8	-0.0113379
14247.5	-0.0122663
14274.2	-0.0131879
14300.9	-0.0141009
14327.5	-0.0150032
14354.2	-0.015893
14380.9	-0.0167683
14407.6	-0.0176273
14434.3	-0.018468
14460.9	-0.0192886
14487.6	-0.0200872
14514.3	-0.0208621
14541	-0.0216115
14567.7	-0.0223338
14594.3	-0.0230273
14621	-0.0236905
14647.7	-0.0243219
14674.4	-0.0249201
14701.1	-0.0254838
14727.8	-0.0260118
14754.4	-0.0265029
14781.1	-0.0269561
14807.8	-0.0273706
14834.5	-0.0277454
14861.2	-0.02808
14887.8	-0.0283737
14914.5	-0.0286261
14941.2	-0.0288369
14967.9	-0.0290057
14994.6	-0.0291327
15021.2	-0.0292176
15047.9	-0.0292608
15074.6	-0.0292625
15101.3	-0.029223
15128	-0.0291429
15154.6	-0.0290228
15181.3	-0.0288634
15208	-0.0286655
15234.7	-0.0284302
15261.4	-0.0281583
15288	-0.027851
15314.7	-0.0275096
15341.4	-0.0271353
15368.1	-0.0267294
15394.8	-0.0262934
15421.5	-0.0258287
15448.1	-0.0253369
15474.8	-0.0248196
15501.5	-0.0242782
15528.2	-0.0237145
15554.9	-0.0231302
15581.5	-0.0225268
15608.2	-0.021906
15634.9	-0.0212696
15661.6	-0.0206192
15688.3	-0.0199564
15714.9	-0.0192828
15741.6	-0.0186002
15768.3	-0.0179099
15795	-0.0172137
15821.7	-0.0165129
15848.3	-0.015809
15875	-0.0151035
15901.7	-0.0143977
15928.4	-0.0136928
15955.1	-0.0129901
15981.7	-0.0122909
16008.4	-0.0115961
16035.1	-0.0109069
16061.8	-0.0102242
16088.5	-0.009549
16115.2	-0.00888214
16141.8	-0.00822442
16168.5	-0.00757659
16195.2	-0.00693933
16221.9	-0.00631326
16248.6	-0.00569894
16275.2	-0.00509688
16301.9	-0.00450755
16328.6	-0.00393135
16355.3	-0.00336864
16382	-0.00281973
16408.6	-0.00228491
16435.3	-0.00176439
16462	-0.00125838
16488.7	-0.000767035
16515.4	-0.000290489
16542	0.000171159
16568.7	0.000617834
16595.4	0.00104949
16622.1	0.00146608
16648.8	0.00186762
16675.4	0.0022541
16702.1	0.00262555
16728.8	0.00298199
16755.5	0.00332349
16782.2	0.0036501
16808.9	0.00396189
16835.5	0.00425893
16862.2	0.00454131
16888.9	0.00480911
16915.6	0.00506245
16942.3	0.00530142
16968.9	0.00552612
16995.6	0.00573669
17022.3	0.00593323
17049	0.00611588
17075.7	0.00628477
17102.3	0.00644004
17129	0.00658184
17155.7	0.00671033
17182.4	0.00682568
17209.1	0.00692805
17235.7	0.00701763
17262.4	0.00709462
17289.1	0.00715923
17315.8	0.00721167
17342.5	0.00725216
17369.1	0.00728097
17395.8	0.00729833
17422.5	0.00730452
17449.2	0.00729983
17475.9	0.00728456
17502.6	0.00725901
17529.2	0.00722352
17555.9	0.00717842
17582.6	0.00712409
17609.3	0.00706088
17636	0.00698919
17662.6	0.00690942
17689.3	0.00682197
17716	0.00672728
17742.7	0.00662578
17769.4	0.00651792
17796	0.00640415
17822.7	0.00628496
17849.4	0.00616081
17876.1	0.00603218
17902.8	0.00589956
17929.4	0.00576345
17956.1	0.00562433
17982.8	0.00548272
18009.5	0.00533909
18036.2	0.00519395
18062.9	0.00504778
18089.5	0.00490108
18116.2	0.00475431
18142.9	0.00460797
18169.6	0.0044625
18196.3	0.00431835
18222.9	0.00417597
18249.6	0.00403578
18276.3	0.00389819
18303	0.00376359
18329.7	0.00363235
18356.3	0.00350483
18383	0.00338135
18409.7	0.00326223
18436.4	0.00314775
18463.1	0.00303818
18489.7	0.00293375
18516.4	0.00283468
18543.1	0.00274114
18569.8	0.0026533
18596.5	0.00257128
18623.1	0.0024952
18649.8	0.00242511
18676.5	0.00236108
18703.2	0.00230312
18729.9	0.00225121
18756.6	0.00220533
18783.2	0.0021654
18809.9	0.00213134
18836.6	0.00210303
18863.3	0.00208033
18890	0.00206307
18916.6	0.00205107
18943.3	0.00204412
18970	0.00204199
18996.7	0.00204442
19023.4	0.00205115
19050	0.00206189
19076.7	0.00207636
19103.4	0.00209422
19130.1	0.00211517
19156.8	0.00213887
19183.4	0.00216498
19210.1	0.00219315
19236.8	0.00222304
19263.5	0.00225429
19290.2	0.00228654
19316.8	0.00231945
19343.5	0.00235267
19370.2	0.00238585
19396.9	0.00241866
19423.6	0.00245076
19450.3	0.00248185
19476.9	0.00251161
19503.6	0.00253976
19530.3	0.002566
19557	0.00259008
19583.7	0.00261176
19610.3	0.00263079
19637	0.00264699
19663.7	0.00266014
19690.4	0.0026701
19717.1	0.0026767
19743.7	0.00267983
19770.4	0.00267938
19797.1	0.00267528
19823.8	0.00266745
19850.5	0.00265587
19877.1	0.00264053
19903.8	0.00262143
19930.5	0.00259861
19957.2	0.00257212
19983.9	0.00254202
