0	0
13.9771	0
23.2952	0
32.6133	0
41.9313	0
51.2494	0
60.5675	0
74.5446	0
83.8627	0
93.1808	0
102.499	0
111.817	0
121.135	0
130.453	0
144.43	0
153.748	0
163.066	0
172.384	0
181.702	0
191.021	0
200.339	0
214.316	0
223.634	0
232.952	0
242.27	0
251.588	0
260.906	0
270.224	0
284.201	0
293.519	0
302.837	0
312.156	0
321.474	0
330.792	0
340.11	0
354.087	0
363.405	0
372.723	0
382.041	0
391.359	0
400.677	0
414.654	0
423.972	0
433.291	0
442.609	0
451.927	0
461.245	0
470.563	0
484.54	0
493.858	0
503.176	0
512.494	0
521.812	0
531.13	0
540.448	0
554.426	0
563.744	0
573.062	0
582.38	0
591.698	0
601.016	0
610.334	0
624.311	0
633.629	0
642.947	0
652.265	0
661.583	0
670.902	0
680.22	0
694.197	0
703.515	0
712.833	0
722.151	0
731.469	0
740.787	0
750.105	0
764.082	0
773.4	0
782.718	0
792.037	0
801.355	0
810.673	0
824.65	0
833.968	0
843.286	0
852.604	0
861.922	0
871.24	0
880.558	0
894.535	0
903.853	0
913.171	0
922.49	0
931.808	0
941.126	0
950.444	0
964.421	0
973.739	0
983.057	0
992.375	0
1001.69	0
1011.01	0
1020.33	0
1034.31	0
1043.62	0
1052.94	0
1062.26	0
1071.58	0
1080.9	0
1090.21	0
1104.19	0
1113.51	0
1122.83	0
1132.15	0
1141.46	0
1150.78	0
1160.1	0
1174.08	0
1183.4	0
1192.71	0
1202.03	0
1211.35	0
1220.67	0
1234.65	0
1243.96	0
1253.28	0
1262.6	0
1271.92	0
1281.24	0
1290.55	0
1304.53	0
1313.85	0
1323.17	0
1332.48	0
1341.8	0
1351.12	0
1360.44	0
1374.42	0
1383.73	0
1393.05	0
1402.37	0
1411.69	0
1421.01	0
1430.32	0
1444.3	0
1453.62	0
1462.94	0
1472.26	0
1481.57	0
1490.89	0
1500.21	0
1514.19	0
1523.51	0
1532.82	0
1542.14	0
1551.46	0
1560.78	0
1570.1	0
1584.07	0
1593.39	0
1602.71	0
1612.03	0
1621.35	0
1630.66	0
1644.64	0
1653.96	0
1663.28	0
1672.59	0
1681.91	0
1691.23	0
1700.55	0
1714.53	0
1723.84	0
1733.16	0
1742.48	0
1751.8	0
1761.12	0
1770.43	0
1784.41	0
1793.73	0
1803.05	0
1812.37	0
1821.68	0
1831	0
1840.32	0
1854.3	0
1863.62	0
1872.93	0
1882.25	0
1891.57	0
1900.89	0
1910.21	0
1924.18	0
1933.5	0
1942.82	0
1952.14	0
1961.46	0
1970.77	0
1980.09	0
1994.07	0
2003.39	0
2012.7	0
2022.02	0
2031.34	0
2040.66	0
2054.64	0
2063.95	-9.09495e-13
2073.27	-2.72848e-12
2082.59	-4.54747e-12
2091.91	-7.27596e-12
2101.23	-1.27329e-11
2110.54	-2.27374e-11
2124.52	-5.18412e-11
2133.84	-8.73115e-11
2143.16	-1.46429e-10
2152.48	-2.43745e-10
2161.79	-3.99268e-10
2171.11	-6.50289e-10
2180.43	-1.04865e-09
2194.41	-2.10821e-09
2203.73	-3.31875e-09
2213.04	-5.17412e-09
2222.36	-7.99537e-09
2231.68	-1.22445e-08
2241	-1.85873e-08
2250.32	-2.79715e-08
2264.29	-5.08116e-08
2273.61	-7.48569e-08
2282.93	-1.09374e-07
2292.25	-1.58509e-07
2301.56	-2.27883e-07
2310.88	-3.25041e-07
2320.2	-4.60023e-07
2334.18	-7.63507e-07
2343.5	-1.06028e-06
2352.81	-1.46155e-06
2362.13	-2.00009e-06
2371.45	-2.71749e-06
2380.77	-3.66622e-06
2390.09	-4.91186e-06
2404.06	-7.52003e-06
2413.38	-9.90575e-06
2422.7	-1.29625e-05
2432.02	-1.68526e-05
2441.34	-2.17704e-05
2450.65	-2.79466e-05
2464.63	-4.01775e-05
2473.95	-5.07909e-05
2483.27	-6.38261e-05
2492.59	-7.97372e-05
2501.9	-9.90407e-05
2511.22	-0.00012232
2520.54	-0.000150228
2534.52	-0.000202379
2543.83	-0.0002452
2553.15	-0.000295518
2562.47	-0.00035432
2571.79	-0.000422662
2581.11	-0.000501667
2590.43	-0.000592517
2604.4	-0.000753713
2613.72	-0.000879662
2623.04	-0.00102193
2632.36	-0.00118185
2641.67	-0.00136073
2650.99	-0.00155989
2660.31	-0.00178057
2674.29	-0.00215458
2683.61	-0.0024342
2692.92	-0.00273921
2702.24	-0.00307048
2711.56	-0.00342876
2720.88	-0.00381464
2730.2	-0.00422854
2744.17	-0.00490248
2753.49	-0.00538721
2762.81	-0.00590008
2772.13	-0.00644069
2781.45	-0.00700845
2790.76	-0.00760256
2800.08	-0.00822203
2814.06	-0.00919616
2823.38	-0.00987345
2832.7	-0.0105711
2842.01	-0.0112874
2851.33	-0.0120202
2860.65	-0.0127675
2874.63	-0.0139101
2883.94	-0.0146826
2893.26	-0.0154605
2902.58	-0.0162407
2911.9	-0.0170202
2921.22	-0.0177954
2930.53	-0.0185627
2944.51	-0.0196903
2953.83	-0.02042
2963.15	-0.0211268
2972.47	-0.0218053
2981.78	-0.0224501
2991.1	-0.0230551
3000.42	-0.0236137
3014.4	-0.0243484
3023.71	-0.0247579
3033.03	-0.0250927
3042.35	-0.0253431
3051.67	-0.0254987
3060.99	-0.025548
3070.3	-0.0254787
3084.28	-0.0251233
3093.6	-0.0246977
3102.92	-0.0241033
3112.24	-0.0233236
3121.55	-0.0223413
3130.87	-0.0211383
3140.19	-0.0196958
3154.17	-0.0170404
3163.48	-0.0149131
3172.8	-0.0124764
3182.12	-0.00970977
3191.44	-0.00659263
3200.76	-0.00310478
3210.07	0.000773525
3224.05	0.00736453
3233.37	0.0123002
3242.69	0.0176884
3252	0.0235438
3261.32	0.0298792
3270.64	0.0367057
3284.62	0.0478842
3293.94	0.0559705
3303.25	0.064567
3312.57	0.073673
3321.89	0.0832849
3331.21	0.0933958
3340.52	0.103996
3354.5	0.120784
3363.82	0.132543
3373.14	0.144731
3382.45	0.157325
3391.77	0.170298
3401.09	0.183619
3410.41	0.197256
3424.38	0.218227
3433.7	0.232496
3443.02	0.246949
3452.34	0.261543
3461.66	0.276235
3470.97	0.290979
3480.29	0.305729
3494.27	0.327763
3503.59	0.342321
3512.9	0.356718
3522.22	0.370905
3531.54	0.384833
3540.86	0.398455
3550.17	0.411722
3564.15	0.430854
3573.47	0.44303
3582.79	0.45469
3592.1	0.46579
3601.42	0.476288
3610.74	0.486143
3620.06	0.495315
3634.03	0.507713
3643.35	0.515019
3652.67	0.521521
3661.99	0.527188
3671.3	0.531992
3680.62	0.535909
3694.6	0.540072
3703.92	0.541679
3713.23	0.542333
3722.55	0.542022
3731.87	0.540738
3741.19	0.538474
3750.5	0.535231
3764.48	0.52853
3773.8	0.522848
3783.11	0.516206
3792.43	0.508616
3801.75	0.500095
3811.07	0.490663
3820.39	0.480342
3834.36	0.463254
3843.68	0.450834
3853	0.437628
3862.31	0.423672
3871.63	0.409004
3880.95	0.393663
3890.27	0.37769
3904.24	0.35264
3913.56	0.335278
3922.88	0.317439
3932.2	0.29917
3941.51	0.280518
3950.83	0.26153
3960.15	0.242254
3974.13	0.212904
3983.44	0.193116
3992.76	0.173205
4002.08	0.153218
4011.4	0.1332
4020.71	0.113196
4030.03	0.09325
4044.01	0.0635347
4053.33	0.0439212
4062.64	0.0245126
4071.96	0.00534863
4081.28	-0.0135323
4090.6	-0.0320927
4104.57	-0.0592533
4113.89	-0.0768563
4123.21	-0.0940168
4132.53	-0.110703
4141.84	-0.126883
4151.16	-0.142529
4160.48	-0.15761
4174.46	-0.179118
4183.77	-0.192676
4193.09	-0.205582
4202.41	-0.217814
4211.73	-0.229353
4221.04	-0.24018
4230.36	-0.250278
4244.34	-0.264028
4253.66	-0.272246
4262.98	-0.279692
4272.29	-0.286361
4281.61	-0.292247
4290.93	-0.297348
4300.25	-0.301664
4314.22	-0.306672
4323.54	-0.309041
4332.86	-0.310646
4342.18	-0.311496
4351.5	-0.311607
4360.81	-0.310994
4370.13	-0.309676
4384.11	-0.306426
4393.43	-0.303445
4402.75	-0.299843
4412.06	-0.295649
4421.38	-0.290893
4430.7	-0.285607
4440.02	-0.279824
4453.99	-0.270295
4463.31	-0.263423
4472.63	-0.256179
4481.95	-0.248599
4491.27	-0.240721
4500.58	-0.232582
4514.56	-0.219966
4523.88	-0.211335
4533.2	-0.202571
4542.52	-0.193708
4551.83	-0.184779
4561.15	-0.175818
4570.47	-0.166855
4584.45	-0.153472
4593.77	-0.144631
4603.08	-0.135886
4612.4	-0.12726
4621.72	-0.118775
4631.04	-0.110452
4640.36	-0.102309
4654.33	-0.090468
4663.65	-0.0828446
4672.97	-0.0754523
4682.29	-0.0683018
4691.6	-0.0614021
4700.92	-0.0547608
4710.24	-0.0483841
4724.22	-0.0393253
4733.54	-0.0336282
4742.85	-0.028207
4752.17	-0.0230625
4761.49	-0.0181944
4770.81	-0.0136016
4780.13	-0.00928225
4794.1	-0.00331005
4803.42	0.000338414
4812.74	0.00372507
4822.06	0.00685438
4831.37	0.00973122
4840.69	0.0123608
4850.01	0.0147486
4863.99	0.0178896
4873.31	0.0196987
4882.62	0.0212871
4891.94	0.0226613
4901.26	0.0238278
4910.58	0.0247934
4924.56	0.0258801
4933.87	0.0263736
4943.19	0.0266906
4952.51	0.0268383
4961.83	0.0268239
4971.15	0.0266549
4980.46	0.0263387
4994.44	0.0256048
5003.76	0.0249537
5013.08	0.0241819
5022.39	0.0232971
5031.71	0.0223072
5041.03	0.0212196
5050.35	0.0200423
5064.33	0.0181245
5073.64	0.0167557
5082.96	0.0153236
5092.28	0.0138353
5101.6	0.012298
5110.92	0.0107187
5120.23	0.00910412
5134.21	0.00663038
5143.53	0.00495566
5152.85	0.00326736
5162.17	0.001571
5171.48	-0.000128222
5180.8	-0.00182547
5190.12	-0.00351625
5204.1	-0.00603142
5213.41	-0.00768888
5222.73	-0.00932714
5232.05	-0.0109434
5241.37	-0.0125353
5250.69	-0.0141008
5260	-0.0156381
5273.98	-0.0178887
5283.3	-0.0193506
5292.62	-0.0207811
5301.94	-0.02218
5311.25	-0.0235471
5320.57	-0.0248826
5334.55	-0.0268277
5343.87	-0.0280864
5353.19	-0.0293157
5362.5	-0.0305164
5371.82	-0.0316894
5381.14	-0.0328358
5390.46	-0.0339566
5404.43	-0.0355923
5413.75	-0.0366539
5423.07	-0.0376936
5432.39	-0.0387123
5441.71	-0.0397111
5451.02	-0.0406908
5460.34	-0.0416521
5474.32	-0.043061
5483.64	-0.043979
5492.96	-0.0448807
5502.27	-0.0457664
5511.59	-0.0466363
5520.91	-0.0474907
5530.23	-0.0483296
5544.2	-0.0495591
5553.52	-0.0503595
5562.84	-0.0511443
5572.16	-0.0519134
5581.48	-0.0526666
5590.79	-0.0534037
5600.11	-0.0541246
5614.09	-0.0551748
5623.41	-0.0558539
5632.73	-0.056516
5642.04	-0.0571608
5651.36	-0.0577883
5660.68	-0.0583982
5674.66	-0.0592802
5683.98	-0.0598461
5693.29	-0.0603944
5702.61	-0.0609252
5711.93	-0.0614386
5721.25	-0.0619347
5730.57	-0.0624138
5744.54	-0.0631008
5753.86	-0.0635382
5763.18	-0.0639594
5772.5	-0.0643649
5781.81	-0.0647548
5791.13	-0.0651295
5800.45	-0.0654893
5814.43	-0.0660019
5823.75	-0.066326
5833.06	-0.0666361
5842.38	-0.0669327
5851.7	-0.0672157
5861.02	-0.0674854
5870.34	-0.0677417
5884.31	-0.0681011
5893.63	-0.0683239
5902.95	-0.068533
5912.27	-0.0687282
5921.58	-0.0689089
5930.9	-0.0690749
5940.22	-0.0692255
5954.2	-0.0694212
5963.52	-0.0695304
5972.83	-0.0696217
5982.15	-0.0696941
5991.47	-0.0697465
6000.79	-0.069778
6010.11	-0.0697874
6024.08	-0.0697572
6033.4	-0.0697057
6042.72	-0.0696276
6052.04	-0.0695215
6061.36	-0.0693859
6070.67	-0.0692195
6084.65	-0.0689088
6093.97	-0.068659
6103.29	-0.0683733
6112.6	-0.0680503
6121.92	-0.0676888
6131.24	-0.0672873
6140.56	-0.0668447
6154.54	-0.066101
6163.85	-0.0655504
6173.17	-0.0649549
6182.49	-0.0643135
6191.81	-0.0636254
6201.13	-0.06289
6210.44	-0.0621068
6224.42	-0.0608411
6233.74	-0.0599364
6243.06	-0.0589828
6252.38	-0.0579804
6261.69	-0.0569293
6271.01	-0.0558298
6280.33	-0.0546823
6294.31	-0.0528724
6303.62	-0.0516078
6312.94	-0.0502979
6322.26	-0.0489437
6331.58	-0.0475463
6340.9	-0.0461072
6350.21	-0.0446277
6364.19	-0.0423362
6373.51	-0.0407628
6382.83	-0.039155
6392.15	-0.0375146
6401.46	-0.0358437
6410.78	-0.0341443
6420.1	-0.0324185
6434.08	-0.0297855
6443.4	-0.0280039
6452.71	-0.026204
6462.03	-0.0243881
6471.35	-0.0225589
6480.67	-0.0207186
6494.64	-0.017943
6503.96	-0.0160861
6513.28	-0.0142269
6522.6	-0.0123678
6531.92	-0.0105114
6541.23	-0.0086601
6550.55	-0.0068163
6564.53	-0.00406994
6573.85	-0.00225534
6583.17	-0.000456465
6592.48	0.00132444
6601.8	0.00308518
6611.12	0.00482364
6620.44	0.00653774
6634.41	0.00905887
6643.73	0.0107035
6653.05	0.0123171
6662.37	0.0138979
6671.69	0.0154443
6681.01	0.0169547
6690.32	0.0184277
6704.3	0.0205639
6713.62	0.0219374
6722.94	0.0232689
6732.25	0.0245575
6741.57	0.0258022
6750.89	0.0270022
6760.21	0.0281566
6774.19	0.0298014
6783.5	0.0308393
6792.82	0.0318298
6802.14	0.0327726
6811.46	0.0336674
6820.78	0.0345142
6830.09	0.0353128
6844.07	0.0364207
6853.39	0.0370994
6862.71	0.0377306
6872.03	0.0383146
6881.34	0.0388517
6890.66	0.0393425
6904.64	0.0399931
6913.96	0.0403707
6923.27	0.0407041
6932.59	0.0409943
6941.91	0.0412419
6951.23	0.0414479
6960.55	0.0416131
6974.52	0.0417865
6983.84	0.041854
6993.16	0.0418841
7002.48	0.041878
7011.8	0.0418366
7021.11	0.041761
7030.43	0.0416523
7044.41	0.0414297
7053.73	0.0412431
7063.05	0.0410272
7072.36	0.0407831
7081.68	0.040512
7091	0.0402149
7100.32	0.0398928
7114.29	0.0393653
7123.61	0.0389855
7132.93	0.0385845
7142.25	0.0381632
7151.57	0.0377227
7160.89	0.0372639
7170.2	0.0367878
7184.18	0.0360433
7193.5	0.0355281
7202.82	0.0349988
7212.13	0.0344565
7221.45	0.0339019
7230.77	0.033336
7240.09	0.0327596
7254.07	0.0318773
7263.38	0.0312785
7272.7	0.0306723
7282.02	0.0300594
7291.34	0.0294407
7300.66	0.0288171
7314.63	0.0278743
7323.95	0.0272421
7333.27	0.026608
7342.59	0.0259727
7351.9	0.0253373
7361.22	0.0247025
7370.54	0.0240693
7384.52	0.0231243
7393.84	0.0224989
7403.15	0.0218782
7412.47	0.0212631
7421.79	0.0206546
7431.11	0.0200536
7440.43	0.019461
7454.4	0.0185898
7463.72	0.0180223
7473.04	0.0174663
7482.36	0.016923
7491.67	0.016393
7500.99	0.0158774
7510.31	0.0153769
7524.29	0.0146564
7533.6	0.0141974
7542.92	0.0137563
7552.24	0.0133339
7561.56	0.0129309
7570.88	0.0125477
7580.19	0.0121851
7594.17	0.0116808
7603.49	0.0113717
7612.81	0.0110846
7622.13	0.01082
7631.44	0.0105779
7640.76	0.0103586
7650.08	0.0101622
7664.06	0.0099105
7673.37	0.00977114
7682.69	0.00965435
7692.01	0.00955986
7701.33	0.00948732
7710.65	0.00943633
7724.62	0.0093991
7733.94	0.00939959
7743.26	0.00941954
7752.58	0.00945819
7761.89	0.0095147
7771.21	0.00958818
7780.53	0.00967767
7794.51	0.00983968
7803.83	0.00996462
7813.14	0.0101018
7822.46	0.0102499
7831.78	0.0104078
7841.1	0.0105743
7850.41	0.0107479
7864.39	0.0110188
7873.71	0.0112045
7883.03	0.0113926
7892.35	0.0115817
7901.66	0.0117705
7910.98	0.0119574
7920.3	0.0121412
7934.28	0.0124079
7943.59	0.0125776
7952.91	0.0127393
7962.23	0.0128917
7971.55	0.0130334
7980.87	0.0131632
7990.18	0.0132797
8004.16	0.0134271
8013.48	0.0135054
8022.8	0.0135663
8032.12	0.0136089
8041.43	0.013632
8050.75	0.0136347
8060.07	0.0136161
8074.05	0.0135463
8083.36	0.0134707
8092.68	0.0133709
8102	0.0132464
8111.32	0.0130965
8120.64	0.0129206
8134.61	0.0126072
8143.93	0.0123645
8153.25	0.0120946
8162.57	0.0117972
8171.88	0.0114721
8181.2	0.0111191
8190.52	0.0107384
8204.5	0.0101153
8213.82	0.00966541
8223.13	0.00918818
8232.45	0.00868389
8241.77	0.00815291
8251.09	0.00759565
8260.41	0.00701262
8274.38	0.00609094
8283.7	0.00544599
8293.02	0.00477745
8302.34	0.00408608
8311.65	0.00337269
8320.97	0.00263814
8330.29	0.00188334
8344.27	0.000715269
8353.59	-8.59038e-05
8362.9	-0.000903824
8372.22	-0.00173741
8381.54	-0.00258556
8390.86	-0.00344714
8400.18	-0.00432099
8414.15	-0.00565223
8423.47	-0.00655163
8432.79	-0.00745917
8442.11	-0.00837365
8451.43	-0.00929388
8460.74	-0.0102187
8470.06	-0.0111468
8484.04	-0.0125428
8493.36	-0.0134742
8502.67	-0.014405
8511.99	-0.015334
8521.31	-0.0162601
8530.63	-0.0171823
8544.61	-0.018556
8553.92	-0.0194639
8563.24	-0.0203644
8572.56	-0.0212566
8581.88	-0.0221396
8591.2	-0.0230126
8600.51	-0.0238747
8614.49	-0.0251458
8623.81	-0.0259775
8633.13	-0.0267959
8642.45	-0.0276003
8651.76	-0.0283901
8661.08	-0.0291649
8670.4	-0.0299241
8684.38	-0.0310326
8693.69	-0.0317509
8703.01	-0.0324522
8712.33	-0.0331361
8721.65	-0.0338025
8730.97	-0.034451
8740.28	-0.0350815
8754.26	-0.035993
8763.58	-0.0365778
8772.9	-0.0371441
8782.22	-0.0376919
8791.53	-0.0382213
8800.85	-0.0387322
8810.17	-0.0392247
8824.15	-0.0399291
8833.47	-0.0403761
8842.78	-0.0408052
8852.1	-0.0412165
8861.42	-0.0416103
8870.74	-0.0419868
8880.06	-0.0423463
8894.03	-0.0428543
8903.35	-0.0431726
8912.67	-0.0434749
8921.99	-0.0437617
8931.31	-0.0440333
8940.62	-0.0442901
8954.6	-0.0446483
8963.92	-0.0448697
8973.24	-0.0450778
8982.55	-0.0452728
8991.87	-0.0454554
9001.19	-0.0456257
9010.51	-0.0457844
9024.49	-0.0460014
9033.8	-0.0461327
9043.12	-0.0462538
9052.44	-0.046365
9061.76	-0.0464669
9071.08	-0.0465598
9080.39	-0.046644
9094.37	-0.046755
9103.69	-0.0468194
9113.01	-0.0468763
9122.33	-0.0469262
9131.64	-0.0469694
9140.96	-0.0470061
9150.28	-0.0470366
9164.26	-0.0470714
9173.57	-0.0470876
9182.89	-0.0470985
9192.21	-0.0471041
9201.53	-0.0471047
9210.85	-0.0471005
9220.16	-0.0470916
9234.14	-0.0470695
9243.46	-0.0470492
9252.78	-0.0470245
9262.1	-0.0469954
9271.41	-0.046962
9280.73	-0.0469244
9290.05	-0.0468825
9304.03	-0.0468116
9313.35	-0.0467591
9322.66	-0.0467023
9331.98	-0.0466412
9341.3	-0.0465758
9350.62	-0.046506
9364.59	-0.0463932
9373.91	-0.0463124
9383.23	-0.0462271
9392.55	-0.0461374
9401.87	-0.046043
9411.19	-0.0459441
9420.5	-0.0458405
9434.48	-0.0456762
9443.8	-0.0455608
9453.12	-0.0454405
9462.43	-0.0453154
9471.75	-0.0451853
9481.07	-0.0450503
9490.39	-0.0449102
9504.37	-0.0446904
9513.68	-0.0445375
9523	-0.0443792
9532.32	-0.0442156
9541.64	-0.0440466
9550.96	-0.043872
9560.27	-0.0436918
9574.25	-0.0434108
9583.57	-0.0432161
9592.89	-0.0430154
9602.21	-0.0428087
9611.52	-0.0425956
9620.84	-0.0423762
9630.16	-0.0421504
9644.14	-0.0417991
9653.45	-0.0415563
9662.77	-0.0413066
9672.09	-0.0410498
9681.41	-0.0407857
9690.73	-0.0405142
9700.05	-0.0402352
9714.02	-0.0398023
9723.34	-0.0395039
9732.66	-0.0391976
9741.98	-0.0388833
9751.29	-0.0385608
9760.61	-0.0382302
9774.59	-0.0377188
9783.91	-0.0373675
9793.23	-0.0370079
9802.54	-0.03664
9811.86	-0.0362639
9821.18	-0.0358795
9830.5	-0.0354869
9844.47	-0.034883
9853.79	-0.0344705
9863.11	-0.0340502
9872.43	-0.0336223
9881.75	-0.0331869
9891.07	-0.0327444
9900.38	-0.0322947
9914.36	-0.0316077
9923.68	-0.0311416
9933	-0.0306694
9942.31	-0.0301913
9951.63	-0.0297077
9960.95	-0.0292189
9970.27	-0.0287252
9984.25	-0.0279764
9993.56	-0.027472
10002.9	-0.0269641
10012.2	-0.0264529
10021.5	-0.0259388
10030.8	-0.0254223
10040.2	-0.0249036
10054.1	-0.0241227
10063.4	-0.0236006
10072.8	-0.0230779
10082.1	-0.022555
10091.4	-0.0220322
10100.7	-0.02151
10110	-0.0209888
10124	-0.0202097
10133.3	-0.0196928
10142.7	-0.0191783
10152	-0.0186666
10161.3	-0.0181582
10170.6	-0.0176535
10184.6	-0.016904
10193.9	-0.0164101
10203.2	-0.0159212
10212.5	-0.0154376
10221.9	-0.0149598
10231.2	-0.0144881
10240.5	-0.0140229
10254.5	-0.013338
10263.8	-0.0128905
10273.1	-0.0124506
10282.4	-0.0120188
10291.7	-0.0115952
10301.1	-0.0111803
10310.4	-0.0107743
10324.4	-0.0101826
10333.7	-0.00980011
10343	-0.00942754
10352.3	-0.00906515
10361.6	-0.00871319
10370.9	-0.00837191
10380.3	-0.00804157
10394.2	-0.00756706
10403.6	-0.00726506
10412.9	-0.00697478
10422.2	-0.00669644
10431.5	-0.00643024
10440.8	-0.00617638
10450.1	-0.00593503
10464.1	-0.00559687
10473.4	-0.00538758
10482.8	-0.00519137
10492.1	-0.0050084
10501.4	-0.00483878
10510.7	-0.00468264
10520	-0.00454005
10534	-0.00435177
10543.3	-0.00424339
10552.6	-0.00414877
10562	-0.00406792
10571.3	-0.00400081
10580.6	-0.00394741
10594.6	-0.00389287
10603.9	-0.00387339
10613.2	-0.00386727
10622.5	-0.00387434
10631.9	-0.00389439
10641.2	-0.0039272
10650.5	-0.00397251
10664.5	-0.00406325
10673.8	-0.00413845
10683.1	-0.00422498
10692.4	-0.00432244
10701.7	-0.0044304
10711.1	-0.0045484
10720.4	-0.00467596
10734.3	-0.00488409
10743.7	-0.00503327
10753	-0.00519012
10762.3	-0.00535408
10771.6	-0.00552456
10780.9	-0.00570095
10790.3	-0.00588264
10804.2	-0.00616376
10813.6	-0.00635601
10822.9	-0.00655139
10832.2	-0.0067493
10841.5	-0.00694913
10850.8	-0.00715028
10860.1	-0.00735218
10874.1	-0.00765518
10883.4	-0.00785649
10892.8	-0.00805665
10902.1	-0.00825515
10911.4	-0.00845154
10920.7	-0.00864537
10930	-0.00883624
10944	-0.00911615
10953.3	-0.00929801
10962.6	-0.00947572
10972	-0.00964902
10981.3	-0.00981767
10990.6	-0.0099815
11004.6	-0.0102178
11013.9	-0.0103689
11023.2	-0.0105148
11032.5	-0.0106554
11041.8	-0.0107907
11051.2	-0.0109208
11060.5	-0.0110456
11074.5	-0.0112232
11083.8	-0.0113354
11093.1	-0.0114427
11102.4	-0.0115453
11111.7	-0.0116434
11121	-0.011737
11130.4	-0.0118266
11144.3	-0.0119535
11153.7	-0.0120334
11163	-0.0121099
11172.3	-0.0121831
11181.6	-0.0122532
11190.9	-0.0123204
11200.3	-0.0123848
11214.2	-0.0124767
11223.5	-0.0125349
11232.9	-0.0125909
11242.2	-0.0126446
11251.5	-0.0126963
11260.8	-0.0127458
11270.1	-0.0127932
11284.1	-0.0128604
11293.4	-0.0129024
11302.8	-0.012942
11312.1	-0.0129792
11321.4	-0.0130138
11330.7	-0.0130455
11340	-0.0130742
11354	-0.0131108
11363.3	-0.0131306
11372.6	-0.0131461
11382	-0.0131571
11391.3	-0.0131632
11400.6	-0.0131639
11414.6	-0.0131539
11423.9	-0.0131391
11433.2	-0.0131173
11442.5	-0.0130878
11451.8	-0.0130502
11461.2	-0.0130039
11470.5	-0.0129484
11484.5	-0.0128464
11493.8	-0.0127651
11503.1	-0.0126726
11512.4	-0.0125682
11521.7	-0.0124514
11531	-0.0123216
11540.4	-0.0121782
11554.3	-0.0119367
11563.7	-0.0117573
11573	-0.0115626
11582.3	-0.0113522
11591.6	-0.0111256
11600.9	-0.0108824
11610.2	-0.0106224
11624.2	-0.0101998
11633.5	-0.0098961
11642.9	-0.00957451
11652.2	-0.00923484
11661.5	-0.00887697
11670.8	-0.00850079
11680.1	-0.00810626
11694.1	-0.00748007
11703.4	-0.00703975
11712.7	-0.00658129
11722.1	-0.00610485
11731.4	-0.00561065
11740.7	-0.00509895
11750	-0.00457006
11764	-0.00374532
11773.3	-0.00317515
11782.6	-0.00258927
11791.9	-0.00198818
11801.3	-0.00137245
11810.6	-0.000742675
11824.6	0.000226924
11833.9	0.000888954
11843.2	0.00156265
11852.5	0.00224727
11861.8	0.00294203
11871.1	0.00364614
11880.5	0.00435877
11894.4	0.00544186
11903.8	0.00617209
11913.1	0.00690786
11922.4	0.00764828
11931.7	0.00839247
11941	0.00913956
11950.4	0.00988865
11964.3	0.0110141
11973.6	0.0117644
11983	0.0125137
11992.3	0.0132612
12001.6	0.014006
12010.9	0.0147473
12020.2	0.0154844
12034.2	0.0165804
12043.5	0.0173036
12052.9	0.0180201
12062.2	0.0187292
12071.5	0.0194302
12080.8	0.0201227
12090.1	0.0208059
12104.1	0.0218124
12113.4	0.0224705
12122.7	0.0231177
12132.1	0.0237537
12141.4	0.024378
12150.7	0.0249904
12160	0.0255904
12174	0.0264669
12183.3	0.0270352
12192.6	0.0275904
12201.9	0.0281323
12211.3	0.0286608
12220.6	0.0291758
12234.6	0.0299228
12243.9	0.0304036
12253.2	0.0308707
12262.5	0.0313241
12271.8	0.0317637
12281.1	0.0321895
12290.5	0.0326015
12304.4	0.0331939
12313.8	0.0335718
12323.1	0.033936
12332.4	0.0342867
12341.7	0.034624
12351	0.0349478
12360.3	0.0352582
12374.3	0.0356991
12383.6	0.0359765
12393	0.0362408
12402.3	0.036492
12411.6	0.0367303
12420.9	0.0369557
12430.2	0.0371683
12444.2	0.0374632
12453.5	0.037644
12462.8	0.0378122
12472.2	0.0379678
12481.5	0.0381109
12490.8	0.0382417
12500.1	0.0383601
12514.1	0.0385148
12523.4	0.0386027
12532.7	0.0386787
12542	0.0387427
12551.4	0.0387949
12560.7	0.0388354
12570	0.0388644
12584	0.0388866
12593.3	0.0388874
12602.6	0.0388773
12611.9	0.0388564
12621.2	0.038825
12630.6	0.0387834
12644.5	0.0387022
12653.9	0.0386361
12663.2	0.0385607
12672.5	0.0384764
12681.8	0.0383835
12691.1	0.0382825
12700.5	0.0381737
12714.4	0.0379968
12723.7	0.0378704
12733.1	0.0377378
12742.4	0.0375995
12751.7	0.037456
12761	0.0373078
12770.3	0.0371554
12784.3	0.0369203
12793.6	0.03676
12803	0.0365976
12812.3	0.0364335
12821.6	0.0362685
12830.9	0.0361031
12840.2	0.0359378
12854.2	0.0356916
12863.5	0.0355295
12872.8	0.0353695
12882.2	0.0352124
12891.5	0.0350586
12900.8	0.0349087
12910.1	0.0347633
12924.1	0.0345544
12933.4	0.0344221
12942.7	0.0342959
12952	0.0341761
12961.4	0.0340631
12970.7	0.0339572
12984.7	0.0338126
12994	0.0337258
13003.3	0.0336471
13012.6	0.0335766
13021.9	0.0335144
13031.2	0.0334605
13040.6	0.033415
13054.5	0.0333624
13063.9	0.0333375
13073.2	0.0333206
13082.5	0.0333115
13091.8	0.03331
13101.1	0.0333156
13110.4	0.033328
13124.4	0.0333585
13133.7	0.0333859
13143.1	0.0334184
13152.4	0.0334554
13161.7	0.0334961
13171	0.0335399
13180.3	0.033586
13194.3	0.0336577
13203.6	0.0337059
13212.9	0.0337535
13222.3	0.0337993
13231.6	0.0338425
13240.9	0.0338821
13250.2	0.0339169
13264.2	0.0339578
13273.5	0.033976
13282.8	0.0339855
13292.2	0.0339852
13301.5	0.0339739
13310.8	0.0339504
13320.1	0.0339136
13334.1	0.0338306
13343.4	0.033755
13352.7	0.0336618
13362	0.0335498
13371.4	0.0334178
13380.7	0.0332647
13394.6	0.0329928
13404	0.0327818
13413.3	0.0325456
13422.6	0.0322834
13431.9	0.031994
13441.2	0.0316764
13450.6	0.0313297
13464.5	0.0307533
13473.9	0.0303301
13483.2	0.029875
13492.5	0.0293873
13501.8	0.0288663
13511.1	0.0283114
13520.4	0.0277222
13534.4	0.0267733
13543.7	0.0260967
13553.1	0.0253846
13562.4	0.0246371
13571.7	0.0238539
13581	0.0230351
13590.3	0.022181
13604.3	0.0208337
13613.6	0.019892
13622.9	0.0189161
13632.3	0.0179063
13641.6	0.0168633
13650.9	0.0157879
13660.2	0.0146808
13674.2	0.0129626
13683.5	0.0117803
13692.8	0.0105696
13702.1	0.00933179
13711.5	0.00806804
13720.8	0.00677965
13730.1	0.00546797
13744.1	0.00345992
13753.4	0.00209638
13762.7	0.000714772
13772	-0.000683283
13781.3	-0.00209613
13790.7	-0.00352207
13804.6	-0.00568172
13814	-0.00713272
13823.3	-0.0085906
13832.6	-0.0100535
13841.9	-0.0115197
13851.2	-0.0129872
13860.6	-0.0144541
13874.5	-0.0166494
13883.8	-0.0181068
13893.2	-0.0195571
13902.5	-0.0209985
13911.8	-0.0224291
13921.1	-0.023847
13930.4	-0.0252505
13944.4	-0.0273249
13953.7	-0.0286846
13963.1	-0.0300238
13972.4	-0.0313408
13981.7	-0.032634
13991	-0.0339018
14000.3	-0.0351427
14014.3	-0.0369502
14023.6	-0.0381174
14032.9	-0.0392527
14042.3	-0.0403548
14051.6	-0.0414226
14060.9	-0.0424548
14070.2	-0.0434503
14084.2	-0.0448727
14093.5	-0.0457724
14102.8	-0.0466321
14112.1	-0.0474511
14121.5	-0.0482288
14130.8	-0.0489645
14140.1	-0.0496577
14154.1	-0.0506167
14163.4	-0.0512018
14172.7	-0.0517431
14182	-0.0522404
14191.3	-0.0526936
14200.7	-0.0531028
14214.6	-0.0536342
14224	-0.0539336
14233.3	-0.0541896
14242.6	-0.0544024
14251.9	-0.0545724
14261.2	-0.0547001
14270.5	-0.0547861
14284.5	-0.0548382
14293.8	-0.0548226
14303.2	-0.0547678
14312.5	-0.0546745
14321.8	-0.0545436
14331.1	-0.0543761
14340.4	-0.0541729
14354.4	-0.0538036
14363.7	-0.0535159
14373	-0.0531964
14382.4	-0.0528462
14391.7	-0.0524665
14401	-0.0520586
14410.3	-0.0516236
14424.3	-0.0509232
14433.6	-0.0504261
14442.9	-0.0499065
14452.2	-0.0493655
14461.6	-0.0488045
14470.9	-0.0482247
14480.2	-0.0476274
14494.2	-0.0467013
14503.5	-0.0460657
14512.8	-0.0454169
14522.1	-0.0447562
14531.5	-0.0440848
14540.8	-0.0434037
14550.1	-0.0427142
14564.1	-0.0416668
14573.4	-0.0409613
14582.7	-0.0402514
14592	-0.0395381
14601.3	-0.0388227
14610.7	-0.0381062
14624.6	-0.0370318
14634	-0.0363176
14643.3	-0.0356063
14652.6	-0.0348992
14661.9	-0.0341974
14671.2	-0.0335022
14680.5	-0.0328149
14694.5	-0.0318015
14703.8	-0.0311397
14713.2	-0.0304905
14722.5	-0.0298552
14731.8	-0.0292353
14741.1	-0.0286323
14750.4	-0.0280476
14764.4	-0.0272077
14773.7	-0.0266747
14783	-0.0261647
14792.4	-0.0256789
14801.7	-0.0252186
14811	-0.0247846
14820.3	-0.0243779
14834.3	-0.0238208
14843.6	-0.0234854
14852.9	-0.0231792
14862.2	-0.0229024
14871.6	-0.0226548
14880.9	-0.0224362
14890.2	-0.022246
14904.2	-0.0220123
14913.5	-0.0218894
14922.8	-0.0217914
14932.1	-0.0217167
14941.4	-0.0216637
14950.8	-0.0216306
14960.1	-0.0216152
14974.1	-0.0216211
14983.4	-0.0216409
14992.7	-0.0216708
15002	-0.0217085
15011.3	-0.0217515
15020.7	-0.0217977
15034.6	-0.0218677
15043.9	-0.0219119
15053.3	-0.0219516
15062.6	-0.021985
15071.9	-0.0220103
15081.2	-0.0220261
15090.5	-0.0220308
15104.5	-0.0220147
15113.8	-0.0219871
15123.2	-0.0219451
15132.5	-0.0218882
15141.8	-0.0218162
15151.1	-0.0217287
15160.4	-0.021626
15174.4	-0.0214435
15183.7	-0.0213035
15193	-0.0211494
15202.4	-0.020982
15211.7	-0.0208019
15221	-0.02061
15230.3	-0.0204073
15244.3	-0.020085
15253.6	-0.0198596
15262.9	-0.0196271
15272.2	-0.0193885
15281.6	-0.0191452
15290.9	-0.0188982
15300.2	-0.0186489
15314.2	-0.0182729
15323.5	-0.0180229
15332.8	-0.0177747
15342.1	-0.0175298
15351.4	-0.0172892
15360.8	-0.0170545
15370.1	-0.0168267
15384.1	-0.0165012
15393.4	-0.016297
15402.7	-0.0161046
15412	-0.0159254
15421.3	-0.0157609
15430.6	-0.0156125
15444.6	-0.0154238
15453.9	-0.0153227
15463.3	-0.0152432
15472.6	-0.0151871
15481.9	-0.0151559
15491.2	-0.0151514
15500.5	-0.0151751
15514.5	-0.0152675
15523.8	-0.0153695
15533.1	-0.0155056
15542.5	-0.0156776
15551.8	-0.015887
15561.1	-0.0161355
15570.4	-0.0164246
15584.4	-0.0169373
15593.7	-0.0173339
15603	-0.0177757
15612.3	-0.0182639
15621.7	-0.0187995
15631	-0.0193834
15640.3	-0.0200163
15654.3	-0.021059
15663.6	-0.021817
15672.9	-0.0226255
15682.2	-0.0234845
15691.6	-0.0243941
15700.9	-0.025354
15710.2	-0.0263636
15724.2	-0.02797
15733.5	-0.029101
15742.8	-0.0302788
15752.1	-0.0315023
15761.4	-0.03277
15770.8	-0.0340803
15780.1	-0.0354316
15794.1	-0.037531
15803.4	-0.0389761
15812.7	-0.0404548
15822	-0.041965
15831.3	-0.0435039
15840.6	-0.0450692
15854.6	-0.0474604
15863.9	-0.0490794
15873.3	-0.0507147
15882.6	-0.0523635
15891.9	-0.0540226
15901.2	-0.055689
15910.5	-0.0573594
15924.5	-0.0598657
15933.8	-0.0615323
15943.1	-0.0631916
15952.5	-0.0648404
15961.8	-0.0664753
15971.1	-0.0680932
15980.4	-0.0696907
15994.4	-0.0720415
16003.7	-0.0735738
16013	-0.0750744
16022.3	-0.07654
16031.7	-0.0779676
16041	-0.0793541
16050.3	-0.0806964
16064.3	-0.0826203
16073.6	-0.083839
16082.9	-0.0850033
16092.2	-0.0861103
16101.5	-0.0871573
16110.9	-0.0881417
16120.2	-0.0890609
16134.2	-0.0903123
16143.5	-0.0910581
16152.8	-0.0917305
16162.1	-0.0923275
16171.4	-0.0928471
16180.8	-0.0932874
16190.1	-0.0936468
16204	-0.0940305
16213.4	-0.0941807
16222.7	-0.094245
16232	-0.0942224
16241.3	-0.0941119
16250.6	-0.0939128
16264.6	-0.0934469
16273.9	-0.0930243
16283.2	-0.0925119
16292.6	-0.0919099
16301.9	-0.0912184
16311.2	-0.0904379
16320.5	-0.089569
16334.5	-0.0881018
16343.8	-0.087016
16353.1	-0.0858455
16362.5	-0.0845918
16371.8	-0.0832564
16381.1	-0.0818412
16390.4	-0.0803482
16404.4	-0.0779675
16413.7	-0.0762896
16423	-0.0745421
16432.3	-0.0727275
16441.7	-0.0708488
16451	-0.0689087
16460.3	-0.0669104
16474.3	-0.0638105
16483.6	-0.0616805
16492.9	-0.0595036
16502.2	-0.0572834
16511.5	-0.0550232
16520.9	-0.0527266
16530.2	-0.0503973
16544.2	-0.04685
16553.5	-0.0444548
16562.8	-0.0420397
16572.1	-0.0396083
16581.4	-0.0371643
16590.7	-0.0347113
16600.1	-0.0322529
16614	-0.028563
16623.4	-0.0261066
16632.7	-0.023657
16642	-0.0212176
16651.3	-0.0187915
16660.6	-0.016382
16674.6	-0.0128054
16683.9	-0.0104504
16693.2	-0.00812222
16702.6	-0.00582346
16711.9	-0.00355671
16721.2	-0.00132437
16730.5	0.000871249
16744.5	0.00409117
16753.8	0.00618587
16763.1	0.00823691
16772.4	0.0102426
16781.8	0.0122014
16791.1	0.014112
16800.4	0.015973
16814.4	0.0186692
16823.7	0.0204017
16833	0.0220814
16842.3	0.0237075
16851.7	0.0252795
16861	0.026797
16870.3	0.0282598
16884.3	0.030351
16893.6	0.0316763
16902.9	0.0329468
16912.2	0.0341627
16921.5	0.0353243
16930.9	0.0364319
16940.2	0.0374861
16954.1	0.0389685
16963.5	0.0398919
16972.8	0.0407644
16982.1	0.0415866
16991.4	0.0423597
17000.7	0.0430845
17010.1	0.0437621
17024	0.0446923
17033.4	0.0452567
17042.7	0.0457779
17052	0.0462572
17061.3	0.0466956
17070.6	0.0470947
17084.6	0.0476221
17093.9	0.0479281
17103.2	0.0481994
17112.6	0.048437
17121.9	0.0486425
17131.2	0.048817
17140.5	0.048962
17154.5	0.0491268
17163.8	0.0492034
17173.1	0.049255
17182.4	0.0492827
17191.8	0.0492877
17201.1	0.0492712
17210.4	0.0492344
17224.4	0.0491436
17233.7	0.0490609
17243	0.0489617
17252.3	0.048847
17261.6	0.0487177
17271	0.0485748
17280.3	0.0484193
17294.3	0.048164
17303.6	0.0479805
17312.9	0.0477871
17322.2	0.0475847
17331.5	0.047374
17340.8	0.0471555
17350.2	0.0469301
17364.1	0.04658
17373.5	0.0463395
17382.8	0.046094
17392.1	0.0458439
17401.4	0.0455897
17410.7	0.0453319
17420.1	0.0450708
17434	0.0446739
17443.3	0.0444063
17452.7	0.0441366
17462	0.0438651
17471.3	0.0435921
17480.6	0.0433179
17494.6	0.0429045
17503.9	0.0426279
17513.2	0.0423507
17522.6	0.0420729
17531.9	0.0417947
17541.2	0.0415161
17550.5	0.0412374
17564.5	0.0408188
17573.8	0.0405396
17583.1	0.0402602
17592.4	0.0399807
17601.8	0.039701
17611.1	0.0394211
17620.4	0.0391409
17634.4	0.0387201
17643.7	0.038439
17653	0.0381575
17662.3	0.0378754
17671.6	0.0375926
17681	0.0373091
17690.3	0.0370248
17704.3	0.0365965
17713.6	0.0363096
17722.9	0.0360216
17732.2	0.0357323
17741.5	0.0354417
17750.8	0.0351496
17760.2	0.0348562
17774.1	0.0344131
17783.5	0.0341157
17792.8	0.0338167
17802.1	0.0335161
17811.4	0.0332138
17820.7	0.0329099
17830	0.0326044
17844	0.0321433
17853.3	0.031834
17862.7	0.0315233
17872	0.0312113
17881.3	0.030898
17890.6	0.0305837
17904.6	0.0301103
17913.9	0.0297938
17923.2	0.0294766
17932.5	0.029159
17941.9	0.0288411
17951.2	0.0285231
17960.5	0.0282051
17974.5	0.0277287
17983.8	0.0274116
17993.1	0.0270954
18002.4	0.02678
18011.8	0.0264656
18021.1	0.0261526
18030.4	0.025841
18044.4	0.0253767
18053.7	0.0250695
18063	0.0247643
18072.3	0.0244614
18081.6	0.0241607
18091	0.0238626
18100.3	0.0235672
18114.2	0.0231292
18123.6	0.0228409
18132.9	0.0225557
18142.2	0.0222738
18151.5	0.0219951
18160.8	0.0217198
18170.2	0.021448
18184.1	0.0210471
18193.5	0.0207844
18202.8	0.0205255
18212.1	0.0202705
18221.4	0.0200193
18230.7	0.019772
18240	0.0195286
18254	0.019171
18263.3	0.0189374
18272.7	0.0187078
18282	0.018482
18291.3	0.0182599
18300.6	0.0180415
18314.6	0.0177204
18323.9	0.0175106
18333.2	0.0173038
18342.5	0.0170999
18351.9	0.0168987
18361.2	0.0166999
18370.5	0.0165031
18384.5	0.016211
18393.8	0.0160177
18403.1	0.0158253
18412.4	0.0156331
18421.7	0.0154407
18431.1	0.0152476
18440.4	0.0150533
18454.4	0.0147583
18463.7	0.0145585
18473	0.0143553
18482.3	0.0141482
18491.6	0.0139365
18500.9	0.0137196
18510.3	0.0134968
18524.2	0.0131499
18533.6	0.0129092
18542.9	0.0126601
18552.2	0.0124019
18561.5	0.0121339
18570.8	0.0118554
18580.2	0.0115658
18594.1	0.0111088
18603.4	0.0107883
18612.8	0.0104543
18622.1	0.0101063
18631.4	0.00974358
18640.7	0.0093657
18650	0.00897213
18664	0.00835133
18673.3	0.00791655
18682.7	0.00746463
18692	0.00699525
18701.3	0.00650815
18710.6	0.00600312
18724.6	0.00521164
18733.9	0.00466126
18743.2	0.00409268
18752.5	0.00350595
18761.9	0.00290121
18771.2	0.00227862
18780.5	0.00163843
18794.5	0.000645839
18803.8	-3.68776e-05
18813.1	-0.000735861
18822.4	-0.0014506
18831.7	-0.00218052
18841.1	-0.002925
18850.4	-0.00368336
18864.4	-0.00484535
18873.7	-0.00563515
18883	-0.00643611
18892.3	-0.00724736
18901.6	-0.00806797
18910.9	-0.00889703
18920.3	-0.00973356
18934.2	-0.0110002
18943.6	-0.011851
18952.9	-0.0127058
18962.2	-0.0135634
18971.5	-0.0144229
18980.8	-0.0152832
18990.1	-0.0161432
19004.1	-0.0174303
19013.4	-0.018285
19022.8	-0.0191358
19032.1	-0.0199816
19041.4	-0.0208215
19050.7	-0.0216544
19060	-0.0224794
19074	-0.0236999
19083.3	-0.024501
19092.6	-0.025291
19102	-0.0260689
19111.3	-0.026834
19120.6	-0.0275855
19134.6	-0.0286854
19143.9	-0.0293994
19153.2	-0.0300972
19162.5	-0.030778
19171.8	-0.0314413
19181.2	-0.0320863
19190.5	-0.0327126
19204.5	-0.0336155
19213.8	-0.0341924
19223.1	-0.0347486
19232.4	-0.0352838
19241.7	-0.0357973
19251.1	-0.036289
19260.4	-0.0367582
19274.3	-0.0374194
19283.7	-0.0378311
19293	-0.0382193
19302.3	-0.0385837
19311.6	-0.0389239
19320.9	-0.0392398
19330.3	-0.039531
19344.2	-0.0399213
19353.6	-0.0401502
19362.9	-0.0403538
19372.2	-0.040532
19381.5	-0.0406848
19390.8	-0.040812
19400.1	-0.0409136
19414.1	-0.0410178
19423.4	-0.0410551
19432.8	-0.0410669
19442.1	-0.041053
19451.4	-0.0410137
19460.7	-0.040949
19470	-0.040859
19484	-0.0406772
19493.3	-0.040525
19502.6	-0.0403484
19512	-0.0401476
19521.3	-0.0399229
19530.6	-0.0396748
19544.6	-0.0392594
19553.9	-0.0389543
19563.2	-0.0386272
19572.5	-0.0382785
19581.8	-0.0379089
19591.2	-0.0375188
19600.5	-0.0371087
19614.5	-0.0364576
19623.8	-0.0360004
19633.1	-0.0355254
19642.4	-0.0350333
19651.7	-0.0345247
19661	-0.0340004
19670.4	-0.0334609
19684.3	-0.032625
19693.7	-0.032051
19703	-0.0314644
19712.3	-0.0308659
19721.6	-0.0302564
19730.9	-0.0296366
19740.2	-0.0290073
19754.2	-0.028047
19763.5	-0.027397
19772.9	-0.0267403
19782.2	-0.0260774
19791.5	-0.0254092
19800.8	-0.0247365
19810.1	-0.02406
19824.1	-0.02304
19833.4	-0.0223575
19842.7	-0.0216739
19852.1	-0.0209901
19861.4	-0.0203067
19870.7	-0.0196246
19880	-0.0189444
19894	-0.0179296
19903.3	-0.0172578
19912.6	-0.0165906
19922	-0.0159288
19931.3	-0.0152731
19940.6	-0.0146243
19954.6	-0.0136655
19963.9	-0.013037
19973.2	-0.0124179
19982.5	-0.0118089
19991.8	-0.0112108
