0	0
16.3148	0
24.4721	0
32.6293	0
40.7865	0
57.1005	0
65.2573	0
73.4141	0
81.5708	0
97.8842	0
106.041	0
114.198	0
122.354	0
130.511	0
146.577	0
154.572	0
162.559	0
170.547	0
186.521	0
194.508	0
202.495	0
210.482	0
226.456	0
234.444	0
242.431	0
250.4	0
266.34	0
274.31	0
282.297	0
290.284	0
306.258	0
314.245	0
322.232	0
330.218	0
346.175	0
354.162	0
362.149	0
370.135	0
386.109	0
394.096	0
401.896	0
417.498	0
425.299	0
433.1	0
440.901	0
456.329	0
464.044	0
471.739	0
487.168	0
494.774	0
502.381	0
517.595	0
525.186	0
532.796	0
540.406	0
555.586	0
563.156	0
570.727	0
585.868	0
593.45	0
601.031	0
616.194	0
623.775	0
631.357	0
646.52	0
654.101	0
661.682	0
676.845	0
684.427	0
692.008	0
707.153	0
714.727	0
722.301	0
737.439	0
745.003	0
752.568	0
760.132	0
775.261	0
782.826	0
790.39	0
805.519	0
813.084	0
820.648	0
835.777	0
843.342	0
850.906	0
866.035	0
873.599	0
881.164	0
896.293	0
903.857	0
911.421	0
926.55	0
934.114	0
941.679	0
956.807	0
964.372	0
971.936	0
987.065	0
994.629	0
1002.19	0
1017.32	0
1024.89	0
1032.45	0
1040.02	0
1055.14	0
1062.71	0
1070.27	0
1085.4	0
1092.97	0
1100.53	0
1115.66	0
1123.22	0
1130.79	0
1145.92	0
1153.48	0
1161.04	0
1176.17	0
1183.74	0
1191.3	0
1206.43	0
1213.99	0
1221.56	0
1236.69	0
1244.25	0
1251.82	0
1266.94	0
1274.51	0
1282.07	0
1297.11	0
1304.63	0
1312.15	0
1327.18	0
1334.69	0
1342.2	0
1357.23	0
1364.75	0
1372.26	0
1387.29	0
1394.81	0
1402.32	0
1417.35	0
1424.87	0
1432.37	0
1447.36	0
1454.86	0
1462.33	0
1477.3	0
1484.78	0
1492.26	0
1507.19	0
1514.65	0
1522.1	0
1537.01	0
1544.47	0
1551.92	0
1566.83	0
1574.29	0
1581.74	0
1596.65	0
1604.1	0
1611.55	0
1626.44	0
1633.89	0
1641.33	0
1656.23	0
1663.67	0
1671.12	0
1686.01	0
1693.46	0
1700.9	0
1715.79	0
1723.24	0
1730.69	0
1745.58	0
1753.02	0
1760.47	0
1775.36	0
1782.81	0
1790.25	0
1805.14	0
1812.59	0
1820.04	0
1834.92	0
1842.36	0
1857.24	0
1864.68	0
1872.11	0
1886.98	0
1894.42	0
1901.85	0
1916.72	0
1924.16	0
1931.59	0
1946.45	0
1953.88	0
1961.31	0
1976.17	0
1983.6	0
1991.03	0
2005.89	0
2013.32	0
2020.75	0
2035.61	0
2043.04	0
2050.47	0
2065.33	0
2072.76	0
2080.2	0
2095.06	0
2102.49	0
2117.35	0
2124.78	0
2132.21	0
2147.07	0
2154.5	0
2161.93	0
2176.79	0
2184.22	0
2191.65	0
2206.51	0
2213.94	0
2221.37	0
2236.23	0
2243.66	0
2251.09	0
2265.95	0
2273.38	0
2280.81	0
2295.67	0
2303.1	0
2310.53	0
2325.39	0
2332.82	0
2340.25	0
2355.11	0
2362.54	-9.09495e-13
2377.4	-1.81899e-12
2384.83	-2.72848e-12
2392.26	-3.63798e-12
2407.12	-5.45697e-12
2414.55	-6.36646e-12
2421.98	-8.18545e-12
2436.84	-1.27329e-11
2444.27	-1.54614e-11
2451.7	-1.90994e-11
2466.56	-3.00133e-11
2473.99	-3.72893e-11
2481.42	-4.63842e-11
2496.28	-7.00311e-11
2503.71	-8.54925e-11
2511.14	-1.04592e-10
2525.96	-1.56433e-10
2533.37	-1.90994e-10
2540.77	-2.31921e-10
2555.57	-3.4197e-10
2562.96	-4.1382e-10
2570.34	-5.00222e-10
2585.11	-7.25777e-10
2592.5	-8.72205e-10
2607.27	-1.25419e-09
2614.65	-1.49976e-09
2622.03	-1.7917e-09
2636.8	-2.54386e-09
2644.19	-3.02498e-09
2651.57	-3.59069e-09
2666.34	-5.03769e-09
2673.73	-5.95264e-09
2681.11	-7.02403e-09
2695.84	-9.72886e-09
2703.2	-1.1426e-08
2710.57	-1.33987e-08
2725.29	-1.83491e-08
2732.66	-2.14277e-08
2740.02	-2.49884e-08
2754.75	-3.38432e-08
2762.11	-3.93065e-08
2776.84	-5.28089e-08
2784.2	-6.10908e-08
2791.56	-7.05786e-08
2806.29	-9.38408e-08
2813.65	-1.07999e-07
2821.02	-1.24136e-07
2835.74	-1.63391e-07
2843.11	-1.87106e-07
2850.47	-2.14e-07
2865.2	-2.78929e-07
2872.56	-3.17874e-07
2887.29	-4.11374e-07
2894.65	-4.67159e-07
2902.01	-5.29897e-07
2916.74	-6.79444e-07
2924.1	-7.68064e-07
2931.47	-8.67271e-07
2946.19	-1.10211e-06
2953.56	-1.24035e-06
2960.92	-1.39442e-06
2975.64	-1.75668e-06
2983.01	-1.96857e-06
2990.37	-2.2037e-06
3005.1	-2.75295e-06
3012.46	-3.07222e-06
3027.19	-3.81448e-06
3034.55	-4.24397e-06
3041.91	-4.71712e-06
3056.64	-5.8104e-06
3064	-6.43927e-06
3071.37	-7.12932e-06
3086.09	-8.71427e-06
3093.46	-9.62073e-06
3100.82	-1.06116e-05
3115.55	-1.28742e-05
3122.91	-1.41611e-05
3130.27	-1.55625e-05
3145	-1.87448e-05
3152.36	-2.05449e-05
3167.09	-2.46158e-05
3174.45	-2.69095e-05
3181.82	-2.93918e-05
3196.54	-3.49756e-05
3203.9	-3.81056e-05
3211.27	-4.14813e-05
3225.99	-4.90356e-05
3233.36	-5.3249e-05
3240.72	-5.77782e-05
3255.45	-6.78628e-05
3262.81	-7.34603e-05
3270.17	-7.94576e-05
3284.9	-9.27464e-05
3292.26	-0.000100088
3306.99	-0.000116296
3314.35	-0.000125219
3321.72	-0.000134728
3336.44	-0.000155623
3343.8	-0.000167075
3351.17	-0.000179241
3365.89	-0.000205856
3373.26	-0.000220377
3380.62	-0.000235759
3395.35	-0.000269259
3402.71	-0.000287459
3410.07	-0.00030668
3424.8	-0.000348363
3432.16	-0.000370911
3446.89	-0.000419651
3454.25	-0.000445935
3461.61	-0.000473558
3476.34	-0.000533014
3483.7	-0.000564944
3491.07	-0.000598407
3505.79	-0.000670134
3513.15	-0.000708495
3520.52	-0.000748589
3535.24	-0.000834169
3542.61	-0.000879753
3557.33	-0.00097675
3564.7	-0.00102826
3572.06	-0.00108183
3586.78	-0.00119535
3594.15	-0.00125538
3601.51	-0.00131765
3616.24	-0.00144904
3623.6	-0.00151823
3630.96	-0.00158979
3645.69	-0.00174015
3653.05	-0.00181899
3660.41	-0.0019003
3675.14	-0.00207037
3682.5	-0.00215916
3697.23	-0.00234424
3704.59	-0.00244052
3711.96	-0.00253929
3726.68	-0.00274419
3734.04	-0.00285028
3741.41	-0.00295874
3756.13	-0.00318261
3763.5	-0.00329792
3770.86	-0.00341539
3785.59	-0.00365653
3792.95	-0.00378004
3800.31	-0.00390537
3815.04	-0.0041611
3822.4	-0.00429125
3837.13	-0.00455548
3844.49	-0.00468925
3851.85	-0.00482392
3866.58	-0.00509524
3873.94	-0.00523152
3881.31	-0.00536792
3896.03	-0.00564027
3903.4	-0.00577574
3910.76	-0.00591041
3925.48	-0.00617628
3932.85	-0.00630693
3940.21	-0.00643565
3954.94	-0.0066861
3962.3	-0.00680717
3977.03	-0.00703928
3984.39	-0.0071496
3991.75	-0.0072556
4006.48	-0.0074531
4013.84	-0.00754378
4021.21	-0.00762854
4035.93	-0.00777858
4043.3	-0.00784297
4050.66	-0.00789969
4065.39	-0.00798827
4072.75	-0.00801919
4080.11	-0.00804057
4094.84	-0.00805278
4102.2	-0.00804264
4116.93	-0.00798745
4124.29	-0.00794141
4131.68	-0.00788223
4146.46	-0.00772284
4153.84	-0.00762166
4161.23	-0.00750551
4176.01	-0.00722645
4183.39	-0.00706262
4190.78	-0.006882
4205.56	-0.00646868
4212.95	-0.00623516
4220.33	-0.00598322
4235.11	-0.00542263
4242.5	-0.0051133
4257.27	-0.00443506
4264.66	-0.00406562
4272.05	-0.00367565
4286.82	-0.00283336
4294.21	-0.00238074
4301.6	-0.00190701
4316.37	-0.000895955
4323.76	-0.00035858
4331.15	0.000200019
4345.93	0.00138049
4353.31	0.00200191
4360.7	0.00264358
4375.48	0.00398639
4382.86	0.00468791
4390.26	0.00540989
4405.04	0.00691152
4412.43	0.00768599
4427.21	0.00927241
4434.6	0.0100914
4442	0.0109523
4456.89	0.0128487
4464.33	0.013867
4471.78	0.0163288
4486.67	0.0193408
4494.11	0.0206203
4501.55	0.0226223
4516.61	0.0283291
4524.13	0.0317092
4531.66	0.0352718
4546.71	0.0425523
4554.23	0.0467037
4561.76	0.0512283
4576.81	0.061401
4584.34	0.0668748
4591.86	0.0725001
4606.91	0.08413
4614.44	0.0901727
4621.97	0.0964014
4637.02	0.109396
4644.54	0.116176
4652.07	0.123154
4667.12	0.137672
4674.65	0.14517
4682.17	0.152783
4697.22	0.168231
4704.75	0.176022
4712.28	0.183844
4727.33	0.199585
4734.85	0.207512
4742.38	0.215477
4757.43	0.231505
4764.96	0.239541
4772.48	0.247567
4780.01	0.255557
4795.06	0.27133
4802.59	0.279063
4810.11	0.286666
4825.16	0.301412
4832.69	0.308527
4840.21	0.315454
4855.27	0.328693
4862.79	0.334976
4870.32	0.341016
4885.37	0.352302
4892.9	0.357518
4900.42	0.362431
4915.47	0.371308
4923	0.375254
4930.52	0.37886
4945.58	0.385028
4953.1	0.387575
4960.63	0.389751
4975.68	0.392959
4983.21	0.39397
4990.73	0.394573
5005.78	0.394525
5013.31	0.393859
5020.84	0.392759
5035.92	0.389238
5043.47	0.386816
5051.01	0.383956
5066.12	0.376916
5073.68	0.372743
5081.25	0.368143
5096.38	0.357685
5103.94	0.351841
5111.51	0.345597
5126.63	0.331943
5134.2	0.324552
5141.76	0.316798
5156.89	0.300245
5164.46	0.291468
5172.02	0.282373
5187.15	0.263283
5194.71	0.253315
5202.28	0.243084
5217.41	0.221901
5224.97	0.210984
5232.54	0.199876
5240.1	0.188598
5255.23	0.165622
5262.79	0.153973
5270.36	0.142249
5285.49	0.118682
5293.05	0.106888
5300.62	0.0951269
5315.75	0.071843
5323.31	0.0603371
5330.88	0.0490975
5346	0.0266968
5353.57	0.0166946
5361.13	-0.00112934
5376.26	-0.0110469
5383.83	-0.0165561
5391.39	-0.0216591
5406.52	-0.0309501
5414.08	-0.0352747
5421.65	-0.031337
5436.78	-0.036626
5444.34	-0.0395445
5451.91	-0.0426604
5467.03	-0.0492084
5474.6	-0.053348
5482.16	-0.0570718
5497.29	-0.0632874
5504.86	-0.0658607
5512.42	-0.0681753
5527.55	-0.0723097
5535.11	-0.0742374
5542.68	-0.0761054
5550.24	-0.0779132
5565.37	-0.0813237
5572.94	-0.0829202
5580.5	-0.0844488
5595.63	-0.08734
5603.15	-0.0887274
5610.67	-0.0901065
5625.7	-0.09286
5633.22	-0.0942214
5640.73	-0.0955545
5655.75	-0.0980698
5663.27	-0.0992266
5670.79	-0.100303
5685.82	-0.102196
5693.33	-0.103011
5700.85	-0.103739
5715.88	-0.10495
5723.39	-0.105441
5730.91	-0.105863
5745.94	-0.106528
5753.44	-0.106784
5760.94	-0.107001
5775.93	-0.107337
5783.41	-0.107464
5790.89	-0.10757
5805.85	-0.107715
5813.33	-0.107753
5820.81	-0.107767
5835.74	-0.107708
5843.2	-0.107631
5850.65	-0.10752
5865.56	-0.107185
5873.02	-0.10696
5880.47	-0.106696
5895.38	-0.106053
5902.84	-0.105678
5910.3	-0.10527
5925.2	-0.104367
5932.65	-0.103878
5940.1	-0.103367
5955	-0.102292
5962.44	-0.101734
5977.33	-0.100581
5984.78	-0.0999904
5992.23	-0.0993903
6007.12	-0.0981633
6014.56	-0.0975364
6022.01	-0.0969
6036.9	-0.0955979
6044.35	-0.0949317
6051.79	-0.0942553
6066.69	-0.092873
6074.13	-0.0921681
6081.58	-0.0914552
6096.47	-0.09001
6103.92	-0.0892803
6111.36	-0.0885478
6126.25	-0.0870806
6133.7	-0.0863488
6141.15	-0.08562
6156.04	-0.0841761
6163.48	-0.0834634
6170.92	-0.0827574
6185.8	-0.0813674
6193.23	-0.0806842
6200.67	-0.0800088
6215.54	-0.0786806
6222.97	-0.0780277
6230.41	-0.0773818
6245.28	-0.076111
6252.72	-0.0754857
6260.15	-0.0748671
6275.01	-0.0736512
6282.44	-0.0730537
6297.3	-0.0718805
6304.73	-0.0713053
6312.16	-0.0707381
6327.02	-0.0696287
6334.45	-0.0690868
6341.88	-0.0685538
6356.74	-0.0675145
6364.17	-0.0670082
6371.6	-0.0665107
6386.47	-0.0655416
6393.9	-0.0650695
6401.33	-0.0646054
6416.19	-0.0636998
6423.62	-0.0632577
6431.05	-0.0628224
6445.91	-0.0619707
6453.34	-0.0615537
6460.77	-0.0611423
6475.63	-0.0603354
6483.06	-0.0599394
6490.49	-0.0595482
6505.35	-0.0587791
6512.78	-0.0584008
6520.21	-0.0580266
6535.07	-0.0572889
6542.5	-0.0569252
6557.36	-0.0562063
6564.79	-0.0558507
6572.22	-0.0554971
6587.08	-0.0547952
6594.51	-0.0544461
6601.94	-0.0540977
6616.8	-0.0534021
6624.23	-0.0530541
6631.66	-0.0527056
6646.52	-0.0520057
6653.95	-0.0516538
6661.38	-0.0513003
6676.25	-0.0505873
6683.68	-0.0502273
6691.11	-0.0498649
6705.97	-0.0491318
6713.4	-0.0487608
6720.83	-0.0483866
6735.69	-0.0476284
6743.12	-0.0472442
6750.55	-0.0468564
6765.41	-0.0460697
6772.84	-0.0456708
6780.27	-0.045268
6795.13	-0.0444508
6802.56	-0.0440363
6817.42	-0.0431954
6824.85	-0.042769
6832.28	-0.0423386
6847.14	-0.041466
6854.57	-0.0410238
6861.99	-0.0405784
6876.79	-0.0396779
6884.2	-0.0392219
6891.6	-0.0387622
6906.4	-0.0378315
6913.8	-0.0373609
6921.19	-0.0368876
6935.96	-0.0359304
6943.34	-0.0354466
6950.73	-0.0349593
6965.5	-0.0339748
6972.88	-0.0334777
6980.27	-0.0329774
6995.04	-0.0319677
7002.42	-0.0314584
7017.19	-0.0304317
7024.57	-0.0299145
7031.96	-0.0293948
7046.73	-0.0283489
7054.11	-0.0278229
7061.5	-0.0272952
7076.27	-0.0262352
7083.65	-0.0257034
7091.04	-0.0251706
7105.81	-0.0241033
7113.19	-0.0235693
7120.57	-0.0230353
7135.34	-0.021969
7142.73	-0.0214372
7150.11	-0.0209067
7164.88	-0.0198512
7172.27	-0.0193269
7187.04	-0.018287
7194.42	-0.0177722
7201.81	-0.0172613
7216.58	-0.0162532
7223.96	-0.0157568
7231.34	-0.0152659
7246.11	-0.0143028
7253.5	-0.0138314
7260.88	-0.0133673
7275.65	-0.0124626
7283.04	-0.0120228
7290.42	-0.0115919
7305.19	-0.0107583
7312.58	-0.0103563
7327.34	-0.00958346
7334.73	-0.00921324
7342.11	-0.0088542
7356.88	-0.00817062
7364.27	-0.0078465
7371.65	-0.00753442
7386.42	-0.00694687
7393.81	-0.00667161
7401.19	-0.00640876
7415.96	-0.00592027
7423.35	-0.00569454
7430.73	-0.00548104
7445.5	-0.00509011
7452.88	-0.00491231
7460.27	-0.004746
7475.04	-0.00444677
7482.42	-0.00431327
7497.19	-0.00407689
7504.58	-0.00397331
7511.96	-0.003879
7526.73	-0.00371675
7534.11	-0.00364809
7541.5	-0.00358731
7556.27	-0.00348818
7563.65	-0.0034493
7571.04	-0.00341725
7585.81	-0.003373
7593.19	-0.00336057
7600.58	-0.00335452
7615.35	-0.00336155
7622.73	-0.00337472
7630.12	-0.00339445
7644.88	-0.00345414
7652.27	-0.00349447
7667.04	-0.00359714
7674.43	-0.00366002
7681.81	-0.00373095
7696.59	-0.00389814
7703.98	-0.003995
7711.37	-0.00410109
7726.14	-0.00434209
7733.53	-0.00447752
7740.92	-0.00462321
7755.69	-0.00494606
7763.08	-0.00512351
7770.47	-0.00531175
7785.24	-0.00572074
7792.63	-0.00594145
7800.02	-0.00617287
7814.8	-0.00666735
7822.18	-0.00693006
7836.96	-0.00748535
7844.35	-0.00777739
7851.73	-0.00807864
7866.51	-0.00870745
7873.9	-0.00903432
7881.29	-0.009369
7896.06	-0.0100602
7903.45	-0.0104158
7910.84	-0.0107776
7925.61	-0.0115174
7933	-0.0118945
7940.39	-0.0122757
7955.16	-0.0130483
7962.55	-0.0134387
7977.33	-0.0142252
7984.72	-0.0146203
7992.1	-0.0150159
8006.88	-0.0158069
8014.27	-0.0162013
8021.66	-0.0165943
8036.43	-0.0173742
8043.82	-0.0177601
8051.21	-0.0181427
8065.98	-0.0188958
8073.37	-0.0192653
8080.76	-0.0196295
8095.53	-0.02034
8102.92	-0.0206854
8110.31	-0.0210236
8125.09	-0.021677
8132.47	-0.0219914
8147.25	-0.0225941
8154.64	-0.0228818
8162.02	-0.0231601
8176.8	-0.0236872
8184.19	-0.0239356
8191.58	-0.0241736
8206.35	-0.0246177
8213.74	-0.0248233
8221.13	-0.0250178
8235.9	-0.0253724
8243.29	-0.0255321
8250.68	-0.0256799
8265.45	-0.0259392
8272.84	-0.0260503
8280.23	-0.026149
8295.01	-0.0263084
8302.39	-0.026369
8317.17	-0.0264519
8324.56	-0.026474
8331.95	-0.0264834
8346.72	-0.0264639
8354.11	-0.0264351
8361.47	-0.0263938
8376.2	-0.0262742
8383.56	-0.026196
8390.93	-0.0261057
8405.65	-0.0258894
8413.02	-0.0257635
8420.38	-0.025626
8435.11	-0.0253167
8442.47	-0.0251451
8457.2	-0.0247688
8464.56	-0.0245643
8471.92	-0.0243491
8486.65	-0.0238871
8494.01	-0.0236407
8501.38	-0.0233841
8516.1	-0.0228414
8523.47	-0.0225556
8530.83	-0.0222604
8545.56	-0.0216427
8552.92	-0.0213206
8560.28	-0.0209899
8575.01	-0.0203037
8582.37	-0.0199486
8597.1	-0.0192158
8604.46	-0.0188385
8611.83	-0.0184542
8626.55	-0.0176658
8633.92	-0.0172621
8641.28	-0.0168523
8656.01	-0.0160158
8663.37	-0.0155895
8670.73	-0.0151581
8685.46	-0.0142809
8692.82	-0.0138356
8700.19	-0.0133861
8714.91	-0.0124754
8722.28	-0.0120147
8737	-0.0110834
8744.37	-0.0106134
8751.73	-0.0101406
8766.46	-0.00918793
8773.82	-0.0087084
8781.18	-0.00822703
8795.91	-0.00725957
8803.28	-0.00677391
8810.64	-0.00628722
8825.37	-0.00531161
8832.73	-0.00482309
8840.09	-0.00433436
8854.82	-0.00335704
8862.18	-0.00286885
8876.91	-0.00189437
8884.27	-0.00140846
8891.64	-0.000923676
8906.36	4.17465e-05
8913.73	0.000522029
8921.09	0.00100045
8935.82	0.00195104
8943.18	0.00242285
8950.54	0.00289212
8965.27	0.00382237
8972.63	0.00428301
8987.36	0.00519456
8994.72	0.00564514
9002.09	0.00609204
9016.81	0.00697422
9024.18	0.00740919
9031.54	0.00783986
9046.27	0.00868767
9053.63	0.0091045
9060.99	0.00951636
9075.72	0.0103245
9083.08	0.0107204
9090.45	0.0111105
9105.17	0.0118724
9112.54	0.0122437
9127.26	0.0129652
9134.63	0.0133148
9141.99	0.0136564
9156.72	0.0143135
9164.08	0.0146279
9171.44	0.0149321
9186.17	0.0155086
9193.53	0.0157809
9200.9	0.0160428
9215.62	0.0165379
9222.99	0.0167726
9230.35	0.0169934
9245.08	0.0173926
9252.44	0.0175695
9267.17	0.0179062
9274.53	0.0180793
9281.89	0.0182615
9296.62	0.0187088
9303.98	0.0188766
9311.35	0.0190461
9326.07	0.0194428
9333.46	0.0196719
9340.85	0.0199083
9355.63	0.0199953
9363.01	0.0201609
9370.4	0.0204058
9385.18	0.020939
9392.57	0.0212023
9407.34	0.0216621
9414.73	0.0218462
9422.12	0.0220015
9436.89	0.0222545
9444.28	0.0223664
9451.67	0.0224849
9466.45	0.0226838
9473.83	0.0227833
9481.22	0.0228848
9496	0.0230961
9503.39	0.0232012
9510.78	0.0233034
9525.57	0.0234986
9532.96	0.0235925
9540.35	0.0236846
9555.13	0.0238628
9562.52	0.0239462
9577.3	0.0240934
9584.7	0.0241605
9592.14	0.0242263
9607.03	0.0243535
9614.48	0.0244117
9621.92	0.0244621
9636.81	0.0245282
9644.26	0.0245414
9651.7	0.0245415
9666.59	0.0245092
9674.04	0.0244808
9681.48	0.0244467
9696.37	0.0243646
9703.82	0.0243165
9711.26	0.0242626
9726.34	0.0241324
9733.88	0.024055
9741.42	0.0239689
9756.51	0.0237693
9764.05	0.0236561
9771.59	0.0235346
9786.7	0.0232693
9794.26	0.0231274
9801.82	0.0229807
9816.96	0.022676
9824.54	0.0225189
9832.11	0.0223589
9847.26	0.0220286
9854.84	0.021857
9862.42	0.0216802
9877.57	0.0213083
9885.14	0.0211123
9892.72	0.0209092
9900.22	0.020701
9915.25	0.020263
9922.77	0.020034
9930.28	0.019799
9945.32	0.0193122
9952.83	0.0190613
9960.35	0.0188059
9975.36	0.0182833
9982.86	0.0180165
9990.36	0.0177461
10005.4	0.0171946
10012.8	0.0169146
10020.3	0.0166308
10035.3	0.0160531
10042.7	0.0157593
10050.2	0.0154622
10065.2	0.0148586
10072.7	0.0145521
10080.1	0.0142436
10095	0.0136172
10102.5	0.0132989
10117.4	0.0126502
10124.9	0.0123183
10132.3	0.0119789
10147.2	0.0112652
10154.7	0.0108619
10162.1	0.0104597
10177	0.00888013
10184.5	0.00845507
10192	0.00802527
10206.9	0.00766623
10214.3	0.00735118
10221.8	0.00700178
10236.7	0.00621364
10244.1	0.00581923
10251.6	0.00543001
10266.4	0.00459741
10273.9	0.00418162
10281.3	0.00378654
10296.2	0.0030345
10303.7	0.0026677
10311.1	0.00230263
10326	0.00156826
10333.5	0.00119331
10340.9	0.000811858
10355.8	3.09955e-05
10363.2	-0.000366446
10370.7	-0.000767036
10385.6	-0.00157381
10393	-0.00197885
10400.5	-0.00238482
10415.4	-0.00319978
10422.8	-0.00360894
10430.3	-0.00401926
10445.1	-0.00484253
10452.6	-0.00525534
10460	-0.00566895
10474.9	-0.00649801
10482.3	-0.00691324
10497.2	-0.00774437
10504.6	-0.00816009
10512	-0.00857591
10526.9	-0.00940744
10534.3	-0.00982295
10541.8	-0.0102382
10556.6	-0.0110672
10564	-0.0114808
10571.5	-0.0118938
10586.3	-0.0127171
10593.8	-0.0131274
10601.2	-0.0135367
10616.1	-0.0143521
10623.5	-0.014758
10630.9	-0.0151627
10645.8	-0.0159682
10653.2	-0.0163689
10660.6	-0.0167682
10675.5	-0.0175621
10682.9	-0.0179567
10690.4	-0.0183497
10705.2	-0.0191305
10712.7	-0.0195183
10720.1	-0.0199043
10734.9	-0.0206709
10742.4	-0.0210515
10757.2	-0.0218069
10764.7	-0.0221818
10772.1	-0.0225548
10787	-0.0232951
10794.4	-0.0236624
10801.8	-0.0240277
10816.7	-0.0247525
10824.1	-0.025112
10831.5	-0.0254695
10846.4	-0.0261784
10853.8	-0.0265298
10861.3	-0.0268792
10876.1	-0.0275718
10883.6	-0.027915
10891	-0.0282562
10905.8	-0.0289323
10913.3	-0.0292673
10920.7	-0.0296002
10935.6	-0.0302598
10943	-0.0305865
10950.4	-0.0309112
10965.3	-0.0315544
10972.7	-0.031873
10980.1	-0.0321895
10995	-0.0328164
11002.4	-0.0331268
11017.3	-0.0337415
11024.7	-0.0340458
11032.2	-0.0343481
11047	-0.0349464
11054.4	-0.0352425
11061.9	-0.0355365
11076.7	-0.0361181
11084.2	-0.0364058
11091.6	-0.0366913
11106.5	-0.0372558
11113.9	-0.0375348
11121.3	-0.0378115
11136.2	-0.0383582
11143.6	-0.0386281
11151	-0.0388956
11165.9	-0.0394236
11173.3	-0.039684
11180.8	-0.0399419
11195.6	-0.0404501
11203.1	-0.0407003
11210.5	-0.040948
11225.3	-0.0414352
11232.8	-0.0416746
11240.2	-0.0419113
11255.1	-0.0423759
11262.5	-0.0426038
11277.4	-0.0430504
11284.8	-0.0432689
11292.2	-0.0434843
11307.1	-0.0439051
11314.5	-0.0441104
11321.9	-0.0443123
11336.8	-0.0447052
11344.2	-0.0448962
11351.7	-0.0450833
11366.5	-0.0454461
11373.9	-0.0456215
11381.4	-0.0457929
11396.2	-0.0461231
11403.7	-0.0462818
11411.1	-0.0464361
11426	-0.0467314
11433.4	-0.0468722
11440.8	-0.0470083
11455.7	-0.0472663
11463.1	-0.047388
11470.5	-0.0475048
11485.4	-0.0477232
11492.8	-0.0478247
11500.3	-0.047921
11515.1	-0.0480977
11522.6	-0.048178
11537.4	-0.0483222
11544.8	-0.0483859
11552.3	-0.048444
11567.1	-0.0485432
11574.6	-0.0485842
11582	-0.0486193
11596.9	-0.0486719
11604.3	-0.0486893
11611.7	-0.0487007
11626.6	-0.0487055
11634	-0.0486987
11641.4	-0.0486859
11656.3	-0.0486416
11663.8	-0.0486101
11671.2	-0.0485724
11686.1	-0.0484781
11693.6	-0.0484215
11701	-0.0483586
11715.9	-0.0482138
11723.3	-0.0481319
11730.8	-0.0480437
11745.7	-0.0478481
11753.1	-0.0477408
11760.6	-0.0476272
11775.5	-0.0473809
11782.9	-0.0472483
11790.4	-0.0471094
11805.3	-0.0468126
11812.7	-0.0466549
11820.2	-0.0464909
11835.1	-0.0461442
11842.5	-0.0459613
11857.4	-0.045577
11864.9	-0.0453756
11872.4	-0.0451682
11887.3	-0.0447352
11894.7	-0.0445097
11902.2	-0.0442782
11917.1	-0.0437975
11924.6	-0.0435483
11932	-0.0432933
11947	-0.042766
11954.4	-0.042493
11961.9	-0.0422143
11976.9	-0.0416399
11984.4	-0.0413444
11991.9	-0.0410433
12006.8	-0.0404246
12014.3	-0.0401072
12021.8	-0.0397844
12036.7	-0.0391229
12044.2	-0.0387842
12051.7	-0.0384404
12066.8	-0.0377302
12074.4	-0.0373674
12081.9	-0.0369994
12097.1	-0.0362482
12104.6	-0.0358651
12112.2	-0.035477
12127.3	-0.0346861
12134.8	-0.0342834
12142.4	-0.0338758
12157.5	-0.0330465
12165.1	-0.0326248
12172.6	-0.0321984
12180.2	-0.0317675
12195.3	-0.0308919
12202.9	-0.0304473
12210.4	-0.0299983
12225.5	-0.029087
12233.1	-0.0286248
12240.6	-0.0281583
12255.7	-0.0272126
12263.3	-0.0267334
12270.9	-0.0262501
12286	-0.0252711
12293.5	-0.0247756
12301.1	-0.024276
12316.2	-0.0232651
12323.8	-0.0227539
12331.3	-0.0222388
12346.4	-0.0211973
12354	-0.020671
12361.5	-0.0201411
12376.7	-0.0190706
12384.2	-0.01853
12391.8	-0.0179861
12406.9	-0.0168881
12414.4	-0.0163341
12422	-0.015777
12437.1	-0.0146533
12444.7	-0.0140868
12452.2	-0.0135174
12467.3	-0.01237
12474.9	-0.0117921
12482.5	-0.0112114
12490	-0.0106282
12505.1	-0.00945408
12512.7	-0.00886338
12520.2	-0.00827034
12535.4	-0.00707761
12542.9	-0.00647808
12550.5	-0.00587837
12565.6	-0.00466966
12573.1	-0.00406265
12580.7	-0.003454
12595.8	-0.00223213
12603.4	-0.00161912
12610.9	-0.00100484
12626	0.000227105
12633.6	0.000843468
12641.1	0.00146068
12656.2	0.00269579
12663.7	0.00331347
12671.2	0.00393157
12686.3	0.0051686
12693.8	0.00578732
12701.3	0.00640602
12716.4	0.00764293
12723.9	0.00826092
12731.4	0.00887844
12746.5	0.0101116
12754	0.0107271
12761.5	0.0113416
12776.6	0.0125674
12784.1	0.0131785
12791.6	0.0137881
12806.7	0.0150024
12814.2	0.0156066
12821.8	0.0162084
12836.8	0.0174001
12844.3	0.0179843
12851.9	0.0185448
12866.9	0.0197226
12874.4	0.0203293
12882	0.0209389
12897	0.022093
12904.5	0.0225835
12912.1	0.0230965
12927.1	0.0241677
12934.6	0.0247237
12942.2	0.0252811
12957.2	0.0264191
12964.7	0.0270086
12972.3	0.0276062
12987.3	0.0287872
12994.8	0.0293548
13002.4	0.0299016
13017.4	0.0309371
13025	0.0314341
13032.5	0.0319244
13040	0.0324129
13055.1	0.0333979
13062.6	0.0338974
13070.1	0.0344017
13085.2	0.0354184
13092.7	0.0359266
13100.2	0.0364315
13115.3	0.0374231
13122.8	0.0379069
13130.3	0.0383818
13145.4	0.039306
13152.9	0.0397572
13160.4	0.0402029
13175.5	0.0410843
13183	0.0415225
13190.5	0.04196
13205.6	0.0428336
13213.1	0.0432687
13220.6	0.0437016
13235.7	0.0445559
13243.2	0.0449754
13250.7	0.0453889
13265.8	0.0461965
13273.3	0.0465908
13280.8	0.0469792
13295.9	0.0477397
13303.4	0.0481125
13310.9	0.0484803
13326	0.0492003
13333.5	0.0495517
13341	0.0498965
13356.1	0.0505641
13363.6	0.0508858
13371.1	0.0511988
13386.2	0.0517982
13393.7	0.0520846
13401.3	0.0523622
13416.3	0.0528916
13423.8	0.0531438
13431.4	0.0533878
13446.4	0.0538512
13453.9	0.0540704
13461.5	0.0542813
13476.5	0.0546775
13484	0.0548626
13491.6	0.055039
13506.6	0.0553659
13514.1	0.0555166
13521.7	0.055659
13536.7	0.0559195
13544.2	0.0560379
13551.8	0.0561486
13566.8	0.0563472
13574.3	0.0564351
13581.9	0.0565153
13596.9	0.0566526
13604.5	0.0567095
13612	0.0567583
13627	0.0568316
13634.6	0.0568559
13642.1	0.056872
13657.1	0.0568795
13664.7	0.0568709
13672.2	0.0568542
13687.2	0.0567963
13694.8	0.0567552
13702.3	0.0567059
13717.3	0.0565826
13724.9	0.0565084
13732.4	0.0564256
13747.4	0.0562337
13755	0.0561241
13762.5	0.0560052
13770	0.0558767
13785.1	0.0555908
13792.6	0.055433
13800.1	0.0552652
13815.2	0.0548997
13822.7	0.054702
13830.2	0.0544944
13845.3	0.05405
13852.8	0.0538134
13860.3	0.0535675
13875.4	0.0530482
13882.9	0.0527751
13890.4	0.0524931
13905.5	0.0519033
13913	0.0515955
13920.5	0.0512792
13935.6	0.0506211
13943.1	0.0502791
13950.6	0.0499286
13965.7	0.0492013
13973.2	0.0488243
13980.7	0.0484385
13995.8	0.0476397
14003.3	0.0472267
14010.9	0.0468047
14025.9	0.0459336
14033.4	0.0454847
14041	0.045027
14056	0.044086
14063.5	0.043603
14071.1	0.0431119
14086.1	0.0421063
14093.6	0.0415923
14101.2	0.041071
14116.2	0.0400076
14123.7	0.0394659
14131.3	0.0389178
14146.3	0.0378032
14153.8	0.0372371
14161.4	0.0366653
14176.4	0.0355054
14184	0.0349176
14191.5	0.0343246
14206.5	0.0331241
14214.1	0.0325166
14221.6	0.0319046
14236.6	0.0306668
14244.2	0.0300413
14251.7	0.0294115
14266.7	0.028139
14274.3	0.0274965
14281.8	0.0268499
14296.8	0.0255443
14304.4	0.0248854
14311.9	0.0242225
14326.9	0.0228847
14334.5	0.0222099
14342	0.021531
14357.1	0.0201596
14364.6	0.0194671
14372.2	0.0187705
14387.2	0.0173652
14395	0.0166316
14402.9	0.0158936
14410.7	0.0151512
14426.3	0.0136487
14434.2	0.0128886
14442	0.0121238
14457.7	0.0105802
14465.6	0.00980138
14473.4	0.00908182
14481.2	0.00818926
14496.9	0.00667531
14504.8	0.00589264
14512.6	0.00509517
14520.5	0.00428867
14536.2	0.00266076
14544	0.00184147
14551.9	0.00101807
14567.8	-0.000646333
14575.7	-0.0014832
14583.6	-0.00232382
14591.5	-0.00316786
14607.4	-0.00486547
14615.3	-0.00571843
14623.2	-0.00657364
14631.1	-0.0074306
14647	-0.00914768
14654.9	-0.0100065
14662.8	-0.0108647
14670.7	-0.0117214
14686.6	-0.0134271
14694.5	-0.0142743
14702.4	-0.0151164
14710.4	-0.0159526
14726.2	-0.0176034
14734.1	-0.0184161
14742.1	-0.0192192
14757.9	-0.020793
14765.8	-0.0215622
14773.7	-0.0223186
14781.7	-0.0230616
14797.5	-0.024505
14805.4	-0.0252044
14813.4	-0.0258883
14821.3	-0.0265564
14837.1	-0.027844
14845.1	-0.028463
14853	-0.0290652
14860.9	-0.0296507
14876.7	-0.030771
14884.7	-0.031306
14892.6	-0.0318252
14900.5	-0.0323277
14916.4	-0.0332837
14924.4	-0.0337372
14932.3	-0.0341751
14940.2	-0.0345975
14956.3	-0.0354091
14964.5	-0.0357979
14972.6	-0.036172
14980.8	-0.0365315
14996.9	-0.0372004
15005	-0.0375149
15012.9	-0.0378123
15020.9	-0.0380978
15036.7	-0.0386338
15044.7	-0.0388849
15052.6	-0.0391256
15060.6	-0.0393556
15076.5	-0.0397842
15084.5	-0.0399833
15092.4	-0.0401724
15100.4	-0.0403518
15116.3	-0.0406817
15124.3	-0.0408326
15132.2	-0.0409742
15140.2	-0.0411066
15156.1	-0.0413442
15164.1	-0.0414496
15172	-0.0415461
15187.9	-0.0417125
15195.9	-0.0417826
15203.8	-0.0418439
15211.8	-0.0418965
15227.7	-0.0419757
15235.7	-0.0420023
15243.6	-0.0420204
15251.6	-0.0420298
15267.5	-0.042023
15275.4	-0.0420071
15283.3	-0.0419827
15291.2	-0.04195
15307	-0.0418597
15315	-0.0418023
15322.9	-0.0417369
15330.8	-0.0416637
15346.5	-0.041494
15354.4	-0.0413976
15362.3	-0.0412936
15370.2	-0.0411823
15385.9	-0.0409377
15393.8	-0.0408048
15401.7	-0.040665
15417.5	-0.0403654
15425.3	-0.0402069
15433.1	-0.0400423
15440.9	-0.0398717
15456.6	-0.0395131
15464.4	-0.0393255
15472.3	-0.0391327
15480.1	-0.0389347
15495.7	-0.0385243
15503.6	-0.0383123
15511.4	-0.0380959
15527	-0.0376512
15534.9	-0.0374232
15542.7	-0.0371918
15550.5	-0.0369571
15566.2	-0.0364789
15574	-0.0362358
15581.8	-0.0359903
15597.5	-0.0354931
15605.3	-0.0352418
15613.1	-0.034989
15620.9	-0.0347349
15636.6	-0.0342236
15644.4	-0.033967
15652.2	-0.0337098
15660.1	-0.0334525
15675.7	-0.0329379
15683.5	-0.0326812
15691.4	-0.032425
15707	-0.0319152
15714.8	-0.0316621
15722.7	-0.0314102
15730.5	-0.03116
15746.1	-0.030665
15754	-0.0304205
15761.8	-0.0301784
15777.4	-0.0297015
15785.3	-0.0294672
15793.1	-0.0292357
15800.9	-0.0290072
15816.6	-0.0285599
15824.3	-0.0283444
15832	-0.0281323
15847.4	-0.0277187
15855.1	-0.0275174
15862.9	-0.0273198
15870.6	-0.027126
15886	-0.0267499
15893.7	-0.0265677
15901.4	-0.0263898
15916.8	-0.026046
15924.5	-0.0258801
15932.2	-0.0257183
15947.6	-0.0254069
15955.3	-0.0252574
15963	-0.0251119
15970.7	-0.0249709
15986.1	-0.0247008
15993.7	-0.0245718
16001.4	-0.0244467
16016.8	-0.0242081
16024.5	-0.0240946
16032.1	-0.0239848
16047.5	-0.0237765
16055.2	-0.0236777
16062.8	-0.0235824
16070.5	-0.0234906
16085.9	-0.0233168
16093.6	-0.0232348
16101.2	-0.0231558
16116.6	-0.0230067
16124.3	-0.0229363
16131.9	-0.0228687
16147.3	-0.0227409
16155	-0.0226807
16162.6	-0.0226226
16170.3	-0.0225667
16185.7	-0.0224606
16193.3	-0.0224103
16201	-0.0223617
16216.4	-0.0222688
16224	-0.0222244
16231.7	-0.0221811
16247.1	-0.0220976
16254.7	-0.0220571
16262.4	-0.0220173
16270.1	-0.0219781
16285.5	-0.0219009
16293.1	-0.0218627
16300.8	-0.0218247
16316.2	-0.0217486
16323.8	-0.0217103
16331.5	-0.0216716
16346.9	-0.0215931
16354.5	-0.021553
16362.2	-0.0215122
16377.6	-0.0214282
16385.2	-0.0213847
16392.9	-0.0213403
16400.6	-0.0212946
16415.9	-0.0211997
16423.6	-0.0211502
16431.3	-0.0210993
16446.6	-0.0209929
16454.3	-0.0209373
16462	-0.0208799
16477.4	-0.0207599
16485	-0.0206972
16492.7	-0.0206325
16500.4	-0.0205659
16515.7	-0.0204265
16523.4	-0.0203537
16531.1	-0.0202788
16546.4	-0.0201226
16554.1	-0.0200412
16561.8	-0.0199575
16577.1	-0.0197834
16584.8	-0.019693
16592.5	-0.0196002
16600.2	-0.0195052
16615.5	-0.0193082
16623.2	-0.0192062
16630.9	-0.0191019
16646.2	-0.0188863
16653.9	-0.0187751
16661.6	-0.0186616
16676.9	-0.0184278
16684.6	-0.0183075
16692.2	-0.0181861
16707.4	-0.0179367
16715	-0.0178091
16722.6	-0.0176791
16730.2	-0.0175469
16745.4	-0.0172779
16753	-0.0171404
16760.5	-0.0170009
16775.7	-0.016716
16783.3	-0.0165707
16790.8	-0.0164234
16806	-0.0161235
16813.6	-0.015971
16821.2	-0.0158167
16836.3	-0.0155031
16843.9	-0.0153438
16851.5	-0.015183
16866.6	-0.0148572
16874.2	-0.014692
16881.8	-0.0145254
16896.9	-0.0141884
16904.5	-0.014018
16912	-0.0138462
16927.2	-0.013499
16934.7	-0.0133235
16942.3	-0.013147
16957.4	-0.0127905
16965	-0.0126107
16972.6	-0.0124299
16980.1	-0.0122481
16995.2	-0.0118817
17002.8	-0.0116972
17010.4	-0.0115118
17025.5	-0.0111386
17033.1	-0.0109508
17040.6	-0.0107623
17055.8	-0.0103833
17063.3	-0.0101928
17070.9	-0.0100017
17086	-0.00961775
17093.6	-0.00942496
17101.2	-0.00923167
17116.3	-0.00884368
17123.8	-0.00864904
17131.4	-0.00845398
17146.5	-0.00806277
17154.1	-0.00786666
17161.7	-0.00767024
17176.8	-0.00727657
17184.4	-0.00707937
17191.9	-0.00688195
17207.1	-0.00648656
17214.6	-0.00628863
17222.2	-0.00609058
17237.3	-0.00569417
17244.9	-0.00549586
17252.4	-0.00529751
17260	-0.00509913
17275.1	-0.0047024
17282.7	-0.00450408
17290.3	-0.00430582
17305.4	-0.00390957
17313	-0.00371161
17320.5	-0.00351379
17335.7	-0.00311864
17343.2	-0.00292135
17350.8	-0.00272428
17365.9	-0.00233087
17373.5	-0.00213457
17381	-0.00193856
17396.2	-0.00154749
17403.7	-0.00135248
17411.3	-0.00115783
17426.4	-0.00076972
17434	-0.000576294
17441.6	-0.000383312
17456.7	1.24353e-06
17464.2	0.000191609
17471.7	0.00038146
17486.8	0.000759549
17494.3	0.000947749
17501.8	0.00113536
17516.8	0.00150874
17524.3	0.00169441
17531.9	0.0018794
17546.9	0.00224733
17554.4	0.00243022
17561.9	0.00261211
17576.9	0.00297409
17584.4	0.00315363
17592	0.00333259
17607	0.00368796
17614.5	0.00386431
17622	0.00403974
17637.1	0.00438775
17644.6	0.00456028
17652.1	0.00473179
17667.1	0.00507164
17674.6	0.00523993
17682.1	0.00540709
17697.2	0.00573789
17704.7	0.00590148
17712.2	0.00606381
17727.2	0.00638461
17734.8	0.006543
17742.3	0.00670002
17757.3	0.00700979
17764.8	0.00716249
17772.3	0.00731369
17787.4	0.00761148
17794.9	0.00775801
17802.4	0.00790294
17817.4	0.00818787
17824.9	0.00832783
17832.5	0.00846611
17847.5	0.0087375
17855	0.0088706
17862.5	0.00900194
17870	0.00913153
17885.1	0.00938542
17892.6	0.0095097
17900.1	0.00963221
17915.1	0.00987192
17922.6	0.00998913
17930.2	0.0101046
17945.2	0.0103302
17952.7	0.0104404
17960.2	0.0105489
17975.2	0.0107607
17982.8	0.010864
17990.3	0.0109656
18005.3	0.0111639
18012.8	0.0112605
18020.3	0.0113554
18035.4	0.0115402
18042.9	0.0116301
18050.4	0.0117184
18065.4	0.0118899
18072.9	0.0119732
18080.5	0.0120547
18095.5	0.0122127
18103	0.0122892
18110.5	0.0123638
18125.6	0.0125079
18133.1	0.0125772
18140.6	0.0126447
18155.6	0.0127741
18163.1	0.0128359
18170.6	0.0128958
18185.7	0.0130097
18193.2	0.0130637
18200.7	0.0131156
18215.7	0.0132135
18223.3	0.0132594
18230.8	0.0133032
18245.8	0.013385
18253.3	0.0134229
18260.8	0.0134588
18275.9	0.0135252
18283.4	0.0135556
18290.9	0.0135843
18305.9	0.0136367
18313.4	0.0136604
18321	0.0136826
18336	0.0137226
18343.5	0.0137403
18351	0.0137567
18366	0.013785
18373.6	0.0137971
18381.1	0.0138077
18396.1	0.0138244
18403.6	0.0138304
18411.1	0.0138349
18426.2	0.0138389
18433.7	0.0138384
18441.2	0.013836
18456.2	0.0138259
18463.7	0.013818
18471.3	0.0138082
18486.3	0.0137828
18493.8	0.0137671
18501.3	0.0137494
18516.4	0.0137079
18523.9	0.0136842
18531.4	0.0136586
18546.4	0.0136014
18553.9	0.0135699
18561.4	0.0135365
18576.5	0.0134643
18584	0.0134255
18591.5	0.013385
18606.5	0.013299
18614.1	0.0132536
18621.6	0.0132067
18636.6	0.0131085
18644.1	0.0130572
18651.6	0.0130047
18666.7	0.0128959
18674.2	0.0128397
18681.7	0.0127824
18696.7	0.0126647
18704.2	0.0126043
18711.8	0.0125431
18726.8	0.0124182
18734.3	0.0123545
18741.8	0.0122902
18756.8	0.0121595
18764.4	0.0120934
18771.9	0.0120266
18786.9	0.0118918
18794.4	0.0118238
18801.9	0.0117554
18817	0.0116177
18824.5	0.0115484
18832	0.011479
18847	0.0113396
18854.5	0.0112697
18862.1	0.0111998
18877.1	0.0110598
18884.6	0.0109898
18892.1	0.0109198
18907.2	0.0107801
18914.7	0.0107103
18922.2	0.0106407
18937.2	0.0105018
18944.7	0.0104325
18952.2	0.0103634
18967.3	0.0102254
18974.8	0.0101566
18982.3	0.0100879
18997.3	0.00995078
19004.9	0.0098823
19012.4	0.00981387
19027.4	0.00967717
19034.9	0.00960888
19042.4	0.00954064
19057.5	0.0094043
19065	0.00933623
19072.5	0.00926822
19080	0.0092003
19095	0.00906477
19102.6	0.00899718
19110.1	0.00892973
19125.1	0.00879529
19132.6	0.00872833
19140.1	0.00866157
19155.2	0.00852862
19162.7	0.00846246
19170.2	0.0083965
19185.2	0.0082652
19192.7	0.00819984
19200.3	0.00813468
19215.3	0.00800486
19222.8	0.00794019
19230.3	0.00787564
19245.3	0.00774733
19252.8	0.00768328
19260.2	0.00761991
19275	0.00749368
19282.4	0.00743063
19297.1	0.00730459
19304.5	0.00724155
19311.8	0.00717841
19326.6	0.00705174
19333.9	0.00698817
19341.3	0.0069244
19356	0.00679619
19363.4	0.0067317
19370.8	0.00666694
19385.5	0.00653646
19392.8	0.00647071
19400.2	0.00640459
19414.9	0.00627114
19422.3	0.00620377
19437	0.00606764
19444.4	0.00599884
19451.7	0.00592952
19466.5	0.00578927
19473.8	0.00571829
19481.2	0.00564673
19495.9	0.00550176
19503.3	0.00542832
19510.7	0.00535423
19525.4	0.00520403
19532.7	0.00512789
19540.1	0.00505104
19554.8	0.00489514
19562.2	0.00481607
19576.9	0.00465563
19584.3	0.00457423
19591.7	0.00449203
19606.4	0.00432519
19613.7	0.00424052
19621.1	0.004155
19635.8	0.00398137
19643.2	0.00389323
19650.6	0.0038042
19665.3	0.0036234
19672.6	0.00353161
19680	0.00343887
19694.7	0.00325052
19702.1	0.00315487
19716.8	0.00296058
19724.2	0.00286192
19731.6	0.00276222
19746.3	0.00255968
19753.6	0.00245682
19761	0.00235288
19775.7	0.00214172
19783.1	0.00203448
19790.5	0.00192611
19805.2	0.00170599
19812.6	0.00159421
19827.3	0.00136718
19834.6	0.00125192
19842	0.00113548
19856.7	0.000899064
19864.1	0.000779078
19871.5	0.000657904
19886.2	0.000411986
19893.6	0.000287242
19900.9	0.000161309
19915.6	-9.41102e-05
19923	-0.000223589
19930.4	-0.00035424
19945.1	-0.000619034
19952.5	-0.00075316
19967.2	-0.00102482
19974.5	-0.00116234
19981.9	-0.00130096
19996.6	-0.00158146
