0	0
10.1663	0
20.3326	0
30.4988	0
40.665	0
50.8311	0
60.9972	0
71.1631	0
81.329	0
91.4947	0
101.66	0
111.826	0
121.992	0
130.124	0
140.29	0
150.455	0
160.621	0
170.787	0
180.953	0
191.119	0
201.285	0
211.443	0
221.5	0
231.475	0
241.439	0
251.403	0
261.367	0
271.331	0
281.294	0
291.258	0
301.222	0
311.186	0
321.149	0
331.113	0
341.077	0
351.04	0
361.004	0
370.967	0
380.931	0
390.894	0
400.858	0
410.821	0
420.785	0
430.748	0
440.711	0
450.671	0
460.494	0
470.309	0
480.118	-9.09495e-13
491.857	-6.36646e-12
501.554	-1.09139e-11
511.177	-2.09184e-11
520.79	-3.81988e-11
530.402	-6.73026e-11
540.014	-1.18234e-10
551.549	-2.25555e-10
561.157	-3.7835e-10
570.719	-6.24823e-10
580.244	-1.01409e-09
591.645	-1.77442e-09
601.147	-2.78487e-09
610.645	-4.3101e-09
620.131	-6.5811e-09
631.505	-1.07484e-08
640.971	-1.59553e-08
650.434	-2.34058e-08
661.791	-3.65235e-08
671.254	-5.22914e-08
680.718	-7.40883e-08
690.181	-1.03912e-07
701.537	-1.5393e-07
711.001	-2.11345e-07
720.464	-2.87505e-07
731.82	-4.11039e-07
741.284	-5.48372e-07
750.747	-7.25393e-07
760.21	-9.51621e-07
771.565	-1.30398e-06
781.009	-1.67987e-06
790.447	-2.14715e-06
801.772	-2.85375e-06
811.209	-3.58777e-06
820.646	-4.4777e-06
830.084	-5.54816e-06
841.408	-7.1084e-06
850.846	-8.67127e-06
860.283	-1.05038e-05
871.608	-1.30998e-05
881.045	-1.56265e-05
890.482	-1.85107e-05
901.807	-2.24731e-05
911.244	-2.62098e-05
920.681	-3.03474e-05
930.119	-3.48794e-05
941.443	-4.08077e-05
950.88	-4.6108e-05
960.318	-5.1667e-05
971.642	-5.85471e-05
981.079	-6.4306e-05
990.517	-6.9911e-05
1001.84	-7.61339e-05
1011.28	-8.05895e-05
1020.72	-8.40354e-05
1030.15	-8.6082e-05
1041.48	-8.6044e-05
1050.91	-8.33077e-05
1060.35	-7.74556e-05
1071.68	-6.53196e-05
1081.11	-5.00024e-05
1090.55	-2.89968e-05
1101.88	5.14131e-06
1111.31	4.23794e-05
1120.75	8.90024e-05
1130.19	0.00014647
1141.51	0.000231682
1150.95	0.000317518
1160.39	0.000418282
1171.71	0.00056204
1181.15	0.000704171
1190.58	0.000868628
1200.02	0.00105705
1211.35	0.00131648
1220.78	0.00156632
1230.22	0.00185268
1241.54	0.00226124
1250.97	0.0027887
1260.41	0.00380963
1271.73	0.00506477
1281.16	0.00537033
1290.59	0.00595572
1300.03	0.00687785
1311.35	0.00836608
1320.78	0.00930652
1330.22	0.0109454
1341.54	0.013143
1350.97	0.01777
1360.39	0.0256684
1371.68	0.0366322
1381.07	0.0433934
1390.46	0.0496829
1401.73	0.0564223
1411.12	0.0618221
1420.5	0.067642
1431.76	0.0753259
1441.13	0.0826125
1450.49	0.0917024
1461.72	0.105179
1471.08	0.118677
1480.43	0.135207
1491.66	0.160563
1501.01	0.187154
1510.36	0.21947
1521.58	0.266887
1530.94	0.314458
1540.29	0.370043
1551.49	0.447632
1560.79	0.521405
1570.1	0.603521
1581.27	0.712379
1590.58	0.810534
1601.75	0.935264
1610.93	1.04171
1620.19	1.15089
1631.36	1.28225
1640.67	1.38918
1651.84	1.51172
1661.08	1.60642
1670.28	1.69332
1681.32	1.78639
1690.51	1.85371
1701.55	1.92144
1710.75	1.96667
1721.79	2.00734
1730.98	2.03005
1740.18	2.0429
1751.22	2.04589
1760.42	2.03852
1771.45	2.01851
1780.65	1.99296
1791.69	1.95213
1800.89	1.9099
1810.08	1.86033
1821.12	1.79102
1830.32	1.7247
1841.36	1.63385
1850.56	1.5475
1861.59	1.42892
1870.79	1.31544
1881.83	1.15835
1891.03	1.00712
1900.22	0.834686
1911.26	0.596469
1920.46	0.370542
1931.49	0.0638639
1940.69	-0.149145
1951.73	-0.27615
1960.93	-0.387768
1970.13	-0.441692
1981.16	-0.558148
1990.36	-0.588606
2001.4	-0.618765
2010.6	-0.639182
2021.63	-0.627361
2030.83	-0.646465
2040.03	-0.664472
2051.06	-0.684151
2060.26	-0.698866
2071.3	-0.715624
2080.5	-0.728663
2091.53	-0.746588
2100.73	-0.758474
2111.77	-0.769253
2120.97	-0.775893
2130.16	-0.780802
2141.2	-0.784871
2150.4	-0.787074
2161.44	-0.788605
2170.63	-0.789068
2181.67	-0.788672
2190.87	-0.787521
2200.07	-0.785571
2211.1	-0.782088
2220.3	-0.778174
2231.34	-0.772225
2240.53	-0.766234
2251.57	-0.757854
2260.77	-0.749935
2271.81	-0.73938
2281	-0.729765
2290.2	-0.719454
2301.24	-0.706224
2310.44	-0.694539
2321.47	-0.679792
2330.67	-0.666954
2341.71	-0.650961
2350.9	-0.637199
2360.1	-0.623093
2371.14	-0.605776
2380.34	-0.591073
2391.37	-0.573164
2400.57	-0.558068
2411.61	-0.539805
2420.8	-0.524509
2430	-0.509185
2441.04	-0.490814
2450.24	-0.475566
2461.27	-0.457401
2470.47	-0.442417
2481.51	-0.424676
2490.7	-0.410133
2501.74	-0.393021
2510.94	-0.379078
2520.13	-0.365454
2531.17	-0.349562
2540.37	-0.336723
2551.41	-0.321831
2560.6	-0.309867
2571.64	-0.296063
2580.84	-0.28503
2590.03	-0.274429
2601.07	-0.262281
2610.27	-0.252634
2621.3	-0.241624
2630.5	-0.232911
2641.54	-0.222999
2650.74	-0.215178
2661.77	-0.206303
2670.97	-0.199316
2680.17	-0.192686
2691.2	-0.185182
2700.4	-0.179289
2711.44	-0.172628
2720.63	-0.167404
2731.67	-0.161508
2740.87	-0.156891
2750.07	-0.152531
2761.1	-0.147625
2770.3	-0.143795
2781.29	-0.139513
2790.44	-0.136187
2801.41	-0.132467
2810.56	-0.129584
2821.53	-0.126376
2830.68	-0.123905
2841.65	-0.121172
2850.8	-0.119082
2861.78	-0.116789
2870.92	-0.115052
2880.07	-0.113466
2891.04	-0.111755
2900.19	-0.110482
2911.16	-0.109129
2920.31	-0.108142
2931.28	-0.107115
2940.43	-0.106384
2951.4	-0.105648
2960.55	-0.105146
2971.52	-0.104667
2980.67	-0.104364
2991.64	-0.104107
3000.79	-0.103973
3011.76	-0.103901
3020.91	-0.103907
3030.05	-0.103966
3041.03	-0.104099
3050.17	-0.104253
3061.15	-0.104482
3070.29	-0.104701
3081.27	-0.104989
3090.41	-0.105244
3101.39	-0.105557
3110.53	-0.105818
3121.51	-0.106124
3130.65	-0.106365
3141.63	-0.10663
3150.77	-0.106826
3161.75	-0.107024
3170.89	-0.107153
3180.04	-0.107244
3191.01	-0.107299
3200.16	-0.107295
3211.13	-0.107227
3220.28	-0.107113
3231.25	-0.106906
3240.4	-0.10667
3251.37	-0.106311
3260.52	-0.105946
3271.49	-0.105427
3280.64	-0.104927
3291.61	-0.104246
3300.76	-0.10361
3311.73	-0.102767
3320.88	-0.101999
3330.02	-0.101172
3341	-0.100104
3350.14	-0.0991543
3361.12	-0.0979446
3370.26	-0.0968816
3381.24	-0.0955438
3390.38	-0.0943806
3401.35	-0.0929312
3410.5	-0.0916823
3421.47	-0.0901394
3430.62	-0.0888205
3441.59	-0.0872031
3450.74	-0.0858303
3461.71	-0.0841578
3470.86	-0.0827468
3480	-0.0813236
3490.98	-0.0796039
3500.12	-0.0781642
3511.1	-0.0764329
3520.24	-0.07499
3531.22	-0.073262
3540.36	-0.0718275
3551.34	-0.0701157
3560.48	-0.0686995
3571.46	-0.0670148
3580.6	-0.065625
3591.57	-0.0639761
3600.72	-0.0626191
3611.69	-0.0610127
3620.84	-0.0596935
3631.81	-0.0581347
3640.96	-0.0568566
3650.1	-0.0555982
3661.08	-0.0541144
3670.22	-0.0529003
3681.2	-0.0514704
3690.34	-0.0503015
3701.32	-0.0489262
3710.46	-0.0478027
3721.43	-0.0464816
3730.58	-0.0454031
3741.55	-0.0441353
3750.7	-0.0431005
3761.67	-0.0418843
3770.82	-0.0408917
3781.79	-0.0397249
3790.94	-0.0387723
3800.08	-0.0378371
3811.06	-0.0367369
3820.2	-0.0358377
3831.18	-0.0347789
3840.32	-0.0339126
3851.3	-0.0328911
3860.44	-0.032054
3871.42	-0.0310653
3880.56	-0.0302535
3891.53	-0.0292926
3900.68	-0.0285019
3911.65	-0.0275638
3920.8	-0.0267899
3931.77	-0.0258692
3940.92	-0.0251076
3950.06	-0.0243502
3961.04	-0.0234455
3970.18	-0.0226941
3981.16	-0.0217942
3990.3	-0.0210448
4001.28	-0.020145
4010.42	-0.019394
4021.4	-0.0184901
4030.54	-0.0177341
4041.52	-0.0168227
4050.66	-0.0160591
4061.64	-0.0151373
4070.78	-0.014364
4081.76	-0.0134297
4090.9	-0.0126456
4100.05	-0.0118562
4111.02	-0.0109019
4120.17	-0.010101
4131.14	-0.00913306
4140.29	-0.00832106
4151.26	-0.00734058
4160.41	-0.00651886
4171.38	-0.00552794
4180.54	-0.00469745
4191.61	-0.00369126
4200.83	-0.00285111
4210.05	-0.00201049
4221.11	-0.00100274
4230.33	-0.000165327
4241.39	0.000834426
4250.61	0.00166123
4261.67	0.00264288
4270.89	0.00344959
4280.11	0.0042434
4291.18	0.00517533
4300.4	0.00593202
4311.48	0.00681377
4320.71	0.00752419
4331.78	0.00834581
4341.02	0.00900253
4350.25	0.00962421
4361.32	0.010318
4370.56	0.0108537
4381.63	0.0114665
4390.87	0.0119773
4400.1	0.0124651
4411.18	0.0130214
4420.41	0.0135059
4431.48	0.0141784
4440.71	0.0145617
4451.8	0.0149144
4461.04	0.0154372
4470.28	0.0157163
4481.4	0.016255
4490.69	0.0168924
4501.85	0.0179071
4511.15	0.0201554
4520.45	0.0232359
4531.64	0.0266041
4540.99	0.0300398
4550.36	0.0336023
4561.6	0.0376107
4570.97	0.0415122
4580.34	0.0459405
4591.58	0.051733
4600.95	0.0567379
4610.32	0.0618232
4621.56	0.0680875
4630.93	0.0732689
4640.3	0.0782657
4651.54	0.0840202
4660.91	0.0886512
4670.28	0.0931573
4681.52	0.0984454
4690.89	0.102789
4700.26	0.107063
4711.5	0.112032
4720.87	0.116003
4730.24	0.119823
4741.48	0.124218
4750.85	0.127725
4760.22	0.131089
4771.46	0.134922
4780.83	0.137931
4790.2	0.140761
4801.44	0.143919
4810.81	0.146354
4820.17	0.148617
4831.42	0.151113
4840.79	0.153011
4850.15	0.154731
4861.4	0.156549
4870.77	0.157851
4880.13	0.158956
4891.38	0.160018
4900.75	0.16067
4910.11	0.161094
4921.36	0.161284
4930.73	0.161166
4940.09	0.160796
4951.34	0.160032
4960.71	0.159141
4970.07	0.158029
4981.32	0.156413
4990.69	0.15483
5000.05	0.153024
5011.3	0.15055
5020.67	0.148222
5030.04	0.145638
5041.28	0.14218
5050.65	0.138986
5060.02	0.135494
5071.26	0.130902
5080.63	0.126735
5090.01	0.122252
5101.3	0.116449
5110.71	0.111271
5120.15	0.105773
5131.47	0.0987704
5140.91	0.0926086
5150.34	0.0861654
5161.67	0.0780929
5171.11	0.0711154
5180.54	0.0639457
5191.87	0.0551372
5201.31	0.0476664
5210.74	0.0401155
5220.18	0.0325238
5231.5	0.0233615
5240.94	0.015325
5250.38	0.00592441
5261.7	-9.55991e-05
5271.14	-0.00349565
5280.58	-0.00577792
5290.02	-0.00875943
5301.34	-0.010821
5310.78	-0.0117291
5320.21	-0.0131093
5331.54	-0.0142054
5340.98	-0.0150664
5350.41	-0.0158282
5361.74	-0.0167037
5371.17	-0.0174215
5380.61	-0.0180636
5390.05	-0.0186799
5401.37	-0.0194361
5410.81	-0.0200564
5420.25	-0.0206369
5431.57	-0.0212634
5441.01	-0.021722
5450.45	-0.0221252
5461.77	-0.0225385
5471.21	-0.022821
5480.65	-0.0230437
5490.08	-0.0232046
5501.41	-0.0233152
5510.84	-0.0233377
5520.28	-0.0232959
5531.61	-0.0231582
5541.04	-0.0229677
5550.48	-0.0227055
5561.8	-0.0222924
5571.23	-0.0218626
5580.67	-0.0213524
5590.1	-0.0207593
5601.42	-0.0199355
5610.85	-0.0191543
5620.29	-0.0182882
5631.61	-0.0171406
5641.04	-0.0160972
5650.48	-0.0149766
5661.8	-0.013538
5671.23	-0.0122722
5680.66	-0.0109539
5690.07	-0.00958615
5701.34	-0.00789329
5710.74	-0.00645184
5720.13	-0.00498065
5731.39	-0.00313689
5740.78	-0.00154327
5750.16	8.75268e-05
5761.41	0.00345586
5770.78	0.00621373
5780.13	0.00691787
5791.36	0.00836599
5800.72	0.00981973
5810.08	0.0113152
5821.3	0.012582
5830.65	0.0139388
5840.01	0.0151381
5851.23	0.0174243
5860.58	0.020559
5871.81	0.023891
5881.13	0.0259577
5890.44	0.0272914
5901.61	0.0275036
5910.92	0.027679
5920.22	0.0282369
5931.39	0.0290539
5940.7	0.0297061
5950.01	0.0304951
5961.18	0.0312021
5970.49	0.0314779
5981.66	0.0317629
5990.93	0.0321576
6000.14	0.0326421
6011.17	0.0330663
6020.37	0.0332172
6031.41	0.0333561
6040.61	0.0335613
6051.64	0.033904
6060.84	0.0342524
6070.04	0.0346535
6081.08	0.0351654
6090.28	0.0355989
6101.31	0.0361339
6110.51	0.0365749
6121.55	0.0370348
6130.75	0.0373066
6141.78	0.0374813
6150.98	0.0375391
6160.18	0.0375704
6171.22	0.0376337
6180.41	0.0377356
6191.45	0.0379111
6200.65	0.0380772
6211.69	0.038278
6220.88	0.0384459
6230.08	0.0386138
6241.12	0.0387863
6250.32	0.0388604
6261.35	0.0388169
6270.55	0.0386707
6281.59	0.0384197
6290.79	0.0382121
6301.82	0.0380321
6311.02	0.0379611
6320.22	0.0379576
6331.26	0.0380275
6340.45	0.0381435
6351.49	0.0383592
6360.69	0.0386035
6371.73	0.0389527
6380.92	0.039256
6390.12	0.0395367
6401.16	0.0398182
6410.36	0.0400107
6421.39	0.0402242
6430.59	0.0404199
6441.63	0.0407052
6450.83	0.0409923
6460.02	0.0413202
6471.06	0.0417567
6480.26	0.0421466
6491.3	0.04263
6500.49	0.0430265
6511.53	0.0434621
6520.73	0.0437662
6531.77	0.0440405
6540.96	0.044193
6550.16	0.0442877
6561.2	0.0443487
6570.4	0.044374
6581.43	0.0443882
6590.63	0.0443905
6601.67	0.0443785
6610.87	0.0443486
6620.06	0.0442892
6631.1	0.044157
6640.3	0.043975
6651.34	0.0436456
6660.53	0.0432659
6671.57	0.0426801
6680.77	0.0420875
6691.81	0.0412603
6701	0.0404821
6710.2	0.039629
6721.24	0.0385117
6730.44	0.0375055
6741.47	0.0362099
6750.67	0.0350564
6761.71	0.0335767
6770.91	0.032252
6780.1	0.0308296
6791.14	0.0289752
6800.34	0.0272937
6811.38	0.0250894
6820.57	0.0230567
6831.61	0.0202549
6840.81	0.0173771
6850.01	0.0135109
6861.04	0.00646189
6870.24	0.00273554
6881.28	-0.00141285
6890.48	-0.00360152
6901.51	-0.00937872
6910.71	-0.0109142
6921.75	-0.0126759
6930.95	-0.0137959
6940.14	-0.014821
6951.18	-0.0161917
6960.38	-0.0175076
6971.42	-0.0192109
6980.61	-0.0207031
6991.65	-0.0226794
7000.85	-0.0243694
7010.05	-0.026073
7021.08	-0.0281174
7030.28	-0.0298156
7041.32	-0.0318477
7050.52	-0.0335415
7061.55	-0.0355985
7070.75	-0.0373397
7081.79	-0.039452
7090.99	-0.0412213
7100.19	-0.042991
7111.22	-0.0451078
7120.42	-0.0468622
7131.46	-0.0489536
7140.66	-0.0506843
7151.69	-0.052747
7160.89	-0.0544542
7170.09	-0.0561503
7181.13	-0.0581695
7190.32	-0.0598366
7201.31	-0.0618061
7210.45	-0.0634259
7221.43	-0.0653429
7230.57	-0.0669167
7241.55	-0.0687751
7250.69	-0.0702977
7261.67	-0.0720927
7270.81	-0.0735611
7281.79	-0.0752896
7290.93	-0.0767015
7300.08	-0.078087
7311.05	-0.0797145
7320.2	-0.0810409
7331.17	-0.0825965
7340.32	-0.0838626
7351.29	-0.0853454
7360.44	-0.0865506
7371.41	-0.08796
7380.56	-0.089104
7391.53	-0.0904401
7400.68	-0.0915231
7411.65	-0.0927862
7420.8	-0.0938085
7431.77	-0.094999
7440.92	-0.0959612
7450.07	-0.0968963
7461.04	-0.0979828
7470.19	-0.0988588
7481.16	-0.0998749
7490.31	-0.100693
7501.28	-0.101639
7510.43	-0.1024
7521.4	-0.103278
7530.55	-0.103982
7541.52	-0.104793
7550.67	-0.105442
7561.64	-0.106187
7570.79	-0.10678
7581.76	-0.10746
7590.91	-0.108
7600.05	-0.108516
7611.03	-0.109103
7620.17	-0.109566
7631.15	-0.11009
7640.29	-0.110501
7651.27	-0.110963
7660.41	-0.111322
7671.39	-0.111723
7680.53	-0.112031
7691.51	-0.112371
7700.65	-0.112628
7711.63	-0.112907
7720.77	-0.113114
7731.75	-0.113332
7740.89	-0.113488
7750.04	-0.113622
7761.01	-0.113751
7770.16	-0.113834
7781.13	-0.113903
7790.28	-0.113934
7801.25	-0.113942
7810.4	-0.113922
7821.37	-0.113867
7830.52	-0.113796
7841.49	-0.113679
7850.64	-0.113555
7861.61	-0.113375
7870.76	-0.113199
7881.73	-0.112955
7890.88	-0.112725
7900.02	-0.112471
7911	-0.112134
7920.14	-0.111827
7931.12	-0.111425
7940.26	-0.111064
7951.24	-0.110598
7960.38	-0.110183
7971.36	-0.109653
7980.5	-0.109184
7991.48	-0.10859
8000.62	-0.108069
8011.6	-0.107412
8020.74	-0.106839
8031.72	-0.106121
8040.86	-0.105497
8050.01	-0.10485
8060.98	-0.104044
8070.13	-0.103349
8081.1	-0.102485
8090.25	-0.101742
8101.22	-0.100824
8110.37	-0.100036
8121.34	-0.0990637
8130.49	-0.0982325
8141.46	-0.0972101
8150.61	-0.096338
8161.58	-0.0952679
8170.73	-0.0943571
8181.7	-0.0932421
8190.85	-0.0922952
8201.82	-0.0911382
8210.97	-0.0901574
8220.12	-0.089162
8231.09	-0.087949
8240.24	-0.0869232
8251.21	-0.0856749
8260.36	-0.0846208
8271.33	-0.0833398
8280.48	-0.0822594
8291.45	-0.0809479
8300.6	-0.0798429
8311.57	-0.0785029
8320.72	-0.0773749
8331.69	-0.076008
8340.84	-0.0748581
8351.81	-0.0734656
8360.96	-0.0722947
8370.1	-0.0711147
8381.08	-0.0696864
8390.22	-0.0684863
8401.2	-0.0670341
8410.34	-0.0658141
8421.32	-0.0643382
8430.46	-0.0630984
8441.44	-0.0615987
8450.58	-0.0603388
8461.56	-0.0588149
8470.7	-0.0575348
8481.68	-0.0559863
8490.82	-0.0546855
8501.8	-0.0531118
8510.94	-0.0517899
8520.09	-0.0504582
8531.06	-0.0488472
8540.21	-0.047494
8551.24	-0.0458481
8560.46	-0.0444619
8571.53	-0.0427851
8580.75	-0.0413768
8591.81	-0.0396738
8601.03	-0.038244
8610.25	-0.0368047
8621.31	-0.0350653
8630.53	-0.0336061
8641.6	-0.0318439
8650.82	-0.0303666
8660.03	-0.0288819
8671.1	-0.0270916
8680.32	-0.0255932
8691.38	-0.0237888
8700.6	-0.0222809
8711.66	-0.0204683
8720.88	-0.0189568
8730.1	-0.0174458
8741.17	-0.0156359
8750.39	-0.0141326
8761.45	-0.0123381
8770.67	-0.0108533
8781.73	-0.00908792
8790.96	-0.00763243
8800.19	-0.0061953
8811.27	-0.00450023
8820.5	-0.00311597
8831.58	-0.00149177
8840.81	-0.000170535
8850.04	0.00111564
8861.12	0.00259492
8870.35	0.00377785
8881.43	0.00515285
8890.66	0.00626966
8901.74	0.00757493
8910.97	0.00918173
8920.2	0.0105622
8931.28	0.0120383
8940.51	0.0127234
8951.59	0.0132551
8960.82	0.014141
8970.05	0.0147925
8981.13	0.0158744
8990.36	0.0166193
9001.44	0.0184776
9010.67	0.0219506
9021.75	0.0272702
9030.98	0.0313232
9040.21	0.035342
9051.29	0.0394411
9060.52	0.0423382
9071.61	0.0455786
9080.92	0.0479477
9090.28	0.0499268
9101.52	0.0519794
9110.89	0.0534289
9120.26	0.0546435
9131.5	0.055997
9140.87	0.0571181
9150.24	0.0582183
9161.48	0.0594748
9170.85	0.0604238
9180.22	0.0612603
9191.46	0.062145
9200.83	0.0628381
9210.2	0.0635251
9221.44	0.0643168
9230.81	0.0648924
9240.18	0.0653632
9251.42	0.0658298
9260.79	0.0662007
9270.16	0.0665955
9281.4	0.0670885
9290.77	0.0674615
9300.14	0.0677584
9311.38	0.0680185
9320.75	0.0681954
9330.12	0.0683765
9341.36	0.0686246
9350.73	0.0688485
9360.1	0.0690563
9371.34	0.0692259
9380.71	0.0692569
9390.08	0.0691686
9401.32	0.0689176
9410.69	0.0686209
9420.06	0.0682818
9431.3	0.0678608
9440.67	0.0675223
9450.04	0.0672075
9461.28	0.0668649
9470.65	0.0666031
9480.02	0.0663528
9491.27	0.0660549
9500.63	0.0658026
9510	0.0655421
9521.25	0.0652064
9530.61	0.0648904
9541.86	0.0644461
9551.23	0.064015
9560.6	0.0635338
9571.84	0.0629067
9581.21	0.0623551
9590.58	0.0617846
9601.85	0.061081
9611.24	0.0604891
9620.63	0.0599045
9630.01	0.0593392
9641.26	0.0586995
9650.63	0.0582022
9661.87	0.0576421
9671.22	0.0571917
9680.58	0.0567386
9691.81	0.0561669
9701.16	0.0556518
9710.52	0.0550974
9721.74	0.0543918
9731.09	0.0537898
9740.44	0.0531962
9751.67	0.0525182
9761	0.0519943
9770.31	0.051511
9781.48	0.0509763
9790.79	0.0505564
9800.1	0.0501435
9811.27	0.0496312
9820.57	0.0491706
9831.75	0.0485611
9841.05	0.0480031
9850.36	0.0474042
9861.53	0.0466441
9870.84	0.0459884
9880.09	0.0453282
9891.14	0.0445435
9900.33	0.043903
9911.37	0.0431586
9920.57	0.0425587
9931.61	0.0418551
9940.8	0.0412722
9950	0.0406845
9961.04	0.0399691
9970.24	0.0393681
9981.27	0.0386523
9990.47	0.0380688
10001.5	0.0373902
10010.7	0.0368417
10021.7	0.0361963
10030.9	0.0356609
10040.1	0.0351205
10051.2	0.0344579
10060.4	0.0338901
10071.4	0.0331883
10080.6	0.0325879
10091.6	0.0318542
10100.8	0.0312384
10110	0.030626
10121.1	0.0299058
10130.3	0.0293252
10141.3	0.0286576
10150.5	0.0281265
10161.6	0.0275161
10170.7	0.0270245
10181.8	0.0264469
10191	0.0259708
10200.2	0.025497
10211.2	0.0249324
10220.4	0.0244688
10231.5	0.0239275
10240.7	0.0234946
10251.7	0.0230033
10260.9	0.0226207
10270.1	0.022264
10281.1	0.0218701
10290.3	0.021568
10301.4	0.021232
10310.6	0.0209686
10321.6	0.0206649
10330.8	0.0204159
10341.8	0.0201149
10351	0.0198577
10360.2	0.019592
10371.3	0.0192605
10380.5	0.0189748
10391.5	0.0186239
10400.7	0.0183283
10411.7	0.0179705
10420.9	0.0176632
10430.1	0.0173338
10441.2	0.0168855
10450.4	0.0164574
10461.4	0.0158947
10470.6	0.0154208
10481.6	0.0148971
10490.8	0.0145246
10500	0.0142161
10511.1	0.0139214
10520.3	0.0137273
10531.3	0.0135412
10540.5	0.0134167
10551.5	0.0132945
10560.7	0.013205
10571.8	0.0131011
10581	0.0130117
10590.2	0.0129212
10601.2	0.0128282
10610.4	0.0127753
10621.4	0.0127403
10630.6	0.0127297
10641.7	0.0127332
10650.9	0.0127418
10660.1	0.0127481
10671.1	0.0127463
10680.3	0.0127358
10691.3	0.0127152
10700.5	0.0126923
10711.6	0.0126561
10720.8	0.0126216
10731.8	0.0125831
10741	0.0125531
10750.2	0.0125223
10761.2	0.0124912
10770.4	0.0124775
10781.5	0.0124545
10790.7	0.0124106
10801.7	0.0123466
10810.9	0.0122945
10820.1	0.012231
10831.1	0.0121422
10840.3	0.0120542
10851.4	0.0118846
10860.6	0.0117013
10871.6	0.011488
10880.8	0.0113186
10890	0.0111073
10901.1	0.0108104
10910.2	0.0106652
10921.3	0.0104474
10930.5	0.0102184
10941.5	0.0100668
10950.7	0.00980497
10961.8	0.00969214
10971	0.00948588
10980.2	0.00905548
10991.2	0.00866619
11000.4	0.00836939
11011.4	0.00804454
11020.6	0.00780116
11031.7	0.0073812
11040.9	0.00703292
11050.1	0.0069328
11061.1	0.00649861
11070.3	0.00613622
11081.3	0.0057183
11090.5	0.00548568
11101.6	0.00512302
11110.8	0.00477025
11121.8	0.00426568
11131	0.00381321
11140.2	0.00415274
11151.2	0.00370746
11160.4	0.00330624
11171.4	0.00268517
11180.6	0.00221732
11191.5	0.001679
11200.7	0.00123346
11211.7	0.000690432
11220.8	0.000228523
11231.8	-0.000336188
11240.9	-0.000814579
11250.1	-0.00129757
11261	-0.00188395
11270.2	-0.00237995
11281.2	-0.00298541
11290.3	-0.00349879
11301.3	-0.00412522
11310.4	-0.00465555
11321.4	-0.00530129
11330.6	-0.00584642
11341.5	-0.00650752
11350.7	-0.00706275
11361.7	-0.00773217
11370.8	-0.00829115
11381.8	-0.00896166
11390.9	-0.00951923
11400.1	-0.0100752
11411	-0.0107397
11420.2	-0.0112914
11431.2	-0.0119511
11440.3	-0.012499
11451.3	-0.0131545
11460.4	-0.0136992
11471.4	-0.0143509
11480.5	-0.014892
11491.5	-0.0155384
11500.7	-0.016074
11511.6	-0.0167119
11520.8	-0.0172388
11531.8	-0.0178644
11540.9	-0.0183794
11550	-0.0188881
11561	-0.0194895
11570.2	-0.0199829
11581.1	-0.0205653
11590.3	-0.0210424
11601.3	-0.0216052
11610.4	-0.0220662
11621.4	-0.0226098
11630.5	-0.023055
11641.5	-0.0235802
11650.6	-0.0240103
11661.6	-0.0245176
11670.8	-0.0249329
11681.7	-0.0254225
11690.9	-0.025823
11700	-0.0262166
11711	-0.0266798
11720.2	-0.0270581
11731.1	-0.0275027
11740.3	-0.0278652
11751.3	-0.0282906
11760.4	-0.0286371
11771.4	-0.0290433
11780.5	-0.0293737
11791.5	-0.0297606
11800.6	-0.0300751
11811.6	-0.030443
11820.8	-0.0307417
11831.7	-0.0310909
11840.9	-0.0313741
11850	-0.0316504
11861	-0.0319728
11870.1	-0.0322339
11881.1	-0.0325382
11890.3	-0.0327843
11901.2	-0.0330707
11910.4	-0.0333019
11921.4	-0.0335705
11930.5	-0.033787
11941.5	-0.0340382
11950.6	-0.0342402
11961.6	-0.0344741
11970.7	-0.034662
11981.7	-0.0348791
11990.9	-0.0350531
12000	-0.0352209
12011	-0.0354142
12020.1	-0.0355688
12031.1	-0.0357465
12040.2	-0.0358882
12051.2	-0.0360509
12060.4	-0.0361804
12071.3	-0.0363288
12080.5	-0.0364466
12091.5	-0.0365813
12100.6	-0.0366882
12111.6	-0.0368101
12120.7	-0.0369066
12131.7	-0.0370166
12140.8	-0.0371036
12151.8	-0.0372027
12161	-0.0372809
12170.1	-0.0373555
12181.1	-0.0374404
12190.2	-0.0375076
12201.2	-0.0375841
12210.4	-0.0376447
12221.3	-0.0377139
12230.5	-0.037769
12241.5	-0.0378321
12250.6	-0.0378825
12261.6	-0.0379406
12270.7	-0.0379874
12281.7	-0.0380417
12290.8	-0.0380858
12301.8	-0.0381375
12311	-0.0381798
12320.1	-0.0382217
12331.1	-0.0382716
12340.2	-0.0383131
12351.2	-0.038363
12360.3	-0.038405
12371.3	-0.038456
12380.5	-0.0384993
12391.4	-0.0385525
12400.6	-0.0385979
12411.6	-0.0386539
12420.7	-0.0387021
12431.7	-0.0387619
12440.8	-0.0388135
12451.8	-0.0388777
12460.9	-0.0389332
12470.1	-0.0389906
12481.1	-0.0390622
12490.2	-0.0391241
12501.2	-0.0392012
12510.3	-0.0392679
12521.3	-0.0393509
12530.5	-0.0394226
12541.4	-0.0395116
12550.6	-0.0395882
12561.6	-0.0396838
12570.8	-0.0397661
12580	-0.0398508
12591.1	-0.0399553
12600.3	-0.0400448
12611.4	-0.0401551
12620.6	-0.0402493
12631.7	-0.0403649
12640.9	-0.0404634
12650.1	-0.0405639
12661.2	-0.0406867
12670.4	-0.0407908
12681.5	-0.0409178
12690.7	-0.0410251
12701.8	-0.0411556
12711.1	-0.0412656
12720.3	-0.0413767
12731.4	-0.0415114
12740.7	-0.0416249
12751.8	-0.041762
12761.2	-0.0418774
12770.6	-0.0419934
12781.8	-0.0421327
12791.2	-0.0422487
12800.5	-0.0423647
12811.8	-0.0425033
12821.2	-0.0426184
12830.5	-0.0427329
12841.8	-0.0428692
12851.1	-0.0429818
12860.5	-0.0430934
12871.7	-0.0432258
12881.1	-0.0433346
12890.5	-0.043442
12901.7	-0.0435689
12911.1	-0.0436728
12920.5	-0.0437749
12931.7	-0.043895
12941.1	-0.0439929
12950.4	-0.0440887
12961.7	-0.0442009
12971.1	-0.0442919
12980.4	-0.0443806
12991.7	-0.0444839
13001	-0.0445673
13010.4	-0.0446483
13021.6	-0.044742
13031	-0.0448173
13040.4	-0.0448899
13051.6	-0.0449735
13061	-0.0450402
13070.4	-0.0451041
13081.6	-0.0451772
13091	-0.0452349
13100.3	-0.0452898
13111.6	-0.0453518
13121	-0.0454003
13130.3	-0.0454459
13141.6	-0.0454967
13150.9	-0.0455357
13160.3	-0.0455716
13171.5	-0.0456108
13180.9	-0.04564
13190.3	-0.0456662
13201.5	-0.0456934
13210.9	-0.0457126
13220.3	-0.0457286
13231.5	-0.0457435
13240.9	-0.0457523
13250.2	-0.0457578
13261.5	-0.0457599
13270.9	-0.0457579
13280.2	-0.0457525
13291.5	-0.0457413
13300.8	-0.0457281
13310.2	-0.0457112
13321.4	-0.0456861
13330.8	-0.0456611
13340.2	-0.0456322
13351.4	-0.0455924
13360.8	-0.0455549
13370.2	-0.0455134
13381.4	-0.0454581
13390.8	-0.0454074
13400.1	-0.0453525
13411.4	-0.0452808
13420.8	-0.0452161
13430.1	-0.0451469
13441.4	-0.0450577
13450.7	-0.0449782
13460.1	-0.0448938
13471.4	-0.0447861
13480.7	-0.0446908
13490.1	-0.0445904
13501.3	-0.044463
13510.7	-0.044351
13520.1	-0.0442335
13531.3	-0.0440854
13540.7	-0.0439557
13550	-0.0438203
13561.3	-0.0436503
13570.7	-0.0435021
13580	-0.0433479
13591.3	-0.043155
13600.6	-0.0429874
13610	-0.0428137
13621.3	-0.042597
13630.6	-0.0424094
13641.9	-0.0421759
13651.2	-0.0419742
13660.6	-0.041766
13671.8	-0.0415077
13681.2	-0.0412851
13690.6	-0.041056
13701.8	-0.0407724
13711.2	-0.0405288
13720.6	-0.0402786
13731.8	-0.0399697
13741.2	-0.039705
13750.5	-0.0394338
13761.8	-0.0390997
13771.2	-0.0388142
13780.5	-0.0385222
13791.8	-0.0381634
13801.1	-0.0378575
13810.5	-0.0375453
13821.7	-0.0371626
13831.1	-0.0368369
13840.5	-0.0365053
13851.7	-0.0360995
13861.1	-0.035755
13870.5	-0.0354048
13881.7	-0.0349771
13891.1	-0.0346148
13900.4	-0.0342471
13911.7	-0.033799
13921.1	-0.0334199
13930.4	-0.0330359
13941.7	-0.0325687
13951	-0.0321742
13960.4	-0.031775
13971.7	-0.0312902
13981	-0.0308815
13990.4	-0.0304685
14001.6	-0.0299676
14011	-0.0295458
14020.4	-0.0291202
14031.6	-0.0286046
14041	-0.028171
14050.3	-0.0277339
14061.6	-0.027205
14071	-0.0267607
14080.3	-0.0263132
14091.6	-0.0257722
14100.9	-0.0253182
14110.3	-0.0248614
14121.6	-0.0243095
14130.9	-0.0238468
14140.3	-0.0233815
14151.5	-0.02282
14160.9	-0.0223494
14170.3	-0.0218767
14181.5	-0.0213065
14190.9	-0.0208292
14200.3	-0.0203499
14211.5	-0.0197723
14220.9	-0.0192891
14230.2	-0.0188043
14241.5	-0.0182205
14250.8	-0.0177326
14260.2	-0.0172425
14271.5	-0.0166503
14281	-0.0161548
14290.5	-0.0156576
14301.8	-0.015059
14311.4	-0.0145581
14320.9	-0.0140525
14330.6	-0.0135424
14340.4	-0.0130291
14350.1	-0.0125145
14361.9	-0.0118956
14371.7	-0.0113806
14381.5	-0.0108667
14391.3	-0.0103541
14401.1	-0.00984297
14410.9	-0.00933364
14420.8	-0.00882634
14430.6	-0.00832133
14440.4	-0.00781888
14450.2	-0.00731923
14461.9	-0.00672374
14471.8	-0.00623121
14481.6	-0.00574233
14491.4	-0.00525736
14501.2	-0.00477656
14511	-0.00430018
14520.8	-0.00382847
14530.6	-0.00336168
14540.4	-0.00289917
14550.3	-0.0024402
14560.2	-0.00198582
14570.1	-0.00153734
14581.9	-0.00100737
14591.8	-0.000572828
14601.7	-0.000144993
14611.6	0.00027591
14621.5	0.000689655
14631.4	0.00109601
14641.3	0.00149475
14651.2	0.00188563
14661.1	0.00226843
14671	0.00264289
14680.9	0.00300878
14690.8	0.00336585
14700.6	0.00371384
14710.5	0.00405253
14720.4	0.00438165
14730.3	0.00470099
14740.2	0.00501033
14750.1	0.00530947
14760	0.00559825
14771.9	0.00593092
14781.8	0.0061965
14791.7	0.00645149
14801.5	0.00669595
14811.4	0.00693006
14821.3	0.0071541
14831.2	0.00736848
14841.1	0.00757368
14851	0.00777027
14860.9	0.00795892
14870.8	0.00814046
14880.7	0.00831585
14890.6	0.00848627
14900.5	0.00865303
14910.4	0.00881728
14920.2	0.00898066
14930.1	0.00914446
14942	0.00934304
14951.8	0.00951106
14961.7	0.00968176
14971.6	0.00985502
14981.5	0.0100304
14991.3	0.0102069
15001.2	0.0103835
15011.1	0.0105588
15021	0.010731
15030.8	0.0108986
15040.7	0.0110601
15050.6	0.0112141
15060.4	0.0113588
15070.2	0.0114931
15081.9	0.0116405
15091.7	0.0117511
15101.4	0.0118504
15111.2	0.0119383
15120.9	0.012015
15130.7	0.0120806
15140.4	0.0121353
15150.1	0.0121794
15161.7	0.0122191
15171.3	0.0122417
15181	0.0122553
15190.7	0.0122603
15200.3	0.0122573
15211.9	0.0122437
15221.5	0.0122247
15231.2	0.0121992
15240.8	0.0121676
15250.4	0.0121305
15260.1	0.0120883
15271.7	0.0120314
15281.3	0.0119793
15290.9	0.0119233
15300.6	0.0118637
15310.2	0.0118008
15321.8	0.0117211
15331.4	0.0116516
15341.1	0.0115793
15350.7	0.0115044
15360.3	0.0114271
15371.9	0.0113313
15381.6	0.011249
15391.2	0.0111648
15400.8	0.0110787
15410.5	0.0109911
15420.1	0.010902
15431.7	0.0107937
15441.3	0.0107025
15451	0.010611
15460.6	0.0105193
15470.3	0.0104278
15481.8	0.0103189
15491.5	0.0102294
15501.1	0.0101413
15510.7	0.0100551
15520.4	0.00997117
15530	0.00988993
15541.6	0.00979648
15551.2	0.00972242
15560.9	0.00965217
15570.5	0.00958608
15580.2	0.00952442
15591.7	0.00945667
15601.4	0.0094057
15611	0.00935993
15620.6	0.00931955
15630.3	0.00928469
15641.9	0.00925034
15651.5	0.00922804
15661.1	0.00921157
15670.8	0.00920097
15680.4	0.00919626
15690.1	0.00919744
15701.6	0.00920657
15711.3	0.00922055
15720.9	0.00924023
15730.6	0.0092655
15740.2	0.00929622
15751.8	0.00934003
15761.4	0.00938208
15771	0.00942894
15780.7	0.00948033
15790.3	0.00953598
15801.9	0.00960795
15811.5	0.00967187
15821.2	0.00973903
15830.8	0.00980908
15840.5	0.00988168
15850.1	0.00995646
15861.7	0.0100486
15871.4	0.0101273
15881.1	0.0102077
15890.9	0.0102889
15900.7	0.0103703
15910.5	0.0104516
15920.3	0.0105324
15930.1	0.0106123
15941.8	0.0107063
15951.6	0.0107828
15961.4	0.0108572
15971.2	0.0109291
15981	0.0109982
15990.7	0.0110642
16000.5	0.0111269
16010.3	0.0111862
16020.1	0.011242
16031.8	0.0113044
16041.6	0.0113527
16051.3	0.011398
16061	0.0114404
16070.7	0.0114803
16080.4	0.0115181
16090.1	0.0115542
16101.7	0.0115958
16111.3	0.0116296
16120.9	0.0116629
16130.5	0.0116963
16140.1	0.0117301
16151.6	0.0117716
16161.2	0.0118075
16170.9	0.0118447
16180.5	0.0118838
16190.1	0.0119248
16201.6	0.0119769
16211.2	0.0120231
16220.8	0.0120719
16230.4	0.0121235
16240	0.0121779
16251.6	0.0122472
16261.2	0.0123082
16270.8	0.0123722
16280.3	0.0124388
16291.8	0.0125222
16301.3	0.0125945
16310.8	0.0126693
16320.3	0.0127466
16331.7	0.0128422
16341.1	0.012924
16350.6	0.0130075
16360.1	0.0130924
16371.4	0.0131959
16380.9	0.013283
16390.4	0.0133705
16401.7	0.0134756
16411.2	0.0135627
16420.6	0.0136487
16430.1	0.0137332
16441.5	0.0138316
16450.9	0.0139108
16460.4	0.013987
16471.7	0.0140745
16481.2	0.014144
16490.6	0.0142106
16500.1	0.0142744
16511.4	0.0143475
16520.8	0.0144046
16530.3	0.0144569
16541.6	0.0145138
16551	0.014559
16560.5	0.0146061
16571.8	0.0146712
16581.2	0.0147367
16590.7	0.0148127
16600.1	0.0148945
16611.4	0.015006
16620.9	0.015117
16630.3	0.0152462
16641.6	0.0154199
16651.1	0.0155781
16660.5	0.0155349
16671.8	0.015318
16681.3	0.0153024
16690.7	0.0153891
16700.2	0.0155433
16711.5	0.0157788
16720.9	0.0159787
16730.4	0.016161
16741.7	0.0163812
16751.1	0.0165729
16760.6	0.0167656
16771.9	0.0169965
16781.3	0.0171847
16790.8	0.0177157
16800.2	0.0180557
16811.5	0.0183254
16820.9	0.0184748
16830.4	0.018571
16841.7	0.0186755
16851.1	0.0188073
16860.6	0.0190091
16870	0.0194392
16881.3	0.0196391
16890.8	0.0197648
16900.2	0.0198824
16911.5	0.0199478
16921	0.0201068
16930.4	0.0202021
16941.7	0.0202673
16951.2	0.0203518
16960.6	0.0204374
16970	0.0205343
16981.4	0.0207161
16990.8	0.0209052
17000.2	0.0210532
17011.6	0.0212254
17021	0.0214432
17030.4	0.02161
17041.7	0.0217226
17051.2	0.0217781
17060.6	0.02185
17070.1	0.0219447
17081.4	0.022075
17090.8	0.0222076
17100.2	0.0223089
17111.5	0.0223945
17121	0.0224427
17130.4	0.0224792
17141.6	0.0225454
17151	0.0226093
17160.4	0.0226833
17171.7	0.0228114
17181.1	0.0229296
17190.5	0.0230291
17201.7	0.0231299
17211.1	0.0232211
17220.4	0.0233064
17231.7	0.0233722
17241	0.0234074
17250.4	0.0234351
17261.6	0.0234624
17271	0.02347
17280.3	0.0234619
17291.5	0.0234314
17300.9	0.0233655
17310.2	0.0232476
17321.5	0.0230379
17330.8	0.0228141
17340.1	0.0225612
17351.3	0.0222219
17360.6	0.0219084
17371.8	0.0214922
17381.1	0.0211039
17390.4	0.0206706
17401.6	0.0200851
17410.9	0.0195358
17420.2	0.0189244
17431.4	0.0181079
17440.7	0.0173619
17451.8	0.016392
17461.1	0.0155217
17470.5	0.0145953
17481.5	0.0134218
17490.7	0.0123979
17501.8	0.0111157
17511	0.00992609
17520.2	0.00803551
17531.2	0.00571065
17540.4	0.00456254
17551.5	0.00230033
17560.6	0.000691766
17571.7	-0.00176149
17580.9	-0.00295242
17590.1	-0.00421776
17601.1	-0.00584811
17610.3	-0.00721034
17621.4	-0.00873088
17630.6	-0.00992126
17641.6	-0.0112675
17650.8	-0.0123327
17661.8	-0.0135607
17671	-0.0145523
17680.2	-0.0155198
17691.3	-0.0166509
17700.5	-0.0175676
17711.5	-0.0186344
17720.7	-0.0194935
17731.7	-0.0204867
17740.9	-0.0212819
17750.1	-0.0220473
17761.2	-0.0229267
17770.4	-0.0236276
17781.4	-0.0244314
17790.6	-0.0250712
17801.6	-0.0258042
17810.8	-0.026387
17820	-0.0269451
17831.1	-0.0275831
17840.3	-0.0280891
17851.3	-0.028666
17860.5	-0.0291222
17871.5	-0.0296409
17880.7	-0.0300494
17891.8	-0.030512
17901	-0.0308748
17910.2	-0.0312173
17921.2	-0.0316021
17930.4	-0.0319012
17941.4	-0.0322348
17950.6	-0.0324919
17961.7	-0.0327757
17970.9	-0.0329918
17980.1	-0.0331896
17991.1	-0.0334026
18000.3	-0.0335602
18011.3	-0.0337251
18020.5	-0.0338425
18031.6	-0.0339593
18040.8	-0.0340365
18051.8	-0.0341048
18061	-0.0341414
18070.2	-0.0341595
18081.2	-0.0341566
18090.4	-0.0341335
18101.5	-0.0340812
18110.7	-0.0340168
18121.7	-0.0339148
18130.9	-0.0338091
18140.1	-0.0336846
18151.1	-0.0335106
18160.3	-0.0333451
18171.4	-0.0331221
18180.6	-0.0329161
18191.6	-0.0326451
18200.8	-0.0323995
18210	-0.0321363
18221.1	-0.0317975
18230.3	-0.0314964
18241.3	-0.0311129
18250.5	-0.0307751
18261.5	-0.0303486
18270.7	-0.0299757
18281.8	-0.0295079
18291	-0.0291013
18300.2	-0.0286798
18311.2	-0.0281549
18320.4	-0.0277018
18331.4	-0.0271396
18340.6	-0.0266561
18351.7	-0.0260583
18360.9	-0.0255456
18370.1	-0.0250202
18381.1	-0.0243732
18390.3	-0.0238206
18401.3	-0.0231417
18410.5	-0.0225632
18421.6	-0.0218541
18430.8	-0.0212512
18441.8	-0.0205137
18451	-0.0198879
18460.2	-0.0192522
18471.2	-0.0184769
18480.4	-0.0178208
18491.5	-0.0170221
18500.7	-0.0163473
18511.7	-0.0155273
18520.9	-0.0148357
18530.1	-0.0141371
18541.1	-0.0132901
18550.3	-0.0125774
18561.4	-0.0117146
18570.6	-0.0109897
18581.6	-0.0101133
18590.8	-0.00937789
18600	-0.00863821
18611	-0.00774541
18620.2	-0.0069974
18631.3	-0.00609532
18640.5	-0.0053401
18651.5	-0.00442989
18660.7	-0.00366822
18671.7	-0.00275056
18680.9	-0.00198282
18690.1	-0.00121232
18701.2	-0.000284022
18710.4	0.000492735
18721.4	0.00142882
18730.6	0.00221235
18741.7	0.00315696
18750.8	0.00394796
18760	0.0047426
18771.1	0.00570117
18780.3	0.00650429
18791.3	0.00747336
18800.5	0.00828542
18811.6	0.00926532
18820.8	0.0100864
18831.8	0.0110769
18841	0.0119065
18850.2	0.0127397
18861.2	0.0137439
18870.4	0.0145837
18881.5	0.0155936
18890.7	0.0164331
18901.7	0.0174353
18910.9	0.0182699
18920.1	0.0189476
18931.1	0.0195864
18940.3	0.0200546
18951.4	0.0207035
18960.6	0.0215986
18971.6	0.0228325
18980.8	0.0237188
18991.8	0.0246385
19001	0.0253901
19010.2	0.0261764
19021.3	0.0271929
19030.5	0.0280655
19041.5	0.0290863
19050.7	0.0298983
19061.7	0.0308297
19070.8	0.0315786
19081.8	0.0324527
19090.9	0.0331602
19100.1	0.0338414
19111	0.0346289
19120.2	0.0352816
19131.2	0.0360869
19140.3	0.0367771
19151.3	0.037607
19160.4	0.0382814
19171.4	0.0390592
19180.6	0.0396839
19191.5	0.0404149
19200.7	0.0410157
19211.6	0.0417367
19220.8	0.0423476
19231.8	0.0431056
19240.9	0.0437636
19250.1	0.0444418
19261	0.0452632
19270.2	0.0459291
19281.2	0.0466711
19290.3	0.0472211
19301.3	0.0477875
19310.4	0.0481828
19321.4	0.0485743
19330.5	0.0488414
19341.5	0.0491041
19350.7	0.0492836
19361.6	0.0494578
19370.8	0.0495702
19381.8	0.0496688
19390.9	0.0497269
19400	0.0497713
19411	0.0498151
19420.2	0.0498448
19431.1	0.0498626
19440.3	0.0498484
19451.3	0.0497785
19460.4	0.0496686
19471.4	0.0494773
19480.5	0.0492785
19491.5	0.049011
19500.6	0.0487771
19511.6	0.0484947
19520.8	0.0482613
19531.7	0.047981
19540.9	0.0477417
19550	0.047492
19561	0.0471733
19570.2	0.0468907
19581.1	0.0465325
19590.3	0.0462197
19601.2	0.0458287
19610.4	0.0454898
19621.4	0.0450659
19630.5	0.0446957
19641.5	0.0442262
19650.6	0.04381
19661.6	0.0432774
19670.8	0.0428064
19681.7	0.0422138
19690.9	0.0417045
19700	0.0411884
19711	0.0405685
19720.1	0.0400556
19731.1	0.0394449
19740.3	0.0389376
19751.2	0.0383257
19760.4	0.0378093
19771.4	0.0371801
19780.5	0.0366493
19791.5	0.0360102
19800.6	0.0354819
19811.6	0.0348595
19820.7	0.0343529
19831.7	0.0337577
19840.9	0.0332678
19850	0.0327781
19861	0.0321844
19870.1	0.0316817
19881.1	0.0310684
19890.2	0.0305508
19901.2	0.0299252
19910.4	0.0294032
19921.3	0.0287793
19930.5	0.0282644
19941.5	0.0276558
19950.6	0.0271588
19961.6	0.0265765
19970.7	0.026103
19981.7	0.0255475
19990.9	0.0250934
