0	0
12.201	0
20.335	0
32.5359	0
40.6698	0
52.8706	0
61.0045	0
73.2051	0
81.3387	0
93.5391	0
101.673	0
113.873	0
122.006	0
130.14	0
142.34	0
150.474	0
162.674	0
170.808	0
183.008	0
191.142	0
203.308	0
211.356	0
223.316	0
231.287	0
243.244	0
251.215	0
263.172	0
271.144	0
283.101	0
291.072	0
303.028	0
310.999	0
322.956	0
330.927	0
342.884	0
350.855	0
362.811	0
370.782	0
382.739	0
390.71	0
402.666	0
410.637	0
422.594	0
430.531	0
442.427	0
450.276	0
462.038	0
473.849	0
481.694	0
493.242	0
500.934	0
512.472	0
520.165	0
531.704	0
543.243	0
550.893	0
562.311	0
573.729	0
581.331	0
592.731	0
600.33	0
611.702	0
623.068	0
630.645	0
642.004	0
653.363	0
660.936	0
672.295	0
683.654	0
691.227	0
702.585	0
710.158	0
721.517	0
732.876	0
740.449	0
751.807	0
763.163	0
770.722	0
782.048	0
793.378	0
800.931	0
812.26	0
823.589	0
831.142	0
842.471	0
850.024	0
861.353	0
872.683	0
880.236	0
891.565	0
902.894	0
910.447	0
921.776	0
933.105	0
940.658	0
951.987	0
963.316	0
970.869	0
982.198	0
993.528	0
1001.08	0
1012.41	0
1023.74	0
1031.29	0
1042.62	0
1050.17	0
1061.5	0
1072.83	0
1080.38	0
1091.71	0
1103.04	0
1110.6	0
1121.93	0
1133.25	0
1140.81	0
1152.14	0
1163.47	0
1171.02	0
1182.35	0
1193.68	0
1201.23	0
1212.56	0
1220.11	0
1231.43	0
1242.75	0
1250.29	0
1261.62	0
1272.94	0
1280.48	0
1291.8	0
1303.12	0
1310.67	0
1321.99	0
1333.31	0
1340.85	0
1352.17	0
1363.49	0
1371.03	0
1382.31	0
1393.56	0
1401.07	0
1412.34	0
1423.6	0
1431.09	0
1442.33	0
1453.57	0
1461.06	0
1472.3	0
1483.54	0
1491.03	0
1502.27	0
1513.51	0
1521	0
1532.23	0
1543.45	0
1550.9	0
1562.08	0
1573.26	0
1580.72	0
1591.9	0
1603.08	0
1610.54	0
1621.72	0
1632.9	0
1640.36	0
1651.49	0
1662.53	0
1673.59	0
1680.96	0
1692.02	0
1703.08	0
1710.45	0
1721.51	0
1732.57	0
1743.63	0
1751	0
1762.06	0
1773.12	0
1780.49	0
1791.55	0
1802.61	0
1813.66	0
1821.04	0
1832.1	0
1843.15	0
1850.53	0
1861.59	0
1872.65	0
1880.02	0
1891.08	0
1902.14	0
1913.19	0
1920.57	0
1931.63	0
1942.68	0
1950.06	0
1961.12	0
1972.17	0
1983.23	0
1990.61	0
2001.66	0
2012.72	0
2020.1	0
2031.15	0
2042.21	0
2053.27	0
2060.64	0
2071.7	0
2082.76	0
2090.13	0
2101.19	0
2112.25	0
2123.31	0
2130.68	0
2141.74	0
2152.8	0
2160.17	0
2171.23	0
2182.29	0
2193.35	0
2200.72	0
2211.78	0
2222.84	0
2230.21	0
2241.27	0
2252.33	0
2263.39	0
2270.76	0
2281.82	-1.81899e-12
2292.88	-4.54747e-12
2300.25	-5.45697e-12
2311.31	-8.18545e-12
2322.36	-1.09139e-11
2333.42	-1.36424e-11
2340.8	-1.54614e-11
2351.85	-1.90994e-11
2362.91	-2.45564e-11
2370.29	-2.81943e-11
2381.34	-3.63798e-11
2392.4	-4.72937e-11
2403.46	-6.18456e-11
2410.83	-7.36691e-11
2421.89	-9.54969e-11
2432.95	-1.23691e-10
2440.32	-1.48248e-10
2451.38	-1.92813e-10
2462.44	-2.50111e-10
2473.5	-3.2469e-10
2480.87	-3.85626e-10
2491.93	-4.98403e-10
2502.99	-6.42103e-10
2510.36	-7.59428e-10
2521.42	-9.74978e-10
2532.48	-1.24783e-09
2543.53	-1.59162e-09
2550.91	-1.86901e-09
2561.96	-2.37378e-09
2573.02	-3.0077e-09
2580.4	-3.51611e-09
2591.45	-4.43288e-09
2602.51	-5.57429e-09
2613.57	-6.99038e-09
2620.94	-8.11724e-09
2632	-1.01345e-08
2643.06	-1.26183e-08
2650.43	-1.45828e-08
2661.49	-1.80798e-08
2672.55	-2.23563e-08
2683.61	-2.75741e-08
2690.98	-3.16677e-08
2700.03	-3.75003e-08
2711.09	-4.5964e-08
2722.15	-5.61977e-08
2733.21	-6.85432e-08
2740.58	-7.81411e-08
2751.64	-9.49185e-08
2762.69	-1.15033e-07
2770.07	-1.30588e-07
2781.1	-1.57582e-07
2792.13	-1.89711e-07
2803.16	-2.27873e-07
2810.52	-2.57168e-07
2821.55	-3.0775e-07
2832.58	-3.67469e-07
2843.61	-4.3782e-07
2850.96	-4.91463e-07
2861.99	-5.83456e-07
2873.02	-6.91203e-07
2880.38	-7.72972e-07
2891.41	-9.12531e-07
2902.44	-1.07507e-06
2913.47	-1.26398e-06
2920.82	-1.40644e-06
2931.85	-1.64805e-06
2942.88	-1.92735e-06
2950.24	-2.13704e-06
2961.27	-2.49109e-06
2972.3	-2.8982e-06
2983.33	-3.36543e-06
2990.68	-3.71416e-06
3001.72	-4.29946e-06
3012.75	-4.96778e-06
3020.1	-5.46454e-06
3031.13	-6.2948e-06
3042.16	-7.23817e-06
3053.19	-8.30812e-06
3060.55	-9.09899e-06
3071.58	-1.04135e-05
3082.61	-1.18973e-05
3093.64	-1.35693e-05
3100.99	-1.47986e-05
3112.02	-1.68309e-05
3123.05	-1.91104e-05
3130.41	-2.07801e-05
3141.44	-2.353e-05
3152.47	-2.66008e-05
3163.5	-3.00242e-05
3170.85	-3.25191e-05
3181.88	-3.66076e-05
3192.91	-4.11459e-05
3200.27	-4.44418e-05
3211.3	-4.98235e-05
3222.33	-5.57723e-05
3233.36	-6.23376e-05
3240.71	-6.70831e-05
3251.74	-7.47951e-05
3262.77	-8.32719e-05
3270.13	-8.93784e-05
3281.16	-9.9269e-05
3292.19	-0.000110097
3303.22	-0.000121935
3310.57	-0.000130424
3321.6	-0.000144112
3332.63	-0.000159018
3343.66	-0.000175227
3351.02	-0.000186801
3362.05	-0.000205381
3373.08	-0.00022551
3380.43	-0.000239838
3391.46	-0.000262768
3402.49	-0.000287516
3413.52	-0.000314192
3420.88	-0.0003331
3431.91	-0.000363233
3442.94	-0.000395595
3450.29	-0.000418465
3461.32	-0.000454802
3472.35	-0.000493686
3483.38	-0.00053524
3490.74	-0.000564486
3501.77	-0.000610765
3512.8	-0.000660045
3520.15	-0.000694628
3531.18	-0.000749189
3542.21	-0.000807082
3553.24	-0.000868431
3560.6	-0.00091131
3571.63	-0.000978682
3582.66	-0.00104982
3590.01	-0.0010994
3601.04	-0.00117706
3612.07	-0.00125878
3623.1	-0.00134464
3630.46	-0.00140422
3641.49	-0.00149718
3652.52	-0.0015945
3663.55	-0.00169625
3670.9	-0.00176656
3681.93	-0.00187579
3692.96	-0.00198956
3700.31	-0.00206794
3711.34	-0.0021893
3722.37	-0.00231521
3733.4	-0.00244564
3740.76	-0.00253509
3751.79	-0.00267297
3762.82	-0.00281521
3770.17	-0.00291242
3781.2	-0.00306173
3792.23	-0.00321509
3803.26	-0.00337236
3810.62	-0.00347928
3821.65	-0.00364264
3832.68	-0.00380935
3840.03	-0.00392224
3851.06	-0.00409397
3862.09	-0.00426832
3873.12	-0.00444495
3880.48	-0.00456379
3891.51	-0.0047434
3902.54	-0.00492426
3913.57	-0.00510592
3920.92	-0.00522724
3931.95	-0.00540915
3942.98	-0.0055905
3950.34	-0.00571082
3961.37	-0.00588999
3972.4	-0.00606702
3983.43	-0.00624127
3990.78	-0.00635556
4001.81	-0.00652364
4012.84	-0.00668704
4020.2	-0.00679301
4031.23	-0.00694693
4042.26	-0.00709408
4053.29	-0.00723363
4060.64	-0.00732202
4071.67	-0.00744699
4082.7	-0.00756203
4090.06	-0.00763275
4101.09	-0.00772921
4112.12	-0.00781327
4123.15	-0.00788399
4130.5	-0.00792325
4141.53	-0.0079696
4152.56	-0.00800005
4163.59	-0.00801364
4170.95	-0.00801286
4181.98	-0.00799623
4193.01	-0.0079602
4200.39	-0.00792483
4211.45	-0.00785414
4222.52	-0.00776149
4233.58	-0.00764603
4240.96	-0.00755595
4252.03	-0.00740061
4263.09	-0.0072203
4270.47	-0.00708587
4281.54	-0.00686239
4292.6	-0.00661214
4303.67	-0.00633454
4311.05	-0.00613398
4322.13	-0.00580943
4333.21	-0.00545634
4340.59	-0.00520495
4351.67	-0.00480372
4362.75	-0.0043734
4370.13	-0.00407035
4381.21	-0.00359157
4392.29	-0.00308387
4403.37	-0.00254755
4410.75	-0.00217429
4421.83	-0.00159116
4432.91	-0.000980694
4440.3	-0.000558931
4451.37	9.5167e-05
4462.46	0.000774721
4473.55	0.00147823
4480.94	0.00196026
4492.09	0.00270614
4503.25	0.00347469
4510.69	0.00399758
4521.85	0.00479524
4533.02	0.00560476
4540.48	0.00615306
4551.71	0.00701611
4562.94	0.00792431
4570.42	0.00856237
4581.65	0.0103638
4592.88	0.0115329
4600.37	0.0122865
4611.6	0.0137276
4622.83	0.0154067
4630.31	0.0169543
4641.54	0.0212598
4652.77	0.0296549
4660.26	0.0345533
4671.49	0.0428202
4682.72	0.0524269
4690.2	0.0596661
4701.43	0.0712526
4712.66	0.0831251
4720.15	0.0911896
4731.38	0.103912
4742.61	0.117643
4750.09	0.127242
4761.32	0.142039
4772.55	0.157184
4780.04	0.16747
4791.27	0.183115
4802.5	0.198842
4813.73	0.214507
4821.21	0.224907
4832.44	0.240476
4843.67	0.256014
4851.16	0.26633
4862.39	0.281677
4873.62	0.296781
4881.1	0.306664
4892.33	0.321135
4903.56	0.335118
4911.05	0.344145
4922.28	0.357211
4933.51	0.369664
4941	0.377595
4952.22	0.388879
4963.45	0.399358
4970.94	0.405858
4982.17	0.41483
4993.4	0.42282
5000.89	0.427583
5012.12	0.433862
5023.35	0.439078
5030.83	0.441948
5042.06	0.445314
5053.29	0.447515
5060.78	0.448317
5072.01	0.448497
5083.26	0.44743
5090.77	0.446015
5102.08	0.442814
5113.41	0.438304
5120.96	0.434561
5132.29	0.427825
5143.62	0.419727
5151.17	0.413566
5162.5	0.403185
5170.05	0.395511
5181.38	0.382892
5192.71	0.368977
5200.26	0.359001
5211.59	0.343012
5222.92	0.325822
5230.47	0.313711
5241.8	0.294587
5253.13	0.274346
5260.69	0.260254
5272.02	0.238257
5283.34	0.215291
5290.9	0.199482
5302.23	0.175096
5313.56	0.150009
5321.11	0.132971
5332.44	0.107095
5343.77	0.0810533
5351.32	0.0637087
5362.65	0.0378788
5370.2	0.0204021
5381.53	-0.000189469
5392.86	-0.00582967
5400.41	-0.0173634
5411.74	-0.0275457
5423.07	-0.0362199
5430.62	-0.0388146
5441.95	-0.0428775
5453.28	-0.0467667
5460.84	-0.0490788
5472.16	-0.0478542
5483.49	-0.0505741
5491.05	-0.0522387
5502.38	-0.0547339
5513.71	-0.0572401
5521.26	-0.0588732
5532.58	-0.0618875
5540.13	-0.0636467
5551.45	-0.0659476
5562.77	-0.0678942
5570.32	-0.0690312
5581.64	-0.0705482
5592.96	-0.0718811
5600.51	-0.0726883
5611.83	-0.0738086
5623.15	-0.0748478
5630.7	-0.0755063
5642.02	-0.0764548
5653.34	-0.0773755
5660.87	-0.0779824
5672.19	-0.0788937
5683.51	-0.0798024
5691.06	-0.0804021
5702.33	-0.0812779
5713.59	-0.0821158
5721.1	-0.082648
5732.36	-0.0834001
5743.62	-0.0840929
5751.12	-0.0845215
5762.36	-0.0851174
5773.6	-0.085664
5781.09	-0.0860052
5792.33	-0.08649
5803.57	-0.0869513
5811.06	-0.0872505
5822.3	-0.0876928
5833.54	-0.0881319
5841.03	-0.0884244
5852.27	-0.0888625
5863.5	-0.0892985
5870.97	-0.0895851
5882.15	-0.0900051
5893.33	-0.09041
5900.78	-0.0906686
5911.96	-0.0910355
5923.15	-0.0913732
5930.6	-0.0915804
5941.79	-0.0918625
5952.97	-0.0921093
5960.42	-0.0922539
5971.61	-0.0924415
5982.79	-0.0925946
5990.19	-0.0926776
6001.24	-0.0927749
6012.3	-0.0928415
6023.36	-0.0928776
6030.73	-0.0928849
6041.79	-0.0928704
6052.85	-0.0928249
6060.22	-0.0927769
6071.28	-0.0926781
6082.34	-0.0925464
6093.39	-0.0923814
6100.77	-0.0922528
6111.83	-0.0920323
6122.88	-0.0917794
6130.26	-0.0915933
6141.32	-0.0912891
6152.38	-0.0909564
6163.43	-0.0905973
6170.81	-0.0903442
6181.87	-0.0899458
6192.92	-0.0895266
6200.3	-0.0892365
6211.36	-0.0887866
6222.41	-0.0883203
6233.47	-0.0878387
6240.85	-0.0875096
6251.9	-0.0870045
6262.96	-0.086486
6270.34	-0.0861332
6281.39	-0.0855933
6292.45	-0.085041
6303.51	-0.0844765
6310.89	-0.0840936
6321.94	-0.0835096
6333	-0.0829144
6340.38	-0.0825116
6351.43	-0.0818986
6362.49	-0.0812756
6373.55	-0.0806429
6380.92	-0.080216
6391.98	-0.0795683
6403.04	-0.078912
6410.41	-0.0784698
6421.47	-0.0778
6432.53	-0.0771223
6443.59	-0.0764372
6450.96	-0.0759765
6462.02	-0.0752795
6473.08	-0.0745758
6480.45	-0.0741032
6491.51	-0.0733892
6502.57	-0.0726696
6513.63	-0.0719447
6521	-0.0714588
6532.06	-0.0707264
6543.12	-0.0699901
6550.49	-0.0694973
6561.55	-0.0687555
6572.61	-0.0680111
6583.67	-0.0672643
6591.04	-0.0667653
6602.1	-0.0660153
6613.16	-0.0652636
6620.53	-0.0647616
6631.59	-0.0640073
6642.65	-0.0632514
6650.02	-0.0627466
6661.08	-0.061988
6672.14	-0.0612277
6683.2	-0.0604655
6690.57	-0.0599563
6701.63	-0.0591906
6712.69	-0.0584228
6720.06	-0.0579095
6731.12	-0.0571376
6742.18	-0.0563632
6753.24	-0.0555862
6760.61	-0.0550668
6771.67	-0.0542854
6782.73	-0.0535015
6790.1	-0.0529774
6801.16	-0.0521892
6812.22	-0.0513985
6823.28	-0.0506054
6830.65	-0.0500754
6841.71	-0.0492785
6852.77	-0.0484793
6860.14	-0.0479454
6871.2	-0.0471428
6882.26	-0.046338
6893.32	-0.0455312
6900.69	-0.0449922
6911.75	-0.0441818
6922.81	-0.0433692
6930.18	-0.0428262
6941.24	-0.0420096
6952.3	-0.0411904
6963.36	-0.0403683
6970.73	-0.0398186
6981.79	-0.0389913
6992.85	-0.0381605
7000.22	-0.0376046
7011.28	-0.0367675
7022.34	-0.0359263
7033.39	-0.0350807
7040.77	-0.0345145
7051.83	-0.0336615
7062.89	-0.0328039
7070.26	-0.0322296
7081.32	-0.0313644
7092.38	-0.030495
7103.43	-0.0296215
7110.81	-0.0290371
7121.87	-0.0281579
7132.92	-0.027276
7140.3	-0.0266869
7151.36	-0.0258021
7162.42	-0.0249169
7173.47	-0.0240323
7180.84	-0.0234438
7191.9	-0.0225629
7202.96	-0.0216858
7210.33	-0.021104
7221.37	-0.0202381
7232.41	-0.0193809
7243.44	-0.0185333
7250.79	-0.0179744
7261.82	-0.0171465
7272.85	-0.0163325
7280.21	-0.0157985
7291.24	-0.0150116
7302.27	-0.0142431
7313.3	-0.0134947
7320.65	-0.0130076
7331.68	-0.012296
7342.71	-0.0116082
7350.07	-0.0111637
7361.1	-0.0105188
7372.13	-0.00990106
7383.16	-0.00931158
7390.51	-0.00893472
7401.54	-0.00839419
7412.58	-0.00788393
7423.61	-0.00740444
7430.96	-0.00710205
7441.99	-0.00667449
7453.02	-0.0062782
7460.38	-0.00603131
7471.41	-0.00568671
7482.44	-0.00537249
7493.47	-0.00508791
7500.82	-0.00491417
7511.85	-0.00467657
7522.88	-0.00446529
7530.24	-0.00433822
7541.27	-0.00416687
7552.3	-0.00401684
7563.33	-0.00388598
7570.68	-0.00380831
7581.71	-0.00370452
7592.74	-0.00361399
7600.1	-0.00355992
7611.13	-0.00348662
7622.16	-0.00342081
7633.19	-0.00336052
7640.54	-0.00332251
7651.57	-0.00326778
7662.6	-0.00321485
7673.64	-0.00316301
7680.99	-0.00312877
7692.02	-0.00307753
7703.05	-0.00302608
7710.4	-0.00299153
7721.43	-0.00293919
7732.47	-0.00288623
7743.5	-0.00283284
7750.85	-0.00279721
7761.88	-0.00274426
7772.91	-0.00269292
7780.27	-0.00266037
7791.3	-0.00261555
7802.33	-0.00257761
7813.36	-0.00254898
7820.71	-0.00253626
7831.74	-0.00252848
7842.77	-0.00253629
7850.13	-0.0025513
7861.16	-0.00259018
7872.19	-0.00265079
7883.22	-0.00273551
7890.57	-0.00280656
7901.6	-0.00293672
7912.63	-0.00309718
7923.66	-0.00328998
7931.02	-0.00343741
7942.05	-0.00368812
7953.08	-0.00397557
7960.43	-0.00418817
7971.46	-0.00453925
7982.49	-0.00492963
7993.53	-0.0053599
8000.88	-0.00566897
8011.91	-0.00616548
8022.94	-0.00669954
8030.29	-0.00707489
8041.33	-0.0076648
8052.36	-0.00828526
8063.39	-0.00893493
8070.74	-0.00938375
8081.77	-0.0100796
8092.8	-0.0108011
8100.16	-0.0112952
8111.19	-0.0120539
8122.22	-0.0128304
8133.25	-0.0136206
8140.6	-0.0141531
8151.63	-0.014957
8162.66	-0.0157636
8170.02	-0.0163006
8181.05	-0.0171019
8192.08	-0.0178944
8203.11	-0.0186744
8210.46	-0.0191857
8221.49	-0.0199375
8232.53	-0.0206689
8243.56	-0.0213779
8250.91	-0.0218373
8261.94	-0.0225054
8272.97	-0.0231471
8280.33	-0.0235596
8291.36	-0.0241545
8302.39	-0.0247196
8313.42	-0.0252537
8320.77	-0.0255919
8331.8	-0.0260715
8342.83	-0.0265165
8350.19	-0.0267936
8361.22	-0.0271787
8372.25	-0.0275265
8383.28	-0.027836
8390.63	-0.0280209
8401.66	-0.0282653
8412.69	-0.0284701
8420.05	-0.0285845
8431.08	-0.0287227
8442.11	-0.0288209
8453.14	-0.0288792
8460.49	-0.028896
8471.53	-0.0288883
8482.56	-0.0288417
8493.59	-0.0287564
8500.94	-0.0286783
8511.97	-0.0285299
8523	-0.0283443
8530.36	-0.0282002
8541.42	-0.0279531
8552.49	-0.0276703
8563.55	-0.0273524
8570.93	-0.0271212
8582	-0.0267462
8593.06	-0.0263378
8600.44	-0.0260474
8611.51	-0.025585
8622.57	-0.0250913
8633.64	-0.0245669
8641.01	-0.0242007
8652.08	-0.0236272
8663.15	-0.0230254
8670.52	-0.0226088
8681.59	-0.0219618
8692.66	-0.0212888
8700.03	-0.0208263
8711.1	-0.0201123
8722.16	-0.0193751
8733.23	-0.0186156
8740.61	-0.0180974
8751.67	-0.017303
8762.74	-0.0164889
8770.12	-0.0159357
8781.18	-0.0150911
8792.25	-0.0142295
8803.31	-0.0133519
8810.69	-0.0127584
8821.76	-0.0118563
8832.82	-0.0109406
8840.2	-0.0103232
8851.27	-0.00938731
8862.33	-0.00844046
8873.4	-0.00748363
8880.77	-0.00684065
8891.84	-0.00586886
8902.92	-0.00488958
8910.3	-0.00423302
8921.37	-0.00324334
8932.44	-0.00224796
8943.52	-0.0012486
8950.91	-0.000580663
8961.99	0.000423022
8973.07	0.00142786
8980.45	0.00209781
8991.53	0.00310191
9002.61	0.00410381
9013.69	0.00510202
9021.07	0.00576463
9032.15	0.00675283
9043.23	0.00773222
9050.62	0.00837909
9061.7	0.0093383
9072.79	0.0102816
9080.21	0.010901
9091.38	0.0118144
9102.6	0.0127022
9110.09	0.0132708
9121.32	0.014089
9132.55	0.0148703
9140.03	0.0153702
9151.26	0.0164393
9162.49	0.0173681
9173.72	0.0181086
9181.21	0.0182705
9192.44	0.0184241
9203.67	0.0188725
9211.15	0.0190114
9222.38	0.0194593
9233.61	0.0201933
9241.1	0.0212647
9252.33	0.0222666
9263.56	0.0231708
9271.05	0.0238201
9282.28	0.0248746
9293.51	0.0259111
9300.99	0.0265192
9312.22	0.0272762
9323.45	0.0278992
9330.94	0.0282758
9342.17	0.0288204
9353.4	0.0293658
9360.88	0.0297273
9372.11	0.0302455
9383.34	0.0307181
9390.83	0.0310071
9402.06	0.0314082
9413.29	0.0317756
9420.78	0.0319995
9432.01	0.0322925
9443.23	0.0325187
9450.72	0.0326288
9461.95	0.0327418
9473.18	0.0328163
9480.67	0.0328589
9491.9	0.032926
9503.13	0.0330017
9510.61	0.0330551
9521.84	0.0331326
9533.07	0.0331972
9540.56	0.0332271
9551.79	0.0332433
9563.02	0.0332179
9570.5	0.0331765
9581.75	0.0330813
9593.02	0.032956
9600.55	0.0328615
9611.87	0.0327101
9623.19	0.0325497
9630.72	0.0324372
9641.99	0.0322576
9653.24	0.0320618
9660.76	0.0319208
9672.02	0.0316921
9683.26	0.0314401
9690.75	0.0312566
9701.99	0.0309547
9713.23	0.0306175
9720.72	0.0303725
9731.96	0.0299754
9743.2	0.0295466
9750.69	0.0292462
9761.93	0.0287793
9773.17	0.0282991
9780.65	0.0279748
9791.87	0.0274859
9803.04	0.0269975
9810.49	0.0266712
9821.68	0.0261801
9832.86	0.0256856
9840.31	0.0253532
9851.5	0.0248503
9862.68	0.0243436
9870.14	0.0240048
9881.32	0.0234977
9892.5	0.0229938
9903.68	0.0224941
9911.14	0.0221629
9922.22	0.0216707
9933.27	0.021177
9940.65	0.0208439
9951.71	0.0203357
9962.76	0.0198156
9970.14	0.0194622
9981.2	0.0189234
9992.25	0.0183775
10003.3	0.0178286
10010.7	0.017463
10021.7	0.0169173
10032.8	0.0163756
10040.2	0.0160165
10051.2	0.0154792
10062.3	0.0149404
10073.4	0.0143963
10080.7	0.0140286
10091.8	0.0134674
10102.8	0.0128916
10110.2	0.0124979
10121.3	0.0118872
10132.3	0.0112305
10143.4	0.0104544
10150.8	0.0097202
10161.8	0.0092066
10172.9	0.00824151
10180.3	0.00732853
10191.3	0.0062239
10202.4	0.00558906
10213.4	0.00510204
10220.8	0.00510687
10231.9	0.00460439
10242.9	0.00405864
10250.3	0.00367588
10261.4	0.00307368
10272.4	0.00244278
10283.5	0.00176338
10290.8	0.0013308
10301.9	0.000704687
10313	9.65083e-05
10320.3	-0.000303658
10331.4	-0.000902872
10342.5	-0.00150904
10353.5	-0.00212722
10360.9	-0.00254612
10371.9	-0.00318396
10383	-0.00383141
10390.4	-0.00426709
10401.4	-0.00492477
10412.5	-0.00558568
10423.6	-0.00624828
10430.9	-0.0066904
10442	-0.00735354
10453	-0.00801612
10460.4	-0.00845733
10471.5	-0.00911821
10482.5	-0.00977781
10493.6	-0.010436
10501	-0.0108739
10512	-0.0115293
10523.1	-0.0121827
10530.5	-0.0126169
10541.5	-0.0132659
10552.6	-0.0139117
10563.6	-0.0145536
10571	-0.0149792
10582.1	-0.0156138
10593.1	-0.0162434
10600.5	-0.0166603
10611.6	-0.0172812
10622.6	-0.0178965
10633.7	-0.0185062
10641	-0.0189095
10652.1	-0.0195096
10663.2	-0.020104
10670.5	-0.020497
10681.6	-0.0210815
10692.6	-0.0216599
10700	-0.0220421
10711.1	-0.0226101
10722.1	-0.0231717
10733.2	-0.0237267
10740.6	-0.0240931
10751.6	-0.0246369
10762.7	-0.025174
10770.1	-0.0255282
10781.1	-0.0260538
10792.2	-0.0265726
10803.2	-0.0270845
10810.6	-0.027422
10821.7	-0.0279226
10832.7	-0.0284165
10840.1	-0.028742
10851.2	-0.0292249
10862.2	-0.0297012
10873.3	-0.0301711
10880.7	-0.0304808
10891.7	-0.0309401
10902.8	-0.0313933
10910.1	-0.0316921
10921.2	-0.0321353
10932.3	-0.0325726
10943.3	-0.0330043
10950.7	-0.0332891
10961.7	-0.0337117
10972.8	-0.0341292
10980.2	-0.0344047
10991.2	-0.0348139
11002.3	-0.0352184
11013.4	-0.0356183
11020.7	-0.0358824
11031.8	-0.0362751
11042.8	-0.0366636
11050.2	-0.0369204
11061.3	-0.0373024
11072.3	-0.0376805
11083.4	-0.0380549
11090.8	-0.0383025
11101.8	-0.0386709
11112.9	-0.0390358
11120.3	-0.0392771
11131.3	-0.0396362
11142.4	-0.0399918
11153.4	-0.040344
11160.8	-0.0405769
11171.9	-0.0409234
11182.9	-0.0412663
11190.3	-0.041493
11201.4	-0.04183
11212.4	-0.0421634
11223.5	-0.0424929
11230.8	-0.0427105
11241.9	-0.0430337
11253	-0.0433528
11260.3	-0.0435633
11271.4	-0.0438749
11282.4	-0.0441819
11293.4	-0.0444842
11300.8	-0.0446831
11311.8	-0.0449773
11322.9	-0.0452665
11330.2	-0.0454563
11341.2	-0.0457364
11352.3	-0.0460108
11363.3	-0.0462793
11370.7	-0.0464548
11381.7	-0.0467128
11392.7	-0.0469641
11400.1	-0.0471278
11411.1	-0.0473675
11422.1	-0.0475997
11433.2	-0.0478243
11440.5	-0.0479697
11451.5	-0.0481809
11462.6	-0.0483837
11473.6	-0.0485778
11481	-0.0487023
11492	-0.0488812
11503	-0.0490508
11510.4	-0.0491585
11521.4	-0.0493117
11532.4	-0.0494548
11543.5	-0.0495874
11550.8	-0.0496699
11561.9	-0.0497846
11572.9	-0.0498883
11580.2	-0.0499511
11591.3	-0.0500357
11602.3	-0.0501086
11613.3	-0.0501697
11620.7	-0.0502037
11631.7	-0.0502444
11642.7	-0.0502727
11650.1	-0.0502846
11661.1	-0.0502918
11672.2	-0.0502861
11683.2	-0.0502673
11690.5	-0.0502475
11701.6	-0.0502067
11712.6	-0.0501525
11723.6	-0.0500849
11731	-0.0500322
11742	-0.0499418
11753.1	-0.0498376
11760.4	-0.0497605
11771.4	-0.0496332
11782.5	-0.0494921
11793.5	-0.049337
11800.9	-0.0492259
11811.9	-0.0490475
11822.9	-0.0488552
11830.3	-0.0487192
11841.3	-0.0485035
11852.3	-0.0482739
11863.4	-0.0480304
11870.7	-0.0478603
11881.7	-0.0475937
11892.8	-0.0473133
11900.1	-0.0471187
11911.2	-0.0468155
11922.2	-0.0464986
11933.2	-0.0461683
11940.6	-0.0459406
11951.6	-0.0455879
11962.6	-0.0452219
11973.7	-0.0448428
11981	-0.0445827
11992.1	-0.0441818
12003.1	-0.043768
12010.4	-0.0434851
12021.5	-0.04305
12032.5	-0.0426022
12043.5	-0.042142
12050.9	-0.0418282
12061.9	-0.0413473
12072.9	-0.0408541
12080.3	-0.0405185
12091.3	-0.040005
12102.4	-0.0394796
12113.4	-0.0389421
12120.7	-0.0385773
12131.8	-0.0380201
12142.8	-0.0374513
12150.2	-0.0370655
12161.2	-0.0364773
12172.2	-0.0358776
12183.3	-0.0352664
12190.6	-0.0348526
12201.6	-0.0342225
12212.7	-0.0335811
12220	-0.0331473
12231.1	-0.0324873
12242.1	-0.0318161
12253.1	-0.031134
12260.5	-0.0306732
12271.5	-0.0299728
12282.5	-0.0292616
12293.6	-0.0285396
12300.9	-0.0280523
12311.9	-0.0273124
12323	-0.026562
12330.3	-0.0260558
12341.4	-0.0252879
12352.4	-0.0245096
12363.4	-0.0237209
12370.8	-0.0231895
12381.8	-0.0223839
12392.8	-0.0215682
12400.2	-0.0210189
12411.2	-0.0201867
12422.3	-0.0193448
12433.3	-0.0184932
12440.6	-0.0179202
12451.7	-0.017053
12462.7	-0.0161765
12470.1	-0.0155872
12481.1	-0.0146958
12492.1	-0.0137957
12503.1	-0.0128872
12510.5	-0.0122769
12521.5	-0.0113548
12532.6	-0.0104249
12543.6	-0.00948749
12550.9	-0.00885857
12562	-0.00790943
12573	-0.00695167
12580.4	-0.00630899
12591.5	-0.00534003
12602.5	-0.0043655
12613.6	-0.00338586
12621	-0.00273015
12632	-0.00174302
12643.1	-0.000750927
12650.5	-8.76654e-05
12661.6	0.000909623
12672.7	0.00190928
12680.1	0.00257675
12691.1	0.00357904
12702.2	0.00458268
12713.3	0.00558851
12720.8	0.00626114
12731.9	0.00727311
12743.2	0.00828528
12750.6	0.00895968
12761.9	0.00996848
12773.1	0.010973
12780.6	0.0116396
12791.8	0.0126336
12803.1	0.013618
12810.5	0.0142674
12821.8	0.0152251
12833	0.0161475
12840.5	0.0167376
12851.7	0.0175895
12862.9	0.0185445
12870.4	0.0191583
12881.7	0.0198919
12892.9	0.0209123
12900.4	0.0215322
12911.6	0.0224022
12922.8	0.0233142
12930.3	0.0239395
12941.6	0.0248453
12952.8	0.0256987
12960.3	0.0262706
12971.5	0.0271914
12982.7	0.0281935
12990.2	0.0288676
13001.4	0.0298167
13012.7	0.0306657
13020.2	0.0311922
13031.4	0.0319599
13042.6	0.0327306
13050.1	0.0332554
13061.3	0.0340677
13072.6	0.0349139
13080.1	0.0354954
13091.3	0.03639
13102.5	0.0373106
13113.7	0.0382576
13121.2	0.0389013
13132.5	0.0398768
13143.7	0.0408538
13151.2	0.0415022
13162.4	0.0424679
13173.6	0.043424
13181.1	0.0440554
13192.3	0.0449943
13203.6	0.0459261
13211.1	0.0465455
13222.3	0.0474736
13233.5	0.0483975
13241	0.049007
13252.2	0.049903
13263.5	0.0507665
13271	0.0513194
13282.2	0.0521112
13293.4	0.0528583
13300.9	0.0533334
13312.1	0.0540164
13323.4	0.0546696
13330.8	0.0550914
13342.1	0.0557062
13353.3	0.0563011
13360.8	0.0566862
13372	0.0572451
13383.3	0.0577783
13390.7	0.0581177
13402	0.0586005
13413.2	0.0590504
13420.7	0.059332
13431.9	0.0597281
13443.1	0.0600955
13450.6	0.0603265
13461.9	0.0606552
13473.1	0.0609657
13480.6	0.0611639
13491.8	0.0614483
13503	0.0617166
13510.5	0.0618855
13521.8	0.0621222
13533	0.0623371
13540.5	0.0624677
13551.7	0.0626446
13562.9	0.0627996
13570.4	0.0628918
13581.6	0.0630149
13592.9	0.0631216
13600.4	0.0631843
13611.6	0.0632659
13622.8	0.0633323
13630.3	0.0633674
13641.5	0.0634052
13652.8	0.0634234
13660.3	0.0634241
13671.5	0.063407
13682.7	0.0633681
13690.2	0.0633302
13701.4	0.063256
13712.7	0.0631619
13720.1	0.0630887
13731.4	0.0629637
13742.6	0.0628208
13750.1	0.0627155
13761.3	0.0625419
13772.5	0.0623484
13780	0.0622076
13791.3	0.0619775
13802.5	0.0617233
13813.7	0.061444
13821.2	0.0612437
13832.4	0.0609218
13843.7	0.060575
13851.2	0.0603304
13862.4	0.0599445
13873.6	0.0595367
13881.1	0.0592533
13892.3	0.0588115
13903.6	0.0583496
13911	0.0580304
13922.3	0.057534
13933.5	0.0570152
13941	0.0566563
13952.2	0.056097
13963.5	0.0555118
13970.9	0.0551068
13982.2	0.0544768
13993.4	0.0538204
14000.9	0.0533685
14012.1	0.0526702
14023.3	0.051949
14030.8	0.0514563
14042.1	0.0507011
14053.3	0.0499283
14060.8	0.0494041
14072	0.0486059
14083.2	0.0477948
14090.7	0.0472476
14102	0.0464182
14113.2	0.0455793
14120.7	0.0450153
14131.9	0.0441626
14143.1	0.043302
14150.6	0.0427237
14161.8	0.0418493
14173.1	0.0409656
14180.6	0.0403707
14191.8	0.0394687
14203	0.038554
14210.5	0.0379366
14221.7	0.0369981
14233	0.0360442
14240.5	0.0353996
14251.7	0.0344197
14262.9	0.0334243
14270.4	0.0327521
14281.7	0.0317315
14293	0.0306968
14300.5	0.0299979
14311.9	0.0289421
14323.2	0.0278784
14330.9	0.0271557
14342.5	0.0260569
14350.2	0.0253211
14361.9	0.0242071
14373.6	0.0230761
14381.5	0.0223183
14393.3	0.0211756
14401.1	0.0204092
14412.9	0.0192522
14420.7	0.0184754
14432.5	0.0173014
14440.3	0.0165125
14452.1	0.0153192
14463.9	0.0141134
14471.7	0.0133021
14483.5	0.0120736
14491.3	0.0112466
14503.1	0.00999303
14511	0.00905259
14522.8	0.00763526
14530.7	0.00685337
14542.5	0.00556279
14550.4	0.0046592
14562.3	0.00327708
14570.2	0.00234746
14582.1	0.000945318
14590	4.75184e-06
14601.9	-0.0014175
14613.8	-0.00285602
14621.7	-0.00382466
14633.6	-0.00529151
14641.5	-0.00627772
14653.4	-0.00776715
14661.3	-0.00876512
14673.1	-0.0102663
14681.1	-0.0112679
14692.9	-0.0127678
14700.9	-0.013764
14712.7	-0.0152487
14720.6	-0.0162302
14732.5	-0.0176864
14740.4	-0.0186447
14752.3	-0.0200606
14760.2	-0.0209885
14772.1	-0.0223543
14780	-0.0232463
14791.9	-0.024555
14803.8	-0.0258273
14811.7	-0.0266547
14823.6	-0.0278641
14831.5	-0.028649
14843.4	-0.0297943
14851.3	-0.0305365
14863.1	-0.031618
14871.1	-0.032318
14882.9	-0.0333368
14890.8	-0.0339954
14902.7	-0.0349529
14910.6	-0.0355712
14922.5	-0.0364689
14930.4	-0.0370477
14942.3	-0.037887
14950.2	-0.0384279
14962.1	-0.0392098
14970	-0.0397119
14981.9	-0.0404373
14993.7	-0.0411298
15001.6	-0.0415734
15013.5	-0.0422121
15021.4	-0.0426203
15033.3	-0.0432064
15041.2	-0.0435799
15053	-0.0441149
15060.9	-0.0444548
15072.8	-0.0449401
15080.7	-0.0452474
15092.6	-0.0456846
15100.5	-0.0459603
15112.3	-0.046351
15120.2	-0.0465963
15132.1	-0.046942
15143.9	-0.0472614
15151.9	-0.04746
15163.7	-0.0477366
15171.6	-0.0479072
15183.5	-0.0481423
15191.4	-0.0482855
15203.2	-0.0484801
15211.1	-0.0485966
15223	-0.0487517
15230.9	-0.0488421
15242.8	-0.0489582
15250.6	-0.0490221
15262.3	-0.0490992
15270.1	-0.0491382
15281.8	-0.0491784
15293.5	-0.0491966
15301.3	-0.0491966
15313	-0.0491787
15320.8	-0.0491549
15332.5	-0.0491014
15340.3	-0.0490541
15352	-0.0489658
15363.7	-0.0488568
15371.5	-0.0487729
15383.2	-0.0486304
15390.9	-0.0485243
15402.6	-0.0483491
15410.4	-0.0482217
15422.1	-0.0480151
15433.8	-0.0477902
15441.6	-0.0476304
15453.3	-0.0473764
15461.1	-0.0471977
15472.8	-0.0469162
15480.5	-0.0467198
15492.2	-0.0464127
15500	-0.0461998
15511.7	-0.045869
15523.4	-0.0455251
15531.2	-0.0452889
15542.9	-0.0449247
15550.7	-0.0446758
15562.4	-0.0442937
15570.2	-0.0440336
15581.8	-0.043636
15593.5	-0.0432301
15601.3	-0.0429553
15613	-0.0425376
15620.8	-0.0422557
15632.5	-0.0418284
15640.3	-0.041541
15652	-0.0411065
15663.7	-0.0406688
15671.4	-0.0403756
15683.1	-0.0399342
15690.9	-0.0396393
15702.6	-0.0391964
15710.4	-0.0389011
15722.1	-0.0384586
15733.8	-0.0380174
15741.6	-0.0377243
15753.3	-0.0372866
15761.1	-0.0369964
15772.7	-0.036564
15780.5	-0.0362779
15792.2	-0.0358525
15800	-0.0355715
15811.7	-0.0351546
15823.4	-0.0347434
15831.2	-0.0344727
15842.9	-0.0340722
15850.7	-0.0338091
15862.3	-0.0334206
15870.1	-0.0331658
15881.8	-0.0327904
15893.5	-0.0324234
15901.3	-0.0321835
15913	-0.0318303
15920.8	-0.0315999
15932.5	-0.0312623
15940.3	-0.0310443
15951.9	-0.0307244
15963.6	-0.0304145
15971.4	-0.0302135
15982.9	-0.0299225
15990.7	-0.0297341
16002.2	-0.0294602
16013.8	-0.0291963
16021.5	-0.029026
16033.1	-0.0287792
16040.8	-0.0286206
16052.3	-0.028391
16060	-0.0282435
16071.6	-0.0280304
16083.1	-0.0278271
16090.8	-0.0276968
16102.3	-0.027509
16110	-0.0273891
16121.6	-0.0272165
16133.1	-0.0270525
16140.8	-0.0269482
16152.3	-0.0267983
16163.8	-0.0266561
16171.4	-0.0265654
16182.9	-0.026435
16190.6	-0.0263518
16202.1	-0.0262321
16213.6	-0.0261183
16221.2	-0.0260454
16232.7	-0.0259403
16240.4	-0.0258728
16251.9	-0.0257751
16263.4	-0.0256811
16271	-0.0256203
16282.5	-0.0255314
16290.2	-0.0254736
16301.7	-0.0253885
16313.2	-0.025305
16320.8	-0.0252499
16332.3	-0.025168
16343.8	-0.0250862
16351.5	-0.0250317
16363	-0.0249493
16370.6	-0.0248939
16382.1	-0.0248096
16393.6	-0.0247235
16401.3	-0.024665
16412.8	-0.0245751
16420.4	-0.0245136
16431.9	-0.024419
16443.3	-0.0243213
16450.9	-0.0242542
16462.3	-0.0241501
16473.7	-0.0240419
16481.3	-0.0239672
16492.7	-0.0238513
16500.3	-0.0237715
16511.7	-0.0236473
16523	-0.0235179
16530.6	-0.0234286
16542	-0.0232899
16553.3	-0.0231454
16560.9	-0.0230458
16572.2	-0.0228913
16583.6	-0.0227308
16591.2	-0.0226203
16602.5	-0.0224494
16610.1	-0.022332
16621.5	-0.0221506
16632.8	-0.0219629
16640.4	-0.0218347
16651.7	-0.0216372
16663	-0.0214334
16670.6	-0.0212941
16681.9	-0.02108
16693.2	-0.02086
16700.8	-0.02071
16712.1	-0.0204801
16723.5	-0.0202444
16731	-0.0200841
16742.3	-0.0198392
16753.7	-0.0195888
16761.2	-0.0194189
16772.5	-0.0191599
16780.1	-0.0189844
16791.4	-0.0187171
16802.8	-0.0184451
16810.3	-0.0182613
16821.6	-0.0179819
16833	-0.0176983
16840.5	-0.017507
16851.9	-0.0172168
16863.2	-0.016923
16870.7	-0.0167251
16882.1	-0.0164255
16893.4	-0.0161228
16900.9	-0.0159194
16912.3	-0.0156118
16923.6	-0.0153016
16931.2	-0.0150935
16942.5	-0.0147793
16950	-0.0145687
16961.4	-0.0142512
16972.7	-0.0139318
16980.3	-0.013718
16991.6	-0.013396
17002.9	-0.0130727
17010.5	-0.0128565
17021.8	-0.0125314
17033.1	-0.0122054
17040.7	-0.0119876
17052	-0.0116605
17063.3	-0.0113329
17070.9	-0.0111143
17082.2	-0.0107862
17093.5	-0.0104581
17101.1	-0.0102393
17112.4	-0.00991148
17123.7	-0.00958397
17131.3	-0.00936582
17142.6	-0.00903898
17150.2	-0.00882138
17161.5	-0.00849551
17172.8	-0.00817036
17180.3	-0.00795405
17191.7	-0.0076303
17203	-0.00730752
17210.5	-0.00709291
17221.9	-0.00677192
17233.2	-0.00645209
17240.7	-0.00623956
17252	-0.00592183
17263.3	-0.00560589
17270.9	-0.00539575
17282.2	-0.00508173
17293.5	-0.0047694
17301	-0.00456305
17312.3	-0.00425483
17323.6	-0.0039481
17331.1	-0.00374439
17342.3	-0.00344038
17353.6	-0.00313825
17361.1	-0.00293805
17372.3	-0.00263918
17383.6	-0.00234205
17391	-0.00214494
17402.3	-0.00185076
17413.5	-0.00155836
17421	-0.00136443
17432.3	-0.00107505
17443.5	-0.000787493
17451	-0.000596805
17462.2	-0.000312308
17473.5	-2.96573e-05
17481	0.000157747
17492.2	0.000437156
17503.4	0.000714851
17510.9	0.000897859
17522	0.00117083
17533.2	0.00144194
17540.7	0.00162182
17551.9	0.00189007
17563	0.00215644
17570.5	0.00233298
17581.7	0.0025962
17592.9	0.00285752
17600.3	0.00303067
17611.5	0.00328878
17622.7	0.00354495
17630.1	0.00371463
17641.3	0.00396751
17652.5	0.00421839
17663.7	0.00446722
17671.1	0.00463197
17682.3	0.00487733
17693.5	0.00512056
17701	0.0052815
17712.1	0.00552106
17723.3	0.00575835
17730.8	0.00591524
17742	0.00614859
17753.1	0.00637948
17760.6	0.00653201
17771.8	0.00675862
17783	0.00698256
17790.4	0.00713031
17801.6	0.00734862
17812.6	0.00756212
17823.6	0.00777267
17831	0.00791133
17842	0.0081167
17853.1	0.00831882
17860.4	0.00845172
17871.5	0.00864822
17882.5	0.00884121
17893.5	0.00903061
17900.9	0.00915483
17911.9	0.00933805
17923	0.00951747
17930.3	0.00963517
17941.4	0.00980846
17952.5	0.00997778
17963.5	0.0101431
17970.9	0.0102511
17981.9	0.0104097
17993	0.0105643
18000.4	0.0106651
18011.4	0.0108129
18022.5	0.0109567
18033.6	0.0110965
18040.9	0.0111874
18052	0.0113205
18063	0.0114497
18070.4	0.0115336
18081.5	0.0116561
18092.5	0.0117748
18103.6	0.0118895
18111	0.0119637
18122	0.0120718
18133.1	0.0121759
18140.5	0.0122431
18151.5	0.0123404
18162.6	0.0124337
18173.6	0.0125227
18181	0.0125797
18192.1	0.0126616
18203.1	0.0127392
18210.5	0.0127884
18221.6	0.0128587
18232.6	0.0129245
18243.7	0.0129859
18251	0.0130246
18262.1	0.0130791
18273.2	0.0131297
18280.5	0.0131614
18291.6	0.0132061
18302.7	0.0132478
18310	0.013274
18321.1	0.0133113
18332.1	0.0133466
18343.2	0.0133803
18350.6	0.0134021
18361.6	0.0134339
18372.7	0.013465
18380.1	0.0134854
18391.1	0.0135158
18402.2	0.0135457
18413.2	0.0135753
18420.6	0.0135947
18431.7	0.0136231
18442.7	0.0136505
18450.1	0.0136681
18461.2	0.013693
18472.2	0.0137158
18483.3	0.0137361
18490.7	0.0137481
18501.7	0.0137634
18512.8	0.0137752
18520.1	0.0137809
18531.2	0.0137862
18542.3	0.0137874
18553.3	0.0137842
18560.7	0.0137797
18571.8	0.0137693
18582.8	0.0137545
18590.2	0.0137422
18601.2	0.0137203
18612.3	0.0136943
18623.4	0.0136643
18630.7	0.0136422
18641.8	0.0136061
18652.8	0.0135665
18660.2	0.0135382
18671.3	0.0134933
18682.3	0.0134454
18693.4	0.0133949
18700.8	0.0133597
18711.8	0.0133051
18722.9	0.0132484
18730.3	0.0132094
18741.3	0.0131495
18752.4	0.013088
18763.4	0.013025
18770.8	0.0129823
18781.9	0.0129174
18792.9	0.0128515
18800.3	0.0128071
18811.4	0.01274
18822.4	0.0126723
18833.5	0.0126043
18840.9	0.0125588
18851.9	0.0124905
18863	0.0124222
18870.3	0.0123767
18881.4	0.0123086
18892.5	0.0122408
18903.5	0.0121734
18910.9	0.0121287
18921.9	0.0120622
18933	0.0119962
18940.4	0.0119526
18951.4	0.0118879
18962.5	0.0118239
18973.6	0.0117608
18980.9	0.0117192
18992	0.0116575
19003	0.0115968
19010.4	0.0115569
19021.5	0.0114978
19032.5	0.0114396
19043.6	0.0113825
19051	0.0113449
19062	0.0112894
19073.1	0.0112348
19080.5	0.0111989
19091.5	0.0111459
19102.6	0.0110937
19113.6	0.0110424
19121	0.0110086
19132	0.0109586
19143.1	0.0109094
19150.4	0.0108769
19161.5	0.0108286
19172.5	0.0107807
19183.5	0.0107331
19190.9	0.0107013
19201.9	0.0106535
19212.9	0.0106053
19220.3	0.0105728
19231.3	0.0105234
19242.4	0.0104729
19253.4	0.0104212
19260.7	0.0103859
19271.8	0.0103318
19282.8	0.0102762
19290.2	0.0102383
19301.2	0.0101801
19312.2	0.0101204
19323.2	0.0100592
19330.6	0.0100176
19341.6	0.009954
19352.7	0.00988908
19360	0.00984507
19371	0.00977798
19382.1	0.00970961
19393.1	0.00963995
19400.5	0.00959279
19411.5	0.00952094
19422.5	0.0094477
19433.6	0.00937299
19440.9	0.00932233
19451.9	0.00924498
19463	0.00916591
19470.3	0.00911217
19481.4	0.00902994
19492.4	0.00894566
19503.4	0.00885918
19510.8	0.00880025
19521.8	0.00870984
19532.8	0.00861691
19540.2	0.00855349
19551.2	0.0084561
19562.2	0.00835588
19573.3	0.00825275
19580.6	0.00818234
19591.7	0.00807418
19602.7	0.00796291
19610	0.00788698
19621.1	0.00777044
19632.1	0.00765068
19643.1	0.00752769
19650.5	0.0074439
19661.5	0.00731553
19672.6	0.00718394
19683.6	0.00704915
19690.9	0.00695753
19702	0.0068175
19713	0.00667436
19720.4	0.00657724
19731.4	0.00642905
19742.4	0.00627789
19753.4	0.00612382
19760.8	0.00601952
19771.8	0.00586072
19782.9	0.00569916
19790.2	0.00558993
19801.2	0.00542386
19812.3	0.00525515
19823.3	0.00508384
19830.7	0.00496821
19841.7	0.00479264
19852.7	0.00461456
19860.1	0.00449446
19871.1	0.00431225
19882.1	0.00412757
19893.2	0.00394045
19900.5	0.00381434
19911.6	0.00362314
19922.6	0.0034295
19933.6	0.00323341
19941	0.00310131
19952	0.00290111
19963	0.00269842
19970.4	0.00256191
19981.4	0.00235502
19992.4	0.00214559
