0	0
12.201	0
20.335	0
32.5359	0
40.6698	0
52.8706	0
61.0045	0
73.2051	0
81.3387	0
93.5391	0
101.673	0
113.873	0
122.006	0
130.14	0
142.34	0
150.474	0
162.674	0
170.808	0
183.008	0
191.142	0
203.308	0
211.356	0
223.316	0
231.287	0
243.244	0
251.215	0
263.172	0
271.144	0
283.101	0
291.072	0
303.028	0
310.999	0
322.956	0
330.927	0
342.884	0
350.855	0
362.811	0
370.782	0
382.739	0
390.71	0
402.666	0
410.637	0
422.594	0
430.531	0
442.427	0
450.276	0
462.038	0
473.849	0
481.694	0
493.242	0
500.934	0
512.472	0
520.165	0
531.704	0
543.243	0
550.893	0
562.311	0
573.729	0
581.331	0
592.731	0
600.33	0
611.702	0
623.068	0
630.645	0
642.004	0
653.363	0
660.936	0
672.295	0
683.654	0
691.227	0
702.585	0
710.158	0
721.517	0
732.876	0
740.449	0
751.807	0
763.163	0
770.722	0
782.048	0
793.378	0
800.931	0
812.26	0
823.589	0
831.142	0
842.471	0
850.024	0
861.353	0
872.683	0
880.236	0
891.565	0
902.894	0
910.447	0
921.776	0
933.105	0
940.658	0
951.987	0
963.316	0
970.869	0
982.198	0
993.528	0
1001.08	0
1012.41	0
1023.74	0
1031.29	0
1042.62	0
1050.17	0
1061.5	0
1072.83	0
1080.38	0
1091.71	0
1103.04	0
1110.6	0
1121.93	0
1133.25	0
1140.81	0
1152.14	0
1163.47	0
1171.02	0
1182.35	0
1193.68	0
1201.23	0
1212.56	0
1220.11	0
1231.43	0
1242.75	0
1250.29	0
1261.62	0
1272.94	0
1280.48	0
1291.8	0
1303.12	0
1310.67	0
1321.99	0
1333.31	0
1340.85	0
1352.17	0
1363.49	0
1371.03	0
1382.31	0
1393.56	0
1401.07	0
1412.34	0
1423.6	0
1431.09	0
1442.33	0
1453.57	0
1461.06	0
1472.3	0
1483.54	0
1491.03	0
1502.27	0
1513.51	0
1521	0
1532.23	0
1543.45	0
1550.9	0
1562.08	0
1573.26	0
1580.72	0
1591.9	0
1603.08	0
1610.54	0
1621.72	0
1632.9	0
1640.36	0
1651.49	0
1662.53	0
1673.59	0
1680.96	0
1692.02	0
1703.08	0
1710.45	0
1721.51	0
1732.57	0
1743.63	0
1751	0
1762.06	0
1773.12	0
1780.49	0
1791.55	0
1802.61	0
1813.66	0
1821.04	0
1832.1	0
1843.15	0
1850.53	0
1861.59	0
1872.65	0
1880.02	0
1891.08	0
1902.14	0
1913.19	0
1920.57	0
1931.63	0
1942.68	0
1950.06	0
1961.12	0
1972.17	0
1983.23	1.81899e-12
1990.61	2.72848e-12
2001.66	3.63798e-12
2012.72	6.36646e-12
2020.1	8.18545e-12
2031.15	1.09139e-11
2042.21	1.36424e-11
2053.27	1.63709e-11
2060.64	2.00089e-11
2071.7	2.54659e-11
2082.76	3.27418e-11
2090.13	3.91083e-11
2101.19	5.09317e-11
2112.25	6.63931e-11
2123.31	8.73115e-11
2130.68	1.04592e-10
2141.74	1.37334e-10
2152.8	1.8008e-10
2160.17	2.1555e-10
2171.23	2.82853e-10
2182.29	3.68345e-10
2193.35	4.78394e-10
2200.72	5.69344e-10
2211.78	7.35781e-10
2222.84	9.47693e-10
2230.21	1.11959e-09
2241.27	1.43518e-09
2252.33	1.83263e-09
2263.39	2.33285e-09
2270.76	2.73576e-09
2281.82	3.46427e-09
2292.88	4.37285e-09
2300.25	5.09863e-09
2311.31	6.40193e-09
2322.36	8.01447e-09
2333.42	1.00008e-08
2340.8	1.15715e-08
2351.85	1.43673e-08
2362.91	1.77852e-08
2370.29	2.047e-08
2381.34	2.52139e-08
2392.4	3.09665e-08
2403.46	3.79232e-08
2410.83	4.33402e-08
2421.89	5.28253e-08
2432.95	6.42067e-08
2440.32	7.30142e-08
2451.38	8.83383e-08
2462.44	1.06589e-07
2473.5	1.28267e-07
2480.87	1.44902e-07
2491.93	1.73604e-07
2502.99	2.07452e-07
2510.36	2.33275e-07
2521.42	2.77569e-07
2532.48	3.29441e-07
2543.53	3.90032e-07
2550.91	4.359e-07
2561.96	5.13962e-07
2573.02	6.04539e-07
2580.4	6.72733e-07
2591.45	7.88156e-07
2602.51	9.21219e-07
2613.57	1.07425e-06
2620.94	1.18863e-06
2632	1.38082e-06
2643.06	1.60049e-06
2650.43	1.76383e-06
2661.49	2.0369e-06
2672.55	2.34712e-06
2683.61	2.69877e-06
2690.98	2.9585e-06
2700.03	3.30847e-06
2711.09	3.78423e-06
2722.15	4.31946e-06
2733.21	4.92035e-06
2740.58	5.36068e-06
2751.64	6.08571e-06
2762.69	6.89551e-06
2770.07	7.48626e-06
2781.1	8.4527e-06
2792.13	9.52551e-06
2803.16	1.07143e-05
2810.52	1.15763e-05
2821.55	1.2981e-05
2832.58	1.45298e-05
2843.61	1.62343e-05
2850.96	1.74632e-05
2861.99	1.94546e-05
2873.02	2.16356e-05
2880.38	2.32018e-05
2891.41	2.573e-05
2902.44	2.84861e-05
2913.47	3.14856e-05
2920.82	3.36285e-05
2931.85	3.70697e-05
2942.88	4.07985e-05
2950.24	4.34527e-05
2961.27	4.77001e-05
2972.3	5.22831e-05
2983.33	5.72207e-05
2990.68	6.07191e-05
3001.72	6.62915e-05
3012.75	7.22717e-05
3020.1	7.64952e-05
3031.13	8.32014e-05
3042.16	9.03716e-05
3053.19	9.8028e-05
3060.55	0.000103413
3071.58	0.000111929
3082.61	0.000120992
3093.64	0.000130625
3100.99	0.000137375
3112.02	0.00014801
3123.05	0.00015928
3130.41	0.000167158
3141.44	0.00017954
3152.47	0.000192624
3163.5	0.000206437
3170.85	0.000216062
3181.88	0.000231147
3192.91	0.000247033
3200.27	0.000258082
3211.3	0.000275367
3222.33	0.00029353
3233.36	0.000312602
3240.71	0.000325838
3251.74	0.000346498
3262.77	0.000368156
3270.13	0.000383166
3281.16	0.000406565
3292.19	0.00043106
3303.22	0.00045669
3310.57	0.000474427
3321.6	0.000502043
3332.63	0.00053091
3343.66	0.000561077
3351.02	0.000581935
3362.05	0.000614381
3373.08	0.000648269
3380.43	0.00067169
3391.46	0.000708113
3402.49	0.000746141
3413.52	0.000785845
3420.88	0.000813281
3431.91	0.000855941
3442.94	0.000900482
3450.29	0.000931262
3461.32	0.000979129
3472.35	0.00102912
3483.38	0.00108132
3490.74	0.00111741
3501.77	0.00117356
3512.8	0.00123222
3520.15	0.00127278
3531.18	0.00133591
3542.21	0.0014019
3553.24	0.0014709
3560.6	0.00151863
3571.63	0.00159297
3582.66	0.00167072
3590.01	0.00172454
3601.04	0.00180838
3612.07	0.00189612
3623.1	0.00198795
3630.46	0.00205155
3641.49	0.00215068
3652.52	0.00225447
3663.55	0.00236316
3670.9	0.00243847
3681.93	0.00255588
3692.96	0.00267887
3700.31	0.0027641
3711.34	0.00289701
3722.37	0.00303625
3733.4	0.00318214
3740.76	0.00328325
3751.79	0.00344093
3762.82	0.00360612
3770.17	0.0037206
3781.2	0.00389911
3792.23	0.00408609
3803.26	0.00428193
3810.62	0.00441761
3821.65	0.00462911
3832.68	0.00485056
3840.03	0.00500394
3851.06	0.00524297
3862.09	0.00549316
3873.12	0.00575501
3880.48	0.00593632
3891.51	0.0062188
3902.54	0.00651438
3913.57	0.00682361
3920.92	0.00703762
3931.95	0.00737091
3942.98	0.00771959
3950.34	0.00796092
3961.37	0.00833635
3972.4	0.00872779
3983.43	0.00913569
3990.78	0.00941766
4001.81	0.00985768
4012.84	0.0103224
4020.2	0.0106438
4031.23	0.0111245
4042.26	0.0116083
4053.29	0.0121317
4060.64	0.0125017
4071.67	0.0130903
4082.7	0.0137509
4090.06	0.0142935
4101.09	0.0152286
4112.12	0.0172548
4123.15	0.0196494
4130.5	0.02082
4141.53	0.0255379
4152.56	0.0321806
4163.59	0.0388007
4170.95	0.0433328
4181.98	0.051201
4193.01	0.0600569
4200.39	0.0664492
4211.45	0.0768693
4222.52	0.0885522
4233.58	0.101498
4240.96	0.110737
4252.03	0.125502
4263.09	0.141555
4270.47	0.153063
4281.54	0.171538
4292.6	0.191436
4303.67	0.212772
4311.05	0.227797
4322.13	0.251483
4333.21	0.276429
4340.59	0.293733
4351.67	0.320682
4362.75	0.348751
4370.13	0.368016
4381.21	0.39762
4392.29	0.427934
4403.37	0.458768
4410.75	0.479492
4421.83	0.510636
4432.91	0.541632
4440.3	0.5621
4451.37	0.59232
4462.46	0.621742
4473.55	0.650042
4480.94	0.668139
4492.09	0.694045
4503.25	0.718048
4510.69	0.732849
4521.85	0.753046
4533.02	0.770628
4540.48	0.780804
4551.71	0.793601
4562.94	0.803182
4570.42	0.80769
4581.65	0.811512
4592.88	0.811683
4600.37	0.809715
4611.6	0.803589
4622.83	0.793618
4630.31	0.784827
4641.54	0.768432
4652.77	0.748216
4660.26	0.732648
4671.49	0.706236
4682.72	0.676273
4690.2	0.654413
4701.43	0.618951
4712.66	0.580501
4720.15	0.553338
4731.38	0.510503
4742.61	0.465414
4750.09	0.434243
4761.32	0.386022
4772.55	0.336268
4780.04	0.302361
4791.27	0.250524
4802.5	0.197606
4813.73	0.143579
4821.21	0.106895
4832.44	0.0507665
4843.67	-0.00351826
4851.16	-0.0422816
4862.39	-0.0629501
4873.62	-0.0823435
4881.1	-0.0941483
4892.33	-0.10713
4903.56	-0.110277
4911.05	-0.118331
4922.28	-0.12691
4933.51	-0.134546
4941	-0.139706
4952.22	-0.147572
4963.45	-0.154967
4970.94	-0.159991
4982.17	-0.167498
4993.4	-0.174842
5000.89	-0.179626
5012.12	-0.186818
5023.35	-0.194135
5030.83	-0.198929
5042.06	-0.205815
5053.29	-0.21222
5060.78	-0.21621
5072.01	-0.221797
5083.26	-0.226969
5090.77	-0.230219
5102.08	-0.234854
5113.41	-0.239234
5120.96	-0.242026
5132.29	-0.24605
5143.62	-0.249901
5151.17	-0.252377
5162.5	-0.255947
5170.05	-0.258222
5181.38	-0.261448
5192.71	-0.264412
5200.26	-0.266223
5211.59	-0.268667
5222.92	-0.270762
5230.47	-0.271958
5241.8	-0.273452
5253.13	-0.274591
5260.69	-0.275162
5272.02	-0.275751
5283.34	-0.27604
5290.9	-0.276078
5302.23	-0.275919
5313.56	-0.275517
5321.11	-0.27512
5332.44	-0.274337
5343.77	-0.27333
5351.32	-0.272535
5362.65	-0.271154
5370.2	-0.270107
5381.53	-0.268345
5392.86	-0.266354
5400.41	-0.2649
5411.74	-0.262534
5423.07	-0.259954
5430.62	-0.25812
5441.95	-0.255211
5453.28	-0.252122
5460.84	-0.249972
5472.16	-0.246622
5483.49	-0.243136
5491.05	-0.240742
5502.38	-0.237057
5513.71	-0.233269
5521.26	-0.230692
5532.58	-0.226755
5540.13	-0.224088
5551.45	-0.220029
5562.77	-0.215908
5570.32	-0.21313
5581.64	-0.208928
5592.96	-0.204693
5600.51	-0.201858
5611.83	-0.197596
5623.15	-0.193337
5630.7	-0.190506
5642.02	-0.186282
5653.34	-0.182098
5660.87	-0.179343
5672.19	-0.175254
5683.51	-0.171239
5691.06	-0.16861
5702.33	-0.164759
5713.59	-0.161015
5721.1	-0.158578
5732.36	-0.155019
5743.62	-0.151585
5751.12	-0.14937
5762.36	-0.146164
5773.6	-0.143099
5781.09	-0.141136
5792.33	-0.138316
5803.57	-0.135649
5811.06	-0.133956
5822.3	-0.131549
5833.54	-0.129299
5841.03	-0.127886
5852.27	-0.125897
5863.5	-0.124061
5870.97	-0.122924
5882.15	-0.121343
5893.33	-0.119901
5900.78	-0.119014
5911.96	-0.117788
5923.15	-0.11668
5930.6	-0.116003
5941.79	-0.115072
5952.97	-0.114231
5960.42	-0.113716
5971.61	-0.113
5982.79	-0.112343
5990.19	-0.111934
6001.24	-0.111351
6012.3	-0.110791
6023.36	-0.11024
6030.73	-0.109871
6041.79	-0.109308
6052.85	-0.108721
6060.22	-0.108312
6071.28	-0.107661
6082.34	-0.106959
6093.39	-0.106196
6100.77	-0.10565
6111.83	-0.104768
6122.88	-0.103807
6130.26	-0.10312
6141.32	-0.102016
6152.38	-0.100821
6163.43	-0.0995353
6170.81	-0.0986263
6181.87	-0.0971858
6192.92	-0.0956538
6200.3	-0.0945827
6211.36	-0.0929033
6222.41	-0.0911398
6233.47	-0.0892967
6240.85	-0.0880261
6251.9	-0.0860616
6262.96	-0.0840321
6270.34	-0.0826461
6281.39	-0.0805227
6292.45	-0.0783522
6303.51	-0.0761418
6310.89	-0.0746496
6321.94	-0.072389
6333	-0.0701078
6340.38	-0.0685791
6351.43	-0.0662795
6362.49	-0.0639777
6373.55	-0.0616801
6380.92	-0.0601536
6391.98	-0.0578759
6403.04	-0.0556172
6410.41	-0.0541243
6421.47	-0.0519073
6432.53	-0.0497207
6443.59	-0.0475678
6450.96	-0.0461526
6462.02	-0.0440618
6473.08	-0.0420113
6480.45	-0.0406675
6491.51	-0.0386876
6502.57	-0.0367517
6513.63	-0.0348605
6521	-0.0336249
6532.06	-0.0318094
6543.12	-0.0300398
6550.49	-0.0288855
6561.55	-0.0271925
6572.61	-0.0255454
6583.67	-0.0239443
6591.04	-0.0229024
6602.1	-0.0213779
6613.16	-0.0198996
6620.53	-0.0189397
6631.59	-0.0175388
6642.65	-0.0161849
6650.02	-0.0153087
6661.08	-0.0140344
6672.14	-0.012809
6683.2	-0.0116333
6690.57	-0.0108777
6701.63	-0.00978744
6712.69	-0.00875017
6720.06	-0.00808878
6731.12	-0.00714297
6742.18	-0.00625406
6753.24	-0.00542363
6760.61	-0.00490328
6771.67	-0.00417385
6782.73	-0.00350713
6790.1	-0.00309823
6801.16	-0.00253931
6812.22	-0.0020469
6823.28	-0.00162219
6830.65	-0.00137718
6841.71	-0.00106751
6852.77	-0.000827836
6860.14	-0.000707174
6871.2	-0.000585026
6882.26	-0.000533461
6893.32	-0.000552166
6900.69	-0.000603377
6911.75	-0.000737631
6922.81	-0.000939723
6930.18	-0.00111139
6941.24	-0.00142293
6952.3	-0.00179739
6963.36	-0.00223226
6970.73	-0.00255433
6981.79	-0.00308335
6992.85	-0.00366435
7000.22	-0.00407872
7011.28	-0.00473782
7022.34	-0.00543814
7033.39	-0.00617509
7040.77	-0.00668437
7051.83	-0.00747151
7062.89	-0.00828187
7070.26	-0.00883236
7081.32	-0.00966937
7092.38	-0.0105149
7103.43	-0.0113633
7110.81	-0.0119276
7121.87	-0.012768
7132.92	-0.0135958
7140.3	-0.014138
7151.36	-0.0149324
7162.42	-0.0156994
7173.47	-0.0164337
7180.84	-0.0169023
7191.9	-0.017571
7202.96	-0.0181943
7210.33	-0.0185826
7221.37	-0.0191204
7232.41	-0.0196025
7243.44	-0.020026
7250.79	-0.0202745
7261.82	-0.0205944
7272.85	-0.0208487
7280.21	-0.0209808
7291.24	-0.0211212
7302.27	-0.0211905
7313.3	-0.0211873
7320.65	-0.0211441
7331.68	-0.021017
7342.71	-0.0208144
7350.07	-0.0206371
7361.1	-0.0203078
7372.13	-0.0199026
7383.16	-0.0194221
7390.51	-0.0190604
7401.54	-0.0184569
7412.58	-0.0177815
7423.61	-0.0170362
7430.96	-0.0165016
7441.99	-0.0156448
7453.02	-0.0147243
7460.38	-0.0140767
7471.41	-0.0130564
7482.44	-0.01198
7493.47	-0.0108505
7500.82	-0.0100693
7511.85	-0.00885764
7522.88	-0.00760048
7530.24	-0.00673846
7541.27	-0.00541154
7552.3	-0.00404611
7563.33	-0.00264441
7570.68	-0.00169075
7581.71	-0.000232654
7592.74	0.00125754
7600.1	0.00226845
7611.13	0.00381078
7622.16	0.00538436
7633.19	0.00698972
7640.54	0.00807798
7651.57	0.00973809
7662.6	0.0114316
7673.64	0.0131553
7680.99	0.0143152
7692.02	0.0160481
7703.05	0.0172004
7710.4	0.0180981
7721.43	0.0194803
7732.47	0.020822
7743.5	0.0227406
7750.85	0.0241501
7761.88	0.0264054
7772.91	0.0284859
7780.27	0.0297494
7791.3	0.031706
7802.33	0.034023
7813.36	0.036822
7820.71	0.0389217
7831.74	0.0423052
7842.77	0.0458204
7850.13	0.0481693
7861.16	0.0516275
7872.19	0.0549438
7883.22	0.058075
7890.57	0.0600575
7901.6	0.062895
7912.63	0.0655989
7923.66	0.0681826
7931.02	0.0698336
7942.05	0.0721906
7953.08	0.0743959
7960.43	0.0757831
7971.46	0.0777504
7982.49	0.0796004
7993.53	0.0813549
8000.88	0.082479
8011.91	0.0840999
8022.94	0.0856374
8030.29	0.0866106
8041.33	0.087985
8052.36	0.0892505
8063.39	0.0904047
8070.74	0.0911127
8081.77	0.0920854
8092.8	0.0929555
8100.16	0.0934812
8111.19	0.0941912
8122.22	0.0948087
8133.25	0.0953328
8140.6	0.0956293
8151.63	0.0959924
8162.66	0.0962557
8170.02	0.0963754
8181.05	0.0964715
8192.08	0.0964683
8203.11	0.096367
8210.46	0.0962458
8221.49	0.0959845
8232.53	0.0956297
8243.56	0.0951847
8250.91	0.09484
8261.94	0.0942555
8272.97	0.0935963
8280.33	0.093119
8291.36	0.092352
8302.39	0.0915299
8313.42	0.0906589
8320.77	0.0900533
8331.8	0.0891105
8342.83	0.0881289
8350.19	0.0874545
8361.22	0.0864149
8372.25	0.0853452
8383.28	0.08425
8390.63	0.0835081
8401.66	0.0823815
8412.69	0.0812427
8420.05	0.0804788
8431.08	0.0793286
8442.11	0.0781759
8453.14	0.0770235
8460.49	0.0762567
8471.53	0.0751109
8482.56	0.0739729
8493.59	0.0728455
8500.94	0.0721008
8511.97	0.0709955
8523	0.0699045
8530.36	0.0691848
8541.42	0.0681122
8552.49	0.0670501
8563.55	0.0659958
8570.93	0.0652958
8582	0.0642484
8593.06	0.0632023
8600.44	0.0625046
8611.51	0.0614566
8622.57	0.0604055
8633.64	0.0593498
8641.01	0.0586426
8652.08	0.0575754
8663.15	0.0564991
8670.52	0.0557754
8681.59	0.0546794
8692.66	0.0535688
8700.03	0.052819
8711.1	0.0516782
8722.16	0.0505149
8733.23	0.0493251
8740.61	0.048515
8751.67	0.0472714
8762.74	0.04599
8770.12	0.045113
8781.18	0.0437614
8792.25	0.042365
8803.31	0.0409226
8810.69	0.0399352
8821.76	0.038415
8832.82	0.0368471
8840.2	0.0357746
8851.27	0.0341235
8862.33	0.0324184
8873.4	0.0306549
8880.77	0.0294439
8891.84	0.0275684
8902.92	0.0256154
8910.3	0.0242655
8921.37	0.0221607
8932.44	0.0199469
8943.52	0.0176106
8950.91	0.0159709
8961.99	0.0132439
8973.07	0.00899447
8980.45	0.0039277
8991.53	-0.000641798
9002.61	-0.005408
9013.69	-0.0094454
9021.07	-0.00938502
9032.15	-0.0121294
9043.23	-0.0147716
9050.62	-0.0164426
9061.7	-0.0188922
9072.79	-0.0211786
9080.21	-0.0226875
9091.38	-0.0249144
9102.6	-0.0270815
9110.09	-0.028507
9121.32	-0.0306352
9132.55	-0.032654
9140.03	-0.0339231
9151.26	-0.0356965
9162.49	-0.0373074
9173.72	-0.038764
9181.21	-0.039658
9192.44	-0.040901
9203.67	-0.0420487
9211.15	-0.0427729
9222.38	-0.0438135
9233.61	-0.0448127
9241.1	-0.0454606
9252.33	-0.0464082
9263.56	-0.0473263
9271.05	-0.0479201
9282.28	-0.04878
9293.51	-0.0495982
9300.99	-0.0501185
9312.22	-0.0508593
9323.45	-0.0515523
9330.94	-0.0519885
9342.17	-0.0526065
9353.4	-0.0531845
9360.88	-0.05355
9372.11	-0.0540719
9383.34	-0.0545655
9390.83	-0.0548805
9402.06	-0.0553331
9413.29	-0.0557628
9420.78	-0.0560367
9432.01	-0.0564281
9443.23	-0.0567956
9450.72	-0.0570268
9461.95	-0.0573523
9473.18	-0.057652
9480.67	-0.0578374
9491.9	-0.0580944
9503.13	-0.0583267
9510.61	-0.0584684
9521.84	-0.0586622
9533.07	-0.0588347
9540.56	-0.0589385
9551.79	-0.0590782
9563.02	-0.0591994
9570.5	-0.0592703
9581.75	-0.0593621
9593.02	-0.0594366
9600.55	-0.0594768
9611.87	-0.0595226
9623.19	-0.0595509
9630.72	-0.0595601
9641.99	-0.0595597
9653.24	-0.0595426
9660.76	-0.0595221
9672.02	-0.0594782
9683.26	-0.059419
9690.75	-0.0593713
9701.99	-0.059288
9713.23	-0.0591911
9720.72	-0.0591192
9731.96	-0.0590008
9743.2	-0.0588701
9750.69	-0.0587763
9761.93	-0.058626
9773.17	-0.0584644
9780.65	-0.0583505
9791.87	-0.058171
9803.04	-0.0579817
9810.49	-0.0578498
9821.68	-0.0576437
9832.86	-0.0574281
9840.31	-0.0572794
9851.5	-0.057049
9862.68	-0.0568105
9870.14	-0.0566471
9881.32	-0.056396
9892.5	-0.0561381
9903.68	-0.0558738
9911.14	-0.0556944
9922.22	-0.0554231
9933.27	-0.0551477
9940.65	-0.0549615
9951.71	-0.0546789
9962.76	-0.0543927
9970.14	-0.0542002
9981.2	-0.0539091
9992.25	-0.0536157
10003.3	-0.0533204
10010.7	-0.0531229
10021.7	-0.0528257
10032.8	-0.052528
10040.2	-0.0523294
10051.2	-0.0520317
10062.3	-0.0517346
10073.4	-0.0514384
10080.7	-0.0512416
10091.8	-0.0509476
10102.8	-0.0506554
10110.2	-0.0504616
10121.3	-0.0501727
10132.3	-0.0498861
10143.4	-0.0496019
10150.8	-0.0494139
10161.8	-0.0491342
10172.9	-0.0488573
10180.3	-0.0486744
10191.3	-0.0484025
10202.4	-0.0481337
10213.4	-0.0478683
10220.8	-0.0476931
10231.9	-0.0474334
10242.9	-0.0471772
10250.3	-0.0470084
10261.4	-0.0467584
10272.4	-0.0465123
10283.5	-0.0462701
10290.8	-0.0461109
10301.9	-0.0458756
10313	-0.0456445
10320.3	-0.0454929
10331.4	-0.0452693
10342.5	-0.0450502
10353.5	-0.0448358
10360.9	-0.0446956
10371.9	-0.0444894
10383	-0.0442883
10390.4	-0.044157
10401.4	-0.0439646
10412.5	-0.0437775
10423.6	-0.043596
10430.9	-0.0434781
10442	-0.043306
10453	-0.0431396
10460.4	-0.0430319
10471.5	-0.0428753
10482.5	-0.0427245
10493.6	-0.0425797
10501	-0.0424864
10512	-0.0423514
10523.1	-0.0422221
10530.5	-0.0421391
10541.5	-0.0420193
10552.6	-0.0419049
10563.6	-0.0417958
10571	-0.0417259
10582.1	-0.0416252
10593.1	-0.0415291
10600.5	-0.0414674
10611.6	-0.0413784
10622.6	-0.0412932
10633.7	-0.0412114
10641	-0.0411586
10652.1	-0.0410815
10663.2	-0.0410068
10670.5	-0.040958
10681.6	-0.040886
10692.6	-0.0408149
10700	-0.0407678
10711.1	-0.0406972
10722.1	-0.040626
10733.2	-0.0405537
10740.6	-0.0405046
10751.6	-0.0404292
10762.7	-0.040351
10770.1	-0.040297
10781.1	-0.0402128
10792.2	-0.0401241
10803.2	-0.0400303
10810.6	-0.0399646
10821.7	-0.0398607
10832.7	-0.0397499
10840.1	-0.0396718
10851.2	-0.0395478
10862.2	-0.0394151
10873.3	-0.039273
10880.7	-0.0391726
10891.7	-0.0390132
10902.8	-0.0388425
10910.1	-0.0387222
10921.2	-0.0385313
10932.3	-0.0383275
10943.3	-0.0381101
10950.7	-0.0379573
10961.7	-0.0377159
10972.8	-0.0374594
10980.2	-0.0372796
10991.2	-0.0369965
11002.3	-0.0366969
11013.4	-0.0363801
11020.7	-0.0361592
11031.8	-0.035813
11042.8	-0.0354484
11050.2	-0.0351951
11061.3	-0.0347993
11072.3	-0.0343842
11083.4	-0.0339495
11090.8	-0.0336488
11101.8	-0.033181
11112.9	-0.0326929
11120.3	-0.0323563
11131.3	-0.0318342
11142.4	-0.0312914
11153.4	-0.0307279
11160.8	-0.0303408
11171.9	-0.0297426
11182.9	-0.0291237
11190.3	-0.0286996
11201.4	-0.0280461
11212.4	-0.027372
11223.5	-0.0266777
11230.8	-0.0262034
11241.9	-0.0254751
11253	-0.0247267
11260.3	-0.0242169
11271.4	-0.0234371
11282.4	-0.0226388
11293.4	-0.0218218
11300.8	-0.0212669
11311.8	-0.0204195
11322.9	-0.0195543
11330.2	-0.0189678
11341.2	-0.0180741
11352.3	-0.0171639
11363.3	-0.0162377
11370.7	-0.0156116
11381.7	-0.01466
11392.7	-0.013694
11400.1	-0.0130423
11411.1	-0.0120537
11422.1	-0.0110524
11433.2	-0.0100391
11440.5	-0.00935739
11451.5	-0.00832596
11462.6	-0.00728475
11473.6	-0.00623468
11481	-0.00553019
11492	-0.00446756
11503	-0.00339885
11510.4	-0.00268357
11521.4	-0.00160741
11532.4	-0.000528519
11543.5	0.000551665
11550.8	0.00127176
11561.9	0.0023507
11572.9	0.0034267
11580.2	0.00414155
11591.3	0.00520879
11602.3	0.00626832
11613.3	0.00731823
11620.7	0.00801186
11631.7	0.0090413
11642.7	0.0100557
11650.1	0.0107224
11661.1	0.0117064
11672.2	0.0126686
11683.2	0.0136051
11690.5	0.0142133
11701.6	0.0150948
11712.6	0.0159294
11723.6	0.0166007
11731	0.0169672
11742	0.0176062
11753.1	0.0182471
11760.4	0.0186637
11771.4	0.01938
11782.5	0.0202257
11793.5	0.0209345
11800.9	0.0216443
11811.9	0.022691
11822.9	0.0236061
11830.3	0.0242086
11841.3	0.0251136
11852.3	0.0261015
11863.4	0.0272443
11870.7	0.0280824
11881.7	0.0293683
11892.8	0.0306169
11900.1	0.0314279
11911.2	0.0326287
11922.2	0.0337986
11933.2	0.0348939
11940.6	0.035561
11951.6	0.0364596
11962.6	0.0372683
11973.7	0.0380479
11981	0.0385773
11992.1	0.0394057
12003.1	0.0402829
12010.4	0.0408962
12021.5	0.0418594
12032.5	0.0428694
12043.5	0.043914
12050.9	0.0446251
12061.9	0.0457178
12072.9	0.0468591
12080.3	0.0476589
12091.3	0.0489289
12102.4	0.0502854
12113.4	0.0517154
12120.7	0.0526977
12131.8	0.0541924
12142.8	0.0556889
12150.2	0.0566783
12161.2	0.058144
12172.2	0.0595868
12183.3	0.0610093
12190.6	0.0619481
12201.6	0.0633449
12212.7	0.0647293
12220	0.0656442
12231.1	0.0669984
12242.1	0.0683207
12253.1	0.0695985
12260.5	0.0704204
12271.5	0.0716025
12282.5	0.072719
12293.6	0.0737666
12300.9	0.0744255
12311.9	0.0753529
12323	0.0762047
12330.3	0.0767297
12341.4	0.0774527
12352.4	0.0781001
12363.4	0.0786761
12370.8	0.0790228
12381.8	0.0794905
12392.8	0.0798987
12400.2	0.080139
12411.2	0.0804526
12422.3	0.0807105
12433.3	0.0809142
12440.6	0.0810214
12451.7	0.0811431
12462.7	0.0812238
12470.1	0.081258
12481.1	0.0812834
12492.1	0.0812797
12503.1	0.081246
12510.5	0.081205
12521.5	0.0811124
12532.6	0.0809786
12543.6	0.080801
12550.9	0.0806582
12562	0.0804094
12573	0.080122
12580.4	0.0799115
12591.5	0.0795709
12602.5	0.0792036
12613.6	0.0788114
12621	0.0785365
12632	0.0781033
12643.1	0.0776434
12650.5	0.0773213
12661.6	0.0768128
12672.7	0.0762716
12680.1	0.0758915
12691.1	0.0752907
12702.2	0.0746517
12713.3	0.0739736
12720.8	0.0734992
12731.9	0.0727547
12743.2	0.071974
12750.6	0.0714342
12761.9	0.0705973
12773.1	0.0697275
12780.6	0.0691292
12791.8	0.0682037
12803.1	0.0672445
12810.5	0.0665866
12821.8	0.0655734
12833	0.0645307
12840.5	0.0638202
12851.7	0.0627327
12862.9	0.0616196
12870.4	0.0608629
12881.7	0.0597047
12892.9	0.0585164
12900.4	0.0577064
12911.6	0.0564635
12922.8	0.055187
12930.3	0.0543179
12941.6	0.0529889
12952.8	0.0516325
12960.3	0.0507148
12971.5	0.0493209
12982.7	0.0479086
12990.2	0.0469581
13001.4	0.0455199
13012.7	0.0440677
13020.2	0.0430922
13031.4	0.0416183
13042.6	0.0401327
13050.1	0.0391362
13061.3	0.0376332
13072.6	0.0361212
13080.1	0.0351086
13091.3	0.0335831
13102.5	0.0320498
13113.7	0.0305085
13121.2	0.0294765
13132.5	0.027922
13143.7	0.0263603
13151.2	0.0253159
13162.4	0.0237459
13173.6	0.0221739
13181.1	0.0211264
13192.3	0.0195579
13203.6	0.0179954
13211.1	0.0169583
13222.3	0.0154107
13233.5	0.0138736
13241	0.0128549
13252.2	0.0113342
13263.5	0.00961903
13271	0.00785784
13282.2	0.00602913
13293.4	0.00402588
13300.9	0.00289245
13312.1	0.00116569
13323.4	-0.000334115
13330.8	-0.00133338
13342.1	-0.00278726
13353.3	-0.00422717
13360.8	-0.00516863
13372	-0.00658044
13383.3	-0.00802882
13390.7	-0.00902039
13402	-0.0104965
13413.2	-0.0119312
13420.7	-0.0128632
13431.9	-0.0142245
13443.1	-0.015541
13450.6	-0.0163943
13461.9	-0.0176404
13473.1	-0.0188515
13480.6	-0.0196427
13491.8	-0.0208086
13503	-0.0219517
13510.5	-0.0227015
13521.8	-0.0238074
13533	-0.0248892
13540.5	-0.0255958
13551.7	-0.026632
13562.9	-0.027638
13570.4	-0.0282913
13581.6	-0.0292446
13592.9	-0.0301664
13600.4	-0.0307637
13611.6	-0.0316348
13622.8	-0.032477
13630.3	-0.0330229
13641.5	-0.033819
13652.8	-0.0345883
13660.3	-0.0350863
13671.5	-0.0358113
13682.7	-0.0365096
13690.2	-0.0369602
13701.4	-0.0376137
13712.7	-0.0382404
13720.1	-0.0386433
13731.4	-0.0392257
13742.6	-0.0397822
13750.1	-0.0401391
13761.3	-0.0406537
13772.5	-0.0411442
13780	-0.041458
13791.3	-0.0419096
13802.5	-0.0423387
13813.7	-0.0427458
13821.2	-0.0430053
13832.4	-0.043377
13843.7	-0.043728
13851.2	-0.0439509
13862.4	-0.0442688
13873.6	-0.0445677
13881.1	-0.0447566
13892.3	-0.045025
13903.6	-0.0452761
13911	-0.0454342
13922.3	-0.0456578
13933.5	-0.0458659
13941	-0.0459962
13952.2	-0.0461797
13963.5	-0.0463491
13970.9	-0.0464546
13982.2	-0.0466018
13993.4	-0.0467364
14000.9	-0.0468193
14012.1	-0.0469337
14023.3	-0.0470367
14030.8	-0.0470991
14042.1	-0.0471838
14053.3	-0.047258
14060.8	-0.0473019
14072	-0.0473595
14083.2	-0.0474076
14090.7	-0.0474345
14102	-0.0474674
14113.2	-0.0474915
14120.7	-0.0475029
14131.9	-0.0475129
14143.1	-0.0475148
14150.6	-0.0475116
14161.8	-0.0475003
14173.1	-0.0474813
14180.6	-0.0474645
14191.8	-0.047433
14203	-0.0473942
14210.5	-0.0473644
14221.7	-0.0473136
14233	-0.0472559
14240.5	-0.0472135
14251.7	-0.0471443
14262.9	-0.0470681
14270.4	-0.0470135
14281.7	-0.0469258
14293	-0.0468311
14300.5	-0.0467638
14311.9	-0.0466572
14323.2	-0.0465438
14330.9	-0.0464632
14342.5	-0.0463352
14350.2	-0.0462459
14361.9	-0.0461051
14373.6	-0.0459555
14381.5	-0.0458516
14393.3	-0.0456894
14401.1	-0.0455771
14412.9	-0.0454023
14420.7	-0.0452816
14432.5	-0.0450941
14440.3	-0.0449649
14452.1	-0.0447648
14463.9	-0.044557
14471.7	-0.0444142
14483.5	-0.0441936
14491.3	-0.0440423
14503.1	-0.0438089
14511	-0.0436488
14522.8	-0.0434019
14530.7	-0.0432321
14542.5	-0.0429704
14550.4	-0.0427914
14562.3	-0.0425161
14570.2	-0.0423281
14582.1	-0.0420392
14590	-0.041842
14601.9	-0.0415394
14613.8	-0.0412285
14621.7	-0.0410165
14633.6	-0.0406916
14641.5	-0.0404703
14653.4	-0.0401313
14661.3	-0.0399006
14673.1	-0.0395473
14681.1	-0.0393071
14692.9	-0.0389396
14700.9	-0.0386898
14712.7	-0.038308
14720.6	-0.0380486
14732.5	-0.0376523
14740.4	-0.0373834
14752.3	-0.0369727
14760.2	-0.0366941
14772.1	-0.0362689
14780	-0.0359806
14791.9	-0.035541
14803.8	-0.0350926
14811.7	-0.0347889
14823.6	-0.0343261
14831.5	-0.0340128
14843.4	-0.0335356
14851.3	-0.0332126
14863.1	-0.0327211
14871.1	-0.0323887
14882.9	-0.031883
14890.8	-0.0315412
14902.7	-0.0310216
14910.6	-0.0306706
14922.5	-0.0301374
14930.4	-0.0297774
14942.3	-0.029231
14950.2	-0.0288621
14962.1	-0.0283032
14970	-0.0279268
14981.9	-0.0273563
14993.7	-0.026779
15001.6	-0.0263904
15013.5	-0.0258022
15021.4	-0.0254068
15033.3	-0.0248087
15041.2	-0.024407
15053	-0.0238001
15060.9	-0.0233928
15072.8	-0.0227782
15080.7	-0.0223662
15092.6	-0.0217452
15100.5	-0.0213294
15112.3	-0.0207033
15120.2	-0.0202845
15132.1	-0.0196548
15143.9	-0.0190235
15151.9	-0.0186021
15163.7	-0.0179696
15171.6	-0.017548
15183.5	-0.0169158
15191.4	-0.0164948
15203.2	-0.0158649
15211.1	-0.0154458
15223	-0.014819
15230.9	-0.0144027
15242.8	-0.0137809
15250.6	-0.0133734
15262.3	-0.0127655
15270.1	-0.0123628
15281.8	-0.0117628
15293.5	-0.0111686
15301.3	-0.0107766
15313	-0.0101938
15320.8	-0.009809
15332.5	-0.00923764
15340.3	-0.00886084
15352	-0.00830209
15363.7	-0.00775144
15371.5	-0.00738903
15383.2	-0.00685271
15390.9	-0.00650018
15402.6	-0.00597914
15410.4	-0.00563708
15422.1	-0.00513214
15433.8	-0.00463721
15441.6	-0.00431293
15453.3	-0.00383517
15461.1	-0.00352252
15472.8	-0.00306245
15480.5	-0.00276174
15492.2	-0.00231975
15500	-0.00203119
15511.7	-0.00160755
15523.4	-0.00119501
15531.2	-0.000926169
15542.9	-0.000532188
15550.7	-0.000275722
15562.4	9.97112e-05
15570.2	0.00034384
15581.8	0.000700835
15593.5	0.00104685
15601.3	0.00127148
15613	0.00159941
15620.8	0.00181208
15632.5	0.00212223
15640.3	0.00232317
15652	0.00261593
15663.7	0.00289845
15671.4	0.00308118
15683.1	0.00334699
15690.9	0.00351874
15702.6	0.00376831
15710.4	0.0039294
15722.1	0.00416321
15733.8	0.00438781
15741.6	0.00453251
15753.3	0.00474214
15761.1	0.00487701
15772.7	0.00507214
15780.5	0.00519749
15792.2	0.00537857
15800	0.0054947
15811.7	0.00566214
15823.4	0.00582158
15831.2	0.0059235
15842.9	0.0060699
15850.7	0.00616324
15862.3	0.00629691
15870.1	0.00638185
15881.8	0.00650306
15893.5	0.00661689
15901.3	0.00668871
15913	0.00679061
15920.8	0.0068545
15932.5	0.00694429
15940.3	0.00699969
15951.9	0.00707709
15963.6	0.00714733
15971.4	0.00719016
15982.9	0.007248
15990.7	0.0072826
16002.2	0.0073285
16013.8	0.00736718
16021.5	0.00738891
16033.1	0.00741534
16040.8	0.0074288
16052.3	0.00744271
16060	0.00744775
16071.6	0.00744887
16083.1	0.00744213
16090.8	0.00743319
16102.3	0.00741301
16110	0.00739499
16121.6	0.00736094
16133.1	0.00731833
16140.8	0.0072852
16152.3	0.00722814
16163.8	0.00716207
16171.4	0.00711293
16182.9	0.0070314
16190.6	0.00697176
16202.1	0.00687421
16213.6	0.00676677
16221.2	0.00668955
16232.7	0.00656518
16240.4	0.00647649
16251.9	0.00633464
16263.4	0.00618204
16271	0.00607425
16282.5	0.00590334
16290.2	0.00578318
16301.7	0.00559348
16313.2	0.0053923
16320.8	0.00525174
16332.3	0.00503111
16343.8	0.00479867
16351.5	0.00463708
16363	0.00438469
16370.6	0.00420974
16382.1	0.00393721
16393.6	0.00365252
16401.3	0.00345596
16412.8	0.00315097
16420.4	0.00294088
16431.9	0.0026164
16443.3	0.00228127
16450.9	0.00205124
16462.3	0.00169683
16473.7	0.00133086
16481.3	0.00108044
16492.7	0.000695858
16500.3	0.000433592
16511.7	3.09629e-05
16523	-0.000382325
16530.6	-0.000663777
16542	-0.00109466
16553.3	-0.00153574
16560.9	-0.00183532
16572.2	-0.00229273
16583.6	-0.00275948
16591.2	-0.00307567
16602.5	-0.00355719
16610.1	-0.00388286
16621.5	-0.00437803
16632.8	-0.00488082
16640.4	-0.00521899
16651.7	-0.00573194
16663	-0.00625133
16670.6	-0.00660084
16681.9	-0.00712962
16693.2	-0.00766331
16700.8	-0.00802156
16712.1	-0.00856221
16723.5	-0.00910627
16731	-0.00947058
16742.3	-0.010019
16753.7	-0.0105692
16761.2	-0.0109368
16772.5	-0.0114886
16780.1	-0.0118567
16791.4	-0.0124084
16802.8	-0.0129592
16810.3	-0.0133256
16821.6	-0.0138735
16833	-0.0144187
16840.5	-0.0147803
16851.9	-0.0153196
16863.2	-0.0158546
16870.7	-0.0162085
16882.1	-0.0167347
16893.4	-0.0172549
16900.9	-0.0175979
16912.3	-0.0181066
16923.6	-0.0186075
16931.2	-0.0189368
16942.5	-0.0194235
16950	-0.0197429
16961.4	-0.0202138
16972.7	-0.0206744
16980.3	-0.0209756
16991.6	-0.021418
17002.9	-0.0218487
17010.5	-0.0221292
17021.8	-0.0225394
17033.1	-0.0229367
17040.7	-0.0231942
17052	-0.023569
17063.3	-0.0239298
17070.9	-0.0241622
17082.2	-0.0244987
17093.5	-0.0248201
17101.1	-0.0250258
17112.4	-0.0253213
17123.7	-0.0256008
17131.3	-0.0257782
17142.6	-0.0260307
17150.2	-0.0261899
17161.5	-0.0264149
17172.8	-0.026623
17180.3	-0.0267523
17191.7	-0.026932
17203	-0.0270946
17210.5	-0.0271934
17221.9	-0.0273271
17233.2	-0.0274434
17240.7	-0.0275113
17252	-0.0275986
17263.3	-0.0276684
17270.9	-0.0277053
17282.2	-0.0277463
17293.5	-0.02777
17301	-0.0277762
17312.3	-0.0277714
17323.6	-0.0277499
17331.1	-0.0277263
17342.3	-0.027677
17353.6	-0.0276115
17361.1	-0.0275588
17372.3	-0.0274666
17383.6	-0.0273586
17391	-0.027278
17402.3	-0.0271444
17413.5	-0.0269956
17421	-0.0268883
17432.3	-0.0267151
17443.5	-0.0265276
17451	-0.0263948
17462.2	-0.0261843
17473.5	-0.0259603
17481	-0.0258038
17492.2	-0.0255585
17503.4	-0.0253006
17510.9	-0.025123
17522	-0.024847
17533.2	-0.0245598
17540.7	-0.024362
17551.9	-0.0240566
17563	-0.023741
17570.5	-0.0235251
17581.7	-0.0231935
17592.9	-0.0228528
17600.3	-0.0226208
17611.5	-0.0222659
17622.7	-0.0219032
17630.1	-0.0216572
17641.3	-0.0212822
17652.5	-0.0209006
17663.7	-0.0205127
17671.1	-0.0202508
17682.3	-0.0198535
17693.5	-0.0194511
17701	-0.0191803
17712.1	-0.0187705
17723.3	-0.0183569
17730.8	-0.0180793
17742	-0.0176603
17753.1	-0.0172387
17760.6	-0.0169563
17771.8	-0.0165313
17783	-0.0161049
17790.4	-0.01582
17801.6	-0.0153941
17812.6	-0.0149716
17823.6	-0.0145493
17831	-0.014268
17842	-0.0138469
17853.1	-0.0134271
17860.4	-0.0131481
17871.5	-0.0127312
17882.5	-0.0123167
17893.5	-0.0119049
17900.9	-0.0116321
17911.9	-0.0112257
17923	-0.010823
17930.3	-0.0105562
17941.4	-0.0101597
17952.5	-0.0097679
17963.5	-0.00938113
17970.9	-0.00912626
17981.9	-0.00874864
17993	-0.00837695
18000.4	-0.0081326
18011.4	-0.00777149
18022.5	-0.00741713
18033.6	-0.00706981
18040.9	-0.00684233
18052	-0.0065074
18063	-0.00618026
18070.4	-0.00596663
18081.5	-0.00565307
18092.5	-0.00534798
18103.6	-0.0050516
18111	-0.00485897
18122	-0.00457762
18133.1	-0.00430558
18140.5	-0.0041295
18151.5	-0.00387342
18162.6	-0.00362719
18173.6	-0.00339096
18181	-0.00323913
18192.1	-0.00301999
18203.1	-0.00281129
18210.5	-0.00267804
18221.6	-0.0024871
18232.6	-0.00230698
18243.7	-0.00213782
18251	-0.00203118
18262.1	-0.00188052
18273.2	-0.00174109
18280.5	-0.00165442
18291.6	-0.0015339
18302.7	-0.00142482
18310	-0.00135849
18321.1	-0.00126863
18332.1	-0.00119035
18343.2	-0.00112369
18350.6	-0.00108573
18361.6	-0.00103849
18372.7	-0.00100291
18380.1	-0.00098567
18391.1	-0.000969511
18402.2	-0.000964974
18413.2	-0.000972021
18420.6	-0.000983132
18431.7	-0.00100937
18442.7	-0.00104704
18450.1	-0.00107847
18461.2	-0.00113499
18472.2	-0.0012027
18483.3	-0.00128147
18490.7	-0.00134007
18501.7	-0.00143698
18512.8	-0.00154458
18520.1	-0.00162217
18531.2	-0.0017472
18542.3	-0.00188244
18553.3	-0.00202768
18560.7	-0.00212995
18571.8	-0.00229136
18582.8	-0.00246216
18590.2	-0.00258112
18601.2	-0.00276698
18612.3	-0.00296151
18623.4	-0.00316441
18630.7	-0.00330418
18641.8	-0.00352034
18652.8	-0.00374402
18660.2	-0.00389714
18671.3	-0.00413258
18682.3	-0.00437459
18693.4	-0.0046228
18700.8	-0.00479152
18711.8	-0.00504918
18722.9	-0.00531198
18730.3	-0.00548982
18741.3	-0.00576024
18752.4	-0.00603466
18763.4	-0.00631265
18770.8	-0.00649972
18781.9	-0.00678264
18792.9	-0.0070679
18800.3	-0.00725915
18811.4	-0.00754729
18822.4	-0.00783652
18833.5	-0.00812637
18840.9	-0.00831971
18851.9	-0.00860952
18863	-0.00889866
18870.3	-0.00909081
18881.4	-0.00937776
18892.5	-0.00966275
18903.5	-0.0099453
18910.9	-0.0101321
18921.9	-0.0104095
18933	-0.0106832
18940.4	-0.0108634
18951.4	-0.0111299
18962.5	-0.0113914
18973.6	-0.0116475
18980.9	-0.0118151
18992	-0.0120612
19003	-0.0123008
19010.4	-0.0124567
19021.5	-0.0126844
19032.5	-0.0129044
19043.6	-0.0131164
19051	-0.013253
19062	-0.0134507
19073.1	-0.0136394
19080.5	-0.0137599
19091.5	-0.0139327
19102.6	-0.0140955
19113.6	-0.0142481
19121	-0.0143438
19132	-0.0144785
19143.1	-0.014602
19150.4	-0.0146781
19161.5	-0.0147827
19172.5	-0.0148758
19183.5	-0.014957
19190.9	-0.0150045
19201.9	-0.0150656
19212.9	-0.0151144
19220.3	-0.01514
19231.3	-0.0151679
19242.4	-0.0151831
19253.4	-0.0151856
19260.7	-0.0151801
19271.8	-0.015161
19282.8	-0.0151289
19290.2	-0.0151003
19301.2	-0.0150464
19312.2	-0.0149795
19323.2	-0.0148994
19330.6	-0.0148387
19341.6	-0.0147368
19352.7	-0.0146219
19360	-0.014538
19371	-0.0144014
19382.1	-0.0142519
19393.1	-0.0140897
19400.5	-0.0139744
19411.5	-0.0137911
19422.5	-0.0135952
19433.6	-0.013387
19440.9	-0.0132415
19451.9	-0.013013
19463	-0.0127727
19470.3	-0.012606
19481.4	-0.0123462
19492.4	-0.0120751
19503.4	-0.0117929
19510.8	-0.0115986
19521.8	-0.0112983
19532.8	-0.0109875
19540.2	-0.0107746
19551.2	-0.0104468
19562.2	-0.0101093
19573.3	-0.00976222
19580.6	-0.00952572
19591.7	-0.00916349
19602.7	-0.00879256
19610	-0.00854059
19621.1	-0.00815586
19632.1	-0.00776329
19643.1	-0.0073632
19650.5	-0.00709247
19661.5	-0.00668063
19672.6	-0.00626219
19683.6	-0.00583751
19690.9	-0.0055511
19702	-0.00511682
19713	-0.00467725
19720.4	-0.00438146
19731.4	-0.00393391
19742.4	-0.00348206
19753.4	-0.00302628
19760.8	-0.00272043
19771.8	-0.00225893
19782.9	-0.00179451
19790.2	-0.00148344
19801.2	-0.00101496
19812.3	-0.000544536
19823.3	-7.25469e-05
19830.7	0.0002428
19841.7	0.00071658
19852.7	0.00119094
19860.1	0.00150733
19871.1	0.00198187
19882.1	0.00245603
19893.2	0.00292947
19900.5	0.00324451
19911.6	0.00371596
19922.6	0.00418576
19933.6	0.00465357
19941	0.00496418
19952	0.00542796
19963	0.00588888
19970.4	0.00619442
19981.4	0.0066499
19992.4	0.0071017
