0	0
18.7743	0
37.5486	0
56.323	0
75.0973	0
93.8716	0
112.646	0
131.42	0
150.195	0
168.969	0
187.743	0
206.518	0
225.292	0
244.066	0
262.841	0
281.615	0
300.389	0
319.163	0
337.938	0
356.712	0
375.486	0
394.261	0
413.035	0
431.809	0
450.584	0
469.358	0
488.132	0
506.907	0
525.681	0
544.455	0
563.23	0
582.004	0
600.778	0
619.553	0
638.327	0
657.101	0
675.876	0
694.65	0
713.424	0
732.199	0
750.973	0
769.747	0
788.522	0
807.296	0
826.07	0
844.844	0
863.619	0
882.393	0
901.167	0
919.942	0
938.716	0
957.49	0
976.265	0
995.039	0
1013.81	0
1032.59	0
1051.36	0
1070.14	0
1088.91	0
1107.68	0
1126.46	0
1145.23	0
1164.01	0
1182.78	0
1201.56	0
1220.33	0
1239.11	0
1257.88	0
1276.65	0
1295.43	0
1314.2	0
1332.98	0
1351.75	0
1370.53	0
1389.3	0
1408.07	0
1426.85	0
1445.62	0
1464.4	0
1483.17	0
1501.95	0
1520.72	0
1539.49	0
1558.27	0
1577.04	0
1595.82	0
1614.59	0
1633.37	0
1652.14	0
1670.91	0
1689.69	0
1708.46	0
1727.24	0
1746.01	0
1764.79	0
1783.56	0
1802.33	0
1821.11	0
1839.88	0
1858.66	0
1877.43	0
1896.21	0
1914.98	0
1933.76	0
1952.53	0
1971.3	0
1990.08	0
2008.85	0
2027.63	0
2046.4	0
2065.18	0
2083.95	0
2102.72	0
2121.5	0
2140.27	0
2159.05	0
2177.82	0
2196.6	0
2215.37	0
2234.14	0
2252.92	0
2271.69	0
2290.47	0
2309.24	0
2328.02	-9.09495e-13
2346.79	-1.81899e-12
2365.56	-3.63798e-12
2384.34	-7.27596e-12
2403.11	-1.36424e-11
2421.89	-2.45564e-11
2440.66	-4.36557e-11
2459.44	-7.63976e-11
2478.21	-1.31877e-10
2496.98	-2.22826e-10
2515.76	-3.71983e-10
2534.53	-6.12999e-10
2553.31	-9.96806e-10
2572.08	-1.60071e-09
2590.86	-2.54022e-09
2609.63	-3.9845e-09
2628.4	-6.1782e-09
2647.18	-9.4733e-09
2665.95	-1.43709e-08
2684.73	-2.15741e-08
2703.5	-3.20588e-08
2722.28	-4.717e-08
2741.05	-6.87378e-08
2759.82	-9.92313e-08
2778.6	-1.41949e-07
2797.37	-2.01257e-07
2816.15	-2.82881e-07
2834.92	-3.94264e-07
2853.69	-5.44998e-07
2872.47	-7.47338e-07
2891.24	-1.01681e-06
2910.02	-1.37294e-06
2928.79	-1.84004e-06
2947.57	-2.44823e-06
2966.34	-3.23445e-06
2985.11	-4.24372e-06
3003.89	-5.53049e-06
3022.66	-7.16011e-06
3041.44	-9.2105e-06
3060.21	-1.17739e-05
3078.98	-1.49586e-05
3097.76	-1.88911e-05
3116.53	-2.3718e-05
3135.31	-2.96082e-05
3154.08	-3.67545e-05
3172.85	-4.5376e-05
3191.63	-5.57199e-05
3210.4	-6.80629e-05
3229.17	-8.27125e-05
3247.95	-0.000100008
3266.72	-0.000120322
3285.5	-0.000144059
3304.27	-0.000171653
3323.04	-0.000203571
3341.82	-0.000240306
3360.59	-0.000282373
3379.36	-0.000330305
3398.14	-0.00038465
3416.91	-0.000445953
3435.69	-0.000514757
3454.46	-0.000591583
3473.23	-0.000676917
3492.01	-0.000771196
3510.78	-0.000874783
3529.55	-0.000987952
3548.33	-0.00111086
3567.1	-0.0012435
3585.88	-0.00138573
3604.65	-0.00153714
3623.42	-0.00169713
3642.2	-0.00186478
3660.97	-0.00203884
3679.74	-0.00221772
3698.52	-0.00239938
3717.29	-0.00258134
3736.07	-0.0027606
3754.84	-0.00293361
3773.61	-0.00309623
3792.39	-0.00324365
3811.16	-0.0033704
3829.93	-0.00347029
3848.71	-0.00353637
3867.48	-0.00356092
3886.26	-0.00353542
3905.03	-0.00345056
3923.8	-0.00329625
3942.58	-0.00306159
3961.35	-0.00273495
3980.13	-0.00230398
3998.9	-0.00175568
4017.67	-0.00107646
4036.45	-0.000252222
4055.22	0.000731499
4074	0.00188946
4092.77	0.00323655
4111.55	0.00478766
4130.32	0.00655748
4149.09	0.00856035
4167.87	0.0108101
4186.64	0.0133197
4205.42	0.0161013
4224.19	0.0191658
4242.97	0.0225227
4261.74	0.02618
4280.51	0.0301436
4299.29	0.0344178
4318.06	0.0390042
4336.84	0.0439023
4355.61	0.049109
4374.39	0.0546183
4393.16	0.0604215
4411.93	0.0665069
4430.71	0.0728596
4449.48	0.0794619
4468.26	0.0862928
4487.03	0.0933285
4505.81	0.100542
4524.58	0.107903
4543.35	0.11538
4562.13	0.122936
4580.9	0.130535
4599.68	0.138137
4618.45	0.1457
4637.23	0.153181
4656	0.160536
4674.77	0.167719
4693.55	0.174684
4712.32	0.181387
4731.1	0.18778
4749.87	0.19382
4768.65	0.199462
4787.42	0.204663
4806.19	0.209385
4824.97	0.213588
4843.74	0.217236
4862.52	0.220299
4881.29	0.222745
4900.07	0.224551
4918.84	0.225694
4937.61	0.226158
4956.39	0.225928
4975.16	0.224997
4993.94	0.223361
5012.71	0.221019
5031.48	0.217979
5050.26	0.214249
5069.03	0.209845
5087.81	0.204785
5106.58	0.199093
5125.36	0.192797
5144.13	0.185929
5162.9	0.178523
5181.68	0.170617
5200.45	0.162255
5219.23	0.153479
5238	0.144337
5256.78	0.134876
5275.55	0.125146
5294.32	0.1152
5313.1	0.105087
5331.87	0.0948598
5350.65	0.0845703
5369.42	0.0742692
5388.2	0.0640065
5406.97	0.0538308
5425.74	0.043789
5444.52	0.033926
5463.29	0.024284
5482.07	0.0149028
5500.84	0.00581942
5519.62	-0.0029326
5538.39	-0.0113228
5557.17	-0.0193242
5575.94	-0.0269135
5594.71	-0.0340708
5613.49	-0.04078
5632.26	-0.0470287
5651.04	-0.052808
5669.81	-0.0581127
5688.59	-0.0629409
5707.36	-0.0672942
5726.13	-0.0711771
5744.91	-0.0745974
5763.68	-0.0775654
5782.46	-0.0800941
5801.23	-0.0821989
5820.01	-0.0838972
5838.78	-0.0852081
5857.55	-0.0861525
5876.33	-0.0867523
5895.1	-0.0870309
5913.88	-0.0870119
5932.65	-0.0867199
5951.43	-0.0861796
5970.2	-0.0854156
5988.97	-0.0844526
6007.75	-0.0833147
6026.52	-0.0820255
6045.3	-0.0806079
6064.07	-0.0790839
6082.85	-0.0774744
6101.62	-0.0757991
6120.39	-0.0740767
6139.17	-0.0723244
6157.94	-0.0705579
6176.72	-0.0687918
6195.49	-0.0670391
6214.27	-0.0653112
6233.04	-0.0636184
6251.81	-0.0619694
6270.59	-0.0603715
6289.36	-0.0588308
6308.14	-0.0573522
6326.91	-0.0559392
6345.69	-0.0545944
6364.46	-0.0533192
6383.23	-0.0521143
6402.01	-0.0509793
6420.78	-0.0499132
6439.56	-0.0489143
6458.33	-0.0479803
6477.11	-0.0471085
6495.88	-0.0462957
6514.66	-0.0455384
6533.43	-0.0448329
6552.2	-0.0441754
6570.98	-0.0435618
6589.75	-0.0429883
6608.53	-0.0424506
6627.3	-0.0419451
6646.08	-0.0414678
6664.85	-0.0410151
6683.62	-0.0405835
6702.4	-0.0401699
6721.17	-0.0397711
6739.95	-0.0393844
6758.72	-0.0390073
6777.5	-0.0386375
6796.27	-0.038273
6815.04	-0.037912
6833.82	-0.0375531
6852.59	-0.0371949
6871.37	-0.0368366
6890.14	-0.0364772
6908.92	-0.0361162
6927.69	-0.0357532
6946.46	-0.0353879
6965.24	-0.0350203
6984.01	-0.0346505
7002.79	-0.0342785
7021.56	-0.0339047
7040.34	-0.0335295
7059.11	-0.0331533
7077.88	-0.0327767
7096.66	-0.0324001
7115.43	-0.0320242
7134.21	-0.0316495
7152.98	-0.0312768
7171.76	-0.0309065
7190.53	-0.0305393
7209.3	-0.0301757
7228.08	-0.0298164
7246.85	-0.0294618
7265.63	-0.0291125
7284.4	-0.0287689
7303.18	-0.0284314
7321.95	-0.0281004
7340.72	-0.0277762
7359.5	-0.027459
7378.27	-0.0271491
7397.05	-0.0268467
7415.82	-0.0265518
7434.59	-0.0262645
7453.37	-0.0259848
7472.14	-0.0257126
7490.92	-0.0254479
7509.69	-0.0251904
7528.47	-0.0249399
7547.24	-0.0246962
7566.01	-0.0244588
7584.79	-0.0242275
7603.56	-0.0240018
7622.34	-0.0237811
7641.11	-0.0235649
7659.89	-0.0233527
7678.66	-0.0231438
7697.43	-0.0229375
7716.21	-0.0227331
7734.98	-0.0225298
7753.76	-0.0223269
7772.53	-0.0221234
7791.31	-0.0219186
7810.08	-0.0217115
7828.85	-0.0215013
7847.63	-0.021287
7866.4	-0.0210676
7885.18	-0.0208424
7903.95	-0.0206103
7922.73	-0.0203703
7941.5	-0.0201217
7960.27	-0.0198634
7979.05	-0.0195946
7997.82	-0.0193145
8016.6	-0.0190222
8035.37	-0.0187169
8054.14	-0.018398
8072.92	-0.0180648
8091.69	-0.0177165
8110.47	-0.0173527
8129.24	-0.0169729
8148.02	-0.0165766
8166.79	-0.0161635
8185.56	-0.0157333
8204.34	-0.0152857
8223.11	-0.0148208
8241.89	-0.0143383
8260.66	-0.0138385
8279.44	-0.0133213
8298.21	-0.0127871
8316.98	-0.0122361
8335.76	-0.0116686
8354.53	-0.0110853
8373.31	-0.0104866
8392.08	-0.00987312
8410.86	-0.00924561
8429.63	-0.00860483
8448.4	-0.00795163
8467.18	-0.00728692
8485.95	-0.00661168
8504.73	-0.00592694
8523.5	-0.00523378
8542.28	-0.00453333
8561.05	-0.00382678
8579.82	-0.00311531
8598.6	-0.00240019
8617.37	-0.00168266
8636.15	-0.000964026
8654.92	-0.000245576
8673.7	0.000471379
8692.47	0.00118553
8711.24	0.00189557
8730.02	0.00260019
8748.79	0.00329812
8767.57	0.00398807
8786.34	0.00466881
8805.12	0.00533912
8823.89	0.0059978
8842.66	0.00664371
8861.44	0.00727573
8880.21	0.0078928
8898.99	0.00849388
8917.76	0.00907801
8936.54	0.00964425
8955.31	0.0101917
8974.08	0.0107196
8992.86	0.0112272
9011.63	0.0117137
9030.41	0.0121785
9049.18	0.012621
9067.96	0.0130407
9086.73	0.0134371
9105.5	0.0138097
9124.28	0.0141583
9143.05	0.0144825
9161.83	0.0147819
9180.6	0.0150566
9199.38	0.0153062
9218.15	0.0155306
9236.92	0.0157299
9255.7	0.015904
9274.47	0.0160529
9293.25	0.0161767
9312.02	0.0162754
9330.8	0.0163493
9349.57	0.0163985
9368.34	0.0164232
9387.12	0.0164236
9405.89	0.0164
9424.67	0.0163526
9443.44	0.0162818
9462.22	0.0161878
9480.99	0.016071
9499.76	0.0159318
9518.54	0.0157704
9537.31	0.0155873
9556.09	0.0153829
9574.86	0.0151574
9593.64	0.0149114
9612.41	0.0146452
9631.18	0.0143592
9649.96	0.0140538
9668.73	0.0137295
9687.51	0.0133867
9706.28	0.0130257
9725.06	0.012647
9743.83	0.012251
9762.6	0.0118383
9781.38	0.0114091
9800.15	0.0109639
9818.93	0.0105033
9837.7	0.0100276
9856.48	0.00953723
9875.25	0.00903276
9894.02	0.00851462
9912.8	0.00798329
9931.57	0.00743925
9950.35	0.006883
9969.12	0.00631505
9987.9	0.00573591
10006.7	0.0051461
10025.4	0.00454618
10044.2	0.00393667
10063	0.00331814
10081.8	0.00269116
10100.5	0.00205632
10119.3	0.00141419
10138.1	0.000765384
10156.9	0.000110511
10175.6	-0.000549809
10194.4	-0.00121495
10213.2	-0.00188428
10232	-0.00255715
10250.7	-0.00323291
10269.5	-0.00391093
10288.3	-0.00459053
10307.1	-0.00527108
10325.8	-0.0059519
10344.6	-0.00663236
10363.4	-0.00731181
10382.2	-0.00798958
10400.9	-0.00866506
10419.7	-0.00933759
10438.5	-0.0100066
10457.3	-0.0106714
10476	-0.0113314
10494.8	-0.0119861
10513.6	-0.0126349
10532.4	-0.0132772
10551.1	-0.0139125
10569.9	-0.0145403
10588.7	-0.01516
10607.4	-0.0157712
10626.2	-0.0163734
10645	-0.0169662
10663.8	-0.0175492
10682.5	-0.0181219
10701.3	-0.018684
10720.1	-0.0192352
10738.9	-0.019775
10757.6	-0.0203032
10776.4	-0.0208195
10795.2	-0.0213236
10814	-0.0218152
10832.7	-0.0222941
10851.5	-0.02276
10870.3	-0.0232128
10889.1	-0.0236522
10907.8	-0.0240781
10926.6	-0.0244902
10945.4	-0.0248884
10964.2	-0.0252726
10982.9	-0.0256425
11001.7	-0.0259981
11020.5	-0.0263392
11039.3	-0.0266656
11058	-0.0269772
11076.8	-0.0272738
11095.6	-0.0275554
11114.4	-0.0278218
11133.1	-0.0280729
11151.9	-0.0283084
11170.7	-0.0285283
11189.5	-0.0287324
11208.2	-0.0289205
11227	-0.0290925
11245.8	-0.0292483
11264.5	-0.0293876
11283.3	-0.0295103
11302.1	-0.0296163
11320.9	-0.0297052
11339.6	-0.0297771
11358.4	-0.0298316
11377.2	-0.0298686
11396	-0.0298879
11414.7	-0.0298894
11433.5	-0.0298728
11452.3	-0.0298379
11471.1	-0.0297847
11489.8	-0.0297129
11508.6	-0.0296224
11527.4	-0.0295129
11546.2	-0.0293845
11564.9	-0.0292368
11583.7	-0.0290699
11602.5	-0.0288835
11621.3	-0.0286776
11640	-0.0284521
11658.8	-0.028207
11677.6	-0.0279421
11696.4	-0.0276574
11715.1	-0.027353
11733.9	-0.0270288
11752.7	-0.0266849
11771.5	-0.0263212
11790.2	-0.0259379
11809	-0.0255351
11827.8	-0.0251128
11846.6	-0.0246713
11865.3	-0.0242106
11884.1	-0.023731
11902.9	-0.0232326
11921.6	-0.0227158
11940.4	-0.0221807
11959.2	-0.0216277
11978	-0.0210571
11996.7	-0.0204692
12015.5	-0.0198643
12034.3	-0.0192429
12053.1	-0.0186053
12071.8	-0.017952
12090.6	-0.0172835
12109.4	-0.0166002
12128.2	-0.0159025
12146.9	-0.0151911
12165.7	-0.0144665
12184.5	-0.0137292
12203.3	-0.0129797
12222	-0.0122188
12240.8	-0.0114469
12259.6	-0.0106648
12278.4	-0.009873
12297.1	-0.00907223
12315.9	-0.00826315
12334.7	-0.00744643
12353.5	-0.00662277
12372.2	-0.00579287
12391	-0.00495744
12409.8	-0.00411721
12428.6	-0.00327291
12447.3	-0.00242527
12466.1	-0.00157503
12484.9	-0.00072295
12503.7	0.000130226
12522.4	0.000983742
12541.2	0.00183684
12560	0.00268876
12578.7	0.00353875
12597.5	0.00438605
12616.3	0.0052299
12635.1	0.00606954
12653.8	0.00690424
12672.6	0.00773323
12691.4	0.00855579
12710.2	0.00937117
12728.9	0.0101786
12747.7	0.0109775
12766.5	0.011767
12785.3	0.0125465
12804	0.0133152
12822.8	0.0140725
12841.6	0.0148177
12860.4	0.0155501
12879.1	0.0162691
12897.9	0.0169741
12916.7	0.0176643
12935.5	0.0183393
12954.2	0.0189984
12973	0.0196409
12991.8	0.0202664
13010.6	0.0208743
13029.3	0.0214641
13048.1	0.0220351
13066.9	0.0225869
13085.7	0.023119
13104.4	0.0236308
13123.2	0.0241221
13142	0.0245921
13160.8	0.0250406
13179.5	0.0254671
13198.3	0.0258712
13217.1	0.0262524
13235.8	0.0266105
13254.6	0.026945
13273.4	0.0272555
13292.2	0.0275418
13310.9	0.0278035
13329.7	0.0280403
13348.5	0.0282518
13367.3	0.0284379
13386	0.0285982
13404.8	0.0287325
13423.6	0.0288405
13442.4	0.028922
13461.1	0.0289769
13479.9	0.0290048
13498.7	0.0290056
13517.5	0.0289791
13536.2	0.0289253
13555	0.0288439
13573.8	0.0287348
13592.6	0.0285979
13611.3	0.0284331
13630.1	0.0282404
13648.9	0.0280197
13667.7	0.027771
13686.4	0.0274942
13705.2	0.0271894
13724	0.0268566
13742.8	0.0264958
13761.5	0.0261071
13780.3	0.0256907
13799.1	0.0252466
13817.9	0.024775
13836.6	0.024276
13855.4	0.02375
13874.2	0.0231971
13893	0.0226175
13911.7	0.0220117
13930.5	0.0213799
13949.3	0.0207224
13968	0.0200398
13986.8	0.0193324
14005.6	0.0186007
14024.4	0.0178453
14043.1	0.0170666
14061.9	0.0162654
14080.7	0.0154421
14099.5	0.0145975
14118.2	0.0137324
14137	0.0128474
14155.8	0.0119433
14174.6	0.0110211
14193.3	0.0100815
14212.1	0.00912563
14230.9	0.0081543
14249.7	0.00716856
14268.4	0.00616947
14287.2	0.00515812
14306	0.00413562
14324.8	0.00310315
14343.5	0.00206191
14362.3	0.00101312
14381.1	-4.19392e-05
14399.9	-0.00110198
14418.6	-0.00216568
14437.4	-0.00323168
14456.2	-0.00429861
14475	-0.00536508
14493.7	-0.00642967
14512.5	-0.00749096
14531.3	-0.00854751
14550.1	-0.00959787
14568.8	-0.0106406
14587.6	-0.0116742
14606.4	-0.0126973
14625.1	-0.0137084
14643.9	-0.0147061
14662.7	-0.0156889
14681.5	-0.0166555
14700.2	-0.0176045
14719	-0.0185345
14737.8	-0.0194442
14756.6	-0.0203323
14775.3	-0.0211976
14794.1	-0.0220388
14812.9	-0.0228548
14831.7	-0.0236444
14850.4	-0.0244067
14869.2	-0.0251405
14888	-0.025845
14906.8	-0.0265192
14925.5	-0.0271623
14944.3	-0.0277736
14963.1	-0.0283523
14981.9	-0.028898
15000.6	-0.0294099
15019.4	-0.0298877
15038.2	-0.030331
15057	-0.0307394
15075.7	-0.0311127
15094.5	-0.0314508
15113.3	-0.0317535
15132.1	-0.032021
15150.8	-0.0322532
15169.6	-0.0324503
15188.4	-0.0326126
15207.2	-0.0327403
15225.9	-0.0328339
15244.7	-0.0328938
15263.5	-0.0329205
15282.3	-0.0329146
15301	-0.0328767
15319.8	-0.0328077
15338.6	-0.0327082
15357.3	-0.0325791
15376.1	-0.0324213
15394.9	-0.0322356
15413.7	-0.0320231
15432.4	-0.0317848
15451.2	-0.0315217
15470	-0.0312349
15488.8	-0.0309254
15507.5	-0.0305945
15526.3	-0.0302433
15545.1	-0.0298729
15563.9	-0.0294845
15582.6	-0.0290793
15601.4	-0.0286585
15620.2	-0.0282232
15639	-0.0277746
15657.7	-0.0273138
15676.5	-0.0268421
15695.3	-0.0263605
15714.1	-0.0258702
15732.8	-0.0253722
15751.6	-0.0248676
15770.4	-0.0243575
15789.2	-0.0238427
15807.9	-0.0233244
15826.7	-0.0228033
15845.5	-0.0222805
15864.3	-0.0217567
15883	-0.0212327
15901.8	-0.0207094
15920.6	-0.0201874
15939.4	-0.0196674
15958.1	-0.0191501
15976.9	-0.0186359
15995.7	-0.0181255
16014.4	-0.0176194
16033.2	-0.0171179
16052	-0.0166216
16070.8	-0.0161307
16089.5	-0.0156455
16108.3	-0.0151664
16127.1	-0.0146936
16145.9	-0.0142273
16164.6	-0.0137676
16183.4	-0.0133146
16202.2	-0.0128685
16221	-0.0124293
16239.7	-0.011997
16258.5	-0.0115717
16277.3	-0.0111532
16296.1	-0.0107416
16314.8	-0.0103367
16333.6	-0.00993854
16352.4	-0.00954691
16371.2	-0.00916171
16389.9	-0.0087828
16408.7	-0.00841003
16427.5	-0.00804323
16446.3	-0.00768223
16465	-0.00732686
16483.8	-0.00697694
16502.6	-0.00663229
16521.4	-0.00629272
16540.1	-0.00595806
16558.9	-0.00562813
16577.7	-0.00530276
16596.5	-0.00498177
16615.2	-0.00466501
16634	-0.00435234
16652.8	-0.00404359
16671.5	-0.00373865
16690.3	-0.00343738
16709.1	-0.00313968
16727.9	-0.00284546
16746.6	-0.00255461
16765.4	-0.00226708
16784.2	-0.00198279
16803	-0.00170171
16821.7	-0.0014238
16840.5	-0.00114904
16859.3	-0.000877432
16878.1	-0.000608973
16896.8	-0.000343687
16915.6	-8.16079e-05
16934.4	0.000177218
16953.2	0.000432734
16971.9	0.00068487
16990.7	0.000933546
17009.5	0.00117867
17028.3	0.00142015
17047	0.00165787
17065.8	0.00189171
17084.6	0.00212155
17103.4	0.00234725
17122.1	0.00256869
17140.9	0.00278571
17159.7	0.00299818
17178.5	0.00320594
17197.2	0.00340883
17216	0.00360671
17234.8	0.00379942
17253.6	0.00398681
17272.3	0.00416871
17291.1	0.00434498
17309.9	0.00451546
17328.7	0.00468001
17347.4	0.00483849
17366.2	0.00499076
17385	0.00513667
17403.7	0.00527611
17422.5	0.00540896
17441.3	0.0055351
17460.1	0.00565442
17478.8	0.00576683
17497.6	0.00587224
17516.4	0.00597056
17535.2	0.00606174
17553.9	0.00614572
17572.7	0.00622243
17591.5	0.00629186
17610.3	0.00635396
17629	0.00640873
17647.8	0.00645616
17666.6	0.00649627
17685.4	0.00652907
17704.1	0.0065546
17722.9	0.0065729
17741.7	0.00658403
17760.5	0.00658806
17779.2	0.00658507
17798	0.00657516
17816.8	0.00655844
17835.6	0.00653501
17854.3	0.00650501
17873.1	0.00646859
17891.9	0.00642589
17910.7	0.00637707
17929.4	0.00632231
17948.2	0.0062618
17967	0.00619572
17985.8	0.00612427
18004.5	0.00604767
18023.3	0.00596614
18042.1	0.00587989
18060.8	0.00578918
18079.6	0.00569423
18098.4	0.00559529
18117.2	0.00549262
18135.9	0.00538647
18154.7	0.00527711
18173.5	0.00516479
18192.3	0.00504979
18211	0.00493237
18229.8	0.00481281
18248.6	0.00469138
18267.4	0.00456835
18286.1	0.00444399
18304.9	0.00431858
18323.7	0.00419237
18342.5	0.00406565
18361.2	0.00393866
18380	0.00381167
18398.8	0.00368493
18417.6	0.0035587
18436.3	0.0034332
18455.1	0.00330868
18473.9	0.00318536
18492.7	0.00306348
18511.4	0.00294322
18530.2	0.00282481
18549	0.00270843
18567.8	0.00259426
18586.5	0.00248249
18605.3	0.00237327
18624.1	0.00226674
18642.9	0.00216306
18661.6	0.00206235
18680.4	0.00196472
18699.2	0.00187028
18717.9	0.00177911
18736.7	0.0016913
18755.5	0.0016069
18774.3	0.00152597
18793	0.00144856
18811.8	0.00137467
18830.6	0.00130434
18849.4	0.00123755
18868.1	0.00117429
18886.9	0.00111455
18905.7	0.00105828
18924.5	0.00100543
18943.2	0.000955952
18962	0.000909761
18980.8	0.000866781
18999.6	0.000826917
19018.3	0.000790067
19037.1	0.000756119
19055.9	0.000724951
19074.7	0.000696432
19093.4	0.000670427
19112.2	0.000646789
19131	0.000625367
19149.8	0.000606003
19168.5	0.000588535
19187.3	0.000572795
19206.1	0.00055861
19224.9	0.000545806
19243.6	0.000534204
19262.4	0.000523626
19281.2	0.000513889
19300	0.000504813
19318.7	0.000496215
19337.5	0.000487914
19356.3	0.000479732
19375.1	0.00047149
19393.8	0.000463015
19412.6	0.000454134
19431.4	0.000444682
19450.1	0.000434494
19468.9	0.000423414
19487.7	0.000411291
19506.5	0.000397978
19525.2	0.000383337
19544	0.000367237
19562.8	0.000349554
19581.6	0.000330172
19600.3	0.000308984
19619.1	0.000285893
19637.9	0.000260809
19656.7	0.000233652
19675.4	0.000204353
19694.2	0.000172853
19713	0.0001391
19731.8	0.000103056
19750.5	6.46922e-05
19769.3	2.39896e-05
19788.1	-1.90597e-05
19806.9	-6.44529e-05
19825.6	-0.000112177
19844.4	-0.000162208
19863.2	-0.000214512
19882	-0.000269045
19900.7	-0.000325752
19919.5	-0.000384568
19938.3	-0.00044542
19957.1	-0.000508223
19975.8	-0.000572884
19994.6	-0.000639302
