0	0
157.951	0
315.902	0
473.853	0
631.803	0
789.754	0
947.705	0
1105.66	0
1263.61	0
1421.56	0
1579.51	0
1737.46	2.17338e-06
1895.41	7.73813e-05
2053.36	0.000436455
2211.31	0.00146681
2369.26	0.00376318
2527.2	0.00808407
2685.15	0.0151927
2843.1	0.0256187
3001.04	0.0394494
3158.99	0.056241
3316.93	0.0750709
3474.88	0.0946899
3632.83	0.113713
3790.77	0.1308
3948.72	0.144803
4106.67	0.154861
4264.62	0.160455
4422.57	0.161416
4580.51	0.157889
4738.46	0.150277
4896.41	0.139169
5054.36	0.125273
5212.31	0.109349
5370.27	0.0921666
5528.22	0.0744599
5686.17	0.0569028
5844.12	0.0400833
6002.07	0.0244848
6160.02	0.0104722
6317.97	-0.00171568
6475.93	-0.0119657
6633.88	-0.0202812
6791.83	-0.0267647
6949.78	-0.0315948
7107.73	-0.0349983
7265.68	-0.0372242
7423.63	-0.0385194
7581.58	-0.0391104
7739.53	-0.0391929
7897.48	-0.0389267
8055.44	-0.0384379
8213.39	-0.0378235
8371.34	-0.0371589
8529.29	-0.0365037
8687.24	-0.035907
8845.19	-0.0354095
9003.14	-0.0350435
9161.09	-0.0348316
9319.04	-0.0347846
9476.99	-0.0349003
9634.94	-0.0351633
9792.89	-0.035546
9950.84	-0.0360123
10108.8	-0.0365212
10266.7	-0.0370316
10424.7	-0.0375062
10582.6	-0.0379147
10740.6	-0.0382359
10898.5	-0.0384575
11056.5	-0.0385752
11214.4	-0.0385906
11372.4	-0.0385086
11530.3	-0.0383352
11688.3	-0.0380752
11846.2	-0.037731
12004.2	-0.0373024
12162.1	-0.0367862
12320.1	-0.0361777
12478	-0.0354713
12636	-0.0346619
12793.9	-0.0337454
12951.9	-0.0327196
13109.8	-0.0315843
13267.8	-0.0303413
13425.7	-0.0289941
13583.7	-0.0275475
13741.7	-0.0260073
13899.6	-0.0243805
14057.6	-0.0226744
14215.5	-0.0208977
14373.5	-0.0190598
14531.4	-0.0171715
14689.4	-0.015245
14847.3	-0.0132937
15005.3	-0.0113326
15163.2	-0.00937763
15321.2	-0.00744523
15479.1	-0.00555223
15637.1	-0.00371509
15795	-0.0019495
15953	-0.000269931
16110.9	0.00131075
16268.9	0.00278151
16426.8	0.00413333
16584.8	0.0053593
16742.7	0.00645465
16900.7	0.00741667
17058.6	0.00824468
17216.6	0.00893991
17374.5	0.00950539
17532.5	0.00994574
17690.4	0.0102671
17848.4	0.0104767
18006.3	0.0105829
18164.3	0.0105949
18322.2	0.0105221
18480.2	0.0103744
18638.1	0.0101614
18796.1	0.00989271
18954	0.00957722
19112	0.00922328
19269.9	0.00883846
19427.9	0.0084295
19585.8	0.00800228
19743.8	0.00756184
19901.7	0.00711237
