0	0
41.6463	0
83.2925	0
124.939	0
166.585	0
208.231	0
249.878	0
291.524	0
333.17	0
374.816	0
416.463	0
458.109	0
499.755	0
541.402	0
583.048	0
624.694	0
666.34	0
707.987	0
749.633	0
791.279	0
832.925	0
874.572	0
916.218	0
957.864	0
999.511	0
1041.16	0
1082.8	0
1124.45	0
1166.1	0
1207.74	0
1249.39	0
1291.03	0
1332.68	0
1374.33	0
1415.97	0
1457.62	0
1499.27	0
1540.91	0
1582.56	0
1624.2	0
1665.85	0
1707.5	1.81899e-12
1749.14	9.09495e-12
1790.79	3.81988e-11
1832.44	1.35515e-10
1874.08	4.35648e-10
1915.73	1.27056e-09
1957.37	3.41061e-09
1999.02	8.50378e-09
2040.67	1.98515e-08
2082.31	4.36848e-08
2123.96	9.11323e-08
2165.61	1.81102e-07
2207.25	3.4426e-07
2248.9	6.28265e-07
2290.54	1.10431e-06
2332.19	1.87497e-06
2373.84	3.08331e-06
2415.48	4.9233e-06
2457.13	7.6521e-06
2498.78	1.16054e-05
2540.42	1.72187e-05
2582.07	2.50595e-05
2623.71	3.58784e-05
2665.36	5.06916e-05
2707.01	7.09111e-05
2748.65	9.85442e-05
2790.3	0.000136489
2831.94	0.000188951
2873.59	0.000262015
2915.23	0.000364388
2956.88	0.000508332
2998.52	0.000710781
3040.17	0.000994621
3081.81	0.00139007
3123.46	0.0019361
3165.1	0.00268171
3206.75	0.00368705
3248.39	0.00502401
3290.04	0.00677631
3331.68	0.00903876
3373.33	0.0119156
3414.97	0.0155177
3456.62	0.0199589
3498.26	0.0253508
3539.91	0.0317973
3581.55	0.0393871
3623.2	0.0481874
3664.84	0.058236
3706.49	0.0695343
3748.13	0.0820411
3789.78	0.0956679
3831.42	0.110275
3873.07	0.125671
3914.71	0.141612
3956.36	0.157809
3998	0.173929
4039.65	0.189609
4081.3	0.204462
4122.94	0.218091
4164.59	0.230103
4206.23	0.240125
4247.88	0.247812
4289.53	0.252865
4331.17	0.255044
4372.82	0.254173
4414.47	0.25015
4456.11	0.242952
4497.76	0.232635
4539.4	0.219333
4581.05	0.203256
4622.7	0.184678
4664.34	0.163933
4705.99	0.141401
4747.64	0.117493
4789.28	0.0926456
4830.93	0.0672994
4872.57	0.0418907
4914.22	0.0168381
4955.87	-0.00746828
4997.51	-0.0306759
5039.16	-0.052477
5080.8	-0.072614
5122.45	-0.0908826
5164.1	-0.107133
5205.74	-0.12127
5247.39	-0.133248
5289.04	-0.143072
5330.68	-0.150788
5372.33	-0.156479
5413.97	-0.16026
5455.62	-0.16227
5497.27	-0.162665
5538.91	-0.161615
5580.56	-0.159295
5622.21	-0.155878
5663.85	-0.151537
5705.5	-0.146437
5747.14	-0.14073
5788.79	-0.13456
5830.44	-0.128053
5872.08	-0.121324
5913.73	-0.11447
5955.37	-0.107577
5997.02	-0.100715
6038.67	-0.0939424
6080.31	-0.087306
6121.96	-0.0808423
6163.61	-0.0745793
6205.25	-0.0685372
6246.9	-0.0627299
6288.54	-0.0571662
6330.19	-0.0518504
6371.84	-0.0467836
6413.48	-0.0419641
6455.13	-0.0373879
6496.77	-0.0330494
6538.42	-0.0289417
6580.07	-0.0250568
6621.71	-0.0213856
6663.36	-0.0179187
6705.01	-0.0146458
6746.65	-0.0115567
6788.3	-0.00864042
6829.94	-0.00588638
6871.59	-0.0032839
6913.24	-0.000822679
6954.88	0.00150711
6996.53	0.0037146
7038.18	0.00580802
7079.82	0.00779455
7121.47	0.00968014
7163.11	0.0114694
7204.76	0.0131654
7246.41	0.0147699
7288.05	0.016283
7329.7	0.0177032
7371.35	0.0190278
7412.99	0.0202527
7454.64	0.0213728
7496.28	0.022382
7537.93	0.0232736
7579.58	0.0240403
7621.22	0.0246749
7662.87	0.02517
7704.52	0.025519
7746.16	0.0257157
7787.81	0.0257548
7829.45	0.0256322
7871.1	0.0253451
7912.75	0.0248923
7954.39	0.0242739
7996.04	0.0234918
8037.68	0.0225497
8079.33	0.021453
8120.98	0.0202085
8162.62	0.0188249
8204.27	0.017312
8245.91	0.0156814
8287.56	0.0139453
8329.21	0.0121174
8370.85	0.0102118
8412.5	0.00824324
8454.15	0.00622699
8495.79	0.0041783
8537.44	0.0021124
8579.08	4.4276e-05
8620.73	-0.00201154
8662.38	-0.00404111
8704.02	-0.00603124
8745.67	-0.00796964
8787.31	-0.00984499
8828.96	-0.011647
8870.61	-0.0133667
8912.25	-0.014996
8953.9	-0.0165282
8995.54	-0.0179577
9037.19	-0.0192802
9078.84	-0.0204923
9120.48	-0.021592
9162.13	-0.0225781
9203.77	-0.0234502
9245.42	-0.0242092
9287.07	-0.0248564
9328.71	-0.0253938
9370.36	-0.0258243
9412.01	-0.0261508
9453.65	-0.0263771
9495.3	-0.026507
9536.94	-0.0265447
9578.59	-0.0264943
9620.24	-0.0263603
9661.88	-0.026147
9703.53	-0.0258588
9745.17	-0.0254999
9786.82	-0.0250745
9828.47	-0.0245866
9870.11	-0.02404
9911.76	-0.0234384
9953.41	-0.0227852
9995.05	-0.0220837
10036.7	-0.0213369
10078.3	-0.0205478
10120	-0.0197191
10161.6	-0.0188533
10203.3	-0.0179528
10244.9	-0.0170201
10286.6	-0.0160573
10328.2	-0.0150666
10369.9	-0.0140502
10411.5	-0.0130102
10453.2	-0.0119487
10494.8	-0.010868
10536.5	-0.00977012
10578.1	-0.00865752
10619.7	-0.00753253
10661.4	-0.00639764
10703	-0.00525545
10744.7	-0.00410868
10786.3	-0.00296018
10828	-0.00181292
10869.6	-0.000670006
10911.3	0.000465334
10952.9	0.00158976
10994.6	0.00269982
11036.2	0.00379199
11077.9	0.00486264
11119.5	0.00590809
11161.1	0.00692465
11202.8	0.00790857
11244.4	0.00885613
11286.1	0.00976366
11327.7	0.0106275
11369.4	0.0114441
11411	0.0122101
11452.7	0.0129221
11494.3	0.013577
11536	0.0141719
11577.6	0.014704
11619.3	0.0151709
11660.9	0.0155702
11702.5	0.0159
11744.2	0.0161587
11785.8	0.0163448
11827.5	0.0164573
11869.1	0.0164955
11910.8	0.0164589
11952.4	0.0163476
11994.1	0.0161619
12035.7	0.0159023
12077.4	0.0155698
12119	0.0151659
12160.7	0.014692
12202.3	0.0141503
12243.9	0.0135429
12285.6	0.0128724
12327.2	0.0121417
12368.9	0.011354
12410.5	0.0105125
12452.2	0.00962094
12493.8	0.00868305
12535.5	0.00770284
12577.1	0.00668447
12618.8	0.00563223
12660.4	0.00455054
12702.1	0.00344391
12743.7	0.00231691
12785.4	0.00117417
12827	2.03279e-05
12868.6	-0.00113997
12910.3	-0.00230213
12951.9	-0.00346157
12993.6	-0.00461383
13035.2	-0.00575451
13076.9	-0.00687936
13118.5	-0.00798424
13160.2	-0.00906519
13201.8	-0.0101184
13243.5	-0.0111404
13285.1	-0.0121277
13326.8	-0.0130771
13368.4	-0.0139858
13410	-0.0148512
13451.7	-0.0156708
13493.3	-0.0164425
13535	-0.0171644
13576.6	-0.0178351
13618.3	-0.0184531
13659.9	-0.0190176
13701.6	-0.0195278
13743.2	-0.0199832
13784.9	-0.0203838
13826.5	-0.0207295
13868.2	-0.0210208
13909.8	-0.0212583
13951.4	-0.0214428
13993.1	-0.0215754
14034.7	-0.0216574
14076.4	-0.0216902
14118	-0.0216757
14159.7	-0.0216155
14201.3	-0.0215118
14243	-0.0213665
14284.6	-0.021182
14326.3	-0.0209606
14367.9	-0.0207048
14409.6	-0.0204169
14451.2	-0.0200996
14492.8	-0.0197555
14534.5	-0.0193871
14576.1	-0.018997
14617.8	-0.0185878
14659.4	-0.018162
14701.1	-0.0177222
14742.7	-0.0172709
14784.4	-0.0168104
14826	-0.016343
14867.7	-0.0158711
14909.3	-0.0153968
14951	-0.0149221
14992.6	-0.0144491
15034.2	-0.0139795
15075.9	-0.0135151
15117.5	-0.0130575
15159.2	-0.0126082
15200.8	-0.0121686
15242.5	-0.0117398
15284.1	-0.011323
15325.8	-0.0109192
15367.4	-0.010529
15409.1	-0.0101533
15450.7	-0.00979244
15492.4	-0.00944695
15534	-0.00911702
15575.7	-0.00880277
15617.3	-0.00850416
15658.9	-0.00822103
15700.6	-0.00795308
15742.2	-0.00769989
15783.9	-0.00746089
15825.5	-0.00723542
15867.2	-0.0070227
15908.8	-0.00682184
15950.5	-0.00663185
15992.1	-0.00645168
16033.8	-0.00628018
16075.4	-0.00611615
16117.1	-0.00595834
16158.7	-0.00580545
16200.3	-0.00565618
16242	-0.00550921
16283.6	-0.00536323
16325.3	-0.00521696
16366.9	-0.00506914
16408.6	-0.0049186
16450.2	-0.00476422
16491.9	-0.00460496
16533.5	-0.0044399
16575.2	-0.00426824
16616.8	-0.00408928
16658.5	-0.00390248
16700.1	-0.00370745
16741.7	-0.00350395
16783.4	-0.00329189
16825	-0.00307138
16866.7	-0.00284266
16908.3	-0.00260617
16950	-0.00236249
16991.6	-0.00211237
17033.3	-0.00185673
17074.9	-0.00159659
17116.6	-0.00133315
17158.2	-0.0010677
17199.9	-0.000801623
17241.5	-0.000536413
17283.1	-0.000273615
17324.8	-1.48211e-05
17366.4	0.00023835
17408.1	0.000484278
17449.7	0.000721356
17491.4	0.000948021
17533	0.00116277
17574.7	0.00136418
17616.3	0.00155094
17658	0.00172184
17699.6	0.00187582
17741.3	0.00201199
17782.9	0.00212958
17824.5	0.00222806
17866.2	0.00230703
17907.8	0.00236633
17949.5	0.00240597
17991.1	0.00242617
18032.8	0.00242734
18074.4	0.00241011
18116.1	0.00237527
18157.7	0.00232381
18199.4	0.00225688
18241	0.0021758
18282.7	0.00208203
18324.3	0.00197714
18365.9	0.00186283
18407.6	0.00174087
18449.2	0.00161313
18490.9	0.00148151
18532.5	0.00134792
18574.2	0.00121431
18615.8	0.00108261
18657.5	0.000954692
18699.1	0.000832405
18740.8	0.000717508
18782.4	0.000611676
18824.1	0.000516472
18865.7	0.000433345
18907.4	0.000363603
18949	0.000308412
18990.6	0.000268782
19032.3	0.00024556
19073.9	0.000239425
19115.6	0.000250885
19157.2	0.000280274
19198.9	0.000327752
19240.5	0.00039331
19282.2	0.000476773
19323.8	0.000577802
19365.5	0.000695907
19407.1	0.000830452
19448.8	0.000980664
19490.4	0.00114565
19532	0.0013244
19573.7	0.0015158
19615.3	0.00171867
19657	0.00193173
19698.6	0.00215365
19740.3	0.00238306
19781.9	0.00261856
19823.6	0.00285872
19865.2	0.00310211
19906.9	0.00334732
19948.5	0.00359293
19990.2	0.00383758
