time,surface_elevation,reference_data,number_of_local_cells,number_of_global_cells
0,100,0,256,256
0.0521425,100,0,256,256
0.104285,100,0,256,256
0.156427,100,0,256,256
0.20857,100,0,256,256
0.260712,100,0,256,256
0.312855,100,0,256,256
0.351962,100,0,256,256
0.404104,100,0,256,256
0.456247,100,0,256,256
0.508389,100,0,256,256
0.560532,100,0,256,256
0.612674,100,0,256,256
0.651781,100,0,256,256
0.703924,100,0,256,256
0.756066,100,0,256,256
0.808209,100,0,256,256
0.860351,100,0,256,256
0.912493,100,0,256,256
0.9516,100,0,256,256
1.00374,100,0,256,256
1.05589,100,0,256,256
1.10803,100,0,256,256
1.16017,100,0,256,256
1.21231,100,0,256,256
1.25142,100,0,256,256
1.30356,100,0,256,256
1.3557,100,0,256,256
1.40785,100,0,256,256
1.45999,100,0,256,256
1.51213,100,0,256,256
1.55124,100,0,256,256
1.60338,100,0,256,256
1.65552,100,0,256,256
1.70767,100,0,256,256
1.75981,100,0,256,256
1.81195,100,0,256,256
1.85106,100,0,256,256
1.9032,100,0,256,256
1.95534,100,0,256,256
2.00749,100,0,256,256
2.05963,100,0,256,256
2.11177,100,0,256,256
2.15088,100,0,256,256
2.20302,100,0,256,256
2.25516,100,0,256,256
2.3073,100,0,256,256
2.35945,100,0,256,256
2.41159,100,0,256,256
2.4507,100,0,256,256
2.50284,100,0,256,256
2.55498,100,0,256,256
2.60712,100,0,256,256
2.65927,100,0,256,256
2.71141,100,0,256,256
2.75052,100,0,256,256
2.80266,100,0,256,256
2.8548,100,0,256,256
2.90694,100,0,256,256
2.95909,100,0,256,256
3.01123,100,0,256,256
3.05034,100,0,256,256
3.10248,100,0,256,256
3.15462,100,0,256,256
3.20676,100,0,256,256
3.25891,100,0,256,256
3.31105,100,0,256,256
3.35015,100,0,256,256
3.4023,100,0,256,256
3.45444,100,0,256,256
3.50658,100,0,256,256
3.55872,100,0,256,256
3.61087,100,0,256,256
3.66301,100,0,256,256
3.70212,100,0,256,256
3.75426,100,0,256,256
3.8064,100,0,256,256
3.85854,100,0,256,256
3.91069,100,0,256,256
3.96283,100,0,256,256
4.00194,100,0,256,256
4.05408,100,0,256,256
4.10622,100,0,256,256
4.15836,100,0,256,256
4.21051,100,0,256,256
4.26265,100,0,256,256
4.30176,100,0,256,256
4.3539,100,0,256,256
4.40604,100,0,256,256
4.45818,100,0,256,256
4.51032,100,0,256,256
4.56247,100,0,256,256
4.60157,100,0,256,256
4.65372,100,0,256,256
4.70586,100,0,256,256
4.758,100,0,256,256
4.81014,100,0,256,256
4.86229,100,0,256,256
4.90139,100,0,256,256
4.95354,100,0,256,256
5.00568,100,0,256,256
5.05782,100,0,256,256
5.10996,100,0,256,256
5.16211,100,0,256,256
5.20121,100,0,256,256
5.25336,100,0,256,256
5.3055,100,0,256,256
5.35764,100,0,256,256
5.40978,100,0,256,256
5.46193,100,0,256,256
5.50103,100,0,256,256
5.55317,100,0,256,256
5.60532,100,0,256,256
5.65746,100,0,256,256
5.7096,100,0,256,256
5.76174,100,0,256,256
5.80085,100,0,256,256
5.85299,100,0,256,256
5.90514,100,0,256,256
5.95728,100,0,256,256
6.00942,100,0,256,256
6.06156,100,0,256,256
6.10067,100,0,256,256
6.15281,100,0,256,256
6.20496,100,0,256,256
6.2571,100,0,256,256
6.30924,100,0,256,256
6.36138,100,0,256,256
6.40049,100,0,256,256
6.45263,100,0,256,256
6.50478,100,0,256,256
6.55692,100,0,256,256
6.60906,100,0,256,256
6.6612,100,0,256,256
6.70031,100,0,256,256
6.75245,100,0,256,256
6.80459,100,0,256,256
6.85674,100,0,256,256
6.90888,100,0,256,256
6.96102,100,0,256,256
7.00013,100,0,256,256
7.05227,100,0,256,256
7.10441,100,0,256,256
7.15656,100,0,256,256
7.2087,100,0,256,256
7.26084,100,0,256,256
7.31298,100,0,256,256
7.35209,100,0,256,256
7.40423,100,0,256,256
7.45638,100,0,256,256
7.50852,100,0,256,256
7.56066,100,0,256,256
7.6128,100,0,256,256
7.65191,100,0,256,256
7.70405,100,0,256,256
7.75619,100,0,256,256
7.80834,100,0,256,256
7.86048,100,0,256,256
7.91262,100,0,256,256
7.95173,100,0,256,256
8.00387,100,0,256,256
8.05601,100,0,256,256
8.10816,100,0,256,256
8.1603,100,0,256,256
8.21244,100,0,256,256
8.25155,100,0,256,256
8.30369,100,0,256,256
8.35583,100,0,256,256
8.40798,100,0,256,256
8.46012,100,0,256,256
8.51226,100,0,256,256
8.55137,100,0,256,256
8.60351,100,0,256,256
8.65565,100,0,256,256
8.7078,100,0,256,256
8.75994,100,0,256,256
8.81208,100,0,256,256
8.85119,100,0,256,256
8.90333,100,0,256,256
8.95547,100,0,256,256
9.00761,100,0,256,256
9.05976,100,0,256,256
9.1119,100,0,256,256
9.15101,100,0,256,256
9.20315,100,0,256,256
9.25529,100,0,256,256
9.30743,100,0,256,256
9.35958,100,0,256,256
9.41172,100,0,256,256
9.45083,100,0,256,256
9.50297,100,0,256,256
9.55511,100,0,256,256
9.60725,100,0,256,256
9.6594,100,0,256,256
9.71154,100,0,256,256
9.75064,100,0,256,256
9.80279,100,0,256,256
9.85493,100,0,256,256
9.90707,100,0,256,256
9.95921,100,0,256,256
10.0114,100,0,256,256
10.0505,100,0,256,256
10.1026,100,0,256,256
10.1547,100,0,256,256
10.2069,100,0,256,256
10.259,100,0,256,256
10.3112,100,0,256,256
10.3503,100,0,256,256
10.4024,100,0,256,256
10.4546,100,0,256,256
10.5067,100,0,256,256
10.5589,100,0,256,256
10.611,100,0,256,256
10.6501,100,0,256,256
10.7022,100,0,256,256
10.7544,100,0,256,256
10.8065,100,0,256,256
10.8587,100,0,256,256
10.9108,100,0,256,256
10.963,100,0,256,256
11.0021,100,0,256,256
11.0542,100,0,256,256
11.1063,100,0,256,256
11.1585,100,0,256,256
11.2106,100,0,256,256
11.2628,100,0,256,256
11.3019,100,0,256,256
11.354,100,0,256,256
11.4062,100,0,256,256
11.4583,100,0,256,256
11.5105,100,0,256,256
11.5626,100,0,256,256
11.6017,100,0,256,256
11.6538,100,0,256,256
11.706,100,0,256,256
11.7581,100,0,256,256
11.8103,100,0,256,256
11.8624,100,0,256,256
11.9015,100,0,256,256
11.9537,100,0,256,256
12.0058,100,0,256,256
12.0579,100,0,256,256
12.1101,100,0,256,256
12.1622,100,0,256,256
12.2013,100,0,256,256
12.2535,100,0,256,256
12.3056,100,0,256,256
12.3578,100,0,256,256
12.4099,100,0,256,256
12.4621,100,0,256,256
12.5012,100,0,256,256
12.5533,100,0,256,256
12.6054,100,0,256,256
12.6576,100,0,256,256
12.7097,100,0,256,256
12.7619,100,0,256,256
12.801,100,0,256,256
12.8531,100,0,256,256
12.9053,100,0,256,256
12.9574,100,0,256,256
13.0096,100,0,256,256
13.0617,100,0,256,256
13.1008,100,0,256,256
13.1529,100,0,256,256
13.2051,100,0,256,256
13.2572,100,0,256,256
13.3094,100,0,256,256
13.3615,100,0,256,256
13.4006,100,0,256,256
13.4528,100,0,256,256
13.5049,100,0,256,256
13.557,100,0,256,256
13.6092,100,0,256,256
13.6613,100,0,256,256
13.7004,100,0,256,256
13.7526,100,0,256,256
13.8047,100,0,256,256
13.8569,100,0,256,256
13.909,100,0,256,256
13.9612,100,0,256,256
14.0003,100,0,256,256
14.0524,100,0,256,256
14.1045,100,0,256,256
14.1567,100,0,256,256
14.2088,100,0,256,256
14.261,100,0,256,256
14.3001,100,0,256,256
14.3522,100,0,256,256
14.4044,100,0,256,256
14.4565,100,0,256,256
14.5086,100,0,256,256
14.5608,100,0,256,256
14.6129,100,0,256,256
14.652,100,0,256,256
14.7042,100,0,256,256
14.7563,100,0,256,256
14.8085,100,0,256,256
14.8606,100,0,256,256
14.9128,100,0,256,256
14.9519,100,0,256,256
15.004,100,0,256,256
15.0561,100,0,256,256
15.1083,100,0,256,256
15.1604,100,0,256,256
15.2126,100,0,256,256
15.2517,100,0,256,256
15.3038,100,0,256,256
15.356,100,0,256,256
15.4081,100,0,256,256
15.4602,100,0,256,256
15.5124,100,0,256,256
15.5515,100,0,256,256
15.6036,100,0,256,256
15.6558,100,0,256,256
15.7079,100,0,256,256
15.7601,100,0,256,256
15.8122,100,0,256,256
15.8513,100,0,256,256
15.9035,100,0,256,256
15.9556,100,0,256,256
16.0077,100,0,256,256
16.0599,100,0,256,256
16.112,100,0,256,256
16.1511,100,0,256,256
16.2033,100,0,256,256
16.2554,100,0,256,256
16.3076,100,0,256,256
16.3597,100,0,256,256
16.4118,100,0,256,256
16.451,100,0,256,256
16.5031,100,0,256,256
16.5552,100,0,256,256
16.6074,100,0,256,256
16.6595,100,0,256,256
16.7117,100,0,256,256
16.7508,100,0,256,256
16.8029,100,0,256,256
16.8551,100,0,256,256
16.9072,100,0,256,256
16.9593,100,0,256,256
17.0115,100,0,256,256
17.0506,100,0,256,256
17.1027,100,0,256,256
17.1549,100,0,256,256
17.207,100,0,256,256
17.2592,100,0,256,256
17.3113,100,0,256,256
17.3504,100,0,256,256
17.4026,100,0,256,256
17.4547,100,0,256,256
17.5068,100,0,256,256
17.559,100,0,256,256
17.6111,100,0,256,256
17.6502,100,0,256,256
17.7024,100,0,256,256
17.7545,100,0,256,256
17.8067,100,0,256,256
17.8588,100,0,256,256
17.9109,100,0,256,256
17.9501,100,0,256,256
18.0022,100,0,256,256
18.0543,100,0,256,256
18.1065,100,0,256,256
18.1586,100,0,256,256
18.2108,100,0,256,256
18.2629,100,0,256,256
18.302,100,0,256,256
18.3542,100,0,256,256
18.4063,100,0,256,256
18.4584,100,0,256,256
18.5106,100,0,256,256
18.5627,100,0,256,256
18.6018,100,0,256,256
18.654,100,0,256,256
18.7061,100,0,256,256
18.7583,100,0,256,256
18.8104,100,0,256,256
18.8625,100,0,256,256
18.9017,100,0,256,256
18.9538,100,0,256,256
19.0059,100,0,256,256
19.0581,100,0,256,256
19.1102,100,0,256,256
19.1624,100,0,256,256
19.2015,100,0,256,256
19.2536,100,0,256,256
19.3058,100,0,256,256
19.3579,100,0,256,256
19.41,100,0,256,256
19.4622,100,0,256,256
19.5013,100,0,256,256
19.5534,100,0,256,256
19.6056,100,0,256,256
19.6577,100,0,256,256
19.7099,100,0,256,256
19.762,100,0,256,256
19.8011,100,0,256,256
19.8533,100,0,256,256
19.9054,100,0,256,256
19.9575,100,0,256,256
20.0097,100,0,256,256
20.0618,100,0,256,256
20.1009,100,0,256,256
20.1531,100,0,256,256
20.2052,100,0,256,256
20.2574,100,0,256,256
20.3095,100,0,256,256
20.3616,100,0,256,256
20.4007,100,0,256,256
20.4529,100,0,256,256
20.505,100,0,256,256
20.5572,100,0,256,256
20.6093,100,0,256,256
20.6615,100,0,256,256
20.7006,100,0,256,256
20.7527,100,0,256,256
20.8049,100,0,256,256
20.857,100,0,256,256
20.9091,100,0,256,256
20.9613,100,0,256,256
21.0004,100,0,256,256
21.0525,100,0,256,256
21.1047,100,0,256,256
21.1568,100,0,256,256
21.209,100,0,256,256
21.2611,100,0,256,256
21.3002,100,0,256,256
21.3523,100,0,256,256
21.4045,100,0,256,256
21.4566,100,0,256,256
21.5088,100,0,256,256
21.5609,100,0,256,256
21.6,100,0,256,256
21.6522,100,0,256,256
21.7043,100,0,256,256
21.7565,100,0,256,256
21.8086,100,0,256,256
21.8607,100,0,256,256
21.9129,100,0,256,256
21.952,100,0,256,256
22.0041,100,0,256,256
22.0563,100,0,256,256
22.1084,100,0,256,256
22.1606,100,0,256,256
22.2127,100,0,256,256
22.2518,100,0,256,256
22.3039,100,0,256,256
22.3561,100,0,256,256
22.4082,100,0,256,256
22.4604,100,0,256,256
22.5125,100,0,256,256
22.5516,100,0,256,256
22.6038,100,0,256,256
22.6559,100,0,256,256
22.7081,100,0,256,256
22.7602,100,0,256,256
22.8123,100,0,256,256
22.8514,100,0,256,256
22.9036,100,0,256,256
22.9557,100,0,256,256
23.0079,100,0,256,256
23.06,100,0,256,256
23.1122,100,0,256,256
23.1513,100,0,256,256
23.2034,100,0,256,256
23.2555,100,0,256,256
23.3077,100,0,256,256
23.3598,100,0,256,256
23.412,100,0,256,256
23.4511,100,0,256,256
23.5032,100,0,256,256
23.5554,100,0,256,256
23.6075,100,0,256,256
23.6597,100,0,256,256
23.7118,100,0,256,256
23.7509,100,0,256,256
23.803,100,0,256,256
23.8552,100,0,256,256
23.9073,100,0,256,256
23.9595,100,0,256,256
24.0116,100,0,256,256
24.0507,100,0,256,256
24.1029,100,0,256,256
24.155,100,0,256,256
24.2071,100,0,256,256
24.2593,100,0,256,256
24.3114,100,0,256,256
24.3505,100,0,256,256
24.4027,100,0,256,256
24.4548,100,0,256,256
24.507,100,0,256,256
24.5591,100,0,256,256
24.6113,100,0,256,256
24.6504,100,0,256,256
24.7025,100,0,256,256
24.7546,100,0,256,256
24.8068,100,0,256,256
24.8589,100,0,256,256
24.9111,100,0,256,256
24.9502,100,0,256,256
25.0023,100,0,256,256
25.0545,100,0,256,256
25.1066,100,0,256,256
25.1587,100,0,256,256
25.2109,100,0,256,256
25.263,100,0,256,256
25.3021,100,0,256,256
25.3543,100,0,256,256
25.4064,100,0,256,256
25.4586,100,0,256,256
25.5107,100,0,256,256
25.5629,100,0,256,256
25.602,100,0,256,256
25.6541,100,0,256,256
25.7062,100,0,256,256
25.7584,100,0,256,256
25.8105,100,0,256,256
25.8627,100,0,256,256
25.9018,100,0,256,256
25.9539,100,0,256,256
26.0061,100,0,256,256
26.0582,100,0,256,256
26.1103,100,0,256,256
26.1625,100,0,256,256
26.2016,100,0,256,256
26.2537,100,0,256,256
26.3059,100,0,256,256
26.358,100,0,256,256
26.4102,100,0,256,256
26.4623,100,0,256,256
26.5014,100,0,256,256
26.5536,100,0,256,256
26.6057,100,0,256,256
26.6578,100,0,256,256
26.71,100,0,256,256
26.7621,100,0,256,256
26.8012,100,0,256,256
26.8534,100,0,256,256
26.9055,100,0,256,256
26.9577,100,0,256,256
27.0098,100,0,256,256
27.0619,100,0,256,256
27.1011,100,0,256,256
27.1532,100,0,256,256
27.2053,100,0,256,256
27.2575,100,0,256,256
27.3096,100,0,256,256
27.3618,100,0,256,256
27.4009,100,0,256,256
27.453,100,0,256,256
27.5052,100,0,256,256
27.5573,100,0,256,256
27.6094,100,0,256,256
27.6616,100,0,256,256
27.7007,100,0,256,256
27.7528,100,0,256,256
27.805,100,0,256,256
27.8571,100,0,256,256
27.9093,100,0,256,256
27.9614,100,0,256,256
28.0005,100,0,256,256
28.0527,100,0,256,256
28.1048,100,0,256,256
28.1569,100,0,256,256
28.2091,100,0,256,256
28.2612,100,0,256,256
28.3003,100,0,256,256
28.3525,100,0,256,256
28.4046,100,0,256,256
28.4568,100,0,256,256
28.5089,100,0,256,256
28.561,100,0,256,256
28.6002,100,0,256,256
28.6523,100,0,256,256
28.7044,100,0,256,256
28.7566,100,0,256,256
28.8087,100,0,256,256
28.8609,100,0,256,256
28.913,100,0,256,256
28.9521,100,0,256,256
29.0043,100,0,256,256
29.0564,100,0,256,256
29.1085,100,0,256,256
29.1607,100,0,256,256
29.2128,100,0,256,256
29.2519,100,0,256,256
29.3041,100,0,256,256
29.3562,100,0,256,256
29.4084,100,0,256,256
29.4605,100,0,256,256
29.5126,100,0,256,256
29.5518,100,0,256,256
29.6039,100,0,256,256
29.656,100,0,256,256
29.7082,100,0,256,256
29.7603,100,0,256,256
29.8125,100,0,256,256
29.8516,100,0,256,256
29.9037,100,0,256,256
29.9559,100,0,256,256
30.008,100,0,256,256
30.0601,100,0,256,256
30.1123,100,0,256,256
30.1514,100,0,256,256
30.2035,100,0,256,256
30.2557,100,0,256,256
30.3078,100,0,256,256
30.36,100,0,256,256
30.4121,100,0,256,256
30.4512,100,0,256,256
30.5034,100,0,256,256
30.5555,100,0,256,256
30.6076,100,0,256,256
30.6598,100,0,256,256
30.7119,100,0,256,256
30.751,100,0,256,256
30.8032,100,0,256,256
30.8553,100,0,256,256
30.9075,100,0,256,256
30.9596,100,0,256,256
31.0117,100,0,256,256
31.0509,100,0,256,256
31.103,100,0,256,256
31.1551,100,0,256,256
31.2073,100,0,256,256
31.2594,100,0,256,256
31.3116,100,0,256,256
31.3507,100,0,256,256
31.4028,100,0,256,256
31.455,100,0,256,256
31.5071,100,0,256,256
31.5592,100,0,256,256
31.6114,100,0,256,256
31.6505,100,0,256,256
31.7026,100,0,256,256
31.7548,100,0,256,256
31.8069,100,0,256,256
31.8591,100,0,256,256
31.9112,100,0,256,256
31.9503,100,0,256,256
32.0025,100,0,256,256
32.0546,100,0,256,256
32.1067,100,0,256,256
32.1589,100,0,256,256
32.211,100,0,256,256
32.2501,100,0,256,256
32.3023,100,0,256,256
32.3544,100,0,256,256
32.4066,100,0,256,256
32.4587,100,0,256,256
32.5108,100,0,256,256
32.563,100,0,256,256
32.6021,100,0,256,256
32.6542,100,0,256,256
32.7064,100,0,256,256
32.7585,100,0,256,256
32.8107,100,0,256,256
32.8628,100,0,256,256
32.9019,100,0,256,256
32.9541,100,0,256,256
33.0062,100,0,256,256
33.0583,100,0,256,256
33.1105,100,0,256,256
33.1626,100,0,256,256
33.2017,100,0,256,256
33.2539,100,0,256,256
33.306,100,0,256,256
33.3582,100,0,256,256
33.4103,100,0,256,256
33.4624,100,0,256,256
33.5015,100,0,256,256
33.5537,100,0,256,256
33.6058,100,0,256,256
33.658,100,0,256,256
33.7101,100,0,256,256
33.7623,100,0,256,256
33.8014,100,0,256,256
33.8535,100,0,256,256
33.9057,100,0,256,256
33.9578,100,0,256,256
34.0099,100,0,256,256
34.0621,100,0,256,256
34.1012,100,0,256,256
34.1533,100,0,256,256
34.2055,100,0,256,256
34.2576,100,0,256,256
34.3098,100,0,256,256
34.3619,100,0,256,256
34.401,100,0,256,256
34.4531,100,0,256,256
34.5053,100,0,256,256
34.5574,100,0,256,256
34.6096,100,0,256,256
34.6617,100,0,256,256
34.7008,100,0,256,256
34.753,100,0,256,256
34.8051,100,0,256,256
34.8573,100,0,256,256
34.9094,100,0,256,256
34.9615,100,0,256,256
35.0006,100,0,256,256
35.0528,100,0,256,256
35.1049,100,0,256,256
35.1571,100,0,256,256
35.2092,100,0,256,256
35.2614,100,0,256,256
35.3005,100,0,256,256
35.3526,100,0,256,256
35.4047,100,0,256,256
35.4569,100,0,256,256
35.509,100,0,256,256
35.5612,100,0,256,256
35.6003,100,0,256,256
35.6524,100,0,256,256
35.7046,100,0,256,256
35.7567,100,0,256,256
35.8089,100,0,256,256
35.861,100,0,256,256
35.9001,100,0,256,256
35.9522,100,0,256,256
36.0044,100,0,256,256
36.0565,100,0,256,256
36.1087,100,0,256,256
36.1608,100,0,256,256
36.213,100,0,256,256
36.2521,100,0,256,256
36.3042,100,0,256,256
36.3563,100,0,256,256
36.4085,100,0,256,256
36.4606,100,0,256,256
36.5128,100,0,256,256
36.5519,100,0,256,256
36.604,100,0,256,256
36.6562,100,0,256,256
36.7083,100,0,256,256
36.7605,100,0,256,256
36.8126,100,0,256,256
36.8517,100,0,256,256
36.9038,100,0,256,256
36.956,100,0,256,256
37.0081,100,0,256,256
37.0603,100,0,256,256
37.1124,100,0,256,256
37.1515,100,0,256,256
37.2037,100,0,256,256
37.2558,100,0,256,256
37.3079,100,0,256,256
37.3601,100,0,256,256
37.4122,100,0,256,256
37.4513,100,0,256,256
37.5035,100,0,256,256
37.5556,100,0,256,256
37.6078,100,0,256,256
37.6599,100,0,256,256
37.7121,100,0,256,256
37.7512,100,0,256,256
37.8033,100,0,256,256
37.8554,100,0,256,256
37.9076,100,0,256,256
37.9597,100,0,256,256
38.0119,100,0,256,256
38.051,100,0,256,256
38.1031,100,0,256,256
38.1553,100,0,256,256
38.2074,100,0,256,256
38.2595,100,0,256,256
38.3117,100,0,256,256
38.3508,100,0,256,256
38.4029,100,0,256,256
38.4551,100,0,256,256
38.5072,100,0,256,256
38.5594,100,0,256,256
38.6115,100,0,256,256
38.6506,100,0,256,256
38.7028,100,0,256,256
38.7549,100,0,256,256
38.807,100,0,256,256
38.8592,100,0,256,256
38.9113,100,0,256,256
38.9504,100,0,256,256
39.0026,100,0,256,256
39.0547,100,0,256,256
39.1069,100,0,256,256
39.159,100,0,256,256
39.2111,100,0,256,256
39.2503,100,0,256,256
39.3024,100,0,256,256
39.3545,100,0,256,256
39.4067,100,0,256,256
39.4588,100,0,256,256
39.511,100,0,256,256
39.5501,100,0,256,256
39.6022,100,0,256,256
39.6544,100,0,256,256
39.7065,100,0,256,256
39.7586,100,0,256,256
39.8108,100,0,256,256
39.8629,100,0,256,256
39.902,100,0,256,256
39.9542,100,0,256,256
40.0063,100,0,256,256
40.0585,100,0,256,256
40.1106,100,0,256,256
40.1627,100,0,256,256
40.2019,100,0,256,256
40.254,100,0,256,256
40.3061,100,0,256,256
40.3583,100,0,256,256
40.4104,100,0,256,256
40.4626,100,0,256,256
40.5017,100,0,256,256
40.5538,100,0,256,256
40.606,100,0,256,256
40.6581,100,0,256,256
40.7102,100,0,256,256
40.7624,100,0,256,256
40.8015,100,0,256,256
40.8536,100,0,256,256
40.9058,100,0,256,256
40.9579,100,0,256,256
41.0101,100,0,256,256
41.0622,100,0,256,256
41.1013,100,0,256,256
41.1535,100,0,256,256
41.2056,100,0,256,256
41.2577,100,0,256,256
41.3099,100,0,256,256
41.362,100,0,256,256
41.4011,100,0,256,256
41.4533,100,0,256,256
41.5054,100,0,256,256
41.5576,100,0,256,256
41.6097,100,0,256,256
41.6618,100,0,256,256
41.701,100,0,256,256
41.7531,100,0,256,256
41.8052,100,0,256,256
41.8574,100,0,256,256
41.9095,100,0,256,256
41.9617,100,0,256,256
42.0008,100,0,256,256
42.0529,100,0,256,256
42.1051,100,0,256,256
42.1572,100,0,256,256
42.2093,100,0,256,256
42.2615,100,0,256,256
42.3006,100,0,256,256
42.3527,100,0,256,256
42.4049,100,0,256,256
42.457,100,0,256,256
42.5092,100,0,256,256
42.5613,100,0,256,256
42.6004,100,0,256,256
42.6526,100,0,256,256
42.7047,100,0,256,256
42.7568,100,0,256,256
42.809,100,0,256,256
42.8611,100,0,256,256
42.9002,100,0,256,256
42.9524,100,0,256,256
43.0045,100,0,256,256
43.0567,100,0,256,256
43.1088,100,0,256,256
43.1609,100,0,256,256
43.2,100,0,256,256
43.2522,100,0,256,256
43.3043,100,0,256,256
43.3565,100,0,256,256
43.4086,100,0,256,256
43.4608,100,0,256,256
43.5129,100,0,256,256
43.552,100,0,256,256
43.6042,100,0,256,256
43.6563,100,0,256,256
43.7084,100,0,256,256
43.7606,100,0,256,256
43.8127,100,0,256,256
43.8518,100,0,256,256
43.904,100,0,256,256
43.9561,100,0,256,256
44.0083,100,0,256,256
44.0604,100,0,256,256
44.1125,100,0,256,256
44.1516,100,0,256,256
44.2038,100,0,256,256
44.2559,100,0,256,256
44.3081,100,0,256,256
44.3602,100,0,256,256
44.4124,100,0,256,256
44.4515,100,0,256,256
44.5036,100,0,256,256
44.5558,100,0,256,256
44.6079,100,0,256,256
44.66,100,0,256,256
44.7122,100,0,256,256
44.7513,100,0,256,256
44.8034,100,0,256,256
44.8556,100,0,256,256
44.9077,100,0,256,256
44.9599,100,0,256,256
45.012,100,0,256,256
45.0511,100,0,256,256
45.1032,100,0,256,256
45.1554,100,0,256,256
45.2075,100,0,256,256
45.2597,100,0,256,256
45.3118,100,0,256,256
45.3509,100,0,256,256
45.4031,100,0,256,256
45.4552,100,0,256,256
45.5074,100,0,256,256
45.5595,100,0,256,256
45.6116,100,0,256,256
45.6507,100,0,256,256
45.7029,100,0,256,256
45.755,100,0,256,256
45.8072,100,0,256,256
45.8593,100,0,256,256
45.9115,100,0,256,256
45.9506,100,0,256,256
46.0027,100,0,256,256
46.0549,100,0,256,256
46.107,100,0,256,256
46.1591,100,0,256,256
46.2113,100,0,256,256
46.2504,100,0,256,256
46.3025,100,0,256,256
46.3547,100,0,256,256
46.4068,100,0,256,256
46.459,100,0,256,256
46.5111,100,0,256,256
46.5502,100,0,256,256
46.6023,100,0,256,256
46.6545,100,0,256,256
46.7066,100,0,256,256
46.7588,100,0,256,256
46.8109,100,0,256,256
46.85,100,0,256,256
46.9022,100,0,256,256
46.9543,100,0,256,256
47.0065,100,0,256,256
47.0586,100,0,256,256
47.1107,100,0,256,256
47.1629,100,0,256,256
47.202,100,0,256,256
47.2541,100,0,256,256
47.3063,100,0,256,256
47.3584,100,0,256,256
47.4106,100,0,256,256
47.4627,100,0,256,256
47.5018,100,0,256,256
47.5539,100,0,256,256
47.6061,100,0,256,256
47.6582,100,0,256,256
47.7104,100,0,256,256
47.7625,100,0,256,256
47.8016,100,0,256,256
47.8538,100,0,256,256
47.9059,100,0,256,256
47.9581,100,0,256,256
48.0102,100,0,256,256
48.0623,100,0,256,256
48.1014,100,0,256,256
48.1536,100,0,256,256
48.2057,100,0,256,256
48.2579,100,0,256,256
48.31,100,0,256,256
48.3622,100,0,256,256
48.4013,100,0,256,256
48.4534,100,0,256,256
48.5055,100,0,256,256
48.5577,100,0,256,256
48.6098,100,0,256,256
48.662,100,0,256,256
48.7011,100,0,256,256
48.7532,100,0,256,256
48.8054,100,0,256,256
48.8575,100,0,256,256
48.9097,100,0,256,256
48.9618,100,0,256,256
49.0009,100,0,256,256
49.053,100,0,256,256
49.1052,100,0,256,256
49.1573,100,0,256,256
49.2095,100,0,256,256
49.2616,100,0,256,256
49.3007,100,0,256,256
49.3529,100,0,256,256
49.405,100,0,256,256
49.4571,100,0,256,256
49.5093,100,0,256,256
49.5614,100,0,256,256
49.6005,100,0,256,256
49.6527,100,0,256,256
49.7048,100,0,256,256
49.757,100,0,256,256
49.8091,100,0,256,256
49.8613,100,0,256,256
49.9004,100,0,256,256
49.9525,100,0,256,256
50.0046,100,0,256,256
50.0568,100,0,256,256
50.1089,100,0,256,256
50.1611,100,0,256,256
50.2002,100,0,256,256
50.2523,100,0,256,256
50.3045,100,0,256,256
50.3566,100,0,256,256
50.4087,100,0,256,256
50.4609,100,0,256,256
50.513,100,0,256,256
50.5521,100,0,256,256
50.6043,100,0,256,256
50.6564,100,0,256,256
50.7086,100,0,256,256
50.7607,100,0,256,256
50.8129,100,0,256,256
50.852,100,0,256,256
50.9041,100,0,256,256
50.9562,100,0,256,256
51.0084,100,0,256,256
51.0605,100,0,256,256
51.1127,100,0,256,256
51.1518,100,0,256,256
51.2039,100,0,256,256
51.2561,100,0,256,256
51.3082,100,0,256,256
51.3603,100,0,256,256
51.4125,100,0,256,256
51.4516,100,0,256,256
51.5037,100,0,256,256
51.5559,100,0,256,256
51.608,100,0,256,256
51.6602,100,0,256,256
51.7123,100,0,256,256
51.7514,100,0,256,256
51.8036,100,0,256,256
51.8557,100,0,256,256
51.9078,100,0,256,256
51.96,100,0,256,256
52.0121,100,0,256,256
52.0512,100,0,256,256
52.1034,100,0,256,256
52.1555,100,0,256,256
52.2077,100,0,256,256
52.2598,100,0,256,256
52.3119,100,0,256,256
52.3511,100,0,256,256
52.4032,100,0,256,256
52.4553,100,0,256,256
52.5075,100,0,256,256
52.5596,100,0,256,256
52.6118,100,0,256,256
52.6509,100,0,256,256
52.703,100,0,256,256
52.7552,100,0,256,256
52.8073,100,0,256,256
52.8594,100,0,256,256
52.9116,100,0,256,256
52.9507,100,0,256,256
53.0028,100,0,256,256
53.055,100,0,256,256
53.1071,100,0,256,256
53.1593,100,0,256,256
53.2114,100,0,256,256
53.2505,100,0,256,256
53.3027,100,0,256,256
53.3548,100,0,256,256
53.4069,100,0,256,256
53.4591,100,0,256,256
53.5112,100,0,256,256
53.5503,100,0,256,256
53.6025,100,0,256,256
53.6546,100,0,256,256
53.7068,100,0,256,256
53.7589,100,0,256,256
53.811,100,0,256,256
53.8502,100,0,256,256
53.9023,100,0,256,256
53.9544,100,0,256,256
54.0066,100,0,256,256
54.0587,100,0,256,256
54.1109,100,0,256,256
54.163,100,0,256,256
54.2021,100,0,256,256
54.2543,100,0,256,256
54.3064,100,0,256,256
54.3585,100,0,256,256
54.4107,100,0,256,256
54.4628,100,0,256,256
54.5019,100,0,256,256
54.5541,100,0,256,256
54.6062,100,0,256,256
54.6584,100,0,256,256
54.7105,100,0,256,256
54.7626,100,0,256,256
54.8018,100,0,256,256
54.8539,100,0,256,256
54.906,100,0,256,256
54.9582,100,0,256,256
55.0103,100,0,256,256
55.0625,100,0,256,256
55.1016,100,0,256,256
55.1537,100,0,256,256
55.2059,100,0,256,256
55.258,100,0,256,256
55.3101,100,0,256,256
55.3623,100,0,256,256
55.4014,100,0,256,256
55.4535,100,0,256,256
55.5057,100,0,256,256
55.5578,100,0,256,256
55.61,100,0,256,256
55.6621,100,0,256,256
55.7012,100,0,256,256
55.7534,100,0,256,256
55.8055,100,0,256,256
55.8576,100,0,256,256
55.9098,100,0,256,256
55.9619,100,0,256,256
56.001,100,0,256,256
56.0532,100,0,256,256
56.1053,100,0,256,256
56.1575,100,0,256,256
56.2096,100,0,256,256
56.2617,100,0,256,256
56.3008,100,0,256,256
56.353,100,0,256,256
56.4051,100,0,256,256
56.4573,100,0,256,256
56.5094,100,0,256,256
56.5616,100,0,256,256
56.6007,100,0,256,256
56.6528,100,0,256,256
56.705,100,0,256,256
56.7571,100,0,256,256
56.8092,100,0,256,256
56.8614,100,0,256,256
56.9005,100,0,256,256
56.9526,100,0,256,256
57.0048,100,0,256,256
57.0569,100,0,256,256
57.1091,100,0,256,256
57.1612,100,0,256,256
57.2003,100,0,256,256
57.2524,100,0,256,256
57.3046,100,0,256,256
57.3567,100,0,256,256
57.4089,100,0,256,256
57.461,100,0,256,256
57.5001,100,0,256,256
57.5523,100,0,256,256
57.6044,100,0,256,256
57.6566,100,0,256,256
57.7087,100,0,256,256
57.7608,100,0,256,256
57.813,100,0,256,256
57.8521,100,0,256,256
57.9042,100,0,256,256
57.9564,100,0,256,256
58.0085,100,0,256,256
58.0607,100,0,256,256
58.1128,100,0,256,256
58.1519,100,0,256,256
58.204,100,0,256,256
58.2562,100,0,256,256
58.3083,100,0,256,256
58.3605,100,0,256,256
58.4126,100,0,256,256
58.4517,100,0,256,256
58.5039,100,0,256,256
58.556,100,0,256,256
58.6082,100,0,256,256
58.6603,100,0,256,256
58.7124,100,0,256,256
58.7515,100,0,256,256
58.8037,100,0,256,256
58.8558,100,0,256,256
58.908,100,0,256,256
58.9601,100,0,256,256
59.0123,100,0,256,256
59.0514,100,0,256,256
59.1035,100,0,256,256
59.1556,100,0,256,256
59.2078,100,0,256,256
59.2599,100,0,256,256
59.3121,100,0,256,256
59.3512,100,0,256,256
59.4033,100,0,256,256
59.4555,100,0,256,256
59.5076,100,0,256,256
59.5598,100,0,256,256
59.6119,100,0,256,256
59.651,100,0,256,256
59.7031,100,0,256,256
59.7553,100,0,256,256
59.8074,100,0,256,256
59.8596,100,0,256,256
59.9117,100,0,256,256
59.9508,100,0,256,256
60.003,100,0,256,256
60.0551,100,0,256,256
60.1072,100,0,256,256
60.1594,100,0,256,256
60.2115,100,0,256,256
60.2506,100,0,256,256
60.3028,100,0,256,256
60.3549,100,0,256,256
60.4071,100,0,256,256
60.4592,100,0,256,256
60.5114,100,0,256,256
60.5505,100,0,256,256
60.6026,100,0,256,256
60.6547,100,0,256,256
60.7069,100,0,256,256
60.759,100,0,256,256
60.8112,100,0,256,256
60.8503,100,0,256,256
60.9024,100,0,256,256
60.9546,100,0,256,256
61.0067,100,0,256,256
61.0589,100,0,256,256
61.111,100,0,256,256
61.1501,100,0,256,256
61.2022,100,0,256,256
61.2544,100,0,256,256
61.3065,100,0,256,256
61.3587,100,0,256,256
61.4108,100,0,256,256
61.463,100,0,256,256
61.5021,100,0,256,256
61.5542,100,0,256,256
61.6063,100,0,256,256
61.6585,100,0,256,256
61.7106,100,0,256,256
61.7628,100,0,256,256
61.8019,100,0,256,256
61.854,100,0,256,256
61.9062,100,0,256,256
61.9583,100,0,256,256
62.0105,100,0,256,256
62.0626,100,0,256,256
62.1017,100,0,256,256
62.1538,100,0,256,256
62.206,100,0,256,256
62.2581,100,0,256,256
62.3103,100,0,256,256
62.3624,100,0,256,256
62.4015,100,0,256,256
62.4537,100,0,256,256
62.5058,100,0,256,256
62.5579,100,0,256,256
62.6101,100,0,256,256
62.6622,100,0,256,256
62.7013,100,0,256,256
62.7535,100,0,256,256
62.8056,100,0,256,256
62.8578,100,0,256,256
62.9099,100,0,256,256
62.9621,100,0,256,256
63.0012,100,0,256,256
63.0533,100,0,256,256
63.1054,100,0,256,256
63.1576,100,0,256,256
63.2097,100,0,256,256
63.2619,100,0,256,256
63.301,100,0,256,256
63.3531,100,0,256,256
63.4053,100,0,256,256
63.4574,100,0,256,256
63.5095,100,0,256,256
63.5617,100,0,256,256
63.6008,100,0,256,256
63.6529,100,0,256,256
63.7051,100,0,256,256
63.7572,100,0,256,256
63.8094,100,0,256,256
63.8615,100,0,256,256
63.9006,100,0,256,256
63.9528,100,0,256,256
64.0049,100,0,256,256
64.057,100,0,256,256
64.1092,100,0,256,256
64.1613,100,0,256,256
64.2004,100,0,256,256
64.2526,100,0,256,256
64.3047,100,0,256,256
64.3569,100,0,256,256
64.409,100,0,256,256
64.4611,100,0,256,256
64.5003,100,0,256,256
64.5524,100,0,256,256
64.6045,100,0,256,256
64.6567,100,0,256,256
64.7088,100,0,256,256
64.761,100,0,256,256
64.8001,100,0,256,256
64.8522,100,0,256,256
64.9044,100,0,256,256
64.9565,100,0,256,256
65.0086,100,0,256,256
65.0608,100,0,256,256
65.1129,100,0,256,256
65.152,100,0,256,256
65.2042,100,0,256,256
65.2563,100,0,256,256
65.3085,100,0,256,256
65.3606,100,0,256,256
65.4127,100,0,256,256
65.4519,100,0,256,256
65.504,100,0,256,256
65.5561,100,0,256,256
65.6083,100,0,256,256
65.6604,100,0,256,256
65.7126,100,0,256,256
65.7517,100,0,256,256
65.8038,100,0,256,256
65.856,100,0,256,256
65.9081,100,0,256,256
65.9602,100,0,256,256
66.0124,100,0,256,256
66.0515,100,0,256,256
66.1036,100,0,256,256
66.1558,100,0,256,256
66.2079,100,0,256,256
66.2601,100,0,256,256
66.3122,100,0,256,256
66.3513,100,0,256,256
66.4035,100,0,256,256
66.4556,100,0,256,256
66.5077,100,0,256,256
66.5599,100,0,256,256
66.612,100,0,256,256
66.6511,100,0,256,256
66.7033,100,0,256,256
66.7554,100,0,256,256
66.8076,100,0,256,256
66.8597,100,0,256,256
66.9118,100,0,256,256
66.951,100,0,256,256
67.0031,100,0,256,256
67.0552,100,0,256,256
67.1074,100,0,256,256
67.1595,100,0,256,256
67.2117,100,0,256,256
67.2508,100,0,256,256
67.3029,100,0,256,256
67.3551,100,0,256,256
67.4072,100,0,256,256
67.4593,100,0,256,256
67.5115,100,0,256,256
67.5506,100,0,256,256
67.6027,100,0,256,256
67.6549,100,0,256,256
67.707,100,0,256,256
67.7592,100,0,256,256
67.8113,100,0,256,256
67.8504,100,0,256,256
67.9026,100,0,256,256
67.9547,100,0,256,256
68.0068,100,0,256,256
68.059,100,0,256,256
68.1111,100,0,256,256
68.1502,100,0,256,256
68.2024,100,0,256,256
68.2545,100,0,256,256
68.3067,100,0,256,256
68.3588,100,0,256,256
68.4109,100,0,256,256
68.45,100,0,256,256
68.5022,100,0,256,256
68.5543,100,0,256,256
68.6065,100,0,256,256
68.6586,100,0,256,256
68.7108,100,0,256,256
68.7629,100,0,256,256
68.802,100,0,256,256
68.8542,100,0,256,256
68.9063,100,0,256,256
68.9584,100,0,256,256
69.0106,100,0,256,256
69.0627,100,0,256,256
69.1018,100,0,256,256
69.154,100,0,256,256
69.2061,100,0,256,256
69.2583,100,0,256,256
69.3104,100,0,256,256
69.3625,100,0,256,256
69.4016,100,0,256,256
69.4538,100,0,256,256
69.5059,100,0,256,256
69.5581,100,0,256,256
69.6102,100,0,256,256
69.6624,100,0,256,256
69.7015,100,0,256,256
69.7536,100,0,256,256
69.8058,100,0,256,256
69.8579,100,0,256,256
69.91,100,0,256,256
69.9622,100,0,256,256
70.0013,100,0,256,256
70.0534,100,0,256,256
70.1056,100,0,256,256
70.1577,100,0,256,256
70.2099,100,0,256,256
70.262,100,0,256,256
70.3011,100,0,256,256
70.3532,100,0,256,256
70.4054,100,0,256,256
70.4575,100,0,256,256
70.5097,100,0,256,256
70.5618,100,0,256,256
70.6009,100,0,256,256
70.6531,100,0,256,256
70.7052,100,0,256,256
70.7574,100,0,256,256
70.8095,100,0,256,256
70.8616,100,0,256,256
70.9007,100,0,256,256
70.9529,100,0,256,256
71.005,100,0,256,256
71.0572,100,0,256,256
71.1093,100,0,256,256
71.1615,100,0,256,256
71.2006,100,0,256,256
71.2527,100,0,256,256
71.3048,100,0,256,256
71.357,100,0,256,256
71.4091,100,0,256,256
71.4613,100,0,256,256
71.5004,100,0,256,256
71.5525,100,0,256,256
71.6047,100,0,256,256
71.6568,100,0,256,256
71.709,100,0,256,256
71.7611,100,0,256,256
71.8002,100,0,256,256
71.8523,100,0,256,256
71.9045,100,0,256,256
71.9566,100,0,256,256
72.0088,100,0,256,256
72.0609,100,0,256,256
72.1,100,0,256,256
72.1522,100,0,256,256
72.2043,100,0,256,256
72.2564,100,0,256,256
72.3086,100,0,256,256
72.3607,100,0,256,256
72.4129,100,0,256,256
72.452,100,0,256,256
72.5041,100,0,256,256
72.5563,100,0,256,256
72.6084,100,0,256,256
72.6606,100,0,256,256
72.7127,100,0,256,256
72.7518,100,0,256,256
72.8039,100,0,256,256
72.8561,100,0,256,256
72.9082,100,0,256,256
72.9604,100,0,256,256
73.0125,100,0,256,256
73.0516,100,0,256,256
73.1038,100,0,256,256
73.1559,100,0,256,256
73.208,100,0,256,256
73.2602,100,0,256,256
73.3123,100,0,256,256
73.3514,100,0,256,256
73.4036,100,0,256,256
73.4557,100,0,256,256
73.5079,100,0,256,256
73.56,100,0,256,256
73.6122,100,0,256,256
73.6513,100,0,256,256
73.7034,100,0,256,256
73.7555,100,0,256,256
73.8077,100,0,256,256
73.8598,100,0,256,256
73.912,100,0,256,256
73.9511,100,0,256,256
74.0032,100,0,256,256
74.0554,100,0,256,256
74.1075,100,0,256,256
74.1596,100,0,256,256
74.2118,100,0,256,256
74.2509,100,0,256,256
74.303,100,0,256,256
74.3552,100,0,256,256
74.4073,100,0,256,256
74.4595,100,0,256,256
74.5116,100,0,256,256
74.5507,100,0,256,256
74.6029,100,0,256,256
74.655,100,0,256,256
74.7071,100,0,256,256
74.7593,100,0,256,256
74.8114,100,0,256,256
74.8505,100,0,256,256
74.9027,100,0,256,256
74.9548,100,0,256,256
75.007,100,0,256,256
75.0591,100,0,256,256
75.1113,100,0,256,256
75.1504,100,0,256,256
75.2025,100,0,256,256
75.2546,100,0,256,256
75.3068,100,0,256,256
75.3589,100,0,256,256
75.4111,100,0,256,256
75.4502,100,0,256,256
75.5023,100,0,256,256
75.5545,100,0,256,256
75.6066,100,0,256,256
75.6587,100,0,256,256
75.7109,100,0,256,256
75.763,100,0,256,256
75.8021,100,0,256,256
75.8543,100,0,256,256
75.9064,100,0,256,256
75.9586,100,0,256,256
76.0107,100,0,256,256
76.0629,100,0,256,256
76.102,100,0,256,256
76.1541,100,0,256,256
76.2062,100,0,256,256
76.2584,100,0,256,256
76.3105,100,0,256,256
76.3627,100,0,256,256
76.4018,100,0,256,256
76.4539,100,0,256,256
76.5061,100,0,256,256
76.5582,100,0,256,256
76.6103,100,0,256,256
76.6625,100,0,256,256
76.7016,100,0,256,256
76.7537,100,0,256,256
76.8059,100,0,256,256
76.858,100,0,256,256
76.9102,100,0,256,256
76.9623,100,0,256,256
77.0014,100,0,256,256
77.0536,100,0,256,256
77.1057,100,0,256,256
77.1578,100,0,256,256
77.21,100,0,256,256
77.2621,100,0,256,256
77.3012,100,0,256,256
77.3534,100,0,256,256
77.4055,100,0,256,256
77.4577,100,0,256,256
77.5098,100,0,256,256
77.5619,100,0,256,256
77.6011,100,0,256,256
77.6532,100,0,256,256
77.7053,100,0,256,256
77.7575,100,0,256,256
77.8096,100,0,256,256
77.8618,100,0,256,256
77.9009,100,0,256,256
77.953,100,0,256,256
78.0052,100,0,256,256
78.0573,100,0,256,256
78.1094,100,0,256,256
78.1616,100,0,256,256
78.2007,100,0,256,256
78.2528,100,0,256,256
78.305,100,0,256,256
78.3571,100,0,256,256
78.4093,100,0,256,256
78.4614,100,0,256,256
78.5005,100,0,256,256
78.5527,100,0,256,256
78.6048,100,0,256,256
78.6569,100,0,256,256
78.7091,100,0,256,256
78.7612,100,0,256,256
78.8003,100,0,256,256
78.8525,100,0,256,256
78.9046,100,0,256,256
78.9568,100,0,256,256
79.0089,100,0,256,256
79.061,100,0,256,256
79.1002,100,0,256,256
79.1523,100,0,256,256
79.2044,100,0,256,256
79.2566,100,0,256,256
79.3087,100,0,256,256
79.3609,100,0,256,256
79.413,100,0,256,256
79.4521,100,0,256,256
79.5043,100,0,256,256
79.5564,100,0,256,256
79.6085,100,0,256,256
79.6607,100,0,256,256
79.7128,100,0,256,256
79.7519,100,0,256,256
79.8041,100,0,256,256
79.8562,100,0,256,256
79.9084,100,0,256,256
79.9605,100,0,256,256
80.0126,100,0,256,256
80.0518,100,0,256,256
80.1039,100,0,256,256
80.156,100,0,256,256
80.2082,100,0,256,256
80.2603,100,0,256,256
80.3125,100,0,256,256
80.3516,100,0,256,256
80.4037,100,0,256,256
80.4559,100,0,256,256
80.508,100,0,256,256
80.5601,100,0,256,256
80.6123,100,0,256,256
80.6514,100,0,256,256
80.7035,100,0,256,256
80.7557,100,0,256,256
80.8078,100,0,256,256
80.86,100,0,256,256
80.9121,100,0,256,256
80.9512,100,0,256,256
81.0034,100,0,256,256
81.0555,100,0,256,256
81.1076,100,0,256,256
81.1598,100,0,256,256
81.2119,100,0,256,256
81.251,100,0,256,256
81.3032,100,0,256,256
81.3553,100,0,256,256
81.4075,100,0,256,256
81.4596,100,0,256,256
81.5117,100,0,256,256
81.5508,100,0,256,256
81.603,100,0,256,256
81.6551,100,0,256,256
81.7073,100,0,256,256
81.7594,100,0,256,256
81.8116,100,0,256,256
81.8507,100,0,256,256
81.9028,100,0,256,256
81.955,100,0,256,256
82.0071,100,0,256,256
82.0592,100,0,256,256
82.1114,100,0,256,256
82.1505,100,0,256,256
82.2026,100,0,256,256
82.2548,100,0,256,256
82.3069,100,0,256,256
82.3591,100,0,256,256
82.4112,100,0,256,256
82.4503,100,0,256,256
82.5024,100,0,256,256
82.5546,100,0,256,256
82.6067,100,0,256,256
82.6589,100,0,256,256
82.711,100,0,256,256
82.7501,100,0,256,256
82.8023,100,0,256,256
82.8544,100,0,256,256
82.9066,100,0,256,256
82.9587,100,0,256,256
83.0108,100,0,256,256
83.063,100,0,256,256
83.1021,100,0,256,256
83.1542,100,0,256,256
83.2064,100,0,256,256
83.2585,100,0,256,256
83.3107,100,0,256,256
83.3628,100,0,256,256
83.4019,100,0,256,256
83.454,100,0,256,256
83.5062,100,0,256,256
83.5583,100,0,256,256
83.6105,100,0,256,256
83.6626,100,0,256,256
83.7017,100,0,256,256
83.7539,100,0,256,256
83.806,100,0,256,256
83.8582,100,0,256,256
83.9103,100,0,256,256
83.9624,100,0,256,256
84.0015,100,0,256,256
84.0537,100,0,256,256
84.1058,100,0,256,256
84.158,100,0,256,256
84.2101,100,0,256,256
84.2623,100,0,256,256
84.3014,100,0,256,256
84.3535,100,0,256,256
84.4056,100,0,256,256
84.4578,100,0,256,256
84.5099,100,0,256,256
84.5621,100,0,256,256
84.6012,100,0,256,256
84.6533,100,0,256,256
84.7055,100,0,256,256
84.7576,100,0,256,256
84.8098,100,0,256,256
84.8619,100,0,256,256
84.901,100,0,256,256
84.9531,100,0,256,256
85.0053,100,0,256,256
85.0574,100,0,256,256
85.1096,100,0,256,256
85.1617,100,0,256,256
85.2008,100,0,256,256
85.253,100,0,256,256
85.3051,100,0,256,256
85.3572,100,0,256,256
85.4094,100,0,256,256
85.4615,100,0,256,256
85.5006,100,0,256,256
85.5528,100,0,256,256
85.6049,100,0,256,256
85.6571,100,0,256,256
85.7092,100,0,256,256
85.7614,100,0,256,256
85.8005,100,0,256,256
85.8526,100,0,256,256
85.9047,100,0,256,256
85.9569,100,0,256,256
86.009,100,0,256,256
86.0612,100,0,256,256
86.1003,100,0,256,256
86.1524,100,0,256,256
86.2046,100,0,256,256
86.2567,100,0,256,256
86.3088,100,0,256,256
86.361,100,0,256,256
86.4001,100,0,256,256
86.4522,100,0,256,256
86.5044,100,0,256,256
86.5565,100,0,256,256
86.6087,100,0,256,256
86.6608,100,0,256,256
86.713,100,0,256,256
86.7521,100,0,256,256
86.8042,100,0,256,256
86.8563,100,0,256,256
86.9085,100,0,256,256
86.9606,100,0,256,256
87.0128,100,0,256,256
87.0519,100,0,256,256
87.104,100,0,256,256
87.1562,100,0,256,256
87.2083,100,0,256,256
87.2604,100,0,256,256
87.3126,100,0,256,256
87.3517,100,0,256,256
87.4038,100,0,256,256
87.456,100,0,256,256
87.5081,100,0,256,256
87.5603,100,0,256,256
87.6124,100,0,256,256
87.6515,100,0,256,256
87.7037,100,0,256,256
87.7558,100,0,256,256
87.8079,100,0,256,256
87.8601,100,0,256,256
87.9122,100,0,256,256
87.9513,100,0,256,256
88.0035,100,0,256,256
88.0556,100,0,256,256
88.1078,100,0,256,256
88.1599,100,0,256,256
88.212,100,0,256,256
88.2512,100,0,256,256
88.3033,100,0,256,256
88.3554,100,0,256,256
88.4076,100,0,256,256
88.4597,100,0,256,256
88.5119,100,0,256,256
88.551,100,0,256,256
88.6031,100,0,256,256
88.6553,100,0,256,256
88.7074,100,0,256,256
88.7595,100,0,256,256
88.8117,100,0,256,256
88.8508,100,0,256,256
88.9029,100,0,256,256
88.9551,100,0,256,256
89.0072,100,0,256,256
89.0594,100,0,256,256
89.1115,100,0,256,256
89.1506,100,0,256,256
89.2028,100,0,256,256
89.2549,100,0,256,256
89.307,100,0,256,256
89.3592,100,0,256,256
89.4113,100,0,256,256
89.4504,100,0,256,256
89.5026,100,0,256,256
89.5547,100,0,256,256
89.6069,100,0,256,256
89.659,100,0,256,256
89.7111,100,0,256,256
89.7503,100,0,256,256
89.8024,100,0,256,256
89.8545,100,0,256,256
89.9067,100,0,256,256
89.9588,100,0,256,256
90.011,100,0,256,256
90.0501,100,0,256,256
90.1022,100,0,256,256
90.1544,100,0,256,256
90.2065,100,0,256,256
90.2586,100,0,256,256
90.3108,100,0,256,256
90.3629,100,0,256,256
90.402,100,0,256,256
90.4542,100,0,256,256
90.5063,100,0,256,256
90.5585,100,0,256,256
90.6106,100,0,256,256
90.6627,100,0,256,256
90.7019,100,0,256,256
90.754,100,0,256,256
90.8061,100,0,256,256
90.8583,100,0,256,256
90.9104,100,0,256,256
90.9626,100,0,256,256
91.0017,100,0,256,256
91.0538,100,0,256,256
91.106,100,0,256,256
91.1581,100,0,256,256
91.2102,100,0,256,256
91.2624,100,0,256,256
91.3015,100,0,256,256
91.3536,100,0,256,256
91.4058,100,0,256,256
91.4579,100,0,256,256
91.5101,100,0,256,256
91.5622,100,0,256,256
91.6013,100,0,256,256
91.6535,100,0,256,256
91.7056,100,0,256,256
91.7577,100,0,256,256
91.8099,100,0,256,256
91.862,100,0,256,256
91.9011,100,0,256,256
91.9533,100,0,256,256
92.0054,100,0,256,256
92.0576,100,0,256,256
92.1097,100,0,256,256
92.1618,100,0,256,256
92.2009,100,0,256,256
92.2531,100,0,256,256
92.3052,100,0,256,256
92.3574,100,0,256,256
92.4095,100,0,256,256
92.4617,100,0,256,256
92.5008,100,0,256,256
92.5529,100,0,256,256
92.6051,100,0,256,256
92.6572,100,0,256,256
92.7093,100,0,256,256
92.7615,100,0,256,256
92.8006,100,0,256,256
92.8527,100,0,256,256
92.9049,100,0,256,256
92.957,100,0,256,256
93.0092,100,0,256,256
93.0613,100,0,256,256
93.1004,100,0,256,256
93.1526,100,0,256,256
93.2047,100,0,256,256
93.2568,100,0,256,256
93.309,100,0,256,256
93.3611,100,0,256,256
93.4002,100,0,256,256
93.4524,100,0,256,256
93.5045,100,0,256,256
93.5567,100,0,256,256
93.6088,100,0,256,256
93.6609,100,0,256,256
93.7,100,0,256,256
93.7522,100,0,256,256
93.8043,100,0,256,256
93.8565,100,0,256,256
93.9086,100,0,256,256
93.9608,100,0,256,256
94.0129,100,0,256,256
94.052,100,0,256,256
94.1042,100,0,256,256
94.1563,100,0,256,256
94.2084,100,0,256,256
94.2606,100,0,256,256
94.3127,100,0,256,256
94.3518,100,0,256,256
94.404,100,0,256,256
94.4561,100,0,256,256
94.5083,100,0,256,256
94.5604,100,0,256,256
94.6125,100,0,256,256
94.6516,100,0,256,256
94.7038,100,0,256,256
94.7559,100,0,256,256
94.8081,100,0,256,256
94.8602,100,0,256,256
94.9124,100,0,256,256
94.9515,100,0,256,256
95.0036,100,0,256,256
95.0558,100,0,256,256
95.1079,100,0,256,256
95.16,100,0,256,256
95.2122,100,0,256,256
95.2513,100,0,256,256
95.3034,100,0,256,256
95.3556,100,0,256,256
95.4077,100,0,256,256
95.4599,100,0,256,256
95.512,100,0,256,256
95.5511,100,0,256,256
95.6032,100,0,256,256
95.6554,100,0,256,256
95.7075,100,0,256,256
95.7597,100,0,256,256
95.8118,100,0,256,256
95.8509,100,0,256,256
95.9031,100,0,256,256
95.9552,100,0,256,256
96.0074,100,0,256,256
96.0595,100,0,256,256
96.1116,100,0,256,256
96.1507,100,0,256,256
96.2029,100,0,256,256
96.255,100,0,256,256
96.3072,100,0,256,256
96.3593,100,0,256,256
96.4115,100,0,256,256
96.4506,100,0,256,256
96.5027,100,0,256,256
96.5548,100,0,256,256
96.607,100,0,256,256
96.6591,100,0,256,256
96.7113,100,0,256,256
96.7504,100,0,256,256
96.8025,100,0,256,256
96.8547,100,0,256,256
96.9068,100,0,256,256
96.959,100,0,256,256
97.0111,100,0,256,256
97.0502,100,0,256,256
97.1023,100,0,256,256
97.1545,100,0,256,256
97.2066,100,0,256,256
97.2588,100,0,256,256
97.3109,100,0,256,256
97.35,100,0,256,256
97.4022,100,0,256,256
97.4543,100,0,256,256
97.5064,100,0,256,256
97.5586,100,0,256,256
97.6107,100,0,256,256
97.6629,100,0,256,256
97.702,100,0,256,256
97.7541,100,0,256,256
97.8063,100,0,256,256
97.8584,100,0,256,256
97.9106,100,0,256,256
97.9627,100,0,256,256
98.0018,100,0,256,256
98.0539,100,0,256,256
98.1061,100,0,256,256
98.1582,100,0,256,256
98.2104,100,0,256,256
98.2625,100,0,256,256
98.3016,100,0,256,256
98.3538,100,0,256,256
98.4059,100,0,256,256
98.458,100,0,256,256
98.5102,100,0,256,256
98.5623,100,0,256,256
98.6014,100,0,256,256
98.6536,100,0,256,256
98.7057,100,0,256,256
98.7579,100,0,256,256
98.81,100,0,256,256
98.8622,100,0,256,256
98.9013,100,0,256,256
98.9534,100,0,256,256
99.0055,100,0,256,256
99.0577,100,0,256,256
99.1098,100,0,256,256
99.162,100,0,256,256
99.2011,100,0,256,256
99.2532,100,0,256,256
99.3054,100,0,256,256
99.3575,100,0,256,256
99.4096,100,0,256,256
99.4618,100,0,256,256
99.5009,100,0,256,256
99.553,100,0,256,256
99.6052,100,0,256,256
99.6573,100,0,256,256
99.7095,100,0,256,256
99.7616,100,0,256,256
99.8007,100,0,256,256
99.8529,100,0,256,256
99.905,100,0,256,256
99.9571,100,0,256,256
100.009,100,0,256,256
100.061,100,0,256,256
100.101,100,0,256,256
100.153,100,0,256,256
100.205,100,0,256,256
100.257,100,0,256,256
100.309,100,0,256,256
100.361,100,0,256,256
100.4,100,0,256,256
100.452,100,0,256,256
100.505,100,0,256,256
100.557,100,0,256,256
100.609,100,0,256,256
100.661,100,0,256,256
100.7,100,0,256,256
100.752,100,0,256,256
100.804,100,0,256,256
100.857,100,0,256,256
100.909,100,0,256,256
100.961,100,0,256,256
101.013,100,0,256,256
101.052,100,0,256,256
101.104,100,0,256,256
101.156,100,0,256,256
101.209,100,0,256,256
101.261,100,0,256,256
101.313,100,0,256,256
101.352,100,0,256,256
101.404,100,0,256,256
101.456,100,0,256,256
101.508,100,0,256,256
101.561,100,0,256,256
101.613,100,0,256,256
101.652,100,0,256,256
101.704,100,0,256,256
101.756,100,0,256,256
101.808,100,0,256,256
101.86,100,0,256,256
101.912,100,0,256,256
101.952,100,0,256,256
102.004,100,0,256,256
102.056,100,0,256,256
102.108,100,0,256,256
102.16,100,0,256,256
102.212,100,0,256,256
102.251,100,0,256,256
102.304,100,0,256,256
102.356,100,0,256,256
102.408,100,0,256,256
102.46,100,0,256,256
102.512,100,0,256,256
102.551,100,0,256,256
102.603,100,0,256,256
102.656,100,0,256,256
102.708,100,0,256,256
102.76,100,0,256,256
102.812,100,0,256,256
102.851,100,0,256,256
102.903,100,0,256,256
102.955,100,0,256,256
103.007,100,0,256,256
103.06,100,0,256,256
103.112,100,0,256,256
103.151,100,0,256,256
103.203,100,0,256,256
103.255,100,0,256,256
103.307,100,0,256,256
103.359,100,0,256,256
103.412,100,0,256,256
103.451,100,0,256,256
103.503,100,0,256,256
103.555,100,0,256,256
103.607,100,0,256,256
103.659,100,0,256,256
103.711,100,0,256,256
103.751,100,0,256,256
103.803,100,0,256,256
103.855,100,0,256,256
103.907,100,0,256,256
103.959,100,0,256,256
104.011,100,0,256,256
104.05,100,0,256,256
104.102,100,0,256,256
104.155,100,0,256,256
104.207,100,0,256,256
104.259,100,0,256,256
104.311,100,0,256,256
104.35,100,0,256,256
104.402,100,0,256,256
104.454,100,0,256,256
104.507,100,0,256,256
104.559,100,0,256,256
104.611,100,0,256,256
104.663,100,0,256,256
104.702,100,0,256,256
104.754,100,0,256,256
104.806,100,0,256,256
104.859,100,0,256,256
104.911,100,0,256,256
104.963,100,0,256,256
105.002,100,0,256,256
105.054,100,0,256,256
105.106,100,0,256,256
105.158,100,0,256,256
105.21,100,0,256,256
105.263,100,0,256,256
105.302,100,0,256,256
105.354,100,0,256,256
105.406,100,0,256,256
105.458,100,0,256,256
105.51,100,0,256,256
105.562,100,0,256,256
105.602,100,0,256,256
105.654,100,0,256,256
105.706,100,0,256,256
105.758,100,0,256,256
105.81,100,0,256,256
105.862,100,0,256,256
105.901,100,0,256,256
105.954,100,0,256,256
106.006,100,0,256,256
106.058,100,0,256,256
106.11,100,0,256,256
106.162,100,0,256,256
106.201,100,0,256,256
106.253,100,0,256,256
106.305,100,0,256,256
106.358,100,0,256,256
106.41,100,0,256,256
106.462,100,0,256,256
106.501,100,0,256,256
106.553,100,0,256,256
106.605,100,0,256,256
106.657,100,0,256,256
106.71,100,0,256,256
106.762,100,0,256,256
106.801,100,0,256,256
106.853,100,0,256,256
106.905,100,0,256,256
106.957,100,0,256,256
107.009,100,0,256,256
107.062,100,0,256,256
107.101,100,0,256,256
107.153,100,0,256,256
107.205,100,0,256,256
107.257,100,0,256,256
107.309,100,0,256,256
107.361,100,0,256,256
107.4,100,0,256,256
107.453,100,0,256,256
107.505,100,0,256,256
107.557,100,0,256,256
107.609,100,0,256,256
107.661,100,0,256,256
107.7,100,0,256,256
107.752,100,0,256,256
107.805,100,0,256,256
107.857,100,0,256,256
107.909,100,0,256,256
107.961,100,0,256,256
108,100,0,256,256
108.052,100,0,256,256
108.104,100,0,256,256
108.157,100,0,256,256
108.209,100,0,256,256
108.261,100,0,256,256
108.313,100,0,256,256
108.352,100,0,256,256
108.404,100,0,256,256
108.456,100,0,256,256
108.509,100,0,256,256
108.561,100,0,256,256
108.613,100,0,256,256
108.652,100,0,256,256
108.704,100,0,256,256
108.756,100,0,256,256
108.808,100,0,256,256
108.86,100,0,256,256
108.913,100,0,256,256
108.952,100,0,256,256
109.004,100,0,256,256
109.056,100,0,256,256
109.108,100,0,256,256
109.16,100,0,256,256
109.212,100,0,256,256
109.252,100,0,256,256
109.304,100,0,256,256
109.356,100,0,256,256
109.408,100,0,256,256
109.46,100,0,256,256
109.512,100,0,256,256
109.551,100,0,256,256
109.604,100,0,256,256
109.656,100,0,256,256
109.708,100,0,256,256
109.76,100,0,256,256
109.812,100,0,256,256
109.851,100,0,256,256
109.903,100,0,256,256
109.955,100,0,256,256
110.008,100,0,256,256
110.06,100,0,256,256
110.112,100,0,256,256
110.151,100,0,256,256
110.203,100,0,256,256
110.255,100,0,256,256
110.307,100,0,256,256
110.36,100,0,256,256
110.412,100,0,256,256
110.451,100,0,256,256
110.503,100,0,256,256
110.555,100,0,256,256
110.607,100,0,256,256
110.659,100,0,256,256
110.712,100,0,256,256
110.751,100,0,256,256
110.803,100,0,256,256
110.855,100,0,256,256
110.907,100,0,256,256
110.959,100,0,256,256
111.011,100,0,256,256
111.05,100,0,256,256
111.103,100,0,256,256
111.155,100,0,256,256
111.207,100,0,256,256
111.259,100,0,256,256
111.311,100,0,256,256
111.35,100,0,256,256
111.402,100,0,256,256
111.455,100,0,256,256
111.507,100,0,256,256
111.559,100,0,256,256
111.611,100,0,256,256
111.65,100,0,256,256
111.702,100,0,256,256
111.754,100,0,256,256
111.807,100,0,256,256
111.859,100,0,256,256
111.911,100,0,256,256
111.963,100,0,256,256
112.002,100,0,256,256
112.054,100,0,256,256
112.106,100,0,256,256
112.158,100,0,256,256
112.211,100,0,256,256
112.263,100,0,256,256
112.302,100,0,256,256
112.354,100,0,256,256
112.406,100,0,256,256
112.458,100,0,256,256
112.51,100,0,256,256
112.563,100,0,256,256
112.602,100,0,256,256
112.654,100,0,256,256
112.706,100,0,256,256
112.758,100,0,256,256
112.81,100,0,256,256
112.862,100,0,256,256
112.902,100,0,256,256
112.954,100,0,256,256
113.006,100,0,256,256
113.058,100,0,256,256
113.11,100,0,256,256
113.162,100,0,256,256
113.201,100,0,256,256
113.253,100,0,256,256
113.306,100,0,256,256
113.358,100,0,256,256
113.41,100,0,256,256
113.462,100,0,256,256
113.501,100,0,256,256
113.553,100,0,256,256
113.605,100,0,256,256
113.658,100,0,256,256
113.71,100,0,256,256
113.762,100,0,256,256
113.801,100,0,256,256
113.853,100,0,256,256
113.905,100,0,256,256
113.957,100,0,256,256
114.01,100,0,256,256
114.062,100,0,256,256
114.101,100,0,256,256
114.153,100,0,256,256
114.205,100,0,256,256
114.257,100,0,256,256
114.309,100,0,256,256
114.362,100,0,256,256
114.401,100,0,256,256
114.453,100,0,256,256
114.505,100,0,256,256
114.557,100,0,256,256
114.609,100,0,256,256
114.661,100,0,256,256
114.7,100,0,256,256
114.753,100,0,256,256
114.805,100,0,256,256
114.857,100,0,256,256
114.909,100,0,256,256
114.961,100,0,256,256
115,100,0,256,256
115.052,100,0,256,256
115.105,100,0,256,256
115.157,100,0,256,256
115.209,100,0,256,256
115.261,100,0,256,256
115.3,100,0,256,256
115.352,100,0,256,256
115.404,100,0,256,256
115.456,100,0,256,256
115.509,100,0,256,256
115.561,100,0,256,256
115.613,100,0,256,256
115.652,100,0,256,256
115.704,100,0,256,256
115.756,100,0,256,256
115.808,100,0,256,256
115.861,100,0,256,256
115.913,100,0,256,256
115.952,100,0,256,256
116.004,100,0,256,256
116.056,100,0,256,256
116.108,100,0,256,256
116.16,100,0,256,256
116.213,100,0,256,256
116.252,100,0,256,256
116.304,100,0,256,256
116.356,100,0,256,256
116.408,100,0,256,256
116.46,100,0,256,256
116.512,100,0,256,256
116.551,100,0,256,256
116.604,100,0,256,256
116.656,100,0,256,256
116.708,100,0,256,256
116.76,100,0,256,256
116.812,100,0,256,256
116.851,100,0,256,256
116.903,100,0,256,256
116.956,100,0,256,256
117.008,100,0,256,256
117.06,100,0,256,256
117.112,100,0,256,256
117.151,100,0,256,256
117.203,100,0,256,256
117.255,100,0,256,256
117.308,100,0,256,256
117.36,100,0,256,256
117.412,100,0,256,256
117.451,100,0,256,256
117.503,100,0,256,256
117.555,100,0,256,256
117.607,100,0,256,256
117.66,100,0,256,256
117.712,100,0,256,256
117.751,100,0,256,256
117.803,100,0,256,256
117.855,100,0,256,256
117.907,100,0,256,256
117.959,100,0,256,256
118.011,100,0,256,256
118.051,100,0,256,256
118.103,100,0,256,256
118.155,100,0,256,256
118.207,100,0,256,256
118.259,100,0,256,256
118.311,100,0,256,256
118.35,100,0,256,256
118.403,100,0,256,256
118.455,100,0,256,256
118.507,100,0,256,256
118.559,100,0,256,256
118.611,100,0,256,256
118.65,100,0,256,256
118.702,100,0,256,256
118.755,100,0,256,256
118.807,100,0,256,256
118.859,100,0,256,256
118.911,100,0,256,256
118.95,100,0,256,256
119.002,100,0,256,256
119.054,100,0,256,256
119.106,100,0,256,256
119.159,100,0,256,256
119.211,100,0,256,256
119.263,100,0,256,256
119.302,100,0,256,256
119.354,100,0,256,256
119.406,100,0,256,256
119.458,100,0,256,256
119.511,100,0,256,256
119.563,100,0,256,256
119.602,100,0,256,256
119.654,100,0,256,256
119.706,100,0,256,256
119.758,100,0,256,256
119.81,100,0,256,256
119.863,100,0,256,256
119.902,100,0,256,256
119.954,100,0,256,256
