time,surface_elevation,reference_data,number_of_local_cells,number_of_global_cells
0,100,0,2048,2048
0.050513,100,0,2048,2048
0.101026,100,0,2048,2048
0.151539,100,0,2048,2048
0.200423,100,0,2048,2048
0.250936,100,0,2048,2048
0.301449,100,0,2048,2048
0.350332,100,0,2048,2048
0.400845,100,0,2048,2048
0.451358,100,0,2048,2048
0.500242,100,0,2048,2048
0.550755,100,0,2048,2048
0.601268,100,0,2048,2048
0.650152,100,0,2048,2048
0.700665,100,0,2048,2048
0.751178,100,0,2048,2048
0.800061,100,0,2048,2048
0.850574,100,0,2048,2048
0.901087,100,0,2048,2048
0.9516,100,0,2048,2048
1.00048,100,0,2048,2048
1.051,100,0,2048,2048
1.10151,100,0,2048,2048
1.15039,100,0,2048,2048
1.20091,100,0,2048,2048
1.25142,100,0,2048,2048
1.3003,100,0,2048,2048
1.35082,100,0,2048,2048
1.40133,100,0,2048,2048
1.45021,100,0,2048,2048
1.50073,100,0,2048,2048
1.55124,100,0,2048,2048
1.60012,100,0,2048,2048
1.65064,100,0,2048,2048
1.70115,100,0,2048,2048
1.75003,100,0,2048,2048
1.80055,100,0,2048,2048
1.85106,100,0,2048,2048
1.90157,100,0,2048,2048
1.95045,100,0,2048,2048
2.00097,100,0,2048,2048
2.05148,100,0,2048,2048
2.10036,100,0,2048,2048
2.15088,100,0,2048,2048
2.20139,100,0,2048,2048
2.25027,100,0,2048,2048
2.30079,100,0,2048,2048
2.3513,100,0,2048,2048
2.40018,100,0,2048,2048
2.4507,100,0,2048,2048
2.50121,100,0,2048,2048
2.55009,100,0,2048,2048
2.60061,100,0,2048,2048
2.65112,100,0,2048,2048
2.7,100,0,2048,2048
2.75052,100,0,2048,2048
2.80103,100,0,2048,2048
2.85154,100,0,2048,2048
2.90043,100,0,2048,2048
2.95094,100,0,2048,2048
3.00145,100,0,2048,2048
3.05034,100,0,2048,2048
3.10085,100,0,2048,2048
3.15136,100,0,2048,2048
3.20025,100,0,2048,2048
3.25076,100,0,2048,2048
3.30127,100,0,2048,2048
3.35015,100,0,2048,2048
3.40067,100,0,2048,2048
3.45118,100,0,2048,2048
3.50006,100,0,2048,2048
3.55058,100,0,2048,2048
3.60109,100,0,2048,2048
3.6516,100,0,2048,2048
3.70049,100,0,2048,2048
3.751,100,0,2048,2048
3.80151,100,0,2048,2048
3.8504,100,0,2048,2048
3.90091,100,0,2048,2048
3.95142,100,0,2048,2048
4.00031,100,0,2048,2048
4.05082,100,0,2048,2048
4.10133,100,0,2048,2048
4.15022,100,0,2048,2048
4.20073,100,0,2048,2048
4.25124,100,0,2048,2048
4.30013,100,0,2048,2048
4.35064,100,0,2048,2048
4.40115,100,0,2048,2048
4.45004,100,0,2048,2048
4.50055,100,0,2048,2048
4.55106,100,0,2048,2048
4.60157,100,0,2048,2048
4.65046,100,0,2048,2048
4.70097,100,0,2048,2048
4.75148,100,0,2048,2048
4.80037,100,0,2048,2048
4.85088,100,0,2048,2048
4.90139,100,0,2048,2048
4.95028,100,0,2048,2048
5.00079,100,0,2048,2048
5.0513,100,0,2048,2048
5.10019,100,0,2048,2048
5.1507,100,0,2048,2048
5.20121,100,0,2048,2048
5.2501,100,0,2048,2048
5.30061,100,0,2048,2048
5.35112,100,0,2048,2048
5.40001,100,0,2048,2048
5.45052,100,0,2048,2048
5.50103,100,0,2048,2048
5.55155,100,0,2048,2048
5.60043,100,0,2048,2048
5.65094,100,0,2048,2048
5.70145,100,0,2048,2048
5.75034,100,0,2048,2048
5.80085,100,0,2048,2048
5.85136,100,0,2048,2048
5.90025,100,0,2048,2048
5.95076,100,0,2048,2048
6.00127,100,0,2048,2048
6.05016,100,0,2048,2048
6.10067,100,0,2048,2048
6.15118,100,0,2048,2048
6.20007,100,0,2048,2048
6.25058,100,0,2048,2048
6.30109,100,0,2048,2048
6.35161,100,0,2048,2048
6.40049,100,0,2048,2048
6.451,100,0,2048,2048
6.50152,100,0,2048,2048
6.5504,100,0,2048,2048
6.60091,100,0,2048,2048
6.65143,100,0,2048,2048
6.70031,100,0,2048,2048
6.75082,100,0,2048,2048
6.80134,100,0,2048,2048
6.85022,100,0,2048,2048
6.90073,100,0,2048,2048
6.95125,100,0,2048,2048
7.00013,100,0,2048,2048
7.05064,100,0,2048,2048
7.10115,100,0,2048,2048
7.15004,100,0,2048,2048
7.20055,100,0,2048,2048
7.25106,100,0,2048,2048
7.30158,100,0,2048,2048
7.35046,100,0,2048,2048
7.40097,100,0,2048,2048
7.45149,100,0,2048,2048
7.50037,100,0,2048,2048
7.55088,100,0,2048,2048
7.6014,100,0,2048,2048
7.65028,100,0,2048,2048
7.70079,100,0,2048,2048
7.75131,100,0,2048,2048
7.80019,100,0,2048,2048
7.8507,100,0,2048,2048
7.90122,100,0,2048,2048
7.9501,100,0,2048,2048
8.00061,100,0,2048,2048
8.05113,100,0,2048,2048
8.10001,100,0,2048,2048
8.15052,100,0,2048,2048
8.20104,100,0,2048,2048
8.25155,100,0,2048,2048
8.30043,100,0,2048,2048
8.35094,100,0,2048,2048
8.40146,100,0,2048,2048
8.45034,100,0,2048,2048
8.50085,100,0,2048,2048
8.55137,100,0,2048,2048
8.60025,100,0,2048,2048
8.65076,100,0,2048,2048
8.70128,100,0,2048,2048
8.75016,100,0,2048,2048
8.80067,100,0,2048,2048
8.85119,100,0,2048,2048
8.90007,100,0,2048,2048
8.95058,100,0,2048,2048
9.0011,100,0,2048,2048
9.05161,100,0,2048,2048
9.10049,100,0,2048,2048
9.15101,100,0,2048,2048
9.20152,100,0,2048,2048
9.2504,100,0,2048,2048
9.30092,100,0,2048,2048
9.35143,100,0,2048,2048
9.40031,100,0,2048,2048
9.45083,100,0,2048,2048
9.50134,100,0,2048,2048
9.55022,100,0,2048,2048
9.60074,100,0,2048,2048
9.65125,100,0,2048,2048
9.70013,100,0,2048,2048
9.75064,100,0,2048,2048
9.80116,100,0,2048,2048
9.85004,100,0,2048,2048
9.90055,100,0,2048,2048
9.95107,100,0,2048,2048
10.0016,100,0,2048,2048
10.0505,100,0,2048,2048
10.101,100,0,2048,2048
10.1515,100,0,2048,2048
10.2004,100,0,2048,2048
10.2509,100,0,2048,2048
10.3014,100,0,2048,2048
10.3503,100,0,2048,2048
10.4008,100,0,2048,2048
10.4513,100,0,2048,2048
10.5002,100,0,2048,2048
10.5507,100,0,2048,2048
10.6012,100,0,2048,2048
10.6501,100,0,2048,2048
10.7006,100,0,2048,2048
10.7511,100,0,2048,2048
10.8,100,0,2048,2048
10.8505,100,0,2048,2048
10.901,100,0,2048,2048
10.9516,100,0,2048,2048
11.0004,100,0,2048,2048
11.0509,100,0,2048,2048
11.1015,100,0,2048,2048
11.1503,100,0,2048,2048
11.2009,100,0,2048,2048
11.2514,100,0,2048,2048
11.3003,100,0,2048,2048
11.3508,100,0,2048,2048
11.4013,100,0,2048,2048
11.4502,100,0,2048,2048
11.5007,100,0,2048,2048
11.5512,100,0,2048,2048
11.6001,100,0,2048,2048
11.6506,100,0,2048,2048
11.7011,100,0,2048,2048
11.7516,100,0,2048,2048
11.8005,100,0,2048,2048
11.851,100,0,2048,2048
11.9015,100,0,2048,2048
11.9504,100,0,2048,2048
12.0009,100,0,2048,2048
12.0514,100,0,2048,2048
12.1003,100,0,2048,2048
12.1508,100,0,2048,2048
12.2013,100,0,2048,2048
12.2502,100,0,2048,2048
12.3007,100,0,2048,2048
12.3513,100,0,2048,2048
12.4001,100,0,2048,2048
12.4506,100,0,2048,2048
12.5012,100,0,2048,2048
12.55,100,0,2048,2048
12.6006,100,0,2048,2048
12.6511,100,0,2048,2048
12.7016,100,0,2048,2048
12.7505,100,0,2048,2048
12.801,100,0,2048,2048
12.8515,100,0,2048,2048
12.9004,100,0,2048,2048
12.9509,100,0,2048,2048
13.0014,100,0,2048,2048
13.0503,100,0,2048,2048
13.1008,100,0,2048,2048
13.1513,100,0,2048,2048
13.2002,100,0,2048,2048
13.2507,100,0,2048,2048
13.3012,100,0,2048,2048
13.3501,100,0,2048,2048
13.4006,100,0,2048,2048
13.4511,100,0,2048,2048
13.5,100,0,2048,2048
13.5505,100,0,2048,2048
13.601,100,0,2048,2048
13.6516,100,0,2048,2048
13.7004,100,0,2048,2048
13.751,100,0,2048,2048
13.8015,100,0,2048,2048
13.8503,100,0,2048,2048
13.9009,100,0,2048,2048
13.9514,100,0,2048,2048
14.0003,100,0,2048,2048
14.0508,100,0,2048,2048
14.1013,100,0,2048,2048
14.1502,100,0,2048,2048
14.2007,100,0,2048,2048
14.2512,100,0,2048,2048
14.3001,100,0,2048,2048
14.3506,100,0,2048,2048
14.4011,100,0,2048,2048
14.4516,100,0,2048,2048
14.5005,100,0,2048,2048
14.551,100,0,2048,2048
14.6015,100,0,2048,2048
14.6504,100,0,2048,2048
14.7009,100,0,2048,2048
14.7514,100,0,2048,2048
14.8003,100,0,2048,2048
14.8508,100,0,2048,2048
14.9013,100,0,2048,2048
14.9502,100,0,2048,2048
15.0007,100,0,2048,2048
15.0513,100,0,2048,2048
15.1001,100,0,2048,2048
15.1507,100,0,2048,2048
15.2012,100,0,2048,2048
15.25,100,0,2048,2048
15.3006,100,0,2048,2048
15.3511,100,0,2048,2048
15.4016,100,0,2048,2048
15.4505,100,0,2048,2048
15.501,100,0,2048,2048
15.5515,100,0,2048,2048
15.6004,100,0,2048,2048
15.6509,100,0,2048,2048
15.7014,100,0,2048,2048
15.7503,100,0,2048,2048
15.8008,100,0,2048,2048
15.8513,100,0,2048,2048
15.9002,100,0,2048,2048
15.9507,100,0,2048,2048
16.0012,100,0,2048,2048
16.0501,100,0,2048,2048
16.1006,100,0,2048,2048
16.1511,100,0,2048,2048
16.2,100,0,2048,2048
16.2505,100,0,2048,2048
16.301,100,0,2048,2048
16.3516,100,0,2048,2048
16.4004,100,0,2048,2048
16.451,100,0,2048,2048
16.5015,100,0,2048,2048
16.5504,100,0,2048,2048
16.6009,100,0,2048,2048
16.6514,100,0,2048,2048
16.7003,100,0,2048,2048
16.7508,100,0,2048,2048
16.8013,100,0,2048,2048
16.8502,100,0,2048,2048
16.9007,100,0,2048,2048
16.9512,100,0,2048,2048
17.0001,100,0,2048,2048
17.0506,100,0,2048,2048
17.1011,100,0,2048,2048
17.1516,100,0,2048,2048
17.2005,100,0,2048,2048
17.251,100,0,2048,2048
17.3015,100,0,2048,2048
17.3504,100,0,2048,2048
17.4009,100,0,2048,2048
17.4514,100,0,2048,2048
17.5003,100,0,2048,2048
17.5508,100,0,2048,2048
17.6013,100,0,2048,2048
17.6502,100,0,2048,2048
17.7007,100,0,2048,2048
17.7513,100,0,2048,2048
17.8001,100,0,2048,2048
17.8507,100,0,2048,2048
17.9012,100,0,2048,2048
17.9501,100,0,2048,2048
18.0006,100,0,2048,2048
18.0511,100,0,2048,2048
18.1016,100,0,2048,2048
18.1505,100,0,2048,2048
18.201,100,0,2048,2048
18.2515,100,0,2048,2048
18.3004,100,0,2048,2048
18.3509,100,0,2048,2048
18.4014,100,0,2048,2048
18.4503,100,0,2048,2048
18.5008,100,0,2048,2048
18.5513,100,0,2048,2048
18.6002,100,0,2048,2048
18.6507,100,0,2048,2048
18.7012,100,0,2048,2048
18.7501,100,0,2048,2048
18.8006,100,0,2048,2048
18.8511,100,0,2048,2048
18.9,100,0,2048,2048
18.9505,100,0,2048,2048
19.001,100,0,2048,2048
19.0516,100,0,2048,2048
19.1004,100,0,2048,2048
19.151,100,0,2048,2048
19.2015,100,0,2048,2048
19.2504,100,0,2048,2048
19.3009,100,0,2048,2048
19.3514,100,0,2048,2048
19.4003,100,0,2048,2048
19.4508,100,0,2048,2048
19.5013,100,0,2048,2048
19.5502,100,0,2048,2048
19.6007,100,0,2048,2048
19.6512,100,0,2048,2048
19.7001,100,0,2048,2048
19.7506,100,0,2048,2048
19.8011,100,0,2048,2048
19.8516,100,0,2048,2048
19.9005,100,0,2048,2048
19.951,100,0,2048,2048
20.0015,100,0,2048,2048
20.0504,100,0,2048,2048
20.1009,100,0,2048,2048
20.1514,100,0,2048,2048
20.2003,100,0,2048,2048
20.2508,100,0,2048,2048
20.3014,100,0,2048,2048
20.3502,100,0,2048,2048
20.4007,100,0,2048,2048
20.4513,100,0,2048,2048
20.5001,100,0,2048,2048
20.5507,100,0,2048,2048
20.6012,100,0,2048,2048
20.6501,100,0,2048,2048
20.7006,100,0,2048,2048
20.7511,100,0,2048,2048
20.8016,100,0,2048,2048
20.8505,100,0,2048,2048
20.901,100,0,2048,2048
20.9515,100,0,2048,2048
21.0004,100,0,2048,2048
21.0509,100,0,2048,2048
21.1014,100,0,2048,2048
21.1503,100,0,2048,2048
21.2008,100,0,2048,2048
21.2513,100,0,2048,2048
21.3002,100,0,2048,2048
21.3507,100,0,2048,2048
21.4012,100,0,2048,2048
21.4501,100,0,2048,2048
21.5006,100,0,2048,2048
21.5511,100,0,2048,2048
21.6,100,0,2048,2048
21.6505,100,0,2048,2048
21.7011,100,0,2048,2048
21.7516,100,0,2048,2048
21.8004,100,0,2048,2048
21.851,100,0,2048,2048
21.9015,100,0,2048,2048
21.9504,100,0,2048,2048
22.0009,100,0,2048,2048
22.0514,100,0,2048,2048
22.1003,100,0,2048,2048
22.1508,100,0,2048,2048
22.2013,100,0,2048,2048
22.2502,100,0,2048,2048
22.3007,100,0,2048,2048
22.3512,100,0,2048,2048
22.4001,100,0,2048,2048
22.4506,100,0,2048,2048
22.5011,100,0,2048,2048
22.5516,100,0,2048,2048
22.6005,100,0,2048,2048
22.651,100,0,2048,2048
22.7015,100,0,2048,2048
22.7504,100,0,2048,2048
22.8009,100,0,2048,2048
22.8514,100,0,2048,2048
22.9003,100,0,2048,2048
22.9508,100,0,2048,2048
23.0014,100,0,2048,2048
23.0502,100,0,2048,2048
23.1008,100,0,2048,2048
23.1513,100,0,2048,2048
23.2001,100,0,2048,2048
23.2507,100,0,2048,2048
23.3012,100,0,2048,2048
23.3501,100,0,2048,2048
23.4006,100,0,2048,2048
23.4511,100,0,2048,2048
23.5016,100,0,2048,2048
23.5505,100,0,2048,2048
23.601,100,0,2048,2048
23.6515,100,0,2048,2048
23.7004,100,0,2048,2048
23.7509,100,0,2048,2048
23.8014,100,0,2048,2048
23.8503,100,0,2048,2048
23.9008,100,0,2048,2048
23.9513,100,0,2048,2048
24.0002,100,0,2048,2048
24.0507,100,0,2048,2048
24.1012,100,0,2048,2048
24.1501,100,0,2048,2048
24.2006,100,0,2048,2048
24.2511,100,0,2048,2048
24.3,100,0,2048,2048
24.3505,100,0,2048,2048
24.4011,100,0,2048,2048
24.4516,100,0,2048,2048
24.5005,100,0,2048,2048
24.551,100,0,2048,2048
24.6015,100,0,2048,2048
24.6504,100,0,2048,2048
24.7009,100,0,2048,2048
24.7514,100,0,2048,2048
24.8003,100,0,2048,2048
24.8508,100,0,2048,2048
24.9013,100,0,2048,2048
24.9502,100,0,2048,2048
25.0007,100,0,2048,2048
25.0512,100,0,2048,2048
25.1001,100,0,2048,2048
25.1506,100,0,2048,2048
25.2011,100,0,2048,2048
25.2516,100,0,2048,2048
25.3005,100,0,2048,2048
25.351,100,0,2048,2048
25.4015,100,0,2048,2048
25.4504,100,0,2048,2048
25.5009,100,0,2048,2048
25.5514,100,0,2048,2048
25.6003,100,0,2048,2048
25.6508,100,0,2048,2048
25.7014,100,0,2048,2048
25.7502,100,0,2048,2048
25.8008,100,0,2048,2048
25.8513,100,0,2048,2048
25.9002,100,0,2048,2048
25.9507,100,0,2048,2048
26.0012,100,0,2048,2048
26.0501,100,0,2048,2048
26.1006,100,0,2048,2048
26.1511,100,0,2048,2048
26.2016,100,0,2048,2048
26.2505,100,0,2048,2048
26.301,100,0,2048,2048
26.3515,100,0,2048,2048
26.4004,100,0,2048,2048
26.4509,100,0,2048,2048
26.5014,100,0,2048,2048
26.5503,100,0,2048,2048
26.6008,100,0,2048,2048
26.6513,100,0,2048,2048
26.7002,100,0,2048,2048
26.7507,100,0,2048,2048
26.8012,100,0,2048,2048
26.8501,100,0,2048,2048
26.9006,100,0,2048,2048
26.9511,100,0,2048,2048
27,100,0,2048,2048
27.0505,100,0,2048,2048
27.1011,100,0,2048,2048
27.1516,100,0,2048,2048
27.2005,100,0,2048,2048
27.251,100,0,2048,2048
27.3015,100,0,2048,2048
27.3504,100,0,2048,2048
27.4009,100,0,2048,2048
27.4514,100,0,2048,2048
27.5003,100,0,2048,2048
27.5508,100,0,2048,2048
27.6013,100,0,2048,2048
27.6502,100,0,2048,2048
27.7007,100,0,2048,2048
27.7512,100,0,2048,2048
27.8001,100,0,2048,2048
27.8506,100,0,2048,2048
27.9011,100,0,2048,2048
27.95,100,0,2048,2048
28.0005,100,0,2048,2048
28.051,100,0,2048,2048
28.1015,100,0,2048,2048
28.1504,100,0,2048,2048
28.2009,100,0,2048,2048
28.2515,100,0,2048,2048
28.3003,100,0,2048,2048
28.3508,100,0,2048,2048
28.4014,100,0,2048,2048
28.4502,100,0,2048,2048
28.5008,100,0,2048,2048
28.5513,100,0,2048,2048
28.6002,100,0,2048,2048
28.6507,100,0,2048,2048
28.7012,100,0,2048,2048
28.7501,100,0,2048,2048
28.8006,100,0,2048,2048
28.8511,100,0,2048,2048
28.9016,100,0,2048,2048
28.9505,100,0,2048,2048
29.001,100,0,2048,2048
29.0515,100,0,2048,2048
29.1004,100,0,2048,2048
29.1509,100,0,2048,2048
29.2014,100,0,2048,2048
29.2503,100,0,2048,2048
29.3008,100,0,2048,2048
29.3513,100,0,2048,2048
29.4002,100,0,2048,2048
29.4507,100,0,2048,2048
29.5012,100,0,2048,2048
29.5501,100,0,2048,2048
29.6006,100,0,2048,2048
29.6512,100,0,2048,2048
29.7,100,0,2048,2048
29.7505,100,0,2048,2048
29.8011,100,0,2048,2048
29.8516,100,0,2048,2048
29.9005,100,0,2048,2048
29.951,100,0,2048,2048
30.0015,100,0,2048,2048
30.0504,100,0,2048,2048
30.1009,100,0,2048,2048
30.1514,100,0,2048,2048
30.2003,100,0,2048,2048
30.2508,100,0,2048,2048
30.3013,100,0,2048,2048
30.3502,100,0,2048,2048
30.4007,100,0,2048,2048
30.4512,100,0,2048,2048
30.5001,100,0,2048,2048
30.5506,100,0,2048,2048
30.6011,100,0,2048,2048
30.65,100,0,2048,2048
30.7005,100,0,2048,2048
30.751,100,0,2048,2048
30.8015,100,0,2048,2048
30.8504,100,0,2048,2048
30.9009,100,0,2048,2048
30.9515,100,0,2048,2048
31.0003,100,0,2048,2048
31.0509,100,0,2048,2048
31.1014,100,0,2048,2048
31.1502,100,0,2048,2048
31.2008,100,0,2048,2048
31.2513,100,0,2048,2048
31.3002,100,0,2048,2048
31.3507,100,0,2048,2048
31.4012,100,0,2048,2048
31.4501,100,0,2048,2048
31.5006,100,0,2048,2048
31.5511,100,0,2048,2048
31.6016,100,0,2048,2048
31.6505,100,0,2048,2048
31.701,100,0,2048,2048
31.7515,100,0,2048,2048
31.8004,100,0,2048,2048
31.8509,100,0,2048,2048
31.9014,100,0,2048,2048
31.9503,100,0,2048,2048
32.0008,100,0,2048,2048
32.0513,100,0,2048,2048
32.1002,100,0,2048,2048
32.1507,100,0,2048,2048
32.2012,100,0,2048,2048
32.2501,100,0,2048,2048
32.3006,100,0,2048,2048
32.3512,100,0,2048,2048
32.4,100,0,2048,2048
32.4505,100,0,2048,2048
32.5011,100,0,2048,2048
32.5516,100,0,2048,2048
32.6005,100,0,2048,2048
32.651,100,0,2048,2048
32.7015,100,0,2048,2048
32.7504,100,0,2048,2048
32.8009,100,0,2048,2048
32.8514,100,0,2048,2048
32.9003,100,0,2048,2048
32.9508,100,0,2048,2048
33.0013,100,0,2048,2048
33.0502,100,0,2048,2048
33.1007,100,0,2048,2048
33.1512,100,0,2048,2048
33.2001,100,0,2048,2048
33.2506,100,0,2048,2048
33.3011,100,0,2048,2048
33.35,100,0,2048,2048
33.4005,100,0,2048,2048
33.451,100,0,2048,2048
33.5015,100,0,2048,2048
33.5504,100,0,2048,2048
33.6009,100,0,2048,2048
33.6515,100,0,2048,2048
33.7003,100,0,2048,2048
33.7509,100,0,2048,2048
33.8014,100,0,2048,2048
33.8502,100,0,2048,2048
33.9008,100,0,2048,2048
33.9513,100,0,2048,2048
34.0002,100,0,2048,2048
34.0507,100,0,2048,2048
34.1012,100,0,2048,2048
34.1501,100,0,2048,2048
34.2006,100,0,2048,2048
34.2511,100,0,2048,2048
34.3016,100,0,2048,2048
34.3505,100,0,2048,2048
34.401,100,0,2048,2048
34.4515,100,0,2048,2048
34.5004,100,0,2048,2048
34.5509,100,0,2048,2048
34.6014,100,0,2048,2048
34.6503,100,0,2048,2048
34.7008,100,0,2048,2048
34.7513,100,0,2048,2048
34.8002,100,0,2048,2048
34.8507,100,0,2048,2048
34.9012,100,0,2048,2048
34.9501,100,0,2048,2048
35.0006,100,0,2048,2048
35.0512,100,0,2048,2048
35.1,100,0,2048,2048
35.1506,100,0,2048,2048
35.2011,100,0,2048,2048
35.2516,100,0,2048,2048
35.3005,100,0,2048,2048
35.351,100,0,2048,2048
35.4015,100,0,2048,2048
35.4504,100,0,2048,2048
35.5009,100,0,2048,2048
35.5514,100,0,2048,2048
35.6003,100,0,2048,2048
35.6508,100,0,2048,2048
35.7013,100,0,2048,2048
35.7502,100,0,2048,2048
35.8007,100,0,2048,2048
35.8512,100,0,2048,2048
35.9001,100,0,2048,2048
35.9506,100,0,2048,2048
36.0011,100,0,2048,2048
36.05,100,0,2048,2048
36.1005,100,0,2048,2048
36.151,100,0,2048,2048
36.2015,100,0,2048,2048
36.2504,100,0,2048,2048
36.3009,100,0,2048,2048
36.3515,100,0,2048,2048
36.4003,100,0,2048,2048
36.4509,100,0,2048,2048
36.5014,100,0,2048,2048
36.5503,100,0,2048,2048
36.6008,100,0,2048,2048
36.6513,100,0,2048,2048
36.7002,100,0,2048,2048
36.7507,100,0,2048,2048
36.8012,100,0,2048,2048
36.8501,100,0,2048,2048
36.9006,100,0,2048,2048
36.9511,100,0,2048,2048
37.0016,100,0,2048,2048
37.0505,100,0,2048,2048
37.101,100,0,2048,2048
37.1515,100,0,2048,2048
37.2004,100,0,2048,2048
37.2509,100,0,2048,2048
37.3014,100,0,2048,2048
37.3503,100,0,2048,2048
37.4008,100,0,2048,2048
37.4513,100,0,2048,2048
37.5002,100,0,2048,2048
37.5507,100,0,2048,2048
37.6012,100,0,2048,2048
37.6501,100,0,2048,2048
37.7006,100,0,2048,2048
37.7512,100,0,2048,2048
37.8,100,0,2048,2048
37.8506,100,0,2048,2048
37.9011,100,0,2048,2048
37.9516,100,0,2048,2048
38.0005,100,0,2048,2048
38.051,100,0,2048,2048
38.1015,100,0,2048,2048
38.1504,100,0,2048,2048
38.2009,100,0,2048,2048
38.2514,100,0,2048,2048
38.3003,100,0,2048,2048
38.3508,100,0,2048,2048
38.4013,100,0,2048,2048
38.4502,100,0,2048,2048
38.5007,100,0,2048,2048
38.5512,100,0,2048,2048
38.6001,100,0,2048,2048
38.6506,100,0,2048,2048
38.7011,100,0,2048,2048
38.75,100,0,2048,2048
38.8005,100,0,2048,2048
38.851,100,0,2048,2048
38.9016,100,0,2048,2048
38.9504,100,0,2048,2048
39.0009,100,0,2048,2048
39.0515,100,0,2048,2048
39.1003,100,0,2048,2048
39.1509,100,0,2048,2048
39.2014,100,0,2048,2048
39.2503,100,0,2048,2048
39.3008,100,0,2048,2048
39.3513,100,0,2048,2048
39.4002,100,0,2048,2048
39.4507,100,0,2048,2048
39.5012,100,0,2048,2048
39.5501,100,0,2048,2048
39.6006,100,0,2048,2048
39.6511,100,0,2048,2048
39.7016,100,0,2048,2048
39.7505,100,0,2048,2048
39.801,100,0,2048,2048
39.8515,100,0,2048,2048
39.9004,100,0,2048,2048
39.9509,100,0,2048,2048
40.0014,100,0,2048,2048
40.0503,100,0,2048,2048
40.1008,100,0,2048,2048
40.1513,100,0,2048,2048
40.2002,100,0,2048,2048
40.2507,100,0,2048,2048
40.3013,100,0,2048,2048
40.3501,100,0,2048,2048
40.4006,100,0,2048,2048
40.4512,100,0,2048,2048
40.5,100,0,2048,2048
40.5506,100,0,2048,2048
40.6011,100,0,2048,2048
40.6516,100,0,2048,2048
40.7005,100,0,2048,2048
40.751,100,0,2048,2048
40.8015,100,0,2048,2048
40.8504,100,0,2048,2048
40.9009,100,0,2048,2048
40.9514,100,0,2048,2048
41.0003,100,0,2048,2048
41.0508,100,0,2048,2048
41.1013,100,0,2048,2048
41.1502,100,0,2048,2048
41.2007,100,0,2048,2048
41.2512,100,0,2048,2048
41.3001,100,0,2048,2048
41.3506,100,0,2048,2048
41.4011,100,0,2048,2048
41.45,100,0,2048,2048
41.5005,100,0,2048,2048
41.551,100,0,2048,2048
41.6016,100,0,2048,2048
41.6504,100,0,2048,2048
41.701,100,0,2048,2048
41.7515,100,0,2048,2048
41.8003,100,0,2048,2048
41.8509,100,0,2048,2048
41.9014,100,0,2048,2048
41.9503,100,0,2048,2048
42.0008,100,0,2048,2048
42.0513,100,0,2048,2048
42.1002,100,0,2048,2048
42.1507,100,0,2048,2048
42.2012,100,0,2048,2048
42.2501,100,0,2048,2048
42.3006,100,0,2048,2048
42.3511,100,0,2048,2048
42.4016,100,0,2048,2048
42.4505,100,0,2048,2048
42.501,100,0,2048,2048
42.5515,100,0,2048,2048
42.6004,100,0,2048,2048
42.6509,100,0,2048,2048
42.7014,100,0,2048,2048
42.7503,100,0,2048,2048
42.8008,100,0,2048,2048
42.8513,100,0,2048,2048
42.9002,100,0,2048,2048
42.9507,100,0,2048,2048
43.0013,100,0,2048,2048
43.0501,100,0,2048,2048
43.1007,100,0,2048,2048
43.1512,100,0,2048,2048
43.2,100,0,2048,2048
43.2506,100,0,2048,2048
43.3011,100,0,2048,2048
43.3516,100,0,2048,2048
43.4005,100,0,2048,2048
43.451,100,0,2048,2048
43.5015,100,0,2048,2048
43.5504,100,0,2048,2048
43.6009,100,0,2048,2048
43.6514,100,0,2048,2048
43.7003,100,0,2048,2048
43.7508,100,0,2048,2048
43.8013,100,0,2048,2048
43.8502,100,0,2048,2048
43.9007,100,0,2048,2048
43.9512,100,0,2048,2048
44.0001,100,0,2048,2048
44.0506,100,0,2048,2048
44.1011,100,0,2048,2048
44.15,100,0,2048,2048
44.2005,100,0,2048,2048
44.251,100,0,2048,2048
44.3016,100,0,2048,2048
44.3504,100,0,2048,2048
44.401,100,0,2048,2048
44.4515,100,0,2048,2048
44.5004,100,0,2048,2048
44.5509,100,0,2048,2048
44.6014,100,0,2048,2048
44.6503,100,0,2048,2048
44.7008,100,0,2048,2048
44.7513,100,0,2048,2048
44.8002,100,0,2048,2048
44.8507,100,0,2048,2048
44.9012,100,0,2048,2048
44.9501,100,0,2048,2048
45.0006,100,0,2048,2048
45.0511,100,0,2048,2048
45.1016,100,0,2048,2048
45.1505,100,0,2048,2048
45.201,100,0,2048,2048
45.2515,100,0,2048,2048
45.3004,100,0,2048,2048
45.3509,100,0,2048,2048
45.4014,100,0,2048,2048
45.4503,100,0,2048,2048
45.5008,100,0,2048,2048
45.5513,100,0,2048,2048
45.6002,100,0,2048,2048
45.6507,100,0,2048,2048
45.7013,100,0,2048,2048
45.7501,100,0,2048,2048
45.8007,100,0,2048,2048
45.8512,100,0,2048,2048
45.9001,100,0,2048,2048
45.9506,100,0,2048,2048
46.0011,100,0,2048,2048
46.0516,100,0,2048,2048
46.1005,100,0,2048,2048
46.151,100,0,2048,2048
46.2015,100,0,2048,2048
46.2504,100,0,2048,2048
46.3009,100,0,2048,2048
46.3514,100,0,2048,2048
46.4003,100,0,2048,2048
46.4508,100,0,2048,2048
46.5013,100,0,2048,2048
46.5502,100,0,2048,2048
46.6007,100,0,2048,2048
46.6512,100,0,2048,2048
46.7001,100,0,2048,2048
46.7506,100,0,2048,2048
46.8011,100,0,2048,2048
46.85,100,0,2048,2048
46.9005,100,0,2048,2048
46.951,100,0,2048,2048
47.0016,100,0,2048,2048
47.0504,100,0,2048,2048
47.101,100,0,2048,2048
47.1515,100,0,2048,2048
47.2004,100,0,2048,2048
47.2509,100,0,2048,2048
47.3014,100,0,2048,2048
47.3503,100,0,2048,2048
47.4008,100,0,2048,2048
47.4513,100,0,2048,2048
47.5002,100,0,2048,2048
47.5507,100,0,2048,2048
47.6012,100,0,2048,2048
47.6501,100,0,2048,2048
47.7006,100,0,2048,2048
47.7511,100,0,2048,2048
47.8016,100,0,2048,2048
47.8505,100,0,2048,2048
47.901,100,0,2048,2048
47.9515,100,0,2048,2048
48.0004,100,0,2048,2048
48.0509,100,0,2048,2048
48.1014,100,0,2048,2048
48.1503,100,0,2048,2048
48.2008,100,0,2048,2048
48.2514,100,0,2048,2048
48.3002,100,0,2048,2048
48.3507,100,0,2048,2048
48.4013,100,0,2048,2048
48.4501,100,0,2048,2048
48.5007,100,0,2048,2048
48.5512,100,0,2048,2048
48.6001,100,0,2048,2048
48.6506,100,0,2048,2048
48.7011,100,0,2048,2048
48.7516,100,0,2048,2048
48.8005,100,0,2048,2048
48.851,100,0,2048,2048
48.9015,100,0,2048,2048
48.9504,100,0,2048,2048
49.0009,100,0,2048,2048
49.0514,100,0,2048,2048
49.1003,100,0,2048,2048
49.1508,100,0,2048,2048
49.2013,100,0,2048,2048
49.2502,100,0,2048,2048
49.3007,100,0,2048,2048
49.3512,100,0,2048,2048
49.4001,100,0,2048,2048
49.4506,100,0,2048,2048
49.5011,100,0,2048,2048
49.55,100,0,2048,2048
49.6005,100,0,2048,2048
49.6511,100,0,2048,2048
49.7016,100,0,2048,2048
49.7504,100,0,2048,2048
49.801,100,0,2048,2048
49.8515,100,0,2048,2048
49.9004,100,0,2048,2048
49.9509,100,0,2048,2048
50.0014,100,0,2048,2048
50.0503,100,0,2048,2048
50.1008,100,0,2048,2048
50.1513,100,0,2048,2048
50.2002,100,0,2048,2048
50.2507,100,0,2048,2048
50.3012,100,0,2048,2048
50.3501,100,0,2048,2048
50.4006,100,0,2048,2048
50.4511,100,0,2048,2048
50.5016,100,0,2048,2048
50.5505,100,0,2048,2048
50.601,100,0,2048,2048
50.6515,100,0,2048,2048
50.7004,100,0,2048,2048
50.7509,100,0,2048,2048
50.8014,100,0,2048,2048
50.8503,100,0,2048,2048
50.9008,100,0,2048,2048
50.9514,100,0,2048,2048
51.0002,100,0,2048,2048
51.0508,100,0,2048,2048
51.1013,100,0,2048,2048
51.1501,100,0,2048,2048
51.2007,100,0,2048,2048
51.2512,100,0,2048,2048
51.3001,100,0,2048,2048
51.3506,100,0,2048,2048
51.4011,100,0,2048,2048
51.4516,100,0,2048,2048
51.5005,100,0,2048,2048
51.551,100,0,2048,2048
51.6015,100,0,2048,2048
51.6504,100,0,2048,2048
51.7009,100,0,2048,2048
51.7514,100,0,2048,2048
51.8003,100,0,2048,2048
51.8508,100,0,2048,2048
51.9013,100,0,2048,2048
51.9502,100,0,2048,2048
52.0007,100,0,2048,2048
52.0512,100,0,2048,2048
52.1001,100,0,2048,2048
52.1506,100,0,2048,2048
52.2011,100,0,2048,2048
52.25,100,0,2048,2048
52.3005,100,0,2048,2048
52.3511,100,0,2048,2048
52.4016,100,0,2048,2048
52.4505,100,0,2048,2048
52.501,100,0,2048,2048
52.5515,100,0,2048,2048
52.6004,100,0,2048,2048
52.6509,100,0,2048,2048
52.7014,100,0,2048,2048
52.7503,100,0,2048,2048
52.8008,100,0,2048,2048
52.8513,100,0,2048,2048
52.9002,100,0,2048,2048
52.9507,100,0,2048,2048
53.0012,100,0,2048,2048
53.0501,100,0,2048,2048
53.1006,100,0,2048,2048
53.1511,100,0,2048,2048
53.2,100,0,2048,2048
53.2505,100,0,2048,2048
53.301,100,0,2048,2048
53.3515,100,0,2048,2048
53.4004,100,0,2048,2048
53.4509,100,0,2048,2048
53.5014,100,0,2048,2048
53.5503,100,0,2048,2048
53.6008,100,0,2048,2048
53.6514,100,0,2048,2048
53.7002,100,0,2048,2048
53.7508,100,0,2048,2048
53.8013,100,0,2048,2048
53.8502,100,0,2048,2048
53.9007,100,0,2048,2048
53.9512,100,0,2048,2048
54.0001,100,0,2048,2048
54.0506,100,0,2048,2048
54.1011,100,0,2048,2048
54.1516,100,0,2048,2048
54.2005,100,0,2048,2048
54.251,100,0,2048,2048
54.3015,100,0,2048,2048
54.3504,100,0,2048,2048
54.4009,100,0,2048,2048
54.4514,100,0,2048,2048
54.5003,100,0,2048,2048
54.5508,100,0,2048,2048
54.6013,100,0,2048,2048
54.6502,100,0,2048,2048
54.7007,100,0,2048,2048
54.7512,100,0,2048,2048
54.8001,100,0,2048,2048
54.8506,100,0,2048,2048
54.9011,100,0,2048,2048
54.95,100,0,2048,2048
55.0005,100,0,2048,2048
55.0511,100,0,2048,2048
55.1016,100,0,2048,2048
55.1505,100,0,2048,2048
55.201,100,0,2048,2048
55.2515,100,0,2048,2048
55.3004,100,0,2048,2048
55.3509,100,0,2048,2048
55.4014,100,0,2048,2048
55.4503,100,0,2048,2048
55.5008,100,0,2048,2048
55.5513,100,0,2048,2048
55.6002,100,0,2048,2048
55.6507,100,0,2048,2048
55.7012,100,0,2048,2048
55.7501,100,0,2048,2048
55.8006,100,0,2048,2048
55.8511,100,0,2048,2048
55.9,100,0,2048,2048
55.9505,100,0,2048,2048
56.001,100,0,2048,2048
56.0515,100,0,2048,2048
56.1004,100,0,2048,2048
56.1509,100,0,2048,2048
56.2015,100,0,2048,2048
56.2503,100,0,2048,2048
56.3008,100,0,2048,2048
56.3514,100,0,2048,2048
56.4002,100,0,2048,2048
56.4508,100,0,2048,2048
56.5013,100,0,2048,2048
56.5502,100,0,2048,2048
56.6007,100,0,2048,2048
56.6512,100,0,2048,2048
56.7001,100,0,2048,2048
56.7506,100,0,2048,2048
56.8011,100,0,2048,2048
56.8516,100,0,2048,2048
56.9005,100,0,2048,2048
56.951,100,0,2048,2048
57.0015,100,0,2048,2048
57.0504,100,0,2048,2048
57.1009,100,0,2048,2048
57.1514,100,0,2048,2048
57.2003,100,0,2048,2048
57.2508,100,0,2048,2048
57.3013,100,0,2048,2048
57.3502,100,0,2048,2048
57.4007,100,0,2048,2048
57.4512,100,0,2048,2048
57.5001,100,0,2048,2048
57.5506,100,0,2048,2048
57.6012,100,0,2048,2048
57.65,100,0,2048,2048
57.7005,100,0,2048,2048
57.7511,100,0,2048,2048
57.8016,100,0,2048,2048
57.8505,100,0,2048,2048
57.901,100,0,2048,2048
57.9515,100,0,2048,2048
58.0004,100,0,2048,2048
58.0509,100,0,2048,2048
58.1014,100,0,2048,2048
58.1503,100,0,2048,2048
58.2008,100,0,2048,2048
58.2513,100,0,2048,2048
58.3002,100,0,2048,2048
58.3507,100,0,2048,2048
58.4012,100,0,2048,2048
58.4501,100,0,2048,2048
58.5006,100,0,2048,2048
58.5511,100,0,2048,2048
58.6,100,0,2048,2048
58.6505,100,0,2048,2048
58.701,100,0,2048,2048
58.7515,100,0,2048,2048
58.8004,100,0,2048,2048
58.8509,100,0,2048,2048
58.9015,100,0,2048,2048
58.9503,100,0,2048,2048
59.0009,100,0,2048,2048
59.0514,100,0,2048,2048
59.1002,100,0,2048,2048
59.1508,100,0,2048,2048
59.2013,100,0,2048,2048
59.2502,100,0,2048,2048
59.3007,100,0,2048,2048
59.3512,100,0,2048,2048
59.4001,100,0,2048,2048
59.4506,100,0,2048,2048
59.5011,100,0,2048,2048
59.5516,100,0,2048,2048
59.6005,100,0,2048,2048
59.651,100,0,2048,2048
59.7015,100,0,2048,2048
59.7504,100,0,2048,2048
59.8009,100,0,2048,2048
59.8514,100,0,2048,2048
59.9003,100,0,2048,2048
59.9508,100,0,2048,2048
60.0013,100,0,2048,2048
60.0502,100,0,2048,2048
60.1007,100,0,2048,2048
60.1512,100,0,2048,2048
60.2001,100,0,2048,2048
60.2506,100,0,2048,2048
60.3012,100,0,2048,2048
60.35,100,0,2048,2048
60.4006,100,0,2048,2048
60.4511,100,0,2048,2048
60.5016,100,0,2048,2048
60.5505,100,0,2048,2048
60.601,100,0,2048,2048
60.6515,100,0,2048,2048
60.7004,100,0,2048,2048
60.7509,100,0,2048,2048
60.8014,100,0,2048,2048
60.8503,100,0,2048,2048
60.9008,100,0,2048,2048
60.9513,100,0,2048,2048
61.0002,100,0,2048,2048
61.0507,100,0,2048,2048
61.1012,100,0,2048,2048
61.1501,100,0,2048,2048
61.2006,100,0,2048,2048
61.2511,100,0,2048,2048
61.3,100,0,2048,2048
61.3505,100,0,2048,2048
61.401,100,0,2048,2048
61.4515,100,0,2048,2048
61.5004,100,0,2048,2048
61.5509,100,0,2048,2048
61.6015,100,0,2048,2048
61.6503,100,0,2048,2048
61.7009,100,0,2048,2048
61.7514,100,0,2048,2048
61.8003,100,0,2048,2048
61.8508,100,0,2048,2048
61.9013,100,0,2048,2048
61.9502,100,0,2048,2048
62.0007,100,0,2048,2048
62.0512,100,0,2048,2048
62.1001,100,0,2048,2048
62.1506,100,0,2048,2048
62.2011,100,0,2048,2048
62.2516,100,0,2048,2048
62.3005,100,0,2048,2048
62.351,100,0,2048,2048
62.4015,100,0,2048,2048
62.4504,100,0,2048,2048
62.5009,100,0,2048,2048
62.5514,100,0,2048,2048
62.6003,100,0,2048,2048
62.6508,100,0,2048,2048
62.7013,100,0,2048,2048
62.7502,100,0,2048,2048
62.8007,100,0,2048,2048
62.8512,100,0,2048,2048
62.9001,100,0,2048,2048
62.9506,100,0,2048,2048
63.0012,100,0,2048,2048
63.05,100,0,2048,2048
63.1006,100,0,2048,2048
63.1511,100,0,2048,2048
63.2016,100,0,2048,2048
63.2505,100,0,2048,2048
63.301,100,0,2048,2048
63.3515,100,0,2048,2048
63.4004,100,0,2048,2048
63.4509,100,0,2048,2048
63.5014,100,0,2048,2048
63.5503,100,0,2048,2048
63.6008,100,0,2048,2048
63.6513,100,0,2048,2048
63.7002,100,0,2048,2048
63.7507,100,0,2048,2048
63.8012,100,0,2048,2048
63.8501,100,0,2048,2048
63.9006,100,0,2048,2048
63.9511,100,0,2048,2048
64,100,0,2048,2048
64.0505,100,0,2048,2048
64.101,100,0,2048,2048
64.1516,100,0,2048,2048
64.2004,100,0,2048,2048
64.2509,100,0,2048,2048
64.3015,100,0,2048,2048
64.3503,100,0,2048,2048
64.4009,100,0,2048,2048
64.4514,100,0,2048,2048
64.5003,100,0,2048,2048
64.5508,100,0,2048,2048
64.6013,100,0,2048,2048
64.6502,100,0,2048,2048
64.7007,100,0,2048,2048
64.7512,100,0,2048,2048
64.8001,100,0,2048,2048
64.8506,100,0,2048,2048
64.9011,100,0,2048,2048
64.9516,100,0,2048,2048
65.0005,100,0,2048,2048
65.051,100,0,2048,2048
65.1015,100,0,2048,2048
65.1504,100,0,2048,2048
65.2009,100,0,2048,2048
65.2514,100,0,2048,2048
65.3003,100,0,2048,2048
65.3508,100,0,2048,2048
65.4013,100,0,2048,2048
65.4502,100,0,2048,2048
65.5007,100,0,2048,2048
65.5513,100,0,2048,2048
65.6001,100,0,2048,2048
65.6506,100,0,2048,2048
65.7012,100,0,2048,2048
65.75,100,0,2048,2048
65.8006,100,0,2048,2048
65.8511,100,0,2048,2048
65.9016,100,0,2048,2048
65.9505,100,0,2048,2048
66.001,100,0,2048,2048
66.0515,100,0,2048,2048
66.1004,100,0,2048,2048
66.1509,100,0,2048,2048
66.2014,100,0,2048,2048
66.2503,100,0,2048,2048
66.3008,100,0,2048,2048
66.3513,100,0,2048,2048
66.4002,100,0,2048,2048
66.4507,100,0,2048,2048
66.5012,100,0,2048,2048
66.5501,100,0,2048,2048
66.6006,100,0,2048,2048
66.6511,100,0,2048,2048
66.7,100,0,2048,2048
66.7505,100,0,2048,2048
66.801,100,0,2048,2048
66.8516,100,0,2048,2048
66.9004,100,0,2048,2048
66.951,100,0,2048,2048
67.0015,100,0,2048,2048
67.0503,100,0,2048,2048
67.1009,100,0,2048,2048
67.1514,100,0,2048,2048
67.2003,100,0,2048,2048
67.2508,100,0,2048,2048
67.3013,100,0,2048,2048
67.3502,100,0,2048,2048
67.4007,100,0,2048,2048
67.4512,100,0,2048,2048
67.5001,100,0,2048,2048
67.5506,100,0,2048,2048
67.6011,100,0,2048,2048
67.6516,100,0,2048,2048
67.7005,100,0,2048,2048
67.751,100,0,2048,2048
67.8015,100,0,2048,2048
67.8504,100,0,2048,2048
67.9009,100,0,2048,2048
67.9514,100,0,2048,2048
68.0003,100,0,2048,2048
68.0508,100,0,2048,2048
68.1013,100,0,2048,2048
68.1502,100,0,2048,2048
68.2007,100,0,2048,2048
68.2513,100,0,2048,2048
68.3001,100,0,2048,2048
68.3507,100,0,2048,2048
68.4012,100,0,2048,2048
68.45,100,0,2048,2048
68.5006,100,0,2048,2048
68.5511,100,0,2048,2048
68.6016,100,0,2048,2048
68.6505,100,0,2048,2048
68.701,100,0,2048,2048
68.7515,100,0,2048,2048
68.8004,100,0,2048,2048
68.8509,100,0,2048,2048
68.9014,100,0,2048,2048
68.9503,100,0,2048,2048
69.0008,100,0,2048,2048
69.0513,100,0,2048,2048
69.1002,100,0,2048,2048
69.1507,100,0,2048,2048
69.2012,100,0,2048,2048
69.2501,100,0,2048,2048
69.3006,100,0,2048,2048
69.3511,100,0,2048,2048
69.4,100,0,2048,2048
69.4505,100,0,2048,2048
69.501,100,0,2048,2048
69.5516,100,0,2048,2048
69.6004,100,0,2048,2048
69.651,100,0,2048,2048
69.7015,100,0,2048,2048
69.7504,100,0,2048,2048
69.8009,100,0,2048,2048
69.8514,100,0,2048,2048
69.9003,100,0,2048,2048
69.9508,100,0,2048,2048
70.0013,100,0,2048,2048
70.0502,100,0,2048,2048
70.1007,100,0,2048,2048
70.1512,100,0,2048,2048
70.2001,100,0,2048,2048
70.2506,100,0,2048,2048
70.3011,100,0,2048,2048
70.3516,100,0,2048,2048
70.4005,100,0,2048,2048
70.451,100,0,2048,2048
70.5015,100,0,2048,2048
70.5504,100,0,2048,2048
70.6009,100,0,2048,2048
70.6514,100,0,2048,2048
70.7003,100,0,2048,2048
70.7508,100,0,2048,2048
70.8013,100,0,2048,2048
70.8502,100,0,2048,2048
70.9007,100,0,2048,2048
70.9513,100,0,2048,2048
71.0001,100,0,2048,2048
71.0507,100,0,2048,2048
71.1012,100,0,2048,2048
71.1501,100,0,2048,2048
71.2006,100,0,2048,2048
71.2511,100,0,2048,2048
71.3016,100,0,2048,2048
71.3505,100,0,2048,2048
71.401,100,0,2048,2048
71.4515,100,0,2048,2048
71.5004,100,0,2048,2048
71.5509,100,0,2048,2048
71.6014,100,0,2048,2048
71.6503,100,0,2048,2048
71.7008,100,0,2048,2048
71.7513,100,0,2048,2048
71.8002,100,0,2048,2048
71.8507,100,0,2048,2048
71.9012,100,0,2048,2048
71.9501,100,0,2048,2048
72.0006,100,0,2048,2048
72.0511,100,0,2048,2048
72.1,100,0,2048,2048
72.1505,100,0,2048,2048
72.201,100,0,2048,2048
72.2516,100,0,2048,2048
72.3004,100,0,2048,2048
72.351,100,0,2048,2048
72.4015,100,0,2048,2048
72.4504,100,0,2048,2048
72.5009,100,0,2048,2048
72.5514,100,0,2048,2048
72.6003,100,0,2048,2048
72.6508,100,0,2048,2048
72.7013,100,0,2048,2048
72.7502,100,0,2048,2048
72.8007,100,0,2048,2048
72.8512,100,0,2048,2048
72.9001,100,0,2048,2048
72.9506,100,0,2048,2048
73.0011,100,0,2048,2048
73.0516,100,0,2048,2048
73.1005,100,0,2048,2048
73.151,100,0,2048,2048
73.2015,100,0,2048,2048
73.2504,100,0,2048,2048
73.3009,100,0,2048,2048
73.3514,100,0,2048,2048
73.4003,100,0,2048,2048
73.4508,100,0,2048,2048
73.5014,100,0,2048,2048
73.5502,100,0,2048,2048
73.6007,100,0,2048,2048
73.6513,100,0,2048,2048
73.7001,100,0,2048,2048
73.7507,100,0,2048,2048
73.8012,100,0,2048,2048
73.8501,100,0,2048,2048
73.9006,100,0,2048,2048
73.9511,100,0,2048,2048
74.0016,100,0,2048,2048
74.0505,100,0,2048,2048
74.101,100,0,2048,2048
74.1515,100,0,2048,2048
74.2004,100,0,2048,2048
74.2509,100,0,2048,2048
74.3014,100,0,2048,2048
74.3503,100,0,2048,2048
74.4008,100,0,2048,2048
74.4513,100,0,2048,2048
74.5002,100,0,2048,2048
74.5507,100,0,2048,2048
74.6012,100,0,2048,2048
74.6501,100,0,2048,2048
74.7006,100,0,2048,2048
74.7511,100,0,2048,2048
74.8,100,0,2048,2048
74.8505,100,0,2048,2048
74.9011,100,0,2048,2048
74.9516,100,0,2048,2048
75.0004,100,0,2048,2048
75.051,100,0,2048,2048
75.1015,100,0,2048,2048
75.1504,100,0,2048,2048
75.2009,100,0,2048,2048
75.2514,100,0,2048,2048
75.3003,100,0,2048,2048
75.3508,100,0,2048,2048
75.4013,100,0,2048,2048
75.4502,100,0,2048,2048
75.5007,100,0,2048,2048
75.5512,100,0,2048,2048
75.6001,100,0,2048,2048
75.6506,100,0,2048,2048
75.7011,100,0,2048,2048
75.7516,100,0,2048,2048
75.8005,100,0,2048,2048
75.851,100,0,2048,2048
75.9015,100,0,2048,2048
75.9504,100,0,2048,2048
76.0009,100,0,2048,2048
76.0514,100,0,2048,2048
76.1003,100,0,2048,2048
76.1508,100,0,2048,2048
76.2014,100,0,2048,2048
76.2502,100,0,2048,2048
76.3008,100,0,2048,2048
76.3513,100,0,2048,2048
76.4001,100,0,2048,2048
76.4507,100,0,2048,2048
76.5012,100,0,2048,2048
76.5501,100,0,2048,2048
76.6006,100,0,2048,2048
76.6511,100,0,2048,2048
76.7016,100,0,2048,2048
76.7505,100,0,2048,2048
76.801,100,0,2048,2048
76.8515,100,0,2048,2048
76.9004,100,0,2048,2048
76.9509,100,0,2048,2048
77.0014,100,0,2048,2048
77.0503,100,0,2048,2048
77.1008,100,0,2048,2048
77.1513,100,0,2048,2048
77.2002,100,0,2048,2048
77.2507,100,0,2048,2048
77.3012,100,0,2048,2048
77.3501,100,0,2048,2048
77.4006,100,0,2048,2048
77.4511,100,0,2048,2048
77.5,100,0,2048,2048
77.5505,100,0,2048,2048
77.6011,100,0,2048,2048
77.6516,100,0,2048,2048
77.7005,100,0,2048,2048
77.751,100,0,2048,2048
77.8015,100,0,2048,2048
77.8504,100,0,2048,2048
77.9009,100,0,2048,2048
77.9514,100,0,2048,2048
78.0003,100,0,2048,2048
78.0508,100,0,2048,2048
78.1013,100,0,2048,2048
78.1502,100,0,2048,2048
78.2007,100,0,2048,2048
78.2512,100,0,2048,2048
78.3001,100,0,2048,2048
78.3506,100,0,2048,2048
78.4011,100,0,2048,2048
78.4516,100,0,2048,2048
78.5005,100,0,2048,2048
78.551,100,0,2048,2048
78.6015,100,0,2048,2048
78.6504,100,0,2048,2048
78.7009,100,0,2048,2048
78.7514,100,0,2048,2048
78.8003,100,0,2048,2048
78.8508,100,0,2048,2048
78.9014,100,0,2048,2048
78.9502,100,0,2048,2048
79.0008,100,0,2048,2048
79.0513,100,0,2048,2048
79.1002,100,0,2048,2048
79.1507,100,0,2048,2048
79.2012,100,0,2048,2048
79.2501,100,0,2048,2048
79.3006,100,0,2048,2048
79.3511,100,0,2048,2048
79.4016,100,0,2048,2048
79.4505,100,0,2048,2048
79.501,100,0,2048,2048
79.5515,100,0,2048,2048
79.6004,100,0,2048,2048
79.6509,100,0,2048,2048
79.7014,100,0,2048,2048
79.7503,100,0,2048,2048
79.8008,100,0,2048,2048
79.8513,100,0,2048,2048
79.9002,100,0,2048,2048
79.9507,100,0,2048,2048
80.0012,100,0,2048,2048
80.0501,100,0,2048,2048
80.1006,100,0,2048,2048
80.1511,100,0,2048,2048
80.2,100,0,2048,2048
80.2505,100,0,2048,2048
80.3011,100,0,2048,2048
80.3516,100,0,2048,2048
80.4005,100,0,2048,2048
80.451,100,0,2048,2048
80.5015,100,0,2048,2048
80.5504,100,0,2048,2048
80.6009,100,0,2048,2048
80.6514,100,0,2048,2048
80.7003,100,0,2048,2048
80.7508,100,0,2048,2048
80.8013,100,0,2048,2048
80.8502,100,0,2048,2048
80.9007,100,0,2048,2048
80.9512,100,0,2048,2048
81.0001,100,0,2048,2048
81.0506,100,0,2048,2048
81.1011,100,0,2048,2048
81.15,100,0,2048,2048
81.2005,100,0,2048,2048
81.251,100,0,2048,2048
81.3015,100,0,2048,2048
81.3504,100,0,2048,2048
81.4009,100,0,2048,2048
81.4515,100,0,2048,2048
81.5003,100,0,2048,2048
81.5508,100,0,2048,2048
81.6014,100,0,2048,2048
81.6502,100,0,2048,2048
81.7008,100,0,2048,2048
81.7513,100,0,2048,2048
81.8002,100,0,2048,2048
81.8507,100,0,2048,2048
81.9012,100,0,2048,2048
81.9501,100,0,2048,2048
82.0006,100,0,2048,2048
82.0511,100,0,2048,2048
82.1016,100,0,2048,2048
82.1505,100,0,2048,2048
82.201,100,0,2048,2048
82.2515,100,0,2048,2048
82.3004,100,0,2048,2048
82.3509,100,0,2048,2048
82.4014,100,0,2048,2048
82.4503,100,0,2048,2048
82.5008,100,0,2048,2048
82.5513,100,0,2048,2048
82.6002,100,0,2048,2048
82.6507,100,0,2048,2048
82.7012,100,0,2048,2048
82.7501,100,0,2048,2048
82.8006,100,0,2048,2048
82.8512,100,0,2048,2048
82.9,100,0,2048,2048
82.9505,100,0,2048,2048
83.0011,100,0,2048,2048
83.0516,100,0,2048,2048
83.1005,100,0,2048,2048
83.151,100,0,2048,2048
83.2015,100,0,2048,2048
83.2504,100,0,2048,2048
83.3009,100,0,2048,2048
83.3514,100,0,2048,2048
83.4003,100,0,2048,2048
83.4508,100,0,2048,2048
83.5013,100,0,2048,2048
83.5502,100,0,2048,2048
83.6007,100,0,2048,2048
83.6512,100,0,2048,2048
83.7001,100,0,2048,2048
83.7506,100,0,2048,2048
83.8011,100,0,2048,2048
83.85,100,0,2048,2048
83.9005,100,0,2048,2048
83.951,100,0,2048,2048
84.0015,100,0,2048,2048
84.0504,100,0,2048,2048
84.1009,100,0,2048,2048
84.1515,100,0,2048,2048
84.2003,100,0,2048,2048
84.2509,100,0,2048,2048
84.3014,100,0,2048,2048
84.3502,100,0,2048,2048
84.4008,100,0,2048,2048
84.4513,100,0,2048,2048
84.5002,100,0,2048,2048
84.5507,100,0,2048,2048
84.6012,100,0,2048,2048
84.6501,100,0,2048,2048
84.7006,100,0,2048,2048
84.7511,100,0,2048,2048
84.8016,100,0,2048,2048
84.8505,100,0,2048,2048
84.901,100,0,2048,2048
84.9515,100,0,2048,2048
85.0004,100,0,2048,2048
85.0509,100,0,2048,2048
85.1014,100,0,2048,2048
85.1503,100,0,2048,2048
85.2008,100,0,2048,2048
85.2513,100,0,2048,2048
85.3002,100,0,2048,2048
85.3507,100,0,2048,2048
85.4012,100,0,2048,2048
85.4501,100,0,2048,2048
85.5006,100,0,2048,2048
85.5512,100,0,2048,2048
85.6,100,0,2048,2048
85.6505,100,0,2048,2048
85.7011,100,0,2048,2048
85.7516,100,0,2048,2048
85.8005,100,0,2048,2048
85.851,100,0,2048,2048
85.9015,100,0,2048,2048
85.9504,100,0,2048,2048
86.0009,100,0,2048,2048
86.0514,100,0,2048,2048
86.1003,100,0,2048,2048
86.1508,100,0,2048,2048
86.2013,100,0,2048,2048
86.2502,100,0,2048,2048
86.3007,100,0,2048,2048
86.3512,100,0,2048,2048
86.4001,100,0,2048,2048
86.4506,100,0,2048,2048
86.5011,100,0,2048,2048
86.55,100,0,2048,2048
86.6005,100,0,2048,2048
86.651,100,0,2048,2048
86.7015,100,0,2048,2048
86.7504,100,0,2048,2048
86.8009,100,0,2048,2048
86.8515,100,0,2048,2048
86.9003,100,0,2048,2048
86.9509,100,0,2048,2048
87.0014,100,0,2048,2048
87.0502,100,0,2048,2048
87.1008,100,0,2048,2048
87.1513,100,0,2048,2048
87.2002,100,0,2048,2048
87.2507,100,0,2048,2048
87.3012,100,0,2048,2048
87.3501,100,0,2048,2048
87.4006,100,0,2048,2048
87.4511,100,0,2048,2048
87.5016,100,0,2048,2048
87.5505,100,0,2048,2048
87.601,100,0,2048,2048
87.6515,100,0,2048,2048
87.7004,100,0,2048,2048
87.7509,100,0,2048,2048
87.8014,100,0,2048,2048
87.8503,100,0,2048,2048
87.9008,100,0,2048,2048
87.9513,100,0,2048,2048
88.0002,100,0,2048,2048
88.0507,100,0,2048,2048
88.1012,100,0,2048,2048
88.1501,100,0,2048,2048
88.2006,100,0,2048,2048
88.2512,100,0,2048,2048
88.3,100,0,2048,2048
88.3506,100,0,2048,2048
88.4011,100,0,2048,2048
88.4516,100,0,2048,2048
88.5005,100,0,2048,2048
88.551,100,0,2048,2048
88.6015,100,0,2048,2048
88.6504,100,0,2048,2048
88.7009,100,0,2048,2048
88.7514,100,0,2048,2048
88.8003,100,0,2048,2048
88.8508,100,0,2048,2048
88.9013,100,0,2048,2048
88.9502,100,0,2048,2048
89.0007,100,0,2048,2048
89.0512,100,0,2048,2048
89.1001,100,0,2048,2048
89.1506,100,0,2048,2048
89.2011,100,0,2048,2048
89.25,100,0,2048,2048
89.3005,100,0,2048,2048
89.351,100,0,2048,2048
89.4016,100,0,2048,2048
89.4504,100,0,2048,2048
89.5009,100,0,2048,2048
89.5515,100,0,2048,2048
89.6003,100,0,2048,2048
89.6509,100,0,2048,2048
89.7014,100,0,2048,2048
89.7503,100,0,2048,2048
89.8008,100,0,2048,2048
89.8513,100,0,2048,2048
89.9002,100,0,2048,2048
89.9507,100,0,2048,2048
90.0012,100,0,2048,2048
90.0501,100,0,2048,2048
90.1006,100,0,2048,2048
90.1511,100,0,2048,2048
90.2016,100,0,2048,2048
90.2505,100,0,2048,2048
90.301,100,0,2048,2048
90.3515,100,0,2048,2048
90.4004,100,0,2048,2048
90.4509,100,0,2048,2048
90.5014,100,0,2048,2048
90.5503,100,0,2048,2048
90.6008,100,0,2048,2048
90.6513,100,0,2048,2048
90.7002,100,0,2048,2048
90.7507,100,0,2048,2048
90.8012,100,0,2048,2048
90.8501,100,0,2048,2048
90.9006,100,0,2048,2048
90.9512,100,0,2048,2048
91,100,0,2048,2048
91.0506,100,0,2048,2048
91.1011,100,0,2048,2048
91.1516,100,0,2048,2048
91.2005,100,0,2048,2048
91.251,100,0,2048,2048
91.3015,100,0,2048,2048
91.3504,100,0,2048,2048
91.4009,100,0,2048,2048
91.4514,100,0,2048,2048
91.5003,100,0,2048,2048
91.5508,100,0,2048,2048
91.6013,100,0,2048,2048
91.6502,100,0,2048,2048
91.7007,100,0,2048,2048
91.7512,100,0,2048,2048
91.8001,100,0,2048,2048
91.8506,100,0,2048,2048
91.9011,100,0,2048,2048
91.95,100,0,2048,2048
92.0005,100,0,2048,2048
92.051,100,0,2048,2048
92.1016,100,0,2048,2048
92.1504,100,0,2048,2048
92.2009,100,0,2048,2048
92.2515,100,0,2048,2048
92.3003,100,0,2048,2048
92.3509,100,0,2048,2048
92.4014,100,0,2048,2048
92.4503,100,0,2048,2048
92.5008,100,0,2048,2048
92.5513,100,0,2048,2048
92.6002,100,0,2048,2048
92.6507,100,0,2048,2048
92.7012,100,0,2048,2048
92.7501,100,0,2048,2048
92.8006,100,0,2048,2048
92.8511,100,0,2048,2048
92.9016,100,0,2048,2048
92.9505,100,0,2048,2048
93.001,100,0,2048,2048
93.0515,100,0,2048,2048
93.1004,100,0,2048,2048
93.1509,100,0,2048,2048
93.2014,100,0,2048,2048
93.2503,100,0,2048,2048
93.3008,100,0,2048,2048
93.3513,100,0,2048,2048
93.4002,100,0,2048,2048
93.4507,100,0,2048,2048
93.5013,100,0,2048,2048
93.5501,100,0,2048,2048
93.6006,100,0,2048,2048
93.6512,100,0,2048,2048
93.7,100,0,2048,2048
93.7506,100,0,2048,2048
93.8011,100,0,2048,2048
93.8516,100,0,2048,2048
93.9005,100,0,2048,2048
93.951,100,0,2048,2048
94.0015,100,0,2048,2048
94.0504,100,0,2048,2048
94.1009,100,0,2048,2048
94.1514,100,0,2048,2048
94.2003,100,0,2048,2048
94.2508,100,0,2048,2048
94.3013,100,0,2048,2048
94.3502,100,0,2048,2048
94.4007,100,0,2048,2048
94.4512,100,0,2048,2048
94.5001,100,0,2048,2048
94.5506,100,0,2048,2048
94.6011,100,0,2048,2048
94.65,100,0,2048,2048
94.7005,100,0,2048,2048
94.751,100,0,2048,2048
94.8016,100,0,2048,2048
94.8504,100,0,2048,2048
94.901,100,0,2048,2048
94.9515,100,0,2048,2048
95.0003,100,0,2048,2048
95.0509,100,0,2048,2048
95.1014,100,0,2048,2048
95.1503,100,0,2048,2048
95.2008,100,0,2048,2048
95.2513,100,0,2048,2048
95.3002,100,0,2048,2048
95.3507,100,0,2048,2048
95.4012,100,0,2048,2048
95.4501,100,0,2048,2048
95.5006,100,0,2048,2048
95.5511,100,0,2048,2048
95.6016,100,0,2048,2048
95.6505,100,0,2048,2048
95.701,100,0,2048,2048
95.7515,100,0,2048,2048
95.8004,100,0,2048,2048
95.8509,100,0,2048,2048
95.9014,100,0,2048,2048
95.9503,100,0,2048,2048
96.0008,100,0,2048,2048
96.0513,100,0,2048,2048
96.1002,100,0,2048,2048
96.1507,100,0,2048,2048
96.2013,100,0,2048,2048
96.2501,100,0,2048,2048
96.3007,100,0,2048,2048
96.3512,100,0,2048,2048
96.4,100,0,2048,2048
96.4506,100,0,2048,2048
96.5011,100,0,2048,2048
96.5516,100,0,2048,2048
96.6005,100,0,2048,2048
96.651,100,0,2048,2048
96.7015,100,0,2048,2048
96.7504,100,0,2048,2048
96.8009,100,0,2048,2048
96.8514,100,0,2048,2048
96.9003,100,0,2048,2048
96.9508,100,0,2048,2048
97.0013,100,0,2048,2048
97.0502,100,0,2048,2048
97.1007,100,0,2048,2048
97.1512,100,0,2048,2048
97.2001,100,0,2048,2048
97.2506,100,0,2048,2048
97.3011,100,0,2048,2048
97.35,100,0,2048,2048
97.4005,100,0,2048,2048
97.451,100,0,2048,2048
97.5016,100,0,2048,2048
97.5504,100,0,2048,2048
97.601,100,0,2048,2048
97.6515,100,0,2048,2048
97.7004,100,0,2048,2048
97.7509,100,0,2048,2048
97.8014,100,0,2048,2048
97.8503,100,0,2048,2048
97.9008,100,0,2048,2048
97.9513,100,0,2048,2048
98.0002,100,0,2048,2048
98.0507,100,0,2048,2048
98.1012,100,0,2048,2048
98.1501,100,0,2048,2048
98.2006,100,0,2048,2048
98.2511,100,0,2048,2048
98.3016,100,0,2048,2048
98.3505,100,0,2048,2048
98.401,100,0,2048,2048
98.4515,100,0,2048,2048
98.5004,100,0,2048,2048
98.5509,100,0,2048,2048
98.6014,100,0,2048,2048
98.6503,100,0,2048,2048
98.7008,100,0,2048,2048
98.7513,100,0,2048,2048
98.8002,100,0,2048,2048
98.8507,100,0,2048,2048
98.9013,100,0,2048,2048
98.9501,100,0,2048,2048
99.0007,100,0,2048,2048
99.0512,100,0,2048,2048
99.1001,100,0,2048,2048
99.1506,100,0,2048,2048
99.2011,100,0,2048,2048
99.2516,100,0,2048,2048
99.3005,100,0,2048,2048
99.351,100,0,2048,2048
99.4015,100,0,2048,2048
99.4504,100,0,2048,2048
99.5009,100,0,2048,2048
99.5514,100,0,2048,2048
99.6003,100,0,2048,2048
99.6508,100,0,2048,2048
99.7013,100,0,2048,2048
99.7502,100,0,2048,2048
99.8007,100,0,2048,2048
99.8512,100,0,2048,2048
99.9001,100,0,2048,2048
99.9506,100,0,2048,2048
100.001,100,0,2048,2048
100.05,100,0,2048,2048
100.101,100,0,2048,2048
100.151,100,0,2048,2048
100.202,100,0,2048,2048
100.25,100,0,2048,2048
100.301,100,0,2048,2048
100.351,100,0,2048,2048
100.4,100,0,2048,2048
100.451,100,0,2048,2048
100.501,100,0,2048,2048
100.55,100,0,2048,2048
100.601,100,0,2048,2048
100.651,100,0,2048,2048
100.7,100,0,2048,2048
100.751,100,0,2048,2048
100.801,100,0,2048,2048
100.85,100,0,2048,2048
100.901,100,0,2048,2048
100.951,100,0,2048,2048
101.002,100,0,2048,2048
101.051,100,0,2048,2048
101.101,100,0,2048,2048
101.152,100,0,2048,2048
101.2,100,0,2048,2048
101.251,100,0,2048,2048
101.301,100,0,2048,2048
101.35,100,0,2048,2048
101.401,100,0,2048,2048
101.451,100,0,2048,2048
101.5,100,0,2048,2048
101.551,100,0,2048,2048
101.601,100,0,2048,2048
101.65,100,0,2048,2048
101.701,100,0,2048,2048
101.751,100,0,2048,2048
101.8,100,0,2048,2048
101.851,100,0,2048,2048
101.901,100,0,2048,2048
101.952,100,0,2048,2048
102,100,0,2048,2048
102.051,100,0,2048,2048
102.102,100,0,2048,2048
102.15,100,0,2048,2048
102.201,100,0,2048,2048
102.251,100,0,2048,2048
102.3,100,0,2048,2048
102.351,100,0,2048,2048
102.401,100,0,2048,2048
102.45,100,0,2048,2048
102.501,100,0,2048,2048
102.551,100,0,2048,2048
102.6,100,0,2048,2048
102.651,100,0,2048,2048
102.701,100,0,2048,2048
102.75,100,0,2048,2048
102.801,100,0,2048,2048
102.851,100,0,2048,2048
102.902,100,0,2048,2048
102.95,100,0,2048,2048
103.001,100,0,2048,2048
103.051,100,0,2048,2048
103.1,100,0,2048,2048
103.151,100,0,2048,2048
103.201,100,0,2048,2048
103.25,100,0,2048,2048
103.301,100,0,2048,2048
103.351,100,0,2048,2048
103.4,100,0,2048,2048
103.451,100,0,2048,2048
103.501,100,0,2048,2048
103.55,100,0,2048,2048
103.601,100,0,2048,2048
103.651,100,0,2048,2048
103.702,100,0,2048,2048
103.751,100,0,2048,2048
103.801,100,0,2048,2048
103.852,100,0,2048,2048
103.9,100,0,2048,2048
103.951,100,0,2048,2048
104.001,100,0,2048,2048
104.05,100,0,2048,2048
104.101,100,0,2048,2048
104.151,100,0,2048,2048
104.2,100,0,2048,2048
104.251,100,0,2048,2048
104.301,100,0,2048,2048
104.35,100,0,2048,2048
104.401,100,0,2048,2048
104.451,100,0,2048,2048
104.5,100,0,2048,2048
104.551,100,0,2048,2048
104.601,100,0,2048,2048
104.652,100,0,2048,2048
104.7,100,0,2048,2048
104.751,100,0,2048,2048
104.802,100,0,2048,2048
104.85,100,0,2048,2048
104.901,100,0,2048,2048
104.951,100,0,2048,2048
105,100,0,2048,2048
105.051,100,0,2048,2048
105.101,100,0,2048,2048
105.15,100,0,2048,2048
105.201,100,0,2048,2048
105.251,100,0,2048,2048
105.3,100,0,2048,2048
105.351,100,0,2048,2048
105.401,100,0,2048,2048
105.45,100,0,2048,2048
105.501,100,0,2048,2048
105.551,100,0,2048,2048
105.602,100,0,2048,2048
105.65,100,0,2048,2048
105.701,100,0,2048,2048
105.751,100,0,2048,2048
105.8,100,0,2048,2048
105.851,100,0,2048,2048
105.901,100,0,2048,2048
105.95,100,0,2048,2048
106.001,100,0,2048,2048
106.051,100,0,2048,2048
106.1,100,0,2048,2048
106.151,100,0,2048,2048
106.201,100,0,2048,2048
106.25,100,0,2048,2048
106.301,100,0,2048,2048
106.351,100,0,2048,2048
106.4,100,0,2048,2048
106.451,100,0,2048,2048
106.501,100,0,2048,2048
106.552,100,0,2048,2048
106.6,100,0,2048,2048
106.651,100,0,2048,2048
106.701,100,0,2048,2048
106.75,100,0,2048,2048
106.801,100,0,2048,2048
106.851,100,0,2048,2048
106.9,100,0,2048,2048
106.951,100,0,2048,2048
107.001,100,0,2048,2048
107.05,100,0,2048,2048
107.101,100,0,2048,2048
107.151,100,0,2048,2048
107.2,100,0,2048,2048
107.251,100,0,2048,2048
107.301,100,0,2048,2048
107.352,100,0,2048,2048
107.4,100,0,2048,2048
107.451,100,0,2048,2048
107.502,100,0,2048,2048
107.55,100,0,2048,2048
107.601,100,0,2048,2048
107.651,100,0,2048,2048
107.7,100,0,2048,2048
107.751,100,0,2048,2048
107.801,100,0,2048,2048
107.85,100,0,2048,2048
107.901,100,0,2048,2048
107.951,100,0,2048,2048
108,100,0,2048,2048
108.051,100,0,2048,2048
108.101,100,0,2048,2048
108.15,100,0,2048,2048
108.201,100,0,2048,2048
108.251,100,0,2048,2048
108.302,100,0,2048,2048
108.35,100,0,2048,2048
108.401,100,0,2048,2048
108.451,100,0,2048,2048
108.5,100,0,2048,2048
108.551,100,0,2048,2048
108.601,100,0,2048,2048
108.65,100,0,2048,2048
108.701,100,0,2048,2048
108.751,100,0,2048,2048
108.8,100,0,2048,2048
108.851,100,0,2048,2048
108.901,100,0,2048,2048
108.95,100,0,2048,2048
109.001,100,0,2048,2048
109.051,100,0,2048,2048
109.1,100,0,2048,2048
109.151,100,0,2048,2048
109.201,100,0,2048,2048
109.252,100,0,2048,2048
109.3,100,0,2048,2048
109.351,100,0,2048,2048
109.401,100,0,2048,2048
109.45,100,0,2048,2048
109.501,100,0,2048,2048
109.551,100,0,2048,2048
109.6,100,0,2048,2048
109.651,100,0,2048,2048
109.701,100,0,2048,2048
109.75,100,0,2048,2048
109.801,100,0,2048,2048
109.851,100,0,2048,2048
109.9,100,0,2048,2048
109.951,100,0,2048,2048
110.001,100,0,2048,2048
110.052,100,0,2048,2048
110.1,100,0,2048,2048
110.151,100,0,2048,2048
110.202,100,0,2048,2048
110.25,100,0,2048,2048
110.301,100,0,2048,2048
110.351,100,0,2048,2048
110.4,100,0,2048,2048
110.451,100,0,2048,2048
110.501,100,0,2048,2048
110.55,100,0,2048,2048
110.601,100,0,2048,2048
110.651,100,0,2048,2048
110.7,100,0,2048,2048
110.751,100,0,2048,2048
110.801,100,0,2048,2048
110.85,100,0,2048,2048
110.901,100,0,2048,2048
110.951,100,0,2048,2048
111.002,100,0,2048,2048
111.05,100,0,2048,2048
111.101,100,0,2048,2048
111.151,100,0,2048,2048
111.2,100,0,2048,2048
111.251,100,0,2048,2048
111.301,100,0,2048,2048
111.35,100,0,2048,2048
111.401,100,0,2048,2048
111.451,100,0,2048,2048
111.5,100,0,2048,2048
111.551,100,0,2048,2048
111.601,100,0,2048,2048
111.65,100,0,2048,2048
111.701,100,0,2048,2048
111.751,100,0,2048,2048
111.8,100,0,2048,2048
111.851,100,0,2048,2048
111.901,100,0,2048,2048
111.952,100,0,2048,2048
112,100,0,2048,2048
112.051,100,0,2048,2048
112.101,100,0,2048,2048
112.15,100,0,2048,2048
112.201,100,0,2048,2048
112.251,100,0,2048,2048
112.3,100,0,2048,2048
112.351,100,0,2048,2048
112.401,100,0,2048,2048
112.45,100,0,2048,2048
112.501,100,0,2048,2048
112.551,100,0,2048,2048
112.6,100,0,2048,2048
112.651,100,0,2048,2048
112.701,100,0,2048,2048
112.752,100,0,2048,2048
112.8,100,0,2048,2048
112.851,100,0,2048,2048
112.902,100,0,2048,2048
112.95,100,0,2048,2048
113.001,100,0,2048,2048
113.051,100,0,2048,2048
113.1,100,0,2048,2048
113.151,100,0,2048,2048
113.201,100,0,2048,2048
113.25,100,0,2048,2048
113.301,100,0,2048,2048
113.351,100,0,2048,2048
113.4,100,0,2048,2048
113.451,100,0,2048,2048
113.501,100,0,2048,2048
113.55,100,0,2048,2048
113.601,100,0,2048,2048
113.651,100,0,2048,2048
113.702,100,0,2048,2048
113.75,100,0,2048,2048
113.801,100,0,2048,2048
113.851,100,0,2048,2048
113.9,100,0,2048,2048
113.951,100,0,2048,2048
114.001,100,0,2048,2048
114.05,100,0,2048,2048
114.101,100,0,2048,2048
114.151,100,0,2048,2048
114.2,100,0,2048,2048
114.251,100,0,2048,2048
114.301,100,0,2048,2048
114.35,100,0,2048,2048
114.401,100,0,2048,2048
114.451,100,0,2048,2048
114.5,100,0,2048,2048
114.551,100,0,2048,2048
114.601,100,0,2048,2048
114.652,100,0,2048,2048
114.7,100,0,2048,2048
114.751,100,0,2048,2048
114.801,100,0,2048,2048
114.85,100,0,2048,2048
114.901,100,0,2048,2048
114.951,100,0,2048,2048
115,100,0,2048,2048
115.051,100,0,2048,2048
115.101,100,0,2048,2048
115.15,100,0,2048,2048
115.201,100,0,2048,2048
115.251,100,0,2048,2048
115.3,100,0,2048,2048
115.351,100,0,2048,2048
115.401,100,0,2048,2048
115.452,100,0,2048,2048
115.5,100,0,2048,2048
115.551,100,0,2048,2048
115.602,100,0,2048,2048
115.65,100,0,2048,2048
115.701,100,0,2048,2048
115.751,100,0,2048,2048
115.8,100,0,2048,2048
115.851,100,0,2048,2048
115.901,100,0,2048,2048
115.95,100,0,2048,2048
116.001,100,0,2048,2048
116.051,100,0,2048,2048
116.1,100,0,2048,2048
116.151,100,0,2048,2048
116.201,100,0,2048,2048
116.25,100,0,2048,2048
116.301,100,0,2048,2048
116.351,100,0,2048,2048
116.402,100,0,2048,2048
116.45,100,0,2048,2048
116.501,100,0,2048,2048
116.551,100,0,2048,2048
116.6,100,0,2048,2048
116.651,100,0,2048,2048
116.701,100,0,2048,2048
116.75,100,0,2048,2048
116.801,100,0,2048,2048
116.851,100,0,2048,2048
116.9,100,0,2048,2048
116.951,100,0,2048,2048
117.001,100,0,2048,2048
117.05,100,0,2048,2048
117.101,100,0,2048,2048
117.151,100,0,2048,2048
117.2,100,0,2048,2048
117.251,100,0,2048,2048
117.301,100,0,2048,2048
117.352,100,0,2048,2048
117.4,100,0,2048,2048
117.451,100,0,2048,2048
117.501,100,0,2048,2048
117.55,100,0,2048,2048
117.601,100,0,2048,2048
117.651,100,0,2048,2048
117.7,100,0,2048,2048
117.751,100,0,2048,2048
117.801,100,0,2048,2048
117.85,100,0,2048,2048
117.901,100,0,2048,2048
117.951,100,0,2048,2048
118,100,0,2048,2048
118.051,100,0,2048,2048
118.101,100,0,2048,2048
118.152,100,0,2048,2048
118.2,100,0,2048,2048
118.251,100,0,2048,2048
118.302,100,0,2048,2048
118.35,100,0,2048,2048
118.401,100,0,2048,2048
118.451,100,0,2048,2048
118.5,100,0,2048,2048
118.551,100,0,2048,2048
118.601,100,0,2048,2048
118.65,100,0,2048,2048
118.701,100,0,2048,2048
118.751,100,0,2048,2048
118.8,100,0,2048,2048
118.851,100,0,2048,2048
118.901,100,0,2048,2048
118.95,100,0,2048,2048
119.001,100,0,2048,2048
119.051,100,0,2048,2048
119.102,100,0,2048,2048
119.15,100,0,2048,2048
119.201,100,0,2048,2048
119.251,100,0,2048,2048
119.3,100,0,2048,2048
119.351,100,0,2048,2048
119.401,100,0,2048,2048
119.45,100,0,2048,2048
119.501,100,0,2048,2048
119.551,100,0,2048,2048
119.6,100,0,2048,2048
119.651,100,0,2048,2048
119.701,100,0,2048,2048
119.75,100,0,2048,2048
119.801,100,0,2048,2048
119.851,100,0,2048,2048
119.9,100,0,2048,2048
119.951,100,0,2048,2048
