time,surface_elevation,reference_data,number_of_local_cells,number_of_global_cells
0,100,0,512,512
0.0521425,100,0,512,512
0.104285,100,0,512,512
0.156427,100,0,512,512
0.202052,100,0,512,512
0.254195,100,0,512,512
0.306337,100,0,512,512
0.351962,100,0,512,512
0.404104,100,0,512,512
0.456247,100,0,512,512
0.501871,100,0,512,512
0.554014,100,0,512,512
0.606156,100,0,512,512
0.651781,100,0,512,512
0.703924,100,0,512,512
0.756066,100,0,512,512
0.801691,100,0,512,512
0.853833,100,0,512,512
0.905976,100,0,512,512
0.9516,100,0,512,512
1.00374,100,0,512,512
1.05589,100,0,512,512
1.10151,100,0,512,512
1.15365,100,0,512,512
1.20579,100,0,512,512
1.25142,100,0,512,512
1.30356,100,0,512,512
1.3557,100,0,512,512
1.40133,100,0,512,512
1.45347,100,0,512,512
1.50561,100,0,512,512
1.55124,100,0,512,512
1.60338,100,0,512,512
1.65552,100,0,512,512
1.70115,100,0,512,512
1.75329,100,0,512,512
1.80543,100,0,512,512
1.85106,100,0,512,512
1.9032,100,0,512,512
1.95534,100,0,512,512
2.00097,100,0,512,512
2.05311,100,0,512,512
2.10525,100,0,512,512
2.15088,100,0,512,512
2.20302,100,0,512,512
2.25516,100,0,512,512
2.30079,100,0,512,512
2.35293,100,0,512,512
2.40507,100,0,512,512
2.4507,100,0,512,512
2.50284,100,0,512,512
2.55498,100,0,512,512
2.60061,100,0,512,512
2.65275,100,0,512,512
2.70489,100,0,512,512
2.75052,100,0,512,512
2.80266,100,0,512,512
2.8548,100,0,512,512
2.90043,100,0,512,512
2.95257,100,0,512,512
3.00471,100,0,512,512
3.05034,100,0,512,512
3.10248,100,0,512,512
3.15462,100,0,512,512
3.20025,100,0,512,512
3.25239,100,0,512,512
3.30453,100,0,512,512
3.35015,100,0,512,512
3.4023,100,0,512,512
3.45444,100,0,512,512
3.50006,100,0,512,512
3.55221,100,0,512,512
3.60435,100,0,512,512
3.65649,100,0,512,512
3.70212,100,0,512,512
3.75426,100,0,512,512
3.8064,100,0,512,512
3.85203,100,0,512,512
3.90417,100,0,512,512
3.95631,100,0,512,512
4.00194,100,0,512,512
4.05408,100,0,512,512
4.10622,100,0,512,512
4.15185,100,0,512,512
4.20399,100,0,512,512
4.25613,100,0,512,512
4.30176,100,0,512,512
4.3539,100,0,512,512
4.40604,100,0,512,512
4.45166,100,0,512,512
4.50381,100,0,512,512
4.55595,100,0,512,512
4.60157,100,0,512,512
4.65372,100,0,512,512
4.70586,100,0,512,512
4.75148,100,0,512,512
4.80363,100,0,512,512
4.85577,100,0,512,512
4.90139,100,0,512,512
4.95354,100,0,512,512
5.00568,100,0,512,512
5.0513,100,0,512,512
5.10345,100,0,512,512
5.15559,100,0,512,512
5.20121,100,0,512,512
5.25336,100,0,512,512
5.3055,100,0,512,512
5.35112,100,0,512,512
5.40327,100,0,512,512
5.45541,100,0,512,512
5.50103,100,0,512,512
5.55317,100,0,512,512
5.60532,100,0,512,512
5.65094,100,0,512,512
5.70308,100,0,512,512
5.75523,100,0,512,512
5.80085,100,0,512,512
5.85299,100,0,512,512
5.90514,100,0,512,512
5.95076,100,0,512,512
6.0029,100,0,512,512
6.05505,100,0,512,512
6.10067,100,0,512,512
6.15281,100,0,512,512
6.20496,100,0,512,512
6.25058,100,0,512,512
6.30272,100,0,512,512
6.35487,100,0,512,512
6.40049,100,0,512,512
6.45263,100,0,512,512
6.50478,100,0,512,512
6.5504,100,0,512,512
6.60254,100,0,512,512
6.65468,100,0,512,512
6.70031,100,0,512,512
6.75245,100,0,512,512
6.80459,100,0,512,512
6.85022,100,0,512,512
6.90236,100,0,512,512
6.9545,100,0,512,512
7.00013,100,0,512,512
7.05227,100,0,512,512
7.10441,100,0,512,512
7.15004,100,0,512,512
7.20218,100,0,512,512
7.25432,100,0,512,512
7.30647,100,0,512,512
7.35209,100,0,512,512
7.40423,100,0,512,512
7.45638,100,0,512,512
7.502,100,0,512,512
7.55414,100,0,512,512
7.60629,100,0,512,512
7.65191,100,0,512,512
7.70405,100,0,512,512
7.75619,100,0,512,512
7.80182,100,0,512,512
7.85396,100,0,512,512
7.9061,100,0,512,512
7.95173,100,0,512,512
8.00387,100,0,512,512
8.05601,100,0,512,512
8.10164,100,0,512,512
8.15378,100,0,512,512
8.20592,100,0,512,512
8.25155,100,0,512,512
8.30369,100,0,512,512
8.35583,100,0,512,512
8.40146,100,0,512,512
8.4536,100,0,512,512
8.50574,100,0,512,512
8.55137,100,0,512,512
8.60351,100,0,512,512
8.65565,100,0,512,512
8.70128,100,0,512,512
8.75342,100,0,512,512
8.80556,100,0,512,512
8.85119,100,0,512,512
8.90333,100,0,512,512
8.95547,100,0,512,512
9.0011,100,0,512,512
9.05324,100,0,512,512
9.10538,100,0,512,512
9.15101,100,0,512,512
9.20315,100,0,512,512
9.25529,100,0,512,512
9.30092,100,0,512,512
9.35306,100,0,512,512
9.4052,100,0,512,512
9.45083,100,0,512,512
9.50297,100,0,512,512
9.55511,100,0,512,512
9.60074,100,0,512,512
9.65288,100,0,512,512
9.70502,100,0,512,512
9.75064,100,0,512,512
9.80279,100,0,512,512
9.85493,100,0,512,512
9.90055,100,0,512,512
9.9527,100,0,512,512
10.0048,100,0,512,512
10.0505,100,0,512,512
10.1026,100,0,512,512
10.1547,100,0,512,512
10.2004,100,0,512,512
10.2525,100,0,512,512
10.3047,100,0,512,512
10.3503,100,0,512,512
10.4024,100,0,512,512
10.4546,100,0,512,512
10.5002,100,0,512,512
10.5523,100,0,512,512
10.6045,100,0,512,512
10.6501,100,0,512,512
10.7022,100,0,512,512
10.7544,100,0,512,512
10.8,100,0,512,512
10.8522,100,0,512,512
10.9043,100,0,512,512
10.9564,100,0,512,512
11.0021,100,0,512,512
11.0542,100,0,512,512
11.1063,100,0,512,512
11.152,100,0,512,512
11.2041,100,0,512,512
11.2563,100,0,512,512
11.3019,100,0,512,512
11.354,100,0,512,512
11.4062,100,0,512,512
11.4518,100,0,512,512
11.5039,100,0,512,512
11.5561,100,0,512,512
11.6017,100,0,512,512
11.6538,100,0,512,512
11.706,100,0,512,512
11.7516,100,0,512,512
11.8038,100,0,512,512
11.8559,100,0,512,512
11.9015,100,0,512,512
11.9537,100,0,512,512
12.0058,100,0,512,512
12.0514,100,0,512,512
12.1036,100,0,512,512
12.1557,100,0,512,512
12.2013,100,0,512,512
12.2535,100,0,512,512
12.3056,100,0,512,512
12.3513,100,0,512,512
12.4034,100,0,512,512
12.4555,100,0,512,512
12.5012,100,0,512,512
12.5533,100,0,512,512
12.6054,100,0,512,512
12.6511,100,0,512,512
12.7032,100,0,512,512
12.7554,100,0,512,512
12.801,100,0,512,512
12.8531,100,0,512,512
12.9053,100,0,512,512
12.9509,100,0,512,512
13.003,100,0,512,512
13.0552,100,0,512,512
13.1008,100,0,512,512
13.1529,100,0,512,512
13.2051,100,0,512,512
13.2507,100,0,512,512
13.3029,100,0,512,512
13.355,100,0,512,512
13.4006,100,0,512,512
13.4528,100,0,512,512
13.5049,100,0,512,512
13.5505,100,0,512,512
13.6027,100,0,512,512
13.6548,100,0,512,512
13.7004,100,0,512,512
13.7526,100,0,512,512
13.8047,100,0,512,512
13.8503,100,0,512,512
13.9025,100,0,512,512
13.9546,100,0,512,512
14.0003,100,0,512,512
14.0524,100,0,512,512
14.1045,100,0,512,512
14.1502,100,0,512,512
14.2023,100,0,512,512
14.2545,100,0,512,512
14.3001,100,0,512,512
14.3522,100,0,512,512
14.4044,100,0,512,512
14.4565,100,0,512,512
14.5021,100,0,512,512
14.5543,100,0,512,512
14.6064,100,0,512,512
14.652,100,0,512,512
14.7042,100,0,512,512
14.7563,100,0,512,512
14.8019,100,0,512,512
14.8541,100,0,512,512
14.9062,100,0,512,512
14.9519,100,0,512,512
15.004,100,0,512,512
15.0561,100,0,512,512
15.1018,100,0,512,512
15.1539,100,0,512,512
15.2061,100,0,512,512
15.2517,100,0,512,512
15.3038,100,0,512,512
15.356,100,0,512,512
15.4016,100,0,512,512
15.4537,100,0,512,512
15.5059,100,0,512,512
15.5515,100,0,512,512
15.6036,100,0,512,512
15.6558,100,0,512,512
15.7014,100,0,512,512
15.7535,100,0,512,512
15.8057,100,0,512,512
15.8513,100,0,512,512
15.9035,100,0,512,512
15.9556,100,0,512,512
16.0012,100,0,512,512
16.0534,100,0,512,512
16.1055,100,0,512,512
16.1511,100,0,512,512
16.2033,100,0,512,512
16.2554,100,0,512,512
16.301,100,0,512,512
16.3532,100,0,512,512
16.4053,100,0,512,512
16.451,100,0,512,512
16.5031,100,0,512,512
16.5552,100,0,512,512
16.6009,100,0,512,512
16.653,100,0,512,512
16.7051,100,0,512,512
16.7508,100,0,512,512
16.8029,100,0,512,512
16.8551,100,0,512,512
16.9007,100,0,512,512
16.9528,100,0,512,512
17.005,100,0,512,512
17.0506,100,0,512,512
17.1027,100,0,512,512
17.1549,100,0,512,512
17.2005,100,0,512,512
17.2526,100,0,512,512
17.3048,100,0,512,512
17.3504,100,0,512,512
17.4026,100,0,512,512
17.4547,100,0,512,512
17.5003,100,0,512,512
17.5525,100,0,512,512
17.6046,100,0,512,512
17.6502,100,0,512,512
17.7024,100,0,512,512
17.7545,100,0,512,512
17.8001,100,0,512,512
17.8523,100,0,512,512
17.9044,100,0,512,512
17.9501,100,0,512,512
18.0022,100,0,512,512
18.0543,100,0,512,512
18.1065,100,0,512,512
18.1521,100,0,512,512
18.2042,100,0,512,512
18.2564,100,0,512,512
18.302,100,0,512,512
18.3542,100,0,512,512
18.4063,100,0,512,512
18.4519,100,0,512,512
18.5041,100,0,512,512
18.5562,100,0,512,512
18.6018,100,0,512,512
18.654,100,0,512,512
18.7061,100,0,512,512
18.7517,100,0,512,512
18.8039,100,0,512,512
18.856,100,0,512,512
18.9017,100,0,512,512
18.9538,100,0,512,512
19.0059,100,0,512,512
19.0516,100,0,512,512
19.1037,100,0,512,512
19.1558,100,0,512,512
19.2015,100,0,512,512
19.2536,100,0,512,512
19.3058,100,0,512,512
19.3514,100,0,512,512
19.4035,100,0,512,512
19.4557,100,0,512,512
19.5013,100,0,512,512
19.5534,100,0,512,512
19.6056,100,0,512,512
19.6512,100,0,512,512
19.7033,100,0,512,512
19.7555,100,0,512,512
19.8011,100,0,512,512
19.8533,100,0,512,512
19.9054,100,0,512,512
19.951,100,0,512,512
20.0032,100,0,512,512
20.0553,100,0,512,512
20.1009,100,0,512,512
20.1531,100,0,512,512
20.2052,100,0,512,512
20.2508,100,0,512,512
20.303,100,0,512,512
20.3551,100,0,512,512
20.4007,100,0,512,512
20.4529,100,0,512,512
20.505,100,0,512,512
20.5507,100,0,512,512
20.6028,100,0,512,512
20.6549,100,0,512,512
20.7006,100,0,512,512
20.7527,100,0,512,512
20.8049,100,0,512,512
20.8505,100,0,512,512
20.9026,100,0,512,512
20.9548,100,0,512,512
21.0004,100,0,512,512
21.0525,100,0,512,512
21.1047,100,0,512,512
21.1503,100,0,512,512
21.2024,100,0,512,512
21.2546,100,0,512,512
21.3002,100,0,512,512
21.3523,100,0,512,512
21.4045,100,0,512,512
21.4501,100,0,512,512
21.5023,100,0,512,512
21.5544,100,0,512,512
21.6,100,0,512,512
21.6522,100,0,512,512
21.7043,100,0,512,512
21.7565,100,0,512,512
21.8021,100,0,512,512
21.8542,100,0,512,512
21.9064,100,0,512,512
21.952,100,0,512,512
22.0041,100,0,512,512
22.0563,100,0,512,512
22.1019,100,0,512,512
22.154,100,0,512,512
22.2062,100,0,512,512
22.2518,100,0,512,512
22.3039,100,0,512,512
22.3561,100,0,512,512
22.4017,100,0,512,512
22.4539,100,0,512,512
22.506,100,0,512,512
22.5516,100,0,512,512
22.6038,100,0,512,512
22.6559,100,0,512,512
22.7015,100,0,512,512
22.7537,100,0,512,512
22.8058,100,0,512,512
22.8514,100,0,512,512
22.9036,100,0,512,512
22.9557,100,0,512,512
23.0014,100,0,512,512
23.0535,100,0,512,512
23.1056,100,0,512,512
23.1513,100,0,512,512
23.2034,100,0,512,512
23.2555,100,0,512,512
23.3012,100,0,512,512
23.3533,100,0,512,512
23.4055,100,0,512,512
23.4511,100,0,512,512
23.5032,100,0,512,512
23.5554,100,0,512,512
23.601,100,0,512,512
23.6531,100,0,512,512
23.7053,100,0,512,512
23.7509,100,0,512,512
23.803,100,0,512,512
23.8552,100,0,512,512
23.9008,100,0,512,512
23.953,100,0,512,512
24.0051,100,0,512,512
24.0507,100,0,512,512
24.1029,100,0,512,512
24.155,100,0,512,512
24.2006,100,0,512,512
24.2528,100,0,512,512
24.3049,100,0,512,512
24.3505,100,0,512,512
24.4027,100,0,512,512
24.4548,100,0,512,512
24.5005,100,0,512,512
24.5526,100,0,512,512
24.6047,100,0,512,512
24.6504,100,0,512,512
24.7025,100,0,512,512
24.7546,100,0,512,512
24.8003,100,0,512,512
24.8524,100,0,512,512
24.9046,100,0,512,512
24.9502,100,0,512,512
25.0023,100,0,512,512
25.0545,100,0,512,512
25.1001,100,0,512,512
25.1522,100,0,512,512
25.2044,100,0,512,512
25.2565,100,0,512,512
25.3021,100,0,512,512
25.3543,100,0,512,512
25.4064,100,0,512,512
25.4521,100,0,512,512
25.5042,100,0,512,512
25.5563,100,0,512,512
25.602,100,0,512,512
25.6541,100,0,512,512
25.7062,100,0,512,512
25.7519,100,0,512,512
25.804,100,0,512,512
25.8562,100,0,512,512
25.9018,100,0,512,512
25.9539,100,0,512,512
26.0061,100,0,512,512
26.0517,100,0,512,512
26.1038,100,0,512,512
26.156,100,0,512,512
26.2016,100,0,512,512
26.2537,100,0,512,512
26.3059,100,0,512,512
26.3515,100,0,512,512
26.4037,100,0,512,512
26.4558,100,0,512,512
26.5014,100,0,512,512
26.5536,100,0,512,512
26.6057,100,0,512,512
26.6513,100,0,512,512
26.7035,100,0,512,512
26.7556,100,0,512,512
26.8012,100,0,512,512
26.8534,100,0,512,512
26.9055,100,0,512,512
26.9511,100,0,512,512
27.0033,100,0,512,512
27.0554,100,0,512,512
27.1011,100,0,512,512
27.1532,100,0,512,512
27.2053,100,0,512,512
27.251,100,0,512,512
27.3031,100,0,512,512
27.3553,100,0,512,512
27.4009,100,0,512,512
27.453,100,0,512,512
27.5052,100,0,512,512
27.5508,100,0,512,512
27.6029,100,0,512,512
27.6551,100,0,512,512
27.7007,100,0,512,512
27.7528,100,0,512,512
27.805,100,0,512,512
27.8506,100,0,512,512
27.9027,100,0,512,512
27.9549,100,0,512,512
28.0005,100,0,512,512
28.0527,100,0,512,512
28.1048,100,0,512,512
28.1504,100,0,512,512
28.2026,100,0,512,512
28.2547,100,0,512,512
28.3003,100,0,512,512
28.3525,100,0,512,512
28.4046,100,0,512,512
28.4502,100,0,512,512
28.5024,100,0,512,512
28.5545,100,0,512,512
28.6002,100,0,512,512
28.6523,100,0,512,512
28.7044,100,0,512,512
28.7501,100,0,512,512
28.8022,100,0,512,512
28.8543,100,0,512,512
28.9065,100,0,512,512
28.9521,100,0,512,512
29.0043,100,0,512,512
29.0564,100,0,512,512
29.102,100,0,512,512
29.1542,100,0,512,512
29.2063,100,0,512,512
29.2519,100,0,512,512
29.3041,100,0,512,512
29.3562,100,0,512,512
29.4018,100,0,512,512
29.454,100,0,512,512
29.5061,100,0,512,512
29.5518,100,0,512,512
29.6039,100,0,512,512
29.656,100,0,512,512
29.7017,100,0,512,512
29.7538,100,0,512,512
29.8059,100,0,512,512
29.8516,100,0,512,512
29.9037,100,0,512,512
29.9559,100,0,512,512
30.0015,100,0,512,512
30.0536,100,0,512,512
30.1058,100,0,512,512
30.1514,100,0,512,512
30.2035,100,0,512,512
30.2557,100,0,512,512
30.3013,100,0,512,512
30.3534,100,0,512,512
30.4056,100,0,512,512
30.4512,100,0,512,512
30.5034,100,0,512,512
30.5555,100,0,512,512
30.6011,100,0,512,512
30.6533,100,0,512,512
30.7054,100,0,512,512
30.751,100,0,512,512
30.8032,100,0,512,512
30.8553,100,0,512,512
30.9009,100,0,512,512
30.9531,100,0,512,512
31.0052,100,0,512,512
31.0509,100,0,512,512
31.103,100,0,512,512
31.1551,100,0,512,512
31.2008,100,0,512,512
31.2529,100,0,512,512
31.305,100,0,512,512
31.3507,100,0,512,512
31.4028,100,0,512,512
31.455,100,0,512,512
31.5006,100,0,512,512
31.5527,100,0,512,512
31.6049,100,0,512,512
31.6505,100,0,512,512
31.7026,100,0,512,512
31.7548,100,0,512,512
31.8004,100,0,512,512
31.8525,100,0,512,512
31.9047,100,0,512,512
31.9503,100,0,512,512
32.0025,100,0,512,512
32.0546,100,0,512,512
32.1002,100,0,512,512
32.1524,100,0,512,512
32.2045,100,0,512,512
32.2501,100,0,512,512
32.3023,100,0,512,512
32.3544,100,0,512,512
32.4,100,0,512,512
32.4522,100,0,512,512
32.5043,100,0,512,512
32.5565,100,0,512,512
32.6021,100,0,512,512
32.6542,100,0,512,512
32.7064,100,0,512,512
32.752,100,0,512,512
32.8041,100,0,512,512
32.8563,100,0,512,512
32.9019,100,0,512,512
32.9541,100,0,512,512
33.0062,100,0,512,512
33.0518,100,0,512,512
33.104,100,0,512,512
33.1561,100,0,512,512
33.2017,100,0,512,512
33.2539,100,0,512,512
33.306,100,0,512,512
33.3516,100,0,512,512
33.4038,100,0,512,512
33.4559,100,0,512,512
33.5015,100,0,512,512
33.5537,100,0,512,512
33.6058,100,0,512,512
33.6515,100,0,512,512
33.7036,100,0,512,512
33.7557,100,0,512,512
33.8014,100,0,512,512
33.8535,100,0,512,512
33.9057,100,0,512,512
33.9513,100,0,512,512
34.0034,100,0,512,512
34.0556,100,0,512,512
34.1012,100,0,512,512
34.1533,100,0,512,512
34.2055,100,0,512,512
34.2511,100,0,512,512
34.3032,100,0,512,512
34.3554,100,0,512,512
34.401,100,0,512,512
34.4531,100,0,512,512
34.5053,100,0,512,512
34.5509,100,0,512,512
34.6031,100,0,512,512
34.6552,100,0,512,512
34.7008,100,0,512,512
34.753,100,0,512,512
34.8051,100,0,512,512
34.8507,100,0,512,512
34.9029,100,0,512,512
34.955,100,0,512,512
35.0006,100,0,512,512
35.0528,100,0,512,512
35.1049,100,0,512,512
35.1506,100,0,512,512
35.2027,100,0,512,512
35.2548,100,0,512,512
35.3005,100,0,512,512
35.3526,100,0,512,512
35.4047,100,0,512,512
35.4504,100,0,512,512
35.5025,100,0,512,512
35.5547,100,0,512,512
35.6003,100,0,512,512
35.6524,100,0,512,512
35.7046,100,0,512,512
35.7502,100,0,512,512
35.8023,100,0,512,512
35.8545,100,0,512,512
35.9001,100,0,512,512
35.9522,100,0,512,512
36.0044,100,0,512,512
36.05,100,0,512,512
36.1022,100,0,512,512
36.1543,100,0,512,512
36.2064,100,0,512,512
36.2521,100,0,512,512
36.3042,100,0,512,512
36.3563,100,0,512,512
36.402,100,0,512,512
36.4541,100,0,512,512
36.5063,100,0,512,512
36.5519,100,0,512,512
36.604,100,0,512,512
36.6562,100,0,512,512
36.7018,100,0,512,512
36.7539,100,0,512,512
36.8061,100,0,512,512
36.8517,100,0,512,512
36.9038,100,0,512,512
36.956,100,0,512,512
37.0016,100,0,512,512
37.0538,100,0,512,512
37.1059,100,0,512,512
37.1515,100,0,512,512
37.2037,100,0,512,512
37.2558,100,0,512,512
37.3014,100,0,512,512
37.3536,100,0,512,512
37.4057,100,0,512,512
37.4513,100,0,512,512
37.5035,100,0,512,512
37.5556,100,0,512,512
37.6012,100,0,512,512
37.6534,100,0,512,512
37.7055,100,0,512,512
37.7512,100,0,512,512
37.8033,100,0,512,512
37.8554,100,0,512,512
37.9011,100,0,512,512
37.9532,100,0,512,512
38.0054,100,0,512,512
38.051,100,0,512,512
38.1031,100,0,512,512
38.1553,100,0,512,512
38.2009,100,0,512,512
38.253,100,0,512,512
38.3052,100,0,512,512
38.3508,100,0,512,512
38.4029,100,0,512,512
38.4551,100,0,512,512
38.5007,100,0,512,512
38.5529,100,0,512,512
38.605,100,0,512,512
38.6506,100,0,512,512
38.7028,100,0,512,512
38.7549,100,0,512,512
38.8005,100,0,512,512
38.8527,100,0,512,512
38.9048,100,0,512,512
38.9504,100,0,512,512
39.0026,100,0,512,512
39.0547,100,0,512,512
39.1003,100,0,512,512
39.1525,100,0,512,512
39.2046,100,0,512,512
39.2503,100,0,512,512
39.3024,100,0,512,512
39.3545,100,0,512,512
39.4002,100,0,512,512
39.4523,100,0,512,512
39.5045,100,0,512,512
39.5501,100,0,512,512
39.6022,100,0,512,512
39.6544,100,0,512,512
39.7065,100,0,512,512
39.7521,100,0,512,512
39.8043,100,0,512,512
39.8564,100,0,512,512
39.902,100,0,512,512
39.9542,100,0,512,512
40.0063,100,0,512,512
40.0519,100,0,512,512
40.1041,100,0,512,512
40.1562,100,0,512,512
40.2019,100,0,512,512
40.254,100,0,512,512
40.3061,100,0,512,512
40.3518,100,0,512,512
40.4039,100,0,512,512
40.4561,100,0,512,512
40.5017,100,0,512,512
40.5538,100,0,512,512
40.606,100,0,512,512
40.6516,100,0,512,512
40.7037,100,0,512,512
40.7559,100,0,512,512
40.8015,100,0,512,512
40.8536,100,0,512,512
40.9058,100,0,512,512
40.9514,100,0,512,512
41.0035,100,0,512,512
41.0557,100,0,512,512
41.1013,100,0,512,512
41.1535,100,0,512,512
41.2056,100,0,512,512
41.2512,100,0,512,512
41.3034,100,0,512,512
41.3555,100,0,512,512
41.4011,100,0,512,512
41.4533,100,0,512,512
41.5054,100,0,512,512
41.551,100,0,512,512
41.6032,100,0,512,512
41.6553,100,0,512,512
41.701,100,0,512,512
41.7531,100,0,512,512
41.8052,100,0,512,512
41.8509,100,0,512,512
41.903,100,0,512,512
41.9551,100,0,512,512
42.0008,100,0,512,512
42.0529,100,0,512,512
42.1051,100,0,512,512
42.1507,100,0,512,512
42.2028,100,0,512,512
42.255,100,0,512,512
42.3006,100,0,512,512
42.3527,100,0,512,512
42.4049,100,0,512,512
42.4505,100,0,512,512
42.5026,100,0,512,512
42.5548,100,0,512,512
42.6004,100,0,512,512
42.6526,100,0,512,512
42.7047,100,0,512,512
42.7503,100,0,512,512
42.8025,100,0,512,512
42.8546,100,0,512,512
42.9002,100,0,512,512
42.9524,100,0,512,512
43.0045,100,0,512,512
43.0501,100,0,512,512
43.1023,100,0,512,512
43.1544,100,0,512,512
43.2,100,0,512,512
43.2522,100,0,512,512
43.3043,100,0,512,512
43.3565,100,0,512,512
43.4021,100,0,512,512
43.4542,100,0,512,512
43.5064,100,0,512,512
43.552,100,0,512,512
43.6042,100,0,512,512
43.6563,100,0,512,512
43.7019,100,0,512,512
43.7541,100,0,512,512
43.8062,100,0,512,512
43.8518,100,0,512,512
43.904,100,0,512,512
43.9561,100,0,512,512
44.0017,100,0,512,512
44.0539,100,0,512,512
44.106,100,0,512,512
44.1516,100,0,512,512
44.2038,100,0,512,512
44.2559,100,0,512,512
44.3016,100,0,512,512
44.3537,100,0,512,512
44.4058,100,0,512,512
44.4515,100,0,512,512
44.5036,100,0,512,512
44.5558,100,0,512,512
44.6014,100,0,512,512
44.6535,100,0,512,512
44.7057,100,0,512,512
44.7513,100,0,512,512
44.8034,100,0,512,512
44.8556,100,0,512,512
44.9012,100,0,512,512
44.9533,100,0,512,512
45.0055,100,0,512,512
45.0511,100,0,512,512
45.1032,100,0,512,512
45.1554,100,0,512,512
45.201,100,0,512,512
45.2532,100,0,512,512
45.3053,100,0,512,512
45.3509,100,0,512,512
45.4031,100,0,512,512
45.4552,100,0,512,512
45.5008,100,0,512,512
45.553,100,0,512,512
45.6051,100,0,512,512
45.6507,100,0,512,512
45.7029,100,0,512,512
45.755,100,0,512,512
45.8007,100,0,512,512
45.8528,100,0,512,512
45.9049,100,0,512,512
45.9506,100,0,512,512
46.0027,100,0,512,512
46.0549,100,0,512,512
46.1005,100,0,512,512
46.1526,100,0,512,512
46.2048,100,0,512,512
46.2504,100,0,512,512
46.3025,100,0,512,512
46.3547,100,0,512,512
46.4003,100,0,512,512
46.4524,100,0,512,512
46.5046,100,0,512,512
46.5502,100,0,512,512
46.6023,100,0,512,512
46.6545,100,0,512,512
46.7001,100,0,512,512
46.7523,100,0,512,512
46.8044,100,0,512,512
46.85,100,0,512,512
46.9022,100,0,512,512
46.9543,100,0,512,512
47.0065,100,0,512,512
47.0521,100,0,512,512
47.1042,100,0,512,512
47.1564,100,0,512,512
47.202,100,0,512,512
47.2541,100,0,512,512
47.3063,100,0,512,512
47.3519,100,0,512,512
47.404,100,0,512,512
47.4562,100,0,512,512
47.5018,100,0,512,512
47.5539,100,0,512,512
47.6061,100,0,512,512
47.6517,100,0,512,512
47.7039,100,0,512,512
47.756,100,0,512,512
47.8016,100,0,512,512
47.8538,100,0,512,512
47.9059,100,0,512,512
47.9515,100,0,512,512
48.0037,100,0,512,512
48.0558,100,0,512,512
48.1014,100,0,512,512
48.1536,100,0,512,512
48.2057,100,0,512,512
48.2514,100,0,512,512
48.3035,100,0,512,512
48.3556,100,0,512,512
48.4013,100,0,512,512
48.4534,100,0,512,512
48.5055,100,0,512,512
48.5512,100,0,512,512
48.6033,100,0,512,512
48.6555,100,0,512,512
48.7011,100,0,512,512
48.7532,100,0,512,512
48.8054,100,0,512,512
48.851,100,0,512,512
48.9031,100,0,512,512
48.9553,100,0,512,512
49.0009,100,0,512,512
49.053,100,0,512,512
49.1052,100,0,512,512
49.1508,100,0,512,512
49.203,100,0,512,512
49.2551,100,0,512,512
49.3007,100,0,512,512
49.3529,100,0,512,512
49.405,100,0,512,512
49.4506,100,0,512,512
49.5028,100,0,512,512
49.5549,100,0,512,512
49.6005,100,0,512,512
49.6527,100,0,512,512
49.7048,100,0,512,512
49.7504,100,0,512,512
49.8026,100,0,512,512
49.8547,100,0,512,512
49.9004,100,0,512,512
49.9525,100,0,512,512
50.0046,100,0,512,512
50.0503,100,0,512,512
50.1024,100,0,512,512
50.1546,100,0,512,512
50.2002,100,0,512,512
50.2523,100,0,512,512
50.3045,100,0,512,512
50.3501,100,0,512,512
50.4022,100,0,512,512
50.4544,100,0,512,512
50.5065,100,0,512,512
50.5521,100,0,512,512
50.6043,100,0,512,512
50.6564,100,0,512,512
50.702,100,0,512,512
50.7542,100,0,512,512
50.8063,100,0,512,512
50.852,100,0,512,512
50.9041,100,0,512,512
50.9562,100,0,512,512
51.0019,100,0,512,512
51.054,100,0,512,512
51.1062,100,0,512,512
51.1518,100,0,512,512
51.2039,100,0,512,512
51.2561,100,0,512,512
51.3017,100,0,512,512
51.3538,100,0,512,512
51.406,100,0,512,512
51.4516,100,0,512,512
51.5037,100,0,512,512
51.5559,100,0,512,512
51.6015,100,0,512,512
51.6536,100,0,512,512
51.7058,100,0,512,512
51.7514,100,0,512,512
51.8036,100,0,512,512
51.8557,100,0,512,512
51.9013,100,0,512,512
51.9535,100,0,512,512
52.0056,100,0,512,512
52.0512,100,0,512,512
52.1034,100,0,512,512
52.1555,100,0,512,512
52.2011,100,0,512,512
52.2533,100,0,512,512
52.3054,100,0,512,512
52.3511,100,0,512,512
52.4032,100,0,512,512
52.4553,100,0,512,512
52.501,100,0,512,512
52.5531,100,0,512,512
52.6052,100,0,512,512
52.6509,100,0,512,512
52.703,100,0,512,512
52.7552,100,0,512,512
52.8008,100,0,512,512
52.8529,100,0,512,512
52.9051,100,0,512,512
52.9507,100,0,512,512
53.0028,100,0,512,512
53.055,100,0,512,512
53.1006,100,0,512,512
53.1527,100,0,512,512
53.2049,100,0,512,512
53.2505,100,0,512,512
53.3027,100,0,512,512
53.3548,100,0,512,512
53.4004,100,0,512,512
53.4526,100,0,512,512
53.5047,100,0,512,512
53.5503,100,0,512,512
53.6025,100,0,512,512
53.6546,100,0,512,512
53.7002,100,0,512,512
53.7524,100,0,512,512
53.8045,100,0,512,512
53.8502,100,0,512,512
53.9023,100,0,512,512
53.9544,100,0,512,512
54.0001,100,0,512,512
54.0522,100,0,512,512
54.1043,100,0,512,512
54.1565,100,0,512,512
54.2021,100,0,512,512
54.2543,100,0,512,512
54.3064,100,0,512,512
54.352,100,0,512,512
54.4042,100,0,512,512
54.4563,100,0,512,512
54.5019,100,0,512,512
54.5541,100,0,512,512
54.6062,100,0,512,512
54.6518,100,0,512,512
54.704,100,0,512,512
54.7561,100,0,512,512
54.8018,100,0,512,512
54.8539,100,0,512,512
54.906,100,0,512,512
54.9517,100,0,512,512
55.0038,100,0,512,512
55.0559,100,0,512,512
55.1016,100,0,512,512
55.1537,100,0,512,512
55.2059,100,0,512,512
55.2515,100,0,512,512
55.3036,100,0,512,512
55.3558,100,0,512,512
55.4014,100,0,512,512
55.4535,100,0,512,512
55.5057,100,0,512,512
55.5513,100,0,512,512
55.6034,100,0,512,512
55.6556,100,0,512,512
55.7012,100,0,512,512
55.7534,100,0,512,512
55.8055,100,0,512,512
55.8511,100,0,512,512
55.9033,100,0,512,512
55.9554,100,0,512,512
56.001,100,0,512,512
56.0532,100,0,512,512
56.1053,100,0,512,512
56.1509,100,0,512,512
56.2031,100,0,512,512
56.2552,100,0,512,512
56.3008,100,0,512,512
56.353,100,0,512,512
56.4051,100,0,512,512
56.4508,100,0,512,512
56.5029,100,0,512,512
56.555,100,0,512,512
56.6007,100,0,512,512
56.6528,100,0,512,512
56.705,100,0,512,512
56.7506,100,0,512,512
56.8027,100,0,512,512
56.8549,100,0,512,512
56.9005,100,0,512,512
56.9526,100,0,512,512
57.0048,100,0,512,512
57.0504,100,0,512,512
57.1025,100,0,512,512
57.1547,100,0,512,512
57.2003,100,0,512,512
57.2524,100,0,512,512
57.3046,100,0,512,512
57.3502,100,0,512,512
57.4024,100,0,512,512
57.4545,100,0,512,512
57.5001,100,0,512,512
57.5523,100,0,512,512
57.6044,100,0,512,512
57.65,100,0,512,512
57.7022,100,0,512,512
57.7543,100,0,512,512
57.8065,100,0,512,512
57.8521,100,0,512,512
57.9042,100,0,512,512
57.9564,100,0,512,512
58.002,100,0,512,512
58.0541,100,0,512,512
58.1063,100,0,512,512
58.1519,100,0,512,512
58.204,100,0,512,512
58.2562,100,0,512,512
58.3018,100,0,512,512
58.354,100,0,512,512
58.4061,100,0,512,512
58.4517,100,0,512,512
58.5039,100,0,512,512
58.556,100,0,512,512
58.6016,100,0,512,512
58.6538,100,0,512,512
58.7059,100,0,512,512
58.7515,100,0,512,512
58.8037,100,0,512,512
58.8558,100,0,512,512
58.9015,100,0,512,512
58.9536,100,0,512,512
59.0057,100,0,512,512
59.0514,100,0,512,512
59.1035,100,0,512,512
59.1556,100,0,512,512
59.2013,100,0,512,512
59.2534,100,0,512,512
59.3056,100,0,512,512
59.3512,100,0,512,512
59.4033,100,0,512,512
59.4555,100,0,512,512
59.5011,100,0,512,512
59.5532,100,0,512,512
59.6054,100,0,512,512
59.651,100,0,512,512
59.7031,100,0,512,512
59.7553,100,0,512,512
59.8009,100,0,512,512
59.8531,100,0,512,512
59.9052,100,0,512,512
59.9508,100,0,512,512
60.003,100,0,512,512
60.0551,100,0,512,512
60.1007,100,0,512,512
60.1529,100,0,512,512
60.205,100,0,512,512
60.2506,100,0,512,512
60.3028,100,0,512,512
60.3549,100,0,512,512
60.4006,100,0,512,512
60.4527,100,0,512,512
60.5048,100,0,512,512
60.5505,100,0,512,512
60.6026,100,0,512,512
60.6547,100,0,512,512
60.7004,100,0,512,512
60.7525,100,0,512,512
60.8047,100,0,512,512
60.8503,100,0,512,512
60.9024,100,0,512,512
60.9546,100,0,512,512
61.0002,100,0,512,512
61.0523,100,0,512,512
61.1045,100,0,512,512
61.1501,100,0,512,512
61.2022,100,0,512,512
61.2544,100,0,512,512
61.3,100,0,512,512
61.3522,100,0,512,512
61.4043,100,0,512,512
61.4564,100,0,512,512
61.5021,100,0,512,512
61.5542,100,0,512,512
61.6063,100,0,512,512
61.652,100,0,512,512
61.7041,100,0,512,512
61.7563,100,0,512,512
61.8019,100,0,512,512
61.854,100,0,512,512
61.9062,100,0,512,512
61.9518,100,0,512,512
62.0039,100,0,512,512
62.0561,100,0,512,512
62.1017,100,0,512,512
62.1538,100,0,512,512
62.206,100,0,512,512
62.2516,100,0,512,512
62.3038,100,0,512,512
62.3559,100,0,512,512
62.4015,100,0,512,512
62.4537,100,0,512,512
62.5058,100,0,512,512
62.5514,100,0,512,512
62.6036,100,0,512,512
62.6557,100,0,512,512
62.7013,100,0,512,512
62.7535,100,0,512,512
62.8056,100,0,512,512
62.8512,100,0,512,512
62.9034,100,0,512,512
62.9555,100,0,512,512
63.0012,100,0,512,512
63.0533,100,0,512,512
63.1054,100,0,512,512
63.1511,100,0,512,512
63.2032,100,0,512,512
63.2554,100,0,512,512
63.301,100,0,512,512
63.3531,100,0,512,512
63.4053,100,0,512,512
63.4509,100,0,512,512
63.503,100,0,512,512
63.5552,100,0,512,512
63.6008,100,0,512,512
63.6529,100,0,512,512
63.7051,100,0,512,512
63.7507,100,0,512,512
63.8028,100,0,512,512
63.855,100,0,512,512
63.9006,100,0,512,512
63.9528,100,0,512,512
64.0049,100,0,512,512
64.0505,100,0,512,512
64.1027,100,0,512,512
64.1548,100,0,512,512
64.2004,100,0,512,512
64.2526,100,0,512,512
64.3047,100,0,512,512
64.3503,100,0,512,512
64.4025,100,0,512,512
64.4546,100,0,512,512
64.5003,100,0,512,512
64.5524,100,0,512,512
64.6045,100,0,512,512
64.6502,100,0,512,512
64.7023,100,0,512,512
64.7544,100,0,512,512
64.8001,100,0,512,512
64.8522,100,0,512,512
64.9044,100,0,512,512
64.9565,100,0,512,512
65.0021,100,0,512,512
65.0543,100,0,512,512
65.1064,100,0,512,512
65.152,100,0,512,512
65.2042,100,0,512,512
65.2563,100,0,512,512
65.3019,100,0,512,512
65.3541,100,0,512,512
65.4062,100,0,512,512
65.4519,100,0,512,512
65.504,100,0,512,512
65.5561,100,0,512,512
65.6018,100,0,512,512
65.6539,100,0,512,512
65.706,100,0,512,512
65.7517,100,0,512,512
65.8038,100,0,512,512
65.856,100,0,512,512
65.9016,100,0,512,512
65.9537,100,0,512,512
66.0059,100,0,512,512
66.0515,100,0,512,512
66.1036,100,0,512,512
66.1558,100,0,512,512
66.2014,100,0,512,512
66.2535,100,0,512,512
66.3057,100,0,512,512
66.3513,100,0,512,512
66.4035,100,0,512,512
66.4556,100,0,512,512
66.5012,100,0,512,512
66.5534,100,0,512,512
66.6055,100,0,512,512
66.6511,100,0,512,512
66.7033,100,0,512,512
66.7554,100,0,512,512
66.801,100,0,512,512
66.8532,100,0,512,512
66.9053,100,0,512,512
66.951,100,0,512,512
67.0031,100,0,512,512
67.0552,100,0,512,512
67.1009,100,0,512,512
67.153,100,0,512,512
67.2051,100,0,512,512
67.2508,100,0,512,512
67.3029,100,0,512,512
67.3551,100,0,512,512
67.4007,100,0,512,512
67.4528,100,0,512,512
67.505,100,0,512,512
67.5506,100,0,512,512
67.6027,100,0,512,512
67.6549,100,0,512,512
67.7005,100,0,512,512
67.7526,100,0,512,512
67.8048,100,0,512,512
67.8504,100,0,512,512
67.9026,100,0,512,512
67.9547,100,0,512,512
68.0003,100,0,512,512
68.0525,100,0,512,512
68.1046,100,0,512,512
68.1502,100,0,512,512
68.2024,100,0,512,512
68.2545,100,0,512,512
68.3001,100,0,512,512
68.3523,100,0,512,512
68.4044,100,0,512,512
68.45,100,0,512,512
68.5022,100,0,512,512
68.5543,100,0,512,512
68.6065,100,0,512,512
68.6521,100,0,512,512
68.7042,100,0,512,512
68.7564,100,0,512,512
68.802,100,0,512,512
68.8542,100,0,512,512
68.9063,100,0,512,512
68.9519,100,0,512,512
69.0041,100,0,512,512
69.0562,100,0,512,512
69.1018,100,0,512,512
69.154,100,0,512,512
69.2061,100,0,512,512
69.2517,100,0,512,512
69.3039,100,0,512,512
69.356,100,0,512,512
69.4016,100,0,512,512
69.4538,100,0,512,512
69.5059,100,0,512,512
69.5516,100,0,512,512
69.6037,100,0,512,512
69.6558,100,0,512,512
69.7015,100,0,512,512
69.7536,100,0,512,512
69.8058,100,0,512,512
69.8514,100,0,512,512
69.9035,100,0,512,512
69.9557,100,0,512,512
70.0013,100,0,512,512
70.0534,100,0,512,512
70.1056,100,0,512,512
70.1512,100,0,512,512
70.2033,100,0,512,512
70.2555,100,0,512,512
70.3011,100,0,512,512
70.3532,100,0,512,512
70.4054,100,0,512,512
70.451,100,0,512,512
70.5032,100,0,512,512
70.5553,100,0,512,512
70.6009,100,0,512,512
70.6531,100,0,512,512
70.7052,100,0,512,512
70.7508,100,0,512,512
70.803,100,0,512,512
70.8551,100,0,512,512
70.9007,100,0,512,512
70.9529,100,0,512,512
71.005,100,0,512,512
71.0507,100,0,512,512
71.1028,100,0,512,512
71.1549,100,0,512,512
71.2006,100,0,512,512
71.2527,100,0,512,512
71.3048,100,0,512,512
71.3505,100,0,512,512
71.4026,100,0,512,512
71.4548,100,0,512,512
71.5004,100,0,512,512
71.5525,100,0,512,512
71.6047,100,0,512,512
71.6503,100,0,512,512
71.7024,100,0,512,512
71.7546,100,0,512,512
71.8002,100,0,512,512
71.8523,100,0,512,512
71.9045,100,0,512,512
71.9501,100,0,512,512
72.0023,100,0,512,512
72.0544,100,0,512,512
72.1,100,0,512,512
72.1522,100,0,512,512
72.2043,100,0,512,512
72.2564,100,0,512,512
72.3021,100,0,512,512
72.3542,100,0,512,512
72.4064,100,0,512,512
72.452,100,0,512,512
72.5041,100,0,512,512
72.5563,100,0,512,512
72.6019,100,0,512,512
72.654,100,0,512,512
72.7062,100,0,512,512
72.7518,100,0,512,512
72.8039,100,0,512,512
72.8561,100,0,512,512
72.9017,100,0,512,512
72.9539,100,0,512,512
73.006,100,0,512,512
73.0516,100,0,512,512
73.1038,100,0,512,512
73.1559,100,0,512,512
73.2015,100,0,512,512
73.2537,100,0,512,512
73.3058,100,0,512,512
73.3514,100,0,512,512
73.4036,100,0,512,512
73.4557,100,0,512,512
73.5014,100,0,512,512
73.5535,100,0,512,512
73.6056,100,0,512,512
73.6513,100,0,512,512
73.7034,100,0,512,512
73.7555,100,0,512,512
73.8012,100,0,512,512
73.8533,100,0,512,512
73.9055,100,0,512,512
73.9511,100,0,512,512
74.0032,100,0,512,512
74.0554,100,0,512,512
74.101,100,0,512,512
74.1531,100,0,512,512
74.2053,100,0,512,512
74.2509,100,0,512,512
74.303,100,0,512,512
74.3552,100,0,512,512
74.4008,100,0,512,512
74.453,100,0,512,512
74.5051,100,0,512,512
74.5507,100,0,512,512
74.6029,100,0,512,512
74.655,100,0,512,512
74.7006,100,0,512,512
74.7528,100,0,512,512
74.8049,100,0,512,512
74.8505,100,0,512,512
74.9027,100,0,512,512
74.9548,100,0,512,512
75.0004,100,0,512,512
75.0526,100,0,512,512
75.1047,100,0,512,512
75.1504,100,0,512,512
75.2025,100,0,512,512
75.2546,100,0,512,512
75.3003,100,0,512,512
75.3524,100,0,512,512
75.4046,100,0,512,512
75.4502,100,0,512,512
75.5023,100,0,512,512
75.5545,100,0,512,512
75.6001,100,0,512,512
75.6522,100,0,512,512
75.7044,100,0,512,512
75.7565,100,0,512,512
75.8021,100,0,512,512
75.8543,100,0,512,512
75.9064,100,0,512,512
75.952,100,0,512,512
76.0042,100,0,512,512
76.0563,100,0,512,512
76.102,100,0,512,512
76.1541,100,0,512,512
76.2062,100,0,512,512
76.2519,100,0,512,512
76.304,100,0,512,512
76.3562,100,0,512,512
76.4018,100,0,512,512
76.4539,100,0,512,512
76.5061,100,0,512,512
76.5517,100,0,512,512
76.6038,100,0,512,512
76.656,100,0,512,512
76.7016,100,0,512,512
76.7537,100,0,512,512
76.8059,100,0,512,512
76.8515,100,0,512,512
76.9036,100,0,512,512
76.9558,100,0,512,512
77.0014,100,0,512,512
77.0536,100,0,512,512
77.1057,100,0,512,512
77.1513,100,0,512,512
77.2035,100,0,512,512
77.2556,100,0,512,512
77.3012,100,0,512,512
77.3534,100,0,512,512
77.4055,100,0,512,512
77.4511,100,0,512,512
77.5033,100,0,512,512
77.5554,100,0,512,512
77.6011,100,0,512,512
77.6532,100,0,512,512
77.7053,100,0,512,512
77.751,100,0,512,512
77.8031,100,0,512,512
77.8552,100,0,512,512
77.9009,100,0,512,512
77.953,100,0,512,512
78.0052,100,0,512,512
78.0508,100,0,512,512
78.1029,100,0,512,512
78.1551,100,0,512,512
78.2007,100,0,512,512
78.2528,100,0,512,512
78.305,100,0,512,512
78.3506,100,0,512,512
78.4027,100,0,512,512
78.4549,100,0,512,512
78.5005,100,0,512,512
78.5527,100,0,512,512
78.6048,100,0,512,512
78.6504,100,0,512,512
78.7026,100,0,512,512
78.7547,100,0,512,512
78.8003,100,0,512,512
78.8525,100,0,512,512
78.9046,100,0,512,512
78.9502,100,0,512,512
79.0024,100,0,512,512
79.0545,100,0,512,512
79.1002,100,0,512,512
79.1523,100,0,512,512
79.2044,100,0,512,512
79.2501,100,0,512,512
79.3022,100,0,512,512
79.3543,100,0,512,512
79.4065,100,0,512,512
79.4521,100,0,512,512
79.5043,100,0,512,512
79.5564,100,0,512,512
79.602,100,0,512,512
79.6542,100,0,512,512
79.7063,100,0,512,512
79.7519,100,0,512,512
79.8041,100,0,512,512
79.8562,100,0,512,512
79.9018,100,0,512,512
79.954,100,0,512,512
80.0061,100,0,512,512
80.0518,100,0,512,512
80.1039,100,0,512,512
80.156,100,0,512,512
80.2017,100,0,512,512
80.2538,100,0,512,512
80.3059,100,0,512,512
80.3516,100,0,512,512
80.4037,100,0,512,512
80.4559,100,0,512,512
80.5015,100,0,512,512
80.5536,100,0,512,512
80.6058,100,0,512,512
80.6514,100,0,512,512
80.7035,100,0,512,512
80.7557,100,0,512,512
80.8013,100,0,512,512
80.8534,100,0,512,512
80.9056,100,0,512,512
80.9512,100,0,512,512
81.0034,100,0,512,512
81.0555,100,0,512,512
81.1011,100,0,512,512
81.1533,100,0,512,512
81.2054,100,0,512,512
81.251,100,0,512,512
81.3032,100,0,512,512
81.3553,100,0,512,512
81.4009,100,0,512,512
81.4531,100,0,512,512
81.5052,100,0,512,512
81.5508,100,0,512,512
81.603,100,0,512,512
81.6551,100,0,512,512
81.7008,100,0,512,512
81.7529,100,0,512,512
81.805,100,0,512,512
81.8507,100,0,512,512
81.9028,100,0,512,512
81.955,100,0,512,512
82.0006,100,0,512,512
82.0527,100,0,512,512
82.1049,100,0,512,512
82.1505,100,0,512,512
82.2026,100,0,512,512
82.2548,100,0,512,512
82.3004,100,0,512,512
82.3525,100,0,512,512
82.4047,100,0,512,512
82.4503,100,0,512,512
82.5024,100,0,512,512
82.5546,100,0,512,512
82.6002,100,0,512,512
82.6524,100,0,512,512
82.7045,100,0,512,512
82.7501,100,0,512,512
82.8023,100,0,512,512
82.8544,100,0,512,512
82.9,100,0,512,512
82.9522,100,0,512,512
83.0043,100,0,512,512
83.0565,100,0,512,512
83.1021,100,0,512,512
83.1542,100,0,512,512
83.2064,100,0,512,512
83.252,100,0,512,512
83.3041,100,0,512,512
83.3563,100,0,512,512
83.4019,100,0,512,512
83.454,100,0,512,512
83.5062,100,0,512,512
83.5518,100,0,512,512
83.604,100,0,512,512
83.6561,100,0,512,512
83.7017,100,0,512,512
83.7539,100,0,512,512
83.806,100,0,512,512
83.8516,100,0,512,512
83.9038,100,0,512,512
83.9559,100,0,512,512
84.0015,100,0,512,512
84.0537,100,0,512,512
84.1058,100,0,512,512
84.1515,100,0,512,512
84.2036,100,0,512,512
84.2557,100,0,512,512
84.3014,100,0,512,512
84.3535,100,0,512,512
84.4056,100,0,512,512
84.4513,100,0,512,512
84.5034,100,0,512,512
84.5556,100,0,512,512
84.6012,100,0,512,512
84.6533,100,0,512,512
84.7055,100,0,512,512
84.7511,100,0,512,512
84.8032,100,0,512,512
84.8554,100,0,512,512
84.901,100,0,512,512
84.9531,100,0,512,512
85.0053,100,0,512,512
85.0509,100,0,512,512
85.1031,100,0,512,512
85.1552,100,0,512,512
85.2008,100,0,512,512
85.253,100,0,512,512
85.3051,100,0,512,512
85.3507,100,0,512,512
85.4029,100,0,512,512
85.455,100,0,512,512
85.5006,100,0,512,512
85.5528,100,0,512,512
85.6049,100,0,512,512
85.6505,100,0,512,512
85.7027,100,0,512,512
85.7548,100,0,512,512
85.8005,100,0,512,512
85.8526,100,0,512,512
85.9047,100,0,512,512
85.9504,100,0,512,512
86.0025,100,0,512,512
86.0547,100,0,512,512
86.1003,100,0,512,512
86.1524,100,0,512,512
86.2046,100,0,512,512
86.2502,100,0,512,512
86.3023,100,0,512,512
86.3545,100,0,512,512
86.4001,100,0,512,512
86.4522,100,0,512,512
86.5044,100,0,512,512
86.55,100,0,512,512
86.6022,100,0,512,512
86.6543,100,0,512,512
86.7064,100,0,512,512
86.7521,100,0,512,512
86.8042,100,0,512,512
86.8563,100,0,512,512
86.902,100,0,512,512
86.9541,100,0,512,512
87.0063,100,0,512,512
87.0519,100,0,512,512
87.104,100,0,512,512
87.1562,100,0,512,512
87.2018,100,0,512,512
87.2539,100,0,512,512
87.3061,100,0,512,512
87.3517,100,0,512,512
87.4038,100,0,512,512
87.456,100,0,512,512
87.5016,100,0,512,512
87.5538,100,0,512,512
87.6059,100,0,512,512
87.6515,100,0,512,512
87.7037,100,0,512,512
87.7558,100,0,512,512
87.8014,100,0,512,512
87.8536,100,0,512,512
87.9057,100,0,512,512
87.9513,100,0,512,512
88.0035,100,0,512,512
88.0556,100,0,512,512
88.1012,100,0,512,512
88.1534,100,0,512,512
88.2055,100,0,512,512
88.2512,100,0,512,512
88.3033,100,0,512,512
88.3554,100,0,512,512
88.4011,100,0,512,512
88.4532,100,0,512,512
88.5054,100,0,512,512
88.551,100,0,512,512
88.6031,100,0,512,512
88.6553,100,0,512,512
88.7009,100,0,512,512
88.753,100,0,512,512
88.8052,100,0,512,512
88.8508,100,0,512,512
88.9029,100,0,512,512
88.9551,100,0,512,512
89.0007,100,0,512,512
89.0528,100,0,512,512
89.105,100,0,512,512
89.1506,100,0,512,512
89.2028,100,0,512,512
89.2549,100,0,512,512
89.3005,100,0,512,512
89.3527,100,0,512,512
89.4048,100,0,512,512
89.4504,100,0,512,512
89.5026,100,0,512,512
89.5547,100,0,512,512
89.6003,100,0,512,512
89.6525,100,0,512,512
89.7046,100,0,512,512
89.7503,100,0,512,512
89.8024,100,0,512,512
89.8545,100,0,512,512
89.9002,100,0,512,512
89.9523,100,0,512,512
90.0044,100,0,512,512
90.0501,100,0,512,512
90.1022,100,0,512,512
90.1544,100,0,512,512
90.2065,100,0,512,512
90.2521,100,0,512,512
90.3043,100,0,512,512
90.3564,100,0,512,512
90.402,100,0,512,512
90.4542,100,0,512,512
90.5063,100,0,512,512
90.5519,100,0,512,512
90.6041,100,0,512,512
90.6562,100,0,512,512
90.7019,100,0,512,512
90.754,100,0,512,512
90.8061,100,0,512,512
90.8518,100,0,512,512
90.9039,100,0,512,512
90.956,100,0,512,512
91.0017,100,0,512,512
91.0538,100,0,512,512
91.106,100,0,512,512
91.1516,100,0,512,512
91.2037,100,0,512,512
91.2559,100,0,512,512
91.3015,100,0,512,512
91.3536,100,0,512,512
91.4058,100,0,512,512
91.4514,100,0,512,512
91.5035,100,0,512,512
91.5557,100,0,512,512
91.6013,100,0,512,512
91.6535,100,0,512,512
91.7056,100,0,512,512
91.7512,100,0,512,512
91.8034,100,0,512,512
91.8555,100,0,512,512
91.9011,100,0,512,512
91.9533,100,0,512,512
92.0054,100,0,512,512
92.051,100,0,512,512
92.1032,100,0,512,512
92.1553,100,0,512,512
92.2009,100,0,512,512
92.2531,100,0,512,512
92.3052,100,0,512,512
92.3509,100,0,512,512
92.403,100,0,512,512
92.4551,100,0,512,512
92.5008,100,0,512,512
92.5529,100,0,512,512
92.6051,100,0,512,512
92.6507,100,0,512,512
92.7028,100,0,512,512
92.755,100,0,512,512
92.8006,100,0,512,512
92.8527,100,0,512,512
92.9049,100,0,512,512
92.9505,100,0,512,512
93.0026,100,0,512,512
93.0548,100,0,512,512
93.1004,100,0,512,512
93.1526,100,0,512,512
93.2047,100,0,512,512
93.2503,100,0,512,512
93.3025,100,0,512,512
93.3546,100,0,512,512
93.4002,100,0,512,512
93.4524,100,0,512,512
93.5045,100,0,512,512
93.5501,100,0,512,512
93.6023,100,0,512,512
93.6544,100,0,512,512
93.7,100,0,512,512
93.7522,100,0,512,512
93.8043,100,0,512,512
93.8565,100,0,512,512
93.9021,100,0,512,512
93.9542,100,0,512,512
94.0064,100,0,512,512
94.052,100,0,512,512
94.1042,100,0,512,512
94.1563,100,0,512,512
94.2019,100,0,512,512
94.2541,100,0,512,512
94.3062,100,0,512,512
94.3518,100,0,512,512
94.404,100,0,512,512
94.4561,100,0,512,512
94.5017,100,0,512,512
94.5539,100,0,512,512
94.606,100,0,512,512
94.6516,100,0,512,512
94.7038,100,0,512,512
94.7559,100,0,512,512
94.8016,100,0,512,512
94.8537,100,0,512,512
94.9058,100,0,512,512
94.9515,100,0,512,512
95.0036,100,0,512,512
95.0558,100,0,512,512
95.1014,100,0,512,512
95.1535,100,0,512,512
95.2057,100,0,512,512
95.2513,100,0,512,512
95.3034,100,0,512,512
95.3556,100,0,512,512
95.4012,100,0,512,512
95.4533,100,0,512,512
95.5055,100,0,512,512
95.5511,100,0,512,512
95.6032,100,0,512,512
95.6554,100,0,512,512
95.701,100,0,512,512
95.7532,100,0,512,512
95.8053,100,0,512,512
95.8509,100,0,512,512
95.9031,100,0,512,512
95.9552,100,0,512,512
96.0008,100,0,512,512
96.053,100,0,512,512
96.1051,100,0,512,512
96.1507,100,0,512,512
96.2029,100,0,512,512
96.255,100,0,512,512
96.3007,100,0,512,512
96.3528,100,0,512,512
96.4049,100,0,512,512
96.4506,100,0,512,512
96.5027,100,0,512,512
96.5548,100,0,512,512
96.6005,100,0,512,512
96.6526,100,0,512,512
96.7048,100,0,512,512
96.7504,100,0,512,512
96.8025,100,0,512,512
96.8547,100,0,512,512
96.9003,100,0,512,512
96.9524,100,0,512,512
97.0046,100,0,512,512
97.0502,100,0,512,512
97.1023,100,0,512,512
97.1545,100,0,512,512
97.2001,100,0,512,512
97.2523,100,0,512,512
97.3044,100,0,512,512
97.35,100,0,512,512
97.4022,100,0,512,512
97.4543,100,0,512,512
97.5064,100,0,512,512
97.5521,100,0,512,512
97.6042,100,0,512,512
97.6564,100,0,512,512
97.702,100,0,512,512
97.7541,100,0,512,512
97.8063,100,0,512,512
97.8519,100,0,512,512
97.904,100,0,512,512
97.9562,100,0,512,512
98.0018,100,0,512,512
98.0539,100,0,512,512
98.1061,100,0,512,512
98.1517,100,0,512,512
98.2039,100,0,512,512
98.256,100,0,512,512
98.3016,100,0,512,512
98.3538,100,0,512,512
98.4059,100,0,512,512
98.4515,100,0,512,512
98.5037,100,0,512,512
98.5558,100,0,512,512
98.6014,100,0,512,512
98.6536,100,0,512,512
98.7057,100,0,512,512
98.7513,100,0,512,512
98.8035,100,0,512,512
98.8556,100,0,512,512
98.9013,100,0,512,512
98.9534,100,0,512,512
99.0055,100,0,512,512
99.0512,100,0,512,512
99.1033,100,0,512,512
99.1555,100,0,512,512
99.2011,100,0,512,512
99.2532,100,0,512,512
99.3054,100,0,512,512
99.351,100,0,512,512
99.4031,100,0,512,512
99.4553,100,0,512,512
99.5009,100,0,512,512
99.553,100,0,512,512
99.6052,100,0,512,512
99.6508,100,0,512,512
99.7029,100,0,512,512
99.7551,100,0,512,512
99.8007,100,0,512,512
99.8529,100,0,512,512
99.905,100,0,512,512
99.9506,100,0,512,512
100.003,100,0,512,512
100.055,100,0,512,512
100.101,100,0,512,512
100.153,100,0,512,512
100.205,100,0,512,512
100.25,100,0,512,512
100.303,100,0,512,512
100.355,100,0,512,512
100.4,100,0,512,512
100.452,100,0,512,512
100.505,100,0,512,512
100.55,100,0,512,512
100.602,100,0,512,512
100.655,100,0,512,512
100.7,100,0,512,512
100.752,100,0,512,512
100.804,100,0,512,512
100.85,100,0,512,512
100.902,100,0,512,512
100.954,100,0,512,512
101.007,100,0,512,512
101.052,100,0,512,512
101.104,100,0,512,512
101.156,100,0,512,512
101.202,100,0,512,512
101.254,100,0,512,512
101.306,100,0,512,512
101.352,100,0,512,512
101.404,100,0,512,512
101.456,100,0,512,512
101.502,100,0,512,512
101.554,100,0,512,512
101.606,100,0,512,512
101.652,100,0,512,512
101.704,100,0,512,512
101.756,100,0,512,512
101.802,100,0,512,512
101.854,100,0,512,512
101.906,100,0,512,512
101.952,100,0,512,512
102.004,100,0,512,512
102.056,100,0,512,512
102.102,100,0,512,512
102.154,100,0,512,512
102.206,100,0,512,512
102.251,100,0,512,512
102.304,100,0,512,512
102.356,100,0,512,512
102.401,100,0,512,512
102.453,100,0,512,512
102.506,100,0,512,512
102.551,100,0,512,512
102.603,100,0,512,512
102.656,100,0,512,512
102.701,100,0,512,512
102.753,100,0,512,512
102.805,100,0,512,512
102.851,100,0,512,512
102.903,100,0,512,512
102.955,100,0,512,512
103.001,100,0,512,512
103.053,100,0,512,512
103.105,100,0,512,512
103.151,100,0,512,512
103.203,100,0,512,512
103.255,100,0,512,512
103.301,100,0,512,512
103.353,100,0,512,512
103.405,100,0,512,512
103.451,100,0,512,512
103.503,100,0,512,512
103.555,100,0,512,512
103.601,100,0,512,512
103.653,100,0,512,512
103.705,100,0,512,512
103.751,100,0,512,512
103.803,100,0,512,512
103.855,100,0,512,512
103.9,100,0,512,512
103.953,100,0,512,512
104.005,100,0,512,512
104.05,100,0,512,512
104.102,100,0,512,512
104.155,100,0,512,512
104.2,100,0,512,512
104.252,100,0,512,512
104.305,100,0,512,512
104.35,100,0,512,512
104.402,100,0,512,512
104.454,100,0,512,512
104.5,100,0,512,512
104.552,100,0,512,512
104.604,100,0,512,512
104.656,100,0,512,512
104.702,100,0,512,512
104.754,100,0,512,512
104.806,100,0,512,512
104.852,100,0,512,512
104.904,100,0,512,512
104.956,100,0,512,512
105.002,100,0,512,512
105.054,100,0,512,512
105.106,100,0,512,512
105.152,100,0,512,512
105.204,100,0,512,512
105.256,100,0,512,512
105.302,100,0,512,512
105.354,100,0,512,512
105.406,100,0,512,512
105.452,100,0,512,512
105.504,100,0,512,512
105.556,100,0,512,512
105.602,100,0,512,512
105.654,100,0,512,512
105.706,100,0,512,512
105.751,100,0,512,512
105.804,100,0,512,512
105.856,100,0,512,512
105.901,100,0,512,512
105.954,100,0,512,512
106.006,100,0,512,512
106.051,100,0,512,512
106.103,100,0,512,512
106.156,100,0,512,512
106.201,100,0,512,512
106.253,100,0,512,512
106.305,100,0,512,512
106.351,100,0,512,512
106.403,100,0,512,512
106.455,100,0,512,512
106.501,100,0,512,512
106.553,100,0,512,512
106.605,100,0,512,512
106.651,100,0,512,512
106.703,100,0,512,512
106.755,100,0,512,512
106.801,100,0,512,512
106.853,100,0,512,512
106.905,100,0,512,512
106.951,100,0,512,512
107.003,100,0,512,512
107.055,100,0,512,512
107.101,100,0,512,512
107.153,100,0,512,512
107.205,100,0,512,512
107.251,100,0,512,512
107.303,100,0,512,512
107.355,100,0,512,512
107.4,100,0,512,512
107.453,100,0,512,512
107.505,100,0,512,512
107.55,100,0,512,512
107.603,100,0,512,512
107.655,100,0,512,512
107.7,100,0,512,512
107.752,100,0,512,512
107.805,100,0,512,512
107.85,100,0,512,512
107.902,100,0,512,512
107.954,100,0,512,512
108,100,0,512,512
108.052,100,0,512,512
108.104,100,0,512,512
108.15,100,0,512,512
108.202,100,0,512,512
108.254,100,0,512,512
108.306,100,0,512,512
108.352,100,0,512,512
108.404,100,0,512,512
108.456,100,0,512,512
108.502,100,0,512,512
108.554,100,0,512,512
108.606,100,0,512,512
108.652,100,0,512,512
108.704,100,0,512,512
108.756,100,0,512,512
108.802,100,0,512,512
108.854,100,0,512,512
108.906,100,0,512,512
108.952,100,0,512,512
109.004,100,0,512,512
109.056,100,0,512,512
109.102,100,0,512,512
109.154,100,0,512,512
109.206,100,0,512,512
109.252,100,0,512,512
109.304,100,0,512,512
109.356,100,0,512,512
109.401,100,0,512,512
109.454,100,0,512,512
109.506,100,0,512,512
109.551,100,0,512,512
109.604,100,0,512,512
109.656,100,0,512,512
109.701,100,0,512,512
109.753,100,0,512,512
109.806,100,0,512,512
109.851,100,0,512,512
109.903,100,0,512,512
109.955,100,0,512,512
110.001,100,0,512,512
110.053,100,0,512,512
110.105,100,0,512,512
110.151,100,0,512,512
110.203,100,0,512,512
110.255,100,0,512,512
110.301,100,0,512,512
110.353,100,0,512,512
110.405,100,0,512,512
110.451,100,0,512,512
110.503,100,0,512,512
110.555,100,0,512,512
110.601,100,0,512,512
110.653,100,0,512,512
110.705,100,0,512,512
110.751,100,0,512,512
110.803,100,0,512,512
110.855,100,0,512,512
110.901,100,0,512,512
110.953,100,0,512,512
111.005,100,0,512,512
111.05,100,0,512,512
111.103,100,0,512,512
111.155,100,0,512,512
111.2,100,0,512,512
111.253,100,0,512,512
111.305,100,0,512,512
111.35,100,0,512,512
111.402,100,0,512,512
111.455,100,0,512,512
111.5,100,0,512,512
111.552,100,0,512,512
111.604,100,0,512,512
111.65,100,0,512,512
111.702,100,0,512,512
111.754,100,0,512,512
111.8,100,0,512,512
111.852,100,0,512,512
111.904,100,0,512,512
111.956,100,0,512,512
112.002,100,0,512,512
112.054,100,0,512,512
112.106,100,0,512,512
112.152,100,0,512,512
112.204,100,0,512,512
112.256,100,0,512,512
112.302,100,0,512,512
112.354,100,0,512,512
112.406,100,0,512,512
112.452,100,0,512,512
112.504,100,0,512,512
112.556,100,0,512,512
112.602,100,0,512,512
112.654,100,0,512,512
112.706,100,0,512,512
112.752,100,0,512,512
112.804,100,0,512,512
112.856,100,0,512,512
112.902,100,0,512,512
112.954,100,0,512,512
113.006,100,0,512,512
113.051,100,0,512,512
113.104,100,0,512,512
113.156,100,0,512,512
113.201,100,0,512,512
113.253,100,0,512,512
113.306,100,0,512,512
113.351,100,0,512,512
113.403,100,0,512,512
113.456,100,0,512,512
113.501,100,0,512,512
113.553,100,0,512,512
113.605,100,0,512,512
113.651,100,0,512,512
113.703,100,0,512,512
113.755,100,0,512,512
113.801,100,0,512,512
113.853,100,0,512,512
113.905,100,0,512,512
113.951,100,0,512,512
114.003,100,0,512,512
114.055,100,0,512,512
114.101,100,0,512,512
114.153,100,0,512,512
114.205,100,0,512,512
114.251,100,0,512,512
114.303,100,0,512,512
114.355,100,0,512,512
114.401,100,0,512,512
114.453,100,0,512,512
114.505,100,0,512,512
114.551,100,0,512,512
114.603,100,0,512,512
114.655,100,0,512,512
114.7,100,0,512,512
114.753,100,0,512,512
114.805,100,0,512,512
114.85,100,0,512,512
114.902,100,0,512,512
114.955,100,0,512,512
115,100,0,512,512
115.052,100,0,512,512
115.105,100,0,512,512
115.15,100,0,512,512
115.202,100,0,512,512
115.254,100,0,512,512
115.3,100,0,512,512
115.352,100,0,512,512
115.404,100,0,512,512
115.456,100,0,512,512
115.502,100,0,512,512
115.554,100,0,512,512
115.606,100,0,512,512
115.652,100,0,512,512
115.704,100,0,512,512
115.756,100,0,512,512
115.802,100,0,512,512
115.854,100,0,512,512
115.906,100,0,512,512
115.952,100,0,512,512
116.004,100,0,512,512
116.056,100,0,512,512
116.102,100,0,512,512
116.154,100,0,512,512
116.206,100,0,512,512
116.252,100,0,512,512
116.304,100,0,512,512
116.356,100,0,512,512
116.402,100,0,512,512
116.454,100,0,512,512
116.506,100,0,512,512
116.551,100,0,512,512
116.604,100,0,512,512
116.656,100,0,512,512
116.701,100,0,512,512
116.754,100,0,512,512
116.806,100,0,512,512
116.851,100,0,512,512
116.903,100,0,512,512
116.956,100,0,512,512
117.001,100,0,512,512
117.053,100,0,512,512
117.106,100,0,512,512
117.151,100,0,512,512
117.203,100,0,512,512
117.255,100,0,512,512
117.301,100,0,512,512
117.353,100,0,512,512
117.405,100,0,512,512
117.451,100,0,512,512
117.503,100,0,512,512
117.555,100,0,512,512
117.601,100,0,512,512
117.653,100,0,512,512
117.705,100,0,512,512
117.751,100,0,512,512
117.803,100,0,512,512
117.855,100,0,512,512
117.901,100,0,512,512
117.953,100,0,512,512
118.005,100,0,512,512
118.051,100,0,512,512
118.103,100,0,512,512
118.155,100,0,512,512
118.2,100,0,512,512
118.253,100,0,512,512
118.305,100,0,512,512
118.35,100,0,512,512
118.403,100,0,512,512
118.455,100,0,512,512
118.5,100,0,512,512
118.552,100,0,512,512
118.605,100,0,512,512
118.65,100,0,512,512
118.702,100,0,512,512
118.755,100,0,512,512
118.8,100,0,512,512
118.852,100,0,512,512
118.904,100,0,512,512
118.95,100,0,512,512
119.002,100,0,512,512
119.054,100,0,512,512
119.106,100,0,512,512
119.152,100,0,512,512
119.204,100,0,512,512
119.256,100,0,512,512
119.302,100,0,512,512
119.354,100,0,512,512
119.406,100,0,512,512
119.452,100,0,512,512
119.504,100,0,512,512
119.556,100,0,512,512
119.602,100,0,512,512
119.654,100,0,512,512
119.706,100,0,512,512
119.752,100,0,512,512
119.804,100,0,512,512
119.856,100,0,512,512
119.902,100,0,512,512
119.954,100,0,512,512
