time,surface_elevation,number_of_local_cells,number_of_global_cells
0,0,24576,24576,
9067.97,0,24576,24576,
17436.3,0,24576,24576,
25963.5,0,24576,24576,
30357.9,0,24576,24576,
39159,0,24576,24576,
48325,0,24576,24576,
53059.7,0,24576,24576,
62985.2,0,24576,24576,
68030.7,0,24576,24576,
78121.8,0,24576,24576,
83167.3,0,24576,24576,
93258.3,0,24576,24576,
98303.9,0,24576,24576,
108395,0,24576,24576,
113440,0,24576,24576,
123531,0,24576,24576,
128577,0,24576,24576,
138668,0,24576,24576,
143714,0,24576,24576,
153805,0,24576,24576,
158850,0,24576,24576,
168941,0,24576,24576,
173987,0,24576,24576,
184078,0,24576,24576,
189123,0,24576,24576,
199214,0,24576,24576,
204260,0,24576,24576,
214351,0,24576,24576,
219396,0,24576,24576,
229487,0,24576,24576,
234533,0,24576,24576,
244624,0,24576,24576,
249670,0,24576,24576,
259761,0,24576,24576,
264806,0,24576,24576,
274897,0,24576,24576,
279943,0,24576,24576,
290034,0,24576,24576,
295079,0,24576,24576,
300125,0,24576,24576,
310216,0,24576,24576,
315261,0,24576,24576,
325352,0,24576,24576,
330398,0,24576,24576,
340489,0,24576,24576,
345535,0,24576,24576,
355626,0,24576,24576,
360671,0,24576,24576,
370762,0,24576,24576,
375808,0,24576,24576,
385899,0,24576,24576,
390944,0,24576,24576,
401035,0,24576,24576,
406081,0,24576,24576,
416172,0,24576,24576,
421217,0,24576,24576,
431308,0,24576,24576,
436354,0,24576,24576,
446445,0,24576,24576,
451491,0,24576,24576,
461582,0,24576,24576,
466627,0,24576,24576,
476718,0,24576,24576,
481764,0,24576,24576,
491855,0,24576,24576,
496900,0,24576,24576,
506991,0,24576,24576,
512036,0,24576,24576,
522127,0,24576,24576,
527166,0,24576,24576,
537167,0,24576,24576,
542111,0,24576,24576,
551879,0,24576,24576,
556704,0,24576,24576,
566243,0,24576,24576,
570954,0,24576,24576,
580271,0,24576,24576,
589443,0,24576,24576,
593972,0,24576,24576,
602925,0,24576,24576,
611736,0,24576,24576,
616083,0,24576,24576,
624681,0,24576,24576,
633137,0,24576,24576,
641444,0,24576,24576,
645555,0,24576,24576,
653659,0,24576,24576,
661663,0,24576,24576,
669624,0,24576,24576,
677576,0,24576,24576,
685537,0,24576,24576,
693526,0,24576,24576,
697534,0,24576,24576,
705586,0,24576,24576,
713690,0,24576,24576,
721852,2.22045e-16,24576,24576,
730074,8.88178e-16,24576,24576,
738359,2.88658e-15,24576,24576,
742523,5.32907e-15,24576,24576,
750894,1.68754e-14,24576,24576,
759324,5.10703e-14,24576,24576,
767818,1.48992e-13,24576,24576,
776377,4.23439e-13,24576,24576,
780681,7.07212e-13,24576,24576,
789338,1.93578e-12,24576,24576,
798063,5.17542e-12,24576,24576,
806855,1.35256e-11,24576,24576,
811276,2.16864e-11,24576,24576,
820170,5.4869e-11,24576,24576,
829133,1.35989e-10,24576,24576,
833640,2.12484e-10,24576,24576,
842706,5.11218e-10,24576,24576,
851840,1.2067e-09,24576,24576,
856433,1.84098e-09,24576,24576,
865670,4.2264e-09,24576,24576,
870314,6.36024e-09,24576,24576,
879654,1.42111e-08,24576,24576,
889061,3.11907e-08,24576,24576,
893790,4.59007e-08,24576,24576,
903299,9.80802e-08,24576,24576,
908078,1.42408e-07,24576,24576,
917687,2.96168e-07,24576,24576,
922516,4.24192e-07,24576,24576,
932224,8.58201e-07,24576,24576,
941998,1.70407e-06,24576,24576,
946909,2.38424e-06,24576,24576,
956779,4.60074e-06,24576,24576,
961739,6.34475e-06,24576,24576,
971705,1.1891e-05,24576,24576,
976712,1.6159e-05,24576,24576,
986770,2.93965e-05,24576,24576,
991815,3.93408e-05,24576,24576,
1.00191e+06,6.92528e-05,24576,24576,
1.00694e+06,9.10759e-05,24576,24576,
1.017e+06,0.000154776,24576,24576,
1.02203e+06,0.000200026,24576,24576,
1.03206e+06,0.000328433,24576,24576,
1.03707e+06,0.000417324,24576,24576,
1.04707e+06,0.000662741,24576,24576,
1.05206e+06,0.000828389,24576,24576,
1.06203e+06,0.0012736,24576,24576,
1.06701e+06,0.00156668,24576,24576,
1.07696e+06,0.00233371,24576,24576,
1.08193e+06,0.00282614,24576,24576,
1.09185e+06,0.00408096,24576,24576,
1.0968e+06,0.00486624,24576,24576,
1.1067e+06,0.00681341,24576,24576,
1.11165e+06,0.00800017,24576,24576,
1.12152e+06,0.0108604,24576,24576,
1.12646e+06,0.0125556,24576,24576,
1.13632e+06,0.0165205,24576,24576,
1.14124e+06,0.0188016,24576,24576,
1.15108e+06,0.0239694,24576,24576,
1.15599e+06,0.0268496,24576,24576,
1.16582e+06,0.0331582,24576,24576,
1.17072e+06,0.0365576,24576,24576,
1.18053e+06,0.0437461,24576,24576,
1.18543e+06,0.0474855,24576,24576,
1.19522e+06,0.055112,24576,24576,
1.20011e+06,0.0589378,24576,24576,
1.2099e+06,0.066459,24576,24576,
1.21967e+06,0.0736103,24576,24576,
1.22456e+06,0.0769811,24576,24576,
1.23432e+06,0.083205,24576,24576,
1.23921e+06,0.0860247,24576,24576,
1.24897e+06,0.0910217,24576,24576,
1.25385e+06,0.0931859,24576,24576,
1.26361e+06,0.0968352,24576,24576,
1.26849e+06,0.0983237,24576,24576,
1.27825e+06,0.100652,24576,24576,
1.28313e+06,0.101507,24576,24576,
1.2929e+06,0.102637,24576,24576,
1.29778e+06,0.102931,24576,24576,
1.30756e+06,0.103026,24576,24576,
1.31734e+06,0.102526,24576,24576,
1.32223e+06,0.102076,24576,24576,
1.33203e+06,0.100815,24576,24576,
1.33693e+06,0.100021,24576,24576,
1.34674e+06,0.0981428,24576,24576,
1.35165e+06,0.0970723,24576,24576,
1.36148e+06,0.0947009,24576,24576,
1.3664e+06,0.0934123,24576,24576,
1.37626e+06,0.0906577,24576,24576,
1.38119e+06,0.0892024,24576,24576,
1.39107e+06,0.0861606,24576,24576,
1.39601e+06,0.0845833,24576,24576,
1.40591e+06,0.0813364,24576,24576,
1.41087e+06,0.0796744,24576,24576,
1.42079e+06,0.0762896,24576,24576,
1.42576e+06,0.0745727,24576,24576,
1.4357e+06,0.0711023,24576,24576,
1.44068e+06,0.0693531,24576,24576,
1.45064e+06,0.0658358,24576,24576,
1.45563e+06,0.0640708,24576,24576,
1.46561e+06,0.060535,24576,24576,
1.4706e+06,0.0587664,24576,24576,
1.48059e+06,0.0552333,24576,24576,
1.48559e+06,0.0534704,24576,24576,
1.4956e+06,0.0499564,24576,24576,
1.50061e+06,0.0482066,24576,24576,
1.51062e+06,0.0447248,24576,24576,
1.51563e+06,0.042994,24576,24576,
1.52566e+06,0.0395552,24576,24576,
1.53067e+06,0.0378481,24576,24576,
1.54071e+06,0.0344604,24576,24576,
1.54572e+06,0.0327806,24576,24576,
1.55576e+06,0.0294502,24576,24576,
1.56078e+06,0.0278002,24576,24576,
1.57082e+06,0.0245315,24576,24576,
1.57584e+06,0.0229133,24576,24576,
1.58589e+06,0.0197096,24576,24576,
1.59091e+06,0.0181245,24576,24576,
1.60096e+06,0.0149886,24576,24576,
1.60599e+06,0.013438,24576,24576,
1.61603e+06,0.0103742,24576,24576,
1.62105e+06,0.00886249,24576,24576,
1.63106e+06,0.00587978,24576,24576,
1.63606e+06,0.00441095,24576,24576,
1.64604e+06,0.00152201,24576,24576,
1.65101e+06,0.000105445,24576,24576,
1.66093e+06,-0.00266957,24576,24576,
1.66587e+06,-0.00402868,24576,24576,
1.67571e+06,-0.00669029,24576,24576,
1.68061e+06,-0.0079923,24576,24576,
1.69037e+06,-0.0105412,24576,24576,
1.69522e+06,-0.0117875,24576,24576,
1.70487e+06,-0.0142228,24576,24576,
1.71444e+06,-0.016581,24576,24576,
1.71919e+06,-0.0177327,24576,24576,
1.72862e+06,-0.0199814,24576,24576,
1.7333e+06,-0.021078,24576,24576,
1.74261e+06,-0.0232153,24576,24576,
1.75184e+06,-0.0252782,24576,24576,
1.75643e+06,-0.0262821,24576,24576,
1.76556e+06,-0.0282356,24576,24576,
1.7701e+06,-0.0291855,24576,24576,
1.77914e+06,-0.0310318,24576,24576,
1.78812e+06,-0.0328047,24576,24576,
1.79259e+06,-0.0336639,24576,24576,
1.8015e+06,-0.0353288,24576,24576,
1.81037e+06,-0.0369228,24576,24576,
1.81921e+06,-0.0384463,24576,24576,
1.82362e+06,-0.0391815,24576,24576,
1.83244e+06,-0.0405983,24576,24576,
1.84124e+06,-0.0419421,24576,24576,
1.84564e+06,-0.0425858,24576,24576,
1.85444e+06,-0.0438151,24576,24576,
1.86324e+06,-0.0449639,24576,24576,
1.86764e+06,-0.0455069,24576,24576,
1.87646e+06,-0.0465274,24576,24576,
1.88528e+06,-0.0474568,24576,24576,
1.89412e+06,-0.0482901,24576,24576,
1.89855e+06,-0.048669,24576,24576,
1.90742e+06,-0.0493483,24576,24576,
1.9163e+06,-0.0499182,24576,24576,
1.92076e+06,-0.0501602,24576,24576,
1.92968e+06,-0.0505552,24576,24576,
1.93863e+06,-0.0508265,24576,24576,
1.94312e+06,-0.0509141,24576,24576,
1.95211e+06,-0.0509896,24576,24576,
1.96112e+06,-0.0509281,24576,24576,
1.96565e+06,-0.0508445,24576,24576,
1.97471e+06,-0.0505693,24576,24576,
1.9838e+06,-0.0501472,24576,24576,
1.98836e+06,-0.0498803,24576,24576,
1.99751e+06,-0.0492344,24576,24576,
2.00668e+06,-0.0484389,24576,24576,
2.01128e+06,-0.0479856,24576,24576,
2.02051e+06,-0.0469694,24576,24576,
2.02513e+06,-0.0464077,24576,24576,
2.03441e+06,-0.0451807,24576,24576,
2.04372e+06,-0.0438217,24576,24576,
2.04839e+06,-0.0430955,24576,24576,
2.05775e+06,-0.0415562,24576,24576,
2.06715e+06,-0.0399112,24576,24576,
2.07186e+06,-0.0390531,24576,24576,
2.08131e+06,-0.0372748,24576,24576,
2.08605e+06,-0.0363584,24576,24576,
2.09556e+06,-0.0344809,24576,24576,
2.10032e+06,-0.033524,24576,24576,
2.10988e+06,-0.0315841,24576,24576,
2.11948e+06,-0.0296234,24576,24576,
2.12429e+06,-0.0286403,24576,24576,
2.13394e+06,-0.0266788,24576,24576,
2.13878e+06,-0.0257041,24576,24576,
2.14849e+06,-0.0237759,24576,24576,
2.15336e+06,-0.0228258,24576,24576,
2.16312e+06,-0.0209611,24576,24576,
2.16801e+06,-0.0200493,24576,24576,
2.17783e+06,-0.018273,24576,24576,
2.18276e+06,-0.0174106,24576,24576,
2.19263e+06,-0.0157418,24576,24576,
2.19758e+06,-0.0149368,24576,24576,
2.20751e+06,-0.0133886,24576,24576,
2.21748e+06,-0.0119255,24576,24576,
2.22248e+06,-0.0112264,24576,24576,
2.23247e+06,-0.00989761,24576,24576,
2.23746e+06,-0.00926803,24576,24576,
2.24744e+06,-0.00807714,24576,24576,
2.25243e+06,-0.00751522,24576,24576,
2.26239e+06,-0.00645626,24576,24576,
2.26736e+06,-0.00595823,24576,24576,
2.2773e+06,-0.00502241,24576,24576,
2.28227e+06,-0.00458348,24576,24576,
2.29219e+06,-0.00376065,24576,24576,
2.29715e+06,-0.00337554,24576,24576,
2.30705e+06,-0.00265492,24576,24576,
2.312e+06,-0.00231821,24576,24576,
2.32188e+06,-0.00168902,24576,24576,
2.32682e+06,-0.00139539,24576,24576,
2.33669e+06,-0.000847213,24576,24576,
2.34162e+06,-0.000591586,24576,24576,
2.35147e+06,-0.000114643,24576,24576,
2.35639e+06,0.000107674,24576,24576,
2.36623e+06,0.000522371,24576,24576,
2.37114e+06,0.000715655,24576,24576,
2.38096e+06,0.00107623,24576,24576,
2.38587e+06,0.00124432,24576,24576,
2.39567e+06,0.00155801,24576,24576,
2.40057e+06,0.00170432,24576,24576,
2.41037e+06,0.00197754,24576,24576,
2.41526e+06,0.00210508,24576,24576,
2.42503e+06,0.00234348,24576,24576,
2.4348e+06,0.00256144,24576,24576,
2.43969e+06,0.0026634,24576,24576,
2.44944e+06,0.00285443,24576,24576,
2.45432e+06,0.00294394,24576,24576,
2.46406e+06,0.00311197,24576,24576,
2.46893e+06,0.00319087,24576,24576,
2.47866e+06,0.00333934,24576,24576,
2.48353e+06,0.00340924,24576,24576,
2.49325e+06,0.00354113,24576,24576,
2.49811e+06,0.00360341,24576,24576,
2.50783e+06,0.00372131,24576,24576,
2.51268e+06,0.00377718,24576,24576,
2.52239e+06,0.00388333,24576,24576,
2.53209e+06,0.00398274,24576,24576,
2.53694e+06,0.00403016,24576,24576,
2.54663e+06,0.00412089,24576,24576,
2.55148e+06,0.00416436,24576,24576,
2.56116e+06,0.00424791,24576,24576,
2.56601e+06,0.00428813,24576,24576,
2.57569e+06,0.00436578,24576,24576,
2.58053e+06,0.00440333,24576,24576,
2.59021e+06,0.00447617,24576,24576,
2.59505e+06,0.00451156,24576,24576,
2.60473e+06,0.00458052,24576,24576,
2.61441e+06,0.00464735,24576,24576,
2.61925e+06,0.00468005,24576,24576,
2.62893e+06,0.00474424,24576,24576,
2.63377e+06,0.00477578,24576,24576,
2.64345e+06,0.00483793,24576,24576,
2.64829e+06,0.00486858,24576,24576,
2.65798e+06,0.00492919,24576,24576,
2.66282e+06,0.00495919,24576,24576,
2.67251e+06,0.00501869,24576,24576,
2.68221e+06,0.00507765,24576,24576,
2.68706e+06,0.00510698,24576,24576,
2.69676e+06,0.00516541,24576,24576,
2.70161e+06,0.00519455,24576,24576,
2.71132e+06,0.00525272,24576,24576,
2.71618e+06,0.00528178,24576,24576,
2.7259e+06,0.00533993,24576,24576,
2.73076e+06,0.00536903,24576,24576,
2.74049e+06,0.00542735,24576,24576,
2.74536e+06,0.00545658,24576,24576,
2.7551e+06,0.00551523,24576,24576,
2.76484e+06,0.00557418,24576,24576,
2.76972e+06,0.00560379,24576,24576,
2.77948e+06,0.00566329,24576,24576,
2.78436e+06,0.0056932,24576,24576,
2.79413e+06,0.00575335,24576,24576,
2.79901e+06,0.00578361,24576,24576,
2.80879e+06,0.0058445,24576,24576,
2.81368e+06,0.00587515,24576,24576,
2.82347e+06,0.00593686,24576,24576,
2.82836e+06,0.00596793,24576,24576,
2.83815e+06,0.00603052,24576,24576,
2.84305e+06,0.00606206,24576,24576,
2.85285e+06,0.00612561,24576,24576,
2.85775e+06,0.00615764,24576,24576,
2.86756e+06,0.00622223,24576,24576,
2.87737e+06,0.00628754,24576,24576,
2.88227e+06,0.00632049,24576,24576,
2.89209e+06,0.00638697,24576,24576,
2.89699e+06,0.00642052,24576,24576,
2.90681e+06,0.00648826,24576,24576,
2.91172e+06,0.00652246,24576,24576,
2.92153e+06,0.00659157,24576,24576,
2.92644e+06,0.00662648,24576,24576,
2.93626e+06,0.00669706,24576,24576,
2.94117e+06,0.00673274,24576,24576,
2.95098e+06,0.00680491,24576,24576,
2.95589e+06,0.00684141,24576,24576,
2.96571e+06,0.0069153,24576,24576,
2.97061e+06,0.00695269,24576,24576,
2.98043e+06,0.00702841,24576,24576,
2.98533e+06,0.00706676,24576,24576,
2.99515e+06,0.00714445,24576,24576,
3.00005e+06,0.0071838,24576,24576,
3.00986e+06,0.00726357,24576,24576,
3.01966e+06,0.00734479,24576,24576,
3.02457e+06,0.00738596,24576,24576,
3.03437e+06,0.00746945,24576,24576,
3.03927e+06,0.00751177,24576,24576,
3.04906e+06,0.00759761,24576,24576,
3.05396e+06,0.00764113,24576,24576,
3.06375e+06,0.00772941,24576,24576,
3.06864e+06,0.00777417,24576,24576,
3.07842e+06,0.00786494,24576,24576,
3.08331e+06,0.00791097,24576,24576,
3.09309e+06,0.00800431,24576,24576,
3.09798e+06,0.00805162,24576,24576,
3.10774e+06,0.00814755,24576,24576,
3.11263e+06,0.00819618,24576,24576,
3.12238e+06,0.00829474,24576,24576,
3.13214e+06,0.00839506,24576,24576,
3.13701e+06,0.00844589,24576,24576,
3.14675e+06,0.00854887,24576,24576,
3.15162e+06,0.00860103,24576,24576,
3.16135e+06,0.00870667,24576,24576,
3.16621e+06,0.00876017,24576,24576,
3.17592e+06,0.00886848,24576,24576,
3.18078e+06,0.00892331,24576,24576,
3.19048e+06,0.00903431,24576,24576,
3.19532e+06,0.00909047,24576,24576,
3.20501e+06,0.00920414,24576,24576,
3.21467e+06,0.0093196,24576,24576,
3.2195e+06,0.00937801,24576,24576,
3.22915e+06,0.00949616,24576,24576,
3.23397e+06,0.00955592,24576,24576,
3.24359e+06,0.00967678,24576,24576,
3.2484e+06,0.0097379,24576,24576,
3.258e+06,0.0098615,24576,24576,
3.26279e+06,0.009924,24576,24576,
3.27236e+06,0.0100504,24576,24576,
3.28191e+06,0.0101787,24576,24576,
3.28668e+06,0.0102435,24576,24576,
3.2962e+06,0.0103747,24576,24576,
3.30095e+06,0.010441,24576,24576,
3.31043e+06,0.0105752,24576,24576,
3.31517e+06,0.0106431,24576,24576,
3.32463e+06,0.0107805,24576,24576,
3.33406e+06,0.0109201,24576,24576,
3.33877e+06,0.0109907,24576,24576,
3.34818e+06,0.0111338,24576,24576,
3.35287e+06,0.0112062,24576,24576,
3.36226e+06,0.0113531,24576,24576,
3.37162e+06,0.0115027,24576,24576,
3.3763e+06,0.0115785,24576,24576,
3.38565e+06,0.0117324,24576,24576,
3.39032e+06,0.0118106,24576,24576,
3.39966e+06,0.0119693,24576,24576,
3.40899e+06,0.0121315,24576,24576,
3.41365e+06,0.012214,24576,24576,
3.42298e+06,0.0123819,24576,24576,
3.42765e+06,0.0124674,24576,24576,
3.43698e+06,0.0126417,24576,24576,
3.44631e+06,0.0128206,24576,24576,
3.45098e+06,0.0129119,24576,24576,
3.46032e+06,0.0130984,24576,24576,
3.46967e+06,0.0132905,24576,24576,
3.47436e+06,0.0133887,24576,24576,
3.48373e+06,0.0135901,24576,24576,
3.48842e+06,0.0136932,24576,24576,
3.49781e+06,0.013905,24576,24576,
3.50252e+06,0.0140137,24576,24576,
3.51194e+06,0.0142371,24576,24576,
3.52138e+06,0.0144693,24576,24576,
3.52611e+06,0.0145888,24576,24576,
3.53558e+06,0.0148354,24576,24576,
3.54032e+06,0.0149626,24576,24576,
3.54983e+06,0.0152256,24576,24576,
3.55936e+06,0.0155007,24576,24576,
3.56413e+06,0.0156431,24576,24576,
3.57369e+06,0.0159383,24576,24576,
3.57848e+06,0.0160915,24576,24576,
3.58807e+06,0.0164099,24576,24576,
3.59288e+06,0.0165754,24576,24576,
3.60251e+06,0.0169201,24576,24576,
3.61216e+06,0.0172845,24576,24576,
3.617e+06,0.0174747,24576,24576,
3.62669e+06,0.0178723,24576,24576,
3.63155e+06,0.0180802,24576,24576,
3.64128e+06,0.0185157,24576,24576,
3.64615e+06,0.018744,24576,24576,
3.65592e+06,0.019223,24576,24576,
3.66081e+06,0.0194744,24576,24576,
3.67062e+06,0.0200029,24576,24576,
3.67554e+06,0.0202806,24576,24576,
3.68538e+06,0.020865,24576,24576,
3.69032e+06,0.0211724,24576,24576,
3.70021e+06,0.0218195,24576,24576,
3.70516e+06,0.0221598,24576,24576,
3.71509e+06,0.0228759,24576,24576,
3.72006e+06,0.0232523,24576,24576,
3.73003e+06,0.0240431,24576,24576,
3.73503e+06,0.024458,24576,24576,
3.74501e+06,0.0253258,24576,24576,
3.75001e+06,0.0257787,24576,24576,
3.75999e+06,0.0267226,24576,24576,
3.76997e+06,0.027716,24576,24576,
3.77497e+06,0.0282306,24576,24576,
3.78495e+06,0.0292935,24576,24576,
3.78994e+06,0.0298406,24576,24576,
3.79992e+06,0.030963,24576,24576,
3.80491e+06,0.0315366,24576,24576,
3.81488e+06,0.0327038,24576,24576,
3.81987e+06,0.0332952,24576,24576,
3.82985e+06,0.0344876,24576,24576,
3.83483e+06,0.0350859,24576,24576,
3.84481e+06,0.0362798,24576,24576,
3.84979e+06,0.0368724,24576,24576,
3.85976e+06,0.0380408,24576,24576,
3.86475e+06,0.0386136,24576,24576,
3.87471e+06,0.0397281,24576,24576,
3.8797e+06,0.0402667,24576,24576,
3.88966e+06,0.0412987,24576,24576,
3.89465e+06,0.0417892,24576,24576,
3.90461e+06,0.0427119,24576,24576,
3.90959e+06,0.0431415,24576,24576,
3.91955e+06,0.0439312,24576,24576,
3.92453e+06,0.0442892,24576,24576,
3.93448e+06,0.0449267,24576,24576,
3.93946e+06,0.0452045,24576,24576,
3.9494e+06,0.0456754,24576,24576,
3.95437e+06,0.0458675,24576,24576,
3.96431e+06,0.0461636,24576,24576,
3.96927e+06,0.0462672,24576,24576,
3.97919e+06,0.0463854,24576,24576,
3.98415e+06,0.0464001,24576,24576,
3.99407e+06,0.046342,24576,24576,
3.99902e+06,0.0462697,24576,24576,
4.00892e+06,0.0460408,24576,24576,
4.01387e+06,0.0458852,24576,24576,
4.02377e+06,0.0454942,24576,24576,
4.02871e+06,0.0452602,24576,24576,
4.0386e+06,0.0447183,24576,24576,
4.04354e+06,0.0444118,24576,24576,
4.05342e+06,0.0437316,24576,24576,
4.05835e+06,0.0433593,24576,24576,
4.06822e+06,0.0425542,24576,24576,
4.07316e+06,0.042123,24576,24576,
4.08302e+06,0.0412071,24576,24576,
4.08795e+06,0.0407238,24576,24576,
4.0978e+06,0.0397106,24576,24576,
4.10273e+06,0.0391821,24576,24576,
4.11257e+06,0.0380849,24576,24576,
4.12242e+06,0.0369388,24576,24576,
4.12734e+06,0.036349,24576,24576,
4.13717e+06,0.0351392,24576,24576,
4.14209e+06,0.0345204,24576,24576,
4.15192e+06,0.0332579,24576,24576,
4.15683e+06,0.0326154,24576,24576,
4.16666e+06,0.0313103,24576,24576,
4.17157e+06,0.0306487,24576,24576,
4.18139e+06,0.02931,24576,24576,
4.1863e+06,0.0286337,24576,24576,
4.19611e+06,0.0272693,24576,24576,
4.20102e+06,0.026582,24576,24576,
4.21083e+06,0.0251992,24576,24576,
4.21573e+06,0.0245043,24576,24576,
4.22554e+06,0.0231093,24576,24576,
4.23044e+06,0.0224098,24576,24576,
4.24024e+06,0.021008,24576,24576,
4.24514e+06,0.0203064,24576,24576,
4.25494e+06,0.0189027,24576,24576,
4.26473e+06,0.0175002,24576,24576,
4.26963e+06,0.0167999,24576,24576,
4.27943e+06,0.0154021,24576,24576,
4.28432e+06,0.014705,24576,24576,
4.29411e+06,0.0133153,24576,24576,
4.29901e+06,0.0126229,24576,24576,
4.3088e+06,0.0112441,24576,24576,
4.31369e+06,0.0105577,24576,24576,
4.32348e+06,0.00919239,24576,24576,
4.32838e+06,0.00851391,24576,24576,
4.33817e+06,0.00716689,24576,24576,
4.34306e+06,0.00649913,24576,24576,
4.35285e+06,0.00517504,24576,24576,
4.35774e+06,0.00451895,24576,24576,
4.36751e+06,0.00321982,24576,24576,
4.37728e+06,0.0019378,24576,24576,
4.38216e+06,0.0013034,24576,24576,
4.39191e+06,4.81371e-05,24576,24576,
4.39677e+06,-0.000572666,24576,24576,
4.4065e+06,-0.00180125,24576,24576,
4.41136e+06,-0.00240898,24576,24576,
4.42107e+06,-0.00361078,24576,24576,
4.42592e+06,-0.00420461,24576,24576,
4.43561e+06,-0.0053776,24576,24576,
4.44045e+06,-0.00595663,24576,24576,
4.45011e+06,-0.00709947,24576,24576,
4.45977e+06,-0.00822175,24576,24576,
4.46459e+06,-0.00877509,24576,24576,
4.47422e+06,-0.00986606,24576,24576,
4.47903e+06,-0.0104037,24576,24576,
4.48864e+06,-0.0114631,24576,24576,
4.49344e+06,-0.0119849,24576,24576,
4.50303e+06,-0.013013,24576,24576,
4.50782e+06,-0.0135192,24576,24576,
4.51739e+06,-0.014516,24576,24576,
4.52695e+06,-0.015492,24576,24576,
4.53173e+06,-0.0159723,24576,24576,
4.54127e+06,-0.0169171,24576,24576,
4.54604e+06,-0.0173818,24576,24576,
4.55557e+06,-0.0182953,24576,24576,
4.56033e+06,-0.0187442,24576,24576,
4.56985e+06,-0.0196264,24576,24576,
4.57936e+06,-0.0204875,24576,24576,
4.58412e+06,-0.0209102,24576,24576,
4.59363e+06,-0.0217398,24576,24576,
4.59838e+06,-0.0221467,24576,24576,
4.60789e+06,-0.0229449,24576,24576,
4.61264e+06,-0.0233361,24576,24576,
4.62214e+06,-0.0241029,24576,24576,
4.63165e+06,-0.0248487,24576,24576,
4.6364e+06,-0.0252137,24576,24576,
4.64591e+06,-0.0259279,24576,24576,
4.65066e+06,-0.0262771,24576,24576,
4.66018e+06,-0.0269595,24576,24576,
4.6697e+06,-0.0276206,24576,24576,
4.67446e+06,-0.0279431,24576,24576,
4.68399e+06,-0.0285718,24576,24576,
4.68876e+06,-0.028878,24576,24576,
4.6983e+06,-0.029474,24576,24576,
4.70308e+06,-0.0297637,24576,24576,
4.71263e+06,-0.0303263,24576,24576,
4.7222e+06,-0.0308665,24576,24576,
4.72699e+06,-0.0311281,24576,24576,
4.73658e+06,-0.031634,24576,24576,
4.74138e+06,-0.0318782,24576,24576,
4.75098e+06,-0.0323491,24576,24576,
4.75579e+06,-0.0325757,24576,24576,
4.76542e+06,-0.0330107,24576,24576,
4.77024e+06,-0.033219,24576,24576,
4.77989e+06,-0.0336171,24576,24576,
4.78956e+06,-0.0339901,24576,24576,
4.7944e+06,-0.0341669,24576,24576,
4.80409e+06,-0.0345009,24576,24576,
4.80895e+06,-0.034658,24576,24576,
4.81866e+06,-0.0349518,24576,24576,
4.82353e+06,-0.0350884,24576,24576,
4.83328e+06,-0.0353404,24576,24576,
4.83816e+06,-0.0354557,24576,24576,
4.84793e+06,-0.0356642,24576,24576,
4.85282e+06,-0.0357573,24576,24576,
4.86262e+06,-0.0359203,24576,24576,
4.86753e+06,-0.0359901,24576,24576,
4.87736e+06,-0.0361054,24576,24576,
4.88722e+06,-0.0361876,24576,24576,
4.89215e+06,-0.0362159,24576,24576,
4.90203e+06,-0.036246,24576,24576,
4.90698e+06,-0.0362476,24576,24576,
4.91689e+06,-0.0362227,24576,24576,
4.92185e+06,-0.0361959,24576,24576,
4.93177e+06,-0.0361128,24576,24576,
4.93673e+06,-0.036056,24576,24576,
4.94665e+06,-0.0359113,24576,24576,
4.95161e+06,-0.0358229,24576,24576,
4.96154e+06,-0.035613,24576,24576,
4.96651e+06,-0.035491,24576,24576,
4.97644e+06,-0.0352117,24576,24576,
4.9814e+06,-0.0350539,24576,24576,
4.99134e+06,-0.0347009,24576,24576,
4.9963e+06,-0.0345052,24576,24576,
5.00623e+06,-0.0340743,24576,24576,
5.01119e+06,-0.0338385,24576,24576,
5.0211e+06,-0.0333251,24576,24576,
5.02606e+06,-0.0330469,24576,24576,
5.03596e+06,-0.0324462,24576,24576,
5.04091e+06,-0.0321232,24576,24576,
5.0508e+06,-0.0314306,24576,24576,
5.05574e+06,-0.0310605,24576,24576,
5.06562e+06,-0.0302716,24576,24576,
5.07056e+06,-0.0298524,24576,24576,
5.08043e+06,-0.0289635,24576,24576,
5.08536e+06,-0.0284934,24576,24576,
5.09522e+06,-0.0275017,24576,24576,
5.10015e+06,-0.0269798,24576,24576,
5.11e+06,-0.0258839,24576,24576,
5.11985e+06,-0.0247187,24576,24576,
5.12477e+06,-0.0241103,24576,24576,
5.1346e+06,-0.0228427,24576,24576,
5.13951e+06,-0.0221841,24576,24576,
5.14934e+06,-0.0208186,24576,24576,
5.15425e+06,-0.0201125,24576,24576,
5.16406e+06,-0.0186562,24576,24576,
5.16897e+06,-0.017907,24576,24576,
5.17878e+06,-0.0163699,24576,24576,
5.18368e+06,-0.0155834,24576,24576,
5.19347e+06,-0.0139783,24576,24576,
5.19837e+06,-0.0131616,24576,24576,
5.20816e+06,-0.0115044,24576,24576,
5.21305e+06,-0.0106659,24576,24576,
5.22283e+06,-0.00897445,24576,24576,
5.22772e+06,-0.00812364,24576,24576,
5.23749e+06,-0.0064175,24576,24576,
5.24726e+06,-0.00471295,24576,24576,
5.25214e+06,-0.00386415,24576,24576,
5.2619e+06,-0.00217915,24576,24576,
5.26678e+06,-0.0013452,24576,24576,
5.27653e+06,0.000300182,24576,24576,
5.28141e+06,0.00110953,24576,24576,
5.29115e+06,0.00269663,24576,24576,
5.29602e+06,0.00347253,24576,24576,
5.30576e+06,0.00498475,24576,24576,
5.31063e+06,0.00571953,24576,24576,
5.32036e+06,0.00714293,24576,24576,
5.32522e+06,0.00783034,24576,24576,
5.33495e+06,0.00915396,24576,24576,
5.34467e+06,0.0104065,24576,24576,
5.34953e+06,0.0110053,24576,24576,
5.35924e+06,0.0121468,24576,24576,
5.3641e+06,0.0126891,24576,24576,
5.37381e+06,0.0137166,24576,24576,
5.37866e+06,0.0142018,24576,24576,
5.38836e+06,0.0151152,24576,24576,
5.39321e+06,0.0155436,24576,24576,
5.40291e+06,0.0163449,24576,24576,
5.40776e+06,0.016718,24576,24576,
5.41745e+06,0.017411,24576,24576,
5.42714e+06,0.0180352,24576,24576,
5.43198e+06,0.0183223,24576,24576,
5.44167e+06,0.0188487,24576,24576,
5.44651e+06,0.0190887,24576,24576,
5.45619e+06,0.0195246,24576,24576,
5.46103e+06,0.0197213,24576,24576,
5.4707e+06,0.0200745,24576,24576,
5.47554e+06,0.0202319,24576,24576,
5.48521e+06,0.0205103,24576,24576,
5.49004e+06,0.0206323,24576,24576,
5.49971e+06,0.020844,24576,24576,
5.50938e+06,0.0210151,24576,24576,
5.51421e+06,0.0210866,24576,24576,
5.52387e+06,0.021203,24576,24576,
5.5287e+06,0.0212488,24576,24576,
5.53836e+06,0.0213175,24576,24576,
5.54319e+06,0.021341,24576,24576,
5.55284e+06,0.0213683,24576,24576,
5.55767e+06,0.0213728,24576,24576,
5.56732e+06,0.0213647,24576,24576,
5.57698e+06,0.0213363,24576,24576,
5.5818e+06,0.0213151,24576,24576,
5.59145e+06,0.0212603,24576,24576,
5.59628e+06,0.0212271,24576,24576,
5.60592e+06,0.0211507,24576,24576,
5.61075e+06,0.0211078,24576,24576,
5.6204e+06,0.0210139,24576,24576,
5.62522e+06,0.0209632,24576,24576,
5.63486e+06,0.0208556,24576,24576,
5.64451e+06,0.0207406,24576,24576,
5.64933e+06,0.0206808,24576,24576,
5.65898e+06,0.0205573,24576,24576,
5.6638e+06,0.0204939,24576,24576,
5.67345e+06,0.0203645,24576,24576,
5.67827e+06,0.0202988,24576,24576,
5.68792e+06,0.0201658,24576,24576,
5.69274e+06,0.0200989,24576,24576,
5.70239e+06,0.0199644,24576,24576,
5.71204e+06,0.01983,24576,24576,
5.71686e+06,0.019763,24576,24576,
5.72651e+06,0.0196298,24576,24576,
5.73134e+06,0.0195638,24576,24576,
5.74099e+06,0.0194332,24576,24576,
5.74582e+06,0.0193689,24576,24576,
5.75548e+06,0.0192421,24576,24576,
5.76031e+06,0.0191798,24576,24576,
5.76997e+06,0.0190578,24576,24576,
5.77963e+06,0.0189393,24576,24576,
5.78447e+06,0.0188816,24576,24576,
5.79414e+06,0.018769,24576,24576,
5.79898e+06,0.0187143,24576,24576,
5.80865e+06,0.0186083,24576,24576,
5.81349e+06,0.0185569,24576,24576,
5.82318e+06,0.0184577,24576,24576,
5.82802e+06,0.0184098,24576,24576,
5.83771e+06,0.0183177,24576,24576,
5.84256e+06,0.0182735,24576,24576,
5.85226e+06,0.0181887,24576,24576,
5.86197e+06,0.0181089,24576,24576,
5.86682e+06,0.0180709,24576,24576,
5.87654e+06,0.0179986,24576,24576,
5.8814e+06,0.0179644,24576,24576,
5.89112e+06,0.0178997,24576,24576,
5.89599e+06,0.0178692,24576,24576,
5.90572e+06,0.017812,24576,24576,
5.91059e+06,0.0177853,24576,24576,
5.92034e+06,0.0177355,24576,24576,
5.92521e+06,0.0177125,24576,24576,
5.93497e+06,0.01767,24576,24576,
5.94473e+06,0.0176323,24576,24576,
5.94961e+06,0.0176152,24576,24576,
5.95939e+06,0.0175845,24576,24576,
5.96427e+06,0.0175709,24576,24576,
5.97406e+06,0.017547,24576,24576,
5.97895e+06,0.0175368,24576,24576,
5.98874e+06,0.0175195,24576,24576,
5.99364e+06,0.0175126,24576,24576,
6.00344e+06,0.0175017,24576,24576,
6.00834e+06,0.0174979,24576,24576,
6.01815e+06,0.0174933,24576,24576,
6.02306e+06,0.0174925,24576,24576,
6.03287e+06,0.0174938,24576,24576,
6.03778e+06,0.017496,24576,24576,
6.04761e+06,0.0175031,24576,24576,
6.05252e+06,0.017508,24576,24576,
6.06235e+06,0.0175207,24576,24576,
6.07218e+06,0.0175369,24576,24576,
6.0771e+06,0.0175463,24576,24576,
6.08694e+06,0.0175677,24576,24576,
6.09186e+06,0.0175797,24576,24576,
6.10171e+06,0.0176061,24576,24576,
6.10663e+06,0.0176205,24576,24576,
6.11648e+06,0.0176517,24576,24576,
6.12141e+06,0.0176685,24576,24576,
6.13126e+06,0.0177045,24576,24576,
6.13619e+06,0.0177236,24576,24576,
6.14605e+06,0.017764,24576,24576,
6.15099e+06,0.0177853,24576,24576,
6.16085e+06,0.0178302,24576,24576,
6.16579e+06,0.0178537,24576,24576,
6.17566e+06,0.0179029,24576,24576,
6.1806e+06,0.0179286,24576,24576,
6.19048e+06,0.017982,24576,24576,
6.19542e+06,0.0180097,24576,24576,
6.2053e+06,0.0180673,24576,24576,
6.21025e+06,0.0180972,24576,24576,
6.22013e+06,0.0181589,24576,24576,
6.22508e+06,0.0181908,24576,24576,
6.23498e+06,0.0182566,24576,24576,
6.24488e+06,0.0183253,24576,24576,
6.24983e+06,0.0183606,24576,24576,
6.25974e+06,0.0184334,24576,24576,
6.26469e+06,0.0184709,24576,24576,
6.27461e+06,0.0185479,24576,24576,
6.27957e+06,0.0185875,24576,24576,
6.2895e+06,0.0186688,24576,24576,
6.29446e+06,0.0187106,24576,24576,
6.3044e+06,0.0187964,24576,24576,
6.30937e+06,0.0188404,24576,24576,
6.31932e+06,0.0189307,24576,24576,
6.3243e+06,0.018977,24576,24576,
6.33426e+06,0.0190719,24576,24576,
6.33925e+06,0.0191206,24576,24576,
6.34922e+06,0.0192204,24576,24576,
6.35421e+06,0.0192715,24576,24576,
6.36419e+06,0.0193761,24576,24576,
6.36918e+06,0.0194297,24576,24576,
6.37916e+06,0.0195392,24576,24576,
6.38414e+06,0.0195952,24576,24576,
6.39411e+06,0.0197097,24576,24576,
6.3991e+06,0.0197683,24576,24576,
6.40906e+06,0.0198878,24576,24576,
6.41404e+06,0.0199489,24576,24576,
6.42401e+06,0.0200736,24576,24576,
6.42899e+06,0.0201372,24576,24576,
6.43894e+06,0.020267,24576,24576,
6.44392e+06,0.0203331,24576,24576,
6.45387e+06,0.0204679,24576,24576,
6.45884e+06,0.0205366,24576,24576,
6.46879e+06,0.0206762,24576,24576,
6.47376e+06,0.0207472,24576,24576,
6.4837e+06,0.0208915,24576,24576,
6.48867e+06,0.0209647,24576,24576,
6.49861e+06,0.0211131,24576,24576,
6.50357e+06,0.0211883,24576,24576,
6.5135e+06,0.0213404,24576,24576,
6.51847e+06,0.0214173,24576,24576,
6.52839e+06,0.0215724,24576,24576,
6.53335e+06,0.0216505,24576,24576,
6.54327e+06,0.0218077,24576,24576,
6.54823e+06,0.0218867,24576,24576,
6.55814e+06,0.0220448,24576,24576,
6.56309e+06,0.022124,24576,24576,
6.573e+06,0.0222818,24576,24576,
6.57795e+06,0.0223604,24576,24576,
6.58785e+06,0.0225165,24576,24576,
6.5928e+06,0.0225938,24576,24576,
6.6027e+06,0.0227462,24576,24576,
6.60765e+06,0.0228212,24576,24576,
6.61754e+06,0.0229681,24576,24576,
6.62742e+06,0.02311,24576,24576,
6.63236e+06,0.0231788,24576,24576,
6.64224e+06,0.0233114,24576,24576,
6.64718e+06,0.0233749,24576,24576,
6.65706e+06,0.0234957,24576,24576,
6.66199e+06,0.0235526,24576,24576,
6.67186e+06,0.0236589,24576,24576,
6.6768e+06,0.0237079,24576,24576,
6.68666e+06,0.023797,24576,24576,
6.69159e+06,0.0238367,24576,24576,
6.70145e+06,0.0239058,24576,24576,
6.70638e+06,0.0239349,24576,24576,
6.71623e+06,0.0239813,24576,24576,
6.72116e+06,0.0239983,24576,24576,
6.73101e+06,0.0240194,24576,24576,
6.73593e+06,0.0240231,24576,24576,
6.74578e+06,0.0240162,24576,24576,
6.7507e+06,0.0240053,24576,24576,
6.76053e+06,0.0239682,24576,24576,
6.76545e+06,0.0239417,24576,24576,
6.77529e+06,0.0238721,24576,24576,
6.7802e+06,0.0238289,24576,24576,
6.79003e+06,0.0237251,24576,24576,
6.79986e+06,0.0235977,24576,24576,
6.80477e+06,0.0235249,24576,24576,
6.81459e+06,0.0233609,24576,24576,
6.8195e+06,0.0232696,24576,24576,
6.82932e+06,0.0230681,24576,24576,
6.83423e+06,0.0229578,24576,24576,
6.84404e+06,0.0227183,24576,24576,
6.84895e+06,0.0225889,24576,24576,
6.85876e+06,0.0223111,24576,24576,
6.86366e+06,0.0221626,24576,24576,
6.87347e+06,0.0218467,24576,24576,
6.87837e+06,0.0216792,24576,24576,
6.88818e+06,0.0213257,24576,24576,
6.89308e+06,0.0211397,24576,24576,
6.90288e+06,0.0207493,24576,24576,
6.90777e+06,0.0205451,24576,24576,
6.91757e+06,0.0201191,24576,24576,
6.92736e+06,0.01967,24576,24576,
6.93226e+06,0.019437,24576,24576,
6.94205e+06,0.0189546,24576,24576,
6.94695e+06,0.0187054,24576,24576,
6.95673e+06,0.0181913,24576,24576,
6.96163e+06,0.0179268,24576,24576,
6.97141e+06,0.017383,24576,24576,
6.97631e+06,0.017104,24576,24576,
6.98609e+06,0.0165325,24576,24576,
6.99098e+06,0.0162402,24576,24576,
7.00076e+06,0.0156429,24576,24576,
7.00565e+06,0.0153383,24576,24576,
7.01543e+06,0.0147175,24576,24576,
7.02032e+06,0.0144017,24576,24576,
7.03009e+06,0.0137601,24576,24576,
7.03987e+06,0.0131064,24576,24576,
7.04476e+06,0.0127753,24576,24576,
7.05453e+06,0.012105,24576,24576,
7.05942e+06,0.0117661,24576,24576,
7.06919e+06,0.0110812,24576,24576,
7.07407e+06,0.0107356,24576,24576,
7.08385e+06,0.0100383,24576,24576,
7.08873e+06,0.00968697,24576,24576,
7.0985e+06,0.00897913,24576,24576,
7.10339e+06,0.00862286,24576,24576,
7.11316e+06,0.00790622,24576,24576,
7.11804e+06,0.00754611,24576,24576,
7.12781e+06,0.00682287,24576,24576,
7.1327e+06,0.00645997,24576,24576,
7.14246e+06,0.00573213,24576,24576,
7.15223e+06,0.00500227,24576,24576,
7.15712e+06,0.00463683,24576,24576,
7.16689e+06,0.00390539,24576,24576,
7.17177e+06,0.00353958,24576,24576,
7.18154e+06,0.0028082,24576,24576,
7.18643e+06,0.00244278,24576,24576,
7.1962e+06,0.00171292,24576,24576,
7.20108e+06,0.00134862,24576,24576,
7.21085e+06,0.000621685,24576,24576,
7.21574e+06,0.000259196,24576,24576,
7.22551e+06,-0.000463449,24576,24576,
7.2304e+06,-0.000823459,24576,24576,
7.24017e+06,-0.0015405,24576,24576,
7.24506e+06,-0.00189738,24576,24576,
7.25484e+06,-0.00260756,24576,24576,
7.26461e+06,-0.00331251,24576,24576,
7.2695e+06,-0.00366287,24576,24576,
