time,surface_elevation,number_of_local_cells,number_of_global_cells
0,0,24576,24576,
9067.97,0,24576,24576,
17436.3,0,24576,24576,
25963.5,0,24576,24576,
30357.9,0,24576,24576,
39159,0,24576,24576,
48325,0,24576,24576,
53059.7,0,24576,24576,
62985.2,0,24576,24576,
68030.7,0,24576,24576,
78121.8,0,24576,24576,
83167.3,0,24576,24576,
93258.3,0,24576,24576,
98303.9,0,24576,24576,
108395,0,24576,24576,
113440,0,24576,24576,
123531,0,24576,24576,
128577,0,24576,24576,
138668,0,24576,24576,
143714,0,24576,24576,
153805,0,24576,24576,
158850,0,24576,24576,
168941,0,24576,24576,
173987,0,24576,24576,
184078,0,24576,24576,
189123,0,24576,24576,
199214,0,24576,24576,
204260,0,24576,24576,
214351,0,24576,24576,
219396,0,24576,24576,
229487,0,24576,24576,
234533,0,24576,24576,
244624,0,24576,24576,
249670,0,24576,24576,
259761,0,24576,24576,
264806,0,24576,24576,
274897,0,24576,24576,
279943,0,24576,24576,
290034,0,24576,24576,
295079,0,24576,24576,
300125,0,24576,24576,
310216,0,24576,24576,
315261,0,24576,24576,
325352,0,24576,24576,
330398,0,24576,24576,
340489,0,24576,24576,
345535,0,24576,24576,
355626,0,24576,24576,
360671,0,24576,24576,
370762,0,24576,24576,
375808,0,24576,24576,
385899,0,24576,24576,
390944,0,24576,24576,
401035,0,24576,24576,
406081,0,24576,24576,
416172,0,24576,24576,
421217,0,24576,24576,
431308,0,24576,24576,
436354,0,24576,24576,
446445,0,24576,24576,
451491,0,24576,24576,
461582,0,24576,24576,
466627,0,24576,24576,
476718,0,24576,24576,
481764,0,24576,24576,
491855,0,24576,24576,
496900,0,24576,24576,
506991,0,24576,24576,
512036,0,24576,24576,
522127,0,24576,24576,
527166,0,24576,24576,
537167,0,24576,24576,
542111,0,24576,24576,
551879,0,24576,24576,
556704,0,24576,24576,
566243,0,24576,24576,
570954,0,24576,24576,
580271,0,24576,24576,
589443,0,24576,24576,
593972,0,24576,24576,
602925,0,24576,24576,
611736,0,24576,24576,
616083,0,24576,24576,
624681,0,24576,24576,
633137,0,24576,24576,
641444,0,24576,24576,
645555,0,24576,24576,
653659,0,24576,24576,
661663,0,24576,24576,
669624,0,24576,24576,
677576,0,24576,24576,
685537,0,24576,24576,
693526,0,24576,24576,
697534,0,24576,24576,
705586,0,24576,24576,
713690,0,24576,24576,
721852,0,24576,24576,
730074,0,24576,24576,
738359,4.44089e-16,24576,24576,
742523,1.11022e-15,24576,24576,
750894,3.9968e-15,24576,24576,
759324,1.26565e-14,24576,24576,
767818,3.88578e-14,24576,24576,
776377,1.15907e-13,24576,24576,
780681,1.98064e-13,24576,24576,
789338,5.6688e-13,24576,24576,
798063,1.58007e-12,24576,24576,
806855,4.29479e-12,24576,24576,
811276,7.01594e-12,24576,24576,
820170,1.83951e-11,24576,24576,
829133,4.71423e-11,24576,24576,
833640,7.48461e-11,24576,24576,
842706,1.85658e-10,24576,24576,
851840,4.51065e-10,24576,24576,
856433,6.97777e-10,24576,24576,
865670,1.64546e-09,24576,24576,
870314,2.50868e-09,24576,24576,
879654,5.74998e-09,24576,24576,
889061,1.29398e-08,24576,24576,
893790,1.92808e-08,24576,24576,
903299,4.22407e-08,24576,24576,
908078,6.21102e-08,24576,24576,
917687,1.3253e-07,24576,24576,
922516,1.92327e-07,24576,24576,
932224,3.99744e-07,24576,24576,
941998,8.16356e-07,24576,24576,
946909,1.15889e-06,24576,24576,
956779,2.30426e-06,24576,24576,
961739,3.22729e-06,24576,24576,
971705,6.2445e-06,24576,24576,
976712,8.6263e-06,24576,24576,
986770,1.62312e-05,24576,24576,
991815,2.21001e-05,24576,24576,
1.00191e+06,4.02958e-05,24576,24576,
1.00694e+06,5.39481e-05,24576,24576,
1.017e+06,9.50525e-05,24576,24576,
1.02203e+06,0.000125103,24576,24576,
1.03206e+06,0.000213098,24576,24576,
1.03707e+06,0.000275819,24576,24576,
1.04707e+06,0.000454544,24576,24576,
1.05206e+06,0.000578782,24576,24576,
1.06203e+06,0.000923409,24576,24576,
1.06701e+06,0.00115707,24576,24576,
1.07696e+06,0.00178805,24576,24576,
1.08193e+06,0.0022052,24576,24576,
1.09185e+06,0.00330142,24576,24576,
1.0968e+06,0.00400751,24576,24576,
1.1067e+06,0.00581128,24576,24576,
1.11165e+06,0.00694162,24576,24576,
1.12152e+06,0.00974345,24576,24576,
1.12646e+06,0.0114478,24576,24576,
1.13632e+06,0.0155362,24576,24576,
1.14124e+06,0.017943,24576,24576,
1.15108e+06,0.0235129,24576,24576,
1.15599e+06,0.0266752,24576,24576,
1.16582e+06,0.0337124,24576,24576,
1.17072e+06,0.0375528,24576,24576,
1.18053e+06,0.0457473,24576,24576,
1.18543e+06,0.0500336,24576,24576,
1.19522e+06,0.0587858,24576,24576,
1.20011e+06,0.0631653,24576,24576,
1.2099e+06,0.0717136,24576,24576,
1.21967e+06,0.0797124,24576,24576,
1.22456e+06,0.0834187,24576,24576,
1.23432e+06,0.090113,24576,24576,
1.23921e+06,0.0930644,24576,24576,
1.24897e+06,0.0981243,24576,24576,
1.25385e+06,0.100227,24576,24576,
1.26361e+06,0.103592,24576,24576,
1.26849e+06,0.104871,24576,24576,
1.27825e+06,0.106672,24576,24576,
1.28313e+06,0.107221,24576,24576,
1.2929e+06,0.107682,24576,24576,
1.29778e+06,0.107621,24576,24576,
1.30756e+06,0.106978,24576,24576,
1.31734e+06,0.105722,24576,24576,
1.32223e+06,0.104891,24576,24576,
1.33203e+06,0.102875,24576,24576,
1.33693e+06,0.101708,24576,24576,
1.34674e+06,0.099103,24576,24576,
1.35165e+06,0.0976807,24576,24576,
1.36148e+06,0.0946363,24576,24576,
1.3664e+06,0.0930286,24576,24576,
1.37626e+06,0.0896754,24576,24576,
1.38119e+06,0.0879419,24576,24576,
1.39107e+06,0.0843875,24576,24576,
1.39601e+06,0.0825757,24576,24576,
1.40591e+06,0.0789022,24576,24576,
1.41087e+06,0.077047,24576,24576,
1.42079e+06,0.0733132,24576,24576,
1.42576e+06,0.0714391,24576,24576,
1.4357e+06,0.0676859,24576,24576,
1.44068e+06,0.06581,24576,24576,
1.45064e+06,0.0620669,24576,24576,
1.45563e+06,0.0602021,24576,24576,
1.46561e+06,0.0564918,24576,24576,
1.4706e+06,0.0546483,24576,24576,
1.48059e+06,0.050989,24576,24576,
1.48559e+06,0.0491748,24576,24576,
1.4956e+06,0.0455805,24576,24576,
1.50061e+06,0.0438014,24576,24576,
1.51062e+06,0.0402814,24576,24576,
1.51563e+06,0.0385411,24576,24576,
1.52566e+06,0.035101,24576,24576,
1.53067e+06,0.0334015,24576,24576,
1.54071e+06,0.0300442,24576,24576,
1.54572e+06,0.0283866,24576,24576,
1.55576e+06,0.0251135,24576,24576,
1.56078e+06,0.0234982,24576,24576,
1.57082e+06,0.0203099,24576,24576,
1.57584e+06,0.0187371,24576,24576,
1.58589e+06,0.0156342,24576,24576,
1.59091e+06,0.014104,24576,24576,
1.60096e+06,0.0110861,24576,24576,
1.60599e+06,0.00959842,24576,24576,
1.61603e+06,0.0066674,24576,24576,
1.62105e+06,0.00522505,24576,24576,
1.63106e+06,0.00239052,24576,24576,
1.63606e+06,0.000999298,24576,24576,
1.64604e+06,-0.0017244,24576,24576,
1.65101e+06,-0.00305574,24576,24576,
1.66093e+06,-0.00566198,24576,24576,
1.66587e+06,-0.00693701,24576,24576,
1.67571e+06,-0.00943121,24576,24576,
1.68061e+06,-0.010651,24576,24576,
1.69037e+06,-0.0130351,24576,24576,
1.69522e+06,-0.0141997,24576,24576,
1.70487e+06,-0.0164768,24576,24576,
1.71444e+06,-0.018684,24576,24576,
1.71919e+06,-0.0197605,24576,24576,
1.72862e+06,-0.0218581,24576,24576,
1.7333e+06,-0.022879,24576,24576,
1.74261e+06,-0.0248657,24576,24576,
1.75184e+06,-0.0267801,24576,24576,
1.75643e+06,-0.0277108,24576,24576,
1.76556e+06,-0.02952,24576,24576,
1.7701e+06,-0.030399,24576,24576,
1.77914e+06,-0.0321065,24576,24576,
1.78812e+06,-0.0337457,24576,24576,
1.79259e+06,-0.0345401,24576,24576,
1.8015e+06,-0.0360795,24576,24576,
1.81037e+06,-0.0375533,24576,24576,
1.81921e+06,-0.0389614,24576,24576,
1.82362e+06,-0.0396404,24576,24576,
1.83244e+06,-0.0409472,24576,24576,
1.84124e+06,-0.0421839,24576,24576,
1.84564e+06,-0.042775,24576,24576,
1.85444e+06,-0.043901,24576,24576,
1.86324e+06,-0.0449486,24576,24576,
1.86764e+06,-0.0454418,24576,24576,
1.87646e+06,-0.0463644,24576,24576,
1.88528e+06,-0.047198,24576,24576,
1.89412e+06,-0.0479376,24576,24576,
1.89855e+06,-0.0482704,24576,24576,
1.90742e+06,-0.0488584,24576,24576,
1.9163e+06,-0.0493378,24576,24576,
1.92076e+06,-0.0495348,24576,24576,
1.92968e+06,-0.0498391,24576,24576,
1.93863e+06,-0.0500184,24576,24576,
1.94312e+06,-0.0500592,24576,24576,
1.95211e+06,-0.0500391,24576,24576,
1.96112e+06,-0.0498785,24576,24576,
1.96565e+06,-0.0497439,24576,24576,
1.97471e+06,-0.0493634,24576,24576,
1.9838e+06,-0.0488315,24576,24576,
1.98836e+06,-0.0485081,24576,24576,
1.99751e+06,-0.0477456,24576,24576,
2.00668e+06,-0.0468294,24576,24576,
2.01128e+06,-0.0463142,24576,24576,
2.02051e+06,-0.0451722,24576,24576,
2.02513e+06,-0.0445467,24576,24576,
2.03441e+06,-0.0431911,24576,24576,
2.04372e+06,-0.0417037,24576,24576,
2.04839e+06,-0.0409139,24576,24576,
2.05775e+06,-0.0392502,24576,24576,
2.06715e+06,-0.0374863,24576,24576,
2.07186e+06,-0.0365718,24576,24576,
2.08131e+06,-0.0346882,24576,24576,
2.08605e+06,-0.0337237,24576,24576,
2.09556e+06,-0.0317608,24576,24576,
2.10032e+06,-0.0307672,24576,24576,
2.10988e+06,-0.0287674,24576,24576,
2.11948e+06,-0.0267665,24576,24576,
2.12429e+06,-0.0257712,24576,24576,
2.13394e+06,-0.0238019,24576,24576,
2.13878e+06,-0.0228318,24576,24576,
2.14849e+06,-0.0209298,24576,24576,
2.15336e+06,-0.0200013,24576,24576,
2.16312e+06,-0.0181965,24576,24576,
2.16801e+06,-0.0173227,24576,24576,
2.17783e+06,-0.0156378,24576,24576,
2.18276e+06,-0.0148282,24576,24576,
2.19263e+06,-0.0132784,24576,24576,
2.19758e+06,-0.012539,24576,24576,
2.20751e+06,-0.0111325,24576,24576,
2.21748e+06,-0.00982307,24576,24576,
2.22248e+06,-0.00920458,24576,24576,
2.23247e+06,-0.00804225,24576,24576,
2.23746e+06,-0.00749783,24576,24576,
2.24744e+06,-0.00647953,24576,24576,
2.25243e+06,-0.0060044,24576,24576,
2.26239e+06,-0.00511868,24576,24576,
2.26736e+06,-0.00470657,24576,24576,
2.2773e+06,-0.00394005,24576,24576,
2.28227e+06,-0.00358409,24576,24576,
2.29219e+06,-0.00292292,24576,24576,
2.29715e+06,-0.00261622,24576,24576,
2.30705e+06,-0.00204693,24576,24576,
2.312e+06,-0.00178293,24576,24576,
2.32188e+06,-0.00129289,24576,24576,
2.32682e+06,-0.00106557,24576,24576,
2.33669e+06,-0.000643321,24576,24576,
2.34162e+06,-0.000447267,24576,24576,
2.35147e+06,-8.26646e-05,24576,24576,
2.35639e+06,8.68634e-05,24576,24576,
2.36623e+06,0.000402647,24576,24576,
2.37114e+06,0.000549743,24576,24576,
2.38096e+06,0.000824287,24576,24576,
2.38587e+06,0.00095245,24576,24576,
2.39567e+06,0.00119221,24576,24576,
2.40057e+06,0.0013044,24576,24576,
2.41037e+06,0.00151483,24576,24576,
2.41526e+06,0.00161357,24576,24576,
2.42503e+06,0.00179928,24576,24576,
2.4348e+06,0.00197072,24576,24576,
2.43969e+06,0.00205157,24576,24576,
2.44944e+06,0.00220444,24576,24576,
2.45432e+06,0.00227678,24576,24576,
2.46406e+06,0.00241402,24576,24576,
2.46893e+06,0.0024792,24576,24576,
2.47866e+06,0.0026033,24576,24576,
2.48353e+06,0.00266247,24576,24576,
2.49325e+06,0.00277556,24576,24576,
2.49811e+06,0.00282969,24576,24576,
2.50783e+06,0.00293356,24576,24576,
2.51268e+06,0.00298348,24576,24576,
2.52239e+06,0.00307968,24576,24576,
2.53209e+06,0.00317149,24576,24576,
2.53694e+06,0.00321592,24576,24576,
2.54663e+06,0.00330211,24576,24576,
2.55148e+06,0.00334398,24576,24576,
2.56116e+06,0.00342554,24576,24576,
2.56601e+06,0.00346532,24576,24576,
2.57569e+06,0.00354309,24576,24576,
2.58053e+06,0.00358117,24576,24576,
2.59021e+06,0.00365588,24576,24576,
2.59505e+06,0.00369258,24576,24576,
2.60473e+06,0.00376484,24576,24576,
2.61441e+06,0.00383578,24576,24576,
2.61925e+06,0.00387081,24576,24576,
2.62893e+06,0.00394015,24576,24576,
2.63377e+06,0.00397449,24576,24576,
2.64345e+06,0.00404266,24576,24576,
2.64829e+06,0.00407652,24576,24576,
2.65798e+06,0.00414389,24576,24576,
2.66282e+06,0.00417745,24576,24576,
2.67251e+06,0.00424437,24576,24576,
2.68221e+06,0.00431118,24576,24576,
2.68706e+06,0.00434458,24576,24576,
2.69676e+06,0.00441145,24576,24576,
2.70161e+06,0.00444496,24576,24576,
2.71132e+06,0.00451219,24576,24576,
2.71618e+06,0.00454594,24576,24576,
2.7259e+06,0.0046138,24576,24576,
2.73076e+06,0.00464793,24576,24576,
2.74049e+06,0.00471668,24576,24576,
2.74536e+06,0.00475132,24576,24576,
2.7551e+06,0.00482122,24576,24576,
2.76484e+06,0.00489202,24576,24576,
2.76972e+06,0.00492779,24576,24576,
2.77948e+06,0.00500015,24576,24576,
2.78436e+06,0.00503676,24576,24576,
2.79413e+06,0.00511091,24576,24576,
2.79901e+06,0.00514847,24576,24576,
2.80879e+06,0.00522463,24576,24576,
2.81368e+06,0.00526325,24576,24576,
2.82347e+06,0.00534162,24576,24576,
2.82836e+06,0.00538138,24576,24576,
2.83815e+06,0.00546213,24576,24576,
2.84305e+06,0.00550313,24576,24576,
2.85285e+06,0.0055864,24576,24576,
2.85775e+06,0.00562869,24576,24576,
2.86756e+06,0.00571461,24576,24576,
2.87737e+06,0.00580233,24576,24576,
2.88227e+06,0.00584688,24576,24576,
2.89209e+06,0.00593735,24576,24576,
2.89699e+06,0.00598328,24576,24576,
2.90681e+06,0.00607652,24576,24576,
2.91172e+06,0.00612383,24576,24576,
2.92153e+06,0.00621982,24576,24576,
2.92644e+06,0.00626849,24576,24576,
2.93626e+06,0.00636716,24576,24576,
2.94117e+06,0.00641716,24576,24576,
2.95098e+06,0.00651843,24576,24576,
2.95589e+06,0.00656969,24576,24576,
2.96571e+06,0.00667344,24576,24576,
2.97061e+06,0.00672591,24576,24576,
2.98043e+06,0.006832,24576,24576,
2.98533e+06,0.0068856,24576,24576,
2.99515e+06,0.00699388,24576,24576,
3.00005e+06,0.00704853,24576,24576,
3.00986e+06,0.00715881,24576,24576,
3.01966e+06,0.00727035,24576,24576,
3.02457e+06,0.00732656,24576,24576,
3.03437e+06,0.00743984,24576,24576,
3.03927e+06,0.00749688,24576,24576,
3.04906e+06,0.00761172,24576,24576,
3.05396e+06,0.00766951,24576,24576,
3.06375e+06,0.00778579,24576,24576,
3.06864e+06,0.00784426,24576,24576,
3.07842e+06,0.00796183,24576,24576,
3.08331e+06,0.00802092,24576,24576,
3.09309e+06,0.00813967,24576,24576,
3.09798e+06,0.00819933,24576,24576,
3.10774e+06,0.00831919,24576,24576,
3.11263e+06,0.00837939,24576,24576,
3.12238e+06,0.0085003,24576,24576,
3.13214e+06,0.00862188,24576,24576,
3.13701e+06,0.00868293,24576,24576,
3.14675e+06,0.00880554,24576,24576,
3.15162e+06,0.0088671,24576,24576,
3.16135e+06,0.00899075,24576,24576,
3.16621e+06,0.00905284,24576,24576,
3.17592e+06,0.00917758,24576,24576,
3.18078e+06,0.00924024,24576,24576,
3.19048e+06,0.00936616,24576,24576,
3.19532e+06,0.00942944,24576,24576,
3.20501e+06,0.00955666,24576,24576,
3.21467e+06,0.00968481,24576,24576,
3.2195e+06,0.00974925,24576,24576,
3.22915e+06,0.00987894,24576,24576,
3.23397e+06,0.0099442,24576,24576,
3.24359e+06,0.0100756,24576,24576,
3.2484e+06,0.0101418,24576,24576,
3.258e+06,0.0102751,24576,24576,
3.26279e+06,0.0103422,24576,24576,
3.27236e+06,0.0104777,24576,24576,
3.28191e+06,0.0106147,24576,24576,
3.28668e+06,0.0106838,24576,24576,
3.2962e+06,0.0108233,24576,24576,
3.30095e+06,0.0108937,24576,24576,
3.31043e+06,0.011036,24576,24576,
3.31517e+06,0.0111079,24576,24576,
3.32463e+06,0.0112532,24576,24576,
3.33406e+06,0.0114008,24576,24576,
3.33877e+06,0.0114754,24576,24576,
3.34818e+06,0.0116266,24576,24576,
3.35287e+06,0.0117031,24576,24576,
3.36226e+06,0.0118581,24576,24576,
3.37162e+06,0.0120159,24576,24576,
3.3763e+06,0.0120959,24576,24576,
3.38565e+06,0.0122582,24576,24576,
3.39032e+06,0.0123406,24576,24576,
3.39966e+06,0.0125078,24576,24576,
3.40899e+06,0.0126784,24576,24576,
3.41365e+06,0.0127651,24576,24576,
3.42298e+06,0.0129414,24576,24576,
3.42765e+06,0.013031,24576,24576,
3.43698e+06,0.0132132,24576,24576,
3.44631e+06,0.0133997,24576,24576,
3.45098e+06,0.0134947,24576,24576,
3.46032e+06,0.0136881,24576,24576,
3.46967e+06,0.0138864,24576,24576,
3.47436e+06,0.0139875,24576,24576,
3.48373e+06,0.0141938,24576,24576,
3.48842e+06,0.014299,24576,24576,
3.49781e+06,0.0145138,24576,24576,
3.50252e+06,0.0146236,24576,24576,
3.51194e+06,0.014848,24576,24576,
3.52138e+06,0.0150792,24576,24576,
3.52611e+06,0.0151976,24576,24576,
3.53558e+06,0.0154401,24576,24576,
3.54032e+06,0.0155644,24576,24576,
3.54983e+06,0.0158196,24576,24576,
3.55936e+06,0.016084,24576,24576,
3.56413e+06,0.0162199,24576,24576,
3.57369e+06,0.0164997,24576,24576,
3.57848e+06,0.0166438,24576,24576,
3.58807e+06,0.0169412,24576,24576,
3.59288e+06,0.0170947,24576,24576,
3.60251e+06,0.0174123,24576,24576,
3.61216e+06,0.0177452,24576,24576,
3.617e+06,0.0179178,24576,24576,
3.62669e+06,0.0182767,24576,24576,
3.63155e+06,0.0184633,24576,24576,
3.64128e+06,0.0188525,24576,24576,
3.64615e+06,0.0190555,24576,24576,
3.65592e+06,0.0194801,24576,24576,
3.66081e+06,0.0197023,24576,24576,
3.67062e+06,0.0201681,24576,24576,
3.67554e+06,0.0204125,24576,24576,
3.68538e+06,0.0209263,24576,24576,
3.69032e+06,0.0211965,24576,24576,
3.70021e+06,0.0217654,24576,24576,
3.70516e+06,0.022065,24576,24576,
3.71509e+06,0.0226967,24576,24576,
3.72006e+06,0.0230296,24576,24576,
3.73003e+06,0.0237315,24576,24576,
3.73503e+06,0.0241013,24576,24576,
3.74501e+06,0.0248785,24576,24576,
3.75001e+06,0.0252863,24576,24576,
3.75999e+06,0.0261415,24576,24576,
3.76997e+06,0.0270496,24576,24576,
3.77497e+06,0.0275234,24576,24576,
3.78495e+06,0.0285098,24576,24576,
3.78994e+06,0.0290217,24576,24576,
3.79992e+06,0.0300811,24576,24576,
3.80491e+06,0.0306273,24576,24576,
3.81488e+06,0.0317491,24576,24576,
3.81987e+06,0.032323,24576,24576,
3.82985e+06,0.0334916,24576,24576,
3.83483e+06,0.0340839,24576,24576,
3.84481e+06,0.0352779,24576,24576,
3.84979e+06,0.0358768,24576,24576,
3.85976e+06,0.0370703,24576,24576,
3.86475e+06,0.0376618,24576,24576,
3.87471e+06,0.0388255,24576,24576,
3.8797e+06,0.0393943,24576,24576,
3.88966e+06,0.0404971,24576,24576,
3.89465e+06,0.0410276,24576,24576,
3.90461e+06,0.0420385,24576,24576,
3.90959e+06,0.0425157,24576,24576,
3.91955e+06,0.043406,24576,24576,
3.92453e+06,0.0438162,24576,24576,
3.93448e+06,0.0445606,24576,24576,
3.93946e+06,0.0448925,24576,24576,
3.9494e+06,0.0454711,24576,24576,
3.95437e+06,0.0457162,24576,24576,
3.96431e+06,0.0461154,24576,24576,
3.96927e+06,0.0462686,24576,24576,
3.97919e+06,0.0464809,24576,24576,
3.98415e+06,0.0465398,24576,24576,
3.99407e+06,0.0465635,24576,24576,
3.99902e+06,0.0465286,24576,24576,
4.00892e+06,0.0463669,24576,24576,
4.01387e+06,0.0462409,24576,24576,
4.02377e+06,0.0459015,24576,24576,
4.02871e+06,0.0456891,24576,24576,
4.0386e+06,0.0451827,24576,24576,
4.04354e+06,0.04489,24576,24576,
4.05342e+06,0.0442298,24576,24576,
4.05835e+06,0.0438638,24576,24576,
4.06822e+06,0.0430643,24576,24576,
4.07316e+06,0.0426325,24576,24576,
4.08302e+06,0.0417092,24576,24576,
4.08795e+06,0.0412194,24576,24576,
4.0978e+06,0.0401877,24576,24576,
4.10273e+06,0.0396474,24576,24576,
4.11257e+06,0.0385224,24576,24576,
4.12242e+06,0.0373432,24576,24576,
4.12734e+06,0.0367352,24576,24576,
4.13717e+06,0.0354861,24576,24576,
4.14209e+06,0.0348465,24576,24576,
4.15192e+06,0.0335402,24576,24576,
4.15683e+06,0.032875,24576,24576,
4.16666e+06,0.0315232,24576,24576,
4.17157e+06,0.0308379,24576,24576,
4.18139e+06,0.0294511,24576,24576,
4.1863e+06,0.0287507,24576,24576,
4.19611e+06,0.0273382,24576,24576,
4.20102e+06,0.026627,24576,24576,
4.21083e+06,0.025197,24576,24576,
4.21573e+06,0.024479,24576,24576,
4.22554e+06,0.0230387,24576,24576,
4.23044e+06,0.0223172,24576,24576,
4.24024e+06,0.020873,24576,24576,
4.24514e+06,0.0201509,24576,24576,
4.25494e+06,0.0187081,24576,24576,
4.26473e+06,0.017269,24576,24576,
4.26963e+06,0.0165513,24576,24576,
4.27943e+06,0.015121,24576,24576,
4.28432e+06,0.0144088,24576,24576,
4.29411e+06,0.0129909,24576,24576,
4.29901e+06,0.0122856,24576,24576,
4.3088e+06,0.0108831,24576,24576,
4.31369e+06,0.0101861,24576,24576,
4.32348e+06,0.0088016,24576,24576,
4.32838e+06,0.00811474,24576,24576,
4.33817e+06,0.00675334,24576,24576,
4.34306e+06,0.00607965,24576,24576,
4.35285e+06,0.00474601,24576,24576,
4.35774e+06,0.00408625,24576,24576,
4.36751e+06,0.00278181,24576,24576,
4.37728e+06,0.00149749,24576,24576,
4.38216e+06,0.00086304,24576,24576,
4.39191e+06,-0.000390397,24576,24576,
4.39677e+06,-0.00100967,24576,24576,
4.4065e+06,-0.00223363,24576,24576,
4.41136e+06,-0.00283806,24576,24576,
4.42107e+06,-0.00403109,24576,24576,
4.42592e+06,-0.00461947,24576,24576,
4.43561e+06,-0.00577963,24576,24576,
4.44045e+06,-0.0063513,24576,24576,
4.45011e+06,-0.00747767,24576,24576,
4.45977e+06,-0.00858127,24576,24576,
4.46459e+06,-0.0091245,24576,24576,
4.47422e+06,-0.0101939,24576,24576,
4.47903e+06,-0.0107202,24576,24576,
4.48864e+06,-0.011756,24576,24576,
4.49344e+06,-0.0122655,24576,24576,
4.50303e+06,-0.0132682,24576,24576,
4.50782e+06,-0.0137612,24576,24576,
4.51739e+06,-0.0147309,24576,24576,
4.52695e+06,-0.0156786,24576,24576,
4.53173e+06,-0.0161442,24576,24576,
4.54127e+06,-0.017059,24576,24576,
4.54604e+06,-0.0175081,24576,24576,
4.55557e+06,-0.01839,24576,24576,
4.56033e+06,-0.0188227,24576,24576,
4.56985e+06,-0.019672,24576,24576,
4.57936e+06,-0.0204996,24576,24576,
4.58412e+06,-0.0209054,24576,24576,
4.59363e+06,-0.0217011,24576,24576,
4.59838e+06,-0.022091,24576,24576,
4.60789e+06,-0.022855,24576,24576,
4.61264e+06,-0.0232291,24576,24576,
4.62214e+06,-0.0239616,24576,24576,
4.63165e+06,-0.0246731,24576,24576,
4.6364e+06,-0.0250209,24576,24576,
4.64591e+06,-0.0257009,24576,24576,
4.65066e+06,-0.026033,24576,24576,
4.66018e+06,-0.0266815,24576,24576,
4.6697e+06,-0.0273088,24576,24576,
4.67446e+06,-0.0276146,24576,24576,
4.68399e+06,-0.0282103,24576,24576,
4.68876e+06,-0.0285001,24576,24576,
4.6983e+06,-0.0290639,24576,24576,
4.70308e+06,-0.0293378,24576,24576,
4.71263e+06,-0.0298694,24576,24576,
4.7222e+06,-0.0303793,24576,24576,
4.72699e+06,-0.030626,24576,24576,
4.73658e+06,-0.031103,24576,24576,
4.74138e+06,-0.0313332,24576,24576,
4.75098e+06,-0.0317766,24576,24576,
4.75579e+06,-0.0319898,24576,24576,
4.76542e+06,-0.032399,24576,24576,
4.77024e+06,-0.0325949,24576,24576,
4.77989e+06,-0.032969,24576,24576,
4.78956e+06,-0.0333192,24576,24576,
4.7944e+06,-0.0334851,24576,24576,
4.80409e+06,-0.0337985,24576,24576,
4.80895e+06,-0.0339458,24576,24576,
4.81866e+06,-0.0342212,24576,24576,
4.82353e+06,-0.0343491,24576,24576,
4.83328e+06,-0.0345851,24576,24576,
4.83816e+06,-0.034693,24576,24576,
4.84793e+06,-0.0348879,24576,24576,
4.85282e+06,-0.0349748,24576,24576,
4.86262e+06,-0.0351269,24576,24576,
4.86753e+06,-0.0351919,24576,24576,
4.87736e+06,-0.0352991,24576,24576,
4.88722e+06,-0.035375,24576,24576,
4.89215e+06,-0.0354009,24576,24576,
4.90203e+06,-0.0354278,24576,24576,
4.90698e+06,-0.0354284,24576,24576,
4.91689e+06,-0.0354034,24576,24576,
4.92185e+06,-0.0353773,24576,24576,
4.93177e+06,-0.0352972,24576,24576,
4.93673e+06,-0.0352428,24576,24576,
4.94665e+06,-0.0351045,24576,24576,
4.95161e+06,-0.0350201,24576,24576,
4.96154e+06,-0.0348199,24576,24576,
4.96651e+06,-0.0347036,24576,24576,
4.97644e+06,-0.0344375,24576,24576,
4.9814e+06,-0.0342872,24576,24576,
4.99134e+06,-0.0339508,24576,24576,
4.9963e+06,-0.0337643,24576,24576,
5.00623e+06,-0.0333534,24576,24576,
5.01119e+06,-0.0331285,24576,24576,
5.0211e+06,-0.0326385,24576,24576,
5.02606e+06,-0.0323728,24576,24576,
5.03596e+06,-0.0317987,24576,24576,
5.04091e+06,-0.0314897,24576,24576,
5.0508e+06,-0.0308266,24576,24576,
5.05574e+06,-0.0304719,24576,24576,
5.06562e+06,-0.029715,24576,24576,
5.07056e+06,-0.0293123,24576,24576,
5.08043e+06,-0.0284575,24576,24576,
5.08536e+06,-0.0280049,24576,24576,
5.09522e+06,-0.0270488,24576,24576,
5.10015e+06,-0.026545,24576,24576,
5.11e+06,-0.0254855,24576,24576,
5.11985e+06,-0.0243567,24576,24576,
5.12477e+06,-0.0237664,24576,24576,
5.1346e+06,-0.0225349,24576,24576,
5.13951e+06,-0.021894,24576,24576,
5.14934e+06,-0.0205632,24576,24576,
5.15425e+06,-0.019874,24576,24576,
5.16406e+06,-0.0184504,24576,24576,
5.16897e+06,-0.017717,24576,24576,
5.17878e+06,-0.01621,24576,24576,
5.18368e+06,-0.0154378,24576,24576,
5.19347e+06,-0.0138601,24576,24576,
5.19837e+06,-0.0130563,24576,24576,
5.20816e+06,-0.0114236,24576,24576,
5.21305e+06,-0.0105967,24576,24576,
5.22283e+06,-0.00892713,24576,24576,
5.22772e+06,-0.00808676,24576,24576,
5.23749e+06,-0.00640065,24576,24576,
5.24726e+06,-0.00471533,24576,24576,
5.25214e+06,-0.00387598,24576,24576,
5.2619e+06,-0.00220987,24576,24576,
5.26678e+06,-0.00138548,24576,24576,
5.27653e+06,0.000240248,24576,24576,
5.28141e+06,0.00103938,24576,24576,
5.29115e+06,0.00260496,24576,24576,
5.29602e+06,0.00336946,24576,24576,
5.30576e+06,0.00485734,24576,24576,
5.31063e+06,0.00557909,24576,24576,
5.32036e+06,0.00697459,24576,24576,
5.32522e+06,0.00764706,24576,24576,
5.33495e+06,0.00893873,24576,24576,
5.34467e+06,0.0101566,24576,24576,
5.34953e+06,0.010737,24576,24576,
5.35924e+06,0.0118396,24576,24576,
5.3641e+06,0.0123616,24576,24576,
5.37381e+06,0.0133465,24576,24576,
5.37866e+06,0.0138096,24576,24576,
5.38836e+06,0.0146774,24576,24576,
5.39321e+06,0.0150825,24576,24576,
5.40291e+06,0.0158358,24576,24576,
5.40776e+06,0.0161848,24576,24576,
5.41745e+06,0.016829,24576,24576,
5.42714e+06,0.0174041,24576,24576,
5.43198e+06,0.0176668,24576,24576,
5.44167e+06,0.0181448,24576,24576,
5.44651e+06,0.0183609,24576,24576,
5.45619e+06,0.0187499,24576,24576,
5.46103e+06,0.0189237,24576,24576,
5.4707e+06,0.0192326,24576,24576,
5.47554e+06,0.0193686,24576,24576,
5.48521e+06,0.0196062,24576,24576,
5.49004e+06,0.0197087,24576,24576,
5.49971e+06,0.0198835,24576,24576,
5.50938e+06,0.020021,24576,24576,
5.51421e+06,0.0200768,24576,24576,
5.52387e+06,0.0201648,24576,24576,
5.5287e+06,0.0201977,24576,24576,
5.53836e+06,0.0202434,24576,24576,
5.54319e+06,0.0202569,24576,24576,
5.55284e+06,0.0202672,24576,24576,
5.55767e+06,0.0202647,24576,24576,
5.56732e+06,0.0202458,24576,24576,
5.57698e+06,0.0202107,24576,24576,
5.5818e+06,0.0201877,24576,24576,
5.59145e+06,0.0201324,24576,24576,
5.59628e+06,0.0201006,24576,24576,
5.60592e+06,0.0200297,24576,24576,
5.61075e+06,0.0199911,24576,24576,
5.6204e+06,0.0199086,24576,24576,
5.62522e+06,0.0198651,24576,24576,
5.63486e+06,0.0197743,24576,24576,
5.64451e+06,0.0196797,24576,24576,
5.64933e+06,0.0196314,24576,24576,
5.65898e+06,0.0195332,24576,24576,
5.6638e+06,0.0194837,24576,24576,
5.67345e+06,0.0193842,24576,24576,
5.67827e+06,0.0193345,24576,24576,
5.68792e+06,0.0192356,24576,24576,
5.69274e+06,0.0191867,24576,24576,
5.70239e+06,0.0190899,24576,24576,
5.71204e+06,0.0189954,24576,24576,
5.71686e+06,0.0189491,24576,24576,
5.72651e+06,0.0188587,24576,24576,
5.73134e+06,0.0188147,24576,24576,
5.74099e+06,0.0187293,24576,24576,
5.74582e+06,0.0186879,24576,24576,
5.75548e+06,0.0186081,24576,24576,
5.76031e+06,0.0185697,24576,24576,
5.76997e+06,0.018496,24576,24576,
5.77963e+06,0.0184265,24576,24576,
5.78447e+06,0.0183934,24576,24576,
5.79414e+06,0.0183304,24576,24576,
5.79898e+06,0.0183005,24576,24576,
5.80865e+06,0.0182442,24576,24576,
5.81349e+06,0.0182177,24576,24576,
5.82318e+06,0.0181681,24576,24576,
5.82802e+06,0.0181449,24576,24576,
5.83771e+06,0.0181019,24576,24576,
5.84256e+06,0.0180821,24576,24576,
5.85226e+06,0.0180456,24576,24576,
5.86197e+06,0.0180134,24576,24576,
5.86682e+06,0.0179989,24576,24576,
5.87654e+06,0.017973,24576,24576,
5.8814e+06,0.0179616,24576,24576,
5.89112e+06,0.0179417,24576,24576,
5.89599e+06,0.0179332,24576,24576,
5.90572e+06,0.0179191,24576,24576,
5.91059e+06,0.0179134,24576,24576,
5.92034e+06,0.0179049,24576,24576,
5.92521e+06,0.017902,24576,24576,
5.93497e+06,0.0178988,24576,24576,
5.94473e+06,0.0178989,24576,24576,
5.94961e+06,0.0179003,24576,24576,
5.95939e+06,0.0179053,24576,24576,
5.96427e+06,0.0179091,24576,24576,
5.97406e+06,0.0179188,24576,24576,
5.97895e+06,0.0179248,24576,24576,
5.98874e+06,0.017939,24576,24576,
5.99364e+06,0.0179471,24576,24576,
6.00344e+06,0.0179655,24576,24576,
6.00834e+06,0.0179757,24576,24576,
6.01815e+06,0.017998,24576,24576,
6.02306e+06,0.0180102,24576,24576,
6.03287e+06,0.0180363,24576,24576,
6.03778e+06,0.0180503,24576,24576,
6.04761e+06,0.0180801,24576,24576,
6.05252e+06,0.0180959,24576,24576,
6.06235e+06,0.0181291,24576,24576,
6.07218e+06,0.0181646,24576,24576,
6.0771e+06,0.0181832,24576,24576,
6.08694e+06,0.0182219,24576,24576,
6.09186e+06,0.018242,24576,24576,
6.10171e+06,0.0182838,24576,24576,
6.10663e+06,0.0183054,24576,24576,
6.11648e+06,0.0183502,24576,24576,
6.12141e+06,0.0183734,24576,24576,
6.13126e+06,0.018421,24576,24576,
6.13619e+06,0.0184456,24576,24576,
6.14605e+06,0.0184961,24576,24576,
6.15099e+06,0.018522,24576,24576,
6.16085e+06,0.0185753,24576,24576,
6.16579e+06,0.0186026,24576,24576,
6.17566e+06,0.0186585,24576,24576,
6.1806e+06,0.0186871,24576,24576,
6.19048e+06,0.0187457,24576,24576,
6.19542e+06,0.0187756,24576,24576,
6.2053e+06,0.0188367,24576,24576,
6.21025e+06,0.0188679,24576,24576,
6.22013e+06,0.0189316,24576,24576,
6.22508e+06,0.0189641,24576,24576,
6.23498e+06,0.0190303,24576,24576,
6.24488e+06,0.0190982,24576,24576,
6.24983e+06,0.0191328,24576,24576,
6.25974e+06,0.0192032,24576,24576,
6.26469e+06,0.0192391,24576,24576,
6.27461e+06,0.019312,24576,24576,
6.27957e+06,0.0193492,24576,24576,
6.2895e+06,0.0194247,24576,24576,
6.29446e+06,0.0194631,24576,24576,
6.3044e+06,0.0195412,24576,24576,
6.30937e+06,0.019581,24576,24576,
6.31932e+06,0.0196617,24576,24576,
6.3243e+06,0.0197028,24576,24576,
6.33426e+06,0.0197863,24576,24576,
6.33925e+06,0.0198287,24576,24576,
6.34922e+06,0.019915,24576,24576,
6.35421e+06,0.0199589,24576,24576,
6.36419e+06,0.0200479,24576,24576,
6.36918e+06,0.0200931,24576,24576,
6.37916e+06,0.0201849,24576,24576,
6.38414e+06,0.0202315,24576,24576,
6.39411e+06,0.0203261,24576,24576,
6.3991e+06,0.0203742,24576,24576,
6.40906e+06,0.0204717,24576,24576,
6.41404e+06,0.0205211,24576,24576,
6.42401e+06,0.0206215,24576,24576,
6.42899e+06,0.0206724,24576,24576,
6.43894e+06,0.0207757,24576,24576,
6.44392e+06,0.0208281,24576,24576,
6.45387e+06,0.0209343,24576,24576,
6.45884e+06,0.0209881,24576,24576,
6.46879e+06,0.0210971,24576,24576,
6.47376e+06,0.0211523,24576,24576,
6.4837e+06,0.021264,24576,24576,
6.48867e+06,0.0213205,24576,24576,
6.49861e+06,0.0214346,24576,24576,
6.50357e+06,0.0214922,24576,24576,
6.5135e+06,0.0216084,24576,24576,
6.51847e+06,0.021667,24576,24576,
6.52839e+06,0.0217848,24576,24576,
6.53335e+06,0.021844,24576,24576,
6.54327e+06,0.0219629,24576,24576,
6.54823e+06,0.0220224,24576,24576,
6.55814e+06,0.0221416,24576,24576,
6.56309e+06,0.022201,24576,24576,
6.573e+06,0.0223194,24576,24576,
6.57795e+06,0.0223782,24576,24576,
6.58785e+06,0.0224947,24576,24576,
6.5928e+06,0.0225522,24576,24576,
6.6027e+06,0.0226654,24576,24576,
6.60765e+06,0.022721,24576,24576,
6.61754e+06,0.0228293,24576,24576,
6.62742e+06,0.0229334,24576,24576,
6.63236e+06,0.0229836,24576,24576,
6.64224e+06,0.0230797,24576,24576,
6.64718e+06,0.0231254,24576,24576,
6.65706e+06,0.0232114,24576,24576,
6.66199e+06,0.0232515,24576,24576,
6.67186e+06,0.023325,24576,24576,
6.6768e+06,0.0233582,24576,24576,
6.68666e+06,0.0234169,24576,24576,
6.69159e+06,0.023442,24576,24576,
6.70145e+06,0.0234832,24576,24576,
6.70638e+06,0.023499,24576,24576,
6.71623e+06,0.0235203,24576,24576,
6.72116e+06,0.0235254,24576,24576,
6.73101e+06,0.0235241,24576,24576,
6.73593e+06,0.0235174,24576,24576,
6.74578e+06,0.023491,24576,24576,
6.7507e+06,0.0234711,24576,24576,
6.76053e+06,0.0234174,24576,24576,
6.76545e+06,0.0233832,24576,24576,
6.77529e+06,0.0232998,24576,24576,
6.7802e+06,0.0232504,24576,24576,
6.79003e+06,0.0231354,24576,24576,
6.79986e+06,0.0229984,24576,24576,
6.80477e+06,0.0229215,24576,24576,
6.81459e+06,0.0227503,24576,24576,
6.8195e+06,0.0226559,24576,24576,
6.82932e+06,0.0224493,24576,24576,
6.83423e+06,0.022337,24576,24576,
6.84404e+06,0.0220942,24576,24576,
6.84895e+06,0.0219637,24576,24576,
6.85876e+06,0.0216842,24576,24576,
6.86366e+06,0.0215353,24576,24576,
6.87347e+06,0.0212192,24576,24576,
6.87837e+06,0.0210519,24576,24576,
6.88818e+06,0.0206992,24576,24576,
6.89308e+06,0.0205139,24576,24576,
6.90288e+06,0.0201253,24576,24576,
6.90777e+06,0.0199221,24576,24576,
6.91757e+06,0.0194985,24576,24576,
6.92736e+06,0.0190522,24576,24576,
6.93226e+06,0.0188207,24576,24576,
6.94205e+06,0.0183414,24576,24576,
6.94695e+06,0.0180938,24576,24576,
6.95673e+06,0.0175832,24576,24576,
6.96163e+06,0.0173203,24576,24576,
6.97141e+06,0.0167801,24576,24576,
6.97631e+06,0.0165029,24576,24576,
6.98609e+06,0.0159349,24576,24576,
6.99098e+06,0.0156443,24576,24576,
7.00076e+06,0.0150505,24576,24576,
7.00565e+06,0.0147476,24576,24576,
7.01543e+06,0.0141302,24576,24576,
7.02032e+06,0.0138161,24576,24576,
7.03009e+06,0.013178,24576,24576,
7.03987e+06,0.0125277,24576,24576,
7.04476e+06,0.0121982,24576,24576,
7.05453e+06,0.0115313,24576,24576,
7.05942e+06,0.0111939,24576,24576,
7.06919e+06,0.0105123,24576,24576,
7.07407e+06,0.0101682,24576,24576,
7.08385e+06,0.00947403,24576,24576,
7.08873e+06,0.00912404,24576,24576,
7.0985e+06,0.00841892,24576,24576,
7.10339e+06,0.00806406,24576,24576,
7.11316e+06,0.00735038,24576,24576,
7.11804e+06,0.0069918,24576,24576,
7.12781e+06,0.00627176,24576,24576,
7.1327e+06,0.00591051,24576,24576,
7.14246e+06,0.0051861,24576,24576,
7.15223e+06,0.00445985,24576,24576,
7.15712e+06,0.00409627,24576,24576,
7.16689e+06,0.00336867,24576,24576,
7.17177e+06,0.00300482,24576,24576,
7.18154e+06,0.00227747,24576,24576,
7.18643e+06,0.00191414,24576,24576,
7.1962e+06,0.00118859,24576,24576,
7.20108e+06,0.000826542,24576,24576,
7.21085e+06,0.000104325,24576,24576,
7.21574e+06,-0.000255681,24576,24576,
7.22551e+06,-0.000973087,24576,24576,
7.2304e+06,-0.00133033,24576,24576,
7.24017e+06,-0.00204154,24576,24576,
7.24506e+06,-0.00239536,24576,24576,
7.25484e+06,-0.0030991,24576,24576,
7.26461e+06,-0.0037972,24576,24576,
7.2695e+06,-0.00414398,24576,24576,
