%%MatrixMarket matrix array real general
6 6
0.
0.
1.
0.
0.
0.
0.
.5000000000
0.
0.
1.
0.
0.
-.1250000000
0.
.3750000000
0.
1.
0.
.5000000000
0.
0.
0.
0.
1.
.2500000000
0.
.7500000000
0.
0.
0.
-.1250000000
0.
-.1250000000
0.
0.
