%%MatrixMarket matrix array real general
6 3
.3333333333e-1
0.
0.
-.6666666667e-1
0.
-.1333333333
-.6666666667e-1
0.
0.
-.5333333333
0.
-.6666666667e-1
-.1333333333
0.
0.
-.6666666667e-1
0.
.3333333333e-1
