%%MatrixMarket matrix array real general
6 3
-.1333333333
-.6666666667e-1
.3333333333e-1
0.
0.
0.
-.6666666667e-1
-.5333333333
-.6666666667e-1
0.
0.
0.
.3333333333e-1
-.6666666667e-1
-.1333333333
0.
0.
0.
