0	0
12.152	0
20.2532	0
32.405	0
40.5061	0
52.6577	0
60.7587	0
72.91	0
81.0109	0
93.1621	0
101.263	0
113.414	0
121.515	0
133.631	0
141.732	0
153.883	0
161.95	0
170.05	0
182.128	0
190.229	0
202.225	0
210.171	0
222.091	0
230.037	0
241.956	0
253.875	0
261.821	0
273.74	2.72848e-12
281.686	4.54747e-12
293.605	7.27596e-12
301.551	9.09495e-12
313.47	1.45519e-11
321.416	1.81899e-11
333.32	2.63753e-11
341.237	3.36513e-11
353.112	4.72937e-11
361.029	5.91172e-11
372.903	8.0945e-11
380.82	1.00044e-10
392.695	1.35515e-10
400.534	1.63709e-10
412.264	2.1555e-10
420.103	2.57387e-10
431.861	3.33785e-10
443.62	4.30191e-10
451.43	5.05679e-10
463.032	6.40284e-10
470.767	7.45786e-10
482.368	9.31323e-10
490.103	1.07593e-09
501.586	1.32513e-09
513.069	1.62072e-09
520.664	1.84536e-09
531.986	2.22826e-09
543.308	2.67391e-09
550.856	3.01134e-09
562.178	3.58159e-09
573.485	4.23915e-09
581.013	4.73028e-09
592.304	5.55428e-09
603.595	6.49379e-09
611.122	7.19047e-09
622.413	8.3528e-09
633.704	9.66793e-09
641.232	1.06375e-08
652.523	1.22445e-08
660.05	1.3426e-08
671.341	1.53777e-08
682.632	1.7566e-08
690.148	1.91621e-08
701.423	2.1776e-08
712.698	2.46664e-08
720.215	2.67519e-08
731.49	3.0127e-08
742.77	3.38096e-08
750.296	3.64416e-08
761.586	4.06617e-08
772.876	4.5221e-08
780.403	4.84561e-08
791.693	5.36093e-08
802.982	5.91272e-08
810.509	6.3008e-08
821.799	6.91307e-08
833.083	7.56072e-08
840.598	8.01147e-08
851.871	8.71605e-08
863.144	9.45402e-08
870.659	9.96397e-08
881.932	1.07554e-07
893.205	1.1578e-07
900.72	1.21432e-07
911.992	1.30161e-07
923.265	1.39189e-07
930.78	1.45373e-07
942.053	1.549e-07
953.326	1.64733e-07
960.841	1.71464e-07
972.113	1.81835e-07
983.386	1.92553e-07
990.901	1.99903e-07
1002.17	2.1126e-07
1013.45	2.23048e-07
1020.96	2.31169e-07
1032.23	2.43782e-07
1043.51	2.5697e-07
1051.02	2.66115e-07
1062.29	2.80425e-07
1073.57	2.95528e-07
1081.08	3.06088e-07
1092.35	3.22751e-07
1103.63	3.40522e-07
1111.14	3.53055e-07
1122.41	3.73004e-07
1133.68	3.94482e-07
1141.19	4.09743e-07
1152.46	4.34207e-07
1163.73	4.6076e-07
1171.24	4.7974e-07
1182.5	5.10321e-07
1190.01	5.32234e-07
1201.28	5.67609e-07
1212.54	6.0627e-07
1220.05	6.34032e-07
1231.32	6.7892e-07
1242.59	7.28033e-07
1250.1	7.63318e-07
1261.36	8.2037e-07
1272.63	8.82766e-07
1280.14	9.27565e-07
1291.4	9.9993e-07
1302.67	1.07897e-06
1310.16	1.13545e-06
1321.35	1.22624e-06
1332.54	1.32515e-06
1340	1.39591e-06
1351.2	1.50981e-06
1362.39	1.63362e-06
1373.58	1.76811e-06
1381.05	1.86409e-06
1392.24	2.01826e-06
1403.43	2.18623e-06
1410.89	2.30638e-06
1422.09	2.49941e-06
1433.17	2.70619e-06
1440.56	2.85291e-06
1451.64	3.08663e-06
1462.72	3.33702e-06
1470.11	3.5134e-06
1481.23	3.79338e-06
1492.43	4.09322e-06
1503.62	4.41162e-06
1511.08	4.63446e-06
1522.27	4.98502e-06
1533.47	5.35576e-06
1540.91	5.61376e-06
1552.03	6.01749e-06
1563.16	6.44346e-06
1570.58	6.74032e-06
1581.71	7.20583e-06
1592.84	7.69675e-06
1600.21	8.03648e-06
1611.26	8.56917e-06
1622.31	9.13108e-06
1633.36	9.72404e-06
1640.73	1.01376e-05
1651.78	1.07868e-05
1662.83	1.14729e-05
1670.2	1.19519e-05
1681.25	1.27047e-05
1692.3	1.35014e-05
1703.35	1.43446e-05
1710.72	1.49343e-05
1721.77	1.58624e-05
1732.82	1.68459e-05
1740.18	1.75342e-05
1751.24	1.86182e-05
1762.29	1.97676e-05
1773.34	2.09859e-05
1780.7	2.18377e-05
1791.76	2.31771e-05
1802.81	2.45926e-05
1810.17	2.55796e-05
1821.22	2.7127e-05
1832.28	2.87565e-05
1843.33	3.04704e-05
1850.69	3.1661e-05
1861.74	3.35208e-05
1872.8	3.54713e-05
1880.16	3.68235e-05
1891.21	3.89314e-05
1902.26	4.11378e-05
1913.32	4.34459e-05
1920.68	4.50428e-05
1931.73	4.75285e-05
1942.78	5.01263e-05
1950.15	5.19225e-05
1961.2	5.47173e-05
1972.25	5.7637e-05
1983.3	6.06873e-05
1990.67	6.27964e-05
2001.72	6.6078e-05
2012.77	6.95071e-05
2020.14	7.18785e-05
2031.19	7.55692e-05
2042.24	7.9427e-05
2053.29	8.34599e-05
2060.66	8.625e-05
2071.71	9.0594e-05
2082.76	9.51369e-05
2090.13	9.82807e-05
2101.18	0.000103177
2112.23	0.000101502
2123.28	0.000100206
2130.64	9.95368e-05
2141.69	9.88078e-05
2152.74	9.83888e-05
2160.11	9.82717e-05
2171.16	9.83257e-05
2182.21	9.86411e-05
2193.26	9.92035e-05
2200.63	9.97098e-05
2211.68	0.000100659
2222.73	0.000101827
2230.1	0.000102725
2241.15	0.000104245
2252.2	0.00010597
2263.25	0.000107897
2270.62	0.000109293
2281.67	0.000111556
2292.72	0.00011402
2300.08	0.000115776
2311.13	0.000118582
2322.18	0.000121599
2333.23	0.00012483
2340.6	0.000127107
2351.65	0.000130712
2362.7	0.00013455
2370.07	0.000137242
2381.12	0.000141488
2392.17	0.000145991
2403.22	0.000150762
2410.59	0.000154097
2421.64	0.000159338
2432.69	0.000164877
2440.02	0.000168723
2451.02	0.000174756
2462.02	0.000181119
2473.02	0.000187826
2480.35	0.000192499
2491.35	0.000199796
2502.38	0.000207439
2513.42	0.00021539
2520.79	0.000220856
2531.84	0.000229289
2542.89	0.000237996
2550.25	0.000243953
2561.29	0.0002531
2572.34	0.00026254
2583.39	0.000272265
2590.75	0.000278912
2601.8	0.000289135
2612.85	0.000299676
2620.22	0.000306888
2631.27	0.000317996
2642.32	0.000329471
2653.37	0.000341337
2660.74	0.000349478
2671.79	0.000362053
2682.84	0.000375094
2690.21	0.000384062
2701.26	0.000397949
2712.31	0.000412387
2723.36	0.000427408
2730.72	0.000437763
2741.78	0.00045383
2752.83	0.000470566
2760.19	0.00048211
2771.24	0.000500032
2782.29	0.000518709
2793.33	0.000538156
2800.69	0.000551575
2811.73	0.000572404
2822.76	0.000594099
2830.11	0.000609073
2841.13	0.000632332
2852.16	0.000686029
2863.19	0.000739516
2870.54	0.000774964
2881.57	0.000827707
2892.61	0.000879974
2903.65	0.000931786
2910.99	0.000966004
2921.99	0.00101715
2932.99	0.00106823
2940.32	0.00110236
2951.32	0.00115382
2962.32	0.00120582
2973.32	0.0012586
2980.66	0.00129436
2991.66	0.00134903
3002.66	0.00140518
3013.66	0.00146307
3020.99	0.00150275
3031.99	0.00156411
3042.99	0.00162786
3050.32	0.00167168
3061.32	0.00173913
3072.32	0.00180837
3083.32	0.00187925
3090.66	0.00192739
3101.66	0.00200097
3112.66	0.00207631
3123.66	0.00215361
3130.99	0.00220638
3141.99	0.00228761
3152.99	0.00237169
3160.32	0.00242953
3171.32	0.00251933
3182.32	0.00261313
3193.32	0.00271134
3200.66	0.00277945
3211.66	0.00288587
3222.66	0.00299776
3233.66	0.00324948
3240.99	0.00341039
3251.99	0.00364146
3262.99	0.00386215
3270.32	0.00400517
3281.32	0.00421645
3292.32	0.00442749
3303.32	0.00464231
3310.66	0.00478952
3321.66	0.00501893
3332.66	0.00525946
3343.66	0.00550825
3350.99	0.00567827
3361.99	0.00594033
3372.99	0.00621317
3380.32	0.00640291
3391.32	0.00670253
3402.32	0.00702377
3413.32	0.00760292
3420.66	0.00805811
3431.66	0.00871495
3442.65	0.00936163
3453.65	0.0100291
3460.99	0.0104998
3471.99	0.0112509
3482.99	0.0120312
3490.32	0.0125728
3501.32	0.0134462
3512.32	0.0152352
3523.32	0.0167319
3530.65	0.0177802
3541.65	0.0196174
3552.65	0.0228409
3563.65	0.0261166
3570.98	0.0283159
3581.98	0.0316222
3592.98	0.0348374
3600.32	0.0369138
3611.32	0.0399361
3622.32	0.0428591
3633.32	0.0457248
3640.65	0.0476361
3651.65	0.0505416
3662.65	0.0535108
3673.65	0.0565424
3680.98	0.0585939
3691.98	0.0617138
3702.98	0.0648895
3710.31	0.0670439
3721.31	0.0703412
3732.31	0.0737239
3743.31	0.0771915
3750.64	0.079547
3761.64	0.0831383
3772.64	0.0867913
3783.64	0.0905025
3790.98	0.093011
3801.97	0.0968334
3812.97	0.100741
3820.31	0.103401
3831.31	0.107485
3842.31	0.111693
3853.31	0.116037
3860.64	0.119014
3871.64	0.123607
3882.64	0.128362
3893.64	0.133287
3900.97	0.136669
3911.97	0.141891
3922.97	0.147297
3930.3	0.151005
3941.3	0.156725
3952.3	0.162643
3963.3	0.168768
3970.64	0.172972
3981.64	0.179469
3992.63	0.18621
4003.63	0.193208
4010.97	0.198023
4021.97	0.205481
4032.97	0.213231
4040.3	0.218565
4051.3	0.226823
4062.3	0.235393
4073.3	0.244279
4080.63	0.250378
4091.63	0.259789
4102.63	0.269508
4113.63	0.27953
4120.97	0.286374
4131.97	0.296875
4142.97	0.307646
4150.3	0.314969
4161.3	0.326151
4172.3	0.337553
4183.3	0.349146
4190.63	0.356968
4201.63	0.368814
4212.63	0.380762
4223.64	0.39277
4231	0.40082
4242.1	0.412923
4253.19	0.424946
4260.59	0.432887
4271.68	0.44464
4282.78	0.456143
4290.18	0.463638
4301.29	0.474585
4312.41	0.485088
4323.56	0.495105
4331.04	0.501497
4342.27	0.510526
4353.5	0.518813
4360.99	0.523886
4372.21	0.530757
4383.44	0.536674
4390.93	0.540049
4402.16	0.544201
4413.39	0.547193
4420.87	0.548509
4432.1	0.549412
4443.33	0.548973
4450.81	0.547905
4462.04	0.545099
4473.27	0.540806
4480.76	0.537096
4491.99	0.530233
4503.21	0.521786
4510.7	0.515265
4521.93	0.504138
4533.16	0.491393
4540.64	0.481998
4551.87	0.466566
4563.1	0.449544
4570.59	0.437326
4581.81	0.417718
4593.04	0.396611
4600.53	0.381731
4611.76	0.358238
4622.99	0.333392
4630.47	0.316107
4641.7	0.289153
4652.93	0.261026
4660.42	0.241658
4671.64	0.211744
4682.87	0.180857
4690.36	0.159771
4701.59	0.127516
4712.82	0.0941832
4720.3	0.071867
4731.53	0.0396904
4742.76	0.00306362
4750.25	-0.0164049
4761.48	-0.0420633
4772.71	-0.0631319
4780.19	-0.0592901
4791.42	-0.0762012
4802.65	-0.0917839
4810.14	-0.101106
4821.36	-0.114122
4832.59	-0.124828
4840.08	-0.131053
4851.31	-0.139633
4862.54	-0.147574
4870.02	-0.152611
4881.25	-0.145995
4892.48	-0.152938
4903.71	-0.160874
4911.2	-0.165385
4922.43	-0.171218
4933.7	-0.176246
4941.21	-0.179259
4952.49	-0.183391
4960	-0.18594
4971.28	-0.189317
4982.55	-0.192278
4990.06	-0.194172
5001.34	-0.196816
5012.61	-0.199408
5020.12	-0.201086
5031.4	-0.203505
5042.67	-0.205787
5050.18	-0.207227
5061.46	-0.209259
5072.73	-0.201224
5080.24	-0.202478
5091.52	-0.20398
5102.79	-0.206283
5110.31	-0.207781
5121.58	-0.209775
5132.85	-0.21145
5140.37	-0.212411
5151.63	-0.213651
5162.9	-0.214681
5170.41	-0.215264
5181.68	-0.216001
5192.94	-0.216589
5200.45	-0.216908
5211.72	-0.217291
5222.98	-0.217574
5230.49	-0.217715
5241.76	-0.217863
5253.03	-0.217945
5260.54	-0.217887
5271.8	-0.217791
5283.07	-0.217698
5290.58	-0.217636
5301.84	-0.217474
5313.11	-0.217271
5320.62	-0.217129
5331.89	-0.216904
5343.08	-0.216665
5350.54	-0.216497
5361.73	-0.216229
5372.93	-0.215943
5380.39	-0.215742
5391.58	-0.215422
5402.78	-0.215082
5410.24	-0.214845
5421.43	-0.214473
5432.62	-0.214076
5440.09	-0.213799
5451.28	-0.210101
5462.47	-0.209823
5473.66	-0.209441
5481.13	-0.209192
5492.21	-0.208831
5503.29	-0.208477
5510.68	-0.208244
5521.76	-0.207893
5532.85	-0.207538
5540.24	-0.207299
5551.32	-0.206937
5562.47	-0.206568
5573.67	-0.206193
5581.13	-0.205939
5592.32	-0.205553
5603.52	-0.20516
5610.98	-0.204894
5622.17	-0.204487
5633.3	-0.204073
5640.72	-0.203791
5651.85	-0.203359
5662.97	-0.202914
5670.37	-0.202611
5681.42	-0.202143
5692.47	-0.201659
5703.52	-0.201154
5710.89	-0.200807
5721.94	-0.200267
5732.99	-0.199705
5740.36	-0.199317
5751.41	-0.198715
5762.46	-0.198086
5773.51	-0.197431
5780.88	-0.19698
5791.93	-0.196279
5802.98	-0.19555
5810.35	-0.195047
5821.4	-0.194276
5832.45	-0.193469
5843.5	-0.192629
5850.87	-0.192053
5861.92	-0.191161
5872.97	-0.190238
5880.34	-0.189606
5891.39	-0.188571
5902.44	-0.187509
5913.49	-0.186425
5920.86	-0.185691
5931.91	-0.184574
5942.96	-0.183441
5950.33	-0.182678
5961.38	-0.181522
5972.43	-0.180354
5983.48	-0.179175
5990.85	-0.178384
6001.9	-0.177188
6012.95	-0.175984
6020.32	-0.175177
6031.37	-0.173958
6042.42	-0.172732
6053.47	-0.171498
6060.84	-0.170671
6071.89	-0.169424
6082.94	-0.168169
6090.3	-0.167329
6101.36	-0.166061
6112.41	-0.164786
6123.46	-0.163503
6130.83	-0.162644
6141.88	-0.161348
6152.93	-0.160044
6160.29	-0.159171
6171.35	-0.157855
6182.4	-0.156532
6193.45	-0.160499
6200.81	-0.159979
6211.87	-0.159128
6222.92	-0.158152
6230.28	-0.1575
6241.33	-0.156522
6252.39	-0.155541
6263.44	-0.154085
6270.8	-0.153097
6281.85	-0.151595
6292.91	-0.15008
6300.27	-0.149064
6311.32	-0.147538
6322.38	-0.146009
6333.43	-0.14448
6340.79	-0.143461
6351.84	-0.141934
6362.9	-0.140407
6370.26	-0.13939
6381.31	-0.137863
6392.36	-0.136335
6403.42	-0.134805
6410.78	-0.133783
6421.83	-0.132246
6432.89	-0.130704
6440.25	-0.129673
6451.3	-0.128119
6462.35	-0.126556
6473.41	-0.124985
6480.77	-0.123932
6491.82	-0.122343
6502.87	-0.120745
6510.24	-0.119679
6521.29	-0.118082
6532.34	-0.11649
6543.39	-0.114905
6550.76	-0.113852
6561.81	-0.112278
6572.86	-0.110709
6580.23	-0.109665
6591.28	-0.1081
6602.33	-0.106533
6613.38	-0.10496
6620.75	-0.103907
6631.8	-0.102318
6642.85	-0.100716
6650.22	-0.099638
6661.27	-0.0980064
6672.32	-0.0963546
6683.32	-0.0935052
6690.65	-0.0913213
6701.65	-0.0882468
6712.65	-0.0853862
6723.65	-0.0826998
6730.98	-0.0809844
6741.98	-0.0784936
6752.98	-0.0760679
6760.31	-0.0744702
6771.33	-0.0720774
6782.38	-0.0696649
6793.42	-0.0672228
6800.79	-0.0655721
6811.84	-0.0630788
6822.89	-0.0605804
6830.26	-0.0589136
6841.31	-0.0564059
6852.36	-0.053876
6863.41	-0.0513059
6870.78	-0.0495618
6881.83	-0.0468889
6892.88	-0.0422013
6900.25	-0.0391689
6911.3	-0.0347862
6922.35	-0.0305428
6933.4	-0.0263244
6940.77	-0.0234799
6951.82	-0.0191286
6962.87	-0.0147321
6970.24	-0.0118275
6981.28	-0.00751385
6992.33	-0.00211903
7003.37	0.00455939
7010.74	0.00848111
7021.79	0.0142987
7032.84	0.0202937
7040.21	0.026646
7051.26	0.0350154
7062.31	0.0427249
7073.36	0.0493163
7080.73	0.0530019
7091.78	0.0575519
7102.83	0.0610745
7110.2	0.0629311
7121.25	0.0651345
7132.3	0.0668322
7143.35	0.0681764
7150.72	0.0689216
7161.77	0.0698624
7172.82	0.0706473
7180.19	0.0711176
7191.24	0.0718002
7202.28	0.0725212
7213.32	0.0733274
7220.67	0.0739121
7231.7	0.0748282
7242.73	0.075734
7250.08	0.0762995
7261.1	0.0770493
7272.13	0.0776487
7283.16	0.0780833
7290.52	0.0782849
7301.55	0.078473
7312.59	0.0785555
7323.59	0.0785713
7330.93	0.0785639
7341.93	0.0785528
7352.93	0.0785709
7360.26	0.0786132
7371.26	0.0787368
7382.26	0.078939
7393.26	0.0792109
7400.59	0.0794189
7411.59	0.0797434
7422.59	0.0800451
7433.59	0.0802828
7440.93	0.0803892
7451.93	0.0804553
7462.93	0.0804028
7470.26	0.0803038
7481.26	0.0800698
7492.26	0.0797507
7503.26	0.0793693
7510.59	0.0790922
7521.6	0.0786597
7532.6	0.0782272
7543.6	0.077816
7550.93	0.0775631
7561.93	0.0772272
7572.93	0.0769533
7580.26	0.0768083
7591.26	0.0766482
7602.26	0.0765534
7613.26	0.0765169
7620.6	0.0765204
7631.6	0.0765607
7642.6	0.0766357
7653.6	0.076739
7660.93	0.0768216
7671.93	0.0769641
7682.93	0.0771275
7690.26	0.0772474
7701.26	0.0774421
7712.26	0.0776517
7723.26	0.0778709
7730.6	0.0780189
7741.6	0.0782368
7752.6	0.0784403
7763.6	0.0786179
7770.93	0.0787158
7781.93	0.0788236
7792.93	0.078875
7800.26	0.0788734
7811.27	0.0788119
7822.27	0.0786753
7833.27	0.0784611
7840.6	0.0782749
7851.6	0.0779319
7862.6	0.0775155
7873.6	0.0770302
7880.93	0.0766711
7891.93	0.0760833
7902.93	0.0754416
7910.27	0.0749866
7921.27	0.074267
7932.27	0.0735067
7943.27	0.0727099
7950.6	0.0721601
7961.6	0.0713104
7972.6	0.0704341
7983.6	0.0695354
7990.93	0.0689262
8001.93	0.0680011
8012.93	0.0670674
8020.27	0.0664429
8031.27	0.065507
8042.27	0.0645764
8053.27	0.0636546
8060.6	0.0630462
8071.6	0.0621429
8082.6	0.06125
8093.6	0.0603645
8100.94	0.059776
8111.94	0.0588917
8122.94	0.0579994
8130.27	0.0573965
8141.27	0.0564748
8152.27	0.055526
8163.27	0.0545443
8170.6	0.0538692
8181.6	0.0528231
8192.6	0.0517353
8203.6	0.0506055
8210.94	0.0498294
8221.94	0.0486328
8232.94	0.0473998
8240.27	0.0465593
8251.27	0.0452738
8262.27	0.0439618
8273.27	0.0426268
8280.61	0.0417254
8291.61	0.0403576
8302.61	0.0389723
8313.61	0.0375694
8320.94	0.0366241
8331.94	0.0351893
8342.94	0.0337316
8350.27	0.0327447
8361.27	0.0312372
8372.27	0.0296898
8383.27	0.0280914
8390.61	0.0269899
8401.61	0.0252671
8412.61	0.0234289
8423.61	0.0214255
8430.94	0.0199709
8441.94	0.0174766
8452.94	0.0146304
8460.28	0.0119504
8471.28	0.00857276
8482.28	0.00566637
8493.28	0.00300252
8500.61	0.00319317
8511.61	0.000949887
8522.61	-0.00132317
8533.61	-0.00343249
8540.94	-0.00481635
8551.94	-0.00682686
8562.94	-0.00864264
8570.28	-0.00967649
8581.28	-0.00900301
8592.28	-0.00996444
8603.28	-0.0119418
8610.61	-0.0131317
8621.61	-0.0147879
8632.61	-0.0163728
8643.61	-0.0179319
8650.95	-0.0189379
8661.95	-0.0205487
8672.95	-0.0221009
8680.28	-0.0230747
8691.28	-0.0244638
8702.28	-0.0257078
8713.28	-0.024919
8720.61	-0.0256358
8731.61	-0.0266802
8742.61	-0.027691
8753.61	-0.0278489
8760.95	-0.0285578
8771.95	-0.0295698
8782.95	-0.0305055
8790.28	-0.0310877
8801.28	-0.0319071
8812.28	-0.032671
8823.28	-0.0333869
8830.62	-0.0338413
8841.62	-0.0344945
8852.62	-0.0351198
8863.62	-0.0357232
8870.95	-0.0361033
8881.95	-0.0366461
8892.95	-0.0371809
8900.28	-0.0375367
8911.28	-0.0380705
8922.28	-0.0386466
8933.28	-0.0392842
8940.62	-0.0396875
8951.62	-0.0402626
8962.62	-0.0408045
8973.62	-0.0413157
8980.95	-0.0416403
8991.95	-0.0421038
9002.95	-0.0425401
9010.28	-0.0428163
9021.29	-0.0432093
9032.29	-0.0435764
9043.29	-0.0439137
9050.62	-0.0398294
9061.62	-0.0400814
9072.62	-0.0403191
9083.62	-0.0405409
9090.95	-0.0406803
9101.95	-0.0408773
9112.95	-0.0410605
9120.29	-0.0411753
9131.29	-0.041335
9142.29	-0.0414771
9153.29	-0.0416033
9160.62	-0.0416794
9171.62	-0.0417826
9182.62	-0.041874
9193.62	-0.0419548
9200.96	-0.0420034
9211.96	-0.0420691
9222.96	-0.0421273
9230.29	-0.0421623
9241.29	-0.0422099
9252.29	-0.0422523
9263.29	-0.0422904
9270.62	-0.0423139
9281.62	-0.0423462
9292.62	-0.042375
9303.62	-0.0424
9310.96	-0.0424145
9321.96	-0.0424332
9332.96	-0.042456
9340.29	-0.042469
9351.29	-0.0424852
9362.29	-0.0424973
9373.29	-0.0425051
9380.63	-0.0425077
9391.63	-0.0425079
9402.63	-0.0425024
9413.63	-0.0424898
9420.96	-0.0424774
9431.96	-0.0424533
9442.96	-0.0424225
9450.29	-0.0423984
9461.29	-0.042357
9472.29	-0.0423306
9483.29	-0.0423371
9490.63	-0.0423354
9501.63	-0.0423242
9512.63	-0.0423032
9523.63	-0.0422727
9530.96	-0.0422474
9541.96	-0.0422021
9552.96	-0.0421485
9560.3	-0.0421083
9571.3	-0.0420414
9582.3	-0.041967
9593.3	-0.0418854
9600.63	-0.041827
9611.63	-0.0417338
9622.63	-0.0416338
9633.63	-0.0415274
9640.96	-0.041453
9651.96	-0.0413362
9662.96	-0.0412133
9670.3	-0.0411282
9681.3	-0.0409956
9692.3	-0.0408576
9703.3	-0.0407141
9710.63	-0.0393782
9721.63	-0.0392051
9732.63	-0.0390308
9743.63	-0.0388548
9750.97	-0.0387366
9761.97	-0.0385575
9772.97	-0.0383762
9780.3	-0.038254
9791.3	-0.0380685
9802.3	-0.0378803
9813.3	-0.0376893
9820.63	-0.0375602
9831.63	-0.0373641
9842.63	-0.0371647
9853.63	-0.0369619
9860.97	-0.0368248
9871.97	-0.0366163
9882.97	-0.0364042
9890.3	-0.0362607
9901.3	-0.0360424
9912.3	-0.0358203
9923.3	-0.0355944
9930.64	-0.0354413
9941.64	-0.035208
9952.64	-0.0349702
9963.64	-0.034728
9970.97	-0.0345642
9981.97	-0.0343148
9992.97	-0.0340611
10000.3	-0.0338897
10011.3	-0.033629
10022.3	-0.0333641
10033.3	-0.0330951
10040.6	-0.0329674
10051.6	-0.0327723
10062.6	-0.0325726
10073.6	-0.0323682
10081	-0.0322292
10092	-0.0320166
10103	-0.0317989
10110.3	-0.0316509
10121.3	-0.0314247
10132.3	-0.0311932
10143.3	-0.0309565
10150.6	-0.0307958
10161.6	-0.0305504
10172.6	-0.0302998
10183.6	-0.0300441
10191	-0.0298708
10202	-0.0296067
10213	-0.0293375
10220.3	-0.0291554
10231.3	-0.028878
10242.3	-0.0285959
10253.3	-0.0283089
10260.6	-0.028115
10271.6	-0.0278203
10282.6	-0.027521
10293.6	-0.0272172
10301	-0.0270122
10312	-0.0267011
10323	-0.0263856
10330.3	-0.026173
10341.3	-0.0258509
10352.3	-0.0255277
10363.3	-0.0252033
10370.6	-0.0249863
10381.6	-0.0246595
10392.6	-0.0243314
10403.6	-0.0240021
10411	-0.0237818
10422	-0.0234499
10433	-0.0231163
10440.3	-0.0228928
10451.3	-0.0225559
10462.3	-0.0222169
10473.3	-0.0218758
10480.6	-0.0216471
10491.6	-0.0213021
10502.6	-0.0209549
10513.6	-0.0206054
10521	-0.0203711
10532	-0.0200178
10543	-0.0196622
10550.3	-0.019403
10561.3	-0.0189842
10572.3	-0.0185679
10583.3	-0.0181541
10590.6	-0.0178796
10601.6	-0.0174699
10612.6	-0.0170627
10623.6	-0.0166579
10631	-0.0163893
10642	-0.0159883
10653	-0.0155895
10660.3	-0.0153249
10671.3	-0.0149298
10682.3	-0.0145368
10693.3	-0.0141457
10700.6	-0.0138862
10711.6	-0.0134984
10722.6	-0.0131125
10733.6	-0.0127284
10741	-0.0124733
10752	-0.0120922
10763	-0.011713
10770.3	-0.0114612
10781.3	-0.0110846
10792.3	-0.0107113
10803.3	-0.0103422
10810.6	-0.0100983
10821.6	-0.00973542
10832.6	-0.00937597
10843.6	-0.00901963
10851	-0.00878368
10862	-0.00843202
10873	-0.00808288
10880.3	-0.00785143
10891.3	-0.00750611
10902.3	-0.00715872
10913.3	-0.00682543
10920.6	-0.00661212
10931.6	-0.00630296
10942.6	-0.00600416
10953.6	-0.00571322
10961	-0.00552256
10972	-0.00524018
10983	-0.00496077
10990.3	-0.0047755
11001.3	-0.00449826
11012.3	-0.00422102
11023.3	-0.00394352
11030.7	-0.0037605
11041.7	-0.00348903
11052.7	-0.00322038
11063.7	-0.00295362
11071	-0.00277638
11082	-0.00251076
11093	-0.00224474
11100.3	-0.00206681
11111.3	-0.00179854
11122.3	-0.00152813
11133.3	-0.00125526
11140.7	-0.00107208
11151.7	-0.000795443
11162.7	-0.000516527
11173.7	-0.00023519
11181	-4.61889e-05
11192	0.000239656
11203	0.000528547
11210.3	0.000719748
11221.3	0.0010028
11232.3	0.00128336
11243.3	0.00156331
11250.7	0.00175036
11261.7	0.00203238
11272.7	0.00231651
11283.7	0.00260318
11291	0.00279591
11302	0.00308773
11313	0.00338307
11320.3	0.0036531
11331.3	0.00408338
11342.3	0.00453195
11353.3	0.00498979
11360.7	0.00529731
11371.7	0.0057594
11382.7	0.00622064
11393.7	0.00667982
11401	0.00698394
11412	0.00743659
11423	0.00788621
11430.3	0.0081872
11441.3	0.00864067
11452.4	0.00910094
11463.6	0.00956273
11471.4	0.00988889
11483.1	0.0103782
11491	0.0107028
11502.7	0.0111862
11510.6	0.0117286
11522.3	0.0128546
11530.2	0.013558
11541.9	0.0145199
11553.7	0.0153698
11561.5	0.0158924
11573.2	0.0166253
11581.1	0.0172257
11592.8	0.0180911
11600.7	0.0186031
11612.4	0.0193337
11620.3	0.019751
11632	0.0204835
11643.8	0.0214846
11651.6	0.0222298
11663.3	0.0233642
11671.2	0.0241031
11682.9	0.0251936
11690.8	0.0259037
11702.5	0.0269513
11710.4	0.0276471
11722.1	0.0286879
11733.9	0.0297207
11741.7	0.0304106
11753.5	0.0314748
11761.5	0.03222
11773.5	0.0333853
11781.5	0.0341918
11793.5	0.0354329
11801.5	0.0362708
11813.5	0.0375232
11821.5	0.0383441
11833.5	0.0395413
11841.5	0.0403131
11853.5	0.0414318
11861.5	0.0421547
11873.5	0.0432114
11881.5	0.0439007
11893.5	0.0449153
11901.5	0.0455793
11913.5	0.0465551
11921.5	0.0471903
11933.5	0.0481159
11941.5	0.0487122
11953.5	0.0495711
11961.5	0.0501172
11973.6	0.0508916
11981.6	0.051375
11993.6	0.0520452
