0	0
13.8295	0
27.6587	0
41.4878	0
55.3168	0
69.1457	0
82.9746	0
96.8034	0
110.632	0
124.461	0
138.29	0
152.118	0
165.947	0
179.776	0
193.274	0
206.772	-9.09495e-13
220.269	-1.81899e-12
233.767	-3.63798e-12
247.265	-6.36646e-12
260.762	-1.09139e-11
274.26	-1.72804e-11
287.757	-2.63753e-11
301.254	-3.81988e-11
314.752	-5.45697e-11
328.249	-7.54881e-11
341.746	-1.01863e-10
355.243	-1.34605e-10
368.74	-1.73713e-10
382.237	-2.19188e-10
395.103	-2.67391e-10
408.6	-3.22871e-10
421.465	-3.7835e-10
434.962	-4.35648e-10
448.459	-4.88399e-10
461.956	-5.29326e-10
475.452	-5.50244e-10
488.949	-5.41149e-10
501.815	-4.91127e-10
514.631	-3.87445e-10
527.448	-2.13731e-10
540.265	4.91127e-11
553.082	4.23825e-10
565.898	9.3678e-10
578.715	1.61981e-09
591.532	2.50657e-09
604.348	3.63889e-09
617.165	5.06225e-09
629.982	6.83031e-09
642.813	9.00491e-09
655.644	1.16534e-08
668.475	1.48548e-08
681.306	1.86974e-08
694.137	2.32822e-08
706.968	2.86973e-08
719.798	3.50256e-08
732.629	4.23479e-08
745.387	5.0698e-08
758.145	6.01958e-08
770.903	7.09315e-08
783.661	8.3005e-08
796.419	9.65274e-08
809.177	1.1162e-07
821.935	1.28388e-07
834.693	1.4692e-07
847.451	1.673e-07
860.282	1.89734e-07
873.112	2.142e-07
885.943	2.40782e-07
898.774	2.69578e-07
911.604	3.00691e-07
924.434	3.34242e-07
937.265	3.70367e-07
950.044	4.09069e-07
962.874	4.50826e-07
975.705	4.95699e-07
988.535	5.43926e-07
1001.37	5.95775e-07
1014.2	6.51552e-07
1027.03	7.11607e-07
1039.86	7.76333e-07
1052.69	8.46176e-07
1065.52	9.21636e-07
1078.35	1.00328e-06
1091.18	1.09172e-06
1104.01	1.18766e-06
1116.84	1.29185e-06
1129.67	1.40512e-06
1142.5	1.52837e-06
1155.33	1.66258e-06
1168.16	1.80879e-06
1180.99	1.96815e-06
1193.82	2.14187e-06
1206.65	2.33125e-06
1219.48	2.53768e-06
1232.31	2.76266e-06
1245.14	3.00777e-06
1257.97	3.27473e-06
1270.8	3.56534e-06
1283.63	3.88155e-06
1296.42	4.22431e-06
1309.2	4.59676e-06
1321.99	5.00126e-06
1334.78	5.4403e-06
1347.57	5.91656e-06
1360.36	6.43291e-06
1373.14	6.99471e-06
1385.93	7.60712e-06
1398.72	8.27412e-06
1411.51	8.99883e-06
1424.3	9.78393e-06
1437.08	1.06318e-05
1449.87	1.15448e-05
1462.66	1.2525e-05
1475.45	1.35749e-05
1488.23	1.46967e-05
1501.02	1.58931e-05
1513.81	1.71669e-05
1526.6	1.85212e-05
1539.39	1.99594e-05
1552.17	2.14854e-05
1564.96	2.31035e-05
1577.75	2.48184e-05
1590.54	2.66354e-05
1603.32	2.85603e-05
1616.11	3.05998e-05
1628.9	3.27608e-05
1641.69	3.50514e-05
1654.47	3.74799e-05
1667.26	4.00557e-05
1680.05	4.27889e-05
1692.84	4.56902e-05
1705.63	4.87714e-05
1718.41	5.20447e-05
1731.2	5.55216e-05
1743.73	5.91373e-05
1756.26	6.29657e-05
1768.79	6.70142e-05
1781.32	7.12897e-05
1793.84	7.57992e-05
1806.37	8.05496e-05
1818.9	8.55484e-05
1831.43	9.08037e-05
1843.96	9.6324e-05
1856.49	0.000102119
1869.02	0.000108199
1881.55	0.000114574
1894.07	0.000121259
1906.6	0.000128266
1919.13	0.000135611
1931.66	0.00014331
1944.19	0.000151383
1956.72	0.000159848
1969.25	0.000168728
1981.78	0.000178046
1994.3	0.000187826
2006.83	0.000198094
2019.36	0.000208879
2031.89	0.00022021
2044.42	0.000232116
2056.95	0.000229482
2069.48	0.000227723
2082	0.000226759
2094.53	0.000226526
2107.06	0.00022697
2119.59	0.00022805
2132.12	0.000229727
2144.65	0.000231973
2157.18	0.000234764
2169.7	0.000238081
2182.23	0.000241914
2194.76	0.000246254
2207.29	0.0002511
2219.82	0.000256454
2232.35	0.00026232
2244.87	0.00026871
2257.4	0.000275636
2269.93	0.000283115
2282.46	0.000291166
2294.99	0.000299812
2307.52	0.000309079
2320.04	0.000318992
2332.56	0.000329584
2345.09	0.000340886
2357.61	0.000352934
2370.14	0.000365764
2382.66	0.000379414
2395.19	0.000393924
2407.71	0.000409338
2420.24	0.000425736
2432.76	0.000443013
2445.29	0.000461094
2457.81	0.000479933
2470.34	0.000499495
2482.87	0.000519765
2495.4	0.000540743
2507.93	0.00056244
2520.45	0.000584877
2532.98	0.000608085
2545.51	0.000632103
2558.04	0.000656979
2570.57	0.000682766
2583.09	0.000709528
2595.62	0.000737337
2608.15	0.000766274
2620.68	0.000796427
2633.21	0.000827897
2645.73	0.000860785
2658.26	0.000895198
2670.79	0.000931237
2683.32	0.000969005
2695.85	0.0010086
2708.37	0.00105013
2720.9	0.00109368
2733.43	0.00113936
2745.96	0.00118729
2758.49	0.00123758
2771.02	0.00135072
2783.54	0.00146403
2796.07	0.00157642
2808.6	0.00168743
2821.13	0.00179708
2833.66	0.00190563
2846.19	0.00201353
2858.71	0.00212139
2871.24	0.00222988
2883.77	0.00233976
2896.3	0.00245183
2908.83	0.00256689
2921.36	0.00268581
2933.88	0.00280945
2946.41	0.00293868
2958.94	0.00307439
2971.47	0.00321625
2984	0.00336303
2996.53	0.00351427
3009.05	0.00366995
3021.58	0.00383034
3034.11	0.00399598
3046.64	0.00416765
3059.17	0.0043464
3071.7	0.00453349
3084.23	0.00473048
3096.75	0.0049391
3109.28	0.00516122
3121.81	0.00568014
3134.34	0.0061829
3146.87	0.00665834
3159.4	0.00710974
3171.93	0.00754644
3184.46	0.00798116
3196.99	0.00842761
3209.51	0.00889867
3222.04	0.00940571
3234.57	0.00995832
3247.1	0.0105644
3259.63	0.0112312
3272.16	0.0119286
3284.69	0.0126554
3297.22	0.0134224
3309.78	0.0151146
3322.34	0.0167491
3334.91	0.0183979
3347.47	0.0201088
3360.03	0.0219047
3372.6	0.0237936
3385.16	0.0257764
3397.72	0.0278518
3410.29	0.0300123
3422.85	0.0323556
3435.41	0.0348659
3447.98	0.0375105
3460.54	0.0402585
3473.1	0.043083
3485.67	0.0459668
3498.23	0.0489034
3510.79	0.0518961
3523.36	0.0549398
3535.92	0.0580394
3548.48	0.0612087
3561.05	0.0644652
3573.61	0.0678256
3586.17	0.0713034
3598.74	0.074908
3611.3	0.0786454
3623.86	0.082519
3636.43	0.0865303
3648.99	0.0906801
3661.55	0.0949695
3674.12	0.0993995
3686.68	0.103971
3699.24	0.108686
3711.81	0.113542
3724.37	0.118539
3736.93	0.123673
3749.5	0.128938
3762.06	0.134327
3774.62	0.139833
3787.19	0.145448
3799.75	0.151162
3812.32	0.156969
3824.88	0.162862
3837.44	0.168833
3850.01	0.174877
3862.57	0.180988
3875.13	0.18716
3887.7	0.193388
3900.26	0.199663
3912.82	0.205979
3925.39	0.212328
3937.95	0.2187
3950.52	0.225086
3963.08	0.231473
3975.64	0.237849
3988.21	0.244202
4000.77	0.250516
4013.33	0.256776
4025.9	0.262964
4038.46	0.269064
4051.03	0.275056
4063.59	0.28092
4076.15	0.286635
4088.72	0.292179
4101.28	0.297531
4113.84	0.302668
4126.41	0.307567
4138.97	0.312206
4151.54	0.316561
4164.1	0.32061
4176.66	0.324331
4189.23	0.327702
4201.79	0.330701
4214.36	0.333309
4226.92	0.335506
4239.48	0.337274
4252.05	0.338594
4264.61	0.339451
4277.18	0.339827
4289.87	0.339709
4302.57	0.339073
4315.27	0.337907
4327.97	0.336199
4340.66	0.333939
4353.36	0.33112
4366.06	0.327733
4378.75	0.323773
4391.45	0.319235
4404.15	0.314117
4416.85	0.308418
4429.54	0.30214
4442.24	0.295283
4454.94	0.287854
4467.64	0.279858
4480.33	0.271304
4493.03	0.2622
4505.73	0.25256
4518.42	0.242399
4531.12	0.231737
4543.82	0.220596
4556.52	0.208993
4569.21	0.196933
4581.91	0.184428
4594.61	0.171496
4607.31	0.158177
4620	0.144538
4632.7	0.130651
4645.4	0.11655
4658.1	0.102273
4670.79	0.0878869
4683.49	0.0718189
4696.19	0.056019
4708.89	0.0406261
4721.58	0.0258759
4734.28	0.0118907
4746.98	0.000751778
4759.68	-0.0117132
4772.37	-0.0279
4785.07	-0.0411145
4797.77	-0.0527121
4810.47	-0.0629574
4823.16	-0.0721222
4835.86	-0.0803943
4848.56	-0.0862639
4861.26	-0.0910893
4873.95	-0.0960915
4886.65	-0.10121
4899.35	-0.106396
4912.05	-0.11158
4924.75	-0.116679
4937.44	-0.107102
4950.14	-0.111287
4962.84	-0.115138
4976.19	-0.119997
4989.54	-0.123665
5002.89	-0.128353
5016.24	-0.132345
5029.59	-0.135817
5042.94	-0.138897
5056.29	-0.141658
5069.64	-0.144176
5082.99	-0.146469
5096.34	-0.148564
5109.69	-0.150492
5123.05	-0.152284
5136.4	-0.153966
5149.75	-0.155414
5163.1	-0.156913
5176.45	-0.158399
5189.8	-0.159714
5203.15	-0.160932
5216.5	-0.162057
5229.85	-0.163097
5242.7	-0.164019
5255.52	-0.164865
5268.34	-0.165638
5281.15	-0.166338
5293.97	-0.166966
5306.79	-0.167523
5319.6	-0.168015
5332.36	-0.162781
5345.12	-0.162099
5357.88	-0.162756
5370.63	-0.163269
5383.39	-0.163698
5396.15	-0.164046
5408.91	-0.164299
5421.67	-0.164466
5434.42	-0.164554
5447.18	-0.164569
5459.94	-0.164519
5472.7	-0.164409
5485.46	-0.164245
5498.21	-0.164031
5510.97	-0.163773
5523.73	-0.163473
5536.49	-0.163135
5549.25	-0.162761
5562	-0.162354
5574.76	-0.161917
5587.52	-0.16145
5600.28	-0.160957
5613.04	-0.160438
5625.8	-0.15991
5638.55	-0.159373
5651.31	-0.158828
5664.07	-0.158273
5676.83	-0.157709
5689.59	-0.157136
5702.34	-0.156553
5715.1	-0.155966
5727.86	-0.155368
5740.62	-0.15477
5753.38	-0.154167
5766.13	-0.153558
5778.89	-0.152921
5791.65	-0.152266
5804.41	-0.151592
5817.17	-0.1509
5829.92	-0.150189
5842.68	-0.14946
5855.44	-0.148713
5868.2	-0.147948
5880.96	-0.147164
5893.71	-0.146361
5906.47	-0.145539
5919.23	-0.144699
5931.99	-0.143839
5944.82	-0.142954
5957.65	-0.14205
5970.48	-0.141125
5983.31	-0.140181
5996.14	-0.139217
6008.97	-0.138233
6021.8	-0.137229
6034.64	-0.136205
6047.47	-0.135162
6060.3	-0.134098
6073.13	-0.133019
6085.96	-0.135538
6098.79	-0.134936
6111.62	-0.134315
6124.45	-0.133676
6137.24	-0.133023
6150.03	-0.132191
6162.82	-0.131357
6175.6	-0.13052
6188.39	-0.129679
6201.18	-0.128834
6213.97	-0.127985
6226.76	-0.127128
6239.55	-0.126265
6252.33	-0.125393
6265.12	-0.124512
6277.91	-0.12362
6290.7	-0.122717
6303.49	-0.121803
6316.27	-0.120876
6329.06	-0.119935
6341.85	-0.11898
6354.64	-0.11801
6367.43	-0.117024
6380.21	-0.116023
6393	-0.115005
6405.79	-0.11397
6418.58	-0.112918
6431.37	-0.11091
6444.15	-0.108909
6456.94	-0.106931
6469.47	-0.105022
6482	-0.103147
6494.53	-0.101304
6507.06	-0.0994933
6519.59	-0.0977105
6532.12	-0.0959519
6544.64	-0.0942127
6557.17	-0.0924883
6569.7	-0.0907738
6582.23	-0.0890645
6594.76	-0.0873559
6607.29	-0.085644
6619.82	-0.0839249
6632.35	-0.0821952
6644.88	-0.0804519
6657.4	-0.078692
6669.93	-0.0769134
6682.46	-0.075114
6694.99	-0.0732992
6707.52	-0.0714799
6720.05	-0.0696619
6732.58	-0.0678479
6745.11	-0.0660383
6757.64	-0.0642318
6770.16	-0.0624258
6782.69	-0.0606165
6795.22	-0.0587994
6807.75	-0.0569698
6820.28	-0.0551228
6832.81	-0.0532539
6845.34	-0.0513593
6857.87	-0.0494362
6870.4	-0.0454932
6882.92	-0.0418677
6895.45	-0.0385427
6907.98	-0.0354776
6920.51	-0.0326132
6933.04	-0.029885
6945.57	-0.0272323
6958.1	-0.0246046
6970.63	-0.0219631
6983.16	-0.0192814
6995.68	-0.0165441
7008.21	-0.0137444
7020.74	-0.0109171
7033.27	-0.00807089
7045.8	-0.00523996
7058.33	-0.00242361
7070.86	0.000394218
7083.39	0.00510235
7095.92	0.00938542
7108.44	0.0135912
7120.97	0.0177819
7133.5	0.0219389
7146.03	0.0260219
7158.56	0.0299743
7171.09	0.033743
7183.62	0.0372771
7196.15	0.0408065
7208.68	0.0442738
7221.2	0.0475662
7233.73	0.0505812
7246.26	0.0532544
7258.79	0.0555635
7271.32	0.0575197
7283.85	0.0591565
7296.38	0.0604928
7308.91	0.061565
7321.43	0.0624147
7333.96	0.0630843
7346.49	0.0636131
7359.02	0.0640329
7371.55	0.0643672
7384.08	0.0646315
7396.61	0.064835
7409.14	0.0649827
7421.67	0.0650769
7434.19	0.0651185
7446.72	0.0651073
7459.25	0.0650445
7471.78	0.0649338
7484.31	0.0647801
7496.84	0.0645875
7509.37	0.0643579
7521.9	0.0640897
7534.43	0.0637781
7546.95	0.0634156
7559.48	0.0629934
7572.01	0.0625029
7584.54	0.0619361
7597.07	0.0612873
7609.6	0.0605536
7622.13	0.0597352
7634.66	0.0588355
7647.19	0.0578605
7659.71	0.0568185
7672.24	0.0557192
7684.77	0.0545726
7697.3	0.0533891
7709.83	0.0521781
7722.36	0.0509484
7734.89	0.0497074
7747.42	0.0484612
7759.94	0.0472149
7772.47	0.0459726
7784.99	0.0447365
7797.52	0.0435081
7810.04	0.0422883
7822.57	0.0410767
7835.09	0.0398726
7847.62	0.0386741
7860.14	0.0374788
7872.67	0.0362837
7885.19	0.035085
7897.71	0.0338786
7910.24	0.0326601
7922.77	0.0314244
7935.3	0.0301661
7947.83	0.0288786
7960.35	0.0275559
7972.88	0.0261906
7985.41	0.024777
7997.94	0.0233105
8010.47	0.0217821
8023	0.0201868
8035.53	0.0182723
8048.06	0.0163277
8060.58	0.0144438
8073.11	0.0126403
8085.64	0.0108666
8098.17	0.00914112
8110.7	0.00817702
8123.23	0.00659158
8135.76	0.00439687
8148.29	0.00260557
8160.82	0.000987373
8173.34	-0.000473117
8185.87	-0.00176069
8198.4	-0.00266261
8210.93	-0.00355575
8223.46	-0.00441956
8235.99	-0.00525046
8248.52	-0.0060666
8261.05	-0.00687493
8273.58	-0.00767466
8286.1	-0.00846177
8298.63	-0.0070692
8311.16	-0.00759096
8323.69	-0.00864682
8336.22	-0.00937559
8348.75	-0.0101695
8361.28	-0.0108647
8373.81	-0.0114935
8386.34	-0.0120791
8398.86	-0.0126292
8411.39	-0.0131565
8423.92	-0.0136615
8436.45	-0.0141474
8448.98	-0.0146186
8461.51	-0.0150796
8474.04	-0.0155347
8486.57	-0.0159871
8499.09	-0.0163929
8511.62	-0.0168213
8524.15	-0.0173434
8536.68	-0.0178406
8549.21	-0.018318
8561.74	-0.0187804
8574.27	-0.019231
8586.8	-0.0196726
8599.33	-0.0201068
8611.85	-0.0205346
8624.38	-0.0209486
8636.91	-0.0213533
8649.44	-0.019591
8661.97	-0.0192328
8674.5	-0.0197014
8687.03	-0.0201425
8699.56	-0.0205669
8712.09	-0.0209748
8724.61	-0.0213667
8737.14	-0.0217431
8749.67	-0.0220938
8762.2	-0.0224219
8774.73	-0.0227301
8787.26	-0.023021
8799.79	-0.0232966
8812.32	-0.0235589
8824.84	-0.0238091
8837.37	-0.0240483
8849.9	-0.0242775
8862.43	-0.0244973
8874.96	-0.0247075
8887.49	-0.0249144
8900.02	-0.0251171
8912.55	-0.0253151
8925.08	-0.0255074
8937.6	-0.0257348
8950.13	-0.0259472
8962.66	-0.0261452
8975.19	-0.0263292
8987.72	-0.0264995
9000.25	-0.0266565
9012.78	-0.0267995
9025.31	-0.026929
9037.84	-0.0270455
9050.36	-0.0271495
9062.89	-0.0272412
9075.42	-0.0273768
9087.95	-0.0274929
9100.48	-0.0275911
9113.01	-0.0276723
9125.54	-0.0277377
9138.07	-0.0277883
9150.6	-0.0278248
9163.12	-0.027848
9175.65	-0.0278586
9188.18	-0.0278573
9200.71	-0.0278446
9213.24	-0.027821
9225.77	-0.0277863
9238.3	-0.0277409
9250.83	-0.0276852
9263.36	-0.0276195
9275.88	-0.0275442
9288.41	-0.0274595
9300.94	-0.0273656
9313.47	-0.0253032
9326	-0.0252479
9338.53	-0.0251884
9351.06	-0.0251243
9363.59	-0.0250554
9376.12	-0.0249814
9388.64	-0.0249019
9401.17	-0.0248168
9413.7	-0.024726
9426.23	-0.0246292
9438.76	-0.0245263
9451.29	-0.0244172
9463.82	-0.0243019
9476.35	-0.0241802
9488.88	-0.0240521
9501.4	-0.0239175
9513.93	-0.0237765
9526.46	-0.0236291
9538.99	-0.0234752
9551.52	-0.023315
9564.05	-0.0231471
9576.58	-0.0229719
9589.11	-0.0227897
9601.64	-0.0226008
9614.16	-0.0224054
9626.69	-0.022204
9639.22	-0.0219966
9651.75	-0.0217837
9664.28	-0.0215653
9676.81	-0.0213418
9689.34	-0.0211133
9701.87	-0.0208799
9714.43	-0.0206414
9727	-0.0203984
9739.56	-0.020151
9752.12	-0.0198996
9764.69	-0.0196444
9777.25	-0.0193854
9789.81	-0.0191228
9802.38	-0.0188567
9814.94	-0.0185873
9827.51	-0.0183147
9840.07	-0.0180389
9852.63	-0.01776
9865.2	-0.017478
9877.76	-0.0171929
9890.33	-0.0169047
9902.89	-0.0166136
9915.45	-0.0163195
9928.02	-0.0160225
9940.58	-0.0157225
9953.15	-0.0154197
9965.71	-0.015114
9978.27	-0.0148055
9990.84	-0.0144957
10003.4	-0.0141846
10016	-0.0138719
10028.5	-0.0135576
10041.1	-0.0132417
10053.7	-0.0129285
10066.2	-0.0126175
10078.8	-0.0123084
10091.3	-0.0120006
10103.9	-0.0116985
10116.5	-0.011401
10129	-0.0111072
10141.6	-0.0108163
10154.2	-0.0105276
10166.7	-0.0102405
10179.3	-0.00995431
10191.9	-0.00957159
10204.4	-0.00919623
10217	-0.00882733
10229.6	-0.00846409
10242.1	-0.00810574
10254.7	-0.0077516
10267.2	-0.00740105
10279.8	-0.00705351
10292.4	-0.00670847
10304.9	-0.00636544
10317.5	-0.00602401
10330.1	-0.00568382
10342.6	-0.00534455
10355.2	-0.00500597
10367.8	-0.00466789
10380.3	-0.00433017
10392.9	-0.0039927
10405.4	-0.00365539
10418	-0.00331817
10430.6	-0.00298099
10443.1	-0.00264378
10455.7	-0.0021495
10468.3	-0.00168598
10480.8	-0.00124813
10493.4	-0.000831413
10506	-0.000433024
10518.5	-5.04564e-05
10531.1	0.000318521
10543.7	0.000675885
10556.2	0.00102338
10568.8	0.00136253
10581.3	0.00169466
10593.9	0.00202088
10606.5	0.00234209
10619	0.00265916
10631.6	0.0029729
10644.2	0.00328404
10656.7	0.00359325
10669.3	0.00390108
10681.9	0.004208
10694.4	0.00451441
10707	0.0048206
10719.5	0.00512682
10732.5	0.00544312
10745.5	0.00575965
10758.5	0.00607639
10771.4	0.00639327
10784.4	0.00671018
10797.4	0.00702695
10810.4	0.00734379
10823.3	0.0076379
10836.3	0.00791495
10849.3	0.00817932
10862.2	0.0084345
10875.2	0.00868336
10888.2	0.00892822
10901.2	0.00917098
10914.1	0.00941325
10927.1	0.00965633
10940.1	0.00990129
10953.4	0.0101562
10966.8	0.0104146
10980.1	0.0106763
10993.5	0.0109411
11006.8	0.0112086
11020.2	0.0114782
11033.5	0.0117495
11046.9	0.0119986
11060.2	0.0122638
11073.6	0.0125455
11086.9	0.0128422
11100.3	0.0131516
11113.6	0.0136284
11127	0.0141303
11140.3	0.0146416
11153.7	0.0151468
11167	0.0156353
11180.4	0.0161015
11193.7	0.0165434
11207.1	0.0169608
11220.4	0.0173546
11233.8	0.0181252
11247.1	0.0187954
11260.5	0.0193842
11273.8	0.0198863
11287.2	0.0208242
11300.5	0.021466
11313.9	0.0218693
11327.2	0.0220924
11340.6	0.0221858
11353.9	0.0221895
11367.3	0.0221336
11380.6	0.0220393
11394	0.021921
11407.3	0.0217883
11420.7	0.0216469
11434	0.0214997
11447.4	0.0213461
11460.7	0.0211846
11474.1	0.0210138
11487.4	0.020834
11500.8	0.0206454
11514.1	0.0204473
11527.5	0.0202387
11540.8	0.0200185
11554.2	0.019786
11567.5	0.0195408
11580.9	0.0192833
11594.2	0.0190136
11607.6	0.0187325
11620.9	0.0184409
11634.3	0.0181394
11647.6	0.0178292
11661	0.0175114
11674.3	0.0171872
11687.7	0.0168582
11701	0.0165254
11714.4	0.0161895
11727.7	0.0158498
11741.1	0.0155048
11754.5	0.0151525
11767.8	0.0147865
11781.2	0.0144019
11794.5	0.0139976
11807.9	0.0135758
11821.2	0.0131382
11834.6	0.0126113
11847.9	0.0120812
11861.3	0.0115679
11874.6	0.0110719
11888	0.0105895
11901.3	0.0101
11914.7	0.00960132
11928	0.00909543
11941.4	0.00910278
11954.7	0.00863363
11968.1	0.00814872
11981.4	0.0078468
11994.8	0.00742063
