time,surface_elevation,reference_data,number_of_local_cells,number_of_global_cells
0,9.0279e-06,1,1024,1024
1.03101,9.61544e-06,1,1024,1024
2.00778,1.02893e-05,1,1024,1024
3.03884,1.11561e-05,1,1024,1024
4.01567,1.21605e-05,1,1024,1024
5.04678,1.34531e-05,1,1024,1024
6.02366,1.49362e-05,1,1024,1024
7.00055,1.67137e-05,1,1024,1024
8.03174,1.89651e-05,1,1024,1024
9.00868,2.15189e-05,1,1024,1024
10.0399,2.47474e-05,1,1024,1024
11.0169,2.84142e-05,1,1024,1024
12.0483,3.30666e-05,1,1024,1024
13.0254,3.83788e-05,1,1024,1024
14.0025,4.47719e-05,1,1024,1024
15.034,5.2968e-05,1,1024,1024
16.0113,6.2434e-05,1,1024,1024
17.0431,7.46731e-05,1,1024,1024
18.0207,8.89338e-05,1,1024,1024
19.053,0.000107546,1,1024,1024
20.0319,0.00012946,1,1024,1024
21.0124,0.000156691,1,1024,1024
22.0495,0.000192847,1,1024,1024
23.0344,0.000236169,1,1024,1024
24.0215,0.000290956,1,1024,1024
25.011,0.000360661,1,1024,1024
26.0028,0.000449901,1,1024,1024
27.0519,0.0005722,1,1024,1024
28.0478,0.000723592,1,1024,1024
29.0453,0.000921436,1,1024,1024
30.0443,0.00118239,1,1024,1024
31.0445,0.00152358,1,1024,1024
32.0457,0.00196657,1,1024,1024
33.0475,0.00255742,1,1024,1024
34.0491,0.00333226,1,1024,1024
35.0505,0.00434978,1,1024,1024
36.0517,0.00566766,1,1024,1024
37.0529,0.00735284,1,1024,1024
38.0538,0.00951407,1,1024,1024
39.0547,0.012335,1,1024,1024
40.0554,0.015897,1,1024,1024
41.0003,0.0199553,1,1024,1024
42.0008,0.024797,1,1024,1024
43.0012,0.0297009,1,1024,1024
44.0014,0.0341134,1,1024,1024
45.0016,0.0377038,1,1024,1024
46.0016,0.0404443,1,1024,1024
47.0016,0.0423867,1,1024,1024
48.0015,0.0436091,1,1024,1024
49.0012,0.0443397,1,1024,1024
50.0009,0.0447855,1,1024,1024
51.0004,0.044932,1,1024,1024
52.0554,0.0447129,1,1024,1024
53.0548,0.0441732,1,1024,1024
54.054,0.0433419,1,1024,1024
55.0531,0.0422561,1,1024,1024
56.0521,0.040891,1,1024,1024
57.0509,0.0391941,1,1024,1024
58.0497,0.0371599,1,1024,1024
59.0482,0.0348015,1,1024,1024
60.0467,0.0320885,1,1024,1024
61.0449,0.0289307,1,1024,1024
62.0431,0.0250697,1,1024,1024
63.041,0.0188099,1,1024,1024
64.0387,0.0120742,1,1024,1024
65.0363,0.00542028,1,1024,1024
66.0336,-0.00194605,1,1024,1024
67.0306,-0.00835713,1,1024,1024
68.0275,-0.0115053,1,1024,1024
69.024,-0.0120842,1,1024,1024
70.0202,-0.0120842,1,1024,1024
71.0161,-0.0120881,1,1024,1024
72.0117,-0.0120881,1,1024,1024
73.0068,-0.0120895,1,1024,1024
74.0016,-0.0120908,1,1024,1024
75.0511,-0.0120908,1,1024,1024
76.0449,-0.0120908,1,1024,1024
77.0382,-0.0120908,1,1024,1024
78.031,-0.0120908,1,1024,1024
79.0233,-0.0120908,1,1024,1024
80.015,-0.0120908,1,1024,1024
81.0061,-0.0119353,1,1024,1024
82.0514,-0.0112514,1,1024,1024
83.0409,-0.0104479,1,1024,1024
84.0296,-0.00991868,1,1024,1024
85.0175,-0.00923475,1,1024,1024
86.0046,-0.00845943,1,1024,1024
87.0459,-0.00765771,1,1024,1024
88.032,-0.00700082,1,1024,1024
89.0179,-0.00649328,1,1024,1024
