
Start depth: 12
Problem size with different number of CPUs using function optimization

THREADS	INITIAL_DEPTH	MTPS	SPEEDUP_PER	TIMESTEPS	TIMESTEP_SIZE	SECONDS_FOR_SIMULATION	AVERAGE_TRIANGLES	AVERAGE_PARTITIONS
1	12	3.51329	1.0000	50	0.100013	0.42339	29749.8	86.56
2	13	6.58868	.9376	100	0.0707198	0.935112	61611.5	96.48
4	14	11.8255	.8414	200	0.0500062	2.20429	130333	155.65
8	15	22.8753	.8138	400	0.0353595	4.9572	283493	175.66
16	16	46.5297	.8277	800	0.0250025	10.9882	639099	263.984
32	17	82.5436	.7342	1600	0.0176812	29.0148	1.49686e+06	404.493
40	17	92.1746	.6558	2000	0.0176814	36.7167	1.69217e+06	444.49

Start depth: 14
Problem size with different number of CPUs using function optimization

THREADS	INITIAL_DEPTH	MTPS	SPEEDUP_PER	TIMESTEPS	TIMESTEP_SIZE	SECONDS_FOR_SIMULATION	AVERAGE_TRIANGLES	AVERAGE_PARTITIONS
1	14	3.78942	1.0000	50	0.0500064	1.42367	107897	188.2
2	15	7.19431	.9492	100	0.0353599	3.05297	219640	206.36
4	16	12.3169	.8125	200	0.0250032	7.34159	452130	310.56
8	17	27.0253	.8914	400	0.0176799	13.9757	944242	332.3
16	18	52.886	.8722	800	0.0125015	30.4203	2.01101e+06	576.121
32	19	87.8333	.7243	1600	0.00883981	80.0915	4.39669e+06	644.864
40	19	90.9267	.5998	2000	0.00883973	104.585	4.75477e+06	674.046

Start depth: 16
Problem size with different number of CPUs using function optimization

THREADS	INITIAL_DEPTH	MTPS	SPEEDUP_PER	TIMESTEPS	TIMESTEP_SIZE	SECONDS_FOR_SIMULATION	AVERAGE_TRIANGLES	AVERAGE_PARTITIONS
1	16	3.68516	1.0000	50	0.0250031	5.57156	410642	509.64
2	17	7.2608	.9851	100	0.0176799	11.4111	828540	543.44
4	18	12.6701	.8595	200	0.0125016	26.5412	1.6814e+06	742.33
8	19	28.5018	.9667	400	0.00883996	48.2392	3.43726e+06	774.785
16	20	54.6824	.9274	800	0.00625079	103.836	7.09749e+06	1208.55
32	21	85.6479	.7262	1600	0.00441997	277.583	1.4859e+07	1279.06
40	21	91.7809	.6226	2000	0.00441997	337.258	1.54769e+07	1249.36

Start depth: 18
Problem size with different number of CPUs using function optimization

THREADS	INITIAL_DEPTH	MTPS	SPEEDUP_PER	TIMESTEPS	TIMESTEP_SIZE	SECONDS_FOR_SIMULATION	AVERAGE_TRIANGLES	AVERAGE_PARTITIONS
1	18	3.86261	1.0000	50	0.0125015	20.7349	1.60182e+06	1655.48
2	19	7.68454	.9947	100	0.00883993	41.8752	3.21792e+06	1720.7
4	20	12.6406	.8181	200	0.00625077	102.571	6.48282e+06	2108.93
8	21	29.9342	.9687	400	0.00441997	175.172	1.31091e+07	2162.14
16	22	53.9159	.8724	800	0.00312539	395.315	2.66422e+07	2974.21
32	23	80.1735	.6486	1600	0.00220998	1088.17	5.45264e+07	3062.57
40	23	93.5174	.6052	2000	0.00220998	1190.44	5.56636e+07	2831.03

Start depth: 20
Problem size with different number of CPUs using function optimization

THREADS	INITIAL_DEPTH	MTPS	SPEEDUP_PER	TIMESTEPS	TIMESTEP_SIZE	SECONDS_FOR_SIMULATION	AVERAGE_TRIANGLES	AVERAGE_PARTITIONS
1	20	4.07191	1.0000	50	0.00625075	77.6913	6.32705e+06	5956.4
2	21	7.73967	.9503	100	0.00441996	163.864	1.26825e+07	6084.22
4	22	13.7491	.8441	200	0.00312538	370.316	2.54575e+07	6850.72
8	23	30.3718	.9323	400	0.00220998	674.258	5.11961e+07	6946.98
16	24	53.3935	.8195	800	0.00156269	1546.53	1.03219e+08	8518.09
32	25	82.1688	.6306	1600	0.00110499	4066.47	2.08835e+08	8628.74
40	25	89.7072	.5507	2000	0.00110499	4704.44	2.11011e+08	7592.22
