%%MatrixMarket matrix array real general
4 4
-.3535533905
.2041241452
.5000000000
.2886751347
-.3535533905
-.2041241452
.5000000000
.2886751347
-.3535533905
.2041241452
.5000000000
-.2886751347
-.3535533905
-.2041241452
.5000000000
-.2886751347
