%%MatrixMarket matrix array complex general
20 20
1 0
0 0
0 0
0 0
0 0
0 0
0 0
0 0
0 0
0 0
0 0
0 0
0 0
0 0
0 0
0 0
0 0
0 0
0 0
0 0
0 0
1 0
0 0
0 0
0 0
0 0
0 0
0 0
0 0
0 0
0 0
0 0
0 0
0 0
0 0
0 0
0 0
0 0
0 0
0 0
0 0
0 0
1 0
0 0
0 0
0 0
0 0
0 0
0 0
0 0
0 0
0 0
0 0
0 0
0 0
0 0
0 0
0 0
0 0
0 0
0 0
0 0
0 0
1 0
0 0
0 0
0 0
0 0
0 0
0 0
0 0
0 0
0 0
0 0
0 0
0 0
0 0
0 0
0 0
0 0
-1.41421356 0
0 0
0 0
0 0
-1.5 0
0 0
0 0
0 0
0 0
0 0
0.866025404 0
0 0
0 0
0 0
0 0
0 0
0 0
0 0
0 0
0 0
0 0
-1.41421356 0
0 0
0 0
0 0
-1.5 0
0 0
0 0
0 0
0 0
0 0
0.866025404 0
0 0
0 0
0 0
0 0
0 0
0 0
0 0
0 0
0 0
0 0
-1.41421356 0
0 0
0 0
0 0
-1.5 0
0 0
0 0
0 0
0 0
0 0
0.866025404 0
0 0
0 0
0 0
0 0
0 0
0 0
0 0
4.61880215 0
0 0
0 0
0 0
5.71547607 0
0 0
0 0
2.33333333 0
0 0
0 0
-1.41421356 0
0 0
0 0
-1.73205081 0
0 0
0 0
0.745355993 0
0 0
0 0
0 0
0 0
4.61880215 0
0 0
0 0
0 0
5.71547607 0
0 0
0 0
2.33333333 0
0 0
0 0
-1.41421356 0
0 0
0 0
-1.73205081 0
0 0
0 0
0.745355992 0
0 0
0 0
-17 0
0 0
0 0
0 0
-24.7487373 0
0 0
0 0
-14.4337567 0
0 0
-3.75 0
4.4907312 0
0 0
0 0
7 0
0 0
3.31976405 0
-1.29099445 0
0 0
-1.67705098 0
0.661437828 0
-0.816496581 0
0 0
0 0
0 0
-1.44337567 0
0 0
0 0
0 0
0 0
0 0
-0.5 0
0 0
0 0
0 0
0 0
0 0
0 0
0 0
0 0
0 0
0 0
-0.816496581 0
0 0
0 0
0 0
-1.44337567 0
0 0
0 0
0 0
0 0
0 0
-0.5 0
0 0
0 0
0 0
0 0
0 0
0 0
0 0
0 0
0 0
0 0
-0.816496581 0
0 0
0 0
0 0
-1.44337567 0
0 0
0 0
0 0
0 0
0 0
-0.5 0
0 0
0 0
0 0
0 0
0 0
0 0
0 0
3.5 0
0 0
0 0
0 0
5.65685425 0
0 0
0 0
3.17542648 0
0 0
0 0
0 0
0 0
0 0
-0.5 0
0 0
0 0
-0.645497224 0
0 0
0 0
0 0
0 0
3.5 0
0 0
0 0
0 0
5.65685425 0
0 0
0 0
3.17542648 0
0 0
0 0
0 0
0 0
0 0
-0.5 0
0 0
0 0
-0.645497224 0
0 0
0 0
-15.3575172 0
0 0
0 0
0 0
-26.5361389 0
0 0
0 0
-19 0
0 0
-5.8023702 0
0.989949494 0
0 0
0 0
3.11769145 0
0 0
2.55 0
0.447213596 0
0 0
0.193649167 0
-0.687386354 0
0.645497224 0
0 0
0 0
0 0
1.82574186 0
0 0
0 0
1.86338998 0
0 0
0 0
0.632455532 0
0 0
0 0
1.161895 0
0 0
0 0
0.166666667 0
0 0
0 0
0 0
0 0
0.645497224 0
0 0
0 0
0 0
1.82574186 0
0 0
0 0
1.86338998 0
0 0
0 0
0.632455532 0
0 0
0 0
1.161895 0
0 0
0 0
0.166666667 0
0 0
0 0
-4.91934955 0
0 0
0 0
0 0
-11.7004273 0
0 0
0 0
-12.1353478 0
0 0
-5.25475975 0
-2.00831604 0
0 0
0 0
-3.13049517 0
0 0
-1.09734528 0
0.577350269 0
0 0
1.25 0
0.295803989 0
-0.529150262 0
0 0
0 0
0 0
-1.87082869 0
0 0
0 0
-3.27326835 0
0 0
-2.43787085 0
-0.64807407 0
0 0
0 0
-2.04100815 0
0 0
-1.9966937 0
-0.292770022 0
0 0
-0.549350266 0
-0.05 0
