%%MatrixMarket matrix array real general
10 10
.5000000000
0.
0.
0.
0.
0.
0.
0.
0.
0.
0.
.5000000000
0.
0.
0.
0.
0.
0.
0.
0.
0.
0.
.5000000000
0.
0.
0.
0.
0.
0.
0.
1.224744872
0.
0.
-.5000000000
0.
0.
-.5000000000
0.
0.
0.
0.
1.224744872
0.
0.
-.5000000000
0.
0.
-.5000000000
0.
0.
1.936491673
0.
0.
-1.581138830
0.
.5000000000
-1.581138830
0.
.4082482906
.5000000000
0.
0.
0.
.5000000000
0.
0.
-.5000000000
0.
0.
0.
0.
0.
0.
0.
.5000000000
0.
0.
-.5000000000
0.
0.
0.
0.
0.
1.936491673
0.
-1.224744872
-1.936491673
0.
0.
1.224744872
0.
0.
0.
0.
0.
.5000000000
0.
0.
-.4082482906
.5000000000
