%%MatrixMarket matrix array real general
10 3
-.1091214168
-.2130104733e-1
-.3099243261e-2
-.2371675613
-.4629629630e-1
-.3327322972
0.
0.
0.
0.
-.1745942669
-.3408167572e-1
-.4958789216e-2
-.2138334330
-.417413576e-1
-.1690501721
0.
0.
0.
0.
-.1091214168
-.2130104733e-1
-.3099243261e-2
-.3012423004e-1
-.5880400639e-2
-.5368046793e-2
0.
0.
0.
0.
