%%MatrixMarket matrix array real general
10 6
-.3159092737
-.5471709127
-.7063946108
-.3450823119
-.5977000968
-.2433197725
-.8365190197e-1
-.1448893443
-.1444794727
-.1429827493e-1
-.3159092737
-.5471709127
-.7063946108
-.3450823119
-.5977000968
-.2433197725
-.3450823119
-.5977000968
-.5960092869
-.2433197725
-.3159092737
-.5471709127
-.7063946108
-.8365190197e-1
-.1448893443
-.1429827493e-1
-.3450823119
-.5977000968
-.1444794727
-.2433197725
-.1554952471
-.2693256684
-.3476979428
-.3487991569e-1
-.6041378615e-1
-.5050427176e-2
-.3111241817
-.5388828899
-.1103473935
-.4018322549
-.1554952471
-.2693256684
-.3476979428
-.3487991569e-1
-.6041378615e-1
-.5050427176e-2
-.3487991569e-1
-.6041378615e-1
-.1237096956e-1
-.5050427176e-2
-.1554952471
-.2693256684
-.3476979428
-.3111241817
-.5388828899
-.4018322549
-.3487991569e-1
-.6041378615e-1
-.1103473935
-.5050427176e-2
