%%MatrixMarket matrix array real general
3 10
1.414213562
1.414213562
1.414213562
.2760615734
.2760615734
.2760615734
.4016619266e-1
.4016619266e-1
.4016619266e-1
0.
0.
0.
0.
0.
0.
0.
0.
0.
.3904100212
1.732050808
3.073691594
.7620999228e-1
.338104996
.6000000000
0.
0.
0.
.6956988644e-1
1.369306394
4.312210572
