%%MatrixMarket matrix array real general
6 10
1.414213562
1.414213562
1.414213562
1.414213562
1.414213562
1.414213562
0.
0.
0.
0.
0.
0.
0.
0.
0.
0.
0.
0.
1.544810888
1.544810888
.3744798400
.3172293092
.3172293092
2.829642998
0.
0.
0.
0.
0.
0.
1.089256160
1.089256160
.6400829606e-1
.4593312490e-1
.4593312490e-1
3.654623760
.3744798400
1.544810888
1.544810888
2.829642998
.3172293092
.3172293092
0.
0.
0.
0.
0.
0.
.6467832594
2.668121790
.6467832594
1.003598394
.1125127183
1.003598394
.6400829606e-1
1.089256160
1.089256160
3.654623760
.4593312490e-1
.4593312490e-1
