%%MatrixMarket matrix array real general
6 6
.7071067810
0.
0.
0.
0.
0.
.2357022604
-.8333333333e-1
0.
.1443375673
0.
0.
.1178511302
-.6666666667e-1
.1360827635e-1
.1154700539
-.2357022604e-1
.3042903097e-1
.2357022604
.1666666667
0.
0.
0.
0.
.5892556509e-1
.1666666667e-1
-.2041241452e-1
.2886751347e-1
.2357022604e-1
0.
.1178511302
.1333333333
.4082482906e-1
0.
0.
0.
