%%MatrixMarket matrix array real general
6 6
1.414213562
0.
0.
0.
0.
0.
-2.
0.
0.
6.
0.
0.
2.449489743
0.
0.
-19.59591794
0.
24.49489743
-3.464101616
6.928203232
0.
3.464101616
0.
0.
4.242640686
-8.485281372
0.
-25.45584412
42.42640686
21.21320343
5.477225575
-32.86335345
32.86335345
-10.95445115
32.86335345
5.477225575
