%%MatrixMarket matrix array real general
3 6
1.414213562
1.414213562
1.414213562
-2.
-2.
-2.
2.449489743
2.449489743
2.449489743
-3.464101616
0.
3.464101616
4.242640686
0.
-4.242640686
5.477225575
-2.738612788
5.477225575
