%%MatrixMarket matrix array real general
6 6
0.
0.
0.
0.
-.3535533905
-.8215838362
0.
0.
0.
1.154700539
0.
0.
0.
0.
0.
0.
-.3535533905
.8215838362
0.
0.
0.
1.154700539
1.414213562
-1.095445115
0.
0.
0.
1.154700539
1.414213562
1.095445115
0.
0.
0.
0.
.7071067810
0.
