%%MatrixMarket matrix array real general
3 6
1.414213562
1.414213562
1.414213562
4.
1.
-2.
7.348469229
-1.224744872
2.449489743
0.
-1.732050808
-3.464101616
0.
-3.181980514
4.242640686
0.
1.369306394
5.477225575
