%%MatrixMarket matrix array real general
6 6
0.
0.
-.4082482906
0.
-.7071067810
-.3651483717
0.
1.
-1.632993162
.5773502693
0.
.7302967432
0.
0.
-.4082482906
0.
.3535533905
.4564354646
0.
1.
0.
.5773502693
0.
0.
0.
1.
0.
.5773502693
1.414213562
1.095445115
0.
0.
.8164965809
0.
.3535533905
-.9128709293e-1
