%%MatrixMarket matrix array real general
3 6
1.414213562
1.414213562
1.414213562
-2.
1.
4.
2.449489743
-1.224744872
7.348469229
3.464101616
1.732050808
0.
-4.242640686
3.181980514
0.
5.477225575
1.369306394
0.
