0	0
84.4269	0
168.854	0
253.281	0
337.708	0
422.134	0
506.561	0
590.988	0
675.415	0
759.842	0
844.269	0
928.696	0
1013.12	0
1097.55	0
1181.98	0
1266.4	0
1350.83	0
1435.26	0
1519.68	0
1604.11	8.36735e-10
1688.54	1.18062e-08
1772.96	7.97054e-08
1857.39	3.53062e-07
1941.81	1.18946e-06
2026.24	3.34068e-06
2110.66	8.3568e-06
2195.09	1.95841e-05
2279.51	4.43752e-05
2363.93	9.8438e-05
2448.36	0.000213188
2532.78	0.000446274
2617.21	0.000894021
2701.63	0.00170283
2786.06	0.0030754
2870.49	0.0052675
2954.91	0.00857229
3039.34	0.0132916
3123.76	0.0196965
3208.19	0.027982
3292.62	0.0382223
3377.05	0.0503344
3461.47	0.0640554
3545.9	0.0789389
3630.33	0.0943708
3714.75	0.109605
3799.18	0.123815
3883.61	0.136154
3968.03	0.145822
4052.46	0.152125
4136.89	0.154529
4221.31	0.152702
4305.74	0.146532
4390.17	0.136138
4474.59	0.121854
4559.02	0.104205
4643.45	0.0838699
4727.87	0.0616288
4812.3	0.0383172
4896.73	0.0147736
4981.15	-0.00820661
5065.58	-0.0299099
5150.01	-0.0497343
5234.43	-0.0672081
5318.86	-0.0819981
5403.29	-0.0939093
5487.71	-0.102875
5572.14	-0.108943
5656.57	-0.112257
5740.99	-0.113032
5825.42	-0.111541
5909.85	-0.108091
5994.27	-0.103002
6078.7	-0.0966005
6163.13	-0.0891989
6247.55	-0.0810902
6331.98	-0.0725397
6416.41	-0.0637807
6500.83	-0.0550128
6585.26	-0.0464019
6669.69	-0.0380815
6754.11	-0.0301565
6838.54	-0.0227064
6922.97	-0.0157896
7007.39	-0.00944713
7091.82	-0.00370663
7176.25	0.00141528
7260.67	0.00591072
7345.1	0.0097792
7429.53	0.0130268
7513.95	0.0156657
7598.38	0.0177139
7682.8	0.0191948
7767.23	0.0201372
7851.66	0.0205742
7936.08	0.020543
8020.51	0.0200843
8104.94	0.0192408
8189.36	0.0180576
8273.79	0.0165807
8358.22	0.0148571
8442.64	0.0129342
8527.07	0.0108591
8611.5	0.00867875
8695.92	0.00643893
8780.35	0.00418409
8864.78	0.00195662
8949.2	-0.000203725
9033.63	-0.00226042
9118.06	-0.00418069
9202.48	-0.00593596
9286.91	-0.00750223
9371.34	-0.00886025
9455.77	-0.00999567
9540.19	-0.0108991
9624.62	-0.0115658
9709.05	-0.011996
9793.47	-0.0121942
9877.9	-0.0121693
9962.33	-0.0119338
10046.8	-0.0115041
10131.2	-0.0108994
10215.6	-0.0101416
10300	-0.00925468
10384.5	-0.00826391
10468.9	-0.00719552
10553.3	-0.00607599
10637.7	-0.00493145
10722.2	-0.00378725
10806.6	-0.00266743
10891	-0.00159432
10975.4	-0.000588261
11059.9	0.000332702
11144.3	0.00115301
11228.7	0.00185971
11313.2	0.00244258
11397.6	0.00289413
11482	0.00320959
11566.4	0.00338686
11650.9	0.00342638
11735.3	0.00333102
11819.7	0.00310587
11904.1	0.00275804
11988.6	0.00229643
12073	0.00173146
12157.4	0.00107484
12241.9	0.000339281
12326.3	-0.000461738
12410.7	-0.00131424
12495.1	-0.002204
12579.6	-0.00311674
12664	-0.00403838
12748.4	-0.00495525
12832.8	-0.00585424
12917.3	-0.00672299
13001.7	-0.00755004
13086.1	-0.00832495
13170.5	-0.00903843
13255	-0.00968236
13339.4	-0.0102499
13423.8	-0.0107356
13508.3	-0.0111351
13592.7	-0.0114456
13677.1	-0.0116653
13761.5	-0.011794
13846	-0.0118322
13930.4	-0.0117819
14014.8	-0.0116458
14099.2	-0.0114278
14183.7	-0.0111323
14268.1	-0.0107648
14352.5	-0.0103309
14436.9	-0.00983727
14521.4	-0.00929053
14605.8	-0.0086978
14690.2	-0.00806634
14774.7	-0.00740351
14859.1	-0.00671669
14943.5	-0.00601316
15027.9	-0.00530007
15112.4	-0.00458435
15196.8	-0.00387266
15281.2	-0.00317134
15365.6	-0.00248632
15450.1	-0.00182318
15534.5	-0.00118701
15618.9	-0.000582468
15703.4	-1.37062e-05
15787.8	0.000515605
15872.2	0.0010023
15956.6	0.00144373
16041.1	0.00183773
16125.5	0.00218266
16209.9	0.00247735
16294.3	0.00272113
16378.8	0.00291379
16463.2	0.00305558
16547.6	0.00314718
16632	0.00318971
16716.5	0.00318465
16800.9	0.00313391
16885.3	0.00303973
16969.8	0.00290467
17054.2	0.00273164
17138.6	0.00252379
17223	0.00228454
17307.5	0.00201753
17391.9	0.00172657
17476.3	0.00141563
17560.7	0.00108881
17645.2	0.000750256
17729.6	0.000404165
17814	5.47234e-05
17898.5	-0.000293931
17982.9	-0.000637748
18067.3	-0.000972812
18151.7	-0.00129538
18236.2	-0.0016019
18320.6	-0.0018891
18405	-0.00215396
18489.4	-0.00239378
18573.9	-0.00260617
18658.3	-0.00278913
18742.7	-0.002941
18827.1	-0.0030605
18911.6	-0.00314675
18996	-0.00319923
19080.4	-0.00321781
19164.9	-0.00320273
19249.3	-0.00315457
19333.7	-0.00307425
19418.1	-0.00296298
19502.6	-0.00282226
19587	-0.00265386
19671.4	-0.00245973
19755.8	-0.00224204
19840.3	-0.0020031
19924.7	-0.00174534
