0	0
10.2917	0
20.5834	0
30.8749	0
41.1664	0
51.4578	0
61.7492	0
72.0405	0
82.3318	0
92.623	0
102.914	0
113.205	0
120.066	0
130.357	0
140.626	0
150.864	0
161.075	0
171.164	0
181.254	0
191.344	0
201.433	0
211.523	0
221.612	9.09495e-13
231.701	3.63798e-12
241.791	6.36646e-12
251.853	9.09495e-12
261.916	1.18234e-11
271.978	1.63709e-11
282.041	2.18279e-11
292.103	2.91038e-11
302.166	3.81988e-11
312.228	5.00222e-11
322.29	6.45741e-11
332.353	8.2764e-11
342.415	1.05501e-10
352.477	1.32786e-10
362.539	1.66438e-10
372.602	2.07365e-10
382.579	2.57387e-10
392.556	3.17414e-10
402.534	3.89264e-10
412.522	4.74756e-10
422.514	5.7571e-10
432.478	6.94854e-10
442.285	8.31278e-10
452.018	9.87711e-10
461.751	1.16779e-09
471.484	1.37607e-09
481.217	1.61344e-09
490.949	1.88447e-09
500.665	2.19188e-09
510.269	2.53567e-09
523.075	3.06136e-09
532.672	3.51156e-09
542.254	4.01633e-09
551.837	4.57931e-09
561.404	5.20413e-09
570.964	5.89807e-09
580.523	6.66842e-09
590.083	7.52061e-09
602.829	8.79845e-09
612.388	9.87347e-09
621.948	1.10576e-08
631.507	1.236e-08
641.067	1.37925e-08
650.626	1.53614e-08
660.186	1.70749e-08
672.932	1.95896e-08
682.491	2.16532e-08
692.05	2.38733e-08
701.61	2.62517e-08
711.154	2.87882e-08
720.691	3.14867e-08
730.229	3.43525e-08
742.945	3.84362e-08
752.482	4.1694e-08
762.019	4.51155e-08
771.556	4.86943e-08
781.093	5.24233e-08
790.63	5.62941e-08
800.167	6.02977e-08
812.883	6.58247e-08
822.42	7.00993e-08
831.957	7.4474e-08
841.494	7.89387e-08
851.031	8.34834e-08
860.568	8.81e-08
870.105	9.27794e-08
882.821	9.91049e-08
892.357	1.03906e-07
901.894	1.08752e-07
911.431	1.13638e-07
920.968	1.18563e-07
930.505	1.23528e-07
940.041	1.28537e-07
952.757	1.35292e-07
962.294	1.40427e-07
971.831	1.45633e-07
981.367	1.50925e-07
990.904	1.56323e-07
1000.44	1.61849e-07
1013.16	1.69464e-07
1022.69	1.75402e-07
1032.23	1.81577e-07
1041.77	1.88032e-07
1051.3	1.94813e-07
1060.84	2.01974e-07
1070.38	2.09576e-07
1083.09	2.20511e-07
1092.63	2.29406e-07
1102.16	2.3899e-07
1111.7	2.49351e-07
1121.24	2.60588e-07
1130.77	2.72805e-07
1140.31	2.86118e-07
1153.03	3.05788e-07
1162.56	3.22152e-07
1172.1	3.40058e-07
1181.64	3.5966e-07
1191.17	3.8112e-07
1200.71	4.04613e-07
1210.24	4.30326e-07
1222.96	4.68398e-07
1232.5	5.00067e-07
1242.03	5.34653e-07
1251.57	5.72391e-07
1261.11	6.13531e-07
1270.64	6.58334e-07
1280.18	7.0708e-07
1292.89	7.78714e-07
1302.4	8.37606e-07
1311.88	9.01324e-07
1321.37	9.70305e-07
1330.85	1.04491e-06
1340.34	1.12551e-06
1352.99	1.243e-06
1362.47	1.33938e-06
1371.96	1.44378e-06
1381.45	1.5566e-06
1390.93	1.67813e-06
1400.42	1.8086e-06
1413.07	1.99677e-06
1422.53	2.14834e-06
1431.99	2.30933e-06
1441.43	2.47954e-06
1450.89	2.65979e-06
1460.35	2.84994e-06
1472.95	3.1188e-06
1482.41	3.33285e-06
1491.87	3.55759e-06
1501.33	3.79334e-06
1510.79	4.04049e-06
1520.25	4.29944e-06
1532.86	4.66391e-06
1542.32	4.95236e-06
1551.78	5.25442e-06
1561.19	5.56877e-06
1570.49	5.89441e-06
1582.89	6.35253e-06
1592.19	6.71515e-06
1601.5	7.09511e-06
1610.8	7.49339e-06
1620.1	7.91103e-06
1632.5	8.49998e-06
1641.8	8.96733e-06
1651.11	9.45807e-06
1660.41	9.97356e-06
1672.81	1.07019e-05
1682.11	1.12808e-05
1691.41	1.18896e-05
1700.72	1.25298e-05
1710.02	1.32033e-05
1722.42	1.41561e-05
1731.72	1.49142e-05
1741.02	1.57113e-05
1750.33	1.65489e-05
1762.73	1.77309e-05
1772.03	1.86677e-05
1781.33	1.96488e-05
1790.63	2.06753e-05
1803.04	2.21163e-05
1812.34	2.32527e-05
1821.64	2.44378e-05
1830.94	2.56729e-05
1840.24	2.69591e-05
1852.64	2.87555e-05
1861.95	3.01656e-05
1871.25	3.16312e-05
1880.55	3.31538e-05
1892.95	3.52753e-05
1902.25	3.69373e-05
1911.56	3.86622e-05
1920.86	4.04521e-05
1930.16	4.23093e-05
1942.56	4.48943e-05
1951.86	4.69181e-05
1961.16	4.90177e-05
1970.47	5.11961e-05
1982.87	5.42285e-05
1992.17	5.66029e-05
2001.47	5.90669e-05
2010.77	6.16241e-05
2020.07	6.42782e-05
2032.48	6.79743e-05
2041.78	7.08698e-05
2051.08	7.38759e-05
2060.38	7.69969e-05
2072.78	8.13455e-05
2082.08	7.9963e-05
2091.38	7.88186e-05
2100.69	7.78964e-05
2113.09	7.69884e-05
2122.39	7.65329e-05
2131.69	7.62586e-05
2140.99	7.61553e-05
2150.29	7.62137e-05
2162.7	7.65292e-05
2172	7.69348e-05
2181.3	7.74784e-05
2190.6	7.81548e-05
2203	7.92556e-05
2212.3	8.02258e-05
2221.6	8.13168e-05
2230.9	8.25264e-05
2240.21	8.38532e-05
2252.61	8.58031e-05
2261.91	8.74007e-05
2271.21	8.91146e-05
2280.51	9.09457e-05
2292.91	9.35719e-05
2302.21	9.56826e-05
2311.52	9.79168e-05
2320.82	0.000100277
2330.12	0.000102767
2342.52	0.000106295
2351.82	0.000109101
2361.12	0.00011205
2370.42	0.000115146
2382.82	0.000119511
2392.13	0.00012297
2401.43	0.000126593
2410.73	0.000130385
2420.03	0.000134354
2432.43	0.00013993
2441.73	0.000144334
2451.03	0.000148938
2460.33	0.000153736
2472.74	0.000160411
2482.04	0.000165612
2491.34	0.000170972
2500.64	0.000176486
2513.04	0.000184072
2522.34	0.000189935
2531.64	0.000195948
2540.94	0.000202113
2550.25	0.000208433
2562.65	0.000217109
2571.95	0.000223811
2581.25	0.000230687
2590.55	0.000237745
2602.95	0.000247455
2612.25	0.000254975
2621.56	0.00026271
2630.86	0.000270672
2640.16	0.000278875
2652.56	0.00029021
2661.86	0.00029903
2671.16	0.000308139
2680.47	0.000317553
2692.87	0.000330606
2702.17	0.000340791
2711.47	0.000351332
2720.77	0.000362243
2730.07	0.00037354
2742.48	0.000389229
2751.78	0.000401485
2761.08	0.000414178
2770.38	0.000427324
2782.78	0.000445588
2792.09	0.000459861
2801.39	0.000474648
2810.69	0.000489971
2823.09	0.000531911
2832.4	0.000568565
2841.7	0.000605035
2851	0.000641253
2860.31	0.000677223
2872.73	0.000724843
2882.05	0.00076031
2891.37	0.000795632
2900.69	0.00083089
2910.01	0.000866177
2922.44	0.000913451
2931.76	0.000949219
2941.08	0.000985387
2950.4	0.00102208
2962.83	0.00107202
2972.15	0.00111042
2981.47	0.00114975
2990.79	0.00119015
3000.11	0.00123173
3012.53	0.00128923
3021.85	0.00133395
3031.17	0.00137984
3040.49	0.00142676
3052.92	0.00149076
3062.24	0.00153981
3071.56	0.00158977
3080.88	0.00164071
3090.2	0.00169273
3102.63	0.00176396
3111.95	0.001819
3121.27	0.00187563
3130.59	0.00193406
3143.01	0.00201512
3152.33	0.00207854
3161.65	0.00214442
3170.97	0.00221297
3180.29	0.00228436
3192.72	0.00238432
3202.04	0.00249548
3211.36	0.00266824
3220.68	0.00283316
3233.1	0.00304195
3242.42	0.00319219
3251.74	0.00333912
3261.06	0.00348486
3270.38	0.0036315
3282.81	0.0038319
3292.13	0.00398828
3301.45	0.00415139
3310.77	0.00432003
3320.09	0.00449315
3332.51	0.00473109
3341.83	0.00491614
3351.15	0.00510866
3360.47	0.00531078
3372.9	0.00559887
3382.22	0.00583109
3391.54	0.0063171
3400.86	0.00678476
3410.18	0.0072374
3422.61	0.00784227
3431.93	0.00831683
3441.25	0.00881869
3450.57	0.00933574
3462.99	0.0100559
3472.31	0.0106426
3481.63	0.0118294
3490.95	0.0128417
3500.27	0.0138543
3512.7	0.0154531
3522.02	0.0172489
3531.34	0.0195442
3540.66	0.0219822
3553.08	0.0257712
3562.4	0.029105
3571.72	0.032412
3581.04	0.0354293
3590.36	0.0382459
3602.79	0.0419775
3612.11	0.0448167
3621.43	0.047707
3630.75	0.0506746
3640.07	0.0537141
3652.5	0.0578047
3661.82	0.0608514
3671.14	0.0638748
3680.46	0.0668968
3692.89	0.0709755
3702.21	0.0741028
3711.53	0.0772987
3720.85	0.0805539
3730.17	0.0838485
3742.6	0.0882696
3751.92	0.091592
3761.24	0.0949191
3770.56	0.0982585
3782.98	0.102753
3792.33	0.106182
3801.68	0.109665
3811.02	0.113208
3820.37	0.116812
3832.83	0.121712
3842.17	0.125462
3851.52	0.12928
3860.87	0.133173
3870.21	0.137149
3882.67	0.142589
3892.02	0.146775
3901.37	0.151055
3910.71	0.155426
3920.06	0.159891
3932.52	0.166
3941.86	0.170709
3951.21	0.17554
3960.56	0.180509
3973.02	0.187374
3982.36	0.192722
3991.71	0.198256
4001.06	0.203991
4010.4	0.209942
4022.86	0.218239
4032.21	0.224754
4041.56	0.231537
4050.9	0.238602
4060.25	0.245965
4072.71	0.256265
4082.06	0.264368
4091.4	0.272804
4100.75	0.281584
4110.1	0.290717
4122.56	0.303456
4131.91	0.31344
4141.25	0.323799
4150.6	0.334537
4163.06	0.349444
4172.41	0.361064
4181.75	0.373056
4191.1	0.385408
4200.45	0.398105
4213.02	0.415683
4222.44	0.42922
4231.87	0.443025
4241.29	0.457064
4250.71	0.471297
4260.14	0.485678
4272.79	0.505118
4282.27	0.519734
4291.76	0.534316
4301.25	0.5488
4310.74	0.56311
4320.23	0.577171
4332.89	0.595396
4342.38	0.608564
4351.87	0.621209
4361.36	0.63324
4370.86	0.644565
4380.35	0.65509
4393	0.667713
4402.49	0.675996
4411.99	0.683156
4421.48	0.689096
4430.97	0.693722
4440.46	0.696939
4453.12	0.698883
4462.61	0.698472
4472.1	0.696373
4481.59	0.692512
4491.08	0.686826
4500.58	0.679256
4510.07	0.669756
4522.72	0.654019
4532.22	0.639877
4541.71	0.623713
4551.2	0.605519
4560.69	0.585303
4570.18	0.563078
4582.84	0.530368
4592.33	0.503576
4601.82	0.474901
4611.32	0.4444
4620.81	0.412134
4630.3	0.378173
4642.96	0.330378
4652.45	0.292738
4661.94	0.253636
4671.43	0.213169
4680.92	0.171288
4690.42	0.128356
4703.07	0.0692515
4712.56	0.0232691
4722.06	-0.0131812
4731.58	-0.0535559
4741.12	-0.0826084
4750.65	-0.101114
4760.19	-0.11951
4772.91	-0.130097
4782.44	-0.146648
4791.98	-0.160067
4801.52	-0.171524
4811.05	-0.18155
4820.59	-0.189876
4830.13	-0.197659
4842.84	-0.207424
4852.38	-0.214202
4861.92	-0.206134
4871.45	-0.211746
4880.99	-0.216751
4890.53	-0.223545
4900.07	-0.229301
4912.78	-0.23568
4922.32	-0.239718
4931.85	-0.24328
4941.39	-0.246484
4950.93	-0.24942
4960.47	-0.251968
4970	-0.254132
4982.72	-0.256921
4992.26	-0.258863
5001.79	-0.260776
5011.33	-0.262632
5020.87	-0.264409
5030.4	-0.266091
5043.12	-0.268165
5052.66	-0.269534
5062.19	-0.261448
5071.73	-0.262815
5081.27	-0.264191
5090.8	-0.265894
5100.34	-0.26751
5113.06	-0.269342
5122.59	-0.270463
5132.13	-0.271397
5141.67	-0.272165
5151.2	-0.272785
5160.74	-0.273266
5170.28	-0.273622
5182.94	-0.273922
5192.44	-0.274031
5201.92	-0.274054
5211.41	-0.274
5220.89	-0.273878
5230.38	-0.273696
5243.03	-0.273371
5252.51	-0.272996
5262	-0.272604
5271.49	-0.272203
5280.97	-0.271793
5290.46	-0.271326
5303.1	-0.270578
5312.59	-0.270007
5322.08	-0.269428
5331.55	-0.268839
5341.01	-0.26824
5350.48	-0.267629
5363.05	-0.266797
5372.51	-0.266156
5381.97	-0.265502
5391.43	-0.264835
5400.88	-0.264158
5410.34	-0.263468
5422.95	-0.262519
5432.41	-0.261788
5441.87	-0.257094
5451.33	-0.256787
5460.79	-0.256468
5470.26	-0.256137
5482.86	-0.255677
5492.32	-0.255319
5501.62	-0.254954
5510.92	-0.254575
5520.22	-0.254181
5532.63	-0.253635
5541.93	-0.253211
5551.23	-0.252776
5560.53	-0.25233
5572.93	-0.251718
5582.24	-0.251248
5591.54	-0.250768
5600.84	-0.250277
5610.14	-0.249777
5622.54	-0.249095
5631.85	-0.248571
5641.15	-0.248036
5650.45	-0.247489
5662.85	-0.24674
5672.16	-0.246161
5681.46	-0.245566
5690.76	-0.244954
5700.06	-0.244324
5712.46	-0.243455
5721.77	-0.242779
5731.07	-0.242082
5740.37	-0.241365
5752.77	-0.240379
5762.07	-0.239618
5771.38	-0.238839
5780.68	-0.238043
5793.08	-0.236954
5802.38	-0.236148
5811.68	-0.235331
5820.99	-0.234487
5830.29	-0.233618
5842.69	-0.232423
5851.99	-0.2315
5861.29	-0.230553
5870.6	-0.229559
5883	-0.22813
5892.3	-0.227034
5901.6	-0.225916
5910.9	-0.224778
5920.21	-0.22362
5932.61	-0.222048
5941.91	-0.220847
5951.21	-0.219628
5960.51	-0.218392
5972.92	-0.216717
5982.22	-0.215442
5991.52	-0.21415
6000.82	-0.212843
6010.12	-0.211521
6022.53	-0.209734
6031.83	-0.208378
6041.13	-0.207008
6050.43	-0.205625
6062.83	-0.203762
6072.14	-0.202351
6081.44	-0.200928
6090.74	-0.199495
6100.04	-0.198052
6112.44	-0.196114
6121.75	-0.194995
6131.05	-0.193831
6140.35	-0.192631
6152.75	-0.190986
6162.05	-0.189726
6171.35	-0.188447
6180.66	-0.187149
6193.06	-0.185385
6202.36	-0.184042
6211.66	-0.182683
6220.96	-0.18131
6230.27	-0.179923
6242.67	-0.178056
6251.97	-0.176643
6261.27	-0.175218
6270.57	-0.173782
6282.98	-0.171849
6292.28	-0.170387
6301.58	-0.168914
6310.88	-0.16743
6320.18	-0.165934
6332.59	-0.163922
6341.89	-0.162399
6351.19	-0.160865
6360.49	-0.159326
6372.89	-0.157271
6382.2	-0.155732
6391.5	-0.154197
6400.8	-0.152666
6410.1	-0.151141
6422.51	-0.149113
6431.81	-0.147596
6441.11	-0.146079
6450.41	-0.144562
6462.81	-0.142535
6472.12	-0.141007
6481.42	-0.139471
6490.72	-0.137925
6500.02	-0.136366
6512.42	-0.134266
6521.73	-0.132672
6531.03	-0.13106
6540.33	-0.127887
6552.73	-0.123894
6562.03	-0.121071
6571.34	-0.118376
6580.64	-0.115789
6593.04	-0.112465
6602.34	-0.110037
6611.64	-0.107639
6620.95	-0.105253
6630.25	-0.102864
6642.65	-0.0996466
6651.95	-0.0972001
6661.25	-0.094739
6670.56	-0.0922764
6682.96	-0.0889941
6692.26	-0.0865265
6701.56	-0.0840425
6710.86	-0.0815287
6720.17	-0.0789724
6732.57	-0.0747816
6741.87	-0.0701699
6751.17	-0.0656998
6760.48	-0.0614055
6772.88	-0.0558541
6782.18	-0.0517163
6791.48	-0.0475298
6800.78	-0.043257
6810.09	-0.0389501
6822.51	-0.0332737
6831.83	-0.0290326
6841.15	-0.0236095
6850.47	-0.0167208
6862.9	-0.00875008
6872.22	-0.00268136
6881.54	0.00373148
6890.86	0.0127281
6900.18	0.0217317
6912.61	0.0339513
6921.93	0.0435911
6931.25	0.0522602
6940.57	0.0589964
6953	0.0650616
6962.32	0.0683879
6971.64	0.0710927
6980.96	0.0732487
6990.28	0.0750109
7002.71	0.0770841
7012.03	0.0784756
7021.35	0.0796244
7030.67	0.0804634
7043.09	0.0811823
7052.41	0.0815912
7061.74	0.0820458
7071.06	0.0826446
7080.38	0.0834167
7092.8	0.0846263
7102.12	0.0855341
7111.44	0.0863251
7120.76	0.0869299
7130.08	0.0873237
7142.51	0.0875447
7151.83	0.0875325
7161.15	0.0874223
7170.47	0.0872601
7182.9	0.0870181
7192.22	0.0868372
7201.54	0.0866639
7210.86	0.0865054
7220.18	0.0863775
7232.61	0.0862928
7241.93	0.0863198
7251.25	0.0864307
7260.57	0.0866083
7273	0.0868814
7282.32	0.0870457
7291.64	0.0871184
7300.96	0.0870624
7310.28	0.086861
7322.7	0.0863763
7332.02	0.0858807
7341.34	0.0853065
7350.66	0.0846853
7363.09	0.0838279
7372.41	0.0831873
7381.73	0.082564
7391.05	0.0819702
7400.37	0.0814192
7412.8	0.0807784
7422.12	0.0803898
7431.44	0.0800971
7440.76	0.0799108
7450.08	0.079835
7462.51	0.0799004
7471.83	0.0800618
7481.15	0.0803044
7490.47	0.0806137
7502.9	0.0811077
7512.22	0.0815273
7521.54	0.0819828
7530.86	0.0824723
7540.18	0.0829962
7552.61	0.0837506
7561.93	0.0843596
7571.25	0.0850051
7580.57	0.0856845
7593.03	0.086636
7602.38	0.0873715
7611.72	0.0881142
7621.07	0.0888522
7630.42	0.0895727
7642.88	0.0904852
7652.22	0.0911188
7661.57	0.0916985
7670.92	0.0922169
7680.26	0.0926692
7692.72	0.0931648
7702.07	0.0934556
7711.42	0.0936789
7720.76	0.0938383
7730.11	0.0939388
7742.57	0.0939914
7751.92	0.0939785
7761.26	0.093928
7770.61	0.0938463
7783.07	0.0936977
7792.42	0.0935617
7801.77	0.0934077
7811.11	0.0932371
7820.46	0.0930507
7832.92	0.0927784
7842.27	0.0925576
7851.61	0.0923241
7860.96	0.0920807
7870.31	0.0918309
7882.77	0.0914955
7892.11	0.0912487
7901.46	0.0910112
7910.81	0.090787
7920.15	0.0905789
7932.62	0.0903279
7941.96	0.0901577
7951.31	0.0899986
7960.65	0.0898444
7970	0.0896869
7982.46	0.0894549
7991.81	0.0892505
8001.16	0.0890079
8010.5	0.0887168
8022.96	0.0882373
8032.31	0.0877999
8041.66	0.0872906
8051	0.0867071
8060.35	0.0860494
8072.81	0.0850616
8082.16	0.0842436
8091.51	0.0833663
8100.85	0.0824369
8110.2	0.0814632
8122.66	0.0801091
8132.01	0.0790612
8141.35	0.0779925
8150.7	0.0769086
8160.05	0.0758139
8172.51	0.0743432
8181.85	0.0732353
8191.2	0.0721252
8200.55	0.0710144
8213.01	0.0695343
8222.36	0.0684267
8231.7	0.067323
8241.05	0.0662249
8250.4	0.0651343
8262.86	0.0636955
8272.2	0.0626304
8281.55	0.061579
8290.9	0.0605425
8300.24	0.0595211
8312.7	0.0581813
8322.05	0.0571905
8331.4	0.056208
8340.74	0.055229
8350.09	0.0542479
8362.55	0.0529242
8371.9	0.0519096
8381.25	0.0508668
8390.59	0.049787
8403.05	0.0482742
8412.4	0.0470735
8421.75	0.045807
8431.09	0.044467
8440.44	0.0430465
8452.9	0.0410161
8462.25	0.0393829
8471.6	0.0376481
8480.94	0.0358042
8490.29	0.0338417
8502.75	0.0310156
8512.1	0.028711
8521.44	0.0262128
8530.79	0.0234747
8540.14	0.0204351
8552.6	0.0157946
8561.94	0.0113424
8571.29	0.00567847
8580.64	0.000169068
8593.1	-0.00528397
8602.45	-0.00641044
8611.79	-0.0100413
8621.14	-0.0133596
8630.49	-0.0163157
8642.95	-0.0201936
8652.3	-0.0227299
8661.65	-0.0250399
8670.99	-0.0244093
8680.34	-0.0260955
8692.81	-0.0290046
8702.15	-0.0309272
8711.5	-0.0325595
8720.85	-0.0339664
8730.2	-0.0352136
8742.66	-0.0367136
8752.01	-0.0377522
8761.36	-0.0387345
8770.71	-0.0397155
8780.05	-0.0406606
8792.52	-0.0418576
8801.87	-0.0427139
8811.21	-0.0435376
8820.56	-0.0443307
8833.03	-0.0453433
8842.37	-0.043401
8851.72	-0.0442844
8861.07	-0.0452412
8870.42	-0.0461159
8882.84	-0.0471662
8892.14	-0.0478812
8901.44	-0.0485391
8910.74	-0.0491432
8920.04	-0.0496984
8932.45	-0.0503714
8941.75	-0.0508313
8951.05	-0.0512574
8960.35	-0.0516538
8972.76	-0.0521436
8982.06	-0.0524866
8991.36	-0.0528125
9000.66	-0.053125
9013.06	-0.0534442
9022.37	-0.0536605
9031.67	-0.053937
9040.97	-0.054214
9050.27	-0.054491
9062.67	-0.0548587
9071.98	-0.055132
9081.28	-0.0554021
9090.58	-0.055668
9102.98	-0.0560141
9112.29	-0.0562662
9121.59	-0.056511
9130.89	-0.0567479
9140.19	-0.0569764
9152.59	-0.0572671
9161.9	-0.0574736
9171.2	-0.0576666
9180.5	-0.0532612
9192.9	-0.0536077
9202.2	-0.0538471
9211.51	-0.0540733
9220.81	-0.0542871
9230.11	-0.0544891
9242.51	-0.0547401
9251.81	-0.0549109
9261.12	-0.0550657
9270.42	-0.0552053
9282.82	-0.0553693
9292.12	-0.055477
9301.42	-0.0555726
9310.73	-0.0556568
9320.03	-0.0557305
9332.43	-0.0558135
9341.73	-0.0558653
9351.03	-0.0559087
9360.34	-0.0559429
9372.74	-0.0559743
9382.04	-0.0559874
9391.34	-0.0559918
9400.64	-0.0559879
9413.05	-0.0559703
9422.35	-0.0559481
9431.65	-0.0559185
9440.95	-0.0558816
9450.26	-0.0558378
9462.66	-0.0557688
9471.96	-0.0557095
9481.26	-0.0556442
9490.56	-0.0555718
9502.97	-0.0554616
9512.27	-0.05537
9521.57	-0.0552693
9530.87	-0.0551602
9540.17	-0.0550435
9552.58	-0.054877
9561.88	-0.054745
9571.18	-0.0546351
9580.48	-0.0545726
9592.88	-0.0544745
9602.19	-0.0543905
9611.49	-0.0542985
9620.79	-0.0541989
9630.09	-0.0540924
9642.49	-0.0539402
9651.8	-0.0538191
9661.1	-0.0536923
9670.4	-0.0535602
9682.8	-0.0533763
9692.1	-0.0532328
9701.41	-0.0530848
9710.71	-0.0529325
9720.01	-0.052776
9732.41	-0.052561
9741.72	-0.0523952
9751.02	-0.0522256
9760.32	-0.0520523
9772.72	-0.0518155
9782.02	-0.0516337
9791.33	-0.0514484
9800.63	-0.0512595
9813.03	-0.0510024
9822.33	-0.0508055
9831.63	-0.0506052
9840.94	-0.0506303
9850.24	-0.0504424
9862.64	-0.0501904
9871.94	-0.0500002
9881.24	-0.0498089
9890.55	-0.0496163
9902.95	-0.0493573
9912.25	-0.0491614
9921.55	-0.0489639
9930.85	-0.0487646
9940.16	-0.0485634
9952.56	-0.0482921
9961.86	-0.0480861
9971.16	-0.0478778
9980.46	-0.0476671
9992.87	-0.0454844
10002.2	-0.0451966
10011.5	-0.04496
10020.8	-0.0447213
10030.1	-0.0444804
10042.5	-0.0441555
10051.8	-0.0439089
10061.1	-0.0436597
10070.4	-0.0434079
10082.8	-0.0430677
10092.1	-0.0428093
10101.4	-0.0425479
10110.7	-0.0422835
10123.1	-0.0419262
10132.4	-0.0416547
10141.7	-0.0413799
10151	-0.041102
10160.3	-0.0408208
10172.7	-0.0404408
10182	-0.040152
10191.3	-0.0398599
10200.6	-0.0395645
10213	-0.0391655
10222.3	-0.0388623
10231.6	-0.0385558
10240.9	-0.0382459
10250.2	-0.0379327
10262.6	-0.0375126
10271.9	-0.0371962
10281.3	-0.036878
10290.6	-0.0365582
10303	-0.036129
10312.3	-0.0358047
10321.6	-0.0354784
10331	-0.0351497
10340.3	-0.0348187
10352.7	-0.0343735
10362	-0.0340366
10371.4	-0.0336972
10380.7	-0.0333552
10393.1	-0.0328951
10402.4	-0.0325469
10411.7	-0.0321962
10421.1	-0.0318429
10430.4	-0.0314871
10442.8	-0.0310087
10452.1	-0.0306471
10461.4	-0.0302831
10470.8	-0.0299169
10480.1	-0.0295483
10492.5	-0.0290536
10501.8	-0.0286802
10511.2	-0.028305
10520.5	-0.0279282
10532.9	-0.0274247
10542.2	-0.0270469
10551.5	-0.0266688
10560.9	-0.0262907
10570.2	-0.0259124
10582.6	-0.0254079
10591.9	-0.0250295
10601.3	-0.0246511
10610.6	-0.0242729
10623	-0.0237687
10632.3	-0.0233908
10641.6	-0.0229764
10651	-0.0225474
10660.3	-0.0221227
10672.7	-0.0215629
10682	-0.0211478
10691.4	-0.0207365
10700.7	-0.0203292
10713.1	-0.019792
10722.4	-0.0193936
10731.7	-0.0189988
10741.1	-0.0186077
10750.4	-0.0182211
10762.8	-0.0177144
10772.1	-0.0173405
10781.4	-0.0169714
10790.8	-0.0166066
10800.1	-0.0162459
10812.5	-0.0157704
10821.8	-0.0154177
10831.2	-0.015068
10840.5	-0.0147209
10852.9	-0.0142622
10862.2	-0.0138766
10871.5	-0.0135095
10880.9	-0.0131581
10890.2	-0.0128199
10902.6	-0.012386
10911.9	-0.012071
10921.3	-0.011763
10930.6	-0.0114608
10943	-0.0110648
10952.3	-0.0107717
10961.6	-0.0104811
10971	-0.0101934
10980.3	-0.00991119
10992.7	-0.00954218
11002	-0.00926992
11011.4	-0.00900066
11020.7	-0.00873368
11033.1	-0.00838001
11042.4	-0.00811564
11051.7	-0.00785137
11061.1	-0.00758665
11070.4	-0.00732099
11082.8	-0.00696462
11092.1	-0.00669563
11101.4	-0.00642526
11110.8	-0.00615347
11120.1	-0.00588019
11132.5	-0.0055133
11141.8	-0.005236
11151.2	-0.00495666
11160.5	-0.00467506
11172.9	-0.00429642
11182.3	-0.00401565
11191.6	-0.00373807
11201	-0.00346211
11210.3	-0.00318657
11222.8	-0.00281869
11232.1	-0.00254166
11241.5	-0.00226303
11250.8	-0.00198229
11260.1	-0.00169899
11272.6	-0.00123446
11282	-0.000804426
11291.3	-0.000360159
11300.6	9.16467e-05
11313.1	0.000698447
11322.5	0.00115356
11331.8	0.00160719
11341.2	0.00205876
11350.5	0.00250802
11363	0.00310201
11372.3	0.00354348
11381.7	0.00398161
11391	0.00441974
11400.3	0.00486056
11412.8	0.0054527
11422.2	0.00589997
11431.5	0.00634966
11440.8	0.00680005
11450.2	0.00724931
11462.7	0.00784533
11472	0.00893195
11481.3	0.00997222
11490.7	0.0109348
11500	0.0118118
11512.5	0.0128542
11522	0.0135715
11531.4	0.014243
11540.8	0.0148749
11550.2	0.0157089
11562.8	0.0167057
11572.3	0.0173575
11581.8	0.0179564
11591.3	0.0185396
11600.8	0.0194938
11610.4	0.0207731
11623.1	0.0225598
11632.7	0.0238124
11642.2	0.0250278
11651.8	0.0262549
11661.4	0.0274405
11670.9	0.0286208
11680.5	0.0298523
11690	0.0311362
11702.8	0.0328786
11712.3	0.0341856
11721.9	0.0355018
11731.5	0.0368425
11741	0.0382205
11750.6	0.0396427
11760.1	0.0411052
11772.9	0.0430878
11782.4	0.0445624
11792	0.0459908
11801.6	0.0473476
11811.1	0.0486219
11820.7	0.0498183
11830.2	0.050951
11843	0.0523893
11852.5	0.0534272
11862.1	0.054432
11871.7	0.0553993
11881.2	0.0563225
11890.8	0.0571954
11900.3	0.0580142
11913.1	0.0590196
11922.6	0.059709
11932.2	0.0603432
11941.8	0.0609218
11951.3	0.0614441
11960.9	0.0619091
11970.4	0.062316
11980	0.0626643
11992.7	0.0630368
