0	0
11.4535	0
22.9069	0
34.3602	0
40.0868	0
51.54	0
62.9931	0
74.4463	0
80.1728	0
91.626	0
103.079	0
114.532	0
120.259	0
131.712	0
143.166	0
154.525	0
160.204	0
171.563	0
182.867	0
194.17	0
205.624	0
211.351	0
222.804	0
234.155	0
245.589	0
251.296	0
262.711	0
274.126	1.81899e-12
285.54	3.63798e-12
291.248	4.54747e-12
302.662	7.27596e-12
314.077	1.09139e-11
325.491	1.63709e-11
331.198	2.00089e-11
342.613	2.81943e-11
353.946	4.00178e-11
365.142	5.54792e-11
370.74	6.45741e-11
381.936	8.73115e-11
393.132	1.17325e-10
404.327	1.56433e-10
415.523	2.06455e-10
421.026	2.35559e-10
432.031	3.04681e-10
443.037	3.91083e-10
454.043	4.98403e-10
465.048	6.3028e-10
470.551	7.06677e-10
481.556	8.84029e-10
492.582	1.09685e-09
503.607	1.35151e-09
514.632	1.65346e-09
520.144	1.82445e-09
531.166	2.21098e-09
541.819	2.64754e-09
552.473	3.15322e-09
563.127	3.7362e-09
573.781	4.4065e-09
584.435	5.1723e-09
595.093	6.04541e-09
600.425	6.52562e-09
611.087	7.58246e-09
621.749	8.77753e-09
632.412	1.01254e-08
643.074	1.16415e-08
653.736	1.33441e-08
664.396	1.52513e-08
675.056	1.73832e-08
680.386	1.85391e-08
691.047	2.10412e-08
701.707	2.38078e-08
712.337	2.68428e-08
722.967	3.01634e-08
733.597	3.37805e-08
744.227	3.77049e-08
754.857	4.19486e-08
760.172	4.41942e-08
770.802	4.89417e-08
781.432	5.40449e-08
792.062	5.9521e-08
802.692	6.53836e-08
813.322	7.16409e-08
823.951	7.82957e-08
834.581	8.53488e-08
845.211	9.27976e-08
850.526	9.66684e-08
861.156	1.04701e-07
871.786	1.13117e-07
882.414	1.2191e-07
893.042	1.31074e-07
903.67	1.40606e-07
914.298	1.50505e-07
924.926	1.6077e-07
930.24	1.6604e-07
940.87	1.7686e-07
951.5	1.88059e-07
962.129	1.99646e-07
972.759	2.11639e-07
983.389	2.24057e-07
994.018	2.36927e-07
1004.65	2.50284e-07
1015.28	2.64167e-07
1020.59	2.71321e-07
1031.22	2.86088e-07
1041.85	3.01518e-07
1052.48	3.17686e-07
1063.11	3.34673e-07
1073.74	3.52573e-07
1084.37	3.71492e-07
1095	3.91549e-07
1100.31	4.02046e-07
1110.94	4.24064e-07
1121.57	4.4758e-07
1132.2	4.72764e-07
1142.83	4.99806e-07
1153.46	5.28908e-07
1164.09	5.60292e-07
1174.72	5.94201e-07
1180.03	6.12182e-07
1190.66	6.50369e-07
1201.29	6.91765e-07
1211.92	7.36681e-07
1222.55	7.85448e-07
1233.18	8.3842e-07
1243.81	8.95978e-07
1254.44	9.58523e-07
1265.07	1.02649e-06
1270.38	1.06265e-06
1281.01	1.13961e-06
1291.64	1.22319e-06
1302.27	1.31393e-06
1312.9	1.41239e-06
1323.53	1.51918e-06
1334.11	1.63444e-06
1344.7	1.75926e-06
1355.28	1.89437e-06
1360.57	1.96601e-06
1371.16	2.11796e-06
1381.74	2.2824e-06
1392.32	2.46095e-06
1402.91	2.65455e-06
1413.49	2.8639e-06
1424.07	3.08957e-06
1434.66	3.33204e-06
1445.11	3.58842e-06
1450.33	3.72304e-06
1460.78	4.00541e-06
1471.23	4.30565e-06
1481.68	4.62421e-06
1492.13	4.96159e-06
1502.58	5.31837e-06
1513.03	5.69516e-06
1523.48	6.09267e-06
1533.92	6.51171e-06
1544.37	6.95315e-06
1554.82	7.41801e-06
1560.05	7.65956e-06
1570.5	8.16165e-06
1580.94	8.69015e-06
1591.39	9.2465e-06
1601.84	9.83225e-06
1612.29	1.04491e-05
1622.74	1.10989e-05
1633.19	1.17837e-05
1643.64	1.25057e-05
1654.09	1.32672e-05
1664.54	1.40707e-05
1674.98	1.49188e-05
1680.21	1.53606e-05
1690.66	1.62811e-05
1701.11	1.72539e-05
1711.56	1.8282e-05
1722	1.93691e-05
1732.45	2.05188e-05
1742.9	2.1735e-05
1753.35	2.30211e-05
1763.8	2.43803e-05
1774.25	2.58155e-05
1784.69	2.73285e-05
1795.14	2.89223e-05
1800.36	2.97505e-05
1810.81	3.14705e-05
1821.26	3.32771e-05
1831.71	3.51725e-05
1842.15	3.71585e-05
1852.6	3.9239e-05
1863.05	4.14161e-05
1873.5	4.36926e-05
1883.95	4.60716e-05
1894.4	4.85564e-05
1904.84	5.11505e-05
1910.07	5.24899e-05
1920.52	5.52555e-05
1930.97	5.81409e-05
1941.41	6.11508e-05
1951.86	6.42903e-05
1962.31	6.75651e-05
1972.76	7.0981e-05
1983.21	7.45444e-05
1993.66	7.8262e-05
2004.1	8.21408e-05
2014.55	8.61883e-05
2025	9.04123e-05
2030.23	9.25931e-05
2040.67	9.70973e-05
2051.12	0.000101799
2061.57	0.000106708
2072.02	0.000111834
2082.47	0.000117186
2092.92	0.000115511
2103.36	0.000114214
2113.81	0.000113266
2124.26	0.000112644
2134.71	0.000112327
2145.16	0.000112299
2150.38	0.000112388
2160.83	0.000112762
2171.28	0.000113389
2181.73	0.000114256
2192.18	0.000115354
2202.62	0.000116676
2213.07	0.000118214
2223.52	0.000119965
2233.97	0.000121924
2244.42	0.00012409
2254.86	0.000126463
2260.09	0.000127727
2270.54	0.000130409
2280.99	0.000133302
2291.43	0.000136407
2301.88	0.000139729
2312.33	0.000143272
2322.78	0.000147044
2333.23	0.000151052
2343.67	0.000155302
2354.12	0.000159803
2364.57	0.000164566
2375.02	0.000169599
2380.24	0.00017222
2390.69	0.000177678
2401.14	0.000183435
2411.59	0.000189501
2422.04	0.00019589
2432.49	0.000202614
2442.93	0.000209683
2453.3	0.000217063
2463.67	0.000224819
2474.04	0.000232941
2484.41	0.000241402
2494.78	0.00025018
2505.15	0.000259259
2510.33	0.000263909
2520.7	0.000273424
2531.07	0.000283225
2541.44	0.00029331
2551.81	0.000303684
2562.18	0.000314352
2572.55	0.000325325
2582.92	0.000336612
2593.29	0.000348229
2603.66	0.000360191
2614.03	0.000372515
2624.4	0.000385223
2634.77	0.000398337
2645.14	0.000411882
2650.32	0.000418824
2660.69	0.000433068
2671.06	0.000447814
2681.43	0.000463095
2691.8	0.000478942
2702.17	0.000495388
2712.54	0.000512465
2722.91	0.000530205
2733.28	0.000548638
2743.65	0.000567796
2754.02	0.00058771
2764.39	0.000608413
2774.76	0.000629938
2785.13	0.000652319
2790.31	0.000663842
2800.68	0.000687576
2811.05	0.000712261
2821.42	0.000753704
2831.79	0.000811274
2842.16	0.000868708
2852.53	0.000925761
2862.9	0.00098233
2873.27	0.00103841
2883.64	0.00109407
2894.01	0.00114943
2904.37	0.00120463
2914.74	0.00125986
2925.11	0.00131534
2930.3	0.00134324
2940.67	0.0013995
2951.04	0.00145659
2961.41	0.00151476
2971.78	0.00157428
2982.14	0.00163538
2992.51	0.00169835
3002.88	0.00176341
3013.25	0.00183084
3023.62	0.00190087
3033.99	0.00197351
3044.36	0.00204834
3054.73	0.00212507
3065.1	0.00220356
3070.28	0.00224344
3080.65	0.00232454
3091.02	0.00240748
3101.39	0.00249246
3111.76	0.00257973
3122.13	0.00266962
3132.5	0.00276252
3142.87	0.00285885
3153.24	0.00295906
3163.61	0.00306356
3173.98	0.00317276
3184.34	0.00328705
3194.71	0.00340684
3205.08	0.0036777
3210.27	0.00380876
3220.64	0.00406149
3231.01	0.00430271
3241.37	0.0045351
3251.74	0.00476225
3262.11	0.0049881
3272.48	0.00521662
3282.85	0.00545163
3293.22	0.00569678
3303.59	0.0059555
3313.96	0.00622652
3324.33	0.00650655
3334.7	0.00679527
3345.07	0.00709428
3350.25	0.00724862
3360.62	0.00756961
3370.99	0.00791132
3381.36	0.0082782
3391.73	0.0090696
3402.1	0.00983169
3412.46	0.0105646
3422.83	0.0112991
3433.2	0.0120693
3443.57	0.0129023
3453.94	0.0138047
3464.31	0.0147406
3474.68	0.0162439
3485.05	0.0180016
3490.23	0.0188354
3500.6	0.0205256
3510.97	0.0223296
3521.34	0.024278
3531.71	0.026363
3542.08	0.0286895
3552.45	0.0311935
3562.82	0.0337366
3573.19	0.0362481
3583.56	0.0387042
3593.93	0.0411145
3604.3	0.0435157
3614.67	0.0459466
3625.04	0.0484347
3630.22	0.049705
3640.59	0.0523025
3650.96	0.0549786
3661.33	0.0577381
3671.7	0.0605892
3682.07	0.0635393
3692.44	0.0665918
3702.81	0.0697441
3713.18	0.0729894
3723.55	0.076319
3733.92	0.0797258
3744.29	0.083206
3754.66	0.0867606
3765.03	0.0903944
3770.21	0.0922433
3780.58	0.0960112
3790.95	0.0998809
3801.32	0.103863
3811.69	0.107967
3822.06	0.112201
3832.43	0.116573
3842.8	0.121087
3853.17	0.125745
3863.54	0.130548
3873.92	0.1355
3884.32	0.140601
3894.71	0.145843
3905.11	0.151225
3910.3	0.153969
3920.7	0.159562
3931.1	0.165299
3941.49	0.171183
3951.89	0.177217
3962.28	0.183407
3972.68	0.189755
3983.07	0.196267
3993.47	0.202945
4003.86	0.209792
4014.26	0.216806
4024.66	0.223987
4035.05	0.231331
4040.25	0.235062
4050.64	0.242641
4061.04	0.250366
4071.44	0.258231
4081.83	0.266223
4092.23	0.274333
4102.62	0.282548
4113.02	0.290854
4123.41	0.299236
4133.81	0.307679
4144.21	0.316164
4154.6	0.324673
4165	0.333185
4170.19	0.337435
4180.59	0.345908
4190.99	0.354325
4201.38	0.362657
4211.78	0.370878
4222.27	0.37903
4232.86	0.387079
4243.45	0.394913
4254.04	0.402498
4264.63	0.409797
4275.22	0.416775
4280.51	0.420133
4291.11	0.426561
4301.7	0.432576
4312.29	0.438139
4322.89	0.443215
4333.48	0.447768
4344.07	0.451762
4354.66	0.455161
4365.26	0.457933
4370.55	0.459072
4381.15	0.460839
4391.74	0.461898
4402.33	0.462217
4412.98	0.461767
4423.63	0.460515
4434.29	0.458435
4444.95	0.455505
4450.29	0.453716
4460.95	0.449476
4471.61	0.444344
4482.27	0.438307
4492.93	0.431354
4503.57	0.423492
4514.2	0.414722
4524.83	0.405032
4530.15	0.399844
4540.78	0.388785
4551.41	0.376823
4562.04	0.363969
4572.67	0.35024
4583.3	0.335653
4593.93	0.320232
4604.56	0.304001
4615.18	0.286987
4620.5	0.278195
4631.13	0.26006
4641.76	0.241222
4652.39	0.221726
4663.02	0.201609
4673.65	0.180865
4684.28	0.159521
4694.91	0.13769
4700.22	0.126647
4710.85	0.10441
4721.48	0.0821375
4732.11	0.0574597
4742.73	0.0337521
4753.36	0.0122308
4763.99	-0.00883868
4774.62	-0.031997
4785.25	-0.0503354
4790.56	-0.058317
4801.19	-0.0725546
4811.82	-0.081886
4822.45	-0.0907563
4833.08	-0.0998939
4843.71	-0.10899
4854.34	-0.103408
4864.97	-0.110061
4870.28	-0.113487
4880.91	-0.122239
4891.54	-0.12957
4902.17	-0.135947
4912.8	-0.141612
4923.43	-0.146675
4934.06	-0.151253
4944.69	-0.155471
4950.01	-0.157478
4960.64	-0.160936
4971.27	-0.164283
4981.9	-0.167378
4992.53	-0.170381
5003.16	-0.173273
5013.79	-0.176041
5024.42	-0.178671
5035.05	-0.181151
5040.36	-0.182334
5050.99	-0.173368
5061.62	-0.175575
5072.25	-0.177663
5082.88	-0.179684
5093.51	-0.182393
5104.14	-0.184766
5114.77	-0.186804
5120.09	-0.187713
5130.72	-0.189342
5141.35	-0.190749
5151.98	-0.19197
5162.61	-0.193029
5173.24	-0.193947
5183.87	-0.194742
5194.5	-0.195431
5205.13	-0.19603
5210.44	-0.1963
5221.07	-0.196787
5231.7	-0.197212
5242.33	-0.19752
5252.96	-0.197744
5263.57	-0.197978
5274.15	-0.198215
5284.73	-0.198407
5290.03	-0.198479
5300.61	-0.198608
5311.19	-0.198716
5321.78	-0.198802
5332.36	-0.198866
5342.94	-0.198907
5353.53	-0.198922
5364.11	-0.198912
5374.7	-0.198876
5385.28	-0.198813
5390.57	-0.198772
5401.16	-0.19867
5411.74	-0.198544
5422.26	-0.198391
5432.7	-0.19431
5443.15	-0.194301
5453.6	-0.194154
5464.05	-0.193989
5474.5	-0.193807
5484.95	-0.193608
5490.17	-0.193502
5500.62	-0.193276
5511.07	-0.193024
5521.52	-0.192752
5531.97	-0.192468
5542.42	-0.192175
5552.87	-0.191872
5563.32	-0.191559
5573.77	-0.191238
5584.22	-0.190909
5594.66	-0.19057
5605.11	-0.190224
5610.34	-0.190047
5620.79	-0.189688
5631.24	-0.189319
5641.68	-0.188941
5652.13	-0.188552
5662.58	-0.188153
5673.03	-0.187741
5683.48	-0.187316
5693.93	-0.186877
5704.38	-0.186423
5714.83	-0.185954
5720.05	-0.185713
5730.5	-0.18522
5740.95	-0.184709
5751.39	-0.184181
5761.84	-0.183634
5772.29	-0.183068
5782.74	-0.182483
5793.19	-0.181877
5803.64	-0.18125
5814.08	-0.180599
5824.53	-0.179926
5834.98	-0.179234
5840.21	-0.17888
5850.65	-0.178158
5861.1	-0.177414
5871.55	-0.176607
5882	-0.175777
5892.45	-0.174922
5902.9	-0.174046
5913.35	-0.173148
5923.8	-0.17223
5934.24	-0.171292
5944.69	-0.170335
5955.14	-0.16936
5960.37	-0.168866
5970.82	-0.167869
5981.26	-0.166859
5991.71	-0.165841
6002.16	-0.164815
6012.61	-0.163782
6023.06	-0.162745
6033.51	-0.161703
6043.96	-0.160658
6054.41	-0.15961
6064.86	-0.15856
6070.08	-0.158034
6080.53	-0.15698
6090.98	-0.155925
6101.43	-0.154867
6111.88	-0.153807
6122.33	-0.152746
6132.77	-0.151682
6143.22	-0.150615
6153.67	-0.149545
6164.12	-0.148472
6174.57	-0.152184
6185.02	-0.15156
6190.24	-0.151244
6200.69	-0.150604
6211.14	-0.149794
6221.59	-0.148982
6232.04	-0.148168
6242.49	-0.147351
6252.94	-0.146531
6263.39	-0.145707
6273.84	-0.144879
6284.29	-0.144045
6294.73	-0.143206
6305.18	-0.142362
6310.41	-0.141937
6320.86	-0.141082
6331.31	-0.139652
6341.76	-0.138205
6352.2	-0.136748
6362.65	-0.135289
6373.1	-0.133833
6383.55	-0.132383
6394	-0.130939
6404.45	-0.129504
6414.9	-0.128076
6420.12	-0.127365
6430.57	-0.125948
6441.02	-0.124536
6451.47	-0.123129
6461.92	-0.121725
6472.37	-0.120323
6482.82	-0.11892
6493.27	-0.117515
6503.72	-0.116108
6514.16	-0.114695
6524.61	-0.113277
6535.06	-0.111851
6540.29	-0.111136
6550.74	-0.109697
6561.19	-0.108249
6571.63	-0.106789
6582.08	-0.105323
6592.53	-0.103853
6602.98	-0.102384
6613.42	-0.10092
6623.79	-0.0994707
6634.16	-0.0980253
6644.53	-0.0965833
6654.9	-0.0951432
6660.08	-0.0944232
6670.45	-0.092982
6680.82	-0.0915369
6691.19	-0.0900853
6701.56	-0.0886244
6711.93	-0.0871517
6722.3	-0.085665
6732.67	-0.0841623
6743.04	-0.0826421
6753.41	-0.080278
6763.78	-0.0772506
6774.15	-0.0744338
6784.52	-0.0718051
6794.89	-0.0693328
6800.07	-0.0681442
6810.44	-0.0658401
6820.81	-0.0636059
6831.18	-0.0614116
6841.55	-0.0592312
6851.92	-0.0570434
6862.29	-0.0548308
6872.66	-0.0525797
6883.03	-0.0502904
6893.4	-0.0479807
6903.77	-0.0456651
6914.14	-0.043345
6924.51	-0.0410131
6934.88	-0.0386567
6940.06	-0.0374648
6950.43	-0.0350446
6960.8	-0.0325649
6971.17	-0.0282818
6981.54	-0.0241538
6991.91	-0.020198
7002.28	-0.0163579
7012.65	-0.0125378
7023.02	-0.00866581
7033.39	-0.00470877
7043.76	-0.000681622
7054.13	0.00331661
7064.5	0.00722133
7074.87	0.0133781
7080.05	0.0161436
7090.42	0.0213319
7100.79	0.0263136
7111.16	0.0311967
7121.53	0.0359696
7131.9	0.0409112
7142.27	0.0458196
7152.64	0.0502563
7163.01	0.0540036
7173.38	0.0570118
7183.75	0.0593912
7194.12	0.0613111
7204.49	0.062924
7214.86	0.0643353
7220.05	0.0649863
7230.41	0.0662043
7240.78	0.0673332
7251.15	0.068399
7261.52	0.0694311
7271.89	0.0704568
7282.26	0.0714941
7292.63	0.0725442
7303	0.0735916
7313.37	0.0746087
7323.74	0.0755629
7334.11	0.0764246
7344.48	0.0771735
7354.85	0.0778018
7360.04	0.078072
7370.41	0.078533
7380.78	0.0789063
7391.15	0.0792176
7401.51	0.0794939
7411.88	0.0797601
7422.25	0.0800354
7432.62	0.0803311
7442.99	0.0806488
7453.36	0.0809814
7463.73	0.0813145
7474.1	0.0816289
7484.47	0.0819044
7494.84	0.0821224
7500.03	0.082205
7510.4	0.0823106
7520.77	0.0823316
7531.14	0.0822669
7541.51	0.0821206
7551.88	0.0819011
7562.25	0.0816201
7572.62	0.0812917
7582.98	0.0809309
7593.35	0.0805529
7603.72	0.0801719
7614.09	0.0798004
7624.46	0.0794487
7634.83	0.0791244
7640.02	0.0789742
7650.39	0.0786997
7660.76	0.0784605
7671.13	0.0782564
7681.5	0.0780856
7691.87	0.0779454
7702.24	0.0778327
7712.62	0.077744
7723.02	0.0776761
7733.41	0.0776259
7743.81	0.0775903
7754.2	0.077566
7764.6	0.0775498
7774.99	0.0775379
7780.19	0.0775324
7790.59	0.0775194
7800.98	0.0774999
7811.38	0.0774688
7821.78	0.0774208
7832.17	0.0773502
7842.57	0.0772517
7852.96	0.07712
7863.36	0.0769505
7873.75	0.0767393
7884.15	0.0764832
7894.55	0.0761801
7904.94	0.075829
7910.14	0.0756353
7920.53	0.0752121
7930.93	0.0747421
7941.33	0.0742273
7951.72	0.0736702
7962.12	0.0730736
7972.51	0.0724407
7982.91	0.0717748
7993.31	0.0710792
8003.7	0.0703573
8014.1	0.0696124
8024.49	0.0688478
8034.89	0.0680666
8040.09	0.0676706
8050.48	0.06687
8060.88	0.0660597
8071.27	0.0652423
8081.67	0.0644197
8092.06	0.0635935
8102.46	0.0627648
8112.86	0.061934
8123.25	0.0611007
8133.65	0.0602642
8144.04	0.0594227
8154.44	0.0585739
8164.84	0.0577151
8170.03	0.0572808
8180.43	0.0564004
8190.82	0.0555008
8201.22	0.0545782
8211.62	0.0536286
8222.01	0.0526483
8232.41	0.0516336
8242.8	0.0505814
8253.2	0.0494889
8263.59	0.0483538
8273.99	0.0471742
8284.39	0.0459484
8294.78	0.0446751
8305.18	0.0433532
8310.38	0.0426736
8320.77	0.0412766
8331.17	0.0398281
8341.56	0.0383264
8351.96	0.0367698
8362.35	0.0351556
8372.75	0.0334799
8383.15	0.0317379
8393.54	0.0299235
8403.94	0.0280275
8414.33	0.0260375
8424.73	0.0239459
8435.12	0.0217563
8440.32	0.0206194
8450.72	0.0182484
8461.11	0.015434
8471.51	0.0125724
8481.91	0.0096496
8492.3	0.00655429
8502.7	0.00361013
8513.09	0.00111766
8523.49	-0.0010824
8533.88	-0.00280842
8544.28	-0.00427375
8554.68	-0.00577731
8565.07	-0.00729182
8570.27	-0.00580114
8580.67	-0.00657211
8591.06	-0.00803027
8601.46	-0.0094348
8611.85	-0.0106648
8622.25	-0.0117982
8632.64	-0.0128879
8643.04	-0.0140141
8653.44	-0.0151928
8663.83	-0.0164748
8674.23	-0.0176798
8684.62	-0.0188305
8695.02	-0.0199405
8700.22	-0.0204828
8710.61	-0.0194061
8721.01	-0.0204101
8731.4	-0.0213885
8741.8	-0.021453
8752.2	-0.0224243
8762.59	-0.0233985
8772.99	-0.0243138
8783.38	-0.0251571
8793.78	-0.0259406
8804.17	-0.0266727
8814.57	-0.0273603
8824.97	-0.0280091
8830.16	-0.0283209
8840.56	-0.0289229
8850.96	-0.0295002
8861.35	-0.0300574
8871.75	-0.0306036
8882.14	-0.0311333
8892.54	-0.0316488
8902.93	-0.0321581
8913.33	-0.0326617
8923.73	-0.0332795
8934.12	-0.0338572
8944.52	-0.0343997
8954.91	-0.0349108
8960.11	-0.0351556
8970.51	-0.0356251
8980.9	-0.0360695
8991.3	-0.0364901
9001.69	-0.0368881
9012.09	-0.0372644
9022.49	-0.0376199
9032.88	-0.037955
9043.28	-0.0382707
9053.67	-0.0369153
9064.07	-0.0362806
9074.46	-0.0364768
9084.86	-0.0366586
9090.06	-0.0367443
9100.45	-0.036906
9110.85	-0.0370547
9121.25	-0.0371898
9131.64	-0.0373079
9142.04	-0.037409
9152.43	-0.0374945
9162.83	-0.0375658
9173.22	-0.0376241
9183.62	-0.0376706
9194.02	-0.0377065
9204.41	-0.0377329
9214.81	-0.0377509
9220.01	-0.0377571
9230.4	-0.0377644
9240.8	-0.0377658
9251.19	-0.0377621
9261.59	-0.0377541
9271.98	-0.037743
9282.38	-0.0377293
9292.78	-0.0377131
9303.17	-0.0376945
9313.57	-0.0376735
9323.96	-0.0376502
9334.36	-0.0376246
9344.76	-0.0375968
9355.15	-0.0375668
9360.35	-0.0375509
9370.74	-0.0375179
9381.14	-0.0374996
9391.54	-0.0374781
9401.93	-0.0374536
9412.33	-0.0374259
9422.72	-0.037394
9433.12	-0.0373576
9443.52	-0.0373168
9453.91	-0.0372717
9464.31	-0.0372225
9474.7	-0.0371691
9485.1	-0.0371433
9490.3	-0.0371432
9500.69	-0.0371359
9511.09	-0.0371197
9521.48	-0.0370949
9531.88	-0.037062
9542.28	-0.0370213
9552.67	-0.0369731
9563.07	-0.0369177
9573.46	-0.0368554
9583.86	-0.0367865
9594.25	-0.036711
9604.65	-0.0366293
9615.05	-0.0365416
9620.24	-0.0364955
9630.64	-0.0363989
9641.04	-0.0362967
9651.43	-0.036189
9661.83	-0.0360758
9672.22	-0.0359575
9682.62	-0.035834
9693.01	-0.0357056
9703.41	-0.0355723
9713.81	-0.0354343
9724.2	-0.0352917
9734.6	-0.0351447
9744.99	-0.0344176
9750.19	-0.0343575
9760.59	-0.0342368
9770.98	-0.0341153
9781.38	-0.0339928
9791.77	-0.0338691
9802.17	-0.033744
9812.57	-0.0336174
9822.96	-0.0334889
9833.36	-0.0333583
9843.75	-0.0332256
9854.15	-0.0330906
9864.54	-0.0329532
9874.94	-0.0328134
9880.14	-0.0327426
9890.53	-0.0325989
9900.93	-0.0324525
9911.33	-0.0323033
9921.72	-0.0321513
9932.12	-0.0319963
9942.51	-0.0318377
9952.9	-0.0316756
9963.27	-0.029941
9973.64	-0.0297229
9984	-0.0295039
9994.37	-0.0292839
10004.7	-0.0290626
10015.1	-0.02884
10020.3	-0.0287281
10030.7	-0.028503
10041	-0.0282762
10051.4	-0.0280476
10061.8	-0.027817
10072.1	-0.0275844
10082.5	-0.0273496
10092.9	-0.0271127
10103.3	-0.0268735
10113.6	-0.026632
10124	-0.0264239
10134.4	-0.0262487
10144.7	-0.0260703
10155.1	-0.0258885
10160.3	-0.0257963
10170.7	-0.0256093
10181	-0.0254187
10191.4	-0.0252244
10201.8	-0.0250264
10212.1	-0.0248246
10222.5	-0.024619
10232.9	-0.0244097
10243.2	-0.0241965
10253.6	-0.0239795
10264	-0.0237587
10274.4	-0.0235341
10284.7	-0.0233057
10295.1	-0.0230735
10300.3	-0.0229561
10310.7	-0.0227183
10321	-0.0224768
10331.4	-0.0222317
10341.8	-0.021983
10352.1	-0.0217307
10362.5	-0.0214749
10372.9	-0.0212157
10383.2	-0.0209531
10393.6	-0.0206872
10404	-0.020418
10414.3	-0.0201457
10424.7	-0.0198703
10435.1	-0.0195925
10440.3	-0.0194528
10450.6	-0.0191717
10461	-0.0188885
10471.4	-0.0186032
10481.8	-0.0183158
10492.1	-0.0180263
10502.5	-0.0177349
10512.9	-0.0174415
10523.2	-0.0171483
10533.6	-0.016856
10544	-0.0165642
10554.3	-0.0162728
10564.7	-0.0159815
10575.1	-0.0156357
10580.3	-0.0154642
10590.6	-0.0151239
10601	-0.0147868
10611.4	-0.0144527
10621.7	-0.0141213
10632.1	-0.0137925
10642.5	-0.013466
10652.9	-0.0131417
10663.2	-0.0128194
10673.6	-0.0124991
10684	-0.0121806
10694.3	-0.0118639
10704.7	-0.0115489
10715.1	-0.0112356
10720.3	-0.0110795
10730.6	-0.0107686
10741	-0.0104592
10751.4	-0.0101512
10761.7	-0.00984469
10772.1	-0.00953955
10782.5	-0.00923574
10792.8	-0.00893325
10803.2	-0.00863205
10813.6	-0.00833216
10824	-0.00803358
10834.3	-0.00773631
10844.7	-0.00744011
10855.1	-0.00714497
10860.2	-0.00699783
10870.6	-0.00670444
10881	-0.00641231
10891.4	-0.00612217
10901.7	-0.0058357
10912.1	-0.00555258
10922.5	-0.0052725
10932.8	-0.00499522
10943.2	-0.00472049
10953.6	-0.00444824
10963.9	-0.00417835
10974.3	-0.00391075
10984.7	-0.00364536
10995.1	-0.00338211
11000.2	-0.00325126
11010.6	-0.0029776
11021	-0.00270351
11031.4	-0.00244375
11041.8	-0.00219581
11052.2	-0.00195756
11062.6	-0.00172712
11073	-0.0015029
11083.4	-0.00128356
11093.8	-0.00106791
11104.2	-0.000854987
11114.6	-0.000643939
11125	-0.000434063
11130.3	-0.000327427
11140.9	-0.000114335
11151.4	9.89036e-05
11162	0.000312717
11172.6	0.000527412
11183.2	0.000743186
11193.8	0.000960216
11204.4	0.00117739
11215	0.00139053
11220.3	0.00149585
11230.9	0.00170456
11241.5	0.00191131
11252.1	0.00211684
11263	0.00232829
11273.9	0.00253972
11284.9	0.00275163
11290.3	0.0028578
11301.3	0.00307065
11312.2	0.00328431
11323.1	0.00349897
11334.1	0.00371487
11345	0.0039302
11350.4	0.00403571
11361.4	0.00424387
11372.3	0.00444972
11383.2	0.00465468
11394.2	0.00486003
11405.1	0.00506671
11410.6	0.00517078
11421.5	0.00538076
11432.4	0.00559357
11443.4	0.00580958
11454.3	0.00602901
11465.2	0.00625187
11470.7	0.00636443
11481.6	0.00659155
11492.5	0.00682116
11503.5	0.00715502
11514.4	0.00751125
11525.3	0.0078791
11530.8	0.00806514
11541.7	0.00843859
11552.7	0.0088115
11563.6	0.00918149
11574.5	0.00954674
11585.4	0.00990654
11590.9	0.0100858
11601.8	0.0104458
11612.8	0.0108086
11623.7	0.0111748
11634.6	0.011544
11640.1	0.0117294
11651	0.0121012
11661.9	0.012474
11672.9	0.0128471
11683.8	0.0132188
11694.7	0.0141393
11700.2	0.0145945
11711.1	0.0154559
11722.1	0.0162359
11733	0.0169452
11743.9	0.0176016
11754.9	0.0182169
11760.3	0.0187337
11771.2	0.0194925
11782.2	0.0201601
11793.1	0.0208395
11804	0.0215463
11815	0.0222567
11820.4	0.0225994
11831.4	0.0232609
11842.3	0.0239027
11853.2	0.0245257
11864.2	0.0251251
11875.1	0.025701
11880.5	0.0259845
11891.5	0.0265511
11902.4	0.0271229
11913.3	0.0277018
11924.3	0.0282859
11935.2	0.0288742
11940.7	0.0291702
11951.6	0.0297663
11962.5	0.0303661
11973.4	0.0309658
11984.4	0.0315588
11995.3	0.0321366
