0	0
32.7363	0
65.4711	0
98.2072	0
130.944	0
163.681	0
196.418	-1.81899e-12
229.157	-8.18545e-12
261.896	-3.00133e-11
294.637	-9.1859e-11
324.961	-2.31921e-10
355.286	-5.18412e-10
385.611	-1.04683e-09
415.936	-1.9354e-09
446.261	-3.31511e-09
476.585	-5.30508e-09
506.91	-7.98718e-09
537.119	-1.13623e-08
567.328	-1.53459e-08
597.537	-1.96869e-08
627.746	-2.39079e-08
657.955	-2.7213e-08
688.163	-2.83635e-08
718.372	-2.55141e-08
748.443	-1.74441e-08
778.513	-2.81852e-09
808.584	2.01926e-08
838.655	5.27043e-08
868.725	9.57671e-08
898.796	1.50788e-07
928.866	2.19835e-07
958.936	3.05899e-07
989.006	4.13176e-07
1019.08	5.47404e-07
1049.15	7.16296e-07
1079.21	9.30083e-07
1109.28	1.20217e-06
1139.35	1.54986e-06
1169.42	1.99465e-06
1199.49	2.5624e-06
1229.56	3.28351e-06
1259.63	4.19328e-06
1289.7	5.33238e-06
1319.76	6.74765e-06
1349.83	8.49285e-06
1379.9	1.06496e-05
1409.97	1.33316e-05
1440.04	1.65918e-05
1470.1	2.04683e-05
1500.17	2.49999e-05
1530.24	3.02353e-05
1560.31	3.62389e-05
1590.37	4.30967e-05
1620.44	5.09215e-05
1650.51	5.98578e-05
1680.58	7.00871e-05
1710.65	8.18313e-05
1740.71	9.53554e-05
1770.78	0.000110962
1800.85	0.000128832
1830.92	0.000149121
1860.99	0.000171998
1891.06	0.00019766
1921.13	0.000226354
1951.2	0.000258386
1981.27	0.000294152
2011.34	0.000334162
2041.41	0.000324503
2071.48	0.000322472
2101.55	0.000326394
2131.62	0.000335237
2161.69	0.000348399
2191.76	0.000365616
2221.83	0.000386885
2251.9	0.000412411
2282.1	0.000442694
2312.3	0.000478168
2341.82	0.000518567
2371.34	0.000565334
2400.86	0.000619334
2430.38	0.00068186
2459.9	0.000750773
2489.42	0.000825487
2518.94	0.000906134
2548.46	0.000993292
2577.98	0.00108786
2607.5	0.00119117
2637.02	0.00130498
2666.54	0.00143159
2696.06	0.00157354
2725.58	0.00173321
2755.1	0.00212049
2784.62	0.00251414
2814.14	0.00289113
2843.66	0.00325903
2873.18	0.00363306
2902.7	0.0040321
2932.22	0.00447507
2961.74	0.00498111
2991.26	0.00554507
3020.78	0.00615221
3050.3	0.0068245
3079.82	0.00757757
3109.34	0.00948732
3138.85	0.0113378
3168.37	0.0128258
3197.89	0.0145332
3227.41	0.0167971
3256.93	0.0198994
3286.45	0.0238325
3315.97	0.0337891
3345.49	0.0410574
3375	0.0495308
3404.52	0.0583602
3434.04	0.0676749
3463.56	0.0773751
3493.08	0.0876462
3522.6	0.0985588
3552.12	0.110203
3581.64	0.122516
3611.16	0.135455
3640.68	0.149171
3670.2	0.16378
3699.72	0.179333
3729.24	0.195766
3758.76	0.21297
3788.28	0.230816
3817.8	0.249172
3847.32	0.267882
3876.84	0.286761
3906.36	0.305591
3935.94	0.32417
3965.51	0.342203
3995.09	0.359384
4024.66	0.375359
4054.24	0.389727
4083.81	0.402059
4113.39	0.411921
4142.96	0.418886
4172.54	0.422554
4202.11	0.422567
4231.69	0.418625
4261.27	0.410504
4291.38	0.397834
4321.48	0.380626
4351.59	0.358918
4381.7	0.332801
4411.81	0.302496
4441.92	0.268224
4472.03	0.230289
4502.14	0.189553
4532.25	0.145163
4562.36	0.0991233
4592.48	0.0551321
4622.59	-0.00158976
4652.7	-0.0343425
4682.81	-0.0696789
4712.92	-0.0987797
4743.03	-0.122253
4773.14	-0.111566
4803.25	-0.122543
4833.36	-0.134841
4863.47	-0.150617
4893.58	-0.162214
4923.7	-0.172035
4953.81	-0.180958
4983.92	-0.189664
5014.03	-0.197644
5044.24	-0.203413
5074.45	-0.207624
5104.66	-0.210929
5134.86	-0.213673
5165.07	-0.216019
5195.14	-0.211189
5225.22	-0.212156
5255.29	-0.213869
5285.36	-0.214458
5315.43	-0.214225
5345.5	-0.21339
5375.57	-0.212147
5405.64	-0.210637
5435.71	-0.208955
5465.78	-0.20715
5495.85	-0.205232
5525.92	-0.203209
5555.99	-0.201084
5586.06	-0.198952
5616.13	-0.197038
5646.2	-0.195191
5676.27	-0.193299
5706.35	-0.191335
5736.42	-0.189283
5766.49	-0.187131
5796.56	-0.184864
5826.63	-0.182472
5856.7	-0.179943
5886.77	-0.177273
5916.84	-0.174455
5946.91	-0.171488
5976.98	-0.174302
6007.05	-0.172609
6037.12	-0.170189
6067.19	-0.167631
6097.26	-0.164975
6127.33	-0.162239
6157.4	-0.159423
6187.47	-0.156531
6217.55	-0.15356
6247.62	-0.150499
6277.69	-0.147337
6307.76	-0.144064
6337.83	-0.140666
6367.9	-0.137133
6397.97	-0.133467
6428.04	-0.126458
6458.11	-0.119581
6488.18	-0.113103
6518.25	-0.106965
6548.32	-0.101069
6578.39	-0.0952961
6608.46	-0.0895266
6638.53	-0.0836675
6668.6	-0.0776544
6698.67	-0.0714485
6728.75	-0.0651669
6758.82	-0.0589634
6788.89	-0.0528337
6818.96	-0.0467037
6849.03	-0.0404498
6879.1	-0.0275299
6909.17	-0.0168975
6939.24	-0.00882255
6969.31	-0.00115572
6999.38	0.00737344
7029.45	0.016608
7059.52	0.0259603
7089.59	0.0399335
7119.66	0.0490077
7149.73	0.0590671
7179.8	0.0677179
7209.87	0.0742654
7239.95	0.0785807
7270.02	0.0812011
7300.09	0.0824933
7330.16	0.0827363
7360.23	0.0820661
7389.75	0.080479
7419.27	0.0783056
7448.79	0.0757739
7478.31	0.0731792
7507.83	0.0705407
7537.35	0.0678176
7566.87	0.064937
7596.39	0.0618955
7625.91	0.0587365
7655.43	0.0555316
7684.95	0.0523369
7714.47	0.0492025
7743.99	0.0462084
7773.51	0.0434278
7803.03	0.0409025
7832.56	0.0386078
7862.08	0.036464
7891.6	0.0343659
7921.12	0.0322192
7950.64	0.0299604
7980.16	0.0275487
8009.68	0.0249654
8039.2	0.0222146
8068.72	0.0189176
8098.24	0.0151465
8127.76	0.00931063
8157.28	0.00628583
8186.8	0.00363194
8216.32	0.00128144
8245.84	-0.000957008
8275.36	-0.000151805
8304.88	-0.00182982
8334.4	-0.00346317
8363.92	-0.00512568
8393.44	-0.00651685
8422.96	-0.00793601
8452.48	-0.00944601
8482	-0.0110714
8511.52	-0.0125918
8541.05	-0.0137469
8570.57	-0.0147074
8600.09	-0.0155872
8629.61	-0.0140135
8659.13	-0.0136842
8688.65	-0.014847
8718.17	-0.0158738
8747.69	-0.0168062
8777.21	-0.0175742
8806.73	-0.0182329
8836.25	-0.0188133
8865.77	-0.0193389
8895.29	-0.0198182
8924.81	-0.0202517
8954.33	-0.0206318
8983.85	-0.020947
9013.37	-0.0213672
9042.89	-0.0216456
9072.41	-0.0220291
9101.93	-0.02225
9131.45	-0.0223461
9160.97	-0.0223464
9190.5	-0.0222731
9220.02	-0.0221433
9249.54	-0.0219704
9279.06	-0.0217636
9308.58	-0.0215319
9338.1	-0.0212786
9367.62	-0.0187948
9397.14	-0.018702
9426.66	-0.0184379
9456.18	-0.0181708
9485.7	-0.0178974
9515.22	-0.017615
9544.74	-0.0173217
9574.26	-0.017016
9603.78	-0.0167489
9633.3	-0.0164673
9662.82	-0.0161685
9692.34	-0.0158528
9721.86	-0.0155209
9751.38	-0.0151731
9780.91	-0.0148111
9810.43	-0.0144358
9839.95	-0.0140474
9869.47	-0.0136463
9898.99	-0.0132325
9928.51	-0.0128059
9958.03	-0.0123667
9987.55	-0.0119148
10017.1	-0.0114613
10046.6	-0.0110038
10076.1	-0.0105405
10105.6	-0.0100703
10135.2	-0.00959268
10164.7	-0.00910724
10194.2	-0.00861397
10223.8	-0.00811138
10253.3	-0.00760031
10282.9	-0.00683921
10312.5	-0.00611587
10342.1	-0.00542443
10371.6	-0.00476018
10401.2	-0.00411936
10430.8	-0.003499
10460.4	-0.00289673
10489.9	-0.00231074
10520.1	-0.00172934
10550.2	-0.00116242
10580.3	-0.000609344
10610.4	-6.99409e-05
10640.5	0.000455566
10670.6	0.000966688
10700.7	0.00146274
10730.8	0.00215814
10760.9	0.00265054
10791.1	0.00310871
10821.2	0.00353398
10851.3	0.00392749
10882.3	0.00430069
10913.2	0.00464222
10944.2	0.00495244
10975.2	0.00523053
11006.2	0.00547606
11037.2	0.00568891
11068.1	0.00586924
11099.1	0.00601745
11131	0.00613733
11162.8	0.00622481
11194.6	0.00628064
11226.4	0.00630578
11258.3	0.0063014
11290.1	0.00626879
11321.9	0.00620934
11353.8	0.0061245
11387.1	0.00601051
11420.5	0.00587192
11453.9	0.00571052
11487.2	0.00552804
11520.6	0.00532623
11554	0.00510677
11587.4	0.00487132
11620.7	0.00462147
11654.1	0.00435876
11687.6	0.00408342
11720.2	0.00380617
11752.8	0.00352073
11785.3	0.00322828
11817.9	0.00292996
11850.5	0.00262683
11883	0.00231989
11915.6	0.00201009
11948.2	0.00169831
11980.8	0.00138537
