0	0
11.4357	0
20.5842	0
32.0197	0
41.168	0
50.3163	0
61.7516	0
70.8997	0
80.0479	0
91.483	0
100.631	0
112.066	0
121.214	0
130.362	0
141.797	0
150.945	0
160.093	0
171.528	0
180.643	0
191.989	0
201.065	0
210.034	0
221.245	0
230.213	0
241.423	0
250.392	9.09495e-13
261.602	5.45697e-12
270.571	9.09495e-12
281.775	1.36424e-11
290.719	1.72804e-11
301.9	2.54659e-11
310.844	3.27418e-11
322.025	4.45652e-11
330.969	5.54792e-11
342.15	7.36691e-11
351.094	9.1859e-11
360.038	1.14596e-10
371.219	1.49157e-10
380.163	1.83718e-10
391.343	2.3465e-10
400.287	2.85581e-10
411.392	3.61069e-10
420.261	4.33829e-10
431.347	5.42968e-10
440.219	6.46651e-10
451.322	8.02174e-10
460.205	9.47693e-10
471.107	1.1587e-09
481.921	1.40608e-09
490.573	1.63527e-09
501.387	1.96724e-09
510.038	2.27283e-09
520.852	2.70938e-09
531.615	3.21324e-09
540.153	3.66617e-09
550.824	4.30737e-09
561.486	5.03951e-09
570.003	5.69526e-09
580.65	6.61385e-09
591.277	7.64976e-09
601.899	8.81573e-09
610.396	9.85165e-09
621.018	1.1285e-08
631.64	1.28875e-08
640.137	1.43009e-08
650.759	1.62472e-08
661.381	1.84054e-08
672.002	2.07965e-08
680.5	2.28902e-08
691.121	2.57514e-08
701.743	2.88992e-08
710.24	3.16359e-08
720.862	3.53421e-08
731.478	3.93729e-08
742.075	4.3734e-08
750.553	4.74702e-08
761.149	5.24606e-08
771.746	5.78175e-08
780.224	6.23741e-08
790.82	6.84195e-08
801.417	7.48678e-08
812.014	8.17327e-08
820.491	8.75352e-08
831.088	9.51841e-08
841.685	1.03277e-07
850.162	1.10071e-07
860.759	1.18962e-07
871.355	1.28293e-07
881.952	1.38058e-07
890.429	1.46178e-07
901.026	1.56707e-07
911.622	1.67648e-07
920.1	1.76696e-07
930.696	1.88367e-07
941.293	2.00434e-07
951.889	2.12895e-07
960.366	2.23145e-07
970.963	2.36309e-07
981.559	2.49865e-07
990.036	2.60999e-07
1000.63	2.75279e-07
1011.23	2.89977e-07
1021.83	3.05109e-07
1030.3	3.17541e-07
1040.9	3.3351e-07
1051.5	3.49983e-07
1062.09	3.66997e-07
1070.57	3.81028e-07
1081.17	3.99131e-07
1091.76	4.17914e-07
1100.24	4.33473e-07
1110.84	4.53652e-07
1121.43	4.74718e-07
1132.03	4.96764e-07
1140.5	5.15179e-07
1151.1	5.39263e-07
1161.7	5.64653e-07
1170.17	5.85995e-07
1180.77	6.14084e-07
1191.37	6.43895e-07
1201.96	6.75599e-07
1210.44	7.02449e-07
1221.04	7.38038e-07
1231.63	7.76075e-07
1240.11	8.08418e-07
1250.71	8.51441e-07
1261.3	8.97581e-07
1271.9	9.4711e-07
1280.37	9.89364e-07
1290.97	1.04572e-06
1301.57	1.10631e-06
1310.04	1.15806e-06
1320.64	1.22713e-06
1331.2	1.3012e-06
1341.74	1.38068e-06
1350.17	1.44855e-06
1360.71	1.53911e-06
1371.25	1.63646e-06
1381.79	1.74109e-06
1390.23	1.83037e-06
1400.77	1.94939e-06
1411.31	2.07722e-06
1421.85	2.21501e-06
1430.28	2.3329e-06
1440.81	2.4901e-06
1451.32	2.65821e-06
1461.84	2.83778e-06
1470.22	2.98936e-06
1480.73	3.19002e-06
1491.24	3.40266e-06
1501.74	3.62722e-06
1510.15	3.81601e-06
1520.66	4.06338e-06
1531.18	4.3237e-06
1541.69	4.59734e-06
1550.1	4.82613e-06
1560.61	5.12486e-06
1571.12	5.43828e-06
1581.63	5.76703e-06
1592.04	6.10815e-06
1600.3	6.39104e-06
1610.64	6.75996e-06
1620.98	7.14677e-06
1631.31	7.55249e-06
1641.65	7.97823e-06
1651.98	8.42522e-06
1660.25	8.79898e-06
1670.59	9.28758e-06
1680.92	9.80139e-06
1691.26	1.0342e-05
1701.59	1.09112e-05
1711.93	1.15107e-05
1720.2	1.20135e-05
1730.53	1.26727e-05
1740.87	1.33679e-05
1751.2	1.41015e-05
1761.54	1.48759e-05
1771.87	1.56935e-05
1780.14	1.63805e-05
1790.48	1.72824e-05
1800.81	1.82344e-05
1811.15	1.92384e-05
1821.48	2.02963e-05
1831.82	2.14097e-05
1840.09	2.23414e-05
1850.42	2.35585e-05
1860.76	2.48353e-05
1871.09	2.61733e-05
1881.43	2.75741e-05
1891.76	2.90392e-05
1900.03	3.02587e-05
1910.37	3.18439e-05
1920.7	3.34986e-05
1931.04	3.52246e-05
1941.37	3.70243e-05
1951.71	3.89e-05
1962.04	4.08544e-05
1970.31	4.24765e-05
1980.65	4.45798e-05
1990.98	4.67704e-05
2001.32	4.90518e-05
2011.65	5.14277e-05
2021.99	5.39022e-05
2030.25	5.59557e-05
2040.59	5.86185e-05
2050.92	6.13925e-05
2061.26	6.42825e-05
2071.59	6.72936e-05
2081.93	7.04314e-05
2090.2	7.30366e-05
2100.53	7.64167e-05
2110.87	7.99401e-05
2121.2	8.36133e-05
2131.54	8.74431e-05
2141.87	8.70068e-05
2150.14	8.59776e-05
2160.48	8.49447e-05
2170.81	8.41757e-05
2181.15	8.36537e-05
2191.48	8.33638e-05
2201.82	8.32927e-05
2210.08	8.33851e-05
2220.42	8.36779e-05
2230.75	8.41586e-05
2241.09	8.48187e-05
2251.42	8.56512e-05
2261.76	8.665e-05
2270.03	8.75655e-05
2280.36	8.88521e-05
2290.7	9.02942e-05
2301.03	9.18896e-05
2311.37	9.36374e-05
2321.7	9.55373e-05
2332.03	9.759e-05
2340.3	9.9343e-05
2350.64	0.000101675
2360.97	0.000104165
2371.31	0.000106817
2381.64	0.000109636
2391.98	0.000112625
2400.24	0.000115142
2410.58	0.000118452
2420.91	0.000121949
2431.25	0.000125639
2441.58	0.000129529
2451.92	0.000133627
2460.19	0.00013706
2470.52	0.000141552
2480.86	0.000146274
2491.19	0.000151236
2501.52	0.000156448
2511.86	0.00016192
2520.13	0.000166487
2530.46	0.000172416
2540.8	0.000178574
2551.13	0.000184949
2561.47	0.000191532
2571.8	0.000198317
2580.07	0.000203889
2590.4	0.000211033
2600.74	0.000218379
2611.07	0.000225931
2621.41	0.000233694
2631.74	0.000241676
2640.01	0.000248226
2650.35	0.000256627
2660.68	0.000265277
2671.02	0.000274189
2681.35	0.000283379
2691.69	0.000292863
2702.02	0.00030266
2710.29	0.000310736
2720.62	0.000321147
2730.96	0.000331929
2741.29	0.000343104
2751.63	0.000354695
2761.97	0.000366723
2770.23	0.000376675
2780.57	0.000389545
2790.9	0.000402913
2801.24	0.0004168
2811.57	0.000431229
2821.91	0.000446221
2830.18	0.000458635
2840.51	0.000474701
2850.85	0.000491398
2861.18	0.000508753
2871.52	0.000526794
2881.86	0.000550403
2890.12	0.000585084
2900.46	0.000628283
2910.8	0.000671169
2921.13	0.000713672
2931.48	0.000755855
2941.84	0.00079771
2950.12	0.000830996
2960.48	0.000872444
2970.83	0.00091383
2981.19	0.000955296
2991.55	0.000996997
3001.9	0.0010391
3010.19	0.00107318
3020.54	0.00111644
3030.9	0.00116058
3041.25	0.0012058
3051.61	0.00125226
3061.96	0.00130015
3070.25	0.00133959
3080.6	0.00139045
3090.96	0.00144303
3101.31	0.00149709
3111.67	0.00155245
3122.03	0.001609
3130.31	0.00165508
3140.67	0.00171376
3151.02	0.00177373
3161.38	0.00183511
3171.73	0.0018981
3180.02	0.00194979
3190.37	0.00201625
3200.73	0.00208503
3211.08	0.00215641
3221.44	0.00223069
3231.79	0.00230811
3240.08	0.0023725
3250.43	0.00245626
3260.79	0.00254391
3271.14	0.00267967
3281.5	0.00287685
3291.85	0.00306439
3300.14	0.00320825
3310.49	0.00338219
3320.85	0.00355201
3331.21	0.00372054
3341.56	0.00389053
3351.92	0.00406465
3360.2	0.00420855
3370.56	0.00439554
3380.91	0.00458906
3391.27	0.0047879
3401.62	0.00499233
3411.98	0.00520377
3420.26	0.00537947
3430.62	0.0056096
3440.97	0.00585392
3451.33	0.00611462
3461.68	0.00666021
3472.04	0.00718378
3480.32	0.00759167
3490.68	0.00810265
3501.03	0.00863215
3511.39	0.00919098
3521.74	0.00976717
3530.03	0.0102426
3540.38	0.0108718
3550.74	0.0119395
3561.1	0.0130809
3571.45	0.0141802
3581.81	0.0154265
3590.09	0.0165155
3600.45	0.0188711
3610.8	0.0213179
3621.16	0.0240415
3631.51	0.0271857
3641.87	0.0303261
3650.15	0.0326254
3660.51	0.0352906
3670.87	0.0378874
3681.22	0.040486
3691.58	0.0431135
3701.93	0.045801
3710.22	0.047994
3720.57	0.0507569
3730.93	0.0535082
3741.28	0.0562387
3751.64	0.0589689
3762	0.0617317
3770.28	0.0639848
3780.64	0.0668649
3790.99	0.0698101
3801.35	0.0728031
3811.71	0.0758272
3822.06	0.0788744
3830.35	0.0813307
3840.7	0.0844344
3851.06	0.0875915
3861.44	0.0908294
3871.83	0.094155
3880.13	0.0968859
3890.52	0.100394
3900.9	0.104012
3911.29	0.107749
3921.67	0.111615
3932.06	0.115622
3940.36	0.118937
3950.75	0.123226
3961.13	0.127685
3971.52	0.132318
3981.9	0.137132
3990.21	0.141117
4000.59	0.146275
4010.98	0.151643
4021.36	0.157236
4031.75	0.163075
4040.06	0.167935
4050.44	0.174264
4060.83	0.180893
4071.21	0.187838
4081.6	0.195117
4091.98	0.202745
4100.29	0.209108
4110.67	0.2174
4121.06	0.226075
4131.44	0.235143
4141.83	0.244609
4150.13	0.252468
4160.52	0.262649
4170.9	0.273225
4181.29	0.28419
4191.67	0.295533
4202.06	0.307244
4210.37	0.316868
4220.75	0.329201
4231.14	0.341849
4241.52	0.354787
4251.91	0.367983
4260.22	0.3787
4270.62	0.392283
4281.09	0.406094
4291.57	0.419991
4302.04	0.433912
4310.42	0.445023
4320.89	0.458819
4331.39	0.472476
4341.92	0.485931
4350.36	0.496453
4360.9	0.509236
4371.44	0.521524
4381.99	0.533218
4390.43	0.542085
4400.97	0.552476
4411.52	0.562011
4422.07	0.570595
4430.5	0.576713
4441.05	0.583348
4451.6	0.588773
4460.03	0.592181
4470.58	0.595206
4481.13	0.596783
4491.67	0.596835
4500.11	0.595731
4510.66	0.592867
4521.2	0.5883
4531.75	0.581982
4540.19	0.575639
4550.73	0.566076
4561.28	0.554678
4571.83	0.541433
4580.26	0.529509
4590.81	0.512951
4601.36	0.494578
4611.9	0.474421
4620.34	0.457039
4630.89	0.433783
4641.43	0.408884
4651.98	0.38241
4660.42	0.360146
4670.96	0.331027
4681.51	0.300552
4692.06	0.268806
4700.49	0.242552
4711.04	0.208733
4721.59	0.173899
4730.03	0.145297
4740.57	0.108828
4751.12	0.0715389
4761.67	0.0323662
4770.1	0.0062942
4780.65	-0.0289522
4791.2	-0.0550923
4801.74	-0.0720193
4810.18	-0.0850488
4820.77	-0.0909287
4831.36	-0.105796
4841.96	-0.118134
4850.44	-0.126496
4861.03	-0.135622
4871.63	-0.143231
4880.11	-0.148715
4890.71	-0.15529
4901.3	-0.161461
4911.9	-0.155483
4920.38	-0.159548
4930.97	-0.16472
4941.57	-0.170684
4950.05	-0.174757
4960.64	-0.179128
4971.24	-0.182879
4981.84	-0.186158
4990.31	-0.188521
5000.91	-0.191229
5011.51	-0.193441
5022.1	-0.195481
5030.58	-0.196908
5041.18	-0.198696
5051.78	-0.200455
5060.25	-0.20182
5070.85	-0.203455
5081.45	-0.204991
5092.04	-0.206419
5100.52	-0.207438
5111.12	-0.200767
5121.71	-0.202016
5130.19	-0.203002
5140.79	-0.204641
5151.38	-0.206063
5161.98	-0.207263
5170.46	-0.208071
5181.05	-0.208915
5191.65	-0.209596
5200.13	-0.210033
5210.73	-0.21046
5221.32	-0.210767
5231.92	-0.210966
5240.4	-0.211054
5250.99	-0.211087
5261.59	-0.211042
5270.07	-0.210958
5280.66	-0.210799
5291.26	-0.210567
5301.86	-0.210227
5310.33	-0.209946
5320.93	-0.209593
5331.53	-0.209232
5340	-0.208855
5350.56	-0.208384
5361.1	-0.207909
5371.64	-0.207429
5380.07	-0.207041
5390.61	-0.20655
5401.15	-0.20605
5411.69	-0.205542
5420.12	-0.205128
5430.66	-0.204603
5441.2	-0.204069
5451.74	-0.203527
5460.17	-0.203088
5470.71	-0.202524
5481.25	-0.201951
5491.77	-0.198642
5500.18	-0.19821
5510.68	-0.197683
5521.18	-0.19717
5531.69	-0.19667
5540.1	-0.196278
5550.6	-0.195796
5561.11	-0.195319
5571.63	-0.194849
5580.03	-0.194485
5590.55	-0.194044
5601.06	-0.193617
5611.57	-0.193204
5622.08	-0.192803
5630.49	-0.192489
5641	-0.192107
5651.44	-0.191734
5661.77	-0.191371
5670.04	-0.191084
5680.38	-0.190727
5690.71	-0.190372
5701.05	-0.190015
5711.38	-0.189654
5721.72	-0.189287
5732.05	-0.188911
5740.32	-0.188603
5750.66	-0.188206
5760.99	-0.187795
5771.33	-0.187369
5781.66	-0.186925
5792	-0.186463
5800.27	-0.186078
5810.6	-0.185578
5820.94	-0.185056
5831.27	-0.18451
5841.61	-0.18394
5851.95	-0.183358
5860.21	-0.18287
5870.55	-0.182231
5880.88	-0.181561
5891.22	-0.180859
5901.56	-0.180127
5911.89	-0.179364
5920.16	-0.178677
5930.49	-0.177792
5940.83	-0.17688
5951.17	-0.175941
5961.5	-0.174976
5971.84	-0.173988
5980.1	-0.173181
5990.44	-0.172152
6000.78	-0.171102
6011.11	-0.170035
6021.45	-0.168954
6031.78	-0.16786
6040.05	-0.166977
6050.39	-0.165866
6060.72	-0.164748
6071.06	-0.163625
6081.39	-0.162497
6091.73	-0.161365
6102.06	-0.160231
6110.33	-0.159322
6120.67	-0.158185
6131	-0.157048
6141.34	-0.155909
6151.67	-0.154771
6162.01	-0.153633
6170.28	-0.152723
6180.61	-0.151587
6190.95	-0.15045
6201.28	-0.149315
6211.62	-0.148181
6221.95	-0.151258
6230.22	-0.150732
6240.56	-0.150071
6250.89	-0.149255
6261.23	-0.148443
6271.56	-0.147634
6281.9	-0.146828
6290.17	-0.146185
6300.5	-0.145382
6310.84	-0.144581
6321.17	-0.14378
6331.51	-0.142979
6341.84	-0.142177
6350.11	-0.141535
6360.45	-0.140731
6370.78	-0.139612
6381.12	-0.13827
6391.45	-0.136919
6401.79	-0.135565
6410.06	-0.134482
6420.39	-0.133133
6430.73	-0.131791
6441.06	-0.130456
6451.4	-0.129129
6461.74	-0.127811
6470	-0.126762
6480.34	-0.125457
6490.67	-0.124159
6501.01	-0.122866
6511.35	-0.121578
6521.68	-0.120292
6532.02	-0.119009
6540.28	-0.117983
6550.62	-0.116699
6560.96	-0.115415
6571.29	-0.114129
6581.63	-0.112839
6591.96	-0.111545
6600.23	-0.110507
6610.57	-0.109204
6620.9	-0.107901
6631.24	-0.1066
6641.57	-0.105304
6651.91	-0.104014
6660.18	-0.102986
6670.51	-0.101708
6680.85	-0.100434
6691.18	-0.099165
6701.52	-0.0978979
6711.85	-0.0966311
6720.12	-0.0956163
6730.46	-0.0943441
6740.79	-0.0930658
6751.13	-0.0917792
6761.46	-0.0904825
6771.8	-0.089174
6780.07	-0.0881178
6790.4	-0.0864921
6800.74	-0.0838056
6811.07	-0.0812969
6821.41	-0.0789515
6831.75	-0.0767467
6840.01	-0.0750658
6850.35	-0.0730448
6860.69	-0.071088
6871.02	-0.069171
6881.36	-0.0672727
6891.69	-0.0653756
6902.03	-0.0634653
6910.3	-0.0619203
6920.63	-0.0599697
6930.97	-0.058009
6941.3	-0.0560466
6951.64	-0.0540819
6961.98	-0.0521063
6970.27	-0.0505105
6980.62	-0.0484889
6990.98	-0.0464277
7001.33	-0.0437606
7011.69	-0.040329
7022.05	-0.0369829
7030.33	-0.0343841
7040.69	-0.0311844
7051.04	-0.0279812
7061.4	-0.0247274
7071.76	-0.021403
7080.04	-0.0187221
7090.4	-0.0153991
7100.75	-0.0121
7111.11	-0.00832504
7121.46	-0.00321287
7131.82	0.00133512
7140.1	0.00495384
7150.46	0.00963563
7160.82	0.015791
7171.17	0.0223572
7181.53	0.0289674
7191.88	0.0356947
7200.17	0.0404577
7210.52	0.0451019
7220.88	0.0484863
7231.24	0.0511242
7241.59	0.0532487
7251.95	0.0549707
7260.23	0.0561631
7270.59	0.0575168
7280.95	0.0587134
7291.3	0.0597029
7301.66	0.0604902
7312.01	0.0611588
7320.3	0.0616853
7330.65	0.0624142
7341.01	0.0632675
7351.37	0.0642362
7361.72	0.0652621
7370.01	0.0660708
7380.36	0.0670081
7390.72	0.0678244
7401.07	0.0685083
7411.43	0.0690742
7421.79	0.0695514
7430.07	0.0698908
7440.43	0.0702845
7450.78	0.0706609
7461.14	0.0710316
7471.49	0.0714075
7481.85	0.0718033
7490.14	0.0721463
7500.49	0.072621
7510.85	0.0731522
7521.2	0.0737304
7531.56	0.0743299
7541.91	0.0749135
7550.2	0.0753426
7560.56	0.0758044
7570.91	0.0761643
7581.27	0.0764168
7591.62	0.0765691
7601.98	0.076637
7610.26	0.0766428
7620.62	0.076604
7630.98	0.0765277
7641.33	0.0764261
7651.69	0.0763105
7662.04	0.0761925
7670.33	0.0761051
7680.69	0.0760159
7691.04	0.075961
7701.4	0.0759507
7711.75	0.0759908
7720.06	0.0760602
7730.44	0.0761909
7740.83	0.076364
7751.21	0.0765711
7761.6	0.0768033
7771.98	0.0770532
7780.29	0.077262
7790.67	0.0775311
7801.06	0.0778068
7811.44	0.0780876
7821.83	0.0783721
7830.14	0.0786008
7840.52	0.078885
7850.91	0.0791629
7861.29	0.079428
7871.68	0.0796727
7882.06	0.0798884
7890.37	0.0800345
7900.75	0.0801769
7911.14	0.0802681
7921.52	0.0803018
7931.91	0.0802737
7940.22	0.0802049
7950.6	0.0800597
7960.99	0.0798491
7971.37	0.0795748
7981.76	0.0792395
7990.06	0.07893
8000.45	0.0784953
8010.83	0.0780122
8021.22	0.0774857
8031.6	0.0769207
8041.99	0.0763216
8050.3	0.0758204
8060.68	0.0751691
8071.07	0.0744927
8081.45	0.0737936
8091.84	0.0730745
8100.14	0.0724865
8110.53	0.0717386
8120.91	0.0709803
8131.3	0.0702164
8141.68	0.0694524
8152.07	0.068694
8160.38	0.0680951
8170.76	0.0673602
8181.15	0.0666439
8191.53	0.0659485
8201.92	0.0652742
8210.22	0.0647487
8220.61	0.0641061
8230.99	0.0634744
8241.38	0.0628466
8251.76	0.0622149
8260.07	0.0617011
8270.46	0.0610416
8280.84	0.0603558
8291.23	0.0596375
8301.61	0.0588823
8312	0.0580873
8320.3	0.0574222
8330.69	0.0565551
8341.07	0.0556507
8351.46	0.0547127
8361.84	0.0537456
8370.15	0.0529543
8380.54	0.0519472
8390.92	0.0509244
8401.31	0.0498896
8411.69	0.0488454
8420	0.0480045
8430.39	0.0469469
8440.77	0.0458817
8451.16	0.0448076
8461.54	0.0437225
8471.93	0.0426237
8480.23	0.0417327
8490.62	0.0406013
8501	0.0394467
8511.39	0.0382648
8521.77	0.0370512
8530.08	0.0360537
8540.47	0.034768
8550.85	0.0334313
8561.24	0.0320324
8571.62	0.0305559
8582.01	0.0289801
8590.31	0.027627
8600.7	0.0257819
8611.08	0.0237036
8621.47	0.0212958
8631.85	0.0184936
8640.16	0.0158478
8650.55	0.0118033
8660.93	0.00766254
8671.32	0.00328863
8681.7	1.26345e-05
8690.01	-0.00220097
8700.39	-0.00333532
8710.78	-0.00627964
8721.16	-0.00870878
8731.55	-0.0109967
8741.93	-0.0132814
8750.24	-0.0149846
8760.63	-0.0169928
8771.01	-0.0163798
8781.4	-0.0186119
8791.78	-0.020586
8800.09	-0.0220126
8810.48	-0.0236544
8820.86	-0.0251843
8831.25	-0.0266498
8841.63	-0.0280961
8852.02	-0.0295599
8860.32	-0.0306612
8870.71	-0.031946
8881.09	-0.0331447
8891.48	-0.034268
8901.86	-0.0353184
8910.17	-0.0338381
8920.56	-0.0346666
8930.94	-0.0345584
8941.33	-0.0354324
8951.71	-0.0362711
8960.02	-0.0368908
8970.4	-0.0376105
8980.79	-0.0382772
8991.17	-0.0388975
9001.56	-0.0394776
9011.94	-0.0400239
9020.25	-0.0404404
9030.64	-0.0409399
9041.02	-0.0414204
9051.41	-0.0418854
9061.79	-0.0423377
9070.06	-0.0426902
9080.4	-0.043098
9090.73	-0.0434693
9101.07	-0.0438459
9111.4	-0.0442837
9121.74	-0.0447386
9130.01	-0.045083
9140.34	-0.0454908
9150.68	-0.0458744
9161.01	-0.0462348
9171.35	-0.0465728
9181.68	-0.0468889
9192.02	-0.0471836
9200.29	-0.0474042
9210.62	-0.0476616
9220.96	-0.0478991
9231.29	-0.0481173
9241.63	-0.0483169
9251.97	-0.0460766
9260.23	-0.0450793
9270.57	-0.0453165
9280.91	-0.0455347
9291.24	-0.045735
9301.58	-0.0459183
9311.91	-0.0460855
9320.18	-0.0462059
9330.52	-0.0463385
9340.85	-0.0464528
9351.19	-0.0465499
9361.52	-0.0466299
9371.86	-0.046694
9380.13	-0.0467347
9390.46	-0.0467734
9400.8	-0.0467996
9411.13	-0.0468144
9421.47	-0.046819
9431.8	-0.0468138
9440.07	-0.0468028
9450.41	-0.0467808
9460.74	-0.0467501
9471.08	-0.0467112
9481.41	-0.0466649
9491.75	-0.0466116
9500.02	-0.0465643
9510.35	-0.0464998
9520.69	-0.0464297
9531.02	-0.0463543
9541.36	-0.046274
9551.7	-0.0461895
9562.03	-0.0461013
9570.3	-0.0460282
9580.63	-0.0459335
9590.97	-0.045839
9601.31	-0.0457541
9611.64	-0.0456618
9621.98	-0.0455616
9630.24	-0.0454763
9640.58	-0.0453636
9650.92	-0.0452446
9661.25	-0.0451905
9671.59	-0.0451256
9681.92	-0.0450505
9690.19	-0.0449837
9700.53	-0.0448922
9710.86	-0.0447924
9721.2	-0.0446848
9731.53	-0.0445701
9741.87	-0.0444487
9750.14	-0.0443471
9760.47	-0.0442146
9770.81	-0.0440766
9781.14	-0.0439332
9791.48	-0.0437848
9801.81	-0.0436315
9810.08	-0.0435055
9820.42	-0.043344
9830.75	-0.0431782
9841.09	-0.0430082
9851.42	-0.0428341
9861.76	-0.0426562
9870.03	-0.0425111
9880.36	-0.0423264
9890.7	-0.0421381
9901.03	-0.0419462
9911.37	-0.041751
9921.71	-0.0414886
9932.04	-0.0413158
9940.31	-0.0411772
9950.65	-0.0410031
9960.98	-0.0408281
9971.32	-0.040652
9981.65	-0.0404747
9991.99	-0.0402961
10000.3	-0.0401521
10010.6	-0.0399707
10020.9	-0.0397877
10031.3	-0.0396029
10041.6	-0.0394162
10051.9	-0.0392275
10060.2	-0.0390749
10070.5	-0.0388823
10080.9	-0.0371029
10091.2	-0.0368484
10101.5	-0.0365916
10111.9	-0.0363323
10120.1	-0.036123
10130.5	-0.0358591
10140.8	-0.0355926
10151.2	-0.0353371
10161.5	-0.0351328
10171.8	-0.0349258
10180.1	-0.034758
10190.4	-0.0345454
10200.8	-0.0343295
10211.1	-0.0341103
10221.4	-0.0338877
10231.8	-0.0336614
10240	-0.0334778
10250.4	-0.0332449
10260.7	-0.0330083
10271	-0.032768
10281.4	-0.0325238
10291.7	-0.0322757
10302.1	-0.0320239
10310.3	-0.0318196
10320.7	-0.0315608
10331	-0.0312981
10341.3	-0.0310316
10351.7	-0.0307613
10362	-0.0304872
10370.3	-0.0302649
10380.6	-0.0299835
10391	-0.0296996
10401.3	-0.0294146
10411.7	-0.0291283
10422.1	-0.0288404
10430.3	-0.0286088
10440.7	-0.0283176
10451.1	-0.0280242
10461.4	-0.0277286
10471.8	-0.0274306
10480	-0.0271904
10490.4	-0.0268879
10500.8	-0.0265828
10511.1	-0.0262751
10521.5	-0.0259647
10531.8	-0.0256516
10540.1	-0.0253992
10550.5	-0.0250813
10560.8	-0.0247607
10571.2	-0.0244375
10581.5	-0.0241118
10591.9	-0.0237835
10600.2	-0.0235191
10610.5	-0.0231865
10620.9	-0.0228523
10631.2	-0.0225168
10641.6	-0.0221802
10652	-0.0218425
10660.2	-0.0215717
10670.6	-0.0212324
10681	-0.0208923
10691.3	-0.0205516
10701.7	-0.0202103
10712	-0.0198685
10720.3	-0.0195851
10730.7	-0.0191965
10741	-0.0188113
10751.4	-0.0184294
10761.7	-0.0180506
10770	-0.0177498
10780.4	-0.0173764
10790.7	-0.017006
10801.1	-0.0166383
10811.4	-0.0162734
10821.8	-0.0159112
10830.1	-0.0156236
10840.4	-0.0152665
10850.8	-0.0149123
10861.2	-0.0145608
10871.5	-0.014212
10881.9	-0.0138658
10890.1	-0.0135907
10900.5	-0.0132498
10910.9	-0.0129137
10921.2	-0.0125821
10931.6	-0.0122546
10941.9	-0.0119307
10950.2	-0.011674
10960.6	-0.0113559
10970.9	-0.0110405
10981.3	-0.0107276
10991.6	-0.0104087
11002	-0.0100693
11010.3	-0.00980998
11020.6	-0.0094984
11031	-0.00919837
11041.3	-0.00890762
11051.7	-0.0086242
11062.1	-0.00834645
11070.3	-0.00812738
11080.7	-0.00785641
11091.1	-0.00758769
11101.4	-0.00732077
11111.8	-0.00705852
11120.1	-0.00685203
11130.4	-0.00659735
11140.8	-0.00634568
11151.1	-0.00609616
11161.5	-0.00584795
11171.8	-0.0056003
11180.1	-0.0054021
11190.5	-0.00515372
11200.8	-0.00490411
11211.2	-0.00465279
11221.5	-0.00439944
11231.9	-0.00414392
11240.2	-0.00393804
11250.6	-0.00367799
11261	-0.00341567
11271.4	-0.0031512
11281.8	-0.00288444
11290.1	-0.00266924
11300.5	-0.0023978
11310.9	-0.00212347
11321.3	-0.00184609
11331.7	-0.00157048
11340	-0.00135254
11350.4	-0.00108206
11360.8	-0.000812642
11371.2	-0.000543241
11381.6	-0.000272894
11392	-7.4332e-07
11400.3	0.000218757
11411	0.000503016
11421.9	0.000849772
11430.7	0.0012033
11441.6	0.00166001
11450.3	0.00203152
11461.2	0.00249874
11472.1	0.00296601
11480.9	0.00333868
11491.8	0.00380255
11500.5	0.00417179
11511.4	0.00463005
11520.1	0.0049937
11531.1	0.00544459
11542	0.00589232
11550.7	0.00625226
11561.6	0.00670632
11570.3	0.00707315
11581.3	0.00753486
11592.2	0.00799808
11600.9	0.00836901
11611.8	0.00896097
11620.5	0.00983403
11631.5	0.0108639
11640.2	0.0116222
11651.1	0.0124862
11662	0.0132616
11670.7	0.0138328
11681.7	0.0145147
11690.4	0.0150368
11701.3	0.0159372
11710	0.0165862
11720.9	0.0173101
11731.9	0.0179868
11740.6	0.0185094
11751.5	0.0195464
11760.2	0.0206387
11771.1	0.0221123
11782.1	0.0235223
11790.8	0.0246016
11801.7	0.0259176
11810.4	0.0269263
11821.3	0.0281843
11830.1	0.0292167
11841	0.0305407
11851.9	0.0318841
11860.6	0.0329651
11871.5	0.0343252
11880.3	0.0354238
11891.3	0.0368252
11900.1	0.0379663
11911.1	0.0394112
11922.1	0.0408616
11930.9	0.0420104
11942	0.0433931
11950.9	0.0444389
11962	0.0456602
11970.8	0.0465722
11981.9	0.0476452
11990.8	0.048462
