0	0	2363500
10.0496	0	2380418
20.0158	0	2393266
30.974	0	2403064
40.9362	0	2410034
50.906	0	2415176
60.9171	0	2418596
70.0517	0	2420948
80.2259	0	2423604
90.3953	0	2426568
100.565	0	2429054
110.736	0	2431160
120.918	0	2432820
130.083	0	2434480
140.265	0	2436200
150.448	0	2438210
160.631	0	2440068
170.813	0	2441914
180.996	0	2443826
190.16	0	2445682
200.343	0	2447708
210.525	0	2449962
220.708	0	2452134
230.94	0	2454292
240.132	0	2456356
250.344	0	2458498
260.556	0	2460818
270.769	0	2463018
280.991	0	2465412
290.195	0	2467334
300.393	0	2469504
310.59	0	2472032
320.787	0	2474902
330.989	0	2478028
340.177	0	2480742
350.368	0	2483578
360.546	0	2486522
370.717	0	2489476
380.884	0	2492446
390.034	0	2494950
400.201	0	2497820
410.37	0	2500552
420.56	0	2503364
430.796	0	2506262
440.02	0	2508820
450.27	0	2511706
460.516	0	2514456
470.757	0	2517140
480.998	0	2520012
490.215	0	2522394
500.459	0	2525368
510.702	0	2528260
520.947	0	2531044
530.171	0	2533858
540.421	0	2536158
550.708	0	2539158
561.011	0	2541910
570.283	0	2544544
580.587	0	2547574
590.89	0	2550392
600.163	0	2553262
610.467	0	2556422
620.77	0	2559812
630.043	0	2562692
640.346	0	2565942
650.65	0	2569236
660.953	0	2572568
670.226	0	2575626
680.529	0	2578912
690.832	0	2582332
700.105	0	2585462
710.408	0	2588798
720.711	0	2592056
731.014	0	2595446
740.287	0	2598536
750.59	0	2602002
760.893	0	2605404
770.143	0	2608564
780.414	0	2611968
790.68	0	2615812
800.927	0	2619400
810.143	0	2622720
820.384	0	2626508
830.612	0	2630366
840.827	0	2634030
850.018	0	2637418
860.226	0	2641444
870.429	0	2644990
880.633	0	2649044
890.837	0	2652900
900.02	0	2656336
910.222	0	2660304
920.424	0	2664190
930.626	0	2668282
940.827	0	2672324
950.004	0	2675984
960.201	0	2680094
970.398	0	2684372
980.595	0	2688506
990.792	0	2692450
1000.98	0	2696548
1010.14	0	2700408
1020.32	0	2704752
1030.49	0	2708996
1040.65	0	2713384
1050.82	0	2717738
1060.99	0	2721828
1070.14	0	2725796
1080.3	0	2729550
1090.47	0	2733602
1100.64	0	2737616
1110.8	0	2741796
1120.97	0	2745760
1130.12	0	2749286
1140.29	0	2753194
1150.46	0	2756970
1160.62	0	2761070
1170.79	0	2764766
1180.96	0	2768756
1190.11	0	2772478
1200.28	0	2776234
1210.44	0	2780144
1220.61	0	2783658
1230.78	0	2787240
1240.95	0	2790778
1250.1	0	2793910
1260.27	0	2797082
1270.44	0	2800290
1280.6	0	2803822
1290.77	0	2807086
1300.94	0	2810168
1310.09	0	2813156
1320.26	0	2816326
1330.43	0	2819244
1340.6	0	2822242
1350.77	0	2825558
1360.94	0	2828526
1370.09	0	2831930
1380.26	0	2835368
1390.43	0	2838754
1400.59	0	2841886
1410.76	0	2845360
1420.93	0	2848864
1430.08	0	2852078
1440.25	0	2855524
1450.42	0	2859040
1460.59	0	2862580
1470.76	0	2866434
1480.96	0	2870074
1490.2	0	2873334
1500.52	0	2876656
1510.95	0	2880012
1520.33	0	2882812
1530.79	0	2886068
1540.21	0	2889118
1550.68	0	2892234
1560.13	0	2895120
1570.56	0	2897820
1580.01	0	2900196
1590.57	0	2903208
1600.1	0	2905750
1610.56	0	2908674
1621.03	0	2911148
1630.43	0	2913190
1640.94	0	2915228
1650.33	0	2916788
1660.77	0	2918666
1670.24	0	2920102
1680.75	0	2922124
1690.23	0	2923784
1700.81	0	2925768
1710.32	0	2927406
1720.92	0	2929226
1730.59	0	2931178
1740.28	0	2932832
1750.91	0	2934808
1760.67	0	2936402
1770.44	0	2938238
1780.2	0	2939700
1790.25	0	2941486
1800.25	0	2942946
1810.28	0	2943998
1820.05	0	2945208
1830.96	0	2946826
1840.84	0	2948278
1850.65	0	2949786
1860.84	0	2951568
1870.85	0	2953078
1880.83	0	2954814
1890.92	0	2956644
1900.98	0	2958204
1911.02	0	2959938
1921.09	0	2961838
1930.9	0	2963688
1940.76	0	2965392
1950.52	0	2967026
1960.22	0	2968652
1971.08	0	2970486
1980.95	-1.81899e-12	2972624
1990.62	-6.36646e-12	2974412
2000.67	-1.36424e-11	2976248
2010.45	-2.09184e-11	2977734
2020.5	-2.81943e-11	2979308
2030.5	-3.63798e-11	2980650
2040.5	-4.45652e-11	2981978
2050.84	-5.27507e-11	2983726
2060	-6.00267e-11	2984936
2070.12	-7.00311e-11	2986598
2080.41	-9.004e-11	2988434
2090.74	-1.20053e-10	2990108
2101.07	-1.71894e-10	2991770
2110.24	-2.46473e-10	2993092
2120.55	-3.80169e-10	2995096
2130.86	-5.99357e-10	2996832
2140.02	-9.01309e-10	2998186
2150.33	-1.43064e-09	3000068
2160.64	-2.26191e-09	3001814
2170.95	-3.55794e-09	3003794
2180.11	-5.29235e-09	3005146
2190.42	-8.21365e-09	3006998
2200.72	-1.26511e-08	3008462
2211.03	-1.93277e-08	3009958
2220.19	-2.79788e-08	3011474
2230.5	-4.20923e-08	3012800
2240.8	-6.28097e-08	3014450
2251.09	-9.29167e-08	3015938
2260.23	-1.30707e-07	3017398
2270.51	-1.90451e-07	3018928
2280.8	-2.75333e-07	3020442
2291.08	-3.94975e-07	3021838
2300.22	-5.40843e-07	3022916
2310.51	-7.64757e-07	3024262
2320.79	-1.07329e-06	3025602
2331.08	-1.49517e-06	3026654
2340.22	-1.99523e-06	3027288
2350.49	-2.74058e-06	3028522
2360.73	-3.73486e-06	3029588
2370.97	-5.05265e-06	3031272
2380.07	-6.57129e-06	3032036
2390.3	-8.77305e-06	3033212
2400.52	-1.16332e-05	3034402
2410.75	-1.5323e-05	3035690
2420.98	-2.00506e-05	3036940
2430.07	-2.53256e-05	3037770
2440.29	-3.27364e-05	3039052
2450.52	-4.20475e-05	3039674
2460.75	-5.36693e-05	3040602
2470.97	-6.80803e-05	3041186
2480.06	-8.3678e-05	3041796
2490.29	-0.000104936	3042460
2500.51	-0.000130813	3043068
2510.74	-0.000162117	3043534
2520.97	-0.000199751	3043860
2530.06	-0.000239329	3044308
2540.28	-0.000291745	3044744
2550.51	-0.000353673	3045656
2560.73	-0.000426408	3046298
2570.96	-0.000511341	3046854
2580.05	-0.00059827	3047780
2590.27	-0.00071034	3048544
2600.5	-0.000839082	3049572
2610.72	-0.000986161	3050410
2620.95	-0.00115328	3051228
2630.04	-0.00132005	3052372
2640.27	-0.00152985	3053514
2650.5	-0.00176471	3054608
2660.74	-0.0020262	3055964
2670.97	-0.00231591	3057156
2680.07	-0.00259828	3058354
2690.3	-0.00294512	3059832
2700.54	-0.00332401	3061396
2710.77	-0.00373596	3063292
2721	-0.0041818	3064730
2730.1	-0.00460703	3066172
2740.33	-0.00511832	3067586
2750.56	-0.00566461	3069618
2760.8	-0.00624577	3071164
2771.03	-0.00686146	3072520
2780.13	-0.00743721	3073742
2790.36	-0.00811615	3075390
2800.59	-0.00882728	3076860
2810.86	-0.00957095	3078614
2821.14	-0.0103451	3079430
2830.28	-0.0110564	3080550
2840.57	-0.0118804	3081636
2850.85	-0.0127272	3083036
2861.12	-0.0135929	3084150
2870.22	-0.0143749	3085210
2880.46	-0.015268	3086418
2890.69	-0.0161726	3087832
2900.92	-0.0170853	3088758
2910.02	-0.0179007	3089804
2920.25	-0.0188193	3091310
2930.49	-0.0197356	3092216
2940.72	-0.0206456	3093524
2950.96	-0.0215452	3094338
2960.05	-0.0223326	3095160
2970.29	-0.0232005	3096294
2980.52	-0.0240451	3097200
2990.76	-0.0248613	3098922
3000.99	-0.0256441	3100162
3010.09	-0.0263074	3101448
3020.33	-0.0270119	3102816
3030.56	-0.0276665	3104078
3040.8	-0.0282647	3105594
3051.04	-0.0287997	3106332
3060.13	-0.0292165	3107632
3070.37	-0.0296123	3109138
3080.61	-0.0299228	3110520
3090.84	-0.0301394	3111808
3101.08	-0.0302528	3113294
3110.18	-0.0302591	3114570
3120.41	-0.0301503	3116240
3130.65	-0.0299082	3117652
3140.88	-0.0295213	3119078
3151.12	-0.0289773	3120380
3160.22	-0.0283515	3122020
3170.45	-0.0274754	3123372
3180.69	-0.0264037	3124840
3190.93	-0.0251223	3126358
3200.02	-0.0237953	3127782
3210.26	-0.0220777	3129452
3220.5	-0.0201075	3131334
3230.73	-0.0178698	3133160
3240.97	-0.0153497	3134950
3250.07	-0.0128604	3136776
3260.3	-0.00976642	3138644
3270.54	-0.0063475	3140782
3280.77	-0.00258914	3142940
3291.01	0.00152294	3144788
3300.11	0.00548932	3146748
3310.37	0.0103206	3148758
3320.64	0.0155417	3150880
3330.92	0.021388	3152732
3340.06	0.0295185	3154174
3350.33	0.0400357	3155844
3360.57	0.0503427	3157182
3370.79	0.0647159	3158614
3381	0.0832472	3159612
3390.08	0.0996988	3160912
3400.29	0.119761	3162546
3410.5	0.139548	3163810
3420.71	0.160764	3165450
3430.93	0.183389	3166908
3440	0.203078	3168236
3450.21	0.237477	3169322
3460.43	0.272188	3170802
3470.64	0.301551	3172272
3480.85	0.331148	3173944
3491.06	0.35752	3175628
3500.14	0.379944	3177102
3510.35	0.403879	3178390
3520.56	0.426403	3179790
3530.77	0.448307	3181482
3540.98	0.468747	3183028
3550.06	0.486222	3184666
3560.27	0.504976	3186230
3570.48	0.523109	3188004
3580.7	0.540645	3189770
3590.91	0.557356	3191456
3601.12	0.573459	3193348
3610.2	0.587219	3194872
3620.41	0.60218	3196838
3630.62	0.616423	3198457
3640.83	0.629747	3199767
3651.04	0.642065	3201535
3660.12	0.652029	3202749
3670.33	0.661956	3204609
3680.54	0.670221	3205995
3690.75	0.675488	3207669
3700.96	0.678385	3208933
3710.04	0.679963	3210439
3720.26	0.679487	3211977
3730.49	0.677431	3213573
3740.72	0.674092	3215341
3750.95	0.669724	3216893
3760.05	0.664985	3218435
3770.29	0.658641	3219761
3780.52	0.65125	3221133
3790.75	0.642811	3222811
3800.99	0.633362	3224161
3810.08	0.624109	3225825
3820.29	0.612804	3227364
3830.44	0.600405	3229774
3840.59	0.581732	3231674
3850.75	0.562247	3233724
3860.9	0.540218	3235412
3871.05	0.51849	3237407
3880.07	0.498513	3239214
3890.23	0.470892	3241106
3900.38	0.431394	3242973
3910.53	0.393951	3244977
3920.68	0.35708	3247196
3930.84	0.320699	3249188
3940.99	0.28582	3250956
3950.01	0.25478	3252812
3960.16	0.221369	3254740
3970.32	0.188708	3256888
3980.47	0.157226	3258420
3990.62	0.127124	3260740
4000.77	0.0980766	3262212
4010.92	0.0704757	3264113
4021.07	0.043933	3265624
4030.1	0.0212908	3266980
4040.25	-0.00328564	3268804
4050.4	-0.0271072	3270269
4060.55	-0.0502579	3272045
4070.71	-0.0729386	3273213
4080.86	-0.0951996	3274859
4091.01	-0.117165	3276159
4100.03	-0.136481	3277593
4110.19	-0.158017	3279035
4120.35	-0.179362	3280283
4130.53	-0.200511	3281973
4140.75	-0.22151	3283085
4150.99	-0.242226	3284943
4160.09	-0.260371	3285683
4170.34	-0.28041	3287291
4180.59	-0.299995	3288873
4190.84	-0.319056	3290439
4201.08	-0.33752	3292374
4210.19	-0.353376	3293514
4220.44	-0.37051	3295176
4230.69	-0.386794	3296344
4240.94	-0.402097	3297710
4250.05	-0.414727	3299091
4260.27	-0.427653	3300652
4270.49	-0.439044	3301812
4280.71	-0.448762	3302866
4290.92	-0.456016	3304352
4300.01	-0.460461	3305446
4310.23	-0.460482	3306618
4320.33	-0.45984	3307754
4330.39	-0.457792	3309454
4340.48	-0.454048	3310874
4350.57	-0.448784	3312173
4360.66	-0.441945	3313573
4370.75	-0.433695	3314723
4380.84	-0.424059	3316525
4390.93	-0.4131	3317780
4401.02	-0.400942	3319648
4411.11	-0.387477	3321242
4420.08	-0.374551	3322556
4430.17	-0.359019	3324782
4440.25	-0.342629	3326826
4450.34	-0.325368	3328570
4460.43	-0.307141	3330822
4470.52	-0.288493	3332722
4480.6	-0.269206	3334899
4490.69	-0.249299	3337116
4500.88	-0.228605	3339228
4511.06	-0.207511	3341478
4520.02	-0.188732	3343076
4530.11	-0.167613	3345182
4540.19	-0.146812	3347300
4550.28	-0.126689	3349226
4560.37	-0.107629	3351116
4570.46	-0.0899719	3353126
4580.55	-0.0739542	3354770
4590.64	-0.0596742	3356865
4600.73	-0.0471183	3358265
4610.82	-0.0362144	3359954
4620.91	-0.0268503	3361354
4631	-0.0188566	3362516
4641.1	-0.012018	3364074
4650.07	-0.00673232	3365658
4660.16	-0.00149554	3367345
4670.25	0.00316949	3368799
4680.34	0.00742518	3370335
4690.44	0.0113982	3371757
4700.53	0.0150579	3373349
4710.62	0.018631	3374751
4720.71	0.0220662	3375840
4730.8	0.0253548	3377134
4740.89	0.0285439	3378168
4750.99	0.0317645	3379004
4761.1	0.0335618	3380054
4770.23	0.0353808	3380708
4780.53	0.0375267	3381672
4790.82	0.0396262	3382574
4801.11	0.0415165	3383702
4810.26	0.0430149	3384518
4820.56	0.044629	3385758
4830.85	0.0455847	3386991
4840	0.046659	3388255
4850.29	0.0475658	3389753
4860.45	0.0482407	3391173
4870.53	0.0488126	3392153
4880.62	0.0492262	3393645
4890.71	0.0494332	3394957
4900.8	0.049437	3395863
4910.88	0.0492267	3397201
4920.97	0.0487849	3398077
4931.06	0.0481065	3399189
4940.02	0.0473055	3400487
4950.11	0.0461823	3401554
4960.2	0.0448254	3402442
4970.28	0.04324	3403506
4980.37	0.0414352	3404538
4990.46	0.0394223	3405764
5000.55	0.0372135	3406840
5010.64	0.0348236	3408376
5020.74	0.0322694	3409756
5030.83	0.0295693	3410834
5040.92	0.0267432	3412246
5051.01	0.0238121	3413716
5061.11	0.0207976	3415062
5070.08	0.0180665	3416274
5080.17	0.0149576	3417688
5090.26	0.011833	3418965
5100.35	0.00871562	3419887
5110.45	0.00562734	3421312
5120.54	0.00258828	3422136
5130.63	-0.000382984	3423100
5140.72	-0.00326935	3424404
5150.82	-0.00605512	3425320
5160.91	-0.00872611	3426396
5171	-0.0112699	3427064
5181.09	-0.0136764	3428330
5190.06	-0.0156942	3429062
5200.16	-0.017824	3430178
5210.42	-0.0198363	3431395
5220.73	-0.0217061	3432159
5231.05	-0.0234271	3433404
5240.22	-0.0248383	3434714
5250.53	-0.0263012	3435814
5260.85	-0.027643	3437080
5270.01	-0.028744	3438219
5280.33	-0.0298899	3439183
5290.64	-0.0309483	3440509
5300.96	-0.0319295	3441675
5310.13	-0.0327444	3442628
5320.45	-0.0336059	3443244
5330.79	-0.0344178	3444112
5341.14	-0.0351869	3444876
5350.33	-0.035841	3445441
5360.68	-0.0365504	3446030
5371.02	-0.037238	3446626
5380.22	-0.0378358	3447186
5390.56	-0.0384976	3447880
5400.9	-0.0391518	3448555
5410.1	-0.0397293	3449201
5420.44	-0.0403765	3449633
5430.79	-0.0410219	3450133
5441.13	-0.041666	3450891
5450.33	-0.0422373	3451068
5460.67	-0.042878	3451588
5471.02	-0.0435154	3451717
5480.21	-0.0440781	3452270
5490.55	-0.0447054	3452344
5500.9	-0.0453248	3452918
5510.09	-0.0458675	3453412
5520.44	-0.0464674	3454086
5530.78	-0.0470541	3454940
5541.09	-0.0476253	3455528
5550.26	-0.0481204	3456227
5560.57	-0.0486624	3456759
5570.89	-0.0491886	3457811
5580.06	-0.0496434	3458379
5590.37	-0.0501416	3459578
5600.69	-0.0506274	3460733
5611	-0.051103	3461367
5620.17	-0.0515198	3461773
5630.49	-0.0519851	3462607
5640.81	-0.0524504	3463141
5651.12	-0.0529203	3463029
5660.29	-0.0533457	3463643
5670.61	-0.0538376	3463841
5680.92	-0.0543487	3464125
5690.09	-0.0548236	3464703
5700.41	-0.0553857	3464953
5710.73	-0.0559824	3465161
5721.04	-0.0566184	3464825
5730.21	-0.0572204	3465203
5740.53	-0.0579425	3464867
5750.84	-0.0587155	3465131
5760.01	-0.0594476	3464799
5770.33	-0.0603239	3465097
5780.64	-0.0612576	3464917
5790.96	-0.0622498	3465245
5800.13	-0.0631811	3465717
5810.45	-0.0642842	3465627
5820.82	-0.0654522	3466395
5830.07	-0.0665412	3466715
5840.47	-0.0678191	3466918
5850.87	-0.0691507	3467366
5860.12	-0.0703772	3467884
5870.52	-0.0718023	3468142
5880.93	-0.073272	3468562
5890.17	-0.0746126	3468856
5900.57	-0.0761549	3469850
5910.97	-0.0777283	3469900
5920.22	-0.0791484	3470496
5930.62	-0.0807643	3470458
5941.02	-0.0823926	3470698
5950.27	-0.0838442	3470125
5960.67	-0.0854744	3470293
5971.06	-0.0870901	3470485
5980.29	-0.0885084	3470561
5990.68	-0.0900745	3470737
6001.06	-0.0915992	3470904
6010.3	-0.0929112	3471676
6020.68	-0.0943285	3471433
6031.07	-0.0956733	3471731
6040.31	-0.0967991	3471678
6050.69	-0.0979781	3471546
6061.08	-0.0990546	3471740
6070.31	-0.0999179	3472039
6080.7	-0.100776	3472599
6091.09	-0.101505	3472954
6100.32	-0.102039	3473873
6110.71	-0.102506	3474716
6121.1	-0.102824	3475649
6130.33	-0.102978	3476667
6140.72	-0.103002	3478095
6151.09	-0.102863	3479650
6160.3	-0.102603	3480836
6170.64	-0.102152	3481672
6180.98	-0.101534	3482626
6190.16	-0.100843	3483881
6200.48	-0.0999066	3485055
6210.78	-0.0988038	3486693
6221.07	-0.097537	3487902
6230.2	-0.0962743	3489026
6240.47	-0.0947009	3490176
6250.74	-0.0929683	3491138
6261.01	-0.0910807	3492549
6270.12	-0.0892783	3493541
6280.34	-0.0871177	3495179
6290.56	-0.0848165	3496289
6300.78	-0.0823804	3497448
6310.99	-0.079815	3498718
6320.05	-0.0774331	3500060
6330.24	-0.0746449	3501332
6340.43	-0.0717478	3502552
6350.6	-0.0687507	3503404
6360.75	-0.0656613	3504553
6370.91	-0.0624829	3505739
6381.06	-0.0592231	3507081
6390.09	-0.0562631	3508221
6400.24	-0.05287	3509170
6410.4	-0.0494174	3510058
6420.55	-0.0459129	3511190
6430.71	-0.0423642	3512022
6440.86	-0.0387813	3512497
6451	-0.0351718	3513469
6460	-0.0319463	3514349
6470.14	-0.0283026	3515157
6480.27	-0.0246495	3516228
6490.4	-0.0209935	3516803
6500.54	-0.0173406	3517711
6510.67	-0.0136967	3518481
6520.8	-0.0100673	3519137
6530.94	-0.00645765	3519637
6541.07	-0.00287271	3520892
6550.08	0.000289437	3521372
6560.21	0.00381537	3522628
6570.34	0.00730404	3523134
6580.47	0.0107516	3524422
6590.61	0.0141545	3525244
6600.74	0.017511	3526408
6610.93	0.0208317	3527314
6621.11	0.0240965	3528752
6630.15	0.026947	3529228
6640.31	0.0300923	3530947
6650.46	0.0331752	3531654
6660.62	0.036193	3532584
6670.77	0.0391431	3533822
6680.93	0.042023	3534492
6691.08	0.0448301	3535522
6700.11	0.047262	3536158
6710.26	0.0499243	3537452
6720.41	0.0525042	3537978
6730.55	0.0549989	3539304
6740.68	0.0574059	3539702
6750.82	0.059724	3540756
6760.95	0.0619502	3541390
6771.08	0.0640813	3542494
6780.09	0.0658934	3542950
6790.22	0.0678364	3543180
6800.36	0.0696753	3543512
6810.49	0.0714068	3544044
6820.62	0.0730278	3544154
6830.76	0.0745351	3544217
6840.89	0.0759256	3544173
6851.03	0.0771965	3543943
6860.03	0.0782234	3543931
6870.17	0.0792604	3543679
6880.3	0.0801698	3543705
6890.44	0.0809489	3543563
6900.57	0.0815954	3543839
6910.71	0.0821072	3543987
6920.84	0.0824821	3544731
6930.98	0.0827184	3545513
6941.11	0.0828144	3546371
6950.12	0.082781	3547207
6960.25	0.0826086	3547639
6970.39	0.0822929	3548907
6980.52	0.0818333	3549437
6990.66	0.0812297	3550339
7000.79	0.0804823	3550843
7010.94	0.0795909	3552175
7021.13	0.0785528	3552633
7030.2	0.0775094	3553197
7040.41	0.0762017	3553873
7050.63	0.0747565	3553860
7060.85	0.0731769	3555028
7071.07	0.0714663	3555415
7080.21	0.0698315	3556519
7090.55	0.0678662	3557393
7100.93	0.0657745	3558064
7110.14	0.0638239	3558812
7120.49	0.0615359	3559157
7130.84	0.0591523	3560079
7140.04	0.0569604	3560581
7150.39	0.0544209	3561248
7160.74	0.0518131	3561728
7171.09	0.0491473	3561978
7180.29	0.0467379	3563111
7190.64	0.0439928	3564088
7200.99	0.0412223	3565960
7210.19	0.0387479	3566984
7220.54	0.0359618	3568484
7230.89	0.0331846	3570036
7240.09	0.0307338	3571224
7250.43	0.0280077	3572754
7260.77	0.0253246	3574274
7271.12	0.0226957	3576182
7280.31	0.0204132	3577386
7290.65	0.0179159	3579090
7301	0.0155026	3580356
7310.19	0.0134354	3581759
7320.54	0.0112054	3583277
7330.88	0.0090839	3584547
7340.07	0.00729498	3585498
7350.42	0.00539707	3586379
7360.76	0.00362577	3587499
7371.1	0.00198551	3588795
7380.3	0.000640176	3589297
7390.64	-0.000741189	3590184
7400.94	-0.00197933	3590234
7410.05	-0.00295686	3590446
7420.29	-0.00392494	3591126
7430.54	-0.00475363	3591692
7440.77	-0.00544315	3592280
7451	-0.00599491	3592303
7460.1	-0.0063717	3593096
7470.33	-0.00666986	3593447
7480.56	-0.00683767	3594061
7490.79	-0.00687851	3594591
7501.02	-0.0067962	3595352
7510.11	-0.00662313	3595460
7520.34	-0.00632028	3596128
7530.57	-0.00590784	3596466
7540.8	-0.00539125	3596564
7551.03	-0.00477635	3597127
7560.13	-0.00415224	3597205
7570.36	-0.00336881	3598551
7580.59	-0.00250586	3599258
7590.82	-0.00157053	3600154
7601.04	-0.000571299	3601181
7610.09	0.000361665	3601707
7620.24	0.0014547	3602739
7630.37	0.00258619	3603311
7640.49	0.00375022	3604259
7650.61	0.00493924	3604969
7660.72	0.00614496	3605449
7670.84	0.00735902	3606371
7680.96	0.00857308	3606875
7691.08	0.00977888	3607699
7700.07	0.0108372	3607931
7710.19	0.0120053	3609093
7720.31	0.0131422	3609358
7730.43	0.0142407	3609834
7740.54	0.0152936	3610524
7750.66	0.0162945	3610432
7760.78	0.0172375	3610850
7770.89	0.0181172	3610813
7781.01	0.018929	3610873
7790	0.0195902	3610663
7800.12	0.0202635	3610582
7810.25	0.0208599	3610786
7820.4	0.0213781	3611052
7830.53	0.0218146	3610921
7840.65	0.0221703	3611159
7850.76	0.0224465	3610931
7860.88	0.0226445	3611114
7871	0.0227666	3610700
7881.12	0.0228158	3611174
7890.11	0.0228011	3611114
7900.23	0.0227227	3611410
7910.35	0.0225835	3611734
7920.46	0.0223887	3611822
7930.58	0.0221439	3612671
7940.7	0.0218553	3612911
7950.74	0.0215319	3613267
7960.67	0.0211822	3613667
7970.58	0.0208098	3614304
7980.49	0.0204206	3615042
7990.4	0.0200208	3615834
8000.32	0.0196169	3616454
8010.22	0.019215	3617117
8020.13	0.0188212	3618106
8030.03	0.018441	3618630
8041.03	0.0180409	3619630
8050.94	0.0177064	3620474
8060.84	0.0174008	3621617
8070.75	0.0171282	3622873
8080.65	0.0168919	3623892
8090.56	0.0166951	3625288
8100.46	0.0165402	3626508
8110.36	0.0164289	3627791
8120.27	0.0163626	3629097
8130.17	0.0163419	3630324
8140.08	0.0163668	3630959
8151.08	0.0164473	3632249
8160.98	0.0165661	3633107
8170.89	0.016727	3633793
8180.79	0.0169276	3634839
8190.75	0.0171666	3635835
8200.82	0.0174429	3637607
8210.89	0.01775	3638829
8220.99	0.0180847	3640133
8231.11	0.018442	3640943
8240.11	0.018774	3641450
8250.23	0.0191584	3642423
8260.36	0.019549	3643223
8270.48	0.0199398	3644715
8280.61	0.0203248	3645267
8290.73	0.0206979	3646037
8300.85	0.0210528	3646687
8310.98	0.0213835	3647283
8321.1	0.0216837	3648045
8330.1	0.0219203	3648410
8340.22	0.022147	3649036
8350.35	0.0223265	3649488
8360.47	0.0224535	3650533
8370.59	0.0225229	3651246
8380.72	0.0225297	3651860
8390.84	0.0224695	3652557
8400.96	0.0223381	3652427
8411.09	0.0221318	3652549
8420.09	0.0218825	3652493
8430.21	0.0215253	3653069
8440.34	0.021084	3653085
8450.47	0.0205556	3653069
8460.64	0.0199365	3653125
8470.84	0.0192241	3653191
8481.04	0.0184181	3653143
8490.12	0.017622	3653257
8500.34	0.0166352	3652833
8510.58	0.0155506	3652713
8520.84	0.0143671	3652789
8531.11	0.0130861	3651988
8540.23	0.0118662	3651636
8550.49	0.0104028	3651083
8560.76	0.00884345	3650212
8571.02	0.00718912	3649980
8580.14	0.00563967	3649750
8590.41	0.00380887	3649611
8600.67	0.00188662	3649515
8610.93	-0.00012545	3649175
8620.05	-0.00198689	3649565
8630.29	-0.00415747	3649131
8640.52	-0.00641099	3649109
8650.76	-0.0087452	3648723
8660.99	-0.0111573	3648567
8670.09	-0.0133641	3648691
8680.32	-0.0159139	3648363
8690.55	-0.0185313	3648013
8700.79	-0.0212123	3647938
8711.02	-0.0239525	3647948
8720.11	-0.0264338	3647934
8730.34	-0.0292719	3647638
8740.58	-0.0321539	3647554
8750.81	-0.0350737	3647225
8761.04	-0.038025	3646909
8770.13	-0.0406693	3646893
8780.36	-0.0436611	3646792
8790.59	-0.0466615	3647016
8800.8	-0.0496617	3647234
8811.01	-0.0526568	3646779
8820.09	-0.0553082	3646955
8830.3	-0.0582707	3647067
8840.51	-0.0612029	3647016
8850.72	-0.0640964	3647203
8860.93	-0.0669421	3647139
8871.13	-0.0697309	3647235
8880.21	-0.0721548	3647239
8890.42	-0.0748115	3647410
8900.63	-0.0773853	3647515
8910.83	-0.0798675	3647421
8921.04	-0.0822494	3647242
8930.11	-0.0842759	3647564
8940.32	-0.0864462	3647473
8950.51	-0.088492	3647141
8960.7	-0.0904087	3646740
8970.87	-0.0921856	3646638
8980.99	-0.0938165	3646335
8991.1	-0.0953019	3646385
9000.09	-0.0964984	3646333
9010.2	-0.0977021	3646010
9020.31	-0.0987526	3645481
9030.42	-0.0996476	3644733
9040.52	-0.100386	3644333
9050.63	-0.100967	3643615
9060.74	-0.10139	3643035
9070.85	-0.101656	3642784
9080.96	-0.101768	3642279
9091.07	-0.101726	3642303
9100.05	-0.101562	3642302
9110.16	-0.101238	3642093
9120.27	-0.100769	3641633
9130.37	-0.10016	3641329
9140.48	-0.0994154	3641178
9150.6	-0.0985386	3641214
9160.74	-0.0975337	3641688
9170.89	-0.0964066	3641997
9181.05	-0.0951634	3642469
9190.07	-0.0939667	3642897
9200.2	-0.0925269	3644139
9210.31	-0.0909922	3644875
9220.41	-0.0893675	3646771
9230.52	-0.0876591	3647437
9240.63	-0.0858735	3649337
9250.74	-0.0840172	3650639
9260.85	-0.0820969	3651781
9270.96	-0.0801193	3653239
9281.07	-0.0780909	3654347
9290.05	-0.0762507	3655621
9300.16	-0.0741446	3656467
9310.27	-0.072007	3657465
9320.38	-0.0698445	3658075
9330.49	-0.0676636	3659121
9340.6	-0.0654711	3660491
9350.71	-0.0632734	3661141
9360.82	-0.061077	3662315
9370.93	-0.0588885	3663613
9381.04	-0.0567142	3664987
9390.03	-0.0547987	3665835
9400.14	-0.0526686	3666795
9410.25	-0.0505708	3667614
9420.36	-0.0485113	3668578
9430.47	-0.0464959	3669392
9440.58	-0.0445304	3670120
9450.69	-0.0426202	3670754
9460.8	-0.0407704	3671616
9470.91	-0.038986	3672612
9481.02	-0.0372717	3673742
9490.01	-0.0358103	3674734
9500.12	-0.0342399	3676216
9510.24	-0.0327495	3677538
9520.43	-0.0313361	3678567
9530.62	-0.0300105	3679410
9540.81	-0.0287765	3680575
9551	-0.0276361	3681745
9560.06	-0.026702	3682252
9570.25	-0.0257418	3683544
9580.44	-0.024878	3684497
9590.63	-0.0241106	3684809
9600.83	-0.0234392	3686557
9611.02	-0.0228629	3686973
9620.08	-0.0224291	3687686
9630.27	-0.0220276	3688442
9640.46	-0.0217156	3688507
9650.65	-0.0214901	3688629
9660.84	-0.021348	3688194
9671.03	-0.0212854	3688682
9680.09	-0.0212933	3688471
9690.28	-0.0213697	3688295
9700.47	-0.021513	3687940
9710.66	-0.0217182	3687496
9720.86	-0.0219801	3686895
9731.05	-0.0222929	3686339
9740.11	-0.0226092	3685008
9750.3	-0.0230027	3684610
9760.49	-0.0234302	3683796
9770.68	-0.0238856	3683396
9780.87	-0.0243626	3682971
9791.06	-0.024855	3682068
9800.12	-0.0253006	3682068
9810.31	-0.025805	3681024
9820.51	-0.0263068	3680468
9830.7	-0.0268	3679933
9840.88	-0.0272779	3678521
9851.05	-0.0277351	3677848
9860.08	-0.0281193	3677286
9870.24	-0.0285223	3676758
9880.4	-0.0288894	3676415
9890.56	-0.0292158	3676317
9900.71	-0.0294968	3675900
9910.87	-0.0297282	3675400
9921.03	-0.0299061	3675289
9930.06	-0.0300164	3674525
9940.19	-0.0300837	3673512
9950.33	-0.0300887	3672123
9960.47	-0.0300289	3671296
9970.6	-0.0299025	3670018
9980.74	-0.0297079	3669263
9990.87	-0.0294443	3668197
10001	-0.0291111	3667237
10010	-0.0287564	3667089
10020.2	-0.028292	3666449
10030.3	-0.0277591	3666534
10040.4	-0.0271589	3666468
10050.6	-0.0264934	3666757
10060.7	-0.0257645	3667041
10070.8	-0.0249749	3667260
10081	-0.0241275	3668046
10091.1	-0.0232256	3668487
10100.1	-0.022381	3668687
10110.3	-0.0213863	3669421
10120.4	-0.0203482	3670002
10130.5	-0.0192713	3670943
10140.7	-0.0181599	3671302
10150.8	-0.0170187	3672136
10161	-0.0158519	3672571
10171.1	-0.0146637	3672982
10180.2	-0.0135915	3673315
10190.3	-0.0123749	3673593
10200.5	-0.011152	3673711
10210.7	-0.00992757	3674337
10220.9	-0.00870682	3674613
10231.1	-0.00749445	3675372
10240.1	-0.00642746	3675815
10250.3	-0.00524201	3676167
10260.4	-0.00407614	3677617
10270.6	-0.00293357	3678341
10280.8	-0.0018178	3679396
10290.9	-0.000732071	3680734
10301.1	0.000320591	3681993
10310.1	0.00122627	3683374
10320.3	0.00220906	3684691
10330.5	0.00315134	3685838
10340.6	0.00405097	3687144
10350.8	0.00490599	3688398
10361	0.00571464	3689943
10370	0.00639321	3690670
10380.2	0.00711002	3691393
10390.4	0.00777622	3692367
10400.5	0.00839061	3693331
10410.7	0.00895204	3694445
10420.9	0.0094607	3695714
10431.1	0.00991484	3696727
10440.2	0.0102712	3697275
10450.4	0.0106181	3697379
10460.6	0.010907	3697883
10470.8	0.011137	3698413
10481	0.0113072	3699129
10490.1	0.0114076	3699396
10500.3	0.0114628	3699471
10510.5	0.0114559	3699811
10520.7	0.0113863	3699234
10530.9	0.0112532	3699325
10541	0.0110559	3699167
10550.1	0.0108261	3698950
10560.3	0.0105057	3699188
10570.5	0.0101194	3699087
10580.7	0.00966679	3698772
10590.9	0.00914755	3698594
10601.1	0.00856158	3697838
10610.1	0.00798476	3697423
10620.3	0.00727311	3697052
10630.5	0.00649553	3696578
10640.7	0.00565275	3696747
10650.9	0.00474574	3696652
10661.1	0.00377541	3696448
10670.2	0.00286137	3697002
10680.4	0.00177683	3696602
10690.6	0.0006344	3696726
10700.8	-0.000563576	3696539
10711	-0.00181362	3695927
10720.1	-0.00296566	3695888
10730.3	-0.00430441	3695541
10740.5	-0.00568403	3695210
10750.7	-0.00709972	3694947
10760.9	-0.00854764	3694479
10771.1	-0.0100232	3694202
10780.1	-0.0113538	3694135
10790.3	-0.0128674	3693948
10800.5	-0.0143932	3694376
10810.7	-0.0159257	3694100
10820.9	-0.0174591	3694047
10830	-0.0188181	3693681
10840.2	-0.0203373	3693222
10850.4	-0.0218406	3693127
10860.6	-0.0233222	3693449
10870.8	-0.0247766	3693354
10881	-0.0261982	3693323
10890.1	-0.0274304	3692593
10900.3	-0.0287764	3692264
10910.5	-0.0300756	3692248
10920.7	-0.0313237	3692447
10930.9	-0.0325168	3692722
10941.1	-0.0336514	3692264
10950.1	-0.0346085	3692149
10960.3	-0.0356248	3691810
10970.5	-0.0365753	3691539
10980.7	-0.0374583	3691274
10990.9	-0.0382727	3690766
11000	-0.0389387	3690979
11010.2	-0.0396229	3690247
11020.4	-0.0402386	3690610
11030.7	-0.0407868	3690438
11041	-0.0412708	3690844
11050.2	-0.0416457	3690922
11060.5	-0.0420059	3691346
11070.8	-0.0423031	3691877
11080	-0.0425168	3692412
11090.3	-0.0427033	3692409
11100.6	-0.0428358	3692501
11111	-0.0429175	3692468
11120.1	-0.0429505	3692789
11130.4	-0.0429463	3692605
11140.7	-0.042902	3692742
11150.9	-0.0428211	3693122
11160	-0.0427212	3693288
11170.3	-0.0425802	3692896
11180.5	-0.0424121	3692875
11190.8	-0.0422195	3692894
11201	-0.0420052	3693319
11210.1	-0.0417984	3693164
11220.3	-0.041551	3693885
11230.4	-0.0412895	3694372
11240.5	-0.0410149	3694502
11250.6	-0.0407281	3694961
11260.7	-0.0404297	3695873
11270.8	-0.0401202	3697232
11280.9	-0.0397999	3698272
11291	-0.039469	3699903
11301.1	-0.0391271	3701635
11310.1	-0.0388136	3702041
11320.2	-0.0384496	3702934
11330.3	-0.0380728	3702766
11340.3	-0.0376822	3703291
11350.4	-0.0372766	3703166
11360.5	-0.0368549	3702510
11370.6	-0.0364156	3702068
11380.7	-0.0359573	3701220
11390.8	-0.0354788	3700950
11400.9	-0.0349786	3700266
11411	-0.0344539	3700232
11420.1	-0.0339647	3699940
11430.3	-0.0333874	3699571
11440.5	-0.0327821	3699481
11450.7	-0.0321482	3699452
11460.9	-0.0314846	3699335
11470	-0.0308689	3699315
11480.2	-0.0301467	3698753
11490.4	-0.0293922	3699224
11500.7	-0.028605	3698712
11510.9	-0.0277843	3697780
11521.1	-0.0269293	3696337
11530.2	-0.0261388	3695947
11540.5	-0.0252169	3695253
11550.7	-0.0242603	3694489
11561	-0.0232687	3694286
11570.1	-0.022358	3693964
11580.3	-0.0213005	3693521
11590.6	-0.0202079	3692525
11600.8	-0.0190805	3691941
11611.1	-0.0179182	3691457
11620.2	-0.0168558	3691367
11630.4	-0.0156278	3690506
11640.7	-0.0143653	3689461
11650.9	-0.0130684	3688696
11660	-0.0118874	3687733
11670.2	-0.0105317	3687381
11680.4	-0.00914879	3686609
11690.5	-0.00773901	3686276
11700.5	-0.00630574	3685561
11710.6	-0.00484519	3684962
11720.6	-0.00335512	3684182
11730.6	-0.00183521	3682959
11740.6	-0.000285581	3682304
11750.6	0.00129301	3680999
11760.6	0.00289966	3679851
11770.6	0.00453333	3678953
11780.6	0.0061928	3678100
11790.6	0.0078767	3677536
11800.7	0.0095835	3676990
11810.7	0.0113114	3676770
11820.7	0.0130586	3675911
11830.7	0.0148229	3675239
11840.7	0.016602	3674381
11850.7	0.0183933	3673443
11860.7	0.0201943	3672683
11870.7	0.0220019	3671674
11880.7	0.0238167	3670911
11890.8	0.0256367	3669846
11900.9	0.027455	3667770
11910.9	0.0292669	3666475
11921	0.0310686	3664789
11931.1	0.0328595	3663839
11940	0.0344396	3662677
11950.2	0.0362007	3661834
11960.3	0.0379414	3660875
11970.5	0.0396566	3660482
11980.7	0.0413403	3659273
11990.8	0.0429835	3658739
12001	0.0445844	3657675
12011.1	0.0461408	3656867
12020.2	0.0474839	3656357
12030.3	0.0489466	3655276
12040.5	0.0503552	3654613
12050.6	0.0517066	3654134
12060.8	0.0529983	3654009
12070.9	0.0542278	3653173
12081.1	0.0553932	3652365
12090.1	0.0563737	3652190
12100.3	0.0574131	3652063
12110.4	0.0583835	3652158
12120.5	0.0592822	3652100
12130.6	0.0601105	3651994
12140.7	0.0608693	3652336
12150.8	0.061559	3652390
12160.9	0.0621801	3652300
12171.1	0.0627333	3651811
12180	0.0631691	3651614
12190.1	0.0635977	3651676
12200.2	0.0639624	3651117
12210.4	0.0642654	3651183
12220.5	0.0645086	3651053
12230.6	0.0646945	3651087
12240.7	0.0648256	3650911
12250.8	0.0649045	3650386
12260.9	0.0649342	3649971
12271	0.0649173	3648979
12281.1	0.064857	3648483
12290.1	0.0647692	3647979
12300.2	0.0646347	3646911
12310.3	0.0644652	3646332
12320.4	0.0642635	3645746
12330.5	0.0640324	3644814
12340.6	0.0637743	3643937
12350.7	0.0634918	3642869
12360.8	0.063187	3641308
12370.9	0.0628616	3640437
12381.1	0.062517	3638425
12390.1	0.0621964	3637700
12400.3	0.061821	3636570
12410.4	0.061431	3635216
12420.6	0.0610274	3633860
12430.7	0.0606103	3632024
12440.9	0.0601794	3630888
12451.1	0.0597341	3629016
12460.2	0.0593267	3628052
12470.4	0.0588555	3626548
12480.7	0.0583703	3625461
12490.8	0.057874	3624735
12500.9	0.0573664	3623655
12510.9	0.0568451	3622950
12520.9	0.0563065	3621809
12530.9	0.0557489	3621239
12540.8	0.0551733	3621223
12550.7	0.054581	3620725
12560.5	0.0539689	3620503
12570.4	0.0533344	3620672
12580.2	0.0526752	3620583
12591.1	0.0519122	3620872
12600.9	0.0511969	3620895
12610.7	0.0504535	3620785
12620.5	0.0496812	3621183
12630.3	0.0488794	3621423
12640.1	0.0480477	3621415
12651.1	0.0470882	3621729
12660.9	0.0461928	3621520
12670.7	0.0452673	3621651
12680.5	0.0443121	3621053
12690.3	0.0433279	3620626
12700.1	0.0423155	3619641
12711	0.0411588	3619386
12720.8	0.0400904	3618952
12730.7	0.0389978	3618653
12740.5	0.0378825	3618535
12750.3	0.0367465	3617919
12760.1	0.0355916	3617444
12771	0.0342858	3616989
12780.9	0.0330926	3615968
12790.8	0.0318813	3615886
12800.7	0.0306593	3615003
12810.7	0.0294309	3614272
12820.6	0.0281984	3613267
12830.6	0.0269599	3612342
12840.6	0.0257162	3611978
12850.7	0.0244732	3610977
12860.7	0.0232372	3610333
12870.8	0.0220128	3609717
12880.9	0.0208031	3609149
12891	0.019611	3608628
12901.1	0.0184388	3607919
12910.1	0.0174133	3607724
12920.1	0.0162899	3607148
12930.2	0.0152026	3607381
12940.1	0.0141513	3606850
12950.1	0.013134	3606535
12960.1	0.0121534	3606474
12970	0.0112118	3606452
12980	0.0103118	3606472
12991.1	0.00936335	3606235
13001.1	0.00855849	3606534
13011	0.00780215	3606328
13021	0.00709768	3606211
13030.9	0.00645011	3606230
13040.7	0.00585849	3605859
13050.4	0.00532348	3605552
13060.2	0.0048433	3605435
13071.1	0.00437563	3605371
13080.8	0.00401527	3605239
13090.6	0.00371333	3605314
13100.4	0.00347065	3605437
13110.1	0.00328793	3606143
13121	0.00315587	3606389
13130.8	0.00310127	3606206
13140.5	0.00310768	3605951
13150.3	0.00317509	3605962
13160.1	0.00330323	3605328
13170.9	0.00351631	3605451
13180.7	0.00377098	3605011
13190.5	0.00408432	3605092
13200.2	0.00445522	3604703
13210	0.00488234	3604407
13220.9	0.00542047	3604074
13230.6	0.00595674	3603855
13240.2	0.00654042	3603327
13250.9	0.00724356	3602296
13260.6	0.00792356	3601486
13270.2	0.00864568	3601368
13280.9	0.00949409	3600438
13290.6	0.0102959	3599943
13300.2	0.0111308	3599185
13310.9	0.0120932	3598457
13320.6	0.0129869	3597666
13330.2	0.013903	3597284
13340.9	0.0149428	3596664
13350.6	0.015894	3596178
13360.2	0.016856	3595835
13371	0.0179325	3595741
13380.6	0.0189038	3595572
13390.2	0.0198734	3595432
13401	0.0209435	3595635
13410.6	0.0218958	3595232
13420.2	0.0228334	3595092
13431	0.0238533	3594448
13440.6	0.0247482	3593984
13450.3	0.0256178	3593114
13460.1	0.026463	3592008
13471	0.0273694	3591329
13480.9	0.028143	3590684
13490.7	0.0288718	3589867
13500.6	0.0295502	3589572
13510.4	0.0301776	3588543
13520.2	0.0307505	3588339
13530.1	0.0312661	3587629
13541	0.0317681	3586850
13550.8	0.0321534	3586260
13560.6	0.0324731	3585511
13570.5	0.0327251	3584910
13580.3	0.0329076	3584068
13590.1	0.0330187	3583382
13601.1	0.0330567	3582326
13610.9	0.0330129	3581274
13620.7	0.0328941	3580487
13630.5	0.0327001	3579740
13640.3	0.0324315	3578994
13650.1	0.0320876	3578397
13660.9	0.0316172	3577803
13670.7	0.0311147	3576612
13680.4	0.0305375	3575940
13690.2	0.0298865	3574652
13701	0.0290807	3573389
13710.7	0.0282856	3573050
13720.3	0.0274244	3572251
13731	0.0263904	3571911
13740.6	0.0253907	3571453
13750.2	0.0243272	3571208
13760.9	0.0230732	3571475
13770.5	0.0218815	3570963
13780.1	0.0206322	3571361
13790.8	0.0191793	3570826
13800.4	0.0178158	3570636
13810.1	0.016402	3570243
13820.8	0.014775	3569224
13830.4	0.0132631	3568931
13841.1	0.0115337	3568306
13850.7	0.00993576	3567638
13860.3	0.00830133	3566988
13871	0.00644607	3566367
13880.6	0.00474422	3565733
13890.2	0.00301498	3565217
13900.9	0.00106296	3565035
13910.6	-0.000723529	3564706
13920.3	-0.00253768	3564188
13930	-0.00436728	3563998
13940.8	-0.00641416	3563400
13950.6	-0.00827107	3562908
13960.3	-0.0101355	3562469
13970.1	-0.0120016	3561640
13981	-0.0140733	3560789
13990.8	-0.015936	3560136
14000.6	-0.0177923	3559409
14010.4	-0.0196396	3558585
14020.2	-0.0214807	3557585
14030.1	-0.0233091	3556465
14040	-0.0251168	3555492
14051	-0.0270961	3554199
14060.9	-0.0288483	3553020
14070.8	-0.0305706	3551753
14080.8	-0.0322617	3550940
14090.7	-0.0339213	3550110
14100.7	-0.0355474	3549536
14110.8	-0.0371402	3549032
14120.9	-0.0386873	3548040
14130.9	-0.0401805	3546999
14141	-0.0416206	3545681
14151	-0.0430064	3544182
14161.1	-0.0443359	3542991
14170	-0.0454687	3541175
14180.1	-0.0466863	3539945
14190.1	-0.047842	3538515
14200.2	-0.0489344	3537513
14210.2	-0.0499621	3536638
14220.3	-0.050924	3535556
14230.3	-0.0518189	3535232
14240.4	-0.0526462	3534174
14250.4	-0.0534053	3533252
14260.5	-0.0540957	3532309
14270.5	-0.0547173	3531182
14280.6	-0.0552701	3529518
14290.6	-0.0557544	3528789
14300.7	-0.0561708	3527076
14310.8	-0.0565202	3526386
14320.9	-0.0568037	3525114
14331.1	-0.0570224	3524538
14340.2	-0.0571617	3523712
14350.5	-0.0572567	3522558
14360.7	-0.0572874	3522228
14371	-0.0572557	3520971
14380.1	-0.0571768	3520554
14390.4	-0.057033	3519951
14400.7	-0.056833	3519124
14411	-0.0565793	3518897
14420.1	-0.0563108	3518249
14430.3	-0.0559637	3517955
14440.6	-0.0555715	3516939
14450.8	-0.0551365	3516605
14461	-0.0546614	3516253
14470.1	-0.0542078	3515815
14480.3	-0.0536649	3514641
14490.6	-0.0530903	3513461
14500.8	-0.0524867	3511715
14511	-0.0518572	3510370
14520.1	-0.051278	3508270
14530.3	-0.0506072	3506932
14540.6	-0.0499185	3504916
14550.8	-0.0492143	3502882
14561	-0.0484973	3500517
14570.1	-0.047851	3498774
14580.3	-0.047116	3496778
14590.5	-0.0463749	3494279
14600.8	-0.0456295	3491732
14611	-0.0448818	3489533
14620.1	-0.0442168	3487782
14630.3	-0.0434697	3485449
14640.5	-0.042725	3482749
14650.7	-0.0419838	3480482
14661	-0.0412463	3478518
14670.1	-0.0405937	3476559
14680.4	-0.0398657	3474284
14690.6	-0.0391484	3472341
14700.8	-0.0384426	3470112
14711	-0.0377488	3468038
14721.1	-0.0370651	3465891
14730.1	-0.0364651	3464432
14740.2	-0.0357988	3462375
14750.3	-0.0351411	3460139
14760.4	-0.0344917	3458009
14770.5	-0.0338503	3455283
14780.6	-0.0332163	3453400
14790.7	-0.0325894	3450338
14800.8	-0.0319687	3447475
14810.9	-0.0313536	3444088
14821	-0.0307432	3440187
14831.1	-0.0301367	3436301
14840.1	-0.0296002	3432736
14850.2	-0.0289985	3428486
14860.3	-0.0283987	3424485
14870.3	-0.0278011	3419834
14880.3	-0.0272072	3415038
14890.2	-0.0266138	3410495
14900.1	-0.026018	3405836
14910.1	-0.025419	3401691
14921	-0.0247493	3397235
14930.9	-0.0241406	3392831
14940.8	-0.0235249	3388814
14950.7	-0.0229015	3384647
14960.6	-0.0222695	3380104
14970.4	-0.021628	3376115
14980.3	-0.0209765	3371883
14990.2	-0.0203141	3368612
15000.1	-0.0196404	3364553
15011	-0.0188779	3360672
15020.9	-0.0181786	3356778
15030.8	-0.0174666	3353251
15040.7	-0.0167417	3349559
15050.6	-0.0160016	3346122
15060.5	-0.015246	3342937
15070.6	-0.0144661	3339244
15080.9	-0.0136537	3336028
15090.1	-0.0129215	3332251
15100.3	-0.012089	3328792
15110.5	-0.0112478	3325243
15120.6	-0.0104006	3321697
15130.7	-0.00954943	3318469
15140.7	-0.00869038	3314979
15150.7	-0.00782441	3312007
15160.6	-0.00695214	3308945
15170.5	-0.00607382	3305655
15180.4	-0.00519247	3301963
15190.3	-0.0043097	3298867
15200.2	-0.00342322	3295194
15210	-0.0025343	3292002
15221	-0.00154543	3288457
15230.8	-0.000655964	3285199
15240.7	0.000231468	3282188
15250.6	0.00111532	3278903
15260.4	0.00199399	3276160
15270.3	0.00286586	3272867
15280.2	0.00373609	3269801
15290.2	0.00460442	3266916
15300.3	0.0054647	3263717
15310.4	0.00631064	3260404
15320.5	0.00714037	3257333
15330.6	0.007952	3253949
15340.7	0.0087436	3250277
15350.8	0.00951326	3246485
15360.9	0.010259	3243122
15370.9	0.0109778	3239797
15381	0.0116683	3235768
15391	0.0123292	3231810
15401.1	0.0129586	3228050
15410	0.01349	3224602
15420.1	0.0140544	3221402
15430.2	0.0145816	3218081
15440.2	0.0150695	3215214
15450.3	0.0155161	3211579
15460.4	0.0159195	3208412
15470.4	0.0162777	3205134
15480.5	0.0165894	3201921
15490.6	0.0168516	3199035
15500.8	0.0170619	3196288
15510.9	0.017218	3193420
15521	0.0173178	3189955
15530.1	0.0173574	3187423
15540.5	0.0173432	3184129
15551	0.0172624	3180564
15560.3	0.0171324	3177607
15570.8	0.016919	3174153
15580.1	0.0166683	3170849
15590.5	0.0163165	3167590
15600.9	0.0158893	3163729
15610.1	0.0154449	3160838
15620.5	0.0148714	3157123
15630.8	0.0142186	3153767
15640	0.01357	3150878
15650.3	0.0127617	3146991
15660.7	0.0118689	3143342
15671	0.0108903	3139100
15680.2	0.00994765	3135589
15690.5	0.00880455	3131609
15700.8	0.00757332	3127875
15710	0.00640454	3124169
15720.3	0.00500581	3119683
15730.7	0.00351827	3115555
15741	0.00194214	3111569
15750.2	0.000467138	3107889
15760.5	-0.00127557	3104077
15770.9	-0.00311048	3100129
15780.1	-0.00481799	3097005
15790.5	-0.00682297	3093458
15800.9	-0.00891147	3089693
15810.2	-0.0108364	3086621
15820.6	-0.0130769	3082842
15831	-0.0153942	3079290
15840.3	-0.0175162	3076401
15850.7	-0.0199656	3072676
15861	-0.0224781	3069281
15870.2	-0.0247638	3066325
15880.6	-0.0273921	3063213
15891	-0.0300766	3059545
15900.2	-0.0325068	3056278
15910.5	-0.035286	3052607
15920.9	-0.0381087	3049451
15930.1	-0.0406504	3046709
15940.5	-0.0435419	3043050
15950.8	-0.0464625	3039939
15960.1	-0.0490786	3036983
15970.4	-0.0520394	3033965
15980.8	-0.0550215	3031328
15990.1	-0.0576965	3028863
16000.6	-0.0607128	3025793
16011.1	-0.0637315	3022809
16020.6	-0.0664458	3020017
16030.2	-0.0691831	3017051
16041	-0.07224	3013696
16050.6	-0.0749315	3011216
16060.2	-0.0775935	3008325
16071	-0.080549	3005205
16080.6	-0.0831415	3002294
16090.3	-0.0856954	2999799
16100	-0.088212	2996876
16111.2	-0.0910274	2993609
16120	-0.0931813	2991106
16130.2	-0.0955834	2988283
16140.4	-0.0979364	2985828
16150.8	-0.100205	2983350
16161.1	-0.102369	2980358
16170.2	-0.104172	2977846
16180.5	-0.106121	2975051
16190.8	-0.107944	2971958
16201.2	-0.109634	2969306
16210.2	-0.110996	2966469
16220.5	-0.112413	2963664
16230.8	-0.113677	2960781
16241.1	-0.114784	2957934
16250.1	-0.115618	2955071
16260.4	-0.116413	2951949
16270.7	-0.117034	2948703
16280.9	-0.117476	2945418
16291.2	-0.117736	2942196
16300.2	-0.117811	2939258
16310.5	-0.11772	2936085
16320.8	-0.117439	2932860
16331.1	-0.116966	2929946
16340.1	-0.116393	2927587
16350.4	-0.115559	2924393
16360.7	-0.114532	2921600
16371	-0.113314	2918544
16381.3	-0.111908	2915636
16390.3	-0.110526	2913180
16400.6	-0.108775	2910139
16410.9	-0.106846	2907628
16421.2	-0.104743	2904577
16430.2	-0.102764	2902140
16440.5	-0.100348	2899358
16450.8	-0.0977642	2896570
16461.2	-0.095016	2893982
16470.3	-0.0924924	2891628
16480.8	-0.0894384	2889181
16490.2	-0.0866186	2886997
16501	-0.0832217	2884164
16510.5	-0.0801448	2881999
16520.1	-0.0769634	2879754
16531.1	-0.0732212	2876837
16540.6	-0.0698689	2874296
16550.2	-0.0664516	2871692
16561.2	-0.0624764	2869021
16570.8	-0.0589453	2866683
16580.3	-0.055373	2864227
16591.3	-0.0512493	2861684
16600.9	-0.0476137	2859525
16610.5	-0.0439601	2857113
16620	-0.040296	2855020
16631	-0.0361047	2852403
16640.6	-0.0324421	2850387
16650.2	-0.0287914	2848549
16661.1	-0.0246425	2845890
16670.7	-0.0210403	2843735
16680.3	-0.0174712	2841579
16691.2	-0.0134397	2839192
16700.8	-0.00995896	2837193
16710.4	-0.00652995	2835051
16721.3	-0.00270277	2832751
16730.8	0.000547224	2830775
16740.2	0.00370193	2828792
16750.9	0.00720222	2826806
16760.2	0.0101733	2824850
16770.8	0.0134676	2822944
16780.1	0.0162575	2821022
16790.8	0.0193353	2818818
16800.1	0.0219274	2816886
16810.7	0.0247701	2814381
16820	0.0271493	2812931
16830.7	0.0297412	2810614
16841.3	0.0321857	2808761
16850.6	0.034205	2807086
16861.1	0.036379	2805011
16870.4	0.0381627	2803116
16881	0.0400645	2801085
16890.3	0.0416083	2799500
16900.8	0.0432345	2797720
16910.1	0.0445367	2795850
16920.7	0.0458873	2794060
16931.3	0.0470921	2791919
16940.5	0.0480278	2790139
16951.1	0.0489659	2788195
16960.1	0.0496509	2786760
16970.8	0.050338	2785131
16980	0.0508167	2783754
16990.8	0.05125	2782207
17000	0.0515192	2780985
17010.9	0.0517136	2779278
17020.3	0.0517797	2778046
17031.5	0.0517415	2776737
17041.2	0.0516082	2775357
17051	0.0513847	2774380
17060.9	0.0510761	2773285
17070.7	0.0506872	2772141
17080.5	0.0502228	2771128
17090.3	0.049688	2770039
17100.1	0.0490879	2768837
17111.6	0.0483124	2767486
17121.4	0.0475889	2766434
17131.2	0.0468169	2765284
17141	0.0460017	2763941
17150.8	0.0451487	2762650
17160.8	0.0442459	2761438
17171.2	0.0432788	2760013
17181.6	0.0422898	2758769
17190.1	0.0414631	2757479
17200.3	0.0404594	2756190
17210.7	0.0394277	2754943
17221.2	0.0383937	2753680
17231.6	0.0373628	2752451
17240.3	0.0365098	2751358
17250.7	0.0354978	2750166
17261.1	0.0345027	2748938
17271.5	0.033529	2747647
17280.2	0.0327365	2746717
17290.7	0.0318093	2745563
17301.1	0.030918	2744064
17311.1	0.0300944	2742953
17321.1	0.0293057	2741597
17331.1	0.028554	2740436
17341.6	0.0278118	2739247
17350.3	0.0272256	2738286
17360.7	0.0265646	2737121
17371.2	0.0259499	2735758
17381.6	0.0253823	2734665
17390.3	0.0249456	2733567
17400.7	0.0244653	2732154
17411.1	0.0240349	2731017
17421.2	0.0236597	2729963
17431.1	0.023337	2729076
17440.8	0.0230588	2728040
17450.4	0.0228213	2727017
17461.4	0.0225926	2725883
17470.8	0.0224346	2724654
17480.1	0.0223097	2723402
17491.1	0.0222006	2722352
17500.8	0.0221376	2721321
17510.6	0.0221032	2720331
17520.5	0.0220968	2719188
17530.7	0.0221176	2718159
17540.9	0.0221643	2716920
17551.1	0.0222346	2715807
17561.5	0.0223281	2714895
17570.2	0.0224211	2714051
17580.3	0.022546	2713337
17590.2	0.0226821	2712616
17600	0.0228287	2711982
17611.2	0.0230081	2711058
17620.7	0.0231694	2710501
17630.2	0.0233377	2709749
17641.4	0.0235411	2708965
17650.9	0.0237171	2708308
17660.3	0.0238938	2707832
17671.1	0.0240997	2707143
17680.4	0.0242762	2706669
17691.2	0.0244802	2706015
17700.4	0.0246535	2705439
17711.2	0.0248541	2704864
17721.2	0.0250373	2704176
17731.3	0.0252212	2703819
17741.6	0.0254033	2703191
17750.2	0.0255528	2702672
17760.5	0.0257293	2702069
17770.7	0.0259028	2701396
17781	0.0260735	2700459
17791.3	0.0262419	2699760
17801.6	0.0264085	2699242
17810.1	0.0265465	2698768
17820.4	0.0267115	2698167
17830.7	0.0268768	2697608
17841.2	0.0270463	2697347
17851.2	0.0272109	2696734
17861.6	0.0273835	2696108
17870.5	0.0275342	2695585
17880.5	0.0277084	2694995
17890.4	0.027885	2694557
17900.6	0.0280739	2694151
17911.2	0.0282764	2693596
17921.7	0.0284874	2692979
17930.4	0.0286686	2692535
17941	0.0288968	2692045
17951.1	0.0291264	2691434
17961.4	0.0293695	2690671
17970	0.0295829	2690039
17980.2	0.0298449	2689359
17991.5	0.0301477	2688563
18001.3	0.0304244	2687853
18011.5	0.0307212	2687219
18020.3	0.0309881	2686543
18030.8	0.0313213	2685908
18041.4	0.0316651	2685282
18050.2	0.0319654	2684510
18060.9	0.0323371	2683940
18071.6	0.0327206	2683284
18081.4	0.0330853	2682708
18091.1	0.0334504	2682174
18100.7	0.0338234	2681702
18110.4	0.0342036	2681104
18120.6	0.0346161	2680513
18131.3	0.0350507	2679906
18140.1	0.035413	2679418
18151.6	0.0358903	2678851
18161.4	0.0363041	2678167
18170.1	0.0366698	2677742
18180.5	0.0371064	2676916
18190.9	0.0375423	2676146
18201.3	0.0379758	2675589
18211.7	0.0384058	2674899
18220.3	0.0387602	2674261
18230.4	0.0391685	2673737
18240.3	0.0395635	2673024
18250.3	0.0399499	2672294
18260.1	0.0403244	2671570
18271.4	0.0407395	2670886
18280.9	0.0410796	2670338
18290.4	0.0414058	2669776
18301.3	0.041766	2669151
18310.6	0.042059	2668847
18321.4	0.0423815	2668138
18330.6	0.0426418	2667914
18341.4	0.0429273	2667364
18350.7	0.0431581	2666812
18360.4	0.0433803	2666431
18370.3	0.0435884	2665914
18380.3	0.0437802	2665482
18391	0.0439623	2665005
18401.7	0.0441216	2664484
18410.6	0.044236	2664146
18421.3	0.0443508	2663700
18430.3	0.0444277	2663394
18441	0.0444969	2663216
18451.6	0.0445408	2662846
18460.4	0.0445582	2662564
18470.9	0.0445564	2662248
18481.5	0.0445296	2661666
18490.4	0.0444874	2661317
18501.2	0.0444127	2660935
18510.1	0.0443304	2660766
18520.8	0.0442072	2660390
18531.5	0.0440574	2660020
18540.5	0.0439118	2659726
18551.2	0.0437119	2659298
18560.1	0.0435242	2659000
18570.9	0.0432731	2658637
18581.6	0.0429933	2658167
18590.5	0.0427379	2657801
18601.2	0.042404	2657403
18610.2	0.0421025	2657053
18620.9	0.0417123	2656773
18631.6	0.0412901	2656523
18640.5	0.0409134	2656341
18651.2	0.0404336	2656285
18661.5	0.0399366	2656063
18670.4	0.0394849	2655763
18681.1	0.0389056	2655499
18691.8	0.0382894	2655317
18700.7	0.037747	2655175
18711.4	0.0370595	2654961
18720.3	0.036456	2654817
18731.1	0.0356947	2654554
18741.8	0.034892	2654470
18750.7	0.0341909	2654425
18761.4	0.0333102	2654283
18770.4	0.032543	2654198
18781.1	0.0315841	2654041
18791.8	0.0305807	2653947
18800.7	0.0297103	2653835
18811.2	0.0286417	2653611
18821.7	0.0275328	2653470
18830.5	0.0265755	2653252
18841	0.0253869	2653188
18851.5	0.0241551	2653141
18860.1	0.0231086	2653025
18870.5	0.021815	2652897
18880.9	0.0204809	2652901
18891.3	0.0191072	2652663
18901.7	0.0176864	2652483
18910.4	0.0164663	2652327
18920.9	0.0149684	2652094
18931.2	0.0134694	2652081
18941.5	0.0119384	2651915
18950.2	0.0106109	2651739
18960.7	0.00899284	2651437
18971.1	0.0073636	2651273
18981.4	0.00572638	2651019
18991.6	0.00407186	2650829
19000.2	0.00267391	2650726
19010.6	0.000958411	2650432
19021.1	-0.00078097	2650166
19031.6	-0.00253187	2649944
19040.3	-0.00399755	2649800
19050.8	-0.00576164	2649526
19061.3	-0.00752854	2649342
19070	-0.00900084	2649188
19080.5	-0.0107648	2649000
19091	-0.0125227	2648922
19101.5	-0.0142715	2648852
19110.2	-0.0157198	2648781
19120.6	-0.0174235	2648691
19130.9	-0.0191079	2648516
19141.3	-0.0207803	2648462
19150	-0.0221694	2648434
19160.5	-0.0238135	2648226
19171	-0.0254303	2648126
19181.5	-0.0270176	2647977
19190.2	-0.0283165	2648007
19200.6	-0.0298321	2648069
19210.9	-0.0313073	2648053
19221.4	-0.0327555	2648133
19230.1	-0.0339417	2648096
19240.6	-0.0353295	2648089
19251.1	-0.0366777	2648087
19261.4	-0.0379718	2648028
19270	-0.0390139	2648073
19280.3	-0.0402275	2647883
19290.7	-0.0414005	2647741
19301	-0.0425327	2647653
19311.3	-0.0436242	2647564
19321.6	-0.0446748	2647526
19330	-0.0454995	2647360
19340.1	-0.0464529	2647292
19350.1	-0.047368	2647113
19360.2	-0.0482453	2647016
19370.4	-0.0491005	2646816
19380.9	-0.0499297	2646644
19391.3	-0.0507195	2646354
19401.7	-0.0514695	2646172
19410.2	-0.0520576	2645935
19420.5	-0.0527267	2645762
19430.8	-0.0533611	2645640
19441.2	-0.0539632	2645388
19451.5	-0.0545225	2645366
19461.6	-0.0550323	2645365
19470.3	-0.0554416	2645239
19480.7	-0.055896	2645051
19491	-0.0563058	2645067
19501	-0.0566699	2644959
19511.1	-0.0569934	2644781
19521.1	-0.0572787	2644843
19531.1	-0.0575247	2644971
19541.1	-0.0577315	2644869
19551.1	-0.0578979	2644958
19561.2	-0.0580244	2645006
19571.4	-0.0581088	2645052
19581.7	-0.0581487	2645126
19590.2	-0.0581475	2645282
19600.4	-0.058104	2645496
19610.7	-0.0580128	2645688
19621.1	-0.0578719	2645844
19631.6	-0.0576812	2645994
19640.2	-0.0574839	2646024
19650.6	-0.0572006	2646292
19661.1	-0.0568661	2646650
19671.5	-0.0564802	2646976
19680.1	-0.0561214	2647176
19690.4	-0.0556491	2647251
19700.8	-0.055119	2647311
19711.1	-0.0545453	2647303
19721.3	-0.0539216	2647325
19731.7	-0.053248	2647393
19740.2	-0.05265	2647421
19750.6	-0.0518893	2647638
19760.9	-0.0510827	2647561
19771.2	-0.0502316	2647644
19781.4	-0.049344	2647804
19791.3	-0.0484491	2647880
19801.4	-0.0474924	2647991
19811.7	-0.04649	2648044
19820.3	-0.04562	2647919
19830.7	-0.0445402	2647811
19841.1	-0.0434302	2647781
19851.5	-0.042293	2647765
19860.2	-0.0413268	2647825
19870.6	-0.040148	2647790
19881	-0.0389514	2647844
19891.3	-0.0377511	2648018
19901.2	-0.036593	2648012
19911.1	-0.03542	2648037
19921.6	-0.0341885	2648128
19930.2	-0.0331626	2648036
19940.6	-0.0319351	2648004
19951	-0.0307154	2647980
19961.4	-0.0295076	2647847
19970.1	-0.0285132	2647758
19980.2	-0.0273743	2647694
19990	-0.0262868	2647628
