%%MatrixMarket matrix array real general
18 18
-.8888888889e-2
.1333333333e-1
-.4444444444e-2
.4444444444e-2
-.4444444444e-2
0.
-.4444444444e-2
.6666666667e-2
-.2222222222e-2
.2222222222e-2
-.2222222222e-2
0.
.2222222222e-2
-.3333333333e-2
.1111111111e-2
-.1111111111e-2
.1111111111e-2
0.
-.1333333333e-1
0.
.1333333333e-1
-.1777777778e-1
.1777777778e-1
0.
-.6666666667e-2
0.
.6666666667e-2
-.8888888889e-2
.8888888889e-2
0.
.3333333333e-2
0.
-.3333333333e-2
.4444444444e-2
-.4444444444e-2
0.
.4444444444e-2
-.1333333333e-1
.8888888889e-2
.4444444444e-2
-.4444444444e-2
0.
.2222222222e-2
-.6666666667e-2
.4444444444e-2
.2222222222e-2
-.2222222222e-2
0.
-.1111111111e-2
.3333333333e-2
-.2222222222e-2
-.1111111111e-2
.1111111111e-2
0.
-.1333333333e-1
.1777777778e-1
-.4444444444e-2
-.3555555556e-1
.3555555556e-1
0.
-.6666666667e-2
.8888888889e-2
-.2222222222e-2
-.1777777778e-1
.1777777778e-1
0.
.3333333333e-2
-.4444444444e-2
.1111111111e-2
.8888888889e-2
-.8888888889e-2
0.
.4444444444e-2
-.1777777778e-1
.1333333333e-1
-.3555555556e-1
.3555555556e-1
0.
.2222222222e-2
-.8888888889e-2
.6666666667e-2
-.1777777778e-1
.1777777778e-1
0.
-.1111111111e-2
.4444444444e-2
-.3333333333e-2
.8888888889e-2
-.8888888889e-2
0.
.4444444444e-2
0.
-.4444444444e-2
-.8888888889e-2
.8888888889e-2
0.
.2222222222e-2
0.
-.2222222222e-2
-.4444444444e-2
.4444444444e-2
0.
-.1111111111e-2
0.
.1111111111e-2
.2222222222e-2
-.2222222222e-2
0.
-.4444444444e-2
.6666666667e-2
-.2222222222e-2
.2222222222e-2
-.2222222222e-2
0.
-.3555555556e-1
.5333333333e-1
-.1777777778e-1
.1777777778e-1
-.1777777778e-1
0.
-.4444444444e-2
.6666666667e-2
-.2222222222e-2
.2222222222e-2
-.2222222222e-2
0.
-.6666666667e-2
0.
.6666666667e-2
-.8888888889e-2
.8888888889e-2
0.
-.5333333333e-1
0.
.5333333333e-1
-.7111111111e-1
.7111111111e-1
0.
-.6666666667e-2
0.
.6666666667e-2
-.8888888889e-2
.8888888889e-2
0.
.2222222222e-2
-.6666666667e-2
.4444444444e-2
.2222222222e-2
-.2222222222e-2
0.
.1777777778e-1
-.5333333333e-1
.3555555556e-1
.1777777778e-1
-.1777777778e-1
0.
.2222222222e-2
-.6666666667e-2
.4444444444e-2
.2222222222e-2
-.2222222222e-2
0.
-.6666666667e-2
.8888888889e-2
-.2222222222e-2
-.1777777778e-1
.1777777778e-1
0.
-.5333333333e-1
.7111111111e-1
-.1777777778e-1
-.1422222222
.1422222222
0.
-.6666666667e-2
.8888888889e-2
-.2222222222e-2
-.1777777778e-1
.1777777778e-1
0.
.2222222222e-2
-.8888888889e-2
.6666666667e-2
-.1777777778e-1
.1777777778e-1
0.
.1777777778e-1
-.7111111111e-1
.5333333333e-1
-.1422222222
.1422222222
0.
.2222222222e-2
-.8888888889e-2
.6666666667e-2
-.1777777778e-1
.1777777778e-1
0.
.2222222222e-2
0.
-.2222222222e-2
-.4444444444e-2
.4444444444e-2
0.
.1777777778e-1
0.
-.1777777778e-1
-.3555555556e-1
.3555555556e-1
0.
.2222222222e-2
0.
-.2222222222e-2
-.4444444444e-2
.4444444444e-2
0.
.2222222222e-2
-.3333333333e-2
.1111111111e-2
-.1111111111e-2
.1111111111e-2
0.
-.4444444444e-2
.6666666667e-2
-.2222222222e-2
.2222222222e-2
-.2222222222e-2
0.
-.8888888889e-2
.1333333333e-1
-.4444444444e-2
.4444444444e-2
-.4444444444e-2
0.
.3333333333e-2
0.
-.3333333333e-2
.4444444444e-2
-.4444444444e-2
0.
-.6666666667e-2
0.
.6666666667e-2
-.8888888889e-2
.8888888889e-2
0.
-.1333333333e-1
0.
.1333333333e-1
-.1777777778e-1
.1777777778e-1
0.
-.1111111111e-2
.3333333333e-2
-.2222222222e-2
-.1111111111e-2
.1111111111e-2
0.
.2222222222e-2
-.6666666667e-2
.4444444444e-2
.2222222222e-2
-.2222222222e-2
0.
.4444444444e-2
-.1333333333e-1
.8888888889e-2
.4444444444e-2
-.4444444444e-2
0.
.3333333333e-2
-.4444444444e-2
.1111111111e-2
.8888888889e-2
-.8888888889e-2
0.
-.6666666667e-2
.8888888889e-2
-.2222222222e-2
-.1777777778e-1
.1777777778e-1
0.
-.1333333333e-1
.1777777778e-1
-.4444444444e-2
-.3555555556e-1
.3555555556e-1
0.
-.1111111111e-2
.4444444444e-2
-.3333333333e-2
.8888888889e-2
-.8888888889e-2
0.
.2222222222e-2
-.8888888889e-2
.6666666667e-2
-.1777777778e-1
.1777777778e-1
0.
.4444444444e-2
-.1777777778e-1
.1333333333e-1
-.3555555556e-1
.3555555556e-1
0.
-.1111111111e-2
0.
.1111111111e-2
.2222222222e-2
-.2222222222e-2
0.
.2222222222e-2
0.
-.2222222222e-2
-.4444444444e-2
.4444444444e-2
0.
.4444444444e-2
0.
-.4444444444e-2
-.8888888889e-2
.8888888889e-2
0.
