%%MatrixMarket matrix array real general
18 18
-.8333333333e-2
0.
.1388888889e-2
0.
.5555555556e-2
.1388888889e-2
.1111111111e-1
0.
-.1851851852e-2
0.
-.7407407407e-2
-.1851851852e-2
-.2777777778e-2
0.
.4629629630e-3
0.
.1851851852e-2
.4629629630e-3
0.
-.4444444444e-1
0.
-.2222222222e-1
-.2222222222e-1
.5555555556e-2
0.
.5925925926e-1
0.
.2962962963e-1
.2962962963e-1
-.7407407407e-2
0.
-.1481481481e-1
0.
-.7407407407e-2
-.7407407407e-2
.1851851852e-2
.1388888889e-2
0.
-.8333333333e-2
.5555555556e-2
0.
.1388888889e-2
-.1851851852e-2
0.
.1111111111e-1
-.7407407407e-2
0.
-.1851851852e-2
.4629629630e-3
0.
-.2777777778e-2
.1851851852e-2
0.
.4629629630e-3
0.
-.2222222222e-1
.5555555556e-2
-.4444444444e-1
-.2222222222e-1
0.
0.
.2962962963e-1
-.7407407407e-2
.5925925926e-1
.2962962963e-1
0.
0.
-.7407407407e-2
.1851851852e-2
-.1481481481e-1
-.7407407407e-2
0.
.5555555556e-2
-.2222222222e-1
0.
-.2222222222e-1
-.4444444444e-1
0.
-.7407407407e-2
.2962962963e-1
0.
.2962962963e-1
.5925925926e-1
0.
.1851851852e-2
-.7407407407e-2
0.
-.7407407407e-2
-.1481481481e-1
0.
.1388888889e-2
.5555555556e-2
.1388888889e-2
0.
0.
-.8333333333e-2
-.1851851852e-2
-.7407407407e-2
-.1851851852e-2
0.
0.
.1111111111e-1
.4629629630e-3
.1851851852e-2
.4629629630e-3
0.
0.
-.2777777778e-2
-.1111111111e-1
0.
.1851851852e-2
0.
.7407407407e-2
.1851851852e-2
0.
0.
0.
0.
0.
0.
.1111111111e-1
0.
-.1851851852e-2
0.
-.7407407407e-2
-.1851851852e-2
0.
-.5925925926e-1
0.
-.2962962963e-1
-.2962962963e-1
.7407407407e-2
0.
0.
0.
0.
0.
0.
0.
.5925925926e-1
0.
.2962962963e-1
.2962962963e-1
-.7407407407e-2
.1851851852e-2
0.
-.1111111111e-1
.7407407407e-2
0.
.1851851852e-2
0.
0.
0.
0.
0.
0.
-.1851851852e-2
0.
.1111111111e-1
-.7407407407e-2
0.
-.1851851852e-2
0.
-.2962962963e-1
.7407407407e-2
-.5925925926e-1
-.2962962963e-1
0.
0.
0.
0.
0.
0.
0.
0.
.2962962963e-1
-.7407407407e-2
.5925925926e-1
.2962962963e-1
0.
.7407407407e-2
-.2962962963e-1
0.
-.2962962963e-1
-.5925925926e-1
0.
0.
0.
0.
0.
0.
0.
-.7407407407e-2
.2962962963e-1
0.
.2962962963e-1
.5925925926e-1
0.
.1851851852e-2
.7407407407e-2
.1851851852e-2
0.
0.
-.1111111111e-1
0.
0.
0.
0.
0.
0.
-.1851851852e-2
-.7407407407e-2
-.1851851852e-2
0.
0.
.1111111111e-1
.2777777778e-2
0.
-.4629629630e-3
0.
-.1851851852e-2
-.4629629630e-3
-.1111111111e-1
0.
.1851851852e-2
0.
.7407407407e-2
.1851851852e-2
.8333333333e-2
0.
-.1388888889e-2
0.
-.5555555556e-2
-.1388888889e-2
0.
.1481481481e-1
0.
.7407407407e-2
.7407407407e-2
-.1851851852e-2
0.
-.5925925926e-1
0.
-.2962962963e-1
-.2962962963e-1
.7407407407e-2
0.
.4444444444e-1
0.
.2222222222e-1
.2222222222e-1
-.5555555556e-2
-.4629629630e-3
0.
.2777777778e-2
-.1851851852e-2
0.
-.4629629630e-3
.1851851852e-2
0.
-.1111111111e-1
.7407407407e-2
0.
.1851851852e-2
-.1388888889e-2
0.
.8333333333e-2
-.5555555556e-2
0.
-.1388888889e-2
0.
.7407407407e-2
-.1851851852e-2
.1481481481e-1
.7407407407e-2
0.
0.
-.2962962963e-1
.7407407407e-2
-.5925925926e-1
-.2962962963e-1
0.
0.
.2222222222e-1
-.5555555556e-2
.4444444444e-1
.2222222222e-1
0.
-.1851851852e-2
.7407407407e-2
0.
.7407407407e-2
.1481481481e-1
0.
.7407407407e-2
-.2962962963e-1
0.
-.2962962963e-1
-.5925925926e-1
0.
-.5555555556e-2
.2222222222e-1
0.
.2222222222e-1
.4444444444e-1
0.
-.4629629630e-3
-.1851851852e-2
-.4629629630e-3
0.
0.
.2777777778e-2
.1851851852e-2
.7407407407e-2
.1851851852e-2
0.
0.
-.1111111111e-1
-.1388888889e-2
-.5555555556e-2
-.1388888889e-2
0.
0.
.8333333333e-2
