%%MatrixMarket matrix array real general
18 9
0.
0.
-.2514157444e-1
0.
-.1257078722e-1
.6285393608e-2
0.
0.
-.1257078722e-1
0.
-.6285393608e-2
.3142696804e-2
0.
0.
.6285393608e-2
0.
.3142696804e-2
-.1571348402e-2
0.
0.
-.1257078722e-1
0.
-.6285393608e-2
.3142696804e-2
0.
0.
-.1005662977
0.
-.5028314888e-1
.2514157444e-1
0.
0.
-.1257078722e-1
0.
-.6285393608e-2
.3142696804e-2
0.
0.
.6285393608e-2
0.
.3142696804e-2
-.1571348402e-2
0.
0.
-.1257078722e-1
0.
-.6285393608e-2
.3142696804e-2
0.
0.
-.2514157444e-1
0.
-.1257078722e-1
.6285393608e-2
0.
0.
-.1257078722e-1
0.
-.1005662977
-.1257078722e-1
0.
0.
-.6285393608e-2
0.
-.5028314888e-1
-.6285393608e-2
0.
0.
.3142696804e-2
0.
.2514157444e-1
.3142696804e-2
0.
0.
-.6285393608e-2
0.
-.5028314888e-1
-.6285393608e-2
0.
0.
-.5028314888e-1
0.
-.4022651909
-.5028314888e-1
0.
0.
-.6285393608e-2
0.
-.5028314888e-1
-.6285393608e-2
0.
0.
.3142696804e-2
0.
.2514157444e-1
.3142696804e-2
0.
0.
-.6285393608e-2
0.
-.5028314888e-1
-.6285393608e-2
0.
0.
-.1257078722e-1
0.
-.1005662977
-.1257078722e-1
0.
0.
.6285393608e-2
0.
-.1257078722e-1
-.2514157444e-1
0.
0.
.3142696804e-2
0.
-.6285393608e-2
-.1257078722e-1
0.
0.
-.1571348402e-2
0.
.3142696804e-2
.6285393608e-2
0.
0.
.3142696804e-2
0.
-.6285393608e-2
-.1257078722e-1
0.
0.
.2514157444e-1
0.
-.5028314888e-1
-.1005662977
0.
0.
.3142696804e-2
0.
-.6285393608e-2
-.1257078722e-1
0.
0.
-.1571348402e-2
0.
.3142696804e-2
.6285393608e-2
0.
0.
.3142696804e-2
0.
-.6285393608e-2
-.1257078722e-1
0.
0.
.6285393608e-2
0.
-.1257078722e-1
-.2514157444e-1
