CPUS:  1 2 3 4 5 6 7 8 9 10 11 12
Problem size with different number of CPUs using function optimization

THREADS	INITIAL_DEPTH	MTPS	SPEEDUP_PER	TIMESTEPS	TIMESTEP_SIZE	AVERAGE_TRIANGLES	AVERAGE_PARTITIONS
1	12	4.38457	1.0000	12753	0.278857	66293.4	33.1796
2	12	8.50126	.9694	12753	0.278857	66293.4	33.1796
3	12	12.3533	.9391	12753	0.278857	66293.4	33.1796
4	12	15.9552	.9097	12753	0.278857	66293.4	33.1796
5	12	19.3024	.8804	12753	0.278857	66293.4	33.1796
6	12	22.6143	.8596	12753	0.278857	66293.4	33.1796
7	12	24.5326	.7993	12753	0.278857	66293.4	33.1796
8	12	26.5937	.7581	12753	0.278857	66293.4	33.1796
9	12	28.2941	.7170	12753	0.278857	66293.4	33.1796
10	12	30.0465	.6852	12753	0.278857	66293.4	33.1796
11	12	31.6783	.6568	12753	0.278857	66293.4	33.1796
12	12	33.0065	.6273	12753	0.278857	66293.4	33.1796

THREADS	INITIAL_DEPTH	MTPS	SPEEDUP_PER	TIMESTEPS	TIMESTEP_SIZE	AVERAGE_TRIANGLES	AVERAGE_PARTITIONS
1	13	4.10599	1.0000	17919	0.197186	122848	45.3065
2	13	7.93747	.9665	17919	0.197186	122848	45.3065
3	13	11.5849	.9404	17919	0.197186	122848	45.3065
4	13	14.946	.9100	17919	0.197186	122848	45.3065
5	13	18.2019	.8866	17919	0.197186	122848	45.3065
6	13	21.1551	.8587	17919	0.197186	122848	45.3065
7	13	24.0425	.8364	17919	0.197186	122848	45.3065
8	13	26.5485	.8082	17919	0.197186	122848	45.3065
9	13	28.9012	.7820	17919	0.197186	122848	45.3065
10	13	31.4238	.7653	17919	0.197186	122848	45.3065
11	13	33.4993	.7416	17919	0.197186	122848	45.3065
12	13	35.2489	.7153	17919	0.197186	122848	45.3065

THREADS	INITIAL_DEPTH	MTPS	SPEEDUP_PER	TIMESTEPS	TIMESTEP_SIZE	AVERAGE_TRIANGLES	AVERAGE_PARTITIONS
1	14	4.12253	1.0000	25312	0.139428	238091	59.7192
2	14	7.89768	.9578	25312	0.139428	238091	59.7192
3	14	11.4249	.9237	25312	0.139428	238091	59.7192
4	14	14.8445	.9002	25312	0.139428	238091	59.7192
5	14	17.6444	.8559	25312	0.139428	238091	59.7192
6	14	20.5421	.8304	25312	0.139428	238091	59.7192
7	14	23.7697	.8236	25312	0.139428	238091	59.7192
8	14	26.9814	.8181	25312	0.139428	238091	59.7192
9	14	29.3844	.7919	25312	0.139428	238091	59.7192
10	14	31.8418	.7723	25312	0.139428	238091	59.7192
11	14	33.8949	.7474	25312	0.139428	238091	59.7192
12	14	35.2518	.7125	25312	0.139428	238091	59.7192

THREADS	INITIAL_DEPTH	MTPS	SPEEDUP_PER	TIMESTEPS	TIMESTEP_SIZE	AVERAGE_TRIANGLES	AVERAGE_PARTITIONS
1	15	4.01663	1.0000	35594	0.0985922	454542	80.6608
2	15	7.71298	.9601	35594	0.0985922	454542	80.6608
3	15	11.1379	.9243	35594	0.0985922	454542	80.6608
4	15	14.2243	.8853	35594	0.0985922	454542	80.6608
5	15	17.0566	.8492	35594	0.0985922	454542	80.6608
6	15	19.4937	.8088	35594	0.0985922	454542	80.6608
7	15	23.0181	.8186	35594	0.0985922	454542	80.6608
8	15	26.0555	.8108	35594	0.0985922	454542	80.6608
9	15	28.4685	.7875	35594	0.0985922	454542	80.6608
10	15	30.4362	.7577	35594	0.0985922	454542	80.6608
11	15	32.5393	.7364	35594	0.0985922	454542	80.6608
12	15	33.9543	.7044	35594	0.0985922	454542	80.6608

THREADS	INITIAL_DEPTH	MTPS	SPEEDUP_PER	TIMESTEPS	TIMESTEP_SIZE	AVERAGE_TRIANGLES	AVERAGE_PARTITIONS
1	16	4.13569	1.0000	50210	0.069714	844746	114.534
2	16	7.93929	.9598	50210	0.069714	844746	114.534
3	16	11.3969	.9185	50210	0.069714	844746	114.534
4	16	14.5569	.8799	50210	0.069714	844746	114.534
5	16	17.2552	.8344	50210	0.069714	844746	114.534
6	16	19.6271	.7909	50210	0.069714	844746	114.534
7	16	23.5865	.8147	50210	0.069714	844746	114.534
8	16	26.7245	.8077	50210	0.069714	844746	114.534
9	16	29.2241	.7851	50210	0.069714	844746	114.534
10	16	31.2367	.7552	50210	0.069714	844746	114.534
11	16	33.0435	.7263	50210	0.069714	844746	114.534
12	16	34.5076	.6953	50210	0.069714	844746	114.534

THREADS	INITIAL_DEPTH	MTPS	SPEEDUP_PER	TIMESTEPS	TIMESTEP_SIZE	AVERAGE_TRIANGLES	AVERAGE_PARTITIONS
1	17	4.10824	1.0000	70626	0.0492964	1.59988e+06	140.143
