0	0	524288	524288	
30.9506	0	524288	524288	
61.9012	0	524288	524288	
92.8519	0	524288	524288	
123.802	0	524288	524288	
154.753	0	524288	524288	
185.704	0	524288	524288	
216.654	0	524288	524288	
247.605	0	524288	524288	
278.556	0	524288	524288	
309.506	0	524288	524288	
340.457	0	524288	524288	
371.407	0	524288	524288	
402.358	0	524288	524288	
433.309	0	524288	524288	
464.259	0	524288	524288	
495.21	0	524288	524288	
526.161	0	524288	524288	
557.111	0	524288	524288	
588.062	0	524288	524288	
619.012	0	524288	524288	
649.963	0	524288	524288	
680.914	0	524288	524288	
711.864	0	524288	524288	
742.815	0	524288	524288	
773.766	0	524288	524288	
804.716	0	524288	524288	
835.667	0	524288	524288	
866.617	0	524288	524288	
897.568	0	524288	524288	
928.519	0	524288	524288	
959.469	0	524288	524288	
990.42	0	524288	524288	
1021.37	0	524288	524288	
1052.32	0	524288	524288	
1083.27	0	524288	524288	
1114.22	0	524288	524288	
1145.17	0	524288	524288	
1176.12	0	524288	524288	
1207.07	0	524288	524288	
1238.02	0	524288	524288	
1268.98	0	524288	524288	
1299.93	0	524288	524288	
1330.88	0	524288	524288	
1361.83	0	524288	524288	
1392.78	0	524288	524288	
1423.73	0	524288	524288	
1454.68	0	524288	524288	
1485.63	0	524288	524288	
1516.58	0	524288	524288	
1547.53	0	524288	524288	
1578.48	0	524288	524288	
1609.43	0	524288	524288	
1640.38	0	524288	524288	
1671.33	0	524288	524288	
1702.28	0	524288	524288	
1733.23	0	524288	524288	
1764.19	0	524288	524288	
1795.14	0	524288	524288	
1826.09	0	524288	524288	
1857.04	0	524288	524288	
1887.99	0	524288	524288	
1918.94	0	524288	524288	
1949.89	0	524288	524288	
1980.84	0	524288	524288	
2011.79	0	524288	524288	
2042.74	0	524288	524288	
2073.69	0	524288	524288	
2104.64	0	524288	524288	
2135.59	0	524288	524288	
2166.54	0	524288	524288	
2197.49	0	524288	524288	
2228.44	0	524288	524288	
2259.4	0	524288	524288	
2290.35	0	524288	524288	
2321.3	0	524288	524288	
2352.25	0	524288	524288	
2383.2	0	524288	524288	
2414.15	0	524288	524288	
2445.1	0	524288	524288	
2476.05	0	524288	524288	
2507	0	524288	524288	
2537.95	0	524288	524288	
2568.9	0	524288	524288	
2599.85	0	524288	524288	
2630.8	0	524288	524288	
2661.75	0	524288	524288	
2692.7	0	524288	524288	
2723.65	0	524288	524288	
2754.61	0	524288	524288	
2785.56	0	524288	524288	
2816.51	0	524288	524288	
2847.46	0	524288	524288	
2878.41	0	524288	524288	
2909.36	0	524288	524288	
2940.31	0	524288	524288	
2971.26	0	524288	524288	
3002.21	0	524288	524288	
3033.16	0	524288	524288	
3064.11	0	524288	524288	
3095.06	0	524288	524288	
3126.01	0	524288	524288	
3156.96	0	524288	524288	
3187.91	0	524288	524288	
3218.86	0	524288	524288	
3249.82	0	524288	524288	
3280.77	0	524288	524288	
3311.72	0	524288	524288	
3342.67	0	524288	524288	
3373.62	0	524288	524288	
3404.57	0	524288	524288	
3435.52	0	524288	524288	
3466.47	0	524288	524288	
3497.42	0	524288	524288	
3528.37	0	524288	524288	
3559.32	0	524288	524288	
3590.27	0	524288	524288	
3621.22	0	524288	524288	
3652.17	0	524288	524288	
3683.12	0	524288	524288	
3714.07	0	524288	524288	
3745.03	0	524288	524288	
3775.98	0	524288	524288	
3806.93	0	524288	524288	
3837.88	0	524288	524288	
3868.83	0	524288	524288	
3899.78	0	524288	524288	
3930.73	0	524288	524288	
3961.68	0	524288	524288	
3992.63	0	524288	524288	
4023.58	0	524288	524288	
4054.53	0	524288	524288	
4085.48	0	524288	524288	
4116.43	0	524288	524288	
4147.38	0	524288	524288	
4178.33	0	524288	524288	
4209.28	0	524288	524288	
4240.24	0	524288	524288	
4271.19	0	524288	524288	
4302.14	0	524288	524288	
4333.09	0	524288	524288	
4364.04	0	524288	524288	
4394.99	0	524288	524288	
4425.94	0	524288	524288	
4456.89	0	524288	524288	
4487.84	0	524288	524288	
4518.79	0	524288	524288	
4549.74	0	524288	524288	
4580.69	0	524288	524288	
4611.64	0	524288	524288	
4642.59	0	524288	524288	
4673.54	0	524288	524288	
4704.49	0	524288	524288	
4735.45	0	524288	524288	
4766.4	0	524288	524288	
4797.35	0	524288	524288	
4828.3	0	524288	524288	
4859.25	0	524288	524288	
4890.2	0	524288	524288	
4921.15	0	524288	524288	
4952.1	0	524288	524288	
4983.05	0	524288	524288	
5014	0	524288	524288	
5044.95	0	524288	524288	
5075.9	0	524288	524288	
5106.85	0	524288	524288	
5137.8	0	524288	524288	
5168.75	0	524288	524288	
5199.7	0	524288	524288	
5230.66	0	524288	524288	
5261.61	0	524288	524288	
5292.56	0	524288	524288	
5323.51	0	524288	524288	
5354.46	0	524288	524288	
5385.41	0	524288	524288	
5416.36	0	524288	524288	
5447.31	0	524288	524288	
5478.26	0	524288	524288	
5509.21	0	524288	524288	
5540.16	0	524288	524288	
5571.11	0	524288	524288	
5602.06	0	524288	524288	
5633.01	0	524288	524288	
5663.96	0	524288	524288	
5694.91	0	524288	524288	
5725.86	0	524288	524288	
5756.82	0	524288	524288	
5787.77	0	524288	524288	
5818.72	0	524288	524288	
5849.67	0	524288	524288	
5880.62	0	524288	524288	
5911.57	0	524288	524288	
5942.52	0	524288	524288	
5973.47	0	524288	524288	
6004.42	0	524288	524288	
6035.37	0	524288	524288	
6066.32	0	524288	524288	
6097.27	0	524288	524288	
6128.22	0	524288	524288	
6159.17	0	524288	524288	
6190.12	0	524288	524288	
6221.07	0	524288	524288	
6252.03	0	524288	524288	
6282.98	0	524288	524288	
6313.93	0	524288	524288	
6344.88	0	524288	524288	
6375.83	0	524288	524288	
6406.78	0	524288	524288	
6437.73	0	524288	524288	
6468.68	0	524288	524288	
6499.63	0	524288	524288	
6530.58	0	524288	524288	
6561.53	0	524288	524288	
6592.48	0	524288	524288	
6623.43	0	524288	524288	
6654.38	0	524288	524288	
6685.33	0	524288	524288	
6716.28	0	524288	524288	
6747.24	0	524288	524288	
6778.19	0	524288	524288	
6809.14	0	524288	524288	
6840.09	0	524288	524288	
6871.04	0	524288	524288	
6901.99	0	524288	524288	
6932.94	0	524288	524288	
6963.89	0	524288	524288	
6994.84	0	524288	524288	
7025.79	0	524288	524288	
7056.74	0	524288	524288	
7087.69	0	524288	524288	
7118.64	0	524288	524288	
7149.59	0	524288	524288	
7180.54	0	524288	524288	
7211.49	0	524288	524288	
7242.45	0	524288	524288	
7273.4	0	524288	524288	
7304.35	0	524288	524288	
7335.3	0	524288	524288	
7366.25	0	524288	524288	
7397.2	0	524288	524288	
7428.15	0	524288	524288	
7459.1	0	524288	524288	
7490.05	0	524288	524288	
7521	0	524288	524288	
7551.95	0	524288	524288	
7582.9	0	524288	524288	
7613.85	0	524288	524288	
7644.8	0	524288	524288	
7675.75	0	524288	524288	
7706.7	0	524288	524288	
7737.66	0	524288	524288	
7768.61	0	524288	524288	
7799.56	0	524288	524288	
7830.51	0	524288	524288	
7861.46	0	524288	524288	
7892.41	0	524288	524288	
7923.36	0	524288	524288	
7954.31	0	524288	524288	
7985.26	0	524288	524288	
8016.21	0	524288	524288	
8047.16	0	524288	524288	
8078.11	0	524288	524288	
8109.06	0	524288	524288	
8140.01	0	524288	524288	
8170.96	0	524288	524288	
8201.91	0	524288	524288	
8232.87	0	524288	524288	
8263.82	0	524288	524288	
8294.77	0	524288	524288	
8325.72	0	524288	524288	
8356.67	0	524288	524288	
8387.62	0	524288	524288	
8418.57	0	524288	524288	
8449.52	0	524288	524288	
8480.47	0	524288	524288	
8511.42	0	524288	524288	
8542.37	0	524288	524288	
8573.32	0	524288	524288	
8604.27	0	524288	524288	
8635.22	0	524288	524288	
8666.17	0	524288	524288	
8697.12	0	524288	524288	
8728.08	0	524288	524288	
8759.03	0	524288	524288	
8789.98	0	524288	524288	
8820.93	0	524288	524288	
8851.88	0	524288	524288	
8882.83	0	524288	524288	
8913.78	0	524288	524288	
8944.73	0	524288	524288	
8975.68	0	524288	524288	
9006.63	0	524288	524288	
9037.58	0	524288	524288	
9068.53	0	524288	524288	
9099.48	0	524288	524288	
9130.43	0	524288	524288	
9161.38	0	524288	524288	
9192.33	0	524288	524288	
9223.29	0	524288	524288	
9254.24	0	524288	524288	
9285.19	0	524288	524288	
9316.14	0	524288	524288	
9347.09	0	524288	524288	
9378.04	0	524288	524288	
9408.99	0	524288	524288	
9439.94	0	524288	524288	
9470.89	0	524288	524288	
9501.84	0	524288	524288	
9532.79	0	524288	524288	
9563.74	0	524288	524288	
9594.69	0	524288	524288	
9625.64	0	524288	524288	
9656.59	0	524288	524288	
9687.54	0	524288	524288	
9718.5	0	524288	524288	
9749.45	0	524288	524288	
9780.4	0	524288	524288	
9811.35	0	524288	524288	
9842.3	0	524288	524288	
9873.25	0	524288	524288	
9904.2	0	524288	524288	
9935.15	0	524288	524288	
9966.1	0	524288	524288	
9997.05	0	524288	524288	
10028	0	524288	524288	
10059	0	524288	524288	
10089.9	0	524288	524288	
10120.9	0	524288	524288	
10151.8	0	524288	524288	
10182.8	0	524288	524288	
10213.7	0	524288	524288	
10244.7	0	524288	524288	
10275.6	0	524288	524288	
10306.6	0	524288	524288	
10337.5	0	524288	524288	
10368.5	0	524288	524288	
10399.4	0	524288	524288	
10430.4	0	524288	524288	
10461.3	0	524288	524288	
10492.3	0	524288	524288	
10523.2	0	524288	524288	
10554.2	0	524288	524288	
10585.1	0	524288	524288	
10616.1	0	524288	524288	
10647	0	524288	524288	
10678	0	524288	524288	
10708.9	0	524288	524288	
10739.9	0	524288	524288	
10770.8	0	524288	524288	
10801.8	0	524288	524288	
10832.7	0	524288	524288	
10863.7	0	524288	524288	
10894.6	0	524288	524288	
10925.6	0	524288	524288	
10956.5	0	524288	524288	
10987.5	0	524288	524288	
11018.4	0	524288	524288	
11049.4	0	524288	524288	
11080.3	0	524288	524288	
11111.3	0	524288	524288	
11142.2	0	524288	524288	
11173.2	0	524288	524288	
11204.1	0	524288	524288	
11235.1	0	524288	524288	
11266	0	524288	524288	
11297	0	524288	524288	
11327.9	0	524288	524288	
11358.9	0	524288	524288	
11389.8	0	524288	524288	
11420.8	0	524288	524288	
11451.7	0	524288	524288	
11482.7	0	524288	524288	
11513.6	0	524288	524288	
11544.6	0	524288	524288	
11575.5	0	524288	524288	
11606.5	0	524288	524288	
11637.4	0	524288	524288	
11668.4	0	524288	524288	
11699.3	0	524288	524288	
11730.3	0	524288	524288	
11761.2	0	524288	524288	
11792.2	0	524288	524288	
11823.1	0	524288	524288	
11854.1	0	524288	524288	
11885	0	524288	524288	
11916	0	524288	524288	
11946.9	0	524288	524288	
11977.9	0	524288	524288	
12008.8	0	524288	524288	
12039.8	0	524288	524288	
12070.7	0	524288	524288	
12101.7	0	524288	524288	
12132.6	0	524288	524288	
12163.6	0	524288	524288	
12194.5	0	524288	524288	
12225.5	0	524288	524288	
12256.4	0	524288	524288	
12287.4	0	524288	524288	
12318.3	0	524288	524288	
12349.3	0	524288	524288	
12380.2	0	524288	524288	
12411.2	0	524288	524288	
12442.1	0	524288	524288	
12473.1	0	524288	524288	
12504.1	0	524288	524288	
12535	0	524288	524288	
12566	0	524288	524288	
12596.9	0	524288	524288	
12627.9	0	524288	524288	
12658.8	0	524288	524288	
12689.8	0	524288	524288	
12720.7	0	524288	524288	
12751.7	0	524288	524288	
12782.6	0	524288	524288	
12813.6	0	524288	524288	
12844.5	0	524288	524288	
12875.5	0	524288	524288	
12906.4	0	524288	524288	
12937.4	0	524288	524288	
12968.3	0	524288	524288	
12999.3	0	524288	524288	
13030.2	0	524288	524288	
13061.2	0	524288	524288	
13092.1	0	524288	524288	
13123.1	0	524288	524288	
13154	0	524288	524288	
13185	0	524288	524288	
13215.9	0	524288	524288	
13246.9	0	524288	524288	
13277.8	0	524288	524288	
13308.8	0	524288	524288	
13339.7	0	524288	524288	
13370.7	0	524288	524288	
13401.6	0	524288	524288	
13432.6	0	524288	524288	
13463.5	0	524288	524288	
13494.5	0	524288	524288	
13525.4	0	524288	524288	
13556.4	0	524288	524288	
13587.3	0	524288	524288	
13618.3	0	524288	524288	
13649.2	0	524288	524288	
13680.2	0	524288	524288	
13711.1	0	524288	524288	
13742.1	0	524288	524288	
13773	0	524288	524288	
13804	0	524288	524288	
13834.9	0	524288	524288	
13865.9	0	524288	524288	
13896.8	0	524288	524288	
13927.8	0	524288	524288	
13958.7	0	524288	524288	
13989.7	0	524288	524288	
14020.6	0	524288	524288	
14051.6	0	524288	524288	
14082.5	0	524288	524288	
14113.5	0	524288	524288	
14144.4	0	524288	524288	
14175.4	0	524288	524288	
14206.3	0	524288	524288	
14237.3	0	524288	524288	
14268.2	0	524288	524288	
14299.2	0	524288	524288	
14330.1	0	524288	524288	
14361.1	0	524288	524288	
14392	0	524288	524288	
14423	0	524288	524288	
14453.9	0	524288	524288	
14484.9	0	524288	524288	
14515.8	0	524288	524288	
14546.8	0	524288	524288	
14577.7	0	524288	524288	
14608.7	0	524288	524288	
14639.6	0	524288	524288	
14670.6	0	524288	524288	
14701.5	0	524288	524288	
14732.5	0	524288	524288	
14763.4	0	524288	524288	
14794.4	0	524288	524288	
14825.3	0	524288	524288	
14856.3	0	524288	524288	
14887.2	0	524288	524288	
14918.2	0	524288	524288	
14949.2	0	524288	524288	
14980.1	0	524288	524288	
15011.1	0	524288	524288	
15042	0	524288	524288	
15073	0	524288	524288	
15103.9	0	524288	524288	
15134.9	0	524288	524288	
15165.8	0	524288	524288	
15196.8	0	524288	524288	
15227.7	0	524288	524288	
15258.7	0	524288	524288	
15289.6	0	524288	524288	
15320.6	0	524288	524288	
15351.5	0	524288	524288	
15382.5	0	524288	524288	
15413.4	0	524288	524288	
15444.4	0	524288	524288	
15475.3	0	524288	524288	
15506.3	0	524288	524288	
15537.2	0	524288	524288	
15568.2	0	524288	524288	
15599.1	0	524288	524288	
15630.1	0	524288	524288	
15661	0	524288	524288	
15692	0	524288	524288	
15722.9	0	524288	524288	
15753.9	0	524288	524288	
15784.8	0	524288	524288	
15815.8	0	524288	524288	
15846.7	0	524288	524288	
15877.7	0	524288	524288	
15908.6	0	524288	524288	
15939.6	0	524288	524288	
15970.5	0	524288	524288	
16001.5	0	524288	524288	
16032.4	0	524288	524288	
16063.4	0	524288	524288	
16094.3	0	524288	524288	
16125.3	0	524288	524288	
16156.2	0	524288	524288	
16187.2	0	524288	524288	
16218.1	0	524288	524288	
16249.1	0	524288	524288	
16280	0	524288	524288	
16311	0	524288	524288	
16341.9	0	524288	524288	
16372.9	0	524288	524288	
16403.8	0	524288	524288	
16434.8	0	524288	524288	
16465.7	0	524288	524288	
16496.7	0	524288	524288	
16527.6	0	524288	524288	
16558.6	0	524288	524288	
16589.5	0	524288	524288	
16620.5	0	524288	524288	
16651.4	0	524288	524288	
16682.4	0	524288	524288	
16713.3	0	524288	524288	
16744.3	0	524288	524288	
16775.2	0	524288	524288	
16806.2	0	524288	524288	
16837.1	0	524288	524288	
16868.1	0	524288	524288	
16899	0	524288	524288	
16930	0	524288	524288	
16960.9	0	524288	524288	
16991.9	0	524288	524288	
17022.8	0	524288	524288	
17053.8	0	524288	524288	
17084.7	0	524288	524288	
17115.7	0	524288	524288	
17146.6	0	524288	524288	
17177.6	0	524288	524288	
17208.5	0	524288	524288	
17239.5	0	524288	524288	
17270.4	0	524288	524288	
17301.4	0	524288	524288	
17332.3	0	524288	524288	
17363.3	0	524288	524288	
17394.2	0	524288	524288	
17425.2	0	524288	524288	
17456.2	0	524288	524288	
17487.1	0	524288	524288	
17518.1	0	524288	524288	
17549	0	524288	524288	
17580	0	524288	524288	
17610.9	0	524288	524288	
17641.9	0	524288	524288	
17672.8	0	524288	524288	
17703.8	0	524288	524288	
17734.7	0	524288	524288	
17765.7	0	524288	524288	
17796.6	0	524288	524288	
17827.6	0	524288	524288	
17858.5	0	524288	524288	
17889.5	0	524288	524288	
17920.4	0	524288	524288	
17951.4	0	524288	524288	
17982.3	0	524288	524288	
18013.3	0	524288	524288	
18044.2	0	524288	524288	
18075.2	0	524288	524288	
18106.1	0	524288	524288	
18137.1	0	524288	524288	
18168	0	524288	524288	
18199	0	524288	524288	
18229.9	0	524288	524288	
18260.9	0	524288	524288	
18291.8	0	524288	524288	
18322.8	0	524288	524288	
18353.7	0	524288	524288	
18384.7	0	524288	524288	
18415.6	0	524288	524288	
18446.6	0	524288	524288	
18477.5	0	524288	524288	
18508.5	0	524288	524288	
18539.4	0	524288	524288	
18570.4	0	524288	524288	
18601.3	0	524288	524288	
18632.3	0	524288	524288	
18663.2	0	524288	524288	
18694.2	0	524288	524288	
18725.1	0	524288	524288	
18756.1	0	524288	524288	
18787	0	524288	524288	
18818	0	524288	524288	
18848.9	0	524288	524288	
18879.9	0	524288	524288	
18910.8	0	524288	524288	
18941.8	0	524288	524288	
18972.7	0	524288	524288	
19003.7	0	524288	524288	
19034.6	0	524288	524288	
19065.6	0	524288	524288	
19096.5	0	524288	524288	
19127.5	0	524288	524288	
19158.4	0	524288	524288	
19189.4	0	524288	524288	
19220.3	0	524288	524288	
19251.3	0	524288	524288	
19282.2	0	524288	524288	
19313.2	0	524288	524288	
19344.1	0	524288	524288	
19375.1	0	524288	524288	
19406	0	524288	524288	
19437	0	524288	524288	
19467.9	0	524288	524288	
19498.9	0	524288	524288	
19529.8	0	524288	524288	
19560.8	0	524288	524288	
19591.7	0	524288	524288	
19622.7	0	524288	524288	
19653.6	0	524288	524288	
19684.6	0	524288	524288	
19715.5	0	524288	524288	
19746.5	0	524288	524288	
19777.4	0	524288	524288	
19808.4	0	524288	524288	
19839.3	0	524288	524288	
19870.3	0	524288	524288	
19901.2	0	524288	524288	
19932.2	0	524288	524288	
19963.2	0	524288	524288	
19994.1	0	524288	524288	
20025.1	0	524288	524288	
20056	0	524288	524288	
20087	0	524288	524288	
20117.9	0	524288	524288	
20148.9	0	524288	524288	
20179.8	0	524288	524288	
20210.8	0	524288	524288	
20241.7	0	524288	524288	
20272.7	0	524288	524288	
20303.6	0	524288	524288	
20334.6	0	524288	524288	
20365.5	0	524288	524288	
20396.5	0	524288	524288	
20427.4	0	524288	524288	
20458.4	0	524288	524288	
20489.3	0	524288	524288	
20520.3	0	524288	524288	
20551.2	0	524288	524288	
20582.2	0	524288	524288	
20613.1	0	524288	524288	
20644.1	0	524288	524288	
20675	0	524288	524288	
20706	0	524288	524288	
20736.9	0	524288	524288	
20767.9	0	524288	524288	
20798.8	0	524288	524288	
20829.8	0	524288	524288	
20860.7	0	524288	524288	
20891.7	0	524288	524288	
20922.6	0	524288	524288	
20953.6	0	524288	524288	
20984.5	0	524288	524288	
21015.5	0	524288	524288	
21046.4	0	524288	524288	
21077.4	0	524288	524288	
21108.3	0	524288	524288	
21139.3	0	524288	524288	
21170.2	0	524288	524288	
21201.2	0	524288	524288	
21232.1	0	524288	524288	
21263.1	0	524288	524288	
21294	0	524288	524288	
21325	0	524288	524288	
21355.9	0	524288	524288	
21386.9	0	524288	524288	
21417.8	0	524288	524288	
21448.8	0	524288	524288	
21479.7	0	524288	524288	
21510.7	0	524288	524288	
21541.6	0	524288	524288	
21572.6	0	524288	524288	
21603.5	0	524288	524288	
21634.5	0	524288	524288	
21665.4	0	524288	524288	
21696.4	0	524288	524288	
21727.3	0	524288	524288	
21758.3	0	524288	524288	
21789.2	0	524288	524288	
21820.2	0	524288	524288	
21851.1	0	524288	524288	
21882.1	0	524288	524288	
21913	0	524288	524288	
21944	0	524288	524288	
21974.9	0	524288	524288	
22005.9	0	524288	524288	
22036.8	0	524288	524288	
22067.8	0	524288	524288	
22098.7	0	524288	524288	
22129.7	0	524288	524288	
22160.6	0	524288	524288	
22191.6	0	524288	524288	
22222.5	0	524288	524288	
22253.5	0	524288	524288	
22284.4	0	524288	524288	
22315.4	0	524288	524288	
22346.3	0	524288	524288	
22377.3	0	524288	524288	
22408.3	0	524288	524288	
22439.2	0	524288	524288	
22470.2	0	524288	524288	
22501.1	0	524288	524288	
22532.1	0	524288	524288	
22563	0	524288	524288	
22594	0	524288	524288	
22624.9	0	524288	524288	
22655.9	0	524288	524288	
22686.8	0	524288	524288	
22717.8	0	524288	524288	
22748.7	0	524288	524288	
22779.7	0	524288	524288	
22810.6	0	524288	524288	
22841.6	0	524288	524288	
22872.5	0	524288	524288	
22903.5	0	524288	524288	
22934.4	0	524288	524288	
22965.4	0	524288	524288	
22996.3	0	524288	524288	
23027.3	0	524288	524288	
23058.2	0	524288	524288	
23089.2	0	524288	524288	
23120.1	0	524288	524288	
23151.1	0	524288	524288	
23182	0	524288	524288	
23213	0	524288	524288	
23243.9	0	524288	524288	
23274.9	0	524288	524288	
23305.8	0	524288	524288	
23336.8	0	524288	524288	
23367.7	0	524288	524288	
23398.7	0	524288	524288	
23429.6	0	524288	524288	
23460.6	0	524288	524288	
23491.5	0	524288	524288	
23522.5	0	524288	524288	
23553.4	0	524288	524288	
23584.4	0	524288	524288	
23615.3	0	524288	524288	
23646.3	0	524288	524288	
23677.2	0	524288	524288	
23708.2	0	524288	524288	
23739.1	0	524288	524288	
23770.1	0	524288	524288	
23801	0	524288	524288	
23832	0	524288	524288	
23862.9	0	524288	524288	
23893.9	0	524288	524288	
23924.8	0	524288	524288	
23955.8	0	524288	524288	
23986.7	0	524288	524288	
24017.7	0	524288	524288	
24048.6	0	524288	524288	
24079.6	0	524288	524288	
24110.5	0	524288	524288	
24141.5	0	524288	524288	
24172.4	0	524288	524288	
24203.4	0	524288	524288	
24234.3	0	524288	524288	
24265.3	0	524288	524288	
24296.2	0	524288	524288	
24327.2	0	524288	524288	
24358.1	0	524288	524288	
24389.1	0	524288	524288	
24420	0	524288	524288	
24451	0	524288	524288	
24481.9	0	524288	524288	
24512.9	0	524288	524288	
24543.8	0	524288	524288	
24574.8	0	524288	524288	
24605.7	0	524288	524288	
24636.7	0	524288	524288	
24667.6	0	524288	524288	
24698.6	0	524288	524288	
24729.5	0	524288	524288	
24760.5	0	524288	524288	
24791.4	0	524288	524288	
24822.4	0	524288	524288	
24853.3	0	524288	524288	
24884.3	0	524288	524288	
24915.3	0	524288	524288	
24946.2	0	524288	524288	
24977.2	0	524288	524288	
25008.1	0	524288	524288	
25039.1	0	524288	524288	
25070	0	524288	524288	
25101	0	524288	524288	
25131.9	0	524288	524288	
25162.9	0	524288	524288	
25193.8	0	524288	524288	
25224.8	0	524288	524288	
25255.7	0	524288	524288	
25286.7	0	524288	524288	
25317.6	0	524288	524288	
25348.6	0	524288	524288	
25379.5	0	524288	524288	
25410.5	0	524288	524288	
25441.4	0	524288	524288	
25472.4	0	524288	524288	
25503.3	0	524288	524288	
25534.3	0	524288	524288	
25565.2	0	524288	524288	
25596.2	0	524288	524288	
25627.1	0	524288	524288	
25658.1	0	524288	524288	
25689	0	524288	524288	
25720	0	524288	524288	
25750.9	0	524288	524288	
25781.9	0	524288	524288	
25812.8	0	524288	524288	
25843.8	0	524288	524288	
25874.7	0	524288	524288	
25905.7	0	524288	524288	
25936.6	0	524288	524288	
25967.6	0	524288	524288	
25998.5	0	524288	524288	
26029.5	0	524288	524288	
26060.4	0	524288	524288	
26091.4	0	524288	524288	
26122.3	0	524288	524288	
26153.3	0	524288	524288	
26184.2	0	524288	524288	
26215.2	0	524288	524288	
26246.1	0	524288	524288	
26277.1	0	524288	524288	
26308	0	524288	524288	
26339	0	524288	524288	
26369.9	0	524288	524288	
26400.9	0	524288	524288	
26431.8	0	524288	524288	
26462.8	0	524288	524288	
26493.7	0	524288	524288	
26524.7	0	524288	524288	
26555.6	0	524288	524288	
26586.6	0	524288	524288	
26617.5	0	524288	524288	
26648.5	0	524288	524288	
26679.4	0	524288	524288	
26710.4	0	524288	524288	
26741.3	0	524288	524288	
26772.3	0	524288	524288	
26803.2	0	524288	524288	
26834.2	0	524288	524288	
26865.1	0	524288	524288	
26896.1	0	524288	524288	
26927	0	524288	524288	
26958	0	524288	524288	
26988.9	0	524288	524288	
27019.9	0	524288	524288	
27050.8	0	524288	524288	
27081.8	0	524288	524288	
27112.7	0	524288	524288	
27143.7	0	524288	524288	
27174.6	0	524288	524288	
27205.6	0	524288	524288	
27236.5	0	524288	524288	
27267.5	0	524288	524288	
27298.4	0	524288	524288	
27329.4	0	524288	524288	
27360.3	0	524288	524288	
27391.3	0	524288	524288	
27422.3	0	524288	524288	
27453.2	0	524288	524288	
27484.2	0	524288	524288	
27515.1	0	524288	524288	
27546.1	0	524288	524288	
27577	0	524288	524288	
27608	0	524288	524288	
27638.9	0	524288	524288	
27669.9	0	524288	524288	
27700.8	0	524288	524288	
27731.8	0	524288	524288	
27762.7	0	524288	524288	
27793.7	0	524288	524288	
27824.6	0	524288	524288	
27855.6	0	524288	524288	
27886.5	0	524288	524288	
27917.5	0	524288	524288	
27948.4	0	524288	524288	
27979.4	0	524288	524288	
28010.3	0	524288	524288	
28041.3	0	524288	524288	
28072.2	0	524288	524288	
28103.2	0	524288	524288	
28134.1	0	524288	524288	
28165.1	0	524288	524288	
28196	0	524288	524288	
28227	0	524288	524288	
28257.9	0	524288	524288	
28288.9	0	524288	524288	
28319.8	0	524288	524288	
28350.8	0	524288	524288	
28381.7	0	524288	524288	
28412.7	0	524288	524288	
28443.6	0	524288	524288	
28474.6	0	524288	524288	
28505.5	0	524288	524288	
28536.5	0	524288	524288	
28567.4	0	524288	524288	
28598.4	0	524288	524288	
28629.3	0	524288	524288	
28660.3	0	524288	524288	
28691.2	0	524288	524288	
28722.2	0	524288	524288	
28753.1	0	524288	524288	
28784.1	0	524288	524288	
28815	0	524288	524288	
28846	0	524288	524288	
28876.9	0	524288	524288	
28907.9	0	524288	524288	
28938.8	0	524288	524288	
28969.8	0	524288	524288	
29000.7	0	524288	524288	
29031.7	0	524288	524288	
29062.6	0	524288	524288	
29093.6	0	524288	524288	
29124.5	0	524288	524288	
29155.5	0	524288	524288	
29186.4	0	524288	524288	
29217.4	0	524288	524288	
29248.3	0	524288	524288	
29279.3	0	524288	524288	
29310.2	0	524288	524288	
29341.2	0	524288	524288	
29372.1	0	524288	524288	
29403.1	0	524288	524288	
29434	0	524288	524288	
29465	0	524288	524288	
29495.9	0	524288	524288	
29526.9	0	524288	524288	
29557.8	0	524288	524288	
29588.8	0	524288	524288	
29619.7	0	524288	524288	
29650.7	0	524288	524288	
29681.6	0	524288	524288	
29712.6	0	524288	524288	
29743.5	0	524288	524288	
29774.5	0	524288	524288	
29805.4	0	524288	524288	
29836.4	0	524288	524288	
29867.3	0	524288	524288	
29898.3	0	524288	524288	
29929.3	0	524288	524288	
29960.2	0	524288	524288	
29991.2	0	524288	524288	
30022.1	0	524288	524288	
30053.1	0	524288	524288	
30084	0	524288	524288	
30115	0	524288	524288	
30145.9	0	524288	524288	
30176.9	0	524288	524288	
30207.8	0	524288	524288	
30238.8	0	524288	524288	
30269.7	0	524288	524288	
30300.7	0	524288	524288	
30331.6	0	524288	524288	
30362.6	0	524288	524288	
30393.5	0	524288	524288	
30424.5	0	524288	524288	
30455.4	0	524288	524288	
30486.4	0	524288	524288	
30517.3	0	524288	524288	
30548.3	0	524288	524288	
30579.2	0	524288	524288	
30610.2	0	524288	524288	
30641.1	0	524288	524288	
30672.1	0	524288	524288	
30703	0	524288	524288	
30734	0	524288	524288	
30764.9	0	524288	524288	
30795.9	0	524288	524288	
30826.8	0	524288	524288	
30857.8	0	524288	524288	
30888.7	0	524288	524288	
30919.7	0	524288	524288	
30950.6	0	524288	524288	
30981.6	0	524288	524288	
31012.5	0	524288	524288	
31043.5	0	524288	524288	
31074.4	0	524288	524288	
31105.4	0	524288	524288	
31136.3	0	524288	524288	
31167.3	0	524288	524288	
31198.2	0	524288	524288	
31229.2	0	524288	524288	
31260.1	0	524288	524288	
31291.1	0	524288	524288	
31322	0	524288	524288	
31353	0	524288	524288	
31383.9	0	524288	524288	
31414.9	0	524288	524288	
31445.8	0	524288	524288	
31476.8	0	524288	524288	
31507.7	0	524288	524288	
31538.7	0	524288	524288	
31569.6	0	524288	524288	
31600.6	0	524288	524288	
31631.5	0	524288	524288	
31662.5	0	524288	524288	
31693.4	0	524288	524288	
31724.4	0	524288	524288	
31755.3	0	524288	524288	
31786.3	0	524288	524288	
31817.2	0	524288	524288	
31848.2	0	524288	524288	
31879.1	0	524288	524288	
31910.1	0	524288	524288	
31941	0	524288	524288	
31972	0	524288	524288	
32002.9	0	524288	524288	
32033.9	0	524288	524288	
32064.8	0	524288	524288	
32095.8	0	524288	524288	
32126.7	0	524288	524288	
32157.7	0	524288	524288	
32188.6	0	524288	524288	
32219.6	0	524288	524288	
32250.5	0	524288	524288	
32281.5	0	524288	524288	
32312.4	0	524288	524288	
32343.4	0	524288	524288	
32374.4	0	524288	524288	
32405.3	0	524288	524288	
32436.3	0	524288	524288	
32467.2	0	524288	524288	
32498.2	0	524288	524288	
32529.1	0	524288	524288	
32560.1	0	524288	524288	
32591	0	524288	524288	
32622	0	524288	524288	
32652.9	0	524288	524288	
32683.9	0	524288	524288	
32714.8	0	524288	524288	
32745.8	0	524288	524288	
32776.7	0	524288	524288	
32807.7	0	524288	524288	
32838.6	0	524288	524288	
32869.6	0	524288	524288	
32900.5	0	524288	524288	
32931.5	0	524288	524288	
32962.4	0	524288	524288	
32993.4	0	524288	524288	
33024.3	0	524288	524288	
33055.3	0	524288	524288	
33086.2	0	524288	524288	
33117.2	0	524288	524288	
33148.1	0	524288	524288	
33179.1	0	524288	524288	
33210	0	524288	524288	
33241	0	524288	524288	
33271.9	0	524288	524288	
33302.9	0	524288	524288	
33333.8	0	524288	524288	
33364.8	0	524288	524288	
33395.7	0	524288	524288	
33426.7	0	524288	524288	
33457.6	0	524288	524288	
33488.6	0	524288	524288	
33519.5	0	524288	524288	
33550.5	0	524288	524288	
33581.4	0	524288	524288	
33612.4	0	524288	524288	
33643.3	0	524288	524288	
33674.3	0	524288	524288	
33705.2	0	524288	524288	
33736.2	0	524288	524288	
33767.1	0	524288	524288	
33798.1	0	524288	524288	
33829	0	524288	524288	
33860	0	524288	524288	
33890.9	0	524288	524288	
33921.9	0	524288	524288	
33952.8	0	524288	524288	
33983.8	0	524288	524288	
34014.7	0	524288	524288	
34045.7	0	524288	524288	
34076.6	0	524288	524288	
34107.6	0	524288	524288	
34138.5	0	524288	524288	
34169.5	0	524288	524288	
34200.4	0	524288	524288	
34231.4	0	524288	524288	
34262.3	0	524288	524288	
34293.3	0	524288	524288	
34324.2	0	524288	524288	
34355.2	0	524288	524288	
34386.1	0	524288	524288	
34417.1	0	524288	524288	
34448	0	524288	524288	
34479	0	524288	524288	
34509.9	0	524288	524288	
34540.9	0	524288	524288	
34571.8	0	524288	524288	
34602.8	0	524288	524288	
34633.7	0	524288	524288	
34664.7	0	524288	524288	
34695.6	0	524288	524288	
34726.6	0	524288	524288	
34757.5	0	524288	524288	
34788.5	0	524288	524288	
34819.4	0	524288	524288	
34850.4	0	524288	524288	
34881.4	0	524288	524288	
34912.3	0	524288	524288	
34943.3	0	524288	524288	
34974.2	0	524288	524288	
35005.2	0	524288	524288	
35036.1	0	524288	524288	
35067.1	0	524288	524288	
35098	0	524288	524288	
35129	0	524288	524288	
35159.9	0	524288	524288	
35190.9	0	524288	524288	
35221.8	0	524288	524288	
35252.8	0	524288	524288	
35283.7	0	524288	524288	
35314.7	0	524288	524288	
35345.6	0	524288	524288	
35376.6	0	524288	524288	
35407.5	0	524288	524288	
35438.5	0	524288	524288	
35469.4	0	524288	524288	
35500.4	0	524288	524288	
35531.3	0	524288	524288	
35562.3	0	524288	524288	
35593.2	0	524288	524288	
35624.2	0	524288	524288	
35655.1	0	524288	524288	
35686.1	0	524288	524288	
35717	0	524288	524288	
35748	0	524288	524288	
35778.9	0	524288	524288	
35809.9	0	524288	524288	
35840.8	0	524288	524288	
35871.8	0	524288	524288	
35902.7	0	524288	524288	
35933.7	0	524288	524288	
35964.6	0	524288	524288	
35995.6	0	524288	524288	
36026.5	0	524288	524288	
36057.5	0	524288	524288	
36088.4	0	524288	524288	
36119.4	0	524288	524288	
36150.3	0	524288	524288	
36181.3	0	524288	524288	
36212.2	0	524288	524288	
36243.2	0	524288	524288	
36274.1	0	524288	524288	
36305.1	0	524288	524288	
36336	0	524288	524288	
36367	0	524288	524288	
36397.9	0	524288	524288	
36428.9	0	524288	524288	
36459.8	0	524288	524288	
36490.8	0	524288	524288	
36521.7	0	524288	524288	
36552.7	0	524288	524288	
36583.6	0	524288	524288	
36614.6	0	524288	524288	
36645.5	0	524288	524288	
36676.5	0	524288	524288	
36707.4	0	524288	524288	
36738.4	0	524288	524288	
36769.3	0	524288	524288	
36800.3	0	524288	524288	
36831.2	0	524288	524288	
36862.2	0	524288	524288	
36893.1	0	524288	524288	
36924.1	0	524288	524288	
36955	0	524288	524288	
36986	0	524288	524288	
37016.9	0	524288	524288	
37047.9	0	524288	524288	
37078.8	0	524288	524288	
37109.8	0	524288	524288	
37140.7	0	524288	524288	
37171.7	0	524288	524288	
37202.6	0	524288	524288	
37233.6	0	524288	524288	
37264.5	0	524288	524288	
37295.5	0	524288	524288	
37326.4	0	524288	524288	
37357.4	0	524288	524288	
37388.4	0	524288	524288	
37419.3	0	524288	524288	
37450.3	0	524288	524288	
37481.2	0	524288	524288	
37512.2	0	524288	524288	
37543.1	0	524288	524288	
37574.1	0	524288	524288	
37605	0	524288	524288	
37636	0	524288	524288	
37666.9	0	524288	524288	
37697.9	0	524288	524288	
37728.8	0	524288	524288	
37759.8	0	524288	524288	
37790.7	0	524288	524288	
37821.7	0	524288	524288	
37852.6	0	524288	524288	
37883.6	0	524288	524288	
37914.5	0	524288	524288	
37945.5	0	524288	524288	
37976.4	0	524288	524288	
38007.4	0	524288	524288	
38038.3	0	524288	524288	
38069.3	0	524288	524288	
38100.2	0	524288	524288	
38131.2	0	524288	524288	
38162.1	0	524288	524288	
38193.1	0	524288	524288	
38224	0	524288	524288	
38255	0	524288	524288	
38285.9	0	524288	524288	
38316.9	0	524288	524288	
38347.8	0	524288	524288	
38378.8	0	524288	524288	
38409.7	0	524288	524288	
38440.7	0	524288	524288	
38471.6	0	524288	524288	
38502.6	0	524288	524288	
38533.5	0	524288	524288	
38564.5	0	524288	524288	
38595.4	0	524288	524288	
38626.4	0	524288	524288	
38657.3	0	524288	524288	
38688.3	0	524288	524288	
38719.2	0	524288	524288	
38750.2	0	524288	524288	
38781.1	0	524288	524288	
38812.1	0	524288	524288	
38843	0	524288	524288	
38874	0	524288	524288	
38904.9	0	524288	524288	
38935.9	0	524288	524288	
38966.8	0	524288	524288	
38997.8	0	524288	524288	
39028.7	0	524288	524288	
39059.7	0	524288	524288	
39090.6	0	524288	524288	
39121.6	0	524288	524288	
39152.5	0	524288	524288	
39183.5	0	524288	524288	
39214.4	0	524288	524288	
39245.4	0	524288	524288	
39276.3	0	524288	524288	
39307.3	0	524288	524288	
39338.2	0	524288	524288	
39369.2	0	524288	524288	
39400.1	0	524288	524288	
39431.1	0	524288	524288	
39462	0	524288	524288	
39493	0	524288	524288	
39523.9	0	524288	524288	
39554.9	0	524288	524288	
39585.8	0	524288	524288	
39616.8	0	524288	524288	
39647.7	0	524288	524288	
39678.7	0	524288	524288	
39709.6	0	524288	524288	
39740.6	0	524288	524288	
39771.5	0	524288	524288	
39802.5	0	524288	524288	
39833.4	0	524288	524288	
39864.4	0	524288	524288	
39895.4	0	524288	524288	
39926.3	0	524288	524288	
39957.3	0	524288	524288	
39988.2	0	524288	524288	
40019.2	0	524288	524288	
40050.1	0	524288	524288	
40081.1	0	524288	524288	
40112	0	524288	524288	
40143	0	524288	524288	
40173.9	0	524288	524288	
40204.9	0	524288	524288	
40235.8	0	524288	524288	
40266.8	0	524288	524288	
40297.7	0	524288	524288	
40328.7	0	524288	524288	
40359.6	0	524288	524288	
40390.6	0	524288	524288	
40421.5	0	524288	524288	
40452.5	0	524288	524288	
40483.4	0	524288	524288	
40514.4	0	524288	524288	
40545.3	0	524288	524288	
40576.3	0	524288	524288	
40607.2	0	524288	524288	
40638.2	0	524288	524288	
40669.1	0	524288	524288	
40700.1	0	524288	524288	
40731	0	524288	524288	
40762	0	524288	524288	
40792.9	0	524288	524288	
40823.9	0	524288	524288	
40854.8	0	524288	524288	
40885.8	0	524288	524288	
40916.7	0	524288	524288	
40947.7	0	524288	524288	
40978.6	0	524288	524288	
41009.6	0	524288	524288	
41040.5	0	524288	524288	
41071.5	0	524288	524288	
41102.4	0	524288	524288	
41133.4	0	524288	524288	
41164.3	0	524288	524288	
41195.3	0	524288	524288	
41226.2	0	524288	524288	
41257.2	0	524288	524288	
41288.1	0	524288	524288	
41319.1	0	524288	524288	
41350	0	524288	524288	
41381	0	524288	524288	
41411.9	0	524288	524288	
41442.9	0	524288	524288	
41473.8	0	524288	524288	
41504.8	0	524288	524288	
41535.7	0	524288	524288	
41566.7	0	524288	524288	
41597.6	0	524288	524288	
41628.6	0	524288	524288	
41659.5	0	524288	524288	
41690.5	0	524288	524288	
41721.4	0	524288	524288	
41752.4	0	524288	524288	
41783.3	0	524288	524288	
41814.3	0	524288	524288	
41845.2	0	524288	524288	
41876.2	0	524288	524288	
41907.1	0	524288	524288	
41938.1	0	524288	524288	
41969	0	524288	524288	
42000	0	524288	524288	
42030.9	0	524288	524288	
42061.9	0	524288	524288	
42092.8	0	524288	524288	
42123.8	0	524288	524288	
42154.7	0	524288	524288	
42185.7	0	524288	524288	
42216.6	0	524288	524288	
42247.6	0	524288	524288	
42278.5	0	524288	524288	
42309.5	0	524288	524288	
42340.5	0	524288	524288	
42371.4	0	524288	524288	
42402.4	0	524288	524288	
42433.3	0	524288	524288	
42464.3	9.09495e-13	524288	524288	
42495.2	0	524288	524288	
42526.2	0	524288	524288	
42557.1	0	524288	524288	
42588.1	0	524288	524288	
42619	0	524288	524288	
42650	0	524288	524288	
42680.9	9.09495e-13	524288	524288	
42711.9	9.09495e-13	524288	524288	
42742.8	9.09495e-13	524288	524288	
42773.8	9.09495e-13	524288	524288	
42804.7	1.81899e-12	524288	524288	
42835.7	1.81899e-12	524288	524288	
42866.6	1.81899e-12	524288	524288	
42897.6	1.81899e-12	524288	524288	
42928.5	2.72848e-12	524288	524288	
42959.5	2.72848e-12	524288	524288	
42990.4	3.63798e-12	524288	524288	
43021.4	4.54747e-12	524288	524288	
43052.3	4.54747e-12	524288	524288	
43083.3	5.45697e-12	524288	524288	
43114.2	6.36646e-12	524288	524288	
43145.2	7.27596e-12	524288	524288	
43176.1	8.18545e-12	524288	524288	
