0	0	33616	33616	
76.2883	0	33612	33612	
152.577	0	33584	33584	
228.909	0	33740	33740	
305.197	0	33766	33766	
381.486	0	33856	33856	
457.609	0	33922	33922	
533.733	0	34004	34004	
609.857	0	34060	34060	
685.98	0	34116	34116	
762.104	0	34186	34186	
838.285	0	34256	34256	
914.465	0	34332	34332	
990.565	0	34412	34412	
1066.56	0	34488	34488	
1142.4	0	34526	34526	
1218.24	0	34592	34592	
1294.08	0	34642	34642	
1369.92	0	34714	34714	
1445.76	0	34770	34770	
1521.6	0	34876	34876	
1597.28	0	34926	34926	
1672.97	0	34958	34958	
1748.57	0	35014	35014	
1823.96	0	35078	35078	
1899.34	0	35094	35094	
1974.73	0	35136	35136	
2050.11	0	35198	35198	
2125.4	0	35280	35280	
2200.68	0	35342	35342	
2275.72	0	35402	35402	
2350.71	0	35456	35456	
2419.92	0	35466	35466	
2489.12	0	35524	35524	
2558.33	0	35574	35574	
2627.53	0	35612	35612	
2696.74	0	35668	35668	
2765.95	9.09495e-13	35728	35728	
2835.15	3.63798e-12	35778	35778	
2904.36	9.09495e-12	35824	35824	
2973.56	2.00089e-11	35894	35894	
3042.77	4.00178e-11	35946	35946	
3108.65	7.36691e-11	35954	35954	
3174.52	1.30967e-10	35980	35980	
3239.14	2.22826e-10	36058	36058	
3303.75	3.67436e-10	36120	36120	
3368.36	5.87534e-10	36132	36132	
3432.98	9.14042e-10	36156	36156	
3497.59	1.3888e-09	36196	36196	
3562.2	2.06455e-09	36228	36228	
3626.82	3.00588e-09	36266	36266	
3691.43	4.29554e-09	36312	36312	
3756.05	6.03359e-09	36358	36358	
3820.66	8.33825e-09	36414	36414	
3885.27	1.13496e-08	36478	36478	
3949.89	1.52286e-08	36552	36552	
4014.5	2.01571e-08	36590	36590	
4079.12	2.63399e-08	36634	36634	
4143.73	3.40024e-08	36660	36660	
4208.34	4.33929e-08	36690	36690	
4272.96	5.47816e-08	36740	36740	
4337.57	6.84631e-08	36794	36794	
4402.19	8.47567e-08	36846	36846	
4466.8	1.04002e-07	36876	36876	
4531.41	1.26558e-07	36908	36908	
4596.03	1.52796e-07	36952	36952	
4660.64	1.83085e-07	36984	36984	
4725.26	2.17785e-07	37038	37038	
4789.87	2.57239e-07	37070	37070	
4854.48	3.01779e-07	37136	37136	
4919.1	3.51648e-07	37186	37186	
4983.71	4.06961e-07	37226	37226	
5048.33	4.67807e-07	37280	37280	
5112.94	5.34335e-07	37304	37304	
5177.55	6.0678e-07	37320	37320	
5242.17	6.85443e-07	37356	37356	
5306.78	7.7064e-07	37402	37402	
5371.39	8.62657e-07	37472	37472	
5436.01	9.61688e-07	37524	37524	
5500.62	1.06781e-06	37576	37576	
5565.24	1.18094e-06	37596	37596	
5629.85	1.30075e-06	37642	37642	
5694.46	1.42659e-06	37690	37690	
5759.08	1.55727e-06	37718	37718	
5823.69	1.69164e-06	37748	37748	
5888.31	1.82873e-06	37784	37784	
5952.92	1.96763e-06	37802	37802	
6017.53	2.10738e-06	37834	37834	
6082.15	2.24682e-06	37890	37890	
6146.76	2.38447e-06	37902	37902	
6211.38	2.51859e-06	37906	37906	
6275.99	2.64702e-06	37924	37924	
6340.6	2.76708e-06	37962	37962	
6405.22	2.87595e-06	38008	38008	
6469.83	2.97284e-06	38040	38040	
6534.45	3.05425e-06	38074	38074	
6599.06	3.11704e-06	38128	38128	
6663.67	3.16035e-06	38136	38136	
6728.29	3.06476e-06	38188	38188	
6792.9	3.0071e-06	38238	38238	
6857.53	2.94166e-06	38258	38258	
6922.16	2.88141e-06	38310	38310	
6986.79	2.76829e-06	38346	38346	
7051.42	2.5506e-06	38386	38386	
7116.05	2.6049e-06	38430	38430	
7180.68	2.3268e-06	38470	38470	
7245.31	1.70986e-06	38488	38488	
7312.82	7.3e-07	38528	38528	
7380.33	-6.34151e-07	38572	38572	
7447.99	-2.47187e-06	38604	38604	
7515.64	-4.87458e-06	38648	38648	
7583.29	-7.95441e-06	38688	38688	
7651.97	-1.18886e-05	38721	38721	
7720.64	-1.67652e-05	38725	38725	
7789.31	-2.27794e-05	38758	38758	
7857.98	-3.01112e-05	38796	38796	
7926.65	-3.89425e-05	38838	38838	
7995.32	-4.94311e-05	38883	38883	
8064.32	-6.17631e-05	38901	38901	
8133.32	-7.59689e-05	38928	38928	
8202.32	-9.20393e-05	38968	38968	
8271.31	-0.000109836	38974	38974	
8340.31	-0.000129055	39000	39000	
8409.31	-0.000149163	39014	39014	
8478.31	-0.000169334	39058	39058	
8547.3	-0.000188375	39087	39087	
8616.3	-0.000204634	39137	39137	
8685.3	-0.000215907	39171	39171	
8754.53	-0.000219348	39217	39217	
8823.75	-0.000211254	39269	39269	
8893.65	-0.00018688	39301	39301	
8963.54	-0.000140569	39345	39345	
9033.44	-6.56249e-05	39379	39379	
9103.33	4.578e-05	39413	39413	
9173.22	0.000202625	39453	39453	
9243.12	0.000415023	39486	39486	
9313.01	0.000694154	39524	39524	
9377.63	0.00102509	39596	39596	
9442.24	0.00143442	39619	39619	
9506.86	0.00193271	39659	39659	
9571.49	0.00253082	39691	39691	
9636.12	0.00323926	39748	39748	
9700.75	0.00406825	39794	39794	
9765.38	0.0050273	39808	39808	
9830.01	0.00612491	39854	39854	
9894.64	0.00736821	39882	39882	
9959.27	0.00876265	39928	39928	
10023.9	0.0103117	39936	39936	
10088.5	0.0120165	39964	39964	
10153.2	0.0138757	39994	39994	
10217.8	0.0158852	40034	40034	
10282.4	0.0180381	40086	40086	
10347	0.0203242	40148	40148	
10411.7	0.0227308	40190	40190	
10483	0.0255001	40264	40264	
10547.6	0.0281052	40322	40322	
10612.2	0.0307726	40376	40376	
10676.8	0.0334784	40428	40428	
10741.4	0.0361976	40462	40462	
10806.1	0.0389019	40490	40490	
10870.7	0.0415627	40518	40518	
10935.3	0.0441507	40564	40564	
10999.9	0.0466362	40590	40590	
11073	0.0492977	40664	40664	
11142.2	0.0516235	40720	40720	
11211.4	0.0537296	40782	40782	
11280.7	0.0555843	40820	40820	
11349.9	0.0571589	40898	40898	
11417.4	0.0583968	40986	40986	
11482	0.0592831	41024	41024	
11546.6	0.0598687	41064	41064	
11611.2	0.0601425	41126	41126	
11679.9	0.060094	41182	41182	
11748.6	0.0596797	41214	41214	
11817.2	0.0588989	41290	41290	
11885.9	0.0577552	41314	41314	
11954.6	0.0562563	41370	41370	
12023.2	0.0544141	41442	41442	
12091.9	0.0522443	41514	41514	
12160.6	0.0497662	41540	41540	
12229.8	0.0469806	41596	41596	
12299	0.0439302	41670	41670	
12368.2	0.0406431	41708	41708	
12435.7	0.0372351	41800	41800	
12503.2	0.0336609	41862	41862	
12570.7	0.029951	41910	41910	
12638.2	0.0261364	41968	41968	
12707.4	0.022151	42014	42014	
12776.6	0.0181214	42088	42088	
12845.9	0.0140808	42166	42166	
12915.1	0.0100615	42234	42234	
12984.3	0.00609455	42326	42326	
13053.5	0.00220958	42394	42394	
13122.7	-0.00156545	42438	42438	
13191.9	-0.0052044	42528	42528	
13261.1	-0.00868315	42600	42600	
13330.3	-0.0119797	42676	42676	
13399.5	-0.0150741	42728	42728	
13468.7	-0.0179488	42790	42790	
13542.1	-0.0207477	42858	42858	
13615.5	-0.0232683	42938	42938	
13688.8	-0.0254984	43034	43034	
13762.2	-0.0274299	43116	43116	
13835.6	-0.029058	43156	43156	
13911.9	-0.030434	43202	43202	
13988.2	-0.031483	43272	43272	
14064.5	-0.0322115	43390	43390	
14140.8	-0.0326299	43444	43444	
14217	-0.0327495	43506	43506	
14293.3	-0.0325817	43582	43582	
14369.6	-0.0321364	43654	43654	
14445.9	-0.0314229	43760	43760	
14522.2	-0.0304499	43854	43854	
14598.5	-0.0292275	43944	43944	
14674.8	-0.027767	44028	44028	
14751.1	-0.0260832	44108	44108	
14827.4	-0.0241949	44208	44208	
14903.6	-0.0221223	44288	44288	
14979.9	-0.0198834	44400	44400	
15056.2	-0.0175153	44498	44498	
15132.5	-0.0150558	44596	44596	
15205.9	-0.0126243	44732	44732	
15275.1	-0.0103002	44818	44818	
15344.3	-0.00796292	44902	44902	
15413.5	-0.00562987	45008	45008	
15482.7	-0.0033152	45102	45102	
15551.9	-0.00103444	45200	45200	
15621.1	0.0011968	45280	45280	
15693.8	0.00347121	45362	45362	
15766.5	0.00565412	45444	45444	
15839.2	0.00772425	45554	45554	
15911.9	0.00966154	45650	45650	
15984.6	0.0114483	45736	45736	
16057.3	0.0130702	45850	45850	
16130	0.0145157	45960	45960	
16202.7	0.0157761	46036	46036	
16275.4	0.0168447	46138	46138	
16348	0.0177166	46222	46222	
16421.4	0.0183943	46308	46308	
16494.7	0.018864	46378	46378	
16568	0.0191247	46444	46444	
16641.2	0.0191752	46533	46533	
16714.5	0.0190154	46651	46651	
16787.7	0.0186469	46782	46782	
16861	0.0180732	46876	46876	
16934.3	0.0172996	46974	46974	
17007.5	0.0163338	47066	47066	
17080.8	0.0151854	47122	47122	
17157.1	0.0138117	47224	47224	
17233.4	0.0122674	47324	47324	
17309.7	0.0105695	47387	47387	
17386	0.00873668	47478	47478	
17462.3	0.0067887	47569	47569	
17538.5	0.00474653	47651	47651	
17614.8	0.00263193	47730	47730	
17691.1	0.000467346	47818	47818	
17764.4	-0.00163749	47951	47951	
17829	-0.00349702	48038	48038	
17893.6	-0.00534357	48143	48143	
17958.2	-0.00716343	48240	48240	
18022.8	-0.00894337	48298	48298	
18092	-0.0107935	48365	48365	
18161.2	-0.0125699	48428	48428	
18233.9	-0.014344	48537	48537	
18306.6	-0.0160087	48598	48598	
18379.3	-0.0175518	48663	48663	
18452	-0.0189629	48772	48772	
18525.4	-0.0202456	48878	48878	
18598.8	-0.021378	48956	48956	
18672.1	-0.0223549	49037	49037	
18745.5	-0.0231725	49147	49147	
18818.9	-0.0238285	49221	49221	
18892.2	-0.0243209	49297	49297	
18965.4	-0.0246513	49410	49410	
19037.9	-0.0248193	49449	49449	
19110.3	-0.0248333	49528	49528	
19182.8	-0.0246976	49646	49646	
19255	-0.0244185	49727	49727	
19327.2	-0.0240028	49788	49788	
19399.4	-0.0235041	49860	49860	
19471.3	-0.0229431	49909	49909	
19535.9	-0.0222821	49951	49951	
19600.5	-0.0214544	50031	50031	
19665.1	-0.0205551	50091	50091	
19729.7	-0.0196025	50146	50146	
19794.4	-0.0186072	50246	50246	
19866.2	-0.017455	50312	50312	
19938.1	-0.0162592	50391	50391	
20010	-0.0150312	50451	50451	
20081.9	-0.013785	50543	50543	
20153.8	-0.0125346	50569	50569	
20226	-0.0112791	50656	50656	
20298.3	-0.010034	50743	50743	
20370.5	-0.00881299	50866	50866	
20442.7	-0.00764178	50931	50931	
20515	-0.00652024	51029	51029	
20587.2	-0.00544458	51113	51113	
20659.4	-0.00441583	51178	51178	
20731.3	-0.00344738	51258	51258	
20803.1	-0.00254126	51347	51347	
20867.8	-0.00178622	51397	51397	
20932.4	-0.00108626	51524	51524	
20997	-0.000442826	51621	51621	
21061.6	0.000142542	51698	51698	
21126.2	0.000668342	51750	51750	
21198.1	0.00118584	51803	51803	
21270	0.00162796	51857	51857	
21341.8	0.00199487	51917	51917	
21413.7	0.0022871	52031	52031	
21485.6	0.00250532	52133	52133	
21557.4	0.00265035	52235	52235	
21629.3	0.00272335	52275	52275	
21701.2	0.00272599	52333	52333	
21773.1	0.00266049	52416	52416	
21844.9	0.00252957	52513	52513	
21916.8	0.00233643	52569	52569	
21988.7	0.00208467	52629	52629	
22060.5	0.00177823	52719	52719	
22132.4	0.00142138	52794	52794	
22204.3	0.00101863	52893	52893	
22276.2	0.000574688	52957	52957	
22340.8	0.000142966	53042	53042	
22405.4	-0.000313934	53091	53091	
22470	-0.000792121	53167	53167	
22534.6	-0.00128754	53212	53212	
22606.5	-0.00185312	53320	53320	
22678.4	-0.0024295	53398	53398	
22750.2	-0.00301065	53475	53475	
22822.1	-0.00359048	53538	53538	
22894	-0.00416298	53571	53571	
22965.8	-0.00472228	53633	53633	
23037.7	-0.00526278	53712	53712	
23109.6	-0.0057792	53797	53797	
23181.5	-0.00626667	53910	53910	
23253.3	-0.00672083	54008	54008	
23325.2	-0.00713785	54057	54057	
23397.1	-0.00751451	54163	54163	
23468.9	-0.00784825	54234	54234	
23540.8	-0.00813723	54307	54307	
23612.7	-0.00838031	54373	54373	
23684.6	-0.0085771	54418	54418	
23756.4	-0.00872792	54530	54530	
23828.3	-0.00883372	54678	54678	
23900.2	-0.00889607	54754	54754	
23964.8	-0.00891489	54860	54860	
24029.4	-0.0089022	54905	54905	
24094	-0.00885998	54937	54937	
24158.6	-0.00879032	55033	55033	
24223.2	-0.00869534	55111	55111	
24287.9	-0.00857717	55183	55183	
24359.7	-0.00842218	55256	55256	
24431.6	-0.00824341	55337	55337	
24503.5	-0.00804329	55397	55397	
24575.3	-0.00782405	55504	55504	
24647.2	-0.00758762	55571	55571	
24719.1	-0.00733575	55626	55626	
24791	-0.00706999	55680	55680	
24862.8	-0.00679182	55786	55786	
24934.7	-0.00650268	55907	55907	
25006.6	-0.00620403	55984	55984	
25078.4	-0.00589738	56026	56026	
25150.3	-0.00558432	56056	56056	
25222.2	-0.00526597	56133	56133	
25294.1	-0.00494414	56203	56203	
25361.6	-0.00464033	56251	56251	
25429.1	-0.00433659	56321	56321	
25496.6	-0.00403403	56414	56414	
25564.1	-0.00373339	56534	56534	
25636	-0.00341595	56638	56638	
25705.2	-0.00311329	56737	56737	
25774.4	-0.00281391	56834	56834	
25843.6	-0.00251812	56933	56933	
25909.5	-0.00224038	57043	57043	
25975.3	-0.00196667	57159	57159	
26040	-0.00170254	57200	57200	
26104.6	-0.00144304	57306	57306	
26169.2	-0.00118849	57371	57371	
26233.8	-0.000939102	57445	57445	
26298.4	-0.000695048	57530	57530	
26363	-0.000456512	57598	57598	
26427.6	-0.000223694	57661	57661	
26492.3	3.21501e-06	57764	57764	
26556.9	0.000224009	57866	57866	
26624.4	0.000448115	57954	57954	
26691.9	0.000665085	58001	58001	
26759.4	0.000874434	58069	58069	
26826.9	0.00107543	58118	58118	
26894.4	0.0012688	58195	58195	
26961.9	0.00145273	58234	58234	
27033.8	0.00163615	58303	58303	
27105.7	0.00180415	58392	58392	
27177.5	0.00195379	58530	58530	
27249.4	0.00210834	58646	58646	
27321.3	0.00221276	58745	58745	
27393.2	0.00230163	58832	58832	
27465	0.00237522	58919	58919	
27536.9	0.00243418	58992	58992	
27604.4	0.00248228	59075	59075	
27671.9	0.00253357	59156	59156	
27739.4	0.00254862	59239	59239	
27806.9	0.00253249	59308	59308	
27878.8	0.00251617	59357	59357	
27950.7	0.00248063	59469	59469	
28022.6	0.00242715	59539	59539	
28094.4	0.00235263	59610	59610	
28166.3	0.00225847	59689	59689	
28238.2	0.00214436	59783	59783	
28310	0.00201082	59852	59852	
28377.6	0.00186716	59937	59937	
28445.1	0.00170721	59980	59980	
28512.6	0.00153187	60091	60091	
28580.1	0.00134235	60145	60145	
28652	0.00112676	60222	60222	
28723.8	0.000897904	60289	60289	
28795.7	0.000657262	60367	60367	
28867.6	0.000406328	60471	60471	
28939.4	0.000146568	60549	60549	
29011.3	-0.000120576	60592	60592	
29083.2	-0.000393695	60662	60662	
29155.1	-0.000671414	60744	60744	
29226.9	-0.000952373	60800	60800	
29298.8	-0.00123522	60855	60855	
29370.7	-0.00151859	60938	60938	
29442.5	-0.00180113	61032	61032	
29514.4	-0.00208149	61089	61089	
29586.3	-0.00235837	61156	61156	
29658.2	-0.00263051	61243	61243	
29722.8	-0.00286982	61305	61305	
29787.4	-0.00310339	61379	61379	
29852	-0.00333043	61466	61466	
29916.6	-0.00355018	61516	61516	
29981.2	-0.00376192	61596	61596	
30045.8	-0.00396495	61700	61700	
30110.5	-0.00415866	61726	61726	
30175.1	-0.00434239	61764	61764	
30242.6	-0.00452326	61826	61826	
30310.1	-0.00469201	61868	61868	
30377.6	-0.00484808	61918	61918	
30445.1	-0.004991	61986	61986	
30512.7	-0.00512036	62067	62067	
30584.5	-0.00524332	62184	62184	
30656.4	-0.00535032	62286	62286	
30728.3	-0.0054412	62401	62401	
30800.1	-0.00551589	62519	62519	
30872	-0.00557443	62571	62571	
30943.9	-0.00561691	62708	62708	
31015.8	-0.0056435	62826	62826	
31087.6	-0.00565439	62977	62977	
31155.1	-0.0056501	63125	63125	
31222.6	-0.00563241	63274	63274	
31290.2	-0.00560161	63371	63371	
31357.7	-0.00555802	63444	63444	
31429.5	-0.00549845	63523	63523	
31501.4	-0.0054254	63636	63636	
31573.3	-0.00533953	63736	63736	
31645.2	-0.00524157	63843	63843	
31717	-0.0051323	63920	63920	
31788.9	-0.0050125	64018	64018	
31856.4	-0.00489081	64106	64106	
31923.9	-0.00476118	64206	64206	
31991.4	-0.0046242	64304	64304	
32058.9	-0.00448044	64406	64406	
32130.8	-0.00432078	64469	64469	
32202.7	-0.00415469	64573	64573	
32274.6	-0.00398282	64668	64668	
32346.4	-0.0038058	64732	64732	
32418.3	-0.00362407	64804	64804	
32490.2	-0.0034383	64852	64852	
32562	-0.00324904	64889	64889	
32633.9	-0.00305763	64947	64947	
32705.8	-0.00286359	65053	65053	
32777.7	-0.00266776	65132	65132	
32849.5	-0.00247067	65194	65194	
32921.4	-0.00227363	65285	65285	
32993.3	-0.0020769	65359	65359	
33065.1	-0.00188084	65401	65401	
33137	-0.00168564	65455	65455	
33208.9	-0.00149197	65505	65505	
33280.8	-0.00130079	65570	65570	
33352.6	-0.00111302	65587	65587	
33424.5	-0.000929652	65672	65672	
33496.4	-0.000751421	65792	65792	
33568.2	-0.000579184	65887	65887	
33640.1	-0.000413846	65955	65955	
33712	-0.000256404	66049	66049	
33783.9	-0.000107763	66069	66069	
33855.7	3.12951e-05	66111	66111	
33927.6	0.000160158	66198	66198	
33999.5	0.000278342	66221	66221	
34071.3	0.000385489	66347	66347	
34143.2	0.000481335	66426	66426	
34215.1	0.000565664	66514	66514	
34287	0.000638295	66616	66616	
34358.8	0.0006991	66695	66695	
34430.7	0.000748027	66862	66862	
34502.6	0.000785141	67033	67033	
34574.4	0.00081064	67156	67156	
34646.3	0.00082486	67290	67290	
34718.2	0.000828243	67372	67372	
34790.1	0.00082129	67454	67454	
34861.9	0.000804509	67503	67503	
34933.8	0.000778378	67589	67589	
35005.7	0.000743316	67668	67668	
35077.5	0.000699683	67808	67808	
35149.4	0.000647805	67930	67930	
35221.3	0.000588009	68028	68028	
35293.2	0.000520691	68038	68038	
35365	0.000446343	68125	68125	
35436.9	0.000365453	68204	68204	
35508.8	0.000278881	68301	68301	
35580.6	0.000187354	68418	68418	
35652.5	9.17524e-05	68483	68483	
35724.4	-7.21321e-06	68552	68552	
35796.3	-0.000108699	68650	68650	
35868.1	-0.000211928	68759	68759	
35940	-0.000316135	68852	68852	
36011.9	-0.000420721	68954	68954	
36083.7	-0.00052517	69054	69054	
36155.6	-0.000629053	69138	69138	
36227.5	-0.000731951	69222	69222	
36299.4	-0.000833462	69296	69296	
36371.2	-0.000933169	69379	69379	
36443.1	-0.00103066	69468	69468	
36515	-0.00112552	69583	69583	
36586.8	-0.00121734	69670	69670	
36658.7	-0.00130576	69754	69754	
36730.6	-0.00139042	69862	69862	
36802.5	-0.001471	69974	69974	
36874.3	-0.0015472	70048	70048	
36946.2	-0.00161875	70124	70124	
37018.1	-0.00168543	70160	70160	
37089.9	-0.00174706	70253	70253	
37161.8	-0.00180349	70325	70325	
37233.7	-0.00185468	70420	70420	
37305.6	-0.00190062	70493	70493	
37377.4	-0.00194136	70604	70604	
37449.3	-0.001977	70701	70701	
37521.2	-0.00200765	70747	70747	
37593	-0.00203339	70817	70817	
37664.9	-0.00205425	70918	70918	
37736.8	-0.00207015	71010	71010	
37808.7	-0.00208092	71104	71104	
37880.5	-0.00208622	71177	71177	
37952.4	-0.0020856	71235	71235	
38024.3	-0.00207848	71258	71258	
38096.1	-0.00206415	71372	71372	
38168	-0.00204184	71452	71452	
38239.9	-0.00201073	71582	71582	
38311.8	-0.00197001	71659	71659	
38383.6	-0.00191893	71752	71752	
38455.5	-0.00185687	71818	71818	
38527.4	-0.00178336	71927	71927	
38599.2	-0.0016981	71996	71996	
38671.1	-0.00160106	72073	72073	
38743	-0.00149239	72138	72138	
38814.9	-0.00137262	72231	72231	
38886.7	-0.00124244	72395	72395	
38958.6	-0.00110285	72468	72468	
39030.5	-0.000953156	72591	72591	
39102.3	-0.000796904	72628	72628	
39174.2	-0.000635517	72713	72713	
39246.1	-0.000470832	72802	72802	
39318	-0.000304426	72930	72930	
39382.6	-0.000154801	72976	72976	
39447.2	-6.75965e-06	73001	73001	
39511.8	0.000138554	73053	73053	
39576.4	0.000279971	73112	73112	
39641	0.000416818	73191	73191	
39705.6	0.000548741	73270	73270	
39770.3	0.000675599	73362	73362	
39834.9	0.000797351	73428	73428	
39899.5	0.000913936	73513	73513	
39964.1	0.00102538	73559	73559	
40028.7	0.00113172	73685	73685	
40100.6	0.00124467	73751	73751	
40172.5	0.0013518	73804	73804	
40244.3	0.00145377	73917	73917	
40316.2	0.0015518	74022	74022	
40388.1	0.00164729	74106	74106	
40459.9	0.00174134	74193	74193	
40531.8	0.00183474	74295	74295	
40603.7	0.001928	74396	74396	
40675.6	0.0020215	74521	74521	
40747.4	0.00211544	74622	74622	
40819.3	0.0022099	74759	74759	
40883.9	0.00229523	74836	74836	
40948.5	0.00238083	74912	74912	
41013.1	0.00246653	74979	74979	
41077.8	0.00255218	75107	75107	
41142.4	0.0026376	75216	75216	
41207	0.00272267	75356	75356	
41271.6	0.00280723	75441	75441	
41336.2	0.00289112	75520	75520	
41400.9	0.00297416	75627	75627	
41468.4	0.00305976	75735	75735	
41533	0.00314033	75803	75803	
41597.6	0.0032193	75860	75860	
41662.3	0.00329637	75933	75933	
41726.9	0.0033712	76056	76056	
41791.5	0.00344345	76146	76146	
41856.2	0.00351275	76235	76235	
41923.7	0.00358169	76348	76348	
41991.2	0.00364664	76452	76452	
42063	0.00371111	76521	76521	
42134.9	0.00377323	76588	76588	
42206.8	0.00382708	76655	76655	
42278.7	0.00389667	76727	76727	
42346.2	0.00392866	76772	76772	
42413.7	0.00395374	76845	76845	
42481.2	0.00396636	76923	76923	
42548.7	0.00397823	76994	76994	
42620.6	0.0039874	77064	77064	
42692.4	0.00399107	77138	77138	
42764.3	0.00398618	77216	77216	
42836.2	0.00397381	77279	77279	
42908.1	0.00395408	77364	77364	
42975.6	0.0039289	77401	77401	
43043.1	0.00389701	77452	77452	
43110.6	0.00385833	77474	77474	
43178.1	0.00381283	77508	77508	
