0	0	35832	35832	
36.0427	0	35650	35650	
72.2269	0	35678	35678	
108.411	0	35746	35746	
144.595	0	35848	35848	
180.779	0	35842	35842	
216.989	0	35810	35810	
253.198	0	35776	35776	
289.407	0	35820	35820	
325.616	0	35852	35852	
361.825	0	35842	35842	
398.035	0	35876	35876	
434.244	0	35884	35884	
470.453	0	35918	35918	
507.441	0	35878	35878	
544.429	0	35798	35798	
581.563	0	35702	35702	
618.697	0	35634	35634	
655.831	0	35572	35572	
692.965	0	35514	35514	
730.099	0	35512	35512	
767.233	0	35490	35490	
804.367	0	35458	35458	
841.502	0	35470	35470	
878.636	0	35480	35480	
915.77	0	35454	35454	
952.904	0	35536	35536	
990.038	0	35554	35554	
1027.17	0	35558	35558	
1064.31	0	35582	35582	
1101.44	0	35636	35636	
1138.57	0	35694	35694	
1175.71	0	35750	35750	
1211.97	0	35820	35820	
1248.23	0	35846	35846	
1284.49	0	35868	35868	
1320.75	0	35924	35924	
1357.01	0	35954	35954	
1393.27	0	35990	35990	
1429.53	0	36042	36042	
1465.79	0	36098	36098	
1502.05	0	36170	36170	
1538.31	0	36248	36248	
1574.54	0	36314	36314	
1610.76	0	36364	36364	
1646.99	0	36404	36404	
1683.21	0	36466	36466	
1719.44	0	36512	36512	
1755.66	0	36572	36572	
1791.89	0	36622	36622	
1828.11	0	36654	36654	
1864.34	0	36726	36726	
1900.56	0	36790	36790	
1936.79	0	36872	36872	
1973.01	0	36960	36960	
2009.2	0	37020	37020	
2045.39	0	37058	37058	
2081.57	0	37146	37146	
2117.76	0	37174	37174	
2153.95	0	37232	37232	
2190.14	0	37280	37280	
2226.32	0	37360	37360	
2262.51	0	37414	37414	
2298.7	0	37504	37504	
2334.88	0	37570	37570	
2371.07	0	37644	37644	
2407.26	0	37684	37684	
2443.45	0	37776	37776	
2479.32	0	37846	37846	
2515.19	0	37924	37924	
2551.06	0	37982	37982	
2586.94	0	38046	38046	
2622.81	0	38078	38078	
2658.68	0	38110	38110	
2694.55	0	38168	38168	
2730.18	0	38298	38298	
2765.8	0	38406	38406	
2801.43	0	38456	38456	
2836.83	0	38536	38536	
2872.23	0	38574	38574	
2907.64	0	38634	38634	
2943.04	0	38706	38706	
2978.44	0	38790	38790	
3013.84	0	38838	38838	
3049.24	0	38890	38890	
3084.27	0	38964	38964	
3119.29	0	39038	39038	
3154.31	0	39102	39102	
3189.34	0	39188	39188	
3224.36	0	39254	39254	
3259.38	0	39328	39328	
3294.02	0	39418	39418	
3328.65	0	39526	39526	
3363.29	0	39570	39570	
3397.92	0	39622	39622	
3432.56	0	39686	39686	
3467.19	0	39750	39750	
3501.83	0	39830	39830	
3536.46	0	39890	39890	
3571.1	0	39948	39948	
3605.73	0	40048	40048	
3640.37	0	40152	40152	
3675	0	40198	40198	
3709.64	0	40284	40284	
3744.27	0	40354	40354	
3778.91	0	40408	40408	
3813.54	0	40494	40494	
3848.18	0	40594	40594	
3882.82	0	40678	40678	
3917.45	0	40794	40794	
3952.09	0	40856	40856	
3986.72	0	40926	40926	
4021.36	0	41002	41002	
4055.99	0	41058	41058	
4090.63	0	41152	41152	
4125.26	0	41258	41258	
4159.9	0	41314	41314	
4194.53	0	41400	41400	
4229.17	0	41480	41480	
4263.8	0	41554	41554	
4298.44	0	41618	41618	
4333.07	0	41688	41688	
4367.71	0	41776	41776	
4402.34	0	41842	41842	
4436.98	0	41930	41930	
4471.61	0	42030	42030	
4506.25	0	42122	42122	
4540.88	0	42214	42214	
4575.52	0	42280	42280	
4610.15	0	42348	42348	
4644.79	0	42396	42396	
4679.42	0	42452	42452	
4714.06	0	42590	42590	
4748.69	0	42716	42716	
4783.33	0	42772	42772	
4817.97	0	42826	42826	
4852.6	0	42896	42896	
4887.24	0	43004	43004	
4921.87	0	43140	43140	
4956.51	0	43218	43218	
4991.14	0	43288	43288	
5025.78	0	43410	43410	
5060.41	0	43518	43518	
5095.05	0	43604	43604	
5129.68	0	43666	43666	
5164.32	0	43746	43746	
5198.95	0	43838	43838	
5233.59	0	43912	43912	
5268.22	0	43966	43966	
5302.86	0	44080	44080	
5337.49	0	44174	44174	
5372.13	0	44242	44242	
5406.76	0	44332	44332	
5441.4	0	44446	44446	
5476.03	0	44560	44560	
5510.67	0	44688	44688	
5545.3	0	44778	44778	
5579.94	0	44816	44816	
5614.57	0	44952	44952	
5649.21	0	45054	45054	
5683.84	0	45146	45146	
5718.48	0	45192	45192	
5753.11	0	45266	45266	
5787.75	0	45318	45318	
5822.38	0	45434	45434	
5857.02	0	45568	45568	
5891.65	0	45672	45672	
5926.29	0	45750	45750	
5960.92	0	45776	45776	
5995.56	0	45852	45852	
6030.19	0	46030	46030	
6064.83	0	46160	46160	
6099.46	0	46244	46244	
6134.1	0	46306	46306	
6168.73	0	46384	46384	
6203.37	0	46492	46492	
6238	0	46596	46596	
6272.64	0	46700	46700	
6307.27	0	46770	46770	
6341.91	0	46856	46856	
6376.54	0	46904	46904	
6411.18	0	47026	47026	
6445.81	0	47140	47140	
6480.45	0	47238	47238	
6515.08	0	47296	47296	
6549.72	0	47354	47354	
6584.35	0	47442	47442	
6618.99	0	47596	47596	
6653.62	0	47682	47682	
6688.26	0	47808	47808	
6722.89	0	47914	47914	
6757.52	0	47974	47974	
6792.16	0	48098	48098	
6826.79	0	48242	48242	
6861.43	0	48306	48306	
6896.06	0	48384	48384	
6930.7	0	48444	48444	
6965.33	0	48548	48548	
6999.96	0	48668	48668	
7034.6	0	48760	48760	
7069.23	0	48874	48874	
7103.87	0	48942	48942	
7138.5	0	49032	49032	
7173.14	0	49162	49162	
7207.77	0	49270	49270	
7242.4	0	49400	49400	
7277.04	0	49490	49490	
7311.67	0	49582	49582	
7346.31	0	49684	49684	
7380.94	0	49830	49830	
7415.58	0	49944	49944	
7450.21	0	50016	50016	
7484.84	0	50112	50112	
7519.48	0	50220	50220	
7554.11	0	50340	50340	
7588.75	0	50454	50454	
7623.38	0	50584	50584	
7658.01	0	50678	50678	
7692.65	0	50776	50776	
7727.28	0	50888	50888	
7761.92	0	51018	51018	
7796.55	0	51124	51124	
7831.19	0	51222	51222	
7865.82	0	51302	51302	
7900.45	0	51432	51432	
7935.09	0	51556	51556	
7969.72	0	51668	51668	
8004.36	0	51796	51796	
8038.99	0	51894	51894	
8073.63	0	51982	51982	
8108.26	0	52100	52100	
8142.9	0	52234	52234	
8177.53	0	52368	52368	
8212.17	0	52464	52464	
8246.8	0	52536	52536	
8281.44	0	52640	52640	
8316.07	0	52770	52770	
8350.71	0	52886	52886	
8385.34	0	52992	52992	
8419.98	0	53136	53136	
8454.61	0	53256	53256	
8489.25	0	53382	53382	
8523.88	0	53534	53534	
8558.52	0	53624	53624	
8593.15	0	53768	53768	
8627.79	0	53848	53848	
8662.42	0	53932	53932	
8697.06	0	54070	54070	
8731.69	0	54194	54194	
8766.33	0	54302	54302	
8800.96	0	54396	54396	
8835.6	0	54538	54538	
8870.23	0	54672	54672	
8904.87	0	54794	54794	
8939.5	0	54934	54934	
8974.14	0	55068	55068	
9008.77	0	55192	55192	
9043.41	0	55316	55316	
9078.04	0	55442	55442	
9112.68	0	55566	55566	
9147.31	0	55692	55692	
9181.95	0	55798	55798	
9216.58	0	55918	55918	
9251.22	0	56014	56014	
9285.85	0	56180	56180	
9320.49	0	56358	56358	
9355.12	0	56484	56484	
9389.76	0	56620	56620	
9424.39	0	56720	56720	
9459.02	0	56860	56860	
9493.66	0	56984	56984	
9528.29	0	57158	57158	
9562.93	0	57258	57258	
9597.56	0	57390	57390	
9632.2	0	57550	57550	
9666.83	0	57686	57686	
9701.47	0	57834	57834	
9736.1	0	57998	57998	
9770.74	0	58118	58118	
9805.37	0	58200	58200	
9840.01	0	58322	58322	
9874.64	0	58462	58462	
9909.28	0	58588	58588	
9943.91	0	58784	58784	
9978.55	0	58872	58872	
10013.2	0	58972	58972	
10047.8	0	59128	59128	
10082.5	0	59266	59266	
10117.1	0	59392	59392	
10151.7	0	59538	59538	
10186.4	0	59686	59686	
10221	0	59810	59810	
10255.6	0	59980	59980	
10290.3	0	60138	60138	
10324.9	0	60268	60268	
10359.5	0	60408	60408	
10394.2	0	60508	60508	
10428.8	0	60628	60628	
10463.4	0	60748	60748	
10498.1	0	60890	60890	
10532.7	0	61032	61032	
10567.3	0	61186	61186	
10602	0	61294	61294	
10636.6	0	61444	61444	
10671.2	0	61566	61566	
10705.9	0	61730	61730	
10740.5	0	61864	61864	
10775.1	0	62010	62010	
10809.8	0	62164	62164	
10844.4	0	62322	62322	
10879.1	0	62410	62410	
10913.7	0	62574	62574	
10948.3	0	62708	62708	
10983	0	62842	62842	
11017.6	0	62976	62976	
11052.2	0	63158	63158	
11086.9	0	63282	63282	
11121.5	0	63402	63402	
11156.1	0	63560	63560	
11190.8	0	63686	63686	
11225.4	0	63852	63852	
11260	0	63978	63978	
11294.7	0	64106	64106	
11329.3	0	64206	64206	
11363.9	0	64376	64376	
11398.6	0	64534	64534	
11433.2	0	64680	64680	
11467.9	0	64810	64810	
11502.5	0	64980	64980	
11537.1	0	65158	65158	
11571.8	0	65296	65296	
11606.4	0	65454	65454	
11641	0	65604	65604	
11675.7	0	65762	65762	
11710.4	0	65906	65906	
11745.1	0	66052	66052	
11779.8	0	66250	66250	
11814.5	0	66376	66376	
11849.2	0	66528	66528	
11884.2	0	66700	66700	
11919.3	0	66826	66826	
11954.3	0	66996	66996	
11989.3	0	67184	67184	
12024.3	0	67338	67338	
12059	0	67544	67544	
12093.6	0	67708	67708	
12128.2	0	67868	67868	
12162.9	0	67976	67976	
12197.5	0	68130	68130	
12232.1	0	68262	68262	
12266.8	0	68460	68460	
12301.4	0	68584	68584	
12336.1	0	68762	68762	
12370.7	0	68924	68924	
12405.3	0	69088	69088	
12440	0	69226	69226	
12474.6	0	69378	69378	
12509.2	0	69540	69540	
12543.9	0	69706	69706	
12578.5	0	69840	69840	
12613.1	0	70028	70028	
12647.8	0	70212	70212	
12682.4	0	70342	70342	
12717	0	70560	70560	
12751.7	0	70748	70748	
12786.3	0	70960	70960	
12820.9	0	71116	71116	
12855.6	0	71260	71260	
12890.2	0	71422	71422	
12924.8	0	71588	71588	
12959.5	0	71750	71750	
12994.1	0	71936	71936	
13028.7	0	72104	72104	
13063.4	0	72276	72276	
13098	0	72448	72448	
13132.7	0	72572	72572	
13167.3	0	72764	72764	
13201.9	0	73014	73014	
13236.6	0	73184	73184	
13271.2	0	73360	73360	
13305.8	0	73514	73514	
13340.5	0	73666	73666	
13375.1	0	73856	73856	
13409.7	0	74092	74092	
13444.4	0	74330	74330	
13479	0	74472	74472	
13513.6	0	74610	74610	
13548.3	0	74740	74740	
13582.9	0	74878	74878	
13617.5	0	75128	75128	
13652.2	0	75278	75278	
13686.8	0	75512	75512	
13721.4	0	75670	75670	
13756.1	0	75810	75810	
13790.7	0	75968	75968	
13825.4	0	76214	76214	
13860	0	76404	76404	
13894.6	0	76522	76522	
13929.3	0	76652	76652	
13963.9	0	76842	76842	
13998.5	0	77028	77028	
14033.2	0	77258	77258	
14067.8	0	77428	77428	
14102.4	0	77592	77592	
14137.1	0	77740	77740	
14171.7	0	77926	77926	
14206.3	0	78076	78076	
14241	0	78284	78284	
14275.6	0	78488	78488	
14310.2	0	78656	78656	
14344.9	0	78796	78796	
14379.5	0	78932	78932	
14414.2	0	79146	79146	
14448.8	0	79330	79330	
14483.4	0	79486	79486	
14518.1	0	79628	79628	
14552.7	0	79796	79796	
14587.3	0	79926	79926	
14622	0	80080	80080	
14656.6	0	80304	80304	
14691.2	0	80542	80542	
14725.9	0	80756	80756	
14760.5	0	80902	80902	
14795.1	0	81038	81038	
14829.8	0	81230	81230	
14864.4	0	81544	81544	
14899	0	81798	81798	
14933.7	0	82008	82008	
14968.3	0	82182	82182	
15002.9	0	82336	82336	
15037.6	0	82512	82512	
15072.2	0	82736	82736	
15106.9	0	82894	82894	
15141.5	0	83116	83116	
15176.1	0	83282	83282	
15210.8	0	83492	83492	
15245.4	0	83694	83694	
15280	0	83946	83946	
15314.7	0	84154	84154	
15349.3	0	84352	84352	
15383.9	0	84562	84562	
15418.6	0	84776	84776	
15453.2	0	85028	85028	
15487.8	0	85240	85240	
15522.5	0	85442	85442	
15557.1	0	85678	85678	
15591.7	0	85870	85870	
15626.4	0	86106	86106	
15661	0	86274	86274	
15695.7	0	86544	86544	
15730.3	0	86718	86718	
15764.9	0	86868	86868	
15799.6	0	87062	87062	
15834.2	0	87238	87238	
15868.8	0	87478	87478	
15903.5	0	87770	87770	
15938.1	0	87994	87994	
15972.7	0	88164	88164	
16007.4	0	88326	88326	
16042	0	88560	88560	
16076.6	0	88768	88768	
16111.3	0	89022	89022	
16145.9	0	89206	89206	
16180.5	0	89406	89406	
16215.2	0	89614	89614	
16249.8	0	89880	89880	
16284.5	0	90048	90048	
16319.1	0	90228	90228	
16353.7	0	90428	90428	
16388.4	0	90658	90658	
16423	0	90858	90858	
16457.6	0	91022	91022	
16492.3	0	91228	91228	
16526.9	0	91458	91458	
16561.5	0	91662	91662	
16596.2	0	91858	91858	
16630.8	0	92096	92096	
16665.4	0	92312	92312	
16700.1	0	92530	92530	
16734.7	0	92780	92780	
16769.3	0	92992	92992	
16804	0	93224	93224	
16838.6	0	93418	93418	
16873.3	0	93622	93622	
16907.9	0	93794	93794	
16942.5	0	94000	94000	
16977.2	0	94250	94250	
17011.8	0	94420	94420	
17046.4	0	94648	94648	
17081.1	0	94794	94794	
17115.7	0	94988	94988	
17150.3	-4.54747e-13	95227	95227	
17185	-4.54747e-13	95533	95533	
17219.6	-4.54747e-13	95837	95837	
17254.2	-9.09495e-13	96045	96045	
17288.9	-9.09495e-13	96242	96242	
17323.5	-1.36424e-12	96428	96428	
17358.1	-1.81899e-12	96679	96679	
17392.8	-2.27374e-12	96903	96903	
17427.4	-2.72848e-12	97171	97171	
17462	-3.18323e-12	97433	97433	
17496.7	-3.63798e-12	97629	97629	
17531.3	-3.63798e-12	97888	97888	
17566	-4.09273e-12	98094	98094	
17600.6	-4.54747e-12	98317	98317	
17635.2	-5.00222e-12	98581	98581	
17669.9	-5.45697e-12	98809	98809	
17704.5	-5.91172e-12	99010	99010	
17739.1	-6.36646e-12	99286	99286	
17773.8	-6.82121e-12	99548	99548	
17808.4	-7.27596e-12	99758	99758	
17843	-7.7307e-12	100010	100010	
17877.7	-7.7307e-12	100242	100242	
17912.3	-8.18545e-12	100442	100442	
17946.9	-8.18545e-12	100651	100651	
17981.6	-8.6402e-12	100891	100891	
18016.2	-9.09495e-12	101149	101149	
18050.8	-9.54969e-12	101374	101374	
18085.5	-1.00044e-11	101655	101655	
18120.1	-1.04592e-11	101890	101890	
18154.7	-1.09139e-11	102139	102139	
18189.4	-1.13687e-11	102306	102306	
18224	-1.18234e-11	102439	102439	
18258.7	-1.22782e-11	102650	102650	
18293.3	-1.27329e-11	102874	102874	
18327.9	-1.31877e-11	103124	103124	
18362.6	-1.36424e-11	103336	103336	
18397.2	-1.40972e-11	103487	103487	
18431.8	-1.45519e-11	103705	103705	
18466.5	-1.50067e-11	103904	103904	
18501.1	-1.54614e-11	104135	104135	
18535.7	-1.59162e-11	104361	104361	
18570.4	-1.63709e-11	104621	104621	
18605	-1.68257e-11	104829	104829	
18639.6	-1.72804e-11	104986	104986	
18674.3	-1.77351e-11	105155	105155	
18708.9	-1.81899e-11	105347	105347	
18743.5	-1.90994e-11	105556	105556	
18778.2	-1.95541e-11	105782	105782	
18812.8	-2.04636e-11	105996	105996	
18847.4	-2.13731e-11	106189	106189	
18882.1	-2.22826e-11	106333	106333	
18916.7	-2.31921e-11	106522	106522	
18951.4	-2.41016e-11	106751	106751	
18986	-2.50111e-11	107016	107016	
19020.6	-2.59206e-11	107204	107204	
19055.3	-2.68301e-11	107396	107396	
19089.9	-2.81943e-11	107572	107572	
19124.5	-2.95586e-11	107714	107714	
19159.2	-3.09228e-11	107952	107952	
19193.8	-3.22871e-11	108142	108142	
19228.4	-3.36513e-11	108367	108367	
19263.1	-3.50155e-11	108567	108567	
19297.7	-3.63798e-11	108720	108720	
19332.3	-3.7744e-11	108917	108917	
19367	-3.9563e-11	109090	109090	
19401.6	-4.1382e-11	109296	109296	
19436.2	-4.3201e-11	109496	109496	
19470.9	-4.502e-11	109659	109659	
19505.5	-4.72937e-11	109802	109802	
19540.1	-4.95675e-11	109920	109920	
19574.8	-5.18412e-11	110086	110086	
19609.4	-5.41149e-11	110291	110291	
19644.1	-5.68434e-11	110474	110474	
19678.7	-5.95719e-11	110761	110761	
19713.3	-6.23004e-11	110967	110967	
19748	-6.50289e-11	111138	111138	
19782.6	-6.82121e-11	111391	111391	
19817.2	-7.13953e-11	111578	111578	
19851.9	-7.45786e-11	111742	111742	
19886.5	-7.82165e-11	111967	111967	
19921.1	-8.18545e-11	112169	112169	
19955.8	-8.54925e-11	112416	112416	
19990.4	-8.95852e-11	112639	112639	
20025	-9.3678e-11	112809	112809	
20059.7	-9.82254e-11	113006	113006	
20094.3	-1.02773e-10	113236	113236	
20128.9	-1.07775e-10	113436	113436	
20163.6	-1.12777e-10	113658	113658	
20198.2	-1.18234e-10	113839	113839	
20232.9	-1.23691e-10	114036	114036	
20267.5	-1.29603e-10	114223	114223	
20302.1	-1.35969e-10	114430	114430	
20336.8	-1.42336e-10	114651	114651	
20371.4	-1.49157e-10	114862	114862	
20406	-1.55978e-10	115077	115077	
20440.7	-1.63254e-10	115257	115257	
20475.3	-1.70985e-10	115486	115486	
20509.9	-1.7917e-10	115665	115665	
20544.6	-1.87356e-10	115893	115893	
20579.2	-1.95996e-10	116169	116169	
20613.8	-2.05091e-10	116382	116382	
20648.5	-2.14641e-10	116579	116579	
20683.1	-2.24645e-10	116797	116797	
20717.7	-2.35104e-10	117005	117005	
20752.4	-2.46018e-10	117137	117137	
20787	-2.57387e-10	117340	117340	
20821.6	-2.68756e-10	117509	117509	
20856.3	-2.81034e-10	117760	117760	
20890.9	-2.93767e-10	117942	117942	
20925.5	-3.06954e-10	118145	118145	
20960.2	-3.20597e-10	118337	118337	
20994.8	-3.34694e-10	118569	118569	
21029.5	-3.49246e-10	118769	118769	
21064.1	-3.64707e-10	118996	118996	
21098.7	-3.80624e-10	119194	119194	
21133.4	-3.96994e-10	119395	119395	
21168	-4.14275e-10	119541	119541	
21202.6	-4.3201e-10	119732	119732	
21237.3	-4.50655e-10	119925	119925	
21271.9	-4.70209e-10	120134	120134	
21306.5	-4.90218e-10	120273	120273	
21341.2	-5.11136e-10	120441	120441	
21375.8	-5.32964e-10	120604	120604	
21410.4	-5.55247e-10	120769	120769	
21445.1	-5.78439e-10	120943	120943	
21479.7	-6.0254e-10	121070	121070	
21514.3	-6.27551e-10	121260	121260	
21549	-6.53472e-10	121462	121462	
21583.6	-6.80302e-10	121708	121708	
21618.2	-7.08042e-10	121906	121906	
21652.9	-7.37145e-10	122070	122070	
21687.5	-7.67159e-10	122239	122239	
21722.2	-7.98082e-10	122379	122379	
21756.8	-8.30369e-10	122587	122587	
21791.4	-8.63565e-10	122861	122861	
21826.1	-8.98126e-10	123079	123079	
21860.7	-9.33596e-10	123253	123253	
21895.3	-9.70431e-10	123428	123428	
21930	-1.00863e-09	123597	123597	
21964.6	-1.04819e-09	123768	123768	
21999.2	-1.08912e-09	123982	123982	
22033.9	-1.13141e-09	124191	124191	
22068.5	-1.17507e-09	124351	124351	
22103.1	-1.22054e-09	124521	124521	
22137.8	-1.26738e-09	124726	124726	
22172.4	-1.31558e-09	124936	124936	
22207	-1.36561e-09	125146	125146	
22241.7	-1.41745e-09	125306	125306	
22276.3	-1.47065e-09	125530	125530	
22310.9	-1.52568e-09	125713	125713	
22345.6	-1.58252e-09	125876	125876	
22380.2	-1.64164e-09	126066	126066	
22414.8	-1.70257e-09	126276	126276	
22449.5	-1.76533e-09	126516	126516	
22484.1	-1.8299e-09	126746	126746	
22518.8	-1.89675e-09	126898	126898	
22553.4	-1.96587e-09	127067	127067	
22588	-2.03727e-09	127216	127216	
22622.7	-2.11094e-09	127368	127368	
22657.3	-2.18688e-09	127578	127578	
22691.9	-2.2651e-09	127777	127777	
22726.6	-2.34604e-09	128004	128004	
22761.2	-2.42926e-09	128175	128175	
22795.8	-2.51521e-09	128324	128324	
22830.5	-2.60388e-09	128521	128521	
22865.1	-2.69529e-09	128749	128749	
22899.7	-2.78942e-09	128989	128989	
22934.4	-2.88674e-09	129173	129173	
22969	-2.98724e-09	129308	129308	
23003.6	-3.09092e-09	129503	129503	
23038.3	-3.19778e-09	129681	129681	
23072.9	-3.30783e-09	129859	129859	
23107.5	-3.42106e-09	130135	130135	
23142.2	-3.53793e-09	130372	130372	
23176.8	-3.65844e-09	130577	130577	
23211.5	-3.78304e-09	130731	130731	
23246.1	-3.91128e-09	130864	130864	
23280.7	-4.04361e-09	130981	130981	
23315.4	-4.18049e-09	131193	131193	
23350	-4.32146e-09	131406	131406	
23384.6	-4.46698e-09	131642	131642	
23419.3	-4.61705e-09	131796	131796	
23453.9	-4.77166e-09	132004	132004	
23488.5	-4.93128e-09	132187	132187	
23523.2	-5.0959e-09	132422	132422	
23557.8	-5.26552e-09	132632	132632	
23592.4	-5.4406e-09	132847	132847	
23627.1	-5.62113e-09	133013	133013	
23661.7	-5.80758e-09	133197	133197	
23696.3	-5.99994e-09	133358	133358	
23731	-6.19866e-09	133509	133509	
23765.6	-6.40375e-09	133653	133653	
23800.2	-6.61566e-09	133762	133762	
23834.9	-6.8344e-09	133951	133951	
23869.5	-7.06041e-09	134069	134069	
23904.1	-7.29369e-09	134274	134274	
23938.8	-7.53471e-09	134509	134509	
23973.4	-7.78391e-09	134731	134731	
24008.1	-8.0413e-09	134968	134968	
24042.7	-8.30732e-09	135189	135189	
24077.3	-8.58245e-09	135415	135415	
24112	-8.86666e-09	135576	135576	
24146.6	-9.16043e-09	135706	135706	
24181.2	-9.46466e-09	135831	135831	
24215.9	-9.77889e-09	135985	135985	
24250.5	-1.0104e-08	136131	136131	
24285.1	-1.04405e-08	136379	136379	
24319.8	-1.07889e-08	136566	136566	
24354.4	-1.11495e-08	136802	136802	
24389	-1.15228e-08	136994	136994	
24423.7	-1.19094e-08	137205	137205	
24458.3	-1.23096e-08	137405	137405	
24492.9	-1.27243e-08	137531	137531	
24527.6	-1.3154e-08	137722	137722	
24562.2	-1.35992e-08	137840	137840	
24596.8	-1.40608e-08	137976	137976	
24631.5	-1.45392e-08	138117	138117	
24666.1	-1.50353e-08	138252	138252	
24700.8	-1.55496e-08	138484	138484	
24735.4	-1.6083e-08	138640	138640	
24770	-1.66365e-08	138816	138816	
24804.7	-1.72108e-08	139073	139073	
24839.3	-1.7807e-08	139206	139206	
24873.9	-1.84255e-08	139414	139414	
24908.6	-1.90689e-08	139529	139529	
24943.3	-1.97356e-08	139665	139665	
24977.9	-2.04282e-08	139761	139761	
25012.5	-2.11476e-08	139941	139941	
25047.2	-2.18947e-08	140127	140127	
25081.8	-2.2671e-08	140287	140287	
25116.4	-2.34772e-08	140497	140497	
25151.1	-2.43153e-08	140653	140653	
25185.7	-2.51866e-08	140825	140825	
25220.3	-2.6092e-08	141042	141042	
25255	-2.70334e-08	141296	141296	
25289.6	-2.8012e-08	141541	141541	
25324.3	-2.90297e-08	141676	141676	
25358.9	-3.00879e-08	141839	141839	
25393.5	-3.11884e-08	141998	141998	
25428.2	-3.2333e-08	142171	142171	
25462.8	-3.35235e-08	142327	142327	
25497.4	-3.47618e-08	142511	142511	
25532.1	-3.60501e-08	142693	142693	
25566.7	-3.73907e-08	142901	142901	
25601.3	-3.87854e-08	143014	143014	
25636	-4.02365e-08	143197	143197	
25670.6	-4.17463e-08	143350	143350	
25705.2	-4.33174e-08	143566	143566	
25739.9	-4.49522e-08	143740	143740	
25774.5	-4.66534e-08	144009	144009	
25809.1	-4.84238e-08	144240	144240	
25843.8	-5.0266e-08	144426	144426	
25878.4	-5.21827e-08	144653	144653	
25913	-5.41772e-08	144865	144865	
25947.7	-5.62532e-08	145052	145052	
25982.3	-5.84132e-08	145102	145102	
26016.9	-6.06606e-08	145221	145221	
26051.6	-6.29989e-08	145452	145452	
26086.2	-6.54318e-08	145704	145704	
26120.8	-6.79629e-08	145912	145912	
26155.5	-7.05963e-08	146120	146120	
26190.1	-7.33357e-08	146308	146308	
26224.7	-7.61856e-08	146504	146504	
26259.4	-7.91501e-08	146665	146665	
26294	-8.22333e-08	146817	146817	
26328.7	-8.54398e-08	147025	147025	
26363.3	-8.87744e-08	147257	147257	
26397.9	-9.22419e-08	147410	147410	
26432.6	-9.58471e-08	147645	147645	
26467.2	-9.95951e-08	147821	147821	
26501.8	-1.03491e-07	148006	148006	
26536.5	-1.07541e-07	148192	148192	
26571.1	-1.11751e-07	148445	148445	
26605.7	-1.16125e-07	148711	148711	
26640.4	-1.20669e-07	148963	148963	
26675	-1.25392e-07	149191	149191	
26709.6	-1.30297e-07	149406	149406	
26744.3	-1.35391e-07	149609	149609	
26778.9	-1.40682e-07	149813	149813	
26813.5	-1.46177e-07	150013	150013	
26848.2	-1.51881e-07	150164	150164	
26882.8	-1.57803e-07	150362	150362	
26917.4	-1.63949e-07	150492	150492	
26952.1	-1.70327e-07	150658	150658	
26986.7	-1.76946e-07	150830	150830	
27021.3	-1.83813e-07	150985	150985	
27056	-1.90935e-07	151195	151195	
27090.6	-1.98322e-07	151414	151414	
27125.2	-2.05982e-07	151597	151597	
27159.9	-2.13924e-07	151763	151763	
27194.5	-2.22157e-07	151993	151993	
27229.1	-2.30689e-07	152195	152195	
27263.8	-2.39531e-07	152401	152401	
27298.4	-2.48691e-07	152535	152535	
27333	-2.5818e-07	152713	152713	
27367.7	-2.68008e-07	152923	152923	
27402.3	-2.78186e-07	153060	153060	
27436.9	-2.88724e-07	153148	153148	
27471.6	-2.99634e-07	153280	153280	
27506.2	-3.10928e-07	153463	153463	
27540.9	-3.22618e-07	153676	153676	
27575.5	-3.34715e-07	153890	153890	
27610.1	-3.47231e-07	154125	154125	
27644.8	-3.60179e-07	154322	154322	
27679.4	-3.73568e-07	154516	154516	
27714	-3.8741e-07	154721	154721	
27748.7	-4.01716e-07	154950	154950	
27783.3	-4.16497e-07	155131	155131	
27817.9	-4.31765e-07	155286	155286	
27852.6	-4.47531e-07	155478	155478	
27887.2	-4.63811e-07	155663	155663	
27921.8	-4.80621e-07	155795	155795	
27956.5	-4.97977e-07	155970	155970	
27991.1	-5.15899e-07	156199	156199	
28025.7	-5.34408e-07	156436	156436	
28060.4	-5.53527e-07	156582	156582	
28095	-5.7328e-07	156777	156777	
28129.6	-5.93695e-07	156985	156985	
28164.3	-6.148e-07	157147	157147	
28198.9	-6.36599e-07	157353	157353	
28233.5	-6.59082e-07	157513	157513	
28268.2	-6.82243e-07	157672	157672	
28302.8	-7.0606e-07	157850	157850	
28337.4	-7.3051e-07	158035	158035	
28372.1	-7.55583e-07	158265	158265	
28406.7	-7.81283e-07	158440	158440	
28441.3	-8.07632e-07	158612	158612	
28476	-8.34671e-07	158800	158800	
28510.6	-8.62462e-07	158909	158909	
28545.2	-8.9109e-07	159083	159083	
28579.9	-9.20527e-07	159224	159224	
28614.5	-9.51792e-07	159380	159380	
28649.1	-9.84982e-07	159613	159613	
28683.8	-1.02006e-06	159742	159742	
28718.4	-1.05676e-06	159911	159911	
28753	-1.09485e-06	160055	160055	
28787.7	-1.13421e-06	160169	160169	
28822.3	-1.17486e-06	160395	160395	
28856.9	-1.21697e-06	160519	160519	
28891.6	-1.26077e-06	160678	160678	
28926.2	-1.30661e-06	160903	160903	
28960.8	-1.29406e-06	161101	161101	
28995.5	-1.29438e-06	161287	161287	
29030.1	-1.30674e-06	161439	161439	
29064.7	-1.32943e-06	161598	161598	
29099.4	-1.36371e-06	161739	161739	
29134	-1.40293e-06	161796	161796	
29168.6	-1.44643e-06	161919	161919	
29203.3	-1.4944e-06	162066	162066	
29237.9	-1.54693e-06	162252	162252	
29272.5	-1.60416e-06	162438	162438	
29307.2	-1.66636e-06	162571	162571	
29341.8	-1.73382e-06	162716	162716	
29376.4	-1.80689e-06	162939	162939	
29411.1	-1.88598e-06	163178	163178	
29445.7	-1.97185e-06	163329	163329	
29480.3	-2.05682e-06	163480	163480	
29515	-2.24384e-06	163607	163607	
29549.6	-2.39619e-06	163770	163770	
29584.2	-2.52805e-06	163972	163972	
29618.9	-2.65746e-06	164142	164142	
29653.5	-2.79315e-06	164299	164299	
29688.1	-2.94059e-06	164414	164414	
29722.8	-3.10317e-06	164617	164617	
29757.4	-3.28345e-06	164839	164839	
29792	-3.4846e-06	165019	165019	
29826.7	-3.69943e-06	165195	165195	
29861.3	-3.93153e-06	165402	165402	
29895.9	-4.17069e-06	165524	165524	
29930.6	-4.44645e-06	165707	165707	
29965.2	-4.75418e-06	165867	165867	
29999.8	-5.11336e-06	166089	166089	
30034.5	-5.00983e-06	166288	166288	
30069.1	-5.3387e-06	166436	166436	
30103.7	-5.78383e-06	166650	166650	
30138.4	-6.28429e-06	166831	166831	
30173	-6.79045e-06	166960	166960	
30207.6	-7.27675e-06	167095	167095	
30242.3	-7.72486e-06	167226	167226	
30276.9	-8.11064e-06	167446	167446	
30311.5	-8.40891e-06	167685	167685	
30346.2	-8.60513e-06	167970	167970	
30380.8	-8.71535e-06	168183	168183	
30415.4	-8.69204e-06	168438	168438	
30450.1	-8.60324e-06	168656	168656	
30484.7	-8.44988e-06	168787	168787	
30519.3	-8.04802e-06	168926	168926	
30554	-7.68579e-06	169217	169217	
30588.6	-7.20892e-06	169371	169371	
30623.2	-6.6144e-06	169515	169515	
30657.8	-5.92472e-06	169705	169705	
30692.5	-5.09862e-06	169957	169957	
30727.1	-4.10476e-06	170134	170134	
30761.7	-2.9257e-06	170321	170321	
30796.4	-1.69612e-06	170468	170468	
30831	-3.78531e-07	170647	170647	
30865.6	1.30391e-06	170793	170793	
30900.3	3.46149e-06	171051	171051	
30934.9	5.85553e-06	171198	171198	
30969.5	9.01037e-06	171470	171470	
31004.2	1.30415e-05	171639	171639	
31038.8	1.36115e-05	171775	171775	
31073.4	1.88989e-05	171946	171946	
31108	2.57842e-05	172083	172083	
31142.7	3.4027e-05	172289	172289	
31177.3	4.33778e-05	172496	172496	
31211.9	5.37882e-05	172644	172644	
31246.6	6.5255e-05	172819	172819	
31281.2	7.7891e-05	173059	173059	
31315.8	9.18175e-05	173214	173214	
31350.5	0.000107243	173445	173445	
31385.1	0.000124316	173560	173560	
31419.7	0.000143109	173721	173721	
31454.4	0.000163824	173871	173871	
31489	0.000186677	174016	174016	
31523.6	0.000211874	174199	174199	
31558.3	0.000239597	174333	174333	
31592.9	0.000270009	174423	174423	
31627.5	0.000303267	174588	174588	
31662.2	0.000339536	174815	174815	
31696.8	0.000378994	174946	174946	
31731.4	0.000421833	175056	175056	
31766	0.000468246	175231	175231	
31800.7	0.000518431	175407	175407	
31835.3	0.000572605	175659	175659	
31869.9	0.000630999	175821	175821	
31904.6	0.000693857	176011	176011	
31939.2	0.000761429	176120	176120	
31973.8	0.000833966	176315	176315	
32008.5	0.000911719	176433	176433	
32043.1	0.000994939	176670	176670	
32077.7	0.00108387	176927	176927	
32112.4	0.00117878	177177	177177	
32147	0.00127989	177374	177374	
32181.6	0.00138747	177558	177558	
32216.3	0.00150177	177750	177750	
32250.9	0.00162303	177929	177929	
32285.5	0.0017515	178082	178082	
32320.1	0.00188744	178279	178279	
32354.8	0.00203108	178441	178441	
32389.4	0.00218265	178605	178605	
32424	0.00234238	178773	178773	
32458.7	0.0025105	178953	178953	
32493.3	0.00268721	179068	179068	
32527.9	0.0028727	179285	179285	
32562.6	0.00306715	179523	179523	
32597.2	0.00327075	179706	179706	
32631.8	0.00348363	179899	179899	
32666.5	0.00370593	180099	180099	
32701.1	0.00393778	180284	180284	
32735.7	0.00417927	180427	180427	
32770.4	0.00443047	180613	180613	
32805	0.00469144	180805	180805	
32839.6	0.00496222	181034	181034	
32874.2	0.0052428	181263	181263	
32908.9	0.00553318	181487	181487	
32943.5	0.0058333	181629	181629	
32978.1	0.00614309	181915	181915	
33012.8	0.00646245	182149	182149	
33047.4	0.00679124	182372	182372	
33082	0.00712931	182552	182552	
33116.7	0.00747645	182721	182721	
33151.3	0.00783244	182874	182874	
33185.9	0.00819703	183045	183045	
33220.6	0.00856991	183249	183249	
33255.2	0.00895076	183426	183426	
33289.8	0.00933922	183634	183634	
33324.4	0.00973491	183865	183865	
33359.1	0.0101374	184065	184065	
33393.7	0.0105462	184320	184320	
33428.3	0.0109609	184516	184516	
33463	0.0113809	184699	184699	
33497.6	0.0118056	184893	184893	
33532.2	0.0122346	185050	185050	
33566.9	0.0126671	185171	185171	
33601.5	0.0131026	185246	185246	
33636.1	0.0135403	185462	185462	
33670.8	0.0139796	185666	185666	
33705.4	0.0144198	185915	185915	
33740	0.0148601	186194	186194	
33774.7	0.0152998	186421	186421	
33809.3	0.0157381	186599	186599	
33843.9	0.0161742	186802	186802	
33878.5	0.0166074	186967	186967	
33913.2	0.0170367	187127	187127	
33947.8	0.0174613	187291	187291	
33982.4	0.0178806	187420	187420	
34017.1	0.0182935	187660	187660	
34051.7	0.0186993	187863	187863	
34086.3	0.0190972	188106	188106	
34121	0.0194863	188308	188308	
34155.6	0.0198658	188490	188490	
34190.2	0.0202349	188725	188725	
34224.9	0.0205928	188868	188868	
34259.5	0.0209386	188961	188961	
34294.1	0.0212718	189123	189123	
34328.7	0.0215914	189286	189286	
34363.4	0.0218968	189525	189525	
34398	0.0221873	189663	189663	
34432.6	0.0224622	189835	189835	
34467.3	0.0227208	190084	190084	
34501.9	0.0229626	190292	190292	
34536.5	0.0231871	190508	190508	
34571.2	0.0233936	190773	190773	
34605.8	0.0235817	190968	190968	
34640.4	0.0237509	191170	191170	
34675	0.0239008	191370	191370	
34709.7	0.0240311	191596	191596	
34744.3	0.0241415	191694	191694	
34778.9	0.0242317	191906	191906	
34813.6	0.0243014	192089	192089	
34848.2	0.0243506	192256	192256	
34882.8	0.024379	192472	192472	
34917.5	0.0243867	192729	192729	
34952.1	0.0243736	192860	192860	
34986.7	0.0243398	193086	193086	
35021.4	0.0242853	193308	193308	
35056	0.0242102	193611	193611	
35090.6	0.0241148	193813	193813	
35125.2	0.0239993	194023	194023	
35159.9	0.0238639	194217	194217	
35194.5	0.023709	194456	194456	
35229.1	0.0235349	194617	194617	
35263.8	0.0233419	194700	194700	
35298.4	0.0231306	194873	194873	
35333	0.0229014	195087	195087	
35367.7	0.0226548	195279	195279	
35402.3	0.0223914	195534	195534	
35436.9	0.0221117	195690	195690	
35471.5	0.0218163	195910	195910	
35506.2	0.021506	196089	196089	
35540.8	0.0211813	196303	196303	
35575.4	0.0208432	196488	196488	
35610.1	0.0204923	196589	196589	
35644.7	0.0201295	196740	196740	
35679.3	0.0197556	196909	196909	
35714	0.0193715	197182	197182	
35748.6	0.0189782	197407	197407	
35783.2	0.0185766	197621	197621	
35817.9	0.0181676	197886	197886	
35852.5	0.0177523	198171	198171	
35887.1	0.0173317	198422	198422	
35921.7	0.0169068	198582	198582	
35956.4	0.0164785	198741	198741	
35991	0.0160478	198879	198879	
36025.6	0.0156158	199050	199050	
36060.3	0.0151833	199255	199255	
36094.9	0.0147512	199398	199398	
36129.5	0.0143205	199645	199645	
36164.2	0.0138919	199857	199857	
36198.8	0.0134662	200127	200127	
36233.4	0.0130442	200286	200286	
36268	0.0126265	200580	200580	
36302.7	0.0122139	200680	200680	
36337.3	0.0118069	200818	200818	
36371.9	0.011406	201080	201080	
36406.6	0.0110118	201320	201320	
36441.2	0.0106248	201497	201497	
36475.8	0.0102454	201686	201686	
36510.5	0.00987402	201860	201860	
36545.1	0.00951113	202090	202090	
36579.7	0.00915708	202316	202316	
36614.3	0.00881226	202528	202528	
36649	0.00847702	202725	202725	
36683.6	0.00815171	202932	202932	
36718.2	0.00783668	203126	203126	
36752.9	0.00753226	203287	203287	
36787.5	0.00723875	203474	203474	
36822.1	0.00695645	203655	203655	
36856.8	0.00668565	203925	203925	
36891.4	0.0064266	204152	204152	
36926	0.00617954	204332	204332	
36960.6	0.00594465	204517	204517	
36995.3	0.00572209	204664	204664	
37029.9	0.00551198	204957	204957	
37064.5	0.00531439	205148	205148	
37099.2	0.00512932	205375	205375	
37133.8	0.00495674	205522	205522	
37168.4	0.00479654	205746	205746	
37203.1	0.00464854	205930	205930	
37237.7	0.00451253	206070	206070	
37272.3	0.00438821	206224	206224	
37306.9	0.00427524	206450	206450	
37341.6	0.00417321	206660	206660	
37376.2	0.00408167	206908	206908	
37410.8	0.00400014	207115	207115	
37445.5	0.0039281	207272	207272	
37480.1	0.00386501	207444	207444	
37514.7	0.00381034	207621	207621	
37549.4	0.00376354	207882	207882	
37584	0.00372408	208097	208097	
37618.6	0.00369147	208300	208300	
37653.2	0.00366521	208508	208508	
37687.9	0.00364485	208731	208731	
37722.5	0.00362999	208901	208901	
37757.1	0.00362022	209063	209063	
37791.8	0.00361517	209219	209219	
37826.4	0.0036145	209407	209407	
37861	0.00361788	209621	209621	
37895.7	0.00362496	209888	209888	
37930.3	0.00363543	210077	210077	
37964.9	0.00364892	210276	210276	
37999.5	0.00366509	210451	210451	
38034.2	0.00368355	210631	210631	
38068.8	0.00370388	210798	210798	
38103.4	0.00372566	211065	211065	
38138.1	0.00374842	211287	211287	
38172.7	0.00377166	211600	211600	
38207.3	0.00379487	211796	211796	
38242	0.0038175	211989	211989	
38276.6	0.00383898	212115	212115	
38311.2	0.00385872	212197	212197	
38345.8	0.00387612	212383	212383	
38380.5	0.00389056	212740	212740	
38415.1	0.00390142	212877	212877	
38449.7	0.00390808	213105	213105	
38484.4	0.0039099	213272	213272	
38519	0.00390626	213443	213443	
38553.6	0.00389657	213652	213652	
38588.2	0.00388023	213832	213832	
38622.9	0.00385668	214022	214022	
38657.5	0.00382539	214195	214195	
38692.1	0.00378586	214409	214409	
38726.8	0.00373763	214593	214593	
38761.4	0.00368027	214756	214756	
38796	0.00361343	214958	214958	
38830.7	0.00353674	215110	215110	
38865.3	0.00344992	215368	215368	
38899.9	0.00335269	215714	215714	
38934.5	0.00324482	215890	215890	
38969.2	0.00312611	216130	216130	
39003.8	0.00299637	216356	216356	
39038.4	0.00285548	216614	216614	
39073.1	0.00270331	216825	216825	
39107.7	0.00253981	217062	217062	
39142.3	0.00236495	217282	217282	
39176.9	0.00217875	217510	217510	
39211.6	0.0019813	217746	217746	
39246.2	0.00177274	217975	217975	
39280.8	0.00155327	218204	218204	
39315.5	0.00132316	218418	218418	
39350.1	0.00108272	218596	218596	
39384.7	0.000832344	218754	218754	
39419.4	0.000572458	218948	218948	
39454	0.000303545	219229	219229	
39488.6	2.61283e-05	219405	219405	
39523.2	-0.000259234	219648	219648	
39557.9	-0.000551954	219829	219829	
39592.5	-0.000851416	220091	220091	
39627.1	-0.00115699	220292	220292	
39661.8	-0.00146802	220570	220570	
39696.4	-0.00178386	220768	220768	
39731	-0.00210382	220936	220936	
39765.6	-0.00242725	221128	221128	
39800.3	-0.00275347	221375	221375	
39834.9	-0.0030818	221566	221566	
39869.5	-0.00341158	221740	221740	
39904.2	-0.00374215	221851	221851	
39938.8	-0.00407288	222041	222041	
39973.4	-0.00440311	222330	222330	
40008.1	-0.00473225	222487	222487	
40042.7	-0.00505968	222817	222817	
40077.3	-0.00538483	222956	222956	
40111.9	-0.00570714	223128	223128	
40146.6	-0.00602608	223283	223283	
40181.2	-0.00634113	223553	223553	
40215.8	-0.00665181	223750	223750	
40250.5	-0.00695765	223933	223933	
40285.1	-0.00725821	224169	224169	
40319.7	-0.00755308	224372	224372	
40354.3	-0.00784189	224558	224558	
40389	-0.00812425	224729	224729	
40423.6	-0.00839985	224960	224960	
40458.2	-0.00866837	225172	225172	
40492.9	-0.00892953	225439	225439	
40527.5	-0.00918306	225716	225716	
40562.1	-0.00942875	225918	225918	
40596.7	-0.00966636	226119	226119	
40631.4	-0.00989572	226302	226302	
40666	-0.0101167	226581	226581	
40700.6	-0.010329	226705	226705	
40735.3	-0.0105327	226931	226931	
40769.9	-0.0107275	227197	227197	
40804.5	-0.0109134	227389	227389	
40839.1	-0.0110903	227660	227660	
40873.8	-0.0112582	227939	227939	
40908.4	-0.0114169	228128	228128	
40943	-0.0115665	228333	228333	
40977.7	-0.0117068	228510	228510	
41012.3	-0.011838	228669	228669	
41046.9	-0.0119599	228899	228899	
41081.5	-0.0120727	229085	229085	
41116.2	-0.0121762	229232	229232	
41150.8	-0.0122705	229402	229402	
41185.4	-0.0123556	229607	229607	
41220.1	-0.0124316	229821	229821	
41254.7	-0.0124985	230069	230069	
41289.3	-0.0125563	230320	230320	
41324	-0.0126052	230493	230493	
41358.6	-0.012645	230672	230672	
41393.2	-0.012676	230928	230928	
41427.8	-0.0126982	231233	231233	
41462.5	-0.0127117	231328	231328	
41497.1	-0.0127164	231467	231467	
41531.7	-0.0127126	231621	231621	
41566.4	-0.0127004	231867	231867	
41601	-0.0126797	232050	232050	
41635.6	-0.0126508	232326	232326	
41670.2	-0.0126137	232583	232583	
41704.9	-0.0125685	232797	232797	
41739.5	-0.0125154	232898	232898	
41774.1	-0.0124545	233098	233098	
41808.8	-0.012386	233300	233300	
41843.4	-0.0123099	233519	233519	
41878	-0.0122287	233696	233696	
41912.6	-0.0121398	233884	233884	
41947.3	-0.0120394	234020	234020	
41981.9	-0.0119324	234201	234201	
42016.5	-0.0118178	234383	234383	
42051.2	-0.0116941	234602	234602	
42085.8	-0.0115666	234871	234871	
42120.4	-0.0114382	235010	235010	
42155	-0.011308	235190	235190	
42189.7	-0.0112166	235403	235403	
42224.3	-0.0110939	235548	235548	
42258.9	-0.0109637	235726	235726	
42293.6	-0.0107723	235934	235934	
42328.2	-0.0104698	236221	236221	
42362.8	-0.0102451	236516	236516	
42397.4	-0.00999641	236634	236634	
42432.1	-0.00979791	236786	236786	
42466.7	-0.00962321	236947	236947	
42501.3	-0.00946298	237014	237014	
42536	-0.00931229	237205	237205	
42570.6	-0.0091565	237359	237359	
42605.2	-0.00898999	237559	237559	
42639.8	-0.0088122	237800	237800	
42674.5	-0.00875218	238031	238031	
42709.1	-0.00858416	238252	238252	
42743.7	-0.00840524	238537	238537	
42778.4	-0.00822709	238825	238825	
42813	-0.00806152	239189	239189	
42847.6	-0.00787128	239551	239551	
42882.2	-0.00755059	239743	239743	
42916.9	-0.00729042	240065	240065	
42951.5	-0.00703634	240209	240209	
42986.1	-0.00678306	240426	240426	
43020.7	-0.00655795	240537	240537	
43055.4	-0.00634259	240800	240800	
43090	-0.00613806	240937	240937	
43124.6	-0.00593437	241248	241248	
43159.3	-0.00573434	241491	241491	
43193.9	-0.00553803	241781	241781	
