0	0	132970	132970	
36.0427	0	132782	132782	
72.2269	0	132810	132810	
108.411	0	132862	132862	
144.595	0	132940	132940	
180.779	0	132928	132928	
216.989	0	132940	132940	
253.198	0	132958	132958	
289.407	0	132984	132984	
325.616	0	133018	133018	
361.825	0	133022	133022	
398.035	0	133072	133072	
434.244	0	133078	133078	
470.453	0	133098	133098	
507.441	0	133044	133044	
544.575	0	132954	132954	
581.709	0	132876	132876	
618.843	0	132836	132836	
655.977	0	132778	132778	
693.111	0	132774	132774	
730.245	0	132804	132804	
767.379	0	132834	132834	
804.513	0	132844	132844	
841.648	0	132870	132870	
878.782	0	132900	132900	
915.916	0	132926	132926	
953.05	0	133006	133006	
990.184	0	133050	133050	
1027.32	0	133088	133088	
1064.45	0	133118	133118	
1101.59	0	133170	133170	
1138.72	0	133210	133210	
1175.85	0	133260	133260	
1212.11	0	133324	133324	
1248.38	0	133358	133358	
1284.64	0	133382	133382	
1320.9	0	133444	133444	
1357.16	0	133474	133474	
1393.42	0	133512	133512	
1429.68	0	133552	133552	
1465.94	0	133602	133602	
1502.2	0	133658	133658	
1538.46	0	133724	133724	
1574.69	0	133770	133770	
1610.91	0	133810	133810	
1647.14	0	133836	133836	
1683.36	0	133880	133880	
1719.59	0	133938	133938	
1755.81	0	133994	133994	
1792.04	0	134038	134038	
1828.26	0	134064	134064	
1864.48	0	134108	134108	
1900.71	0	134150	134150	
1936.93	0	134214	134214	
1973.16	0	134274	134274	
2009.35	0	134320	134320	
2045.53	0	134350	134350	
2081.72	0	134428	134428	
2117.91	0	134456	134456	
2154.09	0	134504	134504	
2190.28	0	134542	134542	
2226.47	0	134612	134612	
2262.66	0	134642	134642	
2298.84	0	134720	134720	
2335.03	0	134772	134772	
2371.22	0	134816	134816	
2407.4	0	134844	134844	
2443.59	0	134906	134906	
2479.46	0	134978	134978	
2515.34	0	135036	135036	
2551.21	0	135082	135082	
2587.08	0	135138	135138	
2622.95	0	135178	135178	
2658.83	0	135206	135206	
2694.45	0	135242	135242	
2730.08	0	135338	135338	
2765.7	0	135404	135404	
2801.33	0	135446	135446	
2836.73	0	135496	135496	
2872.13	0	135532	135532	
2907.53	0	135586	135586	
2942.94	0	135660	135660	
2978.34	0	135718	135718	
3013.74	0	135766	135766	
3048.76	0	135806	135806	
3083.79	0	135872	135872	
3118.81	0	135932	135932	
3153.83	0	135990	135990	
3188.86	0	136048	136048	
3223.88	0	136086	136086	
3258.9	0	136132	136132	
3293.54	0	136210	136210	
3328.17	0	136272	136272	
3362.81	0	136328	136328	
3397.44	0	136384	136384	
3432.08	-9.09495e-13	136422	136422	
3466.71	-1.81899e-12	136480	136480	
3501.35	-2.72848e-12	136542	136542	
3535.98	-3.63798e-12	136598	136598	
3570.62	-4.54747e-12	136646	136646	
3605.25	-5.45697e-12	136718	136718	
3639.89	-7.27596e-12	136774	136774	
3674.52	-1.00044e-11	136816	136816	
3709.16	-1.27329e-11	136900	136900	
3743.79	-1.72804e-11	136952	136952	
3778.43	-2.27374e-11	137002	137002	
3813.06	-2.91038e-11	137062	137062	
3847.7	-3.81988e-11	137132	137132	
3882.34	-4.91127e-11	137204	137204	
3916.97	-6.18456e-11	137286	137286	
3951.61	-7.82165e-11	137334	137334	
3986.24	-9.82254e-11	137384	137384	
4020.88	-1.22782e-10	137422	137422	
4055.51	-1.52795e-10	137488	137488	
4090.15	-1.90084e-10	137572	137572	
4124.78	-2.3465e-10	137664	137664	
4159.42	-2.874e-10	137708	137708	
4194.05	-3.50155e-10	137778	137778	
4228.69	-4.25644e-10	137832	137832	
4263.32	-5.13865e-10	137888	137888	
4297.96	-6.18456e-10	137948	137948	
4332.59	-7.40329e-10	137994	137994	
4367.23	-8.8221e-10	138034	138034	
4401.86	-1.04683e-09	138090	138090	
4436.5	-1.23691e-09	138158	138158	
4471.13	-1.4561e-09	138252	138252	
4505.77	-1.70712e-09	138336	138336	
4540.4	-1.99361e-09	138382	138382	
4575.04	-2.31921e-09	138442	138442	
4609.67	-2.68756e-09	138498	138498	
4644.31	-3.1032e-09	138556	138556	
4678.94	-3.56977e-09	138606	138606	
4713.58	-4.09273e-09	138714	138714	
4748.21	-4.67571e-09	138804	138804	
4782.85	-5.32418e-09	138850	138850	
4817.48	-6.04268e-09	138904	138904	
4852.12	-6.83576e-09	138958	138958	
4886.76	-7.70888e-09	139028	139028	
4921.39	-8.66658e-09	139114	139114	
4956.03	-9.71431e-09	139186	139186	
4990.66	-1.08566e-08	139242	139242	
5025.3	-1.20981e-08	139332	139332	
5059.93	-1.34432e-08	139440	139440	
5094.57	-1.48957e-08	139498	139498	
5129.2	-1.64609e-08	139530	139530	
5163.84	-1.81417e-08	139606	139606	
5198.47	-1.99416e-08	139684	139684	
5233.11	-2.18643e-08	139754	139754	
5267.74	-2.39124e-08	139814	139814	
5302.38	-2.60879e-08	139878	139878	
5337.01	-2.83926e-08	139944	139944	
5371.65	-3.08282e-08	140004	140004	
5406.28	-3.33957e-08	140082	140082	
5440.92	-3.60942e-08	140148	140148	
5475.55	-3.89236e-08	140260	140260	
5510.19	-4.18831e-08	140350	140350	
5544.82	-4.49709e-08	140424	140424	
5579.46	-4.81841e-08	140450	140450	
5614.09	-5.15201e-08	140540	140540	
5648.73	-5.49753e-08	140632	140632	
5683.36	-5.85451e-08	140704	140704	
5718	-6.22249e-08	140732	140732	
5752.63	-6.60084e-08	140796	140796	
5787.27	-6.98901e-08	140846	140846	
5821.9	-7.38628e-08	140956	140956	
5856.54	-7.79182e-08	141052	141052	
5891.17	-8.20482e-08	141140	141140	
5925.81	-8.62456e-08	141190	141190	
5960.44	-9.05011e-08	141228	141228	
5995.08	-9.48057e-08	141288	141288	
6029.71	-9.91495e-08	141396	141396	
6064.35	-1.03524e-07	141498	141498	
6098.98	-1.07919e-07	141552	141552	
6133.62	-1.12326e-07	141604	141604	
6168.25	-1.16736e-07	141674	141674	
6202.89	-1.21141e-07	141734	141734	
6237.52	-1.25532e-07	141836	141836	
6272.16	-1.29905e-07	141924	141924	
6306.79	-1.34253e-07	141978	141978	
6341.43	-1.38574e-07	142054	142054	
6376.06	-1.42867e-07	142112	142112	
6410.7	-1.47133e-07	142192	142192	
6445.33	-1.51374e-07	142294	142294	
6479.97	-1.556e-07	142374	142374	
6514.6	-1.59821e-07	142430	142430	
6549.24	-1.64054e-07	142480	142480	
6583.87	-1.68319e-07	142522	142522	
6618.51	-1.72645e-07	142626	142626	
6653.14	-1.77064e-07	142706	142706	
6687.78	-1.8162e-07	142802	142802	
6722.41	-1.86363e-07	142900	142900	
6757.04	-1.91352e-07	142938	142938	
6791.68	-1.96661e-07	143038	143038	
6826.31	-2.02372e-07	143138	143138	
6860.95	-2.08584e-07	143196	143196	
6895.58	-2.15408e-07	143270	143270	
6930.22	-2.22975e-07	143322	143322	
6964.85	-2.31433e-07	143400	143400	
6999.48	-2.4095e-07	143494	143494	
7034.12	-2.51714e-07	143578	143578	
7068.75	-2.63938e-07	143664	143664	
7103.39	-2.77852e-07	143730	143730	
7138.02	-2.93717e-07	143796	143796	
7172.66	-3.11821e-07	143884	143884	
7207.29	-3.32496e-07	143966	143966	
7241.92	-3.56096e-07	144076	144076	
7276.56	-3.82984e-07	144140	144140	
7311.19	-4.1352e-07	144226	144226	
7345.83	-4.48088e-07	144314	144314	
7380.46	-4.87167e-07	144414	144414	
7415.1	-5.31302e-07	144494	144494	
7449.73	-5.8123e-07	144560	144560	
7484.36	-6.38146e-07	144628	144628	
7519	-7.01015e-07	144712	144712	
7553.63	-7.69642e-07	144796	144796	
7588.27	-8.44556e-07	144892	144892	
7622.9	-9.2829e-07	145004	145004	
7657.53	-1.02766e-06	145098	145098	
7692.17	-1.15118e-06	145172	145172	
7726.8	-1.28289e-06	145240	145240	
7761.44	-1.44092e-06	145344	145344	
7796.07	-1.96764e-06	145422	145422	
7830.71	-2.88832e-06	145504	145504	
7865.34	-3.91281e-06	145564	145564	
7899.97	-5.00754e-06	145674	145674	
7934.61	-6.16171e-06	145772	145772	
7969.24	-7.52168e-06	145852	145852	
8003.88	-9.13656e-06	145942	145942	
8038.51	-1.10521e-05	146016	146016	
8073.15	-1.33055e-05	146076	146076	
8107.78	-1.58622e-05	146178	146178	
8142.42	-1.88446e-05	146296	146296	
8177.05	-2.2309e-05	146398	146398	
8211.69	-2.63116e-05	146488	146488	
8246.32	-3.0898e-05	146552	146552	
8280.96	-3.61215e-05	146650	146650	
8315.59	-4.20434e-05	146738	146738	
8350.23	-4.87298e-05	146822	146822	
8384.86	-5.6244e-05	146920	146920	
8419.5	-6.46532e-05	147028	147028	
8454.13	-7.40238e-05	147122	147122	
8488.77	-8.44349e-05	147204	147204	
8523.4	-9.59679e-05	147320	147320	
8558.04	-0.000108703	147392	147392	
8592.67	-0.000122717	147506	147506	
8627.31	-0.00013808	147564	147564	
8661.94	-0.000154856	147642	147642	
8696.58	-0.000173102	147746	147746	
8731.21	-0.000192861	147862	147862	
8765.85	-0.000214167	147928	147928	
8800.48	-0.000237038	148018	148018	
8835.12	-0.00026148	148110	148110	
8869.75	-0.000287477	148240	148240	
8904.39	-0.000314992	148328	148328	
8939.02	-0.000343958	148418	148418	
8973.66	-0.000374268	148526	148526	
9008.29	-0.000405774	148624	148624	
9042.93	-0.000438275	148722	148722	
9077.56	-0.000471511	148804	148804	
9112.2	-0.000505153	148924	148924	
9146.83	-0.000538795	149022	149022	
9181.47	-0.000571947	149082	149082	
9216.1	-0.00060402	149188	149188	
9250.74	-0.00063432	149252	149252	
9285.37	-0.000662031	149406	149406	
9320.01	-0.000686203	149558	149558	
9354.64	-0.000705741	149646	149646	
9389.28	-0.000719389	149762	149762	
9423.91	-0.000725717	149848	149848	
9458.54	-0.000723107	149966	149966	
9493.18	-0.000709744	150072	150072	
9527.81	-0.000683603	150184	150184	
9562.45	-0.000642443	150266	150266	
9597.08	-0.000583797	150360	150360	
9631.72	-0.000504971	150470	150470	
9666.35	-0.00040304	150598	150598	
9700.99	-0.000274848	150708	150708	
9735.62	-0.00011702	150812	150812	
9770.26	7.40379e-05	150916	150916	
9804.89	0.000302118	150992	150992	
9839.53	0.000571194	151100	151100	
9874.16	0.000885397	151212	151212	
9908.8	0.00124899	151346	151346	
9943.43	0.00166632	151472	151472	
9978.07	0.00214178	151558	151558	
10012.7	0.0026798	151640	151640	
10047.3	0.00328474	151760	151760	
10082	0.00396085	151872	151872	
10116.6	0.00471225	151956	151956	
10151.2	0.00554281	152052	152052	
10185.9	0.00645616	152166	152166	
10220.5	0.00745552	152268	152268	
10255.1	0.00854375	152408	152408	
10289.8	0.00972319	152528	152528	
10324.4	0.0109956	152650	152650	
10359.1	0.0123623	152738	152738	
10393.7	0.0138237	152816	152816	
10428.3	0.0153796	152896	152896	
10463	0.0170292	153008	153008	
10497.6	0.0187706	153132	153132	
10532.2	0.0206013	153258	153258	
10566.9	0.0225178	153354	153354	
10601.5	0.0245158	153464	153464	
10636.1	0.0265902	153582	153582	
10670.8	0.028735	153686	153686	
10705.4	0.0309432	153798	153798	
10740	0.0332074	153908	153908	
10774.7	0.0355191	154010	154010	
10809.3	0.0378692	154116	154116	
10843.9	0.040248	154254	154254	
10878.6	0.0426451	154342	154342	
10913.2	0.0450499	154482	154482	
10947.8	0.0474511	154570	154570	
10982.5	0.0498373	154670	154670	
11017.1	0.0521967	154786	154786	
11051.8	0.0545176	154904	154904	
11086.4	0.0567882	155012	155012	
11121	0.0589967	155136	155136	
11155.7	0.0611317	155244	155244	
11190.3	0.0631819	155354	155354	
11224.9	0.0651366	155450	155450	
11259.6	0.0669854	155582	155582	
11294.2	0.0687185	155666	155666	
11328.8	0.0703267	155768	155768	
11363.5	0.0718017	155862	155862	
11398.1	0.0731357	156010	156010	
11432.7	0.074322	156116	156116	
11467.4	0.0753545	156232	156232	
11502	0.0762282	156350	156350	
11536.6	0.0769388	156464	156464	
11571.3	0.077483	156556	156556	
11605.9	0.0778585	156680	156680	
11640.5	0.0780639	156814	156814	
11675.2	0.0780987	156934	156934	
11709.9	0.0779628	157066	157066	
11744.6	0.077657	157190	157190	
11779.3	0.0771834	157356	157356	
11814	0.0765446	157464	157464	
11848.7	0.0757443	157592	157592	
11883.8	0.0747779	157698	157698	
11918.8	0.0736561	157814	157814	
11953.8	0.0723845	157942	157942	
11988.8	0.0709689	158072	158072	
12023.9	0.0694159	158214	158214	
12058.5	0.0677509	158358	158358	
12093.1	0.0659652	158500	158500	
12127.8	0.0640658	158604	158604	
12162.4	0.0620603	158684	158684	
12197	0.0599561	158820	158820	
12231.7	0.0577558	158924	158924	
12266.4	0.0554768	159082	159082	
12301	0.0531219	159188	159188	
12335.6	0.0506988	159302	159302	
12370.3	0.0482148	159428	159428	
12404.9	0.0456775	159588	159588	
12439.6	0.043094	159724	159724	
12474.2	0.0404713	159844	159844	
12508.8	0.0378164	159982	159982	
12543.5	0.0351358	160118	160118	
12578.1	0.0324361	160208	160208	
12612.7	0.0297232	160320	160320	
12647.4	0.0270033	160484	160484	
12682	0.0242819	160590	160590	
12716.6	0.0215645	160740	160740	
12751.3	0.0188562	160864	160864	
12785.9	0.0161619	161030	161030	
12820.5	0.0134863	161172	161172	
12855.2	0.0108337	161290	161290	
12889.8	0.00820842	161428	161428	
12924.4	0.00561427	161548	161548	
12959.1	0.00305499	161660	161660	
12993.7	0.000534081	161840	161840	
13028.3	-0.00194517	162010	162010	
13063	-0.00437967	162134	162134	
13097.6	-0.00676651	162278	162278	
13132.3	-0.00910293	162384	162384	
13166.9	-0.0113864	162530	162530	
13201.5	-0.0136144	162700	162700	
13236.2	-0.0157847	162848	162848	
13270.8	-0.0178953	162986	162986	
13305.4	-0.019944	163140	163140	
13340.1	-0.021929	163256	163256	
13374.7	-0.0238485	163386	163386	
13409.3	-0.0257009	163564	163564	
13444	-0.0274846	163764	163764	
13478.6	-0.0291982	163886	163886	
13513.2	-0.0308403	163986	163986	
13547.9	-0.0324098	164114	164114	
13582.5	-0.0339054	164238	164238	
13617.1	-0.0353261	164378	164378	
13651.8	-0.0366709	164522	164522	
13686.4	-0.037939	164698	164698	
13721	-0.0391295	164844	164844	
13755.7	-0.0402417	164964	164964	
13790.3	-0.0412751	165090	165090	
13825	-0.0422292	165274	165274	
13859.6	-0.0431037	165400	165400	
13894.2	-0.0438982	165526	165526	
13928.9	-0.0446128	165628	165628	
13963.5	-0.0452473	165778	165778	
13998.1	-0.045802	165898	165898	
14032.8	-0.0462769	166052	166052	
14067.4	-0.0466719	166208	166208	
14102	-0.0469882	166350	166350	
14136.7	-0.0472235	166470	166470	
14171.3	-0.0473805	166566	166566	
14205.9	-0.04746	166678	166678	
14240.6	-0.0474692	166850	166850	
14275.2	-0.0473891	166990	166990	
14309.8	-0.0472471	167166	167166	
14344.5	-0.0470358	167292	167292	
14379.1	-0.0468217	167432	167432	
14413.7	-0.0465347	167550	167550	
14448.4	-0.0462061	167682	167682	
14483	-0.0457837	167834	167834	
14517.7	-0.045292	167938	167938	
14552.3	-0.0447253	168042	168042	
14586.9	-0.0440868	168158	168158	
14621.6	-0.0433779	168274	168274	
14656.2	-0.0426354	168434	168434	
14690.8	-0.0418136	168616	168616	
14725.5	-0.0409727	168750	168750	
14760.1	-0.0400506	168858	168858	
14794.7	-0.0390633	168966	168966	
14829.4	-0.0380258	169088	169088	
14864	-0.0369514	169318	169318	
14898.6	-0.0358424	169490	169490	
14933.3	-0.0346997	169674	169674	
14967.9	-0.0335247	169840	169840	
15002.5	-0.0323167	169986	169986	
15037.2	-0.0310791	170140	170140	
15071.8	-0.0298089	170316	170316	
15106.5	-0.0285063	170450	170450	
15141.1	-0.0271758	170608	170608	
15175.7	-0.0258241	170760	170760	
15210.4	-0.0244543	170922	170922	
15245	-0.0230687	171094	171094	
15279.6	-0.0216687	171276	171276	
15314.3	-0.0202562	171434	171434	
15348.9	-0.0188324	171588	171588	
15383.5	-0.0173982	171764	171764	
15418.2	-0.0159544	171954	171954	
15452.8	-0.0145018	172094	172094	
15487.4	-0.0130425	172260	172260	
15522.1	-0.0115788	172438	172438	
15556.7	-0.0101132	172604	172604	
15591.3	-0.00864806	172760	172760	
15626	-0.00718531	172944	172944	
15660.6	-0.00572636	173116	173116	
15695.2	-0.00427231	173316	173316	
15729.9	-0.00282404	173474	173474	
15764.5	-0.00138241	173632	173632	
15799.2	5.15913e-05	173762	173762	
15833.8	0.00147674	173896	173896	
15868.4	0.0028915	174060	174060	
15903.1	0.00429413	174260	174260	
15937.7	0.00568273	174458	174458	
15972.3	0.00705538	174574	174574	
16007	0.00841023	174726	174726	
16041.6	0.0097455	174884	174884	
16076.2	0.0110595	175058	175058	
16110.9	0.0123506	175274	175274	
16145.5	0.013617	175430	175430	
16180.1	0.0148572	175600	175600	
16214.8	0.016069	175762	175762	
16249.4	0.0172508	175922	175922	
16284	0.0184003	176080	176080	
16318.7	0.0195157	176240	176240	
16353.3	0.0205948	176416	176416	
16388	0.0216357	176566	176566	
16422.6	0.0226365	176756	176756	
16457.2	0.0235956	176902	176902	
16491.9	0.0245112	177056	177056	
16526.5	0.0253816	177222	177222	
16561.1	0.0262054	177400	177400	
16595.8	0.0269808	177516	177516	
16630.4	0.0277062	177694	177694	
16665	0.02838	177850	177850	
16699.7	0.0290006	177998	177998	
16734.3	0.0295666	178188	178188	
16768.9	0.0300764	178378	178378	
16803.6	0.0305288	178578	178578	
16838.2	0.0309227	178718	178718	
16872.8	0.0312572	178850	178850	
16907.5	0.0315313	178972	178972	
16942.1	0.0317445	179120	179120	
16976.8	0.0318961	179368	179368	
17011.4	0.0319859	179546	179546	
17046	0.0320133	179744	179744	
17080.7	0.0319783	179912	179912	
17115.3	0.0318808	180008	180008	
17149.9	0.0317206	180186	180186	
17184.6	0.031498	180366	180366	
17219.2	0.0312133	180602	180602	
17253.8	0.0308668	180808	180808	
17288.5	0.030459	180936	180936	
17323.1	0.0299907	181078	181078	
17357.7	0.0294626	181284	181284	
17392.4	0.0288756	181472	181472	
17427	0.0282307	181706	181706	
17461.6	0.027529	181890	181890	
17496.3	0.0267717	182044	182044	
17530.9	0.02596	182206	182206	
17565.5	0.0250954	182400	182400	
17600.2	0.0241793	182594	182594	
17634.8	0.0232136	182798	182798	
17669.5	0.0221998	183010	183010	
17704.1	0.0211399	183201	183201	
17738.7	0.0200358	183410	183410	
17773.4	0.0188898	183594	183594	
17808	0.0177041	183756	183756	
17842.6	0.0164809	183981	183981	
17877.3	0.0152228	184174	184174	
17911.9	0.0139322	184328	184328	
17946.5	0.012612	184498	184498	
17981.2	0.0112649	184673	184673	
18015.8	0.00989383	184860	184860	
18050.4	0.0085017	185042	185042	
18085.1	0.00709166	185271	185271	
18119.7	0.0056669	185463	185463	
18154.3	0.00423067	185636	185636	
18189	0.0027863	185816	185816	
18223.6	0.00133715	185892	185892	
18258.2	-0.000113361	186056	186056	
18292.9	-0.00156183	186244	186244	
18327.5	-0.00300483	186496	186496	
18362.2	-0.00443897	186644	186644	
18396.8	-0.0058609	186805	186805	
18431.4	-0.00726729	186948	186948	
18466.1	-0.00865492	187070	187070	
18500.7	-0.0100206	187228	187228	
18535.3	-0.0113614	187445	187445	
18570	-0.0126743	187600	187600	
18604.6	-0.0139565	187753	187753	
18639.2	-0.0152054	187873	187873	
18673.9	-0.0164186	188021	188021	
18708.5	-0.0175938	188198	188198	
18743.1	-0.0187288	188394	188394	
18777.8	-0.0198218	188609	188609	
18812.4	-0.0208711	188743	188743	
18847	-0.0218751	188907	188907	
18881.7	-0.0228327	189027	189027	
18916.3	-0.0237427	189148	189148	
18951	-0.0246043	189346	189346	
18985.6	-0.0254168	189556	189556	
19020.2	-0.0261797	189713	189713	
19054.9	-0.0268928	189888	189888	
19089.5	-0.0275559	190008	190008	
19124.1	-0.0281692	190154	190154	
19158.8	-0.0287328	190271	190271	
19193.4	-0.0292472	190419	190419	
19228	-0.0297129	190606	190606	
19262.7	-0.0301304	190756	190756	
19297.3	-0.0305006	190874	190874	
19331.9	-0.0308243	191084	191084	
19366.6	-0.0311023	191225	191225	
19401.2	-0.0313356	191345	191345	
19435.8	-0.0315252	191523	191523	
19470.5	-0.0316722	191604	191604	
19505.1	-0.0317774	191733	191733	
19539.7	-0.031842	191817	191817	
19574.4	-0.0318669	191980	191980	
19609	-0.0318532	192147	192147	
19643.7	-0.0318017	192324	192324	
19678.3	-0.0317135	192515	192515	
19712.9	-0.0315893	192723	192723	
19747.6	-0.0314301	192850	192850	
19782.2	-0.0312366	193008	193008	
19816.8	-0.0310098	193124	193124	
19851.5	-0.0307502	193251	193251	
19886.1	-0.0304587	193426	193426	
19920.7	-0.030136	193603	193603	
19955.4	-0.0297828	193802	193802	
19990	-0.0293998	193971	193971	
20024.6	-0.0289877	194112	194112	
20059.3	-0.0285473	194215	194215	
20093.9	-0.0280793	194436	194436	
20128.5	-0.0275844	194634	194634	
20163.2	-0.0270633	194842	194842	
20197.8	-0.026517	194983	194983	
20232.4	-0.0259463	195168	195168	
20267.1	-0.0253525	195306	195306	
20301.7	-0.0247366	195454	195454	
20336.4	-0.0241001	195653	195653	
20371	-0.0234443	195826	195826	
20405.6	-0.0227704	196028	196028	
20440.3	-0.0220796	196149	196149	
20474.9	-0.0213731	196332	196332	
20509.5	-0.0206519	196438	196438	
20544.2	-0.019917	196586	196586	
20578.8	-0.0191695	196821	196821	
20613.4	-0.0184104	196992	196992	
20648.1	-0.0176408	197142	197142	
20682.7	-0.0168615	197309	197309	
20717.3	-0.0160736	197463	197463	
20752	-0.0152787	197591	197591	
20786.6	-0.0144785	197731	197731	
20821.2	-0.0136752	197920	197920	
20855.9	-0.0128702	198132	198132	
20890.5	-0.0120647	198268	198268	
20925.1	-0.0112592	198407	198407	
20959.8	-0.0104541	198572	198572	
20994.4	-0.00964992	198779	198779	
21029.1	-0.00884699	198922	198922	
21063.7	-0.00804579	199070	199070	
21098.3	-0.00724687	199231	199231	
21133	-0.00645093	199338	199338	
21167.6	-0.00565889	199497	199497	
21202.2	-0.00487187	199664	199664	
21236.9	-0.00409111	199782	199782	
21271.5	-0.00331793	199931	199931	
21306.1	-0.00255369	200049	200049	
21340.8	-0.0017997	200189	200189	
21375.4	-0.00105729	200311	200311	
21410	-0.000327764	200488	200488	
21444.7	0.00038754	200592	200592	
21479.3	0.00108726	200716	200716	
21513.9	0.00176996	200888	200888	
21548.6	0.00243413	201067	201067	
21583.2	0.00307809	201246	201246	
21617.8	0.00370007	201377	201377	
21652.5	0.00429826	201473	201473	
21687.1	0.00487091	201579	201579	
21721.7	0.0054164	201739	201739	
21756.4	0.00593331	201933	201933	
21791	0.00642039	202122	202122	
21825.7	0.00687659	202318	202318	
21860.3	0.00730101	202434	202434	
21894.9	0.00769287	202592	202592	
21929.6	0.00805152	202693	202693	
21964.2	0.00837641	202814	202814	
21998.8	0.00866712	202956	202956	
22033.5	0.0089233	203104	203104	
22068.1	0.00914474	203265	203265	
22102.7	0.00933133	203430	203430	
22137.4	0.0094831	203601	203601	
22172	0.00960018	203809	203809	
22206.6	0.0096828	203957	203957	
22241.3	0.0097313	204087	204087	
22275.9	0.00974606	204278	204278	
22310.5	0.00972751	204412	204412	
22345.2	0.00967611	204545	204545	
22379.8	0.00959235	204673	204673	
22414.4	0.00947672	204819	204819	
22449.1	0.00932975	204951	204951	
22483.7	0.00915198	205152	205152	
22518.4	0.00894398	205251	205251	
22553	0.00870641	205429	205429	
22587.6	0.00843994	205569	205569	
22622.3	0.00814533	205708	205708	
22656.9	0.0078234	205840	205840	
22691.5	0.00747505	206030	206030	
22726.2	0.00710124	206193	206193	
22760.8	0.00670299	206319	206319	
22795.4	0.00628139	206444	206444	
22830.1	0.0058376	206582	206582	
22864.7	0.00537282	206716	206716	
22899.3	0.00488835	206883	206883	
22934	0.00438554	207105	207105	
22968.6	0.00386582	207257	207257	
23003.2	0.00333071	207373	207373	
23037.9	0.00278182	207486	207486	
23072.5	0.00222083	207642	207642	
23107.1	0.00164952	207841	207841	
23141.8	0.00106974	208046	208046	
23176.4	0.000483411	208199	208199	
23211.1	-0.000107473	208315	208315	
23245.7	-0.000700873	208388	208388	
23280.3	-0.0012947	208492	208492	
23315	-0.00188685	208700	208700	
23349.6	-0.00247518	208875	208875	
23384.2	-0.00305755	209111	209111	
23418.9	-0.00363184	209214	209214	
23453.5	-0.00419593	209322	209322	
23488.1	-0.00474778	209427	209427	
23522.8	-0.00528537	209603	209603	
23557.4	-0.00580678	209714	209714	
23592	-0.00631018	209903	209903	
23626.7	-0.00679385	210049	210049	
23661.3	-0.00725617	210201	210201	
23695.9	-0.00769566	210331	210331	
23730.6	-0.00811099	210497	210497	
23765.2	-0.00850096	210656	210656	
23799.8	-0.00886453	210790	210790	
23834.5	-0.00920079	210942	210942	
23869.1	-0.009509	211054	211054	
23903.7	-0.00978859	211243	211243	
23938.4	-0.0100391	211430	211430	
23973	-0.0102603	211568	211568	
24007.7	-0.0104521	211737	211737	
24042.3	-0.0106145	211885	211885	
24076.9	-0.0107478	212036	212036	
24111.6	-0.0108524	212157	212157	
24146.2	-0.0109287	212292	212292	
24180.8	-0.0109775	212415	212415	
24215.5	-0.0109996	212549	212549	
24250.1	-0.010996	212692	212692	
24284.7	-0.0109677	212872	212872	
24319.4	-0.0109158	213028	213028	
24354	-0.0108417	213175	213175	
24388.6	-0.0107464	213343	213343	
24423.3	-0.0106314	213514	213514	
24457.9	-0.0104978	213626	213626	
24492.5	-0.0103466	213798	213798	
24527.2	-0.0101799	213940	213940	
24561.8	-0.00999945	214062	214062	
24596.4	-0.0098068	214153	214153	
24631.1	-0.00960327	214249	214249	
24665.7	-0.00938203	214349	214349	
24700.3	-0.00915677	214509	214509	
24735	-0.00892829	214601	214601	
24769.6	-0.00869283	214755	214755	
24804.3	-0.00845254	214906	214906	
24838.9	-0.00820987	214984	214984	
24873.5	-0.00796915	215099	215099	
24908.2	-0.00772554	215262	215262	
24942.9	-0.00748297	215403	215403	
24977.5	-0.00724036	215478	215478	
25012.1	-0.0069979	215595	215595	
25046.8	-0.00675421	215779	215779	
25081.4	-0.00650819	215920	215920	
25116	-0.00625931	216072	216072	
25150.7	-0.00600898	216161	216161	
25185.3	-0.00575856	216374	216374	
25219.9	-0.00550951	216536	216536	
25254.6	-0.0052632	216686	216686	
25289.2	-0.0050195	216888	216888	
25323.8	-0.00478794	217023	217023	
25358.5	-0.00455726	217047	217047	
25393.1	-0.00432559	217167	217167	
25427.8	-0.00409574	217309	217309	
25462.4	-0.00387034	217471	217471	
25497	-0.00365115	217591	217591	
25531.7	-0.00343902	217742	217742	
25566.3	-0.00323381	217883	217883	
25600.9	-0.00303519	218042	218042	
25635.6	-0.00284294	218215	218215	
25670.2	-0.0026569	218383	218383	
25704.8	-0.0024769	218527	218527	
25739.5	-0.0023029	218684	218684	
25774.1	-0.00213514	218834	218834	
25808.7	-0.00197419	218987	218987	
25843.4	-0.00182087	219080	219080	
25878	-0.00167606	219229	219229	
25912.6	-0.0015405	219370	219370	
25947.3	-0.00141464	219558	219558	
25981.9	-0.0012986	219657	219657	
26016.5	-0.00119228	219762	219762	
26051.2	-0.00109542	219961	219961	
26085.8	-0.00100767	220148	220148	
26120.4	-0.000928689	220301	220301	
26155.1	-0.000858102	220463	220463	
26189.7	-0.000795547	220555	220555	
26224.3	-0.000740645	220775	220775	
26259	-0.000693	220898	220898	
26293.6	-0.000652197	221099	221099	
26328.2	-0.000617802	221248	221248	
26362.9	-0.000589371	221497	221497	
26397.5	-0.000566454	221626	221626	
26432.2	-0.00054861	221818	221818	
26466.8	-0.000535409	222003	222003	
26501.4	-0.000526434	222153	222153	
26536.1	-0.000521275	222310	222310	
26570.7	-0.000519526	222452	222452	
26605.3	-0.000520775	222567	222567	
26640	-0.000524601	222764	222764	
26674.6	-0.000530578	222898	222898	
26709.2	-0.000538277	223044	223044	
26743.9	-0.00054728	223168	223168	
26778.5	-0.000557192	223376	223376	
26813.1	-0.000567655	223596	223596	
26847.8	-0.000578356	223731	223731	
26882.4	-0.000589032	223910	223910	
26917	-0.000599462	224106	224106	
26951.7	-0.000609455	224260	224260	
26986.3	-0.000618843	224338	224338	
27020.9	-0.00062746	224458	224458	
27055.6	-0.000635137	224578	224578	
27090.2	-0.0006417	224681	224681	
27124.8	-0.00064697	224828	224828	
27159.5	-0.000650766	224988	224988	
27194.1	-0.000652917	225133	225133	
27228.7	-0.000653328	225306	225306	
27263.4	-0.00065194	225489	225489	
27298	-0.00064488	225595	225595	
27332.6	-0.000638383	225775	225775	
27367.3	-0.000630213	225980	225980	
27401.9	-0.000621979	226126	226126	
27436.5	-0.00060808	226216	226216	
27471.2	-0.000589922	226360	226360	
27505.8	-0.000567208	226450	226450	
27540.4	-0.000542793	226586	226586	
27575.1	-0.000517391	226818	226818	
27609.7	-0.000491228	227001	227001	
27644.3	-0.000463219	227204	227204	
27679	-0.000432525	227366	227366	
27713.6	-0.000398412	227498	227498	
27748.3	-0.000360462	227629	227629	
27782.9	-0.000318501	227732	227732	
27817.5	-0.000272705	227856	227856	
27852.2	-0.000223529	228021	228021	
27886.8	-0.000171603	228174	228174	
27921.4	-0.000117577	228353	228353	
27956.1	-6.20862e-05	228524	228524	
27990.7	-5.60802e-06	228665	228665	
28025.3	5.15241e-05	228870	228870	
28060	0.000109058	228995	228995	
28094.6	0.000166854	229158	229158	
28129.2	0.000224826	229365	229365	
28163.9	0.000282885	229472	229472	
28198.5	0.00034085	229658	229658	
28233.1	0.000398405	229813	229813	
28267.8	0.000455092	229937	229937	
28302.4	0.000510349	230075	230075	
28337	0.000563553	230216	230216	
28371.7	0.000614062	230348	230348	
28406.3	0.000661269	230423	230423	
28440.9	0.000704649	230542	230542	
28475.6	0.000743796	230792	230792	
28510.2	0.00077843	230903	230903	
28544.8	0.000808378	231055	231055	
28579.5	0.000833546	231185	231185	
28614.1	0.000853882	231291	231291	
28648.7	0.000869356	231392	231392	
28683.4	0.000879949	231473	231473	
28718	0.000885654	231571	231571	
28752.6	0.000886477	231677	231677	
28787.3	0.00088245	231814	231814	
28821.9	0.000873633	231951	231951	
28856.5	0.000860123	232078	232078	
28891.2	0.000842053	232254	232254	
28925.8	0.00081958	232404	232404	
28960.4	0.000792877	232570	232570	
28995.1	0.000762112	232708	232708	
29029.7	0.000727433	232790	232790	
29064.3	0.000688952	232846	232846	
29099	0.000646731	232956	232956	
29133.6	0.000600775	233018	233018	
29168.2	0.00055103	233155	233155	
29202.9	0.000497385	233363	233363	
29237.5	0.000439678	233539	233539	
29272.1	0.000377708	233596	233596	
29306.8	0.000311246	233709	233709	
29341.4	0.000240044	233810	233810	
29376	0.000163846	233965	233965	
29410.7	8.2393e-05	234136	234136	
29445.3	-4.567e-06	234284	234284	
29479.9	-9.72758e-05	234408	234408	
29514.6	-0.00019596	234580	234580	
29549.2	-0.000300825	234676	234676	
29583.8	-0.00041205	234803	234803	
29618.5	-0.000529785	234898	234898	
29653.1	-0.000654139	235027	235027	
29687.7	-0.000785177	235108	235108	
29722.4	-0.000922919	235238	235238	
29757	-0.00106733	235422	235422	
29791.6	-0.00121831	235587	235587	
29826.3	-0.00137572	235733	235733	
29860.9	-0.00153934	235949	235949	
29895.5	-0.00170889	236066	236066	
29930.2	-0.00188406	236253	236253	
29964.8	-0.00206443	236362	236362	
29999.4	-0.00224956	236496	236496	
30034.1	-0.00243892	236667	236667	
30068.7	-0.00263194	236804	236804	
30103.3	-0.00282797	236948	236948	
30138	-0.00302632	237089	237089	
30172.6	-0.00322624	237166	237166	
30207.2	-0.00342691	237248	237248	
30241.9	-0.00362747	237429	237429	
30276.5	-0.00382702	237582	237582	
30311.1	-0.00402461	237791	237791	
30345.8	-0.00421922	238023	238023	
30380.4	-0.00440982	238161	238161	
30415	-0.00459534	238340	238340	
30449.7	-0.00477471	238431	238431	
30484.3	-0.00494685	238570	238570	
30518.9	-0.00511075	238739	238739	
30553.5	-0.00526543	238980	238980	
30588.2	-0.00541005	239116	239116	
30622.8	-0.00554388	239270	239270	
30657.4	-0.00566637	239402	239402	
30692.1	-0.00577709	239569	239569	
30726.7	-0.00587577	239694	239694	
30761.3	-0.00596228	239842	239842	
30796	-0.00603655	240057	240057	
30830.6	-0.00609859	240275	240275	
30865.2	-0.00614843	240388	240388	
30899.9	-0.00618615	240586	240586	
30934.5	-0.00621185	240719	240719	
30969.1	-0.00622566	240901	240901	
31003.7	-0.00622772	240970	240970	
31038.4	-0.00621817	241049	241049	
31073	-0.00619718	241144	241144	
31107.6	-0.00616494	241263	241263	
31142.3	-0.00612171	241395	241395	
31176.9	-0.00606782	241550	241550	
31211.5	-0.00600368	241680	241680	
31246.2	-0.00592984	241843	241843	
31280.8	-0.00584691	242019	242019	
31315.4	-0.00575563	242170	242170	
31350.1	-0.00565682	242271	242271	
31384.7	-0.00555139	242356	242356	
31419.3	-0.00544032	242490	242490	
31454	-0.00532463	242665	242665	
31488.6	-0.0052054	242830	242830	
31523.2	-0.0050837	242943	242943	
31557.9	-0.0049606	243038	243038	
31592.5	-0.00483712	243060	243060	
31627.1	-0.00471419	243161	243161	
31661.7	-0.00459266	243378	243378	
31696.4	-0.00447324	243537	243537	
31731	-0.00435653	243670	243670	
31765.6	-0.00424299	243763	243763	
31800.3	-0.00413294	243923	243923	
31834.9	-0.00402653	244092	244092	
31869.5	-0.00392383	244245	244245	
31904.2	-0.00382474	244391	244391	
31938.8	-0.00372906	244455	244455	
31973.4	-0.00363645	244573	244573	
32008.1	-0.0035465	244669	244669	
32042.7	-0.00345868	244814	244814	
32077.3	-0.00337237	245053	245053	
32112	-0.00328692	245284	245284	
32146.6	-0.00320157	245469	245469	
32181.2	-0.00311557	245612	245612	
32215.8	-0.00302811	245777	245777	
32250.5	-0.0029384	245858	245858	
32285.1	-0.00284565	245995	245995	
32319.7	-0.00274909	246099	246099	
32354.4	-0.00264802	246191	246191	
32389	-0.00254181	246298	246298	
32423.6	-0.00242989	246489	246489	
32458.3	-0.00231179	246669	246669	
32492.9	-0.00218718	246748	246748	
32527.5	-0.0020558	246934	246934	
32562.2	-0.00191755	247218	247218	
32596.8	-0.00177248	247397	247397	
32631.4	-0.00162079	247556	247556	
32666.1	-0.00146286	247697	247697	
32700.7	-0.00129926	247796	247796	
32735.3	-0.00113073	247962	247962	
32769.9	-0.00095824	248062	248062	
32804.6	-0.000782882	248134	248134	
32839.2	-0.000605922	248347	248347	
32873.8	-0.00042874	248580	248580	
32908.5	-0.000252803	248773	248773	
32943.1	-7.96363e-05	248931	248931	
32977.7	8.92079e-05	249098	249098	
33012.4	0.000252177	249245	249245	
33047	0.000407743	249374	249374	
33081.6	0.000554421	249538	249538	
33116.3	0.000690792	249676	249676	
33150.9	0.000815521	249793	249793	
33185.5	0.000927376	249955	249955	
33220.2	0.00102524	250171	250171	
33254.8	0.00110815	250376	250376	
33289.4	0.00117528	250625	250625	
33324	0.00122597	250783	250783	
33358.7	0.00125974	250943	250943	
33393.3	0.00127629	251104	251104	
33427.9	0.00127548	251207	251207	
33462.6	0.00125736	251337	251337	
33497.2	0.00122218	251487	251487	
33531.8	0.00117042	251563	251563	
33566.5	0.00110277	251696	251696	
33601.1	0.00102013	251854	251854	
33635.7	0.000923572	251994	251994	
33670.4	0.000814328	252206	252206	
33705	0.000693751	252411	252411	
33739.6	0.00056331	252599	252599	
33774.2	0.000424571	252710	252710	
33808.9	0.000279163	252899	252899	
33843.5	0.000128745	252999	252999	
33878.1	-2.50268e-05	253151	253151	
33912.8	-0.000180512	253298	253298	
33947.4	-0.000336061	253454	253454	
33982	-0.000489987	253632	253632	
34016.7	-0.00064055	253798	253798	
34051.3	-0.000785968	253939	253939	
34085.9	-0.000924458	254066	254066	
34120.6	-0.00105429	254250	254250	
34155.2	-0.00117382	254397	254397	
34189.8	-0.00128159	254532	254532	
34224.4	-0.00137628	254661	254661	
34259.1	-0.00145679	254781	254781	
34293.7	-0.00152223	254851	254851	
34328.3	-0.0015719	254994	254994	
34363	-0.00160533	255213	255213	
34397.6	-0.00162226	255362	255362	
34432.2	-0.00162261	255449	255449	
34466.9	-0.00160653	255729	255729	
34501.5	-0.00157439	255961	255961	
34536.1	-0.00152675	256122	256122	
34570.8	-0.00146442	256243	256243	
34605.4	-0.00138838	256418	256418	
34640	-0.00129984	256533	256533	
34674.6	-0.00120019	256676	256676	
34709.3	-0.00109097	256789	256789	
34743.9	-0.000973898	256959	256959	
34778.5	-0.000850787	257169	257169	
34813.2	-0.000723572	257332	257332	
34847.8	-0.000594257	257481	257481	
34882.4	-0.000464896	257679	257679	
34917.1	-0.000337556	257827	257827	
34951.7	-0.000214286	257981	257981	
34986.3	-9.70763e-05	258193	258193	
35021	1.2177e-05	258367	258367	
35055.6	0.000111711	258561	258561	
35090.2	0.000199929	258627	258627	
35124.8	0.000275805	258815	258815	
35159.5	0.000339309	259040	259040	
35194.1	0.000388216	259159	259159	
35228.7	0.000421274	259319	259319	
35263.4	0.000437434	259380	259380	
35298	0.000436952	259510	259510	
35332.6	0.000420207	259700	259700	
35367.3	0.000387696	259837	259837	
35401.9	0.000340568	260053	260053	
35436.5	0.000280134	260186	260186	
35471.1	0.000207883	260340	260340	
35505.8	0.00012424	260507	260507	
35540.4	3.12733e-05	260689	260689	
35575	-6.843e-05	260888	260888	
35609.7	-0.000171392	261047	261047	
35644.3	-0.00027505	261241	261241	
35678.9	-0.000377469	261398	261398	
35713.6	-0.000477228	261662	261662	
35748.2	-0.000572781	261723	261723	
35782.8	-0.000662331	261821	261821	
35817.5	-0.000743773	261991	261991	
35852.1	-0.000815174	262205	262205	
35886.7	-0.000873953	262375	262375	
35921.3	-0.000917962	262538	262538	
35956	-0.000944849	262679	262679	
35990.6	-0.000952089	262828	262828	
36025.2	-0.000938135	262992	262992	
36059.9	-0.00090157	263145	263145	
36094.5	-0.000841382	263269	263269	
36129.1	-0.00075693	263455	263455	
36163.8	-0.000648053	263635	263635	
36198.4	-0.000514898	263786	263786	
36233	-0.000357904	263955	263955	
36267.6	-0.000177785	264177	264177	
36302.3	2.44211e-05	264370	264370	
36336.9	0.000247314	264509	264509	
36371.5	0.000489115	264575	264575	
36406.2	0.000747663	264666	264666	
36440.8	0.00102042	264810	264810	
36475.4	0.00130447	265031	265031	
36510.1	0.00159657	265196	265196	
36544.7	0.00189322	265360	265360	
36579.3	0.00219072	265501	265501	
36613.9	0.0024853	265657	265657	
36648.6	0.00277317	265794	265794	
36683.2	0.00305058	265960	265960	
36717.8	0.00331392	266119	266119	
36752.5	0.00355972	266256	266256	
36787.1	0.00378472	266452	266452	
36821.7	0.00398588	266622	266622	
36856.4	0.00416044	266795	266795	
36891	0.00430596	266956	266956	
36925.6	0.00442032	267123	267123	
36960.2	0.0045018	267273	267273	
36994.9	0.00454908	267464	267464	
37029.5	0.00456129	267674	267674	
37064.1	0.00453803	267816	267816	
37098.8	0.00447939	267901	267901	
37133.4	0.00438596	268039	268039	
37168	0.0042588	268239	268239	
37202.7	0.00409949	268428	268428	
37237.3	0.00391005	268625	268625	
37271.9	0.00369296	268758	268758	
37306.5	0.00345114	268929	268929	
37341.2	0.0031879	269094	269094	
37375.8	0.0029069	269258	269258	
37410.4	0.00261212	269393	269393	
37445.1	0.0023078	269541	269541	
37479.7	0.00199837	269661	269661	
37514.3	0.00168841	269783	269783	
37549	0.00138257	269944	269944	
37583.6	0.00108547	270156	270156	
37618.2	0.000801677	270315	270315	
37652.8	0.000535572	270407	270407	
37687.5	0.00029132	270559	270559	
37722.1	7.27803e-05	270656	270656	
37756.7	-0.000116555	270805	270805	
37791.4	-0.000273628	271040	271040	
37826	-0.00039587	271207	271207	
37860.6	-0.000481253	271363	271363	
37895.3	-0.000528335	271601	271601	
37929.9	-0.0005363	271693	271693	
37964.5	-0.000504977	271859	271859	
37999.1	-0.000434859	271996	271996	
38033.8	-0.000327107	272176	272176	
38068.4	-0.000183536	272336	272336	
38103	-6.59387e-06	272532	272532	
38137.7	0.000200676	272663	272663	
38172.3	0.000434684	272872	272872	
38206.9	0.000691356	273032	273032	
38241.6	0.000966204	273181	273181	
38276.2	0.0012544	273241	273241	
38310.8	0.00155088	273362	273362	
38345.4	0.0018504	273513	273513	
38380.1	0.00214767	273772	273772	
38414.7	0.00243741	273942	273942	
38449.3	0.00271448	274152	274152	
38484	0.00297396	274269	274269	
38518.6	0.00321119	274413	274413	
38553.2	0.00342192	274579	274579	
38587.8	0.00360234	274758	274758	
38622.5	0.00374915	274875	274875	
38657.1	0.00385958	275047	275047	
38691.7	0.00393148	275182	275182	
38726.4	0.00396333	275327	275327	
38761	0.0039542	275402	275402	
38795.6	0.00390383	275601	275601	
38830.3	0.00381257	275789	275789	
38864.9	0.00368137	276002	276002	
38899.5	0.00351175	276190	276190	
38934.1	0.00330577	276353	276353	
38968.8	0.00306596	276548	276548	
39003.4	0.00279527	276806	276806	
39038	0.00249703	276900	276900	
39072.7	0.00217487	277068	277068	
39107.3	0.00183265	277250	277250	
39141.9	0.00147442	277424	277424	
39176.5	0.00110432	277552	277552	
39211.2	0.000726523	277782	277782	
39245.8	0.000345193	277910	277910	
39280.4	-3.55891e-05	278103	278103	
39315.1	-0.000411878	278239	278239	
39349.7	-0.000779908	278457	278457	
39384.3	-0.00113614	278582	278582	
39419	-0.00147729	278781	278781	
39453.6	-0.00180038	278961	278961	
39488.2	-0.00210272	279146	279146	
39522.8	-0.00238198	279282	279282	
39557.5	-0.00263618	279448	279448	
39592.1	-0.00286366	279594	279594	
39626.7	-0.00306318	279758	279758	
39661.4	-0.00323382	279954	279954	
39696	-0.00337504	280106	280106	
39730.6	-0.00348662	280213	280213	
39765.2	-0.00356872	280383	280383	
39799.9	-0.00362177	280529	280529	
39834.5	-0.00364653	280664	280664	
39869.1	-0.003644	280818	280818	
39903.8	-0.00361545	280919	280919	
39938.4	-0.00356235	281057	281057	
39973	-0.00348638	281221	281221	
40007.6	-0.00338934	281420	281420	
40042.3	-0.00327321	281689	281689	
40076.9	-0.00314003	281857	281857	
40111.5	-0.00299197	282028	282028	
40146.2	-0.00283121	282193	282193	
40180.8	-0.00265999	282382	282382	
40215.4	-0.00248055	282470	282470	
40250.1	-0.00229509	282582	282582	
40284.7	-0.00210578	282759	282759	
40319.3	-0.00191475	282908	282908	
40353.9	-0.00172399	282999	282999	
40388.6	-0.00153544	283183	283183	
40423.2	-0.00135086	283390	283390	
40457.8	-0.00117192	283600	283600	
40492.5	-0.00100011	283862	283862	
40527.1	-0.000836773	284078	284078	
40561.7	-0.000683032	284192	284192	
40596.3	-0.000539878	284376	284376	
40631	-0.00040808	284474	284474	
40665.6	-0.000288219	284605	284605	
40700.2	-0.000180705	284746	284746	
40734.9	-8.58425e-05	284856	284856	
40769.5	-3.82393e-06	285095	285095	
40804.1	6.52993e-05	285329	285329	
40838.7	0.000121992	285500	285500	
40873.4	0.000166711	285719	285719	
40908	0.000200043	285843	285843	
40942.6	0.000222634	286023	286023	
40977.3	0.000235268	286255	286255	
41011.9	0.000238842	286356	286356	
41046.5	0.000234316	286485	286485	
41081.1	0.000222741	286645	286645	
41115.8	0.000205231	286833	286833	
41150.4	0.000182959	286961	286961	
41185	0.000157324	287089	287089	
41219.7	0.000129674	287198	287198	
41254.3	0.000101173	287378	287378	
41288.9	7.27226e-05	287516	287516	
41323.6	4.50304e-05	287710	287710	
41358.2	1.855e-05	287855	287855	
41392.8	-6.22033e-06	288054	288054	
41427.4	-2.87743e-05	288255	288255	
41462.1	-4.85261e-05	288343	288343	
41496.7	-6.4852e-05	288442	288442	
41531.3	-7.70972e-05	288540	288540	
41566	-8.46289e-05	288713	288713	
41600.6	-8.68564e-05	288893	288893	
41635.2	-8.32496e-05	289040	289040	
41669.8	-7.33391e-05	289249	289249	
41704.5	-5.66702e-05	289391	289391	
41739.1	-3.26327e-05	289547	289547	
41773.7	-8.33371e-07	289691	289691	
41808.4	4.05175e-05	289839	289839	
41843	9.0586e-05	290018	290018	
41877.6	0.000149151	290175	290175	
41912.2	0.000225795	290311	290311	
41946.9	0.000300517	290463	290463	
41981.5	0.000379202	290549	290549	
42016.1	0.000472772	290709	290709	
42050.8	0.000576333	290879	290879	
42085.4	0.000659457	291043	291043	
42120	0.000745638	291210	291210	
42154.6	0.000838097	291374	291374	
42189.3	0.000951633	291528	291528	
42223.9	0.00106118	291610	291610	
42258.5	0.00117232	291682	291682	
42293.2	0.00132847	291829	291829	
42327.8	0.00145446	292051	292051	
42362.4	0.00164416	292206	292206	
42397	0.00179741	292330	292330	
42431.7	0.00194722	292557	292557	
42466.3	0.00210057	292656	292656	
42500.9	0.00226871	292796	292796	
42535.6	0.00245192	292983	292983	
42570.2	0.00264574	293157	293157	
42604.8	0.00285523	293335	293335	
42639.4	0.00305039	293520	293520	
42674.1	0.0032606	293648	293648	
42708.7	0.00348677	293840	293840	
42743.3	0.0037147	293965	293965	
42778	0.00395115	294138	294138	
42812.6	0.00418092	294356	294356	
42847.2	0.00439936	294610	294610	
42881.8	0.00460455	294736	294736	
42916.5	0.00479878	294877	294877	
42951.1	0.00498268	295018	295018	
42985.7	0.00515732	295273	295273	
43020.4	0.00531531	295419	295419	
43055	0.00546114	295552	295552	
43089.6	0.0055955	295753	295753	
43124.2	0.0057175	296007	296007	
43158.9	0.00582711	296197	296197	
43193.5	0.00592534	296471	296471	
