0	0	38812	38812	
18.4875	0	38616	38616	
37.1736	0	38692	38692	
55.6611	0	38852	38852	
74.1486	0	39016	39016	
92.6361	0	39192	39192	
111.1	0	39364	39364	
129.564	0	39488	39488	
148.029	0	39604	39604	
166.348	0	39574	39574	
184.668	0	39600	39600	
202.987	0	39540	39540	
221.307	0	39570	39570	
239.627	0	39608	39608	
257.946	0	39684	39684	
276.266	0	39760	39760	
294.585	0	39850	39850	
312.905	0	39930	39930	
331.224	0	39984	39984	
349.544	0	40028	40028	
367.864	0	40116	40116	
386.183	0	40192	40192	
404.503	0	40250	40250	
422.822	0	40302	40302	
441.142	0	40406	40406	
459.461	0	40470	40470	
477.781	0	40492	40492	
496.051	0	40530	40530	
514.322	0	40576	40576	
532.592	0	40584	40584	
550.863	0	40620	40620	
569.133	0	40610	40610	
587.404	0	40598	40598	
605.674	0	40648	40648	
623.944	0	40716	40716	
642.215	0	40758	40758	
660.485	0	40802	40802	
678.756	0	40894	40894	
697.026	0	40964	40964	
715.296	0	41010	41010	
733.567	0	41106	41106	
751.837	0	41174	41174	
770.108	0	41212	41212	
788.378	0	41274	41274	
806.648	0	41336	41336	
824.919	0	41412	41412	
843.189	0	41466	41466	
861.46	0	41548	41548	
879.73	0	41612	41612	
898	0	41698	41698	
916.271	0	41764	41764	
934.541	0	41866	41866	
952.812	0	41976	41976	
971.082	0	42038	42038	
989.352	0	42134	42134	
1007.62	0	42232	42232	
1025.89	0	42308	42308	
1044.16	0	42416	42416	
1062.43	0	42476	42476	
1080.7	0	42572	42572	
1098.97	0	42650	42650	
1117.25	0	42768	42768	
1135.52	0	42890	42890	
1153.79	0	42998	42998	
1172.06	0	43136	43136	
1190.33	0	43212	43212	
1208.6	0	43348	43348	
1226.87	0	43446	43446	
1244.88	0	43530	43530	
1262.9	0	43602	43602	
1280.92	0	43668	43668	
1298.93	0	43778	43778	
1316.95	0	43866	43866	
1334.97	0	44006	44006	
1352.64	0	44094	44094	
1370.31	0	44182	44182	
1387.98	0	44252	44252	
1405.64	0	44414	44414	
1422.93	0	44558	44558	
1440.22	0	44656	44656	
1457.51	0	44762	44762	
1474.8	0	44840	44840	
1492.09	0	44926	44926	
1509.38	0	45014	45014	
1526.51	0	45090	45090	
1543.63	0	45162	45162	
1560.76	0	45270	45270	
1577.88	0	45422	45422	
1595.01	0	45490	45490	
1612.13	0	45620	45620	
1629.26	0	45728	45728	
1646.39	0	45826	45826	
1663.51	0	45916	45916	
1680.64	0	46048	46048	
1697.76	0	46140	46140	
1714.76	0	46274	46274	
1731.76	0	46392	46392	
1748.76	0	46486	46486	
1765.76	0	46608	46608	
1782.76	0	46680	46680	
1799.76	0	46746	46746	
1816.76	0	46882	46882	
1833.76	0	46978	46978	
1850.76	0	47092	47092	
1867.76	0	47200	47200	
1884.76	0	47284	47284	
1901.76	0	47336	47336	
1918.76	0	47422	47422	
1935.76	0	47542	47542	
1952.76	0	47702	47702	
1969.76	0	47788	47788	
1986.76	0	47964	47964	
2003.76	0	48034	48034	
2020.76	0	48192	48192	
2037.76	0	48270	48270	
2054.76	0	48414	48414	
2071.74	0	48532	48532	
2088.72	0	48590	48590	
2105.69	0	48640	48640	
2122.67	0	48828	48828	
2139.65	0	48920	48920	
2156.63	0	48998	48998	
2173.61	0	49066	49066	
2190.58	0	49140	49140	
2207.56	0	49218	49218	
2224.54	0	49424	49424	
2241.52	0	49568	49568	
2258.49	0	49714	49714	
2275.47	0	49810	49810	
2292.45	0	49952	49952	
2309.43	0	50036	50036	
2326.41	0	50134	50134	
2343.38	0	50232	50232	
2360.36	0	50310	50310	
2377.34	0	50418	50418	
2394.32	0	50538	50538	
2411.3	0	50632	50632	
2428.27	0	50758	50758	
2445.25	0	50866	50866	
2462.23	0	50988	50988	
2479.21	0	51086	51086	
2496.16	0	51220	51220	
2513.11	0	51402	51402	
2530.06	0	51546	51546	
2547.02	0	51642	51642	
2563.97	0	51778	51778	
2580.92	0	51870	51870	
2597.87	0	51984	51984	
2614.52	0	52064	52064	
2631.16	0	52174	52174	
2647.8	0	52250	52250	
2664.44	0	52432	52432	
2681.08	0	52594	52594	
2697.73	0	52684	52684	
2714.37	0	52750	52750	
2731.01	0	52848	52848	
2747.56	0	52936	52936	
2764.1	0	53084	53084	
2780.65	0	53220	53220	
2797.19	0	53376	53376	
2813.74	0	53482	53482	
2830.28	0	53600	53600	
2846.83	0	53720	53720	
2863.38	0	53854	53854	
2879.92	0	53932	53932	
2896.47	0	54094	54094	
2913.01	0	54194	54194	
2929.56	0	54286	54286	
2946.1	0	54446	54446	
2962.65	0	54536	54536	
2979.2	0	54682	54682	
2995.74	0	54772	54772	
3012.29	0	54866	54866	
3028.83	0	54976	54976	
3045.38	0	55116	55116	
3061.93	0	55304	55304	
3078.47	0	55422	55422	
3095.02	0	55570	55570	
3111.56	0	55702	55702	
3128.11	0	55838	55838	
3144.65	0	55976	55976	
3161.2	0	56108	56108	
3177.72	0	56196	56196	
3194.23	0	56316	56316	
3210.75	0	56446	56446	
3227.26	0	56586	56586	
3243.78	0	56662	56662	
3260.29	0	56784	56784	
3276.81	0	56888	56888	
3293.32	0	56998	56998	
3309.84	0	57168	57168	
3326.35	0	57318	57318	
3342.87	0	57508	57508	
3359.38	0	57626	57626	
3375.9	0	57802	57802	
3392.41	0	57952	57952	
3408.93	0	58078	58078	
3425.44	0	58206	58206	
3441.96	0	58312	58312	
3458.47	0	58426	58426	
3474.99	0	58528	58528	
3491.5	0	58654	58654	
3508.02	0	58792	58792	
3524.53	0	58886	58886	
3541.05	0	59020	59020	
3557.56	0	59124	59124	
3574.07	0	59254	59254	
3590.58	0	59382	59382	
3607.09	0	59556	59556	
3623.6	0	59702	59702	
3640.11	0	59832	59832	
3656.62	0	59960	59960	
3673.13	0	60136	60136	
3689.64	0	60276	60276	
3706.15	0	60404	60404	
3722.66	0	60534	60534	
3739.17	0	60632	60632	
3755.68	0	60730	60730	
3772.19	0	60870	60870	
3788.7	0	61028	61028	
3805.21	0	61216	61216	
3821.72	0	61340	61340	
3838.23	0	61410	61410	
3854.74	0	61552	61552	
3871.25	0	61730	61730	
3887.76	0	61880	61880	
3904.27	0	62026	62026	
3920.78	0	62172	62172	
3937.29	0	62312	62312	
3953.8	0	62430	62430	
3970.31	0	62596	62596	
3986.82	0	62738	62738	
4003.33	0	62894	62894	
4019.84	0	62988	62988	
4036.35	0	63096	63096	
4052.86	0	63216	63216	
4069.37	0	63382	63382	
4085.88	0	63562	63562	
4102.39	0	63694	63694	
4118.9	0	63830	63830	
4135.41	0	63966	63966	
4151.92	0	64060	64060	
4168.43	0	64258	64258	
4184.94	0	64410	64410	
4201.45	0	64594	64594	
4217.96	0	64700	64700	
4234.47	0	64848	64848	
4250.98	0	65032	65032	
4267.49	0	65192	65192	
4284	0	65356	65356	
4300.51	0	65486	65486	
4317.02	0	65632	65632	
4333.53	0	65788	65788	
4350.04	0	65880	65880	
4366.55	0	66006	66006	
4383.06	0	66132	66132	
4399.57	0	66286	66286	
4416.08	0	66452	66452	
4432.59	0	66542	66542	
4449.1	0	66648	66648	
4465.61	0	66838	66838	
4482.12	0	67016	67016	
4498.63	0	67208	67208	
4515.14	0	67340	67340	
4531.65	0	67510	67510	
4548.16	0	67642	67642	
4564.67	0	67782	67782	
4581.18	0	67954	67954	
4597.69	0	68090	68090	
4614.2	0	68234	68234	
4630.71	0	68368	68368	
4647.22	0	68504	68504	
4663.73	0	68610	68610	
4680.24	0	68740	68740	
4696.75	0	68932	68932	
4713.26	0	69118	69118	
4729.77	0	69310	69310	
4746.28	0	69438	69438	
4762.79	0	69556	69556	
4779.3	0	69734	69734	
4795.81	0	69918	69918	
4812.32	0	70098	70098	
4828.83	0	70270	70270	
4845.34	0	70418	70418	
4861.85	0	70598	70598	
4878.36	0	70738	70738	
4894.87	0	70878	70878	
4911.38	0	71024	71024	
4927.89	0	71238	71238	
4944.4	0	71350	71350	
4960.91	0	71482	71482	
4977.42	0	71638	71638	
4993.93	0	71794	71794	
5010.44	0	71952	71952	
5026.95	0	72130	72130	
5043.46	0	72284	72284	
5059.97	0	72480	72480	
5076.48	0	72636	72636	
5092.99	0	72796	72796	
5109.5	0	72980	72980	
5126.01	0	73104	73104	
5142.52	0	73286	73286	
5159.03	0	73402	73402	
5175.54	0	73556	73556	
5192.05	0	73754	73754	
5208.56	0	73932	73932	
5225.07	0	74104	74104	
5241.58	0	74238	74238	
5258.09	0	74400	74400	
5274.6	0	74540	74540	
5291.11	0	74730	74730	
5307.62	0	74886	74886	
5324.13	0	75026	75026	
5340.64	0	75208	75208	
5357.15	0	75356	75356	
5373.66	0	75486	75486	
5390.17	0	75688	75688	
5406.68	0	75896	75896	
5423.19	0	76074	76074	
5439.7	0	76264	76264	
5456.21	0	76430	76430	
5472.72	0	76598	76598	
5489.23	0	76734	76734	
5505.74	0	76916	76916	
5522.25	0	77042	77042	
5538.77	0	77198	77198	
5555.28	0	77344	77344	
5571.79	0	77514	77514	
5588.3	0	77652	77652	
5604.81	0	77784	77784	
5621.32	0	77954	77954	
5637.83	0	78070	78070	
5654.34	0	78252	78252	
5670.85	0	78462	78462	
5687.36	0	78632	78632	
5703.87	0	78850	78850	
5720.38	0	78992	78992	
5736.89	0	79158	79158	
5753.4	0	79292	79292	
5769.91	0	79438	79438	
5786.42	0	79600	79600	
5802.93	0	79780	79780	
5819.44	0	79940	79940	
5835.95	0	80128	80128	
5852.46	0	80296	80296	
5868.97	0	80476	80476	
5885.48	0	80608	80608	
5901.99	0	80834	80834	
5918.5	0	80980	80980	
5935.01	0	81136	81136	
5951.52	0	81318	81318	
5968.03	0	81522	81522	
5984.54	0	81678	81678	
6001.05	0	81880	81880	
6017.56	0	82094	82094	
6034.07	0	82266	82266	
6050.58	0	82414	82414	
6067.09	0	82546	82546	
6083.6	0	82686	82686	
6100.11	0	82840	82840	
6116.62	0	83034	83034	
6133.13	0	83210	83210	
6149.64	0	83368	83368	
6166.15	0	83536	83536	
6182.66	0	83718	83718	
6199.17	0	83892	83892	
6215.68	0	84042	84042	
6232.19	0	84244	84244	
6248.7	0	84444	84444	
6265.21	0	84612	84612	
6281.71	0	84770	84770	
6298.22	0	84942	84942	
6314.73	0	85140	85140	
6331.24	0	85326	85326	
6347.75	0	85470	85470	
6364.26	0	85622	85622	
6380.77	0	85774	85774	
6397.28	0	86008	86008	
6413.79	0	86148	86148	
6430.3	0	86346	86346	
6446.81	0	86526	86526	
6463.32	0	86664	86664	
6479.83	0	86880	86880	
6496.34	0	87042	87042	
6512.85	0	87172	87172	
6529.36	0	87354	87354	
6545.87	0	87568	87568	
6562.38	0	87730	87730	
6578.89	0	87936	87936	
6595.4	0	88154	88154	
6611.91	0	88336	88336	
6628.42	0	88448	88448	
6644.93	0	88588	88588	
6661.44	0	88824	88824	
6677.95	0	88990	88990	
6694.46	0	89194	89194	
6710.97	0	89382	89382	
6727.48	0	89520	89520	
6743.99	0	89686	89686	
6760.5	0	89886	89886	
6777.01	0	90026	90026	
6793.52	0	90202	90202	
6810.03	0	90348	90348	
6826.54	0	90510	90510	
6843.05	0	90756	90756	
6859.56	0	90958	90958	
6876.07	0	91128	91128	
6892.58	0	91344	91344	
6909.09	0	91500	91500	
6925.6	0	91676	91676	
6942.11	0	91910	91910	
6958.62	0	92044	92044	
6975.13	0	92262	92262	
6991.64	0	92460	92460	
7008.15	0	92616	92616	
7024.65	0	92808	92808	
7041.16	0	93008	93008	
7057.67	0	93192	93192	
7074.18	0	93370	93370	
7090.69	0	93572	93572	
7107.2	0	93754	93754	
7123.71	0	93932	93932	
7140.22	0	94104	94104	
7156.73	0	94290	94290	
7173.24	0	94482	94482	
7189.75	0	94696	94696	
7206.26	0	94928	94928	
7222.77	0	95088	95088	
7239.28	0	95226	95226	
7255.79	0	95388	95388	
7272.3	0	95582	95582	
7288.81	0	95758	95758	
7305.32	0	95950	95950	
7321.83	0	96142	96142	
7338.34	0	96352	96352	
7354.85	0	96590	96590	
7371.36	0	96790	96790	
7387.87	0	96998	96998	
7404.38	0	97204	97204	
7420.88	0	97364	97364	
7437.39	0	97558	97558	
7453.9	0	97742	97742	
7470.41	0	97960	97960	
7486.92	0	98140	98140	
7503.43	0	98308	98308	
7519.94	0	98480	98480	
7536.45	0	98702	98702	
7552.96	0	98880	98880	
7569.47	0	99066	99066	
7585.98	0	99244	99244	
7602.49	0	99372	99372	
7619	0	99556	99556	
7635.51	0	99766	99766	
7652.02	0	99996	99996	
7668.53	0	100212	100212	
7685.04	0	100396	100396	
7701.55	0	100522	100522	
7718.06	0	100752	100752	
7734.57	0	100926	100926	
7751.08	0	101170	101170	
7767.59	0	101408	101408	
7784.1	0	101634	101634	
7800.61	0	101874	101874	
7817.11	0	102046	102046	
7833.62	0	102234	102234	
7850.13	0	102438	102438	
7866.64	0	102634	102634	
7883.15	0	102838	102838	
7899.66	0	102964	102964	
7916.17	0	103162	103162	
7932.68	0	103398	103398	
7949.19	0	103632	103632	
7965.7	0	103870	103870	
7982.21	0	104088	104088	
7998.72	0	104246	104246	
8015.23	0	104404	104404	
8031.74	0	104610	104610	
8048.25	0	104800	104800	
8064.76	0	105016	105016	
8081.27	0	105236	105236	
8097.78	0	105418	105418	
8114.29	0	105628	105628	
8130.8	0	105846	105846	
8147.31	0	106066	106066	
8163.82	0	106250	106250	
8180.33	0	106476	106476	
8196.84	0	106686	106686	
8213.35	0	106892	106892	
8229.86	0	107116	107116	
8246.37	0	107360	107360	
8262.88	0	107610	107610	
8279.39	0	107830	107830	
8295.9	0	108016	108016	
8312.41	0	108200	108200	
8328.92	0	108412	108412	
8345.43	0	108650	108650	
8361.94	0	108874	108874	
8378.45	0	109050	109050	
8394.96	0	109278	109278	
8411.47	0	109462	109462	
8427.98	0	109636	109636	
8444.49	0	109900	109900	
8461	0	110146	110146	
8477.51	0	110374	110374	
8494.02	0	110578	110578	
8510.53	0	110788	110788	
8527.04	0	111006	111006	
8543.55	0	111192	111192	
8560.06	0	111456	111456	
8576.57	0	111698	111698	
8593.08	0	111864	111864	
8609.59	0	112024	112024	
8626.1	0	112176	112176	
8642.61	0	112468	112468	
8659.12	0	112738	112738	
8675.63	0	112920	112920	
8692.14	0	113122	113122	
8708.65	0	113352	113352	
8725.16	0	113590	113590	
8741.67	0	113836	113836	
8758.18	0	114028	114028	
8774.69	0	114238	114238	
8791.2	0	114410	114410	
8807.71	0	114598	114598	
8824.22	0	114746	114746	
8840.73	0	115080	115080	
8857.24	0	115342	115342	
8873.75	0	115582	115582	
8890.26	0	115816	115816	
8906.77	0	116046	116046	
8923.28	0	116250	116250	
8939.79	0	116474	116474	
8956.3	0	116698	116698	
8972.81	0	116860	116860	
8989.32	0	117082	117082	
9005.83	0	117260	117260	
9022.34	0	117534	117534	
9038.85	0	117830	117830	
9055.36	0	118074	118074	
9071.87	0	118268	118268	
9088.38	0	118424	118424	
9104.89	0	118612	118612	
9121.4	0	118854	118854	
9137.91	0	119106	119106	
9154.41	0	119416	119416	
9170.92	0	119648	119648	
9187.43	0	119868	119868	
9203.94	0	120058	120058	
9220.45	0	120266	120266	
9236.96	0	120498	120498	
9253.47	0	120728	120728	
9269.98	0	120934	120934	
9286.49	0	121218	121218	
9303	0	121450	121450	
9319.51	0	121696	121696	
9336.02	0	121916	121916	
9352.53	0	122160	122160	
9369.04	0	122350	122350	
9385.55	0	122614	122614	
9402.06	0	122782	122782	
9418.57	0	123044	123044	
9435.08	0	123318	123318	
9451.59	0	123534	123534	
9468.1	0	123834	123834	
9484.61	0	124112	124112	
9501.12	0	124276	124276	
9517.63	0	124544	124544	
9534.14	0	124742	124742	
9550.65	0	125016	125016	
9567.16	0	125250	125250	
9583.67	0	125514	125514	
9600.18	0	125762	125762	
9616.69	0	125996	125996	
9633.2	0	126238	126238	
9649.71	0	126438	126438	
9666.22	0	126716	126716	
9682.73	0	126954	126954	
9699.24	0	127200	127200	
9715.75	0	127462	127462	
9732.26	0	127720	127720	
9748.77	0	127952	127952	
9765.28	0	128212	128212	
9781.79	0	128456	128456	
9798.3	0	128702	128702	
9814.81	0	128940	128940	
9831.32	0	129190	129190	
9847.83	0	129452	129452	
9864.34	0	129728	129728	
9880.85	0	129990	129990	
9897.36	0	130232	130232	
9913.87	0	130506	130506	
9930.38	0	130744	130744	
9946.89	0	131010	131010	
9963.4	0	131220	131220	
9979.91	0	131456	131456	
9996.42	0	131724	131724	
10012.9	0	131998	131998	
10029.4	0	132300	132300	
10045.9	0	132580	132580	
10062.5	0	132854	132854	
10079	0	133130	133130	
10095.5	0	133430	133430	
10112	0	133622	133622	
10128.5	0	133886	133886	
10145	0	134088	134088	
10161.5	0	134306	134306	
10178	0	134586	134586	
10194.5	0	134828	134828	
10211	0	135106	135106	
10227.6	0	135388	135388	
10244.1	0	135626	135626	
10260.6	0	135880	135880	
10277.1	0	136158	136158	
10293.6	0	136422	136422	
10310.1	0	136672	136672	
10326.6	0	136900	136900	
10343.1	0	137146	137146	
10359.6	0	137330	137330	
10376.1	0	137614	137614	
10392.7	0	137868	137868	
10409.2	0	138118	138118	
10425.7	0	138368	138368	
10442.2	0	138582	138582	
10458.7	0	138840	138840	
10475.2	0	139128	139128	
10491.7	0	139462	139462	
10508.2	0	139778	139778	
10524.7	0	140020	140020	
10541.2	0	140222	140222	
10557.8	0	140448	140448	
10574.3	0	140724	140724	
10590.8	0	140908	140908	
10607.3	0	141224	141224	
10623.8	0	141454	141454	
10640.3	0	141736	141736	
10656.8	0	142038	142038	
10673.3	0	142246	142246	
10689.8	0	142484	142484	
10706.3	0	142744	142744	
10722.9	0	142994	142994	
10739.4	0	143232	143232	
10755.9	0	143442	143442	
10772.4	0	143686	143686	
10788.9	0	143946	143946	
10805.4	0	144244	144244	
10821.9	0	144524	144524	
10838.4	0	144788	144788	
10854.9	0	145062	145062	
10871.4	0	145294	145294	
10888	0	145592	145592	
10904.5	0	145834	145834	
10921	0	146120	146120	
10937.5	0	146390	146390	
10954	0	146636	146636	
10970.5	0	146852	146852	
10987	0	147112	147112	
11003.5	0	147388	147388	
11020	0	147688	147688	
11036.5	0	147952	147952	
11053.1	0	148204	148204	
11069.6	0	148488	148488	
11086.1	0	148716	148716	
11102.6	0	148948	148948	
11119.1	0	149256	149256	
11135.6	0	149520	149520	
11152.1	0	149776	149776	
11168.6	0	150094	150094	
11185.1	0	150362	150362	
11201.6	0	150640	150640	
11218.2	0	150902	150902	
11234.7	0	151124	151124	
11251.2	0	151352	151352	
11267.7	0	151618	151618	
11284.2	0	151866	151866	
11300.7	0	152064	152064	
11317.2	0	152330	152330	
11333.7	0	152546	152546	
11350.2	0	152796	152796	
11366.7	0	153062	153062	
11383.3	0	153320	153320	
11399.8	0	153598	153598	
11416.3	0	153912	153912	
11432.8	0	154154	154154	
11449.3	0	154404	154404	
11465.8	0	154702	154702	
11482.3	0	154960	154960	
11498.8	0	155178	155178	
11515.3	0	155392	155392	
11531.8	0	155634	155634	
11548.4	0	155904	155904	
11564.9	0	156300	156300	
11581.4	0	156644	156644	
11597.9	0	156976	156976	
11614.4	0	157216	157216	
11630.9	0	157476	157476	
11647.4	0	157754	157754	
11663.9	0	158044	158044	
11680.4	0	158326	158326	
11696.9	0	158542	158542	
11713.5	0	158812	158812	
11730	0	159072	159072	
11746.5	0	159294	159294	
11763	0	159540	159540	
11779.5	0	159770	159770	
11796	0	160030	160030	
11812.5	0	160304	160304	
11829	0	160632	160632	
11845.5	0	160960	160960	
11862	0	161332	161332	
11878.6	0	161704	161704	
11895.1	0	162014	162014	
11911.6	0	162298	162298	
11928.1	0	162640	162640	
11944.6	0	162980	162980	
11961.1	0	163272	163272	
11977.7	0	163514	163514	
11994.2	0	163788	163788	
12010.7	0	164044	164044	
12027.2	0	164314	164314	
12043.7	0	164692	164692	
12060.2	0	164988	164988	
12076.7	0	165280	165280	
12093.3	0	165554	165554	
12109.8	0	165810	165810	
12126.3	0	166144	166144	
12142.8	0	166464	166464	
12159.3	0	166786	166786	
12175.8	0	167052	167052	
12192.3	0	167308	167308	
12208.9	0	167548	167548	
12225.4	0	167840	167840	
12241.9	0	168186	168186	
12258.4	0	168518	168518	
12274.9	0	168820	168820	
12291.4	0	169142	169142	
12307.9	0	169456	169456	
12324.4	0	169684	169684	
12341	0	170016	170016	
12357.5	0	170370	170370	
12374	0	170688	170688	
12390.5	0	171034	171034	
12407	0	171296	171296	
12423.5	0	171592	171592	
12440	0	171896	171896	
12456.5	0	172180	172180	
12473.1	0	172510	172510	
12489.6	0	172824	172824	
12506.1	0	173196	173196	
12522.6	0	173478	173478	
12539.1	0	173770	173770	
12555.6	0	174092	174092	
12572.1	0	174394	174394	
12588.6	0	174714	174714	
12605.1	0	174986	174986	
12621.6	0	175248	175248	
12638.2	0	175484	175484	
12654.7	0	175894	175894	
12671.2	0	176202	176202	
12687.7	0	176562	176562	
12704.2	0	176890	176890	
12720.7	0	177220	177220	
12737.2	0	177402	177402	
12753.7	0	177782	177782	
12770.2	0	178100	178100	
12786.7	0	178400	178400	
12803.3	0	178696	178696	
12819.8	0	179006	179006	
12836.3	0	179292	179292	
12852.8	0	179590	179590	
12869.3	0	179948	179948	
12885.8	0	180234	180234	
12902.3	0	180524	180524	
12918.8	0	180860	180860	
12935.3	0	181156	181156	
12951.8	0	181484	181484	
12968.4	0	181822	181822	
12984.9	0	182092	182092	
13001.4	0	182446	182446	
13017.9	0	182688	182688	
13034.4	0	182968	182968	
13050.9	0	183274	183274	
13067.4	0	183678	183678	
13083.9	0	184034	184034	
13100.4	0	184364	184364	
13116.9	0	184666	184666	
13133.5	0	184972	184972	
13150	0	185258	185258	
13166.5	0	185674	185674	
13183	0	186050	186050	
13199.5	0	186378	186378	
13216	0	186760	186760	
13232.5	0	187076	187076	
13249	0	187386	187386	
13265.5	0	187722	187722	
13282	0	188102	188102	
13298.5	0	188434	188434	
13315.1	0	188766	188766	
13331.6	0	189020	189020	
13348.1	0	189308	189308	
13364.6	0	189618	189618	
13381.1	0	189958	189958	
13397.6	0	190270	190270	
13414.1	0	190578	190578	
13430.6	0	190886	190886	
13447.1	0	191230	191230	
13463.6	0	191662	191662	
13480.2	0	191948	191948	
13496.7	0	192290	192290	
13513.2	0	192628	192628	
13529.7	0	192992	192992	
13546.2	0	193390	193390	
13562.7	0	193726	193726	
13579.2	0	194160	194160	
13595.7	0	194534	194534	
13612.2	0	194846	194846	
13628.7	0	195088	195088	
13645.3	0	195328	195328	
13661.8	0	195644	195644	
13678.3	0	195966	195966	
13694.8	0	196344	196344	
13711.3	0	196722	196722	
13727.8	0	197076	197076	
13744.3	0	197438	197438	
13760.8	0	197724	197724	
13777.3	0	198088	198088	
13793.8	0	198410	198410	
13810.4	0	198712	198712	
13826.9	0	199006	199006	
13843.4	0	199286	199286	
13859.9	0	199580	199580	
13876.4	0	199874	199874	
13892.9	0	200266	200266	
13909.4	0	200734	200734	
13925.9	0	201110	201110	
13942.4	0	201462	201462	
13958.9	0	201702	201702	
13975.5	0	202016	202016	
13992	0	202364	202364	
14008.5	0	202724	202724	
14025	0	203052	203052	
14041.5	0	203400	203400	
14058	0	203648	203648	
14074.5	0	203962	203962	
14091	0	204230	204230	
14107.5	0	204648	204648	
14124	0	205024	205024	
14140.6	0	205332	205332	
14157.1	0	205688	205688	
14173.6	0	206056	206056	
14190.1	0	206344	206344	
14206.6	0	206652	206652	
14223.1	0	206962	206962	
14239.6	0	207290	207290	
14256.1	0	207650	207650	
14272.6	0	208034	208034	
14289.1	0	208306	208306	
14305.7	0	208582	208582	
14322.2	0	208960	208960	
14338.7	0	209398	209398	
14355.2	0	209702	209702	
14371.7	0	210036	210036	
14388.2	0	210356	210356	
14404.7	0	210714	210714	
14421.2	0	211070	211070	
14437.7	0	211350	211350	
14454.2	0	211658	211658	
14470.8	0	211926	211926	
14487.3	0	212212	212212	
14503.8	0	212510	212510	
14520.3	0	212890	212890	
14536.8	0	213364	213364	
14553.3	0	213760	213760	
14569.8	0	214098	214098	
14586.3	0	214466	214466	
14602.8	0	214740	214740	
14619.3	0	215064	215064	
14635.9	0	215352	215352	
14652.4	0	215674	215674	
14668.9	0	216028	216028	
14685.4	0	216346	216346	
14701.9	0	216698	216698	
14718.4	0	216988	216988	
14734.9	0	217286	217286	
14751.4	0	217646	217646	
14767.9	0	218094	218094	
14784.4	0	218490	218490	
14801	0	218796	218796	
14817.5	0	219116	219116	
14834	0	219390	219390	
14850.5	0	219674	219674	
14867	0	220022	220022	
14883.5	0	220390	220390	
14900	0	220716	220716	
14916.5	0	221086	221086	
14933	0	221418	221418	
14949.5	0	221778	221778	
14966.1	0	222170	222170	
14982.6	0	222506	222506	
14999.1	0	222874	222874	
15015.6	0	223232	223232	
15032.1	0	223606	223606	
15048.6	0	224026	224026	
15065.1	0	224432	224432	
15081.6	0	224786	224786	
15098.1	0	225138	225138	
15114.6	0	225466	225466	
15131.2	0	225740	225740	
15147.7	0	226044	226044	
15164.2	0	226368	226368	
15180.7	0	226714	226714	
15197.2	0	227220	227220	
15213.7	0	227656	227656	
15230.2	0	228162	228162	
15246.7	0	228528	228528	
15263.2	0	228870	228870	
15279.7	0	229158	229158	
15296.3	0	229460	229460	
15312.8	0	229830	229830	
15329.3	0	230240	230240	
15345.8	0	230682	230682	
15362.3	0	231092	231092	
15378.8	0	231490	231490	
15395.3	0	231892	231892	
15411.8	0	232288	232288	
15428.3	0	232660	232660	
15444.8	0	233060	233060	
15461.4	0	233478	233478	
15477.9	0	233850	233850	
15494.4	0	234160	234160	
15510.9	0	234520	234520	
15527.4	0	234862	234862	
15543.9	0	235210	235210	
15560.4	0	235620	235620	
15576.9	0	236024	236024	
15593.4	0	236446	236446	
15609.9	0	236908	236908	
15626.5	0	237338	237338	
15643	0	237682	237682	
15659.5	0	238080	238080	
15676	0	238448	238448	
15692.5	0	238802	238802	
15709	0	239166	239166	
15725.5	0	239530	239530	
15742	0	239858	239858	
15758.5	0	240156	240156	
15775	0	240528	240528	
15791.6	0	240914	240914	
15808.1	0	241312	241312	
15824.6	0	241692	241692	
15841.1	0	242110	242110	
15857.6	0	242560	242560	
15874.1	0	242958	242958	
15890.6	0	243342	243342	
15907.1	0	243650	243650	
15923.6	0	244030	244030	
15940.1	0	244376	244376	
15956.7	0	244746	244746	
15973.2	0	245060	245060	
15989.7	0	245416	245416	
16006.2	0	245824	245824	
16022.7	0	246236	246236	
16039.2	0	246634	246634	
16055.7	0	247072	247072	
16072.2	0	247408	247408	
16088.7	0	247858	247858	
16105.2	0	248262	248262	
16121.8	0	248638	248638	
16138.3	0	249024	249024	
16154.8	0	249482	249482	
16171.3	0	249796	249796	
16187.8	0	250126	250126	
16204.3	0	250516	250516	
16220.8	0	250924	250924	
16237.3	0	251330	251330	
16253.8	0	251728	251728	
16270.3	0	252108	252108	
16286.9	0	252440	252440	
16303.4	0	252848	252848	
16319.9	0	253274	253274	
16336.4	0	253640	253640	
16352.9	0	253998	253998	
16369.4	0	254296	254296	
16385.9	0	254678	254678	
16402.4	0	255018	255018	
16418.9	0	255432	255432	
16435.4	0	255822	255822	
16452	0	256208	256208	
16468.5	0	256588	256588	
16485	0	256980	256980	
16501.5	0	257334	257334	
16518	0	257744	257744	
16534.5	0	258148	258148	
16551	0	258538	258538	
16567.5	0	258948	258948	
16584	0	259420	259420	
16600.5	0	259782	259782	
16617.1	0	260172	260172	
16633.6	0	260548	260548	
16650.1	0	260912	260912	
16666.6	0	261310	261310	
16683.1	0	261712	261712	
16699.6	0	262102	262102	
16716.1	0	262462	262462	
16732.6	0	262740	262740	
16749.1	0	263134	263134	
16765.6	0	263556	263556	
16782.2	0	264006	264006	
16798.7	0	264432	264432	
16815.2	0	264780	264780	
16831.7	0	265168	265168	
16848.2	0	265606	265606	
16864.7	0	265972	265972	
16881.2	0	266336	266336	
16897.7	0	266666	266666	
16914.2	0	267134	267134	
16930.7	0	267574	267574	
16947.3	0	267978	267978	
16963.8	-4.54747e-13	268442	268442	
16980.3	-4.54747e-13	268788	268788	
16996.8	-9.09495e-13	269188	269188	
17013.3	-9.09495e-13	269602	269602	
17029.8	-1.36424e-12	269916	269916	
17046.3	-1.36424e-12	270262	270262	
17062.8	-1.81899e-12	270576	270576	
17079.3	-1.81899e-12	270982	270982	
17095.8	-2.27374e-12	271426	271426	
17112.4	-2.27374e-12	271812	271812	
17128.9	-2.72848e-12	272264	272264	
17145.4	-3.18323e-12	272668	272668	
17161.9	-3.63798e-12	273042	273042	
17178.4	-4.09273e-12	273412	273412	
17194.9	-4.54747e-12	273874	273874	
17211.4	-5.00222e-12	274366	274366	
17227.9	-5.45697e-12	274808	274808	
17244.4	-5.45697e-12	275284	275284	
17260.9	-5.91172e-12	275716	275716	
17277.5	-6.36646e-12	276070	276070	
17294	-6.82121e-12	276424	276424	
17310.5	-6.82121e-12	276878	276878	
17327	-7.27596e-12	277320	277320	
17343.5	-7.7307e-12	277828	277828	
17360	-8.18545e-12	278298	278298	
17376.5	-8.6402e-12	278738	278738	
17393	-9.09495e-12	279178	279178	
17409.5	-9.54969e-12	279608	279608	
17426	-1.00044e-11	279980	279980	
17442.6	-1.04592e-11	280372	280372	
17459.1	-1.09139e-11	280766	280766	
17475.6	-1.13687e-11	281122	281122	
17492.1	-1.18234e-11	281556	281556	
17508.6	-1.18234e-11	282033	282033	
17525.1	-1.22782e-11	282573	282573	
17541.6	-1.27329e-11	283160	283160	
17558.1	-1.31877e-11	283617	283617	
17574.6	-1.36424e-11	284015	284015	
17591.1	-1.40972e-11	284447	284447	
17607.7	-1.45519e-11	284884	284884	
17624.2	-1.50067e-11	285302	285302	
17640.7	-1.54614e-11	285728	285728	
17657.2	-1.54614e-11	286142	286142	
17673.7	-1.59162e-11	286592	286592	
17690.2	-1.63709e-11	286896	286896	
17706.7	-1.68257e-11	287219	287219	
17723.2	-1.72804e-11	287649	287649	
17739.7	-1.77351e-11	288263	288263	
17756.2	-1.81899e-11	288767	288767	
17772.8	-1.81899e-11	289327	289327	
17789.3	-1.86446e-11	289797	289797	
17805.8	-1.86446e-11	290359	290359	
17822.3	-1.90994e-11	290773	290773	
17838.8	-1.95541e-11	291161	291161	
17855.3	-2.00089e-11	291603	291603	
17871.8	-2.04636e-11	292027	292027	
17888.3	-2.09184e-11	292539	292539	
17904.8	-2.13731e-11	292897	292897	
17921.4	-2.18279e-11	293257	293257	
17937.9	-2.22826e-11	293677	293677	
17954.4	-2.27374e-11	294045	294045	
17970.9	-2.31921e-11	294415	294415	
17987.4	-2.36469e-11	294873	294873	
18003.9	-2.41016e-11	295331	295331	
18020.4	-2.45564e-11	295821	295821	
18036.9	-2.50111e-11	296227	296227	
18053.4	-2.54659e-11	296685	296685	
18069.9	-2.59206e-11	297171	297171	
18086.5	-2.63753e-11	297592	297592	
18103	-2.68301e-11	298014	298014	
18119.5	-2.72848e-11	298473	298473	
18136	-2.77396e-11	298856	298856	
18152.5	-2.81943e-11	299267	299267	
18169	-2.86491e-11	299761	299761	
18185.5	-2.91038e-11	300218	300218	
18202	-2.95586e-11	300744	300744	
18218.5	-3.00133e-11	301219	301219	
18235	-3.04681e-11	301669	301669	
18251.6	-3.09228e-11	302097	302097	
18268.1	-3.13776e-11	302493	302493	
18284.6	-3.18323e-11	302921	302921	
18301.1	-3.22871e-11	303381	303381	
18317.6	-3.27418e-11	303800	303800	
18334.1	-3.31966e-11	304288	304288	
18350.6	-3.36513e-11	304731	304731	
18367.1	-3.41061e-11	305121	305121	
18383.6	-3.45608e-11	305563	305563	
18400.1	-3.50155e-11	305983	305983	
18416.7	-3.54703e-11	306453	306453	
18433.2	-3.5925e-11	306882	306882	
18449.7	-3.63798e-11	307392	307392	
18466.2	-3.68345e-11	307894	307894	
18482.7	-3.72893e-11	308298	308298	
18499.2	-3.7744e-11	308792	308792	
18515.7	-3.81988e-11	309230	309230	
18532.2	-3.86535e-11	309547	309547	
18548.7	-3.91083e-11	310033	310033	
18565.2	-3.9563e-11	310452	310452	
18581.8	-4.00178e-11	310830	310830	
18598.3	-4.04725e-11	311200	311200	
18614.8	-4.09273e-11	311614	311614	
18631.3	-4.1382e-11	311991	311991	
18647.8	-4.18368e-11	312462	312462	
18664.3	-4.22915e-11	312924	312924	
18680.8	-4.27463e-11	313342	313342	
18697.3	-4.3201e-11	313755	313755	
18713.8	-4.36557e-11	314188	314188	
18730.3	-4.41105e-11	314673	314673	
18746.9	-4.45652e-11	315118	315118	
18763.4	-4.502e-11	315606	315606	
18779.9	-4.54747e-11	316110	316110	
18796.4	-4.59295e-11	316509	316509	
18812.9	-4.63842e-11	316940	316940	
18829.4	-4.6839e-11	317386	317386	
18845.9	-4.72937e-11	317785	317785	
18862.4	-4.77485e-11	318189	318189	
18878.9	-4.82032e-11	318659	318659	
18895.4	-4.8658e-11	319120	319120	
18912	-4.91127e-11	319564	319564	
18928.5	-4.95675e-11	319948	319948	
18945	-5.00222e-11	320336	320336	
18961.5	-5.0477e-11	320743	320743	
18978	-5.09317e-11	321227	321227	
18994.5	-5.13865e-11	321694	321694	
19011	-5.18412e-11	322180	322180	
19027.5	-5.27507e-11	322667	322667	
19044	-5.36602e-11	323077	323077	
19060.5	-5.41149e-11	323501	323501	
19077	-5.50244e-11	323975	323975	
19093.6	-5.59339e-11	324465	324465	
19110.1	-5.68434e-11	324918	324918	
19126.6	-5.77529e-11	325366	325366	
19143.1	-5.86624e-11	325828	325828	
19159.6	-5.95719e-11	326325	326325	
19176.1	-6.04814e-11	326733	326733	
19192.6	-6.13909e-11	327099	327099	
19209.1	-6.23004e-11	327524	327524	
19225.6	-6.32099e-11	327984	327984	
19242.1	-6.41194e-11	328338	328338	
19258.7	-6.50289e-11	328765	328765	
19275.2	-6.59384e-11	329135	329135	
19291.7	-6.68479e-11	329535	329535	
19308.2	-6.77574e-11	329933	329933	
19324.7	-6.86668e-11	330323	330323	
19341.2	-6.95763e-11	330800	330800	
19357.7	-7.04858e-11	331301	331301	
19374.2	-7.13953e-11	331713	331713	
19390.7	-7.27596e-11	332106	332106	
19407.2	-7.41238e-11	332501	332501	
19423.8	-7.54881e-11	332941	332941	
19440.3	-7.68523e-11	333413	333413	
19456.8	-7.82165e-11	333835	333835	
19473.3	-7.95808e-11	334241	334241	
19489.8	-8.0945e-11	334656	334656	
19506.3	-8.23093e-11	335065	335065	
19522.8	-8.36735e-11	335442	335442	
19539.3	-8.50378e-11	335823	335823	
19555.8	-8.6402e-11	336212	336212	
19572.3	-8.77662e-11	336624	336624	
19588.9	-8.91305e-11	336969	336969	
19605.4	-9.04947e-11	337391	337391	
19621.9	-9.1859e-11	337779	337779	
19638.4	-9.32232e-11	338215	338215	
19654.9	-9.50422e-11	338627	338627	
19671.4	-9.68612e-11	339036	339036	
19687.9	-9.86802e-11	339514	339514	
19704.4	-1.00499e-10	339861	339861	
19720.9	-1.02318e-10	340233	340233	
19737.5	-1.04137e-10	340541	340541	
19754	-1.05956e-10	340879	340879	
19770.5	-1.07775e-10	341181	341181	
19787	-1.09594e-10	341571	341571	
19803.5	-1.11413e-10	342016	342016	
19820	-1.13232e-10	342450	342450	
19836.5	-1.15506e-10	342880	342880	
19853	-1.1778e-10	343255	343255	
19869.5	-1.20053e-10	343667	343667	
19886	-1.22327e-10	344029	344029	
19902.6	-1.24601e-10	344423	344423	
19919.1	-1.26875e-10	344783	344783	
19935.6	-1.29148e-10	345176	345176	
19952.1	-1.31422e-10	345495	345495	
19968.6	-1.33696e-10	345695	345695	
19985.1	-1.36424e-10	346027	346027	
20001.6	-1.39153e-10	346383	346383	
20018.1	-1.41881e-10	346802	346802	
20034.6	-1.4461e-10	347277	347277	
20051.1	-1.47338e-10	347752	347752	
20067.7	-1.50067e-10	348118	348118	
20084.2	-1.52795e-10	348438	348438	
20100.7	-1.55524e-10	348744	348744	
20117.2	-1.58252e-10	349043	349043	
20133.7	-1.61435e-10	349394	349394	
20150.2	-1.64619e-10	349816	349816	
20166.7	-1.67802e-10	350215	350215	
20183.2	-1.70985e-10	350612	350612	
20199.7	-1.74168e-10	350965	350965	
20216.2	-1.77351e-10	351262	351262	
20232.8	-1.80989e-10	351560	351560	
20249.3	-1.84627e-10	351888	351888	
20265.8	-1.88265e-10	352302	352302	
20282.3	-1.91903e-10	352692	352692	
20298.8	-1.95541e-10	353049	353049	
20315.3	-1.99179e-10	353392	353392	
20331.8	-2.02817e-10	353699	353699	
20348.3	-2.0691e-10	354095	354095	
20364.8	-2.11003e-10	354601	354601	
20381.3	-2.15095e-10	355056	355056	
20397.9	-2.19188e-10	355318	355318	
20414.4	-2.23281e-10	355678	355678	
20430.9	-2.27828e-10	356032	356032	
20447.4	-2.32376e-10	356408	356408	
20463.9	-2.36923e-10	356721	356721	
20480.4	-2.41471e-10	357048	357048	
20496.9	-2.46018e-10	357409	357409	
20513.4	-2.50566e-10	357843	357843	
20529.9	-2.55568e-10	358140	358140	
20546.4	-2.6057e-10	358524	358524	
20563	-2.65572e-10	358859	358859	
20579.5	-2.70575e-10	359157	359157	
20596	-2.76032e-10	359462	359462	
20612.5	-2.81489e-10	359776	359776	
20629	-2.86946e-10	360130	360130	
20645.5	-2.92403e-10	360477	360477	
20662	-2.9786e-10	360775	360775	
20678.5	-3.03771e-10	361122	361122	
20695	-3.09683e-10	361619	361619	
20711.5	-3.15595e-10	362044	362044	
20728.1	-3.21506e-10	362635	362635	
20744.6	-3.27873e-10	363161	363161	
20761.1	-3.34239e-10	363678	363678	
20777.6	-3.40606e-10	364016	364016	
20794.1	-3.46972e-10	364447	364447	
20810.6	-3.53793e-10	364664	364664	
20827.1	-3.60615e-10	364934	364934	
20843.6	-3.67436e-10	365200	365200	
20860.1	-3.74712e-10	365604	365604	
20876.6	-3.81988e-10	365967	365967	
20893.2	-3.89264e-10	366241	366241	
20909.7	-3.9654e-10	366655	366655	
20926.2	-4.0427e-10	367024	367024	
20942.7	-4.12001e-10	367390	367390	
20959.2	-4.19732e-10	367701	367701	
20975.7	-4.27917e-10	368074	368074	
20992.2	-4.36103e-10	368573	368573	
21008.7	-4.44288e-10	369052	369052	
21025.2	-4.52928e-10	369481	369481	
21041.7	-4.61569e-10	369829	369829	
21058.3	-4.70209e-10	370197	370197	
21074.8	-4.79304e-10	370691	370691	
21091.3	-4.88399e-10	371229	371229	
21107.8	-4.97494e-10	371673	371673	
21124.3	-5.07043e-10	372069	372069	
21140.8	-5.16593e-10	372314	372314	
21157.3	-5.26143e-10	372619	372619	
21173.8	-5.36147e-10	372855	372855	
21190.3	-5.46152e-10	373316	373316	
21206.8	-5.56156e-10	373735	373735	
21223.3	-5.66615e-10	374197	374197	
21239.9	-5.77074e-10	374744	374744	
21256.4	-5.87988e-10	375208	375208	
21272.9	-5.98902e-10	375654	375654	
21289.4	-6.09816e-10	376084	376084	
21305.9	-6.21185e-10	376475	376475	
21322.4	-6.32554e-10	376843	376843	
21338.9	-6.44377e-10	377221	377221	
21355.4	-6.562e-10	377641	377641	
21371.9	-6.68024e-10	377936	377936	
21388.4	-6.80302e-10	378299	378299	
21405	-6.9258e-10	378678	378678	
21421.5	-7.05313e-10	379104	379104	
21438	-7.18046e-10	379542	379542	
21454.5	-7.31234e-10	379906	379906	
21471	-7.44421e-10	380319	380319	
21487.5	-7.58064e-10	380808	380808	
21504	-7.71706e-10	381276	381276	
21520.5	-7.85803e-10	381689	381689	
21537	-7.99901e-10	382104	382104	
21553.5	-8.14453e-10	382473	382473	
21570.1	-8.29004e-10	382830	382830	
21586.6	-8.44011e-10	383205	383205	
21603.1	-8.59018e-10	383669	383669	
21619.6	-8.74479e-10	384088	384088	
21636.1	-8.89941e-10	384507	384507	
21652.6	-9.05857e-10	384896	384896	
21669.1	-9.21773e-10	385313	385313	
21685.6	-9.38144e-10	385761	385761	
21702.1	-9.54969e-10	386143	386143	
21718.6	-9.71795e-10	386515	386515	
21735.2	-9.89075e-10	386903	386903	
21751.7	-1.00636e-09	387241	387241	
21768.2	-1.02409e-09	387660	387660	
21784.7	-1.04183e-09	388057	388057	
21801.2	-1.06002e-09	388443	388443	
21817.7	-1.07866e-09	388768	388768	
21834.2	-1.09731e-09	389134	389134	
21850.7	-1.1164e-09	389655	389655	
21867.2	-1.13596e-09	390016	390016	
21883.7	-1.15551e-09	390367	390367	
21900.3	-1.17552e-09	390729	390729	
21916.8	-1.19599e-09	391121	391121	
21933.3	-1.21645e-09	391465	391465	
21949.8	-1.23737e-09	391920	391920	
21966.3	-1.25829e-09	392307	392307	
21982.8	-1.27966e-09	392682	392682	
21999.3	-1.30149e-09	393199	393199	
22015.8	-1.32377e-09	393767	393767	
22032.3	-1.34605e-09	394096	394096	
22048.8	-1.36879e-09	394409	394409	
22065.4	-1.39198e-09	394726	394726	
22081.9	-1.41563e-09	395083	395083	
22098.4	-1.43928e-09	395489	395489	
22114.9	-1.46338e-09	395863	395863	
22131.4	-1.48793e-09	396204	396204	
22147.9	-1.51294e-09	396584	396584	
22164.4	-1.53796e-09	396977	396977	
22180.9	-1.56342e-09	397315	397315	
22197.4	-1.58934e-09	397648	397648	
22213.9	-1.61572e-09	398019	398019	
22230.5	-1.64255e-09	398375	398375	
22247	-1.66983e-09	398770	398770	
22263.5	-1.69712e-09	399225	399225	
22280	-1.72486e-09	399629	399629	
22296.5	-1.75305e-09	399995	399995	
22313	-1.7817e-09	400482	400482	
22329.5	-1.8108e-09	400942	400942	
22346	-1.84036e-09	401264	401264	
22362.5	-1.87038e-09	401676	401676	
22379	-1.90084e-09	401995	401995	
22395.6	-1.93177e-09	402407	402407	
22412.1	-1.96269e-09	402835	402835	
22428.6	-1.99407e-09	403266	403266	
22445.1	-2.02635e-09	403641	403641	
22461.6	-2.05864e-09	403924	403924	
22478.1	-2.09138e-09	404319	404319	
22494.6	-2.12503e-09	404693	404693	
22511.1	-2.15914e-09	405088	405088	
22527.6	-2.1937e-09	405410	405410	
22544.1	-2.22872e-09	405739	405739	
22560.7	-2.26419e-09	406121	406121	
22577.2	-2.30011e-09	406362	406362	
22593.7	-2.33649e-09	406735	406735	
22610.2	-2.37333e-09	407123	407123	
22626.7	-2.41062e-09	407557	407557	
22643.2	-2.44836e-09	407939	407939	
22659.7	-2.48656e-09	408337	408337	
22676.2	-2.52521e-09	408631	408631	
22692.7	-2.56432e-09	408970	408970	
22709.2	-2.60434e-09	409333	409333	
22725.8	-2.64481e-09	409723	409723	
22742.3	-2.68574e-09	410040	410040	
22758.8	-2.72712e-09	410342	410342	
22775.3	-2.76896e-09	410754	410754	
22791.8	-2.8117e-09	411060	411060	
22808.3	-2.8549e-09	411467	411467	
22824.8	-2.89856e-09	411871	411871	
22841.3	-2.94312e-09	412189	412189	
22857.8	-2.98814e-09	412492	412492	
22874.3	-3.03362e-09	412828	412828	
22890.9	-3.08e-09	413161	413161	
22907.4	-3.12684e-09	413529	413529	
22923.9	-3.17414e-09	413889	413889	
22940.4	-3.22234e-09	414227	414227	
22956.9	-3.271e-09	414702	414702	
22973.4	-3.32011e-09	415095	415095	
22989.9	-3.37013e-09	415442	415442	
23006.4	-3.42061e-09	415799	415799	
23022.9	-3.472e-09	416091	416091	
23039.4	-3.52384e-09	416509	416509	
23056	-3.57659e-09	416960	416960	
23072.5	-3.63025e-09	417225	417225	
23089	-3.68436e-09	417577	417577	
23105.5	-3.73939e-09	417858	417858	
23122	-3.79487e-09	418298	418298	
23138.5	-3.85126e-09	418747	418747	
23155	-3.9081e-09	419128	419128	
23171.5	-3.96585e-09	419488	419488	
23188	-4.02451e-09	419855	419855	
23204.6	-4.08363e-09	420142	420142	
23221.1	-4.14366e-09	420454	420454	
23237.6	-4.20459e-09	420881	420881	
23254.1	-4.26644e-09	421287	421287	
23270.6	-4.32919e-09	421641	421641	
23287.1	-4.3924e-09	422071	422071	
23303.6	-4.45652e-09	422393	422393	
23320.1	-4.52155e-09	422781	422781	
23336.6	-4.58749e-09	423168	423168	
23353.1	-4.65434e-09	423615	423615	
23369.7	-4.7221e-09	424039	424039	
23386.2	-4.79076e-09	424385	424385	
23402.7	-4.86034e-09	424753	424753	
23419.2	-4.93083e-09	425110	425110	
23435.7	-5.00222e-09	425396	425396	
23452.2	-5.07453e-09	425779	425779	
23468.7	-5.14774e-09	426107	426107	
23485.2	-5.22186e-09	426545	426545	
23501.7	-5.2969e-09	426902	426902	
23518.2	-5.37284e-09	427253	427253	
23534.8	-5.45015e-09	427698	427698	
23551.3	-5.52836e-09	428109	428109	
23567.8	-5.60749e-09	428437	428437	
23584.3	-5.68753e-09	428843	428843	
23600.8	-5.76892e-09	429236	429236	
23617.3	-5.85123e-09	429658	429658	
23633.8	-5.93491e-09	430037	430037	
23650.3	-6.01949e-09	430445	430445	
23666.8	-6.10544e-09	430796	430796	
23683.3	-6.19229e-09	431143	431143	
23699.9	-6.28052e-09	431509	431509	
23716.4	-6.36965e-09	431904	431904	
23732.9	-6.46014e-09	432257	432257	
23749.4	-6.552e-09	432726	432726	
23765.9	-6.64477e-09	433117	433117	
23782.4	-6.7389e-09	433424	433424	
23798.9	-6.8344e-09	433747	433747	
23815.4	-6.93126e-09	434120	434120	
23831.9	-7.02948e-09	434454	434454	
23848.4	-7.12907e-09	434966	434966	
23865	-7.23003e-09	435324	435324	
23881.5	-7.33235e-09	435760	435760	
23898	-7.43603e-09	436106	436106	
23914.5	-7.54108e-09	436506	436506	
23931	-7.64749e-09	436777	436777	
23947.5	-7.75572e-09	436981	436981	
23964	-7.86531e-09	437408	437408	
23980.5	-7.97627e-09	437805	437805	
23997	-8.08905e-09	438104	438104	
24013.5	-8.20319e-09	438459	438459	
24030.1	-8.31869e-09	438817	438817	
24046.6	-8.43602e-09	439121	439121	
24063.1	-8.55516e-09	439543	439543	
24079.6	-8.67567e-09	439929	439929	
24096.1	-8.798e-09	440299	440299	
24112.6	-8.92214e-09	440594	440594	
24129.1	-9.04811e-09	440986	440986	
24145.6	-9.17589e-09	441329	441329	
24162.1	-9.3055e-09	441622	441622	
24178.6	-9.43692e-09	441987	441987	
24195.2	-9.57016e-09	442206	442206	
24211.7	-9.70522e-09	442510	442510	
24228.2	-9.8421e-09	442920	442920	
24244.7	-9.98125e-09	443248	443248	
24261.2	-1.01222e-08	443508	443508	
24277.7	-1.02655e-08	443907	443907	
24294.2	-1.04105e-08	444232	444232	
24310.7	-1.05579e-08	444484	444484	
24327.2	-1.07075e-08	444826	444826	
24343.7	-1.08594e-08	445178	445178	
24360.3	-1.10135e-08	445581	445581	
24376.8	-1.11695e-08	446040	446040	
24393.3	-1.13282e-08	446460	446460	
24409.8	-1.14892e-08	446853	446853	
24426.3	-1.16524e-08	447164	447164	
24442.8	-1.1818e-08	447467	447467	
24459.3	-1.19862e-08	447833	447833	
24475.8	-1.21572e-08	448167	448167	
24492.3	-1.23305e-08	448505	448505	
24508.8	-1.25065e-08	448926	448926	
24525.4	-1.26852e-08	449247	449247	
24541.9	-1.28666e-08	449515	449515	
24558.4	-1.30508e-08	449860	449860	
24574.9	-1.32377e-08	450226	450226	
24591.4	-1.34273e-08	450606	450606	
24607.9	-1.36201e-08	451013	451013	
24624.4	-1.38157e-08	451409	451409	
24640.9	-1.40144e-08	451707	451707	
24657.4	-1.42163e-08	452058	452058	
24673.9	-1.44214e-08	452436	452436	
24690.5	-1.46297e-08	452849	452849	
24707	-1.48411e-08	453194	453194	
24723.5	-1.50558e-08	453485	453485	
24740	-1.52741e-08	453700	453700	
24756.5	-1.54955e-08	454015	454015	
24773	-1.57206e-08	454334	454334	
24789.5	-1.59494e-08	454648	454648	
24806	-1.61817e-08	455040	455040	
24822.5	-1.64177e-08	455420	455420	
24839	-1.66579e-08	455803	455803	
24855.6	-1.69016e-08	456177	456177	
24872.1	-1.71494e-08	456558	456558	
24888.6	-1.74009e-08	456939	456939	
24905.1	-1.76565e-08	457324	457324	
24921.6	-1.79166e-08	457594	457594	
24938.1	-1.81808e-08	458027	458027	
24954.6	-1.84491e-08	458434	458434	
24971.1	-1.87219e-08	458824	458824	
24987.6	-1.89993e-08	459176	459176	
25004.1	-1.92813e-08	459584	459584	
25020.7	-1.95678e-08	459987	459987	
25037.2	-1.98593e-08	460419	460419	
25053.7	-2.01553e-08	460729	460729	
25070.2	-2.04564e-08	460977	460977	
25086.7	-2.07624e-08	461175	461175	
25103.2	-2.10734e-08	461531	461531	
25119.7	-2.139e-08	461842	461842	
25136.2	-2.17119e-08	462188	462188	
25152.7	-2.20389e-08	462479	462479	
25169.2	-2.23718e-08	462866	462866	
25185.8	-2.27101e-08	463453	463453	
25202.3	-2.30539e-08	463936	463936	
25218.8	-2.34036e-08	464344	464344	
25235.3	-2.37592e-08	464703	464703	
25251.8	-2.41212e-08	465132	465132	
25268.3	-2.44891e-08	465566	465566	
25284.8	-2.48633e-08	465975	465975	
25301.3	-2.52439e-08	466440	466440	
25317.8	-2.56314e-08	466767	466767	
25334.3	-2.60252e-08	467098	467098	
25350.9	-2.64258e-08	467496	467496	
25367.4	-2.68333e-08	467855	467855	
25383.9	-2.7248e-08	468249	468249	
25400.4	-2.767e-08	468600	468600	
25416.9	-2.80993e-08	468949	468949	
25433.4	-2.85359e-08	469214	469214	
25449.9	-2.89801e-08	469533	469533	
25466.4	-2.94322e-08	469896	469896	
25482.9	-2.98919e-08	470223	470223	
25499.4	-3.03598e-08	470628	470628	
25516	-3.0836e-08	470956	470956	
25532.5	-3.13203e-08	471356	471356	
25549	-3.18132e-08	471792	471792	
25565.5	-3.23148e-08	472237	472237	
25582	-3.2825e-08	472731	472731	
25598.5	-3.33443e-08	473167	473167	
25615	-3.38728e-08	473640	473640	
25631.5	-3.44107e-08	474025	474025	
25648	-3.49578e-08	474335	474335	
25664.5	-3.55149e-08	474569	474569	
25681.1	-3.60815e-08	474925	474925	
25697.6	-3.66585e-08	475278	475278	
25714.1	-3.72456e-08	475654	475654	
25730.6	-3.78432e-08	475994	475994	
25747.1	-3.84512e-08	476469	476469	
25763.6	-3.90701e-08	476882	476882	
25780.1	-3.96999e-08	477142	477142	
25796.6	-4.03411e-08	477446	477446	
25813.1	-4.09937e-08	477780	477780	
25829.6	-4.1658e-08	478210	478210	
25846.2	-4.23342e-08	478578	478578	
25862.7	-4.30223e-08	479042	479042	
25879.2	-4.37226e-08	479305	479305	
25895.7	-4.44356e-08	479639	479639	
25912.2	-4.51614e-08	479890	479890	
25928.7	-4.58999e-08	480173	480173	
25945.2	-4.66521e-08	480560	480560	
25961.7	-4.74174e-08	480893	480893	
25978.2	-4.81964e-08	481312	481312	
25994.7	-4.89895e-08	481678	481678	
26011.3	-4.97967e-08	482073	482073	
26027.8	-5.06184e-08	482408	482408	
26044.3	-5.14547e-08	482779	482779	
26060.8	-5.23059e-08	483226	483226	
26077.3	-5.31727e-08	483646	483646	
26093.8	-5.40549e-08	484034	484034	
26110.3	-5.4953e-08	484298	484298	
26126.8	-5.58671e-08	484597	484597	
26143.3	-5.67975e-08	485045	485045	
26159.8	-5.77447e-08	485453	485453	
26176.4	-5.87088e-08	485862	485862	
26192.9	-5.96901e-08	486235	486235	
26209.4	-6.06892e-08	486611	486611	
26225.9	-6.1706e-08	486883	486883	
26242.4	-6.2741e-08	487086	487086	
26258.9	-6.37947e-08	487409	487409	
26275.4	-6.48674e-08	487821	487821	
26291.9	-6.59593e-08	488074	488074	
26308.4	-6.70707e-08	488351	488351	
26324.9	-6.82016e-08	488705	488705	
26341.5	-6.93531e-08	489088	489088	
26358	-7.05249e-08	489371	489371	
26374.5	-7.17177e-08	489798	489798	
26391	-7.29315e-08	490149	490149	
26407.5	-7.4167e-08	490515	490515	
26424	-7.54244e-08	490894	490894	
26440.5	-7.67045e-08	491285	491285	
26457	-7.80074e-08	491610	491610	
26473.5	-7.93334e-08	491948	491948	
26490	-8.06826e-08	492233	492233	
26506.6	-8.2056e-08	492664	492664	
26523.1	-8.34539e-08	493103	493103	
26539.6	-8.48763e-08	493431	493431	
26556.1	-8.63238e-08	493738	493738	
26572.6	-8.77972e-08	494057	494057	
26589.1	-8.92965e-08	494387	494387	
26605.6	-9.08221e-08	494793	494793	
26622.1	-9.23751e-08	495238	495238	
26638.6	-9.39554e-08	495555	495555	
26655.1	-9.55633e-08	495885	495885	
26671.7	-9.71995e-08	496216	496216	
26688.2	-9.88643e-08	496610	496610	
26704.7	-1.00559e-07	496959	496959	
26721.2	-1.02283e-07	497478	497478	
26737.7	-1.04037e-07	497950	497950	
26754.2	-1.05822e-07	498436	498436	
26770.7	-1.07637e-07	498897	498897	
26787.2	-1.09485e-07	499306	499306	
26803.7	-1.11365e-07	499761	499761	
26820.2	-1.13278e-07	500010	500010	
26836.8	-1.15223e-07	500486	500486	
26853.3	-1.17203e-07	500933	500933	
26869.8	-1.19217e-07	501325	501325	
26886.3	-1.21266e-07	501780	501780	
26902.8	-1.2335e-07	502268	502268	
26919.3	-1.2547e-07	502664	502664	
26935.8	-1.27627e-07	503165	503165	
26952.3	-1.29821e-07	503656	503656	
26968.8	-1.32053e-07	504117	504117	
26985.3	-1.34323e-07	504486	504486	
27001.9	-1.36632e-07	504865	504865	
27018.4	-1.3898e-07	505232	505232	
27034.9	-1.41369e-07	505628	505628	
27051.4	-1.43798e-07	506033	506033	
27067.9	-1.46269e-07	506494	506494	
27084.4	-1.48782e-07	506814	506814	
27100.9	-1.51338e-07	507301	507301	
27117.4	-1.53937e-07	507703	507703	
27133.9	-1.5658e-07	508127	508127	
27150.4	-1.59268e-07	508577	508577	
27167	-1.62001e-07	509094	509094	
27183.5	-1.6478e-07	509578	509578	
27200	-1.67606e-07	510065	510065	
27216.5	-1.70479e-07	510635	510635	
27233	-1.73401e-07	511134	511134	
27249.5	-1.76372e-07	511470	511470	
27266	-1.79392e-07	511901	511901	
27282.5	-1.82463e-07	512378	512378	
27299	-1.85585e-07	512802	512802	
27315.5	-1.88758e-07	513174	513174	
27332.1	-1.91985e-07	513605	513605	
27348.6	-1.95265e-07	514013	514013	
27365.1	-1.98599e-07	514356	514356	
27381.6	-2.01988e-07	514722	514722	
27398.1	-2.05433e-07	515125	515125	
27414.6	-2.08935e-07	515531	515531	
27431.1	-2.12494e-07	515936	515936	
27447.6	-2.16112e-07	516337	516337	
27464.1	-2.19788e-07	516712	516712	
27480.6	-2.23525e-07	517111	517111	
27497.2	-2.27323e-07	517539	517539	
27513.7	-2.31182e-07	517949	517949	
27530.2	-2.35104e-07	518324	518324	
27546.7	-2.39089e-07	518777	518777	
27563.2	-2.43139e-07	519140	519140	
27579.7	-2.47253e-07	519492	519492	
27596.2	-2.51434e-07	519836	519836	
27612.7	-2.55682e-07	520268	520268	
27629.2	-2.59998e-07	520575	520575	
27645.7	-2.64383e-07	520899	520899	
27662.3	-2.68838e-07	521285	521285	
27678.8	-2.73363e-07	521582	521582	
27695.3	-2.77961e-07	521773	521773	
27711.8	-2.82631e-07	522071	522071	
27728.3	-2.87375e-07	522329	522329	
27744.8	-2.92194e-07	522655	522655	
27761.3	-2.97089e-07	522998	522998	
27777.8	-3.02061e-07	523385	523385	
27794.3	-3.07111e-07	523679	523679	
27810.8	-3.1224e-07	524139	524139	
27827.4	-3.17451e-07	524590	524590	
27843.9	-3.22742e-07	524861	524861	
27860.4	-3.28116e-07	525139	525139	
27876.9	-3.33573e-07	525518	525518	
27893.4	-3.39116e-07	525971	525971	
27909.9	-3.44744e-07	526232	526232	
27926.4	-3.5046e-07	526470	526470	
27942.9	-3.56264e-07	526849	526849	
27959.4	-3.62157e-07	527137	527137	
27976	-3.68142e-07	527305	527305	
27992.5	-3.74218e-07	527539	527539	
28009	-3.80388e-07	527897	527897	
28025.5	-3.86652e-07	528178	528178	
28042	-3.93011e-07	528467	528467	
28058.5	-3.99469e-07	528727	528727	
28075	-4.06024e-07	529016	529016	
28091.5	-4.12679e-07	529343	529343	
28108.1	-4.19433e-07	529723	529723	
28124.6	-4.26289e-07	530248	530248	
28141.1	-4.33247e-07	530715	530715	
28157.6	-4.40306e-07	531009	531009	
28174.1	-4.4747e-07	531392	531392	
28190.6	-4.5474e-07	531793	531793	
28207.1	-4.62116e-07	532118	532118	
28223.6	-4.696e-07	532588	532588	
28240.1	-4.77194e-07	532873	532873	
28256.7	-4.84899e-07	533168	533168	
28273.2	-4.92716e-07	533393	533393	
28289.7	-5.00646e-07	533462	533462	
28306.2	-5.08692e-07	533664	533664	
28322.7	-5.16854e-07	533886	533886	
28339.2	-5.25136e-07	534256	534256	
28355.7	-5.33539e-07	534597	534597	
28372.2	-5.42064e-07	535060	535060	
28388.7	-5.50714e-07	535448	535448	
28405.2	-5.59491e-07	535903	535903	
28421.8	-5.68398e-07	536436	536436	
28438.3	-5.77436e-07	536845	536845	
28454.8	-5.86608e-07	537276	537276	
28471.3	-5.95917e-07	537613	537613	
28487.8	-6.05365e-07	537851	537851	
28504.3	-6.14954e-07	538040	538040	
28520.8	-6.24689e-07	538283	538283	
28537.3	-6.34571e-07	538463	538463	
28553.8	-6.44604e-07	538634	538634	
28570.3	-6.54789e-07	538928	538928	
28586.9	-6.65129e-07	539262	539262	
28603.4	-6.75624e-07	539643	539643	
28619.9	-6.86274e-07	540102	540102	
28636.4	-6.97078e-07	540511	540511	
28652.9	-7.08036e-07	540813	540813	
28669.4	-7.19146e-07	541207	541207	
28685.9	-7.30406e-07	541653	541653	
28702.4	-7.41813e-07	541999	541999	
28718.9	-7.53364e-07	542385	542385	
28735.4	-7.65058e-07	542710	542710	
28752	-7.76892e-07	543009	543009	
28768.5	-7.88866e-07	543263	543263	
28785	-8.00978e-07	543579	543579	
28801.5	-8.13229e-07	543899	543899	
28818	-8.25619e-07	544308	544308	
28834.5	-8.38151e-07	544626	544626	
28851	-8.50826e-07	544927	544927	
28867.5	-8.63648e-07	545391	545391	
28884	-8.76621e-07	545823	545823	
28900.5	-8.89751e-07	546057	546057	
28917.1	-9.03044e-07	546435	546435	
28933.6	-9.16506e-07	546892	546892	
28950.1	-9.30147e-07	547202	547202	
28966.6	-9.43975e-07	547543	547543	
28983.1	-9.58e-07	547945	547945	
28999.6	-9.72234e-07	548413	548413	
29016.1	-9.86656e-07	548840	548840	
29032.6	-1.00128e-06	549232	549232	
29049.1	-1.01613e-06	549680	549680	
29065.6	-1.03123e-06	550135	550135	
29082.2	-1.04659e-06	550516	550516	
29098.7	-1.06271e-06	550862	550862	
29115.2	-1.07931e-06	551189	551189	
29131.7	-1.09638e-06	551346	551346	
29148.2	-1.1139e-06	551759	551759	
29164.7	-1.13182e-06	552028	552028	
29181.2	-1.15013e-06	552455	552455	
29197.7	-1.1688e-06	552865	552865	
29214.2	-1.1878e-06	553153	553153	
29230.7	-1.20713e-06	553501	553501	
29247.3	-1.22677e-06	553920	553920	
29263.8	-1.24673e-06	554268	554268	
29280.3	-1.267e-06	554628	554628	
29296.8	-1.28761e-06	554983	554983	
29313.3	-1.30857e-06	555382	555382	
29329.8	-1.32989e-06	555809	555809	
29346.3	-1.3516e-06	556183	556183	
29362.8	-1.37374e-06	556632	556632	
29379.3	-1.39632e-06	557114	557114	
29395.8	-1.39003e-06	557505	557505	
29412.4	-1.38673e-06	557903	557903	
29428.9	-1.38638e-06	558305	558305	
29445.4	-1.38877e-06	558613	558613	
29461.9	-1.39369e-06	558960	558960	
29478.4	-1.40097e-06	559358	559358	
29494.9	-1.41046e-06	559792	559792	
29511.4	-1.42201e-06	560136	560136	
29527.9	-1.43552e-06	560381	560381	
29544.4	-1.45214e-06	560582	560582	
29560.9	-1.46974e-06	560881	560881	
29577.5	-1.48828e-06	561120	561120	
29594	-1.50772e-06	561551	561551	
29610.5	-1.52806e-06	561953	561953	
29627	-1.54931e-06	562377	562377	
29643.5	-1.57147e-06	562815	562815	
29660	-1.59458e-06	563066	563066	
29676.5	-1.61866e-06	563403	563403	
29693	-1.64374e-06	563640	563640	
29709.5	-1.66985e-06	564015	564015	
29726	-1.697e-06	564352	564352	
29742.6	-1.72524e-06	564665	564665	
29759.1	-1.75457e-06	564925	564925	
29775.6	-1.78501e-06	565157	565157	
29792.1	-1.8166e-06	565476	565476	
29808.6	-1.84934e-06	565767	565767	
29825.1	-1.88325e-06	566148	566148	
29841.6	-1.91836e-06	566536	566536	
29858.1	-1.95468e-06	566945	566945	
29874.6	-1.99222e-06	567352	567352	
29891.1	-2.03109e-06	567775	567775	
29907.7	-2.06964e-06	568126	568126	
29924.2	-2.10848e-06	568478	568478	
29940.7	-2.14806e-06	568802	568802	
29957.2	-2.18872e-06	569048	569048	
29973.7	-2.27372e-06	569313	569313	
29990.2	-2.34816e-06	569596	569596	
30006.7	-2.41849e-06	569969	569969	
30023.2	-2.48643e-06	570348	570348	
30039.7	-2.55299e-06	570744	570744	
30056.2	-2.61795e-06	571241	571241	
30072.8	-2.68196e-06	571658	571658	
30089.3	-2.74569e-06	571930	571930	
30105.8	-2.80971e-06	572265	572265	
30122.3	-2.87453e-06	572568	572568	
30138.8	-2.94068e-06	572878	572878	
30155.3	-3.00865e-06	573069	573069	
30171.8	-3.07884e-06	573413	573413	
30188.3	-3.15162e-06	573602	573602	
30204.8	-3.22727e-06	573831	573831	
30221.3	-3.30601e-06	574138	574138	
30237.9	-3.38807e-06	574508	574508	
30254.4	-3.47364e-06	574847	574847	
30270.9	-3.56294e-06	575260	575260	
30287.4	-3.65621e-06	575649	575649	
30303.9	-3.75369e-06	576031	576031	
30320.4	-3.84979e-06	576430	576430	
30336.9	-3.94915e-06	576840	576840	
30353.4	-4.05097e-06	577237	577237	
30369.9	-4.15597e-06	577628	577628	
30386.4	-4.26533e-06	577861	577861	
30403	-4.38017e-06	578262	578262	
30419.5	-4.50093e-06	578517	578517	
30436	-4.62782e-06	578713	578713	
30452.5	-4.76144e-06	578932	578932	
30469	-4.91004e-06	579140	579140	
30485.5	-4.92057e-06	579492	579492	
30502	-4.99784e-06	579908	579908	
30518.5	-5.11732e-06	580241	580241	
30535	-5.26558e-06	580642	580642	
30551.5	-5.40379e-06	581069	581069	
30568.1	-5.54721e-06	581370	581370	
30584.6	-5.70471e-06	581908	581908	
30601.1	-5.87981e-06	582278	582278	
30617.6	-6.07335e-06	582733	582733	
30634.1	-6.28486e-06	582970	582970	
30650.6	-6.51339e-06	583349	583349	
30667.1	-6.75775e-06	583595	583595	
30683.6	-7.01491e-06	583858	583858	
30700.1	-7.28062e-06	584252	584252	
30716.6	-7.55272e-06	584470	584470	
30733.2	-7.83198e-06	584846	584846	
30749.7	-8.12009e-06	585276	585276	
30766.2	-8.41927e-06	585694	585694	
30782.7	-8.72789e-06	586108	586108	
30799.2	-9.03963e-06	586500	586500	
30815.7	-9.37543e-06	586878	586878	
30832.2	-9.23573e-06	587241	587241	
30848.7	-9.29362e-06	587589	587589	
30865.2	-9.49919e-06	588005	588005	
30881.7	-9.81635e-06	588464	588464	
30898.3	-1.02356e-05	588936	588936	
30914.8	-1.06662e-05	589289	589289	
30931.3	-1.11296e-05	589570	589570	
30947.8	-1.16354e-05	589885	589885	
30964.3	-1.22005e-05	590188	590188	
30980.8	-1.28267e-05	590525	590525	
30997.3	-1.34091e-05	590796	590796	
31013.8	-1.50525e-05	591290	591290	
31030.3	-1.62253e-05	591531	591531	
31046.8	-1.73667e-05	591990	591990	
31063.4	-1.85396e-05	592384	592384	
31079.9	-1.97983e-05	592807	592807	
31096.4	-2.11209e-05	593189	593189	
31112.9	-2.24814e-05	593497	593497	
31129.4	-2.38624e-05	593809	593809	
31145.9	-2.52489e-05	594206	594206	
31162.4	-2.6659e-05	594695	594695	
31178.9	-2.80879e-05	595078	595078	
31195.4	-2.95432e-05	595406	595406	
31211.9	-3.10319e-05	595552	595552	
31228.5	-3.256e-05	595859	595859	
31245	-3.41331e-05	596215	596215	
31261.5	-3.5757e-05	596520	596520	
31278	-3.74363e-05	596714	596714	
31294.5	-3.9174e-05	596959	596959	
31311	-4.09699e-05	597180	597180	
31327.5	-4.28195e-05	597624	597624	
31344	-4.47173e-05	598040	598040	
31360.5	-4.66574e-05	598502	598502	
31377	-4.86344e-05	598896	598896	
31393.6	-5.06434e-05	599351	599351	
31410.1	-5.26817e-05	599707	599707	
31426.6	-5.47497e-05	600096	600096	
31443.1	-5.68492e-05	600251	600251	
31459.6	-5.8982e-05	600469	600469	
31476.1	-6.11494e-05	600763	600763	
31492.6	-6.33512e-05	600966	600966	
31509.1	-6.55863e-05	601248	601248	
31525.6	-6.78519e-05	601404	601404	
31542.1	-7.01443e-05	601752	601752	
31558.7	-7.24584e-05	601980	601980	
31575.2	-7.47881e-05	602275	602275	
31591.7	-7.71265e-05	602717	602717	
31608.2	-7.9466e-05	603224	603224	
31624.7	-8.17987e-05	603659	603659	
31641.2	-8.41168e-05	603992	603992	
31657.7	-8.64127e-05	604356	604356	
31674.2	-8.86789e-05	604741	604741	
31690.7	-9.09076e-05	605101	605101	
31707.2	-9.30911e-05	605550	605550	
31723.8	-9.52209e-05	605904	605904	
31740.3	-9.72878e-05	606193	606193	
31756.8	-9.92818e-05	606553	606553	
31773.3	-0.000101192	606832	606832	
31789.8	-0.000103006	607096	607096	
31806.3	-0.000104713	607368	607368	
31822.8	-0.000106299	607651	607651	
31839.3	-0.00010775	607728	607728	
31855.8	-0.000109055	608004	608004	
31872.3	-0.000110204	608359	608359	
31888.9	-0.000111192	608723	608723	
31905.4	-0.000112007	609152	609152	
31921.9	-0.000112638	609721	609721	
31938.4	-0.000113074	610138	610138	
31954.9	-0.000113312	610464	610464	
31971.4	-0.00011327	610771	610771	
31987.9	-0.000113044	611180	611180	
32004.4	-0.000112638	611358	611358	
32020.9	-0.000112026	611650	611650	
32037.4	-0.000111192	611974	611974	
32054	-0.000110582	612331	612331	
32070.5	-0.000109653	612754	612754	
32087	-0.000108458	613147	613147	
32103.5	-0.000107019	613502	613502	
32120	-0.000105341	613842	613842	
32136.5	-0.000103401	614202	614202	
32153	-0.000100727	614455	614455	
32169.5	-9.83583e-05	614679	614679	
32186	-9.5998e-05	614982	614982	
32202.5	-9.30019e-05	615285	615285	
32219.1	-8.92673e-05	615622	615622	
32235.6	-8.49261e-05	615938	615938	
32252.1	-7.98827e-05	616357	616357	
32268.6	-7.40066e-05	616730	616730	
32285.1	-6.12122e-05	617072	617072	
32301.6	-4.99314e-05	617470	617470	
32318.1	-3.8551e-05	617859	617859	
32334.6	-2.67506e-05	618188	618188	
32351.1	-1.42097e-05	618568	618568	
32367.6	-7.48691e-07	619013	619013	
32384.2	1.37074e-05	619409	619409	
32400.7	2.93047e-05	619810	619810	
32417.2	4.60555e-05	620198	620198	
32433.7	6.39369e-05	620613	620613	
32450.2	8.30354e-05	620941	620941	
32466.7	0.000103467	621233	621233	
32483.2	0.00012534	621543	621543	
32499.7	0.000148755	621826	621826	
32516.2	0.000173731	622127	622127	
32532.7	0.000200339	622443	622443	
32549.3	0.000228662	622847	622847	
32565.8	0.000258785	623141	623141	
32582.3	0.000290772	623624	623624	
32598.8	0.000324667	624126	624126	
32615.3	0.000360503	624473	624473	
32631.8	0.000398318	624801	624801	
32648.3	0.000438155	625076	625076	
32664.8	0.000480071	625420	625420	
32681.3	0.000524138	625847	625847	
32697.8	0.000570435	626132	626132	
32714.4	0.000619053	626545	626545	
32730.9	0.000670085	627006	627006	
32747.4	0.000723633	627450	627450	
32763.9	0.000779799	627803	627803	
32780.4	0.000838681	628146	628146	
32796.9	0.000900375	628425	628425	
32813.4	0.000964972	628870	628870	
32829.9	0.00103256	629185	629185	
32846.4	0.00110321	629438	629438	
32862.9	0.001177	629694	629694	
32879.5	0.00125402	629904	629904	
32896	0.00133434	630304	630304	
32912.5	0.00141805	630612	630612	
32929	0.00150522	630960	630960	
32945.5	0.00159595	631409	631409	
32962	0.00169032	631802	631802	
32978.5	0.00178842	632149	632149	
32995	0.00189035	632454	632454	
33011.5	0.00199618	632781	632781	
33028	0.00210602	633301	633301	
33044.6	0.00221994	633626	633626	
33061.1	0.00233803	634035	634035	
33077.6	0.00246038	634373	634373	
33094.1	0.00258706	634737	634737	
33110.6	0.00271817	635125	635125	
33127.1	0.00285378	635497	635497	
33143.6	0.00299397	635834	635834	
33160.1	0.00313881	636293	636293	
33176.6	0.00328838	636683	636683	
33193.2	0.00344274	637123	637123	
33209.7	0.00360197	637680	637680	
33226.2	0.00376613	638109	638109	
33242.7	0.00393529	638439	638439	
33259.2	0.00410951	638866	638866	
33275.7	0.00428884	639317	639317	
33292.2	0.00447335	639689	639689	
33308.7	0.00466307	640073	640073	
33325.2	0.00485808	640572	640572	
33341.7	0.00505839	640845	640845	
33358.3	0.00526407	641361	641361	
33374.8	0.00547513	641786	641786	
33391.3	0.00569163	642133	642133	
33407.8	0.00591357	642535	642535	
33424.3	0.00614098	642978	642978	
33440.8	0.00637388	643370	643370	
33457.3	0.00661228	643822	643822	
33473.8	0.00685619	644146	644146	
33490.3	0.00710561	644626	644626	
33506.8	0.00736053	645120	645120	
33523.4	0.00762095	645489	645489	
33539.9	0.00788685	645960	645960	
33556.4	0.00815822	646386	646386	
33572.9	0.00843502	646724	646724	
33589.4	0.00871721	647190	647190	
33605.9	0.00900478	647604	647604	
33622.4	0.00929765	648010	648010	
33638.9	0.0095958	648408	648408	
33655.4	0.00989915	648863	648863	
33671.9	0.0102076	649183	649183	
33688.5	0.0105212	649554	649554	
33705	0.0108398	649968	649968	
33721.5	0.0111632	650544	650544	
33738	0.0114915	650893	650893	
33754.5	0.0118245	651195	651195	
33771	0.0121621	651490	651490	
33787.5	0.0125042	651765	651765	
33804	0.0128507	652193	652193	
33820.5	0.0132014	652517	652517	
33837	0.0135563	652945	652945	
33853.6	0.0139151	653323	653323	
33870.1	0.0142778	653703	653703	
33886.6	0.0146441	653990	653990	
33903.1	0.0150139	654368	654368	
33919.6	0.0153871	654842	654842	
33936.1	0.0157634	655257	655257	
33952.6	0.0161427	655691	655691	
33969.1	0.0165248	656047	656047	
33985.6	0.0169095	656456	656456	
34002.1	0.0172966	656851	656851	
34018.7	0.0176858	657161	657161	
34035.2	0.018077	657515	657515	
34051.7	0.0184699	657828	657828	
34068.2	0.0188644	658052	658052	
34084.7	0.0192601	658385	658385	
34101.2	0.0196568	658720	658720	
34117.7	0.0200544	659022	659022	
34134.2	0.0204525	659255	659255	
34150.7	0.0208509	659608	659608	
34167.2	0.0212493	660000	660000	
34183.8	0.0216475	660341	660341	
34200.3	0.0220452	660740	660740	
34216.8	0.0224421	661203	661203	
34233.3	0.0228379	661548	661548	
34249.8	0.0232325	661767	661767	
34266.3	0.0236254	662033	662033	
34282.8	0.0240165	662427	662427	
34299.3	0.0244054	662802	662802	
34315.8	0.0247918	663162	663162	
34332.3	0.0251755	663355	663355	
34348.9	0.0255561	663667	663667	
34365.4	0.0259334	663893	663893	
34381.9	0.0263071	664163	664163	
34398.4	0.0266768	664513	664513	
34414.9	0.0270423	664777	664777	
34431.4	0.0274033	665077	665077	
34447.9	0.0277596	665401	665401	
34464.4	0.0281107	665881	665881	
34480.9	0.0284564	666244	666244	
34497.4	0.0287965	666637	666637	
34514	0.0291306	666901	666901	
34530.5	0.0294585	667287	667287	
34547	0.0297798	667640	667640	
34563.5	0.0300943	667946	667946	
34580	0.0304018	668187	668187	
34596.5	0.0307019	668572	668572	
34613	0.0309944	668836	668836	
34629.5	0.031279	669188	669188	
34646	0.0315555	669540	669540	
34662.5	0.0318237	669875	669875	
34679.1	0.0320832	670190	670190	
34695.6	0.0323338	670559	670559	
34712.1	0.0325753	671128	671128	
34728.6	0.0328075	671610	671610	
34745.1	0.0330302	671984	671984	
34761.6	0.0332431	672465	672465	
34778.1	0.033446	672788	672788	
34794.6	0.0336388	672946	672946	
34811.1	0.0338212	673267	673267	
34827.6	0.0339931	673679	673679	
34844.2	0.0341542	673845	673845	
34860.7	0.0343046	674258	674258	
34877.2	0.0344439	674542	674542	
34893.7	0.034572	674982	674982	
34910.2	0.0346888	675398	675398	
34926.7	0.0347942	676018	676018	
34943.2	0.0348881	676423	676423	
34959.7	0.0349702	676871	676871	
34976.2	0.0350407	677379	677379	
34992.7	0.0350993	677868	677868	
35009.3	0.035146	678166	678166	
35025.8	0.0351807	678489	678489	
35042.3	0.0352034	678845	678845	
35058.8	0.035214	679194	679194	
35075.3	0.0352125	679694	679694	
35091.8	0.0351988	679985	679985	
35108.3	0.035173	680387	680387	
35124.8	0.0351351	680837	680837	
35141.3	0.035085	681283	681283	
35157.8	0.0350228	681760	681760	
35174.4	0.0349486	682139	682139	
35190.9	0.0348622	682568	682568	
35207.4	0.0347639	682993	682993	
35223.9	0.0346536	683316	683316	
35240.4	0.0345315	683768	683768	
35256.9	0.0343976	684186	684186	
35273.4	0.034252	684467	684467	
35289.9	0.0340949	684937	684937	
35306.4	0.0339262	685299	685299	
35322.9	0.0337462	685470	685470	
35339.5	0.033555	685695	685695	
35356	0.0333528	686089	686089	
35372.5	0.0331396	686443	686443	
35389	0.0329157	686802	686802	
35405.5	0.0326812	687095	687095	
35422	0.0324362	687662	687662	
35438.5	0.0321811	688064	688064	
35455	0.031916	688616	688616	
35471.5	0.031641	689005	689005	
35488.1	0.0313563	689327	689327	
35504.6	0.0310624	689692	689692	
35521.1	0.0307592	689879	689879	
35537.6	0.0304471	690249	690249	
35554.1	0.0301263	690575	690575	
35570.6	0.0297971	690871	690871	
35587.1	0.0294597	691081	691081	
35603.6	0.0291143	691454	691454	
35620.1	0.0287613	691795	691795	
35636.7	0.0284008	692245	692245	
35653.2	0.0280332	692702	692702	
35669.7	0.0276587	693046	693046	
35686.2	0.0272777	693502	693502	
35702.7	0.0268903	693878	693878	
35719.2	0.026497	694362	694362	
35735.7	0.0260979	694798	694798	
35752.2	0.0256933	695194	695194	
35768.7	0.0252837	695419	695419	
35785.2	0.0248691	695858	695858	
35801.8	0.0244501	696180	696180	
35818.3	0.0240267	696592	696592	
35834.8	0.0235994	697024	697024	
35851.3	0.0231685	697409	697409	
35867.8	0.0227341	697836	697836	
35884.3	0.0222967	698142	698142	
35900.8	0.0218565	698549	698549	
35917.3	0.0214138	698880	698880	
35933.8	0.0209689	699256	699256	
35950.3	0.020522	699634	699634	
35966.9	0.0200735	700101	700101	
35983.4	0.0196237	700359	700359	
35999.9	0.0191728	700605	700605	
36016.4	0.0187211	700958	700958	
36032.9	0.0182688	701248	701248	
36049.4	0.0178164	701603	701603	
36065.9	0.0173639	702246	702246	
36082.4	0.0169117	702703	702703	
36098.9	0.0164601	703195	703195	
36115.4	0.0160094	703578	703578	
36132	0.0155597	703896	703896	
36148.5	0.0151113	704327	704327	
36165	0.0146645	704778	704778	
36181.5	0.0142196	705142	705142	
36198	0.0137767	705648	705648	
36214.5	0.0133362	706057	706057	
36231	0.0128983	706543	706543	
36247.5	0.0124631	706894	706894	
36264	0.0120311	707276	707276	
36280.5	0.0116023	707664	707664	
36297.1	0.011177	707902	707902	
36313.6	0.0107555	708250	708250	
36330.1	0.0103379	708671	708671	
36346.6	0.00992453	708978	708978	
36363.1	0.00951559	709301	709301	
36379.6	0.00911128	709716	709716	
36396.1	0.00871182	710043	710043	
36412.6	0.00831741	710364	710364	
36429.1	0.00792827	710761	710761	
36445.6	0.00754459	711176	711176	
36462.2	0.00716657	711521	711521	
36478.7	0.0067944	711851	711851	
36495.2	0.00642828	712259	712259	
36511.7	0.00606839	712685	712685	
36528.2	0.0057149	712978	712978	
36544.7	0.00536799	713238	713238	
36561.2	0.00502784	713446	713446	
36577.7	0.00469459	713832	713832	
36594.2	0.00436843	714197	714197	
36610.7	0.00404949	714663	714663	
36627.3	0.00373792	715019	715019	
36643.8	0.00343387	715330	715330	
36660.3	0.00313747	715808	715808	
36676.8	0.00284884	716161	716161	
36693.3	0.00256811	716547	716547	
36709.8	0.00229539	716885	716885	
36726.3	0.00203078	717212	717212	
36742.8	0.00177439	717413	717413	
36759.3	0.0015263	717705	717705	
36775.8	0.00128659	718064	718064	
36792.4	0.00105534	718434	718434	
36808.9	0.000832598	718846	718846	
36825.4	0.000618432	719202	719202	
36841.9	0.000412884	719483	719483	
36858.4	0.000215987	719954	719954	
36874.9	2.7766e-05	720367	720367	
36891.4	-0.000151764	720649	720649	
36907.9	-0.0003226	720990	720990	
36924.4	-0.00048475	721349	721349	
36940.9	-0.000638233	721697	721697	
36957.5	-0.000783081	722173	722173	
36974	-0.000919336	722536	722536	
36990.5	-0.00104706	722889	722889	
37007	-0.00116631	723143	723143	
37023.5	-0.00127717	723539	723539	
37040	-0.00137974	723916	723916	
37056.5	-0.00147413	724239	724239	
37073	-0.00156046	724581	724581	
37089.5	-0.00163885	724964	724964	
37106	-0.00170946	725496	725496	
37122.6	-0.00177244	725828	725828	
37139.1	-0.00182797	726278	726278	
37155.6	-0.00187622	726669	726669	
37172.1	-0.00191739	727036	727036	
37188.6	-0.00195169	727472	727472	
37205.1	-0.00197932	727682	727682	
37221.6	-0.0020005	728017	728017	
37238.1	-0.00201548	728474	728474	
37254.6	-0.00202447	728920	728920	
37271.1	-0.00202773	729411	729411	
37287.7	-0.0020255	729786	729786	
37304.2	-0.00201802	730151	730151	
37320.7	-0.00200555	730448	730448	
37337.2	-0.00198834	730800	730800	
37353.7	-0.00196664	731260	731260	
37370.2	-0.00194069	731625	731625	
37386.7	-0.00191075	732004	732004	
37403.2	-0.00187705	732333	732333	
37419.7	-0.00183983	732727	732727	
37436.2	-0.00179932	733159	733159	
37452.8	-0.00175573	733431	733431	
37469.3	-0.00170928	733723	733723	
37485.8	-0.00166016	734108	734108	
37502.3	-0.00160858	734569	734569	
37518.8	-0.0015547	734927	734927	
37535.3	-0.00149869	735295	735295	
37551.8	-0.0014407	735652	735652	
37568.3	-0.00138087	735901	735901	
37584.8	-0.00131933	736106	736106	
37601.3	-0.00125618	736458	736458	
37617.9	-0.00119152	736697	736697	
37634.4	-0.00112542	736950	736950	
37650.9	-0.00105796	737378	737378	
37667.4	-0.000989178	737694	737694	
37683.9	-0.000919115	738190	738190	
37700.4	-0.000847791	738653	738653	
37716.9	-0.000775217	739084	739084	
37733.4	-0.000701387	739401	739401	
37749.9	-0.000626287	739877	739877	
37766.4	-0.000549892	740239	740239	
37783	-0.000472164	740608	740608	
37799.5	-0.000393061	741123	741123	
37816	-0.000312529	741535	741535	
37832.5	-0.00023051	741856	741856	
37849	-0.000146942	742266	742266	
37865.5	-6.17565e-05	742572	742572	
37882	2.51152e-05	742803	742803	
37898.5	0.000113744	743178	743178	
37915	0.000204201	743431	743431	
37931.5	0.000296554	743880	743880	
37948.1	0.000390871	744335	744335	
37964.6	0.000487214	744769	744769	
37981.1	0.00058564	745064	745064	
37997.6	0.0006862	745425	745425	
38014.1	0.000788939	745821	745821	
38030.6	0.00089389	746249	746249	
38047.1	0.00100108	746652	746652	
38063.6	0.00111053	747018	747018	
38080.1	0.00122223	747355	747355	
38096.6	0.00133618	747812	747812	
38113.2	0.00145236	748196	748196	
38129.7	0.00157074	748620	748620	
38146.2	0.00169126	748921	748921	
38162.7	0.00181387	749294	749294	
38179.2	0.00193847	749653	749653	
38195.7	0.00206499	750069	750069	
38212.2	0.00219332	750504	750504	
38228.7	0.00232332	750918	750918	
38245.2	0.00245486	751303	751303	
38261.7	0.00258778	751697	751697	
38278.3	0.00272192	752000	752000	
38294.8	0.00285709	752409	752409	
38311.3	0.0029931	752666	752666	
38327.8	0.00312973	752994	752994	
38344.3	0.00326677	753453	753453	
38360.8	0.00340397	753884	753884	
38377.3	0.0035411	754304	754304	
38393.8	0.00367791	754711	754711	
38410.3	0.00381412	755199	755199	
38426.8	0.00394949	755655	755655	
38443.4	0.00408373	755978	755978	
38459.9	0.00421657	756355	756355	
38476.4	0.00434772	756769	756769	
38492.9	0.00447693	757151	757151	
38509.4	0.00460389	757590	757590	
38525.9	0.00472833	758020	758020	
38542.4	0.00484999	758562	758562	
38558.9	0.00496857	759026	759026	
38575.4	0.00508383	759406	759406	
38591.9	0.00519549	759880	759880	
38608.5	0.0053033	760272	760272	
38625	0.00540702	760674	760674	
38641.5	0.00550639	761005	761005	
38658	0.0056012	761247	761247	
38674.5	0.00569121	761580	761580	
38691	0.00577622	761814	761814	
38707.5	0.00585602	762138	762138	
38724	0.00593042	762576	762576	
38740.5	0.00599923	763050	763050	
38757	0.00606228	763440	763440	
38773.6	0.0061194	763905	763905	
38790.1	0.00617045	764337	764337	
38806.6	0.00621528	764810	764810	
38823.1	0.00625376	765208	765208	
38839.6	0.00628576	765496	765496	
38856.1	0.00631118	765870	765870	
38872.6	0.00632992	766233	766233	
38889.1	0.00634188	766497	766497	
38905.6	0.006347	766873	766873	
38922.1	0.0063452	767227	767227	
38938.7	0.00633643	767616	767616	
38955.2	0.00632065	767894	767894	
38971.7	0.00629783	768319	768319	
38988.2	0.00626795	768748	768748	
39004.7	0.006231	769095	769095	
39021.2	0.006187	769316	769316	
39037.7	0.00613597	769687	769687	
39054.2	0.00607793	770116	770116	
39070.7	0.00601294	770523	770523	
39087.2	0.00594104	770925	770925	
39103.8	0.00586233	771311	771311	
39120.3	0.00577686	771487	771487	
39136.8	0.00568475	771951	771951	
39153.3	0.00558609	772500	772500	
39169.8	0.00548099	772849	772849	
39186.3	0.00536959	773189	773189	
39202.8	0.00525201	773635	773635	
39219.3	0.0051284	774083	774083	
39235.8	0.0049989	774393	774393	
39252.3	0.00486366	774773	774773	
39268.9	0.00472284	775045	775045	
39285.4	0.0045766	775375	775375	
39301.9	0.00442509	775793	775793	
39318.4	0.00426847	776169	776169	
39334.9	0.0041069	776648	776648	
39351.4	0.00394054	777015	777015	
39367.9	0.00376952	777309	777309	
39384.4	0.00359399	777471	777471	
39400.9	0.00341411	777946	777946	
39417.4	0.00323001	778359	778359	
39434	0.00304183	778743	778743	
39450.5	0.00284971	779059	779059	
39467	0.00265379	779408	779408	
39483.5	0.00245421	779730	779730	
39500	0.00225111	780045	780045	
39516.5	0.00204463	780321	780321	
39533	0.00183492	780731	780731	
39549.5	0.00162212	781045	781045	
39566	0.00140636	781414	781414	
39582.5	0.00118779	781792	781792	
39599.1	0.000966539	782138	782138	
39615.6	0.000742727	782585	782585	
39632.1	0.000516476	783058	783058	
39648.6	0.0002879	783471	783471	
39665.1	5.71086e-05	783891	783891	
39681.6	-0.000175796	784239	784239	
39698.1	-0.000410714	784608	784608	
39714.6	-0.000647552	785007	785007	
39731.1	-0.000886217	785359	785359	
39747.6	-0.00112662	785671	785671	
39764.2	-0.00136867	786035	786035	
39780.7	-0.00161228	786445	786445	
39797.2	-0.00185736	786744	786744	
39813.7	-0.00210383	787143	787143	
39830.2	-0.00235161	787711	787711	
39846.7	-0.0026006	788238	788238	
39863.2	-0.00285071	788605	788605	
39879.7	-0.00310187	789022	789022	
39896.2	-0.00335397	789439	789439	
39912.7	-0.00360694	789664	789664	
39929.3	-0.00386067	789940	789940	
39945.8	-0.00411507	790296	790296	
39962.3	-0.00437004	790656	790656	
39978.8	-0.00462548	791064	791064	
39995.3	-0.0048813	791599	791599	
40011.8	-0.00513738	792011	792011	
40028.3	-0.00539363	792338	792338	
40044.8	-0.00564994	792879	792879	
40061.3	-0.00590621	793342	793342	
40077.8	-0.00616234	793744	793744	
40094.4	-0.00641823	794204	794204	
40110.9	-0.00667378	794671	794671	
40127.4	-0.00692888	795042	795042	
40143.9	-0.00718345	795369	795369	
40160.4	-0.00743738	795720	795720	
40176.9	-0.00769058	796125	796125	
40193.4	-0.00794294	796482	796482	
40209.9	-0.00819436	796985	796985	
40226.4	-0.00844475	797444	797444	
40242.9	-0.008694	797933	797933	
40259.5	-0.00894202	798299	798299	
40276	-0.00918869	798654	798654	
40292.5	-0.00943393	799096	799096	
40309	-0.00967763	799643	799643	
40325.5	-0.00991969	800055	800055	
40342	-0.01016	800478	800478	
40358.5	-0.0103985	800874	800874	
40375	-0.0106351	801239	801239	
40391.5	-0.0108697	801650	801650	
40408	-0.0111023	801907	801907	
40424.6	-0.0113326	802149	802149	
40441.1	-0.0115607	802541	802541	
40457.6	-0.0117865	802923	802923	
40474.1	-0.0120099	803370	803370	
40490.6	-0.0122308	803946	803946	
40507.1	-0.0124492	804347	804347	
40523.6	-0.012665	804758	804758	
40540.1	-0.0128781	805149	805149	
40556.6	-0.0130885	805496	805496	
40573.1	-0.013296	805903	805903	
40589.7	-0.0135007	806186	806186	
40606.2	-0.0137025	806436	806436	
40622.7	-0.0139014	806868	806868	
40639.2	-0.0140972	807173	807173	
40655.7	-0.0142899	807618	807618	
40672.2	-0.0144795	808038	808038	
40688.7	-0.0146659	808455	808455	
40705.2	-0.0148491	808817	808817	
40721.7	-0.015029	809179	809179	
40738.2	-0.0152056	809617	809617	
40754.8	-0.0153789	810145	810145	
40771.3	-0.0155487	810518	810518	
40787.8	-0.0157151	810945	810945	
40804.3	-0.015878	811414	811414	
40820.8	-0.0160373	811533	811533	
40837.3	-0.0161931	811912	811912	
40853.8	-0.0163452	812396	812396	
40870.3	-0.0164936	812848	812848	
40886.8	-0.0166384	813221	813221	
40903.3	-0.0167794	813720	813720	
40919.9	-0.0169166	814072	814072	
40936.4	-0.01705	814445	814445	
40952.9	-0.0171795	814863	814863	
40969.4	-0.0173051	815331	815331	
40985.9	-0.0174267	815700	815700	
41002.4	-0.0175444	816110	816110	
41018.9	-0.017658	816460	816460	
41035.4	-0.0177676	816963	816963	
41051.9	-0.0178732	817518	817518	
41068.4	-0.0179746	817940	817940	
41085	-0.0180718	818354	818354	
41101.5	-0.0181649	818725	818725	
41118	-0.0182537	819064	819064	
41134.5	-0.0183383	819408	819408	
41151	-0.0184186	819868	819868	
41167.5	-0.0184945	820368	820368	
41184	-0.0185662	820824	820824	
41200.5	-0.0186334	821257	821257	
41217	-0.0186963	821808	821808	
41233.5	-0.0187547	821983	821983	
41250.1	-0.0188087	822470	822470	
41266.6	-0.0188582	822778	822778	
41283.1	-0.0189032	823253	823253	
41299.6	-0.0189437	823741	823741	
41316.1	-0.0189796	824223	824223	
41332.6	-0.019011	824792	824792	
41349.1	-0.0190378	825129	825129	
41365.6	-0.01906	825489	825489	
41382.1	-0.0190776	825775	825775	
41398.7	-0.0190905	826090	826090	
41415.2	-0.0190989	826662	826662	
41431.7	-0.0191026	827068	827068	
41448.2	-0.0191017	827532	827532	
41464.7	-0.0190962	827932	827932	
41481.2	-0.0190862	828296	828296	
41497.7	-0.0190725	828599	828599	
41514.2	-0.019056	828916	828916	
41530.7	-0.019036	829279	829279	
41547.2	-0.019011	829721	829721	
41563.8	-0.0189986	830254	830254	
41580.3	-0.0189601	830682	830682	
41596.8	-0.0189175	831037	831037	
41613.3	-0.0188644	831291	831291	
41629.8	-0.0188009	831692	831692	
41646.3	-0.0187429	831993	831993	
41662.8	-0.0186668	832159	832159	
41679.3	-0.0186292	832379	832379	
41695.8	-0.0185599	832745	832745	
41712.3	-0.0183958	833118	833118	
41728.9	-0.0182785	833604	833604	
41745.4	-0.0181982	833907	833907	
41761.9	-0.0181223	834365	834365	
41778.4	-0.0180308	834833	834833	
41794.9	-0.0179352	835415	835415	
41811.4	-0.0178416	835945	835945	
41827.9	-0.0177459	836363	836363	
41844.4	-0.0176431	836760	836760	
41860.9	-0.0175168	837069	837069	
41877.5	-0.0173966	837332	837332	
41894	-0.0172752	837745	837745	
41910.5	-0.0171473	838037	838037	
41927	-0.0170932	838395	838395	
41943.5	-0.0169694	838682	838682	
41960	-0.0167349	838879	838879	
41976.5	-0.0166638	839292	839292	
41993	-0.016534	839793	839793	
42009.5	-0.016273	840327	840327	
42026	-0.0160756	840931	840931	
42042.6	-0.0159107	841569	841569	
42059.1	-0.015751	841991	841991	
42075.6	-0.0156007	842725	842725	
42092.1	-0.0154422	843272	843272	
42108.6	-0.0152764	843668	843668	
42125.1	-0.01509	844035	844035	
42141.6	-0.0148998	844347	844347	
42158.1	-0.0147137	844707	844707	
42174.6	-0.0145238	845023	845023	
42191.1	-0.0143432	845456	845456	
42207.7	-0.0141527	845833	845833	
42224.2	-0.0139586	846345	846345	
42240.7	-0.01376	846770	846770	
42257.2	-0.013558	847175	847175	
42273.7	-0.0133532	847640	847640	
42290.2	-0.0131463	848152	848152	
42306.7	-0.0129371	848546	848546	
42323.2	-0.0127258	848820	848820	
42339.7	-0.0125126	849299	849299	
42356.2	-0.0122976	849847	849847	
42372.8	-0.0120811	850217	850217	
42389.3	-0.0118629	850651	850651	
42405.8	-0.0116431	851239	851239	
42422.3	-0.0114218	851751	851751	
42438.8	-0.0111989	852126	852126	
42455.3	-0.0109746	852611	852611	
42471.8	-0.0107492	852885	852885	
42488.3	-0.0105228	853271	853271	
42504.8	-0.0102956	853515	853515	
42521.3	-0.0100674	853922	853922	
42537.9	-0.00983805	854203	854203	
42554.4	-0.00960768	854791	854791	
42570.9	-0.00937587	855184	855184	
42587.4	-0.00914238	855514	855514	
42603.9	-0.00890712	855944	855944	
42620.4	-0.00865213	856540	856540	
42636.9	-0.00839886	857293	857293	
42653.4	-0.0081543	857969	857969	
42669.9	-0.00791371	858426	858426	
42686.4	-0.00767559	858767	858767	
42703	-0.00743909	859193	859193	
42719.5	-0.00720341	859556	859556	
42736	-0.00696766	859975	859975	
42752.5	-0.00672825	860375	860375	
42769	-0.00649483	860781	860781	
42785.5	-0.00625912	861339	861339	
42802	-0.00601979	861871	861871	
42818.5	-0.00577963	862120	862120	
42835	-0.00554052	862463	862463	
42851.5	-0.00530278	862867	862867	
42868.1	-0.00506578	863239	863239	
42884.6	-0.00482884	863566	863566	
42901.1	-0.00459163	863998	863998	
42917.6	-0.00435454	864528	864528	
42934.1	-0.00411828	864866	864866	
42950.6	-0.00388345	865372	865372	
42967.1	-0.00365045	865858	865858	
42983.6	-0.00341951	866277	866277	
43000.1	-0.00319068	866741	866741	
43016.6	-0.00296394	867052	867052	
43033.2	-0.00273921	867446	867446	
43049.7	-0.00251641	867747	867747	
43066.2	-0.00229548	868060	868060	
43082.7	-0.00207641	868381	868381	
43099.2	-0.00185923	868761	868761	
43115.7	-0.00164407	869188	869188	
43132.2	-0.00143114	869455	869455	
43148.7	-0.00122071	869897	869897	
43165.2	-0.00101306	870383	870383	
43181.7	-0.000808508	870866	870866	
43198.3	-0.000607379	871358	871358	
