0	0	33616	33616	
76.2883	0	33612	33612	
152.577	0	33584	33584	
228.909	0	33740	33740	
305.197	0	33766	33766	
381.486	0	33856	33856	
457.609	0	33922	33922	
533.733	0	34004	34004	
609.857	0	34060	34060	
685.98	0	34116	34116	
762.104	0	34186	34186	
838.285	0	34256	34256	
914.465	0	34332	34332	
990.565	0	34412	34412	
1066.56	0	34488	34488	
1142.4	0	34526	34526	
1218.24	0	34592	34592	
1294.08	0	34642	34642	
1369.92	0	34714	34714	
1445.76	0	34770	34770	
1521.6	0	34876	34876	
1597.28	0	34926	34926	
1672.97	0	34958	34958	
1748.57	0	35014	35014	
1823.96	0	35078	35078	
1899.34	0	35094	35094	
1974.73	0	35136	35136	
2050.11	0	35198	35198	
2125.4	0	35280	35280	
2200.68	0	35342	35342	
2275.72	0	35402	35402	
2350.71	0	35456	35456	
2419.92	0	35466	35466	
2489.12	0	35524	35524	
2558.33	0	35574	35574	
2627.53	0	35612	35612	
2696.74	0	35668	35668	
2765.95	0	35728	35728	
2835.15	0	35778	35778	
2904.36	0	35824	35824	
2973.56	0	35894	35894	
3042.77	0	35946	35946	
3108.65	0	35954	35954	
3174.52	0	35980	35980	
3239.14	0	36058	36058	
3303.75	0	36120	36120	
3368.36	0	36132	36132	
3432.98	0	36156	36156	
3497.59	0	36196	36196	
3562.2	0	36228	36228	
3626.82	0	36266	36266	
3691.43	0	36312	36312	
3756.05	0	36358	36358	
3820.66	0	36414	36414	
3885.27	0	36478	36478	
3949.89	0	36552	36552	
4014.5	0	36590	36590	
4079.12	0	36634	36634	
4143.73	0	36660	36660	
4208.34	0	36690	36690	
4272.96	0	36740	36740	
4337.57	0	36794	36794	
4402.19	0	36846	36846	
4466.8	0	36876	36876	
4531.41	0	36908	36908	
4596.03	0	36952	36952	
4660.64	0	36984	36984	
4725.26	0	37038	37038	
4789.87	0	37070	37070	
4854.48	0	37136	37136	
4919.1	0	37186	37186	
4983.71	0	37226	37226	
5048.33	0	37280	37280	
5112.94	0	37304	37304	
5177.55	0	37320	37320	
5242.17	0	37356	37356	
5306.78	0	37402	37402	
5371.39	0	37472	37472	
5436.01	0	37524	37524	
5500.62	0	37576	37576	
5565.24	0	37596	37596	
5629.85	0	37642	37642	
5694.46	0	37690	37690	
5759.08	0	37718	37718	
5823.69	0	37748	37748	
5888.31	0	37784	37784	
5952.92	0	37802	37802	
6017.53	0	37834	37834	
6082.15	0	37890	37890	
6146.76	0	37902	37902	
6211.38	0	37906	37906	
6275.99	0	37924	37924	
6340.6	0	37962	37962	
6405.22	0	38008	38008	
6469.83	0	38040	38040	
6534.45	0	38074	38074	
6599.06	0	38128	38128	
6663.67	0	38136	38136	
6728.29	0	38188	38188	
6792.9	0	38238	38238	
6857.53	0	38258	38258	
6922.16	0	38310	38310	
6986.79	0	38346	38346	
7051.42	0	38386	38386	
7116.05	0	38430	38430	
7180.68	0	38470	38470	
7245.31	0	38488	38488	
7312.82	0	38528	38528	
7380.33	0	38572	38572	
7447.99	0	38604	38604	
7515.64	0	38648	38648	
7583.29	0	38688	38688	
7651.97	0	38721	38721	
7720.64	0	38725	38725	
7789.31	0	38758	38758	
7857.98	0	38796	38796	
7926.65	0	38838	38838	
7995.32	0	38883	38883	
8064.32	0	38901	38901	
8133.32	0	38928	38928	
8202.32	0	38968	38968	
8271.31	0	38974	38974	
8340.31	0	39000	39000	
8409.31	0	39014	39014	
8478.31	0	39058	39058	
8547.3	0	39087	39087	
8616.3	0	39137	39137	
8685.3	0	39171	39171	
8754.53	0	39217	39217	
8823.75	0	39269	39269	
8893.65	0	39301	39301	
8963.54	0	39345	39345	
9033.44	0	39379	39379	
9103.33	0	39413	39413	
9173.22	0	39453	39453	
9243.12	0	39486	39486	
9313.01	0	39524	39524	
9377.63	0	39596	39596	
9442.24	0	39619	39619	
9506.86	0	39659	39659	
9571.49	0	39691	39691	
9636.12	0	39748	39748	
9700.75	0	39794	39794	
9765.38	0	39808	39808	
9830.01	0	39854	39854	
9894.64	0	39882	39882	
9959.27	0	39928	39928	
10023.9	0	39936	39936	
10088.5	0	39964	39964	
10153.2	0	39994	39994	
10217.8	0	40034	40034	
10282.4	0	40086	40086	
10347	0	40148	40148	
10411.7	0	40190	40190	
10483	0	40264	40264	
10547.6	0	40322	40322	
10612.2	0	40376	40376	
10676.8	0	40428	40428	
10741.4	0	40462	40462	
10806.1	0	40490	40490	
10870.7	0	40518	40518	
10935.3	0	40564	40564	
10999.9	0	40590	40590	
11073	0	40664	40664	
11142.2	0	40720	40720	
11211.4	0	40782	40782	
11280.7	0	40820	40820	
11349.9	0	40898	40898	
11417.4	0	40986	40986	
11482	0	41024	41024	
11546.6	0	41064	41064	
11611.2	0	41126	41126	
11679.9	0	41182	41182	
11748.6	0	41214	41214	
11817.2	0	41290	41290	
11885.9	0	41314	41314	
11954.6	0	41370	41370	
12023.2	0	41442	41442	
12091.9	0	41514	41514	
12160.6	0	41540	41540	
12229.8	0	41596	41596	
12299	0	41670	41670	
12368.2	0	41708	41708	
12435.7	0	41800	41800	
12503.2	0	41862	41862	
12570.7	0	41910	41910	
12638.2	0	41968	41968	
12707.4	0	42014	42014	
12776.6	0	42088	42088	
12845.9	0	42166	42166	
12915.1	0	42234	42234	
12984.3	0	42326	42326	
13053.5	0	42394	42394	
13122.7	0	42438	42438	
13191.9	0	42528	42528	
13261.1	0	42600	42600	
13330.3	0	42676	42676	
13399.5	0	42728	42728	
13468.7	0	42790	42790	
13542.1	0	42858	42858	
13615.5	0	42938	42938	
13688.8	0	43034	43034	
13762.2	0	43116	43116	
13835.6	0	43156	43156	
13911.9	0	43202	43202	
13988.2	0	43272	43272	
14064.5	0	43390	43390	
14140.8	0	43444	43444	
14217	0	43506	43506	
14293.3	0	43582	43582	
14369.6	0	43654	43654	
14445.9	0	43760	43760	
14522.2	0	43854	43854	
14598.5	0	43944	43944	
14674.8	0	44028	44028	
14751.1	0	44108	44108	
14827.4	0	44208	44208	
14903.6	0	44288	44288	
14979.9	0	44400	44400	
15056.2	0	44498	44498	
15132.5	0	44596	44596	
15205.9	0	44732	44732	
15275.1	0	44818	44818	
15344.3	0	44902	44902	
15413.5	0	45008	45008	
15482.7	0	45102	45102	
15551.9	0	45200	45200	
15621.1	0	45280	45280	
15693.8	0	45362	45362	
15766.5	0	45444	45444	
15839.2	0	45554	45554	
15911.9	0	45650	45650	
15984.6	0	45736	45736	
16057.3	0	45850	45850	
16130	0	45960	45960	
16202.7	0	46036	46036	
16275.4	0	46138	46138	
16348	0	46222	46222	
16421.4	0	46308	46308	
16494.7	0	46378	46378	
16568	0	46444	46444	
16641.2	0	46533	46533	
16714.5	0	46651	46651	
16787.7	0	46782	46782	
16861	0	46876	46876	
16934.3	0	46974	46974	
17007.5	0	47066	47066	
17080.8	0	47122	47122	
17157.1	0	47224	47224	
17233.4	0	47324	47324	
17309.7	0	47387	47387	
17386	9.09495e-13	47478	47478	
17462.3	9.09495e-13	47569	47569	
17538.5	1.81899e-12	47651	47651	
17614.8	1.81899e-12	47730	47730	
17691.1	2.72848e-12	47818	47818	
17764.4	3.63798e-12	47951	47951	
17829	4.54747e-12	48038	48038	
17893.6	5.45697e-12	48143	48143	
17958.2	6.36646e-12	48240	48240	
18022.8	7.27596e-12	48298	48298	
18092	9.09495e-12	48365	48365	
18161.2	1.09139e-11	48428	48428	
18233.9	1.36424e-11	48537	48537	
18306.6	1.63709e-11	48598	48598	
18379.3	2.00089e-11	48663	48663	
18452	2.54659e-11	48772	48772	
18525.4	3.09228e-11	48878	48878	
18598.8	3.81988e-11	48956	48956	
18672.1	4.63842e-11	49037	49037	
18745.5	5.63887e-11	49147	49147	
18818.9	6.91216e-11	49221	49221	
18892.2	8.36735e-11	49297	49297	
18965.4	1.00954e-10	49410	49410	
19037.9	1.21872e-10	49449	49449	
19110.3	1.46429e-10	49528	49528	
19182.8	1.75532e-10	49646	49646	
19255	2.10093e-10	49727	49727	
19327.2	2.50111e-10	49788	49788	
19399.4	2.98314e-10	49860	49860	
19471.3	3.53793e-10	49909	49909	
19535.9	4.12911e-10	49951	49951	
19600.5	4.81123e-10	50031	50031	
19665.1	5.60249e-10	50091	50091	
19729.7	6.52108e-10	50146	50146	
19794.4	7.567e-10	50246	50246	
19866.2	8.91305e-10	50312	50312	
19938.1	1.04683e-09	50391	50391	
20010	1.22782e-09	50451	50451	
20081.9	1.43882e-09	50543	50543	
20153.8	1.68257e-09	50569	50569	
20226	1.96542e-09	50656	50656	
20298.3	2.29284e-09	50743	50743	
20370.5	2.67028e-09	50866	50866	
20442.7	3.10501e-09	50931	50931	
20515	3.60433e-09	51029	51029	
20587.2	4.17731e-09	51113	51113	
20659.4	4.83396e-09	51178	51178	
20731.3	5.58157e-09	51258	51258	
20803.1	6.43558e-09	51347	51347	
20867.8	7.31143e-09	51397	51397	
20932.4	8.2955e-09	51524	51524	
20997	9.40145e-09	51621	51621	
21061.6	1.0642e-08	51698	51698	
21126.2	1.20326e-08	51750	51750	
21198.1	1.37634e-08	51803	51803	
21270	1.57215e-08	51857	51857	
21341.8	1.79334e-08	51917	51917	
21413.7	2.04291e-08	52031	52031	
21485.6	2.32403e-08	52133	52133	
21557.4	2.64035e-08	52235	52235	
21629.3	2.99588e-08	52275	52275	
21701.2	3.39487e-08	52333	52333	
21773.1	3.84216e-08	52416	52416	
21844.9	4.34302e-08	52513	52513	
21916.8	4.90309e-08	52569	52569	
21988.7	5.52864e-08	52629	52629	
22060.5	6.22658e-08	52719	52719	
22132.4	7.00438e-08	52794	52794	
22204.3	7.8704e-08	52893	52893	
22276.2	8.83347e-08	52957	52957	
22340.8	9.79544e-08	53042	53042	
22405.4	1.08525e-07	53091	53091	
22470	1.2013e-07	53167	53167	
22534.6	1.32862e-07	53212	53212	
22606.5	1.48388e-07	53320	53320	
22678.4	1.65564e-07	53398	53398	
22750.2	1.84546e-07	53475	53475	
22822.1	2.05509e-07	53538	53538	
22894	2.28636e-07	53571	53571	
22965.8	2.54132e-07	53633	53633	
23037.7	2.82216e-07	53712	53712	
23109.6	3.13125e-07	53797	53797	
23181.5	3.47119e-07	53910	53910	
23253.3	3.84473e-07	54008	54008	
23325.2	4.25491e-07	54057	54057	
23397.1	4.70491e-07	54163	54163	
23468.9	5.1981e-07	54234	54234	
23540.8	5.73809e-07	54307	54307	
23612.7	6.32889e-07	54373	54373	
23684.6	6.97505e-07	54418	54418	
23756.4	7.68185e-07	54530	54530	
23828.3	8.45525e-07	54678	54678	
23900.2	9.30208e-07	54754	54754	
23964.8	1.01362e-06	54860	54860	
24029.4	1.10426e-06	54905	54905	
24094	1.20281e-06	54937	54937	
24158.6	1.30886e-06	55033	55033	
24223.2	1.42158e-06	55111	55111	
24287.9	1.54187e-06	55183	55183	
24359.7	1.68619e-06	55256	55256	
24431.6	1.84542e-06	55337	55337	
24503.5	2.02761e-06	55397	55397	
24575.3	2.2385e-06	55504	55504	
24647.2	2.47107e-06	55571	55571	
24719.1	2.71951e-06	55626	55626	
24791	2.98169e-06	55680	55680	
24862.8	3.28093e-06	55786	55786	
24934.7	3.63361e-06	55907	55907	
25006.6	3.69691e-06	55984	55984	
25078.4	3.83625e-06	56026	56026	
25150.3	4.36039e-06	56056	56056	
25222.2	4.98424e-06	56133	56133	
25294.1	5.46374e-06	56203	56203	
25361.6	6.18205e-06	56251	56251	
25429.1	7.0966e-06	56321	56321	
25496.6	8.41528e-06	56414	56414	
25564.1	1.01165e-05	56534	56534	
25636	1.23614e-05	56638	56638	
25705.2	1.49547e-05	56737	56737	
25774.4	1.80162e-05	56834	56834	
25843.6	2.14923e-05	56933	56933	
25909.5	2.54615e-05	57043	57043	
25975.3	3.01997e-05	57159	57159	
26040	3.56563e-05	57200	57200	
26104.6	4.19587e-05	57306	57306	
26169.2	4.92186e-05	57371	57371	
26233.8	5.7562e-05	57445	57445	
26298.4	6.71248e-05	57530	57530	
26363	7.8056e-05	57598	57598	
26427.6	9.05243e-05	57661	57661	
26492.3	0.000104694	57764	57764	
26556.9	0.000120776	57866	57866	
26624.4	0.00013984	57954	57954	
26691.9	0.00016156	58001	58001	
26759.4	0.000186257	58069	58069	
26826.9	0.000214272	58118	58118	
26894.4	0.000245968	58195	58195	
26961.9	0.000281741	58234	58234	
27033.8	0.000324611	58303	58303	
27105.7	0.000373081	58392	58392	
27177.5	0.000427719	58530	58530	
27249.4	0.000489132	58646	58646	
27321.3	0.000557956	58745	58745	
27393.2	0.000634868	58832	58832	
27465	0.000720575	58919	58919	
27536.9	0.000815817	58992	58992	
27604.4	0.00091495	59075	59075	
27671.9	0.00102386	59156	59156	
27739.4	0.00114319	59239	59239	
27806.9	0.00127362	59308	59308	
27878.8	0.00142499	59357	59357	
27950.7	0.00159044	59469	59469	
28022.6	0.00177073	59539	59539	
28094.4	0.00196663	59610	59610	
28166.3	0.00217885	59689	59689	
28238.2	0.00240806	59783	59783	
28310	0.00265487	59852	59852	
28377.6	0.00290375	59937	59937	
28445.1	0.00316906	59980	59980	
28512.6	0.00345108	60091	60091	
28580.1	0.00375006	60145	60145	
28652	0.00408653	60222	60222	
28723.8	0.0044424	60289	60289	
28795.7	0.00481758	60367	60367	
28867.6	0.00521183	60471	60471	
28939.4	0.00562473	60549	60549	
29011.3	0.00605571	60592	60592	
29083.2	0.00650402	60662	60662	
29155.1	0.00696871	60744	60744	
29226.9	0.00744865	60800	60800	
29298.8	0.0079425	60855	60855	
29370.7	0.00844874	60938	60938	
29442.5	0.00896564	61032	61032	
29514.4	0.00949129	61089	61089	
29586.3	0.0100236	61156	61156	
29658.2	0.0105602	61243	61243	
29722.8	0.0110444	61305	61305	
29787.4	0.011528	61379	61379	
29852	0.012009	61466	61466	
29916.6	0.0124854	61516	61516	
29981.2	0.0129549	61596	61596	
30045.8	0.0134154	61700	61700	
30110.5	0.0138647	61726	61726	
30175.1	0.0143004	61764	61764	
30242.6	0.0147389	61826	61826	
30310.1	0.0151575	61868	61868	
30377.6	0.0155535	61918	61918	
30445.1	0.0159244	61986	61986	
30512.7	0.0162676	62067	62067	
30584.5	0.0166009	62184	62184	
30656.4	0.0168975	62286	62286	
30728.3	0.0171545	62401	62401	
30800.1	0.0173695	62519	62519	
30872	0.0175402	62571	62571	
30943.9	0.0176645	62708	62708	
31015.8	0.0177406	62826	62826	
31087.6	0.0177669	62977	62977	
31155.1	0.0177437	63125	63125	
31222.6	0.0176746	63274	63274	
31290.2	0.0175592	63371	63371	
31357.7	0.0173972	63444	63444	
31429.5	0.0171751	63523	63523	
31501.4	0.0169004	63636	63636	
31573.3	0.016574	63736	63736	
31645.2	0.0161966	63843	63843	
31717	0.0157698	63920	63920	
31788.9	0.0152951	64018	64018	
31856.4	0.0148062	64106	64106	
31923.9	0.0142788	64206	64206	
31991.4	0.0137151	64304	64304	
32058.9	0.0131174	64406	64406	
32130.8	0.0124475	64469	64469	
32202.7	0.011745	64573	64573	
32274.6	0.0110134	64668	64668	
32346.4	0.010256	64732	64732	
32418.3	0.00947683	64804	64804	
32490.2	0.00867953	64852	64852	
32562	0.00786804	64889	64889	
32633.9	0.00704631	64947	64947	
32705.8	0.00621828	65053	65053	
32777.7	0.00538788	65132	65132	
32849.5	0.00455898	65194	65194	
32921.4	0.0037354	65285	65285	
32993.3	0.00292082	65359	65359	
33065.1	0.00211879	65401	65401	
33137	0.00133273	65455	65455	
33208.9	0.000565835	65505	65505	
33280.8	-0.00017886	65570	65570	
33352.6	-0.000898555	65587	65587	
33424.5	-0.00159068	65672	65672	
33496.4	-0.00225291	65792	65792	
33568.2	-0.00288319	65887	65887	
33640.1	-0.00347969	65955	65955	
33712	-0.00404088	66049	66049	
33783.9	-0.00456548	66069	66069	
33855.7	-0.0050525	66111	66111	
33927.6	-0.00550117	66198	66198	
33999.5	-0.00591102	66221	66221	
34071.3	-0.00628179	66347	66347	
34143.2	-0.00661349	66426	66426	
34215.1	-0.00690634	66514	66514	
34287	-0.00716076	66616	66616	
34358.8	-0.00737738	66695	66695	
34430.7	-0.00755701	66862	66862	
34502.6	-0.00770062	67033	67033	
34574.4	-0.00780933	67156	67156	
34646.3	-0.00788438	67290	67290	
34718.2	-0.00792714	67372	67372	
34790.1	-0.00793906	67454	67454	
34861.9	-0.00792169	67503	67503	
34933.8	-0.00787661	67589	67589	
35005.7	-0.00780547	67668	67668	
35077.5	-0.00770995	67808	67808	
35149.4	-0.00759173	67930	67930	
35221.3	-0.0074525	68028	68028	
35293.2	-0.00729395	68038	68038	
35365	-0.00711774	68125	68125	
35436.9	-0.00692549	68204	68204	
35508.8	-0.00671879	68301	68301	
35580.6	-0.00649918	68418	68418	
35652.5	-0.00626813	68483	68483	
35724.4	-0.00602706	68552	68552	
35796.3	-0.00577734	68650	68650	
35868.1	-0.00552024	68759	68759	
35940	-0.00525699	68852	68852	
36011.9	-0.00498875	68954	68954	
36083.7	-0.0047166	69054	69054	
36155.6	-0.00444155	69138	69138	
36227.5	-0.00416457	69222	69222	
36299.4	-0.00388656	69296	69296	
36371.2	-0.00360837	69379	69379	
36443.1	-0.00333078	69468	69468	
36515	-0.00305455	69583	69583	
36586.8	-0.0027804	69670	69670	
36658.7	-0.00250899	69754	69754	
36730.6	-0.00224098	69862	69862	
36802.5	-0.00197698	69974	69974	
36874.3	-0.0017176	70048	70048	
36946.2	-0.00146342	70124	70124	
37018.1	-0.00121503	70160	70160	
37089.9	-0.00097298	70253	70253	
37161.8	-0.000737842	70325	70325	
37233.7	-0.000510171	70420	70420	
37305.6	-0.000290524	70493	70493	
37377.4	-7.9455e-05	70604	70604	
37449.3	0.000122481	70701	70701	
37521.2	0.000314731	70747	70747	
37593	0.000496745	70817	70817	
37664.9	0.000667981	70918	70918	
37736.8	0.0008279	71010	71010	
37808.7	0.000975976	71104	71104	
37880.5	0.0011117	71177	71177	
37952.4	0.00123457	71235	71235	
38024.3	0.00134414	71258	71258	
38096.1	0.00143994	71372	71372	
38168	0.00152158	71452	71452	
38239.9	0.00158868	71582	71582	
38311.8	0.00164093	71659	71659	
38383.6	0.00167803	71752	71752	
38455.5	0.00169978	71818	71818	
38527.4	0.001706	71927	71927	
38599.2	0.0016966	71996	71996	
38671.1	0.00167153	72073	72073	
38743	0.00163084	72138	72138	
38814.9	0.00157464	72231	72231	
38886.7	0.00150311	72395	72395	
38958.6	0.00141651	72468	72468	
39030.5	0.00131519	72591	72591	
39102.3	0.00119958	72628	72628	
39174.2	0.00107016	72713	72713	
39246.1	0.000927531	72802	72802	
39318	0.000772334	72930	72930	
39382.6	0.000622166	72976	72976	
39447.2	0.000463073	73001	73001	
39511.8	0.000295682	73053	73053	
39576.4	0.000120657	73112	73112	
39641	-6.12999e-05	73191	73191	
39705.6	-0.000249456	73270	73270	
39770.3	-0.00044305	73362	73362	
39834.9	-0.000641294	73428	73428	
39899.5	-0.000843383	73513	73513	
39964.1	-0.00104849	73559	73559	
40028.7	-0.0012558	73685	73685	
40100.6	-0.00148789	73751	73751	
40172.5	-0.00172062	73804	73804	
40244.3	-0.00195284	73917	73917	
40316.2	-0.00218341	74022	74022	
40388.1	-0.00241122	74106	74106	
40459.9	-0.00263519	74193	74193	
40531.8	-0.00285425	74295	74295	
40603.7	-0.00306742	74396	74396	
40675.6	-0.00327373	74521	74521	
40747.4	-0.00347228	74622	74622	
40819.3	-0.00366224	74759	74759	
40883.9	-0.00382459	74836	74836	
40948.5	-0.0039788	74912	74912	
41013.1	-0.00412443	74979	74979	
41077.8	-0.00426105	75107	75107	
41142.4	-0.00438833	75216	75216	
41207	-0.00450594	75356	75356	
41271.6	-0.00461363	75441	75441	
41336.2	-0.00471124	75520	75520	
41400.9	-0.00479859	75627	75627	
41468.4	-0.00487908	75735	75735	
41533	-0.0049451	75803	75803	
41597.6	-0.00500067	75860	75860	
41662.3	-0.0050461	75933	75933	
41726.9	-0.00508119	76056	76056	
41791.5	-0.00510664	76146	76146	
41856.2	-0.00512457	76235	76235	
41923.7	-0.0051295	76348	76348	
41991.2	-0.00512561	76452	76452	
42063	-0.00511587	76521	76521	
42134.9	-0.00509437	76588	76588	
42206.8	-0.00507363	76655	76655	
42278.7	-0.00504081	76727	76727	
42346.2	-0.00499486	76772	76772	
42413.7	-0.00494226	76845	76845	
42481.2	-0.00488049	76923	76923	
42548.7	-0.00481248	76994	76994	
42620.6	-0.0047343	77064	77064	
42692.4	-0.00465186	77138	77138	
42764.3	-0.00456611	77216	77216	
42836.2	-0.0044777	77279	77279	
42908.1	-0.00438683	77364	77364	
42975.6	-0.00429943	77401	77401	
43043.1	-0.00421044	77452	77452	
43110.6	-0.00412034	77474	77474	
43178.1	-0.0040297	77508	77508	
