0	0	33616	33616	
76.2883	0	33612	33612	
152.577	0	33584	33584	
228.909	0	33740	33740	
305.197	0	33766	33766	
381.486	0	33856	33856	
457.609	0	33922	33922	
533.733	0	34004	34004	
609.857	0	34060	34060	
685.98	0	34116	34116	
762.104	0	34186	34186	
838.285	0	34256	34256	
914.465	0	34332	34332	
990.565	0	34412	34412	
1066.56	0	34488	34488	
1142.4	0	34526	34526	
1218.24	0	34592	34592	
1294.08	0	34642	34642	
1369.92	0	34714	34714	
1445.76	0	34770	34770	
1521.6	0	34876	34876	
1597.28	0	34926	34926	
1672.97	0	34958	34958	
1748.57	0	35014	35014	
1823.96	0	35078	35078	
1899.34	0	35094	35094	
1974.73	0	35136	35136	
2050.11	0	35198	35198	
2125.4	0	35280	35280	
2200.68	0	35342	35342	
2275.72	0	35402	35402	
2350.71	0	35456	35456	
2419.92	0	35466	35466	
2489.12	0	35524	35524	
2558.33	0	35574	35574	
2627.53	0	35612	35612	
2696.74	0	35668	35668	
2765.95	0	35728	35728	
2835.15	0	35778	35778	
2904.36	0	35824	35824	
2973.56	0	35894	35894	
3042.77	0	35946	35946	
3108.65	0	35954	35954	
3174.52	0	35980	35980	
3239.14	0	36058	36058	
3303.75	0	36120	36120	
3368.36	0	36132	36132	
3432.98	0	36156	36156	
3497.59	0	36196	36196	
3562.2	0	36228	36228	
3626.82	0	36266	36266	
3691.43	0	36312	36312	
3756.05	0	36358	36358	
3820.66	0	36414	36414	
3885.27	0	36478	36478	
3949.89	0	36552	36552	
4014.5	0	36590	36590	
4079.12	0	36634	36634	
4143.73	0	36660	36660	
4208.34	0	36690	36690	
4272.96	0	36740	36740	
4337.57	0	36794	36794	
4402.19	0	36846	36846	
4466.8	0	36876	36876	
4531.41	0	36908	36908	
4596.03	0	36952	36952	
4660.64	0	36984	36984	
4725.26	0	37038	37038	
4789.87	0	37070	37070	
4854.48	0	37136	37136	
4919.1	0	37186	37186	
4983.71	0	37226	37226	
5048.33	0	37280	37280	
5112.94	0	37304	37304	
5177.55	0	37320	37320	
5242.17	0	37356	37356	
5306.78	0	37402	37402	
5371.39	0	37472	37472	
5436.01	0	37524	37524	
5500.62	0	37576	37576	
5565.24	0	37596	37596	
5629.85	0	37642	37642	
5694.46	0	37690	37690	
5759.08	0	37718	37718	
5823.69	0	37748	37748	
5888.31	0	37784	37784	
5952.92	0	37802	37802	
6017.53	0	37834	37834	
6082.15	0	37890	37890	
6146.76	0	37902	37902	
6211.38	0	37906	37906	
6275.99	0	37924	37924	
6340.6	0	37962	37962	
6405.22	0	38008	38008	
6469.83	0	38040	38040	
6534.45	0	38074	38074	
6599.06	0	38128	38128	
6663.67	0	38136	38136	
6728.29	0	38188	38188	
6792.9	0	38238	38238	
6857.53	0	38258	38258	
6922.16	0	38310	38310	
6986.79	0	38346	38346	
7051.42	0	38386	38386	
7116.05	0	38430	38430	
7180.68	0	38470	38470	
7245.31	0	38488	38488	
7312.82	0	38528	38528	
7380.33	0	38572	38572	
7447.99	0	38604	38604	
7515.64	0	38648	38648	
7583.29	0	38688	38688	
7651.97	0	38721	38721	
7720.64	0	38725	38725	
7789.31	0	38758	38758	
7857.98	0	38796	38796	
7926.65	0	38838	38838	
7995.32	0	38883	38883	
8064.32	0	38901	38901	
8133.32	0	38928	38928	
8202.32	0	38968	38968	
8271.31	0	38974	38974	
8340.31	0	39000	39000	
8409.31	0	39014	39014	
8478.31	0	39058	39058	
8547.3	0	39087	39087	
8616.3	0	39137	39137	
8685.3	0	39171	39171	
8754.53	0	39217	39217	
8823.75	0	39269	39269	
8893.65	0	39301	39301	
8963.54	0	39345	39345	
9033.44	0	39379	39379	
9103.33	0	39413	39413	
9173.22	0	39453	39453	
9243.12	0	39486	39486	
9313.01	0	39524	39524	
9377.63	0	39596	39596	
9442.24	0	39619	39619	
9506.86	0	39659	39659	
9571.49	0	39691	39691	
9636.12	0	39748	39748	
9700.75	0	39794	39794	
9765.38	0	39808	39808	
9830.01	0	39854	39854	
9894.64	0	39882	39882	
9959.27	0	39928	39928	
10023.9	0	39936	39936	
10088.5	0	39964	39964	
10153.2	0	39994	39994	
10217.8	0	40034	40034	
10282.4	0	40086	40086	
10347	0	40148	40148	
10411.7	0	40190	40190	
10483	0	40264	40264	
10547.6	0	40322	40322	
10612.2	0	40376	40376	
10676.8	0	40428	40428	
10741.4	0	40462	40462	
10806.1	0	40490	40490	
10870.7	0	40518	40518	
10935.3	0	40564	40564	
10999.9	0	40590	40590	
11073	0	40664	40664	
11142.2	0	40720	40720	
11211.4	0	40782	40782	
11280.7	0	40820	40820	
11349.9	0	40898	40898	
11417.4	0	40986	40986	
11482	0	41024	41024	
11546.6	0	41064	41064	
11611.2	0	41126	41126	
11679.9	0	41182	41182	
11748.6	0	41214	41214	
11817.2	0	41290	41290	
11885.9	0	41314	41314	
11954.6	0	41370	41370	
12023.2	0	41442	41442	
12091.9	0	41514	41514	
12160.6	0	41540	41540	
12229.8	0	41596	41596	
12299	0	41670	41670	
12368.2	0	41708	41708	
12435.7	0	41800	41800	
12503.2	0	41862	41862	
12570.7	0	41910	41910	
12638.2	0	41968	41968	
12707.4	0	42014	42014	
12776.6	0	42088	42088	
12845.9	0	42166	42166	
12915.1	0	42234	42234	
12984.3	0	42326	42326	
13053.5	0	42394	42394	
13122.7	0	42438	42438	
13191.9	0	42528	42528	
13261.1	0	42600	42600	
13330.3	0	42676	42676	
13399.5	0	42728	42728	
13468.7	0	42790	42790	
13542.1	0	42858	42858	
13615.5	0	42938	42938	
13688.8	0	43034	43034	
13762.2	0	43116	43116	
13835.6	0	43156	43156	
13911.9	0	43202	43202	
13988.2	0	43272	43272	
14064.5	0	43390	43390	
14140.8	0	43444	43444	
14217	0	43506	43506	
14293.3	0	43582	43582	
14369.6	0	43654	43654	
14445.9	0	43760	43760	
14522.2	0	43854	43854	
14598.5	0	43944	43944	
14674.8	0	44028	44028	
14751.1	0	44108	44108	
14827.4	0	44208	44208	
14903.6	0	44288	44288	
14979.9	0	44400	44400	
15056.2	0	44498	44498	
15132.5	0	44596	44596	
15205.9	0	44732	44732	
15275.1	0	44818	44818	
15344.3	0	44902	44902	
15413.5	0	45008	45008	
15482.7	0	45102	45102	
15551.9	0	45200	45200	
15621.1	0	45280	45280	
15693.8	0	45362	45362	
15766.5	0	45444	45444	
15839.2	0	45554	45554	
15911.9	0	45650	45650	
15984.6	0	45736	45736	
16057.3	0	45850	45850	
16130	0	45960	45960	
16202.7	0	46036	46036	
16275.4	0	46138	46138	
16348	0	46222	46222	
16421.4	0	46308	46308	
16494.7	0	46378	46378	
16568	0	46444	46444	
16641.2	4.54747e-13	46533	46533	
16714.5	4.54747e-13	46651	46651	
16787.7	4.54747e-13	46782	46782	
16861	9.09495e-13	46876	46876	
16934.3	9.09495e-13	46974	46974	
17007.5	1.36424e-12	47066	47066	
17080.8	1.81899e-12	47122	47122	
17157.1	2.27374e-12	47224	47224	
17233.4	2.72848e-12	47324	47324	
17309.7	3.18323e-12	47387	47387	
17386	3.63798e-12	47478	47478	
17462.3	4.09273e-12	47569	47569	
17538.5	5.00222e-12	47651	47651	
17614.8	5.91172e-12	47730	47730	
17691.1	6.82121e-12	47818	47818	
17764.4	7.7307e-12	47951	47951	
17829	9.09495e-12	48038	48038	
17893.6	1.04592e-11	48143	48143	
17958.2	1.18234e-11	48240	48240	
18022.8	1.31877e-11	48298	48298	
18092	1.54614e-11	48365	48365	
18161.2	1.77351e-11	48428	48428	
18233.9	2.04636e-11	48537	48537	
18306.6	2.36469e-11	48598	48598	
18379.3	2.72848e-11	48663	48663	
18452	3.18323e-11	48772	48772	
18525.4	3.68345e-11	48878	48878	
18598.8	4.27463e-11	48956	48956	
18672.1	4.91127e-11	49037	49037	
18745.5	5.68434e-11	49147	49147	
18818.9	6.54836e-11	49221	49221	
18892.2	7.54881e-11	49297	49297	
18965.4	8.68567e-11	49410	49410	
19037.9	9.91349e-11	49449	49449	
19110.3	1.13232e-10	49528	49528	
19182.8	1.29603e-10	49646	49646	
19255	1.47793e-10	49727	49727	
19327.2	1.68711e-10	49788	49788	
19399.4	1.92358e-10	49860	49860	
19471.3	2.19188e-10	49909	49909	
19535.9	2.46473e-10	49951	49951	
19600.5	2.76486e-10	50031	50031	
19665.1	3.10138e-10	50091	50091	
19729.7	3.47427e-10	50146	50146	
19794.4	3.89264e-10	50246	50246	
19866.2	4.4065e-10	50312	50312	
19938.1	4.98403e-10	50391	50391	
20010	5.63432e-10	50451	50451	
20081.9	6.36192e-10	50543	50543	
20153.8	7.17591e-10	50569	50569	
20226	8.08996e-10	50656	50656	
20298.3	9.11314e-10	50743	50743	
20370.5	1.025e-09	50866	50866	
20442.7	1.15188e-09	50931	50931	
20515	1.2933e-09	51029	51029	
20587.2	1.45064e-09	51113	51113	
20659.4	1.62572e-09	51178	51178	
20731.3	1.81899e-09	51258	51258	
20803.1	2.03318e-09	51347	51347	
20867.8	2.246e-09	51397	51397	
20932.4	2.47928e-09	51524	51524	
20997	2.7344e-09	51621	51621	
21061.6	3.01316e-09	51698	51698	
21126.2	3.31738e-09	51750	51750	
21198.1	3.68664e-09	51803	51803	
21270	4.09273e-09	51857	51857	
21341.8	4.53883e-09	51917	51917	
21413.7	5.02814e-09	52031	52031	
21485.6	5.56474e-09	52133	52133	
21557.4	6.15182e-09	52235	52235	
21629.3	6.79347e-09	52275	52275	
21701.2	7.49424e-09	52333	52333	
21773.1	8.25821e-09	52416	52416	
21844.9	9.0904e-09	52513	52513	
21916.8	9.99535e-09	52569	52569	
21988.7	1.09785e-08	52629	52629	
22060.5	1.20453e-08	52719	52719	
22132.4	1.32013e-08	52794	52794	
22204.3	1.44523e-08	52893	52893	
22276.2	1.58043e-08	52957	52957	
22340.8	1.71167e-08	53042	53042	
22405.4	1.8521e-08	53091	53091	
22470	2.00221e-08	53167	53167	
22534.6	2.16255e-08	53212	53212	
22606.5	2.35277e-08	53320	53320	
22678.4	2.55686e-08	53398	53398	
22750.2	2.77555e-08	53475	53475	
22822.1	3.00961e-08	53538	53538	
22894	3.25972e-08	53571	53571	
22965.8	3.52661e-08	53633	53633	
23037.7	3.81106e-08	53712	53712	
23109.6	4.11378e-08	53797	53797	
23181.5	4.43551e-08	53910	53910	
23253.3	4.77698e-08	54008	54008	
23325.2	5.13883e-08	54057	54057	
23397.1	5.52177e-08	54163	54163	
23468.9	5.92645e-08	54234	54234	
23540.8	6.35346e-08	54307	54307	
23612.7	6.80338e-08	54373	54373	
23684.6	7.27673e-08	54418	54418	
23756.4	7.77395e-08	54530	54530	
23828.3	8.29541e-08	54678	54678	
23900.2	8.84147e-08	54754	54754	
23964.8	9.3547e-08	54860	54860	
24029.4	9.88807e-08	54905	54905	
24094	1.04416e-07	54937	54937	
24158.6	1.10153e-07	55033	55033	
24223.2	1.16089e-07	55111	55111	
24287.9	1.22222e-07	55183	55183	
24359.7	1.29261e-07	55256	55256	
24431.6	1.36536e-07	55337	55337	
24503.5	1.44038e-07	55397	55397	
24575.3	1.5176e-07	55504	55504	
24647.2	1.59689e-07	55571	55571	
24719.1	1.67813e-07	55626	55626	
24791	1.76115e-07	55680	55680	
24862.8	1.8458e-07	55786	55786	
24934.7	1.93185e-07	55907	55907	
25006.6	2.01909e-07	55984	55984	
25078.4	2.10726e-07	56026	56026	
25150.3	2.19608e-07	56056	56056	
25222.2	2.28523e-07	56133	56133	
25294.1	2.37437e-07	56203	56203	
25361.6	2.45775e-07	56251	56251	
25429.1	2.54045e-07	56321	56321	
25496.6	2.62211e-07	56414	56414	
25564.1	2.70236e-07	56534	56534	
25636	2.78588e-07	56638	56638	
25705.2	2.8639e-07	56737	56737	
25774.4	2.93915e-07	56834	56834	
25843.6	3.01119e-07	56933	56933	
25909.5	3.0763e-07	57043	57043	
25975.3	3.13775e-07	57159	57159	
26040	3.19413e-07	57200	57200	
26104.6	3.24645e-07	57306	57306	
26169.2	3.29455e-07	57371	57371	
26233.8	3.33837e-07	57445	57445	
26298.4	3.37795e-07	57530	57530	
26363	3.41352e-07	57598	57598	
26427.6	3.44548e-07	57661	57661	
26492.3	3.47443e-07	57764	57764	
26556.9	3.50127e-07	57866	57866	
26624.4	3.52834e-07	57954	57954	
26691.9	3.55608e-07	58001	58001	
26759.4	3.58666e-07	58069	58069	
26826.9	3.62282e-07	58118	58118	
26894.4	3.66787e-07	58195	58195	
26961.9	3.72575e-07	58234	58234	
27033.8	3.80596e-07	58303	58303	
27105.7	3.912e-07	58392	58392	
27177.5	4.05114e-07	58530	58530	
27249.4	4.23171e-07	58646	58646	
27321.3	4.4632e-07	58745	58745	
27393.2	4.75667e-07	58832	58832	
27465	5.12458e-07	58919	58919	
27536.9	5.57982e-07	58992	58992	
27604.4	6.10102e-07	59075	59075	
27671.9	6.72059e-07	59156	59156	
27739.4	7.44945e-07	59239	59239	
27806.9	8.29653e-07	59308	59308	
27878.8	9.34599e-07	59357	59357	
27950.7	1.05965e-06	59469	59469	
28022.6	1.21323e-06	59539	59539	
28094.4	1.39582e-06	59610	59610	
28166.3	1.5989e-06	59689	59689	
28238.2	1.81649e-06	59783	59783	
28310	2.05289e-06	59852	59852	
28377.6	2.30847e-06	59937	59937	
28445.1	2.61649e-06	59980	59980	
28512.6	2.99732e-06	60091	60091	
28580.1	3.47179e-06	60145	60145	
28652	3.45646e-06	60222	60222	
28723.8	3.79683e-06	60289	60289	
28795.7	4.61702e-06	60367	60367	
28867.6	5.69062e-06	60471	60471	
28939.4	6.7672e-06	60549	60549	
29011.3	7.92148e-06	60592	60592	
29083.2	9.70502e-06	60662	60662	
29155.1	1.21329e-05	60744	60744	
29226.9	1.50602e-05	60800	60800	
29298.8	1.87299e-05	60855	60855	
29370.7	2.33151e-05	60938	60938	
29442.5	2.90033e-05	61032	61032	
29514.4	3.5982e-05	61089	61089	
29586.3	4.44401e-05	61156	61156	
29658.2	5.45685e-05	61243	61243	
29722.8	6.53627e-05	61305	61305	
29787.4	7.78219e-05	61379	61379	
29852	9.22046e-05	61466	61466	
29916.6	0.000108719	61516	61516	
29981.2	0.00012758	61596	61596	
30045.8	0.000149069	61700	61700	
30110.5	0.000173479	61726	61726	
30175.1	0.000201136	61764	61764	
30242.6	0.000233786	61826	61826	
30310.1	0.000270772	61868	61868	
30377.6	0.000312537	61918	61918	
30445.1	0.000359541	61986	61986	
30512.7	0.000412259	62067	62067	
30584.5	0.000474993	62184	62184	
30656.4	0.000545348	62286	62286	
30728.3	0.000623967	62401	62401	
30800.1	0.000711517	62519	62519	
30872	0.000808687	62571	62571	
30943.9	0.000916182	62708	62708	
31015.8	0.00103472	62826	62826	
31087.6	0.00116501	62977	62977	
31155.1	0.00129912	63125	63125	
31222.6	0.00144485	63274	63274	
31290.2	0.00160276	63371	63371	
31357.7	0.00177339	63444	63444	
31429.5	0.00196914	63523	63523	
31501.4	0.00218043	63636	63636	
31573.3	0.0024078	63736	63736	
31645.2	0.00265172	63843	63843	
31717	0.0029126	63920	63920	
31788.9	0.00319077	64018	64018	
31856.4	0.00346855	64106	64106	
31923.9	0.00376195	64206	64206	
31991.4	0.00407101	64304	64304	
32058.9	0.0043957	64406	64406	
32130.8	0.00475787	64469	64469	
32202.7	0.00513734	64573	64573	
32274.6	0.00553375	64668	64668	
32346.4	0.00594658	64732	64732	
32418.3	0.0063752	64804	64804	
32490.2	0.00681882	64852	64852	
32562	0.00727655	64889	64889	
32633.9	0.00774734	64947	64947	
32705.8	0.00823	65053	65053	
32777.7	0.0087232	65132	65132	
32849.5	0.0092255	65194	65194	
32921.4	0.0097353	65285	65285	
32993.3	0.0102509	65359	65359	
33065.1	0.0107705	65401	65401	
33137	0.0112921	65455	65455	
33208.9	0.0118138	65505	65505	
33280.8	0.0123335	65570	65570	
33352.6	0.0128489	65587	65587	
33424.5	0.013358	65672	65672	
33496.4	0.0138584	65792	65792	
33568.2	0.014348	65887	65887	
33640.1	0.0148245	65955	65955	
33712	0.0152858	66049	66049	
33783.9	0.0157298	66069	66069	
33855.7	0.0161546	66111	66111	
33927.6	0.0165584	66198	66198	
33999.5	0.0169396	66221	66221	
34071.3	0.0172968	66347	66347	
34143.2	0.0176287	66426	66426	
34215.1	0.0179341	66514	66514	
34287	0.0182121	66616	66616	
34358.8	0.0184619	66695	66695	
34430.7	0.0186827	66862	66862	
34502.6	0.0188738	67033	67033	
34574.4	0.0190348	67156	67156	
34646.3	0.0191652	67290	67290	
34718.2	0.0192645	67372	67372	
34790.1	0.0193326	67454	67454	
34861.9	0.0193691	67503	67503	
34933.8	0.0193741	67589	67589	
35005.7	0.0193475	67668	67668	
35077.5	0.0192896	67808	67808	
35149.4	0.0192005	67930	67930	
35221.3	0.0190807	68028	68028	
35293.2	0.0189308	68038	68038	
35365	0.0187514	68125	68125	
35436.9	0.0185434	68204	68204	
35508.8	0.0183076	68301	68301	
35580.6	0.0180451	68418	68418	
35652.5	0.0177572	68483	68483	
35724.4	0.017445	68552	68552	
35796.3	0.0171101	68650	68650	
35868.1	0.0167537	68759	68759	
35940	0.0163774	68852	68852	
36011.9	0.0159827	68954	68954	
36083.7	0.0155713	69054	69054	
36155.6	0.0151445	69138	69138	
36227.5	0.0147041	69222	69222	
36299.4	0.0142516	69296	69296	
36371.2	0.0137883	69379	69379	
36443.1	0.0133159	69468	69468	
36515	0.0128357	69583	69583	
36586.8	0.0123491	69670	69670	
36658.7	0.0118574	69754	69754	
36730.6	0.0113619	69862	69862	
36802.5	0.0108638	69974	69974	
36874.3	0.0103643	70048	70048	
36946.2	0.00986448	70124	70124	
37018.1	0.00936541	70160	70160	
37089.9	0.00886808	70253	70253	
37161.8	0.00837342	70325	70325	
37233.7	0.00788228	70420	70420	
37305.6	0.00739545	70493	70493	
37377.4	0.0069136	70604	70604	
37449.3	0.00643732	70701	70701	
37521.2	0.00596711	70747	70747	
37593	0.00550333	70817	70817	
37664.9	0.00504624	70918	70918	
37736.8	0.00459594	71010	71010	
37808.7	0.00415244	71104	71104	
37880.5	0.00371559	71177	71177	
37952.4	0.00328511	71235	71235	
38024.3	0.00286062	71258	71258	
38096.1	0.0024416	71372	71372	
38168	0.00202745	71452	71452	
38239.9	0.00161748	71582	71582	
38311.8	0.00121095	71659	71659	
38383.6	0.000807075	71752	71752	
38455.5	0.000405087	71818	71818	
38527.4	4.22521e-06	71927	71927	
38599.2	-0.000396214	71996	71996	
38671.1	-0.000796855	72073	72073	
38743	-0.00119822	72138	72138	
38814.9	-0.00160069	72231	72231	
38886.7	-0.00200451	72395	72395	
38958.6	-0.00240975	72468	72468	
39030.5	-0.0028163	72591	72591	
39102.3	-0.00322386	72628	72628	
39174.2	-0.00363197	72713	72713	
39246.1	-0.00403994	72802	72802	
39318	-0.00444694	72930	72930	
39382.6	-0.00481105	72976	72976	
39447.2	-0.00517263	73001	73001	
39511.8	-0.00553073	73053	73053	
39576.4	-0.00588434	73112	73112	
39641	-0.0062324	73191	73191	
39705.6	-0.0065738	73270	73270	
39770.3	-0.0069074	73362	73362	
39834.9	-0.00723203	73428	73428	
39899.5	-0.00754655	73513	73513	
39964.1	-0.00784981	73559	73559	
40028.7	-0.00814071	73685	73685	
40100.6	-0.00844932	73751	73751	
40172.5	-0.00874004	73804	73804	
40244.3	-0.00901157	73917	73917	
40316.2	-0.00926271	74022	74022	
40388.1	-0.0094924	74106	74106	
40459.9	-0.00969972	74193	74193	
40531.8	-0.00988391	74295	74295	
40603.7	-0.0100444	74396	74396	
40675.6	-0.0101806	74521	74521	
40747.4	-0.0102923	74622	74622	
40819.3	-0.0103794	74759	74759	
40883.9	-0.0104356	74836	74836	
40948.5	-0.010472	74912	74912	
41013.1	-0.0104888	74979	74979	
41077.8	-0.0104864	75107	75107	
41142.4	-0.0104652	75216	75216	
41207	-0.0104257	75356	75356	
41271.6	-0.0103685	75441	75441	
41336.2	-0.0102943	75520	75520	
41400.9	-0.0102039	75627	75627	
41468.4	-0.0100945	75735	75735	
41533	-0.00997489	75803	75803	
41597.6	-0.00985504	75860	75860	
41662.3	-0.00971013	75933	75933	
41726.9	-0.00957135	76056	76056	
41791.5	-0.00940126	76146	76146	
41856.2	-0.00908309	76235	76235	
41923.7	-0.00883102	76348	76348	
41991.2	-0.00867029	76452	76452	
42063	-0.0084735	76521	76521	
42134.9	-0.00825842	76588	76588	
42206.8	-0.00801594	76655	76655	
42278.7	-0.0077728	76727	76727	
42346.2	-0.00755666	76772	76772	
42413.7	-0.00731028	76845	76845	
42481.2	-0.00705811	76923	76923	
42548.7	-0.00668307	76994	76994	
42620.6	-0.00646035	77064	77064	
42692.4	-0.00629951	77138	77138	
42764.3	-0.00615654	77216	77216	
42836.2	-0.00602187	77279	77279	
42908.1	-0.00585951	77364	77364	
42975.6	-0.00568603	77401	77401	
43043.1	-0.00550632	77452	77452	
43110.6	-0.00528608	77474	77474	
43178.1	-0.00508135	77508	77508	
