0	0	131072	131072	
64.3792	0	131072	131072	
128.758	0	131072	131072	
193.138	0	131072	131072	
257.517	0	131072	131072	
321.896	0	131072	131072	
386.275	0	131072	131072	
450.655	0	131072	131072	
515.034	0	131072	131072	
579.413	0	131072	131072	
643.792	0	131072	131072	
708.171	0	131072	131072	
772.551	0	131072	131072	
836.93	0	131072	131072	
901.309	0	131072	131072	
965.688	0	131072	131072	
1030.07	0	131072	131072	
1094.45	0	131072	131072	
1158.83	0	131072	131072	
1223.21	0	131072	131072	
1287.58	0	131072	131072	
1351.96	0	131072	131072	
1416.34	0	131072	131072	
1480.72	0	131072	131072	
1545.1	0	131072	131072	
1609.48	0	131072	131072	
1673.86	0	131072	131072	
1738.24	0	131072	131072	
1802.62	0	131072	131072	
1867	0	131072	131072	
1931.38	0	131072	131072	
1995.76	0	131072	131072	
2060.14	0	131072	131072	
2124.51	0	131072	131072	
2188.89	0	131072	131072	
2253.27	0	131072	131072	
2317.65	0	131072	131072	
2382.03	0	131072	131072	
2446.41	0	131072	131072	
2510.79	0	131072	131072	
2575.17	0	131072	131072	
2639.55	0	131072	131072	
2703.93	0	131072	131072	
2768.31	0	131072	131072	
2832.69	0	131072	131072	
2897.07	0	131072	131072	
2961.44	0	131072	131072	
3025.82	0	131072	131072	
3090.2	0	131072	131072	
3154.58	0	131072	131072	
3218.96	0	131072	131072	
3283.34	0	131072	131072	
3347.72	0	131072	131072	
3412.1	0	131072	131072	
3476.48	0	131072	131072	
3540.86	0	131072	131072	
3605.24	0	131072	131072	
3669.62	0	131072	131072	
3733.99	0	131072	131072	
3798.37	0	131072	131072	
3862.75	0	131072	131072	
3927.13	0	131072	131072	
3991.51	0	131072	131072	
4055.89	0	131072	131072	
4120.27	0	131072	131072	
4184.65	0	131072	131072	
4249.03	0	131072	131072	
4313.41	0	131072	131072	
4377.79	0	131072	131072	
4442.17	0	131072	131072	
4506.55	0	131072	131072	
4570.92	0	131072	131072	
4635.3	0	131072	131072	
4699.68	0	131072	131072	
4764.06	0	131072	131072	
4828.44	0	131072	131072	
4892.82	0	131072	131072	
4957.2	0	131072	131072	
5021.58	0	131072	131072	
5085.96	0	131072	131072	
5150.34	0	131072	131072	
5214.72	0	131072	131072	
5279.1	0	131072	131072	
5343.48	0	131072	131072	
5407.85	0	131072	131072	
5472.23	0	131072	131072	
5536.61	0	131072	131072	
5600.99	0	131072	131072	
5665.37	0	131072	131072	
5729.75	0	131072	131072	
5794.13	0	131072	131072	
5858.51	0	131072	131072	
5922.89	0	131072	131072	
5987.27	0	131072	131072	
6051.65	0	131072	131072	
6116.03	0	131072	131072	
6180.41	0	131072	131072	
6244.78	0	131072	131072	
6309.16	0	131072	131072	
6373.54	0	131072	131072	
6437.92	0	131072	131072	
6502.3	0	131072	131072	
6566.68	0	131072	131072	
6631.06	0	131072	131072	
6695.44	0	131072	131072	
6759.82	0	131072	131072	
6824.2	0	131072	131072	
6888.58	0	131072	131072	
6952.96	0	131072	131072	
7017.34	0	131072	131072	
7081.71	0	131072	131072	
7146.09	0	131072	131072	
7210.47	0	131072	131072	
7274.85	0	131072	131072	
7339.23	0	131072	131072	
7403.61	0	131072	131072	
7467.99	0	131072	131072	
7532.37	0	131072	131072	
7596.75	0	131072	131072	
7661.13	0	131072	131072	
7725.51	0	131072	131072	
7789.89	0	131072	131072	
7854.27	0	131072	131072	
7918.64	0	131072	131072	
7983.02	0	131072	131072	
8047.4	0	131072	131072	
8111.78	0	131072	131072	
8176.16	0	131072	131072	
8240.54	0	131072	131072	
8304.92	0	131072	131072	
8369.3	0	131072	131072	
8433.68	0	131072	131072	
8498.06	0	131072	131072	
8562.44	0	131072	131072	
8626.82	0	131072	131072	
8691.2	0	131072	131072	
8755.57	0	131072	131072	
8819.95	0	131072	131072	
8884.33	0	131072	131072	
8948.71	0	131072	131072	
9013.09	0	131072	131072	
9077.47	0	131072	131072	
9141.85	0	131072	131072	
9206.23	0	131072	131072	
9270.61	0	131072	131072	
9334.99	0	131072	131072	
9399.37	0	131072	131072	
9463.75	0	131072	131072	
9528.12	0	131072	131072	
9592.5	0	131072	131072	
9656.88	0	131072	131072	
9721.26	0	131072	131072	
9785.64	0	131072	131072	
9850.02	0	131072	131072	
9914.4	0	131072	131072	
9978.78	0	131072	131072	
10043.2	0	131072	131072	
10107.5	0	131072	131072	
10171.9	0	131072	131072	
10236.3	0	131072	131072	
10300.7	0	131072	131072	
10365.1	0	131072	131072	
10429.4	0	131072	131072	
10493.8	0	131072	131072	
10558.2	0	131072	131072	
10622.6	0	131072	131072	
10687	0	131072	131072	
10751.3	0	131072	131072	
10815.7	0	131072	131072	
10880.1	0	131072	131072	
10944.5	0	131072	131072	
11008.8	0	131072	131072	
11073.2	0	131072	131072	
11137.6	0	131072	131072	
11202	0	131072	131072	
11266.4	0	131072	131072	
11330.7	0	131072	131072	
11395.1	0	131072	131072	
11459.5	0	131072	131072	
11523.9	0	131072	131072	
11588.3	0	131072	131072	
11652.6	0	131072	131072	
11717	0	131072	131072	
11781.4	0	131072	131072	
11845.8	0	131072	131072	
11910.2	0	131072	131072	
11974.5	0	131072	131072	
12038.9	0	131072	131072	
12103.3	0	131072	131072	
12167.7	0	131072	131072	
12232.1	0	131072	131072	
12296.4	4.54747e-13	131072	131072	
12360.8	9.09495e-13	131072	131072	
12425.2	1.36424e-12	131072	131072	
12489.6	2.27374e-12	131072	131072	
12553.9	3.18323e-12	131072	131072	
12618.3	4.54747e-12	131072	131072	
12682.7	6.36646e-12	131072	131072	
12747.1	9.09495e-12	131072	131072	
12811.5	1.27329e-11	131072	131072	
12875.8	1.77351e-11	131072	131072	
12940.2	2.41016e-11	131072	131072	
13004.6	3.27418e-11	131072	131072	
13069	4.41105e-11	131072	131072	
13133.4	5.91172e-11	131072	131072	
13197.7	7.82165e-11	131072	131072	
13262.1	1.03682e-10	131072	131072	
13326.5	1.35969e-10	131072	131072	
13390.9	1.77351e-10	131072	131072	
13455.3	2.30557e-10	131072	131072	
13519.6	2.97405e-10	131072	131072	
13584	3.81988e-10	131072	131072	
13648.4	4.87489e-10	131072	131072	
13712.8	6.18911e-10	131072	131072	
13777.2	7.81711e-10	131072	131072	
13841.5	9.82254e-10	131072	131072	
13905.9	1.22782e-09	131072	131072	
13970.3	1.52704e-09	131072	131072	
14034.7	1.88993e-09	131072	131072	
14099	2.32785e-09	131072	131072	
14163.4	2.85399e-09	131072	131072	
14227.8	3.482e-09	131072	131072	
14292.2	4.22915e-09	131072	131072	
14356.6	5.11318e-09	131072	131072	
14420.9	6.15501e-09	131072	131072	
14485.3	7.37691e-09	131072	131072	
14549.7	8.803e-09	131072	131072	
14614.1	1.0461e-08	131072	131072	
14678.5	1.238e-08	131072	131072	
14742.8	1.45915e-08	131072	131072	
14807.2	1.71299e-08	131072	131072	
14871.6	2.00312e-08	131072	131072	
14936	2.33331e-08	131072	131072	
15000.4	2.70775e-08	131072	131072	
15064.7	3.13053e-08	131072	131072	
15129.1	3.6061e-08	131072	131072	
15193.5	4.13902e-08	131072	131072	
15257.9	4.73392e-08	131072	131072	
15322.3	5.39558e-08	131072	131072	
15386.6	6.12872e-08	131072	131072	
15451	6.93813e-08	131072	131072	
15515.4	7.82852e-08	131072	131072	
15579.8	8.80455e-08	131072	131072	
15644.2	9.8707e-08	131072	131072	
15708.5	1.10313e-07	131072	131072	
15772.9	1.22903e-07	131072	131072	
15837.3	1.36515e-07	131072	131072	
15901.7	1.51182e-07	131072	131072	
15966	1.66935e-07	131072	131072	
16030.4	1.83796e-07	131072	131072	
16094.8	2.01787e-07	131072	131072	
16159.2	2.2092e-07	131072	131072	
16223.6	2.41202e-07	131072	131072	
16287.9	2.62634e-07	131072	131072	
16352.3	2.85208e-07	131072	131072	
16416.7	3.08911e-07	131072	131072	
16481.1	3.33718e-07	131072	131072	
16545.5	3.59598e-07	131072	131072	
16609.8	3.86512e-07	131072	131072	
16674.2	4.14409e-07	131072	131072	
16738.6	4.4323e-07	131072	131072	
16803	4.72905e-07	131072	131072	
16867.4	5.03354e-07	131072	131072	
16931.7	5.34486e-07	131072	131072	
16996.1	5.66196e-07	131072	131072	
17060.5	5.98368e-07	131072	131072	
17124.9	6.30869e-07	131072	131072	
17189.3	6.63553e-07	131072	131072	
17253.6	6.96253e-07	131072	131072	
17318	7.28784e-07	131072	131072	
17382.4	7.60938e-07	131072	131072	
17446.8	7.92477e-07	131072	131072	
17511.1	8.23135e-07	131072	131072	
17575.5	8.52607e-07	131072	131072	
17639.9	8.80549e-07	131072	131072	
17704.3	9.06566e-07	131072	131072	
17768.7	9.30205e-07	131072	131072	
17833	9.50949e-07	131072	131072	
17897.4	9.68204e-07	131072	131072	
17961.8	9.81288e-07	131072	131072	
18026.2	9.89422e-07	131072	131072	
18090.6	9.91712e-07	131072	131072	
18154.9	9.87141e-07	131072	131072	
18219.3	9.74554e-07	131072	131072	
18283.7	9.5264e-07	131072	131072	
18348.1	9.19929e-07	131072	131072	
18412.5	8.74772e-07	131072	131072	
18476.8	8.15339e-07	131072	131072	
18541.2	7.39613e-07	131072	131072	
18605.6	6.45392e-07	131072	131072	
18670	5.30295e-07	131072	131072	
18734.4	3.91782e-07	131072	131072	
18798.7	2.27184e-07	131072	131072	
18863.1	3.37427e-08	131072	131072	
18927.5	-1.91326e-07	131072	131072	
18991.9	-4.50752e-07	131072	131072	
19056.2	-7.47102e-07	131072	131072	
19120.6	-1.08265e-06	131072	131072	
19185	-1.45919e-06	131072	131072	
19249.4	-1.87785e-06	131072	131072	
19313.8	-2.33883e-06	131072	131072	
19378.1	-2.84109e-06	131072	131072	
19442.5	-3.382e-06	131072	131072	
19506.9	-3.95691e-06	131072	131072	
19571.3	-4.55868e-06	131072	131072	
19635.7	-5.17705e-06	131072	131072	
19700	-5.79809e-06	131072	131072	
19764.4	-6.40339e-06	131072	131072	
19828.8	-6.96925e-06	131072	131072	
19893.2	-7.46577e-06	131072	131072	
19957.6	-7.85584e-06	131072	131072	
20021.9	-8.09397e-06	131072	131072	
20086.3	-8.12511e-06	131072	131072	
20150.7	-7.8833e-06	131072	131072	
20215.1	-7.29023e-06	131072	131072	
20279.5	-6.25373e-06	131072	131072	
20343.8	-4.66615e-06	131072	131072	
20408.2	-2.40266e-06	131072	131072	
20472.6	6.80518e-07	131072	131072	
20537	4.7479e-06	131072	131072	
20601.4	9.98662e-06	131072	131072	
20665.7	1.66083e-05	131072	131072	
20730.1	2.48508e-05	131072	131072	
20794.5	3.49802e-05	131072	131072	
20858.9	4.72925e-05	131072	131072	
20923.2	6.21152e-05	131072	131072	
20987.6	7.98088e-05	131072	131072	
21052	0.000100768	131072	131072	
21116.4	0.000125424	131072	131072	
21180.8	0.000154243	131072	131072	
21245.1	0.00018773	131072	131072	
21309.5	0.000226425	131072	131072	
21373.9	0.000270906	131072	131072	
21438.3	0.000321789	131072	131072	
21502.7	0.000379723	131072	131072	
21567	0.000445393	131072	131072	
21631.4	0.000519516	131072	131072	
21695.8	0.000602838	131072	131072	
21760.2	0.00069613	131072	131072	
21824.6	0.000800187	131072	131072	
21888.9	0.000915823	131072	131072	
21953.3	0.00104386	131072	131072	
22017.7	0.00118514	131072	131072	
22082.1	0.00134049	131072	131072	
22146.5	0.00151075	131072	131072	
22210.8	0.00169673	131072	131072	
22275.2	0.00189922	131072	131072	
22339.6	0.00211901	131072	131072	
22404	0.00235682	131072	131072	
22468.3	0.00261334	131072	131072	
22532.7	0.0028892	131072	131072	
22597.1	0.00318497	131072	131072	
22661.5	0.00350114	131072	131072	
22725.9	0.00383813	131072	131072	
22790.2	0.00419626	131072	131072	
22854.6	0.00457575	131072	131072	
22919	0.00497671	131072	131072	
22983.4	0.00539913	131072	131072	
23047.8	0.00584289	131072	131072	
23112.1	0.00630772	131072	131072	
23176.5	0.00679323	131072	131072	
23240.9	0.00729887	131072	131072	
23305.3	0.00782396	131072	131072	
23369.7	0.00836766	131072	131072	
23434	0.00892899	131072	131072	
23498.4	0.00950679	131072	131072	
23562.8	0.0100998	131072	131072	
23627.2	0.0107065	131072	131072	
23691.6	0.0113254	131072	131072	
23755.9	0.0119548	131072	131072	
23820.3	0.0125927	131072	131072	
23884.7	0.0132371	131072	131072	
23949.1	0.013886	131072	131072	
24013.4	0.0145371	131072	131072	
24077.8	0.0151882	131072	131072	
24142.2	0.0158366	131072	131072	
24206.6	0.0164801	131072	131072	
24271	0.017116	131072	131072	
24335.3	0.0177417	131072	131072	
24399.7	0.0183545	131072	131072	
24464.1	0.0189519	131072	131072	
24528.5	0.0195312	131072	131072	
24592.9	0.0200898	131072	131072	
24657.2	0.0206249	131072	131072	
24721.6	0.0211342	131072	131072	
24786	0.0216151	131072	131072	
24850.4	0.0220651	131072	131072	
24914.8	0.0224821	131072	131072	
24979.1	0.0228637	131072	131072	
25043.5	0.023208	131072	131072	
25107.9	0.0235131	131072	131072	
25172.3	0.023777	131072	131072	
25236.7	0.0239983	131072	131072	
25301	0.0241755	131072	131072	
25365.4	0.0243074	131072	131072	
25429.8	0.0243929	131072	131072	
25494.2	0.0244312	131072	131072	
25558.6	0.0244215	131072	131072	
25622.9	0.0243636	131072	131072	
25687.3	0.024257	131072	131072	
25751.7	0.0241019	131072	131072	
25816.1	0.0238983	131072	131072	
25880.4	0.0236468	131072	131072	
25944.8	0.0233478	131072	131072	
26009.2	0.0230021	131072	131072	
26073.6	0.0226108	131072	131072	
26138	0.0221749	131072	131072	
26202.3	0.0216959	131072	131072	
26266.7	0.0211752	131072	131072	
26331.1	0.0206145	131072	131072	
26395.5	0.0200156	131072	131072	
26459.9	0.0193804	131072	131072	
26524.2	0.0187109	131072	131072	
26588.6	0.0180093	131072	131072	
26653	0.0172778	131072	131072	
26717.4	0.0165188	131072	131072	
26781.8	0.0157346	131072	131072	
26846.1	0.0149277	131072	131072	
26910.5	0.0141004	131072	131072	
26974.9	0.0132554	131072	131072	
27039.3	0.012395	131072	131072	
27103.7	0.0115218	131072	131072	
27168	0.0106383	131072	131072	
27232.4	0.00974679	131072	131072	
27296.8	0.00884977	131072	131072	
27361.2	0.00794958	131072	131072	
27425.5	0.00704848	131072	131072	
27489.9	0.00614871	131072	131072	
27554.3	0.0052524	131072	131072	
27618.7	0.00436161	131072	131072	
27683.1	0.00347831	131072	131072	
27747.4	0.00260437	131072	131072	
27811.8	0.00174156	131072	131072	
27876.2	0.000891559	131072	131072	
27940.6	5.59286e-05	131072	131072	
28005	-0.000763868	131072	131072	
28069.3	-0.00156648	131072	131072	
28133.7	-0.00235065	131072	131072	
28198.1	-0.00311524	131072	131072	
28262.5	-0.0038592	131072	131072	
28326.9	-0.0045816	131072	131072	
28391.2	-0.00528159	131072	131072	
28455.6	-0.00595842	131072	131072	
28520	-0.00661144	131072	131072	
28584.4	-0.00724005	131072	131072	
28648.8	-0.00784377	131072	131072	
28713.1	-0.00842218	131072	131072	
28777.5	-0.00897491	131072	131072	
28841.9	-0.00950168	131072	131072	
28906.3	-0.0100023	131072	131072	
28970.7	-0.0104765	131072	131072	
29035	-0.0109242	131072	131072	
29099.4	-0.0113453	131072	131072	
29163.8	-0.0117397	131072	131072	
29228.2	-0.0121075	131072	131072	
29292.5	-0.0124485	131072	131072	
29356.9	-0.0127629	131072	131072	
29421.3	-0.0130507	131072	131072	
29485.7	-0.0133119	131072	131072	
29550.1	-0.0135465	131072	131072	
29614.4	-0.0137547	131072	131072	
29678.8	-0.0139365	131072	131072	
29743.2	-0.014092	131072	131072	
29807.6	-0.0142213	131072	131072	
29872	-0.0143244	131072	131072	
29936.3	-0.0144014	131072	131072	
30000.7	-0.0144524	131072	131072	
30065.1	-0.0144774	131072	131072	
30129.5	-0.0144766	131072	131072	
30193.9	-0.0144501	131072	131072	
30258.2	-0.0143978	131072	131072	
30322.6	-0.0143199	131072	131072	
30387	-0.0142165	131072	131072	
30451.4	-0.0140877	131072	131072	
30515.8	-0.0139336	131072	131072	
30580.1	-0.0137544	131072	131072	
30644.5	-0.0135502	131072	131072	
30708.9	-0.0133212	131072	131072	
30773.3	-0.0130676	131072	131072	
30837.6	-0.0127897	131072	131072	
30902	-0.0124877	131072	131072	
30966.4	-0.012162	131072	131072	
31030.8	-0.0118129	131072	131072	
31095.2	-0.0114408	131072	131072	
31159.5	-0.0110462	131072	131072	
31223.9	-0.0106295	131072	131072	
31288.3	-0.0101913	131072	131072	
31352.7	-0.00973223	131072	131072	
31417.1	-0.0092529	131072	131072	
31481.4	-0.00875406	131072	131072	
31545.8	-0.00823647	131072	131072	
31610.2	-0.00770096	131072	131072	
31674.6	-0.00714844	131072	131072	
31739	-0.00657986	131072	131072	
31803.3	-0.00599623	131072	131072	
31867.7	-0.00539863	131072	131072	
31932.1	-0.00478818	131072	131072	
31996.5	-0.00416608	131072	131072	
32060.9	-0.00353355	131072	131072	
32125.2	-0.00289189	131072	131072	
32189.6	-0.00224243	131072	131072	
32254	-0.00158656	131072	131072	
32318.4	-0.000925681	131072	131072	
32382.7	-0.000261262	131072	131072	
32447.1	0.000405216	131072	131072	
32511.5	0.00107224	131072	131072	
32575.9	0.00173828	131072	131072	
32640.3	0.00240178	131072	131072	
32704.6	0.00306118	131072	131072	
32769	0.00371492	131072	131072	
32833.4	0.00436144	131072	131072	
32897.8	0.00499919	131072	131072	
32962.2	0.00562661	131072	131072	
33026.5	0.00624219	131072	131072	
33090.9	0.00684442	131072	131072	
33155.3	0.00743186	131072	131072	
33219.7	0.00800305	131072	131072	
33284.1	0.00855663	131072	131072	
33348.4	0.00909125	131072	131072	
33412.8	0.00960562	131072	131072	
33477.2	0.0100985	131072	131072	
33541.6	0.0105688	131072	131072	
33606	0.0110154	131072	131072	
33670.3	0.0114373	131072	131072	
33734.7	0.0118334	131072	131072	
33799.1	0.0122031	131072	131072	
33863.5	0.0125455	131072	131072	
33927.9	0.0128598	131072	131072	
33992.2	0.0131456	131072	131072	
34056.6	0.0134024	131072	131072	
34121	0.0136296	131072	131072	
34185.4	0.013827	131072	131072	
34249.7	0.0139943	131072	131072	
34314.1	0.0141315	131072	131072	
34378.5	0.0142385	131072	131072	
34442.9	0.0143154	131072	131072	
34507.3	0.0143623	131072	131072	
34571.6	0.0143795	131072	131072	
34636	0.0143673	131072	131072	
34700.4	0.0143262	131072	131072	
34764.8	0.0142566	131072	131072	
34829.2	0.0141592	131072	131072	
34893.5	0.0140346	131072	131072	
34957.9	0.0138836	131072	131072	
35022.3	0.0137069	131072	131072	
35086.7	0.0135056	131072	131072	
35151.1	0.0132805	131072	131072	
35215.4	0.0130327	131072	131072	
35279.8	0.0127632	131072	131072	
35344.2	0.012473	131072	131072	
35408.6	0.0121635	131072	131072	
35473	0.0118357	131072	131072	
35537.3	0.0114908	131072	131072	
35601.7	0.0111302	131072	131072	
35666.1	0.010755	131072	131072	
35730.5	0.0103666	131072	131072	
35794.8	0.00996618	131072	131072	
35859.2	0.00955512	131072	131072	
35923.6	0.00913468	131072	131072	
35988	0.00870615	131072	131072	
36052.4	0.00827078	131072	131072	
36116.7	0.00782985	131072	131072	
36181.1	0.00738459	131072	131072	
36245.5	0.0069362	131072	131072	
36309.9	0.00648587	131072	131072	
36374.3	0.00603474	131072	131072	
36438.6	0.00558392	131072	131072	
36503	0.00513449	131072	131072	
36567.4	0.00468747	131072	131072	
36631.8	0.00424384	131072	131072	
36696.2	0.00380452	131072	131072	
36760.5	0.00337041	131072	131072	
36824.9	0.00294232	131072	131072	
36889.3	0.00252102	131072	131072	
36953.7	0.00210724	131072	131072	
37018.1	0.00170163	131072	131072	
37082.4	0.00130479	131072	131072	
37146.8	0.000917273	131072	131072	
37211.2	0.000539557	131072	131072	
37275.6	0.000172072	131072	131072	
37339.9	-0.000184809	131072	131072	
37404.3	-0.000530772	131072	131072	
37468.7	-0.000865556	131072	131072	
37533.1	-0.00118896	131072	131072	
37597.5	-0.00150082	131072	131072	
37661.8	-0.00180104	131072	131072	
37726.2	-0.00208956	131072	131072	
37790.6	-0.00236639	131072	131072	
37855	-0.00263155	131072	131072	
37919.4	-0.00288513	131072	131072	
37983.7	-0.00312724	131072	131072	
38048.1	-0.00335805	131072	131072	
38112.5	-0.00357774	131072	131072	
38176.9	-0.00378654	131072	131072	
38241.3	-0.0039847	131072	131072	
38305.6	-0.0041725	131072	131072	
38370	-0.00435024	131072	131072	
38434.4	-0.00451825	131072	131072	
38498.8	-0.00467687	131072	131072	
38563.2	-0.00482645	131072	131072	
38627.5	-0.00496737	131072	131072	
38691.9	-0.00509999	131072	131072	
38756.3	-0.00522472	131072	131072	
38820.7	-0.00534193	131072	131072	
38885.1	-0.00545202	131072	131072	
38949.4	-0.00555539	131072	131072	
39013.8	-0.00565243	131072	131072	
39078.2	-0.00574352	131072	131072	
39142.6	-0.00582905	131072	131072	
39206.9	-0.00590939	131072	131072	
39271.3	-0.0059849	131072	131072	
39335.7	-0.00605593	131072	131072	
39400.1	-0.00612284	131072	131072	
39464.5	-0.00618594	131072	131072	
39528.8	-0.00624555	131072	131072	
39593.2	-0.00630196	131072	131072	
39657.6	-0.00635546	131072	131072	
39722	-0.00640631	131072	131072	
39786.4	-0.00645476	131072	131072	
39850.7	-0.00650103	131072	131072	
39915.1	-0.00654534	131072	131072	
39979.5	-0.00658787	131072	131072	
40043.9	-0.00662881	131072	131072	
40108.3	-0.00666831	131072	131072	
40172.6	-0.0067065	131072	131072	
40237	-0.00674351	131072	131072	
40301.4	-0.00677944	131072	131072	
40365.8	-0.00681438	131072	131072	
40430.2	-0.0068484	131072	131072	
40494.5	-0.00688154	131072	131072	
40558.9	-0.00691387	131072	131072	
40623.3	-0.00694539	131072	131072	
40687.7	-0.00697612	131072	131072	
40752	-0.00700608	131072	131072	
40816.4	-0.00703523	131072	131072	
40880.8	-0.00706358	131072	131072	
40945.2	-0.00709107	131072	131072	
41009.6	-0.00711769	131072	131072	
41073.9	-0.00714338	131072	131072	
41138.3	-0.00716809	131072	131072	
41202.7	-0.00719176	131072	131072	
41267.1	-0.00721433	131072	131072	
41331.5	-0.00723574	131072	131072	
41395.8	-0.00725592	131072	131072	
41460.2	-0.00727479	131072	131072	
41524.6	-0.00729229	131072	131072	
41589	-0.00730835	131072	131072	
41653.4	-0.00732289	131072	131072	
41717.7	-0.00733584	131072	131072	
41782.1	-0.00734714	131072	131072	
41846.5	-0.00735673	131072	131072	
41910.9	-0.00736455	131072	131072	
41975.3	-0.00737053	131072	131072	
42039.6	-0.00737464	131072	131072	
42104	-0.00737681	131072	131072	
42168.4	-0.00737701	131072	131072	
42232.8	-0.00737521	131072	131072	
42297.1	-0.00737137	131072	131072	
42361.5	-0.00736547	131072	131072	
42425.9	-0.0073575	131072	131072	
42490.3	-0.00734745	131072	131072	
42554.7	-0.00733531	131072	131072	
42619	-0.00732109	131072	131072	
42683.4	-0.0073048	131072	131072	
42747.8	-0.00728646	131072	131072	
42812.2	-0.0072661	131072	131072	
42876.6	-0.00724374	131072	131072	
42940.9	-0.00721942	131072	131072	
43005.3	-0.0071932	131072	131072	
43069.7	-0.00716512	131072	131072	
43134.1	-0.00713523	131072	131072	
43198.5	-0.00710361	131072	131072	
