0	0
11.0308	0
22.0616	0
33.0924	0
40.4463	0
51.4771	0
62.5079	0
73.5387	0
80.8926	0
91.9234	0
102.954	0
110.308	0
121.339	0
132.37	0
143.401	0
150.754	0
161.785	0
172.816	0
180.17	0
191.201	0
202.231	0
213.262	0
220.616	0
231.647	0
242.678	0
250.032	0
261.062	0
272.093	0
283.124	0
290.478	0
301.509	0
312.54	0
323.57	0
330.924	0
341.955	0
352.986	0
360.34	0
371.371	0
382.401	0
393.432	0
400.786	0
411.817	0
422.848	0
430.202	0
441.232	0
452.263	0
463.294	0
470.648	0
481.679	0
492.709	0
500.063	0
511.094	0
522.125	0
533.156	0
540.51	0
551.54	0
562.571	0
573.602	0
580.956	0
591.987	0
603.018	0
610.371	0
621.402	0
632.433	0
643.464	0
650.818	0
661.849	0
672.879	0
680.233	0
691.264	0
702.295	0
713.326	0
720.68	0
731.71	0
742.741	0
750.095	0
761.126	0
772.157	0
783.187	0
790.541	0
801.572	0
812.603	0
823.634	0
830.988	0
842.018	0
853.049	0
860.403	0
871.434	0
882.465	0
893.496	0
900.849	0
911.88	0
922.911	0
930.265	0
941.296	0
952.327	0
963.357	0
970.711	0
981.742	0
992.773	0
1000.13	0
1011.16	0
1022.19	0
1033.22	0
1040.57	0
1051.6	0
1062.63	0
1073.67	0
1081.02	0
1092.05	0
1103.08	0
1110.43	0
1121.47	0
1132.5	0
1143.53	0
1150.88	0
1161.91	0
1172.94	0
1180.3	0
1191.33	0
1202.36	0
1213.39	0
1220.74	0
1231.77	0
1242.8	0
1250.16	0
1261.19	0
1272.22	0
1283.25	0
1290.6	0
1301.64	0
1312.67	0
1320.02	0
1331.05	0
1342.08	0
1353.11	0
1360.47	0
1371.5	0
1382.53	0
1393.56	0
1400.91	0
1411.94	0
1422.97	0
1430.33	0
1441.36	0
1452.39	0
1463.42	0
1470.77	0
1481.81	0
1492.84	0
1500.19	0
1511.22	0
1522.25	0
1533.28	0
1540.64	0
1551.67	0
1562.7	0
1570.05	0
1581.08	0
1592.11	0
1603.14	0
1610.5	0
1621.53	0
1632.56	0
1643.59	0
1650.94	0
1661.98	0
1673.01	0
1680.36	0
1691.39	0
1702.42	0
1713.45	0
1720.81	0
1731.84	0
1742.87	0
1750.22	0
1761.25	0
1772.28	0
1783.31	0
1790.67	0
1801.7	0
1812.73	0
1820.08	0
1831.11	0
1842.15	0
1853.18	0
1860.53	0
1871.56	0
1882.59	0
1893.62	0
1900.98	0
1912.01	0
1923.04	0
1930.39	0
1941.42	0
1952.45	0
1963.48	0
1970.84	0
1981.87	0
1992.9	0
2000.25	0
2011.28	0
2022.31	0
2033.35	0
2040.7	0
2051.73	0
2062.76	0
2070.12	0
2081.15	0
2092.18	0
2103.21	0
2110.56	0
2121.59	0
2132.62	0
2143.65	0
2151.01	0
2162.04	0
2173.07	0
2180.42	0
2191.45	0
2202.48	0
2213.52	0
2220.87	0
2231.9	0
2242.93	0
2250.28	0
2261.32	0
2272.35	0
2283.38	0
2290.73	0
2301.76	0
2312.79	0
2320.15	0
2331.18	0
2342.21	0
2353.24	0
2360.59	0
2371.62	0
2382.65	0
2390.01	0
2401.04	0
2412.07	0
2423.1	0
2430.45	0
2441.49	0
2452.52	0
2463.55	0
2470.9	0
2481.93	0
2492.96	0
2500.32	0
2511.35	0
2522.38	0
2533.41	0
2540.76	0
2551.79	0
2562.82	0
2570.18	0
2581.21	0
2592.24	0
2603.27	0
2610.62	0
2621.66	0
2632.69	0
2640.04	0
2651.07	0
2662.1	0
2673.13	0
2680.49	0
2691.52	0
2702.55	0
2713.58	0
2720.93	0
2731.96	0
2742.99	0
2750.35	0
2761.38	0
2772.41	0
2783.44	0
2790.79	0
2801.82	0
2812.86	0
2820.21	0
2831.24	0
2842.27	0
2853.3	0
2860.66	0
2871.69	0
2882.72	0
2890.07	0
2901.1	0
2912.13	0
2923.16	0
2930.52	0
2941.55	-1.81899e-12
2952.58	-3.63798e-12
2963.61	-5.45697e-12
2970.96	-7.27596e-12
2981.99	-1.18234e-11
2993.02	-1.72804e-11
3000.38	-2.27374e-11
3011.41	-3.45608e-11
3022.44	-5.27507e-11
3033.47	-7.9126e-11
3040.82	-1.04592e-10
3051.85	-1.57343e-10
3062.89	-2.3465e-10
3070.24	-3.0559e-10
3081.27	-4.51109e-10
3092.3	-6.63022e-10
3103.33	-9.67702e-10
3110.69	-1.24146e-09
3121.72	-1.79352e-09
3132.75	-2.57478e-09
3140.1	-3.26509e-09
3151.13	-4.63933e-09
3162.16	-6.55291e-09
3173.19	-9.19954e-09
3180.55	-1.1496e-08
3191.58	-1.59816e-08
3202.61	-2.20871e-08
3213.64	-3.03498e-08
3220.99	-3.73921e-08
3232.02	-5.08962e-08
3243.05	-6.88897e-08
3250.41	-8.40355e-08
3261.44	-1.12707e-07
3272.47	-1.50345e-07
3283.5	-1.99481e-07
3290.85	-2.40161e-07
3301.88	-3.15872e-07
3312.91	-4.13309e-07
3320.27	-4.93041e-07
3331.3	-6.39687e-07
3342.33	-8.25817e-07
3353.36	-1.06086e-06
3360.71	-1.25027e-06
3371.74	-1.59322e-06
3382.77	-2.02063e-06
3390.13	-2.36135e-06
3401.16	-2.97164e-06
3412.19	-3.72259e-06
3423.22	-4.64233e-06
3430.57	-5.36524e-06
3441.6	-6.64174e-06
3452.63	-8.1864e-06
3463.66	-1.00474e-05
3471.02	-1.14906e-05
3482.05	-1.40049e-05
3493.08	-1.69998e-05
3500.43	-1.93011e-05
3511.46	-2.32729e-05
3522.49	-2.79527e-05
3533.52	-3.34447e-05
3540.88	-3.76142e-05
3551.91	-4.4724e-05
3562.94	-5.29833e-05
3570.29	-5.92018e-05
3581.32	-6.97182e-05
3592.35	-8.18171e-05
3603.38	-9.56879e-05
3610.73	-0.00010602
3621.77	-0.000123308
3632.8	-0.000142949
3640.15	-0.000157474
3651.18	-0.0001816
3662.21	-0.00020878
3673.24	-0.000239307
3680.59	-0.00026167
3691.62	-0.000298472
3702.65	-0.000339483
3710.01	-0.000369336
3721.04	-0.000418155
3732.07	-0.000472158
3743.1	-0.000531738
3750.45	-0.000574757
3761.48	-0.000644539
3772.51	-0.000721006
3783.54	-0.000804594
3790.9	-0.000864495
3801.93	-0.000960942
3812.96	-0.00106571
3820.31	-0.00114041
3831.34	-0.00126006
3842.37	-0.00138927
3853.4	-0.00152849
3860.76	-0.00162708
3871.79	-0.00178399
3882.82	-0.0019521
3890.17	-0.00207061
3901.2	-0.00225833
3912.23	-0.00245837
3923.26	-0.00267108
3930.62	-0.00282011
3941.65	-0.00305472
3952.68	-0.00330286
3960.03	-0.00347594
3971.06	-0.00374718
3982.09	-0.00403251
3993.12	-0.00433204
4000.47	-0.00453965
4011.51	-0.00486291
4022.54	-0.00520033
4033.57	-0.00555173
4040.92	-0.00579364
4051.95	-0.00616768
4062.98	-0.00655473
4070.33	-0.0068197
4081.37	-0.00722705
4092.4	-0.00764551
4103.43	-0.00807407
4110.78	-0.00836482
4121.81	-0.00880749
4132.84	-0.00925666
4140.19	-0.00955885
4151.23	-0.0100148
4162.26	-0.010472
4173.29	-0.0109279
4180.64	-0.0112297
4191.67	-0.0116771
4202.7	-0.0121151
4210.06	-0.0124
4221.09	-0.0128137
4232.12	-0.0132071
4243.15	-0.0135754
4250.5	-0.0138043
4261.53	-0.0141186
4272.56	-0.0143925
4283.59	-0.0146194
4290.95	-0.0147411
4301.98	-0.0148735
4313.01	-0.0149386
4320.36	-0.0149404
4331.39	-0.0148739
4342.43	-0.014716
4353.46	-0.0144565
4360.81	-0.0142218
4371.84	-0.0137692
4382.87	-0.0131856
4390.23	-0.012718
4401.26	-0.0118896
4412.29	-0.0108976
4423.32	-0.00972932
4430.67	-0.008846
4441.7	-0.00735453
4452.73	-0.00565141
4460.09	-0.00439181
4471.12	-0.00230627
4482.15	2.63649e-05
4493.18	0.00261902
4500.53	0.00449814
4511.56	0.00755185
4522.59	0.0108979
4533.62	0.0145473
4540.98	0.0171537
4552.01	0.0213305
4563.04	0.0258353
4570.39	0.0290244
4581.42	0.0340911
4592.46	0.0395019
4603.49	0.0452601
4610.84	0.0492928
4621.87	0.0556328
4632.9	0.0623208
4640.25	0.0669711
4651.29	0.0742305
4662.32	0.0818247
4673.35	0.0897447
4680.7	0.0952006
4691.73	0.103639
4702.76	0.112369
4710.12	0.118343
4721.15	0.127522
4732.18	0.136944
4743.21	0.146586
4750.56	0.153124
4761.59	0.163079
4772.62	0.173185
4783.65	0.183413
4791.01	0.190284
4802.04	0.200645
4813.07	0.211043
4820.42	0.217977
4831.45	0.228356
4842.48	0.238676
4853.52	0.248899
4860.87	0.255643
4871.9	0.26562
4882.93	0.275399
4890.28	0.281788
4901.32	0.291149
4912.35	0.300207
4923.38	0.308925
4930.73	0.31453
4941.76	0.322599
4952.79	0.330229
4960.15	0.335056
4971.18	0.34188
4982.21	0.348177
4993.24	0.353916
5000.59	0.357419
5011.62	0.362166
5022.65	0.366285
5030.01	0.36867
5041.04	0.371691
5052.07	0.374029
5063.1	0.375667
5070.45	0.376363
5081.48	0.376808
5092.51	0.376525
5103.55	0.375509
5110.9	0.374424
5121.93	0.372183
5132.96	0.369209
5140.31	0.366823
5151.35	0.362643
5162.38	0.357751
5173.41	0.352162
5180.76	0.348056
5191.79	0.341339
5202.82	0.333971
5210.18	0.328709
5221.21	0.320308
5232.24	0.311319
5243.27	0.301771
5250.62	0.295109
5261.65	0.284694
5272.68	0.273801
5280.04	0.26629
5291.07	0.254673
5302.1	0.242667
5313.13	0.230308
5320.48	0.22189
5331.51	0.209022
5342.54	0.195897
5353.58	0.182552
5360.93	0.173551
5371.96	0.15992
5382.99	0.146167
5390.34	0.136948
5401.38	0.123072
5412.41	0.109169
5423.44	0.0952762
5430.79	0.0860366
5441.82	0.0722367
5452.85	0.0585382
5460.21	0.0494789
5471.24	0.0360237
5482.27	0.0227578
5493.3	0.00971286
5500.65	0.00115421
5511.68	-0.0114544
5522.71	-0.0237617
5530.07	-0.0317849
5541.1	-0.043527
5552.13	-0.0548937
5563.16	-0.0658594
5570.51	-0.0729348
5581.54	-0.0831779
5592.57	-0.092957
5603.61	-0.102251
5610.96	-0.108168
5621.99	-0.116612
5633.02	-0.124522
5640.37	-0.129492
5651.41	-0.136482
5662.44	-0.142903
5673.47	-0.148746
5680.82	-0.152316
5691.85	-0.157181
5702.88	-0.161454
5710.24	-0.163973
5721.27	-0.167258
5732.3	-0.169954
5743.33	-0.172067
5750.68	-0.173155
5761.71	-0.174316
5772.74	-0.174921
5780.1	-0.175023
5791.13	-0.174737
5802.16	-0.173942
5813.19	-0.172657
5820.54	-0.171541
5831.57	-0.169495
5842.6	-0.167027
5853.64	-0.164165
5860.99	-0.162054
5872.02	-0.158602
5883.05	-0.15484
5890.4	-0.152174
5901.44	-0.147965
5912.47	-0.143533
5923.5	-0.138913
5930.85	-0.135744
5941.88	-0.130885
5952.91	-0.125927
5960.27	-0.122584
5971.3	-0.117535
5982.33	-0.112476
5993.36	-0.107435
6000.71	-0.104099
6011.74	-0.0991547
6022.77	-0.0943039
6030.13	-0.0911348
6041.16	-0.0864954
6052.19	-0.0820126
6063.22	-0.0777064
6070.57	-0.0749425
6081.6	-0.0709692
6092.64	-0.0672152
6103.67	-0.0636928
6111.02	-0.061478
6122.05	-0.0583623
6133.08	-0.0554998
6140.44	-0.0537342
6151.47	-0.051302
6162.5	-0.0491298
6173.53	-0.0472165
6180.88	-0.0460836
6191.91	-0.044595
6202.94	-0.0433542
6210.3	-0.0426614
6221.33	-0.0418175
6232.36	-0.0411998
6243.39	-0.040798
6250.74	-0.0406445
6261.77	-0.040577
6272.8	-0.0406933
6280.16	-0.0408665
6291.19	-0.0412597
6302.22	-0.0418004
6313.25	-0.0424746
6320.6	-0.0429911
6331.64	-0.0438557
6342.67	-0.0448157
6350.02	-0.0455017
6361.05	-0.0465895
6372.08	-0.0477359
6383.11	-0.0489279
6390.47	-0.0497416
6401.5	-0.050982
6412.53	-0.0522359
6423.56	-0.0534925
6430.91	-0.0543267
6441.94	-0.0555657
6452.97	-0.0567823
6460.33	-0.0575768
6471.36	-0.0587383
6482.39	-0.0598577
6493.42	-0.0609289
6500.77	-0.0616137
6511.8	-0.0625936
6522.84	-0.0635132
6530.19	-0.0640911
6541.22	-0.0649033
6552.25	-0.065648
6563.28	-0.0663235
6570.64	-0.0667349
6581.67	-0.0672931
6592.7	-0.0677804
6600.05	-0.0680659
6611.08	-0.0684356
6622.11	-0.0687354
6633.14	-0.0689665
6640.5	-0.0690829
6651.53	-0.0692022
6662.56	-0.0692563
6673.59	-0.0692468
6680.94	-0.069206
6691.97	-0.0690945
6703	-0.0689241
6710.36	-0.0687786
6721.39	-0.068514
6732.42	-0.0681951
6743.45	-0.0678238
6750.8	-0.0675478
6761.84	-0.0670926
6772.87	-0.0665891
6780.22	-0.0662273
6791.25	-0.0656466
6802.28	-0.0650215
6813.31	-0.0643531
6820.67	-0.0638841
6831.7	-0.0631465
6842.73	-0.0623689
6850.08	-0.0618289
6861.11	-0.0609873
6872.14	-0.0601088
6883.17	-0.0591945
6890.53	-0.0585657
6901.56	-0.0575944
6912.59	-0.0565905
6923.62	-0.0555553
6930.97	-0.0548483
6942	-0.0537638
6953.04	-0.0526515
6960.39	-0.0518953
6971.42	-0.0507402
6982.45	-0.0495614
6993.48	-0.0483607
7000.84	-0.0475488
7011.87	-0.0463154
7022.9	-0.0450649
7030.25	-0.0442225
7041.28	-0.0429476
7052.31	-0.0416607
7063.34	-0.0403639
7070.7	-0.0394948
7081.73	-0.0381859
7092.76	-0.0368726
7100.11	-0.0359955
7111.14	-0.0346793
7122.17	-0.0333641
7133.2	-0.0320518
7140.56	-0.0311796
7151.59	-0.0298767
7162.62	-0.0285818
7173.65	-0.0272966
7181	-0.0264462
7192.04	-0.0251812
7203.07	-0.0239302
7210.42	-0.0231048
7221.45	-0.0218806
7232.48	-0.020674
7243.51	-0.0194862
7250.87	-0.0187054
7261.9	-0.0175513
7272.93	-0.0164186
7280.28	-0.0156756
7291.31	-0.0145801
7302.34	-0.0135076
7313.37	-0.0124588
7320.73	-0.0117728
7331.76	-0.010764
7342.79	-0.0097797
7350.14	-0.00913714
7361.17	-0.00819389
7372.2	-0.00727543
7383.23	-0.0063818
7390.59	-0.00579986
7401.62	-0.00494763
7412.65	-0.00412021
7420	-0.00358236
7431.03	-0.00279619
7442.07	-0.00203473
7453.1	-0.00129795
7460.45	-0.00082046
7471.48	-0.000124798
7482.51	0.000546152
7493.54	0.00119232
7500.9	0.00160928
7511.93	0.00221388
7522.96	0.00279332
7530.31	0.00316553
7541.34	0.00370253
7552.37	0.00421368
7563.4	0.00469865
7570.76	0.00500723
7581.79	0.00544771
7592.82	0.00586092
7600.17	0.00612101
7611.2	0.00648772
7622.23	0.00682586
7633.26	0.00713489
7640.62	0.00732447
7651.65	0.0075838
7662.68	0.00781259
7670.03	0.00794787
7681.06	0.00812457
7692.09	0.00826932
7703.12	0.00838165
7710.48	0.00843829
7721.51	0.0084956
7732.54	0.00851937
7743.57	0.00850926
7750.92	0.00848357
7761.96	0.00841641
7772.99	0.00831476
7780.34	0.00822777
7791.37	0.00806842
7802.4	0.00787442
7813.43	0.00764585
7820.79	0.00747435
7831.82	0.00718855
7842.85	0.00686876
7850.2	0.00663686
7861.23	0.00626126
7872.26	0.0058528
7883.29	0.00541203
7890.65	0.00510055
7901.68	0.00460739
7912.71	0.00408378
7920.06	0.00371819
7931.09	0.00314567
7942.12	0.00254501
7953.15	0.0019172
7960.51	0.00148408
7971.54	0.000813334
7982.57	0.000118288
7993.6	-0.0005999
8000.95	-0.00109096
8011.98	-0.00184505
8023.02	-0.00261904
8030.37	-0.00314545
8041.4	-0.00394973
8052.43	-0.00477047
8063.46	-0.00560632
8070.82	-0.00617129
8081.85	-0.00702936
8092.88	-0.00789895
8100.23	-0.00848441
8111.26	-0.00937019
8122.29	-0.0102639
8133.32	-0.0111641
8140.68	-0.0117672
8151.71	-0.0126754
8162.74	-0.0135864
8170.09	-0.0141948
8181.12	-0.0151079
8192.15	-0.0160203
8203.18	-0.0169309
8210.54	-0.0175363
8221.57	-0.018441
8232.6	-0.0193403
8243.63	-0.0202332
8250.98	-0.0208241
8262.01	-0.0217033
8273.05	-0.0225727
8280.4	-0.0231463
8291.43	-0.0239967
8302.46	-0.0248341
8313.49	-0.0256573
8320.85	-0.0261977
8331.88	-0.0269947
8342.91	-0.0277745
8350.26	-0.0282842
8361.29	-0.0290327
8372.32	-0.0297608
8383.35	-0.0304675
8390.71	-0.0309262
8401.74	-0.0315946
8412.77	-0.0322385
8420.12	-0.0326537
8431.15	-0.0332543
8442.18	-0.0338274
8453.21	-0.0343718
8460.57	-0.0347183
8471.6	-0.0352125
8482.63	-0.035675
8493.66	-0.0361047
8501.01	-0.0363723
8512.05	-0.0367447
8523.08	-0.0370813
8530.43	-0.0372852
8541.46	-0.0375596
8552.49	-0.0377951
8563.52	-0.0379907
8570.88	-0.0380984
8581.91	-0.0382252
8592.94	-0.0383092
8600.29	-0.038341
8611.32	-0.0383516
8622.35	-0.0383168
8633.38	-0.0382359
8640.74	-0.0381558
8651.77	-0.0379959
8662.8	-0.0377876
8670.15	-0.0376215
8681.18	-0.037331
8692.22	-0.0369903
8703.25	-0.036599
8710.6	-0.0363097
8721.63	-0.035833
8732.66	-0.0353047
8740.02	-0.0349237
8751.05	-0.034309
8762.08	-0.0336423
8773.11	-0.0329238
8780.46	-0.0324161
8791.49	-0.0316117
8802.52	-0.0307562
8813.55	-0.0298501
8820.91	-0.0292183
8831.94	-0.0282294
8842.97	-0.027192
8850.32	-0.0264738
8861.35	-0.0253575
8872.38	-0.0241954
8883.42	-0.0229889
8890.77	-0.0221605
8901.8	-0.020883
8912.83	-0.0195651
8920.18	-0.0186648
8931.22	-0.0172834
8942.25	-0.0158664
8953.28	-0.0144158
8960.63	-0.0134311
8971.66	-0.0119293
8982.69	-0.0103997
8990.05	-0.00936578
9001.08	-0.0077953
9012.11	-0.00620352
9023.14	-0.004593
9030.49	-0.00351017
9041.52	-0.00187418
9052.55	-0.000226455
9063.58	0.0014303
9070.94	0.00253847
9081.97	0.0042042
9093	0.00587165
9100.35	0.00698288
9111.38	0.00864707
9122.42	0.0103056
9133.45	0.0119559
9140.8	0.0130501
9151.83	0.0146805
9162.86	0.0162955
9170.22	0.0173622
9181.25	0.0189458
9192.28	0.0205072
9203.31	0.022044
9210.66	0.0230537
9221.69	0.0245443
9232.72	0.0260044
9240.08	0.0269597
9251.11	0.028364
9262.14	0.0297323
9273.17	0.0310628
9280.52	0.0319278
9291.55	0.0331913
9302.58	0.0344126
9313.62	0.0355901
9320.97	0.0363502
9332	0.037452
9343.03	0.0385069
9350.39	0.0391836
9361.42	0.0401581
9372.45	0.0410832
9383.48	0.0419583
9390.83	0.0425136
9401.86	0.0433042
9412.89	0.0440435
9420.25	0.0445078
9431.28	0.0451612
9442.31	0.045763
9453.34	0.0463132
9460.69	0.0466515
9471.72	0.0471162
9482.75	0.0475301
9490.11	0.047778
9501.14	0.0481081
9512.17	0.0483888
9523.2	0.0486207
9530.55	0.0487486
9541.59	0.048901
9552.62	0.0490069
9563.65	0.0490673
9571	0.0490827
9582.03	0.0490697
9593.06	0.049014
9600.42	0.0489539
9611.45	0.04883
9622.48	0.0486669
9633.51	0.0484659
9640.86	0.0483116
9651.89	0.0480505
9662.92	0.0477552
9670.28	0.0475401
9681.31	0.047191
9692.34	0.0468115
9703.37	0.0464032
9710.72	0.0461156
9721.76	0.0456623
9732.79	0.0451839
9740.14	0.0448518
9751.17	0.0443348
9762.2	0.0437965
9773.23	0.0432383
9780.59	0.0428556
9791.62	0.042267
9802.65	0.0416619
9810	0.0412499
9821.03	0.04062
9832.06	0.0399766
9843.09	0.039321
9850.45	0.0388776
9861.48	0.0382037
9872.51	0.0375202
9883.54	0.0368278
9890.89	0.0363618
9901.92	0.0356566
9912.96	0.0349446
9920.31	0.0344665
9931.34	0.0337446
9942.37	0.0330175
9953.4	0.0322857
9960.76	0.0317955
9971.79	0.0310567
9982.82	0.0303143
9990.17	0.0298173
10001.2	0.0290692
10012.2	0.0283179
10023.3	0.0275636
10030.6	0.0270591
10041.6	0.0262999
10052.7	0.0255377
10060	0.025028
10071.1	0.0242609
10082.1	0.0234907
10093.1	0.0227172
10100.5	0.0221998
10111.5	0.0214207
10122.5	0.020638
10133.6	0.0198515
10140.9	0.0193249
10152	0.0185317
10163	0.0177341
10170.3	0.0171998
10181.4	0.0163946
10192.4	0.0155846
10203.4	0.0147696
10210.8	0.0142234
10221.8	0.0133998
10232.8	0.0125709
10240.2	0.0120153
10251.2	0.0111773
10262.3	0.0103338
10273.3	0.00948488
10280.6	0.00891587
10291.7	0.00805786
10302.7	0.00719453
10310.1	0.00661608
10321.1	0.00574418
10332.1	0.00486739
10343.2	0.00398596
10350.5	0.00339589
10361.5	0.00250735
10372.6	0.001615
10383.6	0.000719224
10391	0.000120348
10402	-0.000780165
10413	-0.00168288
10420.4	-0.00228566
10431.4	-0.00319087
10442.4	-0.00409682
10453.5	-0.0050029
10460.8	-0.00560672
10471.8	-0.00651161
10482.9	-0.0074149
10490.2	-0.00801587
10501.3	-0.00891497
10512.3	-0.00981062
10523.3	-0.0107021
10530.7	-0.0112938
10541.7	-0.0121767
10552.7	-0.0130535
10560.1	-0.0136344
10571.1	-0.0144995
10582.2	-0.0153567
10593.2	-0.0162053
10600.5	-0.0167659
10611.6	-0.0175987
10622.6	-0.0184212
10633.6	-0.0192328
10641	-0.0197675
10652	-0.0205598
10663	-0.0213398
10670.4	-0.0218528
10681.4	-0.0226115
10692.5	-0.0233568
10703.5	-0.0240886
10710.8	-0.0245687
10721.9	-0.0252772
10732.9	-0.0259715
10740.3	-0.0264265
10751.3	-0.0270969
10762.3	-0.027753
10773.4	-0.0283947
10780.7	-0.0288146
10791.7	-0.0294327
10802.8	-0.0300368
10810.1	-0.0304319
10821.2	-0.0310132
10832.2	-0.0315813
10843.2	-0.0321366
10850.6	-0.0324998
10861.6	-0.0330346
10872.6	-0.0335577
10883.7	-0.0340697
10891	-0.0344051
10902	-0.0348998
10913.1	-0.0353849
10920.4	-0.0357033
10931.5	-0.0361739
10942.5	-0.0366367
10953.5	-0.0370924
10960.9	-0.0373925
10971.9	-0.0378378
10982.9	-0.0382779
10990.3	-0.0385686
11001.3	-0.0390015
11012.4	-0.0394309
11023.4	-0.0398576
11030.7	-0.0401408
11041.8	-0.0405644
11052.8	-0.040987
11060.2	-0.0412684
11071.2	-0.0416906
11082.2	-0.0421133
11093.2	-0.042537
11100.6	-0.0428203
11111.6	-0.0432468
11122.7	-0.0436755
11130	-0.0439627
11141	-0.0443959
11152.1	-0.0448321
11163.1	-0.0452717
11170.5	-0.0455667
11181.5	-0.0460123
11192.5	-0.0464616
11203.6	-0.0469147
11210.9	-0.0472189
11221.9	-0.0476785
11233	-0.0481418
11240.3	-0.0484527
11251.4	-0.048922
11262.4	-0.0493948
11273.4	-0.0498708
11280.8	-0.0501897
11291.8	-0.0506704
11302.8	-0.0511535
11310.2	-0.0514767
11321.2	-0.0519631
11332.2	-0.0524508
11343.3	-0.0529395
11350.6	-0.0532656
11361.7	-0.0537549
11372.7	-0.0542438
11380	-0.0545693
11391.1	-0.0550565
11402.1	-0.0555419
11413.1	-0.056025
11420.5	-0.0563454
11431.5	-0.0568232
11442.6	-0.0572971
11453.6	-0.0577664
11460.9	-0.0580765
11472	-0.0585368
11483	-0.058991
11490.4	-0.05929
11501.4	-0.0597323
11512.4	-0.0601668
11523.4	-0.0605928
11530.8	-0.0608717
11541.8	-0.061282
11552.9	-0.0616821
11560.2	-0.0619429
11571.2	-0.0623246
11582.3	-0.0626945
11593.3	-0.0630518
11600.7	-0.0632829
11611.7	-0.0636181
11622.7	-0.0639393
11630.1	-0.0641453
11641.1	-0.0644417
11652.1	-0.0647224
11663.2	-0.0649869
11670.5	-0.065154
11681.6	-0.0653903
11692.6	-0.0656088
11703.6	-0.0658092
11711	-0.0659324
11722	-0.0661012
11733	-0.0662503
11740.4	-0.0663386
11751.4	-0.0664541
11762.4	-0.0665486
11773.5	-0.0666217
11780.8	-0.0666584
11791.9	-0.066695
11802.9	-0.0667091
11810.2	-0.0667059
11821.3	-0.0666817
11832.3	-0.066634
11843.3	-0.0665626
11850.7	-0.0665017
11861.7	-0.0663899
11872.8	-0.0662537
11880.1	-0.0661492
11891.1	-0.0659716
11902.2	-0.065769
11913.2	-0.0655413
11920.6	-0.0653754
11931.6	-0.0651054
11942.6	-0.06481
11953.6	-0.0644893
11961	-0.0642613
11972	-0.0638983
11983.1	-0.06351
11990.4	-0.0632372
12001.4	-0.0628071
12012.5	-0.0623521
12023.5	-0.0618725
12030.9	-0.0615391
12041.9	-0.061019
12052.9	-0.0604749
12060.3	-0.0600991
12071.3	-0.0595159
12082.3	-0.0589097
12093.4	-0.058281
12100.7	-0.0578495
12111.8	-0.0571842
12122.8	-0.0564975
12130.1	-0.0560281
12141.2	-0.0553068
12152.2	-0.0545656
12163.2	-0.0538048
12170.6	-0.0532871
12181.6	-0.052495
12192.6	-0.0516848
12203.7	-0.050857
12211	-0.0502957
12222.1	-0.0494399
12233.1	-0.0485679
12240.4	-0.0479779
12251.5	-0.0470802
12262.5	-0.0461677
12273.5	-0.0452409
12280.9	-0.0446153
12291.9	-0.0436656
12303	-0.0427028
12310.3	-0.0420539
12321.3	-0.0410701
12332.4	-0.0400742
12343.4	-0.0390666
12350.8	-0.0383884
12361.8	-0.0373619
12372.8	-0.0363243
12380.2	-0.0356266
12391.2	-0.0345712
12402.2	-0.0335054
12413.3	-0.0324294
12420.6	-0.0317064
12431.6	-0.0306137
12442.7	-0.029511
12450	-0.0287704
12461.1	-0.0276515
12472.1	-0.0265228
12483.1	-0.0253845
12490.5	-0.0246203
12501.5	-0.023466
12512.5	-0.0223021
12523.6	-0.0211286
12530.9	-0.020341
12542	-0.0191516
12553	-0.0179527
12560.3	-0.0171481
12571.4	-0.0159334
12582.4	-0.0147091
12593.4	-0.0134754
12600.8	-0.0126478
12611.8	-0.0113985
12622.8	-0.01014
12630.2	-0.009296
12641.2	-0.00802243
12652.3	-0.00674001
12663.3	-0.00544893
12670.6	-0.0045835
12681.7	-0.00327848
12692.7	-0.00196546
12700.1	-0.00108582
12711.1	0.000239822
12722.1	0.00157256
12733.2	0.00291196
12740.5	0.00380839
12751.5	0.0051579
12762.6	0.0065128
12773.6	0.00787253
12781	0.0087814
12792	0.0101478
12803	0.0115174
12810.4	0.0124319
12821.4	0.0138052
12832.4	0.0151797
12843.5	0.0165546
12850.8	0.0174711
12861.8	0.0188449
12872.9	0.0202169
12880.2	0.0211302
12891.3	0.0224972
12902.3	0.0238599
12913.3	0.0252175
12920.7	0.0261192
12931.7	0.027466
12942.7	0.0288049
12950.1	0.0296928
12961.1	0.0310166
12972.2	0.03233
12983.2	0.0336319
12990.5	0.034493
13001.6	0.0357737
13012.6	0.0370403
13023.6	0.0382919
13031	0.0391175
13042	0.040342
13053	0.0415489
13060.4	0.0423434
13071.4	0.0435192
13082.5	0.0446752
13093.5	0.0458106
13100.8	0.0465556
13111.9	0.0476549
13122.9	0.0487315
13130.3	0.0494363
13141.3	0.0504737
13152.3	0.0514867
13163.4	0.0524747
13170.7	0.0531193
13181.7	0.0540647
13192.8	0.0549838
13200.1	0.0555818
13211.2	0.0564563
13222.2	0.0573037
13233.2	0.0581236
13240.6	0.0586548
13251.6	0.0594284
13262.6	0.060174
13273.7	0.0608916
13281	0.0613543
13292	0.062025
13303.1	0.0626675
13310.4	0.0630803
13321.5	0.0636762
13332.5	0.0642441
13343.5	0.0647844
13350.9	0.0651293
13361.9	0.0656238
13372.9	0.0660913
13380.3	0.0663881
13391.3	0.066811
13402.4	0.0672078
13413.4	0.0675786
13420.7	0.0678117
13431.8	0.0681402
13442.8	0.068444
13450.2	0.0686329
13461.2	0.0688962
13472.2	0.0691359
13483.2	0.0693525
13490.6	0.0694842
13501.6	0.0696632
13512.7	0.0698203
13520	0.069913
13531	0.0700347
13542.1	0.0701357
13553.1	0.0702166
13560.5	0.0702596
13571.5	0.070308
13582.5	0.0703375
13593.6	0.0703485
13600.9	0.0703458
13611.9	0.0703271
13623	0.070291
13630.3	0.0702576
13641.4	0.0701936
13652.4	0.0701133
13663.4	0.0700172
13670.8	0.0699444
13681.8	0.0698225
13692.8	0.0696856
13700.2	0.0695861
13711.2	0.0694248
13722.2	0.0692493
13733.3	0.0690597
13740.6	0.0689257
13751.7	0.0687133
13762.7	0.0684875
13770	0.0683297
13781.1	0.068082
13792.1	0.0678213
13803.1	0.0675479
13810.5	0.0673585
13821.5	0.0670641
13832.6	0.0667572
13843.6	0.0664379
13850.9	0.0662183
13862	0.0658787
13873	0.0655269
13880.4	0.0652856
13891.4	0.0649138
13902.4	0.0645299
13913.4	0.0641341
13920.8	0.0638636
13931.8	0.0634479
13942.9	0.0630203
13950.2	0.0627287
13961.2	0.0622813
13972.3	0.0618221
13983.3	0.061351
13990.7	0.0610303
14001.7	0.0605394
14012.7	0.0600365
14020.1	0.0596947
14031.1	0.0591719
14042.1	0.0586372
14053.2	0.0580904
14060.5	0.0577193
14071.6	0.0571524
14082.6	0.0565734
14093.6	0.0559822
14101	0.0555813
14112	0.0549696
14123	0.0543456
14130.4	0.0539227
14141.4	0.0532779
14152.4	0.0526205
14163.5	0.0519505
14170.8	0.0514967
14181.9	0.0508053
14192.9	0.0501009
14200.2	0.0496241
14211.3	0.0488979
14222.3	0.0481584
14233.3	0.0474055
14240.7	0.0468961
14251.7	0.0461205
14262.8	0.0453312
14270.1	0.0447972
14281.1	0.0439845
14292.2	0.0431575
14303.2	0.0423162
14310.6	0.0417472
14321.6	0.0408815
14332.6	0.040001
14343.6	0.0391054
14351	0.0385
14362	0.037579
14373.1	0.0366426
14380.4	0.0360097
14391.4	0.0350472
14402.5	0.0340688
14413.5	0.0330744
14420.9	0.0324025
14431.9	0.0313812
14442.9	0.0303435
14450.3	0.0296426
14461.3	0.0285775
14472.3	0.0274959
14483.4	0.0263977
14490.7	0.0256563
14501.8	0.0245305
14512.8	0.0233881
14520.1	0.0226173
14531.2	0.0214474
14542.2	0.0202611
14553.2	0.0190585
14560.6	0.0182479
14571.6	0.0170186
14582.7	0.0157736
14590	0.014935
14601	0.0136644
14612.1	0.0123789
14623.1	0.0110787
14630.5	0.0102041
14641.5	0.00888062
14652.5	0.00754379
14663.5	0.00619413
14670.9	0.00528752
14681.9	0.0039178
14693	0.00253692
14700.3	0.00161048
14711.3	0.00021261
14722.4	-0.00119441
14733.4	-0.00260974
14740.8	-0.00355747
14751.8	-0.00498463
14762.8	-0.0064176
14770.2	-0.00737563
14781.2	-0.00881598
14792.2	-0.0102593
14803.3	-0.0117045
14810.6	-0.0126683
14821.7	-0.0141138
14832.7	-0.0155579
14840	-0.0165191
14851.1	-0.0179578
14862.1	-0.0193915
14873.1	-0.0208187
14880.5	-0.0217659
14891.5	-0.0231792
14902.5	-0.0245822
14913.6	-0.0259732
14920.9	-0.0268933
14932	-0.0282612
14943	-0.029613
14950.3	-0.0305046
14961.4	-0.0318262
14972.4	-0.0331276
14983.4	-0.0344071
14990.8	-0.0352471
15001.8	-0.0364865
15012.9	-0.0376997
15020.2	-0.0384932
15031.2	-0.0396593
15042.3	-0.0407949
15053.3	-0.0418986
15060.7	-0.0426158
15071.7	-0.0436628
15082.7	-0.0446739
15090.1	-0.0453272
15101.1	-0.046275
15112.1	-0.0471832
15123.2	-0.0480502
15130.5	-0.0486049
15141.5	-0.0494007
15152.6	-0.0501522
15163.6	-0.0508583
15171	-0.0513033
15182	-0.0519315
15193	-0.0525116
15200.4	-0.0528712
15211.4	-0.0533694
15222.4	-0.0538176
15233.5	-0.0542151
15240.8	-0.0544516
15251.9	-0.0547636
15262.9	-0.0550237
15270.2	-0.0551681
15281.3	-0.0553414
15292.3	-0.0554623
15303.3	-0.055531
15310.7	-0.0555478
15321.7	-0.0555298
15332.7	-0.0554602
15340.1	-0.0553853
15351.1	-0.0552306
15362.2	-0.0550256
15373.2	-0.0547711
15380.5	-0.0545744
15391.6	-0.0542393
15402.6	-0.0538572
15413.6	-0.0534291
15421	-0.0531189
15432	-0.0526171
15443.1	-0.052073
15450.4	-0.0516874
15461.4	-0.051076
15472.5	-0.0504265
15483.5	-0.0497405
15490.9	-0.0492639
15501.9	-0.0485215
15512.9	-0.0477477
15520.3	-0.0472155
15531.3	-0.0463943
15542.3	-0.0455473
15553.4	-0.0446769
15560.7	-0.0440848
15571.7	-0.0431804
15582.8	-0.0422588
15590.1	-0.041636
15601.2	-0.040691
15612.2	-0.0397351
15623.2	-0.038771
15630.6	-0.0381248
15641.6	-0.0371522
15652.6	-0.0361778
15663.7	-0.0352042
15671	-0.0345567
15682.1	-0.0335897
15693.1	-0.0326298
15700.4	-0.0319951
15711.5	-0.0310525
15722.5	-0.0301234
15733.5	-0.0292099
15740.9	-0.0286107
15751.9	-0.0277282
15762.9	-0.026867
15770.3	-0.0263058
15781.3	-0.0254846
15792.4	-0.02469
15803.4	-0.0239236
15810.7	-0.0234292
15821.8	-0.0227135
15832.8	-0.0220303
15840.2	-0.0215936
15851.2	-0.0209675
15862.2	-0.0203773
15873.3	-0.0198241
15880.6	-0.0194763
15891.6	-0.0189868
15902.7	-0.0185364
15910	-0.0182583
15921.1	-0.0178746
15932.1	-0.0175314
15943.1	-0.0172291
15950.5	-0.0170503
15961.5	-0.0168163
15972.5	-0.0166232
15983.6	-0.0164707
15990.9	-0.0163916
16001.9	-0.0163062
16013	-0.0162603
16020.3	-0.0162514
16031.4	-0.01627
16042.4	-0.0163261
16053.4	-0.0164188
16060.8	-0.0165005
16071.8	-0.0166519
16082.8	-0.0168368
16090.2	-0.0169782
16101.2	-0.0172162
16112.3	-0.0174841
16123.3	-0.0177804
16130.6	-0.017993
16141.7	-0.0183331
16152.7	-0.0186972
16160.1	-0.0189525
16171.1	-0.0193528
16182.1	-0.0197723
16193.1	-0.0202094
16200.5	-0.0205095
16211.5	-0.0209715
16222.6	-0.0214458
16233.6	-0.0219307
16240.9	-0.0222589
16252	-0.0227571
16263	-0.0232607
16270.4	-0.0235986
16281.4	-0.0241071
16292.4	-0.0246162
16303.5	-0.025124
16310.8	-0.0254609
16321.8	-0.0259626
16332.9	-0.0264585
16340.2	-0.0267849
16351.3	-0.0272673
16362.3	-0.0277397
16373.3	-0.0282004
16380.7	-0.0285004
16391.7	-0.0289388
16402.7	-0.0293621
16410.1	-0.0296353
16421.1	-0.0300307
16432.1	-0.0304079
16443.2	-0.0307661
16450.5	-0.0309937
16461.6	-0.0313181
16472.6	-0.031621
16483.6	-0.031902
16491	-0.0320768
16502	-0.0323199
16513	-0.0325395
16520.4	-0.0326728
16531.4	-0.0328528
16542.5	-0.0330087
16553.5	-0.0331403
16560.8	-0.0332145
16571.9	-0.0333056
16582.9	-0.0333724
16590.3	-0.0334035
16601.3	-0.0334301
16612.3	-0.033433
16623.3	-0.0334124
16630.7	-0.0333859
16641.7	-0.033327
16652.8	-0.0332458
16660.1	-0.0331795
16671.1	-0.0330622
16682.2	-0.0329239
16693.2	-0.0327653
16700.6	-0.0326487
16711.6	-0.0324577
16722.6	-0.0322482
16733.7	-0.032021
16741	-0.0318599
16752	-0.0316047
16763.1	-0.0313337
16770.4	-0.0311446
16781.5	-0.030849
16792.5	-0.0305398
16803.5	-0.0302176
16810.9	-0.0299961
16821.9	-0.0296542
16832.9	-0.0293015
16840.3	-0.0290608
16851.3	-0.0286918
16862.3	-0.028314
16873.4	-0.0279282
16880.7	-0.0276669
16891.8	-0.0272693
16902.8	-0.0268656
16910.1	-0.0265933
16921.2	-0.0261808
16932.2	-0.0257638
16943.2	-0.025343
16950.6	-0.0250606
16961.6	-0.0246347
16972.7	-0.0242065
16980	-0.02392
16991	-0.0234891
17002.1	-0.0230571
17013.1	-0.0226246
17020.5	-0.0223362
17031.5	-0.0219037
17042.5	-0.0214718
17053.5	-0.0210407
17060.9	-0.020754
17071.9	-0.0203251
17083	-0.019898
17090.3	-0.0196143
17101.3	-0.0191907
17112.4	-0.0187695
17123.4	-0.018351
17130.8	-0.0180736
17141.8	-0.01766
17152.8	-0.0172496
17160.2	-0.0169779
17171.2	-0.0165732
17182.2	-0.0161721
17193.3	-0.0157747
17200.6	-0.015512
17211.7	-0.0151211
17222.7	-0.0147342
17230	-0.0144786
17241.1	-0.0140987
17252.1	-0.013723
17263.1	-0.0133515
17270.5	-0.0131064
17281.5	-0.0127422
17292.5	-0.0123825
17303.6	-0.0120272
17310.9	-0.0117929
17322	-0.011445
17333	-0.0111017
17340.3	-0.0108753
17351.4	-0.0105395
17362.4	-0.0102081
17373.4	-0.00988119
17380.8	-0.00966572
17391.8	-0.00934618
17402.9	-0.00903101
17410.2	-0.00882331
17421.2	-0.00851532
17432.3	-0.00821158
17443.3	-0.00791201
17450.7	-0.00771458
17461.7	-0.00742179
17472.7	-0.00713297
17480.1	-0.00694258
17491.1	-0.00666015
17502.1	-0.00638142
17513.2	-0.00610626
17520.5	-0.00592476
17531.5	-0.00565532
17542.6	-0.00538912
17553.6	-0.00512603
17561	-0.00495229
17572	-0.00469406
17583	-0.00443854
17590.4	-0.00426962
17601.4	-0.00401826
17612.4	-0.00376918
17623.5	-0.0035222
17630.8	-0.00335863
17641.9	-0.00311477
17652.9	-0.00287255
17660.2	-0.00271189
17671.3	-0.002472
17682.3	-0.00223327
17693.3	-0.00199552
17700.7	-0.00183747
17711.7	-0.00160096
17722.7	-0.00136497
17730.1	-0.00120784
17741.1	-0.000972336
17752.2	-0.000736911
17763.2	-0.000501413
17770.5	-0.000344303
17781.6	-0.000108366
17792.6	0.000128012
17803.6	0.000364952
17811	0.00052328
17822	0.000761399
17833.1	0.00100035
17840.4	0.00116016
17851.4	0.00140067
17862.5	0.0016422
17873.5	0.00188479
17880.9	0.00204713
17891.9	0.00229155
17902.9	0.00253708
17910.3	0.00270138
17921.3	0.00294874
17932.3	0.00319715
17943.4	0.00344655
17950.7	0.00361335
17961.7	0.00386427
17972.8	0.00411598
17980.1	0.00428418
17991.2	0.00453696
18002.2	0.00479022
18013.2	0.00504381
18020.6	0.00521298
18031.6	0.00546676
18042.6	0.00572041
18053.7	0.00597376
18061	0.00614238
18072.1	0.00639475
18083.1	0.00664624
18090.4	0.0068133
18101.5	0.00706281
18112.5	0.00731082
18123.5	0.00755708
18130.9	0.00772015
18141.9	0.00796293
18153	0.00820326
18160.3	0.008362
18171.3	0.0085977
18182.4	0.00883025
18193.4	0.0090594
18200.8	0.00921015
18211.8	0.00943305
18222.8	0.00965185
18230.2	0.00979532
18241.2	0.0100067
18252.2	0.0102134
18263.3	0.0104151
18270.6	0.0105466
18281.6	0.0107395
18292.7	0.0109268
18300	0.0110484
18311.1	0.0112259
18322.1	0.0113974
18333.1	0.0115626
18340.5	0.0116691
18351.5	0.0118235
18362.5	0.0119713
18373.6	0.0121123
18380.9	0.0122024
18392	0.0123319
18403	0.0124544
18410.3	0.0125322
18421.4	0.0126428
18432.4	0.0127464
18443.4	0.0128428
18450.8	0.0129032
18461.8	0.0129877
18472.8	0.0130651
18480.2	0.0131129
18491.2	0.0131786
18502.3	0.0132374
18513.3	0.0132894
18520.6	0.0133203
18531.7	0.0133612
18542.7	0.0133956
18550.1	0.013415
18561.1	0.0134389
18572.1	0.0134568
18583.2	0.0134689
18590.5	0.0134738
18601.5	0.0134766
18612.6	0.0134741
18623.6	0.0134668
18631	0.0134592
18642	0.0134441
18653	0.0134247
18660.4	0.0134096
18671.4	0.0133839
18682.4	0.0133547
18693.5	0.0133225
18700.8	0.0132994
18711.8	0.0132628
18722.9	0.0132239
18730.2	0.013197
18741.3	0.0131553
18752.3	0.0131124
18763.3	0.0130687
18770.7	0.0130393
18781.7	0.012995
18792.7	0.0129509
18800.1	0.0129217
18811.1	0.0128787
18822.2	0.0128369
18833.2	0.0127967
18840.5	0.012771
18851.6	0.0127342
18862.6	0.0127
18873.6	0.0126688
18881	0.0126498
18892	0.0126244
18903	0.0126028
18910.4	0.0125907
18921.4	0.0125764
18932.5	0.0125669
18943.5	0.0125626
18950.8	0.0125626
18961.9	0.0125674
18972.9	0.0125781
18980.3	0.0125887
18991.3	0.0126098
19002.3	0.0126374
19013.4	0.0126718
19020.7	0.0126985
19031.7	0.0127446
19042.8	0.0127979
19050.1	0.0128375
19061.2	0.0129032
19072.2	0.0129763
19083.2	0.0130571
19090.6	0.0131152
19101.6	0.0132088
19112.6	0.01331
19123.7	0.0134189
19131	0.0134957
19142	0.0136172
19153.1	0.0137461
19160.4	0.0138362
19171.5	0.0139772
19182.5	0.0141253
19193.5	0.0142802
19200.9	0.0143872
19211.9	0.0145529
19222.9	0.0147248
19230.3	0.0148427
19241.3	0.0150242
19252.4	0.0152109
19263.4	0.0154025
19270.7	0.0155327
19281.8	0.0157315
19292.8	0.015934
19300.2	0.0160709
19311.2	0.0162785
19322.2	0.0164886
19333.2	0.0167006
19340.6	0.0168427
19351.6	0.0170566
19362.7	0.0172708
19370	0.0174136
19381	0.0176271
19392.1	0.0178394
19403.1	0.0180499
19410.5	0.0181888
19421.5	0.0183947
19432.5	0.0185971
19443.6	0.0187952
19450.9	0.0189246
19461.9	0.0191143
19473	0.019298
19480.3	0.0194168
19491.4	0.0195891
19502.4	0.0197538
19513.4	0.0199102
19520.8	0.0200096
19531.8	0.0201508
19542.8	0.0202821
19550.2	0.0203639
19561.2	0.0204775
19572.2	0.0205797
19583.3	0.02067
19590.6	0.0207233
19601.7	0.0207927
19612.7	0.0208489
19620	0.0208788
19631.1	0.0209121
19642.1	0.0209311
19653.1	0.0209355
19660.5	0.0209302
19671.5	0.0209095
19682.6	0.0208735
19693.6	0.0208218
19700.9	0.0207785
19712	0.0207003
19723	0.020606
19730.4	0.0205341
19741.4	0.0204126
19752.4	0.0202749
19763.4	0.0201207
19770.8	0.0200089
19781.8	0.0198275
19792.9	0.0196298
19800.2	0.0194891
19811.2	0.0192645
19822.3	0.019024
19833.3	0.0187676
19840.7	0.0185881
19851.7	0.0183059
19862.7	0.0180084
19870.1	0.0178018
19881.1	0.0174797
19892.1	0.017143
19903.2	0.0167923
19910.5	0.0165508
19921.6	0.0161772
19932.6	0.0157904
19943.6	0.0153908
19951	0.0151175
19962	0.0146974
19973	0.0142655
19980.4	0.0139712
19991.4	0.0135207
