0	0
11.0308	0
22.0616	0
33.0924	0
40.4463	0
51.4771	0
62.5079	0
73.5387	0
80.8926	0
91.9234	0
102.954	0
110.308	0
121.339	0
132.37	0
143.401	0
150.754	0
161.785	0
172.816	0
180.17	0
191.201	0
202.231	0
213.262	0
220.616	0
231.647	0
242.678	0
250.032	0
261.062	0
272.093	0
283.124	0
290.478	0
301.509	0
312.54	0
323.57	0
330.924	0
341.955	0
352.986	0
360.34	0
371.371	0
382.401	0
393.432	0
400.786	0
411.817	0
422.848	0
430.202	0
441.232	0
452.263	0
463.294	0
470.648	0
481.679	0
492.709	0
500.063	0
511.094	0
522.125	0
533.156	0
540.51	0
551.54	0
562.571	0
573.602	0
580.956	0
591.987	0
603.018	0
610.371	0
621.402	0
632.433	0
643.464	0
650.818	0
661.849	0
672.879	0
680.233	0
691.264	0
702.295	0
713.326	0
720.68	0
731.71	0
742.741	0
750.095	0
761.126	0
772.157	0
783.187	0
790.541	0
801.572	0
812.603	0
823.634	0
830.988	0
842.018	0
853.049	0
860.403	0
871.434	0
882.465	0
893.496	0
900.849	0
911.88	0
922.911	0
930.265	0
941.296	0
952.327	0
963.357	0
970.711	0
981.742	0
992.773	0
1000.13	0
1011.16	0
1022.19	0
1033.22	0
1040.57	0
1051.6	0
1062.63	0
1073.67	0
1081.02	0
1092.05	0
1103.08	0
1110.43	0
1121.47	0
1132.5	0
1143.53	0
1150.88	0
1161.91	0
1172.94	0
1180.3	0
1191.33	0
1202.36	0
1213.39	0
1220.74	0
1231.77	0
1242.8	0
1250.16	0
1261.19	0
1272.22	0
1283.25	0
1290.6	0
1301.64	0
1312.67	0
1320.02	0
1331.05	0
1342.08	0
1353.11	0
1360.47	0
1371.5	0
1382.53	0
1393.56	0
1400.91	0
1411.94	0
1422.97	0
1430.33	0
1441.36	0
1452.39	0
1463.42	0
1470.77	0
1481.81	0
1492.84	0
1500.19	0
1511.22	0
1522.25	0
1533.28	0
1540.64	0
1551.67	0
1562.7	0
1570.05	0
1581.08	0
1592.11	0
1603.14	0
1610.5	0
1621.53	0
1632.56	0
1643.59	0
1650.94	0
1661.98	0
1673.01	0
1680.36	0
1691.39	0
1702.42	0
1713.45	0
1720.81	0
1731.84	0
1742.87	0
1750.22	0
1761.25	0
1772.28	0
1783.31	0
1790.67	0
1801.7	0
1812.73	0
1820.08	0
1831.11	0
1842.15	0
1853.18	0
1860.53	0
1871.56	0
1882.59	0
1893.62	0
1900.98	0
1912.01	0
1923.04	0
1930.39	0
1941.42	0
1952.45	0
1963.48	0
1970.84	0
1981.87	0
1992.9	0
2000.25	0
2011.28	0
2022.31	0
2033.35	0
2040.7	0
2051.73	0
2062.76	0
2070.12	0
2081.15	0
2092.18	0
2103.21	0
2110.56	0
2121.59	0
2132.62	0
2143.65	0
2151.01	0
2162.04	0
2173.07	0
2180.42	0
2191.45	0
2202.48	0
2213.52	0
2220.87	0
2231.9	0
2242.93	0
2250.28	0
2261.32	0
2272.35	0
2283.38	0
2290.73	0
2301.76	0
2312.79	0
2320.15	0
2331.18	0
2342.21	0
2353.24	0
2360.59	0
2371.62	0
2382.65	0
2390.01	0
2401.04	0
2412.07	0
2423.1	0
2430.45	0
2441.49	0
2452.52	0
2463.55	0
2470.9	0
2481.93	0
2492.96	0
2500.32	0
2511.35	0
2522.38	0
2533.41	0
2540.76	0
2551.79	0
2562.82	0
2570.18	0
2581.21	9.09495e-13
2592.24	9.09495e-13
2603.27	2.72848e-12
2610.62	4.54747e-12
2621.66	7.27596e-12
2632.69	1.18234e-11
2640.04	1.54614e-11
2651.07	2.45564e-11
2662.1	3.81988e-11
2673.13	5.82077e-11
2680.49	7.7307e-11
2691.52	1.19144e-10
2702.55	1.81899e-10
2713.58	2.76486e-10
2720.93	3.62888e-10
2731.96	5.42968e-10
2742.99	8.06722e-10
2750.35	1.04592e-09
2761.38	1.53523e-09
2772.41	2.23736e-09
2783.44	3.2378e-09
2790.79	4.12638e-09
2801.82	5.90171e-09
2812.86	8.38372e-09
2820.21	1.05547e-08
2831.24	1.48248e-08
2842.27	2.06846e-08
2853.3	2.86718e-08
2860.66	3.55158e-08
2871.69	4.86989e-08
2882.72	6.63504e-08
2890.07	8.12597e-08
2901.1	1.0956e-07
2912.13	1.46807e-07
2923.16	1.95517e-07
2930.52	2.35877e-07
2941.55	3.11008e-07
2952.58	4.07651e-07
2963.61	5.31213e-07
2970.96	6.31726e-07
2981.99	8.15361e-07
2993.02	1.04645e-06
3000.38	1.23201e-06
3011.41	1.56662e-06
3022.44	1.98126e-06
3033.47	2.49218e-06
3040.82	2.89547e-06
3051.85	3.61015e-06
3062.89	4.47789e-06
3070.24	5.15465e-06
3081.27	6.33944e-06
3092.3	7.75756e-06
3103.33	9.4461e-06
3110.69	1.07422e-05
3121.72	1.29751e-05
3132.75	1.55977e-05
3140.1	1.75884e-05
3151.13	2.09797e-05
3162.16	2.49108e-05
3173.19	2.94455e-05
3180.55	3.28374e-05
3191.58	3.85309e-05
3202.61	4.50167e-05
3213.64	5.23715e-05
3220.99	5.77962e-05
3232.02	6.67751e-05
3243.05	7.68364e-05
3250.41	8.41857e-05
3261.44	9.62325e-05
3272.47	0.000109579
3283.5	0.000124303
3290.85	0.000134922
3301.88	0.000152111
3312.91	0.000170873
3320.27	0.000184287
3331.3	0.000205813
3342.33	0.000229072
3353.36	0.000254112
3360.71	0.000271816
3371.74	0.000299912
3382.77	0.000329881
3390.13	0.000350911
3401.16	0.00038404
3412.19	0.000419076
3423.22	0.000456017
3430.57	0.000481698
3441.6	0.000521789
3452.63	0.000563746
3463.66	0.000607543
3471.02	0.00063775
3482.05	0.000684549
3493.08	0.000733104
3500.43	0.000766434
3511.46	0.000817843
3522.49	0.000870924
3533.52	0.000925649
3540.88	0.000963036
3551.91	0.00102046
3562.94	0.00107951
3570.29	0.00111977
3581.32	0.00118153
3592.35	0.00124498
3603.38	0.00131017
3610.73	0.00135463
3621.77	0.00142294
3632.8	0.00149329
3640.15	0.00154143
3651.18	0.00161564
3662.21	0.00169252
3673.24	0.00177239
3680.59	0.0018275
3691.62	0.00191332
3702.65	0.00200344
3710.01	0.00206624
3721.04	0.00216509
3732.07	0.00227037
3743.1	0.00238315
3750.45	0.00246314
3761.48	0.00259143
3772.51	0.00273121
3783.54	0.00288449
3790.9	0.00299531
3801.93	0.00317647
3812.96	0.00337827
3820.31	0.00352599
3831.34	0.00377025
3842.37	0.00404576
3853.4	0.00435763
3860.76	0.00458862
3871.79	0.00497455
3882.82	0.00541436
3890.17	0.00574153
3901.2	0.00628998
3912.23	0.00691666
3923.26	0.00763282
3930.62	0.0081661
3941.65	0.0090599
3952.68	0.0100796
3960.03	0.0108374
3971.06	0.0121041
3982.09	0.0135436
3993.12	0.0151766
4000.47	0.0163836
4011.51	0.0183889
4022.54	0.0206503
4033.57	0.023194
4040.92	0.0250604
4051.95	0.0281372
4062.98	0.0315734
4070.33	0.0340793
4081.37	0.038184
4092.4	0.0427327
4103.43	0.0477582
4110.78	0.0513896
4121.81	0.0572825
4132.84	0.0637389
4140.19	0.0683716
4151.23	0.0758357
4162.26	0.083943
4173.29	0.0927198
4180.64	0.0989546
4191.67	0.108898
4202.7	0.119565
4210.06	0.127086
4221.09	0.138988
4232.12	0.151639
4243.15	0.165038
4250.5	0.174384
4261.53	0.189013
4272.56	0.204357
4283.59	0.220392
4290.95	0.23145
4301.98	0.248559
4313.01	0.266256
4320.36	0.278353
4331.39	0.296905
4342.43	0.315885
4353.46	0.335218
4360.81	0.348264
4371.84	0.368005
4382.87	0.38787
4390.23	0.401134
4401.26	0.420986
4412.29	0.440691
4423.32	0.460138
4430.67	0.472905
4441.7	0.491671
4452.73	0.509875
4460.09	0.521641
4471.12	0.538649
4482.15	0.554787
4493.18	0.569942
4500.53	0.579444
4511.56	0.59272
4522.59	0.604733
4533.62	0.615386
4540.98	0.62169
4552.01	0.629888
4563.04	0.636509
4570.39	0.640015
4581.42	0.643868
4592.46	0.64599
4603.49	0.646342
4610.84	0.645579
4621.87	0.642921
4632.9	0.63844
4640.25	0.634439
4651.29	0.626923
4662.32	0.617607
4673.35	0.606518
4680.7	0.59816
4691.73	0.584206
4702.76	0.568601
4710.12	0.557312
4721.15	0.5391
4732.18	0.519422
4743.21	0.49836
4750.56	0.483593
4761.59	0.460425
4772.62	0.436121
4783.65	0.410784
4791.01	0.393371
4802.04	0.366547
4813.07	0.338976
4820.42	0.320235
4831.45	0.291666
4842.48	0.262646
4853.52	0.233288
4860.87	0.213583
4871.9	0.183906
4882.93	0.154182
4890.28	0.134391
4901.32	0.104821
4912.35	0.075477
4923.38	0.0464571
4930.73	0.0273363
4941.76	-0.000939919
4952.79	-0.0286544
4960.15	-0.0467785
4971.18	-0.0733794
4982.21	-0.0992137
4993.24	-0.124214
5000.59	-0.140387
5011.62	-0.163862
5022.65	-0.18635
5030.01	-0.20077
5041.04	-0.22151
5052.07	-0.241148
5063.1	-0.259653
5070.45	-0.271346
5081.48	-0.287904
5092.51	-0.303269
5103.55	-0.317428
5110.9	-0.326194
5121.93	-0.33833
5132.96	-0.349253
5140.31	-0.355863
5151.35	-0.36478
5162.38	-0.37251
5173.41	-0.379072
5180.76	-0.38281
5191.79	-0.387477
5202.82	-0.391046
5210.18	-0.392831
5221.21	-0.394641
5232.24	-0.395447
5243.27	-0.395287
5250.62	-0.394666
5261.65	-0.392996
5272.68	-0.39048
5280.04	-0.388357
5291.07	-0.384541
5302.1	-0.380011
5313.13	-0.374819
5320.48	-0.371016
5331.51	-0.364838
5342.54	-0.358136
5353.58	-0.350965
5360.93	-0.345949
5371.96	-0.338109
5382.99	-0.329936
5390.34	-0.324328
5401.38	-0.315711
5412.41	-0.30689
5423.44	-0.297914
5430.79	-0.291864
5441.82	-0.282724
5452.85	-0.273542
5460.21	-0.267417
5471.24	-0.258252
5482.27	-0.249145
5493.3	-0.240129
5500.65	-0.234185
5511.68	-0.225391
5522.71	-0.216768
5530.07	-0.211126
5541.1	-0.202841
5552.13	-0.194788
5563.16	-0.186986
5570.51	-0.181933
5581.54	-0.174587
5592.57	-0.167532
5603.61	-0.16078
5610.96	-0.156451
5621.99	-0.150224
5633.02	-0.144319
5640.37	-0.140565
5651.41	-0.135209
5662.44	-0.130184
5673.47	-0.12549
5680.82	-0.122545
5691.85	-0.118401
5702.88	-0.114583
5710.24	-0.112215
5721.27	-0.108928
5732.3	-0.105951
5743.33	-0.103277
5750.68	-0.101658
5761.71	-0.0994699
5772.74	-0.0975605
5780.1	-0.0964373
5791.13	-0.094969
5802.16	-0.0937502
5813.19	-0.0927688
5820.54	-0.0922403
5831.57	-0.0916264
5842.6	-0.0912154
5853.64	-0.0909937
5860.99	-0.0909441
5872.02	-0.0910067
5883.05	-0.0912208
5890.4	-0.0914405
5901.44	-0.0918748
5912.47	-0.0924217
5923.5	-0.0930664
5930.85	-0.0935433
5941.88	-0.0943185
5952.91	-0.0951525
5960.27	-0.0957341
5971.3	-0.0966342
5982.33	-0.0975551
5993.36	-0.098483
6000.71	-0.0990989
6011.74	-0.100009
6022.77	-0.100891
6030.13	-0.101457
6041.16	-0.102266
6052.19	-0.103015
6063.22	-0.103693
6070.57	-0.104101
6081.6	-0.104639
6092.64	-0.105082
6103.67	-0.105419
6111.02	-0.105582
6122.05	-0.105729
6133.08	-0.105752
6140.44	-0.105697
6151.47	-0.105503
6162.5	-0.105172
6173.53	-0.104703
6180.88	-0.104311
6191.91	-0.103604
6202.94	-0.102752
6210.3	-0.102105
6221.33	-0.101013
6232.36	-0.0997773
6243.39	-0.0984006
6250.74	-0.0974054
6261.77	-0.095799
6272.8	-0.0940594
6280.16	-0.0928279
6291.19	-0.0908763
6302.22	-0.0888044
6313.25	-0.086618
6320.6	-0.0850999
6331.64	-0.0827369
6342.67	-0.0802771
6350.02	-0.0785871
6361.05	-0.0759825
6372.08	-0.0733013
6383.11	-0.0705516
6390.47	-0.0686845
6401.5	-0.0658389
6412.53	-0.0629469
6423.56	-0.060017
6430.91	-0.0580467
6441.94	-0.0550722
6452.97	-0.0520821
6460.33	-0.0500841
6471.36	-0.0470863
6482.39	-0.0440946
6493.42	-0.0411168
6500.77	-0.0391432
6511.8	-0.0362056
6522.84	-0.0333018
6530.19	-0.0313882
6541.22	-0.0285561
6552.25	-0.0257758
6563.28	-0.0230535
6570.64	-0.0212738
6581.67	-0.0186612
6592.7	-0.0161217
6600.05	-0.0144718
6611.08	-0.0120652
6622.11	-0.00974451
6633.14	-0.00751388
6640.5	-0.00607879
6651.53	-0.0040068
6662.56	-0.00203456
6673.59	-0.000165105
6680.94	0.00102273
6691.97	0.00271496
6703	0.00429782
6710.36	0.00529133
6721.39	0.00668778
6732.42	0.00797042
6743.45	0.00913813
6750.8	0.00985233
6761.84	0.0108268
6772.87	0.0116848
6780.22	0.012192
6791.25	0.0128558
6802.28	0.0134035
6813.31	0.013836
6820.67	0.0140607
6831.7	0.0143032
6842.73	0.0144335
6850.08	0.014459
6861.11	0.0144064
6872.14	0.0142469
6883.17	0.0139828
6890.53	0.01375
6901.56	0.0133179
6912.59	0.012789
6923.62	0.0121667
6930.97	0.0117017
6942	0.010932
6953.04	0.010079
6960.39	0.00946631
6971.42	0.00848433
6982.45	0.00743099
6993.48	0.00631111
7000.84	0.00553002
7011.87	0.00431044
7022.9	0.00303803
7030.25	0.00216309
7041.28	0.000814799
7052.31	-0.000571494
7063.34	-0.00199001
7070.7	-0.00295068
7081.73	-0.00440978
7092.76	-0.00588522
7100.11	-0.00687493
7111.14	-0.00836411
7122.17	-0.00985335
7133.2	-0.0113365
7140.56	-0.0123189
7151.59	-0.0137783
7162.62	-0.0152154
7173.65	-0.016624
7181	-0.0175443
7192.04	-0.0188923
7203.07	-0.0201962
7210.42	-0.0210381
7221.45	-0.0222557
7232.48	-0.0234142
7243.51	-0.0245082
7250.87	-0.0251992
7261.9	-0.0261744
7272.93	-0.0270717
7280.28	-0.0276243
7291.31	-0.0283816
7302.34	-0.029049
7313.37	-0.0296225
7320.73	-0.0299508
7331.76	-0.0303594
7342.79	-0.0306646
7350.14	-0.030809
7361.17	-0.030935
7372.2	-0.0309499
7383.23	-0.0308514
7390.59	-0.0307217
7401.62	-0.03043
7412.65	-0.0300204
7420	-0.0296812
7431.03	-0.0290727
7442.07	-0.0283441
7453.1	-0.0274952
7460.45	-0.0268625
7471.48	-0.0258136
7482.51	-0.0246457
7493.54	-0.0233599
7500.9	-0.0224379
7511.93	-0.0209591
7522.96	-0.0193671
7530.31	-0.0182441
7541.34	-0.016469
7552.37	-0.0145881
7563.4	-0.0126046
7570.76	-0.0112271
7581.79	-0.0090811
7592.82	-0.00684301
7600.17	-0.00530203
7611.2	-0.0029207
7622.23	-0.000459958
7633.26	0.00207495
7640.62	0.0038034
7651.65	0.00644966
7662.68	0.00915502
7670.03	0.0109884
7681.06	0.0137788
7692.09	0.0166119
7703.12	0.0194812
7710.48	0.021411
7721.51	0.0243262
7732.54	0.02726
7743.57	0.030206
7750.92	0.0321733
7761.96	0.0351244
7772.99	0.0380697
7780.34	0.0400268
7791.37	0.042948
7802.4	0.045846
7813.43	0.0487146
7820.79	0.0506077
7831.82	0.0534137
7842.85	0.0561743
7850.2	0.0579867
7861.23	0.0606593
7872.26	0.063272
7883.29	0.0658199
7890.65	0.0674801
7901.68	0.0699096
7912.71	0.0722624
7920.06	0.0737864
7931.09	0.076003
7942.12	0.0781332
7953.15	0.0801741
7960.51	0.0814837
7971.54	0.0833699
7982.57	0.0851605
7993.6	0.0868536
8000.95	0.0879274
8011.98	0.089455
8023.02	0.090882
8030.37	0.0917772
8041.4	0.0930355
8052.43	0.0941923
8063.46	0.0952479
8070.82	0.0958957
8081.85	0.0967838
8092.88	0.0975726
8100.23	0.0980438
8111.26	0.0986697
8122.29	0.0991999
8133.32	0.0996359
8140.68	0.0998753
8151.71	0.100159
8162.74	0.100354
8170.09	0.100436
8181.12	0.100488
8192.15	0.100458
8203.18	0.100348
8210.54	0.100232
8221.57	0.0999945
8232.6	0.0996847
8243.63	0.0993051
8250.98	0.0990145
8262.01	0.0985245
8273.05	0.097972
8280.4	0.0975702
8291.43	0.0969197
8302.46	0.096214
8313.49	0.0954558
8320.85	0.0949225
8331.88	0.0940827
8342.91	0.0931975
8350.26	0.0925832
8361.29	0.0916276
8372.32	0.090633
8383.35	0.0896016
8390.71	0.0888947
8401.74	0.0878069
8412.77	0.086688
8420.12	0.0859258
8431.15	0.0847594
8442.18	0.0835668
8453.21	0.0823497
8460.57	0.0815254
8471.6	0.0802708
8482.63	0.0789956
8493.66	0.0777009
8501.01	0.0768276
8512.05	0.075503
8523.08	0.0741616
8530.43	0.0732584
8541.46	0.0718908
8552.49	0.0705084
8563.52	0.0691114
8570.88	0.0681723
8581.91	0.0667521
8592.94	0.0653181
8600.29	0.0643546
8611.32	0.0628978
8622.35	0.0614273
8633.38	0.0599428
8640.74	0.0589452
8651.77	0.0574367
8662.8	0.0559134
8670.15	0.0548894
8681.18	0.0533402
8692.22	0.0517748
8703.25	0.0501925
8710.6	0.049128
8721.63	0.0475163
8732.66	0.0458861
8740.02	0.0447887
8751.05	0.0431262
8762.08	0.0414435
8773.11	0.0397401
8780.46	0.0385927
8791.49	0.0368535
8802.52	0.0350923
8813.55	0.0333087
8820.91	0.032107
8831.94	0.0302855
8842.97	0.028441
8850.32	0.0271987
8861.35	0.0253161
8872.38	0.0234109
8883.42	0.0214835
8890.77	0.0201863
8901.8	0.0182228
8912.83	0.0162386
8920.18	0.0149047
8931.22	0.012888
8942.25	0.0108532
8953.28	0.00880158
8960.63	0.00742519
8971.66	0.00534877
8982.69	0.00325962
8990.05	0.00186067
9001.08	-0.000245626
9012.11	-0.00235957
9023.14	-0.00447901
9030.49	-0.00589392
9041.52	-0.00801747
9052.55	-0.0101403
9063.58	-0.0122598
9070.94	-0.0136697
9081.97	-0.015778
9093	-0.0178759
9100.35	-0.0192674
9111.38	-0.0213419
9122.42	-0.0233986
9133.45	-0.0254347
9140.8	-0.0267792
9151.83	-0.0287746
9162.86	-0.0307418
9170.22	-0.0320363
9181.25	-0.0339504
9192.28	-0.035829
9203.31	-0.0376695
9210.66	-0.038874
9221.69	-0.0406453
9232.72	-0.0423717
9240.08	-0.0434966
9251.11	-0.0451432
9262.14	-0.046739
9273.17	-0.0482821
9280.52	-0.0492806
9291.55	-0.0507316
9302.58	-0.0521252
9313.62	-0.0534598
9320.97	-0.0543161
9332	-0.0555496
9343.03	-0.0567209
9350.39	-0.0574668
9361.42	-0.0585326
9372.45	-0.0595343
9383.48	-0.0604713
9390.83	-0.0610599
9401.86	-0.0618886
9412.89	-0.0626524
9420.25	-0.0631254
9431.28	-0.0637812
9442.31	-0.0643728
9453.34	-0.0649006
9460.69	-0.0652176
9471.72	-0.0656411
9482.75	-0.0660032
9490.11	-0.0662111
9501.14	-0.0664735
9512.17	-0.0666778
9523.2	-0.0668255
9530.55	-0.0668932
9541.59	-0.06695
9552.62	-0.0669545
9563.65	-0.0669085
9571	-0.0668508
9582.03	-0.066725
9593.06	-0.0665539
9600.42	-0.0664158
9611.45	-0.0661739
9622.48	-0.0658924
9633.51	-0.0655734
9640.86	-0.0653409
9651.89	-0.0649643
9662.92	-0.064556
9670.28	-0.0642673
9681.31	-0.0638112
9692.34	-0.0633292
9703.37	-0.0628236
9710.72	-0.0624745
9721.76	-0.0619341
9732.79	-0.0613758
9740.14	-0.0609945
9751.17	-0.0604104
9762.2	-0.0598136
9773.23	-0.0592058
9780.59	-0.0587954
9791.62	-0.0581733
9802.65	-0.057545
9810	-0.0571233
9821.03	-0.056488
9832.06	-0.0558506
9843.09	-0.0552124
9850.45	-0.0547872
9861.48	-0.0541508
9872.51	-0.0535171
9883.54	-0.0528873
9890.89	-0.0524701
9901.92	-0.0518492
9912.96	-0.0512348
9920.31	-0.0508294
9931.34	-0.050228
9942.37	-0.0496356
9953.4	-0.0490529
9960.76	-0.0486701
9971.79	-0.048105
9982.82	-0.0475514
9990.17	-0.0471889
10001.2	-0.0466556
10012.2	-0.0461353
10023.3	-0.0456283
10030.6	-0.045298
10041.6	-0.0448143
10052.7	-0.0443453
10060	-0.0440408
10071.1	-0.0435969
10082.1	-0.0431685
10093.1	-0.0427561
10100.5	-0.0424902
10111.5	-0.0421051
10122.5	-0.0417368
10133.6	-0.0413856
10140.9	-0.0411611
10152	-0.0408392
10163	-0.0405352
10170.3	-0.0403427
10181.4	-0.0400693
10192.4	-0.0398146
10203.4	-0.039579
10210.8	-0.0394326
10221.8	-0.0392292
10232.8	-0.0390456
10240.2	-0.0389342
10251.2	-0.0387841
10262.3	-0.0386543
10273.3	-0.0385451
10280.6	-0.0384839
10291.7	-0.0384095
10302.7	-0.0383562
10310.1	-0.0383326
10321.1	-0.0383149
10332.1	-0.0383187
10343.2	-0.0383441
10350.5	-0.0383731
10361.5	-0.0384347
10372.6	-0.0385179
10383.6	-0.0386229
10391	-0.0387048
10402	-0.0388458
10413	-0.0390082
10420.4	-0.0391283
10431.4	-0.0393261
10442.4	-0.0395448
10453.5	-0.0397841
10460.8	-0.0399551
10471.8	-0.0402281
10482.9	-0.0405209
10490.2	-0.0407268
10501.3	-0.0410515
10512.3	-0.0413945
10523.3	-0.0417553
10530.7	-0.0420055
10541.7	-0.0423947
10552.7	-0.0427999
10560.1	-0.0430786
10571.1	-0.0435089
10582.2	-0.0439531
10593.2	-0.0444104
10600.5	-0.044722
10611.6	-0.045199
10622.6	-0.0456865
10633.6	-0.0461834
10641	-0.0465194
10652	-0.0470297
10663	-0.0475465
10670.4	-0.0478941
10681.4	-0.0484191
10692.5	-0.0489474
10703.5	-0.0494777
10710.8	-0.0498318
10721.9	-0.0503626
10732.9	-0.0508921
10740.3	-0.0512435
10751.3	-0.0517676
10762.3	-0.0522865
10773.4	-0.052799
10780.7	-0.0531364
10791.7	-0.0536351
10802.8	-0.0541235
10810.1	-0.0544428
10821.2	-0.0549112
10832.2	-0.0553655
10843.2	-0.0558045
10850.6	-0.056088
10861.6	-0.0564983
10872.6	-0.0568895
10883.7	-0.0572602
10891	-0.0574953
10902	-0.0578289
10913.1	-0.0581384
10920.4	-0.0583307
10931.5	-0.0585973
10942.5	-0.0588363
10953.5	-0.0590466
10960.9	-0.0591703
10971.9	-0.05933
10982.9	-0.0594579
10990.3	-0.0595248
11001.3	-0.0595971
11012.4	-0.0596345
11023.4	-0.0596361
11030.7	-0.0596168
11041.8	-0.0595565
11052.8	-0.059458
11060.2	-0.0593706
11071.2	-0.0592063
11082.2	-0.0590015
11093.2	-0.0587555
11100.6	-0.0585682
11111.6	-0.0582521
11122.7	-0.0578931
11130	-0.0576296
11141	-0.057198
11152.1	-0.0567223
11163.1	-0.056202
11170.5	-0.0558303
11181.5	-0.0552352
11192.5	-0.054595
11203.6	-0.0539093
11210.9	-0.053427
11221.9	-0.0526657
11233	-0.051859
11240.3	-0.051296
11251.4	-0.0504138
11262.4	-0.0494866
11273.4	-0.0485147
11280.8	-0.047842
11291.8	-0.0467961
11302.8	-0.0457065
11310.2	-0.044956
11321.2	-0.0437946
11332.2	-0.0425909
11343.3	-0.0413455
11350.6	-0.0404925
11361.7	-0.0391793
11372.7	-0.0378266
11380	-0.0369032
11391.1	-0.0354865
11402.1	-0.0340327
11413.1	-0.0325428
11420.5	-0.0315301
11431.5	-0.0299825
11442.6	-0.0284019
11453.6	-0.0267895
11460.9	-0.0256976
11472	-0.024035
11483	-0.0223441
11490.4	-0.0212019
11501.4	-0.019467
11512.4	-0.0177076
11523.4	-0.0159253
11530.8	-0.0147251
11541.8	-0.0129079
11552.9	-0.011072
11560.2	-0.00983843
11571.2	-0.00797489
11582.3	-0.006097
11593.3	-0.00420648
11600.7	-0.00293996
11611.7	-0.00103222
11622.7	0.000883516
11630.1	0.00216424
11641.1	0.00408936
11652.1	0.00601773
11663.2	0.00794755
11670.5	0.00923402
11681.6	0.0111623
11692.6	0.0130872
11703.6	0.015007
11711	0.0162831
11722	0.0181904
11733	0.0200878
11740.4	0.0213464
11751.4	0.0232236
11762.4	0.0250863
11773.5	0.0269329
11780.8	0.0281542
11791.9	0.0299703
11802.9	0.0317661
11810.2	0.0329511
11821.3	0.0347094
11832.3	0.0364433
11843.3	0.0381513
11850.7	0.039275
11861.7	0.0409371
11872.8	0.0425698
11880.1	0.0436415
11891.1	0.0452228
11902.2	0.0467718
11913.2	0.0482875
11920.6	0.049279
11931.6	0.0507372
11942.6	0.0521597
11953.6	0.053546
11961	0.0544496
11972	0.0557739
11983.1	0.0570604
11990.4	0.0578969
12001.4	0.0591195
12012.5	0.0603034
12023.5	0.0614484
12030.9	0.0621901
12041.9	0.0632702
12052.9	0.0643114
12060.3	0.0649839
12071.3	0.0659606
12082.3	0.0668989
12093.4	0.0677991
12100.7	0.0683784
12111.8	0.0692162
12122.8	0.0700173
12130.1	0.0705313
12141.2	0.0712725
12152.2	0.0719788
12163.2	0.0726508
12170.6	0.0730802
12181.6	0.0736969
12192.6	0.0742816
12203.7	0.0748351
12211	0.0751873
12222.1	0.075691
12233.1	0.076166
12240.4	0.0764672
12251.5	0.0768967
12262.5	0.0773
12273.5	0.0776781
12280.9	0.0779167
12291.9	0.078255
12303	0.0785706
12310.3	0.0787688
12321.3	0.0790484
12332.4	0.0793075
12343.4	0.0795469
12350.8	0.0796958
12361.8	0.0799038
12372.8	0.0800937
12380.2	0.0802105
12391.2	0.0803716
12402.2	0.0805159
12413.3	0.0806439
12420.6	0.0807202
12431.6	0.0808215
12442.7	0.080907
12450	0.0809552
12461.1	0.0810145
12472.1	0.0810581
12483.1	0.0810857
12490.5	0.0810952
12501.5	0.0810959
12512.5	0.08108
12523.6	0.0810471
12530.9	0.0810154
12542	0.0809531
12553	0.0808723
12560.3	0.0808079
12571.4	0.080695
12582.4	0.0805618
12593.4	0.0804077
12600.8	0.0802928
12611.8	0.0801017
12622.8	0.0798873
12630.2	0.0797311
12641.2	0.0794758
12652.3	0.0791949
12663.3	0.0788872
12670.6	0.0786668
12681.7	0.0783125
12692.7	0.077929
12700.1	0.0776566
12711.1	0.0772223
12722.1	0.0767563
12733.2	0.0762577
12740.5	0.0759068
12751.5	0.0753521
12762.6	0.0747628
12773.6	0.074138
12781	0.0737015
12792	0.0730164
12803	0.0722941
12810.4	0.0717919
12821.4	0.0710069
12832.4	0.0701838
12843.5	0.0693222
12850.8	0.0687264
12861.8	0.0678003
12872.9	0.0668355
12880.2	0.0661707
12891.3	0.0651412
12902.3	0.0640732
12913.3	0.0629668
12920.7	0.0622082
12931.7	0.0610389
12942.7	0.0598324
12950.1	0.0590077
12961.1	0.0577407
12972.2	0.0564383
12983.2	0.0551013
12990.5	0.0541913
13001.6	0.0527989
13012.6	0.0513746
13023.6	0.0499195
13031	0.048933
13042	0.0474294
13053	0.0458984
13060.4	0.0448632
13071.4	0.0432898
13082.5	0.0416929
13093.5	0.0400741
13100.8	0.0389835
13111.9	0.0373318
13122.9	0.0356626
13130.3	0.0345409
13141.3	0.0328464
13152.3	0.0311391
13163.4	0.0294208
13170.7	0.0282701
13181.7	0.0265376
13192.8	0.0247991
13200.1	0.0236377
13211.2	0.0218932
13222.2	0.0201477
13233.2	0.0184031
13240.6	0.0172413
13251.6	0.0155021
13262.6	0.0137687
13273.7	0.0120427
13281	0.0108971
13292	0.00918763
13303.1	0.0074903
13310.4	0.00636632
13321.5	0.00469295
13332.5	0.00303609
13343.5	0.00139729
13350.9	0.000315523
13361.9	-0.00128991
13372.9	-0.00287346
13380.3	-0.00391634
13391.3	-0.00546051
13402.4	-0.00697942
13413.4	-0.00847192
13420.7	-0.00945173
13431.8	-0.0108979
13442.8	-0.012315
13450.2	-0.0132431
13461.2	-0.0146098
13472.2	-0.0159453
13483.2	-0.0172489
13490.6	-0.0181
13501.6	-0.0193492
13512.7	-0.0205652
13520	-0.0213571
13531	-0.0225168
13542.1	-0.0236423
13553.1	-0.0247336
13560.5	-0.0254419
13571.5	-0.0264758
13582.5	-0.0274751
13593.6	-0.0284401
13600.9	-0.0290644
13611.9	-0.0299724
13623	-0.0308464
13630.3	-0.0314104
13641.4	-0.0322286
13652.4	-0.0330136
13663.4	-0.033766
13670.8	-0.0342497
13681.8	-0.0349486
13692.8	-0.0356161
13700.2	-0.036044
13711.2	-0.0366604
13722.2	-0.0372469
13733.3	-0.0378041
13740.6	-0.0381596
13751.7	-0.0386694
13762.7	-0.0391515
13770	-0.0394579
13781.1	-0.0398956
13792.1	-0.0403073
13803.1	-0.0406939
13810.5	-0.040938
13821.5	-0.0412842
13832.6	-0.0416069
13843.6	-0.0419069
13850.9	-0.0420946
13862	-0.0423581
13873	-0.0426005
13880.4	-0.0427508
13891.4	-0.0429595
13902.4	-0.0431487
13913.4	-0.0433191
13920.8	-0.0434224
13931.8	-0.0435625
13942.9	-0.0436851
13950.2	-0.0437574
13961.2	-0.043852
13972.3	-0.0439305
13983.3	-0.0439933
13990.7	-0.0440266
14001.7	-0.0440643
14012.7	-0.0440874
14020.1	-0.0440949
14031.1	-0.0440947
14042.1	-0.044081
14053.2	-0.0440543
14060.5	-0.0440294
14071.6	-0.0439816
14082.6	-0.0439218
14093.6	-0.0438502
14101	-0.0437961
14112	-0.0437056
14123	-0.0436044
14130.4	-0.043531
14141.4	-0.0434125
14152.4	-0.0432841
14163.5	-0.0431461
14170.8	-0.0430489
14181.9	-0.0428958
14192.9	-0.042734
14200.2	-0.0426216
14211.3	-0.0424463
14222.3	-0.0422633
14233.3	-0.0420732
14240.7	-0.0419425
14251.7	-0.0417411
14262.8	-0.0415335
14270.1	-0.0413918
14281.1	-0.0411746
14292.2	-0.0409523
14303.2	-0.0407253
14310.6	-0.0405715
14321.6	-0.0403374
14332.6	-0.0400996
14343.6	-0.0398586
14351	-0.0396963
14362	-0.0394507
14373.1	-0.039203
14380.4	-0.0390367
14391.4	-0.0387861
14402.5	-0.0385343
14413.5	-0.0382816
14420.9	-0.0381128
14431.9	-0.0378595
14442.9	-0.0376062
14450.3	-0.0374374
14461.3	-0.0371848
14472.3	-0.0369329
14483.4	-0.036682
14490.7	-0.0365154
14501.8	-0.0362667
14512.8	-0.0360194
14520.1	-0.0358554
14531.2	-0.0356109
14542.2	-0.0353681
14553.2	-0.0351271
14560.6	-0.0349675
14571.6	-0.0347296
14582.7	-0.0344934
14590	-0.0343369
14601	-0.0341034
14612.1	-0.0338714
14623.1	-0.0336406
14630.5	-0.0334873
14641.5	-0.0332581
14652.5	-0.0330294
14663.5	-0.032801
14670.9	-0.0326487
14681.9	-0.0324199
14693	-0.0321903
14700.3	-0.0320365
14711.3	-0.0318045
14722.4	-0.0315705
14733.4	-0.0313339
14740.8	-0.0311744
14751.8	-0.0309322
14762.8	-0.0306859
14770.2	-0.0305191
14781.2	-0.0302645
14792.2	-0.0300042
14803.3	-0.0297374
14810.6	-0.0295556
14821.7	-0.0292766
14832.7	-0.0289893
14840	-0.028793
14851.1	-0.0284906
14862.1	-0.0281782
14873.1	-0.0278552
14880.5	-0.0276337
14891.5	-0.0272916
14902.5	-0.0269372
14913.6	-0.02657
14920.9	-0.0263178
14932	-0.025928
14943	-0.025524
14950.3	-0.0252465
14961.4	-0.0248178
14972.4	-0.0243737
14983.4	-0.0239139
14990.8	-0.0235985
15001.8	-0.0231119
15012.9	-0.0226089
15020.2	-0.0222645
15031.2	-0.021734
15042.3	-0.0211869
15053.3	-0.0206232
15060.7	-0.0202382
15071.7	-0.019647
15082.7	-0.0190396
15090.1	-0.0186258
15101.1	-0.0179919
15112.1	-0.0173426
15123.2	-0.0166783
15130.5	-0.0162274
15141.5	-0.0155393
15152.6	-0.0148376
15163.6	-0.0141231
15171	-0.01364
15182	-0.0129058
15193	-0.0121608
15200.4	-0.0116585
15211.4	-0.0108976
15222.4	-0.0101284
15233.5	-0.00935186
15240.8	-0.00883067
15251.9	-0.00804444
15262.9	-0.00725386
15270.2	-0.00672496
15281.3	-0.00592973
15292.3	-0.0051333
15303.3	-0.00433691
15310.7	-0.00380661
15321.7	-0.00301303
15332.7	-0.00222282
15340.1	-0.0016985
15351.1	-0.000916698
15362.2	-0.000141611
15373.2	0.000625517
15380.5	0.00113191
15391.6	0.00188305
15402.6	0.00262301
15413.6	0.00335063
15421	0.00382829
15432	0.00453284
15443.1	0.00522211
15450.4	0.00567264
15461.4	0.00633421
15472.5	0.00697789
15483.5	0.0076028
15490.9	0.00800856
15501.9	0.00860036
15512.9	0.0091713
15520.3	0.00954
15531.3	0.0100747
15542.3	0.0105869
15553.4	0.0110762
15560.7	0.0113893
15571.7	0.0118393
15582.8	0.0122653
15590.1	0.0125358
15601.2	0.0129213
15612.2	0.0132823
15623.2	0.0136188
15630.6	0.0138295
15641.6	0.014125
15652.6	0.0143961
15663.7	0.014643
15671	0.0147942
15682.1	0.0150011
15693.1	0.0151845
15700.4	0.0152938
15711.5	0.0154388
15722.5	0.0155612
15733.5	0.0156616
15740.9	0.0157166
15751.9	0.0157815
15762.9	0.0158258
15770.3	0.0158442
15781.3	0.0158556
15792.4	0.0158481
15803.4	0.0158224
15810.7	0.0157954
15821.8	0.0157407
15832.8	0.0156696
15840.2	0.0156134
15851.2	0.0155164
15862.2	0.0154049
15873.3	0.0152794
15880.6	0.0151884
15891.6	0.0150412
15902.7	0.014882
15910	0.0147694
15921.1	0.0145913
15932.1	0.0144028
15943.1	0.0142045
15950.5	0.014067
15961.5	0.0138534
15972.5	0.0136314
15983.6	0.0134013
15990.9	0.0132438
16001.9	0.0130015
16013	0.0127524
16020.3	0.0125826
16031.4	0.0123229
16042.4	0.0120571
16053.4	0.0117857
16060.8	0.0116016
16071.8	0.0113211
16082.8	0.0110354
16090.2	0.0108421
16101.2	0.0105479
16112.3	0.0102488
16123.3	0.00994474
16130.6	0.00973929
16141.7	0.00942696
16152.7	0.0091096
16160.1	0.00889517
16171.1	0.00856918
16182.1	0.00823783
16193.1	0.00790094
16200.5	0.00767317
16211.5	0.00732659
16222.6	0.00697389
16233.6	0.00661481
16240.9	0.00637173
16252	0.00600138
16263	0.00562385
16270.4	0.00536803
16281.4	0.00497783
16292.4	0.00457959
16303.5	0.00417295
16310.8	0.00389702
16321.8	0.0034756
16332.9	0.00304484
16340.2	0.0027523
16351.3	0.00230518
16362.3	0.00184778
16373.3	0.00137976
16380.7	0.00106168
16391.7	0.000575208
16402.7	7.72495e-05
16410.1	-0.000261255
16421.1	-0.000779023
16432.1	-0.00130904
16443.2	-0.00185157
16450.5	-0.00222031
16461.6	-0.00278417
16472.6	-0.00336109
16483.6	-0.00395124
16491	-0.00435208
16502	-0.00496455
16513	-0.00559052
16520.4	-0.00601537
16531.4	-0.00666396
16542.5	-0.00732611
16553.5	-0.00800178
16560.8	-0.00845971
16571.9	-0.00915772
16582.9	-0.00986895
16590.3	-0.0103504
16601.3	-0.0110832
16612.3	-0.0118286
16623.3	-0.0125864
16630.7	-0.0130983
16641.7	-0.0138759
16652.8	-0.0146648
16660.1	-0.0151968
16671.1	-0.0160035
16682.2	-0.0168203
16693.2	-0.0176466
16700.6	-0.0182024
16711.6	-0.019043
16722.6	-0.0198914
16733.7	-0.0207468
16741	-0.0213206
16752	-0.022186
16763.1	-0.0230562
16770.4	-0.0236387
16781.5	-0.0245152
16792.5	-0.0253943
16803.5	-0.0262749
16810.9	-0.0268623
16821.9	-0.0277433
16832.9	-0.0286232
16840.3	-0.0292087
16851.3	-0.0300843
16862.3	-0.030956
16873.4	-0.0318225
16880.7	-0.0323968
16891.8	-0.0332524
16902.8	-0.0340997
16910.1	-0.0346595
16921.2	-0.0354907
16932.2	-0.0363106
16943.2	-0.0371181
16950.6	-0.0376489
16961.6	-0.038433
16972.7	-0.0392015
16980	-0.0397046
16991	-0.0404446
17002.1	-0.0411659
17013.1	-0.0418674
17020.5	-0.0423236
17031.5	-0.0429897
17042.5	-0.0436332
17053.5	-0.0442529
17060.9	-0.0446524
17071.9	-0.0452304
17083	-0.045782
17090.3	-0.0461346
17101.3	-0.0466402
17112.4	-0.0471171
17123.4	-0.0475644
17130.8	-0.0478458
17141.8	-0.0482421
17152.8	-0.0486068
17160.2	-0.0488321
17171.2	-0.0491428
17182.2	-0.0494204
17193.3	-0.0496642
17200.6	-0.0498077
17211.7	-0.0499943
17222.7	-0.0501461
17230	-0.0502277
17241.1	-0.0503207
17252.1	-0.050378
17263.1	-0.0503997
17270.5	-0.0503942
17281.5	-0.0503561
17292.5	-0.050282
17303.6	-0.0501721
17310.9	-0.050079
17322	-0.0499096
17333	-0.0497048
17340.3	-0.0495487
17351.4	-0.0492854
17362.4	-0.0489875
17373.4	-0.0486555
17380.8	-0.0484154
17391.8	-0.0480274
17402.9	-0.0476067
17410.2	-0.0473083
17421.2	-0.0468343
17432.3	-0.0463292
17443.3	-0.0457938
17450.7	-0.0454205
17461.7	-0.0448363
17472.7	-0.0442241
17480.1	-0.0438008
17491.1	-0.0431437
17502.1	-0.042461
17513.2	-0.0417537
17520.5	-0.0412689
17531.5	-0.0405228
17542.6	-0.0397548
17553.6	-0.038966
17561	-0.0384292
17572	-0.0376083
17583	-0.0367695
17590.4	-0.036201
17601.4	-0.0353352
17612.4	-0.0344545
17623.5	-0.0335604
17630.8	-0.0329573
17641.9	-0.032043
17652.9	-0.0311183
17660.2	-0.0304965
17671.3	-0.0295568
17682.3	-0.0286096
17693.3	-0.0276562
17700.7	-0.0270175
17711.7	-0.0260559
17722.7	-0.0250909
17730.1	-0.0244462
17741.1	-0.0234778
17752.2	-0.0225088
17763.2	-0.0215401
17770.5	-0.020895
17781.6	-0.019929
17792.6	-0.018966
17803.6	-0.0180067
17811	-0.0173698
17822	-0.0164188
17833.1	-0.0154739
17840.4	-0.0148478
17851.4	-0.0139148
17862.5	-0.01299
17873.5	-0.0120742
17880.9	-0.0114689
17891.9	-0.0105694
17902.9	-0.00968062
17910.3	-0.00909439
17921.3	-0.00822491
17932.3	-0.00736779
17943.4	-0.00652361
17950.7	-0.00596828
17961.7	-0.00514687
17972.8	-0.0043398
17980.1	-0.00380997
17991.2	-0.0030279
18002.2	-0.00226144
18013.2	-0.00151104
18020.6	-0.0010199
18031.6	-0.000297203
18042.6	0.000408337
18053.7	0.00109633
18061	0.00154506
18072.1	0.00220299
18083.1	0.0028424
18090.4	0.00325822
18101.5	0.00386602
18112.5	0.00445441
18123.5	0.00502307
18130.9	0.00539106
18141.9	0.00592615
18153	0.00644069
18160.3	0.00677217
18171.3	0.00725183
18182.4	0.00771019
18193.4	0.00814696
18200.8	0.00842601
18211.8	0.00882621
18222.8	0.0092041
18230.2	0.00944352
18241.2	0.00978368
18252.2	0.0101009
18263.3	0.0103949
18270.6	0.0105778
18281.6	0.0108326
18292.7	0.0110635
18300	0.0112041
18311.1	0.0113948
18322.1	0.0115611
18333.1	0.0117029
18340.5	0.0117836
18351.5	0.0118839
18362.5	0.0119591
18373.6	0.0120091
18380.9	0.0120283
18392	0.0120359
18403	0.0120179
18410.3	0.0119916
18421.4	0.0119307
18432.4	0.011844
18443.4	0.0117313
18450.8	0.0116418
18461.8	0.0114859
18472.8	0.011304
18480.2	0.0111684
18491.2	0.0109433
18502.3	0.0106923
18513.3	0.0104156
18520.6	0.0102169
18531.7	0.00989749
18542.7	0.00955273
18550.1	0.00930889
18561.1	0.0089223
18572.1	0.00851094
18583.2	0.0080751
18590.5	0.00777111
18601.5	0.00729524
18612.6	0.00679585
18623.6	0.00627339
18631	0.00591249
18642	0.00535262
18653	0.00477102
18660.4	0.0043715
18671.4	0.00375498
18682.4	0.00311837
18693.5	0.00246235
18700.8	0.00201458
18711.8	0.00132787
18722.9	0.000623795
18730.2	0.000145186
18741.3	-0.000585917
18752.3	-0.00133203
18763.3	-0.00209221
18770.7	-0.00260631
18781.7	-0.00338769
18792.7	-0.00418039
18800.1	-0.0047146
18811.1	-0.00552372
18822.2	-0.00634115
18833.2	-0.00716572
18840.5	-0.00771879
18851.6	-0.00855251
18862.6	-0.00939003
18873.6	-0.0102301
18881	-0.0107908
18892	-0.0116321
18903	-0.0124722
18910.4	-0.0130311
18921.4	-0.0138664
18932.5	-0.0146969
18943.5	-0.0155211
18950.8	-0.0160665
18961.9	-0.0168772
18972.9	-0.0176778
18980.3	-0.0182052
18991.3	-0.0189858
19002.3	-0.0197525
19013.4	-0.0205037
19020.7	-0.0209953
19031.7	-0.0217178
19042.8	-0.022421
19050.1	-0.0228785
19061.2	-0.0235467
19072.2	-0.024192
19083.2	-0.024813
19090.6	-0.025213
19101.6	-0.0257907
19112.6	-0.0263409
19123.7	-0.0268621
19131	-0.027193
19142	-0.0276635
19153.1	-0.028102
19160.4	-0.0283762
19171.5	-0.0287592
19182.5	-0.0291076
19193.5	-0.0294204
19200.9	-0.0296088
19211.9	-0.0298604
19222.9	-0.0300744
19230.3	-0.0301958
19241.3	-0.0303455
19252.4	-0.0304557
19263.4	-0.0305261
19270.7	-0.0305507
19281.8	-0.0305537
19292.8	-0.0305159
19300.2	-0.0304679
19311.2	-0.0303615
19322.2	-0.0302139
19333.2	-0.0300251
19340.6	-0.0298762
19351.6	-0.0296188
19362.7	-0.0293204
19370	-0.0290989
19381	-0.028733
19392.1	-0.0283271
19403.1	-0.0278818
19410.5	-0.0275632
19421.5	-0.0270534
19432.5	-0.0265058
19443.6	-0.0259212
19450.9	-0.0255112
19461.9	-0.0248668
19473	-0.0241878
19480.3	-0.0237164
19491.4	-0.0229819
19502.4	-0.0222157
19513.4	-0.0214189
19520.8	-0.0208713
19531.8	-0.0200263
19542.8	-0.0191542
19550.2	-0.0185582
19561.2	-0.0176438
19572.2	-0.0167058
19583.3	-0.0157458
19590.6	-0.0150943
19601.7	-0.0141008
19612.7	-0.0130893
19620	-0.0124058
19631.1	-0.0113677
19642.1	-0.0103157
19653.1	-0.00925142
19660.5	-0.00853582
19671.5	-0.00745448
19682.6	-0.00636501
19693.6	-0.00526897
19700.9	-0.0045354
19712	-0.00343186
19723	-0.00232586
19730.4	-0.0015879
19741.4	-0.000481138
19752.4	0.000624124
19763.4	0.00172644
19770.8	0.00245899
19781.8	0.0035533
19792.9	0.00464098
19800.2	0.00536177
19811.2	0.00643552
19822.3	0.00749924
19833.3	0.00855171
19840.7	0.00924654
19851.7	0.0102777
19862.7	0.0112947
19870.1	0.0119642
19881.1	0.0129551
19892.1	0.0139291
19903.2	0.0148853
19910.5	0.0155125
19921.6	0.0164371
19932.6	0.0173417
19943.6	0.0182255
19951	0.0188029
19962	0.0196506
19973	0.0204759
19980.4	0.0210133
19991.4	0.0217999
