MODE: ipmo_prog0
PARCOUNT: 17
PROBLEMS: 1
Running on INWEST
Using iPMO

Programs:
 + ../../build/sierpi_intel_ipmo_tsunami_parallel_release  -u 10 -U 10 -T 1000 -n 40 -d 12
 + ../../build/sierpi_intel_ipmo_tsunami_parallel_release  -u 10 -U 10 -T 1000 -n 40 -d 12
 + ../../build/sierpi_intel_ipmo_tsunami_parallel_release  -u 10 -U 10 -T 1000 -n 40 -d 10
 + ../../build/sierpi_intel_ipmo_tsunami_parallel_release  -u 10 -U 10 -T 1000 -n 40 -d 12
 + ../../build/sierpi_intel_ipmo_tsunami_parallel_release  -u 10 -U 10 -T 1000 -n 40 -d 10

Sat Mar 31 15:30:50 CEST 2012
iPMO: Prog0 parallel execution with ipmo (17 times)
Waiting for job 56235
56235: CHANGING RESSOURCES
56235: CHANGING RESSOURCES
56251: CHANGING RESSOURCES
56247: CHANGING RESSOURCES
56245: CHANGING RESSOURCES
56239: CHANGING RESSOURCES
56244: CHANGING RESSOURCES
56241: CHANGING RESSOURCES
56247: CHANGING RESSOURCES
56249: CHANGING RESSOURCES
56245: CHANGING RESSOURCES
56235: CHANGING RESSOURCES
56236: CHANGING RESSOURCES
56242: CHANGING RESSOURCES
56248: CHANGING RESSOURCES
56246: CHANGING RESSOURCES
56243: CHANGING RESSOURCES
56240: CHANGING RESSOURCES
56237: CHANGING RESSOURCES
56250: CHANGING RESSOURCES
56238: CHANGING RESSOURCES

 + Terminating after 1000 timesteps with equal number of triangles -> EXIT
 + Final timestep: 6749

6750 TS (Timesteps)
715.114 ST (SIMULATION_TIME)
0.100037 TSS (Timestep size)
50.7874 SFS (Overall seconds for Simulation)
437983904 TP (Triangles processed)
0.00752406 ASPT (Averaged Seconds per Timestep)
64886.5 TPST (Triangles Processed in Average per Simulation Timestep)
48.6681 PPST (Partitions Processed in Average per Simulation Timestep)
8.62387 MTPS (Million Triangles per Second)
-8.62387 MTPSPT (Million Triangles per Second per Thread)
1.98018 EDMBPT (ElementData Megabyte per Timestep (RW))
263.18 EDMBPS (ElementData Megabyte per Second (RW))
SUM CLIENT SHUTDOWN HINT: 437.984
SUM CLIENT SHUTDOWN HINT DIV TIME: 0
56251: CHANGING RESSOURCES
56247: CHANGING RESSOURCES
56239: CHANGING RESSOURCES
56246: CHANGING RESSOURCES
56245: CHANGING RESSOURCES

 + Terminating after 1000 timesteps with equal number of triangles -> EXIT
 + Final timestep: 6749

6750 TS (Timesteps)
715.114 ST (SIMULATION_TIME)
0.100037 TSS (Timestep size)
50.8691 SFS (Overall seconds for Simulation)
437983904 TP (Triangles processed)
0.00753617 ASPT (Averaged Seconds per Timestep)
64886.5 TPST (Triangles Processed in Average per Simulation Timestep)
48.6681 PPST (Partitions Processed in Average per Simulation Timestep)
8.61001 MTPS (Million Triangles per Second)
-8.61001 MTPSPT (Million Triangles per Second per Thread)
1.98018 EDMBPT (ElementData Megabyte per Timestep (RW))
262.757 EDMBPS (ElementData Megabyte per Second (RW))
SUM CLIENT SHUTDOWN HINT: 875.968
SUM CLIENT SHUTDOWN HINT DIV TIME: 0
56251: CHANGING RESSOURCES
56244: CHANGING RESSOURCES
56236: CHANGING RESSOURCES
56247: CHANGING RESSOURCES
56235: CHANGING RESSOURCES

 + Terminating after 1000 timesteps with equal number of triangles -> EXIT
 + Final timestep: 6749

6750 TS (Timesteps)
715.114 ST (SIMULATION_TIME)
0.100037 TSS (Timestep size)
50.9084 SFS (Overall seconds for Simulation)
437983904 TP (Triangles processed)
0.00754199 ASPT (Averaged Seconds per Timestep)
64886.5 TPST (Triangles Processed in Average per Simulation Timestep)
48.6681 PPST (Partitions Processed in Average per Simulation Timestep)
8.60337 MTPS (Million Triangles per Second)
-8.60337 MTPSPT (Million Triangles per Second per Thread)
1.98018 EDMBPT (ElementData Megabyte per Timestep (RW))
262.554 EDMBPS (ElementData Megabyte per Second (RW))
SUM CLIENT SHUTDOWN HINT: 1313.95
SUM CLIENT SHUTDOWN HINT DIV TIME: 0

 + Terminating after 1000 timesteps with equal number of triangles -> EXIT
 + Final timestep: 6749

6750 TS (Timesteps)
715.114 ST (SIMULATION_TIME)
0.100037 TSS (Timestep size)
50.9127 SFS (Overall seconds for Simulation)
437983904 TP (Triangles processed)
0.00754262 ASPT (Averaged Seconds per Timestep)
64886.5 TPST (Triangles Processed in Average per Simulation Timestep)
48.6681 PPST (Partitions Processed in Average per Simulation Timestep)
8.60265 MTPS (Million Triangles per Second)
-8.60265 MTPSPT (Million Triangles per Second per Thread)
1.98018 EDMBPT (ElementData Megabyte per Timestep (RW))
262.532 EDMBPS (ElementData Megabyte per Second (RW))
SUM CLIENT SHUTDOWN HINT: 1751.94
SUM CLIENT SHUTDOWN HINT DIV TIME: 0
56237: CHANGING RESSOURCES
56248: CHANGING RESSOURCES
56247: CHANGING RESSOURCES
56243: CHANGING RESSOURCES
56250: CHANGING RESSOURCES

 + Terminating after 1000 timesteps with equal number of triangles -> EXIT
 + Final timestep: 6749

6750 TS (Timesteps)
715.114 ST (SIMULATION_TIME)
0.100037 TSS (Timestep size)
51.0746 SFS (Overall seconds for Simulation)
437983904 TP (Triangles processed)
0.00756661 ASPT (Averaged Seconds per Timestep)
64886.5 TPST (Triangles Processed in Average per Simulation Timestep)
48.6681 PPST (Partitions Processed in Average per Simulation Timestep)
8.57538 MTPS (Million Triangles per Second)
-8.57538 MTPSPT (Million Triangles per Second per Thread)
1.98018 EDMBPT (ElementData Megabyte per Timestep (RW))
261.7 EDMBPS (ElementData Megabyte per Second (RW))
SUM CLIENT SHUTDOWN HINT: 2189.92
SUM CLIENT SHUTDOWN HINT DIV TIME: 0
56244: CHANGING RESSOURCES
56235: CHANGING RESSOURCES
56239: CHANGING RESSOURCES

 + Terminating after 1000 timesteps with equal number of triangles -> EXIT
 + Final timestep: 6749

6750 TS (Timesteps)
715.114 ST (SIMULATION_TIME)
0.100037 TSS (Timestep size)
51.1401 SFS (Overall seconds for Simulation)
437983904 TP (Triangles processed)
0.00757631 ASPT (Averaged Seconds per Timestep)
64886.5 TPST (Triangles Processed in Average per Simulation Timestep)
48.6681 PPST (Partitions Processed in Average per Simulation Timestep)
8.56439 MTPS (Million Triangles per Second)
-8.56439 MTPSPT (Million Triangles per Second per Thread)
1.98018 EDMBPT (ElementData Megabyte per Timestep (RW))
261.365 EDMBPS (ElementData Megabyte per Second (RW))
SUM CLIENT SHUTDOWN HINT: 2627.9
SUM CLIENT SHUTDOWN HINT DIV TIME: 0
56239: CHANGING RESSOURCES
56248: CHANGING RESSOURCES
56237: CHANGING RESSOURCES
56243: CHANGING RESSOURCES

 + Terminating after 1000 timesteps with equal number of triangles -> EXIT
 + Final timestep: 6749

6750 TS (Timesteps)
715.114 ST (SIMULATION_TIME)
0.100037 TSS (Timestep size)
61.0967 SFS (Overall seconds for Simulation)
437983904 TP (Triangles processed)
0.00905136 ASPT (Averaged Seconds per Timestep)
64886.5 TPST (Triangles Processed in Average per Simulation Timestep)
48.6681 PPST (Partitions Processed in Average per Simulation Timestep)
7.1687 MTPS (Million Triangles per Second)
-7.1687 MTPSPT (Million Triangles per Second per Thread)
1.98018 EDMBPT (ElementData Megabyte per Timestep (RW))
218.771 EDMBPS (ElementData Megabyte per Second (RW))
SUM CLIENT SHUTDOWN HINT: 3065.89
SUM CLIENT SHUTDOWN HINT DIV TIME: 0
56247: CHANGING RESSOURCES
56245: CHANGING RESSOURCES
56239: CHANGING RESSOURCES
56246: CHANGING RESSOURCES

 + Terminating after 1000 timesteps with equal number of triangles -> EXIT
 + Final timestep: 6749

6750 TS (Timesteps)
715.114 ST (SIMULATION_TIME)
0.100037 TSS (Timestep size)
61.1132 SFS (Overall seconds for Simulation)
437983904 TP (Triangles processed)
0.00905381 ASPT (Averaged Seconds per Timestep)
64886.5 TPST (Triangles Processed in Average per Simulation Timestep)
48.6681 PPST (Partitions Processed in Average per Simulation Timestep)
7.16676 MTPS (Million Triangles per Second)
-7.16676 MTPSPT (Million Triangles per Second per Thread)
1.98018 EDMBPT (ElementData Megabyte per Timestep (RW))
218.712 EDMBPS (ElementData Megabyte per Second (RW))
SUM CLIENT SHUTDOWN HINT: 3503.87
SUM CLIENT SHUTDOWN HINT DIV TIME: 0
56235: CHANGING RESSOURCES
56236: CHANGING RESSOURCES
56243: CHANGING RESSOURCES

 + Terminating after 1000 timesteps with equal number of triangles -> EXIT
 + Final timestep: 6749

6750 TS (Timesteps)
715.114 ST (SIMULATION_TIME)
0.100037 TSS (Timestep size)
61.4052 SFS (Overall seconds for Simulation)
437983904 TP (Triangles processed)
0.00909707 ASPT (Averaged Seconds per Timestep)
64886.5 TPST (Triangles Processed in Average per Simulation Timestep)
48.6681 PPST (Partitions Processed in Average per Simulation Timestep)
7.13268 MTPS (Million Triangles per Second)
-7.13268 MTPSPT (Million Triangles per Second per Thread)
1.98018 EDMBPT (ElementData Megabyte per Timestep (RW))
217.672 EDMBPS (ElementData Megabyte per Second (RW))
SUM CLIENT SHUTDOWN HINT: 3941.86
SUM CLIENT SHUTDOWN HINT DIV TIME: 0
56247: CHANGING RESSOURCES
56244: CHANGING RESSOURCES
56239: CHANGING RESSOURCES
56245: CHANGING RESSOURCES

 + Terminating after 1000 timesteps with equal number of triangles -> EXIT
 + Final timestep: 6749

6750 TS (Timesteps)
715.114 ST (SIMULATION_TIME)
0.100037 TSS (Timestep size)
61.4099 SFS (Overall seconds for Simulation)
437983904 TP (Triangles processed)
0.00909776 ASPT (Averaged Seconds per Timestep)
64886.5 TPST (Triangles Processed in Average per Simulation Timestep)
48.6681 PPST (Partitions Processed in Average per Simulation Timestep)
7.13214 MTPS (Million Triangles per Second)
-7.13214 MTPSPT (Million Triangles per Second per Thread)
1.98018 EDMBPT (ElementData Megabyte per Timestep (RW))
217.656 EDMBPS (ElementData Megabyte per Second (RW))
SUM CLIENT SHUTDOWN HINT: 4379.84
SUM CLIENT SHUTDOWN HINT DIV TIME: 0
56236: CHANGING RESSOURCES
56247: CHANGING RESSOURCES
56245: CHANGING RESSOURCES
Waiting for job 56236

 + Terminating after 1000 timesteps with equal number of triangles -> EXIT
 + Final timestep: 6749

6750 TS (Timesteps)
715.114 ST (SIMULATION_TIME)
0.100037 TSS (Timestep size)
61.479 SFS (Overall seconds for Simulation)
437983904 TP (Triangles processed)
0.00910799 ASPT (Averaged Seconds per Timestep)
64886.5 TPST (Triangles Processed in Average per Simulation Timestep)
48.6681 PPST (Partitions Processed in Average per Simulation Timestep)
7.12413 MTPS (Million Triangles per Second)
-7.12413 MTPSPT (Million Triangles per Second per Thread)
1.98018 EDMBPT (ElementData Megabyte per Timestep (RW))
217.411 EDMBPS (ElementData Megabyte per Second (RW))
SUM CLIENT SHUTDOWN HINT: 4817.82
SUM CLIENT SHUTDOWN HINT DIV TIME: 0
56237: CHANGING RESSOURCES
56244: CHANGING RESSOURCES
56247: CHANGING RESSOURCES
56246: CHANGING RESSOURCES
56239: CHANGING RESSOURCES
Waiting for job 56237

 + Terminating after 1000 timesteps with equal number of triangles -> EXIT
 + Final timestep: 6749

6750 TS (Timesteps)
715.114 ST (SIMULATION_TIME)
0.100037 TSS (Timestep size)
61.7011 SFS (Overall seconds for Simulation)
437983904 TP (Triangles processed)
0.00914091 ASPT (Averaged Seconds per Timestep)
64886.5 TPST (Triangles Processed in Average per Simulation Timestep)
48.6681 PPST (Partitions Processed in Average per Simulation Timestep)
7.09847 MTPS (Million Triangles per Second)
-7.09847 MTPSPT (Million Triangles per Second per Thread)
1.98018 EDMBPT (ElementData Megabyte per Timestep (RW))
216.628 EDMBPS (ElementData Megabyte per Second (RW))
SUM CLIENT SHUTDOWN HINT: 5255.81
SUM CLIENT SHUTDOWN HINT DIV TIME: 0
56246: CHANGING RESSOURCES
56247: CHANGING RESSOURCES
56239: CHANGING RESSOURCES
Waiting for job 56238
Waiting for job 56239

 + Terminating after 1000 timesteps with equal number of triangles -> EXIT
 + Final timestep: 6749

6750 TS (Timesteps)
715.114 ST (SIMULATION_TIME)
0.100037 TSS (Timestep size)
61.8283 SFS (Overall seconds for Simulation)
437983904 TP (Triangles processed)
0.00915975 ASPT (Averaged Seconds per Timestep)
64886.5 TPST (Triangles Processed in Average per Simulation Timestep)
48.6681 PPST (Partitions Processed in Average per Simulation Timestep)
7.08387 MTPS (Million Triangles per Second)
-7.08387 MTPSPT (Million Triangles per Second per Thread)
1.98018 EDMBPT (ElementData Megabyte per Timestep (RW))
216.183 EDMBPS (ElementData Megabyte per Second (RW))
SUM CLIENT SHUTDOWN HINT: 5693.79
SUM CLIENT SHUTDOWN HINT DIV TIME: 0
56245: CHANGING RESSOURCES
56239: CHANGING RESSOURCES
56247: CHANGING RESSOURCES

 + Terminating after 1000 timesteps with equal number of triangles -> EXIT
 + Final timestep: 6749

6750 TS (Timesteps)
715.114 ST (SIMULATION_TIME)
0.100037 TSS (Timestep size)
63.1737 SFS (Overall seconds for Simulation)
437983904 TP (Triangles processed)
0.00935907 ASPT (Averaged Seconds per Timestep)
64886.5 TPST (Triangles Processed in Average per Simulation Timestep)
48.6681 PPST (Partitions Processed in Average per Simulation Timestep)
6.93301 MTPS (Million Triangles per Second)
-6.93301 MTPSPT (Million Triangles per Second per Thread)
1.98018 EDMBPT (ElementData Megabyte per Timestep (RW))
211.579 EDMBPS (ElementData Megabyte per Second (RW))
SUM CLIENT SHUTDOWN HINT: 6131.77
SUM CLIENT SHUTDOWN HINT DIV TIME: 0
56245: CHANGING RESSOURCES
Waiting for job 56240
Waiting for job 56241
Waiting for job 56242
Waiting for job 56243
Waiting for job 56244
Waiting for job 56245

 + Terminating after 1000 timesteps with equal number of triangles -> EXIT
 + Final timestep: 6749

6750 TS (Timesteps)
715.114 ST (SIMULATION_TIME)
0.100037 TSS (Timestep size)
63.244 SFS (Overall seconds for Simulation)
437983904 TP (Triangles processed)
0.00936948 ASPT (Averaged Seconds per Timestep)
64886.5 TPST (Triangles Processed in Average per Simulation Timestep)
48.6681 PPST (Partitions Processed in Average per Simulation Timestep)
6.9253 MTPS (Million Triangles per Second)
-6.9253 MTPSPT (Million Triangles per Second per Thread)
1.98018 EDMBPT (ElementData Megabyte per Timestep (RW))
211.343 EDMBPS (ElementData Megabyte per Second (RW))
SUM CLIENT SHUTDOWN HINT: 6569.76
SUM CLIENT SHUTDOWN HINT DIV TIME: 0
56247: CHANGING RESSOURCES

 + Terminating after 1000 timesteps with equal number of triangles -> EXIT
 + Final timestep: 6749

6750 TS (Timesteps)
715.114 ST (SIMULATION_TIME)
0.100037 TSS (Timestep size)
63.4353 SFS (Overall seconds for Simulation)
437983904 TP (Triangles processed)
0.00939782 ASPT (Averaged Seconds per Timestep)
64886.5 TPST (Triangles Processed in Average per Simulation Timestep)
48.6681 PPST (Partitions Processed in Average per Simulation Timestep)
6.90442 MTPS (Million Triangles per Second)
-6.90442 MTPSPT (Million Triangles per Second per Thread)
1.98018 EDMBPT (ElementData Megabyte per Timestep (RW))
210.706 EDMBPS (ElementData Megabyte per Second (RW))
SUM CLIENT SHUTDOWN HINT: 7007.74
SUM CLIENT SHUTDOWN HINT DIV TIME: 0
56247: CHANGING RESSOURCES
Waiting for job 56246
Waiting for job 56247

 + Terminating after 1000 timesteps with equal number of triangles -> EXIT
 + Final timestep: 6749

6750 TS (Timesteps)
715.114 ST (SIMULATION_TIME)
0.100037 TSS (Timestep size)
63.7 SFS (Overall seconds for Simulation)
437983904 TP (Triangles processed)
0.00943704 ASPT (Averaged Seconds per Timestep)
64886.5 TPST (Triangles Processed in Average per Simulation Timestep)
48.6681 PPST (Partitions Processed in Average per Simulation Timestep)
6.87573 MTPS (Million Triangles per Second)
-6.87573 MTPSPT (Million Triangles per Second per Thread)
1.98018 EDMBPT (ElementData Megabyte per Timestep (RW))
209.831 EDMBPS (ElementData Megabyte per Second (RW))
SUM CLIENT SHUTDOWN HINT: 7445.73
SUM CLIENT SHUTDOWN HINT DIV TIME: 117.293
Waiting for job 56248
Waiting for job 56249
Waiting for job 56250
Waiting for job 56251
Sat Mar 31 15:31:54 CEST 2012
Seconds: 64
