STARTING WORLD SCHEDULER SERVER
CLIENT SETUP: adding client 40200
 + TIMESTAMP: 0.390621
START TIMESTAMP: 0.39067
+++++++++++++++++++++++++++++++++++++++++++++++++++++++++++
+ Client Mapping:
  > Client 40200 (0):	

+ Core Mapping:	0 0 0 0 0 0 0 0 0 0 0 0 0 0 0 0 0 0 0 0 0 0 0 0 0 0 0 0 0 0 0 0 0 0 0 0 0 0 0 0 
+ Optimal point: 
+++++++++++++++++++++++++++++++++++++++++++++++++++++++++++
INVADE: client 40200
 + TIMESTAMP: 0.390879
RESSOURCE DISTRIBUTION CHANGED
++++++++++++++++++++++++++++++++++++++++++++++++
INVADE (40200)
  + pid: 40200
  + min_cores: 1
  + max_cores: 512
  + scalability graph: 
1, 1.39494, 1.5699, 1.6742, 1.74538, 1.79792, 1.83875, 1.87167, 1.89893, 1.922, 1.94184, 1.95915, 1.97442, 1.98802, 2.00024, 2.0113, 2.02136, 2.03058, 2.03906, 2.04689, 2.05415, 2.06092, 2.06724, 2.07316, 2.07872, 2.08396, 2.0889, 2.09358, 2.09801, 2.10222, 2.10622, 2.11003, 2.11367, 2.11715, 2.12048, 2.12367, 2.12672, 2.12966, 2.13248, 2.1352, 
Number of clients: 1

+++++++++++++++++++++++++++++++++++++++++++++++++++++++++++
+ Client Mapping:
  > Client 40200 (40):	0 1 2 3 4 5 6 7 8 9 10 11 12 13 14 15 16 17 18 19 20 21 22 23 24 25 26 27 28 29 30 31 32 33 34 35 36 37 38 39 

+ Core Mapping:	40200 40200 40200 40200 40200 40200 40200 40200 40200 40200 40200 40200 40200 40200 40200 40200 40200 40200 40200 40200 40200 40200 40200 40200 40200 40200 40200 40200 40200 40200 40200 40200 40200 40200 40200 40200 40200 40200 40200 40200 
+ Optimal point: 40 
+++++++++++++++++++++++++++++++++++++++++++++++++++++++++++
CLIENT SETUP: adding client 40205
 + TIMESTAMP: 0.394525
+++++++++++++++++++++++++++++++++++++++++++++++++++++++++++
+ Client Mapping:
  > Client 40200 (40):	0 1 2 3 4 5 6 7 8 9 10 11 12 13 14 15 16 17 18 19 20 21 22 23 24 25 26 27 28 29 30 31 32 33 34 35 36 37 38 39 
  > Client 40205 (0):	

+ Core Mapping:	40200 40200 40200 40200 40200 40200 40200 40200 40200 40200 40200 40200 40200 40200 40200 40200 40200 40200 40200 40200 40200 40200 40200 40200 40200 40200 40200 40200 40200 40200 40200 40200 40200 40200 40200 40200 40200 40200 40200 40200 
+ Optimal point: 40 
+++++++++++++++++++++++++++++++++++++++++++++++++++++++++++
INVADE: client 40205
 + TIMESTAMP: 0.394712
CLIENT SETUP: adding client 40207
 + TIMESTAMP: 0.394762
+++++++++++++++++++++++++++++++++++++++++++++++++++++++++++
+ Client Mapping:
  > Client 40200 (40):	0 1 2 3 4 5 6 7 8 9 10 11 12 13 14 15 16 17 18 19 20 21 22 23 24 25 26 27 28 29 30 31 32 33 34 35 36 37 38 39 
  > Client 40205 (0):	
  > Client 40207 (0):	

+ Core Mapping:	40200 40200 40200 40200 40200 40200 40200 40200 40200 40200 40200 40200 40200 40200 40200 40200 40200 40200 40200 40200 40200 40200 40200 40200 40200 40200 40200 40200 40200 40200 40200 40200 40200 40200 40200 40200 40200 40200 40200 40200 
+ Optimal point: 20 20 
+++++++++++++++++++++++++++++++++++++++++++++++++++++++++++
INVADE: client 40207
 + TIMESTAMP: 0.394827
CLIENT SETUP: adding client 40204
 + TIMESTAMP: 0.395096
+++++++++++++++++++++++++++++++++++++++++++++++++++++++++++
+ Client Mapping:
  > Client 40200 (40):	0 1 2 3 4 5 6 7 8 9 10 11 12 13 14 15 16 17 18 19 20 21 22 23 24 25 26 27 28 29 30 31 32 33 34 35 36 37 38 39 
  > Client 40205 (0):	
  > Client 40207 (0):	
  > Client 40204 (0):	

+ Core Mapping:	40200 40200 40200 40200 40200 40200 40200 40200 40200 40200 40200 40200 40200 40200 40200 40200 40200 40200 40200 40200 40200 40200 40200 40200 40200 40200 40200 40200 40200 40200 40200 40200 40200 40200 40200 40200 40200 40200 40200 40200 
+ Optimal point: 14 13 13 
+++++++++++++++++++++++++++++++++++++++++++++++++++++++++++
INVADE: client 40204
 + TIMESTAMP: 0.395273
CLIENT SETUP: adding client 40206
 + TIMESTAMP: 0.399968
+++++++++++++++++++++++++++++++++++++++++++++++++++++++++++
+ Client Mapping:
  > Client 40200 (40):	0 1 2 3 4 5 6 7 8 9 10 11 12 13 14 15 16 17 18 19 20 21 22 23 24 25 26 27 28 29 30 31 32 33 34 35 36 37 38 39 
  > Client 40205 (0):	
  > Client 40207 (0):	
  > Client 40204 (0):	
  > Client 40206 (0):	

+ Core Mapping:	40200 40200 40200 40200 40200 40200 40200 40200 40200 40200 40200 40200 40200 40200 40200 40200 40200 40200 40200 40200 40200 40200 40200 40200 40200 40200 40200 40200 40200 40200 40200 40200 40200 40200 40200 40200 40200 40200 40200 40200 
+ Optimal point: 10 10 10 10 
+++++++++++++++++++++++++++++++++++++++++++++++++++++++++++
INVADE: client 40206
 + TIMESTAMP: 0.400116
CLIENT SETUP: adding client 40201
 + TIMESTAMP: 0.407257
+++++++++++++++++++++++++++++++++++++++++++++++++++++++++++
+ Client Mapping:
  > Client 40200 (40):	0 1 2 3 4 5 6 7 8 9 10 11 12 13 14 15 16 17 18 19 20 21 22 23 24 25 26 27 28 29 30 31 32 33 34 35 36 37 38 39 
  > Client 40205 (0):	
  > Client 40207 (0):	
  > Client 40204 (0):	
  > Client 40206 (0):	
  > Client 40201 (0):	

+ Core Mapping:	40200 40200 40200 40200 40200 40200 40200 40200 40200 40200 40200 40200 40200 40200 40200 40200 40200 40200 40200 40200 40200 40200 40200 40200 40200 40200 40200 40200 40200 40200 40200 40200 40200 40200 40200 40200 40200 40200 40200 40200 
+ Optimal point: 8 8 8 8 8 
+++++++++++++++++++++++++++++++++++++++++++++++++++++++++++
INVADE: client 40201
 + TIMESTAMP: 0.407468
CLIENT SETUP: adding client 40203
 + TIMESTAMP: 0.408966
+++++++++++++++++++++++++++++++++++++++++++++++++++++++++++
+ Client Mapping:
  > Client 40200 (40):	0 1 2 3 4 5 6 7 8 9 10 11 12 13 14 15 16 17 18 19 20 21 22 23 24 25 26 27 28 29 30 31 32 33 34 35 36 37 38 39 
  > Client 40205 (0):	
  > Client 40207 (0):	
  > Client 40204 (0):	
  > Client 40206 (0):	
  > Client 40201 (0):	
  > Client 40203 (0):	

+ Core Mapping:	40200 40200 40200 40200 40200 40200 40200 40200 40200 40200 40200 40200 40200 40200 40200 40200 40200 40200 40200 40200 40200 40200 40200 40200 40200 40200 40200 40200 40200 40200 40200 40200 40200 40200 40200 40200 40200 40200 40200 40200 
+ Optimal point: 7 7 7 6 6 7 
+++++++++++++++++++++++++++++++++++++++++++++++++++++++++++
INVADE: client 40203
 + TIMESTAMP: 0.409103
++++++++++++++++++++++++++++++++++++++++++++++++
 + TIMESTAMP: 0.473566
REINVADE (40200)
  + pid: 40200
  + min_cores: 1
  + max_cores: 512
  + scalability graph: 
1, 1.39494, 1.5699, 1.6742, 1.74538, 1.79792, 1.83875, 1.87167, 1.89893, 1.922, 1.94184, 1.95915, 1.97442, 1.98802, 2.00024, 2.0113, 2.02136, 2.03058, 2.03906, 2.04689, 2.05415, 2.06092, 2.06724, 2.07316, 2.07872, 2.08396, 2.0889, 2.09358, 2.09801, 2.10222, 2.10622, 2.11003, 2.11367, 2.11715, 2.12048, 2.12367, 2.12672, 2.12966, 2.13248, 2.1352, 
Number of clients: 7

+++++++++++++++++++++++++++++++++++++++++++++++++++++++++++
+ Client Mapping:
  > Client 40200 (6):	34 35 36 37 38 39 
  > Client 40205 (0):	
  > Client 40207 (0):	
  > Client 40204 (0):	
  > Client 40206 (0):	
  > Client 40201 (0):	
  > Client 40203 (0):	

+ Core Mapping:	0 0 0 0 0 0 0 0 0 0 0 0 0 0 0 0 0 0 0 0 0 0 0 0 0 0 0 0 0 0 0 0 0 0 40200 40200 40200 40200 40200 40200 
+ Optimal point: 6 6 6 6 6 5 5 
+++++++++++++++++++++++++++++++++++++++++++++++++++++++++++
CLIENT SETUP: adding client 40202
 + TIMESTAMP: 0.474785
+++++++++++++++++++++++++++++++++++++++++++++++++++++++++++
+ Client Mapping:
  > Client 40200 (6):	34 35 36 37 38 39 
  > Client 40205 (0):	
  > Client 40207 (0):	
  > Client 40204 (0):	
  > Client 40206 (0):	
  > Client 40201 (0):	
  > Client 40203 (0):	
  > Client 40202 (0):	

+ Core Mapping:	0 0 0 0 0 0 0 0 0 0 0 0 0 0 0 0 0 0 0 0 0 0 0 0 0 0 0 0 0 0 0 0 0 0 40200 40200 40200 40200 40200 40200 
+ Optimal point: 6 6 6 6 6 5 5 
+++++++++++++++++++++++++++++++++++++++++++++++++++++++++++
INVADE: client 40202
 + TIMESTAMP: 0.474888
RESSOURCE DISTRIBUTION CHANGED
++++++++++++++++++++++++++++++++++++++++++++++++
INVADE (40202)
  + pid: 40202
  + min_cores: 1
  + max_cores: 512
  + scalability graph: 
1, 1.39494, 1.5699, 1.6742, 1.74538, 1.79792, 1.83875, 1.87167, 1.89893, 1.922, 1.94184, 1.95915, 1.97442, 1.98802, 2.00024, 2.0113, 2.02136, 2.03058, 2.03906, 2.04689, 2.05415, 2.06092, 2.06724, 2.07316, 2.07872, 2.08396, 2.0889, 2.09358, 2.09801, 2.10222, 2.10622, 2.11003, 2.11367, 2.11715, 2.12048, 2.12367, 2.12672, 2.12966, 2.13248, 2.1352, 
Number of clients: 8

+++++++++++++++++++++++++++++++++++++++++++++++++++++++++++
+ Client Mapping:
  > Client 40200 (6):	34 35 36 37 38 39 
  > Client 40205 (0):	
  > Client 40207 (0):	
  > Client 40204 (0):	
  > Client 40206 (0):	
  > Client 40201 (0):	
  > Client 40203 (0):	
  > Client 40202 (5):	0 1 2 3 4 

+ Core Mapping:	40202 40202 40202 40202 40202 0 0 0 0 0 0 0 0 0 0 0 0 0 0 0 0 0 0 0 0 0 0 0 0 0 0 0 0 0 40200 40200 40200 40200 40200 40200 
+ Optimal point: 5 5 5 5 5 5 5 5 
+++++++++++++++++++++++++++++++++++++++++++++++++++++++++++
++++++++++++++++++++++++++++++++++++++++++++++++
 + TIMESTAMP: 0.667348
REINVADE (40200)
  + pid: 40200
  + min_cores: 1
  + max_cores: 512
  + scalability graph: 
1, 1.39494, 1.5699, 1.6742, 1.74538, 1.79792, 1.83875, 1.87167, 1.89893, 1.922, 1.94184, 1.95915, 1.97442, 1.98802, 2.00024, 2.0113, 2.02136, 2.03058, 2.03906, 2.04689, 2.05415, 2.06092, 2.06724, 2.07316, 2.07872, 2.08396, 2.0889, 2.09358, 2.09801, 2.10222, 2.10622, 2.11003, 2.11367, 2.11715, 2.12048, 2.12367, 2.12672, 2.12966, 2.13248, 2.1352, 
Number of clients: 8

+++++++++++++++++++++++++++++++++++++++++++++++++++++++++++
+ Client Mapping:
  > Client 40200 (5):	35 36 37 38 39 
  > Client 40205 (0):	
  > Client 40207 (0):	
  > Client 40204 (0):	
  > Client 40206 (0):	
  > Client 40201 (0):	
  > Client 40203 (0):	
  > Client 40202 (5):	0 1 2 3 4 

+ Core Mapping:	40202 40202 40202 40202 40202 0 0 0 0 0 0 0 0 0 0 0 0 0 0 0 0 0 0 0 0 0 0 0 0 0 0 0 0 0 0 40200 40200 40200 40200 40200 
+ Optimal point: 5 5 5 5 5 5 5 5 
+++++++++++++++++++++++++++++++++++++++++++++++++++++++++++
++++++++++++++++++++++++++++++++++++++++++++++++
 + TIMESTAMP: 0.832643
REINVADE (40205)
  + pid: 40205
  + min_cores: 1
  + max_cores: 512
  + scalability graph: 
1, 1.39494, 1.5699, 1.6742, 1.74538, 1.79792, 1.83875, 1.87167, 1.89893, 1.922, 1.94184, 1.95915, 1.97442, 1.98802, 2.00024, 2.0113, 2.02136, 2.03058, 2.03906, 2.04689, 2.05415, 2.06092, 2.06724, 2.07316, 2.07872, 2.08396, 2.0889, 2.09358, 2.09801, 2.10222, 2.10622, 2.11003, 2.11367, 2.11715, 2.12048, 2.12367, 2.12672, 2.12966, 2.13248, 2.1352, 
Number of clients: 8

+++++++++++++++++++++++++++++++++++++++++++++++++++++++++++
+ Client Mapping:
  > Client 40200 (5):	35 36 37 38 39 
  > Client 40205 (5):	5 6 7 8 9 
  > Client 40207 (0):	
  > Client 40204 (0):	
  > Client 40206 (0):	
  > Client 40201 (0):	
  > Client 40203 (0):	
  > Client 40202 (5):	0 1 2 3 4 

+ Core Mapping:	40202 40202 40202 40202 40202 40205 40205 40205 40205 40205 0 0 0 0 0 0 0 0 0 0 0 0 0 0 0 0 0 0 0 0 0 0 0 0 0 40200 40200 40200 40200 40200 
+ Optimal point: 5 5 5 5 5 5 5 5 
+++++++++++++++++++++++++++++++++++++++++++++++++++++++++++
++++++++++++++++++++++++++++++++++++++++++++++++
 + TIMESTAMP: 1.29837
REINVADE (40204)
  + pid: 40204
  + min_cores: 1
  + max_cores: 512
  + scalability graph: 
1, 1.39494, 1.5699, 1.6742, 1.74538, 1.79792, 1.83875, 1.87167, 1.89893, 1.922, 1.94184, 1.95915, 1.97442, 1.98802, 2.00024, 2.0113, 2.02136, 2.03058, 2.03906, 2.04689, 2.05415, 2.06092, 2.06724, 2.07316, 2.07872, 2.08396, 2.0889, 2.09358, 2.09801, 2.10222, 2.10622, 2.11003, 2.11367, 2.11715, 2.12048, 2.12367, 2.12672, 2.12966, 2.13248, 2.1352, 
Number of clients: 8

+++++++++++++++++++++++++++++++++++++++++++++++++++++++++++
+ Client Mapping:
  > Client 40200 (5):	35 36 37 38 39 
  > Client 40205 (5):	5 6 7 8 9 
  > Client 40207 (0):	
  > Client 40204 (5):	10 11 12 13 14 
  > Client 40206 (0):	
  > Client 40201 (0):	
  > Client 40203 (0):	
  > Client 40202 (5):	0 1 2 3 4 

+ Core Mapping:	40202 40202 40202 40202 40202 40205 40205 40205 40205 40205 40204 40204 40204 40204 40204 0 0 0 0 0 0 0 0 0 0 0 0 0 0 0 0 0 0 0 0 40200 40200 40200 40200 40200 
+ Optimal point: 5 5 5 5 5 5 5 5 
+++++++++++++++++++++++++++++++++++++++++++++++++++++++++++
++++++++++++++++++++++++++++++++++++++++++++++++
 + TIMESTAMP: 1.40662
REINVADE (40207)
  + pid: 40207
  + min_cores: 1
  + max_cores: 512
  + scalability graph: 
1, 1.39494, 1.5699, 1.6742, 1.74538, 1.79792, 1.83875, 1.87167, 1.89893, 1.922, 1.94184, 1.95915, 1.97442, 1.98802, 2.00024, 2.0113, 2.02136, 2.03058, 2.03906, 2.04689, 2.05415, 2.06092, 2.06724, 2.07316, 2.07872, 2.08396, 2.0889, 2.09358, 2.09801, 2.10222, 2.10622, 2.11003, 2.11367, 2.11715, 2.12048, 2.12367, 2.12672, 2.12966, 2.13248, 2.1352, 
Number of clients: 8

+++++++++++++++++++++++++++++++++++++++++++++++++++++++++++
+ Client Mapping:
  > Client 40200 (5):	35 36 37 38 39 
  > Client 40205 (5):	5 6 7 8 9 
  > Client 40207 (5):	15 16 17 18 19 
  > Client 40204 (5):	10 11 12 13 14 
  > Client 40206 (0):	
  > Client 40201 (0):	
  > Client 40203 (0):	
  > Client 40202 (5):	0 1 2 3 4 

+ Core Mapping:	40202 40202 40202 40202 40202 40205 40205 40205 40205 40205 40204 40204 40204 40204 40204 40207 40207 40207 40207 40207 0 0 0 0 0 0 0 0 0 0 0 0 0 0 0 40200 40200 40200 40200 40200 
+ Optimal point: 5 5 5 5 5 5 5 5 
+++++++++++++++++++++++++++++++++++++++++++++++++++++++++++
++++++++++++++++++++++++++++++++++++++++++++++++
 + TIMESTAMP: 1.4179
REINVADE (40203)
  + pid: 40203
  + min_cores: 1
  + max_cores: 512
  + scalability graph: 
1, 1.39494, 1.5699, 1.6742, 1.74538, 1.79792, 1.83875, 1.87167, 1.89893, 1.922, 1.94184, 1.95915, 1.97442, 1.98802, 2.00024, 2.0113, 2.02136, 2.03058, 2.03906, 2.04689, 2.05415, 2.06092, 2.06724, 2.07316, 2.07872, 2.08396, 2.0889, 2.09358, 2.09801, 2.10222, 2.10622, 2.11003, 2.11367, 2.11715, 2.12048, 2.12367, 2.12672, 2.12966, 2.13248, 2.1352, 
Number of clients: 8

+++++++++++++++++++++++++++++++++++++++++++++++++++++++++++
+ Client Mapping:
  > Client 40200 (5):	35 36 37 38 39 
  > Client 40205 (5):	5 6 7 8 9 
  > Client 40207 (5):	15 16 17 18 19 
  > Client 40204 (5):	10 11 12 13 14 
  > Client 40206 (0):	
  > Client 40201 (0):	
  > Client 40203 (5):	20 21 22 23 24 
  > Client 40202 (5):	0 1 2 3 4 

+ Core Mapping:	40202 40202 40202 40202 40202 40205 40205 40205 40205 40205 40204 40204 40204 40204 40204 40207 40207 40207 40207 40207 40203 40203 40203 40203 40203 0 0 0 0 0 0 0 0 0 0 40200 40200 40200 40200 40200 
+ Optimal point: 5 5 5 5 5 5 5 5 
+++++++++++++++++++++++++++++++++++++++++++++++++++++++++++
++++++++++++++++++++++++++++++++++++++++++++++++
 + TIMESTAMP: 1.42194
REINVADE (40206)
  + pid: 40206
  + min_cores: 1
  + max_cores: 512
  + scalability graph: 
1, 1.39494, 1.5699, 1.6742, 1.74538, 1.79792, 1.83875, 1.87167, 1.89893, 1.922, 1.94184, 1.95915, 1.97442, 1.98802, 2.00024, 2.0113, 2.02136, 2.03058, 2.03906, 2.04689, 2.05415, 2.06092, 2.06724, 2.07316, 2.07872, 2.08396, 2.0889, 2.09358, 2.09801, 2.10222, 2.10622, 2.11003, 2.11367, 2.11715, 2.12048, 2.12367, 2.12672, 2.12966, 2.13248, 2.1352, 
Number of clients: 8

+++++++++++++++++++++++++++++++++++++++++++++++++++++++++++
+ Client Mapping:
  > Client 40200 (5):	35 36 37 38 39 
  > Client 40205 (5):	5 6 7 8 9 
  > Client 40207 (5):	15 16 17 18 19 
  > Client 40204 (5):	10 11 12 13 14 
  > Client 40206 (5):	25 26 27 28 29 
  > Client 40201 (0):	
  > Client 40203 (5):	20 21 22 23 24 
  > Client 40202 (5):	0 1 2 3 4 

+ Core Mapping:	40202 40202 40202 40202 40202 40205 40205 40205 40205 40205 40204 40204 40204 40204 40204 40207 40207 40207 40207 40207 40203 40203 40203 40203 40203 40206 40206 40206 40206 40206 0 0 0 0 0 40200 40200 40200 40200 40200 
+ Optimal point: 5 5 5 5 5 5 5 5 
+++++++++++++++++++++++++++++++++++++++++++++++++++++++++++
++++++++++++++++++++++++++++++++++++++++++++++++
 + TIMESTAMP: 1.42818
REINVADE (40201)
  + pid: 40201
  + min_cores: 1
  + max_cores: 512
  + scalability graph: 
1, 1.39494, 1.5699, 1.6742, 1.74538, 1.79792, 1.83875, 1.87167, 1.89893, 1.922, 1.94184, 1.95915, 1.97442, 1.98802, 2.00024, 2.0113, 2.02136, 2.03058, 2.03906, 2.04689, 2.05415, 2.06092, 2.06724, 2.07316, 2.07872, 2.08396, 2.0889, 2.09358, 2.09801, 2.10222, 2.10622, 2.11003, 2.11367, 2.11715, 2.12048, 2.12367, 2.12672, 2.12966, 2.13248, 2.1352, 
Number of clients: 8

+++++++++++++++++++++++++++++++++++++++++++++++++++++++++++
+ Client Mapping:
  > Client 40200 (5):	35 36 37 38 39 
  > Client 40205 (5):	5 6 7 8 9 
  > Client 40207 (5):	15 16 17 18 19 
  > Client 40204 (5):	10 11 12 13 14 
  > Client 40206 (5):	25 26 27 28 29 
  > Client 40201 (5):	30 31 32 33 34 
  > Client 40203 (5):	20 21 22 23 24 
  > Client 40202 (5):	0 1 2 3 4 

+ Core Mapping:	40202 40202 40202 40202 40202 40205 40205 40205 40205 40205 40204 40204 40204 40204 40204 40207 40207 40207 40207 40207 40203 40203 40203 40203 40203 40206 40206 40206 40206 40206 40201 40201 40201 40201 40201 40200 40200 40200 40200 40200 
+ Optimal point: 5 5 5 5 5 5 5 5 
+++++++++++++++++++++++++++++++++++++++++++++++++++++++++++
CLIENT SHUTDOWN: client 40200
 + TIMESTAMP: 1391.62
+++++++++++++++++++++++++++++++++++++++++++++++++++++++++++
+ Client Mapping:
  > Client 40200 (0):	
  > Client 40205 (5):	5 6 7 8 9 
  > Client 40207 (5):	15 16 17 18 19 
  > Client 40204 (5):	10 11 12 13 14 
  > Client 40206 (5):	25 26 27 28 29 
  > Client 40201 (5):	30 31 32 33 34 
  > Client 40203 (5):	20 21 22 23 24 
  > Client 40202 (5):	0 1 2 3 4 

+ Core Mapping:	40202 40202 40202 40202 40202 40205 40205 40205 40205 40205 40204 40204 40204 40204 40204 40207 40207 40207 40207 40207 40203 40203 40203 40203 40203 40206 40206 40206 40206 40206 40201 40201 40201 40201 40201 0 0 0 0 0 
+ Optimal point: 5 5 5 5 5 5 5 5 
+++++++++++++++++++++++++++++++++++++++++++++++++++++++++++
client (40200) shutdown hint: 20954.2
sum_client_shutdown_hint: 20954.2
sum_client_shutdown_hint_div_time: 0
++++++++++++++++++++++++++++++++++++++++++++++++
 + TIMESTAMP: 1391.62
REINVADE (40206)
  + pid: 40206
  + min_cores: 1
  + max_cores: 512
  + scalability graph: 
1, 1.39494, 1.5699, 1.6742, 1.74538, 1.79792, 1.83875, 1.87167, 1.89893, 1.922, 1.94184, 1.95915, 1.97442, 1.98802, 2.00024, 2.0113, 2.02136, 2.03058, 2.03906, 2.04689, 2.05415, 2.06092, 2.06724, 2.07316, 2.07872, 2.08396, 2.0889, 2.09358, 2.09801, 2.10222, 2.10622, 2.11003, 2.11367, 2.11715, 2.12048, 2.12367, 2.12672, 2.12966, 2.13248, 2.1352, 
Number of clients: 7

+++++++++++++++++++++++++++++++++++++++++++++++++++++++++++
+ Client Mapping:
  > Client 40205 (5):	5 6 7 8 9 
  > Client 40207 (5):	15 16 17 18 19 
  > Client 40204 (5):	10 11 12 13 14 
  > Client 40206 (6):	25 26 27 28 29 35 
  > Client 40201 (5):	30 31 32 33 34 
  > Client 40203 (5):	20 21 22 23 24 
  > Client 40202 (5):	0 1 2 3 4 

+ Core Mapping:	40202 40202 40202 40202 40202 40205 40205 40205 40205 40205 40204 40204 40204 40204 40204 40207 40207 40207 40207 40207 40203 40203 40203 40203 40203 40206 40206 40206 40206 40206 40201 40201 40201 40201 40201 40206 0 0 0 0 
+ Optimal point: 6 6 6 6 6 5 5 
+++++++++++++++++++++++++++++++++++++++++++++++++++++++++++
++++++++++++++++++++++++++++++++++++++++++++++++
 + TIMESTAMP: 1391.63
REINVADE (40204)
  + pid: 40204
  + min_cores: 1
  + max_cores: 512
  + scalability graph: 
1, 1.39494, 1.5699, 1.6742, 1.74538, 1.79792, 1.83875, 1.87167, 1.89893, 1.922, 1.94184, 1.95915, 1.97442, 1.98802, 2.00024, 2.0113, 2.02136, 2.03058, 2.03906, 2.04689, 2.05415, 2.06092, 2.06724, 2.07316, 2.07872, 2.08396, 2.0889, 2.09358, 2.09801, 2.10222, 2.10622, 2.11003, 2.11367, 2.11715, 2.12048, 2.12367, 2.12672, 2.12966, 2.13248, 2.1352, 
Number of clients: 7

+++++++++++++++++++++++++++++++++++++++++++++++++++++++++++
+ Client Mapping:
  > Client 40205 (5):	5 6 7 8 9 
  > Client 40207 (5):	15 16 17 18 19 
  > Client 40204 (6):	10 11 12 13 14 36 
  > Client 40206 (6):	25 26 27 28 29 35 
  > Client 40201 (5):	30 31 32 33 34 
  > Client 40203 (5):	20 21 22 23 24 
  > Client 40202 (5):	0 1 2 3 4 

+ Core Mapping:	40202 40202 40202 40202 40202 40205 40205 40205 40205 40205 40204 40204 40204 40204 40204 40207 40207 40207 40207 40207 40203 40203 40203 40203 40203 40206 40206 40206 40206 40206 40201 40201 40201 40201 40201 40206 40204 0 0 0 
+ Optimal point: 6 6 6 6 6 5 5 
+++++++++++++++++++++++++++++++++++++++++++++++++++++++++++
++++++++++++++++++++++++++++++++++++++++++++++++
 + TIMESTAMP: 1391.64
REINVADE (40205)
  + pid: 40205
  + min_cores: 1
  + max_cores: 512
  + scalability graph: 
1, 1.39494, 1.5699, 1.6742, 1.74538, 1.79792, 1.83875, 1.87167, 1.89893, 1.922, 1.94184, 1.95915, 1.97442, 1.98802, 2.00024, 2.0113, 2.02136, 2.03058, 2.03906, 2.04689, 2.05415, 2.06092, 2.06724, 2.07316, 2.07872, 2.08396, 2.0889, 2.09358, 2.09801, 2.10222, 2.10622, 2.11003, 2.11367, 2.11715, 2.12048, 2.12367, 2.12672, 2.12966, 2.13248, 2.1352, 
Number of clients: 7

+++++++++++++++++++++++++++++++++++++++++++++++++++++++++++
+ Client Mapping:
  > Client 40205 (6):	5 6 7 8 9 37 
  > Client 40207 (5):	15 16 17 18 19 
  > Client 40204 (6):	10 11 12 13 14 36 
  > Client 40206 (6):	25 26 27 28 29 35 
  > Client 40201 (5):	30 31 32 33 34 
  > Client 40203 (5):	20 21 22 23 24 
  > Client 40202 (5):	0 1 2 3 4 

+ Core Mapping:	40202 40202 40202 40202 40202 40205 40205 40205 40205 40205 40204 40204 40204 40204 40204 40207 40207 40207 40207 40207 40203 40203 40203 40203 40203 40206 40206 40206 40206 40206 40201 40201 40201 40201 40201 40206 40204 40205 0 0 
+ Optimal point: 6 6 6 6 6 5 5 
+++++++++++++++++++++++++++++++++++++++++++++++++++++++++++
++++++++++++++++++++++++++++++++++++++++++++++++
 + TIMESTAMP: 1391.64
REINVADE (40201)
  + pid: 40201
  + min_cores: 1
  + max_cores: 512
  + scalability graph: 
1, 1.39494, 1.5699, 1.6742, 1.74538, 1.79792, 1.83875, 1.87167, 1.89893, 1.922, 1.94184, 1.95915, 1.97442, 1.98802, 2.00024, 2.0113, 2.02136, 2.03058, 2.03906, 2.04689, 2.05415, 2.06092, 2.06724, 2.07316, 2.07872, 2.08396, 2.0889, 2.09358, 2.09801, 2.10222, 2.10622, 2.11003, 2.11367, 2.11715, 2.12048, 2.12367, 2.12672, 2.12966, 2.13248, 2.1352, 
Number of clients: 7

+++++++++++++++++++++++++++++++++++++++++++++++++++++++++++
+ Client Mapping:
  > Client 40205 (6):	5 6 7 8 9 37 
  > Client 40207 (5):	15 16 17 18 19 
  > Client 40204 (6):	10 11 12 13 14 36 
  > Client 40206 (6):	25 26 27 28 29 35 
  > Client 40201 (6):	30 31 32 33 34 38 
  > Client 40203 (5):	20 21 22 23 24 
  > Client 40202 (5):	0 1 2 3 4 

+ Core Mapping:	40202 40202 40202 40202 40202 40205 40205 40205 40205 40205 40204 40204 40204 40204 40204 40207 40207 40207 40207 40207 40203 40203 40203 40203 40203 40206 40206 40206 40206 40206 40201 40201 40201 40201 40201 40206 40204 40205 40201 0 
+ Optimal point: 6 6 6 6 6 5 5 
+++++++++++++++++++++++++++++++++++++++++++++++++++++++++++
++++++++++++++++++++++++++++++++++++++++++++++++
 + TIMESTAMP: 1391.64
REINVADE (40207)
  + pid: 40207
  + min_cores: 1
  + max_cores: 512
  + scalability graph: 
1, 1.39494, 1.5699, 1.6742, 1.74538, 1.79792, 1.83875, 1.87167, 1.89893, 1.922, 1.94184, 1.95915, 1.97442, 1.98802, 2.00024, 2.0113, 2.02136, 2.03058, 2.03906, 2.04689, 2.05415, 2.06092, 2.06724, 2.07316, 2.07872, 2.08396, 2.0889, 2.09358, 2.09801, 2.10222, 2.10622, 2.11003, 2.11367, 2.11715, 2.12048, 2.12367, 2.12672, 2.12966, 2.13248, 2.1352, 
Number of clients: 7

+++++++++++++++++++++++++++++++++++++++++++++++++++++++++++
+ Client Mapping:
  > Client 40205 (6):	5 6 7 8 9 37 
  > Client 40207 (6):	15 16 17 18 19 39 
  > Client 40204 (6):	10 11 12 13 14 36 
  > Client 40206 (6):	25 26 27 28 29 35 
  > Client 40201 (6):	30 31 32 33 34 38 
  > Client 40203 (5):	20 21 22 23 24 
  > Client 40202 (5):	0 1 2 3 4 

+ Core Mapping:	40202 40202 40202 40202 40202 40205 40205 40205 40205 40205 40204 40204 40204 40204 40204 40207 40207 40207 40207 40207 40203 40203 40203 40203 40203 40206 40206 40206 40206 40206 40201 40201 40201 40201 40201 40206 40204 40205 40201 40207 
+ Optimal point: 6 6 6 6 6 5 5 
+++++++++++++++++++++++++++++++++++++++++++++++++++++++++++
CLIENT SHUTDOWN: client 40206
 + TIMESTAMP: 1404.2
+++++++++++++++++++++++++++++++++++++++++++++++++++++++++++
+ Client Mapping:
  > Client 40205 (6):	5 6 7 8 9 37 
  > Client 40207 (6):	15 16 17 18 19 39 
  > Client 40204 (6):	10 11 12 13 14 36 
  > Client 40206 (0):	
  > Client 40201 (6):	30 31 32 33 34 38 
  > Client 40203 (5):	20 21 22 23 24 
  > Client 40202 (5):	0 1 2 3 4 

+ Core Mapping:	40202 40202 40202 40202 40202 40205 40205 40205 40205 40205 40204 40204 40204 40204 40204 40207 40207 40207 40207 40207 40203 40203 40203 40203 40203 0 0 0 0 0 40201 40201 40201 40201 40201 0 40204 40205 40201 40207 
+ Optimal point: 6 6 6 6 6 5 5 
+++++++++++++++++++++++++++++++++++++++++++++++++++++++++++
client (40206) shutdown hint: 20954.2
sum_client_shutdown_hint: 41908.4
sum_client_shutdown_hint_div_time: 0
++++++++++++++++++++++++++++++++++++++++++++++++
 + TIMESTAMP: 1404.2
REINVADE (40207)
  + pid: 40207
  + min_cores: 1
  + max_cores: 512
  + scalability graph: 
1, 1.39494, 1.5699, 1.6742, 1.74538, 1.79792, 1.83875, 1.87167, 1.89893, 1.922, 1.94184, 1.95915, 1.97442, 1.98802, 2.00024, 2.0113, 2.02136, 2.03058, 2.03906, 2.04689, 2.05415, 2.06092, 2.06724, 2.07316, 2.07872, 2.08396, 2.0889, 2.09358, 2.09801, 2.10222, 2.10622, 2.11003, 2.11367, 2.11715, 2.12048, 2.12367, 2.12672, 2.12966, 2.13248, 2.1352, 
Number of clients: 6

+++++++++++++++++++++++++++++++++++++++++++++++++++++++++++
+ Client Mapping:
  > Client 40205 (6):	5 6 7 8 9 37 
  > Client 40207 (7):	15 16 17 18 19 39 25 
  > Client 40204 (6):	10 11 12 13 14 36 
  > Client 40201 (6):	30 31 32 33 34 38 
  > Client 40203 (5):	20 21 22 23 24 
  > Client 40202 (5):	0 1 2 3 4 

+ Core Mapping:	40202 40202 40202 40202 40202 40205 40205 40205 40205 40205 40204 40204 40204 40204 40204 40207 40207 40207 40207 40207 40203 40203 40203 40203 40203 40207 0 0 0 0 40201 40201 40201 40201 40201 0 40204 40205 40201 40207 
+ Optimal point: 7 7 7 6 6 7 
+++++++++++++++++++++++++++++++++++++++++++++++++++++++++++
++++++++++++++++++++++++++++++++++++++++++++++++
 + TIMESTAMP: 1404.21
REINVADE (40202)
  + pid: 40202
  + min_cores: 1
  + max_cores: 512
  + scalability graph: 
1, 1.39494, 1.5699, 1.6742, 1.74538, 1.79792, 1.83875, 1.87167, 1.89893, 1.922, 1.94184, 1.95915, 1.97442, 1.98802, 2.00024, 2.0113, 2.02136, 2.03058, 2.03906, 2.04689, 2.05415, 2.06092, 2.06724, 2.07316, 2.07872, 2.08396, 2.0889, 2.09358, 2.09801, 2.10222, 2.10622, 2.11003, 2.11367, 2.11715, 2.12048, 2.12367, 2.12672, 2.12966, 2.13248, 2.1352, 
Number of clients: 6

+++++++++++++++++++++++++++++++++++++++++++++++++++++++++++
+ Client Mapping:
  > Client 40205 (6):	5 6 7 8 9 37 
  > Client 40207 (7):	15 16 17 18 19 39 25 
  > Client 40204 (6):	10 11 12 13 14 36 
  > Client 40201 (6):	30 31 32 33 34 38 
  > Client 40203 (5):	20 21 22 23 24 
  > Client 40202 (7):	0 1 2 3 4 26 27 

+ Core Mapping:	40202 40202 40202 40202 40202 40205 40205 40205 40205 40205 40204 40204 40204 40204 40204 40207 40207 40207 40207 40207 40203 40203 40203 40203 40203 40207 40202 40202 0 0 40201 40201 40201 40201 40201 0 40204 40205 40201 40207 
+ Optimal point: 7 7 7 6 6 7 
+++++++++++++++++++++++++++++++++++++++++++++++++++++++++++
++++++++++++++++++++++++++++++++++++++++++++++++
 + TIMESTAMP: 1404.22
REINVADE (40205)
  + pid: 40205
  + min_cores: 1
  + max_cores: 512
  + scalability graph: 
1, 1.39494, 1.5699, 1.6742, 1.74538, 1.79792, 1.83875, 1.87167, 1.89893, 1.922, 1.94184, 1.95915, 1.97442, 1.98802, 2.00024, 2.0113, 2.02136, 2.03058, 2.03906, 2.04689, 2.05415, 2.06092, 2.06724, 2.07316, 2.07872, 2.08396, 2.0889, 2.09358, 2.09801, 2.10222, 2.10622, 2.11003, 2.11367, 2.11715, 2.12048, 2.12367, 2.12672, 2.12966, 2.13248, 2.1352, 
Number of clients: 6

+++++++++++++++++++++++++++++++++++++++++++++++++++++++++++
+ Client Mapping:
  > Client 40205 (7):	5 6 7 8 9 37 28 
  > Client 40207 (7):	15 16 17 18 19 39 25 
  > Client 40204 (6):	10 11 12 13 14 36 
  > Client 40201 (6):	30 31 32 33 34 38 
  > Client 40203 (5):	20 21 22 23 24 
  > Client 40202 (7):	0 1 2 3 4 26 27 

+ Core Mapping:	40202 40202 40202 40202 40202 40205 40205 40205 40205 40205 40204 40204 40204 40204 40204 40207 40207 40207 40207 40207 40203 40203 40203 40203 40203 40207 40202 40202 40205 0 40201 40201 40201 40201 40201 0 40204 40205 40201 40207 
+ Optimal point: 7 7 7 6 6 7 
+++++++++++++++++++++++++++++++++++++++++++++++++++++++++++
++++++++++++++++++++++++++++++++++++++++++++++++
 + TIMESTAMP: 1404.22
REINVADE (40204)
  + pid: 40204
  + min_cores: 1
  + max_cores: 512
  + scalability graph: 
1, 1.39494, 1.5699, 1.6742, 1.74538, 1.79792, 1.83875, 1.87167, 1.89893, 1.922, 1.94184, 1.95915, 1.97442, 1.98802, 2.00024, 2.0113, 2.02136, 2.03058, 2.03906, 2.04689, 2.05415, 2.06092, 2.06724, 2.07316, 2.07872, 2.08396, 2.0889, 2.09358, 2.09801, 2.10222, 2.10622, 2.11003, 2.11367, 2.11715, 2.12048, 2.12367, 2.12672, 2.12966, 2.13248, 2.1352, 
Number of clients: 6

+++++++++++++++++++++++++++++++++++++++++++++++++++++++++++
+ Client Mapping:
  > Client 40205 (7):	5 6 7 8 9 37 28 
  > Client 40207 (7):	15 16 17 18 19 39 25 
  > Client 40204 (7):	10 11 12 13 14 36 29 
  > Client 40201 (6):	30 31 32 33 34 38 
  > Client 40203 (5):	20 21 22 23 24 
  > Client 40202 (7):	0 1 2 3 4 26 27 

+ Core Mapping:	40202 40202 40202 40202 40202 40205 40205 40205 40205 40205 40204 40204 40204 40204 40204 40207 40207 40207 40207 40207 40203 40203 40203 40203 40203 40207 40202 40202 40205 40204 40201 40201 40201 40201 40201 0 40204 40205 40201 40207 
+ Optimal point: 7 7 7 6 6 7 
+++++++++++++++++++++++++++++++++++++++++++++++++++++++++++
++++++++++++++++++++++++++++++++++++++++++++++++
 + TIMESTAMP: 1404.23
REINVADE (40203)
  + pid: 40203
  + min_cores: 1
  + max_cores: 512
  + scalability graph: 
1, 1.39494, 1.5699, 1.6742, 1.74538, 1.79792, 1.83875, 1.87167, 1.89893, 1.922, 1.94184, 1.95915, 1.97442, 1.98802, 2.00024, 2.0113, 2.02136, 2.03058, 2.03906, 2.04689, 2.05415, 2.06092, 2.06724, 2.07316, 2.07872, 2.08396, 2.0889, 2.09358, 2.09801, 2.10222, 2.10622, 2.11003, 2.11367, 2.11715, 2.12048, 2.12367, 2.12672, 2.12966, 2.13248, 2.1352, 
Number of clients: 6

+++++++++++++++++++++++++++++++++++++++++++++++++++++++++++
+ Client Mapping:
  > Client 40205 (7):	5 6 7 8 9 37 28 
  > Client 40207 (7):	15 16 17 18 19 39 25 
  > Client 40204 (7):	10 11 12 13 14 36 29 
  > Client 40201 (6):	30 31 32 33 34 38 
  > Client 40203 (6):	20 21 22 23 24 35 
  > Client 40202 (7):	0 1 2 3 4 26 27 

+ Core Mapping:	40202 40202 40202 40202 40202 40205 40205 40205 40205 40205 40204 40204 40204 40204 40204 40207 40207 40207 40207 40207 40203 40203 40203 40203 40203 40207 40202 40202 40205 40204 40201 40201 40201 40201 40201 40203 40204 40205 40201 40207 
+ Optimal point: 7 7 7 6 6 7 
+++++++++++++++++++++++++++++++++++++++++++++++++++++++++++
CLIENT SHUTDOWN: client 40205
 + TIMESTAMP: 1405.13
+++++++++++++++++++++++++++++++++++++++++++++++++++++++++++
+ Client Mapping:
  > Client 40205 (0):	
  > Client 40207 (7):	15 16 17 18 19 39 25 
  > Client 40204 (7):	10 11 12 13 14 36 29 
  > Client 40201 (6):	30 31 32 33 34 38 
  > Client 40203 (6):	20 21 22 23 24 35 
  > Client 40202 (7):	0 1 2 3 4 26 27 

+ Core Mapping:	40202 40202 40202 40202 40202 0 0 0 0 0 40204 40204 40204 40204 40204 40207 40207 40207 40207 40207 40203 40203 40203 40203 40203 40207 40202 40202 0 40204 40201 40201 40201 40201 40201 40203 40204 0 40201 40207 
+ Optimal point: 7 7 7 6 6 7 
+++++++++++++++++++++++++++++++++++++++++++++++++++++++++++
client (40205) shutdown hint: 20954.2
sum_client_shutdown_hint: 62862.6
sum_client_shutdown_hint_div_time: 0
++++++++++++++++++++++++++++++++++++++++++++++++
 + TIMESTAMP: 1405.14
REINVADE (40203)
  + pid: 40203
  + min_cores: 1
  + max_cores: 512
  + scalability graph: 
1, 1.39494, 1.5699, 1.6742, 1.74538, 1.79792, 1.83875, 1.87167, 1.89893, 1.922, 1.94184, 1.95915, 1.97442, 1.98802, 2.00024, 2.0113, 2.02136, 2.03058, 2.03906, 2.04689, 2.05415, 2.06092, 2.06724, 2.07316, 2.07872, 2.08396, 2.0889, 2.09358, 2.09801, 2.10222, 2.10622, 2.11003, 2.11367, 2.11715, 2.12048, 2.12367, 2.12672, 2.12966, 2.13248, 2.1352, 
Number of clients: 5

+++++++++++++++++++++++++++++++++++++++++++++++++++++++++++
+ Client Mapping:
  > Client 40207 (7):	15 16 17 18 19 39 25 
  > Client 40204 (7):	10 11 12 13 14 36 29 
  > Client 40201 (6):	30 31 32 33 34 38 
  > Client 40203 (8):	20 21 22 23 24 35 5 6 
  > Client 40202 (7):	0 1 2 3 4 26 27 

+ Core Mapping:	40202 40202 40202 40202 40202 40203 40203 0 0 0 40204 40204 40204 40204 40204 40207 40207 40207 40207 40207 40203 40203 40203 40203 40203 40207 40202 40202 0 40204 40201 40201 40201 40201 40201 40203 40204 0 40201 40207 
+ Optimal point: 8 8 8 8 8 
+++++++++++++++++++++++++++++++++++++++++++++++++++++++++++
++++++++++++++++++++++++++++++++++++++++++++++++
 + TIMESTAMP: 1405.14
REINVADE (40204)
  + pid: 40204
  + min_cores: 1
  + max_cores: 512
  + scalability graph: 
1, 1.39494, 1.5699, 1.6742, 1.74538, 1.79792, 1.83875, 1.87167, 1.89893, 1.922, 1.94184, 1.95915, 1.97442, 1.98802, 2.00024, 2.0113, 2.02136, 2.03058, 2.03906, 2.04689, 2.05415, 2.06092, 2.06724, 2.07316, 2.07872, 2.08396, 2.0889, 2.09358, 2.09801, 2.10222, 2.10622, 2.11003, 2.11367, 2.11715, 2.12048, 2.12367, 2.12672, 2.12966, 2.13248, 2.1352, 
Number of clients: 5

+++++++++++++++++++++++++++++++++++++++++++++++++++++++++++
+ Client Mapping:
  > Client 40207 (7):	15 16 17 18 19 39 25 
  > Client 40204 (8):	10 11 12 13 14 36 29 7 
  > Client 40201 (6):	30 31 32 33 34 38 
  > Client 40203 (8):	20 21 22 23 24 35 5 6 
  > Client 40202 (7):	0 1 2 3 4 26 27 

+ Core Mapping:	40202 40202 40202 40202 40202 40203 40203 40204 0 0 40204 40204 40204 40204 40204 40207 40207 40207 40207 40207 40203 40203 40203 40203 40203 40207 40202 40202 0 40204 40201 40201 40201 40201 40201 40203 40204 0 40201 40207 
+ Optimal point: 8 8 8 8 8 
+++++++++++++++++++++++++++++++++++++++++++++++++++++++++++
++++++++++++++++++++++++++++++++++++++++++++++++
 + TIMESTAMP: 1405.14
REINVADE (40201)
  + pid: 40201
  + min_cores: 1
  + max_cores: 512
  + scalability graph: 
1, 1.39494, 1.5699, 1.6742, 1.74538, 1.79792, 1.83875, 1.87167, 1.89893, 1.922, 1.94184, 1.95915, 1.97442, 1.98802, 2.00024, 2.0113, 2.02136, 2.03058, 2.03906, 2.04689, 2.05415, 2.06092, 2.06724, 2.07316, 2.07872, 2.08396, 2.0889, 2.09358, 2.09801, 2.10222, 2.10622, 2.11003, 2.11367, 2.11715, 2.12048, 2.12367, 2.12672, 2.12966, 2.13248, 2.1352, 
Number of clients: 5

+++++++++++++++++++++++++++++++++++++++++++++++++++++++++++
+ Client Mapping:
  > Client 40207 (7):	15 16 17 18 19 39 25 
  > Client 40204 (8):	10 11 12 13 14 36 29 7 
  > Client 40201 (8):	30 31 32 33 34 38 8 9 
  > Client 40203 (8):	20 21 22 23 24 35 5 6 
  > Client 40202 (7):	0 1 2 3 4 26 27 

+ Core Mapping:	40202 40202 40202 40202 40202 40203 40203 40204 40201 40201 40204 40204 40204 40204 40204 40207 40207 40207 40207 40207 40203 40203 40203 40203 40203 40207 40202 40202 0 40204 40201 40201 40201 40201 40201 40203 40204 0 40201 40207 
+ Optimal point: 8 8 8 8 8 
+++++++++++++++++++++++++++++++++++++++++++++++++++++++++++
++++++++++++++++++++++++++++++++++++++++++++++++
 + TIMESTAMP: 1405.15
REINVADE (40202)
  + pid: 40202
  + min_cores: 1
  + max_cores: 512
  + scalability graph: 
1, 1.39494, 1.5699, 1.6742, 1.74538, 1.79792, 1.83875, 1.87167, 1.89893, 1.922, 1.94184, 1.95915, 1.97442, 1.98802, 2.00024, 2.0113, 2.02136, 2.03058, 2.03906, 2.04689, 2.05415, 2.06092, 2.06724, 2.07316, 2.07872, 2.08396, 2.0889, 2.09358, 2.09801, 2.10222, 2.10622, 2.11003, 2.11367, 2.11715, 2.12048, 2.12367, 2.12672, 2.12966, 2.13248, 2.1352, 
Number of clients: 5

+++++++++++++++++++++++++++++++++++++++++++++++++++++++++++
+ Client Mapping:
  > Client 40207 (7):	15 16 17 18 19 39 25 
  > Client 40204 (8):	10 11 12 13 14 36 29 7 
  > Client 40201 (8):	30 31 32 33 34 38 8 9 
  > Client 40203 (8):	20 21 22 23 24 35 5 6 
  > Client 40202 (8):	0 1 2 3 4 26 27 28 

+ Core Mapping:	40202 40202 40202 40202 40202 40203 40203 40204 40201 40201 40204 40204 40204 40204 40204 40207 40207 40207 40207 40207 40203 40203 40203 40203 40203 40207 40202 40202 40202 40204 40201 40201 40201 40201 40201 40203 40204 0 40201 40207 
+ Optimal point: 8 8 8 8 8 
+++++++++++++++++++++++++++++++++++++++++++++++++++++++++++
++++++++++++++++++++++++++++++++++++++++++++++++
 + TIMESTAMP: 1405.16
REINVADE (40207)
  + pid: 40207
  + min_cores: 1
  + max_cores: 512
  + scalability graph: 
1, 1.39494, 1.5699, 1.6742, 1.74538, 1.79792, 1.83875, 1.87167, 1.89893, 1.922, 1.94184, 1.95915, 1.97442, 1.98802, 2.00024, 2.0113, 2.02136, 2.03058, 2.03906, 2.04689, 2.05415, 2.06092, 2.06724, 2.07316, 2.07872, 2.08396, 2.0889, 2.09358, 2.09801, 2.10222, 2.10622, 2.11003, 2.11367, 2.11715, 2.12048, 2.12367, 2.12672, 2.12966, 2.13248, 2.1352, 
Number of clients: 5

+++++++++++++++++++++++++++++++++++++++++++++++++++++++++++
+ Client Mapping:
  > Client 40207 (8):	15 16 17 18 19 39 25 37 
  > Client 40204 (8):	10 11 12 13 14 36 29 7 
  > Client 40201 (8):	30 31 32 33 34 38 8 9 
  > Client 40203 (8):	20 21 22 23 24 35 5 6 
  > Client 40202 (8):	0 1 2 3 4 26 27 28 

+ Core Mapping:	40202 40202 40202 40202 40202 40203 40203 40204 40201 40201 40204 40204 40204 40204 40204 40207 40207 40207 40207 40207 40203 40203 40203 40203 40203 40207 40202 40202 40202 40204 40201 40201 40201 40201 40201 40203 40204 40207 40201 40207 
+ Optimal point: 8 8 8 8 8 
+++++++++++++++++++++++++++++++++++++++++++++++++++++++++++
CLIENT SHUTDOWN: client 40207
 + TIMESTAMP: 1422.31
+++++++++++++++++++++++++++++++++++++++++++++++++++++++++++
+ Client Mapping:
  > Client 40207 (0):	
  > Client 40204 (8):	10 11 12 13 14 36 29 7 
  > Client 40201 (8):	30 31 32 33 34 38 8 9 
  > Client 40203 (8):	20 21 22 23 24 35 5 6 
  > Client 40202 (8):	0 1 2 3 4 26 27 28 

+ Core Mapping:	40202 40202 40202 40202 40202 40203 40203 40204 40201 40201 40204 40204 40204 40204 40204 0 0 0 0 0 40203 40203 40203 40203 40203 0 40202 40202 40202 40204 40201 40201 40201 40201 40201 40203 40204 0 40201 0 
+ Optimal point: 8 8 8 8 8 
+++++++++++++++++++++++++++++++++++++++++++++++++++++++++++
client (40207) shutdown hint: 20954.2
sum_client_shutdown_hint: 83816.8
sum_client_shutdown_hint_div_time: 0
++++++++++++++++++++++++++++++++++++++++++++++++
 + TIMESTAMP: 1422.32
REINVADE (40201)
  + pid: 40201
  + min_cores: 1
  + max_cores: 512
  + scalability graph: 
1, 1.39494, 1.5699, 1.6742, 1.74538, 1.79792, 1.83875, 1.87167, 1.89893, 1.922, 1.94184, 1.95915, 1.97442, 1.98802, 2.00024, 2.0113, 2.02136, 2.03058, 2.03906, 2.04689, 2.05415, 2.06092, 2.06724, 2.07316, 2.07872, 2.08396, 2.0889, 2.09358, 2.09801, 2.10222, 2.10622, 2.11003, 2.11367, 2.11715, 2.12048, 2.12367, 2.12672, 2.12966, 2.13248, 2.1352, 
Number of clients: 4

+++++++++++++++++++++++++++++++++++++++++++++++++++++++++++
+ Client Mapping:
  > Client 40204 (8):	10 11 12 13 14 36 29 7 
  > Client 40201 (10):	30 31 32 33 34 38 8 9 15 16 
  > Client 40203 (8):	20 21 22 23 24 35 5 6 
  > Client 40202 (8):	0 1 2 3 4 26 27 28 

+ Core Mapping:	40202 40202 40202 40202 40202 40203 40203 40204 40201 40201 40204 40204 40204 40204 40204 40201 40201 0 0 0 40203 40203 40203 40203 40203 0 40202 40202 40202 40204 40201 40201 40201 40201 40201 40203 40204 0 40201 0 
+ Optimal point: 10 10 10 10 
+++++++++++++++++++++++++++++++++++++++++++++++++++++++++++
++++++++++++++++++++++++++++++++++++++++++++++++
 + TIMESTAMP: 1422.32
REINVADE (40203)
  + pid: 40203
  + min_cores: 1
  + max_cores: 512
  + scalability graph: 
1, 1.39494, 1.5699, 1.6742, 1.74538, 1.79792, 1.83875, 1.87167, 1.89893, 1.922, 1.94184, 1.95915, 1.97442, 1.98802, 2.00024, 2.0113, 2.02136, 2.03058, 2.03906, 2.04689, 2.05415, 2.06092, 2.06724, 2.07316, 2.07872, 2.08396, 2.0889, 2.09358, 2.09801, 2.10222, 2.10622, 2.11003, 2.11367, 2.11715, 2.12048, 2.12367, 2.12672, 2.12966, 2.13248, 2.1352, 
Number of clients: 4

+++++++++++++++++++++++++++++++++++++++++++++++++++++++++++
+ Client Mapping:
  > Client 40204 (8):	10 11 12 13 14 36 29 7 
  > Client 40201 (10):	30 31 32 33 34 38 8 9 15 16 
  > Client 40203 (10):	20 21 22 23 24 35 5 6 17 18 
  > Client 40202 (8):	0 1 2 3 4 26 27 28 

+ Core Mapping:	40202 40202 40202 40202 40202 40203 40203 40204 40201 40201 40204 40204 40204 40204 40204 40201 40201 40203 40203 0 40203 40203 40203 40203 40203 0 40202 40202 40202 40204 40201 40201 40201 40201 40201 40203 40204 0 40201 0 
+ Optimal point: 10 10 10 10 
+++++++++++++++++++++++++++++++++++++++++++++++++++++++++++
++++++++++++++++++++++++++++++++++++++++++++++++
 + TIMESTAMP: 1422.33
REINVADE (40202)
  + pid: 40202
  + min_cores: 1
  + max_cores: 512
  + scalability graph: 
1, 1.39494, 1.5699, 1.6742, 1.74538, 1.79792, 1.83875, 1.87167, 1.89893, 1.922, 1.94184, 1.95915, 1.97442, 1.98802, 2.00024, 2.0113, 2.02136, 2.03058, 2.03906, 2.04689, 2.05415, 2.06092, 2.06724, 2.07316, 2.07872, 2.08396, 2.0889, 2.09358, 2.09801, 2.10222, 2.10622, 2.11003, 2.11367, 2.11715, 2.12048, 2.12367, 2.12672, 2.12966, 2.13248, 2.1352, 
Number of clients: 4

+++++++++++++++++++++++++++++++++++++++++++++++++++++++++++
+ Client Mapping:
  > Client 40204 (8):	10 11 12 13 14 36 29 7 
  > Client 40201 (10):	30 31 32 33 34 38 8 9 15 16 
  > Client 40203 (10):	20 21 22 23 24 35 5 6 17 18 
  > Client 40202 (10):	0 1 2 3 4 26 27 28 19 25 

+ Core Mapping:	40202 40202 40202 40202 40202 40203 40203 40204 40201 40201 40204 40204 40204 40204 40204 40201 40201 40203 40203 40202 40203 40203 40203 40203 40203 40202 40202 40202 40202 40204 40201 40201 40201 40201 40201 40203 40204 0 40201 0 
+ Optimal point: 10 10 10 10 
+++++++++++++++++++++++++++++++++++++++++++++++++++++++++++
++++++++++++++++++++++++++++++++++++++++++++++++
 + TIMESTAMP: 1422.34
REINVADE (40204)
  + pid: 40204
  + min_cores: 1
  + max_cores: 512
  + scalability graph: 
1, 1.39494, 1.5699, 1.6742, 1.74538, 1.79792, 1.83875, 1.87167, 1.89893, 1.922, 1.94184, 1.95915, 1.97442, 1.98802, 2.00024, 2.0113, 2.02136, 2.03058, 2.03906, 2.04689, 2.05415, 2.06092, 2.06724, 2.07316, 2.07872, 2.08396, 2.0889, 2.09358, 2.09801, 2.10222, 2.10622, 2.11003, 2.11367, 2.11715, 2.12048, 2.12367, 2.12672, 2.12966, 2.13248, 2.1352, 
Number of clients: 4

+++++++++++++++++++++++++++++++++++++++++++++++++++++++++++
+ Client Mapping:
  > Client 40204 (10):	10 11 12 13 14 36 29 7 37 39 
  > Client 40201 (10):	30 31 32 33 34 38 8 9 15 16 
  > Client 40203 (10):	20 21 22 23 24 35 5 6 17 18 
  > Client 40202 (10):	0 1 2 3 4 26 27 28 19 25 

+ Core Mapping:	40202 40202 40202 40202 40202 40203 40203 40204 40201 40201 40204 40204 40204 40204 40204 40201 40201 40203 40203 40202 40203 40203 40203 40203 40203 40202 40202 40202 40202 40204 40201 40201 40201 40201 40201 40203 40204 40204 40201 40204 
+ Optimal point: 10 10 10 10 
+++++++++++++++++++++++++++++++++++++++++++++++++++++++++++
CLIENT SHUTDOWN: client 40201
 + TIMESTAMP: 1428.51
+++++++++++++++++++++++++++++++++++++++++++++++++++++++++++
+ Client Mapping:
  > Client 40204 (10):	10 11 12 13 14 36 29 7 37 39 
  > Client 40201 (0):	
  > Client 40203 (10):	20 21 22 23 24 35 5 6 17 18 
  > Client 40202 (10):	0 1 2 3 4 26 27 28 19 25 

+ Core Mapping:	40202 40202 40202 40202 40202 40203 40203 40204 0 0 40204 40204 40204 40204 40204 0 0 40203 40203 40202 40203 40203 40203 40203 40203 40202 40202 40202 40202 40204 0 0 0 0 0 40203 40204 40204 0 40204 
+ Optimal point: 10 10 10 10 
+++++++++++++++++++++++++++++++++++++++++++++++++++++++++++
client (40201) shutdown hint: 20954.2
sum_client_shutdown_hint: 104771
sum_client_shutdown_hint_div_time: 0
++++++++++++++++++++++++++++++++++++++++++++++++
 + TIMESTAMP: 1428.53
REINVADE (40203)
  + pid: 40203
  + min_cores: 1
  + max_cores: 512
  + scalability graph: 
1, 1.39494, 1.5699, 1.6742, 1.74538, 1.79792, 1.83875, 1.87167, 1.89893, 1.922, 1.94184, 1.95915, 1.97442, 1.98802, 2.00024, 2.0113, 2.02136, 2.03058, 2.03906, 2.04689, 2.05415, 2.06092, 2.06724, 2.07316, 2.07872, 2.08396, 2.0889, 2.09358, 2.09801, 2.10222, 2.10622, 2.11003, 2.11367, 2.11715, 2.12048, 2.12367, 2.12672, 2.12966, 2.13248, 2.1352, 
Number of clients: 3

+++++++++++++++++++++++++++++++++++++++++++++++++++++++++++
+ Client Mapping:
  > Client 40204 (10):	10 11 12 13 14 36 29 7 37 39 
  > Client 40203 (13):	20 21 22 23 24 35 5 6 17 18 8 9 15 
  > Client 40202 (10):	0 1 2 3 4 26 27 28 19 25 

+ Core Mapping:	40202 40202 40202 40202 40202 40203 40203 40204 40203 40203 40204 40204 40204 40204 40204 40203 0 40203 40203 40202 40203 40203 40203 40203 40203 40202 40202 40202 40202 40204 0 0 0 0 0 40203 40204 40204 0 40204 
+ Optimal point: 14 13 13 
+++++++++++++++++++++++++++++++++++++++++++++++++++++++++++
++++++++++++++++++++++++++++++++++++++++++++++++
 + TIMESTAMP: 1428.53
REINVADE (40204)
  + pid: 40204
  + min_cores: 1
  + max_cores: 512
  + scalability graph: 
1, 1.39494, 1.5699, 1.6742, 1.74538, 1.79792, 1.83875, 1.87167, 1.89893, 1.922, 1.94184, 1.95915, 1.97442, 1.98802, 2.00024, 2.0113, 2.02136, 2.03058, 2.03906, 2.04689, 2.05415, 2.06092, 2.06724, 2.07316, 2.07872, 2.08396, 2.0889, 2.09358, 2.09801, 2.10222, 2.10622, 2.11003, 2.11367, 2.11715, 2.12048, 2.12367, 2.12672, 2.12966, 2.13248, 2.1352, 
Number of clients: 3

+++++++++++++++++++++++++++++++++++++++++++++++++++++++++++
+ Client Mapping:
  > Client 40204 (14):	10 11 12 13 14 36 29 7 37 39 16 30 31 32 
  > Client 40203 (13):	20 21 22 23 24 35 5 6 17 18 8 9 15 
  > Client 40202 (10):	0 1 2 3 4 26 27 28 19 25 

+ Core Mapping:	40202 40202 40202 40202 40202 40203 40203 40204 40203 40203 40204 40204 40204 40204 40204 40203 40204 40203 40203 40202 40203 40203 40203 40203 40203 40202 40202 40202 40202 40204 40204 40204 40204 0 0 40203 40204 40204 0 40204 
+ Optimal point: 14 13 13 
+++++++++++++++++++++++++++++++++++++++++++++++++++++++++++
++++++++++++++++++++++++++++++++++++++++++++++++
 + TIMESTAMP: 1428.54
REINVADE (40202)
  + pid: 40202
  + min_cores: 1
  + max_cores: 512
  + scalability graph: 
1, 1.39494, 1.5699, 1.6742, 1.74538, 1.79792, 1.83875, 1.87167, 1.89893, 1.922, 1.94184, 1.95915, 1.97442, 1.98802, 2.00024, 2.0113, 2.02136, 2.03058, 2.03906, 2.04689, 2.05415, 2.06092, 2.06724, 2.07316, 2.07872, 2.08396, 2.0889, 2.09358, 2.09801, 2.10222, 2.10622, 2.11003, 2.11367, 2.11715, 2.12048, 2.12367, 2.12672, 2.12966, 2.13248, 2.1352, 
Number of clients: 3

+++++++++++++++++++++++++++++++++++++++++++++++++++++++++++
+ Client Mapping:
  > Client 40204 (14):	10 11 12 13 14 36 29 7 37 39 16 30 31 32 
  > Client 40203 (13):	20 21 22 23 24 35 5 6 17 18 8 9 15 
  > Client 40202 (13):	0 1 2 3 4 26 27 28 19 25 33 34 38 

+ Core Mapping:	40202 40202 40202 40202 40202 40203 40203 40204 40203 40203 40204 40204 40204 40204 40204 40203 40204 40203 40203 40202 40203 40203 40203 40203 40203 40202 40202 40202 40202 40204 40204 40204 40204 40202 40202 40203 40204 40204 40202 40204 
+ Optimal point: 14 13 13 
+++++++++++++++++++++++++++++++++++++++++++++++++++++++++++
CLIENT SHUTDOWN: client 40204
 + TIMESTAMP: 1446.7
+++++++++++++++++++++++++++++++++++++++++++++++++++++++++++
+ Client Mapping:
  > Client 40204 (0):	
  > Client 40203 (13):	20 21 22 23 24 35 5 6 17 18 8 9 15 
  > Client 40202 (13):	0 1 2 3 4 26 27 28 19 25 33 34 38 

+ Core Mapping:	40202 40202 40202 40202 40202 40203 40203 0 40203 40203 0 0 0 0 0 40203 0 40203 40203 40202 40203 40203 40203 40203 40203 40202 40202 40202 40202 0 0 0 0 40202 40202 40203 0 0 40202 0 
+ Optimal point: 14 13 13 
+++++++++++++++++++++++++++++++++++++++++++++++++++++++++++
client (40204) shutdown hint: 20954.2
sum_client_shutdown_hint: 125725
sum_client_shutdown_hint_div_time: 0
++++++++++++++++++++++++++++++++++++++++++++++++
 + TIMESTAMP: 1446.71
REINVADE (40202)
  + pid: 40202
  + min_cores: 1
  + max_cores: 512
  + scalability graph: 
1, 1.39494, 1.5699, 1.6742, 1.74538, 1.79792, 1.83875, 1.87167, 1.89893, 1.922, 1.94184, 1.95915, 1.97442, 1.98802, 2.00024, 2.0113, 2.02136, 2.03058, 2.03906, 2.04689, 2.05415, 2.06092, 2.06724, 2.07316, 2.07872, 2.08396, 2.0889, 2.09358, 2.09801, 2.10222, 2.10622, 2.11003, 2.11367, 2.11715, 2.12048, 2.12367, 2.12672, 2.12966, 2.13248, 2.1352, 
Number of clients: 2

+++++++++++++++++++++++++++++++++++++++++++++++++++++++++++
+ Client Mapping:
  > Client 40203 (13):	20 21 22 23 24 35 5 6 17 18 8 9 15 
  > Client 40202 (20):	0 1 2 3 4 26 27 28 19 25 33 34 38 7 10 11 12 13 14 16 

+ Core Mapping:	40202 40202 40202 40202 40202 40203 40203 40202 40203 40203 40202 40202 40202 40202 40202 40203 40202 40203 40203 40202 40203 40203 40203 40203 40203 40202 40202 40202 40202 0 0 0 0 40202 40202 40203 0 0 40202 0 
+ Optimal point: 20 20 
+++++++++++++++++++++++++++++++++++++++++++++++++++++++++++
++++++++++++++++++++++++++++++++++++++++++++++++
 + TIMESTAMP: 1446.71
REINVADE (40203)
  + pid: 40203
  + min_cores: 1
  + max_cores: 512
  + scalability graph: 
1, 1.39494, 1.5699, 1.6742, 1.74538, 1.79792, 1.83875, 1.87167, 1.89893, 1.922, 1.94184, 1.95915, 1.97442, 1.98802, 2.00024, 2.0113, 2.02136, 2.03058, 2.03906, 2.04689, 2.05415, 2.06092, 2.06724, 2.07316, 2.07872, 2.08396, 2.0889, 2.09358, 2.09801, 2.10222, 2.10622, 2.11003, 2.11367, 2.11715, 2.12048, 2.12367, 2.12672, 2.12966, 2.13248, 2.1352, 
Number of clients: 2

+++++++++++++++++++++++++++++++++++++++++++++++++++++++++++
+ Client Mapping:
  > Client 40203 (20):	20 21 22 23 24 35 5 6 17 18 8 9 15 29 30 31 32 36 37 39 
  > Client 40202 (20):	0 1 2 3 4 26 27 28 19 25 33 34 38 7 10 11 12 13 14 16 

+ Core Mapping:	40202 40202 40202 40202 40202 40203 40203 40202 40203 40203 40202 40202 40202 40202 40202 40203 40202 40203 40203 40202 40203 40203 40203 40203 40203 40202 40202 40202 40202 40203 40203 40203 40203 40202 40202 40203 40203 40203 40202 40203 
+ Optimal point: 20 20 
+++++++++++++++++++++++++++++++++++++++++++++++++++++++++++
CLIENT SHUTDOWN: client 40203
 + TIMESTAMP: 1446.9
+++++++++++++++++++++++++++++++++++++++++++++++++++++++++++
+ Client Mapping:
  > Client 40203 (0):	
  > Client 40202 (20):	0 1 2 3 4 26 27 28 19 25 33 34 38 7 10 11 12 13 14 16 

+ Core Mapping:	40202 40202 40202 40202 40202 0 0 40202 0 0 40202 40202 40202 40202 40202 0 40202 0 0 40202 0 0 0 0 0 40202 40202 40202 40202 0 0 0 0 40202 40202 0 0 0 40202 0 
+ Optimal point: 20 20 
+++++++++++++++++++++++++++++++++++++++++++++++++++++++++++
client (40203) shutdown hint: 20954.2
sum_client_shutdown_hint: 146679
sum_client_shutdown_hint_div_time: 0
++++++++++++++++++++++++++++++++++++++++++++++++
 + TIMESTAMP: 1446.9
REINVADE (40202)
  + pid: 40202
  + min_cores: 1
  + max_cores: 512
  + scalability graph: 
1, 1.39494, 1.5699, 1.6742, 1.74538, 1.79792, 1.83875, 1.87167, 1.89893, 1.922, 1.94184, 1.95915, 1.97442, 1.98802, 2.00024, 2.0113, 2.02136, 2.03058, 2.03906, 2.04689, 2.05415, 2.06092, 2.06724, 2.07316, 2.07872, 2.08396, 2.0889, 2.09358, 2.09801, 2.10222, 2.10622, 2.11003, 2.11367, 2.11715, 2.12048, 2.12367, 2.12672, 2.12966, 2.13248, 2.1352, 
Number of clients: 1

+++++++++++++++++++++++++++++++++++++++++++++++++++++++++++
+ Client Mapping:
  > Client 40202 (40):	0 1 2 3 4 26 27 28 19 25 33 34 38 7 10 11 12 13 14 16 5 6 8 9 15 17 18 20 21 22 23 24 29 30 31 32 35 36 37 39 

+ Core Mapping:	40202 40202 40202 40202 40202 40202 40202 40202 40202 40202 40202 40202 40202 40202 40202 40202 40202 40202 40202 40202 40202 40202 40202 40202 40202 40202 40202 40202 40202 40202 40202 40202 40202 40202 40202 40202 40202 40202 40202 40202 
+ Optimal point: 40 
+++++++++++++++++++++++++++++++++++++++++++++++++++++++++++
CLIENT SHUTDOWN: client 40202
 + TIMESTAMP: 1447.94
+++++++++++++++++++++++++++++++++++++++++++++++++++++++++++
+ Client Mapping:
  > Client 40202 (0):	

+ Core Mapping:	0 0 0 0 0 0 0 0 0 0 0 0 0 0 0 0 0 0 0 0 0 0 0 0 0 0 0 0 0 0 0 0 0 0 0 0 0 0 0 0 
+ Optimal point: 40 
+++++++++++++++++++++++++++++++++++++++++++++++++++++++++++
client (40202) shutdown hint: 20954.2
sum_client_shutdown_hint: 167634
sum_client_shutdown_hint_div_time: 0
END TIMESTAMP: 1447.94
OVERALL TIME: 1447.55
 + sum_client_shutdown_hint: 167634
 + sum_client_shutdown_hint/time: 115.805
sum_client_shutdown_hint: 167634
sum_client_shutdown_hint_div_time: 115.805
