0	0	815804
100.524	0	895250
200.25	0	916924
300.199	0	942762
400.097	0	971358
500.191	0	1000510
600.805	0	1032848
700.025	3.09228e-10	1067364
800.875	6.3611e-08	1105960
900.178	3.41538e-06	1145846
1000.22	7.12612e-05	1189490
1100.58	0.000713312	1235006
1200.31	0.00408109	1277684
1300.05	0.0163263	1317806
