0	0
10.092	0
20.184	0
30.2758	0
40.3676	0
50.4593	0
60.5508	0
70.6423	0
80.7337	0
90.8249	0
100.896	0
110.883	0
120.811	0
130.71	0
140.606	0
150.502	-2.72848e-12
160.398	-7.27596e-12
170.294	-1.18234e-11
180.188	-1.63709e-11
190.083	-2.27374e-11
201.952	-3.36513e-11
211.835	-4.45652e-11
221.717	-5.82077e-11
231.6	-7.54881e-11
241.482	-9.64064e-11
251.364	-1.21872e-10
261.247	-1.51886e-10
271.129	-1.88265e-10
281.012	-2.31012e-10
290.894	-2.81943e-10
300.776	-3.4197e-10
310.659	-4.11092e-10
320.541	-4.92037e-10
330.399	-5.84805e-10
340.259	-6.91216e-10
350.056	-8.11269e-10
361.78	-9.76797e-10
371.515	-1.13323e-09
381.201	-1.30876e-09
390.828	-1.50158e-09
400.377	-1.71349e-09
411.824	-1.99452e-09
421.367	-2.25373e-09
430.91	-2.53749e-09
440.453	-2.84672e-09
451.89	-3.24781e-09
461.409	-3.61069e-09
470.89	-3.99814e-09
480.318	-4.41196e-09
491.625	-4.94947e-09
501.048	-5.43696e-09
510.462	-5.96265e-09
521.748	-6.65023e-09
531.149	-7.27505e-09
540.542	-7.9508e-09
551.811	-8.83483e-09
561.201	-9.6361e-09
570.592	-1.05001e-08
581.86	-1.16233e-08
591.251	-1.26411e-08
600.641	-1.37397e-08
610.032	-1.49284e-08
621.3	-1.64882e-08
630.69	-1.79134e-08
640.081	-1.9465e-08
651.349	-2.15114e-08
660.736	-2.33867e-08
670.119	-2.54322e-08
681.355	-2.81252e-08
690.718	-3.05909e-08
700.081	-3.32739e-08
711.317	-3.68036e-08
720.68	-4.00214e-08
730.043	-4.35066e-08
741.279	-4.80659e-08
750.642	-5.21968e-08
760.005	-5.66451e-08
771.241	-6.24213e-08
780.604	-6.76164e-08
791.84	-7.43294e-08
801.203	-8.03348e-08
810.566	-8.67249e-08
821.801	-9.49158e-08
831.164	-1.02184e-07
840.527	-1.0986e-07
851.762	-1.19613e-07
861.125	-1.28194e-07
870.488	-1.37185e-07
881.723	-1.48504e-07
891.086	-1.58372e-07
900.449	-1.68621e-07
911.684	-1.81403e-07
921.047	-1.92435e-07
930.41	-2.03788e-07
941.645	-2.17801e-07
951.007	-2.29769e-07
960.37	-2.41968e-07
971.605	-2.56863e-07
980.968	-2.69442e-07
990.33	-2.82129e-07
1001.57	-2.9743e-07
1010.93	-3.10189e-07
1020.29	-3.22895e-07
1031.53	-3.37987e-07
1040.89	-3.50356e-07
1050.25	-3.62457e-07
1061.49	-3.7651e-07
1070.85	-3.87722e-07
1080.21	-3.98377e-07
1091.45	-4.10271e-07
1100.81	-4.19298e-07
1110.17	-4.27381e-07
1121.4	-4.35638e-07
1130.76	-4.41139e-07
1140.11	-4.45208e-07
1151.35	-4.47945e-07
1160.71	-4.48215e-07
1170.07	-4.46437e-07
1181.3	-4.41287e-07
1190.66	-4.34205e-07
1200.02	-4.24316e-07
1211.25	-4.08367e-07
1220.61	-3.91337e-07
1231.84	-3.65962e-07
1241.2	-3.40316e-07
1250.56	-3.10195e-07
1261.78	-2.67197e-07
1271.12	-2.25205e-07
1280.44	-1.77419e-07
1291.63	-1.12218e-07
1300.95	-5.12846e-08
1310.26	1.57443e-08
1321.42	1.04151e-07
1330.72	1.84555e-07
1340	2.71165e-07
1351.15	3.83468e-07
1360.44	4.8417e-07
1371.58	6.13785e-07
1380.87	7.29339e-07
1390.16	8.52008e-07
1401.3	1.00901e-06
1410.59	1.14842e-06
1421.73	1.32658e-06
1431.01	1.48442e-06
1440.26	1.65116e-06
1451.36	1.86406e-06
1460.61	2.05297e-06
1471.71	2.2945e-06
1480.96	2.50903e-06
1490.21	2.73647e-06
1501.31	3.0277e-06
1510.56	3.28674e-06
1521.65	3.61873e-06
1530.88	3.91351e-06
1540.12	4.22714e-06
1551.17	4.62766e-06
1560.28	4.98082e-06
1571.22	5.43344e-06
1580.34	5.83621e-06
1591.28	6.35232e-06
1600.39	6.81143e-06
1611.33	7.39945e-06
1620.45	7.92222e-06
1631.39	8.59122e-06
1640.5	9.18516e-06
1651.44	9.94346e-06
1660.56	1.06146e-05
1671.5	1.14686e-05
1680.61	1.22218e-05
1691.55	1.31766e-05
1700.67	1.40158e-05
1711.61	1.50762e-05
1720.72	1.60052e-05
1731.66	1.71758e-05
1740.78	1.81986e-05
1751.72	1.94843e-05
1760.83	2.06054e-05
1771.77	2.20118e-05
1780.89	2.3236e-05
1790	2.45089e-05
1800.94	2.61026e-05
1810.06	2.74874e-05
1820.99	2.92195e-05
1830.11	3.07233e-05
1841.05	3.26031e-05
1850.16	3.42344e-05
1861.1	3.62728e-05
1870.22	3.80411e-05
1881.16	4.02501e-05
1890.27	4.21662e-05
1901.21	4.45593e-05
1910.33	4.66348e-05
1921.27	4.92269e-05
1930.38	5.14747e-05
1941.32	5.42816e-05
1950.43	5.67156e-05
1961.37	5.97549e-05
1970.49	6.23903e-05
1981.43	6.5681e-05
1990.54	6.67435e-05
2001.48	6.50594e-05
2010.6	6.39007e-05
2021.53	6.27822e-05
2030.65	6.20613e-05
2041.59	6.1432e-05
2050.7	6.10912e-05
2061.64	6.0888e-05
2070.76	6.08796e-05
2081.69	6.10508e-05
2090.81	6.13364e-05
2101.75	6.18413e-05
2110.86	6.23912e-05
2121.8	6.3199e-05
2130.92	6.39911e-05
2140.03	6.48878e-05
2150.97	6.60985e-05
2160.08	6.72173e-05
2171.02	6.86895e-05
2180.14	7.00234e-05
2191.08	7.17519e-05
2200.19	7.32991e-05
2211.13	7.52845e-05
2220.24	7.70475e-05
2231.18	7.92953e-05
2240.3	8.12807e-05
2251.23	8.38008e-05
2260.35	8.60184e-05
2271.29	8.88244e-05
2280.4	9.12869e-05
2291.34	9.43956e-05
2300.46	9.71183e-05
2311.39	0.000100549
2320.51	0.000103549
2331.45	0.000107325
2340.56	0.000110622
2351.5	0.000114767
2360.61	0.000118382
2371.55	0.000122924
2380.67	0.000126876
2391.6	0.000131801
2400.72	0.000136045
2411.65	0.000141293
2420.76	0.000145798
2431.7	0.000151351
2440.81	0.0001561
2451.75	0.000161945
2460.87	0.000166938
2471.81	0.00017308
2480.92	0.000178327
2490.04	0.000183696
2500.97	0.000190305
2510.09	0.000195958
2521.03	0.000202926
2530.14	0.000208894
2541.08	0.000216262
2550.2	0.000222583
2561.13	0.0002304
2570.25	0.000237118
2581.19	0.00024544
2590.3	0.000252604
2601.24	0.000261492
2610.33	0.000269132
2621.22	0.000278601
2630.29	0.000286768
2641.18	0.000296916
2650.25	0.000305674
2661.14	0.000316558
2670.21	0.000325953
2681.09	0.000337631
2690.17	0.000347712
2701.05	0.000360244
2710.13	0.000371064
2721.01	0.000384517
2730.08	0.000396134
2740.97	0.000410582
2750.04	0.000441198
2760.93	0.000477871
2770	0.000508259
2780.89	0.000544432
2791.78	0.000580251
2800.85	0.000609833
2811.73	0.000645049
2820.81	0.000674208
2831.69	0.000709056
2840.76	0.000738052
2851.65	0.000772902
2860.72	0.00080208
2871.61	0.000837382
2880.68	0.000867137
2891.57	0.000903377
2900.64	0.000934121
2911.53	0.000971792
2920.6	0.00100393
2931.49	0.00104352
2940.56	0.00107744
2951.44	0.00111925
2960.52	0.00115483
2971.4	0.00119828
2980.47	0.00123508
2991.36	0.00127992
3000.43	0.00131788
3011.32	0.00136421
3020.39	0.00140356
3031.28	0.0014518
3040.35	0.00149298
3051.23	0.00154375
3060.31	0.00158735
3071.19	0.00164141
3080.26	0.00168805
3091.15	0.00174611
3100.22	0.00179636
3111.11	0.00185909
3120.18	0.00191354
3131.07	0.00203793
3140.14	0.00215999
3151.02	0.00229861
3160.09	0.0024084
3170.98	0.00253497
3180.05	0.0026377
3190.94	0.00275975
3200.01	0.00286203
3210.9	0.00298736
3221.78	0.0031174
3230.85	0.00323026
3241.74	0.00337015
3250.81	0.0034898
3261.7	0.0036373
3270.77	0.00376417
3281.65	0.00392265
3290.72	0.00406134
3301.61	0.00423755
3310.68	0.00439382
3321.57	0.00471769
3330.64	0.00503303
3341.52	0.00539771
3350.6	0.00569767
3361.48	0.00606624
3370.55	0.00638997
3381.44	0.00679582
3390.51	0.00714376
3401.4	0.00758133
3410.47	0.00797433
3421.35	0.00887397
3430.42	0.00952211
3441.31	0.0103351
3450.38	0.011074
3461.27	0.012379
3470.34	0.0137692
3481.22	0.0157112
3490.29	0.0192974
3501.18	0.0275089
3510.25	0.0330733
3521.14	0.0390126
3530.21	0.0439183
3541.1	0.0492775
3550.17	0.0535568
3561.05	0.058171
3570.12	0.0621556
3581.01	0.0672364
3590.08	0.0716256
3600.97	0.0768648
3610.04	0.0812049
3620.93	0.0865627
3631.81	0.0921061
3640.88	0.09681
3651.77	0.102463
3660.84	0.107301
3671.73	0.113314
3680.8	0.118385
3691.69	0.124364
3700.76	0.129246
3711.64	0.13507
3720.72	0.139918
3731.6	0.145682
3740.68	0.150423
3751.56	0.156105
3760.63	0.16088
3771.52	0.166638
3780.59	0.171402
3791.56	0.177087
3800.71	0.181786
3811.69	0.187398
3820.84	0.192057
3831.82	0.197639
3840.97	0.202311
3850.12	0.207013
3861.11	0.212673
3870.26	0.217379
3881.24	0.223011
3890.39	0.227707
3901.37	0.233368
3910.53	0.238124
3921.51	0.243916
3930.67	0.248849
3941.66	0.254922
3950.82	0.26011
3961.81	0.26647
3970.96	0.271881
3980.12	0.277402
3991.11	0.284187
4000.27	0.289982
4011.25	0.297108
4020.41	0.303194
4031.4	0.310673
4040.56	0.317044
4051.55	0.324858
4060.72	0.331523
4071.72	0.339737
4080.9	0.346792
4090.1	0.35408
4101.15	0.363191
4110.38	0.371135
4121.46	0.38114
4130.69	0.389927
4141.79	0.401106
4151.04	0.411032
4160.34	0.421636
4171.5	0.435319
4180.8	0.447625
4190.1	0.460848
4201.25	0.478049
4210.55	0.493589
4221.71	0.513804
4231.01	0.532045
4240.31	0.55164
4251.47	0.577051
4260.76	0.599891
4270.06	0.624307
4281.22	0.655746
4290.52	0.683742
4301.68	0.719467
4310.98	0.750948
4320.27	0.78389
4331.43	0.825178
4340.73	0.860869
4350.03	0.897528
4361.19	0.942478
4370.49	0.980421
4381.65	1.02607
4390.94	1.06378
4400.24	1.10077
4411.4	1.14358
4420.7	1.17738
4431.86	1.21497
4441.16	1.24319
4450.46	1.26802
4461.61	1.29251
4470.91	1.30781
4480.21	1.31779
4491.37	1.32185
4500.67	1.31785
4511.83	1.30319
4521.13	1.28197
4530.43	1.2519
4541.58	1.2033
4550.88	1.15177
4560.18	1.08974
4571.34	1.00102
4580.64	0.91489
4591.8	0.796549
4601.1	0.68495
4610.4	0.560673
4621.55	0.392797
4630.85	0.234824
4640.17	0.0590609
4651.38	-0.0863296
4660.72	-0.160863
4670.07	-0.218978
4681.28	-0.246422
4690.64	-0.281352
4700	-0.306821
4711.24	-0.331289
4720.6	-0.349061
4731.83	-0.35889
4741.19	-0.37523
4750.55	-0.387814
4761.78	-0.399866
4771.14	-0.408489
4780.5	-0.415424
4791.73	-0.423275
4801.09	-0.429512
4810.45	-0.435301
4821.68	-0.426186
4831.04	-0.42645
4840.4	-0.432904
4851.63	-0.439821
4860.99	-0.444565
4870.35	-0.448524
4881.58	-0.452458
4890.94	-0.455211
4900.3	-0.457614
4911.53	-0.460171
4920.89	-0.461602
4930.25	-0.463016
4941.48	-0.464612
4950.83	-0.465912
4960.16	-0.467181
4971.35	-0.468632
4980.67	-0.469754
4991.84	-0.470973
5001.15	-0.471866
5010.44	-0.472553
5021.59	-0.463747
5030.88	-0.464689
5040.16	-0.466319
5051.31	-0.467886
5060.6	-0.468988
5071.74	-0.470071
5081.03	-0.470748
5090.32	-0.471244
5101.46	-0.47163
5110.75	-0.471792
5120.02	-0.47182
5131.13	-0.471695
5140.38	-0.471472
5151.48	-0.471077
5160.73	-0.470653
5171.83	-0.470041
5181.08	-0.469453
5190.33	-0.468798
5201.43	-0.467951
5210.67	-0.467217
5221.73	-0.466266
5230.94	-0.465424
5240.16	-0.464537
5251.1	-0.463229
5260.21	-0.461952
5271.15	-0.460389
5280.27	-0.459058
5291.21	-0.457426
5300.32	-0.456032
5311.26	-0.454317
5320.38	-0.452851
5331.32	-0.451044
5340.43	-0.449499
5351.37	-0.447596
5360.49	-0.445971
5371.43	-0.443963
5380.54	-0.442224
5391.48	-0.440074
5400.6	-0.433908
5411.54	-0.425258
5420.65	-0.424142
5431.59	-0.42279
5440.71	-0.421659
5451.65	-0.420301
5460.76	-0.419172
5471.7	-0.417825
5480.82	-0.416711
5491.76	-0.415388
5500.87	-0.414303
5511.81	-0.413023
5520.93	-0.411977
5530.04	-0.410952
5540.98	-0.40975
5550.1	-0.408773
5561.04	-0.407629
5570.15	-0.4067
5581.09	-0.405612
5590.21	-0.404728
5601.14	-0.40369
5610.26	-0.402842
5621.2	-0.40184
5630.32	-0.401012
5641.25	-0.400021
5650.37	-0.399193
5661.31	-0.398189
5670.42	-0.397341
5681.36	-0.396303
5690.48	-0.395416
5701.42	-0.394322
5710.53	-0.39338
5721.47	-0.392211
5730.59	-0.3912
5741.53	-0.389938
5750.64	-0.388844
5761.58	-0.387646
5770.7	-0.386641
5781.64	-0.385333
5790.75	-0.384846
5801.69	-0.384638
5810.81	-0.384322
5821.75	-0.383781
5830.86	-0.382813
5841.8	-0.381527
5850.92	-0.380358
5860.03	-0.379104
5870.97	-0.377491
5880.09	-0.376059
5891.03	-0.37424
5900.14	-0.37264
5911.08	-0.370621
5920.2	-0.368858
5931.13	-0.366646
5940.25	-0.364723
5951.19	-0.362323
5960.3	-0.360245
5971.24	-0.357661
5980.36	-0.355433
5991.3	-0.352671
6000.41	-0.350304
6011.35	-0.347397
6020.47	-0.344928
6031.41	-0.341916
6040.52	-0.33937
6051.46	-0.336276
6060.58	-0.333666
6071.51	-0.330498
6080.63	-0.327828
6091.57	-0.324588
6100.68	-0.321855
6111.62	-0.318537
6120.74	-0.315738
6131.68	-0.312336
6140.79	-0.309456
6151.73	-0.305938
6160.85	-0.302959
6171.79	-0.29933
6180.9	-0.296264
6190.02	-0.292003
6200.96	-0.286495
6210.07	-0.281918
6221.01	-0.276491
6230.13	-0.272032
6241.07	-0.266756
6250.18	-0.262407
6261.12	-0.257223
6270.24	-0.252914
6281.17	-0.247729
6290.29	-0.243381
6301.23	-0.238137
6310.34	-0.23377
6321.28	-0.228549
6330.4	-0.22421
6341.34	-0.218995
6350.45	-0.214622
6361.39	-0.209306
6370.51	-0.204798
6381.45	-0.197674
6390.56	-0.189355
6401.47	-0.179997
6410.54	-0.172619
6421.42	-0.164038
6430.5	-0.156952
6441.38	-0.148385
6450.46	-0.141267
6461.34	-0.132834
6470.41	-0.125799
6481.3	-0.115003
6490.37	-0.103692
6501.26	-0.0915497
6510.33	-0.0812588
6521.22	-0.0685068
6530.29	-0.0540932
6541.18	-0.0336878
6550.25	-0.0155319
6561.14	0.0251788
6570.21	0.0798643
6581.1	0.116393
6590.17	0.137194
6601.05	0.156058
6610.13	0.165172
6621.01	0.170431
6630.09	0.169819
6640.97	0.170311
6650.04	0.172278
6660.93	0.175057
6670	0.175562
6680.89	0.174392
6691.78	0.173365
6700.85	0.173148
6711.74	0.172909
6720.81	0.172053
6731.69	0.171923
6740.77	0.173335
6751.65	0.175652
6760.73	0.176493
6771.61	0.17587
6780.68	0.174928
6791.57	0.174121
6800.64	0.173444
6811.53	0.171904
6820.6	0.170248
6831.49	0.168633
6840.56	0.167707
6851.45	0.166367
6860.52	0.164561
6871.41	0.161705
6880.48	0.159186
6891.36	0.156343
6900.44	0.154177
6911.32	0.151969
6920.39	0.15057
6931.28	0.149164
6940.35	0.147729
6951.24	0.14521
6960.31	0.142422
6971.2	0.138488
6980.27	0.1349
6991.16	0.13045
7000.23	0.126915
7011.12	0.123281
7020.19	0.120836
7031.07	0.118285
7040.15	0.116133
7051.03	0.113311
7060.1	0.110842
7070.99	0.107979
7080.06	0.10585
7090.95	0.103777
7100.02	0.102537
7110.91	0.101604
7121.79	0.101052
7130.87	0.100652
7141.75	0.100051
7150.82	0.0994072
7161.71	0.09851
7170.78	0.0977382
7181.67	0.0969135
7190.74	0.0964069
7201.63	0.0960739
7210.7	0.0960031
7221.59	0.0960929
7230.66	0.0962713
7241.54	0.096603
7250.62	0.0969963
7261.5	0.0976331
7270.58	0.0983024
7281.46	0.0992281
7290.53	0.10002
7301.42	0.100848
7310.49	0.101329
7321.38	0.101587
7330.45	0.101549
7341.34	0.101281
7350.41	0.100958
7361.3	0.100548
7370.37	0.10023
7381.25	0.0998756
7390.33	0.0995642
7401.21	0.0991215
7410.28	0.0986911
7421.17	0.0981681
7430.24	0.0978282
7441.13	0.097686
7450.2	0.0978812
7461.09	0.0985269
7470.16	0.099351
7481.05	0.100518
7490.12	0.10148
7501.01	0.102451
7510.08	0.103041
7520.96	0.103512
7530.04	0.103798
7540.92	0.104175
7551.81	0.104756
7560.88	0.105478
7571.77	0.106652
7580.84	0.107852
7591.73	0.109485
7600.8	0.110959
7611.69	0.112837
7620.76	0.114501
7631.64	0.116642
7640.72	0.11855
7651.6	0.12095
7660.72	0.122976
7671.7	0.1253
7680.85	0.127024
7690.01	0.128469
7700.99	0.129771
7710.14	0.130499
7721.12	0.131009
7730.27	0.131216
7741.25	0.131323
7750.4	0.131376
7761.38	0.131469
7770.54	0.131604
7781.52	0.131852
7790.67	0.132139
7801.65	0.132594
7810.8	0.133079
7821.78	0.133806
7830.93	0.134539
7840.08	0.135383
7851.07	0.136522
7860.22	0.137546
7871.2	0.138826
7880.35	0.139911
7891.33	0.141219
7900.48	0.142313
7911.46	0.143644
7920.62	0.144782
7931.6	0.146197
7940.76	0.147424
7951.74	0.148952
7960.9	0.150266
7970.06	0.151607
7981.05	0.15323
7990.21	0.154572
8001.19	0.156127
8010.35	0.157335
8021.34	0.158613
8030.5	0.159476
8041.49	0.1602
8050.64	0.160494
8061.63	0.160435
8070.79	0.160026
8081.78	0.159099
8090.94	0.157971
8100.09	0.156527
8111.08	0.154388
8120.24	0.152272
8131.23	0.149335
8140.39	0.146564
8151.38	0.142868
8160.53	0.139503
8171.52	0.135169
8180.68	0.13135
8191.67	0.126574
8200.83	0.12247
8211.82	0.117429
8221	0.113151
8230.18	0.108817
8241.23	0.103542
8250.46	0.0990996
8261.53	0.0937449
8270.77	0.0892881
8280	0.0848648
8291.1	0.079636
8300.38	0.0753779
8311.54	0.0704449
8320.84	0.0665256
8330.14	0.0628095
8341.3	0.058649
8350.6	0.0554489
8361.76	0.0519399
8371.06	0.0492895
8380.36	0.0468763
8391.51	0.0442665
8400.81	0.0423006
8410.11	0.0404952
8421.27	0.0385029
8430.57	0.0369598
8441.73	0.0352199
8451.03	0.0338449
8460.33	0.0325226
8471.49	0.0309844
8480.78	0.0297223
8490.08	0.0284565
8501.24	0.0269023
8510.54	0.0255529
8521.69	0.0238402
8530.98	0.0222922
8540.28	0.0203265
8551.42	0.015509
8560.71	0.0069118
8571.86	0.00193084
8581.14	-0.00529483
8590.43	-0.00892044
8601.58	-0.0161888
8610.86	-0.0214285
8620.15	-0.0267001
8631.3	-0.0321045
8640.58	-0.031107
8651.73	-0.0362481
8661.02	-0.0397612
8670.3	-0.0430333
8681.45	-0.0468989
8690.74	-0.0500382
8700.02	-0.052967
8711.17	-0.0562372
8720.46	-0.0602488
8731.6	-0.0632826
8740.88	-0.0655424
8750.15	-0.067497
8761.26	-0.0695315
8770.51	-0.0710385
8781.61	-0.0726961
8790.85	-0.0740485
8800.1	-0.0753724
8811.2	-0.0769697
8820.45	-0.0782247
8831.55	-0.0796478
8840.8	-0.0807641
8850.05	-0.0817845
8861.12	-0.0828905
8870.32	-0.0810951
8881.36	-0.0817791
8890.47	-0.0824634
8901.41	-0.0831844
8910.53	-0.0836792
8921.47	-0.0841471
8930.58	-0.0844503
8941.52	-0.0847303
8950.64	-0.084907
8961.58	-0.0850664
8970.69	-0.0851653
8981.63	-0.0853067
8990.75	-0.0855998
9001.69	-0.0858965
9010.8	-0.0860783
9021.74	-0.0861512
9030.86	-0.0862272
9041.8	-0.0863364
9050.91	-0.0864417
9060.03	-0.0865591
9070.97	-0.0867143
9080.08	-0.0868542
9091.02	-0.0870329
9100.14	-0.0871895
9111.08	-0.087385
9120.19	-0.0875531
9131.13	-0.0863286
9140.25	-0.0868105
9151.19	-0.0873561
9160.3	-0.0877829
9171.24	-0.0882659
9180.36	-0.0886465
9191.3	-0.0905037
9200.41	-0.0909199
9211.35	-0.0913901
9220.47	-0.0917582
9231.41	-0.0921726
9240.52	-0.0924962
9251.46	-0.0928592
9260.58	-0.0931417
9271.52	-0.0934515
9280.63	-0.0936841
9291.57	-0.0939341
9300.69	-0.094119
9311.63	-0.0943144
9320.74	-0.0944564
9331.68	-0.0946038
9340.8	-0.0947081
9351.74	-0.0948127
9360.85	-0.0948841
9371.79	-0.0949519
9380.91	-0.0949944
9390.02	-0.0950247
9400.96	-0.0950459
9410.08	-0.0950513
9421.02	-0.0950437
9430.13	-0.095026
9441.07	-0.0949916
9450.19	-0.0949523
9461.13	-0.0948928
9470.24	-0.0948331
9481.18	-0.0947494
9490.3	-0.0946655
9501.24	-0.0947678
9510.35	-0.0948256
9521.29	-0.0948645
9530.41	-0.0948731
9541.35	-0.0948569
9550.46	-0.0948224
9561.4	-0.0947573
9570.52	-0.094643
9581.46	-0.0944179
9590.57	-0.0942214
9601.51	-0.0939749
9610.63	-0.0937605
9621.56	-0.0934922
9630.68	-0.0932594
9641.62	-0.0929689
9650.74	-0.0927174
9661.67	-0.0924043
9670.79	-0.0921339
9681.73	-0.0917979
9690.84	-0.0915083
9701.78	-0.0911493
9710.9	-0.0908405
9720.02	-0.0905229
9730.95	-0.0901302
9740.07	-0.0897934
9751.01	-0.0893777
9760.12	-0.0890218
9771.06	-0.0885835
9780.18	-0.0882089
9791.12	-0.0877484
9800.23	-0.0873556
9811.17	-0.0868736
9820.29	-0.0864632
9831.23	-0.0859606
9840.34	-0.0855336
9851.28	-0.085012
9860.4	-0.0845699
9871.34	-0.084031
9880.45	-0.0835752
9891.39	-0.0838001
9900.51	-0.0833907
9911.45	-0.0828939
9920.56	-0.0824753
9931.5	-0.0819675
9940.62	-0.081539
9951.56	-0.081016
9960.67	-0.0805731
9971.61	-0.0800334
9980.73	-0.0795773
9991.67	-0.0790225
10000.8	-0.0785542
10011.7	-0.0779853
10020.8	-0.0775057
10031.8	-0.0769239
10040.9	-0.0764361
10050	-0.0759463
10060.9	-0.0753559
10070	-0.0747813
10080.9	-0.0740284
10091.8	-0.0732783
10100.9	-0.0726551
10111.7	-0.071909
10120.8	-0.0712884
10131.7	-0.0705449
10140.8	-0.069926
10151.7	-0.0691841
10160.7	-0.0685662
10171.6	-0.0678251
10180.7	-0.0672076
10191.6	-0.0664667
10200.7	-0.0658494
10211.5	-0.0651086
10220.6	-0.0644914
10231.5	-0.0637509
10240.6	-0.0631339
10251.5	-0.0623939
10260.5	-0.0617774
10271.4	-0.061038
10280.5	-0.0604222
10291.4	-0.0596837
10300.4	-0.0590689
10311.3	-0.0583319
10320.4	-0.0577185
10331.3	-0.0569834
10340.4	-0.0563717
10351.3	-0.0556389
10360.3	-0.0550293
10371.2	-0.0542991
10380.3	-0.0536918
10391.2	-0.0529646
10400.2	-0.0523599
10411.1	-0.051636
10420.2	-0.0510341
10431.1	-0.0503138
10440.2	-0.0497151
10451	-0.0489988
10460.1	-0.0484035
10471	-0.0476914
10480.1	-0.0470998
10491	-0.0463924
10500	-0.045805
10510.9	-0.0451029
10521.8	-0.0444041
10530.9	-0.0438242
10541.8	-0.0431316
10550.8	-0.042557
10561.7	-0.0418708
10570.8	-0.0413017
10581.7	-0.0406236
10590.8	-0.0400642
10601.6	-0.0393393
10610.7	-0.0387216
10621.6	-0.0379949
10630.7	-0.0374007
10641.6	-0.0367005
10650.6	-0.036127
10661.5	-0.03545
10670.6	-0.0348947
10681.5	-0.0342382
10690.6	-0.033699
10701.4	-0.0329441
10710.5	-0.0322989
10721.4	-0.0315651
10730.5	-0.0309831
10741.4	-0.0303155
10750.4	-0.0297815
10761.3	-0.029164
10770.4	-0.0286663
10781.3	-0.0280866
10790.3	-0.0276196
10801.2	-0.0270785
10810.3	-0.0266424
10821.2	-0.0261349
10830.3	-0.0257237
10841.2	-0.0252423
10850.2	-0.0248497
10861.1	-0.0243873
10870.2	-0.0240077
10881.1	-0.0235576
10890.1	-0.0231859
10901	-0.0227428
10910.1	-0.0223752
10921	-0.0219355
10930.1	-0.02157
10940.9	-0.021132
10950	-0.0207671
10960.9	-0.0203288
10971.8	-0.0198891
10980.9	-0.0195213
10991.7	-0.0190774
11000.8	-0.0187051
11011.7	-0.0182549
11020.8	-0.0178805
11031.7	-0.0174393
11040.7	-0.0170761
11051.6	-0.0166435
11060.7	-0.016284
11071.6	-0.0158516
11080.7	-0.0154891
11091.5	-0.0150501
11100.6	-0.014647
11111.5	-0.0139741
11120.6	-0.0133869
11131.5	-0.012665
11140.5	-0.0120566
11151.4	-0.011324
11160.5	-0.010714
11171.4	-0.00998418
11180.5	-0.00937852
11191.3	-0.00865646
11200.4	-0.00805904
11211.3	-0.00734726
11220.4	-0.00675584
11231.3	-0.00603959
11240.3	-0.00543705
11251.2	-0.00470727
11260.3	-0.00409511
11271.2	-0.00335921
11280.2	-0.00274635
11291.1	-0.00201191
11300.2	-0.000419806
11311.1	0.00139045
11320.2	0.00277166
11331	0.00426468
11340.1	0.00537551
11351	0.00657567
11360.1	0.00750116
11371	0.00853088
11380	0.00944087
11390.9	0.0107467
11401.8	0.011814
11410.9	0.0125903
11421.8	0.0134649
11430.8	0.0141143
11441.7	0.0153478
11450.8	0.0164893
11461.7	0.0190974
11470.8	0.0226346
11481.6	0.0256219
11490.7	0.0282874
11501.6	0.0318334
11510.7	0.0349395
11521.6	0.0389354
11530.6	0.0424207
11541.5	0.0467425
11550.6	0.0506559
11561.5	0.0554891
11570.6	0.0595138
11581.4	0.0644957
11590.5	0.0687553
11601.4	0.0737953
11610.5	0.0778766
11621.4	0.0825986
11630.4	0.0863313
11641.3	0.0903917
11650.4	0.0932728
11661.3	0.0961049
11670.3	0.0980373
11681.2	0.0999707
11690.3	0.101331
11701.2	0.102716
11710.3	0.103689
11721.2	0.104668
11730.2	0.105356
11741.1	0.106088
11750.2	0.106664
11761.1	0.10734
11770.2	0.107902
11781.2	0.108587
11790.3	0.109182
11801.3	0.10994
11810.5	0.110599
11821.4	0.111404
11830.6	0.112078
11841.6	0.112893
11850.7	0.113583
11861.7	0.114416
11870.9	0.115086
11880	0.115696
11891	0.116305
11900.1	0.1167
11911.1	0.117064
11920.3	0.117318
11931.3	0.117613
11940.4	0.117876
11951.4	0.118225
11960.6	0.118547
11971.6	0.118966
11980.7	0.119325
11991.7	0.119737
