0	0
10.2679	0
20.5356	0
30.8033	0
40.9277	0
50.1958	0
60.4632	0
70.2772	0
80.5445	0
90.8118	0
101.079	0
110.205	0
120.472	0
130.687	0
140.788	0
150.856	0
160.92	0
170.984	0
181.048	0
191.112	0
200.058	0
210.122	0
220.186	0
230.249	0
240.313	9.09495e-13
250.377	9.09495e-12
260.441	1.72804e-11
270.505	2.54659e-11
280.568	3.36513e-11
290.632	4.18368e-11
300.696	5.00222e-11
310.759	5.82077e-11
320.823	6.63931e-11
330.886	7.45786e-11
340.95	8.2764e-11
351.013	9.09495e-11
361.046	9.91349e-11
371.031	1.0732e-10
380.951	1.15506e-10
390.876	1.23691e-10
400.776	1.38243e-10
410.601	1.54614e-10
420.343	1.70985e-10
430.065	1.92813e-10
440.863	2.21917e-10
450.583	2.54659e-10
460.304	2.96495e-10
470.024	3.48336e-10
480.804	4.20187e-10
490.449	5.00222e-10
500.049	5.97538e-10
510.71	7.32143e-10
520.305	8.813e-10
530.959	1.08412e-09
540.537	1.30603e-09
550.107	1.57161e-09
560.734	1.92449e-09
570.296	2.29829e-09
580.92	2.77851e-09
590.481	3.27327e-09
600.043	3.82715e-09
610.667	4.51746e-09
620.229	5.20777e-09
630.853	6.0536e-09
640.414	6.88578e-09
651.038	7.88623e-09
660.6	8.84938e-09
670.161	9.8662e-09
680.785	1.10513e-08
690.337	1.21572e-08
700.929	1.34196e-08
710.455	1.45756e-08
721.04	1.58734e-08
730.566	1.70421e-08
740.092	1.82008e-08
750.677	1.94668e-08
760.203	2.05773e-08
770.787	2.17678e-08
780.313	2.2791e-08
790.898	2.3867e-08
800.424	2.47728e-08
811.008	2.57032e-08
820.534	2.64645e-08
830.06	2.71521e-08
840.645	2.78296e-08
850.171	2.83699e-08
860.755	2.88837e-08
870.281	2.92785e-08
880.865	2.96495e-08
890.391	2.99351e-08
900.975	3.02161e-08
910.501	3.04535e-08
920.027	3.06973e-08
930.611	3.10065e-08
940.137	3.13512e-08
950.721	3.18487e-08
960.246	3.24426e-08
970.83	3.33193e-08
980.356	3.43562e-08
990.94	3.58514e-08
1000.47	3.75712e-08
1011.05	3.99768e-08
1020.58	4.26644e-08
1030.1	4.59195e-08
1040.69	5.03014e-08
1050.21	5.50281e-08
1060.79	6.12636e-08
1070.32	6.7871e-08
1080.9	7.64521e-08
1090.43	8.54197e-08
1101.01	9.6923e-08
1110.54	1.08806e-07
1120.06	1.22287e-07
1130.65	1.39329e-07
1140.17	1.567e-07
1150.76	1.78477e-07
1160.28	2.00511e-07
1170.87	2.27943e-07
1180.39	2.55515e-07
1190.98	2.89633e-07
1200.5	3.2373e-07
1210.03	3.61294e-07
1220.61	4.07418e-07
1230.14	4.53178e-07
1240.72	5.09103e-07
1250.24	5.64345e-07
1260.83	6.31585e-07
1270.35	6.97719e-07
1280.91	7.77757e-07
1290.4	8.56088e-07
1300.94	9.50718e-07
1310.43	1.04318e-06
1320.96	1.15506e-06
1330.44	1.26455e-06
1340.97	1.39624e-06
1350.43	1.52385e-06
1360.96	1.67616e-06
1370.43	1.82275e-06
1380.96	1.99622e-06
1390.44	2.16193e-06
1400.96	2.35687e-06
1410.44	2.54216e-06
1420.95	2.75899e-06
1430.42	2.96439e-06
1440.95	3.20424e-06
1450.42	3.43083e-06
1460.9	3.69379e-06
1470.3	3.94104e-06
1480.75	4.22882e-06
1490.15	4.50009e-06
1500.6	4.81577e-06
1510.01	5.11337e-06
1520.46	5.45981e-06
1530.9	5.82381e-06
1540.31	6.16727e-06
1550.76	6.56758e-06
1560.15	6.94516e-06
1570.51	7.38244e-06
1580.82	7.84071e-06
1590.11	8.27398e-06
1600.43	8.77982e-06
1610.75	9.31292e-06
1620.04	9.8174e-06
1630.36	1.0407e-05
1640.67	1.10289e-05
1650.99	1.16852e-05
1660.28	1.23068e-05
1670.6	1.30337e-05
1680.92	1.3801e-05
1690.21	1.45278e-05
1700.52	1.53774e-05
1710.84	1.62727e-05
1720.13	1.71189e-05
1730.45	1.8105e-05
1740.77	1.91406e-05
1750.05	2.01159e-05
1760.37	2.12484e-05
1770.69	2.24335e-05
1781.01	2.36721e-05
1790.3	2.48334e-05
1800.62	2.61766e-05
1810.94	2.75764e-05
1820.22	2.88857e-05
1830.54	3.03968e-05
1840.86	3.19683e-05
1850.15	3.34357e-05
1860.46	3.51266e-05
1870.78	3.68829e-05
1880.07	3.85211e-05
1890.39	4.04071e-05
1900.71	4.23647e-05
1911.03	4.43962e-05
1920.31	4.62901e-05
1930.63	4.84695e-05
1940.95	5.07309e-05
1950.24	5.28388e-05
1960.55	5.52645e-05
1970.87	5.77814e-05
1980.16	6.01275e-05
1990.48	6.28274e-05
2000.8	6.56291e-05
2010.08	6.82409e-05
2020.4	7.1247e-05
2030.72	7.43668e-05
2040.01	7.72756e-05
2050.33	7.70397e-05
2060.64	7.55392e-05
2070.96	7.43164e-05
2080.25	7.34371e-05
2090.57	7.26894e-05
2100.88	7.21673e-05
2110.17	7.18778e-05
2120.49	7.17438e-05
2130.81	7.17955e-05
2140.09	7.19916e-05
2150.41	7.23666e-05
2160.73	7.28987e-05
2170.02	7.35057e-05
2180.33	7.43164e-05
2190.65	7.52655e-05
2200.97	7.63482e-05
2210.26	7.74339e-05
2220.58	7.87612e-05
2230.89	8.02139e-05
2240.18	8.16274e-05
2250.5	8.33151e-05
2260.82	8.51262e-05
2270.1	8.6862e-05
2280.42	8.89094e-05
2290.74	9.10833e-05
2300.02	9.31497e-05
2310.34	9.55703e-05
2320.66	9.81248e-05
2330.98	0.000100817
2340.26	0.00010336
2350.58	0.000106323
2360.9	0.000109436
2370.19	0.000112368
2380.5	0.000115777
2390.82	0.000119349
2400.11	0.000122708
2410.43	0.000126606
2420.74	0.000130685
2430.03	0.000134515
2440.35	0.000138936
2450.67	0.000143517
2460.98	0.000148246
2470.27	0.000152624
2480.59	0.000157617
2490.91	0.000162742
2500.19	0.000167467
2510.51	0.000172843
2520.83	0.000178352
2530.12	0.000183427
2540.43	0.000189199
2550.75	0.000195118
2560.04	0.000200576
2570.36	0.000206792
2580.67	0.000213178
2590.99	0.000219742
2600.28	0.00022581
2610.6	0.000232743
2620.92	0.000239888
2630.19	0.000246498
2640.48	0.000254062
2650.8	0.000261896
2660.08	0.000269171
2670.4	0.000277519
2680.71	0.000286157
2690	0.000294191
2700.32	0.000303417
2710.63	0.000312971
2720.95	0.000322866
2730.24	0.000332075
2740.55	0.000342656
2750.87	0.000353618
2760.16	0.000363822
2770.47	0.00037555
2780.79	0.000387704
2790.08	0.000399022
2800.39	0.000423629
2810.71	0.000456022
2821.03	0.000488237
2830.31	0.000517005
2840.63	0.000548683
2850.95	0.000580055
2860.23	0.000608047
2870.55	0.000638923
2880.87	0.000669622
2890.15	0.000697167
2900.47	0.00072776
2910.79	0.000758437
2920.07	0.000786206
2930.39	0.000817337
2940.7	0.000848869
2951.02	0.000880913
2960.31	0.000910285
2970.62	0.000943612
2980.94	0.000977772
2990.23	0.00100932
3000.54	0.0010453
3010.86	0.00108211
3020.14	0.00111583
3030.46	0.00115389
3040.78	0.00119253
3050.06	0.00122783
3060.38	0.00126767
3070.7	0.00130824
3081.01	0.00134966
3090.3	0.00138777
3100.61	0.00143119
3110.93	0.00147591
3120.22	0.0015174
3130.53	0.00156504
3140.85	0.00161445
3150.13	0.00166056
3160.45	0.00171375
3170.77	0.00176918
3180.05	0.00182866
3190.37	0.00195875
3200.68	0.00208143
3211	0.00219739
3220.29	0.00229718
3230.6	0.00240458
3240.49	0.00250581
3250.81	0.00261134
3260.1	0.0027077
3270.41	0.0028178
3280.73	0.00293238
3290.01	0.00303911
3300.33	0.00316085
3310.65	0.00328589
3320.96	0.00341487
3330.25	0.00353528
3340.56	0.00367526
3350.88	0.00382333
3360.16	0.00396469
3370.48	0.00416496
3380.8	0.00449677
3390.08	0.00478474
3400.4	0.00509753
3410.71	0.00541352
3421.03	0.00574361
3430.31	0.00605401
3440.63	0.0064079
3450.95	0.00677658
3460.23	0.00713119
3470.55	0.00778374
3480.86	0.00848484
3490.15	0.00909965
3500.47	0.00983225
3510.78	0.0106435
3520.07	0.012003
3530.38	0.0135054
3540.7	0.0162582
3551.01	0.021978
3560.3	0.0286792
3570.62	0.035257
3580.93	0.0419907
3590.22	0.0472493
3600.53	0.0529469
3610.85	0.0578751
3620.13	0.0621971
3630.45	0.0672141
3640.77	0.0723212
3650.05	0.0768908
3660.37	0.0817625
3670.69	0.0866259
3681	0.0915551
3690.29	0.0959786
3700.6	0.100754
3710.92	0.105464
3720.21	0.109756
3730.52	0.114537
3740.84	0.119155
3750.12	0.123119
3760.44	0.127406
3770.76	0.131653
3780.04	0.135446
3790.36	0.139602
3800.68	0.14374
3811	0.147968
3820.28	0.151886
3830.6	0.156319
3840.94	0.160786
3850.26	0.164821
3860.6	0.169354
3870.95	0.173953
3880.26	0.178145
3890.61	0.182876
3900.96	0.187713
3910.27	0.192159
3920.62	0.197174
3930.96	0.202242
3940.28	0.206847
3950.62	0.212026
3960.98	0.217284
3970.3	0.222091
3980.65	0.227536
3991.01	0.233111
4000.33	0.23824
4010.68	0.244037
4020	0.249319
4030.36	0.255257
4040.71	0.261281
4050.04	0.266789
4060.39	0.27301
4070.75	0.279344
4080.07	0.285155
4090.42	0.291749
4100.78	0.298512
4110.11	0.304775
4120.48	0.31198
4130.84	0.319519
4140.2	0.32668
4150.63	0.335136
4160.01	0.343259
4170.46	0.352953
4180.9	0.363441
4190.32	0.37366
4200.82	0.386033
4210.28	0.398178
4220.8	0.412911
4230.27	0.427406
4240.78	0.445017
4250.25	0.462327
4260.76	0.483288
4270.23	0.503783
4280.75	0.528435
4290.21	0.552359
4300.73	0.580911
4310.19	0.608396
4320.71	0.640907
4330.17	0.671894
4340.69	0.708133
4350.16	0.742233
4360.67	0.781543
4370.14	0.81795
4380.65	0.859204
4390.12	0.896718
4400.64	0.938402
4410.1	0.975514
4420.62	1.0158
4430.08	1.05073
4440.6	1.08748
4450.06	1.11816
4460.58	1.14894
4470.05	1.17307
4480.56	1.19524
4490.03	1.21037
4500.55	1.22113
4510.01	1.22471
4520.53	1.22113
4531.04	1.20877
4540.51	1.1894
4551.03	1.15792
4560.49	1.11996
4571.01	1.06636
4580.47	1.00732
4590.99	0.929246
4600.46	0.847442
4610.97	0.743397
4620.44	0.637473
4630.96	0.505074
4640.42	0.370921
4650.94	0.201829
4660.4	0.0263479
4670.92	-0.10888
4680.39	-0.157587
4690.91	-0.204301
4700.41	-0.219956
4710.99	-0.248829
4720.51	-0.268191
4730.03	-0.283078
4740.61	-0.297785
4750.14	-0.3038
4760.72	-0.317629
4770.25	-0.327239
4780.83	-0.335882
4790.36	-0.342557
4800.94	-0.348202
4810.47	-0.353282
4821.05	-0.358667
4830.58	-0.363151
4840.11	-0.354776
4850.69	-0.354825
4860.22	-0.360177
4870.8	-0.365188
4880.33	-0.368952
4890.91	-0.372428
4900.44	-0.375051
4911.02	-0.377532
4920.55	-0.379479
4930.07	-0.381232
4940.66	-0.382412
4950.18	-0.383607
4960.77	-0.384818
4970.29	-0.385909
4980.88	-0.387094
4990.4	-0.388115
5000.99	-0.389175
5010.51	-0.390049
5020.04	-0.390823
5030.61	-0.382549
5040.1	-0.383469
5050.64	-0.38441
5060.13	-0.385666
5070.66	-0.38703
5080.14	-0.388087
5090.67	-0.389069
5100.15	-0.389765
5110.68	-0.390356
5120.15	-0.390743
5130.68	-0.391028
5140.14	-0.391168
5150.66	-0.391206
5160.14	-0.391145
5170.66	-0.390981
5180.14	-0.390754
5190.66	-0.390421
5200.14	-0.390053
5210.66	-0.389575
5220.13	-0.389095
5230.65	-0.388509
5240.12	-0.387931
5250.64	-0.387242
5260.08	-0.386578
5270.56	-0.385532
5281.01	-0.384399
5290.41	-0.383356
5300.86	-0.382168
5310.26	-0.381071
5320.71	-0.379819
5330.12	-0.37866
5340.56	-0.377333
5351.01	-0.375966
5360.36	-0.374707
5370.68	-0.373276
5381	-0.371806
5390.28	-0.370431
5400.6	-0.368847
5410.92	-0.367215
5420.21	-0.355739
5430.53	-0.354758
5440.85	-0.35376
5450.13	-0.352848
5460.45	-0.351825
5470.77	-0.350795
5480.06	-0.349863
5490.38	-0.348823
5500.7	-0.347783
5511.02	-0.346749
5520.3	-0.34583
5530.62	-0.344825
5540.94	-0.343844
5550.23	-0.342982
5560.55	-0.342052
5570.87	-0.341152
5580.15	-0.340369
5590.47	-0.339529
5600.79	-0.338722
5610.08	-0.338022
5620.4	-0.337272
5630.72	-0.336548
5640	-0.335915
5650.32	-0.335229
5660.64	-0.334554
5670.96	-0.333886
5680.25	-0.333286
5690.57	-0.332616
5700.88	-0.331937
5710.17	-0.331314
5720.49	-0.330604
5730.81	-0.32987
5740.1	-0.329186
5750.42	-0.328395
5760.73	-0.327568
5770.02	-0.32679
5780.34	-0.32604
5790.66	-0.32525
5800.98	-0.324379
5810.26	-0.323528
5820.58	-0.322509
5830.9	-0.321413
5840.19	-0.320288
5850.51	-0.318867
5860.83	-0.317374
5870.11	-0.315971
5880.43	-0.314737
5890.75	-0.313958
5900.04	-0.313141
5910.36	-0.312116
5920.68	-0.310982
5930.99	-0.309747
5940.28	-0.308557
5950.6	-0.307152
5960.92	-0.305663
5970.21	-0.304256
5980.52	-0.30262
5990.84	-0.30091
6000.13	-0.29931
6010.45	-0.297465
6020.77	-0.29555
6030.05	-0.29377
6040.37	-0.29173
6050.69	-0.289626
6061.01	-0.287459
6070.3	-0.285458
6080.62	-0.283178
6090.93	-0.280846
6100.22	-0.27871
6110.54	-0.276306
6120.86	-0.273874
6130.15	-0.271666
6140.46	-0.269193
6150.78	-0.266703
6160.07	-0.264436
6170.39	-0.261889
6180.71	-0.259317
6191.03	-0.25672
6200.31	-0.254363
6210.63	-0.251724
6220.95	-0.249063
6230.24	-0.246651
6240.56	-0.243951
6250.87	-0.241231
6260.16	-0.238767
6270.48	-0.23601
6280.8	-0.232695
6290.09	-0.228956
6300.4	-0.224811
6310.72	-0.220714
6320.01	-0.217083
6330.33	-0.213112
6340.65	-0.209198
6350.97	-0.205324
6360.25	-0.201858
6370.57	-0.198011
6380.89	-0.194153
6390.18	-0.190665
6400.5	-0.186792
6410.82	-0.18294
6420.1	-0.179491
6430.42	-0.175667
6440.74	-0.171834
6450.03	-0.168357
6460.35	-0.164443
6470.66	-0.160457
6480.98	-0.153821
6490.27	-0.147602
6500.59	-0.141071
6510.91	-0.134794
6520.19	-0.129231
6530.51	-0.123031
6540.83	-0.116818
6550.12	-0.111297
6560.44	-0.105195
6570.71	-0.0990372
6581.02	-0.089408
6590.3	-0.0811647
6600.62	-0.0723798
6610.94	-0.0633635
6620.22	-0.0549984
6630.54	-0.0406965
6640.86	-0.0261875
6650.14	-0.00755197
6660.46	0.0268094
6670.78	0.0633468
6680.06	0.0839647
6690.38	0.10187
6700.7	0.110247
6711.01	0.114965
6720.3	0.113832
6730.61	0.110533
6740.93	0.109764
6750.22	0.110142
6760.53	0.111013
6770.85	0.110386
6780.14	0.109379
6790.45	0.108988
6800.77	0.109465
6810.06	0.109782
6820.37	0.109725
6830.69	0.110532
6841.01	0.112766
6850.29	0.115051
6860.61	0.116505
6870.93	0.116909
6880.21	0.117238
6890.53	0.118044
6900.85	0.118909
6910.13	0.119227
6920.45	0.119246
6930.77	0.119592
6940.05	0.120319
6950.37	0.121018
6960.69	0.120991
6971	0.120261
6980.29	0.1194
6990.6	0.118536
7000.92	0.117802
7010.21	0.117255
7020.52	0.116829
7030.84	0.116457
7040.13	0.115829
7050.44	0.114484
7060.76	0.112442
7070.05	0.11019
7080.36	0.107434
7090.68	0.104583
7101	0.101894
7110.28	0.0998574
7120.6	0.0980977
7130.92	0.0966177
7140.2	0.0952063
7150.52	0.093387
7160.83	0.0914302
7170.12	0.0897615
7180.44	0.0881758
7190.75	0.0869469
7200.04	0.0861716
7210.36	0.0856535
7220.67	0.085364
7230.99	0.085085
7240.27	0.0846978
7250.59	0.0840834
7260.91	0.0833545
7270.19	0.0826961
7280.51	0.0820491
7290.83	0.0815534
7300.11	0.0812609
7310.43	0.0810929
7320.75	0.0810495
7330.03	0.0810934
7340.35	0.0812439
7350.67	0.0815321
7360.98	0.0819764
7370.27	0.0824996
7380.58	0.0831773
7390.9	0.0838785
7400.19	0.0844356
7410.5	0.0848649
7420.82	0.0850308
7430.11	0.0849699
7440.42	0.0847527
7450.74	0.0844893
7460.03	0.0842875
7470.34	0.0841389
7480.66	0.0840538
7490.98	0.083972
7500.26	0.0838428
7510.58	0.0836074
7520.9	0.0833165
7530.18	0.0831055
7540.5	0.0830719
7550.81	0.0833784
7560.1	0.0839899
7570.42	0.0849906
7580.73	0.0861783
7590.02	0.0872384
7600.34	0.0882402
7610.65	0.0889669
7620.97	0.0894404
7630.26	0.0897481
7640.57	0.0901129
7650.89	0.0906581
7660.18	0.0913936
7670.49	0.0925107
7680.81	0.0938995
7690.1	0.0953089
7700.41	0.0969747
7710.74	0.098708
7720.06	0.100335
7730.4	0.102255
7740.75	0.104336
7750.06	0.106351
7760.41	0.108707
7770.76	0.111094
7780.07	0.11317
7790.42	0.115294
7800.76	0.117155
7810.08	0.118593
7820.42	0.119966
7830.77	0.121188
7840.08	0.122247
7850.43	0.123465
7860.78	0.124789
7870.09	0.126095
7880.44	0.127671
7890.78	0.129359
7900.1	0.130956
7910.44	0.132796
7920.79	0.134688
7930.1	0.136416
7940.45	0.138339
7950.8	0.140226
7960.11	0.141858
7970.46	0.143557
7980.8	0.145106
7990.12	0.146359
8000.47	0.147595
8010.83	0.148674
8020.15	0.149517
8030.51	0.150308
8040.86	0.150934
8050.18	0.151338
8060.54	0.151592
8070.9	0.151622
8080.22	0.151451
8090.57	0.151031
8100.93	0.150361
8110.25	0.149525
8120.6	0.148303
8130.96	0.146726
8140.28	0.144955
8150.64	0.142554
8160.99	0.139665
8170.31	0.136646
8180.67	0.13285
8191.02	0.128636
8200.35	0.124537
8210.7	0.119705
8220.02	0.115153
8230.38	0.109922
8240.73	0.104554
8250.05	0.0996455
8260.41	0.094154
8270.77	0.08868
8280.1	0.0838216
8290.46	0.0785614
8300.83	0.0735046
8310.16	0.069166
8320.58	0.0645855
8331.01	0.0602872
8340.42	0.0566519
8350.88	0.0528575
8360.34	0.0496327
8370.85	0.0462545
8380.32	0.0433833
8390.84	0.0403654
8400.3	0.0377951
8410.82	0.0350945
8420.28	0.0328006
8430.8	0.0304027
8440.27	0.0283806
8450.78	0.0262844
8460.25	0.0245307
8470.77	0.0227207
8480.23	0.021202
8490.75	0.0196125
8500.21	0.0182443
8510.73	0.0167626
8520.2	0.0154423
8530.71	0.0139728
8540.18	0.0124865
8550.7	0.00980934
8560.16	0.00753892
8570.68	0.00674501
8580.14	0.00424414
8590.66	0.00254927
8600.13	0.00196608
8610.64	-0.00163322
8620.11	-0.00448915
8630.63	-0.00781951
8640.09	-0.00800889
8650.6	-0.0119939
8660.06	-0.015244
8670.57	-0.0183106
8680.04	-0.0209282
8690.56	-0.0237347
8700.02	-0.0261523
8710.54	-0.0287708
8720.01	-0.0310777
8730.52	-0.0344797
8741.04	-0.0379007
8750.5	-0.0406056
8761.02	-0.0432777
8770.49	-0.0454396
8781	-0.0476183
8790.47	-0.0494094
8800.98	-0.0512435
8810.45	-0.0526233
8820.97	-0.0541013
8830.43	-0.05538
8840.95	-0.0567421
8850.41	-0.0579143
8860.93	-0.0591574
8870.39	-0.0580037
8880.9	-0.0608783
8890.33	-0.0616199
8900.78	-0.0623813
8910.18	-0.0630167
8920.63	-0.0636567
8930.03	-0.0641619
8940.48	-0.0646613
8950.93	-0.0651103
8960.33	-0.0654785
8970.78	-0.065854
8980.19	-0.0661682
8990.62	-0.066497
9000.99	-0.0668954
9010.28	-0.0671681
9020.59	-0.0674669
9030.91	-0.0677631
9040.2	-0.0680286
9050.52	-0.0683231
9060.84	-0.0686174
9070.12	-0.0688825
9080.44	-0.0691774
9090.76	-0.0694728
9100.05	-0.0697393
9110.37	-0.070036
9120.69	-0.0703336
9131.01	-0.0706317
9140.29	-0.0675306
9150.61	-0.0667135
9160.93	-0.067482
9170.22	-0.0681485
9180.54	-0.0688617
9190.86	-0.0695467
9200.14	-0.0701392
9210.46	-0.0707715
9220.78	-0.0713766
9230.07	-0.0718984
9240.39	-0.0724531
9250.71	-0.0729793
9261.03	-0.0734737
9270.31	-0.0738927
9280.63	-0.0743308
9290.95	-0.0747416
9300.24	-0.0750892
9310.56	-0.0754521
9320.88	-0.0757925
9330.16	-0.0760812
9340.48	-0.0763842
9350.8	-0.0766697
9360.09	-0.0769128
9370.41	-0.0771676
9380.73	-0.0774058
9390.01	-0.0776066
9400.33	-0.0778154
9410.65	-0.0780096
9420.97	-0.0781899
9430.26	-0.0783406
9440.58	-0.0784956
9450.89	-0.0786372
9460.18	-0.0787528
9470.5	-0.0788665
9480.82	-0.0790403
9490.11	-0.0792229
9500.43	-0.0794016
9510.74	-0.079556
9520.03	-0.0796752
9530.35	-0.0797022
9540.67	-0.0796944
9550.99	-0.0796742
9560.28	-0.0796455
9570.59	-0.0796022
9580.91	-0.0795471
9590.2	-0.0794877
9600.52	-0.0794109
9610.84	-0.0793229
9620.12	-0.0792343
9630.44	-0.0791256
9640.76	-0.0790061
9650.05	-0.0788896
9660.37	-0.0787502
9670.69	-0.0786005
9681.01	-0.0784404
9690.29	-0.0782875
9700.61	-0.078108
9710.93	-0.0779183
9720.22	-0.0777389
9730.54	-0.0775301
9740.86	-0.0773114
9750.14	-0.0771061
9760.46	-0.0768688
9770.78	-0.0766218
9780.07	-0.0763913
9790.39	-0.0761263
9800.71	-0.075852
9811.02	-0.0755686
9820.31	-0.0753058
9830.63	-0.0750055
9840.95	-0.0746969
9850.24	-0.0744123
9860.56	-0.0740115
9870.87	-0.0737126
9880.16	-0.0734401
9890.48	-0.0731331
9900.8	-0.0728218
9910.09	-0.0725377
9920.4	-0.0722179
9930.72	-0.0718935
9940.01	-0.0715979
9950.33	-0.0712652
9960.65	-0.0709272
9970.97	-0.070582
9980.25	-0.0702653
9990.57	-0.0699068
10000.9	-0.0695418
10010.2	-0.0692077
10020.5	-0.0688305
10030.8	-0.0684472
10040.1	-0.068097
10050.4	-0.0677023
10060.7	-0.0673019
10070	-0.0669365
10080.3	-0.0665126
10090.7	-0.0659721
10101	-0.0654309
10110.3	-0.064943
10120.6	-0.0644002
10130.9	-0.0638564
10140.2	-0.063368
10150.5	-0.062827
10160.8	-0.0622874
10170.1	-0.0618024
10180.4	-0.061264
10190.8	-0.0607257
10200	-0.0602411
10210.4	-0.0597024
10220.7	-0.0591632
10231	-0.0586233
10240.3	-0.0581367
10250.6	-0.0575952
10260.9	-0.0570541
10270.2	-0.0565656
10280.5	-0.0560211
10290.8	-0.0554754
10300.1	-0.0549832
10310.4	-0.0544352
10320.7	-0.0538856
10330	-0.0533898
10340.3	-0.0528375
10350.6	-0.0522838
10361	-0.0517288
10370.2	-0.0512282
10380.6	-0.0506708
10390.9	-0.0501124
10400.2	-0.049609
10410.5	-0.049049
10420.8	-0.0484885
10430.1	-0.0479838
10440.4	-0.0474228
10450.7	-0.0468619
10460	-0.0463573
10470.3	-0.0457969
10480.6	-0.0452369
10491	-0.0446776
10500.2	-0.0441749
10510.6	-0.0436171
10520.9	-0.0430603
10530.2	-0.0425601
10540.5	-0.0420055
10550.8	-0.0414521
10560.1	-0.0409553
10570.4	-0.0404047
10580.7	-0.0398562
10590	-0.0393645
10600.3	-0.0388206
10610.6	-0.0382574
10621	-0.0376509
10630.2	-0.0371132
10640.6	-0.0365247
10650.9	-0.0359451
10660.2	-0.0354308
10670.5	-0.0348671
10680.8	-0.0343118
10690.1	-0.0338205
10700.4	-0.0332839
10710.7	-0.0327564
10720	-0.0322889
10730.3	-0.0317769
10740.6	-0.0312724
10751	-0.0307748
10760.2	-0.0303325
10770.6	-0.0298467
10780.9	-0.0293665
10790.2	-0.0289389
10800.5	-0.0284684
10810.8	-0.0279904
10820.1	-0.0275328
10830.4	-0.0270497
10840.7	-0.0265891
10851	-0.0261476
10860.3	-0.0257639
10870.6	-0.0253502
10880.9	-0.0249481
10890.2	-0.0245972
10900.5	-0.0242192
10910.9	-0.0238526
10920.2	-0.023531
10930.5	-0.0231817
10940.8	-0.0228394
10950.1	-0.0225361
10960.4	-0.022203
10970.7	-0.0218729
10981	-0.0215448
10990.3	-0.0212501
11000.6	-0.0209227
11010.9	-0.0205942
11020.2	-0.0202972
11030.5	-0.0199655
11040.9	-0.0196317
11050.1	-0.0193293
11060.5	-0.0189907
11070.8	-0.018649
11080.1	-0.0183383
11090.4	-0.0179894
11100.7	-0.0176362
11111	-0.0172785
11120.3	-0.0169529
11130.6	-0.0165873
11140.9	-0.016224
11150.2	-0.0159015
11160.5	-0.0155459
11170.9	-0.0151908
11180.1	-0.0148701
11190.5	-0.0145108
11200.8	-0.014147
11210.1	-0.0138149
11220.4	-0.0133306
11230.7	-0.0127634
11241	-0.0121699
11250.3	-0.0116226
11260.6	-0.0110068
11270.9	-0.0103872
11280.2	-0.00982857
11290.5	-0.009208
11300.9	-0.00858966
11310.1	-0.00803682
11320.5	-0.00742678
11330.8	-0.00682008
11340.1	-0.00627538
11350.4	-0.00566413
11360.7	-0.00504488
11371	-0.00442026
11380.3	-0.00385501
11390.6	-0.00322399
11400.9	-0.00258991
11410.2	-0.00139368
11420.5	0.000213505
11430.8	0.00168899
11440.1	0.0028929
11450.5	0.00409529
11460.8	0.00516688
11470.1	0.00604735
11480.4	0.00696634
11490.7	0.00782413
11501	0.00902889
11510.3	0.00997597
11520.6	0.0108744
11530.9	0.0117081
11540.2	0.0124198
11550.5	0.013305
11560.8	0.0146066
11570.1	0.0158248
11580.4	0.0188457
11590.8	0.023651
11600	0.0271201
11610.4	0.031725
11620.7	0.0364789
11631	0.0416126
11640.3	0.0466146
11650.6	0.0523347
11660.9	0.0584802
11670.2	0.0643143
11680.5	0.070797
11690.8	0.0772011
11700.1	0.0829415
11710.4	0.0890816
11720.8	0.0948556
11730	0.0996403
11740.4	0.104432
11750.7	0.108597
11761	0.111975
11770.3	0.114289
11780.6	0.116181
11790.9	0.11757
11800.2	0.118538
11810.6	0.119384
11820.9	0.120045
11830.3	0.120558
11840.6	0.121091
11850.9	0.121573
11860.3	0.121935
11870.6	0.122266
11881	0.122575
11890.3	0.122887
11900.6	0.123306
11911	0.123813
11920.3	0.124325
11930.6	0.12491
11941	0.12546
11950.3	0.125903
11960.7	0.12633
11970	0.126648
11980.4	0.126918
11990.7	0.127101
