THREADS	MTPS	TIMESTEPS	TIMESTEP_SIZE	SECONDS_FOR_SIMULATION	AVERAGE_TRIANGLES	AVERAGE_PARTITIONS
80	67.795	100	0.000491318	28.0949	1.90469e+07	1158.74
79	69.3203	100	0.000491318	27.4767	1.90469e+07	1158.74
78	68.5197	100	0.000491318	27.7977	1.90469e+07	1158.74
77	67.7361	100	0.000491318	28.1193	1.90469e+07	1158.74
76	67.8493	100	0.000491318	28.0724	1.90469e+07	1158.74
75	67.9322	100	0.000491318	28.0381	1.90469e+07	1158.74
74	67.9458	100	0.000491318	28.0325	1.90469e+07	1158.74
73	64.6908	100	0.000491318	29.443	1.90469e+07	1158.74
72	65.0956	100	0.000491318	29.2599	1.90469e+07	1158.74
71	64.4692	100	0.000491318	29.5442	1.90469e+07	1158.74
70	63.6587	100	0.000491318	29.9203	1.90469e+07	1158.74
69	65.4928	100	0.000491318	29.0824	1.90469e+07	1158.74
68	64.9505	100	0.000491318	29.3253	1.90469e+07	1158.74
67	63.2114	100	0.000491318	30.1321	1.90469e+07	1158.74
66	65.5745	100	0.000491318	29.0462	1.90469e+07	1158.74
65	63.8841	100	0.000491318	29.8148	1.90469e+07	1158.74
64	62.0144	100	0.000491318	30.7137	1.90469e+07	1158.74
63	62.5436	100	0.000491318	30.4538	1.90469e+07	1158.74
62	61.3025	100	0.000491318	31.0703	1.90469e+07	1158.74
61	61.0445	100	0.000491318	31.2017	1.90469e+07	1158.74
60	61.2218	100	0.000491318	31.1113	1.90469e+07	1158.74
59	59.9539	100	0.000491318	31.7692	1.90469e+07	1158.74
58	60.8404	100	0.000491318	31.3064	1.90469e+07	1158.74
57	59.5823	100	0.000491318	31.9674	1.90469e+07	1158.74
56	59.6181	100	0.000491318	31.9482	1.90469e+07	1158.74
55	58.3977	100	0.000491318	32.6159	1.90469e+07	1158.74
54	58.5119	100	0.000491318	32.5522	1.90469e+07	1158.74
53	57.0182	100	0.000491318	33.405	1.90469e+07	1158.74
52	56.5271	100	0.000491318	33.6952	1.90469e+07	1158.74
51	56.1744	100	0.000491318	33.9067	1.90469e+07	1158.74
50	55.2745	100	0.000491318	34.4587	1.90469e+07	1158.74
49	55.8805	100	0.000491318	34.0851	1.90469e+07	1158.74
48	57.1661	100	0.000491318	33.3185	1.90469e+07	1158.74
47	58.9305	100	0.000491318	32.321	1.90469e+07	1158.74
46	61.1491	100	0.000491318	31.1483	1.90469e+07	1158.74
45	63.1174	100	0.000491318	30.1769	1.90469e+07	1158.74
44	61.9116	100	0.000491318	30.7647	1.90469e+07	1158.74
43	62.8432	100	0.000491318	30.3086	1.90469e+07	1158.74
42	64.6899	100	0.000491318	29.4434	1.90469e+07	1158.74
41	65.5488	100	0.000491318	29.0576	1.90469e+07	1158.74
40	64.7435	100	0.000491318	29.419	1.90469e+07	1158.74
39	64.1252	100	0.000491318	29.7027	1.90469e+07	1158.74
38	63.8161	100	0.000491318	29.8465	1.90469e+07	1158.74
37	62.538	100	0.000491318	30.4565	1.90469e+07	1158.74
36	61.2772	100	0.000491318	31.0832	1.90469e+07	1158.74
35	59.9759	100	0.000491318	31.7576	1.90469e+07	1158.74
34	56.9677	100	0.000491318	33.4346	1.90469e+07	1158.74
33	55.8868	100	0.000491318	34.0813	1.90469e+07	1158.74
32	55.6916	100	0.000491318	34.2007	1.90469e+07	1158.74
31	51.1486	100	0.000491318	37.2384	1.90469e+07	1158.74
30	50.7727	100	0.000491318	37.5141	1.90469e+07	1158.74
29	49.5846	100	0.000491318	38.413	1.90469e+07	1158.74
28	47.7911	100	0.000491318	39.8545	1.90469e+07	1158.74
27	48.4245	100	0.000491318	39.3332	1.90469e+07	1158.74
26	45.8037	100	0.000491318	41.5838	1.90469e+07	1158.74
25	44.4356	100	0.000491318	42.864	1.90469e+07	1158.74
24	42.7678	100	0.000491318	44.5356	1.90469e+07	1158.74
23	40.9564	100	0.000491318	46.5053	1.90469e+07	1158.74
22	39.5346	100	0.000491318	48.1779	1.90469e+07	1158.74
21	36.7454	100	0.000491318	51.8349	1.90469e+07	1158.74
20	34.6491	100	0.000491318	54.9709	1.90469e+07	1158.74
19	33.6632	100	0.000491318	56.5808	1.90469e+07	1158.74
18	32.7733	100	0.000491318	58.1172	1.90469e+07	1158.74
17	31.5137	100	0.000491318	60.4401	1.90469e+07	1158.74
16	30.6918	100	0.000491318	62.0587	1.90469e+07	1158.74
15	29.3728	100	0.000491318	64.8454	1.90469e+07	1158.74
14	26.3377	100	0.000491318	72.3181	1.90469e+07	1158.74
13	25.0399	100	0.000491318	76.0661	1.90469e+07	1158.74
12	22.9759	100	0.000491318	82.8994	1.90469e+07	1158.74
11	21.2143	100	0.000491318	89.7834	1.90469e+07	1158.74
10	18.8512	100	0.000491318	101.038	1.90469e+07	1158.74
9	17.8724	100	0.000491318	106.572	1.90469e+07	1158.74
8	16.7333	100	0.000491318	113.826	1.90469e+07	1158.74
7	15.4183	100	0.000491318	123.534	1.90469e+07	1158.74
6	13.9067	100	0.000491318	136.962	1.90469e+07	1158.74
5	12.1612	100	0.000491318	156.62	1.90469e+07	1158.74
4	10.1455	100	0.000491318	187.737	1.90469e+07	1158.74
3	7.73774	100	0.000491318	246.156	1.90469e+07	1158.74
2	5.25526	100	0.000491318	362.435	1.90469e+07	1158.74
1	2.66256	100	0.000491318	715.362	1.90469e+07	1158.74
