%%MatrixMarket matrix array complex general
4 4
0.5 0
-0.5 0
-0.258819045 0
0.965925826 0
0.5 0
-0.5 0
0.965925826 0
0.258819045 0
0.5 0
0.5 0
-0.258819045 0
0.965925826 0
0.5 0
0.5 0
0.965925826 0
0.258819045 0
