%%MatrixMarket matrix array complex general
4 4
1.41421356 0
1.41421356 0
1.41421356 0
1.41421356 0
-1.41421356 0
-1.41421356 0
1.41421356 0
1.41421356 0
2.73205081 0
-0.732050808 0
2.73205081 0
-0.732050808 0
-0.732050807 0
-2.73205081 0
-0.732050807 0
-2.73205081 0
