0	0
29.4649	0
58.9283	0
88.3922	0
117.856	0
147.321	0
176.785	0
206.25	0
235.715	0
265.181	-9.09495e-13
294.648	-9.09495e-12
324.114	-3.54703e-11
351.407	-9.3678e-11
378.699	-2.02817e-10
405.991	-3.79259e-10
433.283	-6.27551e-10
460.576	-9.26775e-10
487.868	-1.20417e-09
515.16	-1.31422e-09
542.348	-1.00863e-09
569.537	8.8221e-11
596.725	2.51566e-09
623.913	7.01766e-09
651.101	1.45901e-08
678.289	2.65436e-08
705.476	4.45816e-08
732.664	7.08987e-08
759.851	1.07239e-07
786.915	1.55123e-07
813.979	2.16656e-07
841.042	2.93232e-07
868.106	3.86105e-07
895.169	4.96687e-07
922.232	6.26767e-07
949.296	7.78688e-07
976.359	9.55516e-07
1003.42	1.16122e-06
1030.48	1.40088e-06
1057.55	1.68097e-06
1084.61	2.00964e-06
1111.67	2.39711e-06
1138.73	2.8561e-06
1165.8	3.40196e-06
1192.86	4.05281e-06
1219.92	4.8296e-06
1246.98	5.75626e-06
1274.04	6.85995e-06
1301.11	8.17141e-06
1328.17	9.72523e-06
1355.23	1.15604e-05
1382.29	1.37212e-05
1409.35	1.62771e-05
1436.41	1.93229e-05
1463.47	2.29144e-05
1490.54	2.70872e-05
1517.6	3.18713e-05
1544.66	3.72995e-05
1571.72	4.34141e-05
1598.78	5.02722e-05
1625.84	5.79485e-05
1652.9	6.65391e-05
1679.96	7.61641e-05
1707.02	8.69703e-05
1734.09	9.91319e-05
1761.15	0.000112847
1788.21	0.00012824
1815.27	0.000145417
1842.33	0.000164484
1869.39	0.000185566
1896.46	0.000208815
1923.52	0.000234418
1950.58	0.000262604
1977.64	0.000293659
2004.71	0.000327937
2031.77	0.00036585
2058.83	0.000357155
2085.9	0.000354727
2112.96	0.000357339
2140.02	0.000364187
2167.09	0.000374769
2194.15	0.000388825
2221.22	0.000406289
2248.28	0.000427247
2275.34	0.000451911
2302.41	0.000480597
2328.97	0.000513111
2355.54	0.000550383
2382.11	0.000592959
2408.68	0.000641446
2435.25	0.000696767
2461.82	0.00075739
2488.39	0.000822764
2514.95	0.000892852
2541.52	0.000967942
2568.09	0.0010486
2594.66	0.0011356
2621.23	0.00123005
2647.79	0.00133332
2674.36	0.00144718
2700.93	0.00157329
2727.5	0.00171328
2754.07	0.00186878
2780.63	0.00223815
2807.2	0.00261142
2833.77	0.00297187
2860.34	0.00332103
2886.91	0.00367103
2913.47	0.00403766
2940.04	0.00443683
2966.61	0.00488428
2993.17	0.0053969
3019.74	0.00594586
3046.31	0.00653595
3072.88	0.00717601
3099.44	0.0078864
3126.01	0.00966548
3152.58	0.0113811
3179.14	0.0128196
3205.71	0.0143097
3232.28	0.0162354
3258.85	0.0187507
3285.41	0.0218881
3311.98	0.0297267
3338.55	0.0358547
3365.11	0.0420957
3391.68	0.0490769
3418.25	0.0566277
3444.82	0.0645766
3471.38	0.0728763
3497.95	0.0815512
3524.52	0.0906559
3551.09	0.100243
3577.65	0.110297
3604.22	0.120779
3630.79	0.131739
3657.36	0.143243
3683.92	0.155336
3710.49	0.168014
3737.06	0.181228
3763.63	0.194898
3790.2	0.208935
3816.77	0.223239
3843.34	0.237703
3869.9	0.252206
3896.47	0.266613
3923.04	0.280782
3949.61	0.294567
3976.23	0.307832
4002.84	0.320374
4029.46	0.331995
4056.08	0.342477
4082.7	0.351589
4109.31	0.359098
4135.93	0.364771
4162.55	0.368386
4189.17	0.369741
4215.79	0.368657
4242.4	0.36499
4269.02	0.358629
4295.64	0.349502
4322.74	0.337364
4349.84	0.322331
4376.94	0.30444
4404.03	0.283778
4431.13	0.260512
4458.23	0.234753
4485.33	0.206713
4512.43	0.176823
4539.53	0.144489
4566.63	0.111027
4593.73	0.0775961
4620.83	0.0455765
4647.93	0.00296082
4675.03	-0.0234801
4702.13	-0.0504405
4729.23	-0.0737605
4756.33	-0.0934532
4783.43	-0.0830448
4810.53	-0.0942153
4837.63	-0.106201
4864.73	-0.11587
4891.83	-0.128396
4918.93	-0.137848
4946.03	-0.145832
4973.13	-0.153011
5000.23	-0.15998
5027.33	-0.166489
5054.43	-0.171645
5081.72	-0.17573
5109.01	-0.179074
5136.2	-0.181903
5163.39	-0.184367
5190.57	-0.186545
5217.76	-0.181759
5244.95	-0.182846
5272.14	-0.184574
5299.2	-0.185664
5326.27	-0.1861
5353.33	-0.186022
5380.39	-0.185562
5407.46	-0.184835
5434.52	-0.183923
5461.58	-0.182875
5488.65	-0.181713
5515.71	-0.18045
5542.77	-0.179093
5569.84	-0.177649
5596.9	-0.176127
5623.97	-0.174694
5651.03	-0.173254
5678.09	-0.171738
5705.16	-0.170136
5732.22	-0.168531
5759.28	-0.166916
5786.35	-0.165282
5813.41	-0.163618
5840.47	-0.161911
5867.54	-0.160153
5894.6	-0.158333
5921.66	-0.156444
5948.73	-0.154479
5975.79	-0.156518
6002.85	-0.155465
6029.92	-0.154279
6056.98	-0.152585
6084.05	-0.150819
6111.11	-0.148973
6138.17	-0.147039
6165.24	-0.145002
6192.3	-0.142858
6219.36	-0.140636
6246.43	-0.138355
6273.49	-0.136021
6300.55	-0.13364
6327.62	-0.131209
6354.68	-0.128727
6381.74	-0.126186
6408.81	-0.123584
6435.87	-0.120913
6462.93	-0.118168
6490	-0.115344
6517.06	-0.112438
6544.12	-0.109449
6571.19	-0.103677
6598.25	-0.0980531
6625.32	-0.0927288
6652.38	-0.0876952
6679.44	-0.0828812
6706.51	-0.0781987
6733.57	-0.0735676
6760.63	-0.0689252
6787.7	-0.0642265
6814.76	-0.0594431
6841.82	-0.0545603
6868.89	-0.0496541
6895.95	-0.0448257
6923.01	-0.0400906
6950.08	-0.0354202
6977.14	-0.030756
7004.2	-0.0260345
7031.27	-0.0162893
7058.33	-0.00837168
7085.4	-0.00223552
7112.46	0.00330828
7139.52	0.00906992
7166.59	0.0151958
7193.65	0.0214923
7220.71	0.0310331
7247.78	0.0377216
7274.84	0.0446146
7301.9	0.050739
7328.97	0.055968
7356.03	0.0600747
7383.09	0.0630497
7410.16	0.0650031
7437.22	0.066073
7463.79	0.0663653
7490.36	0.0660093
7516.93	0.0650252
7543.49	0.0636337
7570.06	0.0618832
7596.63	0.0599112
7623.2	0.0578383
7649.77	0.055737
7676.34	0.0536263
7702.91	0.0514987
7729.47	0.0493437
7756.04	0.0471591
7782.61	0.04495
7809.18	0.0427248
7835.75	0.0404938
7862.32	0.0382694
7888.88	0.0360758
7915.45	0.0339418
7942.02	0.0318885
7968.59	0.0299178
7995.16	0.0280111
8021.73	0.0261362
8048.29	0.0242563
8074.86	0.0223373
8101.43	0.0203532
8128	0.0182823
8154.57	0.0158328
8181.14	0.0130932
8207.7	0.00873701
8234.27	0.00616311
8260.84	0.00378781
8287.41	0.00173471
8313.98	0.00202182
8340.55	0.000457756
8367.11	-0.000718686
8393.68	-0.00220811
8420.25	-0.00381595
8446.82	-0.00513589
8473.39	-0.00637301
8499.96	-0.0076068
8526.52	-0.00892631
8553.09	-0.0103912
8579.66	-0.011557
8606.23	-0.0123134
8632.8	-0.0129153
8659.37	-0.0134041
8685.93	-0.013816
8712.5	-0.0113497
8739.07	-0.00976345
8765.64	-0.0105246
8792.21	-0.011195
8818.78	-0.0117978
8845.35	-0.0122841
8871.91	-0.0126986
8898.48	-0.0130698
8925.05	-0.0134187
8951.62	-0.0137558
8978.19	-0.0143902
9004.76	-0.014919
9031.32	-0.0153768
9057.89	-0.0157705
9084.46	-0.0161068
9111.03	-0.0163944
9137.6	-0.0168174
9164.17	-0.0171379
9190.73	-0.0173711
9217.3	-0.0175292
9243.87	-0.017622
9270.44	-0.0176576
9297.01	-0.0176334
9323.58	-0.0175606
9350.14	-0.0174493
9376.71	-0.0173066
9403.28	-0.0152967
9429.85	-0.0152144
9456.42	-0.0149707
9482.99	-0.0147223
9509.56	-0.0144671
9536.12	-0.0142035
9562.69	-0.0139303
9589.26	-0.0136465
9615.83	-0.013359
9642.4	-0.0130705
9668.97	-0.0127771
9695.53	-0.0124683
9722.1	-0.0121445
9748.67	-0.0118077
9775.24	-0.0114596
9801.81	-0.0111017
9828.38	-0.0107358
9854.95	-0.0103629
9881.51	-0.00998381
9908.08	-0.00959915
9934.65	-0.00920938
9961.22	-0.00882559
9987.79	-0.00844543
10014.4	-0.00806708
10040.9	-0.0076891
10067.5	-0.00731038
10094.1	-0.00693034
10120.6	-0.00654845
10147.2	-0.00616428
10173.8	-0.00577757
10200.3	-0.00538818
10226.9	-0.00499606
10253.5	-0.00460127
10280	-0.00420395
10306.7	-0.00362375
10333.3	-0.00307269
10359.9	-0.00254672
10386.5	-0.00204243
10413.1	-0.00155704
10439.7	-0.00108823
10466.4	-0.000634464
10493	-0.000194403
10519.6	0.000233123
10546.2	0.000649096
10572.8	0.00105433
10599.9	0.00145662
10627	0.00184895
10654.1	0.0022317
10681.2	0.00260498
10708.3	0.00296871
10735.4	0.00332263
10762.5	0.00366637
10789.6	0.0039995
10816.7	0.00432153
10843.8	0.00463198
10870.9	0.00493036
10898	0.0052162
10925.1	0.00548906
10953	0.00575603
10980.9	0.00600842
11008.8	0.00624023
11036.7	0.00650307
11064.6	0.00673783
11092.4	0.00694626
11120.3	0.00712992
11148.2	0.00729033
11176.1	0.00742815
11204.7	0.0075488
11233.4	0.00764802
11262	0.00772598
11290.7	0.00778297
11319.3	0.00781936
11348	0.00783559
11376.6	0.00783219
11405.2	0.00780976
11433.9	0.00776869
11463.9	0.00770668
11494	0.00762554
11524	0.00752612
11554	0.0074094
11584.1	0.00727636
11614.1	0.00712805
11644.1	0.00696553
11674.3	0.00678905
11704.5	0.00660036
11733.8	0.00640618
11763.1	0.00620243
11792.4	0.00598999
11821.7	0.00576974
11851	0.0055425
11880.4	0.00530906
11909.7	0.00507018
11939	0.00482656
11968.3	0.00457886
11997.6	0.00432772
