0	0
12.1109	0
21.7996	0
31.4882	0
41.1767	0
50.8651	0
60.5535	0
70.2417	0
82.352	0
92.0401	0
101.728	0
111.416	0
121.104	0
130.792	0
140.465	0
150.092	0
162.04	0
171.553	0
181.07	0
190.592	0
200.111	0
212.009	0
221.527	0
231.045	0
240.54	0
250.027	1.81899e-12
261.886	6.36646e-12
271.377	1.00044e-11
280.869	1.36424e-11
290.362	1.72804e-11
302.227	2.63753e-11
311.72	3.36513e-11
321.212	4.45652e-11
330.704	5.72982e-11
340.196	7.36691e-11
352.062	9.91349e-11
361.554	1.2551e-10
371.025	1.56433e-10
380.517	1.94632e-10
392.264	2.5284e-10
401.638	3.08319e-10
411.012	3.74712e-10
420.386	4.52928e-10
431.982	5.67525e-10
441.158	6.74845e-10
450.334	7.97627e-10
461.823	9.76797e-10
471.031	1.14414e-09
480.245	1.33514e-09
491.713	1.60981e-09
500.786	1.8581e-09
512.105	2.21098e-09
521.16	2.53203e-09
530.195	2.88946e-09
541.487	3.39423e-09
550.516	3.84989e-09
561.783	4.49018e-09
570.795	5.06498e-09
582.065	5.86897e-09
591.093	6.58838e-09
600.121	7.38146e-09
611.405	8.4874e-09
620.433	9.47148e-09
631.718	1.08403e-08
640.745	1.20563e-08
652.03	1.37388e-08
661.058	1.52213e-08
670.085	1.68293e-08
681.369	1.90212e-08
690.396	2.09238e-08
701.661	2.34895e-08
710.653	2.56932e-08
721.892	2.86491e-08
730.892	3.11802e-08
742.141	3.45499e-08
751.14	3.74057e-08
760.138	4.04016e-08
771.386	4.43351e-08
780.384	4.76257e-08
791.631	5.19067e-08
800.629	5.54573e-08
811.877	6.00412e-08
820.875	6.38156e-08
832.123	6.86541e-08
841.121	7.26141e-08
850.119	7.66449e-08
861.366	8.17736e-08
870.364	8.59427e-08
881.612	9.12287e-08
890.61	9.55133e-08
901.857	1.00935e-07
910.855	1.05324e-07
922.102	1.10876e-07
931.1	1.15375e-07
940.098	1.19927e-07
951.345	1.25705e-07
960.343	1.30408e-07
971.59	1.36405e-07
980.588	1.41317e-07
991.835	1.47626e-07
1000.83	1.52837e-07
1012.08	1.59593e-07
1021.08	1.65227e-07
1030.08	1.71103e-07
1041.32	1.78842e-07
1050.32	1.854e-07
1061.57	1.94132e-07
1070.57	2.01609e-07
1081.81	2.11664e-07
1090.81	2.20354e-07
1102.06	2.3214e-07
1111.05	2.42404e-07
1120.05	2.53499e-07
1131.3	2.68676e-07
1140.3	2.81984e-07
1151.54	3.00251e-07
1160.54	3.16308e-07
1171.79	3.3838e-07
1180.79	3.57795e-07
1192.03	3.84487e-07
1201.03	4.07955e-07
1210.03	4.3347e-07
1221.27	4.68491e-07
1230.27	4.99218e-07
1241.52	5.41314e-07
1250.52	5.78173e-07
1261.76	6.2856e-07
1270.76	6.72578e-07
1282.01	7.32601e-07
1291	7.84894e-07
1302.19	8.55702e-07
1311.14	9.17167e-07
1320.08	9.83262e-07
1331.28	1.07301e-06
1340.25	1.15082e-06
1351.46	1.25605e-06
1360.43	1.347e-06
1371.65	1.46993e-06
1380.62	1.57654e-06
1391.8	1.72027e-06
1400.74	1.84417e-06
1411.92	2.01035e-06
1420.84	2.15224e-06
1431.99	2.34131e-06
1440.9	2.50191e-06
1452.08	2.71538e-06
1461.02	2.89596e-06
1472.17	3.13376e-06
1481.11	3.33447e-06
1490.05	3.54441e-06
1501.23	3.82014e-06
1510.17	4.05166e-06
1521.34	4.35522e-06
1530.28	4.60966e-06
1541.45	4.94314e-06
1550.39	5.22266e-06
1561.43	5.5842e-06
1570.2	5.885e-06
1581.16	6.27876e-06
1590.05	6.6131e-06
1601.14	7.05094e-06
1612.2	7.51092e-06
1621.04	7.89711e-06
1632.1	8.40391e-06
1640.95	8.82973e-06
1652	9.38908e-06
1660.85	9.85948e-06
1671.91	1.04779e-05
1680.75	1.09985e-05
1691.81	1.16834e-05
1700.66	1.22602e-05
1711.71	1.30196e-05
1720.56	1.36595e-05
1731.62	1.45022e-05
1740.46	1.52125e-05
1751.52	1.61476e-05
1760.36	1.69348e-05
1771.42	1.79694e-05
1780.27	1.88387e-05
1791.32	1.99787e-05
1800.17	2.09343e-05
1811.23	2.21848e-05
1820.07	2.32303e-05
1831.11	2.4594e-05
1842.15	2.60238e-05
1850.98	2.72169e-05
1862.03	2.87715e-05
1870.87	3.00664e-05
1881.92	3.17507e-05
1890.76	3.31522e-05
1901.81	3.49736e-05
1910.65	3.6488e-05
1921.7	3.84548e-05
1930.54	4.00894e-05
1941.59	4.22117e-05
1950.43	4.39751e-05
1961.48	4.62644e-05
1970.32	4.81664e-05
1981.37	5.06358e-05
1990.21	5.26876e-05
2001.26	5.53518e-05
2010.1	5.75658e-05
2021.14	6.0441e-05
2032.19	6.34409e-05
2041.03	6.59346e-05
2052.08	6.91738e-05
2060.92	7.18669e-05
2071.97	7.53661e-05
2080.81	7.82759e-05
2091.86	7.87427e-05
2100.7	7.75615e-05
2111.75	7.63662e-05
2120.59	7.56203e-05
2131.64	7.49334e-05
2140.48	7.45684e-05
2151.53	7.43282e-05
2160.36	7.42988e-05
2171.41	7.44537e-05
2180.25	7.47231e-05
2191.3	7.52324e-05
2200.14	7.5772e-05
2211.19	7.66049e-05
2220.03	7.73937e-05
2231.08	7.8528e-05
2242.13	7.9823e-05
2250.97	8.09727e-05
2262.02	8.25498e-05
2270.86	8.39228e-05
2281.9	8.57779e-05
2290.74	8.73735e-05
2301.79	8.95084e-05
2310.63	9.13302e-05
2321.68	9.3752e-05
2330.52	9.58076e-05
2341.57	9.85281e-05
2350.41	0.000100829
2361.46	0.000103864
2370.29	0.000106423
2381.34	0.000109792
2390.18	0.000112627
2401.23	0.000116352
2410.07	0.000119481
2421.12	0.000123588
2432.17	0.000127918
2441.01	0.000131549
2452.05	0.000136302
2460.87	0.000140283
2471.92	0.000145494
2480.76	0.000149834
2491.77	0.000155439
2500.56	0.00016006
2511.55	0.000166012
2520.34	0.000170915
2531.35	0.000177222
2540.15	0.000182403
2551.16	0.000189051
2562.17	0.000195892
2570.97	0.000201508
2581.98	0.000208713
2590.78	0.000214631
2601.79	0.000222231
2610.6	0.00022848
2621.6	0.000236515
2630.41	0.000243131
2641.42	0.00025165
2650.22	0.000258677
2661.23	0.000267741
2670.04	0.000275231
2681.04	0.000284909
2692.05	0.000294959
2700.85	0.000303282
2711.86	0.000314059
2720.67	0.000322991
2731.67	0.000334565
2740.48	0.000344165
2751.49	0.000356607
2760.29	0.000366929
2771.29	0.000380296
2780.07	0.000391369
2791.05	0.000405727
2802.02	0.000420681
2810.8	0.000433093
2821.78	0.000449193
2830.56	0.000467121
2841.54	0.000506916
2850.32	0.000538669
2861.3	0.000578117
2870.08	0.000609433
2881.06	0.000648262
2892.03	0.000686771
2900.82	0.000717394
2911.79	0.000755527
2920.57	0.000785993
2931.55	0.000824144
2940.33	0.000854818
2951.31	0.000893489
2960.09	0.000924799
2971.07	0.000964552
2982.04	0.00100516
2990.83	0.00103838
3001.8	0.00108099
3010.58	0.00111604
3021.56	0.00116122
3030.34	0.00119855
3041.32	0.00124663
3050.1	0.00128604
3061.08	0.00133636
3072.05	0.00138776
3080.84	0.00142965
3091.81	0.00148303
3100.59	0.00152661
3111.57	0.00158233
3120.35	0.00162802
3131.33	0.00168673
3140.11	0.00173516
3151.09	0.00179777
3162.06	0.00186297
3170.84	0.00191718
3181.82	0.00198773
3190.6	0.00204658
3201.58	0.00212337
3210.36	0.00218759
3221.34	0.00233192
3230.12	0.0024749
3241.09	0.00264492
3252.07	0.00280677
3260.85	0.00293205
3271.83	0.00308583
3280.61	0.00320849
3291.59	0.00336386
3300.37	0.00349151
3311.34	0.0036574
3320.12	0.00379571
3331.1	0.00397403
3342.08	0.00415779
3350.86	0.00430918
3361.83	0.0045054
3370.61	0.00466957
3381.59	0.00488628
3390.37	0.00507057
3401.35	0.005368
3410.13	0.0057703
3421.11	0.00625329
3432.08	0.0067249
3440.86	0.00710735
3451.84	0.00760847
3460.62	0.00803016
3471.6	0.00857204
3480.38	0.00902358
3491.35	0.00963114
3500.13	0.0106038
3511.11	0.0116377
3522.09	0.0127173
3530.87	0.013678
3541.84	0.0153459
3550.62	0.0173369
3561.6	0.020181
3570.38	0.02483
3581.36	0.0296908
3590.14	0.0333273
3601.12	0.0376196
3612.09	0.0416302
3620.87	0.0447854
3631.85	0.048674
3640.63	0.051748
3651.61	0.0556287
3660.39	0.0587949
3671.36	0.0627653
3680.14	0.0658874
3691.12	0.069701
3702.1	0.0734711
3710.88	0.0764994
3721.85	0.0803295
3730.63	0.083442
3741.61	0.0873966
3750.39	0.0905946
3761.37	0.094595
3770.15	0.0977755
3781.13	0.101724
3792.1	0.105665
3800.88	0.108831
3811.86	0.112827
3820.64	0.116069
3831.62	0.120184
3840.4	0.123528
3851.37	0.127763
3860.16	0.131192
3871.13	0.135535
3882.11	0.139956
3890.89	0.143561
3901.87	0.148165
3910.65	0.151929
3921.62	0.156731
3930.41	0.160644
3941.38	0.16562
3950.16	0.169667
3961.14	0.174817
3972.12	0.180087
3980.9	0.184409
3991.88	0.189969
4000.66	0.194562
4011.64	0.200506
4020.42	0.20544
4031.42	0.21187
4040.22	0.217236
4051.23	0.224249
4060.04	0.230128
4071.04	0.237848
4082.05	0.246016
4090.85	0.252899
4101.86	0.261966
4110.67	0.269611
4121.67	0.279684
4130.48	0.288178
4141.49	0.29937
4150.29	0.308806
4161.3	0.321235
4170.11	0.331708
4181.12	0.345488
4192.15	0.360053
4200.96	0.372273
4212	0.388287
4220.88	0.401744
4231.98	0.419276
4240.86	0.433855
4251.96	0.452736
4260.9	0.468442
4272.11	0.488693
4281.07	0.505304
4290.04	0.522218
4301.25	0.543704
4310.23	0.561093
4321.45	0.582946
4330.42	0.600426
4341.64	0.622128
4350.62	0.639258
4361.84	0.660212
4370.82	0.676478
4382.04	0.696002
4391.01	0.710827
4402.23	0.728163
4411.21	0.740919
4420.18	0.752545
4431.4	0.765284
4440.38	0.773877
4451.6	0.782403
4460.57	0.787289
4471.79	0.790769
4480.77	0.791301
4491.99	0.788963
4500.97	0.784563
4512.19	0.775744
4521.16	0.765936
4530.14	0.753607
4541.36	0.734572
4550.33	0.7164
4561.55	0.689975
4570.53	0.665866
4581.75	0.632048
4590.73	0.602092
4601.95	0.561105
4610.92	0.525563
4622.14	0.477822
4631.12	0.43708
4640.09	0.394162
4651.31	0.337577
4660.29	0.290044
4671.51	0.227889
4680.49	0.176019
4691.71	0.10854
4700.68	0.0534964
4711.9	-0.017039
4720.88	-0.0562298
4732.1	-0.0733339
4741.07	-0.0983216
4750.05	-0.120868
4761.27	-0.142956
4770.25	-0.157594
4781.47	-0.164951
4790.45	-0.178937
4801.67	-0.192483
4810.64	-0.201579
4821.87	-0.21137
4830.84	-0.217861
4842.07	-0.225654
4851.04	-0.231588
4860.03	-0.237159
4871.28	-0.230666
4880.28	-0.233405
4891.52	-0.240725
4900.52	-0.245995
4911.77	-0.251536
4920.77	-0.255269
4932.02	-0.259261
4941.01	-0.262035
4950.01	-0.264531
4961.26	-0.267361
4970.26	-0.2691
4981.5	-0.271197
4990.5	-0.27267
5001.75	-0.274522
5010.75	-0.275981
5022	-0.277745
5030.99	-0.279088
5042.24	-0.28066
5051.24	-0.281825
5060.24	-0.282828
5071.48	-0.275557
5080.48	-0.276635
5091.73	-0.278307
5100.73	-0.27971
5111.98	-0.281233
5120.97	-0.282258
5132.22	-0.283306
5141.22	-0.283981
5150.22	-0.284529
5161.46	-0.285045
5170.46	-0.285335
5181.71	-0.285561
5190.71	-0.28564
5201.95	-0.285627
5210.91	-0.285536
5222.09	-0.285334
5231.03	-0.285108
5242.23	-0.284755
5251.2	-0.284403
5260.17	-0.283973
5271.38	-0.283404
5280.35	-0.282933
5291.57	-0.282319
5300.54	-0.281664
5311.75	-0.280834
5320.69	-0.280163
5331.88	-0.279309
5340.82	-0.278614
5352	-0.277728
5360.94	-0.277007
5372.09	-0.276088
5381.01	-0.275339
5392.14	-0.274385
5401.08	-0.273606
5410.02	-0.272816
5421.18	-0.271811
5430.12	-0.270984
5441.29	-0.269932
5450.23	-0.264462
5461.41	-0.263968
5470.35	-0.263564
5481.52	-0.263049
5490.46	-0.262629
5501.63	-0.262096
5510.57	-0.261662
5521.7	-0.26111
5530.47	-0.260667
5541.46	-0.260103
5550.34	-0.259641
5561.43	-0.259058
5570.27	-0.258588
5581.33	-0.257996
5590.18	-0.257518
5601.23	-0.256916
5610.08	-0.25643
5621.14	-0.255817
5632.19	-0.255197
5641.04	-0.254696
5652.1	-0.254062
5660.94	-0.253546
5672	-0.25289
5680.84	-0.252353
5691.9	-0.251665
5700.75	-0.2511
5711.8	-0.250372
5720.65	-0.249773
5731.71	-0.249005
5740.55	-0.248375
5751.61	-0.247568
5760.45	-0.246906
5771.49	-0.24606
5780.32	-0.245366
5791.36	-0.244475
5800.2	-0.243745
5811.24	-0.242866
5820.07	-0.242142
5831.12	-0.241196
5842.17	-0.240206
5851.01	-0.239384
5862.06	-0.238319
5870.9	-0.237437
5881.95	-0.23619
5890.79	-0.235164
5901.84	-0.233846
5910.68	-0.232766
5921.73	-0.231383
5930.57	-0.230252
5941.62	-0.228807
5950.46	-0.227629
5961.51	-0.226127
5970.35	-0.224903
5981.4	-0.223347
5990.24	-0.222082
6001.29	-0.220476
6010.12	-0.219172
6021.17	-0.217519
6030.01	-0.21618
6041.06	-0.214485
6052.11	-0.212769
6060.95	-0.211381
6072	-0.209628
6080.84	-0.208213
6091.89	-0.206642
6100.73	-0.205594
6111.78	-0.204221
6120.62	-0.203079
6131.67	-0.201608
6140.51	-0.200401
6151.56	-0.198862
6160.4	-0.197608
6171.45	-0.196015
6180.28	-0.194722
6191.33	-0.193075
6200.17	-0.191734
6211.22	-0.190031
6220.06	-0.188649
6231.11	-0.186899
6242.16	-0.185127
6251	-0.183693
6262.05	-0.181883
6270.89	-0.18042
6281.94	-0.178575
6290.78	-0.177087
6301.83	-0.17521
6310.67	-0.173696
6321.72	-0.171793
6330.56	-0.170266
6341.6	-0.168358
6350.44	-0.166836
6361.49	-0.164939
6370.33	-0.163428
6381.38	-0.161548
6390.22	-0.160049
6401.27	-0.158181
6410.11	-0.15669
6421.16	-0.154828
6432.21	-0.152963
6441.05	-0.151468
6452.1	-0.149591
6460.94	-0.148081
6471.99	-0.146181
6480.83	-0.144649
6491.88	-0.142717
6500.71	-0.141156
6511.75	-0.137793
6520.59	-0.134931
6531.64	-0.131518
6540.48	-0.128908
6551.48	-0.12579
6560.27	-0.12338
6571.25	-0.120441
6580.05	-0.118125
6591.06	-0.115249
6602.07	-0.112374
6610.87	-0.110058
6621.88	-0.107135
6630.69	-0.104788
6641.69	-0.101857
6650.5	-0.0995173
6661.51	-0.0965898
6670.31	-0.0942346
6681.32	-0.0912555
6690.13	-0.0888308
6701.13	-0.0852371
6712.14	-0.0797955
6720.95	-0.075616
6731.95	-0.0706104
6740.76	-0.0667059
6751.77	-0.0618403
6760.57	-0.0578981
6771.58	-0.0528715
6780.38	-0.0488477
6791.39	-0.0438739
6800.2	-0.0398889
6811.2	-0.033302
6820.01	-0.0270175
6831.02	-0.0199531
6842.02	-0.0126747
6850.83	-0.00666101
6861.84	0.00397036
6870.64	0.0127984
6881.65	0.0286766
6890.45	0.041803
6901.46	0.0543284
6910.27	0.0620768
6921.27	0.0690341
6930.07	0.0728291
6941.04	0.0760919
6952.02	0.0780649
6960.8	0.0791259
6971.78	0.0804313
6980.56	0.0815316
6991.54	0.0826219
7000.32	0.0830648
7011.3	0.0831476
7020.08	0.083077
7031.05	0.0831163
7042.03	0.0834469
7050.81	0.0839512
7061.79	0.0848411
7070.57	0.0856466
7081.55	0.0865423
7090.33	0.0870318
7101.31	0.0873041
7110.09	0.0872904
7121.06	0.0870692
7132.04	0.086699
7140.82	0.0863416
7151.8	0.0858631
7160.58	0.0854675
7171.56	0.0849391
7180.34	0.0844703
7191.32	0.0838342
7200.1	0.0833276
7211.07	0.0827845
7222.05	0.0824243
7230.83	0.082288
7241.81	0.0822623
7250.59	0.0822814
7261.57	0.082228
7270.35	0.0820395
7281.33	0.0815557
7290.11	0.0809644
7301.08	0.0800134
7312.06	0.0789095
7320.84	0.0779786
7331.82	0.0768153
7340.6	0.0759092
7351.58	0.0748159
7360.36	0.073972
7371.34	0.0729612
7380.12	0.0722047
7391.09	0.0713644
7402.07	0.070695
7410.85	0.0703159
7421.83	0.0700595
7430.61	0.0700259
7441.59	0.0701723
7450.37	0.0704106
7461.35	0.0708179
7470.13	0.0712056
7481.1	0.0717458
7492.08	0.0723391
7500.86	0.0728535
7511.84	0.073553
7520.62	0.0741633
7531.6	0.0749954
7540.38	0.0757195
7551.36	0.0767006
7560.14	0.0775469
7571.11	0.07868
7582.09	0.079889
7590.87	0.0809001
7601.85	0.0821982
7610.63	0.0832454
7621.61	0.0845379
7630.39	0.08554
7641.37	0.0867325
7650.15	0.0876283
7661.12	0.088669
7672.1	0.0896206
7680.88	0.0903202
7691.86	0.0911227
7700.64	0.0917119
7711.62	0.0923904
7720.4	0.092894
7731.38	0.093486
7740.16	0.093939
7751.13	0.0944919
7762.11	0.0950407
7770.89	0.0954812
7781.87	0.0960334
7790.65	0.0964729
7801.63	0.0970108
7810.41	0.0974247
7821.39	0.0979136
7830.17	0.0982781
7841.14	0.0987001
7852.12	0.0990892
7860.9	0.0993828
7871.88	0.0997368
7880.66	0.100016
7891.64	0.100369
7900.42	0.100656
7911.4	0.101022
7920.18	0.101318
7931.16	0.101683
7942.13	0.102026
7950.91	0.10227
7961.89	0.102515
7970.67	0.102645
7981.65	0.1027
7990.43	0.102641
8001.41	0.102418
8010.19	0.102111
8021.17	0.101556
8032.14	0.10081
8040.92	0.100079
8051.9	0.0990078
8060.68	0.098035
8071.66	0.096691
8080.44	0.0955271
8091.42	0.09398
8100.2	0.0926819
8111.18	0.0910003
8122.15	0.0892684
8130.94	0.0878558
8141.91	0.0860642
8150.69	0.0846145
8161.67	0.0827852
8170.45	0.0813098
8181.43	0.0794527
8190.21	0.0779586
8201.19	0.0760841
8212.16	0.0742082
8220.95	0.0727121
8231.92	0.0708567
8240.7	0.0693912
8251.68	0.0675929
8260.46	0.0661881
8271.44	0.0644822
8280.23	0.0631612
8291.24	0.0615658
8300.04	0.0603374
8311.05	0.0588586
8322.05	0.0574364
8330.86	0.0563321
8341.87	0.0549822
8350.67	0.053917
8361.68	0.0525898
8370.49	0.0515209
8381.49	0.0501623
8390.3	0.0490481
8401.31	0.0476108
8410.11	0.0464193
8421.12	0.0448727
8432.13	0.0432601
8440.93	0.0419232
8451.94	0.0401971
8460.74	0.0387768
8471.75	0.0369604
8480.56	0.0354812
8491.56	0.0336097
8500.37	0.0321021
8511.38	0.0302133
8520.19	0.0287058
8531.21	0.0268334
8540.02	0.0253489
8551.05	0.0235138
8562.07	0.0217044
8570.89	0.0202747
8581.91	0.018506
8590.73	0.0170993
8601.75	0.0153348
8610.57	0.0138961
8621.59	0.0120118
8630.46	0.00957339
8641.56	0.00715996
8650.44	0.00370236
8661.54	-0.000771003
8670.42	-0.00181002
8681.52	-0.00631671
8690.39	-0.0097724
8701.49	-0.0134722
8710.37	-0.0161673
8721.47	-0.0193435
8730.35	-0.0216931
8741.45	-0.0244585
8750.33	-0.02244
8761.43	-0.0243939
8770.31	-0.0267655
8781.41	-0.0294998
8790.29	-0.031373
8801.39	-0.0334527
8810.27	-0.034975
8821.37	-0.0367615
8830.25	-0.038144
8841.35	-0.0397102
8850.23	-0.040929
8861.33	-0.0424149
8870.21	-0.0435736
8881.31	-0.0449826
8890.19	-0.0460763
8901.29	-0.0473987
8910.17	-0.0484189
8921.27	-0.0496454
8930.15	-0.049096
8941.25	-0.0503828
8950.13	-0.051286
8961.23	-0.0522785
8970.11	-0.052978
8981.21	-0.0537527
8990.09	-0.0543051
9001.19	-0.0549257
9010.07	-0.0553757
9021.17	-0.0558906
9030.05	-0.0562716
9041.15	-0.0567208
9050.03	-0.057101
9061.13	-0.0575933
9070	-0.0579719
9081.1	-0.0583737
9092.23	-0.0586994
9101.17	-0.0589712
9110.11	-0.0592497
9121.27	-0.0596033
9130.21	-0.0598888
9141.38	-0.0602453
9150.32	-0.0605281
9161.5	-0.0608759
9170.44	-0.061148
9181.61	-0.0614783
9190.55	-0.0617337
9201.73	-0.0620403
9210.66	-0.0622747
9221.84	-0.0578681
9230.78	-0.0581948
9241.89	-0.0585858
9250.66	-0.0588823
9261.63	-0.0592363
9270.42	-0.0595036
9281.52	-0.0598199
9290.4	-0.0600513
9301.49	-0.0603138
9310.34	-0.0605037
9321.39	-0.0607183
9330.24	-0.0608728
9341.29	-0.0610457
9350.14	-0.0611687
9361.2	-0.0613026
9370.04	-0.0613946
9381.1	-0.0614915
9392.16	-0.0615695
9401	-0.061619
9412.06	-0.0616657
9420.91	-0.0616916
9431.96	-0.0617084
9440.81	-0.0617087
9451.87	-0.0616931
9460.71	-0.0616681
9471.77	-0.0616218
9480.62	-0.0615731
9491.67	-0.0614983
9500.52	-0.061428
9511.58	-0.0613284
9520.42	-0.0612397
9531.48	-0.0611151
9540.32	-0.0610051
9551.38	-0.0608221
9560.23	-0.0606676
9571.28	-0.0604654
9580.13	-0.060297
9591.19	-0.060079
9600.03	-0.0599622
9611.09	-0.0598307
9622.15	-0.0596868
9630.99	-0.0595633
9642.05	-0.0593994
9650.9	-0.0592613
9661.94	-0.0590806
9670.77	-0.0589301
9681.81	-0.0587347
9690.64	-0.0585731
9701.69	-0.0583647
9710.53	-0.0581933
9721.58	-0.0579735
9730.42	-0.0577934
9741.47	-0.0575636
9750.31	-0.0573762
9761.36	-0.0571377
9770.2	-0.0569436
9781.25	-0.0566971
9790.09	-0.0564969
9801.14	-0.056243
9812.19	-0.0559851
9821.03	-0.0557759
9832.08	-0.0555108
9840.92	-0.055296
9851.96	-0.0550239
9860.8	-0.0548034
9871.85	-0.0549319
9880.69	-0.0547333
9891.74	-0.0544833
9900.58	-0.0542819
9911.63	-0.0540279
9920.47	-0.0538229
9931.52	-0.053564
9940.36	-0.0533548
9951.41	-0.0530903
9960.25	-0.0528764
9971.3	-0.052606
9980.14	-0.0523873
9991.19	-0.0521107
10000	-0.0518868
10011.1	-0.0516035
10022.1	-0.0513162
10031	-0.0510835
10042	-0.0507887
10050.9	-0.0505496
10061.9	-0.0502451
10070.7	-0.0477229
10081.8	-0.0473256
10090.6	-0.0470053
10101.7	-0.0466019
10110.5	-0.0462766
10121.6	-0.0458669
10130.4	-0.0455367
10141.5	-0.0451209
10150.3	-0.0447858
10161.3	-0.044364
10170.2	-0.0440734
10181.2	-0.0437266
10190.1	-0.0434458
10201.1	-0.0430905
10212.2	-0.0427304
10221	-0.0424389
10232.1	-0.04207
10240.9	-0.0417714
10252	-0.0413936
10260.8	-0.0410879
10271.8	-0.0407013
10280.7	-0.0403889
10291.7	-0.0399937
10300.6	-0.039674
10311.6	-0.0392715
10320.4	-0.038947
10331.3	-0.0385372
10340.1	-0.0382061
10351.1	-0.0377873
10362.1	-0.0373641
10371	-0.0370224
10382	-0.0365915
10390.8	-0.036244
10401.8	-0.035809
10410.6	-0.0354609
10421.6	-0.0350252
10430.4	-0.0346761
10441.4	-0.0342387
10450.2	-0.0338878
10461.2	-0.0334478
10470	-0.0330947
10481	-0.0326519
10492	-0.0322072
10500.8	-0.0318503
10511.8	-0.0314024
10520.7	-0.0310428
10531.7	-0.0305918
10540.5	-0.0302297
10551.5	-0.0297755
10560.3	-0.0294111
10571.3	-0.0289544
10580.1	-0.0285884
10591.1	-0.02813
10602.1	-0.0276708
10610.9	-0.0273029
10621.9	-0.0268426
10630.7	-0.026474
10641.7	-0.026013
10650.5	-0.0256441
10661.5	-0.0251538
10670.3	-0.0247304
10681.4	-0.0242076
10690.2	-0.0237946
10701.2	-0.0232847
10712.2	-0.0227816
10721	-0.0223839
10732	-0.0218926
10740.8	-0.0215041
10751.8	-0.0210241
10760.6	-0.0206443
10771.6	-0.0201749
10780.4	-0.0198035
10791.4	-0.0193442
10800.2	-0.0189808
10811.2	-0.0185316
10820	-0.0181767
10831	-0.0177387
10842	-0.017306
10850.8	-0.0169637
10861.7	-0.0165405
10870.5	-0.0162056
10881.5	-0.0157915
10890.3	-0.0154637
10901.3	-0.0150581
10910	-0.0147371
10921	-0.0143398
10932	-0.0139469
10940.8	-0.0136357
10951.8	-0.0132504
10960.5	-0.0129451
10971.5	-0.0125682
10980.3	-0.0122714
10991.3	-0.0118932
11000.1	-0.011588
11011	-0.0112245
11022	-0.0108775
11030.8	-0.0106098
11041.8	-0.0102851
11050.5	-0.010032
11061.5	-0.00972208
11070.3	-0.00947836
11081.3	-0.00917881
11090.1	-0.00894524
11101	-0.00866033
11112	-0.00838223
11120.8	-0.00816387
11131.8	-0.00789504
11140.6	-0.00768253
11151.5	-0.00741912
11160.3	-0.00720952
11171.3	-0.00694808
11180.1	-0.00673885
11191.1	-0.00647671
11202	-0.00621321
11210.8	-0.00600121
11221.8	-0.0057347
11230.6	-0.00552023
11241.5	-0.00525041
11250.3	-0.005033
11261.3	-0.00475901
11270.1	-0.00453785
11281.1	-0.00425866
11292	-0.0039762
11300.8	-0.00374774
11311.8	-0.00345892
11320.6	-0.00322589
11331.6	-0.00293905
11340.3	-0.00271282
11351.3	-0.00243216
11360.1	-0.0022081
11371.1	-0.00192721
11382.1	-0.00164409
11390.8	-0.00141527
11401.8	-0.000967933
11410.6	-0.000594515
11421.6	-0.00011844
11430.4	0.000264998
11441.3	0.000743501
11450.1	0.00112402
11461.1	0.00159579
11472.1	0.0020631
11480.8	0.002434
11491.8	0.00289371
11500.6	0.00325775
11511.6	0.00370801
11520.4	0.00406492
11531.3	0.00450819
11540.1	0.00486161
11551.1	0.00530847
11562.1	0.00576142
11570.9	0.00612651
11581.8	0.00658485
11590.6	0.00695264
11601.6	0.00741348
11610.4	0.00819433
11621.3	0.00929292
11630.1	0.0101023
11641.1	0.0110193
11652.1	0.0118345
11660.9	0.0124203
11671.8	0.0130928
11680.6	0.0136048
11691.6	0.0142134
11700.4	0.0149659
11711.4	0.0157263
11720.1	0.0162583
11731.1	0.0169
11742.1	0.0174929
11750.9	0.0183551
11761.9	0.0195284
11770.6	0.0212018
11781.6	0.0230995
11790.4	0.0242686
11801.4	0.0257214
11810.2	0.026899
11821.1	0.0284063
11832.1	0.0299565
11840.9	0.0312108
11851.9	0.0328302
11860.6	0.0341901
11871.6	0.0359741
11880.4	0.0374589
11891.4	0.0393701
11900.2	0.0409465
11911.2	0.0429872
11920	0.0446696
11931.1	0.0468034
11942.1	0.0489215
11950.9	0.0505691
11961.9	0.0525375
11970.7	0.0540298
11981.7	0.0557976
11990.5	0.0571466
