0	0	353244
10.9753	0	376700
20.938	0	391970
30.8999	0	405438
40.8619	0	417498
50.809	0	426670
60.6497	0	433436
70.4588	0	439026
80.2663	0	444492
90.023	0	449182
100.644	0	453442
110.257	0	456696
120.831	0	460058
130.45	0	463286
140.106	0	466632
150.776	0	469926
160.418	0	472854
170.115	0	475506
180.952	0	478988
190.959	0	481598
200.094	0	483970
210.26	0	486796
220.426	0	489670
230.592	0	492580
240.759	0	495096
250.942	0	497800
260.124	0	500446
270.324	0	503246
280.521	0	506114
290.718	0	508622
300.915	0	511084
310.093	0	513860
320.29	0	517030
330.473	0	520450
340.65	0	524048
350.818	0	527692
360.984	0	531436
370.133	0	534884
380.298	0	538860
390.463	0	542636
400.629	0	545762
410.799	0	549438
420.973	0	553278
430.129	0	556642
440.302	0	560244
450.476	0	563860
460.65	0	567776
470.823	0	571506
480.997	0	575602
490.153	0	578680
500.304	0	582342
510.376	0	585814
520.37	0	589270
530.34	0	593152
540.304	0	596836
550.268	0	600500
560.236	0	603956
570.209	0	607668
580.197	0	611520
590.189	0	615342
600.19	0	619564
610.193	0	623388
620.206	0	627256
630.247	0	631292
640.447	0	635138
650.724	0	639172
661.02	0	643312
670.261	0	647530
680.517	0	651988
690.773	0	656216
700.011	0	660310
710.282	0	664894
720.552	0	669434
730.823	0	673930
740.067	0	678192
750.323	0	682686
760.566	0	687100
770.808	0	691656
780.025	0	695674
790.267	0	700202
800.509	0	704750
810.742	0	709586
820.953	0	714022
830.135	0	718468
840.335	0	723286
850.533	0	727958
860.73	0	732776
870.927	0	737394
880.104	0	741658
890.301	0	746132
900.498	0	751102
910.695	0	755924
920.88	0	760702
930.041	0	765608
940.215	0	770690
950.381	0	775762
960.547	0	780542
970.714	0	785902
980.881	0	790948
990.031	0	795338
1000.2	0	801088
1010.36	0	806164
1020.53	0	811440
1030.7	0	816742
1040.87	0	821652
1050.02	0	826206
1060.18	0	831514
1070.35	0	837134
1080.52	0	842370
1090.69	0	847868
1100.85	0	853324
1110	0	858046
1120.17	0	863358
1130.34	0	868714
1140.51	0	873800
1150.68	0	878568
1160.84	0	883726
1171.01	0	888642
1180.16	0	892596
1190.33	0	897904
1200.5	0	902714
1210.67	0	907450
1220.84	0	912418
1231.01	0	917016
1240.16	0	921646
1250.33	0	926282
1260.5	0	931224
1270.67	0	935472
1280.84	0	939904
1291.01	0	944512
1300.16	0	948812
1310.33	0	953678
1320.5	0	958288
1330.66	0	963150
1340.83	0	967856
1351	0	972760
1360.15	0	977242
1370.28	0	982074
1380.31	0	986334
1390.29	0	990788
1400.26	0	995218
1410.22	0	999738
1420.18	0	1004724
1430.15	0	1009256
1440.11	0	1014020
1450.08	0	1018918
1460.04	0	1024020
1470	0	1028974
1480.96	0	1034732
1490.93	0	1039900
1500.89	4.54747e-12	1045056
1510.85	1.00044e-11	1049538
1520.81	1.54614e-11	1054198
1530.78	2.18279e-11	1058618
1540.74	2.81943e-11	1061996
1550.7	3.72893e-11	1065710
1560.66	4.63842e-11	1069044
1570.62	5.54792e-11	1072278
1580.59	6.45741e-11	1075646
1590.55	7.7307e-11	1079396
1600.51	9.54969e-11	1082826
1610.47	1.13687e-10	1086722
1620.44	1.36424e-10	1090410
1630.4	1.63709e-10	1093704
1640.36	1.95541e-10	1097222
1650.32	2.3374e-10	1101096
1660.28	2.80124e-10	1104434
1670.25	3.36513e-10	1107894
1680.21	4.03816e-10	1111512
1690.17	4.83851e-10	1115354
1700.13	5.79348e-10	1118872
1710.1	6.93035e-10	1122584
1720.06	8.2764e-10	1126560
1730.02	9.87711e-10	1129692
1740.98	1.1978e-09	1133160
1750.94	1.42518e-09	1136684
1760.9	1.69348e-09	1139928
1770.87	2.00816e-09	1143280
1780.83	2.37833e-09	1146258
1790.79	2.81034e-09	1149530
1800.75	3.31784e-09	1152782
1810.72	3.91174e-09	1156212
1820.68	4.60204e-09	1159818
1830.64	5.40513e-09	1163236
1840.6	6.33736e-09	1167004
1850.57	7.41784e-09	1170436
1860.53	8.67294e-09	1174040
1870.53	1.01245e-08	1177206
1880.54	1.18016e-08	1180686
1890.7	1.37661e-08	1184296
1900.92	1.60462e-08	1187370
1910.14	1.83991e-08	1190950
1920.5	2.14177e-08	1194178
1930.84	2.48856e-08	1197420
1940.12	2.84308e-08	1200270
1950.42	3.29128e-08	1203334
1960.72	3.80396e-08	1206704
1970	4.32747e-08	1209798
1980.31	4.98703e-08	1212750
1990.62	5.73773e-08	1216230
2000.93	6.59074e-08	1219556
2010.21	7.45695e-08	1222362
2020.54	8.54379e-08	1225344
2030.85	9.77134e-08	1228568
2040.13	1.10118e-07	1231164
2050.44	1.25568e-07	1234474
2060.74	1.42976e-07	1237542
2070.05	1.60575e-07	1240556
2080.43	1.82504e-07	1243916
2090.88	2.073e-07	1247352
2100.21	2.31972e-07	1250712
2110.62	2.62649e-07	1254218
2120.02	2.93484e-07	1257618
2130.48	3.31564e-07	1260816
2140.93	3.74058e-07	1264764
2150.33	4.16417e-07	1267998
2160.74	4.68369e-07	1271284
2170.03	5.1956e-07	1274414
2180.35	5.82347e-07	1277764
2190.66	6.51746e-07	1281254
2200.98	7.28566e-07	1285064
2210.29	8.04788e-07	1288036
2220.65	8.97928e-07	1291776
2230.97	1.00013e-06	1295072
2240.24	1.10071e-06	1298378
2250.56	1.2231e-06	1300584
2260.86	1.35739e-06	1303422
2270.15	1.48945e-06	1306044
2280.48	1.64957e-06	1308169
2290.82	1.82503e-06	1310607
2300.11	1.99658e-06	1312933
2310.42	2.20361e-06	1314503
2320.73	2.42937e-06	1317183
2330.02	2.64976e-06	1319653
2340.34	2.91538e-06	1322145
2350.68	3.20442e-06	1324311
2361.03	3.51872e-06	1326471
2370.35	3.82473e-06	1329229
2380.7	4.1914e-06	1331589
2391.01	4.58677e-06	1333865
2400.29	4.97001e-06	1335697
2410.64	5.43031e-06	1337397
2420.02	5.87891e-06	1339103
2430.38	6.41117e-06	1340957
2440.68	6.98156e-06	1343091
2450.99	7.59531e-06	1344355
2460.26	8.18704e-06	1346231
2470.6	8.89289e-06	1348419
2480.94	9.65099e-06	1350122
2490.25	1.03801e-05	1352132
2500.69	1.12539e-05	1354536
2510.04	1.20889e-05	1357326
2520.35	1.30696e-05	1359944
2530.66	1.41181e-05	1363016
2541.01	1.52428e-05	1366124
2550.29	1.63136e-05	1368726
2560.59	1.75772e-05	1371906
2570.9	1.89229e-05	1375164
2580.2	2.02113e-05	1378644
2590.53	2.17284e-05	1382384
2600.85	2.33391e-05	1385450
2610.16	2.48764e-05	1388192
2620.49	2.66817e-05	1392040
2630.82	2.85937e-05	1395384
2640.1	3.04107e-05	1398844
2650.46	3.25501e-05	1402278
2660.8	3.4807e-05	1405445
2670.12	3.69537e-05	1408611
2680.48	3.94695e-05	1412129
2690.83	4.21198e-05	1416073
2700.12	4.46254e-05	1418905
2710.5	4.75693e-05	1422211
2720.86	5.06659e-05	1425341
2730.15	5.3582e-05	1427663
2740.48	5.69825e-05	1430291
2750.81	6.05633e-05	1432561
2760.21	6.39774e-05	1435281
2770.59	6.79343e-05	1437999
2780.94	7.20724e-05	1440123
2790.26	7.59767e-05	1443179
2800.77	8.05833e-05	1445115
2810.23	8.49238e-05	1447677
2820.64	8.99214e-05	1449981
2830.07	9.46532e-05	1452081
2840.55	0.000100145	1454693
2851.05	0.000105904	1457019
2860.51	0.000111324	1459163
2871.01	0.000117605	1461511
2880.49	0.000123518	1463649
2891.03	0.000130375	1466357
2900.43	0.000136744	1468469
2910.95	0.000144173	1470911
2920.41	0.000151131	1473557
2930.74	0.000159041	1476429
2940.1	0.000166493	1479491
2950.46	0.000175075	1482703
2960.83	0.000184014	1485861
2970.26	0.00019247	1489201
2980.62	0.000202117	1492391
2990.97	0.000212149	1496153
3000.25	0.000221483	1499284
3010.56	0.000232234	1502560
3020.86	0.000243411	1506040
3030.16	0.000253878	1509018
3040.48	0.000265903	1511864
3050.83	0.00027844	1513728
3060.19	0.000290193	1516288
3070.59	0.000303725	1519454
3080.95	0.000317725	1522282
3090.43	0.000330988	1524844
3101	0.000346314	1528017
3110.48	0.000360557	1530741
3120	0.000375352	1533349
3130.97	0.000392997	1536399
3141.01	0.000409766	1539415
3150.65	0.000426415	1542345
3160.75	0.000444442	1545540
3170.87	0.000463153	1548594
3180.99	0.000482515	1551548
3191.12	0.00050256	1554626
3200.12	0.000520953	1557424
3210.26	0.000542345	1560088
3220.4	0.000564468	1562950
3230.54	0.000587341	1565848
3240.63	0.000610874	1569058
3250.7	0.000635137	1572082
3260.76	0.000660206	1575289
3270.83	0.000686106	1577909
3280.9	0.000712863	1581079
3290.97	0.000740502	1584151
3301.04	0.000769053	1586676
3310.84	0.000797744	1589596
3320.3	0.000826332	1591846
3330.85	0.0008592	1594508
3340.6	0.000890604	1597041
3350.3	0.00092281	1599555
3361.04	0.000959677	1602755
3370.71	0.000993947	1605199
3380.38	0.00102928	1607966
3390.05	0.00106571	1610338
3400.8	0.00110752	1613422
3410.47	0.0011464	1616110
3420.18	0.00118664	1618452
3431.06	0.00123324	1621973
3440.91	0.00127691	1624843
3450.73	0.00132183	1628173
3460.51	0.00136804	1631241
3470.11	0.00141484	1633501
3480.67	0.00146794	1636571
3490.14	0.00151709	1639106
3500.66	0.0015734	1642040
3510.11	0.00162551	1645359
3520.57	0.00168502	1648431
3530.97	0.0017461	1651923
3540.33	0.00180281	1654738
3550.73	0.00186792	1658126
3560.08	0.00192853	1661118
3570.48	0.00199834	1664293
3580.97	0.0020716	1667545
3590.55	0.00214114	1670476
3600.13	0.002213	1673398
3610.76	0.00229461	1677004
3620.33	0.00236887	1680012
3630.96	0.00245203	1683060
3640.53	0.00252797	1685923
3650.09	0.00260572	1688443
3660.72	0.00269524	1691857
3670.32	0.00277968	1695075
3681.01	0.00287878	1698030
3690.63	0.00297328	1701006
3700.25	0.00307357	1703656
3710.96	0.0031929	1706598
3720.62	0.00331925	1709572
3730.31	0.00345281	1712174
3741.03	0.00360302	1715794
3750.56	0.00373627	1718243
3761.04	0.00388595	1721027
3770.48	0.00402804	1724017
3781	0.00420063	1727313
3790.38	0.00436683	1730233
3800.82	0.00456534	1733444
3810.27	0.00476295	1736386
3820.78	0.0050912	1740037
3830.24	0.00556191	1743253
3840.77	0.00603345	1746786
3850.29	0.00641548	1750289
3860.86	0.00680396	1753625
3870.37	0.00713388	1756653
3880.95	0.00749172	1760139
3890.44	0.00781502	1763024
3900.98	0.0081847	1766417
3910.42	0.00851752	1769021
3920.8	0.00887364	1771866
3930.14	0.00919473	1774572
3940.52	0.0095727	1777408
3950.89	0.00999216	1780279
3960.23	0.0104163	1782592
3970.62	0.0109473	1785242
3981.04	0.0115463	1788026
3990.44	0.0124538	1790250
4000.87	0.0134711	1792027
4010.32	0.0143703	1793768
4020.81	0.0153991	1795872
4030.25	0.0163658	1798412
4040.73	0.0174663	1800942
4050.17	0.0185149	1803364
4060.66	0.0197786	1806757
4070.1	0.021004	1809463
4080.64	0.0224455	1812024
4090.14	0.0237838	1814632
4100.7	0.0253451	1817862
4110.17	0.0267639	1820561
4120.62	0.0284037	1823004
4130.02	0.0301337	1825379
4140.47	0.0324816	1827792
4150.92	0.0351792	1829850
4160.31	0.0379238	1831862
4170.74	0.0410561	1834560
4180.11	0.0438398	1836872
4190.47	0.0466907	1839775
4200.91	0.0516923	1842937
4210.35	0.0564583	1845394
4220.88	0.0622194	1848567
4230.33	0.0677405	1851163
4240.79	0.0739593	1854279
4250.21	0.0799265	1856819
4260.67	0.0948971	1859725
4270.09	0.105236	1862179
4280.55	0.117167	1865021
4290.98	0.133709	1868438
4300.32	0.152024	1871121
4310.7	0.174861	1874130
4320.03	0.197013	1877356
4330.41	0.222078	1880711
4340.78	0.248113	1883703
4350.14	0.292213	1886672
4360.54	0.344492	1890121
4370.96	0.428307	1893883
4380.33	0.508257	1897640
4390.74	0.593213	1901600
4400.13	0.669012	1904711
4410.54	0.75183	1908899
4420.91	0.834155	1912326
4430.19	0.907004	1915208
4440.5	0.985164	1918643
4450.81	1.05972	1921819
4460.09	1.12229	1924456
4470.4	1.18735	1927455
4480.72	1.24685	1930726
4490.04	1.29584	1933941
4500.41	1.34429	1937589
4510.78	1.3866	1940837
4520.1	1.41939	1943822
4530.47	1.4492	1947295
4540.8	1.47076	1950124
4550.09	1.48287	1952970
4560.4	1.48664	1956064
4570.71	1.48091	1958719
4581.03	1.46842	1961334
4590.32	1.45157	1964033
4600.68	1.42782	1966845
4610.06	1.4022	1969598
4620.49	1.36076	1971280
4630.93	1.30873	1973243
4640.36	1.24302	1975961
4650.78	1.14965	1978409
4660.16	1.06078	1980207
4670.58	0.961171	1982644
4680.99	0.860547	1985444
4690.35	0.77029	1987183
4700.76	0.669626	1989911
4710.12	0.581334	1992106
4720.52	0.485402	1994882
4730.93	0.392031	1997520
4740.29	0.310619	2000008
4750.71	0.223736	2002698
4760.1	0.148641	2004938
4770.52	0.0689597	2008029
4780.86	-0.00535616	2009996
4790.18	-0.06824	2012357
4800.68	-0.133595	2014628
4810.17	-0.187842	2016867
4820.55	-0.241967	2020019
4830.91	-0.291131	2022503
4840.24	-0.331557	2024753
4850.71	-0.373104	2027806
4860.11	-0.407597	2030009
4870.56	-0.443479	2032336
4880.91	-0.477395	2034717
4890.18	-0.506993	2036339
4900.48	-0.539575	2038529
4910.83	-0.57222	2040553
4920.12	-0.601585	2042840
4930.6	-0.634726	2045443
4940.95	-0.667199	2048388
4950.25	-0.695699	2051065
4960.66	-0.726335	2054192
4970.02	-0.752413	2057102
4980.39	-0.779329	2060333
4990.95	-0.80416	2063398
5000.5	-0.823812	2066227
5010.05	-0.840345	2068781
5020.58	-0.854547	2072060
5031.01	-0.864338	2074625
5040.49	-0.86494	2077066
5051.02	-0.86205	2080269
5060.52	-0.85905	2082912
5070.87	-0.855106	2085569
5080.27	-0.850978	2088063
5091.08	-0.845379	2090486
5100.8	-0.839446	2093268
5110.53	-0.832777	2095758
5120.27	-0.825122	2098336
5130.05	-0.81624	2101297
5140.93	-0.804961	2104485
5150.73	-0.793427	2107510
5160.54	-0.773275	2110011
5170.41	-0.755433	2113083
5180.38	-0.733414	2115919
5190.39	-0.71062	2118742
5200.43	-0.686756	2121715
5210.47	-0.66127	2124598
5220.51	-0.639449	2127612
5230.55	-0.598745	2130382
5240.59	-0.556202	2132842
5250.39	-0.519562	2134854
5260.98	-0.479975	2137437
5270.38	-0.447175	2139135
5280.9	-0.41131	2141566
5290.38	-0.380044	2143402
5300.78	-0.347237	2145760
5310.05	-0.318587	2147479
5320.35	-0.288246	2149515
5330.71	-0.258641	2152109
5340.09	-0.23289	2154480
5350.45	-0.205368	2156602
5360.8	-0.179058	2158801
5370.17	-0.156357	2161315
5380.59	-0.132531	2164269
5391.05	-0.110227	2166491
5400.48	-0.0914149	2168693
5410.97	-0.0721571	2171224
5420.42	-0.0564028	2173269
5430.82	-0.0408399	2175252
5440.19	-0.0282038	2177946
5450.59	-0.0158155	2180483
5460.98	-0.00629849	2182688
5470.29	0.000782038	2184864
5480.62	0.00468762	2186965
5490.08	0.00705664	2189472
5500.93	0.0103189	2191536
5510.42	0.0109989	2193787
5520.84	0.0119964	2196947
5530.22	0.0127214	2198843
5540.74	0.0133322	2201402
5550.43	0.0135763	2203029
5560.71	0.0135487	2205604
5570.1	0.0133393	2207535
5580.54	0.0129683	2209597
5590.76	0.0124767	2211792
5601.07	0.0118228	2213136
5610.24	0.0110987	2214769
5620.56	0.0101458	2216251
5630.47	0.00913078	2218136
5640.93	0.00799938	2220180
5650.71	0.00698035	2222054
5660.63	0.00679092	2223371
5670.95	0.00602862	2225427
5680.12	0.00355415	2227139
5690.43	0.000752441	2228823
5700.75	-0.00173662	2231102
5711.05	-0.00418326	2233143
5720.18	-0.00653195	2234893
5730.5	-0.00937138	2236923
5740.76	-0.0122803	2239019
5750.44	-0.0150545	2240936
5760.01	-0.0178712	2243175
5770.59	-0.021137	2244539
5780.14	-0.0242483	2245753
5790.84	-0.0279203	2247760
5800.33	-0.0313378	2249541
5810.82	-0.0352921	2251473
5820.31	-0.0390264	2253361
5830.73	-0.0432988	2254476
5840.11	-0.0473006	2255909
5850.42	-0.0518651	2257643
5860.74	-0.0566132	2259876
5870.15	-0.0610934	2261903
5880.61	-0.0662442	2263808
5890.02	-0.071034	2265591
5900.48	-0.0765193	2267357
5910.92	-0.082127	2269652
5920.27	-0.0872673	2272090
5930.6	-0.0930682	2274641
5940.93	-0.0989811	2277163
5950.28	-0.104405	2278930
5960.79	-0.110568	2280702
5970.17	-0.116107	2282691
5980.64	-0.122285	2284858
5990.04	-0.127795	2286642
6000.48	-0.133827	2288679
6010.93	-0.139722	2290628
6020.37	-0.144901	2292503
6030.95	-0.150482	2294923
6040.55	-0.15528	2297625
6050.03	-0.159718	2299709
6060.59	-0.164237	2301963
6070.1	-0.167868	2304098
6080.67	-0.171325	2307261
6090.32	-0.173875	2309961
6101	-0.175973	2313134
6110.57	-0.177188	2315414
6120.41	-0.177769	2318617
6131.03	-0.177605	2321466
6140.64	-0.176731	2324332
6150.47	-0.175133	2328013
6160.44	-0.172847	2330857
6170.09	-0.170054	2333965
6180.81	-0.166343	2337878
6190.52	-0.162466	2341047
6200.25	-0.158107	2344486
6211.01	-0.152768	2348623
6220.91	-0.147402	2351840
6230.59	-0.141775	2354549
6240.16	-0.135889	2357277
6250.88	-0.12896	2360297
6260.73	-0.122336	2362532
6270.67	-0.115447	2365717
6280.64	-0.108369	2368652
6290.41	-0.101314	2371439
6300.06	-0.0942458	2373894
6310.71	-0.0863561	2376511
6320.4	-0.0791132	2379253
6330.93	-0.0712184	2382189
6340.33	-0.0641874	2384694
6350.76	-0.0564578	2386729
6360.23	-0.0495469	2388538
6370.72	-0.0420497	2390154
6380.15	-0.0354903	2392388
6390.57	-0.0284591	2394870
6400.99	-0.0216906	2397296
6410.38	-0.0158418	2399823
6420.85	-0.00961684	2402665
6430.25	-0.0043048	2405917
6440.75	0.00130791	2409277
6450.2	0.00604819	2412659
6460.64	0.0109445	2416609
6470.04	0.0150351	2419719
6480.49	0.019231	2423222
6491	0.0230671	2426503
6500.41	0.0261877	2429557
6510.83	0.0292958	2433088
6520.12	0.0317717	2436622
6530.43	0.0342089	2440282
6540.74	0.0363411	2443992
6550.11	0.0380318	2447035
6560.65	0.0396772	2450476
6570.03	0.0409384	2453815
6580.4	0.0422787	2456635
6590.8	0.0431834	2460826
6600.34	0.0438625	2464284
6610.95	0.0445428	2467366
6620.79	0.045076	2471134
6630.38	0.0455924	2474904
6640.96	0.0460776	2479392
6650.53	0.0464487	2482616
6660.99	0.0465207	2486554
6670.53	0.0469378	2489589
6680.09	0.0471934	2492921
6690.65	0.0476457	2495980
6700.12	0.047974	2499371
6710.63	0.0484957	2501947
6720.04	0.0488214	2504939
6730.49	0.0491587	2507300
6740.92	0.0495313	2510588
6750.3	0.0500599	2512297
6760.79	0.050476	2515506
6770.37	0.0505368	2517473
6780.99	0.0505704	2520709
6790.56	0.0505236	2523128
6800.05	0.0503905	2526136
6810.54	0.0500517	2528967
6821	0.0496057	2531526
6830.4	0.0490707	2534298
6840.89	0.0482955	2537534
6850.3	0.0474333	2540415
6860.76	0.0462822	2543285
6870.21	0.0450713	2546317
6880.75	0.0436276	2550218
6890.21	0.0420469	2553421
6900.68	0.0400951	2557332
6910.1	0.0379859	2560297
6920.6	0.0340094	2563469
6930.07	0.0304827	2566452
6940.61	0.0267684	2570641
6950.09	0.0235354	2574147
6960.61	0.0199395	2577620
6970.05	0.0166297	2581382
6980.52	0.0131149	2585012
6990.99	0.00917167	2588490
7000.44	0.00521788	2591484
7010.96	0.000816967	2595311
7020.44	-0.00364008	2597886
7030.95	-0.00822122	2600923
7040.39	-0.0118152	2604083
7050.08	-0.0153942	2607227
7060.79	-0.0192689	2610401
7070.29	-0.0225963	2612526
7080.84	-0.0261722	2615814
7090.34	-0.0292339	2618840
7100.89	-0.0324327	2622544
7110.31	-0.0351171	2625994
7120.82	-0.0379209	2628855
7130.6	-0.0403542	2632183
7140.29	-0.0426071	2635206
7150.52	-0.0448358	2639926
7160.03	-0.0467917	2643559
7170.52	-0.0488422	2647214
7181.01	-0.0507993	2650751
7190.48	-0.0525008	2653445
7200.01	-0.0541609	2656567
7210.63	-0.0559631	2659240
7220.22	-0.0575517	2661974
7230.2	-0.0591672	2664519
7240.19	-0.0607469	2668666
7250.12	-0.0622769	2672103
7260.23	-0.0637905	2675497
7270.37	-0.0652596	2678910
7280.51	-0.0666647	2681685
7290.65	-0.0679849	2684356
7300.79	-0.0691925	2687136
7310.93	-0.0702605	2689410
7321.07	-0.0711716	2693162
7330.08	-0.0718359	2694816
7340.18	-0.0723916	2698135
7350.06	-0.0726528	2700404
7361.1	-0.0728708	2702818
7370.12	-0.0726897	2705200
7380.06	-0.0725481	2707602
7390.1	-0.0718004	2711065
7400.12	-0.0710404	2713436
7410.16	-0.0701125	2716244
7420.23	-0.0689199	2718915
7430.35	-0.0675171	2720935
7440.39	-0.0659571	2723583
7450.45	-0.0642482	2726102
7460.3	-0.0624204	2729042
7470.96	-0.0602218	2731699
7480.53	-0.0580233	2734448
7490.1	-0.0556019	2736710
7500.46	-0.0527356	2739495
7510.8	-0.0496447	2742400
7520.08	-0.0466877	2745717
7530.4	-0.0432285	2748864
7541.02	-0.0394902	2751766
7550.86	-0.0358904	2754298
7560.25	-0.0323291	2756637
7570.66	-0.0282611	2759519
7580.52	-0.024288	2762481
7590.43	-0.0201402	2764845
7600.34	-0.0160189	2767569
7610.25	-0.011178	2770259
7620.16	-0.00567624	2773171
7630.07	-0.000461311	2775349
7641.08	0.00589318	2777480
7650.99	0.0112493	2780068
7660.9	0.0163159	2782144
7670.81	0.0213555	2784223
7680.72	0.0264903	2786276
7690.63	0.031692	2787314
7700.55	0.0368996	2789080
7710.6	0.0420742	2790112
7720.7	0.0471293	2791720
7730.82	0.0520928	2793827
7740.93	0.0570244	2795334
7751.05	0.061957	2797531
7760.04	0.0663481	2799312
7770.15	0.0712794	2802092
7780.28	0.0761654	2804375
7790.41	0.08096	2805986
7800.53	0.0856495	2808107
7810.64	0.0902593	2809612
7820.76	0.0948031	2811359
7830.87	0.0992689	2813173
7840.99	0.103623	2815623
7851.11	0.107827	2817710
7860.1	0.111417	2819217
7870.04	0.115214	2821601
7881.06	0.119204	2824056
7890.97	0.122592	2826514
7900.88	0.125777	2829106
7910.78	0.128744	2831693
7920.69	0.131478	2834868
7930.59	0.133966	2837665
7940.49	0.136199	2841145
7950.4	0.138169	2844335
7960.3	0.139874	2847290
7970.2	0.14131	2850303
7980.11	0.142481	2853344
7990.01	0.14339	2856740
8001.02	0.144103	2860103
8010.92	0.144489	2862725
8020.82	0.144648	2864849
8030.73	0.144599	2867520
8040.63	0.144365	2869867
8050.54	0.143961	2872699
8060.44	0.143398	2875541
8070.34	0.142694	2878169
8080.25	0.141874	2880296
8090.15	0.140964	2882473
8100.06	0.139991	2885081
8111.02	0.138863	2887373
8120.55	0.137858	2889545
8131.03	0.136744	2892313
8140.38	0.135754	2894768
8150.8	0.134661	2896645
8160.21	0.133686	2898909
8170.52	0.132639	2901060
8180.82	0.131618	2902947
8190.18	0.13072	2905246
8200.9	0.129728	2907572
8210.27	0.128891	2910420
8220.59	0.127994	2912774
8230.89	0.127081	2914979
8240.17	0.12624	2916751
8250.69	0.125369	2919030
8260.27	0.124624	2921034
8270.94	0.123764	2923409
8280.45	0.122916	2925390
8290.13	0.121962	2927198
8300.94	0.120784	2930020
8310.62	0.119612	2932165
8320.13	0.118339	2934897
8330.62	0.116778	2937799
8340.04	0.11522	2940052
8350.83	0.113255	2942929
8360.21	0.111381	2945119
8370.65	0.109119	2947704
8380.09	0.106908	2950013
8390.64	0.104253	2951960
8400.25	0.101674	2953799
8410.79	0.0986758	2955407
8420.24	0.0958477	2956760
8430.74	0.0925687	2958088
8440.21	0.0895075	2959627
8450.74	0.0860042	2961196
8460.19	0.0827893	2963376
8470.69	0.0791603	2964747
8480.09	0.0758807	2966529
8490.51	0.0722283	2968256
8500.04	0.0688956	2970287
8510.51	0.0652652	2972795
8520.95	0.0616987	2974092
8530.36	0.0585463	2976072
8540.81	0.0551309	2977076
8550.21	0.052147	2978588
8560.68	0.0489414	2980596
8570.2	0.0461506	2981996
8580.86	0.0431832	2983569
8590.58	0.0406403	2985016
8600.03	0.0383295	2986333
8610.48	0.0359605	2988217
8620.02	0.0339792	2989591
8630.62	0.0319692	2991010
8640.07	0.0303354	2993474
8650.53	0.028854	2995134
8660.98	0.0275035	2996314
8670.39	0.0262927	2997264
8680.88	0.0251379	2998549
8690.33	0.0242761	2999909
8700.91	0.0234675	3001645
8710.36	0.0228488	3003220
8720.83	0.0222485	3004916
8730.27	0.0219223	3006135
8740.75	0.0215351	3008019
8750.18	0.0210503	3009390
8760.76	0.0205672	3011349
8770.39	0.020177	3012470
8780.92	0.0197445	3014098
8790.4	0.0193111	3015361
8800.13	0.0188013	3016002
8810.25	0.0181853	3016621
8820.46	0.0174635	3017088
8830.67	0.0166273	3017918
8840.88	0.0156871	3018103
8851.09	0.0143134	3018664
8860.16	0.013242	3020110
8870.08	0.0120061	3021062
8880.69	0.0104817	3022971
8890.23	0.00895786	3023852
8900.79	0.00715417	3025582
8910.07	0.00545052	3026167
8920.4	0.0033967	3027334
8930.71	0.00118788	3029146
8940.07	-0.000945353	3030098
8950.57	-0.00346227	3030685
8960.03	-0.00583747	3031805
8970.5	-0.00857006	3032946
8980.95	-0.0114023	3033809
8990.39	-0.0140308	3034399
9000.99	-0.0170474	3035715
9010.49	-0.0197885	3036306
9020.98	-0.0228389	3036811
9030.5	-0.0256096	3037068
9040.98	-0.0286371	3037172
9050.27	-0.0312847	3038133
9060.65	-0.0341872	3038698
9070.04	-0.0367421	3039881
9080.56	-0.0395111	3040607
9090.86	-0.0421104	3041713
9100.15	-0.0443467	3042775
9110.62	-0.0467375	3043778
9120.1	-0.0487804	3045391
9130.65	-0.0509095	3047354
9140.24	-0.0527112	3049791
9150.56	-0.0545127	3051142
9160.88	-0.0561751	3053634
9170.21	-0.0575642	3056040
9180.58	-0.0589898	3059092
9190.06	-0.0601902	3061873
9200.68	-0.0614278	3065328
9210.14	-0.0624419	3068408
9220.5	-0.0634658	3071405
9230.92	-0.0644154	3074487
9240.31	-0.0652102	3077696
9250.75	-0.0660397	3080636
9260.11	-0.0667434	3083585
9270.52	-0.0674921	3086140
9280.98	-0.0682198	3088503
9290.36	-0.0688589	3090608
9300.86	-0.069565	3093433
9310.28	-0.0701963	3096092
9320.66	-0.0708928	3097890
9330	-0.0715224	3099743
9340.38	-0.0722259	3101414
9350.79	-0.0729342	3103248
9360.18	-0.0735719	3105082
9370.61	-0.0742749	3106982
9380.98	-0.0749603	3109086
9390.43	-0.0755664	3110830
9400.87	-0.0762073	3112707
9410.26	-0.0767504	3114788
9420.7	-0.077308	3116356
9430.1	-0.0777608	3117594
9440.56	-0.0782001	3120410
9450.98	-0.0785614	3123259
9460.37	-0.0788141	3125819
9470.78	-0.0790053	3127738
9480.17	-0.0790919	3129755
9490.65	-0.0790867	3131400
9500.12	-0.0789857	3133057
9510.6	-0.0787645	3134628
9520.03	-0.0784661	3135445
9530.5	-0.0780239	3136790
9540.97	-0.0774672	3138632
9550.34	-0.0768743	3140544
9560.76	-0.0761169	3142873
9570.14	-0.0753532	3143613
9580.64	-0.0744173	3144355
9590.07	-0.0735161	3144286
9600.43	-0.0724722	3144978
9610.82	-0.0713864	3147397
9620.21	-0.0703851	3147924
9630.63	-0.0692692	3148819
9640.04	-0.0682723	3149350
9650.53	-0.0671873	3150542
9661	-0.0661481	3151145
9670.44	-0.0652553	3151653
9680.9	-0.0643321	3153055
9690.29	-0.0635391	3153200
9700.68	-0.0627364	3154601
9710.04	-0.0621829	3154963
9720.51	-0.0616982	3155157
9730.03	-0.0613363	3156054
9740.6	-0.0610086	3157739
9750.04	-0.0607931	3158410
9760.51	-0.0606188	3160495
9770.95	-0.0604998	3161483
9780.22	-0.0604436	3162007
9790.52	-0.060438	3163110
9800.84	-0.0604856	3163812
9810.25	-0.060562	3165722
9820.79	-0.0606661	3166929
9830.16	-0.0607579	3168239
9840.63	-0.060841	3168835
9850.18	-0.0608836	3169945
9860.61	-0.0608776	3170669
9870.92	-0.0608017	3170431
9880.2	-0.0606567	3169635
9890.51	-0.060295	3169463
9901.02	-0.0597879	3169215
9910.41	-0.0593184	3169237
9921.06	-0.0587149	3168876
9930.57	-0.0580356	3169652
9940.95	-0.0571049	3170762
9950.24	-0.0561336	3171642
9960.62	-0.054903	3172064
9970.95	-0.0534485	3172730
9980.22	-0.0519588	3174525
9990.53	-0.0501736	3175095
10000.9	-0.0482715	3176741
10010.2	-0.0464617	3178589
10020.5	-0.0443662	3180365
10030.8	-0.0422033	3182298
10040.1	-0.0402023	3184067
10050.5	-0.0379278	3185191
10060.8	-0.0356025	3186457
10070.3	-0.0334581	3186945
10080.8	-0.0310778	3189100
10090.2	-0.0289533	3190793
10100.7	-0.0266228	3193304
10111	-0.0243628	3195827
10120.3	-0.0223808	3197953
10130.6	-0.0202505	3200482
10141	-0.0182006	3202469
10150.4	-0.0164379	3205092
10160.9	-0.0145786	3208128
10170.3	-0.0130207	3209848
10180.8	-0.0114243	3211019
10190.3	-0.0101101	3212244
10200.7	-0.00881236	3215279
10210	-0.00779927	3216993
10220.3	-0.00683109	3219193
10230.6	-0.00603271	3221980
10240.9	-0.00540656	3223874
10250.2	-0.0049915	3226518
10260.6	-0.00469564	3228399
10271	-0.0045719	3230311
10280.4	-0.00460805	3233915
10290.8	-0.00481013	3236943
10300.2	-0.00514524	3238560
10310.6	-0.00567421	3240028
10320.1	-0.00627579	3241261
10330.6	-0.00708043	3243299
10340	-0.00793045	3245023
10350.5	-0.00902198	3247144
10360	-0.0101399	3249004
10370.6	-0.0115293	3251004
10380	-0.0128936	3253362
10390.5	-0.0145431	3255652
10401	-0.0163171	3257883
10410.5	-0.0180378	3260386
10420.3	-0.0198919	3263386
10430.8	-0.0219948	3265927
10440.3	-0.0239751	3267697
10450.7	-0.0262555	3269779
10460	-0.0283593	3271543
10470.5	-0.0308134	3272897
10481	-0.0333499	3274936
10490.3	-0.0356862	3275763
10500.7	-0.0383186	3277047
10511	-0.0410088	3279159
10520.2	-0.0434767	3279877
10530.6	-0.0462714	3281173
10540.9	-0.0491067	3282841
10550.2	-0.0516806	3284334
10560.5	-0.0545626	3286645
10570.9	-0.0574996	3288073
10580.6	-0.0602393	3289655
10590.2	-0.062991	3291048
10600.8	-0.0660339	3292254
10610.4	-0.0687668	3294524
10621	-0.0717836	3296659
10630.3	-0.0743885	3298814
10640.6	-0.0772255	3301127
10650.9	-0.0800094	3302665
10660.2	-0.082472	3304261
10670.5	-0.0851602	3305508
10680.8	-0.0877977	3306294
10690.1	-0.0901279	3306814
10700.7	-0.0927273	3306434
10710.1	-0.0949576	3306973
10720.8	-0.0974063	3308431
10730.3	-0.0994866	3309840
10740.7	-0.101691	3312110
10750.1	-0.103573	3313491
10760.4	-0.10557	3314913
10770.7	-0.107463	3316012
10781	-0.10925	3317108
10790.3	-0.110775	3319000
10800.7	-0.112354	3321630
10810	-0.113671	3323561
10820.3	-0.115015	3323736
10830.7	-0.116235	3325498
10840	-0.117227	3327036
10850.4	-0.118212	3327855
10860.7	-0.119071	3328369
10870.1	-0.119738	3328445
10880.7	-0.120364	3329244
10890.4	-0.120818	3330269
10900	-0.121157	3331170
10910.3	-0.121397	3331744
10920.7	-0.121511	3333559
10930	-0.121506	3334238
10940.4	-0.121382	3334567
10950.8	-0.121134	3336103
10960.3	-0.1208	3338020
10970.3	-0.120337	3340038
10980.8	-0.119728	3342310
10990.2	-0.119078	3344736
11000.7	-0.118243	3346309
11011	-0.117295	3347767
11020.3	-0.116345	3348758
11030.6	-0.11518	3349934
11041	-0.113897	3351212
11050.3	-0.112642	3352668
11060.7	-0.111117	3353590
11070.1	-0.109632	3354174
11080.6	-0.107871	3355229
11090.4	-0.106094	3357052
11100.9	-0.104081	3359294
11110.3	-0.102158	3361089
11120.8	-0.0999004	3362891
11130.2	-0.0977542	3365140
11140.8	-0.0952327	3366499
11150.4	-0.0928537	3367208
11161.1	-0.0900706	3367429
11170.7	-0.0874705	3367719
11180.3	-0.0847732	3368793
11191	-0.0816637	3370186
11200.6	-0.078802	3372171
11210.1	-0.0758711	3373898
11220.8	-0.0725178	3375366
11230.2	-0.0694587	3376435
11240.8	-0.0659854	3378279
11250.2	-0.0628145	3379142
11260.7	-0.0592678	3379755
11270	-0.0560339	3380179
11280.5	-0.052398	3379417
11291	-0.0486964	3378817
11300.5	-0.0453383	3377342
11311	-0.0415892	3376052
11320.5	-0.0382032	3375744
11330.4	-0.0346745	3375477
11340	-0.0312385	3375085
11350.8	-0.0273977	3375609
11360.5	-0.0239364	3375506
11370.6	-0.0203758	3375792
11380.7	-0.0168448	3376436
11390.8	-0.0133517	3377423
11400.6	-0.00999553	3378412
11410.3	-0.00668963	3378689
11420.1	-0.00340598	3379432
11430.7	8.67289e-05	3380622
11440.2	0.00315744	3380519
11450.7	0.00652081	3381013
11460.3	0.00951204	3380988
11470.9	0.0127928	3381156
11480.6	0.0157103	3381617
11490.2	0.0185567	3382717
11500.8	0.0216043	3383203
11510.4	0.0243203	3383693
11520.1	0.0269895	3384891
11530.9	0.0298815	3386379
11540.6	0.0324178	3388204
11550.2	0.0348908	3389887
11561	0.0375646	3392119
11570.7	0.039905	3393579
11580.4	0.0421837	3394695
11590.1	0.0444017	3395383
11600.8	0.0467965	3395721
11610.5	0.0488965	3395789
11620.2	0.0509417	3395824
11630	0.05294	3395695
11640.9	0.0551022	3394351
11650.7	0.0569951	3392997
11660.5	0.0588411	3391999
11670.3	0.0606402	3390979
11680.1	0.0623939	3390391
11691	0.0642918	3389991
11700.8	0.0659582	3389722
11710.6	0.0675902	3389412
11720.5	0.0691876	3389692
11730.3	0.0707517	3390044
11740.2	0.0722822	3391323
11750.1	0.0737808	3392482
11761	0.0754105	3393780
11770.9	0.076848	3395506
11780.8	0.0782622	3397187
11790.7	0.0796563	3399862
11800.7	0.0810309	3402103
11810.8	0.0823814	3403614
11820.8	0.083707	3405836
11830.8	0.0850109	3407488
11840.9	0.0862941	3408764
11850.9	0.0875533	3410228
11861	0.0887881	3411375
11871	0.0899989	3412359
11881.1	0.091187	3413353
11890.1	0.0922236	3414198
11900.2	0.0933686	3414680
11910.4	0.0944897	3414847
11920.5	0.0955837	3414741
11930.7	0.0966495	3415166
11940.8	0.0976864	3415520
11951	0.0986934	3416131
11961.1	0.099668	3416839
11970.6	0.100549	3417344
11981	0.101491	3417949
11990.5	0.102313	3418002
12000.3	0.103134	3418659
12011	0.103993	3419012
12020.6	0.104734	3419342
12030.3	0.105444	3419010
12040.2	0.106146	3419280
12050.2	0.106817	3419734
12060.2	0.107455	3419424
12070.1	0.10805	3420864
12080.4	0.108641	3420732
12091.1	0.109215	3421637
12100	0.109667	3421507
12110	0.110148	3422212
12120	0.110601	3422670
12130	0.111028	3423389
12140.7	0.111453	3425040
12150.1	0.111808	3426392
12160.8	0.112191	3427783
12170.8	0.112531	3429200
12180.8	0.112854	3430390
12190.8	0.113163	3431201
12200.6	0.113455	3431934
12210.5	0.113745	3432343
12220.2	0.114022	3433202
12230.7	0.114321	3433265
12240.2	0.11459	3432903
12250.7	0.114891	3433010
12260.4	0.115172	3433851
12270.5	0.115469	3434039
12280.1	0.115759	3434368
12290.8	0.116086	3434379
12300.7	0.116392	3434916
12310.2	0.116688	3435318
12320.3	0.117007	3434958
12330.3	0.117323	3436024
12340.9	0.117659	3435954
12350.7	0.117969	3436867
12360.5	0.118279	3437286
12370.5	0.118595	3436893
12380.6	0.11892	3436860
12390.5	0.119238	3436772
12400.5	0.119556	3436347
12410.5	0.119885	3436554
12420.2	0.120173	3437041
12430.8	0.120458	3437655
12440.3	0.120723	3438255
12450.9	0.121026	3439722
12460.4	0.121294	3440894
12470.9	0.121575	3441661
12480.6	0.121811	3443549
12490.3	0.122021	3444819
12500	0.122199	3446966
12510.7	0.122358	3448806
12520.4	0.122463	3450180
12530.3	0.122529	3452248
12540.1	0.122547	3454243
12551	0.122504	3456783
12560.8	0.122401	3459152
12570.6	0.122232	3461547
12580.4	0.121993	3464263
12590.2	0.121679	3466688
12600	0.121286	3468463
12610.9	0.120751	3470630
12620.8	0.120177	3472023
12630.6	0.119508	3472644
12640.3	0.118748	3473995
12650.8	0.117904	3475998
12660.2	0.117054	3477644
12670.7	0.115894	3479199
12680.2	0.114669	3480921
12691.1	0.113122	3482042
12700.9	0.111603	3483426
12710.7	0.109963	3484597
12720.5	0.108206	3485334
12730.3	0.106299	3486383
12740.1	0.104266	3486659
12750	0.102092	3487144
12761.1	0.0995478	3487218
12771	0.0971441	3487212
12781	0.0946283	3487930
12791	0.0919927	3487824
12801	0.0892585	3487495
12811	0.0864374	3487037
12820.7	0.0836114	3486653
12830.4	0.0807097	3486578
12840.4	0.0776573	3486439
12850.3	0.0745523	3486532
12860.1	0.0713933	3487135
12871	0.0678171	3487713
12880.4	0.0646723	3488934
12890.1	0.0613794	3490015
12900.7	0.0577479	3490901
12910.1	0.0544634	3491746
12920.9	0.0506777	3493290
12930.6	0.0472094	3494363
12940.4	0.0437192	3495808
12950.2	0.0402132	3497800
12961	0.0363064	3499389
12970.8	0.032787	3501146
12980.6	0.0292707	3502757
12990.3	0.0257636	3504343
13000.1	0.0222715	3505925
13010.9	0.0184164	3508164
13020.7	0.0149756	3510169
13030.5	0.0115679	3512201
13040.3	0.00819866	3513717
13050	0.00487313	3515086
13060.9	0.00123537	3516277
13070.7	-0.00198194	3517033
13080.4	-0.00514097	3517153
13090.2	-0.00823762	3517214
13101	-0.0116006	3516942
13110.8	-0.0145439	3516495
13120.4	-0.0173656	3516402
13131	-0.0204144	3515495
13140.6	-0.0230984	3514967
13150.3	-0.0257026	3515373
13161	-0.0284999	3515653
13170.6	-0.0309269	3515656
13180.1	-0.033232	3516608
13190.5	-0.035669	3517805
13200.1	-0.0378193	3518213
13210.6	-0.0400752	3518858
13220	-0.0419985	3520010
13230.6	-0.0440549	3520950
13240	-0.0458113	3522240
13250.4	-0.0476443	3524139
13260.9	-0.0493765	3525712
13270.3	-0.0508501	3528069
13280.7	-0.0523814	3529269
13290.2	-0.053688	3530493
13300.7	-0.0550403	3531303
13310.2	-0.0561593	3532264
13320.7	-0.0573025	3533274
13330.1	-0.0582462	3534057
13340.6	-0.0591967	3535887
13350	-0.0599698	3536936
13360.5	-0.0607402	3538263
13370.1	-0.0613658	3539965
13380.7	-0.0619876	3541466
13390.2	-0.0622184	3543138
13400.6	-0.0626619	3545117
13410.1	-0.0629543	3545696
13420.6	-0.0633177	3545595
13430	-0.0634005	3545388
13440.5	-0.0634917	3546426
13451	-0.0635325	3546948
13460.4	-0.0635234	3547673
13470.8	-0.0634752	3547704
13480.2	-0.0633848	3547518
13490.7	-0.063214	3547535
13500.1	-0.062994	3548164
13510.7	-0.0626818	3548278
13520.2	-0.0623498	3548212
13530.7	-0.0619313	3548212
13540.2	-0.0615181	3549026
13550.6	-0.0610193	3549018
13561	-0.0604796	3548834
13570.4	-0.0599623	3548811
13580.9	-0.0593526	3548211
13590.3	-0.0587783	3548717
13600.8	-0.0581174	3548662
13610.2	-0.0575072	3549060
13620.7	-0.0568178	3549304
13630.2	-0.0561879	3548941
13640.8	-0.0554803	3548219
13650.2	-0.0548471	3549508
13660.5	-0.0541501	3549679
13670.9	-0.0534785	3549706
13680.2	-0.0528971	3549677
13690.5	-0.0522758	3549989
13700.8	-0.0516729	3549571
13710.3	-0.0511389	3548436
13720.8	-0.0505659	3547939
13730.4	-0.0500656	3547375
13740.8	-0.0495468	3546531
13750.1	-0.0491083	3546773
13760.6	-0.0486495	3545913
13770	-0.0482434	3545699
13780.5	-0.0478202	3545671
13790.9	-0.0474713	3545517
13800.3	-0.0472146	3545284
13810.7	-0.0469714	3544269
13820.1	-0.0468566	3543474
13830.5	-0.0468055	3544056
13841	-0.0467045	3544410
13850.3	-0.0466284	3543983
13860.8	-0.0465833	3543607
13870.2	-0.0465844	3543404
13880.7	-0.0466349	3543384
13890.1	-0.0467359	3542707
13900.4	-0.0468953	3543112
13910.1	-0.0470748	3542526
13920.6	-0.0472949	3542409
13930	-0.0475097	3542361
13940.5	-0.0477683	3542507
13950	-0.0480189	3542230
13960.5	-0.0483158	3542019
13970	-0.0486004	3542582
13980.5	-0.0489242	3542677
13991	-0.0492491	3543272
14000.4	-0.0495413	3543489
14010.8	-0.0498558	3543768
14020.4	-0.050138	3543558
14031	-0.0504353	3543823
14040.5	-0.0506865	3543338
14050.1	-0.0509198	3542872
14060.6	-0.0511526	3543144
14070.9	-0.0513511	3543580
14080.4	-0.0515047	3543177
14091	-0.0516401	3542713
14100.5	-0.0517271	3541413
14110.8	-0.0517816	3540763
14120.3	-0.0517935	3540350
14130.7	-0.0517636	3540342
14140.2	-0.0516966	3539567
14150.7	-0.051577	3538642
14160.2	-0.0514279	3539539
14170.9	-0.0512135	3539943
14180.5	-0.0509768	3540403
14190	-0.050701	3541389
14200.4	-0.0503574	3541864
14210.7	-0.0499672	3542920
14221	-0.0495317	3543282
14230.3	-0.0490989	3543276
14240.7	-0.0485823	3542637
14250.1	-0.0480828	3541483
14260.7	-0.0474844	3540109
14270.1	-0.0469241	3538659
14280.6	-0.0462798	3537910
14290.9	-0.0456181	3536498
14300.3	-0.0450082	3535996
14310.7	-0.0443087	3535725
14320.2	-0.0436705	3535511
14330.6	-0.0429553	3534925
14340	-0.0423088	3535182
14350.7	-0.0415791	3534357
14360.1	-0.0409387	3533892
14371.1	-0.0401958	3534410
14380.9	-0.0395412	3533572
14390.6	-0.0389065	3533419
14400.4	-0.0382825	3533141
14410.1	-0.0376733	3532602
14421	-0.0370175	3531392
14431	-0.0364385	3530500
14441	-0.0358777	3529474
14451.1	-0.0353424	3527592
14460	-0.0348886	3526752
14471	-0.0343615	3525263
14480.8	-0.0339157	3523238
14490.8	-0.0334871	3520582
14500.9	-0.0330857	3517897
14510.9	-0.0327111	3515363
14521	-0.0323625	3512041
14531	-0.0320392	3509972
14540.5	-0.0317568	3507622
14550.5	-0.0314815	3504632
14560.5	-0.0312258	3501141
14570.6	-0.0309908	3497785
14580.6	-0.0307755	3494237
14590.6	-0.0305799	3490859
14600.5	-0.0304034	3487579
14610.6	-0.030241	3483598
14620.6	-0.0300947	3478415
14630.2	-0.029969	3473728
14640.9	-0.0298422	3468556
14650.4	-0.0297437	3464953
14660.8	-0.0296462	3461294
14670.2	-0.0295681	3457314
14680.7	-0.0294906	3453733
14690.2	-0.029428	3451011
14700.8	-0.029365	3447630
14710.4	-0.0293126	3444048
14720.1	-0.029264	3441105
14730.6	-0.0292145	3437601
14741	-0.0291667	3433313
14750.4	-0.0291239	3429010
14760.9	-0.0290753	3423412
14770.4	-0.0290293	3418978
14780.9	-0.028975	3413503
14790.4	-0.028922	3408800
14800	-0.0288631	3403611
14810.5	-0.0287922	3398258
14820.9	-0.0287124	3392581
14830.4	-0.0286308	3386847
14841	-0.0285275	3379436
14850.5	-0.0284218	3373237
14860.1	-0.0283004	3367456
14870.8	-0.0281454	3360951
14880.2	-0.0279909	3355302
14890.6	-0.0277959	3348326
14901	-0.0275735	3340833
14910.4	-0.0273473	3335175
14921	-0.0270609	3329063
14930.7	-0.0267651	3322709
14940.6	-0.0264301	3317308
14950.5	-0.0260564	3311793
14960.4	-0.0256397	3305956
14970	-0.0251879	3301150
14980.5	-0.0246501	3295322
14990	-0.024126	3289791
15000.6	-0.0235011	3283927
15010	-0.0229003	3277882
15020.6	-0.0221834	3272044
15031	-0.0214169	3266370
15040.4	-0.0206741	3261067
15050.9	-0.0197785	3254894
15060.4	-0.0189117	3249806
15071	-0.0178811	3244248
15080.5	-0.0169058	3239692
15091	-0.0157592	3233835
15100.5	-0.0146674	3228072
15110.1	-0.0135125	3222268
15120.6	-0.0121895	3215687
15131	-0.0107991	3209375
15140.4	-0.00949463	3204091
15150.8	-0.00798755	3198290
15160.4	-0.00655489	3193543
15170.8	-0.00493708	3188598
15180.1	-0.00343753	3184057
15190.4	-0.00172458	3178272
15200.6	1.86022e-05	3172231
15210.8	0.00179649	3166094
15221	0.00362503	3159772
15230.1	0.0052779	3155130
15240.3	0.00709743	3149594
15250.5	0.00901298	3143974
15260.7	0.0110043	3137816
15270.9	0.0130227	3131910
15280	0.0148248	3125807
15290.2	0.0167808	3118973
15300.4	0.0187135	3111978
15310.6	0.0206513	3104797
15320.7	0.0225899	3097893
15330.9	0.024519	3091068
15340.1	0.0262351	3085247
15350.3	0.028102	3078127
15360.4	0.0299121	3070974
15370.6	0.0316553	3064782
15380.8	0.0333252	3058091
15391	0.0349197	3051157
15400.2	0.0362901	3044255
15410.5	0.0377344	3037262
15420.8	0.0390954	3030571
15430.1	0.0402468	3024632
15440.5	0.0414406	3018819
15450.9	0.0425327	3013024
15460.3	0.0434242	3006886
15470.8	0.044311	3000234
15480.2	0.045015	2994848
15490.8	0.0456994	2989026
15500.4	0.0462222	2983588
15511.1	0.0466882	2976728
15520.7	0.0470046	2971863
15530.2	0.0472201	2967404
15540.8	0.0473507	2961468
15550.3	0.0473781	2955356
15560.8	0.0473153	2949865
15570.4	0.0471079	2944559
15581.1	0.046824	2937967
15590.7	0.0464971	2931241
15600.3	0.0460968	2925309
15610.9	0.045573	2918123
15620.3	0.0450405	2913331
15630.7	0.0443846	2906752
15641	0.0436693	2900936
15650.3	0.0429719	2895546
15660.5	0.0421401	2890325
15670.8	0.0412524	2884375
15680.1	0.0404094	2880133
15690.4	0.0394288	2874724
15700.7	0.0384077	2869225
15711	0.037352	2863647
15720.2	0.0363774	2858733
15730.5	0.0352729	2852780
15740.8	0.0341513	2846834
15750.1	0.0331251	2841816
15760.6	0.0319695	2835636
15770.1	0.0309189	2830782
15780.6	0.0297512	2824978
15790.1	0.0287123	2819193
15800.5	0.0275695	2813320
15811	0.0264411	2806421
15820.4	0.0254359	2801124
15830.1	0.0244274	2795863
15840.8	0.0233237	2790128
15850.5	0.0223617	2785135
15861	0.0213412	2779164
15870.5	0.0204595	2774657
15880.8	0.0195323	2769030
15890	0.0187294	2763901
15900.4	0.0178705	2758786
15911.1	0.0170178	2752766
15920.6	0.0162816	2747754
15930.1	0.01558	2742903
15940.7	0.0148238	2737951
15950.2	0.0141667	2732664
15960.1	0.0135067	2726963
15970.9	0.0128051	2721032
15980.4	0.0122139	2716272
15990.9	0.011574	2710539
16000.3	0.0110223	2705918
16010.7	0.0104275	2701263
16020	0.00991203	2696384
16030.3	0.00935453	2691015
16040.7	0.0088098	2686027
16051	0.00830201	2681392
16060.3	0.00789487	2676576
16070.9	0.00741215	2671839
16080.3	0.00695197	2667171
16090.9	0.00640934	2661673
16100.5	0.00589635	2656204
16110.1	0.00538028	2650537
16120.7	0.00482504	2643739
16130.1	0.00435149	2637594
16141	0.00382478	2630312
16150.7	0.00336483	2624146
16160	0.00291882	2618029
16170.6	0.00239896	2611464
16181	0.0018687	2605742
16190.3	0.00137411	2599566
16200.7	0.000801335	2593409
16210.5	0.000240148	2588296
16220.9	-0.000374949	2582488
16230.2	-0.000939628	2578212
16240.5	-0.00158368	2573001
16250.8	-0.00224653	2567873
16260	-0.00286027	2562107
16270.4	-0.00356301	2556717
16280.7	-0.00428993	2550672
16290	-0.00496464	2545544
16300.4	-0.00573729	2539820
16311.1	-0.00656426	2533052
16320.4	-0.00728954	2527524
16330.5	-0.00810431	2521349
16340.9	-0.00896048	2515662
16350.6	-0.00977796	2510069
16360.6	-0.0106298	2504292
16371	-0.0115331	2498958
16380.6	-0.0123802	2493669
16390.3	-0.0132429	2488179
16401	-0.0142208	2481761
16410.7	-0.0151087	2476576
16421	-0.0160756	2471254
16430.3	-0.0169616	2465666
16440.7	-0.0179585	2460138
16450.1	-0.0188665	2454237
16460.4	-0.0198878	2448315
16470.8	-0.0209183	2441983
16480.1	-0.0218601	2436309
16490.6	-0.0229327	2430615
16500.1	-0.0239151	2424339
16510.4	-0.0249881	2418484
16520.9	-0.0261037	2411990
16530.8	-0.0271626	2406998
16540.4	-0.0282008	2402182
16551	-0.0293536	2396648
16560.4	-0.0303918	2391855
16571	-0.0315739	2386617
16580.4	-0.0326253	2382518
16591	-0.0338372	2377664
16600	-0.034873	2373273
16610.7	-0.0361122	2368945
16620.1	-0.0372151	2363845
16630.5	-0.0384548	2358755
16641	-0.0397091	2353606
16650.9	-0.0409113	2349722
16660.3	-0.0420749	2345474
16670.9	-0.043382	2340700
16680.4	-0.0445839	2336523
16691	-0.0459228	2332116
16700.4	-0.0471252	2327551
16710.8	-0.0484736	2322606
16720.2	-0.0496982	2318577
16730.7	-0.0510723	2313908
16740.8	-0.0524154	2309832
16750.6	-0.0537221	2305729
16760.2	-0.0550057	2301964
16770.8	-0.0564411	2297695
16780.3	-0.0577373	2294216
16790.8	-0.0591806	2291049
16800.2	-0.0604734	2286939
16810.7	-0.0619212	2282605
16820.4	-0.0632703	2278451
16830.1	-0.0646311	2274873
16840.1	-0.0660177	2270114
16850.3	-0.0674487	2265302
16860.6	-0.0688887	2260887
16870.3	-0.0702445	2256085
16880.4	-0.0716513	2251580
16890.5	-0.0730486	2246808
16900.3	-0.0744008	2241842
16910.5	-0.0757803	2237195
16920.9	-0.0771663	2232057
16930.2	-0.0783837	2228052
16940.6	-0.0797236	2223060
16951	-0.0810276	2218238
16960.6	-0.0821851	2213609
16970.1	-0.0832965	2209642
16980.8	-0.0845114	2204794
16990.6	-0.0855655	2199682
17000.9	-0.086617	2194770
17011.1	-0.0875928	2189793
17020.5	-0.0884504	2185322
17030	-0.0892512	2181299
17040.6	-0.0900715	2176413
17050.6	-0.0907778	2171909
17061	-0.0914258	2166629
17070.1	-0.0919329	2162259
17080.6	-0.0924258	2157062
17091	-0.0928262	2151627
17100.1	-0.093097	2147443
17110.9	-0.0933179	2141840
17120.6	-0.0934215	2136998
17130.3	-0.0934316	2132070
17141	-0.093331	2126428
17150.8	-0.0931351	2121159
17161.1	-0.0928209	2115950
17170.2	-0.0924486	2111627
17180.5	-0.0919203	2106988
17190.8	-0.0912799	2102508
17200.1	-0.0906085	2099355
17210.4	-0.0897579	2094784
17220.5	-0.088821	2089767
17230.6	-0.0877834	2085479
17241	-0.0866004	2081057
17250.3	-0.0854586	2077271
17260.7	-0.0840743	2072723
17270	-0.0827572	2068607
17280.4	-0.0811811	2064712
17290.9	-0.0795092	2060012
17300.2	-0.0779464	2056545
17310.6	-0.0761057	2052637
17321	-0.0741807	2048520
17330.3	-0.0724007	2045269
17340.7	-0.0703225	2041710
17350	-0.0684098	2038679
17360.6	-0.0661598	2034980
17370.9	-0.063893	2031174
17380.6	-0.0616979	2027274
17390.4	-0.0594464	2022799
17400.3	-0.0571174	2018952
17410.7	-0.0546178	2014554
17420	-0.0523652	2010425
17430.4	-0.0498031	2006067
17440.9	-0.0472182	2001265
17450.8	-0.0447399	1997492
17460.6	-0.0422878	1994041
17470.4	-0.0398318	1990473
17480.2	-0.0373763	1987202
17490.6	-0.0347983	1983530
17501	-0.0322045	1980219
17510.3	-0.0299141	1977140
17520.7	-0.0273593	1973913
17530.9	-0.0248952	1971261
17540.2	-0.022678	1968272
17550.5	-0.0202491	1965227
17560.8	-0.0178608	1962346
17570.1	-0.0157467	1959698
17580.9	-0.0133201	1956513
17590.2	-0.0112947	1953913
17600.7	-0.00906923	1951108
17611.1	-0.00690575	1948166
17620.8	-0.00495061	1945942
17630.1	-0.00312156	1943154
17640.5	-0.00115039	1940094
17650.8	0.00075293	1936795
17660.9	0.00252902	1933842
17670.9	0.00423448	1931915
17680.9	0.00587264	1929286
17691	0.00745756	1926505
17700	0.00881797	1924315
17711.2	0.0104257	1921159
17721.3	0.011791	1919046
17731.4	0.0130991	1916971
17740.1	0.014171	1914980
17750.2	0.0153606	1912540
17760.5	0.0164917	1909899
17770.8	0.0175583	1907151
17781.4	0.0186006	1903721
17790.7	0.0194456	1901140
17801.4	0.0203703	1898250
17810.6	0.0211125	1895464
17821.4	0.0219224	1892587
17831.1	0.022606	1889555
17840.9	0.0232473	1886601
17850.6	0.0238449	1884061
17860.3	0.0243947	1881411
17871	0.0249509	1878374
17881.3	0.0254549	1875701
17890.1	0.0258603	1873230
17901.2	0.0263542	1870135
17910.6	0.026743	1867663
17920.3	0.0271067	1865103
17931	0.0274711	1862540
17940.6	0.0277677	1859885
17950.2	0.0280606	1857029
17960.9	0.0283621	1853909
17970.3	0.0285909	1850960
17981	0.0288312	1847361
17990.3	0.0290267	1844126
18000.6	0.0292331	1841125
18010.1	0.0294223	1838090
18020.6	0.0296278	1836150
18030.1	0.0298084	1834370
18040.6	0.0300045	1831057
18050.1	0.0301742	1827886
18060.8	0.030353	1824824
18070.4	0.030502	1821805
18080	0.0306387	1818498
18090.6	0.0307767	1815990
18100.1	0.0308907	1813760
18110.6	0.0310077	1811606
18120.1	0.0311045	1808920
18130.6	0.0312028	1806399
18140.1	0.0312823	1803682
18151	0.031362	1800537
18160.8	0.0314217	1797651
18170.6	0.0314686	1795043
18180.2	0.0315004	1792558
18190.8	0.031517	1789458
18200.2	0.031514	1786878
18210.8	0.0314887	1784805
18220.2	0.0314446	1782246
18230.7	0.0313696	1779151
18240.1	0.0312773	1776796
18250.4	0.031147	1773997
18260.7	0.0309843	1770919
18271	0.0307863	1767507
18280.3	0.0305756	1764524
18290.9	0.0302971	1761505
18300.5	0.0300123	1759442
18310.1	0.0296923	1757003
18320.9	0.0292879	1753991
18330.6	0.0288831	1751736
18340.3	0.0284461	1749260
18350.7	0.0279306	1747757
18360.1	0.0274252	1746389
18370.5	0.0268235	1744710
18380.8	0.0261833	1742615
18390.1	0.0255666	1739837
18400.5	0.0248343	1737418
18410.9	0.0240603	1734861
18420.2	0.0233244	1732179
18430.6	0.0224634	1729318
18440.9	0.0215571	1726681
18450.4	0.020694	1723972
18460.9	0.0196897	1720762
18470.4	0.0187356	1718346
18480.2	0.0176916	1716001
18491.1	0.0165082	1713344
18500.3	0.0154988	1711024
18510.5	0.0143782	1708242
18520.1	0.0133053	1705210
18530.9	0.0120623	1702415
18540.8	0.0108505	1699890
18550.4	0.00962138	1697633
18560.2	0.00834216	1694880
18570.6	0.00697783	1691922
18580.4	0.00569722	1689708
18590.8	0.00433642	1686787
18600.2	0.00311054	1684433
18610.6	0.00174153	1681775
18620.1	0.000501134	1679627
18630.4	-0.000860622	1677015
18640.9	-0.002245	1674489
18650.7	-0.0035281	1672078
18660.8	-0.004858	1670026
18670.7	-0.00614233	1667592
18680.6	-0.00741945	1665307
18690.7	-0.00870728	1662967
18701.1	-0.0100191	1660260
18710.4	-0.0111711	1658442
18720.7	-0.0124305	1656199
18730.6	-0.0136163	1653638
18741	-0.0148412	1651528
18750.3	-0.0159089	1649474
18760.7	-0.0170888	1647186
18770	-0.0181218	1645297
18780.5	-0.0192712	1643158
18790.9	-0.0204121	1641388
18800.2	-0.0214218	1639670
18810.6	-0.0225543	1637619
18821.1	-0.0236867	1635595
18830.3	-0.0246989	1633523
18840.8	-0.0258438	1631638
18850	-0.0268674	1629454
18860.5	-0.0280192	1627477
18870.9	-0.0291733	1625634
18880.2	-0.0302353	1623872
18890.6	-0.0311376	1621712
18901.1	-0.0308863	1619439
18910.4	-0.0317682	1617322
18920.8	-0.0330726	1615322
18930.1	-0.0343178	1613438
18940.5	-0.0357165	1611328
18950.9	-0.0369687	1609349
18960.2	-0.0381341	1607520
18970.7	-0.039562	1605620
18981.1	-0.0410141	1603024
18990.4	-0.0422687	1601136
19000.8	-0.0436164	1598951
19010.1	-0.0447622	1596926
19020.5	-0.0460055	1595098
19031	-0.0472129	1592883
19040.3	-0.0482833	1590948
19050.7	-0.0495157	1588854
19061.1	-0.0507768	1587293
19070.4	-0.0518971	1585511
19080.8	-0.0531251	1583198
19090.1	-0.0541692	1581371
19100.6	-0.055279	1579237
19111	-0.0563172	1577147
19120.3	-0.0571835	1575119
19130.7	-0.0581008	1572497
19141.2	-0.0589583	1570117
19150.4	-0.0596633	1567619
19160.9	-0.0603757	1565037
19170.1	-0.0609205	1562865
19180.6	-0.0614172	1560395
19191	-0.0617799	1558376
19200.3	-0.0619868	1556229
19210.7	-0.062092	1553968
19220	-0.0620754	1552110
19230.5	-0.0619354	1549961
19240.9	-0.0616663	1548147
19250.2	-0.0613157	1546124
19260.6	-0.0607917	1544289
19271.1	-0.0601274	1542049
19280.3	-0.0594195	1540792
19290.8	-0.0584954	1539243
19300	-0.0575675	1537654
19310.5	-0.0564104	1535718
19320.9	-0.0551384	1533981
19330.2	-0.0539161	1532305
19340.6	-0.052442	1530320
19351.1	-0.0508663	1528742
19360.4	-0.0493836	1527107
19370.8	-0.0476271	1525334
19380.1	-0.0459906	1524158
19390.5	-0.0440729	1522313
19400.9	-0.0420859	1520464
19410.2	-0.0402689	1518281
19420.6	-0.0381833	1516541
19431	-0.0360339	1514792
19440.2	-0.0340643	1513059
19450.7	-0.0317941	1511737
19461.1	-0.0294732	1509794
19470.4	-0.027374	1508000
19480.8	-0.0249782	1506069
19490	-0.0228228	1505120
19500.5	-0.0203737	1503620
19510.9	-0.0179035	1502001
19520.2	-0.015694	1500584
19530.6	-0.0131973	1498995
19541	-0.0106938	1497644
19550.3	-0.00846648	1496535
19560.7	-0.00596207	1494939
19570.7	-0.00355116	1493527
19580.4	-0.00124684	1492102
19590.8	0.00123649	1490534
19600.1	0.00343389	1489292
19610.4	0.00586508	1488302
19620.5	0.0082278	1486784
19630.6	0.0105819	1485526
19640.8	0.0129422	1483763
19650	0.0150622	1482519
19660.4	0.0174313	1480887
19670.8	0.0197573	1479721
19680.4	0.0218892	1478290
19691	0.0242282	1476807
19700.6	0.026304	1475091
19710.4	0.0283982	1473429
19720.8	0.030585	1471685
19730.1	0.0324941	1470485
19740.5	0.0346005	1469512
19750.7	0.0366046	1467940
19760.7	0.0385523	1466859
19770.8	0.0404463	1465214
19781.1	0.042342	1463742
19790.6	0.0440476	1462255
19800.3	0.0457224	1461013
19810.9	0.0475062	1459787
19820.4	0.0490541	1458404
19830.5	0.0506378	1457330
19840.9	0.0522079	1456518
19850.2	0.0535388	1455044
19860.4	0.0549551	1453472
19870.6	0.0562818	1451828
19880.8	0.0575482	1450247
19891	0.0587493	1448587
19900.2	0.0597635	1447107
19910.6	0.060846	1445841
19921.1	0.0618619	1444771
19930.6	0.0627275	1443444
19941	0.0635947	1442292
19950.4	0.0642936	1440905
19960.9	0.0650094	1439123
19970.8	0.0656071	1437262
19980	0.0660862	1435863
19990.5	0.0665269	1433922
