0	0	817500
10.0245	0	837982
20.9846	0	853536
30.9465	0	865270
40.9087	0	873468
50.8677	0	879908
60.7702	0	885212
70.5898	0	889566
80.3988	0	893024
90.2307	0	896706
100.18	0	900140
110.265	0	902550
120.43	0	905398
130.596	0	907756
140.762	0	909962
150.928	0	912006
160.078	0	914022
170.244	0	916560
180.41	0	918800
190.576	0	921338
200.742	0	923626
210.908	0	926360
220.058	0	928688
230.224	0	931226
240.39	0	934280
250.568	0	937082
260.771	0	939818
270.973	0	942662
280.155	0	944958
290.353	0	947656
300.55	0	950286
310.747	0	952958
320.945	0	956048
330.124	0	958668
340.318	0	961818
350.496	0	964848
360.669	0	968060
370.836	0	971236
381.003	0	974248
390.153	0	976854
400.319	0	979726
410.491	0	982550
420.683	0	985508
430.886	0	988286
440.069	0	991170
450.271	0	993906
460.473	0	996726
470.675	0	999560
480.876	0	1002174
490.058	0	1004858
500.261	0	1007734
510.464	0	1010584
520.668	0	1013638
530.871	0	1016544
540.053	0	1019426
550.281	0	1022716
560.563	0	1025984
570.867	0	1029354
580.14	0	1032256
590.443	0	1035604
600.747	0	1039310
610.02	0	1042282
620.323	0	1045802
630.626	0	1049388
640.929	0	1052716
650.202	0	1055792
660.505	0	1059424
670.808	0	1063088
680.081	0	1066582
690.384	0	1070380
700.687	0	1074116
710.99	0	1077606
720.263	0	1080980
730.566	0	1084776
740.869	0	1088416
750.108	0	1091974
760.355	0	1095808
770.595	0	1099910
780.835	0	1103844
790.036	0	1107530
800.251	0	1111356
810.466	0	1115302
820.678	0	1119524
830.886	0	1123620
840.069	0	1127366
850.273	0	1131262
860.476	0	1135404
870.68	0	1139456
880.882	0	1143636
890.064	0	1147306
900.266	0	1151452
910.468	0	1155560
920.665	0	1159690
930.862	0	1164064
940.039	0	1168008
950.236	0	1172454
960.433	0	1176940
970.63	0	1181198
980.81	0	1185410
990.988	0	1189756
1000.14	0	1193780
1010.31	0	1198234
1020.48	0	1202970
1030.64	0	1207482
1040.81	0	1211916
1050.98	0	1216574
1060.13	0	1220800
1070.29	0	1225030
1080.46	0	1229710
1090.63	0	1234582
1100.79	0	1239082
1110.96	0	1243606
1120.11	0	1247316
1130.28	0	1251612
1140.45	0	1255680
1150.61	0	1260332
1160.78	0	1264778
1170.95	0	1269140
1180.1	0	1273274
1190.27	0	1277660
1200.44	0	1281814
1210.6	0	1286094
1220.77	0	1290390
1230.94	0	1294294
1240.09	0	1297934
1250.26	0	1301712
1260.43	0	1305642
1270.6	0	1309754
1280.77	0	1313478
1290.93	0	1317436
1300.09	0	1321168
1310.25	0	1325460
1320.42	0	1329316
1330.59	0	1333786
1340.76	0	1337826
1350.93	0	1342340
1360.08	0	1346422
1370.25	0	1350614
1380.42	0	1355118
1390.59	0	1359284
1400.76	0	1363538
1410.93	0	1367724
1420.08	0	1371650
1430.25	0	1376030
1440.42	0	1380498
1450.58	0	1384950
1460.76	0	1389482
1470.98	0	1394076
1480.23	0	1398166
1490.57	0	1402826
1500.98	0	1406940
1510.36	0	1410678
1520.79	0	1414852
1530.17	0	1418460
1540.59	0	1422346
1551.01	0	1426298
1560.38	0	1429450
1570.81	0	1432828
1580.21	0	1436106
1590.67	0	1439348
1600.08	0	1442258
1610.48	0	1444992
1620.91	0	1447540
1630.29	0	1450290
1640.7	0	1452178
1650.08	0	1454226
1660.47	0	1456594
1670.84	0	1458776
1680.2	0	1460840
1690.57	0	1463224
1700.02	0	1465400
1710.4	0	1467982
1720.92	0	1470192
1730.35	0	1472526
1740.85	0	1474658
1750.32	0	1476896
1760.77	0	1479520
1770.22	0	1481584
1780.69	0	1484036
1790.12	0	1486166
1800.71	0	1488686
1810.31	0	1490858
1821.02	0	1493652
1830.74	0	1496214
1840.41	0	1498302
1850.03	0	1501218
1860.65	0	1503866
1870.34	0	1506102
1880.97	0	1509024
1890.48	0	1511350
1900.06	0	1513484
1910.61	0	1516084
1920.06	0	1518162
1930.51	0	1520286
1940.04	0	1522346
1950.6	0	1524732
1960.01	0	1526836
1970.56	0	1528800
1980.05	0	1530828
1990.64	0	1532864
2000.2	0	1534620
2010.74	0	1536556
2020.08	0	1538230
2030.61	0	1540408
2040.04	0	1542566
2050.46	0	1544816
2060.93	0	1547612
2070.25	0	1549940
2080.72	0	1552596
2090.2	0	1554842
2100.82	0	1557346
2110.42	0	1559744
2121.01	0	1562320
2130.61	0	1565222
2140.27	0	1567652
2150.66	0	1570864
2160.11	0	1573060
2170.54	0	1575132
2180.97	0	1578484
2190.36	0	1580348
2200.83	0	1583318
2210.22	0	1585810
2220.65	0	1588588
2230.04	0	1590854
2240.46	0	1593190
2250.84	0	1595874
2260.2	9.09495e-13	1598154
2270.63	5.45697e-12	1601116
2280.08	1.18234e-11	1603354
2290.44	2.09184e-11	1605926
2300.91	3.00133e-11	1608032
2310.34	3.72893e-11	1610058
2320.9	4.54747e-11	1612538
2330.23	5.36602e-11	1614504
2340.59	6.18456e-11	1616842
2350.99	7.09406e-11	1618492
2360.43	7.9126e-11	1620478
2371.01	8.73115e-11	1622788
2380.35	9.54969e-11	1624546
2390.74	1.04592e-10	1626486
2400.32	1.19144e-10	1628556
2410.86	1.37334e-10	1630702
2420.27	1.60071e-10	1632492
2430.66	1.94632e-10	1634500
2440.17	2.36469e-10	1636042
2450.97	3.01043e-10	1637090
2460.55	3.7835e-10	1638428
2470.54	4.84761e-10	1639982
2480.24	6.21185e-10	1641510
2490.82	8.17636e-10	1643388
2500.37	1.05047e-09	1644568
2510.12	1.35879e-09	1645884
2520.1	1.76897e-09	1647536
2530.88	2.34922e-09	1648828
2540.27	3.00133e-09	1650552
2550.78	3.93902e-09	1652350
2560.4	5.03678e-09	1654102
2570.15	6.44468e-09	1656044
2580.99	8.44648e-09	1658118
2590.78	1.0752e-08	1659888
2600.35	1.35715e-08	1661792
2610.77	1.74259e-08	1664076
2620.04	2.1706e-08	1665734
2630.48	2.76978e-08	1667352
2640.94	3.52338e-08	1669388
2650.34	4.36094e-08	1671644
2660.81	5.51054e-08	1673882
2670.28	6.78829e-08	1675824
2680.75	8.52024e-08	1678148
2690.15	1.04171e-07	1680124
2700.59	1.29798e-07	1682536
2710.99	1.61054e-07	1684708
2720.39	1.9513e-07	1686554
2730.95	2.41287e-07	1688962
2740.35	2.90696e-07	1691186
2750.93	3.57284e-07	1693280
2760.36	4.28184e-07	1694774
2770.78	5.21423e-07	1696592
2780.33	6.22723e-07	1698552
2790.05	7.44099e-07	1700082
2800.69	9.014e-07	1701722
2810.48	1.07222e-06	1703048
2820.96	1.28712e-06	1704742
2830.39	1.51326e-06	1706672
2840.89	1.80682e-06	1708002
2850.4	2.11563e-06	1709178
2860.09	2.47844e-06	1710610
2870.2	2.91535e-06	1711998
2880.01	3.40445e-06	1713798
2890.55	4.00987e-06	1715176
2900.04	4.63505e-06	1716236
2910.05	5.38657e-06	1717578
2920.29	6.26404e-06	1719224
2930.52	7.26508e-06	1720718
2940.75	8.40393e-06	1721618
2950.99	9.69601e-06	1723110
2960.74	1.10845e-05	1724876
2970.08	1.25743e-05	1726336
2980.74	1.44837e-05	1727896
2990.7	1.64879e-05	1729266
3000.26	1.86319e-05	1730750
3010.73	2.12483e-05	1732986
3020.11	2.38504e-05	1734868
3030.55	2.70592e-05	1736254
3040.11	3.03134e-05	1737533
3050.07	3.40414e-05	1739277
3060.62	3.84012e-05	1741465
3070.93	4.3106e-05	1742985
3080.25	4.77539e-05	1744325
3090.78	5.34936e-05	1746141
3100.13	5.90534e-05	1747471
3110.82	6.59725e-05	1749601
3120.78	7.2996e-05	1751097
3130.81	8.06644e-05	1752739
3141.05	8.91337e-05	1754670
3150.15	9.72392e-05	1756530
3160.38	0.000107039	1758550
3170.62	0.000117594	1760350
3180.86	0.000128939	1762590
3191.08	0.000141096	1765382
3200.15	0.000152595	1767210
3210.31	0.000166297	1770058
3220.46	0.000180904	1772302
3230.62	0.000196448	1774734
3240.77	0.00021296	1777335
3250.93	0.000230468	1780077
3261.08	0.000249002	1783203
3270.11	0.000266359	1785163
3280.26	0.000286913	1788213
3290.43	0.000308581	1790779
3300.61	0.000331411	1793691
3310.83	0.000355512	1796425
3321.06	0.000380804	1798975
3330.14	0.000404293	1800761
3340.35	0.000431863	1802945
3350.51	0.000460543	1805347
3360.55	0.000490117	1807083
3370.76	0.000521489	1809319
3380.98	0.000554183	1811399
3390.05	0.000584377	1813439
3400.26	0.00061964	1815405
3410.48	0.000656304	1817097
3420.69	0.000694398	1818977
3430.9	0.000733956	1821097
3441.11	0.000775015	1823393
3450.19	0.000812806	1825178
3460.4	0.000856819	1827178
3470.61	0.000902467	1829048
3480.82	0.000949809	1831068
3491.03	0.000998909	1833646
3500.11	0.00104409	1835458
3510.32	0.00109672	1837554
3520.53	0.00115135	1839696
3530.75	0.00120807	1842214
3540.96	0.00126701	1844498
3550.03	0.00132135	1846464
3560.25	0.00138483	1848708
3570.46	0.00145092	1850850
3580.67	0.0015198	1853044
3590.88	0.00159166	1855190
3601.09	0.00166671	1857506
3610.17	0.00173628	1858912
3620.38	0.00181798	1860926
3630.59	0.00190359	1862984
3640.8	0.00199339	1865096
3651.02	0.00208771	1867278
3660.09	0.00217561	1869184
3670.3	0.00227942	1871526
3680.52	0.00238882	1873864
3690.73	0.00250424	1876022
3700.94	0.00262613	1878420
3710.04	0.00274058	1880336
3720.27	0.0028764	1882836
3730.5	0.00302027	1885234
3740.74	0.00317277	1887387
3750.97	0.00333455	1889937
3760.07	0.00348668	1892139
3770.3	0.00366785	1894473
3780.53	0.00386028	1896569
3790.57	0.00406093	1899603
3800.09	0.00426269	1901979
3811.04	0.00450964	1904717
3820.63	0.00473968	1907635
3830.06	0.00497912	1909859
3840.56	0.00526238	1912525
3850.41	0.00554492	1915321
3860.31	0.00584644	1918266
3870.99	0.00619231	1921068
3880.95	0.00653523	1923462
3891.1	0.00690637	1926084
3900.13	0.0072555	1928391
3910.28	0.00767106	1930997
3920.43	0.00811203	1933501
3930.58	0.00857976	1935939
3940.74	0.00907569	1938481
3950.89	0.0096013	1940937
3961.04	0.0101581	1943189
3970.06	0.0106806	1945315
3980.22	0.011301	1947951
3990.37	0.0119575	1950299
4000.52	0.012652	1952115
4010.67	0.0133866	1954276
4020.82	0.0141634	1956574
4030.97	0.0149845	1958547
4041.13	0.0158524	1960045
4050.15	0.016665	1961929
4060.3	0.0176277	1964137
4070.45	0.0186444	1966135
4080.61	0.0197178	1968260
4090.77	0.0208509	1970668
4100.96	0.0220481	1973060
4110.04	0.0231705	1974636
4120.27	0.0244951	1976970
4130.19	0.0258434	1979328
4140.79	0.0273707	1981626
4150.39	0.0287885	1984056
4160.18	0.0302825	1986015
4170.1	0.0320305	1988427
4180.64	0.0343618	1991316
4190.06	0.0367445	1993040
4200.53	0.0396987	1995123
4210.99	0.0429791	1997123
4220.43	0.045079	1999894
4231.04	0.0493298	2001605
4240.67	0.0541113	2003535
4250.53	0.0591276	2005914
4260.31	0.0647552	2007208
4270.12	0.070651	2009479
4280.86	0.0773067	2011907
4290.62	0.0889073	2013913
4300.76	0.101966	2015810
4310.84	0.113121	2018039
4320.59	0.126243	2019989
4330.08	0.14395	2021909
4340.64	0.165658	2023865
4350.28	0.187789	2026483
4360.95	0.212721	2028721
4370.73	0.237042	2030277
4380.73	0.260102	2032281
4390.44	0.308984	2034351
4400.92	0.365374	2036895
4410.52	0.414116	2039069
4420.53	0.479854	2041839
4430.35	0.551407	2044816
4440.85	0.621019	2047457
4450.31	0.679188	2050477
4460.74	0.740424	2053333
4470.06	0.794064	2056097
4480.62	0.850176	2058871
4490.22	0.898147	2061628
4501.03	0.947637	2064454
4511	0.989779	2067210
4521.08	1.02836	2069682
4530.05	1.0597	2072112
4540.84	1.09305	2074844
4550.46	1.11863	2077426
4560.07	1.13989	2080228
4570.73	1.1566	2082524
4580.61	1.16658	2084716
4590.68	1.16625	2086984
4600.66	1.15978	2089166
4610.27	1.15037	2091470
4620.02	1.13702	2093044
4631.09	1.11758	2095586
4640.01	1.09905	2097310
4650.07	1.07563	2099586
4661.09	1.0474	2102123
4670.96	1.01994	2104227
4680.36	0.989639	2106311
4690.86	0.929747	2108637
4700.28	0.87557	2110165
4710.91	0.817212	2111954
4720.9	0.749766	2113942
4730.34	0.681775	2115882
4740.78	0.612663	2118032
4750.2	0.554211	2119536
4760.72	0.490562	2121488
4770.93	0.431056	2122832
4780.47	0.378077	2125130
4790.95	0.321618	2127404
4800.4	0.274019	2128906
4810.84	0.222856	2131370
4820.33	0.179127	2133291
4830.05	0.135985	2135225
4840.77	0.0907644	2137793
4850.46	0.0514984	2139413
4860.37	0.0124798	2141729
4870.02	-0.0242441	2143389
4880.7	-0.0642305	2145572
4890.74	-0.100864	2147732
4900.36	-0.13584	2149620
4910.84	-0.173583	2151789
4920.29	-0.20749	2153079
4931	-0.245765	2154979
4940.79	-0.280585	2156423
4950.62	-0.315355	2157547
4960.21	-0.348754	2159424
4970.85	-0.385018	2161284
4980.54	-0.416917	2162602
4990.54	-0.448534	2164298
5000.59	-0.478573	2166185
5010.28	-0.505756	2168620
5020.92	-0.533277	2170385
5030.51	-0.555749	2172027
5040.1	-0.575909	2173751
5050.17	-0.594397	2175575
5060.86	-0.611127	2177584
5070.57	-0.624051	2179636
5080.3	-0.634144	2181687
5090.39	-0.637174	2183713
5100.49	-0.635436	2185214
5110.41	-0.635329	2186874
5120.15	-0.634727	2188291
5130.25	-0.633385	2189889
5140.19	-0.63169	2191745
5150.9	-0.6293	2193388
5160.97	-0.62637	2195354
5171.08	-0.622739	2197058
5180.19	-0.61888	2198719
5190.47	-0.613778	2200877
5200.76	-0.607881	2202760
5211.05	-0.601328	2205293
5220.2	-0.592159	2206602
5230.48	-0.579251	2208822
5240.77	-0.567243	2211134
5251.06	-0.554404	2213070
5260.21	-0.535704	2214674
5270.49	-0.51643	2216509
5280.78	-0.495009	2218575
5291.07	-0.473848	2220433
5300.25	-0.455108	2221918
5310.59	-0.433324	2223111
5320.94	-0.411916	2223802
5330.13	-0.393152	2225443
5340.2	-0.372929	2227093
5350.76	-0.351799	2228040
5360.2	-0.333138	2228900
5370.69	-0.312893	2230333
5380.24	-0.295007	2231574
5390.93	-0.275508	2233435
5400.41	-0.258659	2235148
5410.96	-0.240584	2236753
5420.56	-0.224832	2237627
5430.43	-0.209366	2239052
5440.55	-0.194239	2240471
5450.3	-0.180412	2241338
5460.49	-0.166834	2242923
5470.68	-0.154197	2244107
5480.27	-0.143122	2245455
5490.32	-0.132345	2246724
5500.66	-0.122165	2248148
5510.98	-0.112975	2249593
5520.15	-0.105584	2251267
5530.46	-0.0978959	2252671
5540.78	-0.0912039	2254738
5551.09	-0.0853351	2256505
5560.26	-0.0806472	2258148
5570.58	-0.0758988	2259751
5580.89	-0.0714627	2261538
5590.06	-0.0685144	2262662
5600.38	-0.0645574	2263967
5610.7	-0.0629399	2265087
5621.01	-0.0610698	2266510
5630.18	-0.059563	2267432
5640.5	-0.0579889	2268840
5650.81	-0.0564433	2269403
5661.13	-0.0550524	2270721
5670.3	-0.0539358	2270636
5680.62	-0.0527556	2271675
5690.93	-0.0516357	2272515
5700.1	-0.050725	2273075
5710.42	-0.0498259	2273645
5720.73	-0.0490558	2273980
5731.05	-0.0483988	2275116
5740.22	-0.0479101	2275322
5750.53	-0.0474877	2275933
5760.85	-0.0472235	2276733
5770.02	-0.0471321	2277581
5780.33	-0.0471948	2278742
5790.65	-0.047448	2279544
5801.03	-0.0479228	2280469
5810.28	-0.0485456	2281361
5820.68	-0.0494721	2282316
5831.08	-0.0506335	2283504
5840.33	-0.0518618	2284200
5850.73	-0.0534661	2285631
5861.13	-0.055308	2286428
5870.37	-0.0571444	2287984
5880.78	-0.0594318	2289469
5890.84	-0.0618659	2290920
5900.24	-0.0643295	2292564
5910.74	-0.0672946	2293985
5920.33	-0.0701939	2295330
5931.14	-0.0736692	2296007
5940.92	-0.076984	2297809
5950.42	-0.0803453	2298678
5961.03	-0.0842384	2300028
5971.07	-0.0880446	2301332
5980.11	-0.0915739	2302182
5990.64	-0.0958025	2303627
6000.78	-0.0999904	2304632
6011.01	-0.104532	2306272
6020.85	-0.10867	2307167
6030.02	-0.112226	2308089
6040.96	-0.11671	2309477
6050.04	-0.120606	2310912
6060.35	-0.12486	2312361
6070.7	-0.128809	2314059
6080.43	-0.132199	2316245
6090.2	-0.135331	2317903
6100.55	-0.138422	2320351
6110.9	-0.141243	2322410
6120.1	-0.14341	2325117
6130.44	-0.145353	2327356
6140.79	-0.146741	2330019
6151.14	-0.147603	2332679
6160.33	-0.147948	2335064
6170.66	-0.147866	2337432
6180.98	-0.147282	2339496
6190.14	-0.146349	2341611
6200.43	-0.144863	2343965
6210.7	-0.142958	2346613
6220.97	-0.140665	2348614
6230.1	-0.138319	2350978
6240.37	-0.135351	2353060
6250.62	-0.132059	2355261
6260.84	-0.128483	2357838
6271.06	-0.124649	2360395
6280.14	-0.121048	2362282
6290.36	-0.116797	2363729
6300.56	-0.112347	2365816
6310.75	-0.107714	2367436
6320.93	-0.102913	2369296
6331.1	-0.0979703	2371082
6340.13	-0.0934772	2372580
6350.28	-0.088325	2374682
6360.44	-0.0830916	2376896
6370.6	-0.0778012	2378889
6380.75	-0.0724796	2380277
6390.76	-0.0672292	2381958
6400.21	-0.0622921	2383279
6410.66	-0.0568793	2385323
6420.06	-0.0520698	2386443
6430.6	-0.0467637	2387624
6440.38	-0.0419474	2389228
6450.51	-0.0370855	2390969
6460.5	-0.0324447	2393278
6471	-0.0277361	2394963
6480.7	-0.0235612	2396692
6490.5	-0.0195108	2397937
6500.23	-0.0156712	2399484
6510.35	-0.0118674	2401203
6520.48	-0.00826653	2403167
6530.6	-0.00487135	2405500
6540.73	-0.00168264	2407737
6550.86	0.00130109	2410261
6560.38	0.00392189	2412860
6570.35	0.00644838	2414964
6581.07	0.00900521	2418107
6590.82	0.0111623	2419604
6600.73	0.0131846	2422343
6610.89	0.0151291	2424248
6620.98	0.0168988	2427043
6630.58	0.0184744	2428811
6640.66	0.0200222	2431212
6650.8	0.0214698	2433148
6660.94	0.0228286	2435444
6671.08	0.0241503	2437560
6680.1	0.0252573	2439495
6690.24	0.0264038	2441889
6700.38	0.0275385	2443474
6710.51	0.0286734	2445679
6720.64	0.0297442	2447423
6730.77	0.0307669	2449569
6740.89	0.0313825	2451253
6751.02	0.0323091	2453253
6760.02	0.0330639	2454979
6770.15	0.0339326	2456265
6780.27	0.0347016	2457592
6790.87	0.035487	2458665
6800.34	0.036385	2459590
6810.88	0.0368736	2460701
6820.37	0.0371607	2461746
6830.83	0.0373403	2462686
6840.61	0.0374607	2462926
6850.16	0.0374508	2463562
6860.66	0.0373077	2464923
6870.06	0.0370582	2465868
6880.62	0.0366233	2467394
6890.15	0.0360822	2468809
6900.68	0.0353084	2470854
6910.18	0.0344486	2472386
6920.83	0.0333151	2474293
6930.42	0.0321472	2475847
6940.22	0.0308142	2477437
6950.32	0.0293605	2479592
6960.92	0.0277556	2481426
6970.45	0.0260859	2483565
6980.2	0.0242993	2485381
6990.83	0.0220757	2487708
7000.33	0.0192647	2488902
7010.9	0.0155751	2491119
7020.51	0.0126312	2492863
7030.13	0.00992433	2494561
7040.9	0.00701973	2496519
7050.89	0.00438831	2497522
7060.87	0.00175198	2499271
7070.77	-0.00086092	2500248
7080.34	-0.00340046	2501799
7090.15	-0.00602998	2502743
7101.04	-0.00894718	2504163
7110.64	-0.0114718	2505382
7120.25	-0.0139177	2505910
7130.06	-0.0163196	2506847
7140.31	-0.018723	2507859
7150.66	-0.0210612	2508499
7160.87	-0.0233006	2510387
7170.91	-0.025452	2511844
7180.96	-0.0275566	2513377
7191.05	-0.0296212	2514901
7200.65	-0.031533	2516873
7210.56	-0.03345	2518599
7220.9	-0.0353953	2520438
7230.85	-0.0372179	2521888
7240.49	-0.0389441	2523690
7250.4	-0.0406808	2525499
7260.74	-0.0424562	2527132
7271.08	-0.0441884	2529331
7280.28	-0.0456866	2530408
7290.62	-0.0473186	2532795
7300.96	-0.0488869	2534563
7310.16	-0.0502214	2536249
7320.5	-0.0516484	2538379
7330.83	-0.052985	2539408
7341.13	-0.0542164	2541671
7350.24	-0.0552059	2542793
7360.45	-0.056186	2544369
7370.62	-0.0570119	2545289
7380.76	-0.057662	2546330
7390.9	-0.0581437	2547910
7401.04	-0.0584216	2548389
7410.05	-0.0583168	2550047
7420.19	-0.0583093	2551529
7430.33	-0.0580613	2552492
7440.48	-0.0575944	2554165
7450.62	-0.0569005	2555132
7460.76	-0.0559723	2557396
7470.9	-0.0548726	2558539
7481.04	-0.0536562	2560144
7490.05	-0.0524751	2560869
7500.19	-0.0510183	2561729
7510.33	-0.0494137	2562576
7520.47	-0.0476597	2563846
7530.61	-0.0457642	2565359
7540.75	-0.0437454	2566275
7550.89	-0.041583	2567896
7561.03	-0.0392233	2569054
7570.05	-0.0369394	2570784
7580.19	-0.0341629	2571857
7590.28	-0.0311946	2573516
7600.23	-0.028097	2574692
7610.17	-0.0248602	2575897
7620.12	-0.0215168	2577148
7630.06	-0.0180878	2578753
7640.01	-0.0145807	2580071
7651.06	-0.010592	2581761
7661	-0.0069194	2582717
7670.95	-0.00317294	2584337
7680.89	0.000639362	2585639
7690.84	0.00450867	2586611
7700.78	0.00842721	2587656
7710.73	0.0123886	2588359
7720.73	0.0164097	2589017
7730.79	0.0204912	2589413
7740.87	0.024602	2589741
7750.97	0.0287482	2589828
7761.09	0.0329158	2590105
7770.08	0.0366295	2590380
7780.19	0.0408118	2590650
7790.31	0.0449927	2590792
7800.44	0.0491676	2590715
7810.6	0.0533316	2591525
7820.72	0.057449	2592080
7830.83	0.0615221	2592238
7840.95	0.0655403	2592450
7851.07	0.0694914	2593030
7860.06	0.0729376	2593534
7870.18	0.0767301	2593618
7880.29	0.0804226	2594676
7890.41	0.0840049	2595048
7900.53	0.0874674	2595866
7910.65	0.0908013	2596755
7920.77	0.0939983	2598020
7930.87	0.0970439	2598797
7940.78	0.0998861	2600009
7950.69	0.102576	2601743
7960.6	0.105109	2603297
7970.51	0.107478	2605285
7980.41	0.109681	2606449
7990.32	0.111714	2608157
8000.22	0.113576	2609553
8010.13	0.115268	2611380
8020.03	0.116792	2613335
8031.03	0.11829	2614834
8040.94	0.119468	2616798
8050.84	0.12049	2619120
8060.75	0.121363	2621127
8070.65	0.122095	2623524
8080.56	0.122693	2625442
8090.46	0.123167	2627801
8100.36	0.123527	2629826
8110.27	0.123782	2631505
8120.17	0.123941	2632903
8130.07	0.124013	2634177
8141.08	0.124004	2635948
8150.98	0.123924	2637442
8160.89	0.123784	2639491
8170.79	0.123591	2641372
8180.79	0.123348	2643143
8190.82	0.123059	2644726
8200.81	0.12273	2646785
8210.7	0.122366	2648561
8220.74	0.121959	2650129
8230.53	0.121526	2652168
8240.26	0.12106	2653644
8251.07	0.120498	2655464
8260.86	0.119948	2656449
8270.6	0.119357	2658302
8280.43	0.118713	2659638
8290.4	0.118007	2661125
8300.25	0.117249	2662255
8310.03	0.116435	2663052
8320.07	0.115527	2664479
8330.19	0.114532	2666271
8341.02	0.113372	2667974
8350.01	0.112329	2669078
8360.13	0.111063	2670163
8370.25	0.1097	2671639
8380.37	0.108238	2672543
8390.49	0.106673	2673612
8400.61	0.105001	2675014
8410.73	0.103223	2676456
8420.85	0.101338	2677950
8430.97	0.0993496	2679432
8441.1	0.0972608	2680407
8450.13	0.0953188	2681477
8460.34	0.0930398	2682628
8470.55	0.090676	2683457
8480.77	0.0882355	2684291
8491	0.0857307	2684830
8500.1	0.0834569	2685796
8510.37	0.0808568	2686127
8520.63	0.0782296	2687131
8530.71	0.0756357	2688077
8540.53	0.073111	2688471
8550.79	0.070483	2689413
8560.79	0.0679456	2690034
8570.27	0.0655738	2690634
8580.77	0.0629937	2691363
8590.78	0.0605916	2691818
8600.87	0.058235	2692654
8610.71	0.0560081	2693223
8620.73	0.0538175	2694201
8630.96	0.051668	2694824
8640.06	0.0498356	2695577
8650.97	0.047739	2697013
8660.07	0.0460758	2697722
8670.3	0.0442957	2698685
8680.5	0.0426135	2699923
8690.63	0.0410294	2700462
8700.86	0.0395138	2701117
8710.51	0.038161	2702303
8720.74	0.0368047	2703139
8730.52	0.0355809	2704136
8740.23	0.0344322	2704642
8750.37	0.0332933	2706211
8760.36	0.0322212	2706795
8770.95	0.0311269	2707513
8780.47	0.0301669	2708154
8790.15	0.0292061	2708670
8800.91	0.0281439	2709484
8810.61	0.0271831	2709813
8820.48	0.0261947	2710895
8830.47	0.025176	2711136
8840.66	0.0241086	2712088
8850.82	0.0230081	2713312
8860.92	0.0218716	2713322
8871.13	0.0206719	2714447
8880.2	0.0195579	2714546
8890.41	0.0182463	2714870
8900.62	0.0168683	2715552
8910.82	0.01542	2715382
8921.03	0.0139008	2716567
8930.09	0.0124935	2716371
8940.28	0.0108462	2716628
8950.46	0.00913327	2716664
8960.59	0.00736148	2716776
8970.7	0.00552818	2717074
8980.81	0.00363414	2716728
8990.92	0.00168407	2716863
9001.03	-0.000315571	2716947
9010.01	-0.00212883	2716444
9020.12	-0.00420208	2716626
9030.07	-0.00626958	2715991
9041.03	-0.00857036	2715934
9050.86	-0.0106442	2715315
9060.56	-0.0126962	2714614
9070.52	-0.0147982	2714497
9080.5	-0.0168944	2713486
9090.38	-0.0189523	2713333
9101.03	-0.0211441	2712909
9110.62	-0.0230875	2712550
9120.36	-0.02503	2711353
9130.15	-0.0269441	2710528
9140.28	-0.0288789	2710286
9150.31	-0.0307507	2710667
9160.12	-0.0325328	2710605
9170.06	-0.0342911	2711271
9180.13	-0.0360219	2712161
9190.24	-0.0377086	2712267
9200.3	-0.0393369	2713940
9211.05	-0.0410228	2714951
9221.03	-0.0425401	2716034
9230.82	-0.0439831	2717444
9240.71	-0.0453988	2718231
9250.34	-0.0467393	2719898
9260.37	-0.0480967	2720692
9270.21	-0.0493941	2721984
9280.08	-0.0506639	2723169
9290.99	-0.052035	2724038
9300.82	-0.0532413	2725439
9310.9	-0.0544514	2726074
9321.01	-0.0556378	2727369
9331.12	-0.0567959	2728064
9340.03	-0.0577919	2729063
9350.06	-0.0588853	2730409
9360.11	-0.0599466	2731323
9370.11	-0.0609694	2732494
9380.22	-0.0619646	2733667
9390.33	-0.0629188	2734938
9400.44	-0.0638291	2736065
9410.54	-0.0646911	2737036
9420.59	-0.0654995	2738057
9430.7	-0.0662583	2739149
9440.67	-0.0669486	2741438
9450.3	-0.0675564	2743607
9460.01	-0.0681069	2745246
9470.76	-0.0686389	2747409
9480.67	-0.0690538	2749055
9490.84	-0.0694003	2750893
9500.98	-0.0696651	2752287
9510.62	-0.0698408	2753773
9520.36	-0.0699437	2755858
9530.08	-0.069973	2757507
9540.88	-0.069922	2759207
9550.44	-0.0698064	2759865
9560.16	-0.0696247	2761392
9570.95	-0.0693519	2763248
9580.73	-0.069045	2764332
9590.79	-0.0686764	2765611
9600.66	-0.0682677	2767149
9610.39	-0.0678253	2768263
9621.03	-0.0673042	2768710
9630.98	-0.0667888	2769332
9640.83	-0.0662585	2770033
9650.81	-0.0657084	2769768
9660.83	-0.065149	2769773
9670.93	-0.0645861	2769952
9681.04	-0.0640293	2770374
9691.02	-0.0634942	2770784
9700.98	-0.0629801	2770114
9710.99	-0.0624904	2770250
9721.12	-0.0621894	2770087
9730.13	-0.0618277	2769845
9740.27	-0.0614347	2769411
9750.42	-0.0610403	2769319
9760.59	-0.0607267	2770189
9770.65	-0.0604472	2770380
9780.7	-0.0601832	2770229
9790.82	-0.0599349	2770278
9800.98	-0.0597084	2770159
9811.12	-0.0595044	2769885
9820.1	-0.0593383	2769447
9830.2	-0.0591609	2768622
9840.31	-0.0589865	2769052
9850.42	-0.058808	2768650
9860.53	-0.0586181	2769122
9870.64	-0.0584096	2769292
9880.75	-0.0581746	2769235
9890.86	-0.0579059	2769148
9900.59	-0.0576085	2769011
9910.6	-0.0572561	2768326
9920.57	-0.0568521	2767592
9930.67	-0.0563815	2766175
9940.78	-0.0558422	2765585
9950.89	-0.0552296	2764593
9961.02	-0.0545393	2763817
9970.03	-0.0538599	2763612
9980.17	-0.0530217	2763567
9990.3	-0.0521068	2763949
10000.4	-0.0511177	2763965
10010.6	-0.0500582	2764932
10020.7	-0.0489327	2766258
10030.9	-0.0477466	2767463
10040.8	-0.0465235	2769193
10051	-0.0452355	2770241
10061.1	-0.0439066	2771819
10070.1	-0.0426875	2772936
10080.3	-0.0412431	2774017
10090.4	-0.0409137	2775723
10100.5	-0.0400319	2777190
10110.7	-0.0385757	2778917
10120.8	-0.0370804	2780568
10131	-0.0356464	2782896
10141.1	-0.0342701	2784592
10150.1	-0.0330819	2785043
10160.3	-0.0317492	2786420
10170.5	-0.0304337	2787184
10180.7	-0.029166	2787829
10190.9	-0.0279675	2788420
10201	-0.0268471	2788842
10210.1	-0.0259136	2790080
10220.1	-0.0249413	2791072
10230.2	-0.0240289	2793035
10240.3	-0.0231842	2793778
10250.1	-0.0224366	2795402
10260.2	-0.0217461	2796872
10270.4	-0.0211376	2798294
10280.6	-0.0206211	2800260
10290.7	-0.0201994	2802796
10300.9	-0.0198755	2804530
10310.9	-0.0196503	2807013
10320.8	-0.0195236	2808914
10330.8	-0.0194899	2810353
10340.8	-0.0195453	2812582
10350.7	-0.0196833	2813573
10360.8	-0.0199297	2815625
10371	-0.0202879	2817511
10381.1	-0.020746	2818847
10390.2	-0.0212306	2820422
10400.3	-0.0218599	2821185
10410.5	-0.0225791	2821726
10420.7	-0.0233881	2822768
10430.9	-0.0242853	2823507
10440	-0.0251581	2824245
10450.2	-0.0262241	2825045
10460.4	-0.0273778	2826192
10470.6	-0.0286174	2827324
10480.8	-0.0299414	2827660
10491	-0.0313473	2828490
10500.1	-0.0326638	2828692
10510.2	-0.0342046	2828949
10521.1	-0.0359536	2828853
10530.2	-0.0374636	2828195
10540.4	-0.0391379	2828578
10550.6	-0.0408207	2827775
10560.7	-0.0426397	2827724
10570.8	-0.0446046	2827522
10581	-0.0466518	2827498
10590.1	-0.0485009	2827076
10600.3	-0.0505987	2826667
10610.5	-0.0527146	2826244
10620.6	-0.0548502	2826500
10630.8	-0.0570016	2826595
10641	-0.0591805	2826608
10651.1	-0.0613614	2827480
10661.1	-0.0635722	2827083
10670.2	-0.0655863	2827758
10680.4	-0.0678563	2827392
10690.6	-0.0701207	2827675
10700.8	-0.0723754	2827207
10711	-0.0746152	2826808
10720	-0.0765867	2827525
10730.2	-0.0787739	2827509
10740.4	-0.0809216	2827848
10750.6	-0.0830247	2828279
10760.8	-0.0850793	2828441
10771	-0.0870812	2828469
10780.1	-0.0888131	2827891
10790.3	-0.0907038	2827666
10800.5	-0.0925295	2827083
10810.7	-0.0942867	2826711
10820.9	-0.0959719	2826213
10831.1	-0.0975814	2826734
10840.2	-0.0989455	2826575
10850.4	-0.100402	2826582
10860.6	-0.101773	2826951
10870.8	-0.103054	2826648
10881	-0.104245	2826818
10890	-0.105224	2826454
10900.2	-0.106233	2826893
10910.4	-0.107142	2826918
10920.6	-0.107948	2826443
10930.8	-0.108649	2825931
10941	-0.109242	2826064
10950.1	-0.109677	2826236
10960.3	-0.110064	2826757
10970.5	-0.11034	2827452
10980.7	-0.110504	2827631
10990.9	-0.110555	2827987
11000	-0.110505	2828982
11010.2	-0.110342	2829572
11020.5	-0.110065	2829841
11030.7	-0.109677	2829984
11041	-0.109176	2830473
11050.1	-0.108638	2830576
11060.3	-0.10793	2830937
11070.6	-0.107112	2830730
11080.8	-0.106185	2830195
11091.1	-0.105151	2830815
11100.2	-0.104142	2831148
11110.4	-0.102906	2831550
11120.7	-0.101565	2831870
11130.9	-0.100118	2832515
11140	-0.098744	2833133
11150.3	-0.0971004	2833307
11160.5	-0.0953535	2833691
11170.8	-0.0935041	2833766
11181	-0.0915534	2833566
11190	-0.0897475	2833626
11200.2	-0.0876331	2834204
11210.9	-0.0852901	2834127
11221	-0.0829935	2834397
11230.9	-0.0806637	2834803
11240.7	-0.0782609	2835300
11250.8	-0.0757164	2836236
11260.9	-0.0730962	2837699
11270.9	-0.0704328	2838279
11280.7	-0.0677481	2838703
11290.8	-0.0649297	2838855
11300.9	-0.062054	2838482
11311	-0.0591263	2837850
11321.1	-0.0561522	2837526
11330.1	-0.0534741	2837308
11340.2	-0.0504279	2837100
11350.3	-0.0473523	2836155
11360.4	-0.0442532	2835929
11370.4	-0.0411368	2835330
11380.5	-0.0380091	2835164
11390.7	-0.0348709	2835067
11400.8	-0.0317196	2834839
11411	-0.0285584	2835176
11420.1	-0.0257543	2835296
11430.3	-0.0226147	2835802
11440.5	-0.0194954	2835992
11450.7	-0.0164008	2836773
11461	-0.0133348	2837369
11470	-0.0106362	2837541
11480.3	-0.00763335	2837771
11490.5	-0.00466803	2837884
11500.7	-0.00174109	2837693
11510.9	0.00114686	2837917
11520.1	0.00368112	2837795
11530.3	0.00648754	2838783
11540.5	0.00924649	2838911
11550.8	0.0119565	2839334
11561	0.0146162	2839502
11570.2	0.0169373	2839326
11580.4	0.0194992	2838914
11590.6	0.0220061	2838917
11600.8	0.0244508	2839088
11611	0.0268414	2838427
11620.1	0.028922	2838099
11630.3	0.031213	2837568
11640.5	0.0334475	2837184
11650.6	0.0356201	2836618
11660.7	0.0377298	2835817
11670.7	0.0397851	2835156
11680.7	0.041789	2835259
11690.7	0.0437454	2834814
11700.7	0.0456563	2833955
11710.7	0.0475226	2832958
11720.7	0.0493452	2832348
11730.8	0.0511252	2831598
11740.8	0.0528634	2830211
11750.8	0.0545611	2829004
11760.8	0.0562194	2828773
11770.8	0.0578396	2829221
11780.8	0.0594231	2829028
11790.8	0.0609712	2829511
11800.8	0.0624855	2829209
11810.8	0.0639673	2829247
11820.8	0.0654179	2829276
11830.8	0.0668383	2829013
11840.9	0.0682295	2829191
11850.9	0.0695923	2828579
11860.9	0.0709283	2828741
11870.9	0.0722406	2827828
11881	0.0735269	2827287
11891.1	0.0747858	2826748
11901.1	0.0760172	2825709
11910.1	0.0770903	2825603
11920.2	0.0782725	2824590
11930.3	0.0794296	2824474
11940.4	0.0805619	2824279
11950.6	0.0816702	2824185
11960.7	0.08275	2823310
11970.9	0.0838011	2822644
11981	0.0848245	2822416
11990.1	0.0857109	2821964
12000.2	0.0866822	2820936
12010.4	0.0876262	2820712
12020.5	0.0885429	2819925
12030.7	0.0894327	2819296
12040.8	0.0902958	2818340
12051	0.0911325	2817989
12060	0.0918545	2817481
12070.2	0.0926426	2816460
12080.3	0.093405	2815539
12090.4	0.094141	2815085
12100.5	0.0948523	2814373
12110.6	0.0955404	2814043
12120.7	0.0962061	2814271
12130.9	0.0968502	2813861
12141	0.0974736	2813988
12151.1	0.0980772	2813342
12160	0.0985979	2813435
12170.1	0.0991668	2813750
12180.3	0.0997189	2813507
12190.4	0.100255	2813674
12200.5	0.100777	2813369
12210.6	0.101286	2814341
12220.7	0.101782	2813586
12230.8	0.102268	2813937
12240.9	0.102743	2814362
12251	0.10321	2813493
12261.1	0.103669	2814283
12270.1	0.104071	2814376
12280.2	0.104517	2814872
12290.3	0.104958	2813844
12300.4	0.105394	2813943
12310.5	0.105824	2813076
12320.6	0.10625	2812810
12330.7	0.106671	2811789
12340.8	0.107086	2811117
12350.9	0.107495	2810367
12361.1	0.107898	2809212
12370.1	0.10825	2808731
12380.2	0.108688	2808007
12390.4	0.109097	2807058
12400.5	0.10944	2805849
12410.7	0.109728	2804784
12420.9	0.109997	2803387
12431.1	0.11029	2801723
12440.2	0.110562	2800780
12450.4	0.110851	2799688
12460.5	0.1111	2798432
12470.6	0.111669	2797266
12480.6	0.111799	2796037
12490.6	0.111913	2795147
12500.6	0.112023	2794806
12510.5	0.112124	2794274
12520.4	0.112202	2794548
12530.2	0.112249	2794610
12540	0.112257	2795037
12550.9	0.11222	2795790
12560.7	0.112147	2796201
12570.5	0.112037	2796513
12580.4	0.111891	2797197
12590.2	0.111708	2798116
12601.1	0.111456	2798512
12610.9	0.111182	2799393
12620.7	0.110859	2800557
12630.5	0.110483	2801294
12640.3	0.110053	2802142
12650.1	0.109566	2803276
12661.1	0.108958	2803899
12670.9	0.108349	2804029
12680.7	0.107679	2804119
12690.5	0.106947	2805120
12700.3	0.10615	2806405
12710.1	0.105286	2806857
12721	0.104244	2807962
12730.8	0.103229	2807949
12740.7	0.102138	2808080
12750.5	0.100969	2808736
12760.3	0.0997159	2808615
12770.2	0.0983702	2809003
12780.2	0.0969358	2808913
12790.1	0.0954132	2808557
12800	0.0938017	2808362
12811.1	0.091903	2807982
12821.1	0.0901124	2807732
12830	0.0884948	2807078
12840.1	0.0865742	2806997
12850.2	0.0843788	2806794
12860.3	0.0820273	2806391
12870.4	0.0797085	2805862
12880.4	0.0773573	2805224
12890.5	0.0749485	2805940
12900.5	0.0724716	2805764
12910.4	0.0699285	2805437
12920.4	0.0673375	2805798
12930.4	0.0647115	2805802
12940.4	0.0620531	2806029
12950.3	0.0593611	2805982
12960.3	0.0566371	2806372
12970.3	0.0538859	2807172
12980.2	0.0511174	2807135
12990.1	0.0483579	2807518
13001	0.0452937	2807715
13010.8	0.0425385	2807332
13020.5	0.0397781	2807193
13030.3	0.0370159	2806855
13040.1	0.0342545	2806526
13050.9	0.0311901	2806160
13060.7	0.0284382	2805453
13070.5	0.0256952	2804651
13080.2	0.0229647	2804184
13090	0.0202503	2803369
13100.9	0.0172583	2803024
13110.6	0.0145909	2802292
13120.4	0.0119512	2802153
13130.2	0.00934217	2801778
13141	0.00648284	2801347
13150.8	0.00394808	2800515
13160.6	0.00145272	2799854
13170.3	-0.00100062	2798715
13180.1	-0.00340943	2797761
13190.9	-0.00602346	2797512
13200.6	-0.00830927	2797103
13210.3	-0.0105388	2796402
13221	-0.0129553	2795298
13230.6	-0.0150747	2794686
13240.3	-0.0171406	2793912
13251	-0.0193716	2793094
13260.6	-0.0213204	2792776
13270.3	-0.0232117	2791776
13281	-0.0252443	2790958
13290.6	-0.0270103	2790207
13300.3	-0.0287153	2789730
13311	-0.0305372	2788396
13320.6	-0.0321108	2788067
13330.3	-0.0336213	2787135
13341	-0.0352258	2786111
13350.6	-0.0366045	2786052
13360.3	-0.0379183	2785615
13371	-0.039304	2785908
13380.6	-0.0404885	2785701
13390.3	-0.0416134	2786253
13401	-0.0427895	2786410
13410.6	-0.0437792	2786624
13420.3	-0.0447041	2786443
13431.1	-0.0456579	2786496
13440.8	-0.0464559	2786819
13450.7	-0.0471982	2786525
13460.5	-0.0478772	2786531
13470.4	-0.0484922	2786772
13480.2	-0.0490466	2787593
13490	-0.049544	2788029
13500.9	-0.05004	2787676
13510.8	-0.0504481	2786784
13520.6	-0.0507996	2786484
13530.4	-0.0508493	2786119
13540.3	-0.0510874	2785753
13550.1	-0.0513459	2785463
13561	-0.0515751	2785172
13570.8	-0.0516748	2784866
13580.7	-0.0516154	2783596
13590.5	-0.0515836	2783844
13600.3	-0.051587	2783138
13610	-0.0515696	2782434
13620.9	-0.0515123	2781652
13630.7	-0.0514268	2781771
13640.4	-0.0513173	2781481
13650.2	-0.051191	2780321
13661	-0.0510323	2779588
13670.7	-0.0508724	2778787
13680.4	-0.0506985	2778162
13690	-0.0505144	2777598
13700.7	-0.050303	2776721
13710.3	-0.0501107	2776628
13721	-0.0498976	2775288
13730.6	-0.0497079	2775093
13740.2	-0.0495215	2774488
13750.9	-0.0493196	2773652
13760.5	-0.0491435	2773124
13770.2	-0.048974	2772030
13780.8	-0.0487954	2771458
13790.5	-0.0486454	2770769
13800.1	-0.0485073	2769337
13810.8	-0.048369	2768397
13820.4	-0.0482591	2767797
13830	-0.0481632	2767210
13840.7	-0.0480732	2766360
13850.3	-0.0480074	2765690
13861	-0.0479517	2765202
13870.6	-0.0479175	2764932
13880.2	-0.0478985	2764386
13891	-0.047895	2763233
13900.7	-0.0479071	2762811
13910.4	-0.0479331	2762118
13920.1	-0.047972	2761792
13931	-0.0480298	2761806
13940.7	-0.048094	2761159
13950.5	-0.0481687	2760109
13960.3	-0.0482529	2759472
13970.1	-0.0483455	2758929
13980.9	-0.0484563	2758406
13990.8	-0.0485612	2757490
14000.6	-0.0486692	2757620
14010.5	-0.0487789	2756210
14020.4	-0.0488877	2756023
14030.3	-0.0489938	2755889
14040.2	-0.0490953	2755590
14050.1	-0.0491904	2755960
14060	-0.0492774	2754933
14071.1	-0.0493622	2754505
14081.1	-0.0494257	2754512
14091.1	-0.0494752	2753615
14100	-0.0495059	2753237
14110.1	-0.0495238	2752733
14120.1	-0.0495228	2751939
14130.2	-0.0495015	2750759
14140.2	-0.0494587	2749958
14150.3	-0.0493933	2748759
14160.3	-0.0493046	2747760
14170.4	-0.0491916	2746945
14180.4	-0.0490541	2746513
14190.5	-0.0488917	2745459
14200.5	-0.0487046	2745360
14210.6	-0.0484928	2745169
14220.6	-0.0482569	2744838
14230.7	-0.0479976	2744448
14240.7	-0.0477155	2742965
14250.8	-0.0474114	2742461
14260.8	-0.0470865	2741038
14270.9	-0.0467416	2739738
14280.9	-0.046378	2737890
14291	-0.0459956	2736642
14300	-0.0456411	2736159
14310.2	-0.0452242	2734998
14320.5	-0.0447912	2734251
14330.7	-0.0443446	2732986
14341	-0.0438872	2731786
14350.1	-0.0434731	2731300
14360.4	-0.0430005	2729714
14370.7	-0.0425225	2728861
14381	-0.0420409	2727734
14390.1	-0.0416122	2726541
14400.3	-0.0411307	2725174
14410.5	-0.0406509	2724258
14420.8	-0.0401743	2723781
14431	-0.0397022	2723139
14440.1	-0.0392877	2721733
14450.3	-0.0388283	2720883
14460.5	-0.0383773	2719758
14470.8	-0.0379358	2718371
14481	-0.0375051	2716695
14490.1	-0.0371317	2714488
14500.3	-0.0367231	2712440
14510.5	-0.036327	2710003
14520.7	-0.0359439	2707508
14531	-0.0355743	2705015
14540	-0.0352573	2702624
14550.3	-0.0349137	2699756
14560.5	-0.0345842	2696711
14570.7	-0.0342689	2693744
14580.9	-0.0339677	2691496
14590	-0.0337119	2688895
14600.2	-0.0334373	2686273
14610.5	-0.0331768	2682906
14620.7	-0.03293	2680538
14630.9	-0.0326968	2677324
14640	-0.0325003	2674427
14650.2	-0.0322921	2671063
14660.4	-0.0320973	2667786
14670.5	-0.0319149	2664486
14680.6	-0.0317441	2661072
14690.7	-0.0315841	2657647
14700.8	-0.0314342	2655057
14710.9	-0.0312936	2651781
14721	-0.0311616	2649791
14731.1	-0.0310373	2646542
14740.1	-0.0309326	2643805
14750.2	-0.0308205	2641279
14760.3	-0.0307135	2637838
14770.4	-0.0306104	2635227
14780.5	-0.0305101	2631692
14790.6	-0.0304115	2627686
14800.7	-0.0303134	2624069
14810.8	-0.0302144	2619689
14820.9	-0.0301136	2615576
14830.9	-0.0300097	2610974
14840.9	-0.0299015	2606152
14850.8	-0.0297875	2601507
14860.7	-0.0296656	2595878
14870.6	-0.0295348	2590811
14880.5	-0.0293934	2585125
14890.4	-0.0292395	2579868
14900.2	-0.0290716	2574603
14910.1	-0.0288881	2568885
14921.1	-0.0286636	2563125
14931	-0.0284414	2557935
14940.9	-0.028198	2552604
14950.7	-0.0279319	2547529
14960.6	-0.0276413	2542333
14970.5	-0.0273244	2537759
14980.4	-0.0269795	2532767
14990.2	-0.0266049	2528070
15000.1	-0.0261989	2522882
15010	-0.02576	2518211
15021	-0.0252317	2513678
15030.9	-0.0247176	2508704
15040.8	-0.0241636	2504618
15050.8	-0.0235656	2500319
15061	-0.0229169	2495824
15071.1	-0.0222288	2491835
15081.1	-0.0215021	2487192
15091.1	-0.0207347	2483221
15101.1	-0.0199258	2479456
15111	-0.0190743	2475429
15120.9	-0.0181822	2471601
15130.7	-0.0172518	2467543
15140.5	-0.0162833	2463330
15150.3	-0.0152789	2458924
15161	-0.0141211	2454735
15170.7	-0.0130403	2450202
15180.3	-0.0119234	2446128
15191	-0.0106396	2442101
15200.7	-0.00944662	2438246
15210.3	-0.00821958	2434606
15221	-0.0068183	2430582
15230.6	-0.00552512	2427866
15240.3	-0.00420377	2424435
15251	-0.00270533	2420398
15260.6	-0.00133213	2417148
15270.2	6.16847e-05	2413462
15280.9	0.00163121	2409682
15290.5	0.00305959	2406149
15300.2	0.00450048	2401928
15311	0.00612293	2397710
15320.8	0.00760662	2393577
15330.7	0.00910398	2389086
15340.7	0.0106136	2385031
15350.7	0.0121173	2380513
15360.7	0.0136112	2375964
15370.7	0.0150914	2371336
15380.7	0.0165539	2366887
15390.7	0.0179949	2362227
15400.7	0.0194071	2358304
15410.6	0.0207841	2354138
15420.5	0.0221288	2350028
15430.5	0.0234377	2345557
15440.4	0.0247075	2340868
15450.3	0.025935	2336539
15460.2	0.0271171	2332326
15470.2	0.0282511	2327790
15480.1	0.0293343	2323448
15490	0.0303644	2319396
15501.1	0.0314472	2314610
15511.1	0.0323621	2310133
15521.1	0.0332183	2305386
15531.1	0.0340179	2300678
15540.1	0.0346806	2296857
15550.3	0.0353665	2292119
15560.6	0.0359966	2287309
15570.9	0.0365606	2282492
15580.1	0.0370034	2278570
15590.5	0.0374364	2273536
15600.8	0.0378015	2269200
15611.1	0.0380995	2264103
15620.3	0.0383091	2259453
15630.6	0.0384838	2254865
15641	0.0385953	2249719
15650.2	0.0386427	2244861
15660.5	0.0386398	2239601
15670.8	0.0385793	2234538
15681.1	0.0384636	2229570
15690.3	0.0383163	2224792
15700.7	0.038103	2219624
15711	0.0378418	2214522
15720.2	0.0375718	2209987
15730.5	0.0372279	2205666
15740.8	0.0368441	2201096
15750	0.0364716	2197214
15760.4	0.0360183	2192857
15770.8	0.0355323	2188103
15780.1	0.0350762	2184477
15790.5	0.0345383	2180332
15800.9	0.0339779	2175691
15810.1	0.0334643	2171245
15820.4	0.0328707	2166942
15830.8	0.0322617	2162695
15841.1	0.03164	2158493
15850.3	0.0310784	2154467
15860.7	0.0304386	2149836
15871	0.0297925	2145265
15880.2	0.0292143	2141299
15890.5	0.0285612	2136422
15900.9	0.027907	2131807
15910.1	0.0273257	2127977
15920.4	0.0266731	2123656
15930.8	0.0260233	2119690
15941.1	0.0253773	2115616
15950.3	0.0248069	2112397
15960.7	0.0241677	2108784
15971.1	0.0235301	2105246
15980.4	0.0229674	2101470
15991	0.0223381	2097608
16000.4	0.0217789	2093484
16011.2	0.0211468	2089418
16020.8	0.0205903	2085384
16030.4	0.0200392	2081494
16040	0.0194932	2077980
16050.8	0.0188842	2073746
16060.4	0.0183458	2069777
16070.1	0.0178093	2065693
16081.1	0.0172039	2061386
16091	0.0166591	2057830
16101	0.0161111	2053785
16111.1	0.0155641	2050316
16121.1	0.0150174	2046929
16131.1	0.0144699	2043135
16141.1	0.0139209	2039354
16151.2	0.0133687	2035345
16161.3	0.0128099	2031303
16170.2	0.0123127	2027687
16180.4	0.0117368	2023778
16190.6	0.0111544	2020096
16200.8	0.0105645	2015986
16211.1	0.0099662	2011855
16220	0.009435	2008142
16230.3	0.00881834	2003918
16240.5	0.00819068	1999810
16250.8	0.00754821	1995350
16261	0.00689205	1991396
16270.1	0.00630693	1987562
16280.3	0.00562507	1983406
16290.6	0.00492865	1979260
16300.9	0.00421716	1974519
16311.2	0.00349014	1970220
16320.2	0.00284097	1966528
16330.5	0.0020839	1962431
16340.8	0.00131041	1958338
16351.1	0.000520309	1954569
16360.1	-0.000184756	1951084
16370.4	-0.0010063	1947214
16380.7	-0.0018447	1943437
16391	-0.00269993	1939415
16401.3	-0.00357194	1936045
16410.3	-0.00434865	1932720
16420.5	-0.00525211	1929235
16430.8	-0.00617276	1925626
16441.2	-0.00711111	1922010
16450.2	-0.00794563	1919008
16460.7	-0.00892869	1915299
16471.2	-0.00993541	1911920
16480.7	-0.010855	1908884
16490.3	-0.0117961	1904933
16501.2	-0.0128889	1901014
16510.8	-0.013859	1897550
16520.4	-0.0148419	1893585
16531.3	-0.0159807	1889780
16540.9	-0.0169905	1885930
16550.5	-0.0180126	1882269
16560.1	-0.0190469	1878305
16571	-0.0202437	1874403
16580.6	-0.0213037	1871196
16590.2	-0.0223754	1867371
16601.1	-0.0236145	1863629
16610.7	-0.024711	1860024
16620.3	-0.0258189	1856957
16631.3	-0.0270989	1853541
16640.8	-0.0282307	1850255
16650.4	-0.0293734	1846995
16660	-0.0305269	1843251
16671	-0.0318579	1839571
16680.5	-0.0330252	1836182
16691.2	-0.0343584	1832696
16700.6	-0.0355273	1829446
16711.3	-0.0368696	1825786
16720.6	-0.0380517	1822520
16731.2	-0.0394124	1819490
16740.5	-0.0406112	1816727
16751.2	-0.0419886	1813537
16760.4	-0.043198	1810728
16771	-0.0445849	1807584
16780.3	-0.0458022	1805254
16790.8	-0.0471967	1802292
16800	-0.0484165	1799478
16810.5	-0.0498065	1796497
16820.9	-0.0511929	1793307
16830	-0.0524013	1790952
16840.4	-0.0537789	1788220
16850.7	-0.0551527	1785548
16861.1	-0.0565221	1782794
16870.1	-0.0577156	1780177
16880.4	-0.0590724	1777462
16890.8	-0.0604196	1774284
16901.1	-0.0617549	1771185
16910.2	-0.0629118	1768484
16920.5	-0.0642186	1765198
16930.9	-0.0655067	1762007
16941.2	-0.0667733	1758517
16950.2	-0.067862	1755594
16960.6	-0.0690812	1752254
16970.9	-0.0702711	1748928
16981.3	-0.0714293	1745374
16990.3	-0.0724148	1742494
17000.7	-0.0735072	1739420
17011.2	-0.0745666	1735951
17020.3	-0.0754579	1733269
17030.8	-0.0764315	1730152
17041.2	-0.0773544	1727140
17050.4	-0.0781178	1724762
17060.9	-0.0789371	1722156
17070	-0.0796053	1719590
17080.5	-0.0803119	1717160
17091	-0.0809557	1714094
17100.3	-0.0814655	1711510
17110.9	-0.0819818	1708449
17120.1	-0.0823729	1705757
17130.7	-0.0827491	1702986
17140	-0.0830142	1700719
17150.7	-0.0832423	1697611
17161.3	-0.0833879	1694922
17170.6	-0.0834462	1692307
17180	-0.0834387	1689605
17191	-0.0833451	1686340
17201.2	-0.0831746	1683256
17211.4	-0.082923	1680612
17220	-0.0826475	1678116
17230	-0.0822532	1675756
17240.1	-0.0817801	1673137
17250.1	-0.0812284	1670652
17260.1	-0.0805986	1667821
17270.2	-0.0798914	1664985
17280.2	-0.0791076	1662674
17290.2	-0.0782485	1660139
17300.3	-0.0773153	1657184
17310.3	-0.0763095	1654885
17320.3	-0.0752328	1652413
17330.4	-0.0740872	1649930
17340.5	-0.0728665	1647628
17350.7	-0.071559	1645262
17361.2	-0.0701633	1643042
17371.6	-0.0687032	1640859
17380.3	-0.0674394	1638982
17390.8	-0.0658692	1636681
17401.2	-0.0642437	1634719
17411.1	-0.0626489	1632835
17421.2	-0.0609906	1630727
17431.5	-0.0592416	1628831
17440.2	-0.0577381	1626888
17450.7	-0.0558992	1624969
17461.1	-0.0540287	1623191
17471.4	-0.0521466	1621148
17480	-0.0505543	1619135
17490.4	-0.0486127	1616744
17500.8	-0.0466523	1614286
17511.3	-0.0446743	1611757
17521.7	-0.0426854	1609590
17530.4	-0.0410224	1607642
17540.8	-0.0390238	1605680
17551.2	-0.0370255	1603340
17561.6	-0.0350309	1601199
17570.3	-0.0333834	1599626
17580.5	-0.0314404	1597740
17590.9	-0.0294822	1595631
17601.3	-0.027537	1593901
17611.6	-0.0256233	1591651
17620.3	-0.0240319	1590156
17630.7	-0.0221448	1588111
17641.1	-0.0202849	1586209
17651.5	-0.0184549	1584875
17660.2	-0.0169542	1583107
17670.5	-0.0152069	1581239
17680.6	-0.0135267	1579746
17690.6	-0.011884	1578227
17700.8	-0.0102617	1576465
17711.1	-0.00864872	1575081
17721.3	-0.00709106	1573877
17731.4	-0.00559898	1572322
17741.7	-0.0041071	1570874
17750.4	-0.00288182	1569334
17760.9	-0.00144774	1567575
17771.4	-5.71435e-05	1565829
17780.1	0.00106508	1564696
17790.1	0.0023182	1563011
17800.5	0.00358768	1561176
17811	0.00481411	1559588
17821.4	0.00599292	1557879
17831.3	0.00706585	1556379
17841.1	0.00810384	1554474
17850.9	0.00910577	1552762
17861	0.0100915	1551149
17871.5	0.0110869	1549506
17880.3	0.0118881	1548201
17890.8	0.0128068	1546703
17901.2	0.0136898	1545304
17910	0.0144041	1544102
17921.4	0.0152945	1542521
17931.2	0.0160227	1541108
17941.2	0.0167424	1539542
17951.2	0.0174335	1538044
17961.2	0.0180967	1536660
17971.2	0.0187329	1535081
17981.2	0.0193431	1533370
17991.2	0.019928	1531330
18001.2	0.0204884	1529638
18011.5	0.0210382	1527804
18021.3	0.0215374	1526141
18031.3	0.0220308	1524531
18041.7	0.0225158	1522741
18050.1	0.0228944	1521283
18060.7	0.0233449	1519006
18071.2	0.0237701	1517083
18081	0.0241468	1515480
18091.1	0.0245151	1513418
18101.4	0.0248691	1511569
18110	0.0251474	1509857
18120.4	0.025461	1508415
18130.7	0.0257524	1506686
18141	0.0260213	1505203
18151.3	0.0262672	1503825
18160.2	0.026459	1502469
18170.8	0.0266674	1500852
18181.5	0.0268499	1499133
18190.4	0.0269815	1497580
18201.1	0.0271143	1495986
18211.7	0.0272185	1493940
18220.2	0.0272816	1492308
18230.2	0.0273311	1490738
18241.6	0.0273551	1488620
18251.2	0.0273475	1487142
18260.7	0.0273143	1485473
18270.1	0.0272558	1483865
18280.9	0.0271554	1482299
18290.2	0.0270411	1480935
18301.2	0.0268715	1479058
18310.9	0.0266912	1477668
18320.6	0.0264804	1476351
18330.4	0.0262347	1475063
18340.2	0.0259571	1473867
18350.1	0.0256473	1472260
18361.5	0.0252446	1470679
18371.3	0.0248635	1469121
18381.5	0.0244358	1467494
18390.1	0.024042	1466525
18400.4	0.0235437	1465160
18410.4	0.0230234	1463939
18420.3	0.0224714	1462708
18430	0.0218977	1461921
18441.1	0.0212023	1460456
18450.7	0.0205757	1459291
18460.2	0.0199195	1458136
18470.2	0.0191949	1456866
18480.4	0.018429	1455729
18490.7	0.0176192	1454615
18501	0.0167777	1453316
18511.4	0.0159058	1451947
18521.7	0.0150045	1450451
18530.3	0.014232	1449284
18540.6	0.0132804	1447806
18550.9	0.0123033	1446008
18561.3	0.0113021	1444391
18571.6	0.0102785	1442682
18580.2	0.00941065	1441183
18590.5	0.00835217	1439823
18601.1	0.00724755	1438190
18611.6	0.00612603	1436633
18620.5	0.00517984	1434981
18631	0.00403217	1433078
18641.6	0.00287703	1431311
18650.2	0.00192425	1429808
18660.6	0.000765543	1428136
18670.9	-0.000385657	1426361
18681	-0.00151415	1424988
18691.2	-0.00265832	1423660
18701.2	-0.00378547	1422339
18711.4	-0.00493335	1420802
18720	-0.00590131	1419884
18730.4	-0.00706376	1419239
18741	-0.00824165	1417926
18751.6	-0.00941366	1416510
18760.4	-0.0103846	1415699
18771	-0.0115415	1414398
18781.5	-0.0126885	1413153
18790.2	-0.0136218	1412483
18800.6	-0.014727	1411198
18811.1	-0.0158304	1410174
18821.6	-0.0169306	1408972
18830.5	-0.0178365	1408111
18841	-0.0189098	1406933
18851.6	-0.0199674	1405439
18860.4	-0.0208364	1404262
18871	-0.0218639	1402903
18881.6	-0.0228744	1401517
18890.4	-0.0237035	1400247
18901	-0.0246829	1398869
18911.5	-0.0256457	1397779
18920.3	-0.0264326	1396853
18930.8	-0.0273627	1395393
18941.3	-0.02828	1394030
18950.1	-0.0290364	1393042
18960.6	-0.0299363	1391512
18971.1	-0.0308231	1390309
18981.3	-0.0316897	1388995
18991.5	-0.0325574	1387738
19000.1	-0.03329	1386733
19010.4	-0.0341724	1385481
19020.7	-0.0350542	1384244
19030.9	-0.0359462	1383213
19041.2	-0.0368526	1382131
19051.1	-0.0377332	1381028
19060.8	-0.038589	1380076
19071.1	-0.0394483	1379246
19081.3	-0.0403261	1378642
19091.6	-0.0412873	1377770
19100.2	-0.0421573	1376974
19110.6	-0.0416803	1376185
19121.1	-0.042142	1375255
19131.5	-0.0431751	1374301
19140.1	-0.0440825	1373402
19150.4	-0.0451032	1372415
19160.6	-0.0459977	1371483
19170.6	-0.0467531	1370483
19180.6	-0.047395	1369365
19190.7	-0.0479913	1368105
19200.9	-0.0486428	1367031
19211.1	-0.0492146	1365981
19221.4	-0.0496122	1364429
19231.6	-0.049856	1363394
19240.1	-0.0499814	1362318
19250.3	-0.0500706	1361038
19260.6	-0.0501038	1360081
19270.6	-0.050078	1358988
19280.7	-0.0499869	1358046
19290.8	-0.049823	1357046
19300.8	-0.0495819	1355913
19310.9	-0.0492587	1354663
19320.9	-0.0488489	1353429
19331	-0.0483503	1352488
19341.2	-0.0477732	1351351
19351.4	-0.0471239	1350141
19361.6	-0.0464061	1349022
19370	-0.0457502	1348093
19380.2	-0.0448794	1346998
19390.4	-0.0439305	1346163
19400.4	-0.0429523	1345226
19410.4	-0.0419231	1344319
19420.4	-0.0408293	1343312
19430.6	-0.039652	1341996
19440.8	-0.0384129	1340945
19450.9	-0.0371203	1339814
19461.1	-0.0357785	1338697
19471.3	-0.0343968	1337766
19481.3	-0.0329853	1336959
19491.4	-0.0315178	1336198
19501.6	-0.0300072	1335114
19510.1	-0.0287215	1334302
19520.3	-0.027149	1333301
19530.4	-0.0255631	1332365
19540.4	-0.0239596	1331313
19550.3	-0.0223517	1330379
19560.3	-0.0206852	1329710
19570.5	-0.0189765	1328848
19580.7	-0.0172427	1328359
19590.9	-0.0154844	1327534
19601.1	-0.0137021	1326941
19611.3	-0.0118979	1326485
19621.4	-0.0100798	1325940
19631.5	-0.00823759	1325505
19640	-0.00668208	1324877
19650.2	-0.00480018	1324405
19660.4	-0.00290454	1323651
19670.5	-0.00101011	1322784
19680.5	0.000867839	1322037
19690.5	0.00274834	1321339
19700.7	0.00464923	1320710
19710.8	0.00654715	1319839
19721	0.00844009	1319127
19731.2	0.0103186	1318328
19741.4	0.0121797	1317715
19751.5	0.014021	1316793
19760	0.0155388	1316207
19770.2	0.017329	1315605
19780.2	0.0190767	1314795
19790.2	0.020799	1314005
19800.2	0.0224945	1313234
19810.4	0.0241883	1312262
19820.6	0.0258515	1311349
19830.7	0.0274761	1310473
19840.8	0.0290502	1309688
19850.7	0.0305784	1308770
19860.7	0.0320801	1307948
19870.9	0.0335683	1307043
19881.1	0.0350128	1306308
19891.1	0.036397	1305397
19901.3	0.0377663	1304722
19911.2	0.0390577	1303866
19921.4	0.0403341	1303058
19931.7	0.0415814	1302362
19940.3	0.0425838	1301614
19950.6	0.0437417	1300970
19960.9	0.04485	1300387
19970.5	0.0458357	1299790
19980.6	0.046826	1299171
19990.9	0.0477837	1298656
