0	0	438848
10.9754	0	461570
20.9384	0	476872
30.9003	0	489736
40.8626	0	499982
50.8141	0	506802
60.6735	0	512982
70.4826	0	518356
80.2916	0	523052
90.0689	0	526698
100.74	0	530862
110.372	0	534056
120.97	0	537466
130.701	0	539762
140.575	0	542536
150.543	0	545964
160.597	0	548638
170.752	0	551392
180.918	0	553896
190.068	0	556110
200.234	0	558684
210.4	0	560874
220.566	0	563470
230.732	0	566212
240.898	0	569152
250.056	0	571982
260.259	0	574830
270.461	0	577984
280.645	0	580676
290.815	0	583614
300.99	0	586470
310.164	0	589234
320.361	0	592082
330.56	0	595176
340.739	0	598514
350.913	0	601880
360.063	0	605042
370.229	0	608502
380.394	0	612014
390.559	0	615456
400.725	0	618904
410.893	0	621894
420.063	0	624942
430.27	0	628576
440.472	0	631606
450.674	0	634926
460.876	0	638072
470.056	0	641014
480.253	0	644490
490.449	0	647694
500.646	0	650756
510.844	0	653768
520.031	0	656772
530.245	0	659942
540.424	0	663666
550.604	0	667098
560.816	0	670592
570.054	0	673710
580.319	0	677330
590.598	0	681060
600.901	0	684520
610.174	0	688162
620.477	0	691762
630.78	0	695614
640.053	0	698772
650.356	0	702578
660.659	0	706094
670.962	0	709988
680.234	0	713548
690.537	0	717104
700.84	0	720802
710.093	0	724418
720.345	0	728216
730.586	0	732090
740.826	0	736080
750.042	0	739734
760.282	0	743804
770.522	0	747956
780.762	0	752068
791.003	0	756218
800.214	0	760164
810.422	0	764526
820.626	0	768726
830.83	0	772764
840.013	0	776582
850.216	0	781062
860.418	0	785516
870.62	0	790206
880.823	0	794578
890.004	0	798566
900.201	0	802830
910.398	0	807424
920.595	0	811822
930.792	0	816128
940.989	0	820640
950.161	0	824708
960.34	0	828748
970.518	0	833122
980.684	0	837520
990.851	0	841712
1000	0	845628
1010.17	0	850032
1020.33	0	854262
1030.5	0	859008
1040.67	0	863634
1050.83	0	868440
1061	0	873448
1070.15	0	877886
1080.32	0	883024
1090.49	0	887798
1100.65	0	892472
1110.82	0	897004
1120.99	0	901580
1130.14	0	905842
1140.31	0	910510
1150.48	0	914974
1160.64	0	919624
1170.81	0	924112
1180.98	0	928840
1190.13	0	933012
1200.3	0	937852
1210.47	0	942680
1220.64	0	947722
1230.8	0	952488
1240.97	0	957212
1250.12	0	961444
1260.29	0	965778
1270.46	0	970350
1280.63	0	974740
1290.8	0	978956
1300.97	0	983694
1310.12	0	987676
1320.29	0	992544
1330.46	0	997172
1340.63	0	1002322
1350.8	0	1006766
1360.96	0	1011400
1370.12	0	1015660
1380.29	0	1020116
1390.45	-2.72848e-12	1024584
1400.57	-8.18545e-12	1028928
1410.68	-1.63709e-11	1033292
1420.77	-2.54659e-11	1037226
1430.87	-3.45608e-11	1041550
1440.97	-4.36557e-11	1045996
1450.05	-5.18412e-11	1049784
1460.15	-6.73026e-11	1054520
1470.25	-8.54925e-11	1059034
1480.34	-1.10049e-10	1063400
1490.44	-1.41881e-10	1068276
1500.54	-1.84627e-10	1072846
1510.63	-2.43745e-10	1077078
1520.73	-3.21052e-10	1081754
1530.82	-4.22915e-10	1086006
1540.92	-5.5843e-10	1090096
1550.01	-7.15772e-10	1093586
1560.1	-9.40418e-10	1097460
1570.2	-1.23327e-09	1101260
1580.3	-1.61253e-09	1104478
1590.39	-2.10366e-09	1107460
1600.49	-2.73576e-09	1110408
1610.59	-3.54794e-09	1113212
1620.68	-4.58476e-09	1116520
1630.78	-5.90353e-09	1119538
1640.88	-7.57791e-09	1122190
1650.98	-9.69703e-09	1125212
1660.06	-1.20763e-08	1127378
1670.16	-1.53632e-08	1130560
1680.26	-1.94832e-08	1133586
1690.35	-2.46318e-08	1136288
1700.45	-3.10456e-08	1139618
1710.55	-3.901e-08	1142304
1720.64	-4.88699e-08	1145546
1730.74	-6.10416e-08	1148416
1740.84	-7.60183e-08	1151656
1750.93	-9.43965e-08	1154720
1760.02	-1.14425e-07	1157000
1770.12	-1.41317e-07	1159936
1780.22	-1.74041e-07	1162548
1790.34	-2.13849e-07	1165438
1800.6	-2.62784e-07	1168100
1810.87	-3.22036e-07	1170718
1820.12	-3.85908e-07	1173244
1830.47	-4.71169e-07	1176006
1840.9	-5.74515e-07	1178872
1850.32	-6.85654e-07	1181396
1860.8	-8.32597e-07	1184708
1870.18	-9.88379e-07	1187350
1880.7	-1.19474e-06	1190178
1890.13	-1.41319e-06	1192928
1900.6	-1.69847e-06	1195956
1910.02	-1.9993e-06	1198704
1920.46	-2.38993e-06	1201462
1930.89	-2.84944e-06	1204102
1940.28	-3.33119e-06	1206456
1950.72	-3.95336e-06	1208966
1960.1	-4.60125e-06	1211544
1970.45	-5.42849e-06	1214044
1980.79	-6.38809e-06	1217280
1990.07	-7.37916e-06	1219646
2000.41	-8.64598e-06	1222656
2010.71	-1.01025e-05	1225164
2021.01	-1.17785e-05	1228084
2030.33	-1.35063e-05	1230818
2040.65	-1.56873e-05	1233572
2050.97	-1.81783e-05	1236690
2060.24	-2.07167e-05	1238824
2070.57	-2.39172e-05	1241996
2080.99	-2.75854e-05	1244796
2090.39	-3.13229e-05	1247304
2100.85	-3.6008e-05	1250626
2110.13	-4.06778e-05	1253072
2120.44	-4.64919e-05	1256520
2130.76	-5.3043e-05	1259584
2140.18	-5.9717e-05	1262034
2150.57	-6.79423e-05	1265460
2160.89	-7.70812e-05	1268488
2170.19	-8.62266e-05	1271432
2180.52	-9.74856e-05	1273918
2190.94	-0.000110134	1277110
2200.27	-0.000122667	1280022
2210.59	-0.000137942	1283022
2220.94	-0.000154907	1285982
2230.24	-0.000171649	1288796
2240.55	-0.000192044	1292122
2250.9	-0.000214562	1295290
2260.24	-0.000236811	1298076
2270.63	-0.000263836	1300806
2280.95	-0.000293254	1304570
2290.24	-0.000322095	1307004
2300.58	-0.000356955	1309874
2310.89	-0.000394866	1311934
2320.2	-0.000431948	1314328
2330.57	-0.000476657	1316212
2340.89	-0.000524935	1318538
2350.21	-0.000571958	1320686
2360.56	-0.000628245	1323366
2370.9	-0.000688931	1325972
2380.24	-0.000747807	1328420
2390.62	-0.000818041	1330612
2401	-0.000893596	1332714
2410.39	-0.000966714	1335242
2420.83	-0.00105362	1337644
2430.23	-0.00113718	1340102
2440.64	-0.00123574	1342118
2450.99	-0.0013405	1344138
2460.34	-0.00144095	1345902
2470.8	-0.00156035	1347622
2480.3	-0.00167554	1349678
2490.95	-0.00181223	1351646
2500.54	-0.00194286	1353702
2510.32	-0.00208324	1355922
2520.91	-0.00224403	1358776
2530.24	-0.00239345	1360952
2540.66	-0.00256912	1363748
2550.26	-0.00273936	1366588
2560.77	-0.00293536	1369222
2570.05	-0.00311702	1371594
2580.55	-0.00333292	1374478
2590.06	-0.00353766	1376986
2600.38	-0.00376939	1379862
2610.75	-0.0040124	1383020
2620.14	-0.00424246	1385924
2630.51	-0.00450826	1389082
2640.82	-0.00478564	1391768
2650.15	-0.00504902	1394494
2660.6	-0.00536006	1397499
2671.02	-0.00568464	1400503
2680.38	-0.0059861	1403433
2690.68	-0.00633848	1406721
2700.98	-0.00672066	1409599
2710.4	-0.00681632	1412219
2720.74	-0.00698844	1415327
2730.07	-0.00729729	1417557
2740.44	-0.00775324	1420851
2750.87	-0.00828668	1422871
2760.27	-0.00880407	1425355
2770.74	-0.0093607	1427703
2780.17	-0.00987385	1429509
2790.59	-0.0104866	1431073
2800.02	-0.0110581	1432791
2810.48	-0.0117478	1435585
2820.86	-0.0125088	1437869
2830.22	-0.0132546	1439363
2840.73	-0.0150642	1441701
2850.16	-0.0164685	1443667
2860.68	-0.0176031	1445917
2870.2	-0.0184476	1447819
2880.84	-0.0193232	1449379
2890.48	-0.0200918	1450974
2901	-0.0209229	1453370
2910.42	-0.0216646	1454876
2920.77	-0.0224723	1456462
2930.15	-0.0231936	1457952
2940.82	-0.0239994	1459832
2950.22	-0.0246898	1461868
2960.67	-0.0254208	1463476
2970.11	-0.0260379	1465450
2980.61	-0.0266683	1467192
2990	-0.0271777	1468570
3000.54	-0.0276892	1471330
3011.02	-0.0281342	1472886
3020.3	-0.0284741	1474203
3030.61	-0.0286499	1476555
3041.04	-0.0288822	1478967
3050.45	-0.029033	1481241
3060.82	-0.0291317	1482899
3070.09	-0.0291592	1484927
3080.41	-0.0289868	1487185
3090.73	-0.0289196	1489021
3100.03	-0.0287882	1490733
3110.93	-0.0285576	1492859
3120.46	-0.0282895	1494671
3130.08	-0.0279513	1497065
3140.7	-0.0275012	1499357
3150.27	-0.0270506	1501715
3160.87	-0.0264596	1503897
3170.71	-0.0257918	1506615
3180.72	-0.0248737	1509238
3190.62	-0.0231282	1511470
3200.78	-0.0215264	1514576
3210.93	-0.0199445	1517260
3221.09	-0.0181802	1520148
3230.11	-0.0162762	1522922
3240.27	-0.0137662	1525676
3250.42	-0.011426	1528264
3260.58	-0.00864493	1530838
3270.73	-0.00411701	1533404
3280.89	0.000721966	1536096
3291.07	0.00595198	1538678
3300.13	0.0114759	1540938
3310.31	0.0213471	1543584
3320.53	0.0317008	1545962
3330.74	0.0424402	1548676
3340.9	0.0578752	1551272
3350.58	0.0758214	1553478
3360.58	0.0947197	1556091
3370.06	0.114322	1558055
3380.6	0.136739	1560442
3390.31	0.166782	1562492
3400.37	0.207482	1564430
3410.37	0.244887	1566642
3420.37	0.283901	1568594
3430.36	0.322009	1571360
3440.36	0.359274	1573672
3450.36	0.395709	1576220
3460.36	0.429742	1578860
3470.37	0.462271	1581104
3480.37	0.492314	1583428
3490.36	0.520025	1586162
3500.35	0.544941	1588054
3510.34	0.567183	1590304
3520.34	0.587157	1592206
3530.34	0.604963	1594454
3540.38	0.620989	1596770
3550.43	0.635341	1598551
3560.48	0.648523	1601175
3570.51	0.660996	1603784
3580.53	0.673	1605887
3590.56	0.684611	1608805
3600.59	0.695796	1610806
3610.61	0.70656	1613303
3620.64	0.716895	1615993
3630.73	0.726587	1618254
3640.83	0.734185	1620842
3650.93	0.740111	1623602
3661.04	0.743505	1626174
3670.04	0.744769	1628754
3680.18	0.745492	1631246
3690.4	0.743793	1634200
3700.62	0.740492	1637028
3710.85	0.735864	1639800
3721.09	0.730024	1642292
3730.16	0.723785	1644742
3740.36	0.715673	1647008
3750.54	0.70647	1649292
3760.48	0.696433	1651936
3770	0.685969	1654776
3780.58	0.673158	1657792
3790.15	0.656274	1660342
3800.64	0.635994	1663636
3810.11	0.615595	1665824
3820.66	0.592703	1669308
3830.12	0.572164	1672234
3840.58	0.53302	1675123
3851.03	0.489741	1678763
3860.54	0.450994	1681422
3870.06	0.409995	1683908
3880.98	0.363419	1686961
3890	0.32356	1689177
3900.15	0.277854	1692460
3910.31	0.23053	1695352
3920.46	0.179027	1698318
3930.61	0.12676	1701305
3940.76	0.0830734	1704467
3950.91	0.0439183	1707570
3961.07	0.00821018	1710441
3970.09	-0.0211014	1712798
3980.23	-0.0511583	1715763
3990.36	-0.0786388	1718354
4000.49	-0.103613	1721056
4010.61	-0.126557	1723376
4020.74	-0.147717	1725584
4030.87	-0.167509	1728079
4040.99	-0.186273	1730428
4050.02	-0.202451	1732836
4060.19	-0.220391	1735483
4070.37	-0.238233	1738069
4080.59	-0.256262	1741167
4090.62	-0.274276	1744120
4100.29	-0.292015	1746354
4110.01	-0.310284	1749362
4120.17	-0.329712	1751737
4130.86	-0.350324	1755116
4140.35	-0.368501	1758329
4150.9	-0.388288	1760719
4160.34	-0.405449	1763593
4170.82	-0.423769	1766079
4180.21	-0.439372	1768340
4190.69	-0.455862	1770820
4200.13	-0.469807	1773379
4210.68	-0.484343	1776422
4220.47	-0.496791	1778953
4230.06	-0.507918	1781171
4240.9	-0.519243	1783738
4250.7	-0.52796	1785984
4260.2	-0.532739	1788301
4270.97	-0.537173	1791005
4280.39	-0.534455	1792770
4290.87	-0.534264	1795055
4300.36	-0.531486	1796933
4310.34	-0.526995	1799373
4320.07	-0.52108	1802105
4330.69	-0.512534	1804693
4340.25	-0.503006	1806864
4350.9	-0.490426	1809474
4360.24	-0.477748	1811594
4370.6	-0.461978	1814343
4380.08	-0.446033	1817099
4390.66	-0.426618	1820033
4400.26	-0.407538	1823226
4410.98	-0.384591	1826538
4420.3	-0.363158	1829300
4430.96	-0.332447	1832732
4440.45	-0.289728	1835758
4450.85	-0.251202	1838828
4460.18	-0.219989	1841428
4470.61	-0.184813	1844443
4480.14	-0.155825	1847214
4490.57	-0.123841	1849738
4500.08	-0.0968812	1852162
4510.96	-0.0677151	1854912
4520.56	-0.0438108	1857498
4531.01	-0.0206222	1859899
4541.01	-0.000702706	1862149
4551.1	0.0163086	1864550
4560.93	0.030288	1866672
4570.77	0.0414223	1868914
4580.37	0.0504645	1871824
4590.01	0.0570751	1873674
4600.33	0.060537	1876502
4610.67	0.0630489	1878913
4620.24	0.0652089	1881497
4630.08	0.0668328	1884101
4640.93	0.0682142	1887352
4650.28	0.06893	1889850
4660.99	0.0684956	1892417
4670.45	0.0684339	1894287
4680.9	0.0685698	1896643
4690.31	0.0688135	1899019
4700.74	0.0689058	1901042
4710.13	0.0690042	1903243
4720.6	0.0691315	1905641
4730	0.0692542	1908155
4740.45	0.0692719	1910438
4750.89	0.0691735	1912364
4760.32	0.0690914	1914594
4770.76	0.0689035	1916889
4780.19	0.0687225	1918976
4790.63	0.0686929	1921260
4800.02	0.0683055	1922969
4810.59	0.0678671	1925682
4821.02	0.067402	1928501
4830.3	0.0668249	1930348
4840.63	0.0660069	1932804
4850.03	0.0651296	1934610
4860.74	0.0639642	1937126
4870.34	0.0627353	1939681
4880.93	0.0611774	1942468
4890.36	0.0596068	1944924
4900.67	0.0576631	1946752
4910.09	0.0556739	1948250
4920.8	0.0531746	1949817
4930.41	0.050737	1951843
4940.03	0.0481255	1953931
4950.33	0.0451445	1956228
4960.63	0.0419823	1958927
4970.95	0.0386426	1960516
4980.45	0.0354287	1962698
4990.83	0.0317762	1965387
5000.17	0.0283744	1967221
5010.89	0.0243041	1969586
5020.71	0.0204264	1971622
5030.32	0.0165553	1973801
5040.05	0.0125934	1976079
5051.02	0.00804364	1979318
5060.4	0.00409869	1982388
5070.99	-0.000355605	1984224
5081.01	-0.00449685	1986295
5090.69	-0.0083859	1988100
5100.03	-0.012021	1990072
5110.41	-0.0159166	1992099
5120.84	-0.0196534	1994041
5130.18	-0.0228036	1996008
5140.74	-0.0260836	1998204
5150.1	-0.0287114	2000476
5160.15	-0.0311856	2002634
5170.39	-0.0333347	2004638
5180.67	-0.0350905	2007140
5190.96	-0.036532	2009649
5200.46	-0.0375259	2012251
5210.35	-0.0384805	2014374
5220.64	-0.0389505	2017157
5230.93	-0.0393964	2020243
5240.07	-0.0398467	2022412
5250.36	-0.0402815	2024524
5260.65	-0.0405639	2026989
5270.95	-0.0407993	2029163
5280.14	-0.0410317	2031079
5290.34	-0.041306	2033262
5300.37	-0.0415586	2035195
5310.5	-0.041787	2037014
5320.97	-0.0420156	2038806
5330.25	-0.0422317	2040234
5340.56	-0.0424965	2041948
5350.88	-0.042789	2044721
5360.26	-0.0430774	2046613
5370.68	-0.0434233	2048743
5380.1	-0.04376	2049995
5390.64	-0.0441671	2052133
5400.23	-0.0445661	2053570
5410.84	-0.0450394	2055598
5420.42	-0.0454928	2057367
5430.98	-0.0460184	2059679
5440.43	-0.0465077	2061482
5450.86	-0.0470658	2063365
5460.3	-0.0475831	2065111
5471.02	-0.0481807	2067107
5480.53	-0.0487172	2069111
5490.58	-0.0492888	2070708
5500.89	-0.0498773	2072621
5510.56	-0.0504281	2074621
5520.05	-0.0509662	2076404
5530.66	-0.0515625	2078633
5540.35	-0.0521008	2080258
5550.66	-0.0526673	2082118
5560.36	-0.0531938	2084303
5570.91	-0.0537616	2086280
5580.3	-0.0542637	2088344
5590.75	-0.0548224	2089861
5600.67	-0.0553551	2091424
5610.98	-0.0559159	2093146
5620.15	-0.0564233	2093861
5630.47	-0.0570082	2095196
5640.78	-0.0576127	2096055
5651.1	-0.0582411	2097376
5660.27	-0.0588236	2098798
5670.59	-0.0595092	2099905
5680.9	-0.0602306	2101177
5690.07	-0.0609043	2102217
5700.39	-0.0617011	2103702
5710.7	-0.0625407	2104609
5721.02	-0.0634245	2106146
5730.19	-0.0642476	2107161
5740.5	-0.0652159	2108621
5750.82	-0.0662284	2110143
5761.14	-0.0672844	2111785
5771.08	-0.0683428	2112750
5780.19	-0.0693452	2114003
5790.58	-0.0705258	2115182
5800.98	-0.071739	2116086
5810.2	-0.0728403	2117513
5820.54	-0.0741142	2118855
5830.94	-0.0754328	2120797
5840.89	-0.0767325	2122099
5850.27	-0.0779975	2123321
5860.7	-0.0794323	2124924
5870.12	-0.0807826	2126673
5880.57	-0.0823645	2128328
5890.99	-0.0840041	2129596
5900.36	-0.0854947	2130471
5910.93	-0.0871755	2132006
5921.08	-0.0887862	2132918
5930.25	-0.0902433	2133692
5940.82	-0.0919239	2135779
5950.21	-0.0934052	2136693
5960.64	-0.0950204	2138018
5970.2	-0.0964513	2138925
5980.09	-0.0978652	2141021
5990.93	-0.0993203	2142499
6000.74	-0.100537	2143867
6010.37	-0.101631	2145386
6020.79	-0.102693	2147921
6030.19	-0.103534	2149829
6040.98	-0.104354	2152243
6050.59	-0.104943	2154380
6060.22	-0.105395	2156425
6070.28	-0.105713	2158795
6080.33	-0.105863	2161582
6090.57	-0.105842	2163760
6100.2	-0.105712	2165940
6110.93	-0.105374	2168374
6120.8	-0.104865	2170802
6131.07	-0.104137	2173470
6140.67	-0.103299	2175752
6150.14	-0.102347	2178204
6160.65	-0.101205	2180770
6170.17	-0.100057	2183055
6180.59	-0.0985901	2185901
6190.01	-0.0970792	2188271
6201.05	-0.0949632	2191080
6211.02	-0.0928683	2193607
6220.43	-0.0908938	2195693
6230.89	-0.0886611	2197988
6240.4	-0.086548	2200173
6250.15	-0.0842713	2202351
6260.7	-0.0816665	2204545
6270.08	-0.0792064	2206605
6280.52	-0.0763114	2208454
6290.1	-0.0735494	2210752
6300.58	-0.0704641	2213257
6310.02	-0.0676612	2214763
6320.48	-0.0645332	2217486
6330.92	-0.0613823	2219711
6340.32	-0.0585099	2221457
6350.75	-0.0553203	2223475
6360.14	-0.0524031	2224787
6370.59	-0.0488976	2226832
6380.04	-0.0474916	2228234
6390.48	-0.0435777	2229354
6400.93	-0.0390048	2231302
6410.34	-0.034945	2233355
6420.79	-0.0300166	2235752
6430.32	-0.0253779	2237510
6440.22	-0.0207973	2239669
6450.94	-0.0161216	2241887
6460.38	-0.0121621	2244368
6470.86	-0.0078067	2247182
6480.51	-0.00374572	2250084
6490.99	0.000686574	2253164
6500.41	0.00460438	2256148
6510.87	0.00879381	2259391
6520.27	0.0124178	2261948
6530.31	0.0161916	2264873
6540.01	0.0197853	2268029
6550.71	0.0237033	2271564
6560.24	0.0271288	2274454
6570.83	0.0308275	2277313
6580.34	0.0340396	2280053
6590.8	0.037457	2283163
6600.18	0.0404422	2286667
6610.69	0.043707	2289491
6620.07	0.0465491	2292431
6630.73	0.0496837	2294989
6640.87	0.052561	2298405
6650.74	0.0552602	2301568
6660.13	0.0577353	2304199
6670.83	0.0604535	2307033
6680.96	0.0629242	2309712
6691.09	0.0652913	2312882
6700.09	0.0673041	2315549
6711.04	0.0696286	2318710
6720.88	0.0716095	2321809
6730.53	0.0733555	2324618
6740	0.0751078	2327272
6750.58	0.0769522	2329265
6760.08	0.0783945	2332313
6770.52	0.0797237	2334431
6780.96	0.0811073	2336577
6790.39	0.0822724	2338145
6800.85	0.0834065	2340203
6810.26	0.0842931	2341810
6820.81	0.0851495	2343494
6830.37	0.0858137	2344874
6840.01	0.086392	2346773
6850.63	0.0869218	2349092
6860.04	0.0872915	2351294
6870.52	0.0875822	2353466
6881.01	0.0877383	2356220
6890.5	0.0877649	2358663
6900.05	0.0876883	2360412
6910.61	0.0874896	2362909
6920.08	0.0872093	2365595
6930.58	0.0867792	2368092
6940.06	0.0862773	2370569
6950.6	0.0855858	2373337
6960.09	0.0848415	2375257
6970.66	0.0838748	2377826
6980.17	0.0828818	2379604
6990.69	0.0816422	2381873
7000.17	0.0803949	2383879
7010.71	0.0788608	2386531
7020.26	0.0773336	2388648
7030.97	0.075461	2391694
7040.41	0.0736678	2394046
7050.94	0.0715038	2396248
7060.46	0.0693918	2398495
7070.17	0.0670806	2400627
7080.04	0.0645677	2403129
7090.6	0.0617023	2405103
7100.02	0.058998	2407147
7110.54	0.0558371	2409838
7120.36	0.0527699	2411871
7130.99	0.0493543	2414884
7140.5	0.0462398	2417201
7150.02	0.0430818	2419430
7160.59	0.0395512	2422866
7170.13	0.0363666	2425744
7181.01	0.0327494	2428395
7190.98	0.0294656	2431342
7200.96	0.0262248	2433982
7210.14	0.0232932	2436222
7220.46	0.0200676	2438647
7230.79	0.0169353	2441476
7241.12	0.0139146	2443933
7250.29	0.0113367	2446894
7260.62	0.00856825	2450224
7270.94	0.00594788	2453452
7280.09	0.00374418	2455356
7290.34	0.00141274	2458212
7300.53	-0.000771634	2460513
7310.69	-0.00281605	2462722
7320.83	-0.00471265	2464463
7330.97	-0.00644217	2465662
7341.11	-0.00796584	2467536
7350.13	-0.00913125	2468437
7360.27	-0.0100958	2470395
7370.41	-0.0109065	2472596
7380.55	-0.0113299	2473758
7390.69	-0.0117485	2476165
7400.83	-0.0121016	2477450
7410.97	-0.0123519	2479482
7421.11	-0.0124702	2481214
7430.12	-0.0124656	2483070
7440.26	-0.0123514	2486042
7450.4	-0.0121297	2487763
7460.54	-0.0117914	2490375
7470.68	-0.0113161	2492361
7480.83	-0.0106857	2494631
7490.97	-0.00990201	2496107
7501.11	-0.00897896	2497777
7510	-0.00806808	2499698
7520.77	-0.00685834	2501675
7530.43	-0.00568888	2503369
7540.84	-0.00434231	2505366
7550.5	-0.00301211	2507056
7560.08	-0.00161584	2508128
7570.43	-3.12136e-05	2510270
7580.78	0.00162149	2511767
7590.38	0.00320407	2512936
7600.1	0.00484175	2514510
7611.06	0.00671876	2516460
7620.97	0.00842717	2518678
7630.88	0.0101317	2520938
7640.79	0.0118179	2522599
7650.7	0.0134716	2524765
7660.61	0.0150797	2526099
7670.52	0.01663	2528166
7680.43	0.0181114	2529405
7690.35	0.0195139	2530765
7700.26	0.0208288	2531890
7710.17	0.0220481	2533061
7720.13	0.0231708	2534243
7730.22	0.0241969	2535161
7740.33	0.0251076	2536401
7750.45	0.0258981	2537544
7760.56	0.0265657	2538991
7770.68	0.0271096	2540442
7780.8	0.0275307	2541328
7790.93	0.0278315	2542539
7801.07	0.0280155	2543566
7810.07	0.0280846	2544294
7820.18	0.0280624	2545707
7830.3	0.0279415	2546545
7840.42	0.0277298	2547751
7850.53	0.027436	2548303
7860.65	0.0270687	2549711
7870.77	0.026637	2551173
7880.89	0.0261499	2552977
7891	0.0256164	2555005
7900.99	0.0250531	2556453
7910.91	0.0244654	2558375
7920.82	0.0238579	2559779
7930.73	0.0232377	2562069
7940.64	0.0226118	2564629
7950.54	0.0219872	2566424
7960.44	0.0213699	2569482
7970.35	0.0207658	2572106
7980.25	0.0201804	2574658
7990.15	0.0196188	2577258
8000.06	0.0190857	2580040
8011.06	0.0185318	2582189
8020.97	0.0180721	2584881
8030.87	0.0176524	2587426
8040.78	0.0172753	2589718
8050.68	0.0169431	2592152
8060.58	0.0166575	2593932
8070.49	0.0164203	2596753
8080.39	0.0162326	2598866
8090.3	0.0160955	2600465
8100.2	0.0160091	2601787
8110.1	0.0159731	2603683
8120.01	0.015986	2605744
8130.59	0.016051	2607492
8140.1	0.0161515	2609195
8151	0.0163125	2611553
8160.77	0.0164959	2613383
8170.2	0.0167074	2615755
8180.59	0.0169793	2618171
8190.12	0.0172638	2619654
8200.87	0.0176226	2621228
8210.74	0.0179807	2623412
8220.31	0.0183442	2625459
8230.04	0.0187211	2627577
8240.71	0.0191315	2629574
8250.13	0.0194836	2631492
8260.85	0.0198656	2633291
8270.72	0.0201936	2635276
8280.45	0.0204891	2637207
8290.08	0.0207481	2639373
8300.73	0.0209893	2641794
8310.3	0.0211609	2643665
8320.93	0.0212988	2645901
8330.53	0.0213754	2647546
8340.23	0.0214085	2649258
8350.05	0.0213952	2650716
8360.12	0.0212952	2652387
8370.19	0.0210756	2654250
8381.05	0.0207535	2655331
8390	0.0204251	2657192
8400.73	0.0199489	2659022
8410.12	0.0194524	2660577
8420.57	0.018818	2661716
8430.37	0.0181465	2663848
8440.03	0.0174104	2665024
8450.59	0.0165132	2665935
8460.42	0.0155875	2667330
8470.03	0.0145991	2667998
8480.1	0.0134801	2669414
8490.95	0.0121843	2670814
8500.58	0.0109619	2672133
8510.61	0.00961755	2673259
8520.31	0.00823413	2674935
8530.81	0.00662933	2677389
8540.25	0.0050921	2678483
8550.8	0.00326159	2680042
8560.61	0.00143938	2681123
8570.13	-0.000455946	2682540
8580.67	-0.00269754	2684247
8590.16	-0.00483281	2685629
8600.63	-0.00729742	2687060
8610.76	-0.00977094	2688345
8620.63	-0.0122584	2689419
8630.23	-0.014686	2691280
8640.8	-0.0175049	2692788
8650.23	-0.0200721	2693285
8660.71	-0.0222291	2694621
8670.25	-0.0256902	2695766
8680.81	-0.0297687	2697280
8690.31	-0.0332493	2698465
8701.01	-0.0370915	2700040
8710.71	-0.0403724	2701590
8720.25	-0.0435064	2702799
8731.06	-0.047128	2703940
8740.59	-0.0504277	2705334
8750.07	-0.0537395	2706858
8760.64	-0.0573468	2708360
8770.42	-0.0605944	2709447
8780.14	-0.0637863	2711135
8790.66	-0.067247	2712667
8800.13	-0.0703525	2714123
8810.65	-0.0737482	2715861
8820.16	-0.0767381	2717326
8830.98	-0.0800423	2718979
8840.59	-0.0828918	2720169
8850.22	-0.0856589	2721243
8861.02	-0.0886475	2722394
8870.1	-0.0910488	2722851
8880.3	-0.0936177	2724524
8890.51	-0.0960346	2725399
8900.71	-0.09829	2727171
8910.89	-0.100369	2728704
8920.93	-0.102243	2729584
8931.01	-0.10394	2730664
8940.94	-0.105421	2732282
8950.63	-0.106675	2733929
8960.61	-0.107765	2735152
8970.58	-0.10865	2736465
8980.18	-0.109182	2737794
8990.71	-0.109728	2738500
9000.03	-0.110079	2740083
9010.43	-0.11021	2740436
9020.92	-0.110119	2741288
9030.47	-0.109904	2741989
9040.23	-0.109553	2742404
9050.08	-0.10905	2743044
9060.55	-0.108329	2743608
9070.87	-0.10745	2744323
9080.16	-0.10654	2744365
9090.48	-0.105401	2744235
9100.08	-0.10422	2744961
9110.65	-0.102789	2745523
9120.09	-0.101407	2746358
9130.76	-0.0997369	2747263
9140.35	-0.0981419	2748607
9150.91	-0.0962838	2750835
9160.41	-0.0945277	2751692
9170.97	-0.092489	2753318
9180.53	-0.0905748	2754837
9190.38	-0.0885385	2756254
9201.05	-0.0862682	2757945
9210.67	-0.084165	2759563
9220.18	-0.0820402	2761336
9230.91	-0.079593	2762596
9240.59	-0.0773426	2765030
9250.32	-0.0750493	2766473
9260.03	-0.0727339	2768694
9270.35	-0.0702512	2770844
9280.67	-0.067753	2772867
9290.99	-0.0652459	2774303
9300.5	-0.0629344	2775166
9310.1	-0.060603	2776938
9321.09	-0.0579467	2778669
9330.64	-0.0556558	2780186
9340.05	-0.0534164	2781532
9350.5	-0.0509643	2783155
9360.99	-0.0485435	2785497
9370.58	-0.0463742	2786870
9380.16	-0.0442531	2788139
9390.81	-0.0419572	2789560
9400.49	-0.0399328	2791804
9411.04	-0.0378012	2793489
9420.53	-0.0359553	2795580
9430.96	-0.0340109	2797466
9440.34	-0.0323394	2799494
9450.8	-0.030569	2801217
9460.18	-0.0290666	2802722
9470.61	-0.0274779	2805202
9481.03	-0.0258827	2807420
9490.48	-0.0245173	2808994
9500.03	-0.0233856	2809590
9510.59	-0.022665	2810342
9520.06	-0.0217807	2811089
9530.57	-0.0207668	2812218
9540.07	-0.0200302	2813501
9550.64	-0.0193615	2814719
9560.12	-0.018847	2815408
9570.63	-0.0182067	2816120
9580.16	-0.0178643	2816244
9590.79	-0.0176249	2816490
9600.43	-0.0175199	2816839
9610.86	-0.0174765	2817545
9620.34	-0.0175056	2817554
9630.9	-0.0176156	2818151
9640.44	-0.0177773	2818203
9650.22	-0.0179984	2817618
9660.14	-0.0182727	2817515
9671.05	-0.0186233	2817657
9680.72	-0.0189725	2817613
9690.19	-0.0193485	2818059
9700.71	-0.019803	2818244
9710.21	-0.0202438	2818059
9720.83	-0.0207636	2817660
9730.45	-0.0212541	2818143
9740.01	-0.0217537	2818673
9750.8	-0.0223264	2818718
9760.65	-0.0228513	2818935
9770.42	-0.0233691	2819210
9780.94	-0.0239173	2818666
9790.68	-0.0244112	2819199
9800.51	-0.0248908	2819470
9810.83	-0.025369	2820070
9820.13	-0.0257719	2820930
9830.5	-0.0261858	2821217
9840.99	-0.0265618	2821599
9850.55	-0.0268625	2821698
9860.46	-0.027129	2821528
9870.25	-0.0273434	2822044
9880.73	-0.0275165	2822097
9890.33	-0.0276211	2820846
9901.04	-0.0276746	2820736
9910.77	-0.0276636	2820508
9920.05	-0.0275984	2820837
9930.44	-0.0274608	2819598
9940.01	-0.0272722	2819742
9950.89	-0.0269856	2819250
9960.17	-0.0266809	2819584
9970.01	-0.0262994	2820662
9980.02	-0.0258519	2821504
9990.02	-0.0253456	2823065
10000.8	-0.0247345	2824198
10010.5	-0.0241291	2825668
10020.1	-0.0234848	2827671
10030.4	-0.0227334	2829420
10040.7	-0.0219341	2831271
10050	-0.0211731	2832926
10060.3	-0.0202835	2834300
10070.7	-0.0193419	2836577
10080.1	-0.0184571	2838128
10090.5	-0.0174417	2840665
10100.9	-0.0163978	2842558
10110.2	-0.0154555	2844035
10120.6	-0.0143974	2845631
10130.2	-0.0134002	2846562
10140.1	-0.0123796	2848252
10150.6	-0.0112824	2849770
10160	-0.0102926	2850424
10170.6	-0.00918888	2852014
10180.9	-0.00810874	2852962
10190.3	-0.00714435	2854888
10200.7	-0.00608568	2856007
10210	-0.00515225	2857623
10220.4	-0.00413468	2859468
10230.7	-0.00314153	2861901
10241	-0.00217504	2864554
10250.3	-0.00132743	2866819
10260.7	-0.000413298	2870125
10270.2	0.000386641	2873361
10280.6	0.00123463	2876012
10291	0.00204248	2879343
10300.4	0.00273435	2881553
10310.9	0.00346429	2883970
10320.3	0.00408205	2886197
10330.7	0.00472391	2887836
10340.1	0.00525999	2890201
10350.6	0.00581085	2892149
10360.2	0.00626758	2893768
10370.9	0.00672633	2894904
10380.6	0.00708843	2895400
10390.4	0.00740801	2896136
10400.6	0.00768675	2897584
10410	0.00789698	2898735
10420.5	0.00807498	2899896
10431	0.00819439	2901541
10440.5	0.00825181	2903199
10450.9	0.0082602	2904155
10460.3	0.00821883	2905282
10470.7	0.00811875	2906532
10480.1	0.00797945	2906583
10490.8	0.007764	2907075
10500.7	0.00751333	2908325
10511	0.00719227	2908971
10520.3	0.00685399	2909884
10530.6	0.0064182	2910481
10540.5	0.0059484	2910120
10550.4	0.00541385	2910457
10560.3	0.00482958	2910413
10570.9	0.00414808	2911481
10580.2	0.00349851	2913074
10590.5	0.00272708	2913609
10600.9	0.00190479	2914270
10610.2	0.00112576	2914883
10620.5	0.000211437	2915284
10630	-0.000669143	2916319
10640.5	-0.00167753	2918245
10650.9	-0.0027325	2919108
10660.4	-0.00372759	2919112
10671	-0.00488422	2919706
10680	-0.00589398	2920555
10691	-0.00715876	2921141
10700.5	-0.00829059	2922200
10710.9	-0.00954677	2923020
10720.3	-0.0107067	2923610
10730.1	-0.0119341	2923911
10741	-0.013312	2924194
10750.8	-0.0145621	2924420
10760.5	-0.0158114	2925429
10770.9	-0.0171404	2925797
10780.2	-0.0183345	2925711
10790.9	-0.0197116	2925889
10800.8	-0.0209651	2925741
10810.6	-0.0221859	2926677
10820.9	-0.023455	2927515
10830.4	-0.0246001	2928079
10840.3	-0.0257609	2928120
10850.9	-0.0269779	2929337
10860.3	-0.0280233	2929456
10870.8	-0.0291488	2929701
10880.2	-0.0301273	2929975
10890.8	-0.0311685	2929642
10900.2	-0.0320568	2929133
10910.8	-0.0329924	2928809
10920.2	-0.0337849	2928879
10930.7	-0.0346086	2929006
10940.6	-0.0353239	2928670
10950.8	-0.0360077	2929304
10961	-0.0366318	2930160
10970	-0.0371361	2931179
10980.9	-0.0376778	2932755
10990.6	-0.0381024	2933927
11000.6	-0.038488	2935040
11010.1	-0.0388003	2935407
11020.7	-0.039093	2936244
11030.4	-0.0393087	2936544
11041	-0.039491	2938246
11050.4	-0.0396071	2938214
11060	-0.0396843	2938439
11070.9	-0.0397226	2938440
11080.3	-0.0397164	2939046
11090.9	-0.0396689	2939858
11100.4	-0.0395918	2940145
11110	-0.0394833	2940530
11120.6	-0.0393301	2941177
11130.1	-0.0391646	2941797
11140.6	-0.0389555	2942621
11150	-0.0387445	2943311
11160.5	-0.0384857	2943236
11170.6	-0.0382162	2944270
11180	-0.0379451	2944753
11190.5	-0.0376286	2945574
11200.9	-0.0372947	2946382
11210.3	-0.0369802	2946878
11220.7	-0.0366158	2947917
11230.2	-0.0362717	2948606
11240.7	-0.0358761	2949484
11250.3	-0.035507	2950014
11261	-0.0350786	2951203
11270.4	-0.0346916	2951747
11280.9	-0.0342475	2952184
11290.9	-0.0338108	2952443
11300.8	-0.0333676	2952634
11310.3	-0.0329311	2952859
11320.8	-0.0324314	2952982
11330.3	-0.0319676	2953496
11340.8	-0.0314361	2953741
11350.3	-0.0309383	2953650
11360.3	-0.0303951	2953761
11370.4	-0.0298291	2954657
11380.6	-0.0292397	2955127
11390.3	-0.0286509	2956157
11400.9	-0.0279897	2957740
11410.4	-0.0273713	2958544
11421	-0.026656	2959086
11430.5	-0.0259848	2960150
11440.3	-0.0252645	2961067
11450.5	-0.0244855	2961378
11460.7	-0.0236749	2962015
11471	-0.0228307	2962356
11480.1	-0.0220518	2963011
11490.3	-0.0211431	2963460
11500.5	-0.0201982	2963980
11510.8	-0.0192184	2964913
11520.9	-0.0182172	2965630
11531	-0.017179	2966580
11540.1	-0.0162155	2967008
11550.3	-0.0150995	2968273
11560.5	-0.0139501	2970214
11570.7	-0.0127644	2971616
11580.9	-0.011542	2973455
11591.1	-0.0102854	2974290
11600.1	-0.00914547	2974943
11610.2	-0.00783344	2975286
11620.1	-0.00650498	2975588
11630.1	-0.00514651	2975072
11641.1	-0.00360289	2973901
11651	-0.002182	2972921
11660.9	-0.00073139	2972267
11670.8	0.000747678	2971697
11680.7	0.00225382	2970535
11690.6	0.00378554	2969297
11700.5	0.00534127	2968385
11710.3	0.00691936	2967964
11720.2	0.00851811	2967674
11730.1	0.0101358	2967933
11740	0.0117705	2968229
11751	0.0136048	2968659
11760.9	0.0152695	2969461
11770.8	0.0169454	2969552
11780.8	0.0186352	2970289
11790.7	0.020332	2970676
11800.6	0.0220382	2971603
11810.6	0.0237541	2973124
11820.6	0.0254722	2973969
11830.6	0.0271877	2974839
11840.7	0.0288981	2975765
11850.7	0.0306059	2977544
11860.8	0.0323054	2978479
11870.8	0.0339908	2979613
11880.9	0.0356592	2979276
11891	0.0373085	2979475
11901	0.0389373	2979330
11910	0.040366	2979103
11920.1	0.0419506	2978154
11930.3	0.0435065	2977893
11940.5	0.0450275	2977377
11950.6	0.0465105	2977137
11960.8	0.0479531	2977180
11970.9	0.0493524	2976755
11981.1	0.0507061	2976121
11990.1	0.051869	2976018
12000.2	0.0531298	2975758
12010.4	0.0543382	2975668
12020.6	0.0554919	2974780
12030.7	0.0565891	2974435
12040.9	0.0576277	2973754
12051	0.0586044	2973489
12060.9	0.059496	2973130
12070.2	0.0602875	2972387
12080.8	0.0611168	2972602
12090.2	0.0617947	2972547
12100.6	0.062484	2973127
12111	0.0631062	2973201
12121	0.0636389	2974025
12131.1	0.064118	2974232
12140.1	0.064493	2975392
12150.2	0.0648589	2976541
12160.3	0.0651668	2977003
12170.4	0.0654183	2978705
12180.5	0.0656151	2979469
12190.6	0.0657589	2980583
12200.7	0.0658515	2980741
12210.8	0.0658948	2980906
12220.9	0.0658906	2981542
12230.7	0.0658429	2981264
12240.2	0.0657579	2981858
12251	0.0656152	2981330
12261.1	0.0654407	2981520
12270.1	0.0652534	2981312
12280.2	0.0650082	2980963
12290.3	0.0647283	2981428
12300.1	0.0644261	2981580
12310.5	0.0640718	2981654
12320.9	0.0636863	2981507
12330.4	0.063309	2981484
12340.6	0.0628819	2980989
12350.7	0.0624292	2980211
12360.9	0.0619523	2980033
12370.9	0.0614578	2979249
12380.3	0.0609762	2979331
12390.7	0.0604201	2978285
12400.2	0.0598997	2977183
12410.2	0.059323	2976633
12420.4	0.0587227	2976261
12430.5	0.0581082	2976494
12440.5	0.0574784	2976236
12450.5	0.0568302	2975992
12460.4	0.0561671	2975988
12470.9	0.0554463	2976245
12480.3	0.0547795	2976113
12490.8	0.0540185	2976600
12500.5	0.0532982	2977112
12511.1	0.0524924	2977673
12520.6	0.0517458	2978257
12530.4	0.0509578	2978691
12540.2	0.0501508	2979911
12550	0.049325	2980917
12560.9	0.0483851	2982573
12570.7	0.0475193	2983805
12580.5	0.0466348	2984783
12590.3	0.0457349	2986027
12600.1	0.0448184	2987260
12611	0.0437753	2988891
12620.8	0.0428166	2990825
12630.3	0.0418673	2992004
12640.2	0.0408757	2993059
12651.1	0.0397555	2992818
12660.9	0.0387318	2993740
12670.7	0.0376942	2995112
12680.5	0.0366439	2995472
12690.3	0.0355819	2996299
12700.1	0.0345095	2996690
12711	0.0333073	2997417
12720.8	0.0322173	2998016
12730.7	0.0311209	2998489
12740.5	0.0300167	2998939
12750.4	0.0289037	2998841
12760.3	0.0277869	2999325
12770.3	0.026671	2999928
12780.2	0.025558	3000732
12790.1	0.024449	3000878
12800.1	0.0233414	3001609
12810.2	0.0222357	3002146
12820.3	0.0211394	3002933
12830.3	0.0200576	3003509
12840.4	0.0189925	3004358
12850.5	0.017949	3004810
12860.5	0.0169321	3005166
12870.4	0.015942	3005894
12880.4	0.0149775	3006330
12890.4	0.0140406	3007357
12900.4	0.0131334	3007924
12910.3	0.0122582	3008610
12920.3	0.0114169	3009029
12930.3	0.0106116	3009726
12940.2	0.00984624	3010504
12950.1	0.00912538	3011373
12961	0.00837754	3012412
12970.8	0.00775241	3013061
12980.5	0.00717123	3013631
12990.3	0.00663562	3014252
13000.1	0.00614707	3014778
13010.9	0.00566112	3015722
13020.7	0.0052763	3016841
13030.5	0.00494238	3017831
13040.2	0.00466024	3018927
13050	0.00443063	3019525
13060.9	0.00423777	3021386
13070.6	0.00412102	3022431
13080.4	0.00405951	3022797
13090.2	0.00405226	3023854
13101	0.00382395	3024140
13110.8	0.00391049	3024215
13120.6	0.00406628	3023924
13130.3	0.004272	3023775
13140.1	0.00450747	3023191
13150.9	0.00483464	3022539
13160.6	0.00518444	3021948
13170.3	0.00558312	3020927
13181	0.00607914	3020796
13190.6	0.00656859	3020457
13200.2	0.00708991	3020777
13210.7	0.0077035	3020533
13220.2	0.00828808	3019684
13230.7	0.00896731	3019141
13240.1	0.00960339	3018864
13250.5	0.0103375	3018750
13261	0.0110971	3018593
13270.4	0.0118048	3018238
13281	0.0126119	3018544
13290.4	0.0133504	3018448
13301	0.0141811	3018796
13310.6	0.0149472	3018346
13320.2	0.0157182	3018557
13331	0.0165752	3018668
13340.6	0.0173433	3018815
13350.2	0.0181053	3018551
13360.7	0.0189236	3018755
13370.1	0.019643	3019117
13380.6	0.0204224	3019636
13391	0.0211808	3019793
13400.5	0.0218403	3021157
13410.9	0.0225419	3021670
13420.3	0.0231433	3023048
13430.9	0.0237775	3023613
13440.3	0.0243093	3023734
13450.7	0.0248578	3023935
13460.1	0.0253104	3024215
13470.6	0.0257667	3024336
13480.4	0.0261487	3024496
13490.2	0.0264884	3023697
13500	0.0267838	3023498
13510.9	0.0270593	3023075
13520.4	0.0272467	3022813
13530.8	0.0273762	3022790
13540.3	0.0274208	3022764
13550.8	0.0273933	3022544
13560.3	0.0272973	3021931
13571	0.0271165	3021783
13580.7	0.0268898	3021044
13590.2	0.0266154	3019911
13600.9	0.0262402	3019355
13610.6	0.0258434	3019080
13620.2	0.0253867	3018952
13630.9	0.0248073	3018643
13640.5	0.0242208	3019037
13651	0.0235112	3018643
13660.5	0.0228064	3018261
13671	0.0219639	3017869
13680.6	0.0211389	3017331
13690.2	0.0202571	3016795
13700.8	0.019213	3016083
13710.4	0.0182123	3015350
13721	0.0170471	3014896
13730.5	0.0159507	3013248
13740.1	0.0148059	3012966
13750.6	0.0134939	3012443
13760	0.0122789	3012114
13770.5	0.0108828	3011474
13781	0.00944388	3009910
13790.5	0.00812736	3009591
13800.1	0.00675512	3008419
13810.7	0.0051793	3008843
13820.2	0.0037115	3008800
13830.7	0.00202788	3007449
13840.2	0.000474848	3007660
13850.8	-0.00128001	3005943
13860.3	-0.00288437	3005001
13871	-0.00469051	3004279
13880.6	-0.00633858	3003226
13890.4	-0.00799887	3002133
13900.9	-0.00980676	3001816
13910.4	-0.0114376	3000925
13921	-0.0132718	2999988
13930.8	-0.0149452	2999202
13940.3	-0.0165841	2998424
13950.8	-0.0183692	2997171
13960.5	-0.0200009	2996061
13970.3	-0.0216303	2995637
13980.2	-0.0232385	2995090
13990.8	-0.0249491	2995526
14000.2	-0.0264508	2995473
14010.8	-0.0280832	2994365
14020.2	-0.0295192	2994464
14030.7	-0.0310823	2994329
14040.2	-0.0324557	2994037
14050.8	-0.0339405	2993463
14060.3	-0.0352503	2993156
14070.2	-0.0365563	2992727
14080.9	-0.0379261	2991609
14090.5	-0.0391126	2991784
14100.2	-0.0402535	2990861
14111	-0.0414762	2989289
14120.9	-0.0425436	2989027
14130.4	-0.0435246	2988158
14141	-0.0445563	2986993
14150.9	-0.0454642	2986191
14160.6	-0.0462997	2986342
14170	-0.0470648	2985875
14180.5	-0.0478598	2984554
14190.1	-0.0485341	2983790
14200.9	-0.0492362	2983317
14210.7	-0.0498171	2982180
14220.3	-0.0503411	2980756
14230.9	-0.0508598	2979836
14240.4	-0.0512765	2978703
14251	-0.0516872	2977131
14260.5	-0.0520088	2976261
14270.2	-0.0522904	2975064
14280.3	-0.0525326	2973473
14290.9	-0.052738	2972389
14301	-0.0528827	2970400
14310.1	-0.0529738	2969225
14320.4	-0.0530312	2968047
14330.3	-0.0530425	2966660
14340.6	-0.0530099	2965683
14350.8	-0.0529336	2965058
14361	-0.0528149	2964280
14370.9	-0.0526613	2963872
14380.5	-0.0524769	2962738
14390	-0.0522597	2962159
14400.6	-0.0519832	2960946
14411	-0.0516711	2959862
14420.7	-0.0513509	2959160
14430.7	-0.0509915	2957485
14440.8	-0.0505952	2956515
14450.6	-0.0501853	2954363
14460.7	-0.0497384	2952792
14470.8	-0.0492645	2951113
14481	-0.0487605	2949053
14490.1	-0.0482936	2947678
14500.3	-0.0477489	2944697
14510.5	-0.0471854	2941963
14520.7	-0.0466053	2939350
14531	-0.0460103	2936251
14540.1	-0.0454706	2933659
14550.3	-0.0448526	2930449
14560.5	-0.0442248	2927797
14570.7	-0.0435887	2924419
14580.9	-0.0429455	2921150
14590	-0.0423687	2918429
14600.2	-0.0417161	2915419
14610.4	-0.0410622	2912226
14620.5	-0.0404079	2909106
14630.7	-0.0397529	2906099
14640.1	-0.039142	2902890
14650.2	-0.0384859	2899235
14660.3	-0.0378299	2896337
14670.4	-0.0371744	2893237
14680.2	-0.0365393	2890934
14690.9	-0.035843	2888271
14700.9	-0.0351963	2885376
14711	-0.034545	2882656
14721.1	-0.0338988	2879436
14730.1	-0.0333217	2876297
14740.6	-0.0326466	2873002
14750.7	-0.0319989	2869487
14760.8	-0.0313521	2865702
14770.4	-0.0307362	2861888
14780.4	-0.030096	2857865
14790.4	-0.0294572	2854158
14800.3	-0.0288209	2849402
14810.1	-0.028188	2845628
14821	-0.0274897	2840364
14830.8	-0.0268599	2835096
14840.5	-0.0262298	2829694
14850.1	-0.0256077	2824113
14860.9	-0.024906	2817146
14870.8	-0.024261	2810132
14880.7	-0.0236131	2803284
14890.6	-0.0229619	2797551
14900.4	-0.0223071	2791636
14911	-0.0216038	2786650
14920.4	-0.0209742	2780950
14930.8	-0.02027	2774363
14940.2	-0.0196317	2768411
14950.8	-0.018902	2762079
14960.5	-0.0182371	2756631
14970	-0.0175716	2750784
14980.6	-0.016828	2744813
14990.2	-0.0161566	2738887
15000.7	-0.0154083	2733556
15010.3	-0.014724	2728657
15021.1	-0.0139479	2722990
15030.9	-0.0132375	2718140
15040.7	-0.0125304	2712681
15050.3	-0.0118263	2707653
15061.1	-0.0110391	2701600
15070.9	-0.010315	2696721
15080.7	-0.00959291	2691543
15090.5	-0.0088734	2686656
15100.2	-0.00815776	2681857
15110.9	-0.00736558	2676306
15120.5	-0.00665507	2671507
15130.2	-0.00594655	2667124
15140.5	-0.00519008	2661494
15150.9	-0.00442991	2656868
15160.5	-0.00373143	2652484
15170.1	-0.00303747	2648072
15180.7	-0.00228215	2643443
15190	-0.00162136	2638707
15200.4	-0.000894674	2634174
15210.8	-0.000172512	2629697
15220.4	0.000484583	2625659
15231	0.00120025	2621556
15240.4	0.00182525	2617510
15250.9	0.00250247	2612438
15260.1	0.00309336	2608295
15270.4	0.00373471	2603064
15280.7	0.00435816	2597767
15291	0.00496189	2592395
15300.2	0.0054869	2587475
15310.5	0.00604819	2582861
15320.8	0.0065844	2577743
15330.1	0.00704389	2573239
15340.4	0.00752694	2568740
15350.7	0.00797923	2563246
15361	0.00839905	2558810
15370.2	0.0087479	2554489
15380.6	0.00910573	2549657
15390	0.00939731	2545500
15400.6	0.00968837	2540722
15410.2	0.00991622	2536440
15420.9	0.0101311	2531675
15430.5	0.0102871	2527170
15440.1	0.0104066	2522734
15450.8	0.0104951	2517949
15460.4	0.0105338	2513912
15470	0.0105323	2509592
15480.5	0.0104835	2505174
15491	0.0103836	2499958
15500.6	0.0102461	2495309
15510.3	0.0100633	2491258
15521	0.00980574	2485795
15530.6	0.00952316	2481523
15540.4	0.00918626	2476709
15550.1	0.00879825	2472374
15560.7	0.00831723	2467719
15570.2	0.00783498	2462275
15580.9	0.00722722	2456881
15590.7	0.00661177	2451936
15600.9	0.00591518	2445686
15611.1	0.00515517	2439499
15620.9	0.00436574	2434301
15630.3	0.00355849	2429577
15640.7	0.00261205	2423835
15650.2	0.00169677	2419396
15660.7	0.000621831	2413105
15670.2	-0.000394158	2407852
15680.7	-0.00157511	2402254
15690.2	-0.00267202	2396931
15700.6	-0.00393738	2391338
15710.3	-0.00515758	2386372
15720.4	-0.00648647	2381273
15730.6	-0.00789074	2376045
15740.9	-0.00928194	2371446
15751.1	-0.0107343	2367480
15760.2	-0.0122115	2363070
15770.5	-0.0139614	2358538
15780.7	-0.0157629	2354642
15790.3	-0.0177194	2351015
15801	-0.0201578	2346803
15810.7	-0.0226031	2343119
15820.3	-0.0250448	2338654
15830.9	-0.0276953	2333771
15840.6	-0.0299971	2329032
15850.6	-0.0323491	2324229
15860.5	-0.0347265	2319577
15871	-0.0373029	2314215
15880.5	-0.0397133	2309823
15890.1	-0.0422183	2305201
15900.4	-0.0449366	2300665
15910.7	-0.0476899	2296098
15920.7	-0.0503554	2292158
15930.2	-0.0529085	2288439
15940.9	-0.0557596	2284041
15950.7	-0.0583721	2279953
15961	-0.0611684	2275574
15970.3	-0.0637025	2271035
15980.8	-0.0665575	2265596
15990.5	-0.0692275	2261545
16000	-0.0718312	2257160
16010.5	-0.0746839	2252626
16020.4	-0.0773933	2248358
16031	-0.0802693	2243471
16040.5	-0.0828333	2239552
16051.2	-0.0856962	2235311
16060.4	-0.0881644	2231588
16070.8	-0.0908636	2228544
16080	-0.093244	2225346
16090.3	-0.0958251	2221441
16100.6	-0.0983277	2217268
16111	-0.100746	2212964
16120.4	-0.102847	2208566
16130.6	-0.105038	2204133
16141	-0.107135	2198969
16151.1	-0.109017	2194182
16160.4	-0.110638	2189462
16170.8	-0.112298	2184218
16180.2	-0.113643	2179578
16190.7	-0.114982	2174344
16200.7	-0.116073	2169422
16210.4	-0.116965	2165197
16220	-0.117693	2160183
16230.8	-0.118263	2155017
16240.4	-0.118572	2150301
16250.9	-0.118805	2145385
16260.2	-0.118879	2141359
16270.6	-0.118696	2136038
16281	-0.118342	2130991
16290.6	-0.117857	2126098
16300.1	-0.117219	2121343
16311.1	-0.116274	2116069
16321	-0.115257	2111354
16330.8	-0.11407	2106612
16340.3	-0.112764	2102401
16350.6	-0.111163	2097781
16360.9	-0.109395	2093097
16370.2	-0.107661	2088485
16380.5	-0.105563	2083657
16390.9	-0.103309	2078923
16400.8	-0.101031	2074808
16410.6	-0.0986227	2071062
16420.4	-0.096093	2066682
16430.2	-0.0934496	2062333
16440.1	-0.0906997	2058063
16450.2	-0.0877614	2053742
16460.8	-0.0845713	2049088
16470.9	-0.0814588	2045023
16480.3	-0.0784546	2041085
16490.8	-0.0750171	2036318
16500.2	-0.0718528	2031824
16510.7	-0.0682528	2026914
16520.9	-0.0644089	2022374
16530	-0.0586539	2018464
16540.5	-0.053288	2013528
16550.1	-0.0487879	2009521
16560.5	-0.0439822	2004577
16570.9	-0.039213	1999554
16580.3	-0.0348116	1995660
16590.4	-0.0299576	1990987
16600.8	-0.025011	1986873
16611.3	-0.0202603	1982257
16620.4	-0.0162492	1978471
16630.7	-0.0117805	1974447
16641.1	-0.00730928	1969708
16650.2	-0.00334693	1966091
16660.6	0.001151	1961971
16671.1	0.00555703	1957464
16680.4	0.00930491	1954165
16690.9	0.0134347	1950215
16700.2	0.0169506	1947272
16710.9	0.0208561	1943887
16720.1	0.0241734	1941145
16730.7	0.0278211	1938039
16741.2	0.0312723	1934603
16750.4	0.0341162	1931738
16760.7	0.0371575	1928659
16770	0.0397185	1925594
16780.5	0.0424157	1922155
16790	0.0447232	1918469
16800.1	0.0469499	1915214
16810.9	0.0492574	1912386
16820	0.0510342	1909408
16830.2	0.0526634	1905859
16840.9	0.054046	1902375
16850.1	0.0546813	1899326
16860.6	0.0556247	1895714
16870.1	0.0563866	1892090
16880.6	0.0568224	1888706
16890	0.0571638	1885104
16900.4	0.0574792	1881864
16910.9	0.0576921	1878119
16920.8	0.0577975	1873988
16930.8	0.0578139	1870301
16940.9	0.0577258	1866338
16950.4	0.0575468	1862838
16960.6	0.0572579	1858982
16970.6	0.0568854	1855586
16980.2	0.0564466	1852078
16990.1	0.0559191	1848198
17000.3	0.0552946	1844465
17010.5	0.0545883	1840922
17020.7	0.0537987	1837415
17031	0.0529246	1833761
17041.2	0.0519736	1830639
17050.1	0.0510921	1828272
17060.6	0.0499731	1824650
17071	0.0488103	1821860
17080.1	0.0477635	1818883
17090.2	0.0465382	1815756
17100.4	0.0454035	1812465
17110.8	0.0441374	1808738
17120.7	0.0427362	1805528
17130.6	0.0412478	1802446
17140.8	0.0405503	1798795
17150.1	0.0391643	1795620
17161.2	0.0373815	1791458
17171.1	0.0358878	1788345
17181.1	0.0344808	1784540
17191	0.033162	1780903
17201.1	0.0318863	1777614
17210.4	0.0307342	1774662
17220.2	0.0295358	1771563
17231.1	0.0281979	1767925
17240	0.0271239	1764845
17251.2	0.0258578	1760867
17261.2	0.0247866	1757389
17270.1	0.0239102	1754341
17280.1	0.0229737	1751094
17290.2	0.0221002	1747842
17300.3	0.0212842	1744902
17310.4	0.0205236	1742141
17320.6	0.0198219	1739090
17330.7	0.0191837	1736076
17340.9	0.0186152	1733255
17351.1	0.0181164	1730329
17360.1	0.0177516	1727978
17370.3	0.017399	1725287
17380.6	0.0170992	1722344
17390.8	0.0168655	1719436
17401.1	0.0167657	1716864
17410.2	0.0166964	1714487
17420.7	0.0166332	1711983
17431.2	0.0166489	1709337
17440.5	0.0167212	1706859
17451.2	0.0168948	1704045
17460.8	0.0170727	1701648
17470.6	0.0172544	1698617
17480.4	0.0174528	1695979
17490.2	0.0176824	1693168
17500	0.0179484	1690424
17511.5	0.0183022	1687412
17521.3	0.0186359	1684611
17531.1	0.0189919	1682202
17540.9	0.019366	1679729
17550.7	0.0197548	1677282
17560.6	0.0201553	1674825
17570.4	0.0205646	1671883
17580.2	0.0209803	1669343
17590	0.0214007	1666944
17601.5	0.021895	1664404
17611.3	0.0223202	1662471
17621.1	0.022745	1660138
17630.9	0.0231674	1657633
17640.7	0.0235853	1655294
17650.6	0.0239967	1653262
17660.4	0.0244002	1651115
17670.3	0.024796	1648977
17680.1	0.0251816	1647160
17691.6	0.0256184	1645080
17701.5	0.025982	1643111
17711.4	0.0263361	1641168
17721.3	0.0266811	1639526
17731.1	0.0270179	1637750
17741	0.0273469	1636021
17750.9	0.0276691	1634375
17760.8	0.0279853	1632468
17770.7	0.0282964	1630653
17780.5	0.0286033	1628764
17790.4	0.0289073	1626850
17800.3	0.029209	1624913
17810.2	0.0295093	1622858
17820.1	0.0298091	1621090
17830	0.03011	1618903
17841.6	0.0304626	1616328
17851.5	0.030766	1614376
17861.4	0.031071	1611873
17871.2	0.0313788	1609742
17881.1	0.03169	1607516
17890.9	0.0320051	1605303
17900.8	0.0323244	1603382
17910.7	0.032648	1601301
17920.5	0.032976	1599196
17931	0.0333279	1597064
17941.4	0.033685	1594846
17950.1	0.0339861	1593218
17961.1	0.0343717	1590575
17971.6	0.0347406	1588252
17980.2	0.0350502	1586047
17990.2	0.0354087	1583699
18001.1	0.035805	1581408
18010.5	0.0361496	1578859
18020.8	0.0365272	1576276
18030.5	0.0368895	1573880
18040.4	0.0372547	1571143
18050.3	0.0376242	1568144
18060.9	0.0380221	1565493
18070.2	0.0383695	1563545
18080.1	0.0387389	1561812
18090.7	0.0391361	1559239
18100.3	0.0394927	1557612
18110.8	0.0398822	1555050
18120.3	0.04023	1553117
18130.8	0.0406119	1550988
18140.3	0.0409494	1549223
18150.7	0.0413154	1546483
18160.1	0.0416377	1544080
18170.6	0.0419875	1540962
18180	0.0422965	1538942
18190.6	0.042637	1536303
18200.1	0.04295	1534469
18210.6	0.0433963	1531482
18220.1	0.0437722	1528836
18230.8	0.0438919	1526355
18240.9	0.0439156	1523583
18250.8	0.044082	1521040
18260.5	0.0442802	1518503
18270.1	0.0444688	1516259
18280.7	0.0446487	1513988
18291.1	0.0448065	1512051
18300.3	0.0449185	1510532
18310.9	0.0449075	1508510
18321	0.0449816	1507077
18330.5	0.0450426	1505085
18341	0.0450997	1503519
18350.5	0.0451414	1502121
18361	0.0451757	1499703
18370.4	0.0451941	1498022
18380.9	0.0451988	1495889
18390.3	0.0451873	1494097
18400.3	0.0451584	1492156
18410.9	0.0451081	1490011
18420.5	0.0450445	1488446
18430.1	0.0449627	1486721
18440.4	0.0448532	1484700
18450.5	0.0447227	1483179
18461.2	0.0445569	1481490
18470.7	0.0443876	1480037
18480.2	0.0441904	1478863
18490.8	0.0439425	1477496
18500.5	0.043688	1476260
18510.3	0.0434048	1474295
18520.1	0.0430947	1472235
18530.8	0.0427265	1470303
18540.8	0.0423548	1468267
18551.4	0.0419372	1466368
18560.7	0.0415496	1464677
18570.7	0.0411268	1462903
18580	0.0407332	1461192
18590.4	0.0402424	1459139
18601	0.0396778	1456913
18610.3	0.039133	1455102
18621.1	0.0384593	1452639
18630.8	0.0378062	1451219
18640.5	0.037121	1449058
18650.1	0.0364514	1446987
18660.1	0.0351541	1444966
18670.7	0.0339963	1442692
18681.1	0.0330785	1440794
18691.3	0.0322215	1438866
18700.1	0.0314718	1437004
18710.3	0.0305506	1435294
18721.7	0.0294639	1433154
18730.1	0.0286209	1431966
18741.2	0.0274902	1429978
18750.4	0.0265112	1428383
18760.7	0.0254101	1426538
18770.9	0.0242936	1425016
18781	0.0231582	1423249
18791.2	0.0220049	1421544
18801.4	0.0208253	1420012
18811.6	0.0196142	1418507
18820.2	0.0185734	1417218
18830.5	0.0173072	1415618
18840.5	0.0160563	1414129
18850.5	0.0147788	1412647
18860.8	0.0134412	1411082
18871	0.0120901	1409612
18881.3	0.0107217	1408009
18891.5	0.00933807	1406979
18900.1	0.00816974	1405750
18910.6	0.00673873	1404272
18921.1	0.00528337	1402948
18931.6	0.00381971	1401396
18940.4	0.00259503	1400204
18950.9	0.00112105	1399110
18961.5	-0.000355959	1397531
18970.3	-0.00158785	1396372
18980.8	-0.00306596	1395257
18991.3	-0.00454245	1393582
19000.1	-0.00577065	1392282
19010.5	-0.00721571	1390978
19020.7	-0.0086434	1389680
19031.1	-0.0100849	1388099
19041.5	-0.0115197	1386873
19050.2	-0.0127099	1385645
19060.6	-0.0141309	1384610
19070.8	-0.0155084	1383422
19081	-0.0168907	1382045
19091.4	-0.0182864	1380735
19100.1	-0.0194426	1379505
19110.5	-0.0208212	1378533
19120.9	-0.0221899	1377620
19131.3	-0.023548	1376247
19141.7	-0.0248946	1375199
19150.4	-0.0260072	1373982
19160.8	-0.0273295	1372735
19171.3	-0.0286444	1371081
19180.1	-0.0297334	1369686
19190.6	-0.0310223	1368102
19201	-0.0322756	1366477
19211.2	-0.0334815	1364891
19221.2	-0.0346369	1363394
19231.1	-0.0357615	1361690
19241.1	-0.0368599	1360411
19251	-0.0379308	1358997
19260.9	-0.0389729	1357786
19270.9	-0.0399846	1356342
19280.8	-0.0409628	1354768
19290.7	-0.0419132	1353218
19300.6	-0.0428316	1351979
19310.3	-0.043698	1350692
19320	-0.0445329	1349200
19330.1	-0.0453631	1347710
19340.3	-0.0461705	1345991
19350.5	-0.0469424	1344684
19360.5	-0.047664	1343165
19370.3	-0.0483354	1341554
19381.6	-0.0490675	1339868
19391.2	-0.0496514	1338294
19400.9	-0.0502139	1336869
19410.8	-0.0507475	1335295
19421	-0.0512603	1333876
19431.3	-0.0517383	1332517
19441.4	-0.0521705	1330802
19451.3	-0.0525599	1329384
19461.4	-0.0529166	1327755
19471.5	-0.0532386	1326356
19480	-0.0534793	1325037
19490.2	-0.0537337	1323563
19500.1	-0.0539475	1322854
19510.1	-0.0541255	1321508
19520.1	-0.0542678	1320208
19530.1	-0.0543743	1319041
19540	-0.054445	1317842
19550	-0.0544796	1317011
19560	-0.054478	1316002
19571.6	-0.0544299	1314338
19580	-0.0543645	1313767
19590.2	-0.0542494	1312742
19600.3	-0.054099	1311554
19610.3	-0.0539112	1310270
19620.3	-0.0536862	1308970
19630.4	-0.0534215	1307758
19640.7	-0.0531139	1306738
19650.9	-0.0527681	1305714
19661.2	-0.0523847	1304354
19670.6	-0.0520023	1303332
19680.1	-0.0515857	1302099
19690.4	-0.0510972	1300594
19700.7	-0.0505703	1299363
19711.2	-0.0500011	1297803
19720.7	-0.0494515	1296715
19730.6	-0.0488463	1295462
19740.8	-0.0481903	1294311
19751.1	-0.0474938	1293110
19761.4	-0.0467631	1291799
19771	-0.0460465	1291070
19780.3	-0.0453281	1290011
19790.1	-0.0445485	1289048
19800.9	-0.0436518	1287618
19810.7	-0.0428187	1286353
19820.5	-0.0419604	1285212
19830.6	-0.0410512	1283930
19840.1	-0.0401778	1282644
19850.6	-0.0391962	1280973
19860	-0.0382952	1279515
19870.4	-0.0372942	1278304
19881.3	-0.0362351	1276835
19890.4	-0.0353348	1275807
19901	-0.0342978	1274707
19910.7	-0.0333492	1273416
19920	-0.0324362	1272155
19931.7	-0.0313076	1270689
19940.2	-0.0304899	1269661
19951.2	-0.0294636	1268228
19960.6	-0.0286038	1266971
19971.5	-0.0276287	1265579
19981.3	-0.0267856	1264365
19990.5	-0.0260258	1263033
