STARTING WORLD SCHEDULER SERVER
CLIENT SETUP: adding client 46195
 + TIMESTAMP: 0.240614
START TIMESTAMP: 0.240648
+++++++++++++++++++++++++++++++++++++++++++++++++++++++++++
+ Client Mapping:
  > Client 46195 (0):	

+ Core Mapping:	0 0 0 0 0 0 0 0 0 0 0 0 0 0 0 0 0 0 0 0 0 0 0 0 0 0 0 0 0 0 0 0 0 0 0 0 0 0 0 0 
+ Optimal point: 
+++++++++++++++++++++++++++++++++++++++++++++++++++++++++++
INVADE: client 46195
 + TIMESTAMP: 0.240711
RESSOURCE DISTRIBUTION CHANGED
++++++++++++++++++++++++++++++++++++++++++++++++
INVADE (46195)
  + pid: 46195
  + min_cores: 1
  + max_cores: 512
  + scalability graph: 
1, 1.36329, 1.52423, 1.62017, 1.68565, 1.73398, 1.77154, 1.80182, 1.8269, 1.84812, 1.86637, 1.88229, 1.89634, 1.90885, 1.92009, 1.93026, 1.93952, 1.94799, 1.95579, 1.963, 1.96968, 1.9759, 1.98172, 1.98716, 1.99228, 1.9971, 2.00164, 2.00594, 2.01002, 2.01389, 2.01757, 2.02108, 2.02443, 2.02763, 2.03069, 2.03362, 2.03644, 2.03914, 2.04173, 2.04423, 
Number of clients: 1

+++++++++++++++++++++++++++++++++++++++++++++++++++++++++++
+ Client Mapping:
  > Client 46195 (40):	0 1 2 3 4 5 6 7 8 9 10 11 12 13 14 15 16 17 18 19 20 21 22 23 24 25 26 27 28 29 30 31 32 33 34 35 36 37 38 39 

+ Core Mapping:	46195 46195 46195 46195 46195 46195 46195 46195 46195 46195 46195 46195 46195 46195 46195 46195 46195 46195 46195 46195 46195 46195 46195 46195 46195 46195 46195 46195 46195 46195 46195 46195 46195 46195 46195 46195 46195 46195 46195 46195 
+ Optimal point: 40 
+++++++++++++++++++++++++++++++++++++++++++++++++++++++++++
CLIENT SETUP: adding client 46199
 + TIMESTAMP: 0.260569
+++++++++++++++++++++++++++++++++++++++++++++++++++++++++++
+ Client Mapping:
  > Client 46195 (40):	0 1 2 3 4 5 6 7 8 9 10 11 12 13 14 15 16 17 18 19 20 21 22 23 24 25 26 27 28 29 30 31 32 33 34 35 36 37 38 39 
  > Client 46199 (0):	

+ Core Mapping:	46195 46195 46195 46195 46195 46195 46195 46195 46195 46195 46195 46195 46195 46195 46195 46195 46195 46195 46195 46195 46195 46195 46195 46195 46195 46195 46195 46195 46195 46195 46195 46195 46195 46195 46195 46195 46195 46195 46195 46195 
+ Optimal point: 40 
+++++++++++++++++++++++++++++++++++++++++++++++++++++++++++
INVADE: client 46199
 + TIMESTAMP: 0.260647
CLIENT SETUP: adding client 46196
 + TIMESTAMP: 0.26868
+++++++++++++++++++++++++++++++++++++++++++++++++++++++++++
+ Client Mapping:
  > Client 46195 (40):	0 1 2 3 4 5 6 7 8 9 10 11 12 13 14 15 16 17 18 19 20 21 22 23 24 25 26 27 28 29 30 31 32 33 34 35 36 37 38 39 
  > Client 46199 (0):	
  > Client 46196 (0):	

+ Core Mapping:	46195 46195 46195 46195 46195 46195 46195 46195 46195 46195 46195 46195 46195 46195 46195 46195 46195 46195 46195 46195 46195 46195 46195 46195 46195 46195 46195 46195 46195 46195 46195 46195 46195 46195 46195 46195 46195 46195 46195 46195 
+ Optimal point: 20 20 
+++++++++++++++++++++++++++++++++++++++++++++++++++++++++++
INVADE: client 46196
 + TIMESTAMP: 0.280638
CLIENT SETUP: adding client 46198
 + TIMESTAMP: 0.28913
+++++++++++++++++++++++++++++++++++++++++++++++++++++++++++
+ Client Mapping:
  > Client 46195 (40):	0 1 2 3 4 5 6 7 8 9 10 11 12 13 14 15 16 17 18 19 20 21 22 23 24 25 26 27 28 29 30 31 32 33 34 35 36 37 38 39 
  > Client 46199 (0):	
  > Client 46196 (0):	
  > Client 46198 (0):	

+ Core Mapping:	46195 46195 46195 46195 46195 46195 46195 46195 46195 46195 46195 46195 46195 46195 46195 46195 46195 46195 46195 46195 46195 46195 46195 46195 46195 46195 46195 46195 46195 46195 46195 46195 46195 46195 46195 46195 46195 46195 46195 46195 
+ Optimal point: 14 13 13 
+++++++++++++++++++++++++++++++++++++++++++++++++++++++++++
CLIENT SETUP: adding client 46197
 + TIMESTAMP: 0.289214
+++++++++++++++++++++++++++++++++++++++++++++++++++++++++++
+ Client Mapping:
  > Client 46195 (40):	0 1 2 3 4 5 6 7 8 9 10 11 12 13 14 15 16 17 18 19 20 21 22 23 24 25 26 27 28 29 30 31 32 33 34 35 36 37 38 39 
  > Client 46199 (0):	
  > Client 46196 (0):	
  > Client 46198 (0):	
  > Client 46197 (0):	

+ Core Mapping:	46195 46195 46195 46195 46195 46195 46195 46195 46195 46195 46195 46195 46195 46195 46195 46195 46195 46195 46195 46195 46195 46195 46195 46195 46195 46195 46195 46195 46195 46195 46195 46195 46195 46195 46195 46195 46195 46195 46195 46195 
+ Optimal point: 14 13 13 
+++++++++++++++++++++++++++++++++++++++++++++++++++++++++++
CLIENT SETUP: adding client 46200
 + TIMESTAMP: 0.289322
+++++++++++++++++++++++++++++++++++++++++++++++++++++++++++
+ Client Mapping:
  > Client 46195 (40):	0 1 2 3 4 5 6 7 8 9 10 11 12 13 14 15 16 17 18 19 20 21 22 23 24 25 26 27 28 29 30 31 32 33 34 35 36 37 38 39 
  > Client 46199 (0):	
  > Client 46196 (0):	
  > Client 46198 (0):	
  > Client 46197 (0):	
  > Client 46200 (0):	

+ Core Mapping:	46195 46195 46195 46195 46195 46195 46195 46195 46195 46195 46195 46195 46195 46195 46195 46195 46195 46195 46195 46195 46195 46195 46195 46195 46195 46195 46195 46195 46195 46195 46195 46195 46195 46195 46195 46195 46195 46195 46195 46195 
+ Optimal point: 14 13 13 
+++++++++++++++++++++++++++++++++++++++++++++++++++++++++++
INVADE: client 46198
 + TIMESTAMP: 0.289444
INVADE: client 46197
 + TIMESTAMP: 0.289824
INVADE: client 46200
 + TIMESTAMP: 0.289976
++++++++++++++++++++++++++++++++++++++++++++++++
 + TIMESTAMP: 0.300134
REINVADE (46195)
  + pid: 46195
  + min_cores: 1
  + max_cores: 512
  + scalability graph: 
1, 1.36329, 1.52423, 1.62017, 1.68565, 1.73398, 1.77154, 1.80182, 1.8269, 1.84812, 1.86637, 1.88229, 1.89634, 1.90885, 1.92009, 1.93026, 1.93952, 1.94799, 1.95579, 1.963, 1.96968, 1.9759, 1.98172, 1.98716, 1.99228, 1.9971, 2.00164, 2.00594, 2.01002, 2.01389, 2.01757, 2.02108, 2.02443, 2.02763, 2.03069, 2.03362, 2.03644, 2.03914, 2.04173, 2.04423, 
Number of clients: 6

+++++++++++++++++++++++++++++++++++++++++++++++++++++++++++
+ Client Mapping:
  > Client 46195 (7):	33 34 35 36 37 38 39 
  > Client 46199 (0):	
  > Client 46196 (0):	
  > Client 46198 (0):	
  > Client 46197 (0):	
  > Client 46200 (0):	

+ Core Mapping:	0 0 0 0 0 0 0 0 0 0 0 0 0 0 0 0 0 0 0 0 0 0 0 0 0 0 0 0 0 0 0 0 0 46195 46195 46195 46195 46195 46195 46195 
+ Optimal point: 7 7 7 7 6 6 
+++++++++++++++++++++++++++++++++++++++++++++++++++++++++++
++++++++++++++++++++++++++++++++++++++++++++++++
 + TIMESTAMP: 0.312569
REINVADE (46199)
  + pid: 46199
  + min_cores: 1
  + max_cores: 512
  + scalability graph: 
1, 1.36329, 1.52423, 1.62017, 1.68565, 1.73398, 1.77154, 1.80182, 1.8269, 1.84812, 1.86637, 1.88229, 1.89634, 1.90885, 1.92009, 1.93026, 1.93952, 1.94799, 1.95579, 1.963, 1.96968, 1.9759, 1.98172, 1.98716, 1.99228, 1.9971, 2.00164, 2.00594, 2.01002, 2.01389, 2.01757, 2.02108, 2.02443, 2.02763, 2.03069, 2.03362, 2.03644, 2.03914, 2.04173, 2.04423, 
Number of clients: 6

+++++++++++++++++++++++++++++++++++++++++++++++++++++++++++
+ Client Mapping:
  > Client 46195 (7):	33 34 35 36 37 38 39 
  > Client 46199 (7):	0 1 2 3 4 5 6 
  > Client 46196 (0):	
  > Client 46198 (0):	
  > Client 46197 (0):	
  > Client 46200 (0):	

+ Core Mapping:	46199 46199 46199 46199 46199 46199 46199 0 0 0 0 0 0 0 0 0 0 0 0 0 0 0 0 0 0 0 0 0 0 0 0 0 0 46195 46195 46195 46195 46195 46195 46195 
+ Optimal point: 7 7 7 7 6 6 
+++++++++++++++++++++++++++++++++++++++++++++++++++++++++++
++++++++++++++++++++++++++++++++++++++++++++++++
 + TIMESTAMP: 0.328647
REINVADE (46196)
  + pid: 46196
  + min_cores: 1
  + max_cores: 512
  + scalability graph: 
1, 1.36329, 1.52423, 1.62017, 1.68565, 1.73398, 1.77154, 1.80182, 1.8269, 1.84812, 1.86637, 1.88229, 1.89634, 1.90885, 1.92009, 1.93026, 1.93952, 1.94799, 1.95579, 1.963, 1.96968, 1.9759, 1.98172, 1.98716, 1.99228, 1.9971, 2.00164, 2.00594, 2.01002, 2.01389, 2.01757, 2.02108, 2.02443, 2.02763, 2.03069, 2.03362, 2.03644, 2.03914, 2.04173, 2.04423, 
Number of clients: 6

+++++++++++++++++++++++++++++++++++++++++++++++++++++++++++
+ Client Mapping:
  > Client 46195 (7):	33 34 35 36 37 38 39 
  > Client 46199 (7):	0 1 2 3 4 5 6 
  > Client 46196 (7):	7 8 9 10 11 12 13 
  > Client 46198 (0):	
  > Client 46197 (0):	
  > Client 46200 (0):	

+ Core Mapping:	46199 46199 46199 46199 46199 46199 46199 46196 46196 46196 46196 46196 46196 46196 0 0 0 0 0 0 0 0 0 0 0 0 0 0 0 0 0 0 0 46195 46195 46195 46195 46195 46195 46195 
+ Optimal point: 7 7 7 7 6 6 
+++++++++++++++++++++++++++++++++++++++++++++++++++++++++++
++++++++++++++++++++++++++++++++++++++++++++++++
 + TIMESTAMP: 0.371826
REINVADE (46198)
  + pid: 46198
  + min_cores: 1
  + max_cores: 512
  + scalability graph: 
1, 1.36329, 1.52423, 1.62017, 1.68565, 1.73398, 1.77154, 1.80182, 1.8269, 1.84812, 1.86637, 1.88229, 1.89634, 1.90885, 1.92009, 1.93026, 1.93952, 1.94799, 1.95579, 1.963, 1.96968, 1.9759, 1.98172, 1.98716, 1.99228, 1.9971, 2.00164, 2.00594, 2.01002, 2.01389, 2.01757, 2.02108, 2.02443, 2.02763, 2.03069, 2.03362, 2.03644, 2.03914, 2.04173, 2.04423, 
Number of clients: 6

+++++++++++++++++++++++++++++++++++++++++++++++++++++++++++
+ Client Mapping:
  > Client 46195 (7):	33 34 35 36 37 38 39 
  > Client 46199 (7):	0 1 2 3 4 5 6 
  > Client 46196 (7):	7 8 9 10 11 12 13 
  > Client 46198 (7):	14 15 16 17 18 19 20 
  > Client 46197 (0):	
  > Client 46200 (0):	

+ Core Mapping:	46199 46199 46199 46199 46199 46199 46199 46196 46196 46196 46196 46196 46196 46196 46198 46198 46198 46198 46198 46198 46198 0 0 0 0 0 0 0 0 0 0 0 0 46195 46195 46195 46195 46195 46195 46195 
+ Optimal point: 7 7 7 7 6 6 
+++++++++++++++++++++++++++++++++++++++++++++++++++++++++++
++++++++++++++++++++++++++++++++++++++++++++++++
 + TIMESTAMP: 0.378188
REINVADE (46200)
  + pid: 46200
  + min_cores: 1
  + max_cores: 512
  + scalability graph: 
1, 1.36329, 1.52423, 1.62017, 1.68565, 1.73398, 1.77154, 1.80182, 1.8269, 1.84812, 1.86637, 1.88229, 1.89634, 1.90885, 1.92009, 1.93026, 1.93952, 1.94799, 1.95579, 1.963, 1.96968, 1.9759, 1.98172, 1.98716, 1.99228, 1.9971, 2.00164, 2.00594, 2.01002, 2.01389, 2.01757, 2.02108, 2.02443, 2.02763, 2.03069, 2.03362, 2.03644, 2.03914, 2.04173, 2.04423, 
Number of clients: 6

+++++++++++++++++++++++++++++++++++++++++++++++++++++++++++
+ Client Mapping:
  > Client 46195 (7):	33 34 35 36 37 38 39 
  > Client 46199 (7):	0 1 2 3 4 5 6 
  > Client 46196 (7):	7 8 9 10 11 12 13 
  > Client 46198 (7):	14 15 16 17 18 19 20 
  > Client 46197 (0):	
  > Client 46200 (6):	21 22 23 24 25 26 

+ Core Mapping:	46199 46199 46199 46199 46199 46199 46199 46196 46196 46196 46196 46196 46196 46196 46198 46198 46198 46198 46198 46198 46198 46200 46200 46200 46200 46200 46200 0 0 0 0 0 0 46195 46195 46195 46195 46195 46195 46195 
+ Optimal point: 7 7 7 7 6 6 
+++++++++++++++++++++++++++++++++++++++++++++++++++++++++++
++++++++++++++++++++++++++++++++++++++++++++++++
 + TIMESTAMP: 0.382248
REINVADE (46197)
  + pid: 46197
  + min_cores: 1
  + max_cores: 512
  + scalability graph: 
1, 1.36329, 1.52423, 1.62017, 1.68565, 1.73398, 1.77154, 1.80182, 1.8269, 1.84812, 1.86637, 1.88229, 1.89634, 1.90885, 1.92009, 1.93026, 1.93952, 1.94799, 1.95579, 1.963, 1.96968, 1.9759, 1.98172, 1.98716, 1.99228, 1.9971, 2.00164, 2.00594, 2.01002, 2.01389, 2.01757, 2.02108, 2.02443, 2.02763, 2.03069, 2.03362, 2.03644, 2.03914, 2.04173, 2.04423, 
Number of clients: 6

+++++++++++++++++++++++++++++++++++++++++++++++++++++++++++
+ Client Mapping:
  > Client 46195 (7):	33 34 35 36 37 38 39 
  > Client 46199 (7):	0 1 2 3 4 5 6 
  > Client 46196 (7):	7 8 9 10 11 12 13 
  > Client 46198 (7):	14 15 16 17 18 19 20 
  > Client 46197 (6):	27 28 29 30 31 32 
  > Client 46200 (6):	21 22 23 24 25 26 

+ Core Mapping:	46199 46199 46199 46199 46199 46199 46199 46196 46196 46196 46196 46196 46196 46196 46198 46198 46198 46198 46198 46198 46198 46200 46200 46200 46200 46200 46200 46197 46197 46197 46197 46197 46197 46195 46195 46195 46195 46195 46195 46195 
+ Optimal point: 7 7 7 7 6 6 
+++++++++++++++++++++++++++++++++++++++++++++++++++++++++++
CLIENT SHUTDOWN: client 46198
 + TIMESTAMP: 26.7818
+++++++++++++++++++++++++++++++++++++++++++++++++++++++++++
+ Client Mapping:
  > Client 46195 (7):	33 34 35 36 37 38 39 
  > Client 46199 (7):	0 1 2 3 4 5 6 
  > Client 46196 (7):	7 8 9 10 11 12 13 
  > Client 46198 (0):	
  > Client 46197 (6):	27 28 29 30 31 32 
  > Client 46200 (6):	21 22 23 24 25 26 

+ Core Mapping:	46199 46199 46199 46199 46199 46199 46199 46196 46196 46196 46196 46196 46196 46196 0 0 0 0 0 0 0 46200 46200 46200 46200 46200 46200 46197 46197 46197 46197 46197 46197 46195 46195 46195 46195 46195 46195 46195 
+ Optimal point: 7 7 7 7 6 6 
+++++++++++++++++++++++++++++++++++++++++++++++++++++++++++
client (46198) shutdown hint: 437.984
sum_client_shutdown_hint: 437.984
sum_client_shutdown_hint_div_time: 0
++++++++++++++++++++++++++++++++++++++++++++++++
 + TIMESTAMP: 26.7819
REINVADE (46196)
  + pid: 46196
  + min_cores: 1
  + max_cores: 512
  + scalability graph: 
1, 1.36329, 1.52423, 1.62017, 1.68565, 1.73398, 1.77154, 1.80182, 1.8269, 1.84812, 1.86637, 1.88229, 1.89634, 1.90885, 1.92009, 1.93026, 1.93952, 1.94799, 1.95579, 1.963, 1.96968, 1.9759, 1.98172, 1.98716, 1.99228, 1.9971, 2.00164, 2.00594, 2.01002, 2.01389, 2.01757, 2.02108, 2.02443, 2.02763, 2.03069, 2.03362, 2.03644, 2.03914, 2.04173, 2.04423, 
Number of clients: 5

+++++++++++++++++++++++++++++++++++++++++++++++++++++++++++
+ Client Mapping:
  > Client 46195 (7):	33 34 35 36 37 38 39 
  > Client 46199 (7):	0 1 2 3 4 5 6 
  > Client 46196 (8):	7 8 9 10 11 12 13 14 
  > Client 46197 (6):	27 28 29 30 31 32 
  > Client 46200 (6):	21 22 23 24 25 26 

+ Core Mapping:	46199 46199 46199 46199 46199 46199 46199 46196 46196 46196 46196 46196 46196 46196 46196 0 0 0 0 0 0 46200 46200 46200 46200 46200 46200 46197 46197 46197 46197 46197 46197 46195 46195 46195 46195 46195 46195 46195 
+ Optimal point: 8 8 8 8 8 
+++++++++++++++++++++++++++++++++++++++++++++++++++++++++++
++++++++++++++++++++++++++++++++++++++++++++++++
 + TIMESTAMP: 26.7821
REINVADE (46199)
  + pid: 46199
  + min_cores: 1
  + max_cores: 512
  + scalability graph: 
1, 1.36329, 1.52423, 1.62017, 1.68565, 1.73398, 1.77154, 1.80182, 1.8269, 1.84812, 1.86637, 1.88229, 1.89634, 1.90885, 1.92009, 1.93026, 1.93952, 1.94799, 1.95579, 1.963, 1.96968, 1.9759, 1.98172, 1.98716, 1.99228, 1.9971, 2.00164, 2.00594, 2.01002, 2.01389, 2.01757, 2.02108, 2.02443, 2.02763, 2.03069, 2.03362, 2.03644, 2.03914, 2.04173, 2.04423, 
Number of clients: 5

+++++++++++++++++++++++++++++++++++++++++++++++++++++++++++
+ Client Mapping:
  > Client 46195 (7):	33 34 35 36 37 38 39 
  > Client 46199 (8):	0 1 2 3 4 5 6 15 
  > Client 46196 (8):	7 8 9 10 11 12 13 14 
  > Client 46197 (6):	27 28 29 30 31 32 
  > Client 46200 (6):	21 22 23 24 25 26 

+ Core Mapping:	46199 46199 46199 46199 46199 46199 46199 46196 46196 46196 46196 46196 46196 46196 46196 46199 0 0 0 0 0 46200 46200 46200 46200 46200 46200 46197 46197 46197 46197 46197 46197 46195 46195 46195 46195 46195 46195 46195 
+ Optimal point: 8 8 8 8 8 
+++++++++++++++++++++++++++++++++++++++++++++++++++++++++++
++++++++++++++++++++++++++++++++++++++++++++++++
 + TIMESTAMP: 26.7822
REINVADE (46197)
  + pid: 46197
  + min_cores: 1
  + max_cores: 512
  + scalability graph: 
1, 1.36329, 1.52423, 1.62017, 1.68565, 1.73398, 1.77154, 1.80182, 1.8269, 1.84812, 1.86637, 1.88229, 1.89634, 1.90885, 1.92009, 1.93026, 1.93952, 1.94799, 1.95579, 1.963, 1.96968, 1.9759, 1.98172, 1.98716, 1.99228, 1.9971, 2.00164, 2.00594, 2.01002, 2.01389, 2.01757, 2.02108, 2.02443, 2.02763, 2.03069, 2.03362, 2.03644, 2.03914, 2.04173, 2.04423, 
Number of clients: 5

+++++++++++++++++++++++++++++++++++++++++++++++++++++++++++
+ Client Mapping:
  > Client 46195 (7):	33 34 35 36 37 38 39 
  > Client 46199 (8):	0 1 2 3 4 5 6 15 
  > Client 46196 (8):	7 8 9 10 11 12 13 14 
  > Client 46197 (8):	27 28 29 30 31 32 16 17 
  > Client 46200 (6):	21 22 23 24 25 26 

+ Core Mapping:	46199 46199 46199 46199 46199 46199 46199 46196 46196 46196 46196 46196 46196 46196 46196 46199 46197 46197 0 0 0 46200 46200 46200 46200 46200 46200 46197 46197 46197 46197 46197 46197 46195 46195 46195 46195 46195 46195 46195 
+ Optimal point: 8 8 8 8 8 
+++++++++++++++++++++++++++++++++++++++++++++++++++++++++++
++++++++++++++++++++++++++++++++++++++++++++++++
 + TIMESTAMP: 26.7823
REINVADE (46200)
  + pid: 46200
  + min_cores: 1
  + max_cores: 512
  + scalability graph: 
1, 1.36329, 1.52423, 1.62017, 1.68565, 1.73398, 1.77154, 1.80182, 1.8269, 1.84812, 1.86637, 1.88229, 1.89634, 1.90885, 1.92009, 1.93026, 1.93952, 1.94799, 1.95579, 1.963, 1.96968, 1.9759, 1.98172, 1.98716, 1.99228, 1.9971, 2.00164, 2.00594, 2.01002, 2.01389, 2.01757, 2.02108, 2.02443, 2.02763, 2.03069, 2.03362, 2.03644, 2.03914, 2.04173, 2.04423, 
Number of clients: 5

+++++++++++++++++++++++++++++++++++++++++++++++++++++++++++
+ Client Mapping:
  > Client 46195 (7):	33 34 35 36 37 38 39 
  > Client 46199 (8):	0 1 2 3 4 5 6 15 
  > Client 46196 (8):	7 8 9 10 11 12 13 14 
  > Client 46197 (8):	27 28 29 30 31 32 16 17 
  > Client 46200 (8):	21 22 23 24 25 26 18 19 

+ Core Mapping:	46199 46199 46199 46199 46199 46199 46199 46196 46196 46196 46196 46196 46196 46196 46196 46199 46197 46197 46200 46200 0 46200 46200 46200 46200 46200 46200 46197 46197 46197 46197 46197 46197 46195 46195 46195 46195 46195 46195 46195 
+ Optimal point: 8 8 8 8 8 
+++++++++++++++++++++++++++++++++++++++++++++++++++++++++++
++++++++++++++++++++++++++++++++++++++++++++++++
 + TIMESTAMP: 26.7826
REINVADE (46195)
  + pid: 46195
  + min_cores: 1
  + max_cores: 512
  + scalability graph: 
1, 1.36329, 1.52423, 1.62017, 1.68565, 1.73398, 1.77154, 1.80182, 1.8269, 1.84812, 1.86637, 1.88229, 1.89634, 1.90885, 1.92009, 1.93026, 1.93952, 1.94799, 1.95579, 1.963, 1.96968, 1.9759, 1.98172, 1.98716, 1.99228, 1.9971, 2.00164, 2.00594, 2.01002, 2.01389, 2.01757, 2.02108, 2.02443, 2.02763, 2.03069, 2.03362, 2.03644, 2.03914, 2.04173, 2.04423, 
Number of clients: 5

+++++++++++++++++++++++++++++++++++++++++++++++++++++++++++
+ Client Mapping:
  > Client 46195 (8):	33 34 35 36 37 38 39 20 
  > Client 46199 (8):	0 1 2 3 4 5 6 15 
  > Client 46196 (8):	7 8 9 10 11 12 13 14 
  > Client 46197 (8):	27 28 29 30 31 32 16 17 
  > Client 46200 (8):	21 22 23 24 25 26 18 19 

+ Core Mapping:	46199 46199 46199 46199 46199 46199 46199 46196 46196 46196 46196 46196 46196 46196 46196 46199 46197 46197 46200 46200 46195 46200 46200 46200 46200 46200 46200 46197 46197 46197 46197 46197 46197 46195 46195 46195 46195 46195 46195 46195 
+ Optimal point: 8 8 8 8 8 
+++++++++++++++++++++++++++++++++++++++++++++++++++++++++++
CLIENT SHUTDOWN: client 46196
 + TIMESTAMP: 27.2302
+++++++++++++++++++++++++++++++++++++++++++++++++++++++++++
+ Client Mapping:
  > Client 46195 (8):	33 34 35 36 37 38 39 20 
  > Client 46199 (8):	0 1 2 3 4 5 6 15 
  > Client 46196 (0):	
  > Client 46197 (8):	27 28 29 30 31 32 16 17 
  > Client 46200 (8):	21 22 23 24 25 26 18 19 

+ Core Mapping:	46199 46199 46199 46199 46199 46199 46199 0 0 0 0 0 0 0 0 46199 46197 46197 46200 46200 46195 46200 46200 46200 46200 46200 46200 46197 46197 46197 46197 46197 46197 46195 46195 46195 46195 46195 46195 46195 
+ Optimal point: 8 8 8 8 8 
+++++++++++++++++++++++++++++++++++++++++++++++++++++++++++
client (46196) shutdown hint: 437.984
sum_client_shutdown_hint: 875.968
sum_client_shutdown_hint_div_time: 0
++++++++++++++++++++++++++++++++++++++++++++++++
 + TIMESTAMP: 27.2306
REINVADE (46199)
  + pid: 46199
  + min_cores: 1
  + max_cores: 512
  + scalability graph: 
1, 1.36329, 1.52423, 1.62017, 1.68565, 1.73398, 1.77154, 1.80182, 1.8269, 1.84812, 1.86637, 1.88229, 1.89634, 1.90885, 1.92009, 1.93026, 1.93952, 1.94799, 1.95579, 1.963, 1.96968, 1.9759, 1.98172, 1.98716, 1.99228, 1.9971, 2.00164, 2.00594, 2.01002, 2.01389, 2.01757, 2.02108, 2.02443, 2.02763, 2.03069, 2.03362, 2.03644, 2.03914, 2.04173, 2.04423, 
Number of clients: 4

+++++++++++++++++++++++++++++++++++++++++++++++++++++++++++
+ Client Mapping:
  > Client 46195 (8):	33 34 35 36 37 38 39 20 
  > Client 46199 (10):	0 1 2 3 4 5 6 15 7 8 
  > Client 46197 (8):	27 28 29 30 31 32 16 17 
  > Client 46200 (8):	21 22 23 24 25 26 18 19 

+ Core Mapping:	46199 46199 46199 46199 46199 46199 46199 46199 46199 0 0 0 0 0 0 46199 46197 46197 46200 46200 46195 46200 46200 46200 46200 46200 46200 46197 46197 46197 46197 46197 46197 46195 46195 46195 46195 46195 46195 46195 
+ Optimal point: 10 10 10 10 
+++++++++++++++++++++++++++++++++++++++++++++++++++++++++++
++++++++++++++++++++++++++++++++++++++++++++++++
 + TIMESTAMP: 27.2309
REINVADE (46195)
  + pid: 46195
  + min_cores: 1
  + max_cores: 512
  + scalability graph: 
1, 1.36329, 1.52423, 1.62017, 1.68565, 1.73398, 1.77154, 1.80182, 1.8269, 1.84812, 1.86637, 1.88229, 1.89634, 1.90885, 1.92009, 1.93026, 1.93952, 1.94799, 1.95579, 1.963, 1.96968, 1.9759, 1.98172, 1.98716, 1.99228, 1.9971, 2.00164, 2.00594, 2.01002, 2.01389, 2.01757, 2.02108, 2.02443, 2.02763, 2.03069, 2.03362, 2.03644, 2.03914, 2.04173, 2.04423, 
Number of clients: 4

+++++++++++++++++++++++++++++++++++++++++++++++++++++++++++
+ Client Mapping:
  > Client 46195 (10):	33 34 35 36 37 38 39 20 9 10 
  > Client 46199 (10):	0 1 2 3 4 5 6 15 7 8 
  > Client 46197 (8):	27 28 29 30 31 32 16 17 
  > Client 46200 (8):	21 22 23 24 25 26 18 19 

+ Core Mapping:	46199 46199 46199 46199 46199 46199 46199 46199 46199 46195 46195 0 0 0 0 46199 46197 46197 46200 46200 46195 46200 46200 46200 46200 46200 46200 46197 46197 46197 46197 46197 46197 46195 46195 46195 46195 46195 46195 46195 
+ Optimal point: 10 10 10 10 
+++++++++++++++++++++++++++++++++++++++++++++++++++++++++++
++++++++++++++++++++++++++++++++++++++++++++++++
 + TIMESTAMP: 27.2315
REINVADE (46200)
  + pid: 46200
  + min_cores: 1
  + max_cores: 512
  + scalability graph: 
1, 1.36329, 1.52423, 1.62017, 1.68565, 1.73398, 1.77154, 1.80182, 1.8269, 1.84812, 1.86637, 1.88229, 1.89634, 1.90885, 1.92009, 1.93026, 1.93952, 1.94799, 1.95579, 1.963, 1.96968, 1.9759, 1.98172, 1.98716, 1.99228, 1.9971, 2.00164, 2.00594, 2.01002, 2.01389, 2.01757, 2.02108, 2.02443, 2.02763, 2.03069, 2.03362, 2.03644, 2.03914, 2.04173, 2.04423, 
Number of clients: 4

+++++++++++++++++++++++++++++++++++++++++++++++++++++++++++
+ Client Mapping:
  > Client 46195 (10):	33 34 35 36 37 38 39 20 9 10 
  > Client 46199 (10):	0 1 2 3 4 5 6 15 7 8 
  > Client 46197 (8):	27 28 29 30 31 32 16 17 
  > Client 46200 (10):	21 22 23 24 25 26 18 19 11 12 

+ Core Mapping:	46199 46199 46199 46199 46199 46199 46199 46199 46199 46195 46195 46200 46200 0 0 46199 46197 46197 46200 46200 46195 46200 46200 46200 46200 46200 46200 46197 46197 46197 46197 46197 46197 46195 46195 46195 46195 46195 46195 46195 
+ Optimal point: 10 10 10 10 
+++++++++++++++++++++++++++++++++++++++++++++++++++++++++++
++++++++++++++++++++++++++++++++++++++++++++++++
 + TIMESTAMP: 27.2335
REINVADE (46197)
  + pid: 46197
  + min_cores: 1
  + max_cores: 512
  + scalability graph: 
1, 1.36329, 1.52423, 1.62017, 1.68565, 1.73398, 1.77154, 1.80182, 1.8269, 1.84812, 1.86637, 1.88229, 1.89634, 1.90885, 1.92009, 1.93026, 1.93952, 1.94799, 1.95579, 1.963, 1.96968, 1.9759, 1.98172, 1.98716, 1.99228, 1.9971, 2.00164, 2.00594, 2.01002, 2.01389, 2.01757, 2.02108, 2.02443, 2.02763, 2.03069, 2.03362, 2.03644, 2.03914, 2.04173, 2.04423, 
Number of clients: 4

+++++++++++++++++++++++++++++++++++++++++++++++++++++++++++
+ Client Mapping:
  > Client 46195 (10):	33 34 35 36 37 38 39 20 9 10 
  > Client 46199 (10):	0 1 2 3 4 5 6 15 7 8 
  > Client 46197 (10):	27 28 29 30 31 32 16 17 13 14 
  > Client 46200 (10):	21 22 23 24 25 26 18 19 11 12 

+ Core Mapping:	46199 46199 46199 46199 46199 46199 46199 46199 46199 46195 46195 46200 46200 46197 46197 46199 46197 46197 46200 46200 46195 46200 46200 46200 46200 46200 46200 46197 46197 46197 46197 46197 46197 46195 46195 46195 46195 46195 46195 46195 
+ Optimal point: 10 10 10 10 
+++++++++++++++++++++++++++++++++++++++++++++++++++++++++++
CLIENT SHUTDOWN: client 46199
 + TIMESTAMP: 27.3998
+++++++++++++++++++++++++++++++++++++++++++++++++++++++++++
+ Client Mapping:
  > Client 46195 (10):	33 34 35 36 37 38 39 20 9 10 
  > Client 46199 (0):	
  > Client 46197 (10):	27 28 29 30 31 32 16 17 13 14 
  > Client 46200 (10):	21 22 23 24 25 26 18 19 11 12 

+ Core Mapping:	0 0 0 0 0 0 0 0 0 46195 46195 46200 46200 46197 46197 0 46197 46197 46200 46200 46195 46200 46200 46200 46200 46200 46200 46197 46197 46197 46197 46197 46197 46195 46195 46195 46195 46195 46195 46195 
+ Optimal point: 10 10 10 10 
+++++++++++++++++++++++++++++++++++++++++++++++++++++++++++
client (46199) shutdown hint: 437.984
sum_client_shutdown_hint: 1313.95
sum_client_shutdown_hint_div_time: 0
++++++++++++++++++++++++++++++++++++++++++++++++
 + TIMESTAMP: 27.3999
REINVADE (46195)
  + pid: 46195
  + min_cores: 1
  + max_cores: 512
  + scalability graph: 
1, 1.36329, 1.52423, 1.62017, 1.68565, 1.73398, 1.77154, 1.80182, 1.8269, 1.84812, 1.86637, 1.88229, 1.89634, 1.90885, 1.92009, 1.93026, 1.93952, 1.94799, 1.95579, 1.963, 1.96968, 1.9759, 1.98172, 1.98716, 1.99228, 1.9971, 2.00164, 2.00594, 2.01002, 2.01389, 2.01757, 2.02108, 2.02443, 2.02763, 2.03069, 2.03362, 2.03644, 2.03914, 2.04173, 2.04423, 
Number of clients: 3

+++++++++++++++++++++++++++++++++++++++++++++++++++++++++++
+ Client Mapping:
  > Client 46195 (14):	33 34 35 36 37 38 39 20 9 10 0 1 2 3 
  > Client 46197 (10):	27 28 29 30 31 32 16 17 13 14 
  > Client 46200 (10):	21 22 23 24 25 26 18 19 11 12 

+ Core Mapping:	46195 46195 46195 46195 0 0 0 0 0 46195 46195 46200 46200 46197 46197 0 46197 46197 46200 46200 46195 46200 46200 46200 46200 46200 46200 46197 46197 46197 46197 46197 46197 46195 46195 46195 46195 46195 46195 46195 
+ Optimal point: 14 13 13 
+++++++++++++++++++++++++++++++++++++++++++++++++++++++++++
++++++++++++++++++++++++++++++++++++++++++++++++
 + TIMESTAMP: 27.4006
REINVADE (46200)
  + pid: 46200
  + min_cores: 1
  + max_cores: 512
  + scalability graph: 
1, 1.36329, 1.52423, 1.62017, 1.68565, 1.73398, 1.77154, 1.80182, 1.8269, 1.84812, 1.86637, 1.88229, 1.89634, 1.90885, 1.92009, 1.93026, 1.93952, 1.94799, 1.95579, 1.963, 1.96968, 1.9759, 1.98172, 1.98716, 1.99228, 1.9971, 2.00164, 2.00594, 2.01002, 2.01389, 2.01757, 2.02108, 2.02443, 2.02763, 2.03069, 2.03362, 2.03644, 2.03914, 2.04173, 2.04423, 
Number of clients: 3

+++++++++++++++++++++++++++++++++++++++++++++++++++++++++++
+ Client Mapping:
  > Client 46195 (14):	33 34 35 36 37 38 39 20 9 10 0 1 2 3 
  > Client 46197 (10):	27 28 29 30 31 32 16 17 13 14 
  > Client 46200 (13):	21 22 23 24 25 26 18 19 11 12 4 5 6 

+ Core Mapping:	46195 46195 46195 46195 46200 46200 46200 0 0 46195 46195 46200 46200 46197 46197 0 46197 46197 46200 46200 46195 46200 46200 46200 46200 46200 46200 46197 46197 46197 46197 46197 46197 46195 46195 46195 46195 46195 46195 46195 
+ Optimal point: 14 13 13 
+++++++++++++++++++++++++++++++++++++++++++++++++++++++++++
++++++++++++++++++++++++++++++++++++++++++++++++
 + TIMESTAMP: 27.4022
REINVADE (46197)
  + pid: 46197
  + min_cores: 1
  + max_cores: 512
  + scalability graph: 
1, 1.36329, 1.52423, 1.62017, 1.68565, 1.73398, 1.77154, 1.80182, 1.8269, 1.84812, 1.86637, 1.88229, 1.89634, 1.90885, 1.92009, 1.93026, 1.93952, 1.94799, 1.95579, 1.963, 1.96968, 1.9759, 1.98172, 1.98716, 1.99228, 1.9971, 2.00164, 2.00594, 2.01002, 2.01389, 2.01757, 2.02108, 2.02443, 2.02763, 2.03069, 2.03362, 2.03644, 2.03914, 2.04173, 2.04423, 
Number of clients: 3

+++++++++++++++++++++++++++++++++++++++++++++++++++++++++++
+ Client Mapping:
  > Client 46195 (14):	33 34 35 36 37 38 39 20 9 10 0 1 2 3 
  > Client 46197 (13):	27 28 29 30 31 32 16 17 13 14 7 8 15 
  > Client 46200 (13):	21 22 23 24 25 26 18 19 11 12 4 5 6 

+ Core Mapping:	46195 46195 46195 46195 46200 46200 46200 46197 46197 46195 46195 46200 46200 46197 46197 46197 46197 46197 46200 46200 46195 46200 46200 46200 46200 46200 46200 46197 46197 46197 46197 46197 46197 46195 46195 46195 46195 46195 46195 46195 
+ Optimal point: 14 13 13 
+++++++++++++++++++++++++++++++++++++++++++++++++++++++++++
CLIENT SHUTDOWN: client 46195
 + TIMESTAMP: 27.7836
+++++++++++++++++++++++++++++++++++++++++++++++++++++++++++
+ Client Mapping:
  > Client 46195 (0):	
  > Client 46197 (13):	27 28 29 30 31 32 16 17 13 14 7 8 15 
  > Client 46200 (13):	21 22 23 24 25 26 18 19 11 12 4 5 6 

+ Core Mapping:	0 0 0 0 46200 46200 46200 46197 46197 0 0 46200 46200 46197 46197 46197 46197 46197 46200 46200 0 46200 46200 46200 46200 46200 46200 46197 46197 46197 46197 46197 46197 0 0 0 0 0 0 0 
+ Optimal point: 14 13 13 
+++++++++++++++++++++++++++++++++++++++++++++++++++++++++++
client (46195) shutdown hint: 437.984
sum_client_shutdown_hint: 1751.94
sum_client_shutdown_hint_div_time: 0
++++++++++++++++++++++++++++++++++++++++++++++++
 + TIMESTAMP: 27.7838
REINVADE (46197)
  + pid: 46197
  + min_cores: 1
  + max_cores: 512
  + scalability graph: 
1, 1.36329, 1.52423, 1.62017, 1.68565, 1.73398, 1.77154, 1.80182, 1.8269, 1.84812, 1.86637, 1.88229, 1.89634, 1.90885, 1.92009, 1.93026, 1.93952, 1.94799, 1.95579, 1.963, 1.96968, 1.9759, 1.98172, 1.98716, 1.99228, 1.9971, 2.00164, 2.00594, 2.01002, 2.01389, 2.01757, 2.02108, 2.02443, 2.02763, 2.03069, 2.03362, 2.03644, 2.03914, 2.04173, 2.04423, 
Number of clients: 2

+++++++++++++++++++++++++++++++++++++++++++++++++++++++++++
+ Client Mapping:
  > Client 46197 (20):	27 28 29 30 31 32 16 17 13 14 7 8 15 0 1 2 3 9 10 20 
  > Client 46200 (13):	21 22 23 24 25 26 18 19 11 12 4 5 6 

+ Core Mapping:	46197 46197 46197 46197 46200 46200 46200 46197 46197 46197 46197 46200 46200 46197 46197 46197 46197 46197 46200 46200 46197 46200 46200 46200 46200 46200 46200 46197 46197 46197 46197 46197 46197 0 0 0 0 0 0 0 
+ Optimal point: 20 20 
+++++++++++++++++++++++++++++++++++++++++++++++++++++++++++
++++++++++++++++++++++++++++++++++++++++++++++++
 + TIMESTAMP: 27.7847
REINVADE (46200)
  + pid: 46200
  + min_cores: 1
  + max_cores: 512
  + scalability graph: 
1, 1.36329, 1.52423, 1.62017, 1.68565, 1.73398, 1.77154, 1.80182, 1.8269, 1.84812, 1.86637, 1.88229, 1.89634, 1.90885, 1.92009, 1.93026, 1.93952, 1.94799, 1.95579, 1.963, 1.96968, 1.9759, 1.98172, 1.98716, 1.99228, 1.9971, 2.00164, 2.00594, 2.01002, 2.01389, 2.01757, 2.02108, 2.02443, 2.02763, 2.03069, 2.03362, 2.03644, 2.03914, 2.04173, 2.04423, 
Number of clients: 2

+++++++++++++++++++++++++++++++++++++++++++++++++++++++++++
+ Client Mapping:
  > Client 46197 (20):	27 28 29 30 31 32 16 17 13 14 7 8 15 0 1 2 3 9 10 20 
  > Client 46200 (20):	21 22 23 24 25 26 18 19 11 12 4 5 6 33 34 35 36 37 38 39 

+ Core Mapping:	46197 46197 46197 46197 46200 46200 46200 46197 46197 46197 46197 46200 46200 46197 46197 46197 46197 46197 46200 46200 46197 46200 46200 46200 46200 46200 46200 46197 46197 46197 46197 46197 46197 46200 46200 46200 46200 46200 46200 46200 
+ Optimal point: 20 20 
+++++++++++++++++++++++++++++++++++++++++++++++++++++++++++
CLIENT SHUTDOWN: client 46200
 + TIMESTAMP: 30.3131
+++++++++++++++++++++++++++++++++++++++++++++++++++++++++++
+ Client Mapping:
  > Client 46197 (20):	27 28 29 30 31 32 16 17 13 14 7 8 15 0 1 2 3 9 10 20 
  > Client 46200 (0):	

+ Core Mapping:	46197 46197 46197 46197 0 0 0 46197 46197 46197 46197 0 0 46197 46197 46197 46197 46197 0 0 46197 0 0 0 0 0 0 46197 46197 46197 46197 46197 46197 0 0 0 0 0 0 0 
+ Optimal point: 20 20 
+++++++++++++++++++++++++++++++++++++++++++++++++++++++++++
client (46200) shutdown hint: 437.984
sum_client_shutdown_hint: 2189.92
sum_client_shutdown_hint_div_time: 0
++++++++++++++++++++++++++++++++++++++++++++++++
 + TIMESTAMP: 30.314
REINVADE (46197)
  + pid: 46197
  + min_cores: 1
  + max_cores: 512
  + scalability graph: 
1, 1.36329, 1.52423, 1.62017, 1.68565, 1.73398, 1.77154, 1.80182, 1.8269, 1.84812, 1.86637, 1.88229, 1.89634, 1.90885, 1.92009, 1.93026, 1.93952, 1.94799, 1.95579, 1.963, 1.96968, 1.9759, 1.98172, 1.98716, 1.99228, 1.9971, 2.00164, 2.00594, 2.01002, 2.01389, 2.01757, 2.02108, 2.02443, 2.02763, 2.03069, 2.03362, 2.03644, 2.03914, 2.04173, 2.04423, 
Number of clients: 1

+++++++++++++++++++++++++++++++++++++++++++++++++++++++++++
+ Client Mapping:
  > Client 46197 (40):	27 28 29 30 31 32 16 17 13 14 7 8 15 0 1 2 3 9 10 20 4 5 6 11 12 18 19 21 22 23 24 25 26 33 34 35 36 37 38 39 

+ Core Mapping:	46197 46197 46197 46197 46197 46197 46197 46197 46197 46197 46197 46197 46197 46197 46197 46197 46197 46197 46197 46197 46197 46197 46197 46197 46197 46197 46197 46197 46197 46197 46197 46197 46197 46197 46197 46197 46197 46197 46197 46197 
+ Optimal point: 40 
+++++++++++++++++++++++++++++++++++++++++++++++++++++++++++
CLIENT SHUTDOWN: client 46197
 + TIMESTAMP: 30.673
+++++++++++++++++++++++++++++++++++++++++++++++++++++++++++
+ Client Mapping:
  > Client 46197 (0):	

+ Core Mapping:	0 0 0 0 0 0 0 0 0 0 0 0 0 0 0 0 0 0 0 0 0 0 0 0 0 0 0 0 0 0 0 0 0 0 0 0 0 0 0 0 
+ Optimal point: 40 
+++++++++++++++++++++++++++++++++++++++++++++++++++++++++++
client (46197) shutdown hint: 437.984
sum_client_shutdown_hint: 2627.9
sum_client_shutdown_hint_div_time: 0
END TIMESTAMP: 30.673
OVERALL TIME: 30.4324
 + sum_client_shutdown_hint: 2627.9
 + sum_client_shutdown_hint/time: 86.3522
sum_client_shutdown_hint: 2627.9
sum_client_shutdown_hint_div_time: 86.3522
