STARTING WORLD SCHEDULER SERVER
CLIENT SETUP: adding client 44978
 + TIMESTAMP: 0.152053
START TIMESTAMP: 0.152076
+++++++++++++++++++++++++++++++++++++++++++++++++++++++++++
+ Client Mapping:
  > Client 44978 (0):	

+ Core Mapping:	0 0 0 0 0 0 0 0 0 0 0 0 0 0 0 0 0 0 0 0 0 0 0 0 0 0 0 0 0 0 0 0 0 0 0 0 0 0 0 0 
+ Optimal point: 
+++++++++++++++++++++++++++++++++++++++++++++++++++++++++++
INVADE: client 44978
 + TIMESTAMP: 0.152141
RESSOURCE DISTRIBUTION CHANGED
++++++++++++++++++++++++++++++++++++++++++++++++
INVADE (44978)
  + pid: 44978
  + min_cores: 1
  + max_cores: 512
  + scalability graph: 
1, 1.36329, 1.52423, 1.62017, 1.68565, 1.73398, 1.77154, 1.80182, 1.8269, 1.84812, 1.86637, 1.88229, 1.89634, 1.90885, 1.92009, 1.93026, 1.93952, 1.94799, 1.95579, 1.963, 1.96968, 1.9759, 1.98172, 1.98716, 1.99228, 1.9971, 2.00164, 2.00594, 2.01002, 2.01389, 2.01757, 2.02108, 2.02443, 2.02763, 2.03069, 2.03362, 2.03644, 2.03914, 2.04173, 2.04423, 
Number of clients: 1

+++++++++++++++++++++++++++++++++++++++++++++++++++++++++++
+ Client Mapping:
  > Client 44978 (40):	0 1 2 3 4 5 6 7 8 9 10 11 12 13 14 15 16 17 18 19 20 21 22 23 24 25 26 27 28 29 30 31 32 33 34 35 36 37 38 39 

+ Core Mapping:	44978 44978 44978 44978 44978 44978 44978 44978 44978 44978 44978 44978 44978 44978 44978 44978 44978 44978 44978 44978 44978 44978 44978 44978 44978 44978 44978 44978 44978 44978 44978 44978 44978 44978 44978 44978 44978 44978 44978 44978 
+ Optimal point: 40 
+++++++++++++++++++++++++++++++++++++++++++++++++++++++++++
CLIENT SETUP: adding client 44977
 + TIMESTAMP: 0.156227
+++++++++++++++++++++++++++++++++++++++++++++++++++++++++++
+ Client Mapping:
  > Client 44978 (40):	0 1 2 3 4 5 6 7 8 9 10 11 12 13 14 15 16 17 18 19 20 21 22 23 24 25 26 27 28 29 30 31 32 33 34 35 36 37 38 39 
  > Client 44977 (0):	

+ Core Mapping:	44978 44978 44978 44978 44978 44978 44978 44978 44978 44978 44978 44978 44978 44978 44978 44978 44978 44978 44978 44978 44978 44978 44978 44978 44978 44978 44978 44978 44978 44978 44978 44978 44978 44978 44978 44978 44978 44978 44978 44978 
+ Optimal point: 40 
+++++++++++++++++++++++++++++++++++++++++++++++++++++++++++
INVADE: client 44977
 + TIMESTAMP: 0.156313
++++++++++++++++++++++++++++++++++++++++++++++++
 + TIMESTAMP: 0.240099
REINVADE (44978)
  + pid: 44978
  + min_cores: 1
  + max_cores: 512
  + scalability graph: 
1, 1.36329, 1.52423, 1.62017, 1.68565, 1.73398, 1.77154, 1.80182, 1.8269, 1.84812, 1.86637, 1.88229, 1.89634, 1.90885, 1.92009, 1.93026, 1.93952, 1.94799, 1.95579, 1.963, 1.96968, 1.9759, 1.98172, 1.98716, 1.99228, 1.9971, 2.00164, 2.00594, 2.01002, 2.01389, 2.01757, 2.02108, 2.02443, 2.02763, 2.03069, 2.03362, 2.03644, 2.03914, 2.04173, 2.04423, 
Number of clients: 2

+++++++++++++++++++++++++++++++++++++++++++++++++++++++++++
+ Client Mapping:
  > Client 44978 (20):	20 21 22 23 24 25 26 27 28 29 30 31 32 33 34 35 36 37 38 39 
  > Client 44977 (0):	

+ Core Mapping:	0 0 0 0 0 0 0 0 0 0 0 0 0 0 0 0 0 0 0 0 44978 44978 44978 44978 44978 44978 44978 44978 44978 44978 44978 44978 44978 44978 44978 44978 44978 44978 44978 44978 
+ Optimal point: 20 20 
+++++++++++++++++++++++++++++++++++++++++++++++++++++++++++
++++++++++++++++++++++++++++++++++++++++++++++++
 + TIMESTAMP: 0.253219
REINVADE (44977)
  + pid: 44977
  + min_cores: 1
  + max_cores: 512
  + scalability graph: 
1, 1.36329, 1.52423, 1.62017, 1.68565, 1.73398, 1.77154, 1.80182, 1.8269, 1.84812, 1.86637, 1.88229, 1.89634, 1.90885, 1.92009, 1.93026, 1.93952, 1.94799, 1.95579, 1.963, 1.96968, 1.9759, 1.98172, 1.98716, 1.99228, 1.9971, 2.00164, 2.00594, 2.01002, 2.01389, 2.01757, 2.02108, 2.02443, 2.02763, 2.03069, 2.03362, 2.03644, 2.03914, 2.04173, 2.04423, 
Number of clients: 2

+++++++++++++++++++++++++++++++++++++++++++++++++++++++++++
+ Client Mapping:
  > Client 44978 (20):	20 21 22 23 24 25 26 27 28 29 30 31 32 33 34 35 36 37 38 39 
  > Client 44977 (20):	0 1 2 3 4 5 6 7 8 9 10 11 12 13 14 15 16 17 18 19 

+ Core Mapping:	44977 44977 44977 44977 44977 44977 44977 44977 44977 44977 44977 44977 44977 44977 44977 44977 44977 44977 44977 44977 44978 44978 44978 44978 44978 44978 44978 44978 44978 44978 44978 44978 44978 44978 44978 44978 44978 44978 44978 44978 
+ Optimal point: 20 20 
+++++++++++++++++++++++++++++++++++++++++++++++++++++++++++
CLIENT SHUTDOWN: client 44978
 + TIMESTAMP: 24.9226
+++++++++++++++++++++++++++++++++++++++++++++++++++++++++++
+ Client Mapping:
  > Client 44978 (0):	
  > Client 44977 (20):	0 1 2 3 4 5 6 7 8 9 10 11 12 13 14 15 16 17 18 19 

+ Core Mapping:	44977 44977 44977 44977 44977 44977 44977 44977 44977 44977 44977 44977 44977 44977 44977 44977 44977 44977 44977 44977 0 0 0 0 0 0 0 0 0 0 0 0 0 0 0 0 0 0 0 0 
+ Optimal point: 20 20 
+++++++++++++++++++++++++++++++++++++++++++++++++++++++++++
client (44978) shutdown hint: 437.984
sum_client_shutdown_hint: 437.984
sum_client_shutdown_hint_div_time: 0
++++++++++++++++++++++++++++++++++++++++++++++++
 + TIMESTAMP: 24.9232
REINVADE (44977)
  + pid: 44977
  + min_cores: 1
  + max_cores: 512
  + scalability graph: 
1, 1.36329, 1.52423, 1.62017, 1.68565, 1.73398, 1.77154, 1.80182, 1.8269, 1.84812, 1.86637, 1.88229, 1.89634, 1.90885, 1.92009, 1.93026, 1.93952, 1.94799, 1.95579, 1.963, 1.96968, 1.9759, 1.98172, 1.98716, 1.99228, 1.9971, 2.00164, 2.00594, 2.01002, 2.01389, 2.01757, 2.02108, 2.02443, 2.02763, 2.03069, 2.03362, 2.03644, 2.03914, 2.04173, 2.04423, 
Number of clients: 1

+++++++++++++++++++++++++++++++++++++++++++++++++++++++++++
+ Client Mapping:
  > Client 44977 (40):	0 1 2 3 4 5 6 7 8 9 10 11 12 13 14 15 16 17 18 19 20 21 22 23 24 25 26 27 28 29 30 31 32 33 34 35 36 37 38 39 

+ Core Mapping:	44977 44977 44977 44977 44977 44977 44977 44977 44977 44977 44977 44977 44977 44977 44977 44977 44977 44977 44977 44977 44977 44977 44977 44977 44977 44977 44977 44977 44977 44977 44977 44977 44977 44977 44977 44977 44977 44977 44977 44977 
+ Optimal point: 40 
+++++++++++++++++++++++++++++++++++++++++++++++++++++++++++
CLIENT SHUTDOWN: client 44977
 + TIMESTAMP: 25.061
+++++++++++++++++++++++++++++++++++++++++++++++++++++++++++
+ Client Mapping:
  > Client 44977 (0):	

+ Core Mapping:	0 0 0 0 0 0 0 0 0 0 0 0 0 0 0 0 0 0 0 0 0 0 0 0 0 0 0 0 0 0 0 0 0 0 0 0 0 0 0 0 
+ Optimal point: 40 
+++++++++++++++++++++++++++++++++++++++++++++++++++++++++++
client (44977) shutdown hint: 437.984
sum_client_shutdown_hint: 875.968
sum_client_shutdown_hint_div_time: 0
END TIMESTAMP: 25.0611
OVERALL TIME: 24.909
 + sum_client_shutdown_hint: 875.968
 + sum_client_shutdown_hint/time: 35.1667
sum_client_shutdown_hint: 875.968
sum_client_shutdown_hint_div_time: 35.1667
