STARTING WORLD SCHEDULER SERVER
CLIENT SETUP: adding client 47294
 + TIMESTAMP: 0.211129
START TIMESTAMP: 0.211163
+++++++++++++++++++++++++++++++++++++++++++++++++++++++++++
+ Client Mapping:
  > Client 47294 (0):	

+ Core Mapping:	0 0 0 0 0 0 0 0 0 0 0 0 0 0 0 0 0 0 0 0 0 0 0 0 0 0 0 0 0 0 0 0 0 0 0 0 0 0 0 0 
+ Optimal point: 
+++++++++++++++++++++++++++++++++++++++++++++++++++++++++++
INVADE: client 47294
 + TIMESTAMP: 0.215024
RESSOURCE DISTRIBUTION CHANGED
++++++++++++++++++++++++++++++++++++++++++++++++
INVADE (47294)
  + pid: 47294
  + min_cores: 1
  + max_cores: 512
  + scalability graph: 
1, 1.36329, 1.52423, 1.62017, 1.68565, 1.73398, 1.77154, 1.80182, 1.8269, 1.84812, 1.86637, 1.88229, 1.89634, 1.90885, 1.92009, 1.93026, 1.93952, 1.94799, 1.95579, 1.963, 1.96968, 1.9759, 1.98172, 1.98716, 1.99228, 1.9971, 2.00164, 2.00594, 2.01002, 2.01389, 2.01757, 2.02108, 2.02443, 2.02763, 2.03069, 2.03362, 2.03644, 2.03914, 2.04173, 2.04423, 
Number of clients: 1

+++++++++++++++++++++++++++++++++++++++++++++++++++++++++++
+ Client Mapping:
  > Client 47294 (40):	0 1 2 3 4 5 6 7 8 9 10 11 12 13 14 15 16 17 18 19 20 21 22 23 24 25 26 27 28 29 30 31 32 33 34 35 36 37 38 39 

+ Core Mapping:	47294 47294 47294 47294 47294 47294 47294 47294 47294 47294 47294 47294 47294 47294 47294 47294 47294 47294 47294 47294 47294 47294 47294 47294 47294 47294 47294 47294 47294 47294 47294 47294 47294 47294 47294 47294 47294 47294 47294 47294 
+ Optimal point: 40 
+++++++++++++++++++++++++++++++++++++++++++++++++++++++++++
CLIENT SETUP: adding client 47293
 + TIMESTAMP: 0.295105
+++++++++++++++++++++++++++++++++++++++++++++++++++++++++++
+ Client Mapping:
  > Client 47294 (40):	0 1 2 3 4 5 6 7 8 9 10 11 12 13 14 15 16 17 18 19 20 21 22 23 24 25 26 27 28 29 30 31 32 33 34 35 36 37 38 39 
  > Client 47293 (0):	

+ Core Mapping:	47294 47294 47294 47294 47294 47294 47294 47294 47294 47294 47294 47294 47294 47294 47294 47294 47294 47294 47294 47294 47294 47294 47294 47294 47294 47294 47294 47294 47294 47294 47294 47294 47294 47294 47294 47294 47294 47294 47294 47294 
+ Optimal point: 40 
+++++++++++++++++++++++++++++++++++++++++++++++++++++++++++
CLIENT SETUP: adding client 47290
 + TIMESTAMP: 0.295391
+++++++++++++++++++++++++++++++++++++++++++++++++++++++++++
+ Client Mapping:
  > Client 47294 (40):	0 1 2 3 4 5 6 7 8 9 10 11 12 13 14 15 16 17 18 19 20 21 22 23 24 25 26 27 28 29 30 31 32 33 34 35 36 37 38 39 
  > Client 47293 (0):	
  > Client 47290 (0):	

+ Core Mapping:	47294 47294 47294 47294 47294 47294 47294 47294 47294 47294 47294 47294 47294 47294 47294 47294 47294 47294 47294 47294 47294 47294 47294 47294 47294 47294 47294 47294 47294 47294 47294 47294 47294 47294 47294 47294 47294 47294 47294 47294 
+ Optimal point: 40 
+++++++++++++++++++++++++++++++++++++++++++++++++++++++++++
INVADE: client 47290
 + TIMESTAMP: 0.295472
INVADE: client 47293
 + TIMESTAMP: 0.296792
CLIENT SETUP: adding client 47291
 + TIMESTAMP: 0.296913
+++++++++++++++++++++++++++++++++++++++++++++++++++++++++++
+ Client Mapping:
  > Client 47294 (40):	0 1 2 3 4 5 6 7 8 9 10 11 12 13 14 15 16 17 18 19 20 21 22 23 24 25 26 27 28 29 30 31 32 33 34 35 36 37 38 39 
  > Client 47293 (0):	
  > Client 47290 (0):	
  > Client 47291 (0):	

+ Core Mapping:	47294 47294 47294 47294 47294 47294 47294 47294 47294 47294 47294 47294 47294 47294 47294 47294 47294 47294 47294 47294 47294 47294 47294 47294 47294 47294 47294 47294 47294 47294 47294 47294 47294 47294 47294 47294 47294 47294 47294 47294 
+ Optimal point: 14 13 13 
+++++++++++++++++++++++++++++++++++++++++++++++++++++++++++
INVADE: client 47291
 + TIMESTAMP: 0.297001
CLIENT SETUP: adding client 47292
 + TIMESTAMP: 0.297435
+++++++++++++++++++++++++++++++++++++++++++++++++++++++++++
+ Client Mapping:
  > Client 47294 (40):	0 1 2 3 4 5 6 7 8 9 10 11 12 13 14 15 16 17 18 19 20 21 22 23 24 25 26 27 28 29 30 31 32 33 34 35 36 37 38 39 
  > Client 47293 (0):	
  > Client 47290 (0):	
  > Client 47291 (0):	
  > Client 47292 (0):	

+ Core Mapping:	47294 47294 47294 47294 47294 47294 47294 47294 47294 47294 47294 47294 47294 47294 47294 47294 47294 47294 47294 47294 47294 47294 47294 47294 47294 47294 47294 47294 47294 47294 47294 47294 47294 47294 47294 47294 47294 47294 47294 47294 
+ Optimal point: 10 10 10 10 
+++++++++++++++++++++++++++++++++++++++++++++++++++++++++++
INVADE: client 47292
 + TIMESTAMP: 0.297595
CLIENT SETUP: adding client 47297
 + TIMESTAMP: 0.302405
+++++++++++++++++++++++++++++++++++++++++++++++++++++++++++
+ Client Mapping:
  > Client 47294 (40):	0 1 2 3 4 5 6 7 8 9 10 11 12 13 14 15 16 17 18 19 20 21 22 23 24 25 26 27 28 29 30 31 32 33 34 35 36 37 38 39 
  > Client 47293 (0):	
  > Client 47290 (0):	
  > Client 47291 (0):	
  > Client 47292 (0):	
  > Client 47297 (0):	

+ Core Mapping:	47294 47294 47294 47294 47294 47294 47294 47294 47294 47294 47294 47294 47294 47294 47294 47294 47294 47294 47294 47294 47294 47294 47294 47294 47294 47294 47294 47294 47294 47294 47294 47294 47294 47294 47294 47294 47294 47294 47294 47294 
+ Optimal point: 8 8 8 8 8 
+++++++++++++++++++++++++++++++++++++++++++++++++++++++++++
INVADE: client 47297
 + TIMESTAMP: 0.303021
CLIENT SETUP: adding client 47295
 + TIMESTAMP: 0.311583
+++++++++++++++++++++++++++++++++++++++++++++++++++++++++++
+ Client Mapping:
  > Client 47294 (40):	0 1 2 3 4 5 6 7 8 9 10 11 12 13 14 15 16 17 18 19 20 21 22 23 24 25 26 27 28 29 30 31 32 33 34 35 36 37 38 39 
  > Client 47293 (0):	
  > Client 47290 (0):	
  > Client 47291 (0):	
  > Client 47292 (0):	
  > Client 47297 (0):	
  > Client 47295 (0):	

+ Core Mapping:	47294 47294 47294 47294 47294 47294 47294 47294 47294 47294 47294 47294 47294 47294 47294 47294 47294 47294 47294 47294 47294 47294 47294 47294 47294 47294 47294 47294 47294 47294 47294 47294 47294 47294 47294 47294 47294 47294 47294 47294 
+ Optimal point: 7 7 7 7 6 6 
+++++++++++++++++++++++++++++++++++++++++++++++++++++++++++
INVADE: client 47295
 + TIMESTAMP: 0.311714
CLIENT SETUP: adding client 47296
 + TIMESTAMP: 0.318733
+++++++++++++++++++++++++++++++++++++++++++++++++++++++++++
+ Client Mapping:
  > Client 47294 (40):	0 1 2 3 4 5 6 7 8 9 10 11 12 13 14 15 16 17 18 19 20 21 22 23 24 25 26 27 28 29 30 31 32 33 34 35 36 37 38 39 
  > Client 47293 (0):	
  > Client 47290 (0):	
  > Client 47291 (0):	
  > Client 47292 (0):	
  > Client 47297 (0):	
  > Client 47295 (0):	
  > Client 47296 (0):	

+ Core Mapping:	47294 47294 47294 47294 47294 47294 47294 47294 47294 47294 47294 47294 47294 47294 47294 47294 47294 47294 47294 47294 47294 47294 47294 47294 47294 47294 47294 47294 47294 47294 47294 47294 47294 47294 47294 47294 47294 47294 47294 47294 
+ Optimal point: 6 6 6 6 6 5 5 
+++++++++++++++++++++++++++++++++++++++++++++++++++++++++++
INVADE: client 47296
 + TIMESTAMP: 0.318837
++++++++++++++++++++++++++++++++++++++++++++++++
 + TIMESTAMP: 0.335029
REINVADE (47294)
  + pid: 47294
  + min_cores: 1
  + max_cores: 512
  + scalability graph: 
1, 1.36329, 1.52423, 1.62017, 1.68565, 1.73398, 1.77154, 1.80182, 1.8269, 1.84812, 1.86637, 1.88229, 1.89634, 1.90885, 1.92009, 1.93026, 1.93952, 1.94799, 1.95579, 1.963, 1.96968, 1.9759, 1.98172, 1.98716, 1.99228, 1.9971, 2.00164, 2.00594, 2.01002, 2.01389, 2.01757, 2.02108, 2.02443, 2.02763, 2.03069, 2.03362, 2.03644, 2.03914, 2.04173, 2.04423, 
Number of clients: 8

+++++++++++++++++++++++++++++++++++++++++++++++++++++++++++
+ Client Mapping:
  > Client 47294 (5):	35 36 37 38 39 
  > Client 47293 (0):	
  > Client 47290 (0):	
  > Client 47291 (0):	
  > Client 47292 (0):	
  > Client 47297 (0):	
  > Client 47295 (0):	
  > Client 47296 (0):	

+ Core Mapping:	0 0 0 0 0 0 0 0 0 0 0 0 0 0 0 0 0 0 0 0 0 0 0 0 0 0 0 0 0 0 0 0 0 0 0 47294 47294 47294 47294 47294 
+ Optimal point: 5 5 5 5 5 5 5 5 
+++++++++++++++++++++++++++++++++++++++++++++++++++++++++++
++++++++++++++++++++++++++++++++++++++++++++++++
 + TIMESTAMP: 0.363059
REINVADE (47295)
  + pid: 47295
  + min_cores: 1
  + max_cores: 512
  + scalability graph: 
1, 1.36329, 1.52423, 1.62017, 1.68565, 1.73398, 1.77154, 1.80182, 1.8269, 1.84812, 1.86637, 1.88229, 1.89634, 1.90885, 1.92009, 1.93026, 1.93952, 1.94799, 1.95579, 1.963, 1.96968, 1.9759, 1.98172, 1.98716, 1.99228, 1.9971, 2.00164, 2.00594, 2.01002, 2.01389, 2.01757, 2.02108, 2.02443, 2.02763, 2.03069, 2.03362, 2.03644, 2.03914, 2.04173, 2.04423, 
Number of clients: 8

+++++++++++++++++++++++++++++++++++++++++++++++++++++++++++
+ Client Mapping:
  > Client 47294 (5):	35 36 37 38 39 
  > Client 47293 (0):	
  > Client 47290 (0):	
  > Client 47291 (0):	
  > Client 47292 (0):	
  > Client 47297 (0):	
  > Client 47295 (5):	0 1 2 3 4 
  > Client 47296 (0):	

+ Core Mapping:	47295 47295 47295 47295 47295 0 0 0 0 0 0 0 0 0 0 0 0 0 0 0 0 0 0 0 0 0 0 0 0 0 0 0 0 0 0 47294 47294 47294 47294 47294 
+ Optimal point: 5 5 5 5 5 5 5 5 
+++++++++++++++++++++++++++++++++++++++++++++++++++++++++++
++++++++++++++++++++++++++++++++++++++++++++++++
 + TIMESTAMP: 0.421632
REINVADE (47291)
  + pid: 47291
  + min_cores: 1
  + max_cores: 512
  + scalability graph: 
1, 1.36329, 1.52423, 1.62017, 1.68565, 1.73398, 1.77154, 1.80182, 1.8269, 1.84812, 1.86637, 1.88229, 1.89634, 1.90885, 1.92009, 1.93026, 1.93952, 1.94799, 1.95579, 1.963, 1.96968, 1.9759, 1.98172, 1.98716, 1.99228, 1.9971, 2.00164, 2.00594, 2.01002, 2.01389, 2.01757, 2.02108, 2.02443, 2.02763, 2.03069, 2.03362, 2.03644, 2.03914, 2.04173, 2.04423, 
Number of clients: 8

+++++++++++++++++++++++++++++++++++++++++++++++++++++++++++
+ Client Mapping:
  > Client 47294 (5):	35 36 37 38 39 
  > Client 47293 (0):	
  > Client 47290 (0):	
  > Client 47291 (5):	5 6 7 8 9 
  > Client 47292 (0):	
  > Client 47297 (0):	
  > Client 47295 (5):	0 1 2 3 4 
  > Client 47296 (0):	

+ Core Mapping:	47295 47295 47295 47295 47295 47291 47291 47291 47291 47291 0 0 0 0 0 0 0 0 0 0 0 0 0 0 0 0 0 0 0 0 0 0 0 0 0 47294 47294 47294 47294 47294 
+ Optimal point: 5 5 5 5 5 5 5 5 
+++++++++++++++++++++++++++++++++++++++++++++++++++++++++++
++++++++++++++++++++++++++++++++++++++++++++++++
 + TIMESTAMP: 0.462776
REINVADE (47292)
  + pid: 47292
  + min_cores: 1
  + max_cores: 512
  + scalability graph: 
1, 1.36329, 1.52423, 1.62017, 1.68565, 1.73398, 1.77154, 1.80182, 1.8269, 1.84812, 1.86637, 1.88229, 1.89634, 1.90885, 1.92009, 1.93026, 1.93952, 1.94799, 1.95579, 1.963, 1.96968, 1.9759, 1.98172, 1.98716, 1.99228, 1.9971, 2.00164, 2.00594, 2.01002, 2.01389, 2.01757, 2.02108, 2.02443, 2.02763, 2.03069, 2.03362, 2.03644, 2.03914, 2.04173, 2.04423, 
Number of clients: 8

+++++++++++++++++++++++++++++++++++++++++++++++++++++++++++
+ Client Mapping:
  > Client 47294 (5):	35 36 37 38 39 
  > Client 47293 (0):	
  > Client 47290 (0):	
  > Client 47291 (5):	5 6 7 8 9 
  > Client 47292 (5):	10 11 12 13 14 
  > Client 47297 (0):	
  > Client 47295 (5):	0 1 2 3 4 
  > Client 47296 (0):	

+ Core Mapping:	47295 47295 47295 47295 47295 47291 47291 47291 47291 47291 47292 47292 47292 47292 47292 0 0 0 0 0 0 0 0 0 0 0 0 0 0 0 0 0 0 0 0 47294 47294 47294 47294 47294 
+ Optimal point: 5 5 5 5 5 5 5 5 
+++++++++++++++++++++++++++++++++++++++++++++++++++++++++++
++++++++++++++++++++++++++++++++++++++++++++++++
 + TIMESTAMP: 0.477724
REINVADE (47296)
  + pid: 47296
  + min_cores: 1
  + max_cores: 512
  + scalability graph: 
1, 1.36329, 1.52423, 1.62017, 1.68565, 1.73398, 1.77154, 1.80182, 1.8269, 1.84812, 1.86637, 1.88229, 1.89634, 1.90885, 1.92009, 1.93026, 1.93952, 1.94799, 1.95579, 1.963, 1.96968, 1.9759, 1.98172, 1.98716, 1.99228, 1.9971, 2.00164, 2.00594, 2.01002, 2.01389, 2.01757, 2.02108, 2.02443, 2.02763, 2.03069, 2.03362, 2.03644, 2.03914, 2.04173, 2.04423, 
Number of clients: 8

+++++++++++++++++++++++++++++++++++++++++++++++++++++++++++
+ Client Mapping:
  > Client 47294 (5):	35 36 37 38 39 
  > Client 47293 (0):	
  > Client 47290 (0):	
  > Client 47291 (5):	5 6 7 8 9 
  > Client 47292 (5):	10 11 12 13 14 
  > Client 47297 (0):	
  > Client 47295 (5):	0 1 2 3 4 
  > Client 47296 (5):	15 16 17 18 19 

+ Core Mapping:	47295 47295 47295 47295 47295 47291 47291 47291 47291 47291 47292 47292 47292 47292 47292 47296 47296 47296 47296 47296 0 0 0 0 0 0 0 0 0 0 0 0 0 0 0 47294 47294 47294 47294 47294 
+ Optimal point: 5 5 5 5 5 5 5 5 
+++++++++++++++++++++++++++++++++++++++++++++++++++++++++++
++++++++++++++++++++++++++++++++++++++++++++++++
 + TIMESTAMP: 0.492465
REINVADE (47297)
  + pid: 47297
  + min_cores: 1
  + max_cores: 512
  + scalability graph: 
1, 1.36329, 1.52423, 1.62017, 1.68565, 1.73398, 1.77154, 1.80182, 1.8269, 1.84812, 1.86637, 1.88229, 1.89634, 1.90885, 1.92009, 1.93026, 1.93952, 1.94799, 1.95579, 1.963, 1.96968, 1.9759, 1.98172, 1.98716, 1.99228, 1.9971, 2.00164, 2.00594, 2.01002, 2.01389, 2.01757, 2.02108, 2.02443, 2.02763, 2.03069, 2.03362, 2.03644, 2.03914, 2.04173, 2.04423, 
Number of clients: 8

+++++++++++++++++++++++++++++++++++++++++++++++++++++++++++
+ Client Mapping:
  > Client 47294 (5):	35 36 37 38 39 
  > Client 47293 (0):	
  > Client 47290 (0):	
  > Client 47291 (5):	5 6 7 8 9 
  > Client 47292 (5):	10 11 12 13 14 
  > Client 47297 (5):	20 21 22 23 24 
  > Client 47295 (5):	0 1 2 3 4 
  > Client 47296 (5):	15 16 17 18 19 

+ Core Mapping:	47295 47295 47295 47295 47295 47291 47291 47291 47291 47291 47292 47292 47292 47292 47292 47296 47296 47296 47296 47296 47297 47297 47297 47297 47297 0 0 0 0 0 0 0 0 0 0 47294 47294 47294 47294 47294 
+ Optimal point: 5 5 5 5 5 5 5 5 
+++++++++++++++++++++++++++++++++++++++++++++++++++++++++++
++++++++++++++++++++++++++++++++++++++++++++++++
 + TIMESTAMP: 0.522378
REINVADE (47293)
  + pid: 47293
  + min_cores: 1
  + max_cores: 512
  + scalability graph: 
1, 1.36329, 1.52423, 1.62017, 1.68565, 1.73398, 1.77154, 1.80182, 1.8269, 1.84812, 1.86637, 1.88229, 1.89634, 1.90885, 1.92009, 1.93026, 1.93952, 1.94799, 1.95579, 1.963, 1.96968, 1.9759, 1.98172, 1.98716, 1.99228, 1.9971, 2.00164, 2.00594, 2.01002, 2.01389, 2.01757, 2.02108, 2.02443, 2.02763, 2.03069, 2.03362, 2.03644, 2.03914, 2.04173, 2.04423, 
Number of clients: 8

+++++++++++++++++++++++++++++++++++++++++++++++++++++++++++
+ Client Mapping:
  > Client 47294 (5):	35 36 37 38 39 
  > Client 47293 (5):	25 26 27 28 29 
  > Client 47290 (0):	
  > Client 47291 (5):	5 6 7 8 9 
  > Client 47292 (5):	10 11 12 13 14 
  > Client 47297 (5):	20 21 22 23 24 
  > Client 47295 (5):	0 1 2 3 4 
  > Client 47296 (5):	15 16 17 18 19 

+ Core Mapping:	47295 47295 47295 47295 47295 47291 47291 47291 47291 47291 47292 47292 47292 47292 47292 47296 47296 47296 47296 47296 47297 47297 47297 47297 47297 47293 47293 47293 47293 47293 0 0 0 0 0 47294 47294 47294 47294 47294 
+ Optimal point: 5 5 5 5 5 5 5 5 
+++++++++++++++++++++++++++++++++++++++++++++++++++++++++++
++++++++++++++++++++++++++++++++++++++++++++++++
 + TIMESTAMP: 0.547201
REINVADE (47290)
  + pid: 47290
  + min_cores: 1
  + max_cores: 512
  + scalability graph: 
1, 1.36329, 1.52423, 1.62017, 1.68565, 1.73398, 1.77154, 1.80182, 1.8269, 1.84812, 1.86637, 1.88229, 1.89634, 1.90885, 1.92009, 1.93026, 1.93952, 1.94799, 1.95579, 1.963, 1.96968, 1.9759, 1.98172, 1.98716, 1.99228, 1.9971, 2.00164, 2.00594, 2.01002, 2.01389, 2.01757, 2.02108, 2.02443, 2.02763, 2.03069, 2.03362, 2.03644, 2.03914, 2.04173, 2.04423, 
Number of clients: 8

+++++++++++++++++++++++++++++++++++++++++++++++++++++++++++
+ Client Mapping:
  > Client 47294 (5):	35 36 37 38 39 
  > Client 47293 (5):	25 26 27 28 29 
  > Client 47290 (5):	30 31 32 33 34 
  > Client 47291 (5):	5 6 7 8 9 
  > Client 47292 (5):	10 11 12 13 14 
  > Client 47297 (5):	20 21 22 23 24 
  > Client 47295 (5):	0 1 2 3 4 
  > Client 47296 (5):	15 16 17 18 19 

+ Core Mapping:	47295 47295 47295 47295 47295 47291 47291 47291 47291 47291 47292 47292 47292 47292 47292 47296 47296 47296 47296 47296 47297 47297 47297 47297 47297 47293 47293 47293 47293 47293 47290 47290 47290 47290 47290 47294 47294 47294 47294 47294 
+ Optimal point: 5 5 5 5 5 5 5 5 
+++++++++++++++++++++++++++++++++++++++++++++++++++++++++++
CLIENT SHUTDOWN: client 47296
 + TIMESTAMP: 33.7015
+++++++++++++++++++++++++++++++++++++++++++++++++++++++++++
+ Client Mapping:
  > Client 47294 (5):	35 36 37 38 39 
  > Client 47293 (5):	25 26 27 28 29 
  > Client 47290 (5):	30 31 32 33 34 
  > Client 47291 (5):	5 6 7 8 9 
  > Client 47292 (5):	10 11 12 13 14 
  > Client 47297 (5):	20 21 22 23 24 
  > Client 47295 (5):	0 1 2 3 4 
  > Client 47296 (0):	

+ Core Mapping:	47295 47295 47295 47295 47295 47291 47291 47291 47291 47291 47292 47292 47292 47292 47292 0 0 0 0 0 47297 47297 47297 47297 47297 47293 47293 47293 47293 47293 47290 47290 47290 47290 47290 47294 47294 47294 47294 47294 
+ Optimal point: 5 5 5 5 5 5 5 5 
+++++++++++++++++++++++++++++++++++++++++++++++++++++++++++
client (47296) shutdown hint: 437.984
sum_client_shutdown_hint: 437.984
sum_client_shutdown_hint_div_time: 0
++++++++++++++++++++++++++++++++++++++++++++++++
 + TIMESTAMP: 33.7017
REINVADE (47291)
  + pid: 47291
  + min_cores: 1
  + max_cores: 512
  + scalability graph: 
1, 1.36329, 1.52423, 1.62017, 1.68565, 1.73398, 1.77154, 1.80182, 1.8269, 1.84812, 1.86637, 1.88229, 1.89634, 1.90885, 1.92009, 1.93026, 1.93952, 1.94799, 1.95579, 1.963, 1.96968, 1.9759, 1.98172, 1.98716, 1.99228, 1.9971, 2.00164, 2.00594, 2.01002, 2.01389, 2.01757, 2.02108, 2.02443, 2.02763, 2.03069, 2.03362, 2.03644, 2.03914, 2.04173, 2.04423, 
Number of clients: 7

+++++++++++++++++++++++++++++++++++++++++++++++++++++++++++
+ Client Mapping:
  > Client 47294 (5):	35 36 37 38 39 
  > Client 47293 (5):	25 26 27 28 29 
  > Client 47290 (5):	30 31 32 33 34 
  > Client 47291 (6):	5 6 7 8 9 15 
  > Client 47292 (5):	10 11 12 13 14 
  > Client 47297 (5):	20 21 22 23 24 
  > Client 47295 (5):	0 1 2 3 4 

+ Core Mapping:	47295 47295 47295 47295 47295 47291 47291 47291 47291 47291 47292 47292 47292 47292 47292 47291 0 0 0 0 47297 47297 47297 47297 47297 47293 47293 47293 47293 47293 47290 47290 47290 47290 47290 47294 47294 47294 47294 47294 
+ Optimal point: 6 6 6 6 6 5 5 
+++++++++++++++++++++++++++++++++++++++++++++++++++++++++++
++++++++++++++++++++++++++++++++++++++++++++++++
 + TIMESTAMP: 33.7018
REINVADE (47294)
  + pid: 47294
  + min_cores: 1
  + max_cores: 512
  + scalability graph: 
1, 1.36329, 1.52423, 1.62017, 1.68565, 1.73398, 1.77154, 1.80182, 1.8269, 1.84812, 1.86637, 1.88229, 1.89634, 1.90885, 1.92009, 1.93026, 1.93952, 1.94799, 1.95579, 1.963, 1.96968, 1.9759, 1.98172, 1.98716, 1.99228, 1.9971, 2.00164, 2.00594, 2.01002, 2.01389, 2.01757, 2.02108, 2.02443, 2.02763, 2.03069, 2.03362, 2.03644, 2.03914, 2.04173, 2.04423, 
Number of clients: 7

+++++++++++++++++++++++++++++++++++++++++++++++++++++++++++
+ Client Mapping:
  > Client 47294 (6):	35 36 37 38 39 16 
  > Client 47293 (5):	25 26 27 28 29 
  > Client 47290 (5):	30 31 32 33 34 
  > Client 47291 (6):	5 6 7 8 9 15 
  > Client 47292 (5):	10 11 12 13 14 
  > Client 47297 (5):	20 21 22 23 24 
  > Client 47295 (5):	0 1 2 3 4 

+ Core Mapping:	47295 47295 47295 47295 47295 47291 47291 47291 47291 47291 47292 47292 47292 47292 47292 47291 47294 0 0 0 47297 47297 47297 47297 47297 47293 47293 47293 47293 47293 47290 47290 47290 47290 47290 47294 47294 47294 47294 47294 
+ Optimal point: 6 6 6 6 6 5 5 
+++++++++++++++++++++++++++++++++++++++++++++++++++++++++++
++++++++++++++++++++++++++++++++++++++++++++++++
 + TIMESTAMP: 33.7019
REINVADE (47290)
  + pid: 47290
  + min_cores: 1
  + max_cores: 512
  + scalability graph: 
1, 1.36329, 1.52423, 1.62017, 1.68565, 1.73398, 1.77154, 1.80182, 1.8269, 1.84812, 1.86637, 1.88229, 1.89634, 1.90885, 1.92009, 1.93026, 1.93952, 1.94799, 1.95579, 1.963, 1.96968, 1.9759, 1.98172, 1.98716, 1.99228, 1.9971, 2.00164, 2.00594, 2.01002, 2.01389, 2.01757, 2.02108, 2.02443, 2.02763, 2.03069, 2.03362, 2.03644, 2.03914, 2.04173, 2.04423, 
Number of clients: 7

+++++++++++++++++++++++++++++++++++++++++++++++++++++++++++
+ Client Mapping:
  > Client 47294 (6):	35 36 37 38 39 16 
  > Client 47293 (5):	25 26 27 28 29 
  > Client 47290 (6):	30 31 32 33 34 17 
  > Client 47291 (6):	5 6 7 8 9 15 
  > Client 47292 (5):	10 11 12 13 14 
  > Client 47297 (5):	20 21 22 23 24 
  > Client 47295 (5):	0 1 2 3 4 

+ Core Mapping:	47295 47295 47295 47295 47295 47291 47291 47291 47291 47291 47292 47292 47292 47292 47292 47291 47294 47290 0 0 47297 47297 47297 47297 47297 47293 47293 47293 47293 47293 47290 47290 47290 47290 47290 47294 47294 47294 47294 47294 
+ Optimal point: 6 6 6 6 6 5 5 
+++++++++++++++++++++++++++++++++++++++++++++++++++++++++++
++++++++++++++++++++++++++++++++++++++++++++++++
 + TIMESTAMP: 33.7021
REINVADE (47293)
  + pid: 47293
  + min_cores: 1
  + max_cores: 512
  + scalability graph: 
1, 1.36329, 1.52423, 1.62017, 1.68565, 1.73398, 1.77154, 1.80182, 1.8269, 1.84812, 1.86637, 1.88229, 1.89634, 1.90885, 1.92009, 1.93026, 1.93952, 1.94799, 1.95579, 1.963, 1.96968, 1.9759, 1.98172, 1.98716, 1.99228, 1.9971, 2.00164, 2.00594, 2.01002, 2.01389, 2.01757, 2.02108, 2.02443, 2.02763, 2.03069, 2.03362, 2.03644, 2.03914, 2.04173, 2.04423, 
Number of clients: 7

+++++++++++++++++++++++++++++++++++++++++++++++++++++++++++
+ Client Mapping:
  > Client 47294 (6):	35 36 37 38 39 16 
  > Client 47293 (6):	25 26 27 28 29 18 
  > Client 47290 (6):	30 31 32 33 34 17 
  > Client 47291 (6):	5 6 7 8 9 15 
  > Client 47292 (5):	10 11 12 13 14 
  > Client 47297 (5):	20 21 22 23 24 
  > Client 47295 (5):	0 1 2 3 4 

+ Core Mapping:	47295 47295 47295 47295 47295 47291 47291 47291 47291 47291 47292 47292 47292 47292 47292 47291 47294 47290 47293 0 47297 47297 47297 47297 47297 47293 47293 47293 47293 47293 47290 47290 47290 47290 47290 47294 47294 47294 47294 47294 
+ Optimal point: 6 6 6 6 6 5 5 
+++++++++++++++++++++++++++++++++++++++++++++++++++++++++++
++++++++++++++++++++++++++++++++++++++++++++++++
 + TIMESTAMP: 33.7024
REINVADE (47292)
  + pid: 47292
  + min_cores: 1
  + max_cores: 512
  + scalability graph: 
1, 1.36329, 1.52423, 1.62017, 1.68565, 1.73398, 1.77154, 1.80182, 1.8269, 1.84812, 1.86637, 1.88229, 1.89634, 1.90885, 1.92009, 1.93026, 1.93952, 1.94799, 1.95579, 1.963, 1.96968, 1.9759, 1.98172, 1.98716, 1.99228, 1.9971, 2.00164, 2.00594, 2.01002, 2.01389, 2.01757, 2.02108, 2.02443, 2.02763, 2.03069, 2.03362, 2.03644, 2.03914, 2.04173, 2.04423, 
Number of clients: 7

+++++++++++++++++++++++++++++++++++++++++++++++++++++++++++
+ Client Mapping:
  > Client 47294 (6):	35 36 37 38 39 16 
  > Client 47293 (6):	25 26 27 28 29 18 
  > Client 47290 (6):	30 31 32 33 34 17 
  > Client 47291 (6):	5 6 7 8 9 15 
  > Client 47292 (6):	10 11 12 13 14 19 
  > Client 47297 (5):	20 21 22 23 24 
  > Client 47295 (5):	0 1 2 3 4 

+ Core Mapping:	47295 47295 47295 47295 47295 47291 47291 47291 47291 47291 47292 47292 47292 47292 47292 47291 47294 47290 47293 47292 47297 47297 47297 47297 47297 47293 47293 47293 47293 47293 47290 47290 47290 47290 47290 47294 47294 47294 47294 47294 
+ Optimal point: 6 6 6 6 6 5 5 
+++++++++++++++++++++++++++++++++++++++++++++++++++++++++++
CLIENT SHUTDOWN: client 47293
 + TIMESTAMP: 33.8851
+++++++++++++++++++++++++++++++++++++++++++++++++++++++++++
+ Client Mapping:
  > Client 47294 (6):	35 36 37 38 39 16 
  > Client 47293 (0):	
  > Client 47290 (6):	30 31 32 33 34 17 
  > Client 47291 (6):	5 6 7 8 9 15 
  > Client 47292 (6):	10 11 12 13 14 19 
  > Client 47297 (5):	20 21 22 23 24 
  > Client 47295 (5):	0 1 2 3 4 

+ Core Mapping:	47295 47295 47295 47295 47295 47291 47291 47291 47291 47291 47292 47292 47292 47292 47292 47291 47294 47290 0 47292 47297 47297 47297 47297 47297 0 0 0 0 0 47290 47290 47290 47290 47290 47294 47294 47294 47294 47294 
+ Optimal point: 6 6 6 6 6 5 5 
+++++++++++++++++++++++++++++++++++++++++++++++++++++++++++
client (47293) shutdown hint: 437.984
sum_client_shutdown_hint: 875.968
sum_client_shutdown_hint_div_time: 0
++++++++++++++++++++++++++++++++++++++++++++++++
 + TIMESTAMP: 33.8852
REINVADE (47291)
  + pid: 47291
  + min_cores: 1
  + max_cores: 512
  + scalability graph: 
1, 1.36329, 1.52423, 1.62017, 1.68565, 1.73398, 1.77154, 1.80182, 1.8269, 1.84812, 1.86637, 1.88229, 1.89634, 1.90885, 1.92009, 1.93026, 1.93952, 1.94799, 1.95579, 1.963, 1.96968, 1.9759, 1.98172, 1.98716, 1.99228, 1.9971, 2.00164, 2.00594, 2.01002, 2.01389, 2.01757, 2.02108, 2.02443, 2.02763, 2.03069, 2.03362, 2.03644, 2.03914, 2.04173, 2.04423, 
Number of clients: 6

+++++++++++++++++++++++++++++++++++++++++++++++++++++++++++
+ Client Mapping:
  > Client 47294 (6):	35 36 37 38 39 16 
  > Client 47290 (6):	30 31 32 33 34 17 
  > Client 47291 (7):	5 6 7 8 9 15 18 
  > Client 47292 (6):	10 11 12 13 14 19 
  > Client 47297 (5):	20 21 22 23 24 
  > Client 47295 (5):	0 1 2 3 4 

+ Core Mapping:	47295 47295 47295 47295 47295 47291 47291 47291 47291 47291 47292 47292 47292 47292 47292 47291 47294 47290 47291 47292 47297 47297 47297 47297 47297 0 0 0 0 0 47290 47290 47290 47290 47290 47294 47294 47294 47294 47294 
+ Optimal point: 7 7 7 7 6 6 
+++++++++++++++++++++++++++++++++++++++++++++++++++++++++++
++++++++++++++++++++++++++++++++++++++++++++++++
 + TIMESTAMP: 33.8853
REINVADE (47290)
  + pid: 47290
  + min_cores: 1
  + max_cores: 512
  + scalability graph: 
1, 1.36329, 1.52423, 1.62017, 1.68565, 1.73398, 1.77154, 1.80182, 1.8269, 1.84812, 1.86637, 1.88229, 1.89634, 1.90885, 1.92009, 1.93026, 1.93952, 1.94799, 1.95579, 1.963, 1.96968, 1.9759, 1.98172, 1.98716, 1.99228, 1.9971, 2.00164, 2.00594, 2.01002, 2.01389, 2.01757, 2.02108, 2.02443, 2.02763, 2.03069, 2.03362, 2.03644, 2.03914, 2.04173, 2.04423, 
Number of clients: 6

+++++++++++++++++++++++++++++++++++++++++++++++++++++++++++
+ Client Mapping:
  > Client 47294 (6):	35 36 37 38 39 16 
  > Client 47290 (7):	30 31 32 33 34 17 25 
  > Client 47291 (7):	5 6 7 8 9 15 18 
  > Client 47292 (6):	10 11 12 13 14 19 
  > Client 47297 (5):	20 21 22 23 24 
  > Client 47295 (5):	0 1 2 3 4 

+ Core Mapping:	47295 47295 47295 47295 47295 47291 47291 47291 47291 47291 47292 47292 47292 47292 47292 47291 47294 47290 47291 47292 47297 47297 47297 47297 47297 47290 0 0 0 0 47290 47290 47290 47290 47290 47294 47294 47294 47294 47294 
+ Optimal point: 7 7 7 7 6 6 
+++++++++++++++++++++++++++++++++++++++++++++++++++++++++++
++++++++++++++++++++++++++++++++++++++++++++++++
 + TIMESTAMP: 33.8854
REINVADE (47295)
  + pid: 47295
  + min_cores: 1
  + max_cores: 512
  + scalability graph: 
1, 1.36329, 1.52423, 1.62017, 1.68565, 1.73398, 1.77154, 1.80182, 1.8269, 1.84812, 1.86637, 1.88229, 1.89634, 1.90885, 1.92009, 1.93026, 1.93952, 1.94799, 1.95579, 1.963, 1.96968, 1.9759, 1.98172, 1.98716, 1.99228, 1.9971, 2.00164, 2.00594, 2.01002, 2.01389, 2.01757, 2.02108, 2.02443, 2.02763, 2.03069, 2.03362, 2.03644, 2.03914, 2.04173, 2.04423, 
Number of clients: 6

+++++++++++++++++++++++++++++++++++++++++++++++++++++++++++
+ Client Mapping:
  > Client 47294 (6):	35 36 37 38 39 16 
  > Client 47290 (7):	30 31 32 33 34 17 25 
  > Client 47291 (7):	5 6 7 8 9 15 18 
  > Client 47292 (6):	10 11 12 13 14 19 
  > Client 47297 (5):	20 21 22 23 24 
  > Client 47295 (6):	0 1 2 3 4 26 

+ Core Mapping:	47295 47295 47295 47295 47295 47291 47291 47291 47291 47291 47292 47292 47292 47292 47292 47291 47294 47290 47291 47292 47297 47297 47297 47297 47297 47290 47295 0 0 0 47290 47290 47290 47290 47290 47294 47294 47294 47294 47294 
+ Optimal point: 7 7 7 7 6 6 
+++++++++++++++++++++++++++++++++++++++++++++++++++++++++++
++++++++++++++++++++++++++++++++++++++++++++++++
 + TIMESTAMP: 33.8854
REINVADE (47294)
  + pid: 47294
  + min_cores: 1
  + max_cores: 512
  + scalability graph: 
1, 1.36329, 1.52423, 1.62017, 1.68565, 1.73398, 1.77154, 1.80182, 1.8269, 1.84812, 1.86637, 1.88229, 1.89634, 1.90885, 1.92009, 1.93026, 1.93952, 1.94799, 1.95579, 1.963, 1.96968, 1.9759, 1.98172, 1.98716, 1.99228, 1.9971, 2.00164, 2.00594, 2.01002, 2.01389, 2.01757, 2.02108, 2.02443, 2.02763, 2.03069, 2.03362, 2.03644, 2.03914, 2.04173, 2.04423, 
Number of clients: 6

+++++++++++++++++++++++++++++++++++++++++++++++++++++++++++
+ Client Mapping:
  > Client 47294 (7):	35 36 37 38 39 16 27 
  > Client 47290 (7):	30 31 32 33 34 17 25 
  > Client 47291 (7):	5 6 7 8 9 15 18 
  > Client 47292 (6):	10 11 12 13 14 19 
  > Client 47297 (5):	20 21 22 23 24 
  > Client 47295 (6):	0 1 2 3 4 26 

+ Core Mapping:	47295 47295 47295 47295 47295 47291 47291 47291 47291 47291 47292 47292 47292 47292 47292 47291 47294 47290 47291 47292 47297 47297 47297 47297 47297 47290 47295 47294 0 0 47290 47290 47290 47290 47290 47294 47294 47294 47294 47294 
+ Optimal point: 7 7 7 7 6 6 
+++++++++++++++++++++++++++++++++++++++++++++++++++++++++++
++++++++++++++++++++++++++++++++++++++++++++++++
 + TIMESTAMP: 33.8858
REINVADE (47297)
  + pid: 47297
  + min_cores: 1
  + max_cores: 512
  + scalability graph: 
1, 1.36329, 1.52423, 1.62017, 1.68565, 1.73398, 1.77154, 1.80182, 1.8269, 1.84812, 1.86637, 1.88229, 1.89634, 1.90885, 1.92009, 1.93026, 1.93952, 1.94799, 1.95579, 1.963, 1.96968, 1.9759, 1.98172, 1.98716, 1.99228, 1.9971, 2.00164, 2.00594, 2.01002, 2.01389, 2.01757, 2.02108, 2.02443, 2.02763, 2.03069, 2.03362, 2.03644, 2.03914, 2.04173, 2.04423, 
Number of clients: 6

+++++++++++++++++++++++++++++++++++++++++++++++++++++++++++
+ Client Mapping:
  > Client 47294 (7):	35 36 37 38 39 16 27 
  > Client 47290 (7):	30 31 32 33 34 17 25 
  > Client 47291 (7):	5 6 7 8 9 15 18 
  > Client 47292 (6):	10 11 12 13 14 19 
  > Client 47297 (6):	20 21 22 23 24 28 
  > Client 47295 (6):	0 1 2 3 4 26 

+ Core Mapping:	47295 47295 47295 47295 47295 47291 47291 47291 47291 47291 47292 47292 47292 47292 47292 47291 47294 47290 47291 47292 47297 47297 47297 47297 47297 47290 47295 47294 47297 0 47290 47290 47290 47290 47290 47294 47294 47294 47294 47294 
+ Optimal point: 7 7 7 7 6 6 
+++++++++++++++++++++++++++++++++++++++++++++++++++++++++++
++++++++++++++++++++++++++++++++++++++++++++++++
 + TIMESTAMP: 33.8861
REINVADE (47292)
  + pid: 47292
  + min_cores: 1
  + max_cores: 512
  + scalability graph: 
1, 1.36329, 1.52423, 1.62017, 1.68565, 1.73398, 1.77154, 1.80182, 1.8269, 1.84812, 1.86637, 1.88229, 1.89634, 1.90885, 1.92009, 1.93026, 1.93952, 1.94799, 1.95579, 1.963, 1.96968, 1.9759, 1.98172, 1.98716, 1.99228, 1.9971, 2.00164, 2.00594, 2.01002, 2.01389, 2.01757, 2.02108, 2.02443, 2.02763, 2.03069, 2.03362, 2.03644, 2.03914, 2.04173, 2.04423, 
Number of clients: 6

+++++++++++++++++++++++++++++++++++++++++++++++++++++++++++
+ Client Mapping:
  > Client 47294 (7):	35 36 37 38 39 16 27 
  > Client 47290 (7):	30 31 32 33 34 17 25 
  > Client 47291 (7):	5 6 7 8 9 15 18 
  > Client 47292 (7):	10 11 12 13 14 19 29 
  > Client 47297 (6):	20 21 22 23 24 28 
  > Client 47295 (6):	0 1 2 3 4 26 

+ Core Mapping:	47295 47295 47295 47295 47295 47291 47291 47291 47291 47291 47292 47292 47292 47292 47292 47291 47294 47290 47291 47292 47297 47297 47297 47297 47297 47290 47295 47294 47297 47292 47290 47290 47290 47290 47290 47294 47294 47294 47294 47294 
+ Optimal point: 7 7 7 7 6 6 
+++++++++++++++++++++++++++++++++++++++++++++++++++++++++++
CLIENT SHUTDOWN: client 47297
 + TIMESTAMP: 34.2513
+++++++++++++++++++++++++++++++++++++++++++++++++++++++++++
+ Client Mapping:
  > Client 47294 (7):	35 36 37 38 39 16 27 
  > Client 47290 (7):	30 31 32 33 34 17 25 
  > Client 47291 (7):	5 6 7 8 9 15 18 
  > Client 47292 (7):	10 11 12 13 14 19 29 
  > Client 47297 (0):	
  > Client 47295 (6):	0 1 2 3 4 26 

+ Core Mapping:	47295 47295 47295 47295 47295 47291 47291 47291 47291 47291 47292 47292 47292 47292 47292 47291 47294 47290 47291 47292 0 0 0 0 0 47290 47295 47294 0 47292 47290 47290 47290 47290 47290 47294 47294 47294 47294 47294 
+ Optimal point: 7 7 7 7 6 6 
+++++++++++++++++++++++++++++++++++++++++++++++++++++++++++
client (47297) shutdown hint: 437.984
sum_client_shutdown_hint: 1313.95
sum_client_shutdown_hint_div_time: 0
++++++++++++++++++++++++++++++++++++++++++++++++
 + TIMESTAMP: 34.2516
REINVADE (47295)
  + pid: 47295
  + min_cores: 1
  + max_cores: 512
  + scalability graph: 
1, 1.36329, 1.52423, 1.62017, 1.68565, 1.73398, 1.77154, 1.80182, 1.8269, 1.84812, 1.86637, 1.88229, 1.89634, 1.90885, 1.92009, 1.93026, 1.93952, 1.94799, 1.95579, 1.963, 1.96968, 1.9759, 1.98172, 1.98716, 1.99228, 1.9971, 2.00164, 2.00594, 2.01002, 2.01389, 2.01757, 2.02108, 2.02443, 2.02763, 2.03069, 2.03362, 2.03644, 2.03914, 2.04173, 2.04423, 
Number of clients: 5

+++++++++++++++++++++++++++++++++++++++++++++++++++++++++++
+ Client Mapping:
  > Client 47294 (7):	35 36 37 38 39 16 27 
  > Client 47290 (7):	30 31 32 33 34 17 25 
  > Client 47291 (7):	5 6 7 8 9 15 18 
  > Client 47292 (7):	10 11 12 13 14 19 29 
  > Client 47295 (8):	0 1 2 3 4 26 20 21 

+ Core Mapping:	47295 47295 47295 47295 47295 47291 47291 47291 47291 47291 47292 47292 47292 47292 47292 47291 47294 47290 47291 47292 47295 47295 0 0 0 47290 47295 47294 0 47292 47290 47290 47290 47290 47290 47294 47294 47294 47294 47294 
+ Optimal point: 8 8 8 8 8 
+++++++++++++++++++++++++++++++++++++++++++++++++++++++++++
++++++++++++++++++++++++++++++++++++++++++++++++
 + TIMESTAMP: 34.2522
REINVADE (47290)
  + pid: 47290
  + min_cores: 1
  + max_cores: 512
  + scalability graph: 
1, 1.36329, 1.52423, 1.62017, 1.68565, 1.73398, 1.77154, 1.80182, 1.8269, 1.84812, 1.86637, 1.88229, 1.89634, 1.90885, 1.92009, 1.93026, 1.93952, 1.94799, 1.95579, 1.963, 1.96968, 1.9759, 1.98172, 1.98716, 1.99228, 1.9971, 2.00164, 2.00594, 2.01002, 2.01389, 2.01757, 2.02108, 2.02443, 2.02763, 2.03069, 2.03362, 2.03644, 2.03914, 2.04173, 2.04423, 
Number of clients: 5

+++++++++++++++++++++++++++++++++++++++++++++++++++++++++++
+ Client Mapping:
  > Client 47294 (7):	35 36 37 38 39 16 27 
  > Client 47290 (8):	30 31 32 33 34 17 25 22 
  > Client 47291 (7):	5 6 7 8 9 15 18 
  > Client 47292 (7):	10 11 12 13 14 19 29 
  > Client 47295 (8):	0 1 2 3 4 26 20 21 

+ Core Mapping:	47295 47295 47295 47295 47295 47291 47291 47291 47291 47291 47292 47292 47292 47292 47292 47291 47294 47290 47291 47292 47295 47295 47290 0 0 47290 47295 47294 0 47292 47290 47290 47290 47290 47290 47294 47294 47294 47294 47294 
+ Optimal point: 8 8 8 8 8 
+++++++++++++++++++++++++++++++++++++++++++++++++++++++++++
++++++++++++++++++++++++++++++++++++++++++++++++
 + TIMESTAMP: 34.2523
REINVADE (47291)
  + pid: 47291
  + min_cores: 1
  + max_cores: 512
  + scalability graph: 
1, 1.36329, 1.52423, 1.62017, 1.68565, 1.73398, 1.77154, 1.80182, 1.8269, 1.84812, 1.86637, 1.88229, 1.89634, 1.90885, 1.92009, 1.93026, 1.93952, 1.94799, 1.95579, 1.963, 1.96968, 1.9759, 1.98172, 1.98716, 1.99228, 1.9971, 2.00164, 2.00594, 2.01002, 2.01389, 2.01757, 2.02108, 2.02443, 2.02763, 2.03069, 2.03362, 2.03644, 2.03914, 2.04173, 2.04423, 
Number of clients: 5

+++++++++++++++++++++++++++++++++++++++++++++++++++++++++++
+ Client Mapping:
  > Client 47294 (7):	35 36 37 38 39 16 27 
  > Client 47290 (8):	30 31 32 33 34 17 25 22 
  > Client 47291 (8):	5 6 7 8 9 15 18 23 
  > Client 47292 (7):	10 11 12 13 14 19 29 
  > Client 47295 (8):	0 1 2 3 4 26 20 21 

+ Core Mapping:	47295 47295 47295 47295 47295 47291 47291 47291 47291 47291 47292 47292 47292 47292 47292 47291 47294 47290 47291 47292 47295 47295 47290 47291 0 47290 47295 47294 0 47292 47290 47290 47290 47290 47290 47294 47294 47294 47294 47294 
+ Optimal point: 8 8 8 8 8 
+++++++++++++++++++++++++++++++++++++++++++++++++++++++++++
++++++++++++++++++++++++++++++++++++++++++++++++
 + TIMESTAMP: 34.2525
REINVADE (47292)
  + pid: 47292
  + min_cores: 1
  + max_cores: 512
  + scalability graph: 
1, 1.36329, 1.52423, 1.62017, 1.68565, 1.73398, 1.77154, 1.80182, 1.8269, 1.84812, 1.86637, 1.88229, 1.89634, 1.90885, 1.92009, 1.93026, 1.93952, 1.94799, 1.95579, 1.963, 1.96968, 1.9759, 1.98172, 1.98716, 1.99228, 1.9971, 2.00164, 2.00594, 2.01002, 2.01389, 2.01757, 2.02108, 2.02443, 2.02763, 2.03069, 2.03362, 2.03644, 2.03914, 2.04173, 2.04423, 
Number of clients: 5

+++++++++++++++++++++++++++++++++++++++++++++++++++++++++++
+ Client Mapping:
  > Client 47294 (7):	35 36 37 38 39 16 27 
  > Client 47290 (8):	30 31 32 33 34 17 25 22 
  > Client 47291 (8):	5 6 7 8 9 15 18 23 
  > Client 47292 (8):	10 11 12 13 14 19 29 24 
  > Client 47295 (8):	0 1 2 3 4 26 20 21 

+ Core Mapping:	47295 47295 47295 47295 47295 47291 47291 47291 47291 47291 47292 47292 47292 47292 47292 47291 47294 47290 47291 47292 47295 47295 47290 47291 47292 47290 47295 47294 0 47292 47290 47290 47290 47290 47290 47294 47294 47294 47294 47294 
+ Optimal point: 8 8 8 8 8 
+++++++++++++++++++++++++++++++++++++++++++++++++++++++++++
++++++++++++++++++++++++++++++++++++++++++++++++
 + TIMESTAMP: 34.2526
REINVADE (47294)
  + pid: 47294
  + min_cores: 1
  + max_cores: 512
  + scalability graph: 
1, 1.36329, 1.52423, 1.62017, 1.68565, 1.73398, 1.77154, 1.80182, 1.8269, 1.84812, 1.86637, 1.88229, 1.89634, 1.90885, 1.92009, 1.93026, 1.93952, 1.94799, 1.95579, 1.963, 1.96968, 1.9759, 1.98172, 1.98716, 1.99228, 1.9971, 2.00164, 2.00594, 2.01002, 2.01389, 2.01757, 2.02108, 2.02443, 2.02763, 2.03069, 2.03362, 2.03644, 2.03914, 2.04173, 2.04423, 
Number of clients: 5

+++++++++++++++++++++++++++++++++++++++++++++++++++++++++++
+ Client Mapping:
  > Client 47294 (8):	35 36 37 38 39 16 27 28 
  > Client 47290 (8):	30 31 32 33 34 17 25 22 
  > Client 47291 (8):	5 6 7 8 9 15 18 23 
  > Client 47292 (8):	10 11 12 13 14 19 29 24 
  > Client 47295 (8):	0 1 2 3 4 26 20 21 

+ Core Mapping:	47295 47295 47295 47295 47295 47291 47291 47291 47291 47291 47292 47292 47292 47292 47292 47291 47294 47290 47291 47292 47295 47295 47290 47291 47292 47290 47295 47294 47294 47292 47290 47290 47290 47290 47290 47294 47294 47294 47294 47294 
+ Optimal point: 8 8 8 8 8 
+++++++++++++++++++++++++++++++++++++++++++++++++++++++++++
CLIENT SHUTDOWN: client 47290
 + TIMESTAMP: 34.3765
+++++++++++++++++++++++++++++++++++++++++++++++++++++++++++
+ Client Mapping:
  > Client 47294 (8):	35 36 37 38 39 16 27 28 
  > Client 47290 (0):	
  > Client 47291 (8):	5 6 7 8 9 15 18 23 
  > Client 47292 (8):	10 11 12 13 14 19 29 24 
  > Client 47295 (8):	0 1 2 3 4 26 20 21 

+ Core Mapping:	47295 47295 47295 47295 47295 47291 47291 47291 47291 47291 47292 47292 47292 47292 47292 47291 47294 0 47291 47292 47295 47295 0 47291 47292 0 47295 47294 47294 47292 0 0 0 0 0 47294 47294 47294 47294 47294 
+ Optimal point: 8 8 8 8 8 
+++++++++++++++++++++++++++++++++++++++++++++++++++++++++++
client (47290) shutdown hint: 437.984
sum_client_shutdown_hint: 1751.94
sum_client_shutdown_hint_div_time: 0
++++++++++++++++++++++++++++++++++++++++++++++++
 + TIMESTAMP: 34.3769
REINVADE (47295)
  + pid: 47295
  + min_cores: 1
  + max_cores: 512
  + scalability graph: 
1, 1.36329, 1.52423, 1.62017, 1.68565, 1.73398, 1.77154, 1.80182, 1.8269, 1.84812, 1.86637, 1.88229, 1.89634, 1.90885, 1.92009, 1.93026, 1.93952, 1.94799, 1.95579, 1.963, 1.96968, 1.9759, 1.98172, 1.98716, 1.99228, 1.9971, 2.00164, 2.00594, 2.01002, 2.01389, 2.01757, 2.02108, 2.02443, 2.02763, 2.03069, 2.03362, 2.03644, 2.03914, 2.04173, 2.04423, 
Number of clients: 4

+++++++++++++++++++++++++++++++++++++++++++++++++++++++++++
+ Client Mapping:
  > Client 47294 (8):	35 36 37 38 39 16 27 28 
  > Client 47291 (8):	5 6 7 8 9 15 18 23 
  > Client 47292 (8):	10 11 12 13 14 19 29 24 
  > Client 47295 (10):	0 1 2 3 4 26 20 21 17 22 

+ Core Mapping:	47295 47295 47295 47295 47295 47291 47291 47291 47291 47291 47292 47292 47292 47292 47292 47291 47294 47295 47291 47292 47295 47295 47295 47291 47292 0 47295 47294 47294 47292 0 0 0 0 0 47294 47294 47294 47294 47294 
+ Optimal point: 10 10 10 10 
+++++++++++++++++++++++++++++++++++++++++++++++++++++++++++
++++++++++++++++++++++++++++++++++++++++++++++++
 + TIMESTAMP: 34.377
REINVADE (47294)
  + pid: 47294
  + min_cores: 1
  + max_cores: 512
  + scalability graph: 
1, 1.36329, 1.52423, 1.62017, 1.68565, 1.73398, 1.77154, 1.80182, 1.8269, 1.84812, 1.86637, 1.88229, 1.89634, 1.90885, 1.92009, 1.93026, 1.93952, 1.94799, 1.95579, 1.963, 1.96968, 1.9759, 1.98172, 1.98716, 1.99228, 1.9971, 2.00164, 2.00594, 2.01002, 2.01389, 2.01757, 2.02108, 2.02443, 2.02763, 2.03069, 2.03362, 2.03644, 2.03914, 2.04173, 2.04423, 
Number of clients: 4

+++++++++++++++++++++++++++++++++++++++++++++++++++++++++++
+ Client Mapping:
  > Client 47294 (10):	35 36 37 38 39 16 27 28 25 30 
  > Client 47291 (8):	5 6 7 8 9 15 18 23 
  > Client 47292 (8):	10 11 12 13 14 19 29 24 
  > Client 47295 (10):	0 1 2 3 4 26 20 21 17 22 

+ Core Mapping:	47295 47295 47295 47295 47295 47291 47291 47291 47291 47291 47292 47292 47292 47292 47292 47291 47294 47295 47291 47292 47295 47295 47295 47291 47292 47294 47295 47294 47294 47292 47294 0 0 0 0 47294 47294 47294 47294 47294 
+ Optimal point: 10 10 10 10 
+++++++++++++++++++++++++++++++++++++++++++++++++++++++++++
++++++++++++++++++++++++++++++++++++++++++++++++
 + TIMESTAMP: 34.3772
REINVADE (47291)
  + pid: 47291
  + min_cores: 1
  + max_cores: 512
  + scalability graph: 
1, 1.36329, 1.52423, 1.62017, 1.68565, 1.73398, 1.77154, 1.80182, 1.8269, 1.84812, 1.86637, 1.88229, 1.89634, 1.90885, 1.92009, 1.93026, 1.93952, 1.94799, 1.95579, 1.963, 1.96968, 1.9759, 1.98172, 1.98716, 1.99228, 1.9971, 2.00164, 2.00594, 2.01002, 2.01389, 2.01757, 2.02108, 2.02443, 2.02763, 2.03069, 2.03362, 2.03644, 2.03914, 2.04173, 2.04423, 
Number of clients: 4

+++++++++++++++++++++++++++++++++++++++++++++++++++++++++++
+ Client Mapping:
  > Client 47294 (10):	35 36 37 38 39 16 27 28 25 30 
  > Client 47291 (10):	5 6 7 8 9 15 18 23 31 32 
  > Client 47292 (8):	10 11 12 13 14 19 29 24 
  > Client 47295 (10):	0 1 2 3 4 26 20 21 17 22 

+ Core Mapping:	47295 47295 47295 47295 47295 47291 47291 47291 47291 47291 47292 47292 47292 47292 47292 47291 47294 47295 47291 47292 47295 47295 47295 47291 47292 47294 47295 47294 47294 47292 47294 47291 47291 0 0 47294 47294 47294 47294 47294 
+ Optimal point: 10 10 10 10 
+++++++++++++++++++++++++++++++++++++++++++++++++++++++++++
++++++++++++++++++++++++++++++++++++++++++++++++
 + TIMESTAMP: 34.3774
REINVADE (47292)
  + pid: 47292
  + min_cores: 1
  + max_cores: 512
  + scalability graph: 
1, 1.36329, 1.52423, 1.62017, 1.68565, 1.73398, 1.77154, 1.80182, 1.8269, 1.84812, 1.86637, 1.88229, 1.89634, 1.90885, 1.92009, 1.93026, 1.93952, 1.94799, 1.95579, 1.963, 1.96968, 1.9759, 1.98172, 1.98716, 1.99228, 1.9971, 2.00164, 2.00594, 2.01002, 2.01389, 2.01757, 2.02108, 2.02443, 2.02763, 2.03069, 2.03362, 2.03644, 2.03914, 2.04173, 2.04423, 
Number of clients: 4

+++++++++++++++++++++++++++++++++++++++++++++++++++++++++++
+ Client Mapping:
  > Client 47294 (10):	35 36 37 38 39 16 27 28 25 30 
  > Client 47291 (10):	5 6 7 8 9 15 18 23 31 32 
  > Client 47292 (10):	10 11 12 13 14 19 29 24 33 34 
  > Client 47295 (10):	0 1 2 3 4 26 20 21 17 22 

+ Core Mapping:	47295 47295 47295 47295 47295 47291 47291 47291 47291 47291 47292 47292 47292 47292 47292 47291 47294 47295 47291 47292 47295 47295 47295 47291 47292 47294 47295 47294 47294 47292 47294 47291 47291 47292 47292 47294 47294 47294 47294 47294 
+ Optimal point: 10 10 10 10 
+++++++++++++++++++++++++++++++++++++++++++++++++++++++++++
CLIENT SHUTDOWN: client 47294
 + TIMESTAMP: 34.4673
+++++++++++++++++++++++++++++++++++++++++++++++++++++++++++
+ Client Mapping:
  > Client 47294 (0):	
  > Client 47291 (10):	5 6 7 8 9 15 18 23 31 32 
  > Client 47292 (10):	10 11 12 13 14 19 29 24 33 34 
  > Client 47295 (10):	0 1 2 3 4 26 20 21 17 22 

+ Core Mapping:	47295 47295 47295 47295 47295 47291 47291 47291 47291 47291 47292 47292 47292 47292 47292 47291 0 47295 47291 47292 47295 47295 47295 47291 47292 0 47295 0 0 47292 0 47291 47291 47292 47292 0 0 0 0 0 
+ Optimal point: 10 10 10 10 
+++++++++++++++++++++++++++++++++++++++++++++++++++++++++++
client (47294) shutdown hint: 437.984
sum_client_shutdown_hint: 2189.92
sum_client_shutdown_hint_div_time: 0
++++++++++++++++++++++++++++++++++++++++++++++++
 + TIMESTAMP: 34.4677
REINVADE (47291)
  + pid: 47291
  + min_cores: 1
  + max_cores: 512
  + scalability graph: 
1, 1.36329, 1.52423, 1.62017, 1.68565, 1.73398, 1.77154, 1.80182, 1.8269, 1.84812, 1.86637, 1.88229, 1.89634, 1.90885, 1.92009, 1.93026, 1.93952, 1.94799, 1.95579, 1.963, 1.96968, 1.9759, 1.98172, 1.98716, 1.99228, 1.9971, 2.00164, 2.00594, 2.01002, 2.01389, 2.01757, 2.02108, 2.02443, 2.02763, 2.03069, 2.03362, 2.03644, 2.03914, 2.04173, 2.04423, 
Number of clients: 3

+++++++++++++++++++++++++++++++++++++++++++++++++++++++++++
+ Client Mapping:
  > Client 47291 (14):	5 6 7 8 9 15 18 23 31 32 16 25 27 28 
  > Client 47292 (10):	10 11 12 13 14 19 29 24 33 34 
  > Client 47295 (10):	0 1 2 3 4 26 20 21 17 22 

+ Core Mapping:	47295 47295 47295 47295 47295 47291 47291 47291 47291 47291 47292 47292 47292 47292 47292 47291 47291 47295 47291 47292 47295 47295 47295 47291 47292 47291 47295 47291 47291 47292 0 47291 47291 47292 47292 0 0 0 0 0 
+ Optimal point: 14 13 13 
+++++++++++++++++++++++++++++++++++++++++++++++++++++++++++
++++++++++++++++++++++++++++++++++++++++++++++++
 + TIMESTAMP: 34.4683
REINVADE (47292)
  + pid: 47292
  + min_cores: 1
  + max_cores: 512
  + scalability graph: 
1, 1.36329, 1.52423, 1.62017, 1.68565, 1.73398, 1.77154, 1.80182, 1.8269, 1.84812, 1.86637, 1.88229, 1.89634, 1.90885, 1.92009, 1.93026, 1.93952, 1.94799, 1.95579, 1.963, 1.96968, 1.9759, 1.98172, 1.98716, 1.99228, 1.9971, 2.00164, 2.00594, 2.01002, 2.01389, 2.01757, 2.02108, 2.02443, 2.02763, 2.03069, 2.03362, 2.03644, 2.03914, 2.04173, 2.04423, 
Number of clients: 3

+++++++++++++++++++++++++++++++++++++++++++++++++++++++++++
+ Client Mapping:
  > Client 47291 (14):	5 6 7 8 9 15 18 23 31 32 16 25 27 28 
  > Client 47292 (13):	10 11 12 13 14 19 29 24 33 34 30 35 36 
  > Client 47295 (10):	0 1 2 3 4 26 20 21 17 22 

+ Core Mapping:	47295 47295 47295 47295 47295 47291 47291 47291 47291 47291 47292 47292 47292 47292 47292 47291 47291 47295 47291 47292 47295 47295 47295 47291 47292 47291 47295 47291 47291 47292 47292 47291 47291 47292 47292 47292 47292 0 0 0 
+ Optimal point: 14 13 13 
+++++++++++++++++++++++++++++++++++++++++++++++++++++++++++
++++++++++++++++++++++++++++++++++++++++++++++++
 + TIMESTAMP: 34.4684
REINVADE (47295)
  + pid: 47295
  + min_cores: 1
  + max_cores: 512
  + scalability graph: 
1, 1.36329, 1.52423, 1.62017, 1.68565, 1.73398, 1.77154, 1.80182, 1.8269, 1.84812, 1.86637, 1.88229, 1.89634, 1.90885, 1.92009, 1.93026, 1.93952, 1.94799, 1.95579, 1.963, 1.96968, 1.9759, 1.98172, 1.98716, 1.99228, 1.9971, 2.00164, 2.00594, 2.01002, 2.01389, 2.01757, 2.02108, 2.02443, 2.02763, 2.03069, 2.03362, 2.03644, 2.03914, 2.04173, 2.04423, 
Number of clients: 3

+++++++++++++++++++++++++++++++++++++++++++++++++++++++++++
+ Client Mapping:
  > Client 47291 (14):	5 6 7 8 9 15 18 23 31 32 16 25 27 28 
  > Client 47292 (13):	10 11 12 13 14 19 29 24 33 34 30 35 36 
  > Client 47295 (13):	0 1 2 3 4 26 20 21 17 22 37 38 39 

+ Core Mapping:	47295 47295 47295 47295 47295 47291 47291 47291 47291 47291 47292 47292 47292 47292 47292 47291 47291 47295 47291 47292 47295 47295 47295 47291 47292 47291 47295 47291 47291 47292 47292 47291 47291 47292 47292 47292 47292 47295 47295 47295 
+ Optimal point: 14 13 13 
+++++++++++++++++++++++++++++++++++++++++++++++++++++++++++
CLIENT SHUTDOWN: client 47291
 + TIMESTAMP: 34.5611
+++++++++++++++++++++++++++++++++++++++++++++++++++++++++++
+ Client Mapping:
  > Client 47291 (0):	
  > Client 47292 (13):	10 11 12 13 14 19 29 24 33 34 30 35 36 
  > Client 47295 (13):	0 1 2 3 4 26 20 21 17 22 37 38 39 

+ Core Mapping:	47295 47295 47295 47295 47295 0 0 0 0 0 47292 47292 47292 47292 47292 0 0 47295 0 47292 47295 47295 47295 0 47292 0 47295 0 0 47292 47292 0 0 47292 47292 47292 47292 47295 47295 47295 
+ Optimal point: 14 13 13 
+++++++++++++++++++++++++++++++++++++++++++++++++++++++++++
client (47291) shutdown hint: 437.984
sum_client_shutdown_hint: 2627.9
sum_client_shutdown_hint_div_time: 0
++++++++++++++++++++++++++++++++++++++++++++++++
 + TIMESTAMP: 34.5619
REINVADE (47295)
  + pid: 47295
  + min_cores: 1
  + max_cores: 512
  + scalability graph: 
1, 1.36329, 1.52423, 1.62017, 1.68565, 1.73398, 1.77154, 1.80182, 1.8269, 1.84812, 1.86637, 1.88229, 1.89634, 1.90885, 1.92009, 1.93026, 1.93952, 1.94799, 1.95579, 1.963, 1.96968, 1.9759, 1.98172, 1.98716, 1.99228, 1.9971, 2.00164, 2.00594, 2.01002, 2.01389, 2.01757, 2.02108, 2.02443, 2.02763, 2.03069, 2.03362, 2.03644, 2.03914, 2.04173, 2.04423, 
Number of clients: 2

+++++++++++++++++++++++++++++++++++++++++++++++++++++++++++
+ Client Mapping:
  > Client 47292 (13):	10 11 12 13 14 19 29 24 33 34 30 35 36 
  > Client 47295 (20):	0 1 2 3 4 26 20 21 17 22 37 38 39 5 6 7 8 9 15 16 

+ Core Mapping:	47295 47295 47295 47295 47295 47295 47295 47295 47295 47295 47292 47292 47292 47292 47292 47295 47295 47295 0 47292 47295 47295 47295 0 47292 0 47295 0 0 47292 47292 0 0 47292 47292 47292 47292 47295 47295 47295 
+ Optimal point: 20 20 
+++++++++++++++++++++++++++++++++++++++++++++++++++++++++++
++++++++++++++++++++++++++++++++++++++++++++++++
 + TIMESTAMP: 34.562
REINVADE (47292)
  + pid: 47292
  + min_cores: 1
  + max_cores: 512
  + scalability graph: 
1, 1.36329, 1.52423, 1.62017, 1.68565, 1.73398, 1.77154, 1.80182, 1.8269, 1.84812, 1.86637, 1.88229, 1.89634, 1.90885, 1.92009, 1.93026, 1.93952, 1.94799, 1.95579, 1.963, 1.96968, 1.9759, 1.98172, 1.98716, 1.99228, 1.9971, 2.00164, 2.00594, 2.01002, 2.01389, 2.01757, 2.02108, 2.02443, 2.02763, 2.03069, 2.03362, 2.03644, 2.03914, 2.04173, 2.04423, 
Number of clients: 2

+++++++++++++++++++++++++++++++++++++++++++++++++++++++++++
+ Client Mapping:
  > Client 47292 (20):	10 11 12 13 14 19 29 24 33 34 30 35 36 18 23 25 27 28 31 32 
  > Client 47295 (20):	0 1 2 3 4 26 20 21 17 22 37 38 39 5 6 7 8 9 15 16 

+ Core Mapping:	47295 47295 47295 47295 47295 47295 47295 47295 47295 47295 47292 47292 47292 47292 47292 47295 47295 47295 47292 47292 47295 47295 47295 47292 47292 47292 47295 47292 47292 47292 47292 47292 47292 47292 47292 47292 47292 47295 47295 47295 
+ Optimal point: 20 20 
+++++++++++++++++++++++++++++++++++++++++++++++++++++++++++
CLIENT SHUTDOWN: client 47295
 + TIMESTAMP: 34.7369
+++++++++++++++++++++++++++++++++++++++++++++++++++++++++++
+ Client Mapping:
  > Client 47292 (20):	10 11 12 13 14 19 29 24 33 34 30 35 36 18 23 25 27 28 31 32 
  > Client 47295 (0):	

+ Core Mapping:	0 0 0 0 0 0 0 0 0 0 47292 47292 47292 47292 47292 0 0 0 47292 47292 0 0 0 47292 47292 47292 0 47292 47292 47292 47292 47292 47292 47292 47292 47292 47292 0 0 0 
+ Optimal point: 20 20 
+++++++++++++++++++++++++++++++++++++++++++++++++++++++++++
client (47295) shutdown hint: 437.984
sum_client_shutdown_hint: 3065.89
sum_client_shutdown_hint_div_time: 0
++++++++++++++++++++++++++++++++++++++++++++++++
 + TIMESTAMP: 34.7382
REINVADE (47292)
  + pid: 47292
  + min_cores: 1
  + max_cores: 512
  + scalability graph: 
1, 1.36329, 1.52423, 1.62017, 1.68565, 1.73398, 1.77154, 1.80182, 1.8269, 1.84812, 1.86637, 1.88229, 1.89634, 1.90885, 1.92009, 1.93026, 1.93952, 1.94799, 1.95579, 1.963, 1.96968, 1.9759, 1.98172, 1.98716, 1.99228, 1.9971, 2.00164, 2.00594, 2.01002, 2.01389, 2.01757, 2.02108, 2.02443, 2.02763, 2.03069, 2.03362, 2.03644, 2.03914, 2.04173, 2.04423, 
Number of clients: 1

+++++++++++++++++++++++++++++++++++++++++++++++++++++++++++
+ Client Mapping:
  > Client 47292 (40):	10 11 12 13 14 19 29 24 33 34 30 35 36 18 23 25 27 28 31 32 0 1 2 3 4 5 6 7 8 9 15 16 17 20 21 22 26 37 38 39 

+ Core Mapping:	47292 47292 47292 47292 47292 47292 47292 47292 47292 47292 47292 47292 47292 47292 47292 47292 47292 47292 47292 47292 47292 47292 47292 47292 47292 47292 47292 47292 47292 47292 47292 47292 47292 47292 47292 47292 47292 47292 47292 47292 
+ Optimal point: 40 
+++++++++++++++++++++++++++++++++++++++++++++++++++++++++++
CLIENT SHUTDOWN: client 47292
 + TIMESTAMP: 34.8146
+++++++++++++++++++++++++++++++++++++++++++++++++++++++++++
+ Client Mapping:
  > Client 47292 (0):	

+ Core Mapping:	0 0 0 0 0 0 0 0 0 0 0 0 0 0 0 0 0 0 0 0 0 0 0 0 0 0 0 0 0 0 0 0 0 0 0 0 0 0 0 0 
+ Optimal point: 40 
+++++++++++++++++++++++++++++++++++++++++++++++++++++++++++
client (47292) shutdown hint: 437.984
sum_client_shutdown_hint: 3503.87
sum_client_shutdown_hint_div_time: 0
END TIMESTAMP: 34.8146
OVERALL TIME: 34.6035
 + sum_client_shutdown_hint: 3503.87
 + sum_client_shutdown_hint/time: 101.258
sum_client_shutdown_hint: 3503.87
sum_client_shutdown_hint_div_time: 101.258
