0	0	438848
10.9754	0	461570
20.9384	0	476872
30.9003	0	489736
40.8626	0	499982
50.8141	0	506802
60.6735	0	512982
70.4826	0	518356
80.2916	0	523052
90.0689	0	526698
100.74	0	530862
110.372	0	534056
120.97	0	537466
130.701	0	539762
140.575	0	542536
150.543	0	545964
160.597	0	548638
170.752	0	551392
180.918	0	553896
190.068	0	556110
200.234	0	558684
210.4	0	560874
220.566	0	563470
230.732	0	566212
240.898	0	569152
250.056	0	571982
260.259	0	574830
270.461	0	577984
280.645	0	580676
290.815	0	583614
300.99	0	586470
310.164	0	589234
320.361	0	592082
330.56	0	595176
340.739	0	598514
350.913	0	601880
360.063	0	605042
370.229	0	608502
380.394	0	612014
390.559	0	615456
400.725	0	618904
410.893	0	621894
420.063	0	624942
430.27	0	628576
440.472	2.72848e-12	631606
450.674	1.18234e-11	634926
460.876	2.09184e-11	638072
470.056	3.18323e-11	641014
480.253	5.36602e-11	644490
490.449	9.004e-11	647694
500.646	1.52795e-10	650756
510.844	2.55568e-10	653768
520.031	4.03816e-10	656772
530.245	6.63022e-10	659942
540.424	1.07411e-09	663666
550.604	1.71804e-09	667098
560.816	2.71302e-09	670592
570.054	4.05817e-09	673710
580.319	6.27369e-09	677330
590.598	9.58335e-09	681060
600.901	1.44819e-08	684520
610.174	2.07938e-08	688162
620.477	3.07518e-08	691762
630.78	4.49882e-08	695614
640.053	6.27924e-08	698772
650.356	9.00773e-08	702578
660.659	1.27956e-07	706094
670.962	1.80041e-07	709988
680.234	2.42896e-07	713548
690.537	3.35919e-07	717104
700.84	4.60558e-07	720802
710.093	6.07105e-07	724418
720.345	8.18211e-07	728216
730.586	1.09378e-06	732090
740.826	1.4511e-06	736080
750.042	1.85977e-06	739734
760.282	2.43364e-06	743804
770.522	3.16266e-06	747956
780.762	4.08264e-06	752068
791.003	5.23614e-06	756218
800.214	6.51457e-06	760164
810.422	8.25137e-06	764526
820.626	1.03888e-05	768726
830.83	1.30057e-05	772764
840.013	1.58452e-05	776582
850.216	1.96325e-05	781062
860.418	2.4199e-05	785516
870.62	2.96785e-05	790206
880.823	3.62228e-05	794578
890.004	4.3164e-05	798566
900.201	5.22164e-05	802830
910.398	6.28908e-05	807424
920.595	7.54267e-05	811822
930.792	9.00915e-05	816128
940.989	0.000107183	820640
950.161	0.000124902	824708
960.34	0.000147504	828748
970.518	0.000173575	833122
980.684	0.000203527	837520
990.851	0.000237865	841712
1000	0.000272957	845628
1010.17	0.00031713	850032
1020.33	0.000367367	854262
1030.5	0.000424355	859008
1040.67	0.000488861	863634
1050.83	0.000561761	868440
1061	0.000644034	873448
1070.15	0.000726837	877886
1080.32	0.000829197	883024
1090.49	0.000943341	887798
1100.65	0.0010709	892472
1110.82	0.00121364	897004
1120.99	0.00137276	901580
1130.14	0.00153153	905842
1140.31	0.00172691	910510
1150.48	0.00194697	914974
1160.64	0.00219733	919624
1170.81	0.00248527	924112
1180.98	0.00307602	928840
1190.13	0.00373731	933012
1200.3	0.00450847	937852
1210.47	0.00523629	942680
1220.64	0.00545218	947722
1230.8	0.0061403	952488
1240.97	0.00703737	957212
1250.12	0.00815585	961444
1260.29	0.00961646	965778
1270.46	0.0109054	970350
1280.63	0.0133184	974740
1290.8	0.0163593	978956
1300.97	0.0181176	983694
1310.12	0.0215464	987676
1320.29	0.0261385	992544
1330.46	0.0310647	997172
1340.63	0.0365988	1002322
1350.8	0.0428414	1006766
1360.96	0.0504056	1011400
1370.12	0.0579513	1015660
1380.29	0.0677776	1020116
1390.45	0.0749915	1024584
1400.57	0.0815522	1028928
1410.68	0.0882123	1033292
1420.77	0.0950948	1037226
1430.87	0.102004	1041550
1440.97	0.10891	1045996
1450.05	0.115403	1049784
1460.15	0.12329	1054520
1470.25	0.132183	1059034
1480.34	0.142224	1063400
1490.44	0.153623	1068276
1500.54	0.168821	1072846
1510.63	0.194252	1077078
1520.73	0.234927	1081754
1530.82	0.28077	1086006
1540.92	0.380767	1090096
1550.01	0.482967	1093586
1560.1	0.613443	1097460
1570.2	0.768506	1101260
1580.3	0.943621	1104478
1590.39	1.13815	1107460
1600.49	1.34852	1110408
1610.59	1.56622	1113212
1620.68	1.78139	1116520
1630.78	1.98626	1119538
1640.88	2.17296	1122190
1650.98	2.33388	1125212
1660.06	2.45377	1127378
1670.16	2.55818	1130560
1680.26	2.63128	1133586
1690.35	2.67442	1136288
1700.45	2.6908	1139618
1710.55	2.68276	1142304
1720.64	2.6531	1145546
1730.74	2.60563	1148416
1740.84	2.54335	1151656
1750.93	2.46868	1154720
1760.02	2.39322	1157000
1770.12	2.30219	1159936
1780.22	2.20462	1162548
1790.34	2.10109	1165438
1800.6	1.99082	1168100
1810.87	1.87511	1170718
1820.12	1.76637	1173244
1830.47	1.64089	1176006
1840.9	1.51153	1178872
1850.32	1.39321	1181396
1860.8	1.26118	1184708
1870.18	1.14279	1187350
1880.7	1.00847	1190178
1890.13	0.884103	1192928
1900.6	0.738276	1195956
1910.02	0.596634	1198704
1920.46	0.424521	1201462
1930.89	0.23505	1204102
1940.28	0.0497801	1206456
1950.72	-0.169978	1208966
1960.1	-0.376033	1211544
1970.45	-0.607532	1214044
1980.79	-0.8367	1217280
1990.07	-1.03561	1219646
2000.41	-1.24425	1222656
2010.71	-1.43436	1225164
2021.01	-1.60317	1228084
2030.33	-1.73546	1230818
2040.65	-1.85846	1233572
2050.97	-1.95663	1236690
2060.24	-2.02503	1238824
2070.57	-2.0815	1241996
2080.99	-2.12083	1244796
2090.39	-2.14432	1247304
2100.85	-2.16005	1250626
2110.13	-2.16641	1253072
2120.44	-2.16529	1256520
2130.76	-2.15373	1259584
2140.18	-2.1321	1262034
2150.57	-2.09244	1265460
2160.89	-2.03328	1268488
2170.19	-1.96196	1271432
2180.52	-1.86306	1273918
2190.94	-1.74474	1277110
2200.27	-1.62562	1280022
2210.59	-1.48442	1283022
2220.94	-1.3401	1285982
2230.24	-1.21343	1288796
2240.55	-1.081	1292122
2250.9	-0.960494	1295290
2260.24	-0.863642	1298076
2270.63	-0.769533	1300806
2280.95	-0.689193	1304570
2290.24	-0.626411	1307004
2300.58	-0.56518	1309874
2310.89	-0.511329	1311934
2320.2	-0.467824	1314328
2330.57	-0.424135	1316212
2340.89	-0.384898	1318538
2350.21	-0.352774	1320686
2360.56	-0.320461	1323366
2370.9	-0.291022	1325972
2380.24	-0.266015	1328420
2390.62	-0.238792	1330612
2401	-0.210905	1332714
2410.39	-0.184405	1335242
2420.83	-0.153329	1337644
2430.23	-0.123822	1340102
2440.64	-0.0893757	1342118
2450.99	-0.0538366	1344138
2460.34	-0.0217669	1345902
2470.8	0.012802	1347622
2480.3	0.0419584	1349678
2490.95	0.0710585	1351646
2500.54	0.0936428	1353702
2510.32	0.113162	1355922
2520.91	0.131477	1358776
2530.24	0.141735	1360952
2540.66	0.148655	1363748
2550.26	0.15352	1366588
2560.77	0.158503	1369222
2570.05	0.160378	1371594
2580.55	0.159661	1374478
2590.06	0.158281	1376986
2600.38	0.155893	1379862
2610.75	0.152122	1383020
2620.14	0.147703	1385924
2630.51	0.141859	1389082
2640.82	0.135114	1391768
2650.15	0.128207	1394494
2660.6	0.119602	1397499
2671.02	0.110213	1400503
2680.38	0.101214	1403433
2690.68	0.0907214	1406721
2700.98	0.0796716	1409599
2710.4	0.0691503	1412219
2720.74	0.0572196	1415327
2730.07	0.0461557	1417557
2740.44	0.0336043	1420851
2750.87	0.0207944	1422871
2760.27	0.00916654	1425355
2770.74	-0.00379841	1427703
2780.17	-0.0153992	1429509
2790.59	-0.0280931	1431073
2800.02	-0.0393959	1432791
2810.48	-0.0517104	1435585
2820.86	-0.0636489	1437869
2830.22	-0.0741611	1439363
2840.73	-0.0856592	1441701
2850.16	-0.0956899	1443667
2860.68	-0.106568	1445917
2870.2	-0.116085	1447819
2880.84	-0.12634	1449379
2890.48	-0.135236	1450974
2901	-0.144462	1453370
2910.42	-0.152248	1454876
2920.77	-0.160244	1456462
2930.15	-0.166931	1457952
2940.82	-0.173844	1459832
2950.22	-0.179284	1461868
2960.67	-0.18455	1463476
2970.11	-0.188578	1465450
2980.61	-0.192267	1467192
2990	-0.194824	1468570
3000.54	-0.196638	1471330
3011.02	-0.196947	1472886
3020.3	-0.196162	1474203
3030.61	-0.194013	1476555
3041.04	-0.191767	1478967
3050.45	-0.189606	1481241
3060.82	-0.187226	1482899
3070.09	-0.185106	1484927
3080.41	-0.182628	1487185
3090.73	-0.180954	1489021
3100.03	-0.179389	1490733
3110.93	-0.177334	1492859
3120.46	-0.176354	1494671
3130.08	-0.175618	1497065
3140.7	-0.174945	1499357
3150.27	-0.174485	1501715
3160.87	-0.17417	1503897
3170.71	-0.174057	1506615
3180.72	-0.174078	1509238
3190.62	-0.174172	1511470
3200.78	-0.174273	1514576
3210.93	-0.174316	1517260
3221.09	-0.174252	1520148
3230.11	-0.174053	1522922
3240.27	-0.173597	1525676
3250.42	-0.17284	1528264
3260.58	-0.171772	1530838
3270.73	-0.170418	1533404
3280.89	-0.168817	1536096
3291.07	-0.166994	1538678
3300.13	-0.165201	1540938
3310.31	-0.162993	1543584
3320.53	-0.160573	1545962
3330.74	-0.157938	1548676
3340.9	-0.15509	1551272
3350.58	-0.152148	1553478
3360.58	-0.148856	1556091
3370.06	-0.14548	1558055
3380.6	-0.141417	1560442
3390.31	-0.137381	1562492
3400.37	-0.132903	1564430
3410.37	-0.12815	1566642
3420.37	-0.123076	1568594
3430.36	-0.117677	1571360
3440.36	-0.111968	1573672
3450.36	-0.105983	1576220
3460.36	-0.0997636	1578860
3470.37	-0.0933622	1581104
3480.37	-0.0868478	1583428
3490.36	-0.0802839	1586162
3500.35	-0.0737325	1588054
3510.34	-0.0672572	1590304
3520.34	-0.0609137	1592206
3530.34	-0.054742	1594454
3540.38	-0.0487626	1596770
3550.43	-0.0430105	1598551
3560.48	-0.0374905	1601175
3570.51	-0.0321987	1603784
3580.53	-0.027148	1605887
3590.56	-0.0223318	1608805
3600.59	-0.0177482	1610806
3610.61	-0.0133783	1613303
3620.64	-0.00919822	1615993
3630.73	-0.00516037	1618254
3640.83	-0.00126926	1620842
3650.93	0.00248762	1623602
3661.04	0.00612412	1626174
3670.04	0.0092657	1628754
3680.18	0.012693	1631246
3690.4	0.0160208	1634200
3700.62	0.019217	1637028
3710.85	0.0222652	1639800
3721.09	0.025143	1642292
3730.16	0.0275321	1644742
3740.36	0.0300104	1647008
3750.54	0.0322369	1649292
3760.48	0.0341428	1651936
3770	0.0356798	1654776
3780.58	0.0368784	1657792
3790.15	0.0378676	1660342
3800.64	0.0386743	1663636
3810.11	0.0393171	1665824
3820.66	0.0389684	1669308
3830.12	0.038365	1672234
3840.58	0.0373814	1675123
3851.03	0.0361171	1678763
3860.54	0.0347197	1681422
3870.06	0.0331308	1683908
3880.98	0.0311236	1686961
3890	0.0292991	1689177
3900.15	0.0270652	1692460
3910.31	0.0246652	1695352
3920.46	0.0221385	1698318
3930.61	0.0195196	1701305
3940.76	0.0168306	1704467
3950.91	0.0140853	1707570
3961.07	0.0112956	1710441
3970.09	0.00879024	1712798
3980.23	0.00595731	1715763
3990.36	0.00311813	1718354
4000.49	0.000281902	1721056
4010.61	-0.00254735	1723376
4020.74	-0.0053625	1725584
4030.87	-0.00815345	1728079
4040.99	-0.0109069	1730428
4050.02	-0.0133176	1732836
4060.19	-0.0159682	1735483
4070.37	-0.0185382	1738069
4080.59	-0.0210175	1741167
4090.62	-0.023344	1744120
4100.29	-0.0254741	1746354
4110.01	-0.0275019	1749362
4120.17	-0.0294905	1751737
4130.86	-0.0314388	1755116
4140.35	-0.033042	1758329
4150.9	-0.0346836	1760719
4160.34	-0.0360275	1763593
4170.82	-0.0373827	1766079
4180.21	-0.0384704	1768340
4190.69	-0.0395453	1770820
4200.13	-0.0403832	1773379
4210.68	-0.0411698	1776422
4220.47	-0.0417557	1778953
4230.06	-0.0421927	1781171
4240.9	-0.0425229	1783738
4250.7	-0.0426763	1785984
4260.2	-0.0426993	1788301
4270.97	-0.0425862	1791005
4280.39	-0.0423745	1792770
4290.87	-0.042025	1795055
4300.36	-0.0416109	1796933
4310.34	-0.0410806	1799373
4320.07	-0.0404722	1802105
4330.69	-0.0397078	1804693
4340.25	-0.0389302	1806864
4350.9	-0.0379648	1809474
4360.24	-0.0370295	1811594
4370.6	-0.035892	1814343
4380.08	-0.0347511	1817099
4390.66	-0.0333548	1820033
4400.26	-0.031964	1823226
4410.98	-0.0302551	1826538
4420.3	-0.0286307	1829300
4430.96	-0.0265935	1832732
4440.45	-0.0246918	1835758
4450.85	-0.0223676	1838828
4460.18	-0.0218304	1841428
4470.61	-0.0191467	1844443
4480.14	-0.0155675	1847214
4490.57	-0.0118675	1849738
4500.08	-0.00741944	1852162
4510.96	-0.00195571	1854912
4520.56	0.00265008	1857498
4531.01	0.00773124	1859899
4541.01	0.0128625	1862149
4551.1	0.0183849	1864550
4560.93	0.0241977	1866672
4570.77	0.0304126	1868914
4580.37	0.0370192	1871824
4590.01	0.0466867	1873674
4600.33	0.0553215	1876502
4610.67	0.0626667	1878913
4620.24	0.0695079	1881497
4630.08	0.0769416	1884101
4640.93	0.0852843	1887352
4650.28	0.0924869	1889850
4660.99	0.100752	1892417
4670.45	0.108098	1894287
4680.9	0.11626	1896643
4690.31	0.123636	1899019
4700.74	0.131787	1901042
4710.13	0.139078	1903243
4720.6	0.14709	1905641
4730	0.154148	1908155
4740.45	0.161787	1910438
4750.89	0.169188	1912364
4760.32	0.175625	1914594
4770.76	0.182452	1916889
4780.19	0.18831	1918976
4790.63	0.194407	1921260
4800.02	0.199528	1922969
4810.59	0.204835	1925682
4821.02	0.209568	1928501
4830.3	0.213333	1930348
4840.63	0.217	1932804
4850.03	0.219897	1934610
4860.74	0.22182	1937126
4870.34	0.223563	1939681
4880.93	0.225003	1942468
4890.36	0.225742	1944924
4900.67	0.225928	1946752
4910.09	0.22563	1948250
4920.8	0.224768	1949817
4930.41	0.223465	1951843
4940.03	0.221614	1953931
4950.33	0.219066	1956228
4960.63	0.215969	1958927
4970.95	0.212326	1960516
4980.45	0.208513	1962698
4990.83	0.203863	1965387
5000.17	0.19927	1967221
5010.89	0.193533	1969586
5020.71	0.187842	1971622
5030.32	0.181852	1973801
5040.05	0.175345	1976079
5051.02	0.167453	1979318
5060.4	0.160242	1982388
5070.99	0.151606	1984224
5081.01	0.143022	1986295
5090.69	0.134394	1988100
5100.03	0.125719	1990072
5110.41	0.115829	1992099
5120.84	0.105728	1994041
5130.18	0.0964618	1996008
5140.74	0.0855742	1998204
5150.1	0.0757855	2000476
5160.15	0.0652568	2002634
5170.39	0.054376	2004638
5180.67	0.0433507	2007140
5190.96	0.0323373	2009649
5200.46	0.022216	2012251
5210.35	0.0117172	2014374
5220.64	0.000896982	2017157
5230.93	-0.00974906	2020243
5240.07	-0.0190219	2022412
5250.36	-0.0291966	2024524
5260.65	-0.0390464	2026989
5270.95	-0.0485348	2029163
5280.14	-0.0566541	2031079
5290.34	-0.065234	2033262
5300.37	-0.0731711	2035195
5310.5	-0.0806385	2037014
5320.97	-0.0877244	2038806
5330.25	-0.0934496	2040234
5340.56	-0.0991798	2041948
5350.88	-0.104244	2044721
5360.26	-0.108263	2046613
5370.68	-0.112076	2048743
5380.1	-0.114928	2049995
5390.64	-0.117185	2052133
5400.23	-0.117436	2053570
5410.84	-0.117928	2055598
5420.42	-0.118284	2057367
5430.98	-0.117621	2059679
5440.43	-0.116673	2061482
5450.86	-0.115151	2063365
5460.3	-0.113293	2065111
5471.02	-0.110737	2067107
5480.53	-0.108056	2069111
5490.58	-0.104748	2070708
5500.89	-0.101009	2072621
5510.56	-0.0969272	2074621
5520.05	-0.0924876	2076404
5530.66	-0.0869579	2078633
5540.35	-0.0816026	2080258
5550.66	-0.0757213	2082118
5560.36	-0.0692478	2084303
5570.91	-0.058916	2086280
5580.3	-0.0495424	2088344
5590.75	-0.0400377	2089861
5600.67	-0.0313388	2091424
5610.98	-0.0220959	2093146
5620.15	-0.0138269	2093861
5630.47	-0.00454166	2095196
5640.78	0.00467079	2096055
5651.1	0.0137724	2097376
5660.27	0.0217367	2098798
5670.59	0.0304592	2099905
5680.9	0.0388247	2101177
5690.07	0.0458919	2102217
5700.39	0.0533534	2103702
5710.7	0.0602355	2104609
5721.02	0.0664997	2106146
5730.19	0.0715147	2107161
5740.5	0.0764918	2108621
5750.82	0.0807309	2110143
5761.14	0.0842659	2111785
5771.08	0.086688	2112750
5780.19	0.088486	2114003
5790.58	0.089887	2115182
5800.98	0.0904485	2116086
5810.2	0.091313	2117513
5820.54	0.0909518	2118855
5830.94	0.0900004	2120797
5840.89	0.0888342	2122099
5850.27	0.0874534	2123321
5860.7	0.0855782	2124924
5870.12	0.0836457	2126673
5880.57	0.0812581	2128328
5890.99	0.0786465	2129596
5900.36	0.0761616	2130471
5910.93	0.0733613	2132006
5921.08	0.0704713	2132918
5930.25	0.068672	2133692
5940.82	0.0668386	2135779
5950.21	0.063481	2136693
5960.64	0.0595581	2138018
5970.2	0.0562012	2138925
5980.09	0.0525326	2141021
5990.93	0.048573	2142499
6000.74	0.0450484	2143867
6010.37	0.0416882	2145386
6020.79	0.0381406	2147921
6030.19	0.035011	2149829
6040.98	0.0315085	2152243
6050.59	0.0284822	2154380
6060.22	0.025543	2156425
6070.28	0.0225966	2158795
6080.33	0.0198178	2161582
6090.57	0.0171865	2163760
6100.2	0.0149146	2165940
6110.93	0.0126256	2168374
6120.8	0.0107441	2170802
6131.07	0.00902305	2173470
6140.67	0.00764086	2175752
6150.14	0.00649357	2178204
6160.65	0.00549051	2180770
6170.17	0.00480958	2183055
6180.59	0.00434539	2185901
6190.01	0.00416238	2188271
6201.05	0.00420098	2191080
6211.02	0.00446178	2193607
6220.43	0.00488526	2195693
6230.89	0.00554873	2197988
6240.4	0.00631739	2200173
6250.15	0.00725625	2202351
6260.7	0.00843314	2204545
6270.08	0.00961172	2206605
6280.52	0.0110619	2208454
6290.1	0.0125127	2210752
6300.58	0.014223	2213257
6310.02	0.015864	2214763
6320.48	0.0177873	2217486
6330.92	0.0198079	2219711
6340.32	0.0217063	2221457
6350.75	0.0239016	2223475
6360.14	0.0259535	2224787
6370.59	0.0283248	2226832
6380.04	0.0305506	2228234
6390.48	0.033091	2229354
6400.93	0.0357122	2231302
6410.34	0.0381316	2233355
6420.79	0.0408739	2235752
6430.32	0.0434088	2237510
6440.22	0.0460724	2239669
6450.94	0.048974	2241887
6460.38	0.051535	2244368
6470.86	0.0543748	2247182
6480.51	0.0569742	2250084
6490.99	0.0597665	2253164
6500.41	0.062243	2256148
6510.87	0.0649367	2259391
6520.27	0.0672997	2261948
6530.31	0.0697534	2264873
6540.01	0.0720414	2268029
6550.71	0.074459	2271564
6560.24	0.0765097	2274454
6570.83	0.078665	2277313
6580.34	0.080483	2280053
6590.8	0.0823433	2283163
6600.18	0.0838849	2286667
6610.69	0.0854618	2289491
6620.07	0.0867302	2292431
6630.73	0.0880063	2294989
6640.87	0.0890519	2298405
6650.74	0.0899059	2301568
6660.13	0.0905627	2304199
6670.83	0.0911214	2307033
6680.96	0.0914568	2309712
6691.09	0.0915964	2312882
6700.09	0.0915498	2315549
6711.04	0.0912678	2318710
6720.88	0.0906961	2321809
6730.53	0.0898914	2324618
6740	0.088679	2327272
6750.58	0.0873419	2329265
6760.08	0.0860136	2332313
6770.52	0.084303	2334431
6780.96	0.0823069	2336577
6790.39	0.0802767	2338145
6800.85	0.0777925	2340203
6810.26	0.0753556	2341810
6820.81	0.0724033	2343494
6830.37	0.069535	2344874
6840.01	0.0664561	2346773
6850.63	0.0628675	2349092
6860.04	0.0615048	2351294
6870.52	0.0579358	2353466
6881.01	0.0535959	2356220
6890.5	0.049996	2358663
6900.05	0.0458327	2360412
6910.61	0.040814	2362909
6920.08	0.036396	2365595
6930.58	0.0315694	2368092
6940.06	0.0271012	2370569
6950.6	0.0218382	2373337
6960.09	0.016801	2375257
6970.66	0.0109409	2377826
6980.17	0.00555948	2379604
6990.69	-0.000476316	2381873
7000.17	-0.00608792	2383879
7010.71	-0.0124335	2386531
7020.26	-0.0186634	2388648
7030.97	-0.0260134	2391694
7040.41	-0.0323705	2394046
7050.94	-0.0390668	2396248
7060.46	-0.0449441	2398495
7070.17	-0.050757	2400627
7080.04	-0.0565342	2403129
7090.6	-0.0626053	2405103
7100.02	-0.0679068	2407147
7110.54	-0.0736469	2409838
7120.36	-0.0788259	2411871
7130.99	-0.0842402	2414884
7140.5	-0.0889208	2417201
7150.02	-0.0934489	2419430
7160.59	-0.0982629	2422866
7170.13	-0.102384	2425744
7181.01	-0.106821	2428395
7190.98	-0.110637	2431342
7200.96	-0.114222	2433982
7210.14	-0.117321	2436222
7220.46	-0.120579	2438647
7230.79	-0.123584	2441476
7241.12	-0.126359	2443933
7250.29	-0.128554	2446894
7260.62	-0.130702	2450224
7270.94	-0.132589	2453452
7280.09	-0.13405	2455356
7290.34	-0.135261	2458212
7300.53	-0.136578	2460513
7310.69	-0.13774	2462722
7320.83	-0.138572	2464463
7330.97	-0.138825	2465662
7341.11	-0.138945	2467536
7350.13	-0.138999	2468437
7360.27	-0.138887	2470395
7370.41	-0.138581	2472596
7380.55	-0.138123	2473758
7390.69	-0.137546	2476165
7400.83	-0.136855	2477450
7410.97	-0.136051	2479482
7421.11	-0.135146	2481214
7430.12	-0.134269	2483070
7440.26	-0.133214	2486042
7450.4	-0.132102	2487763
7460.54	-0.130951	2490375
7470.68	-0.12978	2492361
7480.83	-0.128607	2494631
7490.97	-0.127451	2496107
7501.11	-0.126321	2497777
7510	-0.125364	2499698
7520.77	-0.124255	2501675
7530.43	-0.123344	2503369
7540.84	-0.122411	2505366
7550.5	-0.121238	2507056
7560.08	-0.120452	2508128
7570.43	-0.119597	2510270
7580.78	-0.118808	2511767
7590.38	-0.118139	2512936
7600.1	-0.11752	2514510
7611.06	-0.116818	2516460
7620.97	-0.116342	2518678
7630.88	-0.115916	2520938
7640.79	-0.115526	2522599
7650.7	-0.115178	2524765
7660.61	-0.114876	2526099
7670.52	-0.114622	2528166
7680.43	-0.114427	2529405
7690.35	-0.114303	2530765
7700.26	-0.114249	2531890
7710.17	-0.11426	2533061
7720.13	-0.114332	2534243
7730.22	-0.114468	2535161
7740.33	-0.114669	2536401
7750.45	-0.114932	2537544
7760.56	-0.115254	2538991
7770.68	-0.115633	2540442
7780.8	-0.116067	2541328
7790.93	-0.116555	2542539
7801.07	-0.117094	2543566
7810.07	-0.117613	2544294
7820.18	-0.118239	2545707
7830.3	-0.118908	2546545
7840.42	-0.119617	2547751
7850.53	-0.120363	2548303
7860.65	-0.121146	2549711
7870.77	-0.121961	2551173
7880.89	-0.122805	2552977
7891	-0.123677	2555005
7900.99	-0.12456	2556453
7910.91	-0.125456	2558375
7920.82	-0.126365	2559779
7930.73	-0.127286	2562069
7940.64	-0.128212	2564629
7950.54	-0.129139	2566424
7960.44	-0.130062	2569482
7970.35	-0.130976	2572106
7980.25	-0.131877	2574658
7990.15	-0.132758	2577258
8000.06	-0.133614	2580040
8011.06	-0.134529	2582189
8020.97	-0.135314	2584881
8030.87	-0.136058	2587426
8040.78	-0.136754	2589718
8050.68	-0.137397	2592152
8060.58	-0.137983	2593932
8070.49	-0.138506	2596753
8080.39	-0.138962	2598866
8090.3	-0.139347	2600465
8100.2	-0.139658	2601787
8110.1	-0.139894	2603683
8120.01	-0.140059	2605744
8130.59	-0.140164	2607492
8140.1	-0.140197	2609195
8151	-0.14014	2611553
8160.77	-0.139983	2613383
8170.2	-0.139731	2615755
8180.59	-0.139349	2618171
8190.12	-0.138919	2619654
8200.87	-0.138354	2621228
8210.74	-0.137771	2623412
8220.31	-0.13715	2625459
8230.04	-0.136464	2627577
8240.71	-0.135649	2629574
8250.13	-0.134876	2631492
8260.85	-0.133936	2633291
8270.72	-0.133015	2635276
8280.45	-0.132057	2637207
8290.08	-0.131061	2639373
8300.73	-0.129906	2641794
8310.3	-0.12882	2643665
8320.93	-0.127565	2645901
8330.53	-0.126385	2647546
8340.23	-0.12515	2649258
8350.05	-0.123858	2650716
8360.12	-0.122491	2652387
8370.19	-0.121082	2654250
8381.05	-0.119511	2655331
8390	-0.118175	2657192
8400.73	-0.11652	2659022
8410.12	-0.115013	2660577
8420.57	-0.113269	2661716
8430.37	-0.111569	2663848
8440.03	-0.109832	2665024
8450.59	-0.107858	2665935
8460.42	-0.105955	2667330
8470.03	-0.104039	2667998
8480.1	-0.101971	2669414
8490.95	-0.0996692	2670814
8500.58	-0.0975635	2672133
8510.61	-0.0953224	2673259
8520.31	-0.0931156	2674935
8530.81	-0.0906892	2677389
8540.25	-0.0884737	2678483
8550.8	-0.0859457	2680042
8560.61	-0.0835382	2681123
8570.13	-0.0811402	2682540
8580.67	-0.0784208	2684247
8590.16	-0.0759273	2685629
8600.63	-0.0731441	2687060
8610.76	-0.0704525	2688345
8620.63	-0.067855	2689419
8630.23	-0.0650721	2691280
8640.8	-0.0637711	2692788
8650.23	-0.0606696	2693285
8660.71	-0.0563451	2694621
8670.25	-0.0525873	2695766
8680.81	-0.0484415	2697280
8690.31	-0.0442778	2698465
8701.01	-0.0396106	2700040
8710.71	-0.0356408	2701590
8720.25	-0.0318815	2702799
8731.06	-0.0276731	2703940
8740.59	-0.0239064	2705334
8750.07	-0.0200212	2706858
8760.64	-0.0155466	2708360
8770.42	-0.0113529	2709447
8780.14	-0.0072241	2711135
8790.66	-0.00282409	2712667
8800.13	0.00110136	2714123
8810.65	0.0054774	2715861
8820.16	0.00947084	2717326
8830.98	0.0140493	2718979
8840.59	0.0181089	2720169
8850.22	0.0221282	2721243
8861.02	0.0265648	2722394
8870.1	0.0302362	2722851
8880.3	0.0343231	2724524
8890.51	0.0383714	2725399
8900.71	0.0423711	2727171
8910.89	0.0462905	2728704
8920.93	0.0500682	2729584
8931.01	0.0537705	2730664
8940.94	0.0573313	2732282
8950.63	0.0607251	2733929
8960.61	0.0641415	2735152
8970.58	0.0674718	2736465
8980.18	0.0705898	2737794
8990.71	0.0739031	2738500
9000.03	0.0767431	2740083
9010.43	0.0798054	2740436
9020.92	0.0827878	2741288
9030.47	0.0854066	2741989
9040.23	0.0879916	2742404
9050.08	0.0905009	2743044
9060.55	0.0930604	2743608
9070.87	0.0954726	2744323
9080.16	0.097551	2744365
9090.48	0.0997595	2744235
9100.08	0.101719	2744961
9110.65	0.103771	2745523
9120.09	0.105515	2746358
9130.76	0.107382	2747263
9140.35	0.108989	2748607
9150.91	0.110707	2750835
9160.41	0.112104	2751692
9170.97	0.113403	2753318
9180.53	0.114593	2754837
9190.38	0.115775	2756254
9201.05	0.116905	2757945
9210.67	0.117807	2759563
9220.18	0.118602	2761336
9230.91	0.119406	2762596
9240.59	0.120059	2765030
9250.32	0.120638	2766473
9260.03	0.121138	2768694
9270.35	0.121585	2770844
9280.67	0.121952	2772867
9290.99	0.122239	2774303
9300.5	0.122428	2775166
9310.1	0.122534	2776938
9321.09	0.122532	2778669
9330.64	0.122417	2780186
9340.05	0.122212	2781532
9350.5	0.1219	2783155
9360.99	0.121517	2785497
9370.58	0.121116	2786870
9380.16	0.120667	2788139
9390.81	0.120106	2789560
9400.49	0.119538	2791804
9411.04	0.118851	2793489
9420.53	0.118172	2795580
9430.96	0.117359	2797466
9440.34	0.116568	2799494
9450.8	0.115621	2801217
9460.18	0.114714	2802722
9470.61	0.113646	2805202
9481.03	0.112515	2807420
9490.48	0.111436	2808994
9500.03	0.110295	2809590
9510.59	0.108974	2810342
9520.06	0.107734	2811089
9530.57	0.106299	2812218
9540.07	0.104948	2813501
9550.64	0.103386	2814719
9560.12	0.101931	2815408
9570.63	0.10026	2816120
9580.16	0.0986934	2816244
9590.79	0.0968872	2816490
9600.43	0.0951952	2816839
9610.86	0.0933111	2817545
9620.34	0.0915497	2817554
9630.9	0.0895323	2818151
9640.44	0.0876629	2818203
9650.22	0.0857026	2817618
9660.14	0.0836681	2817515
9671.05	0.0813805	2817657
9680.72	0.0793118	2817613
9690.19	0.0772502	2818059
9700.71	0.0749225	2818244
9710.21	0.0727876	2818059
9720.83	0.070372	2817660
9730.45	0.0681559	2818143
9740.01	0.0659335	2818673
9750.8	0.0634013	2818718
9760.65	0.0610738	2818935
9770.42	0.0587522	2819210
9780.94	0.0562437	2818666
9790.68	0.0539153	2819199
9800.51	0.0515639	2819470
9810.83	0.0490942	2820070
9820.13	0.0468762	2820930
9830.5	0.0444114	2821217
9840.99	0.04193	2821599
9850.55	0.0396862	2821698
9860.46	0.0373787	2821528
9870.25	0.0351247	2822044
9880.73	0.0327391	2822097
9890.33	0.0305872	2820846
9901.04	0.0282251	2820736
9910.77	0.026118	2820508
9920.05	0.0241455	2820837
9930.44	0.0219884	2819598
9940.01	0.0200494	2819742
9950.89	0.0179072	2819250
9960.17	0.0161338	2819584
9970.01	0.0143086	2820662
9980.02	0.0125142	2821504
9990.02	0.0107815	2823065
10000.8	0.00898529	2824198
10010.5	0.00743917	2825668
10020.1	0.0059904	2827671
10030.4	0.00450313	2829420
10040.7	0.00311183	2831271
10050	0.00193489	2832926
10060.3	0.000710155	2834300
10070.7	-0.000434917	2836577
10080.1	-0.00138903	2838128
10090.5	-0.00236078	2840665
10100.9	-0.00355036	2842558
10110.2	-0.00415303	2844035
10120.6	-0.00485051	2845631
10130.2	-0.0055064	2846562
10140.1	-0.00602679	2848252
10150.6	-0.00646658	2849770
10160	-0.00679152	2850424
10170.6	-0.00708193	2852014
10180.9	-0.00729631	2852962
10190.3	-0.0074317	2854888
10200.7	-0.00751751	2856007
10210	-0.0075627	2857623
10220.4	-0.00753753	2859468
10230.7	-0.00739342	2861901
10241	-0.00719558	2864554
10250.3	-0.00696972	2866819
10260.7	-0.00667044	2870125
10270.2	-0.00635685	2873361
10280.6	-0.00595961	2876012
10291	-0.00550297	2879343
10300.4	-0.00503785	2881553
10310.9	-0.00445912	2883970
10320.3	-0.00388645	2886197
10330.7	-0.00319531	2887836
10340.1	-0.002527	2890201
10350.6	-0.00173156	2892149
10360.2	-0.000964059	2893768
10370.9	-5.90626e-05	2894904
10380.6	0.000789346	2895400
10390.4	0.00168486	2896136
10400.6	0.00264449	2897584
10410	0.00356159	2898735
10420.5	0.00460353	2899896
10431	0.00566471	2901541
10440.5	0.00663276	2903199
10450.9	0.00770692	2904155
10460.3	0.00867528	2905282
10470.7	0.00974649	2906532
10480.1	0.0107048	2906583
10490.8	0.011781	2907075
10500.7	0.0127476	2908325
10511	0.0137459	2908971
10520.3	0.014621	2909884
10530.6	0.0155747	2910481
10540.5	0.016453	2910120
10550.4	0.0173197	2910457
10560.3	0.0181503	2910413
10570.9	0.0190056	2911481
10580.2	0.0197346	2913074
10590.5	0.0205154	2913609
10600.9	0.0212666	2914270
10610.2	0.0219155	2914883
10620.5	0.0226112	2915284
10630	0.023221	2916319
10640.5	0.0238566	2918245
10650.9	0.0244654	2919108
10660.4	0.0250016	2919112
10671	0.0255906	2919706
10680	0.0260802	2920555
10691	0.026664	2921141
10700.5	0.0271603	2922200
10710.9	0.0276834	2923020
10720.3	0.0281423	2923610
10730.1	0.0286053	2923911
10741	0.0291009	2924194
10750.8	0.0295325	2924420
10760.5	0.0299502	2925429
10770.9	0.0303826	2925797
10780.2	0.0307627	2925711
10790.9	0.0311925	2925889
10800.8	0.0315765	2925741
10810.6	0.0319441	2926677
10820.9	0.0323195	2927515
10830.4	0.032652	2928079
10840.3	0.0329822	2928120
10850.9	0.0333194	2929337
10860.3	0.0335996	2929456
10870.8	0.0338895	2929701
10880.2	0.0341297	2929975
10890.8	0.0343714	2929642
10900.2	0.0345643	2929133
10910.8	0.034751	2928809
10920.2	0.0348914	2928879
10930.7	0.0350125	2929006
10940.6	0.0350886	2928670
10950.8	0.0351254	2929304
10961	0.0351159	2930160
10970	0.0350663	2931179
10980.9	0.0349526	2932755
10990.6	0.0347993	2933927
11000.6	0.0345852	2935040
11010.1	0.0343296	2935407
11020.7	0.0339796	2936244
11030.4	0.0336006	2936544
11041	0.0331197	2938246
11050.4	0.0326367	2938214
11060	0.0320849	2938439
11070.9	0.0313993	2938440
11080.3	0.0307448	2939046
11090.9	0.0299552	2939858
11100.4	0.029191	2940145
11110	0.0283703	2940530
11120.6	0.0274067	2941177
11130.1	0.0264904	2941797
11140.6	0.025435	2942621
11150	0.024441	2943311
11160.5	0.0232853	2943236
11170.6	0.0221332	2944270
11180	0.021013	2944753
11190.5	0.0197418	2945574
11200.9	0.0184343	2946382
11210.3	0.0172295	2946878
11220.7	0.0158609	2947917
11230.2	0.0145937	2948606
11240.7	0.0131658	2949484
11250.3	0.0118606	2950014
11261	0.0103795	2951203
11270.4	0.00907292	2951747
11280.9	0.00761034	2952184
11290.9	0.00621024	2952443
11300.8	0.00482754	2952634
11310.3	0.00350253	2952859
11320.8	0.00202948	2952982
11330.3	0.000704252	2953496
11340.8	-0.000765865	2953741
11350.3	-0.00209511	2953650
11360.3	-0.00349366	2953761
11370.4	-0.00489318	2954657
11380.6	-0.00628897	2955127
11390.3	-0.00762148	2956157
11400.9	-0.00904637	2957740
11410.4	-0.0103131	2958544
11421	-0.0117024	2959086
11430.5	-0.0129359	2960150
11440.3	-0.0141888	2961067
11450.5	-0.0154676	2961378
11460.7	-0.016721	2962015
11471	-0.0179503	2962356
11480.1	-0.0190221	2963011
11490.3	-0.0202038	2963460
11500.5	-0.0213619	2963980
11510.8	-0.0224939	2964913
11520.9	-0.023585	2965630
11531	-0.0246529	2966580
11540.1	-0.0255911	2967008
11550.3	-0.0266199	2968273
11560.5	-0.0276199	2970214
11570.7	-0.0285939	2971616
11580.9	-0.0295421	2973455
11591.1	-0.0304628	2974290
11600.1	-0.0312544	2974943
11610.2	-0.0321182	2975286
11620.1	-0.0329451	2975588
11630.1	-0.033745	2975072
11641.1	-0.034602	2973901
11651	-0.0353457	2972921
11660.9	-0.0360635	2972267
11670.8	-0.0367551	2971697
11680.7	-0.0374203	2970535
11690.6	-0.0380589	2969297
11700.5	-0.0386706	2968385
11710.3	-0.0392553	2967964
11720.2	-0.0398127	2967674
11730.1	-0.0403426	2967933
11740	-0.0408446	2968229
11751	-0.0413693	2968659
11760.9	-0.0418113	2969461
11770.8	-0.0422241	2969552
11780.8	-0.0426083	2970289
11790.7	-0.042962	2970676
11800.6	-0.0432899	2971603
11810.6	-0.0436292	2973124
11820.6	-0.0439562	2973969
11830.6	-0.0441414	2974839
11840.7	-0.0443412	2975765
11850.7	-0.0443301	2977544
11860.8	-0.0443491	2978479
11870.8	-0.0443753	2979613
11880.9	-0.0443413	2979276
11891	-0.0442497	2979475
11901	-0.0441125	2979330
11910	-0.0439557	2979103
11920.1	-0.0437404	2978154
11930.3	-0.0434824	2977893
11940.5	-0.0431796	2977377
11950.6	-0.042829	2977137
11960.8	-0.0424282	2977180
11970.9	-0.0419754	2976755
11981.1	-0.0414694	2976121
11990.1	-0.0409745	2976018
12000.2	-0.040367	2975758
12010.4	-0.0399374	2975668
12020.6	-0.0398669	2974780
12030.7	-0.0393428	2974435
12040.9	-0.03859	2973754
12051	-0.0377423	2973489
12060.9	-0.036892	2973130
12070.2	-0.0360368	2972387
12080.8	-0.0349916	2972602
12090.2	-0.0339947	2972547
12100.6	-0.0328464	2973127
12111	-0.031617	2973201
12121	-0.0303778	2974025
12131.1	-0.0290888	2974232
12140.1	-0.0279272	2975392
12150.2	-0.0266029	2976541
12160.3	-0.0252568	2977003
12170.4	-0.0238846	2978705
12180.5	-0.0224838	2979469
12190.6	-0.0210547	2980583
12200.7	-0.0196008	2980741
12210.8	-0.0181277	2980906
12220.9	-0.0166421	2981542
12230.7	-0.0151952	2981264
12240.2	-0.0138019	2981858
12251	-0.0122062	2981330
12261.1	-0.0107275	2981520
12270.1	-0.0094239	2981312
12280.2	-0.0079729	2980963
12290.3	-0.00654183	2981428
12300.1	-0.00517939	2981580
12310.5	-0.00375572	2981654
12320.9	-0.00236609	2981507
12330.4	-0.00113202	2981484
12340.6	0.000141792	2980989
12350.7	0.00137241	2980211
12360.9	0.00255421	2980033
12370.9	0.00367154	2979249
12380.3	0.00466478	2979331
12390.7	0.0057077	2978285
12400.2	0.00659166	2977183
12410.2	0.00747679	2976633
12420.4	0.00830126	2976261
12430.5	0.00905121	2976494
12440.5	0.00972907	2976236
12450.5	0.0103378	2975992
12460.4	0.0108733	2975988
12470.9	0.0113615	2976245
12480.3	0.0117316	2976113
12490.8	0.0120644	2976600
12500.5	0.0122972	2977112
12511.1	0.0124691	2977673
12520.6	0.0125509	2978257
12530.4	0.0125618	2978691
12540.2	0.012498	2979911
12550	0.012359	2980917
12560.9	0.0121156	2982573
12570.7	0.0118159	2983805
12580.5	0.011439	2984783
12590.3	0.0109863	2986027
12600.1	0.0104572	2987260
12611	0.00977584	2988891
12620.8	0.00907935	2990825
12630.3	0.00832688	2992004
12640.2	0.00747745	2993059
12651.1	0.00644378	2992818
12660.9	0.00543333	2993740
12670.7	0.00434779	2995112
12680.5	0.00318843	2995472
12690.3	0.00195747	2996299
12700.1	0.000659231	2996690
12711	-0.000845371	2997417
12720.8	-0.00223726	2998016
12730.7	-0.00367342	2998489
12740.5	-0.00516979	2998939
12750.4	-0.00673777	2998841
12760.3	-0.00837818	2999325
12770.3	-0.0100865	2999928
12780.2	-0.0118512	3000732
12790.1	-0.0136685	3000878
12800.1	-0.0155506	3001609
12810.2	-0.0175019	3002146
12820.3	-0.0195057	3002933
12830.3	-0.0204882	3003509
12840.4	-0.0224114	3004358
12850.5	-0.0246738	3004810
12860.5	-0.0269202	3005166
12870.4	-0.0290955	3005894
12880.4	-0.0312237	3006330
12890.4	-0.0333215	3007357
12900.4	-0.0353961	3007924
12910.3	-0.037449	3008610
12920.3	-0.03948	3009029
12930.3	-0.0414874	3009726
12940.2	-0.0434631	3010504
12950.1	-0.0453939	3011373
12961	-0.047482	3012412
12970.8	-0.0493084	3013061
12980.5	-0.0510902	3013631
12990.3	-0.0528256	3014252
13000.1	-0.0545134	3014778
13010.9	-0.0563317	3015722
13020.7	-0.0579151	3016841
13030.5	-0.0594464	3017831
13040.2	-0.0609238	3018927
13050	-0.0623456	3019525
13060.9	-0.0638586	3021386
13070.6	-0.0651588	3022431
13080.4	-0.0664002	3022797
13090.2	-0.0675825	3023854
13101	-0.0688269	3024140
13110.8	-0.0698849	3024215
13120.6	-0.0708852	3023924
13130.3	-0.0718288	3023775
13140.1	-0.0727173	3023191
13150.9	-0.0736404	3022539
13160.6	-0.0744116	3021948
13170.3	-0.0751315	3020927
13181	-0.0758765	3020796
13190.6	-0.0765003	3020457
13200.2	-0.077077	3020777
13210.7	-0.0776681	3020533
13220.2	-0.0781627	3019684
13230.7	-0.0786712	3019141
13240.1	-0.0790955	3018864
13250.5	-0.0795346	3018750
13261	-0.0799107	3018593
13270.4	-0.0802677	3018238
13281	-0.0806415	3018544
13290.4	-0.0809495	3018448
13301	-0.0812657	3018796
13310.6	-0.0815382	3018346
13320.2	-0.0818005	3018557
13331	-0.082082	3018668
13340.6	-0.0823264	3018815
13350.2	-0.0825623	3018551
13360.7	-0.0828136	3018755
13370.1	-0.0830388	3019117
13380.6	-0.0832929	3019636
13391	-0.083554	3019793
13400.5	-0.0837949	3021157
13410.9	-0.084068	3021670
13420.3	-0.084319	3023048
13430.9	-0.0846058	3023613
13440.3	-0.0848693	3023734
13450.7	-0.0851713	3023935
13460.1	-0.0854522	3024215
13470.6	-0.0857769	3024336
13480.4	-0.0860928	3024496
13490.2	-0.0864221	3023697
13500	-0.0867633	3023498
13510.9	-0.0871547	3023075
13520.4	-0.0875048	3022813
13530.8	-0.0879033	3022790
13540.3	-0.0882699	3022764
13550.8	-0.0886871	3022544
13560.3	-0.0890676	3021931
13571	-0.0894969	3021783
13580.7	-0.0898896	3021044
13590.2	-0.0902718	3019911
13600.9	-0.0907012	3019355
13610.6	-0.0910797	3019080
13620.2	-0.0914503	3018952
13630.9	-0.0918503	3018643
13640.5	-0.0921975	3019037
13651	-0.0925597	3018643
13660.5	-0.0928704	3018261
13671	-0.0931904	3017869
13680.6	-0.0934585	3017331
13690.2	-0.0937029	3016795
13700.8	-0.0939435	3016083
13710.4	-0.0941305	3015350
13721	-0.0943003	3014896
13730.5	-0.0944176	3013248
13740.1	-0.0945001	3012966
13750.6	-0.094548	3012443
13760	-0.0945507	3012114
13770.5	-0.0945074	3011474
13781	-0.0944126	3009910
13790.5	-0.0942818	3009591
13800.1	-0.0941037	3008419
13810.7	-0.0938529	3008843
13820.2	-0.0935787	3008800
13830.7	-0.0932182	3007449
13840.2	-0.0928427	3007660
13850.8	-0.0923678	3005943
13860.3	-0.0918852	3005001
13871	-0.0912854	3004279
13880.6	-0.0906859	3003226
13890.4	-0.0900315	3002133
13900.9	-0.0892616	3001816
13910.4	-0.088516	3000925
13921	-0.087619	2999988
13930.8	-0.0867453	2999202
13940.3	-0.0858362	2998424
13950.8	-0.0847822	2997171
13960.5	-0.0837568	2996061
13970.3	-0.0826695	2995637
13980.2	-0.0815299	2995090
13990.8	-0.0802396	2995526
14000.2	-0.0790357	2995473
14010.8	-0.0776454	2994365
14020.2	-0.0763465	2994464
14030.7	-0.0748453	2994329
14040.2	-0.0734452	2994037
14050.8	-0.0718394	2993463
14060.3	-0.0703364	2993156
14070.2	-0.0687486	2992727
14080.9	-0.066977	2991609
14090.5	-0.065345	2991784
14100.2	-0.0636804	2990861
14111	-0.0617789	2989289
14120.9	-0.0600051	2989027
14130.4	-0.058387	2988158
14141	-0.0565001	2986993
14150.9	-0.0544909	2986191
14160.6	-0.0524921	2986342
14170	-0.0505504	2985875
14180.5	-0.0483879	2984554
14190.1	-0.0464051	2983790
14200.9	-0.0441607	2983317
14210.7	-0.0421328	2982180
14220.3	-0.0401339	2980756
14230.9	-0.0379405	2979836
14240.4	-0.0359602	2978703
14251	-0.0337347	2977131
14260.5	-0.031715	2976261
14270.2	-0.0296429	2975064
14280.3	-0.0274995	2973473
14290.9	-0.0252097	2972389
14301	-0.0230569	2970400
14310.1	-0.021113	2969225
14320.4	-0.0189416	2968047
14330.3	-0.0168741	2966660
14340.6	-0.0147423	2965683
14350.8	-0.0126379	2965058
14361	-0.0105568	2964280
14370.9	-0.00856986	2963872
14380.5	-0.00666241	2962738
14390	-0.00478365	2962159
14400.6	-0.00274265	2960946
14411	-0.000742863	2959862
14420.7	0.00107796	2959160
14430.7	0.00292007	2957485
14440.8	0.00476396	2956515
14450.6	0.00650981	2954363
14460.7	0.00826485	2952792
14470.8	0.00998862	2951113
14481	0.0116942	2949053
14490.1	0.0131748	2947678
14500.3	0.0147991	2944697
14510.5	0.0163776	2941963
14520.7	0.0179083	2939350
14531	0.0193894	2936251
14540.1	0.0206624	2933659
14550.3	0.0220441	2930449
14560.5	0.0233703	2927797
14570.7	0.0246391	2924419
14580.9	0.0258487	2921150
14590	0.0268726	2918429
14600.2	0.0279642	2915419
14610.4	0.0289875	2912226
14620.5	0.0299414	2909106
14630.7	0.0308261	2906099
14640.1	0.0315891	2902890
14650.2	0.0323462	2899235
14660.3	0.0330424	2896337
14670.4	0.0336787	2893237
14680.2	0.0342393	2890934
14690.9	0.0347933	2888271
14700.9	0.035204	2885376
14711	0.0355701	2882656
14721.1	0.0359521	2879436
14730.1	0.0362609	2876297
14740.6	0.0365521	2873002
14750.7	0.0367605	2869487
14760.8	0.0369036	2865702
14770.4	0.0369822	2861888
14780.4	0.0370127	2857865
14790.4	0.0370013	2854158
14800.3	0.0369526	2849402
14810.1	0.036865	2845628
14821	0.0367191	2840364
14830.8	0.0365428	2835096
14840.5	0.0363268	2829694
14850.1	0.0360784	2824113
14860.9	0.0357592	2817146
14870.8	0.0354299	2810132
14880.7	0.0350643	2803284
14890.6	0.0346617	2797551
14900.4	0.0342222	2791636
14911	0.0337137	2786650
14920.4	0.0332293	2780950
14930.8	0.0326585	2774363
14940.2	0.0321176	2768411
14950.8	0.0314755	2762079
14960.5	0.0308709	2756631
14970	0.0302491	2750784
14980.6	0.0295371	2744813
14990.2	0.0288799	2738887
15000.7	0.0281334	2733556
15010.3	0.0274398	2728657
15021.1	0.026643	2722990
15030.9	0.0259063	2718140
15040.7	0.0251681	2712681
15050.3	0.0244299	2707653
15061.1	0.023602	2701600
15070.9	0.0228394	2696721
15080.7	0.0220787	2691543
15090.5	0.0213214	2686656
15100.2	0.0205696	2681857
15110.9	0.0197402	2676306
15120.5	0.0189999	2671507
15130.2	0.0182658	2667124
15140.5	0.0174875	2661494
15150.9	0.016712	2656868
15160.5	0.0160057	2652484
15170.1	0.0153106	2648072
15180.7	0.0145616	2643443
15190	0.013913	2638707
15200.4	0.0132064	2634174
15210.8	0.0125106	2629697
15220.4	0.011882	2625659
15231	0.0112017	2621556
15240.4	0.0106118	2617510
15250.9	0.00997916	2612438
15260.1	0.0094344	2608295
15270.4	0.00885189	2603064
15280.7	0.00831733	2597767
15291	0.00779204	2592395
15300.2	0.00732003	2587475
15310.5	0.00659497	2582861
15320.8	0.00617359	2577743
15330.1	0.0058151	2573239
15340.4	0.00545739	2568740
15350.7	0.00512872	2563246
15361	0.00481251	2558810
15370.2	0.00454768	2554489
15380.6	0.00427981	2549657
15390	0.00406466	2545500
15400.6	0.00389133	2540722
15410.2	0.00373579	2536440
15420.9	0.0035685	2531675
15430.5	0.00343749	2527170
15440.1	0.00331962	2522734
15450.8	0.00320082	2517949
15460.4	0.00310605	2513912
15470	0.00302827	2509592
15480.5	0.00296341	2505174
15491	0.0029187	2499958
15500.6	0.00289531	2495309
15510.3	0.00288853	2491258
15521	0.00290023	2485795
15530.6	0.00292774	2481523
15540.4	0.00297152	2476709
15550.1	0.00303039	2472374
15560.7	0.00311026	2467719
15570.2	0.00319449	2462275
15580.9	0.00330387	2456881
15590.7	0.00341672	2451936
15600.9	0.0035458	2445686
15611.1	0.00368726	2439499
15620.9	0.00383397	2434301
15630.3	0.00398301	2429577
15640.7	0.00415581	2423835
15650.2	0.00432059	2419396
15660.7	0.00451116	2413105
15670.2	0.00468859	2407852
15680.7	0.00489215	2402254
15690.2	0.00507911	2396931
15700.6	0.00529199	2391338
15710.3	0.00549434	2386372
15720.4	0.00571064	2381273
15730.6	0.00593207	2376045
15740.9	0.00615818	2371446
15751.1	0.00638751	2367480
15760.2	0.00659384	2363070
15770.5	0.00682866	2358538
15780.7	0.00706493	2354642
15790.3	0.00729124	2351015
15801	0.00754647	2346803
15810.7	0.00777912	2343119
15820.3	0.00801463	2338654
15830.9	0.00828061	2333771
15840.6	0.00852589	2329032
15850.6	0.00878387	2324229
15860.5	0.00904676	2319577
15871	0.0093292	2314215
15880.5	0.00958984	2309823
15890.1	0.00985913	2305201
15900.4	0.0101533	2300665
15910.7	0.0104572	2296098
15920.7	0.0107594	2292158
15930.2	0.0110568	2288439
15940.9	0.0113975	2284041
15950.7	0.0117169	2279953
15961	0.0120662	2275574
15970.3	0.0123896	2271035
15980.8	0.0127631	2265596
15990.5	0.0131223	2261545
16000	0.0134831	2257160
16010.5	0.0138915	2252626
16020.4	0.0142927	2248358
16031	0.0147338	2243471
16040.5	0.015141	2239552
16051.2	0.015613	2235311
16060.4	0.0160366	2231588
16070.8	0.0165202	2228544
16080	0.0169673	2225346
16090.3	0.0174776	2221441
16100.6	0.0180022	2217268
16111	0.0185427	2212964
16120.4	0.0190444	2208566
16130.6	0.0196065	2204133
16141	0.0201918	2198969
16151.1	0.0207674	2194182
16160.4	0.0213126	2189462
16170.8	0.021935	2184218
16180.2	0.0225042	2179578
16190.7	0.0231556	2174344
16200.7	0.0237812	2169422
16210.4	0.0243968	2165197
16220	0.0250206	2160183
16230.8	0.0257222	2155017
16240.4	0.026361	2150301
16250.9	0.027065	2145385
16260.2	0.0276924	2141359
16270.6	0.0283954	2136038
16281	0.0291061	2130991
16290.6	0.0297714	2126098
16300.1	0.030428	2121343
16311.1	0.0311967	2116069
16321	0.0318819	2111354
16330.8	0.032568	2106612
16340.3	0.0332286	2102401
16350.6	0.0339493	2097781
16360.9	0.0346668	2093097
16370.2	0.0353105	2088485
16380.5	0.0360281	2083657
16390.9	0.0367408	2078923
16400.8	0.0374117	2074808
16410.6	0.0380772	2071062
16420.4	0.0387366	2066682
16430.2	0.0393889	2062333
16440.1	0.0400335	2058063
16450.2	0.0406888	2053742
16460.8	0.0413658	2049088
16470.9	0.0419946	2045023
16480.3	0.0425748	2041085
16490.8	0.0432066	2036318
16500.2	0.0437631	2031824
16510.7	0.0443672	2026914
16520.9	0.0449382	2022374
16530	0.0454372	2018464
16540.5	0.0459919	2013528
16550.1	0.0464904	2009521
16560.5	0.0470106	2004577
16570.9	0.0475129	1999554
16580.3	0.0479512	1995660
16590.4	0.0484061	1990987
16600.8	0.0488568	1986873
16611.3	0.0492872	1982257
16620.4	0.0496463	1978471
16630.7	0.0500329	1974447
16641.1	0.0503971	1969708
16650.2	0.0506992	1966091
16660.6	0.0510223	1961971
16671.1	0.0513231	1957464
16680.4	0.0515689	1954165
16690.9	0.0518275	1950215
16700.2	0.0520352	1947272
16710.9	0.05225	1943887
16720.1	0.0524188	1941145
16730.7	0.0525906	1938039
16741.2	0.0527399	1934603
16750.4	0.0528529	1931738
16760.7	0.0529621	1928659
16770	0.053043	1925594
16780.5	0.0531154	1922155
16790	0.0531653	1918469
16800.1	0.0532008	1915214
16810.9	0.0532201	1912386
16820	0.0532215	1909408
16830.2	0.0532072	1905859
16840.9	0.0531753	1902375
16850.1	0.0531338	1899326
16860.6	0.0530711	1895714
16870.1	0.0530014	1892090
16880.6	0.0529105	1888706
16890	0.0528176	1885104
16900.4	0.0527021	1881864
16910.9	0.0525743	1878119
16920.8	0.0524426	1873988
16930.8	0.0522988	1870301
16940.9	0.0521453	1866338
16950.4	0.0519928	1862838
16960.6	0.0518206	1858982
16970.6	0.0516442	1855586
16980.2	0.0514666	1852078
16990.1	0.0512775	1848198
17000.3	0.0510755	1844465
17010.5	0.0508665	1840922
17020.7	0.0506504	1837415
17031	0.0504269	1833761
17041.2	0.0502005	1830639
17050.1	0.0500079	1828272
17060.6	0.0497801	1824650
17071	0.0495491	1821860
17080.1	0.0493389	1818883
17090.2	0.0490879	1815756
17100.4	0.0488214	1812465
17110.8	0.0485219	1808738
17120.7	0.0482299	1805528
17130.6	0.0479532	1802446
17140.8	0.0476657	1798795
17150.1	0.0473896	1795620
17161.2	0.0470342	1791458
17171.1	0.0466945	1788345
17181.1	0.0463394	1784540
17191	0.0459767	1780903
17201.1	0.0455962	1777614
17210.4	0.0452328	1774662
17220.2	0.0448423	1771563
17231.1	0.0443879	1767925
17240	0.0439982	1764845
17251.2	0.0434933	1760867
17261.2	0.0430128	1757389
17270.1	0.0425731	1754341
17280.1	0.0420479	1751094
17290.2	0.0414984	1747842
17300.3	0.0409245	1744902
17310.4	0.040325	1742141
17320.6	0.0396988	1739090
17330.7	0.0390429	1736076
17340.9	0.0383638	1733255
17351.1	0.03766	1730329
17360.1	0.0370193	1727978
17370.3	0.0362452	1725287
17380.6	0.0354156	1722344
17390.8	0.0345243	1719436
17401.1	0.0335703	1716864
17410.2	0.0326732	1714487
17420.7	0.0315812	1711983
17431.2	0.0304358	1709337
17440.5	0.0293882	1706859
17451.2	0.0281246	1704045
17460.8	0.0269668	1701648
17470.6	0.0257351	1698617
17480.4	0.0244632	1695979
17490.2	0.02315	1693168
17500	0.0217946	1690424
17511.5	0.0201584	1687412
17521.3	0.0187073	1684611
17531.1	0.0173956	1682202
17540.9	0.0159068	1679729
17550.7	0.0141895	1677282
17560.6	0.0123742	1674825
17570.4	0.0104925	1671883
17580.2	0.00854433	1669343
17590	0.00653992	1666944
17601.5	0.00414431	1664404
17611.3	0.00204564	1662471
17621.1	-0.000103741	1660138
17630.9	-0.00231537	1657633
17640.7	-0.0045956	1655294
17650.6	-0.00694304	1653262
17660.4	-0.00935794	1651115
17670.3	-0.0118496	1648977
17680.1	-0.0143834	1647160
17691.6	-0.0173938	1645080
17701.5	-0.0200737	1643111
17711.4	-0.0226837	1641168
17721.3	-0.0259074	1639526
17731.1	-0.0305387	1637750
17741	-0.03467	1636021
17750.9	-0.0384657	1634375
17760.8	-0.0421767	1632468
17770.7	-0.0458918	1630653
17780.5	-0.0496485	1628764
17790.4	-0.0534887	1626850
17800.3	-0.0574304	1624913
17810.2	-0.0614766	1622858
17820.1	-0.0655992	1621090
17830	-0.0697732	1618903
17841.6	-0.0746796	1616328
17851.5	-0.0789015	1614376
17861.4	-0.0831374	1611873
17871.2	-0.0873855	1609742
17881.1	-0.0916297	1607516
17890.9	-0.0958387	1605303
17900.8	-0.0999757	1603382
17910.7	-0.104007	1601301
17920.5	-0.107907	1599196
17931	-0.111875	1597064
17941.4	-0.115669	1594846
17950.1	-0.118684	1593218
17961.1	-0.122296	1590575
17971.6	-0.125489	1588252
17980.2	-0.12797	1586047
17990.2	-0.130613	1583699
18001.1	-0.133244	1581408
18010.5	-0.135294	1578859
18020.8	-0.137293	1576276
18030.5	-0.138978	1573880
18040.4	-0.140455	1571143
18050.3	-0.141732	1568144
18060.9	-0.142869	1565493
18070.2	-0.143662	1563545
18080.1	-0.144307	1561812
18090.7	-0.144774	1559239
18100.3	-0.145	1557612
18110.8	-0.145399	1555050
18120.3	-0.145334	1553117
18130.8	-0.145099	1550988
18140.3	-0.144695	1549223
18150.7	-0.144025	1546483
18160.1	-0.143243	1544080
18170.6	-0.142206	1540962
18180	-0.141124	1538942
18190.6	-0.139751	1536303
18200.1	-0.138371	1534469
18210.6	-0.136673	1531482
18220.1	-0.134999	1528836
18230.8	-0.132954	1526355
18240.9	-0.130868	1523583
18250.8	-0.128672	1521040
18260.5	-0.126404	1518503
18270.1	-0.124023	1516259
18280.7	-0.121253	1513988
18291.1	-0.118376	1512051
18300.3	-0.115743	1510532
18310.9	-0.112588	1508510
18321	-0.109462	1507077
18330.5	-0.106435	1505085
18341	-0.102971	1503519
18350.5	-0.0997807	1502121
18361	-0.0961106	1499703
18370.4	-0.092645	1498022
18380.9	-0.0886343	1495889
18390.3	-0.0848963	1494097
18400.3	-0.080896	1492156
18410.9	-0.0766191	1490011
18420.5	-0.0727329	1488446
18430.1	-0.0688534	1486721
18440.4	-0.0646975	1484700
18450.5	-0.0606521	1483179
18461.2	-0.0563683	1481490
18470.7	-0.0526445	1480037
18480.2	-0.0488877	1478863
18490.8	-0.0447773	1477496
18500.5	-0.0410611	1476260
18510.3	-0.0373662	1474295
18520.1	-0.0337218	1472235
18530.8	-0.0298046	1470303
18540.8	-0.0261853	1468267
18551.4	-0.0224264	1466368
18560.7	-0.0192005	1464677
18570.7	-0.0158172	1462903
18580	-0.012715	1461192
18590.4	-0.0093373	1459139
18601	-0.00597786	1456913
18610.3	-0.00307962	1455102
18621.1	0.000155215	1452639
18630.8	0.00301404	1451219
18640.5	0.00580238	1449058
18650.1	0.00847321	1446987
18660.1	0.0112106	1444966
18670.7	0.014023	1442692
18681.1	0.0166819	1440794
18691.3	0.0192378	1438866
18700.1	0.0213465	1437004
18710.3	0.0237227	1435294
18721.7	0.026265	1433154
18730.1	0.0280811	1431966
18741.2	0.0303398	1429978
18750.4	0.0321598	1428383
18760.7	0.0340811	1426538
18770.9	0.035915	1425016
18781	0.0376804	1423249
18791.2	0.0393833	1421544
18801.4	0.04104	1420012
18811.6	0.0426594	1418507
18820.2	0.0439902	1417218
18830.5	0.0455396	1415618
18840.5	0.0470015	1414129
18850.5	0.0484307	1412647
18860.8	0.0498654	1411082
18871	0.0512561	1409612
18881.3	0.0526108	1408009
18891.5	0.0539303	1406979
18900.1	0.0550084	1405750
18910.6	0.056287	1404272
18921.1	0.0575434	1402948
18931.6	0.0587651	1401396
18940.4	0.0597568	1400204
18950.9	0.0609155	1399110
18961.5	0.0620402	1397531
18970.3	0.0629516	1396372
18980.8	0.0640144	1395257
18991.3	0.0650437	1393582
19000.1	0.0658762	1392282
19010.5	0.0668287	1390978
19020.7	0.0677419	1389680
19031.1	0.0686368	1388099
19041.5	0.069501	1386873
19050.2	0.0701983	1385645
19060.6	0.0710082	1384610
19070.8	0.0717701	1383422
19081	0.0725122	1382045
19091.4	0.0732392	1380735
19100.1	0.0738248	1379505
19110.5	0.0745037	1378533
19120.9	0.0751577	1377620
19131.3	0.0757876	1376247
19141.7	0.0763943	1375199
19150.4	0.0768826	1373982
19160.8	0.077448	1372735
19171.3	0.0779942	1371081
19180.1	0.0784344	1369686
19190.6	0.0789408	1368102
19201	0.0794182	1366477
19211.2	0.0798634	1364891
19221.2	0.0802773	1363394
19231.1	0.0806683	1361690
19241.1	0.0810392	1360411
19251	0.0813902	1358997
19260.9	0.0817216	1357786
19270.9	0.0820333	1356342
19280.8	0.0823254	1354768
19290.7	0.0826001	1353218
19300.6	0.0828574	1351979
19310.3	0.0830927	1350692
19320	0.0833131	1349200
19330.1	0.0835263	1347710
19340.3	0.083728	1345991
19350.5	0.0839269	1344684
19360.5	0.0841171	1343165
19370.3	0.0842709	1341554
19381.6	0.0844223	1339868
19391.2	0.0845395	1338294
19400.9	0.0846512	1336869
19410.8	0.0847544	1335295
19421	0.0848484	1333876
19431.3	0.0849286	1332517
19441.4	0.0849926	1330802
19451.3	0.0850409	1329384
19461.4	0.0850744	1327755
19471.5	0.085092	1326356
19480	0.0850934	1325037
19490.2	0.085078	1323563
19500.1	0.0850437	1322854
19510.1	0.084989	1321508
19520.1	0.0848906	1320208
19530.1	0.0847459	1319041
19540	0.0845758	1317842
19550	0.0844141	1317011
19560	0.0842557	1316002
19571.6	0.0840492	1314338
19580	0.083877	1313767
19590.2	0.0836379	1312742
19600.3	0.0833692	1311554
19610.3	0.0830634	1310270
19620.3	0.0827234	1308970
19630.4	0.0823531	1307758
19640.7	0.0819547	1306738
19650.9	0.0815359	1305714
19661.2	0.0810934	1304354
19670.6	0.0806638	1303332
19680.1	0.0802027	1302099
19690.4	0.079667	1300594
19700.7	0.0790949	1299363
19711.2	0.0784852	1297803
19720.7	0.0779055	1296715
19730.6	0.0772776	1295462
19740.8	0.0766081	1294311
19751.1	0.0759068	1293110
19761.4	0.0751783	1291799
19771	0.0744674	1291070
19780.3	0.0737554	1290011
19790.1	0.0729817	1289048
19800.9	0.0720887	1287618
19810.7	0.0712562	1286353
19820.5	0.0703957	1285212
19830.6	0.0694811	1283930
19840.1	0.0685986	1282644
19850.6	0.0676006	1280973
19860	0.0666765	1279515
19870.4	0.0656382	1278304
19881.3	0.0645222	1276835
19890.4	0.0635564	1275807
19901	0.0624205	1274707
19910.7	0.0613567	1273416
19920	0.0603072	1272155
19931.7	0.0589701	1270689
19940.2	0.0579698	1269661
19951.2	0.0566701	1268228
19960.6	0.0555377	1266971
19971.5	0.0541965	1265579
19981.3	0.0529795	1264365
19990.5	0.0518282	1263033
