0	0	361780
39.4643	0	418436
75.8358	0	446708
112.421	0	464684
148.008	0	479754
183.487	0	493154
221.47	0	505426
258.095	0	517326
295.608	-1.90994e-11	529848
331.304	-6.09361e-11	541892
367	-1.54614e-10	554762
400.841	-3.37423e-10	568910
435.607	-7.03949e-10	583482
469.547	-1.37334e-09	596928
503.254	-2.56114e-09	610362
536.443	-4.57294e-09	623984
567.836	-7.71615e-09	637372
600.181	-1.28994e-08	651568
630.666	-2.04891e-08	665526
661.17	-3.18842e-08	679854
690.762	-4.80177e-08	693970
721.25	-7.17882e-08	708146
752.634	-1.06452e-07	723622
781.327	-1.50078e-07	737820
810.02	-2.08462e-07	752602
839.609	-2.88371e-07	768488
868.3	-3.89935e-07	783936
895.309	-5.12359e-07	798030
923.638	-6.74639e-07	814204
951.897	-8.77728e-07	830102
979.243	-1.12041e-06	845868
1004.93	-1.3965e-06	860698
1031.56	-1.73927e-06	876380
1059.11	-2.16357e-06	893016
1085.73	-2.65053e-06	910164
1111.37	-3.19929e-06	926880
1136.56	-3.82349e-06	943682
1160.77	-4.51039e-06	960088
1184.09	-5.26077e-06	975694
1206.51	-6.07312e-06	990989
1228.03	-6.94559e-06	1006287
1249.55	-7.91786e-06	1021163
1271.07	-8.9984e-06	1035767
1293.49	-1.02475e-05	1050455
1316.1	-1.16433e-05	1064747
1339.9	-1.32717e-05	1079425
1362.78	-1.50052e-05	1093613
1385.43	-1.69e-05	1107299
1408.75	-1.90542e-05	1121833
1429.38	-2.11456e-05	1134837
1450.01	-2.34266e-05	1147797
1470.63	-2.59135e-05	1160729
1492.16	-2.87474e-05	1173671
1512.78	-3.17124e-05	1186171
1533.41	-3.49467e-05	1198589
1553.14	-3.83439e-05	1208859
1573.76	-4.22677e-05	1218391
1593.49	-4.64168e-05	1227813
1613.22	-5.09873e-05	1237207
1633.85	-5.62485e-05	1247103
1653.58	-6.17719e-05	1257329
1674.2	-6.80934e-05	1267411
1693.93	-7.70246e-05	1276927
1714.56	-9.03339e-05	1287369
1735.18	-0.000104909	1297027
1755.81	-0.000120756	1306951
1774.64	-0.000136354	1315563
1794.38	-0.000153901	1324879
1813.42	-0.000172008	1334427
1832.85	-0.000191747	1343837
1852.3	-0.000208575	1353299
1871.51	-0.000213484	1361573
1890.62	-0.000220787	1369651
1910.61	-0.000231187	1377351
1930.33	-0.000244101	1384955
1950.94	-0.000259191	1392367
1970.66	-0.000275381	1400136
1989.49	-0.000292906	1407558
2008.34	-0.000312923	1413932
2027.24	-0.000335825	1420060
2046.45	-0.000361947	1427360
2065.9	-0.000391152	1435534
2086.44	-0.000425223	1444532
2106.14	-0.000460162	1452958
2125.86	-0.000496832	1461264
2145.59	-0.000536601	1468258
2165.21	-0.000580554	1475266
2183.79	-0.000634955	1481948
2203.3	-0.000743743	1489650
2222.78	-0.000856355	1496170
2241.35	-0.000967367	1501662
2260.83	-0.00108642	1508278
2279.37	-0.0012072	1512844
2297.04	-0.00133764	1517176
2315.64	-0.00149529	1522106
2334.24	-0.00167332	1528112
2352.93	-0.00170252	1532992
2371.66	-0.00179589	1538814
2390.37	-0.00195746	1543643
2409.26	-0.00218012	1549228
2427.98	-0.0024518	1554616
2446.64	-0.00276823	1559974
2465.47	-0.00312748	1565512
2485.18	-0.00319032	1572646
2503.89	-0.00346923	1579218
2522.49	-0.00388217	1585578
2541.04	-0.00438256	1592560
2559.64	-0.00493434	1598947
2577.47	-0.00554702	1606181
2595.13	-0.00574819	1613430
2612.79	-0.00642226	1619378
2631.39	-0.0073727	1626424
2648.09	-0.00825178	1632868
2666.71	-0.00936454	1639620
2684.37	-0.0104956	1647169
2702.03	-0.0117824	1653267
2719.75	-0.0143081	1660330
2737.42	-0.0166992	1665790
2756.06	-0.0185014	1671557
2773.77	-0.0201295	1677447
2791.45	-0.0217827	1683619
2809.16	-0.023435	1689089
2826.74	-0.0250333	1695501
2844.14	-0.0265057	1702124
2861.45	-0.0277984	1706994
2878.73	-0.0288855	1713690
2895.98	-0.0297501	1719523
2913.23	-0.0302082	1726609
2930.49	-0.0306056	1733334
2947.74	-0.0307089	1740874
2964.99	-0.0304994	1747740
2982.25	-0.0299181	1754939
2999.66	-0.0289226	1761483
3016.26	-0.0276196	1768839
3032.85	-0.0259847	1776137
3050.37	-0.0239297	1784235
3067.89	-0.0214478	1791583
3084.54	-0.0178464	1798804
3101.29	-0.013255	1805670
3119.23	-0.00839212	1813170
3136.26	-0.000740425	1820347
3153.29	0.00772787	1826865
3171.27	0.0176611	1834524
3188.35	0.0327787	1841559
3205.49	0.048765	1848215
3222.69	0.0663542	1854718
3239.93	0.0847395	1861757
3257.2	0.109698	1868173
3273.47	0.13858	1873577
3290.71	0.170946	1879131
3306.97	0.20376	1884632
3323.34	0.240023	1890113
3339.78	0.305025	1896113
3357.2	0.377245	1902316
3374.61	0.470114	1908323
3391.06	0.582275	1914090
3407.51	0.685424	1920306
3424.92	0.785113	1926319
3441.39	0.86731	1932145
3457.65	0.933698	1937487
3473.71	0.981274	1943011
3489.73	1.00913	1948657
3506.68	1.01828	1955230
3523.52	1.01351	1961742
3539.43	1.00287	1968107
3556.27	0.987199	1974898
3572.18	0.968798	1980873
3589.04	0.946869	1988157
3605.02	0.92478	1994453
3621.13	0.901873	2001207
3637.28	0.878739	2008629
3653.43	0.85561	2015689
3668.63	0.833692	2021400
3683.86	0.811386	2027784
3700.01	0.787112	2034977
3716.89	0.760677	2042386
3732.85	0.734478	2049485
3748.8	0.706899	2057140
3764.67	0.677828	2064996
3780.44	0.647138	2072841
3796.2	0.61436	2080959
3811	0.581401	2088642
3826.71	0.537959	2096169
3842.43	0.469041	2104008
3857.22	0.404294	2110850
3872.95	0.32005	2117430
3887.57	0.227321	2123093
3903	0.130349	2129038
3918.42	0.0328415	2134834
3932.86	-0.0579315	2140512
3948.17	-0.150538	2146252
3962.58	-0.233457	2151721
3976.97	-0.310974	2156951
3992.2	-0.386489	2162756
4006.52	-0.451714	2167920
4021.75	-0.515359	2173087
4036.07	-0.571333	2178045
4051.3	-0.627992	2183242
4065.64	-0.680097	2188084
4080.97	-0.73616	2193551
4095.44	-0.790535	2197851
4110.82	-0.850473	2202930
4125.29	-0.908627	2208172
4139.77	-0.96756	2212495
4155.22	-1.02989	2217338
4169.78	-1.0862	2221942
4184.33	-1.13808	2227319
4198.88	-1.18336	2232155
4213.44	-1.21994	2237963
4228	-1.24591	2243201
4242.56	-1.25991	2248586
4257.12	-1.2605	2254351
4271.74	-1.25045	2260510
4286.33	-1.2317	2266826
4300.91	-1.20353	2272444
4315.49	-1.16597	2278295
4330.08	-1.11862	2284432
4344.63	-1.06075	2290305
4359.12	-0.971785	2296554
4373.55	-0.867951	2303338
4387.97	-0.761125	2309522
4401.48	-0.658785	2315469
4415.89	-0.549096	2321022
4430.29	-0.44077	2326384
4443.79	-0.341483	2332540
4457.29	-0.245757	2337568
4470.8	-0.15449	2342857
4484.3	-0.0685539	2347770
4498.71	0.0166697	2353760
4512.25	0.0894026	2358682
4525.75	0.153875	2363774
4540.11	0.212765	2368373
4553.57	0.258353	2372615
4567.03	0.294475	2376802
4581.38	0.323511	2381187
4594.84	0.343295	2385613
4608.3	0.358796	2390134
4621.76	0.368175	2394712
4635.24	0.373227	2398752
4648.72	0.374568	2403680
4662.2	0.375716	2407698
4676.58	0.375158	2413147
4689.16	0.373181	2417210
4702.68	0.370009	2421403
4716.24	0.365721	2425647
4729.79	0.360689	2430142
4743.32	0.354872	2434293
4755.95	0.348637	2437318
4769.49	0.341111	2441125
4783.02	0.332674	2445411
4796.56	0.323476	2450423
4810.09	0.313631	2455493
4823.63	0.303236	2461386
4836.27	0.293138	2466804
4849.81	0.281983	2472224
4863.36	0.270511	2477131
4876.13	0.259398	2481131
4889.84	0.247136	2486251
4902.64	0.235344	2490512
4916.35	0.222271	2494896
4929.17	0.209572	2499385
4942.91	0.195365	2504440
4955.75	0.181524	2508869
4969.5	0.166073	2513829
4982.34	0.151086	2517816
4996.09	0.134476	2522732
5008.92	0.11855	2527198
5022.68	0.101192	2532267
5035.51	0.0849132	2536806
5049.27	0.0676379	2542243
5062.13	0.0518971	2546616
5074.99	0.0368037	2550638
5088.94	0.021457	2555375
5101.98	0.00833526	2559329
5115.95	-0.00416059	2563839
5129.04	-0.0142239	2568499
5143.21	-0.0232417	2572682
5156.48	-0.028761	2577562
5169.78	-0.0315658	2581684
5183.93	-0.0338279	2586627
5197.12	-0.0353349	2590876
5210.28	-0.037001	2595296
5224.21	-0.0381916	2599694
5237.22	-0.0387379	2603443
5250.32	-0.0393131	2606754
5263.47	-0.039688	2609884
5277.56	-0.0401954	2612681
5290.87	-0.0407813	2616210
5304.21	-0.0415939	2619148
5317.79	-0.0427471	2622920
5330.3	-0.0440913	2626194
5343.59	-0.045821	2629730
5357.87	-0.048052	2633146
5371.21	-0.0504703	2636275
5384.26	-0.053111	2639099
5397.95	-0.0561679	2642244
5412.02	-0.0596112	2646062
5425.2	-0.0630768	2649313
5438.46	-0.066753	2652774
5451.59	-0.0705411	2655956
5465	-0.0745024	2659899
5479.33	-0.0787593	2664251
5492.75	-0.0826776	2669268
5505.89	-0.0863639	2673845
5519.21	-0.0898896	2677481
5533.54	-0.0933778	2681161
5547.87	-0.0965071	2684677
5561.9	-0.099203	2688632
5575.79	-0.101519	2692282
5589.57	-0.103488	2695422
5602.7	-0.105093	2698586
5616.65	-0.106552	2702116
5630.16	-0.10777	2705546
5642.58	-0.108762	2709071
5655.84	-0.109726	2712445
5669.19	-0.110637	2716568
5682.45	-0.111517	2721125
5696.67	-0.112466	2726097
5709.17	-0.113329	2730095
5722.43	-0.114292	2734306
5735.64	-0.115315	2737838
5749.39	-0.116461	2741664
5761.7	-0.117565	2745085
5774.89	-0.11884	2747421
5788.1	-0.120219	2751541
5800.44	-0.121601	2754501
5813.56	-0.123175	2758558
5825.76	-0.124733	2761422
5838.9	-0.126508	2764139
5852.15	-0.128389	2767212
5864.43	-0.130194	2770881
5876.83	-0.132057	2774366
5890.04	-0.134056	2778969
5902.23	-0.135878	2782308
5915.36	-0.137776	2785892
5927.47	-0.13943	2788414
5940.49	-0.141061	2791832
5952.7	-0.142411	2795169
5965.78	-0.14362	2798654
5978.13	-0.144518	2802429
5990.52	-0.145351	2806730
6003.93	-0.145172	2811775
6016.32	-0.144784	2816543
6029.9	-0.143852	2821543
6043.08	-0.142498	2826893
6056.01	-0.140738	2832977
6069.05	-0.138517	2838372
6082.45	-0.135764	2843648
6094.84	-0.132823	2849130
6107.36	-0.129526	2854154
6119.88	-0.125887	2859843
6132.23	-0.123554	2866125
6144.6	-0.118972	2872097
6157.3	-0.11302	2878854
6169.7	-0.106385	2885504
6182.04	-0.0990714	2893253
6194.36	-0.0918166	2900255
6206.68	-0.0845976	2907538
6219.06	-0.077155	2914313
6231.62	-0.0693165	2920921
6243.95	-0.0614894	2926383
6256.26	-0.05375	2932831
6268.68	-0.0459264	2938480
6280.03	-0.0352683	2943584
6292.32	-0.0257042	2948664
6304.75	-0.0157634	2954803
6317.36	-0.00603867	2959518
6329.81	0.00291952	2963064
6341.12	0.0111627	2966437
6353.56	0.0202151	2969777
6365.97	0.0288663	2973851
6377.3	0.0365905	2977517
6389.53	0.0446597	2981912
6401.73	0.0523599	2987535
6413.03	0.0592377	2993382
6425.13	0.0663308	2999826
6436.4	0.0726513	3006240
6448.6	0.0791857	3012168
6460.92	0.0854812	3018757
6472.5	0.0911183	3024293
6483.81	0.0963641	3030549
6495.92	0.101674	3036506
6507.08	0.106274	3040457
6518.26	0.110582	3045832
6530.35	0.114904	3051679
6541.64	0.11865	3056780
6553	0.121743	3061597
6565.12	0.125056	3067400
6576.57	0.127951	3072333
6588.14	0.13044	3077495
6599.98	0.132636	3083925
6611.59	0.134415	3089399
6624	0.13581	3095097
6635.94	0.137202	3100627
6647.84	0.138901	3105800
6659.68	0.139823	3111185
6671.36	0.14055	3117025
6683.16	0.141056	3121745
6695.31	0.141262	3127569
6707.47	0.141228	3132063
6719.62	0.141039	3137482
6731.77	0.140643	3142600
6743.92	0.140022	3148028
6756.08	0.139188	3153518
6768.23	0.138135	3158545
6780.38	0.136849	3163392
6792.54	0.135314	3168951
6804.69	0.13351	3174297
6816.83	0.131416	3180060
6828.93	0.129029	3185735
6840.46	0.126473	3192302
6851.83	0.123687	3197902
6862.39	0.120867	3202936
6873.94	0.117523	3209522
6885.35	0.113965	3215649
6896.77	0.110164	3221414
6908.17	0.10615	3226706
6918.58	0.102297	3232148
6929.94	0.0978944	3238046
6941.32	0.0932789	3243294
6951.75	0.0888674	3249304
6963.12	0.0838713	3255135
6973.54	0.0791212	3260936
6984.91	0.07375	3267518
6996.33	0.0681654	3273499
7006.78	0.0628834	3279278
7018.26	0.0568629	3285598
7028.95	0.0510382	3290566
7040.48	0.0443644	3296131
7050.93	0.0368364	3300996
7062.32	0.02692	3306128
7073.03	0.019553	3311258
7084.6	0.0120755	3316626
7095.13	0.00511709	3321486
7106.69	-0.00184853	3327927
7117.34	-0.00780337	3333357
7128.96	-0.0141052	3339542
7139.6	-0.0196984	3345220
7150.27	-0.0250424	3351210
7161.96	-0.0305406	3357476
7172.61	-0.0352029	3363202
7183.3	-0.0395211	3368639
7193.84	-0.0433964	3373103
7205.27	-0.047207	3378394
7215.89	-0.0502558	3383347
7226.56	-0.0529985	3388102
7237.23	-0.0552127	3392611
7248.84	-0.0568624	3397806
7259.42	-0.0580525	3402281
7269.97	-0.058829	3406318
7280.31	-0.0591037	3410273
7290.62	-0.0592434	3413591
7301.95	-0.0592014	3418495
7312.16	-0.0589852	3423328
7322.37	-0.058529	3427795
7332.57	-0.0578594	3432191
7342.79	-0.056987	3437005
7353.03	-0.0558787	3441018
7363.24	-0.0545049	3444750
7373.57	-0.0528272	3448136
7383.8	-0.0508901	3452024
7394.04	-0.0486994	3455991
7404.3	-0.0462681	3460274
7414.59	-0.0435919	3464068
7424.9	-0.040657	3468037
7435.09	-0.0374619	3472027
7445.3	-0.0338523	3476158
7455.52	-0.0299094	3480476
7465.84	-0.0249568	3483803
7476.21	-0.0191471	3487578
7486.47	-0.0133486	3492447
7496.67	-0.00765091	3496188
7506.96	-0.00190941	3500881
7517.41	0.00382112	3504456
7527.96	0.00951109	3508975
7538.39	0.0150917	3512486
7547.68	0.0200105	3515588
7557.95	0.0253613	3520123
7568.44	0.0306826	3523919
7578.68	0.0357198	3527988
7589.14	0.0406742	3531322
7600.03	0.0456182	3535093
7609.82	0.0498471	3538552
7620.58	0.0542194	3542623
7631.31	0.0582476	3546085
7642.05	0.0619249	3549685
7652.93	0.0652648	3553415
7662.84	0.0679524	3556208
7673.74	0.0704994	3559412
7684.66	0.0725994	3562040
7695.72	0.0742571	3565631
7706.76	0.0755127	3569131
7716.8	0.0762918	3572977
7727.84	0.0767656	3577142
7738.88	0.0768679	3580763
7748.92	0.0758959	3584098
7759.96	0.0750289	3588215
7771	0.0736677	3592271
7782.04	0.0722948	3596873
7792.07	0.070937	3600396
7803.11	0.0691321	3604827
7813.15	0.0672015	3608824
7823.97	0.0648843	3612534
7834.87	0.0623386	3617025
7844.77	0.0598534	3620199
7855.66	0.0569399	3624920
7866.56	0.0538559	3628774
7876.46	0.0509276	3632942
7887.25	0.0476279	3637793
7896.63	0.0446865	3641945
7906.95	0.0413968	3646707
7916.38	0.0383638	3650524
7926.7	0.0350381	3654969
7936.1	0.0320239	3659161
7946.52	0.0287199	3664585
7955.96	0.0257779	3669245
7966.7	0.0224996	3673819
7976.23	0.0196663	3677725
7986.79	0.0166317	3682279
7996.49	0.0139515	3686189
8007.28	0.0111156	3691221
8016.89	0.00872811	3695798
8027.33	0.00629988	3700655
8036.9	0.00423203	3704429
8047.26	0.0021644	3709031
8056.67	0.000439406	3713203
8066.1	-0.00113241	3716549
8076.72	-0.00270987	3721109
8086.31	-0.00389823	3724859
8095.72	-0.00480649	3728471
8105.56	-0.00553799	3731129
8116.37	-0.00617097	3735419
8126.07	-0.00662637	3739001
8135.82	-0.00696838	3743021
8145.65	-0.00717289	3747842
8156.46	-0.00723439	3751697
8166.37	-0.00715126	3755027
8176.49	-0.00695475	3759816
8186.45	-0.00666573	3763874
8196.39	-0.00628639	3767951
8207.06	-0.0057862	3772289
8216.55	-0.0052723	3776099
8226.12	-0.004703	3779213
8235.97	-0.00407607	3782272
8245.53	-0.00343941	3785781
8255.02	-0.0027925	3789230
8265.4	-0.00208118	3793277
8274.79	-0.00144634	3798006
8284.22	-0.000827436	3801832
8293.64	-0.000237465	3806264
8303.07	0.00031477	3811046
8312.57	0.000822193	3815142
8322.08	0.00126994	3819246
8331.61	0.00164761	3824137
8341.19	0.00194598	3828799
8350.57	0.00215309	3832842
8360.89	0.00228128	3837331
8370.27	0.00230769	3841041
8379.7	0.0022485	3844463
8389.25	0.00210051	3848244
8398.76	0.0018639	3851735
8408.24	0.00153784	3854654
8417.73	0.00112158	3857250
8427.4	0.000603515	3860255
8437.04	-1.01007e-05	3864122
8446.55	-0.000717999	3867148
8456.24	-0.00155423	3870770
8465.96	-0.00251944	3874052
8475.66	-0.00361922	3877222
8485.3	-0.00485897	3880430
8494.86	-0.00624841	3883438
8504.44	-0.00782919	3885937
8514.07	-0.00964053	3888554
8523.87	-0.0117728	3891882
8533.55	-0.014172	3894595
8543.21	-0.0167473	3897549
8552.81	-0.0194908	3900482
8562.33	-0.0224243	3904072
8570.94	-0.0252613	3906370
8580.52	-0.028573	3909729
8590.01	-0.0320354	3912374
8599.52	-0.0356842	3915667
8609.2	-0.0395197	3918555
8618.78	-0.0434038	3921642
8628.49	-0.0474315	3925108
8637.07	-0.0510909	3927782
8646.65	-0.0553023	3931653
8656.07	-0.0595779	3934350
8665.49	-0.0639891	3937445
8674.94	-0.0685655	3940188
8683.45	-0.072817	3943219
8692.89	-0.0776502	3946462
8702.41	-0.0825965	3949581
8711.9	-0.0875227	3952240
8721.49	-0.0924154	3955021
8730.18	-0.0967115	3957507
8739.87	-0.101307	3961441
8749.58	-0.105685	3963703
8759.22	-0.10981	3966121
8767.93	-0.113359	3967643
8777.73	-0.117153	3970104
8787.6	-0.120772	3972824
8797.25	-0.124108	3975815
8805.9	-0.126921	3978523
8815.42	-0.129815	3980965
8825	-0.132495	3983787
8834.65	-0.134961	3986285
8843.22	-0.136944	3988725
8852.56	-0.138876	3990942
8861.84	-0.140538	3993448
8870.19	-0.141797	3995331
8879.47	-0.142918	3997386
8888.75	-0.143735	4000464
8897.21	-0.144216	4002640
8906.97	-0.144466	4005371
8915.35	-0.144427	4007514
8924.82	-0.144122	4009952
8934.37	-0.143556	4012479
8942.9	-0.142848	4015178
8952.22	-0.141871	4017934
8961.49	-0.140702	4020435
8969.92	-0.139478	4022729
8979.22	-0.13796	4024633
8988.49	-0.136278	4026522
8996.84	-0.134628	4028773
9006.12	-0.13265	4030628
9014.47	-0.130742	4032661
9023.76	-0.128484	4034681
9032.12	-0.126335	4036978
9041.41	-0.123828	4040601
9050.74	-0.12119	4043565
9059.13	-0.118723	4046361
9068.49	-0.115871	4049133
9076.98	-0.113202	4051876
9086.47	-0.110133	4054726
9094.94	-0.107318	4058390
9104.36	-0.104115	4062558
9112.85	-0.101167	4066025
9122.25	-0.0978449	4070421
9130.6	-0.0948657	4074620
9139.99	-0.0914866	4078808
9148.5	-0.0884086	4083044
9157.96	-0.0849714	4087024
9166.47	-0.0818677	4090980
9175.92	-0.0784087	4096020
9184.43	-0.0752893	4100767
9192.93	-0.0721727	4104121
9202.25	-0.0687566	4109518
9210.65	-0.0656912	4112825
9220	-0.0622923	4117085
9228.45	-0.0592359	4120187
9236.97	-0.0561747	4123398
9246.44	-0.0527976	4127856
9254.94	-0.0497947	4131381
9263.41	-0.0468273	4134805
9272.74	-0.0435899	4138890
9281.11	-0.0407213	4141946
9289.49	-0.0378845	4144892
9298.87	-0.0347517	4147909
9307.32	-0.0319777	4150110
9316.72	-0.0289492	4152634
9325.09	-0.0263087	4156518
9333.45	-0.0237225	4158807
9341.84	-0.0211893	4162075
9351.17	-0.018442	4164785
9359.58	-0.0160388	4168036
9368.01	-0.0137059	4170432
9377.39	-0.0112026	4174239
9385.86	-0.00903281	4175951
9394.44	-0.00693185	4178491
9403.92	-0.0047256	4180990
9412.43	-0.00286503	4183879
9420.93	-0.00113016	4186334
9429.39	0.000453374	4188759
9438.77	0.00201239	4191253
9447.22	0.00322042	4192408
9455.64	0.00423727	4193830
9463.99	0.00503817	4195336
9473.28	0.00581723	4196515
9481.87	0.00642279	4197166
9490.41	0.00686079	4198545
9498.94	0.00717548	4200513
9508.34	0.00737961	4202720
9516.69	0.00746063	4203585
9525.04	0.00759939	4205118
9533.39	0.00749716	4206317
9542.69	0.00720912	4207955
9551.18	0.00683142	4209287
9559.53	0.00639073	4210669
9568.05	0.00587325	4211855
9576.53	0.00528239	4214180
9585.88	0.00454194	4216186
9594.22	0.00380486	4217448
9602.57	0.00299632	4218759
9610.93	0.00215584	4219581
9620.22	0.00117746	4220180
9628.63	0.000206271	4221009
9637.04	-0.000881135	4222871
9645.64	-0.00213822	4223158
9654.2	-0.00359504	4223868
9663.66	-0.00539844	4224480
9672.03	-0.00699527	4225038
9680.4	-0.00861262	4225178
9688.76	-0.0102289	4226263
9697.12	-0.0118538	4225784
9705.47	-0.0134917	4226038
9714.76	-0.0153101	4226291
9723.16	-0.0169482	4226774
9731.62	-0.0186198	4227552
9740.05	-0.0203215	4228735
9748.5	-0.0220498	4229080
9757.92	-0.0239648	4229655
9766.3	-0.0256201	4230083
9774.77	-0.027224	4230453
9783.19	-0.0287445	4230455
9791.57	-0.0301814	4230107
9799.94	-0.0315471	4229840
9809.35	-0.0330052	4228784
9817.92	-0.0342677	4228304
9826.41	-0.0354578	4227897
9834.83	-0.0365709	4227092
9843.28	-0.0376088	4226871
9851.67	-0.0385476	4226599
9860.99	-0.039469	4226784
9869.37	-0.0401791	4226946
9877.76	-0.040773	4227201
9886.32	-0.0412573	4226529
9894.82	-0.0416164	4227466
9904.22	-0.0418745	4227977
9912.64	-0.0419841	4229531
9921.09	-0.0419808	4230421
9929.5	-0.0418652	4232758
9937.86	-0.0416312	4233414
9946.22	-0.0412874	4235612
9955.53	-0.0407986	4236207
9963.91	-0.0402532	4237362
9972.45	-0.0395898	4239035
9980.97	-0.0388208	4240557
9989.38	-0.0379642	4243082
9997.72	-0.0370251	4244791
10007	-0.0358739	4247750
10015.3	-0.0347491	4249482
10023.7	-0.0335408	4251168
10032.2	-0.0322512	4251858
10040.7	-0.0309023	4253995
10049.1	-0.0295044	4256660
10057.5	-0.0280522	4258209
10066.9	-0.0263765	4260553
10075.3	-0.0248195	4261964
10083.8	-0.0232118	4263613
10092.3	-0.02157	4265166
10100.7	-0.0199031	4267379
10109	-0.018211	4268466
10117.3	-0.0164931	4269721
10125.7	-0.0147484	4271055
10135.2	-0.0127653	4272230
10143.7	-0.0109726	4274138
10152.1	-0.00919438	4275877
10160.4	-0.00743105	4277553
10168.8	-0.00567886	4279704
10177.3	-0.00392959	4281082
10185.7	-0.00220033	4283777
10194.2	-0.000494129	4286937
10202.7	0.00117591	4289336
10211.2	0.00280724	4292910
10219.6	0.00438256	4296032
10228	0.00591331	4299747
10236.4	0.00739748	4303309
10244.9	0.00884643	4307389
10253.3	0.0102362	4311071
10261.7	0.0115721	4314539
10270.1	0.0128445	4317635
10278.5	0.0140598	4320524
10286.9	0.0152162	4323609
10295.3	0.0163145	4326507
10303.7	0.0173585	4329018
10312.2	0.018349	4330965
10320.7	0.0192975	4333044
10329.2	0.020181	4334956
10337.7	0.0210064	4337197
10346.2	0.021774	4340038
10354.7	0.0224869	4341732
10363.2	0.0231399	4342987
10371.6	0.0237373	4345695
10380.1	0.0242839	4347321
10388.6	0.0247792	4350005
10397	0.0252251	4353093
10405.4	0.0256214	4355051
10413	0.025931	4357335
10421.5	0.0262297	4359769
10430	0.0264706	4361999
10438.5	0.0266506	4364440
10447	0.0267688	4366660
10455.5	0.0268245	4368140
10464	0.0268176	4371148
10472.3	0.0267501	4373557
10479.8	0.0266401	4375490
10488.1	0.0264604	4378207
10496.5	0.0262213	4381203
10504.9	0.0259197	4383396
10513.4	0.0255539	4386038
10521.9	0.0251255	4388910
10530.2	0.0246386	4392579
10537.7	0.0241531	4396018
10546	0.0235465	4399174
10554.4	0.0228747	4402699
10562.8	0.0221371	4405395
10571.1	0.0213333	4408294
10579.6	0.0204534	4411682
10587	0.0196221	4415131
10595.5	0.0186134	4418410
10603.9	0.0175523	4423041
10612.2	0.016429	4426314
10619.6	0.015377	4429696
10628	0.0141341	4433700
10636.3	0.0128289	4436444
10644.7	0.0114613	4439409
10652.1	0.0101958	4442041
10660.5	0.00871676	4445048
10668.9	0.00717892	4446986
10677.3	0.00558271	4451141
10684.9	0.00409694	4453242
10693.5	0.00238231	4455521
10701.9	0.000654963	4458820
10709.5	-0.000930637	4461316
10718	-0.00274836	4464278
10726.5	-0.00457814	4467272
10735	-0.00644317	4469882
10742.5	-0.00807983	4472840
10751	-0.00995739	4475031
10759.7	-0.0118669	4478092
10767.4	-0.0135586	4481771
10775.9	-0.0154325	4485641
10784.5	-0.0172841	4488587
10792.1	-0.0189079	4491535
10800.6	-0.0206869	4494579
10809	-0.0224237	4497776
10816.6	-0.0239283	4500323
10825	-0.0255725	4503261
10833.5	-0.0271581	4506181
10841.1	-0.0285148	4509030
10849.5	-0.0299572	4512544
10856.9	-0.0311653	4515207
10865.3	-0.0324478	4518534
10873.6	-0.0336447	4521317
10881	-0.034634	4523732
10889.5	-0.0356734	4527176
10897.1	-0.0365173	4529015
10905.5	-0.037365	4530805
10913.1	-0.0380309	4532903
10921.5	-0.0386775	4534498
10929.9	-0.0392217	4537278
10937.5	-0.0396204	4539810
10946	-0.0399683	4542353
10953.4	-0.0401907	4545775
10961.8	-0.0403465	4548923
10969.3	-0.0404046	4552228
10977.7	-0.0403822	4554647
10985.1	-0.0402874	4557304
10993.5	-0.0401001	4559004
11000.9	-0.0398654	4561041
11009.4	-0.0395262	4563550
11016.9	-0.0391624	4564459
11025.3	-0.0386886	4566231
11032.8	-0.0382134	4567675
11041.3	-0.0376229	4568519
11048.8	-0.0370547	4568538
11057.3	-0.0363706	4568679
11064.9	-0.035724	4569745
11073.4	-0.0349678	4570429
11080.9	-0.0342746	4571922
11089.3	-0.0334745	4572991
11096.9	-0.0327479	4573452
11105.3	-0.0319188	4573845
11112.9	-0.0311764	4574435
11121.3	-0.0303398	4574303
11128.9	-0.0295957	4575209
11137.4	-0.0287619	4576740
11145	-0.0280315	4577651
11152.7	-0.0273101	4579123
11161.1	-0.0265262	4580260
11168.6	-0.0258467	4580892
11177	-0.0251029	4581740
11184.6	-0.0244614	4582550
11193.1	-0.0237573	4584366
11200.6	-0.0231559	4584900
11209.1	-0.0225084	4586519
11216.6	-0.0219547	4588315
11225.1	-0.021352	4590034
11232.6	-0.0208389	4591356
11241.1	-0.0202852	4592808
11248.6	-0.0198141	4594150
11257.1	-0.0193043	4594887
11264.7	-0.0188672	4595468
11273.2	-0.0183901	4594585
11280.7	-0.0179812	4594970
11289.3	-0.0175303	4594752
11296.8	-0.0171384	4594612
11305.4	-0.0167048	4594487
11312.9	-0.0163246	4594291
11321.3	-0.0159019	4594053
11328.7	-0.0155276	4594197
11336.9	-0.0151046	4594904
11344.2	-0.0147227	4596300
11351.5	-0.0143335	4598024
11359.7	-0.0138821	4599575
11366.9	-0.0134665	4601103
11375.1	-0.0129798	4602978
11382.4	-0.0125281	4605268
11390.6	-0.0119957	4606500
11397.8	-0.0114989	4609017
11405.1	-0.0109782	4611119
11413.3	-0.0103617	4612861
11420.6	-0.00978491	4614253
11428.7	-0.00910177	4615608
11436	-0.00846277	4617002
11443.3	-0.00779273	4617784
11451.5	-0.00700059	4619287
11458.7	-0.00626138	4620640
11466.9	-0.00538929	4621285
11474.2	-0.00457732	4622764
11482.4	-0.00362172	4624679
11489.6	-0.00273429	4626550
11496.9	-0.00181067	4630055
11505.1	-0.000727991	4632392
11512.3	0.000273371	4634468
11519.6	0.00131153	4636836
11527.8	0.00252347	4638540
11535.1	0.00363983	4640840
11543.3	0.00493959	4643015
11550.5	0.00613375	4645996
11557.8	0.00736427	4648300
11566	0.0087918	4650584
11573.2	0.0100988	4652994
11580.5	0.0114415	4655315
11588.7	0.012994	4658048
11596	0.0144111	4660059
11603.2	0.0158626	4662476
11611.4	0.0175369	4664048
11618.7	0.0190674	4665471
11626.1	0.0206432	4666925
11634.5	0.02247	4669107
11641.9	0.0241312	4669834
11649.3	0.025824	4671145
11657.7	0.027765	4671479
11665.1	0.0295223	4672099
11672.6	0.0313104	4672245
11680.1	0.0331344	4673806
11688.6	0.0352539	4674465
11696.2	0.03716	4675954
11703.7	0.0390774	4677949
11711.3	0.0410183	4678581
11719.7	0.0432284	4680315
11727.3	0.045219	4682008
11734.9	0.0472479	4683245
11743.5	0.0495603	4685327
11751.2	0.0516336	4686887
11758.8	0.0537175	4689158
11766.5	0.0558185	4691642
11775.1	0.0581911	4694389
11782.8	0.060305	4696118
11790.5	0.0624205	4698640
11798.1	0.0645344	4700905
11806.7	0.0669009	4703147
11814.4	0.0689914	4705337
11822	0.0710703	4707462
11830.6	0.0733956	4709592
11838.3	0.0754402	4711793
11845.9	0.0774557	4713531
11853.6	0.0794591	4715394
11862.1	0.0816567	4715961
11869.7	0.0835727	4716821
11877.3	0.0854523	4717188
11884.9	0.0872919	4717679
11892.5	0.0890979	4717826
11901.2	0.0910825	4718694
11908.8	0.0927917	4719275
11916.5	0.0944458	4720064
11924.1	0.096021	4720907
11932.5	0.0977097	4721024
11940.1	0.099144	4722010
11947.6	0.100513	4722972
11955.2	0.101826	4723962
11963.6	0.103201	4725352
11971.1	0.104345	4726846
11978.6	0.105414	4727756
11986.1	0.106405	4728773
11993.6	0.107318	4729608
12002.1	0.108249	4730561
12009.6	0.108991	4731367
12017.1	0.109652	4732484
12024.6	0.110226	4733072
12033	0.110773	4733128
12040.4	0.111172	4733483
12048	0.11149	4734603
12055.6	0.111726	4735535
12063.1	0.111875	4736220
12071.6	0.111943	4737567
12079.1	0.111914	4738129
12086.5	0.111804	4739151
12094.1	0.111609	4740032
12101.7	0.111335	4741797
12110.2	0.110932	4743603
12117.8	0.110488	4745113
12125.3	0.109972	4746961
12132.9	0.109389	4748696
12140.5	0.108731	4750503
12148	0.108013	4752185
12156.5	0.107136	4753523
12164	0.10629	4754855
12171.6	0.105387	4755665
12179.1	0.104429	4757038
12186.6	0.103421	4757780
12194.1	0.102366	4758523
12201.6	0.101266	4759402
12210.1	0.0999732	4759521
12217.7	0.098777	4760237
12225.4	0.0975431	4760603
12233	0.0962753	4760061
12240.7	0.0949744	4759433
12248.3	0.0936621	4759167
12255.8	0.092341	4759183
12264.2	0.0908343	4759674
12271.8	0.089478	4759911
12279.3	0.0881049	4759840
12286.9	0.0867136	4759930
12294.5	0.085295	4760119
12302.1	0.0838919	4760146
12309.7	0.0824792	4760490
12317.3	0.0810634	4760829
12325.8	0.079469	4762235
12333.4	0.0780571	4762323
12341	0.0766539	4763119
12348.5	0.0752641	4763858
12356.1	0.07388	4764538
12363.7	0.0724942	4765893
12371.2	0.071117	4767598
12378.8	0.0697484	4768155
12386.5	0.0683852	4769022
12395.1	0.0668551	4769575
12402.8	0.0655093	4769905
12410.4	0.0641829	4770550
12418	0.0628727	4771423
12425.6	0.0615805	4771592
12433.2	0.0603066	4771826
12440.7	0.0590486	4772337
12448.2	0.0578022	4773360
12455.8	0.0565667	4775324
12463.4	0.0553246	4776570
12471.1	0.0540869	4778003
12479.7	0.0527054	4779908
12487.4	0.0514863	4781678
12495	0.0502749	4783037
12502.7	0.0490702	4784977
12510.3	0.0478922	4787188
12517.9	0.0467008	4788858
12525.6	0.0455092	4790946
12533.3	0.0443193	4793205
12540.9	0.0431298	4794909
12548.6	0.0419395	4796724
12556.3	0.0407473	4798856
12563.9	0.0395521	4800959
12571.6	0.0383533	4803346
12580.2	0.0369992	4806098
12587.9	0.03579	4808457
12595.6	0.0345749	4810206
12603.3	0.0333532	4812682
12610.9	0.0321242	4814791
12618.6	0.0308872	4817164
12626.3	0.0296415	4819451
12634	0.0283866	4822181
12641.6	0.027122	4824235
12649.3	0.0258477	4827169
12656.7	0.0245997	4829483
12664.4	0.02331	4830699
12672.1	0.0220052	4832018
12679.7	0.0206907	4833107
12687.4	0.019374	4834793
12694.9	0.0180693	4834665
12702.4	0.0167576	4835134
12710	0.0154304	4835877
12718.6	0.013911	4836506
12726.3	0.0125563	4836917
12733.9	0.0111989	4837849
12740.4	0.0100476	4838144
12747.9	0.00873188	4838716
12756.2	0.00725331	4838505
12763.7	0.00593071	4838312
12771.4	0.00458154	4837806
12779.1	0.00323891	4837976
12786.7	0.00190468	4837833
12794.4	0.000581925	4838232
12801	-0.000545613	4838938
12808.4	-0.00180187	4839244
12815.9	-0.0030522	4840193
12823.5	-0.00430724	4840647
12831.2	-0.00555278	4841255
12838.8	-0.00677563	4841583
12846.5	-0.00797358	4841978
12854.2	-0.00914439	4843133
12861.6	-0.0102519	4844706
12869.1	-0.01133	4845981
12876.6	-0.0123883	4847019
12884.3	-0.0134316	4848549
12891.8	-0.0144186	4850141
12899.3	-0.0153669	4851820
12907	-0.0162926	4853396
12914.7	-0.0171747	4855052
12922.3	-0.0180115	4856385
12930	-0.0187991	4858891
12937.5	-0.019526	4860333
12945	-0.0202045	4861376
12952.6	-0.0208337	4862576
12960.2	-0.0214186	4864241
12967.8	-0.0219516	4865875
12974.5	-0.0223708	4866786
12982	-0.0227957	4867849
12989.6	-0.0231669	4868285
12997.1	-0.0234802	4869305
13004.6	-0.0237325	4869742
13012.1	-0.0239223	4870580
13019.7	-0.0240475	4871075
13027.2	-0.0241096	4872164
13034.8	-0.0241093	4872453
13042.3	-0.0240444	4873423
13049.9	-0.0242108	4873960
13057.4	-0.0240329	4874670
13065	-0.0237776	4875740
13072.6	-0.0234663	4875554
13080.1	-0.0230973	4876493
13087.7	-0.0226612	4875891
13095.2	-0.0221631	4876374
13102.7	-0.0216129	4877158
13110.3	-0.0210147	4877568
13117.8	-0.0203682	4877976
13125.5	-0.0196661	4878002
13133.1	-0.0189222	4878773
13140.7	-0.0181254	4879413
13148.3	-0.0172913	4880558
13155.9	-0.0164102	4881840
13163.4	-0.0154845	4883826
13170.1	-0.0146409	4886005
13177.6	-0.0136451	4887943
13185.2	-0.0126068	4890662
13192.9	-0.0115411	4892937
13200.5	-0.0104488	4894946
13208	-0.00934141	4897563
13215.5	-0.00821764	4899442
13223.1	-0.00707384	4901612
13230.7	-0.00590499	4903467
13238.3	-0.00472261	4905699
13244.9	-0.00367937	4907550
13252.5	-0.00247854	4909619
13260.1	-0.00126785	4911865
13267.7	-6.10008e-05	4914044
13275.3	0.00115336	4916087
13283	0.00237685	4918172
13290.6	0.00359723	4919913
13298.3	0.00480668	4921380
13305.8	0.0059904	4923760
13312.5	0.00702336	4925360
13320.2	0.00819577	4927001
13327.8	0.00934598	4928887
13335.5	0.0104684	4930880
13343.1	0.0115535	4932397
13350.7	0.0126031	4935608
13358.3	0.013618	4937947
13365.9	0.0145962	4939342
13372.6	0.0154176	4940777
13380.2	0.0163144	4943232
13387.9	0.0171675	4945913
13395.5	0.0179682	4947443
13403.1	0.0187155	4949926
13410.7	0.0194036	4951805
13418.3	0.0200308	4952609
13424.9	0.02053	4954353
13432.4	0.021043	4956571
13439.9	0.0214925	4957864
13447.4	0.0218784	4958606
13455	0.0222013	4959876
13461.6	0.0224376	4960936
13469.2	0.0226962	4962016
13476.8	0.0228775	4963455
13484.4	0.0229573	4964596
13492	0.0229372	4965322
13499.6	0.0228226	4965912
13507.2	0.0226181	4967626
13513.8	0.0223727	4967576
13521.4	0.0220192	4967782
13529	0.0215918	4969191
13536.5	0.021095	4968514
13544.1	0.0205222	4968278
13551.6	0.0198773	4967360
13558.3	0.019253	4967027
13565.8	0.0184882	4966186
13573.2	0.0176599	4965548
13580.6	0.0167642	4964755
13587.1	0.0159253	4964132
13594.5	0.014904	4963319
13602	0.0138041	4963232
13609.6	0.0126253	4963635
13617.2	0.0113796	4963411
13623.8	0.0102365	4964040
13631.3	0.00889189	4964483
13638.7	0.00749451	4964799
13646.1	0.00603951	4965357
13653.6	0.00452901	4965911
13661	0.00296535	4966211
13667.5	0.00155533	4966128
13675	-0.000105448	4967003
13682.4	-0.00181485	4967169
13690	-0.00358934	4967342
13697.6	-0.0054122	4968319
13704.2	-0.00703664	4968297
13711.8	-0.00891628	4968784
13719.4	-0.0108193	4968895
13726.9	-0.0127153	4969658
13734.4	-0.0146102	4971277
13740.9	-0.0162433	4971477
13748.3	-0.0181181	4972072
13755.7	-0.0199637	4971956
13763.2	-0.0216586	4972416
13770.6	-0.0236858	4972596
13777.1	-0.0253627	4972143
13784.5	-0.0274951	4972659
13792	-0.029848	4972780
13799.5	-0.032181	4974085
13806	-0.0341504	4974969
13813.5	-0.0362941	4975800
13820.9	-0.0383561	4976154
13828.3	-0.040393	4976786
13835.6	-0.0424343	4977528
13842	-0.0442167	4978062
13849.3	-0.0462501	4978859
13856.5	-0.0482605	4979425
13863.8	-0.0502427	4980020
13870.1	-0.051942	4980964
13877.3	-0.0538475	4982049
13884.5	-0.055719	4983367
13891.8	-0.0575582	4983994
13899	-0.0593631	4984984
13905.2	-0.0609068	4985468
13912.4	-0.0626358	4986708
13919.5	-0.06433	4987026
13926.6	-0.0659871	4987570
13933.8	-0.0676048	4987685
13940	-0.0689867	4988871
13947.2	-0.0705267	4990152
13954.3	-0.0720239	4990377
13961.4	-0.0734779	4990709
13967.7	-0.0747142	4991818
13974.8	-0.0760853	4992142
13982	-0.0774109	4993137
13989.1	-0.0786894	4993472
13996.2	-0.0799191	4994746
14002.5	-0.0809538	4995805
14009.6	-0.0820873	4996135
14016.8	-0.0831671	4996606
14023	-0.0840666	4997427
14030.2	-0.0850421	4997958
14037.3	-0.0859608	4998476
14044.4	-0.0868223	4998701
14051.6	-0.0876266	4998957
14057.8	-0.0882833	4999330
14065	-0.0889802	5000140
14072.1	-0.0896197	5000598
14078.4	-0.0901319	5000516
14085.5	-0.0906629	5000586
14092.6	-0.0911358	5000458
14099.8	-0.0915497	5000060
14106.9	-0.0919041	5000574
14113.2	-0.0921655	5001405
14120.3	-0.0924083	5001569
14127.6	-0.0925945	5002748
14134.9	-0.0927204	5004122
14142.2	-0.0927859	5005825
14148.7	-0.0927935	5006889
14156.2	-0.0927436	5008232
14163.7	-0.09263	5010444
14171.3	-0.092451	5012458
14178.9	-0.092205	5014025
14185.6	-0.0919346	5015798
14193.3	-0.0915611	5017014
14200.8	-0.0911241	5017111
14208.3	-0.0906176	5017257
14214.8	-0.0901179	5016842
14222.3	-0.0894815	5015790
14229.8	-0.0887765	5014639
14237.2	-0.0880087	5014305
14244.9	-0.0871587	5012547
14251.5	-0.086377	5011647
14259	-0.0854421	5010335
14266.4	-0.0844665	5008588
14273.9	-0.0834361	5006285
14280.6	-0.0824825	5004077
14288.2	-0.0813673	5003316
14295.6	-0.0802301	5001425
14302.2	-0.0792078	5000236
14309.6	-0.0780046	4999821
14317.1	-0.0767729	4999003
14324.5	-0.0755115	4998778
14332	-0.0742223	4997618
14338.5	-0.0730699	4996423
14346.1	-0.0717201	4995286
14353.6	-0.0703389	4994400
14361.3	-0.068927	4994001
14368.9	-0.0674991	4992624
14375.6	-0.0662391	4992937
14383.3	-0.0647902	4992370
14390.9	-0.0633347	4991556
14398.6	-0.0618755	4990756
14405.3	-0.0605979	4989502
14412.9	-0.0591391	4988183
14420.5	-0.057708	4986202
14427.9	-0.056297	4984737
14434.4	-0.0550682	4983999
14441.9	-0.0536697	4982333
14449.3	-0.0522803	4980234
14456.8	-0.0509034	4976877
14463.3	-0.0497103	4973977
14470.8	-0.0483612	4971518
14478.3	-0.0470295	4968596
14485.7	-0.0457223	4965867
14493.2	-0.0444365	4963146
14499.7	-0.04333	4961222
14507.2	-0.0420877	4958267
14514.6	-0.0408659	4955931
14522	-0.0396852	4954383
14529.4	-0.0385222	4952515
14537.1	-0.0373572	4951071
14543.7	-0.0363644	4949845
14551.3	-0.035256	4947719
14558.9	-0.0341862	4945068
14566.5	-0.0331402	4943241
14574	-0.0321345	4940493
14581.6	-0.0311596	4936958
14589.1	-0.0302148	4935201
14595.7	-0.0294174	4933218
14603.2	-0.0285349	4930223
14610.7	-0.027686	4927944
14618.1	-0.0268728	4924397
14625.5	-0.0260895	4921553
14633	-0.0253358	4919319
14640.4	-0.024611	4917174
14647	-0.0239957	4915305
14654.5	-0.0233194	4913353
14662	-0.0226716	4912341
14669.5	-0.0220517	4910533
14677	-0.0214583	4909168
14684.5	-0.0208903	4906994
14692.1	-0.0203467	4903589
14699.6	-0.019828	4900188
14707.2	-0.0193303	4896693
14714.8	-0.0188586	4892275
14722.4	-0.0184041	4888338
14729.9	-0.0179751	4883343
14737.5	-0.0175654	4879417
14744.1	-0.0172216	4875260
14751.6	-0.0168442	4870343
14759.2	-0.0164821	4865564
14766.7	-0.0161331	4860326
14774.2	-0.0157987	4856054
14781.7	-0.0154752	4851848
14789.2	-0.0151612	4846794
14796.7	-0.0148552	4841618
14804.3	-0.014555	4836922
14811.8	-0.014258	4832375
14819.4	-0.0139644	4827903
14826.9	-0.0136763	4822407
14834.5	-0.0133864	4818053
14842.1	-0.0130981	4812981
14849.7	-0.0128051	4807552
14857.3	-0.0125078	4802109
14865	-0.0122061	4796605
14872.6	-0.0118987	4790518
14880.3	-0.0115844	4784619
14887.9	-0.0112621	4779383
14895.6	-0.0109305	4773981
14903.2	-0.0105885	4769438
14910.9	-0.0102367	4764544
14918.4	-0.00987619	4759838
14926	-0.00950297	4755452
14934.4	-0.00906696	4751193
14942	-0.00866432	4747012
14949.6	-0.00824222	4743679
14957.3	-0.00780346	4738919
14964.9	-0.00735213	4734987
14972.3	-0.00689577	4731225
14979.7	-0.00642211	4727779
14987.3	-0.0059253	4724334
14994.8	-0.00541416	4721443
15002.3	-0.00488742	4718847
15009.8	-0.00434754	4714793
15018.2	-0.00372459	4710799
15025.7	-0.00315536	4707118
15033.1	-0.00257201	4703306
15040.7	-0.0019635	4699988
15048.3	-0.00134206	4695345
15055.9	-0.000709807	4690240
15063.4	-7.88875e-05	4685568
15070.8	0.000555027	4681527
15079.2	0.00160066	4675577
15086.6	0.00222203	4671125
15094.1	0.00287442	4665686
15101.5	0.00354159	4659733
15109.7	0.00430083	4653639
15117.1	0.00498156	4648473
15124.4	0.00566352	4642779
15131.7	0.00634686	4636544
15139.1	0.00703053	4630907
15147.3	0.00779911	4625151
15154.6	0.008481	4620182
15162	0.00916087	4615202
15170.2	0.0099222	4609347
15177.5	0.0105948	4604203
15184.9	0.0112625	4600073
15192.2	0.0119243	4594941
15200.4	0.0126603	4589381
15207.8	0.0133056	4583414
15215.1	0.0139411	4578299
15223.4	0.0146422	4572031
15230.7	0.0152513	4566287
15238	0.015845	4560296
15246.3	0.0164923	4555145
15253.6	0.0170472	4549586
15261.8	0.0176459	4542663
15269.2	0.0181536	4537024
15277.4	0.0186953	4530120
15284.7	0.0191493	4524698
15293	0.0196276	4517595
15300.3	0.020023	4511586
15308.5	0.0204331	4506215
15315.9	0.020766	4500173
15324.1	0.0211039	4494422
15331.5	0.0213706	4489834
15338.8	0.0216048	4484556
15347	0.021828	4478751
15355.3	0.0220073	4472876
15362.6	0.0221285	4467263
15370.8	0.0222203	4461624
15378.2	0.0222612	4456425
15386.5	0.0222598	4450724
15393.8	0.022215	4445111
15402.1	0.0221141	4439231
15409.5	0.0219798	4433379
15417.9	0.0217825	4427493
15426.4	0.0215411	4421504
15433.9	0.0212851	4415302
15442.4	0.0209406	4408923
15450.9	0.0205945	4403067
15458.4	0.0202626	4397744
15466.9	0.0197709	4392029
15475.3	0.0191268	4386389
15482.9	0.0184459	4381819
15491.4	0.0175945	4375999
15499.9	0.0166898	4370893
15507.5	0.0158479	4366100
15516	0.0148484	4360249
15524.4	0.0137826	4353895
15532.9	0.0126423	4347062
15540.6	0.0115461	4341994
15549.1	0.0102534	4335941
15557.6	0.0088741	4329762
15566	0.00741567	4324172
15573.5	0.00605042	4318964
15582	0.00443122	4313835
15590.4	0.00272015	4308196
15598.9	0.000917909	4301986
15607.4	-0.000969861	4295924
15615	-0.00272853	4290739
15623.6	-0.00480152	4283745
15632.1	-0.00692959	4277959
15640.6	-0.00912324	4272213
15649.2	-0.0114177	4266296
15657.8	-0.0137777	4260900
15666.4	-0.0161843	4255311
15674.8	-0.0186146	4250334
15683.3	-0.021097	4245440
15691.7	-0.0236287	4240972
15700.1	-0.0262073	4234276
15708.6	-0.0288316	4229203
15717.1	-0.0315082	4223897
15725.6	-0.0342475	4218463
15734.1	-0.037054	4213200
15741.8	-0.0396147	4208443
15751.3	-0.0429044	4201607
15759.9	-0.045963	4195959
15768.4	-0.0490718	4190140
15776.7	-0.0523917	4184825
15785.1	-0.0558493	4179500
15793.4	-0.0607229	4173520
15801.9	-0.0653682	4167489
15810.3	-0.0695204	4161324
15818.7	-0.0736063	4154482
15827.2	-0.0776674	4148361
15835.7	-0.0816582	4140447
15844.1	-0.085724	4134099
15853.6	-0.0904726	4127173
15862.1	-0.0947897	4120889
15870.5	-0.0990181	4114466
15879	-0.103255	4108312
15887.5	-0.107454	4102031
15896.1	-0.111636	4095610
15905.6	-0.116312	4088454
15914.1	-0.12057	4081730
15922.6	-0.12485	4074644
15931	-0.129067	4067844
15940.3	-0.133735	4060798
15948.8	-0.137932	4053547
15957.3	-0.142103	4046839
15966.7	-0.146619	4039508
15975.1	-0.15066	4033135
15983.6	-0.154718	4026413
15993.1	-0.15916	4018855
16001.7	-0.163093	4012738
16010.1	-0.166867	4005891
16019.5	-0.170909	3998670
16027.9	-0.174383	3993070
16037.1	-0.17806	3986154
16045.4	-0.181226	3980050
16054.8	-0.184634	3973331
16063.3	-0.187533	3967277
16072.6	-0.190535	3960237
16081	-0.19304	3953117
16090.3	-0.195605	3945223
16099.6	-0.197932	3938340
16107.9	-0.199814	3931765
16117.2	-0.201664	3924270
16125.6	-0.203103	3916963
16134.9	-0.204438	3908683
16143.2	-0.205395	3902357
16152.5	-0.206175	3894601
16161.8	-0.206683	3887103
16170.2	-0.206824	3880642
16179.5	-0.206728	3873363
16188.8	-0.206176	3865854
16197.2	-0.205298	3859664
16206.5	-0.204025	3853710
16215.8	-0.202458	3847478
16224.1	-0.200782	3841547
16233.5	-0.198597	3834702
16242.9	-0.196077	3827316
16252.3	-0.193227	3820684
16261.7	-0.190078	3813884
16270	-0.187033	3807061
16279.2	-0.183376	3799803
16288.6	-0.179349	3791752
16298	-0.175055	3783784
16307.3	-0.170533	3776613
16316.6	-0.165757	3769264
16326	-0.160714	3760898
16335.4	-0.155447	3753633
16344.8	-0.149977	3746366
16354.4	-0.144201	3738841
16363.9	-0.138228	3731718
16373.5	-0.132064	3725027
16382.7	-0.125865	3718349
16392	-0.121397	3712908
16401.3	-0.114316	3707210
16410.7	-0.10603	3700849
16420	-0.0966208	3694749
16429.3	-0.0865555	3687674
16438.8	-0.0773937	3681666
16448.2	-0.0685359	3675345
16457.6	-0.0594529	3668786
16468	-0.0492622	3661935
16477.4	-0.0400357	3655078
16486.9	-0.0307726	3648945
16496.3	-0.0214206	3643100
16505.4	-0.0122105	3637641
16514.7	-0.00295365	3632048
16525	0.00734196	3625120
16534.4	0.0166606	3618925
16543.8	0.0259318	3612378
16554.1	0.0360467	3606533
16563.5	0.0451559	3601901
16572.9	0.0541394	3595836
16582.3	0.0629386	3590083
16592.5	0.0722956	3583956
16601.8	0.0805635	3578065
16611.1	0.088585	3572278
16621.3	0.097116	3566581
16630.7	0.104628	3561684
16641.1	0.112516	3556021
16650.4	0.119319	3549793
16659.8	0.125752	3543665
16670.2	0.132376	3538295
16679.6	0.137968	3533557
16689.9	0.143626	3527713
16699.3	0.148303	3522593
16709.6	0.152912	3516486
16719	0.156589	3510615
16729.4	0.160089	3504201
16738.8	0.16248	3498981
16749.2	0.165135	3492867
16759.7	0.166977	3487654
16769.2	0.167781	3481065
16779.5	0.168022	3475434
16788.8	0.168278	3470201
16799	0.168261	3463766
16809.3	0.167824	3456946
16818.7	0.167137	3449568
16829	0.166164	3441710
16839.5	0.165014	3433379
16850	0.163665	3425485
16859.5	0.162232	3418730
16869.9	0.160402	3411148
16880.4	0.158326	3403327
16890.9	0.156026	3395568
16901.5	0.15355	3387411
16912	0.150901	3379469
16921.5	0.148066	3372086
16932.1	0.14168	3363558
16942.6	0.137059	3356299
16953.1	0.132517	3348393
16963.6	0.127867	3340829
16974	0.122989	3333015
16984.4	0.117846	3325949
16995.6	0.112081	3317829
17005.9	0.106841	3310697
17016.3	0.101671	3303147
17026.7	0.0964786	3296651
17037.2	0.091069	3289045
17047.7	0.0854852	3281583
17059.1	0.0792967	3273857
17069.6	0.0734893	3266068
17080.1	0.0675771	3257973
17090.6	0.061541	3250423
17102.1	0.0548566	3242008
17112.6	0.0487377	3233989
17123.1	0.0427328	3226452
17134.6	0.0364084	3218595
17145.1	0.0308731	3211581
17156.6	0.0251477	3203495
17167.1	0.0201894	3196196
17178.6	0.0150919	3189148
17189.1	0.0107088	3181907
17200.6	0.00625852	3174185
17211.1	0.00249561	3167115
17222.6	-0.00126067	3159975
17234	-0.0046552	3153858
17244.5	-0.00743316	3148778
17255.8	-0.0100836	3142693
17267.2	-0.0123521	3136632
17278.6	-0.0142424	3130038
17289.1	-0.0156337	3124548
17300.5	-0.0168032	3118438
17312	-0.0178268	3112012
17323.2	-0.0183104	3105573
17334.4	-0.0181543	3100308
17344.8	-0.0178259	3094682
17356.3	-0.0172136	3088781
17367.8	-0.0167419	3081727
17379.2	-0.016006	3073710
17390.7	-0.0150481	3066716
17402.2	-0.0138846	3059393
17413.5	-0.0125743	3052374
17424.7	-0.0111875	3045096
17435.9	-0.00971523	3038683
17447.4	-0.00812854	3032657
17458.9	-0.00645807	3026534
17470.3	-0.00471516	3019987
17481.8	-0.00291813	3013840
17493.3	-0.00108724	3007601
17504.7	0.000761415	3002342
17516.2	0.00261779	2996944
17528.6	0.00462922	2991083
17540.1	0.00647647	2985617
17551.6	0.0083017	2979779
17563	0.0100915	2974375
17574.5	0.0118351	2969771
17586.9	0.0136641	2963744
17598.4	0.0152924	2959175
17609.9	0.0168588	2953745
17621.4	0.018358	2949172
17633.8	0.0198998	2944052
17645.2	0.0212411	2939748
17657.7	0.0226001	2934703
17669.1	0.023766	2930302
17680.6	0.0248451	2926153
17693	0.0259084	2921254
17704.5	0.0267842	2916269
17716.9	0.0276172	2910654
17728.4	0.0282921	2906012
17740.7	0.028922	2900872
17752	0.0294191	2895673
17764.2	0.0298929	2890644
17775.5	0.0302892	2886031
17787.7	0.0306863	2880056
17799.1	0.0310347	2874674
17811.5	0.0313908	2868044
17822.8	0.0317016	2862980
17835.1	0.0320231	2856812
17846.5	0.0323102	2850456
17858.9	0.0326175	2843318
17871.2	0.0329209	2836531
17883.4	0.033223	2829658
17895.6	0.0335328	2822818
17906.9	0.0338303	2816720
17919.1	0.0341667	2810159
17931.3	0.0345225	2803588
17943.7	0.0349038	2796077
17956.1	0.0353096	2788955
17968.5	0.0357342	2782569
17980.8	0.0361733	2776594
17993.1	0.0366216	2770626
18005.4	0.0370325	2764581
18017.7	0.0375891	2758546
18030.1	0.0381162	2753222
18042.5	0.0387574	2747919
18054.8	0.0394186	2743435
18067.1	0.0400337	2739706
18079.3	0.0406192	2734408
18092.4	0.0412434	2729023
18104.7	0.0417012	2723902
18116.9	0.0422067	2719148
18129.3	0.0427368	2714212
18141.7	0.0432946	2708549
18154	0.0438437	2703780
18166.1	0.0443469	2699076
18179	0.0448283	2694182
18191.1	0.0452243	2688696
18203.1	0.0455898	2683555
18216.1	0.045967	2677629
18228.2	0.0463099	2673253
18241.4	0.0466746	2667205
18253.7	0.0469974	2661540
18266.8	0.0473193	2656124
18279	0.0475929	2651918
18292.1	0.0478566	2647233
18304.5	0.0480773	2643149
18317.9	0.0482861	2638464
18330.9	0.0484642	2634542
18343	0.0486002	2630545
18356.3	0.0486895	2625771
18368.5	0.0487275	2621723
18381.6	0.0487427	2617479
18394.7	0.0487312	2612441
18406.9	0.0486865	2607106
18420.2	0.04859	2601737
18433.3	0.0484407	2596156
18445.4	0.0482556	2591284
18458.8	0.0480074	2585617
18472.1	0.0477227	2580158
18484.4	0.0474379	2575111
18497.7	0.0471043	2569519
18511	0.0467055	2564134
18524.4	0.0461979	2559066
18537.7	0.045609	2553628
18551.1	0.0449881	2547557
18564.5	0.0442015	2542240
18577.8	0.0432545	2536971
18591.2	0.0422037	2531636
18604.5	0.0410769	2526134
18616.9	0.0399647	2521029
18630.3	0.0386899	2515512
18643.6	0.0373274	2509774
18657	0.0358699	2504073
18670.3	0.0343117	2497961
18684.6	0.0325264	2491873
18698	0.0307508	2486304
18711.3	0.0288706	2480594
18724.7	0.0268881	2475003
18738	0.0248062	2470314
18752.3	0.0224689	2465332
18765.7	0.0201915	2460729
18780	0.0176528	2456521
18793.4	0.0151954	2452893
18806.7	0.0126577	2449157
18821	0.00985538	2445230
18834.4	0.00716797	2441728
18848.7	0.00421833	2437470
18862	0.00140582	2434565
18875.4	-0.00145864	2431674
18889.7	-0.00457965	2428008
18903	-0.00753596	2424501
18917.3	-0.0107441	2420874
18930.7	-0.0137705	2417385
18945	-0.0170405	2413634
18958.4	-0.0201111	2410292
18972.7	-0.0234121	2406893
18986	-0.0264942	2403114
19000.3	-0.0297855	2399727
19014.6	-0.0330504	2396803
19028	-0.0360586	2393960
19042.3	-0.039222	2391596
19055.6	-0.0421026	2388885
19069.9	-0.0450955	2385813
19084.3	-0.047976	2382671
19098.6	-0.0507307	2379530
19111.9	-0.0531783	2376491
19126.2	-0.0556597	2372432
19140.5	-0.0579882	2368532
19153.9	-0.0600186	2364952
19168.2	-0.0620372	2361009
19182.5	-0.0638908	2356550
19196.8	-0.0655769	2351989
19210.1	-0.066985	2348061
19225.3	-0.0684158	2342700
19238.6	-0.0695269	2338615
19252.9	-0.0705663	2334199
19267.1	-0.0714325	2329892
19281.4	-0.0721313	2325606
19295.7	-0.0726776	2320426
19310	-0.0730614	2316097
19324.3	-0.0732972	2311383
19338.6	-0.0733813	2307031
19352.9	-0.0733176	2303248
19367.1	-0.0731154	2298725
19382.3	-0.0727584	2294203
19396.5	-0.0722972	2289988
19410.7	-0.0717142	2286234
19424.9	-0.0710127	2282485
19440.1	-0.0701422	2278179
19454.3	-0.0692195	2274572
19468.5	-0.0682002	2271185
19482.7	-0.06709	2267629
19496.9	-0.0658941	2263667
19512.1	-0.0645306	2259007
19526.3	-0.063175	2255478
19540.5	-0.0617478	2252204
19555.7	-0.0601446	2248544
19569.9	-0.0585832	2244608
19585	-0.0568205	2240401
19599.2	-0.0551677	2236318
19613.4	-0.0533355	2231999
19627.6	-0.052273	2228600
19642.7	-0.049932	2224438
19656.8	-0.0476035	2221024
19671.8	-0.0450627	2217332
19686	-0.0425219	2213344
19701.2	-0.0397184	2209228
19716.3	-0.0368199	2205704
19730.5	-0.0342142	2202266
19745.7	-0.0314218	2198048
19759.9	-0.0286324	2193850
19775.1	-0.0254177	2189858
19789.3	-0.0222358	2185397
19804.4	-0.0186978	2181318
19818.7	-0.0152467	2177381
19833.8	-0.0114248	2172857
19849	-0.00746829	2168894
19863.2	-0.00365495	2165239
19878.4	0.000481202	2161118
19893.5	0.00461364	2157958
19908.7	0.00864775	2154386
19922.9	0.0122583	2150713
19938.1	0.0158564	2146915
19953.2	0.0191409	2143035
19968.4	0.0220706	2139544
19983.4	0.0245788	2136531
19998.2	0.0266296	2133463
