%%MatrixMarket matrix array complex general
10 10
0 0
0 0
0 0
0 0
4.89897949 0
4 0
3.46410162 0
0 0
0 0
5.29150262 0
0 0
0 0
0 0
0 0
0 0
7.07106781 0
7.83836718 0
0 0
0 0
-2.99332591 0
0 0
0 0
0 0
0 0
0 0
0 0
8.4 0
0 0
0 0
0.611010093 0
0 0
0 0
0 0
0 0
0 0
0 0
0 0
0 0
0 0
0 0
0 0
0 0
0 0
0 0
0 0
0 0
0 0
9.48683298 0
4.38178046 0
0 0
0 0
0 0
0 0
0 0
0 0
0 0
0 0
0 0
12.5219807 0
0 0
0 0
0 0
0 0
0 0
0 0
0 0
0 0
0 0
0 0
0 0
0 0
0 0
0 0
0 0
0 0
0 0
0 0
0 0
0 0
13.662601 0
0 0
0 0
0 0
0 0
0 0
0 0
0 0
0 0
0 0
0 0
0 0
0 0
0 0
0 0
0 0
0 0
0 0
0 0
0 0
0 0
