%%MatrixMarket matrix array complex general
10 4
0.150363889 0
0.214767072 0
0.0335831591 0
-0.187597711 0
-0.121547376 0
-0.349824581 0
-0.410267369 0
0.0634223028 0
0.270227742 0
-0.0285957702 0
0.150363889 0
-0.00212042001 0
-0.143504736 0
0.0924028352 0
-0.246767428 0
-0.196461965 0
0.234893526 0
0.261412589 0
0.395447794 0
-0.2392922 0
0.0802042416 0
0.203225739 0
0.307706542 0
0.352028684 0
-0.0136405431 0
-0.0610250346 0
-0.154677782 0
0.00149747778 0
0.00953442951 0
-0.00014205379 0
0.0802042416 0
-0.0897998125 0
0.068452181 0
-0.0262656749 0
-0.182818924 0
0.14617532 0
-0.0693040914 0
0.268991985 0
-0.159643952 0
-0.34199591 0
