%%MatrixMarket matrix array complex general
10 4
0.150363889 0
-0.212646651 0
0.260437896 0
-0.300727778 0
-0.125220052 0
0.153362616 0
-0.177087895 0
-0.190209004 0
0.219634439 0
0.327591761 0
0.150363889 0
-0.212646651 0
0.260437896 0
-0.300727778 0
0.125220052 0
-0.153362616 0
0.177087895 0
-0.190209004 0
0.219634439 0
-0.32759176 0
0.0802042416 0
-0.113425926 0
0.138917822 0
-0.160408483 0
-0.169178381 0
0.207200354 0
-0.239254361 0
0.190209004 0
-0.219634439 0
-0.129334911 0
0.0802042416 0
-0.113425926 0
0.138917822 0
-0.160408483 0
0.169178381 0
-0.207200354 0
0.239254361 0
0.190209004 0
-0.21963444 0
0.129334909 0
