%%MatrixMarket matrix array real general
6 6
1.
0.
0.
0.
0.
0.
-.7071067810
-.2500000000
0.
-.4330127020
0.
0.
.1443375673
.4082482906
.8333333333e-1
.7071067810
.1443375673
.1863389981
.4082482906
.7216878367
0.
-.7500000000
0.
0.
.1250000000
-.7071067810
-.2165063510
0.
-.1250000000
.4841229182
-.1613743061
.3651483717
.5776508940
-.3162277660
-.7423218081
.5416666667
