%%MatrixMarket matrix array real general
6 3
-.2357022604
-.6666666667
-.8164965809
0.
.3535533905
.9128709293e-1
-.9428090414
-.6666666667
0.
1.154700539
1.414213562
-1.095445115
-.2357022604
.3333333333
0.
.5773502693
-.3535533905
-.8215838362
