%%MatrixMarket matrix array real general
6 3
-.3333333333
.4714045206
0.
-.8164965809
.5000000000
-1.161895004
-1.333333333
-.9428090414
0.
-1.632993162
-2.
-1.549193338
-.3333333333
-.9428090414
-1.154700539
0.
-.5000000000
.1290994449
