0	0
11.0308	0
22.0616	0
33.0924	0
40.4463	0
51.4771	0
62.5079	0
73.5387	0
80.8926	0
91.9234	0
102.954	0
110.308	0
121.339	0
132.37	0
143.401	0
150.754	0
161.785	0
172.816	0
180.17	0
191.201	0
202.231	0
213.262	0
220.616	0
231.647	0
242.678	0
250.032	0
261.062	0
272.093	0
283.124	0
290.478	0
301.509	0
312.54	0
323.57	0
330.924	0
341.955	0
352.986	0
360.34	0
371.371	0
382.401	0
393.432	0
400.786	0
411.817	0
422.848	0
430.202	0
441.232	0
452.263	0
463.294	0
470.648	0
481.679	0
492.709	0
500.063	0
511.094	0
522.125	0
533.156	0
540.51	0
551.54	0
562.571	0
573.602	0
580.956	0
591.987	0
603.018	0
610.371	0
621.402	0
632.433	0
643.464	0
650.818	0
661.849	0
672.879	0
680.233	0
691.264	0
702.295	0
713.326	0
720.68	0
731.71	0
742.741	0
750.095	0
761.126	0
772.157	0
783.187	0
790.541	0
801.572	0
812.603	0
823.634	0
830.988	0
842.018	0
853.049	0
860.403	0
871.434	0
882.465	0
893.496	0
900.849	0
911.88	0
922.911	0
930.265	0
941.296	0
952.327	0
963.357	0
970.711	0
981.742	0
992.773	0
1000.13	0
1011.16	0
1022.19	0
1033.22	0
1040.57	0
1051.6	0
1062.63	0
1073.67	0
1081.02	0
1092.05	0
1103.08	0
1110.43	0
1121.47	0
1132.5	0
1143.53	0
1150.88	0
1161.91	0
1172.94	0
1180.3	0
1191.33	0
1202.36	0
1213.39	0
1220.74	0
1231.77	0
1242.8	0
1250.16	0
1261.19	0
1272.22	0
1283.25	0
1290.6	0
1301.64	0
1312.67	0
1320.02	0
1331.05	0
1342.08	0
1353.11	0
1360.47	0
1371.5	0
1382.53	0
1393.56	0
1400.91	0
1411.94	0
1422.97	0
1430.33	0
1441.36	0
1452.39	0
1463.42	0
1470.77	0
1481.81	0
1492.84	0
1500.19	0
1511.22	0
1522.25	0
1533.28	0
1540.64	0
1551.67	0
1562.7	0
1570.05	0
1581.08	0
1592.11	0
1603.14	0
1610.5	0
1621.53	0
1632.56	0
1643.59	0
1650.94	0
1661.98	0
1673.01	0
1680.36	0
1691.39	0
1702.42	0
1713.45	0
1720.81	0
1731.84	0
1742.87	0
1750.22	0
1761.25	0
1772.28	0
1783.31	0
1790.67	0
1801.7	0
1812.73	0
1820.08	0
1831.11	0
1842.15	0
1853.18	0
1860.53	0
1871.56	0
1882.59	0
1893.62	0
1900.98	0
1912.01	0
1923.04	0
1930.39	0
1941.42	0
1952.45	0
1963.48	0
1970.84	0
1981.87	0
1992.9	0
2000.25	0
2011.28	0
2022.31	0
2033.35	0
2040.7	0
2051.73	0
2062.76	0
2070.12	0
2081.15	0
2092.18	0
2103.21	0
2110.56	0
2121.59	0
2132.62	0
2143.65	0
2151.01	0
2162.04	0
2173.07	0
2180.42	0
2191.45	0
2202.48	0
2213.52	0
2220.87	0
2231.9	0
2242.93	0
2250.28	0
2261.32	0
2272.35	0
2283.38	0
2290.73	0
2301.76	0
2312.79	0
2320.15	0
2331.18	0
2342.21	0
2353.24	0
2360.59	0
2371.62	0
2382.65	0
2390.01	0
2401.04	0
2412.07	0
2423.1	0
2430.45	0
2441.49	0
2452.52	0
2463.55	0
2470.9	0
2481.93	0
2492.96	0
2500.32	0
2511.35	0
2522.38	0
2533.41	0
2540.76	0
2551.79	0
2562.82	0
2570.18	0
2581.21	0
2592.24	0
2603.27	0
2610.62	0
2621.66	0
2632.69	0
2640.04	0
2651.07	0
2662.1	0
2673.13	0
2680.49	0
2691.52	0
2702.55	0
2713.58	0
2720.93	0
2731.96	0
2742.99	0
2750.35	0
2761.38	0
2772.41	0
2783.44	0
2790.79	0
2801.83	0
2812.86	9.09495e-13
2820.21	9.09495e-13
2831.24	2.72848e-12
2842.27	5.45697e-12
2853.3	1.09139e-11
2860.66	1.63709e-11
2871.69	3.09228e-11
2882.72	5.63887e-11
2890.07	8.4583e-11
2901.1	1.50976e-10
2912.13	2.68301e-10
2923.16	4.69299e-10
2930.52	6.75755e-10
2941.55	1.15142e-09
2952.58	1.9354e-09
2963.61	3.21234e-09
2970.96	4.46744e-09
2981.99	7.24503e-09
2993.02	1.15961e-08
3000.38	1.57543e-08
3011.41	2.4681e-08
3022.44	3.8186e-08
3033.47	5.83568e-08
3040.82	7.69051e-08
3051.86	1.15192e-07
3062.89	1.70521e-07
3070.24	2.20066e-07
3081.27	3.19587e-07
3092.3	4.58935e-07
3103.33	6.51819e-07
3110.69	8.18648e-07
3121.72	1.14207e-06
3132.75	1.57665e-06
3140.1	1.94362e-06
3151.13	2.6379e-06
3162.16	3.54472e-06
3173.19	4.71701e-06
3180.55	5.67645e-06
3191.58	7.4351e-06
3202.61	9.64905e-06
3213.64	1.24095e-05
3220.99	1.46036e-05
3232.02	1.85085e-05
3243.05	2.32582e-05
3250.41	2.69586e-05
3261.44	3.34132e-05
3272.47	4.10824e-05
3283.5	5.01185e-05
3290.85	5.69787e-05
3301.88	6.86401e-05
3312.91	8.20858e-05
3320.27	9.21167e-05
3331.3	0.000108873
3342.33	0.000127806
3353.36	0.000149042
3360.71	0.000164536
3371.74	0.000189854
3382.77	0.000217733
3390.13	0.000237773
3401.16	0.000270042
3412.19	0.000304977
3423.22	0.00034257
3430.57	0.000369094
3441.6	0.000411034
3452.63	0.000455491
3463.66	0.00050237
3471.02	0.000534912
3482.05	0.00058556
3493.08	0.000638284
3500.43	0.000674509
3511.46	0.000730343
3522.49	0.000787822
3533.52	0.000846781
3540.88	0.000886829
3551.91	0.000947894
3562.94	0.00101002
3570.29	0.00105197
3581.32	0.00111558
3592.35	0.00117993
3603.38	0.00124496
3610.73	0.00128865
3621.77	0.00135469
3632.8	0.00142131
3640.15	0.00146605
3651.18	0.0015337
3662.21	0.00160205
3673.24	0.00167119
3680.59	0.00171779
3691.62	0.00178853
3702.65	0.00186043
3710.01	0.00190909
3721.04	0.00198333
3732.07	0.00205925
3743.1	0.00213707
3750.45	0.00219014
3761.48	0.0022717
3772.51	0.0023559
3783.54	0.00244306
3790.9	0.00250299
3801.93	0.00259594
3812.96	0.002693
3820.31	0.00276027
3831.34	0.00286551
3842.37	0.00297669
3853.4	0.00309477
3860.76	0.00317791
3871.79	0.00331032
3882.82	0.00345347
3890.17	0.00355588
3901.2	0.00372179
3912.23	0.00390507
3923.26	0.00410923
3930.61	0.00425902
3941.64	0.00450793
3952.68	0.00479117
3960.03	0.00500246
3971.06	0.00535909
3982.09	0.00577176
3993.12	0.00625154
4000.47	0.00661502
4011.5	0.00723669
4022.53	0.00796533
4033.57	0.00882061
4040.92	0.00947221
4051.95	0.0105906
4062.98	0.0119038
4070.33	0.0129033
4081.36	0.0146149
4092.39	0.0166168
4103.43	0.0189526
4110.78	0.020719
4121.81	0.023721
4132.84	0.0271957
4140.19	0.0298045
4151.22	0.0342031
4162.26	0.0392438
4173.29	0.0449962
4180.64	0.0492623
4191.67	0.0563623
4202.7	0.0643694
4210.05	0.0702477
4221.09	0.0799291
4232.12	0.0907089
4243.15	0.102652
4250.5	0.11129
4261.53	0.1253
4272.56	0.140613
4283.59	0.157262
4290.95	0.169115
4301.98	0.188032
4313.01	0.208309
4320.36	0.222573
4331.39	0.245063
4342.42	0.268818
4353.45	0.293767
4360.81	0.311019
4371.84	0.337747
4382.87	0.365382
4390.22	0.38424
4401.25	0.41306
4412.29	0.442363
4423.32	0.47196
4430.67	0.491753
4441.7	0.521377
4452.73	0.550721
4460.09	0.570015
4471.12	0.598375
4482.15	0.625826
4493.18	0.652129
4500.53	0.66891
4511.56	0.692779
4522.59	0.714887
4533.62	0.73502
4540.98	0.747248
4552.01	0.76366
4563.04	0.77761
4570.39	0.785468
4581.42	0.794998
4592.45	0.801725
4603.48	0.805564
4610.84	0.806489
4621.87	0.8054
4632.9	0.801326
4640.25	0.796956
4651.28	0.787944
4662.31	0.776032
4673.35	0.761292
4680.7	0.749942
4691.73	0.730713
4702.76	0.708953
4710.11	0.69311
4721.14	0.667454
4732.18	0.639674
4743.21	0.609941
4750.56	0.589123
4761.59	0.556538
4772.62	0.522487
4783.65	0.48716
4791.01	0.46299
4802.04	0.425948
4813.07	0.388122
4820.42	0.362557
4831.45	0.323818
4842.48	0.284759
4853.51	0.245543
4860.87	0.219388
4871.9	0.180251
4882.93	0.141355
4890.28	0.115625
4901.31	0.0774281
4912.34	0.0398167
4923.37	0.00290649
4930.73	-0.0212568
4941.76	-0.0567604
4952.79	-0.0912886
4960.14	-0.113721
4971.17	-0.146425
4982.21	-0.177927
4993.24	-0.208153
5000.59	-0.227561
5011.62	-0.255512
5022.65	-0.28202
5030.01	-0.298865
5041.04	-0.322857
5052.07	-0.345282
5063.1	-0.366107
5070.45	-0.379086
5081.48	-0.397182
5092.51	-0.413618
5103.54	-0.428381
5110.9	-0.437293
5121.93	-0.449267
5132.96	-0.459576
5140.31	-0.465531
5151.34	-0.473103
5162.37	-0.479066
5173.41	-0.483453
5180.76	-0.485522
5191.79	-0.487376
5202.82	-0.487774
5210.17	-0.487258
5221.21	-0.485356
5232.24	-0.482159
5243.27	-0.477734
5250.62	-0.474138
5261.65	-0.467831
5272.68	-0.460497
5280.04	-0.455077
5291.07	-0.446211
5302.1	-0.436537
5313.13	-0.426138
5320.48	-0.418844
5331.51	-0.407424
5342.54	-0.395503
5353.57	-0.383163
5360.93	-0.374743
5371.96	-0.361883
5382.99	-0.348812
5390.34	-0.340019
5401.37	-0.32676
5412.4	-0.313481
5423.44	-0.300245
5430.79	-0.291474
5441.82	-0.27844
5452.85	-0.265598
5460.2	-0.257168
5471.24	-0.244753
5482.27	-0.232648
5493.3	-0.22089
5500.65	-0.213259
5511.68	-0.202147
5522.71	-0.191454
5530.07	-0.18457
5541.1	-0.174621
5552.13	-0.165138
5563.16	-0.15613
5570.51	-0.150392
5581.54	-0.142189
5592.57	-0.134474
5603.6	-0.127245
5610.96	-0.122694
5621.99	-0.116268
5633.02	-0.110316
5640.37	-0.106608
5651.4	-0.101429
5662.43	-0.0967022
5673.47	-0.0924161
5680.82	-0.0897982
5691.85	-0.0862218
5702.88	-0.0830551
5710.23	-0.0811655
5721.27	-0.0786538
5732.3	-0.0765178
5743.33	-0.0747445
5750.68	-0.0737573
5761.71	-0.072559
5772.74	-0.0716878
5780.1	-0.071282
5791.13	-0.0709258
5802.16	-0.0708603
5813.19	-0.0710715
5820.54	-0.0713589
5831.57	-0.0719994
5842.6	-0.0728779
5853.63	-0.0739792
5860.99	-0.0748296
5872.02	-0.0762676
5883.05	-0.0778859
5890.4	-0.0790566
5901.43	-0.0809378
5912.46	-0.0829532
5923.5	-0.0850846
5930.85	-0.0865608
5941.88	-0.0888438
5952.91	-0.0911921
5960.26	-0.092784
5971.3	-0.0951969
5982.33	-0.0976217
5993.36	-0.100038
6000.71	-0.101635
6011.74	-0.103992
6022.77	-0.106288
6030.13	-0.107774
6041.16	-0.109923
6052.19	-0.111958
6063.22	-0.113862
6070.57	-0.115049
6081.6	-0.116696
6092.63	-0.118166
6103.66	-0.119448
6111.02	-0.12019
6122.05	-0.121126
6133.08	-0.12184
6140.43	-0.122188
6151.46	-0.122513
6162.5	-0.122594
6173.53	-0.122428
6180.88	-0.122178
6191.91	-0.121593
6202.94	-0.120755
6210.3	-0.120056
6221.33	-0.118801
6232.36	-0.1173
6243.39	-0.115558
6250.74	-0.114268
6261.77	-0.112142
6272.8	-0.109798
6280.16	-0.108119
6291.19	-0.105434
6302.22	-0.10256
6313.25	-0.0995112
6320.6	-0.0973876
6331.63	-0.0940763
6342.66	-0.0906273
6350.02	-0.0882588
6361.05	-0.0846137
6372.08	-0.0808716
6383.11	-0.0770478
6390.46	-0.0744609
6401.5	-0.0705353
6412.53	-0.0665688
6423.56	-0.0625759
6430.91	-0.0599064
6441.94	-0.055901
6452.97	-0.0519059
6460.33	-0.0492546
6471.36	-0.0453045
6482.39	-0.0413969
6493.42	-0.0375424
6500.77	-0.0350071
6511.8	-0.0312625
6522.83	-0.0275954
6530.19	-0.0251976
6541.22	-0.0216765
6552.25	-0.0182517
6563.28	-0.0149288
6570.63	-0.0127728
6581.66	-0.00963061
6592.7	-0.0066023
6600.05	-0.00464835
6611.08	-0.001817
6622.11	0.000892617
6633.14	0.0034783
6640.5	0.0051323
6651.53	0.00750743
6662.56	0.00975424
6673.59	0.0118715
6680.94	0.0132104
6691.97	0.0151091
6703	0.0168755
6710.36	0.017979
6721.39	0.0195224
6732.42	0.0209309
6743.45	0.0222033
6750.8	0.0229756
6761.83	0.0240194
6772.86	0.0249246
6780.22	0.0254507
6791.25	0.0261232
6802.28	0.0266551
6813.31	0.0270456
6820.66	0.0272273
6831.7	0.0273817
6842.73	0.0273942
6850.08	0.0273239
6861.11	0.0271008
6872.14	0.0267375
6883.17	0.0262353
6890.53	0.0258242
6901.56	0.0250947
6912.59	0.024232
6923.62	0.0232395
6930.97	0.0225073
6942	0.0213066
6953.03	0.0199868
6960.39	0.0190434
6971.42	0.017537
6982.45	0.0159262
6993.48	0.0142177
7000.83	0.0130276
7011.86	0.0111714
7022.9	0.00923642
7030.25	0.00790656
7041.28	0.00585792
7052.31	0.00375199
7063.34	0.00159723
7070.7	0.000137821
7081.73	-0.00207921
7092.76	-0.004322
7100.11	-0.00582718
7111.14	-0.00809349
7122.17	-0.0103623
7133.2	-0.0126251
7140.56	-0.0141261
7151.59	-0.01636
7162.62	-0.0185656
7173.65	-0.0207349
7181	-0.0221569
7192.03	-0.0242482
7203.06	-0.0262826
7210.42	-0.0276037
7221.45	-0.0295272
7232.48	-0.0313748
7243.51	-0.0331399
7250.86	-0.0342674
7261.89	-0.0358804
7272.93	-0.0373939
7280.28	-0.0383447
7291.31	-0.0396792
7302.34	-0.0408988
7313.37	-0.0419982
7320.73	-0.0426617
7331.76	-0.0435492
7342.79	-0.0443032
7350.14	-0.0447294
7361.17	-0.0452509
7372.2	-0.0456274
7383.23	-0.045855
7390.59	-0.0459224
7401.62	-0.0458943
7412.65	-0.0457089
7420	-0.0454964
7431.03	-0.045043
7442.06	-0.044426
7453.09	-0.0436439
7460.45	-0.0430303
7471.48	-0.0419709
7482.51	-0.0407445
7493.54	-0.0393512
7500.89	-0.03833
7511.92	-0.0366603
7522.95	-0.0348266
7530.31	-0.033514
7541.34	-0.0314118
7552.37	-0.0291524
7563.4	-0.0267391
7570.75	-0.0250468
7581.79	-0.0223867
7592.82	-0.0195849
7600.17	-0.0176411
7611.2	-0.0146159
7622.23	-0.0114653
7633.26	-0.00819629
7640.62	-0.00595484
7651.65	-0.00250547
7662.68	0.00104105
7670.03	0.003455
7681.06	0.00714349
7692.09	0.0109045
7703.12	0.014728
7710.48	0.0173067
7721.51	0.0212113
7732.54	0.0251501
7743.57	0.0291122
7750.92	0.0317608
7761.95	0.0357364
7772.98	0.0397048
7780.34	0.0423408
7791.37	0.0462718
7802.4	0.0501651
7813.43	0.0540094
7820.78	0.0565396
7831.81	0.0602779
7842.84	0.0639384
7850.2	0.0663304
7861.23	0.0698388
7872.26	0.0732433
7883.29	0.0765352
7890.64	0.0786631
7901.67	0.0817493
7912.71	0.0847027
7920.06	0.0865946
7931.09	0.0893129
7942.12	0.0918834
7953.15	0.0943021
7960.51	0.0958286
7971.54	0.0979876
7982.57	0.099988
7993.6	0.101829
8000.95	0.102968
8011.98	0.104544
8023.01	0.105962
8030.37	0.10682
8041.4	0.10798
8052.43	0.108989
8063.46	0.10985
8070.81	0.110345
8081.84	0.110971
8092.87	0.111461
8100.23	0.111716
8111.26	0.111994
8122.29	0.112151
8133.32	0.112195
8140.67	0.112163
8151.7	0.112028
8162.74	0.111795
8170.09	0.111587
8181.12	0.111203
8192.15	0.110734
8203.18	0.110187
8210.54	0.109782
8221.57	0.109116
8232.6	0.108384
8243.63	0.107592
8250.98	0.107031
8262.01	0.106145
8273.04	0.105208
8280.4	0.104557
8291.43	0.103542
8302.46	0.102484
8313.49	0.101385
8320.84	0.100631
8331.87	0.0994698
8342.9	0.0982743
8350.26	0.0974592
8361.29	0.0962108
8372.32	0.0949332
8383.35	0.0936284
8390.7	0.0927444
8401.74	0.0913985
8412.77	0.0900304
8420.12	0.0891071
8431.15	0.0877066
8442.18	0.0862893
8453.21	0.0848574
8460.57	0.0838957
8471.6	0.0824441
8482.63	0.0809835
8493.66	0.0795162
8501.01	0.0785353
8512.04	0.0770615
8523.07	0.0755865
8530.43	0.0746035
8541.46	0.0731308
8552.49	0.0716618
8563.52	0.0701981
8570.87	0.0692258
8581.9	0.0677736
8592.94	0.0663296
8600.29	0.0653718
8611.32	0.0639425
8622.35	0.0625223
8633.38	0.0611108
8640.74	0.0601743
8651.77	0.0587758
8662.8	0.0573834
8670.15	0.0564578
8681.18	0.0550721
8692.21	0.0536874
8703.24	0.0523013
8710.6	0.0513751
8721.63	0.0499802
8732.66	0.0485758
8740.01	0.0476326
8751.04	0.0462045
8762.07	0.0447574
8773.11	0.0432872
8780.46	0.0422925
8791.49	0.0407756
8802.52	0.0392255
8813.55	0.0376385
8820.91	0.0365583
8831.94	0.034902
8842.97	0.0331999
8850.32	0.0320383
8861.35	0.0302536
8872.38	0.0284161
8883.41	0.026524
8890.77	0.0252315
8901.8	0.0232455
8912.83	0.021202
8920.18	0.0198078
8931.21	0.0176687
8942.24	0.0154731
8953.27	0.0132223
8960.63	0.0116919
8971.66	0.00935336
8982.69	0.00696556
8990.04	0.00534789
9001.07	0.00288528
9012.11	0.00038286
9023.14	-0.00215506
9030.49	-0.00386443
9041.52	-0.00645097
9052.55	-0.00905984
9063.58	-0.0116856
9070.94	-0.0134428
9081.97	-0.0160841
9093	-0.0187271
9100.35	-0.020487
9111.38	-0.0231194
9122.41	-0.0257375
9133.44	-0.0283355
9140.8	-0.0300535
9151.83	-0.032605
9162.86	-0.0351213
9170.21	-0.0367765
9181.24	-0.0392221
9192.27	-0.0416184
9203.31	-0.0439607
9210.66	-0.0454899
9221.69	-0.0477322
9232.72	-0.0499089
9240.07	-0.0513218
9251.11	-0.0533809
9262.14	-0.055365
9273.17	-0.0572709
9280.52	-0.0584967
9291.55	-0.0602662
9302.58	-0.0619507
9313.61	-0.0635481
9320.97	-0.0645637
9332	-0.0660119
9343.03	-0.0673686
9350.38	-0.0682217
9361.41	-0.0694233
9372.44	-0.0705307
9383.47	-0.0715433
9390.83	-0.0721655
9401.86	-0.0730195
9412.89	-0.0737782
9420.24	-0.0742311
9431.27	-0.0748317
9442.31	-0.0753383
9453.34	-0.0757517
9460.69	-0.0759761
9471.72	-0.076237
9482.75	-0.0764083
9490.11	-0.0764738
9501.14	-0.0765002
9512.17	-0.0764428
9523.2	-0.076304
9530.55	-0.0761677
9541.58	-0.0758997
9552.61	-0.0755585
9563.64	-0.0751476
9571	-0.0748369
9582.03	-0.0743183
9593.06	-0.0737404
9600.41	-0.0733243
9611.44	-0.0726573
9622.48	-0.0719426
9633.51	-0.071185
9640.86	-0.0706584
9651.89	-0.0698395
9662.92	-0.0689901
9670.28	-0.0684092
9681.31	-0.0675193
9692.34	-0.0666113
9703.37	-0.0656894
9710.72	-0.0650693
9721.75	-0.0641339
9732.78	-0.0631956
9740.14	-0.0625703
9751.17	-0.0616355
9762.2	-0.060707
9773.23	-0.0597881
9780.58	-0.059182
9791.61	-0.0582844
9802.64	-0.0574028
9813.68	-0.0565387
9821.03	-0.0559732
9832.06	-0.0551418
9843.09	-0.0543312
9850.44	-0.0538028
9861.48	-0.0530286
9872.51	-0.0522766
9883.54	-0.0515467
9890.89	-0.0510723
9901.92	-0.0503789
9912.95	-0.0497066
9920.31	-0.0492699
9931.34	-0.0486315
9942.37	-0.0480123
9953.4	-0.0474115
9960.75	-0.0470207
9971.78	-0.0464483
9982.81	-0.0458919
9990.17	-0.0455293
10001.2	-0.0449973
10012.2	-0.0444788
10023.3	-0.0439732
10030.6	-0.043643
10041.6	-0.0431575
10052.7	-0.0426834
10060	-0.0423736
10071.1	-0.0419178
10082.1	-0.0414729
10093.1	-0.0410387
10100.5	-0.0407554
10111.5	-0.0403395
10122.5	-0.039935
10133.6	-0.0395423
10140.9	-0.0392872
10152	-0.0389152
10163	-0.0385564
10170.3	-0.038325
10181.4	-0.0379898
10192.4	-0.0376699
10203.4	-0.0373661
10210.8	-0.0371728
10221.8	-0.0368975
10232.8	-0.0366404
10240.2	-0.0364797
10251.2	-0.036255
10262.3	-0.036051
10273.3	-0.0358683
10280.6	-0.0357587
10291.7	-0.0356134
10302.7	-0.0354916
10310.1	-0.0354237
10321.1	-0.0353425
10332.1	-0.0352866
10343.2	-0.0352565
10350.5	-0.0352511
10361.5	-0.0352655
10372.6	-0.0353072
10383.6	-0.0353766
10391	-0.0354385
10402	-0.035555
10413	-0.0357002
10420.4	-0.0358131
10431.4	-0.0360067
10442.4	-0.0362296
10453.5	-0.0364817
10460.8	-0.0366662
10471.8	-0.0369672
10482.9	-0.0372975
10490.2	-0.0375338
10501.3	-0.0379122
10512.3	-0.0383192
10523.3	-0.0387543
10530.7	-0.0390597
10541.7	-0.0395403
10552.7	-0.0400474
10560.1	-0.0403998
10571.1	-0.0409492
10582.2	-0.0415227
10593.2	-0.0421194
10600.5	-0.0425294
10611.6	-0.0431618
10622.6	-0.043814
10633.6	-0.0444845
10641	-0.044941
10652	-0.0456387
10663	-0.0463506
10670.4	-0.0468322
10681.4	-0.0475639
10692.5	-0.0483051
10703.5	-0.0490539
10710.8	-0.0495565
10721.9	-0.0503139
10732.9	-0.0510739
10740.3	-0.051581
10751.3	-0.052341
10762.3	-0.0530984
10773.4	-0.0538512
10780.7	-0.0543497
10791.7	-0.0550907
10802.8	-0.0558222
10810.1	-0.0563036
10821.2	-0.0570149
10832.2	-0.0577117
10843.2	-0.0583923
10850.6	-0.0588362
10861.6	-0.0594859
10872.6	-0.0601148
10883.7	-0.0607213
10891	-0.0611124
10902	-0.061678
10913.1	-0.0622171
10920.4	-0.062561
10931.5	-0.0630525
10942.5	-0.0635134
10953.5	-0.0639423
10960.9	-0.0642099
10971.9	-0.0645824
10982.9	-0.0649192
10990.3	-0.0651233
11001.3	-0.0653976
11012.4	-0.0656325
11023.4	-0.0658268
11030.7	-0.0659331
11041.8	-0.0660567
11052.8	-0.0661361
11060.2	-0.066164
11071.2	-0.0661671
11082.2	-0.0661227
11093.2	-0.0660297
11100.6	-0.0659401
11111.6	-0.0657635
11122.7	-0.0655352
11130	-0.0653538
11141	-0.0650372
11152.1	-0.0646664
11163.1	-0.0642404
11170.5	-0.0639254
11181.5	-0.0634059
11192.5	-0.0628294
11203.6	-0.0621953
11210.9	-0.0617403
11221.9	-0.0610092
11233	-0.0602196
11240.3	-0.0596605
11251.4	-0.0587729
11262.4	-0.0578264
11273.4	-0.0568212
11280.8	-0.0561186
11291.8	-0.0550161
11302.8	-0.0538557
11310.2	-0.0530503
11321.2	-0.0517947
11332.2	-0.050483
11343.3	-0.0491158
11350.6	-0.0481741
11361.7	-0.0467167
11372.7	-0.0452066
11380	-0.0441712
11391.1	-0.042576
11402.1	-0.0409314
11413.1	-0.0392388
11420.5	-0.0380844
11431.5	-0.0363152
11442.6	-0.0345021
11453.6	-0.0326467
11460.9	-0.0313871
11472	-0.0294651
11483	-0.0275054
11490.4	-0.0261789
11501.4	-0.0241606
11512.4	-0.0221096
11523.4	-0.0200278
11530.8	-0.0186237
11541.8	-0.0164949
11552.9	-0.0143405
11560.2	-0.0128911
11571.2	-0.0106985
11582.3	-0.00848581
11593.3	-0.00625498
11600.7	-0.00475873
11611.7	-0.00250234
11622.7	-0.000233436
11630.1	0.00128507
11641.1	0.00357009
11652.1	0.00586189
11663.2	0.00815826
11670.5	0.00969063
11681.6	0.0119897
11692.6	0.0142874
11703.6	0.0165814
11711	0.0181075
11722	0.0203902
11733	0.0226631
11740.4	0.0241716
11751.4	0.0264226
11762.4	0.0286573
11773.5	0.0308733
11780.8	0.0323389
11791.9	0.0345182
11802.9	0.0366721
11810.2	0.0380927
11821.3	0.0401988
11832.3	0.042273
11843.3	0.0443127
11850.7	0.0456522
11861.7	0.0476291
11872.8	0.0495651
11880.1	0.0508318
11891.1	0.0526943
11902.2	0.0545097
11913.2	0.0562758
11920.6	0.0574248
11931.6	0.0591041
11942.6	0.0607288
11953.6	0.0622969
11961	0.0633102
11972	0.0647805
11983.1	0.0661902
11990.4	0.0670957
12001.4	0.0684017
12012.5	0.0696442
12023.5	0.0708223
12030.9	0.0715718
12041.9	0.0726417
12052.9	0.0736465
12060.3	0.0742802
12071.3	0.0751767
12082.3	0.0760088
12093.4	0.0767772
12100.7	0.0772546
12111.8	0.0779193
12122.8	0.0785235
12130.1	0.0788935
12141.2	0.0794007
12152.2	0.0798524
12163.2	0.0802508
12170.6	0.080488
12181.6	0.0808031
12192.6	0.0810719
12203.7	0.0812974
12211	0.0814252
12222.1	0.0815854
12233.1	0.0817107
12240.4	0.0817765
12251.5	0.0818513
12262.5	0.0819004
12273.5	0.0819272
12280.9	0.0819345
12291.9	0.0819319
12302.9	0.0819163
12310.3	0.0819003
12321.3	0.0818702
12332.4	0.0818357
12343.4	0.0817997
12350.7	0.0817762
12361.8	0.0817438
12372.8	0.0817169
12380.2	0.0817031
12391.2	0.0816902
12402.2	0.0816882
12413.3	0.0816986
12420.6	0.081713
12431.6	0.0817467
12442.7	0.0817954
12450	0.0818364
12461.1	0.0819109
12472.1	0.0820009
12483.1	0.082106
12490.5	0.082184
12501.5	0.0823124
12512.5	0.0824532
12523.6	0.0826051
12530.9	0.0827115
12541.9	0.0828776
12553	0.0830494
12560.3	0.0831659
12571.4	0.0833417
12582.4	0.0835164
12593.4	0.0836869
12600.8	0.0837968
12611.8	0.0839536
12622.8	0.0840979
12630.2	0.0841855
12641.2	0.0843013
12652.3	0.0843956
12663.3	0.0844648
12670.6	0.0844953
12681.7	0.0845151
12692.7	0.0845006
12700.1	0.0844703
12711.1	0.0843915
12722.1	0.0842698
12733.2	0.0841022
12740.5	0.0839635
12751.5	0.083713
12762.6	0.0834091
12773.6	0.0830493
12781	0.0827774
12792	0.0823197
12803	0.0818006
12810.4	0.0814196
12821.4	0.0807944
12832.4	0.0801037
12843.5	0.0793465
12850.8	0.0788042
12861.8	0.0779342
12872.9	0.0769958
12880.2	0.076332
12891.3	0.0752792
12902.3	0.0741579
12913.3	0.0729685
12920.7	0.072138
12931.7	0.0708364
12942.7	0.0694688
12950.1	0.068521
12961.1	0.0670459
12972.2	0.0655084
12983.2	0.0639099
12990.5	0.0628113
13001.6	0.0611154
13012.6	0.0593639
13023.6	0.057559
13031	0.0563271
13042	0.0544384
13053	0.0525029
13060.4	0.0511878
13071.4	0.0491802
13082.5	0.0471331
13093.5	0.0450495
13100.8	0.0436416
13111.9	0.0415037
13122.9	0.0393374
13130.3	0.037879
13141.3	0.0356724
13152.3	0.0334458
13163.4	0.0312026
13170.7	0.0296995
13181.7	0.0274358
13192.8	0.0251642
13200.1	0.023647
13211.2	0.0213695
13222.2	0.0190929
13233.2	0.0168205
13240.6	0.0153094
13251.6	0.0130511
13262.6	0.0108056
13273.7	0.00857602
13281	0.00710003
13292	0.00490393
13303.1	0.00273197
13310.4	0.00129888
13321.5	-0.000826276
13332.5	-0.00291954
13343.5	-0.00497816
13350.9	-0.00633001
13361.9	-0.00832502
13372.9	-0.0102785
13380.3	-0.0115566
13391.3	-0.0134357
13402.4	-0.0152672
13413.4	-0.0170492
13420.7	-0.0182087
13431.8	-0.0199039
13442.8	-0.0215449
13450.2	-0.0226081
13461.2	-0.0241556
13472.2	-0.0256455
13483.2	-0.0270767
13490.6	-0.0279979
13501.6	-0.0293298
13512.7	-0.0306014
13520	-0.0314156
13531	-0.0325865
13542.1	-0.0336969
13553.1	-0.0347472
13560.5	-0.0354142
13571.5	-0.0363656
13582.5	-0.0372586
13593.6	-0.0380944
13600.9	-0.0386203
13611.9	-0.0393634
13623	-0.0400528
13630.3	-0.0404834
13641.4	-0.0410872
13652.4	-0.041642
13663.4	-0.04215
13670.8	-0.0424636
13681.8	-0.0428983
13692.8	-0.043292
13700.2	-0.0435328
13711.2	-0.0438635
13722.2	-0.0441596
13733.3	-0.0444235
13740.6	-0.0445828
13751.7	-0.0447985
13762.7	-0.0449885
13770	-0.0451021
13781.1	-0.0452545
13792.1	-0.0453873
13803.1	-0.0455027
13810.5	-0.0455709
13821.5	-0.0456616
13832.6	-0.04574
13843.6	-0.0458078
13850.9	-0.0458478
13862	-0.0459011
13873	-0.0459474
13880.4	-0.045975
13891.4	-0.0460122
13902.4	-0.0460449
13913.4	-0.0460738
13920.8	-0.0460911
13931.8	-0.0461147
13942.9	-0.0461352
13950.2	-0.0461473
13961.2	-0.046163
13972.3	-0.0461755
13983.3	-0.0461845
13990.7	-0.0461883
14001.7	-0.0461903
14012.7	-0.0461874
14020.1	-0.0461823
14031.1	-0.0461695
14042.1	-0.0461498
14053.2	-0.0461222
14060.5	-0.046099
14071.6	-0.0460565
14082.6	-0.0460039
14093.6	-0.0459403
14101	-0.0458914
14112	-0.0458078
14123	-0.0457111
14130.4	-0.0456392
14141.4	-0.0455194
14152.4	-0.0453851
14163.5	-0.0452358
14170.8	-0.0451278
14181.9	-0.0449529
14192.9	-0.0447624
14200.2	-0.0446268
14211.3	-0.0444103
14222.3	-0.0441785
14233.3	-0.0439316
14240.7	-0.0437589
14251.7	-0.0434879
14262.8	-0.0432032
14270.1	-0.0430061
14281.1	-0.0427002
14292.2	-0.0423826
14303.2	-0.0420543
14310.6	-0.0418301
14321.6	-0.0414864
14332.6	-0.0411348
14343.6	-0.0407767
14351	-0.0405348
14362	-0.0401683
14373.1	-0.0397985
14380.4	-0.0395508
14391.4	-0.0391782
14402.5	-0.0388057
14413.5	-0.0384346
14420.9	-0.0381884
14431.9	-0.0378221
14442.9	-0.0374603
14450.3	-0.0372221
14461.3	-0.0368702
14472.3	-0.0365257
14483.4	-0.0361894
14490.7	-0.0359702
14501.8	-0.0356496
14512.8	-0.0353395
14520.1	-0.035139
14531.2	-0.0348478
14542.2	-0.0345688
14553.2	-0.0343023
14560.6	-0.0341318
14571.6	-0.033887
14582.6	-0.0336556
14590	-0.0335088
14601	-0.0332999
14612.1	-0.0331046
14623.1	-0.0329227
14630.4	-0.0328088
14641.5	-0.0326489
14652.5	-0.0325018
14663.5	-0.032367
14670.9	-0.0322838
14681.9	-0.0321686
14693	-0.0320643
14700.3	-0.0320005
14711.3	-0.0319127
14722.4	-0.0318339
14733.4	-0.031763
14740.8	-0.0317196
14751.8	-0.0316597
14762.8	-0.0316048
14770.2	-0.0315705
14781.2	-0.0315214
14792.2	-0.0314741
14803.3	-0.0314271
14810.6	-0.0313951
14821.6	-0.0313452
14832.7	-0.0312915
14840	-0.0312527
14851.1	-0.0311889
14862.1	-0.0311166
14873.1	-0.0310341
14880.5	-0.0309724
14891.5	-0.0308686
14902.5	-0.0307494
14913.6	-0.0306129
14920.9	-0.0305113
14932	-0.0303415
14943	-0.030149
14950.3	-0.0300071
14961.4	-0.0297725
14972.4	-0.0295101
14983.4	-0.0292178
14990.8	-0.0290055
15001.8	-0.0286596
15012.8	-0.0282792
15020.2	-0.0280056
15031.2	-0.0275642
15042.3	-0.0270844
15053.3	-0.0265647
15060.6	-0.0261957
15071.7	-0.0256075
15082.7	-0.0249769
15090.1	-0.0245328
15101.1	-0.0238305
15112.1	-0.0230847
15123.2	-0.0222955
15130.5	-0.0217452
15141.5	-0.020884
15152.6	-0.0199802
15163.6	-0.0190349
15171	-0.018382
15182	-0.0173698
15193	-0.0163195
15200.4	-0.0155989
15211.4	-0.0144889
15222.4	-0.013346
15233.5	-0.0121725
15240.8	-0.0113745
15251.8	-0.0101561
15262.9	-0.00891447
15270.2	-0.00807544
15281.3	-0.00680237
15292.3	-0.00551492
15303.3	-0.00421663
15310.7	-0.00334689
15321.7	-0.00203873
15332.7	-0.000729713
15340.1	0.000141539
15351.1	0.00144339
15362.2	0.00273574
15373.2	0.00401469
15380.5	0.00485797
15391.6	0.00610604
15402.6	0.00733056
15413.6	0.00852788
15421	0.00930924
15432	0.0104534
15443	0.0115614
15450.4	0.0122783
15461.4	0.013319
15472.5	0.0143156
15483.5	0.0152655
15490.8	0.0158717
15501.9	0.016739
15512.9	0.017554
15520.3	0.0180675
15531.3	0.0187921
15542.3	0.0194609
15553.4	0.0200729
15560.7	0.020449
15571.7	0.0209653
15582.8	0.0214239
15590.1	0.0216977
15601.2	0.0220607
15612.2	0.022367
15623.2	0.0226176
15630.6	0.0227542
15641.6	0.0229143
15652.6	0.0230221
15663.7	0.0230793
15671	0.0230902
15682	0.0230672
15693.1	0.022999
15700.4	0.0229296
15711.5	0.0227912
15722.5	0.0226141
15733.5	0.0224008
15740.9	0.0222399
15751.9	0.0219724
15762.9	0.021676
15770.3	0.0214638
15781.3	0.0211257
15792.4	0.0207662
15803.4	0.0203881
15810.7	0.0201272
15821.8	0.0197244
15832.8	0.0193102
15840.2	0.0190291
15851.2	0.0186018
15862.2	0.0181698
15873.2	0.0177355
15880.6	0.0174457
15891.6	0.0170122
15902.7	0.0165818
15910	0.0162975
15921	0.0158763
15932.1	0.0154626
15943.1	0.0150579
15950.5	0.0147937
15961.5	0.0144065
15972.5	0.0140312
15983.6	0.0136683
15990.9	0.0134337
16001.9	0.0130931
16013	0.0127662
16020.3	0.012556
16031.4	0.0122524
16042.4	0.0119626
16053.4	0.0116864
16060.8	0.0115097
16071.8	0.0112553
16082.8	0.0110133
16090.2	0.0108585
16101.2	0.0106354
16112.2	0.0104226
16123.3	0.010219
16130.6	0.010088
16141.7	0.00989752
16152.7	0.00971343
16160	0.00959364
16171.1	0.00941744
16182.1	0.00924429
16193.1	0.00907289
16200.5	0.00895895
16211.5	0.00878755
16222.6	0.00861439
16233.6	0.00843816
16240.9	0.00831832
16252	0.00813409
16263	0.00794337
16270.4	0.00781201
16281.4	0.00760778
16292.4	0.00739386
16303.4	0.00716917
16310.8	0.00701284
16321.8	0.00676782
16332.9	0.00650929
16340.2	0.00632896
16351.3	0.00604588
16362.3	0.00574695
16373.3	0.00543139
16380.7	0.00521143
16391.7	0.0048666
16402.7	0.00450336
16410.1	0.00425068
16421.1	0.00385549
16432.1	0.00344045
16443.2	0.00300512
16450.5	0.00270341
16461.6	0.00223334
16472.6	0.00174194
16483.6	0.0012289
16491	0.000874692
16502	0.000324911
16513	-0.000247265
16520.4	-0.000641278
16531.4	-0.00125131
16542.5	-0.00188436
16553.5	-0.00254062
16560.8	-0.00299112
16571.9	-0.00368651
16582.9	-0.00440562
16590.3	-0.00489828
16601.3	-0.0056573
16612.3	-0.00644046
16623.3	-0.00724791
16630.7	-0.00779976
16641.7	-0.00864795
16652.8	-0.00952069
16660.1	-0.0101162
16671.1	-0.01103
16682.2	-0.0119684
16693.2	-0.0129314
16700.6	-0.013587
16711.6	-0.0145908
16722.6	-0.0156187
16733.7	-0.0166705
16741	-0.0173848
16752	-0.0184756
16763.1	-0.0195893
16770.4	-0.020344
16781.5	-0.0214942
16792.5	-0.0226653
16803.5	-0.0238565
16810.9	-0.0246612
16821.9	-0.0258835
16832.9	-0.0271227
16840.3	-0.0279576
16851.3	-0.0292222
16862.3	-0.0304997
16873.4	-0.0317887
16880.7	-0.0326534
16891.8	-0.033957
16902.8	-0.0352667
16910.1	-0.0361421
16921.2	-0.0374569
16932.2	-0.0387716
16943.2	-0.0400836
16950.6	-0.0409555
16961.6	-0.0422573
16972.7	-0.0435492
16980	-0.0444036
16991	-0.0456727
17002.1	-0.0469243
17013.1	-0.0481552
17020.5	-0.0489629
17031.5	-0.0501529
17042.5	-0.0513142
17053.5	-0.0524439
17060.9	-0.0531779
17071.9	-0.0542483
17083	-0.0552791
17090.3	-0.055943
17101.3	-0.0569018
17112.4	-0.0578138
17123.4	-0.0586763
17130.8	-0.0592227
17141.8	-0.0599975
17152.8	-0.0607168
17160.2	-0.0611643
17171.2	-0.0617863
17182.2	-0.0623476
17193.3	-0.0628466
17200.6	-0.0631439
17211.7	-0.0635359
17222.7	-0.0638623
17230	-0.0640429
17241.1	-0.064258
17252.1	-0.0644056
17263.1	-0.0644854
17270.5	-0.0645008
17281.5	-0.0644673
17292.5	-0.0643662
17303.6	-0.0641979
17310.9	-0.0640486
17322	-0.0637698
17333	-0.0634259
17340.3	-0.063161
17351.4	-0.0627112
17362.4	-0.0621998
17373.4	-0.0616283
17380.8	-0.0612148
17391.8	-0.0605472
17402.9	-0.0598244
17410.2	-0.059313
17421.2	-0.0585031
17432.3	-0.0576438
17443.3	-0.0567375
17450.7	-0.0561084
17461.7	-0.0551292
17472.7	-0.0541096
17480.1	-0.0534086
17491.1	-0.0523273
17502.1	-0.0512125
17513.2	-0.0500667
17520.5	-0.0492869
17531.5	-0.0480953
17542.6	-0.0468797
17553.6	-0.0456426
17561	-0.0448072
17572	-0.0435398
17583	-0.0422575
17590.4	-0.0413955
17601.4	-0.0400936
17612.4	-0.0387829
17623.5	-0.0374656
17630.8	-0.0365847
17641.9	-0.0352609
17652.9	-0.0339358
17660.2	-0.0330525
17671.3	-0.0317293
17682.3	-0.0304093
17693.3	-0.0290943
17700.7	-0.028221
17711.7	-0.0269173
17722.7	-0.025622
17730.1	-0.0247639
17741.1	-0.0234854
17752.2	-0.0222184
17763.2	-0.0209636
17770.5	-0.0201344
17781.6	-0.018902
17792.6	-0.0176839
17803.6	-0.0164806
17811	-0.0156869
17822	-0.0145095
17833.1	-0.0133481
17840.4	-0.0125828
17851.4	-0.0114487
17862.5	-0.0103313
17873.5	-0.00923073
17880.9	-0.00850642
17891.9	-0.00743411
17902.9	-0.00637882
17910.3	-0.00568476
17921.3	-0.00465785
17932.3	-0.00364794
17943.4	-0.00265497
17950.7	-0.00200238
17961.7	-0.00103754
17972.8	-8.9488e-05
17980.1	0.000533246
17991.2	0.00145343
18002.2	0.00235695
18013.2	0.00324382
18020.6	0.00382583
18031.6	0.00468495
18042.6	0.00552738
18053.7	0.00635304
18061	0.00689411
18072.1	0.00769158
18083.1	0.00847191
18090.4	0.00898253
18101.5	0.00973385
18112.5	0.0104674
18123.5	0.0111829
18130.9	0.0116497
18141.9	0.0123343
18152.9	0.0129998
18160.3	0.0134326
18171.3	0.0140652
18182.4	0.0146774
18193.4	0.0152686
18200.7	0.0156508
18211.8	0.0162058
18222.8	0.0167381
18230.2	0.01708
18241.2	0.0175731
18252.2	0.0180417
18263.3	0.0184852
18270.6	0.0187665
18281.6	0.0191663
18292.7	0.019539
18300	0.0197721
18311.1	0.0200979
18322.1	0.0203947
18333.1	0.0206616
18340.5	0.0208227
18351.5	0.0210384
18362.5	0.0212224
18373.6	0.0213742
18380.9	0.0214572
18391.9	0.0215539
18403	0.0216167
18410.3	0.0216396
18421.4	0.0216449
18432.4	0.0216152
18443.4	0.0215499
18450.8	0.0214864
18461.8	0.0213611
18472.8	0.0211994
18480.2	0.0210712
18491.2	0.0208483
18502.3	0.0205883
18513.3	0.0202912
18520.6	0.0200725
18531.7	0.0197133
18542.7	0.0193168
18550.1	0.0190317
18561.1	0.0185731
18572.1	0.0180772
18583.1	0.0175442
18590.5	0.0171683
18601.5	0.0165738
18612.6	0.0159426
18623.6	0.0152749
18630.9	0.0148096
18642	0.0140817
18653	0.013318
18660.4	0.0127893
18671.4	0.0119668
18682.4	0.0111096
18693.5	0.0102181
18700.8	0.00960486
18711.8	0.00865715
18722.9	0.00767647
18730.2	0.00700464
18741.3	0.00597032
18752.3	0.00490471
18763.3	0.00380856
18770.7	0.00306121
18781.7	0.00191598
18792.7	0.000742509
18800.1	-5.49936e-05
18811.1	-0.00127323
18822.1	-0.00251683
18833.2	-0.00378453
18840.5	-0.0046424
18851.6	-0.00594724
18862.6	-0.00727236
18873.6	-0.00861615
18881	-0.00952151
18892	-0.0108925
18903	-0.0122771
18910.4	-0.0132069
18921.4	-0.0146098
18932.5	-0.0160208
18943.5	-0.0174373
18950.8	-0.0183835
18961.9	-0.0198038
18972.9	-0.0212228
18980.3	-0.0221666
18991.3	-0.0235771
19002.3	-0.0249787
19013.3	-0.0263682
19020.7	-0.0272863
19031.7	-0.0286488
19042.8	-0.0299908
19050.1	-0.0308725
19061.1	-0.032173
19072.2	-0.0334442
19083.2	-0.0346828
19090.6	-0.0354886
19101.6	-0.0366653
19112.6	-0.0378003
19123.7	-0.0388905
19131	-0.0395907
19142	-0.040599
19153.1	-0.041554
19160.4	-0.0421596
19171.5	-0.0430191
19182.5	-0.0438176
19193.5	-0.0445524
19200.9	-0.0450057
19211.9	-0.0456288
19222.9	-0.0461819
19230.3	-0.0465107
19241.3	-0.0469427
19252.3	-0.0472996
19263.4	-0.0475799
19270.7	-0.0477237
19281.8	-0.0478737
19292.8	-0.0479443
19300.1	-0.0479469
19311.2	-0.0478837
19322.2	-0.0477398
19333.2	-0.0475151
19340.6	-0.0473206
19351.6	-0.046962
19362.7	-0.0465237
19370	-0.0461877
19381	-0.0456186
19392.1	-0.0449727
19403.1	-0.0442512
19410.5	-0.0437291
19421.5	-0.0428855
19432.5	-0.0419713
19443.5	-0.0409885
19450.9	-0.0402963
19461.9	-0.0392044
19473	-0.0380505
19480.3	-0.037248
19491.3	-0.0359967
19502.4	-0.0346909
19513.4	-0.0333334
19520.8	-0.0324014
19531.8	-0.0309649
19542.8	-0.0294854
19550.2	-0.0284766
19561.2	-0.0269325
19572.2	-0.025354
19583.3	-0.0237446
19590.6	-0.0226561
19601.7	-0.0210025
19612.7	-0.019327
19620	-0.0181994
19631.1	-0.0164946
19642.1	-0.0147767
19653.1	-0.0130489
19660.5	-0.011893
19671.5	-0.0101557
19682.5	-0.00841681
19693.6	-0.00667935
19700.9	-0.00552328
19712	-0.00379467
19723	-0.00207511
19730.3	-0.00093509
19741.4	0.000763469
19752.4	0.00244603
19763.4	0.00411017
19770.8	0.00520822
19781.8	0.00683657
19792.9	0.00844057
19800.2	0.00949537
19811.2	0.0110544
19822.3	0.0125839
19833.3	0.0140822
19840.7	0.0150629
19851.7	0.0165057
19862.7	0.0179133
19870.1	0.0188316
19881.1	0.0201777
19892.1	0.0214855
19903.2	0.022754
19910.5	0.0235773
19921.5	0.0247784
19932.6	0.0259381
19943.6	0.0270559
19951	0.0277775
19962	0.0288245
19973	0.0298286
19980.4	0.030474
19991.4	0.0314063
