
Simulation on single triangle.

Serial: simply the serial version
Parallel1: parallel version without any splits
Parallel2: parallel version with splits and joins
Parallel3: parallel version with splits and joins running on 2 threads
Parallel4: parallel version with splits and joins running on 10 threads
Parallel5: parallel version with splits and joins running on 20 threads
Parallel6: parallel version with splits and joins running on 40 threads

INITIAL_DEPTH	MTPS_SERIAL	MTPS_PARALLEL1	MTPS_PER_CORE_PARALLEL2	MTPS_PER_CORE_PARALLEL3_n2	MTPS_PER_CORE_PARALLEL4_n10	MTPS_PER_CORE_PARALLEL5_n20	MTPS_PER_CORE_PARALLEL6_n40	TIMESTEPS	AVERAGE_TRIANGLES_SERIAL	AVERAGE_TRIANGLES_PARALLEL1	AVERAGE_TRIANGLES_PARALLEL2	AVERAGE_TRIANGLES_PARALLEL3	AVERAGE_PARTITIONS_PARALLEL4	AVERAGE_PARTITIONS_PARALLEL5	AVERAGE_PARTITIONS_PARALLEL6
10	2.77409	2.76756	2.75777	1.365	0.27671	0.137806	0.0686496	100	15898.5	15898.5	15898.5	15898.5	1	1	1
11	2.7406	2.7762	2.7681	1.38754	0.276923	0.138348	0.0691727	100	29936.6	29936.7	29936.7	29936.7	1.03	1.03	1.03
12	2.80712	2.84369	2.92264	2.33179	0.671422	0.314015	0.149316	100	57268.8	57268.8	57268.8	57268.8	5	5	5
13	2.70866	2.74695	2.86828	2.52087	0.841495	0.396643	0.175752	100	111053	111053	111053	111053	9.35	9.35	9.35
14	2.77017	2.76372	2.90258	2.60671	1.56029	0.763562	0.336458	100	217089	217089	217089	217089	17	17	17
15	2.62624	2.68964	2.73923	2.65344	1.65802	1.22261	0.639025	100	427351	427351	427351	427351	31	31	31
16	2.62022	2.62673	2.75907	2.6823	1.77204	1.44815	0.973449	100	844892	844892	844892	844892	55.48	55.48	55.48
17	2.46551	2.46105	2.68684	2.64629	1.79743	1.42002	1.13603	100	1.67638e+06	1.67638e+06	1.67638e+06	1.67638e+06	104.87	104.87	104.87
18	2.50273	2.50505	2.71917	2.6791	1.86944	1.64057	1.20284	100	3.33337e+06	3.33337e+06	3.33337e+06	3.33337e+06	204	204	204
19	2.47664	2.48214	2.65172	2.58315	1.87289	1.66686	1.54245	100	6.64005e+06	6.64005e+06	6.64005e+06	6.64005e+06	402	402	402
20	2.52632	2.52444	2.68969	2.65713	1.89616	1.74352	1.61156	100	1.32415e+07	1.32415e+07	1.32415e+07	1.32415e+07	803.07	803.07	803.07
