
Simulation on single triangle.

Serial: simply the serial version
Parallel1: parallel version without any splits
Parallel2: parallel version with any splits and joins
Parallel3: parallel version with any splits and joins running on 2 threads

INITIAL_DEPTH	MTPS_SERIAL	MTPS_PARALLEL1	MTPS_PARALLEL2	MTPS_PARALLEL3	TIMESTEPS	AVERAGE_TRIANGLES_SERIAL	AVERAGE_TRIANGLES_PARALLEL1	AVERAGE_TRIANGLES_PARALLEL2	AVERAGE_TRIANGLES_PARALLEL3	AVERAGE_PARTITIONS_PARALLEL2
10	4.76781	4.74438	4.48021	4.30437	65536	1024	1024	1024	1024	4
11	4.76211	4.72431	4.44299	4.1986	32768	2048	2048	2048	2048	8
12	5.0577	5.10754	4.94485	4.7058	16384	4096	4096	4096	4096	8.00488
13	5.30674	5.24873	5.06441	4.8385	8192	8192	8192	8192	8192	16.0195
14	5.42499	5.50041	5.33196	5.10829	4096	16384	16384	16384	16384	16.1211
15	5.4604	5.47574	5.305	5.14274	2048	32768	32768	32768	32768	32.4844
16	5.8191	5.81014	5.54369	5.37301	1024	65536	65536	65536	65536	34.3125
17	5.75786	5.65855	5.38609	5.20838	512	131072	131072	131072	131072	73.25
18	5.7742	5.79084	5.51781	5.34491	256	262144	262144	262144	262144	104.25
19	5.62812	5.53942	5.32252	5.16955	128	524288	524288	524288	524288	289
20	5.84756	5.84117	5.34227	5.1421	64	1.04858e+06	1.04858e+06	1.04858e+06	1.04858e+06	800
21	5.69552	5.67701	4.96889	4.70064	32	2.09715e+06	2.09715e+06	2.09715e+06	2.09715e+06	2944
22	5.79717	5.83134	4.58237	4.19482	16	4.1943e+06	4.1943e+06	4.1943e+06	4.1943e+06	11248
23	5.56481	5.67669	4.6525	4.34715	8	8.38861e+06	8.38861e+06	8.38861e+06	8.38861e+06	32768
24	5.79338	5.82975	4.70348	4.36115	4	1.67772e+07	1.67772e+07	1.67772e+07	1.67772e+07	65536
25	5.67098	5.66938	4.60012	4.30722	4	3.35544e+07	3.35544e+07	3.35544e+07	3.35544e+07	131072
26	5.82555	5.83747	4.68202	4.34976	4	6.71089e+07	6.71089e+07	6.71089e+07	6.71089e+07	262144
