%%MatrixMarket matrix array real general
10 9
-.5555555556e-1
.9622504490e-1
-.4969039948e-1
.7856742012e-1
-.1360827635
0.
-.1360827635
.2357022604
.8333333333e-1
-.1936491673
-.2222222222
0.
.9938079897e-1
.3142696804
0.
0.
-.5443310539
0.
.3333333333
-.7745966692
-.5555555556e-1
-.9622504490e-1
-.4969039948e-1
.7856742012e-1
.1360827635
0.
-.1360827635
-.2357022604
.8333333333e-1
-.1936491673
-.2222222222
.3849001795
-.1987615980
-.1571348402
.2721655270
0.
-.2721655270
.4714045206
-.3333333333
-.2581988897
-.8888888889
0.
.3975231960
-.6285393608
0.
0.
-1.088662108
0.
-1.333333333
-1.032795559
-.2222222222
-.3849001795
-.1987615980
-.1571348402
-.2721655270
0.
-.2721655270
-.4714045206
-.3333333333
-.2581988897
-.5555555556e-1
.9622504490e-1
-.4969039948e-1
-.1571348402
.2721655270
-.1924500898
0.
0.
-.8333333333e-1
.2151657415e-1
-.2222222222
0.
.9938079897e-1
-.6285393608
0.
-.7698003590
0.
0.
-.3333333333
.8606629657e-1
-.5555555556e-1
-.9622504490e-1
-.4969039948e-1
-.1571348402
-.2721655270
-.1924500898
0.
0.
-.8333333333e-1
.2151657415e-1
