%%MatrixMarket matrix array real general
20 20
1.
0.
0.
0.
0.
0.
0.
0.
0.
0.
0.
0.
0.
0.
0.
0.
0.
0.
0.
0.
0.
1.
0.
0.
0.
0.
0.
0.
0.
0.
0.
0.
0.
0.
0.
0.
0.
0.
0.
0.
0.
0.
1.
0.
0.
0.
0.
0.
0.
0.
0.
0.
0.
0.
0.
0.
0.
0.
0.
0.
0.
0.
0.
1.
0.
0.
0.
0.
0.
0.
0.
0.
0.
0.
0.
0.
0.
0.
0.
0.
1.224744872
0.
0.
0.
-.5000000000
0.
0.
0.
0.
0.
.5000000000
0.
0.
0.
0.
0.
0.
0.
0.
0.
0.
1.224744872
0.
0.
0.
-.5000000000
0.
0.
0.
0.
0.
.5000000000
0.
0.
0.
0.
0.
0.
0.
0.
0.
0.
1.224744872
0.
0.
0.
-.5000000000
0.
0.
0.
0.
0.
.5000000000
0.
0.
0.
0.
0.
0.
0.
.9682458365
0.
0.
0.
-.7905694150
0.
0.
.2500000000
0.
0.
.7905694150
0.
0.
-.2041241452
0.
0.
.2500000000
0.
0.
0.
0.
.9682458365
0.
0.
0.
-.7905694150
0.
0.
.2500000000
0.
0.
.7905694150
0.
0.
-.2041241452
0.
0.
.2500000000
0.
0.
.6614378278
0.
0.
0.
-.8100925875
0.
0.
.5123475385
0.
-.1250000000
.8100925875
0.
0.
-.4183300132
0.
.9682458365e-1
.5123475385
0.
-.9682458365e-1
.1250000000
1.224744872
0.
0.
0.
-.5000000000
0.
0.
0.
0.
0.
-.5000000000
0.
0.
0.
0.
0.
0.
0.
0.
0.
0.
1.224744872
0.
0.
0.
-.5000000000
0.
0.
0.
0.
0.
-.5000000000
0.
0.
0.
0.
0.
0.
0.
0.
0.
0.
1.224744872
0.
0.
0.
-.5000000000
0.
0.
0.
0.
0.
-.5000000000
0.
0.
0.
0.
0.
0.
0.
2.371708244
0.
0.
0.
-1.936491673
0.
0.
.6123724358
0.
0.
0.
0.
0.
0.
0.
0.
-.6123724358
0.
0.
0.
0.
2.371708244
0.
0.
0.
-1.936491673
0.
0.
.6123724358
0.
0.
0.
0.
0.
0.
0.
0.
-.6123724358
0.
0.
2.561737692
0.
0.
0.
-3.137475099
0.
0.
1.984313483
0.
-.4841229182
1.045825033
0.
0.
-.5400617248
0.
.1250000000
-.6614378278
0.
.1250000000
-.4841229182
.9682458365
0.
0.
0.
-.7905694150
0.
0.
.2500000000
0.
0.
-.7905694150
0.
0.
.2041241452
0.
0.
.2500000000
0.
0.
0.
0.
.9682458365
0.
0.
0.
-.7905694150
0.
0.
.2500000000
0.
0.
-.7905694150
0.
0.
.2041241452
0.
0.
.2500000000
0.
0.
2.561737692
0.
0.
0.
-3.137475099
0.
0.
1.984313483
0.
-.4841229182
-1.045825033
0.
0.
.5400617248
0.
-.1250000000
-.6614378278
0.
.1250000000
.4841229182
.6614378278
0.
0.
0.
-.8100925875
0.
0.
.5123475385
0.
-.1250000000
-.8100925875
0.
0.
.4183300132
0.
-.9682458365e-1
.5123475385
0.
-.9682458365e-1
-.1250000000
