%%MatrixMarket matrix array real general
1 20
1.414213562
1.224744872
1.054092553
.9354143468
1.154700539
1.
.8606629657
.9128709293
.7905694150
.7483314774
1.154700539
1.
.8606629657
1.118033988
.9682458365
.9660917834
.9128709293
.7905694150
.9660917834
.7483314774
