%%MatrixMarket matrix array real general
20 20
260.000002
-329.0896534
214.6625259
-52.91502622
-416.4132569
254.5584411
-65.72670691
340.8225342
-80.49844713
-105.8300523
-416.4132569
254.5584411
-65.72670691
278.2804344
-65.72670689
-81.9756061
340.8225342
-80.49844713
-81.9756061
-105.8300523
-329.0896534
1020.
-1068.943403
366.6060557
254.5584412
-489.8979486
227.6839914
-80.49844717
92.95160030
0.
254.5584412
-489.8979486
227.6839914
-65.72670689
75.89466382
0.
-80.49844717
92.95160030
0.
0.
214.6625259
-1068.943403
1584.
-709.9295738
-65.72670689
227.6839914
-176.3632615
0.
0.
0.
-65.72670689
227.6839914
-176.3632615
0.
0.
0.
0.
0.
0.
0.
-52.91502622
366.6060557
-709.9295738
400.
0.
0.
0.
0.
0.
0.
0.
0.
0.
0.
0.
0.
0.
0.
0.
0.
-416.4132569
254.5584412
-65.72670689
0.
1220.000000
-415.6921939
53.66563145
-1366.103948
197.1801207
518.4592560
610.000000
-207.8460970
26.83281572
-743.6128021
107.3312629
301.1976094
-455.3679830
65.72670689
200.7984063
129.6148141
254.5584411
-489.8979486
227.6839914
0.
-415.6921939
640.
-185.9032006
197.1801207
-227.6839914
0.
-207.8460970
320.
-92.95160030
107.3312629
-123.9354671
0.
65.72670689
-75.89466382
0.
0.
-65.72670691
227.6839914
-176.3632615
0.
53.66563145
-185.9032006
144.
0.
0.
0.
26.83281572
-92.95160030
72.
0.
0.
0.
0.
0.
0.
0.
340.8225342
-80.49844717
0.
0.
-1366.103948
197.1801207
0.
1872.
-124.7076582
-819.7560616
-455.3679830
65.72670689
0.
764.2407998
-50.91168823
-380.9881888
312.
-20.78460970
-190.4940944
-81.97560616
-80.49844713
92.95160030
0.
0.
197.1801207
-227.6839914
0.
-124.7076582
144.
0.
65.72670689
-75.89466382
0.
-50.91168823
58.78775383
0.
-20.78460970
24.
0.
0.
-105.8300523
0.
0.
0.
518.4592560
0.
0.
-819.7560616
0.
400.
129.6148141
0.
0.
-267.7312084
0.
154.9193338
-81.97560616
0.
61.96773354
20.
-416.4132569
254.5584412
-65.72670689
0.
610.000000
-207.8460970
26.83281572
-455.3679830
65.72670689
129.6148141
1220.000000
-415.6921939
53.66563145
-743.6128021
107.3312629
200.7984063
-1366.103948
197.1801207
301.1976094
518.4592560
254.5584411
-489.8979486
227.6839914
0.
-207.8460970
320.
-92.95160030
65.72670689
-75.89466382
0.
-415.6921939
640.
-185.9032006
107.3312629
-123.9354671
0.
197.1801207
-227.6839914
0.
0.
-65.72670691
227.6839914
-176.3632615
0.
26.83281572
-92.95160030
72.
0.
0.
0.
53.66563145
-185.9032006
144.
0.
0.
0.
0.
0.
0.
0.
278.2804344
-65.72670689
0.
0.
-743.6128021
107.3312629
0.
764.2407998
-50.91168823
-267.7312084
-743.6128021
107.3312629
0.
832.
-55.42562586
-311.0755536
764.2407998
-50.91168823
-311.0755536
-267.7312084
-65.72670689
75.89466382
0.
0.
107.3312629
-123.9354671
0.
-50.91168823
58.78775383
0.
107.3312629
-123.9354671
0.
-55.42562586
64.
0.
-50.91168823
58.78775383
0.
0.
-81.9756061
0.
0.
0.
301.1976094
0.
0.
-380.9881888
0.
154.9193338
200.7984063
0.
0.
-311.0755536
0.
144.
-190.4940944
0.
108.
61.96773354
340.8225342
-80.49844717
0.
0.
-455.3679830
65.72670689
0.
312.
-20.78460970
-81.97560616
-1366.103948
197.1801207
0.
764.2407998
-50.91168823
-190.4940944
1872.
-124.7076582
-380.9881888
-819.7560616
-80.49844713
92.95160030
0.
0.
65.72670689
-75.89466382
0.
-20.78460970
24.
0.
197.1801207
-227.6839914
0.
-50.91168823
58.78775383
0.
-124.7076582
144.
0.
0.
-81.9756061
0.
0.
0.
200.7984063
0.
0.
-190.4940944
0.
61.96773354
301.1976094
0.
0.
-311.0755536
0.
108.
-380.9881888
0.
144.
154.9193338
-105.8300523
0.
0.
0.
129.6148141
0.
0.
-81.97560616
0.
20.
518.4592560
0.
0.
-267.7312084
0.
61.96773354
-819.7560616
0.
154.9193338
400.
