%%MatrixMarket matrix array real general
20 20
0.
0.
0.
0.
2.449489743
2.121320343
1.825741857
2.581988897
2.236067977
2.645751311
0.
0.
0.
3.162277659
2.738612786
3.415650256
0.
0.
3.415650256
0.
0.
0.
0.
0.
2.121320343
2.449489743
2.371708244
2.236067977
2.581988897
2.291287848
0.
0.
0.
2.738612787
3.162277659
2.958039892
0.
0.
2.958039892
0.
0.
0.
0.
0.
1.825741858
2.371708245
2.449489743
1.924500898
2.500000000
1.972026594
0.
0.
0.
2.357022604
3.061862179
2.545875386
0.
0.
2.545875386
0.
0.
0.
0.
0.
1.620185175
2.244994432
2.415229459
1.707825129
2.366431913
1.750000000
0.
0.
0.
2.091650066
2.898275350
2.259240285
0.
0.
2.259240285
0.
0.
0.
0.
0.
2.
1.732050808
1.490711985
3.162277660
2.738612788
3.888444420
0.
0.
0.
1.936491673
1.677050983
3.346640106
0.
0.
1.673320053
0.
0.
0.
0.
0.
1.732050808
2.
1.936491673
2.738612788
3.162277660
3.367491648
0.
0.
0.
1.677050983
1.936491673
2.898275350
0.
0.
1.449137675
0.
0.
0.
0.
0.
1.490711985
1.936491673
2.
2.357022604
3.061862179
2.898275350
0.
0.
0.
1.443375673
1.875000000
2.494438258
0.
0.
1.247219129
0.
0.
0.
0.
0.
1.581138830
1.369306394
1.178511302
3.
2.598076212
4.098780308
0.
0.
0.
1.224744872
1.060660172
2.645751311
0.
0.
.8819171036
0.
0.
0.
0.
0.
1.369306394
1.581138830
1.530931089
2.598076212
3.
3.549647869
0.
0.
0.
1.060660172
1.224744872
2.291287848
0.
0.
.7637626160
0.
0.
0.
0.
0.
1.296148140
1.122497216
.9660917834
2.732520206
2.366431913
4.
0.
0.
0.
.8366600264
.7245688375
2.065591118
0.
0.
.5163977793
0.
0.
0.
0.
0.
2.
1.732050808
1.490711985
1.581138830
1.369306394
1.296148140
0.
0.
0.
3.872983346
3.354101966
3.346640106
0.
0.
5.019960159
0.
0.
0.
0.
0.
1.732050808
2.
1.936491673
1.369306394
1.581138830
1.122497216
0.
0.
0.
3.354101966
3.872983346
2.898275350
0.
0.
4.347413025
0.
0.
0.
0.
0.
1.490711985
1.936491673
2.
1.178511302
1.530931089
.9660917834
0.
0.
0.
2.886751347
3.750000000
2.494438258
0.
0.
3.741657387
0.
0.
0.
0.
0.
1.936491673
1.677050983
1.443375673
2.449489743
2.121320343
2.509980079
0.
0.
0.
3.
2.598076212
4.320493799
0.
0.
3.240370349
0.
0.
0.
0.
0.
1.677050983
1.936491673
1.875000000
2.121320343
2.449489743
2.173706512
0.
0.
0.
2.598076212
3.
3.741657387
0.
0.
2.806243040
0.
0.
0.
0.
0.
1.673320053
1.449137675
1.247219129
2.645751311
2.291287848
3.098386677
0.
0.
0.
2.160246899
1.870828694
4.
0.
0.
2.
0.
0.
0.
0.
0.
1.581138830
1.369306394
1.178511302
1.
.8660254040
.6831300514
0.
0.
0.
3.674234614
3.181980514
2.645751311
0.
0.
5.291502622
0.
0.
0.
0.
0.
1.369306394
1.581138830
1.530931089
.8660254040
1.
.5916079782
0.
0.
0.
3.181980514
3.674234614
2.291287848
0.
0.
4.582575695
0.
0.
0.
0.
0.
1.673320053
1.449137675
1.247219129
1.763834207
1.527525232
1.549193338
0.
0.
0.
3.240370349
2.806243040
4.
0.
0.
4.
0.
0.
0.
0.
0.
1.296148140
1.122497216
.9660917834
.6831300514
.5916079782
.4000000000
0.
0.
0.
3.346640106
2.898275350
2.065591118
0.
0.
5.163977793
0.
