%%MatrixMarket matrix array real general
4 20
1.414213562
1.414213562
1.414213562
1.414213562
.1700725905
.1700725905
.1700725905
.1700725905
.1524464801e-1
.1524464801e-1
.1524464801e-1
.1524464801e-1
.1252391530e-2
.1252391530e-2
.1252391530e-2
.1252391530e-2
.2405189635
1.143186367
2.320915249
3.223582651
.2892468600e-1
.1374790002
.2791120656
.3876663793
.2592696785e-2
.1232308492e-1
.2501852413e-1
.3474891228e-1
.2640450499e-1
.5965041289
2.458656996
4.743042334
.3175392072e-2
.7173527742e-1
.2956768161
.5703958130
.2504783060e-2
.2689510557
2.250608683
6.030295213
3.223582651
2.320915249
1.143186367
.2405189635
.3876663793
.2791120656
.1374790002
.2892468600e-1
.3474891228e-1
.2501852413e-1
.1232308492e-1
.2592696785e-2
.866848376
2.966411012
2.966411012
.866848376
.1042467368
.3567390516
.3567390516
.1042467368
.1300185243
2.114760201
4.293419991
1.742587995
4.743042334
2.458656996
.5965041289
.2640450499e-1
.5703958130
.2956768161
.7173527742e-1
.3175392072e-2
1.742587995
4.293419991
2.114760201
.1300185243
6.030295213
2.250608683
.2689510557
.2504783060e-2
