%%MatrixMarket matrix array real general
13 20
1.414213562
1.414213562
1.414213562
1.414213562
1.414213562
1.414213562
1.414213562
1.414213562
1.414213562
1.414213562
1.414213562
1.414213562
1.414213562
0.
0.
0.
0.
0.
0.
0.
0.
0.
0.
0.
0.
0.
0.
0.
0.
0.
0.
0.
0.
0.
0.
0.
0.
0.
0.
0.
0.
0.
0.
0.
0.
0.
0.
0.
0.
0.
0.
0.
1.154700539
.9018648819
.9018648819
1.660371852
.2256172947
.2256172947
3.012867026
1.083797870
2.211635545
.1686682004
.1686682004
1.083797870
2.211635545
0.
0.
0.
0.
0.
0.
0.
0.
0.
0.
0.
0.
0.
0.
0.
0.
0.
0.
0.
0.
0.
0.
0.
0.
0.
0.
.6085806194
.3712464703
.3712464703
1.258317121
.2323400915e-1
.2323400915e-1
4.143232550
.5361372318
2.232577295
.1298511510e-1
.1298511510e-1
.5361372318
2.232577295
0.
0.
0.
0.
0.
0.
0.
0.
0.
0.
0.
0.
0.
.2771598064
.1320524832
.1320524832
.8240209079
.2067470429e-2
.2067470429e-2
4.923365040
.2291748860
1.947434359
.8638170614e-3
.8638170614e-3
.2291748860
1.947434359
1.154700539
1.660371852
.9018648819
.9018648819
3.012867026
.2256172947
.2256172947
.1686682004
1.083797870
2.211635545
1.083797870
2.211635545
.1686682004
0.
0.
0.
0.
0.
0.
0.
0.
0.
0.
0.
0.
0.
0.
0.
0.
0.
0.
0.
0.
0.
0.
0.
0.
0.
0.
1.490711985
1.674178825
.9093644209
1.674178825
.7599890903
.5691146707e-1
.7599890903
.2043791133
2.679889337
.4170631113
.2043791133
2.679889337
.4170631113
0.
0.
0.
0.
0.
0.
0.
0.
0.
0.
0.
0.
0.
1.073435315
.9415775350
.5114370684
1.733484547
.1069282633
.8007278541e-2
1.427907550
.1381330405
3.696095549
.4386799219e-1
.2149722933e-1
1.811248012
.5752122252
.6085806194
1.258317121
.3712464703
.3712464703
4.143232550
.2323400915e-1
.2323400915e-1
.1298511510e-1
.5361372318
2.232577295
.5361372318
2.232577295
.1298511510e-1
0.
0.
0.
0.
0.
0.
0.
0.
0.
0.
0.
0.
0.
1.073435315
1.733484547
.5114370684
.9415775350
1.427907550
.8007278541e-2
.1069282633
.2149722933e-1
1.811248012
.5752122252
.1381330405
3.696095549
.4386799219e-1
.2771598064
.8240209079
.1320524832
.1320524832
4.923365040
.2067470429e-2
.2067470429e-2
.8638170614e-3
.2291748860
1.947434359
.2291748860
1.947434359
.8638170614e-3
