0	0
14.7745	0
29.5491	0
44.3236	0
59.0981	0
73.8727	0
88.6472	0
103.422	0
118.196	0
132.971	0
147.745	0
162.52	0
177.294	0
192.069	0
206.843	0
221.618	0
236.393	0
251.167	0
265.942	0
280.716	0
295.491	0
310.265	0
325.04	0
339.814	0
354.589	0
369.363	0
384.138	0
398.912	0
413.687	0
428.462	0
443.236	0
458.011	0
472.785	0
487.56	0
502.334	0
517.109	0
531.883	0
546.658	0
561.432	0
576.207	0
590.981	0
605.756	0
620.53	0
635.305	0
650.08	0
664.854	0
679.629	0
694.403	0
709.178	0
723.952	0
738.727	0
753.501	0
768.276	0
783.05	0
797.825	0
812.599	0
827.374	0
842.149	0
856.923	0
871.698	0
886.472	0
901.247	0
916.021	0
930.796	0
945.57	0
960.345	0
975.119	0
989.894	0
1004.67	0
1019.44	0
1034.22	0
1048.99	0
1063.77	0
1078.54	0
1093.32	0
1108.09	0
1122.86	0
1137.64	0
1152.41	0
1167.19	0
1181.96	0
1196.74	0
1211.51	0
1226.29	0
1241.06	0
1255.84	0
1270.61	0
1285.38	0
1300.16	0
1314.93	0
1329.71	0
1344.48	0
1359.26	0
1374.03	0
1388.81	0
1403.58	0
1418.36	0
1433.13	0
1447.9	0
1462.68	0
1477.45	0
1492.23	0
1507	0
1521.78	0
1536.55	0
1551.33	0
1566.1	0
1580.88	0
1595.65	0
1610.42	0
1625.2	0
1639.97	0
1654.75	0
1669.52	0
1684.3	0
1699.07	0
1713.85	0
1728.62	0
1743.4	0
1758.17	0
1772.94	0
1787.72	0
1802.49	0
1817.27	0
1832.04	0
1846.82	0
1861.59	9.09495e-13
1876.37	9.09495e-13
1891.14	1.81899e-12
1905.92	2.72848e-12
1920.69	4.54747e-12
1935.46	6.36646e-12
1950.24	1.00044e-11
1965.01	1.54614e-11
1979.79	2.27374e-11
1994.56	3.36513e-11
2009.34	5.00222e-11
2024.11	7.27596e-11
2038.89	1.06411e-10
2053.66	1.53705e-10
2068.43	2.21007e-10
2083.21	3.16504e-10
2097.98	4.502e-10
2112.76	6.34827e-10
2127.53	8.90395e-10
2142.31	1.24146e-09
2157.08	1.72076e-09
2171.86	2.36923e-09
2186.63	3.24417e-09
2201.41	4.4156e-09
2216.18	5.97629e-09
2230.95	8.04448e-09
2245.73	1.07693e-08
2260.5	1.434e-08
2275.28	1.8993e-08
2290.05	2.50247e-08
2304.83	3.28055e-08
2319.6	4.27908e-08
2334.38	5.55419e-08
2349.15	7.17437e-08
2363.93	9.22319e-08
2378.7	1.18018e-07
2393.47	1.50319e-07
2408.25	1.906e-07
2423.02	2.40604e-07
2437.8	3.02403e-07
2452.57	3.78449e-07
2467.35	4.71626e-07
2482.12	5.85314e-07
2496.9	7.23456e-07
2511.67	8.90631e-07
2526.45	1.09214e-06
2541.22	1.33407e-06
2555.99	1.62343e-06
2570.77	1.96822e-06
2585.54	2.37753e-06
2600.32	2.86167e-06
2615.09	3.43231e-06
2629.87	4.10256e-06
2644.64	4.88713e-06
2659.42	5.80249e-06
2674.19	6.86699e-06
2688.97	8.10102e-06
2703.74	9.52722e-06
2718.51	1.11706e-05
2733.29	1.30588e-05
2748.06	1.52222e-05
2762.84	1.76944e-05
2777.61	2.0512e-05
2792.39	2.37156e-05
2807.16	2.73495e-05
2821.94	3.14624e-05
2836.71	3.61077e-05
2851.49	4.13441e-05
2866.26	4.72365e-05
2881.03	5.38562e-05
2895.81	6.12821e-05
2910.58	6.96014e-05
2925.36	7.89115e-05
2940.13	8.93204e-05
2954.91	0.000100949
2969.68	0.000113934
2984.46	0.000128427
2999.23	0.000144601
3014	0.000162651
3028.78	0.000182798
3043.55	0.000205294
3058.33	0.000230425
3073.1	0.000258519
3087.88	0.000289948
3102.65	0.000325137
3117.43	0.000364574
3132.2	0.000408814
3146.97	0.000458489
3161.75	0.000514322
3176.52	0.000577133
3191.3	0.000647856
3206.07	0.000727548
3220.85	0.000817409
3235.62	0.000918789
3250.39	0.00103321
3265.17	0.00116239
3279.94	0.00130824
3294.72	0.0014729
3309.49	0.00165875
3324.27	0.00186845
3339.04	0.00210491
3353.81	0.00237138
3368.59	0.00267141
3383.36	0.00300887
3398.14	0.00338803
3412.91	0.0038135
3427.68	0.00429029
3442.46	0.0048238
3457.23	0.00541984
3472.01	0.00608465
3486.78	0.00682487
3501.56	0.00764756
3516.33	0.00856018
3531.1	0.00957062
3545.88	0.0106871
3560.65	0.0119183
3575.43	0.0132731
3590.2	0.0147608
3604.97	0.0163908
3619.75	0.018173
3634.52	0.020117
3649.3	0.022233
3664.07	0.0245307
3678.84	0.0270203
3693.62	0.0297113
3708.39	0.0326134
3723.17	0.0357356
3737.94	0.0390869
3752.71	0.0426753
3767.49	0.0465085
3782.26	0.0505931
3797.04	0.0549352
3811.81	0.0595396
3826.58	0.0644101
3841.36	0.0695493
3856.13	0.0749582
3870.91	0.0806366
3885.68	0.0865828
3900.45	0.0927931
3915.23	0.0992623
3930	0.105983
3944.78	0.112947
3959.55	0.120143
3974.32	0.127558
3989.1	0.135177
4003.87	0.142982
4018.65	0.150956
4033.42	0.159077
4048.19	0.167321
4062.97	0.175665
4077.74	0.184081
4092.52	0.19254
4107.29	0.201013
4122.06	0.209469
4136.84	0.217873
4151.61	0.226192
4166.39	0.234391
4181.16	0.242434
4195.93	0.250284
4210.71	0.257904
4225.48	0.265257
4240.26	0.272305
4255.03	0.279013
4269.8	0.285344
4284.58	0.291261
4299.35	0.296731
4314.13	0.301721
4328.9	0.306199
4343.68	0.310134
4358.45	0.313498
4373.22	0.316266
4388	0.318414
4402.77	0.319921
4417.55	0.320767
4432.32	0.320939
4447.1	0.320422
4461.87	0.319207
4476.65	0.317288
4491.42	0.314661
4506.19	0.311326
4520.97	0.307286
4535.74	0.302548
4550.52	0.29712
4565.29	0.291015
4580.07	0.28425
4594.84	0.276843
4609.62	0.268816
4624.39	0.260192
4639.16	0.250999
4653.94	0.241266
4668.71	0.231026
4683.49	0.22031
4698.26	0.209156
4713.04	0.1976
4727.81	0.18568
4742.59	0.173437
4757.36	0.160912
4772.14	0.148145
4786.91	0.135179
4801.68	0.122055
4816.46	0.108817
4831.23	0.0955058
4846.01	0.0821634
4860.78	0.0688307
4875.56	0.055548
4890.33	0.0423542
4905.11	0.0292874
4919.88	0.016384
4934.65	0.00367913
4949.43	-0.00879395
4964.2	-0.0210037
4978.98	-0.0329205
4993.75	-0.0445168
5008.53	-0.055767
5023.3	-0.0666478
5038.08	-0.0771381
5052.85	-0.087219
5067.62	-0.0968739
5082.4	-0.106088
5097.17	-0.114851
5111.95	-0.123151
5126.72	-0.130981
5141.5	-0.138336
5156.27	-0.145213
5171.05	-0.151609
5185.82	-0.157527
5200.6	-0.162968
5215.37	-0.167937
5230.14	-0.17244
5244.92	-0.176485
5259.69	-0.180081
5274.47	-0.183237
5289.24	-0.185967
5304.02	-0.188283
5318.79	-0.190198
5333.57	-0.191727
5348.34	-0.192887
5363.11	-0.193693
5377.89	-0.194161
5392.66	-0.19431
5407.44	-0.194155
5422.21	-0.193716
5436.99	-0.193009
5451.76	-0.192052
5466.54	-0.190864
5481.31	-0.18946
5496.09	-0.18786
5510.86	-0.186078
5525.63	-0.184133
5540.41	-0.182039
5555.18	-0.179812
5569.96	-0.177468
5584.73	-0.175019
5599.51	-0.172481
5614.28	-0.169867
5629.06	-0.167187
5643.83	-0.164454
5658.6	-0.161679
5673.38	-0.158872
5688.15	-0.156042
5702.93	-0.153197
5717.7	-0.150347
5732.48	-0.147497
5747.25	-0.144654
5762.03	-0.141824
5776.8	-0.139013
5791.58	-0.136224
5806.35	-0.133462
5821.12	-0.13073
5835.9	-0.12803
5850.67	-0.125365
5865.45	-0.122737
5880.22	-0.120147
5895	-0.117596
5909.77	-0.115083
5924.55	-0.112611
5939.32	-0.110178
5954.09	-0.107784
5968.87	-0.105429
5983.64	-0.103111
5998.42	-0.100831
6013.19	-0.0985854
6027.97	-0.0963746
6042.74	-0.094197
6057.52	-0.0920513
6072.29	-0.089936
6087.07	-0.0878499
6101.84	-0.0857915
6116.61	-0.0837596
6131.39	-0.0817529
6146.16	-0.0797703
6160.94	-0.0778105
6175.71	-0.0758728
6190.49	-0.073956
6205.26	-0.0720595
6220.04	-0.0701826
6234.81	-0.0683247
6249.59	-0.0664854
6264.36	-0.0646643
6279.13	-0.0628613
6293.91	-0.0610763
6308.68	-0.0593094
6323.46	-0.0575606
6338.23	-0.0558303
6353.01	-0.0541187
6367.78	-0.0524264
6382.56	-0.0507538
6397.33	-0.0491015
6412.11	-0.0474702
6426.88	-0.0458604
6441.65	-0.0442731
6456.43	-0.0427088
6471.2	-0.0411683
6485.98	-0.0396525
6500.75	-0.038162
6515.53	-0.0366976
6530.3	-0.0352601
6545.08	-0.03385
6559.85	-0.0324679
6574.63	-0.0311145
6589.4	-0.0297903
6604.17	-0.0284956
6618.95	-0.0272307
6633.72	-0.025996
6648.5	-0.0247915
6663.27	-0.0236173
6678.05	-0.0224733
6692.82	-0.0213595
6707.6	-0.0202754
6722.37	-0.0192207
6737.15	-0.018195
6751.92	-0.0171975
6766.69	-0.0162276
6781.47	-0.0152845
6796.24	-0.0143672
6811.02	-0.0134747
6825.79	-0.0126058
6840.57	-0.0117594
6855.34	-0.0109341
6870.12	-0.0101286
6884.89	-0.00934133
6899.67	-0.00857082
6914.44	-0.00781549
6929.21	-0.0070737
6943.99	-0.00634379
6958.76	-0.00562405
6973.54	-0.00491276
6988.31	-0.00420819
7003.09	-0.00350859
7017.86	-0.00281225
7032.64	-0.00211744
7047.41	-0.00142248
7062.19	-0.000725713
7076.96	-2.55404e-05
7091.73	0.000679594
7106.51	0.00139118
7121.28	0.00211064
7136.06	0.00283931
7150.83	0.00357845
7165.61	0.00432921
7180.38	0.00509267
7195.16	0.00586978
7209.93	0.00666137
7224.71	0.00746819
7239.48	0.00829083
7254.25	0.00912979
7269.03	0.00998542
7283.8	0.010858
7298.58	0.0117475
7313.35	0.012654
7328.13	0.0135773
7342.9	0.014517
7357.68	0.0154729
7372.45	0.0164443
7387.23	0.0174305
7402	0.0184307
7416.77	0.0194439
7431.55	0.0204693
7446.32	0.0215054
7461.1	0.0225512
7475.87	0.0236052
7490.65	0.024666
7505.42	0.025732
7520.2	0.0268015
7534.97	0.0278728
7549.74	0.0289442
7564.52	0.0300137
7579.29	0.0310795
7594.07	0.0321396
7608.84	0.0331919
7623.62	0.0342346
7638.39	0.0352654
7653.17	0.0362823
7667.94	0.0372833
7682.71	0.0382661
7697.49	0.0392289
7712.26	0.0401694
7727.04	0.0410856
7741.81	0.0419756
7756.59	0.0428372
7771.36	0.0436686
7786.14	0.0444679
7800.91	0.0452332
7815.68	0.0459627
7830.46	0.0466547
7845.23	0.0473076
7860.01	0.0479198
7874.78	0.0484897
7889.56	0.049016
7904.33	0.0494973
7919.11	0.0499324
7933.88	0.0503201
7948.65	0.0506595
7963.43	0.0509494
7978.2	0.0511892
7992.98	0.0513779
8007.75	0.0515151
8022.53	0.0516
8037.3	0.0516323
8052.08	0.0516116
8066.85	0.0515377
8081.62	0.0514105
8096.4	0.0512298
8111.17	0.0509957
8125.95	0.0507085
8140.72	0.0503683
8155.5	0.0499755
8170.27	0.0495306
8185.05	0.049034
8199.82	0.0484863
8214.59	0.0478884
8229.37	0.0472409
8244.14	0.0465448
8258.92	0.0458009
8273.69	0.0450103
8288.47	0.044174
8303.24	0.0432932
8318.02	0.0423692
8332.79	0.0414031
8347.56	0.0403964
8362.34	0.0393503
8377.11	0.0382664
8391.89	0.0371461
8406.66	0.0359909
8421.44	0.0348023
8436.21	0.033582
8450.99	0.0323317
8465.76	0.0310528
8480.53	0.0297472
8495.31	0.0284165
8510.08	0.0270624
8524.86	0.0256868
8539.63	0.0242912
8554.41	0.0228775
8569.18	0.0214475
8583.96	0.0200029
8598.73	0.0185455
8613.51	0.017077
8628.28	0.0155992
8643.05	0.0141138
8657.83	0.0126226
8672.6	0.0111274
8687.38	0.00962971
8702.15	0.00813137
8716.93	0.00663401
8731.7	0.00513928
8746.48	0.00364879
8761.25	0.00216413
8776.02	0.000686878
8790.8	-0.000781449
8805.57	-0.00223935
8820.35	-0.00368537
8835.12	-0.00511808
8849.9	-0.0065361
8864.67	-0.00793808
8879.45	-0.00932274
8894.22	-0.0106888
8908.99	-0.0120351
8923.77	-0.0133604
8938.54	-0.0146636
8953.32	-0.0159438
8968.09	-0.0171997
8982.87	-0.0184306
8997.64	-0.0196354
9012.42	-0.0208133
9027.19	-0.0219636
9041.96	-0.0230854
9056.74	-0.0241781
9071.51	-0.025241
9086.29	-0.0262736
9101.06	-0.0272753
9115.84	-0.0282456
9130.61	-0.0291842
9145.39	-0.0300906
9160.16	-0.0309645
9174.94	-0.0318057
9189.71	-0.032614
9204.48	-0.0333893
9219.26	-0.0341313
9234.03	-0.0348402
9248.81	-0.0355158
9263.58	-0.0361583
9278.36	-0.0367677
9293.13	-0.0373442
9307.91	-0.037888
9322.68	-0.0383993
9337.45	-0.0388783
9352.23	-0.0393255
9367	-0.0397412
9381.78	-0.0401257
9396.55	-0.0404795
9411.33	-0.040803
9426.1	-0.0410968
9440.88	-0.0413613
9455.65	-0.0415972
9470.43	-0.041805
9485.2	-0.0419853
9499.97	-0.0421388
9514.75	-0.042266
9529.52	-0.0423677
9544.3	-0.0424445
9559.07	-0.0424971
9573.85	-0.0425263
9588.62	-0.0425327
9603.4	-0.0425171
9618.17	-0.0424802
9632.94	-0.0424227
9647.72	-0.0423454
9662.49	-0.042249
9677.27	-0.0421343
9692.04	-0.0420019
9706.82	-0.0418527
9721.59	-0.0416872
9736.37	-0.0415064
9751.14	-0.0413108
9765.92	-0.0411012
9780.69	-0.0408782
9795.46	-0.0406425
9810.24	-0.0403948
9825.01	-0.0401358
9839.79	-0.039866
9854.56	-0.039586
9869.34	-0.0392966
9884.11	-0.0389981
9898.89	-0.0386913
9913.66	-0.0383766
9928.44	-0.0380546
9943.21	-0.0377257
9957.98	-0.0373905
9972.76	-0.0370494
9987.53	-0.0367028
10002.3	-0.0363511
10017.1	-0.0359948
10031.9	-0.0356342
10046.6	-0.0352697
10061.4	-0.0349015
10076.2	-0.0345301
10091	-0.0341556
10105.7	-0.0337784
10120.5	-0.0333988
10135.3	-0.0330168
10150.1	-0.0326328
10164.8	-0.0322469
10179.6	-0.0318593
10194.4	-0.0314702
10209.2	-0.0310797
10223.9	-0.0306878
10238.7	-0.0302948
10253.5	-0.0299006
10268.2	-0.0295054
10283	-0.0291092
10297.8	-0.0287121
10312.6	-0.028314
10327.3	-0.027915
10342.1	-0.0275151
10356.9	-0.0271142
10371.7	-0.0267124
10386.4	-0.0263097
10401.2	-0.0259059
10416	-0.0255011
10430.8	-0.0250951
10445.5	-0.0246879
10460.3	-0.0242795
10475.1	-0.0238697
10489.9	-0.0234585
10504.6	-0.0230458
10519.4	-0.0226314
10534.2	-0.0222154
10549	-0.0217976
10563.7	-0.0213778
10578.5	-0.0209561
10593.3	-0.0205322
10608.1	-0.0201061
10622.8	-0.0196777
10637.6	-0.0192469
10652.4	-0.0188136
10667.2	-0.0183776
10681.9	-0.0179389
10696.7	-0.0174974
10711.5	-0.0170531
10726.3	-0.0166057
10741	-0.0161552
10755.8	-0.0157016
10770.6	-0.0152448
10785.4	-0.0147847
10800.1	-0.0143212
10814.9	-0.0138544
10829.7	-0.0133842
10844.5	-0.0129104
10859.2	-0.0124332
10874	-0.0119524
10888.8	-0.0114681
10903.6	-0.0109803
10918.3	-0.010489
10933.1	-0.00999415
10947.9	-0.00949582
10962.7	-0.00899404
10977.4	-0.00848887
10992.2	-0.00798035
11007	-0.00746856
11021.8	-0.00695356
11036.5	-0.00643546
11051.3	-0.00591434
11066.1	-0.00539032
11080.8	-0.00486352
11095.6	-0.00433406
11110.4	-0.00380209
11125.2	-0.00326776
11139.9	-0.00273122
11154.7	-0.00219266
11169.5	-0.00165225
11184.3	-0.00111018
11199	-0.000566654
11213.8	-2.18816e-05
11228.6	0.000523918
11243.4	0.00107052
11258.1	0.00161768
11272.9	0.00216517
11287.7	0.00271272
11302.5	0.00326008
11317.2	0.00380698
11332	0.00435316
11346.8	0.00489833
11361.6	0.00544221
11376.3	0.0059845
11391.1	0.00652492
11405.9	0.00706317
11420.7	0.00759894
11435.4	0.00813193
11450.2	0.00866183
11465	0.00918833
11479.8	0.00971112
11494.5	0.0102299
11509.3	0.0107443
11524.1	0.0112541
11538.9	0.0117589
11553.6	0.0122584
11568.4	0.0127523
11583.2	0.0132403
11598	0.0137221
11612.7	0.0141974
11627.5	0.0146658
11642.3	0.0151272
11657.1	0.015581
11671.8	0.0160272
11686.6	0.0164654
11701.4	0.0168952
11716.2	0.0173165
11730.9	0.0177289
11745.7	0.0181323
11760.5	0.0185262
11775.3	0.0189105
11790	0.0192849
11804.8	0.0196492
11819.6	0.0200031
11834.3	0.0203464
11849.1	0.0206788
11863.9	0.0210003
11878.7	0.0213104
11893.4	0.0216091
11908.2	0.0218962
11923	0.0221714
11937.8	0.0224346
11952.5	0.0226856
11967.3	0.0229243
11982.1	0.0231504
11996.9	0.0233639
12011.6	0.0235645
12026.4	0.0237522
12041.2	0.0239269
12056	0.0240883
12070.7	0.0242365
12085.5	0.0243712
12100.3	0.0244924
12115.1	0.0246
12129.8	0.024694
12144.6	0.0247742
12159.4	0.0248405
12174.2	0.024893
12188.9	0.0249316
12203.7	0.0249561
12218.5	0.0249667
12233.3	0.0249632
12248	0.0249456
12262.8	0.0249139
12277.6	0.0248681
12292.4	0.0248082
12307.1	0.0247342
12321.9	0.0246462
12336.7	0.024544
12351.5	0.0244279
12366.2	0.0242977
12381	0.0241536
12395.8	0.0239956
12410.6	0.0238238
12425.3	0.0236382
12440.1	0.0234389
12454.9	0.023226
12469.7	0.0229995
12484.4	0.0227597
12499.2	0.0225066
12514	0.0222403
12528.8	0.0219609
12543.5	0.0216686
12558.3	0.0213635
12573.1	0.0210459
12587.9	0.0207158
12602.6	0.0203734
12617.4	0.0200189
12632.2	0.0196525
12646.9	0.0192744
12661.7	0.0188848
12676.5	0.018484
12691.3	0.0180721
12706	0.0176494
12720.8	0.0172162
12735.6	0.0167727
12750.4	0.0163191
12765.1	0.0158558
12779.9	0.0153831
12794.7	0.0149011
12809.5	0.0144103
12824.2	0.013911
12839	0.0134034
12853.8	0.0128879
12868.6	0.0123649
12883.3	0.0118346
12898.1	0.0112974
12912.9	0.0107538
12927.7	0.010204
12942.4	0.00964837
12957.2	0.00908738
12972	0.00852137
12986.8	0.00795075
13001.5	0.00737589
13016.3	0.00679721
13031.1	0.0062151
13045.9	0.00562997
13060.6	0.00504223
13075.4	0.0044523
13090.2	0.00386059
13105	0.00326751
13119.7	0.0026735
13134.5	0.00207896
13149.3	0.00148431
13164.1	0.000889985
13178.8	0.000296393
13193.6	-0.000296046
13208.4	-0.000886918
13223.2	-0.00147581
13237.9	-0.0020623
13252.7	-0.002646
13267.5	-0.0032265
13282.3	-0.00380339
13297	-0.00437628
13311.8	-0.00494479
13326.6	-0.00550854
13341.4	-0.00606713
13356.1	-0.00662021
13370.9	-0.00716742
13385.7	-0.00770839
13400.4	-0.00824278
13415.2	-0.00877025
13430	-0.00929047
13444.8	-0.00980312
13459.5	-0.0103079
13474.3	-0.0108045
13489.1	-0.0112926
13503.9	-0.0117719
13518.6	-0.0122422
13533.4	-0.0127033
13548.2	-0.0131547
13563	-0.0135964
13577.7	-0.0140281
13592.5	-0.0144496
13607.3	-0.0148606
13622.1	-0.015261
13636.8	-0.0156506
13651.6	-0.0160293
13666.4	-0.0163968
13681.2	-0.016753
13695.9	-0.0170978
13710.7	-0.0174311
13725.5	-0.0177527
13740.3	-0.0180625
13755	-0.0183606
13769.8	-0.0186467
13784.6	-0.0189208
13799.4	-0.0191829
13814.1	-0.0194328
13828.9	-0.0196707
13843.7	-0.0198964
13858.5	-0.02011
13873.2	-0.0203114
13888	-0.0205006
13902.8	-0.0206777
13917.6	-0.0208427
13932.3	-0.0209957
13947.1	-0.0211365
13961.9	-0.0212654
13976.7	-0.0213824
13991.4	-0.0214875
14006.2	-0.0215809
14021	-0.0216625
14035.8	-0.0217326
14050.5	-0.0217911
14065.3	-0.0218383
14080.1	-0.0218742
14094.9	-0.0218989
14109.6	-0.0219125
14124.4	-0.0219153
14139.2	-0.0219073
14154	-0.0218887
14168.7	-0.0218596
14183.5	-0.0218202
14198.3	-0.0217706
14213	-0.021711
14227.8	-0.0216415
14242.6	-0.0215624
14257.4	-0.0214738
14272.1	-0.0213759
14286.9	-0.0212688
14301.7	-0.0211528
14316.5	-0.021028
14331.2	-0.0208947
14346	-0.0207529
14360.8	-0.020603
14375.6	-0.0204451
14390.3	-0.0202795
14405.1	-0.0201062
14419.9	-0.0199256
14434.7	-0.0197379
14449.4	-0.0195432
14464.2	-0.0193417
14479	-0.0191337
14493.8	-0.0189195
14508.5	-0.0186991
14523.3	-0.0184729
14538.1	-0.018241
14552.9	-0.0180037
14567.6	-0.0177612
14582.4	-0.0175137
14597.2	-0.0172615
14612	-0.0170047
14626.7	-0.0167436
14641.5	-0.0164785
14656.3	-0.0162095
14671.1	-0.015937
14685.8	-0.015661
14700.6	-0.0153819
14715.4	-0.0150998
14730.2	-0.0148151
14744.9	-0.0145279
14759.7	-0.0142385
14774.5	-0.0139471
14789.3	-0.0136539
14804	-0.0133592
14818.8	-0.0130632
14833.6	-0.0127661
14848.4	-0.0124682
14863.1	-0.0121697
14877.9	-0.0118708
14892.7	-0.0115718
14907.5	-0.0112728
14922.2	-0.0109742
14937	-0.010676
14951.8	-0.0103787
14966.5	-0.0100823
14981.3	-0.00978711
14996.1	-0.00949335
15010.9	-0.00920124
15025.6	-0.00891098
15040.4	-0.0086228
15055.2	-0.0083369
15070	-0.0080535
15084.7	-0.0077728
15099.5	-0.00749501
15114.3	-0.00722033
15129.1	-0.00694896
15143.8	-0.0066811
15158.6	-0.00641694
15173.4	-0.00615668
15188.2	-0.00590048
15202.9	-0.00564855
15217.7	-0.00540106
15232.5	-0.00515819
15247.3	-0.0049201
15262	-0.00468697
15276.8	-0.00445896
15291.6	-0.00423622
15306.4	-0.00401891
15321.1	-0.00380718
15335.9	-0.00360118
15350.7	-0.00340104
15365.5	-0.00320691
15380.2	-0.0030189
15395	-0.00283715
15409.8	-0.00266177
15424.6	-0.00249287
15439.3	-0.00233058
15454.1	-0.00217498
15468.9	-0.00202617
15483.7	-0.00188425
15498.4	-0.00174931
15513.2	-0.00162141
15528	-0.00150063
15542.8	-0.00138705
15557.5	-0.00128071
15572.3	-0.00118169
15587.1	-0.00109001
15601.9	-0.00100573
15616.6	-0.00092888
15631.4	-0.000859491
15646.2	-0.000797583
15661	-0.000743174
15675.7	-0.000696272
15690.5	-0.00065688
15705.3	-0.000624994
15720.1	-0.000600604
15734.8	-0.000583692
15749.6	-0.000574235
15764.4	-0.000572201
15779.1	-0.000577554
15793.9	-0.00059025
15808.7	-0.000610238
15823.5	-0.00063746
15838.2	-0.000671853
15853	-0.000713345
15867.8	-0.00076186
15882.6	-0.000817313
15897.3	-0.000879615
15912.1	-0.000948667
15926.9	-0.00102437
15941.7	-0.0011066
15956.4	-0.00119526
15971.2	-0.00129022
15986	-0.00139134
16000.8	-0.0014985
16015.5	-0.00161155
16030.3	-0.00173035
16045.1	-0.00185474
16059.9	-0.00198456
16074.6	-0.00211965
16089.4	-0.00225983
16104.2	-0.00240493
16119	-0.00255477
16133.7	-0.00270917
16148.5	-0.00286792
16163.3	-0.00303083
16178.1	-0.00319769
16192.8	-0.00336831
16207.6	-0.00354247
16222.4	-0.00371996
16237.2	-0.00390054
16251.9	-0.00408401
16266.7	-0.00427012
16281.5	-0.00445866
16296.3	-0.00464937
16311	-0.00484204
16325.8	-0.0050364
16340.6	-0.00523223
16355.4	-0.00542927
16370.1	-0.00562727
16384.9	-0.00582599
16399.7	-0.00602516
16414.5	-0.00622455
16429.2	-0.00642388
16444	-0.00662291
16458.8	-0.00682139
16473.6	-0.00701904
16488.3	-0.00721563
16503.1	-0.00741088
16517.9	-0.00760455
16532.6	-0.00779639
16547.4	-0.00798614
16562.2	-0.00817354
16577	-0.00835836
16591.7	-0.00854034
16606.5	-0.00871924
16621.3	-0.00889482
16636.1	-0.00906685
16650.8	-0.0092351
16665.6	-0.00939932
16680.4	-0.00955931
16695.2	-0.00971484
16709.9	-0.0098657
16724.7	-0.0100117
16739.5	-0.0101526
16754.3	-0.0102882
16769	-0.0104184
16783.8	-0.0105429
16798.6	-0.0106616
16813.4	-0.0107743
16828.1	-0.0108808
16842.9	-0.0109811
16857.7	-0.0110749
16872.5	-0.0111622
16887.2	-0.0112427
16902	-0.0113165
16916.8	-0.0113833
16931.6	-0.0114432
16946.3	-0.0114959
16961.1	-0.0115415
16975.9	-0.0115798
16990.7	-0.0116109
17005.4	-0.0116346
17020.2	-0.011651
17035	-0.01166
17049.8	-0.0116616
17064.5	-0.0116558
17079.3	-0.0116426
17094.1	-0.0116221
17108.9	-0.0115943
17123.6	-0.0115591
17138.4	-0.0115168
17153.2	-0.0114674
17168	-0.0114108
17182.7	-0.0113473
17197.5	-0.0112769
17212.3	-0.0111998
17227.1	-0.0111161
17241.8	-0.0110258
17256.6	-0.0109292
17271.4	-0.0108264
17286.2	-0.0107175
17300.9	-0.0106028
17315.7	-0.0104825
17330.5	-0.0103566
17345.2	-0.0102255
17360	-0.0100893
17374.8	-0.00994823
17389.6	-0.00980257
17404.3	-0.00965253
17419.1	-0.00949834
17433.9	-0.00934026
17448.7	-0.00917855
17463.4	-0.00901345
17478.2	-0.00884525
17493	-0.00867421
17507.8	-0.0085006
17522.5	-0.00832471
17537.3	-0.00814683
17552.1	-0.00796723
17566.9	-0.00778621
17581.6	-0.00760406
17596.4	-0.00742107
17611.2	-0.00723755
17626	-0.00705377
17640.7	-0.00687004
17655.5	-0.00668666
17670.3	-0.00650391
17685.1	-0.00632209
17699.8	-0.00614149
17714.6	-0.00596239
17729.4	-0.00578509
17744.2	-0.00560986
17758.9	-0.00543698
17773.7	-0.00526672
17788.5	-0.00509935
17803.3	-0.00493513
17818	-0.00477432
17832.8	-0.00461717
17847.6	-0.00446392
17862.4	-0.00431481
17877.1	-0.00417005
17891.9	-0.00402989
17906.7	-0.00389451
17921.5	-0.00376413
17936.2	-0.00363894
17951	-0.00351912
17965.8	-0.00340485
17980.6	-0.00329629
17995.3	-0.00319359
18010.1	-0.00309689
18024.9	-0.00300632
18039.7	-0.002922
18054.4	-0.00284405
18069.2	-0.00277255
18084	-0.00270759
18098.8	-0.00264925
18113.5	-0.00259757
18128.3	-0.00255262
18143.1	-0.00251442
18157.8	-0.00248301
18172.6	-0.00245838
18187.4	-0.00244054
18202.2	-0.00242948
18216.9	-0.00242517
18231.7	-0.00242756
18246.5	-0.00243662
18261.3	-0.00245227
18276	-0.00247445
18290.8	-0.00250306
18305.6	-0.00253801
18320.4	-0.00257919
18335.1	-0.00262647
18349.9	-0.00267974
18364.7	-0.00273883
18379.5	-0.00280361
18394.2	-0.00287391
18409	-0.00294955
18423.8	-0.00303036
18438.6	-0.00311613
18453.3	-0.00320668
18468.1	-0.0033018
18482.9	-0.00340126
18497.7	-0.00350484
18512.4	-0.00361232
18527.2	-0.00372344
18542	-0.00383798
18556.8	-0.00395567
18571.5	-0.00407627
18586.3	-0.00419951
18601.1	-0.00432513
18615.9	-0.00445285
18630.6	-0.00458241
18645.4	-0.00471353
18660.2	-0.00484593
18675	-0.00497934
18689.7	-0.00511346
18704.5	-0.00524802
18719.3	-0.00538274
18734.1	-0.00551733
18748.8	-0.00565152
18763.6	-0.00578501
18778.4	-0.00591753
18793.2	-0.0060488
18807.9	-0.00617855
18822.7	-0.00630651
18837.5	-0.0064324
18852.3	-0.00655597
18867	-0.00667694
18881.8	-0.00679508
18896.6	-0.00691011
18911.3	-0.00702181
18926.1	-0.00712993
18940.9	-0.00723425
18955.7	-0.00733452
18970.4	-0.00743054
18985.2	-0.0075221
19000	-0.00760899
19014.8	-0.00769102
19029.5	-0.00776801
19044.3	-0.00783976
19059.1	-0.00790612
19073.9	-0.00796693
19088.6	-0.00802204
19103.4	-0.0080713
19118.2	-0.00811458
19133	-0.00815177
19147.7	-0.00818276
19162.5	-0.00820744
19177.3	-0.00822572
19192.1	-0.00823753
19206.8	-0.00824279
19221.6	-0.00824145
19236.4	-0.00823346
19251.2	-0.00821879
19265.9	-0.00819739
19280.7	-0.00816926
19295.5	-0.0081344
19310.3	-0.0080928
19325	-0.00804448
19339.8	-0.00798947
19354.6	-0.0079278
19369.4	-0.0078595
19384.1	-0.00778465
19398.9	-0.0077033
19413.7	-0.00761552
19428.5	-0.0075214
19443.2	-0.00742102
19458	-0.00731448
19472.8	-0.0072019
19487.6	-0.00708339
19502.3	-0.00695906
19517.1	-0.00682906
19531.9	-0.00669352
19546.7	-0.00655258
19561.4	-0.00640639
19576.2	-0.00625512
19591	-0.00609892
19605.8	-0.00593796
19620.5	-0.00577242
19635.3	-0.00560247
19650.1	-0.00542831
19664.9	-0.0052501
19679.6	-0.00506806
19694.4	-0.00488236
19709.2	-0.0046932
19723.9	-0.00450079
19738.7	-0.00430533
19753.5	-0.00410701
19768.3	-0.00390605
19783	-0.00370264
19797.8	-0.003497
19812.6	-0.00328933
19827.4	-0.00307984
19842.1	-0.00286872
19856.9	-0.0026562
19871.7	-0.00244247
19886.5	-0.00222773
19901.2	-0.00201219
19916	-0.00179604
19930.8	-0.00157949
19945.6	-0.00136271
19960.3	-0.00114591
19975.1	-0.000929279
19989.9	-0.00071299
