Threads	MTPS_FRAME	CELLS
40	9.5006	86694
40	12.4039	104856
40	15.0376	124415
40	17.4833	145443
40	21.1853	167994
40	22.7356	191968
40	24.8241	217656
40	25.5342	241286
40	28.4057	259151
40	29.061	279994
40	29.7305	301062
40	31.7494	321609
40	33.7974	341858
40	34.7825	360398
40	37.8305	376380
40	37.0981	390516
40	35.6692	403217
40	35.3339	414456
40	35.4274	421753
40	35.6703	425847
40	40.1333	427571
40	39.7771	426998
40	40.7089	424205
40	40.2075	419477
40	38.6127	412595
40	37.2817	403793
40	37.0846	395152
40	35.7655	387456
40	34.809	379950
40	34.9841	372543
40	35.8336	365863
40	35.2049	361846
40	34.6086	359446
40	35.2572	358266
40	35.6691	357922
40	34.1834	358478
40	33.2703	359804
40	33.7258	361778
40	36.1601	364166
40	36.0897	366635
40	37.5739	369221
40	36.7566	371887
40	35.8495	374644
40	36.3418	377411
40	36.2167	380081
40	34.8707	382874
40	34.9632	385513
40	37.1484	388216
40	37.3047	390860
40	36.5756	393507
40	37.6191	396295
40	38.6175	398885
40	36.8569	401713
40	37.0033	404275
40	38.1999	406777
40	37.5745	405196
40	37.5459	400840
40	35.9296	394255
40	35.7593	386039
40	35.1817	375430
40	35.1701	359933
40	36.4859	341114
40	35.2116	319918
40	34.0946	296294
40	32.0201	270494
40	30.0864	243278
40	29.7193	220417
40	27.579	199127
40	23.702	178746
40	20.3185	158541
40	18.4601	140109
40	17.4913	125900
40	16.3468	114489
40	15.624	104696
40	14.251	96028
40	13.1241	88295
40	12.4912	80784
40	11.7836	73614
40	13.1881	66695
40	11.991	59941
40	9.56115	53474
40	8.86895	47199
40	8.73278	41057
40	7.07065	35071
40	6.25471	29323
40	6.37632	23781
40	5.94731	18809
40	3.96078	14365
40	3.29026	10539
40	2.95021	7321
40	2.58068	4663
40	2.16261	2668
40	1.4184	1247
40	0.961852	401
40	0.463968	50
40	0.105392	38
40	0.0814901	34
		
		
		
		
		
		
		
		
		
		
		
		
		
		
		
		
		
		
		
	MTPS_FRAME	CELLS
39	11.5583	86694
39	13.0349	104856
39	14.9417	124415
39	16.8404	145443
39	21.6105	167994
39	23.1262	191968
39	25.0795	217656
39	26.7951	241286
39	28.2183	259151
39	29.4474	279994
39	29.5285	301062
39	30.8809	321609
39	33.698	341858
39	35.8589	360398
39	39.2473	376380
39	39.1071	390516
39	38.4539	403217
39	37.7195	414456
39	38.4206	421753
39	38.2176	425847
39	40.7295	427571
39	40.2484	426998
39	41.1959	424205
39	40.2727	419477
39	38.5124	412595
39	37.8883	403793
39	38.5944	395152
39	37.7695	387456
39	37.225	379950
39	37.1049	372543
39	37.7564	365863
39	37.0196	361846
39	35.9169	359446
39	36.7834	358266
39	37.6899	357922
39	35.8291	358478
39	34.9165	359804
39	36.1065	361778
39	36.8168	364166
39	37.3027	366635
39	37.9949	369221
39	37.7934	371887
39	36.2051	374644
39	35.609	377411
39	36.7016	380081
39	39.5069	382874
39	39.0458	385513
39	37.7989	388216
39	38.1369	390860
39	36.9987	393507
39	37.3557	396295
39	39.4901	398885
39	37.789	401713
39	37.5097	404275
39	38.6689	406777
39	38.7345	405196
39	38.8785	400840
39	37.7738	394255
39	36.9988	386039
39	38.0917	375430
39	37.0077	359933
39	36.6611	341114
39	35.992	319918
39	34.3197	296294
39	32.2486	270494
39	31.4172	243278
39	29.9447	220417
39	27.0496	199127
39	23.6568	178746
39	21.4866	158541
39	20.616	140109
39	20.0111	125900
39	18.5891	114489
39	17.2461	104696
39	15.8403	96028
39	13.7188	88295
39	12.3495	80784
39	12.5905	73614
39	13.7231	66695
39	11.6927	59941
39	9.27758	53474
39	9.02154	47199
39	8.7742	41057
39	7.20656	35071
39	6.34383	29323
39	6.48656	23781
39	6.06975	18809
39	4.01734	14365
39	3.25053	10539
39	2.9977	7321
39	2.70785	4663
39	2.17445	2668
39	1.60284	1247
39	1.01681	401
39	0.471974	50
39	0.211129	38
39	0.290456	34
		
		
		
		
		
		
		
		
		
		
		
		
		
		
		
		
		
		
		
	MTPS_FRAME	CELLS
38	11.5255	86694
38	12.8878	104856
38	14.701	124415
38	16.7073	145443
38	19.9722	167994
38	22.4985	191968
38	25.6893	217656
38	26.8606	241286
38	28.1802	259151
38	30.0275	279994
38	30.7384	301062
38	31.8535	321609
38	33.3955	341858
38	34.9161	360398
38	38.1428	376380
38	37.2588	390516
38	36.6727	403217
38	34.2176	414456
38	37.0291	421753
38	36.9834	425847
38	39.739	427571
38	39.8353	426998
38	41.5648	424205
38	41.8698	419477
38	40.7997	412595
38	38.4961	403793
38	33.8118	395152
38	33.4265	387456
38	35.8432	379950
38	37.6144	372543
38	37.1095	365863
38	35.996	361846
38	36.132	359446
38	36.3872	358266
38	37.194	357922
38	36.0991	358478
38	35.043	359804
38	36.9693	361778
38	38.099	364166
38	37.8792	366635
38	36.139	369221
38	37.8734	371887
38	36.4882	374644
38	35.6846	377411
38	36.0181	380081
38	38.5228	382874
38	38.495	385513
38	37.7997	388216
38	38.704	390860
38	37.72	393507
38	38.3484	396295
38	38.8939	398885
38	37.7407	401713
38	37.4655	404275
38	39.1761	406777
38	38.5546	405196
38	39.4346	400840
38	38.9698	394255
38	38.0311	386039
38	37.6381	375430
38	36.5452	359933
38	36.0437	341114
38	35.2408	319918
38	33.928	296294
38	32.7423	270494
38	31.2145	243278
38	30.8816	220417
38	28.7825	199127
38	24.8663	178746
38	22.5584	158541
38	20.2984	140109
38	19.441	125900
38	18.5041	114489
38	18.5167	104696
38	15.9896	96028
38	14.3575	88295
38	13.3174	80784
38	12.4274	73614
38	11.3287	66695
38	10.4957	59941
38	9.08648	53474
38	9.27925	47199
38	8.61129	41057
38	7.32417	35071
38	6.3966	29323
38	6.48008	23781
38	5.73243	18809
38	3.81297	14365
38	3.29751	10539
38	2.78689	7321
38	2.66024	4663
38	2.21345	2668
38	1.60045	1247
38	1.0114	401
38	0.487076	50
38	0.103865	38
38	0.38674	34
		
		
		
		
		
		
		
		
		
		
		
		
		
		
		
		
		
		
		
	MTPS_FRAME	CELLS
37	11.6405	86694
37	13.1974	104856
37	14.9074	124415
37	18.0211	145443
37	22.345	167994
37	24.5169	191968
37	25.8702	217656
37	26.5355	241286
37	28.4223	259151
37	30.0697	279994
37	31.6387	301062
37	32.2841	321609
37	34.8167	341858
37	35.6224	360398
37	39.0346	376380
37	38.384	390516
37	38.503	403217
37	37.3407	414456
37	37.6318	421753
37	37.4116	425847
37	39.502	427571
37	39.7442	426998
37	40.2226	424205
37	39.1143	419477
37	38.4916	412595
37	37.1909	403793
37	37.4139	395152
37	37.1527	387456
37	36.2943	379950
37	36.8277	372543
37	36.8777	365863
37	35.9385	361846
37	35.6468	359446
37	35.5792	358266
37	35.7838	357922
37	34.6405	358478
37	33.7476	359804
37	35.3714	361778
37	36.9227	364166
37	37.2002	366635
37	37.7409	369221
37	37.2087	371887
37	34.7386	374644
37	34.4482	377411
37	36.6756	380081
37	39.0484	382874
37	38.2656	385513
37	37.4419	388216
37	38.2196	390860
37	37.0343	393507
37	37.6964	396295
37	39.3201	398885
37	37.4726	401713
37	37.8603	404275
37	38.2689	406777
37	38.8823	405196
37	39.6427	400840
37	38.716	394255
37	37.4621	386039
37	37.8866	375430
37	37.1684	359933
37	36.8049	341114
37	36.0753	319918
37	34.4158	296294
37	32.9601	270494
37	31.2604	243278
37	30.9984	220417
37	29.0681	199127
37	25.676	178746
37	22.6135	158541
37	21.6936	140109
37	20.3906	125900
37	19.328	114489
37	17.6438	104696
37	15.5297	96028
37	14.7759	88295
37	13.5217	80784
37	12.58	73614
37	13.6149	66695
37	12.5546	59941
37	7.82854	53474
37	7.17115	47199
37	7.49752	41057
37	7.24867	35071
37	6.49433	29323
37	6.66909	23781
37	6.0076	18809
37	3.9779	14365
37	3.1838	10539
37	2.72462	7321
37	2.42482	4663
37	1.89832	2668
37	1.54085	1247
37	0.87023	401
37	0.421896	50
37	0.551282	38
37	0.0749465	34
		
		
		
		
		
		
		
		
		
		
		
		
		
		
		
		
		
		
		
	MTPS_FRAME	CELLS
36	11.4049	86694
36	12.6177	104856
36	14.229	124415
36	16.8347	145443
36	21.7383	167994
36	24.4508	191968
36	26.79	217656
36	28.0793	241286
36	29.7284	259151
36	30.5121	279994
36	31.1762	301062
36	31.6365	321609
36	32.679	341858
36	35.769	360398
36	39.406	376380
36	39.5166	390516
36	38.2088	403217
36	38.0009	414456
36	38.6791	421753
36	38.7649	425847
36	40.9306	427571
36	39.9035	426998
36	41.9083	424205
36	39.9089	419477
36	38.8173	412595
36	38.4853	403793
36	37.2124	395152
36	37.9146	387456
36	37.5361	379950
36	38.4721	372543
36	39.0087	365863
36	37.8596	361846
36	36.6564	359446
36	36.2174	358266
36	36.8393	357922
36	35.3478	358478
36	36.0255	359804
36	37.3431	361778
36	39.2528	364166
36	38.6416	366635
36	38.9609	369221
36	38.5601	371887
36	36.8619	374644
36	36.2095	377411
36	36.0849	380081
36	37.8648	382874
36	37.1311	385513
36	36.366	388216
36	37.7384	390860
36	37.2097	393507
36	36.8416	396295
36	37.0169	398885
36	34.8426	401713
36	36.248	404275
36	38.743	406777
36	39.1409	405196
36	39.4202	400840
36	38.3523	394255
36	37.0942	386039
36	37.785	375430
36	37.5296	359933
36	36.9523	341114
36	36.4408	319918
36	34.8446	296294
36	32.8605	270494
36	31.6541	243278
36	31.0442	220417
36	29.2676	199127
36	25.6817	178746
36	22.823	158541
36	21.6434	140109
36	20.4745	125900
36	20.1484	114489
36	19.0102	104696
36	17.0142	96028
36	15.1851	88295
36	13.4724	80784
36	13.3878	73614
36	14.8006	66695
36	13.0693	59941
36	9.82339	53474
36	9.53404	47199
36	9.06051	41057
36	7.62746	35071
36	6.47888	29323
36	6.68596	23781
36	6.10086	18809
36	4.08402	14365
36	3.48782	10539
36	3.11393	7321
36	2.74988	4663
36	2.25734	2668
36	1.63274	1247
36	1.00785	401
36	0.527714	50
36	0.113257	38
36	0.104167	34
		
		
		
		
		
		
		
		
		
		
		
		
		
		
		
		
		
		
		
	MTPS_FRAME	CELLS
35	12.0441	86694
35	13.5719	104856
35	15.0072	124415
35	17.8583	145443
35	23.9965	167994
35	25.6475	191968
35	27.142	217656
35	27.4744	241286
35	29.2528	259151
35	31.0241	279994
35	31.9989	301062
35	32.9108	321609
35	35.3261	341858
35	35.765	360398
35	39.9774	376380
35	39.1892	390516
35	38.9034	403217
35	38.5416	414456
35	37.7335	421753
35	38.089	425847
35	40.2893	427571
35	40.057	426998
35	41.2582	424205
35	40.7875	419477
35	39.283	412595
35	38.3278	403793
35	38.3216	395152
35	38.3358	387456
35	37.9018	379950
35	38.4709	372543
35	38.4319	365863
35	37.7529	361846
35	37.0534	359446
35	37.0606	358266
35	37.9193	357922
35	36.4324	358478
35	35.8128	359804
35	37.426	361778
35	38.8041	364166
35	38.8445	366635
35	38.7304	369221
35	38.3706	371887
35	36.5388	374644
35	36.4219	377411
35	38.1379	380081
35	39.6457	382874
35	38.4163	385513
35	37.8723	388216
35	37.8522	390860
35	37.5769	393507
35	38.1355	396295
35	39.5448	398885
35	38.1423	401713
35	37.8438	404275
35	39.611	406777
35	39.5803	405196
35	40.3337	400840
35	38.6924	394255
35	37.565	386039
35	37.2164	375430
35	37.2154	359933
35	36.6056	341114
35	35.7958	319918
35	34.0622	296294
35	32.9323	270494
35	31.9568	243278
35	30.774	220417
35	29.1495	199127
35	25.8372	178746
35	23.0018	158541
35	21.36	140109
35	20.0767	125900
35	17.209	114489
35	17.5772	104696
35	16.2868	96028
35	15.0579	88295
35	13.5437	80784
35	12.7151	73614
35	14.0295	66695
35	12.3557	59941
35	7.83505	53474
35	7.0053	47199
35	6.88441	41057
35	7.4205	35071
35	6.62914	29323
35	6.5017	23781
35	6.18396	18809
35	4.01035	14365
35	3.33435	10539
35	3.06372	7321
35	2.89079	4663
35	2.42268	2668
35	1.7274	1247
35	1.11296	401
35	0.534139	50
35	0.141914	38
35	0.113452	34
		
		
		
		
		
		
		
		
		
		
		
		
		
		
		
		
		
		
		
	MTPS_FRAME	CELLS
34	12.2998	86694
34	14.2196	104856
34	16.1639	124415
34	18.2918	145443
34	24.4479	167994
34	26.3183	191968
34	27.578	217656
34	27.9945	241286
34	29.163	259151
34	31.5189	279994
34	32.0431	301062
34	32.011	321609
34	34.2686	341858
34	35.0357	360398
34	38.1668	376380
34	37.9641	390516
34	37.3689	403217
34	37.403	414456
34	37.9745	421753
34	37.78	425847
34	40.3737	427571
34	40.6252	426998
34	41.0169	424205
34	40.8894	419477
34	39.9131	412595
34	38.6958	403793
34	38.8596	395152
34	38.048	387456
34	37.622	379950
34	38.1775	372543
34	38.2435	365863
34	37.012	361846
34	37.2279	359446
34	37.1919	358266
34	37.0819	357922
34	35.9859	358478
34	35.3772	359804
34	36.7565	361778
34	38.5548	364166
34	38.6855	366635
34	38.9864	369221
34	37.5115	371887
34	35.3244	374644
34	35.4395	377411
34	37.0828	380081
34	39.4774	382874
34	38.751	385513
34	38.3971	388216
34	38.6787	390860
34	37.5057	393507
34	37.529	396295
34	39.3816	398885
34	37.9849	401713
34	38.1945	404275
34	38.9903	406777
34	39.2346	405196
34	39.4805	400840
34	38.3495	394255
34	37.6458	386039
34	37.793	375430
34	36.4904	359933
34	36.751	341114
34	36.0557	319918
34	34.3634	296294
34	32.9041	270494
34	31.6063	243278
34	31.0036	220417
34	28.6868	199127
34	26.0074	178746
34	23.413	158541
34	21.9887	140109
34	21.2281	125900
34	19.913	114489
34	18.9304	104696
34	16.6356	96028
34	15.7707	88295
34	13.9661	80784
34	13.4102	73614
34	15.023	66695
34	13.2173	59941
34	10.0039	53474
34	9.25544	47199
34	8.73658	41057
34	7.49973	35071
34	6.41546	29323
34	5.71536	23781
34	5.04471	18809
34	3.74108	14365
34	3.28382	10539
34	2.78996	7321
34	2.66452	4663
34	2.41627	2668
34	1.5	1247
34	1.005	401
34	0.522677	50
34	0.15995	38
34	0.3125	34
		
		
		
		
		
		
		
		
		
		
		
		
		
		
		
		
		
		
		
	MTPS_FRAME	CELLS
33	12.9199	86694
33	13.9857	104856
33	15.9675	124415
33	18.1433	145443
33	24.7135	167994
33	25.9462	191968
33	26.8181	217656
33	27.4725	241286
33	29.9938	259151
33	30.7441	279994
33	30.9748	301062
33	31.4725	321609
33	33.2393	341858
33	35.4786	360398
33	38.1403	376380
33	37.908	390516
33	37.5472	403217
33	36.7395	414456
33	35.5094	421753
33	35.1828	425847
33	36.8588	427571
33	38.9873	426998
33	38.4113	424205
33	39.1188	419477
33	38.3264	412595
33	37.274	403793
33	37.7008	395152
33	37.7573	387456
33	37.0671	379950
33	35.3969	372543
33	35.1863	365863
33	36.0847	361846
33	36.4571	359446
33	35.7959	358266
33	35.8636	357922
33	34.7474	358478
33	34.5984	359804
33	35.348	361778
33	37.0679	364166
33	37.8179	366635
33	37.92	369221
33	37.3322	371887
33	35.7038	374644
33	34.5463	377411
33	35.9312	380081
33	37.7141	382874
33	37.2126	385513
33	37.227	388216
33	37.4078	390860
33	36.4353	393507
33	37.4724	396295
33	38.2776	398885
33	37.2065	401713
33	37.2197	404275
33	37.9118	406777
33	38.4285	405196
33	39.1799	400840
33	38.1022	394255
33	37.0676	386039
33	34.6118	375430
33	34.7427	359933
33	35.6965	341114
33	34.6658	319918
33	33.7819	296294
33	32.3707	270494
33	30.9608	243278
33	30.6649	220417
33	29.6242	199127
33	26.4407	178746
33	23.4682	158541
33	22.3518	140109
33	21.8816	125900
33	20.2486	114489
33	18.2791	104696
33	15.8577	96028
33	14.4411	88295
33	13.103	80784
33	13.0115	73614
33	14.529	66695
33	13.0227	59941
33	9.96811	53474
33	9.68948	47199
33	8.96882	41057
33	7.35528	35071
33	6.41592	29323
33	6.72106	23781
33	5.97944	18809
33	3.86809	14365
33	3.22464	10539
33	2.88553	7321
33	2.74856	4663
33	2.18857	2668
33	1.68656	1247
33	0.947742	401
33	0.467593	50
33	0.135149	38
33	0.11236	34
		
		
		
		
		
		
		
		
		
		
		
		
		
		
		
		
		
		
		
	MTPS_FRAME	CELLS
32	13.166	86694
32	14.3548	104856
32	16.263	124415
32	18.276	145443
32	24.133	167994
32	25.6138	191968
32	27.1369	217656
32	27.4531	241286
32	29.6294	259151
32	30.7816	279994
32	31.8506	301062
32	32.7689	321609
32	34.6235	341858
32	35.6315	360398
32	38.0634	376380
32	38.3149	390516
32	38.1458	403217
32	38.1774	414456
32	38.4702	421753
32	38.7853	425847
32	41.1134	427571
32	40.8267	426998
32	41.5005	424205
32	41.0737	419477
32	40.3134	412595
32	39.4386	403793
32	39.5515	395152
32	39.4838	387456
32	38.3125	379950
32	39.6946	372543
32	39.4084	365863
32	37.9872	361846
32	36.8787	359446
32	37.2871	358266
32	37.8672	357922
32	36.5681	358478
32	35.708	359804
32	37.3838	361778
32	39.1085	364166
32	39.0533	366635
32	39.5666	369221
32	38.936	371887
32	36.7534	374644
32	35.7975	377411
32	37.3698	380081
32	40.3257	382874
32	39.4609	385513
32	38.5445	388216
32	38.5953	390860
32	38.1568	393507
32	38.9989	396295
32	40.168	398885
32	38.6283	401713
32	38.545	404275
32	39.6112	406777
32	39.939	405196
32	40.7252	400840
32	39.3705	394255
32	38.0313	386039
32	38.2928	375430
32	37.1869	359933
32	37.1447	341114
32	36.2347	319918
32	34.7668	296294
32	33.1969	270494
32	31.847	243278
32	31.0535	220417
32	29.7073	199127
32	26.6269	178746
32	23.9488	158541
32	22.7513	140109
32	21.9113	125900
32	20.5044	114489
32	19.6502	104696
32	16.9027	96028
32	15.3298	88295
32	13.8643	80784
32	11.5595	73614
32	12.547	66695
32	12.1768	59941
32	9.95443	53474
32	9.70376	47199
32	8.86589	41057
32	7.68598	35071
32	6.50656	29323
32	7.06482	23781
32	6.3452	18809
32	4.14258	14365
32	3.2794	10539
32	2.94452	7321
32	2.8167	4663
32	2.36354	2668
32	1.57002	1247
32	1.1362	401
32	0.525448	50
32	0.165067	38
32	0.588235	34
		
		
		
		
		
		
		
		
		
		
		
		
		
		
		
		
		
		
		
	MTPS_FRAME	CELLS
31	13.022	86694
31	14.1595	104856
31	15.5353	124415
31	18.0322	145443
31	22.8683	167994
31	24.6167	191968
31	27.0098	217656
31	27.6143	241286
31	30.056	259151
31	31.272	279994
31	31.5129	301062
31	31.7938	321609
31	33.6843	341858
31	35.2693	360398
31	38.4252	376380
31	38.3195	390516
31	37.5208	403217
31	36.9902	414456
31	36.6714	421753
31	36.0446	425847
31	38.6984	427571
31	38.6321	426998
31	39.5273	424205
31	39.3917	419477
31	38.4406	412595
31	38.2966	403793
31	38.6863	395152
31	37.7323	387456
31	34.3843	379950
31	36.6414	372543
31	38.5782	365863
31	37.6356	361846
31	37.3662	359446
31	37.2318	358266
31	37.5428	357922
31	36.7256	358478
31	35.0661	359804
31	36.4417	361778
31	37.4833	364166
31	37.5918	366635
31	38.2495	369221
31	38.0834	371887
31	36.435	374644
31	35.7014	377411
31	37.4121	380081
31	38.8685	382874
31	38.0211	385513
31	36.1555	388216
31	35.9337	390860
31	34.4913	393507
31	36.9911	396295
31	37.9954	398885
31	36.7343	401713
31	37.0733	404275
31	38.7533	406777
31	38.9353	405196
31	39.4002	400840
31	37.8548	394255
31	37.6422	386039
31	35.8184	375430
31	35.5145	359933
31	36.2626	341114
31	34.5129	319918
31	33.9503	296294
31	32.7923	270494
31	31.2851	243278
31	30.9023	220417
31	29.2771	199127
31	26.6366	178746
31	24.2052	158541
31	23.0031	140109
31	22.6151	125900
31	20.7994	114489
31	20.1611	104696
31	17.2487	96028
31	15.5304	88295
31	14.1234	80784
31	12.5889	73614
31	13.3585	66695
31	12.9297	59941
31	10.2404	53474
31	9.95137	47199
31	9.37277	41057
31	7.92015	35071
31	6.8808	29323
31	7.1586	23781
31	6.58516	18809
31	4.0164	14365
31	3.20253	10539
31	2.98559	7321
31	2.70534	4663
31	2.30843	2668
31	1.70099	1247
31	1.21256	401
31	0.601765	50
31	0.261663	38
31	0.108865	34
		
		
		
		
		
		
		
		
		
		
		
		
		
		
		
		
		
		
		
	MTPS_FRAME	CELLS
30	10.4759	86694
30	13.9575	104856
30	16.3736	124415
30	18.817	145443
30	25.2745	167994
30	23.5674	191968
30	23.8586	217656
30	25.9098	241286
30	28.1554	259151
30	29.096	279994
30	29.8912	301062
30	30.5248	321609
30	31.9033	341858
30	33.3704	360398
30	38.1566	376380
30	37.8914	390516
30	37.4394	403217
30	37.4355	414456
30	36.8493	421753
30	36.592	425847
30	39.611	427571
30	39.8976	426998
30	40.2874	424205
30	39.8481	419477
30	39.1001	412595
30	38.3731	403793
30	38.1261	395152
30	38.2923	387456
30	37.6451	379950
30	36.7922	372543
30	37.7307	365863
30	36.6914	361846
30	35.5419	359446
30	36.9829	358266
30	37.6299	357922
30	37.191	358478
30	35.8163	359804
30	36.8323	361778
30	37.9278	364166
30	38.6587	366635
30	38.7265	369221
30	37.8002	371887
30	36.7445	374644
30	35.6349	377411
30	36.1776	380081
30	38.4612	382874
30	38.2186	385513
30	37.7814	388216
30	37.9025	390860
30	37.776	393507
30	38.5802	396295
30	39.8845	398885
30	38.3969	401713
30	38.4579	404275
30	39.12	406777
30	39.293	405196
30	39.4197	400840
30	38.3985	394255
30	37.3664	386039
30	36.8048	375430
30	36.7817	359933
30	36.0845	341114
30	35.7815	319918
30	34.6259	296294
30	33.5884	270494
30	32.1208	243278
30	31.4473	220417
30	28.7825	199127
30	25.9401	178746
30	22.9787	158541
30	22.1953	140109
30	21.3288	125900
30	21.0147	114489
30	18.9876	104696
30	16.3564	96028
30	15.7572	88295
30	14.1806	80784
30	13.2075	73614
30	14.872	66695
30	13.5776	59941
30	10.4387	53474
30	9.69291	47199
30	9.34827	41057
30	7.71124	35071
30	6.69853	29323
30	6.93877	23781
30	6.60334	18809
30	4.19214	14365
30	3.31538	10539
30	3.01509	7321
30	2.749	4663
30	2.28334	2668
30	1.58181	1247
30	1.06035	401
30	0.556964	50
30	0.145189	38
30	0.245614	34
		
		
		
		
		
		
		
		
		
		
		
		
		
		
		
		
		
		
		
	MTPS_FRAME	CELLS
29	13.4143	86694
29	14.4193	104856
29	16.481	124415
29	18.6222	145443
29	22.4453	167994
29	23.6755	191968
29	24.0589	217656
29	24.8878	241286
29	26.9041	259151
29	30.4476	279994
29	30.9788	301062
29	31.4792	321609
29	33.2317	341858
29	34.0592	360398
29	36.7574	376380
29	37.2935	390516
29	36.8101	403217
29	36.0133	414456
29	35.9134	421753
29	36.0186	425847
29	37.8739	427571
29	37.1777	426998
29	38.4288	424205
29	38.0889	419477
29	37.0122	412595
29	36.5362	403793
29	36.8037	395152
29	37.1429	387456
29	36.3627	379950
29	36.8829	372543
29	36.8936	365863
29	36.065	361846
29	35.0269	359446
29	33.7054	358266
29	32.7345	357922
29	30.6128	358478
29	29.8703	359804
29	34.9605	361778
29	36.4155	364166
29	36.8407	366635
29	36.9571	369221
29	35.5507	371887
29	32.3481	374644
29	33.0392	377411
29	33.9748	380081
29	35.2512	382874
29	35.7768	385513
29	36.4143	388216
29	36.3883	390860
29	35.5704	393507
29	35.0921	396295
29	36.455	398885
29	35.7061	401713
29	35.768	404275
29	36.3472	406777
29	35.0564	405196
29	37.3384	400840
29	36.2436	394255
29	35.6494	386039
29	35.8366	375430
29	35.1899	359933
29	34.852	341114
29	34.9774	319918
29	34.2524	296294
29	33.2355	270494
29	32.3354	243278
29	31.2942	220417
29	29.5763	199127
29	25.8768	178746
29	23.4087	158541
29	21.8314	140109
29	21.6057	125900
29	20.3126	114489
29	19.5772	104696
29	16.472	96028
29	15.3267	88295
29	13.7765	80784
29	13.6362	73614
29	14.6409	66695
29	13.3293	59941
29	10.2851	53474
29	9.31347	47199
29	9.05909	41057
29	7.76756	35071
29	6.93294	29323
29	7.29503	23781
29	6.61586	18809
29	4.08164	14365
29	3.15566	10539
29	2.9557	7321
29	2.74835	4663
29	2.49248	2668
29	1.78917	1247
29	1.12542	401
29	0.630893	50
29	0.211823	38
29	0.159453	34
		
		
		
		
		
		
		
		
		
		
		
		
		
		
		
		
		
		
		
	MTPS_FRAME	CELLS
28	12.5267	86694
28	13.8659	104856
28	15.2686	124415
28	17.9573	145443
28	22.6167	167994
28	23.1628	191968
28	24.6356	217656
28	25.0902	241286
28	27.1303	259151
28	28.3422	279994
28	29.0965	301062
28	29.4462	321609
28	31.4466	341858
28	32.2011	360398
28	35.6138	376380
28	34.5858	390516
28	34.0272	403217
28	34.2173	414456
28	34.3606	421753
28	34.1323	425847
28	35.6964	427571
28	36.1127	426998
28	36.9206	424205
28	36.1847	419477
28	34.9405	412595
28	34.2302	403793
28	34.1629	395152
28	33.974	387456
28	33.5433	379950
28	34.0158	372543
28	33.9323	365863
28	33.874	361846
28	32.7148	359446
28	32.9559	358266
28	33.5501	357922
28	32.6031	358478
28	31.8716	359804
28	33.1164	361778
28	34.2382	364166
28	34.5133	366635
28	34.6847	369221
28	33.986	371887
28	32.8453	374644
28	32.6387	377411
28	33.4123	380081
28	35.5163	382874
28	34.7165	385513
28	33.9549	388216
28	34.2531	390860
28	33.8991	393507
28	33.7615	396295
28	34.9206	398885
28	33.8734	401713
28	33.5944	404275
28	34.5601	406777
28	34.7693	405196
28	35.288	400840
28	34.535	394255
28	34.0899	386039
28	34.0116	375430
28	33.3503	359933
28	33.0216	341114
28	32.3074	319918
28	31.2364	296294
28	29.8801	270494
28	28.9459	243278
28	27.8697	220417
28	25.9936	199127
28	23.0903	178746
28	21.4304	158541
28	20.5808	140109
28	20.2786	125900
28	19.3972	114489
28	18.5974	104696
28	16.2029	96028
28	14.9935	88295
28	13.0485	80784
28	11.7075	73614
28	11.2973	66695
28	10.8066	59941
28	9.37222	53474
28	9.15028	47199
28	8.6021	41057
28	7.34267	35071
28	6.46289	29323
28	5.5077	23781
28	4.80693	18809
28	3.89203	14365
28	3.27381	10539
28	2.94127	7321
28	2.85725	4663
28	2.31177	2668
28	1.75311	1247
28	1.20894	401
28	0.485289	50
28	0.192394	38
28	0.111821	34
		
		
		
		
		
		
		
		
		
		
		
		
		
		
		
		
		
		
		
	MTPS_FRAME	CELLS
27	12.6488	86694
27	14.1671	104856
27	15.6026	124415
27	17.4469	145443
27	20.2245	167994
27	21.8139	191968
27	22.9807	217656
27	24.1984	241286
27	25.9363	259151
27	27.5537	279994
27	28.0367	301062
27	29.1628	321609
27	30.6063	341858
27	31.1003	360398
27	34.0763	376380
27	33.8231	390516
27	33.4633	403217
27	32.9595	414456
27	33.0736	421753
27	32.6559	425847
27	34.1602	427571
27	34.3084	426998
27	34.6404	424205
27	33.7373	419477
27	33.1228	412595
27	32.8289	403793
27	32.9573	395152
27	32.929	387456
27	32.8594	379950
27	32.9237	372543
27	33.242	365863
27	32.7781	361846
27	32.138	359446
27	32.1701	358266
27	32.1982	357922
27	31.5536	358478
27	31.6459	359804
27	33.0874	361778
27	34.6143	364166
27	34.8885	366635
27	35.6329	369221
27	33.6985	371887
27	32.3463	374644
27	31.9598	377411
27	32.8178	380081
27	33.9519	382874
27	33.3325	385513
27	32.2321	388216
27	32.8538	390860
27	32.7838	393507
27	32.7664	396295
27	33.6304	398885
27	32.7311	401713
27	32.7712	404275
27	33.5652	406777
27	33.7698	405196
27	33.9972	400840
27	33.4164	394255
27	33.0559	386039
27	33.118	375430
27	32.5687	359933
27	32.1212	341114
27	31.7085	319918
27	30.435	296294
27	29.7131	270494
27	27.9072	243278
27	27.5651	220417
27	26.3702	199127
27	23.4626	178746
27	21.4485	158541
27	20.6047	140109
27	20.4493	125900
27	19.1516	114489
27	18.653	104696
27	15.7926	96028
27	14.7302	88295
27	13.1785	80784
27	12.5164	73614
27	13.8694	66695
27	13.0719	59941
27	9.66309	53474
27	9.1469	47199
27	8.67512	41057
27	7.4403	35071
27	6.66954	29323
27	6.81131	23781
27	6.3979	18809
27	3.96225	14365
27	3.02802	10539
27	2.86215	7321
27	2.51418	4663
27	2.08425	2668
27	1.65807	1247
27	1.03371	401
27	0.672177	50
27	0.145598	38
27	0.140281	34
		
		
		
		
		
		
		
		
		
		
		
		
		
		
		
		
		
		
		
	MTPS_FRAME	CELLS
26	12.5988	86694
26	14.3629	104856
26	15.852	124415
26	17.2507	145443
26	18.2082	167994
26	19.2939	191968
26	22.6567	217656
26	25.0727	241286
26	25.6242	259151
26	26.678	279994
26	27.1087	301062
26	27.5503	321609
26	28.9671	341858
26	30.1743	360398
26	33.6942	376380
26	33.4706	390516
26	33.1648	403217
26	33.2614	414456
26	33.27	421753
26	33.1328	425847
26	34.7107	427571
26	34.5615	426998
26	35.1829	424205
26	35.1591	419477
26	34.3745	412595
26	33.5692	403793
26	33.2427	395152
26	33.4474	387456
26	32.8444	379950
26	33.1116	372543
26	33.2325	365863
26	32.0113	361846
26	31.1815	359446
26	31.7316	358266
26	32.7731	357922
26	31.5783	358478
26	30.67	359804
26	32.1033	361778
26	32.2428	364166
26	31.6758	366635
26	33.6637	369221
26	32.9121	371887
26	31.3794	374644
26	30.2904	377411
26	31.02	380081
26	33.0071	382874
26	32.6101	385513
26	32.5066	388216
26	32.8464	390860
26	32.424	393507
26	32.8381	396295
26	33.7711	398885
26	32.4681	401713
26	32.1849	404275
26	33.1924	406777
26	33.3371	405196
26	33.8101	400840
26	33.4369	394255
26	33.1953	386039
26	32.8181	375430
26	32.0869	359933
26	32.0127	341114
26	31.6855	319918
26	30.211	296294
26	29.1043	270494
26	27.9046	243278
26	27.5799	220417
26	25.8202	199127
26	23.1411	178746
26	21.2785	158541
26	20.3733	140109
26	18.6979	125900
26	16.7098	114489
26	15.0811	104696
26	13.8248	96028
26	14.3592	88295
26	13.8501	80784
26	13.0198	73614
26	14.3622	66695
26	12.7767	59941
26	9.65357	53474
26	9.32045	47199
26	8.91075	41057
26	7.87379	35071
26	6.79038	29323
26	7.12071	23781
26	6.11195	18809
26	3.90985	14365
26	3.10892	10539
26	2.95949	7321
26	2.588	4663
26	2.15157	2668
26	1.88849	1247
26	1.26432	401
26	0.560137	50
26	0.3	38
26	0.180412	34
		
		
		
		
		
		
		
		
		
		
		
		
		
		
		
		
		
		
		
	MTPS_FRAME	CELLS
25	12.7483	86694
25	14.6976	104856
25	15.9225	124415
25	17.971	145443
25	22.898	167994
25	24.1341	191968
25	26.2343	217656
25	27.0841	241286
25	28.5451	259151
25	29.7247	279994
25	30.157	301062
25	29.72	321609
25	30.5637	341858
25	31.1104	360398
25	33.1221	376380
25	33.0297	390516
25	32.7937	403217
25	32.553	414456
25	32.1983	421753
25	32.6362	425847
25	33.7881	427571
25	33.6708	426998
25	33.8938	424205
25	33.3591	419477
25	32.7602	412595
25	32.068	403793
25	31.8969	395152
25	31.8612	387456
25	32.2396	379950
25	32.0404	372543
25	32.1052	365863
25	31.4906	361846
25	31.4591	359446
25	31.265	358266
25	30.8428	357922
25	29.6332	358478
25	29.7582	359804
25	31.1434	361778
25	32.2421	364166
25	32.4171	366635
25	32.9916	369221
25	32.4437	371887
25	30.9269	374644
25	30.9292	377411
25	31.8597	380081
25	33.1034	382874
25	32.8472	385513
25	32.1169	388216
25	32.3946	390860
25	31.0368	393507
25	31.4504	396295
25	32.583	398885
25	31.9383	401713
25	31.8512	404275
25	32.368	406777
25	32.8697	405196
25	32.3696	400840
25	32.1961	394255
25	32.1713	386039
25	32.1093	375430
25	31.6175	359933
25	31.602	341114
25	31.3702	319918
25	30.2508	296294
25	29.2299	270494
25	28.4729	243278
25	27.5842	220417
25	26.4306	199127
25	23.8294	178746
25	21.9391	158541
25	21.325	140109
25	21.1783	125900
25	19.7525	114489
25	17.6231	104696
25	16.5565	96028
25	15.2682	88295
25	13.6978	80784
25	12.8828	73614
25	14.0873	66695
25	13.0107	59941
25	9.88329	53474
25	9.7633	47199
25	9.21607	41057
25	7.78703	35071
25	6.65977	29323
25	7.10532	23781
25	6.67081	18809
25	4.1912	14365
25	3.31639	10539
25	2.9082	7321
25	2.73779	4663
25	2.25385	2668
25	1.67108	1247
25	1.05332	401
25	0.54027	50
25	0.458259	38
25	0.075431	34
		
		
		
		
		
		
		
		
		
		
		
		
		
		
		
		
		
		
		
	MTPS_FRAME	CELLS
24	13.5237	86694
24	14.2927	104856
24	15.8715	124415
24	18.1193	145443
24	22.5621	167994
24	24.154	191968
24	25.0352	217656
24	25.4637	241286
24	26.9565	259151
24	27.6814	279994
24	28.7662	301062
24	29.2599	321609
24	30.6438	341858
24	30.887	360398
24	32.0139	376380
24	32.6933	390516
24	32.5239	403217
24	32.6532	414456
24	32.1299	421753
24	32.1724	425847
24	33.7088	427571
24	33.3957	426998
24	34.0344	424205
24	33.8486	419477
24	33.1421	412595
24	32.4853	403793
24	32.1659	395152
24	32.3705	387456
24	32.4677	379950
24	32.6237	372543
24	32.7275	365863
24	32.1961	361846
24	31.7238	359446
24	31.6487	358266
24	32.1394	357922
24	31.2907	358478
24	30.7069	359804
24	31.7281	361778
24	32.459	364166
24	32.5272	366635
24	32.6419	369221
24	32.2683	371887
24	31.0729	374644
24	30.5831	377411
24	31.1095	380081
24	32.7432	382874
24	32.462	385513
24	31.9251	388216
24	32.1536	390860
24	31.8943	393507
24	32.0825	396295
24	32.5982	398885
24	31.6003	401713
24	31.756	404275
24	32.3197	406777
24	32.4898	405196
24	33.0277	400840
24	32.3297	394255
24	32.3789	386039
24	32.1901	375430
24	31.367	359933
24	31.4722	341114
24	31.0173	319918
24	30.4869	296294
24	29.1532	270494
24	28.3717	243278
24	27.2165	220417
24	26.1714	199127
24	23.4253	178746
24	21.6546	158541
24	20.6745	140109
24	20.9897	125900
24	20.2223	114489
24	20.1123	104696
24	16.8663	96028
24	15.2484	88295
24	13.5024	80784
24	12.8705	73614
24	13.9813	66695
24	13.1388	59941
24	8.63694	53474
24	7.69929	47199
24	7.70466	41057
24	7.75201	35071
24	6.65509	29323
24	6.89159	23781
24	6.69643	18809
24	4.13269	14365
24	3.42674	10539
24	3.00642	7321
24	2.72002	4663
24	2.39398	2668
24	1.78804	1247
24	1.21729	401
24	0.598909	50
24	0.0751967	38
24	0.630631	34
		
		
		
		
		
		
		
		
		
		
		
		
		
		
		
		
		
		
		
	MTPS_FRAME	CELLS
23	12.9565	86694
23	14.4131	104856
23	15.8879	124415
23	18.2471	145443
23	22.3278	167994
23	23.5436	191968
23	24.6682	217656
23	25.0545	241286
23	26.1451	259151
23	27.3812	279994
23	27.7406	301062
23	28.2011	321609
23	29.9995	341858
23	30.9804	360398
23	32.7963	376380
23	32.8989	390516
23	32.5425	403217
23	32.106	414456
23	31.7035	421753
23	31.875	425847
23	33.1784	427571
23	33.0892	426998
23	33.6553	424205
23	32.9024	419477
23	32.3181	412595
23	32.0187	403793
23	31.8317	395152
23	31.6946	387456
23	31.6363	379950
23	31.6429	372543
23	31.8807	365863
23	31.4311	361846
23	30.9671	359446
23	30.978	358266
23	31.3606	357922
23	30.9269	358478
23	29.8105	359804
23	30.5624	361778
23	32.1266	364166
23	31.964	366635
23	31.8031	369221
23	31.2944	371887
23	30.1509	374644
23	29.8429	377411
23	30.7466	380081
23	31.7705	382874
23	31.6712	385513
23	31.1701	388216
23	30.9629	390860
23	30.8128	393507
23	30.8375	396295
23	31.6811	398885
23	30.866	401713
23	30.7775	404275
23	31.8919	406777
23	31.7407	405196
23	31.9133	400840
23	31.6213	394255
23	31.2249	386039
23	30.9968	375430
23	29.815	359933
23	29.9344	341114
23	29.5503	319918
23	29.9851	296294
23	28.7779	270494
23	27.4419	243278
23	26.9369	220417
23	25.8369	199127
23	23.0691	178746
23	21.3885	158541
23	20.5286	140109
23	19.8173	125900
23	19.969	114489
23	19.4792	104696
23	16.64	96028
23	15.5556	88295
23	13.9689	80784
23	13.6456	73614
23	15.134	66695
23	14.0775	59941
23	10.2519	53474
23	9.80764	47199
23	9.4536	41057
23	8.12623	35071
23	7.04089	29323
23	7.447	23781
23	7.03662	18809
23	4.22202	14365
23	3.59042	10539
23	3.23505	7321
23	3.00354	4663
23	2.78789	2668
23	2.09398	1247
23	1.46773	401
23	0.695793	50
23	1	38
23	0.853659	34
		
		
		
		
		
		
		
		
		
		
		
		
		
		
		
		
		
		
		
	MTPS_FRAME	CELLS
22	13.0557	86694
22	14.3211	104856
22	16.1233	124415
22	18.1907	145443
22	22.2042	167994
22	23.4775	191968
22	24.1138	217656
22	24.5233	241286
22	25.9656	259151
22	27.0144	279994
22	27.2858	301062
22	27.8219	321609
22	29.2836	341858
22	29.4959	360398
22	31.4886	376380
22	31.1399	390516
22	30.6446	403217
22	30.07	414456
22	30.1881	421753
22	30.3475	425847
22	31.1888	427571
22	31.1308	426998
22	32.1763	424205
22	31.8912	419477
22	31.175	412595
22	30.6107	403793
22	30.4293	395152
22	30.5724	387456
22	30.354	379950
22	29.9064	372543
22	30.5405	365863
22	29.8409	361846
22	29.551	359446
22	29.3916	358266
22	29.354	357922
22	28.8173	358478
22	28.1726	359804
22	28.8664	361778
22	30.5965	364166
22	30.6945	366635
22	30.7913	369221
22	30.18	371887
22	29.1103	374644
22	28.8901	377411
22	30.1039	380081
22	31.0691	382874
22	30.7391	385513
22	30.1028	388216
22	30.3831	390860
22	30.0561	393507
22	30.246	396295
22	30.7937	398885
22	30.1031	401713
22	29.9538	404275
22	30.6238	406777
22	30.8808	405196
22	31.6199	400840
22	32.4343	394255
22	32.4379	386039
22	32.4915	375430
22	32.2957	359933
22	30.7866	341114
22	30.1772	319918
22	29.5164	296294
22	28.6823	270494
22	27.3835	243278
22	26.5032	220417
22	25.1535	199127
22	22.9733	178746
22	21.3486	158541
22	20.2383	140109
22	19.9253	125900
22	19.6377	114489
22	19.3132	104696
22	16.7782	96028
22	15.2133	88295
22	13.227	80784
22	13.0326	73614
22	13.3217	66695
22	12.0161	59941
22	9.39234	53474
22	8.89803	47199
22	9.01442	41057
22	7.92611	35071
22	7.15398	29323
22	7.45491	23781
22	7.1846	18809
22	4.56617	14365
22	3.67112	10539
22	3.1847	7321
22	2.85672	4663
22	2.70888	2668
22	2.07918	1247
22	1.45166	401
22	0.642636	50
22	0.324937	38
22	0.673077	34
		
		
		
		
		
		
		
		
		
		
		
		
		
		
		
		
		
		
		
	MTPS_FRAME	CELLS
21	12.7565	86694
21	13.9324	104856
21	15.2098	124415
21	17.2689	145443
21	21.6834	167994
21	22.3793	191968
21	23.3481	217656
21	24.442	241286
21	25.3814	259151
21	26.8519	279994
21	27.6913	301062
21	27.8126	321609
21	28.8314	341858
21	29.668	360398
21	31.6517	376380
21	31.4493	390516
21	31.258	403217
21	31.0282	414456
21	30.4776	421753
21	30.448	425847
21	31.2347	427571
21	31.5301	426998
21	32.1673	424205
21	31.6912	419477
21	31.0983	412595
21	30.679	403793
21	30.589	395152
21	30.7852	387456
21	30.3314	379950
21	30.4574	372543
21	30.5956	365863
21	30.2333	361846
21	29.9383	359446
21	29.8492	358266
21	29.5161	357922
21	28.4955	358478
21	28.1702	359804
21	30.2536	361778
21	31.186	364166
21	31.3223	366635
21	31.4227	369221
21	30.9126	371887
21	29.5199	374644
21	29.52	377411
21	30.2926	380081
21	31.4786	382874
21	30.8864	385513
21	30.0325	388216
21	30.2623	390860
21	30.0981	393507
21	29.9621	396295
21	30.3299	398885
21	28.7325	401713
21	28.3747	404275
21	30.4327	406777
21	30.6742	405196
21	31.1217	400840
21	30.6002	394255
21	30.5349	386039
21	30.3834	375430
21	29.9103	359933
21	30.0615	341114
21	29.8528	319918
21	29.1394	296294
21	28.3163	270494
21	27.4534	243278
21	26.7939	220417
21	24.9455	199127
21	22.757	178746
21	21.3848	158541
21	20.2834	140109
21	20.0315	125900
21	19.7161	114489
21	19.9079	104696
21	16.727	96028
21	15.6089	88295
21	14.196	80784
21	12.8844	73614
21	12.7582	66695
21	12.8517	59941
21	10.4435	53474
21	10.1888	47199
21	10.3064	41057
21	8.51811	35071
21	7.39309	29323
21	7.9183	23781
21	7.51927	18809
21	4.75245	14365
21	3.72619	10539
21	3.36525	7321
21	3.17326	4663
21	2.8736	2668
21	2.59311	1247
21	1.6073	401
21	0.792656	50
21	0.148789	38
21	0.100719	34
		
		
		
		
		
		
		
		
		
		
		
		
		
		
		
		
		
		
		
	MTPS_FRAME	CELLS
20	13.7443	86694
20	14.7688	104856
20	16.1421	124415
20	17.7684	145443
20	22.1559	167994
20	23.2877	191968
20	23.8046	217656
20	24.4748	241286
20	25.7866	259151
20	26.494	279994
20	26.7755	301062
20	27.1506	321609
20	28.68	341858
20	28.9868	360398
20	30.8009	376380
20	30.298	390516
20	30.1387	403217
20	29.5962	414456
20	29.5757	421753
20	29.6391	425847
20	30.7944	427571
20	30.5559	426998
20	31.6381	424205
20	32.2755	419477
20	31.6851	412595
20	31.3729	403793
20	31.8318	395152
20	30.8701	387456
20	30.4064	379950
20	30.113	372543
20	30.0397	365863
20	29.11	361846
20	28.9149	359446
20	28.7891	358266
20	29.0072	357922
20	28.5879	358478
20	28.047	359804
20	28.8006	361778
20	29.8041	364166
20	30.0957	366635
20	30.0291	369221
20	29.4178	371887
20	28.5536	374644
20	28.2592	377411
20	28.9137	380081
20	30.0296	382874
20	29.8424	385513
20	29.2669	388216
20	29.3533	390860
20	29.2864	393507
20	29.4653	396295
20	29.5991	398885
20	28.979	401713
20	28.9264	404275
20	29.4192	406777
20	29.7089	405196
20	30.151	400840
20	29.8874	394255
20	29.6357	386039
20	29.8477	375430
20	29.4074	359933
20	29.7041	341114
20	29.5588	319918
20	29.0572	296294
20	28.0083	270494
20	27.1993	243278
20	26.7052	220417
20	25.4111	199127
20	22.8066	178746
20	21.1819	158541
20	19.4692	140109
20	19.4541	125900
20	19.6509	114489
20	19.5262	104696
20	16.9419	96028
20	15.5687	88295
20	14.1034	80784
20	13.8598	73614
20	15.6327	66695
20	14.7973	59941
20	10.5892	53474
20	10.452	47199
20	8.93495	41057
20	8.26731	35071
20	7.67649	29323
20	8.11868	23781
20	7.49486	18809
20	4.43668	14365
20	3.61524	10539
20	3.38115	7321
20	3.28604	4663
20	3.09098	2668
20	1.96959	1247
20	1.42804	401
20	0.850226	50
20	0.527607	38
20	0.360825	34
		
		
		
		
		
		
		
		
		
		
		
		
		
		
		
		
		
		
		
	MTPS_FRAME	CELLS
19	13.6772	86694
19	15.0257	104856
19	16.0492	124415
19	17.3421	145443
19	22.1357	167994
19	22.7256	191968
19	23.3645	217656
19	24.0611	241286
19	25.0215	259151
19	25.4749	279994
19	25.8359	301062
19	26.2505	321609
19	27.4331	341858
19	27.6337	360398
19	29.5217	376380
19	29.3484	390516
19	28.8798	403217
19	28.5926	414456
19	28.3807	421753
19	28.1488	425847
19	29.2487	427571
19	29.2513	426998
19	29.795	424205
19	29.3069	419477
19	28.7555	412595
19	28.4255	403793
19	28.2905	395152
19	28.4627	387456
19	28.677	379950
19	28.6715	372543
19	28.732	365863
19	28.0872	361846
19	27.653	359446
19	27.3644	358266
19	28.0524	357922
19	27.3274	358478
19	27.0632	359804
19	27.9784	361778
19	28.8619	364166
19	28.5475	366635
19	28.4738	369221
19	28.2495	371887
19	27.4011	374644
19	27.1529	377411
19	28.0652	380081
19	29.3674	382874
19	29.2821	385513
19	28.5492	388216
19	28.47	390860
19	28.0198	393507
19	27.8097	396295
19	29.079	398885
19	28.5413	401713
19	27.9801	404275
19	27.8052	406777
19	28.5563	405196
19	29.3432	400840
19	29.1092	394255
19	29.0478	386039
19	28.7539	375430
19	28.3869	359933
19	28.4772	341114
19	28.2666	319918
19	27.9108	296294
19	26.9495	270494
19	26.3365	243278
19	26.2905	220417
19	24.9723	199127
19	22.491	178746
19	20.9801	158541
19	19.9334	140109
19	19.4601	125900
19	18.8396	114489
19	19.0645	104696
19	16.3599	96028
19	15.2978	88295
19	14.0619	80784
19	13.9588	73614
19	15.5882	66695
19	14.3444	59941
19	10.4798	53474
19	10.231	47199
19	10.2166	41057
19	8.12692	35071
19	6.47446	29323
19	7.16187	23781
19	7.73608	18809
19	4.62992	14365
19	3.92615	10539
19	3.47594	7321
19	3.42428	4663
19	3.20611	2668
19	2.43729	1247
19	1.66425	401
19	1.04362	50
19	0.446367	38
19	0.140281	34
		
		
		
		
		
		
		
		
		
		
		
		
		
		
		
		
		
		
		
	MTPS_FRAME	CELLS
18	11.8916	86694
18	13.324	104856
18	14.7844	124415
18	17.7111	145443
18	22.0927	167994
18	22.4218	191968
18	23.3071	217656
18	23.7579	241286
18	25.1978	259151
18	25.7761	279994
18	25.6894	301062
18	25.8925	321609
18	27.1419	341858
18	27.4875	360398
18	29.0294	376380
18	28.7993	390516
18	28.5358	403217
18	28.0814	414456
18	28.0705	421753
18	27.8723	425847
18	28.7354	427571
18	29.1278	426998
18	29.0216	424205
18	28.289	419477
18	28.0579	412595
18	27.6663	403793
18	27.5964	395152
18	27.7993	387456
18	27.7046	379950
18	27.6094	372543
18	27.8836	365863
18	27.4099	361846
18	27.0052	359446
18	27.1175	358266
18	27.4685	357922
18	26.9291	358478
18	26.4509	359804
18	27.2692	361778
18	28.1027	364166
18	28.0998	366635
18	28.2403	369221
18	27.7169	371887
18	27.0099	374644
18	26.9405	377411
18	27.3591	380081
18	28.4022	382874
18	28.1508	385513
18	27.705	388216
18	27.9515	390860
18	27.7254	393507
18	27.7706	396295
18	28.1548	398885
18	27.2682	401713
18	27.4207	404275
18	27.4912	406777
18	27.6709	405196
18	28.0712	400840
18	27.7802	394255
18	27.7772	386039
18	27.7011	375430
18	27.6046	359933
18	27.7214	341114
18	27.5614	319918
18	27.0778	296294
18	26.5103	270494
18	25.7869	243278
18	25.5194	220417
18	24.4092	199127
18	22.4029	178746
18	20.8926	158541
18	19.9998	140109
18	19.7497	125900
18	19.3997	114489
18	19.1341	104696
18	16.4355	96028
18	15.4121	88295
18	13.8751	80784
18	13.9101	73614
18	16.0425	66695
18	13.4414	59941
18	10.0914	53474
18	10.0667	47199
18	10.0181	41057
18	8.45987	35071
18	7.51426	29323
18	7.97226	23781
18	7.58202	18809
18	4.59047	14365
18	3.74361	10539
18	3.41893	7321
18	3.21965	4663
18	3.04028	2668
18	2.40928	1247
18	1.72379	401
18	0.827714	50
18	0.240896	38
18	0.321101	34
		
		
		
		
		
		
		
		
		
		
		
		
		
		
		
		
		
		
		
	MTPS_FRAME	CELLS
17	13.3051	86694
17	14.8102	104856
17	15.9237	124415
17	17.3505	145443
17	21.4852	167994
17	22.0351	191968
17	23.3654	217656
17	23.5617	241286
17	24.7931	259151
17	25.2203	279994
17	25.2271	301062
17	25.3678	321609
17	26.4066	341858
17	26.748	360398
17	27.9102	376380
17	27.8454	390516
17	27.7925	403217
17	27.5217	414456
17	27.4227	421753
17	27.1764	425847
17	28.3888	427571
17	28.4672	426998
17	28.9932	424205
17	28.6117	419477
17	28.1797	412595
17	27.7745	403793
17	27.7906	395152
17	27.9255	387456
17	27.8898	379950
17	27.721	372543
17	27.7387	365863
17	27.409	361846
17	27.1073	359446
17	27.0888	358266
17	27.4799	357922
17	26.8626	358478
17	26.1442	359804
17	27.3034	361778
17	27.9028	364166
17	27.7808	366635
17	27.816	369221
17	27.4334	371887
17	26.6291	374644
17	26.476	377411
17	27.1368	380081
17	27.8859	382874
17	27.7217	385513
17	27.273	388216
17	27.7035	390860
17	27.5399	393507
17	27.2685	396295
17	28.3886	398885
17	28.8016	401713
17	28.7001	404275
17	29.4047	406777
17	28.9566	405196
17	28.3255	400840
17	28.1448	394255
17	27.9496	386039
17	27.7601	375430
17	27.5466	359933
17	27.921	341114
17	27.3334	319918
17	26.6951	296294
17	26.2102	270494
17	25.7163	243278
17	25.3859	220417
17	24.2746	199127
17	22.1949	178746
17	20.5717	158541
17	19.8085	140109
17	19.3059	125900
17	19.2752	114489
17	19.2778	104696
17	16.2891	96028
17	15.3806	88295
17	13.8777	80784
17	13.9056	73614
17	15.6258	66695
17	14.3511	59941
17	10.154	53474
17	9.95115	47199
17	10.0582	41057
17	8.55846	35071
17	7.27002	29323
17	7.84103	23781
17	7.47705	18809
17	4.59641	14365
17	3.66589	10539
17	3.45113	7321
17	3.2588	4663
17	3.00159	2668
17	2.45787	1247
17	1.80597	401
17	0.828864	50
17	0.155985	38
17	0.35533	34
		
		
		
		
		
		
		
		
		
		
		
		
		
		
		
		
		
		
		
	MTPS_FRAME	CELLS
16	14.716	86694
16	15.8516	104856
16	16.3518	124415
16	17.616	145443
16	21.6865	167994
16	22.4492	191968
16	23.04	217656
16	23.4124	241286
16	24.4974	259151
16	24.8448	279994
16	24.8855	301062
16	25.0313	321609
16	26.0153	341858
16	26.0538	360398
16	27.4577	376380
16	27.743	390516
16	27.4638	403217
16	27.2818	414456
16	27.0779	421753
16	27.1401	425847
16	27.7178	427571
16	27.8557	426998
16	28.0093	424205
16	27.7193	419477
16	27.4565	412595
16	27.1229	403793
16	27.0913	395152
16	27.0422	387456
16	26.999	379950
16	26.5739	372543
16	26.4186	365863
16	26.252	361846
16	25.8198	359446
16	26.1192	358266
16	26.6132	357922
16	26.1772	358478
16	25.8974	359804
16	26.5836	361778
16	27.5163	364166
16	27.485	366635
16	26.9803	369221
16	26.7365	371887
16	25.8339	374644
16	25.6729	377411
16	26.1926	380081
16	27.3049	382874
16	27.0349	385513
16	26.5604	388216
16	26.4684	390860
16	26.5838	393507
16	26.294	396295
16	26.6883	398885
16	26.2002	401713
16	26.1942	404275
16	26.7317	406777
16	26.7391	405196
16	26.9273	400840
16	26.8609	394255
16	27.1012	386039
16	26.9903	375430
16	26.8311	359933
16	27.4069	341114
16	27.0227	319918
16	26.0282	296294
16	25.4996	270494
16	25.0746	243278
16	24.9957	220417
16	24.0817	199127
16	22.0168	178746
16	20.4736	158541
16	19.6378	140109
16	19.2005	125900
16	18.4734	114489
16	18.9814	104696
16	15.8288	96028
16	15.1079	88295
16	14.0113	80784
16	13.9377	73614
16	15.4069	66695
16	14.2807	59941
16	10.3114	53474
16	10.1247	47199
16	10.0545	41057
16	8.52871	35071
16	7.51505	29323
16	8.07799	23781
16	8.02798	18809
16	4.70499	14365
16	3.78407	10539
16	3.46406	7321
16	3.27404	4663
16	2.99307	2668
16	2.60686	1247
16	1.6768	401
16	1.11011	50
16	0.291855	38
16	0.251799	34
		
		
		
		
		
		
		
		
		
		
		
		
		
		
		
		
		
		
		
	MTPS_FRAME	CELLS
15	13.6761	86694
15	15.2661	104856
15	15.9276	124415
15	17.2333	145443
15	21.1111	167994
15	22.0005	191968
15	22.5647	217656
15	22.4596	241286
15	23.6681	259151
15	24.9376	279994
15	25.3526	301062
15	25.1416	321609
15	26.2106	341858
15	25.5537	360398
15	26.1953	376380
15	26.0037	390516
15	25.5971	403217
15	25.5268	414456
15	25.473	421753
15	25.4278	425847
15	26.1969	427571
15	26.1851	426998
15	26.6105	424205
15	26.0573	419477
15	25.5399	412595
15	25.3692	403793
15	25.7696	395152
15	25.9209	387456
15	25.7915	379950
15	25.6642	372543
15	25.7438	365863
15	25.3081	361846
15	25.0708	359446
15	25.2242	358266
15	25.4755	357922
15	24.8395	358478
15	24.0762	359804
15	25.3069	361778
15	25.7446	364166
15	25.7177	366635
15	25.8926	369221
15	25.616	371887
15	25.0131	374644
15	24.9988	377411
15	25.4529	380081
15	26.1039	382874
15	25.475	385513
15	25.2067	388216
15	25.3856	390860
15	25.2483	393507
15	25.1816	396295
15	25.5002	398885
15	25.0195	401713
15	25.025	404275
15	25.5652	406777
15	25.7566	405196
15	26.217	400840
15	25.8577	394255
15	25.8351	386039
15	25.9803	375430
15	25.5715	359933
15	25.386	341114
15	25.1341	319918
15	24.712	296294
15	24.0077	270494
15	23.882	243278
15	24.4222	220417
15	23.2943	199127
15	21.5276	178746
15	20.1327	158541
15	19.2691	140109
15	19.0649	125900
15	18.8143	114489
15	18.652	104696
15	15.7905	96028
15	14.9842	88295
15	13.7869	80784
15	12.7565	73614
15	14.7273	66695
15	13.7782	59941
15	10.1047	53474
15	10.0118	47199
15	10.1878	41057
15	8.58568	35071
15	7.49975	29323
15	8.352	23781
15	7.87927	18809
15	4.69209	14365
15	3.97701	10539
15	3.58541	7321
15	3.41573	4663
15	3.08491	2668
15	2.87425	1247
15	2.04383	401
15	1.22018	50
15	0.523327	38
15	0.344828	34
		
		
		
		
		
		
		
		
		
		
		
		
		
		
		
		
		
		
		
	MTPS_FRAME	CELLS
14	12.8061	86694
14	14.7323	104856
14	15.9278	124415
14	17.478	145443
14	21.1657	167994
14	21.8938	191968
14	22.3712	217656
14	22.4379	241286
14	23.1393	259151
14	23.1687	279994
14	23.0941	301062
14	23.4713	321609
14	24.5492	341858
14	24.6727	360398
14	25.7211	376380
14	25.5047	390516
14	25.3001	403217
14	25.1308	414456
14	24.9264	421753
14	24.78	425847
14	25.4397	427571
14	25.6308	426998
14	26.0456	424205
14	25.8978	419477
14	25.4457	412595
14	24.8932	403793
14	24.8285	395152
14	25.149	387456
14	25.0255	379950
14	25.0664	372543
14	25.3041	365863
14	25.0926	361846
14	24.699	359446
14	24.763	358266
14	25.0517	357922
14	24.354	358478
14	24.0872	359804
14	24.9845	361778
14	25.6261	364166
14	25.5306	366635
14	25.397	369221
14	24.8404	371887
14	24.1773	374644
14	24.2659	377411
14	24.8296	380081
14	25.4838	382874
14	25.1215	385513
14	24.3924	388216
14	24.5642	390860
14	24.3748	393507
14	24.3416	396295
14	24.5197	398885
14	24.2524	401713
14	24.6998	404275
14	24.935	406777
14	25.1954	405196
14	25.4427	400840
14	25.3446	394255
14	25.3271	386039
14	25.1311	375430
14	24.8754	359933
14	25.0615	341114
14	25.1843	319918
14	24.8108	296294
14	25.2943	270494
14	25.347	243278
14	25.3384	220417
14	24.654	199127
14	23.6966	178746
14	21.4724	158541
14	20.128	140109
14	20.0092	125900
14	19.873	114489
14	19.2133	104696
14	16.4829	96028
14	15.5181	88295
14	14.2289	80784
14	13.5378	73614
14	14.9235	66695
14	13.7528	59941
14	10.2593	53474
14	9.84795	47199
14	9.84113	41057
14	8.37638	35071
14	7.45895	29323
14	8.12434	23781
14	7.96958	18809
14	4.82001	14365
14	3.90137	10539
14	3.51511	7321
14	3.42982	4663
14	3.45495	2668
14	2.59866	1247
14	2.1289	401
14	1.06681	50
14	0.862876	38
14	0.207715	34
		
		
		
		
		
		
		
		
		
		
		
		
		
		
		
		
		
		
		
	MTPS_FRAME	CELLS
13	14.3871	86694
13	15.2814	104856
13	15.7484	124415
13	17.0332	145443
13	19.8947	167994
13	20.6107	191968
13	21.0149	217656
13	21.2392	241286
13	22.2183	259151
13	22.9201	279994
13	22.5666	301062
13	22.7256	321609
13	23.3687	341858
13	22.8969	360398
13	23.7387	376380
13	23.409	390516
13	23.3843	403217
13	23.4351	414456
13	23.5859	421753
13	23.4706	425847
13	24.0578	427571
13	24.0672	426998
13	24.4297	424205
13	24.5106	419477
13	24.1422	412595
13	23.8524	403793
13	23.9372	395152
13	24.1129	387456
13	23.956	379950
13	23.7803	372543
13	24.1227	365863
13	23.9833	361846
13	23.4023	359446
13	23.4587	358266
13	23.786	357922
13	23.5825	358478
13	23.2488	359804
13	23.8247	361778
13	24.1398	364166
13	24.0567	366635
13	23.7706	369221
13	23.5881	371887
13	22.9331	374644
13	22.7222	377411
13	23.181	380081
13	23.699	382874
13	23.5281	385513
13	23.4056	388216
13	23.4199	390860
13	23.2871	393507
13	23.2791	396295
13	23.5326	398885
13	23.2145	401713
13	23.1946	404275
13	23.5498	406777
13	23.4922	405196
13	23.5244	400840
13	23.5089	394255
13	23.5808	386039
13	23.8557	375430
13	23.8464	359933
13	24.167	341114
13	24.1132	319918
13	23.6775	296294
13	23.5306	270494
13	23.4281	243278
13	23.2147	220417
13	22.7503	199127
13	21.2459	178746
13	20.1232	158541
13	19.7947	140109
13	19.8072	125900
13	19.603	114489
13	19.1655	104696
13	16.2374	96028
13	14.9748	88295
13	13.8747	80784
13	13.3479	73614
13	14.3389	66695
13	13.2534	59941
13	10.1258	53474
13	9.78941	47199
13	10.1103	41057
13	8.79745	35071
13	7.70157	29323
13	8.55399	23781
13	8.16675	18809
13	4.9696	14365
13	4.12457	10539
13	3.57775	7321
13	3.29031	4663
13	3.29173	2668
13	2.55472	1247
13	1.88069	401
13	1.03257	50
13	0.262997	38
13	0.291667	34
		
		
		
		
		
		
		
		
		
		
		
		
		
		
		
		
		
		
		
	MTPS_FRAME	CELLS
12	14.1982	86694
12	15.2487	104856
12	15.5579	124415
12	17.2535	145443
12	20.8593	167994
12	20.9394	191968
12	21.0899	217656
12	20.865	241286
12	21.4971	259151
12	21.5549	279994
12	21.1274	301062
12	20.9744	321609
12	21.5288	341858
12	21.9044	360398
12	22.4147	376380
12	22.2379	390516
12	21.5955	403217
12	21.4652	414456
12	21.4213	421753
12	21.2985	425847
12	21.6921	427571
12	22.2982	426998
12	22.2414	424205
12	22.1434	419477
12	21.8197	412595
12	21.6799	403793
12	21.7083	395152
12	21.7985	387456
12	21.6034	379950
12	21.5322	372543
12	21.7672	365863
12	21.5081	361846
12	21.3482	359446
12	21.5264	358266
12	21.7341	357922
12	21.2543	358478
12	20.8463	359804
12	21.8639	361778
12	21.9765	364166
12	21.7087	366635
12	21.6756	369221
12	21.2743	371887
12	20.8489	374644
12	20.9183	377411
12	21.2925	380081
12	21.6108	382874
12	21.4976	385513
12	21.2846	388216
12	21.6728	390860
12	21.8849	393507
12	21.3646	396295
12	21.8188	398885
12	21.4742	401713
12	21.411	404275
12	21.6594	406777
12	21.4297	405196
12	21.5957	400840
12	21.583	394255
12	21.5915	386039
12	21.6843	375430
12	21.5199	359933
12	21.8797	341114
12	21.8317	319918
12	21.4957	296294
12	21.5863	270494
12	21.999	243278
12	22.3797	220417
12	21.9291	199127
12	20.7474	178746
12	19.8854	158541
12	19.7427	140109
12	19.6204	125900
12	19.8314	114489
12	19.1879	104696
12	16.4317	96028
12	15.2165	88295
12	13.9745	80784
12	13.487	73614
12	14.3033	66695
12	13.5993	59941
12	10.093	53474
12	9.72969	47199
12	9.80337	41057
12	8.08049	35071
12	7.67926	29323
12	7.76421	23781
12	7.46808	18809
12	5.0818	14365
12	4.11728	10539
12	3.81529	7321
12	3.68583	4663
12	3.5143	2668
12	2.95571	1247
12	2.49107	401
12	1.19405	50
12	0.516	38
12	0.48951	34
		
		
		
		
		
		
		
		
		
		
		
		
		
		
		
		
		
		
		
	MTPS_FRAME	CELLS
11	13.9693	86694
11	14.9043	104856
11	15.4082	124415
11	17.2577	145443
11	20.404	167994
11	20.3384	191968
11	20.2179	217656
11	19.8841	241286
11	20.2668	259151
11	20.1866	279994
11	19.7857	301062
11	19.5096	321609
11	19.8868	341858
11	19.8411	360398
11	20.4137	376380
11	20.2983	390516
11	20.1977	403217
11	20.1075	414456
11	19.9242	421753
11	19.7792	425847
11	20.2506	427571
11	20.3402	426998
11	20.5129	424205
11	20.4751	419477
11	20.2311	412595
11	20.0769	403793
11	20.2157	395152
11	20.2416	387456
11	20.2924	379950
11	20.561	372543
11	20.7729	365863
11	20.5516	361846
11	20.396	359446
11	20.5634	358266
11	20.67	357922
11	20.1099	358478
11	19.5719	359804
11	20.147	361778
11	20.1717	364166
11	20.2408	366635
11	20.1093	369221
11	20.1954	371887
11	19.7239	374644
11	19.7349	377411
11	19.9139	380081
11	20.168	382874
11	20.1116	385513
11	20.0318	388216
11	20.4181	390860
11	20.6981	393507
11	20.7584	396295
11	20.3946	398885
11	20.2262	401713
11	20.4194	404275
11	20.695	406777
11	20.8558	405196
11	21.0111	400840
11	20.6083	394255
11	20.6618	386039
11	20.8646	375430
11	20.6877	359933
11	21.0605	341114
11	20.9581	319918
11	20.7302	296294
11	20.8277	270494
11	21.542	243278
11	21.8356	220417
11	21.2831	199127
11	20.0448	178746
11	19.2356	158541
11	19.3165	140109
11	19.0978	125900
11	19.313	114489
11	18.5389	104696
11	16.6748	96028
11	15.248	88295
11	14.1085	80784
11	13.795	73614
11	15.792	66695
11	14.3775	59941
11	10.2985	53474
11	10.0613	47199
11	10.0419	41057
11	8.2611	35071
11	7.76394	29323
11	8.7543	23781
11	8.33424	18809
11	4.98994	14365
11	4.10691	10539
11	3.81282	7321
11	3.70607	4663
11	3.69324	2668
11	3.2987	1247
11	2.55319	401
11	1.28345	50
11	0.496154	38
11	0.37037	34
		
		
		
		
		
		
		
		
		
		
		
		
		
		
		
		
		
		
		
	MTPS_FRAME	CELLS
10	13.7719	86694
10	14.6676	104856
10	15.1611	124415
10	16.4981	145443
10	19.1167	167994
10	19.1674	191968
10	19.3038	217656
10	19.1702	241286
10	19.5926	259151
10	19.5852	279994
10	19.4064	301062
10	19.2406	321609
10	19.2488	341858
10	19.213	360398
10	19.7007	376380
10	19.5793	390516
10	19.4552	403217
10	19.4055	414456
10	19.1761	421753
10	19.0775	425847
10	19.4805	427571
10	19.5547	426998
10	19.6997	424205
10	19.6573	419477
10	19.4168	412595
10	19.2765	403793
10	19.1088	395152
10	19.1548	387456
10	19.2967	379950
10	19.2369	372543
10	19.4552	365863
10	19.1045	361846
10	19.0833	359446
10	19.1697	358266
10	19.3167	357922
10	18.9115	358478
10	18.5815	359804
10	19.162	361778
10	19.2364	364166
10	19.3975	366635
10	19.3634	369221
10	19.1552	371887
10	18.8443	374644
10	18.8297	377411
10	18.8449	380081
10	19.1191	382874
10	19.1063	385513
10	18.7685	388216
10	18.622	390860
10	18.789	393507
10	18.7743	396295
10	18.745	398885
10	18.6189	401713
10	18.8358	404275
10	19.1182	406777
10	19.239	405196
10	19.3971	400840
10	19.1933	394255
10	19.3553	386039
10	19.4455	375430
10	19.4073	359933
10	19.6971	341114
10	19.6184	319918
10	19.2117	296294
10	19.3189	270494
10	19.7024	243278
10	20.562	220417
10	20.681	199127
10	19.59	178746
10	18.489	158541
10	18.3957	140109
10	18.52	125900
10	18.6498	114489
10	17.8172	104696
10	16.2355	96028
10	14.9495	88295
10	13.6038	80784
10	14.5036	73614
10	17.6585	66695
10	14.5353	59941
10	10.2484	53474
10	10.246	47199
10	10.3846	41057
10	8.11395	35071
10	7.83652	29323
10	8.94985	23781
10	8.78451	18809
10	5.1658	14365
10	4.12684	10539
10	3.94051	7321
10	3.78195	4663
10	3.61523	2668
10	3.12802	1247
10	2.59199	401
10	1.54047	50
10	0.499033	38
10	0.376344	34
		
		
		
		
		
		
		
		
		
		
		
		
		
		
		
		
		
		
		
	MTPS_FRAME	CELLS
9	13.9114	86694
9	14.0494	104856
9	14.4255	124415
9	16.0201	145443
9	18.2561	167994
9	18.1112	191968
9	18.301	217656
9	17.8105	241286
9	18.0809	259151
9	18.0197	279994
9	17.717	301062
9	17.5752	321609
9	17.7785	341858
9	17.6983	360398
9	18.1625	376380
9	18.1029	390516
9	18.0233	403217
9	17.9219	414456
9	17.9121	421753
9	17.8181	425847
9	18.1459	427571
9	18.2472	426998
9	18.3736	424205
9	18.2568	419477
9	18.1837	412595
9	18.0698	403793
9	18.0009	395152
9	18.0475	387456
9	17.9717	379950
9	17.9107	372543
9	18.126	365863
9	17.8059	361846
9	17.7179	359446
9	18.023	358266
9	18.0936	357922
9	17.7935	358478
9	17.5162	359804
9	17.9036	361778
9	18.0714	364166
9	18.154	366635
9	18.0112	369221
9	17.8702	371887
9	17.462	374644
9	17.4607	377411
9	17.7654	380081
9	17.8728	382874
9	18.1093	385513
9	17.9302	388216
9	17.8845	390860
9	17.9379	393507
9	18.0669	396295
9	18.0945	398885
9	17.8477	401713
9	17.987	404275
9	18.1344	406777
9	17.9284	405196
9	18.1088	400840
9	18.3972	394255
9	18.4213	386039
9	18.5266	375430
9	18.5228	359933
9	18.8721	341114
9	18.8455	319918
9	18.7599	296294
9	18.7003	270494
9	19.2297	243278
9	19.4119	220417
9	18.8583	199127
9	18.0934	178746
9	17.3249	158541
9	17.299	140109
9	17.2175	125900
9	17.1025	114489
9	16.9182	104696
9	15.5698	96028
9	14.3962	88295
9	12.9491	80784
9	13.5573	73614
9	15.712	66695
9	14.0653	59941
9	10.0747	53474
9	10.1766	47199
9	10.0744	41057
9	8.40453	35071
9	7.73162	29323
9	9.02066	23781
9	8.51071	18809
9	5.11735	14365
9	4.09828	10539
9	3.91059	7321
9	3.96583	4663
9	3.95245	2668
9	3.6256	1247
9	2.87655	401
9	1.68083	50
9	0.701087	38
9	0.486111	34
		
		
		
		
		
		
		
		
		
		
		
		
		
		
		
		
		
		
		
	MTPS_FRAME	CELLS
8	13.3382	86694
8	13.759	104856
8	13.6251	124415
8	14.8998	145443
8	16.6657	167994
8	16.7909	191968
8	16.6963	217656
8	16.8154	241286
8	17.4757	259151
8	17.5247	279994
8	17.561	301062
8	17.4033	321609
8	17.3488	341858
8	17.1422	360398
8	17.5008	376380
8	17.4119	390516
8	17.3123	403217
8	17.2518	414456
8	17.1947	421753
8	17.0962	425847
8	17.3645	427571
8	17.543	426998
8	17.5671	424205
8	17.5739	419477
8	17.3834	412595
8	17.6146	403793
8	17.5466	395152
8	17.4366	387456
8	17.2603	379950
8	17.1823	372543
8	17.3711	365863
8	17.1722	361846
8	16.9803	359446
8	17.049	358266
8	17.3147	357922
8	17.0093	358478
8	16.6821	359804
8	17.082	361778
8	17.3825	364166
8	17.2553	366635
8	17.1954	369221
8	17.2251	371887
8	16.7979	374644
8	16.8002	377411
8	16.9859	380081
8	17.1945	382874
8	17.2504	385513
8	16.9971	388216
8	17.0656	390860
8	16.9636	393507
8	16.8728	396295
8	16.9524	398885
8	16.7761	401713
8	16.857	404275
8	17.0626	406777
8	17.1623	405196
8	17.181	400840
8	17.2548	394255
8	17.293	386039
8	17.3874	375430
8	17.1231	359933
8	17.4434	341114
8	17.5165	319918
8	17.4888	296294
8	17.6281	270494
8	18.0314	243278
8	18.3145	220417
8	18.3179	199127
8	17.5811	178746
8	16.6458	158541
8	16.6654	140109
8	16.7583	125900
8	16.8453	114489
8	16.3927	104696
8	15.1296	96028
8	14.0615	88295
8	13.0221	80784
8	13.0001	73614
8	14.4511	66695
8	13.5888	59941
8	10.0997	53474
8	9.83248	47199
8	10.3662	41057
8	8.77247	35071
8	8.14822	29323
8	9.70871	23781
8	8.70295	18809
8	5.1371	14365
8	4.28072	10539
8	3.99803	7321
8	3.87869	4663
8	3.78328	2668
8	3.34504	1247
8	2.7855	401
8	1.59736	50
8	0.427861	38
8	0.368421	34
		
		
		
		
		
		
		
		
		
		
		
		
		
		
		
		
		
		
		
	MTPS_FRAME	CELLS
7	12.8812	86694
7	13.7889	104856
7	13.7958	124415
7	14.324	145443
7	15.7418	167994
7	15.6093	191968
7	15.6219	217656
7	15.4917	241286
7	15.6013	259151
7	15.5112	279994
7	15.3337	301062
7	15.2464	321609
7	15.4003	341858
7	15.3297	360398
7	15.5317	376380
7	15.4525	390516
7	15.2593	403217
7	15.224	414456
7	15.1584	421753
7	15.0368	425847
7	15.2913	427571
7	15.5089	426998
7	15.599	424205
7	15.6075	419477
7	15.4516	412595
7	15.3398	403793
7	15.2957	395152
7	15.6073	387456
7	15.4586	379950
7	15.1799	372543
7	15.3759	365863
7	15.2279	361846
7	15.2163	359446
7	15.634	358266
7	15.6874	357922
7	15.4692	358478
7	15.0997	359804
7	15.3304	361778
7	15.5384	364166
7	15.6148	366635
7	15.5657	369221
7	15.4712	371887
7	15.2594	374644
7	15.2777	377411
7	15.3815	380081
7	15.4382	382874
7	15.2903	385513
7	15.1188	388216
7	15.1995	390860
7	15.2453	393507
7	15.2367	396295
7	15.4092	398885
7	15.2408	401713
7	15.2893	404275
7	15.42	406777
7	15.4332	405196
7	15.4724	400840
7	15.5287	394255
7	15.5885	386039
7	15.707	375430
7	15.6993	359933
7	15.9175	341114
7	15.6419	319918
7	15.5186	296294
7	15.5527	270494
7	15.9667	243278
7	16.3455	220417
7	16.2647	199127
7	15.4943	178746
7	15.267	158541
7	15.5041	140109
7	15.1447	125900
7	15.3353	114489
7	15.1478	104696
7	14.3627	96028
7	13.4887	88295
7	12.2073	80784
7	12.9429	73614
7	14.3621	66695
7	12.9808	59941
7	10.2665	53474
7	9.88818	47199
7	10.6535	41057
7	8.54779	35071
7	7.70283	29323
7	9.135	23781
7	9.13443	18809
7	5.06435	14365
7	4.24185	10539
7	3.92901	7321
7	3.68727	4663
7	3.66444	2668
7	3.31979	1247
7	2.79731	401
7	1.62883	50
7	0.461538	38
7	0.421687	34
		
		
		
		
		
		
		
		
		
		
		
		
		
		
		
		
		
		
		
	MTPS_FRAME	CELLS
6	11.9314	86694
6	12.0012	104856
6	12.3795	124415
6	13.1331	145443
6	14.1145	167994
6	13.9354	191968
6	13.8386	217656
6	13.83	241286
6	14.0013	259151
6	14.0315	279994
6	14.0177	301062
6	13.9387	321609
6	14.1478	341858
6	14.131	360398
6	14.3512	376380
6	14.3078	390516
6	14.1958	403217
6	14.1558	414456
6	14.1144	421753
6	13.9765	425847
6	14.2244	427571
6	14.2809	426998
6	14.3759	424205
6	14.3357	419477
6	14.2511	412595
6	14.184	403793
6	14.1463	395152
6	14.2446	387456
6	14.1207	379950
6	13.9812	372543
6	14.1104	365863
6	14.0282	361846
6	14.1029	359446
6	14.2606	358266
6	14.3027	357922
6	14.0213	358478
6	13.7698	359804
6	13.9382	361778
6	14.1231	364166
6	14.1921	366635
6	14.2159	369221
6	14.1168	371887
6	13.943	374644
6	13.9935	377411
6	13.9273	380081
6	14.1025	382874
6	14.1809	385513
6	14.0746	388216
6	14.0848	390860
6	14.0681	393507
6	13.9576	396295
6	13.9459	398885
6	13.8398	401713
6	13.8697	404275
6	13.9991	406777
6	14.0561	405196
6	14.0189	400840
6	14.0245	394255
6	14.0744	386039
6	14.1754	375430
6	14.111	359933
6	14.31	341114
6	14.3758	319918
6	14.291	296294
6	14.2738	270494
6	14.4859	243278
6	14.6781	220417
6	14.7654	199127
6	14.1717	178746
6	13.8365	158541
6	13.7506	140109
6	13.6086	125900
6	13.4648	114489
6	13.2803	104696
6	12.8376	96028
6	12.1148	88295
6	11.5183	80784
6	11.8163	73614
6	13.089	66695
6	12.3473	59941
6	10.0489	53474
6	10.2821	47199
6	10.6869	41057
6	9.67817	35071
6	8.22031	29323
6	9.25327	23781
6	9.94162	18809
6	5.25664	14365
6	4.27285	10539
6	4.11302	7321
6	4.06556	4663
6	3.97533	2668
6	3.70778	1247
6	3.04939	401
6	2.01283	50
6	0.626214	38
6	0.534351	34
		
		
		
		
		
		
		
		
		
		
		
		
		
		
		
		
		
		
		
	MTPS_FRAME	CELLS
5	10.9563	86694
5	10.7421	104856
5	11.1205	124415
5	11.6146	145443
5	11.7239	167994
5	11.7393	191968
5	11.8428	217656
5	11.8621	241286
5	11.9458	259151
5	11.9324	279994
5	12.0157	301062
5	12.0397	321609
5	12.1828	341858
5	12.1514	360398
5	12.2433	376380
5	12.2536	390516
5	12.1881	403217
5	12.1399	414456
5	12.1074	421753
5	12.0082	425847
5	12.1803	427571
5	12.3511	426998
5	12.3437	424205
5	12.3138	419477
5	12.2522	412595
5	12.1957	403793
5	12.1737	395152
5	12.2613	387456
5	12.2383	379950
5	12.0934	372543
5	12.2647	365863
5	12.14	361846
5	12.1215	359446
5	12.2382	358266
5	12.3042	357922
5	12.1081	358478
5	11.8627	359804
5	12.0464	361778
5	12.2443	364166
5	12.3256	366635
5	12.2379	369221
5	12.1357	371887
5	12.0134	374644
5	12.036	377411
5	12.0492	380081
5	12.1045	382874
5	12.1897	385513
5	12.1075	388216
5	12.117	390860
5	12.2155	393507
5	12.0981	396295
5	12.1076	398885
5	12.0016	401713
5	12.0316	404275
5	12.1659	406777
5	12.1911	405196
5	12.1845	400840
5	12.1929	394255
5	12.1982	386039
5	12.2507	375430
5	12.2287	359933
5	12.4179	341114
5	12.4536	319918
5	12.4056	296294
5	12.2834	270494
5	12.3454	243278
5	12.4521	220417
5	12.3983	199127
5	11.9722	178746
5	11.6852	158541
5	11.731	140109
5	11.545	125900
5	11.5461	114489
5	11.4909	104696
5	11.1988	96028
5	11.0171	88295
5	10.8262	80784
5	11.1458	73614
5	11.7698	66695
5	11.1667	59941
5	9.27752	53474
5	9.35485	47199
5	9.58839	41057
5	9.01134	35071
5	8.26557	29323
5	8.20726	23781
5	8.46991	18809
5	5.30909	14365
5	4.26151	10539
5	4.20664	7321
5	4.14115	4663
5	4.04837	2668
5	3.49564	1247
5	2.85274	401
5	1.70412	50
5	0.520161	38
5	0.4	34
		
		
		
		
		
		
		
		
		
		
		
		
		
		
		
		
		
		
		
	MTPS_FRAME	CELLS
4	9.67986	86694
4	9.30214	104856
4	9.44368	124415
4	9.69169	145443
4	9.87957	167994
4	9.89934	191968
4	9.89108	217656
4	9.88432	241286
4	9.92542	259151
4	9.92283	279994
4	9.90046	301062
4	9.85952	321609
4	10.0161	341858
4	9.98117	360398
4	9.99188	376380
4	9.98407	390516
4	9.97016	403217
4	9.97487	414456
4	9.84435	421753
4	9.74943	425847
4	9.86345	427571
4	9.93001	426998
4	9.93247	424205
4	9.93554	419477
4	9.86195	412595
4	9.87529	403793
4	9.8631	395152
4	9.93354	387456
4	9.92589	379950
4	9.86638	372543
4	9.9821	365863
4	9.89439	361846
4	9.84615	359446
4	9.98287	358266
4	10.0322	357922
4	9.88822	358478
4	9.71185	359804
4	9.82161	361778
4	9.93823	364166
4	9.97682	366635
4	9.90407	369221
4	9.89214	371887
4	9.88204	374644
4	9.90643	377411
4	9.8334	380081
4	9.8474	382874
4	9.89147	385513
4	9.83044	388216
4	9.82879	390860
4	9.92316	393507
4	9.90799	396295
4	9.93739	398885
4	9.90058	401713
4	9.92766	404275
4	9.96904	406777
4	10.0139	405196
4	9.99883	400840
4	10.017	394255
4	10.0572	386039
4	10.0623	375430
4	10.055	359933
4	10.1654	341114
4	10.1404	319918
4	10.1055	296294
4	10.041	270494
4	10.0788	243278
4	10.1177	220417
4	10.122	199127
4	9.9444	178746
4	9.73333	158541
4	9.76152	140109
4	9.72899	125900
4	9.70261	114489
4	9.59982	104696
4	9.51941	96028
4	9.26689	88295
4	9.1705	80784
4	9.19717	73614
4	9.43007	66695
4	9.29961	59941
4	8.78988	53474
4	8.45405	47199
4	8.25573	41057
4	7.71119	35071
4	7.01229	29323
4	7.8678	23781
4	7.50315	18809
4	5.75588	14365
4	4.88963	10539
4	4.61921	7321
4	4.35351	4663
4	4.18723	2668
4	3.83466	1247
4	3.30757	401
4	2.03053	50
4	0.6	38
4	0.463576	34
		
		
		
		
		
		
		
		
		
		
		
		
		
		
		
		
		
		
		
	MTPS_FRAME	CELLS
3	7.41322	86694
3	7.40141	104856
3	7.43942	124415
3	7.53474	145443
3	7.60194	167994
3	7.59475	191968
3	7.58896	217656
3	7.64733	241286
3	7.62284	259151
3	7.63432	279994
3	7.6145	301062
3	7.62832	321609
3	7.68834	341858
3	7.62851	360398
3	7.61819	376380
3	7.58194	390516
3	7.58625	403217
3	7.60753	414456
3	7.54603	421753
3	7.44281	425847
3	7.52931	427571
3	7.58589	426998
3	7.57239	424205
3	7.56449	419477
3	7.52973	412595
3	7.51152	403793
3	7.48435	395152
3	7.52412	387456
3	7.5158	379950
3	7.51807	372543
3	7.57542	365863
3	7.51787	361846
3	7.63954	359446
3	7.66256	358266
3	7.72944	357922
3	7.63286	358478
3	7.48386	359804
3	7.56232	361778
3	7.58195	364166
3	7.62249	366635
3	7.7272	369221
3	7.7841	371887
3	7.59675	374644
3	7.60161	377411
3	7.54956	380081
3	7.55605	382874
3	7.57933	385513
3	7.52334	388216
3	7.61194	390860
3	7.68081	393507
3	7.61447	396295
3	7.63328	398885
3	7.59981	401713
3	7.59558	404275
3	7.5655	406777
3	7.59581	405196
3	7.60319	400840
3	7.61082	394255
3	7.75834	386039
3	7.72084	375430
3	7.68203	359933
3	7.70302	341114
3	7.75469	319918
3	7.72989	296294
3	7.72525	270494
3	7.80047	243278
3	7.82749	220417
3	7.86598	199127
3	7.62052	178746
3	7.56839	158541
3	7.58555	140109
3	7.64074	125900
3	7.68025	114489
3	7.69401	104696
3	7.63117	96028
3	7.46204	88295
3	7.41396	80784
3	7.41944	73614
3	7.47929	66695
3	7.47997	59941
3	6.54265	53474
3	6.66615	47199
3	7.01846	41057
3	6.97075	35071
3	6.42551	29323
3	6.39534	23781
3	6.58333	18809
3	5.40724	14365
3	4.96022	10539
3	4.3676	7321
3	3.87708	4663
3	3.79236	2668
3	3.31752	1247
3	3.06024	401
3	1.965	50
3	0.597222	38
3	0.457516	34
		
		
		
		
		
		
		
		
		
		
		
		
		
		
		
		
		
		
		
	MTPS_FRAME	CELLS
2	5.51707	86694
2	5.41032	104856
2	5.39978	124415
2	5.41895	145443
2	5.42358	167994
2	5.40704	191968
2	5.33999	217656
2	5.31246	241286
2	5.24463	259151
2	5.22672	279994
2	5.17092	301062
2	5.16552	321609
2	5.18155	341858
2	5.15373	360398
2	5.14335	376380
2	5.1677	390516
2	5.15822	403217
2	5.16941	414456
2	5.097	421753
2	5.04177	425847
2	5.09275	427571
2	5.12232	426998
2	5.13034	424205
2	5.19308	419477
2	5.29717	412595
2	5.26501	403793
2	5.27947	395152
2	5.33436	387456
2	5.36894	379950
2	5.34957	372543
2	5.37705	365863
2	5.3685	361846
2	5.40381	359446
2	5.43285	358266
2	5.42078	357922
2	5.34584	358478
2	5.28191	359804
2	5.35105	361778
2	5.36125	364166
2	5.42215	366635
2	5.42406	369221
2	5.40174	371887
2	5.35846	374644
2	5.38127	377411
2	5.32264	380081
2	5.30333	382874
2	5.31442	385513
2	5.28769	388216
2	5.32349	390860
2	5.35514	393507
2	5.31329	396295
2	5.35405	398885
2	5.29797	401713
2	5.34778	404275
2	5.33303	406777
2	5.37212	405196
2	5.39319	400840
2	5.37061	394255
2	5.41672	386039
2	5.44961	375430
2	5.42941	359933
2	5.42918	341114
2	5.49741	319918
2	5.45501	296294
2	5.5042	270494
2	5.53639	243278
2	5.53278	220417
2	5.50874	199127
2	5.26763	178746
2	5.36975	158541
2	5.4868	140109
2	5.52519	125900
2	5.39857	114489
2	5.4791	104696
2	5.53915	96028
2	5.40633	88295
2	5.33189	80784
2	5.31143	73614
2	5.32755	66695
2	5.50532	59941
2	5.48618	53474
2	5.37256	47199
2	5.33013	41057
2	5.29428	35071
2	5.27635	29323
2	5.22526	23781
2	5.2706	18809
2	5.28634	14365
2	5.16561	10539
2	5.00523	7321
2	5.11013	4663
2	4.93271	2668
2	4.57855	1247
2	3.8285	401
2	2.3616	50
2	0.756598	38
2	0.564516	34
		
		
		
		
		
		
		
		
		
		
		
		
		
		
		
		
		
		
		
	MTPS_FRAME	CELLS
1	2.8806	86694
1	2.84836	104856
1	2.78833	124415
1	2.77935	145443
1	2.77853	167994
1	2.76508	191968
1	2.742	217656
1	2.72397	241286
1	2.69468	259151
1	2.66829	279994
1	2.64693	301062
1	2.63127	321609
1	2.63233	341858
1	2.61015	360398
1	2.6139	376380
1	2.62324	390516
1	2.6268	403217
1	2.63366	414456
1	2.60175	421753
1	2.57373	425847
1	2.57907	427571
1	2.60043	426998
1	2.59514	424205
1	2.59258	419477
1	2.58574	412595
1	2.58207	403793
1	2.5713	395152
1	2.59478	387456
1	2.60685	379950
1	2.58621	372543
1	2.60663	365863
1	2.59617	361846
1	2.60429	359446
1	2.62797	358266
1	2.62926	357922
1	2.59968	358478
1	2.55993	359804
1	2.59646	361778
1	2.60089	364166
1	2.61032	366635
1	2.61224	369221
1	2.61187	371887
1	2.6113	374644
1	2.61205	377411
1	2.58366	380081
1	2.58186	382874
1	2.59586	385513
1	2.57136	388216
1	2.57581	390860
1	2.6019	393507
1	2.5803	396295
1	2.58887	398885
1	2.58021	401713
1	2.59233	404275
1	2.60127	406777
1	2.61022	405196
1	2.61108	400840
1	2.62074	394255
1	2.6368	386039
1	2.64571	375430
1	2.63477	359933
1	2.64136	341114
1	2.65678	319918
1	2.66909	296294
1	2.69146	270494
1	2.71728	243278
1	2.73857	220417
1	2.76374	199127
1	2.73957	178746
1	2.78201	158541
1	2.82285	140109
1	2.84028	125900
1	2.84764	114489
1	2.84635	104696
1	2.8532	96028
1	2.85499	88295
1	2.85647	80784
1	2.85485	73614
1	2.85567	66695
1	2.85581	59941
1	2.84878	53474
1	2.84563	47199
1	2.8486	41057
1	2.84878	35071
1	2.83675	29323
1	2.82954	23781
1	2.81336	18809
1	2.79639	14365
1	2.76417	10539
1	2.73476	7321
1	2.75557	4663
1	2.69157	2668
1	2.58243	1247
1	2.39603	401
1	2.114	50
1	1.23445	38
1	0.945946	34
