4.700000000000000000e+01,-1.507700518232013565e-02
1.070000000000000000e+02,-1.527347077399099362e-02
1.670000000000000000e+02,-1.440365306552848779e-02
2.270000000000000000e+02,-1.646746183268987807e-02
2.870000000000000000e+02,-1.646481204625160899e-02
3.469999999999999432e+02,-1.739562386455872911e-02
4.070000000000000000e+02,-1.825982263653713744e-02
4.670000000000000000e+02,-1.805733891114869039e-02
5.270000000000000000e+02,-1.778810843188693980e-02
5.870000000000000000e+02,-1.745207213934918400e-02
6.470000000000000000e+02,-1.804917617846513167e-02
7.070000000000000000e+02,-1.857937189060976380e-02
7.670000000000000000e+02,-1.804261581810351345e-02
8.270000000000000000e+02,-1.743886970461971941e-02
8.870000000000000000e+02,-2.076810049311461626e-02
9.470000000000000000e+02,-1.703028032352449372e-02
1.007000000000000000e+03,-1.922538653252559016e-02
1.067000000000000000e+03,-1.735340165396337397e-02
1.127000000000000000e+03,-1.641431340840426856e-02
1.187000000000000000e+03,-1.640811471452252590e-02
1.247000000000000000e+03,-1.933480366915318882e-02
1.247000000000000000e+03,-1.533480366879302892e-02
1.247000000000000000e+03,-2.733480366896401392e-02
1.307000000000000000e+03,-1.119438355681268149e-02
1.307000000000000000e+03,1.280561644307454117e-02
1.307000000000000000e+03,-1.619438355692182085e-02
1.366999999999999773e+03,-1.798686283700590138e-02
1.426999999999999773e+03,-1.371225514867546735e-02
1.487000000000000000e+03,-1.637057929337970563e-02
1.547000000000000000e+03,-1.596185924381643417e-02
1.607000000000000000e+03,-1.348612412402871996e-02
1.667000000000000000e+03,-2.294340821617879556e-02
1.727000000000000000e+03,-2.333375094394796179e-02
1.787000000000000000e+03,-6.657196873220527777e-03
1.847000000000000000e+03,-2.291379569942364469e-02
1.907000000000000000e+03,-1.410360224326723255e-02
1.967000000000000000e+03,-2.522667644143439247e-02
2.027000000000000000e+03,-1.028308333525274065e-02
2.087000000000000000e+03,-1.927289306831880822e-02
2.147000000000000000e+03,-1.819618087074559298e-02
2.207000000000000000e+03,-1.205302705329813762e-02
2.267000000000000000e+03,-1.684351699532271596e-02
2.327000000000000000e+03,-2.056774113907522405e-02
2.387000000000000000e+03,-1.622579496779508190e-02
2.447000000000000000e+03,-1.381777900860470254e-02
2.507000000000000000e+03,-2.034379881024506176e-02
2.567000000000000000e+03,-1.980396493445368833e-02
2.627000000000000000e+03,-1.519839294769553817e-02
2.687000000000000455e+03,-1.752720340073210537e-02
2.747000000000000455e+03,-1.379052182073792210e-02
2.807000000000000455e+03,-1.798847869849851122e-02
2.867000000000000455e+03,-1.612120947083894862e-02
2.927000000000000455e+03,-1.518885450741436216e-02
2.987000000000000455e+03,-1.519155909682012862e-02
3.047000000000000455e+03,-1.712947343503401498e-02
3.107000000000000455e+03,-1.800275260211492423e-02
3.167000000000000455e+03,-1.581155655276234029e-02
3.227000000000000455e+03,-1.455605009959981544e-02
3.287000000000000455e+03,-1.523640289542527171e-02
3.347000000000000455e+03,-1.385278941461365321e-02
3.406999999999999545e+03,-1.440538894121345947e-02
3.466999999999999545e+03,-1.589438554401567671e-02
3.526999999999999545e+03,-1.231996806654933607e-02
3.586999999999999545e+03,-1.368233010498443036e-02
3.646999999999999545e+03,-1.298166998685701401e-02
3.706999999999999545e+03,-1.221819075999519555e-02
3.766999999999999545e+03,-1.239210016456127050e-02
3.826999999999999545e+03,-1.250361061966032139e-02
3.886999999999999545e+03,-1.255293920030453592e-02
3.946999999999999545e+03,-1.154030761563262786e-02
4.006999999999999545e+03,-1.246594219537655590e-02
4.066999999999999545e+03,-1.033007386376993963e-02
4.127000000000000000e+03,-1.013293811365656438e-02
4.187000000000000000e+03,-1.087477499550004723e-02
4.247000000000000000e+03,-9.555829089549661148e-03
4.307000000000000000e+03,-1.217634948216073099e-02
4.367000000000000000e+03,-8.736589747513789916e-03
4.427000000000000000e+03,-1.023680792013692553e-02
4.487000000000000000e+03,-9.677266474227508297e-03
4.547000000000000000e+03,-1.005823230525493273e-02
4.607000000000000000e+03,-8.379976693049684400e-03
4.667000000000000000e+03,-8.642775292173610069e-03
4.727000000000000000e+03,-8.846908098348649219e-03
4.787000000000000000e+03,-9.992659428462502547e-03
4.847000000000000000e+03,-9.080317889129219111e-03
4.907000000000000000e+03,-8.110176361697085667e-03
4.967000000000000000e+03,-8.082531965555972420e-03
5.027000000000000000e+03,-8.997686040402186336e-03
5.087000000000000000e+03,-8.855944115566671826e-03
5.147000000000000000e+03,-7.657615890366287204e-03
5.207000000000000000e+03,-7.403015193631290458e-03
5.267000000000000000e+03,-9.092459970361232990e-03
5.327000000000000000e+03,-5.726272249830799410e-03
5.387000000000000000e+03,-7.304778113393695094e-03
5.447000000000000000e+03,-7.828307674571988173e-03
5.507000000000000000e+03,-6.297195046045089839e-03
5.567000000000000000e+03,-4.711778310138470260e-03
5.627000000000000000e+03,-4.072399495726131136e-03
5.687000000000000000e+03,-6.379404541803523898e-03
5.747000000000000000e+03,-4.633143274986650795e-03
5.807000000000000000e+03,-5.833969376453751465e-03
5.867000000000000000e+03,-4.982240351637301501e-03
5.927000000000000000e+03,-3.078317506151506677e-03
5.987000000000000000e+03,-5.122565905821829801e-03
6.047000000000000000e+03,-3.115354355031740852e-03
6.107000000000000000e+03,-4.057055360590311466e-03
6.167000000000000909e+03,-4.948045104356424417e-03
6.227000000000000909e+03,-2.788703409805748379e-03
6.287000000000000909e+03,-1.579413709350774297e-03
6.347000000000000909e+03,-5.320563017448876053e-03
6.407000000000000909e+03,-2.012541897329356289e-03
6.467000000000000909e+03,-6.557444198733719531e-04
6.527000000000000909e+03,-2.250568145882425597e-03
6.587000000000000909e+03,-2.797414086217031581e-03
6.647000000000000909e+03,-2.966866636597842444e-04
6.707000000000000909e+03,-1.748793690694583347e-03
6.767000000000000909e+03,-1.541463302601187024e-04
6.827000000000000909e+03,4.868409378104843199e-04
6.887000000000000909e+03,-8.262496485258452594e-04
6.947000000000000909e+03,9.061608939191501122e-04
7.007000000000000909e+03,6.836483353254152462e-04
7.067000000000000909e+03,5.057852622485370375e-04
7.127000000000000909e+03,2.372141113937686896e-03
7.187000000000000909e+03,1.282282217289321125e-03
7.247000000000000909e+03,1.235771818755893037e-03
7.307000000000000909e+03,2.232170124898402719e-03
7.367000000000000909e+03,3.271034329372923821e-03
7.427000000000000909e+03,2.351918658860085998e-03
7.487000000000000909e+03,2.474374399753287435e-03
7.547000000000000909e+03,3.637949936546647223e-03
7.607000000000000909e+03,3.842190790237509646e-03
7.667000000000000909e+03,3.086639650064171292e-03
7.727000000000000909e+03,4.370836414182122098e-03
7.787000000000000909e+03,4.694318221481807996e-03
7.847000000000000909e+03,3.056619491871970240e-03
7.907000000000000909e+03,3.457271964634855976e-03
7.967000000000000909e+03,5.895804726151254727e-03
8.027000000000000909e+03,4.371744259060506010e-03
8.087000000000000909e+03,5.884614469778171042e-03
8.147000000000000909e+03,6.433936730900313705e-03
8.207000000000000000e+03,5.019229916797485203e-03
8.267000000000000000e+03,6.640010442424681969e-03
8.327000000000000000e+03,6.295792302353220293e-03
8.387000000000000000e+03,6.986087097629933851e-03
8.447000000000000000e+03,7.710404096542333718e-03
8.507000000000000000e+03,6.468250248417461989e-03
8.567000000000000000e+03,8.259130237547651632e-03
8.627000000000000000e+03,9.082546511763212038e-03
8.687000000000000000e+03,7.937999330806633225e-03
8.747000000000000000e+03,7.824986798823374556e-03
8.807000000000000000e+03,8.743004899770312477e-03
8.867000000000000000e+03,6.691547547234222293e-03
8.927000000000000000e+03,8.670106609315553214e-03
8.987000000000000000e+03,6.678171961084444774e-03
9.047000000000000000e+03,7.715231514339393470e-03
9.107000000000000000e+03,8.780771260717301629e-03
9.167000000000000000e+03,8.874275311882229289e-03
9.227000000000000000e+03,7.995225935246708104e-03
9.287000000000000000e+03,9.143103598489688011e-03
9.347000000000000000e+03,1.031738700294226874e-02
9.407000000000000000e+03,1.151755312912428053e-02
9.467000000000000000e+03,9.743077276198164327e-03
9.527000000000000000e+03,1.099343309397227131e-02
9.587000000000000000e+03,1.126809263450923027e-02
9.647000000000000000e+03,1.156652638155719615e-02
9.707000000000000000e+03,1.088820329960071831e-02
9.767000000000000000e+03,1.023259086741745705e-02
9.827000000000000000e+03,1.159915511698272894e-02
9.887000000000000000e+03,1.098736068615835393e-02
9.947000000000000000e+03,1.139667084044049261e-02
1.000700000000000000e+04,1.182654752938105958e-02
1.006700000000000000e+04,1.027645141630273429e-02
1.012700000000000000e+04,1.074584192747352063e-02
1.018700000000000000e+04,1.123417728376807645e-02
1.024700000000000000e+04,1.074091454711378901e-02
1.030700000000000000e+04,1.226550966157446965e-02
1.036700000000000000e+04,1.380741748698710580e-02
1.042700000000000000e+04,1.236609184979897691e-02
1.048700000000000000e+04,1.194098557471079403e-02
1.054700000000000000e+04,1.253155052927468205e-02
1.060700000000000000e+04,1.113723766775365220e-02
1.066700000000000000e+04,1.275749706292117480e-02
1.072700000000000000e+04,1.239177795696377871e-02
1.078700000000000000e+04,1.203952879677672172e-02
1.084700000000000000e+04,1.370019727391991182e-02
1.090700000000000000e+04,1.237323036639281781e-02
1.096700000000000000e+04,1.205807438145711785e-02
1.102700000000000000e+04,1.375417499957620748e-02
1.108700000000000000e+04,1.246097730154360761e-02
1.114700000000000000e+04,1.217792582565380144e-02
1.120700000000000000e+04,1.290446459870508988e-02
1.126700000000000000e+04,1.364003717753803357e-02
1.132700000000000000e+04,1.238408669360069325e-02
1.138700000000000000e+04,1.313605589348298963e-02
1.144700000000000000e+04,1.289538717446703231e-02
1.150700000000000000e+04,1.366152262880859780e-02
1.156700000000000000e+04,1.343390408692357596e-02
1.162700000000000000e+04,1.221197315180688747e-02
1.168700000000000000e+04,1.299517124652993516e-02
1.174700000000000000e+04,1.278293965015109279e-02
1.180700000000000000e+04,1.157471953683852917e-02
1.186700000000000000e+04,1.136995202386970050e-02
1.192700000000000000e+04,1.216807820446774713e-02
1.198700000000000000e+04,1.096853919125351240e-02
1.204700000000000000e+04,1.177077615739108296e-02
1.210700000000000000e+04,1.157423037784610642e-02
1.216700000000000000e+04,1.337834326341180713e-02
1.222700000000000000e+04,1.218255640742427204e-02
1.228700000000000000e+04,1.398631162737729028e-02
1.234700000000000000e+04,1.378905099727489869e-02
1.240700000000000000e+04,1.259021689384098863e-02
1.246700000000000000e+04,1.438925203365215566e-02
1.252700000000000000e+04,1.318559951778297545e-02
1.258700000000000000e+04,1.497870286220859271e-02
1.264700000000000000e+04,1.476800604996242328e-02
1.270700000000000000e+04,1.555295355592534179e-02
1.276700000000000000e+04,1.233299040632118704e-02
1.282700000000000000e+04,1.410756219502218300e-02
1.288700000000000000e+04,1.387611514337550034e-02
1.294700000000000000e+04,1.463809612505428959e-02
1.300700000000000000e+04,1.439295271711671376e-02
1.306700000000000000e+04,1.414013322801110917e-02
1.312700000000000000e+04,1.387908674587379210e-02
1.318700000000000000e+04,1.460926317167832167e-02
1.324700000000000000e+04,1.433011325980260153e-02
1.330700000000000000e+04,1.404108865835951292e-02
1.336700000000000000e+04,1.374164194794502691e-02
1.342700000000000000e+04,1.443122667797069880e-02
1.348700000000000000e+04,1.510929740425126511e-02
1.354700000000000000e+04,1.477530973170360085e-02
1.360700000000000000e+04,1.342872034865649766e-02
1.366700000000000000e+04,1.506898706975334790e-02
1.372700000000000000e+04,1.569556886670397944e-02
1.378700000000000000e+04,1.530792591483987053e-02
1.384700000000000000e+04,1.490551962160679977e-02
1.390700000000000000e+04,1.548781267092635971e-02
1.396700000000000000e+04,1.505426906214779592e-02
1.402700000000000000e+04,1.260435413860250264e-02
1.408700000000000182e+04,1.313753463318789727e-02
1.414700000000000000e+04,1.465327870255350717e-02
1.420700000000000182e+04,1.415105596333887661e-02
1.426700000000000000e+04,1.463033753134368453e-02
1.432700000000000182e+04,1.209059605571383145e-02
1.438700000000000000e+04,1.353130575535033131e-02
1.444700000000000182e+04,1.295194245903985575e-02
1.450700000000000000e+04,1.335198363676681765e-02
1.456700000000000182e+04,1.373090844026592094e-02
1.462700000000000000e+04,1.408819773496361449e-02
1.468700000000000182e+04,1.342333413822416333e-02
1.474700000000000000e+04,1.373580205699909129e-02
1.480700000000000182e+04,1.402508771661814535e-02
1.486700000000000000e+04,1.329067920232773758e-02
1.492700000000000182e+04,1.453206649421190377e-02
1.498700000000000000e+04,1.374874149450988625e-02
1.504700000000000182e+04,1.294019807619406492e-02
1.510700000000000000e+04,1.310593210337174241e-02
1.516700000000000182e+04,1.424544147403139505e-02
1.522700000000000000e+04,1.435822615167126060e-02
1.528700000000000182e+04,1.444378820087877102e-02
1.534700000000000000e+04,1.350163182223695912e-02
1.540700000000000182e+04,1.453126337901267107e-02
1.546700000000000000e+04,1.353219143993555917e-02
1.552700000000000182e+04,1.450392680771983578e-02
1.558700000000000000e+04,1.344598255263917963e-02
1.564700000000000182e+04,1.335787404559596325e-02
1.570700000000000000e+04,1.323911899180529872e-02
1.576700000000000182e+04,1.308923746410073363e-02
1.582700000000000000e+04,1.090775192960791173e-02
1.588700000000000182e+04,1.469418729038807214e-02
1.684700000000000000e+04,1.453662439007530338e-02
1.774700000000000000e+04,7.693090012253378518e-03
1.864700000000000000e+04,2.554839515596540878e-03
1.954700000000000000e+04,-3.070615544402244268e-03
2.038700000000000000e+04,-1.037476483315913356e-02
2.044700000000000000e+04,-1.018851057915526326e-02
2.050700000000000000e+04,-1.306142978364732699e-02
2.056700000000000000e+04,-1.299372781386409770e-02
2.062700000000000000e+04,-1.098560582295249333e-02
2.068700000000000000e+04,-1.203726074618316488e-02
2.074700000000000000e+04,-1.314888527667790186e-02
2.080700000000000000e+04,-1.232066787042640499e-02
2.086700000000000000e+04,-1.355279271956533194e-02
2.086700000000000000e+04,-1.455279271931431140e-02
2.092700000000000000e+04,-1.384543975336782751e-02
2.092700000000000000e+04,-1.184543975341512123e-02
2.092700000000000000e+04,-1.384543975336782751e-02
2.092700000000000000e+04,-1.484543975357155432e-02
2.092700000000000000e+04,-1.634543975342239719e-02
2.098700000000000000e+04,-1.519878462522683549e-02
2.098700000000000000e+04,-1.319878462527412921e-02
2.098700000000000000e+04,-1.419878462547785603e-02
2.098700000000000000e+04,-1.519878462522683549e-02
2.098700000000000000e+04,-1.519878462522683549e-02
2.104700000000000000e+04,-1.261299870020593517e-02
2.104700000000000000e+04,-1.261299870020593517e-02
2.104700000000000000e+04,-1.261299870020593517e-02
2.104700000000000000e+04,-1.261299870020593517e-02
2.104700000000000000e+04,-1.261299870020593517e-02
2.110700000000000000e+04,-1.508824904612993123e-02
2.110700000000000000e+04,-1.208824904642824549e-02
2.110700000000000000e+04,-1.308824904617722495e-02
2.110700000000000000e+04,-1.508824904612993123e-02
2.116700000000000000e+04,-1.462469842908831197e-02
2.122700000000000000e+04,-1.622250529726443347e-02
2.128700000000000000e+04,-1.588182377827251912e-02
2.224700000000000000e+04,-1.890539402893409715e-02
2.314700000000000000e+04,-2.746868777285271790e-02
2.404700000000000000e+04,-3.244156615937754395e-02
2.494699999999999636e+04,-3.574876280936223338e-02
2.584700000000000000e+04,1.090639117455793894e-02
2.674700000000000000e+04,2.035941163285315270e-03
2.764700000000000000e+04,-7.064186739171418594e-02
2.854700000000000000e+04,-8.021474400948136463e-02
2.944700000000000000e+04,-8.759127726216320298e-02
3.034700000000000000e+04,-6.451838371640405967e-02
3.124700000000000364e+04,-8.360100672280168510e-02
3.214700000000000000e+04,-4.332376326419762336e-02
3.304700000000000000e+04,-2.107421458549652016e-02
3.394700000000000000e+04,-2.116741816053036018e-02
3.484700000000000000e+04,-9.871405055037030252e-03
3.574700000000000000e+04,-1.043321781935446779e-02
3.664700000000000000e+04,-5.105139847273676423e-03
3.754700000000000000e+04,-1.707475071270891931e-04
3.844700000000000000e+04,-9.970421440812060609e-03
3.934700000000000000e+04,1.907403713266830891e-02
4.024700000000000000e+04,6.436025371840514708e-03
4.114700000000000000e+04,1.462315382923407014e-03
4.204700000000000000e+04,2.135308880588127067e-02
4.294700000000000000e+04,3.414410439791026874e-02
4.384699999999999272e+04,4.369124465938512003e-02
4.474700000000000000e+04,4.765765583761094604e-02
4.564700000000000000e+04,3.950366113167547155e-02
4.654700000000000728e+04,5.347959031860227697e-02
4.744700000000000000e+04,1.162163052322284784e-02
4.834700000000000000e+04,6.975076306252958602e-02
4.924700000000000000e+04,5.947481052999137319e-02
5.014700000000000000e+04,5.319357706821392640e-02
5.104699999999999272e+04,5.610702360900177155e-02
5.194700000000000000e+04,4.522637910849880427e-02
5.284700000000000000e+04,4.838804908376914682e-02
5.374700000000000728e+04,5.327014437034449656e-02
5.464700000000000000e+04,4.541141658046399243e-02
5.554700000000000000e+04,5.023235256021507666e-02
5.644700000000000000e+04,3.905814875224677962e-02
5.734700000000000000e+04,2.914325810888840351e-02
5.824700000000000000e+04,2.269717740045962273e-02
5.914700000000000000e+04,2.091112198741029715e-02
6.004700000000000000e+04,6.985218344198074192e-03
6.094699999999999272e+04,-5.844167539635236608e-03
6.184700000000000000e+04,-3.277355308455298655e-03
6.274700000000000000e+04,-6.924920976416615304e-03
6.274700000000000000e+04,-3.924920976714929566e-03
6.280700000000000000e+04,-2.164198397167638177e-03
6.286699999999999272e+04,-3.447104754286556272e-03
6.292700000000000000e+04,2.259399211652635131e-04
6.298700000000000000e+04,7.854518412841571262e-03
6.304700000000000000e+04,1.143821635105268797e-02
6.310700000000000000e+04,9.766222378857492004e-04
6.316700000000000728e+04,2.469327482231165050e-03
6.322700000000000000e+04,-8.407357518080971204e-05
6.328700000000000000e+04,5.316016373399179429e-03
6.334699999999999272e+04,1.366919762585894205e-02
6.340700000000000000e+04,1.297507350409432547e-02
6.346700000000000000e+04,1.123325038088296424e-02
6.352700000000000000e+04,7.443337707627506461e-03
6.358700000000000000e+04,1.060494804642075906e-02
6.364700000000000728e+04,7.176970934779092204e-04
6.364700000000000728e+04,1.171769709344516741e-02
6.370700000000000000e+04,3.781203713515424170e-03
6.376700000000000000e+04,-6.204910037467925576e-03
6.382699999999999272e+04,-2.410188835710869171e-04
6.388700000000000000e+04,-6.327494296328950441e-03
6.394700000000000000e+04,1.535295525172841735e-03
6.400700000000000000e+04,4.346985688698623562e-03
6.406700000000000000e+04,4.107214630948874401e-03
6.412700000000000728e+04,6.815624145474430406e-03
6.418700000000000000e+04,1.347185941222051042e-02
6.424700000000000000e+04,1.407556901995121734e-02
6.430699999999999272e+04,-3.735950044756464195e-04
6.436700000000000000e+04,1.124022830026660813e-03
6.442700000000000000e+04,5.680815006599004846e-04
6.448700000000000000e+04,-4.041756498736504000e-03
6.454700000000000000e+04,-1.270582513325280161e-02
6.454700000000000000e+04,-5.705825133645703318e-03
6.460700000000000728e+04,-1.042445480379683431e-02
6.466700000000000000e+04,-1.619797232069686288e-02
6.472700000000000000e+04,-1.202670087968726875e-02
6.478699999999999272e+04,-9.109600364354264457e-04
6.484700000000000000e+04,-2.851065681170439348e-03
6.490700000000000000e+04,1.152669984548992943e-03
6.496700000000000000e+04,-3.900061533386178780e-03
6.502700000000000000e+04,-9.009564983898599166e-03
6.508700000000000728e+04,-1.417614136698830407e-02
6.514700000000000000e+04,-4.400087892008741619e-03
6.520700000000000000e+04,4.318302034334919881e-03
6.526699999999999272e+04,9.978738833069655811e-03
6.532700000000000000e+04,1.580936776463204296e-03
6.538700000000000000e+04,-9.875385986561013851e-03
6.544700000000000000e+04,-6.390507419382629450e-03
6.544700000000000000e+04,-1.139050741949176881e-02
6.550700000000000000e+04,-2.964701555811188882e-03
6.556700000000000000e+04,2.401761496912513394e-03
6.562700000000000000e+04,1.708615594452567166e-03
6.568700000000000000e+04,-5.044401418672350701e-03
6.574700000000000000e+04,-1.085754770519997692e-02
6.580700000000000000e+04,-1.073107739966872032e-02
6.586700000000000000e+04,-1.766524059712537564e-02
6.592700000000000000e+04,-1.666028332647329080e-02
6.598700000000000000e+04,-1.571644753403234063e-02
6.604700000000000000e+04,-6.833971066498634173e-03
6.610700000000000000e+04,-3.013087646195344860e-03
6.616700000000000000e+04,-1.425402685481458320e-02
6.622700000000000000e+04,-2.255701411468180595e-02
6.628700000000000000e+04,-3.092227067190833623e-02
6.634700000000000000e+04,-2.635001357020883006e-02
6.634700000000000000e+04,-2.835001357016153634e-02
6.640700000000000000e+04,-2.484045564369807835e-02
6.646700000000000000e+04,-2.239380549326597247e-02
6.652700000000000000e+04,-1.801026746898060082e-02
6.658700000000000000e+04,-1.769004165544174612e-02
6.664700000000000000e+04,-1.343332384976747562e-02
6.670700000000000000e+04,-7.240305555114900926e-03
6.676700000000000000e+04,-1.211117394950633752e-02
6.682700000000000000e+04,-2.204611188199123717e-02
6.688700000000000000e+04,-2.804529785180420731e-02
6.694700000000000000e+04,-2.210890599462800310e-02
6.700700000000000000e+04,-2.123710606565509806e-02
6.706700000000000000e+04,-1.343006342312946799e-02
6.712700000000000000e+04,-9.687939018022007076e-03
6.718700000000000000e+04,-2.301088937610984431e-02
6.724700000000000000e+04,-2.739906658371182857e-02
6.730700000000000000e+04,-2.085261827869544504e-02
6.736700000000000000e+04,-2.037168762763030827e-02
6.742700000000000000e+04,-1.495641332257946488e-02
6.748700000000000000e+04,-2.160692956113052787e-02
6.754700000000000000e+04,-2.632336603619478410e-02
6.760700000000000000e+04,-2.210584792237568763e-02
6.766700000000000000e+04,-1.995449586956965504e-02
6.772700000000000000e+04,-2.586942597781671793e-02
6.778700000000000000e+04,-2.785074980420176871e-02
6.784700000000000000e+04,-2.689857433324505109e-02
6.790700000000000000e+04,-2.101300197909949929e-02
6.790700000000000000e+04,-3.101300197886303067e-02
6.790700000000000000e+04,-3.101300197886303067e-02
6.790700000000000000e+04,5.986998020944156451e-03
6.796700000000000000e+04,-2.419413056622943259e-02
6.796700000000000000e+04,-3.219413056604025769e-02
6.796700000000000000e+04,-3.319413056624398450e-02
6.796700000000000000e+04,-3.319413056624398450e-02
6.796700000000000000e+04,2.805869433814223157e-03
6.802700000000000000e+04,-2.944205332823912613e-02
6.802700000000000000e+04,-3.044205332844285294e-02
6.802700000000000000e+04,-3.044205332844285294e-02
6.802700000000000000e+04,-2.944205332823912613e-02
6.802700000000000000e+04,-2.844205332849014667e-02
6.808700000000000000e+04,-2.675685888834777870e-02
6.808700000000000000e+04,-2.675685888834777870e-02
6.808700000000000000e+04,-2.675685888834777870e-02
6.808700000000000000e+04,-2.675685888834777870e-02
6.808700000000000000e+04,-2.575685888814405189e-02
6.814700000000000000e+04,-2.213863125462012249e-02
6.814700000000000000e+04,2.861368745470826980e-03
6.820700000000000000e+04,-2.058744980922710965e-02
6.826700000000000000e+04,-2.510338930096622789e-02
6.832700000000000000e+04,-2.168651983402014594e-02
6.838700000000000000e+04,-1.533690686073896359e-02
6.844700000000000000e+04,-2.205461117591767106e-02
6.850700000000000000e+04,-2.083968890065079904e-02
6.856700000000000000e+04,-1.869219148102274630e-02
6.862700000000000000e+04,-8.612165685008221772e-03
6.868700000000000000e+04,-1.159965358601766638e-02
6.874700000000000000e+04,-2.165469256124197273e-02
6.880700000000000000e+04,-2.277731528556614649e-02
6.886700000000000000e+04,-2.396754972323833499e-02
6.892700000000000000e+04,-1.622541912274755305e-02
6.898700000000000000e+04,-1.755094201371321105e-02
6.904700000000000000e+04,-1.694413219820489758e-02
6.910700000000000000e+04,-2.040499875101886573e-02
6.916700000000000000e+04,-1.793354600795282749e-02
6.922700000000000000e+04,-2.152977356581686763e-02
6.928700000000000000e+04,-2.069367628291729488e-02
6.934700000000000000e+04,-1.992524426441377727e-02
6.940700000000000000e+04,-2.372446286835838691e-02
6.946700000000000000e+04,-2.259131270193392993e-02
6.952700000000000000e+04,-2.352576961402519373e-02
6.958700000000000000e+04,-1.652780469703429844e-02
6.964700000000000000e+04,-1.559738428341006511e-02
6.970700000000000000e+04,-1.273446994309779257e-02
6.976700000000000000e+04,-1.793901848668610910e-02
6.982700000000000000e+04,-2.321098195716331247e-02
6.988700000000000000e+04,-2.055030763631293667e-02
6.994700000000000000e+04,-1.095693804154507234e-02
7.000700000000000000e+04,-7.430810920141084353e-03
7.006700000000000000e+04,-7.971859264671365963e-03
7.012700000000000000e+04,-1.058001129331387347e-02
7.018700000000000000e+04,-9.255190471776586492e-03
7.024700000000000000e+04,-4.973154964318382554e-04
7.030700000000000000e+04,8.193699692583322758e-03
7.036700000000000000e+04,-6.682054089651501272e-03
7.042700000000000000e+04,-1.462448126630988554e-02
7.048700000000000000e+04,-1.163348151112586493e-02
7.054700000000000000e+04,-7.708949748575832928e-03
7.060700000000000000e+04,-5.850776155511994148e-03
7.066700000000000000e+04,-3.058846164094575215e-03
7.072700000000000000e+04,-2.333040471057756804e-03
7.078700000000000000e+04,-1.673235034104436636e-03
7.084700000000000000e+04,-6.079301080262666801e-03
7.090700000000000000e+04,-6.551105118433042662e-03
7.096700000000000000e+04,9.114910740208870266e-04
7.102700000000000000e+04,-6.913695738148817327e-04
7.108700000000000000e+04,1.640460578073543729e-03
7.114700000000000000e+04,-1.092866126327862730e-03
7.120700000000000000e+04,-6.891192647799471160e-03
7.126700000000000000e+04,-1.275435725756324246e-02
7.132700000000000000e+04,-5.682193545908376109e-03
7.138700000000000000e+04,3.254695707255450543e-04
7.144700000000000000e+04,2.688078470782784279e-04
7.150700000000000000e+04,-1.851998310939961812e-03
7.156700000000000000e+04,3.963236158597283065e-03
7.162700000000000000e+04,9.714700955555599649e-03
7.168700000000000000e+04,1.902590413010329939e-03
7.174700000000000000e+04,-5.972896515231695957e-03
7.180700000000000000e+04,-1.641155626020918135e-02
7.186700000000000000e+04,-7.913180655577889411e-03
7.192700000000000000e+04,-1.477556937970803119e-03
7.198700000000000000e+04,1.895532234357233392e-03
7.204700000000000000e+04,2.206308774020726560e-03
7.210700000000000000e+04,5.454999150060757529e-03
7.216700000000000000e+04,8.141834377966006286e-03
7.222700000000000000e+04,1.076705001332811662e-02
7.228700000000000000e+04,8.308861238219833467e-04
7.234700000000000000e+04,8.335872958014078904e-04
7.240700000000000000e+04,7.754026037218864076e-04
7.246700000000000000e+04,6.565856110682943836e-04
7.252700000000000000e+04,-5.226056541687285062e-04
7.258700000000000000e+04,1.238091291270393413e-03
7.264700000000000000e+04,3.938943371394998394e-03
7.270700000000000000e+04,3.580221938591421349e-03
7.276700000000000000e+04,-2.837797251686424715e-03
7.282700000000000000e+04,-5.314834041200811043e-03
7.288700000000000000e+04,-5.850603894032246899e-03
7.294700000000000000e+04,-7.444817917530599516e-03
7.300700000000000000e+04,6.902817138325190172e-03
7.306700000000000000e+04,7.692598844641906908e-03
7.312700000000000000e+04,2.924829091170977335e-03
7.318700000000000000e+04,3.599814059725758852e-03
7.324700000000000000e+04,-5.282135783545527374e-03
7.330700000000000000e+04,2.779294281026523095e-03
7.336700000000000000e+04,-2.155767797376029193e-04
7.342700000000000000e+04,7.733574220765149221e-03
7.348700000000000000e+04,7.627074676747724880e-03
7.354700000000000000e+04,6.465256165483879158e-03
7.360700000000000000e+04,7.248454431646678131e-03
7.366700000000000000e+04,5.977009364869445562e-03
7.372700000000000000e+04,8.651264982745487941e-03
7.378700000000000000e+04,8.271569404769252287e-03
7.384700000000000000e+04,1.183827483691857196e-02
7.390700000000000000e+04,2.335173755182040622e-02
7.396700000000000000e+04,2.081231785950876656e-02
7.402700000000000000e+04,-7.796199106451240368e-04
7.408700000000000000e+04,-3.423707424644817365e-03
7.414700000000000000e+04,9.880427624921139795e-03
7.420700000000000000e+04,1.013316149510501418e-02
7.426700000000000000e+04,1.333487437887015403e-02
7.432700000000000000e+04,1.248595037532140850e-02
7.438700000000000000e+04,1.458677746541070519e-02
7.444700000000000000e+04,1.863774749153890298e-02
7.450700000000000000e+04,1.163925612991079106e-02
7.456700000000000000e+04,1.359170287332744920e-02
7.462700000000000000e+04,1.349549099722935352e-02
7.468700000000000000e+04,1.635102753743922221e-02
7.474700000000000000e+04,1.715872327122269780e-02
7.480700000000000000e+04,2.391899268423003377e-02
7.486700000000000000e+04,1.863225394390610745e-02
7.492700000000000000e+04,1.429892888336325996e-02
7.498700000000000000e+04,1.891944296039582696e-02
7.504700000000000000e+04,1.249422524460896966e-02
7.510700000000000000e+04,1.702370838120259577e-02
7.516700000000000000e+04,2.150832856659690151e-02
7.522700000000000000e+04,2.194852552202064544e-02
7.528700000000000000e+04,2.134474246258832864e-02
7.534700000000000000e+04,1.969742607479929575e-02
7.540700000000000000e+04,2.000702647774232901e-02
7.546700000000000000e+04,1.927399720716493903e-02
7.552700000000000000e+04,1.149879517743102042e-02
7.558700000000000000e+04,1.768188065580034163e-02
7.564700000000000000e+04,2.182371723301912425e-02
7.570700000000000000e+04,2.492477178566332441e-02
7.576700000000000000e+04,2.298551446483543259e-02
7.582700000000000000e+04,1.500641864458884811e-02
7.588700000000000000e+04,1.598796090274845483e-02
7.594700000000000000e+04,2.243062099341841531e-02
7.600700000000000000e+04,1.533488180075437413e-02
7.606700000000000000e+04,2.170122932466256316e-02
7.612700000000000000e+04,1.953015263961788150e-02
7.618700000000000000e+04,2.132214386529085459e-02
7.624700000000000000e+04,2.807769812898186501e-02
7.630700000000000000e+04,2.479731354560499312e-02
7.636700000000000000e+04,1.548149117388675222e-02
7.642700000000000000e+04,1.213073498456651578e-02
7.648700000000000000e+04,1.374555183429038152e-02
7.654700000000000000e+04,1.932645142460387433e-02
7.660700000000000000e+04,2.287394627091998700e-02
7.666700000000000000e+04,2.238855167252040701e-02
7.672700000000000000e+04,2.287078566860145656e-02
7.678700000000000000e+04,1.432116901651170338e-02
7.684700000000000000e+04,2.424022514560419950e-02
7.690700000000000000e+04,1.662848013165785233e-02
7.696700000000000000e+04,8.986462654775095871e-03
7.702700000000000000e+04,1.881470396710938076e-02
7.708700000000000000e+04,1.711373785701653105e-02
7.714700000000000000e+04,2.038410061413742369e-02
7.720700000000000000e+04,4.162633099349477561e-02
7.726700000000000000e+04,1.684097017550811870e-02
7.732700000000000000e+04,1.902856173319378286e-02
7.738700000000000000e+04,1.918965159848085023e-02
7.744700000000000000e+04,1.632478801639081212e-02
7.750700000000000000e+04,2.143452151403835160e-02
7.756700000000000000e+04,2.451940486480452819e-02
7.762700000000000000e+04,3.157999304812619812e-02
7.768700000000000000e+04,2.661684320946733351e-02
7.774700000000000000e+04,2.663051462786825141e-02
7.780700000000000000e+04,2.812156867094017798e-02
7.786700000000000000e+04,2.009056876522663515e-02
7.792700000000000000e+04,1.203808035370457219e-02
7.798700000000000000e+04,1.346467084840696771e-02
7.804700000000000000e+04,1.837090960862042266e-02
7.810700000000000000e+04,1.925736788598442217e-02
7.816700000000000000e+04,2.212461879798865994e-02
7.822700000000000000e+04,2.697323727807088289e-02
7.828700000000000000e+04,2.780380003878235584e-02
7.834700000000000000e+04,2.561688554033025866e-02
7.840700000000000000e+04,2.141307393731040065e-02
7.846700000000000000e+04,2.819294704841013299e-02
7.852700000000000000e+04,2.695708831060983357e-02
7.858700000000000000e+04,3.270608274078767863e-02
7.864700000000000000e+04,2.744051689660409465e-02
7.870700000000000000e+04,2.216097883410839131e-02
7.876700000000000000e+04,1.386805806305346778e-02
7.882700000000000000e+04,5.562345514590560924e-03
7.888700000000000000e+04,-2.755566511495999293e-03
7.894700000000000000e+04,-1.108508437710042926e-02
7.900700000000000000e+04,-1.042561315443890635e-02
7.906700000000000000e+04,-4.776556667366094189e-03
7.912700000000000000e+04,8.626824719613068737e-04
7.918700000000000000e+04,5.492702813626237912e-03
7.924700000000000000e+04,8.114104032301838743e-03
7.930700000000000000e+04,9.727486884003155865e-03
7.936700000000000000e+04,3.333345316650593304e-02
7.942700000000000000e+04,6.932605666406743694e-03
7.948700000000000000e+04,9.525548133751726709e-03
7.954700000000000000e+04,8.112885219361487543e-03
7.960700000000000000e+04,8.695222448295680806e-03
7.966700000000000000e+04,1.427316616718599107e-02
7.972700000000000000e+04,1.684732350395279354e-02
7.978700000000000000e+04,1.341830232740903739e-02
7.984700000000000000e+04,8.986711196484975517e-03
7.990700000000000000e+04,-1.446840678454464069e-03
7.996700000000000000e+04,4.118256525543984026e-03
8.002700000000000000e+04,1.068261318823715555e-02
8.008700000000000000e+04,1.224684021053690230e-02
8.014700000000000000e+04,9.811548970901640132e-03
8.020700000000000000e+04,2.377351281211304013e-03
8.026700000000000000e+04,1.944859331615589326e-03
8.032700000000000000e+04,5.146856665305676870e-04
8.038700000000000000e+04,3.087443121785327094e-03
8.044700000000000000e+04,6.663744790785131045e-03
8.050700000000000000e+04,8.244203977028519148e-03
8.056700000000000000e+04,1.182943414551118622e-02
8.062700000000000000e+04,1.042004888768133242e-02
8.068700000000000000e+04,1.201666186534566805e-02
8.074700000000000000e+04,1.461988677601766540e-02
8.080700000000000000e+04,3.123033729980306816e-02
8.086700000000000000e+04,6.848627062026935164e-03
8.092700000000000000e+04,-5.246304203865292948e-04
8.098700000000000000e+04,8.111178226499760058e-03
8.104700000000000000e+04,1.375666618014292908e-02
8.110700000000000000e+04,1.241244637958516250e-02
8.116700000000000000e+04,1.407913147886574734e-02
8.122700000000000000e+04,7.757333805784583092e-03
8.128700000000000000e+04,3.244766530997367227e-02
8.134700000000000000e+04,-8.849262473631824832e-03
8.140700000000000000e+04,-6.132838478151825257e-03
8.146700000000000000e+04,-1.402452146521682153e-03
8.152700000000000000e+04,1.334250652325863484e-02
8.158700000000000000e+04,1.710264693383578560e-02
8.164700000000000000e+04,9.878577838662749855e-03
8.170700000000000000e+04,6.670907299394457368e-03
8.176700000000000000e+04,-3.519757354752073297e-03
8.182700000000000000e+04,-7.692809580930770608e-03
8.188700000000000000e+04,-6.847643662695190869e-03
8.194700000000000000e+04,1.016345240259397542e-03
8.200700000000000000e+04,1.899761053664406063e-03
8.206700000000000000e+04,1.803206734166451497e-03
8.212700000000000000e+04,7.727284236807463458e-03
8.218700000000000000e+04,8.672594450217729900e-03
8.224700000000000000e+04,5.639737174078618409e-03
8.230700000000000000e+04,1.162931105363895767e-02
8.236700000000000000e+04,1.664191354893773678e-02
8.242700000000000000e+04,9.678140878804697422e-03
8.248700000000000000e+04,1.173858798347282573e-02
8.254700000000000000e+04,1.182384847697903751e-02
8.260700000000000000e+04,1.393451459625794087e-02
8.266700000000000000e+04,4.071177168043504935e-03
8.272700000000000000e+04,8.234425547925638966e-03
8.278700000000000000e+04,1.042484759182116250e-02
8.284700000000000000e+04,9.643029598009889014e-03
8.290700000000000000e+04,1.188955626867027604e-02
8.296700000000000000e+04,1.316501066412456566e-02
8.302700000000000000e+04,4.699741548392921686e-04
8.308700000000000000e+04,-2.194973618770745816e-03
8.314700000000000000e+04,-4.829254793094150955e-03
8.320700000000000000e+04,1.156770667012096965e-02
8.326700000000000000e+04,1.999648494620487327e-02
8.332700000000000000e+04,3.457652299402980134e-03
8.338700000000000000e+04,6.951779037080996204e-03
8.344700000000000000e+04,6.479433466665796004e-03
8.350700000000000000e+04,4.041181852244335460e-03
8.356700000000000000e+04,7.637588372290338157e-03
8.362700000000000000e+04,1.626921506749567925e-02
8.368700000000000000e+04,1.593662180721366894e-02
8.374700000000000000e+04,8.640366237159469165e-03
8.380700000000000000e+04,1.381003741698805243e-03
8.386700000000000000e+04,6.159087395189999370e-03
8.392700000000000000e+04,1.097516792378883110e-02
8.398700000000000000e+04,1.682979365523351589e-02
8.404700000000000000e+04,1.972351048198106582e-02
8.410700000000000000e+04,1.565686181584169390e-02
8.416700000000000000e+04,1.563038853782927617e-02
8.422700000000000000e+04,1.164462897349949344e-02
8.428700000000000000e+04,7.700118825141544221e-03
8.434700000000000000e+04,7.973911519911780488e-04
8.440700000000000000e+04,2.936976313776540337e-03
8.446700000000000000e+04,-1.880598066236416344e-03
8.452700000000000000e+04,8.345192852630134439e-03
8.458700000000000000e+04,1.261487109286463237e-02
8.464700000000000000e+04,1.092895580995900673e-02
8.470700000000000000e+04,2.287963254275382496e-03
8.476700000000000000e+04,2.692406730147922644e-03
8.482700000000000000e+04,5.142796549534978112e-03
8.488700000000000000e+04,3.639639998709753854e-03
8.494700000000000000e+04,1.834412869357038289e-04
8.500700000000000000e+04,4.774701517362700542e-03
8.506700000000000000e+04,1.413918634170840960e-03
8.512700000000001455e+04,-8.984126079667476006e-04
8.518700000000000000e+04,-1.016180069063921110e-02
8.524700000000000000e+04,-7.375757368663471425e-03
8.530700000000001455e+04,-1.539797713576263050e-03
8.536700000000000000e+04,3.465598524599045049e-04
8.542700000000000000e+04,2.283793509377574082e-03
8.548699999999998545e+04,2.723780071391956881e-04
8.554700000000000000e+04,-3.687215377794927917e-03
8.560700000000000000e+04,1.405481118581519695e-03
8.566699999999998545e+04,-1.449068289275601273e-03
8.572700000000000000e+04,7.495970244235650171e-04
8.578700000000000000e+04,1.300193405631944188e-02
8.584700000000000000e+04,1.308396139393153135e-03
8.590700000000000000e+04,6.694329026686318684e-04
8.596700000000000000e+04,2.085490235003817361e-03
8.602700000000000000e+04,-4.429897553563932888e-04
8.608700000000001455e+04,-9.155687721431604587e-04
8.614700000000000000e+04,-2.331812377178721363e-03
8.620700000000000000e+04,-1.691290017333813012e-03
8.626700000000001455e+04,2.006424933824746404e-03
8.632700000000000000e+04,-2.238244862382998690e-03
8.638700000000000000e+04,-1.042488073790082126e-02
