%%MatrixMarket matrix array real general
6 6
72.
-24.
-24.
-36.
12.
12.
-24.
72.
-24.
12.
-36.
12.
-24.
-24.
72.
12.
12.
-36.
-36.
12.
12.
72.
-24.
-24.
12.
-36.
12.
-24.
72.
-24.
12.
12.
-36.
-24.
-24.
72.
