time,surface_elevation,reference_data,number_of_local_cells,number_of_global_cells
0,9.19187e-05,-2,16384,16384
1.00128,0.000109874,-2,16384,16384
2.00259,0.000132646,-2,16384,16384
3.00392,0.00016177,-2,16384,16384
4.00527,0.000199122,-2,16384,16384
5.00665,0.00024717,-2,16384,16384
6.00805,0.000309184,-2,16384,16384
7.00947,0.000389501,-2,16384,16384
8.01091,0.000492937,-2,16384,16384
9.01236,0.000629083,-2,16384,16384
10.0138,0.000806983,-2,16384,16384
11.0153,0.00103722,-2,16384,16384
12.001,0.00131816,-2,16384,16384
13.0026,0.00166755,-2,16384,16384
14.0042,0.0021027,-2,16384,16384
15.0059,0.0026467,-2,16384,16384
16.0077,0.00332363,-2,16384,16384
17.0097,0.00415809,-2,16384,16384
18.0117,0.0051763,-2,16384,16384
19.0141,0.00640586,-2,16384,16384
20.0014,0.00784554,-2,16384,16384
21.0063,0.00955401,-2,16384,16384
22.0132,0.0114973,-2,16384,16384
23.0064,0.0136068,-2,16384,16384
24.002,0.0158238,-2,16384,16384
25.0001,0.0180239,-2,16384,16384
26.0006,0.0200521,-2,16384,16384
27.0032,0.0217376,-2,16384,16384
28.0078,0.0229293,-2,16384,16384
29.0141,0.0235313,-2,16384,16384
30.0057,0.023526,-2,16384,16384
31.0148,0.0229576,-2,16384,16384
32.0087,0.0219373,-2,16384,16384
33.003,0.0205783,-2,16384,16384
34.0133,0.0189771,-2,16384,16384
35.0073,0.0172993,-2,16384,16384
36.001,0.0156147,-2,16384,16384
37.0109,0.0139701,-2,16384,16384
38.0043,0.0124702,-2,16384,16384
39.0139,0.0110983,-2,16384,16384
40.0071,0.0099145,-2,16384,16384
41.0002,0.00889832,-2,16384,16384
42.0094,0.00803131,-2,16384,16384
43.0023,0.00732998,-2,16384,16384
44.0113,0.0067558,-2,16384,16384
45.0039,0.00631116,-2,16384,16384
46.0127,0.00596539,-2,16384,16384
47.0052,0.00571451,-2,16384,16384
48.0138,0.00553663,-2,16384,16384
49.006,0.00542593,-2,16384,16384
50.0144,0.00536866,-2,16384,16384
51.0064,0.00535824,-2,16384,16384
52.0146,0.00538755,-2,16384,16384
53.0064,0.0054505,-2,16384,16384
54.0143,0.00554534,-2,16384,16384
55.0059,0.00566744,-2,16384,16384
56.0135,0.00582322,-2,16384,16384
57.0048,0.0060124,-2,16384,16384
58.0122,0.0062427,-2,16384,16384
59.0031,0.00650192,-2,16384,16384
60.0102,0.00679015,-2,16384,16384
61.0008,0.00709109,-2,16384,16384
62.0075,0.007411,-2,16384,16384
63.014,0.00774471,-2,16384,16384
64.004,0.00808724,-2,16384,16384
65.01,0.00844826,-2,16384,16384
66.0159,0.00881642,-2,16384,16384
67.0052,0.00917773,-2,16384,16384
68.0059,0.00953513,-2,16384,16384
69.0108,0.00987943,-2,16384,16384
70.0154,0.0102028,-2,16384,16384
71.0035,0.0104949,-2,16384,16384
72.0073,0.0107606,-2,16384,16384
73.0107,0.0109904,-2,16384,16384
74.0136,0.0111805,-2,16384,16384
75.016,0.0113274,-2,16384,16384
76.0018,0.0114274,-2,16384,16384
77.0033,0.0114829,-2,16384,16384
78.0042,0.0114927,-2,16384,16384
79.0046,0.0114579,-2,16384,16384
80.0046,0.0113737,-2,16384,16384
81.004,0.0112279,-2,16384,16384
82.003,0.0109688,-2,16384,16384
83.0015,0.0105079,-2,16384,16384
84.0157,0.00970642,-2,16384,16384
85.0135,0.00831892,-2,16384,16384
86.011,0.00604082,-2,16384,16384
87.0083,0.00293936,-2,16384,16384
88.0054,-0.000539128,-2,16384,16384
89.0023,-0.0039005,-2,16384,16384
90.0153,-0.00679894,-2,16384,16384
91.0122,-0.00898151,-2,16384,16384
92.009,-0.010449,-2,16384,16384
93.0059,-0.0112325,-2,16384,16384
94.0028,-0.0114269,-2,16384,16384
95.0157,-0.0111627,-2,16384,16384
96.0126,-0.0106037,-2,16384,16384
97.0094,-0.00988523,-2,16384,16384
98.0063,-0.00910322,-2,16384,16384
99.0032,-0.00831416,-2,16384,16384
100,-0.0075464,-2,16384,16384
101.013,-0.00680073,-2,16384,16384
102.01,-0.00610578,-2,16384,16384
103.007,-0.00545071,-2,16384,16384
104.004,-0.00483455,-2,16384,16384
105.001,-0.00425634,-2,16384,16384
106.014,-0.00370814,-2,16384,16384
107.011,-0.00320758,-2,16384,16384
108.008,-0.00274529,-2,16384,16384
109.005,-0.00232312,-2,16384,16384
110.002,-0.00194534,-2,16384,16384
111.015,-0.00160972,-2,16384,16384
112.012,-0.00132599,-2,16384,16384
113.009,-0.00108402,-2,16384,16384
114.007,-0.000879411,-2,16384,16384
115.004,-0.000708114,-2,16384,16384
116.001,-0.000565995,-2,16384,16384
117.015,-0.00044696,-2,16384,16384
118.012,-0.000350313,-2,16384,16384
119.009,-0.000269331,-2,16384,16384
