time,surface_elevation,reference_data,number_of_local_cells,number_of_global_cells
0,9.14111e-05,-2,262144,262144
1.00028,0.00010895,-2,262144,262144
2.00057,0.000131285,-2,262144,262144
3.00088,0.000159795,-2,262144,262144
4.0002,0.000196245,-2,262144,262144
5.00052,0.000243078,-2,262144,262144
6.00085,0.000303391,-2,262144,262144
7.00018,0.000381252,-2,262144,262144
8.00052,0.000482335,-2,262144,262144
9.00085,0.00061395,-2,262144,262144
10.0002,0.000785775,-2,262144,262144
11.0006,0.00101137,-2,262144,262144
12.0009,0.00129367,-2,262144,262144
13.0004,0.00163186,-2,262144,262144
14.0008,0.00205629,-2,262144,262144
15.0003,0.00260067,-2,262144,262144
16.0009,0.00342199,-2,262144,262144
17.0006,0.00421316,-2,262144,262144
18.0004,0.00516999,-2,262144,262144
19.0005,0.00635429,-2,262144,262144
20.0006,0.00777355,-2,262144,262144
21.0003,0.00940659,-2,262144,262144
22.0009,0.0113302,-2,262144,262144
23.001,0.0134693,-2,262144,262144
24.0005,0.0157466,-2,262144,262144
25.0005,0.0180382,-2,262144,262144
26.0009,0.020174,-2,262144,262144
27.0006,0.0219636,-2,262144,262144
28.0002,0.0232423,-2,262144,262144
29.0005,0.0239014,-2,262144,262144
30.0003,0.0238221,-2,262144,262144
31.0004,0.0231614,-2,262144,262144
32.0004,0.0221029,-2,262144,262144
33.0001,0.0207829,-2,262144,262144
34.0009,0.0191169,-2,262144,262144
35.0006,0.0173547,-2,262144,262144
36.0003,0.0155958,-2,262144,262144
37.0001,0.0139164,-2,262144,262144
38.0008,0.0123674,-2,262144,262144
39.0006,0.0109832,-2,262144,262144
40.0003,0.00977573,-2,262144,262144
41,0.00874552,-2,262144,262144
42.0008,0.00822407,-2,262144,262144
43.0005,0.00822419,-2,262144,262144
44.0002,0.00822431,-2,262144,262144
45.001,0.00822443,-2,262144,262144
46.0007,0.00822456,-2,262144,262144
47.0004,0.00822468,-2,262144,262144
48.0002,0.0082248,-2,262144,262144
49.0009,0.00822492,-2,262144,262144
50.0007,0.00822505,-2,262144,262144
51.0004,0.00822517,-2,262144,262144
52.0001,0.00822529,-2,262144,262144
53.0009,0.00822541,-2,262144,262144
54.0006,0.00822554,-2,262144,262144
55.0003,0.00822566,-2,262144,262144
56.0001,0.00822578,-2,262144,262144
57.0008,0.00822591,-2,262144,262144
58.0006,0.00822603,-2,262144,262144
59.0003,0.00822615,-2,262144,262144
60,0.00822627,-2,262144,262144
61.0008,0.00850371,-2,262144,262144
62.0005,0.00957527,-2,262144,262144
63.0002,0.0106909,-2,262144,262144
64.001,0.0116931,-2,262144,262144
65.0007,0.0127539,-2,262144,262144
66.0004,0.0136655,-2,262144,262144
67,0.0145996,-2,262144,262144
68.0008,0.0153702,-2,262144,262144
69.0005,0.0160978,-2,262144,262144
70.0002,0.0168733,-2,262144,262144
71.0009,0.0173622,-2,262144,262144
72.0005,0.0176309,-2,262144,262144
73.0007,0.0177932,-2,262144,262144
74.0004,0.0178837,-2,262144,262144
75.0005,0.0178993,-2,262144,262144
76,0.0178459,-2,262144,262144
77.0001,0.0177274,-2,262144,262144
78.0008,0.0175485,-2,262144,262144
79,0.0173158,-2,262144,262144
80.0001,0.0170389,-2,262144,262144
81.0001,0.0167411,-2,262144,262144
82.0008,0.0164882,-2,262144,262144
83.0008,0.015974,-2,262144,262144
84.0002,0.0143523,-2,262144,262144
85.0001,0.012501,-2,262144,262144
86.0008,0.0105663,-2,262144,262144
87.0001,0.00805823,-2,262144,262144
88.0004,0.0043539,-2,262144,262144
89.0005,0.00134659,-2,262144,262144
90.0005,0.00324405,-2,262144,262144
91.0005,0.00159821,-2,262144,262144
92.0004,0.00495051,-2,262144,262144
93.0003,0.00246161,-2,262144,262144
94.0002,0.000101558,-2,262144,262144
95.001,-6.30764e-05,-2,262144,262144
96.0008,-7.35956e-05,-2,262144,262144
97.0005,-9.99302e-05,-2,262144,262144
98.0003,-9.98333e-05,-2,262144,262144
99,-9.97849e-05,-2,262144,262144
100.001,-9.97499e-05,-2,262144,262144
101,-9.97193e-05,-2,262144,262144
102,-9.96904e-05,-2,262144,262144
103.001,-9.96622e-05,-2,262144,262144
104.001,-9.96347e-05,-2,262144,262144
105,-9.96079e-05,-2,262144,262144
106.001,-9.95816e-05,-2,262144,262144
107.001,-9.95561e-05,-2,262144,262144
108,-9.95312e-05,-2,262144,262144
109,-9.9507e-05,-2,262144,262144
110.001,-9.94834e-05,-2,262144,262144
111,-9.94605e-05,-2,262144,262144
112,-9.9438e-05,-2,262144,262144
113.001,-9.94161e-05,-2,262144,262144
114.001,-9.93947e-05,-2,262144,262144
115,-9.93738e-05,-2,262144,262144
116.001,-9.93533e-05,-2,262144,262144
117.001,-9.93332e-05,-2,262144,262144
118,-9.93134e-05,-2,262144,262144
119.001,-9.9294e-05,-2,262144,262144
