time,surface_elevation,reference_data,number_of_local_cells,number_of_global_cells
0,9.09062e-05,-2,65536,65536
1.00021,0.000108378,-2,65536,65536
2.00042,0.000130626,-2,65536,65536
3.00066,0.000159032,-2,65536,65536
4.00091,0.000195399,-2,65536,65536
5.00117,0.000242099,-2,65536,65536
6.00144,0.000302259,-2,65536,65536
7.00172,0.00038003,-2,65536,65536
8.00201,0.000480937,-2,65536,65536
9.0023,0.000612352,-2,65536,65536
10.0026,0.000784137,-2,65536,65536
11.0029,0.00100896,-2,65536,65536
12.0033,0.00128942,-2,65536,65536
13.0037,0.00162947,-2,65536,65536
14.0041,0.00207023,-2,65536,65536
15.0046,0.00262642,-2,65536,65536
16.0052,0.00329439,-2,65536,65536
17.0002,0.00410874,-2,65536,65536
18.0011,0.00508763,-2,65536,65536
19.0021,0.00626862,-2,65536,65536
20.0042,0.00769773,-2,65536,65536
21.0021,0.00937269,-2,65536,65536
22.0021,0.0112966,-2,65536,65536
23.0045,0.0134364,-2,65536,65536
24.0037,0.0157029,-2,65536,65536
25.0054,0.0179833,-2,65536,65536
26.0038,0.0200978,-2,65536,65536
27.0044,0.0218744,-2,65536,65536
28.0012,0.0231412,-2,65536,65536
29.0056,0.0238038,-2,65536,65536
30.0056,0.023825,-2,65536,65536
31.0012,0.0232608,-2,65536,65536
32.0035,0.0222049,-2,65536,65536
33.0004,0.0207978,-2,65536,65536
34.0029,0.0191577,-2,65536,65536
35.0053,0.0174139,-2,65536,65536
36.0017,0.0156773,-2,65536,65536
37.0038,0.0140044,-2,65536,65536
38.0057,0.0124587,-2,65536,65536
39.0017,0.0110798,-2,65536,65536
40.0034,0.00986678,-2,65536,65536
41.0049,0.00882991,-2,65536,65536
42.0006,0.00796645,-2,65536,65536
43.0019,0.00725388,-2,65536,65536
44.0032,0.00668063,-2,65536,65536
45.0043,0.00623005,-2,65536,65536
46.0054,0.00588535,-2,65536,65536
47.0006,0.00563332,-2,65536,65536
48.0014,0.00545949,-2,65536,65536
49.0022,0.00535627,-2,65536,65536
50.0028,0.00530501,-2,65536,65536
51.0033,0.00529232,-2,65536,65536
52.0038,0.00532217,-2,65536,65536
53.0041,0.00539312,-2,65536,65536
54.0042,0.00549091,-2,65536,65536
55.0043,0.00561833,-2,65536,65536
56.0042,0.00578616,-2,65536,65536
57.004,0.00598583,-2,65536,65536
58.0036,0.00618265,-2,65536,65536
59.0031,0.00637864,-2,65536,65536
60.0025,0.00660523,-2,65536,65536
61.0016,0.00687945,-2,65536,65536
62.0005,0.00719934,-2,65536,65536
63.005,0.0075464,-2,65536,65536
64.0036,0.00790579,-2,65536,65536
65.0042,0.00827591,-2,65536,65536
66.0025,0.00865543,-2,65536,65536
67.0011,0.0090444,-2,65536,65536
68.0019,0.00943619,-2,65536,65536
69.0056,0.00982174,-2,65536,65536
70.0027,0.0101884,-2,65536,65536
71.0051,0.0105331,-2,65536,65536
72.0015,0.0108459,-2,65536,65536
73.0033,0.0111238,-2,65536,65536
74.0045,0.0113589,-2,65536,65536
75.0053,0.0115461,-2,65536,65536
76.0056,0.0116816,-2,65536,65536
77.0053,0.0117635,-2,65536,65536
78.0045,0.0117924,-2,65536,65536
79.0032,0.0117714,-2,65536,65536
80.0013,0.0117096,-2,65536,65536
81.0046,0.0116252,-2,65536,65536
82.0016,0.0114997,-2,65536,65536
83.0039,0.0109765,-2,65536,65536
84.0056,0.00951837,-2,65536,65536
85.0013,0.00774447,-2,65536,65536
86.0023,0.00671828,-2,65536,65536
87.003,0.00402859,-2,65536,65536
88.0034,-0.000583072,-2,65536,65536
89.0037,-0.0050014,-2,65536,65536
90.0039,-0.00837248,-2,65536,65536
91.004,-0.010569,-2,65536,65536
92.0042,-0.0116453,-2,65536,65536
93.0043,-0.0117123,-2,65536,65536
94.0045,-0.0110845,-2,65536,65536
95.0046,-0.0103429,-2,65536,65536
96.0047,-0.00972304,-2,65536,65536
97.0049,-0.00906066,-2,65536,65536
98.005,-0.00829787,-2,65536,65536
99.0052,-0.00752485,-2,65536,65536
100.005,-0.00681941,-2,65536,65536
101.005,-0.00617656,-2,65536,65536
102.006,-0.00555877,-2,65536,65536
103,-0.00495815,-2,65536,65536
104,-0.00437809,-2,65536,65536
105,-0.00382971,-2,65536,65536
106,-0.00332062,-2,65536,65536
107.001,-0.00286703,-2,65536,65536
108.001,-0.00246856,-2,65536,65536
109.001,-0.00210999,-2,65536,65536
110.001,-0.00178412,-2,65536,65536
111.001,-0.0014953,-2,65536,65536
112.002,-0.00124945,-2,65536,65536
113.002,-0.00104705,-2,65536,65536
114.002,-0.000881155,-2,65536,65536
115.003,-0.000741759,-2,65536,65536
116.003,-0.000621392,-2,65536,65536
117.003,-0.000515988,-2,65536,65536
118.004,-0.000423178,-2,65536,65536
119.004,-0.000341626,-2,65536,65536
