time,surface_elevation,reference_data,number_of_local_cells,number_of_global_cells
0,9.11078e-05,-2,65536,65536
1.00128,0.000108595,-2,65536,65536
2.00257,0.000130899,-2,65536,65536
3.00387,0.000159384,-2,65536,65536
4.00122,0.000195699,-2,65536,65536
5.00254,0.000242503,-2,65536,65536
6.00388,0.000302812,-2,65536,65536
7.00125,0.000380445,-2,65536,65536
8.0026,0.000481552,-2,65536,65536
9.00395,0.000613271,-2,65536,65536
10.0013,0.000784743,-2,65536,65536
11.0027,0.00101031,-2,65536,65536
12.0002,0.00129074,-2,65536,65536
13.0016,0.00162976,-2,65536,65536
14.0031,0.0020534,-2,65536,65536
15.0007,0.00258632,-2,65536,65536
16.0023,0.00327306,-2,65536,65536
17,0.00409623,-2,65536,65536
18.0019,0.00509954,-2,65536,65536
19.0001,0.0062986,-2,65536,65536
20.0031,0.00771306,-2,65536,65536
21.0038,0.00938921,-2,65536,65536
22.0025,0.0113114,-2,65536,65536
23.0035,0.0134502,-2,65536,65536
24.0031,0.0157206,-2,65536,65536
25.0011,0.0179971,-2,65536,65536
26.0015,0.0201215,-2,65536,65536
27.0001,0.0219,-2,65536,65536
28.0007,0.0231748,-2,65536,65536
29.003,0.0238334,-2,65536,65536
30.0028,0.0238465,-2,65536,65536
31.0038,0.0232803,-2,65536,65536
32.0018,0.0222201,-2,65536,65536
33.0001,0.0208025,-2,65536,65536
34.0023,0.0191549,-2,65536,65536
35.0002,0.0174125,-2,65536,65536
36.0021,0.0156622,-2,65536,65536
37.0038,0.0139877,-2,65536,65536
38.0014,0.0124481,-2,65536,65536
39.0028,0.0110627,-2,65536,65536
40.0001,0.00985739,-2,65536,65536
41.0013,0.00882371,-2,65536,65536
42.0025,0.00795911,-2,65536,65536
43.0035,0.00725121,-2,65536,65536
44.0004,0.00668474,-2,65536,65536
45.0012,0.00623742,-2,65536,65536
46.002,0.0058959,-2,65536,65536
47.0026,0.00564395,-2,65536,65536
48.0031,0.00546781,-2,65536,65536
49.0036,0.00535627,-2,65536,65536
50.0039,0.00530191,-2,65536,65536
51,0.00531879,-2,65536,65536
52.0001,0.00540266,-2,65536,65536
53.0001,0.00552687,-2,65536,65536
54.004,0.0056518,-2,65536,65536
55.0037,0.00575218,-2,65536,65536
56.0033,0.00586403,-2,65536,65536
57.0028,0.00603082,-2,65536,65536
58.0021,0.00627244,-2,65536,65536
59.0012,0.00654589,-2,65536,65536
60.0002,0.00682272,-2,65536,65536
61.0031,0.00709666,-2,65536,65536
62.0017,0.00740932,-2,65536,65536
63.0001,0.00776443,-2,65536,65536
64.0024,0.00814158,-2,65536,65536
65.0003,0.00852801,-2,65536,65536
66.0007,0.00892193,-2,65536,65536
67.0001,0.00932438,-2,65536,65536
68.0028,0.00972962,-2,65536,65536
69.0032,0.0100954,-2,65536,65536
70.0038,0.0104102,-2,65536,65536
71,0.0106904,-2,65536,65536
72.004,0.010947,-2,65536,65536
73.0034,0.0111738,-2,65536,65536
74.0024,0.0113676,-2,65536,65536
75.0009,0.0115245,-2,65536,65536
76.0029,0.0116425,-2,65536,65536
77.0003,0.0117198,-2,65536,65536
78.0012,0.0117636,-2,65536,65536
79.0016,0.0117653,-2,65536,65536
80.0013,0.0117299,-2,65536,65536
81.0005,0.0116651,-2,65536,65536
82.0033,0.0115575,-2,65536,65536
83.0017,0.0112392,-2,65536,65536
84.0036,0.0106995,-2,65536,65536
85.0012,0.00959582,-2,65536,65536
86.0025,0.00741492,-2,65536,65536
87.0036,0.00355153,-2,65536,65536
88.0004,-0.00128937,-2,65536,65536
89.001,-0.00578346,-2,65536,65536
90.0016,-0.00924071,-2,65536,65536
91.002,-0.011523,-2,65536,65536
92.0025,-0.012691,-2,65536,65536
93.0029,-0.0129105,-2,65536,65536
94.0034,-0.0124773,-2,65536,65536
95.0038,-0.0116435,-2,65536,65536
96.0003,-0.0107168,-2,65536,65536
97.0007,-0.00979718,-2,65536,65536
98.0012,-0.00891436,-2,65536,65536
99.0016,-0.00804769,-2,65536,65536
100.002,-0.00702228,-2,65536,65536
101.003,-0.00594586,-2,65536,65536
102.003,-0.00536455,-2,65536,65536
103.003,-0.00499991,-2,65536,65536
104.004,-0.00452346,-2,65536,65536
105,-0.00397246,-2,65536,65536
106.001,-0.00341906,-2,65536,65536
107.001,-0.00289061,-2,65536,65536
108.002,-0.00239773,-2,65536,65536
109.002,-0.00195576,-2,65536,65536
110.003,-0.00157375,-2,65536,65536
111.003,-0.00124626,-2,65536,65536
112,-0.000986332,-2,65536,65536
113.001,-0.000790652,-2,65536,65536
114.001,-0.00063802,-2,65536,65536
115.002,-0.00053055,-2,65536,65536
116.003,-0.000470419,-2,65536,65536
117.003,-0.000429932,-2,65536,65536
118,-0.000376637,-2,65536,65536
119.001,-0.000303134,-2,65536,65536
