time,surface_elevation,reference_data,number_of_local_cells,number_of_global_cells
0,9.19187e-05,-2,512,512
1.07892,0.000112548,-2,512,512
2.06801,0.000136798,-2,512,512
3.05719,0.000167848,-2,512,512
4.04646,0.00020783,-2,512,512
5.03583,0.000259492,-2,512,512
6.0253,0.000326489,-2,512,512
7.01485,0.000413686,-2,512,512
8.00448,0.000527444,-2,512,512
9.08418,0.000690863,-2,512,512
10.074,0.000885455,-2,512,512
11.0639,0.00113158,-2,512,512
12.0539,0.00143956,-2,512,512
13.044,0.00182312,-2,512,512
14.0342,0.00229974,-2,512,512
15.0246,0.00288934,-2,512,512
16.0151,0.00361504,-2,512,512
17.0058,0.00450074,-2,512,512
18.0868,0.00567431,-2,512,512
19.0785,0.00695835,-2,512,512
20.0712,0.00844903,-2,512,512
21.0654,0.0101363,-2,512,512
22.0614,0.0119871,-2,512,512
23.0594,0.0139401,-2,512,512
24.0596,0.015905,-2,512,512
25.062,0.0177695,-2,512,512
26.0666,0.0194119,-2,512,512
27.0733,0.0207201,-2,512,512
28.0819,0.0216088,-2,512,512
29.0003,0.022013,-2,512,512
30.0119,0.0220091,-2,512,512
31.0247,0.0215685,-2,512,512
32.0385,0.020755,-2,512,512
33.0528,0.0196507,-2,512,512
34.0669,0.0183454,-2,512,512
35.0809,0.0169247,-2,512,512
36.0026,0.0155974,-2,512,512
37.0163,0.0141566,-2,512,512
38.0298,0.0127835,-2,512,512
39.0432,0.0115131,-2,512,512
40.0564,0.0103668,-2,512,512
41.0695,0.00935791,-2,512,512
42.0824,0.00849007,-2,512,512
43.0032,0.007819,-2,512,512
44.016,0.00720298,-2,512,512
45.0286,0.00670592,-2,512,512
46.0412,0.00631653,-2,512,512
47.0536,0.00602373,-2,512,512
48.0659,0.00581675,-2,512,512
49.0781,0.00568573,-2,512,512
50.0902,0.00562194,-2,512,512
51.0102,0.00561546,-2,512,512
52.0221,0.00565796,-2,512,512
53.0339,0.00574528,-2,512,512
54.0456,0.00587029,-2,512,512
55.0571,0.00602646,-2,512,512
56.0685,0.00620813,-2,512,512
57.0797,0.00641079,-2,512,512
58.0907,0.00663098,-2,512,512
59.0097,0.00684411,-2,512,512
60.0204,0.0070908,-2,512,512
61.031,0.00734872,-2,512,512
62.0412,0.00761676,-2,512,512
63.0513,0.00789443,-2,512,512
64.061,0.00818167,-2,512,512
65.0705,0.00847844,-2,512,512
66.0797,0.00878392,-2,512,512
67.0886,0.00909567,-2,512,512
68.0055,0.00938047,-2,512,512
69.0137,0.00968828,-2,512,512
70.0216,0.00998055,-2,512,512
71.0291,0.0102456,-2,512,512
72.0362,0.0104713,-2,512,512
73.0429,0.0106466,-2,512,512
74.0493,0.0107616,-2,512,512
75.0552,0.0108082,-2,512,512
76.0608,0.0107789,-2,512,512
77.0659,0.0106657,-2,512,512
78.0705,0.0104566,-2,512,512
79.0748,0.0101304,-2,512,512
80.0785,0.00965428,-2,512,512
81.0819,0.00898957,-2,512,512
82.0849,0.00810686,-2,512,512
83.0875,0.00700087,-2,512,512
84.0897,0.00569704,-2,512,512
85.0007,0.00438296,-2,512,512
86.0025,0.0028561,-2,512,512
87.0042,0.00130897,-2,512,512
88.0059,-0.000198675,-2,512,512
89.0076,-0.00161901,-2,512,512
90.0094,-0.00291688,-2,512,512
91.0111,-0.00406823,-2,512,512
92.0129,-0.00505574,-2,512,512
93.0146,-0.00586237,-2,512,512
94.0164,-0.00648798,-2,512,512
95.0182,-0.00693318,-2,512,512
96.02,-0.00720917,-2,512,512
97.0218,-0.00732836,-2,512,512
98.0236,-0.00730885,-2,512,512
99.0254,-0.00717061,-2,512,512
100.027,-0.00693466,-2,512,512
101.029,-0.00662106,-2,512,512
102.031,-0.00624832,-2,512,512
103.033,-0.00583278,-2,512,512
104.035,-0.00538879,-2,512,512
105.037,-0.00492896,-2,512,512
106.039,-0.00446456,-2,512,512
107.041,-0.00400569,-2,512,512
108.043,-0.00356122,-2,512,512
109.045,-0.00313867,-2,512,512
110.047,-0.0027438,-2,512,512
111.049,-0.00238051,-2,512,512
112.051,-0.00205068,-2,512,512
113.053,-0.00175443,-2,512,512
114.055,-0.00149046,-2,512,512
115.058,-0.00125647,-2,512,512
116.06,-0.00104958,-2,512,512
117.062,-0.000866891,-2,512,512
118.064,-0.00070439,-2,512,512
119.067,-0.000559444,-2,512,512
