time,surface_elevation,reference_data,number_of_local_cells,number_of_global_cells
0,9.27368e-05,-2,8192,8192
1.01145,0.000111084,-2,8192,8192
2.00045,0.000133961,-2,8192,8192
3.01196,0.000163894,-2,8192,8192
4.00103,0.000201436,-2,8192,8192
5.0126,0.000250855,-2,8192,8192
6.00172,0.00031324,-2,8192,8192
7.01335,0.000395931,-2,8192,8192
8.00252,0.000501079,-2,8192,8192
9.01419,0.000641484,-2,8192,8192
10.0034,0.000820903,-2,8192,8192
11.0152,0.0010569,-2,8192,8192
12.0045,0.00134347,-2,8192,8192
13.0163,0.00170513,-2,8192,8192
14.0057,0.00214639,-2,8192,8192
15.0177,0.00270937,-2,8192,8192
16.0073,0.003391,-2,8192,8192
17.0195,0.00424818,-2,8192,8192
18.0093,0.00527025,-2,8192,8192
19.022,0.00653086,-2,8192,8192
20.013,0.00799531,-2,8192,8192
21.0056,0.00969792,-2,8192,8192
22.0002,0.011625,-2,8192,8192
23.0197,0.0137803,-2,8192,8192
24.019,0.015982,-2,8192,8192
25.0208,0.0181504,-2,8192,8192
26.0021,0.0200853,-2,8192,8192
27.0083,0.0217128,-2,8192,8192
28.0165,0.0228428,-2,8192,8192
29.0035,0.023383,-2,8192,8192
30.015,0.023342,-2,8192,8192
31.0047,0.0227674,-2,8192,8192
32.0185,0.0217262,-2,8192,8192
33.0097,0.0203808,-2,8192,8192
34.0007,0.0188301,-2,8192,8192
35.0146,0.0171426,-2,8192,8192
36.0053,0.0154869,-2,8192,8192
37.0189,0.013859,-2,8192,8192
38.0093,0.0123826,-2,8192,8192
39.0226,0.0110214,-2,8192,8192
40.0128,0.00985254,-2,8192,8192
41.0028,0.00884663,-2,8192,8192
42.0157,0.00798063,-2,8192,8192
43.0055,0.00728299,-2,8192,8192
44.0182,0.00670626,-2,8192,8192
45.0079,0.0062607,-2,8192,8192
46.0204,0.00591012,-2,8192,8192
47.0098,0.00565576,-2,8192,8192
48.0221,0.0054714,-2,8192,8192
49.0113,0.00535383,-2,8192,8192
50.0004,0.00528996,-2,8192,8192
51.0124,0.00527375,-2,8192,8192
52.0013,0.00530036,-2,8192,8192
53.0131,0.00536536,-2,8192,8192
54.0018,0.00546106,-2,8192,8192
55.0133,0.00558809,-2,8192,8192
56.0017,0.00573802,-2,8192,8192
57.013,0.00591648,-2,8192,8192
58.0011,0.00611584,-2,8192,8192
59.0121,0.00634672,-2,8192,8192
60.0229,0.00660559,-2,8192,8192
61.0106,0.00688553,-2,8192,8192
62.021,0.00719904,-2,8192,8192
63.0083,0.00753087,-2,8192,8192
64.0184,0.00789329,-2,8192,8192
65.0228,0.00826956,-2,8192,8192
66.0075,0.00864444,-2,8192,8192
67.0196,0.00902809,-2,8192,8192
68.0076,0.0093971,-2,8192,8192
69.0118,0.00976331,-2,8192,8192
70.0203,0.0101155,-2,8192,8192
71.0054,0.0104365,-2,8192,8192
72.0132,0.0107335,-2,8192,8192
73.0205,0.0109921,-2,8192,8192
74.0044,0.0112018,-2,8192,8192
75.0108,0.0113678,-2,8192,8192
76.0167,0.0114809,-2,8192,8192
77.0221,0.0115389,-2,8192,8192
78.0041,0.0115427,-2,8192,8192
79.0084,0.0114948,-2,8192,8192
80.0121,0.0113921,-2,8192,8192
81.0154,0.0112298,-2,8192,8192
82.0182,0.0110468,-2,8192,8192
83.0204,0.0108921,-2,8192,8192
84.0223,0.0104793,-2,8192,8192
85.001,0.00916594,-2,8192,8192
86.0022,0.00654249,-2,8192,8192
87.0031,0.00300286,-2,8192,8192
88.0038,-0.000761335,-2,8192,8192
89.0044,-0.00418969,-2,8192,8192
90.0049,-0.00695574,-2,8192,8192
91.0054,-0.00894585,-2,8192,8192
92.0059,-0.0101772,-2,8192,8192
93.0064,-0.0107495,-2,8192,8192
94.0069,-0.0108113,-2,8192,8192
95.0074,-0.0105238,-2,8192,8192
96.0079,-0.010026,-2,8192,8192
97.0084,-0.00941368,-2,8192,8192
98.0089,-0.00874162,-2,8192,8192
99.0094,-0.00803928,-2,8192,8192
100.01,-0.00732773,-2,8192,8192
101.01,-0.00662702,-2,8192,8192
102.011,-0.00595441,-2,8192,8192
103.011,-0.00531992,-2,8192,8192
104.012,-0.00472522,-2,8192,8192
105.013,-0.00416706,-2,8192,8192
106.013,-0.00364243,-2,8192,8192
107.014,-0.00315214,-2,8192,8192
108.014,-0.00270075,-2,8192,8192
109.015,-0.00229381,-2,8192,8192
110.015,-0.00193489,-2,8192,8192
111.016,-0.00162454,-2,8192,8192
112.017,-0.00136085,-2,8192,8192
113.017,-0.00114001,-2,8192,8192
114.018,-0.000956341,-2,8192,8192
115.019,-0.000802655,-2,8192,8192
116.02,-0.00067151,-2,8192,8192
117.02,-0.000556735,-2,8192,8192
118.021,-0.000454253,-2,8192,8192
119.022,-0.000361689,-2,8192,8192
