time,surface_elevation,reference_data,number_of_local_cells,number_of_global_cells
0,9.06808e-06,-2,65536,65536
1.00128,9.07685e-06,-2,65536,65536
2.00257,9.08035e-06,-2,65536,65536
3.00387,9.05884e-06,-2,65536,65536
4.00122,8.91313e-06,-2,65536,65536
5.00254,8.50989e-06,-2,65536,65536
6.00388,7.76899e-06,-2,65536,65536
7.00125,6.67856e-06,-2,65536,65536
8.0026,5.25198e-06,-2,65536,65536
9.00395,3.53267e-06,-2,65536,65536
10.0013,1.57395e-06,-2,65536,65536
11.0027,-5.91059e-07,-2,65536,65536
12.0002,-2.88173e-06,-2,65536,65536
13.0016,-5.23808e-06,-2,65536,65536
14.0031,-7.57639e-06,-2,65536,65536
15.0007,-9.83025e-06,-2,65536,65536
16.0023,-1.19801e-05,-2,65536,65536
17,-1.39883e-05,-2,65536,65536
18.0019,-1.58628e-05,-2,65536,65536
19.0001,-1.75886e-05,-2,65536,65536
20.0031,-1.91857e-05,-2,65536,65536
21.0038,-2.06499e-05,-2,65536,65536
22.0025,-2.19921e-05,-2,65536,65536
23.0035,-2.3228e-05,-2,65536,65536
24.0031,-2.43625e-05,-2,65536,65536
25.0011,-2.54054e-05,-2,65536,65536
26.0015,-2.62647e-05,-2,65536,65536
27.0001,8.5283e-05,-2,65536,65536
28.0007,0.000553406,-2,65536,65536
29.003,0.000761835,-2,65536,65536
30.0028,0.00112202,-2,65536,65536
31.0038,0.0014451,-2,65536,65536
32.0018,0.00154296,-2,65536,65536
33.0001,0.00189645,-2,65536,65536
34.0023,0.00249674,-2,65536,65536
35.0002,0.00332102,-2,65536,65536
36.0021,0.0043863,-2,65536,65536
37.0038,0.00581202,-2,65536,65536
38.0014,0.0074369,-2,65536,65536
39.0028,0.00929628,-2,65536,65536
40.0001,0.0118403,-2,65536,65536
41.0013,0.0153241,-2,65536,65536
42.0025,0.0196123,-2,65536,65536
43.0035,0.0246421,-2,65536,65536
44.0004,0.0300889,-2,65536,65536
45.0012,0.0353293,-2,65536,65536
46.002,0.0399988,-2,65536,65536
47.0026,0.0436786,-2,65536,65536
48.0031,0.0460528,-2,65536,65536
49.0036,0.0470876,-2,65536,65536
50.0039,0.0476474,-2,65536,65536
51,0.0473368,-2,65536,65536
52.0001,0.0463974,-2,65536,65536
53.0001,0.0450304,-2,65536,65536
54.004,0.0433239,-2,65536,65536
55.0037,0.0413644,-2,65536,65536
56.0033,0.0391884,-2,65536,65536
57.0028,0.0368285,-2,65536,65536
58.0021,0.0342968,-2,65536,65536
59.0012,0.0315893,-2,65536,65536
60.0002,0.0286834,-2,65536,65536
61.0031,0.0255169,-2,65536,65536
62.0017,0.0220209,-2,65536,65536
63.0001,0.0174871,-2,65536,65536
64.0024,0.0106041,-2,65536,65536
65.0003,0.00579401,-2,65536,65536
66.0007,-0.0122058,-2,65536,65536
67.0001,-0.0122058,-2,65536,65536
68.0028,-0.0122058,-2,65536,65536
69.0032,-0.0122058,-2,65536,65536
70.0038,-0.0122058,-2,65536,65536
71,-0.0122058,-2,65536,65536
72.004,-0.0121075,-2,65536,65536
73.0034,-0.0106015,-2,65536,65536
74.0024,-0.00803792,-2,65536,65536
75.0009,-0.0121217,-2,65536,65536
76.0029,-0.0121326,-2,65536,65536
77.0003,-0.0121326,-2,65536,65536
78.0012,-0.0121326,-2,65536,65536
79.0016,-0.0121326,-2,65536,65536
80.0013,-0.0121326,-2,65536,65536
81.0005,-0.0121326,-2,65536,65536
82.0033,-0.0121326,-2,65536,65536
83.0017,-0.0121226,-2,65536,65536
84.0036,-0.0117186,-2,65536,65536
85.0012,-0.0100143,-2,65536,65536
86.0025,-0.00845725,-2,65536,65536
87.0036,-0.00757288,-2,65536,65536
88.0004,-0.00693604,-2,65536,65536
89.001,-0.00635092,-2,65536,65536
90.0016,-0.00582705,-2,65536,65536
91.002,-0.0053861,-2,65536,65536
92.0025,-0.00509388,-2,65536,65536
93.0029,-0.00480879,-2,65536,65536
94.0034,-0.00447834,-2,65536,65536
95.0038,-0.00409521,-2,65536,65536
96.0003,-0.00373584,-2,65536,65536
97.0007,-0.00341062,-2,65536,65536
98.0012,-0.00311374,-2,65536,65536
99.0016,-0.00283772,-2,65536,65536
100.002,-0.00257699,-2,65536,65536
101.003,-0.00232766,-2,65536,65536
102.003,-0.00208653,-2,65536,65536
103.003,-0.00185102,-2,65536,65536
104.004,-0.00162025,-2,65536,65536
105,-0.00139484,-2,65536,65536
106.001,-0.00117233,-2,65536,65536
107.001,-0.000953118,-2,65536,65536
108.002,-0.000736711,-2,65536,65536
109.002,-0.000522255,-2,65536,65536
110.003,-0.00030873,-2,65536,65536
111.003,-9.73065e-05,-2,65536,65536
112,4.35482e-05,-2,65536,65536
113.001,0.000178573,-2,65536,65536
114.001,0.000402954,-2,65536,65536
115.002,0.000660394,-2,65536,65536
116.003,0.00091481,-2,65536,65536
117.003,0.00116075,-2,65536,65536
118,0.00139812,-2,65536,65536
119.001,0.00162911,-2,65536,65536
