time,surface_elevation,reference_data,number_of_local_cells,number_of_global_cells
0,8.98791e-06,-2,16384,16384
1.00128,8.96325e-06,-2,16384,16384
2.00259,8.7791e-06,-2,16384,16384
3.00392,8.49799e-06,-2,16384,16384
4.00527,8.19772e-06,-2,16384,16384
5.00665,7.91226e-06,-2,16384,16384
6.00805,7.65207e-06,-2,16384,16384
7.00947,7.41831e-06,-2,16384,16384
8.01091,7.20895e-06,-2,16384,16384
9.01236,7.02112e-06,-2,16384,16384
10.0138,6.852e-06,-2,16384,16384
11.0153,6.69907e-06,-2,16384,16384
12.001,6.56228e-06,-2,16384,16384
13.0026,6.43543e-06,-2,16384,16384
14.0042,6.31932e-06,-2,16384,16384
15.0059,6.21267e-06,-2,16384,16384
16.0077,6.1144e-06,-2,16384,16384
17.0097,6.02362e-06,-2,16384,16384
18.0117,5.93955e-06,-2,16384,16384
19.0141,5.86153e-06,-2,16384,16384
20.0014,5.79008e-06,-2,16384,16384
21.0063,5.72295e-06,-2,16384,16384
22.0132,5.67856e-06,-2,16384,16384
23.0064,5.93943e-06,-2,16384,16384
24.002,9.0535e-06,-2,16384,16384
25.0001,2.85379e-05,-2,16384,16384
26.0006,9.87848e-05,-2,16384,16384
27.0032,0.000329488,-2,16384,16384
28.0078,0.00056174,-2,16384,16384
29.0141,0.000745117,-2,16384,16384
30.0057,0.000945422,-2,16384,16384
31.0148,0.00126721,-2,16384,16384
32.0087,0.00160444,-2,16384,16384
33.003,0.00199923,-2,16384,16384
34.0133,0.00260113,-2,16384,16384
35.0073,0.00346885,-2,16384,16384
36.001,0.00461612,-2,16384,16384
37.0109,0.00606173,-2,16384,16384
38.0043,0.00779298,-2,16384,16384
39.0139,0.00992937,-2,16384,16384
40.0071,0.0126252,-2,16384,16384
41.0002,0.0159704,-2,16384,16384
42.0094,0.020067,-2,16384,16384
43.0023,0.0247029,-2,16384,16384
44.0113,0.0297611,-2,16384,16384
45.0039,0.0346145,-2,16384,16384
46.0127,0.0389401,-2,16384,16384
47.0052,0.0423563,-2,16384,16384
48.0138,0.0448327,-2,16384,16384
49.006,0.0462842,-2,16384,16384
50.0144,0.0468981,-2,16384,16384
51.0064,0.0467742,-2,16384,16384
52.0146,0.0460619,-2,16384,16384
53.0064,0.0449015,-2,16384,16384
54.0143,0.04335,-2,16384,16384
55.0059,0.04153,-2,16384,16384
56.0135,0.0394312,-2,16384,16384
57.0048,0.0371563,-2,16384,16384
58.0122,0.034647,-2,16384,16384
59.0031,0.0319864,-2,16384,16384
60.0102,0.0290731,-2,16384,16384
61.0008,0.0259678,-2,16384,16384
62.0075,0.0225087,-2,16384,16384
63.014,0.0163378,-2,16384,16384
64.004,0.00923783,-2,16384,16384
65.01,0.00556842,-2,16384,16384
66.0159,-0.0102728,-2,16384,16384
67.0052,-0.0102728,-2,16384,16384
68.0059,-0.0102728,-2,16384,16384
69.0108,-0.0102728,-2,16384,16384
70.0154,-0.0102728,-2,16384,16384
71.0035,-0.0102728,-2,16384,16384
72.0073,-0.0102728,-2,16384,16384
73.0107,-0.0102728,-2,16384,16384
74.0136,-0.0102728,-2,16384,16384
75.016,-0.0102728,-2,16384,16384
76.0018,-0.0102728,-2,16384,16384
77.0033,-0.0102728,-2,16384,16384
78.0042,-0.0102728,-2,16384,16384
79.0046,-0.0102728,-2,16384,16384
80.0046,-0.0102728,-2,16384,16384
81.004,-0.0102728,-2,16384,16384
82.003,-0.0102728,-2,16384,16384
83.0015,-0.0102728,-2,16384,16384
84.0157,-0.0102728,-2,16384,16384
85.0135,-0.0102462,-2,16384,16384
86.011,-0.0100269,-2,16384,16384
87.0083,-0.00926007,-2,16384,16384
88.0054,-0.00830681,-2,16384,16384
89.0023,-0.00738029,-2,16384,16384
90.0153,-0.00658882,-2,16384,16384
91.0122,-0.00592962,-2,16384,16384
92.009,-0.00540614,-2,16384,16384
93.0059,-0.00492464,-2,16384,16384
94.0028,-0.00447522,-2,16384,16384
95.0157,-0.00413892,-2,16384,16384
96.0126,-0.00384158,-2,16384,16384
97.0094,-0.00352485,-2,16384,16384
98.0063,-0.00319203,-2,16384,16384
99.0032,-0.00285847,-2,16384,16384
100,-0.00253764,-2,16384,16384
101.013,-0.00223093,-2,16384,16384
102.01,-0.00194828,-2,16384,16384
103.007,-0.0016868,-2,16384,16384
104.004,-0.00144296,-2,16384,16384
105.001,-0.0012136,-2,16384,16384
106.014,-0.000989575,-2,16384,16384
107.011,-0.00078056,-2,16384,16384
108.008,-0.00059402,-2,16384,16384
109.005,-0.000418249,-2,16384,16384
110.002,-0.000237335,-2,16384,16384
111.015,-4.19711e-05,-2,16384,16384
112.012,0.000161623,-2,16384,16384
113.009,0.000369816,-2,16384,16384
114.007,0.000580197,-2,16384,16384
115.004,0.000795336,-2,16384,16384
116.001,0.00101235,-2,16384,16384
117.015,0.00123391,-2,16384,16384
118.012,0.00144685,-2,16384,16384
119.009,0.00164893,-2,16384,16384
