time,surface_elevation,reference_data,number_of_local_cells,number_of_global_cells
0,9.19187e-05,-2,1024,1024
1.0172,0.00011103,-2,1024,1024
2.03447,0.000135142,-2,1024,1024
3.0518,0.000165354,-2,1024,1024
4.00562,0.000202702,-2,1024,1024
5.0231,0.000253897,-2,1024,1024
6.04065,0.000320521,-2,1024,1024
7.05827,0.000407669,-2,1024,1024
8.01234,0.000513929,-2,1024,1024
9.03009,0.00066143,-2,1024,1024
10.0479,0.000853133,-2,1024,1024
11.0022,0.0010808,-2,1024,1024
12.0201,0.00138405,-2,1024,1024
13.0382,0.00176295,-2,1024,1024
14.0564,0.00223617,-2,1024,1024
15.011,0.00278532,-2,1024,1024
16.0294,0.00350575,-2,1024,1024
17.0479,0.0043958,-2,1024,1024
18.003,0.00540424,-2,1024,1024
19.0222,0.00668617,-2,1024,1024
20.0425,0.00819455,-2,1024,1024
21.0005,0.00981284,-2,1024,1024
22.0245,0.0117319,-2,1024,1024
23.0506,0.0137924,-2,1024,1024
24.0149,0.0157682,-2,1024,1024
25.0458,0.0178024,-2,1024,1024
26.0144,0.0195145,-2,1024,1024
27.0498,0.0209987,-2,1024,1024
28.0222,0.0219702,-2,1024,1024
29.0611,0.0224949,-2,1024,1024
30.0366,0.0224962,-2,1024,1024
31.0131,0.0220546,-2,1024,1024
32.0558,0.021167,-2,1024,1024
33.0339,0.0200323,-2,1024,1024
34.0118,0.0186972,-2,1024,1024
35.0547,0.0171492,-2,1024,1024
36.0322,0.015662,-2,1024,1024
37.0096,0.0142034,-2,1024,1024
38.052,0.0127317,-2,1024,1024
39.0291,0.0114651,-2,1024,1024
40.006,0.0103277,-2,1024,1024
41.048,0.0092672,-2,1024,1024
42.0247,0.00841703,-2,1024,1024
43.0013,0.00769972,-2,1024,1024
44.0429,0.00707052,-2,1024,1024
45.0193,0.00659611,-2,1024,1024
46.0606,0.00619966,-2,1024,1024
47.0368,0.00591873,-2,1024,1024
48.0129,0.00571516,-2,1024,1024
49.0539,0.00557296,-2,1024,1024
50.0298,0.0055012,-2,1024,1024
51.0056,0.00548161,-2,1024,1024
52.0463,0.00551106,-2,1024,1024
53.0218,0.00558017,-2,1024,1024
54.0623,0.00569324,-2,1024,1024
55.0376,0.00583295,-2,1024,1024
56.0128,0.00600342,-2,1024,1024
57.0528,0.00621822,-2,1024,1024
58.0277,0.00644997,-2,1024,1024
59.0025,0.0067103,-2,1024,1024
60.042,0.00701749,-2,1024,1024
61.0165,0.00732975,-2,1024,1024
62.0556,0.00768312,-2,1024,1024
63.0297,0.00802651,-2,1024,1024
64.0035,0.00837357,-2,1024,1024
65.0419,0.00873842,-2,1024,1024
66.0152,0.00906752,-2,1024,1024
67.0531,0.00939855,-2,1024,1024
68.0258,0.00968723,-2,1024,1024
69.063,0.00997105,-2,1024,1024
70.035,0.0102137,-2,1024,1024
71.0067,0.0104309,-2,1024,1024
72.0426,0.0106289,-2,1024,1024
73.0134,0.0107753,-2,1024,1024
74.0484,0.0108811,-2,1024,1024
75.0183,0.0109272,-2,1024,1024
76.0523,0.0109159,-2,1024,1024
77.0212,0.010847,-2,1024,1024
78.0541,0.0107072,-2,1024,1024
79.0221,0.0105061,-2,1024,1024
80.0542,0.0101942,-2,1024,1024
81.0214,0.00976929,-2,1024,1024
82.0526,0.00910421,-2,1024,1024
83.0191,0.00820736,-2,1024,1024
84.0497,0.00690287,-2,1024,1024
85.0157,0.0053465,-2,1024,1024
86.0459,0.00340567,-2,1024,1024
87.0115,0.00143553,-2,1024,1024
88.0415,-0.000682994,-2,1024,1024
89.0071,-0.0025615,-2,1024,1024
90.0371,-0.0043452,-2,1024,1024
91.0027,-0.00574112,-2,1024,1024
92.0327,-0.00689496,-2,1024,1024
93.0627,-0.007712,-2,1024,1024
94.0283,-0.00819236,-2,1024,1024
95.0583,-0.00843742,-2,1024,1024
96.024,-0.00845803,-2,1024,1024
97.054,-0.00830391,-2,1024,1024
98.0196,-0.0080351,-2,1024,1024
99.0497,-0.00765473,-2,1024,1024
100.015,-0.00723919,-2,1024,1024
101.045,-0.00675701,-2,1024,1024
102.011,-0.00628367,-2,1024,1024
103.041,-0.00576703,-2,1024,1024
104.007,-0.00527838,-2,1024,1024
105.037,-0.0047583,-2,1024,1024
106.003,-0.00427715,-2,1024,1024
107.033,-0.00377751,-2,1024,1024
108.063,-0.00329978,-2,1024,1024
109.029,-0.002879,-2,1024,1024
110.06,-0.00246573,-2,1024,1024
111.026,-0.00211589,-2,1024,1024
112.056,-0.00178498,-2,1024,1024
113.022,-0.00151386,-2,1024,1024
114.053,-0.00126456,-2,1024,1024
115.019,-0.00106393,-2,1024,1024
116.05,-0.000879572,-2,1024,1024
117.016,-0.000730951,-2,1024,1024
118.047,-0.000592716,-2,1024,1024
119.013,-0.000478008,-2,1024,1024
