time,surface_elevation,reference_data,number_of_local_cells,number_of_global_cells
0,9.15124e-05,-2,32768,32768
1.00021,0.000109197,-2,32768,32768
2.00043,0.000131728,-2,32768,32768
3.00068,0.000160513,-2,32768,32768
4.00095,0.000197392,-2,32768,32768
5.00124,0.000244781,-2,32768,32768
6.00154,0.000305877,-2,32768,32768
7.00185,0.000384915,-2,32768,32768
8.00218,0.000487561,-2,32768,32768
9.00252,0.000621345,-2,32768,32768
10.0029,0.000796345,-2,32768,32768
11.0033,0.00102403,-2,32768,32768
12.0037,0.00130695,-2,32768,32768
13.0041,0.00165321,-2,32768,32768
14.0046,0.00208991,-2,32768,32768
15.0052,0.00263717,-2,32768,32768
16.0059,0.00331026,-2,32768,32768
17.0067,0.00413715,-2,32768,32768
18.0076,0.00514847,-2,32768,32768
19.0088,0.00637126,-2,32768,32768
20.0109,0.00782364,-2,32768,32768
21.0034,0.00949402,-2,32768,32768
22.0092,0.0114243,-2,32768,32768
23.0061,0.013542,-2,32768,32768
24.0054,0.0157876,-2,32768,32768
25.0072,0.0180325,-2,32768,32768
26.0114,0.0201101,-2,32768,32768
27.0063,0.0218218,-2,32768,32768
28.0032,0.0230381,-2,32768,32768
29.0018,0.0236602,-2,32768,32768
30.0018,0.0236632,-2,32768,32768
31.0032,0.0230929,-2,32768,32768
32.0055,0.0220468,-2,32768,32768
33.0083,0.0206504,-2,32768,32768
34.0108,0.0190339,-2,32768,32768
35.0016,0.0173358,-2,32768,32768
36.0038,0.0156137,-2,32768,32768
37.0058,0.0139623,-2,32768,32768
38.0078,0.012434,-2,32768,32768
39.0095,0.011061,-2,32768,32768
40.0112,0.00985861,-2,32768,32768
41.0012,0.00884015,-2,32768,32768
42.0026,0.00797507,-2,32768,32768
43.004,0.007265,-2,32768,32768
44.0052,0.00669316,-2,32768,32768
45.0063,0.00624441,-2,32768,32768
46.0073,0.00590357,-2,32768,32768
47.0083,0.00565384,-2,32768,32768
48.0091,0.00547607,-2,32768,32768
49.0098,0.00535636,-2,32768,32768
50.0104,0.00528801,-2,32768,32768
51.011,0.00526625,-2,32768,32768
52.0114,0.00528633,-2,32768,32768
53.0002,0.00534348,-2,32768,32768
54.0003,0.00543803,-2,32768,32768
55.0004,0.00556808,-2,32768,32768
56.0003,0.00572522,-2,32768,32768
57.0001,0.0059008,-2,32768,32768
58.0112,0.00610092,-2,32768,32768
59.0107,0.00633179,-2,32768,32768
60.01,0.00659858,-2,32768,32768
61.0091,0.00689325,-2,32768,32768
62.0081,0.00720653,-2,32768,32768
63.0069,0.00753643,-2,32768,32768
64.005,0.00788534,-2,32768,32768
65.0091,0.00825521,-2,32768,32768
66.0103,0.00863661,-2,32768,32768
67.0043,0.00902085,-2,32768,32768
68.0023,0.00940622,-2,32768,32768
69.0046,0.00978516,-2,32768,32768
70.0017,0.0101461,-2,32768,32768
71.0099,0.0104877,-2,32768,32768
72.0062,0.0107951,-2,32768,32768
73.0022,0.0110659,-2,32768,32768
74.0091,0.0112963,-2,32768,32768
75.0041,0.0114764,-2,32768,32768
76.0101,0.0116065,-2,32768,32768
77.0041,0.0116817,-2,32768,32768
78.009,0.0117038,-2,32768,32768
79.0019,0.0116754,-2,32768,32768
80.0057,0.0116034,-2,32768,32768
81.009,0.0114853,-2,32768,32768
82.0004,0.0112485,-2,32768,32768
83.0026,0.0107759,-2,32768,32768
84.0044,0.0103,-2,32768,32768
85.0059,0.00971193,-2,32768,32768
86.0069,0.00750424,-2,32768,32768
87.0077,0.00343045,-2,32768,32768
88.0083,-0.00115975,-2,32768,32768
89.0086,-0.00521459,-2,32768,32768
90.0089,-0.00830106,-2,32768,32768
91.0092,-0.0103279,-2,32768,32768
92.0095,-0.0113506,-2,32768,32768
93.0097,-0.0115389,-2,32768,32768
94.01,-0.0111851,-2,32768,32768
95.0103,-0.0106017,-2,32768,32768
96.0105,-0.00996079,-2,32768,32768
97.0108,-0.00928707,-2,32768,32768
98.0111,-0.00857167,-2,32768,32768
99.0113,-0.00783186,-2,32768,32768
100,-0.00710594,-2,32768,32768
101,-0.00639964,-2,32768,32768
102.001,-0.00573131,-2,32768,32768
103.001,-0.00510185,-2,32768,32768
104.001,-0.00451175,-2,32768,32768
105.002,-0.00396207,-2,32768,32768
106.002,-0.00345078,-2,32768,32768
107.002,-0.00297529,-2,32768,32768
108.002,-0.00253638,-2,32768,32768
109.003,-0.0021383,-2,32768,32768
110.003,-0.00178524,-2,32768,32768
111.004,-0.00147874,-2,32768,32768
112.004,-0.00121817,-2,32768,32768
113.004,-0.00100149,-2,32768,32768
114.005,-0.000824737,-2,32768,32768
115.005,-0.00068198,-2,32768,32768
116.006,-0.000565839,-2,32768,32768
117.006,-0.000468649,-2,32768,32768
118.007,-0.000384128,-2,32768,32768
119.007,-0.000308447,-2,32768,32768
