Executable + params: ../../build/sierpi_intel_tbb_forced_scan_tsunami_parallel_release -o 32768 -k 10 -A 1 -d 20 -a 8 -t 100
Problem size with different number of CPUs using function optimization
THREADS	MTPS	TIMESTEPS	TIMESTEP_SIZE	SECONDS_FOR_SIMULATION	AVERAGE_TRIANGLES	AVERAGE_PARTITIONS
80	65.4086	100	0.000491318		1.9047e+07	1762.6
64	54.7753	100	0.000491318		1.9047e+07	1438.5
60	42.5185	100	0.000491318		1.9047e+07	1364.2
40	45.4038	100	0.000491318		1.9047e+07	955.9
32	36.1135	100	0.000491318		1.9047e+07	593.1
30	35.1695	100	0.000491318		1.9047e+07	753.1
20	24.6948	100	0.000491318		1.9047e+07	533.8
16	19.8456	100	0.000491318		1.9047e+07	345.9
10	14.2061	100	0.000491318		1.9047e+07	289.9
8	12.5627	100	0.000491318		1.9047e+07	238.6
4	8.60847	100	0.000491318		1.9047e+07	111.9
2	4.55951	100	0.000491318		1.9047e+07	71.2
1	2.39922	100	0.000491318		1.9047e+07	48
