4.700000000000000000e+01 1.124029093080025632e-02
1.070000000000000000e+02 1.071079624125559349e-02
1.670000000000000000e+02 1.112952789662813302e-02
2.270000000000000000e+02 1.049665318623738131e-02
2.870000000000000000e+02 1.181234351952298312e-02
3.469999999999999432e+02 1.107677441632404225e-02
4.070000000000000000e+02 1.129012549517938169e-02
4.670000000000000000e+02 1.045258045087393839e-02
5.270000000000000000e+02 1.056432703899190528e-02
5.870000000000000000e+02 9.625557059735001530e-03
6.470000000000000000e+02 1.636466338823083788e-03
6.470000000000000000e+02 1.163646633904136252e-02
7.070000000000000000e+02 7.597254720167256892e-03
7.670000000000000000e+02 9.508126020591589622e-03
8.270000000000000000e+02 1.136928804044146091e-02
8.870000000000000000e+02 1.018095253493811470e-02
9.470000000000000000e+02 9.943335184289026074e-03
1.007000000000000000e+03 1.065665559326589573e-02
1.067000000000000000e+03 9.321137247752631083e-03
1.127000000000000000e+03 8.937007524764339905e-03
1.187000000000000000e+03 1.150449764008953935e-02
1.247000000000000000e+03 9.023842650094593409e-03
1.307000000000000000e+03 1.049528142266353825e-02
1.366999999999999773e+03 9.919056615217414219e-03
1.426999999999999773e+03 1.029541465413785772e-02
1.487000000000000000e+03 7.624605715136567596e-03
1.547000000000000000e+03 3.906883692252449691e-03
1.547000000000000000e+03 1.190688369206327479e-02
1.607000000000000000e+03 9.142506190073618200e-03
1.607000000000000000e+03 -1.185749380965717137e-02
1.607000000000000000e+03 2.214250618999358267e-02
1.607000000000000000e+03 -1.885749381017376436e-02
1.607000000000000000e+03 4.714250619053927949e-02
1.667000000000000000e+03 -1.166826551161648240e-02
1.667000000000000000e+03 2.033173448853631271e-02
1.667000000000000000e+03 -1.866826551122358069e-02
1.667000000000000000e+03 -5.266826551178382942e-02
1.667000000000000000e+03 4.331734488005167805e-03
1.727000000000000000e+03 2.647483352029667003e-02
1.727000000000000000e+03 3.547483352031122195e-02
1.727000000000000000e+03 4.547483351962000597e-02
1.727000000000000000e+03 2.047483351998380385e-02
1.727000000000000000e+03 4.474833519452658948e-03
1.787000000000000000e+03 -4.279281401977641508e-04
1.787000000000000000e+03 -1.042792814041604288e-02
1.787000000000000000e+03 -1.442792814032145543e-02
1.787000000000000000e+03 -1.427928140401490964e-03
1.787000000000000000e+03 2.257207185994047904e-02
1.847000000000000000e+03 2.662372168106230674e-02
1.907000000000000000e+03 -1.369941252960416023e-03
1.967000000000000000e+03 6.591362383915111423e-03
2.027000000000000000e+03 1.950791545459651388e-02
2.087000000000000000e+03 6.380004325365007389e-03
2.147000000000000000e+03 5.207918854466697667e-03
2.207000000000000000e+03 1.399195236808736809e-02
2.267000000000000000e+03 7.324016169150127098e-04
2.327000000000000000e+03 1.642956676641915692e-02
2.387000000000000000e+03 9.083751362595648970e-03
2.447000000000000000e+03 7.695262313973216806e-03
2.507000000000000000e+03 9.264409855859412346e-03
2.567000000000000000e+03 7.915075302662444301e-04
2.627000000000000000e+03 1.227687214850448072e-02
2.687000000000000455e+03 1.072082378050254192e-02
2.747000000000000455e+03 4.123685711419966538e-03
2.807000000000000455e+03 1.248578442027792335e-02
2.867000000000000455e+03 1.080744955743284663e-02
2.927000000000000455e+03 4.089013908924243879e-03
2.987000000000000455e+03 1.433081336108443793e-02
3.047000000000000455e+03 2.533186891014338471e-03
3.107000000000000455e+03 8.696476525074103847e-03
3.167000000000000455e+03 2.821027303980372380e-03
3.227000000000000455e+03 7.907187273303861730e-03
3.287000000000000455e+03 1.295530742572736926e-02
3.347000000000000455e+03 -1.034258296385814901e-03
3.406999999999999545e+03 7.938846939396171365e-03
3.466999999999999545e+03 8.874982844645273872e-03
3.526999999999999545e+03 5.774511977506335825e-03
3.586999999999999545e+03 6.637799695454305038e-03
3.646999999999999545e+03 1.465214146264770534e-03
3.706999999999999545e+03 9.257126222109945957e-03
3.766999999999999545e+03 4.013909538116422482e-03
3.826999999999999545e+03 9.735940393511555158e-03
3.886999999999999545e+03 7.423597745400911663e-03
3.946999999999999545e+03 6.077263171391678043e-03
4.006999999999999545e+03 7.697320844272326212e-03
4.066999999999999545e+03 6.284157490881625563e-03
4.127000000000000000e+03 6.838162369604106061e-03
4.187000000000000000e+03 9.359727234368619975e-03
4.247000000000000000e+03 3.849246298159414437e-03
4.307000000000000000e+03 6.307116205789498053e-03
4.367000000000000000e+03 7.733735995316237677e-03
4.427000000000000000e+03 5.129507067067606840e-03
4.487000000000000000e+03 5.494833158081746660e-03
4.547000000000000000e+03 2.830120293765503448e-03
4.607000000000000000e+03 1.013577676985732978e-02
4.667000000000000000e+03 4.412213100295048207e-03
4.727000000000000000e+03 4.659842007640691008e-03
4.787000000000000000e+03 6.879078368001501076e-03
4.847000000000000000e+03 4.070339178724680096e-03
4.907000000000000000e+03 4.234043544784071855e-03
4.967000000000000000e+03 5.370612615479330998e-03
5.027000000000000000e+03 5.480469572830770630e-03
5.087000000000000000e+03 5.564039583987323567e-03
5.147000000000000000e+03 6.621749769692542031e-03
5.207000000000000000e+03 4.654029171433649026e-03
5.267000000000000000e+03 2.661308715687482618e-03
5.327000000000000000e+03 5.644021180160052609e-03
5.387000000000000000e+03 3.602601153033901937e-03
5.447000000000000000e+03 1.537484999062144198e-03
5.507000000000000000e+03 3.449110836299951188e-03
5.567000000000000000e+03 3.337918472425371874e-03
5.627000000000000000e+03 5.204349412451847456e-03
5.687000000000000000e+03 2.048846777142898645e-03
5.747000000000000000e+03 5.871855294572014827e-03
5.807000000000000000e+03 3.673821254778886214e-03
5.867000000000000000e+03 2.455192482557322364e-03
5.927000000000000000e+03 3.216418296688061673e-03
5.987000000000000000e+03 3.957949457799259108e-03
6.047000000000000000e+03 2.680238163520698436e-03
6.107000000000000000e+03 2.383737991294765379e-03
6.167000000000000909e+03 4.068903853294614237e-03
6.227000000000000909e+03 2.736191993790271226e-03
6.287000000000000909e+03 3.386059916010708548e-03
6.347000000000000909e+03 4.018966368676046841e-03
6.407000000000000909e+03 2.635371301039413083e-03
6.467000000000000909e+03 3.235735820453555789e-03
6.527000000000000909e+03 1.820522175876249094e-03
6.587000000000000909e+03 3.390193695850030053e-03
6.647000000000000909e+03 9.452147687625256367e-04
6.707000000000000909e+03 1.486050804487604182e-03
6.767000000000000909e+03 3.013168186043913011e-03
6.827000000000000909e+03 5.270342435323982500e-04
6.887000000000000909e+03 2.811721424222923815e-05
6.947000000000000909e+03 2.516886212106328458e-03
7.007000000000000909e+03 9.938111743394983932e-04
7.067000000000000909e+03 1.459362837522348855e-03
7.127000000000000909e+03 1.914012706947687548e-03
7.187000000000000909e+03 -1.641767007640737575e-03
7.247000000000000909e+03 -2.075033971777884290e-04
7.307000000000000909e+03 -7.827229073882335797e-04
7.367000000000000909e+03 1.633048621442867443e-03
7.427000000000000909e+03 1.040285929775564000e-03
7.487000000000000909e+03 1.439464294890058227e-03
7.547000000000000909e+03 3.831059483673016075e-03
7.607000000000000909e+03 -1.784452259016688913e-03
7.667000000000000909e+03 -4.065942785018705763e-04
7.727000000000000909e+03 9.651104837757884525e-04
7.787000000000000909e+03 -6.688605735689634457e-04
7.847000000000000909e+03 -1.308029733081639279e-03
7.907000000000000909e+03 2.048081003522383980e-03
7.967000000000000909e+03 -1.600050133674812969e-03
8.027000000000000909e+03 -2.519447025406407192e-04
8.087000000000000909e+03 9.287590091844322160e-05
8.147000000000000909e+03 -2.565109582974400837e-03
8.207000000000000000e+03 -2.254223318232106976e-04
8.267000000000000000e+03 -8.875834628270240501e-04
8.327000000000000000e+03 -1.551114066387526691e-03
8.387000000000000000e+03 7.844647361707757227e-04
8.447000000000000000e+03 -8.803682203506468795e-04
8.507000000000000000e+03 -1.545134192383557092e-03
8.567000000000000000e+03 -1.209354572893062141e-03
8.627000000000000000e+03 -8.725509096620953642e-04
8.687000000000000000e+03 4.657550471165450290e-04
8.747000000000000000e+03 -1.939586973094264977e-04
8.807000000000000000e+03 -1.851214399721357040e-03
8.867000000000000000e+03 -2.505534634110517800e-03
8.927000000000000000e+03 -1.564423182571772486e-04
8.987000000000000000e+03 -2.803460752147657331e-03
9.047000000000000000e+03 -1.446113657948444597e-03
9.107000000000000000e+03 -4.083925204213301186e-03
9.167000000000000000e+03 -2.716420057367940899e-03
9.227000000000000000e+03 -5.343123409147665370e-03
9.287000000000000000e+03 -9.635610058467136696e-04
9.347000000000000000e+03 -4.577259203870198689e-03
9.407000000000000000e+03 -6.183744981171912514e-03
9.467000000000000000e+03 -1.782545990863582119e-03
9.527000000000000000e+03 -5.373190590944432188e-03
9.587000000000000000e+03 -4.955207880811940413e-03
9.647000000000000000e+03 -4.528127726189268287e-03
9.707000000000000000e+03 -4.091480809620406944e-03
9.767000000000000000e+03 -4.644798665140115190e-03
9.827000000000000000e+03 -6.187613692418381106e-03
9.887000000000000000e+03 -4.719459216175891925e-03
9.947000000000000000e+03 -5.239869510660355445e-03
1.000700000000000000e+04 -6.748379827513417695e-03
1.006700000000000000e+04 -7.244526447721000295e-03
1.012700000000000000e+04 -5.727846700210648123e-03
1.018700000000000000e+04 -8.197878997634688858e-03
1.024700000000000000e+04 -7.654162879589421209e-03
1.030700000000000000e+04 -8.096239043879904784e-03
1.036700000000000000e+04 -8.523649371454666834e-03
1.042700000000000000e+04 -9.935936969668546226e-03
1.048700000000000000e+04 -9.332646202892647125e-03
1.054700000000000000e+04 -9.713322728202911094e-03
1.060700000000000000e+04 -9.077513524061942007e-03
1.066700000000000000e+04 -9.424766925803851336e-03
1.072700000000000000e+04 -8.754632662203221116e-03
1.078700000000000000e+04 -1.006666187640803400e-02
1.084700000000000000e+04 -9.360407182612107135e-03
1.090700000000000000e+04 -9.635422673454741016e-03
1.096700000000000000e+04 -9.891263963254459668e-03
1.102700000000000000e+04 -9.127488218837243039e-03
1.108700000000000000e+04 -1.034365420400717994e-02
1.114700000000000000e+04 -1.053932228114717873e-02
1.120700000000000000e+04 -1.071405448055884335e-02
1.126700000000000000e+04 -1.086741450126282871e-02
1.132700000000000000e+04 -9.998967764659028035e-03
1.138700000000000000e+04 -1.010828142807440599e-02
1.144700000000000000e+04 -1.219492443215131061e-02
1.150700000000000000e+04 -1.225846751731296536e-02
1.156700000000000000e+04 -1.229848326511273626e-02
1.162700000000000000e+04 -1.131454612914239988e-02
1.168700000000000000e+04 -1.230623244919115677e-02
1.174700000000000000e+04 -1.227312050650652964e-02
1.180700000000000000e+04 -1.121479054017981980e-02
1.186700000000000000e+04 -1.113082477513671620e-02
1.192700000000000000e+04 -1.302080745699640829e-02
1.198700000000000000e+04 -1.188432487379031954e-02
1.204700000000000000e+04 -1.172096540085476590e-02
1.210700000000000000e+04 -1.153031951980665326e-02
1.216700000000000000e+04 -1.331197984472964890e-02
1.222700000000000000e+04 -1.306554115399194416e-02
1.228700000000000000e+04 -1.179060043159552151e-02
1.234700000000000000e+04 -1.248675686747446889e-02
1.240700000000000000e+04 -1.415361191448027967e-02
1.246700000000000000e+04 -1.379076929424627451e-02
1.252700000000000000e+04 -1.339783505227387650e-02
1.258700000000000000e+04 -1.397441755125328200e-02
1.264700000000000000e+04 -1.352012752158771036e-02
1.270700000000000000e+04 -1.303457808990060585e-02
1.276700000000000000e+04 -1.451738478499464691e-02
1.282700000000000000e+04 -1.496816559392755153e-02
1.288700000000000000e+04 -1.338654096434765961e-02
1.294700000000000000e+04 -1.277213384310016409e-02
1.300700000000000000e+04 -1.412456969410413876e-02
1.306700000000000000e+04 -1.544347654453304131e-02
1.312700000000000000e+04 -1.372848497521772515e-02
1.318700000000000000e+04 -1.397922818523511523e-02
1.324700000000000000e+04 -1.519534199087502202e-02
1.330700000000000000e+04 -1.437646485373988980e-02
1.336700000000000000e+04 -1.452223792148288339e-02
1.342700000000000000e+04 -1.563230503688828321e-02
1.348700000000000000e+04 -1.570631276263156906e-02
1.354700000000000000e+04 -1.774391041635681177e-02
1.360700000000000000e+04 -1.574475008328590775e-02
1.366700000000000000e+04 -1.670848664616642054e-02
1.372700000000000000e+04 -1.763477781332767336e-02
1.378700000000000000e+04 -1.552328412708448013e-02
1.384700000000000000e+04 -1.637366900376946433e-02
1.390700000000000000e+04 -1.618559874350466998e-02
1.396700000000000000e+04 -1.695874255983653711e-02
1.402700000000000000e+04 -1.669277259952650638e-02
1.408700000000000182e+04 -1.638736397126194788e-02
1.414700000000000000e+04 -1.704219474504498066e-02
1.420700000000000182e+04 -1.665694600978895323e-02
1.426700000000000000e+04 -1.623130186362686800e-02
1.432700000000000182e+04 -1.876494945190643193e-02
1.438700000000000000e+04 -1.825757898131996626e-02
1.444700000000000182e+04 -1.770888373994239373e-02
1.450700000000000000e+04 -1.811856011954660062e-02
1.456700000000000182e+04 -1.748630764359404566e-02
1.462700000000000000e+04 -1.781182896684185835e-02
1.468700000000000182e+04 -1.809482991939148633e-02
1.474700000000000000e+04 -1.833501950568461325e-02
1.480700000000000182e+04 -1.753210993865650380e-02
1.486700000000000000e+04 -1.768581664418888977e-02
1.492700000000000182e+04 -1.779585829808638664e-02
1.498700000000000000e+04 -1.786195682507241145e-02
1.504700000000000182e+04 -1.588383743091981160e-02
1.510700000000000000e+04 -1.786122861358308000e-02
1.516700000000000182e+04 -1.579386218327272218e-02
1.522700000000000000e+04 -1.568147327452606987e-02
1.528700000000000182e+04 -1.652380037467082730e-02
1.534700000000000000e+04 -1.732058532888913760e-02
1.540700000000000182e+04 -1.707157336750242393e-02
1.546700000000000000e+04 -1.577651310253713746e-02
1.552700000000000182e+04 -1.643515657178795664e-02
1.558700000000000000e+04 -1.504725923587102443e-02
1.564700000000000182e+04 -1.561257999492227100e-02
1.570700000000000000e+04 -1.613088120939210057e-02
1.576700000000000182e+04 -1.560192871511389967e-02
1.582700000000000000e+04 -1.502549183078372153e-02
1.588700000000000182e+04 -1.540134337392373709e-02
1.684700000000000000e+04 -1.275459994849370560e-02
1.774700000000000000e+04 -1.131487493330496363e-02
1.864700000000000000e+04 -1.095263529714429751e-02
1.954700000000000000e+04 -8.403476330386183690e-03
2.044700000000000000e+04 -4.598383028678654227e-03
2.134699999999999636e+04 -6.629374302065116353e-04
2.224700000000000000e+04 1.086537413357291371e-03
2.314700000000000000e+04 3.149778536680969410e-03
2.314700000000000000e+04 2.149778537386737298e-03
2.320700000000000000e+04 1.140694501373218372e-03
2.326699999999999636e+04 1.178728983177279588e-03
2.332700000000000000e+04 2.263652287183504086e-03
2.338700000000000000e+04 2.395231536866049282e-03
2.344700000000000000e+04 1.573230693793448154e-03
2.350699999999999636e+04 7.974105928951757960e-04
2.356700000000000000e+04 2.067528937004681211e-03
2.362700000000000000e+04 2.383340334745298605e-03
2.368700000000000000e+04 1.744596317621471826e-03
2.374699999999999636e+04 1.151045334154332522e-03
2.380700000000000000e+04 -3.975671916123246774e-04
2.386700000000000000e+04 1.098501133128593210e-03
2.392700000000000000e+04 1.638989695493364707e-03
2.398699999999999636e+04 2.223634901383775286e-03
2.404700000000000000e+04 2.852170191545155831e-03
2.404700000000000000e+04 -1.478298090660246089e-04
2.410700000000000000e+04 5.243260657152859494e-04
2.416700000000000000e+04 4.239830090227769688e-03
2.422699999999999636e+04 1.998406942220753990e-03
2.428700000000000000e+04 2.799778408189013135e-03
2.434700000000000000e+04 2.643663417984498665e-03
2.440700000000000000e+04 3.529778062329569366e-03
2.446699999999999636e+04 4.457835610992333386e-03
2.452700000000000000e+04 3.427546542297932319e-03
2.458700000000000000e+04 2.438618556880101096e-03
2.464700000000000000e+04 3.490756603241607081e-03
2.470699999999999636e+04 3.583662904020457063e-03
2.476700000000000000e+04 3.717036966008890886e-03
2.482700000000000000e+04 3.890575621880998369e-03
2.488700000000000000e+04 4.103973028577456716e-03
2.494699999999999636e+04 5.356920713893487118e-03
2.494699999999999636e+04 4.356920714599255007e-03
2.500700000000000000e+04 4.649107585464662407e-03
2.506700000000000000e+04 3.980219954428321216e-03
2.512700000000000000e+04 5.349941561689774971e-03
2.518699999999999636e+04 4.757953612170240376e-03
2.524700000000000000e+04 4.203934771794592962e-03
2.530700000000000000e+04 5.687561213562730700e-03
2.536700000000000000e+04 5.208506637245591264e-03
2.542699999999999636e+04 5.766442294770968147e-03
2.548700000000000000e+04 4.361036997579503804e-03
2.554700000000000000e+04 4.991957167476357426e-03
2.560700000000000000e+04 5.658866841258713976e-03
2.566699999999999636e+04 4.361427703770459630e-03
2.572700000000000000e+04 6.099299112975131720e-03
2.578700000000000000e+04 5.872138120139425155e-03
2.584700000000000000e+04 7.679599497350864112e-03
2.584700000000000000e+04 5.679599497852905188e-03
2.590699999999999636e+04 6.521335770230507478e-03
2.596700000000000000e+04 5.396997223215294071e-03
2.602700000000000000e+04 3.306231953501992393e-03
2.608700000000000000e+04 4.248685869242763147e-03
2.614699999999999636e+04 5.224002732575172558e-03
2.620700000000000000e+04 3.231824180147668812e-03
2.626700000000000000e+04 4.271789749509480316e-03
2.632700000000000000e+04 4.343536903434142005e-03
2.638699999999999636e+04 3.446701060966006480e-03
2.644700000000000000e+04 4.580915616315905936e-03
2.650700000000000000e+04 3.745811974113166798e-03
2.656700000000000000e+04 4.941019567013427150e-03
2.662699999999999636e+04 4.166165890637785196e-03
2.668700000000000000e+04 4.420876528456574306e-03
2.674700000000000000e+04 5.704775167941988911e-03
2.674700000000000000e+04 4.704775167738262098e-03
2.680700000000000000e+04 5.017483649680798408e-03
2.686699999999999636e+04 6.358621973959088791e-03
2.692700000000000000e+04 6.727808337018359452e-03
2.698700000000000000e+04 5.124659155626432039e-03
2.704700000000000000e+04 4.548789095679239836e-03
2.710699999999999636e+04 5.999811107358254958e-03
2.716700000000000000e+04 4.477336437958001625e-03
2.722700000000000000e+04 5.980974669910210650e-03
2.728700000000000000e+04 6.510333745609386824e-03
2.734699999999999636e+04 5.065019997346098535e-03
2.740700000000000000e+04 3.644638177320302930e-03
2.746700000000000000e+04 4.248791469763091300e-03
2.752700000000000000e+04 3.877081544487737119e-03
2.758699999999999636e+04 3.529108568727679085e-03
2.764700000000000000e+04 3.204471237950201612e-03
2.770700000000000000e+04 4.902766803752456326e-03
2.776700000000000000e+04 2.623591108203982003e-03
2.782699999999999636e+04 2.366538607020629570e-03
2.788700000000000000e+04 2.131202400050824508e-03
2.794700000000000000e+04 2.917174259891908150e-03
2.800700000000000000e+04 2.724044658862112556e-03
2.806699999999999636e+04 1.551402800032519735e-03
2.812700000000000000e+04 3.398836650376324542e-03
2.818700000000000000e+04 2.265932955197058618e-03
2.824700000000000000e+04 3.152277292429062072e-03
2.830700000000000000e+04 3.057454069676168729e-03
2.836700000000000000e+04 2.981046584864088800e-03
2.842700000000000000e+04 2.922637029769248329e-03
2.848700000000000000e+04 2.881806535697251093e-03
2.854700000000000000e+04 3.858135205518919975e-03
2.860700000000000000e+04 1.851202116085914895e-03
2.866700000000000000e+04 2.860585386770253535e-03
2.872700000000000000e+04 1.885862176095542964e-03
2.878700000000000000e+04 1.926608731992018875e-03
2.884700000000000000e+04 1.982400410270201974e-03
2.890700000000000000e+04 3.052811706766078714e-03
2.896700000000000000e+04 2.137416288860549685e-03
2.902700000000000000e+04 1.235787032783264294e-03
2.902700000000000000e+04 -7.642129676241893321e-04
2.908700000000000000e+04 7.634749602675583446e-02
2.908700000000000000e+04 4.347496026639419142e-03
2.908700000000000000e+04 1.013474960273015313e-01
2.908700000000000000e+04 1.013474960273015313e-01
2.908700000000000000e+04 9.934749602689407766e-02
2.914700000000000000e+04 7.647211463608982740e-02
2.914700000000000000e+04 1.044721146363372100e-01
2.914700000000000000e+04 1.014721146366355242e-01
2.914700000000000000e+04 1.014721146366355242e-01
2.914700000000000000e+04 -5.278853632262325846e-04
2.920700000000000000e+04 6.092135135986609384e-04
2.920700000000000000e+04 1.609213513802387752e-03
2.920700000000000000e+04 1.609213513802387752e-03
2.920700000000000000e+04 -3.907864866050658748e-04
2.920700000000000000e+04 -1.390786486808792688e-03
2.926700000000000000e+04 7.583626174891833216e-04
2.926700000000000000e+04 3.758362618100363761e-03
2.926700000000000000e+04 1.758362617692910135e-03
2.926700000000000000e+04 -2.416373827145434916e-04
2.932700000000000000e+04 9.191312756229308434e-04
2.938700000000000000e+04 3.091088178734935354e-03
2.944700000000000000e+04 4.273801439921953715e-03
2.950700000000000000e+04 2.466838602231291588e-03
2.956700000000000000e+04 6.697666804029722698e-04
2.962700000000000000e+04 1.882152195321395993e-03
2.968700000000000000e+04 1.035611840052297339e-04
2.974700000000000000e+04 2.333559253202110995e-03
2.980700000000000364e+04 1.571711597534886096e-03
2.986700000000000000e+04 2.817583025716885459e-03
2.992700000000000000e+04 1.070738003363658208e-03
2.998700000000000000e+04 3.307406723251915537e-04
3.004700000000000364e+04 5.971548753223032691e-04
3.010700000000000000e+04 -2.130455788574181497e-03
3.016700000000000000e+04 1.474720356782199815e-04
3.022700000000000000e+04 1.430501506547443569e-03
3.028700000000000364e+04 -1.281804386053408962e-03
3.034700000000000000e+04 1.011720632959622890e-05
3.040700000000000000e+04 -6.941709771126625128e-04
3.046700000000000000e+04 -1.395106283780478407e-03
3.052700000000000364e+04 -1.093126101295638364e-03
3.058700000000000000e+04 -2.788667848108161706e-03
3.064700000000000000e+04 -2.482168922142591327e-03
3.070700000000000000e+04 -2.174066693442000542e-03
3.076700000000000364e+04 -4.864798454946139827e-03
3.082700000000000000e+04 -4.554801399535790551e-03
3.088700000000000000e+04 -4.244512599143490661e-03
3.094700000000000000e+04 -4.934368957037804648e-03
3.100700000000000364e+04 -7.624807197316840757e-03
3.106700000000000000e+04 -9.316263814071135130e-03
3.112700000000000000e+04 -1.000917506371479249e-02
3.118700000000000000e+04 -1.070397691728430800e-02
3.124700000000000364e+04 -1.240110504841140937e-02
3.130700000000000000e+04 -1.410099477379844757e-02
3.136700000000000000e+04 -1.480408106363029219e-02
3.142700000000000000e+04 -1.451079848357039737e-02
3.148700000000000364e+04 -1.422158116838545538e-02
3.154700000000000000e+04 -1.193686280748806894e-02
3.160700000000000000e+04 -5.657076595525722951e-03
3.166700000000000000e+04 5.617344779238919728e-03
3.172700000000000364e+04 2.288596917878749082e-02
3.178700000000000000e+04 4.414836502928665141e-02
3.184700000000000000e+04 7.440410137678554747e-02
3.190700000000000000e+04 1.106527478714269819e-01
3.196700000000000364e+04 1.538938748490181752e-01
3.202700000000000000e+04 1.951270533172646537e-01
3.208700000000000000e+04 2.333518550149165094e-01
3.214700000000000000e+04 2.615678524180111708e-01
3.220700000000000364e+04 2.747746187878874480e-01
3.226700000000000000e+04 2.679717281826015096e-01
3.232700000000000000e+04 2.401587554932120838e-01
3.238700000000000000e+04 1.953352764849114465e-01
3.244700000000000364e+04 1.375008677978257765e-01
3.250700000000000000e+04 7.565510700260347221e-02
3.256700000000000000e+04 1.379757261565828230e-02
3.262700000000000000e+04 -3.907215587423706893e-02
3.268700000000000364e+04 -7.595449797190667596e-02
3.274700000000000000e+04 -9.384987215344153810e-02
3.280700000000000000e+04 -8.975869582718587480e-02
3.286700000000000000e+04 -6.468138531818112824e-02
3.292700000000000000e+04 -2.761835583260108251e-02
3.298700000000000000e+04 1.142997856186411809e-02
3.304700000000000000e+04 3.446320498005661648e-02
3.310700000000000000e+04 2.648091172250133241e-02
3.316700000000000000e+04 -8.517311668583715800e-03
3.322700000000000000e+04 -5.953187440991314361e-02
3.328700000000000000e+04 -1.025631844249801361e-01
3.334700000000000000e+04 -1.166116483345831512e-01
3.340700000000000000e+04 -9.967767142370576039e-02
3.346700000000000000e+04 -6.576165761180163827e-02
3.352700000000000000e+04 -3.486400942620093701e-02
3.358700000000000000e+04 -3.198512798553565517e-02
3.364700000000000000e+04 -4.912541294925176771e-02
3.370700000000000000e+04 -6.028526252703159116e-02
3.376700000000000000e+04 -4.746507341315009398e-02
3.382700000000000000e+04 -7.665240786991489585e-03
3.388700000000000000e+04 3.511384171633835649e-02
3.394700000000000000e+04 5.487178205021336908e-02
3.400700000000000000e+04 3.760818976206792286e-02
3.406700000000000000e+04 3.322676022435189225e-03
3.412700000000000000e+04 -2.298514633548620623e-02
3.418700000000000000e+04 -1.931566280291008297e-02
3.424700000000000000e+04 1.033074282986490289e-02
3.430700000000000000e+04 3.995368850701197516e-02
3.436700000000000000e+04 3.955279392994270893e-02
3.442700000000000000e+04 6.127680570898519363e-03
3.448700000000000000e+04 -3.832202828289155150e-02
3.454700000000000000e+04 -5.379670751608500723e-02
3.460700000000000000e+04 -2.629673016144806752e-02
3.466700000000000000e+04 2.117753263246413553e-02
3.472700000000000000e+04 4.462571162093809107e-02
3.478700000000000000e+04 2.304743948207033100e-02
3.484700000000000000e+04 -1.955764914691826561e-02
3.490700000000000000e+04 -3.418991765374812530e-02
3.496700000000000000e+04 -7.849727426219033077e-03
3.502700000000000000e+04 2.146256217656627996e-02
3.508700000000000000e+04 1.374659383327525575e-02
3.514700000000000000e+04 -2.299798769035987789e-02
3.520700000000000000e+04 -5.077153554793767398e-02
3.526700000000000000e+04 -5.157440076254715677e-02
3.532700000000000000e+04 -4.440693222750269342e-02
3.538700000000000000e+04 -4.426947666070191190e-02
3.544700000000000000e+04 -3.516237860185356112e-02
3.550700000000000000e+04 -1.208598037737829145e-02
3.556700000000000000e+04 1.959377921593841165e-03
3.562700000000000000e+04 -1.602664155052480055e-02
3.568700000000000000e+04 -4.204437435146246571e-02
3.574700000000000000e+04 -3.609415375376556767e-02
3.580700000000000000e+04 -1.317631069741764804e-02
3.586700000000000000e+04 -2.929117378789669601e-02
3.592700000000000000e+04 -7.243906926760246279e-02
3.598700000000000000e+04 -7.462032099192583701e-02
3.604700000000000000e+04 -3.083525040710810572e-02
3.610700000000000000e+04 -1.808417653865035390e-02
3.616700000000000000e+04 -6.436741596553474665e-02
3.622700000000000000e+04 -9.668528279780730372e-02
3.628700000000000000e+04 -6.403808865161408903e-02
3.634700000000000000e+04 -2.942614263974974165e-02
3.640700000000000000e+04 -5.384975134165870259e-02
3.646700000000000000e+04 -8.730921879759989679e-02
3.652700000000000000e+04 -7.080484646849072305e-02
3.658700000000000000e+04 -4.733693323123588925e-02
3.664700000000000000e+04 -6.190577536108321510e-02
3.670700000000000000e+04 -6.651166649680817500e-02
3.676700000000000000e+04 -2.515489763572986703e-02
3.682700000000000000e+04 -4.835757115870364942e-03
3.688700000000000000e+04 -4.255453058340208372e-02
3.694700000000000000e+04 -6.131150098735815845e-02
3.700700000000000000e+04 -1.510694855824112892e-02
3.706700000000000000e+04 8.058849213739449624e-03
3.712700000000000000e+04 -2.081438240657007555e-02
3.718700000000000000e+04 -1.872691538119397592e-02
3.724700000000000000e+04 2.732098112119274447e-02
3.730700000000000000e+04 3.432904073451936711e-02
3.736700000000000000e+04 -3.703000073983275797e-03
3.742700000000000000e+04 -1.077540199730719905e-02
3.748700000000000000e+04 4.111577127332566306e-03
3.754700000000000000e+04 -2.104231765952135902e-02
3.760700000000000000e+04 -3.423733842100773472e-02
3.766700000000000000e+04 1.552626568354753545e-02
3.772700000000000000e+04 3.824824841922236374e-02
3.778700000000000000e+04 -6.071633504689089023e-03
3.784700000000000000e+04 -1.843362043291563168e-02
3.790700000000000000e+04 2.116205027414252982e-02
3.796700000000000000e+04 2.171514423298503971e-02
3.802700000000000000e+04 -1.477456993416126352e-02
3.808700000000000000e+04 -6.307320592895848677e-03
3.814700000000000000e+04 1.011666692465951201e-02
3.820700000000000000e+04 -2.250282966906524962e-02
3.826700000000000000e+04 -4.116602960584714310e-02
3.832700000000000000e+04 -1.087314903634251095e-02
3.838700000000000000e+04 4.375598961814830545e-03
3.844700000000000000e+04 1.580004424795333762e-03
3.850700000000000000e+04 2.273986049567611190e-02
3.856700000000000000e+04 2.785496344313287409e-02
3.862700000000000000e+04 -7.488731898774858564e-05
3.868700000000000000e+04 -6.049889233509020414e-03
3.874700000000000000e+04 -2.070236570943961851e-03
3.880700000000000000e+04 -2.713612042498425581e-02
3.886700000000000000e+04 -2.924772871119785123e-02
3.892700000000000000e+04 1.759475387643760769e-02
3.898700000000000000e+04 3.739114583095215494e-02
3.904700000000000000e+04 1.414126889267208753e-02
3.910700000000000000e+04 1.844948016696434934e-03
3.916700000000000000e+04 -7.497988581235404126e-03
3.922700000000000000e+04 -2.588770943384588463e-02
3.928700000000000000e+04 -2.832437981123803183e-02
3.934700000000000000e+04 -2.380816169988975162e-02
3.940700000000000000e+04 -3.133921379867388168e-02
3.946700000000000000e+04 -2.691769151351763867e-02
3.952700000000000000e+04 -1.054374693922000006e-02
3.958700000000000000e+04 -9.217528856424905825e-03
3.964700000000000000e+04 -7.939182719383097719e-03
3.970700000000000000e+04 -5.708850650080421474e-03
3.976700000000000000e+04 -1.152667142105201492e-02
3.982700000000000000e+04 2.607219543278915808e-03
3.988700000000000000e+04 2.569269017385522602e-02
3.994700000000000000e+04 1.372961178276455030e-02
4.000700000000000000e+04 -2.282140952956979163e-03
4.006700000000000000e+04 6.657310030277585611e-03
4.012700000000000000e+04 1.654784619040583493e-02
4.018700000000000000e+04 1.838935237810801482e-02
4.024700000000000000e+04 7.181716857303399593e-03
4.030700000000000000e+04 -1.107516870160907274e-02
4.036700000000000000e+04 -3.814092069660546258e-04
4.042700000000000000e+04 1.326289385360723827e-02
4.048700000000000000e+04 -1.214235757015558193e-02
4.054700000000000000e+04 -1.859725809208612191e-02
4.060700000000000000e+04 1.889810110878897831e-02
4.066700000000000000e+04 3.134363230674352963e-02
4.072700000000000000e+04 1.573925123375374824e-02
4.078700000000000000e+04 1.108487706915184390e-02
4.084700000000000000e+04 -7.619567540132266004e-03
4.090700000000000000e+04 -2.137415647484885994e-02
4.096700000000000000e+04 -4.178960151875799056e-03
4.102700000000000000e+04 -3.404550807317718863e-05
4.108700000000000000e+04 -6.939476005754841026e-03
4.114700000000000000e+04 1.104688379200524651e-03
4.120700000000000000e+04 -9.016088470161776058e-04
4.126700000000000000e+04 -2.958420684990414884e-03
4.132700000000000000e+04 -7.065796644383226521e-03
4.138700000000000000e+04 -3.122378274292714195e-02
4.144700000000000000e+04 -3.043242149669822538e-02
4.150700000000000000e+04 2.308248068402463105e-03
4.156700000000000000e+04 -1.001809563604183495e-03
4.162700000000000000e+04 -2.336262640528730117e-02
4.168700000000000000e+04 -2.277423097712016897e-02
4.174700000000000000e+04 -1.923664828245819081e-02
4.180700000000000000e+04 -1.074989981952967355e-02
4.186700000000000000e+04 -2.314003588253399357e-03
4.192700000000000000e+04 -1.392897407095006201e-02
4.198700000000000000e+04 -1.759482224497332936e-02
4.204700000000000000e+04 -1.631155558334285161e-02
4.210700000000000000e+04 -3.807917804442695342e-02
4.216700000000000000e+04 -4.689769008928124094e-02
4.222700000000000000e+04 -3.476708865946420701e-02
4.228700000000000000e+04 -4.168736719475418795e-02
4.234700000000000000e+04 -4.665851564004697138e-02
4.240700000000000000e+04 -4.568052042668568902e-02
4.246700000000000000e+04 -4.975336447841982590e-02
4.252700000000000000e+04 -4.287702723195252474e-02
4.258700000000000000e+04 -3.805148461560747819e-02
4.264700000000000000e+04 -4.527670906827552244e-02
4.270700000000000728e+04 -4.555266953138925601e-02
4.276700000000000000e+04 -3.887933145324495854e-02
4.282700000000000000e+04 -3.525665680081147002e-02
4.288699999999999272e+04 -3.768460404990037205e-02
4.294700000000000000e+04 -3.916312819455924910e-02
4.300700000000000000e+04 -2.069218075666867662e-02
4.306700000000000000e+04 -2.271709774504415691e-03
4.312700000000000000e+04 -5.901659828850824852e-03
4.318700000000000728e+04 -1.458197202009614557e-02
4.324700000000000000e+04 -2.031258399802027270e-02
4.330700000000000000e+04 -1.609342995288898237e-02
4.336699999999999272e+04 -1.892444062195863808e-02
4.342700000000000000e+04 -2.380554329556616722e-02
4.348700000000000000e+04 -1.473666182118904544e-02
4.354700000000000000e+04 -1.071771661736420356e-02
4.360700000000000000e+04 -4.748624667627154849e-03
4.366700000000000728e+04 -2.829299531185824890e-03
4.372700000000000000e+04 -2.095965135413280223e-02
4.378700000000000000e+04 -6.139586866993340664e-03
4.384699999999999272e+04 1.563099059512751410e-02
4.390700000000000000e+04 -6.478188897744985297e-04
4.396700000000000000e+04 -9.975911872061260510e-03
4.402700000000000000e+04 -1.535318151218234561e-02
4.408700000000000000e+04 -1.877951758615381550e-02
4.414700000000000728e+04 -2.548065203882288188e-04
4.420700000000000000e+04 -2.778931371722137555e-03
4.426700000000000000e+04 -9.351771844194445293e-03
4.432699999999999272e+04 3.026795689038408455e-03
4.438700000000000000e+04 9.356898198348062579e-03
4.444700000000000000e+04 1.063866597542073578e-02
4.450700000000000000e+04 5.872232624824391678e-03
4.456700000000000000e+04 1.305773505737306550e-02
4.462700000000000728e+04 3.319531348734017229e-02
4.468700000000000000e+04 2.128511140563205117e-02
4.474700000000000000e+04 -6.727244162902934477e-04
4.480699999999999272e+04 1.321956056017370429e-03
4.486700000000000000e+04 6.269306123613205273e-03
4.492700000000000000e+04 7.169482315475761425e-03
4.498700000000000000e+04 2.102264441055012867e-02
4.504700000000000000e+04 2.482895539924356854e-02
4.510700000000000728e+04 5.588581491792865563e-03
4.516700000000000000e+04 3.301692091554286890e-03
4.522700000000000000e+04 5.968459797259129118e-03
4.528699999999999272e+04 8.589060381382296328e-03
4.534700000000000000e+04 7.163672777096508071e-03
4.540700000000000000e+04 -5.307520925271091983e-03
4.546700000000000000e+04 -2.824335497280117124e-03
4.552700000000000000e+04 -2.386582583312701900e-03
4.558700000000000728e+04 1.005929279926931486e-03
4.564700000000000000e+04 2.353394669626140967e-03
4.570700000000000000e+04 -1.934398876346676843e-02
4.576699999999999272e+04 -1.508602028479799628e-02
4.582700000000000000e+04 -1.087249611009610817e-02
4.588700000000000000e+04 -2.170320939876546618e-02
4.594700000000000000e+04 -1.657795028495456791e-02
4.600700000000000000e+04 -1.549650588003714802e-02
4.606700000000000728e+04 -1.745866029978060396e-02
4.612700000000000000e+04 -2.346419466630322859e-02
4.618700000000000000e+04 -2.651288712877430953e-02
4.624699999999999272e+04 -1.360451288201147690e-02
4.630700000000000000e+04 -5.738844175539270509e-03
4.636700000000000000e+04 -1.091565032947983127e-02
4.642700000000000000e+04 -4.134697754125227220e-03
4.648700000000000000e+04 -2.395749968854943290e-03
4.654700000000000728e+04 -1.269856761155097047e-02
4.660700000000000000e+04 6.957091550248151179e-03
4.666700000000000000e+04 1.757147258558688918e-02
4.672699999999999272e+04 9.144823403403279372e-03
4.678700000000000000e+04 7.677394715756236110e-03
4.684700000000000000e+04 -8.830559964735584799e-03
4.690700000000000000e+04 -5.378784343520237599e-03
4.696700000000000000e+04 3.032980631360260304e-03
4.702700000000000728e+04 1.340499675916362321e-02
4.708700000000000000e+04 1.173752855993370758e-02
4.714700000000000000e+04 -1.196915673608600628e-02
4.720699999999999272e+04 -1.071478920312074479e-02
4.726700000000000000e+04 -1.049909624998690560e-02
4.732700000000000000e+04 -1.321802629718149547e-03
4.738700000000000000e+04 4.817369540432991926e-03
4.744700000000000000e+04 -4.081299241988745052e-03
4.750700000000000728e+04 -1.001752588399540400e-02
4.756700000000000000e+04 -1.899102471543301363e-02
4.762700000000000000e+04 -2.900150750065222383e-02
4.768699999999999272e+04 -4.004868347419687780e-02
4.774700000000000000e+04 -3.813225934391084593e-02
4.780700000000000000e+04 -4.025193932284309994e-02
4.786700000000000000e+04 -3.740742514492012560e-02
4.792700000000000000e+04 -2.559841608126589563e-02
4.798700000000000728e+04 -2.782460896287375363e-02
4.804700000000000000e+04 -1.608569821019045776e-02
4.810700000000000000e+04 -1.638137583631760208e-02
4.816699999999999272e+04 -1.571133148081571562e-02
4.822700000000000000e+04 -1.707525243182317354e-02
4.828700000000000000e+04 -1.847282363542035455e-02
4.834700000000000000e+04 -4.903727725832141005e-03
4.840700000000000000e+04 4.632354958630457986e-03
4.846700000000000728e+04 9.135746338870376348e-03
4.852700000000000000e+04 -4.393229403831355739e-03
4.858700000000000000e+04 -5.954245862085372210e-03
4.864699999999999272e+04 -1.454697443023178494e-02
4.870700000000000000e+04 -1.017108430733060231e-02
4.876700000000000000e+04 9.173757456665043719e-03
4.882700000000000000e+04 6.487885953902150504e-03
4.888700000000000000e+04 2.077163839931017719e-02
4.894700000000000728e+04 1.902535409044503467e-02
4.900700000000000000e+04 2.724937440143548883e-02
4.906700000000000000e+04 3.644404275473789312e-02
4.912699999999999272e+04 2.660970459146483336e-02
4.918700000000000000e+04 2.474670735955442069e-02
4.924700000000000000e+04 7.855400482185359579e-03
4.930700000000000000e+04 2.393613533331517829e-02
4.936700000000000000e+04 1.298926522576948628e-02
4.942700000000000728e+04 1.001514536892500473e-02
4.948700000000000000e+04 1.401413286475872155e-02
4.954700000000000000e+04 2.986586666338553187e-03
4.960699999999999272e+04 1.993286756624002010e-02
4.966700000000000000e+04 1.853338162618456408e-03
4.972700000000000000e+04 -1.251637156201468315e-03
4.978700000000000000e+04 -2.381692243943689391e-03
4.984700000000000000e+04 1.146354078628064599e-02
4.990700000000000728e+04 1.628443153185799019e-02
4.996700000000000000e+04 1.108135127378773177e-02
5.002700000000000000e+04 2.185467296112619806e-02
5.008699999999999272e+04 1.560477117618574994e-02
5.014700000000000000e+04 1.733202211471507326e-02
5.020700000000000000e+04 1.303680355613323627e-02
5.026700000000000000e+04 1.171949484614742687e-02
5.032700000000000000e+04 1.538047686244681245e-02
5.038700000000000728e+04 6.020131992954702582e-03
5.044700000000000000e+04 3.638844110355421435e-03
5.050700000000000000e+04 8.236998548454721458e-03
5.056699999999999272e+04 2.814982067320670467e-03
5.062700000000000000e+04 1.237318283983768197e-02
5.068700000000000000e+04 7.911990416687331162e-03
5.074700000000000000e+04 9.431795702766976319e-03
5.080700000000000000e+04 -6.700907033518888056e-05
5.086700000000000728e+04 -5.584030364843783900e-03
5.092700000000000000e+04 1.881126627267803997e-03
5.098700000000000000e+04 -9.671142038314428646e-03
5.104699999999999272e+04 -2.424043907831219258e-02
5.110700000000000000e+04 -3.482636601711419644e-02
5.116700000000000000e+04 -2.342852321726240916e-02
5.122700000000000000e+04 -3.404650988704815973e-02
5.128700000000000000e+04 -1.567992413038155064e-02
5.134700000000000728e+04 -1.732836296014284017e-02
5.140700000000000000e+04 -2.499142233227757970e-02
5.146700000000000000e+04 -2.266869716549990699e-02
5.152699999999999272e+04 -2.035978137064375915e-02
5.158700000000000000e+04 -1.706426788950921036e-02
5.164700000000000000e+04 -1.478174870044313138e-02
5.170700000000000000e+04 -1.351181487189023755e-02
5.176700000000000000e+04 -1.025405656673683552e-02
5.182700000000000728e+04 -5.008063081731961574e-03
5.188700000000000000e+04 -1.777342287277861033e-02
5.194700000000000000e+04 -6.549723585521860514e-03
5.200699999999999272e+04 -1.233655207124684239e-02
5.206700000000000000e+04 -2.133494441295624711e-03
5.212700000000000000e+04 -9.940136060322402045e-03
5.218700000000000000e+04 9.243938401596096810e-03
5.224700000000000000e+04 1.041914494635420851e-02
5.230700000000000728e+04 1.358590022027783561e-02
5.236700000000000000e+04 3.744621496480249334e-03
5.242700000000000000e+04 -7.104273374352487735e-03
5.248699999999999272e+04 -9.603659727872582152e-04
5.254700000000000000e+04 1.176762649265583605e-03
5.260700000000000000e+04 3.307531947029929142e-03
5.266700000000000000e+04 2.043236185181740439e-02
5.272700000000000000e+04 4.455167273863480659e-02
5.278700000000000728e+04 3.666588540727389045e-02
5.284700000000000000e+04 3.277542104569874937e-02
5.290700000000000000e+04 2.880701210415281821e-03
5.296699999999999272e+04 4.982147781447565649e-03
5.302700000000000000e+04 1.008018295306101209e-02
5.308700000000000000e+04 1.817522919463954167e-02
5.314700000000000000e+04 2.226770921970455674e-02
5.320700000000000000e+04 2.035804597016976913e-02
5.326700000000000728e+04 2.444666257360950112e-02
5.332700000000000000e+04 2.253398232096515130e-02
5.338700000000000000e+04 2.962042863964597927e-02
5.344699999999999272e+04 2.870642506150034023e-02
5.350700000000000000e+04 2.279239519430120708e-02
5.356700000000000000e+04 2.687876269283151487e-02
5.362700000000000000e+04 3.196595123790757498e-02
5.368700000000000000e+04 3.705438449287612457e-02
5.374700000000000728e+04 3.014448609155806480e-02
5.380700000000000000e+04 2.623667959232989233e-02
5.386700000000000000e+04 2.233138846895599272e-02
5.392699999999999272e+04 3.242903605951141799e-02
5.398700000000000000e+04 4.153004555610095849e-02
5.404700000000000000e+04 3.763483997317962348e-02
5.410700000000000000e+04 4.174384210909920512e-02
5.416700000000000000e+04 2.485747452556097414e-02
5.422700000000000728e+04 2.997615951335319551e-02
5.428700000000000000e+04 2.310031907563825371e-02
5.434700000000000000e+04 3.023037488492263947e-02
5.440699999999999272e+04 2.236674826326634502e-02
5.446700000000000000e+04 3.050986014477530262e-02
5.452700000000000000e+04 3.866013106107857311e-02
5.458700000000000000e+04 3.581798109917144757e-02
5.464700000000000000e+04 2.798382988112280145e-02
5.470700000000000728e+04 1.215809653785981936e-02
5.476700000000000000e+04 2.634119966023718007e-02
5.482700000000000000e+04 1.853355730418115854e-02
5.488699999999999272e+04 1.273558692901133327e-02
5.494700000000000000e+04 7.947705395054072142e-03
5.500700000000000000e+04 -8.296710821014130488e-04
5.506700000000000000e+04 1.040387304692558246e-02
5.512700000000000000e+04 1.564875264193688054e-02
5.518700000000000728e+04 1.490538183043099707e-02
5.524700000000000000e+04 1.817417399524856592e-02
5.530700000000000000e+04 2.145554173512209672e-02
5.536699999999999272e+04 1.974989684367756126e-02
5.542700000000000000e+04 2.057650276583444793e-03
5.548700000000000000e+04 1.037921212810033467e-02
5.554700000000000000e+04 1.571499159945233259e-02
5.560700000000000000e+04 2.006539696321851807e-02
5.566700000000000728e+04 1.443083555477642221e-02
5.572700000000000000e+04 -2.188286267482908443e-03
5.578700000000000000e+04 2.084368425130378455e-04
5.584699999999999272e+04 8.621409212537400890e-03
5.590700000000000000e+04 7.051034097457886674e-03
5.596700000000000000e+04 -4.502286327806359623e-03
5.602700000000000000e+04 -2.038151002125232480e-03
5.608700000000000000e+04 1.244383999164710985e-02
5.614700000000000728e+04 1.794408540263248142e-02
5.620700000000000000e+04 3.446298277867754223e-02
5.626700000000000000e+04 2.800092844972823514e-02
5.632699999999999272e+04 2.555831749305070844e-02
5.638700000000000000e+04 2.213554370609926991e-02
5.644700000000000000e+04 2.373299957889685174e-02
5.650700000000000000e+04 2.035107627216348192e-02
5.656700000000000000e+04 1.999016358786320779e-02
5.662700000000000728e+04 1.965064993783016689e-02
5.668700000000000000e+04 2.533292232328676619e-02
5.674700000000000000e+04 3.003736630398634588e-02
5.680699999999999272e+04 2.876436597762221936e-02
5.686700000000000000e+04 1.451430394263297785e-02
5.692700000000000000e+04 1.428756128552777227e-02
5.698700000000000000e+04 6.084517545787093695e-03
5.704700000000000000e+04 1.905550680021406151e-03
5.710700000000000728e+04 1.175103706373192836e-02
5.716700000000000000e+04 1.462135143628984224e-02
5.722700000000000000e+04 1.051686689424968790e-02
5.728699999999999272e+04 1.437954853827250190e-03
5.734700000000000000e+04 -5.615014964860165492e-03
5.740700000000000000e+04 -8.641674575301294681e-03
5.746700000000000000e+04 -9.641657743486575782e-03
5.752700000000000000e+04 -6.614600006287219003e-03
5.758700000000000728e+04 6.439861293074500281e-03
5.764700000000000000e+04 1.452208697719470365e-02
5.770700000000000000e+04 2.663243602364673279e-02
5.776699999999999272e+04 1.577126552456320496e-02
5.782700000000000000e+04 1.693893067022145260e-02
5.788700000000000000e+04 1.613578472733934177e-02
5.794700000000000000e+04 6.362178999552270398e-03
5.800700000000000000e+04 -4.381537169138027821e-03
5.806700000000000728e+04 6.904983539243403357e-03
5.812700000000000000e+04 1.222208643503108760e-02
5.818700000000000000e+04 1.057011477223568363e-02
5.824700000000000000e+04 -2.050590264843776822e-03
5.830700000000000000e+04 -3.639689597548567690e-03
5.836700000000000000e+04 -3.196846264472696930e-03
5.842700000000000000e+04 -6.721725451825477649e-03
5.848700000000000000e+04 -2.139945145245292224e-04
5.854700000000000728e+04 4.326677002609358169e-03
5.860700000000000000e+04 1.390061734036862617e-02
5.866700000000000000e+04 1.250815249295555986e-02
5.872700000000000000e+04 1.214960620109195588e-02
5.878700000000000000e+04 1.982529991892079124e-02
5.884700000000000000e+04 1.653555278880958213e-02
5.890700000000000000e+04 7.280681629708851688e-03
5.896700000000000000e+04 1.206100090621475829e-02
5.902700000000000728e+04 1.787682270878576674e-02
5.908700000000000000e+04 2.372845673380652443e-02
5.914700000000000000e+04 1.661621025141357677e-02
5.920700000000000000e+04 1.354038810131896753e-02
5.926700000000000000e+04 2.450129265889700036e-02
5.932700000000000000e+04 2.349922381017677253e-02
5.938700000000000000e+04 1.453447894618875580e-02
5.944700000000000000e+04 9.607352925740997307e-03
5.950700000000000728e+04 1.871813806155842030e-02
5.956700000000000000e+04 1.286712410183099564e-02
5.962700000000000000e+04 9.054598204784269910e-03
5.968700000000000000e+04 3.280844919572700746e-03
5.974700000000000000e+04 6.546146169966959860e-03
5.980700000000000000e+04 -2.149218775230110623e-03
5.986700000000000000e+04 -1.804973318030533846e-03
5.992700000000000000e+04 4.579156461659295019e-03
5.998699999999999272e+04 1.200344176322687417e-02
6.004700000000000000e+04 4.468151062610559165e-03
6.010700000000000000e+04 3.973550094087840989e-03
6.016700000000000000e+04 1.519901810752344318e-03
6.022700000000000000e+04 1.210746638844284462e-02
6.028700000000000000e+04 1.073650120179081568e-02
6.034700000000000000e+04 3.407260796848277096e-03
6.040700000000000000e+04 -3.880003123413189314e-03
6.046699999999999272e+04 -5.125041714563849382e-03
6.052700000000000000e+04 -2.327609004169062246e-03
6.058700000000000000e+04 2.512538074370240793e-03
6.064700000000000000e+04 1.939563967698632041e-02
6.070700000000000000e+04 1.132193303146777907e-02
6.076700000000000000e+04 -3.708347585416049697e-03
6.082700000000000000e+04 -5.694970866898074746e-03
6.088700000000000000e+04 1.362291520308644976e-03
6.094699999999999272e+04 -3.536335098942799959e-03
6.100700000000000000e+04 -5.390628410168574192e-03
6.106700000000000000e+04 -2.200369141064584255e-03
6.112700000000000000e+04 1.203465894286637194e-02
6.118700000000000000e+04 2.131466900846135104e-02
6.124700000000000728e+04 2.163987113544862950e-02
6.130700000000000000e+04 1.701047231290431228e-02
6.136700000000000000e+04 6.426676416595000774e-03
6.142699999999999272e+04 8.886841942512546666e-04
6.148700000000000000e+04 -2.603306748824252281e-03
6.154700000000000000e+04 -4.910195821139495820e-05
6.160700000000000000e+04 1.551489834128005896e-03
6.166700000000000000e+04 2.198656724431202747e-03
6.172700000000000728e+04 -4.107416396436747164e-03
6.178700000000000000e+04 -1.036654784911661409e-02
6.184700000000000000e+04 -2.578559189714724198e-03
6.190699999999999272e+04 8.256724794591718819e-03
6.196700000000000000e+04 6.139476049611403141e-03
6.202700000000000000e+04 1.069863262273429427e-03
6.208700000000000000e+04 4.805183107237098739e-05
6.214700000000000000e+04 6.074203870412020478e-03
6.220700000000000728e+04 1.114847817643749295e-02
6.226700000000000000e+04 2.710302360355854034e-04
6.232700000000000000e+04 -1.557987802698335145e-03
6.238699999999999272e+04 1.661572870034433436e-03
6.244700000000000000e+04 -7.014229049673303962e-05
6.250700000000000000e+04 -3.752991195142385550e-03
6.256700000000000000e+04 -1.938683513617434073e-02
6.262700000000000000e+04 -1.397153878224344226e-02
6.268700000000000728e+04 -3.506970223497773986e-03
6.274700000000000000e+04 3.006999065291893203e-03
6.274700000000000000e+04 3.006999065291893203e-03
6.280700000000000000e+04 -3.429505824897205457e-03
6.280700000000000000e+04 -3.429505824897205457e-03
6.286699999999999272e+04 -8.816363233563606627e-03
6.286699999999999272e+04 -8.816363233563606627e-03
6.292700000000000000e+04 -3.153454932544264011e-03
6.292700000000000000e+04 -3.153454932544264011e-03
6.298700000000000000e+04 2.559333847784728277e-03
6.298700000000000000e+04 2.559333847784728277e-03
6.304700000000000000e+04 3.221144279450527392e-04
6.304700000000000000e+04 3.221144279450527392e-04
6.310700000000000000e+04 2.134994646439736243e-03
6.310700000000000000e+04 2.134994646439736243e-03
6.316700000000000728e+04 -6.001921122333442327e-03
6.316700000000000728e+04 -6.001921122333442327e-03
6.322700000000000000e+04 -7.088531996487290598e-03
6.322700000000000000e+04 -7.088531996487290598e-03
6.328700000000000000e+04 -9.124740588958957233e-03
6.328700000000000000e+04 -9.124740588958957233e-03
6.334699999999999272e+04 -1.411045301756530534e-02
6.334699999999999272e+04 -1.411045301756530534e-02
6.340700000000000000e+04 -1.504557890439173207e-02
6.340700000000000000e+04 -1.504557890439173207e-02
6.346700000000000000e+04 -1.193003140451764921e-02
6.346700000000000000e+04 -1.193003140451764921e-02
6.352700000000000000e+04 -1.876372718015772989e-02
6.352700000000000000e+04 -1.876372718015772989e-02
6.358700000000000000e+04 -5.546586440686951391e-03
6.358700000000000000e+04 -5.546586440686951391e-03
6.364700000000000728e+04 -6.278532937358249910e-03
6.364700000000000728e+04 -6.278532937358249910e-03
6.370700000000000000e+04 1.040506038407329470e-03
6.370700000000000000e+04 1.040506038407329470e-03
6.376700000000000000e+04 4.105996322323335335e-04
6.376700000000000000e+04 4.105996322323335335e-04
6.382699999999999272e+04 -3.168186568473174702e-03
6.382699999999999272e+04 -3.168186568473174702e-03
6.388700000000000000e+04 -2.695790542020404246e-03
6.388700000000000000e+04 -2.695790542020404246e-03
6.394700000000000000e+04 -2.172153843275737017e-03
6.394700000000000000e+04 -2.172153843275737017e-03
6.400700000000000000e+04 2.402778397481597494e-03
6.400700000000000000e+04 2.402778397481597494e-03
6.406700000000000000e+04 1.029057457344606519e-03
6.406700000000000000e+04 1.029057457344606519e-03
6.412700000000000728e+04 -2.932689667431986891e-04
6.412700000000000728e+04 -2.932689667431986891e-04
6.418700000000000000e+04 -1.456415678057965124e-02
6.418700000000000000e+04 -1.456415678057965124e-02
6.424700000000000000e+04 -1.783565487130545080e-03
6.424700000000000000e+04 -1.783565487130545080e-03
6.430699999999999272e+04 -3.951458194933366030e-03
6.430699999999999272e+04 -3.951458194933366030e-03
6.436700000000000000e+04 -2.067801618068187963e-03
6.436700000000000000e+04 -2.067801618068187963e-03
6.442700000000000000e+04 -2.132566087311715819e-03
6.442700000000000000e+04 -2.132566087311715819e-03
6.448700000000000000e+04 -5.145725551301438827e-03
6.448700000000000000e+04 -5.145725551301438827e-03
6.454700000000000000e+04 -5.107257573399692774e-03
6.454700000000000000e+04 -5.107257573399692774e-03
6.460700000000000728e+04 -8.017143345568911172e-03
6.460700000000000728e+04 -8.017143345568911172e-03
6.466700000000000000e+04 -8.875367686414392665e-03
6.466700000000000000e+04 -8.875367686414392665e-03
6.472700000000000000e+04 4.318080958000791725e-03
6.472700000000000000e+04 4.318080958000791725e-03
6.478699999999999272e+04 -3.436789492297975812e-03
6.478699999999999272e+04 -3.436789492297975812e-03
6.484700000000000000e+04 -1.613997475396899972e-02
6.484700000000000000e+04 -1.613997475396899972e-02
6.490700000000000000e+04 -1.779147417528292863e-02
6.490700000000000000e+04 -1.779147417528292863e-02
6.496700000000000000e+04 -1.039129074979427969e-02
6.496700000000000000e+04 -1.039129074979427969e-02
6.502700000000000000e+04 -1.193943110683903797e-02
6.502700000000000000e+04 -1.193943110683903797e-02
6.508700000000000728e+04 -2.043590551420493284e-02
6.508700000000000728e+04 -2.043590551420493284e-02
6.514700000000000000e+04 -1.988072789663419826e-02
6.514700000000000000e+04 -1.988072789663419826e-02
6.520700000000000000e+04 -1.827391581355186645e-02
6.520700000000000000e+04 -1.827391581355186645e-02
6.526699999999999272e+04 -1.961549046518484829e-02
6.526699999999999272e+04 -1.961549046518484829e-02
6.532700000000000000e+04 -2.290547670145315351e-02
6.532700000000000000e+04 -2.290547670145315351e-02
6.538700000000000000e+04 -1.614390302074752981e-02
6.538700000000000000e+04 -1.614390302074752981e-02
6.544700000000000000e+04 -1.233080156271171290e-02
6.544700000000000000e+04 -1.233080156271171290e-02
6.550700000000000000e+04 -1.346620811455068178e-02
6.550700000000000000e+04 -1.346620811455068178e-02
6.556700000000000000e+04 -9.550162104460468981e-03
6.556700000000000000e+04 -9.550162104460468981e-03
6.562700000000000000e+04 -1.358270660512062022e-02
6.562700000000000000e+04 -1.358270660512062022e-02
6.568700000000000000e+04 -1.056388833603705280e-02
6.568700000000000000e+04 -1.056388833603705280e-02
6.574700000000000000e+04 -1.449375765150762163e-02
6.574700000000000000e+04 -1.449375765150762163e-02
6.580700000000000000e+04 -1.237236855286028003e-02
6.580700000000000000e+04 -1.237236855286028003e-02
6.586700000000000000e+04 -1.619977867176203290e-02
6.586700000000000000e+04 -1.619977867176203290e-02
6.592700000000000000e+04 -1.497604928590590134e-02
6.592700000000000000e+04 -1.497604928590590134e-02
6.598700000000000000e+04 -8.701245293195825070e-03
6.598700000000000000e+04 -8.701245293195825070e-03
6.604700000000000000e+04 -1.375435236695921049e-03
6.604700000000000000e+04 -1.375435236695921049e-03
6.610700000000000000e+04 2.001308721446548589e-03
6.610700000000000000e+04 2.001308721446548589e-03
6.616700000000000000e+04 -7.571089206066972110e-03
6.616700000000000000e+04 -7.571089206066972110e-03
6.622700000000000000e+04 -8.092708439107809681e-03
6.622700000000000000e+04 -8.092708439107809681e-03
6.628700000000000000e+04 -1.563632004035753198e-03
6.628700000000000000e+04 -1.563632004035753198e-03
6.634700000000000000e+04 1.016053451166953892e-03
6.640700000000000000e+04 -3.353742329636588693e-03
6.646700000000000000e+04 -4.673113209719303995e-03
6.652700000000000000e+04 -1.094215665398223791e-02
6.658700000000000000e+04 -1.916097372941294452e-02
6.664700000000000000e+04 -2.332966908852540655e-02
6.670700000000000000e+04 -1.944835097219765885e-02
6.676700000000000000e+04 -1.751713120847853133e-02
6.682700000000000000e+04 -9.536125198792433366e-03
6.688700000000000000e+04 -1.450545190346019808e-02
6.694700000000000000e+04 -1.442523387049732264e-02
6.700700000000000000e+04 -2.029559717993834056e-02
6.706700000000000000e+04 -1.811667148012929829e-02
6.712700000000000000e+04 -1.488858995162445353e-02
6.718700000000000000e+04 -1.361148931846400956e-02
6.724700000000000000e+04 -1.028550982937304070e-02
6.730700000000000000e+04 -1.091079525576788001e-02
6.736700000000000000e+04 -2.487492884938546922e-03
6.742700000000000000e+04 7.984246498381253332e-03
6.748700000000000000e+04 7.504268603042874020e-03
6.754700000000000000e+04 3.072415659516991582e-03
6.760700000000000000e+04 -1.231147358976159012e-02
6.766700000000000000e+04 -3.647563864433323033e-03
6.772700000000000000e+04 4.063976652105338871e-03
6.778700000000000000e+04 -1.770236749507603236e-04
6.784700000000000000e+04 -6.370739920384949073e-03
6.790700000000000000e+04 4.826494114240631461e-04
6.796700000000000000e+04 2.382962393312482163e-03
6.802700000000000000e+04 7.330013692808279302e-03
6.808700000000000000e+04 -1.676385428254434373e-03
6.814700000000000000e+04 -6.636427091507357545e-03
6.820700000000000000e+04 1.449693208996905014e-03
6.826700000000000000e+04 1.358177660586079583e-02
6.832700000000000000e+04 1.475962088716187282e-02
6.838700000000000000e+04 1.983020491024944931e-03
6.844700000000000000e+04 -3.748233466467354447e-03
6.850700000000000000e+04 -3.434353187913075089e-03
6.856700000000000000e+04 -3.075554173847194761e-03
6.862700000000000000e+04 -3.672055225251824595e-03
6.868700000000000000e+04 -1.022407840991945704e-02
6.874700000000000000e+04 -4.731849070594762452e-03
6.880700000000000000e+04 8.044042133406037465e-04
6.886700000000000000e+04 3.844496159217669629e-04
6.892700000000000000e+04 3.008052092809521127e-03
6.898700000000000000e+04 8.674973397319263313e-03
6.904700000000000000e+04 1.338497207962063840e-02
6.910700000000000000e+04 1.213780351918103406e-02
6.916700000000000000e+04 8.933219933169311844e-03
6.922700000000000000e+04 6.770970387151464820e-03
6.928700000000000000e+04 5.650800820149015635e-03
6.934700000000000000e+04 1.572454045344784390e-03
6.940700000000000000e+04 4.535669788310769945e-03
6.946700000000000000e+04 9.540184680190577637e-03
6.952700000000000000e+04 2.585732289844600018e-03
6.958700000000000000e+04 -8.327956866196473129e-03
6.964700000000000000e+04 -1.020115530718612717e-02
6.970700000000000000e+04 -6.034138564245949965e-03
6.976700000000000000e+04 -3.827185168120195158e-03
6.982700000000000000e+04 -1.058057664249645313e-02
6.988700000000000000e+04 -1.329459745647909585e-02
7.084700000000000000e+04 -6.607858686038525775e-03
7.174700000000000000e+04 -1.658479801699286327e-02
7.264700000000000000e+04 -1.408680176882626256e-02
7.354700000000000000e+04 -1.041447900934144855e-02
7.444700000000000000e+04 2.036911450886691455e-03
7.534700000000000000e+04 -7.201270843324891757e-03
7.624700000000000000e+04 -1.464831887733453186e-02
7.714700000000000000e+04 -4.850314026953128632e-03
7.714700000000000000e+04 -3.850314026749401819e-03
7.720700000000000000e+04 2.404713118266954552e-03
7.726700000000000000e+04 2.649038541676418390e-03
7.732700000000000000e+04 -7.117794241821684409e-03
7.738700000000000000e+04 -8.896241195543552749e-03
7.744700000000000000e+04 -6.686757721581670921e-03
7.750700000000000000e+04 -5.489798650160082616e-03
7.756700000000000000e+04 -3.305818187982367817e-03
7.762700000000000000e+04 -1.352698873233748600e-04
7.768700000000000000e+04 2.139338266715640202e-05
7.774700000000000000e+04 -8.362805319848121144e-04
7.780700000000000000e+04 2.291256970238464419e-03
7.786700000000000000e+04 -2.596444724076718558e-03
7.792700000000000000e+04 -3.499835423099284526e-03
7.798700000000000000e+04 -1.041936406818422256e-02
7.804700000000000000e+04 -1.435547872642928269e-02
7.804700000000000000e+04 -1.735547872704046313e-02
7.810700000000000000e+04 -1.330862654867814854e-02
7.816700000000000000e+04 -2.279253733831865247e-03
7.822700000000000000e+04 -2.267805502015107777e-03
7.828700000000000000e+04 -1.274726052542973775e-03
7.834700000000000000e+04 2.699541455513099208e-03
7.840700000000000000e+04 -3.454450461504166014e-04
7.846700000000000000e+04 -4.410126528455293737e-03
7.852700000000000000e+04 -2.494942792509391438e-03
7.858700000000000000e+04 1.399667518853675574e-03
7.864700000000000000e+04 -7.267330183822195977e-04
7.870700000000000000e+04 -8.745805853322963230e-04
7.876700000000000000e+04 -4.431008073879638687e-05
7.882700000000000000e+04 -5.236355096712941304e-03
7.888700000000000000e+04 -7.451147889696585480e-03
7.894700000000000000e+04 -4.689119342401681934e-03
7.894700000000000000e+04 -6.689119341899640858e-03
7.900700000000000000e+04 -6.950698921173170675e-03
7.906700000000000000e+04 -5.236314658759511076e-03
7.912700000000000000e+04 -8.546393120013817679e-03
7.918700000000000000e+04 -5.881359367776894942e-03
7.924700000000000000e+04 -8.241636928687512409e-03
7.930700000000000000e+04 -1.062764775815594476e-02
7.936700000000000000e+04 -1.103981222149741370e-02
7.942700000000000000e+04 -1.347854904634004924e-02
7.948700000000000000e+04 5.572469399339752272e-05
7.954700000000000000e+04 8.562593624446890317e-03
7.960700000000000000e+04 7.041644096716481727e-03
7.966700000000000000e+04 -5.075357876194175333e-04
7.972700000000000000e+04 -1.085356129806314129e-03
7.978700000000000000e+04 -7.692225229220639449e-03
7.984700000000000000e+04 -6.328549513455072884e-03
7.984700000000000000e+04 -9.328549513156758621e-03
7.990700000000000000e+04 -8.994733544568589423e-03
7.996700000000000000e+04 -9.691179970104712993e-03
8.002700000000000000e+04 -1.441828949100454338e-02
8.008700000000000000e+04 -2.017646083459112560e-02
8.014700000000000000e+04 -1.696609073223953601e-02
8.020700000000000000e+04 -1.178757386787765427e-02
8.026700000000000000e+04 -1.364130287220177706e-02
8.032700000000000000e+04 -1.352766827403684147e-02
8.038700000000000000e+04 -1.644705848229932599e-02
8.044700000000000000e+04 -1.139985974350565812e-02
8.050700000000000000e+04 -6.386456126165285241e-03
8.056700000000000000e+04 -7.407229481032118201e-03
8.062700000000000000e+04 -1.346255941007257206e-02
8.068700000000000000e+04 -9.552823251397057902e-03
8.074700000000000000e+04 -6.783960270695388317e-04
8.074700000000000000e+04 -6.783960270695388317e-04
8.080700000000000000e+04 5.160349560355825815e-03
8.086700000000000000e+04 5.963043180599925108e-03
8.092700000000000000e+04 7.293168891919776797e-04
8.098700000000000000e+04 -1.254119483655813383e-02
8.104700000000000000e+04 -1.784885508004663279e-02
8.110700000000000000e+04 -1.119402442964201327e-02
8.116700000000000000e+04 -8.577060991228790954e-03
8.122700000000000000e+04 -2.998320321239589248e-03
8.128700000000000000e+04 -5.458155416818044614e-03
8.134700000000000000e+04 -8.956916690294747241e-03
8.140700000000000000e+04 -2.494951939297607169e-03
8.146700000000000000e+04 -6.072606312955031171e-03
8.152700000000000000e+04 -1.069022228875837754e-02
8.158700000000000000e+04 -7.348139643909235019e-03
8.164700000000000000e+04 -5.046695431701664347e-03
8.170700000000000000e+04 -6.786223952076397836e-03
8.176700000000000000e+04 -6.567056725543807261e-03
8.182700000000000000e+04 -7.389522461380693130e-03
8.188700000000000000e+04 -1.225394704761129105e-02
8.194700000000000000e+04 -1.216065349944983609e-02
8.200700000000000000e+04 -1.210996195914049167e-02
8.206700000000000000e+04 8.978103533081593923e-04
8.212700000000000000e+04 1.086234914237138582e-02
8.218700000000000000e+04 1.378334308537887409e-02
8.224700000000000000e+04 1.666048383958695922e-02
8.224700000000000000e+04 1.966048383928864496e-02
8.230700000000000000e+04 2.849346607763436623e-02
8.230700000000000000e+04 2.649346607813640730e-02
8.230700000000000000e+04 3.049346607804181986e-02
8.230700000000000000e+04 3.049346607804181986e-02
8.230700000000000000e+04 2.399346607853658497e-02
8.236700000000000000e+04 2.128198750597221078e-02
8.236700000000000000e+04 3.028198750598676270e-02
8.236700000000000000e+04 2.728198750537558226e-02
8.236700000000000000e+04 2.128198750597221078e-02
8.236700000000000000e+04 2.028198750576848397e-02
8.242700000000000000e+04 1.902574889663810609e-02
8.242700000000000000e+04 2.202574889633979183e-02
8.242700000000000000e+04 2.002574889684183290e-02
8.242700000000000000e+04 2.102574889613606501e-02
8.242700000000000000e+04 1.902574889663810609e-02
8.248700000000000000e+04 1.372445411016087746e-02
8.248700000000000000e+04 2.072445410976797575e-02
8.248700000000000000e+04 1.872445411027001683e-02
8.248700000000000000e+04 1.572445410965883639e-02
8.254700000000000000e+04 8.377810111596772913e-03
8.260700000000000000e+04 1.198552700134314364e-02
8.266700000000000000e+04 1.054731804106268100e-02
8.272700000000000000e+04 1.006289967608609004e-02
8.278700000000000000e+04 9.531991553558327723e-03
8.284700000000000000e+04 1.295431654853018699e-02
8.290700000000000000e+04 1.232960079323675018e-02
8.296700000000000000e+04 8.657573691380093805e-03
8.302700000000000000e+04 9.937967945916170720e-03
8.308700000000000000e+04 1.117051957135117846e-02
8.314700000000000000e+04 3.354967942868825048e-03
8.320700000000000000e+04 -1.508944224951846991e-03
8.326700000000000000e+04 2.578529182756028604e-03
8.332700000000000000e+04 1.161713769033667631e-02
8.338700000000000000e+04 1.360663424293306889e-02
8.344700000000000000e+04 1.054677523370628478e-02
8.350700000000000000e+04 1.343732053192070452e-02
8.356700000000000000e+04 1.727803349422174506e-02
8.362700000000000000e+04 2.006868098760605790e-02
8.368700000000000000e+04 2.080903341084194835e-02
8.374700000000000000e+04 1.349886471325589810e-02
8.380700000000000000e+04 1.013795241306070238e-02
8.386700000000000000e+04 6.726077621351578273e-03
8.392700000000000000e+04 2.630250546644674614e-04
8.398700000000000000e+04 7.485830583391361870e-04
8.404700000000000000e+04 3.182543623552192003e-03
8.410700000000000000e+04 5.564702401898102835e-03
8.416700000000000000e+04 4.894858735497109592e-03
8.422700000000000000e+04 2.172815665289817844e-03
8.428700000000000000e+04 6.398379939128062688e-03
8.434700000000000000e+04 1.157136205347342184e-02
8.440700000000000000e+04 8.691576251294463873e-03
8.446700000000000000e+04 4.758840540489472914e-03
8.452700000000000000e+04 -3.227023278668639250e-03
8.458700000000000000e+04 -4.266189605914405547e-03
8.464700000000000000e+04 -1.358829026685270946e-03
8.470700000000000000e+04 -4.505108294324600138e-03
8.476700000000000000e+04 -3.705190307300654240e-03
8.482700000000000000e+04 -4.959234103807830252e-03
8.488700000000000000e+04 -7.267394838891050313e-03
8.494700000000000000e+04 -3.629823789196962025e-03
8.500700000000000000e+04 -5.046668303293699864e-03
8.506700000000000000e+04 -7.518071823142236099e-03
8.512700000000001455e+04 -3.044173847229103558e-03
8.518700000000000000e+04 -1.625109928681922611e-03
8.524700000000000000e+04 2.738988338023773395e-03
8.530700000000001455e+04 5.047993340667744633e-03
8.536700000000000000e+04 5.301781447087705601e-03
8.542700000000000000e+04 1.500233034676057287e-03
8.548699999999998545e+04 2.643232484842883423e-03
8.554700000000000000e+04 -1.269331798539496958e-03
8.560700000000000000e+04 -6.237567372409102973e-03
8.566699999999998545e+04 4.738422250738949515e-03
8.572700000000000000e+04 1.465853761510516051e-02
8.578700000000000000e+04 1.152268333316897042e-02
8.584700000000000000e+04 1.333076809987687739e-02
8.590700000000000000e+04 1.908270468538830755e-02
8.596700000000000000e+04 1.977840997096791398e-02
8.602700000000000000e+04 1.441780493223632220e-02
8.608700000000001455e+04 -1.999185330532782245e-03
8.614700000000000000e+04 1.527368403912987560e-03
8.620700000000000000e+04 6.997399491410760675e-03
8.626700000000001455e+04 1.410845428836182691e-03
8.632700000000000000e+04 -2.323521466678357683e-04
8.638700000000000000e+04 6.775257224944652990e-05
