Problem size with different number of CPUs using function optimization
THREADS	INITIAL_DEPTH	MTPS	TIMESTEPS	TIMESTEP_SIZE	SECONDS_FOR_SIMULATION	AVERAGE_TRIANGLES	AVERAGE_PARTITIONS
80	101.689	100	0.000986073	18.8585	1.9177e+07	1162.24
79	100.302	100	0.000986073	19.1193	1.9177e+07	1162.24
78	98.1734	100	0.000986073	19.5338	1.9177e+07	1162.24
77	99.8704	100	0.000986073	19.2019	1.9177e+07	1162.24
76	98.5748	100	0.000986073	19.4543	1.9177e+07	1162.24
75	98.9009	100	0.000986073	19.3901	1.9177e+07	1162.24
74	100.381	100	0.000986073	19.1043	1.9177e+07	1162.24
73	94.8675	100	0.000986073	20.2145	1.9177e+07	1162.24
72	84.3762	100	0.000986073	22.728	1.9177e+07	1162.24
71	80.997	100	0.000986073	23.6762	1.9177e+07	1162.24
70	79.7997	100	0.000986073	24.0314	1.9177e+07	1162.24
69	80.3223	100	0.000986073	23.8751	1.9177e+07	1162.24
68	75.4932	100	0.000986073	25.4023	1.9177e+07	1162.24
67	76.8923	100	0.000986073	24.9401	1.9177e+07	1162.24
66	73.5546	100	0.000986073	26.0718	1.9177e+07	1162.24
65	75.7128	100	0.000986073	25.3286	1.9177e+07	1162.24
64	76.8216	100	0.000986073	24.963	1.9177e+07	1162.24
63	74.8727	100	0.000986073	25.6128	1.9177e+07	1162.24
62	79.138	100	0.000986073	24.2323	1.9177e+07	1162.24
61	74.8276	100	0.000986073	25.6283	1.9177e+07	1162.24
60	76.0132	100	0.000986073	25.2285	1.9177e+07	1162.24
59	76.9341	100	0.000986073	24.9265	1.9177e+07	1162.24
58	75.2998	100	0.000986073	25.4675	1.9177e+07	1162.24
57	76.8708	100	0.000986073	24.9471	1.9177e+07	1162.24
56	78.4677	100	0.000986073	24.4394	1.9177e+07	1162.24
55	75.1301	100	0.000986073	25.525	1.9177e+07	1162.24
54	75.4229	100	0.000986073	25.4259	1.9177e+07	1162.24
53	75.3333	100	0.000986073	25.4562	1.9177e+07	1162.24
52	75.0742	100	0.000986073	25.544	1.9177e+07	1162.24
51	73.3396	100	0.000986073	26.1482	1.9177e+07	1162.24
50	74.4287	100	0.000986073	25.7656	1.9177e+07	1162.24
49	71.0684	100	0.000986073	26.9839	1.9177e+07	1162.24
48	77.6361	100	0.000986073	24.7011	1.9177e+07	1162.24
47	77.0185	100	0.000986073	24.8992	1.9177e+07	1162.24
46	75.863	100	0.000986073	25.2785	1.9177e+07	1162.24
45	74.6408	100	0.000986073	25.6924	1.9177e+07	1162.24
44	77.3088	100	0.000986073	24.8057	1.9177e+07	1162.24
43	72.7682	100	0.000986073	26.3536	1.9177e+07	1162.24
42	78.8761	100	0.000986073	24.3128	1.9177e+07	1162.24
41	74.0979	100	0.000986073	25.8806	1.9177e+07	1162.24
40	77.1929	100	0.000986073	24.843	1.9177e+07	1162.24
39	73.8213	100	0.000986073	25.9776	1.9177e+07	1162.24
38	72.3217	100	0.000986073	26.5162	1.9177e+07	1162.24
37	72.1431	100	0.000986073	26.5819	1.9177e+07	1162.24
36	74.691	100	0.000986073	25.6751	1.9177e+07	1162.24
35	71.373	100	0.000986073	26.8687	1.9177e+07	1162.24
34	71.1305	100	0.000986073	26.9603	1.9177e+07	1162.24
33	67.5986	100	0.000986073	28.3689	1.9177e+07	1162.24
32	68.8219	100	0.000986073	27.8647	1.9177e+07	1162.24
31	67.3037	100	0.000986073	28.4932	1.9177e+07	1162.24
30	65.14	100	0.000986073	29.4396	1.9177e+07	1162.24
29	64.9591	100	0.000986073	29.5217	1.9177e+07	1162.24
28	63.6098	100	0.000986073	30.1479	1.9177e+07	1162.24
27	62.5905	100	0.000986073	30.6388	1.9177e+07	1162.24
26	59.6418	100	0.000986073	32.1536	1.9177e+07	1162.24
25	59.9394	100	0.000986073	31.994	1.9177e+07	1162.24
24	58.168	100	0.000986073	32.9683	1.9177e+07	1162.24
23	56.5834	100	0.000986073	33.8915	1.9177e+07	1162.24
22	54.6754	100	0.000986073	35.0743	1.9177e+07	1162.24
21	53.4296	100	0.000986073	35.8921	1.9177e+07	1162.24
20	52.2613	100	0.000986073	36.6944	1.9177e+07	1162.24
19	49.9385	100	0.000986073	38.4012	1.9177e+07	1162.24
18	48.3719	100	0.000986073	39.6449	1.9177e+07	1162.24
17	45.6791	100	0.000986073	41.9819	1.9177e+07	1162.24
16	44.3243	100	0.000986073	43.2652	1.9177e+07	1162.24
15	41.4781	100	0.000986073	46.234	1.9177e+07	1162.24
14	39.2273	100	0.000986073	48.8868	1.9177e+07	1162.24
13	36.5911	100	0.000986073	52.4089	1.9177e+07	1162.24
12	34.9723	100	0.000986073	54.8349	1.9177e+07	1162.24
11	32.2764	100	0.000986073	59.4149	1.9177e+07	1162.24
10	29.6342	100	0.000986073	64.7123	1.9177e+07	1162.24
9	26.6793	100	0.000986073	71.8798	1.9177e+07	1162.24
8	23.469	100	0.000986073	81.712	1.9177e+07	1162.24
7	20.8362	100	0.000986073	92.0369	1.9177e+07	1162.24
6	17.9116	100	0.000986073	107.065	1.9177e+07	1162.24
5	14.7781	100	0.000986073	129.766	1.9177e+07	1162.24
4	11.9146	100	0.000986073	160.954	1.9177e+07	1162.24
3	8.94501	100	0.000986073	214.388	1.9177e+07	1162.24
2	6.02293	100	0.000986073	318.4	1.9177e+07	1162.24
1	3.04497	100	0.000986073	629.794	1.9177e+07	1162.24
