0	0
10.2717	0
20.5434	0
30.8149	0
41.0864	0
51.3577	0
61.6291	0
71.9003	0
82.1715	0
92.4426	0
100.146	0
110.417	0
120.572	0
130.667	0
140.761	0
150.839	0
160.917	0
170.995	0
181.072	-3.63798e-12
191.143	-7.27596e-12
201.21	-1.09139e-11
211.281	-1.45519e-11
221.355	-1.81899e-11
231.433	-2.36469e-11
241.51	-3.09228e-11
251.588	-3.81988e-11
261.665	-4.82032e-11
271.743	-5.91172e-11
281.82	-7.27596e-11
291.897	-8.73115e-11
301.974	-1.05501e-10
312.052	-1.2642e-10
322.129	-1.50067e-10
332.206	-1.76442e-10
342.249	-2.06455e-10
352.192	-2.39197e-10
362.145	-2.75577e-10
372.128	-3.15595e-10
382.1	-3.5925e-10
392.019	-4.06544e-10
401.792	-4.54747e-10
411.524	-5.05679e-10
421.234	-5.56611e-10
430.945	-6.07542e-10
440.655	-6.58474e-10
450.365	-7.06677e-10
460.058	-7.50333e-10
472.099	-7.93989e-10
481.736	-8.17636e-10
491.347	-8.26731e-10
500.939	-8.19455e-10
510.531	-7.90351e-10
520.108	-7.376e-10
532.074	-6.36646e-10
541.645	-5.27507e-10
551.213	-3.92902e-10
560.779	-2.31921e-10
570.346	-4.45652e-11
582.303	2.25555e-10
591.87	4.72028e-10
601.436	7.44876e-10
611.002	1.04683e-09
620.568	1.37334e-09
630.134	1.72258e-09
642.091	2.1837e-09
651.657	2.56387e-09
661.223	2.94585e-09
670.78	3.32238e-09
680.326	3.68345e-09
692.244	4.10091e-09
701.778	4.39468e-09
711.311	4.64297e-09
720.845	4.83578e-09
730.379	4.96493e-09
742.296	5.02132e-09
751.829	4.97039e-09
761.363	4.8276e-09
770.897	4.58385e-09
780.43	4.23279e-09
792.347	3.63343e-09
801.881	3.02225e-09
811.414	2.2892e-09
820.948	1.43518e-09
830.481	4.59295e-10
840.014	-6.35737e-10
851.931	-2.16096e-09
861.464	-3.49792e-09
870.998	-4.92673e-09
880.531	-6.43286e-09
890.064	-7.99719e-09
901.981	-9.99989e-09
911.514	-1.16088e-08
921.047	-1.31886e-08
930.581	-1.47038e-08
940.114	-1.61117e-08
952.03	-1.76487e-08
961.563	-1.86383e-08
971.097	-1.93495e-08
980.63	-1.97206e-08
990.163	-1.96842e-08
1002.08	-1.89539e-08
1011.61	-1.77261e-08
1021.15	-1.58343e-08
1030.68	-1.31886e-08
1040.21	-9.69249e-09
1052.13	-3.96449e-09
1061.66	1.84264e-09
1071.19	8.86939e-09
1080.73	1.72486e-08
1090.26	2.7123e-08
1102.18	4.17967e-08
1111.71	5.55992e-08
1121.24	7.14226e-08
1130.77	8.94479e-08
1140.3	1.09878e-07
1152.2	1.3912e-07
1161.73	1.65752e-07
1171.26	1.95521e-07
1180.79	2.28682e-07
1190.31	2.65504e-07
1202.22	3.17114e-07
1211.75	3.63237e-07
1221.28	4.14003e-07
1230.81	4.6975e-07
1240.33	5.30835e-07
1252.24	6.15269e-07
1261.77	6.89761e-07
1271.29	7.70835e-07
1280.8	8.58872e-07
1290.3	9.54625e-07
1302.16	1.08648e-06
1311.66	1.20218e-06
1321.15	1.32724e-06
1330.63	1.46166e-06
1340.09	1.60554e-06
1351.92	1.79927e-06
1361.38	1.96552e-06
1370.85	2.14194e-06
1380.31	2.32872e-06
1392.14	2.57703e-06
1401.6	2.7878e-06
1411.06	3.00967e-06
1420.52	3.2429e-06
1432.35	3.55099e-06
1441.81	3.81119e-06
1451.24	4.08298e-06
1460.66	4.36789e-06
1470.09	4.66649e-06
1481.87	5.05997e-06
1491.29	5.39179e-06
1500.72	5.7396e-06
1510.14	6.10425e-06
1521.92	6.58511e-06
1531.35	6.99106e-06
1540.77	7.41706e-06
1550.17	7.86275e-06
1561.92	8.45156e-06
1571.34	8.95049e-06
1580.72	9.47258e-06
1590.1	1.00212e-05
1601.83	1.07469e-05
1611.22	1.13609e-05
1620.61	1.20066e-05
1632.34	1.28606e-05
1641.73	1.35835e-05
1651.11	1.43438e-05
1660.5	1.51433e-05
1672.23	1.62001e-05
1681.62	1.70932e-05
1691.01	1.80301e-05
1700.39	1.90119e-05
1712.13	2.03036e-05
1721.51	2.13899e-05
1730.9	2.25241e-05
1740.29	2.37073e-05
1752.02	2.52564e-05
1761.41	2.65529e-05
1770.79	2.79015e-05
1780.18	2.93032e-05
1791.91	3.11313e-05
1801.28	3.26549e-05
1810.66	3.42359e-05
1820.04	3.58757e-05
1831.77	3.80092e-05
1841.15	3.97855e-05
1850.52	4.1625e-05
1862.23	4.4015e-05
1871.6	4.60033e-05
1880.97	4.80619e-05
1890.34	5.01931e-05
1902.05	5.29628e-05
1911.42	5.52665e-05
1920.79	5.76512e-05
1930.16	6.01198e-05
1941.87	6.3328e-05
1951.24	6.59964e-05
1960.6	6.87588e-05
1972.31	7.23491e-05
1981.68	7.53355e-05
1991.05	7.84274e-05
2000.42	8.16286e-05
2012.13	8.45373e-05
2021.5	8.30767e-05
2030.87	8.18634e-05
2040.24	8.0881e-05
2051.95	7.99553e-05
2061.32	7.94407e-05
2070.69	7.91138e-05
2080.05	7.89637e-05
2091.76	7.90096e-05
2101.13	7.92223e-05
2110.5	7.9583e-05
2122.21	8.02315e-05
2131.58	8.09013e-05
2140.95	8.16999e-05
2150.32	8.2623e-05
2162.03	8.39467e-05
2171.4	8.51381e-05
2180.76	8.6445e-05
2190.13	8.7866e-05
2201.84	8.98011e-05
2211.21	9.14759e-05
2220.58	9.32637e-05
2232.29	9.56582e-05
2241.66	9.77031e-05
2251.03	9.98648e-05
2260.4	0.000102145
2272.11	0.000105166
2281.47	0.000107723
2290.84	0.000110407
2300.21	0.000113222
2311.92	0.000116931
2321.29	0.000120054
2330.66	0.00012332
2340.03	0.000126735
2351.74	0.000131217
2361.1	0.000134981
2370.47	0.000138909
2382.18	0.000144055
2391.55	0.000148371
2400.92	0.000152864
2410.29	0.000157521
2422	0.000163556
2431.36	0.000168544
2440.73	0.000173667
2450.1	0.000178921
2461.81	0.00018567
2471.16	0.000191204
2480.51	0.000196861
2492.18	0.000204111
2501.52	0.000210062
2510.87	0.000216154
2520.21	0.00022239
2531.89	0.000230396
2541.24	0.000236977
2550.59	0.000243723
2562.27	0.000252401
2571.61	0.000259552
2580.96	0.000266898
2590.3	0.000274452
2601.98	0.000284203
2611.3	0.000292244
2620.59	0.000300498
2632.15	0.000311135
2641.4	0.000319943
2650.66	0.00032903
2662.22	0.000340797
2671.47	0.00035055
2680.72	0.000360617
2692.29	0.00037366
2701.54	0.000384476
2710.79	0.000395642
2720.04	0.000407173
2731.61	0.000422117
2740.86	0.000434514
2750.11	0.000447318
2761.67	0.000468684
2770.93	0.000501293
2780.18	0.000533819
2791.74	0.000574199
2800.99	0.000606214
2810.24	0.000637949
2821.81	0.000677239
2831.06	0.000708406
2840.31	0.000739389
2851.88	0.00077796
2861.13	0.00080878
2870.38	0.000839657
2881.94	0.000878469
2891.19	0.000909805
2900.45	0.0009415
2912.01	0.00098177
2921.26	0.00101463
2930.51	0.00104815
2942.08	0.00109115
2951.33	0.00112653
2960.58	0.00116288
2972.14	0.00120959
2981.39	0.00124779
2990.65	0.00128664
3002.21	0.00133605
3011.46	0.00137624
3020.71	0.00141706
3032.28	0.00146904
3041.53	0.0015115
3050.78	0.00155485
3060.03	0.00159923
3071.59	0.00165634
3080.84	0.00170354
3090.09	0.00175223
3101.66	0.00181542
3110.91	0.00186799
3120.16	0.00192251
3131.72	0.0019936
3140.98	0.00205301
3150.23	0.00217155
3161.79	0.00233553
3171.04	0.00245951
3180.29	0.00257802
3191.86	0.00272051
3201.11	0.00283187
3210.36	0.00294261
3221.92	0.0030825
3231.17	0.00319735
3240.42	0.00331621
3251.99	0.00347124
3261.24	0.00359931
3270.49	0.00373049
3282.05	0.00389933
3291.3	0.00403928
3300.55	0.00418492
3312.12	0.00437722
3321.37	0.00454097
3330.62	0.00471488
3342.18	0.00515444
3351.43	0.00549122
3360.68	0.0058191
3372.25	0.00623193
3381.5	0.00657715
3390.75	0.00694217
3402.31	0.00741498
3411.56	0.00780786
3420.81	0.00822536
3430.06	0.00889595
3441.63	0.00986111
3450.88	0.010592
3460.13	0.0114032
3471.69	0.0125249
3480.94	0.0142706
3490.19	0.0159885
3501.76	0.0201828
3511.01	0.0246501
3520.26	0.0297863
3531.82	0.0354365
3541.07	0.0398416
3550.32	0.0442758
3561.89	0.0497965
3571.14	0.0538759
3580.39	0.0578408
3591.95	0.0630349
3601.2	0.067394
3610.45	0.0717295
3622.02	0.0769749
3631.27	0.0811407
3640.52	0.0853949
3652.08	0.0908108
3661.33	0.0951716
3670.59	0.0995877
3682.15	0.105237
3691.4	0.109812
3700.65	0.114361
3712.22	0.119976
3721.47	0.124439
3730.72	0.1289
3742.28	0.134467
3751.53	0.138904
3760.79	0.143344
3770.04	0.147813
3781.6	0.153446
3790.85	0.157965
3800.1	0.162475
3811.67	0.168101
3820.92	0.172607
3830.17	0.177133
3841.83	0.182879
3851.15	0.187519
3860.47	0.192198
3872.12	0.198089
3881.45	0.202822
3890.77	0.207566
3900.09	0.212322
3911.75	0.2183
3921.07	0.22313
3930.39	0.228023
3942.05	0.23425
3951.37	0.239332
3960.7	0.244507
3970.02	0.249778
3981.68	0.256509
3991.01	0.262022
4000.33	0.267667
4011.99	0.274932
4021.32	0.280929
4030.64	0.287104
4042.3	0.295087
4051.63	0.3017
4060.95	0.308528
4070.28	0.315593
4081.94	0.324801
4091.27	0.332512
4100.6	0.340579
4112.28	0.351232
4121.64	0.36027
4131.02	0.369822
4140.42	0.379939
4152.17	0.393431
4161.57	0.404969
4170.97	0.417231
4180.37	0.430273
4192.17	0.447835
4201.62	0.462919
4211.07	0.478956
4220.52	0.495984
4232.33	0.5187
4241.78	0.538042
4251.23	0.558433
4260.68	0.579874
4270.13	0.602356
4281.94	0.631884
4291.39	0.656597
4300.84	0.682208
4310.29	0.708634
4322.1	0.742641
4331.55	0.770466
4341	0.798671
4350.45	0.827077
4362.27	0.862563
4371.72	0.890659
4381.17	0.918225
4390.62	0.944988
4400.07	0.970651
4411.88	1.0007
4421.33	1.0227
4430.78	1.04251
4440.23	1.05977
4452.04	1.0772
4461.49	1.08736
4470.94	1.09376
4480.39	1.09601
4492.21	1.09246
4501.66	1.08409
4511.11	1.07043
4520.56	1.0512
4530.01	1.02612
4541.82	0.986179
4551.27	0.947144
4560.72	0.901675
4570.17	0.849699
4581.98	0.775548
4591.44	0.708904
4600.89	0.635787
4610.34	0.556217
4622.15	0.44763
4631.6	0.353327
4641.05	0.252254
4650.5	0.144029
4662.31	0.00270732
4671.76	-0.0925269
4681.21	-0.141732
4690.72	-0.165468
4700.26	-0.201215
4712.18	-0.234329
4721.71	-0.255955
4731.24	-0.274924
4740.78	-0.281048
4750.31	-0.298187
4762.23	-0.315377
4771.76	-0.326254
4781.29	-0.335738
4790.83	-0.343551
4800.36	-0.350675
4812.28	-0.359212
4821.81	-0.365519
4831.33	-0.371292
4840.86	-0.361431
4850.39	-0.364381
4862.3	-0.37225
4871.83	-0.37741
4881.35	-0.381735
4890.88	-0.385374
4900.41	-0.388482
4912.32	-0.391815
4921.85	-0.39417
4931.37	-0.396019
4940.9	-0.397619
4950.43	-0.399186
4962.34	-0.401002
4971.86	-0.402431
4981.39	-0.40381
4990.92	-0.405116
5000.45	-0.40633
5012.34	-0.407699
5021.84	-0.408581
5031.33	-0.400045
5040.83	-0.40114
5050.32	-0.402668
5062.19	-0.40445
5071.67	-0.405682
5081.14	-0.406724
5090.6	-0.407556
5100.06	-0.408195
5111.89	-0.408756
5121.35	-0.409037
5130.82	-0.409174
5140.28	-0.409181
5152.11	-0.409026
5161.57	-0.408785
5171.03	-0.408452
5180.49	-0.408034
5192.32	-0.407406
5201.78	-0.406827
5211.25	-0.406187
5220.71	-0.405497
5230.13	-0.404764
5241.91	-0.403794
5251.34	-0.402979
5260.76	-0.402058
5270.19	-0.400919
5281.97	-0.399471
5291.39	-0.398289
5300.82	-0.397085
5310.24	-0.395856
5322.02	-0.394285
5331.42	-0.393002
5340.81	-0.391691
5350.23	-0.390349
5361.97	-0.388636
5371.35	-0.387238
5380.73	-0.385811
5390.12	-0.38434
5401.85	-0.382446
5411.24	-0.380899
5420.63	-0.371404
5430.01	-0.370519
5441.75	-0.369396
5451.13	-0.368485
5460.52	-0.367566
5472.25	-0.366406
5481.64	-0.36547
5491.03	-0.364528
5500.41	-0.363585
5512.15	-0.362411
5521.53	-0.361481
5530.92	-0.360561
5540.3	-0.359655
5552.03	-0.358543
5561.4	-0.357671
5570.77	-0.356816
5580.16	-0.355976
5591.88	-0.35495
5601.26	-0.354147
5610.64	-0.353358
5620.02	-0.352581
5631.73	-0.351624
5641.1	-0.350865
5650.47	-0.350108
5662.18	-0.349157
5671.55	-0.348389
5680.92	-0.347612
5690.29	-0.34682
5702	-0.345807
5711.37	-0.344973
5720.74	-0.344115
5730.1	-0.343229
5741.82	-0.342081
5751.18	-0.341125
5760.55	-0.340133
5772.26	-0.338957
5781.63	-0.33801
5791	-0.336998
5800.37	-0.335921
5812.08	-0.334489
5821.45	-0.333275
5830.82	-0.332001
5840.19	-0.330588
5851.9	-0.328644
5861.27	-0.327028
5870.64	-0.325569
5880	-0.324638
5891.72	-0.323323
5901.08	-0.322164
5910.45	-0.320921
5922.16	-0.31926
5931.53	-0.317853
5940.9	-0.31638
5950.27	-0.314846
5961.98	-0.312844
5971.35	-0.311178
5980.72	-0.309456
5990.09	-0.307679
6001.8	-0.305381
6011.17	-0.303484
6020.53	-0.301533
6032.25	-0.299023
6041.61	-0.296958
6050.98	-0.294843
6060.35	-0.292679
6072.06	-0.289907
6081.43	-0.287637
6090.8	-0.285327
6100.17	-0.282987
6111.88	-0.280027
6121.25	-0.277638
6130.62	-0.275234
6142.33	-0.27221
6151.7	-0.269772
6161.06	-0.267311
6170.43	-0.264828
6182.14	-0.261698
6191.51	-0.259172
6200.88	-0.256629
6210.25	-0.254067
6221.96	-0.250837
6231.33	-0.248232
6240.7	-0.245608
6250.07	-0.242964
6261.78	-0.239632
6271.14	-0.236944
6280.51	-0.233475
6292.22	-0.228192
6301.59	-0.224026
6310.96	-0.21994
6320.33	-0.215938
6332.02	-0.21105
6341.36	-0.207208
6350.7	-0.203408
6360.05	-0.199626
6371.73	-0.194898
6381.08	-0.191097
6390.42	-0.187266
6402.1	-0.182468
6411.45	-0.178643
6420.8	-0.174834
6430.14	-0.171032
6441.83	-0.166262
6451.17	-0.162409
6460.52	-0.158502
6472.2	-0.152668
6481.55	-0.145493
6490.89	-0.13869
6500.23	-0.132223
6511.92	-0.12441
6521.26	-0.118216
6530.61	-0.111965
6542.2	-0.104149
6551.46	-0.0979957
6560.71	-0.091876
6572.27	-0.0828899
6581.52	-0.0728464
6590.77	-0.0640636
6600.03	-0.0553864
6611.59	-0.0440049
6620.84	-0.0344933
6630.09	-0.0187158
6641.66	0.000156671
6650.91	0.0264333
6660.16	0.0520068
6671.72	0.0786785
6680.98	0.0921772
6690.23	0.1028
6701.79	0.112318
6711.04	0.116794
6720.3	0.117646
6731.86	0.117336
6741.11	0.118165
6750.36	0.119764
6761.93	0.121055
6771.18	0.120823
6780.43	0.120004
6791.99	0.11941
6801.25	0.119481
6810.5	0.119763
6822.06	0.120603
6831.31	0.12198
6840.56	0.12373
6852.13	0.125527
6861.38	0.126246
6870.63	0.126485
6882.2	0.126598
6891.45	0.126662
6900.7	0.126571
6912.26	0.126174
6921.51	0.125813
6930.77	0.125573
6940.02	0.125397
6951.58	0.124965
6960.83	0.124296
6970.08	0.123416
6981.65	0.122315
6990.9	0.121644
7000.15	0.121231
7011.72	0.121002
7020.97	0.120867
7030.22	0.120548
7041.78	0.119597
7051.03	0.118274
7060.29	0.116476
7071.85	0.113747
7081.1	0.111382
7090.35	0.109039
7101.92	0.106324
7111.17	0.104375
7120.42	0.102578
7131.98	0.100408
7141.23	0.0986519
7150.49	0.0968766
7162.05	0.0947346
7171.3	0.0932059
7180.55	0.0919439
7192.12	0.0908218
7201.37	0.090284
7210.62	0.0900019
7222.18	0.0898617
7231.44	0.0898009
7240.69	0.0897129
7252.25	0.0895356
7261.5	0.0893659
7270.75	0.0892187
7280.01	0.0891401
7291.57	0.0891892
7300.82	0.0893659
7310.07	0.0896655
7321.64	0.0902008
7330.89	0.0907464
7340.14	0.0913892
7351.7	0.0923218
7360.95	0.0931601
7370.21	0.0940588
7381.77	0.0952145
7391.02	0.0961093
7400.27	0.0969263
7411.84	0.0977827
7421.09	0.0983148
7430.34	0.098715
7441.9	0.0990616
7451.16	0.0992499
7460.41	0.0993871
7471.97	0.0995127
7481.22	0.0995873
7490.47	0.0996449
7502.04	0.0997092
7511.29	0.0997809
7520.54	0.0999065
7532.11	0.100198
7541.36	0.100577
7550.61	0.101101
7562.17	0.101944
7571.42	0.102727
7580.68	0.103555
7592.24	0.104579
7601.49	0.105348
7610.74	0.106057
7622.31	0.106881
7631.56	0.107525
7640.81	0.108199
7650.06	0.108941
7661.63	0.110007
7670.88	0.11099
7680.13	0.112092
7691.69	0.113629
7700.94	0.114973
7710.2	0.116404
7721.76	0.11829
7731.01	0.11985
7740.26	0.121422
7751.83	0.123346
7761.08	0.124797
7770.33	0.126119
7781.9	0.127529
7791.15	0.128426
7800.4	0.129103
7812	0.129646
7821.32	0.129858
7830.65	0.129899
7842.3	0.129762
7851.62	0.12954
7860.95	0.129249
7870.27	0.128915
7881.92	0.128466
7891.25	0.128099
7900.57	0.127736
7912.22	0.127296
7921.54	0.126956
7930.87	0.126621
7940.19	0.126282
7951.84	0.125835
7961.17	0.125445
7970.49	0.125016
7982.14	0.124416
7991.47	0.123885
8000.79	0.123314
8010.11	0.122711
8021.77	0.121928
8031.09	0.121289
8040.42	0.120647
8052.08	0.11985
8061.4	0.119217
8070.73	0.118586
8080.06	0.117952
8091.72	0.117138
8101.04	0.116455
8110.37	0.115725
8122.03	0.11472
8131.35	0.113819
8140.68	0.112812
8150.01	0.111683
8161.66	0.110081
8170.99	0.108637
8180.32	0.107045
8191.98	0.104847
8201.3	0.102929
8210.63	0.100879
8222.29	0.098149
8231.61	0.0958477
8240.94	0.0934597
8250.27	0.0910022
8261.92	0.0878585
8271.25	0.0853063
8280.58	0.082737
8292.24	0.0795205
8301.57	0.076954
8310.91	0.074399
8320.26	0.0718588
8331.97	0.0687131
8341.35	0.0662193
8350.74	0.0637476
8360.14	0.0613058
8371.89	0.0583009
8381.29	0.0559413
8390.69	0.0536277
8400.09	0.0513668
8411.86	0.0486197
8421.31	0.0464919
8430.76	0.0444398
8440.21	0.0424686
8452.03	0.0401238
8461.48	0.0383449
8470.93	0.0366508
8480.38	0.0350378
8492.19	0.0331257
8501.64	0.0316688
8511.09	0.0302655
8520.54	0.0289041
8532.36	0.0272417
8541.81	0.0259263
8551.26	0.0246062
8560.71	0.0232621
8570.16	0.0218686
8581.97	0.0199949
8591.42	0.0182052
8600.87	0.0154538
8610.32	0.0100296
8622.14	0.000352177
8631.59	-0.00519369
8641.04	-0.00727971
8650.49	-0.0131772
8662.3	-0.0196348
8671.75	-0.0240537
8681.2	-0.0243858
8690.65	-0.0278161
8700.1	-0.0314041
8711.92	-0.035054
8721.37	-0.0377914
8730.82	-0.0404753
8740.26	-0.0430854
8752.04	-0.0460847
8761.46	-0.0483197
8770.89	-0.0504106
8780.31	-0.0526765
8792.09	-0.0559479
8801.52	-0.0580789
8810.94	-0.0599371
8820.37	-0.0615799
8832.15	-0.0634062
8841.57	-0.0647345
8850.93	-0.0659497
8860.36	-0.0671306
8872.11	-0.068537
8881.53	-0.0696105
8890.93	-0.0706474
8900.31	-0.0716462
8912.04	-0.0728347
8921.42	-0.073715
8930.81	-0.0720974
8940.19	-0.0738186
8951.93	-0.0746212
8961.31	-0.0751878
8970.7	-0.0756859
8980.09	-0.0760968
8991.82	-0.0765082
9001.2	-0.0767699
9010.59	-0.0769851
9022.32	-0.0772045
9031.71	-0.0773507
9041.1	-0.0774789
9050.48	-0.077595
9062.22	-0.0778755
9071.6	-0.0781492
9080.99	-0.0783993
9090.38	-0.0786318
9102.11	-0.0787778
9111.5	-0.0789042
9120.88	-0.0790382
9130.27	-0.0791791
9142	-0.0793629
9151.39	-0.0795146
9160.78	-0.079669
9170.16	-0.0798248
9181.88	-0.0800194
9191.26	-0.080174
9200.63	-0.0803264
9210.01	-0.0804758
9221.74	-0.0798959
9231.12	-0.0802574
9240.5	-0.0806044
9252.21	-0.0809992
9261.58	-0.081284
9270.95	-0.0815433
9280.31	-0.083121
9292.03	-0.0834292
9301.39	-0.0836497
9310.76	-0.0838478
9320.13	-0.0840243
9331.84	-0.0842156
9341.21	-0.0843462
9350.58	-0.0844565
9362.29	-0.0845598
9371.66	-0.0846159
9381.03	-0.0846494
9390.4	-0.0846616
9402.11	-0.0846494
9411.48	-0.08462
9420.85	-0.0845743
9430.22	-0.0845127
9441.93	-0.0844153
9451.29	-0.0843222
9460.66	-0.0842167
9470.03	-0.0840997
9481.74	-0.0839385
9491.11	-0.0837983
9500.48	-0.0836489
9512.19	-0.08345
9521.56	-0.0832818
9530.93	-0.083106
9540.3	-0.082923
9552.01	-0.0826845
9561.38	-0.0824832
9570.75	-0.0822712
9580.11	-0.0821335
9591.83	-0.0820417
9601.19	-0.0819477
9610.56	-0.0818369
9622.27	-0.0816762
9631.64	-0.0815311
9641.01	-0.0813723
9650.38	-0.0812005
9662.09	-0.0809159
9671.46	-0.0806513
9680.83	-0.0803801
9690.2	-0.0801025
9701.91	-0.0797468
9711.28	-0.0794552
9720.65	-0.0791577
9730.01	-0.0788542
9741.73	-0.0784665
9751.09	-0.0781497
9760.46	-0.0778271
9772.17	-0.0774156
9781.54	-0.0770799
9790.91	-0.0767384
9800.28	-0.0763912
9811.99	-0.0759491
9821.36	-0.0755889
9830.73	-0.075223
9840.1	-0.0748514
9851.8	-0.0743793
9861.14	-0.0739958
9870.48	-0.0736072
9882.15	-0.0731135
9891.5	-0.0727122
9900.84	-0.0723055
9910.19	-0.0718937
9921.87	-0.0713722
9931.22	-0.0709498
9940.56	-0.070523
9952.25	-0.0699834
9961.59	-0.0708906
9970.94	-0.0704977
9980.28	-0.0701016
9991.96	-0.0696017
10001.3	-0.0691978
10010.7	-0.0687904
10022.3	-0.0682755
10031.6	-0.0678595
10040.9	-0.0674402
10050.1	-0.0670156
10061.7	-0.0664778
10070.9	-0.0660419
10080.2	-0.0656013
10091.8	-0.0650439
10101	-0.0645928
10110.3	-0.0641374
10121.8	-0.0635652
10131.1	-0.0631052
10140.3	-0.0626429
10151.9	-0.0620614
10161.2	-0.0615601
10170.4	-0.0609603
10182	-0.0602133
10191.2	-0.0596177
10200.5	-0.0590235
10212	-0.0582827
10221.3	-0.0576912
10230.5	-0.0571007
10242.1	-0.0563636
10251.4	-0.0557748
10260.6	-0.0551864
10272.2	-0.0544517
10281.4	-0.0538645
10290.7	-0.0532777
10302.2	-0.0525449
10311.5	-0.0519592
10320.7	-0.0513739
10332.3	-0.050643
10341.6	-0.0500588
10350.8	-0.0494752
10360.1	-0.0488923
10371.6	-0.0481649
10380.9	-0.0475839
10390.1	-0.0470039
10401.7	-0.0462803
10410.9	-0.0457027
10420.2	-0.0451261
10431.8	-0.0444072
10441	-0.0438334
10450.3	-0.0432608
10461.8	-0.0425471
10471.1	-0.0419777
10480.3	-0.0414097
10491.9	-0.0407018
10501.1	-0.0401373
10510.4	-0.0395743
10522	-0.0388731
10531.2	-0.038314
10540.5	-0.0377567
10552	-0.0370628
10561.3	-0.0365097
10570.5	-0.0359586
10582.1	-0.0352727
10591.3	-0.0347265
10600.6	-0.0341828
10612.2	-0.0335066
10621.4	-0.0329701
10630.7	-0.0324387
10642.2	-0.0317813
10651.5	-0.0312605
10660.7	-0.0307441
10672.3	-0.0300873
10681.6	-0.0295157
10690.8	-0.0289543
10700.1	-0.0284027
10711.6	-0.0277259
10720.9	-0.0271941
10730.1	-0.0266704
10741.7	-0.0260265
10750.9	-0.0254161
10760.2	-0.0248026
10771.8	-0.0240791
10781	-0.0235305
10790.3	-0.0230053
10801.8	-0.0223773
10811.1	-0.0218947
10820.3	-0.0214275
10831.9	-0.020862
10841.1	-0.0204225
10850.4	-0.0199937
10862	-0.0194759
10871.2	-0.0190754
10880.5	-0.0186858
10892	-0.0182123
10901.3	-0.0178429
10910.5	-0.0174806
10922.1	-0.017036
10931.3	-0.0166857
10940.6	-0.0163391
10952.2	-0.0159098
10961.4	-0.0155686
10970.7	-0.0152288
10982.2	-0.014806
10991.5	-0.0144689
11000.7	-0.0141323
11012.3	-0.013712
11021.5	-0.0133755
11030.8	-0.0130382
11040	-0.0126999
11051.6	-0.0122748
11060.9	-0.0119343
11070.1	-0.0115998
11081.7	-0.0111876
11090.9	-0.0108605
11100.2	-0.0105344
11111.7	-0.010127
11121	-0.0098001
11130.2	-0.00947131
11141.8	-0.00905661
11151.1	-0.00868481
11160.3	-0.00818211
11171.9	-0.00752233
11181.1	-0.0069807
11190.4	-0.00643343
11201.9	-0.00574709
11211.2	-0.00519887
11220.5	-0.00465257
11232	-0.00397367
11241.3	-0.00343501
11250.5	-0.00290038
11262.1	-0.00223397
11271.3	-0.00169695
11280.6	-0.00115671
11292.2	-0.000477471
11301.4	6.85654e-05
11310.7	0.000616573
11322.2	0.00130156
11331.5	0.00184692
11340.7	0.00238906
11352.3	0.00412955
11361.5	0.00544134
11370.8	0.00664529
11380	0.0077333
11391.6	0.00893956
11400.9	0.00981561
11410.1	0.0106234
11421.7	0.0115472
11430.9	0.0124502
11440.2	0.0133295
11451.7	0.0142558
11461	0.0149072
11470.2	0.0154977
11481.8	0.0161917
11491.1	0.017181
11500.3	0.0182606
11511.9	0.0213784
11521.1	0.023179
11530.4	0.024762
11541.9	0.0268911
11551.2	0.0288255
11560.4	0.0309416
11572	0.0336248
11581.3	0.0358
11590.5	0.0380615
11602.1	0.040987
11611.3	0.0433761
11620.6	0.0458518
11632.1	0.0491244
11641.4	0.0518379
11650.6	0.0545743
11662.2	0.0580133
11671.5	0.0607625
11680.7	0.0634367
11692.3	0.0665458
11701.5	0.0687938
11710.9	0.0708379
11720.2	0.0727
11731.8	0.0748352
11741.2	0.0764179
11750.5	0.0778882
11762.1	0.0795502
11771.5	0.0807387
11780.8	0.0818211
11790.1	0.0828208
11801.8	0.0839777
11811.1	0.0848345
11820.4	0.0856305
11832.1	0.0865436
11841.4	0.0872192
11850.7	0.0878606
11860.1	0.088481
11871.7	0.0892435
11881	0.0898538
11890.4	0.0904719
11902	0.091256
11911.4	0.0918802
11920.7	0.09248
11930	0.0930333
11941.7	0.0936415
11951	0.0940675
11960.3	0.0944615
11972	0.094947
11981.3	0.0953543
11990.7	0.095788
