0	0
10.2722	0
20.5444	0
30.8164	0
41.0884	0
51.3603	0
61.6321	0
70.1919	0
80.4636	0
90.7352	0
101.007	0
111.278	0
121.55	0
130.109	0
140.381	0
150.621	0
160.737	0
170.834	0
180.922	0
191	0
201.078	0
211.156	0
221.233	0
231.306	0
241.374	0
251.444	0
261.519	0
271.597	1.81899e-12
281.674	7.27596e-12
290.072	1.18234e-11
300.15	1.72804e-11
310.227	2.27374e-11
320.304	3.27418e-11
330.381	4.36557e-11
340.459	5.91172e-11
350.536	7.7307e-11
360.613	9.91349e-11
370.69	1.27329e-10
380.722	1.60981e-10
390.665	2.01908e-10
400.635	2.51021e-10
410.618	3.08319e-10
420.586	3.76531e-10
430.424	4.56566e-10
440.19	5.49335e-10
451.519	6.74845e-10
461.23	8.00355e-10
470.94	9.44965e-10
480.65	1.11049e-09
490.361	1.29876e-09
500.001	1.51158e-09
511.237	1.79534e-09
520.871	2.07092e-09
530.464	2.37924e-09
540.057	2.72667e-09
551.237	3.18323e-09
560.81	3.62252e-09
570.382	4.11274e-09
581.548	4.75484e-09
591.114	5.37148e-09
600.68	6.05451e-09
610.247	6.81121e-09
621.407	7.7971e-09
630.973	8.73843e-09
640.539	9.77798e-09
650.105	1.09176e-08
661.266	1.238e-08
670.832	1.37497e-08
680.398	1.52304e-08
691.558	1.70985e-08
701.112	1.88211e-08
710.659	2.06574e-08
720.193	2.26091e-08
731.316	2.50338e-08
740.849	2.72375e-08
750.383	2.95513e-08
761.506	3.23826e-08
771.039	3.49119e-08
780.573	3.75276e-08
790.107	4.02206e-08
801.229	4.34457e-08
810.763	4.62696e-08
820.296	4.91364e-08
831.419	5.25215e-08
840.952	5.54464e-08
850.486	5.83832e-08
860.019	6.13218e-08
871.142	6.47406e-08
880.675	6.76546e-08
890.209	7.05468e-08
901.331	7.38864e-08
910.864	7.67159e-08
920.398	7.95089e-08
931.52	8.2724e-08
941.053	8.54452e-08
950.586	8.814e-08
960.12	9.0814e-08
971.242	9.3919e-08
980.775	9.65838e-08
990.308	9.92668e-08
1001.43	1.02449e-07
1010.96	1.05247e-07
1020.5	1.0814e-07
1030.03	1.1116e-07
1041.15	1.14895e-07
1050.69	1.18323e-07
1060.22	1.22012e-07
1071.34	1.26716e-07
1080.87	1.31156e-07
1090.41	1.36042e-07
1101.53	1.42404e-07
1111.06	1.48515e-07
1120.6	1.55324e-07
1130.13	1.62925e-07
1141.25	1.72932e-07
1150.78	1.82609e-07
1160.31	1.93425e-07
1171.42	2.07655e-07
1180.95	2.21388e-07
1190.48	2.36692e-07
1200.01	2.53722e-07
1211.12	2.75984e-07
1220.65	2.9732e-07
1230.18	3.20928e-07
1241.29	3.51603e-07
1250.82	3.80816e-07
1260.35	4.12952e-07
1271.46	4.54444e-07
1280.99	4.93714e-07
1290.52	5.36669e-07
1300.04	5.83556e-07
1311.13	6.43545e-07
1320.63	6.99802e-07
1330.12	7.60897e-07
1341.2	8.38745e-07
1350.7	9.11488e-07
1360.17	9.89979e-07
1371.21	1.08963e-06
1380.67	1.18287e-06
1390.13	1.28364e-06
1401.17	1.41096e-06
1410.64	1.52862e-06
1420.1	1.65426e-06
1431.14	1.81101e-06
1440.6	1.95421e-06
1450.06	2.10565e-06
1461.1	2.2929e-06
1470.56	2.46246e-06
1481.55	2.6705e-06
1490.98	2.85832e-06
1500.4	3.05515e-06
1511.4	3.29653e-06
1520.82	3.51383e-06
1530.25	3.74112e-06
1541.24	4.01946e-06
1550.67	4.26986e-06
1560.09	4.5317e-06
1571.07	4.85181e-06
1580.49	5.14047e-06
1591.46	5.49352e-06
1600.88	5.81188e-06
1610.26	6.14423e-06
1621.21	6.55221e-06
1630.6	6.92033e-06
1641.55	7.37264e-06
1650.93	7.7811e-06
1660.32	8.20993e-06
1671.27	8.73756e-06
1680.66	9.21467e-06
1690.04	9.71611e-06
1701	1.03337e-05
1710.38	1.08926e-05
1721.33	1.15814e-05
1730.72	1.22049e-05
1740.11	1.28607e-05
1751.06	1.36686e-05
1760.44	1.43992e-05
1771.39	1.52976e-05
1780.78	1.61082e-05
1790.17	1.69573e-05
1801.12	1.79975e-05
1810.5	1.89327e-05
1821.45	2.00755e-05
1830.83	2.10995e-05
1840.21	2.21667e-05
1851.15	2.34675e-05
1860.53	2.46306e-05
1871.47	2.60454e-05
1880.85	2.73086e-05
1890.22	2.86191e-05
1901.15	3.02106e-05
1910.52	3.16298e-05
1921.45	3.3352e-05
1930.82	3.48869e-05
1940.18	3.64779e-05
1951.11	3.84074e-05
1960.48	4.01265e-05
1971.41	4.2211e-05
1980.78	4.4068e-05
1990.15	4.59924e-05
2001.08	4.83261e-05
2010.45	5.04053e-05
2021.38	5.29268e-05
2030.75	5.51736e-05
2040.12	5.75025e-05
2051.05	6.03274e-05
2060.42	6.28451e-05
2071.35	6.58995e-05
2080.71	6.86223e-05
2090.08	7.07235e-05
2101.01	6.9191e-05
2110.38	6.81126e-05
2121.31	6.71088e-05
2130.68	6.64522e-05
2140.05	6.59718e-05
2150.98	6.56203e-05
2160.35	6.54872e-05
2171.28	6.55159e-05
2180.65	6.56894e-05
2190.01	6.59933e-05
2200.94	6.65045e-05
2210.31	6.70712e-05
2221.24	6.7876e-05
2230.61	6.86849e-05
2241.54	6.97631e-05
2250.91	7.08e-05
2260.28	7.19391e-05
2271.21	7.33954e-05
2280.58	7.47522e-05
2291.51	7.64616e-05
2300.87	7.80353e-05
2310.24	7.97103e-05
2321.17	8.17937e-05
2330.54	8.36924e-05
2341.47	8.60418e-05
2350.84	8.81734e-05
2360.21	9.04166e-05
2371.14	9.31786e-05
2380.5	9.5674e-05
2391.43	9.87395e-05
2400.8	0.000101503
2410.17	0.000104398
2421.1	0.000107944
2430.47	0.000111135
2441.4	0.000115041
2450.77	0.000118551
2460.13	0.000122216
2471.06	0.000126696
2480.43	0.000130704
2491.36	0.00013556
2500.73	0.000139866
2510.07	0.000144288
2520.98	0.000149601
2530.32	0.000154281
2541.22	0.000159893
2550.56	0.000164833
2561.47	0.000170748
2570.81	0.000175952
2580.16	0.000181283
2591.06	0.000187668
2600.41	0.000193291
2611.31	0.000200033
2620.65	0.000205978
2631.56	0.000213117
2640.9	0.000219422
2650.21	0.000225879
2661.02	0.000233623
2670.27	0.000240464
2681.07	0.000248712
2690.32	0.000256025
2701.11	0.000264856
2710.36	0.000272695
2721.16	0.000282171
2730.41	0.000290589
2741.2	0.000300771
2750.45	0.00030982
2761.25	0.00032077
2770.5	0.000330504
2781.29	0.000342285
2790.54	0.00035276
2801.34	0.00036544
2810.59	0.000376718
2821.38	0.000390373
2830.63	0.000402521
2841.43	0.000434425
2850.68	0.000464225
2861.47	0.000498805
2870.72	0.000528223
2881.52	0.000562264
2890.77	0.000591212
2900.02	0.000619978
2910.81	0.000653367
2920.06	0.000681904
2930.86	0.0007152
2940.11	0.000743827
2950.9	0.000777446
2960.15	0.000806549
2970.95	0.000840968
2980.2	0.000870972
2990.99	0.000906697
3000.24	0.000938039
3011.04	0.000975577
3020.29	0.00100869
3031.08	0.00104854
3040.33	0.00108375
3051.12	0.00112587
3060.38	0.00116275
3071.17	0.0012066
3080.42	0.00124488
3091.21	0.00129038
3100.46	0.00133014
3111.26	0.00137754
3120.51	0.00141913
3131.3	0.00146897
3140.55	0.00151296
3151.35	0.00156598
3160.6	0.00161306
3171.39	0.00167008
3180.64	0.00172093
3191.43	0.00178273
3200.68	0.001838
3211.48	0.00190536
3220.73	0.00197819
3231.52	0.00213414
3240.77	0.00226112
3250.02	0.00238245
3260.82	0.00251838
3270.07	0.00263173
3280.86	0.00276247
3290.11	0.00287504
3300.9	0.00300906
3310.15	0.00312782
3320.95	0.00327227
3330.2	0.00340037
3340.99	0.00355396
3350.24	0.00368935
3361.03	0.00385267
3370.29	0.00399855
3381.08	0.00417767
3390.33	0.00434052
3401.12	0.00454311
3410.37	0.00485016
3421.17	0.00526858
3430.42	0.00561481
3441.21	0.00601619
3450.46	0.00636983
3461.25	0.00680474
3470.5	0.00719115
3481.3	0.00765583
3490.55	0.00807677
3501.34	0.00876556
3510.59	0.0095914
3521.38	0.0104664
3530.63	0.0112723
3541.43	0.012299
3550.68	0.013851
3561.47	0.0158309
3570.72	0.0186439
3581.51	0.0234824
3590.76	0.027948
3600.02	0.0320864
3610.81	0.0366717
3620.06	0.0406547
3630.85	0.0452877
3640.1	0.0489917
3650.9	0.0530832
3660.15	0.0566329
3670.94	0.0608864
3680.19	0.064483
3690.98	0.0684898
3700.23	0.071812
3711.03	0.0756683
3720.28	0.0789742
3731.07	0.082814
3740.32	0.0861118
3751.12	0.0900014
3760.37	0.0933547
3771.16	0.0972356
3780.41	0.100516
3791.21	0.104311
3800.46	0.107562
3811.25	0.111369
3820.5	0.114653
3831.29	0.11853
3840.55	0.12191
3851.34	0.125926
3860.59	0.129422
3871.38	0.133554
3880.64	0.137142
3891.43	0.141391
3900.68	0.145097
3911.52	0.149523
3920.85	0.153401
3930.17	0.157344
3941.04	0.162014
3950.37	0.166069
3961.24	0.170853
3970.57	0.175002
3981.44	0.179912
3990.77	0.184196
4000.09	0.188569
4010.97	0.193803
4020.29	0.198422
4031.17	0.203983
4040.5	0.208916
4051.38	0.214889
4060.7	0.220221
4070.03	0.225777
4080.91	0.232582
4090.24	0.238722
4101.12	0.246284
4110.44	0.253138
4121.32	0.261605
4130.65	0.2693
4141.53	0.278834
4150.86	0.287524
4160.18	0.296734
4171.07	0.308195
4180.41	0.318688
4191.32	0.331773
4200.69	0.343749
4210.09	0.356488
4221.05	0.372305
4230.45	0.386704
4241.42	0.404511
4250.82	0.420645
4260.23	0.437616
4271.26	0.458497
4280.71	0.477236
4290.16	0.496713
4301.19	0.5203
4310.64	0.541186
4320.09	0.562609
4331.11	0.588166
4340.56	0.610439
4350.01	0.632934
4361.04	0.659288
4370.49	0.681811
4381.51	0.707791
4390.96	0.729611
4400.41	0.750826
4411.44	0.774551
4420.89	0.793776
4430.34	0.811752
4441.36	0.830852
4450.81	0.845359
4460.26	0.857904
4471.29	0.869748
4480.74	0.877241
4490.19	0.882038
4501.21	0.88393
4510.66	0.882135
4520.12	0.87698
4531.14	0.866478
4540.59	0.853451
4550.04	0.836568
4561.07	0.811858
4570.52	0.786296
4581.54	0.751306
4590.99	0.71688
4600.44	0.678392
4611.47	0.628438
4620.92	0.581394
4630.37	0.530562
4641.39	0.466626
4650.84	0.407981
4660.3	0.34589
4671.32	0.269177
4680.77	0.199786
4690.22	0.127045
4701.25	0.0369853
4710.7	-0.0335644
4720.15	-0.080389
4731.17	-0.102568
4740.62	-0.129774
4750.07	-0.151548
4761.1	-0.171264
4770.59	-0.185964
4780.12	-0.18899
4791.24	-0.2061
4800.78	-0.217291
4810.31	-0.226415
4821.43	-0.235497
4830.97	-0.24165
4840.5	-0.247364
4850.03	-0.25293
4861.16	-0.259024
4870.69	-0.263796
4880.22	-0.256106
4891.35	-0.259883
4900.88	-0.265012
4910.41	-0.269351
4921.54	-0.273578
4931.07	-0.276638
4940.6	-0.279291
4950.14	-0.281631
4961.26	-0.284071
4970.79	-0.285645
4980.33	-0.287093
4991.45	-0.288667
5000.98	-0.289965
5010.51	-0.291251
5020.05	-0.292503
5031.17	-0.293894
5040.7	-0.29501
5050.23	-0.296045
5061.35	-0.297052
5070.88	-0.289869
5080.4	-0.290864
5091.52	-0.292335
5101.05	-0.293666
5110.57	-0.29483
5120.1	-0.295832
5131.22	-0.296781
5140.74	-0.297426
5150.27	-0.297934
5161.39	-0.298365
5170.91	-0.29861
5180.44	-0.298749
5191.56	-0.298791
5201.08	-0.298733
5210.61	-0.298596
5220.13	-0.298388
5231.22	-0.298063
5240.71	-0.297722
5250.21	-0.297326
5261.29	-0.296754
5270.77	-0.296229
5280.23	-0.29568
5291.27	-0.295007
5300.73	-0.294275
5310.2	-0.293468
5321.24	-0.292512
5330.7	-0.291678
5340.16	-0.290829
5351.2	-0.289819
5360.66	-0.288934
5370.13	-0.288033
5381.16	-0.286959
5390.63	-0.286019
5400.09	-0.285063
5411.13	-0.283928
5420.59	-0.282935
5430.02	-0.28192
5441.01	-0.280713
5450.44	-0.277325
5461.43	-0.273354
5470.86	-0.272819
5480.28	-0.272279
5491.28	-0.271643
5500.7	-0.271094
5510.13	-0.270542
5521.12	-0.269892
5530.51	-0.269334
5541.48	-0.268681
5550.9	-0.268119
5560.3	-0.26756
5571.24	-0.266911
5580.63	-0.266357
5590.02	-0.265805
5600.97	-0.265165
5610.36	-0.264619
5621.31	-0.263985
5630.69	-0.263444
5640.08	-0.262904
5651.03	-0.262273
5660.42	-0.261731
5671.37	-0.261093
5680.75	-0.26054
5690.14	-0.259982
5701.09	-0.259322
5710.48	-0.258749
5721.43	-0.25807
5730.82	-0.257478
5740.2	-0.256875
5751.15	-0.256156
5760.53	-0.255525
5771.47	-0.25477
5780.84	-0.254104
5790.23	-0.25342
5801.18	-0.252596
5810.56	-0.25194
5821.5	-0.251142
5830.88	-0.250415
5840.25	-0.249649
5851.2	-0.248707
5860.57	-0.247859
5871.5	-0.246804
5880.87	-0.245771
5890.24	-0.244702
5901.17	-0.24341
5910.53	-0.242266
5921.46	-0.24089
5930.83	-0.239676
5940.2	-0.238432
5951.13	-0.236944
5960.5	-0.235638
5971.43	-0.23408
5980.8	-0.232716
5990.17	-0.231328
6001.1	-0.229677
6010.47	-0.228238
6021.4	-0.226531
6030.77	-0.225046
6040.14	-0.223542
6051.07	-0.221763
6060.43	-0.220492
6071.36	-0.219252
6080.73	-0.218121
6090.1	-0.216937
6101.03	-0.2155
6110.4	-0.214225
6121.33	-0.212694
6130.7	-0.211349
6140.07	-0.209976
6151	-0.208341
6160.37	-0.206913
6171.3	-0.205218
6180.67	-0.20374
6190.03	-0.202234
6200.96	-0.200441
6210.33	-0.198875
6221.26	-0.197018
6230.63	-0.195403
6240	-0.193767
6250.93	-0.191835
6260.3	-0.190161
6271.23	-0.188188
6280.6	-0.186483
6291.53	-0.184485
6300.9	-0.182772
6310.27	-0.181062
6321.2	-0.179072
6330.56	-0.177374
6341.49	-0.175402
6350.86	-0.173719
6360.23	-0.172042
6371.16	-0.170091
6380.53	-0.168422
6391.46	-0.166477
6400.83	-0.164809
6410.2	-0.163137
6421.13	-0.161181
6430.5	-0.159498
6441.43	-0.157523
6450.8	-0.15582
6460.16	-0.154106
6471.09	-0.151396
6480.46	-0.14834
6491.39	-0.144899
6500.76	-0.142062
6510.13	-0.139321
6521.06	-0.136225
6530.43	-0.13364
6541.36	-0.130678
6550.73	-0.128166
6560.1	-0.125662
6571.03	-0.122732
6580.37	-0.12021
6591.28	-0.117262
6600.62	-0.114745
6611.52	-0.111818
6620.87	-0.109311
6630.21	-0.106795
6641.12	-0.103831
6650.46	-0.10125
6661.37	-0.0981766
6670.71	-0.0934773
6680.06	-0.0889756
6690.96	-0.0839711
6700.31	-0.0798141
6711.21	-0.075003
6720.55	-0.0708388
6731.45	-0.0659022
6740.8	-0.0616802
6750.14	-0.057497
6761.05	-0.0525956
6770.39	-0.047219
6781.24	-0.0394422
6790.49	-0.0334756
6801.28	-0.0263855
6810.53	-0.0201598
6821.33	-0.010359
6830.58	-0.000740525
6841.37	0.0126
6850.62	0.0295386
6861.42	0.0465679
6870.67	0.0573044
6881.46	0.0661412
6890.71	0.0719063
6901.51	0.0769098
6910.76	0.0792209
6920.01	0.0800325
6930.8	0.0807754
6940.05	0.0818858
6950.85	0.0832823
6960.1	0.083942
6970.89	0.0839586
6980.14	0.0837536
6990.94	0.0837667
7000.19	0.0840497
7010.98	0.0846194
7020.23	0.0853638
7031.03	0.086525
7040.28	0.0875452
7051.07	0.0884103
7060.32	0.0887682
7071.12	0.0888688
7080.37	0.088827
7091.16	0.0886838
7100.41	0.0884608
7111.21	0.0880994
7120.46	0.0877554
7131.25	0.0873432
7140.5	0.0869443
7151.3	0.0863671
7160.55	0.0857827
7171.34	0.0850852
7180.59	0.0845695
7191.39	0.0841436
7200.64	0.083931
7211.43	0.0837787
7220.68	0.0836132
7231.47	0.0832233
7240.73	0.0826274
7251.52	0.0815919
7260.77	0.08045
7270.02	0.0791498
7280.82	0.0775496
7290.07	0.0761947
7300.86	0.0746982
7310.11	0.0734965
7320.91	0.0721602
7330.16	0.0710413
7340.95	0.0697556
7350.2	0.0686943
7360.99	0.0675667
7370.25	0.0667559
7381.04	0.0660506
7390.29	0.0656716
7401.08	0.0654741
7410.34	0.0654713
7421.13	0.0655941
7430.38	0.065757
7441.17	0.0659751
7450.42	0.0661769
7461.22	0.0664413
7470.47	0.0667117
7481.26	0.0671021
7490.51	0.0675144
7501.31	0.0680933
7510.56	0.0686735
7521.35	0.0694444
7530.6	0.0701822
7541.4	0.0711273
7550.65	0.0720033
7561.44	0.0730882
7570.69	0.0740546
7581.49	0.075196
7590.74	0.0761606
7601.53	0.0772415
7610.78	0.0781132
7620.03	0.0789271
7630.83	0.0798047
7640.08	0.0805027
7650.87	0.081266
7660.12	0.0818866
7670.92	0.0825819
7680.17	0.0831606
7690.96	0.0838259
7700.21	0.0843988
7711.01	0.0850878
7720.26	0.0857117
7731.05	0.0864949
7740.3	0.0872209
7751.1	0.0881296
7760.35	0.0889507
7771.14	0.0899366
7780.39	0.0907864
7791.19	0.0917642
7800.44	0.0925823
7811.23	0.0935144
7820.48	0.0943034
7831.28	0.0952303
7840.53	0.0960461
7851.32	0.0970394
7860.57	0.0979349
7871.37	0.0990341
7880.62	0.10002
7891.41	0.101209
7900.66	0.102248
7911.46	0.103463
7920.71	0.104483
7931.5	0.105619
7940.75	0.106518
7950	0.10732
7960.8	0.108102
7970.05	0.108616
7980.84	0.109015
7990.11	0.109174
8000.98	0.109148
8010.31	0.10895
8021.18	0.108532
8030.51	0.108032
8041.38	0.10731
8050.71	0.106591
8060.03	0.105798
8070.91	0.104795
8080.23	0.103882
8091.11	0.102766
8100.43	0.101772
8111.31	0.100571
8120.63	0.0995079
8131.51	0.0982236
8140.83	0.0970825
8150.15	0.0959016
8161.03	0.0944723
8170.35	0.093204
8181.24	0.0916791
8190.56	0.0903411
8201.44	0.0887561
8210.77	0.0873884
8220.1	0.0860235
8230.98	0.0844473
8240.3	0.0831197
8251.18	0.0816065
8260.51	0.0803436
8271.39	0.0789103
8280.72	0.0777126
8290.04	0.0765372
8300.93	0.0751827
8310.25	0.0740241
8321.13	0.0726584
8330.46	0.0714616
8341.34	0.0700171
8350.67	0.068725
8361.55	0.0671412
8370.88	0.0657101
8380.21	0.0642044
8391.12	0.0623524
8400.48	0.0606824
8411.4	0.0586469
8420.79	0.05683
8430.18	0.0549572
8441.15	0.0527179
8450.55	0.0507641
8461.51	0.0484598
8470.91	0.0464755
8480.31	0.0444927
8491.28	0.042192
8500.68	0.0402377
8510.12	0.0382959
8521.14	0.0360594
8530.59	0.0341705
8540.05	0.0323081
8551.07	0.0301681
8560.52	0.0283608
8571.55	0.0262818
8581	0.024523
8590.45	0.0227825
8601.47	0.0207692
8610.92	0.0190493
8620.37	0.0173198
8631.4	0.0152558
8640.85	0.0133914
8650.3	0.0110163
8661.33	0.00513346
8670.78	0.000542527
8680.23	-0.00229713
8691.25	-0.00774058
8700.7	-0.0120233
8710.15	-0.0158033
8721.18	-0.0168245
8730.63	-0.0207015
8740.08	-0.0236791
8751.11	-0.0266311
8760.56	-0.0289361
8770.01	-0.0310112
8781.03	-0.0332992
8790.48	-0.0351443
8801.51	-0.0340296
8810.96	-0.0362823
8820.41	-0.0381943
8831.44	-0.0401411
8840.89	-0.0416356
8850.34	-0.0430192
8861.36	-0.0445341
8870.81	-0.045771
8880.26	-0.0469648
8891.29	-0.0483416
8900.74	-0.0494174
8910.19	-0.0504458
8921.22	-0.0516011
8930.65	-0.0525469
8940.07	-0.0534503
8951.07	-0.0544485
8960.49	-0.0552539
8971.49	-0.0544158
8980.91	-0.056947
8990.34	-0.0574785
9001.33	-0.0579972
9010.76	-0.0583686
9020.18	-0.0586829
9031.16	-0.0589925
9040.56	-0.0592211
9051.53	-0.0594574
9060.95	-0.0596427
9070.37	-0.0598184
9081.33	-0.0600172
9090.71	-0.0601872
9100.09	-0.0603601
9111.04	-0.0606717
9120.42	-0.0609665
9131.38	-0.0612771
9140.76	-0.0614922
9150.15	-0.061712
9161.1	-0.061972
9170.49	-0.062196
9181.44	-0.0624563
9190.82	-0.0626766
9200.21	-0.0628929
9211.16	-0.0631384
9220.55	-0.0633419
9231.5	-0.06357
9240.89	-0.0637567
9250.27	-0.0639347
9261.22	-0.0641309
9270.61	-0.064289
9281.56	-0.062942
9290.95	-0.063204
9300.33	-0.0623687
9311.29	-0.0626875
9320.67	-0.062945
9330.06	-0.0631884
9341.01	-0.0634543
9350.4	-0.063667
9361.35	-0.0638974
9370.73	-0.0640796
9380.12	-0.0642443
9391.05	-0.0644135
9400.43	-0.0645399
9411.37	-0.0646666
9420.76	-0.064758
9430.13	-0.0648318
9441.08	-0.0648948
9450.45	-0.0649299
9461.39	-0.0649488
9470.76	-0.0649467
9480.13	-0.0649286
9491.06	-0.0648884
9500.43	-0.0648387
9511.36	-0.0647641
9520.73	-0.0646868
9530.1	-0.0645981
9541.03	-0.0644809
9550.39	-0.0643697
9561.32	-0.0642284
9570.69	-0.064098
9580.06	-0.0639597
9590.99	-0.0637894
9600.36	-0.0636343
9611.29	-0.0634421
9620.66	-0.0632689
9630.03	-0.0630887
9640.96	-0.0629939
9650.33	-0.0629001
9661.26	-0.0627773
9670.63	-0.0626617
9681.56	-0.0624789
9690.93	-0.0622925
9700.29	-0.0621018
9711.22	-0.0618746
9720.59	-0.0616761
9731.52	-0.0614406
9740.89	-0.0612355
9750.26	-0.0610279
9761.19	-0.0607824
9770.56	-0.0605694
9781.49	-0.0603181
9790.86	-0.0601003
9800.23	-0.0598803
9811.16	-0.0596209
9820.53	-0.0593962
9831.46	-0.0591313
9840.83	-0.0589018
9850.19	-0.0586699
9861.12	-0.0583965
9870.49	-0.0581595
9881.42	-0.0578798
9890.79	-0.0576373
9900.16	-0.0573922
9911.09	-0.0571027
9920.46	-0.0568517
9931.39	-0.0565551
9940.76	-0.0562979
9950.13	-0.0560379
9961.06	-0.0557312
9970.43	-0.0554653
9981.36	-0.0551519
9990.73	-0.0557036
10000.1	-0.0554541
10011	-0.0551608
10020.4	-0.0549073
10031.3	-0.0546089
10040.7	-0.0543508
10050.1	-0.0540903
10061	-0.0537834
10070.4	-0.0535176
10081.3	-0.0532037
10090.7	-0.0529303
10100	-0.0526533
10110.9	-0.0523261
10120.2	-0.0520416
10131.1	-0.051705
10140.5	-0.0514123
10151.4	-0.0510661
10160.7	-0.0507654
10170.1	-0.050461
10181	-0.0501012
10190.3	-0.0497718
10201.2	-0.0492868
10210.6	-0.048871
10221.5	-0.0483858
10230.8	-0.0479697
10240.2	-0.0475534
10251.1	-0.0470674
10260.4	-0.0466505
10271.3	-0.0461638
10280.7	-0.0457461
10290	-0.0453295
10300.9	-0.0448483
10310.1	-0.044439
10320.9	-0.0439633
10330.2	-0.0435564
10341	-0.0430826
10350.2	-0.0426768
10361	-0.0422037
10370.3	-0.0417983
10381	-0.0413252
10390.3	-0.0409194
10401.1	-0.0404456
10410.3	-0.040039
10421.1	-0.039564
10430.4	-0.0391562
10441.2	-0.0386796
10450.4	-0.0382703
10461.2	-0.0377918
10470.5	-0.0373809
10481.3	-0.0369005
10490.5	-0.0364878
10501.3	-0.0360055
10510.6	-0.0355913
10521.4	-0.0351072
10530.6	-0.0346916
10541.4	-0.0342062
10550.7	-0.0337899
10561.4	-0.033304
10570.7	-0.0328875
10581.5	-0.0324016
10590.7	-0.0319854
10601.5	-0.0315001
10610.8	-0.0310846
10620	-0.0306695
10630.8	-0.0301858
10640.1	-0.0297719
10650.9	-0.0292898
10660.1	-0.0288774
10670.9	-0.0283973
10680.2	-0.0279867
10691	-0.0275094
10700.2	-0.0271019
10711	-0.0266105
10720.3	-0.0261557
10731.1	-0.0256329
10740.3	-0.0251911
10751.1	-0.0246831
10760.4	-0.0242538
10771.2	-0.0237598
10780.4	-0.0233422
10791.2	-0.0228615
10800.4	-0.022455
10811.2	-0.0219892
10820.5	-0.0215968
10831.3	-0.0211467
10840.5	-0.0207669
10851.3	-0.0203305
10860.6	-0.0199616
10871.4	-0.019537
10880.6	-0.0191776
10891.4	-0.0187632
10900.7	-0.0184119
10911.5	-0.0180064
10920.7	-0.017647
10931.5	-0.0172104
10940.8	-0.0168547
10950	-0.0165134
10960.8	-0.0161307
10970.1	-0.0158137
10980.9	-0.0154545
10990.1	-0.015154
11000.9	-0.0148105
11010.2	-0.0145209
11020.9	-0.0141883
11030.2	-0.0139102
11041	-0.0135933
11050.2	-0.0133273
11061	-0.0130224
11070.3	-0.0127649
11081.1	-0.0124678
11090.3	-0.0122151
11101.1	-0.0119217
11110.4	-0.0116707
11121.2	-0.0113776
11130.4	-0.0111255
11141.2	-0.0108299
11150.5	-0.0105752
11161.3	-0.0102763
11170.5	-0.0100186
11181.3	-0.00971594
11190.6	-0.00945467
11201.3	-0.00914738
11210.6	-0.00888159
11221.4	-0.00856838
11230.6	-0.008297
11241.4	-0.00797698
11250.7	-0.00770486
11261.5	-0.00739109
11270.7	-0.00712385
11281.5	-0.00681275
11290.8	-0.00654569
11300	-0.00627742
11310.8	-0.00596192
11320.1	-0.00568862
11330.9	-0.00536572
11340.1	-0.00504363
11350.9	-0.0045474
11360.2	-0.00410338
11371	-0.00357367
11380.2	-0.00311492
11391	-0.00257826
11400.3	-0.00211885
11411	-0.00158464
11420.3	-0.00112882
11431.1	-0.000600747
11440.3	-0.000151583
11451.1	0.000368403
11460.4	0.00081178
11471.2	0.00133281
11480.4	0.00178322
11491.2	0.00231316
11500.5	0.00277063
11511.3	0.00330545
11520.5	0.00376323
11531.3	0.0042958
11540.6	0.00521532
11551.4	0.00650601
11560.6	0.00752579
11571.4	0.00860137
11580.7	0.00942633
11591.5	0.0102922
11600.7	0.0109805
11611.5	0.0117308
11620.8	0.01233
11630	0.0132222
11640.8	0.0140603
11650	0.0146855
11660.8	0.0153784
11670.1	0.0159182
11680.9	0.0168231
11690.1	0.0178411
11700.9	0.020096
11710.2	0.0222727
11721	0.024156
11730.2	0.0257442
11741	0.0277521
11750.3	0.0296511
11761.1	0.031913
11770.3	0.0338129
11781.1	0.036056
11790.4	0.0380513
11801.2	0.0404262
11810.4	0.0424855
11821.2	0.0449402
11830.5	0.0471025
11841.4	0.0496613
11850.7	0.0518657
11860.1	0.0540585
11870.9	0.0565461
11880.3	0.0585487
11891.1	0.0606661
11900.5	0.0622842
11911.3	0.063982
11920.7	0.0653174
11931.5	0.0667708
11940.9	0.0679397
11950.2	0.0690409
11961.1	0.0702388
11970.4	0.0711896
11981.3	0.0722101
11990.6	0.0730128
