time,surface_elevation,reference_data,number_of_local_cells,number_of_global_cells
0,9.0279e-06,-2,32768,32768
1.01144,8.35803e-06,-2,32768,32768
2.00042,5.7755e-06,-2,32768,32768
3.0119,3.7465e-06,-2,32768,32768
4.00091,2.53752e-06,-2,32768,32768
5.01242,1.82545e-06,-2,32768,32768
6.00145,1.44435e-06,-2,32768,32768
7.01298,1.25815e-06,-2,32768,32768
8.00203,1.19898e-06,-2,32768,32768
9.01357,1.21772e-06,-2,32768,32768
10.0027,1.27516e-06,-2,32768,32768
11.0142,1.35201e-06,-2,32768,32768
12.0034,1.45066e-06,-2,32768,32768
13.015,1.5691e-06,-2,32768,32768
14.0042,1.69669e-06,-2,32768,32768
15.016,1.83948e-06,-2,32768,32768
16.0053,1.98251e-06,-2,32768,32768
17.0172,2.1382e-06,-2,32768,32768
18.0068,2.28946e-06,-2,32768,32768
19.0192,2.43552e-06,-2,32768,32768
20.01,2.56794e-06,-2,32768,32768
21.0025,2.69208e-06,-2,32768,32768
22.0195,2.89626e-06,-2,32768,32768
23.0164,4.78767e-06,-2,32768,32768
24.0157,1.47317e-05,-2,32768,32768
25.0176,4.93826e-05,-2,32768,32768
26.0218,0.000224649,-2,32768,32768
27.0053,0.000446692,-2,32768,32768
28.0137,0.00053335,-2,32768,32768
29.0008,0.000737714,-2,32768,32768
30.0124,0.00101407,-2,32768,32768
31.0022,0.00129534,-2,32768,32768
32.0162,0.00160992,-2,32768,32768
33.0073,0.00200681,-2,32768,32768
34.0214,0.00262324,-2,32768,32768
35.0122,0.00341822,-2,32768,32768
36.0029,0.00443103,-2,32768,32768
37.0165,0.00580317,-2,32768,32768
38.0069,0.00750158,-2,32768,32768
39.0202,0.00971451,-2,32768,32768
40.0104,0.0124765,-2,32768,32768
41.0004,0.0159336,-2,32768,32768
42.0133,0.0202849,-2,32768,32768
43.0031,0.0252464,-2,32768,32768
44.0159,0.0306959,-2,32768,32768
45.0055,0.0358121,-2,32768,32768
46.018,0.0402694,-2,32768,32768
47.0074,0.0436195,-2,32768,32768
48.0197,0.0459388,-2,32768,32768
49.0089,0.047184,-2,32768,32768
50.021,0.047624,-2,32768,32768
51.01,0.0473669,-2,32768,32768
52.0219,0.0465632,-2,32768,32768
53.0107,0.0453512,-2,32768,32768
54.0224,0.0437669,-2,32768,32768
55.0109,0.041951,-2,32768,32768
56.0223,0.0398593,-2,32768,32768
57.0106,0.0376209,-2,32768,32768
58.0217,0.0351408,-2,32768,32768
59.0097,0.0325394,-2,32768,32768
60.0205,0.0296857,-2,32768,32768
61.0082,0.0266899,-2,32768,32768
62.0187,0.0233682,-2,32768,32768
63.006,0.018666,-2,32768,32768
64.0161,0.0104893,-2,32768,32768
65.0016,0.00872504,-2,32768,32768
66.0142,-0.0114415,-2,32768,32768
67.0148,-0.0110609,-2,32768,32768
68.001,-0.0111846,-2,32768,32768
69.0176,-0.0111846,-2,32768,32768
70.0032,-0.0111846,-2,32768,32768
71.0114,-0.0111846,-2,32768,32768
72.0192,-0.0111846,-2,32768,32768
73.0037,-0.0111846,-2,32768,32768
74.0106,-0.0111846,-2,32768,32768
75.017,-0.0111846,-2,32768,32768
76.0001,-0.0111846,-2,32768,32768
77.0056,-0.0111846,-2,32768,32768
78.0105,-0.0111846,-2,32768,32768
79.0148,-0.0111846,-2,32768,32768
80.0186,-0.0111846,-2,32768,32768
81.0219,-0.0111846,-2,32768,32768
82.0019,-0.0111846,-2,32768,32768
83.0041,-0.0111846,-2,32768,32768
84.0059,-0.0111411,-2,32768,32768
85.0073,-0.0105766,-2,32768,32768
86.0084,-0.00956885,-2,32768,32768
87.0091,-0.00861872,-2,32768,32768
88.0096,-0.00782642,-2,32768,32768
89.01,-0.00723523,-2,32768,32768
90.0102,-0.00652849,-2,32768,32768
91.0104,-0.0059253,-2,32768,32768
92.0106,-0.00559618,-2,32768,32768
93.0108,-0.0052219,-2,32768,32768
94.011,-0.00469559,-2,32768,32768
95.0112,-0.00424116,-2,32768,32768
96.0114,-0.00384947,-2,32768,32768
97.0116,-0.00348676,-2,32768,32768
98.0118,-0.00315197,-2,32768,32768
99.0119,-0.00285831,-2,32768,32768
100.012,-0.00258815,-2,32768,32768
101.012,-0.00232783,-2,32768,32768
102.013,-0.00207762,-2,32768,32768
103.013,-0.00184706,-2,32768,32768
104.013,-0.00163561,-2,32768,32768
105.013,-0.00142313,-2,32768,32768
106.013,-0.00119259,-2,32768,32768
107.014,-0.000966686,-2,32768,32768
108.014,-0.000750894,-2,32768,32768
109.014,-0.000539121,-2,32768,32768
110.014,-0.000329185,-2,32768,32768
111.015,-0.000125647,-2,32768,32768
112.015,6.68596e-05,-2,32768,32768
113.015,0.000221493,-2,32768,32768
114.016,0.000387963,-2,32768,32768
115.016,0.000582754,-2,32768,32768
116.016,0.000800175,-2,32768,32768
117.017,0.00102717,-2,32768,32768
118.017,0.00126181,-2,32768,32768
119.018,0.00149404,-2,32768,32768
