time,surface_elevation,reference_data,number_of_local_cells,number_of_global_cells
0,9.14617e-05,-2,524288,524288
1.00028,0.000109011,-2,524288,524288
2.00057,0.000131354,-2,524288,524288
3.00087,0.000159873,-2,524288,524288
4.00019,0.000196333,-2,524288,524288
5.00051,0.000243174,-2,524288,524288
6.00083,0.000303496,-2,524288,524288
7.00017,0.00038136,-2,524288,524288
8.00049,0.000482443,-2,524288,524288
9.00082,0.000614047,-2,524288,524288
10.0002,0.000785846,-2,524288,524288
11.0005,0.00101139,-2,524288,524288
12.0009,0.0012938,-2,524288,524288
13.0003,0.00163194,-2,524288,524288
14.0007,0.00205631,-2,524288,524288
15.0002,0.0025902,-2,524288,524288
16.0008,0.0035856,-2,524288,524288
17.0005,0.004303,-2,524288,524288
18.0003,0.00523652,-2,524288,524288
19.0004,0.00640238,-2,524288,524288
20.0005,0.00780889,-2,524288,524288
21.0001,0.00943044,-2,524288,524288
22.0007,0.0113471,-2,524288,524288
23.0008,0.0134816,-2,524288,524288
24.0003,0.0157567,-2,524288,524288
25.0003,0.0180478,-2,524288,524288
26.0007,0.0201842,-2,524288,524288
27.0003,0.021974,-2,524288,524288
28,0.0233406,-2,524288,524288
29.0004,0.0239095,-2,524288,524288
30.0003,0.0238257,-2,524288,524288
31.0003,0.0231592,-2,524288,524288
32.0004,0.0220934,-2,524288,524288
33.0009,0.0207695,-2,524288,524288
34.0002,0.0191008,-2,524288,524288
35.0005,0.0173335,-2,524288,524288
36.0006,0.0155706,-2,524288,524288
37.0007,0.0138886,-2,524288,524288
38.0007,0.0123394,-2,524288,524288
39.0006,0.0109548,-2,524288,524288
40.0004,0.00974795,-2,524288,524288
41.0001,0.00869772,-2,524288,524288
42.0007,0.00818464,-2,524288,524288
43.0002,0.00772697,-2,524288,524288
44.0005,0.00648608,-2,524288,524288
45.0007,0.00617768,-2,524288,524288
46.0008,0.00619233,-2,524288,524288
47.0008,0.006207,-2,524288,524288
48.0006,0.00622034,-2,524288,524288
49.0003,0.00623234,-2,524288,524288
50.0009,0.00624367,-2,524288,524288
51.0003,0.00625564,-2,524288,524288
52.0007,0.00627193,-2,524288,524288
53.0009,0.00629541,-2,524288,524288
54.0009,0.00633038,-2,524288,524288
55.0009,0.00637141,-2,524288,524288
56.0007,0.00641049,-2,524288,524288
57.0004,0.0064505,-2,524288,524288
58.0009,0.00651672,-2,524288,524288
59.0003,0.00661852,-2,524288,524288
60.0005,0.00676929,-2,524288,524288
61.0006,0.00696902,-2,524288,524288
62.0005,0.00730044,-2,524288,524288
63.0003,0.0076271,-2,524288,524288
64.0006,0.00799972,-2,524288,524288
65.0009,0.00837408,-2,524288,524288
66.0009,0.00902447,-2,524288,524288
67.0007,0.00959909,-2,524288,524288
68,0.0101034,-2,524288,524288
69.0006,0.0109404,-2,524288,524288
70.0009,0.0116328,-2,524288,524288
71.001,0.0120775,-2,524288,524288
72.0007,0.0123412,-2,524288,524288
73.0001,0.0125214,-2,524288,524288
74.0009,0.0126283,-2,524288,524288
75.0002,0.0126602,-2,524288,524288
76.0009,0.0126268,-2,524288,524288
77,0.0125317,-2,524288,524288
78.0002,0.0123803,-2,524288,524288
79.0006,0.0121792,-2,524288,524288
80.0001,0.011945,-2,524288,524288
81.0006,0.0117097,-2,524288,524288
82.0001,0.0115671,-2,524288,524288
83.0009,0.0114627,-2,524288,524288
84.0004,0.0102853,-2,524288,524288
85.0005,0.00888299,-2,524288,524288
86.0004,0.00719846,-2,524288,524288
87.0001,0.00389879,-2,524288,524288
88.0008,-0.00225621,-2,524288,524288
89.0005,-0.00699663,-2,524288,524288
90.0003,-0.0100652,-2,524288,524288
91.001,-0.0116958,-2,524288,524288
92.0007,-0.0121126,-2,524288,524288
93.0004,-0.00699841,-2,524288,524288
94.0001,-0.00568588,-2,524288,524288
95.0008,-0.00432177,-2,524288,524288
96.0005,-0.00674799,-2,524288,524288
97.0003,-0.00797304,-2,524288,524288
98.001,-0.00814973,-2,524288,524288
99.0007,-0.0076856,-2,524288,524288
100,-0.00697627,-2,524288,524288
101,-0.00483522,-2,524288,524288
102.001,-0.00497243,-2,524288,524288
103.001,-0.00380464,-2,524288,524288
104,-0.00362737,-2,524288,524288
105.001,-0.00345959,-2,524288,524288
106.001,-0.00329506,-2,524288,524288
107,-0.00313575,-2,524288,524288
108,-0.002944,-2,524288,524288
109.001,-0.00271264,-2,524288,524288
110,-0.00254111,-2,524288,524288
111,-0.00232709,-2,524288,524288
112.001,-0.00202655,-2,524288,524288
113.001,-0.00172641,-2,524288,524288
114.001,-0.0014715,-2,524288,524288
115.001,-0.00126103,-2,524288,524288
116.001,-0.00109696,-2,524288,524288
117,-0.00096031,-2,524288,524288
118,-0.000828471,-2,524288,524288
119,-0.000718674,-2,524288,524288
