time,surface_elevation,reference_data,number_of_local_cells,number_of_global_cells
0,9.04546e-06,-2,1048576,1048576
1.00028,9.04613e-06,-2,1048576,1048576
2.00007,9.0464e-06,-2,1048576,1048576
3.00037,9.04668e-06,-2,1048576,1048576
4.00018,9.04696e-06,-2,1048576,1048576
5.00049,9.04724e-06,-2,1048576,1048576
6.00031,9.04751e-06,-2,1048576,1048576
7.00013,9.04779e-06,-2,1048576,1048576
8.00044,9.04807e-06,-2,1048576,1048576
9.00026,9.04835e-06,-2,1048576,1048576
10.0001,9.04863e-06,-2,1048576,1048576
11.0004,9.0489e-06,-2,1048576,1048576
12.0003,9.04918e-06,-2,1048576,1048576
13.0002,9.04946e-06,-2,1048576,1048576
14.0001,9.04974e-06,-2,1048576,1048576
15.0001,9.05002e-06,-2,1048576,1048576
16.0002,9.0503e-06,-2,1048576,1048576
17.0003,9.05057e-06,-2,1048576,1048576
18.0001,9.05085e-06,-2,1048576,1048576
19.0002,9.05113e-06,-2,1048576,1048576
20.0003,9.05141e-06,-2,1048576,1048576
21.0005,9.05169e-06,-2,1048576,1048576
22.0003,9.05196e-06,-2,1048576,1048576
23.0004,9.05223e-06,-2,1048576,1048576
24.0001,9.0525e-06,-2,1048576,1048576
25.0002,9.05275e-06,-2,1048576,1048576
26.0003,9.05299e-06,-2,1048576,1048576
27.0005,9.05321e-06,-2,1048576,1048576
28.0003,9.0534e-06,-2,1048576,1048576
29.0003,9.05354e-06,-2,1048576,1048576
30.0002,9.05363e-06,-2,1048576,1048576
31.0004,9.05364e-06,-2,1048576,1048576
32.0005,9.05355e-06,-2,1048576,1048576
33,9.05334e-06,-2,1048576,1048576
34.0001,0.00214741,-2,1048576,1048576
35.0001,0.00291492,-2,1048576,1048576
36.0001,0.00387941,-2,1048576,1048576
37.0002,0.00515672,-2,1048576,1048576
38.0002,0.00683937,-2,1048576,1048576
39.0003,0.00912113,-2,1048576,1048576
40.0003,0.0121674,-2,1048576,1048576
41.0004,0.0161424,-2,1048576,1048576
42.0004,0.0210813,-2,1048576,1048576
43.0004,0.0268339,-2,1048576,1048576
44.0005,0.0327245,-2,1048576,1048576
45,0.0379222,-2,1048576,1048576
46.0001,0.0419591,-2,1048576,1048576
47.0001,0.0448462,-2,1048576,1048576
48.0002,0.0471551,-2,1048576,1048576
49.0003,0.048648,-2,1048576,1048576
50.0003,0.0490565,-2,1048576,1048576
51.0004,0.0485735,-2,1048576,1048576
52.0004,0.0475256,-2,1048576,1048576
53.0005,0.0461033,-2,1048576,1048576
54,0.0455543,-2,1048576,1048576
55.0001,0.0455542,-2,1048576,1048576
56.0002,0.045554,-2,1048576,1048576
57.0002,0.0455539,-2,1048576,1048576
58.0003,0.0455537,-2,1048576,1048576
59.0003,0.0455536,-2,1048576,1048576
60.0004,0.0455535,-2,1048576,1048576
61.0005,0.0455533,-2,1048576,1048576
62,0.0455532,-2,1048576,1048576
63.0001,0.0455531,-2,1048576,1048576
64.0002,0.0455529,-2,1048576,1048576
65.0002,0.0455528,-2,1048576,1048576
66.0003,0.0455526,-2,1048576,1048576
67.0004,0.0455525,-2,1048576,1048576
68.0004,0.0455524,-2,1048576,1048576
69.0005,0.0455522,-2,1048576,1048576
70.0001,0.0455521,-2,1048576,1048576
71.0001,0.045552,-2,1048576,1048576
72.0002,0.0455518,-2,1048576,1048576
73.0003,0.0455517,-2,1048576,1048576
74.0004,0.0455516,-2,1048576,1048576
75.0004,0.0455514,-2,1048576,1048576
76.0005,0.0455513,-2,1048576,1048576
77.0001,0.0455511,-2,1048576,1048576
78.0001,0.045551,-2,1048576,1048576
79.0002,0.0455509,-2,1048576,1048576
80.0003,0.0455507,-2,1048576,1048576
81.0004,0.0455506,-2,1048576,1048576
82.0004,0.0455505,-2,1048576,1048576
83,0.0455503,-2,1048576,1048576
84.0001,0.0455502,-2,1048576,1048576
85.0002,0.04555,-2,1048576,1048576
86.0003,0.0455499,-2,1048576,1048576
87.0003,0.0455498,-2,1048576,1048576
88.0004,0.0455496,-2,1048576,1048576
89.0005,0.0455495,-2,1048576,1048576
90.0001,0.0455494,-2,1048576,1048576
91.0001,0.0455492,-2,1048576,1048576
92.0002,0.0455491,-2,1048576,1048576
93.0003,0.0455489,-2,1048576,1048576
94.0004,0.0455488,-2,1048576,1048576
95.0005,0.0455487,-2,1048576,1048576
96.0001,0.0455485,-2,1048576,1048576
97.0001,0.0455484,-2,1048576,1048576
98.0002,0.0455482,-2,1048576,1048576
99.0003,0.0455481,-2,1048576,1048576
100,0.045548,-2,1048576,1048576
101,0.0455478,-2,1048576,1048576
102,0.0455477,-2,1048576,1048576
103,0.0455476,-2,1048576,1048576
104,0.0455474,-2,1048576,1048576
105,0.0455473,-2,1048576,1048576
106,0.0455471,-2,1048576,1048576
107,0.045547,-2,1048576,1048576
108,0.0455469,-2,1048576,1048576
109,0.0455467,-2,1048576,1048576
110,0.0455466,-2,1048576,1048576
111,0.0455464,-2,1048576,1048576
112,0.0455463,-2,1048576,1048576
113,0.0455462,-2,1048576,1048576
114,0.045546,-2,1048576,1048576
115,0.0455459,-2,1048576,1048576
116,0.0455457,-2,1048576,1048576
117,0.0455456,-2,1048576,1048576
118,0.0455455,-2,1048576,1048576
119,0.0455453,-2,1048576,1048576
