time,surface_elevation,reference_data,number_of_local_cells,number_of_global_cells
0,9.05802e-06,-2,131072,131072
1.0002,9.0638e-06,-2,131072,131072
2.00042,9.0669e-06,-2,131072,131072
3.00064,9.06779e-06,-2,131072,131072
4.00088,9.04667e-06,-2,131072,131072
5.00113,8.94791e-06,-2,131072,131072
6.00138,8.69302e-06,-2,131072,131072
7.00163,8.21342e-06,-2,131072,131072
8.00189,7.47395e-06,-2,131072,131072
9.00215,6.47316e-06,-2,131072,131072
10.0024,5.23077e-06,-2,131072,131072
11.0027,3.77665e-06,-2,131072,131072
12.003,2.14773e-06,-2,131072,131072
13.0034,3.86788e-07,-2,131072,131072
14.0037,-1.46288e-06,-2,131072,131072
15.0042,-3.36287e-06,-2,131072,131072
16.0047,-5.28255e-06,-2,131072,131072
17.0053,-7.19931e-06,-2,131072,131072
18.0004,-9.08677e-06,-2,131072,131072
19.0014,-1.0956e-05,-2,131072,131072
20.0034,-1.27907e-05,-2,131072,131072
21.0012,-1.45783e-05,-2,131072,131072
22.0011,-1.63281e-05,-2,131072,131072
23.0034,-1.80394e-05,-2,131072,131072
24.0026,-1.97005e-05,-2,131072,131072
25.0042,-2.13166e-05,-2,131072,131072
26.0026,-2.28722e-05,-2,131072,131072
27.0032,0.000282773,-2,131072,131072
28,0.00050763,-2,131072,131072
29.0043,0.000681557,-2,131072,131072
30.0044,0.000999495,-2,131072,131072
31.0057,0.00131323,-2,131072,131072
32.0023,0.00172324,-2,131072,131072
33.005,0.00207935,-2,131072,131072
34.0017,0.0024665,-2,131072,131072
35.004,0.00315514,-2,131072,131072
36.0005,0.00419692,-2,131072,131072
37.0025,0.0056467,-2,131072,131072
38.0044,0.00717076,-2,131072,131072
39.0005,0.00926908,-2,131072,131072
40.0021,0.0120506,-2,131072,131072
41.0037,0.0154872,-2,131072,131072
42.0051,0.0198533,-2,131072,131072
43.0007,0.0250169,-2,131072,131072
44.0019,0.0306494,-2,131072,131072
45.0031,0.0360887,-2,131072,131072
46.0041,0.0407084,-2,131072,131072
47.0051,0.0441604,-2,131072,131072
48.0002,0.0464027,-2,131072,131072
49.0009,0.0476022,-2,131072,131072
50.0016,0.0479315,-2,131072,131072
51.0021,0.0475748,-2,131072,131072
52.0025,0.046683,-2,131072,131072
53.0028,0.0453726,-2,131072,131072
54.003,0.0437334,-2,131072,131072
55.0031,0.0418288,-2,131072,131072
56.003,0.0397062,-2,131072,131072
57.0028,0.0373912,-2,131072,131072
58.0025,0.0349003,-2,131072,131072
59.002,0.0322343,-2,131072,131072
60.0013,0.0293833,-2,131072,131072
61.0005,0.0263187,-2,131072,131072
62.0052,0.0229713,-2,131072,131072
63.004,0.0181398,-2,131072,131072
64.0027,0.0067702,-2,131072,131072
65.0056,0.00424208,-2,131072,131072
66.0052,0.00639635,-2,131072,131072
67.0046,-0.0116653,-2,131072,131072
68.005,-0.0112268,-2,131072,131072
69.0044,-0.011895,-2,131072,131072
70.0015,-0.011895,-2,131072,131072
71.0039,-0.011895,-2,131072,131072
72.0003,-0.011895,-2,131072,131072
73.0019,-0.011895,-2,131072,131072
74.0031,-0.011895,-2,131072,131072
75.0039,-0.011895,-2,131072,131072
76.0042,-0.011895,-2,131072,131072
77.004,-0.011895,-2,131072,131072
78.0032,-0.011895,-2,131072,131072
79.0018,-0.011895,-2,131072,131072
80.0057,-0.011895,-2,131072,131072
81.0032,-0.011895,-2,131072,131072
82.0002,-0.0118885,-2,131072,131072
83.0025,-0.0118975,-2,131072,131072
84.0042,-0.0118508,-2,131072,131072
85.0055,-0.0110869,-2,131072,131072
86.0008,-0.00936363,-2,131072,131072
87.0014,-0.0085197,-2,131072,131072
88.0018,-0.00779102,-2,131072,131072
89.002,-0.00709302,-2,131072,131072
90.0021,-0.00655337,-2,131072,131072
91.0022,-0.00604617,-2,131072,131072
92.0023,-0.00553363,-2,131072,131072
93.0024,-0.00513049,-2,131072,131072
94.0024,-0.00472362,-2,131072,131072
95.0025,-0.00434233,-2,131072,131072
96.0025,-0.00399679,-2,131072,131072
97.0026,-0.00367479,-2,131072,131072
98.0027,-0.0033574,-2,131072,131072
99.0027,-0.00306937,-2,131072,131072
100.003,-0.00281993,-2,131072,131072
101.003,-0.00259302,-2,131072,131072
102.003,-0.00237718,-2,131072,131072
103.003,-0.00215923,-2,131072,131072
104.003,-0.00195009,-2,131072,131072
105.003,-0.00173376,-2,131072,131072
106.003,-0.00151266,-2,131072,131072
107.003,-0.00128348,-2,131072,131072
108.003,-0.001056,-2,131072,131072
109.003,-0.000820429,-2,131072,131072
110.004,-0.00051899,-2,131072,131072
111.004,-0.000262265,-2,131072,131072
112.004,-0.00012557,-2,131072,131072
113.004,-6.03581e-05,-2,131072,131072
114.004,-3.35461e-05,-2,131072,131072
115.005,5.36925e-05,-2,131072,131072
116.005,0.000263186,-2,131072,131072
117.005,0.000595791,-2,131072,131072
118.005,0.00106968,-2,131072,131072
119.006,0.00148746,-2,131072,131072
