time,surface_elevation,reference_data,number_of_local_cells,number_of_global_cells
0,8.98791e-06,-2,16384,16384
1.01717,8.97076e-06,-2,16384,16384
2.00257,8.78806e-06,-2,16384,16384
3.01978,8.5008e-06,-2,16384,16384
4.00522,8.2042e-06,-2,16384,16384
5.02247,7.91368e-06,-2,16384,16384
6.00794,7.65741e-06,-2,16384,16384
7.02521,7.41989e-06,-2,16384,16384
8.0107,7.21388e-06,-2,16384,16384
9.02799,7.02314e-06,-2,16384,16384
10.0135,6.85679e-06,-2,16384,16384
11.0309,6.70152e-06,-2,16384,16384
12.0164,6.56494e-06,-2,16384,16384
13.002,6.44022e-06,-2,16384,16384
14.0195,6.32239e-06,-2,16384,16384
15.0052,6.21757e-06,-2,16384,16384
16.0228,6.1179e-06,-2,16384,16384
17.0087,6.02873e-06,-2,16384,16384
18.0266,5.94384e-06,-2,16384,16384
19.0129,5.8786e-06,-2,16384,16384
20.0002,6.00298e-06,-2,16384,16384
21.0209,7.97801e-06,-2,16384,16384
22.0117,1.95683e-05,-2,16384,16384
23.0049,5.58003e-05,-2,16384,16384
24.0005,0.00016846,-2,16384,16384
25.0309,0.000282745,-2,16384,16384
26.0314,0.000379831,-2,16384,16384
27.0017,0.000455211,-2,16384,16384
28.0064,0.000598173,-2,16384,16384
29.0128,0.00077047,-2,16384,16384
30.0206,0.000948359,-2,16384,16384
31.0298,0.0011604,-2,16384,16384
32.0074,0.00149904,-2,16384,16384
33.018,0.00205465,-2,16384,16384
34.0284,0.00275715,-2,16384,16384
35.006,0.00358697,-2,16384,16384
36.016,0.00463678,-2,16384,16384
37.0259,0.005976,-2,16384,16384
38.0031,0.00759138,-2,16384,16384
39.0127,0.00973557,-2,16384,16384
40.0222,0.0124751,-2,16384,16384
41.0315,0.0158713,-2,16384,16384
42.0082,0.0198434,-2,16384,16384
43.0173,0.0246019,-2,16384,16384
44.0264,0.0297518,-2,16384,16384
45.0027,0.0346458,-2,16384,16384
46.0115,0.0390939,-2,16384,16384
47.0202,0.0426411,-2,16384,16384
48.0288,0.0451538,-2,16384,16384
49.0048,0.0465832,-2,16384,16384
50.0132,0.0471777,-2,16384,16384
51.0214,0.0470134,-2,16384,16384
52.0296,0.0462533,-2,16384,16384
53.0051,0.0450686,-2,16384,16384
54.013,0.0434797,-2,16384,16384
55.0208,0.0415956,-2,16384,16384
56.0285,0.039464,-2,16384,16384
57.0035,0.0371981,-2,16384,16384
58.0109,0.0346664,-2,16384,16384
59.0181,0.0319421,-2,16384,16384
60.0251,0.0290074,-2,16384,16384
61.032,0.0258246,-2,16384,16384
62.0062,0.0224477,-2,16384,16384
63.0127,0.0161079,-2,16384,16384
64.019,0.00914653,-2,16384,16384
65.025,0.00523677,-2,16384,16384
66.0308,-0.0104976,-2,16384,16384
67.0292,-0.0104976,-2,16384,16384
68.002,-0.0104976,-2,16384,16384
69.007,-0.0104976,-2,16384,16384
70.0116,-0.0104976,-2,16384,16384
71.0158,-0.0104976,-2,16384,16384
72.0196,-0.0104976,-2,16384,16384
73.0229,-0.0104976,-2,16384,16384
74.0258,-0.0104976,-2,16384,16384
75.0283,-0.0104976,-2,16384,16384
76.0303,-0.0104976,-2,16384,16384
77.0317,-0.0104976,-2,16384,16384
78.0004,-0.0104976,-2,16384,16384
79.0008,-0.0104976,-2,16384,16384
80.0008,-0.0104976,-2,16384,16384
81.0002,-0.0104976,-2,16384,16384
82.0314,-0.0104976,-2,16384,16384
83.0299,-0.0104976,-2,16384,16384
84.028,-0.0104976,-2,16384,16384
85.0257,-0.0102866,-2,16384,16384
86.0232,-0.00998976,-2,16384,16384
87.0204,-0.00926099,-2,16384,16384
88.0174,-0.00819207,-2,16384,16384
89.0142,-0.00718596,-2,16384,16384
90.011,-0.00642705,-2,16384,16384
91.0078,-0.00587524,-2,16384,16384
92.0046,-0.00539002,-2,16384,16384
93.0013,-0.00500859,-2,16384,16384
94.0303,-0.00457257,-2,16384,16384
95.027,-0.00417095,-2,16384,16384
96.0238,-0.00380496,-2,16384,16384
97.0206,-0.00345914,-2,16384,16384
98.0173,-0.00312449,-2,16384,16384
99.0141,-0.00280074,-2,16384,16384
100.011,-0.00249057,-2,16384,16384
101.008,-0.00219864,-2,16384,16384
102.004,-0.00192474,-2,16384,16384
103.001,-0.00166848,-2,16384,16384
104.03,-0.00143477,-2,16384,16384
105.027,-0.00123115,-2,16384,16384
106.024,-0.00101217,-2,16384,16384
107.021,-0.000784041,-2,16384,16384
108.017,-0.000575486,-2,16384,16384
109.014,-0.000385192,-2,16384,16384
110.011,-0.00019923,-2,16384,16384
111.008,-8.58133e-06,-2,16384,16384
112.005,0.000189376,-2,16384,16384
113.002,0.000392178,-2,16384,16384
114.032,0.000596732,-2,16384,16384
115.029,0.000795963,-2,16384,16384
116.026,0.000996376,-2,16384,16384
117.023,0.00120522,-2,16384,16384
118.021,0.00141392,-2,16384,16384
119.018,0.00161658,-2,16384,16384
