time,surface_elevation,reference_data,number_of_local_cells,number_of_global_cells
0,9.15124e-05,-2,32768,32768
1.01144,0.000109394,-2,32768,32768
2.00042,0.000131658,-2,32768,32768
3.0119,0.000160742,-2,32768,32768
4.00091,0.000197156,-2,32768,32768
5.01242,0.000244999,-2,32768,32768
6.00145,0.000305273,-2,32768,32768
7.01298,0.000384993,-2,32768,32768
8.00203,0.000486162,-2,32768,32768
9.01357,0.000620967,-2,32768,32768
10.0027,0.000793291,-2,32768,32768
11.0142,0.00102343,-2,32768,32768
12.0034,0.00130283,-2,32768,32768
13.015,0.00165049,-2,32768,32768
14.0042,0.00207948,-2,32768,32768
15.016,0.00263215,-2,32768,32768
16.0053,0.00329606,-2,32768,32768
17.0172,0.00412698,-2,32768,32768
18.0068,0.00511392,-2,32768,32768
19.0192,0.00633435,-2,32768,32768
20.01,0.00776373,-2,32768,32768
21.0025,0.00944133,-2,32768,32768
22.0195,0.0114086,-2,32768,32768
23.0164,0.0135425,-2,32768,32768
24.0157,0.0158067,-2,32768,32768
25.0176,0.0180745,-2,32768,32768
26.0218,0.0201771,-2,32768,32768
27.0053,0.0218936,-2,32768,32768
28.0137,0.0231416,-2,32768,32768
29.0008,0.023763,-2,32768,32768
30.0124,0.0237604,-2,32768,32768
31.0022,0.023181,-2,32768,32768
32.0162,0.0221006,-2,32768,32768
33.0073,0.0206957,-2,32768,32768
34.0214,0.0190369,-2,32768,32768
35.0122,0.0173181,-2,32768,32768
36.0029,0.0155996,-2,32768,32768
37.0165,0.0139176,-2,32768,32768
38.0069,0.0124,-2,32768,32768
39.0202,0.0110081,-2,32768,32768
40.0104,0.00981954,-2,32768,32768
41.0004,0.00880239,-2,32768,32768
42.0133,0.00793191,-2,32768,32768
43.0031,0.00723647,-2,32768,32768
44.0159,0.00666613,-2,32768,32768
45.0055,0.00622716,-2,32768,32768
46.018,0.00588094,-2,32768,32768
47.0074,0.00562899,-2,32768,32768
48.0197,0.0054461,-2,32768,32768
49.0089,0.00533044,-2,32768,32768
50.021,0.0052679,-2,32768,32768
51.01,0.00525527,-2,32768,32768
52.0219,0.0052867,-2,32768,32768
53.0107,0.00535318,-2,32768,32768
54.0224,0.00544748,-2,32768,32768
55.0109,0.0055604,-2,32768,32768
56.0223,0.0057006,-2,32768,32768
57.0106,0.00586729,-2,32768,32768
58.0217,0.00607245,-2,32768,32768
59.0097,0.00630848,-2,32768,32768
60.0205,0.00658131,-2,32768,32768
61.0082,0.00687079,-2,32768,32768
62.0187,0.00718541,-2,32768,32768
63.006,0.00751011,-2,32768,32768
64.0161,0.00786225,-2,32768,32768
65.0016,0.00822544,-2,32768,32768
66.0142,0.00861265,-2,32768,32768
67.0148,0.00900178,-2,32768,32768
68.001,0.00938614,-2,32768,32768
69.0176,0.00977533,-2,32768,32768
70.0032,0.0101374,-2,32768,32768
71.0114,0.010485,-2,32768,32768
72.0192,0.010802,-2,32768,32768
73.0037,0.0110754,-2,32768,32768
74.0106,0.0113121,-2,32768,32768
75.017,0.0115006,-2,32768,32768
76.0001,0.0116346,-2,32768,32768
77.0056,0.011718,-2,32768,32768
78.0105,0.0117463,-2,32768,32768
79.0148,0.0117228,-2,32768,32768
80.0186,0.0116566,-2,32768,32768
81.0219,0.0115523,-2,32768,32768
82.0019,0.0113425,-2,32768,32768
83.0041,0.0108342,-2,32768,32768
84.0059,0.0102201,-2,32768,32768
85.0073,0.0097482,-2,32768,32768
86.0084,0.00772025,-2,32768,32768
87.0091,0.00355864,-2,32768,32768
88.0096,-0.00118279,-2,32768,32768
89.01,-0.00533942,-2,32768,32768
90.0102,-0.00847392,-2,32768,32768
91.0104,-0.0105068,-2,32768,32768
92.0106,-0.0114918,-2,32768,32768
93.0108,-0.0115936,-2,32768,32768
94.011,-0.0111435,-2,32768,32768
95.0112,-0.0105245,-2,32768,32768
96.0114,-0.00991794,-2,32768,32768
97.0116,-0.00929904,-2,32768,32768
98.0118,-0.00862008,-2,32768,32768
99.0119,-0.00789357,-2,32768,32768
100.012,-0.00715912,-2,32768,32768
101.012,-0.00644807,-2,32768,32768
102.013,-0.0057753,-2,32768,32768
103.013,-0.00514262,-2,32768,32768
104.013,-0.00455014,-2,32768,32768
105.013,-0.00399942,-2,32768,32768
106.013,-0.00348782,-2,32768,32768
107.014,-0.0030102,-2,32768,32768
108.014,-0.00256651,-2,32768,32768
109.014,-0.0021649,-2,32768,32768
110.014,-0.00181503,-2,32768,32768
111.015,-0.00151877,-2,32768,32768
112.015,-0.00127062,-2,32768,32768
113.015,-0.00106295,-2,32768,32768
114.016,-0.00089002,-2,32768,32768
115.016,-0.000749071,-2,32768,32768
116.016,-0.000634951,-2,32768,32768
117.017,-0.000536061,-2,32768,32768
118.017,-0.000441143,-2,32768,32768
119.018,-0.000347218,-2,32768,32768
