time,surface_elevation,reference_data,number_of_local_cells,number_of_global_cells
0,8.67425e-06,-2,2048,2048
1.07888,8.79898e-06,-2,2048,2048
2.06789,8.87843e-06,-2,2048,2048
3.05692,8.95306e-06,-2,2048,2048
4.046,9.02453e-06,-2,2048,2048
5.0351,9.0936e-06,-2,2048,2048
6.02424,9.16075e-06,-2,2048,2048
7.01341,9.22643e-06,-2,2048,2048
8.00261,9.29106e-06,-2,2048,2048
9.08176,9.36089e-06,-2,2048,2048
10.071,9.42477e-06,-2,2048,2048
11.0603,9.48901e-06,-2,2048,2048
12.0497,9.55413e-06,-2,2048,2048
13.0391,9.62075e-06,-2,2048,2048
14.0285,9.6897e-06,-2,2048,2048
15.0181,9.76244e-06,-2,2048,2048
16.0077,9.84371e-06,-2,2048,2048
17.0875,9.97034e-06,-2,2048,2048
18.0774,1.02184e-05,-2,2048,2048
19.0676,1.09292e-05,-2,2048,2048
20.0587,1.3116e-05,-2,2048,2048
21.0514,1.79602e-05,-2,2048,2048
22.046,2.67123e-05,-2,2048,2048
23.0428,4.69926e-05,-2,2048,2048
24.0421,9.93786e-05,-2,2048,2048
25.0438,0.000178159,-2,2048,2048
26.0478,0.000277178,-2,2048,2048
27.0541,0.000398165,-2,2048,2048
28.0622,0.00056322,-2,2048,2048
29.0722,0.000774339,-2,2048,2048
30.0836,0.00104007,-2,2048,2048
31.0042,0.001343,-2,2048,2048
32.0179,0.00176634,-2,2048,2048
33.0322,0.00231611,-2,2048,2048
34.0463,0.00303107,-2,2048,2048
35.0602,0.00390372,-2,2048,2048
36.074,0.00476937,-2,2048,2048
37.0876,0.00618711,-2,2048,2048
38.0089,0.00776633,-2,2048,2048
39.0222,0.00998203,-2,2048,2048
40.0354,0.012823,-2,2048,2048
41.0485,0.0162665,-2,2048,2048
42.0614,0.0204684,-2,2048,2048
43.0742,0.0252446,-2,2048,2048
44.0869,0.030205,-2,2048,2048
45.0075,0.0344735,-2,2048,2048
46.02,0.0386338,-2,2048,2048
47.0325,0.041984,-2,2048,2048
48.0448,0.0444693,-2,2048,2048
49.057,0.0461848,-2,2048,2048
50.0691,0.0472256,-2,2048,2048
51.0811,0.0476642,-2,2048,2048
52.001,0.0475333,-2,2048,2048
53.0128,0.0467845,-2,2048,2048
54.0244,0.0454987,-2,2048,2048
55.036,0.043854,-2,2048,2048
56.0474,0.041991,-2,2048,2048
57.0586,0.0399164,-2,2048,2048
58.0697,0.037604,-2,2048,2048
59.0807,0.0350496,-2,2048,2048
60.0915,0.0322451,-2,2048,2048
61.0102,0.0294561,-2,2048,2048
62.0207,0.025635,-2,2048,2048
63.031,0.0191659,-2,2048,2048
64.03,0.0158831,-2,2048,2048
65.0398,-0.00015231,-2,2048,2048
66.0494,-0.00326114,-2,2048,2048
67.0443,-0.00326114,-2,2048,2048
68.0061,-0.00326114,-2,2048,2048
69.0148,-0.00326114,-2,2048,2048
70.0231,-0.00326114,-2,2048,2048
71.0311,-0.00326114,-2,2048,2048
72.0387,-0.00326114,-2,2048,2048
73.0458,-0.00326114,-2,2048,2048
74.0525,-0.00326114,-2,2048,2048
75.0586,-0.00326114,-2,2048,2048
76.0643,-0.00326114,-2,2048,2048
77.0694,-0.00326114,-2,2048,2048
78.074,-0.00326114,-2,2048,2048
79.0781,-0.00326114,-2,2048,2048
80.0817,-0.00326114,-2,2048,2048
81.0848,-0.00326114,-2,2048,2048
82.0874,-0.00326114,-2,2048,2048
83.0896,-0.00326114,-2,2048,2048
84.0004,-0.00326114,-2,2048,2048
85.0019,-0.00326114,-2,2048,2048
86.0031,-0.00326114,-2,2048,2048
87.0041,-0.00326114,-2,2048,2048
88.0049,-0.00326114,-2,2048,2048
89.0056,-0.00326114,-2,2048,2048
90.0063,-0.00326114,-2,2048,2048
91.007,-0.00326114,-2,2048,2048
92.0076,-0.00326114,-2,2048,2048
93.0083,-0.00326114,-2,2048,2048
94.009,-0.00326114,-2,2048,2048
95.0097,-0.0032359,-2,2048,2048
96.0104,-0.0031259,-2,2048,2048
97.0111,-0.00293679,-2,2048,2048
98.0118,-0.00273908,-2,2048,2048
99.0125,-0.0026802,-2,2048,2048
100.013,-0.0025658,-2,2048,2048
101.014,-0.00242857,-2,2048,2048
102.015,-0.0022645,-2,2048,2048
103.015,-0.00206809,-2,2048,2048
104.016,-0.00184898,-2,2048,2048
105.017,-0.00161364,-2,2048,2048
106.017,-0.00136838,-2,2048,2048
107.018,-0.00111872,-2,2048,2048
108.019,-0.000868797,-2,2048,2048
109.02,-0.000621336,-2,2048,2048
110.021,-0.000377894,-2,2048,2048
111.021,-0.000139121,-2,2048,2048
112.022,9.50323e-05,-2,2048,2048
113.023,0.000324882,-2,2048,2048
114.024,0.000550814,-2,2048,2048
115.025,0.000773393,-2,2048,2048
116.026,0.000993242,-2,2048,2048
117.027,0.00121078,-2,2048,2048
118.028,0.00142611,-2,2048,2048
119.029,0.00163901,-2,2048,2048
