time,surface_elevation,reference_data,number_of_local_cells,number_of_global_cells
0,9.03041e-05,-2,2048,2048
1.07888,0.000109519,-2,2048,2048
2.06789,0.000132168,-2,2048,2048
3.05692,0.000161064,-2,2048,2048
4.046,0.000198037,-2,2048,2048
5.0351,0.000245488,-2,2048,2048
6.02424,0.000306586,-2,2048,2048
7.01341,0.000385529,-2,2048,2048
8.00261,0.000487899,-2,2048,2048
9.08176,0.00063508,-2,2048,2048
10.071,0.000812749,-2,2048,2048
11.0603,0.00103996,-2,2048,2048
12.0497,0.00132235,-2,2048,2048
13.0391,0.00167067,-2,2048,2048
14.0285,0.00210333,-2,2048,2048
15.0181,0.00264083,-2,2048,2048
16.0077,0.00330577,-2,2048,2048
17.0875,0.00420557,-2,2048,2048
18.0774,0.0052183,-2,2048,2048
19.0676,0.00643645,-2,2048,2048
20.0587,0.0078802,-2,2048,2048
21.0514,0.00955881,-2,2048,2048
22.046,0.0114616,-2,2048,2048
23.0428,0.0135467,-2,2048,2048
24.0421,0.0157324,-2,2048,2048
25.0438,0.0178954,-2,2048,2048
26.0478,0.0198808,-2,2048,2048
27.0541,0.0215254,-2,2048,2048
28.0622,0.0226891,-2,2048,2048
29.0722,0.0232842,-2,2048,2048
30.0836,0.0232898,-2,2048,2048
31.0042,0.0228183,-2,2048,2048
32.0179,0.0218573,-2,2048,2048
33.0322,0.0205448,-2,2048,2048
34.0463,0.0190036,-2,2048,2048
35.0602,0.0173473,-2,2048,2048
36.074,0.0156721,-2,2048,2048
37.0876,0.0140533,-2,2048,2048
38.0089,0.0126765,-2,2048,2048
39.0222,0.0112991,-2,2048,2048
40.0354,0.0100836,-2,2048,2048
41.0485,0.0090349,-2,2048,2048
42.0614,0.00815131,-2,2048,2048
43.0742,0.00742054,-2,2048,2048
44.0869,0.0068285,-2,2048,2048
45.0075,0.0063978,-2,2048,2048
46.02,0.00602803,-2,2048,2048
47.0325,0.00575291,-2,2048,2048
48.0448,0.00555892,-2,2048,2048
49.057,0.00543424,-2,2048,2048
50.0691,0.0053689,-2,2048,2048
51.0811,0.00535482,-2,2048,2048
52.001,0.00538101,-2,2048,2048
53.0128,0.00544802,-2,2048,2048
54.0244,0.005551,-2,2048,2048
55.036,0.00568637,-2,2048,2048
56.0474,0.00585116,-2,2048,2048
57.0586,0.00604332,-2,2048,2048
58.0697,0.00626203,-2,2048,2048
59.0807,0.00650782,-2,2048,2048
60.0915,0.00678216,-2,2048,2048
61.0102,0.00705771,-2,2048,2048
62.0207,0.00738986,-2,2048,2048
63.031,0.00774947,-2,2048,2048
64.03,0.00812437,-2,2048,2048
65.0398,0.00851061,-2,2048,2048
66.0494,0.00889098,-2,2048,2048
67.0443,0.00925119,-2,2048,2048
68.0061,0.00958312,-2,2048,2048
69.0148,0.00991624,-2,2048,2048
70.0231,0.0102356,-2,2048,2048
71.0311,0.010537,-2,2048,2048
72.0387,0.0108097,-2,2048,2048
73.0458,0.0110405,-2,2048,2048
74.0525,0.0112197,-2,2048,2048
75.0586,0.0113442,-2,2048,2048
76.0643,0.0114152,-2,2048,2048
77.0694,0.011435,-2,2048,2048
78.074,0.0114031,-2,2048,2048
79.0781,0.0113173,-2,2048,2048
80.0817,0.0111923,-2,2048,2048
81.0848,0.0110722,-2,2048,2048
82.0874,0.0109213,-2,2048,2048
83.0896,0.0104468,-2,2048,2048
84.0004,0.00937958,-2,2048,2048
85.0019,0.00735053,-2,2048,2048
86.0031,0.00463563,-2,2048,2048
87.0041,0.00163665,-2,2048,2048
88.0049,-0.00127885,-2,2048,2048
89.0056,-0.00387012,-2,2048,2048
90.0063,-0.00600791,-2,2048,2048
91.007,-0.00764166,-2,2048,2048
92.0076,-0.00879485,-2,2048,2048
93.0083,-0.00951244,-2,2048,2048
94.009,-0.00985464,-2,2048,2048
95.0097,-0.0098886,-2,2048,2048
96.0104,-0.00968218,-2,2048,2048
97.0111,-0.00929909,-2,2048,2048
98.0118,-0.00879484,-2,2048,2048
99.0125,-0.00821456,-2,2048,2048
100.013,-0.00759256,-2,2048,2048
101.014,-0.00695358,-2,2048,2048
102.015,-0.00631442,-2,2048,2048
103.015,-0.00568596,-2,2048,2048
104.016,-0.00507524,-2,2048,2048
105.017,-0.00448748,-2,2048,2048
106.017,-0.00392798,-2,2048,2048
107.018,-0.00340295,-2,2048,2048
108.019,-0.00291877,-2,2048,2048
109.02,-0.0024804,-2,2048,2048
110.021,-0.00208999,-2,2048,2048
111.021,-0.00174659,-2,2048,2048
112.022,-0.0014469,-2,2048,2048
113.023,-0.00118672,-2,2048,2048
114.024,-0.000962109,-2,2048,2048
115.025,-0.000769863,-2,2048,2048
116.026,-0.00060731,-2,2048,2048
117.027,-0.000471628,-2,2048,2048
118.028,-0.000359175,-2,2048,2048
119.029,-0.000265474,-2,2048,2048
