time,surface_elevation,reference_data,number_of_local_cells,number_of_global_cells
0,9.19187e-05,-2,16384,16384
1.01717,0.000110154,-2,16384,16384
2.00257,0.000132546,-2,16384,16384
3.01978,0.000162096,-2,16384,16384
4.00522,0.000198784,-2,16384,16384
5.02247,0.000247469,-2,16384,16384
6.00794,0.000307893,-2,16384,16384
7.02521,0.000389053,-2,16384,16384
8.0107,0.00049113,-2,16384,16384
9.02799,0.000628548,-2,16384,16384
10.0135,0.000802702,-2,16384,16384
11.0309,0.00103646,-2,16384,16384
12.0164,0.00131716,-2,16384,16384
13.002,0.0016586,-2,16384,16384
14.0195,0.00209816,-2,16384,16384
15.0052,0.00263053,-2,16384,16384
16.0228,0.00331498,-2,16384,16384
17.0087,0.00413279,-2,16384,16384
18.0266,0.00516243,-2,16384,16384
19.0129,0.00636678,-2,16384,16384
20.0002,0.0078021,-2,16384,16384
21.0209,0.00953409,-2,16384,16384
22.0117,0.0114491,-2,16384,16384
23.0049,0.0135642,-2,16384,16384
24.0005,0.0158026,-2,16384,16384
25.0309,0.0181099,-2,16384,16384
26.0314,0.0201723,-2,16384,16384
27.0017,0.0218354,-2,16384,16384
28.0064,0.0230566,-2,16384,16384
29.0128,0.0236728,-2,16384,16384
30.0206,0.0236595,-2,16384,16384
31.0298,0.0230647,-2,16384,16384
32.0074,0.0220311,-2,16384,16384
33.018,0.0206158,-2,16384,16384
34.0284,0.0189803,-2,16384,16384
35.006,0.0173022,-2,16384,16384
36.016,0.0155674,-2,16384,16384
37.0259,0.0139076,-2,16384,16384
38.0031,0.0124227,-2,16384,16384
39.0127,0.011045,-2,16384,16384
40.0222,0.00984152,-2,16384,16384
41.0315,0.00881434,-2,16384,16384
42.0082,0.00798132,-2,16384,16384
43.0173,0.00727459,-2,16384,16384
44.0264,0.00670821,-2,16384,16384
45.0027,0.0062772,-2,16384,16384
46.0115,0.00593672,-2,16384,16384
47.0202,0.00568728,-2,16384,16384
48.0288,0.00551459,-2,16384,16384
49.0048,0.00540887,-2,16384,16384
50.0132,0.00535345,-2,16384,16384
51.0214,0.0053446,-2,16384,16384
52.0296,0.00537514,-2,16384,16384
53.0051,0.00543739,-2,16384,16384
54.013,0.00553445,-2,16384,16384
55.0208,0.00566634,-2,16384,16384
56.0285,0.00583376,-2,16384,16384
57.0035,0.00602761,-2,16384,16384
58.0109,0.00625646,-2,16384,16384
59.0181,0.00650999,-2,16384,16384
60.0251,0.00678568,-2,16384,16384
61.032,0.00708214,-2,16384,16384
62.0062,0.00738667,-2,16384,16384
63.0127,0.00771741,-2,16384,16384
64.019,0.00806422,-2,16384,16384
65.025,0.00842598,-2,16384,16384
66.0308,0.00879694,-2,16384,16384
67.0292,0.00916584,-2,16384,16384
68.002,0.00951899,-2,16384,16384
69.007,0.00987113,-2,16384,16384
70.0116,0.0102036,-2,16384,16384
71.0158,0.0105097,-2,16384,16384
72.0196,0.0107837,-2,16384,16384
73.0229,0.0110213,-2,16384,16384
74.0258,0.0112185,-2,16384,16384
75.0283,0.011372,-2,16384,16384
76.0303,0.0114795,-2,16384,16384
77.0317,0.0115402,-2,16384,16384
78.0004,0.0115555,-2,16384,16384
79.0008,0.0115293,-2,16384,16384
80.0008,0.0114589,-2,16384,16384
81.0002,0.0113344,-2,16384,16384
82.0314,0.0110824,-2,16384,16384
83.0299,0.0106198,-2,16384,16384
84.028,0.00983544,-2,16384,16384
85.0257,0.0084662,-2,16384,16384
86.0232,0.006152,-2,16384,16384
87.0204,0.00293312,-2,16384,16384
88.0174,-0.000691163,-2,16384,16384
89.0142,-0.00415103,-2,16384,16384
90.011,-0.00707108,-2,16384,16384
91.0078,-0.00927015,-2,16384,16384
92.0046,-0.0107014,-2,16384,16384
93.0013,-0.0114131,-2,16384,16384
94.0303,-0.0115237,-2,16384,16384
95.027,-0.0111978,-2,16384,16384
96.0238,-0.0106112,-2,16384,16384
97.0206,-0.00988645,-2,16384,16384
98.0173,-0.0091033,-2,16384,16384
99.0141,-0.00831352,-2,16384,16384
100.011,-0.00754923,-2,16384,16384
101.008,-0.00682345,-2,16384,16384
102.004,-0.00613541,-2,16384,16384
103.001,-0.00548081,-2,16384,16384
104.03,-0.00483924,-2,16384,16384
105.027,-0.00425492,-2,16384,16384
106.024,-0.00371217,-2,16384,16384
107.021,-0.00321153,-2,16384,16384
108.017,-0.00275031,-2,16384,16384
109.014,-0.00232897,-2,16384,16384
110.011,-0.00195219,-2,16384,16384
111.008,-0.00162239,-2,16384,16384
112.005,-0.00133652,-2,16384,16384
113.002,-0.00108839,-2,16384,16384
114.032,-0.000868772,-2,16384,16384
115.029,-0.000691764,-2,16384,16384
116.026,-0.000548518,-2,16384,16384
117.023,-0.000434714,-2,16384,16384
118.021,-0.000341654,-2,16384,16384
119.018,-0.000261388,-2,16384,16384
