time,surface_elevation,reference_data,number_of_local_cells,number_of_global_cells
0,9.11078e-05,-2,32768,32768
1.00128,0.000108704,-2,32768,32768
2.00257,0.000131057,-2,32768,32768
3.00387,0.00015961,-2,32768,32768
4.00519,0.000196179,-2,32768,32768
5.00652,0.000243155,-2,32768,32768
6.00786,0.000303694,-2,32768,32768
7.00921,0.00038199,-2,32768,32768
8.01056,0.000483102,-2,32768,32768
9.01192,0.000615406,-2,32768,32768
10.0133,0.000788282,-2,32768,32768
11.0147,0.00101458,-2,32768,32768
12.0002,0.00129153,-2,32768,32768
13.0017,0.00163121,-2,32768,32768
14.0031,0.00205567,-2,32768,32768
15.0047,0.00258795,-2,32768,32768
16.0063,0.00325712,-2,32768,32768
17.0081,0.00407984,-2,32768,32768
18.0099,0.00507957,-2,32768,32768
19.0121,0.00628348,-2,32768,32768
20.0152,0.00771939,-2,32768,32768
21.0039,0.00938233,-2,32768,32768
22.0106,0.0113184,-2,32768,32768
23.0036,0.0134398,-2,32768,32768
24.0153,0.0157347,-2,32768,32768
25.0133,0.0180046,-2,32768,32768
26.0138,0.0201194,-2,32768,32768
27.0002,0.0218683,-2,32768,32768
28.0049,0.0231439,-2,32768,32768
29.0112,0.0238042,-2,32768,32768
30.0028,0.0238239,-2,32768,32768
31.012,0.0232498,-2,32768,32768
32.0059,0.0221996,-2,32768,32768
33.0002,0.0207961,-2,32768,32768
34.0105,0.0191432,-2,32768,32768
35.0044,0.0174153,-2,32768,32768
36.0145,0.0156577,-2,32768,32768
37.0081,0.014003,-2,32768,32768
38.0015,0.0124743,-2,32768,32768
39.0111,0.0110817,-2,32768,32768
40.0043,0.00988483,-2,32768,32768
41.0137,0.00884622,-2,32768,32768
42.0066,0.0079919,-2,32768,32768
43.0157,0.00728066,-2,32768,32768
44.0085,0.00671951,-2,32768,32768
45.0011,0.0062792,-2,32768,32768
46.0099,0.0059398,-2,32768,32768
47.0024,0.00569715,-2,32768,32768
48.011,0.00552613,-2,32768,32768
49.0032,0.00541687,-2,32768,32768
50.0116,0.00535824,-2,32768,32768
51.0036,0.00534838,-2,32768,32768
52.0118,0.00538069,-2,32768,32768
53.0036,0.00544796,-2,32768,32768
54.0115,0.00554588,-2,32768,32768
55.0031,0.0056665,-2,32768,32768
56.0108,0.00581896,-2,32768,32768
57.002,0.00600815,-2,32768,32768
58.0094,0.00623904,-2,32768,32768
59.0004,0.00649305,-2,32768,32768
60.0074,0.00677394,-2,32768,32768
61.0143,0.00707413,-2,32768,32768
62.0047,0.00738706,-2,32768,32768
63.0112,0.00772482,-2,32768,32768
64.0013,0.00807501,-2,32768,32768
65.0073,0.00844355,-2,32768,32768
66.0132,0.00881952,-2,32768,32768
67.0155,0.00919512,-2,32768,32768
68.0046,0.00955875,-2,32768,32768
69.0096,0.00991373,-2,32768,32768
70.0142,0.0102473,-2,32768,32768
71.0023,0.0105487,-2,32768,32768
72.0061,0.0108227,-2,32768,32768
73.0096,0.0110601,-2,32768,32768
74.0126,0.0112572,-2,32768,32768
75.0151,0.0114112,-2,32768,32768
76.001,0.0115182,-2,32768,32768
77.0025,0.0115806,-2,32768,32768
78.0035,0.0115983,-2,32768,32768
79.0039,0.0115728,-2,32768,32768
80.0039,0.0115005,-2,32768,32768
81.0033,0.0113912,-2,32768,32768
82.0022,0.0112367,-2,32768,32768
83.0007,0.0109196,-2,32768,32768
84.0149,0.0101838,-2,32768,32768
85.0126,0.00893109,-2,32768,32768
86.0101,0.00687144,-2,32768,32768
87.0072,0.00357773,-2,32768,32768
88.0042,-0.000535726,-2,32768,32768
89.001,-0.00457705,-2,32768,32768
90.0138,-0.00794894,-2,32768,32768
91.0105,-0.0103219,-2,32768,32768
92.0072,-0.0117309,-2,32768,32768
93.004,-0.0122683,-2,32768,32768
94.0007,-0.012116,-2,32768,32768
95.0135,-0.0115064,-2,32768,32768
96.0102,-0.0107014,-2,32768,32768
97.0069,-0.00984677,-2,32768,32768
98.0036,-0.00900892,-2,32768,32768
99.0003,-0.00820366,-2,32768,32768
100.013,-0.00742295,-2,32768,32768
101.01,-0.00669851,-2,32768,32768
102.006,-0.0060165,-2,32768,32768
103.003,-0.00536973,-2,32768,32768
104.016,-0.00474858,-2,32768,32768
105.013,-0.0041768,-2,32768,32768
106.009,-0.00364368,-2,32768,32768
107.006,-0.00314399,-2,32768,32768
108.003,-0.00267373,-2,32768,32768
109.016,-0.00223097,-2,32768,32768
110.013,-0.00184135,-2,32768,32768
111.01,-0.00150548,-2,32768,32768
112.007,-0.00122245,-2,32768,32768
113.004,-0.000988055,-2,32768,32768
114.001,-0.000797256,-2,32768,32768
115.014,-0.000641991,-2,32768,32768
116.011,-0.000518125,-2,32768,32768
117.008,-0.00041294,-2,32768,32768
118.005,-0.00031984,-2,32768,32768
119.002,-0.000236726,-2,32768,32768
