time,surface_elevation,reference_data,number_of_local_cells,number_of_global_cells
0,9.12088e-05,-2,131072,131072
1.0002,0.000108718,-2,131072,131072
2.00042,0.000131008,-2,131072,131072
3.00064,0.000159459,-2,131072,131072
4.00088,0.000195873,-2,131072,131072
5.00113,0.000242616,-2,131072,131072
6.00138,0.000302812,-2,131072,131072
7.00163,0.000380601,-2,131072,131072
8.00189,0.000481492,-2,131072,131072
9.00215,0.000612837,-2,131072,131072
10.0024,0.000784462,-2,131072,131072
11.0027,0.0010095,-2,131072,131072
12.003,0.00129096,-2,131072,131072
13.0034,0.00162873,-2,131072,131072
14.0037,0.00207745,-2,131072,131072
15.0042,0.00267583,-2,131072,131072
16.0047,0.00331084,-2,131072,131072
17.0053,0.00410172,-2,131072,131072
18.0004,0.00507396,-2,131072,131072
19.0014,0.00626561,-2,131072,131072
20.0034,0.00769689,-2,131072,131072
21.0012,0.00937428,-2,131072,131072
22.0011,0.0113036,-2,131072,131072
23.0034,0.0134529,-2,131072,131072
24.0026,0.0157338,-2,131072,131072
25.0042,0.0180327,-2,131072,131072
26.0026,0.0201671,-2,131072,131072
27.0032,0.0219605,-2,131072,131072
28,0.0232358,-2,131072,131072
29.0043,0.0238958,-2,131072,131072
30.0044,0.0239031,-2,131072,131072
31.0057,0.0233118,-2,131072,131072
32.0023,0.022234,-2,131072,131072
33.005,0.020791,-2,131072,131072
34.0017,0.0191355,-2,131072,131072
35.004,0.0173717,-2,131072,131072
36.0005,0.0156206,-2,131072,131072
37.0025,0.0139383,-2,131072,131072
38.0044,0.0123881,-2,131072,131072
39.0005,0.0110084,-2,131072,131072
40.0021,0.00979733,-2,131072,131072
41.0037,0.00876432,-2,131072,131072
42.0051,0.00790291,-2,131072,131072
43.0007,0.00719827,-2,131072,131072
44.0019,0.00663032,-2,131072,131072
45.0031,0.00618452,-2,131072,131072
46.0041,0.00584351,-2,131072,131072
47.0051,0.00559202,-2,131072,131072
48.0002,0.00541637,-2,131072,131072
49.0009,0.00530274,-2,131072,131072
50.0016,0.00524308,-2,131072,131072
51.0021,0.00522989,-2,131072,131072
52.0025,0.00526495,-2,131072,131072
53.0028,0.00537227,-2,131072,131072
54.003,0.00552721,-2,131072,131072
55.0031,0.00568024,-2,131072,131072
56.003,0.00580533,-2,131072,131072
57.0028,0.0059272,-2,131072,131072
58.0025,0.00610841,-2,131072,131072
59.002,0.00637062,-2,131072,131072
60.0013,0.00663794,-2,131072,131072
61.0005,0.00690719,-2,131072,131072
62.0052,0.00721474,-2,131072,131072
63.004,0.00753202,-2,131072,131072
64.0027,0.00787717,-2,131072,131072
65.0056,0.00824839,-2,131072,131072
66.0052,0.00863013,-2,131072,131072
67.0046,0.00902082,-2,131072,131072
68.005,0.009415,-2,131072,131072
69.0044,0.00980325,-2,131072,131072
70.0015,0.0101761,-2,131072,131072
71.0039,0.0105279,-2,131072,131072
72.0003,0.0108476,-2,131072,131072
73.0019,0.011132,-2,131072,131072
74.0031,0.0113732,-2,131072,131072
75.0039,0.0115668,-2,131072,131072
76.0042,0.0117098,-2,131072,131072
77.004,0.0117994,-2,131072,131072
78.0032,0.011836,-2,131072,131072
79.0018,0.0118221,-2,131072,131072
80.0057,0.0117655,-2,131072,131072
81.0032,0.011687,-2,131072,131072
82.0002,0.0116318,-2,131072,131072
83.0025,0.01137,-2,131072,131072
84.0042,0.00947636,-2,131072,131072
85.0055,0.00623092,-2,131072,131072
86.0008,0.00354325,-2,131072,131072
87.0014,0.00425237,-2,131072,131072
88.0018,0.000234993,-2,131072,131072
89.002,-0.00467375,-2,131072,131072
90.0021,-0.00829642,-2,131072,131072
91.0022,-0.010517,-2,131072,131072
92.0023,-0.0105921,-2,131072,131072
93.0024,-0.0101118,-2,131072,131072
94.0024,-0.0100423,-2,131072,131072
95.0025,-0.0098352,-2,131072,131072
96.0025,-0.0093655,-2,131072,131072
97.0026,-0.00886163,-2,131072,131072
98.0027,-0.00843663,-2,131072,131072
99.0027,-0.00778006,-2,131072,131072
100.003,-0.00705236,-2,131072,131072
101.003,-0.00635097,-2,131072,131072
102.003,-0.00568696,-2,131072,131072
103.003,-0.00506066,-2,131072,131072
104.003,-0.00446926,-2,131072,131072
105.003,-0.00390444,-2,131072,131072
106.003,-0.00337469,-2,131072,131072
107.003,-0.0029084,-2,131072,131072
108.003,-0.00250016,-2,131072,131072
109.003,-0.00213785,-2,131072,131072
110.004,-0.0018172,-2,131072,131072
111.004,-0.00152629,-2,131072,131072
112.004,-0.00127551,-2,131072,131072
113.004,-0.00106714,-2,131072,131072
114.004,-0.000898612,-2,131072,131072
115.005,-0.000763014,-2,131072,131072
116.005,-0.0006433,-2,131072,131072
117.005,-0.000533566,-2,131072,131072
118.005,-0.000436887,-2,131072,131072
119.006,-0.000344619,-2,131072,131072
