%%MatrixMarket matrix array complex general
10 9
0.395061728 0
0 0
-0.44169244 0
0.279350827 0
0 0
-0.342133493 0
0.483849826 0
0 0
0.888888889 0
0.382516874 0
0.24691358 0
0 0
-0.276057775 0
-0.231126146 0
0 0
0.096397536 0
0.536648931 0
0 0
-0.286887655 0
0.752887244 0
0.24691358 0
0 0
-0.276057775 0
0.58031468 0
0 0
0.758936196 0
0.0681633514 0
0 0
0.286887655 0
0.0121465028 0
0.24691358 0
-0.33126933 0
0.22084622 0
0.174594267 0
-0.23424279 0
-0.213833433 0
0.302406141 0
-0.405720413 0
0.555555556 0
0.239073046 0
0.154320988 0
-0.207043331 0
0.138028888 0
-0.144453841 0
0.193805165 0
0.06024846 0
0.335405582 0
-0.449993808 0
-0.179304784 0
0.470554528 0
0.154320988 0
-0.207043331 0
0.138028888 0
0.362696675 0
-0.486608652 0
0.474335122 0
0.0426020947 0
-0.0571567078 0
0.179304785 0
0.00759156428 0
0.24691358 0
0.33126933 0
0.22084622 0
0.174594267 0
0.23424279 0
-0.213833433 0
0.302406141 0
0.405720413 0
0.555555556 0
0.239073046 0
0.154320988 0
0.207043331 0
0.138028887 0
-0.144453841 0
-0.193805165 0
0.06024846 0
0.335405582 0
0.449993808 0
-0.179304784 0
0.470554528 0
0.154320988 0
0.207043331 0
0.138028887 0
0.362696675 0
0.486608652 0
0.474335122 0
0.0426020947 0
0.0571567078 0
0.179304785 0
0.00759156428 0
