0	0
230.748	0
461.497	0
692.245	0
922.993	0
1153.74	0
1384.49	0
1615.24	0
1845.99	0
2076.74	0
2307.48	0.000218083
2538.23	0.000816711
2768.98	0.00201673
2999.73	0.00402397
3230.48	0.0069995
3461.23	0.0109816
3691.97	0.0158531
3922.72	0.0213398
4153.47	0.0270572
4384.22	0.0325773
4614.97	0.0374952
4845.71	0.0414753
5076.46	0.0442738
5307.21	0.0457437
5537.96	0.0458301
5768.7	0.0445608
5999.45	0.0420334
6230.2	0.0384016
6460.94	0.0338602
6691.69	0.0286316
6922.44	0.0229525
7153.18	0.0170621
7383.93	0.0111894
7614.68	0.00554165
7845.43	0.00029403
8076.17	-0.00441874
8306.92	-0.00850642
8537.67	-0.0119232
8768.42	-0.0146637
8999.17	-0.0167558
9229.91	-0.0182513
9460.66	-0.0192172
9691.41	-0.0197266
9922.16	-0.0198521
10152.9	-0.0196612
10383.7	-0.0192133
10614.4	-0.0185596
10845.2	-0.0177437
11075.9	-0.0168028
11306.6	-0.0157696
11537.4	-0.014674
11768.1	-0.0135434
11998.9	-0.0124032
12229.6	-0.0112768
12460.4	-0.0101853
12691.1	-0.00914623
12921.9	-0.00817385
13152.6	-0.00727842
13383.4	-0.00646633
13614.1	-0.00574034
13844.9	-0.00510003
14075.6	-0.00454232
14306.4	-0.00406211
14537.1	-0.00365286
14767.9	-0.0033071
14998.6	-0.00301691
15229.4	-0.00277432
15460.1	-0.00257162
15690.9	-0.00240169
15921.6	-0.00225819
16152.4	-0.00213581
16383.1	-0.00203037
16613.9	-0.00193885
16844.6	-0.00185937
17075.4	-0.00179103
17306.1	-0.0017337
17536.9	-0.00168774
17767.6	-0.0016537
17998.4	-0.001632
18229.1	-0.00162265
18459.8	-0.00162512
18690.6	-0.00163815
18921.3	-0.00165979
19152.1	-0.00168745
19382.8	-0.001718
19613.6	-0.00174802
19844.3	-0.00177396
