0	0
29.6453	0
59.2907	0
88.936	0
118.581	0
148.227	0
177.872	0
207.517	0
237.163	0
266.808	0
296.453	0
326.099	0
355.744	0
385.389	0
415.035	0
444.68	0
474.325	0
503.971	0
533.616	0
563.261	0
592.907	0
622.552	0
652.197	0
681.843	0
711.488	0
741.133	0
770.779	0
800.424	0
830.069	0
859.715	0
889.36	0
919.005	0
948.651	0
978.296	0
1007.94	0
1037.59	0
1067.23	0
1096.88	0
1126.52	0
1156.17	0
1185.81	0
1215.46	0
1245.1	0
1274.75	0
1304.39	0
1334.04	0
1363.69	0
1393.33	-9.09495e-13
1422.98	-3.63798e-12
1452.62	-1.54614e-11
1482.27	-5.82077e-11
1511.91	-1.9827e-10
1541.56	-6.20275e-10
1571.2	-1.78625e-09
1600.85	-4.79031e-09
1630.49	-1.20453e-08
1660.14	-2.85954e-08
1689.78	-6.44286e-08
1719.43	-1.38417e-07
1749.07	-2.84675e-07
1778.72	-5.62405e-07
1808.37	-1.07051e-06
1838.01	-1.96841e-06
1867.66	-3.5046e-06
1897.3	-6.05416e-06
1926.95	-1.01663e-05
1956.59	-1.6622e-05
1986.24	-2.65004e-05
2015.88	-4.12523e-05
2045.53	-6.27746e-05
2075.17	-9.34796e-05
2104.82	-0.000136349
2134.46	-0.000194962
2164.11	-0.000273472
2193.75	-0.000376532
2223.4	-0.000509129
2253.05	-0.000676314
2282.69	-0.000882813
2312.34	-0.00113248
2341.98	-0.00142762
2371.63	-0.00176807
2401.27	-0.00215026
2430.92	-0.00256593
2460.56	-0.00300091
2490.21	-0.00343373
2519.85	-0.00383423
2549.5	-0.00416231
2579.14	-0.00436681
2608.79	-0.00438473
2638.43	-0.0041408
2668.08	-0.0035477
2697.73	-0.00250675
2727.37	-0.000909502
2757.02	0.00136005
2786.66	0.00442238
2816.31	0.00839862
2845.95	0.0134061
2875.6	0.0195533
2905.24	0.0269346
2934.89	0.0356246
2964.53	0.0456729
2994.18	0.0570989
3023.82	0.0698877
3053.47	0.0839864
3083.11	0.0993018
3112.76	0.115699
3142.4	0.133003
3172.05	0.150997
3201.69	0.169431
3231.34	0.188021
3260.98	0.206459
3290.63	0.224417
3320.27	0.241555
3349.92	0.257534
3379.56	0.272017
3409.2	0.284686
3438.85	0.295245
3468.49	0.303431
3498.14	0.30902
3527.78	0.311833
3557.43	0.311746
3587.07	0.308686
3616.72	0.302639
3646.36	0.293652
3676	0.281824
3705.65	0.267314
3735.29	0.250328
3764.94	0.23112
3794.58	0.209984
3824.23	0.187244
3853.87	0.163249
3883.52	0.138364
3913.16	0.112958
3942.8	0.0874034
3972.45	0.0620586
4002.09	0.0372666
4031.74	0.0133462
4061.38	-0.00941346
4091.03	-0.0307579
4120.67	-0.0504705
4150.32	-0.068375
4179.96	-0.0843372
4209.61	-0.0982645
4239.25	-0.110105
4268.9	-0.119847
4298.54	-0.127515
4328.19	-0.133167
4357.83	-0.136889
4387.48	-0.138796
4417.12	-0.139021
4446.77	-0.137715
4476.41	-0.135043
4506.06	-0.131174
4535.7	-0.126285
4565.35	-0.12055
4594.99	-0.114143
4624.64	-0.107229
4654.28	-0.0999669
4683.93	-0.0925025
4713.57	-0.0849708
4743.22	-0.0774926
4772.86	-0.0701749
4802.51	-0.0631095
4832.15	-0.0563737
4861.8	-0.0500301
4891.45	-0.0441274
4921.09	-0.0387011
4950.74	-0.0337741
4980.38	-0.0293582
5010.03	-0.0254549
5039.67	-0.0220568
5069.32	-0.0191487
5098.96	-0.016709
5128.61	-0.0147108
5158.25	-0.013123
5187.9	-0.0119114
5217.54	-0.0110399
5247.19	-0.0104711
5276.83	-0.0101674
5306.48	-0.0100916
5336.12	-0.0102075
5365.77	-0.0104801
5395.41	-0.0108769
5425.06	-0.0113671
5454.7	-0.0119226
5484.35	-0.0125179
5513.99	-0.0131303
5543.64	-0.0137396
5573.28	-0.0143285
5602.93	-0.014882
5632.57	-0.015388
5662.22	-0.0158364
5691.86	-0.0162196
5721.51	-0.0165316
5751.15	-0.0167686
5780.8	-0.0169282
5810.45	-0.0170096
5840.09	-0.0170132
5869.74	-0.0169403
5899.38	-0.0167935
5929.03	-0.0165759
5958.67	-0.0162913
5988.32	-0.0159441
6017.96	-0.0155389
6047.61	-0.0150808
6077.25	-0.0145751
6106.9	-0.0140272
6136.54	-0.0134427
6166.19	-0.012827
6195.83	-0.0121858
6225.48	-0.0115246
6255.12	-0.0108489
6284.77	-0.0101641
6314.41	-0.00947553
6344.06	-0.00878837
6373.7	-0.00810773
6403.35	-0.00743858
6432.99	-0.00678574
6462.64	-0.0061539
6492.29	-0.00554757
6521.93	-0.00497111
6551.58	-0.0044287
6581.22	-0.00392434
6610.87	-0.0034618
6640.51	-0.00304466
6670.16	-0.00267625
6699.8	-0.00235965
6729.45	-0.00209769
6759.09	-0.0018929
6788.74	-0.00174751
6818.38	-0.00166346
6848.03	-0.00164232
6877.67	-0.00168534
6907.32	-0.00179341
6936.97	-0.00196705
6966.61	-0.00220639
6996.26	-0.0025112
7025.9	-0.00288086
7055.55	-0.00331437
7085.19	-0.00381035
7114.84	-0.00436708
7144.48	-0.00498245
7174.13	-0.00565403
7203.77	-0.00637908
7233.42	-0.00715456
7263.06	-0.00797717
7292.71	-0.00884334
7322.35	-0.00974933
7352	-0.0106912
7381.64	-0.0116649
7411.29	-0.0126662
7440.94	-0.0136909
7470.58	-0.0147346
7500.23	-0.0157932
7529.87	-0.0168623
7559.52	-0.0179378
7589.16	-0.0190156
7618.81	-0.0200917
7648.45	-0.0211623
7678.1	-0.0222237
7707.74	-0.0232726
7737.39	-0.0243056
7767.03	-0.0253198
7796.68	-0.0263122
7826.32	-0.0272805
7855.97	-0.0282221
7885.61	-0.0291351
7915.26	-0.0300175
7944.91	-0.0308676
7974.55	-0.0316839
8004.2	-0.0324652
8033.84	-0.0332104
8063.49	-0.0339184
8093.13	-0.0345884
8122.78	-0.0352198
8152.42	-0.0358118
8182.07	-0.036364
8211.71	-0.0368759
8241.36	-0.037347
8271	-0.0377769
8300.65	-0.0381652
8330.29	-0.0385115
8359.94	-0.0388152
8389.58	-0.0390761
8419.23	-0.0392935
8448.88	-0.039467
8478.52	-0.0395959
8508.17	-0.0396797
8537.81	-0.0397177
8567.46	-0.0397093
8597.1	-0.0396538
8626.75	-0.0395504
8656.39	-0.0393985
8686.04	-0.0391974
8715.68	-0.0389464
8745.33	-0.0386449
8774.97	-0.0382922
8804.62	-0.0378879
8834.26	-0.0374315
8863.91	-0.0369226
8893.55	-0.0363611
8923.2	-0.0357467
8952.85	-0.0350795
8982.49	-0.0343596
9012.14	-0.0335873
9041.78	-0.0327632
9071.43	-0.0318877
9101.07	-0.0309618
9130.72	-0.0299864
9160.36	-0.0289627
9190.01	-0.027892
9219.65	-0.026776
9249.3	-0.0256164
9278.94	-0.0244151
9308.59	-0.0231742
9338.23	-0.0218962
9367.88	-0.0205835
9397.52	-0.0192388
9427.17	-0.017865
9456.81	-0.0164651
9486.46	-0.0150423
9516.11	-0.0136
9545.75	-0.0121417
9575.4	-0.010671
9605.04	-0.00919168
9634.69	-0.00770755
9664.33	-0.0062226
9693.98	-0.00474086
9723.62	-0.00326644
9753.27	-0.0018035
9782.91	-0.000356206
9812.56	0.00107123
9842.2	0.0024746
9871.85	0.00384975
9901.49	0.00519254
9931.14	0.0064989
9960.78	0.00776485
9990.43	0.00898651
10020.1	0.0101601
10049.7	0.0112821
10079.4	0.012349
10109	0.0133575
10138.7	0.0143046
10168.3	0.0151876
10197.9	0.0160037
10227.6	0.0167507
10257.2	0.0174266
10286.9	0.0180296
10316.5	0.0185581
10346.2	0.0190112
10375.8	0.0193879
10405.5	0.0196878
10435.1	0.0199106
10464.8	0.0200567
10494.4	0.0201264
10524	0.0201207
10553.7	0.0200406
10583.3	0.0198878
10613	0.019664
10642.6	0.0193714
10672.3	0.0190124
10701.9	0.0185897
10731.6	0.0181063
10761.2	0.0175654
10790.9	0.0169705
10820.5	0.0163253
10850.1	0.0156335
10879.8	0.0148994
10909.4	0.0141269
10939.1	0.0133203
10968.7	0.0124841
10998.4	0.0116226
11028	0.0107403
11057.7	0.00984152
11087.3	0.0089308
11117	0.00801247
11146.6	0.00709082
11176.2	0.00617005
11205.9	0.0052542
11235.5	0.0043472
11265.2	0.00345278
11294.8	0.0025745
11324.5	0.0017157
11354.1	0.000879491
11383.8	6.87565e-05
11413.4	-0.000713875
11443	-0.00146603
11472.7	-0.00218562
11502.3	-0.00287079
11532	-0.00352
11561.6	-0.00413196
11591.3	-0.00470566
11620.9	-0.00524035
11650.6	-0.00573556
11680.2	-0.00619105
11709.9	-0.00660685
11739.5	-0.0069832
11769.1	-0.00732059
11798.8	-0.00761969
11828.4	-0.00788137
11858.1	-0.00810671
11887.7	-0.00829692
11917.4	-0.00845336
11947	-0.00857755
11976.7	-0.00867112
12006.3	-0.00873577
12036	-0.00877334
12065.6	-0.00878571
12095.2	-0.00877484
12124.9	-0.00874273
12154.5	-0.00869142
12184.2	-0.00862298
12213.8	-0.00853949
12243.5	-0.00844305
12273.1	-0.00833577
12302.8	-0.00821973
12332.4	-0.00809701
12362.1	-0.00796967
12391.7	-0.00783976
12421.3	-0.0077093
12451	-0.00758025
12480.6	-0.00745457
12510.3	-0.00733417
12539.9	-0.0072209
12569.6	-0.00711659
12599.2	-0.00702299
12628.9	-0.00694181
12658.5	-0.00687469
12688.2	-0.0068232
12717.8	-0.00678883
12747.4	-0.00677301
12777.1	-0.00677705
12806.7	-0.00680218
12836.4	-0.00684952
12866	-0.00692007
12895.7	-0.00701471
12925.3	-0.00713419
12955	-0.00727911
12984.6	-0.00744991
13014.3	-0.0076469
13043.9	-0.0078702
13073.5	-0.00811974
13103.2	-0.00839531
13132.8	-0.00869646
13162.5	-0.00902259
13192.1	-0.00937288
13221.8	-0.00974633
13251.4	-0.0101417
13281.1	-0.0105577
13310.7	-0.0109926
13340.4	-0.0114447
13370	-0.011912
13399.6	-0.0123924
13429.3	-0.0128836
13458.9	-0.0133832
13488.6	-0.0138886
13518.2	-0.0143972
13547.9	-0.0149062
13577.5	-0.0154128
13607.2	-0.0159141
13636.8	-0.0164072
13666.4	-0.0168892
13696.1	-0.0173571
13725.7	-0.0178082
13755.4	-0.0182396
13785	-0.0186486
13814.7	-0.0190328
13844.3	-0.0193896
13874	-0.0197167
13903.6	-0.0200122
13933.3	-0.020274
13962.9	-0.0205006
13992.5	-0.0206904
14022.2	-0.0208424
14051.8	-0.0209556
14081.5	-0.0210293
14111.1	-0.0210633
14140.8	-0.0210574
14170.4	-0.0210118
14200.1	-0.0209271
14229.7	-0.0208039
14259.4	-0.0206433
14289	-0.0204467
14318.6	-0.0202156
14348.3	-0.0199518
14377.9	-0.0196573
14407.6	-0.0193343
14437.2	-0.0189852
14466.9	-0.0186127
14496.5	-0.0182193
14526.2	-0.0178079
14555.8	-0.0173815
14585.5	-0.0169428
14615.1	-0.016495
14644.7	-0.016041
14674.4	-0.0155837
14704	-0.0151261
14733.7	-0.014671
14763.3	-0.014221
14793	-0.0137788
14822.6	-0.0133468
14852.3	-0.0129272
14881.9	-0.012522
14911.6	-0.0121331
14941.2	-0.0117621
14970.8	-0.0114102
15000.5	-0.0110787
15030.1	-0.0107682
15059.8	-0.0104794
15089.4	-0.0102124
15119.1	-0.00996727
15148.7	-0.00974369
15178.4	-0.00954108
15208	-0.00935859
15237.7	-0.00919513
15267.3	-0.00904936
15296.9	-0.00891971
15326.6	-0.00880441
15356.2	-0.00870149
15385.9	-0.00860881
15415.5	-0.00852409
15445.2	-0.00844494
15474.8	-0.00836884
15504.5	-0.00829323
15534.1	-0.00821549
15563.7	-0.00813301
15593.4	-0.00804315
15623	-0.00794334
15652.7	-0.00783107
15682.3	-0.00770391
15712	-0.00755956
15741.6	-0.00739584
15771.3	-0.00721076
15800.9	-0.00700247
15830.6	-0.00676935
15860.2	-0.00651
15889.8	-0.00622322
15919.5	-0.00590807
15949.1	-0.00556386
15978.8	-0.00519016
16008.4	-0.00478678
16038.1	-0.00435381
16067.7	-0.00389161
16097.4	-0.00340078
16127	-0.00288217
16156.7	-0.0023369
16186.3	-0.0017663
16215.9	-0.00117193
16245.6	-0.000555562
16275.2	8.0842e-05
16304.9	0.000735145
16334.5	0.00140505
16364.2	0.00208813
16393.8	0.00278183
16423.5	0.0034835
16453.1	0.00419043
16482.8	0.00489983
16512.4	0.00560891
16542	0.00631484
16571.7	0.00701482
16601.3	0.00770608
16631	0.00838587
16660.6	0.00905155
16690.3	0.00970055
16719.9	0.0103304
16749.6	0.0109387
16779.2	0.0115233
16808.9	0.0120821
16838.5	0.0126131
16868.1	0.0131146
16897.8	0.013585
16927.4	0.0140229
16957.1	0.014427
16986.7	0.0147962
17016.4	0.0151297
17046	0.0154267
17075.7	0.0156868
17105.3	0.0159095
17135	0.0160947
17164.6	0.0162424
17194.2	0.0163528
17223.9	0.0164261
17253.5	0.0164627
17283.2	0.0164633
17312.8	0.0164286
17342.5	0.0163594
17372.1	0.0162567
17401.8	0.0161214
17431.4	0.0159548
17461	0.015758
17490.7	0.0155323
17520.3	0.0152791
17550	0.0149997
17579.6	0.0146957
17609.3	0.0143685
17638.9	0.0140196
17668.6	0.0136506
17698.2	0.0132629
17727.9	0.0128582
17757.5	0.012438
17787.1	0.0120039
17816.8	0.0115574
17846.4	0.0111001
17876.1	0.0106335
17905.7	0.010159
17935.4	0.00967828
17965	0.00919267
17994.7	0.00870366
18024.3	0.00821263
18054	0.00772097
18083.6	0.00723004
18113.2	0.00674114
18142.9	0.00625555
18172.5	0.00577453
18202.2	0.00529929
18231.8	0.004831
18261.5	0.0043708
18291.1	0.00391979
18320.8	0.00347903
18350.4	0.00304954
18380.1	0.00263229
18409.7	0.00222822
18439.3	0.00183822
18469	0.00146312
18498.6	0.00110373
18528.3	0.000760771
18557.9	0.000434948
18587.6	0.000126894
18617.2	-0.000162809
18646.9	-0.000433636
18676.5	-0.000685123
18706.2	-0.000916865
18735.8	-0.00112852
18765.4	-0.00131981
18795.1	-0.00149053
18824.7	-0.00164052
18854.4	-0.00176971
18884	-0.0018781
18913.7	-0.00196574
18943.3	-0.00203276
18973	-0.00207936
19002.6	-0.0021058
19032.3	-0.00211243
19061.9	-0.00209964
19091.5	-0.0020679
19121.2	-0.00201775
19150.8	-0.00194977
19180.5	-0.00186461
19210.1	-0.00176299
19239.8	-0.00164567
19269.4	-0.00151346
19299.1	-0.00136721
19328.7	-0.00120783
19358.3	-0.00103625
19388	-0.000853435
19417.6	-0.000660394
19447.3	-0.000458145
19476.9	-0.000247731
19506.6	-3.02088e-05
19536.2	0.000193357
19565.9	0.000421895
19595.5	0.000654337
19625.2	0.000889618
19654.8	0.00112668
19684.4	0.00136449
19714.1	0.00160202
19743.7	0.00183828
19773.4	0.00207229
19803	0.00230311
19832.7	0.00252983
19862.3	0.00275159
19892	0.00296756
19921.6	0.00317694
19951.3	0.00337899
19980.9	0.00357303
