0	0
11.8196	0
23.6393	0
35.4589	0
47.2785	0
59.0981	0
70.9178	0
82.7374	0
94.557	0
106.377	0
118.196	0
130.016	0
141.836	0
153.655	0
165.475	0
177.294	0
189.114	0
200.934	0
212.753	0
224.573	0
236.393	0
248.212	0
260.032	0
271.851	0
283.671	0
295.491	0
307.31	0
319.13	0
330.95	0
342.769	0
354.589	0
366.408	0
378.228	0
390.048	0
401.867	0
413.687	0
425.507	0
437.326	0
449.146	0
460.966	0
472.785	0
484.605	0
496.424	0
508.244	0
520.064	0
531.883	0
543.703	0
555.523	0
567.342	0
579.162	0
590.981	0
602.801	0
614.621	0
626.44	0
638.26	0
650.08	0
661.899	0
673.719	0
685.538	0
697.358	0
709.178	0
720.997	0
732.817	0
744.637	0
756.456	0
768.276	0
780.095	0
791.915	0
803.735	0
815.554	0
827.374	0
839.194	0
851.013	0
862.833	0
874.652	0
886.472	0
898.292	0
910.111	0
921.931	0
933.751	0
945.57	0
957.39	0
969.21	0
981.029	0
992.849	0
1004.67	0
1016.49	0
1028.31	0
1040.13	0
1051.95	0
1063.77	0
1075.59	0
1087.41	0
1099.23	0
1111.05	0
1122.86	0
1134.68	0
1146.5	0
1158.32	0
1170.14	0
1181.96	0
1193.78	0
1205.6	0
1217.42	0
1229.24	0
1241.06	0
1252.88	0
1264.7	0
1276.52	0
1288.34	-9.09495e-13
1300.16	-1.81899e-12
1311.98	-2.72848e-12
1323.8	-4.54747e-12
1335.62	-7.27596e-12
1347.44	-1.09139e-11
1359.26	-1.63709e-11
1371.08	-2.45564e-11
1382.9	-3.63798e-11
1394.72	-5.45697e-11
1406.54	-8.00355e-11
1418.36	-1.17325e-10
1430.18	-1.70985e-10
1441.99	-2.47383e-10
1453.81	-3.56522e-10
1465.63	-5.10227e-10
1477.45	-7.24867e-10
1489.27	-1.02409e-09
1501.09	-1.43791e-09
1512.91	-2.00816e-09
1524.73	-2.78851e-09
1536.55	-3.84989e-09
1548.37	-5.28598e-09
1560.19	-7.21866e-09
1572.01	-9.80617e-09
1583.83	-1.32522e-08
1595.65	-1.78179e-08
1607.47	-2.38369e-08
1619.29	-3.17323e-08
1631.11	-4.20387e-08
1642.93	-5.54292e-08
1654.75	-7.27441e-08
1666.57	-9.50313e-08
1678.39	-1.23587e-07
1690.21	-1.6001e-07
1702.03	-2.06265e-07
1713.85	-2.64753e-07
1725.67	-3.38394e-07
1737.49	-4.30724e-07
1749.3	-5.46009e-07
1761.12	-6.89372e-07
1772.94	-8.66938e-07
1784.76	-1.086e-06
1796.58	-1.35521e-06
1808.4	-1.68478e-06
1820.22	-2.08672e-06
1832.04	-2.57512e-06
1843.86	-3.16637e-06
1855.68	-3.87958e-06
1867.5	-4.73682e-06
1879.32	-5.76357e-06
1891.14	-6.98908e-06
1902.96	-8.44684e-06
1914.78	-1.0175e-05
1926.6	-1.22169e-05
1938.42	-1.46215e-05
1950.24	-1.74442e-05
1962.06	-2.07468e-05
1973.88	-2.45988e-05
1985.7	-2.90774e-05
1997.52	-3.42684e-05
2009.34	-4.02666e-05
2021.16	-4.71765e-05
2032.98	-5.51126e-05
2044.8	-6.42001e-05
2056.62	-7.45753e-05
2068.43	-8.63859e-05
2080.25	-9.97912e-05
2092.07	-0.000114963
2103.89	-0.000132083
2115.71	-0.000151348
2127.53	-0.000172965
2139.35	-0.000197151
2151.17	-0.000224135
2162.99	-0.000254157
2174.81	-0.000287463
2186.63	-0.000324309
2198.45	-0.000364956
2210.27	-0.000409668
2222.09	-0.000458713
2233.91	-0.000512355
2245.73	-0.000570855
2257.55	-0.000634468
2269.37	-0.000703436
2281.19	-0.000777986
2293.01	-0.000858324
2304.83	-0.00094463
2316.65	-0.00103705
2328.47	-0.00113571
2340.29	-0.00124065
2352.11	-0.00135191
2363.93	-0.00146944
2375.75	-0.00159312
2387.56	-0.00172277
2399.38	-0.00185811
2411.2	-0.00199878
2423.02	-0.00214432
2434.84	-0.00229412
2446.66	-0.0024475
2458.48	-0.00260359
2470.3	-0.00276142
2482.12	-0.00291984
2493.94	-0.00307754
2505.76	-0.00323303
2517.58	-0.00338464
2529.4	-0.00353049
2541.22	-0.00366852
2553.04	-0.00379642
2564.86	-0.00391168
2576.68	-0.00401157
2588.5	-0.00409309
2600.32	-0.00415303
2612.14	-0.00418791
2623.96	-0.00419402
2635.78	-0.0041674
2647.6	-0.00410382
2659.42	-0.00399882
2671.24	-0.0038477
2683.06	-0.00364551
2694.88	-0.00338708
2706.69	-0.00306702
2718.51	-0.00267973
2730.33	-0.00221943
2742.15	-0.00168015
2753.97	-0.00105577
2765.79	-0.000340034
2777.61	0.000473408
2789.43	0.001391
2801.25	0.00241924
2813.07	0.00356465
2824.89	0.00483372
2836.71	0.00623291
2848.53	0.00776861
2860.35	0.00944704
2872.17	0.0112743
2883.99	0.0132563
2895.81	0.0153985
2907.63	0.0177065
2919.45	0.020185
2931.27	0.0228388
2943.09	0.025672
2954.91	0.0286883
2966.73	0.0318909
2978.55	0.0352823
2990.37	0.0388645
3002.18	0.042639
3014	0.0466063
3025.82	0.0507664
3037.64	0.0551185
3049.46	0.0596609
3061.28	0.0643911
3073.1	0.069306
3084.92	0.0744012
3096.74	0.0796718
3108.56	0.0851118
3120.38	0.0907144
3132.2	0.0964717
3144.02	0.102375
3155.84	0.108415
3167.66	0.114581
3179.48	0.120862
3191.3	0.127245
3203.12	0.133718
3214.94	0.140266
3226.76	0.146876
3238.57	0.153531
3250.39	0.160216
3262.21	0.166914
3274.03	0.173608
3285.85	0.18028
3297.67	0.186912
3309.49	0.193486
3321.31	0.199983
3333.13	0.206383
3344.95	0.212668
3356.77	0.218818
3368.59	0.224814
3380.41	0.230637
3392.23	0.236267
3404.05	0.241686
3415.87	0.246875
3427.69	0.251817
3439.5	0.256493
3451.32	0.260887
3463.14	0.264982
3474.96	0.268763
3486.78	0.272214
3498.6	0.275321
3510.42	0.278072
3522.24	0.280454
3534.06	0.282456
3545.88	0.284068
3557.7	0.285281
3569.52	0.286087
3581.34	0.286481
3593.16	0.286456
3604.97	0.286009
3616.79	0.285136
3628.61	0.283838
3640.43	0.282113
3652.25	0.279962
3664.07	0.27739
3675.89	0.274398
3687.71	0.270994
3699.53	0.267182
3711.35	0.262971
3723.17	0.25837
3734.99	0.253389
3746.8	0.248039
3758.62	0.242333
3770.44	0.236283
3782.26	0.229906
3794.08	0.223215
3805.9	0.216227
3817.72	0.20896
3829.54	0.201431
3841.36	0.193658
3853.18	0.185661
3865	0.177458
3876.82	0.169072
3888.63	0.16052
3900.45	0.151825
3912.27	0.143008
3924.09	0.134089
3935.91	0.125089
3947.73	0.11603
3959.55	0.106933
3971.37	0.0978183
3983.19	0.0887068
3995.01	0.079619
4006.83	0.0705748
4018.65	0.0615936
4030.46	0.0526947
4042.28	0.0438964
4054.1	0.0352166
4065.92	0.0266727
4077.74	0.018281
4089.56	0.0100574
4101.38	0.00201683
4113.2	-0.00582653
4125.02	-0.0134594
4136.84	-0.0208694
4148.66	-0.0280451
4160.48	-0.0349759
4172.3	-0.0416521
4184.11	-0.0480652
4195.93	-0.0542074
4207.75	-0.0600721
4219.57	-0.0656534
4231.39	-0.0709467
4243.21	-0.0759481
4255.03	-0.0806547
4266.85	-0.0850645
4278.67	-0.0891765
4290.49	-0.0929906
4302.31	-0.0965074
4314.13	-0.0997285
4325.95	-0.102656
4337.77	-0.105294
4349.59	-0.107645
4361.41	-0.109714
4373.22	-0.111507
4385.04	-0.113029
4396.86	-0.114287
4408.68	-0.115287
4420.5	-0.116038
4432.32	-0.116547
4444.14	-0.116823
4455.96	-0.116874
4467.78	-0.11671
4479.6	-0.116339
4491.42	-0.115773
4503.24	-0.11502
4515.06	-0.11409
4526.88	-0.112995
4538.7	-0.111743
4550.52	-0.110346
4562.34	-0.108814
4574.16	-0.107157
4585.98	-0.105386
4597.8	-0.10351
4609.62	-0.10154
4621.44	-0.0994855
4633.26	-0.0973568
4645.07	-0.0951632
4656.89	-0.0929142
4668.71	-0.0906189
4680.53	-0.0882862
4692.35	-0.0859247
4704.17	-0.0835428
4715.99	-0.0811484
4727.81	-0.0787493
4739.63	-0.0763528
4751.45	-0.0739659
4763.27	-0.0715954
4775.09	-0.0692476
4786.91	-0.0669283
4798.73	-0.0646432
4810.55	-0.0623976
4822.37	-0.0601963
4834.19	-0.0580438
4846.01	-0.0559442
4857.83	-0.0539013
4869.65	-0.0519186
4881.47	-0.0499992
4893.29	-0.0481457
4905.11	-0.0463606
4916.93	-0.0446459
4928.75	-0.0430035
4940.56	-0.0414347
4952.38	-0.0399407
4964.2	-0.0385224
4976.02	-0.0371803
4987.84	-0.0359148
4999.66	-0.034726
5011.48	-0.0336136
5023.3	-0.0325772
5035.12	-0.0316163
5046.94	-0.03073
5058.76	-0.0299172
5070.58	-0.0291768
5082.4	-0.0285074
5094.22	-0.0279075
5106.04	-0.0273754
5117.86	-0.0269092
5129.68	-0.0265072
5141.5	-0.0261671
5153.32	-0.025887
5165.14	-0.0256645
5176.96	-0.0254975
5188.78	-0.0253834
5200.6	-0.02532
5212.42	-0.0253048
5224.23	-0.0253352
5236.05	-0.0254088
5247.87	-0.025523
5259.69	-0.0256753
5271.51	-0.025863
5283.33	-0.0260837
5295.15	-0.0263349
5306.97	-0.0266139
5318.79	-0.0269183
5330.61	-0.0272457
5342.43	-0.0275936
5354.25	-0.0279597
5366.07	-0.0283415
5377.89	-0.0287369
5389.71	-0.0291435
5401.53	-0.0295592
5413.35	-0.0299819
5425.17	-0.0304094
5436.99	-0.03084
5448.81	-0.0312715
5460.63	-0.0317022
5472.45	-0.0321303
5484.27	-0.0325541
5496.09	-0.032972
5507.91	-0.0333824
5519.72	-0.0337839
5531.54	-0.034175
5543.36	-0.0345545
5555.18	-0.0349211
5567	-0.0352736
5578.82	-0.0356111
5590.64	-0.0359324
5602.46	-0.0362366
5614.28	-0.0365229
5626.1	-0.0367906
5637.92	-0.0370388
5649.74	-0.037267
5661.56	-0.0374747
5673.38	-0.0376612
5685.2	-0.0378262
5697.02	-0.0379694
5708.84	-0.0380904
5720.66	-0.0381889
5732.48	-0.0382649
5744.3	-0.0383182
5756.12	-0.0383487
5767.94	-0.0383564
5779.76	-0.0383414
5791.58	-0.0383037
5803.4	-0.0382435
5815.21	-0.038161
5827.03	-0.0380564
5838.85	-0.0379299
5850.67	-0.0377818
5862.49	-0.0376126
5874.31	-0.0374224
5886.13	-0.0372119
5897.95	-0.0369813
5909.77	-0.0367311
5921.59	-0.0364618
5933.41	-0.0361739
5945.23	-0.0358679
5957.05	-0.0355444
5968.87	-0.0352038
5980.69	-0.0348469
5992.51	-0.034474
6004.33	-0.0340858
6016.15	-0.033683
6027.97	-0.033266
6039.79	-0.0328355
6051.61	-0.0323922
6063.43	-0.0319365
6075.25	-0.0314691
6087.07	-0.0309906
6098.89	-0.0305016
6110.71	-0.0300027
6122.52	-0.0294945
6134.34	-0.0289775
6146.16	-0.0284524
6157.98	-0.0279196
6169.8	-0.0273798
6181.62	-0.0268334
6193.44	-0.026281
6205.26	-0.0257232
6217.08	-0.0251603
6228.9	-0.024593
6240.72	-0.0240217
6252.54	-0.0234468
6264.36	-0.0228688
6276.18	-0.0222881
6288	-0.0217052
6299.82	-0.0211205
6311.64	-0.0205343
6323.46	-0.019947
6335.28	-0.019359
6347.1	-0.0187706
6358.92	-0.0181822
6370.74	-0.017594
6382.56	-0.0170065
6394.38	-0.0164198
6406.2	-0.0158342
6418.02	-0.01525
6429.83	-0.0146676
6441.65	-0.014087
6453.47	-0.0135085
6465.29	-0.0129324
6477.11	-0.0123589
6488.93	-0.0117881
6500.75	-0.0112203
6512.57	-0.0106556
6524.39	-0.0100942
6536.21	-0.00953627
6548.03	-0.00898199
6559.85	-0.00843149
6571.67	-0.00788494
6583.49	-0.00734247
6595.31	-0.00680422
6607.13	-0.00627032
6618.95	-0.00574092
6630.77	-0.00521614
6642.59	-0.00469612
6654.41	-0.00418096
6666.23	-0.00367081
6678.05	-0.00316579
6689.87	-0.00266602
6701.69	-0.00217162
6713.51	-0.00168272
6725.33	-0.00119945
6737.15	-0.000721927
6748.97	-0.000250282
6760.78	0.000215356
6772.6	0.000674858
6784.42	0.00112809
6796.24	0.00157492
6808.06	0.00201521
6819.88	0.00244882
6831.7	0.00287562
6843.52	0.00329546
6855.34	0.00370819
6867.16	0.00411367
6878.98	0.00451176
6890.8	0.00490229
6902.62	0.00528513
6914.44	0.0056601
6926.26	0.00602707
6938.08	0.00638588
6949.9	0.00673636
6961.72	0.00707836
6973.54	0.00741172
6985.36	0.00773629
6997.18	0.00805189
7009	0.00835839
7020.82	0.00865561
7032.64	0.00894341
7044.46	0.00922162
7056.28	0.0094901
7068.1	0.00974869
7079.92	0.00999724
7091.73	0.0102356
7103.55	0.0104637
7115.37	0.0106812
7127.19	0.0108882
7139.01	0.0110845
7150.83	0.0112698
7162.65	0.0114442
7174.47	0.0116075
7186.29	0.0117596
7198.11	0.0119003
7209.93	0.0120296
7221.75	0.0121474
7233.57	0.0122535
7245.39	0.012348
7257.21	0.0124306
7269.03	0.0125015
7280.85	0.0125604
7292.67	0.0126073
7304.49	0.0126422
7316.31	0.012665
7328.13	0.0126758
7339.95	0.0126744
7351.77	0.0126609
7363.59	0.0126352
7375.41	0.0125973
7387.23	0.0125472
7399.04	0.0124851
7410.86	0.0124107
7422.68	0.0123243
7434.5	0.0122258
7446.32	0.0121152
7458.14	0.0119927
7469.96	0.0118582
7481.78	0.0117118
7493.6	0.0115537
7505.42	0.0113838
7517.24	0.0112022
7529.06	0.0110091
7540.88	0.0108046
7552.7	0.0105887
7564.52	0.0103615
7576.34	0.0101233
7588.16	0.00987398
7599.98	0.00961381
7611.8	0.0093429
7623.62	0.00906138
7635.44	0.00876939
7647.26	0.0084671
7659.08	0.00815464
7670.9	0.00783219
7682.71	0.0074999
7694.53	0.00715794
7706.35	0.00680649
7718.17	0.00644573
7729.99	0.00607583
7741.81	0.00569699
7753.63	0.00530939
7765.45	0.00491323
7777.27	0.0045087
7789.09	0.004096
7800.91	0.00367535
7812.73	0.00324694
7824.55	0.00281099
7836.37	0.0023677
7848.19	0.00191731
7860.01	0.00146002
7871.83	0.00099606
7883.65	0.000525654
7895.47	4.90278e-05
7907.29	-0.000433587
7919.11	-0.000921959
7930.93	-0.00141585
7942.75	-0.00191503
7954.56	-0.00241926
7966.38	-0.00292829
7978.2	-0.00344187
7990.02	-0.00395978
8001.84	-0.00448175
8013.66	-0.00500754
8025.48	-0.0055369
8037.3	-0.00606958
8049.12	-0.00660531
8060.94	-0.00714385
8072.76	-0.00768493
8084.58	-0.0082283
8096.4	-0.00877369
8108.22	-0.00932085
8120.04	-0.00986951
8131.86	-0.0104194
8143.68	-0.0109703
8155.5	-0.0115218
8167.32	-0.0120738
8179.14	-0.012626
8190.96	-0.0131781
8202.78	-0.0137298
8214.6	-0.0142809
8226.41	-0.014831
8238.23	-0.01538
8250.05	-0.0159275
8261.87	-0.0164733
8273.69	-0.0170171
8285.51	-0.0175587
8297.33	-0.0180977
8309.15	-0.0186339
8320.97	-0.0191671
8332.79	-0.0196969
8344.61	-0.0202231
8356.43	-0.0207455
8368.25	-0.0212637
8380.07	-0.0217775
8391.89	-0.0222867
8403.71	-0.022791
8415.53	-0.0232901
8427.35	-0.0237838
8439.17	-0.0242718
8450.99	-0.0247539
8462.81	-0.0252299
8474.63	-0.0256994
8486.45	-0.0261623
8498.26	-0.0266183
8510.08	-0.0270672
8521.9	-0.0275087
8533.72	-0.0279427
8545.54	-0.0283689
8557.36	-0.0287871
8569.18	-0.0291971
8581	-0.0295986
8592.82	-0.0299915
8604.64	-0.0303756
8616.46	-0.0307507
8628.28	-0.0311166
8640.1	-0.031473
8651.92	-0.0318199
8663.74	-0.0321571
8675.56	-0.0324844
8687.38	-0.0328016
8699.2	-0.0331086
8711.02	-0.0334052
8722.84	-0.0336913
8734.66	-0.0339668
8746.48	-0.0342315
8758.3	-0.0344853
8770.11	-0.0347281
8781.93	-0.0349597
8793.75	-0.0351802
8805.57	-0.0353893
8817.39	-0.035587
8829.21	-0.0357733
8841.03	-0.0359479
8852.85	-0.036111
8864.67	-0.0362623
8876.49	-0.0364019
8888.31	-0.0365297
8900.13	-0.0366456
8911.95	-0.0367496
8923.77	-0.0368418
8935.59	-0.036922
8947.41	-0.0369903
8959.23	-0.0370467
8971.05	-0.037091
8982.87	-0.0371235
8994.69	-0.037144
9006.51	-0.0371527
9018.33	-0.0371494
9030.15	-0.0371343
9041.97	-0.0371075
9053.78	-0.0370688
9065.6	-0.0370185
9077.42	-0.0369565
9089.24	-0.0368829
9101.06	-0.0367979
9112.88	-0.0367014
9124.7	-0.0365936
9136.52	-0.0364745
9148.34	-0.0363443
9160.16	-0.0362031
9171.98	-0.0360509
9183.8	-0.0358879
9195.62	-0.0357142
9207.44	-0.0355299
9219.26	-0.0353352
9231.08	-0.0351301
9242.9	-0.034915
9254.72	-0.0346898
9266.54	-0.0344547
9278.36	-0.03421
9290.18	-0.0339557
9302	-0.033692
9313.82	-0.0334191
9325.64	-0.0331373
9337.46	-0.0328465
9349.27	-0.0325472
9361.09	-0.0322393
9372.91	-0.0319232
9384.73	-0.0315991
9396.55	-0.031267
9408.37	-0.0309273
9420.19	-0.0305802
9432.01	-0.0302258
9443.83	-0.0298644
9455.65	-0.0294962
9467.47	-0.0291214
9479.29	-0.0287402
9491.11	-0.028353
9502.93	-0.0279598
9514.75	-0.027561
9526.57	-0.0271568
9538.39	-0.0267474
9550.21	-0.0263331
9562.03	-0.0259141
9573.85	-0.0254907
9585.67	-0.0250631
9597.49	-0.0246315
9609.31	-0.0241962
9621.13	-0.0237575
9632.95	-0.0233156
9644.76	-0.0228708
9656.58	-0.0224234
9668.4	-0.0219735
9680.22	-0.0215214
9692.04	-0.0210675
9703.86	-0.0206119
9715.68	-0.020155
9727.5	-0.0196969
9739.32	-0.019238
9751.14	-0.0187785
9762.96	-0.0183186
9774.78	-0.0178587
9786.6	-0.0173989
9798.42	-0.0169396
9810.24	-0.016481
9822.06	-0.0160233
9833.88	-0.0155668
9845.7	-0.0151117
9857.52	-0.0146583
9869.34	-0.0142069
9881.16	-0.0137577
9892.98	-0.0133108
9904.8	-0.0128667
9916.62	-0.0124255
9928.44	-0.0119874
9940.26	-0.0115527
9952.07	-0.0111216
9963.89	-0.0106943
9975.71	-0.010271
9987.53	-0.00985206
9999.35	-0.00943758
10011.2	-0.0090278
10023	-0.00862292
10034.8	-0.00822314
10046.6	-0.00782867
10058.5	-0.0074397
10070.3	-0.00705641
10082.1	-0.006679
10093.9	-0.00630764
10105.7	-0.00594251
10117.5	-0.00558377
10129.4	-0.0052316
10141.2	-0.00488614
10153	-0.00454756
10164.8	-0.00421601
10176.6	-0.00389161
10188.5	-0.00357452
10200.3	-0.00326486
10212.1	-0.00296275
10223.9	-0.00266832
10235.7	-0.00238167
10247.6	-0.00210291
10259.4	-0.00183215
10271.2	-0.00156946
10283	-0.00131495
10294.8	-0.00106869
10306.7	-0.000830756
10318.5	-0.00060121
10330.3	-0.000380115
10342.1	-0.000167524
10353.9	3.65167e-05
10365.8	0.000231967
10377.6	0.000418794
10389.4	0.000596972
10401.2	0.000766482
10413	0.00092731
10424.9	0.00107945
10436.7	0.00122291
10448.5	0.00135769
10460.3	0.00148381
10472.1	0.00160129
10484	0.00171016
10495.8	0.00181045
10507.6	0.00190221
10519.4	0.00198548
10531.2	0.00206033
10543.1	0.0021268
10554.9	0.00218498
10566.7	0.00223494
10578.5	0.00227675
10590.3	0.0023105
10602.2	0.0023363
10614	0.00235423
10625.8	0.00236441
10637.6	0.00236695
10649.4	0.00236196
10661.3	0.00234957
10673.1	0.0023299
10684.9	0.0023031
10696.7	0.00226931
10708.5	0.00222866
10720.4	0.00218131
10732.2	0.00212741
10744	0.00206713
10755.8	0.00200063
10767.6	0.00192808
10779.4	0.00184966
10791.3	0.00176554
10803.1	0.00167591
10814.9	0.00158096
10826.7	0.00148086
10838.5	0.00137583
10850.4	0.00126606
10862.2	0.00115174
10874	0.00103309
10885.8	0.00091031
10897.6	0.00078361
10909.5	0.000653204
10921.3	0.000519308
10933.1	0.000382138
10944.9	0.000241915
10956.7	9.88591e-05
10968.6	-4.68059e-05
10980.4	-0.000194856
10992.2	-0.000345065
11004	-0.000497207
11015.8	-0.000651053
11027.7	-0.000806377
11039.5	-0.000962949
11051.3	-0.00112054
11063.1	-0.00127892
11074.9	-0.00143787
11086.8	-0.00159715
11098.6	-0.00175654
11110.4	-0.00191581
11122.2	-0.00207473
11134	-0.00223309
11145.9	-0.00239065
11157.7	-0.0025472
11169.5	-0.00270252
11181.3	-0.00285639
11193.1	-0.0030086
11205	-0.00315894
11216.8	-0.00330719
11228.6	-0.00345314
11240.4	-0.00359661
11252.2	-0.00373738
11264.1	-0.00387526
11275.9	-0.00401006
11287.7	-0.00414159
11299.5	-0.00426966
11311.3	-0.00439409
11323.2	-0.00451471
11335	-0.00463135
11346.8	-0.00474384
11358.6	-0.00485201
11370.4	-0.00495571
11382.2	-0.00505479
11394.1	-0.0051491
11405.9	-0.0052385
11417.7	-0.00532286
11429.5	-0.00540205
11441.3	-0.00547593
11453.2	-0.00554441
11465	-0.00560735
11476.8	-0.00566467
11488.6	-0.00571625
11500.4	-0.005762
11512.3	-0.00580185
11524.1	-0.00583571
11535.9	-0.0058635
11547.7	-0.00588515
11559.5	-0.00590062
11571.4	-0.00590984
11583.2	-0.00591276
11595	-0.00590935
11606.8	-0.00589958
11618.6	-0.0058834
11630.5	-0.00586082
11642.3	-0.0058318
11654.1	-0.00579635
11665.9	-0.00575446
11677.7	-0.00570615
11689.6	-0.00565141
11701.4	-0.00559028
11713.2	-0.00552278
11725	-0.00544894
11736.8	-0.00536879
11748.7	-0.00528239
11760.5	-0.00518979
11772.3	-0.00509104
11784.1	-0.0049862
11795.9	-0.00487535
11807.8	-0.00475856
11819.6	-0.00463591
11831.4	-0.00450748
11843.2	-0.00437337
11855	-0.00423368
11866.9	-0.0040885
11878.7	-0.00393794
11890.5	-0.00378212
11902.3	-0.00362115
11914.1	-0.00345516
11926	-0.00328426
11937.8	-0.00310859
11949.6	-0.00292829
11961.4	-0.00274349
11973.2	-0.00255433
11985.1	-0.00236096
11996.9	-0.00216353
12008.7	-0.00196219
12020.5	-0.00175709
12032.3	-0.00154841
12044.1	-0.00133629
12056	-0.0011209
12067.8	-0.000902406
12079.6	-0.000680983
12091.4	-0.000456799
12103.2	-0.000230028
12115.1	-8.45564e-07
12126.9	0.000230572
12138.7	0.000464046
12150.5	0.000699396
12162.3	0.000936441
12174.2	0.001175
12186	0.00141488
12197.8	0.00165592
12209.6	0.00189791
12221.4	0.00214067
12233.3	0.00238403
12245.1	0.00262779
12256.9	0.00287176
12268.7	0.00311577
12280.5	0.00335962
12292.4	0.00360313
12304.2	0.00384612
12316	0.00408839
12327.8	0.00432977
12339.6	0.00457007
12351.5	0.00480911
12363.3	0.00504671
12375.1	0.00528269
12386.9	0.00551687
12398.7	0.00574906
12410.6	0.0059791
12422.4	0.0062068
12434.2	0.006432
12446	0.00665452
12457.8	0.0068742
12469.7	0.00709085
12481.5	0.00730432
12493.3	0.00751445
12505.1	0.00772106
12516.9	0.007924
12528.8	0.0081231
12540.6	0.00831822
12552.4	0.0085092
12564.2	0.00869588
12576	0.00887813
12587.9	0.00905578
12599.7	0.0092287
12611.5	0.00939674
12623.3	0.00955978
12635.1	0.00971766
12646.9	0.00987026
12658.8	0.0100174
12670.6	0.0101591
12682.4	0.0102951
12694.2	0.0104253
12706	0.0105496
12717.9	0.0106679
12729.7	0.01078
12741.5	0.010886
12753.3	0.0109856
12765.1	0.0110787
12777	0.0111653
12788.8	0.0112453
12800.6	0.0113186
12812.4	0.011385
12824.2	0.0114446
12836.1	0.0114973
12847.9	0.0115428
12859.7	0.0115813
12871.5	0.0116126
12883.3	0.0116367
12895.2	0.0116535
12907	0.011663
12918.8	0.0116651
12930.6	0.0116597
12942.4	0.0116469
12954.3	0.0116266
12966.1	0.0115988
12977.9	0.0115634
12989.7	0.0115204
13001.5	0.0114699
13013.4	0.0114118
13025.2	0.0113461
13037	0.0112728
13048.8	0.011192
13060.6	0.0111035
13072.5	0.0110076
13084.3	0.0109041
13096.1	0.0107931
13107.9	0.0106747
13119.7	0.0105488
13131.6	0.0104156
13143.4	0.0102751
13155.2	0.0101273
13167	0.00997231
13178.8	0.00981022
13190.7	0.00964108
13202.5	0.00946499
13214.3	0.00928202
13226.1	0.00909226
13237.9	0.00889583
13249.7	0.00869282
13261.6	0.00848335
13273.4	0.00826753
13285.2	0.00804548
13297	0.00781734
13308.8	0.00758323
13320.7	0.0073433
13332.5	0.00709768
13344.3	0.00684653
13356.1	0.00659001
13367.9	0.00632827
13379.8	0.00606148
13391.6	0.0057898
13403.4	0.00551343
13415.2	0.00523252
13427	0.00494728
13438.9	0.00465788
13450.7	0.00436452
13462.5	0.0040674
13474.3	0.00376672
13486.1	0.00346269
13498	0.0031555
13509.8	0.00284538
13521.6	0.00253254
13533.4	0.00221719
13545.2	0.00189956
13557.1	0.00157988
13568.9	0.00125836
13580.7	0.000935229
13592.5	0.000610727
13604.3	0.000285079
13616.2	-4.14801e-05
13628	-0.000368718
13639.8	-0.0006964
13651.6	-0.00102429
13663.4	-0.00135215
13675.3	-0.00167976
13687.1	-0.00200686
13698.9	-0.00233323
13710.7	-0.00265863
13722.5	-0.00298284
13734.4	-0.00330561
13746.2	-0.00362672
13758	-0.00394593
13769.8	-0.00426303
13781.6	-0.00457779
13793.5	-0.00488999
13805.3	-0.0051994
13817.1	-0.00550582
13828.9	-0.00580903
13840.7	-0.00610882
13852.6	-0.00640499
13864.4	-0.00669735
13876.2	-0.00698569
13888	-0.00726982
13899.8	-0.00754956
13911.6	-0.00782473
13923.5	-0.00809516
13935.3	-0.00836067
13947.1	-0.00862111
13958.9	-0.00887631
13970.7	-0.00912613
13982.6	-0.00937042
13994.4	-0.00960904
14006.2	-0.00984187
14018	-0.0100688
14029.8	-0.0102896
14041.7	-0.0105044
14053.5	-0.0107129
14065.3	-0.010915
14077.1	-0.0111107
14088.9	-0.0112999
14100.8	-0.0114826
14112.6	-0.0116586
14124.4	-0.0118279
14136.2	-0.0119905
14148	-0.0121463
14159.9	-0.0122954
14171.7	-0.0124376
14183.5	-0.012573
14195.3	-0.0127015
14207.1	-0.0128232
14219	-0.0129381
14230.8	-0.0130462
14242.6	-0.0131476
14254.4	-0.0132422
14266.2	-0.0133301
14278.1	-0.0134114
14289.9	-0.0134862
14301.7	-0.0135544
14313.5	-0.0136163
14325.3	-0.0136718
14337.2	-0.013721
14349	-0.0137642
14360.8	-0.0138013
14372.6	-0.0138325
14384.4	-0.0138579
14396.3	-0.0138776
14408.1	-0.0138918
14419.9	-0.0139006
14431.7	-0.0139042
14443.5	-0.0139028
14455.4	-0.0138963
14467.2	-0.0138852
14479	-0.0138694
14490.8	-0.0138492
14502.6	-0.0138248
14514.4	-0.0137964
14526.3	-0.0137641
14538.1	-0.0137281
14549.9	-0.0136886
14561.7	-0.0136459
14573.5	-0.0136001
14585.4	-0.0135514
14597.2	-0.0135001
14609	-0.0134464
14620.8	-0.0133903
14632.6	-0.0133323
14644.5	-0.0132725
14656.3	-0.013211
14668.1	-0.0131482
14679.9	-0.0130842
14691.7	-0.0130193
14703.6	-0.0129536
14715.4	-0.0128874
14727.2	-0.0128209
14739	-0.0127543
14750.8	-0.0126878
14762.7	-0.0126216
14774.5	-0.012556
14786.3	-0.0124911
14798.1	-0.0124271
14809.9	-0.0123642
14821.8	-0.0123027
14833.6	-0.0122426
14845.4	-0.0121843
14857.2	-0.0121278
14869	-0.0120733
14880.9	-0.0120211
14892.7	-0.0119712
14904.5	-0.0119239
14916.3	-0.0118793
14928.1	-0.0118375
14940	-0.0117987
14951.8	-0.011763
14963.6	-0.0117305
14975.4	-0.0117014
14987.2	-0.0116758
14999.1	-0.0116537
15010.9	-0.0116353
15022.7	-0.0116207
15034.5	-0.01161
15046.3	-0.0116031
15058.2	-0.0116003
15070	-0.0116015
15081.8	-0.0116068
15093.6	-0.0116162
15105.4	-0.0116298
15117.3	-0.0116476
15129.1	-0.0116696
15140.9	-0.0116958
15152.7	-0.0117262
15164.5	-0.0117608
15176.3	-0.0117996
15188.2	-0.0118425
15200	-0.0118895
15211.8	-0.0119406
15223.6	-0.0119956
15235.4	-0.0120546
15247.3	-0.0121175
15259.1	-0.0121841
15270.9	-0.0122544
15282.7	-0.0123283
15294.5	-0.0124057
15306.4	-0.0124864
15318.2	-0.0125703
15330	-0.0126574
15341.8	-0.0127474
15353.6	-0.0128401
15365.5	-0.0129356
15377.3	-0.0130335
15389.1	-0.0131337
15400.9	-0.013236
15412.7	-0.0133403
15424.6	-0.0134464
15436.4	-0.013554
15448.2	-0.013663
15460	-0.0137731
15471.8	-0.0138842
15483.7	-0.0139959
15495.5	-0.0141082
15507.3	-0.0142208
15519.1	-0.0143333
15530.9	-0.0144457
15542.8	-0.0145577
15554.6	-0.0146689
15566.4	-0.0147793
15578.2	-0.0148885
15590	-0.0149962
15601.9	-0.0151023
15613.7	-0.0152065
15625.5	-0.0153086
15637.3	-0.0154082
15649.1	-0.0155051
15661	-0.0155991
15672.8	-0.01569
15684.6	-0.0157774
15696.4	-0.0158611
15708.2	-0.015941
15720.1	-0.0160167
15731.9	-0.0160879
15743.7	-0.0161546
15755.5	-0.0162163
15767.3	-0.016273
15779.1	-0.0163243
15791	-0.01637
15802.8	-0.01641
15814.6	-0.016444
15826.4	-0.0164718
15838.2	-0.0164932
15850.1	-0.0165079
15861.9	-0.0165159
15873.7	-0.0165169
15885.5	-0.0165108
15897.3	-0.0164973
15909.2	-0.0164764
15921	-0.0164478
15932.8	-0.0164115
15944.6	-0.0163672
15956.4	-0.0163149
15968.3	-0.0162544
15980.1	-0.0161856
15991.9	-0.0161084
16003.7	-0.0160228
16015.5	-0.0159286
16027.4	-0.0158257
16039.2	-0.0157142
16051	-0.0155939
16062.8	-0.0154648
16074.6	-0.0153269
16086.5	-0.0151801
16098.3	-0.0150244
16110.1	-0.0148598
16121.9	-0.0146864
16133.7	-0.0145041
16145.6	-0.014313
16157.4	-0.0141131
16169.2	-0.0139044
16181	-0.013687
16192.8	-0.013461
16204.7	-0.0132265
16216.5	-0.0129835
16228.3	-0.0127321
16240.1	-0.0124724
16251.9	-0.0122046
16263.8	-0.0119288
16275.6	-0.0116451
16287.4	-0.0113537
16299.2	-0.0110547
16311	-0.0107482
16322.9	-0.0104345
16334.7	-0.0101137
16346.5	-0.00978601
16358.3	-0.00945162
16370.1	-0.00911073
16381.9	-0.00876356
16393.8	-0.00841031
16405.6	-0.00805122
16417.4	-0.0076865
16429.2	-0.0073164
16441	-0.00694116
16452.9	-0.00656102
16464.7	-0.00617625
16476.5	-0.00578709
16488.3	-0.00539381
16500.1	-0.00499667
16512	-0.00459595
16523.8	-0.00419192
16535.6	-0.00378486
16547.4	-0.00337505
16559.2	-0.00296278
16571.1	-0.00254832
16582.9	-0.00213196
16594.7	-0.00171401
16606.5	-0.00129474
16618.3	-0.000874444
16630.2	-0.000453422
16642	-3.19616e-05
16653.8	0.000389644
16665.6	0.000811103
16677.4	0.00123212
16689.3	0.00165242
16701.1	0.0020717
16712.9	0.00248967
16724.7	0.00290606
16736.5	0.00332057
16748.4	0.00373294
16760.2	0.00414288
16772	0.00455012
16783.8	0.00495438
16795.6	0.00535542
16807.5	0.00575295
16819.3	0.00614672
16831.1	0.00653648
16842.9	0.00692199
16854.7	0.00730299
16866.6	0.00767925
16878.4	0.00805053
16890.2	0.00841661
16902	0.00877727
16913.8	0.00913229
16925.7	0.00948147
16937.5	0.00982459
16949.3	0.0101615
16961.1	0.0104919
16972.9	0.0108157
16984.8	0.0111327
16996.6	0.0114428
17008.4	0.0117457
17020.2	0.0120414
17032	0.0123296
17043.8	0.0126102
17055.7	0.0128832
17067.5	0.0131483
17079.3	0.0134054
17091.1	0.0136545
17102.9	0.0138955
17114.8	0.0141282
17126.6	0.0143525
17138.4	0.0145684
17150.2	0.0147758
17162	0.0149747
17173.9	0.0151649
17185.7	0.0153464
17197.5	0.0155192
17209.3	0.0156833
17221.1	0.0158385
17233	0.015985
17244.8	0.0161226
17256.6	0.0162514
17268.4	0.0163713
17280.2	0.0164824
17292.1	0.0165847
17303.9	0.0166781
17315.7	0.0167628
17327.5	0.0168387
17339.3	0.0169059
17351.2	0.0169644
17363	0.0170142
17374.8	0.0170555
17386.6	0.0170883
17398.4	0.0171125
17410.3	0.0171284
17422.1	0.0171359
17433.9	0.0171352
17445.7	0.0171263
17457.5	0.0171093
17469.4	0.0170844
17481.2	0.0170515
17493	0.0170108
17504.8	0.0169624
17516.6	0.0169064
17528.5	0.0168429
17540.3	0.0167721
17552.1	0.0166939
17563.9	0.0166086
17575.7	0.0165163
17587.6	0.0164171
17599.4	0.0163111
17611.2	0.0161984
17623	0.0160792
17634.8	0.0159536
17646.6	0.0158218
17658.5	0.0156838
17670.3	0.0155398
17682.1	0.0153899
17693.9	0.0152343
17705.7	0.0150732
17717.6	0.0149065
17729.4	0.0147346
17741.2	0.0145575
17753	0.0143754
17764.8	0.0141884
17776.7	0.0139966
17788.5	0.0138003
17800.3	0.0135994
17812.1	0.0133943
17823.9	0.013185
17835.8	0.0129716
17847.6	0.0127543
17859.4	0.0125333
17871.2	0.0123086
17883	0.0120805
17894.9	0.011849
17906.7	0.0116143
17918.5	0.0113766
17930.3	0.0111358
17942.1	0.0108923
17954	0.0106461
17965.8	0.0103974
17977.6	0.0101463
17989.4	0.00989284
18001.2	0.00963726
18013.1	0.00937966
18024.9	0.00912015
18036.7	0.00885887
18048.5	0.00859593
18060.3	0.00833146
18072.2	0.00806557
18084	0.00779839
18095.8	0.00753003
18107.6	0.00726061
18119.4	0.00699024
18131.3	0.00671903
18143.1	0.00644709
18154.9	0.00617454
18166.7	0.00590149
18178.5	0.00562803
18190.4	0.00535428
18202.2	0.00508033
18214	0.0048063
18225.8	0.00453228
18237.6	0.00425837
18249.5	0.00398467
18261.3	0.00371127
18273.1	0.00343828
18284.9	0.00316578
18296.7	0.00289386
18308.5	0.00262263
18320.4	0.00235216
18332.2	0.00208254
18344	0.00181387
18355.8	0.00154623
18367.6	0.00127971
18379.5	0.00101438
18391.3	0.000750322
18403.1	0.000487629
18414.9	0.000226373
18426.7	-3.3366e-05
18438.6	-0.000291511
18450.4	-0.000547987
18462.2	-0.000802719
18474	-0.00105563
18485.8	-0.00130666
18497.7	-0.00155572
18509.5	-0.00180275
18521.3	-0.00204769
18533.1	-0.00229045
18544.9	-0.00253098
18556.8	-0.00276922
18568.6	-0.00300508
18580.4	-0.00323852
18592.2	-0.00346948
18604	-0.00369788
18615.9	-0.00392367
18627.7	-0.00414679
18639.5	-0.00436719
18651.3	-0.0045848
18663.1	-0.00479957
18675	-0.00501146
18686.8	-0.0052204
18698.6	-0.00542634
18710.4	-0.00562923
18722.2	-0.00582903
18734.1	-0.00602568
18745.9	-0.00621914
18757.7	-0.00640936
18769.5	-0.00659629
18781.3	-0.00677991
18793.2	-0.00696015
18805	-0.00713699
18816.8	-0.00731038
18828.6	-0.00748028
18840.4	-0.00764666
18852.3	-0.00780948
18864.1	-0.00796871
18875.9	-0.00812432
18887.7	-0.00827627
18899.5	-0.00842454
18911.3	-0.00856909
18923.2	-0.0087099
18935	-0.00884695
18946.8	-0.00898021
18958.6	-0.00910966
18970.4	-0.00923528
18982.3	-0.00935705
18994.1	-0.00947495
19005.9	-0.00958896
19017.7	-0.00969908
19029.5	-0.00980529
19041.4	-0.00990758
19053.2	-0.0100059
19065	-0.0101004
19076.8	-0.0101908
19088.6	-0.0102774
19100.5	-0.0103599
19112.3	-0.0104386
19124.1	-0.0105132
19135.9	-0.010584
19147.7	-0.0106508
19159.6	-0.0107136
19171.4	-0.0107725
19183.2	-0.0108275
19195	-0.0108786
19206.8	-0.0109258
19218.7	-0.0109691
19230.5	-0.0110086
19242.3	-0.0110442
19254.1	-0.011076
19265.9	-0.011104
19277.8	-0.0111281
19289.6	-0.0111486
19301.4	-0.0111653
19313.2	-0.0111783
19325	-0.0111876
19336.9	-0.0111933
19348.7	-0.0111954
19360.5	-0.0111939
19372.3	-0.0111889
19384.1	-0.0111803
19396	-0.0111683
19407.8	-0.0111529
19419.6	-0.0111341
19431.4	-0.011112
19443.2	-0.0110865
19455.1	-0.0110579
19466.9	-0.011026
19478.7	-0.0109909
19490.5	-0.0109528
19502.3	-0.0109116
19514.2	-0.0108674
19526	-0.0108202
19537.8	-0.0107702
19549.6	-0.0107173
19561.4	-0.0106616
19573.2	-0.0106032
19585.1	-0.0105421
19596.9	-0.0104784
19608.7	-0.0104121
19620.5	-0.0103433
19632.3	-0.0102721
19644.2	-0.0101985
19656	-0.0101226
19667.8	-0.0100444
19679.6	-0.00996402
19691.4	-0.0098815
19703.3	-0.00979691
19715.1	-0.0097103
19726.9	-0.00962175
19738.7	-0.00953131
19750.5	-0.00943905
19762.4	-0.00934503
19774.2	-0.00924932
19786	-0.00915197
19797.8	-0.00905305
19809.6	-0.00895262
19821.5	-0.00885075
19833.3	-0.0087475
19845.1	-0.00864293
19856.9	-0.0085371
19868.7	-0.00843008
19880.6	-0.00832192
19892.4	-0.00821269
19904.2	-0.00810245
19916	-0.00799126
19927.8	-0.00787918
19939.7	-0.00776627
19951.5	-0.00765258
19963.3	-0.00753818
19975.1	-0.00742311
19986.9	-0.00730745
19998.8	-0.00719124
