0	0
10.3422	0
20.6843	0
31.0265	0
41.3687	0
51.7109	0
62.053	0
72.3952	0
82.7374	0
93.0796	0
103.422	0
113.764	0
124.106	0
134.448	0
144.79	0
155.133	0
165.475	0
175.817	0
186.159	0
196.501	0
206.843	0
217.186	0
227.528	0
237.87	0
248.212	0
258.554	0
268.897	0
279.239	0
289.581	0
299.923	0
310.265	0
320.607	0
330.95	0
341.292	0
351.634	0
361.976	0
372.318	0
382.66	0
393.003	0
403.345	0
413.687	0
424.029	0
434.371	0
444.714	0
455.056	0
465.398	0
475.74	0
486.082	0
496.424	0
506.767	0
517.109	0
527.451	0
537.793	0
548.135	0
558.477	0
568.82	0
579.162	0
589.504	0
599.846	0
610.188	0
620.53	0
630.873	0
641.215	0
651.557	0
661.899	0
672.241	0
682.584	0
692.926	0
703.268	0
713.61	0
723.952	0
734.294	0
744.637	0
754.979	0
765.321	0
775.663	0
786.005	0
796.347	0
806.69	0
817.032	0
827.374	0
837.716	0
848.058	0
858.401	0
868.743	0
879.085	0
889.427	0
899.769	0
910.111	0
920.454	0
930.796	0
941.138	0
951.48	0
961.822	0
972.164	0
982.507	0
992.849	0
1003.19	0
1013.53	0
1023.88	0
1034.22	0
1044.56	0
1054.9	0
1065.24	0
1075.59	0
1085.93	0
1096.27	0
1106.61	0
1116.95	0
1127.3	0
1137.64	0
1147.98	0
1158.32	0
1168.67	0
1179.01	0
1189.35	0
1199.69	0
1210.03	0
1220.38	0
1230.72	0
1241.06	0
1251.4	0
1261.75	0
1272.09	0
1282.43	0
1292.77	0
1303.11	0
1313.46	0
1323.8	0
1334.14	0
1344.48	0
1354.82	0
1365.17	0
1375.51	0
1385.85	0
1396.19	0
1406.54	0
1416.88	0
1427.22	0
1437.56	0
1447.9	0
1458.25	0
1468.59	0
1478.93	0
1489.27	0
1499.62	0
1509.96	0
1520.3	0
1530.64	0
1540.98	0
1551.33	0
1561.67	0
1572.01	0
1582.35	0
1592.69	0
1603.04	0
1613.38	0
1623.72	0
1634.06	0
1644.41	0
1654.75	0
1665.09	0
1675.43	0
1685.77	0
1696.12	0
1706.46	0
1716.8	0
1727.14	0
1737.49	0
1747.83	0
1758.17	0
1768.51	0
1778.85	0
1789.2	0
1799.54	0
1809.88	0
1820.22	0
1830.56	0
1840.91	0
1851.25	0
1861.59	0
1871.93	0
1882.28	0
1892.62	0
1902.96	0
1913.3	0
1923.64	0
1933.99	0
1944.33	0
1954.67	0
1965.01	0
1975.36	0
1985.7	0
1996.04	0
2006.38	0
2016.72	0
2027.07	0
2037.41	0
2047.75	0
2058.09	0
2068.43	0
2078.78	0
2089.12	0
2099.46	0
2109.8	0
2120.15	0
2130.49	0
2140.83	0
2151.17	-9.09495e-13
2161.51	-9.09495e-13
2171.86	-1.81899e-12
2182.2	-2.72848e-12
2192.54	-3.63798e-12
2202.88	-4.54747e-12
2213.23	-6.36646e-12
2223.57	-8.18545e-12
2233.91	-1.09139e-11
2244.25	-1.36424e-11
2254.59	-1.72804e-11
2264.94	-2.27374e-11
2275.28	-2.91038e-11
2285.62	-3.72893e-11
2295.96	-4.82032e-11
2306.3	-6.18456e-11
2316.65	-8.00355e-11
2326.99	-1.01863e-10
2337.33	-1.30967e-10
2347.67	-1.67347e-10
2358.02	-2.12822e-10
2368.36	-2.7012e-10
2378.7	-3.4197e-10
2389.04	-4.3201e-10
2399.38	-5.43878e-10
2409.73	-6.83031e-10
2420.07	-8.55835e-10
2430.41	-1.07048e-09
2440.75	-1.33514e-09
2451.1	-1.66165e-09
2461.44	-2.06273e-09
2471.78	-2.55477e-09
2482.12	-3.15686e-09
2492.46	-3.89082e-09
2502.81	-4.78576e-09
2513.15	-5.87352e-09
2523.49	-7.19228e-09
2533.83	-8.78845e-09
2544.17	-1.07148e-08
2554.52	-1.30349e-08
2564.86	-1.58234e-08
2575.2	-1.91685e-08
2585.54	-2.31721e-08
2595.89	-2.79542e-08
2606.23	-3.36531e-08
2616.57	-4.04325e-08
2626.91	-4.84797e-08
2637.25	-5.8013e-08
2647.6	-6.92835e-08
2657.94	-8.2583e-08
2668.28	-9.82463e-08
2678.62	-1.16657e-07
2688.97	-1.38257e-07
2699.31	-1.63549e-07
2709.65	-1.93109e-07
2719.99	-2.27595e-07
2730.33	-2.67753e-07
2740.68	-3.14429e-07
2751.02	-3.68585e-07
2761.36	-4.31309e-07
2771.7	-5.03826e-07
2782.04	-5.87517e-07
2792.39	-6.8394e-07
2802.73	-7.94837e-07
2813.07	-9.22167e-07
2823.41	-1.06812e-06
2833.76	-1.23513e-06
2844.1	-1.42593e-06
2854.44	-1.64354e-06
2864.78	-1.89134e-06
2875.12	-2.17304e-06
2885.47	-2.49279e-06
2895.81	-2.85514e-06
2906.15	-3.26513e-06
2916.49	-3.72828e-06
2926.83	-4.2507e-06
2937.18	-4.83906e-06
2947.52	-5.50069e-06
2957.86	-6.24357e-06
2968.2	-7.07644e-06
2978.55	-8.00882e-06
2988.89	-9.05107e-06
2999.23	-1.02144e-05
3009.57	-1.15111e-05
3019.91	-1.29542e-05
3030.26	-1.45581e-05
3040.6	-1.63381e-05
3050.94	-1.83108e-05
3061.28	-2.0494e-05
3071.62	-2.29068e-05
3081.97	-2.55695e-05
3092.31	-2.85042e-05
3102.65	-3.1734e-05
3112.99	-3.5284e-05
3123.33	-3.91805e-05
3133.68	-4.34516e-05
3144.02	-4.8127e-05
3154.36	-5.32382e-05
3164.7	-5.88183e-05
3175.05	-6.49023e-05
3185.39	-7.15269e-05
3195.73	-7.87306e-05
3206.07	-8.65537e-05
3216.41	-9.50384e-05
3226.76	-0.000104228
3237.1	-0.000114169
3247.44	-0.000124908
3257.78	-0.000136494
3268.12	-0.000148977
3278.47	-0.00016241
3288.81	-0.000176844
3299.15	-0.000192335
3309.49	-0.000208937
3319.83	-0.000226706
3330.18	-0.000245699
3340.52	-0.000265972
3350.86	-0.000287583
3361.2	-0.000310587
3371.54	-0.00033504
3381.89	-0.000360998
3392.23	-0.000388513
3402.57	-0.000417637
3412.91	-0.000448418
3423.25	-0.000480903
3433.59	-0.000515133
3443.94	-0.000551148
3454.28	-0.00058898
3464.62	-0.000628657
3474.96	-0.0006702
3485.3	-0.000713623
3495.65	-0.000758933
3505.99	-0.000806126
3516.33	-0.000855189
3526.67	-0.000906099
3537.01	-0.000958819
3547.36	-0.0010133
3557.7	-0.00106948
3568.04	-0.00112728
3578.38	-0.0011866
3588.72	-0.00124732
3599.06	-0.00130933
3609.41	-0.00137245
3619.75	-0.00143652
3630.09	-0.00150133
3640.43	-0.00156666
3650.77	-0.00163225
3661.12	-0.00169783
3671.46	-0.00176308
3681.8	-0.00182767
3692.14	-0.00189121
3702.48	-0.00195331
3712.82	-0.00201352
3723.17	-0.00207135
3733.51	-0.00212628
3743.85	-0.00217776
3754.19	-0.00222519
3764.53	-0.00226791
3774.88	-0.00230525
3785.22	-0.00233647
3795.56	-0.00236079
3805.9	-0.00237738
3816.24	-0.00238537
3826.58	-0.00238384
3836.93	-0.00237182
3847.27	-0.00234828
3857.61	-0.00231215
3867.95	-0.00226232
3878.29	-0.00219761
3888.64	-0.0021168
3898.98	-0.00201863
3909.32	-0.00190178
3919.66	-0.00176487
3930	-0.00160651
3940.34	-0.00142523
3950.69	-0.00121954
3961.03	-0.0009879
3971.37	-0.000728724
3981.71	-0.0004404
3992.05	-0.000121277
4002.39	0.000230324
4012.74	0.000616113
4023.08	0.00103782
4033.42	0.0014972
4043.76	0.00199603
4054.1	0.00253607
4064.45	0.00311913
4074.79	0.00374699
4085.13	0.00442144
4095.47	0.00514427
4105.81	0.00591722
4116.15	0.00674206
4126.5	0.0076205
4136.84	0.00855424
4147.18	0.00954491
4157.52	0.0105941
4167.86	0.0117034
4178.21	0.0128743
4188.55	0.0141082
4198.89	0.0154065
4209.23	0.0167705
4219.57	0.0182012
4229.91	0.0196999
4240.26	0.0212675
4250.6	0.0229049
4260.94	0.0246128
4271.28	0.0263919
4281.62	0.0282428
4291.97	0.0301657
4302.31	0.032161
4312.65	0.0342287
4322.99	0.0363687
4333.33	0.0385808
4343.68	0.0408647
4354.02	0.0432196
4364.36	0.045645
4374.7	0.0481399
4385.04	0.0507032
4395.39	0.0533336
4405.73	0.0560296
4416.07	0.0587895
4426.41	0.0616116
4436.75	0.0644937
4447.1	0.0674335
4457.44	0.0704288
4467.78	0.0734767
4478.12	0.0765745
4488.47	0.0797192
4498.81	0.0829075
4509.15	0.0861361
4519.49	0.0894013
4529.83	0.0926995
4540.18	0.0960267
4550.52	0.0993789
4560.86	0.102752
4571.2	0.106141
4581.54	0.109542
4591.89	0.112949
4602.23	0.116359
4612.57	0.119767
4622.91	0.123166
4633.26	0.126553
4643.6	0.129922
4653.94	0.133267
4664.28	0.136583
4674.62	0.139866
4684.97	0.143108
4695.31	0.146305
4705.65	0.149452
4715.99	0.152542
4726.33	0.155571
4736.68	0.158532
4747.02	0.161421
4757.36	0.164232
4767.7	0.166959
4778.05	0.169598
4788.39	0.172143
4798.73	0.174589
4809.07	0.176931
4819.41	0.179165
4829.76	0.181286
4840.1	0.183288
4850.44	0.185169
4860.78	0.186923
4871.12	0.188547
4881.47	0.190037
4891.81	0.19139
4902.15	0.192601
4912.49	0.193669
4922.84	0.194589
4933.18	0.195361
4943.52	0.19598
4953.86	0.196445
4964.2	0.196755
4974.55	0.196907
4984.89	0.196901
4995.23	0.196735
5005.57	0.196409
5015.91	0.195922
5026.26	0.195275
5036.6	0.194466
5046.94	0.193498
5057.28	0.19237
5067.63	0.191083
5077.97	0.189639
5088.31	0.18804
5098.65	0.186287
5108.99	0.184383
5119.34	0.182329
5129.68	0.180129
5140.02	0.177786
5150.36	0.175302
5160.7	0.172681
5171.05	0.169927
5181.39	0.167044
5191.73	0.164036
5202.07	0.160906
5212.42	0.15766
5222.76	0.154303
5233.1	0.150838
5243.44	0.147272
5253.78	0.143608
5264.13	0.139854
5274.47	0.136013
5284.81	0.132091
5295.15	0.128095
5305.49	0.124029
5315.84	0.1199
5326.18	0.115713
5336.52	0.111475
5346.86	0.10719
5357.21	0.102865
5367.55	0.0985064
5377.89	0.0941193
5388.23	0.0897098
5398.57	0.0852837
5408.92	0.0808468
5419.26	0.0764048
5429.6	0.0719634
5439.94	0.0675282
5450.28	0.0631046
5460.63	0.0586979
5470.97	0.0543135
5481.31	0.0499564
5491.65	0.0456317
5502	0.0413442
5512.34	0.0370985
5522.68	0.0328993
5533.02	0.0287508
5543.36	0.0246573
5553.71	0.0206228
5564.05	0.0166511
5574.39	0.012746
5584.73	0.00891069
5595.07	0.0051486
5605.42	0.00146274
5615.76	-0.00214403
5626.1	-0.00566908
5636.44	-0.00910995
5646.79	-0.0124644
5657.13	-0.0157305
5667.47	-0.0189062
5677.81	-0.0219902
5688.15	-0.0249808
5698.5	-0.0278769
5708.84	-0.0306776
5719.18	-0.0333819
5729.52	-0.0359893
5739.86	-0.0384994
5750.21	-0.0409118
5760.55	-0.0432266
5770.89	-0.0454438
5781.23	-0.0475638
5791.58	-0.0495869
5801.92	-0.0515139
5812.26	-0.0533454
5822.6	-0.0550824
5832.94	-0.0567259
5843.29	-0.0582772
5853.63	-0.0597374
5863.97	-0.0611082
5874.31	-0.062391
5884.66	-0.0635874
5895	-0.0646993
5905.34	-0.0657284
5915.68	-0.0666767
5926.02	-0.0675462
5936.37	-0.068339
5946.71	-0.0690572
5957.05	-0.069703
5967.39	-0.0702786
5977.73	-0.0707863
5988.08	-0.0712285
5998.42	-0.0716074
6008.76	-0.0719254
6019.1	-0.0721849
6029.45	-0.0723882
6039.79	-0.0725378
6050.13	-0.0726361
6060.47	-0.0726853
6070.81	-0.0726878
6081.16	-0.072646
6091.5	-0.0725622
6101.84	-0.0724386
6112.18	-0.0722776
6122.52	-0.0720812
6132.87	-0.0718517
6143.21	-0.0715912
6153.55	-0.0713017
6163.89	-0.0709853
6174.24	-0.0706439
6184.58	-0.0702794
6194.92	-0.0698937
6205.26	-0.0694886
6215.6	-0.0690657
6225.95	-0.0686268
6236.29	-0.0681734
6246.63	-0.067707
6256.97	-0.0672292
6267.32	-0.0667412
6277.66	-0.0662445
6288	-0.0657402
6298.34	-0.0652296
6308.68	-0.0647138
6319.03	-0.0641937
6329.37	-0.0636705
6339.71	-0.063145
6350.05	-0.0626181
6360.39	-0.0620906
6370.74	-0.0615631
6381.08	-0.0610364
6391.42	-0.060511
6401.76	-0.0599876
6412.11	-0.0594666
6422.45	-0.0589484
6432.79	-0.0584334
6443.13	-0.057922
6453.47	-0.0574145
6463.82	-0.056911
6474.16	-0.0564119
6484.5	-0.0559172
6494.84	-0.0554271
6505.19	-0.0549416
6515.53	-0.0544608
6525.87	-0.0539847
6536.21	-0.0535133
6546.55	-0.0530465
6556.9	-0.0525843
6567.24	-0.0521265
6577.58	-0.0516731
6587.92	-0.0512239
6598.26	-0.0507787
6608.61	-0.0503374
6618.95	-0.0498998
6629.29	-0.0494656
6639.63	-0.0490347
6649.98	-0.0486069
6660.32	-0.0481819
6670.66	-0.0477595
6681	-0.0473394
6691.34	-0.0469215
6701.69	-0.0465055
6712.03	-0.0460912
6722.37	-0.0456782
6732.71	-0.0452665
6743.06	-0.0448558
6753.4	-0.0444459
6763.74	-0.0440366
6774.08	-0.0436276
6784.42	-0.0432188
6794.77	-0.04281
6805.11	-0.0424011
6815.45	-0.0419918
6825.79	-0.0415822
6836.14	-0.0411719
6846.48	-0.0407609
6856.82	-0.0403491
6867.16	-0.0399365
6877.5	-0.0395228
6887.85	-0.0391082
6898.19	-0.0386925
6908.53	-0.0382757
6918.87	-0.0378577
6929.21	-0.0374387
6939.56	-0.0370186
6949.9	-0.0365974
6960.24	-0.0361752
6970.58	-0.035752
6980.93	-0.0353279
6991.27	-0.034903
7001.61	-0.0344775
7011.95	-0.0340513
7022.29	-0.0336247
7032.64	-0.0331977
7042.98	-0.0327706
7053.32	-0.0323434
7063.66	-0.0319164
7074.01	-0.0314897
7084.35	-0.0310636
7094.69	-0.0306381
7105.03	-0.0302137
7115.37	-0.0297903
7125.72	-0.0293683
7136.06	-0.028948
7146.4	-0.0285294
7156.74	-0.0281129
7167.09	-0.0276988
7177.43	-0.0272872
7187.77	-0.0268784
7198.11	-0.0264727
7208.45	-0.0260703
7218.8	-0.0256714
7229.14	-0.0252764
7239.48	-0.0248854
7249.82	-0.0244988
7260.16	-0.0241168
7270.51	-0.0237396
7280.85	-0.0233674
7291.19	-0.0230006
7301.53	-0.0226393
7311.88	-0.0222837
7322.22	-0.0219342
7332.56	-0.0215909
7342.9	-0.021254
7353.24	-0.0209237
7363.59	-0.0206003
7373.93	-0.0202838
7384.27	-0.0199746
7394.61	-0.0196727
7404.95	-0.0193783
7415.3	-0.0190916
7425.64	-0.0188128
7435.98	-0.0185418
7446.32	-0.0182789
7456.67	-0.0180242
7467.01	-0.0177777
7477.35	-0.0175396
7487.69	-0.0173099
7498.03	-0.0170887
7508.38	-0.0168759
7518.72	-0.0166717
7529.06	-0.0164761
7539.4	-0.0162891
7549.74	-0.0161107
7560.09	-0.0159408
7570.43	-0.0157794
7580.77	-0.0156266
7591.11	-0.0154821
7601.46	-0.0153461
7611.8	-0.0152183
7622.14	-0.0150988
7632.48	-0.0149873
7642.82	-0.0148838
7653.17	-0.0147882
7663.51	-0.0147003
7673.85	-0.01462
7684.19	-0.0145471
7694.53	-0.0144814
7704.88	-0.0144228
7715.22	-0.0143711
7725.56	-0.014326
7735.9	-0.0142875
7746.25	-0.0142551
7756.59	-0.0142288
7766.93	-0.0142083
7777.27	-0.0141933
7787.61	-0.0141836
7797.96	-0.0141789
7808.3	-0.0141791
7818.64	-0.0141837
7828.98	-0.0141926
7839.32	-0.0142054
7849.67	-0.014222
7860.01	-0.0142419
7870.35	-0.0142649
7880.69	-0.0142907
7891.03	-0.0143191
7901.38	-0.0143496
7911.72	-0.0143821
7922.06	-0.0144162
7932.4	-0.0144516
7942.75	-0.0144881
7953.09	-0.0145252
7963.43	-0.0145628
7973.77	-0.0146005
7984.11	-0.0146381
7994.46	-0.0146752
8004.8	-0.0147115
8015.14	-0.0147468
8025.48	-0.0147807
8035.82	-0.0148131
8046.17	-0.0148435
8056.51	-0.0148718
8066.85	-0.0148977
8077.19	-0.0149209
8087.54	-0.0149412
8097.88	-0.0149583
8108.22	-0.014972
8118.56	-0.014982
8128.9	-0.0149881
8139.25	-0.0149901
8149.59	-0.0149879
8159.93	-0.0149811
8170.27	-0.0149695
8180.61	-0.0149531
8190.96	-0.0149316
8201.3	-0.0149049
8211.64	-0.0148727
8221.98	-0.014835
8232.32	-0.0147916
8242.67	-0.0147423
8253.01	-0.0146871
8263.35	-0.0146258
8273.69	-0.0145584
8284.04	-0.0144847
8294.38	-0.0144046
8304.72	-0.0143181
8315.06	-0.0142251
8325.4	-0.0141256
8335.75	-0.0140195
8346.09	-0.0139068
8356.43	-0.0137874
8366.77	-0.0136614
8377.11	-0.0135287
8387.46	-0.0133894
8397.8	-0.0132434
8408.14	-0.0130909
8418.48	-0.0129317
8428.82	-0.012766
8439.17	-0.0125938
8449.51	-0.0124152
8459.85	-0.0122303
8470.19	-0.012039
8480.54	-0.0118416
8490.88	-0.0116381
8501.22	-0.0114286
8511.56	-0.0112132
8521.9	-0.0109921
8532.25	-0.0107653
8542.59	-0.010533
8552.93	-0.0102953
8563.27	-0.0100524
8573.61	-0.00980444
8583.96	-0.00955157
8594.3	-0.00929395
8604.64	-0.00903175
8614.98	-0.00876514
8625.33	-0.00849431
8635.67	-0.00821943
8646.01	-0.00794069
8656.35	-0.0076583
8666.69	-0.00737244
8677.04	-0.0070833
8687.38	-0.00679111
8697.72	-0.00649605
8708.06	-0.00619835
8718.4	-0.0058982
8728.75	-0.00559582
8739.09	-0.00529143
8749.43	-0.00498524
8759.77	-0.00467747
8770.11	-0.00436834
8780.46	-0.00405807
8790.8	-0.00374687
8801.14	-0.00343496
8811.48	-0.00312257
8821.83	-0.00280991
8832.17	-0.0024972
8842.51	-0.00218466
8852.85	-0.0018725
8863.19	-0.00156095
8873.54	-0.0012502
8883.88	-0.000940484
8894.22	-0.000631999
8904.56	-0.000324955
8914.9	-1.95575e-05
8925.25	0.000283991
8935.59	0.000585491
8945.93	0.000884747
8956.27	0.00118156
8966.62	0.00147575
8976.96	0.00176713
8987.3	0.0020555
8997.64	0.0023407
9007.98	0.00262254
9018.33	0.00290086
9028.67	0.00317549
9039.01	0.00344627
9049.35	0.00371303
9059.69	0.00397562
9070.04	0.0042339
9080.38	0.00448772
9090.72	0.00473694
9101.06	0.00498142
9111.41	0.00522103
9121.75	0.00545565
9132.09	0.00568516
9142.43	0.00590943
9152.77	0.00612837
9163.12	0.00634186
9173.46	0.0065498
9183.8	0.0067521
9194.14	0.00694867
9204.48	0.00713942
9214.83	0.00732426
9225.17	0.00750313
9235.51	0.00767596
9245.85	0.00784267
9256.2	0.00800321
9266.54	0.00815752
9276.88	0.00830555
9287.22	0.00844725
9297.56	0.00858258
9307.91	0.0087115
9318.25	0.00883399
9328.59	0.00895
9338.93	0.00905953
9349.27	0.00916254
9359.62	0.00925902
9369.96	0.00934897
9380.3	0.00943237
9390.64	0.00950922
9400.99	0.00957952
9411.33	0.00964328
9421.67	0.0097005
9432.01	0.0097512
9442.35	0.0097954
9452.7	0.0098331
9463.04	0.00986433
9473.38	0.00988912
9483.72	0.00990749
9494.06	0.00991948
9504.41	0.00992512
9514.75	0.00992444
9525.09	0.00991749
9535.43	0.00990431
9545.78	0.00988494
9556.12	0.00985942
9566.46	0.00982782
9576.8	0.00979016
9587.14	0.00974652
9597.49	0.00969695
9607.83	0.00964149
9618.17	0.00958021
9628.51	0.00951318
9638.86	0.00944044
9649.2	0.00936207
9659.54	0.00927812
9669.88	0.00918867
9680.22	0.00909378
9690.57	0.00899351
9700.91	0.00888795
9711.25	0.00877714
9721.59	0.00866118
9731.93	0.00854012
9742.28	0.00841404
9752.62	0.00828302
9762.96	0.00814712
9773.3	0.00800643
9783.65	0.00786101
9793.99	0.00771094
9804.33	0.00755629
9814.67	0.00739715
9825.01	0.00723358
9835.36	0.00706567
9845.7	0.00689348
9856.04	0.0067171
9866.38	0.00653661
9876.72	0.00635207
9887.07	0.00616358
9897.41	0.00597119
9907.75	0.005775
9918.09	0.00557507
9928.44	0.00537149
9938.78	0.00516432
9949.12	0.00495366
9959.46	0.00473957
9969.8	0.00452213
9980.15	0.00430142
9990.49	0.00407751
10000.8	0.00385048
10011.2	0.0036204
10021.5	0.00338736
10031.9	0.00315142
10042.2	0.00291267
10052.5	0.00267117
10062.9	0.002427
10073.2	0.00218024
10083.6	0.00193096
10093.9	0.00167924
10104.3	0.00142514
10114.6	0.00116875
10124.9	0.000910135
10135.3	0.000649369
10145.6	0.000386526
10156	0.000121678
10166.3	-0.000145102
10176.6	-0.000413741
10187	-0.000684168
10197.3	-0.000956311
10207.7	-0.0012301
10218	-0.00150546
10228.4	-0.00178232
10238.7	-0.00206062
10249	-0.00234027
10259.4	-0.00262122
10269.7	-0.00290339
10280.1	-0.00318671
10290.4	-0.00347111
10300.8	-0.00375653
10311.1	-0.0040429
10321.4	-0.00433014
10331.8	-0.00461819
10342.1	-0.00490698
10352.5	-0.00519645
10362.8	-0.00548653
10373.1	-0.00577715
10383.5	-0.00606824
10393.8	-0.00635975
10404.2	-0.0066516
10414.5	-0.00694373
10424.9	-0.00723608
10435.2	-0.00752858
10445.5	-0.00782117
10455.9	-0.00811378
10466.2	-0.00840636
10476.6	-0.00869884
10486.9	-0.00899115
10497.3	-0.00928325
10507.6	-0.00957506
10517.9	-0.00986654
10528.3	-0.0101576
10538.6	-0.0104482
10549	-0.0107383
10559.3	-0.0110278
10569.7	-0.0113167
10580	-0.0116049
10590.3	-0.0118923
10600.7	-0.0121789
10611	-0.0124647
10621.4	-0.0127495
10631.7	-0.0130334
10642	-0.0133163
10652.4	-0.0135981
10662.7	-0.0138787
10673.1	-0.0141582
10683.4	-0.0144364
10693.8	-0.0147133
10704.1	-0.0149889
10714.4	-0.0152632
10724.8	-0.015536
10735.1	-0.0158072
10745.5	-0.016077
10755.8	-0.0163452
10766.2	-0.0166117
10776.5	-0.0168766
10786.8	-0.0171398
10797.2	-0.0174011
10807.5	-0.0176607
10817.9	-0.0179184
10828.2	-0.0181741
10838.5	-0.018428
10848.9	-0.0186798
10859.2	-0.0189295
10869.6	-0.0191772
10879.9	-0.0194228
10890.3	-0.0196661
10900.6	-0.0199073
10910.9	-0.0201461
10921.3	-0.0203827
10931.6	-0.0206169
10942	-0.0208487
10952.3	-0.0210781
10962.7	-0.0213049
10973	-0.0215293
10983.3	-0.0217511
10993.7	-0.0219702
11004	-0.0221868
11014.4	-0.0224006
11024.7	-0.0226116
11035	-0.0228199
11045.4	-0.0230254
11055.7	-0.0232279
11066.1	-0.0234276
11076.4	-0.0236243
11086.8	-0.0238179
11097.1	-0.0240086
11107.4	-0.0241961
11117.8	-0.0243805
11128.1	-0.0245617
11138.5	-0.0247397
11148.8	-0.0249144
11159.2	-0.0250857
11169.5	-0.0252537
11179.8	-0.0254183
11190.2	-0.0255794
11200.5	-0.0257371
11210.9	-0.0258911
11221.2	-0.0260416
11231.5	-0.0261884
11241.9	-0.0263315
11252.2	-0.0264708
11262.6	-0.0266064
11272.9	-0.0267381
11283.3	-0.0268659
11293.6	-0.0269898
11303.9	-0.0271096
11314.3	-0.0272255
11324.6	-0.0273372
11335	-0.0274448
11345.3	-0.0275482
11355.7	-0.0276474
11366	-0.0277423
11376.3	-0.0278328
11386.7	-0.0279189
11397	-0.0280006
11407.4	-0.0280778
11417.7	-0.0281505
11428.1	-0.0282185
11438.4	-0.0282819
11448.7	-0.0283406
11459.1	-0.0283946
11469.4	-0.0284438
11479.8	-0.0284881
11490.1	-0.0285276
11500.4	-0.0285621
11510.8	-0.0285916
11521.1	-0.0286161
11531.5	-0.0286355
11541.8	-0.0286497
11552.2	-0.0286588
11562.5	-0.0286627
11572.8	-0.0286613
11583.2	-0.0286546
11593.5	-0.0286426
11603.9	-0.0286251
11614.2	-0.0286023
11624.6	-0.0285739
11634.9	-0.0285401
11645.2	-0.0285007
11655.6	-0.0284557
11665.9	-0.028405
11676.3	-0.0283488
11686.6	-0.0282868
11696.9	-0.0282191
11707.3	-0.0281456
11717.6	-0.0280664
11728	-0.0279813
11738.3	-0.0278904
11748.7	-0.0277937
11759	-0.027691
11769.3	-0.0275825
11779.7	-0.027468
11790	-0.0273475
11800.4	-0.0272211
11810.7	-0.0270887
11821.1	-0.0269503
11831.4	-0.0268059
11841.7	-0.0266555
11852.1	-0.026499
11862.4	-0.0263365
11872.8	-0.026168
11883.1	-0.0259934
11893.4	-0.0258129
11903.8	-0.0256262
11914.1	-0.0254336
11924.5	-0.0252349
11934.8	-0.0250302
11945.2	-0.0248194
11955.5	-0.0246027
11965.8	-0.0243801
11976.2	-0.0241514
11986.5	-0.0239168
11996.9	-0.0236763
12007.2	-0.0234299
12017.6	-0.0231776
12027.9	-0.0229195
12038.2	-0.0226556
12048.6	-0.0223859
12058.9	-0.0221105
12069.3	-0.0218293
12079.6	-0.0215425
12089.9	-0.0212501
12100.3	-0.0209521
12110.6	-0.0206486
12121	-0.0203395
12131.3	-0.0200251
12141.7	-0.0197053
12152	-0.0193802
12162.3	-0.0190498
12172.7	-0.0187142
12183	-0.0183735
12193.4	-0.0180277
12203.7	-0.0176769
12214.1	-0.0173212
12224.4	-0.0169607
12234.7	-0.0165953
12245.1	-0.0162252
12255.4	-0.0158506
12265.8	-0.0154713
12276.1	-0.0150876
12286.5	-0.0146995
12296.8	-0.0143071
12307.1	-0.0139106
12317.5	-0.0135099
12327.8	-0.0131051
12338.2	-0.0126965
12348.5	-0.012284
12358.8	-0.0118678
12369.2	-0.011448
12379.5	-0.0110246
12389.9	-0.0105978
12400.2	-0.0101677
12410.6	-0.00973439
12420.9	-0.00929797
12431.2	-0.00885855
12441.6	-0.00841626
12451.9	-0.00797119
12462.3	-0.00752348
12472.6	-0.00707323
12483	-0.00662056
12493.3	-0.00616559
12503.6	-0.00570845
12514	-0.00524925
12524.3	-0.00478811
12534.7	-0.00432517
12545	-0.00386054
12555.3	-0.00339436
12565.7	-0.00292675
12576	-0.00245783
12586.4	-0.00198775
12596.7	-0.00151662
12607.1	-0.00104458
12617.4	-0.000571762
12627.7	-9.82972e-05
12638.1	0.000375681
12648.4	0.000850038
12658.8	0.00132464
12669.1	0.00179935
12679.5	0.00227404
12689.8	0.00274856
12700.1	0.00322279
12710.5	0.00369658
12720.8	0.0041698
12731.2	0.00464231
12741.5	0.00511398
12751.8	0.00558466
12762.2	0.00605421
12772.5	0.00652251
12782.9	0.00698941
12793.2	0.00745478
12803.6	0.00791847
12813.9	0.00838035
12824.2	0.00884028
12834.6	0.00929813
12844.9	0.00975376
12855.3	0.010207
12865.6	0.0106578
12876	0.0111059
12886.3	0.0115513
12896.6	0.0119938
12907	0.0124333
12917.3	0.0128695
12927.7	0.0133025
12938	0.0137321
12948.3	0.014158
12958.7	0.0145803
12969	0.0149988
12979.4	0.0154133
12989.7	0.0158237
13000.1	0.01623
13010.4	0.0166319
13020.7	0.0170293
13031.1	0.0174221
13041.4	0.0178103
13051.8	0.0181936
13062.1	0.018572
13072.5	0.0189453
13082.8	0.0193134
13093.1	0.0196762
13103.5	0.0200337
13113.8	0.0203855
13124.2	0.0207318
13134.5	0.0210723
13144.9	0.0214069
13155.2	0.0217355
13165.5	0.0220581
13175.9	0.0223745
13186.2	0.0226847
13196.6	0.0229884
13206.9	0.0232856
13217.2	0.0235763
13227.6	0.0238603
13237.9	0.0241375
13248.3	0.0244079
13258.6	0.0246713
13269	0.0249277
13279.3	0.0251769
13289.6	0.0254189
13300	0.0256537
13310.3	0.025881
13320.7	0.0261009
13331	0.0263132
13341.4	0.026518
13351.7	0.0267151
13362	0.0269044
13372.4	0.0270859
13382.7	0.0272595
13393.1	0.0274252
13403.4	0.0275828
13413.7	0.0277324
13424.1	0.0278739
13434.4	0.0280072
13444.8	0.0281322
13455.1	0.028249
13465.5	0.0283574
13475.8	0.0284575
13486.1	0.0285491
13496.5	0.0286323
13506.8	0.028707
13517.2	0.0287731
13527.5	0.0288307
13537.9	0.0288797
13548.2	0.0289201
13558.5	0.0289518
13568.9	0.0289749
13579.2	0.0289893
13589.6	0.0289949
13599.9	0.0289919
13610.2	0.0289801
13620.6	0.0289596
13630.9	0.0289303
13641.3	0.0288922
13651.6	0.0288455
13662	0.0287899
13672.3	0.0287256
13682.6	0.0286526
13693	0.0285709
13703.3	0.0284804
13713.7	0.0283812
13724	0.0282733
13734.4	0.0281568
13744.7	0.0280316
13755	0.0278979
13765.4	0.0277555
13775.7	0.0276046
13786.1	0.0274452
13796.4	0.0272773
13806.7	0.027101
13817.1	0.0269163
13827.4	0.0267232
13837.8	0.0265219
13848.1	0.0263123
13858.5	0.0260945
13868.8	0.0258687
13879.1	0.0256347
13889.5	0.0253928
13899.8	0.0251429
13910.2	0.0248852
13920.5	0.0246197
13930.9	0.0243465
13941.2	0.0240657
13951.5	0.0237773
13961.9	0.0234815
13972.2	0.0231783
13982.6	0.0228678
13992.9	0.0225501
14003.3	0.0222254
14013.6	0.0218936
14023.9	0.021555
14034.3	0.0212096
14044.6	0.0208576
14055	0.0204989
14065.3	0.0201339
14075.6	0.0197625
14086	0.0193849
14096.3	0.0190012
14106.7	0.0186116
14117	0.0182161
14127.4	0.0178149
14137.7	0.0174081
14148	0.0169959
14158.4	0.0165784
14168.7	0.0161558
14179.1	0.0157281
14189.4	0.0152956
14199.8	0.0148583
14210.1	0.0144164
14220.4	0.0139702
14230.8	0.0135196
14241.1	0.0130649
14251.5	0.0126063
14261.8	0.0121439
14272.1	0.0116778
14282.5	0.0112083
14292.8	0.0107354
14303.2	0.0102594
14313.5	0.00978042
14323.9	0.00929863
14334.2	0.0088142
14344.5	0.00832731
14354.9	0.00783813
14365.2	0.00734683
14375.6	0.00685359
14385.9	0.00635859
14396.3	0.00586201
14406.6	0.00536402
14416.9	0.00486481
14427.3	0.00436455
14437.6	0.00386344
14448	0.00336164
14458.3	0.00285934
14468.6	0.00235673
14479	0.00185399
14489.3	0.00135129
14499.7	0.000848833
14510	0.000346791
14520.4	-0.000154651
14530.7	-0.00065531
14541	-0.001155
14551.4	-0.00165355
14561.7	-0.00215077
14572.1	-0.00264648
14582.4	-0.00314049
14592.8	-0.00363264
14603.1	-0.00412275
14613.4	-0.00461063
14623.8	-0.00509611
14634.1	-0.00557902
14644.5	-0.00605918
14654.8	-0.00653642
14665.1	-0.00701057
14675.5	-0.00748146
14685.8	-0.00794894
14696.2	-0.00841282
14706.5	-0.00887296
14716.9	-0.00932918
14727.2	-0.00978133
14737.5	-0.0102293
14747.9	-0.0106728
14758.2	-0.0111118
14768.6	-0.0115462
14778.9	-0.0119757
14789.3	-0.0124003
14799.6	-0.0128197
14809.9	-0.0132339
14820.3	-0.0136428
14830.6	-0.0140461
14841	-0.0144438
14851.3	-0.0148358
14861.7	-0.0152218
14872	-0.0156019
14882.3	-0.0159759
14892.7	-0.0163436
14903	-0.0167051
14913.4	-0.0170601
14923.7	-0.0174086
14934	-0.0177504
14944.4	-0.0180856
14954.7	-0.0184139
14965.1	-0.0187354
14975.4	-0.0190499
14985.8	-0.0193574
14996.1	-0.0196578
15006.4	-0.019951
15016.8	-0.020237
15027.1	-0.0205157
15037.5	-0.0207871
15047.8	-0.021051
15058.2	-0.0213076
15068.5	-0.0215566
15078.8	-0.0217982
15089.2	-0.0220322
15099.5	-0.0222586
15109.9	-0.0224774
15120.2	-0.0226886
15130.5	-0.0228922
15140.9	-0.0230881
15151.2	-0.0232764
15161.6	-0.0234571
15171.9	-0.0236301
15182.3	-0.0237954
15192.6	-0.0239532
15202.9	-0.0241033
15213.3	-0.0242458
15223.6	-0.0243807
15234	-0.0245081
15244.3	-0.024628
15254.7	-0.0247404
15265	-0.0248453
15275.3	-0.0249429
15285.7	-0.0250331
15296	-0.025116
15306.4	-0.0251916
15316.7	-0.02526
15327	-0.0253213
15337.4	-0.0253755
15347.7	-0.0254227
15358.1	-0.0254629
15368.4	-0.0254963
15378.8	-0.0255229
15389.1	-0.0255428
15399.4	-0.025556
15409.8	-0.0255627
15420.1	-0.0255629
15430.5	-0.0255568
15440.8	-0.0255443
15451.2	-0.0255256
15461.5	-0.0255009
15471.8	-0.0254701
15482.2	-0.0254335
15492.5	-0.025391
15502.9	-0.0253429
15513.2	-0.0252891
15523.5	-0.0252298
15533.9	-0.0251652
15544.2	-0.0250953
15554.6	-0.0250202
15564.9	-0.0249401
15575.3	-0.024855
15585.6	-0.0247651
15595.9	-0.0246705
15606.3	-0.0245712
15616.6	-0.0244675
15627	-0.0243594
15637.3	-0.0242471
15647.7	-0.0241306
15658	-0.02401
15668.3	-0.0238856
15678.7	-0.0237573
15689	-0.0236254
15699.4	-0.0234899
15709.7	-0.0233509
15720.1	-0.0232086
15730.4	-0.0230631
15740.7	-0.0229144
15751.1	-0.0227628
15761.4	-0.0226082
15771.8	-0.0224509
15782.1	-0.0222909
15792.4	-0.0221283
15802.8	-0.0219633
15813.1	-0.0217959
15823.5	-0.0216262
15833.8	-0.0214544
15844.2	-0.0212806
15854.5	-0.0211048
15864.8	-0.0209272
15875.2	-0.0207478
15885.5	-0.0205668
15895.9	-0.0203842
15906.2	-0.0202001
15916.6	-0.0200146
15926.9	-0.0198279
15937.2	-0.0196399
15947.6	-0.0194508
15957.9	-0.0192607
15968.3	-0.0190696
15978.6	-0.0188777
15988.9	-0.0186849
15999.3	-0.0184914
16009.6	-0.0182972
16020	-0.0181025
16030.3	-0.0179072
16040.7	-0.0177115
16051	-0.0175153
16061.3	-0.0173189
16071.7	-0.0171222
16082	-0.0169252
16092.4	-0.0167281
16102.7	-0.0165309
16113.1	-0.0163337
16123.4	-0.0161364
16133.7	-0.0159392
16144.1	-0.0157421
16154.4	-0.0155451
16164.8	-0.0153483
16175.1	-0.0151516
16185.4	-0.0149553
16195.8	-0.0147592
16206.1	-0.0145635
16216.5	-0.0143681
16226.8	-0.0141731
16237.2	-0.0139784
16247.5	-0.0137843
16257.8	-0.0135906
16268.2	-0.0133973
16278.5	-0.0132046
16288.9	-0.0130124
16299.2	-0.0128208
16309.6	-0.0126297
16319.9	-0.0124392
16330.2	-0.0122493
16340.6	-0.01206
16350.9	-0.0118713
16361.3	-0.0116833
16371.6	-0.0114959
16381.9	-0.0113091
16392.3	-0.011123
16402.6	-0.0109376
16413	-0.0107528
16423.3	-0.0105687
16433.7	-0.0103853
16444	-0.0102026
16454.3	-0.0100205
16464.7	-0.00983917
16475	-0.00965848
16485.4	-0.00947848
16495.7	-0.00929917
16506.1	-0.00912054
16516.4	-0.00894259
16526.7	-0.00876532
16537.1	-0.00858874
16547.4	-0.00841283
16557.8	-0.0082376
16568.1	-0.00806304
16578.5	-0.00788915
16588.8	-0.00771592
16599.1	-0.00754336
16609.5	-0.00737146
16619.8	-0.00720022
16630.2	-0.00702963
16640.5	-0.00685969
16650.8	-0.0066904
16661.2	-0.00652176
16671.5	-0.00635376
16681.9	-0.00618639
16692.2	-0.00601967
16702.6	-0.00585357
16712.9	-0.00568812
16723.2	-0.00552329
16733.6	-0.00535909
16743.9	-0.00519553
16754.3	-0.00503259
16764.6	-0.00487028
16775	-0.00470861
16785.3	-0.00454756
16795.6	-0.00438715
16806	-0.00422736
16816.3	-0.00406822
16826.7	-0.00390971
16837	-0.00375184
16847.3	-0.00359462
16857.7	-0.00343805
16868	-0.00328213
16878.4	-0.00312687
16888.7	-0.00297227
16899.1	-0.00281835
16909.4	-0.0026651
16919.7	-0.00251254
16930.1	-0.00236067
16940.4	-0.0022095
16950.8	-0.00205904
16961.1	-0.0019093
16971.5	-0.00176028
16981.8	-0.00161201
16992.1	-0.00146449
17002.5	-0.00131773
17012.8	-0.00117174
17023.2	-0.00102654
17033.5	-0.000882135
17043.8	-0.000738543
17054.2	-0.000595775
17064.5	-0.000453847
17074.9	-0.000312771
17085.2	-0.000172564
17095.6	-3.32406e-05
17105.9	0.000105184
17116.2	0.000242695
17126.6	0.000379275
17136.9	0.000514908
17147.3	0.000649577
17157.6	0.000783265
17168	0.000915956
17178.3	0.00104763
17188.6	0.00117827
17199	0.00130787
17209.3	0.00143639
17219.7	0.00156383
17230	0.00169016
17240.4	0.00181537
17250.7	0.00193944
17261	0.00206235
17271.4	0.00218408
17281.7	0.00230462
17292.1	0.00242394
17302.4	0.00254203
17312.7	0.00265887
17323.1	0.00277444
17333.4	0.00288872
17343.8	0.0030017
17354.1	0.00311336
17364.5	0.00322367
17374.8	0.00333263
17385.1	0.00344022
17395.5	0.00354641
17405.8	0.00365119
17416.2	0.00375455
17426.5	0.00385647
17436.9	0.00395693
17447.2	0.00405592
17457.5	0.00415343
17467.9	0.00424943
17478.2	0.00434392
17488.6	0.00443687
17498.9	0.00452828
17509.2	0.00461814
17519.6	0.00470642
17529.9	0.00479313
17540.3	0.00487824
17550.6	0.00496174
17561	0.00504363
17571.3	0.00512389
17581.6	0.00520252
17592	0.0052795
17602.3	0.00535482
17612.7	0.00542849
17623	0.00550048
17633.4	0.0055708
17643.7	0.00563943
17654	0.00570638
17664.4	0.00577163
17674.7	0.00583518
17685.1	0.00589702
17695.4	0.00595716
17705.7	0.00601559
17716.1	0.00607231
17726.4	0.00612731
17736.8	0.0061806
17747.1	0.00623217
17757.5	0.00628202
17767.8	0.00633016
17778.1	0.00637659
17788.5	0.00642131
17798.8	0.00646431
17809.2	0.00650561
17819.5	0.00654521
17829.9	0.00658311
17840.2	0.00661932
17850.5	0.00665384
17860.9	0.00668669
17871.2	0.00671786
17881.6	0.00674736
17891.9	0.0067752
17902.2	0.0068014
17912.6	0.00682596
17922.9	0.00684888
17933.3	0.00687019
17943.6	0.00688989
17954	0.00690799
17964.3	0.0069245
17974.6	0.00693945
17985	0.00695283
17995.3	0.00696467
18005.7	0.00697497
18016	0.00698376
18026.4	0.00699104
18036.7	0.00699684
18047	0.00700117
18057.4	0.00700404
18067.7	0.00700547
18078.1	0.00700548
18088.4	0.00700409
18098.8	0.00700131
18109.1	0.00699717
18119.4	0.00699168
18129.8	0.00698486
18140.1	0.00697673
18150.5	0.0069673
18160.8	0.00695661
18171.1	0.00694467
18181.5	0.0069315
18191.8	0.00691712
18202.2	0.00690155
18212.5	0.00688482
18222.9	0.00686694
18233.2	0.00684794
18243.5	0.00682783
18253.9	0.00680665
18264.2	0.00678441
18274.6	0.00676113
18284.9	0.00673684
18295.3	0.00671156
18305.6	0.00668531
18315.9	0.00665811
18326.3	0.00662999
18336.6	0.00660097
18347	0.00657108
18357.3	0.00654032
18367.6	0.00650874
18378	0.00647634
18388.3	0.00644316
18398.7	0.00640921
18409	0.00637451
18419.4	0.0063391
18429.7	0.00630298
18440	0.00626619
18450.4	0.00622874
18460.7	0.00619065
18471.1	0.00615196
18481.4	0.00611267
18491.8	0.0060728
18502.1	0.00603239
18512.4	0.00599145
18522.8	0.00594999
18533.1	0.00590805
18543.5	0.00586563
18553.8	0.00582277
18564.1	0.00577947
18574.5	0.00573575
18584.8	0.00569164
18595.2	0.00564715
18605.5	0.00560229
18615.9	0.0055571
18626.2	0.00551157
18636.5	0.00546573
18646.9	0.0054196
18657.2	0.00537319
18667.6	0.00532651
18677.9	0.00527958
18688.3	0.00523241
18698.6	0.00518502
18708.9	0.00513741
18719.3	0.00508961
18729.6	0.00504163
18740	0.00499346
18750.3	0.00494514
18760.6	0.00489666
18771	0.00484804
18781.3	0.00479928
18791.7	0.0047504
18802	0.0047014
18812.4	0.00465229
18822.7	0.00460308
18833	0.00455378
18843.4	0.00450439
18853.7	0.00445491
18864.1	0.00440536
18874.4	0.00435573
18884.8	0.00430604
18895.1	0.00425628
18905.4	0.00420645
18915.8	0.00415657
18926.1	0.00410662
18936.5	0.00405662
18946.8	0.00400657
18957.2	0.00395645
18967.5	0.00390628
18977.8	0.00385606
18988.2	0.00380577
18998.5	0.00375542
19008.9	0.00370501
19019.2	0.00365454
19029.5	0.003604
19039.9	0.00355338
19050.2	0.00350269
19060.6	0.00345191
19070.9	0.00340105
19081.3	0.00335009
19091.6	0.00329904
19101.9	0.00324788
19112.3	0.00319661
19122.6	0.00314522
19133	0.00309371
19143.3	0.00304206
19153.7	0.00299026
19164	0.00293832
19174.3	0.00288622
19184.7	0.00283394
19195	0.00278149
19205.4	0.00272884
19215.7	0.002676
19226	0.00262295
19236.4	0.00256968
19246.7	0.00251617
19257.1	0.00246242
19267.4	0.00240843
19277.8	0.00235416
19288.1	0.00229962
19298.4	0.00224479
19308.8	0.00218966
19319.1	0.00213422
19329.5	0.00207846
19339.8	0.00202236
19350.2	0.00196592
19360.5	0.00190911
19370.8	0.00185193
19381.2	0.00179438
19391.5	0.00173642
19401.9	0.00167806
19412.2	0.00161928
19422.5	0.00156007
19432.9	0.00150041
19443.2	0.00144031
19453.6	0.00137974
19463.9	0.00131869
19474.3	0.00125716
19484.6	0.00119512
19494.9	0.00113259
19505.3	0.00106953
19515.6	0.00100594
19526	0.000941819
19536.3	0.000877148
19546.7	0.000811922
19557	0.00074613
19567.3	0.000679765
19577.7	0.000612819
19588	0.000545284
19598.4	0.000477153
19608.7	0.000408419
19619	0.000339076
19629.4	0.000269118
19639.7	0.000198539
19650.1	0.000127335
19660.4	5.55009e-05
19670.8	-1.6967e-05
19681.1	-9.00724e-05
19691.4	-0.000163818
19701.8	-0.000238206
19712.1	-0.000313239
19722.5	-0.000388917
19732.8	-0.000465242
19743.2	-0.000542214
19753.5	-0.000619831
19763.8	-0.000698094
19774.2	-0.000777
19784.5	-0.000856547
19794.9	-0.000936731
19805.2	-0.00101755
19815.6	-0.001099
19825.9	-0.00118107
19836.2	-0.00126377
19846.6	-0.00134708
19856.9	-0.00143099
19867.3	-0.00151551
19877.6	-0.00160061
19887.9	-0.0016863
19898.3	-0.00177256
19908.6	-0.00185939
19919	-0.00194677
19929.3	-0.00203468
19939.7	-0.00212313
19950	-0.00221209
19960.3	-0.00230155
19970.7	-0.00239151
19981	-0.00248193
19991.4	-0.00257282
