0	0
263.806	0
527.611	0
791.417	0
1055.22	0
1319.03	0
1582.83	0
1846.64	0
2110.45	0
2374.25	0.000676193
2638.06	0.00407546
2901.86	0.0111306
3165.67	0.0231677
3429.47	0.0391561
3693.28	0.0567884
3957.09	0.072461
4220.89	0.083026
4484.7	0.0862747
4748.5	0.081711
5012.31	0.070279
5276.11	0.0541463
5539.92	0.0360317
5803.73	0.0186778
6067.53	0.00425406
6331.34	-0.00597006
6595.14	-0.0117693
6858.95	-0.0138062
7122.75	-0.0133209
7386.56	-0.0117301
7650.37	-0.0102841
7914.17	-0.00983127
8177.98	-0.010734
8441.78	-0.0129088
8705.59	-0.0159598
8969.39	-0.0193484
9233.2	-0.022554
9497.01	-0.0251878
9760.81	-0.0270425
10024.6	-0.0280836
10288.4	-0.0283989
10552.2	-0.0281329
10816	-0.0274285
11079.8	-0.0263898
11343.6	-0.025072
11607.5	-0.0234924
11871.3	-0.0216539
