0	0	8584140
10.1915	0	8595204
20.373	0	8602496
30.5545	0	8606478
40.736	0	8609350
50.9166	0	8611872
60.0761	0	8613762
70.2436	0	8615752
80.4112	0	8617656
90.5786	0	8619066
100.746	0	8620300
110.913	0	8621566
120.066	0	8622934
130.256	0	8624460
140.46	0	8626062
150.663	0	8627792
160.867	0	8629300
170.051	0	8630550
180.254	0	8631972
190.459	0	8633314
200.665	0	8634728
210.875	0	8636318
220.065	0	8637752
230.275	0	8639536
240.507	0	8641254
250.731	0	8642954
260.943	0	8644814
270.135	0	8646594
280.408	0	8648678
290.707	0	8650788
301.006	0	8652910
310.275	0	8655014
320.573	0	8657290
330.831	0	8659706
340.027	0	8661994
350.245	0	8664432
360.477	0	8666904
370.711	0	8669382
380.945	0	8671728
390.138	0	8673712
400.352	0	8676012
410.618	0	8678470
420.918	0	8680764
430.189	0	8682714
440.49	0	8684954
450.791	0	8687158
460.062	0	8689046
470.364	0	8691066
480.665	0	8692926
490.967	0	8694802
500.239	0	8696436
510.541	0	8698144
520.843	0	8699854
530.115	0	8701394
540.417	0	8703068
550.72	0	8704608
561.023	0	8706230
570.295	0	8707840
580.598	0	8709778
590.901	0	8711730
600.174	0	8713668
610.478	0	8715850
620.781	0	8718084
630.054	0	8720078
640.358	0	8722306
650.661	0	8724648
660.964	0	8727030
670.237	0	8729096
680.54	0	8731524
690.844	0	8733860
700.117	0	8735870
710.42	0	8738174
720.723	0	8740362
731.026	0	8742552
740.299	0	8744670
750.602	0	8747180
760.905	0	8749708
770.178	0	8752092
780.481	0	8754496
790.784	0	8757150
800.056	0	8759488
810.359	0	8762304
820.622	0	8764792
830.867	0	8767484
840.083	0	8769740
850.321	0	8772446
860.536	0	8775182
870.75	0	8777874
880.96	0	8780452
890.143	0	8782930
900.346	0	8785810
910.55	0	8788706
920.754	0	8791502
930.956	0	8794354
940.138	0	8796950
950.34	0	8799684
960.54	0	8802398
970.737	0	8805052
980.934	0	8807626
990.111	0	8809976
1000.31	0	8812606
1010.51	0	8815306
1020.7	0	8817988
1030.88	0	8820898
1040.04	0	8823458
1050.22	0	8826522
1060.4	0	8829390
1070.58	0	8832454
1080.75	0	8835464
1090.93	0	8838284
1100.09	0	8840748
1110.27	0	8843196
1120.45	0	8845652
1130.63	0	8848020
1140.8	0	8850372
1150.98	0	8852520
1160.14	0	8854276
1170.32	0	8856034
1180.5	0	8857878
1190.67	0	8859846
1200.84	0	8862050
1211.01	0	8864272
1220.17	0	8866434
1230.34	0	8868630
1240.51	0	8870792
1250.68	0	8872734
1260.85	0	8874824
1270	0	8876380
1280.17	0	8877900
1290.34	0	8879276
1300.51	0	8880714
1310.69	0	8882024
1320.86	0	8883104
1330.01	0	8884426
1340.18	0	8885938
1350.35	0	8887282
1360.52	0	8888698
1370.69	0	8890240
1380.86	0	8891906
1390.01	0	8893566
1400.18	0	8895288
1410.35	0	8897044
1420.52	0	8898820
1430.7	0	8900682
1440.87	0	8902526
1450.02	0	8904102
1460.19	0	8905846
1470.36	0	8907468
1480.53	0	8909412
1490.71	0	8911060
1500.93	0	8912770
1510.19	0	8914152
1520.54	0	8915854
1531.03	0	8917600
1540.61	0	8918932
1550.27	0	8920420
1561.04	0	8921918
1570.74	0	8923408
1580.44	0	8924648
1590.13	0	8925648
1600.91	0	8926716
1610.61	0	8927888
1620.31	0	8928934
1630.01	0	8930044
1640.78	0	8931200
1650.48	0	8931838
1660.18	0	8932462
1670.96	0	8933248
1680.66	0	8933608
1690.35	0	8934192
1700.05	0	8934706
1710.83	0	8935506
1720.56	0	8936194
1730.37	0	8936794
1740.46	0	8937538
1750.57	0	8938192
1760.73	0	8938822
1770.9	0	8939302
1781.06	0	8939790
1790.11	0	8940168
1800.3	0	8940408
1810.49	0	8940756
1820.7	0	8941148
1830.91	0	8941506
1840.02	0	8941692
1850.34	0	8942090
1860.68	0	8942522
1871.02	0	8942962
1880.21	0	8943586
1890.54	0	8944008
1900.88	0	8944586
1910.07	0	8945170
1920.41	0	8945928
1930.75	0	8946514
1941.1	0	8946978
1950.29	0	8947550
1960.63	0	8948174
1970.98	0	8948640
1980.17	0	8948994
1990.51	0	8949314
2000.86	0	8949692
2010.05	0	8950070
2020.39	0	8950528
2030.74	0	8950810
2041.08	0	8951240
2050.28	0	8951698
2060.62	0	8952288
2070.96	0	8952816
2080.16	0	8953420
2090.5	0	8954162
2100.84	0	8954956
2110.03	0	8955654
2120.35	0	8956438
2130.67	0	8956994
2140.98	0	8957538
2150.14	0	8958020
2160.45	0	8958644
2170.76	0	8959232
2181.06	0	8960016
2190.23	0	8960510
2200.53	0	8961140
2210.84	0	8961558
2220	0	8962102
2230.31	0	8962584
2240.62	0	8963118
2250.92	0	8963514
2260.08	0	8964062
2270.37	0	8964528
2280.66	0	8965100
2290.94	0	8965658
2300.08	0	8966156
2310.37	0	8966826
2320.65	0	8967464
2330.93	-9.09495e-13	8967762
2340.07	-4.54747e-12	8968356
2350.36	-1.09139e-11	8968790
2360.64	-1.72804e-11	8969520
2370.91	-2.36469e-11	8970028
2380.01	-2.91038e-11	8970730
2390.25	-3.63798e-11	8971384
2400.48	-4.36557e-11	8972192
2410.71	-5.00222e-11	8972736
2420.94	-5.72982e-11	8973540
2430.03	-6.36646e-11	8974056
2440.25	-7.09406e-11	8974848
2450.48	-7.9126e-11	8975596
2460.71	-8.8221e-11	8976220
2470.93	-1.01863e-10	8976568
2480.02	-1.18234e-10	8976964
2490.25	-1.45519e-10	8977618
2500.47	-1.7917e-10	8977880
2510.7	-2.24645e-10	8978214
2520.93	-2.83762e-10	8978426
2530.02	-3.49246e-10	8978758
2540.24	-4.42924e-10	8978894
2550.47	-5.59339e-10	8979006
2560.69	-7.04858e-10	8979178
2570.92	-8.84938e-10	8979438
2580.01	-1.07775e-09	8979686
2590.23	-1.33969e-09	8980354
2600.46	-1.65437e-09	8980962
2610.68	-2.02999e-09	8981508
2620.91	-2.47655e-09	8982320
2631.13	-2.9986e-09	8983034
2640.22	-3.5343e-09	8983866
2650.46	-4.22733e-09	8984690
2660.69	-5.02678e-09	8985580
2670.93	-5.939e-09	8986672
2680.02	-6.85486e-09	8987540
2690.26	-8.01265e-09	8988618
2700.49	-9.31323e-09	8989730
2710.72	-1.07639e-08	8990940
2720.96	-1.23728e-08	8992156
2730.05	-1.39416e-08	8993190
2740.29	-1.5868e-08	8994328
2750.52	-1.79725e-08	8995366
2760.75	-2.02572e-08	8996714
2770.99	-2.27265e-08	8997870
2780.08	-2.50757e-08	8998892
2790.32	-2.78942e-08	8999898
2800.55	-3.08964e-08	9000962
2810.79	-3.40824e-08	9002166
2821.04	-3.74475e-08	9003164
2830.15	-4.05826e-08	9004234
2840.39	-4.42642e-08	9005356
2850.64	-4.81023e-08	9006222
2860.89	-5.2084e-08	9006846
2870	-5.57384e-08	9007330
2880.25	-5.99657e-08	9008042
2890.5	-6.4304e-08	9008842
2900.75	-6.87351e-08	9009682
2910.98	-7.32398e-08	9010488
2920.08	-7.72952e-08	9010994
2930.32	-8.19009e-08	9011818
2940.55	-8.6533e-08	9012476
2950.78	-9.11705e-08	9013256
2961.02	-9.57962e-08	9013910
2970.12	-9.98798e-08	9014344
2980.35	-1.04422e-07	9014912
2990.59	-1.08889e-07	9015476
3000.82	-1.13258e-07	9015990
3011.06	-1.17504e-07	9016558
3020.15	-1.21157e-07	9017050
3030.39	-1.25114e-07	9017510
3040.62	-1.2888e-07	9017982
3050.86	-1.32435e-07	9018552
3061.1	-1.35759e-07	9019082
3070.19	-1.38502e-07	9019654
3080.43	-1.41329e-07	9020102
3090.67	-1.43863e-07	9020600
3100.9	-1.4609e-07	9021068
3111.14	-1.47991e-07	9021568
3120.24	-1.49393e-07	9022052
3130.47	-1.50636e-07	9022472
3140.71	-1.51515e-07	9022900
3150.94	-1.52019e-07	9023350
3160.04	-1.52148e-07	9023774
3170.28	-1.51927e-07	9024336
3180.51	-1.5132e-07	9024826
3190.75	-1.50322e-07	9025414
3200.99	-1.48938e-07	9025908
3210.08	-1.47385e-07	9026378
3220.32	-1.45286e-07	9026922
3230.56	-1.4282e-07	9027366
3240.79	-1.39996e-07	9027942
3251.03	-1.36828e-07	9028708
3260.13	-1.33736e-07	9029516
3270.36	-1.29963e-07	9030304
3280.6	-1.25897e-07	9031274
3290.83	-1.21556e-07	9032302
3301.07	-1.16964e-07	9033476
3310.17	-1.12693e-07	9034586
3320.4	-1.07694e-07	9035674
3330.66	-1.02511e-07	9036692
3340.93	-9.71695e-08	9037970
3350.07	-9.23201e-08	9039048
3360.36	-8.67894e-08	9040256
3370.64	-8.12279e-08	9041262
3380.92	-7.56909e-08	9042216
3390.05	-7.0846e-08	9043044
3400.33	-6.55755e-08	9044114
3410.57	-6.06442e-08	9044870
3420.79	-5.62413e-08	9045438
3431	-5.26452e-08	9046126
3440.07	-5.04569e-08	9046838
3450.28	-4.96721e-08	9047460
3460.49	-5.14965e-08	9047970
3470.71	-5.71636e-08	9048320
3480.92	-6.84349e-08	9048792
3491.13	-8.78072e-08	9049562
3500.2	-1.14619e-07	9050122
3510.41	-1.59879e-07	9050688
3520.63	-2.27302e-07	9051354
3530.84	-3.25484e-07	9052078
3541.05	-4.65902e-07	9052770
3550.12	-6.38308e-07	9053164
3560.34	-9.03458e-07	9053970
3570.55	-1.2679e-06	9054724
3580.76	-1.76305e-06	9055430
3590.97	-2.42844e-06	9056114
3600.05	-3.20228e-06	9056728
3610.26	-4.33235e-06	9057608
3620.47	-5.80668e-06	9058602
3630.68	-7.71164e-06	9059390
3640.89	-1.01499e-05	9060206
3651.1	-1.3242e-05	9061054
3660.18	-1.66524e-05	9061600
3670.39	-2.13791e-05	9062278
3680.6	-2.72229e-05	9062630
3690.81	-3.43874e-05	9063434
3701.02	-4.30997e-05	9063966
3710.1	-5.23452e-05	9064560
3720.31	-6.46829e-05	9065084
3730.52	-7.93544e-05	9065622
3740.74	-9.66814e-05	9066372
3750.96	-0.000117019	9067240
3760.05	-0.000137895	9067878
3770.28	-0.000164865	9068804
3780.51	-0.000195894	9069528
3790.73	-0.000231379	9070242
3800.96	-0.000271724	9071072
3810.05	-0.000312003	9072034
3820.27	-0.000362667	9073002
3830.5	-0.000419407	9073846
3840.73	-0.000482656	9074900
3850.94	-0.000552757	9075992
3861.11	-0.000629874	9076718
3870.14	-0.000704803	9077692
3880.29	-0.000796775	9078514
3890.44	-0.000897289	9079608
3900.59	-0.00100683	9080512
3910.75	-0.00112586	9081324
3920.9	-0.00125488	9082072
3931.05	-0.00139436	9082924
3940.07	-0.00152755	9083748
3950.23	-0.00168821	9084930
3960.38	-0.00186083	9085858
3970.53	-0.00204595	9086846
3980.68	-0.00224411	9088080
3990.83	-0.00245586	9089310
4000.99	-0.00268174	9090338
4010.01	-0.00289481	9091154
4020.16	-0.00314882	9092080
4030.31	-0.00341844	9093020
4040.47	-0.00370414	9093964
4050.62	-0.00400636	9094684
4060.77	-0.00432547	9095610
4070.92	-0.00466181	9096604
4081.07	-0.00501565	9097538
4090.1	-0.00534502	9098356
4100.25	-0.00573241	9098930
4110.4	-0.00613767	9099766
4120.55	-0.00656082	9100466
4130.71	-0.00700184	9101246
4140.86	-0.00746068	9101818
4151.03	-0.00793714	9102352
4160.07	-0.00837568	9103244
4170.29	-0.00888683	9103972
4180.52	-0.00941495	9104776
4190.75	-0.00995944	9105629
4201	-0.0105202	9106623
4210.11	-0.011031	9107440
4220.35	-0.0116191	9108318
4230.6	-0.0122205	9108929
4240.85	-0.0128344	9109705
4251.09	-0.0134597	9110183
4260.21	-0.0140246	9110751
4270.47	-0.0146694	9111363
4280.72	-0.0153215	9111857
4290.97	-0.0159794	9112325
4300.05	-0.0165663	9112789
4310.27	-0.0172289	9113263
4320.49	-0.0178915	9113564
4330.7	-0.0185514	9113803
4340.79	-0.0191968	9114457
4350.87	-0.0198323	9114919
4360.96	-0.0204553	9115559
4371.05	-0.0210603	9116032
4380.02	-0.0215788	9116556
4390.11	-0.0221355	9117212
4400.2	-0.0226579	9117806
4410.29	-0.0231391	9118513
4420.38	-0.0235715	9119241
4430.47	-0.023947	9120015
4440.56	-0.0242566	9120731
4450.65	-0.0244906	9121631
4460.74	-0.0246384	9122327
4470.82	-0.0246888	9123349
4480.91	-0.0246296	9124099
4491	-0.0244477	9124813
4501.08	-0.0241289	9125857
4510.08	-0.0237169	9126618
4520.33	-0.0230857	9127566
4530.49	-0.022273	9128531
4540.57	-0.0212627	9129407
4550.66	-0.0200303	9130201
4560.75	-0.0185547	9131323
4570.84	-0.0168139	9132273
4580.93	-0.0147846	9133061
4591.02	-0.0124424	9133789
4601.1	-0.00976186	9134391
4610.07	-0.00707428	9134970
4620.16	-0.0036837	9135381
4630.26	0.000121014	9135593
4640.35	0.00436605	9135563
4650.44	0.00907688	9135937
4660.53	0.0142778	9136207
4670.62	0.019991	9136451
4680.72	0.0262366	9136864
4690.81	0.0330319	9137174
4700.9	0.0403908	9137644
4710.99	0.0483233	9138036
4721.08	0.0568352	9138244
4730.06	0.0648887	9138496
4740.15	0.0744939	9138950
4750.24	0.0846681	9139199
4760.33	0.0953977	9139167
4770.42	0.106664	9139313
4780.51	0.118444	9139621
4790.68	0.130804	9139781
4800.96	0.143765	9139769
4810.11	0.155666	9140265
4820.41	0.169423	9140653
4830.7	0.183528	9141391
4840.99	0.197932	9141667
4850.14	0.210944	9142033
4860.44	0.225769	9142532
4870.73	0.240739	9143138
4881.02	0.255798	9143892
4890.18	0.269216	9144296
4900.48	0.284304	9144812
4910.55	0.298987	9145138
4920.62	0.313529	9145874
4930.68	0.327897	9146480
4940.74	0.34204	9146830
4950.8	0.355908	9147470
4960.86	0.36945	9147788
4970.92	0.382616	9148476
4980.98	0.395356	9149075
4991.04	0.40762	9149501
5001.1	0.419358	9149979
5010.05	0.429308	9150509
5020.11	0.439911	9151057
5030.17	0.44984	9151717
5040.23	0.459042	9152339
5050.29	0.467466	9152989
5060.35	0.475059	9153511
5070.41	0.481771	9154533
5080.47	0.487553	9155167
5090.53	0.49236	9155775
5100.6	0.496149	9156579
5110.66	0.498884	9157090
5120.72	0.500532	9157682
5130.78	0.50107	9158222
5140.84	0.500479	9158448
5150.9	0.498753	9158574
5160.96	0.495889	9158866
5171.02	0.491897	9159028
5181.09	0.486792	9159170
5190.03	0.48134	9159414
5200.09	0.474202	9159676
5210.15	0.466034	9159672
5220.22	0.456869	9159642
5230.49	0.446534	9159892
5240.79	0.435219	9160150
5251.11	0.42298	9160165
5260.28	0.411372	9160339
5270.59	0.397534	9160535
5280.91	0.382912	9160719
5290.08	0.369289	9161048
5300.39	0.353294	9161240
5310.71	0.336626	9161132
5321.02	0.319321	9161347
5330.19	0.303431	9161445
5340.51	0.285002	9161189
5350.85	0.265993	9161097
5360.05	0.248675	9160719
5370.39	0.228763	9160358
5380.74	0.208458	9159977
5391.08	0.18785	9159529
5400.28	0.169372	9159121
5410.62	0.148547	9158881
5420.96	0.127868	9158751
5430.16	0.109787	9158481
5440.5	0.089984	9158251
5450.85	0.0709358	9157921
5460.04	0.0547515	9157793
5470.39	0.0374493	9157261
5480.73	0.0211029	9157034
5491.07	0.00564304	9156577
5500.27	-0.00745305	9156015
5510.61	-0.0216001	9155847
5520.96	-0.0352878	9155709
5530.15	-0.0472008	9155673
5540.5	-0.0604508	9155997
5550.84	-0.0736623	9156167
5560.04	-0.0854558	9156479
5570.38	-0.0988238	9156845
5580.69	-0.112339	9157062
5591.01	-0.12605	9157170
5600.18	-0.138405	9157455
5610.49	-0.152477	9157319
5620.81	-0.166694	9157625
5631.12	-0.180993	9158041
5640.29	-0.193703	9158503
5650.61	-0.207907	9159011
5660.92	-0.221889	9159454
5670.09	-0.234014	9159837
5680.41	-0.247164	9160067
5690.72	-0.259619	9160389
5701.04	-0.271185	9160801
5710.21	-0.28056	9161143
5720.53	-0.289919	9161725
5730.84	-0.297868	9162259
5740.01	-0.303655	9162563
5750.33	-0.308665	9162843
5760.64	-0.312067	9162836
5770.96	-0.31388	9163029
5780.13	-0.314194	9163227
5790.45	-0.313142	9163381
5800.76	-0.310659	9163535
5811.08	-0.306799	9164111
5820.25	-0.30225	9164653
5830.56	-0.295916	9165427
5840.94	-0.288295	9165863
5850.18	-0.28049	9166233
5860.59	-0.270629	9166787
5870.99	-0.259699	9167155
5880.23	-0.249162	9167486
5890.64	-0.236478	9167966
5901.04	-0.223028	9168240
5910.29	-0.210532	9168490
5920.69	-0.195992	9168792
5931.09	-0.181083	9169086
5940.34	-0.167644	9169378
5950.74	-0.152459	9169828
5961.15	-0.137336	9170328
5970.41	-0.124079	9170686
5980.83	-0.109511	9170964
5990.09	-0.0969763	9171415
6000.5	-0.0834526	9171679
6010.92	-0.0706451	9172177
6020.18	-0.0599348	9172175
6030.61	-0.0486955	9172563
6041.03	-0.0383823	9172445
6050.29	-0.0300167	9172463
6060.72	-0.0215194	9171899
6071.14	-0.0139884	9171571
6080.41	-0.00809203	9171271
6090.83	-0.00232965	9171139
6100.09	0.00204888	9170967
6110.52	0.00618071	9171361
6120.94	0.00952142	9171571
6130.2	0.0118704	9171625
6140.63	0.0138645	9171753
6151.05	0.0152229	9171923
6160.31	0.0159375	9172347
6170.7	0.0162297	9172737
6181.08	0.0160238	9172851
6190.28	0.0154547	9173093
6200.63	0.0144107	9173363
6210.97	0.0129665	9173567
6220.15	0.0113667	9174025
6230.47	0.00923234	9174595
6240.77	0.00676224	9175227
6251.06	0.003978	9175913
6260.19	0.00125252	9176289
6270.46	-0.00208344	9176889
6280.73	-0.00568746	9177333
6291	-0.0095382	9177717
6300.11	-0.013146	9178345
6310.34	-0.0173798	9178779
6320.56	-0.0217829	9178888
6330.77	-0.0263219	9179178
6340.98	-0.0309624	9179464
6350.05	-0.0351388	9179538
6360.24	-0.0398572	9179720
6370.43	-0.0445585	9179976
6380.59	-0.0491965	9180154
6390.75	-0.0537285	9180680
6400.9	-0.0581183	9181006
6411.05	-0.0623275	9180974
6420.07	-0.0658873	9180989
6430.22	-0.0696566	9180933
6440.37	-0.0731479	9180939
6450.52	-0.0763359	9181161
6460.66	-0.0792004	9181307
6470.81	-0.0817266	9181810
6480.95	-0.0839048	9182052
6491.08	-0.0857335	9182400
6500.09	-0.0870692	9183005
6510.23	-0.0882532	9183183
6520.36	-0.0891128	9183498
6530.49	-0.0896659	9183754
6540.63	-0.0899345	9184128
6550.76	-0.0899437	9184274
6560.89	-0.0897212	9184535
6571.02	-0.0892964	9185049
6580.03	-0.0887733	9185139
6590.16	-0.0880487	9185561
6600.3	-0.0872088	9185797
6610.43	-0.0862823	9186041
6620.56	-0.0852966	9186471
6630.74	-0.0842721	9187119
6640.93	-0.0832356	9187435
6651.11	-0.0822093	9187837
6660.15	-0.0813204	9188306
6670.31	-0.080361	9188909
6680.46	-0.0794543	9188999
6690.62	-0.0786092	9189383
6700.77	-0.0778317	9189577
6710.93	-0.0771248	9189845
6721.08	-0.0764887	9190213
6730.11	-0.0759808	9190375
6740.27	-0.0754701	9190697
6750.42	-0.0750174	9191001
6760.56	-0.0746143	9191277
6770.69	-0.0742512	9191595
6780.82	-0.0739166	9191945
6790.96	-0.0735988	9192209
6801.09	-0.0732856	9192355
6810.1	-0.0730007	9192487
6820.23	-0.0726614	9192485
6830.37	-0.0722901	9192541
6840.5	-0.0718746	9192281
6850.63	-0.0714029	9192145
6860.77	-0.0708639	9191727
6870.9	-0.070247	9191335
6881.04	-0.0695427	9190899
6890.04	-0.0688361	9190565
6900.18	-0.0679441	9190393
6910.31	-0.066943	9190371
6920.45	-0.0658282	9190363
6930.58	-0.0645964	9190719
6940.72	-0.0632459	9190735
6950.85	-0.0617769	9191103
6960.99	-0.060191	9191457
6971.12	-0.0584916	9191933
6980.13	-0.0568897	9192563
6990.26	-0.0549905	9193123
7000.4	-0.0529961	9193701
7010.53	-0.0509153	9194205
7020.67	-0.0487581	9194803
7030.8	-0.0465355	9194981
7040.96	-0.0442539	9195157
7050.02	-0.0421838	9195283
7060.23	-0.0398246	9195437
7070.44	-0.0374475	9195632
7080.66	-0.0350688	9195892
7090.88	-0.0327028	9196456
7101.12	-0.0303601	9196596
7110.27	-0.0283039	9197022
7120.63	-0.0260263	9197314
7131.02	-0.0238154	9197754
7140.26	-0.0219216	9198208
7150.65	-0.0198834	9198311
7161.03	-0.017956	9198455
7170.26	-0.0163446	9198613
7180.61	-0.0146573	9199023
7190.96	-0.0131066	9199287
7200.16	-0.0118477	9199643
7210.51	-0.0105703	9199997
7220.86	-0.0094429	9200595
7230.06	-0.00856786	9200969
7240.4	-0.00772618	9201597
7250.75	-0.00703378	9202464
7261.1	-0.00648706	9203533
7270.3	-0.0061192	9204300
7280.65	-0.00583226	9205015
7290.99	-0.00567159	9205733
7300.19	-0.00562722	9206217
7310.53	-0.00567852	9206809
7320.87	-0.00582597	9207457
7330.07	-0.00602788	9207851
7340.41	-0.00632308	9208369
7350.75	-0.00667758	9208767
7361.09	-0.00707797	9208983
7370.29	-0.00746151	9208991
7380.63	-0.00791195	9208959
7390.97	-0.00836997	9208995
7400.18	-0.00877352	9208736
7410.58	-0.00921396	9208303
7420.98	-0.00962663	9207951
7430.22	-0.00996129	9207645
7440.62	-0.0102921	9207497
7451	-0.0105655	9207081
7460.19	-0.0107533	9206321
7470.49	-0.010897	9205779
7480.76	-0.0109641	9205279
7491.02	-0.0109504	9204729
7500.15	-0.0108671	9204445
7510.42	-0.0106911	9204007
7520.69	-0.0104263	9203495
7530.96	-0.0100723	9203116
7540.09	-0.00968298	9202784
7550.35	-0.0091625	9202524
7560.62	-0.00855694	9202400
7570.89	-0.0078696	9202280
7580.02	-0.00719332	9202048
7590.29	-0.00636352	9201957
7600.56	-0.00546614	9201777
7610.83	-0.00450781	9201766
7621.06	-0.00349866	9201718
7630.13	-0.00256516	9201534
7640.3	-0.00148248	9201736
7650.44	-0.000372912	9201658
7660.56	0.000756028	9201844
7670.68	0.00189752	9201820
7680.8	0.00304261	9201904
7690.92	0.00418226	9201858
7701.04	0.00530748	9202156
7710.03	0.00628846	9202190
7720.15	0.00736269	9202250
7730.27	0.00839802	9202050
7740.38	0.00938687	9201740
7750.5	0.0103223	9201280
7760.62	0.0111982	9200586
7770.74	0.0120091	9199856
7780.85	0.0127508	9199548
7790.97	0.0134197	9198884
7801.09	0.0140136	9198355
7810.08	0.0144773	9197765
7820.2	0.0149269	9197090
7830.35	0.0153011	9196809
7840.5	0.0156007	9196450
7850.63	0.0158275	9196034
7860.75	0.0159856	9195848
7870.86	0.0160793	9195630
7880.98	0.0161132	9195266
7891.1	0.0160923	9194810
7900.09	0.0160319	9194580
7910.21	0.0159217	9194514
7920.33	0.0157718	9194314
7930.44	0.0155873	9194324
7940.56	0.0153731	9194360
7950.68	0.0151336	9194468
7960.8	0.0148732	9194492
7970.92	0.0145955	9194599
7981.02	0.0143044	9194701
7990.96	0.0140069	9194569
8000.87	0.0137016	9194621
8010.78	0.0133893	9194577
8020.69	0.013071	9194524
8030.6	0.0127476	9194470
8040.51	0.012419	9194205
8050.41	0.0120849	9193919
8060.31	0.0117443	9193997
8070.22	0.011396	9193827
8080.12	0.0110385	9193851
8090.03	0.0106696	9194060
8101.03	0.010244	9193963
8110.93	0.00984406	9194043
8120.84	0.00942559	9194252
8130.74	0.00898609	9194297
8140.65	0.0085231	9194453
8150.55	0.00803425	9194670
8160.45	0.00751729	9194749
8170.36	0.00697016	9194805
8180.26	0.00639097	9194696
8190.17	0.00577802	9194912
8200.07	0.00512981	9195152
8211.1	0.00436477	9195547
8220.04	0.00371057	9195813
8230.11	0.00293561	9196170
8240.2	0.00211762	9196400
8250.32	0.00125509	9196750
8260.44	0.000349361	9197040
8270.56	-0.000600303	9197445
8280.68	-0.0015946	9197993
8290.79	-0.00263418	9198363
8300.91	-0.00371965	9198653
8311.03	-0.00485158	9198881
8320.03	-0.00589716	9199121
8330.15	-0.00711819	9199549
8340.27	-0.008387	9199767
8350.39	-0.00970391	9200035
8360.51	-0.0110692	9200285
8370.63	-0.012483	9200629
8380.75	-0.0139453	9200898
8390.87	-0.0154563	9200650
8400.99	-0.0170156	9200614
8411.11	-0.0186232	9200353
8420.1	-0.0200922	9200164
8430.22	-0.0217895	9199876
8440.34	-0.0235334	9199430
8450.46	-0.025323	9199150
8460.58	-0.0271579	9198741
8470.73	-0.029041	9198351
8480.95	-0.0309776	9197793
8490.06	-0.0327392	9197370
8500.32	-0.0347591	9196870
8510.58	-0.0368144	9196467
8520.85	-0.038901	9195967
8531.11	-0.0410147	9195666
8540.24	-0.0429124	9195514
8550.5	-0.0450634	9195408
8560.76	-0.0472255	9195409
8571.03	-0.0493917	9195179
8580.15	-0.0513144	9194907
8590.41	-0.0534667	9194509
8600.68	-0.055599	9194326
8610.94	-0.0577017	9193670
8620.06	-0.0595375	9193378
8630.33	-0.0615558	9192906
8640.59	-0.0635137	9192703
8650.85	-0.0653999	9192258
8661.09	-0.0671986	9191704
8670.19	-0.0687181	9191366
8680.42	-0.0703287	9190946
8690.66	-0.0718237	9190330
8700.89	-0.0731919	9189814
8711.12	-0.0744227	9189194
8720.22	-0.0753933	9188650
8730.45	-0.0763372	9187934
8740.68	-0.0771157	9187221
8750.91	-0.0777199	9186555
8760.01	-0.0781044	9186126
8770.24	-0.0783585	9185438
8780.47	-0.0784177	9184671
8790.7	-0.0782763	9183879
8800.93	-0.0779296	9183269
8810.04	-0.0774457	9182703
8820.26	-0.076703	9182316
8830.47	-0.0757491	9181734
8840.68	-0.0745832	9181276
8850.89	-0.0732061	9180934
8861.1	-0.0716201	9180854
8870.17	-0.0700376	9181066
8880.38	-0.0680672	9181146
8890.59	-0.0659014	9181320
8900.8	-0.0635471	9181417
8911.01	-0.0610127	9181308
8920.08	-0.0586164	9181226
8930.29	-0.0557685	9180840
8940.5	-0.0527708	9180532
8950.71	-0.0496361	9179975
8960.91	-0.0463771	9179659
8971.11	-0.0430085	9179190
8980.17	-0.0399356	9178527
8990.36	-0.0364007	9177836
9000.54	-0.0328051	9177457
9010.66	-0.0291719	9177303
9020.77	-0.0255063	9177217
9030.88	-0.0218182	9177149
9040.99	-0.0181214	9176655
9051.1	-0.0144303	9176321
9060.09	-0.0111652	9175965
9070.2	-0.00752227	9175558
9080.3	-0.00392392	9175283
9090.41	-0.000382664	9174747
9100.52	0.00308962	9174543
9110.63	0.00648174	9174405
9120.74	0.00978323	9173989
9130.85	0.0129844	9173838
9140.95	0.0160765	9173390
9151.06	0.0190516	9172913
9160.05	0.0215941	9172561
9170.19	0.0243363	9171815
9180.33	0.0269468	9171304
9190.49	0.029419	9171220
9200.65	0.0317506	9171042
9210.82	0.0339377	9171004
9220.94	0.0359715	9170923
9231.05	0.0378586	9170841
9240.04	0.0394166	9170835
9250.14	0.0410379	9171063
9260.25	0.0425237	9171245
9270.36	0.0438788	9171381
9280.47	0.0451092	9171471
9290.58	0.0462215	9171413
9300.69	0.0472235	9171305
9310.8	0.0481235	9171093
9320.91	0.0489304	9171247
9331.02	0.0496539	9171065
9340	0.0502349	9170993
9350.11	0.0508279	9171305
9360.22	0.0513666	9171853
9370.33	0.0518613	9172301
9380.44	0.0523222	9173097
9390.55	0.0527591	9173591
9400.66	0.0531818	9174073
9410.77	0.0535994	9174481
9420.88	0.0540204	9175437
9430.99	0.054453	9175891
9441.1	0.0549044	9176626
9450.09	0.0553267	9177202
9460.2	0.0558309	9177552
9470.31	0.0563706	9177852
9480.42	0.0569498	9177932
9490.53	0.0575719	9178238
9500.64	0.058239	9178668
9510.75	0.0589523	9178998
9520.86	0.0597125	9179170
9531	0.0605206	9179290
9540.05	0.0612797	9179394
9550.24	0.0621748	9179574
9560.44	0.0631091	9179522
9570.63	0.0640782	9179558
9580.82	0.0650769	9180082
9591.01	0.0660992	9180124
9600.07	0.0670223	9180154
9610.26	0.0680701	9180102
9620.45	0.0691202	9180426
9630.64	0.0701643	9180234
9640.84	0.0711936	9180174
9651.03	0.0721991	9180024
9660.09	0.0730658	9179990
9670.28	0.074002	9180284
9680.47	0.0748887	9180500
9690.66	0.0757172	9180488
9700.85	0.0764795	9180350
9711.04	0.077168	9180332
9720.1	0.0777123	9180452
9730.29	0.0782428	9180378
9740.48	0.0786815	9180140
9750.68	0.0790237	9179929
9760.87	0.0792657	9179799
9771.06	0.0794049	9179641
9780.12	0.0794409	9179353
9790.31	0.0793819	9179294
9800.5	0.0792178	9179288
9810.69	0.0789494	9179010
9820.88	0.0785786	9178976
9831.08	0.0781079	9178973
9840.14	0.0776081	9179086
9850.33	0.0769577	9179170
9860.52	0.076218	9179366
9870.71	0.0753934	9179240
9880.9	0.0744885	9179301
9891.1	0.0735081	9179419
9900.16	0.072577	9179373
9910.35	0.0714668	9179517
9920.54	0.070294	9179832
9930.73	0.0690629	9179986
9940.92	0.067777	9179938
9951.11	0.0664396	9180194
9960.15	0.0652119	9180340
9970.3	0.0637896	9180038
9980.43	0.0623232	9179649
9990.57	0.0608121	9179059
10000.7	0.0592567	9178503
10010.8	0.0576568	9178034
10021	0.0560118	9177276
10031.1	0.0543207	9176895
10040.1	0.0527776	9176591
10050.3	0.0509955	9176292
10060.4	0.049163	9175576
10070.5	0.0472784	9175587
10080.7	0.0453402	9175609
10090.8	0.043347	9175514
10100.9	0.0412979	9175098
10111.1	0.0391921	9175134
10120.1	0.0372726	9175405
10130.2	0.0350597	9175424
10140.4	0.0327911	9175666
10150.5	0.0304681	9175736
10160.6	0.0280931	9175765
10170.8	0.0256688	9176104
10180.9	0.0231986	9176666
10191.1	0.0206867	9176766
10200.1	0.0184166	9177064
10210.3	0.0158284	9177450
10220.5	0.0132138	9177799
10230.6	0.0105797	9177975
10240.8	0.00793331	9178121
10251	0.00528253	9178211
10260	0.00293058	9178697
10270.2	0.000296439	9179086
10280.4	-0.00231801	9179335
10290.6	-0.00490484	9179448
10300.7	-0.00745545	9179859
10310.9	-0.00996131	9180352
10321.1	-0.012414	9181033
10330.1	-0.014543	9181648
10340.3	-0.0168735	9182468
10350.4	-0.0191284	9182966
10360.6	-0.0213009	9183620
10370.8	-0.0233848	9184114
10380.9	-0.0253746	9184685
10391.1	-0.0272656	9185135
10400.1	-0.0288602	9185547
10410.3	-0.0305544	9185955
10420.5	-0.0321408	9186302
10430.6	-0.0336178	9186641
10440.8	-0.0349855	9186830
10451	-0.0362482	9187128
10460.1	-0.0372788	9187593
10470.3	-0.0383367	9187511
10480.5	-0.0392897	9187703
10490.7	-0.0401408	9187628
10500.9	-0.040894	9187716
10510	-0.0414846	9187795
10520.2	-0.0420642	9187964
10530.4	-0.0425591	9188140
10540.6	-0.0429743	9187974
10550.8	-0.043315	9187553
10561	-0.0435861	9187153
10570.1	-0.0437726	9186659
10580.3	-0.0439253	9186347
10590.5	-0.0440216	9185897
10600.7	-0.0440655	9185442
10610.9	-0.0440605	9185264
10621.1	-0.0440094	9185018
10630.1	-0.0439274	9184582
10640.3	-0.0437958	9184356
10650.5	-0.0436237	9184378
10660.7	-0.0434124	9184330
10670.9	-0.0431622	9184113
10681.1	-0.0428734	9183673
10690.2	-0.0425841	9183475
10700.4	-0.0422217	9182863
10710.6	-0.0418194	9182195
10720.8	-0.0413766	9181781
10731	-0.0408931	9181290
10740.1	-0.0404289	9180695
10750.3	-0.039868	9180075
10760.5	-0.0392663	9179443
10770.7	-0.0386251	9178364
10780.9	-0.0379455	9177348
10791.1	-0.0372292	9176544
10800.2	-0.0365637	9175540
10810.4	-0.0357853	9174402
10820.6	-0.0349793	9173035
10830.8	-0.0341502	9172075
10841	-0.033303	9170955
10850.1	-0.0325396	9170141
10860.3	-0.0316748	9169041
10870.5	-0.0308102	9167829
10880.7	-0.0299532	9166805
10890.9	-0.0291112	9165999
10901.1	-0.028292	9164894
10910.1	-0.0275893	9163960
10920.3	-0.0268345	9162912
10930.5	-0.026125	9161553
10940.7	-0.025468	9160199
10950.9	-0.0248707	9159067
10961.1	-0.0243395	9157886
10970.2	-0.0239278	9156704
10980.4	-0.0235375	9155652
10990.6	-0.0232289	9154844
11000.8	-0.023006	9153802
11011	-0.022872	9152974
11020.1	-0.0228296	9152562
11030.3	-0.0228696	9151772
11040.5	-0.0230035	9151033
11050.7	-0.0232324	9150287
11061	-0.0235568	9149850
11070.2	-0.0239243	9149242
11080.5	-0.0244246	9149322
11090.8	-0.0250142	9149313
11101.1	-0.0256899	9149208
11110.2	-0.02636	9149151
11120.5	-0.0271881	9148661
11130.8	-0.0280904	9148057
11141.1	-0.0290622	9147765
11150.3	-0.0299802	9147343
11160.6	-0.031069	9146921
11170.9	-0.0322119	9146429
11180	-0.0332683	9145965
11190.3	-0.0344973	9145435
11200.6	-0.0357615	9144823
11210.9	-0.0370546	9144379
11221.1	-0.0383741	9143981
11230.2	-0.0395646	9143857
11240.5	-0.0409191	9144031
11250.7	-0.0422845	9143991
11260.9	-0.0436481	9143877
11271	-0.0450059	9143814
11280	-0.0462066	9143920
11290.1	-0.0475468	9144366
11300.2	-0.0488743	9144873
11310.3	-0.0501853	9144947
11320.4	-0.0514755	9145229
11330.5	-0.0527411	9145445
11340.6	-0.0539779	9145563
11350.7	-0.0551821	9145599
11360.7	-0.05635	9145818
11370.8	-0.0574777	9145642
11380.9	-0.0585617	9145395
11391	-0.0595984	9144993
11401.1	-0.0605844	9144699
11410.1	-0.0614155	9144448
11420.2	-0.0622968	9143954
11430.3	-0.0631196	9143658
11440.4	-0.0638811	9143196
11450.6	-0.0645801	9143074
11460.8	-0.0652121	9143299
11471	-0.0657726	9143457
11480.1	-0.0662098	9143359
11490.3	-0.066632	9143281
11500.5	-0.0669799	9143343
11510.8	-0.0672536	9143375
11521	-0.0674538	9143339
11530.1	-0.0675713	9143005
11540.3	-0.0676373	9142203
11550.5	-0.067636	9141643
11560.8	-0.0675707	9141545
11571	-0.0674456	9141525
11580.1	-0.0672884	9141609
11590.4	-0.0670649	9141577
11600.6	-0.0667983	9141734
11610.9	-0.0664954	9141826
11621.1	-0.0661635	9141482
11630.2	-0.0658506	9141226
11640.5	-0.0654855	9140644
11650.7	-0.0651147	9139766
11661	-0.0647465	9139082
11670.1	-0.0644279	9138414
11680.3	-0.0640867	9137636
11690.6	-0.0637713	9136774
11700.8	-0.0634891	9136143
11711.1	-0.0632476	9135703
11720.1	-0.0630721	9135327
11730.3	-0.0629238	9135079
11740.3	-0.0628311	9135225
11750.4	-0.0627974	9135387
11760.4	-0.0628251	9135319
11770.4	-0.0629165	9135405
11780.4	-0.0630729	9135337
11790.5	-0.0632953	9135211
11800.5	-0.0635833	9135045
11810.5	-0.063936	9135359
11820.5	-0.0643517	9135361
11830.5	-0.0648277	9135321
11840.5	-0.0653607	9134911
11850.6	-0.0659467	9134473
11860.6	-0.0665809	9133979
11870.6	-0.0672581	9133291
11880.6	-0.0679722	9132499
11890.6	-0.0687174	9131907
11900.7	-0.0694871	9131299
11910.7	-0.0702754	9130318
11920.8	-0.0710725	9129745
11930.8	-0.0718705	9128859
11940.9	-0.0726612	9127817
11951	-0.0734376	9126531
11961.1	-0.0741913	9125699
11970.1	-0.0748364	9124645
11980.2	-0.0755249	9124001
11990.4	-0.0761669	9123251
12000.6	-0.0767525	9122659
12010.8	-0.077274	9122191
12021	-0.0777243	9121839
12031.1	-0.0780963	9121347
12040.1	-0.0783573	9120881
12050.3	-0.0785682	9120555
12060.5	-0.0786875	9120265
12070.6	-0.0787119	9120117
12080.8	-0.0786387	9120053
12090.9	-0.0784667	9120149
12101.1	-0.0781952	9120211
12110.1	-0.0778708	9120191
12120.3	-0.0774136	9120313
12130.4	-0.0768611	9120767
12140.6	-0.0762165	9121159
12150.7	-0.0754846	9121595
12160.8	-0.0746723	9121694
12170.9	-0.0737843	9121803
12181	-0.072826	9121605
12190	-0.0719207	9121193
12200.1	-0.0708484	9120717
12210.2	-0.0697265	9120247
12220.3	-0.0685626	9120200
12230.4	-0.0673646	9120404
12240.5	-0.06614	9120285
12250.7	-0.0648967	9120299
12260.8	-0.0636419	9120369
12270.9	-0.0623827	9120334
12281	-0.0611258	9119870
12291.1	-0.0598772	9119350
12300.1	-0.0587789	9118800
12310.2	-0.0575608	9118534
12320.3	-0.0563654	9117984
12330.4	-0.0551965	9117620
12340.5	-0.0540569	9117082
12350.6	-0.052949	9116312
12360.7	-0.0518745	9116005
12370.8	-0.0508342	9115217
12380.9	-0.049828	9114611
12391	-0.0488539	9114261
12400.1	-0.0480151	9113897
12410.2	-0.047102	9113287
12420.3	-0.0462195	9112541
12430.5	-0.0453654	9111707
12440.6	-0.044537	9110545
12450.8	-0.043731	9109455
12461	-0.0429426	9108576
12470.1	-0.0422536	9107402
12480.3	-0.0414891	9106270
12490.5	-0.0407338	9105498
12500.7	-0.039984	9104982
12511	-0.0392359	9104258
12520.1	-0.0385691	9103738
12530.3	-0.037817	9103259
12540.3	-0.0370633	9103087
12550.4	-0.0363028	9102845
12560.4	-0.0355281	9102878
12570.4	-0.034735	9102732
12580.3	-0.0339222	9102583
12590.2	-0.0330917	9102419
12600.1	-0.0322411	9102464
12611	-0.0312661	9102261
12620.8	-0.0303578	9102036
12630.6	-0.0294183	9102106
12640.4	-0.028446	9102312
12650.2	-0.0274398	9102377
12660.1	-0.0263984	9102471
12671	-0.0251992	9102575
12680.8	-0.024081	9102487
12690.6	-0.0229256	9102280
12700.4	-0.0217325	9101788
12710.2	-0.0205016	9100764
12720	-0.0192327	9099777
12730.9	-0.0177784	9098494
12740.8	-0.0164298	9097614
12750.6	-0.0150438	9097004
12760.4	-0.0136207	9096288
12770.2	-0.0121611	9095610
12780	-0.0106655	9094865
12790.9	-0.00895903	9093777
12800.8	-0.00738018	9092809
12810.7	-0.00575943	9091619
12820.6	-0.00410301	9090460
12830.6	-0.00241321	9089392
12840.5	-0.000688851	9088062
12850.5	0.00107418	9087140
12860.5	0.00288187	9086219
12870.6	0.00472629	9085507
12880.7	0.00660067	9084685
12890.8	0.00850399	9084411
12900.8	0.0104351	9083925
12910.9	0.0123932	9083507
12921	0.0143789	9083069
12930	0.0161701	9082925
12940.2	0.0182153	9082854
12950.4	0.0202858	9082850
12960.5	0.0223684	9082876
12970.6	0.0244466	9083015
12980.5	0.0265287	9083152
12990.5	0.0286219	9083473
13000.5	0.0307263	9083795
13010.5	0.0328398	9083857
13020.4	0.0349599	9083876
13030.4	0.0370842	9083957
13040.4	0.03921	9084011
13050.3	0.0413347	9083699
13060.3	0.0434554	9083517
13070.3	0.0455687	9083136
13080.2	0.0476544	9082758
13090	0.0497171	9082546
13100.9	0.051982	9082338
13110.7	0.0539961	9082484
13120.4	0.0559892	9082438
13130.2	0.0579587	9082516
13141	0.0601157	9082378
13150.8	0.0620261	9082308
13160.6	0.0639043	9081899
13170.4	0.0657477	9081660
13180.1	0.067554	9081288
13191	0.0695145	9080810
13200.7	0.0712346	9080418
13210.5	0.0729106	9079914
13220.3	0.0745404	9079569
13230.1	0.0761226	9079023
13240.9	0.0778227	9078173
13250.7	0.0793044	9077417
13260.5	0.0807337	9076622
13270.3	0.0821005	9075861
13281	0.0835463	9074834
13290.7	0.0847871	9074014
13300.3	0.0859739	9073057
13311	0.0872299	9072167
13320.7	0.0883039	9071311
13330.3	0.089325	9070226
13341.1	0.0903983	9069004
13350.7	0.09131	9068086
13360.3	0.0921714	9067090
13371.1	0.0930709	9066004
13380.7	0.0938302	9065154
13390.3	0.0945435	9064335
13401.1	0.095284	9063579
13410.7	0.0959057	9063033
13420.4	0.0964868	9062311
13431.1	0.0970873	9061437
13440.7	0.097589	9060853
13450.4	0.0980562	9060200
13460	0.0984908	9059422
13470.7	0.0989382	9058574
13480.5	0.0993129	9057801
13490.3	0.0996625	9057088
13500.2	0.0999878	9056304
13510.1	0.100288	9055556
13521	0.100592	9054463
13530.9	0.100843	9053749
13540.8	0.101071	9053049
13550.6	0.101279	9052023
13560.4	0.101467	9051409
13570.2	0.101636	9050791
13580.1	0.101788	9050146
13591	0.101936	9049470
13600.8	0.102052	9049204
13610.7	0.102152	9048730
13620.5	0.102237	9048041
13630.3	0.102307	9047788
13640.1	0.102363	9047089
13651.1	0.102409	9046609
13660.9	0.102437	9046432
13670.7	0.102454	9045984
13680.5	0.102459	9045727
13690.3	0.102454	9045325
13700.1	0.102439	9045000
13710.9	0.102411	9044276
13720.7	0.102377	9043903
13730.4	0.102335	9043624
13740.2	0.102286	9043546
13751	0.102222	9043272
13760.7	0.102157	9043076
13770.3	0.102085	9043086
13781	0.101997	9043388
13790.6	0.101908	9043342
13800.2	0.101811	9043468
13810.9	0.101691	9043411
13820.5	0.101572	9043301
13830.2	0.101439	9043191
13840.8	0.101275	9043155
13850.5	0.10111	9042977
13860.1	0.100926	9042753
13870.8	0.100696	9042621
13880.4	0.100464	9042339
13890	0.100206	9042137
13900.7	0.0998835	9042209
13910.3	0.099559	9041823
13921	0.0991555	9041243
13930.7	0.0987496	9040590
13940.4	0.0982991	9039806
13950.1	0.0978019	9039154
13960.9	0.097192	9038284
13970.7	0.0965873	9037358
13980.4	0.0959264	9036544
13990.2	0.0952086	9035940
14001	0.0943422	9035085
14010.8	0.0934974	9034343
14020.6	0.09259	9033693
14030.4	0.0916193	9032633
14040.3	0.0905836	9031687
14050.1	0.0894815	9030660
14060	0.0883131	9029769
14071	0.0869427	9028657
14080.9	0.0856461	9027687
14090.8	0.0842917	9026573
14100.7	0.0828795	9025663
14110.7	0.0814146	9024639
14120.7	0.0798948	9023625
14130.7	0.0783249	9022697
14140.8	0.0767042	9021944
14150.9	0.075039	9021036
14161.1	0.0733362	9019991
14170.1	0.0718079	9019013
14180.1	0.0700748	9018000
14190.2	0.0683283	9016900
14200.2	0.0665701	9015611
14210.3	0.0648043	9014649
14220.3	0.0630355	9013497
14230.4	0.0612678	9012505
14240.4	0.0595051	9011220
14250.5	0.057751	9010025
14260.5	0.0560084	9008677
14270.6	0.0542801	9007391
14280.6	0.0525683	9006377
14290.7	0.0508749	9005161
14300.7	0.049201	9003701
14310.8	0.0475477	9002431
14320.8	0.0459154	9000681
14330.9	0.0443017	8999470
14341	0.0427037	8998370
14350	0.0412929	8997486
14360.2	0.039713	8996742
14370.5	0.0381434	8996184
14380.8	0.0365906	8995704
14391.1	0.035053	8995418
14400.2	0.0336972	8995168
14410.5	0.0321823	8994664
14420.7	0.0306762	8994378
14431	0.0291768	8994127
14440.2	0.0278477	8993814
14450.4	0.0263546	8993706
14460.7	0.0248618	8993466
14471	0.0233672	8993218
14480.1	0.0220356	8993256
14490.4	0.0205348	8993344
14500.6	0.0190307	8993641
14510.8	0.0175193	8993845
14521.1	0.0159984	8993909
14530.1	0.0146376	8994114
14540.4	0.0130958	8994274
14550.6	0.0115419	8994392
14560.8	0.00997519	8994456
14571.1	0.00839518	8994290
14580.1	0.0069793	8994348
14590.4	0.00537336	8994322
14600.6	0.00375343	8994376
14610.8	0.00211947	8994286
14621.1	0.000467719	8994224
14630.2	-0.00101742	8994260
14640.6	-0.00271082	8994243
14650.9	-0.00441856	8994257
14660.1	-0.00594743	8993983
14670.4	-0.00767361	8993531
14680.7	-0.00941295	8993125
14691	-0.0111654	8992605
14700.2	-0.0127338	8991804
14710.5	-0.01451	8991234
14720.8	-0.0162983	8990714
14731.1	-0.0180981	8989733
14740.2	-0.0197072	8988851
14750.5	-0.0215271	8988060
14760.8	-0.0233525	8987178
14771	-0.0251792	8986301
14780.1	-0.026804	8985090
14790.2	-0.028628	8983966
14800.4	-0.0304534	8983184
14810.5	-0.0322797	8982286
14820.6	-0.0341082	8981528
14830.7	-0.0359373	8980520
14840.8	-0.0377651	8978885
14850.9	-0.0395898	8977233
14861	-0.0414093	8975547
14870	-0.0430205	8973713
14880.1	-0.0448254	8971555
14890.2	-0.0466197	8969215
14900.4	-0.0484032	8966765
14910.5	-0.0501733	8964331
14920.7	-0.0519237	8961637
14930.8	-0.05365	8959317
14940.9	-0.0553503	8956780
14950.9	-0.0570224	8954591
14961	-0.0586692	8952392
14971.1	-0.0602877	8950306
14981.1	-0.0618769	8948022
14991.1	-0.0634293	8945803
15001.1	-0.0649522	8943670
15011.1	-0.066445	8941778
15021.1	-0.0679071	8939970
15031	-0.069338	8938313
15041	-0.0707375	8936441
15051	-0.0721096	8934352
15061.1	-0.0734517	8932356
15070	-0.074624	8930821
15080.2	-0.0759212	8929104
15090.5	-0.0771975	8927201
15100.8	-0.0784468	8925124
15111.1	-0.0796663	8923129
15120.4	-0.0807206	8921267
15130.7	-0.081872	8919308
15141.1	-0.0829863	8917573
15150.2	-0.0839444	8916147
15160.6	-0.0849812	8914461
15170.8	-0.0859717	8912826
15181	-0.0869162	8911073
15190.1	-0.0877168	8909978
15200.3	-0.0885721	8908608
15210.4	-0.0893775	8907866
15220.6	-0.0901296	8906794
15230.8	-0.0908248	8905654
15241	-0.0914593	8904662
15250	-0.0919689	8903764
15260.2	-0.0924771	8902801
15270.4	-0.0929121	8901765
15280.6	-0.0932696	8900680
15290.8	-0.0935445	8899862
15300.9	-0.0937327	8898846
15311	-0.0938303	8897892
15320	-0.093838	8896986
15330.1	-0.0937548	8896152
15340.2	-0.0935707	8895402
15350.3	-0.0932825	8894618
15360.4	-0.0928869	8893848
15370.5	-0.0923813	8893122
15380.5	-0.0917634	8892386
15390.6	-0.0910299	8891615
15400.9	-0.09017	8890623
15411.1	-0.0891891	8889748
15420.3	-0.0882102	8888820
15430.6	-0.0869869	8887995
15441	-0.0856371	8887242
15450.2	-0.0843411	8886655
15460.5	-0.0827856	8885889
15470.6	-0.0811333	8884861
15480.7	-0.0793733	8883973
15490.9	-0.0775069	8883068
15501	-0.0755376	8882453
15511.1	-0.0734693	8881847
15520.1	-0.071551	8881225
15530.3	-0.0693072	8880414
15540.4	-0.066977	8879607
15550.5	-0.0645648	8879151
15560.8	-0.0620467	8878569
15570.1	-0.0597094	8877994
15580.5	-0.0570006	8877351
15591.1	-0.0542075	8876626
15600.5	-0.0516685	8875946
15611.1	-0.0487638	8874895
15620.5	-0.0461445	8874192
15631.1	-0.0431623	8873582
15640.6	-0.040486	8873021
15651.1	-0.0374634	8872347
15660.5	-0.0347713	8871807
15670.9	-0.0317494	8871090
15680.2	-0.0290714	8870240
15690.6	-0.0260681	8869333
15701.1	-0.0230808	8868360
15710.3	-0.0204426	8867469
15720.7	-0.0175007	8866575
15731.1	-0.0145942	8865374
15740.4	-0.0120465	8864118
15750.8	-0.00922167	8862811
15760.2	-0.00674416	8861853
15770.7	-0.00400709	8860552
15780.1	-0.00163776	8859170
15790.6	0.000944611	8857847
15801.1	0.00343314	8856540
15810.4	0.00556196	8855114
15820.9	0.00785858	8853827
15830.2	0.00980788	8852673
15840.7	0.01189	8851584
15850	0.0136355	8850501
15860.5	0.0154753	8849522
15870.9	0.0171792	8848496
15880.2	0.0185756	8847640
15890.6	0.0200116	8846788
15901	0.0213002	8845783
15910.3	0.0223186	8844906
15920.7	0.0233183	8843648
15931.1	0.0241632	8842371
15940.8	0.0248017	8841447
15951	0.0253255	8840637
15960	0.0256571	8840043
15970.3	0.0258873	8839237
15980.6	0.0259587	8838510
15990.9	0.0258719	8837714
16001.1	0.0256282	8836860
16010.1	0.0252877	8836154
16020.4	0.0247552	8835382
16030.7	0.0240726	8834663
16041	0.0232434	8833749
16051.3	0.0222714	8832767
16060.3	0.0213073	8832078
16070.6	0.0200776	8831344
16080.9	0.0187166	8830555
16091.2	0.0172288	8829688
16100.2	0.0158283	8828880
16110.6	0.0141214	8827883
16120.9	0.012307	8826787
16131.2	0.0103916	8825992
16140.3	0.00863787	8825260
16150.6	0.00655077	8824563
16161	0.00438173	8824069
16170	0.00242196	8823429
16180.3	0.000117678	8822638
16190.7	-0.00224885	8821826
16201	-0.00467069	8820978
16210.1	-0.00682966	8820069
16220.4	-0.00933626	8819145
16230.7	-0.0118811	8818180
16241.1	-0.0144549	8817236
16250.1	-0.0167164	8816311
16260.4	-0.0193067	8815286
16270.7	-0.0219032	8814180
16281	-0.024498	8813255
16291.3	-0.0270833	8812260
16300.3	-0.0293313	8811469
16310.6	-0.0318767	8810394
16320.9	-0.0343888	8809124
16331.2	-0.0368589	8808196
16340.2	-0.0389788	8807366
16350.5	-0.0413463	8806402
16360.7	-0.043646	8805687
16371	-0.045869	8804791
16380	-0.0477439	8804033
16390.3	-0.0497984	8803396
16400.6	-0.0517502	8802766
16410.9	-0.0535906	8802189
16421.2	-0.0553113	8801616
16430.2	-0.0567123	8801113
16440.5	-0.0581872	8800467
16450.8	-0.0595209	8799875
16461.1	-0.0607076	8799175
16470.1	-0.061621	8798661
16480.4	-0.0625172	8798017
16490.8	-0.0632568	8797511
16501.3	-0.0638381	8796802
16510.6	-0.064206	8796175
16521.1	-0.0644621	8795461
16530.6	-0.0645431	8794812
16540.1	-0.0644849	8794112
16551.1	-0.0642475	8793286
16560.7	-0.0638937	8792562
16570.3	-0.0634077	8791808
16581.2	-0.0626968	8790837
16590.8	-0.0619449	8790011
16600.4	-0.0610785	8789265
16611.3	-0.059957	8788445
16620.9	-0.0588693	8787665
16630.5	-0.0576909	8786896
16640.1	-0.0564302	8785888
16651	-0.0548998	8784804
16660.6	-0.0534925	8783906
16670.2	-0.0520313	8783027
16681.1	-0.0503069	8781977
16690.7	-0.048761	8780895
16700.3	-0.0471899	8779929
16711.3	-0.0453748	8779005
16720.9	-0.043777	8778203
16730.5	-0.0421776	8777499
16740.1	-0.0405893	8776856
16751	-0.0387993	8776008
16760.6	-0.0372691	8775262
16770	-0.035781	8774580
16780.8	-0.0341385	8773942
16790.1	-0.03275	8773365
16800.8	-0.0312208	8772681
16810.1	-0.0299349	8772127
16820.7	-0.028527	8771467
16830	-0.0273514	8770911
16840.7	-0.0260741	8770320
16850	-0.0250153	8769780
16860.6	-0.0238727	8769292
16871.3	-0.0228018	8768820
16880.6	-0.0219225	8768494
16891.3	-0.0209821	8768020
16900.6	-0.0202139	8767773
16911.2	-0.0193952	8767413
16920.6	-0.0187253	8767163
16931.3	-0.0180132	8766961
16940.7	-0.0174351	8766781
16950.1	-0.0168962	8766525
16961.3	-0.0163021	8766521
16970.7	-0.0158395	8766381
16980.1	-0.015407	8766351
16991	-0.0149367	8766378
17000.4	-0.0145597	8766354
17011.3	-0.0141464	8766316
17021	-0.0138024	8766240
17030.6	-0.0134748	8766266
17040.3	-0.0131609	8766335
17051.6	-0.0128085	8766267
17061.4	-0.0125106	8766291
17071.2	-0.0122189	8766275
17081	-0.0119309	8766271
17090.8	-0.0116445	8766261
17100.6	-0.0113576	8766241
17110.4	-0.0110682	8766215
17120.3	-0.0107745	8766195
17130.1	-0.0104748	8766179
17141.5	-0.0101154	8766221
17151.3	-0.00979735	8766181
17161.2	-0.00946858	8766131
17171	-0.0091279	8766073
17180.8	-0.00877425	8766053
17190.6	-0.00840668	8765993
17200.6	-0.00801918	8766009
17210.6	-0.00761321	8765943
17220.6	-0.00719083	8765821
17230.6	-0.00675178	8765787
17240.6	-0.00629598	8765629
17250.6	-0.00582357	8765567
17260.6	-0.00533492	8765521
17270.7	-0.0048306	8765456
17280.7	-0.00431144	8765374
17291	-0.00375912	8765291
17301.6	-0.00318316	8765221
17310.4	-0.0026925	8765109
17321	-0.00209367	8765143
17331.7	-0.00148256	8765174
17340.8	-0.000956181	8765180
17351.7	-0.000321198	8765157
17360.8	0.000208623	8765189
17370.8	0.000785801	8765323
17380.6	0.00135469	8765235
17390.5	0.00191735	8765129
17400.7	0.00248737	8765047
17411.3	0.00306452	8765065
17420.1	0.0035364	8765005
17430.8	0.0040845	8764883
17441.4	0.00460991	8764800
17450.3	0.00502833	8764802
17460.9	0.00550474	8764768
17471.5	0.00595071	8764732
17480.4	0.00629739	8764696
17491.1	0.00668238	8764770
17501.6	0.00702762	8764796
17510.3	0.00728419	8764754
17520.7	0.00755536	8764684
17531	0.0077871	8764572
17541.5	0.00798117	8764496
17551.5	0.00813023	8764413
17561.5	0.00824082	8764311
17571.5	0.00831368	8764269
17581.6	0.00834885	8764275
17591.6	0.00834652	8764197
17601.7	0.00830637	8764207
17610.4	0.00824226	8764165
17620.7	0.00813044	8764182
17631.4	0.00797617	8764184
17640.3	0.00781802	8764191
17650.9	0.00759389	8764149
17661.6	0.00733368	8764017
17670.5	0.0070882	8763952
17681.4	0.00675807	8763844
17690.6	0.00645735	8763772
17701.5	0.00606856	8763732
17710.6	0.00572301	8763704
17721.4	0.00529152	8763687
17731.6	0.00485949	8763693
17740.6	0.00446815	8763590
17751.5	0.00397568	8763579
17760.6	0.00355395	8763569
17771.4	0.00304778	8763569
17780.3	0.00262066	8763460
17791.3	0.00209654	8763372
17800.4	0.0016602	8763190
17811.3	0.00114126	8763119
17820.4	0.000715852	8763009
17831.4	0.000217888	8762869
17840.5	-0.00018341	8762909
17851.4	-0.000642423	8762847
17860.4	-0.00100322	8762783
17871.2	-0.00140828	8762789
17880.3	-0.00171967	8762941
17891.1	-0.00205884	8763085
17900.2	-0.00231094	8763247
17911.2	-0.00257176	8763338
17920.3	-0.00275165	8763384
17931.2	-0.00291966	8763493
17940.1	-0.00301686	8763541
17951	-0.00308481	8763521
17960.1	-0.00309765	8763469
17971.1	-0.00305913	8763479
17980.2	-0.00298165	8763509
17991.1	-0.00283406	8763711
18000.2	-0.00266581	8763863
18010.8	-0.00241846	8763945
18021.4	-0.0021177	8763952
18030.4	-0.00182476	8763960
18041.2	-0.0014204	8763942
18050.2	-0.0010471	8764046
18061	-0.000555501	8764076
18070.1	-0.000106861	8764096
18081	0.000464906	8764162
18090	0.000969499	8764254
18100.9	0.00161002	8764338
18110.1	0.00216591	8764286
18121	0.00285513	8764440
18130.1	0.00344434	8764486
18141.1	0.00416446	8764508
18150.2	0.00477162	8764554
18161.1	0.00550368	8764596
18170.2	0.00611264	8764617
18181.2	0.006837	8764585
18190.3	0.00743129	8764391
18201.1	0.00812319	8764200
18211.7	0.0087767	8764088
18220.6	0.0093004	8763980
18231.1	0.00990023	8763874
18241.7	0.0104644	8763800
18250.6	0.0109041	8763737
18261.2	0.0113915	8763636
18271.7	0.0118314	8763574
18280.6	0.0121591	8763420
18291.2	0.012503	8763347
18301.4	0.0127821	8763349
18311.6	0.0130052	8763197
18320.3	0.0131508	8763058
18330.6	0.0132713	8762847
18341	0.0133321	8762803
18351.4	0.0133327	8762737
18360.1	0.0132875	8762705
18370.4	0.0131789	8762593
18380.9	0.0130106	8762516
18391.6	0.0127803	8762404
18400.5	0.0125447	8762226
18411.1	0.012212	8762078
18420	0.0118954	8762062
18430.7	0.0114733	8761982
18441.1	0.0110175	8761934
18451.4	0.0105295	8761956
18461.4	0.0100212	8761964
18471.3	0.00949819	8761952
18480.9	0.00896458	8761908
18490.5	0.00842273	8761840
18501.5	0.0077839	8761772
18510.8	0.00723481	8761750
18520.1	0.00668594	8761790
18531	0.00604675	8761824
18540.7	0.00548344	8761770
18550.5	0.00492667	8761710
18560.4	0.00438389	8761618
18570.2	0.00386153	8761504
18580	0.00336363	8761332
18591.5	0.00281809	8761206
18601.3	0.00238421	8760974
18611.2	0.00198408	8760834
18621.1	0.00161525	8760756
18631.1	0.00128679	8760720
18641	0.000999963	8760736
18651.1	0.000751113	8760721
18661.5	0.000539741	8760710
18670.2	0.000398737	8760656
18680.8	0.000270506	8760698
18691.4	0.000188072	8760686
18700.2	0.000153043	8760717
18710.7	0.000149339	8760763
18721.3	0.000184707	8760807
18730	0.000241375	8760869
18740.4	0.000337305	8760875
18750.8	0.000461138	8760941
18761.4	0.000610644	8760929
18770.2	0.000750273	8760920
18780.7	0.000931674	8760960
18791.3	0.00112351	8760945
18800.1	0.00128774	8761004
18810.5	0.00148356	8761040
18820.9	0.00167494	8760974
18831.1	0.001855	8760963
18841.4	0.00202652	8760841
18850.1	0.00215867	8760775
18860.7	0.00230183	8760754
18871.2	0.00242257	8760722
18880	0.00250406	8760627
18890.6	0.00257691	8760509
18901.1	0.00262096	8760529
18911.7	0.00263506	8760547
18920.5	0.00262361	8760459
18931	0.00258203	8760417
18941.6	0.00251071	8760421
18950.4	0.00242948	8760413
18960.9	0.00230744	8760413
18971.5	0.00216091	8760447
18980.3	0.00202223	8760383
18990.8	0.00183892	8760377
19001.4	0.00164094	8760281
19010.2	0.00146791	8760207
19020.8	0.00125475	8760075
19031.2	0.0010426	8759951
19041.5	0.000837317	8759898
19050	0.000674507	8759878
19060.5	0.000488253	8759782
19070.9	0.000321232	8759698
19081.4	0.000180706	8759564
19091.7	7.24689e-05	8759556
19100.3	9.65828e-06	8759531
19110.6	-2.82103e-05	8759463
19120.9	-2.02748e-05	8759437
19131.2	3.8412e-05	8759383
19141.5	0.000152509	8759337
19150.1	0.000293048	8759379
19160.4	0.000519693	8759280
19170.7	0.000813005	8759256
19181	0.00117616	8759235
19191.3	0.00161187	8759063
19201.6	0.00212238	8759075
19210.2	0.00260619	8758967
19220.5	0.00325795	8758987
19230.9	0.00398808	8758919
19241.2	0.00479687	8758955
19251.5	0.0056841	8758893
19260.1	0.00648286	8758854
19270.4	0.00751164	8758879
19280.7	0.00861555	8758936
19291.1	0.00980199	8758970
19301.5	0.0110701	8759068
19310.3	0.0121803	8759087
19320.5	0.0135456	8759166
19330.7	0.0149627	8759241
19341.1	0.0164526	8759291
19351.4	0.0179984	8759394
19361.6	0.019584	8759460
19370.1	0.0209158	8759510
19380	0.0225265	8759520
19391.6	0.0244417	8759602
19401.6	0.0261176	8759569
19411.7	0.0278394	8759588
19420.1	0.0292878	8759474
19430.1	0.0310262	8759430
19440.2	0.0327818	8759394
19450.2	0.0345265	8759176
19460.3	0.0362816	8759102
19470.4	0.0380296	8759017
19480.5	0.0397618	8758930
19490.7	0.0414721	8758872
19500.8	0.0431545	8758857
19510.9	0.044803	8758755
19521.2	0.0464472	8758597
19531.6	0.0480502	8758459
19540.3	0.0493444	8758341
19550.6	0.0508421	8758197
19561	0.0522737	8758116
19571.4	0.0536334	8758080
19580.1	0.0547076	8757981
19590.5	0.0559212	8757967
19600.8	0.0570394	8758032
19610.8	0.0580397	8757960
19620.8	0.058951	8757884
19630.8	0.0597697	8757900
19640.9	0.0604979	8757890
19650.8	0.0611164	8757839
19661	0.0616494	8757919
19671.2	0.0620758	8757957
19681.5	0.0623962	8757977
19690.2	0.0625794	8758034
19700.6	0.0626944	8757994
19711	0.0626948	8758056
19721.3	0.0625808	8757994
19731.6	0.0623566	8757992
19740	0.0620897	8757970
19750.1	0.0616727	8757888
19760.4	0.0611426	8757676
19770.8	0.0605008	8757619
19781.2	0.059755	8757462
19791.6	0.0589087	8757364
19800.1	0.0581376	8757358
19810.5	0.0571226	8757396
19820.9	0.0560148	8757462
19831.3	0.0548232	8757438
19841.6	0.0535533	8757467
19850.3	0.0524393	8757543
19860.6	0.0510496	8757575
19870.6	0.0496423	8757593
19880.6	0.0481828	8757683
19890.8	0.0466507	8757701
19901.1	0.0450632	8757741
19911.4	0.0434391	8757657
19921.5	0.0417996	8757671
19931.7	0.0401431	8757656
19940.2	0.0387374	8757747
19950.5	0.0370284	8757701
19960.8	0.0353113	8757729
19971.1	0.0335944	8757783
19981.4	0.031884	8757895
19991.7	0.030186	8757949
