0	0	33554432
10.0538	0	33554432
20.1077	0	33554432
30.1615	0	33554432
40.2154	0	33554432
50.2692	0	33554432
60.323	0	33554432
70.3769	0	33554432
80.4307	0	33554432
90.4846	0	33554432
100.538	0	33554432
110.592	0	33554432
120.646	-9.09495e-13	33554432
130.7	0	33554432
140.754	0	33554432
150.808	0	33554432
160.861	0	33554432
170.001	0	33554432
180.055	0	33554432
190.109	0	33554432
200.163	0	33554432
210.217	0	33554432
220.27	0	33554432
230.324	0	33554432
240.378	0	33554432
250.432	0	33554432
260.486	0	33554432
270.54	0	33554432
280.594	0	33554432
290.647	0	33554432
300.701	0	33554432
310.755	0	33554432
320.809	0	33554432
330.863	0	33554432
340.003	0	33554432
350.056	0	33554432
360.11	0	33554432
370.164	0	33554432
380.218	-9.09495e-13	33554432
390.272	0	33554432
400.326	0	33554432
410.379	0	33554432
420.433	0	33554432
430.487	0	33554432
440.541	0	33554432
450.595	0	33554432
460.649	0	33554432
470.702	0	33554432
480.756	0	33554432
490.81	0	33554432
500.864	0	33554432
510.004	0	33554432
520.058	0	33554432
530.112	0	33554432
540.165	0	33554432
550.219	0	33554432
560.273	0	33554432
570.327	0	33554432
580.381	0	33554432
590.435	0	33554432
600.488	0	33554432
610.542	0	33554432
620.596	0	33554432
630.65	0	33554432
640.704	0	33554432
650.758	0	33554432
660.811	0	33554432
670.865	0	33554432
680.005	0	33554432
690.059	0	33554432
700.113	0	33554432
710.167	0	33554432
720.221	0	33554432
730.274	0	33554432
740.328	0	33554432
750.382	0	33554432
760.436	0	33554432
770.49	0	33554432
780.544	0	33554432
790.597	0	33554432
800.651	0	33554432
810.705	0	33554432
820.759	-9.09495e-13	33554432
830.813	0	33554432
840.867	0	33554432
850.006	0	33554432
860.06	0	33554432
870.114	0	33554432
880.168	0	33554432
890.222	0	33554432
900.276	0	33554432
910.329	0	33554432
920.383	0	33554432
930.437	0	33554432
940.491	-9.09495e-13	33554432
950.545	0	33554432
960.599	0	33554432
970.653	0	33554432
980.706	0	33554432
990.76	0	33554432
1000.81	0	33554432
1010.87	0	33554432
1020.01	0	33554432
1030.06	0	33554432
1040.12	0	33554432
1050.17	9.09495e-13	33554432
1060.22	0	33554432
1070.28	0	33554432
1080.33	0	33554432
1090.38	0	33554432
1100.44	0	33554432
1110.49	-9.09495e-13	33554432
1120.55	-9.09495e-13	33554432
1130.6	0	33554432
1140.65	0	33554432
1150.71	0	33554432
1160.76	0	33554432
1170.82	0	33554432
1180.87	0	33554432
1190.01	0	33554432
1200.06	0	33554432
1210.12	0	33554432
1220.17	0	33554432
1230.22	0	33554432
1240.28	0	33554432
1250.33	0	33554432
1260.39	0	33554432
1270.44	0	33554432
1280.49	0	33554432
1290.55	0	33554432
1300.6	0	33554432
1310.66	0	33554432
1320.71	0	33554432
1330.76	0	33554432
1340.82	0	33554432
1350.87	0	33554432
1360.01	0	33554432
1370.06	0	33554432
1380.12	0	33554432
1390.17	0	33554432
1400.23	0	33554432
1410.28	0	33554432
1420.33	0	33554432
1430.39	0	33554432
1440.44	0	33554432
1450.49	0	33554432
1460.55	0	33554432
1470.6	0	33554432
1480.66	0	33554432
1490.71	0	33554432
1500.76	0	33554432
1510.82	0	33554432
1520.87	0	33554432
1530.01	0	33554432
1540.07	0	33554432
1550.12	0	33554432
1560.17	0	33554432
1570.23	0	33554432
1580.28	0	33554432
1590.33	0	33554432
1600.39	0	33554432
1610.44	0	33554432
1620.5	0	33554432
1630.55	0	33554432
1640.6	0	33554432
1650.66	0	33554432
1660.71	0	33554432
1670.77	0	33554432
1680.82	0	33554432
1690.87	0	33554432
1700.01	0	33554432
1710.07	-9.09495e-13	33554432
1720.12	0	33554432
1730.17	0	33554432
1740.23	0	33554432
1750.28	0	33554432
1760.34	0	33554432
1770.39	0	33554432
1780.44	0	33554432
1790.5	0	33554432
1800.55	0	33554432
1810.61	0	33554432
1820.66	0	33554432
1830.71	0	33554432
1840.77	0	33554432
1850.82	0	33554432
1860.87	0	33554432
1870.01	0	33554432
1880.07	0	33554432
1890.12	0	33554432
1900.18	0	33554432
1910.23	0	33554432
1920.28	0	33554432
1930.34	0	33554432
1940.39	0	33554432
1950.44	0	33554432
1960.5	0	33554432
1970.55	0	33554432
1980.61	0	33554432
1990.66	0	33554432
2000.71	0	33554432
2010.77	0	33554432
2020.82	0	33554432
2030.88	0	33554432
2040.02	0	33554432
2050.07	0	33554432
2060.12	-9.09495e-13	33554432
2070.18	0	33554432
2080.23	0	33554432
2090.28	0	33554432
2100.34	0	33554432
2110.39	0	33554432
2120.45	0	33554432
2130.5	0	33554432
2140.55	0	33554432
2150.61	0	33554432
2160.66	0	33554432
2170.72	-3.63798e-12	33554432
2180.77	-9.09495e-12	33554432
2190.82	-1.63709e-11	33554432
2200.88	-2.36469e-11	33554432
2210.02	-3.18323e-11	33554432
2220.07	-4.91127e-11	33554432
2230.12	-7.54881e-11	33554432
2240.18	-1.16415e-10	33554432
2250.23	-1.78261e-10	33554432
2260.29	-2.71939e-10	33554432
2270.34	-4.07454e-10	33554432
2280.39	-6.02085e-10	33554432
2290.45	-8.79481e-10	33554432
2300.5	-1.26511e-09	33554432
2310.56	-1.79534e-09	33554432
2320.61	-2.51202e-09	33554432
2330.66	-3.47154e-09	33554432
2340.72	-4.73665e-09	33554432
2350.77	-6.38101e-09	33554432
2360.82	-8.4965e-09	33554432
2370.88	-1.11813e-08	33554432
2380.02	-1.42136e-08	33554432
2390.07	-1.83163e-08	33554432
2400.13	-2.33576e-08	33554432
2410.18	-2.94895e-08	33554432
2420.23	-3.68718e-08	33554432
2430.29	-4.56748e-08	33554432
2440.34	-5.60731e-08	33554432
2450.39	-6.82494e-08	33554432
2460.45	-8.23857e-08	33554432
2470.5	-9.8662e-08	33554432
2480.56	-1.17258e-07	33554432
2490.61	-1.38343e-07	33554432
2500.66	-1.62077e-07	33554432
2510.72	-1.88605e-07	33554432
2520.77	-2.18051e-07	33554432
2530.83	-2.50522e-07	33554432
2540.88	-2.8609e-07	33554432
2550.02	-3.21149e-07	33554432
2560.07	-3.62718e-07	33554432
2570.13	-4.07399e-07	33554432
2580.18	-4.55108e-07	33554432
2590.23	-5.05704e-07	33554432
2600.29	-5.58989e-07	33554432
2610.34	-6.147e-07	33554432
2620.4	-6.72504e-07	33554432
2630.45	-7.31995e-07	33554432
2640.5	-7.92695e-07	33554432
2650.56	-8.54052e-07	33554432
2660.61	-9.15442e-07	33554432
2670.67	-9.76173e-07	33554432
2680.72	-1.03549e-06	33554432
2690.77	-1.09259e-06	33554432
2700.83	-1.14663e-06	33554432
2710.88	-1.19671e-06	33554432
2720.02	-1.23807e-06	33554432
2730.07	-1.27813e-06	33554432
2740.13	-1.31167e-06	33554432
2750.18	-1.33781e-06	33554432
2760.24	-1.35577e-06	33554432
2770.29	-1.36482e-06	33554432
2780.34	-1.3643e-06	33554432
2790.4	-1.35365e-06	33554432
2800.45	-1.33245e-06	33554432
2810.5	-1.30036e-06	33554432
2820.56	-1.25719e-06	33554432
2830.61	-1.20289e-06	33554432
2840.67	-1.13756e-06	33554432
2850.72	-1.0614e-06	33554432
2860.77	-9.748e-07	33554432
2870.83	-8.78254e-07	33554432
2880.88	-7.72397e-07	33554432
2890.02	-6.68721e-07	33554432
2900.07	-5.47288e-07	33554432
2910.13	-4.19052e-07	33554432
2920.18	-2.85069e-07	33554432
2930.24	-1.46476e-07	33554432
2940.29	-4.47744e-09	33554432
2950.34	1.39666e-07	33554432
2960.4	2.84652e-07	33554432
2970.45	4.29149e-07	33554432
2980.51	5.7181e-07	33554432
2990.56	7.1129e-07	33554432
3000.61	8.46257e-07	33554432
3010.67	9.75413e-07	33554432
3020.72	1.09751e-06	33554432
3030.77	1.21138e-06	33554432
3040.83	1.31593e-06	33554432
3050.88	1.4102e-06	33554432
3060.02	1.48627e-06	33554432
3070.07	1.55872e-06	33554432
3080.13	1.61891e-06	33554432
3090.18	1.66651e-06	33554432
3100.24	1.70138e-06	33554432
3110.29	1.72357e-06	33554432
3120.34	1.73335e-06	33554432
3130.4	1.73114e-06	33554432
3140.45	1.71755e-06	33554432
3150.5	1.69332e-06	33554432
3160.56	1.6593e-06	33554432
3170.61	1.61639e-06	33554432
3180.66	1.56553e-06	33554432
3190.72	1.50767e-06	33554432
3200.77	1.44367e-06	33554432
3210.83	1.37434e-06	33554432
3220.88	1.30039e-06	33554432
3230.02	1.22963e-06	33554432
3240.07	1.14833e-06	33554432
3250.13	1.06374e-06	33554432
3260.18	9.7608e-07	33554432
3270.23	8.85503e-07	33554432
3280.29	7.92096e-07	33554432
3290.34	6.95927e-07	33554432
3300.39	5.97079e-07	33554432
3310.45	4.95682e-07	33554432
3320.5	3.91956e-07	33554432
3330.55	2.86224e-07	33554432
3340.61	1.78941e-07	33554432
3350.66	7.07014e-08	33554432
3360.72	-3.77677e-08	33554432
3370.77	-1.45603e-07	33554432
3380.82	-2.51832e-07	33554432
3390.88	-3.55403e-07	33554432
3400.02	-4.4632e-07	33554432
3410.07	-5.41725e-07	33554432
3420.12	-6.31238e-07	33554432
3430.18	-7.13812e-07	33554432
3440.23	-7.88501e-07	33554432
3450.28	-8.54487e-07	33554432
3460.34	-9.11115e-07	33554432
3470.39	-9.57914e-07	33554432
3480.44	-9.94619e-07	33554432
3490.5	-1.02117e-06	33554432
3500.55	-1.03773e-06	33554432
3510.6	-1.04467e-06	33554432
3520.66	-1.04255e-06	33554432
3530.71	-1.03212e-06	33554432
3540.76	-1.01427e-06	33554432
3550.82	-9.90042e-07	33554432
3560.87	-9.60588e-07	33554432
3570.01	-9.30344e-07	33554432
3580.06	-8.94562e-07	33554432
3590.12	-8.57728e-07	33554432
3600.17	-8.21857e-07	33554432
3610.22	-7.89662e-07	33554432
3620.28	-7.65075e-07	33554432
3630.33	-7.54066e-07	33554432
3640.38	-7.65898e-07	33554432
3650.44	-8.1492e-07	33554432
3660.49	-9.23041e-07	33554432
3670.54	-1.12301e-06	33554432
3680.6	-1.46252e-06	33554432
3690.65	-2.00922e-06	33554432
3700.7	-2.85633e-06	33554432
3710.76	-4.12878e-06	33554432
3720.81	-5.98934e-06	33554432
3730.86	-8.64425e-06	33554432
3740	-1.196e-05	33554432
3750.05	-1.68799e-05	33554432
3760.11	-2.34748e-05	33554432
3770.16	-3.21454e-05	33554432
3780.21	-4.33368e-05	33554432
3790.27	-5.75307e-05	33554432
3800.32	-7.52359e-05	33554432
3810.37	-9.69761e-05	33554432
3820.43	-0.000123278	33554432
3830.48	-0.000154659	33554432
3840.53	-0.000191617	33554432
3850.59	-0.00023462	33554432
3860.64	-0.0002841	33554432
3870.69	-0.000340452	33554432
3880.75	-0.000404036	33554432
3890.8	-0.000475175	33554432
3900.85	-0.000554169	33554432
3910.91	-0.0006413	33554432
3920.05	-0.000727804	33554432
3930.1	-0.000831246	33554432
3940.15	-0.00094366	33554432
3950.21	-0.00106538	33554432
3960.26	-0.00119677	33554432
3970.31	-0.00133827	33554432
3980.37	-0.00149033	33554432
3990.42	-0.00165351	33554432
4000.47	-0.0018284	33554432
4010.53	-0.00201567	33554432
4020.58	-0.00221605	33554432
4030.63	-0.00243031	33554432
4040.69	-0.00265929	33554432
4050.74	-0.00290386	33554432
4060.79	-0.00316495	33554432
4070.85	-0.00344348	33554432
4080.9	-0.00374039	33554432
4090.04	-0.00402702	33554432
4100.09	-0.00436151	33554432
4110.15	-0.00471687	33554432
4120.2	-0.0050938	33554432
4130.25	-0.00549281	33554432
4140.31	-0.00591424	33554432
4150.36	-0.00635819	33554432
4160.41	-0.00682452	33554432
4170.47	-0.00731279	33554432
4180.52	-0.00782229	33554432
4190.58	-0.00835203	33554432
4200.63	-0.0089008	33554432
4210.68	-0.0094672	33554432
4220.74	-0.0100497	33554432
4230.79	-0.0106467	33554432
4240.84	-0.0112567	33554432
4250.9	-0.0118782	33554432
4260.04	-0.0124522	33554432
4270.09	-0.0130926	33554432
4280.15	-0.0137416	33554432
4290.2	-0.014399	33554432
4300.25	-0.0150645	33554432
4310.31	-0.0157384	33554432
4320.36	-0.016421	33554432
4330.41	-0.017113	33554432
4340.47	-0.0178146	33554432
