0	0	817500
10.0245	0	837982
20.9846	0	853536
30.9465	0	865270
40.9087	0	873468
50.8677	0	879908
60.7702	0	885212
70.5898	0	889566
80.3988	0	893024
90.2307	0	896706
100.18	0	900140
110.265	0	902550
120.43	0	905398
130.596	0	907756
140.762	0	909962
150.928	0	912006
160.078	0	914022
170.244	0	916560
180.41	0	918800
190.576	0	921338
200.742	0	923626
210.908	0	926360
220.058	0	928688
230.224	0	931226
240.39	0	934280
250.568	0	937082
260.771	0	939818
270.973	0	942662
280.155	0	944958
290.353	0	947656
300.55	0	950286
310.747	0	952958
320.945	0	956048
330.124	0	958668
340.318	0	961818
350.496	0	964848
360.669	0	968060
370.836	0	971236
381.003	0	974248
390.153	0	976854
400.319	0	979726
410.491	0	982550
420.683	0	985508
430.886	0	988286
440.069	0	991170
450.271	0	993906
460.473	0	996726
470.675	0	999560
480.876	0	1002174
490.058	0	1004858
500.261	0	1007734
510.464	0	1010584
520.668	0	1013638
530.871	0	1016544
540.053	0	1019426
550.281	0	1022716
560.563	0	1025984
570.867	0	1029354
580.14	0	1032256
590.443	0	1035604
600.747	0	1039310
610.02	0	1042282
620.323	0	1045802
630.626	0	1049388
640.929	0	1052716
650.202	0	1055792
660.505	0	1059424
670.808	0	1063088
680.081	0	1066582
690.384	0	1070380
700.687	0	1074116
710.99	0	1077606
720.263	0	1080980
730.566	0	1084776
740.869	0	1088416
750.108	0	1091974
760.355	0	1095808
770.595	0	1099910
780.835	0	1103844
790.036	0	1107530
800.251	0	1111356
810.466	0	1115302
820.678	0	1119524
830.886	0	1123620
840.069	0	1127366
850.273	0	1131262
860.476	0	1135404
870.68	0	1139456
880.882	0	1143636
890.064	0	1147306
900.266	0	1151452
910.468	0	1155560
920.665	0	1159690
930.862	0	1164064
940.039	0	1168008
950.236	0	1172454
960.433	0	1176940
970.63	0	1181198
980.81	0	1185410
990.988	0	1189756
1000.14	0	1193780
1010.31	0	1198234
1020.48	0	1202970
1030.64	0	1207482
1040.81	0	1211916
1050.98	0	1216574
1060.13	0	1220800
1070.29	0	1225030
1080.46	0	1229710
1090.63	0	1234582
1100.79	0	1239082
1110.96	0	1243606
1120.11	0	1247316
1130.28	0	1251612
1140.45	0	1255680
1150.61	0	1260332
1160.78	0	1264778
1170.95	0	1269140
1180.1	0	1273274
1190.27	0	1277660
1200.44	0	1281814
1210.6	0	1286094
1220.77	0	1290390
1230.94	0	1294294
1240.09	0	1297934
1250.26	0	1301712
1260.43	0	1305642
1270.6	0	1309754
1280.77	0	1313478
1290.93	0	1317436
1300.09	0	1321168
1310.25	0	1325460
1320.42	0	1329316
1330.59	0	1333786
1340.76	0	1337826
1350.93	0	1342340
1360.08	0	1346422
1370.25	0	1350614
1380.42	0	1355118
1390.59	0	1359284
1400.76	0	1363538
1410.93	0	1367724
1420.08	0	1371650
1430.25	0	1376030
1440.42	0	1380498
1450.58	0	1384950
1460.76	0	1389482
1470.98	0	1394076
1480.23	0	1398166
1490.57	0	1402826
1500.98	0	1406940
1510.36	0	1410678
1520.79	0	1414852
1530.17	0	1418460
1540.59	0	1422346
1551.01	0	1426298
1560.38	0	1429450
1570.81	0	1432828
1580.21	0	1436106
1590.67	0	1439348
1600.08	0	1442258
1610.48	0	1444992
1620.91	0	1447540
1630.29	0	1450290
1640.7	0	1452178
1650.08	0	1454226
1660.47	0	1456594
1670.84	0	1458776
1680.2	0	1460840
1690.57	0	1463224
1700.02	0	1465400
1710.4	0	1467982
1720.92	0	1470192
1730.35	0	1472526
1740.85	0	1474658
1750.32	0	1476896
1760.77	0	1479520
1770.22	0	1481584
1780.69	0	1484036
1790.12	0	1486166
1800.71	0	1488686
1810.31	0	1490858
1821.02	0	1493652
1830.74	0	1496214
1840.41	0	1498302
1850.03	0	1501218
1860.65	0	1503866
1870.34	0	1506102
1880.97	0	1509024
1890.48	0	1511350
1900.06	0	1513484
1910.61	0	1516084
1920.06	0	1518162
1930.51	0	1520286
1940.04	0	1522346
1950.6	0	1524732
1960.01	0	1526836
1970.56	0	1528800
1980.05	0	1530828
1990.64	0	1532864
2000.2	0	1534620
2010.74	0	1536556
2020.08	0	1538230
2030.61	0	1540408
2040.04	0	1542566
2050.46	0	1544816
2060.93	0	1547612
2070.25	0	1549940
2080.72	0	1552596
2090.2	0	1554842
2100.82	0	1557346
2110.42	0	1559744
2121.01	0	1562320
2130.61	0	1565222
2140.27	0	1567652
2150.66	0	1570864
2160.11	0	1573060
2170.54	0	1575132
2180.97	0	1578484
2190.36	0	1580348
2200.83	0	1583318
2210.22	0	1585810
2220.65	0	1588588
2230.04	0	1590854
2240.46	0	1593190
2250.84	0	1595874
2260.2	0	1598154
2270.63	0	1601116
2280.08	0	1603354
2290.44	0	1605926
2300.91	0	1608032
2310.34	0	1610058
2320.9	0	1612538
2330.23	0	1614504
2340.59	0	1616842
2350.99	0	1618492
2360.43	0	1620478
2371.01	0	1622788
2380.35	0	1624546
2390.74	0	1626486
2400.32	0	1628556
2410.86	0	1630702
2420.27	0	1632492
2430.66	0	1634500
2440.17	0	1636042
2450.97	0	1637090
2460.55	0	1638428
2470.54	0	1639982
2480.24	0	1641510
2490.82	0	1643388
2500.37	0	1644568
2510.12	0	1645884
2520.1	0	1647536
2530.88	0	1648828
2540.27	0	1650552
2550.78	0	1652350
2560.4	0	1654102
2570.15	0	1656044
2580.99	0	1658118
2590.78	0	1659888
2600.35	0	1661792
2610.77	0	1664076
2620.04	-3.63798e-12	1665734
2630.48	-1.00044e-11	1667352
2640.94	-1.81899e-11	1669388
2650.34	-2.45564e-11	1671644
2660.81	-3.36513e-11	1673882
2670.28	-4.18368e-11	1675824
2680.75	-5.09317e-11	1678148
2690.15	-5.91172e-11	1680124
2700.59	-6.82121e-11	1682536
2710.99	-7.7307e-11	1684708
2720.39	-8.54925e-11	1686554
2730.95	-9.45874e-11	1688962
2740.35	-1.02773e-10	1691186
2750.93	-1.12777e-10	1693280
2760.36	-1.28239e-10	1694774
2770.78	-1.47338e-10	1696592
2780.33	-1.71894e-10	1698552
2790.05	-2.03727e-10	1700082
2800.69	-2.5193e-10	1701722
2810.48	-3.11047e-10	1703048
2820.96	-3.94721e-10	1704742
2830.39	-4.93856e-10	1706672
2840.89	-6.39375e-10	1708002
2850.4	-8.11269e-10	1709178
2860.09	-1.03773e-09	1710610
2870.2	-1.34332e-09	1711998
2880.01	-1.72895e-09	1713798
2890.55	-2.26282e-09	1715176
2900.04	-2.8831e-09	1716236
2910.05	-3.71256e-09	1717578
2920.29	-4.80031e-09	1719224
2930.52	-6.19093e-09	1720718
2940.75	-7.96263e-09	1721618
2950.99	-1.02145e-08	1723110
2960.74	-1.29166e-08	1724876
2970.08	-1.61335e-08	1726336
2980.74	-2.07319e-08	1727896
2990.7	-2.61316e-08	1729266
3000.26	-3.25481e-08	1730750
3010.73	-4.1272e-08	1732986
3020.11	-5.09181e-08	1734868
3030.55	-6.41394e-08	1736254
3040.11	-7.90424e-08	1737533
3050.07	-9.79617e-08	1739277
3060.62	-1.22609e-07	1741465
3070.93	-1.52268e-07	1742985
3080.25	-1.84706e-07	1744325
3090.78	-2.29094e-07	1746141
3100.13	-2.76707e-07	1747471
3110.82	-3.42366e-07	1749601
3120.78	-4.16362e-07	1751097
3130.81	-5.05743e-07	1752739
3141.05	-6.15035e-07	1754670
3150.15	-7.30217e-07	1756530
3160.38	-8.83558e-07	1758550
3170.62	-1.06629e-06	1760350
3180.86	-1.28347e-06	1762590
3191.08	-1.54065e-06	1765382
3200.15	-1.80773e-06	1767210
3210.31	-2.15695e-06	1770058
3220.46	-2.56729e-06	1772302
3230.62	-3.04824e-06	1774734
3240.77	-3.61056e-06	1777335
3250.93	-4.2664e-06	1780077
3261.08	-5.02944e-06	1783203
3270.11	-5.81009e-06	1785163
3280.26	-6.81957e-06	1788213
3290.43	-7.98671e-06	1790779
3300.61	-9.33433e-06	1793691
3310.83	-1.08924e-05	1796425
3321.06	-1.26819e-05	1798975
3330.14	-1.44898e-05	1800761
3340.35	-1.67967e-05	1802945
3350.51	-1.94149e-05	1805347
3360.55	-2.23552e-05	1807083
3370.76	-2.57485e-05	1809319
3380.98	-2.95945e-05	1811399
3390.05	-3.34344e-05	1813439
3400.26	-3.82785e-05	1815405
3410.48	-4.37353e-05	1817097
3420.69	-4.98695e-05	1818977
3430.9	-5.6751e-05	1821097
3441.11	-6.44555e-05	1823393
3450.19	-7.206e-05	1825178
3460.4	-8.15448e-05	1827178
3470.61	-9.2103e-05	1829048
3480.82	-0.000103833	1831068
3491.03	-0.000116842	1833646
3500.11	-0.000129567	1835458
3510.32	-0.000145299	1837554
3520.53	-0.000162651	1839696
3530.75	-0.000181754	1842214
3540.96	-0.000202747	1844498
3550.03	-0.000223114	1846464
3560.25	-0.000248083	1848708
3570.46	-0.000275385	1850850
3580.67	-0.000305186	1853044
3590.88	-0.000337661	1855190
3601.09	-0.00037299	1857506
3610.17	-0.000406942	1858912
3620.38	-0.00044818	1860926
3630.59	-0.000492834	1862984
3640.8	-0.000541108	1865096
3651.02	-0.000593217	1867278
3660.09	-0.000642929	1869184
3670.3	-0.000702877	1871526
3680.52	-0.000767302	1873864
3690.73	-0.000836434	1876022
3700.94	-0.00091051	1878420
3710.04	-0.000980855	1880336
3720.27	-0.00106512	1882836
3730.5	-0.00115505	1885234
3740.74	-0.00125089	1887387
3750.97	-0.00135289	1889937
3760.07	-0.00144892	1892139
3770.3	-0.00156322	1894473
3780.53	-0.00168434	1896569
3790.57	-0.00181012	1899603
3800.09	-0.00193591	1901979
3811.04	-0.00208876	1904717
3820.63	-0.00222991	1907635
3830.06	-0.00237547	1909859
3840.56	-0.00254579	1912525
3850.41	-0.0027136	1915321
3860.31	-0.00289035	1918266
3870.99	-0.00309013	1921068
3880.95	-0.00328511	1923462
3891.1	-0.00349269	1926084
3900.13	-0.00368477	1928391
3910.28	-0.00390945	1930997
3920.43	-0.00414331	1933501
3930.58	-0.00438639	1935939
3940.74	-0.00463871	1938481
3950.89	-0.00490027	1940937
3961.04	-0.00517102	1943189
3970.06	-0.00541935	1945315
3980.22	-0.00570723	1947951
3990.37	-0.00600396	1950299
4000.52	-0.00630936	1952115
4010.67	-0.00662316	1954276
4020.82	-0.00694506	1956574
4030.97	-0.00727471	1958547
4041.13	-0.00761168	1960045
4050.15	-0.00791697	1961929
4060.3	-0.0082664	1964137
4070.45	-0.00862157	1966135
4080.61	-0.00898187	1968260
4090.77	-0.00934672	1970668
4100.96	-0.00971589	1973060
4110.04	-0.0100473	1974636
4120.27	-0.0104218	1976970
4130.19	-0.0107855	1979328
4140.79	-0.0111736	1981626
4150.39	-0.0115229	1984056
4160.18	-0.0118759	1986015
4170.1	-0.0122292	1988427
4180.64	-0.0125977	1991316
4190.06	-0.0129197	1993040
4200.53	-0.0132674	1995123
4210.99	-0.0136025	1997123
4220.43	-0.013892	1999894
4231.04	-0.0142013	2001605
4240.67	-0.0144651	2003535
4250.53	-0.0147162	2005914
4260.31	-0.0149444	2007208
4270.12	-0.0151502	2009479
4280.86	-0.0153464	2011907
4290.62	-0.0154958	2013913
4300.76	-0.0156195	2015810
4310.84	-0.015708	2018039
4320.59	-0.0157584	2019989
4330.08	-0.015772	2021909
4340.64	-0.0157434	2023865
4350.28	-0.0156748	2026483
4360.95	-0.0155487	2028721
4370.73	-0.0153845	2030277
4380.73	-0.0151661	2032281
4390.44	-0.0149031	2034351
4400.92	-0.0145603	2036895
4410.52	-0.0141908	2039069
4420.53	-0.0137474	2041839
4430.35	-0.0132526	2044816
4440.85	-0.0126559	2047457
4450.31	-0.0120575	2050477
4460.74	-0.0113301	2053333
4470.06	-0.0106179	2056097
4480.62	-0.00973987	2058871
4490.22	-0.00887591	2061628
4501.03	-0.00782684	2064454
4511	-0.00678814	2067210
4521.08	-0.00566775	2069682
4530.05	-0.00461292	2072112
4540.84	-0.00325992	2074844
4550.46	-0.00197006	2077426
4560.07	-0.000681014	2080228
4570.73	0.000862188	2082524
4580.61	0.00256109	2084716
4590.68	0.00454348	2086984
4600.66	0.00664996	2089166
4610.27	0.00940272	2091470
4620.02	0.0143915	2093044
4631.09	0.0193361	2095586
4640.01	0.0231333	2097310
4650.07	0.0276798	2099586
4661.09	0.0330865	2102123
4670.96	0.0382284	2104227
4680.36	0.0433294	2106311
4690.86	0.0493863	2108637
4700.28	0.0530832	2110165
4710.91	0.0611615	2111954
4720.9	0.0707189	2113942
4730.34	0.0807464	2115882
4740.78	0.0922545	2118032
4750.2	0.10245	2119536
4760.72	0.113681	2121488
4770.93	0.132118	2122832
4780.47	0.149094	2125130
4790.95	0.16731	2127404
4800.4	0.184484	2128906
4810.84	0.203592	2131370
4820.33	0.221194	2133291
4830.05	0.239382	2135225
4840.77	0.259234	2137793
4850.46	0.277089	2139413
4860.37	0.29519	2141729
4870.02	0.312544	2143389
4880.7	0.331278	2145572
4890.74	0.348251	2147732
4900.36	0.363909	2149620
4910.84	0.380271	2151789
4920.29	0.394321	2153079
4931	0.409374	2154979
4940.79	0.422319	2156423
4950.62	0.434616	2157547
4960.21	0.44596	2159424
4970.85	0.457793	2161284
4980.54	0.467853	2162602
4990.54	0.477521	2164298
5000.59	0.486472	2166185
5010.28	0.494346	2168620
5020.92	0.502055	2170385
5030.51	0.508071	2172027
5040.1	0.51321	2173751
5050.17	0.517406	2175575
5060.86	0.521033	2177584
5070.57	0.522938	2179636
5080.3	0.525042	2181687
5090.39	0.524777	2183713
5100.49	0.523309	2185214
5110.41	0.520917	2186874
5120.15	0.517699	2188291
5130.25	0.51342	2189889
5140.19	0.508393	2191745
5150.9	0.502037	2193388
5160.97	0.495205	2195354
5171.08	0.487548	2197058
5180.19	0.479989	2198719
5190.47	0.470736	2200877
5200.76	0.460763	2202760
5211.05	0.450082	2205293
5220.2	0.440278	2206602
5230.48	0.427163	2208822
5240.77	0.411832	2211134
5251.06	0.391759	2213070
5260.21	0.375293	2214674
5270.49	0.355223	2216509
5280.78	0.334801	2218575
5291.07	0.313968	2220433
5300.25	0.294658	2221918
5310.59	0.272432	2223111
5320.94	0.249492	2223802
5330.13	0.22847	2225443
5340.2	0.204743	2227093
5350.76	0.172922	2228040
5360.2	0.132521	2228900
5370.69	0.101241	2230333
5380.24	0.0762602	2231574
5390.93	0.0532195	2233435
5400.41	0.0327888	2235148
5410.96	0.0136049	2236753
5420.56	-0.0028906	2237627
5430.43	-0.0182565	2239052
5440.55	-0.0321896	2240471
5450.3	-0.0448647	2241338
5460.49	-0.0567402	2242923
5470.68	-0.0674376	2244107
5480.27	-0.0763133	2245455
5490.32	-0.0844279	2246724
5500.66	-0.0937799	2248148
5510.98	-0.103289	2249593
5520.15	-0.112222	2251267
5530.46	-0.122889	2252671
5540.78	-0.134042	2254738
5551.09	-0.145954	2256505
5560.26	-0.157073	2258148
5570.58	-0.17012	2259751
5580.89	-0.183618	2261538
5590.06	-0.195995	2262662
5600.38	-0.210253	2263967
5610.7	-0.224719	2265087
5621.01	-0.239282	2266510
5630.18	-0.252152	2267432
5640.5	-0.266367	2268840
5650.81	-0.280098	2269403
5661.13	-0.293115	2270721
5670.3	-0.303887	2270636
5680.62	-0.314864	2271675
5690.93	-0.324371	2272515
5700.1	-0.331348	2273075
5710.42	-0.337094	2273645
5720.73	-0.339262	2273980
5731.05	-0.341308	2275116
5740.22	-0.341231	2275322
5750.53	-0.340028	2275933
5760.85	-0.337471	2276733
5770.02	-0.334212	2277581
5780.33	-0.329542	2278742
5790.65	-0.323862	2279544
5801.03	-0.317121	2280469
5810.28	-0.310265	2281361
5820.68	-0.301605	2282316
5831.08	-0.291942	2283504
5840.33	-0.282797	2284200
5850.73	-0.271595	2285631
5861.13	-0.253342	2286428
5870.37	-0.235982	2287984
5880.78	-0.216812	2289469
5890.84	-0.196914	2290920
5900.24	-0.178459	2292564
5910.74	-0.157794	2293985
5920.33	-0.138916	2295330
5931.14	-0.118068	2296007
5940.92	-0.0996918	2297809
5950.42	-0.0825001	2298678
5961.03	-0.0643197	2300028
5971.07	-0.0482623	2301332
5980.11	-0.0348994	2302182
5990.64	-0.0207868	2303627
6000.78	-0.00872758	2304632
6011.01	0.00183652	2306272
6020.85	0.0104529	2307167
6030.02	0.0171291	2308089
6040.96	0.0232302	2309477
6050.04	0.0274848	2310912
6060.35	0.0305852	2312361
6070.7	0.0336643	2314059
6080.43	0.0345865	2316245
6090.2	0.0342533	2317903
6100.55	0.0334609	2320351
6110.9	0.032318	2322410
6120.1	0.031028	2325117
6130.44	0.0293483	2327356
6140.79	0.0273929	2330019
6151.14	0.0251215	2332679
6160.33	0.0228706	2335064
6170.66	0.0201154	2337432
6180.98	0.0171349	2339496
6190.14	0.0142886	2341611
6200.43	0.0108668	2343965
6210.7	0.00722278	2346613
6220.97	0.00336605	2348614
6230.1	-0.000231884	2350978
6240.37	-0.00445854	2353060
6250.62	-0.00884986	2355261
6260.84	-0.0133747	2357838
6271.06	-0.018016	2360395
6280.14	-0.0222141	2362282
6290.36	-0.0269868	2363729
6300.56	-0.0317744	2365816
6310.75	-0.0365368	2367436
6320.93	-0.0412403	2369296
6331.1	-0.0458479	2371082
6340.13	-0.0498384	2372580
6350.28	-0.0541897	2374682
6360.44	-0.0583695	2376896
6370.6	-0.0623537	2378889
6380.75	-0.06612	2380277
6390.76	-0.0696	2381958
6400.21	-0.0726568	2383279
6410.66	-0.0757638	2385323
6420.06	-0.0783035	2386443
6430.6	-0.0808562	2387624
6440.38	-0.0829408	2389228
6450.51	-0.0848142	2390969
6460.5	-0.0863777	2393278
6471	-0.0877288	2394963
6480.7	-0.0887132	2396692
6490.5	-0.0894435	2397937
6500.23	-0.0899835	2399484
6510.35	-0.0902849	2401203
6520.48	-0.0902492	2403167
6530.6	-0.0896857	2405500
6540.73	-0.0893118	2407737
6550.86	-0.0887607	2410261
6560.38	-0.0883109	2412860
6570.35	-0.0877082	2414964
6581.07	-0.0869406	2418107
6590.82	-0.0861889	2419604
6600.73	-0.0853914	2422343
6610.89	-0.0845204	2424248
6620.98	-0.0835984	2427043
6630.58	-0.0826773	2428811
6640.66	-0.0816777	2431212
6650.8	-0.0806485	2433148
6660.94	-0.0796057	2435444
6671.08	-0.0785564	2437560
6680.1	-0.0776178	2439495
6690.24	-0.0765483	2441889
6700.38	-0.075468	2443474
6710.51	-0.0743961	2445679
6720.64	-0.0733503	2447423
6730.77	-0.0723361	2449569
6740.89	-0.0713485	2451253
6751.02	-0.070379	2453253
6760.02	-0.0695269	2454979
6770.15	-0.0685747	2456265
6780.27	-0.067626	2457592
6790.87	-0.0666344	2458665
6800.34	-0.0657455	2459590
6810.88	-0.0647494	2460701
6820.37	-0.063845	2461746
6830.83	-0.0628343	2462686
6840.61	-0.0618731	2462926
6850.16	-0.0609182	2463562
6860.66	-0.0598452	2464923
6870.06	-0.0588624	2465868
6880.62	-0.0577334	2467394
6890.15	-0.0566904	2468809
6900.68	-0.0555122	2470854
6910.18	-0.0544258	2472386
6920.83	-0.0531823	2474293
6930.42	-0.0520403	2475847
6940.22	-0.0508525	2477437
6950.32	-0.04961	2479592
6960.92	-0.0482885	2481426
6970.45	-0.0470881	2483565
6980.2	-0.0458454	2485381
6990.83	-0.0444699	2487708
7000.33	-0.0432152	2488902
7010.9	-0.041788	2491119
7020.51	-0.0404613	2492863
7030.13	-0.0391107	2494561
7040.9	-0.0375823	2496519
7050.89	-0.036162	2497522
7060.87	-0.034751	2499271
7070.77	-0.0333676	2500248
7080.34	-0.0320515	2501799
7090.15	-0.0307269	2502743
7101.04	-0.0292887	2504163
7110.64	-0.0280489	2505382
7120.25	-0.0268356	2505910
7130.06	-0.0256243	2506847
7140.31	-0.0243924	2507859
7150.66	-0.0231818	2508499
7160.87	-0.022021	2510387
7170.91	-0.0209116	2511844
7180.96	-0.0198338	2513377
7191.05	-0.0187819	2514901
7200.65	-0.0178106	2516873
7210.56	-0.0168383	2518599
7220.9	-0.0158548	2520438
7230.85	-0.0149397	2521888
7240.49	-0.0140821	2523690
7250.4	-0.0132307	2525499
7260.74	-0.0123734	2527132
7271.08	-0.0115471	2529331
7280.28	-0.0108399	2530408
7290.62	-0.0100595	2532795
7300.96	-0.00940913	2534563
7310.16	-0.00878948	2536249
7320.5	-0.00807746	2538379
7330.83	-0.00743573	2539408
7341.13	-0.00690582	2541671
7350.24	-0.00645503	2542793
7360.45	-0.00596396	2544369
7370.62	-0.00549811	2545289
7380.76	-0.00505927	2546330
7390.9	-0.00464133	2547910
7401.04	-0.00424371	2548389
7410.05	-0.00390738	2550047
7420.19	-0.00355469	2551529
7430.33	-0.00324194	2552492
7440.48	-0.00294268	2554165
7450.62	-0.00265106	2555132
7460.76	-0.00236801	2557396
7470.9	-0.00209398	2558539
7481.04	-0.00182632	2560144
7490.05	-0.00158986	2560869
7500.19	-0.00132099	2561729
7510.33	-0.00104513	2562576
7520.47	-0.000758803	2563846
7530.61	-0.000458956	2565359
7540.75	-0.000142848	2566275
7550.89	0.000191906	2567896
7561.03	0.00054724	2569054
7570.05	0.000881519	2570784
7580.19	0.00127912	2571857
7590.28	0.001698	2573516
7600.23	0.00213281	2574692
7610.17	0.00258896	2575897
7620.12	0.00306526	2577148
7630.06	0.00356006	2578753
7640.01	0.00407128	2580071
7651.06	0.00465558	2581761
7661	0.00519302	2582717
7670.95	0.00573813	2584337
7680.89	0.00628744	2585639
7690.84	0.00683719	2586611
7700.78	0.00738335	2587656
7710.73	0.00792165	2588359
7720.73	0.00845058	2589017
7730.79	0.00896608	2589413
7740.87	0.0094601	2589741
7750.97	0.00992946	2589828
7761.09	0.0103688	2590105
7770.08	0.0107305	2590380
7780.19	0.0111018	2590650
7790.31	0.0114325	2590792
7800.44	0.0117202	2590715
7810.6	0.0119632	2591525
7820.72	0.0121585	2592080
7830.83	0.0123062	2592238
7840.95	0.0124062	2592450
7851.07	0.0124588	2593030
7860.06	0.0124664	2593534
7870.18	0.012432	2593618
7880.29	0.0123539	2594676
7890.41	0.0122342	2595048
7900.53	0.012075	2595866
7910.65	0.0118792	2596755
7920.77	0.0116493	2598020
7930.87	0.0113888	2598797
7940.78	0.0111055	2600009
7950.69	0.0107973	2601743
7960.6	0.0104664	2603297
7970.51	0.0101147	2605285
7980.41	0.00974392	2606449
7990.32	0.00935524	2608157
8000.22	0.00894937	2609553
8010.13	0.00852674	2611380
8020.03	0.00808742	2613335
8031.03	0.00757945	2614834
8040.94	0.00710385	2616798
8050.84	0.00661007	2619120
8060.75	0.00609722	2621127
8070.65	0.00556432	2623524
8080.56	0.00501029	2625442
8090.46	0.00443408	2627801
8100.36	0.0038346	2629826
8110.27	0.0032108	2631505
8120.17	0.00256167	2632903
8130.07	0.00188626	2634177
8141.08	0.00110391	2635948
8150.98	0.000370193	2637442
8160.89	-0.000392319	2639491
8170.79	-0.00118452	2641372
8180.79	-0.00201433	2643143
8190.82	-0.00287772	2644726
8200.81	-0.00376946	2646785
8210.7	-0.00468415	2648561
8220.74	-0.00564291	2650129
8230.53	-0.00661025	2652168
8240.26	-0.00760063	2653644
8251.07	-0.00873515	2655464
8260.86	-0.00979413	2656449
8270.6	-0.0108772	2658302
8280.43	-0.011997	2659638
8290.4	-0.013161	2661125
8300.25	-0.0143393	2662255
8310.03	-0.015535	2663052
8320.07	-0.0167888	2664479
8330.19	-0.0180801	2666271
8341.02	-0.0194912	2667974
8350.01	-0.0206847	2669078
8360.13	-0.0220499	2670163
8370.25	-0.0233886	2671639
8380.37	-0.024675	2672543
8390.49	-0.026103	2673612
8400.61	-0.0276312	2675014
8410.73	-0.0286152	2676456
8420.85	-0.0299681	2677950
8430.97	-0.0316758	2679432
8441.1	-0.0333684	2680407
8450.13	-0.0348017	2681477
8460.34	-0.0363683	2682628
8470.55	-0.0379457	2683457
8480.77	-0.0395365	2684291
8491	-0.0411096	2684830
8500.1	-0.0424886	2685796
8510.37	-0.0440255	2686127
8520.63	-0.045551	2687131
8530.71	-0.0470404	2688077
8540.53	-0.0484779	2688471
8550.79	-0.0499593	2689413
8560.79	-0.0513682	2690034
8570.27	-0.0526596	2690634
8580.77	-0.0540315	2691363
8590.78	-0.0552766	2691818
8600.87	-0.0564677	2692654
8610.71	-0.0575655	2693223
8620.73	-0.0586179	2694201
8630.96	-0.059619	2694824
8640.06	-0.0604404	2695577
8650.97	-0.0613297	2697013
8660.07	-0.0619823	2697722
8670.3	-0.062609	2698685
8680.5	-0.0631127	2699923
8690.63	-0.0634882	2700462
8700.86	-0.0637379	2701117
8710.51	-0.0638302	2702303
8720.74	-0.0638158	2703139
8730.52	-0.0636595	2704136
8740.23	-0.0633948	2704642
8750.37	-0.063036	2706211
8760.36	-0.0625556	2706795
8770.95	-0.0619069	2707513
8780.47	-0.0612054	2708154
8790.15	-0.0603819	2708670
8800.91	-0.0593357	2709484
8810.61	-0.0582747	2709813
8820.48	-0.0570817	2710895
8830.47	-0.0557597	2711136
8840.66	-0.054305	2712088
8850.82	-0.052759	2713312
8860.92	-0.0510927	2713322
8871.13	-0.0492706	2714447
8880.2	-0.0475574	2714546
8890.41	-0.0455607	2714870
8900.62	-0.0434852	2715552
8910.82	-0.0413007	2715382
8921.03	-0.0389936	2716567
8930.09	-0.0368567	2716371
8940.28	-0.0343831	2716628
8950.46	-0.0318312	2716664
8960.59	-0.0292033	2716776
8970.7	-0.0265028	2717074
8980.81	-0.0237491	2716728
8990.92	-0.0209651	2716863
9001.03	-0.0181668	2716947
9010.01	-0.015676	2716444
9020.12	-0.0128765	2716626
9030.07	-0.0101288	2715991
9041.03	-0.00711328	2715934
9050.86	-0.00442519	2715315
9060.56	-0.00178698	2714614
9070.52	0.000897884	2714497
9080.5	0.00356089	2713486
9090.38	0.0061631	2713333
9101.03	0.00892327	2712909
9110.62	0.011362	2712550
9120.36	0.013793	2711353
9130.15	0.0161827	2710528
9140.28	0.0185932	2710286
9150.31	0.0209202	2710667
9160.12	0.0231301	2710605
9170.06	0.0253031	2711271
9180.13	0.0274317	2712161
9190.24	0.0294922	2712267
9200.3	0.0314644	2713940
9211.05	0.0334839	2714951
9221.03	0.0352792	2716034
9230.82	0.0369646	2717444
9240.71	0.0385957	2718231
9250.34	0.040118	2719898
9260.37	0.0416351	2720692
9270.21	0.0430593	2721984
9280.08	0.0444259	2723169
9290.99	0.0458679	2724038
9300.82	0.0471064	2725439
9310.9	0.0483197	2726074
9321.01	0.0494814	2727369
9331.12	0.0505905	2728064
9340.03	0.0515266	2729063
9350.06	0.0525381	2730409
9360.11	0.0535074	2731323
9370.11	0.0544336	2732494
9380.22	0.0553317	2733667
9390.33	0.0561947	2734938
9400.44	0.0570248	2736065
9410.54	0.0578219	2737036
9420.59	0.0585844	2738057
9430.7	0.059327	2739149
9440.67	0.0600386	2741438
9450.3	0.0607064	2743607
9460.01	0.0613599	2745246
9470.76	0.0620611	2747409
9480.67	0.0626882	2749055
9490.84	0.0633128	2750893
9500.98	0.063923	2752287
9510.62	0.0644834	2753773
9520.36	0.0650268	2755858
9530.08	0.0655501	2757507
9540.88	0.0661102	2759207
9550.44	0.0665906	2759865
9560.16	0.06706	2761392
9570.95	0.0675536	2763248
9580.73	0.0679731	2764332
9590.79	0.0683753	2765611
9600.66	0.0687416	2767149
9610.39	0.0690879	2768263
9621.03	0.0695116	2768710
9630.98	0.0697978	2769332
9640.83	0.0700525	2770033
9650.81	0.0705226	2769768
9660.83	0.0705704	2769773
9670.93	0.0706291	2769952
9681.04	0.0706887	2770374
9691.02	0.0707221	2770784
9700.98	0.0707677	2770114
9710.99	0.0707332	2770250
9721.12	0.0706009	2770087
9730.13	0.0704177	2769845
9740.27	0.0701548	2769411
9750.42	0.0698479	2769319
9760.59	0.0695072	2770189
9770.65	0.0691383	2770380
9780.7	0.0687327	2770229
9790.82	0.0682799	2770278
9800.98	0.0677764	2770159
9811.12	0.0672237	2769885
9820.1	0.0666938	2769447
9830.2	0.0660533	2768622
9840.31	0.0653669	2769052
9850.42	0.0646357	2768650
9860.53	0.0638597	2769122
9870.64	0.0630388	2769292
9880.75	0.0621733	2769235
9890.86	0.0612637	2769148
9900.59	0.0603473	2769011
9910.6	0.0593633	2768326
9920.57	0.058344	2767592
9930.67	0.0572715	2766175
9940.78	0.0561592	2765585
9950.89	0.0550092	2764593
9961.02	0.0538186	2763817
9970.03	0.0527274	2763612
9980.17	0.0514673	2763567
9990.3	0.0501711	2763949
10000.4	0.0488163	2763965
10010.6	0.0474008	2764932
10020.7	0.0460424	2766258
10030.9	0.0445975	2767463
10040.8	0.0428558	2769193
10051	0.0409551	2770241
10061.1	0.0390937	2771819
10070.1	0.0370959	2772936
10080.3	0.0346979	2774017
10090.4	0.0322847	2775723
10100.5	0.0299732	2777190
10110.7	0.0277418	2778917
10120.8	0.0255435	2780568
10131	0.0233532	2782896
10141.1	0.021139	2784592
10150.1	0.0191272	2785043
10160.3	0.0168034	2786420
10170.5	0.0144324	2787184
10180.7	0.0120393	2787829
10190.9	0.00965084	2788420
10201	0.00729039	2788842
10210.1	0.00522128	2790080
10220.1	0.00295355	2791072
10230.2	0.000696211	2793035
10240.3	-0.0015441	2793778
10250.1	-0.00369746	2795402
10260.2	-0.0058905	2796872
10270.4	-0.00806449	2798294
10280.6	-0.0101912	2800260
10290.7	-0.0122594	2802796
10300.9	-0.0142548	2804530
10310.9	-0.0161681	2807013
10320.8	-0.0179755	2808914
10330.8	-0.0197431	2810353
10340.8	-0.0214464	2812582
10350.7	-0.0230739	2813573
10360.8	-0.024658	2815625
10371	-0.0261775	2817511
10381.1	-0.0276155	2818847
10390.2	-0.0288225	2820422
10400.3	-0.0301025	2821185
10410.5	-0.0312861	2821726
10420.7	-0.0323844	2822768
10430.9	-0.0334513	2823507
10440	-0.0343356	2824245
10450.2	-0.0352333	2825045
10460.4	-0.035989	2826192
10470.6	-0.0367991	2827324
10480.8	-0.0374494	2827660
10491	-0.0378831	2828490
10500.1	-0.0382443	2828692
10510.2	-0.0386075	2828949
10521.1	-0.0389633	2828853
10530.2	-0.0391864	2828195
10540.4	-0.0394029	2828578
10550.6	-0.0395958	2827775
10560.7	-0.0397478	2827724
10570.8	-0.0398538	2827522
10581	-0.0399135	2827498
10590.1	-0.0399283	2827076
10600.3	-0.0399028	2826667
10610.5	-0.0398347	2826244
10620.6	-0.0397276	2826500
10630.8	-0.0395849	2826595
10641	-0.0394086	2826608
10651.1	-0.0392041	2827480
10661.1	-0.0389706	2827083
10670.2	-0.0387362	2827758
10680.4	-0.0384479	2827392
10690.6	-0.0381363	2827675
10700.8	-0.037804	2827207
10711	-0.0374541	2826808
10720	-0.0371308	2827525
10730.2	-0.0367558	2827509
10740.4	-0.0363718	2827848
10750.6	-0.0359816	2828279
10760.8	-0.0355881	2828441
10771	-0.0351942	2828469
10780.1	-0.034846	2827891
10790.3	-0.0344592	2827666
10800.5	-0.0340804	2827083
10810.7	-0.0337123	2826711
10820.9	-0.0333576	2826213
10831.1	-0.0330189	2826734
10840.2	-0.0327332	2826575
10850.4	-0.0324312	2826582
10860.6	-0.032152	2826951
10870.8	-0.0318977	2826648
10881	-0.0316703	2826818
10890	-0.0314923	2826454
10900.2	-0.0313208	2826893
10910.4	-0.0311813	2826918
10920.6	-0.0310751	2826443
10930.8	-0.0310035	2825931
10941	-0.0309675	2826064
10950.1	-0.0309661	2826236
10960.3	-0.0309997	2826757
10970.5	-0.031071	2827452
10980.7	-0.0311806	2827631
10990.9	-0.0313289	2827987
11000	-0.0314935	2828982
11010.2	-0.031716	2829572
11020.5	-0.0319775	2829841
11030.7	-0.0322778	2829984
11041	-0.0326165	2830473
11050.1	-0.0329493	2830576
11060.3	-0.0333587	2830937
11070.6	-0.0338045	2830730
11080.8	-0.0342854	2830195
11091.1	-0.0348003	2830815
11100.2	-0.0352854	2831148
11110.4	-0.0358606	2831550
11120.7	-0.0364654	2831870
11130.9	-0.037098	2832515
11140	-0.037682	2833133
11150.3	-0.0383617	2833307
11160.5	-0.0390635	2833691
11170.8	-0.039785	2833766
11181	-0.0405241	2833566
11190	-0.0411896	2833626
11200.2	-0.0419473	2834204
11210.9	-0.0427616	2834127
11221	-0.0435357	2834397
11230.9	-0.0442982	2834803
11240.7	-0.0450622	2835300
11250.8	-0.0458479	2836236
11260.9	-0.0466333	2837699
11270.9	-0.0474082	2838279
11280.7	-0.0481666	2838703
11290.8	-0.0489394	2838855
11300.9	-0.049704	2838482
11311	-0.0504589	2837850
11321.1	-0.0512024	2837526
11330.1	-0.0518524	2837308
11340.2	-0.0525701	2837100
11350.3	-0.0532722	2836155
11360.4	-0.0539576	2835929
11370.4	-0.0546252	2835330
11380.5	-0.0552742	2835164
11390.7	-0.0559047	2835067
11400.8	-0.0565176	2834839
11411	-0.0571129	2835176
11420.1	-0.0576248	2835296
11430.3	-0.0581805	2835802
11440.5	-0.058715	2835992
11450.7	-0.0592282	2836773
11461	-0.0597206	2837369
11470	-0.060141	2837541
11480.3	-0.0605952	2837771
11490.5	-0.0610299	2837884
11500.7	-0.0614462	2837693
11510.9	-0.0618451	2837917
11520.1	-0.0621858	2837795
11530.3	-0.0625537	2838783
11540.5	-0.0629064	2838911
11550.8	-0.0632449	2839334
11561	-0.0635704	2839502
11570.2	-0.0638497	2839326
11580.4	-0.0641537	2838914
11590.6	-0.0644478	2838917
11600.8	-0.0647324	2839088
11611	-0.0650095	2838427
11620.1	-0.0652506	2838099
11630.3	-0.0655169	2837568
11640.5	-0.0657782	2837184
11650.6	-0.0660349	2836618
11660.7	-0.0662874	2835817
11670.7	-0.0665371	2835156
11680.7	-0.066785	2835259
11690.7	-0.0670317	2834814
11700.7	-0.0672776	2833955
11710.7	-0.0675228	2832958
11720.7	-0.0677675	2832348
11730.8	-0.0680114	2831598
11740.8	-0.0682543	2830211
11750.8	-0.0684958	2829004
11760.8	-0.0687353	2828773
11770.8	-0.0689722	2829221
11780.8	-0.0692058	2829028
11790.8	-0.069435	2829511
11800.8	-0.069659	2829209
11810.8	-0.0698766	2829247
11820.8	-0.0700865	2829276
11830.8	-0.0702877	2829013
11840.9	-0.0704786	2829191
11850.9	-0.070658	2828579
11860.9	-0.0708245	2828741
11870.9	-0.0709769	2827828
11881	-0.0711133	2827287
11891.1	-0.0712321	2826748
11901.1	-0.0713317	2825709
11910.1	-0.0714031	2825603
11920.2	-0.0714625	2824590
11930.3	-0.0714986	2824474
11940.4	-0.0715098	2824279
11950.6	-0.0714945	2824185
11960.7	-0.0714516	2823310
11970.9	-0.0713799	2822644
11981	-0.0712784	2822416
11990.1	-0.0711626	2821964
12000.2	-0.0710026	2820936
12010.4	-0.0708107	2820712
12020.5	-0.0705864	2819925
12030.7	-0.0703292	2819296
12040.8	-0.070039	2818340
12051	-0.0697157	2817989
12060	-0.0694006	2817481
12070.2	-0.069015	2816460
12080.3	-0.0685971	2815539
12090.4	-0.0681483	2815085
12100.5	-0.0676687	2814373
12110.6	-0.0671584	2814043
12120.7	-0.0666182	2814271
12130.9	-0.0660488	2813861
12141	-0.0654511	2813988
12151.1	-0.0648261	2813342
12160	-0.0642484	2813435
12170.1	-0.0635746	2813750
12180.3	-0.0628765	2813507
12190.4	-0.0621552	2813674
12200.5	-0.0614118	2813369
12210.6	-0.0606475	2814341
12220.7	-0.0598633	2813586
12230.8	-0.0590604	2813937
12240.9	-0.0582398	2814362
12251	-0.0574026	2813493
12261.1	-0.0565496	2814283
12270.1	-0.0557791	2814376
12280.2	-0.0548991	2814872
12290.3	-0.054006	2813844
12300.4	-0.0531005	2813943
12310.5	-0.0521834	2813076
12320.6	-0.0512552	2812810
12330.7	-0.0503165	2811789
12340.8	-0.0493672	2811117
12350.9	-0.0484074	2810367
12361.1	-0.0474362	2809212
12370.1	-0.0465642	2808731
12380.2	-0.0455746	2808007
12390.4	-0.044576	2807058
12400.5	-0.0435683	2805849
12410.7	-0.042551	2804784
12420.9	-0.0415218	2803387
12431.1	-0.04048	2801723
12440.2	-0.039544	2800780
12450.4	-0.0384824	2799688
12460.5	-0.0374202	2798432
12470.6	-0.0363567	2797266
12480.6	-0.0352864	2796037
12490.6	-0.0342051	2795147
12500.6	-0.0331129	2794806
12510.5	-0.0320136	2794274
12520.4	-0.0309112	2794548
12530.2	-0.0297995	2794610
12540	-0.0286763	2795037
12550.9	-0.0274123	2795790
12560.7	-0.0262597	2796201
12570.5	-0.0250925	2796513
12580.4	-0.0239103	2797197
12590.2	-0.0227126	2798116
12601.1	-0.0213633	2798512
12610.9	-0.0201318	2799393
12620.7	-0.0188838	2800557
12630.5	-0.0176191	2801294
12640.3	-0.0163373	2802142
12650.1	-0.0150383	2803276
12661.1	-0.0135745	2803899
12670.9	-0.0122386	2804029
12680.7	-0.0108851	2804119
12690.5	-0.0095139	2805120
12700.3	-0.00812512	2806405
12710.1	-0.00671877	2806857
12721	-0.00513568	2807962
12730.8	-0.00369265	2807949
12740.7	-0.00223243	2808080
12750.5	-0.000754528	2808736
12760.3	0.000743299	2808615
12770.2	0.002268	2809003
12780.2	0.00381121	2808913
12790.1	0.00537004	2808557
12800	0.00694406	2808362
12811.1	0.00871444	2807982
12821.1	0.010333	2807732
12830	0.0117921	2807078
12840.1	0.0134456	2806997
12850.2	0.015111	2806794
12860.3	0.0167877	2806391
12870.4	0.0184744	2805862
12880.4	0.0201711	2805224
12890.5	0.0218695	2805940
12900.5	0.0235645	2805764
12910.4	0.0252632	2805437
12920.4	0.0269666	2805798
12930.4	0.0286735	2805802
12940.4	0.0303828	2806029
12950.3	0.0320931	2805982
12960.3	0.0338033	2806372
12970.3	0.0355119	2807172
12980.2	0.037215	2807135
12990.1	0.0388983	2807518
13001	0.0407521	2807715
13010.8	0.0424062	2807332
13020.5	0.0440521	2807193
13030.3	0.0456887	2806855
13040.1	0.0473145	2806526
13050.9	0.0491068	2806160
13060.7	0.0507057	2805453
13070.5	0.0522897	2804651
13080.2	0.0538577	2804184
13090	0.0554083	2803369
13100.9	0.0571094	2803024
13110.6	0.0586195	2802292
13120.4	0.0601085	2802153
13130.2	0.0615753	2801778
13141	0.0631777	2801347
13150.8	0.0645942	2800515
13160.6	0.0659852	2799854
13170.3	0.06735	2798715
13180.1	0.0686875	2797761
13190.9	0.0701366	2797512
13200.6	0.071402	2797103
13210.3	0.0726349	2796402
13221	0.0739697	2795298
13230.6	0.0751394	2794686
13240.3	0.0762786	2793912
13251	0.0775081	2793094
13260.6	0.0785818	2792776
13270.3	0.0796239	2791776
13281	0.0807445	2790958
13290.6	0.0817194	2790207
13300.3	0.0826623	2789730
13311	0.0836724	2788396
13320.6	0.0845477	2788067
13330.3	0.0853912	2787135
13341	0.0862912	2786111
13350.6	0.0870679	2786052
13360.3	0.0878134	2785615
13371	0.0886054	2785908
13380.6	0.0892859	2785701
13390.3	0.0899362	2786253
13401	0.0906239	2786410
13410.6	0.0912118	2786624
13420.3	0.0917716	2786443
13431.1	0.0923616	2786496
13440.8	0.0928672	2786819
13450.7	0.0933497	2786525
13460.5	0.0938042	2786531
13470.4	0.0942304	2786772
13480.2	0.0946301	2787593
13490	0.0950039	2788029
13500.9	0.0953895	2787676
13510.8	0.0957104	2786784
13520.6	0.0960071	2786484
13530.4	0.0962801	2786119
13540.3	0.09653	2785753
13550.1	0.0967571	2785463
13561	0.0969834	2785172
13570.8	0.097164	2784866
13580.7	0.0973232	2783596
13590.5	0.0974611	2783844
13600.3	0.097578	2783138
13610	0.0976742	2782434
13620.9	0.0977574	2781652
13630.7	0.0978112	2781771
13640.4	0.0978451	2781481
13650.2	0.0978593	2780321
13661	0.0978517	2779588
13670.7	0.0978242	2778787
13680.4	0.0977772	2778162
13690	0.0977108	2777598
13700.7	0.097614	2776721
13710.3	0.0975058	2776628
13721	0.097362	2775288
13730.6	0.0972108	2775093
13740.2	0.0970388	2774488
13750.9	0.0968228	2773652
13760.5	0.0966056	2773124
13770.2	0.0963664	2772030
13780.8	0.0960741	2771458
13790.5	0.0957869	2770769
13800.1	0.0954761	2769337
13810.8	0.0951028	2768397
13820.4	0.0947411	2767797
13830	0.0943543	2767210
13840.7	0.0938948	2766360
13850.3	0.0934539	2765690
13861	0.0929331	2765202
13870.6	0.0924359	2764932
13880.2	0.0919113	2764386
13891	0.091293	2763233
13900.7	0.0907031	2762811
13910.4	0.0900839	2762118
13920.1	0.0894352	2761792
13931	0.0886774	2761806
13940.7	0.0879623	2761159
13950.5	0.0872168	2760109
13960.3	0.0864404	2759472
13970.1	0.0856322	2758929
13980.9	0.0846961	2758406
13990.8	0.0838198	2757490
14000.6	0.082911	2757620
14010.5	0.0819656	2756210
14020.4	0.0809885	2756023
14030.3	0.0799805	2755889
14040.2	0.0789416	2755590
14050.1	0.0778711	2755960
14060	0.0767687	2754933
14071.1	0.075506	2754505
14081.1	0.0743343	2754512
14091.1	0.0731298	2753615
14100	0.0720332	2753237
14110.1	0.0707738	2752733
14120.1	0.0694878	2751939
14130.2	0.0681759	2750759
14140.2	0.0668393	2749958
14150.3	0.0654787	2748759
14160.3	0.0640952	2747760
14170.4	0.0626897	2746945
14180.4	0.0612633	2746513
14190.5	0.0598171	2745459
14200.5	0.0583519	2745360
14210.6	0.0568688	2745169
14220.6	0.0553688	2744838
14230.7	0.0538529	2744448
14240.7	0.052322	2742965
14250.8	0.050777	2742461
14260.8	0.0492188	2741038
14270.9	0.0476482	2739738
14280.9	0.0460659	2737890
14291	0.0444679	2736642
14300	0.0430355	2736159
14310.2	0.0413998	2734998
14320.5	0.0397468	2734251
14330.7	0.0380803	2732986
14341	0.0364054	2731786
14350.1	0.03491	2731300
14360.4	0.0332207	2729714
14370.7	0.0315243	2728861
14381	0.0298216	2727734
14390.1	0.028306	2726541
14400.3	0.026599	2725174
14410.5	0.0248877	2724258
14420.8	0.0231718	2723781
14431	0.0214517	2723139
14440.1	0.0199196	2721733
14450.3	0.0181931	2720883
14460.5	0.0164639	2719758
14470.8	0.0147328	2718371
14481	0.0130009	2716695
14490.1	0.011461	2714488
14500.3	0.00972842	2712440
14510.5	0.00799611	2710003
14520.7	0.00626471	2707508
14531	0.00453479	2705015
14540	0.0029988	2702624
14550.3	0.00127325	2699756
14560.5	-0.000449232	2696711
14570.7	-0.00216813	2693744
14580.9	-0.00388298	2691496
14590	-0.00540353	2688895
14600.2	-0.00710953	2686273
14610.5	-0.00881029	2682906
14620.7	-0.0105054	2680538
14630.9	-0.0121946	2677324
14640	-0.013693	2674427
14650.2	-0.0153674	2671063
14660.4	-0.0170274	2667786
14670.5	-0.0186753	2664486
14680.6	-0.0203126	2661072
14690.7	-0.0219416	2657647
14700.8	-0.0235619	2655057
14710.9	-0.0251738	2651781
14721	-0.026777	2649791
14731.1	-0.028371	2646542
14740.1	-0.0297798	2643805
14750.2	-0.0313551	2641279
14760.3	-0.0329196	2637838
14770.4	-0.0344729	2635227
14780.5	-0.0360141	2631692
14790.6	-0.0375426	2627686
14800.7	-0.0390575	2624069
14810.8	-0.0405582	2619689
14820.9	-0.0420393	2615576
14830.9	-0.043497	2610974
14840.9	-0.0449296	2606152
14850.8	-0.0463398	2601507
14860.7	-0.0477324	2595878
14870.6	-0.0491021	2590811
14880.5	-0.0504521	2585125
14890.4	-0.0517822	2579868
14900.2	-0.0530922	2574603
14910.1	-0.0543815	2568885
14921.1	-0.055789	2563125
14931	-0.0570326	2557935
14940.9	-0.0582536	2552604
14950.7	-0.0594511	2547529
14960.6	-0.0606245	2542333
14970.5	-0.0617727	2537759
14980.4	-0.0628949	2532767
14990.2	-0.06399	2528070
15000.1	-0.0650569	2522882
15010	-0.0660943	2518211
15021	-0.067211	2513678
15030.9	-0.0681833	2508704
15040.8	-0.0691258	2504618
15050.8	-0.0700405	2500319
15061	-0.0709309	2495824
15071.1	-0.0717777	2491835
15081.1	-0.072579	2487192
15091.1	-0.0733366	2483221
15101.1	-0.0740505	2479456
15111	-0.0747208	2475429
15120.9	-0.0753454	2471601
15130.7	-0.0759228	2467543
15140.5	-0.0764529	2463330
15150.3	-0.0769349	2458924
15161	-0.0774143	2454735
15170.7	-0.0777958	2450202
15180.3	-0.0781295	2446128
15191	-0.0784439	2442101
15200.7	-0.0786751	2438246
15210.3	-0.0788565	2434606
15221	-0.0789984	2430582
15230.6	-0.0790715	2427866
15240.3	-0.079092	2424435
15251	-0.0790523	2420398
15260.6	-0.0789594	2417148
15270.2	-0.0788119	2413462
15280.9	-0.0785833	2409682
15290.5	-0.0783186	2406149
15300.2	-0.0779976	2401928
15311	-0.0775715	2397710
15320.8	-0.0771215	2393577
15330.7	-0.0766081	2389086
15340.7	-0.0760289	2385031
15350.7	-0.0753886	2380513
15360.7	-0.0746874	2375964
15370.7	-0.0739256	2371336
15380.7	-0.0731039	2366887
15390.7	-0.0722226	2362227
15400.7	-0.071285	2358304
15410.6	-0.0702947	2354138
15420.5	-0.0692484	2350028
15430.5	-0.0681475	2345557
15440.4	-0.0669934	2340868
15450.3	-0.0657877	2336539
15460.2	-0.0645322	2332326
15470.2	-0.063229	2327790
15480.1	-0.0618802	2323448
15490	-0.0604881	2319396
15501.1	-0.0588885	2314610
15511.1	-0.0574075	2310133
15521.1	-0.0558891	2305386
15531.1	-0.0543229	2300678
15540.1	-0.0528959	2296857
15550.3	-0.0512738	2292119
15560.6	-0.0495798	2287309
15570.9	-0.0477909	2282492
15580.1	-0.0455036	2278570
15590.5	-0.0425123	2273536
15600.8	-0.0401099	2269200
15611.1	-0.0379214	2264103
15620.3	-0.0359367	2259453
15630.6	-0.0336542	2254865
15641	-0.031421	2249719
15650.2	-0.0294671	2244861
15660.5	-0.0272498	2239601
15670.8	-0.0249943	2234538
15681.1	-0.0227069	2229570
15690.3	-0.0206785	2224792
15700.7	-0.0184422	2219624
15711	-0.0162782	2214522
15720.2	-0.0144161	2209987
15730.5	-0.0123761	2205666
15740.8	-0.0103746	2201096
15750	-0.00861621	2197214
15760.4	-0.00665435	2192857
15770.8	-0.0047259	2188103
15780.1	-0.00305817	2184477
15790.5	-0.00125278	2180332
15800.9	0.000459356	2175691
15810.1	0.00189179	2171245
15820.4	0.00340372	2166942
15830.8	0.00481542	2162695
15841.1	0.0061309	2158493
15850.3	0.00722137	2154467
15860.7	0.00835857	2149836
15871	0.00939616	2145265
15880.2	0.0102293	2141299
15890.5	0.011052	2136422
15900.9	0.0117698	2131807
15910.1	0.0122589	2127977
15920.4	0.0126461	2123656
15930.8	0.0128759	2119690
15941.1	0.0130142	2115616
15950.3	0.0131242	2112397
15960.7	0.0127783	2108784
15971.1	0.0127055	2105246
15980.4	0.0125466	2101470
15991	0.0122127	2097608
16000.4	0.011805	2093484
16011.2	0.0112156	2089418
16020.8	0.0105882	2085384
16030.4	0.00987297	2081494
16040	0.00908163	2077980
16050.8	0.00810372	2073746
16060.4	0.00715122	2069777
16070.1	0.0061172	2065693
16081.1	0.00484854	2061386
16091	0.00361978	2057830
16101	0.00230843	2053785
16111.1	0.00093376	2050316
16121.1	-0.000495875	2046929
16131.1	-0.00197183	2043135
16141.1	-0.00348534	2039354
16151.2	-0.00502784	2035345
16161.3	-0.00659556	2031303
16170.2	-0.00798272	2027687
16180.4	-0.00958744	2023778
16190.6	-0.011229	2020096
16200.8	-0.0129244	2015986
16211.1	-0.0151011	2011855
16220	-0.0175863	2008142
16230.3	-0.0198361	2003918
16240.5	-0.0218935	1999810
16250.8	-0.0238788	1995350
16261	-0.0258381	1991396
16270.1	-0.0275276	1987562
16280.3	-0.0294051	1983406
16290.6	-0.0312512	1979260
16300.9	-0.0330948	1974519
16311.2	-0.0348945	1970220
16320.2	-0.0364098	1966528
16330.5	-0.0380639	1962431
16340.8	-0.0396269	1958338
16351.1	-0.0410914	1954569
16360.1	-0.0422935	1951084
16370.4	-0.0435875	1947214
16380.7	-0.0448081	1943437
16391	-0.0459576	1939415
16401.3	-0.0470269	1936045
16410.3	-0.0478839	1932720
16420.5	-0.0487582	1929235
16430.8	-0.0495108	1925626
16441.2	-0.0501766	1922010
16450.2	-0.0506216	1919008
16460.7	-0.0510364	1915299
16471.2	-0.0513183	1911920
16480.7	-0.051574	1908884
16490.3	-0.0514226	1904933
16501.2	-0.0515396	1901014
16510.8	-0.0515697	1897550
16520.4	-0.051428	1893585
16531.3	-0.0511863	1889780
16540.9	-0.0509285	1885930
16550.5	-0.0506232	1882269
16560.1	-0.0502649	1878305
16571	-0.0497991	1874403
16580.6	-0.0493503	1871196
16590.2	-0.0488619	1867371
16601.1	-0.0482505	1863629
16610.7	-0.0476667	1860024
16620.3	-0.0470397	1856957
16631.3	-0.046277	1853541
16640.8	-0.0455761	1850255
16650.4	-0.0448488	1846995
16660	-0.0440979	1843251
16671	-0.0432127	1839571
16680.5	-0.0424209	1836182
16691.2	-0.041501	1832696
16700.6	-0.0406834	1829446
16711.3	-0.0397356	1825786
16720.6	-0.0388964	1822520
16731.2	-0.0379286	1819490
16740.5	-0.0370769	1816727
16751.2	-0.0361013	1813537
16760.4	-0.0352487	1810728
16771	-0.0342772	1807584
16780.3	-0.0334314	1805254
16790.8	-0.0324721	1802292
16800	-0.0316431	1799478
16810.5	-0.0307115	1796497
16820.9	-0.0297973	1793307
16830	-0.0290134	1790952
16840.4	-0.0281343	1788220
16850.7	-0.0272727	1785548
16861.1	-0.0264281	1782794
16870.1	-0.0257026	1780177
16880.4	-0.0248888	1777462
16890.8	-0.0240911	1774284
16901.1	-0.0233093	1771185
16910.2	-0.0226381	1768484
16920.5	-0.0218853	1765198
16930.9	-0.0211477	1762007
16941.2	-0.0204249	1758517
16950.2	-0.0198042	1755594
16960.6	-0.019108	1752254
16970.9	-0.0184252	1748928
16981.3	-0.0177551	1745374
16990.3	-0.0171783	1742494
17000.7	-0.0165291	1739420
17011.2	-0.0158863	1735951
17020.3	-0.0153322	1733269
17030.8	-0.0147088	1730152
17041.2	-0.0140952	1727140
17050.4	-0.0135661	1724762
17060.9	-0.0129699	1722156
17070	-0.0124551	1719590
17080.5	-0.0118734	1717160
17091	-0.0112974	1714094
17100.3	-0.010797	1711510
17110.9	-0.0102313	1708449
17120.1	-0.00974195	1705757
17130.7	-0.00918806	1702986
17140	-0.00870818	1700719
17150.7	-0.0081642	1697611
17161.3	-0.00762587	1694922
17170.6	-0.00715934	1692307
17180	-0.00669592	1689605
17191	-0.00616051	1686340
17201.2	-0.0056679	1683256
17211.4	-0.0051822	1680612
17220	-0.00477833	1678116
17230	-0.004314	1675756
17240.1	-0.00385662	1673137
17250.1	-0.00340643	1670652
17260.1	-0.0029639	1667821
17270.2	-0.00252984	1664985
17280.2	-0.00210528	1662674
17290.2	-0.00169139	1660139
17300.3	-0.00128924	1657184
17310.3	-0.000899674	1654885
17320.3	-0.000523253	1652413
17330.4	-0.000160227	1649930
17340.5	0.000191635	1647628
17350.7	0.000535404	1645262
17361.2	0.000870961	1643042
17371.6	0.00119213	1640859
17380.3	0.00144868	1638982
17390.8	0.001743	1636681
17401.2	0.0020222	1634719
17411.1	0.00227335	1632835
17421.2	0.00251287	1630727
17431.5	0.00274363	1628831
17440.2	0.00292541	1626888
17450.7	0.00312839	1624969
17461.1	0.00331461	1623191
17471.4	0.00348285	1621148
17480	0.0036112	1619135
17490.4	0.00375146	1616744
17500.8	0.00387599	1614286
17511.3	0.00398522	1611757
17521.7	0.00407924	1609590
17530.4	0.00414618	1607642
17540.8	0.00421306	1605680
17551.2	0.0042656	1603340
17561.6	0.00430419	1601199
17570.3	0.00432591	1599626
17580.5	0.00434002	1597740
17590.9	0.00434203	1595631
17601.3	0.00433225	1593901
17611.6	0.00431156	1591651
17620.3	0.00428627	1590156
17630.7	0.00424712	1588111
17641.1	0.00419917	1586209
17651.5	0.00414332	1584875
17660.2	0.00409139	1583107
17670.5	0.00402429	1581239
17680.6	0.0039534	1579746
17690.6	0.00387845	1578227
17700.8	0.00379934	1576465
17711.1	0.00371612	1575081
17721.3	0.00363188	1573877
17731.4	0.00354809	1572322
17741.7	0.00346184	1570874
17750.4	0.00338957	1569334
17760.9	0.00330392	1567575
17771.4	0.00322045	1565829
17780.1	0.00315332	1564696
17790.1	0.00307926	1563011
17800.5	0.003006	1561176
17811	0.00293779	1559588
17821.4	0.00287556	1557879
17831.3	0.00282269	1556379
17841.1	0.00277582	1554474
17850.9	0.00273548	1552762
17861	0.00270144	1551149
17871.5	0.0026738	1549506
17880.3	0.00265732	1548201
17890.8	0.00264578	1546703
17901.2	0.00264319	1545304
17910	0.00264803	1544102
17921.4	0.00266398	1542521
17931.2	0.00268618	1541108
17941.2	0.00271716	1539542
17951.2	0.00275629	1538044
17961.2	0.00280339	1536660
17971.2	0.00285822	1535081
17981.2	0.00292047	1533370
17991.2	0.00298981	1531330
18001.2	0.00306584	1529638
18011.5	0.00315025	1527804
18021.3	0.003236	1526141
18031.3	0.00332978	1524531
18041.7	0.00343136	1522741
18050.1	0.00351758	1521283
18060.7	0.00362851	1519006
18071.2	0.0037422	1517083
18081	0.00385076	1515480
18091.1	0.00396458	1513418
18101.4	0.00408172	1511569
18110	0.00417966	1509857
18120.4	0.00429697	1508415
18130.7	0.00441338	1506686
18141	0.00452819	1505203
18151.3	0.00464073	1503825
18160.2	0.00473469	1502469
18170.8	0.00484475	1500852
18181.5	0.00495044	1499133
18190.4	0.0050347	1497580
18201.1	0.00513072	1495986
18211.7	0.00522013	1493940
18220.2	0.00528735	1492308
18230.2	0.00536002	1490738
18241.6	0.00543513	1488620
18251.2	0.00549143	1487142
18260.7	0.00554051	1485473
18270.1	0.00558232	1483865
18280.9	0.00562213	1482299
18290.2	0.00564873	1480935
18301.2	0.00567114	1479058
18310.9	0.00568258	1477668
18320.6	0.00568627	1476351
18330.4	0.00568197	1475063
18340.2	0.00566954	1473867
18350.1	0.00564901	1472260
18361.5	0.00561487	1470679
18371.3	0.00557695	1469121
18381.5	0.00552963	1467494
18390.1	0.00548263	1466525
18400.4	0.00541956	1465160
18410.4	0.00535038	1463939
18420.3	0.00527412	1462708
18430	0.00519248	1461921
18441.1	0.00509104	1460456
18450.7	0.00499789	1459291
18460.2	0.00489903	1458136
18470.2	0.0047887	1456866
18480.4	0.00467116	1455729
18490.7	0.00454621	1454615
18501	0.004416	1453316
18511.4	0.00428094	1451947
18521.7	0.00414148	1450451
18530.3	0.00402223	1449284
18540.6	0.00387587	1447806
18550.9	0.00372641	1446008
18561.3	0.00357433	1444391
18571.6	0.00342011	1442682
18580.2	0.00329052	1441183
18590.5	0.00313403	1439823
18601.1	0.00297273	1438190
18611.6	0.00281126	1436633
18620.5	0.00267698	1434981
18631	0.00251668	1433078
18641.6	0.00235842	1431311
18650.2	0.00223038	1429808
18660.6	0.00207794	1428136
18670.9	0.00193032	1426361
18681	0.00178963	1424988
18691.2	0.00165137	1423660
18701.2	0.00151985	1422339
18711.4	0.0013911	1420802
18720	0.00128695	1419884
18730.4	0.00116769	1419239
18741	0.00105389	1417926
18751.6	0.000948408	1416510
18760.4	0.000867442	1415699
18771	0.000779281	1414398
18781.5	0.000701679	1413153
18790.2	0.00064645	1412483
18800.6	0.000591115	1411198
18811.1	0.000547805	1410174
18821.6	0.000517712	1408972
18830.5	0.000503722	1408111
18841	0.000500995	1406933
18851.6	0.000514442	1405439
18860.4	0.000538646	1404262
18871	0.000584065	1402903
18881.6	0.000648197	1401517
18890.4	0.000716584	1400247
18901	0.000817356	1398869
18911.5	0.000939376	1397779
18920.3	0.00105736	1396853
18930.8	0.00121954	1395393
18941.3	0.00140514	1394030
18950.1	0.00157828	1393042
18960.6	0.00180889	1391512
18971.1	0.00206297	1390309
18981.3	0.00233714	1388995
18991.5	0.00263682	1387738
19000.1	0.00290917	1386733
19010.4	0.00326072	1385481
19020.7	0.00363729	1384244
19030.9	0.0040415	1383213
19041.2	0.00447372	1382131
19051.1	0.00491715	1381028
19060.8	0.00538113	1380076
19071.1	0.00589652	1379246
19081.3	0.00644073	1378642
19091.6	0.00701376	1377770
19100.2	0.00751836	1376974
19110.6	0.00815493	1376185
19121.1	0.00882083	1375255
19131.5	0.00951572	1374301
19140.1	0.0101148	1373402
19150.4	0.01085	1372415
19160.6	0.0116031	1371483
19170.6	0.0123706	1370483
19180.6	0.0131619	1369365
19190.7	0.0139849	1368105
19200.9	0.0148394	1367031
19211.1	0.0157156	1365981
19221.4	0.0166124	1364429
19231.6	0.0175285	1363394
19240.1	0.0183056	1362318
19250.3	0.0192533	1361038
19260.6	0.0202159	1360081
19270.6	0.0211789	1358988
19280.7	0.0221481	1358046
19290.8	0.0231304	1357046
19300.8	0.0241188	1355913
19310.9	0.0251132	1354663
19320.9	0.0261114	1353429
19331	0.0271164	1352488
19341.2	0.0281257	1351351
19351.4	0.0291337	1350141
19361.6	0.0301382	1349022
19370	0.03097	1348093
19380.2	0.0319599	1346998
19390.4	0.0329328	1346163
19400.4	0.0338823	1345226
19410.4	0.0348167	1344319
19420.4	0.0357337	1343312
19430.6	0.0366451	1341996
19440.8	0.0375352	1340945
19450.9	0.0384006	1339814
19461.1	0.0392392	1338697
19471.3	0.0400453	1337766
19481.3	0.0408134	1336959
19491.4	0.0415573	1336198
19501.6	0.042269	1335114
19510.1	0.0428342	1334302
19520.3	0.0434773	1333301
19530.4	0.0440745	1332365
19540.4	0.0446278	1331313
19550.3	0.0451331	1330379
19560.3	0.0456063	1329710
19570.5	0.0460392	1328848
19580.7	0.0464259	1328359
19590.9	0.0467652	1327534
19601.1	0.0470565	1326941
19611.3	0.0472988	1326485
19621.4	0.047491	1325940
19631.5	0.0476343	1325505
19640	0.047716	1324877
19650.2	0.047768	1324405
19660.4	0.0477699	1323651
19670.5	0.047722	1322784
19680.5	0.0476263	1322037
19690.5	0.0474826	1321339
19700.7	0.047289	1320710
19710.8	0.0470469	1319839
19721	0.0467564	1319127
19731.2	0.046419	1318328
19741.4	0.0460355	1317715
19751.5	0.045607	1316793
19760	0.0452164	1316207
19770.2	0.0447113	1315605
19780.2	0.0441708	1314795
19790.2	0.0435912	1314005
19800.2	0.042974	1313234
19810.4	0.0423099	1312262
19820.6	0.0416098	1311349
19830.7	0.0408786	1310473
19840.8	0.0401233	1309688
19850.7	0.0393441	1308770
19860.7	0.038532	1307948
19870.9	0.0376794	1307043
19881.1	0.0368035	1306308
19891.1	0.0359163	1305397
19901.3	0.0349893	1304722
19911.2	0.0340662	1303866
19921.4	0.0331034	1303058
19931.7	0.0321096	1302362
19940.3	0.0312691	1301614
19950.6	0.0302473	1300970
19960.9	0.0292127	1300387
19970.5	0.0282401	1299790
19980.6	0.0272064	1299171
19990.9	0.0261441	1298656
