%%MatrixMarket matrix array real general
6 6
1.
0.
0.
0.
0.
0.
.7071067810
-.7500000000
0.
.4330127020
0.
0.
-.1443375673
-.4082482906
.5833333333
.7071067810
-.4330127020
.1863389981
-.4082482906
-.7216878367
0.
-.2500000000
0.
0.
-.1250000000
-.3535533905
.7938566203
-.6123724358
-.1250000000
-.1613743061
.1613743061
.4564354646
.4658474951
.1581138830
.2904737510
.4166666667e-1
