0	0
11.0308	0
22.0616	0
33.0924	0
40.4463	0
51.4771	0
62.5079	0
73.5387	0
80.8926	0
91.9234	0
102.954	0
110.308	0
121.339	0
132.37	0
143.401	0
150.754	0
161.785	0
172.816	0
180.17	0
191.201	0
202.231	0
213.262	0
220.616	0
231.647	0
242.678	0
250.032	0
261.062	0
272.093	0
283.124	0
290.478	0
301.509	0
312.54	0
323.57	0
330.924	0
341.955	0
352.986	0
360.34	0
371.371	0
382.401	0
393.432	0
400.786	0
411.817	0
422.848	0
430.202	0
441.232	0
452.263	0
463.294	0
470.648	0
481.679	0
492.709	0
500.063	0
511.094	0
522.125	0
533.156	0
540.51	0
551.54	0
562.571	0
573.602	0
580.956	0
591.987	0
603.018	0
610.371	0
621.402	0
632.433	0
643.464	0
650.818	0
661.849	0
672.879	0
680.233	0
691.264	0
702.295	0
713.326	0
720.68	0
731.71	0
742.741	0
750.095	0
761.126	0
772.157	0
783.187	0
790.541	0
801.572	0
812.603	0
823.634	0
830.988	0
842.018	0
853.049	0
860.403	0
871.434	0
882.465	0
893.496	0
900.849	0
911.88	0
922.911	0
930.265	0
941.296	0
952.327	0
963.357	0
970.711	0
981.742	0
992.773	0
1000.13	0
1011.16	0
1022.19	0
1033.22	0
1040.57	0
1051.6	0
1062.63	0
1073.67	0
1081.02	0
1092.05	0
1103.08	0
1110.43	0
1121.47	0
1132.5	0
1143.53	0
1150.88	0
1161.91	0
1172.94	0
1180.3	0
1191.33	0
1202.36	0
1213.39	0
1220.74	0
1231.77	0
1242.8	0
1250.16	0
1261.19	0
1272.22	0
1283.25	0
1290.6	0
1301.64	0
1312.67	0
1320.02	0
1331.05	0
1342.08	0
1353.11	0
1360.47	0
1371.5	0
1382.53	0
1393.56	0
1400.91	0
1411.94	0
1422.97	0
1430.33	0
1441.36	0
1452.39	0
1463.42	0
1470.77	0
1481.81	0
1492.84	0
1500.19	0
1511.22	0
1522.25	0
1533.28	0
1540.64	0
1551.67	0
1562.7	0
1570.05	0
1581.08	0
1592.11	0
1603.14	0
1610.5	0
1621.53	0
1632.56	0
1643.59	0
1650.94	0
1661.98	0
1673.01	0
1680.36	0
1691.39	0
1702.42	0
1713.45	0
1720.81	0
1731.84	0
1742.87	0
1750.22	0
1761.25	0
1772.28	0
1783.31	0
1790.67	0
1801.7	0
1812.73	0
1820.08	0
1831.11	0
1842.15	0
1853.18	0
1860.53	0
1871.56	0
1882.59	0
1893.62	0
1900.98	0
1912.01	0
1923.04	0
1930.39	0
1941.42	0
1952.45	0
1963.48	-9.09495e-13
1970.84	-1.81899e-12
1981.87	-3.63798e-12
1992.9	-6.36646e-12
2000.25	-9.09495e-12
2011.28	-1.63709e-11
2022.31	-2.91038e-11
2033.35	-5.09317e-11
2040.7	-7.27596e-11
2051.73	-1.22782e-10
2062.76	-2.07365e-10
2070.12	-2.92857e-10
2081.15	-4.8567e-10
2092.18	-7.97627e-10
2103.21	-1.29694e-09
2110.56	-1.78443e-09
2121.59	-2.85763e-09
2132.62	-4.53383e-09
2143.65	-7.12498e-09
2151.01	-9.58153e-09
2162.04	-1.48293e-08
2173.07	-2.27446e-08
2180.42	-3.01006e-08
2191.45	-4.54929e-08
2202.48	-6.81612e-08
2213.52	-1.01253e-07
2220.87	-1.31203e-07
2231.9	-1.92184e-07
2242.93	-2.7919e-07
2250.28	-3.56494e-07
2261.32	-5.10924e-07
2272.35	-7.26437e-07
2283.38	-1.02476e-06
2290.73	-1.2834e-06
2301.76	-1.78729e-06
2312.79	-2.47019e-06
2320.15	-3.0522e-06
2331.18	-4.16635e-06
2342.21	-5.64576e-06
2353.24	-7.5955e-06
2360.59	-9.2199e-06
2371.62	-1.22584e-05
2382.65	-1.61854e-05
2390.01	-1.94056e-05
2401.04	-2.53326e-05
2412.07	-3.28493e-05
2423.1	-4.23163e-05
2430.45	-4.99181e-05
2441.49	-6.36148e-05
2452.52	-8.05571e-05
2463.55	-0.000101376
2470.9	-0.000117761
2481.93	-0.00014669
2492.96	-0.000181633
2500.32	-0.000208751
2511.35	-0.000255959
2522.38	-0.000312041
2533.41	-0.000378265
2540.76	-0.000428719
2551.79	-0.00051493
2562.82	-0.000615137
2570.18	-0.000690505
2581.21	-0.000817635
2592.24	-0.000963177
2603.27	-0.00112888
2610.62	-0.00125141
2621.66	-0.00145463
2632.69	-0.00168268
2640.04	-0.00184936
2651.07	-0.00212256
2662.1	-0.00242494
2673.13	-0.00275794
2680.49	-0.00299759
2691.52	-0.0033844
2702.55	-0.00380483
2713.58	-0.00425965
2720.93	-0.00458221
2731.96	-0.0050953
2742.99	-0.00564347
2750.35	-0.00602828
2761.38	-0.00663416
2772.41	-0.00727368
2783.44	-0.00794568
2790.79	-0.00841098
2801.82	-0.00913354
2812.86	-0.00988372
2820.21	-0.010398
2831.24	-0.0111884
2842.27	-0.0119988
2853.3	-0.0128257
2860.66	-0.0133841
2871.69	-0.0142293
2882.72	-0.0150791
2890.07	-0.0156457
2901.1	-0.0164913
2912.13	-0.0173264
2923.16	-0.018144
2930.52	-0.0186757
2941.55	-0.0194473
2952.58	-0.0201799
2963.61	-0.0208639
2970.96	-0.0212878
2981.99	-0.021867
2993.02	-0.0223676
3000.38	-0.0226511
3011.41	-0.0229903
3022.44	-0.0232129
3033.47	-0.0233021
3040.82	-0.0232788
3051.85	-0.0231057
3062.89	-0.0227486
3070.24	-0.022398
3081.27	-0.0216864
3092.3	-0.020731
3103.33	-0.0195073
3110.69	-0.0185297
3121.72	-0.016801
3132.75	-0.0147335
3140.1	-0.0131534
3151.13	-0.0104598
3162.16	-0.00735335
3173.19	-0.00380636
3180.55	-0.00118353
3191.58	0.00315754
3202.61	0.00800929
3213.64	0.0133955
3220.99	0.0172942
3232.02	0.0236189
3243.05	0.030531
3250.41	0.0354728
3261.44	0.0433951
3272.47	0.0519366
3283.5	0.0611021
3290.85	0.0675597
3301.88	0.0777648
3312.91	0.0885859
3320.27	0.0961367
3331.3	0.107956
3342.33	0.12035
3353.36	0.133293
3360.71	0.142212
3371.74	0.156002
3382.77	0.170252
3390.13	0.179986
3401.16	0.194904
3412.19	0.210159
3423.22	0.225697
3430.57	0.236185
3441.6	0.252067
3452.63	0.268072
3463.66	0.284137
3471.02	0.294846
3482.05	0.310858
3493.08	0.326747
3500.43	0.337235
3511.46	0.352759
3522.49	0.367968
3533.52	0.38279
3540.88	0.392421
3551.91	0.406441
3562.94	0.419885
3570.29	0.428495
3581.32	0.44083
3592.35	0.452413
3603.38	0.463181
3610.73	0.469878
3621.77	0.479157
3632.8	0.487471
3640.15	0.492452
3651.18	0.499048
3662.21	0.504554
3673.24	0.508932
3680.59	0.511208
3691.62	0.513635
3702.65	0.514856
3710.01	0.514991
3721.04	0.514163
3732.07	0.512091
3743.1	0.50877
3750.45	0.505862
3761.48	0.500466
3772.51	0.493837
3783.54	0.485992
3790.9	0.480098
3801.93	0.470279
3812.96	0.459317
3820.31	0.45139
3831.34	0.438603
3842.37	0.424779
3853.4	0.409967
3860.76	0.399568
3871.79	0.383226
3882.82	0.366042
3890.17	0.354149
3901.2	0.335701
3912.23	0.316579
3923.26	0.296852
3930.62	0.283399
3941.65	0.262816
3952.68	0.241813
3960.03	0.227613
3971.06	0.206068
3982.09	0.184294
3993.12	0.16236
4000.47	0.147684
4011.51	0.125642
4022.54	0.103627
4033.57	0.081707
4040.92	0.0671795
4051.95	0.0455654
4062.98	0.0242205
4070.33	0.0101709
4081.37	-0.0105881
4092.4	-0.0309165
4103.43	-0.0507576
4110.78	-0.0636873
4121.81	-0.0825967
4132.84	-0.100879
4140.19	-0.112695
4151.23	-0.129828
4162.26	-0.146214
4173.29	-0.161811
4180.64	-0.171753
4191.67	-0.185957
4202.7	-0.199281
4210.06	-0.207662
4221.09	-0.219461
4232.12	-0.230315
4243.15	-0.240205
4250.5	-0.246255
4261.53	-0.25451
4272.56	-0.261772
4283.59	-0.268038
4290.95	-0.271663
4301.98	-0.276275
4313.01	-0.279903
4320.36	-0.281781
4331.39	-0.283799
4342.43	-0.284875
4353.46	-0.285032
4360.81	-0.284639
4371.84	-0.283327
4382.87	-0.281175
4390.23	-0.279292
4401.26	-0.275823
4412.29	-0.271618
4423.32	-0.26672
4430.67	-0.263093
4441.7	-0.257143
4452.73	-0.250626
4460.09	-0.245991
4471.12	-0.238641
4482.15	-0.230858
4493.18	-0.222696
4500.53	-0.217068
4511.56	-0.208386
4522.59	-0.199459
4533.62	-0.190339
4540.98	-0.184174
4552.01	-0.174836
4563.04	-0.16543
4570.39	-0.159143
4581.42	-0.149719
4592.46	-0.14034
4603.49	-0.131041
4610.84	-0.124906
4621.87	-0.115821
4632.9	-0.106907
4640.25	-0.101074
4651.29	-0.0925058
4662.32	-0.0841783
4673.35	-0.0761125
4680.7	-0.0708901
4691.73	-0.0633009
4702.76	-0.0560178
4710.12	-0.0513386
4721.15	-0.0445918
4732.18	-0.0381788
4743.21	-0.0321059
4750.56	-0.0282487
4761.59	-0.022752
4772.62	-0.0176036
4783.65	-0.0128035
4791.01	-0.00979632
4802.04	-0.00557284
4813.07	-0.00169086
4820.42	0.000709703
4831.45	0.0040336
4842.48	0.00703092
4853.52	0.00970896
4860.87	0.0113209
4871.9	0.013485
4882.93	0.0153529
4890.28	0.0164383
4901.32	0.0178343
4912.35	0.0189609
4923.38	0.0198293
4930.73	0.0202703
4941.76	0.0207333
4952.79	0.0209688
4960.15	0.0210053
4971.18	0.0208881
4982.21	0.0205756
4993.24	0.0200801
5000.59	0.0196542
5011.62	0.0188811
5022.65	0.017958
5030.01	0.0172653
5041.04	0.0161194
5052.07	0.014856
5063.1	0.0134868
5070.45	0.0125211
5081.48	0.0110016
5092.51	0.00940684
5103.55	0.00774758
5110.9	0.00661073
5121.93	0.00486689
5132.96	0.00308531
5140.31	0.00188115
5151.35	5.67348e-05
5162.38	-0.00178222
5173.41	-0.00362801
5180.76	-0.00485882
5191.79	-0.00670054
5202.82	-0.00853153
5210.18	-0.00974349
5221.21	-0.0115447
5232.24	-0.0133219
5243.27	-0.0150713
5250.62	-0.0162204
5261.65	-0.0179164
5272.68	-0.019577
5280.04	-0.0206635
5291.07	-0.0222613
5302.1	-0.02382
5313.13	-0.0253389
5320.48	-0.0263294
5331.51	-0.0277818
5342.54	-0.0291947
5353.58	-0.0305687
5360.93	-0.0314636
5371.96	-0.032775
5382.99	-0.0340504
5390.34	-0.0348813
5401.38	-0.0360999
5412.41	-0.0372863
5423.44	-0.0384423
5430.79	-0.0391968
5441.82	-0.0403055
5452.85	-0.0413882
5460.21	-0.0420961
5471.24	-0.0431387
5482.27	-0.0441591
5493.3	-0.0451589
5500.65	-0.0458146
5511.68	-0.0467829
5522.71	-0.0477338
5530.07	-0.0483587
5541.1	-0.0492831
5552.13	-0.0501929
5563.16	-0.0510887
5570.51	-0.0516786
5581.54	-0.0525529
5592.57	-0.053415
5603.61	-0.0542655
5610.96	-0.0548261
5621.99	-0.0556579
5633.02	-0.0564789
5640.37	-0.0570203
5651.41	-0.0578237
5662.44	-0.0586166
5673.47	-0.059399
5680.82	-0.0599149
5691.85	-0.0606798
5702.88	-0.061434
5710.24	-0.0619308
5721.27	-0.0626665
5732.3	-0.0633908
5743.33	-0.0641031
5750.68	-0.064571
5761.71	-0.0652621
5772.74	-0.0659397
5780.1	-0.0663836
5791.13	-0.0670368
5802.16	-0.0676742
5813.19	-0.0682948
5820.54	-0.0686986
5831.57	-0.0692885
5842.6	-0.0698582
5853.64	-0.0704064
5860.99	-0.070759
5872.02	-0.0712677
5883.05	-0.0717503
5890.4	-0.0720567
5901.44	-0.0724918
5912.47	-0.0728958
5923.5	-0.0732666
5930.85	-0.0734943
5941.88	-0.0738048
5952.91	-0.0740761
5960.27	-0.0742341
5971.3	-0.0744349
5982.33	-0.0745903
5993.36	-0.0746978
6000.71	-0.0747418
6011.74	-0.0747642
6022.77	-0.0747326
6030.13	-0.0746803
6041.16	-0.0745534
6052.19	-0.0743664
6063.22	-0.0741173
6070.57	-0.0739157
6081.6	-0.0735588
6092.64	-0.0731349
6103.67	-0.0726425
6111.02	-0.0722754
6122.05	-0.0716658
6133.08	-0.0709844
6140.44	-0.0704898
6151.47	-0.0696869
6162.5	-0.0688105
6173.53	-0.0678603
6180.88	-0.0671857
6191.91	-0.0661125
6202.94	-0.064966
6210.3	-0.0641612
6221.33	-0.062894
6232.36	-0.0615557
6243.39	-0.0601475
6250.74	-0.0591707
6261.77	-0.0576497
6272.8	-0.0560633
6280.16	-0.0549706
6291.19	-0.0532803
6302.22	-0.0515307
6313.25	-0.0497247
6320.6	-0.0484906
6331.64	-0.0465966
6342.67	-0.044654
6350.02	-0.0433334
6361.05	-0.0413169
6372.08	-0.0392605
6383.11	-0.0371679
6390.47	-0.0357544
6401.5	-0.0336094
6412.53	-0.0314379
6423.56	-0.0292437
6430.91	-0.0277701
6441.94	-0.0255465
6452.97	-0.0233103
6460.33	-0.0218144
6471.36	-0.0195658
6482.39	-0.0173148
6493.42	-0.0150651
6500.77	-0.0135679
6511.8	-0.0113287
6522.84	-0.00910057
6530.19	-0.00762303
6541.22	-0.00542112
6552.25	-0.00323948
6563.28	-0.00108141
6570.64	0.000342642
6581.67	0.00245442
6592.7	0.0045344
6600.05	0.00590194
6611.08	0.00792254
6622.11	0.0099039
6633.14	0.0118435
6640.5	0.0131121
6651.53	0.0149767
6662.56	0.0167932
6673.59	0.0185598
6680.94	0.0197087
6691.97	0.0213875
6703	0.0230115
6710.36	0.0240628
6721.39	0.0255918
6732.42	0.0270621
6743.45	0.0284723
6750.8	0.0293786
6761.84	0.0306866
6772.87	0.0319322
6780.22	0.0327275
6791.25	0.0338674
6802.28	0.0349434
6813.31	0.035955
6820.67	0.0365936
6831.7	0.0374978
6842.73	0.0383374
6850.08	0.0388613
6861.11	0.0395939
6872.14	0.0402625
6883.17	0.0408679
6890.53	0.0412366
6901.56	0.0417378
6912.59	0.0421775
6923.62	0.0425566
6930.97	0.0427761
6942	0.0430564
6953.04	0.0432789
6960.39	0.0433958
6971.42	0.0435247
6982.45	0.0435994
6993.48	0.0436211
7000.84	0.0436068
7011.87	0.0435437
7022.9	0.0434316
7030.25	0.0433306
7041.28	0.0431409
7052.31	0.0429067
7063.34	0.0426299
7070.7	0.0424225
7081.73	0.0420786
7092.76	0.0416967
7100.11	0.041422
7111.14	0.040981
7122.17	0.040507
7133.2	0.0400019
7140.56	0.0396488
7151.59	0.0390958
7162.62	0.0385166
7173.65	0.037913
7181	0.0374979
7192.04	0.0368578
7203.07	0.0361981
7210.42	0.0357483
7221.45	0.0350602
7232.48	0.0343573
7243.51	0.0336415
7250.87	0.0331579
7261.9	0.0324245
7272.93	0.0316829
7280.28	0.0311847
7291.31	0.0304333
7302.34	0.0296782
7313.37	0.0289212
7320.73	0.0284163
7331.76	0.0276599
7342.79	0.0269061
7350.14	0.0264058
7361.17	0.02566
7372.2	0.0249212
7383.23	0.0241911
7390.59	0.0237099
7401.62	0.0229977
7412.65	0.0222983
7420	0.02184
7431.03	0.0211655
7442.07	0.0205079
7453.1	0.0198687
7460.45	0.0194535
7471.48	0.018848
7482.51	0.0182646
7493.54	0.0177044
7500.9	0.0173446
7511.93	0.0168259
7522.96	0.0163337
7530.31	0.0160207
7541.34	0.0155746
7552.37	0.0151575
7563.4	0.0147699
7570.76	0.0145284
7581.79	0.0141918
7592.82	0.0138863
7600.17	0.0137001
7611.2	0.0134473
7622.23	0.0132264
7633.26	0.0130373
7640.62	0.0129289
7651.65	0.0127926
7662.68	0.0126875
7670.03	0.0126345
7681.06	0.0125803
7692.09	0.0125556
7703.12	0.0125596
7710.48	0.0125777
7721.51	0.0126272
7732.54	0.0127023
7743.57	0.0128017
7750.92	0.0128808
7761.96	0.0130173
7772.99	0.0131739
7780.34	0.0132884
7791.37	0.0134742
7802.4	0.013675
7813.43	0.0138887
7820.79	0.0140372
7831.82	0.0142675
7842.85	0.0145049
7850.2	0.0146658
7861.23	0.0149097
7872.26	0.0151543
7883.29	0.0153974
7890.65	0.0155573
7901.68	0.0157922
7912.71	0.0160191
7920.06	0.0161646
7931.09	0.0163728
7942.12	0.0165665
7953.15	0.0167436
7960.51	0.0168513
7971.54	0.0169956
7982.57	0.0171174
7993.6	0.0172146
8000.95	0.0172647
8011.98	0.0173166
8023.02	0.0173389
8030.37	0.0173364
8041.4	0.0173055
8052.43	0.0172406
8063.46	0.0171405
8070.82	0.0170534
8081.85	0.0168916
8092.88	0.0166913
8100.23	0.0165359
8111.26	0.0162696
8122.29	0.0159627
8133.32	0.0156147
8140.68	0.0153597
8151.71	0.0149423
8162.74	0.014483
8170.09	0.0141535
8181.12	0.0136244
8192.15	0.0130537
8203.18	0.0124416
8210.54	0.0120108
8221.57	0.0113309
8232.6	0.0106112
8243.63	0.00985251
8250.98	0.0093255
8262.01	0.0085039
8273.05	0.00764599
8280.4	0.00705447
8291.43	0.00613876
8302.46	0.00519017
8313.49	0.00421015
8320.85	0.00354008
8331.88	0.0025111
8342.91	0.00145491
8350.26	0.000736522
8361.29	-0.000361164
8372.32	-0.00148137
8383.35	-0.00262225
8390.71	-0.0033934
8401.74	-0.00456456
8412.77	-0.00575133
8420.12	-0.00655023
8431.15	-0.0077587
8442.18	-0.00897758
8453.21	-0.0102049
8460.57	-0.0110269
8471.6	-0.012264
8482.63	-0.0135044
8493.66	-0.0147462
8501.01	-0.015574
8512.05	-0.0168139
8523.08	-0.0180503
8530.43	-0.0188718
8541.46	-0.0200984
8552.49	-0.0213168
8563.52	-0.0225253
8570.88	-0.0233247
8581.91	-0.0245133
8592.94	-0.025688
8600.29	-0.0264626
8611.32	-0.0276107
8622.35	-0.0287412
8633.38	-0.0298527
8640.74	-0.0305826
8651.77	-0.0316599
8662.8	-0.0327152
8670.15	-0.0334061
8681.18	-0.0344226
8692.22	-0.0354145
8703.25	-0.0363812
8710.6	-0.0370112
8721.63	-0.037934
8732.66	-0.0388297
8740.02	-0.0394115
8751.05	-0.0402607
8762.08	-0.0410816
8773.11	-0.0418735
8780.46	-0.0423854
8791.49	-0.0431287
8802.52	-0.0438426
8813.55	-0.0445268
8820.91	-0.0449665
8831.94	-0.0456013
8842.97	-0.0462064
8850.32	-0.0465934
8861.35	-0.0471492
8872.38	-0.0476758
8883.42	-0.0481732
8890.77	-0.0484888
8901.8	-0.0489383
8912.83	-0.0493595
8920.18	-0.0496247
8931.22	-0.0499995
8942.25	-0.050347
8953.28	-0.0506676
8960.63	-0.0508667
8971.66	-0.0511437
8982.69	-0.0513951
8990.05	-0.0515488
9001.08	-0.0517589
9012.11	-0.051945
9023.14	-0.0521075
9030.49	-0.0522031
9041.52	-0.0523277
9052.55	-0.0524304
9063.58	-0.0525117
9070.94	-0.0525543
9081.97	-0.0526013
9093	-0.0526286
9100.35	-0.052636
9111.38	-0.0526315
9122.42	-0.0526087
9133.45	-0.0525682
9140.8	-0.0525317
9151.83	-0.0524629
9162.86	-0.0523779
9170.22	-0.0523124
9181.25	-0.0522014
9192.28	-0.0520755
9203.31	-0.0519351
9210.66	-0.0518338
9221.69	-0.0516705
9232.72	-0.051494
9240.08	-0.0513692
9251.11	-0.0511717
9262.14	-0.0509622
9273.17	-0.050741
9280.52	-0.0505873
9291.55	-0.0503477
9302.58	-0.0500974
9313.62	-0.049837
9320.97	-0.0496578
9332	-0.0493812
9343.03	-0.0490952
9350.39	-0.0488996
9361.42	-0.0485989
9372.45	-0.0482898
9383.48	-0.0479727
9390.83	-0.0477569
9401.86	-0.047427
9412.89	-0.0470897
9420.25	-0.046861
9431.28	-0.0465123
9442.31	-0.0461571
9453.34	-0.0457955
9460.69	-0.0455512
9471.72	-0.0451798
9482.75	-0.0448028
9490.11	-0.0445485
9501.14	-0.0441627
9512.17	-0.0437719
9523.2	-0.0433763
9530.55	-0.0431101
9541.59	-0.042707
9552.62	-0.0422997
9563.65	-0.0418883
9571	-0.0416119
9582.03	-0.0411941
9593.06	-0.0407727
9600.42	-0.0404898
9611.45	-0.0400627
9622.48	-0.0396323
9633.51	-0.0391989
9640.86	-0.0389082
9651.89	-0.0384698
9662.92	-0.0380287
9670.28	-0.0377331
9681.31	-0.0372876
9692.34	-0.0368396
9703.37	-0.0363892
9710.72	-0.0360877
9721.76	-0.0356337
9732.79	-0.0351776
9740.14	-0.0348724
9751.17	-0.0344132
9762.2	-0.0339523
9773.23	-0.0334897
9780.59	-0.0331806
9791.62	-0.0327158
9802.65	-0.0322498
9810	-0.0319386
9821.03	-0.0314711
9832.06	-0.0310029
9843.09	-0.0305342
9850.45	-0.0302216
9861.48	-0.0297526
9872.51	-0.0292838
9883.54	-0.0288154
9890.89	-0.0285035
9901.92	-0.0280364
9912.96	-0.0275704
9920.31	-0.0272605
9931.34	-0.0267971
9942.37	-0.0263357
9953.4	-0.0258765
9960.76	-0.0255719
9971.79	-0.0251174
9982.82	-0.0246661
9990.17	-0.0243672
10001.2	-0.023922
10012.2	-0.0234811
10023.3	-0.0230447
10030.6	-0.0227565
10041.6	-0.0223286
10052.7	-0.0219061
10060	-0.0216278
10071.1	-0.0212154
10082.1	-0.0208094
10093.1	-0.0204103
10100.5	-0.0201482
10111.5	-0.0197612
10122.5	-0.0193818
10133.6	-0.0190104
10140.9	-0.0187674
10152	-0.01841
10163	-0.0180612
10170.3	-0.0178337
10181.4	-0.0175
10192.4	-0.0171756
10203.4	-0.0168607
10210.8	-0.0166562
10221.8	-0.0163576
10232.8	-0.016069
10240.2	-0.0158822
10251.2	-0.0156105
10262.3	-0.0153491
10273.3	-0.0150981
10280.6	-0.0149366
10291.7	-0.0147031
10302.7	-0.0144802
10310.1	-0.0143375
10321.1	-0.0141323
10332.1	-0.0139377
10343.2	-0.0137537
10350.5	-0.013637
10361.5	-0.0134707
10372.6	-0.013315
10383.6	-0.0131699
10391	-0.0130789
10402	-0.0129512
10413	-0.0128338
10420.4	-0.0127613
10431.4	-0.0126609
10442.4	-0.0125707
10453.5	-0.0124903
10460.8	-0.0124423
10471.8	-0.0123783
10482.9	-0.0123238
10490.2	-0.0122927
10501.3	-0.0122538
10512.3	-0.0122239
10523.3	-0.0122029
10530.7	-0.0121937
10541.7	-0.0121869
10552.7	-0.0121882
10560.1	-0.0121935
10571.1	-0.0122078
10582.2	-0.0122295
10593.2	-0.0122582
10600.5	-0.0122811
10611.6	-0.0123206
10622.6	-0.0123662
10633.6	-0.0124174
10641	-0.0124544
10652	-0.0125139
10663	-0.0125777
10670.4	-0.0126224
10681.4	-0.0126925
10692.5	-0.0127655
10703.5	-0.012841
10710.8	-0.0128924
10721.9	-0.0129709
10732.9	-0.0130502
10740.3	-0.0131034
10751.3	-0.0131832
10762.3	-0.0132624
10773.4	-0.0133404
10780.7	-0.0133915
10791.7	-0.0134664
10802.8	-0.0135386
10810.1	-0.0135849
10821.2	-0.0136514
10832.2	-0.0137138
10843.2	-0.0137715
10850.6	-0.0138071
10861.6	-0.013856
10872.6	-0.0138991
10883.7	-0.0139358
10891	-0.0139565
10902	-0.0139819
10913.1	-0.014
10920.4	-0.014008
10931.5	-0.0140134
10942.5	-0.014011
10953.5	-0.0140005
10960.9	-0.013989
10971.9	-0.0139648
10982.9	-0.0139324
10990.3	-0.0139062
11001.3	-0.01386
11012.4	-0.0138056
11023.4	-0.0137431
11030.7	-0.0136971
11041.8	-0.0136216
11052.8	-0.0135385
11060.2	-0.013479
11071.2	-0.0133839
11082.2	-0.013282
11093.2	-0.0131737
11100.6	-0.013098
11111.6	-0.0129798
11122.7	-0.0128561
11130	-0.0127708
11141	-0.012639
11152.1	-0.0125028
11163.1	-0.0123628
11170.5	-0.0122676
11181.5	-0.0121221
11192.5	-0.0119738
11203.6	-0.0118233
11210.9	-0.0117218
11221.9	-0.0115683
11233	-0.0114134
11240.3	-0.0113096
11251.4	-0.0111533
11262.4	-0.0109965
11273.4	-0.0108395
11280.8	-0.0107348
11291.8	-0.0105778
11302.8	-0.0104211
11310.2	-0.0103168
11321.2	-0.0101607
11332.2	-0.010005
11343.3	-0.00984977
11350.6	-0.00974649
11361.7	-0.00959181
11372.7	-0.0094373
11380	-0.00933431
11391.1	-0.00917969
11402.1	-0.00902467
11413.1	-0.00886898
11420.5	-0.00876465
11431.5	-0.00860708
11442.6	-0.00844788
11453.6	-0.00828662
11460.9	-0.00817776
11472	-0.00801208
11483	-0.00784308
11490.4	-0.00772833
11501.4	-0.00755266
11512.4	-0.00737229
11523.4	-0.00718665
11530.8	-0.00705969
11541.8	-0.00686403
11552.9	-0.00666162
11560.2	-0.00652265
11571.2	-0.00630775
11582.3	-0.00608462
11593.3	-0.00585276
11600.7	-0.00569307
11611.7	-0.00544551
11622.7	-0.00518791
11630.1	-0.00501038
11641.1	-0.00473507
11652.1	-0.00444863
11663.2	-0.00415069
11670.5	-0.00394552
11681.6	-0.00362777
11692.6	-0.00329779
11703.6	-0.0029554
11711	-0.00272018
11722	-0.00235681
11733	-0.00198076
11740.4	-0.001723
11751.4	-0.00132581
11762.4	-0.000916018
11773.5	-0.00049375
11780.8	-0.000205392
11791.9	0.000237252
11802.9	0.000691789
11810.2	0.00100127
11821.3	0.00147492
11832.3	0.00195954
11843.3	0.00245469
11850.7	0.00279041
11861.7	0.00330205
11872.8	0.00382288
11880.1	0.00417492
11891.1	0.00470978
11902.2	0.00525224
11913.2	0.00580164
11920.6	0.00617143
11931.6	0.00673089
11942.6	0.00729547
11953.6	0.00786443
11961	0.00824582
11972	0.00882047
11983.1	0.00939756
11990.4	0.00978327
12001.4	0.0103628
12012.5	0.0109427
12023.5	0.0115225
12030.9	0.0119084
12041.9	0.0124862
12052.9	0.0130617
12060.3	0.0134439
12071.3	0.0140145
12082.3	0.0145812
12093.4	0.0151434
12100.7	0.0155155
12111.8	0.0160689
12122.8	0.0166164
12130.1	0.0169779
12141.2	0.0175143
12152.2	0.0180435
12163.2	0.018565
12170.6	0.0189082
12181.6	0.0194161
12192.6	0.0199153
12203.7	0.0204056
12211	0.0207273
12222.1	0.021202
12233.1	0.0216672
12240.4	0.0219718
12251.5	0.0224205
12262.5	0.0228591
12273.5	0.0232876
12280.9	0.0235675
12291.9	0.0239787
12303	0.0243795
12310.3	0.024641
12321.3	0.0250244
12332.4	0.0253973
12343.4	0.0257598
12350.8	0.0259957
12361.8	0.0263408
12372.8	0.0266756
12380.2	0.0268931
12391.2	0.0272108
12402.2	0.0275183
12413.3	0.0278158
12420.6	0.0280086
12431.6	0.0282895
12442.7	0.0285607
12450	0.0287361
12461.1	0.0289913
12472.1	0.029237
12483.1	0.0294735
12490.5	0.0296261
12501.5	0.0298475
12512.5	0.03006
12523.6	0.0302639
12530.9	0.0303952
12542	0.0305851
12553	0.0307668
12560.3	0.0308836
12571.4	0.0310524
12582.4	0.0312136
12593.4	0.0313675
12600.8	0.0314662
12611.8	0.0316086
12622.8	0.0317444
12630.2	0.0318315
12641.2	0.0319571
12652.3	0.032077
12663.3	0.0321915
12670.6	0.032265
12681.7	0.0323714
12692.7	0.0324732
12700.1	0.0325389
12711.1	0.0326343
12722.1	0.0327263
12733.2	0.0328153
12740.5	0.0328732
12751.5	0.0329583
12762.6	0.0330415
12773.6	0.0331234
12781	0.0331775
12792	0.033258
12803	0.0333384
12810.4	0.0333921
12821.4	0.0334731
12832.4	0.0335551
12843.5	0.0336385
12850.8	0.033695
12861.8	0.0337816
12872.9	0.0338706
12880.2	0.0339315
12891.3	0.0340253
12902.3	0.0341224
12913.3	0.034223
12920.7	0.0342923
12931.7	0.0343994
12942.7	0.0345107
12950.1	0.0345873
12961.1	0.0347058
12972.2	0.0348287
12983.2	0.034956
12990.5	0.0350433
13001.6	0.0351778
13012.6	0.0353164
13023.6	0.0354591
13031	0.0355562
13042	0.0357049
13053	0.0358566
13060.4	0.0359593
13071.4	0.0361153
13082.5	0.0362731
13093.5	0.0364322
13100.8	0.0365386
13111.9	0.0366982
13122.9	0.0368571
13130.3	0.0369622
13141.3	0.037118
13152.3	0.0372708
13163.4	0.0374194
13170.7	0.0375157
13181.7	0.0376551
13192.8	0.0377875
13200.1	0.0378713
13211.2	0.0379893
13222.2	0.0380969
13233.2	0.0381929
13240.6	0.0382498
13251.6	0.0383233
13262.6	0.0383816
13273.7	0.0384232
13281	0.0384409
13292	0.0384515
13303.1	0.0384415
13310.4	0.0384227
13321.5	0.0383753
13332.5	0.0383035
13343.5	0.038206
13350.9	0.0381259
13361.9	0.0379823
13372.9	0.0378092
13380.3	0.0376769
13391.3	0.0374518
13402.4	0.037194
13413.4	0.0369021
13420.7	0.0366881
13431.8	0.0363371
13442.8	0.0359493
13450.2	0.0356698
13461.2	0.0352184
13472.2	0.0347279
13483.2	0.0341976
13490.6	0.0338215
13501.6	0.0332233
13512.7	0.0325837
13520	0.0321342
13531	0.031425
13542.1	0.0306738
13553.1	0.0298804
13560.5	0.029328
13571.5	0.0284646
13582.5	0.0275593
13593.6	0.0266126
13600.9	0.0259587
13611.9	0.024944
13623	0.0238895
13630.3	0.0231646
13641.4	0.0220453
13652.4	0.0208884
13663.4	0.019695
13670.8	0.0188798
13681.8	0.0176283
13692.8	0.0163439
13700.2	0.01547
13711.2	0.0141338
13722.2	0.0127689
13733.3	0.011377
13740.6	0.010435
13751.7	0.00900216
13762.7	0.0075475
13770	0.0065666
13781.1	0.00508016
13792.1	0.00357759
13803.1	0.00206115
13810.5	0.00104363
13821.5	-0.000490718
13832.6	-0.0020326
13843.6	-0.00357957
13850.9	-0.00461247
13862	-0.00616236
13873	-0.00771063
13880.4	-0.00874066
13891.4	-0.0102806
13902.4	-0.0118121
13913.4	-0.0133326
13920.8	-0.014339
13931.8	-0.0158356
13942.9	-0.0173146
13950.2	-0.0182895
13961.2	-0.0197336
13972.3	-0.0211535
13983.3	-0.0225469
13990.7	-0.02346
14001.7	-0.0248042
14012.7	-0.0261159
14020.1	-0.0269714
14031.1	-0.0282245
14042.1	-0.0294398
14053.2	-0.0306154
14060.5	-0.0313762
14071.6	-0.0324818
14082.6	-0.0335432
14093.6	-0.034559
14101	-0.0352102
14112	-0.0361469
14123	-0.0370347
14130.4	-0.0375988
14141.4	-0.0384026
14152.4	-0.0391549
14163.5	-0.039855
14170.8	-0.0402924
14181.9	-0.0409043
14192.9	-0.0414627
14200.2	-0.0418051
14211.3	-0.0422739
14222.3	-0.0426889
14233.3	-0.0430503
14240.7	-0.0432615
14251.7	-0.0435339
14262.8	-0.0437536
14270.1	-0.0438711
14281.1	-0.0440041
14292.2	-0.0440862
14303.2	-0.0441181
14310.6	-0.0441119
14321.6	-0.0440624
14332.6	-0.0439655
14343.6	-0.0438225
14351	-0.0437021
14362	-0.0434852
14373.1	-0.0432257
14380.4	-0.0430298
14391.4	-0.0427029
14402.5	-0.0423376
14413.5	-0.0419357
14420.9	-0.0416482
14431.9	-0.0411889
14442.9	-0.0406975
14450.3	-0.0403531
14461.3	-0.0398123
14472.3	-0.0392442
14483.4	-0.0386508
14490.7	-0.038242
14501.8	-0.0376103
14512.8	-0.0369581
14520.1	-0.0365128
14531.2	-0.0358304
14542.2	-0.0351323
14553.2	-0.0344202
14560.6	-0.0339385
14571.6	-0.0332069
14582.7	-0.0324658
14590	-0.0319672
14601	-0.0312138
14612.1	-0.0304551
14623.1	-0.0296924
14630.5	-0.0291826
14641.5	-0.0284166
14652.5	-0.0276503
14663.5	-0.026885
14670.9	-0.0263759
14681.9	-0.0256148
14693	-0.0248575
14700.3	-0.0243554
14711.3	-0.0236068
14722.4	-0.0228647
14733.4	-0.0221297
14740.8	-0.0216441
14751.8	-0.0209226
14762.8	-0.0202102
14770.2	-0.0197406
14781.2	-0.0190444
14792.2	-0.0183585
14803.3	-0.0176834
14810.6	-0.0172395
14821.7	-0.0165831
14832.7	-0.0159383
14840	-0.0155149
14851.1	-0.0148899
14862.1	-0.0142768
14873.1	-0.013676
14880.5	-0.0132823
14891.5	-0.012702
14902.5	-0.012134
14913.6	-0.0115784
14920.9	-0.0112149
14932	-0.01068
14943	-0.0101574
14950.3	-0.00981592
14961.4	-0.00931396
14972.4	-0.00882434
14983.4	-0.00834706
14990.8	-0.00803573
15001.8	-0.00757901
15012.9	-0.00713468
15020.2	-0.00684535
15031.2	-0.00642176
15042.3	-0.00601073
15053.3	-0.00561236
15060.7	-0.0053539
15071.7	-0.004977
15082.7	-0.00461324
15090.1	-0.00437814
15101.1	-0.00403683
15112.1	-0.00370938
15123.2	-0.00339613
15130.5	-0.00319539
15141.5	-0.0029067
15152.6	-0.00263335
15163.6	-0.00237583
15171	-0.00221322
15182	-0.00198332
15193	-0.00177079
15200.4	-0.00163909
15211.4	-0.001457
15222.4	-0.00129413
15233.5	-0.00115122
15240.8	-0.00106744
15251.9	-0.000959597
15262.9	-0.000873915
15270.2	-0.000829535
15281.3	-0.000782745
15292.3	-0.000760508
15303.3	-0.000763762
15310.7	-0.000780565
15321.7	-0.000828437
15332.7	-0.000904377
15340.1	-0.000971082
15351.1	-0.00109599
15362.2	-0.00125159
15373.2	-0.00143885
15380.5	-0.00158178
15391.6	-0.00182398
15402.6	-0.0021004
15413.6	-0.00241197
15421	-0.00263965
15432	-0.00301175
15443.1	-0.00342131
15450.4	-0.00371554
15461.4	-0.00418926
15472.5	-0.00470243
15483.5	-0.00525573
15490.9	-0.00564719
15501.9	-0.00626866
15512.9	-0.00693171
15520.3	-0.00739706
15531.3	-0.0081303
15542.3	-0.00890607
15553.4	-0.00972455
15560.7	-0.010294
15571.7	-0.0111839
15582.8	-0.0121166
15590.1	-0.0127622
15601.2	-0.0137659
15612.2	-0.0148118
15623.2	-0.0158995
15630.6	-0.0166476
15641.6	-0.0178037
15652.6	-0.0189999
15663.7	-0.0202354
15671	-0.0210804
15682.1	-0.0223791
15693.1	-0.0237143
15700.4	-0.024624
15711.5	-0.026017
15722.5	-0.0274428
15733.5	-0.0288997
15740.9	-0.0298874
15751.9	-0.0313924
15762.9	-0.0329236
15770.3	-0.033958
15781.3	-0.0355285
15792.4	-0.0371196
15803.4	-0.038729
15810.7	-0.0398109
15821.8	-0.0414453
15832.8	-0.0430912
15840.2	-0.0441936
15851.2	-0.0458527
15862.2	-0.047516
15873.3	-0.0491805
15880.6	-0.0502893
15891.6	-0.0519492
15902.7	-0.053602
15910	-0.0546985
15921.1	-0.0563328
15932.1	-0.0579515
15943.1	-0.0595515
15950.5	-0.060606
15961.5	-0.0621673
15972.5	-0.0637008
15983.6	-0.0652034
15990.9	-0.0661862
16001.9	-0.0676295
16013	-0.069033
16020.3	-0.0699448
16031.4	-0.0712744
16042.4	-0.0725553
16053.4	-0.0737845
16060.8	-0.0745735
16071.8	-0.0757094
16082.8	-0.0767853
16090.2	-0.0774678
16101.2	-0.0784373
16112.3	-0.0793393
16123.3	-0.0801711
16130.6	-0.0806854
16141.7	-0.0813948
16152.7	-0.0820277
16160.1	-0.0824059
16171.1	-0.0829064
16182.1	-0.0833248
16193.1	-0.0836596
16200.5	-0.0838354
16211.5	-0.0840271
16222.6	-0.0841312
16233.6	-0.0841467
16240.9	-0.0841072
16252	-0.0839729
16263	-0.0837478
16270.4	-0.0835471
16281.4	-0.08317
16292.4	-0.0827014
16303.5	-0.0821416
16310.8	-0.0817178
16321.8	-0.0810066
16332.9	-0.0802055
16340.2	-0.0796218
16351.3	-0.0786726
16362.3	-0.0776362
16373.3	-0.0765139
16380.7	-0.0757187
16391.7	-0.0744568
16402.7	-0.0731136
16410.1	-0.0721739
16421.1	-0.0706999
16432.1	-0.0691504
16443.2	-0.0675279
16450.5	-0.0664071
16461.6	-0.0646691
16472.6	-0.0628657
16483.6	-0.0609997
16491	-0.0597226
16502	-0.0577596
16513	-0.0557429
16520.4	-0.0543702
16531.4	-0.0522716
16542.5	-0.0501286
16553.5	-0.047945
16560.8	-0.0464684
16571.9	-0.0442253
16582.9	-0.0419516
16590.3	-0.0404206
16601.3	-0.0381044
16612.3	-0.035768
16623.3	-0.0334151
16630.7	-0.0318393
16641.7	-0.0294676
16652.8	-0.0270899
16660.1	-0.0255032
16671.1	-0.0231237
16682.2	-0.0207481
16693.2	-0.0183801
16700.6	-0.0168074
16711.6	-0.01446
16722.6	-0.0121295
16733.7	-0.00981936
16741	-0.00829217
16752	-0.00602306
16763.1	-0.00378268
16770.4	-0.00230651
16781.5	-0.000120472
16792.5	0.0020293
16803.5	0.00414024
16810.9	0.00552474
16821.9	0.00756561
16832.9	0.00956149
16840.3	0.0108661
16851.3	0.0127825
16862.3	0.0146489
16873.4	0.0164636
16880.7	0.0176439
16891.8	0.0193694
16902.8	0.0210396
16910.1	0.0221219
16921.2	0.023698
16932.2	0.0252164
16943.2	0.0266767
16950.6	0.0276177
16961.6	0.0289801
16972.7	0.0302834
16980	0.0311195
16991	0.0323243
17002.1	0.0334702
17013.1	0.0345574
17020.5	0.0352499
17031.5	0.0362405
17042.5	0.0371738
17053.5	0.0380506
17060.9	0.0386042
17071.9	0.0393888
17083	0.0401193
17090.3	0.0405768
17101.3	0.0412196
17112.4	0.0418115
17123.4	0.0423536
17130.8	0.0426881
17141.8	0.0431503
17152.8	0.0435665
17160.2	0.0438192
17171.2	0.044162
17182.2	0.0444627
17193.3	0.044723
17200.6	0.0448747
17211.7	0.045071
17222.7	0.045231
17230	0.0453183
17241.1	0.0454214
17252.1	0.0454924
17263.1	0.045533
17270.5	0.0455439
17281.5	0.0455371
17292.5	0.045504
17303.6	0.045446
17310.9	0.0453942
17322	0.0452979
17333	0.0451806
17340.3	0.0450914
17351.4	0.044942
17362.4	0.0447751
17373.4	0.0445919
17380.8	0.0444614
17391.8	0.0442538
17402.9	0.044033
17410.2	0.043879
17421.2	0.0436386
17432.3	0.0433878
17443.3	0.0431276
17450.7	0.0429493
17461.7	0.0426753
17472.7	0.0423941
17480.1	0.042203
17491.1	0.0419115
17502.1	0.0416148
17513.2	0.0413135
17520.5	0.0411105
17531.5	0.0408029
17542.6	0.0404924
17553.6	0.0401793
17561	0.0399694
17572	0.0396532
17583	0.0393356
17590.4	0.0391234
17601.4	0.0388045
17612.4	0.0384853
17623.5	0.0381661
17630.8	0.0379535
17641.9	0.0376349
17652.9	0.0373172
17660.2	0.037106
17671.3	0.0367901
17682.3	0.0364757
17693.3	0.0361629
17700.7	0.0359555
17711.7	0.035646
17722.7	0.0353388
17730.1	0.0351353
17741.1	0.0348322
17752.2	0.0345319
17763.2	0.0342345
17770.5	0.0340379
17781.6	0.0337459
17792.6	0.0334572
17803.6	0.0331722
17811	0.0329843
17822	0.0327056
17833.1	0.0324311
17840.4	0.0322504
17851.4	0.0319831
17862.5	0.0317203
17873.5	0.0314621
17880.9	0.0312928
17891.9	0.0310429
17902.9	0.0307981
17910.3	0.0306378
17921.3	0.0304019
17932.3	0.0301715
17943.4	0.0299467
17950.7	0.0298001
17961.7	0.029585
17972.8	0.0293758
17980.1	0.0292396
17991.2	0.0290404
18002.2	0.0288474
18013.2	0.0286605
18020.6	0.0285393
18031.6	0.0283627
18042.6	0.0281922
18053.7	0.0280279
18061	0.0279217
18072.1	0.0277675
18083.1	0.0276192
18090.4	0.0275236
18101.5	0.027385
18112.5	0.027252
18123.5	0.0271244
18130.9	0.0270422
18141.9	0.0269231
18153	0.0268088
18160.3	0.0267351
18171.3	0.0266282
18182.4	0.0265253
18193.4	0.026426
18200.8	0.0263616
18211.8	0.0262676
18222.8	0.0261761
18230.2	0.0261163
18241.2	0.0260282
18252.2	0.0259414
18263.3	0.0258554
18270.6	0.0257983
18281.6	0.0257126
18292.7	0.0256263
18300	0.0255681
18311.1	0.0254795
18322.1	0.0253887
18333.1	0.025295
18340.5	0.0252308
18351.5	0.025131
18362.5	0.0250268
18373.6	0.0249174
18380.9	0.0248412
18392	0.0247216
18403	0.0245951
18410.3	0.0245065
18421.4	0.0243667
18432.4	0.0242182
18443.4	0.0240601
18450.8	0.0239491
18461.8	0.0237738
18472.8	0.0235871
18480.2	0.0234561
18491.2	0.0232492
18502.3	0.0230293
18513.3	0.0227958
18520.6	0.0226322
18531.7	0.0223747
18542.7	0.022102
18550.1	0.0219114
18561.1	0.0216122
18572.1	0.0212963
18583.2	0.0209634
18590.5	0.0207317
18601.5	0.0203693
18612.6	0.0199886
18623.6	0.0195893
18631	0.0193127
18642	0.0188816
18653	0.0184312
18660.4	0.01812
18671.4	0.0176366
18682.4	0.0171333
18693.5	0.0166098
18700.8	0.0162495
18711.8	0.0156923
18722.9	0.0151148
18730.2	0.0147185
18741.3	0.0141073
18752.3	0.0134759
18763.3	0.0128245
18770.7	0.0123792
18781.7	0.011695
18792.7	0.0109913
18800.1	0.0105116
18811.1	0.00977637
18822.2	0.00902267
18833.2	0.00825094
18840.5	0.00772667
18851.6	0.00692599
18862.6	0.00610867
18873.6	0.0052753
18881	0.00471112
18892	0.00385245
18903	0.00297954
18910.4	0.00239006
18921.4	0.0014951
18932.5	0.000587993
18943.5	-0.000330409
18950.8	-0.000948514
18961.9	-0.00188375
18972.9	-0.00282783
18980.3	-0.00346166
18991.3	-0.00441831
19002.3	-0.00538115
19013.4	-0.00634913
19020.7	-0.00699677
19031.7	-0.00797092
19042.8	-0.0089473
19050.1	-0.00959891
19061.2	-0.0105765
19072.2	-0.0115533
19083.2	-0.0125282
19090.6	-0.0131764
19101.6	-0.0141454
19112.6	-0.0151094
19123.7	-0.0160671
19131	-0.0167015
19142	-0.0176461
19153.1	-0.0185814
19160.4	-0.0191992
19171.5	-0.0201163
19182.5	-0.0210209
19193.5	-0.021912
19200.9	-0.0224979
19211.9	-0.0233639
19222.9	-0.0242134
19230.3	-0.0247701
19241.3	-0.0255898
19252.4	-0.0263902
19263.4	-0.0271705
19270.7	-0.027679
19281.8	-0.0284235
19292.8	-0.0291453
19300.2	-0.0296135
19311.2	-0.0302958
19322.2	-0.0309532
19333.2	-0.031585
19340.6	-0.0319917
19351.6	-0.0325795
19362.7	-0.0331399
19370	-0.0334981
19381	-0.0340117
19392.1	-0.0344967
19403.1	-0.0349526
19410.5	-0.0352401
19421.5	-0.0356466
19432.5	-0.0360231
19443.6	-0.0363694
19450.9	-0.0365833
19461.9	-0.0368788
19473	-0.0371437
19480.3	-0.0373033
19491.4	-0.0375173
19502.4	-0.0377007
19513.4	-0.0378537
19520.8	-0.037939
19531.8	-0.0380418
19542.8	-0.0381149
19550.2	-0.0381473
19561.2	-0.0381716
19572.2	-0.0381672
19583.3	-0.0381345
19590.6	-0.0380973
19601.7	-0.0380187
19612.7	-0.0379135
19620	-0.0378288
19631.1	-0.0376806
19642.1	-0.0375076
19653.1	-0.0373105
19660.5	-0.0371662
19671.5	-0.0369309
19682.6	-0.0366739
19693.6	-0.0363962
19700.9	-0.0361999
19712	-0.0358897
19723	-0.0355613
19730.4	-0.0353329
19741.4	-0.0349766
19752.4	-0.0346051
19763.4	-0.0342193
19770.8	-0.0339548
19781.8	-0.0335479
19792.9	-0.0331299
19800.2	-0.0328455
19811.2	-0.0324113
19822.3	-0.0319691
19833.3	-0.0315198
19840.7	-0.031217
19851.7	-0.0307587
19862.7	-0.0302965
19870.1	-0.0299868
19881.1	-0.0295205
19892.1	-0.0290533
19903.2	-0.0285861
19910.5	-0.0282752
19921.6	-0.0278106
19932.6	-0.0273487
19943.6	-0.0268906
19951	-0.0265877
19962	-0.026138
19973	-0.0256943
19980.4	-0.0254024
19991.4	-0.0249708
