
Start depth: 12
Problem size with different number of CPUs using function optimization

THREADS	INITIAL_DEPTH	MTPS	SPEEDUP_PER	TIMESTEPS	TIMESTEP_SIZE	SECONDS_FOR_SIMULATION	AVERAGE_TRIANGLES	AVERAGE_PARTITIONS
1	12	4.37316	1.0000	50	0.069448	0.406963	35594.3	89.2
2	13	8.29443	.9483	100	0.0491033	0.859885	71322.6	98.27
4	14	15.269	.8728	200	0.0347132	1.87979	143512	165.28
8	15	26.9854	.7713	400	0.0245373	4.29826	289976	174.032
12	15	36.9903	.7048	600	0.0245333	4.81232	296683	168.763

Start depth: 14
Problem size with different number of CPUs using function optimization

THREADS	INITIAL_DEPTH	MTPS	SPEEDUP_PER	TIMESTEPS	TIMESTEP_SIZE	SECONDS_FOR_SIMULATION	AVERAGE_TRIANGLES	AVERAGE_PARTITIONS
1	14	4.1869	1.0000	50	0.034724	1.66839	139707	224.64
2	15	7.83604	.9357	100	0.0245519	3.56968	279722	243.75
4	16	15.2959	.9133	200	0.0173564	7.33777	561188	381.18
8	17	27.9271	.8337	400	0.0122688	16.1588	1.12817e+06	395.788
12	17	37.934	.7550	600	0.0122667	18.0516	1.14128e+06	362.952

Start depth: 16
Problem size with different number of CPUs using function optimization

THREADS	INITIAL_DEPTH	MTPS	SPEEDUP_PER	TIMESTEPS	TIMESTEP_SIZE	SECONDS_FOR_SIMULATION	AVERAGE_TRIANGLES	AVERAGE_PARTITIONS
1	16	4.06282	1.0000	50	0.017362	6.81375	553661	677.4
2	17	7.98301	.9824	100	0.0122762	13.8784	1.10792e+06	716.67
4	18	15.7589	.9697	200	0.0086782	28.1647	2.21923e+06	984.165
8	19	28.5343	.8779	400	0.00613445	62.3801	4.44993e+06	1016.25
12	19	38.9432	.7987	600	0.00613337	68.9597	4.47585e+06	867.497

Start depth: 18
Problem size with different number of CPUs using function optimization

THREADS	INITIAL_DEPTH	MTPS	SPEEDUP_PER	TIMESTEPS	TIMESTEP_SIZE	SECONDS_FOR_SIMULATION	AVERAGE_TRIANGLES	AVERAGE_PARTITIONS
1	18	4.06441	1.0000	50	0.008681	27.1165	2.20425e+06	2276.84
2	19	8.05428	.9908	100	0.00613779	54.7495	4.40968e+06	2365.03
4	20	15.9383	.9803	200	0.00433919	110.755	8.82617e+06	2904.07
8	21	28.7159	.8831	400	0.00306726	246.208	1.76752e+07	2962.55
12	21	39.379	.8073	600	0.00306668	270.094	1.77267e+07	2349.98

Start depth: 20
Problem size with different number of CPUs using function optimization

THREADS	INITIAL_DEPTH	MTPS	SPEEDUP_PER	TIMESTEPS	TIMESTEP_SIZE	SECONDS_FOR_SIMULATION	AVERAGE_TRIANGLES	AVERAGE_PARTITIONS
1	20	4.08731	1.0000	50	0.0043405	107.605	8.79629e+06	8304.3
2	21	8.02129	.9812	100	0.00306912	219.353	1.7595e+07	8481.92
4	22	15.999	.9785	200	0.00216945	440.07	3.52034e+07	9555.58
8	23	28.6634	.8765	400	0.00153363	983.169	7.04524e+07	9653.77
12	23	39.2883	.8010	600	0.00153333	1077.5	7.05552e+07	7172.31
