Problem size with different number of CPUs using function optimization
THREADS	INITIAL_DEPTH	MTPS	SPEEDUP_PER	TIMESTEPS	TIMESTEP_SIZE	SECONDS_FOR_SIMULATION	AVERAGE_TRIANGLES	AVERAGE_PARTITIONS
1	18	4.30964	1.0000	500	0.0086742	260.727	2.24727e+06	729.024
2	19	8.38671	.9730	1000	0.00613209	539.796	4.52711e+06	752.58
4	20	16.4615	.9549	1500	0.00433534	825.724	9.06176e+06	1359.98
8	21	29.5101	.8559	2000	0.00306463	1225.32	1.80796e+07	1504.31
12	21	40.0084	.7736	2000	0.00306463	903.791	1.80796e+07	1504.31
