time,surface_elevation,reference_data,number_of_local_cells,number_of_global_cells
0,0,0,8388608,8388608
11.3184,0,0,8388608,8388608
20.7504,0,0,8388608,8388608
30.1824,0,0,8388608,8388608
41.5009,0,0,8388608,8388608
50.9329,0,0,8388608,8388608
60.3649,0,0,8388608,8388608
71.6833,0,0,8388608,8388608
81.1153,0,0,8388608,8388608
90.5473,0,0,8388608,8388608
101.866,0,0,8388608,8388608
111.298,0,0,8388608,8388608
120.73,0,0,8388608,8388608
130.162,0,0,8388608,8388608
141.48,0,0,8388608,8388608
150.912,0,0,8388608,8388608
160.344,0,0,8388608,8388608
171.663,0,0,8388608,8388608
181.095,0,0,8388608,8388608
190.527,0,0,8388608,8388608
201.845,0,0,8388608,8388608
211.277,0,0,8388608,8388608
220.709,0,0,8388608,8388608
230.141,0,0,8388608,8388608
241.46,0,0,8388608,8388608
250.892,0,0,8388608,8388608
260.324,0,0,8388608,8388608
271.642,0,0,8388608,8388608
281.074,0,0,8388608,8388608
290.506,0,0,8388608,8388608
301.824,0,0,8388608,8388608
311.257,0,0,8388608,8388608
320.689,0,0,8388608,8388608
330.121,0,0,8388608,8388608
341.439,0,0,8388608,8388608
350.871,0,0,8388608,8388608
360.303,0,0,8388608,8388608
371.621,0,0,8388608,8388608
381.053,0,0,8388608,8388608
390.485,0,0,8388608,8388608
401.804,0,0,8388608,8388608
411.236,0,0,8388608,8388608
420.668,0,0,8388608,8388608
430.1,0,0,8388608,8388608
441.418,0,0,8388608,8388608
450.85,0,0,8388608,8388608
460.282,0,0,8388608,8388608
471.601,0,0,8388608,8388608
481.033,0,0,8388608,8388608
490.465,0,0,8388608,8388608
501.783,0,0,8388608,8388608
511.215,0,0,8388608,8388608
520.647,0,0,8388608,8388608
530.079,0,0,8388608,8388608
541.398,0,0,8388608,8388608
550.83,0,0,8388608,8388608
560.262,0,0,8388608,8388608
571.58,0,0,8388608,8388608
581.012,0,0,8388608,8388608
590.444,0,0,8388608,8388608
601.763,0,0,8388608,8388608
611.195,0,0,8388608,8388608
620.627,0,0,8388608,8388608
630.059,0,0,8388608,8388608
641.377,0,0,8388608,8388608
650.809,0,0,8388608,8388608
660.241,0,0,8388608,8388608
671.56,0,0,8388608,8388608
680.992,0,0,8388608,8388608
690.424,0,0,8388608,8388608
701.742,0,0,8388608,8388608
711.174,0,0,8388608,8388608
720.606,0,0,8388608,8388608
730.038,0,0,8388608,8388608
741.356,0,0,8388608,8388608
750.788,0,0,8388608,8388608
760.22,0,0,8388608,8388608
771.539,0,0,8388608,8388608
780.971,0,0,8388608,8388608
790.403,0,0,8388608,8388608
801.721,0,0,8388608,8388608
811.153,0,0,8388608,8388608
820.585,0,0,8388608,8388608
830.017,0,0,8388608,8388608
841.336,0,0,8388608,8388608
850.768,0,0,8388608,8388608
860.2,0,0,8388608,8388608
871.518,0,0,8388608,8388608
880.95,0,0,8388608,8388608
890.382,0,0,8388608,8388608
901.701,0,0,8388608,8388608
911.133,0,0,8388608,8388608
920.565,0,0,8388608,8388608
931.883,0,0,8388608,8388608
941.315,0,0,8388608,8388608
950.747,0,0,8388608,8388608
960.179,0,0,8388608,8388608
971.498,0,0,8388608,8388608
980.93,0,0,8388608,8388608
990.362,0,0,8388608,8388608
1001.68,0,0,8388608,8388608
1011.11,0,0,8388608,8388608
1020.54,0,0,8388608,8388608
1031.86,0,0,8388608,8388608
1041.29,0,0,8388608,8388608
1050.73,0,0,8388608,8388608
1060.16,0,0,8388608,8388608
1071.48,0,0,8388608,8388608
1080.91,0,0,8388608,8388608
1090.34,0,0,8388608,8388608
1101.66,0,0,8388608,8388608
1111.09,0,0,8388608,8388608
1120.52,0,0,8388608,8388608
1131.84,0,0,8388608,8388608
1141.27,0,0,8388608,8388608
1150.71,0,0,8388608,8388608
1160.14,0,0,8388608,8388608
1171.46,0,0,8388608,8388608
1180.89,0,0,8388608,8388608
1190.32,0,0,8388608,8388608
1201.64,0,0,8388608,8388608
1211.07,0,0,8388608,8388608
1220.5,0,0,8388608,8388608
1231.82,0,0,8388608,8388608
1241.25,0,0,8388608,8388608
1250.69,0,0,8388608,8388608
1260.12,0,0,8388608,8388608
1271.44,0,0,8388608,8388608
1280.87,0,0,8388608,8388608
1290.3,0,0,8388608,8388608
1301.62,0,0,8388608,8388608
1311.05,0,0,8388608,8388608
1320.48,0,0,8388608,8388608
1331.8,0,0,8388608,8388608
1341.23,0,0,8388608,8388608
1350.66,0,0,8388608,8388608
1360.1,0,0,8388608,8388608
1371.42,0,0,8388608,8388608
1380.85,0,0,8388608,8388608
1390.28,0,0,8388608,8388608
1401.6,0,0,8388608,8388608
1411.03,0,0,8388608,8388608
1420.46,0,0,8388608,8388608
1431.78,0,0,8388608,8388608
1441.21,0,0,8388608,8388608
1450.64,0,0,8388608,8388608
1460.08,0,0,8388608,8388608
1471.39,0,0,8388608,8388608
1480.83,0,0,8388608,8388608
1490.26,0,0,8388608,8388608
1501.58,0,0,8388608,8388608
1511.01,0,0,8388608,8388608
1520.44,0,0,8388608,8388608
1531.76,0,0,8388608,8388608
1541.19,0,0,8388608,8388608
1550.62,0,0,8388608,8388608
1560.06,0,0,8388608,8388608
1571.37,0,0,8388608,8388608
1580.81,0,0,8388608,8388608
1590.24,0,0,8388608,8388608
1601.56,0,0,8388608,8388608
1610.99,0,0,8388608,8388608
1620.42,0,0,8388608,8388608
1631.74,0,0,8388608,8388608
1641.17,0,0,8388608,8388608
1650.6,0,0,8388608,8388608
1660.03,0,0,8388608,8388608
1671.35,0,0,8388608,8388608
1680.79,0,0,8388608,8388608
1690.22,0,0,8388608,8388608
1701.54,0,0,8388608,8388608
1710.97,0,0,8388608,8388608
1720.4,0,0,8388608,8388608
1731.72,0,0,8388608,8388608
1741.15,0,0,8388608,8388608
1750.58,0,0,8388608,8388608
1760.01,0,0,8388608,8388608
1771.33,0,0,8388608,8388608
1780.76,0,0,8388608,8388608
1790.2,0,0,8388608,8388608
1801.51,0,0,8388608,8388608
1810.95,0,0,8388608,8388608
1820.38,0,0,8388608,8388608
1831.7,0,0,8388608,8388608
1841.13,0,0,8388608,8388608
1850.56,0,0,8388608,8388608
1861.88,0,0,8388608,8388608
1871.31,0,0,8388608,8388608
1880.74,0,0,8388608,8388608
1890.18,0,0,8388608,8388608
1901.49,0,0,8388608,8388608
1910.93,0,0,8388608,8388608
1920.36,0,0,8388608,8388608
1931.68,0,0,8388608,8388608
1941.11,0,0,8388608,8388608
1950.54,0,0,8388608,8388608
1961.86,0,0,8388608,8388608
1971.29,0,0,8388608,8388608
1980.72,0,0,8388608,8388608
1990.16,0,0,8388608,8388608
2001.47,0,0,8388608,8388608
2010.91,0,0,8388608,8388608
2020.34,0,0,8388608,8388608
2031.66,0,0,8388608,8388608
2041.09,0,0,8388608,8388608
2050.52,0,0,8388608,8388608
2061.84,0,0,8388608,8388608
2071.27,0,0,8388608,8388608
2080.7,0,0,8388608,8388608
2090.13,0,0,8388608,8388608
2101.45,0,0,8388608,8388608
2110.89,0,0,8388608,8388608
2120.32,0,0,8388608,8388608
2131.64,0,0,8388608,8388608
2141.07,0,0,8388608,8388608
2150.5,0,0,8388608,8388608
2161.82,0,0,8388608,8388608
2171.25,0,0,8388608,8388608
2180.68,0,0,8388608,8388608
2190.11,0,0,8388608,8388608
2201.43,0,0,8388608,8388608
2210.86,0,0,8388608,8388608
2220.3,0,0,8388608,8388608
2231.61,0,0,8388608,8388608
2241.05,0,0,8388608,8388608
2250.48,0,0,8388608,8388608
2261.8,0,0,8388608,8388608
2271.23,0,0,8388608,8388608
2280.66,0,0,8388608,8388608
2290.09,0,0,8388608,8388608
2301.41,0,0,8388608,8388608
2310.84,0,0,8388608,8388608
2320.28,0,0,8388608,8388608
2331.59,0,0,8388608,8388608
2341.03,0,0,8388608,8388608
2350.46,0,0,8388608,8388608
2361.78,0,0,8388608,8388608
2371.21,0,0,8388608,8388608
2380.64,0,0,8388608,8388608
2390.07,0,0,8388608,8388608
2401.39,0,0,8388608,8388608
2410.82,0,0,8388608,8388608
2420.26,0,0,8388608,8388608
2431.57,0,0,8388608,8388608
2441.01,0,0,8388608,8388608
2450.44,0,0,8388608,8388608
2461.76,0,0,8388608,8388608
2471.19,0,0,8388608,8388608
2480.62,0,0,8388608,8388608
2490.05,0,0,8388608,8388608
2501.37,0,0,8388608,8388608
2510.8,0,0,8388608,8388608
2520.23,0,0,8388608,8388608
2531.55,0,0,8388608,8388608
2540.98,0,0,8388608,8388608
2550.42,0,0,8388608,8388608
2561.74,0,0,8388608,8388608
2571.17,0,0,8388608,8388608
2580.6,0,0,8388608,8388608
2590.03,0,0,8388608,8388608
2601.35,0,0,8388608,8388608
2610.78,0,0,8388608,8388608
2620.21,0,0,8388608,8388608
2631.53,0,0,8388608,8388608
2640.96,0,0,8388608,8388608
2650.4,0,0,8388608,8388608
2661.71,0,0,8388608,8388608
2671.15,0,0,8388608,8388608
2680.58,0,0,8388608,8388608
2690.01,0,0,8388608,8388608
2701.33,0,0,8388608,8388608
2710.76,0,0,8388608,8388608
2720.19,0,0,8388608,8388608
2731.51,0,0,8388608,8388608
2740.94,0,0,8388608,8388608
2750.38,0,0,8388608,8388608
2761.69,0,0,8388608,8388608
2771.13,0,0,8388608,8388608
2780.56,0,0,8388608,8388608
2791.88,0,0,8388608,8388608
2801.31,0,0,8388608,8388608
2810.74,0,0,8388608,8388608
2820.17,0,0,8388608,8388608
2831.49,0,0,8388608,8388608
2840.92,0,0,8388608,8388608
2850.36,0,0,8388608,8388608
2861.67,0,0,8388608,8388608
2871.11,0,0,8388608,8388608
2880.54,0,0,8388608,8388608
2891.86,0,0,8388608,8388608
2901.29,0,0,8388608,8388608
2910.72,0,0,8388608,8388608
2920.15,0,0,8388608,8388608
2931.47,0,0,8388608,8388608
2940.9,0,0,8388608,8388608
2950.33,0,0,8388608,8388608
2961.65,0,0,8388608,8388608
2971.08,0,0,8388608,8388608
2980.52,0,0,8388608,8388608
2991.84,0,0,8388608,8388608
3001.27,0,0,8388608,8388608
3010.7,0,0,8388608,8388608
3020.13,2.72848e-12,0,8388608,8388608
3031.45,6.36646e-12,0,8388608,8388608
3040.88,1.54614e-11,0,8388608,8388608
3050.31,3.18323e-11,0,8388608,8388608
3061.63,7.18501e-11,0,8388608,8388608
3071.06,1.40062e-10,0,8388608,8388608
3080.5,2.65572e-10,0,8388608,8388608
3091.81,5.5843e-10,0,8388608,8388608
3101.25,1.01682e-09,0,8388608,8388608
3110.68,1.82081e-09,0,8388608,8388608
3120.11,3.20506e-09,0,8388608,8388608
3131.43,6.18274e-09,0,8388608,8388608
3140.86,1.04992e-08,0,8388608,8388608
3150.29,1.75496e-08,0,8388608,8388608
3161.61,3.18378e-08,0,8388608,8388608
3171.04,5.14246e-08,0,8388608,8388608
3180.47,8.18145e-08,0,8388608,8388608
3191.79,1.40063e-07,0,8388608,8388608
3201.22,2.15743e-07,0,8388608,8388608
3210.66,3.27598e-07,0,8388608,8388608
3220.09,4.90508e-07,0,8388608,8388608
3231.41,7.81833e-07,0,8388608,8388608
3240.84,1.13602e-06,0,8388608,8388608
3250.27,1.62896e-06,0,8388608,8388608
3261.59,2.46776e-06,0,8388608,8388608
3271.02,3.44006e-06,0,8388608,8388608
3280.45,4.73623e-06,0,8388608,8388608
3291.77,6.84078e-06,0,8388608,8388608
3301.2,9.17256e-06,0,8388608,8388608
3310.63,1.21572e-05,0,8388608,8388608
3320.07,1.59313e-05,0,8388608,8388608
3331.39,2.17172e-05,0,8388608,8388608
3340.82,2.77829e-05,0,8388608,8388608
3350.25,3.51712e-05,0,8388608,8388608
3361.57,4.6049e-05,0,8388608,8388608
3371,5.70165e-05,0,8388608,8388608
3380.43,6.99188e-05,0,8388608,8388608
3391.75,8.82157e-05,0,8388608,8388608
3401.18,0.00010601,0,8388608,8388608
3410.61,0.000126284,0,8388608,8388608
3420.04,0.000149166,0,8388608,8388608
3431.36,0.000180208,0,8388608,8388608
3440.79,0.000209139,0,8388608,8388608
3450.23,0.000240888,0,8388608,8388608
3461.54,0.000282691,0,8388608,8388608
3470.98,0.000320556,0,8388608,8388608
3480.41,0.000361083,0,8388608,8388608
3491.73,0.000413053,0,8388608,8388608
3501.16,0.000458959,0,8388608,8388608
3510.59,0.000507026,0,8388608,8388608
3520.02,0.000557045,0,8388608,8388608
3531.34,0.000619316,0,8388608,8388608
3540.77,0.000672796,0,8388608,8388608
3550.2,0.000727445,0,8388608,8388608
3561.52,0.000794204,0,8388608,8388608
3570.95,0.000850518,0,8388608,8388608
3580.38,0.000907188,0,8388608,8388608
3591.7,0.000975332,0,8388608,8388608
3601.13,0.00103198,0,8388608,8388608
3610.57,0.00108831,0,8388608,8388608
3621.88,0.00115525,0,8388608,8388608
3631.32,0.00121035,0,8388608,8388608
3640.75,0.00126474,0,8388608,8388608
3650.18,0.00131838,0,8388608,8388608
3661.5,0.00138175,0,8388608,8388608
3670.93,0.0014338,0,8388608,8388608
3680.36,0.00148525,0,8388608,8388608
3691.68,0.0015464,0,8388608,8388608
3701.11,0.00159706,0,8388608,8388608
3710.54,0.00164768,0,8388608,8388608
3721.86,0.0017087,0,8388608,8388608
3731.29,0.00176009,0,8388608,8388608
3740.72,0.00181226,0,8388608,8388608
3750.15,0.00186548,0,8388608,8388608
3761.47,0.00193113,0,8388608,8388608
3770.9,0.00198764,0,8388608,8388608
3780.33,0.00204605,0,8388608,8388608
3791.65,0.00211898,0,8388608,8388608
3801.08,0.00218234,0,8388608,8388608
3810.52,0.00224825,0,8388608,8388608
3821.83,0.00233089,0,8388608,8388608
3831.27,0.00240283,0,8388608,8388608
3840.7,0.00247765,0,8388608,8388608
3850.13,0.00255539,0,8388608,8388608
3861.45,0.00265257,0,8388608,8388608
3870.88,0.00273681,0,8388608,8388608
3880.31,0.00282403,0,8388608,8388608
3891.63,0.00293267,0,8388608,8388608
3901.06,0.00302658,0,8388608,8388608
3910.49,0.00312365,0,8388608,8388608
3921.81,0.00324456,0,8388608,8388608
3931.24,0.00334929,0,8388608,8388608
3940.67,0.00345802,0,8388608,8388608
3950.1,0.00357124,0,8388608,8388608
3961.42,0.00371395,0,8388608,8388608
3970.85,0.00383957,0,8388608,8388608
3980.28,0.00397239,0,8388608,8388608
3991.6,0.00414314,0,8388608,8388608
4001.03,0.0042968,0,8388608,8388608
4010.46,0.00446286,0,8388608,8388608
4021.78,0.00468178,0,8388608,8388608
4031.21,0.00488384,0,8388608,8388608
4040.64,0.00510725,0,8388608,8388608
4050.08,0.00535586,0,8388608,8388608
4061.39,0.00569389,0,8388608,8388608
4070.82,0.00601494,0,8388608,8388608
4080.26,0.00637854,0,8388608,8388608
4091.57,0.00688164,0,8388608,8388608
4101.01,0.00736702,0,8388608,8388608
4110.44,0.00792382,0,8388608,8388608
4121.75,0.00870408,0,8388608,8388608
4131.19,0.00946537,0,8388608,8388608
4140.62,0.0103467,0,8388608,8388608
4150.05,0.011369,0,8388608,8388608
4161.37,0.0128169,0,8388608,8388608
4170.8,0.014242,0,8388608,8388608
4180.23,0.0159019,0,8388608,8388608
4191.55,0.0182594,0,8388608,8388608
4200.98,0.0205818,0,8388608,8388608
4210.41,0.0232844,0,8388608,8388608
4221.73,0.0271115,0,8388608,8388608
4231.16,0.0308635,0,8388608,8388608
4240.59,0.035203,0,8388608,8388608
4250.02,0.0402072,0,8388608,8388608
4261.34,0.0472061,0,8388608,8388608
4270.77,0.0539688,0,8388608,8388608
4280.2,0.0616735,0,8388608,8388608
4291.52,0.0722921,0,8388608,8388608
4300.95,0.0823923,0,8388608,8388608
4310.39,0.0937252,0,8388608,8388608
4321.7,0.10907,0,8388608,8388608
4331.14,0.123401,0,8388608,8388608
4340.57,0.139206,0,8388608,8388608
4351.89,0.160194,0,8388608,8388608
4361.32,0.179411,0,8388608,8388608
4370.75,0.200221,0,8388608,8388608
4380.18,0.222624,0,8388608,8388608
4391.5,0.251582,0,8388608,8388608
4400.93,0.277391,0,8388608,8388608
4410.36,0.304654,0,8388608,8388608
4421.68,0.33916,0,8388608,8388608
4431.11,0.369273,0,8388608,8388608
4440.54,0.400472,0,8388608,8388608
4451.86,0.439118,0,8388608,8388608
4461.3,0.472115,0,8388608,8388608
4470.73,0.505617,0,8388608,8388608
4480.16,0.539409,0,8388608,8388608
4491.48,0.580015,0,8388608,8388608
4500.91,0.613614,0,8388608,8388608
4510.34,0.64673,0,8388608,8388608
4521.66,0.685471,0,8388608,8388608
4531.09,0.716623,0,8388608,8388608
4540.52,0.746474,0,8388608,8388608
4551.84,0.780229,0,8388608,8388608
4561.27,0.806359,0,8388608,8388608
4570.71,0.830433,0,8388608,8388608
4580.14,0.852243,0,8388608,8388608
4591.46,0.875163,0,8388608,8388608
4600.89,0.89136,0,8388608,8388608
4610.32,0.90477,0,8388608,8388608
4621.64,0.917025,0,8388608,8388608
4631.07,0.923942,0,8388608,8388608
4640.5,0.927806,0,8388608,8388608
4651.82,0.928377,0,8388608,8388608
4661.25,0.92547,0,8388608,8388608
4670.69,0.91952,0,8388608,8388608
4680.12,0.910583,0,8388608,8388608
4691.44,0.896032,0,8388608,8388608
4700.87,0.880836,0,8388608,8388608
4710.3,0.862978,0,8388608,8388608
4721.62,0.838232,0,8388608,8388608
4731.05,0.815023,0,8388608,8388608
4740.48,0.789636,0,8388608,8388608
4751.8,0.756538,0,8388608,8388608
4761.23,0.726965,0,8388608,8388608
4770.66,0.695773,0,8388608,8388608
4780.1,0.663137,0,8388608,8388608
4791.41,0.622313,0,8388608,8388608
4800.85,0.587109,0,8388608,8388608
4810.28,0.551002,0,8388608,8388608
4821.6,0.506701,0,8388608,8388608
4831.03,0.469143,0,8388608,8388608
4840.46,0.431149,0,8388608,8388608
4851.78,0.385161,0,8388608,8388608
4861.21,0.346644,0,8388608,8388608
4870.64,0.308068,0,8388608,8388608
4880.07,0.269532,0,8388608,8388608
4891.39,0.223468,0,8388608,8388608
4900.82,0.185332,0,8388608,8388608
4910.26,0.147508,0,8388608,8388608
4921.58,0.102632,0,8388608,8388608
4931.01,0.0657463,0,8388608,8388608
4940.44,0.0293953,0,8388608,8388608
4951.76,-0.0134289,0,8388608,8388608
4961.19,-0.0483778,0,8388608,8388608
4970.62,-0.0825895,0,8388608,8388608
4980.05,-0.116003,0,8388608,8388608
4991.37,-0.154959,0,8388608,8388608
5000.8,-0.186401,0,8388608,8388608
5010.24,-0.216852,0,8388608,8388608
5021.55,-0.252,0,8388608,8388608
5030.99,-0.280063,0,8388608,8388608
5040.42,-0.306949,0,8388608,8388608
5051.74,-0.337586,0,8388608,8388608
5061.17,-0.361702,0,8388608,8388608
5070.6,-0.384482,0,8388608,8388608
5080.03,-0.405882,0,8388608,8388608
5091.35,-0.429689,0,8388608,8388608
5100.78,-0.447928,0,8388608,8388608
5110.21,-0.464684,0,8388608,8388608
5121.53,-0.482805,0,8388608,8388608
5130.96,-0.496234,0,8388608,8388608
5140.4,-0.508136,0,8388608,8388608
5151.72,-0.520402,0,8388608,8388608
5161.15,-0.528951,0,8388608,8388608
5170.58,-0.535995,0,8388608,8388608
5180.01,-0.541555,0,8388608,8388608
5191.33,-0.546304,0,8388608,8388608
5200.76,-0.548699,0,8388608,8388608
5210.19,-0.549715,0,8388608,8388608
5221.51,-0.549177,0,8388608,8388608
5230.94,-0.547322,0,8388608,8388608
5240.38,-0.544247,0,8388608,8388608
5251.69,-0.539025,0,8388608,8388608
5261.13,-0.53347,0,8388608,8388608
5270.56,-0.526888,0,8388608,8388608
5281.88,-0.517728,0,8388608,8388608
5291.31,-0.509122,0,8388608,8388608
5300.74,-0.499706,0,8388608,8388608
5310.17,-0.489549,0,8388608,8388608
5321.49,-0.476482,0,8388608,8388608
5330.92,-0.464942,0,8388608,8388608
5340.36,-0.452885,0,8388608,8388608
5351.67,-0.437829,0,8388608,8388608
5361.11,-0.424873,0,8388608,8388608
5370.54,-0.411615,0,8388608,8388608
5381.86,-0.395397,0,8388608,8388608
5391.29,-0.381697,0,8388608,8388608
5400.72,-0.367893,0,8388608,8388608
5410.15,-0.354042,0,8388608,8388608
5421.47,-0.337435,0,8388608,8388608
5430.9,-0.323668,0,8388608,8388608
5440.33,-0.310018,0,8388608,8388608
5451.65,-0.293855,0,8388608,8388608
5461.08,-0.280615,0,8388608,8388608
5470.52,-0.267625,0,8388608,8388608
5481.84,-0.252412,0,8388608,8388608
5491.27,-0.240085,0,8388608,8388608
5500.7,-0.228105,0,8388608,8388608
5510.13,-0.216495,0,8388608,8388608
5521.45,-0.20308,0,8388608,8388608
5530.88,-0.192351,0,8388608,8388608
5540.31,-0.182048,0,8388608,8388608
5551.63,-0.17026,0,8388608,8388608
5561.06,-0.160926,0,8388608,8388608
5570.5,-0.152044,0,8388608,8388608
5581.81,-0.141985,0,8388608,8388608
5591.25,-0.134104,0,8388608,8388608
5600.68,-0.126678,0,8388608,8388608
5610.11,-0.119704,0,8388608,8388608
5621.43,-0.111928,0,8388608,8388608
5630.86,-0.105935,0,8388608,8388608
5640.29,-0.100377,0,8388608,8388608
5651.61,-0.0942728,0,8388608,8388608
5661.04,-0.0896463,0,8388608,8388608
5670.47,-0.0854285,0,8388608,8388608
5681.79,-0.0808926,0,8388608,8388608
5691.23,-0.0775379,0,8388608,8388608
5700.66,-0.0745577,0,8388608,8388608
5710.09,-0.0719405,0,8388608,8388608
5721.41,-0.0692618,0,8388608,8388608
5730.84,-0.0673998,0,8388608,8388608
5740.27,-0.0658607,0,8388608,8388608
5751.59,-0.0644216,0,8388608,8388608
5761.02,-0.0635468,0,8388608,8388608
5770.45,-0.0629525,0,8388608,8388608
5781.77,-0.0625908,0,8388608,8388608
5791.2,-0.0625663,0,8388608,8388608
5800.64,-0.0627794,0,8388608,8388608
5810.07,-0.0632166,0,8388608,8388608
5821.39,-0.0640186,0,8388608,8388608
5830.82,-0.0649027,0,8388608,8388608
5840.25,-0.0659694,0,8388608,8388608
5851.57,-0.0674727,0,8388608,8388608
5861,-0.0688971,0,8388608,8388608
5870.43,-0.0704647,0,8388608,8388608
5881.75,-0.0725185,0,8388608,8388608
5891.18,-0.0743602,0,8388608,8388608
5900.62,-0.0763083,0,8388608,8388608
5910.05,-0.0783518,0,8388608,8388608
5921.37,-0.0809144,0,8388608,8388608
5930.8,-0.0831293,0,8388608,8388608
5940.23,-0.085405,0,8388608,8388608
5951.55,-0.0882011,0,8388608,8388608
5960.98,-0.090573,0,8388608,8388608
5970.41,-0.0929715,0,8388608,8388608
5981.73,-0.0958697,0,8388608,8388608
5991.16,-0.098289,0,8388608,8388608
6000.6,-0.1007,0,8388608,8388608
6010.03,-0.103092,0,8388608,8388608
6021.35,-0.105922,0,8388608,8388608
6030.78,-0.108234,0,8388608,8388608
6040.21,-0.110491,0,8388608,8388608
6051.53,-0.113111,0,8388608,8388608
6060.96,-0.115209,0,8388608,8388608
6070.39,-0.117217,0,8388608,8388608
6081.71,-0.119493,0,8388608,8388608
6091.14,-0.121266,0,8388608,8388608
6100.57,-0.122917,0,8388608,8388608
6110.01,-0.124434,0,8388608,8388608
6121.33,-0.126068,0,8388608,8388608
6130.76,-0.127263,0,8388608,8388608
6140.19,-0.128299,0,8388608,8388608
6151.51,-0.12932,0,8388608,8388608
6160.94,-0.12998,0,8388608,8388608
6170.37,-0.130461,0,8388608,8388608
6181.69,-0.130793,0,8388608,8388608
6191.12,-0.130863,0,8388608,8388608
6200.55,-0.13074,0,8388608,8388608
6211.87,-0.130338,0,8388608,8388608
6221.3,-0.129788,0,8388608,8388608
6230.74,-0.129044,0,8388608,8388608
6240.17,-0.128106,0,8388608,8388608
6251.49,-0.126726,0,8388608,8388608
6260.92,-0.125368,0,8388608,8388608
6270.35,-0.123825,0,8388608,8388608
6281.67,-0.121734,0,8388608,8388608
6291.1,-0.119798,0,8388608,8388608
6300.53,-0.117691,0,8388608,8388608
6311.85,-0.114949,0,8388608,8388608
6321.28,-0.112491,0,8388608,8388608
6330.72,-0.109885,0,8388608,8388608
6340.15,-0.107139,0,8388608,8388608
6351.47,-0.10367,0,8388608,8388608
6360.9,-0.100645,0,8388608,8388608
6370.33,-0.0975062,0,8388608,8388608
6381.65,-0.0936036,0,8388608,8388608
6391.08,-0.090249,0,8388608,8388608
6400.51,-0.0868114,0,8388608,8388608
6411.83,-0.0825903,0,8388608,8388608
6421.26,-0.0790042,0,8388608,8388608
6430.7,-0.0753663,0,8388608,8388608
6440.13,-0.0716863,0,8388608,8388608
6451.45,-0.0672283,0,8388608,8388608
6460.88,-0.0634895,0,8388608,8388608
6470.31,-0.0597392,0,8388608,8388608
6481.63,-0.0552364,0,8388608,8388608
6491.06,-0.0514926,0,8388608,8388608
6500.49,-0.0477658,0,8388608,8388608
6511.81,-0.0433276,0,8388608,8388608
6521.24,-0.0396668,0,8388608,8388608
6530.67,-0.0360483,0,8388608,8388608
6540.11,-0.032479,0,8388608,8388608
6551.42,-0.0282705,0,8388608,8388608
6560.86,-0.0248326,0,8388608,8388608
6570.29,-0.0214639,0,8388608,8388608
6581.61,-0.0175198,0,8388608,8388608
6591.04,-0.0143207,0,8388608,8388608
6600.47,-0.0112056,0,8388608,8388608
6611.79,-0.00758371,0,8388608,8388608
6621.22,-0.0046661,0,8388608,8388608
6630.65,-0.00184299,0,8388608,8388608
6640.09,0.000883223,0,8388608,8388608
6651.4,0.0040239,0,8388608,8388608
6660.84,0.00653018,0,8388608,8388608
6670.27,0.0089341,0,8388608,8388608
6681.59,0.0116822,0,8388608,8388608
6691.02,0.0138573,0,8388608,8388608
6700.45,0.0159272,0,8388608,8388608
6711.77,0.0182713,0,8388608,8388608
6721.2,0.0201078,0,8388608,8388608
6730.63,0.0218376,0,8388608,8388608
6740.06,0.0234602,0,8388608,8388608
6751.38,0.0252653,0,8388608,8388608
6760.82,0.0266508,0,8388608,8388608
6770.25,0.0279278,0,8388608,8388608
6781.57,0.0293161,0,8388608,8388608
6791,0.0303524,0,8388608,8388608
6800.43,0.0312782,0,8388608,8388608
6811.75,0.0322422,0,8388608,8388608
6821.18,0.0329222,0,8388608,8388608
6830.61,0.0334892,0,8388608,8388608
6840.04,0.0339423,0,8388608,8388608
6851.36,0.0343345,0,8388608,8388608
6860.79,0.0345343,0,8388608,8388608
6870.23,0.0346179,0,8388608,8388608
6881.54,0.0345642,0,8388608,8388608
6890.98,0.0343909,0,8388608,8388608
6900.41,0.0341007,0,8388608,8388608
6911.73,0.0335988,0,8388608,8388608
6921.16,0.0330533,0,8388608,8388608
6930.59,0.0323933,0,8388608,8388608
6940.02,0.0316205,0,8388608,8388608
6951.34,0.0305469,0,8388608,8388608
6960.77,0.0295335,0,8388608,8388608
6970.21,0.0284154,0,8388608,8388608
6981.52,0.0269404,0,8388608,8388608
6990.96,0.0256049,0,8388608,8388608
7000.39,0.0241775,0,8388608,8388608
7011.71,0.0223505,0,8388608,8388608
7021.14,0.020739,0,8388608,8388608
7030.57,0.0190528,0,8388608,8388608
7040,0.0172979,0,8388608,8388608
7051.32,0.0151101,0,8388608,8388608
7060.75,0.0132262,0,8388608,8388608
7070.19,0.0112941,0,8388608,8388608
7081.5,0.00892114,0,8388608,8388608
7090.94,0.00690612,0,8388608,8388608
7100.37,0.00486388,0,8388608,8388608
7111.69,0.00238624,0,8388608,8388608
7121.12,0.000306374,0,8388608,8388608
7130.55,-0.00178089,0,8388608,8388608
7141.87,-0.00428731,0,8388608,8388608
7151.3,-0.006371,0,8388608,8388608
7160.73,-0.00844465,0,8388608,8388608
7170.16,-0.0105034,0,8388608,8388608
7181.48,-0.0129478,0,8388608,8388608
7190.92,-0.014958,0,8388608,8388608
7200.35,-0.0169396,0,8388608,8388608
7211.67,-0.0192746,0,8388608,8388608
7221.1,-0.0211807,0,8388608,8388608
7230.53,-0.023047,0,8388608,8388608
7241.85,-0.0252299,0,8388608,8388608
7251.28,-0.0269984,0,8388608,8388608
7260.71,-0.0287179,0,8388608,8388608
7270.14,-0.0303857,0,8388608,8388608
7281.46,-0.0323151,0,8388608,8388608
7290.89,-0.0338599,0,8388608,8388608
7300.33,-0.0353445,0,8388608,8388608
7311.64,-0.0370429,0,8388608,8388608
7321.08,-0.0383858,0,8388608,8388608
7330.51,-0.0396598,0,8388608,8388608
7341.83,-0.0410936,0,8388608,8388608
7351.26,-0.0422057,0,8388608,8388608
7360.69,-0.0432392,0,8388608,8388608
7370.12,-0.0441909,0,8388608,8388608
7381.44,-0.0452202,0,8388608,8388608
7390.87,-0.04598,0,8388608,8388608
7400.3,-0.0466468,0,8388608,8388608
7411.62,-0.0473192,0,8388608,8388608
7421.05,-0.0477687,0,8388608,8388608
7430.49,-0.0481135,0,8388608,8388608
7441.81,-0.0483835,0,8388608,8388608
7451.24,-0.0484844,0,8388608,8388608
7460.67,-0.0484686,0,8388608,8388608
7470.1,-0.0483323,0,8388608,8388608
7481.42,-0.0480048,0,8388608,8388608
7490.85,-0.0475913,0,8388608,8388608
7500.28,-0.0470465,0,8388608,8388608
7511.6,-0.0462153,0,8388608,8388608
7521.03,-0.0453715,0,8388608,8388608
7530.46,-0.0443875,0,8388608,8388608
7541.78,-0.0430187,0,8388608,8388608
7551.21,-0.041719,0,8388608,8388608
7560.65,-0.0402731,0,8388608,8388608
7570.08,-0.0386798,0,8388608,8388608
7581.4,-0.0365719,0,8388608,8388608
7590.83,-0.0346515,0,8388608,8388608
7600.26,-0.0325821,0,8388608,8388608
7611.58,-0.0299024,0,8388608,8388608
7621.01,-0.0275066,0,8388608,8388608
7630.44,-0.024964,0,8388608,8388608
7641.76,-0.0217214,0,8388608,8388608
7651.19,-0.018862,0,8388608,8388608
7660.62,-0.0158623,0,8388608,8388608
7670.06,-0.0127252,0,8388608,8388608
7681.37,-0.0087839,0,8388608,8388608
7690.81,-0.00535679,0,8388608,8388608
7700.24,-0.00180453,0,8388608,8388608
7711.56,0.00261658,0,8388608,8388608
7720.99,0.00642658,0,8388608,8388608
7730.42,0.0103447,0,8388608,8388608
7741.74,0.0151801,0,8388608,8388608
7751.17,0.0193129,0,8388608,8388608
7760.6,0.0235318,0,8388608,8388608
7770.03,0.0278288,0,8388608,8388608
7781.35,0.0330765,0,8388608,8388608
7790.78,0.0375151,0,8388608,8388608
7800.22,0.0420034,0,8388608,8388608
7811.53,0.0474409,0,8388608,8388608
7820.97,0.0520031,0,8388608,8388608
7830.4,0.0565822,0,8388608,8388608
7841.72,0.0620838,0,8388608,8388608
7851.15,0.0666609,0,8388608,8388608
7860.58,0.0712189,0,8388608,8388608
7870.01,0.0757461,0,8388608,8388608
7881.33,0.0811217,0,8388608,8388608
7890.76,0.0855402,0,8388608,8388608
7900.19,0.0898906,0,8388608,8388608
7911.51,0.095005,0,8388608,8388608
7920.94,0.0991656,0,8388608,8388608
7930.38,0.103222,0,8388608,8388608
7941.69,0.107938,0,8388608,8388608
7951.13,0.11173,0,8388608,8388608
7960.56,0.115386,0,8388608,8388608
7971.88,0.119581,0,8388608,8388608
7981.31,0.122908,0,8388608,8388608
7990.74,0.126073,0,8388608,8388608
8000.17,0.12907,0,8388608,8388608
8011.49,0.132436,0,8388608,8388608
8020.92,0.135044,0,8388608,8388608
8030.35,0.137469,0,8388608,8388608
8041.67,0.140131,0,8388608,8388608
8051.1,0.142142,0,8388608,8388608
8060.54,0.143963,0,8388608,8388608
8071.85,0.145896,0,8388608,8388608
8081.29,0.147298,0,8388608,8388608
8090.72,0.148511,0,8388608,8388608
8100.15,0.149538,0,8388608,8388608
8111.47,0.150528,0,8388608,8388608
8120.9,0.151154,0,8388608,8388608
8130.33,0.151604,0,8388608,8388608
8141.65,0.151918,0,8388608,8388608
8151.08,0.151996,0,8388608,8388608
8160.51,0.151912,0,8388608,8388608
8171.83,0.151606,0,8388608,8388608
8181.26,0.151185,0,8388608,8388608
8190.7,0.150618,0,8388608,8388608
8200.13,0.149911,0,8388608,8388608
8211.45,0.148886,0,8388608,8388608
8220.88,0.147888,0,8388608,8388608
8230.31,0.146766,0,8388608,8388608
8241.63,0.14526,0,8388608,8388608
8251.06,0.143878,0,8388608,8388608
8260.49,0.142384,0,8388608,8388608
8271.81,0.140449,0,8388608,8388608
8281.24,0.138721,0,8388608,8388608
8290.67,0.136891,0,8388608,8388608
8300.11,0.134963,0,8388608,8388608
8311.42,0.132522,0,8388608,8388608
8320.86,0.130385,0,8388608,8388608
8330.29,0.128157,0,8388608,8388608
8341.61,0.125366,0,8388608,8388608
8351.04,0.122945,0,8388608,8388608
8360.47,0.120441,0,8388608,8388608
8371.79,0.117328,0,8388608,8388608
8381.22,0.114649,0,8388608,8388608
8390.65,0.111894,0,8388608,8388608
8400.08,0.109068,0,8388608,8388608
8411.4,0.105587,0,8388608,8388608
8420.83,0.102616,0,8388608,8388608
8430.27,0.0995868,0,8388608,8388608
8441.58,0.0958811,0,8388608,8388608
8451.02,0.0927404,0,8388608,8388608
8460.45,0.0895583,0,8388608,8388608
8471.77,0.0856936,0,8388608,8388608
8481.2,0.0824426,0,8388608,8388608
8490.63,0.0791713,0,8388608,8388608
8500.06,0.0758873,0,8388608,8388608
8511.38,0.0719405,0,8388608,8388608
8520.81,0.0686558,0,8388608,8388608
8530.24,0.065384,0,8388608,8388608
8541.56,0.0614864,0,8388608,8388608
8550.99,0.0582721,0,8388608,8388608
8560.43,0.0550975,0,8388608,8388608
8571.75,0.0513522,0,8388608,8388608
8581.18,0.0482943,0,8388608,8388608
8590.61,0.0453023,0,8388608,8388608
8600.04,0.0423841,0,8388608,8388608
8611.36,0.0389901,0,8388608,8388608
8620.79,0.0362598,0,8388608,8388608
8630.22,0.0336255,0,8388608,8388608
8641.54,0.0305998,0,8388608,8388608
8650.97,0.0281973,0,8388608,8388608
8660.41,0.0259082,0,8388608,8388608
8671.72,0.0233166,0,8388608,8388608
8681.16,0.0212902,0,8388608,8388608
8690.59,0.0193878,0,8388608,8388608
8700.02,0.0176113,0,8388608,8388608
8711.34,0.0156472,0,8388608,8388608
8720.77,0.0141504,0,8388608,8388608
8730.2,0.0127805,0,8388608,8388608
8741.52,0.0113021,0,8388608,8388608
8750.95,0.0102056,0,8388608,8388608
8760.38,0.00922941,0,8388608,8388608
8771.7,0.0082116,0,8388608,8388608
8781.13,0.00748649,0,8388608,8388608
8790.57,0.00686802,0,8388608,8388608
8801.88,0.00625881,0,8388608,8388608
8811.32,0.00585478,0,8388608,8388608
8820.75,0.00553793,0,8388608,8388608
8830.18,0.0053012,0,8388608,8388608
8841.5,0.00511243,0,8388608,8388608
8850.93,0.00502545,0,8388608,8388608
8860.36,0.00499387,0,8388608,8388608
8871.68,0.00501758,0,8388608,8388608
8881.11,0.00507897,0,8388608,8388608
8890.54,0.00516933,0,8388608,8388608
8901.86,0.0053044,0,8388608,8388608
8911.3,0.0054296,0,8388608,8388608
8920.73,0.00555782,0,8388608,8388608
8930.16,0.0056814,0,8388608,8388608
8941.48,0.00581321,0,8388608,8388608
8950.91,0.00590114,0,8388608,8388608
8960.34,0.00596218,0,8388608,8388608
8971.66,0.00599148,0,8388608,8388608
8981.09,0.00597281,0,8388608,8388608
8990.52,0.00590971,0,8388608,8388608
9001.84,0.00576923,0,8388608,8388608
9011.27,0.0055938,0,8388608,8388608
9020.71,0.00536195,0,8388608,8388608
9030.14,0.00507109,0,8388608,8388608
9041.46,0.00464137,0,8388608,8388608
9050.89,0.00421429,0,8388608,8388608
9060.32,0.00372348,0,8388608,8388608
9071.64,0.00304976,0,8388608,8388608
9081.07,0.00241763,0,8388608,8388608
9090.5,0.00172159,0,8388608,8388608
9101.82,0.000802898,0,8388608,8388608
9111.25,-3.11552e-05,0,8388608,8388608
9120.68,-0.000926283,0,8388608,8388608
9130.12,-0.00188125,0,8388608,8388608
9141.44,-0.00310434,0,8388608,8388608
9150.87,-0.00418629,0,8388608,8388608
9160.3,-0.00532383,0,8388608,8388608
9171.62,-0.00676051,0,8388608,8388608
9181.05,-0.0080161,0,8388608,8388608
9190.48,-0.00932365,0,8388608,8388608
9201.8,-0.0109601,0,8388608,8388608
9211.23,-0.0123792,0,8388608,8388608
9220.66,-0.0138481,0,8388608,8388608
9230.1,-0.0153665,0,8388608,8388608
9241.41,-0.0172536,0,8388608,8388608
9250.85,-0.0188803,0,8388608,8388608
9260.28,-0.0205562,0,8388608,8388608
9271.6,-0.0226325,0,8388608,8388608
9281.03,-0.0244173,0,8388608,8388608
9290.46,-0.0262518,0,8388608,8388608
9301.78,-0.0285188,0,8388608,8388608
9311.21,-0.0304628,0,8388608,8388608
9320.64,-0.0324562,0,8388608,8388608
9330.08,-0.0344988,0,8388608,8388608
9341.39,-0.0370139,0,8388608,8388608
9350.83,-0.0391619,0,8388608,8388608
9360.26,-0.0413561,0,8388608,8388608
9371.58,-0.0440476,0,8388608,8388608
9381.01,-0.0463369,0,8388608,8388608
9390.44,-0.0486659,0,8388608,8388608
9401.76,-0.0515089,0,8388608,8388608
9411.19,-0.0539145,0,8388608,8388608
9420.62,-0.0563494,0,8388608,8388608
9430.05,-0.0588095,0,8388608,8388608
9441.37,-0.0617888,0,8388608,8388608
9450.8,-0.0642888,0,8388608,8388608
9460.24,-0.0667989,0,8388608,8388608
9471.56,-0.0698174,0,8388608,8388608
9480.99,-0.0723317,0,8388608,8388608
9490.42,-0.074839,0,8388608,8388608
9501.74,-0.0778308,0,8388608,8388608
9511.17,-0.0803033,0,8388608,8388608
9520.6,-0.082751,0,8388608,8388608
9530.03,-0.0851686,0,8388608,8388608
9541.35,-0.0880224,0,8388608,8388608
9550.78,-0.0903554,0,8388608,8388608
9560.22,-0.0926421,0,8388608,8388608
9571.53,-0.095319,0,8388608,8388608
9580.97,-0.097489,0,8388608,8388608
9590.4,-0.0995999,0,8388608,8388608
9601.72,-0.10205,0,8388608,8388608
9611.15,-0.10402,0,8388608,8388608
9620.58,-0.105922,0,8388608,8388608
9630.01,-0.107754,0,8388608,8388608
9641.33,-0.109857,0,8388608,8388608
9650.76,-0.11153,0,8388608,8388608
9660.2,-0.11313,0,8388608,8388608
9671.51,-0.114951,0,8388608,8388608
9680.95,-0.116388,0,8388608,8388608
9690.38,-0.11775,0,8388608,8388608
9701.7,-0.119289,0,8388608,8388608
9711.13,-0.120491,0,8388608,8388608
9720.56,-0.121621,0,8388608,8388608
9731.88,-0.122883,0,8388608,8388608
9741.31,-0.123857,0,8388608,8388608
9750.74,-0.124762,0,8388608,8388608
9760.17,-0.125598,0,8388608,8388608
9771.49,-0.126511,0,8388608,8388608
9780.92,-0.127197,0,8388608,8388608
9790.36,-0.127815,0,8388608,8388608
9801.68,-0.128467,0,8388608,8388608
9811.11,-0.128935,0,8388608,8388608
9820.54,-0.129334,0,8388608,8388608
9831.86,-0.12972,0,8388608,8388608
9841.29,-0.129964,0,8388608,8388608
9850.72,-0.130135,0,8388608,8388608
9860.15,-0.130232,0,8388608,8388608
9871.47,-0.130248,0,8388608,8388608
9880.9,-0.130175,0,8388608,8388608
9890.34,-0.130021,0,8388608,8388608
9901.65,-0.129726,0,8388608,8388608
9911.09,-0.129386,0,8388608,8388608
9920.52,-0.128958,0,8388608,8388608
9931.84,-0.128325,0,8388608,8388608
9941.27,-0.127695,0,8388608,8388608
9950.7,-0.12697,0,8388608,8388608
9960.13,-0.126148,0,8388608,8388608
9971.45,-0.12503,0,8388608,8388608
9980.88,-0.123989,0,8388608,8388608
9990.31,-0.122846,0,8388608,8388608
10001.6,-0.121341,0,8388608,8388608
10011.1,-0.119973,0,8388608,8388608
10020.5,-0.118504,0,8388608,8388608
10031.8,-0.116607,0,8388608,8388608
10041.2,-0.114916,0,8388608,8388608
10050.7,-0.113127,0,8388608,8388608
10060.1,-0.111242,0,8388608,8388608
10071.4,-0.108856,0,8388608,8388608
10080.9,-0.106769,0,8388608,8388608
10090.3,-0.104596,0,8388608,8388608
10101.6,-0.101881,0,8388608,8388608
10111,-0.0995324,0,8388608,8388608
10120.5,-0.097112,0,8388608,8388608
10131.8,-0.0941195,0,8388608,8388608
10141.2,-0.0915585,0,8388608,8388608
10150.7,-0.0889424,0,8388608,8388608
10160.1,-0.0862771,0,8388608,8388608
10171.4,-0.083022,0,8388608,8388608
10180.8,-0.0802692,0,8388608,8388608
10190.3,-0.0774864,0,8388608,8388608
10201.6,-0.0741159,0,8388608,8388608
10211,-0.0712883,0,8388608,8388608
10220.5,-0.06845,0,8388608,8388608
10231.8,-0.0650382,0,8388608,8388608
10241.2,-0.0621967,0,8388608,8388608
10250.6,-0.0593629,0,8388608,8388608
10260.1,-0.0565419,0,8388608,8388608
10271.4,-0.0531811,0,8388608,8388608
10280.8,-0.0504064,0,8388608,8388608
10290.3,-0.0476605,0,8388608,8388608
10301.6,-0.0444096,0,8388608,8388608
10311,-0.0417423,0,8388608,8388608
10320.4,-0.0391172,0,8388608,8388608
10331.8,-0.0360283,0,8388608,8388608
10341.2,-0.0335094,0,8388608,8388608
10350.6,-0.031044,0,8388608,8388608
10360,-0.0286355,0,8388608,8388608
10371.4,-0.0258245,0,8388608,8388608
10380.8,-0.0235512,0,8388608,8388608
10390.2,-0.0213436,0,8388608,8388608
10401.5,-0.0187848,0,8388608,8388608
10411,-0.0167303,0,8388608,8388608
10420.4,-0.0147489,0,8388608,8388608
10431.7,-0.0124706,0,8388608,8388608
10441.2,-0.0106571,0,8388608,8388608
10450.6,-0.00892264,0,8388608,8388608
10460,-0.00726898,0,8388608,8388608
10471.3,-0.00539323,0,8388608,8388608
10480.8,-0.00392219,0,8388608,8388608
10490.2,-0.00253611,0,8388608,8388608
10501.5,-0.000986314,0,8388608,8388608
10511,0.000209655,0,8388608,8388608
10520.4,0.00131814,0,8388608,8388608
10531.7,0.00253229,0,8388608,8388608
10541.1,0.00344719,0,8388608,8388608
10550.6,0.00427407,0,8388608,8388608
10560,0.00501324,0,8388608,8388608
10571.3,0.00578523,0,8388608,8388608
10580.8,0.00633366,0,8388608,8388608
10590.2,0.00679697,0,8388608,8388608
10601.5,0.00724248,0,8388608,8388608
10610.9,0.00752357,0,8388608,8388608
10620.4,0.00772468,0,8388608,8388608
10631.7,0.00786345,0,8388608,8388608
10641.1,0.00789638,0,8388608,8388608
10650.6,0.0078569,0,8388608,8388608
10661.9,0.00771789,0,8388608,8388608
10671.3,0.00752919,0,8388608,8388608
10680.7,0.00727762,0,8388608,8388608
10690.2,0.00696647,0,8388608,8388608
10701.5,0.00651922,0,8388608,8388608
10710.9,0.00608902,0,8388608,8388608
10720.4,0.00561032,0,8388608,8388608
10731.7,0.00497684,0,8388608,8388608
10741.1,0.00440388,0,8388608,8388608
10750.5,0.0037937,0,8388608,8388608
10761.9,0.00301715,0,8388608,8388608
10771.3,0.00233701,0,8388608,8388608
10780.7,0.00163029,0,8388608,8388608
10790.1,0.00090009,0,8388608,8388608
10801.5,-2.99275e-06,0,8388608,8388608
10810.9,-0.000774645,0,8388608,8388608
10820.3,-0.00156084,0,8388608,8388608
10831.6,-0.00251999,0,8388608,8388608
10841.1,-0.0033297,0,8388608,8388608
10850.5,-0.00414661,0,8388608,8388608
10861.8,-0.00513362,0,8388608,8388608
10871.3,-0.0059596,0,8388608,8388608
10880.7,-0.00678693,0,8388608,8388608
10890.1,-0.00761404,0,8388608,8388608
10901.4,-0.00860423,0,8388608,8388608
10910.9,-0.00942579,0,8388608,8388608
10920.3,-0.0102427,0,8388608,8388608
10931.6,-0.011215,0,8388608,8388608
10941.1,-0.0120172,0,8388608,8388608
10950.5,-0.0128107,0,8388608,8388608
10961.8,-0.0137498,0,8388608,8388608
10971.2,-0.0145199,0,8388608,8388608
10980.7,-0.0152773,0,8388608,8388608
10990.1,-0.0160206,0,8388608,8388608
11001.4,-0.0168921,0,8388608,8388608
11010.9,-0.0175997,0,8388608,8388608
11020.3,-0.0182885,0,8388608,8388608
11031.6,-0.0190884,0,8388608,8388608
11041,-0.0197307,0,8388608,8388608
11050.5,-0.0203492,0,8388608,8388608
11061.8,-0.0210576,0,8388608,8388608
11071.2,-0.0216176,0,8388608,8388608
11080.7,-0.0221483,0,8388608,8388608
11090.1,-0.0226479,0,8388608,8388608
11101.4,-0.0232037,0,8388608,8388608
11110.8,-0.0236285,0,8388608,8388608
11120.3,-0.0240166,0,8388608,8388608
11131.6,-0.0244313,0,8388608,8388608
11141,-0.0247326,0,8388608,8388608
11150.5,-0.0249919,0,8388608,8388608
11161.8,-0.0252456,0,8388608,8388608
11171.2,-0.0254074,0,8388608,8388608
11180.6,-0.0255229,0,8388608,8388608
11190.1,-0.0255908,0,8388608,8388608
11201.4,-0.0256081,0,8388608,8388608
11210.8,-0.0255678,0,8388608,8388608
11220.2,-0.025477,0,8388608,8388608
11231.6,-0.0253005,0,8388608,8388608
11241,-0.0250965,0,8388608,8388608
11250.4,-0.0248403,0,8388608,8388608
11261.7,-0.0244637,0,8388608,8388608
11271.2,-0.0240921,0,8388608,8388608
11280.6,-0.023668,0,8388608,8388608
11290,-0.0231917,0,8388608,8388608
11301.4,-0.0225515,0,8388608,8388608
11310.8,-0.0219614,0,8388608,8388608
11320.2,-0.0213205,0,8388608,8388608
11331.5,-0.0204852,0,8388608,8388608
11341,-0.0197348,0,8388608,8388608
11350.4,-0.0189362,0,8388608,8388608
11361.7,-0.0179155,0,8388608,8388608
11371.2,-0.0170142,0,8388608,8388608
11380.6,-0.0160682,0,8388608,8388608
11390,-0.0150786,0,8388608,8388608
11401.3,-0.0138356,0,8388608,8388608
11410.8,-0.012755,0,8388608,8388608
11420.2,-0.0116355,0,8388608,8388608
11431.5,-0.0102426,0,8388608,8388608
11441,-0.00904246,0,8388608,8388608
11450.4,-0.00780822,0,8388608,8388608
11461.7,-0.00628431,0,8388608,8388608
11471.1,-0.00498056,0,8388608,8388608
11480.6,-0.00364776,0,8388608,8388608
11490,-0.00228748,0,8388608,8388608
11501.3,-0.000621067,0,8388608,8388608
11510.8,0.00079423,0,8388608,8388608
11520.2,0.00223214,0,8388608,8388608
11531.5,0.00398545,0,8388608,8388608
11540.9,0.0054681,0,8388608,8388608
11550.4,0.00696894,0,8388608,8388608
11561.7,0.00879217,0,8388608,8388608
11571.1,0.0103287,0,8388608,8388608
11580.5,0.0118795,0,8388608,8388608
11591.9,0.0137581,0,8388608,8388608
11601.3,0.015337,0,8388608,8388608
11610.7,0.0169273,0,8388608,8388608
11620.2,0.018528,0,8388608,8388608
11631.5,0.0204617,0,8388608,8388608
11640.9,0.022083,0,8388608,8388608
11650.3,0.0237126,0,8388608,8388608
11661.7,0.0256785,0,8388608,8388608
11671.1,0.0273247,0,8388608,8388608
11680.5,0.0289777,0,8388608,8388608
11691.8,0.0309697,0,8388608,8388608
11701.3,0.0326364,0,8388608,8388608
11710.7,0.0343087,0,8388608,8388608
11720.1,0.0359864,0,8388608,8388608
11731.5,0.0380061,0,8388608,8388608
11740.9,0.0396943,0,8388608,8388608
11750.3,0.0413868,0,8388608,8388608
11761.6,0.043423,0,8388608,8388608
11771.1,0.0451236,0,8388608,8388608
11780.5,0.0468271,0,8388608,8388608
11791.8,0.0488746,0,8388608,8388608
11801.3,0.0505828,0,8388608,8388608
11810.7,0.0522921,0,8388608,8388608
11820.1,0.0540019,0,8388608,8388608
11831.4,0.056053,0,8388608,8388608
11840.9,0.0577607,0,8388608,8388608
11850.3,0.0594659,0,8388608,8388608
11861.6,0.0615073,0,8388608,8388608
11871.1,0.0632031,0,8388608,8388608
11880.5,0.0648926,0,8388608,8388608
11891.8,0.0669096,0,8388608,8388608
11901.2,0.06858,0,8388608,8388608
11910.7,0.0702393,0,8388608,8388608
11920.1,0.0718856,0,8388608,8388608
11931.4,0.0738416,0,8388608,8388608
11940.8,0.0754531,0,8388608,8388608
11950.3,0.0770456,0,8388608,8388608
11961.6,0.0789287,0,8388608,8388608
11971,0.0804721,0,8388608,8388608
11980.5,0.0819899,0,8388608,8388608
11991.8,0.0837742,0,8388608,8388608
12001.2,0.0852276,0,8388608,8388608
12010.6,0.0866481,0,8388608,8388608
12020.1,0.0880337,0,8388608,8388608
12031.4,0.089647,0,8388608,8388608
12040.8,0.0909478,0,8388608,8388608
12050.3,0.0922066,0,8388608,8388608
12061.6,0.0936591,0,8388608,8388608
12071,0.0948187,0,8388608,8388608
12080.4,0.0959303,0,8388608,8388608
12091.8,0.0971985,0,8388608,8388608
12101.2,0.0981988,0,8388608,8388608
12110.6,0.0991461,0,8388608,8388608
12120.1,0.10004,0,8388608,8388608
12131.4,0.101039,0,8388608,8388608
12140.8,0.10181,0,8388608,8388608
12150.2,0.102526,0,8388608,8388608
12161.6,0.103309,0,8388608,8388608
12171,0.1039,0,8388608,8388608
12180.4,0.104434,0,8388608,8388608
12191.7,0.105001,0,8388608,8388608
12201.2,0.105414,0,8388608,8388608
12210.6,0.105773,0,8388608,8388608
12220,0.106079,0,8388608,8388608
12231.4,0.106379,0,8388608,8388608
12240.8,0.106576,0,8388608,8388608
12250.2,0.106726,0,8388608,8388608
12261.5,0.106847,0,8388608,8388608
12271,0.106902,0,8388608,8388608
12280.4,0.106919,0,8388608,8388608
12291.7,0.106891,0,8388608,8388608
12301.1,0.106831,0,8388608,8388608
12310.6,0.106742,0,8388608,8388608
12320,0.106627,0,8388608,8388608
12331.3,0.106458,0,8388608,8388608
12340.8,0.106295,0,8388608,8388608
12350.2,0.106116,0,8388608,8388608
12361.5,0.105884,0,8388608,8388608
12370.9,0.10568,0,8388608,8388608
12380.4,0.105469,0,8388608,8388608
12391.7,0.10521,0,8388608,8388608
12401.1,0.104994,0,8388608,8388608
12410.6,0.104779,0,8388608,8388608
12421.9,0.104527,0,8388608,8388608
12431.3,0.104324,0,8388608,8388608
12440.7,0.104129,0,8388608,8388608
12450.2,0.103943,0,8388608,8388608
12461.5,0.103735,0,8388608,8388608
12470.9,0.103575,0,8388608,8388608
12480.4,0.103428,0,8388608,8388608
12491.7,0.103269,0,8388608,8388608
12501.1,0.103152,0,8388608,8388608
12510.5,0.103047,0,8388608,8388608
12521.9,0.102939,0,8388608,8388608
12531.3,0.102862,0,8388608,8388608
12540.7,0.102797,0,8388608,8388608
12550.2,0.102741,0,8388608,8388608
12561.5,0.102686,0,8388608,8388608
12570.9,0.102648,0,8388608,8388608
12580.3,0.102615,0,8388608,8388608
12591.7,0.102579,0,8388608,8388608
12601.1,0.10255,0,8388608,8388608
12610.5,0.10252,0,8388608,8388608
12621.8,0.102479,0,8388608,8388608
12631.3,0.102439,0,8388608,8388608
12640.7,0.102389,0,8388608,8388608
12650.1,0.102328,0,8388608,8388608
12661.4,0.102237,0,8388608,8388608
12670.9,0.102144,0,8388608,8388608
12680.3,0.102031,0,8388608,8388608
12691.6,0.101868,0,8388608,8388608
12701.1,0.101706,0,8388608,8388608
12710.5,0.101518,0,8388608,8388608
12721.8,0.101255,0,8388608,8388608
12731.2,0.101001,0,8388608,8388608
12740.7,0.100714,0,8388608,8388608
12750.1,0.100392,0,8388608,8388608
12761.4,0.0999574,0,8388608,8388608
12770.9,0.0995518,0,8388608,8388608
12780.3,0.0991054,0,8388608,8388608
12791.6,0.0985133,0,8388608,8388608
12801,0.0979711,0,8388608,8388608
12810.5,0.0973829,0,8388608,8388608
12821.8,0.0966145,0,8388608,8388608
12831.2,0.0959204,0,8388608,8388608
12840.7,0.0951761,0,8388608,8388608
12850.1,0.0943805,0,8388608,8388608
12861.4,0.0933565,0,8388608,8388608
12870.8,0.0924443,0,8388608,8388608
12880.3,0.0914776,0,8388608,8388608
12891.6,0.0902445,0,8388608,8388608
12901,0.0891553,0,8388608,8388608
12910.5,0.0880092,0,8388608,8388608
12921.8,0.0865583,0,8388608,8388608
12931.2,0.0852855,0,8388608,8388608
12940.6,0.0839547,0,8388608,8388608
12950.1,0.0825654,0,8388608,8388608
12961.4,0.080821,0,8388608,8388608
12970.8,0.0793028,0,8388608,8388608
12980.2,0.0777262,0,8388608,8388608
12991.6,0.0757572,0,8388608,8388608
13001,0.0740525,0,8388608,8388608
13010.4,0.0722902,0,8388608,8388608
13021.8,0.0701001,0,8388608,8388608
13031.2,0.0682129,0,8388608,8388608
13040.6,0.0662699,0,8388608,8388608
13050,0.0642719,0,8388608,8388608
13061.4,0.061803,0,8388608,8388608
13070.8,0.0596873,0,8388608,8388608
13080.2,0.0575198,0,8388608,8388608
13091.5,0.0548519,0,8388608,8388608
13101,0.0525743,0,8388608,8388608
13110.4,0.0502489,0,8388608,8388608
13121.7,0.0473969,0,8388608,8388608
13131.2,0.0449709,0,8388608,8388608
13140.6,0.0425016,0,8388608,8388608
13150,0.0399906,0,8388608,8388608
13161.3,0.0369246,0,8388608,8388608
13170.8,0.0343276,0,8388608,8388608
13180.2,0.0316943,0,8388608,8388608
13191.5,0.028489,0,8388608,8388608
13201,0.0257822,0,8388608,8388608
13210.4,0.0230452,0,8388608,8388608
13221.7,0.0197234,0,8388608,8388608
13231.1,0.0169265,0,8388608,8388608
13240.6,0.0141058,0,8388608,8388608
13250,0.0112634,0,8388608,8388608
13261.3,0.00782683,0,8388608,8388608
13270.8,0.00494438,0,8388608,8388608
13280.2,0.00204745,0,8388608,8388608
13291.5,-0.00144458,0,8388608,8388608
13300.9,-0.00436479,0,8388608,8388608
13310.4,-0.00729149,0,8388608,8388608
13321.7,-0.0108084,0,8388608,8388608
13331.1,-0.0137399,0,8388608,8388608
13340.6,-0.016669,0,8388608,8388608
13351.9,-0.0201768,0,8388608,8388608
13361.3,-0.0230902,0,8388608,8388608
13370.7,-0.0259916,0,8388608,8388608
13380.2,-0.0288776,0,8388608,8388608
13391.5,-0.0323158,0,8388608,8388608
13400.9,-0.0351561,0,8388608,8388608
13410.3,-0.0379701,0,8388608,8388608
13421.7,-0.041307,0,8388608,8388608
13431.1,-0.0440503,0,8388608,8388608
13440.5,-0.0467555,0,8388608,8388608
13451.8,-0.0499464,0,8388608,8388608
13461.3,-0.0525549,0,8388608,8388608
13470.7,-0.0551134,0,8388608,8388608
13480.1,-0.0576182,0,8388608,8388608
13491.5,-0.0605479,0,8388608,8388608
13500.9,-0.0629217,0,8388608,8388608
13510.3,-0.0652303,0,8388608,8388608
13521.6,-0.0679098,0,8388608,8388608
13531.1,-0.0700631,0,8388608,8388608
13540.5,-0.0721409,0,8388608,8388608
13551.8,-0.0745303,0,8388608,8388608
13561.3,-0.0764317,0,8388608,8388608
13570.7,-0.0782489,0,8388608,8388608
13580.1,-0.0799797,0,8388608,8388608
13591.4,-0.0819398,0,8388608,8388608
13600.9,-0.0834739,0,8388608,8388608
13610.3,-0.0849163,0,8388608,8388608
13621.6,-0.0865247,0,8388608,8388608
13631.1,-0.087762,0,8388608,8388608
13640.5,-0.0889053,0,8388608,8388608
13651.8,-0.0901531,0,8388608,8388608
13661.2,-0.0910899,0,8388608,8388608
13670.7,-0.0919336,0,8388608,8388608
13680.1,-0.0926853,0,8388608,8388608
13691.4,-0.0934675,0,8388608,8388608
13700.9,-0.0940216,0,8388608,8388608
13710.3,-0.0944886,0,8388608,8388608
13721.6,-0.0949375,0,8388608,8388608
13731,-0.0952213,0,8388608,8388608
13740.5,-0.0954261,0,8388608,8388608
13751.8,-0.0955717,0,8388608,8388608
13761.2,-0.0956132,0,8388608,8388608
13770.7,-0.0955856,0,8388608,8388608
13780.1,-0.0954925,0,8388608,8388608
13791.4,-0.0952993,0,8388608,8388608
13800.8,-0.0950746,0,8388608,8388608
13810.3,-0.0947959,0,8388608,8388608
13821.6,-0.0943955,0,8388608,8388608
13831,-0.0940112,0,8388608,8388608
13840.4,-0.0935847,0,8388608,8388608
13851.8,-0.0930223,0,8388608,8388608
13861.2,-0.0925154,0,8388608,8388608
13870.6,-0.0919774,0,8388608,8388608
13880.1,-0.0914113,0,8388608,8388608
13891.4,-0.0906993,0,8388608,8388608
13900.8,-0.0900818,0,8388608,8388608
13910.2,-0.0894452,0,8388608,8388608
13921.6,-0.0886591,0,8388608,8388608
13931,-0.0879881,0,8388608,8388608
13940.4,-0.0873044,0,8388608,8388608
13951.7,-0.0864694,0,8388608,8388608
13961.2,-0.0857629,0,8388608,8388608
13970.6,-0.0850477,0,8388608,8388608
13980,-0.0843246,0,8388608,8388608
13991.4,-0.083447,0,8388608,8388608
14000.8,-0.0827078,0,8388608,8388608
14010.2,-0.0819614,0,8388608,8388608
14021.5,-0.0810559,0,8388608,8388608
14031,-0.0802926,0,8388608,8388608
14040.4,-0.0795209,0,8388608,8388608
14051.7,-0.0785825,0,8388608,8388608
14061.2,-0.0777893,0,8388608,8388608
14070.6,-0.0769848,0,8388608,8388608
14080,-0.076168,0,8388608,8388608
14091.3,-0.07517,0,8388608,8388608
14100.8,-0.0743222,0,8388608,8388608
14110.2,-0.0734585,0,8388608,8388608
14121.5,-0.0723995,0,8388608,8388608
14131,-0.071497,0,8388608,8388608
14140.4,-0.0705752,0,8388608,8388608
14151.7,-0.0694424,0,8388608,8388608
14161.1,-0.0684752,0,8388608,8388608
14170.6,-0.0674863,0,8388608,8388608
14180,-0.0664751,0,8388608,8388608
14191.3,-0.0652319,0,8388608,8388608
14200.8,-0.0641707,0,8388608,8388608
14210.2,-0.0630868,0,8388608,8388608
14221.5,-0.0617563,0,8388608,8388608
14230.9,-0.0606231,0,8388608,8388608
14240.4,-0.0594684,0,8388608,8388608
14251.7,-0.0580554,0,8388608,8388608
14261.1,-0.0568562,0,8388608,8388608
14270.5,-0.0556386,0,8388608,8388608
14281.9,-0.054155,0,8388608,8388608
14291.3,-0.0529017,0,8388608,8388608
14300.7,-0.0516348,0,8388608,8388608
14310.2,-0.050356,0,8388608,8388608
14321.5,-0.0488085,0,8388608,8388608
14330.9,-0.0475106,0,8388608,8388608
14340.3,-0.0462074,0,8388608,8388608
14351.7,-0.0446398,0,8388608,8388608
14361.1,-0.0433328,0,8388608,8388608
14370.5,-0.0420278,0,8388608,8388608
14381.8,-0.0404679,0,8388608,8388608
14391.3,-0.0391756,0,8388608,8388608
14400.7,-0.0378928,0,8388608,8388608
14410.1,-0.0366219,0,8388608,8388608
14421.5,-0.0351155,0,8388608,8388608
14430.9,-0.0338785,0,8388608,8388608
14440.3,-0.0326602,0,8388608,8388608
14451.6,-0.0312259,0,8388608,8388608
14461.1,-0.0300558,0,8388608,8388608
14470.5,-0.0289106,0,8388608,8388608
14481.8,-0.0275714,0,8388608,8388608
14491.3,-0.0264863,0,8388608,8388608
14500.7,-0.0254307,0,8388608,8388608
14510.1,-0.0244059,0,8388608,8388608
14521.4,-0.023218,0,8388608,8388608
14530.9,-0.0222641,0,8388608,8388608
14540.3,-0.0213437,0,8388608,8388608
14551.6,-0.0202841,0,8388608,8388608
14561.1,-0.019439,0,8388608,8388608
14570.5,-0.0186286,0,8388608,8388608
14581.8,-0.0177021,0,8388608,8388608
14591.2,-0.0169683,0,8388608,8388608
14600.7,-0.016269,0,8388608,8388608
14610.1,-0.0156041,0,8388608,8388608
14621.4,-0.014851,0,8388608,8388608
14630.9,-0.0142602,0,8388608,8388608
14640.3,-0.0137022,0,8388608,8388608
14651.6,-0.0130751,0,8388608,8388608
14661,-0.0125872,0,8388608,8388608
14670.5,-0.01213,0,8388608,8388608
14681.8,-0.0116207,0,8388608,8388608
14691.2,-0.0112282,0,8388608,8388608
14700.6,-0.010864,0,8388608,8388608
14710.1,-0.010527,0,8388608,8388608
14721.4,-0.0101576,0,8388608,8388608
14730.8,-0.00987793,0,8388608,8388608
14740.3,-0.00962294,0,8388608,8388608
14751.6,-0.00934842,0,8388608,8388608
14761,-0.00914494,0,8388608,8388608
14770.4,-0.00896361,0,8388608,8388608
14781.8,-0.00877414,0,8388608,8388608
14791.2,-0.00863878,0,8388608,8388608
14800.6,-0.00852309,0,8388608,8388608
14810.1,-0.00842629,0,8388608,8388608
14821.4,-0.00833398,0,8388608,8388608
14830.8,-0.00827598,0,8388608,8388608
14840.2,-0.00823433,0,8388608,8388608
14851.6,-0.00820472,0,8388608,8388608
14861,-0.00819597,0,8388608,8388608
14870.4,-0.00820071,0,8388608,8388608
14881.7,-0.00822278,0,8388608,8388608
14891.2,-0.00825357,0,8388608,8388608
14900.6,-0.00829441,0,8388608,8388608
14910,-0.00834406,0,8388608,8388608
14921.4,-0.00841341,0,8388608,8388608
14930.8,-0.00847767,0,8388608,8388608
14940.2,-0.00854619,0,8388608,8388608
14951.5,-0.00863171,0,8388608,8388608
14961,-0.00870369,0,8388608,8388608
14970.4,-0.00877433,0,8388608,8388608
14981.7,-0.00885455,0,8388608,8388608
14991.2,-0.00891518,0,8388608,8388608
15000.6,-0.00896784,0,8388608,8388608
15010,-0.00901025,0,8388608,8388608
15021.3,-0.00904432,0,8388608,8388608
15030.8,-0.00905587,0,8388608,8388608
15040.2,-0.00904947,0,8388608,8388608
15051.5,-0.00901457,0,8388608,8388608
15061,-0.00895983,0,8388608,8388608
15070.4,-0.00887907,0,8388608,8388608
15081.7,-0.0087443,0,8388608,8388608
15091.1,-0.00859754,0,8388608,8388608
15100.6,-0.00841693,0,8388608,8388608
15111.9,-0.00815228,0,8388608,8388608
15121.3,-0.00788925,0,8388608,8388608
15130.7,-0.00758545,0,8388608,8388608
15140.2,-0.00723903,0,8388608,8388608
15151.5,-0.00676472,0,8388608,8388608
15160.9,-0.00631895,0,8388608,8388608
15170.4,-0.00582599,0,8388608,8388608
15181.7,-0.00517086,0,8388608,8388608
15191.1,-0.0045712,0,8388608,8388608
15200.5,-0.00392238,0,8388608,8388608
15211.9,-0.00307892,0,8388608,8388608
15221.3,-0.00232239,0,8388608,8388608
15230.7,-0.00151782,0,8388608,8388608
15240.2,-0.000666279,0,8388608,8388608
15251.5,0.000415614,0,8388608,8388608
15260.9,0.00136516,0,8388608,8388608
15270.3,0.00235607,0,8388608,8388608
15281.7,0.00359627,0,8388608,8388608
15291.1,0.00466908,0,8388608,8388608
15300.5,0.00577427,0,8388608,8388608
15311.8,0.00713842,0,8388608,8388608
15321.3,0.00830242,0,8388608,8388608
15330.7,0.00948691,0,8388608,8388608
15340.1,0.0106877,0,8388608,8388608
15351.5,0.0121438,0,8388608,8388608
15360.9,0.0133646,0,8388608,8388608
15370.3,0.014587,0,8388608,8388608
15381.6,0.0160491,0,8388608,8388608
15391.1,0.0172578,0,8388608,8388608
15400.5,0.0184525,0,8388608,8388608
15411.8,0.0198605,0,8388608,8388608
15421.3,0.0210068,0,8388608,8388608
15430.7,0.0221234,0,8388608,8388608
15440.1,0.0232055,0,8388608,8388608
15451.4,0.0244523,0,8388608,8388608
15460.9,0.025443,0,8388608,8388608
15470.3,0.0263854,0,8388608,8388608
15481.6,0.027447,0,8388608,8388608
15491.1,0.0282697,0,8388608,8388608
15500.5,0.0290327,0,8388608,8388608
15511.8,0.0298652,0,8388608,8388608
15521.2,0.0304866,0,8388608,8388608
15530.7,0.03104,0,8388608,8388608
15540.1,0.0315233,0,8388608,8388608
15551.4,0.0320088,0,8388608,8388608
15560.8,0.0323335,0,8388608,8388608
15570.3,0.0325846,0,8388608,8388608
15581.6,0.0327885,0,8388608,8388608
15591,0.0328774,0,8388608,8388608
15600.5,0.032893,0,8388608,8388608
15611.8,0.0328165,0,8388608,8388608
15621.2,0.0326746,0,8388608,8388608
15630.6,0.0324635,0,8388608,8388608
15640.1,0.0321849,0,8388608,8388608
15651.4,0.0317647,0,8388608,8388608
15660.8,0.0313459,0,8388608,8388608
15670.3,0.0308676,0,8388608,8388608
15681.6,0.0302192,0,8388608,8388608
15691,0.0296207,0,8388608,8388608
15700.4,0.0289728,0,8388608,8388608
15711.8,0.028135,0,8388608,8388608
15721.2,0.0273909,0,8388608,8388608
15730.6,0.0266091,0,8388608,8388608
15740.1,0.0257932,0,8388608,8388608
15751.4,0.0247748,0,8388608,8388608
15760.8,0.0238977,0,8388608,8388608
15770.2,0.0229988,0,8388608,8388608
15781.6,0.0218969,0,8388608,8388608
15791,0.0209635,0,8388608,8388608
15800.4,0.0200203,0,8388608,8388608
15811.7,0.0188805,0,8388608,8388608
15821.2,0.0179281,0,8388608,8388608
15830.6,0.0169767,0,8388608,8388608
15840,0.0160296,0,8388608,8388608
15851.4,0.0149027,0,8388608,8388608
15860.8,0.013975,0,8388608,8388608
15870.2,0.0130604,0,8388608,8388608
15881.5,0.0119834,0,8388608,8388608
15891,0.0111057,0,8388608,8388608
15900.4,0.010248,0,8388608,8388608
15911.7,0.00924773,0,8388608,8388608
15921.1,0.00844002,0,8388608,8388608
15930.6,0.00765724,0,8388608,8388608
15940,0.00690051,0,8388608,8388608
15951.3,0.00602809,0,8388608,8388608
15960.8,0.00533159,0,8388608,8388608
15970.2,0.00466336,0,8388608,8388608
15981.5,0.00389921,0,8388608,8388608
15990.9,0.00329398,0,8388608,8388608
16000.4,0.00271735,0,8388608,8388608
16011.7,0.00206279,0,8388608,8388608
16021.1,0.00154799,0,8388608,8388608
16030.6,0.00106046,0,8388608,8388608
16041.9,0.000510389,0,8388608,8388608
16051.3,8.01275e-05,0,8388608,8388608
16060.7,-0.000325607,0,8388608,8388608
16070.2,-0.000707908,0,8388608,8388608
16081.5,-0.00113742,0,8388608,8388608
16090.9,-0.00147248,0,8388608,8388608
16100.4,-0.00178821,0,8388608,8388608
16111.7,-0.00214358,0,8388608,8388608
16121.1,-0.00242188,0,8388608,8388608
16130.5,-0.00268561,0,8388608,8388608
16141.9,-0.00298505,0,8388608,8388608
16151.3,-0.00322225,0,8388608,8388608
16160.7,-0.00344994,0,8388608,8388608
16170.2,-0.00366973,0,8388608,8388608
16181.5,-0.00392526,0,8388608,8388608
16190.9,-0.0041332,0,8388608,8388608
16200.3,-0.00433822,0,8388608,8388608
16211.7,-0.00458247,0,8388608,8388608
16221.1,-0.00478622,0,8388608,8388608
16230.5,-0.00499161,0,8388608,8388608
16241.8,-0.00524206,0,8388608,8388608
16251.3,-0.00545551,0,8388608,8388608
16260.7,-0.00567448,0,8388608,8388608
16270.1,-0.00589998,0,8388608,8388608
16281.5,-0.00618053,0,8388608,8388608
16290.9,-0.00642358,0,8388608,8388608
16300.3,-0.00667582,0,8388608,8388608
16311.6,-0.00699148,0,8388608,8388608
16321.1,-0.00726594,0,8388608,8388608
16330.5,-0.00755118,0,8388608,8388608
16341.8,-0.00790808,0,8388608,8388608
16351.2,-0.00821788,0,8388608,8388608
16360.7,-0.008539,0,8388608,8388608
16370.1,-0.00887141,0,8388608,8388608
16381.4,-0.00928505,0,8388608,8388608
16390.9,-0.0096418,0,8388608,8388608
16400.3,-0.0100092,0,8388608,8388608
16411.6,-0.0104637,0,8388608,8388608
16421,-0.0108533,0,8388608,8388608
16430.5,-0.0112523,0,8388608,8388608
16441.8,-0.0117428,0,8388608,8388608
16451.2,-0.0121608,0,8388608,8388608
16460.7,-0.0125866,0,8388608,8388608
16470.1,-0.0130198,0,8388608,8388608
16481.4,-0.0135486,0,8388608,8388608
16490.8,-0.0139961,0,8388608,8388608
16500.3,-0.0144496,0,8388608,8388608
16511.6,-0.0150008,0,8388608,8388608
16521,-0.0154658,0,8388608,8388608
16530.5,-0.0159356,0,8388608,8388608
16541.8,-0.0165055,0,8388608,8388608
16551.2,-0.0169852,0,8388608,8388608
16560.6,-0.0174694,0,8388608,8388608
16570.1,-0.0179581,0,8388608,8388608
16581.4,-0.0185506,0,8388608,8388608
16590.8,-0.0190498,0,8388608,8388608
16600.3,-0.0195542,0,8388608,8388608
16611.6,-0.020167,0,8388608,8388608
16621,-0.0206846,0,8388608,8388608
16630.4,-0.021209,0,8388608,8388608
16641.8,-0.0218486,0,8388608,8388608
16651.2,-0.0223909,0,8388608,8388608
16660.6,-0.0229428,0,8388608,8388608
16670.1,-0.023505,0,8388608,8388608
16681.4,-0.024195,0,8388608,8388608
16690.8,-0.0247841,0,8388608,8388608
16700.2,-0.025387,0,8388608,8388608
16711.6,-0.0261307,0,8388608,8388608
16721,-0.0267687,0,8388608,8388608
16730.4,-0.0274246,0,8388608,8388608
16741.7,-0.0282372,0,8388608,8388608
16751.2,-0.0289371,0,8388608,8388608
16760.6,-0.0296591,0,8388608,8388608
16770,-0.0304045,0,8388608,8388608
16781.3,-0.0313315,0,8388608,8388608
16790.8,-0.0321326,0,8388608,8388608
16800.2,-0.0329609,0,8388608,8388608
16811.5,-0.0339922,0,8388608,8388608
16821,-0.034884,0,8388608,8388608
16830.4,-0.0358061,0,8388608,8388608
16841.7,-0.0369538,0,8388608,8388608
16851.1,-0.0379454,0,8388608,8388608
16860.6,-0.0389693,0,8388608,8388608
16870,-0.0400261,0,8388608,8388608
16881.3,-0.0413378,0,8388608,8388608
16890.8,-0.0424673,0,8388608,8388608
16900.2,-0.0436298,0,8388608,8388608
16911.5,-0.0450676,0,8388608,8388608
16920.9,-0.0463011,0,8388608,8388608
16930.4,-0.0475656,0,8388608,8388608
16941.7,-0.0491229,0,8388608,8388608
16951.1,-0.0504523,0,8388608,8388608
16960.6,-0.0518091,0,8388608,8388608
16971.9,-0.053471,0,8388608,8388608
16981.3,-0.0548818,0,8388608,8388608
16990.7,-0.0563139,0,8388608,8388608
17000.2,-0.0577649,0,8388608,8388608
17011.5,-0.0595277,0,8388608,8388608
17020.9,-0.0610114,0,8388608,8388608
17030.4,-0.0625053,0,8388608,8388608
17041.7,-0.0643071,0,8388608,8388608
17051.1,-0.0658122,0,8388608,8388608
17060.5,-0.0673171,0,8388608,8388608
17071.9,-0.0691174,0,8388608,8388608
17081.3,-0.0706088,0,8388608,8388608
17090.7,-0.072088,0,8388608,8388608
17100.2,-0.073551,0,8388608,8388608
17111.5,-0.07528,0,8388608,8388608
17120.9,-0.0766938,0,8388608,8388608
17130.3,-0.0780788,0,8388608,8388608
17141.7,-0.0796973,0,8388608,8388608
17151.1,-0.0810051,0,8388608,8388608
17160.5,-0.0822717,0,8388608,8388608
17171.8,-0.0837318,0,8388608,8388608
17181.3,-0.0848946,0,8388608,8388608
17190.7,-0.0860044,0,8388608,8388608
17200.1,-0.0870582,0,8388608,8388608
17211.4,-0.0882441,0,8388608,8388608
17220.9,-0.0891635,0,8388608,8388608
17230.3,-0.0900174,0,8388608,8388608
17241.6,-0.0909522,0,8388608,8388608
17251.1,-0.0916537,0,8388608,8388608
17260.5,-0.0922827,0,8388608,8388608
17271.8,-0.0929395,0,8388608,8388608
17281.2,-0.0934036,0,8388608,8388608
17290.7,-0.0937908,0,8388608,8388608
17300.1,-0.0941003,0,8388608,8388608
17311.4,-0.0943686,0,8388608,8388608
17320.9,-0.0945058,0,8388608,8388608
17330.3,-0.0945646,0,8388608,8388608
17341.6,-0.094532,0,8388608,8388608
17351,-0.0944196,0,8388608,8388608
17360.5,-0.0942306,0,8388608,8388608
17371.8,-0.0939041,0,8388608,8388608
17381.2,-0.0935503,0,8388608,8388608
17390.7,-0.0931238,0,8388608,8388608
17400.1,-0.0926261,0,8388608,8388608
17411.4,-0.0919375,0,8388608,8388608
17420.8,-0.0912897,0,8388608,8388608
17430.3,-0.0905766,0,8388608,8388608
17441.6,-0.0896378,0,8388608,8388608
17451,-0.0887886,0,8388608,8388608
17460.5,-0.0878811,0,8388608,8388608
17471.8,-0.086718,0,8388608,8388608
17481.2,-0.0856897,0,8388608,8388608
17490.6,-0.0846099,0,8388608,8388608
17500.1,-0.083481,0,8388608,8388608
17511.4,-0.0820643,0,8388608,8388608
17520.8,-0.0808344,0,8388608,8388608
17530.2,-0.079562,0,8388608,8388608
17541.6,-0.0779815,0,8388608,8388608
17551,-0.076622,0,8388608,8388608
17560.4,-0.0752258,0,8388608,8388608
17571.8,-0.0735042,0,8388608,8388608
17581.2,-0.072033,0,8388608,8388608
17590.6,-0.0705302,0,8388608,8388608
17600,-0.068997,0,8388608,8388608
17611.4,-0.0671192,0,8388608,8388608
17620.8,-0.0655241,0,8388608,8388608
17630.2,-0.0639026,0,8388608,8388608
17641.5,-0.0619236,0,8388608,8388608
17651,-0.060248,0,8388608,8388608
17660.4,-0.0585493,0,8388608,8388608
17671.7,-0.0564816,0,8388608,8388608
17681.2,-0.0547353,0,8388608,8388608
17690.6,-0.0529686,0,8388608,8388608
17700,-0.0511823,0,8388608,8388608
17711.3,-0.049014,0,8388608,8388608
17720.8,-0.0471873,0,8388608,8388608
17730.2,-0.0453434,0,8388608,8388608
17741.5,-0.0431088,0,8388608,8388608
17751,-0.0412293,0,8388608,8388608
17760.4,-0.0393346,0,8388608,8388608
17771.7,-0.037042,0,8388608,8388608
17781.1,-0.0351164,0,8388608,8388608
17790.6,-0.0331777,0,8388608,8388608
17800,-0.0312265,0,8388608,8388608
17811.3,-0.0288694,0,8388608,8388608
17820.8,-0.0268929,0,8388608,8388608
17830.2,-0.0249057,0,8388608,8388608
17841.5,-0.0225079,0,8388608,8388608
17850.9,-0.0204993,0,8388608,8388608
17860.4,-0.0184819,0,8388608,8388608
17871.7,-0.0160499,0,8388608,8388608
17881.1,-0.0140146,0,8388608,8388608
17890.6,-0.0119719,0,8388608,8388608
17901.9,-0.00951148,0,8388608,8388608
17911.3,-0.00745396,0,8388608,8388608
17920.7,-0.0053903,0,8388608,8388608
17930.2,-0.00332087,0,8388608,8388608
17941.5,-0.000830368,0,8388608,8388608
17950.9,0.00125067,0,8388608,8388608
17960.3,0.0033365,0,8388608,8388608
17971.7,0.00584546,0,8388608,8388608
17981.1,0.0079409,0,8388608,8388608
17990.5,0.0100403,0,8388608,8388608
18001.8,0.0125644,0,8388608,8388608
18011.3,0.0146715,0,8388608,8388608
18020.7,0.0167817,0,8388608,8388608
18030.1,0.0188946,0,8388608,8388608
18041.5,0.0214332,0,8388608,8388608
18050.9,0.0235509,0,8388608,8388608
18060.3,0.02567,0,8388608,8388608
18071.6,0.0282142,0,8388608,8388608
18081.1,0.0303347,0,8388608,8388608
18090.5,0.0324548,0,8388608,8388608
18101.8,0.0349974,0,8388608,8388608
18111.3,0.0371139,0,8388608,8388608
18120.7,0.0392273,0,8388608,8388608
18130.1,0.0413364,0,8388608,8388608
18141.4,0.0438602,0,8388608,8388608
18150.9,0.0459557,0,8388608,8388608
18160.3,0.0480427,0,8388608,8388608
18171.6,0.0505338,0,8388608,8388608
18181.1,0.0525964,0,8388608,8388608
18190.5,0.0546451,0,8388608,8388608
18201.8,0.0570821,0,8388608,8388608
18211.2,0.0590927,0,8388608,8388608
18220.7,0.0610824,0,8388608,8388608
18230.1,0.0630488,0,8388608,8388608
18241.4,0.0653744,0,8388608,8388608
18250.9,0.0672809,0,8388608,8388608
18260.3,0.069156,0,8388608,8388608
18271.6,0.0713606,0,8388608,8388608
18281,0.0731568,0,8388608,8388608
18290.5,0.0749126,0,8388608,8388608
18301.8,0.0769624,0,8388608,8388608
18311.2,0.0786196,0,8388608,8388608
18320.7,0.0802275,0,8388608,8388608
18330.1,0.0817833,0,8388608,8388608
18341.4,0.083578,0,8388608,8388608
18350.8,0.0850103,0,8388608,8388608
18360.3,0.0863824,0,8388608,8388608
18371.6,0.0879463,0,8388608,8388608
18381,0.0891783,0,8388608,8388608
18390.4,0.0903434,0,8388608,8388608
18401.8,0.0916508,0,8388608,8388608
18411.2,0.092663,0,8388608,8388608
18420.6,0.0936035,0,8388608,8388608
18430.1,0.0944714,0,8388608,8388608
18441.4,0.095416,0,8388608,8388608
18450.8,0.0961219,0,8388608,8388608
18460.2,0.0967537,0,8388608,8388608
18471.6,0.0974144,0,8388608,8388608
18481,0.0978842,0,8388608,8388608
18490.4,0.0982813,0,8388608,8388608
18501.7,0.0986634,0,8388608,8388608
18511.2,0.0989047,0,8388608,8388608
18520.6,0.0990774,0,8388608,8388608
18530,0.0991834,0,8388608,8388608
18541.4,0.0992256,0,8388608,8388608
18550.8,0.0991924,0,8388608,8388608
18560.2,0.0990999,0,8388608,8388608
18571.5,0.0989141,0,8388608,8388608
18581,0.0987002,0,8388608,8388608
18590.4,0.0984358,0,8388608,8388608
18601.7,0.0980558,0,8388608,8388608
18611.2,0.0976905,0,8388608,8388608
18620.6,0.0972841,0,8388608,8388608
18630,0.0968395,0,8388608,8388608
18641.3,0.0962597,0,8388608,8388608
18650.8,0.0957411,0,8388608,8388608
18660.2,0.095193,0,8388608,8388608
18671.5,0.0945,0,8388608,8388608
18681,0.0938955,0,8388608,8388608
18690.4,0.0932686,0,8388608,8388608
18701.7,0.092489,0,8388608,8388608
18711.1,0.0918182,0,8388608,8388608
18720.6,0.0911293,0,8388608,8388608
18731.9,0.0902797,0,8388608,8388608
18741.3,0.089553,0,8388608,8388608
18750.7,0.0888093,0,8388608,8388608
18760.2,0.0880483,0,8388608,8388608
18771.5,0.0871112,0,8388608,8388608
18780.9,0.0863094,0,8388608,8388608
18790.4,0.0854869,0,8388608,8388608
18801.7,0.0844706,0,8388608,8388608
18811.1,0.083597,0,8388608,8388608
18820.5,0.0826968,0,8388608,8388608
18831.9,0.0815782,0,8388608,8388608
18841.3,0.0806112,0,8388608,8388608
18850.7,0.0796097,0,8388608,8388608
18860.2,0.0785712,0,8388608,8388608
18871.5,0.0772722,0,8388608,8388608
18880.9,0.0761428,0,8388608,8388608
18890.3,0.074968,0,8388608,8388608
18901.7,0.0734949,0,8388608,8388608
18911.1,0.0722122,0,8388608,8388608
18920.5,0.0708773,0,8388608,8388608
18931.8,0.0692043,0,8388608,8388608
18941.3,0.0677494,0,8388608,8388608
18950.7,0.0662385,0,8388608,8388608
18960.1,0.0646712,0,8388608,8388608
18971.5,0.0627162,0,8388608,8388608
18980.9,0.0610259,0,8388608,8388608
18990.3,0.0592812,0,8388608,8388608
19001.6,0.0571182,0,8388608,8388608
19011.1,0.0552606,0,8388608,8388608
19020.5,0.0533558,0,8388608,8388608
19031.8,0.0510127,0,8388608,8388608
19041.3,0.0490169,0,8388608,8388608
19050.7,0.0469866,0,8388608,8388608
19060.1,0.0449267,0,8388608,8388608
19071.4,0.0424235,0,8388608,8388608
19080.9,0.0403181,0,8388608,8388608
19090.3,0.0382019,0,8388608,8388608
19101.6,0.0356572,0,8388608,8388608
19111,0.0335403,0,8388608,8388608
19120.5,0.0314345,0,8388608,8388608
19131.8,0.0289321,0,8388608,8388608
19141.2,0.0268759,0,8388608,8388608
19150.7,0.0248542,0,8388608,8388608
19160.1,0.0228742,0,8388608,8388608
19171.4,0.0205637,0,8388608,8388608
19180.8,0.0187012,0,8388608,8388608
19190.3,0.0169033,0,8388608,8388608
19201.6,0.0148404,0,8388608,8388608
19211,0.0132077,0,8388608,8388608
19220.5,0.0116599,0,8388608,8388608
19231.8,0.00992249,0,8388608,8388608
19241.2,0.00858052,0,8388608,8388608
19250.6,0.00733975,0,8388608,8388608
19260.1,0.00620426,0,8388608,8388608
19271.4,0.00498561,0,8388608,8388608
19280.8,0.00409349,0,8388608,8388608
19290.3,0.00331607,0,8388608,8388608
19301.6,0.00253703,0,8388608,8388608
19311,0.00201735,0,8388608,8388608
19320.4,0.00161594,0,8388608,8388608
19331.8,0.00129019,0,8388608,8388608
19341.2,0.00114782,0,8388608,8388608
19350.6,0.00112142,0,8388608,8388608
19360.1,0.00120912,0,8388608,8388608
19371.4,0.00146158,0,8388608,8388608
19380.8,0.00179124,0,8388608,8388608
19390.2,0.00222574,0,8388608,8388608
19401.6,0.00288013,0,8388608,8388608
19411,0.00353131,0,8388608,8388608
19420.4,0.00427386,0,8388608,8388608
19431.7,0.00527863,0,8388608,8388608
19441.2,0.00620463,0,8388608,8388608
19450.6,0.00720556,0,8388608,8388608
19460,0.00827588,0,8388608,8388608
19471.3,0.00964389,0,8388608,8388608
19480.8,0.0108469,0,8388608,8388608
19490.2,0.012101,0,8388608,8388608
19501.5,0.0136653,0,8388608,8388608
19511,0.0150117,0,8388608,8388608
19520.4,0.0163912,0,8388608,8388608
19531.7,0.0180823,0,8388608,8388608
19541.1,0.0195153,0,8388608,8388608
19550.6,0.0209644,0,8388608,8388608
19560,0.0224246,0,8388608,8388608
19571.3,0.024185,0,8388608,8388608
19580.8,0.0256536,0,8388608,8388608
19590.2,0.0271192,0,8388608,8388608
19601.5,0.0288685,0,8388608,8388608
19610.9,0.0303141,0,8388608,8388608
19620.4,0.031745,0,8388608,8388608
19631.7,0.0334384,0,8388608,8388608
19641.1,0.0348265,0,8388608,8388608
19650.6,0.0361908,0,8388608,8388608
19661.9,0.0377932,0,8388608,8388608
19671.3,0.0390972,0,8388608,8388608
19680.7,0.0403706,0,8388608,8388608
19690.2,0.0416117,0,8388608,8388608
19701.5,0.0430563,0,8388608,8388608
19710.9,0.0442212,0,8388608,8388608
19720.4,0.0453496,0,8388608,8388608
19731.7,0.046654,0,8388608,8388608
19741.1,0.0476986,0,8388608,8388608
19750.5,0.0487038,0,8388608,8388608
19761.9,0.0498573,0,8388608,8388608
19771.3,0.0507739,0,8388608,8388608
19780.7,0.0516497,0,8388608,8388608
19790.1,0.0524843,0,8388608,8388608
19801.5,0.0534312,0,8388608,8388608
19810.9,0.0541746,0,8388608,8388608
19820.3,0.0548766,0,8388608,8388608
19831.6,0.0556643,0,8388608,8388608
19841.1,0.0562754,0,8388608,8388608
19850.5,0.0568455,0,8388608,8388608
19861.8,0.0574759,0,8388608,8388608
19871.3,0.057957,0,8388608,8388608
19880.7,0.0583983,0,8388608,8388608
19890.1,0.0588002,0,8388608,8388608
19901.4,0.0592314,0,8388608,8388608
19910.9,0.0595487,0,8388608,8388608
19920.3,0.0598287,0,8388608,8388608
19931.6,0.0601161,0,8388608,8388608
19941.1,0.060316,0,8388608,8388608
19950.5,0.0604808,0,8388608,8388608
19961.8,0.0606333,0,8388608,8388608
19971.2,0.0607235,0,8388608,8388608
19980.7,0.0607812,0,8388608,8388608
19990.1,0.0608071,0,8388608,8388608
