time,surface_elevation,reference_data,number_of_local_cells,number_of_global_cells
0,0,0,25422,25422
10.4686,0,0,43284,43284
20.9075,0,0,53414,53414
30.2966,0,0,49620,49620
40.7286,0,0,52786,52786
50.1204,0,0,55348,55348
60.5537,0,0,56580,56580
70.9851,0,0,57752,57752
80.3773,0,0,58154,58154
90.8812,0,0,59300,59300
100.343,0,0,60528,60528
110.856,5.45697e-12,0,62840,62840
120.312,1.81899e-11,0,64694,64694
130.82,5.82077e-11,0,66102,66102
140.294,1.30967e-10,0,67534,67534
150.804,2.48292e-10,0,68616,68616
160.201,3.89264e-10,0,69856,69856
170.636,5.92991e-10,0,71068,71068
180.027,8.33097e-10,0,72102,72102
190.461,1.19235e-09,0,72812,72812
200.897,1.69439e-09,0,73416,73416
210.289,2.32831e-09,0,73890,73890
220.725,3.33966e-09,0,74638,74638
230.119,4.66844e-09,0,75024,75024
240.556,6.85486e-09,0,75376,75376
250.994,1.01536e-08,0,75864,75864
260.388,1.45246e-08,0,75688,75688
270.827,2.16342e-08,0,75434,75434
280.221,3.08773e-08,0,75336,75336
290.66,4.55566e-08,0,75152,75152
300.055,6.4123e-08,0,74966,74966
310.523,9.28103e-08,0,74946,74946
321.049,1.32827e-07,0,74388,74388
330.523,1.8119e-07,0,74470,74470
341.05,2.52319e-07,0,74654,74654
350.525,3.35774e-07,0,74274,74274
360.001,4.41881e-07,0,74438,74438
370.547,5.92509e-07,0,75274,75274
380.11,7.61699e-07,0,75828,75828
390.776,9.84499e-07,0,75436,75436
400.378,1.21448e-06,0,75738,75738
411.046,1.50303e-06,0,75884,75884
420.648,1.79355e-06,0,75970,75970
430.253,2.11483e-06,0,75922,75922
440.943,2.51102e-06,0,76750,76750
450.67,2.9097e-06,0,76598,76598
460.544,3.35211e-06,0,76686,76686
470.553,3.84162e-06,0,76342,76342
480.652,4.38562e-06,0,76614,76614
490.835,4.99964e-06,0,76844,76844
501.056,5.70355e-06,0,77126,77126
510.208,6.43096e-06,0,76868,76868
520.578,7.39726e-06,0,76966,76966
531.027,8.56266e-06,0,77760,77760
540.121,9.769e-06,0,78214,78214
550.638,1.14305e-05,0,78176,78176
560.005,1.3193e-05,0,78192,78192
570.569,1.55536e-05,0,78064,78064
581.158,1.83775e-05,0,78628,78628
590.586,2.13312e-05,0,78502,78502
600.027,2.47549e-05,0,78520,78520
610.662,2.92353e-05,0,78890,78890
620.119,3.38387e-05,0,79398,79398
630.766,3.97981e-05,0,79716,79716
640.244,4.5865e-05,0,80316,80316
650.92,5.65345e-05,0,80628,80628
660.428,7.40247e-05,0,80752,80752
671.153,9.1841e-05,0,80588,80588
680.7,0.000106745,0,80924,80924
690.258,0.000121358,0,81238,81238
701.017,0.00013812,0,81646,81646
710.589,0.000153878,0,81880,81880
720.139,0.000170887,0,82094,82094
730.843,0.000192026,0,82278,82278
740.371,0.000213533,0,82464,82464
751.056,0.000238276,0,82726,82726
760.553,0.000260444,0,82956,82956
770.051,0.000283244,0,83422,83422
780.737,0.000310327,0,83830,83830
790.236,0.000336333,0,84060,84060
800.924,0.000368565,0,84478,84478
810.424,0.000400567,0,84978,84978
821.113,0.000441179,0,84958,84958
830.614,0.000481992,0,85036,85036
840.116,0.000527303,0,85192,85192
850.806,0.000583708,0,85436,85436
860.309,0.00063898,0,85230,85230
871,0.000707604,0,85260,85260
880.504,0.000775064,0,85386,85386
890.008,0.000849357,0,85282,85282
900.703,0.000942157,0,85236,85236
910.242,0.00103327,0,85184,85184
921.008,0.00114042,0,85346,85346
930.596,0.00124165,0,85208,85208
940.203,0.00135083,0,85346,85346
951.038,0.00148616,0,85522,85522
960.516,0.00161782,0,85754,85754
971.04,0.00178142,0,85810,85810
980.68,0.00194965,0,85976,85976
990.018,0.00208552,0,86230,86230
1000.36,0.00219854,0,86202,86202
1010.02,0.00235145,0,86454,86454
1020.39,0.00256421,0,86502,86502
1030.05,0.00280526,0,86540,86540
1040.41,0.0031076,0,86270,86270
1050.06,0.00342923,0,86160,86160
1060.91,0.00383596,0,86864,86864
1070.55,0.00423686,0,86620,86620
1080.19,0.00448504,0,86652,86652
1090.51,0.00459842,0,86814,86814
1100.14,0.00476029,0,87478,87478
1110.95,0.00501083,0,87850,87850
1120.56,0.00526887,0,87730,87730
1130.16,0.00555788,0,87870,87870
1140.97,0.00593337,0,88008,88008
1150.57,0.00632381,0,88324,88324
1160.16,0.00677667,0,88450,88450
1170.96,0.00735644,0,88614,88614
1180.56,0.00792812,0,88774,88774
1190.15,0.00855511,0,88888,88888
1200.89,0.00933327,0,89404,89404
1210.42,0.010102,0,89256,89256
1221.15,0.0110255,0,89256,89256
1230.68,0.0118829,0,89484,89484
1240.21,0.0121362,0,89800,89800
1250.92,0.0127236,0,89816,89816
1260.45,0.0135626,0,89890,89890
1271.17,0.0148371,0,90394,90394
1280.7,0.0162307,0,90332,90332
1290.24,0.0178361,0,90554,90554
1300.98,0.0198653,0,90900,90900
1310.54,0.0242216,0,90992,90992
1320.13,0.0298424,0,90996,90996
1330.93,0.0357611,0,91158,91158
1340.52,0.0405336,0,91146,91146
1350.11,0.0449978,0,91100,91100
1360.85,0.0498971,0,91262,91262
1370.38,0.0543394,0,91562,91562
1381.1,0.05953,0,91506,91506
1390.63,0.0643247,0,91260,91260
1400.15,0.0694089,0,91254,91254
1410.88,0.0758231,0,91244,91244
1420.41,0.082239,0,91180,91180
1431.13,0.0889434,0,91348,91348
1440.66,0.0894984,0,91442,91442
1450.2,0.094706,0,91366,91366
1460.92,0.104294,0,91456,91456
1470.46,0.115295,0,91652,91652
1481.18,0.130138,0,91656,91656
1490.72,0.141982,0,91622,91622
1500.25,0.152288,0,91564,91564
1510.99,0.173654,0,91650,91650
1520.54,0.196838,0,91480,91480
1530.09,0.221089,0,91506,91506
1540.85,0.247878,0,91608,91608
1550.42,0.274277,0,91610,91610
1561.19,0.291185,0,91860,91860
1570.76,0.319422,0,91726,91726
1580.33,0.361479,0,91948,91948
1591.09,0.416924,0,91722,91722
1600.67,0.475242,0,91738,91738
1610.23,0.521169,0,91776,91776
1620.98,0.615683,0,91838,91838
1630.53,0.693454,0,92032,92032
1640.07,0.772065,0,92100,92100
1650.82,0.866776,0,92254,92254
1660.36,0.955613,0,92310,92310
1671.11,1.06045,0,92466,92466
1680.66,1.15517,0,92638,92638
1690.22,1.24899,0,92502,92502
1700.97,1.35125,0,92830,92830
1710.49,1.43745,0,92798,92798
1721.18,1.527,0,92928,92928
1730.68,1.59785,0,93092,93092
1740.17,1.65812,0,92982,92982
1750.85,1.71291,0,92986,92986
1760.35,1.74775,0,93202,93202
1771.03,1.77394,0,93288,93288
1780.53,1.78739,0,93362,93362
1790.04,1.78962,0,93440,93440
1800.77,1.77332,0,93466,93466
1810.31,1.76709,0,93400,93400
1821.04,1.7563,0,93562,93562
1830.58,1.74352,0,93594,93594
1840.12,1.73641,0,93598,93598
1850.85,1.72939,0,93784,93784
1860.39,1.70731,0,94026,94026
1871.12,1.68777,0,94168,94168
1880.65,1.65586,0,94212,94212
1890.17,1.60886,0,94402,94402
1900.86,1.54548,0,94492,94492
1910.35,1.48819,0,94790,94790
1921.03,1.38247,0,94864,94864
1930.52,1.29628,0,94838,94838
1940.02,1.21063,0,95054,95054
1950.7,1.10949,0,95334,95334
1960.19,1.01413,0,95300,95300
1970.86,0.902454,0,95498,95498
1980.32,0.799226,0,95522,95522
1990.96,0.70652,0,95530,95530
2000.41,0.547036,0,95502,95502
2011.05,0.364628,0,95648,95648
2020.5,0.226814,0,95856,95856
2031.13,0.07831,0,95822,95822
2040.57,-0.0558274,0,95904,95904
2050.02,-0.183832,0,96088,96088
2060.63,-0.322072,0,95864,95864
2070.06,-0.444397,0,96112,96112
2080.66,-0.576445,0,96128,96128
2090.07,-0.688612,0,96084,96084
2100.65,-0.810653,0,96422,96422
2110.04,-0.912918,0,96270,96270
2120.59,-1.01859,0,96238,96238
2131.15,-1.10179,0,96184,96184
2140.53,-1.16707,0,96126,96126
2151.08,-1.23105,0,95934,95934
2160.46,-1.2586,0,95802,95802
2171.01,-1.26591,0,95948,95948
2180.38,-1.26585,0,96158,96158
2190.93,-1.25763,0,96114,96114
2200.29,-1.25066,0,96212,96212
2210.81,-1.24,0,96050,96050
2220.16,-1.22909,0,96056,96056
2230.67,-1.21479,0,95970,95970
2240.02,-1.20219,0,95866,95866
2250.53,-1.19049,0,95908,95908
2261.04,-1.16786,0,95900,95900
2270.39,-1.14509,0,96078,96078
2280.9,-1.11784,0,96380,96380
2290.23,-1.09248,0,96380,96380
2300.74,-1.06201,0,96340,96340
2310.08,-1.04364,0,96310,96310
2320.58,-1.01771,0,96416,96416
2331.09,-0.976238,0,96488,96488
2340.42,-0.938928,0,96626,96626
2350.93,-0.892759,0,96610,96610
2360.26,-0.85008,0,96668,96668
2370.77,-0.805027,0,96886,96886
2380.1,-0.768024,0,96794,96794
2390.6,-0.728467,0,96642,96642
2401.11,-0.689772,0,96884,96884
2410.46,-0.655095,0,97146,97146
2420.98,-0.61569,0,96964,96964
2430.32,-0.581091,0,97106,97106
2440.83,-0.543635,0,97304,97304
2450.17,-0.511849,0,97686,97686
2460.68,-0.477243,0,97608,97608
2470.01,-0.446995,0,97646,97646
2480.52,-0.41338,0,97794,97794
2491.03,-0.380521,0,97524,97524
2500.36,-0.35231,0,97774,97774
2510.87,-0.321877,0,97702,97702
2520.2,-0.295874,0,97698,97698
2530.71,-0.266806,0,97860,97860
2540.05,-0.243409,0,97808,97808
2550.56,-0.21852,0,97786,97786
2561.06,-0.195775,0,97822,97822
2570.4,-0.177146,0,98180,98180
2580.87,-0.157098,0,98112,98112
2590.17,-0.140319,0,97904,97904
2600.62,-0.122846,0,97922,97922
2611.07,-0.102483,0,97686,97686
2620.35,-0.0925771,0,97656,97656
2630.8,-0.0824793,0,97694,97694
2640.09,-0.0740085,0,97688,97688
2650.55,-0.0667197,0,97606,97606
2661.05,-0.0614253,0,97700,97700
2670.4,-0.0568567,0,97796,97796
2680.93,-0.0551309,0,97894,97894
2690.29,-0.0536339,0,97824,97824
2700.8,-0.0509876,0,97702,97702
2710.14,-0.0492824,0,97646,97646
2720.61,-0.0503365,0,97478,97478
2731.07,-0.0497436,0,97336,97336
2740.35,-0.0494606,0,97378,97378
2750.79,-0.0494783,0,97266,97266
2760.07,-0.0497674,0,97288,97288
2770.51,-0.0502911,0,97604,97604
2780.95,-0.0507135,0,97796,97796
2790.24,-0.0514276,0,97920,97920
2800.68,-0.0525714,0,98002,98002
2811.12,-0.0540332,0,98070,98070
2820.41,-0.0555563,0,98132,98132
2830.85,-0.0574845,0,97942,97942
2840.14,-0.0596369,0,98080,98080
2850.59,-0.0623025,0,98170,98170
2861.06,-0.0651242,0,98142,98142
2870.37,-0.0677668,0,98270,98270
2880.84,-0.0708513,0,98248,98248
2890.15,-0.0736578,0,97986,97986
2900.62,-0.0768522,0,98138,98138
2911.1,-0.0800539,0,98217,98217
2920.41,-0.0828834,0,98235,98235
2930.88,-0.0860255,0,98313,98313
2940.19,-0.0887638,0,98319,98319
2950.68,-0.0917643,0,98229,98229
2960,-0.0943418,0,98395,98395
2970.5,-0.0971195,0,98423,98423
2980.98,-0.0997505,0,98441,98441
2990.3,-0.101959,0,98537,98537
3000.78,-0.104294,0,98493,98493
3010.1,-0.106237,0,98733,98733
3020.58,-0.108276,0,99103,99103
3031.07,-0.11017,0,99217,99217
3040.39,-0.11174,0,99125,99125
3050.87,-0.113388,0,99157,99157
3060.2,-0.11476,0,99070,99070
3070.69,-0.116212,0,99094,99094
3080.02,-0.117431,0,99064,99064
3090.51,-0.118754,0,98804,98804
3100.99,-0.120048,0,98690,98690
3110.31,-0.121161,0,98586,98586
3120.78,-0.121776,0,98743,98743
3130.08,-0.122351,0,99159,99159
3140.54,-0.123301,0,99053,99053
3151,-0.124456,0,98953,98953
3160.28,-0.125464,0,98869,98869
3170.73,-0.126481,0,98839,98839
3180.02,-0.127247,0,98865,98865
3190.46,-0.127943,0,98721,98721
3200.9,-0.128464,0,98941,98941
3210.16,-0.128783,0,98789,98789
3220.55,-0.127697,0,98749,98749
3230.94,-0.12817,0,98723,98723
3240.16,-0.128458,0,99043,99043
3250.53,-0.128607,0,98725,98725
3260.9,-0.128572,0,98835,98835
3270.12,-0.128418,0,98801,98801
3280.5,-0.128305,0,98689,98689
3290.87,-0.128005,0,98621,98621
3300.09,-0.127566,0,98441,98441
3310.47,-0.126913,0,98287,98287
3320.85,-0.12611,0,98319,98319
3330.09,-0.125278,0,98341,98341
3340.5,-0.124226,0,98150,98150
3350.92,-0.123065,0,98278,98278
3360.2,-0.121955,0,98362,98362
3370.64,-0.120629,0,98214,98214
3381.09,-0.119228,0,97976,97976
3390.38,-0.117924,0,98162,98162
3400.83,-0.116395,0,98218,98218
3410.11,-0.114983,0,98098,98098
3420.55,-0.113331,0,98306,98306
3431,-0.111607,0,98342,98342
3440.28,-0.110028,0,98140,98140
3450.72,-0.108211,0,98144,98144
3460.01,-0.106571,0,98196,98196
3470.45,-0.104704,0,98283,98283
3480.91,-0.102802,0,98147,98147
3490.2,-0.101069,0,98383,98383
3500.66,-0.0977638,0,98317,98317
3511.14,-0.0945746,0,98594,98594
3520.46,-0.0919108,0,98647,98647
3530.94,-0.0890312,0,98455,98455
3540.28,-0.0865307,0,98359,98359
3550.77,-0.0837563,0,98223,98223
3560.1,-0.0813043,0,98401,98401
3570.59,-0.0785518,0,98278,98278
3581.09,-0.0757932,0,98440,98440
3590.43,-0.0733517,0,98542,98542
3600.92,-0.0706247,0,98468,98468
3610.26,-0.0682061,0,98454,98454
3620.76,-0.0654848,0,98234,98234
3630.1,-0.0630656,0,98128,98128
3640.62,-0.060346,0,98196,98196
3651.15,-0.0576437,0,97912,97912
3660.51,-0.0552659,0,98246,98246
3671.01,-0.0526319,0,97998,97998
3680.35,-0.0503317,0,98156,98156
3690.86,-0.0477984,0,98250,98250
3700.19,-0.0455993,0,98198,98198
3710.7,-0.0431884,0,98456,98456
3720.05,-0.0411014,0,98330,98330
3730.57,-0.0388174,0,98064,98064
3741.09,-0.0366041,0,97869,97869
3750.47,-0.0346919,0,97897,97897
3761.05,-0.0326116,0,97987,97987
3770.49,-0.030831,0,98057,98057
3781.14,-0.0289147,0,98523,98523
3790.63,-0.0272941,0,98459,98459
3800.15,-0.0257561,0,98397,98397
3810.87,-0.0241291,0,98385,98385
3820.4,-0.0227759,0,98231,98231
3831.12,-0.0213557,0,98141,98141
3840.65,-0.0201793,0,98125,98125
3850.18,-0.0190799,0,98235,98235
3860.9,-0.0179246,0,98155,98155
3870.43,-0.0169561,0,98001,98001
3881.15,-0.015925,0,97785,97785
3890.68,-0.0150593,0,97920,97920
3900.22,-0.0142388,0,97965,97965
3911.01,-0.0134314,0,97841,97841
3920.6,-0.0127183,0,97762,97762
3930.2,-0.0120191,0,97492,97492
3941.01,-0.0112681,0,97896,97896
3950.62,-0.0106379,0,97936,97936
3960.23,-0.0100463,0,97872,97872
3971.05,-0.011278,0,97478,97478
3981.57,-0.0106304,0,97300,97300
3991.46,-0.0100244,0,97284,97284
4001.35,-0.00941712,0,97120,97120
4010.81,-0.00883746,0,97158,97158
4020.47,-0.0082535,0,97240,97240
4030.13,-0.00768245,0,97382,97382
4040.99,-0.00705659,0,97358,97358
4051.54,-0.00638779,0,97352,97352
4061.45,-0.00579644,0,97598,97598
4070.91,-0.00528872,0,97317,97317
4080.83,-0.00479516,0,97238,97238
4090.74,-0.00432774,0,97330,97330
4100.66,-0.00387712,0,97182,97182
4110.58,-0.00337462,0,97250,97250
4120.34,-0.00267059,0,97546,97546
4131.14,-0.00203049,0,97236,97236
4140.74,-0.00154025,0,97456,97456
4151.25,-0.00105668,0,97684,97684
4161.2,-0.000630834,0,97780,97780
4170.73,-0.000239094,0,97452,97452
4180.26,0.000147433,0,97628,97628
4190.98,0.000585899,0,97498,97498
4200.72,0.00099468,0,97402,97402
4210.68,0.00142776,0,97408,97408
4220.63,0.0018801,0,97738,97738
4230.58,0.002355,0,97870,97870
4240.53,0.00285435,0,97906,97906
4250.47,0.00337685,0,98129,98129
4260.42,0.00392146,0,98253,98253
4270.16,0.00447604,0,98096,98096
4281.56,0.00514882,0,97850,97850
4291.51,0.00575592,0,97778,97778
4301.46,0.0063832,0,97744,97744
4310,0.00694032,0,98042,98042
4320.69,0.00766485,0,98196,98196
4330.18,0.00833743,0,97976,97976
4341.1,0.00914637,0,97926,97926
4350.64,0.00988736,0,98078,98078
4360.86,0.0107175,0,98076,98076
4370.89,0.0115723,0,97844,97844
4380.84,0.0124599,0,97956,97956
4390.79,0.0133904,0,97956,97956
4400.74,0.0143626,0,97840,97840
4411.66,0.0153924,0,97980,97980
4421.62,0.0163393,0,97974,97974
4430.43,0.0172199,0,97956,97956
4440.41,0.0182796,0,97748,97748
4450.41,0.0194105,0,97854,97854
4460.42,0.02061,0,98190,98190
4470.45,0.0218774,0,97847,97847
4480.49,0.0232141,0,98063,98063
4490.52,0.0246269,0,97987,97987
4500.57,0.0261115,0,97937,97937
4510.62,0.0276874,0,98132,98132
4520.68,0.0293685,0,98202,98202
4530.75,0.0311593,0,98144,98144
4540.82,0.0330574,0,97959,97959
4550.89,0.0355069,0,98137,98137
4560.95,0.0411216,0,98046,98046
4571,0.0464319,0,98094,98094
4581.05,0.0510244,0,98358,98358
4591.1,0.0548945,0,98394,98394
4601.14,0.0581772,0,98354,98354
4611.18,0.0610642,0,98046,98046
4621.22,0.0637366,0,98162,98162
4631.26,0.0663318,0,98027,98027
4641.29,0.0689283,0,97920,97920
4651.32,0.0715622,0,97658,97658
4661.34,0.0742448,0,97867,97867
4671.37,0.0769773,0,98001,98001
4681.4,0.079753,0,98247,98247
4691.43,0.0825603,0,98501,98501
4701.46,0.0853846,0,98324,98324
4711.49,0.0882107,0,98118,98118
4721.52,0.0910247,0,98310,98310
4731.54,0.0938169,0,98504,98504
4741.57,0.0965825,0,98376,98376
4751.63,0.0993251,0,98340,98340
4760.03,0.101592,0,98460,98460
4770.12,0.104277,0,98316,98316
4780.2,0.106918,0,97991,97991
4790.29,0.109505,0,97925,97925
4800.37,0.112025,0,98011,98011
4810.46,0.11446,0,97969,97969
4820.55,0.116792,0,98041,98041
4830.63,0.119005,0,98117,98117
4840.72,0.121089,0,98044,98044
4850.82,0.123037,0,98114,98114
4860.9,0.124844,0,98283,98283
4870.96,0.126504,0,98170,98170
4881.01,0.128034,0,97707,97707
4891.06,0.129441,0,97636,97636
4901.12,0.128592,0,97782,97782
4911.18,0.129794,0,97653,97653
4921.23,0.130687,0,97461,97461
4931.29,0.131531,0,97569,97569
4941.34,0.132319,0,97783,97783
4951.4,0.132996,0,97560,97560
4961.46,0.133545,0,97705,97705
4971.54,0.133965,0,97526,97526
4981.64,0.132446,0,97673,97673
4990.06,0.132821,0,97681,97681
5000.17,0.133184,0,98173,98173
5010.27,0.133444,0,98053,98053
5020.38,0.133583,0,97782,97782
5030.48,0.133615,0,97683,97683
5040.59,0.133584,0,97448,97448
5050.7,0.133385,0,97438,97438
5060.8,0.133041,0,97422,97422
5070.91,0.132566,0,97635,97635
5081.03,0.131973,0,97441,97441
5091.16,0.131271,0,97261,97261
5101.28,0.130462,0,97323,97323
5111.41,0.129544,0,97058,97058
5121.54,0.128517,0,97004,97004
5131.68,0.127392,0,96974,96974
5140.13,0.126391,0,96765,96765
5150.29,0.125122,0,96615,96615
5160.45,0.123791,0,96515,96515
5170.62,0.122381,0,96383,96383
5180.8,0.120878,0,96151,96151
5190.98,0.119344,0,96090,96090
5201.18,0.117735,0,96180,96180
5211.38,0.116021,0,96052,96052
5221.59,0.114183,0,95796,95796
5230.11,0.112549,0,95947,95947
5240.33,0.1098,0,96029,96029
5250.56,0.105923,0,96241,96241
5260.79,0.102343,0,96189,96189
5271.03,0.0989472,0,95886,95886
5281.27,0.0956392,0,95781,95781
5291.52,0.0923498,0,95375,95375
5300.08,0.0895877,0,95367,95367
5310.35,0.0862473,0,95347,95347
5320.63,0.0828863,0,95461,95461
5330.93,0.0794963,0,95281,95281
5341.24,0.0760601,0,95184,95184
5351.56,0.0725717,0,95124,95124
5360.17,0.0696284,0,94963,94963
5370.51,0.0660589,0,94742,94742
5380.85,0.0624631,0,94588,94588
5391.21,0.0588583,0,94707,94707
5401.58,0.0552568,0,94522,94522
5410.23,0.0522722,0,94388,94388
5420.63,0.0487242,0,94184,94184
5431.03,0.045225,0,94188,94188
5441.45,0.0417858,0,93803,93803
5450.13,0.0389751,0,93913,93913
5460.56,0.0356774,0,93611,93611
5471.01,0.0324773,0,93463,93463
5481.47,0.0293895,0,93359,93359
5490.19,0.0269101,0,93269,93269
5500.65,0.0240575,0,93385,93385
5511.12,0.0213491,0,93544,93544
5521.6,0.0187961,0,93429,93429
5530.32,0.0167951,0,93515,93515
5540.79,0.0145534,0,93577,93577
5551.28,0.0124889,0,93161,93161
5560.03,0.0109052,0,93132,93132
5570.56,0.00916146,0,93073,93073
5581.1,0.00758595,0,92831,92831
5591.7,0.00610532,0,92525,92525
5600.56,0.00497987,0,92731,92731
5611.26,0.0035757,0,92710,92710
5620.19,0.00264756,0,92714,92714
5630.91,0.00184627,0,92792,92792
5641.63,0.0012798,0,93236,93236
5650.58,0.000939127,0,93217,93217
5661.32,0.00065542,0,93055,93055
5670.28,0.000507471,0,92768,92768
5681.03,0.00175477,0,92671,92671
5691.75,0.00154287,0,92756,92756
5700.68,0.00140626,0,92466,92466
5711.4,0.0013029,0,92334,92334
5720.34,0.00128296,0,92206,92206
5731.06,0.00141423,0,92357,92357
5741.77,0.00162688,0,92127,92127
5750.71,0.00189782,0,92131,92131
5761.44,0.00231531,0,91838,91838
5770.39,0.00272955,0,91828,91828
5781.15,0.00329786,0,92109,92109
5790.11,0.00382562,0,92193,92193
5800.87,0.00451995,0,91952,91952
5811.63,0.00527871,0,91901,91901
5820.6,0.00596164,0,91675,91675
5831.37,0.00684144,0,91752,91752
5840.36,0.00762181,0,91604,91604
5851.15,0.00861013,0,91289,91289
5860.14,0.00947231,0,91210,91210
5870.93,0.0105439,0,91204,91204
5881.71,0.0115479,0,91170,91170
5890.7,0.012353,0,91295,91295
5901.49,0.0133505,0,91364,91364
5910.48,0.0142331,0,91074,91074
5921.27,0.0153652,0,90950,90950
5930.26,0.01637,0,90662,90662
5941.06,0.0176424,0,90573,90573
5950.06,0.0187506,0,90409,90409
5960.87,0.0201271,0,90094,90094
5971.69,0.0215411,0,90153,90153
5980.7,0.0227379,0,90078,90078
5991.52,0.0241856,0,89762,89762
6000.54,0.0253949,0,89632,89632
6011.37,0.0268403,0,89549,89549
6020.4,0.0280138,0,89333,89333
6031.25,0.0293994,0,89343,89343
6040.29,0.0305493,0,89292,89292
6051.14,0.0319246,0,89339,89339
6060.19,0.0330591,0,89610,89610
6071.06,0.0343957,0,89302,89302
6080.13,0.03548,0,89168,89168
6091.01,0.0367298,0,89104,89104
6100.08,0.037717,0,89032,89032
6110.98,0.0388492,0,89055,89055
6120.07,0.0397508,0,88932,88932
6130.97,0.0407764,0,88670,88670
6140.07,0.0415827,0,88679,88679
6150.99,0.0425031,0,88651,88651
6160.1,0.0432118,0,88601,88601
6171.03,0.0439764,0,88375,88375
6180.15,0.0445369,0,88619,88619
6191.09,0.0451156,0,88337,88337
6200.23,0.0455204,0,88357,88357
6211.19,0.0459154,0,88026,88026
6220.34,0.0461705,0,88108,88108
6231.34,0.0464991,0,87864,87864
6240.52,0.0466467,0,88011,88011
6251.57,0.0473008,0,87921,87921
6260.86,0.0471209,0,88003,88003
6270.28,0.0468886,0,87997,87997
6281.63,0.0465457,0,87607,87607
6291.09,0.0462324,0,87655,87655
6300.56,0.0458701,0,87540,87540
6310.16,0.0454433,0,87180,87180
6321.84,0.0448463,0,86860,86860
6331.65,0.0442755,0,87027,87027
6341.47,0.0436364,0,87228,87228
6351.42,0.0429179,0,86809,86809
6361.49,0.0421252,0,86771,86771
6370.7,0.0413458,0,86922,86922
6380.34,0.040476,0,87323,87323
6390.61,0.0395084,0,87303,87303
6400.27,0.0385767,0,87375,87375
6411.83,0.0378189,0,86972,86972
6421.3,0.0372152,0,86854,86854
6431.08,0.0363008,0,86811,86811
6441.78,0.035003,0,86819,86819
6450.47,0.0337471,0,87122,87122
6461.32,0.0319612,0,86890,86890
6470.08,0.0303609,0,86563,86563
6481.03,0.028177,0,86826,86826
6492.01,0.0238409,0,86811,86811
6500.8,0.0205029,0,86742,86742
6511.8,0.0164813,0,86493,86493
6520.61,0.0134105,0,86599,86599
6531.63,0.00969825,0,86820,86820
6540.43,0.00677366,0,86824,86824
6551.41,0.00314799,0,86427,86427
6560.19,0.00027291,0,86301,86301
6571.15,-0.00329012,0,86330,86330
6582.07,-0.00685057,0,86178,86178
6590.79,-0.00973768,0,85976,85976
6601.66,-0.0134413,0,85876,85876
6610.35,-0.0165097,0,85816,85816
6621.2,-0.0204772,0,85936,85936
6632.03,-0.0245731,0,85796,85796
6640.69,-0.0279204,0,85822,85822
6651.48,-0.0321499,0,85856,85856
6660.12,-0.035553,0,86144,86144
6670.89,-0.0397922,0,85974,85974
6681.64,-0.0439949,0,85916,85916
6690.24,-0.0473185,0,85969,85969
6700.95,-0.051406,0,85785,85785
6711.67,-0.0554247,0,85392,85392
6720.22,-0.0585792,0,85411,85411
6730.9,-0.0624534,0,85669,85669
6741.58,-0.0662426,0,85533,85533
6750.11,-0.0692057,0,85177,85177
6760.51,-0.072732,0,85130,85130
6770.12,-0.0758965,0,85168,85168
6780.77,-0.0792895,0,84911,84911
6791.24,-0.0824979,0,84669,84669
6800.64,-0.0852636,0,84782,84782
6811.13,-0.0882241,0,84878,84878
6821.8,-0.0910916,0,84894,84894
6830.3,-0.0932761,0,84828,84828
6840.97,-0.0958827,0,84782,84782
6851.56,-0.098326,0,84589,84589
6860.02,-0.100178,0,84241,84241
6870.5,-0.102349,0,84070,84070
6882.2,-0.10459,0,84331,84331
6891.81,-0.106288,0,84455,84455
6901.42,-0.107866,0,84422,84422
6911.02,-0.109299,0,84281,84281
6920.64,-0.110583,0,84168,84168
6930.25,-0.11182,0,84292,84292
6942.28,-0.1133,0,84168,84168
6951.91,-0.114347,0,84116,84116
6961.55,-0.115284,0,83918,83918
6971.21,-0.116084,0,84086,84086
6980.87,-0.116735,0,84092,84092
6990.38,-0.117231,0,84180,84180
7000.06,-0.117609,0,84104,84104
7012.16,-0.116212,0,84061,84061
7021.85,-0.116535,0,83981,83981
7031.53,-0.116788,0,83896,83896
7040.67,-0.116958,0,83882,83882
7050.05,-0.117061,0,84015,84015
7062.13,-0.117013,0,83841,83841
7071.79,-0.116842,0,83679,83679
7080.34,-0.116991,0,83577,83577
7090.22,-0.11677,0,83579,83579
7102.21,-0.116443,0,83531,83531
7111.77,-0.116135,0,83258,83258
7121.33,-0.115795,0,83162,83162
7130.89,-0.11543,0,83297,83297
7140.43,-0.115046,0,83479,83479
7152.35,-0.114545,0,83386,83386
7161.89,-0.114128,0,83635,83635
7171.43,-0.113697,0,83597,83597
7180.97,-0.113252,0,83582,83582
7190.5,-0.112794,0,83733,83733
7200.04,-0.112324,0,83591,83591
7211.97,-0.111729,0,83479,83479
7221.51,-0.111252,0,83383,83383
7231.06,-0.110765,0,83609,83609
7240.62,-0.110264,0,83479,83479
7250.18,-0.109746,0,83242,83242
7262.13,-0.109071,0,83151,83151
7271.69,-0.10851,0,83112,83112
7281.25,-0.107928,0,83250,83250
7290.81,-0.107328,0,83216,83216
7300.37,-0.106709,0,83113,83113
7312.32,-0.105912,0,83357,83357
7321.88,-0.105257,0,83297,83297
7331.45,-0.104589,0,83271,83271
7341.01,-0.103911,0,83214,83214
7350.57,-0.103222,0,83292,83292
7360.14,-0.102527,0,83032,83032
7372.1,-0.10165,0,83065,83065
7381.69,-0.100944,0,83120,83120
7391.27,-0.100236,0,83056,83056
7400.85,-0.0995286,0,83086,83086
7410.44,-0.098822,0,82989,82989
7420.06,-0.0981158,0,83102,83102
7432.08,-0.0972374,0,83158,83158
7441.7,-0.0965388,0,83207,83207
7451.33,-0.0958446,0,83203,83203
7460.95,-0.0951553,0,83165,83165
7470.57,-0.0944712,0,83285,83285
7480.2,-0.0937924,0,83207,83207
7492.24,-0.0929523,0,83275,83275
7501.84,-0.0922902,0,83237,83237
7511.43,-0.0916349,0,83180,83180
7521.03,-0.0909871,0,83095,83095
7530.65,-0.0903452,0,83089,83089
7540.3,-0.0897095,0,82919,82919
7552.39,-0.0889262,0,82725,82725
7562.05,-0.0883105,0,82841,82841
7571.65,-0.087708,0,82537,82537
7581.25,-0.0871153,0,82545,82545
7590.89,-0.0865304,0,82313,82313
7600.53,-0.0859563,0,82410,82410
7610.14,-0.0853949,0,82201,82201
7622.16,-0.0847095,0,82455,82455
7631.78,-0.0841749,0,82739,82739
7641.35,-0.0836551,0,82693,82693
7650.92,-0.0831486,0,82603,82603
7660.48,-0.0826552,0,82375,82375
7670.04,-0.0821758,0,82157,82157
7681.95,-0.0815968,0,81948,81948
7691.49,-0.0811488,0,81969,81969
7701,-0.080715,0,81889,81889
7710.51,-0.080295,0,81788,81788
7720.01,-0.0798882,0,81487,81487
7731.86,-0.0793884,0,81306,81306
7741.34,-0.0789806,0,81290,81290
7750.82,-0.0785756,0,81205,81205
7760.28,-0.0781806,0,81353,81353
7772.08,-0.0777064,0,81177,81177
7781.52,-0.0773444,0,81031,81031
7790.96,-0.0769989,0,80726,80726
7800.39,-0.0766699,0,80898,80898
7812.17,-0.0762805,0,81212,81212
7821.57,-0.0759856,0,81166,81166
7830.98,-0.0757038,0,81174,81174
7840.39,-0.0754339,0,81096,81096
7852.14,-0.0751113,0,80996,80996
7861.53,-0.0748634,0,80887,80887
7870.92,-0.0746232,0,80723,80723
7880.3,-0.0743892,0,80597,80597
7892.01,-0.0741038,0,80586,80586
7901.37,-0.0738799,0,80686,80686
7910.72,-0.0736587,0,80690,80690
7920.04,-0.0734395,0,80780,80780
7931.68,-0.0731663,0,80683,80683
7940.97,-0.0729478,0,81080,81080
7950.25,-0.0727281,0,81061,81061
7961.84,-0.0724508,0,81060,81060
7971.05,-0.0722271,0,81024,81024
7980.25,-0.0720003,0,80992,80992
7991.75,-0.0717111,0,81210,81210
8000.9,-0.0714759,0,81072,81072
8010.02,-0.0712366,0,80820,80820
8021.43,-0.0709303,0,80654,80654
8030.55,-0.0706792,0,80560,80560
8041.94,-0.0703577,0,80699,80699
8051.06,-0.0700902,0,80867,80867
8060.17,-0.0698128,0,80887,80887
8071.56,-0.0694536,0,80632,80632
8080.68,-0.0691566,0,80702,80702
8092.11,-0.0687726,0,80692,80692
8101.27,-0.0684554,0,80583,80583
8110.42,-0.0681296,0,80618,80618
8121.87,-0.0677101,0,80492,80492
8131.03,-0.067365,0,80476,80476
8140.19,-0.0670117,0,80422,80422
8151.64,-0.0665586,0,80448,80448
8160.8,-0.0661867,0,80355,80355
8172.26,-0.06571,0,80359,80359
8181.43,-0.0653193,0,80313,80313
8190.61,-0.0649201,0,80375,80375
8202.11,-0.0644081,0,80334,80334
8211.32,-0.0639883,0,80321,80321
8220.54,-0.063559,0,80176,80176
8232.06,-0.063008,0,80103,80103
8241.28,-0.0625549,0,80351,80351
8250.5,-0.0620896,0,80194,80194
8262.04,-0.0614886,0,79994,79994
8271.28,-0.0609911,0,79702,79702
8280.51,-0.0604771,0,79664,79664
8292.07,-0.0598089,0,79268,79268
8301.33,-0.0592393,0,79190,79190
8310.59,-0.0586716,0,79094,79094
8322.18,-0.0579777,0,78998,78998
8331.47,-0.0574189,0,78898,78898
8340.75,-0.0568457,0,78776,78776
8350.07,-0.0562483,0,78598,78598
8361.77,-0.0554586,0,78329,78329
8371.17,-0.0547907,0,78241,78241
8380.55,-0.0540931,0,78250,78250
8392.26,-0.0531765,0,78182,78182
8401.63,-0.052407,0,78234,78234
8411.01,-0.0516048,0,78204,78204
8420.38,-0.05077,0,78132,78132
8432.1,-0.0496798,0,78185,78185
8441.5,-0.0487693,0,78073,78073
8450.91,-0.0478412,0,77955,77955
8460.32,-0.046931,0,77812,77812
8472.09,-0.0457807,0,77565,77565
8481.5,-0.0448304,0,77839,77839
8490.91,-0.0444768,0,77929,77929
8500.33,-0.0440174,0,78011,78011
8512.1,-0.0430742,0,77649,77649
8521.51,-0.0421042,0,77461,77461
8530.92,-0.0409916,0,77357,77357
8540.33,-0.0397689,0,77255,77255
8552.08,-0.0381224,0,77225,77225
8561.48,-0.0367312,0,77169,77169
8570.88,-0.035289,0,77247,77247
8580.28,-0.0338061,0,77009,77009
8592.03,-0.0319069,0,76841,76841
8601.42,-0.0303635,0,76804,76804
8610.81,-0.0288098,0,76586,76586
8620.2,-0.0272812,0,76642,76642
8631.94,-0.0253987,0,76618,76618
8641.33,-0.0238933,0,76572,76572
8650.72,-0.022373,0,76328,76328
8660.11,-0.0208282,0,76424,76424
8671.84,-0.0188534,0,76524,76524
8681.23,-0.0172186,0,76358,76358
8690.62,-0.0155269,0,76613,76613
8700.01,-0.0137889,0,76804,76804
8711.74,-0.0115672,0,76677,76677
8721.13,-0.00976076,0,76456,76456
8730.52,-0.00793529,0,76166,76166
8742.26,-0.00563383,0,76192,76192
8751.65,-0.0037813,0,76259,76259
8761.04,-0.00192152,0,76266,76266
8770.43,-5.68667e-05,0,76267,76267
8782.17,0.00225798,0,76598,76598
8791.56,0.00407407,0,76440,76440
8800.95,0.00586318,0,76370,76370
8810.35,0.00763793,0,76224,76224
8822.1,0.00985689,0,75930,75930
8831.5,0.0116475,0,75862,75862
8840.9,0.0134606,0,75931,75931
8850.3,0.0152999,0,75966,75966
8862.06,0.0176356,0,75688,75688
8871.47,0.019528,0,75730,75730
8880.89,0.0214336,0,75470,75470
8890.3,0.0233452,0,75333,75333
8902.07,0.0257282,0,75506,75506
8911.48,0.0276174,0,75660,75660
8920.9,0.0294816,0,75495,75495
8930.32,0.0313144,0,75474,75474
8942.1,0.0335515,0,75236,75236
8951.53,0.0352977,0,75103,75103
8960.95,0.0370097,0,75034,75034
8970.38,0.0386836,0,75030,75030
8982.17,0.0407148,0,74857,74857
8991.59,0.0422866,0,74777,74777
9001.02,0.0438148,0,74703,74703
9010.45,0.0453367,0,74591,74591
9022.24,0.0471835,0,74589,74589
9031.66,0.0485941,0,74477,74477
9041.09,0.0499414,0,74337,74337
9050.52,0.0512285,0,74440,74440
9062.31,0.0527619,0,74391,74391
9071.74,0.0539418,0,74281,74281
9081.17,0.055085,0,74394,74394
9090.6,0.0561907,0,74410,74410
9100.03,0.0572565,0,74249,74249
9111.83,0.0585261,0,74034,74034
9121.26,0.0594843,0,73821,73821
9130.7,0.0604029,0,73743,73743
9140.14,0.0612886,0,73476,73476
9151.93,0.0623845,0,73802,73802
9161.37,0.0632274,0,73539,73539
9170.8,0.0640168,0,73487,73487
9180.23,0.0647426,0,73465,73465
9192.02,0.0655562,0,73359,73359
9201.46,0.0661318,0,73218,73218
9210.89,0.066644,0,73138,73138
9220.32,0.0670949,0,73154,73154
9232.11,0.0675869,0,72987,72987
9241.54,0.0679383,0,72954,72954
9250.97,0.0682377,0,73108,73108
9260.4,0.0684838,0,73318,73318
9272.18,0.0698706,0,73080,73080
9281.61,0.0698852,0,72859,72859
9291.04,0.0698918,0,72656,72656
9300.46,0.0698899,0,72496,72496
9312.25,0.0698746,0,72316,72316
9321.68,0.0698463,0,72434,72434
9331.11,0.0698048,0,72470,72470
9340.55,0.0697524,0,72257,72257
9352.35,0.069674,0,72272,72272
9361.79,0.0696017,0,72347,72347
9371.24,0.0695213,0,72395,72395
9380.69,0.0694336,0,72254,72254
9390.15,0.0693378,0,72219,72219
9401.98,0.0692061,0,72100,72100
9411.44,0.0690907,0,71893,71893
9420.91,0.0689656,0,71710,71710
9430.39,0.0688336,0,71586,71586
9442.24,0.0686598,0,71543,71543
9451.72,0.068511,0,71477,71477
9461.21,0.0683504,0,71510,71510
9470.71,0.0681775,0,71459,71459
9480.2,0.067992,0,71292,71292
9492.06,0.0677424,0,71529,71529
9501.56,0.0675286,0,71544,71544
9511.05,0.0673023,0,71455,71455
9520.55,0.0670637,0,71457,71457
9530.05,0.0668118,0,71502,71502
9541.92,0.0664733,0,71103,71103
9551.42,0.066187,0,70998,70998
9560.92,0.0658892,0,71033,71033
9570.42,0.0655818,0,70971,70971
9582.28,0.0651858,0,70788,70788
9591.77,0.0648606,0,70792,70792
9601.26,0.0645283,0,70581,70581
9610.74,0.0641894,0,70330,70330
9620.22,0.0638441,0,70341,70341
9632.06,0.063403,0,70350,70350
9641.54,0.0630421,0,70279,70279
9651.02,0.062663,0,70376,70376
9660.49,0.0622658,0,70595,70595
9672.34,0.061758,0,70492,70492
9681.8,0.061342,0,70438,70438
9691.27,0.0609169,0,70287,70287
9700.74,0.0604828,0,70217,70217
9710.21,0.0600399,0,70129,70129
9722.06,0.0594747,0,70105,70105
9731.54,0.0590138,0,69922,69922
9741,0.0585466,0,70018,70018
9750.46,0.0581806,0,69899,69899
9762.29,0.058056,0,69807,69807
9771.77,0.0578814,0,69723,69723
9781.26,0.0576492,0,69692,69692
9790.76,0.0573673,0,69550,69550
9800.25,0.0570422,0,69451,69451
9812.11,0.056584,0,69763,69763
9821.62,0.0561807,0,69815,69815
9831.12,0.0557496,0,69718,69718
9840.62,0.0552958,0,69598,69598
9850.13,0.0548231,0,69447,69447
9862.02,0.0542101,0,69142,69142
9871.53,0.0537044,0,69228,69228
9881.07,0.0531871,0,69483,69483
9890.63,0.0526661,0,69582,69582
9900.22,0.0521424,0,69475,69475
9912.2,0.0515019,0,69402,69402
9921.8,0.0510376,0,69330,69330
9931.4,0.0505562,0,69076,69076
9940.99,0.0500547,0,69000,69000
9950.59,0.0495313,0,68998,68998
9960.19,0.0489857,0,68730,68730
9972.19,0.0482731,0,68632,68632
9981.79,0.0476798,0,68543,68543
9991.41,0.047067,0,68714,68714
10001,0.0464372,0,68770,68770
10010.6,0.0457925,0,68991,68991
10020.2,0.0451346,0,68843,68843
10032.2,0.0442972,0,68688,68688
10041.8,0.0436185,0,68586,68586
10051.4,0.0429331,0,68563,68563
10061,0.0422431,0,68446,68446
10070.5,0.041551,0,68264,68264
10080.1,0.0408567,0,68258,68258
10092.1,0.0399865,0,68054,68054
10101.6,0.0392889,0,68103,68103
10111.2,0.0385885,0,68014,68014
10120.8,0.0378854,0,68037,68037
10130.4,0.0371808,0,67825,67825
10140,0.0364741,0,67738,67738
10152.1,0.0355871,0,67657,67657
10161.7,0.0348759,0,67578,67578
10173.1,0.03403,0,67316,67316
10183,0.0332944,0,67328,67328
10192,0.0326253,0,67427,67427
10201.6,0.0319133,0,67583,67583
10211.2,0.0312006,0,67451,67451
10220.8,0.0304856,0,67275,67275
10230.4,0.0297702,0,67114,67114
10240,0.0290508,0,66945,66945
10253,0.0280831,0,66929,66929
10262.9,0.0273425,0,66936,66936
10272.9,0.0266022,0,67239,67239
10281.9,0.025927,0,67143,67143
10291.7,0.0251997,0,67259,67259
10303.2,0.0243445,0,66992,66992
10313.1,0.0236074,0,66753,66753
10323,0.0228708,0,66759,66759
10333,0.0221345,0,66808,66808
10341,0.0215401,0,66767,66767
10350.4,0.020842,0,66626,66626
10362.1,0.0199693,0,66346,66346
10371.5,0.0192708,0,66155,66155
10381.4,0.0185333,0,65992,65992
10391.4,0.0177938,0,65830,65830
10400.4,0.0171247,0,65579,65579
10412.1,0.0162494,0,65437,65437
10421.5,0.0155474,0,65208,65208
10430.8,0.014844,0,64976,64976
10440.2,0.0141385,0,65092,65092
10451.9,0.0132536,0,65195,65195
10461.3,0.0125417,0,64927,64927
10471.7,0.0117526,0,64679,64679
10481.5,0.0110005,0,64613,64613
10491.3,0.0102521,0,64475,64475
10501,0.00950719,0,64473,64473
10511.5,0.00868967,0,64470,64470
10521.5,0.00791707,0,64239,64239
10531.6,0.00712695,0,64197,64197
10541.6,0.00634479,0,63999,63999
10550.7,0.00562598,0,63995,63995
10560.6,0.00483914,0,64024,64024
10570.6,0.00404912,0,64148,64148
10580.2,0.00328595,0,64247,64247
10590.7,0.00244525,0,63945,63945
10600.7,0.00164385,0,63849,63849
10610.1,0.000883744,0,63795,63795
10621.5,-3.54828e-05,0,63676,63676
10631.5,-0.000844927,0,63641,63641
10642,-0.00169904,0,63938,63938
10651.6,-0.00247905,0,64165,64165
10660.6,-0.00321813,0,64116,64116
10670.6,-0.00403523,0,63955,63955
10680.6,-0.00485332,0,63934,63934
10690.6,-0.00567184,0,64066,64066
10700.6,-0.00649149,0,64001,64001
10710.5,-0.00731203,0,63752,63752
10720.5,-0.00813301,0,63635,63635
10730.4,-0.00894788,0,63639,63639
10740,-0.0097414,0,63684,63684
10753,-0.0108096,0,63618,63618
10762.8,-0.0116198,0,63524,63524
10772.6,-0.0124279,0,63595,63595
10782.4,-0.0132354,0,63581,63581
10792.2,-0.0140423,0,63347,63347
10802,-0.0148462,0,63223,63223
10811.8,-0.0156483,0,63379,63379
10821.5,-0.016449,0,63333,63333
10831.3,-0.0172478,0,63209,63209
10841.1,-0.0180444,0,63204,63204
10850.5,-0.0188132,0,63076,63076
10863.1,-0.0198333,0,62831,62831
10872.8,-0.0206224,0,62689,62689
10882.6,-0.0214087,0,62502,62502
10892.3,-0.0221921,0,62491,62491
10902.1,-0.0229722,0,62355,62355
10911.8,-0.0237488,0,62452,62452
10921.6,-0.0245216,0,62656,62656
10931.4,-0.0252903,0,62491,62491
10941.1,-0.0260548,0,62311,62311
10950.9,-0.0268146,0,62129,62129
10960.6,-0.0275699,0,62085,62085
10970.4,-0.0283202,0,62009,62009
10980.2,-0.029065,0,61881,61881
10993.2,-0.030049,0,61777,61777
11003,-0.030781,0,61781,61781
11012.7,-0.0315065,0,61830,61830
11022.5,-0.0322265,0,61905,61905
11032.4,-0.0329419,0,61999,61999
11042.2,-0.0336502,0,62159,62159
11052.1,-0.0343513,0,62199,62199
11062,-0.0350492,0,62156,62156
11071.9,-0.0357392,0,62060,62060
11081.8,-0.0364204,0,62147,62147
11091.8,-0.0370938,0,62043,62043
11101.7,-0.0377579,0,61769,61769
11111.7,-0.0384125,0,61671,61671
11121.6,-0.0390574,0,61405,61405
11131.6,-0.0396933,0,61171,61171
11141.6,-0.0403192,0,61090,61090
11151.5,-0.0409348,0,60993,60993
11161.5,-0.0415398,0,60968,60968
11171.5,-0.0421336,0,61009,61009
11181.5,-0.0427161,0,60937,60937
11191.5,-0.043287,0,60845,60845
11201.5,-0.0438468,0,60818,60818
11211.5,-0.0443961,0,60729,60729
11221.6,-0.0449334,0,60450,60450
11231.6,-0.0454582,0,60387,60387
11241.6,-0.0459706,0,60211,60211
11251.7,-0.0464703,0,59918,59918
11261.7,-0.0469575,0,59938,59938
11271.7,-0.0474318,0,59864,59864
11281.7,-0.0478932,0,59852,59852
11291.8,-0.0483421,0,59675,59675
11301.8,-0.0487782,0,59637,59637
11311.9,-0.0492009,0,59781,59781
11321.9,-0.0496101,0,59563,59563
11331.9,-0.0500061,0,59450,59450
11342,-0.0503883,0,59351,59351
11352,-0.0507572,0,59472,59472
11362,-0.0511129,0,59516,59516
11372,-0.0514554,0,59237,59237
11382,-0.051785,0,59102,59102
11392.1,-0.0521016,0,58971,58971
11402.1,-0.0524048,0,58867,58867
11412.1,-0.0526945,0,58711,58711
11422.1,-0.0529707,0,58756,58756
11432.1,-0.0532338,0,59002,59002
11442.2,-0.0534846,0,59004,59004
11451.9,-0.0537146,0,59170,59170
11461.9,-0.0539403,0,58903,58903
11471.9,-0.0541532,0,58888,58888
11482,-0.0555698,0,58899,58899
11492,-0.0557183,0,58753,58753
11502.1,-0.0558618,0,58618,58618
11512.1,-0.0559659,0,58457,58457
11522.2,-0.0560431,0,58424,58424
11532.3,-0.056108,0,58463,58463
11542.3,-0.0561601,0,58143,58143
11552.4,-0.0562005,0,57981,57981
11562.4,-0.0562292,0,57889,57889
11572.5,-0.0562464,0,57761,57761
11582.6,-0.0562523,0,57575,57575
11592.7,-0.0574932,0,57389,57389
11602.7,-0.0574622,0,57211,57211
11612.7,-0.0574192,0,57162,57162
11622.7,-0.0573656,0,57172,57172
11632.6,-0.0573022,0,57312,57312
11642.5,-0.0572301,0,57410,57410
11652.4,-0.0571491,0,57404,57404
11662.2,-0.0570561,0,57372,57372
11672,-0.0569523,0,57212,57212
11681.8,-0.0568387,0,57027,57027
11691.6,-0.0567165,0,56955,56955
11701.4,-0.0565865,0,56756,56756
11711.3,-0.0564496,0,56663,56663
11721.1,-0.0563063,0,56677,56677
11730.9,-0.0561569,0,56583,56583
11740.7,-0.0560018,0,56326,56326
11750.5,-0.055844,0,56123,56123
11760.4,-0.0556842,0,56028,56028
11770.3,-0.0555215,0,56010,56010
11780.2,-0.0553558,0,55832,55832
11790.1,-0.0551867,0,55677,55677
11802.7,-0.0549661,0,55443,55443
11812.4,-0.0547939,0,55258,55258
11822.3,-0.0546128,0,55164,55164
11832.3,-0.0544277,0,55035,55035
11842.3,-0.0542387,0,55124,55124
11852.3,-0.0540463,0,55408,55408
11862.4,-0.0538498,0,55523,55523
11872.3,-0.0536507,0,55529,55529
11882,-0.053455,0,55413,55413
11892,-0.0532488,0,55252,55252
11902.1,-0.0530396,0,55129,55129
11912.1,-0.0528278,0,55060,55060
11922.1,-0.0526128,0,54807,54807
11932.2,-0.0523944,0,54706,54706
11942.2,-0.0521732,0,54782,54782
11952.1,-0.0519534,0,54675,54675
11961.2,-0.0517498,0,54651,54651
11971,-0.0515253,0,54689,54689
11981.1,-0.0512937,0,54548,54548
11991.2,-0.0510597,0,54411,54411
12001.3,-0.0508234,0,54303,54303
12011.4,-0.0505846,0,54282,54282
12021.5,-0.0503433,0,54261,54261
12031.3,-0.0501046,0,54107,54107
12041.4,-0.0498599,0,54046,54046
12051.1,-0.0496218,0,54007,54007
12061.2,-0.0493716,0,53965,53965
12071.3,-0.0491191,0,54136,54136
12081.4,-0.0488637,0,53750,53750
12091.5,-0.0485479,0,53703,53703
12101.7,-0.0481282,0,53502,53502
12111.7,-0.0477314,0,53356,53356
12121.8,-0.0473529,0,53294,53294
12131.9,-0.0469898,0,53171,53171
12141.9,-0.0466414,0,52833,52833
12151.9,-0.0463056,0,52610,52610
12161.9,-0.0459759,0,52540,52540
12172,-0.0456564,0,52472,52472
12182,-0.045346,0,52303,52303
12192,-0.0450437,0,52254,52254
12202.1,-0.0447476,0,52151,52151
12212.1,-0.0444563,0,51895,51895
12222.1,-0.0441687,0,51690,51690
12232.2,-0.0438837,0,51586,51586
12242.2,-0.0436003,0,51711,51711
12252.2,-0.0433178,0,52079,52079
12261.5,-0.0430589,0,52027,52027
12271.2,-0.0427856,0,52017,52017
12281.2,-0.0425021,0,51824,51824
12291.3,-0.0422176,0,51548,51548
12301.3,-0.0419318,0,51274,51274
12311.3,-0.0416451,0,51112,51112
12321.4,-0.041357,0,51220,51220
12331.4,-0.0410675,0,51372,51372
12341.5,-0.0407769,0,51418,51418
12351.1,-0.0404964,0,51189,51189
12360.9,-0.0402098,0,50964,50964
12370.8,-0.0399184,0,50752,50752
12380.8,-0.0396264,0,50539,50539
12390.7,-0.039334,0,50370,50370
12400.7,-0.039041,0,50264,50264
12410.7,-0.0387463,0,50208,50208
12420.6,-0.0384514,0,50206,50206
12430.6,-0.0381566,0,50131,50131
12441.9,-0.0378207,0,50062,50062
12453.4,-0.037479,0,49940,49940
12460,-0.0372805,0,49974,49974
12472.2,-0.0369143,0,50002,50002
12480.7,-0.0366567,0,49898,49898
12494.4,-0.0362441,0,49651,49651
12503.7,-0.0359592,0,49592,49592
12513,-0.0356729,0,49661,49661
12522.4,-0.0353852,0,49728,49728
12531.7,-0.035096,0,49921,49921
12541.1,-0.0348054,0,50040,50040
12550.4,-0.0345133,0,49862,49862
12564.3,-0.0340794,0,49750,49750
12572,-0.033834,0,49712,49712
12582.5,-0.0335022,0,49639,49639
12592.6,-0.0331803,0,49601,49601
12601.5,-0.032894,0,49555,49555
12610.4,-0.0326067,0,49542,49542
12624.5,-0.0321538,0,49655,49655
12633.8,-0.0318506,0,49580,49580
12642.4,-0.0315714,0,49425,49425
12652.6,-0.031238,0,49383,49383
12662.6,-0.030913,0,49344,49344
12671.9,-0.0306072,0,49099,49099
12680.9,-0.0303108,0,48975,48975
12694,-0.0298805,0,48801,48801
12703.4,-0.029572,0,48812,48812
12712.8,-0.0292634,0,48980,48980
12722.2,-0.0289548,0,49013,49013
12731.5,-0.0286466,0,49118,49118
12740.9,-0.0283387,0,49197,49197
12753.3,-0.0279297,0,49339,49339
12760.4,-0.027697,0,49309,49309
12770.5,-0.0273662,0,49198,49198
12782.1,-0.0269863,0,49119,49119
12791.3,-0.0266856,0,48934,48934
12800.7,-0.0263807,0,48775,48775
12810,-0.0260766,0,48735,48735
12824.1,-0.0256221,0,48688,48688
12833.4,-0.0253203,0,48704,48704
12841.1,-0.0250736,0,48702,48702
12850.3,-0.0247788,0,48586,48586
12863.2,-0.0243693,0,48269,48269
12870.2,-0.0241449,0,48378,48378
12881.9,-0.0237755,0,48259,48259
12890.1,-0.0235188,0,48136,48136
12904.1,-0.0230803,0,48546,48546
12913.4,-0.0227892,0,48692,48692
12922.8,-0.0224992,0,48645,48645
12930.3,-0.0222673,0,48566,48566
12940.1,-0.021967,0,48428,48428
12952.4,-0.0215893,0,48161,48161
12962.5,-0.0212853,0,47836,47836
12971,-0.0210272,0,47739,47739
12980,-0.0207562,0,47610,47610
12994,-0.0203364,0,47549,47549
13003.4,-0.0200582,0,47701,47701
13012.8,-0.0197813,0,47673,47673
13022.1,-0.0195057,0,47524,47524
13031.5,-0.0192314,0,47591,47591
13040.8,-0.0189583,0,47527,47527
13050.2,-0.0186865,0,47411,47411
13064.2,-0.018281,0,47343,47343
13071.9,-0.0180608,0,47480,47480
13081.5,-0.0177846,0,47548,47548
13090.6,-0.0175266,0,47351,47351
13101.6,-0.017215,0,47128,47128
13112.5,-0.016905,0,46841,46841
13121.9,-0.0166419,0,46769,46769
13131.3,-0.0163798,0,46685,46685
13140.6,-0.0161187,0,46567,46567
13154.7,-0.0157289,0,46511,46511
13164,-0.0154703,0,46373,46373
13172.9,-0.0152256,0,46265,46265
13181.8,-0.0149817,0,46324,46324
13190.9,-0.0147322,0,46219,46219
13200.3,-0.0144769,0,46520,46520
13214.3,-0.0140955,0,46503,46503
13223.7,-0.0138422,0,46484,46484
13233.1,-0.0135902,0,46538,46538
13242.4,-0.013339,0,46434,46434
13251,-0.0131088,0,46351,46351
13261.2,-0.0128348,0,46464,46464
13270.3,-0.0125932,0,46308,46308
13282.8,-0.0122604,0,46050,46050
13294.3,-0.011955,0,45777,45777
13303,-0.0117239,0,45616,45616
13312.3,-0.0114754,0,45701,45701
13321.7,-0.0112271,0,45799,45799
13331.1,-0.010979,0,45669,45669
13340.5,-0.0107313,0,45550,45550
13353,-0.0104001,0,45613,45613
13362.9,-0.0101379,0,45644,45644
13371.9,-0.00989885,0,45664,45664
13381.9,-0.00963422,0,45570,45570
13392.4,-0.00935521,0,45505,45505
13403.3,-0.00906708,0,45345,45345
13410.4,-0.00887637,0,45350,45350
13420.9,-0.00859655,0,45549,45549
13430.8,-0.00832833,0,45696,45696
13440.8,-0.00805888,0,45659,45659
13450.9,-0.00778521,0,45580,45580
13460.4,-0.0075268,0,45629,45629
13472.5,-0.00719667,0,45750,45750
13481.8,-0.0069385,0,45584,45584
13492.5,-0.00664234,0,45533,45533
13502.8,-0.00635201,0,45357,45357
13512.4,-0.00608364,0,45247,45247
13523.5,-0.00576643,0,45229,45229
13532.2,-0.00551905,0,44979,44979
13540.4,-0.00528043,0,44889,44889
13552.3,-0.00493536,0,44966,44966
13560.3,-0.00470192,0,44943,44943
13571.6,-0.00436811,0,45011,45011
13582.3,-0.00404738,0,44972,44972
13592.9,-0.00372672,0,44710,44710
13600.8,-0.00348841,0,44607,44607
13612.5,-0.00312767,0,44405,44405
13620.9,-0.00286771,0,44412,44412
13630.4,-0.0025724,0,44620,44620
13644.6,-0.00212395,0,44654,44654
13654,-0.00182148,0,44474,44474
13663.5,-0.0015164,0,44298,44298
13673,-0.00120879,0,44268,44268
13682.5,-0.000898653,0,44356,44356
13691.9,-0.000590679,0,44406,44406
13701.2,-0.000280934,0,44375,44375
13710.5,3.07468e-05,0,44390,44390
13724.6,0.000502332,0,44102,44102
13733.9,0.000819453,0,43879,43879
13743.3,0.00114022,0,43838,43838
13752.8,0.00146448,0,43751,43751
13762.2,0.00179035,0,43529,43529
13771.7,0.00211768,0,43470,43470
13782.3,0.00248818,0,43379,43379
13791.8,0.00281886,0,43235,43235
13800.9,0.00313518,0,42983,42983
13811.1,0.00349383,0,42866,42866
13824.5,0.00396567,0,42804,42804
13833.8,0.00429457,0,42715,42715
13843.3,0.00462805,0,42508,42508
13852.7,0.00496164,0,42449,42449
13860.3,0.00522734,0,42322,42322
13870.5,0.00558641,0,42380,42380
13882.5,0.00600991,0,42551,42551
13892.3,0.00635491,0,42260,42260
13904.4,0.00677745,0,42116,42116
13913.9,0.00710767,0,42161,42161
13923.4,0.00743663,0,42220,42220
13932.8,0.00776412,0,42163,42163
13942.3,0.00808998,0,42229,42229
13951.8,0.00841409,0,42277,42277
13960.9,0.0087225,0,42226,42226
13972.6,0.00911801,0,42046,42046
13981.2,0.00940668,0,41987,41987
13993.1,0.00980243,0,41756,41756
14002.8,0.0101195,0,41456,41456
14010.4,0.010367,0,41315,41315
14023.7,0.0107965,0,41210,41210
14032.6,0.0110799,0,41070,41070
14041.2,0.0113519,0,41005,41005
14050.7,0.0116482,0,40908,40908
14063,0.0120283,0,41028,41028
14070,0.0122411,0,41092,41092
14082.4,0.0126118,0,41261,41261
14091.9,0.0128924,0,41136,41136
14100,0.0131284,0,40993,40993
14113.5,0.0135148,0,40703,40703
14122.6,0.0137727,0,40557,40557
14131.8,0.0140268,0,40376,40376
14141,0.0142771,0,40431,40431
14150.3,0.0145278,0,40553,40553
14162.3,0.0148454,0,40664,40664
14171.7,0.0150863,0,40517,40517
14182.1,0.0153518,0,40283,40283
14192.6,0.0156119,0,40160,40160
14203.5,0.0158783,0,40033,40033
14211.5,0.016068,0,39991,39991
14220.8,0.0162866,0,40164,40164
14230.2,0.0165005,0,40335,40335
14240.7,0.0167359,0,40406,40406
14251.2,0.0169654,0,40369,40369
14263,0.0172159,0,40115,40115
14271.3,0.0173875,0,39963,39963
14280.6,0.0175764,0,39872,39872
14290,0.0177665,0,39915,39915
14304.2,0.0180799,0,39819,39819
14313.7,0.0182964,0,39615,39615
14322.5,0.0184972,0,39397,39397
14332.8,0.0187283,0,39357,39357
14342.2,0.0189364,0,39194,39194
14351.7,0.0191394,0,39137,39137
14361.2,0.0193352,0,39225,39225
14370.7,0.0195226,0,39401,39401
14382.5,0.0197416,0,39660,39660
14391.6,0.0198983,0,39656,39656
14401.1,0.0200515,0,39351,39351
14411.9,0.0202124,0,38937,38937
14420.2,0.0203271,0,38827,38827
14434.5,0.020503,0,38480,38480
14444,0.0206059,0,38370,38370
14453.5,0.0206974,0,38381,38381
14461.5,0.0207655,0,38442,38442
14471,0.020836,0,38361,38361
14480.6,0.0208966,0,38163,38163
14491.5,0.0209524,0,38150,38150
14502.8,0.0209951,0,37747,37747
14511.3,0.0210164,0,37566,37566
14520.7,0.0210289,0,37315,37315
14530.2,0.0210298,0,37253,37253
14542.8,0.0210137,0,37480,37480
14551.8,0.0209907,0,37834,37834
14561.5,0.0209369,0,37455,37455
14572.1,0.020832,0,37146,37146
14583.7,0.0207165,0,37094,37094
14592.3,0.0206316,0,37139,37139
14600.1,0.0205555,0,37457,37457
14611.7,0.0204424,0,37357,37357
14620,0.0203626,0,37202,37202
14633.3,0.0202368,0,36929,36929
14642.5,0.0201509,0,36749,36749
14652,0.0200619,0,36559,36559
14661.5,0.0199724,0,36385,36385
14671.7,0.019875,0,36431,36431
14680.7,0.0197881,0,36427,36427
14690.5,0.0196929,0,36213,36213
14701,0.0195896,0,36054,36054
14712.7,0.0194751,0,35809,35809
14721.5,0.0193879,0,35651,35651
14731,0.0192931,0,35467,35467
14740.5,0.019198,0,35402,35402
14750,0.0191025,0,35267,35267
14762.8,0.0189834,0,35233,35233
14772.3,0.0188999,0,35363,35363
14781.3,0.0188234,0,35421,35421
14791.2,0.018742,0,35252,35252
14801.3,0.0186598,0,35087,35087
14813.8,0.0185574,0,35048,35048
14823.2,0.0184798,0,35014,35014
14832.7,0.018399,0,34876,34876
14842.2,0.0183152,0,34784,34784
14851.7,0.0182272,0,34940,34940
14861.2,0.0181354,0,35019,35019
14873.3,0.0180132,0,34846,34846
14882.7,0.0179149,0,34636,34636
14892,0.0178133,0,34380,34380
14902.5,0.0176943,0,34329,34329
14913.2,0.0175694,0,34204,34204
14922.6,0.0174567,0,34127,34127
14932,0.0173409,0,34133,34133
14941.5,0.0172206,0,34169,34169
14951,0.0170974,0,34165,34165
14960.5,0.0169714,0,33957,33957
14970,0.0168428,0,33734,33734
14984.3,0.0166453,0,33483,33483
14993.8,0.0165107,0,33533,33533
15000.7,0.0164112,0,33682,33682
15012.7,0.0162364,0,33765,33765
15021.7,0.0161032,0,33556,33556
15031,0.0159641,0,33277,33277
15041.2,0.0158107,0,32955,32955
15053.7,0.0156191,0,32643,32643
15063.1,0.0154748,0,32559,32559
15072.6,0.0153268,0,32480,32480
15081.5,0.0151871,0,32334,32334
15093.9,0.0149906,0,32180,32180
15101.9,0.0148651,0,32216,32216
15112,0.0147036,0,32209,32209
15121.1,0.0145599,0,32266,32266
15131.2,0.0143978,0,32109,32109
15140.4,0.0142514,0,31814,31814
15150,0.0140965,0,31675,31675
15164.5,0.0138634,0,31717,31717
15172.5,0.0137341,0,31604,31604
15182,0.0135796,0,31368,31368
15191.2,0.0134298,0,31262,31262
15201.4,0.013263,0,31081,31081
15211.8,0.0130931,0,30674,30674
15222.6,0.0129155,0,30474,30474
15231.2,0.0127733,0,30314,30314
15240.7,0.0126157,0,30115,30115
15250.4,0.0124563,0,29864,29864
15260,0.0122957,0,29711,29711
15274.5,0.0120554,0,29584,29584
15282.5,0.0119224,0,29585,29585
15292.3,0.0117591,0,29654,29654
15301.3,0.0116087,0,29481,29481
15310.5,0.0114554,0,29285,29285
15321.1,0.0112779,0,29145,29145
15333,0.0110808,0,28937,28937
15341.8,0.0109337,0,28753,28753
15351.2,0.0107778,0,28476,28476
15361,0.0106163,0,28296,28296
15373.3,0.010413,0,28525,28525
15380.2,0.0102998,0,28711,28711
15392.1,0.0101046,0,29126,29126
15400.8,0.00996174,0,28748,28748
15411.7,0.00978486,0,28508,28508
15421,0.00963428,0,28258,28258
15430.7,0.00947861,0,28200,28200
15440.4,0.00932391,0,28003,28003
15450.1,0.00917023,0,27781,27781
15464.6,0.00894166,0,27387,27387
15474.3,0.00879061,0,27192,27192
15483,0.00865577,0,27021,27021
15492.6,0.00850791,0,26980,26980
15501.2,0.00837655,0,26898,26898
15510.8,0.00823229,0,26752,26752
15521.3,0.008075,0,26952,26952
15533.1,0.00790058,0,27155,27155
15542.3,0.00776474,0,27162,27162
15551.7,0.00762876,0,27045,27045
15561.1,0.00749425,0,26875,26875
15573.6,0.00731814,0,26693,26693
15580.1,0.007228,0,26673,26673
15591.7,0.00706854,0,26509,26509
15600.6,0.00694831,0,26256,26256
15611.1,0.0068091,0,26032,26032
15622.7,0.00665688,0,25893,25893
15631.6,0.00654211,0,25872,25872
15640.5,0.0064287,0,25848,25848
15651.5,0.00628935,0,26044,26044
15660.8,0.00617474,0,26169,26169
15672.4,0.00603229,0,25992,25992
15681.9,0.00591794,0,25777,25777
15693.7,0.005777,0,25413,25413
15703.1,0.00566717,0,25120,25120
15711.1,0.00557501,0,24920,24920
15720.6,0.00546668,0,24941,24941
15732.1,0.00533809,0,25129,25129
15741.5,0.0052354,0,25020,25020
15750.2,0.00514247,0,24788,24788
15764.9,0.00498845,0,24537,24537
15770.7,0.00492907,0,24425,24425
15780.6,0.00442281,0,24241,24241
15792.2,0.00435988,0,24242,24242
15801.5,0.00427702,0,24405,24405
15810.1,0.00420442,0,24427,24427
15823.1,0.00410202,0,24256,24256
15830.3,0.00404938,0,24159,24159
15840.1,0.00398128,0,23863,23863
15855.7,0.00387706,0,23492,23492
15861.6,0.00383927,0,23438,23438
15873.7,0.00376391,0,23369,23369
15885.8,0.00369222,0,23488,23488
15891.2,0.0036612,0,23657,23657
15902.6,0.00359965,0,24065,24065
15911.3,0.00355489,0,24204,24204
15920.1,0.00351231,0,24049,24049
15933.3,0.00345245,0,23488,23488
15943.9,0.00340787,0,23156,23156
15951.9,0.00337638,0,22817,22817
15960.9,0.00334293,0,22574,22574
15970.4,0.00330993,0,22500,22500
15984.5,0.00326589,0,22408,22408
15990.3,0.00324957,0,22385,22385
16003.3,0.00322478,0,22229,22229
16010.1,0.00321585,0,22276,22276
16022,0.00320069,0,22467,22467
16030.6,0.00319026,0,22379,22379
16040.1,0.00317943,0,22190,22190
16051.5,0.00316759,0,22030,22030
16061.3,0.00218267,0,21866,21866
16071.4,0.00214852,0,21700,21700
16081.8,0.00211801,0,21574,21574
16090.6,0.00209571,0,21598,21598
16102.3,0.00207062,0,21495,21495
16112.6,0.00205232,0,21475,21475
16122.1,0.00203895,0,21406,21406
16132.6,0.00202774,0,21128,21128
16141,0.00202128,0,20936,20936
16150,0.00201684,0,20828,20828
16163.6,0.00201506,0,20751,20751
16172,0.00201688,0,20767,20767
16182.4,0.00202224,0,20895,20895
16191.2,0.0020293,0,20977,20977
16202.7,0.00204202,0,20781,20781
16212.7,0.00205625,0,21084,21084
16220.6,0.00206948,0,21106,21106
16234,0.00209679,0,21144,21144
16243,0.00211825,0,21022,21022
16252.3,0.00214326,0,20975,20975
16261.6,0.00217097,0,20994,20994
16271,0.00220133,0,20844,20844
16280.5,0.00223486,0,20648,20648
16292.7,0.00228144,0,20629,20629
16301.7,0.00231884,0,20571,20571
16310.3,0.00235645,0,20432,20432
16323.2,0.00241654,0,20038,20038
16330.4,0.00245514,0,19886,19886
16341.6,0.00252273,0,19746,19746
16353.2,0.00259488,0,19634,19634
16362.3,0.00265244,0,19439,19439
16373.3,0.00272415,0,19277,19277
16385,0.00280214,0,19175,19175
16390.8,0.00284193,0,19158,19158
16401.7,0.00291727,0,19342,19342
16411.8,0.00298897,0,19784,19784
16420.6,0.00305241,0,19976,19976
16432.3,0.00313916,0,19720,19720
16442.3,0.00321466,0,19495,19495
16453.2,0.00329833,0,19536,19536
16462,0.00336658,0,19332,19332
16471.8,0.00344434,0,19151,19151
16481.6,0.00352361,0,18959,18959
16493.1,0.00361872,0,18731,18731
16505.8,0.00372637,0,18470,18470
16511.7,0.00377675,0,18403,18403
16522.5,0.0038712,0,18814,18814
16531.5,0.00398779,0,19383,19383
16542.7,0.0042239,0,19365,19365
16551.7,0.00440895,0,19053,19053
16563.6,0.00465317,0,18759,18759
16572.2,0.00482761,0,18510,18510
16581.5,0.00501367,0,18423,18423
16591.4,0.00520567,0,18408,18408
16603.4,0.00543707,0,18358,18358
16613.4,0.0056235,0,18379,18379
16620.3,0.0057501,0,18408,18408
16632,0.00595778,0,18941,18941
16640.7,0.00611018,0,19459,19459
16651.1,0.00628632,0,19520,19520
16660,0.00643415,0,19351,19351
16674.3,0.00666459,0,19239,19239
16682.9,0.00679828,0,19026,19026
16693.8,0.00696662,0,18839,18839
16701,0.00707474,0,18727,18727
16712,0.00723537,0,18666,18666
16720.8,0.0073627,0,18623,18623
16732.1,0.00752293,0,18461,18461
16741.5,0.00765452,0,18298,18298
16751.5,0.0077927,0,18166,18166
16764,0.00796358,0,17898,17898
16775.3,0.00811559,0,17739,17739
16781.3,0.00819654,0,17647,17647
16790.1,0.00831371,0,17727,17727
16804.8,0.00851002,0,17867,17867
16810.8,0.0085901,0,17938,17938
16821,0.00872512,0,18218,18218
16832.1,0.00887256,0,19167,19167
16840.1,0.00897982,0,19252,19252
16851.1,0.00912764,0,18993,18993
16861.7,0.00926965,0,18664,18664
16870.7,0.00939172,0,18341,18341
16884.6,0.00957994,0,18016,18016
16893.6,0.00970367,0,17889,17889
16901.2,0.00980811,0,17794,17794
16912.2,0.00996038,0,17631,17631
16922.7,0.0101064,0,17604,17604
16931,0.0102239,0,17558,17558
16942.4,0.0103849,0,17312,17312
16951.4,0.0105126,0,17226,17226
16962.9,0.0106777,0,17127,17127
16971.3,0.0107984,0,17195,17195
16980.6,0.0109333,0,17302,17302
16990.9,0.0110831,0,17446,17446
17000.5,0.0112234,0,17385,17385
17011.2,0.011382,0,17360,17360
17020.3,0.0115157,0,17530,17530
17031.7,0.0116848,0,17399,17399
17040.4,0.0118152,0,17313,17313
17050.5,0.0119659,0,17324,17324
17061.5,0.0121304,0,17271,17271
17072.5,0.0122952,0,17103,17103
17081.1,0.0124253,0,16980,16980
17090.7,0.0125689,0,16861,16861
17100.1,0.0127101,0,16859,16859
17111.4,0.0128816,0,17180,17180
17120.2,0.013013,0,17195,17195
17132,0.0131913,0,17248,17248
17142.1,0.0133423,0,17034,17034
17153.1,0.0135079,0,16756,16756
17161.4,0.0136314,0,16599,16599
17171.9,0.0137884,0,16698,16698
17183,0.013952,0,16795,16795
17194,0.0141147,0,16865,16865
17201.9,0.0142307,0,16755,16755
17211.7,0.0143752,0,16893,16893
17220.3,0.0145005,0,17036,17036
17232.3,0.0146747,0,16847,16847
17242.7,0.0148237,0,16904,16904
17250.9,0.0149411,0,16827,16827
17260.1,0.0150724,0,16699,16699
17272.3,0.0152455,0,16602,16602
17283.6,0.0153872,0,16523,16523
17292.8,0.0155025,0,16423,16423
17302.3,0.0156212,0,16300,16300
17311.9,0.0157396,0,16186,16186
17321.3,0.0158555,0,16256,16256
17330.6,0.0159711,0,16258,16258
17341.1,0.0160994,0,16395,16395
17352.7,0.0162412,0,16556,16556
17361.7,0.0163511,0,16563,16563
17371.7,0.0164722,0,16361,16361
17384.2,0.0166231,0,16034,16034
17393.6,0.0167361,0,16045,16045
17402.7,0.0168437,0,16009,16009
17411.8,0.0169504,0,16022,16022
17420.3,0.0170502,0,16084,16084
17430.7,0.017171,0,16387,16387
17442.2,0.0173074,0,16302,16302
17451.2,0.0174163,0,16219,16219
17461.9,0.017546,0,15814,15814
17473.5,0.0176865,0,15476,15476
17483.1,0.0178011,0,15348,15348
17492.4,0.0179106,0,15341,15341
17500.9,0.0180081,0,15321,15321
17511.8,0.0181295,0,15316,15316
17521.3,0.0182314,0,15348,15348
17532.7,0.0183489,0,15299,15299
17541.6,0.018437,0,15475,15475
17552.2,0.0185384,0,15516,15516
17560.4,0.0186127,0,15634,15634
17572,0.0187128,0,15653,15653
17580.6,0.0187838,0,15510,15510
17591.8,0.0188696,0,15241,15241
17602.8,0.0189489,0,15137,15137
17610.1,0.0189986,0,15216,15216
17621.6,0.0190715,0,15539,15539
17630.2,0.0191224,0,15693,15693
17642,0.0191867,0,15294,15294
17651.7,0.0192346,0,14911,14911
17662.3,0.0192916,0,14661,14661
17670.1,0.01934,0,14647,14647
17683.3,0.0186853,0,14621,14621
17692.2,0.0187209,0,14689,14689
17701.6,0.0187563,0,14830,14830
17711.8,0.0187911,0,15445,15445
17720.5,0.0188182,0,15628,15628
17731.7,0.0188482,0,15448,15448
17741.3,0.0188683,0,15130,15130
17752.9,0.0188863,0,14771,14771
17761.6,0.0188956,0,14528,14528
17771.4,0.0189021,0,14293,14293
17783.8,0.0189044,0,14288,14288
17791.4,0.0189029,0,14536,14536
17800.8,0.018898,0,14942,14942
17812.1,0.0188882,0,15391,15391
17820.9,0.0188778,0,15105,15105
17830.3,0.0188642,0,15007,15007
17840.5,0.0188468,0,15212,15212
17850.2,0.0188277,0,15216,15216
17862.1,0.0188011,0,15075,15075
17871,0.018779,0,14815,14815
17880.6,0.0187532,0,14575,14575
17891.2,0.0187224,0,14601,14601
17900.6,0.0186935,0,14912,14912
17912,0.0186556,0,14939,14939
17920.9,0.0186249,0,14570,14570
17931,0.0185879,0,14350,14350
17943.1,0.0185416,0,14074,14074
17950.3,0.018513,0,14038,14038
17962.3,0.0184636,0,14512,14512
17970.6,0.0184278,0,14448,14448
17982.7,0.0183743,0,14055,14055
17993.4,0.0183254,0,13852,13852
18001.8,0.0182856,0,13772,13772
18011.4,0.0182395,0,13747,13747
18023,0.0181821,0,13785,13785
18031.8,0.0181371,0,14255,14255
18040.3,0.0180934,0,14390,14390
18051.9,0.0180316,0,14291,14291
18064.2,0.0179647,0,14032,14032
18074,0.0179111,0,13982,13982
18084.3,0.0178549,0,13872,13872
18091.3,0.017815,0,13778,13778
18100.4,0.0177627,0,13952,13952
18111.5,0.0176965,0,13774,13774
18120.1,0.0176443,0,13571,13571
18133.4,0.0175615,0,13397,13397
18142,0.0175068,0,13347,13347
18150,0.0174555,0,13435,13435
18161,0.0173837,0,13658,13658
18171,0.0173172,0,13747,13747
18182.5,0.0172404,0,13842,13842
18190.9,0.0171831,0,13653,13653
18200.4,0.0171184,0,13275,13275
18211.9,0.0170385,0,13033,13033
18223.2,0.0169597,0,12860,12860
18231.7,0.0169002,0,13098,13098
18242.4,0.0168247,0,13611,13611
18251.4,0.0167605,0,14066,14066
18262.5,0.0166804,0,13975,13975
18271.1,0.0166177,0,13698,13698
18280.3,0.0165501,0,13672,13672
18293.6,0.0164506,0,13462,13462
18302.4,0.0163836,0,13237,13237
18311.3,0.0163162,0,13189,13189
18321.4,0.0162386,0,13316,13316
18332.8,0.0161512,0,13438,13438
18341.3,0.0160854,0,13280,13280
18351.5,0.0160064,0,13152,13152
18364,0.0159093,0,13015,13015
18373.4,0.0158362,0,12889,12889
18384.2,0.0157514,0,12643,12643
18395.1,0.0156662,0,12527,12527
18402.1,0.0156108,0,12559,12559
18411.1,0.0155392,0,12852,12852
18422.2,0.0154505,0,13453,13453
18431,0.0153806,0,13454,13454
18440.6,0.0153033,0,13511,13511
18450.5,0.0152231,0,13571,13571
18460.5,0.0151424,0,13369,13369
18471.6,0.0150512,0,12984,12984
18480.6,0.0149771,0,12656,12656
18493.2,0.0148732,0,12536,12536
18501.2,0.0148066,0,12550,12550
18511.8,0.014718,0,12580,12580
18520.5,0.0146452,0,12797,12797
18531.5,0.0145514,0,12582,12582
18541.1,0.0144695,0,12540,12540
18552.2,0.0143748,0,12890,12890
18561.2,0.0142968,0,12896,12896
18572.1,0.0142018,0,12837,12837
18581.5,0.0141189,0,12760,12760
18590.1,0.0140436,0,12571,12571
18601.5,0.0139416,0,12819,12819
18611.2,0.0138551,0,13009,13009
18621.8,0.0137597,0,13348,13348
18632.7,0.0136609,0,13229,13229
18641.8,0.0135778,0,13075,13075
18652.4,0.0134796,0,12875,12875
18661.2,0.0133987,0,13030,13030
18672.6,0.0132918,0,12999,12999
18681.6,0.0132071,0,12716,12716
18692.3,0.0131065,0,12430,12430
18703,0.013005,0,12110,12110
18710.1,0.0129366,0,11979,11979
18720.9,0.0128334,0,12146,12146
18732.5,0.0127213,0,12382,12382
18740.4,0.0126444,0,12502,12502
18752.6,0.0125246,0,13029,13029
18760.9,0.0124423,0,13095,13095
18773,0.0123224,0,12941,12941
18780.5,0.0122486,0,12828,12828
18793.7,0.0121154,0,12715,12715
18802.9,0.0120227,0,12652,12652
18811.5,0.0119358,0,12799,12799
18821,0.0118392,0,13143,13143
18832.5,0.0117221,0,13215,13215
18841.5,0.0116292,0,13022,13022
18852.7,0.0115135,0,12641,12641
18861.3,0.011424,0,12440,12440
18871.7,0.0113154,0,12202,12202
18882.3,0.0112041,0,11923,11923
18893.2,0.0110887,0,11747,11747
18900,0.0110156,0,13392,13392
18910.1,0.0109064,0,13066,13066
18920.1,0.0107979,0,12680,12680
18930.2,0.0106868,0,12814,12814
18940.4,0.0105736,0,12546,12546
18950,0.0104655,0,12214,12214
18960.2,0.0103509,0,11941,11941
18970.2,0.0102375,0,12039,12039
18980.7,0.0101184,0,12332,12332
18990.4,0.0100069,0,12289,12289
19001.2,0.0098818,0,12695,12695
19011.1,0.0097674,0,13285,13285
19021.8,0.00964329,0,13657,13657
19030.1,0.00954689,0,13588,13588
19040,0.00943064,0,13136,13136
19050.3,0.00930979,0,12878,12878
19061.2,0.00918207,0,12813,12813
19070.2,0.00907647,0,12972,12972
19082.1,0.00893694,0,12871,12871
19092.1,0.00881958,0,13254,13254
19102.6,0.00869546,0,13559,13559
19110.8,0.00859994,0,13613,13613
19122.1,0.00846674,0,13632,13632
19130.6,0.0083664,0,13794,13794
19141.8,0.008235,0,14094,14094
19150.3,0.00813532,0,14147,14147
19161.6,0.00800208,0,14064,14064
19170.2,0.00790126,0,14032,14032
19181.5,0.00776903,0,14004,14004
19190.2,0.00766743,0,14052,14052
19201.7,0.0075326,0,14291,14291
19212.7,0.00740322,0,14210,14210
19221.1,0.00730503,0,14125,14125
19232.4,0.00717295,0,14010,14010
19240.9,0.00707304,0,14111,14111
19252.2,0.00694121,0,14565,14565
19260.6,0.00684277,0,14950,14950
19271.6,0.00671422,0,15554,15554
19282.3,0.00658932,0,15696,15696
19290.4,0.00649558,0,15619,15619
19300.9,0.0063723,0,15110,15110
19311.8,0.00624569,0,14676,14676
19322.4,0.00612198,0,14425,14425
19330.1,0.00603285,0,14495,14495
19340.4,0.00591296,0,14708,14708
19350.5,0.005795,0,15216,15216
19360.7,0.00567597,0,15132,15132
19371,0.0055567,0,15058,15058
19381.2,0.00543865,0,15064,15064
19391.4,0.00532025,0,15201,15201
19401.5,0.00520225,0,15303,15303
19411.7,0.00508501,0,15633,15633
19421.8,0.00496792,0,15592,15592
19431.9,0.00485127,0,15279,15279
19442,0.00473498,0,15386,15386
19452.1,0.0046188,0,15185,15185
19462.3,0.00450153,0,15141,15141
19472.4,0.00438619,0,15118,15118
19482.3,0.00427198,0,14927,14927
19492.3,0.00415797,0,14835,14835
19502.3,0.00404411,0,14902,14902
19512.3,0.00393018,0,15360,15360
19522.5,0.00381546,0,15614,15614
19530.1,0.00372915,0,15467,15467
19540.4,0.0036132,0,15455,15455
19550.9,0.00349561,0,15654,15654
19561.6,0.00337494,0,15588,15588
19572.7,0.00325201,0,15238,15238
19581.3,0.00315649,0,15143,15143
19590,0.00305951,0,15177,15177
19602,0.00292753,0,15831,15831
19610.4,0.00283513,0,15969,15969
19620.6,0.00272355,0,15603,15603
19632.2,0.00259732,0,15475,15475
19640.5,0.00250824,0,15418,15418
19652.7,0.00237697,0,15759,15759
19661.9,0.00227851,0,16141,16141
19670.9,0.00218158,0,15963,15963
19682.1,0.00206395,0,15600,15600
19690.4,0.00197613,0,15524,15524
19702.7,0.00184711,0,15409,15409
19712,0.00175009,0,15499,15499
19721.4,0.00165282,0,15337,15337
19730.9,0.00155548,0,15322,15322
19740.5,0.00145766,0,15524,15524
19752.1,0.00133949,0,16038,16038
19760.4,0.00125584,0,16404,16404
19772.3,0.00113764,0,16436,16436
19782.2,0.00103924,0,16425,16425
19792.2,0.000940892,0,16406,16406
19802.3,0.000841688,0,16182,16182
19812.9,0.00073913,0,16036,16036
19820.3,0.000667663,0,16013,16013
19831.5,0.000559767,0,16316,16316
19843.1,0.000450172,0,16607,16607
19851.8,0.000368381,0,16814,16814
19860.5,0.00028692,0,17074,17074
19872.6,0.000175042,0,17060,17060
19882,8.84458e-05,0,16904,16904
19890.2,1.39579e-05,0,16628,16628
19903.2,-0.000103673,0,16351,16351
19912.2,-0.00018452,0,16285,16285
19923.3,-0.000282635,0,16905,16905
19932.2,-0.000361067,0,16895,16895
19940.6,-0.000433635,0,16737,16737
19952.1,-0.000533206,0,16408,16408
19960.9,-0.000609008,0,16274,16274
19972.1,-0.000703753,0,16207,16207
19980.9,-0.000778003,0,16117,16117
19993.1,-0.000879902,0,16460,16460
