time,surface_elevation,reference_data,number_of_local_cells,number_of_global_cells
0,0,0,82894,82894
10.2005,0,0,88520,88520
20.3159,0,0,114356,114356
30.392,0,0,120950,120950
40.4367,0,0,120744,120744
50.4829,0,0,121286,121286
60.5165,0,0,123070,123070
70.5743,0,0,126566,126566
80.6375,0,0,129390,129390
90.7473,0,0,131344,131344
100.932,0,0,133180,133180
111.117,0,0,134842,134842
121.302,0,0,136848,136848
130.032,0,0,138380,138380
140.223,0,0,139964,139964
150.424,0,0,142070,142070
160.611,0,0,143728,143728
170.796,0,0,145684,145684
180.981,0,0,148056,148056
191.166,0,0,150126,150126
201.351,0,0,151514,151514
210.081,0,0,152482,152482
220.266,0,0,153994,153994
230.451,0,0,155772,155772
240.636,0,0,157368,157368
250.821,0,0,159116,159116
261.006,0,0,161196,161196
271.202,0,0,162904,162904
281.402,0,0,164884,164884
290.146,0,0,166100,166100
300.346,0,0,168068,168068
310.543,0,0,170150,170150
320.666,0,0,172178,172178
330.738,0,0,174254,174254
340.784,0,0,176558,176558
350.784,0,0,178350,178350
360.776,0,0,180342,180342
370.764,0,0,182206,182206
380.752,0,0,184318,184318
390.74,0,0,186440,186440
400.728,0,0,188152,188152
410.716,0,0,189936,189936
420.703,0,0,191830,191830
430.691,0,0,193628,193628
440.679,0,0,195268,195268
450.667,0,0,197306,197306
460.679,0,0,199278,199278
470.72,0,0,201026,201026
480.825,0,0,203042,203042
490.936,0,0,204522,204522
501.017,0,0,206736,206736
511.099,0,0,208330,208330
521.143,0,0,210342,210342
531.171,0,0,212216,212216
541.176,0,0,214726,214726
551.181,0,0,215834,215834
561.186,0,0,217588,217588
571.192,0,0,219322,219322
581.2,0,0,221004,221004
591.217,0,0,222824,222824
601.326,0,0,224582,224582
610.048,0,0,226086,226086
620.206,0,0,228866,228866
630.394,0,0,230986,230986
640.572,0,0,232782,232782
650.777,0,0,235316,235316
660.976,0,0,237914,237914
671.006,0,0,239986,239986
681.218,0,0,242324,242324
691.42,0,0,245124,245124
700.172,0,0,246430,246430
710.367,0,0,248828,248828
720.433,0,0,251036,251036
730.624,0,0,252892,252892
740.814,0,0,255846,255846
750.998,0,0,258198,258198
761.065,0,0,259848,259848
771.253,0,0,262136,262136
781.355,0,0,265590,265590
791.351,9.09495e-13,0,267266,267266
801.334,7.27596e-12,0,269374,269374
811.317,1.36424e-11,0,270998,270998
821.314,2.00089e-11,0,273422,273422
831.313,2.63753e-11,0,275252,275252
841.313,3.27418e-11,0,276812,276812
851.312,3.91083e-11,0,279706,279706
861.311,4.54747e-11,0,281080,281080
871.302,5.18412e-11,0,282840,282840
881.299,6.45741e-11,0,285866,285866
891.298,7.7307e-11,0,288346,288346
901.297,9.004e-11,0,289824,289824
911.214,1.05501e-10,0,291566,291566
921.213,1.24601e-10,0,293190,293190
931.212,1.45519e-10,0,296086,296086
941.211,1.70985e-10,0,299668,299668
951.21,2.00089e-10,0,300786,300786
961.209,2.31921e-10,0,302508,302508
971.208,2.7012e-10,0,306056,306056
981.11,3.13776e-10,0,308940,308940
991.192,3.62888e-10,0,309436,309436
1001.32,4.19277e-10,0,313092,313092
1011.3,4.83851e-10,0,315284,315284
1021.23,5.56611e-10,0,316222,316222
1031.18,6.39375e-10,0,318122,318122
1041.07,7.32143e-10,0,319896,319896
1050.93,8.36735e-10,0,321220,321220
1060.81,9.55879e-10,0,323968,323968
1070.69,1.08957e-09,0,327400,327400
1080.44,1.23873e-09,0,328832,328832
1090.26,1.40699e-09,0,331054,331054
1100.25,1.59889e-09,0,335652,335652
1110.23,1.81444e-09,0,336716,336716
1120.22,2.05637e-09,0,338708,338708
1130.23,2.32831e-09,0,342018,342018
1140.21,2.63117e-09,0,344134,344134
1150.17,2.97041e-09,0,345774,345774
1160.16,3.34967e-09,0,348722,348722
1170.15,3.76986e-09,0,351700,351700
1180.14,4.24097e-09,0,354208,354208
1191.42,4.83669e-09,0,356812,356812
1201.41,5.42605e-09,0,360492,360492
1210.03,5.98538e-09,0,362356,362356
1220.01,6.69843e-09,0,364882,364882
1231.42,7.60792e-09,0,367582,367582
1241.41,8.49286e-09,0,370480,370480
1251.4,9.47148e-09,0,372248,372248
1261.38,1.0551e-08,0,375162,375162
1271.36,1.17407e-08,0,378026,378026
1281.31,1.30458e-08,0,380170,380170
1291.32,1.4491e-08,0,381868,381868
1301.3,1.60726e-08,0,385760,385760
1311.29,1.78088e-08,0,387218,387218
1321.31,1.97178e-08,0,389424,389424
1331.21,2.17851e-08,0,391538,391538
1341.1,2.40407e-08,0,393610,393610
1351.05,2.65181e-08,0,395424,395424
1361.03,2.9233e-08,0,397556,397556
1370.93,3.21697e-08,0,400070,400070
1380.81,3.53575e-08,0,402820,402820
1390.76,3.88527e-08,0,404486,404486
1400.78,4.26762e-08,0,405140,405140
1410.83,4.68444e-08,0,406910,406910
1420.86,5.13637e-08,0,411028,411028
1430.83,5.62322e-08,0,411992,411992
1440.71,6.14536e-08,0,414414,414414
1450.62,6.71198e-08,0,415838,415838
1460.58,7.32707e-08,0,417136,417136
1470.54,7.99118e-08,0,419460,419460
1480.4,8.70041e-08,0,422770,422770
1490.28,9.46611e-08,0,423156,423156
1500.24,1.02968e-07,0,423832,423832
1511.29,1.12916e-07,0,426194,426194
1521.07,1.22417e-07,0,427618,427618
1530.7,1.32442e-07,0,429396,429396
1540.26,1.43102e-07,0,431208,431208
1551.05,1.56011e-07,0,434168,434168
1560.47,1.68095e-07,0,435850,435850
1571.28,1.82963e-07,0,437936,437936
1580.75,1.96888e-07,0,438992,438992
1590.17,2.11655e-07,0,440852,440852
1600.93,2.29687e-07,0,442804,442804
1610.36,2.46548e-07,0,444520,444520
1621.2,2.67252e-07,0,447242,447242
1630.64,2.86482e-07,0,447084,447084
1640.16,3.07057e-07,0,449824,449824
1650.92,3.3186e-07,0,453226,453226
1660.34,3.54959e-07,0,453684,453684
1671.17,3.83203e-07,0,455244,455244
1680.59,4.09331e-07,0,457854,457854
1690.01,4.36981e-07,0,459232,459232
1700.93,4.71045e-07,0,461492,461492
1710.45,5.02566e-07,0,463344,463344
1721.22,5.40408e-07,0,465594,465594
1730.65,5.75517e-07,0,466168,466168
1740.08,6.12604e-07,0,467556,467556
1750.89,6.57619e-07,0,469944,469944
1760.31,6.99129e-07,0,472468,472468
1771.08,7.4933e-07,0,473610,473610
1780.52,7.95813e-07,0,474284,474284
1791.3,8.51977e-07,0,476072,476072
1800.75,9.03954e-07,0,478026,478026
1810.17,9.58471e-07,0,478892,478892
1820.94,1.02419e-06,0,480234,480234
1830.36,1.08484e-06,0,482088,482088
1841.12,1.15791e-06,0,484146,484146
1850.54,1.22527e-06,0,484840,484840
1861.3,1.30635e-06,0,485564,485564
1870.72,1.38104e-06,0,487534,487534
1880.15,1.4594e-06,0,489142,489142
1890.91,1.55357e-06,0,490474,490474
1900.33,1.64021e-06,0,490868,490868
1911.1,1.7443e-06,0,491686,491686
1920.52,1.83998e-06,0,493448,493448
1931.3,1.95493e-06,0,496086,496086
1940.73,2.06048e-06,0,497314,497314
1950.15,2.17083e-06,0,497878,497878
1960.91,2.30307e-06,0,498606,498606
1970.29,2.42395e-06,0,499822,499822
1981.04,2.56909e-06,0,501920,501920
1990.45,2.70238e-06,0,502856,502856
2001.21,2.86191e-06,0,504458,504458
2010.6,3.00778e-06,0,505328,505328
2021.32,3.18202e-06,0,506076,506076
2030.68,3.3411e-06,0,507448,507448
2040.08,3.50768e-06,0,509848,509848
2050.82,3.70669e-06,0,511294,511294
2060.22,3.88864e-06,0,512696,512696
2070.96,4.1058e-06,0,513556,513556
2080.36,4.30415e-06,0,514794,514794
2091.1,4.54065e-06,0,517388,517388
2100.5,4.75646e-06,0,518524,518524
2111.24,5.01355e-06,0,519762,519762
2120.62,5.24726e-06,0,521810,521810
2131.33,5.52546e-06,0,522316,522316
2140.73,5.77944e-06,0,523034,523034
2150.13,6.04299e-06,0,524322,524322
2160.87,6.35623e-06,0,526012,526012
2170.25,6.6404e-06,0,526838,526838
2180.91,6.97605e-06,0,529072,529072
2190.23,7.2808e-06,0,529108,529108
2200.96,7.64531e-06,0,530152,530152
2210.36,7.97653e-06,0,532306,532306
2221.1,8.36931e-06,0,531986,531986
2230.5,8.7258e-06,0,533900,533900
2241.25,9.1483e-06,0,537446,537446
2250.65,9.53163e-06,0,537238,537238
2260.05,9.92823e-06,0,538816,538816
2270.79,1.03985e-05,0,541436,541436
2280.19,1.08254e-05,0,542966,542966
2290.93,1.13317e-05,0,544638,544638
2300.33,1.17915e-05,0,544884,544884
2311.07,1.23369e-05,0,546848,546848
2320.47,1.2832e-05,0,548328,548328
2331.21,1.34192e-05,0,549302,549302
2340.61,1.39521e-05,0,551042,551042
2350.01,1.45036e-05,0,552412,552412
2360.76,1.51572e-05,0,554236,554236
2370.16,1.575e-05,0,555152,555152
2380.91,1.64521e-05,0,556382,556382
2390.31,1.70885e-05,0,558132,558132
2401.05,1.78413e-05,0,561064,561064
2410.43,1.85216e-05,0,562296,562296
2421.16,1.93272e-05,0,563746,563746
2430.56,2.00575e-05,0,564570,564570
2441.31,2.09207e-05,0,565444,565444
2450.71,2.17015e-05,0,566620,566620
2460.08,2.25048e-05,0,568694,568694
2470.81,2.34544e-05,0,570034,570034
2480.21,2.43147e-05,0,572308,572308
2490.95,2.533e-05,0,573908,573908
2500.33,2.62465e-05,0,574562,574562
2511.08,2.7331e-05,0,576668,576668
2520.48,2.83117e-05,0,578408,578408
2531.24,2.94701e-05,0,579934,579934
2540.65,3.05174e-05,0,580758,580758
2550.05,3.15971e-05,0,582614,582614
2560.82,3.28729e-05,0,584596,584596
2570.18,3.40202e-05,0,586164,586164
2580.86,3.53715e-05,0,588750,588750
2590.2,3.65932e-05,0,589382,589382
2600.94,3.80431e-05,0,592207,592207
2610.36,3.93593e-05,0,592933,592933
2621.17,4.09186e-05,0,594869,594869
2630.63,4.23307e-05,0,596707,596707
2640.06,4.37835e-05,0,597651,597651
2650.7,4.54758e-05,0,598383,598383
2661.32,4.72187e-05,0,600157,600157
2670.63,4.87918e-05,0,601411,601411
2681.25,5.06339e-05,0,602295,602295
2690.57,5.22874e-05,0,602833,602833
2701.19,5.421e-05,0,604133,604133
2710.48,5.59235e-05,0,605955,605955
2721.11,5.79163e-05,0,606996,606996
2730.4,5.96883e-05,0,607870,607870
2741.08,6.17559e-05,0,609636,609636
2750.45,6.36017e-05,0,610818,610818
2761.08,6.57291e-05,0,611522,611522
2770.38,6.76196e-05,0,613458,613458
2781.02,6.98235e-05,0,615156,615156
2790.45,7.18099e-05,0,616694,616694
2801.09,7.40981e-05,0,618430,618430
2810.39,7.6136e-05,0,620934,620934
2821.01,7.85166e-05,0,622654,622654
2830.29,8.06434e-05,0,623872,623872
2840.91,8.31344e-05,0,625412,625412
2850.19,8.53678e-05,0,627300,627300
2860.86,8.8003e-05,0,628600,628600
2870.34,9.04124e-05,0,630449,630449
2881,9.31973e-05,0,633879,633879
2890.28,9.56954e-05,0,635811,635811
2900.89,9.86406e-05,0,635765,635765
2910.18,0.0001013,0,638087,638087
2920.8,0.000104436,0,639587,639587
2930.08,0.000107266,0,640867,640867
2940.7,0.000110611,0,641960,641960
2950.01,0.000113639,0,642610,642610
2960.85,0.000117286,0,645438,645438
2970.15,0.000120588,0,647694,647694
2980.77,0.000124432,0,648356,648356
2990.18,0.000127904,0,649371,649371
3000.86,0.000131932,0,651903,651903
3010.14,0.00013552,0,652721,652721
3020.75,0.000139732,0,654249,654249
3030.05,0.000143521,0,656435,656435
3040.96,0.000148021,0,657999,657999
3050.55,0.000152011,0,659739,659739
3060.05,0.000155995,0,661163,661163
3070.68,0.000160487,0,663155,663155
3081.28,0.000165022,0,664419,664419
3090.63,0.000169077,0,665209,665209
3100.06,0.000173235,0,667402,667402
3111.03,0.000178179,0,669874,669874
3121.08,0.000182834,0,670818,670818
3130.47,0.000187311,0,671585,671585
3140.54,0.000192273,0,672849,672849
3150.27,0.000197242,0,675359,675359
3161.18,0.00020304,0,675443,675443
3171.24,0.000208623,0,678770,678770
3180.01,0.000213686,0,680338,680338
3191.15,0.000220413,0,681842,681842
3200.45,0.000226282,0,682542,682542
3210.43,0.000232835,0,683916,683916
3220.73,0.000239856,0,684954,684954
3231.03,0.000247145,0,686422,686422
3241.01,0.000254465,0,687041,687041
3251.45,0.000262409,0,688543,688543
3260.41,0.000269455,0,690032,690032
3270.56,0.000277717,0,692411,692411
3280.95,0.000286502,0,693693,693693
3290.55,0.000294912,0,695223,695223
3300.37,0.000303785,0,697620,697620
3310.82,0.00031354,0,699064,699064
3321.29,0.000323643,0,700046,700046
3330.14,0.000332454,0,701762,701762
3340.19,0.000342779,0,703400,703400
3350.43,0.000353675,0,705280,705280
3361.2,0.000365598,0,706966,706966
3370.57,0.00037637,0,708393,708393
3381.32,0.000388981,0,709835,709835
3390.76,0.000400313,0,711185,711185
3400.21,0.000419289,0,711935,711935
3411.02,0.000451588,0,714307,714307
3420.45,0.000479072,0,715682,715682
3431.13,0.000509716,0,717290,717290
3440.46,0.000536235,0,718799,718799
3451.16,0.000566556,0,720152,720152
3460.59,0.000593427,0,721621,721621
3470.05,0.000620651,0,723973,723973
3480.77,0.000652003,0,724775,724775
3490.09,0.000679842,0,726561,726561
3500.74,0.000712395,0,728763,728763
3510.67,0.000743526,0,730285,730285
3520.59,0.000775337,0,730836,730836
3530.11,0.000805951,0,733476,733476
3540.77,0.000840137,0,736596,736596
3550.08,0.000870161,0,737180,737180
3560.74,0.000904885,0,738246,738246
3570.05,0.000935858,0,741238,741238
3580.75,0.000972626,0,741448,741448
3590.29,0.00100676,0,742417,742417
3600.95,0.00108589,0,743647,743647
3610.27,0.0011556,0,745167,745167
3620.95,0.0012326,0,748093,748093
3630.69,0.00130198,0,748791,748791
3640.23,0.00137028,0,749875,749875
3650.88,0.00144716,0,752426,752426
3660.46,0.00151686,0,754443,754443
3671.24,0.00159572,0,756772,756772
3680.64,0.00166429,0,757474,757474
3690,0.00173231,0,759060,759060
3700.71,0.00181011,0,761208,761208
3710.07,0.00187895,0,761838,761838
3720.8,0.00195975,0,763334,763334
3730.21,0.00203326,0,764968,764968
3740.98,0.00214007,0,766704,766704
3750.41,0.00223304,0,768802,768802
3761.17,0.0023408,0,771558,771558
3770.61,0.00243806,0,773075,773075
3781.31,0.00255252,0,773762,773762
3790.71,0.00265767,0,776060,776060
3800.13,0.00276786,0,777660,777660
3810.89,0.00290044,0,779930,779930
3820.3,0.00302273,0,781110,781110
3830.96,0.00316746,0,783150,783150
3840.37,0.00337502,0,785675,785675
3850.94,0.0036342,0,786690,786690
3860.21,0.00384027,0,787557,787557
3870.98,0.00407557,0,788596,788596
3880.31,0.00428346,0,789933,789933
3890.89,0.00452653,0,792075,792075
3900.22,0.00474833,0,792859,792859
3910.81,0.00500775,0,797845,797845
3920.08,0.00524163,0,799748,799748
3930.75,0.00551771,0,800560,800560
3940.07,0.00576522,0,803400,803400
3950.64,0.0060545,0,806039,806039
3961.2,0.00635479,0,808320,808320
3970.51,0.00662979,0,809551,809551
3981.18,0.00694565,0,812152,812152
3990.44,0.00721753,0,812936,812936
4001.03,0.0075352,0,815030,815030
4010.28,0.00783435,0,817196,817196
4020.96,0.00821457,0,818594,818594
4030.26,0.00857659,0,820212,820212
4040.91,0.00903386,0,821470,821470
4050.25,0.00947555,0,823191,823191
4060.94,0.0100813,0,825126,825126
4070.27,0.0109805,0,826736,826736
4080.85,0.011829,0,827717,827717
4090.09,0.0125528,0,830131,830131
4100.65,0.0134155,0,832477,832477
4111.2,0.0143311,0,834671,834671
4120.44,0.0151821,0,835470,835470
4131,0.0162164,0,836797,836797
4140.24,0.0171772,0,839061,839061
4150.79,0.0183341,0,840495,840495
4160.03,0.0193903,0,843303,843303
4170.59,0.0206439,0,845277,845277
4181.14,0.0219527,0,846727,846727
4190.4,0.0231186,0,847254,847254
4201,0.0245463,0,850771,850771
4210.28,0.0261053,0,851283,851283
4220.9,0.0277288,0,852215,852215
4230.18,0.0297415,0,854422,854422
4240.8,0.0327921,0,857243,857243
4250.09,0.0356228,0,858153,858153
4260.72,0.0392968,0,858026,858026
4270.05,0.0429134,0,859478,859478
4280.71,0.0473415,0,861302,861302
4290.04,0.0516198,0,863982,863982
4300.64,0.0566448,0,865108,865108
4311.2,0.061893,0,865791,865791
4320.44,0.0667108,0,867936,867936
4331,0.0807722,0,869913,869913
4340.23,0.0906871,0,870973,870973
4350.79,0.106793,0,872447,872447
4360.03,0.122645,0,874322,874322
4370.58,0.143841,0,874824,874824
4381.14,0.164905,0,876913,876913
4390.38,0.184233,0,879137,879137
4400.94,0.207034,0,879775,879775
4410.17,0.225217,0,882049,882049
4420.72,0.267308,0,882948,882948
4431.27,0.310789,0,884303,884303
4440.49,0.346624,0,885547,885547
4451.03,0.390614,0,885893,885893
4460.26,0.427999,0,886719,886719
4470.8,0.471368,0,887885,887885
4480.03,0.508796,0,888494,888494
4490.6,0.551654,0,891248,891248
4501.16,0.594787,0,894610,894610
4510.4,0.631889,0,895280,895280
4520.97,0.673535,0,898321,898321
4530.21,0.709114,0,898589,898589
4540.77,0.748967,0,898655,898655
4550.01,0.782477,0,901545,901545
4560.59,0.818697,0,903033,903033
4571.18,0.852276,0,903436,903436
4580.47,0.879448,0,904206,904206
4591.09,0.907487,0,908288,908288
4600.38,0.92876,0,911954,911954
4611,0.948835,0,914417,914417
4620.3,0.962574,0,915469,915469
4630.92,0.97227,0,914447,914447
4640.21,0.97444,0,916367,916367
4650.83,0.973095,0,919185,919185
4660.13,0.971586,0,921457,921457
4670.75,0.968501,0,922576,922576
4680.04,0.965033,0,924656,924656
4690.68,0.960724,0,927856,927856
4701.33,0.948264,0,929311,929311
4710.69,0.935146,0,928751,928751
4720.09,0.919144,0,930925,930925
4730.86,0.895581,0,935043,935043
4740.31,0.876181,0,938066,938066
4751.06,0.835526,0,940469,940469
4760.57,0.797063,0,940465,940465
4770.1,0.758657,0,942017,942017
4781,0.710945,0,944647,944647
4790.53,0.669673,0,946140,946140
4800.06,0.628768,0,946476,946476
4810.9,0.581477,0,948761,948761
4820.38,0.539843,0,951390,951390
4830.01,0.49794,0,954746,954746
4840.97,0.450784,0,955951,955951
4850.6,0.409843,0,955615,955615
4860.37,0.368814,0,958192,958192
4870.12,0.327724,0,960391,960391
4881.22,0.281008,0,960529,960529
4890.77,0.240981,0,961426,961426
4900.35,0.201045,0,962608,962608
4910.02,0.160994,0,963178,963178
4921.01,0.115937,0,962958,962958
4930.66,0.0771596,0,965196,965196
4940.29,0.0393113,0,967383,967383
4951.26,-0.00289777,0,967562,967562
4960.85,-0.0391549,0,967355,967355
4970.41,-0.0747778,0,966286,966286
4981.33,-0.114369,0,967319,967319
4990.85,-0.147924,0,969924,969924
5000.33,-0.180599,0,970658,970658
5011.24,-0.21746,0,969798,969798
5020.78,-0.24894,0,969582,969582
5030.33,-0.279447,0,970477,970477
5041.25,-0.313018,0,971326,971326
5050.79,-0.341239,0,971574,971574
5060.31,-0.368297,0,971948,971948
5071.17,-0.397527,0,972631,972631
5080.67,-0.421467,0,973204,973204
5090.14,-0.443846,0,973052,973052
5100.97,-0.46749,0,974038,974038
5110.45,-0.486332,0,973797,973797
5121.28,-0.505633,0,975582,975582
5130.75,-0.520621,0,975696,975696
5140.23,-0.533966,0,976445,976445
5151.07,-0.547872,0,976770,976770
5160.55,-0.553211,0,975897,975897
5170.13,-0.555151,0,976881,976881
5181.12,-0.555246,0,976707,976707
5190.79,-0.555562,0,978982,978982
5200.45,-0.555618,0,979339,979339
5210.1,-0.555218,0,981496,981496
5221.13,-0.55483,0,982416,982416
5230.8,-0.554406,0,982482,982482
5240.48,-0.553639,0,983646,983646
5250.2,-0.552249,0,984387,984387
5261.37,-0.549823,0,986170,986170
5271.17,-0.547604,0,987561,987561
5281.02,-0.544493,0,987837,987837
5290.96,-0.540289,0,987461,987461
5300.94,-0.535338,0,987949,987949
5310.98,-0.530107,0,990370,990370
5321.09,-0.52117,0,990962,990962
5331.23,-0.509568,0,992305,992305
5341.42,-0.495681,0,992128,992128
5350.21,-0.480758,0,992132,992132
5360.48,-0.460781,0,994970,994970
5370.74,-0.440161,0,997371,997371
5381.01,-0.420105,0,998580,998580
5391.3,-0.400949,0,998572,998572
5401.26,-0.382612,0,1000832,1000832
5410.18,-0.3664,0,1003840,1003840
5420.65,-0.348214,0,1006179,1006179
5431.13,-0.331046,0,1006747,1006747
5440.11,-0.316711,0,1006863,1006863
5450.59,-0.299958,0,1007917,1007917
5460.93,-0.283667,0,1009137,1009137
5471.41,-0.267653,0,1010699,1010699
5480.39,-0.25431,0,1011596,1011596
5490.87,-0.239018,0,1010868,1010868
5501.35,-0.224063,0,1011433,1011433
5510.33,-0.211731,0,1014475,1014475
5520.81,-0.198073,0,1016174,1016174
5530.91,-0.185652,0,1016697,1016697
5541.13,-0.173859,0,1014908,1014908
5550.11,-0.164305,0,1015698,1015698
5560.6,-0.153845,0,1017272,1017272
5571.09,-0.145304,0,1017732,1017732
5580.09,-0.138241,0,1016636,1016636
5590.58,-0.130772,0,1018662,1018662
5601.43,-0.123658,0,1019703,1019703
5610.08,-0.118491,0,1018428,1018428
5621.14,-0.112609,0,1021331,1021331
5630.32,-0.109068,0,1024310,1024310
5641.32,-0.104394,0,1025500,1025500
5651.12,-0.101046,0,1025980,1025980
5660.6,-0.0979749,0,1025649,1025649
5670.28,-0.095033,0,1026205,1026205
5681.49,-0.0917592,0,1029200,1029200
5691.29,-0.0889012,0,1029332,1029332
5700.34,-0.086265,0,1029731,1029731
5711.34,-0.0830569,0,1030624,1030624
5721.14,-0.0803103,0,1031261,1031261
5730.67,-0.0779116,0,1033284,1033284
5741.49,-0.0752932,0,1035858,1035858
5750.59,-0.0733304,0,1036236,1036236
5760.39,-0.0712507,0,1033611,1033611
5770.02,-0.0694821,0,1032409,1032409
5780.88,-0.0676641,0,1035479,1035479
5790.53,-0.0662611,0,1039634,1039634
5800.25,-0.0654143,0,1040588,1040588
5811.61,-0.0643225,0,1039003,1039003
5821.35,-0.0634356,0,1039240,1039240
5830.5,-0.0628094,0,1039327,1039327
5841.27,-0.0625562,0,1040691,1040691
5850.16,-0.0622087,0,1040572,1040572
5860.14,-0.0623384,0,1039462,1039462
5870.62,-0.0625817,0,1042937,1042937
5880.02,-0.0629076,0,1043939,1043939
5890.53,-0.0635252,0,1041196,1041196
5900.52,-0.0641235,0,1039908,1039908
5910.17,-0.0646482,0,1042300,1042300
5920.75,-0.0653721,0,1044974,1044974
5931.59,-0.0663134,0,1043637,1043637
5941.32,-0.0673249,0,1042752,1042752
5951.06,-0.0684877,0,1042553,1042553
5960.8,-0.0697793,0,1043955,1043955
5970.54,-0.0711172,0,1042995,1042995
5980.27,-0.0726469,0,1043334,1043334
5990.01,-0.0746083,0,1045207,1045207
6001.37,-0.0772298,0,1046163,1046163
6011.11,-0.079618,0,1047084,1047084
6021.11,-0.0821569,0,1045552,1045552
6030.53,-0.084573,0,1043823,1043823
6040.27,-0.0871459,0,1045375,1045375
6050.01,-0.0897818,0,1046600,1046600
6060.61,-0.092663,0,1047634,1047634
6071.17,-0.0955224,0,1048114,1048114
6080.91,-0.0981992,0,1049812,1049812
6090.64,-0.100941,0,1052494,1052494
6100.38,-0.104487,0,1053163,1053163
6110.86,-0.10842,0,1052411,1052411
6121.35,-0.111711,0,1052355,1052355
6131.58,-0.114631,0,1051306,1051306
6141.31,-0.117194,0,1054451,1054451
6150.8,-0.119488,0,1056152,1056152
6161.19,-0.121734,0,1058599,1058599
6171.28,-0.123616,0,1060684,1060684
6180.7,-0.125105,0,1059855,1059855
6190.12,-0.126442,0,1059455,1059455
6200.81,-0.127061,0,1061439,1061439
6211.58,-0.128221,0,1062433,1062433
6220.92,-0.128182,0,1062943,1062943
6230.11,-0.129045,0,1062705,1062705
6241.35,-0.128474,0,1064272,1064272
6250.99,-0.127309,0,1064308,1064308
6261.47,-0.126023,0,1067041,1067041
6270.27,-0.124775,0,1066874,1066874
6281.2,-0.123006,0,1067767,1067767
6290.86,-0.121799,0,1068067,1068067
6301.36,-0.119462,0,1067259,1067259
6310.76,-0.117307,0,1067518,1067518
6320.42,-0.11532,0,1068104,1068104
6330.09,-0.113317,0,1069984,1069984
6340.9,-0.11063,0,1070829,1070829
6350.93,-0.107603,0,1070430,1070430
6360.06,-0.104545,0,1071072,1071072
6371.34,-0.100622,0,1072514,1072514
6380.92,-0.0972734,0,1073829,1073829
6391.15,-0.0935918,0,1073890,1073890
6400.48,-0.0901275,0,1073187,1073187
6410.15,-0.0862014,0,1074650,1074650
6421.27,-0.0812812,0,1077138,1077138
6431.31,-0.0766941,0,1078236,1078236
6441.39,-0.0720695,0,1078214,1078214
6450.73,-0.0677997,0,1079442,1079442
6460.39,-0.0634241,0,1080957,1080957
6470.75,-0.0587992,0,1082564,1082564
6480.91,-0.0543314,0,1082052,1082052
6490.36,-0.0502378,0,1082227,1082227
6500.22,-0.046011,0,1084261,1084261
6511.5,-0.0411974,0,1086004,1086004
6520.18,-0.0374837,0,1087539,1087539
6530.28,-0.0331399,0,1088000,1088000
6540.33,-0.0288286,0,1089626,1089626
6551.26,-0.0241949,0,1092429,1092429
6560.83,-0.0202379,0,1091559,1091559
6571.24,-0.0160658,0,1092390,1092390
6580.25,-0.0125915,0,1093073,1093073
6590.8,-0.00869838,0,1096238,1096238
6601.27,-0.00503,0,1097959,1097959
6611.25,-0.00171585,0,1099183,1099183
6620.78,0.00129243,0,1098265,1098265
6630.04,0.00408107,0,1097696,1097696
6641.31,0.00731178,0,1100173,1100173
6650.14,0.00972556,0,1103254,1103254
6660.08,0.0123257,0,1103953,1103953
6670.48,0.0149169,0,1104603,1104603
6681.07,0.0174221,0,1104812,1104812
6690.73,0.0195904,0,1107698,1107698
6700.39,0.0216456,0,1110361,1110361
6710.43,0.0236599,0,1109697,1109697
6721.51,0.0257474,0,1109762,1109762
6730.91,0.0274069,0,1112006,1112006
6740.58,0.02901,0,1115511,1115511
6750.73,0.0305854,0,1117680,1117680
6760.17,0.0319523,0,1117994,1117994
6771.26,0.0334442,0,1122184,1122184
6780.45,0.0342445,0,1121962,1121962
6790.91,0.0354784,0,1122822,1122822
6800.01,0.0364116,0,1123862,1123862
6810.85,0.0374607,0,1123778,1123778
6820.32,0.0382907,0,1126138,1126138
6831.02,0.0391146,0,1126967,1126967
6840.32,0.0397916,0,1126908,1126908
6851.25,0.0403632,0,1126792,1126792
6860.15,0.040478,0,1128270,1128270
6871.25,0.040376,0,1130458,1130458
6880.63,0.0402366,0,1132894,1132894
6891.24,0.0400669,0,1136234,1136234
6900.4,0.0398414,0,1135658,1135658
6911.23,0.0395026,0,1134691,1134691
6920.36,0.0391864,0,1134492,1134492
6931,0.0387236,0,1135599,1135599
6941.37,0.03815,0,1137059,1137059
6950.46,0.0375409,0,1137453,1137453
6961.04,0.0371996,0,1139883,1139883
6970.06,0.0366243,0,1142105,1142105
6980.36,0.0357021,0,1143165,1143165
6990.75,0.0346394,0,1141331,1141331
7001.03,0.0335408,0,1140248,1140248
7011.16,0.0323869,0,1139397,1139397
7021.1,0.0311246,0,1141651,1141651
7031.05,0.0297578,0,1143967,1143967
7041.01,0.0283013,0,1145256,1145256
7051.11,0.0271033,0,1144285,1144285
7061.23,0.0254651,0,1144393,1144393
7071.28,0.0233399,0,1145759,1145759
7081.21,0.0210758,0,1147489,1147489
7091.14,0.0188289,0,1150305,1150305
7101.07,0.0165032,0,1148969,1148969
7110.99,0.0141784,0,1147004,1147004
7120.92,0.0118531,0,1148517,1148517
7130.85,0.00949032,0,1150043,1150043
7140.78,0.00707986,0,1151312,1151312
7150.73,0.00463375,0,1151188,1151188
7160.69,0.00217554,0,1152467,1152467
7170.67,-0.000271227,0,1153423,1153423
7180.65,-0.00268127,0,1153256,1153256
7190.63,-0.00504347,0,1152643,1152643
7200.62,-0.00735902,0,1155219,1155219
7210.6,-0.00963696,0,1155753,1155753
7220.58,-0.0118879,0,1156160,1156160
7230.56,-0.0141187,0,1158052,1158052
7240.54,-0.0163302,0,1160900,1160900
7250.52,-0.0185174,0,1160899,1160899
7260.5,-0.0206723,0,1161724,1161724
7270.53,-0.0227961,0,1163732,1163732
7280.62,-0.0248875,0,1166043,1166043
7290.75,-0.0269349,0,1168133,1168133
7300.93,-0.0289398,0,1166358,1166358
7311.13,-0.0308918,0,1167063,1167063
7321.39,-0.0327987,0,1169912,1169912
7330.19,-0.0343824,0,1171696,1171696
7340.53,-0.0361753,0,1172942,1172942
7350.91,-0.0378959,0,1173886,1173886
7361.32,-0.0395316,0,1174856,1174856
7370.31,-0.040864,0,1176434,1176434
7380.9,-0.042321,0,1175830,1175830
7390.05,-0.0434602,0,1176605,1176605
7400.76,-0.0446911,0,1179277,1179277
7411.47,-0.0458169,0,1180599,1180599
7420.32,-0.0466788,0,1183317,1183317
7430.52,-0.0475918,0,1184293,1184293
7441.04,-0.0482942,0,1184046,1184046
7450.02,-0.0494306,0,1183711,1183711
7460.13,-0.0493972,0,1184376,1184376
7470.51,-0.0492794,0,1186464,1186464
7480.91,-0.0491139,0,1190048,1190048
7491.27,-0.0488069,0,1189848,1189848
7500.13,-0.0484542,0,1189636,1189636
7510.44,-0.0479252,0,1192192,1192192
7520.72,-0.0472648,0,1194317,1194317
7530.99,-0.0465069,0,1194204,1194204
7541.23,-0.0456598,0,1194941,1194941
7551.4,-0.0446825,0,1197379,1197379
7560.14,-0.0438311,0,1198049,1198049
7570.34,-0.0427869,0,1198122,1198122
7580.54,-0.0416029,0,1199836,1199836
7590.75,-0.0402699,0,1202129,1202129
7600.96,-0.0388066,0,1204334,1204334
7611.16,-0.037237,0,1203675,1203675
7621.37,-0.0356688,0,1206804,1206804
7630.12,-0.033949,0,1209182,1209182
7640.32,-0.0316716,0,1211334,1211334
7650.53,-0.0291873,0,1211762,1211762
7660.74,-0.0265038,0,1212982,1212982
7670.94,-0.0236355,0,1214982,1214982
7681.15,-0.0205989,0,1215273,1215273
7691.36,-0.0174018,0,1218226,1218226
7700.1,-0.014572,0,1220192,1220192
7710.31,-0.0104174,0,1220798,1220798
7720.52,-0.00673534,0,1219730,1219730
7730.72,-0.00298917,0,1220058,1220058
7740.93,0.000947191,0,1221998,1221998
7751.14,0.00496014,0,1223771,1223771
7761.35,0.00905342,0,1226857,1226857
7770.11,0.0126417,0,1228462,1228462
7780.38,0.0169097,0,1227986,1227986
7790.67,0.0212141,0,1227635,1227635
7800.98,0.0255646,0,1230027,1230027
7811.3,0.0299858,0,1232418,1232418
7820.16,0.0338386,0,1234024,1234024
7830.5,0.0383925,0,1233138,1233138
7840.84,0.0429969,0,1235909,1235909
7851.18,0.0476485,0,1238044,1238044
7860.04,0.051679,0,1237809,1237809
7870.38,0.0564422,0,1238492,1238492
7880.72,0.061278,0,1239619,1239619
7891.07,0.0661848,0,1239070,1239070
7901.42,0.0711423,0,1238959,1238959
7910.3,0.075406,0,1239283,1239283
7920.66,0.0803563,0,1241221,1241221
7931.03,0.0852382,0,1242416,1242416
7941.43,0.0900201,0,1242096,1242096
7950.38,0.0940057,0,1240553,1240553
7960.84,0.0984966,0,1239071,1239071
7971.37,0.102811,0,1240239,1240239
7980.44,0.106348,0,1241785,1241785
7991.06,0.110273,0,1240704,1240704
8000.22,0.113473,0,1242267,1242267
8010.99,0.117016,0,1242377,1242377
8020.23,0.119865,0,1242567,1242567
8030.7,0.122884,0,1243688,1243688
8041.48,0.125753,0,1243497,1243497
8050.71,0.128015,0,1245803,1245803
8061.48,0.130419,0,1247845,1247845
8070.72,0.132271,0,1248121,1248121
8081.49,0.134183,0,1248513,1248513
8090.73,0.135606,0,1249839,1249839
8101.3,0.137077,0,1251638,1251638
8110.54,0.138494,0,1250652,1250652
8121.31,0.139854,0,1250159,1250159
8130.55,0.140623,0,1251024,1251024
8141.34,0.140897,0,1252561,1252561
8150.59,0.140851,0,1253867,1253867
8161.37,0.140709,0,1254859,1254859
8170.62,0.139465,0,1256207,1256207
8181.34,0.139141,0,1256620,1256620
8190.58,0.138719,0,1256716,1256716
8201.11,0.138132,0,1259024,1259024
8210.16,0.137566,0,1259415,1259415
8220.96,0.136856,0,1261724,1261724
8230.01,0.136235,0,1263601,1263601
8240.39,0.135474,0,1263485,1263485
8251.13,0.134624,0,1263392,1263392
8260.48,0.134337,0,1263503,1263503
8271.1,0.133527,0,1264367,1264367
8280.16,0.132539,0,1266744,1266744
8290.9,0.131164,0,1268075,1268075
8300.21,0.129873,0,1269551,1269551
8311.05,0.128548,0,1269990,1269990
8320.08,0.127398,0,1270651,1270651
8330.92,0.125567,0,1271853,1271853
8340.21,0.123877,0,1273240,1273240
8351.05,0.121869,0,1274065,1274065
8360.34,0.120038,0,1275682,1275682
8371.18,0.117713,0,1275100,1275100
8380.47,0.115636,0,1275369,1275369
8391.31,0.113142,0,1276876,1276876
8400.6,0.110923,0,1276852,1276852
8411.44,0.108226,0,1278884,1278884
8420.73,0.105829,0,1280557,1280557
8430.02,0.103365,0,1281874,1281874
8440.86,0.100412,0,1281407,1281407
8450.15,0.0978243,0,1282058,1282058
8460.99,0.0947563,0,1283526,1283526
8470.28,0.0920897,0,1284152,1284152
8481.12,0.0890278,0,1285335,1285335
8490.41,0.0861086,0,1284512,1284512
8501.24,0.0834145,0,1286183,1286183
8510.43,0.0800698,0,1286507,1286507
8521.12,0.076059,0,1284554,1284554
8530.36,0.0728882,0,1285421,1285421
8541.3,0.069408,0,1288512,1288512
8550.7,0.0666895,0,1287753,1287753
8560.14,0.0641109,0,1287412,1287412
8571.03,0.0610937,0,1290617,1290617
8580.19,0.0585763,0,1288486,1288486
8590.98,0.0557598,0,1287321,1287321
8600.32,0.0534915,0,1288776,1288776
8611.01,0.051079,0,1290931,1290931
8620.17,0.0491225,0,1291782,1291782
8631.04,0.0469064,0,1291489,1291489
8640.49,0.0450814,0,1292230,1292230
8651.53,0.0430747,0,1293453,1293453
8660.82,0.0415001,0,1296168,1296168
8671.51,0.0398343,0,1294236,1294236
8680.84,0.0385143,0,1293746,1293746
8690.3,0.0372652,0,1294328,1294328
8701.34,0.0360767,0,1294715,1294715
8710.76,0.0348035,0,1295333,1295333
8720.22,0.0335922,0,1295438,1295438
8731.27,0.0324378,0,1294626,1294626
8740.79,0.0316612,0,1293295,1293295
8750.37,0.0308928,0,1296956,1296956
8760.01,0.0300746,0,1297687,1297687
8770.78,0.0292293,0,1297317,1297317
8781.49,0.0281065,0,1297169,1297169
8790.89,0.02759,0,1295309,1295309
8800.51,0.0271185,0,1294507,1294507
8810.19,0.0266305,0,1297143,1297143
8821.48,0.0260302,0,1298119,1298119
8831.16,0.0255628,0,1295238,1295238
8840.85,0.0251281,0,1294875,1294875
8850.53,0.024836,0,1295669,1295669
8860.21,0.0246464,0,1298949,1298949
8871.48,0.0243075,0,1301218,1301218
8881,0.0239517,0,1299840,1299840
8890.53,0.0235529,0,1301456,1301456
8901.46,0.0230657,0,1301285,1301285
8910.81,0.0226384,0,1301676,1301676
8920.01,0.0222139,0,1302200,1302200
8930.75,0.0217143,0,1304316,1304316
8941.48,0.0212056,0,1304638,1304638
8950.69,0.0207576,0,1304035,1304035
8961.44,0.0202149,0,1303954,1303954
8970.67,0.0197291,0,1305008,1305008
8981.45,0.0191355,0,1306946,1306946
8990.74,0.0185995,0,1309778,1309778
9000.04,0.0180397,0,1311103,1311103
9010.94,0.0173509,0,1310475,1310475
9020.31,0.016732,0,1309544,1309544
9031.24,0.0159768,0,1312838,1312838
9040.57,0.0153065,0,1314907,1314907
9050.03,0.014602,0,1316168,1316168
9061,0.0137698,0,1315302,1315302
9070.57,0.0130126,0,1314697,1314697
9080.17,0.0122253,0,1316771,1316771
9091.34,0.0112813,0,1316109,1316109
9100.84,0.0104545,0,1317663,1317663
9110.32,0.00959819,0,1318810,1318810
9121.51,0.0085397,0,1319835,1319835
9131.1,0.00759388,0,1320246,1320246
9140.61,0.00662401,0,1321517,1321517
9150.05,0.00563219,0,1323414,1323414
9161.01,0.00444897,0,1322540,1322540
9170.4,0.00341009,0,1323727,1323727
9181.36,0.00217111,0,1322450,1322450
9190.75,0.00108889,0,1322149,1322149
9200.14,-9.88156e-06,0,1321589,1321589
9211.09,-0.00132363,0,1323938,1323938
9220.48,-0.00249731,0,1325455,1325455
9231.44,-0.00388485,0,1325903,1325903
9240.83,-0.00508658,0,1327407,1327407
9250.22,-0.00654629,0,1326401,1326401
9261.17,-0.00834705,0,1326166,1326166
9270.56,-0.00987798,0,1326866,1326866
9281.53,-0.0117361,0,1326338,1326338
9290.96,-0.0134112,0,1330350,1330350
9300.44,-0.0145183,0,1330980,1330980
9310.01,-0.0162596,0,1328171,1328171
9321.21,-0.0188095,0,1329871,1329871
9330.7,-0.0209192,0,1331147,1331147
9340.3,-0.0229611,0,1331163,1331163
9351.49,-0.0254954,0,1330215,1330215
9361.09,-0.0278576,0,1332799,1332799
9370.69,-0.0305575,0,1333846,1333846
9381.42,-0.0340693,0,1331482,1331482
9390.93,-0.0373213,0,1331771,1331771
9400.53,-0.0406509,0,1331085,1331085
9410.12,-0.0440437,0,1332218,1332218
9421.29,-0.048037,0,1335320,1335320
9430.85,-0.0513628,0,1337057,1337057
9441.49,-0.0554912,0,1334901,1334901
9450.99,-0.059464,0,1333053,1333053
9460.55,-0.0630147,0,1335597,1335597
9470.14,-0.0662809,0,1338610,1338610
9481.34,-0.0704085,0,1340877,1340877
9490.94,-0.0743586,0,1340007,1340007
9501.4,-0.0788241,0,1339939,1339939
9510.51,-0.0827105,0,1338560,1338560
9520.11,-0.0868167,0,1339488,1339488
9531.25,-0.0916381,0,1339529,1339529
9540.06,-0.0954476,0,1340279,1340279
9550.97,-0.100069,0,1341282,1341282
9560.41,-0.10393,0,1342068,1342068
9571.38,-0.108223,0,1341998,1341998
9580.77,-0.111714,0,1340507,1340507
9590.16,-0.11504,0,1344274,1344274
9601.02,-0.118703,0,1347686,1347686
9611.54,-0.12207,0,1344859,1344859
9620.93,-0.124921,0,1344088,1344088
9630.32,-0.127615,0,1345034,1345034
9641.27,-0.130532,0,1346480,1346480
9650.66,-0.132871,0,1347994,1347994
9660.05,-0.134916,0,1347915,1347915
9671.01,-0.137024,0,1346671,1346671
9680.4,-0.138589,0,1348045,1348045
9690.76,-0.139909,0,1349404,1349404
9700.15,-0.141334,0,1350234,1350234
9711.1,-0.141478,0,1351379,1351379
9720.49,-0.141612,0,1350527,1350527
9731.45,-0.14154,0,1353890,1353890
9740.84,-0.141322,0,1356361,1356361
9750.81,-0.141154,0,1356214,1356214
9760.2,-0.14094,0,1355933,1355933
9771.15,-0.14029,0,1356895,1356895
9781.38,-0.139907,0,1359191,1359191
9790.77,-0.139547,0,1359254,1359254
9800.16,-0.139156,0,1359290,1359290
9811.12,-0.138645,0,1362719,1362719
9821.27,-0.138143,0,1362473,1362473
9831.4,-0.137568,0,1361326,1361326
9840.79,-0.136951,0,1363481,1363481
9850.18,-0.136258,0,1366131,1366131
9861.15,-0.135138,0,1368108,1368108
9870.45,-0.133901,0,1369477,1369477
9881.09,-0.132665,0,1367812,1367812
9890.68,-0.131615,0,1368159,1368159
9900.28,-0.130548,0,1370557,1370557
9911.48,-0.129243,0,1371383,1371383
9921.05,-0.128087,0,1368991,1368991
9930.63,-0.126899,0,1369933,1369933
9940.23,-0.125662,0,1371492,1371492
9950.92,-0.124316,0,1372978,1372978
9961.43,-0.122884,0,1370101,1370101
9970.98,-0.12127,0,1370357,1370357
9980.48,-0.119551,0,1373374,1373374
9991.58,-0.11817,0,1372611,1372611
10001.1,-0.116216,0,1373555,1373555
10010.6,-0.113968,0,1374433,1374433
10020.1,-0.111569,0,1375485,1375485
10031.3,-0.108827,0,1375997,1375997
10040.3,-0.10656,0,1374692,1374692
10051.2,-0.10369,0,1373013,1373013
10060.8,-0.100967,0,1374004,1374004
10070.4,-0.0980789,0,1376259,1376259
10080,-0.095153,0,1374521,1374521
10090.8,-0.0918573,0,1375566,1375566
10101.2,-0.0882746,0,1371955,1371955
10110.9,-0.0848118,0,1371234,1371234
10120.3,-0.0815778,0,1374118,1374118
10131.5,-0.0778578,0,1374680,1374680
10141.1,-0.0743178,0,1376310,1376310
10150.7,-0.0708111,0,1373972,1373972
10160.3,-0.0677198,0,1369757,1369757
10171.5,-0.064306,0,1370666,1370666
10180.8,-0.0614087,0,1370830,1370830
10190.4,-0.0583561,0,1370447,1370447
10201.6,-0.0548441,0,1366573,1366573
10211.2,-0.0519257,0,1365646,1365646
10220.8,-0.0490673,0,1367197,1367197
10230.4,-0.0462404,0,1368176,1368176
10241.6,-0.0429848,0,1365785,1365785
10251.2,-0.0402517,0,1366481,1366481
10260.7,-0.0375778,0,1367206,1367206
10270.3,-0.0349768,0,1366831,1366831
10281.3,-0.0322123,0,1363849,1363849
10290.4,-0.0300189,0,1363567,1363567
10301.5,-0.0273424,0,1367251,1367251
10311.1,-0.025099,0,1370345,1370345
10320.7,-0.0229179,0,1370298,1370298
10330.2,-0.0208312,0,1372345,1372345
10341.3,-0.0184463,0,1373964,1373964
10350.9,-0.0164856,0,1374211,1374211
10360.5,-0.0146317,0,1379131,1379131
10370.1,-0.0128843,0,1381736,1381736
10381.3,-0.0109722,0,1382332,1382332
10390.9,-0.00945806,0,1385231,1385231
10400.4,-0.00807564,0,1388432,1388432
10411.5,-0.0062796,0,1389494,1389494
10421,-0.00530747,0,1391276,1391276
10430.4,-0.00421537,0,1393836,1393836
10441.5,-0.00373935,0,1394159,1394159
10451,-0.00329143,0,1395793,1395793
10460.5,-0.00285354,0,1396134,1396134
10470.6,-0.00264506,0,1397388,1397388
10480.1,-0.00240778,0,1396240,1396240
10491.3,-0.00220682,0,1398816,1398816
10500.8,-0.00191134,0,1396462,1396462
10510.3,-0.00165774,0,1398591,1398591
10521.3,-0.00181079,0,1401173,1401173
10530.8,-0.00173569,0,1402026,1402026
10540.3,-0.00163741,0,1400981,1400981
10551.4,-0.00156935,0,1402641,1402641
10560.9,-0.00157773,0,1404388,1404388
10570.4,-0.00164895,0,1404487,1404487
10581.4,-0.00178076,0,1405494,1405494
10590.9,-0.0019376,0,1407732,1407732
10600.4,-0.00213527,0,1410104,1410104
10611.5,-0.0024286,0,1409676,1409676
10621,-0.00273799,0,1410948,1410948
10630.5,-0.00312392,0,1410350,1410350
10641.6,-0.0036387,0,1410730,1410730
10651,-0.00412892,0,1411483,1411483
10660.6,-0.00466761,0,1411693,1411693
10670.1,-0.00525056,0,1411335,1411335
10681.2,-0.0059764,0,1410266,1410266
10690.8,-0.00662377,0,1411825,1411825
10700.4,-0.00728838,0,1412024,1412024
10710,-0.00799757,0,1410562,1410562
10721.2,-0.00888884,0,1411651,1411651
10730.8,-0.0103166,0,1411062,1411062
10740.4,-0.0115113,0,1411709,1411709
10750,-0.0125941,0,1411659,1411659
10761.3,-0.0137928,0,1411002,1411002
10771,-0.0147892,0,1410216,1410216
10780.6,-0.015806,0,1409433,1409433
10790.3,-0.0168689,0,1410894,1410894
10801.6,-0.0181694,0,1410565,1410565
10811.2,-0.0193293,0,1408425,1408425
10820.9,-0.0205234,0,1407581,1407581
10830.5,-0.02175,0,1409913,1409913
10840.2,-0.0229997,0,1410671,1410671
10851.5,-0.0244909,0,1407940,1407940
10861.1,-0.0257955,0,1406276,1406276
10870.8,-0.0271077,0,1405332,1405332
10880.4,-0.0283902,0,1406292,1406292
10890.1,-0.0296172,0,1407223,1407223
10901.3,-0.031095,0,1405474,1405474
10910.9,-0.032439,0,1402724,1402724
10920.5,-0.0338433,0,1402242,1402242
10930.1,-0.0352909,0,1404211,1404211
10941.3,-0.0369054,0,1404057,1404057
10950.9,-0.0384185,0,1401802,1401802
10960.5,-0.0400959,0,1400353,1400353
10970.1,-0.0416359,0,1400946,1400946
10981.3,-0.043268,0,1401571,1401571
10990.9,-0.0446113,0,1400218,1400218
11000.5,-0.0459356,0,1401201,1401201
11010.1,-0.0472588,0,1401418,1401418
11021.2,-0.0487751,0,1398752,1398752
11030.8,-0.0500164,0,1398693,1398693
11040.4,-0.0520824,0,1396600,1396600
11050,-0.0532092,0,1397377,1397377
11061.2,-0.0544665,0,1396003,1396003
11070.8,-0.0554198,0,1395961,1395961
11080.5,-0.0562684,0,1397585,1397585
11090.1,-0.0570294,0,1399527,1399527
11101.4,-0.0578294,0,1400008,1400008
11111.1,-0.0575892,0,1396621,1396621
11120.7,-0.0581923,0,1396344,1396344
11130.4,-0.0587091,0,1395409,1395409
11141.4,-0.0589626,0,1395356,1395356
11150.8,-0.0591544,0,1393284,1393284
11160.4,-0.0593988,0,1393688,1393688
11170,-0.0580551,0,1393261,1393261
11181.3,-0.056681,0,1390144,1390144
11190.5,-0.0566567,0,1389725,1389725
11200,-0.056581,0,1389507,1389507
11211.2,-0.0564454,0,1390129,1390129
11220.7,-0.0562888,0,1387595,1387595
11230.3,-0.0560988,0,1386104,1386104
11241.4,-0.0560157,0,1386048,1386048
11251,-0.0571506,0,1385718,1385718
11260.1,-0.0578373,0,1384738,1384738
11270.6,-0.057917,0,1385088,1385088
11280.2,-0.0574904,0,1384747,1384747
11291.3,-0.056608,0,1381532,1381532
11300.9,-0.0557046,0,1381860,1381860
11310.3,-0.0548288,0,1381122,1381122
11320.9,-0.0539136,0,1381941,1381941
11330.9,-0.053061,0,1380101,1380101
11341.2,-0.0521706,0,1379595,1379595
11350.2,-0.0513404,0,1378086,1378086
11360.4,-0.050344,0,1379133,1379133
11370.9,-0.0492977,0,1377868,1377868
11381.4,-0.0482314,0,1378861,1378861
11390.2,-0.0472751,0,1376516,1376516
11400.6,-0.0460974,0,1375363,1375363
11410.9,-0.044864,0,1374669,1374669
11421.4,-0.043573,0,1374833,1374833
11430.2,-0.0424405,0,1375942,1375942
11440.4,-0.0410933,0,1372218,1372218
11450.5,-0.0397431,0,1372646,1372646
11460.6,-0.0383725,0,1371903,1371903
11470.7,-0.0369855,0,1371472,1371472
11480.8,-0.0355911,0,1374270,1374270
11490.9,-0.0341388,0,1376078,1376078
11501,-0.0329895,0,1377596,1377596
11511.1,-0.0313044,0,1376836,1376836
11521.2,-0.0293459,0,1375498,1375498
11531.3,-0.0271599,0,1372723,1372723
11541.4,-0.0249133,0,1374758,1374758
11550,-0.0229883,0,1376700,1376700
11560.1,-0.0207092,0,1375987,1375987
11570.2,-0.0183654,0,1373371,1373371
11580.3,-0.0159508,0,1371787,1371787
11590.4,-0.0134601,0,1372600,1372600
11600.5,-0.010889,0,1374141,1374141
11610.6,-0.00825089,0,1372649,1372649
11620.6,-0.00557334,0,1372698,1372698
11630.7,-0.00287952,0,1373105,1373105
11640.8,-0.000178944,0,1374102,1374102
11650.9,0.00252817,0,1374459,1374459
11661,0.00524454,0,1373670,1373670
11671.1,0.00797117,0,1373340,1373340
11681.2,0.0107126,0,1373721,1373721
11691.3,0.0135041,0,1375284,1375284
11701.4,0.0163837,0,1374004,1374004
11710,0.0187967,0,1373892,1373892
11720.1,0.0218438,0,1373982,1373982
11730.4,0.0244002,0,1373292,1373292
11740.8,0.028032,0,1374693,1374693
11750,0.0313076,0,1374121,1374121
11760.9,0.0354687,0,1374407,1374407
11770.2,0.0388719,0,1375373,1375373
11781,0.042765,0,1373292,1373292
11790.4,0.0458929,0,1371682,1371682
11801.4,0.0493906,0,1369503,1369503
11810.3,0.0522696,0,1368696,1368696
11821,0.0557928,0,1367553,1367553
11830.5,0.0588667,0,1366236,1366236
11841.5,0.0623183,0,1366665,1366665
11850.9,0.0651388,0,1365369,1365369
11860.3,0.0678923,0,1365887,1365887
11871.3,0.0710777,0,1365239,1365239
11880.3,0.0736909,0,1363127,1363127
11891.4,0.0768494,0,1361119,1361119
11900.9,0.0794754,0,1359875,1359875
11910.5,0.0819846,0,1357456,1357456
11921.4,0.0848146,0,1357479,1357479
11930.1,0.0870078,0,1356894,1356894
11941.1,0.089713,0,1355032,1355032
11950.7,0.0919825,0,1356146,1356146
11960.2,0.0941782,0,1360016,1360016
11971,0.0965962,0,1358330,1358330
11980.3,0.0985977,0,1356518,1356518
11991.5,0.100934,0,1356569,1356569
12001.1,0.10285,0,1357362,1357362
12010.8,0.104684,0,1356475,1356475
12020.4,0.106429,0,1355609,1355609
12030.1,0.108086,0,1356660,1356660
12041.3,0.109912,0,1358446,1358446
12050.9,0.11137,0,1358899,1358899
12060.5,0.11276,0,1356791,1356791
12070.1,0.114084,0,1354563,1354563
12081.2,0.115591,0,1356125,1356125
12090.8,0.116898,0,1355436,1355436
12100.3,0.118263,0,1352359,1352359
12111.5,0.119814,0,1350933,1350933
12121.1,0.120536,0,1350752,1350752
12130.7,0.120948,0,1349665,1349665
12140.2,0.121508,0,1346243,1346243
12151.3,0.121762,0,1345147,1345147
12160.9,0.1216,0,1344462,1344462
12170.4,0.121483,0,1345253,1345253
12181.5,0.120417,0,1343067,1343067
12191,0.120132,0,1340304,1340304
12200.4,0.119791,0,1339091,1339091
12211.4,0.119388,0,1340618,1340618
12220.7,0.11907,0,1340561,1340561
12230.1,0.118793,0,1340487,1340487
12241,0.118451,0,1336849,1336849
12250.4,0.118109,0,1336534,1336534
12261.3,0.117646,0,1336777,1336777
12270.6,0.1172,0,1337548,1337548
12281.5,0.11664,0,1337054,1337054
12290.9,0.116139,0,1336489,1336489
12300.3,0.11563,0,1338437,1338437
12311.2,0.115031,0,1339140,1339140
12320.5,0.114512,0,1342574,1342574
12331.4,0.113895,0,1342643,1342643
12340.8,0.113353,0,1342225,1342225
12350.2,0.1128,0,1342352,1342352
12361.2,0.112142,0,1340815,1340815
12370.5,0.111573,0,1338705,1338705
12381.5,0.110902,0,1339742,1339742
12391,0.110327,0,1341850,1341850
12400.4,0.109759,0,1341925,1341925
12411.5,0.109106,0,1344413,1344413
12421,0.108549,0,1346622,1346622
12430.6,0.107997,0,1346416,1346416
12440.1,0.107453,0,1347118,1347118
12451.2,0.106817,0,1345747,1345747
12460.8,0.106267,0,1344760,1344760
12470.4,0.105713,0,1344745,1344745
12481.6,0.10506,0,1344613,1344613
12491.1,0.104493,0,1344418,1344418
12500.6,0.103918,0,1342131,1342131
12510.1,0.103339,0,1341231,1341231
12521.1,0.102662,0,1339573,1339573
12530.5,0.102078,0,1342078,1342078
12541.4,0.101385,0,1338575,1338575
12550.7,0.100781,0,1336854,1336854
12560.1,0.100167,0,1334273,1334273
12571,0.0994385,0,1334613,1334613
12580.4,0.0988491,0,1335838,1335838
12591.3,0.0982101,0,1335119,1335119
12600.6,0.0976187,0,1333800,1333800
12611.6,0.0968483,0,1331866,1331866
12620.9,0.0961429,0,1328115,1328115
12630.3,0.0954167,0,1327957,1327957
12641.2,0.0946007,0,1331157,1331157
12650.5,0.0936698,0,1331006,1331006
12661.5,0.0921592,0,1329079,1329079
12670.8,0.0909322,0,1327920,1327920
12680.2,0.0897452,0,1326594,1326594
12691.1,0.0883884,0,1326015,1326015
12700.5,0.0872048,0,1329009,1329009
12710.2,0.0859186,0,1329141,1329141
12721.1,0.0843989,0,1326226,1326226
12730.4,0.0830404,0,1324792,1324792
12741.3,0.0814068,0,1324773,1324773
12750.6,0.0799743,0,1327216,1327216
12761.5,0.0782803,0,1326818,1326818
12770.8,0.0768176,0,1325282,1325282
12780.1,0.0753519,0,1325878,1325878
12791,0.0736493,0,1327976,1327976
12800.3,0.0722042,0,1330153,1330153
12811.2,0.0705264,0,1330065,1330065
12820.5,0.0694141,0,1329275,1329275
12831.4,0.0677968,0,1327970,1327970
12840.8,0.0661967,0,1329876,1329876
12850.3,0.0645912,0,1330552,1330552
12861.2,0.0627921,0,1328572,1328572
12870.4,0.0613436,0,1328718,1328718
12881.2,0.0597328,0,1331931,1331931
12890.4,0.058252,0,1332584,1332584
12901.2,0.0563732,0,1331287,1331287
12910.4,0.0546851,0,1328805,1328805
12921.1,0.0526811,0,1327972,1327972
12930.3,0.0509595,0,1329401,1329401
12941.1,0.0489568,0,1329821,1329821
12950.3,0.0472413,0,1328168,1328168
12961.1,0.0452299,0,1328787,1328787
12970.3,0.0434898,0,1327997,1327997
12981,0.0414377,0,1327063,1327063
12990.3,0.0396607,0,1326896,1326896
13001,0.0375671,0,1327433,1327433
13010.3,0.0357573,0,1325920,1325920
13021.1,0.0336185,0,1324880,1324880
13030.4,0.0317726,0,1326166,1326166
13041.3,0.0296076,0,1328695,1328695
13050.6,0.0277436,0,1329402,1329402
13061.4,0.0255609,0,1328440,1328440
13070.8,0.0236844,0,1327289,1327289
13080.1,0.0218034,0,1327683,1327683
13090.9,0.0196036,0,1329772,1329772
13100.2,0.0177137,0,1329004,1329004
13111.1,0.0155032,0,1327800,1327800
13120.4,0.0136037,0,1327925,1327925
13131.3,0.0113821,0,1329251,1329251
13140.6,0.00947346,0,1330493,1330493
13151.4,0.00724281,0,1329973,1329973
13160.7,0.00532888,0,1327372,1327372
13170,0.00341502,0,1327714,1327714
13180.9,0.00118527,0,1328524,1328524
13190.2,-0.000720274,0,1328400,1328400
13201,-0.00291268,0,1327504,1327504
13210.2,-0.0047781,0,1326437,1326437
13221,-0.00693611,0,1325775,1325775
13230.2,-0.00876737,0,1326114,1326114
13240.9,-0.0108795,0,1324238,1324238
13250.1,-0.0126675,0,1321922,1321922
13260.9,-0.0147261,0,1322936,1322936
13270.1,-0.0164664,0,1323408,1323408
13280.9,-0.0184683,0,1324112,1324112
13290.1,-0.0201597,0,1322244,1322244
13300.8,-0.0221042,0,1319185,1319185
13310.1,-0.0237462,0,1319815,1319815
13320.8,-0.0256324,0,1322216,1322216
13330,-0.0272234,0,1321731,1321731
13340.8,-0.0290485,0,1320433,1320433
13351.5,-0.0308388,0,1317593,1317593
13360.8,-0.0323444,0,1315476,1315476
13371.5,-0.0340654,0,1313487,1313487
13380.7,-0.0355086,0,1314482,1314482
13391.5,-0.0371531,0,1313246,1313246
13400.7,-0.0385275,0,1313723,1313723
13411.5,-0.0400877,0,1312888,1312888
13420.7,-0.0413866,0,1310924,1310924
13431.4,-0.042855,0,1308752,1308752
13440.6,-0.0441261,0,1309577,1309577
13451.4,-0.0455717,0,1312270,1312270
13460.6,-0.0466655,0,1312023,1312023
13471.4,-0.0478883,0,1309112,1309112
13480.6,-0.0489003,0,1308065,1308065
13491.4,-0.0500438,0,1308323,1308323
13500.6,-0.0509879,0,1308564,1308564
13511.4,-0.0520393,0,1308700,1308700
13520.7,-0.0528941,0,1307940,1307940
13531.5,-0.0538264,0,1307338,1307338
13540.7,-0.0545718,0,1306459,1306459
13551.6,-0.0553898,0,1306893,1306893
13560.9,-0.056052,0,1308165,1308165
13570.2,-0.0567351,0,1307966,1307966
13580.9,-0.0574519,0,1308233,1308233
13590.2,-0.0582452,0,1308430,1308430
13600.9,-0.0586218,0,1308577,1308577
13610.2,-0.0590822,0,1309796,1309796
13621,-0.0596594,0,1309547,1309547
13630.3,-0.0601193,0,1310502,1310502
13641.2,-0.0605662,0,1309776,1309776
13650.5,-0.0608882,0,1308888,1308888
13661.3,-0.0612692,0,1309417,1309417
13670.5,-0.0615092,0,1311936,1311936
13681.3,-0.0618329,0,1311317,1311317
13690.5,-0.061973,0,1310932,1310932
13701.3,-0.0624943,0,1309486,1309486
13710.5,-0.0625717,0,1310528,1310528
13721.2,-0.0625476,0,1311866,1311866
13730.5,-0.0624687,0,1311467,1311467
13741.2,-0.0623417,0,1312211,1312211
13750.4,-0.0622024,0,1311538,1311538
13761.2,-0.0619851,0,1310049,1310049
13770.4,-0.0617615,0,1308504,1308504
13781.2,-0.0614728,0,1309324,1309324
13790.4,-0.0612052,0,1309126,1309126
13801.1,-0.0608756,0,1308796,1308796
13810.3,-0.0605802,0,1307105,1307105
13821.1,-0.0602238,0,1305550,1305550
13830.3,-0.059909,0,1305768,1305768
13841,-0.0595334,0,1306452,1306452
13851.2,-0.0591702,0,1304818,1304818
13860.4,-0.0588441,0,1303949,1303949
13871.1,-0.0584657,0,1303402,1303402
13880,-0.0581543,0,1301706,1301706
13890.7,-0.0577656,0,1301377,1301377
13901.5,-0.0573526,0,1299091,1299091
13910.7,-0.0570691,0,1299255,1299255
13921.2,-0.0566611,0,1299387,1299387
13931,-0.0562427,0,1297650,1297650
13940.9,-0.0558083,0,1297268,1297268
13950.8,-0.055362,0,1298403,1298403
13961,-0.0549043,0,1297994,1297994
13971.2,-0.0544489,0,1297992,1297992
13981.1,-0.0539984,0,1297940,1297940
13991,-0.0535318,0,1298181,1298181
14000.9,-0.0530482,0,1299096,1299096
14010.8,-0.0525357,0,1295913,1295913
14020.7,-0.0520053,0,1295171,1295171
14030.6,-0.0514636,0,1293881,1293881
14040.5,-0.050912,0,1292006,1292006
14050.4,-0.0503507,0,1292963,1292963
14060.3,-0.0497788,0,1292536,1292536
14070.2,-0.0491955,0,1292403,1292403
14080,-0.0486002,0,1293745,1293745
14091.3,-0.0479052,0,1294555,1294555
14101.2,-0.0472849,0,1293460,1293460
14111.1,-0.046654,0,1291946,1291946
14121,-0.046013,0,1290855,1290855
14130.9,-0.0453622,0,1288570,1288570
14140.8,-0.0447017,0,1290274,1290274
14150.6,-0.0440313,0,1289617,1289617
14160.5,-0.0433512,0,1289710,1289710
14170.4,-0.0426614,0,1289295,1289295
14180.3,-0.041962,0,1288629,1288629
14190.2,-0.0412526,0,1288682,1288682
14200.1,-0.0405305,0,1287648,1287648
14210.2,-0.0397929,0,1287282,1287282
14220.5,-0.0390294,0,1287614,1287614
14231.1,-0.0382459,0,1285849,1285849
14240.1,-0.037566,0,1284151,1284151
14250.9,-0.0367576,0,1282051,1282051
14260.1,-0.0360626,0,1281020,1281020
14270.9,-0.0352512,0,1281407,1281407
14280.1,-0.0345559,0,1281300,1281300
14290.9,-0.0337465,0,1281585,1281585
14300.1,-0.0330561,0,1284009,1284009
14310.8,-0.0322556,0,1283188,1283188
14320.1,-0.0315724,0,1282129,1282129
14330.8,-0.0307773,0,1280012,1280012
14340.1,-0.0300981,0,1278745,1278745
14350.7,-0.029319,0,1276138,1276138
14361.5,-0.02854,0,1275639,1275639
14370.3,-0.0279056,0,1275940,1275940
14381.1,-0.027147,0,1273925,1273925
14390.4,-0.0265075,0,1271726,1271726
14400.8,-0.0258047,0,1271848,1271848
14411.2,-0.0251155,0,1269017,1269017
14420.5,-0.0245165,0,1266931,1266931
14431.3,-0.0238362,0,1268623,1268623
14440.1,-0.0232998,0,1264873,1264873
14450.4,-0.0226917,0,1262791,1262791
14461.3,-0.0220731,0,1260326,1260326
14471.4,-0.0215164,0,1261014,1261014
14480,-0.0210617,0,1262863,1262863
14490.6,-0.0205231,0,1261105,1261105
14500.1,-0.0200662,0,1259709,1259709
14511.1,-0.0195582,0,1257351,1257351
14520.5,-0.0191452,0,1255994,1255994
14531.5,-0.0186894,0,1254276,1254276
14541,-0.0183202,0,1254327,1254327
14551.3,-0.0179465,0,1252993,1252993
14561.3,-0.0176029,0,1251994,1251994
14570.7,-0.0173003,0,1249402,1249402
14580.2,-0.0170127,0,1248670,1248670
14591.4,-0.016703,0,1248822,1248822
14600.7,-0.0164642,0,1247596,1247596
14611.5,-0.0162039,0,1243968,1243968
14621.1,-0.0159913,0,1242970,1242970
14630.6,-0.0157933,0,1241556,1241556
14640,-0.0156089,0,1239329,1239329
14651.2,-0.0154241,0,1233476,1233476
14660.7,-0.0152953,0,1230798,1230798
14670.2,-0.0150382,0,1229622,1229622
14680.7,-0.0149388,0,1229731,1229731
14691,-0.0148343,0,1229348,1229348
14700.6,-0.0147281,0,1224894,1224894
14710.1,-0.0146174,0,1222319,1222319
14721.2,-0.014494,0,1219600,1219600
14730.8,-0.014392,0,1220773,1220773
14740.2,-0.0142966,0,1219847,1219847
14751.3,-0.0141843,0,1216141,1216141
14760.9,-0.014099,0,1213444,1213444
14770.5,-0.0141071,0,1213180,1213180
14780.1,-0.014129,0,1213614,1213614
14791.2,-0.0141388,0,1212774,1212774
14800.7,-0.0141416,0,1209925,1209925
14810.3,-0.0144574,0,1207529,1207529
14821.3,-0.0144756,0,1204878,1204878
14830.8,-0.0143701,0,1205080,1205080
14840.2,-0.0142824,0,1204571,1204571
14851.2,-0.0142351,0,1202239,1202239
14860.7,-0.0142138,0,1199591,1199591
14870.1,-0.014197,0,1196858,1196858
14881.2,-0.01419,0,1195383,1195383
14890.6,-0.0141963,0,1192383,1192383
14900.1,-0.0142131,0,1188644,1188644
14911.1,-0.0142432,0,1184190,1184190
14920.6,-0.0142753,0,1179750,1179750
14930,-0.0143107,0,1176643,1176643
14941,-0.0143534,0,1171266,1171266
14950.5,-0.0143888,0,1168631,1168631
14961.5,-0.0144262,0,1167053,1167053
14971,-0.0144535,0,1165713,1165713
14980.3,-0.0144752,0,1161892,1161892
14991,-0.0144931,0,1155720,1155720
15000.5,-0.0145021,0,1153050,1153050
15011.5,-0.0145045,0,1149671,1149671
15020.9,-0.0144994,0,1146823,1146823
15030.2,-0.0144876,0,1142124,1142124
15041.2,-0.0144647,0,1136222,1136222
15050.7,-0.0144369,0,1132798,1132798
15060.1,-0.014401,0,1128406,1128406
15071.2,-0.0143479,0,1122032,1122032
15080.6,-0.0142924,0,1118385,1118385
15091.2,-0.0142172,0,1114425,1114425
15100,-0.0141443,0,1111020,1111020
15110.5,-0.0140456,0,1105094,1105094
15121.2,-0.0139293,0,1102195,1102195
15130.5,-0.0138187,0,1098234,1098234
15141.1,-0.013681,0,1094424,1094424
15150.3,-0.0135565,0,1093607,1093607
15161,-0.0134248,0,1087916,1087916
15170.2,-0.0133184,0,1084925,1084925
15180.9,-0.0131958,0,1079689,1079689
15191.2,-0.0131044,0,1077538,1077538
15200.1,-0.0129921,0,1078197,1078197
15210.4,-0.0127964,0,1076467,1076467
15220.8,-0.0125258,0,1074463,1074463
15231,-0.0122002,0,1071361,1071361
15241.4,-0.011843,0,1067041,1067041
15250.3,-0.0115166,0,1062590,1062590
15260.6,-0.0111068,0,1063551,1063551
15270.9,-0.0109903,0,1059309,1059309
15281.2,-0.0105559,0,1055680,1055680
15290,-0.0100591,0,1055295,1055295
15300.3,-0.00942284,0,1053905,1053905
15310.6,-0.0087786,0,1048501,1048501
15320.9,-0.00815215,0,1045512,1045512
15331.3,-0.00754984,0,1043124,1043124
15340.1,-0.00704928,0,1039974,1039974
15350.4,-0.00647834,0,1036716,1036716
15360.7,-0.00590818,0,1035495,1035495
15371,-0.00533578,0,1032055,1032055
15381.3,-0.00475745,0,1029193,1029193
15390.1,-0.00425601,0,1027257,1027257
15400.4,-0.00366501,0,1024555,1024555
15410.7,-0.00306977,0,1022729,1022729
15421.1,-0.00247337,0,1019287,1019287
15431.4,-0.00187911,0,1017352,1017352
15440.2,-0.00137386,0,1015253,1015253
15450.5,-0.000791771,0,1014131,1014131
15460.8,-0.000220121,0,1011239,1011239
15471.1,0.000338046,0,1006273,1006273
15481.5,0.000885461,0,1003457,1003457
15490.4,0.00134376,0,1002393,1002393
15500.7,0.00186034,0,1002275,1002275
15511,0.00235817,0,999041,999041
15521.4,0.00285036,0,995046,995046
15530.4,0.0032556,0,992617,992617
15540.7,0.00369044,0,990455,990455
15551.1,0.00408584,0,986785,986785
15560.2,0.00437208,0,982978,982978
15570.7,0.0046642,0,979632,979632
15581.4,0.0049654,0,977034,977034
15590.5,0.00519738,0,974689,974689
15601,0.00543641,0,970658,970658
15611.3,0.00562457,0,964207,964207
15620.2,0.00576641,0,960956,960956
15630.8,0.00591927,0,956855,956855
15641.3,0.00605321,0,954646,954646
15650.1,0.00615045,0,952946,952946
15660.4,0.00601316,0,948315,948315
15670.8,0.00601392,0,943438,943438
15681.2,0.00600866,0,940232,940232
15690,0.00600043,0,938209,938209
15700.5,0.00598698,0,934186,934186
15710.9,0.00596936,0,929031,929031
15721.4,0.00593616,0,924430,924430
15730.4,0.00590358,0,921950,921950
15740.8,0.00586183,0,921102,921102
15751.3,0.00587027,0,918222,918222
15760.2,0.00586042,0,915254,915254
15770.7,0.0058259,0,913824,913824
15781,0.00577313,0,909118,909118
15791.4,0.0057066,0,904527,904527
15800.3,0.00563963,0,901053,901053
15810.7,0.00555919,0,898821,898821
15821.1,0.00537894,0,895810,895810
15830,0.00526008,0,892024,892024
15840.4,0.0051495,0,889047,889047
15850.8,0.00506087,0,886186,886186
15861.2,0.00498795,0,883342,883342
15870.1,0.004934,0,879897,879897
15880.5,0.00487708,0,876765,876765
15890.9,0.00482283,0,876356,876356
15901.3,0.00477108,0,872166,872166
15910.2,0.0047288,0,870746,870746
15920.6,0.0046787,0,868172,868172
15931.1,0.00462372,0,865734,865734
15940,0.00457069,0,862423,862423
15950.7,0.0044994,0,860803,860803
15961,0.00442113,0,857041,857041
15970.1,0.00435338,0,855564,855564
15980.8,0.00427321,0,854820,854820
15991.5,0.00417749,0,851998,851998
16000.6,0.004086,0,846015,846015
16011.1,0.00397116,0,844088,844088
16020.3,0.00386429,0,842063,842063
16031,0.00373234,0,840757,840757
16040.2,0.00361372,0,839506,839506
16051,0.00346906,0,835331,835331
16060.3,0.00333927,0,832889,832889
16071.5,0.00317707,0,831936,831936
16081.2,0.00303203,0,831150,831150
16091,0.00288227,0,828656,828656
16100.8,0.00272915,0,825475,825475
16110.5,0.00257273,0,823222,823222
16120.3,0.00241296,0,821316,821316
16130.1,0.00224983,0,819521,819521
16141.5,0.00205522,0,817570,817570
16151.2,0.00188462,0,817953,817953
16161,0.00171024,0,816529,816529
16170.4,0.00153793,0,812146,812146
16180.2,0.00135399,0,809963,809963
16190.1,0.00116483,0,807224,807224
16201.5,0.000920504,0,804746,804746
16211.3,0.000545085,0,802932,802932
16221.1,0.000280173,0,801723,801723
16231,-6.11975e-05,0,799674,799674
16240.8,-0.000468483,0,795381,795381
16250.6,-0.000897076,0,792210,792210
16260.5,-0.00129745,0,789775,789775
16270.4,-0.00161804,0,787601,787601
16280.2,-0.00167406,0,786835,786835
16290.1,-0.00189823,0,784084,784084
16301.6,-0.00216856,0,780767,780767
16311.4,-0.00240359,0,777760,777760
16321.3,-0.00263992,0,775715,775715
16331.1,-0.00288193,0,773695,773695
16341,-0.00313795,0,770760,770760
16350.9,-0.00341623,0,768474,768474
16360.7,-0.00372179,0,765887,765887
16370.6,-0.00405585,0,763408,763408
16380.5,-0.00441696,0,759275,759275
16390.4,-0.00480219,0,757128,757128
16400.2,-0.00520798,0,755027,755027
16411.4,-0.00569424,0,751277,751277
16420.6,-0.00612109,0,750823,750823
16430.4,-0.00659921,0,749949,749949
16440.3,-0.00710887,0,746786,746786
16451.6,-0.00772827,0,743285,743285
16460.6,-0.00824527,0,742123,742123
16470.5,-0.00884878,0,739558,739558
16480.2,-0.00945874,0,740019,740019
16490.2,-0.0101107,0,739664,739664
16500.1,-0.0107847,0,737102,737102
16511.5,-0.0115803,0,734643,734643
16521.5,-0.0122995,0,732567,732567
16531.3,-0.0130267,0,730588,730588
16541.3,-0.0137498,0,729906,729906
16551.3,-0.0144551,0,728406,728406
16560.7,-0.0151603,0,726759,726759
16570.2,-0.0160887,0,724746,724746
16581,-0.0174077,0,722956,722956
16590.6,-0.0184687,0,720835,720835
16600.6,-0.0195298,0,717703,717703
16610.9,-0.0206067,0,714387,714387
16621.1,-0.0216869,0,712586,712586
16631.3,-0.0227899,0,709685,709685
16641.4,-0.0238841,0,707820,707820
16651.5,-0.0249723,0,706896,706896
16660,-0.0258847,0,704434,704434
16670.2,-0.0269615,0,701252,701252
16680.3,-0.0280318,0,699440,699440
16691.6,-0.0292217,0,699681,699681
16700,-0.0301037,0,697258,697258
16710.1,-0.0311588,0,694613,694613
16720.3,-0.0322237,0,691974,691974
16730.5,-0.033286,0,688783,688783
16740.8,-0.0343464,0,687931,687931
16751,-0.0354039,0,686089,686089
16761.3,-0.0364561,0,685780,685780
16771.6,-0.037505,0,683837,683837
16780.2,-0.0383732,0,681607,681607
16790.4,-0.0394051,0,679469,679469
16800.6,-0.0404324,0,675253,675253
16810.8,-0.0414445,0,674378,674378
16820.9,-0.0424385,0,672746,672746
16830.9,-0.0434162,0,673690,673690
16841,-0.0443908,0,672124,672124
16851.1,-0.0453571,0,670540,670540
16861.1,-0.0463105,0,668906,668906
16871.2,-0.0472669,0,666441,666441
16881.4,-0.0482205,0,663494,663494
16891.5,-0.0491578,0,661338,661338
16901.5,-0.0500802,0,658967,658967
16911.5,-0.0510026,0,656144,656144
16921.6,-0.0519124,0,653746,653746
16931.5,-0.0528035,0,652065,652065
16941.6,-0.0536927,0,651046,651046
16950.2,-0.0544353,0,649376,649376
16960.2,-0.0552952,0,647979,647979
16970.2,-0.056131,0,646624,646624
16980.1,-0.0569515,0,644606,644606
16990.2,-0.0577653,0,641935,641935
17000.2,-0.0585553,0,641890,641890
17010.2,-0.0593284,0,641208,641208
17020.1,-0.0600755,0,638941,638941
17030.1,-0.0607989,0,636240,636240
17041,-0.0615432,0,635104,635104
17050.3,-0.0621649,0,634487,634487
17060.1,-0.0628005,0,633483,633483
17071.3,-0.0635158,0,633284,633284
17081,-0.0641105,0,630107,630107
17091.1,-0.0646879,0,627666,627666
17101.2,-0.0652238,0,626480,626480
17111.2,-0.0657242,0,624681,624681
17121.2,-0.0661922,0,623230,623230
17131.4,-0.0666368,0,621870,621870
17141.5,-0.0670411,0,619950,619950
17151.7,-0.0674063,0,618223,618223
17160.1,-0.0681278,0,617678,617678
17170.1,-0.0683829,0,617517,617517
17180,-0.0686508,0,613759,613759
17190.3,-0.0689688,0,610139,610139
17200.6,-0.0689674,0,606880,606880
17210.6,-0.0689205,0,605295,605295
17220.8,-0.0688067,0,603097,603097
17231.2,-0.0686212,0,601048,601048
17241.7,-0.0684033,0,599203,599203
17250.4,-0.0682114,0,597300,597300
17260.9,-0.0679682,0,594188,594188
17271.1,-0.0677037,0,594105,594105
17281.2,-0.0674025,0,591996,591996
17291.1,-0.0670401,0,589266,589266
17301.3,-0.0666473,0,587036,587036
17311.3,-0.0661939,0,584514,584514
17321.3,-0.0656829,0,582453,582453
17331.3,-0.0651542,0,582460,582460
17341.3,-0.0646047,0,581393,581393
17351.3,-0.0640141,0,580333,580333
17361.4,-0.0633741,0,578355,578355
17371.5,-0.062669,0,577066,577066
17381.5,-0.0619281,0,575413,575413
17391.5,-0.0611451,0,573115,573115
17401.5,-0.0602633,0,572515,572515
17410,-0.059456,0,572346,572346
17420.5,-0.0585306,0,569674,569674
17430.6,-0.057628,0,568265,568265
17440.9,-0.0566161,0,568130,568130
17451,-0.0555334,0,566811,566811
17461.1,-0.0544033,0,565054,565054
17471.3,-0.053229,0,565970,565970
17481.3,-0.0520396,0,566208,566208
17491.6,-0.0507774,0,563790,563790
17500,-0.0497263,0,562699,562699
17510.1,-0.0484225,0,562589,562589
17520.7,-0.0470089,0,560547,560547
17531.2,-0.0455655,0,560278,560278
17541.4,-0.0441115,0,559241,559241
17550.2,-0.042826,0,558975,558975
17560.8,-0.0412526,0,557752,557752
17571.2,-0.0396634,0,558013,558013
17581.5,-0.0380364,0,557383,557383
17591.6,-0.0364169,0,555906,555906
17600.2,-0.0350261,0,553408,553408
17610.5,-0.033247,0,551472,551472
17620.6,-0.031541,0,550629,550629
17630.7,-0.0298945,0,551639,551639
17640.9,-0.0281846,0,553350,553350
17651.3,-0.0263815,0,553635,553635
17661.6,-0.0245097,0,551102,551102
17670.2,-0.0229257,0,548979,548979
17680.8,-0.0209559,0,548760,548760
17690.9,-0.0190524,0,549441,549441
17701.6,-0.0170575,0,548920,548920
17710,-0.0154739,0,548021,548021
17720.2,-0.0135689,0,546997,546997
17730.4,-0.0116337,0,546000,546000
17740.5,-0.00972326,0,545144,545144
17750.7,-0.00778497,0,542770,542770
17760.9,-0.00584078,0,540786,540786
17771.2,-0.00389678,0,539557,539557
17781.3,-0.00201087,0,539205,539205
17791.6,-8.88096e-05,0,537859,537859
17801.6,0.00176941,0,536292,536292
17810.1,0.00333132,0,535930,535930
17820.2,0.00517168,0,535794,535794
17830.6,0.00706233,0,532212,532212
17841.2,0.00896682,0,530749,530749
17850.3,0.0105921,0,528920,528920
17860.2,0.0123416,0,529397,529397
17870.5,0.0141337,0,530098,530098
17881.8,0.0160855,0,528226,528226
17891.7,0.0177691,0,526414,526414
17900.3,0.0192363,0,524709,524709
17910.8,0.0209973,0,522960,522960
17921.4,0.0227605,0,523426,523426
17931.1,0.0243584,0,523455,523455
17940,0.0258169,0,523227,523227
17951.5,0.0276647,0,521312,521312
17960.7,0.0291369,0,520002,520002
17971.7,0.030854,0,519828,519828
17980.2,0.0321543,0,516760,516760
17990.3,0.0336895,0,515912,515912
18000.8,0.0352541,0,516840,516840
18011.9,0.0368688,0,517633,517633
18020.4,0.0380724,0,515028,515028
18030.7,0.0395049,0,512861,512861
18041.8,0.0410151,0,511046,511046
18051.7,0.0423357,0,509778,509778
18061.4,0.0435917,0,509776,509776
18071.8,0.0449168,0,508130,508130
18081.8,0.0461515,0,506838,506838
18090.5,0.0472158,0,506035,506035
18100.2,0.0483642,0,506134,506134
18111.1,0.0496281,0,503940,503940
18121,0.0507535,0,503117,503117
18131,0.0518595,0,502792,502792
18141,0.0529526,0,503141,503141
18151.2,0.0540308,0,503578,503578
18160.6,0.0549992,0,502156,502156
18170.7,0.0560217,0,500240,500240
18180.8,0.0570139,0,499143,499143
18190.4,0.057936,0,498675,498675
18201.8,0.0589932,0,497046,497046
18211.4,0.0598676,0,494011,494011
18221.9,0.0607969,0,492672,492672
18230.4,0.061523,0,491882,491882
18241.4,0.0624476,0,492785,492785
18250.1,0.0631513,0,489445,489445
18261.4,0.06405,0,486961,486961
18272,0.0648684,0,486624,486624
18280.7,0.0655136,0,485712,485712
18290.5,0.0662335,0,486045,486045
18301.4,0.0670023,0,484777,484777
18310.4,0.0676107,0,483346,483346
18321.1,0.0682982,0,482031,482031
18331.7,0.068689,0,481230,481230
18340.5,0.0692142,0,481134,481134
18350.8,0.0698223,0,479505,479505
18361.5,0.0704255,0,477105,477105
18370.3,0.0709043,0,476034,476034
18381.7,0.0714865,0,475335,475335
18390.1,0.0718883,0,474348,474348
18400.3,0.0723426,0,471869,471869
18411,0.0727875,0,469394,469394
18420.4,0.0731463,0,467599,467599
18430.7,0.0734979,0,466551,466551
18440.9,0.0738567,0,465297,465297
18450.9,0.0732207,0,463822,463822
18460.4,0.0733278,0,463667,463667
18471,0.0727749,0,461832,461832
18480.4,0.0728637,0,461417,461417
18491,0.0712424,0,460069,460069
18500.3,0.0728197,0,459648,459648
18511.8,0.0744586,0,457595,457595
18520,0.075092,0,456550,456550
18530.3,0.0739789,0,455685,455685
18540.5,0.0730947,0,454451,454451
18550.9,0.0729194,0,453722,453722
18561.2,0.0727885,0,451996,451996
18571.6,0.0723711,0,450325,450325
18582,0.0718988,0,449606,449606
18591,0.0714978,0,450298,450298
18601.6,0.0710229,0,448002,448002
18610.3,0.0706196,0,446987,446987
18621.1,0.0700915,0,445531,445531
18632.1,0.0694936,0,445242,445242
18641.1,0.068955,0,444521,444521
18651.2,0.068306,0,444177,444177
18661.9,0.0675702,0,444470,444470
18670.3,0.0669626,0,443861,443861
18681,0.0661658,0,441787,441787
18690.1,0.0654628,0,440264,440264
18700.4,0.0647999,0,437922,437922
18711.7,0.0642191,0,436636,436636
18720.4,0.0635087,0,437283,437283
18730.8,0.0625737,0,437232,437232
18740.8,0.0616383,0,438068,438068
18751,0.0606743,0,437573,437573
18761.5,0.059673,0,435465,435465
18771.5,0.0586948,0,433692,433692
18781.3,0.0577319,0,434647,434647
18791.6,0.0567,0,434911,434911
18800.9,0.0557534,0,433910,433910
18810,0.0548176,0,431901,431901
18821.9,0.0535749,0,431719,431719
18830.9,0.052628,0,430096,430096
18841.5,0.0514894,0,429399,429399
18852.1,0.0503365,0,429355,429355
18860.9,0.0493711,0,429220,429220
18871.4,0.0482169,0,428686,428686
18881.2,0.0471339,0,427994,427994
18891.6,0.045969,0,425874,425874
18901.6,0.0448535,0,426002,426002
18910,0.0438974,0,424748,424748
18920.5,0.0427111,0,423820,423820
18931.1,0.0414972,0,422545,422545
18941.8,0.0402676,0,421075,421075
18950.5,0.0392563,0,419481,419481
18962,0.0379314,0,419440,419440
18970.4,0.0369457,0,417562,417562
18981.5,0.0356523,0,416118,416118
18992,0.0344367,0,414854,414854
19001,0.0333745,0,414866,414866
19011,0.032207,0,413857,413857
19021.5,0.0309572,0,413235,413235
19031.6,0.0297526,0,413599,413599
19040.4,0.0286996,0,412263,412263
19051.9,0.0272826,0,410079,410079
19061.4,0.0260997,0,408352,408352
19072.1,0.0247234,0,407119,407119
19080.7,0.0236051,0,406646,406646
19090.5,0.0223046,0,407436,407436
19101.1,0.0208746,0,407630,407630
19111.8,0.0194227,0,405506,405506
19121.2,0.0181308,0,405285,405285
19130.6,0.0168278,0,404509,404509
19140.7,0.0154317,0,403820,403820
19151.2,0.0139847,0,402581,402581
19160,0.0127493,0,402613,402613
19170.2,0.0113365,0,403351,403351
19180.9,0.0098745,0,403406,403406
19190.2,0.00858681,0,402362,402362
19201.3,0.00704547,0,401327,401327
19211.8,0.00560468,0,399197,399197
19220.3,0.00444553,0,398887,398887
19231.9,0.00291516,0,399251,399251
19240.8,0.00176411,0,398532,398532
19251.9,0.000365271,0,398413,398413
19260.6,-0.00069905,0,399215,399215
19271.1,-0.00195633,0,399814,399814
19281.6,-0.00314728,0,399027,399027
19290.2,-0.00405641,0,399247,399247
19301.2,-0.0051256,0,398810,398810
19311.9,-0.00609055,0,397034,397034
19320.3,-0.00680057,0,395186,395186
19330.9,-0.00763582,0,394536,394536
19341.6,-0.00840994,0,394865,394865
19350.1,-0.00897109,0,395331,395331
19361,-0.00963344,0,394789,394789
19371.8,-0.0101601,0,394423,394423
19380.3,-0.0105369,0,392746,392746
19391,-0.0109562,0,390530,390530
19401.6,-0.0112935,0,392093,392093
19410.5,-0.0104167,0,393423,393423
19421.5,-0.0104205,0,394456,394456
19430.3,-0.0105145,0,394802,394802
19440.9,-0.0107141,0,394579,394579
19451.9,-0.0109043,0,393995,393995
19460.5,-0.0110221,0,393661,393661
19471.3,-0.0111531,0,393565,393565
19482.2,-0.0110612,0,393245,393245
19491.1,-0.0111294,0,391533,391533
19502.1,-0.0111804,0,390767,390767
19510.7,-0.0112015,0,390330,390330
19521,-0.0112041,0,391226,391226
19531.6,-0.0111971,0,390819,390819
19540.4,-0.0111834,0,390374,390374
19550.7,-0.0111454,0,390032,390032
19560.7,-0.010995,0,388860,388860
19571.2,-0.0108539,0,386848,386848
19581.8,-0.0107022,0,386231,386231
19590.4,-0.0107686,0,387848,387848
19601,-0.0102826,0,388571,388571
19611.8,-0.009892,0,388193,388193
19620.5,-0.0094915,0,388234,388234
19630.6,-0.00896173,0,387433,387433
19641,-0.00837963,0,386418,386418
19651.6,-0.00774766,0,384860,384860
19660.2,-0.00723613,0,383830,383830
19671.1,-0.00659726,0,383179,383179
19681.9,-0.00596477,0,383168,383168
19690.2,-0.00546527,0,382980,382980
19700.9,-0.00480739,0,382558,382558
19711.3,-0.00415165,0,380886,380886
19721.4,-0.00349392,0,379721,379721
19731.6,-0.00279657,0,379157,379157
19742.1,-0.00202305,0,379823,379823
19750.5,-0.00135787,0,380375,380375
19761.3,-0.000311863,0,381151,381151
19770.2,0.000504606,0,379925,379925
19781.1,0.00153148,0,378938,378938
19791.6,0.00252909,0,379473,379473
19802,0.00351288,0,379177,379177
19810.5,0.00429754,0,378642,378642
19821.4,0.00528503,0,376753,376753
19832,0.0062304,0,375024,375024
19840.1,0.00695558,0,374635,374635
19851,0.00791664,0,373135,373135
19861.5,0.00884636,0,372280,372280
19870.1,0.00957358,0,372082,372082
19880.9,0.0104916,0,371876,371876
19891.1,0.0114373,0,372451,372451
19901.7,0.012422,0,371439,371439
19910.1,0.0131799,0,370778,370778
19920.2,0.0140605,0,369957,369957
19930.8,0.0149438,0,368251,368251
19941.3,0.0158134,0,366945,366945
19952,0.0167058,0,365815,365815
19960.6,0.0174374,0,365620,365620
19971,0.018322,0,367145,367145
19981.6,0.0192228,0,366354,366354
19990.4,0.0199672,0,364816,364816
