time,surface_elevation,reference_data,number_of_local_cells,number_of_global_cells
0,0,0,117494,117494
10.3481,0,0,140326,140326
20.658,0,0,181788,181788
30.9788,0,0,175528,175528
40.2693,0,0,173952,173952
50.5907,0,0,178002,178002
60.8928,0,0,184390,184390
70.1646,0,0,188590,188590
80.472,0,0,192964,192964
90.7793,0,0,197650,197650
100.054,0,0,200958,200958
110.361,0,0,205126,205126
120.667,0,0,209046,209046
130.996,0,0,212900,212900
140.304,0,0,216814,216814
150.642,0,0,220126,220126
160.979,0,0,222892,222892
170.282,0,0,225838,225838
180.63,0,0,229122,229122
190.954,0,0,232512,232512
200.292,0,0,233984,233984
210.724,0,0,236890,236890
220.078,0,0,238648,238648
230.496,0,0,241236,241236
240.891,0,0,243150,243150
250.254,0,0,245566,245566
260.595,0,0,248272,248272
270.952,0,0,250368,250368
280.244,0,0,252956,252956
290.561,0,0,255926,255926
300.953,0,0,258550,258550
310.253,0,0,262704,262704
320.614,0,0,264926,264926
330.937,0,0,267454,267454
340.298,0,0,270472,270472
350.69,0,0,273286,273286
360.041,0,0,274796,274796
370.454,0,0,278524,278524
380.865,0,0,280842,280842
390.218,0,0,283242,283242
400.579,0,0,286182,286182
410.931,0,0,288282,288282
420.265,0,0,289150,289150
430.668,0,0,293688,293688
440.031,0,0,294832,294832
450.455,0,0,297902,297902
460.889,0,0,300272,300272
470.25,0,0,302538,302538
480.629,0,0,304168,304168
490.851,0,0,306114,306114
500.106,0,0,308730,308730
510.525,0,0,310626,310626
520.935,0,0,313064,313064
530.086,0,0,315814,315814
540.464,0,0,317794,317794
550.908,0,0,319854,319854
560.314,0,0,323120,323120
570.729,0,0,324284,324284
580.127,0,0,327010,327010
590.518,0,0,329600,329600
600.961,0,0,332744,332744
610.294,0,0,335638,335638
620.702,0,0,337814,337814
631.007,0,0,341760,341760
640.362,0,0,344020,344020
650.694,0,0,348504,348504
660.037,0,0,351298,351298
670.354,0,0,355028,355028
680.686,0,0,358294,358294
690.991,0,0,361946,361946
700.297,0,0,364290,364290
710.62,0,0,368890,368890
720.92,0,0,372958,372958
730.212,0,0,375796,375796
740.505,0,0,379866,379866
750.816,0,0,383868,383868
760.093,0,0,387174,387174
770.311,0,0,390246,390246
780.457,0,0,395208,395208
790.756,0,0,398368,398368
800.089,0,0,400768,400768
810.396,4.54747e-12,0,404648,404648
820.784,1.36424e-11,0,408228,408228
830.051,2.18279e-11,0,409814,409814
840.426,3.09228e-11,0,412672,412672
850.725,4.00178e-11,0,416992,416992
860.047,4.82032e-11,0,417350,417350
870.377,5.72982e-11,0,421286,421286
880.628,6.63931e-11,0,423420,423420
890.957,7.63976e-11,0,424536,424536
900.252,9.27685e-11,0,428178,428178
910.516,1.10958e-10,0,431966,431966
920.836,1.29148e-10,0,434414,434414
930.113,1.49157e-10,0,436900,436900
940.429,1.76442e-10,0,441712,441712
950.757,2.05546e-10,0,442988,442988
960.051,2.38288e-10,0,447684,447684
970.378,2.78305e-10,0,450288,450288
980.698,3.2378e-10,0,452894,452894
991.014,3.7744e-10,0,454462,454462
1000.3,4.3201e-10,0,456084,456084
1010.61,5.00222e-10,0,458908,458908
1020.93,5.77529e-10,0,460626,460626
1030.21,6.56655e-10,0,462898,462898
1040.53,7.5579e-10,0,465300,465300
1050.84,8.69477e-10,0,467412,467412
1060.03,9.83164e-10,0,469978,469978
1070.32,1.12686e-09,0,472362,472362
1080.56,1.28875e-09,0,475618,475618
1090.83,1.47156e-09,0,479550,479550
1100.11,1.6571e-09,0,481926,481926
1110.43,1.8872e-09,0,484200,484200
1120.74,2.14641e-09,0,489180,489180
1130.91,2.4329e-09,0,493498,493498
1140.01,2.71939e-09,0,493884,493884
1150.33,3.08046e-09,0,498018,498018
1160.58,3.48155e-09,0,502854,502854
1170.71,3.92538e-09,0,503920,503920
1180.93,4.4256e-09,0,508548,508548
1190.01,4.91764e-09,0,511042,511042
1200.17,5.52609e-09,0,513600,513600
1210.23,6.19548e-09,0,515322,515322
1220.21,6.93035e-09,0,518430,518430
1230.53,7.77163e-09,0,521082,521082
1240.63,8.68749e-09,0,525768,525768
1250.78,9.70067e-09,0,526688,526688
1260.9,1.08184e-08,0,530226,530226
1270.99,1.20481e-08,0,532484,532484
1280.07,1.32613e-08,0,534320,534320
1290.1,1.47274e-08,0,537126,537126
1300.19,1.635e-08,0,539738,539738
1310.25,1.81253e-08,0,542420,542420
1320.29,2.0068e-08,0,544256,544256
1330.51,2.22371e-08,0,548116,548116
1340.61,2.45827e-08,0,550458,550458
1350.58,2.71166e-08,0,550268,550268
1360.82,2.99606e-08,0,553882,553882
1370.99,3.30465e-08,0,556454,556454
1380.05,3.60287e-08,0,558206,558206
1390.1,3.96167e-08,0,560238,560238
1400.19,4.35357e-08,0,563800,563800
1410.33,4.78176e-08,0,563840,563840
1420.59,5.25215e-08,0,566644,566644
1430.66,5.75337e-08,0,569196,569196
1440.62,6.29079e-08,0,570292,570292
1450.6,6.87287e-08,0,572908,572908
1460.26,7.48105e-08,0,575304,575304
1470.74,8.194e-08,0,579160,579160
1480.27,8.89331e-08,0,579062,579062
1490.78,9.72514e-08,0,580448,580448
1500.65,1.05668e-07,0,585018,585018
1510.22,1.14429e-07,0,584946,584946
1520.97,1.25018e-07,0,588098,588098
1530.06,1.34631e-07,0,589844,589844
1540.6,1.46583e-07,0,590856,590856
1550.12,1.58154e-07,0,592950,592950
1560.08,1.71086e-07,0,595452,595452
1570.69,1.85885e-07,0,599418,599418
1580.38,2.0034e-07,0,600652,600652
1590.38,2.16253e-07,0,601708,601708
1600.95,2.34267e-07,0,604858,604858
1610.64,2.51901e-07,0,606960,606960
1620.29,2.70599e-07,0,610172,610172
1630.87,2.9244e-07,0,612296,612296
1640.47,3.13578e-07,0,616052,616052
1650.08,3.36022e-07,0,614644,614644
1660.14,3.60981e-07,0,617810,617810
1670.63,3.88688e-07,0,621026,621026
1680.86,4.17471e-07,0,621758,621758
1690.37,4.45838e-07,0,624516,624516
1700.57,4.78114e-07,0,627248,627248
1710.09,5.10016e-07,0,629292,629292
1720.15,5.45735e-07,0,627844,627844
1730.24,5.8366e-07,0,633360,633360
1740.68,6.25309e-07,0,633472,633472
1750.45,6.6657e-07,0,635580,635580
1760.1,7.09583e-07,0,635978,635978
1770.57,7.58928e-07,0,640724,640724
1780.02,8.0598e-07,0,640062,640062
1790.75,8.62471e-07,0,641748,641748
1800.27,9.15343e-07,0,644590,644590
1810.52,9.75415e-07,0,645396,645396
1821.01,1.04033e-06,0,648530,648530
1830.93,1.10516e-06,0,650178,650178
1840.59,1.1715e-06,0,650510,650510
1850.01,1.23954e-06,0,652884,652884
1860.76,1.32127e-06,0,656010,656010
1871.05,1.40386e-06,0,656322,656322
1880.5,1.4835e-06,0,657238,657238
1890.31,1.57028e-06,0,660632,660632
1900.31,1.66323e-06,0,661406,661406
1910.84,1.76616e-06,0,662366,662366
1920.45,1.86489e-06,0,662694,662694
1930.23,1.97009e-06,0,664468,664468
1940.18,2.08242e-06,0,666390,666390
1950.69,2.20701e-06,0,667356,667356
1960.2,2.32521e-06,0,668438,668438
1970.68,2.46184e-06,0,670916,670916
1980.2,2.59179e-06,0,672908,672908
1990.67,2.7416e-06,0,675768,675768
2000.19,2.88411e-06,0,676020,676020
2010.68,3.04853e-06,0,678236,678236
2020.19,3.20457e-06,0,679102,679102
2030.66,3.38413e-06,0,680920,680920
2040.17,3.5546e-06,0,682416,682416
2050.62,3.75047e-06,0,684886,684886
2060.14,3.93681e-06,0,687248,687248
2070.62,4.15077e-06,0,688208,688208
2080.14,4.35376e-06,0,688834,688834
2090.61,4.5865e-06,0,691804,691804
2100.14,4.80732e-06,0,692848,692848
2110.65,5.06089e-06,0,693864,693864
2120.17,5.30037e-06,0,694664,694664
2130.71,5.57636e-06,0,696744,696744
2140.26,5.83667e-06,0,698688,698688
2150.74,6.13374e-06,0,698762,698762
2160.28,6.41477e-06,0,700072,700072
2170.76,6.73569e-06,0,701364,701364
2180.28,7.03835e-06,0,703678,703678
2190.73,7.38364e-06,0,704648,704648
2200.23,7.70934e-06,0,704335,704335
2210.68,8.08093e-06,0,707856,707856
2220.17,8.43123e-06,0,708256,708256
2230.62,8.83083e-06,0,709898,709898
2240.12,9.20764e-06,0,711472,711472
2250.58,9.63762e-06,0,712986,712986
2260.09,1.00429e-05,0,715188,715188
2270.54,1.05052e-05,0,716462,716462
2280.04,1.09412e-05,0,718980,718980
2290.5,1.14388e-05,0,719464,719464
2300,1.19082e-05,0,720004,720004
2310.44,1.24429e-05,0,721296,721296
2320.92,1.30009e-05,0,724474,724474
2330.46,1.35278e-05,0,725802,725802
2340.01,1.40739e-05,0,726750,726750
2350.51,1.46971e-05,0,728230,728230
2360.07,1.52844e-05,0,727782,727782
2370.58,1.59542e-05,0,731478,731478
2380.14,1.65851e-05,0,732310,732310
2390.59,1.72998e-05,0,734296,734296
2400.19,1.79789e-05,0,737464,737464
2410.73,1.8751e-05,0,738204,738204
2420.29,1.94754e-05,0,739986,739986
2430.77,2.02978e-05,0,741288,741288
2440.3,2.107e-05,0,743370,743370
2450.76,2.1947e-05,0,744330,744330
2460.28,2.27708e-05,0,745934,745934
2470.74,2.3707e-05,0,749854,749854
2480.24,2.45856e-05,0,751354,751354
2490.76,2.55903e-05,0,752710,752710
2500.36,2.65378e-05,0,754242,754242
2510.04,2.75236e-05,0,756494,756494
2520.78,2.86553e-05,0,758554,758554
2530.66,2.97308e-05,0,761434,761434
2540.37,3.0822e-05,0,762156,762156
2550.28,3.19716e-05,0,763348,763348
2560.02,3.31374e-05,0,766392,766392
2571.13,3.45141e-05,0,768798,768798
2580.65,3.57351e-05,0,770941,770941
2590.6,3.70518e-05,0,772725,772725
2600.58,3.84156e-05,0,773729,773729
2610.65,3.98385e-05,0,776179,776179
2620.41,4.12628e-05,0,777217,777217
2630.75,4.28225e-05,0,778265,778265
2640.19,4.42957e-05,0,780097,780097
2650.65,4.59788e-05,0,781623,781623
2660.06,4.75377e-05,0,782255,782255
2670.46,4.93108e-05,0,783999,783999
2680.85,5.11269e-05,0,785205,785205
2690.48,5.28478e-05,0,786649,786649
2700.86,5.47396e-05,0,787021,787021
2710.32,5.64942e-05,0,787579,787579
2720.89,5.84888e-05,0,788530,788530
2730.3,6.02926e-05,0,789434,789434
2740.69,6.23166e-05,0,791754,791754
2750.13,6.41839e-05,0,791730,791730
2760.46,6.62626e-05,0,791570,791570
2770.86,6.83922e-05,0,794648,794648
2780.28,7.03552e-05,0,796098,796098
2790.73,7.25734e-05,0,798420,798420
2800.2,7.46237e-05,0,799926,799926
2810.47,7.68927e-05,0,801080,801080
2820.59,7.91788e-05,0,803882,803882
2830.91,8.15677e-05,0,804394,804394
2840.33,8.38006e-05,0,806112,806112
2850.67,8.63149e-05,0,808716,808716
2860.06,8.86586e-05,0,810618,810618
2870.39,9.13104e-05,0,812168,812168
2880.31,9.39333e-05,0,813690,813690
2890.6,9.67371e-05,0,816282,816282
2900.1,9.9405e-05,0,818255,818255
2910.44,0.000102401,0,821217,821217
2920.83,0.000105512,0,821865,821865
2930.23,0.000108419,0,823441,823441
2940.84,0.000111809,0,826007,826007
2950.35,0.000114948,0,826893,826893
2960.67,0.000118507,0,829753,829753
2970.35,0.000121973,0,833089,833089
2980.69,0.00012574,0,833555,833555
2990.15,0.00012926,0,834276,834276
3000.5,0.000133205,0,835479,835479
3010.08,0.00013695,0,837115,837115
3020.62,0.000141187,0,841365,841365
3030.04,0.000145046,0,841835,841835
3040.51,0.000149381,0,842097,842097
3050.63,0.000153602,0,843707,843707
3060.38,0.000157708,0,845295,845295
3070.82,0.000162144,0,849153,849153
3081.11,0.000166571,0,851913,851913
3090.25,0.000170566,0,851803,851803
3100.54,0.000175148,0,852831,852831
3110.93,0.000179892,0,856363,856363
3120.45,0.00018436,0,858419,858419
3130.5,0.000189225,0,860694,860694
3140.74,0.00019436,0,862472,862472
3150.33,0.000199354,0,863372,863372
3160.75,0.000205002,0,863504,863504
3171.04,0.000210819,0,866961,866961
3180.18,0.00021621,0,867676,867676
3190.28,0.00022243,0,869420,869420
3200.57,0.000229044,0,870428,870428
3210.85,0.000235928,0,871580,871580
3221.14,0.000243078,0,874904,874904
3230.28,0.000249658,0,875778,875778
3240.57,0.000257317,0,876351,876351
3250.86,0.000265258,0,878767,878767
3261.14,0.000273493,0,880490,880490
3270.28,0.000281076,0,881851,881851
3280.57,0.000289915,0,883545,883545
3290.29,0.00029855,0,884203,884203
3300.57,0.000307986,0,885761,885761
3310.86,0.000317732,0,888792,888792
3320.01,0.00032667,0,888818,888818
3330.13,0.000336879,0,891730,891730
3340.72,0.000347948,0,891438,891438
3350.24,0.000358268,0,893602,893602
3360.8,0.000370148,0,894797,894797
3370.45,0.000381355,0,897229,897229
3380.17,0.000392822,0,898245,898245
3391.04,0.00040602,0,901319,901319
3400.79,0.000435395,0,902575,902575
3410.69,0.000464487,0,904661,904661
3420.6,0.000493008,0,909504,909504
3430.08,0.000519949,0,907834,907834
3440.09,0.000548233,0,910180,910180
3450.7,0.000578233,0,910882,910882
3460.13,0.00060512,0,910974,910974
3470.68,0.0006356,0,913531,913531
3480.22,0.000663725,0,913472,913472
3490.6,0.000694961,0,914875,914875
3500.7,0.000726151,0,919143,919143
3510.33,0.000756655,0,921105,921105
3520.78,0.000790164,0,922634,922634
3530.49,0.000821236,0,923700,923700
3540.86,0.000854471,0,925604,925604
3550.98,0.000887176,0,927282,927282
3560.88,0.000919716,0,929174,929174
3570.55,0.000952377,0,931312,931312
3580.16,0.000985985,0,934591,934591
3590.77,0.00104332,0,935291,935291
3600.67,0.00111921,0,936118,936118
3610.52,0.00119102,0,938405,938405
3620.89,0.00126491,0,939537,939537
3630.15,0.00133079,0,942147,942147
3640.52,0.00140521,0,943750,943750
3650.27,0.00147571,0,945332,945332
3660.97,0.00155358,0,947454,947454
3670.49,0.00162281,0,949125,949125
3680.62,0.00169616,0,952524,952524
3690.82,0.00176983,0,954016,954016
3700.39,0.00183953,0,957420,957420
3710.99,0.00191821,0,958932,958932
3720,0.00198735,0,961240,961240
3730.3,0.00208117,0,962362,962362
3740.83,0.0021844,0,963450,963450
3750.32,0.00227822,0,965664,965664
3760.66,0.002383,0,966799,966799
3770.76,0.00248896,0,967711,967711
3780.14,0.00259147,0,969719,969719
3790.49,0.00270994,0,971016,971016
3800.43,0.00282972,0,974072,974072
3811.05,0.00296463,0,976042,976042
3820.39,0.00308954,0,978096,978096
3830.15,0.00321836,0,981499,981499
3840.82,0.00350629,0,982641,982641
3850.59,0.00373194,0,983556,983556
3860.27,0.00394587,0,984285,984285
3870.9,0.00418212,0,986628,986628
3880.44,0.00440005,0,987091,987091
3890.12,0.00462789,0,988887,988887
3900.86,0.00488911,0,992924,992924
3910.91,0.00514089,0,994229,994229
3920.25,0.00538089,0,994130,994130
3930.55,0.0056522,0,995994,995994
3940.85,0.00593152,0,998058,998058
3950.75,0.0062093,0,999773,999773
3960.38,0.00649038,0,1001696,1001696
3971.04,0.00680693,0,1003855,1003855
3980.44,0.00708227,0,1007392,1007392
3991.01,0.00739601,0,1009606,1009606
4000.19,0.00768197,0,1010512,1010512
4010.25,0.00803196,0,1013418,1013418
4020.53,0.00842038,0,1014264,1014264
4030.09,0.00881782,0,1015381,1015381
4040.23,0.00928157,0,1018446,1018446
4050.33,0.00977038,0,1019617,1019617
4060.9,0.010751,0,1021436,1021436
4070.48,0.0115422,0,1022828,1022828
4080.52,0.0123086,0,1024503,1024503
4090.41,0.0130923,0,1027113,1027113
4100.36,0.0139169,0,1029135,1029135
4110.14,0.0147666,0,1031153,1031153
4120.6,0.0157328,0,1033514,1033514
4130.05,0.0166668,0,1035223,1035223
4140.57,0.0177772,0,1039231,1039231
4150.05,0.0188342,0,1040747,1040747
4160.53,0.0200507,0,1043061,1043061
4170.8,0.0213023,0,1045851,1045851
4180.22,0.022488,0,1046839,1046839
4190.72,0.0238442,0,1048642,1048642
4200.82,0.0252614,0,1052953,1052953
4210.25,0.0269481,0,1054419,1054419
4220.81,0.028459,0,1055854,1055854
4230.28,0.0308258,0,1057332,1057332
4240.78,0.0338589,0,1059125,1059125
4250.23,0.0366316,0,1062080,1062080
4260.75,0.0401572,0,1065452,1065452
4270.24,0.0437765,0,1067710,1067710
4280.78,0.0480948,0,1068446,1068446
4290.26,0.0523745,0,1069482,1069482
4300.74,0.0572789,0,1071870,1071870
4310.14,0.0618239,0,1073387,1073387
4320.58,0.0670525,0,1075430,1075430
4330.02,0.0722984,0,1077571,1077571
4340.53,0.0878989,0,1079379,1079379
4350.39,0.0977489,0,1080788,1080788
4360.78,0.113241,0,1083538,1083538
4370.64,0.129897,0,1084388,1084388
4380.27,0.148027,0,1085787,1085787
4390.6,0.167518,0,1089203,1089203
4400.12,0.186198,0,1089865,1089865
4410.7,0.208078,0,1090729,1090729
4420.07,0.228182,0,1092310,1092310
4430.83,0.253782,0,1094027,1094027
4440.65,0.297531,0,1095179,1095179
4450.61,0.342971,0,1096611,1096611
4460.28,0.385723,0,1098241,1098241
4470.08,0.432082,0,1100453,1100453
4480.18,0.490831,0,1100406,1100406
4490.59,0.543527,0,1101682,1101682
4500.01,0.588718,0,1103675,1103675
4510.11,0.636869,0,1106368,1106368
4520.39,0.684162,0,1109447,1109447
4530.22,0.726983,0,1108717,1108717
4540.04,0.768517,0,1109775,1109775
4550.25,0.809018,0,1111491,1111491
4560.71,0.848575,0,1112867,1112867
4570.89,0.884014,0,1115040,1115040
4580.65,0.915329,0,1118068,1118068
4590.17,0.943002,0,1116792,1116792
4600.67,0.970035,0,1118782,1118782
4610.28,0.990806,0,1120073,1120073
4620.87,1.0031,0,1122063,1122063
4630.02,1.0057,0,1124153,1124153
4640.19,1.00471,0,1125091,1125091
4650.29,1.00362,0,1126620,1126620
4660.16,1.00118,0,1130586,1130586
4670.73,0.997614,0,1132630,1132630
4680.36,0.993842,0,1134224,1134224
4690.25,0.989689,0,1136480,1136480
4700.98,0.974962,0,1141669,1141669
4710.98,0.962564,0,1140569,1140569
4720.18,0.947696,0,1143333,1143333
4730.32,0.927728,0,1144775,1144775
4740.75,0.90447,0,1144718,1144718
4750.7,0.884668,0,1147815,1147815
4760.06,0.84711,0,1147859,1147859
4770.12,0.787143,0,1151665,1151665
4780.81,0.73278,0,1153985,1153985
4790.01,0.684706,0,1151402,1151402
4800.22,0.634843,0,1154250,1154250
4810.45,0.584939,0,1157515,1157515
4820.74,0.535645,0,1156359,1156359
4830.01,0.492719,0,1158496,1158496
4840.93,0.442811,0,1160564,1160564
4850.84,0.399191,0,1161966,1161966
4860.48,0.356993,0,1162678,1162678
4870.85,0.312792,0,1166652,1166652
4880.77,0.270205,0,1165954,1165954
4890.33,0.229829,0,1165578,1165578
4900.23,0.18818,0,1167709,1167709
4910.52,0.145292,0,1168592,1168592
4920.75,0.103395,0,1168892,1168892
4930.75,0.0631511,0,1170697,1170697
4941.06,0.0227913,0,1170021,1170021
4950.83,-0.0150433,0,1170017,1170017
4960.88,-0.0535054,0,1171765,1171765
4970.79,-0.0912424,0,1170918,1170918
4980.75,-0.128517,0,1170817,1170817
4990.85,-0.165613,0,1170794,1170794
5001.14,-0.202748,0,1172387,1172387
5010.46,-0.235722,0,1174239,1174239
5020.68,-0.271146,0,1174125,1174125
5030.91,-0.305411,0,1175936,1175936
5040.8,-0.337424,0,1177753,1177753
5050.92,-0.369098,0,1177491,1177491
5060.89,-0.399083,0,1181671,1181671
5070.48,-0.42642,0,1181608,1181608
5080.5,-0.453242,0,1180528,1180528
5090.51,-0.478222,0,1182597,1182597
5100.8,-0.502121,0,1182544,1182544
5110.42,-0.523034,0,1183512,1183512
5120.49,-0.537747,0,1182662,1182662
5130.37,-0.541982,0,1182442,1182442
5140.21,-0.545471,0,1186038,1186038
5150.29,-0.548514,0,1186842,1186842
5160.9,-0.549155,0,1187034,1187034
5170.25,-0.550071,0,1187984,1187984
5180.31,-0.551248,0,1188457,1188457
5190.33,-0.551944,0,1189957,1189957
5200.19,-0.552313,0,1191921,1191921
5210.17,-0.55256,0,1195497,1195497
5220.03,-0.552368,0,1194822,1194822
5230.26,-0.55203,0,1197344,1197344
5240.14,-0.55152,0,1195135,1195135
5250.72,-0.550867,0,1194438,1194438
5260.7,-0.549703,0,1195828,1195828
5271.07,-0.547724,0,1197998,1197998
5280.03,-0.545624,0,1199716,1199716
5290.93,-0.542365,0,1196764,1196764
5300.03,-0.53834,0,1195997,1195997
5310.74,-0.532631,0,1197549,1197549
5320.19,-0.527074,0,1198986,1198986
5330.41,-0.513141,0,1195857,1195857
5340.58,-0.500105,0,1197539,1197539
5351.1,-0.483518,0,1200036,1200036
5360.34,-0.465913,0,1200840,1200840
5370.92,-0.445094,0,1204130,1204130
5380.78,-0.426236,0,1205571,1205571
5390.57,-0.408031,0,1204778,1204778
5400.34,-0.389714,0,1205746,1205746
5410.49,-0.370682,0,1208545,1208545
5420.15,-0.353073,0,1210023,1210023
5430.6,-0.33476,0,1210489,1210489
5441.01,-0.316979,0,1210421,1210421
5450.41,-0.301018,0,1213965,1213965
5460.84,-0.283608,0,1217368,1217368
5470.35,-0.268267,0,1215761,1215761
5480.78,-0.25206,0,1216773,1216773
5490.34,-0.237744,0,1217951,1217951
5500.87,-0.222617,0,1216308,1216308
5510.67,-0.209272,0,1216897,1216897
5520.11,-0.197144,0,1217587,1217587
5530.51,-0.184606,0,1221515,1221515
5540.26,-0.173621,0,1221706,1221706
5550.75,-0.162764,0,1221321,1221321
5560.16,-0.153725,0,1221104,1221104
5570.2,-0.145479,0,1221074,1221074
5580.01,-0.137873,0,1225009,1225009
5590.13,-0.130776,0,1226933,1226933
5600.62,-0.123964,0,1228782,1228782
5610.85,-0.117862,0,1229861,1229861
5620.97,-0.112348,0,1231225,1231225
5630.98,-0.108117,0,1230689,1230689
5640.29,-0.104319,0,1230925,1230925
5650.76,-0.100491,0,1231640,1231640
5660.07,-0.0973437,0,1231863,1231863
5670.57,-0.0942081,0,1233604,1233604
5681.07,-0.0911421,0,1236547,1236547
5690.4,-0.0884517,0,1235995,1235995
5700.9,-0.0857585,0,1235619,1235619
5710.24,-0.0831932,0,1236998,1236998
5720.73,-0.0801898,0,1240849,1240849
5730.07,-0.0778136,0,1239641,1239641
5740.57,-0.0752161,0,1237202,1237202
5751.07,-0.0728837,0,1241028,1241028
5760.34,-0.0707478,0,1242607,1242607
5770.43,-0.0688281,0,1243865,1243865
5780.8,-0.0671315,0,1245320,1245320
5791.12,-0.0656475,0,1244454,1244454
5800.31,-0.0645285,0,1246766,1246766
5810.7,-0.0637935,0,1251295,1251295
5820.62,-0.0627658,0,1250684,1250684
5831.06,-0.0618413,0,1245896,1245896
5840.35,-0.0615638,0,1246923,1246923
5850.7,-0.0611081,0,1251756,1251756
5861.08,-0.0607317,0,1248986,1248986
5870.33,-0.0609012,0,1249625,1249625
5880.13,-0.0612292,0,1253093,1253093
5890.16,-0.061781,0,1253720,1253720
5900.6,-0.0623799,0,1254600,1254600
5911.01,-0.0628971,0,1255184,1255184
5920.27,-0.0634016,0,1253643,1253643
5930.4,-0.06415,0,1252872,1252872
5940.82,-0.0651404,0,1255313,1255313
5950.07,-0.0661804,0,1254694,1254694
5960.27,-0.067498,0,1254537,1254537
5970.68,-0.0688763,0,1256003,1256003
5981.08,-0.070399,0,1253816,1253816
5991,-0.0721801,0,1256505,1256505
6000.22,-0.0742424,0,1255213,1255213
6010.62,-0.0767966,0,1254954,1254954
6021.03,-0.0794865,0,1253609,1253609
6030.25,-0.0818971,0,1255826,1255826
6040.62,-0.0846086,0,1254039,1254039
6050.99,-0.0874667,0,1254870,1254870
6060.21,-0.0901351,0,1256678,1256678
6070.59,-0.0947058,0,1257266,1257266
6080.96,-0.0986847,0,1257538,1257538
6090.18,-0.101797,0,1257246,1257246
6100.56,-0.105139,0,1257294,1257294
6110.93,-0.108659,0,1258693,1258693
6120.14,-0.111661,0,1258655,1258655
6130.52,-0.114845,0,1258718,1258718
6140.89,-0.117793,0,1260037,1260037
6150.12,-0.120287,0,1263674,1263674
6160.45,-0.122736,0,1260724,1260724
6170.87,-0.124763,0,1261840,1261840
6180.13,-0.126407,0,1263576,1263576
6190.53,-0.128024,0,1266551,1266551
6200.91,-0.129367,0,1266683,1266683
6210.12,-0.129471,0,1266846,1266846
6220.48,-0.130677,0,1266556,1266556
6230.83,-0.130086,0,1266491,1266491
6240.03,-0.12943,0,1265969,1265969
6250.37,-0.129321,0,1266482,1266482
6260.71,-0.12811,0,1269632,1269632
6270.92,-0.126253,0,1271948,1271948
6281.14,-0.124414,0,1270833,1270833
6290.33,-0.12255,0,1272409,1272409
6300.66,-0.12059,0,1274639,1274639
6310.97,-0.118699,0,1272691,1272691
6320.1,-0.116746,0,1273774,1273774
6330.38,-0.114055,0,1275759,1275759
6340.04,-0.111136,0,1276831,1276831
6350.3,-0.107796,0,1274742,1274742
6360.56,-0.104353,0,1274721,1274721
6370.82,-0.100844,0,1277281,1277281
6380.46,-0.0974028,0,1279214,1279214
6390.6,-0.0936103,0,1277318,1277318
6400.86,-0.0896637,0,1277748,1277748
6410.49,-0.0856599,0,1277678,1277678
6420.75,-0.0811182,0,1281746,1281746
6431.01,-0.0764102,0,1284807,1284807
6440.12,-0.0721403,0,1283419,1283419
6450.38,-0.0672775,0,1282700,1282700
6460.64,-0.0623926,0,1284353,1284353
6470.89,-0.0575279,0,1287851,1287851
6480.01,-0.0532423,0,1288517,1288517
6490.27,-0.0484741,0,1286191,1286191
6500.53,-0.0437704,0,1288222,1288222
6510.57,-0.0392524,0,1291318,1291318
6520.54,-0.0348528,0,1291450,1291450
6530.82,-0.0304197,0,1291498,1291498
6541.1,-0.0260868,0,1292774,1292774
6550.24,-0.0223153,0,1294941,1294941
6560.5,-0.0181716,0,1297817,1297817
6570.77,-0.014133,0,1298163,1298163
6581.05,-0.0102265,0,1297065,1297065
6590.19,-0.00688386,0,1297502,1297502
6600.44,-0.00328878,0,1302168,1302168
6610.7,0.000133284,0,1302038,1302038
6620.96,0.00338392,0,1302644,1302644
6630.07,0.00613677,0,1303981,1303981
6640.32,0.00909215,0,1306237,1306237
6650.57,0.0119095,0,1307497,1307497
6660.81,0.0145986,0,1307384,1307384
6671.06,0.017165,0,1309454,1309454
6680.18,0.0193442,0,1310275,1310275
6690.42,0.0216791,0,1310236,1310236
6700.67,0.0238871,0,1310779,1310779
6710.92,0.0259655,0,1313390,1313390
6720.04,0.0277036,0,1314056,1314056
6730.29,0.0295376,0,1314004,1314004
6740.54,0.0312476,0,1312327,1312327
6750.79,0.0328399,0,1315806,1315806
6760.9,0.0343022,0,1319955,1319955
6770.01,0.0355333,0,1317534,1317534
6780.26,0.0365496,0,1318783,1318783
6790.51,0.0377364,0,1321614,1321614
6800.62,0.0387896,0,1322277,1322277
6810.87,0.0398336,0,1323625,1323625
6821.12,0.0408051,0,1323763,1323763
6830.23,0.0415759,0,1324588,1324588
6840.48,0.0423413,0,1324369,1324369
6850.73,0.0430384,0,1328244,1328244
6860.98,0.043355,0,1329298,1329298
6870.09,0.0434951,0,1329993,1329993
6880.34,0.0433798,0,1331198,1331198
6890.6,0.0430933,0,1332430,1332430
6900.85,0.0429466,0,1332999,1332999
6911.1,0.0427047,0,1332749,1332749
6920.22,0.0424365,0,1336864,1336864
6930.48,0.0420639,0,1338332,1338332
6940.76,0.0419277,0,1336896,1336896
6951.03,0.0415101,0,1338510,1338510
6960.16,0.0409312,0,1340471,1340471
6970.44,0.040481,0,1340308,1340308
6980.71,0.0400716,0,1340944,1340944
6990.98,0.0392298,0,1344397,1344397
7000.11,0.0382786,0,1343526,1343526
7010.39,0.0371158,0,1345434,1345434
7020.66,0.035865,0,1350183,1350183
7030.93,0.0344949,0,1349967,1349967
7040.07,0.0331687,0,1347664,1347664
7050.34,0.0315391,0,1348771,1348771
7060.61,0.0304503,0,1354959,1354959
7070.89,0.0285746,0,1354125,1354125
7080.02,0.0266021,0,1352495,1352495
7090.31,0.024276,0,1352986,1352986
7100.6,0.0219218,0,1355952,1355952
7110.92,0.0195006,0,1358173,1358173
7120.08,0.017364,0,1357045,1357045
7130.4,0.0149362,0,1357780,1357780
7140.71,0.012458,0,1361398,1361398
7151.08,0.00992361,0,1362765,1362765
7160.33,0.00764011,0,1360942,1360942
7170.71,0.00506893,0,1362683,1362683
7181.14,0.00249742,0,1365946,1365946
7190.37,0.000252779,0,1365794,1365794
7200.8,-0.00224089,0,1365230,1365230
7210.03,-0.00440567,0,1367574,1367574
7220.46,-0.00681133,0,1371647,1371647
7230.89,-0.00917921,0,1369905,1369905
7240.15,-0.0112547,0,1370813,1370813
7250.54,-0.0135501,0,1374988,1374988
7260.93,-0.0158037,0,1375925,1375925
7270.08,-0.0177493,0,1377641,1377641
7280.47,-0.0199093,0,1379455,1379455
7290.86,-0.0220149,0,1378841,1378841
7300.1,-0.0238412,0,1378736,1378736
7310.49,-0.025846,0,1383791,1383791
7320.88,-0.0277987,0,1383183,1383183
7330.11,-0.0294893,0,1381897,1381897
7340.5,-0.0313364,0,1384279,1384279
7350.89,-0.0331193,0,1385483,1385483
7360.12,-0.0346444,0,1384288,1384288
7370.51,-0.0362869,0,1386128,1386128
7380.71,-0.0378177,0,1386170,1386170
7390.64,-0.0392168,0,1388036,1388036
7400.52,-0.0404821,0,1388685,1388685
7410.49,-0.0416927,0,1389994,1389994
7420.94,-0.0428286,0,1390389,1390389
7430.23,-0.0437364,0,1392482,1392482
7440.68,-0.0446812,0,1393441,1393441
7450.69,-0.0453442,0,1396067,1396067
7460.45,-0.0462895,0,1396605,1396605
7471.02,-0.04628,0,1397625,1397625
7480.53,-0.0462166,0,1397524,1397524
7490.01,-0.0461029,0,1396766,1396766
7500.69,-0.0458252,0,1394931,1394931
7510.39,-0.0454762,0,1395760,1395760
7521.05,-0.0449753,0,1398224,1398224
7530.93,-0.0443988,0,1397526,1397526
7540.4,-0.0437649,0,1398808,1398808
7550.97,-0.0429732,0,1398418,1398418
7560.08,-0.0422903,0,1397334,1397334
7570.24,-0.0414174,0,1399870,1399870
7580.79,-0.0403742,0,1400683,1400683
7590.48,-0.0392857,0,1403168,1403168
7600.46,-0.038008,0,1405662,1405662
7610.79,-0.0365765,0,1407454,1407454
7621.09,-0.0350185,0,1410380,1410380
7630.21,-0.0337136,0,1410369,1410369
7640.44,-0.0318105,0,1410472,1410472
7650.65,-0.0294879,0,1414128,1414128
7660.85,-0.0270024,0,1414422,1414422
7671.06,-0.0243995,0,1417889,1417889
7680.12,-0.0219878,0,1419357,1419357
7690.32,-0.0191678,0,1419774,1419774
7700.52,-0.0162417,0,1422329,1422329
7710.71,-0.0132128,0,1421159,1421159
7720.74,-0.0101318,0,1419539,1419539
7730.93,-0.0068936,0,1423286,1423286
7741.13,-0.00364959,0,1423211,1423211
7750.09,-0.000303497,0,1424587,1424587
7760.2,0.00390101,0,1429062,1429062
7770.89,0.0076561,0,1429813,1429813
7780.7,0.0110184,0,1431262,1431262
7790.3,0.0144089,0,1430890,1430890
7801.04,0.0183976,0,1430432,1430432
7810.84,0.0221123,0,1433104,1433104
7820.53,0.0257536,0,1435477,1435477
7830.48,0.0294607,0,1436355,1436355
7840.45,0.0331873,0,1439645,1439645
7850.5,0.0369707,0,1439684,1439684
7860.64,0.0408026,0,1442660,1442660
7870.76,0.0446197,0,1440301,1440301
7880.94,0.0484423,0,1440706,1440706
7891.11,0.0522456,0,1445620,1445620
7900.17,0.055632,0,1445615,1445615
7910.37,0.0594406,0,1444862,1444862
7920.56,0.0632416,0,1444258,1444258
7930.76,0.067023,0,1444642,1444642
7940.95,0.0707695,0,1441910,1441910
7950.02,0.0740567,0,1442231,1442231
7960.21,0.077691,0,1443737,1443737
7970.41,0.0812423,0,1444363,1444363
7980.61,0.0846965,0,1442078,1442078
7990.8,0.0880417,0,1442264,1442264
8001,0.0912679,0,1440587,1440587
8010.06,0.0940293,0,1442164,1442164
8020.25,0.0970072,0,1441274,1441274
8030.38,0.099833,0,1440701,1440701
8040.58,0.102536,0,1444382,1444382
8050.78,0.105095,0,1443015,1443015
8060.97,0.107508,0,1441266,1441266
8070.04,0.109529,0,1440948,1440948
8080.24,0.111663,0,1442035,1442035
8090.43,0.113649,0,1442593,1442593
8100.64,0.115494,0,1444863,1444863
8110.87,0.117201,0,1445820,1445820
8121.1,0.118775,0,1446977,1446977
8130.19,0.12007,0,1447667,1447667
8140.44,0.121499,0,1446377,1446377
8150.6,0.123166,0,1449116,1449116
8160.63,0.125035,0,1450654,1450654
8170.85,0.125772,0,1450834,1450834
8181.01,0.126571,0,1452946,1452946
8191.14,0.127345,0,1453096,1453096
8200.27,0.128026,0,1452359,1452359
8210.5,0.128473,0,1452884,1452884
8220.67,0.128997,0,1453014,1453014
8230.77,0.129046,0,1451624,1451624
8240.9,0.129095,0,1455144,1455144
8250.98,0.129051,0,1457651,1457651
8261.08,0.127597,0,1456888,1456888
8270.15,0.127554,0,1459571,1459571
8280.35,0.127375,0,1460741,1460741
8290.55,0.12708,0,1461323,1461323
8300.58,0.126704,0,1463407,1463407
8310.63,0.126272,0,1465808,1465808
8320.6,0.125792,0,1466584,1466584
8330.64,0.125226,0,1465856,1465856
8340.83,0.124536,0,1467598,1467598
8350.78,0.123758,0,1469346,1469346
8360.97,0.123443,0,1470285,1470285
8370.98,0.122653,0,1470735,1470735
8380.04,0.121636,0,1471683,1471683
8390.21,0.120311,0,1474714,1474714
8400.29,0.118896,0,1475572,1475572
8410.52,0.117985,0,1475345,1475345
8420.83,0.116319,0,1475751,1475751
8431.14,0.114391,0,1476259,1476259
8440.28,0.112609,0,1476071,1476071
8450.57,0.110389,0,1476761,1476761
8460.88,0.108033,0,1478625,1478625
8470.03,0.105876,0,1480106,1480106
8480.34,0.103368,0,1484405,1484405
8490.65,0.100768,0,1479894,1479894
8500.93,0.098072,0,1479234,1479234
8510.81,0.0953455,0,1478847,1478847
8520.81,0.0925186,0,1481080,1481080
8531.03,0.0894016,0,1482683,1482683
8540.02,0.0868715,0,1479547,1479547
8550.02,0.0833887,0,1482151,1482151
8560.1,0.0792786,0,1482654,1482654
8570.17,0.0750362,0,1481819,1481819
8580.21,0.0709473,0,1483137,1483137
8590.51,0.06682,0,1480296,1480296
8600.47,0.0628161,0,1482196,1482196
8610.53,0.058715,0,1483702,1483702
8620.85,0.0544984,0,1484532,1484532
8630.83,0.0504823,0,1485798,1485798
8640.84,0.0465783,0,1487466,1487466
8651.13,0.0426966,0,1488911,1488911
8660.3,0.0393443,0,1489799,1489799
8670.19,0.0358506,0,1487460,1487460
8680.52,0.0323783,0,1487992,1487992
8690.83,0.0291267,0,1487593,1487593
8700,0.0264223,0,1489046,1489046
8710.33,0.0235913,0,1490500,1490500
8720.31,0.0210768,0,1489985,1489985
8730.38,0.0187597,0,1492356,1492356
8740.71,0.0166155,0,1495028,1495028
8750.87,0.0147273,0,1493030,1493030
8760.02,0.0132187,0,1492466,1492466
8770.34,0.0116897,0,1493177,1493177
8780.65,0.0103288,0,1494702,1494702
8790.96,0.00914012,0,1494365,1494365
8800.13,0.00802364,0,1494671,1494671
8810.43,0.006995,0,1493743,1493743
8820.73,0.00600739,0,1496828,1496828
8831.03,0.0055373,0,1494145,1494145
8840.19,0.00518932,0,1493697,1493697
8850.5,0.00484292,0,1496548,1496548
8860.8,0.00452661,0,1495057,1495057
8871.07,0.00427464,0,1494270,1494270
8880.21,0.00406437,0,1495930,1495930
8890.48,0.00384995,0,1497682,1497682
8900.76,0.00365395,0,1494373,1494373
8911.03,0.00351844,0,1495565,1495565
8920.16,0.00343727,0,1496069,1496069
8930.44,0.00259693,0,1496538,1496538
8940.71,0.00252539,0,1497593,1497593
8950.98,0.00247625,0,1496313,1496313
8960.11,0.00242311,0,1496211,1496211
8970.39,0.00229842,0,1497308,1497308
8980.66,0.00221037,0,1497650,1497650
8990.94,0.00221405,0,1498292,1498292
9000.03,0.00230323,0,1499555,1499555
9010.24,0.0024697,0,1498412,1498412
9020.45,0.00267511,0,1494811,1494811
9030.66,0.00281211,0,1495567,1495567
9040.87,0.00296057,0,1496455,1496455
9051.07,0.00321423,0,1496899,1496899
9060.13,0.00339939,0,1497649,1497649
9070.32,0.00363607,0,1498842,1498842
9080.5,0.00400671,0,1495336,1495336
9090.69,0.00455336,0,1496997,1496997
9100.87,0.0050895,0,1496616,1496616
9111.06,0.00546397,0,1497445,1497445
9120.11,0.00569624,0,1500007,1500007
9130.3,0.00587083,0,1501605,1501605
9140.48,0.00608556,0,1500746,1500746
9150.67,0.0062298,0,1500773,1500773
9160.85,0.00622993,0,1503623,1503623
9171.04,0.00616656,0,1502588,1502588
9180.1,0.00597275,0,1503515,1503515
9190.32,0.00645249,0,1506534,1506534
9200.52,0.00656506,0,1507827,1507827
9210.73,0.00628788,0,1508318,1508318
9220.97,0.0061849,0,1506837,1506837
9230.03,0.00605395,0,1509925,1509925
9240.22,0.00587255,0,1512040,1512040
9250.4,0.0056188,0,1509882,1509882
9260.59,0.00533105,0,1510105,1510105
9270.77,0.00499892,0,1509403,1509403
9280.96,0.00462789,0,1509647,1509647
9290.01,0.00428244,0,1508885,1508885
9300.19,0.00386947,0,1507577,1507577
9310.38,0.00341029,0,1511707,1511707
9320.57,0.0028818,0,1514131,1514131
9330.75,0.00227114,0,1513319,1513319
9340.94,0.00156439,0,1512209,1512209
9351.12,0.000551496,0,1513918,1513918
9360.18,-0.00171677,0,1511724,1511724
9370.36,-0.00363416,0,1513273,1513273
9380.55,-0.00509329,0,1517591,1517591
9390.73,-0.00646851,0,1515699,1515699
9400.92,-0.00808173,0,1513173,1513173
9411.11,-0.00993643,0,1513977,1513977
9420.08,-0.0119616,0,1515879,1515879
9430.26,-0.0145298,0,1515817,1515817
9440.45,-0.0171428,0,1516648,1516648
9450.56,-0.0197212,0,1514459,1514459
9460.69,-0.0226884,0,1513452,1513452
9470.88,-0.0258949,0,1514216,1514216
9481.08,-0.027345,0,1515167,1515167
9490.17,-0.0307071,0,1515694,1515694
9500.39,-0.0347199,0,1514353,1514353
9510.63,-0.0384682,0,1516581,1516581
9520.87,-0.0420961,0,1518864,1518864
9530.96,-0.0463604,0,1520632,1520632
9540.06,-0.0504075,0,1520492,1520492
9550.3,-0.0546911,0,1522378,1522378
9560.52,-0.0589853,0,1521719,1521719
9570.66,-0.0634264,0,1520303,1520303
9580.75,-0.0679681,0,1521922,1521922
9590.78,-0.0725616,0,1524432,1524432
9600.77,-0.0771665,0,1525720,1525720
9610.75,-0.081725,0,1521362,1521362
9620.79,-0.0862044,0,1523006,1523006
9630.87,-0.0905695,0,1524755,1524755
9641.02,-0.0948274,0,1524335,1524335
9651.09,-0.0989023,0,1525586,1525586
9660.17,-0.102425,0,1527414,1527414
9670.36,-0.106189,0,1524547,1524547
9680.58,-0.109748,0,1525627,1525627
9690.76,-0.113085,0,1526584,1526584
9700.87,-0.116188,0,1527944,1527944
9710.94,-0.119198,0,1529276,1529276
9720.98,-0.121784,0,1526429,1526429
9731.01,-0.124218,0,1526333,1526333
9741.05,-0.12638,0,1528726,1528726
9751.1,-0.128149,0,1530479,1530479
9760.03,-0.12944,0,1528896,1528896
9770.09,-0.130529,0,1526778,1526778
9780.19,-0.131693,0,1527539,1527539
9790.4,-0.132373,0,1533887,1533887
9800.64,-0.132639,0,1537637,1537637
9810.88,-0.132814,0,1536303,1536303
9821.12,-0.132828,0,1534473,1534473
9830.21,-0.132823,0,1537607,1537607
9840.44,-0.132866,0,1539629,1539629
9850.63,-0.133068,0,1535559,1535559
9860.82,-0.133013,0,1536995,1536995
9871.03,-0.132911,0,1536643,1536643
9880.13,-0.132773,0,1536022,1536022
9890.37,-0.132559,0,1538874,1538874
9900.6,-0.132267,0,1539227,1539227
9910.84,-0.131891,0,1537270,1537270
9921.08,-0.131442,0,1538391,1538391
9930.19,-0.131005,0,1540296,1540296
9940.41,-0.130439,0,1537626,1537626
9950.66,-0.129752,0,1536474,1536474
9960.88,-0.128544,0,1534947,1534947
9971.09,-0.126128,0,1538566,1538566
9980.17,-0.124518,0,1540792,1540792
9990.39,-0.123223,0,1539278,1539278
10000.6,-0.121988,0,1537796,1537796
10010.8,-0.120494,0,1539506,1539506
10021,-0.118663,0,1539833,1539833
10030.1,-0.116889,0,1539243,1539243
10040.3,-0.114507,0,1537450,1537450
10050.5,-0.111818,0,1540165,1540165
10060.7,-0.108982,0,1540457,1540457
10071,-0.10612,0,1538915,1538915
10080,-0.10348,0,1539117,1539117
10090.3,-0.101419,0,1541986,1541986
10100.5,-0.0980469,0,1538876,1538876
10110.6,-0.093847,0,1541893,1541893
10120.8,-0.0898936,0,1541419,1541419
10130.9,-0.0859336,0,1538009,1538009
10140,-0.0823435,0,1540163,1540163
10150.2,-0.0785875,0,1539745,1539745
10160.5,-0.0749612,0,1537069,1537069
10170.7,-0.0712549,0,1537363,1537363
10180.9,-0.0674584,0,1539772,1539772
10190,-0.0641143,0,1537371,1537371
10200.2,-0.0604973,0,1531327,1531327
10210.5,-0.0570294,0,1530807,1530807
10220.7,-0.0536542,0,1534170,1534170
10230.9,-0.0503425,0,1528490,1528490
10240,-0.0474515,0,1527286,1527286
10250.2,-0.0442794,0,1530340,1530340
10260.5,-0.0412139,0,1529165,1529165
10270.7,-0.0382614,0,1531404,1531404
10280.9,-0.0353436,0,1528650,1528650
10290,-0.0329647,0,1528333,1528333
10300.3,-0.030393,0,1529407,1529407
10310.5,-0.0279322,0,1532266,1532266
10320.7,-0.0255926,0,1532786,1532786
10331,-0.0234025,0,1533847,1533847
10340,-0.0215503,0,1535983,1535983
10350.3,-0.0195406,0,1537422,1537422
10360.5,-0.0176345,0,1540644,1540644
10370.7,-0.0158592,0,1541509,1541509
10381,-0.0142358,0,1544490,1544490
10390,-0.0129469,0,1544515,1544515
10400.2,-0.0116382,0,1545180,1545180
10410.4,-0.00998758,0,1547498,1547498
10420.5,-0.00897094,0,1549917,1549917
10430.6,-0.00824026,0,1548312,1548312
10440.6,-0.00766139,0,1549192,1549192
10450.7,-0.00736794,0,1551137,1551137
10460.8,-0.00683765,0,1549830,1549830
10471,-0.00643367,0,1550744,1550744
10480,-0.00641915,0,1551639,1551639
10490.2,-0.00635791,0,1550940,1550940
10500.4,-0.00619216,0,1552349,1552349
10510.7,-0.00596362,0,1552482,1552482
10520.9,-0.00600914,0,1553061,1553061
10531.1,-0.00594443,0,1556498,1556498
10540.2,-0.00593648,0,1556500,1556500
10550.4,-0.00598181,0,1559586,1559586
10560.7,-0.00606585,0,1561948,1561948
10570.9,-0.00617604,0,1561305,1561305
10580,-0.00629627,0,1564484,1564484
10590.2,-0.00646685,0,1563690,1563690
10600.5,-0.00669102,0,1560012,1560012
10610.7,-0.00697945,0,1558781,1558781
10620.9,-0.00738094,0,1565483,1565483
10630,-0.00778844,0,1564709,1564709
10640.3,-0.00829198,0,1565837,1565837
10650.5,-0.00883954,0,1568385,1568385
10660.8,-0.00942377,0,1564899,1564899
10671,-0.0100416,0,1566945,1566945
10680.2,-0.0105968,0,1567103,1567103
10690.4,-0.011258,0,1565367,1565367
10700.7,-0.0120321,0,1565326,1565326
10710.9,-0.0138484,0,1567587,1567587
10720,-0.0152612,0,1564948,1564948
10730.3,-0.0165705,0,1565353,1565353
10740.6,-0.0177664,0,1563820,1563820
10750.9,-0.0189383,0,1563980,1563980
10761.1,-0.0201263,0,1563877,1563877
10770.2,-0.0212068,0,1564336,1564336
10780.5,-0.022456,0,1565261,1565261
10790.7,-0.0237404,0,1565320,1565320
10801,-0.0250564,0,1566851,1566851
10810.1,-0.0262549,0,1567609,1567609
10820.3,-0.0276381,0,1564340,1564340
10830.6,-0.0290469,0,1565003,1565003
10840.8,-0.0304633,0,1565693,1565693
10851.1,-0.0318911,0,1566320,1566320
10860.2,-0.0331715,0,1562696,1562696
10870.5,-0.0345502,0,1561221,1561221
10880.7,-0.0359308,0,1561527,1561527
10891,-0.0374622,0,1557706,1557706
10900.1,-0.0389307,0,1556984,1556984
10910.3,-0.0406106,0,1553811,1553811
10920.6,-0.0422447,0,1553818,1553818
10930.8,-0.0438027,0,1551595,1551595
10941.1,-0.0452886,0,1553058,1553058
10950.2,-0.0465612,0,1552416,1552416
10960.4,-0.0479683,0,1554239,1554239
10970.7,-0.0493287,0,1552241,1552241
10981,-0.0506303,0,1549562,1549562
10990.1,-0.0517573,0,1547410,1547410
11000.3,-0.0529928,0,1546662,1546662
11010.6,-0.0541824,0,1544836,1544836
11020.8,-0.0553208,0,1544124,1544124
11031.1,-0.0564098,0,1546616,1546616
11040.2,-0.0573403,0,1542579,1542579
11050.5,-0.0583455,0,1541270,1541270
11060.8,-0.0592992,0,1541110,1541110
11071.1,-0.0601903,0,1545609,1545609
11080.2,-0.0609254,0,1542836,1542836
11090.5,-0.0616788,0,1539930,1539930
11100.8,-0.0624125,0,1546657,1546657
11111.1,-0.0621036,0,1545164,1545164
11120.2,-0.0626232,0,1539795,1539795
11130.4,-0.0631375,0,1537978,1537978
11140.7,-0.0634787,0,1540483,1540483
11151,-0.0636228,0,1541138,1541138
11160.1,-0.0638138,0,1539554,1539554
11170.3,-0.0640356,0,1537399,1537399
11180.5,-0.0627455,0,1537003,1537003
11190.8,-0.0627703,0,1536375,1536375
11201,-0.0626216,0,1533765,1533765
11210.1,-0.0623969,0,1532879,1532879
11220.2,-0.06206,0,1531912,1531912
11230.3,-0.0616511,0,1532530,1532530
11240.4,-0.0612045,0,1531864,1531864
11250.6,-0.0607422,0,1532141,1532141
11260.7,-0.0602699,0,1530161,1530161
11270.9,-0.0597835,0,1529871,1529871
11280.3,-0.0593047,0,1526440,1526440
11290.5,-0.0587714,0,1525240,1525240
11300.6,-0.0582403,0,1526205,1526205
11310.2,-0.0576548,0,1526183,1526183
11320.4,-0.0569511,0,1525644,1525644
11330.5,-0.0561835,0,1524956,1524956
11340.4,-0.0553927,0,1526239,1526239
11350.7,-0.0550804,0,1523657,1523657
11360.5,-0.0543421,0,1521635,1521635
11370.4,-0.0533599,0,1523029,1523029
11380.1,-0.0522653,0,1525985,1525985
11390.5,-0.0510333,0,1523192,1523192
11401,-0.0497879,0,1517644,1517644
11410.6,-0.0486371,0,1518636,1518636
11420.3,-0.0474769,0,1518437,1518437
11430.7,-0.0462168,0,1518624,1518624
11440.1,-0.0450464,0,1519093,1519093
11450.7,-0.0436988,0,1517609,1517609
11460.3,-0.0424473,0,1518953,1518953
11470.9,-0.0410273,0,1520986,1520986
11480.5,-0.0396876,0,1520747,1520747
11491,-0.0381839,0,1517284,1517284
11500.3,-0.0368255,0,1516316,1516316
11510.9,-0.0355895,0,1519181,1519181
11520.5,-0.0340566,0,1519064,1519064
11530.1,-0.0322739,0,1518279,1518279
11541,-0.0300485,0,1517281,1517281
11550.9,-0.0279452,0,1516827,1516827
11561,-0.0258002,0,1515842,1515842
11571,-0.0236406,0,1517684,1517684
11581,-0.0214384,0,1518944,1518944
11591.1,-0.01917,0,1515881,1515881
11601.1,-0.0168556,0,1514772,1514772
11611.1,-0.0144692,0,1513368,1513368
11620,-0.0122843,0,1514595,1514595
11630.1,-0.00976116,0,1516354,1516354
11640.1,-0.00719153,0,1516252,1516252
11650.3,-0.00459397,0,1515464,1515464
11660.4,-0.00199331,0,1512583,1512583
11670.5,0.000609996,0,1515796,1515796
11680.6,0.00321894,0,1516244,1516244
11690.7,0.00583522,0,1515889,1515889
11700.8,0.00845452,0,1517702,1517702
11711,0.0110755,0,1517406,1517406
11721.1,0.0136943,0,1520649,1520649
11730.1,0.0160193,0,1518487,1518487
11740.2,0.0186337,0,1515460,1515460
11750.4,0.0212528,0,1511773,1511773
11760.5,0.023887,0,1513404,1513404
11770.6,0.0265464,0,1517346,1517346
11780.8,0.0292414,0,1513101,1513101
11790.9,0.0319772,0,1509057,1509057
11801,0.0348084,0,1507579,1507579
11810.1,0.0373674,0,1505670,1505670
11820.2,0.0401979,0,1507194,1507194
11830.3,0.0432514,0,1505351,1505351
11840.5,0.0465396,0,1507240,1507240
11850.6,0.0486894,0,1507604,1507604
11860.7,0.0521275,0,1507482,1507482
11870.9,0.055373,0,1507417,1507417
11881,0.0583624,0,1503692,1503692
11890,0.0609035,0,1503102,1503102
11900.1,0.0637482,0,1502606,1502606
11910.3,0.0665683,0,1501733,1501733
11920.4,0.0693277,0,1497695,1497695
11930.6,0.0720106,0,1500551,1500551
11940.7,0.0746185,0,1498924,1498924
11950.9,0.077161,0,1499104,1499104
11961.1,0.0796403,0,1499406,1499406
11970.2,0.0817887,0,1499938,1499938
11980.5,0.0841432,0,1500839,1500839
11990.7,0.0864305,0,1497840,1497840
12000.9,0.088652,0,1498291,1498291
12010,0.0905712,0,1499544,1499544
12020.3,0.092667,0,1500110,1500110
12030.5,0.0946937,0,1498788,1498788
12040.7,0.0966468,0,1497315,1497315
12051,0.0985205,0,1497218,1497218
12060.1,0.100115,0,1495673,1495673
12070.3,0.101828,0,1495957,1495957
12080.6,0.103451,0,1495519,1495519
12090.8,0.104984,0,1494577,1494577
12101,0.10643,0,1492362,1492362
12110,0.10768,0,1494705,1494705
12120.2,0.109062,0,1492062,1492062
12130.4,0.111163,0,1487024,1487024
12140.5,0.112158,0,1484409,1484409
12150.7,0.113199,0,1482823,1482823
12160.8,0.114072,0,1480277,1480277
12171,0.11444,0,1480714,1480714
12180.1,0.115152,0,1480964,1480964
12190.3,0.115454,0,1482283,1482283
12200.4,0.115351,0,1481776,1481776
12210.6,0.115132,0,1481266,1481266
12220.8,0.114162,0,1479964,1479964
12231,0.114021,0,1480466,1480466
12240.1,0.113807,0,1483395,1483395
12250.2,0.113541,0,1482001,1482001
12260.3,0.113288,0,1482411,1482411
12270.4,0.113032,0,1483091,1483091
12280.4,0.112805,0,1483623,1483623
12290.5,0.112588,0,1483330,1483330
12300.7,0.11232,0,1483515,1483515
12310.9,0.111988,0,1484691,1484691
12321.1,0.111606,0,1484305,1484305
12330.1,0.111241,0,1487091,1487091
12340.3,0.110815,0,1485547,1485547
12350.5,0.110391,0,1482392,1482392
12360.8,0.109983,0,1486519,1486519
12371,0.109587,0,1486646,1486646
12380.1,0.109242,0,1485619,1485619
12390.4,0.108852,0,1484260,1484260
12400.6,0.108457,0,1484393,1484393
12410.9,0.108055,0,1483066,1483066
12421.1,0.107646,0,1485849,1485849
12430.3,0.107282,0,1485601,1485601
12440.6,0.106877,0,1484942,1484942
12450.9,0.106481,0,1484623,1484623
12460.1,0.10614,0,1482023,1482023
12470.4,0.105766,0,1484223,1484223
12480.6,0.105402,0,1486917,1486917
12490.8,0.10504,0,1487007,1487007
12501,0.104676,0,1483309,1483309
12511.1,0.104305,0,1480307,1480307
12520.1,0.103966,0,1477533,1477533
12530.1,0.103573,0,1472172,1472172
12540.2,0.103171,0,1470133,1470133
12550.1,0.102758,0,1469647,1469647
12561.1,0.102289,0,1470714,1470714
12571,0.101862,0,1468832,1468832
12580.9,0.101425,0,1463741,1463741
12590.8,0.100971,0,1464531,1464531
12600.7,0.10049,0,1464397,1464397
12610.7,0.0999757,0,1463489,1463489
12620.6,0.0994255,0,1461265,1461265
12630.5,0.0988393,0,1461701,1461701
12640.4,0.0982184,0,1459734,1459734
12650.3,0.0975703,0,1459983,1459983
12660.2,0.0969141,0,1459650,1459650
12670.1,0.0962443,0,1460697,1460697
12680,0.0955361,0,1459982,1459982
12691,0.0944202,0,1457934,1457934
12700.9,0.0929954,0,1460115,1460115
12710.9,0.0917335,0,1458563,1458563
12720.8,0.0905757,0,1458988,1458988
12730.7,0.0894476,0,1458852,1458852
12740.6,0.0882618,0,1457590,1457590
12750.5,0.0869878,0,1459579,1459579
12760.4,0.0856501,0,1456159,1456159
12770.3,0.0842814,0,1460615,1460615
12780.3,0.0828996,0,1462677,1462677
12790.3,0.0815032,0,1458706,1458706
12800.3,0.0800906,0,1459116,1459116
12810.3,0.0786612,0,1459278,1459278
12820.3,0.0772149,0,1462185,1462185
12830.4,0.0757503,0,1459366,1459366
12840.5,0.074261,0,1461101,1461101
12850.6,0.0727465,0,1461380,1461380
12860.5,0.0712414,0,1460694,1460694
12870.7,0.0696813,0,1459578,1459578
12880.7,0.0681498,0,1459075,1459075
12890.5,0.0667434,0,1461754,1461754
12900.6,0.0654112,0,1460673,1460673
12910.7,0.0637005,0,1460056,1460056
12920.7,0.0619358,0,1458404,1458404
12930.6,0.0602453,0,1455627,1455627
12940.7,0.0585983,0,1456426,1456426
12950.8,0.0569723,0,1458862,1458862
12960.9,0.0552277,0,1454845,1454845
12971,0.0533877,0,1452363,1452363
12980.9,0.0515347,0,1454856,1454856
12991,0.0496469,0,1451358,1451358
13000,0.0479721,0,1453088,1453088
13010.1,0.0461036,0,1454791,1454791
13020,0.0442493,0,1455203,1455203
13030,0.0423793,0,1455544,1455544
13041.1,0.0403125,0,1453384,1453384
13050.9,0.0384666,0,1454184,1454184
13060.8,0.0366013,0,1452510,1452510
13070.6,0.034729,0,1454387,1454387
13080.5,0.0328323,0,1454249,1454249
13090.4,0.0309249,0,1455071,1455071
13100.3,0.0290046,0,1455259,1455259
13110.1,0.0270851,0,1456456,1456456
13120,0.025141,0,1454061,1454061
13131,0.0229667,0,1454243,1454243
13140.9,0.0210111,0,1453255,1453255
13150.7,0.0190859,0,1453585,1453585
13160.6,0.0171509,0,1453950,1453950
13170.5,0.0152217,0,1450149,1450149
13180.4,0.0133046,0,1449603,1449603
13190.3,0.0114003,0,1452004,1452004
13200.2,0.00950943,0,1449767,1449767
13210.1,0.00763622,0,1450654,1450654
13221,0.00558454,0,1449373,1449373
13230.8,0.00376502,0,1448217,1448217
13240.6,0.00196249,0,1445568,1445568
13250.4,0.000178259,0,1444420,1444420
13260.1,-0.00158624,0,1442440,1442440
13271,-0.00352193,0,1439722,1439722
13280.8,-0.0052402,0,1440122,1440122
13290.6,-0.00693461,0,1439275,1439275
13300.3,-0.00860413,0,1439412,1439412
13310.1,-0.0102479,0,1442253,1442253
13321,-0.012043,0,1439300,1439300
13330.8,-0.0136296,0,1438849,1438849
13340.5,-0.015188,0,1435504,1435504
13350.3,-0.0167173,0,1434300,1434300
13360.1,-0.0182163,0,1434692,1434692
13371,-0.019845,0,1431055,1431055
13380.7,-0.0212763,0,1431814,1431814
13390.5,-0.0226733,0,1430116,1430116
13400.3,-0.0240348,0,1428337,1428337
13410.1,-0.0253595,0,1428827,1428827
13420.9,-0.0268253,0,1424862,1424862
13430.7,-0.0281676,0,1427138,1427138
13440.5,-0.0293485,0,1426236,1426236
13450.3,-0.0304763,0,1423804,1423804
13460.1,-0.0315719,0,1423200,1423200
13471.1,-0.0327654,0,1425698,1425698
13481,-0.0338094,0,1424405,1424405
13491,-0.0348124,0,1421001,1421001
13501,-0.0357741,0,1423466,1423466
13510.8,-0.0366777,0,1424311,1424311
13520.6,-0.0375372,0,1424100,1424100
13530.4,-0.0383525,0,1422344,1422344
13540.4,-0.0391349,0,1423969,1423969
13550.3,-0.039875,0,1425889,1425889
13560.3,-0.0405706,0,1426342,1426342
13570.2,-0.0411399,0,1425731,1425731
13580.1,-0.0416974,0,1426088,1426088
13591.1,-0.0424643,0,1429297,1429297
13601.1,-0.0433259,0,1427586,1427586
13611,-0.0438281,0,1425970,1425970
13621,-0.0442912,0,1426699,1426699
13631,-0.0447288,0,1429188,1429188
13640.9,-0.0451391,0,1427674,1427674
13650.7,-0.0455202,0,1426303,1426303
13660.6,-0.0458744,0,1428001,1428001
13670.5,-0.0463434,0,1428698,1428698
13680.3,-0.0467495,0,1427171,1427171
13690.1,-0.0470635,0,1428057,1428057
13701,-0.0473429,0,1427688,1427688
13710.8,-0.0474807,0,1425880,1425880
13720.6,-0.0476439,0,1426921,1426921
13730.3,-0.0478122,0,1430690,1430690
13740.1,-0.0479833,0,1429255,1429255
13751,-0.0481788,0,1426824,1426824
13760.8,-0.0483592,0,1426466,1426466
13770.6,-0.0485383,0,1424231,1424231
13780.3,-0.0487113,0,1425402,1425402
13790.1,-0.0490846,0,1425803,1425803
13801,-0.0491717,0,1423451,1423451
13810.8,-0.0492153,0,1426467,1426467
13820.6,-0.0486772,0,1426201,1426201
13830.4,-0.0486163,0,1422848,1422848
13840.1,-0.0485624,0,1422875,1422875
13851,-0.0485069,0,1419490,1419490
13860.8,-0.0484628,0,1419365,1419365
13870.6,-0.0484481,0,1418635,1418635
13880.4,-0.0484924,0,1417486,1417486
13890.1,-0.0484973,0,1415946,1415946
13900.6,-0.048469,0,1416697,1416697
13910.4,-0.0484197,0,1414118,1414118
13920.1,-0.0483527,0,1412475,1412475
13930.8,-0.0482631,0,1412624,1412624
13940.4,-0.0481729,0,1411027,1411027
13950.6,-0.0480786,0,1410220,1410220
13960.8,-0.0479901,0,1408440,1408440
13970,-0.0479165,0,1408348,1408348
13980.5,-0.0478402,0,1408131,1408131
13990.8,-0.0477702,0,1407495,1407495
14000.1,-0.0477105,0,1406000,1406000
14010.4,-0.047646,0,1404998,1404998
14020.6,-0.0475815,0,1405219,1405219
14030.7,-0.047516,0,1406151,1406151
14040.7,-0.0474493,0,1405195,1405195
14050.7,-0.0473648,0,1404565,1404565
14060.8,-0.0472636,0,1405002,1405002
14071,-0.0471567,0,1402020,1402020
14080.2,-0.0470631,0,1400566,1400566
14090.5,-0.0469649,0,1401568,1401568
14101,-0.0468727,0,1403976,1403976
14110.7,-0.0467944,0,1403260,1403260
14120.5,-0.0467211,0,1401549,1401549
14130.4,-0.0466514,0,1402359,1402359
14140.3,-0.0465858,0,1403874,1403874
14150.2,-0.0465216,0,1402131,1402131
14161.1,-0.0464496,0,1402425,1402425
14170.9,-0.0463812,0,1400354,1400354
14180.7,-0.0463073,0,1398981,1398981
14190.5,-0.0462262,0,1399928,1399928
14200.2,-0.0461323,0,1399573,1399573
14210,-0.0471816,0,1397304,1397304
14221,-0.0481761,0,1395320,1395320
14230.8,-0.0486207,0,1395754,1395754
14240.6,-0.0479406,0,1395095,1395095
14250.4,-0.0477429,0,1394085,1394085
14260.3,-0.0474651,0,1394250,1394250
14270.2,-0.0471144,0,1394449,1394449
14280.1,-0.0467342,0,1393619,1393619
14291,-0.0463382,0,1392679,1392679
14300.9,-0.0460138,0,1389108,1389108
14310.8,-0.0457133,0,1388623,1388623
14320.8,-0.0454291,0,1389328,1389328
14330.7,-0.0451545,0,1389563,1389563
14340.8,-0.0448844,0,1389232,1389232
14350.8,-0.0446183,0,1388272,1388272
14360.8,-0.0443554,0,1385460,1385460
14370.8,-0.0440929,0,1382986,1382986
14380.9,-0.0438297,0,1382258,1382258
14391,-0.0435655,0,1381198,1381198
14401.1,-0.0433002,0,1382778,1382778
14410.1,-0.0430649,0,1379132,1379132
14420.4,-0.0427986,0,1377594,1377594
14430.5,-0.0425363,0,1375915,1375915
14441,-0.0422673,0,1375253,1375253
14451.1,-0.042006,0,1371653,1371653
14460.7,-0.0417578,0,1368365,1368365
14470.8,-0.0414942,0,1368193,1368193
14481.1,-0.0412233,0,1367559,1367559
14490.2,-0.0409812,0,1367764,1367764
14500.8,-0.0406968,0,1368049,1368049
14511,-0.0404181,0,1365591,1365591
14520.1,-0.0401674,0,1364758,1364758
14530.3,-0.0398847,0,1363602,1363602
14541.1,-0.0395856,0,1364404,1364404
14550.2,-0.0393331,0,1360629,1360629
14560.2,-0.0390546,0,1360375,1360375
14571.1,-0.0387522,0,1357989,1357989
14580.2,-0.038501,0,1355747,1355747
14590.4,-0.0382195,0,1353427,1353427
14601,-0.037931,0,1351645,1351645
14610.2,-0.0376836,0,1350859,1350859
14620.6,-0.0374089,0,1347571,1347571
14630.9,-0.037139,0,1343154,1343154
14640,-0.0369032,0,1340642,1340642
14650.2,-0.0366431,0,1338884,1338884
14660.4,-0.0363869,0,1338895,1338895
14670.6,-0.0361369,0,1337178,1337178
14680.7,-0.0358976,0,1336746,1336746
14690.9,-0.0356663,0,1337459,1337459
14701.1,-0.0354386,0,1335347,1335347
14710.1,-0.0352364,0,1330601,1330601
14720.2,-0.0350111,0,1328825,1328825
14730.3,-0.0347812,0,1328861,1328861
14740.5,-0.0345451,0,1323670,1323670
14750.6,-0.0343009,0,1323172,1323172
14760.8,-0.0340468,0,1320988,1320988
14770.9,-0.0337828,0,1321611,1321611
14781.1,-0.0335096,0,1320431,1320431
14790.1,-0.0332604,0,1318254,1318254
14800.3,-0.0329748,0,1318072,1318072
14810.4,-0.0326858,0,1313508,1313508
14820.6,-0.032396,0,1313794,1313794
14830.7,-0.0317125,0,1312377,1312377
14840.7,-0.0311418,0,1308882,1308882
14850.7,-0.0306608,0,1304828,1304828
14860.8,-0.0308614,0,1300711,1300711
14870.8,-0.0306731,0,1298310,1298310
14880.8,-0.0304608,0,1294742,1294742
14890.8,-0.0302216,0,1291487,1291487
14900.9,-0.029977,0,1286751,1286751
14910.9,-0.0296761,0,1283290,1283290
14920.9,-0.0293154,0,1279594,1279594
14931,-0.0289064,0,1273026,1273026
14941,-0.0284654,0,1270605,1270605
14951,-0.0280061,0,1264763,1264763
14961.1,-0.0275347,0,1257936,1257936
14971.1,-0.0270534,0,1255111,1255111
14981.1,-0.0265622,0,1249366,1249366
14990,-0.0261174,0,1245909,1245909
15000.1,-0.0256082,0,1241468,1241468
15010.1,-0.0250908,0,1237720,1237720
15020.1,-0.0245661,0,1232359,1232359
15030.2,-0.0240355,0,1226950,1226950
15040.2,-0.0234985,0,1220554,1220554
15050.4,-0.0229535,0,1216143,1216143
15060.5,-0.0224023,0,1209990,1209990
15070.6,-0.0218387,0,1202889,1202889
15080.7,-0.0212736,0,1196467,1196467
15090.7,-0.0206979,0,1190342,1190342
15100.7,-0.0201162,0,1184978,1184978
15110.5,-0.0195309,0,1182363,1182363
15120.3,-0.0189371,0,1175942,1175942
15130.1,-0.0183341,0,1169251,1169251
15141,-0.0176531,0,1166561,1166561
15150.8,-0.0170253,0,1162741,1162741
15160.6,-0.0163815,0,1159828,1159828
15170.4,-0.0157312,0,1157151,1157151
15180.2,-0.0150751,0,1151370,1151370
15191.1,-0.0143301,0,1144809,1144809
15200.9,-0.0136394,0,1142058,1142058
15210.7,-0.0129263,0,1140310,1140310
15220.5,-0.0121936,0,1138620,1138620
15230.4,-0.0114445,0,1137011,1137011
15240.1,-0.0109084,0,1135396,1135396
15250.7,-0.0101685,0,1132164,1132164
15260.1,-0.00941437,0,1128271,1128271
15270.5,-0.00853942,0,1126684,1126684
15280.9,-0.00765473,0,1123084,1123084
15290.3,-0.00685621,0,1119775,1119775
15300.8,-0.00596772,0,1116165,1116165
15310.2,-0.00516744,0,1112455,1112455
15320.7,-0.00427656,0,1107342,1107342
15330.2,-0.00347142,0,1103699,1103699
15340.7,-0.0025706,0,1099083,1099083
15350.3,-0.00175431,0,1094470,1094470
15360.9,-0.000843568,0,1093101,1093101
15370.6,-2.14885e-05,0,1092256,1092256
15380.3,0.000803224,0,1090368,1090368
15391,0.00171993,0,1087555,1087555
15400.8,0.00253777,0,1084877,1084877
15410.5,0.00334273,0,1084006,1084006
15420.2,0.00413268,0,1079441,1079441
15431,0.00499002,0,1076506,1076506
15440.8,0.00574239,0,1071574,1071574
15450.7,0.00647482,0,1068891,1068891
15460.5,0.00718434,0,1065108,1065108
15470.3,0.00786987,0,1062857,1062857
15480,0.00852276,0,1060073,1060073
15490.9,0.00922267,0,1056759,1056759
15500.8,0.00982477,0,1054898,1054898
15510.6,0.010397,0,1051444,1051444
15520.4,0.0109388,0,1048989,1048989
15530,0.0114387,0,1046527,1046527
15540.7,0.0119598,0,1039970,1039970
15550.5,0.0124078,0,1037058,1037058
15560.3,0.012824,0,1034710,1034710
15570.9,0.0132396,0,1029826,1029826
15580.5,0.0135756,0,1026254,1026254
15590.3,0.0140711,0,1021750,1021750
15600.8,0.0143081,0,1018256,1018256
15611,0.0144762,0,1014861,1014861
15620.9,0.0145941,0,1010987,1010987
15630.9,0.0146831,0,1007995,1007995
15640.7,0.0146978,0,1002943,1002943
15650.5,0.0146772,0,999070,999070
15660.6,0.0146378,0,996389,996389
15670.9,0.014577,0,990682,990682
15681,0.0144903,0,987426,987426
15690.9,0.0143859,0,983061,983061
15700.2,0.0142703,0,979312,979312
15710.4,0.0141288,0,976266,976266
15720.7,0.0139816,0,970191,970191
15731,0.0138314,0,966662,966662
15740.1,0.0136968,0,964746,964746
15750.5,0.0135393,0,963185,963185
15761,0.0133766,0,958603,958603
15770.5,0.0132253,0,955185,955185
15780.5,0.0130638,0,954102,954102
15790.9,0.0128927,0,949971,949971
15800.2,0.0127383,0,944944,944944
15810.4,0.0125643,0,940135,940135
15820.6,0.0123885,0,934530,934530
15830.8,0.012208,0,931231,931231
15841,0.0120141,0,926756,926756
15850.1,0.0118455,0,920841,920841
15860.2,0.0116612,0,916048,916048
15870.3,0.0114784,0,913604,913604
15880.4,0.0112977,0,912505,912505
15890.5,0.0111176,0,909090,909090
15900.3,0.0109416,0,904119,904119
15910.1,0.0107675,0,899133,899133
15921,0.0105744,0,895854,895854
15930.8,0.0104011,0,893301,893301
15940.7,0.0102289,0,891976,891976
15950.7,0.0100557,0,888723,888723
15960.8,0.00988081,0,883619,883619
15970.1,0.00972231,0,882723,882723
15980.6,0.00954497,0,882440,882440
15991,0.00937196,0,879718,879718
16000.3,0.00922087,0,877902,877902
16010.7,0.0090542,0,874162,874162
16021.1,0.00889091,0,873246,873246
16030.6,0.00874494,0,870902,870902
16040.2,0.00860261,0,867356,867356
16051,0.00844588,0,865198,865198
16060.4,0.00831322,0,862991,862991
16070.9,0.00817067,0,861984,861984
16080.2,0.00804673,0,860348,860348
16090.9,0.00790723,0,856290,856290
16100.4,0.0077863,0,852120,852120
16111,0.00765576,0,850437,850437
16120.4,0.00754297,0,851202,851202
16130.3,0.00742727,0,849327,849327
16140.1,0.00731595,0,847566,847566
16151,0.007191,0,845650,845650
16160.7,0.00707822,0,841939,841939
16170.6,0.0069647,0,837765,837765
16180.4,0.00685251,0,835314,835314
16190.1,0.00674348,0,835027,835027
16201,0.00662304,0,830975,830975
16210.7,0.00651734,0,826780,826780
16220.1,0.00641543,0,825000,825000
16231.2,0.00629421,0,823829,823829
16240.9,0.00618696,0,820470,820470
16250.5,0.00607841,0,816662,816662
16260.1,0.00590221,0,815090,815090
16270.9,0.00566313,0,811985,811985
16280.4,0.00545076,0,810987,810987
16291.1,0.00521212,0,806260,806260
16300.7,0.00500359,0,802480,802480
16310.2,0.00480056,0,798546,798546
16321,0.00460118,0,797026,797026
16330.6,0.00445374,0,797580,797580
16340.4,0.0042931,0,793067,793067
16350.4,0.00412194,0,788408,788408
16360.4,0.00394561,0,786392,786392
16370.3,0.00376379,0,782616,782616
16380.3,0.00357571,0,780753,780753
16390.2,0.00337991,0,778978,778978
16400.1,0.00317481,0,775456,775456
16411.2,0.00293156,0,772806,772806
16421.1,0.00270286,0,771623,771623
16431.1,0.00246153,0,770168,770168
16440.8,0.0022129,0,769688,769688
16450.9,0.0019409,0,767601,767601
16460.2,0.00167622,0,764987,764987
16470.9,0.00135798,0,762141,762141
16480.1,0.00106683,0,762411,762411
16490,0.000739775,0,759375,759375
16500.9,0.000363032,0,760054,760054
16510.8,-1.76328e-07,0,756457,756457
16520.6,-0.00034796,0,753683,753683
16530.6,-0.000665913,0,752689,752689
16540.5,-0.00106154,0,753364,753364
16550.3,-0.00150431,0,751500,751500
16560.2,-0.00195213,0,749152,749152
16570.1,-0.00239691,0,747297,747297
16580.1,-0.00285489,0,743739,743739
16590.1,-0.00333491,0,742535,742535
16600,-0.00384323,0,740344,740344
16610.1,-0.00438674,0,736212,736212
16620.2,-0.00495945,0,733087,733087
16630.3,-0.00555651,0,732385,732385
16640.4,-0.00617396,0,730577,730577
16650.2,-0.00679418,0,728738,728738
16660.3,-0.00744103,0,724966,724966
16670.4,-0.00810407,0,721716,721716
16680,-0.00874741,0,719364,719364
16690.4,-0.00945859,0,720568,720568
16701.1,-0.0102126,0,716083,716083
16711.2,-0.0109452,0,714566,714566
16721,-0.0116706,0,712350,712350
16730.8,-0.0124218,0,708560,708560
16741.1,-0.0132198,0,708256,708256
16751.2,-0.0140099,0,704389,704389
16760,-0.0147164,0,702367,702367
16770,-0.0155224,0,700472,700472
16780.2,-0.0163532,0,697342,697342
16790.3,-0.0171887,0,694618,694618
16800.8,-0.0180708,0,691640,691640
16810.2,-0.0188827,0,690893,690893
16820.7,-0.0197895,0,690614,690614
16830,-0.0205654,0,689368,689368
16840.2,-0.0214412,0,686105,686105
16850.4,-0.0223658,0,684918,684918
16860.6,-0.0233332,0,684007,684007
16870.9,-0.0243267,0,681536,681536
16881.2,-0.0253397,0,679124,679124
16890.2,-0.0262332,0,677023,677023
16900.4,-0.0272508,0,675392,675392
16910.5,-0.028263,0,672550,672550
16920.8,-0.0293,0,669480,669480
16930.7,-0.0303033,0,667726,667726
16940.1,-0.0312674,0,666546,666546
16950.1,-0.0322987,0,662763,662763
16960.1,-0.033342,0,661226,661226
16970.3,-0.0344067,0,660549,660549
16980.4,-0.0354735,0,658805,658805
16990.7,-0.0365599,0,656834,656834
17001,-0.0376414,0,655651,655651
17011.1,-0.0387037,0,653719,653719
17020.2,-0.0396532,0,651727,651727
17030.3,-0.0406988,0,653110,653110
17040.2,-0.0417062,0,651901,651901
17051,-0.0427958,0,649215,649215
17060.9,-0.0437831,0,646393,646393
17070.4,-0.0447033,0,645082,645082
17080.7,-0.045688,0,645549,645549
17090.4,-0.0465923,0,642725,642725
17100.8,-0.0475318,0,644053,644053
17111.2,-0.0484433,0,643037,643037
17120.2,-0.0492076,0,640266,640266
17130.7,-0.0500695,0,636288,636288
17140.1,-0.0508051,0,635158,635158
17151.5,-0.0516597,0,633116,633116
17160.5,-0.0522945,0,631752,631752
17170.9,-0.0529837,0,629580,629580
17180.7,-0.053596,0,627238,627238
17190.1,-0.0541341,0,625288,625288
17200.3,-0.0546772,0,625364,625364
17210.8,-0.0551804,0,622594,622594
17221.2,-0.05562,0,618719,618719
17230.5,-0.055962,0,616066,616066
17240.9,-0.0561869,0,614627,614627
17250.1,-0.0563805,0,614305,614305
17260.6,-0.0565511,0,612739,612739
17270.6,-0.0561314,0,610036,610036
17280.7,-0.0560963,0,607360,607360
17290.8,-0.0560229,0,606425,606425
17300.5,-0.0559197,0,603204,603204
17310.2,-0.0557897,0,600793,600793
17320.1,-0.0556327,0,600283,600283
17330.9,-0.0554319,0,598282,598282
17341.1,-0.0554118,0,594797,594797
17351.1,-0.055362,0,590759,590759
17361.2,-0.0552149,0,589183,589183
17370.5,-0.0549994,0,588107,588107
17380.5,-0.0546859,0,587196,587196
17390.7,-0.0543038,0,586410,586410
17400.8,-0.0539302,0,583789,583789
17411.2,-0.0534874,0,582484,582484
17421.2,-0.0529958,0,580850,580850
17431.2,-0.0524541,0,580689,580689
17440,-0.0519493,0,580419,580419
17451.2,-0.051273,0,579825,579825
17460.3,-0.050713,0,579364,579364
17470.4,-0.0500644,0,576296,576296
17480.3,-0.0494195,0,575077,575077
17490,-0.04876,0,572476,572476
17500.6,-0.0480172,0,572496,572496
17510.5,-0.0472934,0,570876,570876
17520.4,-0.0465353,0,570852,570852
17530.6,-0.0457155,0,569437,569437
17540.8,-0.0450214,0,568997,568997
17551,-0.0442546,0,567760,567760
17561.1,-0.0433984,0,567472,567472
17570,-0.0426025,0,566794,566794
17580.8,-0.0415664,0,563040,563040
17591,-0.0405218,0,562869,562869
17600.8,-0.0394856,0,563975,563975
17610.1,-0.0384785,0,563325,563325
17621.3,-0.0372432,0,559947,559947
17631.2,-0.0361277,0,558951,558951
17641.2,-0.0349682,0,560810,560810
17650,-0.0339311,0,558959,558959
17660.9,-0.0326272,0,557049,557049
17670.9,-0.0313984,0,558087,558087
17681.3,-0.0300966,0,558597,558597
17690.2,-0.0289607,0,558459,558459
17701.2,-0.0275273,0,555836,555836
17710.1,-0.0263566,0,554793,554793
17720.2,-0.0249996,0,552824,552824
17730.4,-0.0236209,0,551834,551834
17740.9,-0.0221809,0,551562,551562
17750.5,-0.0208366,0,549041,549041
17760.2,-0.0194841,0,546579,546579
17771.6,-0.0178798,0,545777,545777
17780.8,-0.0165785,0,547016,547016
17790.9,-0.0151553,0,546117,546117
17800.2,-0.013829,0,543317,543317
17810.5,-0.012357,0,544261,544261
17820.3,-0.0109634,0,544376,544376
17831.2,-0.00940426,0,544187,544187
17841.2,-0.00798712,0,541431,541431
17851.4,-0.00654444,0,540322,540322
17861.7,-0.00509009,0,539918,539918
17871,-0.00378306,0,539724,539724
17880.2,-0.00249686,0,539983,539983
17891.5,-0.000925455,0,538396,538396
17901.1,0.00041373,0,537419,537419
17911.1,0.00180715,0,537295,537295
17920.7,0.003136,0,537691,537691
17930.8,0.00453847,0,535223,535223
17940.7,0.00592317,0,534810,534810
17950.8,0.00732998,0,533756,533756
17960.9,0.00871909,0,531983,531983
17971.4,0.0101719,0,531544,531544
17981.6,0.0115841,0,530953,530953
17991.6,0.012943,0,528565,528565
18001.6,0.0143159,0,526631,526631
18010.4,0.0154981,0,525763,525763
18020.4,0.0168533,0,527293,527293
18030.3,0.0181789,0,526223,526223
18040.6,0.0195343,0,524612,524612
18051.1,0.0209127,0,524048,524048
18061,0.0221934,0,523060,523060
18071.2,0.0235059,0,521154,521154
18080.3,0.0246539,0,519979,519979
18090.7,0.0259476,0,519981,519981
18101,0.027214,0,517232,517232
18111.4,0.0284617,0,514965,514965
18121.6,0.0296601,0,513617,513617
18130,0.0306421,0,512625,512625
18140.6,0.0318404,0,512023,512023
18150.7,0.0329636,0,509745,509745
18160.8,0.0340679,0,508848,508848
18171.3,0.0351956,0,506482,506482
18180,0.0361009,0,505160,505160
18190.2,0.0371428,0,505645,505645
18200.7,0.0382013,0,504537,504537
18210.9,0.0391938,0,503938,503938
18221,0.0401693,0,500872,500872
18231.8,0.0411761,0,499526,499526
18240.5,0.0419697,0,499043,499043
18250.8,0.0428955,0,496823,496823
18261.3,0.0438108,0,495638,495638
18271.2,0.0446519,0,493228,493228
18281.8,0.045522,0,489022,489022
18290.6,0.0462262,0,489354,489354
18301.2,0.0470473,0,488946,488946
18310,0.0477111,0,488235,488235
18320,0.0484356,0,487081,487081
18330.3,0.0491498,0,484686,484686
18340.6,0.0498379,0,484175,484175
18350.8,0.0504911,0,485670,485670
18360.7,0.0510908,0,483207,483207
18371,0.0516801,0,481299,481299
18381.3,0.0522441,0,481406,481406
18391.5,0.0527681,0,479404,479404
18400.1,0.0531887,0,477857,477857
18410.2,0.0536544,0,477227,477227
18420.4,0.0540849,0,474729,474729
18430.6,0.0544831,0,474412,474412
18440.7,0.0548363,0,472680,472680
18450.7,0.0542249,0,472069,472069
18460.9,0.0545046,0,470511,470511
18471,0.0546982,0,470288,470288
18481,0.05485,0,467952,467952
18491,0.054832,0,465638,465638
18501.4,0.0544585,0,464235,464235
18511.6,0.0545956,0,462656,462656
18520,0.054649,0,461931,461931
18530.2,0.0528811,0,462452,462452
18540.4,0.0544118,0,461402,461402
18550.5,0.0557296,0,459013,459013
18561.5,0.0561912,0,457887,457887
18570.2,0.0556593,0,457111,457111
18580.6,0.0550258,0,455519,455519
18590.6,0.0548441,0,454983,454983
18600.8,0.0545489,0,454285,454285
18611.3,0.0541936,0,452922,452922
18621.4,0.0538269,0,452613,452613
18631.4,0.0534581,0,451365,451365
18641.6,0.0530818,0,450441,450441
18650.2,0.0527682,0,448722,448722
18660.7,0.0524349,0,447090,447090
18670.8,0.0520829,0,447805,447805
18680.6,0.0516252,0,447008,447008
18690.9,0.0510833,0,444672,444672
18701.2,0.0504856,0,443840,443840
18711.4,0.0498459,0,444794,444794
18721.7,0.0491806,0,444515,444515
18731.5,0.0485224,0,443739,443739
18740,0.0479481,0,442280,442280
18750.3,0.0472459,0,440943,440943
18760.5,0.046537,0,441244,441244
18770.4,0.0458379,0,440786,440786
18780.6,0.0451323,0,440704,440704
18790.9,0.0444106,0,439249,439249
18801.1,0.0436563,0,437182,437182
18811.1,0.0428924,0,436062,436062
18821.1,0.0421316,0,434892,434892
18831.2,0.0413601,0,435175,435175
18841.3,0.040581,0,434998,434998
18850.1,0.0398984,0,432883,432883
18860.1,0.0391066,0,432683,432683
18870.2,0.0382961,0,431464,431464
18880.7,0.0374484,0,430015,430015
18890.9,0.0365669,0,428758,428758
18901.2,0.03562,0,429442,429442
18911,0.0346974,0,428928,428928
18920.8,0.0337624,0,426920,426920
18930.9,0.0328038,0,426109,426109
18941.2,0.0318265,0,424027,424027
18951.6,0.0307894,0,422796,422796
18961.5,0.0297885,0,421797,421797
18970,0.0289019,0,420514,420514
18980.1,0.0277621,0,421402,421402
18990.5,0.0265221,0,421412,421412
19000.6,0.0252901,0,421010,421010
19010.8,0.0240434,0,419968,419968
19020.9,0.0228199,0,418591,418591
19031.2,0.0215529,0,417343,417343
19040.9,0.0203645,0,415452,415452
19051.2,0.019108,0,416567,416567
19061.3,0.017861,0,415898,415898
19071.4,0.016608,0,415191,415191
19080.5,0.0154809,0,412814,412814
19090.7,0.014205,0,411992,411992
19101.1,0.0129112,0,409807,409807
19111.1,0.01167,0,409823,409823
19121.5,0.0103761,0,409559,409559
19131.5,0.00911491,0,410784,410784
19141.5,0.00784845,0,410240,410240
19150.7,0.00668239,0,407609,407609
19161,0.00537074,0,406974,406974
19171.4,0.00406417,0,406668,406668
19181.5,0.00280277,0,406257,406257
19191.6,0.00156788,0,406019,406019
19200.1,0.000534363,0,404709,404709
19210.4,-0.00068733,0,403897,403897
19220.4,-0.00182669,0,401944,401944
19230.4,-0.00293718,0,402454,402454
19240.7,-0.00403792,0,400892,400892
19251.5,-0.00513281,0,401570,401570
19261.4,-0.00609685,0,400170,400170
19271.6,-0.00703194,0,398727,398727
19280.1,-0.00777608,0,399976,399976
19290.9,-0.00867754,0,398568,398568
19300.9,-0.00945343,0,398099,398099
19311.1,-0.0101866,0,397266,397266
19321.4,-0.0108677,0,398127,398127
19330.2,-0.0113885,0,396900,396900
19340.6,-0.0119218,0,395703,395703
19350.4,-0.0124006,0,393757,393757
19361.4,-0.012867,0,391773,391773
19370.1,-0.0131668,0,392044,392044
19380.2,-0.0134327,0,391940,391940
19390.2,-0.0125369,0,392450,392450
19400.4,-0.0125572,0,391676,391676
19410.8,-0.0126656,0,391093,391093
19421.6,-0.0127968,0,390641,390641
19431.6,-0.0129115,0,391739,391739
19440.2,-0.0124135,0,389657,389657
19450.4,-0.0125166,0,387848,387848
19461.2,-0.0125572,0,386250,386250
19471.2,-0.0125524,0,386374,386374
19481.5,-0.0125171,0,385869,385869
19490.1,-0.0124692,0,386106,386106
19501,-0.0123499,0,387176,387176
19511.4,-0.0122285,0,388805,388805
19521.5,-0.0121236,0,386728,386728
19530.2,-0.0120182,0,385042,385042
19540.7,-0.0118629,0,382626,382626
19551.5,-0.0117142,0,382940,382940
19560,-0.0115674,0,382543,382543
19570.2,-0.011242,0,382018,382018
19580.2,-0.0107794,0,381024,381024
19590.8,-0.0102158,0,381658,381658
19600.6,-0.00967669,0,382808,382808
19610.9,-0.00912843,0,380036,380036
19621.2,-0.00861842,0,378264,378264
19630,-0.00820162,0,378585,378585
19641.7,-0.00763194,0,376426,376426
19650.3,-0.00717283,0,376032,376032
19660.8,-0.00655486,0,375085,375085
19670.8,-0.00590397,0,376102,376102
19681.3,-0.00516983,0,376683,376683
19690.6,-0.00450906,0,377176,377176
19700.7,-0.003768,0,378071,378071
19710.7,-0.00290865,0,375911,375911
19720.9,-0.00198072,0,373480,373480
19731.9,-0.0010176,0,371886,371886
19740.9,-0.000251906,0,372624,372624
19750.8,0.000681228,0,373930,373930
19760.9,0.00169907,0,370998,370998
19771.7,0.00282628,0,368753,368753
19780.3,0.00371896,0,370074,370074
19790.6,0.00477727,0,370996,370996
19800.6,0.00579217,0,370696,370696
19810.9,0.00680432,0,369375,369375
19821,0.00778653,0,369125,369125
19831.1,0.00874543,0,368379,368379
19841.4,0.0097102,0,367025,367025
19851.5,0.0106488,0,366017,366017
19861.9,0.011613,0,363735,363735
19871,0.0124677,0,364175,364175
19881.1,0.0134092,0,365150,365150
19891.4,0.0143671,0,366285,366285
19901.6,0.0153089,0,364328,364328
19910,0.0160891,0,362981,362981
19920.8,0.0170839,0,362540,362540
19930.9,0.018021,0,361377,361377
19940.9,0.0189528,0,359323,359323
19951.5,0.0199351,0,357277,357277
19961.1,0.0208112,0,356530,356530
19971.4,0.0217468,0,357732,357732
19981.6,0.022648,0,359061,359061
19991.6,0.0235079,0,358632,358632
