time,surface_elevation,reference_data,number_of_local_cells,number_of_global_cells
0,0,0,61938,61938
10.2715,0,0,67128,67128
20.4475,0,0,87324,87324
30.6485,0,0,93958,93958
40.8532,0,0,93388,93388
51.0668,0,0,93994,93994
61.2521,0,0,94848,94848
71.4373,0,0,96572,96572
80.1674,0,0,98362,98362
90.3526,0,0,100804,100804
100.538,0,0,102416,102416
110.723,0,0,104284,104284
120.908,0,0,105758,105758
131.099,0,0,107466,107466
141.3,0,0,109194,109194
150.043,0,0,110638,110638
160.244,0,0,112374,112374
170.445,0,0,114356,114356
180.652,0,0,115590,115590
190.869,0,0,117318,117318
201.093,0,0,118520,118520
211.305,0,0,119540,119540
220.121,0,0,120584,120584
230.417,0,0,121490,121490
240.686,0,0,122932,122932
250.97,0,0,124428,124428
261.251,0,0,126104,126104
270.052,0,0,127300,127300
280.281,0,0,128648,128648
290.485,0,0,129906,129906
300.745,0,0,131168,131168
311.048,0,0,133104,133104
321.357,0,0,134290,134290
330.186,0,0,135278,135278
340.45,0,0,136606,136606
350.689,0,0,137512,137512
360.933,0,0,139204,139204
371.133,0,0,141020,141020
381.346,0,0,142206,142206
390.098,0,0,143476,143476
400.324,0,0,144678,144678
410.509,0,0,145742,145742
420.693,0,0,147174,147174
430.984,0,0,148080,148080
441.317,0,0,149018,149018
450.169,0,0,150306,150306
460.441,0,0,152028,152028
470.672,0,0,152808,152808
480.933,0,0,153952,153952
491.167,0,0,155000,155000
501.367,0,0,156104,156104
510.11,0,0,157516,157516
520.319,0,0,157626,157626
530.529,0,0,158316,158316
540.743,0,0,160110,160110
550.993,0,0,161496,161496
561.303,0,0,162332,162332
570.19,0,0,163588,163588
580.551,0,0,165030,165030
590.841,0,0,166162,166162
601.166,0,0,168270,168270
610.023,0,0,168938,168938
620.357,0,0,169750,169750
630.691,0,0,171398,171398
640.91,0,0,173526,173526
651.108,0,0,175742,175742
661.292,0,0,177014,177014
670.046,0,0,178320,178320
680.246,0,0,180518,180518
690.429,0,0,182122,182122
700.644,0,0,183534,183534
710.835,0,0,186004,186004
721.023,0,0,187504,187504
731.243,0,0,189146,189146
740.066,0,0,191464,191464
750.294,0,0,193464,193464
760.477,0,0,194340,194340
770.672,0,0,195910,195910
780.945,0,0,197846,197846
791.136,0,0,200850,200850
801.323,0,0,201492,201492
810.07,0,0,202304,202304
820.3,0,0,204900,204900
830.484,0,0,206364,206364
840.67,0,0,207842,207842
850.869,0,0,210166,210166
861.054,0,0,210922,210922
871.238,0,0,211070,211070
881.452,0,0,212474,212474
890.213,0,0,213902,213902
900.445,0,0,215166,215166
910.661,0,0,217550,217550
920.845,0,0,218670,218670
931.029,0,0,220154,220154
941.212,0,0,221014,221014
951.412,0,0,222842,222842
960.155,0,0,224688,224688
970.341,0,0,226268,226268
980.538,0,0,227502,227502
990.739,0,0,228692,228692
1000.94,0,0,229982,229982
1011.14,0,0,230588,230588
1021.34,0,0,231980,231980
1030.08,0,0,233210,233210
1040.28,0,0,234548,234548
1050.48,0,0,235900,235900
1060.68,0,0,236486,236486
1070.89,0,0,238588,238588
1081.09,0,0,239938,239938
1091.29,0,0,241164,241164
1100.03,0,0,242746,242746
1110.23,0,0,245210,245210
1120.43,0,0,245838,245838
1130.63,0,0,246906,246906
1140.84,0,0,249276,249276
1151.04,0,0,251426,251426
1161.17,0,0,252674,252674
1171.16,-6.36646e-12,0,254308,254308
1181.18,-1.27329e-11,0,255796,255796
1191.32,-1.90994e-11,0,256732,256732
1201.42,-2.54659e-11,0,257776,257776
1211.41,-3.18323e-11,0,259050,259050
1220.03,-3.72893e-11,0,261000,261000
1230.23,-4.36557e-11,0,261768,261768
1240.41,-5.00222e-11,0,263446,263446
1250.39,-5.72982e-11,0,264722,264722
1260.45,-7.00311e-11,0,265956,265956
1270.61,-8.2764e-11,0,266798,266798
1280.66,-9.54969e-11,0,268212,268212
1290.64,-1.10958e-10,0,270140,270140
1300.63,-1.30058e-10,0,271562,271562
1310.73,-1.49157e-10,0,272392,272392
1320.92,-1.74623e-10,0,273410,273410
1331.12,-2.01908e-10,0,274316,274316
1341.14,-2.3374e-10,0,275382,275382
1351.12,-2.6921e-10,0,276402,276402
1361.12,-3.09228e-10,0,278216,278216
1371.3,-3.55612e-10,0,279820,279820
1381.3,-4.07454e-10,0,280224,280224
1391.28,-4.66571e-10,0,281180,281180
1401.29,-5.32964e-10,0,282386,282386
1411.37,-6.08452e-10,0,283512,283512
1421.36,-6.93944e-10,0,284860,284860
1431.34,-7.88532e-10,0,286888,286888
1441.33,-8.95852e-10,0,287678,287678
1451.35,-1.01772e-09,0,288424,288424
1461.3,-1.15233e-09,0,288410,288410
1471.33,-1.30512e-09,0,289256,289256
1480.01,-1.45246e-09,0,290080,290080
1490.16,-1.64164e-09,0,291734,291734
1500.06,-1.84991e-09,0,293132,293132
1510.1,-2.08365e-09,0,292848,292848
1520.21,-2.34832e-09,0,294090,294090
1530.27,-2.64117e-09,0,295238,295238
1540.17,-2.96222e-09,0,296440,296440
1550.08,-3.31875e-09,0,296122,296122
1560.13,-3.71983e-09,0,297612,297612
1570.18,-4.16549e-09,0,298400,298400
1580.32,-4.66389e-09,0,299902,299902
1590.24,-5.20413e-09,0,301994,301994
1601.37,-5.87715e-09,0,302744,302744
1610.12,-6.46105e-09,0,302974,302974
1620.32,-7.20775e-09,0,304618,304618
1630.26,-8.00992e-09,0,305544,305544
1641.26,-8.99308e-09,0,306056,306056
1650,-9.85074e-09,0,307302,307302
1660.2,-1.09458e-08,0,309160,309160
1670.06,-1.21072e-08,0,309872,309872
1681.21,-1.35587e-08,0,309694,309694
1691.41,-1.5023e-08,0,310468,310468
1700.16,-1.639e-08,0,311956,311956
1711.25,-1.82881e-08,0,312352,312352
1721.46,-2.02062e-08,0,312098,312098
1730.2,-2.19961e-08,0,313620,313620
1740.22,-2.42226e-08,0,315926,315926
1750.42,-2.67e-08,0,315940,315940
1760.62,-2.94058e-08,0,316394,316394
1770.84,-3.23635e-08,0,317502,317502
1780.13,-3.52866e-08,0,318848,318848
1790.16,-3.87117e-08,0,319422,319422
1800.35,-4.25034e-08,0,319636,319636
1810.24,-4.6497e-08,0,320402,320402
1821.41,-5.14246e-08,0,321812,321812
1830.87,-5.59603e-08,0,321582,321582
1840.43,-6.0917e-08,0,322346,322346
1850.37,-6.64868e-08,0,323612,323612
1861.32,-7.31698e-08,0,324308,324308
1870.6,-7.93034e-08,0,325566,325566
1880.41,-8.62938e-08,0,326836,326836
1890.19,-9.38198e-08,0,326902,326902
1901.19,-1.03002e-07,0,328200,328200
1911.3,-1.12157e-07,0,328914,328914
1921.22,-1.21846e-07,0,329542,329542
1931.13,-1.32289e-07,0,330084,330084
1940.31,-1.42692e-07,0,331284,331284
1951.14,-1.55923e-07,0,332916,332916
1960.25,-1.6791e-07,0,332410,332410
1971.17,-1.83373e-07,0,332498,332498
1980.47,-1.97568e-07,0,333778,333778
1990.12,-2.13345e-07,0,334946,334946
2000.97,-2.32466e-07,0,335814,335814
2010.59,-2.50701e-07,0,335558,335558
2021.37,-2.72687e-07,0,337170,337170
2030.55,-2.92765e-07,0,338140,338140
2040.07,-3.15042e-07,0,338642,338642
2050.53,-3.41263e-07,0,339760,339760
2061.15,-3.69922e-07,0,340058,340058
2070.29,-3.96303e-07,0,341452,341452
2080.65,-4.28307e-07,0,342274,342274
2091.53,-4.64403e-07,0,342326,342326
2101.05,-4.98222e-07,0,343204,343204
2110.65,-5.34582e-07,0,343308,343308
2120.27,-5.73402e-07,0,344364,344364
2131.53,-6.22028e-07,0,345260,345260
2140,-6.61109e-07,0,345892,345892
2150.69,-7.13531e-07,0,346412,346412
2160.49,-7.64776e-07,0,346316,346316
2171.32,-8.25383e-07,0,347330,347330
2180.75,-8.81544e-07,0,347844,347844
2190.37,-9.42333e-07,0,348240,348240
2200.69,-1.01171e-06,0,348810,348810
2211.16,-1.08677e-06,0,349634,349634
2220.78,-1.15998e-06,0,350132,350132
2230.44,-1.23801e-06,0,351254,351254
2240.16,-1.32121e-06,0,352196,352196
2251.39,-1.4235e-06,0,353472,353472
2260.95,-1.51614e-06,0,354191,354191
2270.97,-1.61902e-06,0,355763,355763
2280.72,-1.72505e-06,0,356349,356349
2290.23,-1.83455e-06,0,357267,357267
2301.44,-1.97148e-06,0,357969,357969
2311.01,-2.0957e-06,0,358959,358959
2320.61,-2.22715e-06,0,359823,359823
2330.09,-2.36436e-06,0,360535,360535
2340.3,-2.52066e-06,0,361527,361527
2350.68,-2.68905e-06,0,362123,362123
2360.64,-2.85997e-06,0,363359,363359
2371.35,-3.05476e-06,0,363691,363691
2380.93,-3.23895e-06,0,364385,364385
2390.18,-3.42616e-06,0,365313,365313
2401.09,-3.65951e-06,0,365321,365321
2411.32,-3.89121e-06,0,366261,366261
2420.7,-4.11518e-06,0,366623,366623
2430.21,-4.35424e-06,0,367794,367794
2440.99,-4.64004e-06,0,369226,369226
2451.22,-4.92664e-06,0,370676,370676
2461.22,-5.22264e-06,0,370648,370648
2470.19,-5.50131e-06,0,371256,371256
2480.71,-5.84532e-06,0,373862,373862
2490.3,-6.17567e-06,0,374604,374604
2501.36,-6.57778e-06,0,374942,374942
2510.46,-6.92605e-06,0,375836,375836
2520.87,-7.34493e-06,0,376914,376914
2531.3,-7.7874e-06,0,377604,377604
2540.26,-8.18679e-06,0,378014,378014
2551.33,-8.70568e-06,0,379520,379520
2560.11,-9.13777e-06,0,379976,379976
2570.82,-9.69133e-06,0,381307,381307
2580.46,-1.02152e-05,0,382491,382491
2591.46,-1.08447e-05,0,383405,383405
2600.53,-1.13895e-05,0,384115,384115
2610.24,-1.19999e-05,0,384057,384057
2621.55,-1.2748e-05,0,385701,385701
2631.11,-1.3413e-05,0,386799,386799
2640.61,-1.41042e-05,0,386929,386929
2650.3,-1.48431e-05,0,387247,387247
2660,-1.56165e-05,0,387831,387831
2670.77,-1.65173e-05,0,389159,389159
2680.07,-1.73319e-05,0,389121,389121
2691.38,-1.83693e-05,0,389213,389213
2701.07,-1.93005e-05,0,390733,390733
2710.77,-2.02717e-05,0,391997,391997
2720.7,-2.13099e-05,0,392289,392289
2731.46,-2.24828e-05,0,391975,391975
2740.33,-2.34904e-05,0,392575,392575
2750.02,-2.46337e-05,0,393725,393725
2760.33,-2.58994e-05,0,394505,394505
2770.9,-2.72518e-05,0,395885,395885
2780.23,-2.84926e-05,0,396496,396496
2791.55,-3.00576e-05,0,397888,397888
2801.17,-3.14434e-05,0,398740,398740
2810.86,-3.28911e-05,0,399524,399524
2820.56,-3.43941e-05,0,400700,400700
2830.28,-3.59544e-05,0,401484,401484
2840.24,-3.76129e-05,0,402240,402240
2851,-3.94742e-05,0,403258,403258
2860.72,-4.12193e-05,0,404882,404882
2870.44,-4.30271e-05,0,406112,406112
2881.33,-4.51292e-05,0,406538,406538
2891.05,-4.70779e-05,0,406879,406879
2900.77,-4.91073e-05,0,408401,408401
2910.48,-5.122e-05,0,409853,409853
2920.35,-5.34577e-05,0,410449,410449
2930.05,-5.57444e-05,0,410549,410549
2941.36,-5.85258e-05,0,411511,411511
2951.05,-6.10096e-05,0,412939,412939
2960.37,-6.34862e-05,0,413375,413375
2970.86,-6.63802e-05,0,414379,414379
2980.55,-6.9156e-05,0,414827,414827
2990.25,-7.20317e-05,0,415579,415579
3001.56,-7.55158e-05,0,416399,416399
3010.45,-7.8353e-05,0,417733,417733
3020.05,-8.15194e-05,0,418491,418491
3030.82,-8.51996e-05,0,418789,418789
3040.52,-8.86274e-05,0,419252,419252
3050.21,-9.21689e-05,0,420090,420090
3061.15,-9.63053e-05,0,420376,420376
3070.27,-9.98691e-05,0,420892,420892
3081.58,-0.000104641,0,422100,422100
3091.28,-0.000108951,0,422812,422812
3100.97,-0.000113412,0,423450,423450
3110.67,-0.000118029,0,423812,423812
3120.37,-0.000122811,0,425062,425062
3130.88,-0.000128183,0,426674,426674
3140.57,-0.000133319,0,426472,426472
3150.27,-0.000138633,0,427310,427310
3161.58,-0.000145063,0,428650,428650
3171.28,-0.000150778,0,429038,429038
3180.71,-0.000156522,0,428916,428916
3191.23,-0.000163149,0,429966,429966
3200.93,-0.000169471,0,431146,431146
3210.62,-0.000176005,0,431082,431082
3220.32,-0.000182757,0,431522,431522
3231.12,-0.000190551,0,433092,433092
3241.43,-0.00019826,0,433544,433544
3251.12,-0.000205772,0,434910,434910
3260.07,-0.000212936,0,436220,436220
3271.38,-0.000222311,0,437424,437424
3281.08,-0.00023065,0,437158,437158
3290.77,-0.000239273,0,437701,437701
3300.2,-0.000247938,0,438093,438093
3310.95,-0.00025817,0,439371,439371
3320.66,-0.000267722,0,439785,439785
3330.26,-0.000277494,0,440980,440980
3341.24,-0.000300464,0,441449,441449
3350.98,-0.000321297,0,442237,442237
3360.63,-0.00034241,0,443579,443579
3370.81,-0.000365219,0,444709,444709
3380.55,-0.000387553,0,445389,445389
3390.28,-0.000410413,0,446177,446177
3401.52,-0.000437484,0,447479,447479
3411.16,-0.000461261,0,448623,448623
3420.59,-0.000485058,0,448787,448787
3431.13,-0.000524076,0,449955,449955
3441.01,-0.000567159,0,452733,452733
3450.64,-0.000610503,0,452844,452844
3460.28,-0.000655034,0,452348,452348
3471.51,-0.000708122,0,453000,453000
3480.58,-0.000751935,0,453551,453551
3491.57,-0.000805964,0,454739,454739
3501.09,-0.000853459,0,455386,455386
3510.73,-0.000902259,0,455971,455971
3521.28,-0.000940581,0,457775,457775
3531.2,-0.000956586,0,457393,457393
3540.91,-0.000975393,0,457143,457143
3550.63,-0.000997255,0,458356,458356
3560.34,-0.00102206,0,459242,459242
3570.05,-0.00104968,0,460636,460636
3581.39,-0.00108523,0,461244,461244
3591.1,-0.00111841,0,462370,462370
3600.73,-0.00115364,0,463471,463471
3610.45,-0.00119134,0,464287,464287
3620.16,-0.00123115,0,465562,465562
3631.5,-0.00128016,0,466525,466525
3641.21,-0.0013243,0,467043,467043
3650.92,-0.00137037,0,468019,468019
3660.64,-0.00141837,0,468971,468971
3670.35,-0.00146831,0,469747,469747
3680.06,-0.0015202,0,470534,470534
3691.42,-0.00158338,0,471187,471187
3701.19,-0.00163903,0,472277,472277
3710.94,-0.00169373,0,473449,473449
3720.68,-0.00174789,0,473435,473435
3730.42,-0.00180213,0,473891,473891
3740.15,-0.00185701,0,474717,474717
3751.51,-0.00192254,0,476689,476689
3761.24,-0.00198055,0,477813,477813
3770.98,-0.0020407,0,478801,478801
3780.71,-0.00210334,0,479535,479535
3790.45,-0.00216877,0,479632,479632
3800.18,-0.0022372,0,480314,480314
3811.54,-0.00231624,0,480934,480934
3821.27,-0.00238744,0,481695,481695
3831,-0.00246195,0,482125,482125
3840.19,-0.0025354,0,483243,483243
3851.54,-0.00262797,0,484935,484935
3861.25,-0.00270634,0,486147,486147
3870.96,-0.00278572,0,486280,486280
3880.67,-0.00286736,0,486237,486237
3890.86,-0.00295635,0,486697,486697
3901.3,-0.00305165,0,487543,487543
3911.01,-0.00314433,0,489537,489537
3920.72,-0.00324109,0,490722,490722
3930.43,-0.00339019,0,491462,491462
3941.47,-0.00357007,0,492492,492492
3951.18,-0.00372255,0,493946,493946
3960.89,-0.00387234,0,494458,494458
3970.6,-0.00402098,0,494876,494876
3980.47,-0.00417214,0,495690,495690
3990.18,-0.00432169,0,497093,497093
4001.51,-0.00449769,0,499086,499086
4011.22,-0.00464989,0,499608,499608
4020.93,-0.00480309,0,499824,499824
4030.63,-0.00495688,0,499828,499828
4040.34,-0.00511071,0,500638,500638
4050.82,-0.00527594,0,501152,501152
4060.53,-0.00542771,0,501574,501574
4070.24,-0.00557738,0,502522,502522
4081.56,-0.0057484,0,504405,504405
4091.29,-0.00589146,0,505409,505409
4101.03,-0.00603039,0,505127,505127
4110.76,-0.00616412,0,506109,506109
4120.5,-0.006292,0,507803,507803
4131.06,-0.00642356,0,508035,508035
4140.79,-0.00653798,0,508484,508484
4150.53,-0.00664551,0,508930,508930
4160.26,-0.00674583,0,509029,509029
4171.62,-0.00685336,0,509956,509956
4181.35,-0.00693698,0,511859,511859
4190.33,-0.00707205,0,512165,512165
4200.06,-0.00713327,0,512599,512599
4211.42,-0.00719281,0,513323,513323
4221.16,-0.0072333,0,513730,513730
4230.05,-0.00726136,0,514803,514803
4241.41,-0.00728439,0,515938,515938
4251.14,-0.00729115,0,517117,517117
4260.75,-0.00728609,0,517825,517825
4270.23,-0.00727038,0,519168,519168
4281.58,-0.0072379,0,519233,519233
4291.3,-0.00719793,0,519948,519948
4301.02,-0.0071463,0,521164,521164
4310.74,-0.00708285,0,521522,521522
4320.47,-0.00700833,0,521924,521924
4330.19,-0.00692313,0,522768,522768
4341.53,-0.00680848,0,524390,524390
4351.26,-0.00669807,0,525488,525488
4360.98,-0.00659424,0,526250,526250
4370.7,-0.00648106,0,526454,526454
4380.43,-0.00635155,0,526892,526892
4390.15,-0.00620154,0,527884,527884
4401.02,-0.00600627,0,529006,529006
4410.51,-0.0058207,0,528703,528703
4420.97,-0.00560295,0,528864,528864
4430.7,-0.00537944,0,530208,530208
4440.42,-0.0051267,0,531446,531446
4450.14,-0.00483899,0,531154,531154
4461.49,-0.00447392,0,531670,531670
4471.21,-0.00414438,0,532667,532667
4481.35,-0.00377112,0,533604,533604
4491.07,-0.00321868,0,533906,533906
4500.4,-0.00255719,0,534523,534523
4510.3,-0.00182785,0,535365,535365
4520.02,-0.000960958,0,536771,536771
4531.37,0.000144174,0,538005,538005
4541.09,0.00115756,0,538054,538054
4551.32,0.00235178,0,539179,539179
4561.05,0.00359041,0,538965,538965
4570.35,0.00480009,0,540795,540795
4580.07,0.00611781,0,541390,541390
4590.75,0.00776617,0,541434,541434
4600.47,0.00821488,0,542142,542142
4610.19,0.00943553,0,543334,543334
4621.54,0.0115806,0,544141,544141
4631.28,0.0137217,0,544345,544345
4641.01,0.0160069,0,544907,544907
4650.74,0.0183511,0,545650,545650
4660.23,0.0206863,0,546531,546531
4671.58,0.0237552,0,548033,548033
4681.32,0.0268457,0,548217,548217
4691.05,0.027595,0,549359,549359
4700.79,0.0307901,0,550120,550120
4710.56,0.0349587,0,550498,550498
4720.23,0.0397375,0,551492,551492
4731.22,0.045766,0,553055,553055
4740.98,0.0518262,0,554490,554490
4750.75,0.0620733,0,554584,554584
4760.49,0.0710399,0,555336,555336
4770.24,0.0797164,0,555793,555793
4780.92,0.0892456,0,556267,556267
4790.28,0.097803,0,557237,557237
4800.92,0.10773,0,557983,557983
4810.01,0.116413,0,557817,557817
4820.62,0.126902,0,557552,557552
4831.18,0.137906,0,558646,558646
4840.32,0.147923,0,559566,559566
4851.12,0.160435,0,560215,560215
4860.36,0.170756,0,560669,560669
4871.1,0.185323,0,562267,562267
4880.3,0.197564,0,561849,561849
4890.08,0.216018,0,561692,561692
4901.51,0.234283,0,562360,562360
4911.28,0.250814,0,562276,562276
4921.07,0.268043,0,562274,562274
4930.87,0.284477,0,563506,563506
4940.67,0.299589,0,564074,564074
4950.47,0.314087,0,563997,563997
4960.28,0.328494,0,563572,563572
4970.07,0.342651,0,564281,564281
4981.23,0.357904,0,565730,565730
4990.95,0.370354,0,565538,565538
5000.34,0.38195,0,565527,565527
5011.21,0.395096,0,564712,564712
5020.36,0.40584,0,565134,565134
5031.58,0.41987,0,565620,565620
5041.09,0.427467,0,565281,565281
5050.59,0.434936,0,564378,564378
5060.29,0.441687,0,565507,565507
5071.38,0.448506,0,565572,565572
5081.2,0.452337,0,565454,565454
5091,0.455477,0,564907,564907
5100.81,0.45622,0,564790,564790
5110.2,0.457847,0,565315,565315
5120.58,0.459695,0,565011,565011
5130.39,0.459724,0,565345,565345
5140.19,0.45946,0,566344,566344
5151.17,0.45831,0,567161,567161
5160.98,0.456797,0,566618,566618
5170.78,0.454994,0,566330,566330
5180.58,0.452869,0,566367,566367
5190.38,0.450352,0,566472,566472
5200.18,0.448759,0,566743,566743
5211.25,0.445804,0,567225,567225
5221.05,0.442663,0,567206,567206
5230.85,0.439408,0,568384,568384
5240.65,0.436055,0,568593,568593
5250.45,0.431565,0,569205,569205
5260.25,0.423159,0,570024,570024
5270.05,0.413462,0,570054,570054
5281.49,0.401828,0,571572,571572
5291.29,0.392081,0,570589,570589
5301.1,0.382291,0,571233,571233
5310.9,0.372369,0,572268,572268
5320.7,0.361731,0,572061,572061
5330.5,0.346674,0,570618,570618
5340.3,0.331015,0,570660,570660
5350.09,0.311157,0,571807,571807
5361.53,0.290966,0,573571,573571
5371.32,0.27215,0,573009,573009
5380.54,0.254097,0,573782,573782
5391.53,0.233341,0,574692,574692
5400.71,0.216274,0,575260,575260
5410.51,0.19753,0,575584,575584
5420.31,0.178069,0,576603,576603
5430.11,0.158516,0,577160,577160
5441.54,0.13638,0,577248,577248
5451.34,0.117751,0,576758,576758
5461.14,0.0990831,0,577077,577077
5470.93,0.080585,0,577549,577549
5480.73,0.0626558,0,577562,577562
5490.53,0.0454785,0,578299,578299
5500.33,0.0290019,0,579050,579050
5511.1,0.0115514,0,578784,578784
5520.52,-0.00326723,0,578842,578842
5531.22,-0.0196628,0,577764,577764
5540.91,-0.0341568,0,577878,577878
5550.25,-0.0478699,0,578201,578201
5560.07,-0.0621252,0,578504,578504
5571.53,-0.078627,0,578669,578669
5581.37,-0.0926693,0,580368,580368
5591.23,-0.106581,0,580945,580945
5601.09,-0.120306,0,581501,581501
5610.97,-0.133819,0,582256,582256
5620.85,-0.147105,0,582800,582800
5630.75,-0.160176,0,582296,582296
5640.65,-0.172993,0,583012,583012
5650.54,-0.18552,0,584059,584059
5660.43,-0.19768,0,584076,584076
5670.31,-0.209381,0,584917,584917
5680.19,-0.220588,0,585743,585743
5690.06,-0.233297,0,584400,584400
5701.59,-0.242812,0,585584,585584
5711.47,-0.250009,0,587268,587268
5721.35,-0.256364,0,585802,585802
5731.22,-0.260641,0,585893,585893
5741.1,-0.263761,0,586296,586296
5750.98,-0.26461,0,586575,586575
5760.86,-0.266844,0,587530,587530
5770.74,-0.267432,0,587226,587226
5780.62,-0.267494,0,586912,586912
5790.48,-0.267664,0,587716,587716
5800.29,-0.267064,0,587066,587066
5810.08,-0.266023,0,587813,587813
5821.47,-0.264482,0,588241,588241
5831.23,-0.262811,0,588751,588751
5840.99,-0.260864,0,589525,589525
5850.77,-0.258606,0,588563,588563
5860.56,-0.25597,0,589795,589795
5870.37,-0.254292,0,590177,590177
5880.17,-0.252104,0,590257,590257
5891.61,-0.247624,0,588481,588481
5901.43,-0.243117,0,589131,589131
5911.23,-0.234445,0,590642,590642
5921.05,-0.224712,0,590024,590024
5930.85,-0.214698,0,588923,588923
5940.65,-0.204975,0,589883,589883
5950.43,-0.195247,0,589569,589569
5960.21,-0.185352,0,588973,588973
5971.63,-0.173511,0,588935,588935
5981.41,-0.163185,0,587784,587784
5991.18,-0.152737,0,587245,587245
6001.03,-0.142003,0,587553,587553
6010.87,-0.131262,0,588142,588142
6020.7,-0.119162,0,587503,587503
6030.53,-0.107038,0,587594,587594
6040.39,-0.0911942,0,587463,587463
6050.24,-0.0775741,0,588138,588138
6060.1,-0.0666153,0,587650,587650
6071.6,-0.0538173,0,588307,588307
6081.45,-0.0451125,0,587985,587985
6091.31,-0.0383174,0,587232,587232
6101.16,-0.0331345,0,588152,588152
6111.02,-0.0286808,0,588446,588446
6120.88,-0.0250277,0,589582,589582
6130.73,-0.023064,0,590919,590919
6140.59,-0.0223943,0,591484,591484
6150.45,-0.0196063,0,591147,591147
6160.29,-0.0185532,0,590559,590559
6170.11,-0.0176277,0,591342,591342
6181.56,-0.0172554,0,591866,591866
6191.35,-0.0174248,0,592345,592345
6201.14,-0.0177239,0,592312,592312
6210.92,-0.0179109,0,590986,590986
6220.68,-0.0180756,0,590592,590592
6230.43,-0.0183141,0,590044,590044
6240.18,-0.0186182,0,590847,590847
6251.55,-0.0190735,0,590618,590618
6261.31,-0.019527,0,590451,590451
6271.06,-0.0200584,0,591070,591070
6280.81,-0.0206906,0,590997,590997
6290.56,-0.0213697,0,591751,591751
6300.29,-0.0220613,0,592063,592063
6311.59,-0.0228922,0,592080,592080
6321.25,-0.023641,0,592597,592597
6330.91,-0.0244304,0,592687,592687
6340.58,-0.0252634,0,592896,592896
6350.24,-0.026121,0,592421,592421
6361.51,-0.0271668,0,592564,592564
6371.18,-0.0281405,0,593427,593427
6380.84,-0.0291736,0,594097,594097
6390.5,-0.0302476,0,594502,594502
6400.17,-0.0313481,0,594422,594422
6411.44,-0.0326546,0,594658,594658
6421.1,-0.0337726,0,594257,594257
6430.76,-0.0348712,0,596556,596556
6440.43,-0.0359627,0,597794,597794
6450.09,-0.0370864,0,596646,596646
6461.36,-0.0384625,0,596858,596858
6471.03,-0.0396854,0,596511,596511
6480.7,-0.0409272,0,598508,598508
6490.38,-0.0421707,0,598403,598403
6500.07,-0.0433985,0,598489,598489
6511.38,-0.0448401,0,598700,598700
6521.07,-0.045991,0,598495,598495
6530.77,-0.0470424,0,599426,599426
6540.46,-0.0480051,0,600315,600315
6550.15,-0.0488874,0,601534,601534
6561.46,-0.0498167,0,601469,601469
6571.16,-0.0505722,0,601572,601572
6580.85,-0.051247,0,600674,600674
6590.54,-0.0518456,0,601902,601902
6600.24,-0.0523673,0,603090,603090
6611.55,-0.0528725,0,604483,604483
6621.23,-0.0532051,0,604709,604709
6630.9,-0.0535346,0,604327,604327
6640.56,-0.0537424,0,603900,603900
6650.22,-0.0539392,0,604282,604282
6661.5,-0.0539827,0,605617,605617
6671.16,-0.0540505,0,606017,606017
6680.82,-0.0541221,0,606112,606112
6690.48,-0.0541834,0,606163,606163
6700.15,-0.0542163,0,606391,606391
6711.42,-0.054206,0,607196,607196
6721.08,-0.0541588,0,607158,607158
6730.75,-0.0540815,0,607035,607035
6740.41,-0.0537738,0,607516,607516
6750.08,-0.0535245,0,607979,607979
6761.35,-0.0533112,0,608762,608762
6771.01,-0.0531591,0,608822,608822
6780.68,-0.0530217,0,608526,608526
6790.34,-0.0528931,0,609235,609235
6800.01,-0.0527693,0,609109,609109
6811.28,-0.0526279,0,609733,609733
6820.94,-0.0525078,0,610497,610497
6830.61,-0.0523889,0,610753,610753
6840.27,-0.052272,0,612047,612047
6851.55,-0.0521405,0,611946,611946
6861.21,-0.0520338,0,611266,611266
6870.88,-0.0519344,0,611487,611487
6880.54,-0.0518437,0,612331,612331
6890.2,-0.0517636,0,612915,612915
6901.48,-0.0516843,0,611678,611678
6911.15,-0.0516262,0,611424,611424
6920.83,-0.0515737,0,612155,612155
6930.52,-0.0515236,0,611738,611738
6940.21,-0.0514701,0,612862,612862
6951.51,-0.0510604,0,613001,613001
6961.2,-0.0510815,0,612120,612120
6970.89,-0.051098,0,613527,613527
6980.58,-0.0510912,0,613848,613848
6990.27,-0.051046,0,614199,614199
7001.57,-0.0509429,0,614666,614666
7011.26,-0.0508108,0,615654,615654
7020.95,-0.0506389,0,615610,615610
7030.64,-0.050429,0,615732,615732
7040.33,-0.050183,0,616367,616367
7050.02,-0.0499032,0,615388,615388
7060.44,-0.0495669,0,615248,615248
7070.13,-0.0492247,0,615682,615682
7080.66,-0.0488232,0,615075,615075
7090.04,-0.0484466,0,614662,614662
7101.07,-0.0479715,0,615088,615088
7110.42,-0.047502,0,615524,615524
7121.61,-0.0468738,0,616245,616245
7131.46,-0.0462775,0,615940,615940
7141.3,-0.0456581,0,615708,615708
7151.15,-0.04503,0,616167,616167
7160.99,-0.0444031,0,616959,616959
7170.84,-0.0437832,0,618479,618479
7180.68,-0.0431724,0,619080,619080
7190.53,-0.0425711,0,618164,618164
7200.38,-0.0419782,0,618391,618391
7210.22,-0.0413929,0,618992,618992
7220.06,-0.0408153,0,618834,618834
7231.53,-0.0401455,0,618574,618574
7241.34,-0.039568,0,618914,618914
7251.14,-0.0389833,0,620148,620148
7260.94,-0.0383898,0,621778,621778
7270.73,-0.0377888,0,622007,622007
7280.53,-0.0371827,0,621716,621716
7290.33,-0.0365737,0,622586,622586
7300.13,-0.0359631,0,623040,623040
7311.56,-0.0352485,0,624254,624254
7321.36,-0.0346331,0,624347,624347
7331.16,-0.0340131,0,624632,624632
7340.96,-0.0333867,0,625822,625822
7350.76,-0.0327547,0,626576,626576
7360.56,-0.0321312,0,626674,626674
7370.38,-0.0315138,0,625877,625877
7380.22,-0.0308903,0,625434,625434
7390.08,-0.0302479,0,626730,626730
7401.57,-0.0294627,0,627993,627993
7411.43,-0.0287542,0,629423,629423
7421.28,-0.0279247,0,629392,629392
7431.14,-0.0270539,0,629991,629991
7440.51,-0.0262632,0,630096,630096
7451.49,-0.0253771,0,629868,629868
7461.29,-0.0246222,0,630166,630166
7470.76,-0.0238989,0,630862,630862
7480.07,-0.023171,0,631233,631233
7491.03,-0.0222732,0,632371,632371
7500.35,-0.0214699,0,631975,631975
7510.15,-0.02059,0,632227,632227
7521.59,-0.0198948,0,633341,633341
7530.91,-0.0192399,0,633818,633818
7540.1,-0.0183481,0,635039,635039
7551.53,-0.0171155,0,635474,635474
7561.33,-0.0160305,0,634496,634496
7571.12,-0.0149575,0,635664,635664
7580.92,-0.0139112,0,636468,636468
7590.72,-0.0128927,0,637259,637259
7600.51,-0.0118959,0,637743,637743
7610.3,-0.0109132,0,637787,637787
7620.08,-0.00993888,0,637552,637552
7631.43,-0.00880812,0,638036,638036
7641.13,-0.00784029,0,638132,638132
7650.79,-0.00687225,0,637575,637575
7660.41,-0.00590535,0,639083,639083
7670.02,-0.00493753,0,640072,640072
7681.23,-0.00380828,0,640386,640386
7690.84,-0.00284202,0,640233,640233
7700.45,-0.00187862,0,640099,640099
7710.06,-0.000918914,0,640110,640110
7720.94,0.000162067,0,640027,640027
7730.33,0.00109,0,641788,641788
7741.54,0.00219109,0,642767,642767
7751,0.00311237,0,643793,643793
7760.32,0.00400943,0,644064,644064
7771.53,0.00507056,0,644159,644159
7781.14,0.00595811,0,644836,644836
7790.53,0.00680182,0,645972,645972
7800.14,0.00764057,0,646961,646961
7811.36,0.00859318,0,646951,646951
7820.99,0.00938615,0,646918,646918
7830.64,0.0101544,0,647742,647742
7840.29,0.0108963,0,648598,648598
7851.56,0.0121288,0,648993,648993
7861.2,0.0124244,0,648050,648050
7870.81,0.012831,0,649644,649644
7880.43,0.0132942,0,649803,649803
7890.04,0.0137446,0,648632,648632
7901.26,0.0142149,0,649141,649141
7910.87,0.0145799,0,649315,649315
7920.48,0.0148983,0,649878,649878
7930.09,0.0168118,0,650641,650641
7941.3,0.0170553,0,650566,650566
7950.91,0.0171506,0,649459,649459
7960.52,0.0171731,0,648323,648323
7970.07,0.0172062,0,649375,649375
7981.28,0.0171785,0,649096,649096
7990.88,0.0170855,0,648537,648537
8000.49,0.0166843,0,649398,649398
8010.1,0.0163444,0,649177,649177
8021.32,0.0160294,0,648125,648125
8030.93,0.0157837,0,648066,648066
8040.42,0.0154808,0,647852,647852
8051.43,0.0150651,0,647781,647781
8060.93,0.0146864,0,648066,648066
8070.34,0.0143008,0,648492,648492
8081.3,0.0138406,0,647802,647802
8090.74,0.0134305,0,647608,647608
8100.15,0.0130047,0,647756,647756
8111.17,0.012482,0,647659,647659
8120.61,0.0120109,0,647348,647348
8130.07,0.011518,0,646773,646773
8141.1,0.0109192,0,647672,647672
8150.64,0.0103844,0,648604,648604
8160.17,0.00984676,0,650043,650043
8171.29,0.00920523,0,649974,649974
8180.83,0.00861341,0,650132,650132
8190.31,0.00798567,0,649986,649986
8201.35,0.00708608,0,648773,648773
8210.75,0.00582049,0,648965,648965
8220.14,0.00488502,0,649621,649621
8231.15,0.0040316,0,649638,649638
8240.47,0.00340935,0,650743,650743
8251.4,0.00272276,0,650213,650213
8261.13,0.00213317,0,650979,650979
8270.44,0.00156521,0,651227,651227
8281.48,0.000860918,0,650695,650695
8290.88,0.000218625,0,650666,650666
8300.23,-0.000466065,0,650342,650342
8311.32,-0.00133878,0,651262,651262
8320.77,-0.00212897,0,650586,650586
8330.29,-0.00296123,0,651785,651785
8341.44,-0.00396614,0,653152,653152
8351.04,-0.00484642,0,653501,653501
8360.65,-0.00573102,0,653966,653966
8370.26,-0.00661071,0,653531,653531
8381.49,-0.00762582,0,652680,652680
8391.09,-0.00848306,0,653429,653429
8400.74,-0.00933309,0,653689,653689
8410.39,-0.0101741,0,653454,653454
8420.06,-0.0110069,0,654648,654648
8431.39,-0.0119723,0,654570,654570
8441.09,-0.0127893,0,654352,654352
8450.8,-0.0135961,0,655312,655312
8460.52,-0.0143924,0,656653,656653
8470.22,-0.0151773,0,658069,658069
8481.53,-0.0160749,0,658394,658394
8491.25,-0.0168302,0,657276,657276
8500.98,-0.017574,0,656973,656973
8510.71,-0.018317,0,657362,657362
8520.44,-0.0190488,0,657431,657431
8530.17,-0.0200946,0,657359,657359
8541.52,-0.0209666,0,657585,657585
8551.25,-0.0215085,0,657961,657961
8560.98,-0.0219326,0,658669,658669
8570.71,-0.0222796,0,657562,657562
8580.44,-0.0225637,0,658003,658003
8590.16,-0.0227794,0,657424,657424
8601.52,-0.0229814,0,656922,656922
8611.25,-0.0231415,0,658536,658536
8620.97,-0.0241071,0,659566,659566
8630.7,-0.0242435,0,658812,658812
8640.43,-0.0243317,0,658852,658852
8650.16,-0.0244022,0,659509,659509
8661.48,-0.0243044,0,659312,659312
8671.18,-0.0241831,0,659534,659534
8680.92,-0.024101,0,660416,660416
8690.66,-0.0240394,0,661446,661446
8700.4,-0.0239872,0,660933,660933
8710.14,-0.0239369,0,661067,661067
8721.5,-0.0221923,0,661304,661304
8731.24,-0.0221257,0,662023,662023
8740.98,-0.0220362,0,662436,662436
8750.72,-0.0219156,0,661529,661529
8760.46,-0.0217547,0,661080,661080
8770.2,-0.0215391,0,661916,661916
8781.56,-0.0212317,0,663418,663418
8791.3,-0.0209279,0,663835,663835
8801.04,-0.0205924,0,664424,664424
8810.78,-0.0202233,0,664178,664178
8820.51,-0.020089,0,663882,663882
8830.23,-0.0200355,0,664531,664531
8841.55,-0.0197269,0,663087,663087
8851.24,-0.0192844,0,663673,663673
8860.93,-0.018706,0,664602,664602
8870.61,-0.0177599,0,663507,663507
8880.29,-0.0167773,0,662638,662638
8891.59,-0.0156944,0,662358,662358
8901.27,-0.0147293,0,663068,663068
8910.95,-0.0137448,0,662581,662581
8920.63,-0.012757,0,662673,662673
8930.31,-0.0117741,0,662244,662244
8941.61,-0.0106088,0,661729,661729
8951.29,-0.0095818,0,661881,661881
8960.97,-0.00852651,0,661088,661088
8970.66,-0.00744327,0,661537,661537
8980.36,-0.0063377,0,662104,662104
8990.04,-0.00521558,0,661783,661783
9001.33,-0.00387157,0,661025,661025
9011,-0.00267659,0,661887,661887
9020.66,-0.00145976,0,663104,663104
9030.29,-0.000201323,0,663715,663715
9041.49,0.00137505,0,663754,663754
9051.09,0.00284764,0,663388,663388
9060.69,0.00432949,0,664043,664043
9070.29,0.00592974,0,664372,664372
9081.48,0.00802574,0,665876,665876
9091.08,0.00994602,0,665619,665619
9100.68,0.0119196,0,665028,665028
9110.28,0.0138962,0,665831,665831
9121.47,0.0161694,0,666332,666332
9131.07,0.0181479,0,666852,666852
9140.67,0.0201776,0,666829,666829
9150.26,0.0222193,0,666790,666790
9161.47,0.0245737,0,667936,667936
9171.1,0.0265626,0,666945,666945
9180.73,0.0285308,0,666438,666438
9190.37,0.0304879,0,666943,666943
9200.01,0.0324383,0,666253,666253
9211.27,0.0347038,0,665674,665674
9220.92,0.0366352,0,666592,666592
9230.57,0.0385548,0,666746,666746
9240.23,0.0404566,0,667905,667905
9251.49,0.0426418,0,668039,668039
9261.14,0.0444767,0,668644,668644
9270.75,0.0462614,0,668646,668646
9280.34,0.0479967,0,667944,667944
9291.54,0.0499553,0,667211,667211
9301.14,0.0515731,0,666354,666354
9310.74,0.0531322,0,666914,666914
9320.33,0.0546299,0,667629,667629
9331.53,0.0562929,0,667532,667532
9341.13,0.0576372,0,668595,668595
9350.73,0.0588948,0,668121,668121
9360.32,0.060053,0,667994,667994
9371.52,0.0612791,0,667915,667915
9381.12,0.0622609,0,668560,668560
9390.72,0.0631072,0,669734,669734
9400.31,0.0637661,0,669093,669093
9411.51,0.0647517,0,668633,668633
9421.11,0.0649527,0,668584,668584
9430.71,0.0650907,0,668735,668735
9440.31,0.0652291,0,669297,669297
9451.5,0.0653274,0,669612,669612
9461.1,0.0653902,0,669699,669699
9470.7,0.0654095,0,669461,669461
9480.3,0.0653551,0,669489,669489
9491.52,0.0651793,0,669694,669694
9501.16,0.0649366,0,668723,668723
9510.79,0.0646841,0,668346,668346
9520.45,0.0644067,0,668189,668189
9530.1,0.0640952,0,667382,667382
9541.36,0.063671,0,667532,667532
9551.02,0.0632538,0,668969,668969
9560.67,0.0627898,0,669383,669383
9570.3,0.0622828,0,668831,668831
9581.56,0.0616374,0,667965,667965
9591.02,0.0610378,0,667591,667591
9600.49,0.0602136,0,668756,668756
9611.47,0.0592018,0,667835,667835
9620.9,0.058265,0,666925,666925
9630.54,0.057197,0,666547,666547
9640.22,0.0560043,0,667009,667009
9651.51,0.0546144,0,667897,667897
9661.19,0.0533737,0,668038,668038
9670.86,0.0519576,0,669210,669210
9680.54,0.0509713,0,670357,670357
9690.22,0.0502301,0,670189,670189
9701.51,0.0483669,0,669280,669280
9711.18,0.0463997,0,669970,669970
9720.85,0.0443074,0,671761,671761
9730.5,0.0421683,0,670953,670953
9740.14,0.0400032,0,669794,669794
9751.41,0.0374619,0,670470,670470
9761.07,0.0352384,0,670796,670796
9770.75,0.0329148,0,672306,672306
9780.42,0.0305111,0,672793,672793
9790.08,0.0280688,0,674108,674108
9801.34,0.0252038,0,673652,673652
9811,0.0227434,0,673803,673803
9820.65,0.0202687,0,672537,672537
9830.3,0.0177675,0,673183,673183
9841.57,0.0148061,0,676003,676003
9851.22,0.0122265,0,676799,676799
9860.88,0.00960884,0,675815,675815
9870.53,0.00695703,0,676054,676054
9880.18,0.0042796,0,676274,676274
9891.45,0.00113898,0,676266,676266
9901.1,-0.00155419,0,674520,674520
9910.76,-0.00423748,0,673982,673982
9920.41,-0.00690082,0,675605,675605
9930.06,-0.00953447,0,676834,676834
9941.33,-0.0125581,0,677233,677233
9950.98,-0.0150991,0,676416,676416
9960.64,-0.0175843,0,676189,676189
9970.29,-0.0200035,0,675634,675634
9981.55,-0.0227254,0,676262,676262
9991.21,-0.0249552,0,677154,677154
10000.8,-0.0270709,0,678587,678587
10010.5,-0.0290621,0,678986,678986
10020.1,-0.0309134,0,677868,677868
10031.4,-0.0328929,0,676173,676173
10041,-0.0344353,0,675414,675414
10050.6,-0.0357206,0,674655,674655
10060.2,-0.0369637,0,674911,674911
10071.5,-0.0382995,0,676784,676784
10081.1,-0.0392958,0,676585,676585
10090.7,-0.0401255,0,675478,675478
10100.3,-0.0408045,0,673920,673920
10111.6,-0.0414173,0,672634,672634
10121.2,-0.0421466,0,672143,672143
10130.8,-0.0423055,0,672674,672674
10140.4,-0.0424233,0,672274,672274
10150.1,-0.0425127,0,671541,671541
10161.3,-0.0425861,0,670583,670583
10170.9,-0.0426432,0,668476,668476
10180.6,-0.0426863,0,667988,667988
10190.2,-0.0425732,0,667059,667059
10201.5,-0.0424251,0,667203,667203
10211.2,-0.0422896,0,665490,665490
10220.8,-0.0421384,0,665313,665313
10230.5,-0.0419806,0,662916,662916
10240.1,-0.041811,0,661697,661697
10251.4,-0.0415788,0,662875,662875
10261,-0.0413425,0,662838,662838
10270.6,-0.0410707,0,662984,662984
10280.2,-0.0407669,0,662824,662824
10291.4,-0.0403778,0,660543,660543
10301,-0.0400174,0,659444,659444
10310.7,-0.0396374,0,661366,661366
10320.3,-0.0392401,0,662948,662948
10331.6,-0.038758,0,663947,663947
10341.2,-0.0383315,0,663195,663195
10350.9,-0.0378946,0,662955,662955
10360.5,-0.0374486,0,661629,661629
10370.2,-0.0369946,0,661219,661219
10381.4,-0.0364553,0,662468,662468
10391.1,-0.0359897,0,663633,663633
10400.7,-0.035524,0,664380,664380
10410.4,-0.0350563,0,664446,664446
10420,-0.0345847,0,665219,665219
10431.3,-0.0340268,0,665083,665083
10440.9,-0.0335437,0,664652,664652
10450.5,-0.0330582,0,666765,666765
10460.1,-0.0325722,0,666239,666239
10471.3,-0.0320054,0,665016,665016
10480.9,-0.0315224,0,665402,665402
10490.6,-0.0310429,0,665513,665513
10500.2,-0.0305718,0,666869,666869
10511.5,-0.0300341,0,667673,667673
10521.2,-0.029587,0,668241,668241
10530.9,-0.0291505,0,666949,666949
10540.5,-0.0287229,0,666179,666179
10550.2,-0.0283054,0,665889,665889
10561.5,-0.0278353,0,665891,665891
10571.1,-0.0274531,0,666187,666187
10580.8,-0.0270992,0,664747,664747
10590.4,-0.0267702,0,663565,663565
10600.1,-0.0264361,0,665970,665970
10611.4,-0.0261352,0,668245,668245
10621,-0.0259287,0,668098,668098
10630.7,-0.025758,0,667723,667723
10640.4,-0.0256175,0,667698,667698
10650,-0.0255034,0,666242,666242
10661.3,-0.0253991,0,666186,666186
10671,-0.0253324,0,665228,665228
10680.6,-0.0252907,0,666184,666184
10690.3,-0.0252743,0,666128,666128
10701.6,-0.0252845,0,665117,665117
10711.3,-0.0258384,0,666586,666586
10721,-0.0258637,0,667528,667528
10730.7,-0.0259028,0,666104,666104
10740.4,-0.0259783,0,665032,665032
10750.1,-0.0260755,0,665531,665531
10761.4,-0.0261989,0,664740,664740
10771.1,-0.026306,0,665738,665738
10780.8,-0.0264116,0,665542,665542
10790.4,-0.0265155,0,664412,664412
10800.1,-0.0266056,0,663789,663789
10811.4,-0.0267033,0,664830,664830
10821.1,-0.0267864,0,663329,663329
10830.7,-0.0268762,0,662519,662519
10840.4,-0.0269817,0,661511,661511
10850.1,-0.0271,0,660776,660776
10861.3,-0.0272433,0,661039,661039
10871,-0.0273839,0,660639,660639
10880.7,-0.0275495,0,660429,660429
10890.3,-0.0277447,0,658792,658792
10901.6,-0.0280109,0,659079,659079
10911.3,-0.0282702,0,658665,658665
10920.9,-0.0285559,0,656294,656294
10930.6,-0.0288651,0,656594,656594
10940.3,-0.0291945,0,657708,657708
10951.6,-0.0296008,0,656647,656647
10961.2,-0.0299656,0,654364,654364
10970.9,-0.0303444,0,653447,653447
10980.6,-0.0307305,0,652528,652528
10990.2,-0.031103,0,652208,652208
11001.5,-0.0315518,0,652185,652185
11011.2,-0.0323341,0,652963,652963
11020.8,-0.0330751,0,651757,651757
11030.5,-0.0337536,0,651202,651202
11040.2,-0.0344102,0,650308,650308
11051.5,-0.0351727,0,651031,651031
11061.2,-0.0358308,0,651391,651391
11070.9,-0.0364939,0,651551,651551
11080.6,-0.0371592,0,650320,650320
11090.3,-0.0378285,0,649402,649402
11100,-0.0385013,0,648365,648365
11111.3,-0.0392849,0,648535,648535
11121,-0.0399328,0,649621,649621
11130.8,-0.040561,0,648985,648985
11140.5,-0.041178,0,648390,648390
11150.2,-0.0417917,0,648089,648089
11161.5,-0.0425255,0,647182,647182
11171.2,-0.0431883,0,646425,646425
11181,-0.043892,0,645207,645207
11190.7,-0.0446402,0,644028,644028
11200.4,-0.0454266,0,643516,643516
11210.2,-0.0462414,0,643102,643102
11221.5,-0.0471873,0,643007,643007
11231.2,-0.0479869,0,642861,642861
11241,-0.0488233,0,642046,642046
11250.7,-0.0496851,0,641423,641423
11260.4,-0.0505514,0,641628,641628
11270,-0.0513967,0,642545,642545
11281.3,-0.052244,0,642156,642156
11290.9,-0.0527366,0,640182,640182
11300.5,-0.0534912,0,638210,638210
11310.1,-0.0543011,0,637778,637778
11321.3,-0.0552413,0,638837,638837
11330.6,-0.0559973,0,638053,638053
11341.3,-0.0568125,0,636774,636774
11350.5,-0.0574754,0,635957,635957
11361.1,-0.0582186,0,634553,634553
11370.3,-0.0588394,0,634305,634305
11381,-0.0595509,0,634135,634135
11390.2,-0.0601479,0,633603,633603
11400.9,-0.0608264,0,632875,632875
11410.3,-0.0617457,0,634570,634570
11421.5,-0.0622612,0,633361,633361
11431.1,-0.0627988,0,631278,631278
11440.8,-0.0633087,0,631637,631637
11450.5,-0.063731,0,632885,632885
11460.2,-0.0641011,0,633077,633077
11471.2,-0.0644972,0,632895,632895
11481,-0.064827,0,634036,634036
11490.7,-0.0655193,0,633629,633629
11501.4,-0.065796,0,633984,633984
11510.5,-0.0659939,0,632688,632688
11521.2,-0.0662046,0,633438,633438
11530.5,-0.0663831,0,633845,633845
11540,-0.0665609,0,633081,633081
11551.2,-0.0667826,0,634000,634000
11561,-0.0669622,0,633789,633789
11570.7,-0.0670342,0,633210,633210
11580.4,-0.0670807,0,632235,632235
11590.1,-0.0671271,0,631977,631977
11601.5,-0.0671638,0,632601,632601
11611.2,-0.0667405,0,632952,632952
11621,-0.0667494,0,632263,632263
11630.7,-0.0667424,0,630761,630761
11640.4,-0.0667181,0,630054,630054
11650.1,-0.0666743,0,631878,631878
11661.5,-0.0665985,0,632253,632253
11671.2,-0.066513,0,630912,630912
11680.9,-0.0664075,0,630602,630602
11690.7,-0.0662823,0,630440,630440
11700.4,-0.066138,0,630177,630177
11710.1,-0.0659761,0,630011,630011
11721.5,-0.0657654,0,630492,630492
11731.2,-0.0655655,0,630454,630454
11740.8,-0.0653625,0,629222,629222
11750.4,-0.0651593,0,627709,627709
11760,-0.064949,0,626607,626607
11771.1,-0.064684,0,626337,626337
11780.7,-0.0644317,0,627110,627110
11790.2,-0.06415,0,626263,626263
11801.3,-0.0637792,0,625755,625755
11810.9,-0.0634226,0,625976,625976
11820.4,-0.0629463,0,626015,626015
11831.5,-0.0622068,0,623841,623841
11841,-0.0615975,0,622310,622310
11850.6,-0.0609923,0,621770,621770
11860.1,-0.0603635,0,620864,620864
11871.2,-0.0594253,0,620659,620659
11880.8,-0.0585673,0,620631,620631
11890.3,-0.0577066,0,620689,620689
11901.5,-0.0566817,0,618953,618953
11911,-0.0557764,0,619028,619028
11920.6,-0.0548491,0,617956,617956
11930.2,-0.053909,0,616338,616338
11941.4,-0.0535974,0,616194,616194
11951.1,-0.0527851,0,616452,616452
11960.7,-0.0517279,0,615083,615083
11970.4,-0.0505606,0,614216,614216
11980.1,-0.0493455,0,614385,614385
11991.3,-0.0479096,0,614217,614217
12001,-0.0466801,0,613471,613471
12010.7,-0.0454556,0,614246,614246
12020.3,-0.0442338,0,613974,613974
12031.6,-0.0428059,0,612045,612045
12041.3,-0.0415752,0,612030,612030
12050.9,-0.0403344,0,611247,611247
12060.6,-0.039078,0,610770,610770
12070.3,-0.0378054,0,610251,610251
12080,-0.0365127,0,609933,609933
12091.3,-0.0349815,0,608744,608744
12101,-0.0336513,0,607101,607101
12110.6,-0.0323074,0,607061,607061
12120.2,-0.0309537,0,607283,607283
12131.4,-0.0293625,0,606433,606433
12141,-0.0279909,0,606081,606081
12150.6,-0.026614,0,605600,605600
12160.2,-0.0252326,0,605060,605060
12171.4,-0.0236159,0,603697,603697
12181,-0.0222264,0,601812,601812
12190.7,-0.0208343,0,601008,601008
12200.3,-0.0194408,0,601200,601200
12211.5,-0.0178152,0,601146,601146
12221.1,-0.0164241,0,601046,601046
12230.7,-0.0150373,0,599979,599979
12240.3,-0.013657,0,599264,599264
12251.5,-0.0120576,0,598827,598827
12261.1,-0.0106982,0,598303,598303
12270.7,-0.00935064,0,598161,598161
12280.3,-0.00801582,0,598221,598221
12291.5,-0.00647541,0,599493,599493
12301.1,-0.00516997,0,598235,598235
12310.8,-0.00387636,0,597602,597602
12320.4,-0.00259677,0,596624,596624
12330,-0.00133198,0,597141,597141
12341.3,0.000127148,0,598348,598348
12350.9,0.0013628,0,599469,599469
12360.6,0.0025828,0,600620,600620
12370.3,0.00378706,0,600200,600200
12381.5,0.00517212,0,600157,600157
12391.2,0.00634279,0,599301,599301
12400.9,0.00749983,0,597688,597688
12410.6,0.00864577,0,596773,596773
12420.3,0.00977754,0,596902,596902
12430,0.0108944,0,597884,597884
12441.4,0.0121789,0,598550,598550
12451.1,0.0132642,0,599440,599440
12460.8,0.0143352,0,599634,599634
12470.5,0.0153922,0,598683,598683
12480.3,0.0164355,0,597114,597114
12491.6,0.0176357,0,596979,596979
12501.3,0.0186498,0,596902,596902
12511,0.0196504,0,596676,596676
12520.8,0.0206453,0,597404,597404
12530.5,0.0216221,0,594690,594690
12540.2,0.0225817,0,592718,592718
12551.4,0.0236888,0,590862,590862
12561,0.024625,0,590492,590492
12570.6,0.0255507,0,590711,590711
12580.1,0.0264637,0,591094,591094
12591.2,0.0275201,0,590163,590163
12600.8,0.0284172,0,589304,589304
12610.2,0.0292983,0,588438,588438
12621.1,0.0303172,0,587073,587073
12630.5,0.0311825,0,587694,587694
12641.4,0.0321861,0,587753,587753
12650.8,0.0330415,0,586138,586138
12660.1,0.0338929,0,585365,585365
12671.1,0.0348811,0,584536,584536
12680.4,0.0357243,0,584162,584162
12691.4,0.0367035,0,585327,585327
12700.7,0.0375392,0,584883,584883
12710.1,0.0383716,0,583548,583548
12721,0.0393388,0,582568,582568
12730.4,0.0401644,0,582197,582197
12741.3,0.0411238,0,581271,581271
12750.7,0.0419427,0,580752,580752
12760,0.0427586,0,580952,580952
12771,0.0437099,0,581503,581503
12780.4,0.0445236,0,582614,582614
12791.4,0.0454724,0,582248,582248
12800.9,0.046282,0,581728,581728
12810.4,0.0470886,0,581299,581299
12821.4,0.0480274,0,581560,581560
12831,0.0488365,0,581678,581678
12840.6,0.0496412,0,582240,582240
12850.2,0.0504411,0,582103,582103
12861.4,0.0513678,0,583390,583390
12871,0.0521576,0,583330,583330
12880.6,0.0529429,0,582779,582779
12890.3,0.0537229,0,582511,582511
12901.5,0.0546247,0,583575,583575
12911.2,0.05539,0,582958,582958
12920.8,0.0561415,0,582658,582658
12930.4,0.0568845,0,582338,582338
12940,0.0576157,0,581893,581893
12951.3,0.0584606,0,581580,581580
12961,0.0591768,0,580746,580746
12970.7,0.0598825,0,580953,580953
12980.5,0.0605787,0,582113,582113
12990.3,0.0612602,0,580718,580718
13001.6,0.0620269,0,579768,579768
13011.2,0.0626691,0,580180,580180
13020.7,0.0633026,0,580546,580546
13030.3,0.0640591,0,581783,581783
13041.4,0.0646321,0,582355,582355
13050.9,0.0651173,0,581359,581359
13060.2,0.0655853,0,580306,580306
13071.3,0.0661197,0,578890,578890
13080.8,0.0665549,0,579953,579953
13090.3,0.0669681,0,579726,579726
13101.4,0.0674139,0,578835,578835
13110.9,0.0677617,0,580008,580008
13120.4,0.0682165,0,580413,580413
13131.4,0.0684517,0,580440,580440
13140.8,0.0685708,0,580416,580416
13150.1,0.0687086,0,579523,579523
13161.1,0.0689066,0,579461,579461
13170.4,0.0690543,0,579483,579483
13181.4,0.0691951,0,579026,579026
13190.7,0.0692961,0,578545,578545
13200.1,0.0693886,0,578139,578139
13211.2,0.0694924,0,577744,577744
13220.8,0.0691114,0,578651,578651
13230.2,0.0691241,0,577618,577618
13241,0.0691307,0,577355,577355
13250.2,0.0691293,0,577887,577887
13261.1,0.0691151,0,577170,577170
13270.5,0.06909,0,576383,576383
13281.4,0.069046,0,574689,574689
13290.7,0.0689976,0,574172,574172
13301.5,0.0689291,0,573896,573896
13310.8,0.0688884,0,573836,573836
13320.1,0.0688257,0,573348,573348
13330.9,0.0687338,0,573267,573267
13340.1,0.0686424,0,571915,571915
13351,0.0685244,0,571004,571004
13360.2,0.0684152,0,570940,570940
13371.1,0.0682794,0,570671,570671
13380.3,0.0681562,0,569687,569687
13391.1,0.0680043,0,569826,569826
13400.4,0.0678669,0,569939,569939
13411.2,0.0677295,0,570092,570092
13420.6,0.067734,0,569956,569956
13431.5,0.06768,0,569028,569028
13440.9,0.0675942,0,568115,568115
13450.4,0.0674793,0,566992,566992
13460.1,0.0673394,0,566200,566200
13471.3,0.0671529,0,565625,565625
13481,0.0669768,0,564836,564836
13490.5,0.0667898,0,565304,565304
13500,0.0665933,0,565096,565096
13511.1,0.0663528,0,563639,563639
13520.5,0.066139,0,563054,563054
13531.6,0.06588,0,564295,564295
13541,0.0654144,0,564238,564238
13550.4,0.0649501,0,564141,564141
13561.5,0.0644194,0,562995,562995
13570.9,0.0639715,0,563144,563144
13580.3,0.063539,0,563750,563750
13591.3,0.0630633,0,564068,564068
13600.8,0.0626834,0,563896,563896
13610.2,0.0623647,0,562320,562320
13621.3,0.0620148,0,561191,561191
13630.7,0.0617371,0,562181,562181
13640.1,0.0614913,0,562260,562260
13651.2,0.0612206,0,561961,561961
13660.6,0.0609871,0,561492,561492
13671.4,0.0606937,0,561363,561363
13680.6,0.0604105,0,561756,561756
13691.4,0.0600397,0,560306,560306
13700.6,0.0596893,0,559892,559892
13711.4,0.0592498,0,559342,559342
13720.6,0.058851,0,558686,558686
13731.5,0.0583669,0,559235,559235
13740.7,0.0579426,0,558715,558715
13751.5,0.0574403,0,559019,559019
13760.8,0.0570055,0,557094,557094
13770.1,0.0565667,0,555876,555876
13780.9,0.0560513,0,554681,554681
13790.2,0.0556074,0,554430,554430
13801,0.0550896,0,554454,554454
13810.3,0.0546459,0,554939,554939
13821.1,0.0541263,0,554276,554276
13830.4,0.0536786,0,553880,553880
13841.2,0.0531489,0,553325,553325
13850.4,0.0526872,0,553287,553287
13861.2,0.0521388,0,553524,553524
13870.5,0.0516606,0,552411,552411
13881.3,0.0510944,0,550926,550926
13890.5,0.0506032,0,550911,550911
13901.3,0.050025,0,550326,550326
13910.5,0.0495263,0,549875,549875
13921.3,0.0489419,0,549442,549442
13930.6,0.0484387,0,548967,548967
13940.1,0.0479225,0,549485,549485
13950.8,0.0473373,0,550015,550015
13960.1,0.0468267,0,549075,549075
13971.2,0.0462186,0,548336,548336
13980.7,0.0456956,0,549026,549026
13990.1,0.0451707,0,549242,549242
14001.2,0.0445555,0,547211,547211
14010.7,0.0440255,0,546625,546625
14020.2,0.0434926,0,545571,545571
14030.7,0.0429002,0,546104,546104
14040.1,0.0423626,0,546017,546017
14051.4,0.0417168,0,545984,545984
14061.1,0.0411549,0,546333,546333
14070.8,0.0405885,0,545037,545037
14080.4,0.0400201,0,545149,545149
14090.1,0.039447,0,544921,544921
14101.4,0.0387728,0,545028,545028
14111.1,0.0381859,0,544768,544768
14120.8,0.0375925,0,544384,544384
14130.5,0.0369946,0,544311,544311
14140.4,0.0363814,0,543446,543446
14150.3,0.035761,0,542517,542517
14160.1,0.0351329,0,542710,542710
14171.6,0.0343889,0,542394,542394
14181.5,0.03374,0,542304,542304
14191.3,0.0330793,0,541823,541823
14201.2,0.0324052,0,541218,541218
14210.7,0.0317426,0,540113,540113
14220.2,0.0310663,0,540445,540445
14231.2,0.0302661,0,542103,542103
14240.5,0.0295719,0,541549,541549
14250.2,0.0288606,0,540822,540822
14261.6,0.0280092,0,539469,539469
14271.4,0.0272613,0,538664,538664
14281.2,0.0264947,0,539117,539117
14290.9,0.0257386,0,538961,538961
14300.3,0.0249897,0,538534,538534
14311.4,0.0240607,0,537791,537791
14320.8,0.0231766,0,538806,538806
14330.3,0.0222644,0,538247,538247
14341.4,0.0211973,0,537913,537913
14350.9,0.0202774,0,536267,536267
14360.5,0.0193545,0,535721,535721
14370.3,0.0184145,0,535072,535072
14380,0.0174701,0,533896,533896
14391.4,0.0163624,0,531385,531385
14401.2,0.0154062,0,531567,531567
14410.9,0.0144435,0,531365,531365
14420.7,0.0134746,0,530756,530756
14430.5,0.0125003,0,530787,530787
14440.2,0.011522,0,529425,529425
14451.6,0.0103768,0,527714,527714
14461.4,0.00939218,0,527421,527421
14471.1,0.00840394,0,527628,527628
14480.9,0.00741059,0,526484,526484
14490.7,0.0064074,0,525086,525086
14500.5,0.00539452,0,525062,525062
14510.1,0.00438721,0,523756,523756
14521.4,0.00319303,0,521824,521824
14531.1,0.0021609,0,521176,521176
14540.8,0.00111908,0,520056,520056
14550.6,6.03505e-05,0,520903,520903
14560.3,-0.00100429,0,520677,520677
14571.6,-0.00225044,0,518789,518789
14581.3,-0.00332673,0,516931,516931
14591.1,-0.00441748,0,515688,515688
14600.9,-0.00551535,0,515323,515323
14610.7,-0.0066192,0,514348,514348
14621.6,-0.0078505,0,514202,514202
14630.6,-0.00886319,0,512314,512314
14640.2,-0.00995504,0,511150,511150
14650,-0.0110744,0,509723,509723
14661.5,-0.0123852,0,508618,508618
14671.3,-0.0135132,0,508194,508194
14681.1,-0.0146453,0,507208,507208
14690.9,-0.0157822,0,505909,505909
14700.7,-0.0169236,0,504119,504119
14710.6,-0.0180694,0,502406,502406
14720.4,-0.0192197,0,500421,500421
14730.2,-0.0203748,0,499958,499958
14741.3,-0.0216869,0,499765,499765
14751.2,-0.0228505,0,497749,497749
14761,-0.0240189,0,496483,496483
14770.9,-0.0251918,0,496100,496100
14780.7,-0.0263668,0,495358,495358
14790.6,-0.0275424,0,493792,493792
14800.4,-0.0287078,0,492891,492891
14810.1,-0.0298721,0,491548,491548
14821.3,-0.0312071,0,491376,491376
14830.9,-0.032356,0,490717,490717
14840.4,-0.0334939,0,488687,488687
14851.5,-0.0348227,0,486453,486453
14861,-0.0359611,0,486303,486303
14870.4,-0.0371025,0,486849,486849
14880.2,-0.0382779,0,485894,485894
14891.5,-0.0396396,0,484512,484512
14901.3,-0.0408276,0,482777,482777
14911.2,-0.0420162,0,481217,481217
14921,-0.043198,0,480499,480499
14930.8,-0.0443738,0,479721,479721
14940.5,-0.0455323,0,478609,478609
14950.1,-0.0466791,0,476007,476007
14961.4,-0.0480026,0,473932,473932
14971,-0.0491246,0,471726,471726
14980.6,-0.050233,0,469416,469416
14990.2,-0.0513257,0,468214,468214
15001.4,-0.0525789,0,466117,466117
15011.1,-0.0536345,0,464545,464545
15020.7,-0.0546692,0,462303,462303
15030.3,-0.0556767,0,459129,459129
15041.6,-0.0568315,0,458101,458101
15051.3,-0.0577944,0,456109,456109
15061.1,-0.0587419,0,453515,453515
15071.1,-0.0596724,0,451383,451383
15081,-0.0605706,0,448498,448498
15091,-0.0614347,0,446288,446288
15100.9,-0.0622629,0,444709,444709
15110.8,-0.0630556,0,442678,442678
15120.7,-0.0638107,0,440282,440282
15130.6,-0.0645307,0,439882,439882
15140.1,-0.0651899,0,438398,438398
15151.1,-0.0659159,0,435722,435722
15160.5,-0.066501,0,434380,434380
15170.3,-0.0670819,0,431948,431948
15180.2,-0.0676279,0,430002,430002
15190.1,-0.0681394,0,429437,429437
15201.1,-0.0686695,0,427487,427487
15210.6,-0.0690956,0,426093,426093
15221.3,-0.0695379,0,425010,425010
15230.9,-0.069897,0,423685,423685
15240.6,-0.070799,0,422932,422932
15250.3,-0.0710818,0,421730,421730
15261,-0.07135,0,419686,419686
15270.9,-0.0715687,0,417101,417101
15280.6,-0.071773,0,416247,416247
15290,-0.0718268,0,415329,415329
15301.4,-0.0703039,0,414021,414021
15311.1,-0.0702835,0,413261,413261
15321.2,-0.0702291,0,411815,411815
15331.1,-0.070131,0,410595,410595
15340.4,-0.0699931,0,410647,410647
15350.3,-0.0698,0,407787,407787
15361.6,-0.0696311,0,407002,407002
15370.1,-0.0694534,0,405829,405829
15380.2,-0.0691616,0,404628,404628
15390.4,-0.0688054,0,402505,402505
15401.5,-0.0684252,0,401250,401250
15410,-0.0683243,0,400237,400237
15420.3,-0.0680875,0,399093,399093
15430.6,-0.0677387,0,397749,397749
15440.8,-0.0673022,0,396802,396802
15451.2,-0.0667961,0,396264,396264
15461.5,-0.0662337,0,394568,394568
15470.2,-0.065744,0,393271,393271
15480.5,-0.0651624,0,392338,392338
15490.9,-0.064568,0,391484,391484
15501.3,-0.0639464,0,390297,390297
15510,-0.0633527,0,388581,388581
15520.3,-0.0625529,0,386622,386622
15530.7,-0.0620681,0,385116,385116
15541,-0.0613144,0,382806,382806
15551.3,-0.0603524,0,381925,381925
15560,-0.0594654,0,381508,381508
15570,-0.0583904,0,380081,380081
15580.5,-0.0572404,0,378609,378609
15590.9,-0.0560874,0,377181,377181
15601.1,-0.0549441,0,376049,376049
15610.9,-0.0538272,0,373618,373618
15621.3,-0.0526443,0,372301,372301
15631.3,-0.0514733,0,370666,370666
15641.6,-0.0502505,0,368383,368383
15651.3,-0.0490626,0,367409,367409
15661.7,-0.0477763,0,366481,366481
15670.2,-0.046687,0,365218,365218
15680.8,-0.0453196,0,363638,363638
15691.3,-0.0439232,0,361582,361582
15700.1,-0.0427394,0,359701,359701
15710.6,-0.0412938,0,359013,359013
15720.8,-0.0398705,0,357336,357336
15730.9,-0.0384471,0,355397,355397
15741.1,-0.0369742,0,352812,352812
15751.7,-0.0354295,0,351190,351190
15760.5,-0.0341277,0,349370,349370
15771,-0.0325536,0,347825,347825
15781.7,-0.0309929,0,346666,346666
15790.6,-0.0297533,0,345116,345116
15800.9,-0.0282838,0,343707,343707
15810.8,-0.0268345,0,341594,341594
15820.8,-0.0253871,0,339447,339447
15830.8,-0.0239683,0,338038,338038
15841,-0.0225617,0,336816,336816
15851.2,-0.021227,0,335374,335374
15861.1,-0.0199961,0,334768,334768
15871.4,-0.0187739,0,332797,332797
15880.3,-0.0177626,0,331908,331908
15891,-0.0166145,0,330390,330390
15901.6,-0.0155166,0,329184,329184
15910.6,-0.0146275,0,327930,327930
15921.3,-0.0136082,0,326468,326468
15930.2,-0.0127974,0,325905,325905
15940.9,-0.0118711,0,325183,325183
15951.6,-0.0109969,0,324241,324241
15960.4,-0.0103084,0,322665,322665
15971.1,-0.0095255,0,320283,320283
15980.1,-0.00890917,0,319223,319223
15990.8,-0.00821139,0,317411,317411
16001.6,-0.00756064,0,316391,316391
16010.6,-0.0070844,0,315512,315512
16021.5,-0.00656244,0,314586,314586
16030.5,-0.00615173,0,312856,312856
16041.3,-0.00565582,0,311746,311746
16050.4,-0.00527068,0,311366,311366
16061.1,-0.00484726,0,310366,310366
16070.1,-0.00451817,0,309012,309012
16080.8,-0.00415683,0,308859,308859
16091.5,-0.0038402,0,307847,307847
16100.5,-0.00360766,0,306367,306367
16111.2,-0.00434975,0,304592,304592
16120.8,-0.00428758,0,303704,303704
16131.7,-0.00421311,0,303138,303138
16140.2,-0.00415638,0,302588,302588
16151.3,-0.00409003,0,300976,300976
16160.6,-0.00402983,0,300202,300202
16171.5,-0.00393995,0,299388,299388
16180.7,-0.00388452,0,298655,298655
16191.6,-0.00384567,0,298169,298169
16200.8,-0.00383734,0,296913,296913
16210.4,-0.00385052,0,295645,295645
16221.8,-0.00374491,0,293782,293782
16230.9,-0.00371378,0,292547,292547
16240.1,-0.00373783,0,292412,292412
16251.1,-0.00382168,0,292008,292008
16260.2,-0.00392287,0,291076,291076
16271.6,-0.00407372,0,289556,289556
16281.7,-0.00422272,0,288809,288809
16291.8,-0.00438162,0,288211,288211
16301.5,-0.00454153,0,287239,287239
16311.2,-0.00470679,0,285446,285446
16321.3,-0.0048839,0,283804,283804
16331.5,-0.00486098,0,282970,282970
16341.7,-0.00476899,0,283171,283171
16352,-0.00478283,0,282370,282370
16360.2,-0.00485536,0,282071,282071
16370.5,-0.00499905,0,281611,281611
16381,-0.00529282,0,280794,280794
16391.5,-0.00550991,0,278940,278940
16401.8,-0.00564998,0,277520,277520
16410.9,-0.00575539,0,277115,277115
16420.8,-0.00616134,0,275815,275815
16431.1,-0.00638159,0,275232,275232
16441.1,-0.00660861,0,274455,274455
16451.1,-0.00683254,0,273533,273533
16461.1,-0.00690827,0,272389,272389
16471.2,-0.00670586,0,271047,271047
16480.3,-0.00672239,0,270691,270691
16491.2,-0.0068276,0,271284,271284
16500.3,-0.00692732,0,270451,270451
16510.9,-0.00781486,0,268577,268577
16521.8,-0.00813571,0,268028,268028
16530.6,-0.00821917,0,267939,267939
16540.1,-0.00827252,0,267398,267398
16551.3,-0.00830106,0,266107,266107
16560.7,-0.00830329,0,265165,265165
16571.7,-0.00828781,0,264075,264075
16580.8,-0.00826298,0,263943,263943
16591.7,-0.00819237,0,264116,264116
16600.8,-0.00809563,0,263060,263060
16611.7,-0.00799354,0,262036,262036
16620.8,-0.00791365,0,260969,260969
16631.7,-0.00781851,0,260355,260355
16640.8,-0.00773654,0,259471,259471
16651.7,-0.00763193,0,258635,258635
16660.8,-0.00753804,0,257993,257993
16670.4,-0.00743314,0,257050,257050
16681.5,-0.00730013,0,256350,256350
16691.3,-0.00717516,0,255269,255269
16700.7,-0.00704953,0,254910,254910
16711.7,-0.00690142,0,253877,253877
16721,-0.00677156,0,252792,252792
16731.5,-0.00661614,0,251706,251706
16740.8,-0.00647305,0,250860,250860
16752.2,-0.00628589,0,250057,250057
16761.5,-0.00612745,0,249167,249167
16770.6,-0.00596618,0,248110,248110
16780.5,-0.00578507,0,248073,248073
16791.6,-0.00557861,0,247274,247274
16800.6,-0.00540507,0,246490,246490
16812.1,-0.00518377,0,245992,245992
16821.7,-0.00499584,0,246022,246022
16830.8,-0.00481495,0,245439,245439
16841.7,-0.00459911,0,243862,243862
16850.8,-0.00441671,0,242552,242552
16861.7,-0.00419841,0,241149,241149
16870.8,-0.00401443,0,240143,240143
16881.8,-0.00379135,0,239252,239252
16890.9,-0.00360522,0,238640,238640
16900.1,-0.00341718,0,238470,238470
16911.1,-0.00319027,0,237370,237370
16920.3,-0.0029995,0,236879,236879
16931.4,-0.00276784,0,236243,236243
16941.5,-0.00255295,0,235045,235045
16950.1,-0.00236692,0,234033,234033
16960.4,-0.00214534,0,233533,233533
16972.1,-0.00189003,0,232789,232789
16980.9,-0.0016996,0,232825,232825
16991.4,-0.00147331,0,231201,231201
17001.3,-0.00125865,0,230521,230521
17011.7,-0.00103609,0,230175,230175
17020.1,-0.000856118,0,229956,229956
17030.9,-0.000627278,0,230231,230231
17041.3,-0.000408511,0,229645,229645
17050.1,-0.000225457,0,228581,228581
17060.8,-1.04396e-06,0,228320,228320
17070.9,0.000206287,0,227775,227775
17081.5,0.000425276,0,226584,226584
17090.5,0.000608871,0,225746,225746
17101.5,0.000831531,0,225050,225050
17110.3,0.00100867,0,223980,223980
17121.5,0.00123381,0,223142,223142
17130.8,0.00141896,0,222524,222524
17140.8,0.00161805,0,222203,222203
17151.4,0.00182484,0,221527,221527
17160.4,0.00200123,0,221050,221050
17171.8,0.00221993,0,220731,220731
17180.6,0.00238666,0,219622,219622
17191.6,0.00259201,0,219413,219413
17200.3,0.00275313,0,218957,218957
17211.2,0.00295214,0,217628,217628
17222,0.00314444,0,217707,217707
17230.4,0.00329133,0,217206,217206
17241,0.00347469,0,215418,215418
17250.2,0.00362891,0,213955,213955
17260.1,0.00379044,0,213478,213478
17271.2,0.00396579,0,212991,212991
17282.2,0.00413517,0,212276,212276
17290.5,0.00425929,0,211574,211574
17301.3,0.00441643,0,211340,211340
17310.3,0.00454253,0,211233,211233
17320.3,0.00467937,0,210586,210586
17332,0.00483584,0,209591,209591
17341.8,0.00496102,0,208415,208415
17351.5,0.00508169,0,208059,208059
17361.4,0.00519896,0,207717,207717
17371.1,0.00527153,0,207511,207511
17380.8,0.00533173,0,207307,207307
17391.6,0.00541041,0,206043,206043
17401.2,0.00548708,0,205357,205357
17410.8,0.00556758,0,205516,205516
17420.5,0.00564993,0,205166,205166
17431.7,0.00574505,0,204687,204687
17441.3,0.00582542,0,203806,203806
17450.5,0.00590183,0,203945,203945
17461.8,0.00599375,0,203065,203065
17472,0.00607778,0,202493,202493
17481.9,0.0061592,0,202228,202228
17491.1,0.0062323,0,201905,201905
17500.6,0.00630516,0,201079,201079
17510.4,0.00637563,0,200804,200804
17521,0.00644798,0,200084,200084
17530.5,0.00650798,0,200383,200383
17541.4,0.00656909,0,200078,200078
17550.8,0.00660807,0,199622,199622
17561,0.00664129,0,198471,198471
17572.1,0.00667231,0,198076,198076
17581,0.00669518,0,197877,197877
17592,0.00672322,0,198160,198160
17600.8,0.00675068,0,198587,198587
17612.2,0.00679836,0,198507,198507
17621,0.00683861,0,199107,199107
17631.6,0.00688799,0,198745,198745
17640.3,0.00692803,0,197713,197713
17650.6,0.00697329,0,196955,196955
17661.8,0.007372,0,196316,196316
17670.8,0.00742586,0,196053,196053
17681,0.00748386,0,195922,195922
17691.8,0.00754174,0,195372,195372
17700.9,0.00758844,0,195252,195252
17711.5,0.00762523,0,194590,194590
17720.3,0.00764169,0,193381,193381
17731.3,0.00767127,0,192233,192233
17741.5,0.00770581,0,191726,191726
17750.5,0.00774136,0,191453,191453
17761.8,0.00779104,0,190779,190779
17770.3,0.00783092,0,190293,190293
17781.3,0.00788605,0,189496,189496
17790.2,0.00793244,0,189165,189165
17801.7,0.00799332,0,188511,188511
17810.8,0.00804204,0,189417,189417
17821.8,0.00810164,0,189488,189488
17830.6,0.00814915,0,188956,188956
17841.6,0.00820995,0,188902,188902
17850.8,0.00826149,0,188101,188101
17862.2,0.00832733,0,187475,187475
17871.1,0.00837987,0,187280,187280
17882.1,0.00844537,0,187038,187038
17890.9,0.00849817,0,186516,186516
17901.9,0.00856488,0,186153,186153
17910.8,0.00861877,0,185726,185726
17920.1,0.00867481,0,185524,185524
17931.7,0.00874336,0,186222,186222
17940.8,0.00879626,0,186147,186147
17951.8,0.00885878,0,185447,185447
17960.5,0.00890943,0,185288,185288
17971.5,0.00897226,0,185040,185040
17980.2,0.00902045,0,184909,184909
17991.2,0.00907807,0,184522,184522
18000.1,0.00912378,0,183932,183932
18011.1,0.00917906,0,183517,183517
18022.2,0.00923563,0,182715,182715
18031.1,0.00928206,0,182249,182249
18040,0.0093299,0,182513,182513
18051,0.00938662,0,182352,182352
18062.1,0.00944494,0,181414,181414
18071.4,0.00949869,0,180765,180765
18080.4,0.00955194,0,179911,179911
18091.4,0.0096164,0,179254,179254
18100.1,0.00966519,0,179491,179491
18111.1,0.00972576,0,180226,180226
18120.2,0.00977384,0,179951,179951
18131.5,0.00982827,0,179930,179930
18140.2,0.00986626,0,179886,179886
18151.2,0.00982676,0,178389,178389
18162.2,0.00981837,0,176688,176688
18170.9,0.00981299,0,176110,176110
18182,0.00983297,0,176017,176017
18191.1,0.00987404,0,175859,175859
18202.1,0.00991214,0,176680,176680
18210.9,0.00993523,0,176168,176168
18221.9,0.00995613,0,175623,175623
18230.7,0.00996736,0,174888,174888
18242.2,0.00997574,0,173686,173686
18251.6,0.00997819,0,173030,173030
18260.4,0.00997732,0,172661,172661
18271.5,0.00997244,0,172131,172131
18280.4,0.00996607,0,171912,171912
18291.6,0.00995554,0,171933,171933
18300.5,0.00994519,0,171976,171976
18311.8,0.0099298,0,171152,171152
18321.3,0.00991461,0,169846,169846
18330.8,0.00989749,0,169352,169352
18341.8,0.00987516,0,169026,169026
18350.5,0.00985532,0,168415,168415
18361.4,0.00982797,0,168129,168129
18370.1,0.00980393,0,168333,168333
18381.2,0.00977035,0,168398,168398
18390.5,0.00974008,0,168135,168135
18401.6,0.00970083,0,167486,167486
18410.1,0.00966844,0,166870,166870
18421.2,0.00962425,0,166167,166167
18430.1,0.00958639,0,165239,165239
18441.8,0.00953448,0,164284,164284
18450.9,0.00949199,0,163301,163301
18462.2,0.00943781,0,162895,162895
18471,0.00939399,0,162739,162739
18481.9,0.00933803,0,162797,162797
18490.7,0.00929376,0,163108,163108
18502,0.00919372,0,162989,162989
18511.2,0.00912171,0,162224,162224
18520.3,0.0090509,0,161721,161721
18531.7,0.00896251,0,160314,160314
18540.5,0.00889264,0,159972,159972
18551.7,0.0088035,0,159770,159770
18560.8,0.0087324,0,159567,159567
18571.8,0.00864794,0,159454,159454
18580.7,0.00857466,0,159691,159691
18592,0.00847849,0,159602,159602
18600.9,0.00840511,0,158564,158564
18612,0.00832046,0,157323,157323
18620.7,0.0082591,0,157060,157060
18632.1,0.00818736,0,156105,156105
18641.3,0.00813607,0,155650,155650
18650.5,0.00829829,0,155422,155422
18661.9,0.00825446,0,155334,155334
18670.7,0.00822138,0,156113,156113
18681.7,0.00822079,0,155955,155955
18690.4,0.00819381,0,155728,155728
18701.2,0.0081625,0,154804,154804
18712,0.00813378,0,154105,154105
18721.1,0.00811142,0,154166,154166
18730.3,0.00809027,0,153629,153629
18741.6,0.00806583,0,153750,153750
18750.5,0.00804807,0,153933,153933
18761.5,0.00802666,0,152925,152925
18770.2,0.00801013,0,152306,152306
18781.3,0.00799001,0,151948,151948
18790.1,0.00797477,0,151694,151694
18801.1,0.00795684,0,151608,151608
18812,0.00794024,0,151038,151038
18820.8,0.00792788,0,150453,150453
18831.7,0.00791361,0,149882,149882
18840.5,0.00790313,0,149310,149310
18851.4,0.00789122,0,148724,148724
18860.4,0.00788246,0,148441,148441
18871.9,0.00787251,0,147818,147818
18880.8,0.00786588,0,147865,147865
18891.8,0.00785889,0,148142,148142
18900.6,0.00785428,0,148085,148085
18911.5,0.00784978,0,147507,147507
18920.2,0.00784721,0,146818,146818
18931.1,0.00784522,0,146546,146546
18942.2,0.00784414,0,146053,146053
18951.3,0.00784418,0,145772,145772
18960.5,0.00784523,0,145907,145907
18971.4,0.00784803,0,146586,146586
18980.2,0.00762662,0,145484,145484
18991.2,0.00762933,0,144926,144926
19000.6,0.00763224,0,144376,144376
19012.2,0.00763678,0,144583,144583
19021.2,0.00764116,0,143900,143900
19032.1,0.00764761,0,143890,143890
19040.8,0.0076537,0,143619,143619
19051.7,0.00766257,0,143023,143023
19060.4,0.00767077,0,143603,143603
19071.3,0.0076824,0,144064,144064
19080.2,0.00769297,0,144604,144604
19091.2,0.00770762,0,144005,144005
19101.8,0.00772318,0,143421,143421
19110.7,0.00773755,0,142636,142636
19121.8,0.00776323,0,142289,142289
19130.7,0.00778357,0,142954,142954
19141.9,0.00780893,0,142101,142101
19150.8,0.00782965,0,142094,142094
19161.7,0.00785562,0,141367,141367
19170.5,0.00787723,0,141592,141592
19181.5,0.00790526,0,142060,142060
19190.3,0.00792885,0,142401,142401
19201.4,0.00795954,0,141177,141177
19210.3,0.0079851,0,140380,140380
19221.4,0.00801841,0,140059,140059
19230.4,0.0080463,0,139957,139957
19241.8,0.00808307,0,139895,139895
19250.6,0.00811247,0,139658,139658
19261.6,0.00815025,0,139493,139493
19270.4,0.00818131,0,139509,139509
19281.8,0.00822268,0,139009,139009
19290.8,0.00825614,0,138367,138367
19301.8,0.00829794,0,138152,138152
19310.6,0.00833211,0,137845,137845
19321.8,0.00837682,0,138085,138085
19331,0.0084139,0,138179,138179
19340.1,0.00845121,0,138473,138473
19351.5,0.00849869,0,139158,139158
19360.3,0.00853364,0,138864,138864
19371.2,0.00857661,0,138074,138074
19382.2,0.0086189,0,138109,138109
19390.9,0.00865252,0,137720,137720
19401.7,0.00869389,0,138189,138189
19412,0.00873406,0,138045,138045
19420.6,0.00876796,0,137550,137550
19432,0.00881359,0,137769,137769
19441.2,0.0088518,0,138003,138003
19450.6,0.00889129,0,138041,138041
19461.5,0.00893921,0,137471,137471
19470.2,0.00897853,0,136825,136825
19481.2,0.00902953,0,136551,136551
19490.2,0.00907269,0,136225,136225
19501.6,0.00912916,0,135889,135889
19510.5,0.00917454,0,136076,136076
19521.5,0.00935392,0,136204,136204
19530.3,0.00946537,0,135604,135604
19541.5,0.00958537,0,135219,135219
19550.7,0.00967383,0,135284,135284
19562.1,0.00977645,0,135038,135038
19570.8,0.00985376,0,135415,135415
19581.7,0.00994927,0,135643,135643
19590.4,0.0100254,0,135186,135186
19601,0.0101183,0,135267,135267
19612.1,0.0102154,0,135209,135209
19621.4,0.0102961,0,134959,134959
19630.4,0.0103733,0,135136,135136
19641.4,0.0104667,0,135680,135680
19650.2,0.0105559,0,136343,136343
19661.1,0.0106576,0,135494,135494
19672.2,0.0107517,0,134650,134650
19681,0.0108218,0,134413,134413
19692.2,0.0109047,0,134620,134620
19701,0.010966,0,134513,134513
19712,0.0110389,0,134246,134246
19720.7,0.0110936,0,133881,133881
19731.7,0.0111577,0,134470,134470
19740.5,0.0112054,0,134526,134526
19751.8,0.0112625,0,134205,134205
19760.5,0.0113037,0,133469,133469
19771.4,0.0113514,0,132704,132704
19780.1,0.0115466,0,132489,132489
19791,0.0115931,0,132653,132653
19801.9,0.011637,0,132496,132496
19810.7,0.0116706,0,132557,132557
19822,0.0117112,0,131692,131692
19831.1,0.0117425,0,131318,131318
19840.3,0.0117729,0,131440,131440
19851.3,0.0118072,0,131804,131804
19860.2,0.0118337,0,132066,132066
19871.3,0.0118654,0,131643,131643
19880.2,0.0118893,0,131247,131247
19891.2,0.0119178,0,130952,130952
19902.1,0.0119449,0,131014,131014
19910.9,0.0119659,0,130587,130587
19922,0.0119913,0,130274,130274
19930.9,0.0120113,0,129786,129786
19941.8,0.012036,0,130091,130091
19950.6,0.0120555,0,130488,130488
19962,0.0120801,0,131912,131912
19971.5,0.0120996,0,131269,131269
19980.3,0.0121173,0,130841,130841
19991.2,0.0121377,0,129987,129987
