time,surface_elevation,reference_data,number_of_local_cells,number_of_global_cells
0,0,0,20488,20488
10.5152,0,0,21490,21490
20.9356,0,0,27368,27368
31.3559,0,0,31266,31266
41.7801,0,0,32036,32036
50.0939,0,0,32694,32694
60.5326,0,0,33564,33564
71.0098,0,0,34426,34426
81.508,0,0,34968,34968
92.0173,0,0,35430,35430
100.425,0,0,35936,35936
110.949,0,0,36550,36550
121.483,0,0,37184,37184
132.018,0,0,37890,37890
140.446,0,0,38550,38550
150.981,0,0,39070,39070
161.516,0,0,39680,39680
172.052,0,0,40214,40214
180.482,0,0,40578,40578
191.02,0,0,41132,41132
201.558,0,0,41486,41486
212.097,0,0,41886,41886
220.507,0,0,42224,42224
231.047,0,0,42800,42800
241.588,0,0,43026,43026
250.02,0,0,43078,43078
260.561,0,0,43306,43306
271.101,0,0,43808,43808
281.641,0,0,43914,43914
290.074,0,0,44092,44092
300.614,0,0,44440,44440
311.154,0,0,44774,44774
321.694,0,0,44854,44854
330.127,0,0,44870,44870
340.667,0,0,45038,45038
351.207,0,0,45160,45160
361.748,0,0,45540,45540
370.182,0,0,46066,46066
380.733,0,0,46628,46628
391.321,0,0,46900,46900
401.923,0,0,47296,47296
410.406,0,0,47432,47432
421.008,0,0,47570,47570
431.612,0,0,47624,47624
440.094,0,0,47812,47812
450.698,0,0,48090,48090
461.322,0,0,48164,48164
471.972,0,0,48464,48464
480.493,0,0,49242,49242
491.15,0,0,49662,49662
501.828,0,0,49554,49554
510.385,0,0,49618,49618
521.07,0,0,49934,49934
531.687,0,0,50172,50172
540.228,0,0,50124,50124
550.969,0,0,50410,50410
561.616,0,0,50816,50816
570.133,0,0,50918,50918
580.718,0,0,51480,51480
591.279,0,0,51420,51420
601.942,0,0,51446,51446
610.491,0,0,51704,51704
621.18,0,0,52030,52030
631.753,0,0,52604,52604
640.212,0,0,52816,52816
650.842,0,0,53548,53548
661.491,0,0,54206,54206
670.023,0,0,54456,54456
680.664,4.54747e-12,0,54716,54716
691.316,9.09495e-12,0,54844,54844
701.976,1.36424e-11,0,55584,55584
710.5,1.72804e-11,0,55964,55964
721.13,2.18279e-11,0,56476,56476
731.753,2.63753e-11,0,57020,57020
740.243,3.00133e-11,0,57376,57376
750.887,3.91083e-11,0,57754,57754
761.535,4.82032e-11,0,58030,58030
770.053,5.54792e-11,0,58222,58222
780.704,6.82121e-11,0,58666,58666
791.359,8.18545e-11,0,59074,59074
802.013,1.00044e-10,0,59544,59544
810.536,1.15506e-10,0,59702,59702
821.18,1.38243e-10,0,60124,60124
831.822,1.65528e-10,0,60394,60394
840.331,1.90994e-10,0,60528,60528
850.962,2.26464e-10,0,60774,60774
861.583,2.68301e-10,0,61000,61000
870.074,3.065e-10,0,61046,61046
880.685,3.61069e-10,0,61178,61178
891.297,4.24734e-10,0,61344,61344
901.894,4.98403e-10,0,61640,61640
910.354,5.65706e-10,0,61842,61842
920.905,6.60293e-10,0,62122,62122
931.391,7.67614e-10,0,62462,62462
941.841,8.90395e-10,0,62602,62602
950.188,1.00135e-09,0,62674,62674
960.58,1.15597e-09,0,63014,63014
970.972,1.33332e-09,0,63228,63228
981.371,1.53341e-09,0,63592,63592
991.796,1.76078e-09,0,63786,63786
1000.23,1.96633e-09,0,64008,64008
1010.88,2.25646e-09,0,64144,64144
1021.41,2.58115e-09,0,64296,64296
1031.89,2.94494e-09,0,64632,64632
1040.27,3.26872e-09,0,64896,64896
1050.73,3.71892e-09,0,65176,65176
1061.2,4.2246e-09,0,65508,65508
1071.66,4.79122e-09,0,65522,65522
1080.04,5.29326e-09,0,65626,65626
1090.54,5.98993e-09,0,66052,66052
1101.05,6.76846e-09,0,66536,66536
1111.58,7.63794e-09,0,66978,66978
1120.01,8.40646e-09,0,67180,67180
1130.62,9.47057e-09,0,67234,67234
1141.38,1.06738e-08,0,67404,67404
1150.1,1.17479e-08,0,67546,67546
1161.11,1.32432e-08,0,68348,68348
1172.17,1.4913e-08,0,68418,68418
1181.01,1.63836e-08,0,68390,68390
1192.07,1.84045e-08,0,68560,68560
1200.93,2.01853e-08,0,68750,68750
1212.03,2.26319e-08,0,68944,68944
1220.82,2.47537e-08,0,69402,69402
1231.97,2.77059e-08,0,69854,69854
1240.92,3.02989e-08,0,69998,69998
1252.12,3.38478e-08,0,70104,70104
1261.1,3.696e-08,0,70270,70270
1270.1,4.03334e-08,0,70482,70482
1281.37,4.49454e-08,0,70708,70708
1290.41,4.8979e-08,0,70778,70778
1301.83,5.45388e-08,0,71058,71058
1310.9,5.93554e-08,0,71220,71220
1322.33,6.5962e-08,0,71394,71394
1331.74,7.18837e-08,0,71626,71626
1341.15,7.82766e-08,0,71786,71786
1350.55,8.51651e-08,0,71788,71788
1362.28,9.45302e-08,0,72004,72004
1371.68,1.02675e-07,0,72124,72124
1380.8,1.11183e-07,0,72334,72334
1390.05,1.20454e-07,0,72542,72542
1401.79,1.33209e-07,0,72832,72832
1411.19,1.4427e-07,0,72948,72948
1420.59,1.56147e-07,0,72926,72926
1432.35,1.72235e-07,0,73210,73210
1441.75,1.86155e-07,0,73292,73292
1451.18,2.01116e-07,0,73470,73470
1460.62,2.17162e-07,0,73606,73606
1470.07,2.34346e-07,0,73820,73820
1481.91,2.57613e-07,0,74006,74006
1491.39,2.77713e-07,0,74216,74216
1500.87,2.99209e-07,0,74382,74382
1510.36,3.22189e-07,0,74334,74334
1522.23,3.53166e-07,0,74524,74524
1531.73,3.7987e-07,0,74770,74770
1541.23,4.08367e-07,0,74914,74914
1551.85,4.4251e-07,0,75258,75258
1560.41,4.71849e-07,0,75252,75252
1572.27,5.15383e-07,0,75268,75268
1581.75,5.52755e-07,0,75458,75458
1591.23,5.92523e-07,0,75536,75536
1600.69,6.34784e-07,0,75838,75838
1610.15,6.79739e-07,0,75932,75932
1621.98,7.39958e-07,0,76010,76010
1631.45,7.9155e-07,0,76168,76168
1640.91,8.46365e-07,0,76342,76342
1650.37,9.04583e-07,0,76548,76548
1662.2,9.82428e-07,0,76744,76744
1671.66,1.04901e-06,0,76704,76704
1681.12,1.11964e-06,0,76790,76790
1690.58,1.19455e-06,0,76848,76848
1700.04,1.27394e-06,0,77194,77194
1711.86,1.37988e-06,0,77724,77724
1721.32,1.4703e-06,0,77630,77630
1730.78,1.56606e-06,0,77872,77872
1740.24,1.66746e-06,0,77996,77996
1752.07,1.8026e-06,0,77972,77972
1761.53,1.91788e-06,0,78164,78164
1771.01,2.03989e-06,0,78392,78392
1780.49,2.16906e-06,0,78274,78274
1792.35,2.34095e-06,0,78472,78472
1801.84,2.48727e-06,0,78776,78776
1811.32,2.64184e-06,0,78628,78628
1820.81,2.80509e-06,0,78848,78848
1830.28,2.97722e-06,0,79252,79252
1842.12,3.20574e-06,0,79484,79484
1851.59,3.39978e-06,0,79564,79564
1861.04,3.60423e-06,0,79518,79518
1870.5,3.81974e-06,0,79634,79634
1882.31,4.10525e-06,0,79782,79782
1891.75,4.34733e-06,0,79940,79940
1901.2,4.60216e-06,0,80240,80240
1910.63,4.87018e-06,0,80476,80476
1920.06,5.152e-06,0,80534,80534
1931.83,5.52463e-06,0,80628,80628
1941.24,5.83993e-06,0,80672,80672
1950.65,6.17119e-06,0,80894,80894
1960.06,6.51908e-06,0,80934,80934
1971.81,6.97843e-06,0,81188,81188
1981.19,7.36625e-06,0,81212,81212
1990.58,7.77336e-06,0,81336,81336
2002.29,8.30937e-06,0,81766,81766
2011.65,8.76155e-06,0,81748,81748
2021.01,9.23576e-06,0,81646,81646
2030.35,9.73197e-06,0,81844,81844
2042.02,1.03855e-05,0,81800,81800
2051.34,1.0936e-05,0,81960,81960
2060.66,1.15118e-05,0,82126,82126
2072.28,1.22689e-05,0,82158,82158
2081.58,1.29064e-05,0,82160,82160
2090.87,1.35731e-05,0,82308,82308
2100.16,1.42702e-05,0,82734,82734
2111.77,1.51869e-05,0,82938,82938
2121.05,1.59581e-05,0,83138,83138
2130.34,1.67644e-05,0,83394,83394
2141.95,1.78238e-05,0,83334,83334
2151.23,1.87144e-05,0,83546,83546
2160.52,1.9645e-05,0,83642,83642
2172.11,2.0865e-05,0,83614,83614
2181.37,2.18893e-05,0,83430,83430
2190.64,2.29588e-05,0,83502,83502
2202.22,2.43607e-05,0,83736,83736
2211.48,2.55367e-05,0,83582,83582
2220.73,2.67637e-05,0,83638,83638
2232.3,2.8372e-05,0,83948,83948
2241.56,2.97207e-05,0,83932,83932
2250.82,3.11269e-05,0,84124,84124
2260.07,3.25927e-05,0,84126,84126
2271.64,3.45122e-05,0,84228,84228
2280.9,3.61203e-05,0,84360,84360
2290.15,3.77956e-05,0,84478,84478
2301.72,3.99879e-05,0,84942,84942
2310.98,4.1824e-05,0,85062,85062
2320.24,4.37374e-05,0,85234,85234
2331.84,4.62425e-05,0,85716,85716
2341.12,4.83397e-05,0,85712,85712
2350.38,5.05172e-05,0,85674,85674
2361.94,5.33602e-05,0,85836,85836
2371.16,5.57283e-05,0,86136,86136
2380.38,5.81899e-05,0,86218,86218
2391.9,6.14023e-05,0,86182,86182
2401.12,6.40849e-05,0,86178,86178
2410.32,6.68666e-05,0,86370,86370
2421.83,7.04935e-05,0,86438,86438
2431.03,7.35187e-05,0,86826,86826
2440.23,7.66572e-05,0,86876,86876
2451.73,8.07445e-05,0,86892,86892
2460.94,8.41496e-05,0,87108,87108
2470.14,8.76785e-05,0,87376,87376
2481.64,9.22687e-05,0,87564,87564
2490.84,9.60882e-05,0,87580,87580
2500.05,0.000100043,0,87672,87672
2511.55,0.000105182,0,87852,87852
2520.76,0.000109454,0,87836,87836
2532.27,0.000115,0,87960,87960
2541.47,0.000119605,0,88264,88264
2550.68,0.000124365,0,88312,88312
2562.18,0.00013054,0,88650,88650
2571.39,0.000135668,0,88914,88914
2580.61,0.000140972,0,89036,89036
2592.13,0.00014786,0,89292,89292
2601.35,0.000153582,0,89374,89374
2610.58,0.000159503,0,89470,89470
2622.13,0.000167191,0,89494,89494
2631.36,0.000173576,0,89862,89862
2640.61,0.000180185,0,90032,90032
2652.17,0.000188765,0,89910,89910
2661.42,0.000195885,0,90094,90094
2670.64,0.00020322,0,90240,90240
2682.16,0.000212728,0,90238,90238
2691.36,0.000220607,0,90258,90258
2700.57,0.000228737,0,90268,90268
2712.07,0.000239268,0,90346,90346
2721.27,0.000247996,0,90318,90318
2730.47,0.000257001,0,90328,90328
2741.97,0.000268656,0,90338,90338
2751.17,0.000278308,0,90332,90332
2760.37,0.000288257,0,90372,90372
2771.86,0.000301119,0,90546,90546
2781.07,0.000311768,0,90462,90462
2790.27,0.000322738,0,90512,90512
2801.77,0.000336915,0,90592,90592
2810.97,0.000348638,0,90786,90786
2820.17,0.00036071,0,90882,90882
2831.67,0.0003763,0,91024,91024
2840.87,0.000389184,0,90914,90914
2850.07,0.000402445,0,91078,91078
2861.57,0.000419567,0,91316,91316
2870.76,0.000433711,0,91412,91412
2882.26,0.000451971,0,91620,91620
2891.46,0.000467056,0,91638,91638
2900.66,0.000482576,0,91644,91644
2912.15,0.000502609,0,91731,91731
2921.35,0.000519156,0,91781,91781
2930.55,0.000536185,0,91727,91727
2942.07,0.000558206,0,92033,92033
2951.28,0.000576441,0,92161,92161
2960.5,0.000595202,0,92157,92157
2972.03,0.000619373,0,92317,92317
2981.26,0.000639256,0,92217,92217
2990.48,0.000659573,0,92447,92447
3002,0.000685496,0,92573,92573
3011.22,0.00070664,0,92895,92895
3020.42,0.000728094,0,92909,92909
3031.93,0.000755362,0,93093,93093
3041.12,0.000777512,0,93121,93121
3050.31,0.000799965,0,93007,93007
3061.8,0.000828475,0,93038,93038
3070.99,0.000851647,0,93206,93206
3080.18,0.000875154,0,93398,93398
3091.67,0.000905034,0,93598,93598
3100.86,0.000929357,0,93680,93680
3110.05,0.000954078,0,93640,93640
3121.53,0.000985578,0,93634,93634
3130.73,0.0010113,0,93755,93755
3142.23,0.00104419,0,93625,93625
3151.44,0.00107112,0,93967,93967
3160.65,0.00109863,0,94191,94191
3172.18,0.00113394,0,94223,94223
3181.43,0.00116302,0,94155,94155
3190.69,0.00119284,0,94307,94307
3202.28,0.00123125,0,94225,94225
3211.56,0.00126288,0,94125,94125
3220.83,0.00129538,0,94433,94433
3230.11,0.00132877,0,94641,94641
3241.71,0.00137369,0,94505,94505
3250.98,0.00141168,0,94529,94529
3260.26,0.00145066,0,94617,94617
3271.86,0.00150084,0,94603,94603
3281.13,0.0015422,0,94607,94607
3290.41,0.0015847,0,94585,94585
3302.01,0.00163938,0,94815,94815
3311.29,0.00168401,0,94603,94603
3320.57,0.00172927,0,94805,94805
3332.17,0.0017866,0,94877,94877
3341.45,0.00183302,0,94990,94990
3350.73,0.00187997,0,95284,95284
3360.01,0.00192749,0,95244,95244
3371.6,0.00198783,0,95262,95262
3380.88,0.002037,0,95284,95284
3390.16,0.00208711,0,95462,95462
3401.76,0.0021513,0,95474,95474
3411.04,0.00220411,0,95484,95484
3420.32,0.00225839,0,95724,95724
3431.92,0.0023286,0,95856,95856
3441.21,0.00238695,0,95764,95764
3450.51,0.00244741,0,95848,95848
3462.14,0.00252616,0,96080,96080
3471.44,0.0025919,0,96028,96028
3480.74,0.0026603,0,96117,96117
3490.04,0.00273142,0,96169,96169
3501.67,0.00282404,0,96445,96445
3510.97,0.00290106,0,96481,96481
3520.27,0.00298041,0,96536,96536
3531.89,0.00308262,0,96809,96809
3541.19,0.00316672,0,96783,96783
3550.49,0.00325288,0,97015,97015
3562.12,0.00336359,0,97001,97001
3571.42,0.00345471,0,96926,96926
3580.73,0.00354828,0,97052,97052
3590.03,0.0036445,0,97346,97346
3601.66,0.00376885,0,97368,97368
3610.97,0.00387191,0,97208,97208
3620.27,0.00397794,0,97156,97156
3631.9,0.00426709,0,97250,97250
3641.21,0.00449353,0,97172,97172
3650.52,0.00472102,0,97236,97236
3662.16,0.00501239,0,97594,97594
3671.47,0.00524254,0,97926,97926
3680.79,0.00547198,0,97860,97860
3690.1,0.00570237,0,98142,98142
3701.74,0.0059941,0,98392,98392
3711.06,0.00623224,0,98174,98174
3720.37,0.00647603,0,98292,98292
3732.01,0.00679045,0,98298,98298
3741.32,0.00705098,0,98284,98284
3750.64,0.0073195,0,97988,97988
3762.28,0.00765844,0,98033,98033
3771.59,0.00793139,0,98155,98155
3780.91,0.00820733,0,98125,98125
3790.23,0.00848823,0,98241,98241
3801.88,0.00884846,0,98347,98347
3811.21,0.00913593,0,98193,98193
3820.53,0.00942689,0,98161,98161
3832.18,0.00980469,0,98485,98485
3841.5,0.0101233,0,98407,98407
3850.82,0.0104599,0,98381,98381
3860.15,0.0109111,0,98487,98487
3871.8,0.01182,0,98633,98633
3881.12,0.0125184,0,98709,98709
3890.45,0.0132045,0,98669,98669
3902.1,0.0140526,0,98557,98557
3911.43,0.0147238,0,98416,98416
3920.75,0.0153919,0,98676,98676
3930.08,0.0160628,0,98746,98746
3941.73,0.0169164,0,98832,98832
3951.06,0.0176207,0,99028,99028
3960.38,0.0183526,0,99246,99246
3972.04,0.0193474,0,99280,99280
3981.36,0.020173,0,99252,99252
3990.69,0.0210279,0,99444,99444
4000.01,0.0219289,0,99384,99384
4011.67,0.0231354,0,99158,99158
4020.99,0.0241721,0,99256,99256
4030.32,0.0252767,0,99226,99226
4041.99,0.0267107,0,99436,99436
4051.33,0.0278678,0,99748,99748
4060.66,0.0290249,0,99732,99732
4070.01,0.0302021,0,99631,99631
4081.68,0.031806,0,99597,99597
4091.02,0.034561,0,99726,99726
4100.37,0.0371173,0,99644,99644
4112.06,0.0402841,0,99610,99610
4121.41,0.0428618,0,99660,99660
4130.77,0.0454919,0,99760,99760
4140.13,0.0481778,0,99920,99920
4151.83,0.0516263,0,100040,100040
4161.2,0.0544802,0,99914,99914
4170.57,0.0573347,0,99912,99912
4182.3,0.060813,0,100314,100314
4191.68,0.0636254,0,100352,100352
4201.07,0.0665683,0,100180,100180
4210.47,0.0696518,0,100008,100008
4222.21,0.0740286,0,100104,100104
4231.58,0.0779645,0,100068,100068
4240.95,0.0823039,0,100030,100030
4250.31,0.0870636,0,100026,100026
4262.02,0.0956107,0,100297,100297
4271.39,0.103676,0,100328,100328
4280.75,0.111564,0,100434,100434
4290.12,0.119828,0,100374,100374
4301.83,0.130663,0,100244,100244
4311.19,0.139732,0,100354,100354
4320.56,0.149198,0,100522,100522
4332.26,0.161622,0,100442,100442
4341.6,0.172051,0,100284,100284
4350.94,0.182891,0,100076,100076
4360.26,0.19388,0,100132,100132
4371.9,0.208297,0,100268,100268
4381.22,0.220502,0,100084,100084
4390.53,0.232527,0,100180,100180
4402.17,0.248726,0,99924,99924
4411.48,0.265861,0,99886,99886
4420.8,0.27857,0,100084,100084
4430.11,0.300207,0,100008,100008
4441.76,0.335059,0,100000,100000
4451.07,0.360948,0,100038,100038
4460.39,0.385437,0,100132,100132
4472.05,0.41703,0,100091,100091
4481.39,0.443413,0,100031,100031
4490.73,0.470316,0,99850,99850
4500.06,0.497423,0,99847,99847
4511.74,0.530818,0,99937,99937
4521.02,0.556201,0,99983,99983
4530.32,0.580232,0,99819,99819
4541.93,0.608323,0,99957,99957
4551.2,0.629341,0,99953,99953
4560.48,0.649339,0,100075,100075
4572.07,0.67287,0,100075,100075
4581.34,0.690478,0,99965,99965
4590.62,0.706757,0,99889,99889
4602.21,0.724519,0,100091,100091
4611.49,0.736257,0,100178,100178
4620.84,0.750837,0,100086,100086
4630.12,0.754198,0,99956,99956
4641.73,0.757332,0,99836,99836
4651.04,0.758681,0,99937,99937
4660.33,0.757739,0,100001,100001
4671.96,0.756545,0,100322,100322
4681.29,0.753111,0,100423,100423
4690.61,0.751034,0,100239,100239
4702.26,0.747451,0,100137,100137
4711.6,0.743824,0,100319,100319
4720.95,0.73987,0,100423,100423
4730.35,0.73512,0,100353,100353
4742.09,0.727622,0,100379,100379
4751.5,0.720169,0,100552,100552
4760.95,0.707064,0,100422,100422
4770.39,0.694724,0,100438,100438
4782.19,0.676804,0,100492,100492
4791.63,0.657937,0,100474,100474
4801.06,0.644103,0,100552,100552
4810.48,0.62112,0,100832,100832
4822.25,0.576098,0,100978,100978
4831.66,0.538574,0,100700,100700
4841.06,0.501267,0,100738,100738
4850.47,0.463777,0,100795,100795
4862.22,0.413999,0,100731,100731
4871.63,0.37327,0,100496,100496
4881.04,0.331754,0,100580,100580
4890.46,0.289636,0,100642,100642
4902.25,0.238286,0,100310,100310
4911.69,0.198571,0,100274,100274
4921.14,0.159764,0,100459,100459
4930.62,0.121447,0,100568,100568
4940.11,0.0835649,0,100706,100706
4951.91,0.03702,0,100606,100606
4961.33,0.00042595,0,100650,100650
4970.74,-0.035267,0,100552,100552
4980.09,-0.0695703,0,100651,100651
4991.78,-0.110305,0,100621,100621
5001.13,-0.140928,0,100911,100911
5010.49,-0.169804,0,100809,100809
5022.22,-0.203744,0,100408,100408
5031.63,-0.229463,0,100413,100413
5041.04,-0.253994,0,100564,100564
5050.45,-0.277369,0,100337,100337
5062.31,-0.304971,0,100561,100561
5071.79,-0.324768,0,100319,100319
5081.29,-0.343275,0,100389,100389
5090.8,-0.359898,0,100357,100357
5100.3,-0.374896,0,100223,100223
5112.16,-0.391654,0,99969,99969
5121.65,-0.403223,0,100181,100181
5131.14,-0.41721,0,100254,100254
5140.63,-0.422485,0,100214,100214
5150.12,-0.427751,0,100225,100225
5161.98,-0.431459,0,100119,100119
5171.47,-0.432059,0,100203,100203
5180.95,-0.433108,0,99905,99905
5190.45,-0.43223,0,99853,99853
5202.32,-0.43299,0,99865,99865
5211.83,-0.433006,0,99670,99670
5221.34,-0.432736,0,99640,99640
5230.85,-0.432137,0,99806,99806
5240.34,-0.431251,0,100125,100125
5252.21,-0.429661,0,99833,99833
5261.68,-0.428121,0,99898,99898
5271.14,-0.426462,0,99917,99917
5280.6,-0.424619,0,99859,99859
5290.05,-0.422568,0,99756,99756
5301.85,-0.419697,0,99686,99686
5311.29,-0.417241,0,99686,99686
5320.71,-0.414717,0,99596,99596
5330.13,-0.412059,0,99586,99586
5341.9,-0.408408,0,99385,99385
5351.32,-0.404981,0,99251,99251
5360.75,-0.40129,0,99096,99096
5370.17,-0.39723,0,99224,99224
5381.95,-0.391588,0,99426,99426
5391.39,-0.386599,0,99183,99183
5400.83,-0.377846,0,99104,99104
5410.29,-0.370139,0,98866,98866
5422.14,-0.36085,0,98702,98702
5431.64,-0.352936,0,98634,98634
5441.15,-0.344607,0,98485,98485
5450.69,-0.335974,0,98584,98584
5460.24,-0.327131,0,98566,98566
5472.19,-0.3159,0,98130,98130
5481.74,-0.306833,0,98170,98170
5491.3,-0.297728,0,98129,98129
5500.87,-0.28862,0,98015,98015
5510.44,-0.279617,0,97825,97825
5520.02,-0.270686,0,97886,97886
5532,-0.259552,0,97942,97942
5541.59,-0.250685,0,97877,97877
5551.2,-0.241904,0,97510,97510
5560.8,-0.233269,0,97821,97821
5570.41,-0.224837,0,97605,97605
5580.03,-0.216641,0,97653,97653
5592.06,-0.206796,0,97395,97395
5601.69,-0.199269,0,97480,97480
5611.31,-0.19207,0,97268,97268
5620.93,-0.185198,0,97108,97108
5630.56,-0.178644,0,97096,97096
5640.18,-0.172412,0,96980,96980
5652.21,-0.165047,0,96864,96864
5661.83,-0.159494,0,96717,96717
5671.45,-0.154229,0,96896,96896
5681.07,-0.149219,0,96814,96814
5690.69,-0.14444,0,96758,96758
5700.3,-0.139855,0,96729,96729
5712.33,-0.134263,0,96662,96662
5721.94,-0.13,0,96505,96505
5731.56,-0.125954,0,96431,96431
5741.17,-0.122106,0,96468,96468
5750.77,-0.118437,0,96353,96353
5760.38,-0.114941,0,96296,96296
5772.37,-0.110727,0,96346,96346
5781.96,-0.107678,0,96253,96253
5791.55,-0.104954,0,96065,96065
5801.15,-0.104772,0,95820,95820
5810.75,-0.102612,0,95881,95881
5820.33,-0.0998417,0,95812,95812
5832.3,-0.0971758,0,95605,95605
5841.94,-0.095928,0,95325,95325
5851.57,-0.0946192,0,95366,95366
5861.21,-0.0934049,0,95449,95449
5870.87,-0.0927147,0,95407,95407
5880.53,-0.0919625,0,95230,95230
5890.2,-0.0911825,0,94951,94951
5902.29,-0.0902063,0,95037,95037
5911.95,-0.0918748,0,94915,94915
5921.62,-0.0914094,0,94704,94704
5931.28,-0.0910002,0,94729,94729
5940.95,-0.090659,0,94630,94630
5950.62,-0.0900609,0,94624,94624
5960.26,-0.0896906,0,94441,94441
5972.3,-0.0894211,0,94330,94330
5981.93,-0.089314,0,94088,94088
5991.57,-0.0893098,0,93913,93913
6001.2,-0.0894112,0,93848,93848
6010.85,-0.0890533,0,93757,93757
6020.5,-0.0893305,0,93754,93754
6030.14,-0.0895958,0,93530,93530
6042.19,-0.0897822,0,93700,93700
6051.84,-0.0898456,0,93555,93555
6061.48,-0.0900416,0,93477,93477
6071.12,-0.0901602,0,93309,93309
6080.76,-0.0901545,0,92974,92974
6090.41,-0.0900688,0,92846,92846
6100.05,-0.0899332,0,92756,92756
6112.11,-0.0897236,0,92938,92938
6121.76,-0.0895387,0,92888,92888
6131.45,-0.0893449,0,92524,92524
6141.15,-0.0891454,0,92477,92477
6150.87,-0.0889405,0,92235,92235
6160.59,-0.088721,0,92130,92130
6170.3,-0.0884627,0,91926,91926
6180.01,-0.0881743,0,91926,91926
6192.14,-0.0877796,0,91794,91794
6201.85,-0.0874352,0,91641,91641
6211.57,-0.0870546,0,91509,91509
6221.29,-0.0866307,0,91379,91379
6231.01,-0.0861605,0,91470,91470
6240.73,-0.0856412,0,91434,91434
6250.45,-0.085198,0,91266,91266
6260.17,-0.0847925,0,91406,91406
6272.3,-0.0836664,0,91279,91279
6282.01,-0.0829499,0,91262,91262
6291.69,-0.0823085,0,91180,91180
6301.38,-0.0814883,0,91053,91053
6311.05,-0.0804901,0,90809,90809
6320.72,-0.0793968,0,90675,90675
6330.39,-0.0782602,0,90700,90700
6342.39,-0.0768257,0,90520,90520
6351.99,-0.0756606,0,90188,90188
6361.6,-0.0744707,0,90062,90062
6371.22,-0.0732488,0,90042,90042
6380.83,-0.0719889,0,90101,90101
6390.46,-0.0706942,0,89909,89909
6400.11,-0.0693869,0,89983,89983
6412.17,-0.0677366,0,89737,89737
6421.82,-0.0663799,0,89829,89829
6431.5,-0.064961,0,89907,89907
6441.18,-0.0634622,0,89932,89932
6450.82,-0.0618746,0,89663,89663
6460.44,-0.0601887,0,89573,89573
6470.14,-0.0583922,0,89725,89725
6482.27,-0.0560143,0,89633,89633
6491.98,-0.0540225,0,89525,89525
6501.69,-0.0519649,0,89513,89513
6511.44,-0.0498453,0,89546,89546
6521.2,-0.0476825,0,89347,89347
6531.08,-0.0454668,0,89214,89214
6540.8,-0.0433501,0,89112,89112
6550.35,-0.0413175,0,89110,89110
6562.29,-0.0387652,0,88857,88857
6571.85,-0.0366866,0,88744,88744
6581.71,-0.0345006,0,88730,88730
6591.55,-0.0322896,0,88640,88640
6601.43,-0.0300531,0,88366,88366
6611.28,-0.0278234,0,88435,88435
6621.1,-0.0256143,0,88562,88562
6630.9,-0.0234433,0,88514,88514
6640.65,-0.0213258,0,88571,88571
6650.38,-0.019265,0,88788,88788
6660.08,-0.0172698,0,88786,88786
6672.22,-0.0148714,0,88823,88823
6681.91,-0.0130348,0,88992,88992
6691.6,-0.0112747,0,88777,88777
6701.29,-0.00959219,0,88593,88593
6710.96,-0.00798807,0,88667,88667
6720.63,-0.00646235,0,88778,88778
6730.3,-0.00501368,0,88711,88711
6742.38,-0.00331143,0,88661,88661
6752.03,-0.00203656,0,88780,88780
6761.67,-0.000837092,0,88831,88831
6771.29,0.000284782,0,88727,88727
6780.9,0.00133267,0,88488,88488
6790.51,0.00230902,0,88555,88555
6800.11,0.00321136,0,88488,88488
6812.11,0.00425128,0,88608,88608
6821.72,0.00367757,0,88873,88873
6831.32,0.00411157,0,89229,89229
6840.92,0.00445558,0,89177,89177
6850.52,0.00474314,0,89026,89026
6860.13,0.00500065,0,88816,88816
6872.13,0.00443605,0,89134,89134
6881.73,0.00470163,0,88915,88915
6891.34,0.00497572,0,88936,88936
6900.95,0.00514342,0,88971,88971
6910.56,0.00530968,0,89079,89079
6920.16,0.00546022,0,88921,88921
6932.18,0.00561654,0,88693,88693
6941.81,0.00571503,0,88596,88596
6951.43,0.0058016,0,88719,88719
6961.06,0.00189985,0,88708,88708
6970.7,0.00188086,0,88301,88301
6980.36,0.00186419,0,88305,88305
6990.02,0.00192156,0,88508,88508
7002.1,0.0020443,0,88474,88474
7011.78,0.00210495,0,88367,88367
7021.46,0.000473635,0,88401,88401
7031.13,0.00051401,0,88382,88382
7040.79,0.0005255,0,88234,88234
7050.43,0.000511633,0,88082,88082
7060.05,0.00047619,0,88024,88024
7072.06,0.000407295,0,87918,87918
7081.63,0.00033744,0,87871,87871
7091.19,0.00025816,0,87780,87780
7100.72,0.000172594,0,87716,87716
7110.26,8.31156e-05,0,87698,87698
7122.18,-3.09314e-05,0,87640,87640
7131.72,-0.000121702,0,87697,87697
7141.25,-0.000210395,0,87740,87740
7150.79,-0.000295715,0,87988,87988
7160.33,-0.00037654,0,88001,88001
7172.25,-0.00046976,0,87718,87718
7181.78,-0.00053701,0,87698,87698
7191.32,-0.000596856,0,87702,87702
7200.86,-0.000648507,0,87505,87505
7210.39,-0.000691183,0,87391,87391
7222.32,-0.000730674,0,87660,87660
7231.87,-0.000750192,0,87740,87740
7241.43,-0.000757989,0,87527,87527
7250.99,-0.000753109,0,87351,87351
7260.54,-0.000734567,0,87331,87331
7270.09,-0.000701325,0,87597,87597
7282.03,-0.000637499,0,87479,87479
7291.56,-0.000567471,0,87338,87338
7301.09,-0.000479329,0,87273,87273
7310.62,-0.000372061,0,87355,87355
7320.14,-0.000245038,0,87344,87344
7332.02,-5.72579e-05,0,87446,87446
7341.49,0.000117373,0,87489,87489
7350.96,0.000315577,0,87318,87318
7360.43,0.00058056,0,87339,87339
7372.28,0.00105856,0,87248,87248
7381.75,0.00142534,0,87267,87267
7391.22,0.00178627,0,87026,87026
7400.67,0.00214807,0,87168,87168
7410.13,0.00251711,0,87050,87050
7421.95,0.00299648,0,87022,87022
7431.41,0.00340002,0,86996,86996
7440.9,0.00382598,0,87000,87000
7450.38,0.00427676,0,86923,86923
7462.24,0.00558139,0,86685,86685
7471.74,0.00674978,0,86563,86563
7481.24,0.0078549,0,86775,86775
7490.75,0.0088785,0,86810,86810
7500.28,0.00982263,0,86666,86666
7512.22,0.0109112,0,86884,86884
7521.77,0.0117269,0,86934,86934
7531.33,0.0125107,0,86822,86822
7540.9,0.0132757,0,86547,86547
7550.47,0.0140324,0,86695,86695
7560.03,0.0147895,0,86789,86789
7571.99,0.0157439,0,86715,86715
7581.56,0.0165163,0,86572,86572
7591.12,0.017294,0,86413,86413
7600.68,0.0180802,0,86501,86501
7610.24,0.0188777,0,86467,86467
7622.18,0.0198958,0,86580,86580
7631.74,0.0207314,0,86496,86496
7641.29,0.0215886,0,86410,86410
7650.84,0.022471,0,86278,86278
7660.37,0.0233805,0,86172,86172
7672.28,0.0245599,0,86204,86204
7681.81,0.0255361,0,85888,85888
7691.32,0.0265058,0,86005,86005
7700.82,0.0274905,0,86284,86284
7710.3,0.0285004,0,86164,86164
7722.15,0.0298089,0,86097,86097
7731.63,0.0308982,0,85925,85925
7741.09,0.0320238,0,85883,85883
7750.54,0.0331855,0,85929,85929
7762.35,0.0346863,0,86073,86073
7771.78,0.0359208,0,86113,86113
7781.21,0.0371823,0,86137,86137
7790.63,0.0384686,0,86175,86175
7800.05,0.039775,0,86192,86192
7811.81,0.0414296,0,86018,86018
7821.22,0.0427665,0,86100,86100
7830.62,0.0441087,0,86048,86048
7840.01,0.045451,0,85734,85734
7851.74,0.0471229,0,85760,85760
7861.11,0.0484491,0,85498,85498
7870.48,0.0497606,0,85493,85493
7882.19,0.0513731,0,85407,85407
7891.53,0.0526344,0,85726,85726
7900.85,0.0538661,0,85591,85591
7910.16,0.0550668,0,85564,85564
7921.77,0.0565171,0,85490,85490
7931.05,0.0576376,0,85448,85448
7940.3,0.0587168,0,85248,85248
7951.82,0.0600053,0,84973,84973
7961.02,0.0609896,0,84957,84957
7970.22,0.0619323,0,84955,84955
7981.64,0.063043,0,85128,85128
7990.76,0.0638817,0,85356,85356
8002.17,0.0648676,0,85206,85206
8011.28,0.0656055,0,84951,84951
8020.4,0.0662982,0,84915,84915
8031.79,0.0671014,0,84973,84973
8040.9,0.0676938,0,85053,85053
8050.02,0.0682421,0,84899,84899
8061.41,0.068866,0,84693,84693
8070.53,0.0693143,0,84475,84475
8081.92,0.0697965,0,84331,84331
8091.06,0.0700249,0,84186,84186
8100.21,0.0703247,0,84060,84060
8111.66,0.0707083,0,84100,84100
8120.81,0.0709185,0,84268,84268
8132.26,0.0710632,0,83882,83882
8141.42,0.0710679,0,83866,83866
8150.58,0.071026,0,83748,83748
8162.03,0.0692898,0,83771,83771
8171.19,0.0692064,0,83732,83732
8180.36,0.0690873,0,83829,83829
8191.84,0.0688936,0,83844,83844
8201.04,0.0687062,0,83690,83690
8210.24,0.0684932,0,83552,83552
8221.75,0.0681932,0,83284,83284
8230.97,0.0679279,0,83311,83311
8240.19,0.0676427,0,83186,83186
8251.72,0.0672611,0,83312,83312
8260.93,0.0669375,0,83192,83192
8270.15,0.0665992,0,82887,82887
8281.67,0.0661572,0,82915,82915
8290.88,0.0657893,0,82806,82806
8300.1,0.0654173,0,82601,82601
8311.64,0.064952,0,82507,82507
8320.88,0.0645754,0,82515,82515
8330.13,0.0641934,0,82348,82348
8341.69,0.0637114,0,82327,82327
8350.93,0.0633196,0,82264,82264
8360.16,0.0629198,0,82100,82100
8371.7,0.0624051,0,81963,81963
8380.93,0.0619794,0,82004,82004
8390.16,0.0615399,0,81892,81892
8401.7,0.0609694,0,81725,81725
8410.93,0.0604984,0,81535,81535
8420.16,0.0600776,0,81461,81461
8431.7,0.0595465,0,81376,81376
8440.93,0.0590569,0,81300,81300
8450.17,0.0585158,0,81230,81230
8461.7,0.0577742,0,81191,81191
8470.93,0.0571338,0,81173,81173
8480.16,0.0564557,0,81307,81307
8491.69,0.0555623,0,81276,81276
8500.91,0.0548194,0,81119,81119
8510.12,0.0540574,0,81053,81053
8521.65,0.0530819,0,81050,81050
8530.87,0.0522842,0,80906,80906
8540.09,0.0514715,0,80938,80938
8551.62,0.0504337,0,80790,80790
8560.85,0.0495861,0,80824,80824
8570.08,0.048724,0,80728,80728
8581.62,0.0476325,0,80658,80658
8590.86,0.0467509,0,80375,80375
8600.11,0.0458639,0,80379,80379
8611.66,0.0449055,0,80400,80400
8620.9,0.0441471,0,80366,80366
8630.15,0.0433244,0,80265,80265
8641.7,0.042232,0,80102,80102
8650.94,0.0413211,0,80226,80226
8660.17,0.0403861,0,80093,80093
8671.75,0.0391891,0,79976,79976
8681.07,0.0382103,0,79965,79965
8690.39,0.0372212,0,79838,79838
8702.04,0.0359741,0,79720,79720
8711.37,0.0349702,0,79667,79667
8720.69,0.0339629,0,79655,79655
8730.02,0.0329538,0,79420,79420
8741.68,0.031691,0,79245,79245
8751.01,0.0306629,0,79168,79168
8760.34,0.0296186,0,79200,79200
8772,0.0283008,0,79183,79183
8781.33,0.0272426,0,79301,79301
8790.66,0.026186,0,79225,79225
8802.32,0.0248722,0,79219,79219
8811.66,0.0238287,0,79186,79186
8820.99,0.0227924,0,79065,79065
8830.31,0.0217626,0,78908,78908
8841.96,0.0204817,0,78944,78944
8851.28,0.019471,0,78899,78899
8860.59,0.0184964,0,78780,78780
8872.23,0.0172745,0,78708,78708
8881.54,0.0162771,0,78414,78414
8890.85,0.0152582,0,78331,78331
8900.16,0.0142178,0,78284,78284
8911.8,0.0128896,0,78099,78099
8921.1,0.0118084,0,77976,77976
8930.4,0.0107129,0,78063,78063
8942.06,0.00932358,0,77867,77867
8951.39,0.00820173,0,77813,77813
8960.71,0.00707287,0,77856,77856
8970.05,0.00593746,0,77912,77912
8981.73,0.00451167,0,78038,78038
8991.07,0.00336755,0,77978,77978
9000.43,0.00221926,0,77727,77727
9012.13,0.000779358,0,77702,77702
9021.5,-0.000374898,0,77601,77601
9030.86,-0.00153112,0,77594,77594
9040.22,-0.00268847,0,77831,77831
9051.91,-0.00413617,0,77690,77690
9061.26,-0.00529576,0,77748,77748
9070.61,-0.00645623,0,77685,77685
9082.3,-0.00790741,0,77573,77573
9091.66,-0.00906933,0,77484,77484
9101.02,-0.0102307,0,77345,77345
9110.38,-0.0113911,0,77300,77300
9122.08,-0.0128401,0,77014,77014
9131.45,-0.0139985,0,76770,76770
9140.85,-0.0151594,0,76652,76652
9150.29,-0.0163222,0,76536,76536
9162.08,-0.0177727,0,76664,76664
9171.51,-0.0189305,0,76657,76657
9180.94,-0.0200855,0,76685,76685
9190.37,-0.0212373,0,76722,76722
9202.16,-0.0226721,0,76805,76805
9211.58,-0.023815,0,76703,76703
9221.01,-0.024953,0,76575,76575
9230.44,-0.0260855,0,76455,76455
9242.22,-0.0274926,0,76549,76549
9251.65,-0.0286108,0,76740,76740
9261.08,-0.0297216,0,76540,76540
9270.51,-0.0308247,0,76632,76632
9282.29,-0.0321918,0,76677,76677
9291.72,-0.0332758,0,76684,76684
9301.14,-0.0343508,0,76744,76744
9310.57,-0.0354165,0,76616,76616
9322.36,-0.0367352,0,76396,76396
9331.79,-0.0377794,0,76554,76554
9341.22,-0.0388142,0,76970,76970
9350.66,-0.0398389,0,77010,77010
9360.1,-0.0408535,0,77058,77058
9371.9,-0.0421073,0,76902,76902
9381.35,-0.0430981,0,76819,76819
9390.8,-0.0440782,0,76697,76697
9400.26,-0.0450473,0,76666,76666
9412.09,-0.0462424,0,76424,76424
9421.56,-0.0471849,0,76253,76253
9431.03,-0.0481155,0,76264,76264
9440.51,-0.0490327,0,76257,76257
9452.36,-0.0501599,0,76152,76152
9461.85,-0.0510459,0,76173,76173
9471.34,-0.0519165,0,76129,76129
9480.83,-0.0527709,0,76046,76046
9490.33,-0.0536083,0,76132,76132
9502.19,-0.0546302,0,76094,76094
9511.68,-0.0554272,0,76066,76066
9521.18,-0.0562052,0,75997,75997
9530.67,-0.0569641,0,75837,75837
9540.16,-0.0577031,0,75585,75585
9552.03,-0.0587068,0,75387,75387
9561.52,-0.0594746,0,75315,75315
9571,-0.0601674,0,75143,75143
9580.48,-0.0608049,0,74997,74997
9592.32,-0.0615433,0,74811,74811
9601.79,-0.0620972,0,74723,74723
9611.25,-0.0626418,0,74590,74590
9620.72,-0.063192,0,74532,74532
9630.18,-0.0637282,0,74674,74674
9642.01,-0.0643615,0,74762,74762
9651.46,-0.0648307,0,74730,74730
9660.92,-0.0652632,0,74486,74486
9670.37,-0.0656573,0,74451,74451
9682.18,-0.0657969,0,74369,74369
9691.63,-0.0662549,0,74215,74215
9701.07,-0.0666139,0,74105,74105
9710.5,-0.0668931,0,74128,74128
9722.3,-0.0671528,0,74239,74239
9731.74,-0.0673028,0,74208,74208
9741.16,-0.0674099,0,74121,74121
9750.58,-0.06748,0,74039,74039
9760,-0.0674529,0,73929,73929
9771.78,-0.0673346,0,73976,73976
9781.2,-0.0672417,0,73972,73972
9790.62,-0.0671476,0,73746,73746
9800.05,-0.0670499,0,73679,73679
9811.82,-0.0669193,0,73680,73680
9821.25,-0.0668054,0,73670,73670
9830.67,-0.06668,0,73573,73573
9840.09,-0.0665254,0,73381,73381
9851.9,-0.0662689,0,73157,73157
9861.35,-0.0660279,0,73115,73115
9870.82,-0.0657646,0,73127,73127
9880.3,-0.0654846,0,73128,73128
9892.16,-0.0651165,0,73147,73147
9901.65,-0.0648097,0,73185,73185
9911.15,-0.0644929,0,73036,73036
9920.65,-0.0641667,0,72850,72850
9930.15,-0.0638309,0,72647,72647
9942.03,-0.0634084,0,72598,72598
9951.52,-0.0630768,0,72488,72488
9961.02,-0.062745,0,72632,72632
9970.53,-0.062408,0,72287,72287
9980.03,-0.062062,0,72399,72399
9991.9,-0.0616124,0,72234,72234
10001.4,-0.0612382,0,72049,72049
10010.9,-0.0608512,0,72069,72069
10020.4,-0.0604519,0,71922,71922
10032.3,-0.0599339,0,71812,71812
10041.9,-0.0595024,0,71811,71811
10051.4,-0.0590545,0,71851,71851
10060.9,-0.058589,0,71578,71578
10070.4,-0.0581047,0,71334,71334
10082.3,-0.057472,0,71252,71252
10091.9,-0.0569427,0,71267,71267
10101.4,-0.0563925,0,71157,71157
10111,-0.055823,0,71083,71083
10120.6,-0.0552342,0,71060,71060
10130.2,-0.054629,0,71008,71008
10142.2,-0.0538553,0,70884,70884
10151.8,-0.0532247,0,70686,70686
10161.3,-0.0525831,0,70324,70324
10170.9,-0.05193,0,70104,70104
10180.5,-0.0512655,0,70187,70187
10190.1,-0.0505881,0,70376,70376
10202,-0.0497233,0,70230,70230
10211.6,-0.0490176,0,69941,69941
10221.2,-0.0483005,0,69846,69846
10230.7,-0.0475728,0,69734,69734
10240.3,-0.046835,0,69591,69591
10252.3,-0.0459001,0,69418,69418
10261.8,-0.0451434,0,69182,69182
10271.4,-0.04438,0,69163,69163
10280.9,-0.0436114,0,69009,69009
10290.5,-0.0428393,0,68802,68802
10300,-0.0420636,0,68822,68822
10311.9,-0.0410903,0,68741,68741
10321.4,-0.0403155,0,68655,68655
10330.9,-0.0395414,0,68513,68513
10340.4,-0.0387683,0,68306,68306
10352.2,-0.0378098,0,67820,67820
10361.6,-0.0370467,0,67775,67775
10371,-0.0362852,0,67704,67704
10380.4,-0.0355256,0,67469,67469
10392.1,-0.0345795,0,67249,67249
10401.5,-0.033825,0,67318,67318
10410.9,-0.0330726,0,67375,67375
10420.3,-0.0323236,0,67524,67524
10432,-0.031392,0,67840,67840
10441.4,-0.0306501,0,67624,67624
10450.8,-0.0299116,0,67284,67284
10460.2,-0.0291766,0,67291,67291
10471.9,-0.0282632,0,67339,67339
10481.2,-0.027537,0,67300,67300
10490.6,-0.0268145,0,67290,67290
10500,-0.0260954,0,67437,67437
10511.8,-0.0252037,0,67293,67293
10521.2,-0.0244957,0,67121,67121
10530.6,-0.0237888,0,67145,67145
10540.1,-0.0230821,0,67042,67042
10551.9,-0.0222143,0,66981,66981
10561.4,-0.021523,0,66952,66952
10571,-0.0208306,0,66925,66925
10580.5,-0.0201444,0,66873,66873
10590.1,-0.0194698,0,66794,66794
10601.9,-0.018642,0,66670,66670
10611.3,-0.0179873,0,66636,66636
10620.7,-0.0173394,0,66496,66496
10630.2,-0.0166984,0,66342,66342
10642,-0.0159072,0,66215,66215
10651.4,-0.0152816,0,66041,66041
10660.9,-0.0146626,0,66074,66074
10670.4,-0.0140499,0,66026,66026
10682.2,-0.0132935,0,65838,65838
10691.7,-0.0126959,0,65742,65742
10701.2,-0.0121059,0,65533,65533
10710.7,-0.0115234,0,65517,65517
10720.2,-0.0109486,0,65576,65576
10732.1,-0.0102417,0,65413,65413
10741.6,-0.00968439,0,65415,65415
10751.1,-0.00913452,0,65182,65182
10760.6,-0.00859227,0,65140,65140
10770.1,-0.00805724,0,65206,65206
10782,-0.00739884,0,65193,65193
10791.5,-0.00687902,0,65026,65026
10801,-0.00636667,0,65039,65039
10810.6,-0.0058607,0,65141,65141
10820.1,-0.0053618,0,64922,64922
10832.1,-0.00474795,0,64882,64882
10841,-0.00429864,0,64766,64766
10852.3,-0.00373709,0,64695,64695
10861.9,-0.00326851,0,64652,64652
10870.8,-0.00283993,0,64714,64714
10880,-0.00240324,0,64752,64752
10890.3,-0.0019245,0,64499,64499
10903,-0.00134156,0,64386,64386
10912.2,-0.000925531,0,64456,64456
10921.5,-0.000516851,0,64070,64070
10930.7,-0.000113473,0,63934,63934
10942.8,0.000403654,0,63933,63933
10952.6,0.00081405,0,63979,63979
10961.4,0.00118045,0,64070,64070
10970.8,0.0015623,0,64339,64339
10982,0.00201204,0,64178,64178
10991.8,0.00239703,0,63978,63978
11001.5,0.00277598,0,63942,63942
11011.3,0.00314919,0,64019,64019
11021.1,0.00351673,0,63803,63803
11030.9,0.00387975,0,63603,63603
11040.7,0.00423829,0,63296,63296
11050.6,0.0045917,0,63149,63149
11060.5,0.00494122,0,63014,63014
11070.3,0.00528654,0,62876,62876
11080.3,0.00562825,0,62763,62763
11090.2,0.00596581,0,62532,62532
11100.1,0.00629974,0,62515,62515
11110.1,0.00663033,0,62515,62515
11120,0.00695761,0,62244,62244
11130,0.00728147,0,62166,62166
11143.3,0.00770847,0,62385,62385
11153.3,0.00802537,0,62250,62250
11163.2,0.00833967,0,62311,62311
11173.2,0.00865158,0,62210,62210
11183.2,0.00896135,0,61947,61947
11193.2,0.00926958,0,61874,61874
11203.2,0.00957683,0,61818,61818
11213.2,0.00988285,0,61673,61673
11223.2,0.0101876,0,61452,61452
11233.3,0.0104916,0,61479,61479
11243.3,0.0107946,0,61408,61408
11253.3,0.0110966,0,61212,61212
11260,0.0112975,0,61030,61030
11270.1,0.0115982,0,60899,60899
11280.1,0.0118984,0,60859,60859
11290.1,0.0121981,0,60851,60851
11300.2,0.0124969,0,60750,60750
11310.2,0.0127953,0,60695,60695
11320.2,0.013093,0,60752,60752
11330.2,0.0133903,0,60654,60654
11340.3,0.0136872,0,60769,60769
11350.3,0.0139836,0,60650,60650
11360.3,0.0142797,0,60660,60660
11370,0.0145668,0,60552,60552
11380,0.0148606,0,60522,60522
11393.3,0.0152515,0,60467,60467
11403.3,0.0155429,0,60399,60399
11410.5,0.0157556,0,60312,60312
11420,0.0160331,0,60383,60383
11431.7,0.0163723,0,60311,60311
11441.6,0.0166607,0,60152,60152
11451.6,0.0169485,0,60137,60137
11460.6,0.0172082,0,59898,59898
11470.1,0.017481,0,59834,59834
11482.4,0.0178331,0,59486,59486
11492.4,0.0181164,0,59407,59407
11502.3,0.018398,0,59358,59358
11512.3,0.0186779,0,59333,59333
11522.3,0.0189575,0,59355,59355
11532.4,0.0192361,0,59483,59483
11542.5,0.0195125,0,59495,59495
11552.5,0.0197869,0,59339,59339
11562.6,0.0200587,0,59033,59033
11572.6,0.0203281,0,58854,58854
11582.7,0.0205955,0,58808,58808
11592.6,0.02086,0,58779,58779
11602.5,0.0211207,0,58537,58537
11612.4,0.0213771,0,58517,58517
11622.2,0.0216281,0,58430,58430
11632.1,0.0218732,0,58510,58510
11641.9,0.0221136,0,58348,58348
11651.7,0.0223502,0,58288,58288
11661.5,0.0225836,0,58312,58312
11671.3,0.0228143,0,58440,58440
11681.1,0.0230423,0,58486,58486
11690.9,0.0232649,0,58471,58471
11700.7,0.0234821,0,58433,58433
11710.5,0.0236942,0,58237,58237
11720.4,0.023901,0,58046,58046
11730.2,0.0241631,0,58101,58101
11741.4,0.0245451,0,57932,57932
11750.8,0.0248103,0,57802,57802
11763,0.0251007,0,57752,57752
11772.9,0.0252979,0,57627,57627
11782.9,0.0254671,0,57639,57639
11792.8,0.0256124,0,57467,57467
11802.7,0.025737,0,57433,57433
11812.7,0.0250016,0,57458,57458
11822.6,0.0245367,0,57382,57382
11832.6,0.0245855,0,57372,57372
11842.6,0.0246277,0,57157,57157
11852.6,0.0246638,0,57099,57099
11862.5,0.024697,0,56975,56975
11872.5,0.0247278,0,56897,56897
11882.5,0.0247548,0,56938,56938
11892.6,0.0247772,0,56942,56942
11902.6,0.0247892,0,56904,56904
11912.6,0.0247897,0,56744,56744
11922.6,0.0247805,0,56692,56692
11932.6,0.0247629,0,56610,56610
11942.6,0.0247379,0,56566,56566
11952.6,0.0247067,0,56429,56429
11962.6,0.02467,0,56219,56219
11972.6,0.0246282,0,56008,56008
11982.6,0.0245815,0,55895,55895
11992.6,0.0245303,0,55898,55898
12002.6,0.024441,0,55700,55700
12012.6,0.0243515,0,55552,55552
12022.6,0.0242615,0,55376,55376
12032.6,0.0241707,0,55253,55253
12042.6,0.024079,0,55104,55104
12052.6,0.023986,0,55150,55150
12062.6,0.0238915,0,55087,55087
12072.6,0.0237953,0,54790,54790
12082.6,0.0236971,0,54583,54583
12092.5,0.0235968,0,54471,54471
12102.5,0.023494,0,54387,54387
12112.5,0.0233885,0,54340,54340
12122.5,0.0232798,0,54242,54242
12132.4,0.0231678,0,54173,54173
12142.4,0.023052,0,54018,54018
12152.4,0.0229323,0,53884,53884
12162.3,0.0228083,0,53846,53846
12172.3,0.0226797,0,53678,53678
12182.3,0.0225461,0,53866,53866
12192.3,0.0224074,0,54097,54097
12202.3,0.0222639,0,53800,53800
12212.2,0.0221156,0,53416,53416
12222.2,0.0219631,0,53266,53266
12232.2,0.0218071,0,53101,53101
12242.1,0.0216479,0,53001,53001
12252.1,0.0214857,0,52919,52919
12262.1,0.0213206,0,52889,52889
12272,0.0211523,0,52881,52881
12282,0.0209808,0,52910,52910
12291.9,0.0208059,0,52778,52778
12301.9,0.0206271,0,52723,52723
12311.8,0.0204441,0,52496,52496
12321.7,0.020257,0,52295,52295
12331.6,0.020065,0,52249,52249
12341.5,0.0198678,0,52162,52162
12351.4,0.0196651,0,52081,52081
12361.3,0.0196048,0,52008,52008
12371.2,0.019516,0,51812,51812
12381,0.0194013,0,51855,51855
12390.9,0.019263,0,51695,51695
12400.8,0.0191034,0,51561,51561
12410.7,0.0189244,0,51549,51549
12420.6,0.018728,0,51542,51542
12430.4,0.0185156,0,51313,51313
12440.3,0.018289,0,51161,51161
12450.2,0.0180492,0,51167,51167
12460,0.0177977,0,51087,51087
12473.2,0.0174457,0,50843,50843
12483.1,0.0171699,0,50748,50748
12493,0.0168852,0,50467,50467
12502.9,0.0165923,0,50350,50350
12512.9,0.0162923,0,50444,50444
12522.8,0.0159855,0,50479,50479
12532.8,0.0156721,0,50570,50570
12542.8,0.015353,0,50436,50436
12552.8,0.0150279,0,50217,50217
12562.8,0.0147005,0,50197,50197
12572.8,0.0143739,0,50090,50090
12582.8,0.014045,0,49923,49923
12592.8,0.0137119,0,49812,49812
12602.8,0.0133742,0,49878,49878
12612.7,0.0130304,0,49739,49739
12622.7,0.0126802,0,49684,49684
12632.7,0.0123247,0,49499,49499
12642.6,0.011963,0,49509,49509
12652.5,0.0115955,0,49423,49423
12662.5,0.0112227,0,49407,49407
12672.4,0.0108451,0,49280,49280
12682.4,0.0104631,0,49509,49509
12692.3,0.0100774,0,49610,49610
12702.3,0.00968848,0,49497,49497
12712.2,0.00929698,0,49355,49355
12722.1,0.00890372,0,49131,49131
12732.1,0.0085092,0,49033,49033
12742,0.00811403,0,48918,48918
12752,0.00771869,0,48795,48795
12761.9,0.00732354,0,48829,48829
12771.8,0.00692903,0,48845,48845
12781.8,0.00653552,0,49159,49159
12791.7,0.00614298,0,49023,49023
12801.6,0.00575157,0,48995,48995
12811.5,0.00536139,0,49122,49122
12821.5,0.00497246,0,49085,49085
12831.4,0.00458492,0,49019,49019
12841.3,0.00419883,0,48953,48953
12851.3,0.0038142,0,49013,49013
12861.2,0.00343113,0,48949,48949
12871.1,0.00304968,0,48838,48838
12881.1,0.0026699,0,48898,48898
12891,0.00229183,0,48956,48956
12900.9,0.00191548,0,48876,48876
12910.9,0.00154086,0,48829,48829
12920.8,0.00116848,0,48712,48712
12930.8,0.000798444,0,48520,48520
12940.7,0.000430761,0,48289,48289
12950.7,6.58747e-05,0,48215,48215
12960.6,-0.000296275,0,48155,48155
12974.7,-0.000803015,0,48016,48016
12984,-0.00113786,0,47905,47905
12993.4,-0.00147028,0,47816,47816
13002.7,-0.00180024,0,47744,47744
13012.1,-0.00212772,0,47708,47708
13021.5,-0.00245264,0,47785,47785
13030.8,-0.00277494,0,47723,47723
13040.2,-0.00309455,0,47761,47761
13054.2,-0.00356871,0,47768,47768
13063.6,-0.00388118,0,47798,47798
13072.9,-0.00419061,0,47861,47861
13082.3,-0.00449689,0,48052,48052
13091.6,-0.00479988,0,48049,48049
13101,-0.00509948,0,48048,48048
13110.3,-0.00539556,0,47920,47920
13124.4,-0.00583285,0,47676,47676
13133.7,-0.00611965,0,47499,47499
13143.1,-0.00640255,0,47326,47326
13152.5,-0.00668148,0,47167,47167
13161.8,-0.00695631,0,47080,47080
13171.2,-0.00722695,0,46900,46900
13180.5,-0.00749334,0,46844,46844
13194.6,-0.00788477,0,46741,46741
13203.9,-0.00814026,0,46733,46733
13213.3,-0.00839122,0,46681,46681
13222.7,-0.00863758,0,46622,46622
13232,-0.00887931,0,46633,46633
13241.4,-0.00911635,0,46429,46429
13250.8,-0.00934868,0,46299,46299
13260.1,-0.00957627,0,46104,46104
13274.2,-0.0099086,0,46268,46268
13283.6,-0.0101241,0,46176,46176
13292.9,-0.0103347,0,46072,46072
13302.3,-0.0105405,0,45996,45996
13311.7,-0.0107413,0,45966,45966
13321.1,-0.0109372,0,45965,45965
13330.4,-0.0111282,0,46015,46015
13344.5,-0.0114053,0,46111,46111
13353.9,-0.0115838,0,46068,46068
13363.3,-0.0117574,0,46135,46135
13372.7,-0.0119259,0,46195,46195
13382,-0.0120892,0,46122,46122
13391.4,-0.0122473,0,46115,46115
13400.8,-0.0124001,0,46130,46130
13410.2,-0.0125475,0,46162,46162
13424.3,-0.0127586,0,46106,46106
13433.7,-0.0128926,0,45954,45954
13443.1,-0.013021,0,45865,45865
13452.5,-0.0131441,0,45718,45718
13461.9,-0.0132619,0,45670,45670
13471.3,-0.0133745,0,45628,45628
13480.8,-0.0134819,0,45603,45603
13490.2,-0.0135842,0,45665,45665
13504.3,-0.014166,0,45373,45373
13513.7,-0.0142374,0,45274,45274
13523.2,-0.0143125,0,45311,45311
13532.6,-0.0143824,0,45322,45322
13542,-0.0144475,0,45273,45273
13551.5,-0.0145081,0,45237,45237
13560.9,-0.014563,0,45197,45197
13570.3,-0.0146083,0,45037,45037
13584.5,-0.0146676,0,44922,44922
13593.9,-0.0147344,0,44867,44867
13603.4,-0.0148194,0,44848,44848
13612.8,-0.0148896,0,44870,44870
13622.2,-0.0149471,0,44912,44912
13631.7,-0.0149934,0,44826,44826
13641.2,-0.0150301,0,44878,44878
13650.6,-0.0150581,0,44825,44825
13660.1,-0.0150786,0,44716,44716
13674.3,-0.015097,0,44678,44678
13683.8,-0.0151021,0,44656,44656
13693.3,-0.0151022,0,44641,44641
13702.8,-0.0150979,0,44508,44508
13712.2,-0.0150677,0,44377,44377
13721.7,-0.0150363,0,44341,44341
13731.2,-0.0150039,0,44204,44204
13740.6,-0.0149706,0,44146,44146
13750.1,-0.0143943,0,44181,44181
13764.3,-0.0144008,0,44249,44249
13773.7,-0.0144019,0,44266,44266
13783.2,-0.0144005,0,44164,44164
13792.6,-0.0143969,0,44107,44107
13802.1,-0.0143912,0,43974,43974
13811.5,-0.0143836,0,43860,43860
13821,-0.0143741,0,43829,43829
13830.5,-0.0143629,0,43786,43786
13844.6,-0.0143429,0,43990,43990
13854.1,-0.0143277,0,44195,44195
13863.6,-0.0143109,0,44062,44062
13873,-0.0142927,0,43964,43964
13882.5,-0.0142732,0,43845,43845
13891.9,-0.0142522,0,43645,43645
13901.4,-0.0142294,0,43524,43524
13910.9,-0.0142051,0,43500,43500
13920.3,-0.0141795,0,43455,43455
13934.5,-0.014139,0,43167,43167
13944,-0.0141118,0,43144,43144
13953.5,-0.0140849,0,43096,43096
13963,-0.014058,0,43043,43043
13972.4,-0.0140307,0,42995,42995
13981.9,-0.0140024,0,42899,42899
13991.4,-0.013973,0,42883,42883
14000.9,-0.0139426,0,42796,42796
14010.4,-0.0139112,0,42708,42708
14024.6,-0.013862,0,42562,42562
14034.1,-0.013828,0,42557,42557
14043.6,-0.013793,0,42602,42602
14053.1,-0.0137569,0,42457,42457
14062.6,-0.0137198,0,42260,42260
14072.1,-0.0136818,0,42275,42275
14081.6,-0.0136427,0,42121,42121
14091,-0.0136027,0,42108,42108
14100.5,-0.0135617,0,42182,42182
14110,-0.0135097,0,42066,42066
14124.3,-0.0134169,0,41806,41806
14133.7,-0.013356,0,41537,41537
14143.2,-0.0132958,0,41439,41439
14152.7,-0.0132363,0,41493,41493
14162.2,-0.0131775,0,41455,41455
14171.6,-0.0131194,0,41385,41385
14181.1,-0.013062,0,41323,41323
14190.6,-0.0130053,0,41198,41198
14200.1,-0.0129492,0,41136,41136
14214.3,-0.0128665,0,41333,41333
14223.7,-0.0128123,0,41139,41139
14233.2,-0.0127588,0,40973,40973
14242.7,-0.0127063,0,40828,40828
14252.2,-0.0126546,0,40617,40617
14261.6,-0.0126037,0,40589,40589
14271.1,-0.0125537,0,40491,40491
14280.6,-0.0125046,0,40338,40338
14290,-0.0124563,0,40343,40343
14304.3,-0.0123853,0,40066,40066
14313.7,-0.0123388,0,39954,39954
14323.2,-0.012293,0,39828,39828
14332.7,-0.0122478,0,39791,39791
14342.2,-0.0122032,0,39703,39703
14351.7,-0.0121591,0,39824,39824
14361.2,-0.0121156,0,39831,39831
14370.7,-0.0120725,0,39992,39992
14380.2,-0.0120298,0,39974,39974
14394.5,-0.0119666,0,39938,39938
14404,-0.0119249,0,39760,39760
14413.5,-0.0118837,0,39634,39634
14423,-0.0118427,0,39402,39402
14432.5,-0.0118021,0,39270,39270
14442,-0.0117619,0,39077,39077
14451.5,-0.011722,0,38886,38886
14460.9,-0.0116825,0,38732,38732
14470.4,-0.0116434,0,38646,38646
14484.6,-0.0115859,0,38463,38463
14494,-0.0115482,0,38311,38311
14503.5,-0.0115111,0,38143,38143
14513,-0.0114745,0,37979,37979
14522.4,-0.0114383,0,37879,37879
14531.9,-0.0114026,0,37835,37835
14541.3,-0.0113673,0,37818,37818
14550.8,-0.0113324,0,37853,37853
14560.3,-0.0112979,0,37829,37829
14574.4,-0.0112469,0,37743,37743
14583.9,-0.0112135,0,37749,37749
14593.4,-0.0111804,0,37754,37754
14602.8,-0.0111478,0,37675,37675
14612.3,-0.0111155,0,37380,37380
14621.7,-0.0110836,0,37072,37072
14631.2,-0.0110521,0,36863,36863
14640.6,-0.011021,0,36864,36864
14650.1,-0.0109902,0,36739,36739
14664.3,-0.0109445,0,36602,36602
14673.8,-0.0109142,0,36535,36535
14683.3,-0.0108841,0,36372,36372
14692.8,-0.0108541,0,36264,36264
14702.3,-0.0108242,0,36232,36232
14711.7,-0.0107944,0,36174,36174
14721.3,-0.0107646,0,36043,36043
14730.8,-0.0107351,0,36090,36090
14740.3,-0.0107056,0,36061,36061
14754.6,-0.0106619,0,35931,35931
14764.2,-0.010633,0,35856,35856
14773.7,-0.0106044,0,35884,35884
14783.2,-0.0105761,0,35776,35776
14792.7,-0.0105481,0,35637,35637
14802.3,-0.0105204,0,35593,35593
14811.8,-0.0104931,0,35463,35463
14821.3,-0.0104662,0,35282,35282
14830.8,-0.0104396,0,35153,35153
14840.3,-0.0104135,0,35101,35101
14853.4,-0.0103784,0,34921,34921
14860.4,-0.0103598,0,34826,34826
14873.5,-0.010326,0,34610,34610
14883,-0.0103019,0,34496,34496
14892.5,-0.0102783,0,34367,34367
14902,-0.0102552,0,34260,34260
14911.5,-0.0102325,0,34134,34134
14921,-0.0102104,0,34081,34081
14930.5,-0.0101887,0,34091,34091
14940,-0.0101675,0,34229,34229
14954.3,-0.0101366,0,34140,34140
14963.8,-0.0101165,0,33947,33947
14973.3,-0.010097,0,33735,33735
14982.8,-0.0100779,0,33540,33540
14992.3,-0.0100593,0,33384,33384
15001.9,-0.0100411,0,33245,33245
15011.4,-0.0100233,0,33165,33165
15020.9,-0.010006,0,33085,33085
15030.4,-0.00998909,0,32871,32871
15044.7,-0.00995122,0,32608,32608
15054.3,-0.00992314,0,32603,32603
15063.8,-0.00989648,0,32469,32469
15073.3,-0.00987113,0,32262,32262
15082.9,-0.00984703,0,32186,32186
15092.4,-0.00982412,0,32198,32198
15102,-0.0098023,0,32252,32252
15111.5,-0.00978153,0,32108,32108
15121.1,-0.00976175,0,31939,31939
15130.6,-0.00974291,0,31763,31763
15140.2,-0.00972495,0,31719,31719
15154.5,-0.00969955,0,31605,31605
15164.1,-0.0096836,0,31405,31405
15173.7,-0.00966837,0,31240,31240
15183.2,-0.00965384,0,31031,31031
15192.8,-0.00963996,0,30864,30864
15202.4,-0.00962668,0,30619,30619
15212,-0.00961399,0,30334,30334
15221.5,-0.00960184,0,30220,30220
15231.1,-0.0095902,0,30121,30121
15240.7,-0.00957903,0,30124,30124
15250.4,-0.00956832,0,30090,30090
15264.8,-0.00955305,0,29801,29801
15274.5,-0.00954335,0,29567,29567
15284.1,-0.00953403,0,29480,29480
15293.8,-0.00952507,0,29427,29427
15303.5,-0.00951645,0,29327,29327
15313.1,-0.00950814,0,29066,29066
15322.8,-0.00950012,0,28861,28861
15332.5,-0.00949239,0,28695,28695
15342.2,-0.00948492,0,28469,28469
15351.9,-0.00947769,0,28298,28298
15361.6,-0.00947083,0,28156,28156
15371.3,-0.00946475,0,27990,27990
15381.1,-0.00945931,0,27816,27816
15390.9,-0.00945446,0,27737,27737
15400.7,-0.00945009,0,27720,27720
15410.5,-0.00944611,0,27640,27640
15420.4,-0.00944246,0,27544,27544
15430.2,-0.00943905,0,27432,27432
15440.1,-0.00943584,0,27282,27282
15454.9,-0.00943126,0,26946,26946
15464.8,-0.00942827,0,27002,27002
15474.8,-0.00942528,0,26981,26981
15484.9,-0.00942226,0,26965,26965
15495,-0.0094192,0,27061,27061
15500,-0.00941764,0,27020,27020
15510.1,-0.00941445,0,26851,26851
15520.2,-0.00941112,0,26704,26704
15530.3,-0.00940765,0,26471,26471
15540.5,-0.00940399,0,26268,26268
15550.7,-0.00940015,0,26101,26101
15560.9,-0.0093961,0,26020,26020
15571.1,-0.00939184,0,25973,25973
15581.4,-0.00938734,0,25811,25811
15591.6,-0.00938259,0,25594,25594
15601.8,-0.00937758,0,25413,25413
15612.1,-0.0093723,0,25266,25266
15622.3,-0.00936674,0,25154,25154
15632.6,-0.00936089,0,25095,25095
15642.8,-0.00935474,0,25089,25089
15653.1,-0.00934829,0,24981,24981
15663.4,-0.00934151,0,24828,24828
15673.6,-0.00933442,0,24635,24635
15683.9,-0.00932699,0,24498,24498
15694.1,-0.00931924,0,24432,24432
15704.4,-0.00931113,0,24585,24585
15714.7,-0.00930265,0,24510,24510
15725.1,-0.00929377,0,24435,24435
15730.4,-0.00928912,0,24326,24326
15740.9,-0.0092795,0,24192,24192
15751.6,-0.00926925,0,23959,23959
15762.3,-0.00925852,0,23692,23692
15773,-0.00924729,0,23430,23430
15784.1,-0.00923515,0,23298,23298
15795.4,-0.00922222,0,23154,23154
15801.2,-0.00921537,0,23088,23088
15812.8,-0.00920124,0,23032,23032
15824.6,-0.00918627,0,23072,23072
15830.5,-0.00917856,0,23061,23061
15842.6,-0.00916228,0,23084,23084
15854.7,-0.00914538,0,23190,23190
15861.1,-0.00913612,0,23145,23145
15874.1,-0.00911709,0,22968,22968
15880.7,-0.0091071,0,22886,22886
15893.9,-0.0090866,0,22672,22672
15900.4,-0.00907608,0,22505,22505
15913.6,-0.00905453,0,22265,22265
15920.2,-0.00904348,0,22228,22228
15933.6,-0.0090206,0,22109,22109
15946.2,-0.00899841,0,21933,21933
15952.5,-0.00898707,0,21935,21935
15965,-0.00896392,0,21753,21753
15971.3,-0.0089521,0,21715,21715
15983.9,-0.00892797,0,21535,21535
15990.2,-0.00891566,0,21485,21485
16002.7,-0.00889054,0,21364,21364
16015.8,-0.0088636,0,21259,21259
16022.7,-0.00884928,0,21244,21244
16035.2,-0.00882237,0,21133,21133
16041.5,-0.00880866,0,21092,21092
16054.1,-0.00878067,0,20932,20932
16060.4,-0.0087664,0,20825,20825
16073.7,-0.00873558,0,20635,20635
16080.7,-0.00871897,0,20558,20558
16095,-0.00868446,0,20337,20337
16101.9,-0.00866731,0,20211,20211
16115.8,-0.00863226,0,20123,20123
16122.7,-0.00861435,0,20161,20161
16136.1,-0.00857911,0,20016,20016
16142.8,-0.00856112,0,19977,19977
16156.1,-0.00852437,0,20005,20005
16164.2,-0.00850158,0,20011,20011
16170.7,-0.00848276,0,20005,20005
16183.7,-0.00844417,0,19935,19935
16190.1,-0.00842466,0,19887,19887
16202.8,-0.00838525,0,19880,19880
16215.4,-0.00834529,0,19852,19852
16221.7,-0.00832495,0,19791,19791
16234.2,-0.00828356,0,19574,19574
16241.1,-0.0082607,0,19566,19566
16254.7,-0.00821414,0,19711,19711
16261.1,-0.00819183,0,19678,19678
16274,-0.00814644,0,19556,19556
16280.4,-0.00812335,0,19473,19473
16293.3,-0.00807635,0,19404,19404
16300.8,-0.00804837,0,19366,19366
16316.4,-0.00798907,0,19176,19176
16324.2,-0.00795877,0,19046,19046
16332,-0.00792801,0,18963,18963
16347.6,-0.0078651,0,18808,18808
16355.4,-0.00783293,0,18721,18721
16363.2,-0.00780025,0,18643,18643
16371,-0.00776706,0,18563,18563
16385.3,-0.00770485,0,18510,18510
16391.7,-0.00767632,0,18573,18573
16404.6,-0.00761818,0,18532,18532
16411,-0.00758856,0,18501,18501
16423.8,-0.00752823,0,18480,18480
16430.2,-0.0074975,0,18423,18423
16444,-0.00743035,0,18338,18338
16451.7,-0.00739213,0,18298,18298
16466.5,-0.007317,0,18203,18203
16473.9,-0.00727868,0,18114,18114
16481.3,-0.00723984,0,17983,17983
16496.3,-0.00715959,0,17884,17884
16504.6,-0.00711419,0,17903,17903
16512.1,-0.00707278,0,17920,17920
16525.8,-0.00699546,0,17848,17848
16532.7,-0.00695611,0,17826,17826
16546,-0.00687855,0,17686,17686
16552.4,-0.00684038,0,17615,17615
16564.8,-0.00676512,0,17535,17535
16571,-0.00672721,0,17536,17536
16583.4,-0.00665016,0,17604,17604
16596,-0.00657012,0,17597,17597
16602.4,-0.00652812,0,17593,17593
16615.8,-0.00643988,0,17500,17500
16623.6,-0.00638808,0,17453,17453
16631.3,-0.00633562,0,17399,17399
16646.7,-0.0062289,0,17292,17292
16654.2,-0.00617596,0,17234,17234
16661.6,-0.0061223,0,17185,17185
16676.6,-0.0060128,0,17064,17064
16684.1,-0.00595693,0,16906,16906
16691.6,-0.00589114,0,16837,16837
16705.3,-0.00577208,0,16777,16777
16712.1,-0.00571297,0,16742,16742
16724.8,-0.00560397,0,16627,16627
16731.1,-0.00555029,0,16582,16582
16743.7,-0.00544318,0,16636,16636
16756.2,-0.00533615,0,16807,16807
16762.5,-0.00528259,0,16812,16812
16775.1,-0.00517517,0,16712,16712
16781.4,-0.00512125,0,16692,16692
16796.8,-0.00501138,0,16603,16603
16804.4,-0.00495622,0,16507,16507
16811.9,-0.00490031,0,16374,16374
16827.1,-0.00478597,0,16216,16216
16834.8,-0.00472664,0,16130,16130
16842.5,-0.00466627,0,16049,16049
16850.2,-0.00460452,0,15967,15967
16865.7,-0.00447744,0,15932,15932
16872.6,-0.00441888,0,15885,15885
16884.6,-0.00431436,0,15839,15839
16890.6,-0.00426082,0,15799,15799
16902.2,-0.00415549,0,15649,15649
16915.2,-0.00403249,0,15426,15426
16922.5,-0.00396204,0,15377,15377
16937.1,-0.00381698,0,15293,15293
16945.1,-0.00373509,0,15240,15240
16952.9,-0.00365351,0,15236,15236
16965.7,-0.0035153,0,15138,15138
16972.2,-0.00344452,0,15100,15100
16987.8,-0.00326818,0,15041,15041
16995.6,-0.00317754,0,15003,15003
17003.4,-0.00308526,0,14978,14978
17011.2,-0.00299135,0,15028,15028
17025.5,-0.00281494,0,15264,15264
17032.6,-0.00272476,0,15409,15409
17047,-0.00254057,0,15511,15511
17054.1,-0.00240411,0,15501,15501
17061.3,-0.00226877,0,15472,15472
17074.8,-0.00201568,0,15381,15381
17081.2,-0.00189578,0,15299,15299
17094,-0.00165653,0,15177,15177
17100.9,-0.00152946,0,15085,15085
17114.8,-0.0012702,0,14912,14912
17122.2,-0.00113197,0,14919,14919
17137,-0.000855036,0,14927,14927
17144.5,-0.000714641,0,14909,14909
17152.2,-0.000570431,0,14900,14900
17167.5,-0.000281536,0,14803,14803
17174.6,-0.000148494,0,14755,14755
17181.4,-1.96487e-05,0,14714,14714
17195.1,0.000238832,0,14576,14576
17201.9,0.000368536,0,14549,14549
17215.6,0.000629051,0,14525,14525
17222.8,0.000766153,0,14508,14508
17237,0.00104078,0,14463,14463
17243.9,0.00117358,0,14527,14527
17250.4,0.00130063,0,14574,14574
17262.2,0.00153164,0,14506,14506
17274.5,0.00177329,0,14453,14453
17281,0.00190277,0,14414,14414
17296.3,0.00220783,0,14279,14279
17304,0.00236241,0,14189,14189
17311,0.00250391,0,14133,14133
17326,0.00281037,0,14099,14099
17332.3,0.00293914,0,14106,14106
17344.7,0.00319382,0,13946,13946
17350.9,0.00332188,0,13871,13871
17363.2,0.00357939,0,13778,13778
17376.2,0.00385241,0,13683,13683
17383.1,0.0039965,0,13690,13690
17390.1,0.00414612,0,13737,13737
17404.3,0.00444696,0,13772,13772
17411.3,0.00459814,0,13766,13766
17425.6,0.00490583,0,13804,13804
17432.8,0.00506038,0,13880,13880
17447.8,0.00538508,0,14046,14046
17454.8,0.00553794,0,14153,14153
17461.4,0.00568145,0,14231,14231
17473.2,0.00594043,0,14228,14228
17484.7,0.00619399,0,14267,14267
17490.5,0.00632105,0,14173,14173
17504.3,0.00662596,0,13924,13924
17512.3,0.00680274,0,13827,13827
17520.3,0.00697975,0,13707,13707
17537,0.00734957,0,13644,13644
17545.4,0.00753651,0,13653,13653
17551.7,0.00767605,0,13628,13628
17564.3,0.00795518,0,13663,13663
17570.6,0.00809473,0,13639,13639
17583.2,0.0083737,0,13590,13590
17595.7,0.00865233,0,13529,13529
17602.8,0.00880876,0,13489,13489
17617.1,0.0091252,0,13451,13451
17624.3,0.00928305,0,13456,13456
17631.4,0.00944059,0,13491,13491
17645.5,0.00974952,0,13555,13555
17652.4,0.00990103,0,13594,13594
17666.6,0.0102101,0,13486,13486
17673.7,0.0103641,0,13386,13386
17680.8,0.0105177,0,13295,13295
17695.1,0.0108252,0,13214,13214
17702.3,0.0109779,0,13132,13132
17716.4,0.0112777,0,13009,13009
17723,0.0114163,0,12935,12935
17736.2,0.0116911,0,12891,12891
17742.8,0.0118272,0,12939,12939
17756,0.0120969,0,12976,12976
17763.8,0.0122533,0,12988,12988
17771.5,0.0124084,0,12991,12991
17787,0.0127147,0,12987,12987
17794.8,0.0128678,0,13029,13029
17802.4,0.0130151,0,13024,13024
17816.7,0.0132884,0,12887,12887
17823.2,0.0134107,0,12845,12845
17835.7,0.0136436,0,12761,12761
17841.5,0.0137495,0,12696,12696
17852.7,0.0139536,0,12706,12706
17865.7,0.0141847,0,12888,12888
17872.6,0.0143045,0,12955,12955
17886.3,0.0145396,0,12925,12925
17892.7,0.0146477,0,12871,12871
17905.3,0.0148554,0,12739,12739
17911.6,0.0149572,0,12626,12626
17925.2,0.0151738,0,12442,12442
17932.6,0.0152879,0,12420,12420
17940.6,0.0154113,0,12444,12444
17953.3,0.0156005,0,12485,12485
17965.9,0.0157819,0,12503,12503
17972.2,0.0158705,0,12499,12499
17985,0.0160469,0,12507,12507
17991.5,0.0161327,0,12430,12430
18005.8,0.0163186,0,12389,12389
18013,0.0164085,0,12349,12349
18020.1,0.0164963,0,12374,12374
18034.4,0.0166657,0,12466,12466
18041.6,0.0167472,0,12511,12511
18056,0.016904,0,12512,12512
18062.6,0.016973,0,12465,12465
18075.1,0.0170986,0,12390,12390
18081.4,0.0171585,0,12332,12332
18093.8,0.0173142,0,12247,12247
18106.2,0.0174518,0,12137,12137
18112.5,0.0175146,0,12044,12044
18126.6,0.0176415,0,11902,11902
18134.1,0.0177015,0,11891,11891
18141.2,0.017754,0,11923,11923
18154.9,0.0178439,0,12009,12009
18161.2,0.0178805,0,12025,12025
18173.7,0.0179457,0,12091,12091
18180,0.0179745,0,12142,12142
18192.7,0.0180258,0,12294,12294
18200.1,0.0180516,0,12374,12374
18214.9,0.0180948,0,12361,12361
18222.3,0.0181124,0,12319,12319
18236.6,0.018139,0,12253,12253
18243.2,0.0181481,0,12177,12177
18255.7,0.0181601,0,12008,12008
18261.5,0.0181633,0,11906,11906
18273.7,0.0181657,0,11759,11759
18280.1,0.0181646,0,11652,11652
18293,0.0181582,0,11438,11438
18307.2,0.0181461,0,11323,11323
18315,0.0181368,0,11258,11258
18322.8,0.017352,0,11150,11150
18330.6,0.0173348,0,11085,11085
18346.3,0.0172963,0,11040,11040
18354.1,0.0172751,0,11075,11075
18361.9,0.0172525,0,11111,11111
18377.5,0.0172035,0,11269,11269
18384.9,0.0171774,0,11330,11330
18391.1,0.0171536,0,11338,11338
18403.4,0.0171019,0,11299,11299
18415.8,0.0170453,0,11307,11307
18422,0.0170155,0,11307,11307
18434.8,0.0169503,0,11248,11248
18441.6,0.0169143,0,11168,11168
18456.3,0.0168335,0,11053,11053
18463.8,0.0167907,0,11069,11069
18470.7,0.0167507,0,11026,11026
18484.4,0.0166686,0,11011,11011
18491.2,0.0166264,0,11000,11000
18503.8,0.0165473,0,11076,11076
18510.1,0.016507,0,11103,11103
18522.7,0.016425,0,11080,11080
18536.2,0.0163346,0,11144,11144
18542.8,0.0162899,0,11166,11166
18556,0.0161994,0,11414,11414
18562.6,0.0161536,0,11456,11456
18577.3,0.0160503,0,11382,11382
18585.3,0.0159934,0,11272,11272
18591.8,0.0159473,0,11149,11149
18604.6,0.0158544,0,10991,10991
18611,0.0158076,0,10923,10923
18623.5,0.0157162,0,10786,10786
18635.1,0.0156309,0,10690,10690
18641.5,0.0155831,0,10722,10722
18654.3,0.015487,0,10844,10844
18660.8,0.0154387,0,10816,10816
18674,0.0153409,0,10774,10774
18680.6,0.0152921,0,10775,10775
18693.6,0.0151959,0,10720,10720
18700.1,0.0151483,0,10743,10743
18712.9,0.0150531,0,10832,10832
18725.6,0.0149586,0,11040,11040
18731.7,0.0149132,0,11064,11064
18743.9,0.0148221,0,11014,11014
18756,0.0147304,0,10935,10935
18762.9,0.0146784,0,10994,10994
18775.1,0.0145856,0,11096,11096
18780.8,0.0145414,0,11113,11113
18791.8,0.0144566,0,10961,10961
18803.1,0.014369,0,10763,10763
18815,0.0142763,0,10636,10636
18821.1,0.0142292,0,10649,10649
18833.3,0.0141355,0,10740,10740
18840.4,0.0140811,0,10818,10818
18854.1,0.0139762,0,10921,10921
18860.7,0.0139257,0,10931,10931
18873,0.0138306,0,10904,10904
18885.8,0.0137319,0,10907,10907
18892.3,0.013681,0,10846,10846
18904.8,0.0135827,0,10709,10709
18911.1,0.0135331,0,10640,10640
18923.6,0.013433,0,10699,10699
18936.1,0.0133316,0,10695,10695
18942.5,0.013279,0,10685,10685
18955.4,0.0131727,0,10848,10848
18961.8,0.013119,0,11008,11008
18974.7,0.0130106,0,11111,11111
18981.1,0.0129558,0,11039,11039
18995.4,0.0128323,0,10820,10820
19002.6,0.0127699,0,10744,10744
19017.2,0.0126412,0,10595,10595
19024.7,0.0125748,0,10614,10614
19031.6,0.0125135,0,10673,10673
19045.3,0.01239,0,10839,10839
19052.1,0.0123278,0,10841,10841
19065.3,0.0122075,0,10756,10756
19071.1,0.012154,0,10734,10734
19082.7,0.0120463,0,10718,10718
19094.3,0.0119378,0,10700,10700
19100.4,0.0118807,0,10662,10662
19112.9,0.0117627,0,10571,10571
19126.9,0.0116299,0,10599,10599
19134.1,0.0115615,0,10625,10625
19141.3,0.0114929,0,10615,10615
19153.8,0.0113727,0,10569,10569
19165.6,0.0112589,0,10495,10495
19171.3,0.0112031,0,10402,10402
19182.3,0.0110966,0,10286,10286
19194.4,0.0109795,0,10257,10257
19200.7,0.0109183,0,10198,10198
19212.9,0.0107998,0,10208,10208
19225,0.0106811,0,10166,10166
19231.1,0.0106218,0,10176,10176
19243.6,0.0104995,0,10054,10054
19250,0.0104367,0,10010,10010
19265,0.0102903,0,9933,9933
19273,0.0102126,0,9915,9915
19280.9,0.0101349,0,9894,9894
19296.9,0.00997989,0,9959,9959
19304.2,0.00990864,0,10081,10081
19310.5,0.00984764,0,10173,10173
19323.1,0.00972592,0,10386,10386
19335.6,0.00960465,0,10644,10644
19342.1,0.00954282,0,10828,10828
19354.1,0.00942719,0,11029,11029
19365.7,0.00931713,0,11114,11114
19371.2,0.00926489,0,11120,11120
19382.2,0.00916082,0,11047,11047
19395.3,0.00903753,0,10881,10881
19402.1,0.00897344,0,10747,10747
19415.3,0.00885086,0,10619,10619
19421.9,0.00878996,0,10611,10611
19435.5,0.00866521,0,10586,10586
19442.6,0.0086002,0,10537,10537
19456.1,0.00847891,0,10418,10418
19462.4,0.00842257,0,10351,10351
19474.9,0.00831077,0,10263,10263
19481.2,0.00825534,0,10191,10191
19494.7,0.0081377,0,10119,10119
19502.3,0.00807186,0,10191,10191
19511.3,0.00799456,0,10274,10274
19520.3,0.00791798,0,10319,10319
19538,0.00776952,0,10324,10324
19546.2,0.00770173,0,10293,10293
19554.2,0.00763614,0,10241,10241
19560.5,0.00758508,0,10273,10273
19572.3,0.00748993,0,10287,10287
19583.6,0.00740039,0,10339,10339
19594.6,0.00731401,0,10227,10227
19600.9,0.00726506,0,10243,10243
19613.4,0.00716814,0,10157,10157
19626.2,0.00707146,0,10043,10043
19632.6,0.0070231,0,10035,10035
19645.6,0.00692668,0,10012,10012
19652.1,0.00687865,0,10000,10000
19665.2,0.0067838,0,10072,10072
19671.7,0.00673701,0,10130,10130
19685.4,0.00664092,0,10060,10060
19692.2,0.00659362,0,10060,10060
19705.8,0.00650058,0,10054,10054
19714.7,0.00644083,0,10112,10112
19721,0.00639933,0,10158,10158
19733.4,0.00631913,0,10300,10300
19745.2,0.00624444,0,10352,10352
19751,0.00620861,0,10388,10388
19762,0.00612976,0,10210,10210
19773.8,0.00604885,0,10052,10052
19786,0.00597001,0,9888,9888
19792.1,0.00593216,0,9838,9838
19804.3,0.00585948,0,9861,9861
19810.4,0.00582459,0,9854,9854
19822.5,0.00575763,0,9910,9910
19836.7,0.00568393,0,10062,10062
19844.1,0.00564742,0,10093,10093
19851.5,0.00561241,0,10111,10111
19863.6,0.0055573,0,10013,10013
19875.2,0.00550725,0,9975,9975
19881,0.00548323,0,9933,9933
19892.6,0.00543713,0,9844,9844
19905.5,0.00538895,0,9808,9808
19911.9,0.00536608,0,9767,9767
19924.1,0.005325,0,9729,9729
19930.2,0.00530551,0,9765,9765
19943,0.0052665,0,9943,9943
19956.6,0.00522843,0,10132,10132
19963.4,0.00521038,0,10266,10266
19975.7,0.00600249,0,10530,10530
19981.9,0.00598705,0,10490,10490
19993.8,0.00595888,0,10352,10352
