time,surface_elevation,reference_data,number_of_local_cells,number_of_global_cells
0,0,0,38418,38418
10.3341,0,0,41230,41230
20.5981,0,0,56882,56882
30.8654,0,0,62070,62070
41.1642,0,0,61926,61926
51.4518,0,0,62920,62920
60.251,0,0,63982,63982
70.5167,0,0,65146,65146
80.7824,0,0,66722,66722
91.0481,0,0,68254,68254
101.314,0,0,69660,69660
110.151,0,0,70912,70912
120.469,0,0,72534,72534
130.787,0,0,73936,73936
141.11,0,0,75418,75418
151.436,0,0,76460,76460
160.288,0,0,77518,77518
170.614,0,0,78366,78366
180.942,0,0,79248,79248
191.27,0,0,80134,80134
200.123,0,0,80948,80948
210.452,0,0,81644,81644
220.782,0,0,82420,82420
231.112,0,0,83272,83272
241.443,0,0,83992,83992
250.298,0,0,84914,84914
260.629,0,0,85378,85378
270.961,0,0,85852,85852
281.292,0,0,87022,87022
290.148,0,0,87732,87732
300.48,0,0,88196,88196
310.812,0,0,88922,88922
321.145,0,0,89274,89274
330.001,0,0,89226,89226
340.334,0,0,89328,89328
350.667,0,0,89750,89750
361,0,0,90602,90602
371.334,0,0,90944,90944
380.191,0,0,91722,91722
390.525,0,0,92186,92186
400.859,0,0,92002,92002
411.193,0,0,92902,92902
420.05,0,0,93338,93338
430.385,0,0,93992,93992
440.719,0,0,94700,94700
451.054,0,0,95006,95006
461.404,0,0,95686,95686
470.294,0,0,95722,95722
480.729,0,0,96286,96286
491.19,0,0,97048,97048
500.16,0,0,97422,97422
510.598,0,0,97378,97378
521.091,-2.72848e-12,0,97862,97862
530.099,-8.18545e-12,0,98370,98370
540.52,-1.45519e-11,0,99242,99242
550.925,-2.09184e-11,0,99692,99692
561.306,-2.72848e-11,0,99894,99894
570.216,-3.63798e-11,0,100532,100532
580.581,-4.91127e-11,0,101252,101252
590.968,-6.45741e-11,0,101742,101742
601.39,-8.36735e-11,0,102300,102300
610.312,-1.05501e-10,0,102742,102742
620.702,-1.35515e-10,0,103732,103732
631.048,-1.71894e-10,0,104876,104876
641.407,-2.18279e-10,0,106128,106128
650.278,-2.65572e-10,0,106426,106426
660.616,-3.33785e-10,0,107300,107300
670.965,-4.16549e-10,0,108510,108510
681.21,-5.17502e-10,0,109314,109314
690.067,-6.21185e-10,0,110018,110018
700.436,-7.65795e-10,0,110622,110622
710.829,-9.40418e-10,0,112136,112136
721.101,-1.14778e-09,0,112512,112512
730.031,-1.36333e-09,0,113102,113102
740.431,-1.6571e-09,0,114712,114712
750.808,-2.00816e-09,0,115366,115366
761.236,-2.42744e-09,0,116418,116418
770.174,-2.84854e-09,0,117396,117396
780.603,-3.42425e-09,0,118166,118166
791.031,-4.10546e-09,0,118438,118438
801.459,-4.90854e-09,0,118768,118768
810.398,-5.7089e-09,0,119374,119374
820.826,-6.79393e-09,0,119990,119990
831.254,-8.06722e-09,0,120272,120272
840.197,-9.32687e-09,0,120544,120544
850.647,-1.10276e-08,0,121414,121414
861.145,-1.30194e-08,0,121770,121770
870.157,-1.49867e-08,0,122310,122310
880.658,-1.76196e-08,0,122340,122340
891.207,-2.06883e-08,0,122772,122772
900.193,-2.36814e-08,0,123592,123592
910.759,-2.77114e-08,0,123756,123756
921.327,-3.2368e-08,0,124748,124748
930.386,-3.69255e-08,0,124976,124976
940.924,-4.29718e-08,0,125068,125068
951.447,-4.99158e-08,0,125730,125730
960.526,-5.6727e-08,0,126196,126196
971.314,-6.59329e-08,0,127062,127062
980.585,-7.49296e-08,0,127158,127158
990.201,-8.54416e-08,0,127510,127510
1001.55,-9.95806e-08,0,128722,128722
1011.39,-1.13563e-07,0,129084,129084
1021.28,-1.2939e-07,0,128930,128930
1031.09,-1.47075e-07,0,129430,129430
1040.26,-1.65571e-07,0,130318,130318
1050.06,-1.87663e-07,0,130364,130364
1061.38,-2.16478e-07,0,131018,131018
1070.76,-2.43337e-07,0,131650,131650
1080.48,-2.74331e-07,0,132432,132432
1090.15,-3.08616e-07,0,133170,133170
1100.16,-3.48148e-07,0,133682,133682
1110.87,-3.95451e-07,0,134240,134240
1120.23,-4.41456e-07,0,135026,135026
1131.04,-5.00469e-07,0,135320,135320
1140.37,-5.56947e-07,0,136326,136326
1150.92,-6.27607e-07,0,136506,136506
1161.49,-7.06299e-07,0,137172,137172
1170.44,-7.79754e-07,0,138172,138172
1180.99,-8.74843e-07,0,138678,138678
1190.21,-9.66307e-07,0,138556,138556
1201.29,-1.08726e-06,0,138980,138980
1210.86,-1.2024e-06,0,139414,139414
1220.18,-1.32491e-06,0,140110,140110
1231.48,-1.48807e-06,0,141028,141028
1241.22,-1.64285e-06,0,141110,141110
1251.22,-1.81644e-06,0,141278,141278
1261.22,-2.00606e-06,0,142038,142038
1270.9,-2.20619e-06,0,142848,142848
1280.72,-2.42715e-06,0,143370,143370
1290.68,-2.67072e-06,0,143904,143904
1300.63,-2.93554e-06,0,144188,144188
1310.22,-3.21227e-06,0,144376,144376
1321.4,-3.56312e-06,0,145364,145364
1331.18,-3.89739e-06,0,145690,145690
1341.12,-4.26459e-06,0,146318,146318
1351.05,-4.66201e-06,0,146402,146402
1360.36,-5.06395e-06,0,146370,146370
1371.63,-5.59105e-06,0,147102,147102
1381.12,-6.07116e-06,0,147566,147566
1390.75,-6.59495e-06,0,147704,147704
1400.68,-7.17505e-06,0,148124,148124
1410.63,-7.79847e-06,0,148382,148382
1420.57,-8.46693e-06,0,148836,148836
1431.5,-9.25617e-06,0,149794,149794
1441.5,-1.00304e-05,0,149900,149900
1451.52,-1.08586e-05,0,149864,149864
1461.56,-1.17436e-05,0,149976,149976
1471.6,-1.26864e-05,0,150160,150160
1481.64,-1.36898e-05,0,150468,150468
1490,-1.45742e-05,0,150696,150696
1500.04,-1.56963e-05,0,151076,151076
1510.09,-1.68882e-05,0,151398,151398
1520.13,-1.81531e-05,0,151964,151964
1530.17,-1.94934e-05,0,152542,152542
1540.21,-2.09137e-05,0,152724,152724
1550.22,-2.24151e-05,0,152790,152790
1560.21,-2.40016e-05,0,153064,153064
1570.2,-2.56901e-05,0,153528,153528
1580.17,-2.74964e-05,0,154378,154378
1590.14,-2.94277e-05,0,154274,154274
1600.11,-3.14887e-05,0,154594,154594
1610.08,-3.36838e-05,0,155232,155232
1620.06,-3.6018e-05,0,156202,156202
1630.03,-3.84959e-05,0,156368,156368
1641.66,-4.15754e-05,0,156034,156034
1651.63,-4.43828e-05,0,156490,156490
1661.6,-4.73513e-05,0,157330,157330
1671.57,-5.0487e-05,0,157302,157302
1681.54,-5.37966e-05,0,157718,157718
1691.52,-5.72879e-05,0,158196,158196
1701.5,-6.09719e-05,0,158682,158682
1711.49,-6.48514e-05,0,158826,158826
1721.48,-6.8936e-05,0,158846,158846
1731.47,-7.323e-05,0,159006,159006
1741.45,-7.77389e-05,0,159516,159516
1751.41,-8.24612e-05,0,160160,160160
1761.38,-8.74131e-05,0,161028,161028
1771.34,-9.26018e-05,0,160966,160966
1781.3,-9.80347e-05,0,160928,160928
1791.27,-0.00010372,0,161460,161460
1801.23,-0.000109668,0,161912,161912
1811.21,-0.000115896,0,162142,162142
1821.18,-0.00012249,0,162732,162732
1831.15,-0.00012987,0,163690,163690
1841.11,-0.000137627,0,163828,163828
1851.08,-0.000145789,0,164626,164626
1861.05,-0.000154381,0,164386,164386
1871.04,-0.000163443,0,164744,164744
1881.03,-0.000172979,0,164750,164750
1891.02,-0.000183004,0,165172,165172
1901.01,-0.000193536,0,165580,165580
1910.98,-0.000204574,0,165774,165774
1920.96,-0.000216152,0,165732,165732
1930.93,-0.000228286,0,166284,166284
1940.9,-0.000240999,0,166736,166736
1950.86,-0.000254308,0,166966,166966
1960.81,-0.000268215,0,167328,167328
1970.72,-0.000282726,0,167390,167390
1980.64,-0.000297898,0,168118,168118
1990.54,-0.000313735,0,168662,168662
2000.44,-0.000330268,0,168932,168932
2010.34,-0.000347518,0,169124,169124
2020.23,-0.000365488,0,169532,169532
2030.1,-0.000384184,0,170236,170236
2041.62,-0.000416162,0,170202,170202
2051.43,-0.00045516,0,170368,170368
2061.23,-0.000495524,0,170836,170836
2071.02,-0.000537392,0,171572,171572
2080.81,-0.0005808,0,171732,171732
2090.61,-0.000625767,0,172110,172110
2100.4,-0.000672297,0,172484,172484
2110.19,-0.00072038,0,172496,172496
2121.62,-0.000778428,0,172534,172534
2131.41,-0.00082985,0,172620,172620
2141.2,-0.000882812,0,172860,172860
2151,-0.000937328,0,173516,173516
2160.79,-0.00099342,0,173716,173716
2170.58,-0.00105112,0,173600,173600
2180.37,-0.00111048,0,173934,173934
2190.16,-0.00113378,0,174064,174064
2201.59,-0.00115509,0,174466,174466
2211.38,-0.00117625,0,174608,174608
2221.17,-0.00120033,0,174968,174968
2230.96,-0.00122748,0,175478,175478
2240.75,-0.00125783,0,175510,175510
2250.54,-0.00129143,0,176164,176164
2260.33,-0.00132933,0,176226,176226
2270.12,-0.00136872,0,176204,176204
2281.54,-0.00141645,0,176858,176858
2291.33,-0.00145922,0,177318,177318
2301.12,-0.00150401,0,177644,177644
2310.91,-0.0015511,0,177798,177798
2320.7,-0.00160075,0,178082,178082
2330.48,-0.00165312,0,178512,178512
2340.23,-0.00170833,0,178636,178636
2351.6,-0.00177667,0,179046,179046
2361.35,-0.00183876,0,179740,179740
2371.09,-0.00190416,0,180336,180336
2380.83,-0.00197284,0,180214,180214
2390.57,-0.00204477,0,180180,180180
2400.31,-0.00211995,0,180800,180800
2410.05,-0.00219835,0,180938,180938
2421.42,-0.00229388,0,181300,181300
2431.16,-0.00237922,0,181632,181632
2440.9,-0.00246764,0,181782,181782
2450.64,-0.002559,0,182178,182178
2460.39,-0.00265326,0,182506,182506
2470.14,-0.00275023,0,183222,183222
2481.51,-0.00286655,0,183404,183404
2491.24,-0.00296887,0,183888,183888
2500.98,-0.00307358,0,184054,184054
2510.73,-0.0031806,0,184540,184540
2520.47,-0.00328979,0,184768,184768
2530.22,-0.00340019,0,184898,184898
2541.59,-0.00353065,0,185372,185372
2551.34,-0.00364374,0,185424,185424
2561.09,-0.00375786,0,185924,185924
2570.84,-0.0038729,0,186164,186164
2580.6,-0.00398868,0,186036,186036
2590.36,-0.00410515,0,186406,186406
2600.13,-0.00422208,0,186790,186790
2611.54,-0.00435887,0,187626,187626
2621.32,-0.00447618,0,187846,187846
2631.08,-0.00459292,0,188512,188512
2640.82,-0.00470892,0,188556,188556
2650.56,-0.00482415,0,188696,188696
2660.3,-0.00493828,0,188872,188872
2670.02,-0.00505085,0,188802,188802
2681.36,-0.00518004,0,189106,189106
2691.06,-0.00528835,0,189302,189302
2700.76,-0.00539424,0,189300,189300
2710.45,-0.00549742,0,189632,189632
2720.15,-0.00559749,0,189922,189922
2731.46,-0.00570961,0,190230,190230
2741.16,-0.00580146,0,190512,190512
2750.86,-0.00588916,0,190818,190818
2760.59,-0.00597265,0,191194,191194
2770.33,-0.00605143,0,191174,191174
2780.07,-0.00612507,0,191504,191504
2791.44,-0.00620366,0,192116,192116
2801.18,-0.00626534,0,192000,192000
2810.93,-0.00632154,0,191640,191640
2820.68,-0.00637133,0,191760,191760
2830.43,-0.00641461,0,191984,191984
2840.18,-0.00645122,0,192850,192850
2851.55,-0.00648507,0,193492,193492
2861.3,-0.00650603,0,194036,194036
2871.05,-0.00651911,0,194266,194266
2880.8,-0.00652376,0,194886,194886
2890.55,-0.00651937,0,195548,195548
2900.3,-0.0065054,0,195699,195699
2910.06,-0.00648141,0,195319,195319
2921.43,-0.00644022,0,195855,195855
2931.19,-0.00639279,0,196242,196242
2940.95,-0.00633704,0,196664,196664
2950.71,-0.00624232,0,196948,196948
2960.47,-0.0060972,0,196744,196744
2970.21,-0.00591369,0,196706,196706
2981.54,-0.00565923,0,197328,197328
2991.26,-0.0054087,0,197910,197910
3000.97,-0.00512912,0,197524,197524
3010.69,-0.00482038,0,197376,197376
3020.4,-0.00448013,0,198350,198350
3030.12,-0.00410435,0,198142,198142
3041.45,-0.00361715,0,197744,197744
3051.17,-0.00315527,0,197840,197840
3060.88,-0.00296069,0,198396,198396
3070.6,-0.00293878,0,198902,198902
3080.31,-0.00278586,0,199068,199068
3090.03,-0.0025225,0,199722,199722
3101.36,-0.0020878,0,200092,200092
3111.08,-0.00160812,0,199900,199900
3120.79,-0.00102686,0,200010,200010
3130.51,-0.000350336,0,200431,200431
3140.26,0.00039709,0,200967,200967
3150.02,0.00122496,0,200679,200679
3161.43,0.00231053,0,200943,200943
3171.22,0.00263162,0,201031,201031
3181.01,0.00305365,0,201379,201379
3190.79,0.0038268,0,201605,201605
3200.57,0.00484175,0,202157,202157
3210.35,0.00597764,0,202695,202695
3220.13,0.00732702,0,202599,202599
3231.54,0.0091963,0,202965,202965
3241.32,0.0110454,0,203223,203223
3251.1,0.011548,0,203346,203346
3260.88,0.0122995,0,203692,203692
3270.66,0.0139046,0,203884,203884
3280.44,0.0161844,0,204214,204214
3290.22,0.0188315,0,204296,204296
3300,0.0219046,0,204048,204048
3311.42,0.0261038,0,204814,204814
3321.2,0.0321741,0,205048,205048
3330.98,0.0384149,0,205033,205033
3340.76,0.0442313,0,205132,205132
3350.55,0.0499075,0,205716,205716
3360.33,0.0558605,0,205720,205720
3370.11,0.0622069,0,205344,205344
3381.52,0.0696615,0,205904,205904
3391.3,0.0770185,0,206420,206420
3401.08,0.0858798,0,206452,206452
3410.87,0.0956098,0,206882,206882
3420.66,0.103213,0,207438,207438
3430.46,0.11696,0,207806,207806
3440.27,0.1312,0,208068,208068
3450.09,0.143913,0,208460,208460
3461.53,0.159708,0,208974,208974
3471.34,0.175443,0,208607,208607
3481.16,0.192749,0,208367,208367
3490.97,0.210328,0,208479,208479
3500.78,0.229391,0,208605,208605
3510.61,0.24875,0,209276,209276
3520.46,0.267605,0,208946,208946
3530.3,0.286087,0,209036,209036
3540.15,0.304407,0,209082,209082
3551.63,0.325498,0,209828,209828
3561.46,0.343258,0,209972,209972
3571.27,0.360755,0,209514,209514
3581.08,0.378101,0,209952,209952
3590.9,0.395281,0,210882,210882
3600.71,0.412114,0,211342,211342
3610.52,0.428348,0,211792,211792
3620.34,0.443799,0,211761,211761
3630.15,0.458394,0,211918,211918
3641.6,0.474334,0,211840,211840
3651.42,0.487127,0,212072,212072
3661.23,0.499083,0,212354,212354
3671.05,0.510148,0,212236,212236
3680.86,0.520074,0,212818,212818
3690.68,0.529242,0,212726,212726
3700.5,0.537342,0,212860,212860
3710.31,0.543882,0,213088,213088
3720.13,0.549899,0,213410,213410
3731.58,0.554601,0,214031,214031
3741.4,0.556559,0,214551,214551
3751.21,0.556868,0,214735,214735
3761.03,0.556263,0,214923,214923
3770.84,0.555134,0,214785,214785
3780.66,0.555962,0,214767,214767
3790.5,0.554753,0,215605,215605
3800.36,0.552927,0,215828,215828
3810.23,0.55006,0,216146,216146
3820.1,0.546723,0,216026,216026
3831.61,0.542841,0,215844,215844
3841.48,0.539279,0,215842,215842
3851.35,0.535437,0,216200,216200
3861.22,0.530235,0,216242,216242
3871.09,0.523794,0,217127,217127
3880.96,0.514628,0,217394,217394
3890.84,0.503516,0,217252,217252
3900.71,0.49274,0,217426,217426
3910.58,0.479078,0,217586,217586
3920.45,0.464879,0,217666,217666
3930.32,0.450832,0,217473,217473
3940.2,0.433155,0,218318,218318
3950.07,0.411065,0,218574,218574
3961.59,0.383966,0,218248,218248
3971.46,0.362123,0,218342,218342
3981.33,0.341046,0,218513,218513
3991.2,0.319163,0,219018,219018
4001.07,0.296306,0,219828,219828
4010.95,0.273115,0,219954,219954
4020.83,0.249961,0,220536,220536
4030.72,0.226689,0,220970,220970
4040.61,0.202992,0,220703,220703
4050.5,0.178773,0,220859,220859
4060.38,0.154229,0,220657,220657
4070.26,0.12962,0,220914,220914
4080.11,0.105226,0,221038,221038
4091.59,0.0770659,0,221674,221674
4101.44,0.0531499,0,221958,221958
4111.29,0.0294051,0,221842,221842
4121.18,0.00575927,0,221886,221886
4131.07,-0.0176545,0,222114,222114
4140.95,-0.0407323,0,222343,222343
4150.81,-0.0634326,0,223073,223073
4160.67,-0.0856672,0,222866,222866
4170.52,-0.10734,0,223270,223270
4180.37,-0.128347,0,223644,223644
4190.21,-0.148592,0,224579,224579
4200.05,-0.168011,0,225221,225221
4211.54,-0.189579,0,224841,224841
4221.38,-0.207129,0,225136,225136
4231.23,-0.22382,0,225550,225550
4241.07,-0.239676,0,225837,225837
4250.92,-0.25467,0,226395,226395
4260.76,-0.268698,0,226351,226351
4270.61,-0.281057,0,227163,227163
4280.45,-0.293088,0,227153,227153
4290.3,-0.304075,0,226623,226623
4300.15,-0.313114,0,226579,226579
4310.01,-0.320898,0,226588,226588
4321.49,-0.327998,0,226362,226362
4331.31,-0.335811,0,226376,226376
4341.13,-0.336029,0,226648,226648
4350.94,-0.336982,0,226904,226904
4360.76,-0.336829,0,226997,226997
4370.57,-0.335705,0,226951,226951
4380.36,-0.334585,0,227147,227147
4390.16,-0.335631,0,226894,226894
4401.58,-0.333584,0,227082,227082
4411.38,-0.331468,0,227224,227224
4421.17,-0.328783,0,227292,227292
4430.97,-0.325951,0,227355,227355
4440.76,-0.323137,0,227575,227575
4450.56,-0.32013,0,227389,227389
4460.35,-0.316733,0,227905,227905
4470.15,-0.312872,0,228255,228255
4481.58,-0.30582,0,228799,228799
4491.38,-0.299577,0,228924,228924
4501.18,-0.292886,0,229552,229552
4511,-0.285818,0,229516,229516
4520.81,-0.277577,0,229870,229870
4530.62,-0.268115,0,229868,229868
4540.43,-0.260197,0,230047,230047
4550.24,-0.248846,0,229535,229535
4560.06,-0.236755,0,229607,229607
4571.5,-0.223417,0,230309,230309
4581.32,-0.212441,0,229990,229990
4591.13,-0.201278,0,230224,230224
4600.95,-0.189951,0,230919,230919
4610.77,-0.178691,0,231219,231219
4620.58,-0.167544,0,230667,230667
4630.4,-0.156592,0,231017,231017
4640.22,-0.14605,0,230941,230941
4650.03,-0.136078,0,230757,230757
4661.49,-0.125207,0,231583,231583
4671.33,-0.116448,0,231637,231637
4681.18,-0.108099,0,231726,231726
4691.06,-0.100041,0,231832,231832
4700.97,-0.0922309,0,232128,232128
4710.87,-0.0846966,0,231760,231760
4720.78,-0.0774144,0,231723,231723
4730.68,-0.0704711,0,232397,232397
4740.59,-0.0640581,0,232633,232633
4750.49,-0.0578537,0,232918,232918
4760.4,-0.0530137,0,233203,233203
4770.31,-0.0483397,0,233522,233522
4780.21,-0.0440604,0,233464,233464
4790.12,-0.0401675,0,233332,233332
4800.03,-0.036423,0,233720,233720
4811.6,-0.0311836,0,233715,233715
4821.52,-0.0283931,0,233247,233247
4831.39,-0.0259016,0,233074,233074
4841.22,-0.0234665,0,233348,233348
4851.05,-0.0213813,0,233480,233480
4860.87,-0.0194628,0,233333,233333
4870.69,-0.0176207,0,233439,233439
4880.52,-0.0159772,0,233369,233369
4890.34,-0.0145854,0,233232,233232
4900.17,-0.0150019,0,232981,232981
4911.63,-0.0137431,0,233092,233092
4921.45,-0.0126957,0,232994,232994
4931.28,-0.011548,0,233609,233609
4941.1,-0.0106226,0,233884,233884
4950.93,-0.00981669,0,233786,233786
4960.76,-0.00907363,0,233335,233335
4970.58,-0.00797504,0,233537,233537
4980.41,-0.00754777,0,233520,233520
4990.23,-0.00717464,0,233426,233426
5000.06,-0.00667639,0,233483,233483
5011.58,-0.00643879,0,233769,233769
5021.48,-0.00627048,0,233827,233827
5031.37,-0.00613035,0,233609,233609
5041.35,-0.00601269,0,233482,233482
5051.34,-0.00592184,0,233736,233736
5061.34,-0.00651003,0,233328,233328
5071.36,-0.00647218,0,233493,233493
5081.38,-0.00651595,0,233534,233534
5091.41,-0.00660934,0,233991,233991
5101.43,-0.0067407,0,234124,234124
5111.45,-0.006901,0,233613,233613
5121.48,-0.00708488,0,233371,233371
5131.5,-0.00728933,0,233532,233532
5141.52,-0.00751412,0,233577,233577
5151.55,-0.00775884,0,233329,233329
5161.57,-0.00802206,0,233001,233001
5171.59,-0.00830232,0,233017,233017
5181.6,-0.00859767,0,233098,233098
5191.58,-0.00890765,0,232720,232720
5201.57,-0.00923349,0,232218,232218
5211.49,-0.00957345,0,232445,232445
5221.42,-0.00992984,0,232211,232211
5231.34,-0.0103027,0,232225,232225
5241.27,-0.0106916,0,232293,232293
5251.19,-0.0110842,0,232154,232154
5261.12,-0.0114681,0,232052,232052
5271.04,-0.0118493,0,231777,231777
5280.97,-0.012234,0,231967,231967
5290.9,-0.0126161,0,232300,232300
5300.82,-0.0129824,0,232097,232097
5310.75,-0.0133539,0,231998,231998
5320.67,-0.0137448,0,231799,231799
5330.6,-0.0141642,0,231843,231843
5340.54,-0.0146182,0,231750,231750
5350.48,-0.0151094,0,232073,232073
5360.43,-0.0152187,0,231722,231722
5370.38,-0.0154463,0,231771,231771
5380.32,-0.0158467,0,231787,231787
5390.29,-0.016381,0,231828,231828
5400.27,-0.0170143,0,231463,231463
5410.27,-0.017716,0,231208,231208
5420.29,-0.0184672,0,231218,231218
5430.34,-0.0192552,0,231222,231222
5440.42,-0.02007,0,231215,231215
5450.5,-0.0209005,0,231248,231248
5460.57,-0.0217382,0,231461,231461
5470.63,-0.0225777,0,231599,231599
5480.72,-0.0234179,0,231430,231430
5490.81,-0.0242534,0,231269,231269
5500.9,-0.0250831,0,231225,231225
5510.99,-0.025906,0,231617,231617
5521.11,-0.026722,0,231361,231361
5531.22,-0.0275329,0,231129,231129
5541.36,-0.0283451,0,230863,230863
5551.5,-0.0291604,0,230798,230798
5561.63,-0.0299807,0,231127,231127
5570.07,-0.0306704,0,231136,231136
5580.21,-0.0315067,0,230921,230921
5590.35,-0.0323513,0,230921,230921
5600.5,-0.033203,0,230972,230972
5610.64,-0.0340599,0,231170,231170
5620.78,-0.0349199,0,230984,230984
5630.92,-0.0357807,0,230682,230682
5641.05,-0.0366406,0,231004,231004
5651.18,-0.0374967,0,230987,230987
5661.32,-0.0383476,0,230669,230669
5671.44,-0.0391913,0,230333,230333
5681.57,-0.0400255,0,229985,229985
5690,-0.0407118,0,229944,229944
5700.11,-0.0415225,0,229925,229925
5710.22,-0.0423184,0,229941,229941
5720.32,-0.0430969,0,229501,229501
5730.38,-0.0438544,0,229352,229352
5740.45,-0.0445916,0,229235,229235
5750.52,-0.0453064,0,229274,229274
5760.59,-0.0459968,0,228992,228992
5770.66,-0.0466605,0,228732,228732
5780.73,-0.0472953,0,228304,228304
5790.8,-0.0478997,0,228278,228278
5800.86,-0.0484736,0,228734,228734
5810.94,-0.0490185,0,228748,228748
5821.02,-0.0495422,0,228471,228471
5831.12,-0.0500493,0,228278,228278
5841.22,-0.0504163,0,228377,228377
5851.32,-0.050613,0,228184,228184
5861.42,-0.0509282,0,228262,228262
5871.52,-0.0513515,0,228173,228173
5881.63,-0.0518086,0,228218,228218
5890.06,-0.0521832,0,228318,228318
5900.18,-0.0526139,0,227589,227589
5910.3,-0.0530041,0,227855,227855
5920.42,-0.0533418,0,227638,227638
5930.54,-0.0536262,0,227386,227386
5940.66,-0.0538601,0,227226,227226
5950.78,-0.0540453,0,227814,227814
5960.9,-0.0543157,0,227612,227612
5971.02,-0.0545859,0,227419,227419
5981.14,-0.0528842,0,227445,227445
5991.26,-0.0527461,0,227517,227517
6001.38,-0.0525608,0,226913,226913
6011.5,-0.0523236,0,227137,227137
6021.63,-0.0520478,0,227187,227187
6030.08,-0.0517938,0,227010,227010
6040.21,-0.0514626,0,227278,227278
6050.35,-0.0511028,0,226977,226977
6060.49,-0.0507122,0,227218,227218
6070.63,-0.0502879,0,226913,226913
6080.77,-0.049827,0,226797,226797
6090.91,-0.0493268,0,226624,226624
6101.05,-0.0498045,0,226780,226780
6111.19,-0.0499921,0,226660,226660
6121.33,-0.0499815,0,226390,226390
6131.47,-0.049805,0,226316,226316
6141.62,-0.0494697,0,226101,226101
6150.05,-0.0490766,0,225556,225556
6160.16,-0.0484783,0,225452,225452
6170.27,-0.0477504,0,225363,225363
6180.38,-0.0469072,0,225267,225267
6190.47,-0.0459666,0,225155,225155
6200.56,-0.0456989,0,225476,225476
6210.59,-0.0450461,0,224726,224726
6220.64,-0.0441505,0,224979,224979
6230.73,-0.0430918,0,224433,224433
6240.82,-0.0419351,0,224340,224340
6250.9,-0.0407214,0,224283,224283
6260.98,-0.0394654,0,223672,223672
6271.05,-0.0382794,0,223845,223845
6281.1,-0.0371152,0,223791,223791
6291.14,-0.0358824,0,224193,224193
6301.18,-0.0345563,0,223942,223942
6311.21,-0.0331382,0,223678,223678
6321.25,-0.0316368,0,223877,223877
6331.28,-0.0300588,0,223733,223733
6341.32,-0.0284062,0,223279,223279
6351.36,-0.0266994,0,223391,223391
6361.4,-0.0249375,0,222815,222815
6371.44,-0.0231015,0,223513,223513
6381.48,-0.0211951,0,223541,223541
6391.52,-0.0192521,0,223378,223378
6401.57,-0.0172529,0,223476,223476
6411.59,-0.0163927,0,223414,223414
6421.63,-0.0157974,0,223027,223027
6431.65,-0.0143494,0,223081,223081
6441.66,-0.0123838,0,222824,222824
6450.02,-0.010598,0,222792,222792
6460.04,-0.00824411,0,222948,222948
6470.07,-0.00572609,0,222975,222975
6480.1,-0.00314534,0,223145,223145
6490.14,-0.00057279,0,223328,223328
6500.24,0.00197154,0,223388,223388
6510.36,0.00446074,0,223742,223742
6520.47,0.00688263,0,223090,223090
6530.58,0.00924548,0,222913,222913
6540.68,0.0116174,0,222712,222712
6550.78,0.0140253,0,222275,222275
6560.87,0.0164438,0,222278,222278
6570.96,0.0188199,0,222613,222613
6581.04,0.0211051,0,222719,222719
6591.12,0.0232641,0,222947,222947
6601.19,0.0252793,0,222627,222627
6611.26,0.0271799,0,222688,222688
6621.33,0.0289242,0,222583,222583
6631.42,0.0305468,0,222850,222850
6641.51,0.0321,0,222402,222402
6651.62,0.0335709,0,222289,222289
6660.05,0.0347201,0,222267,222267
6670.17,0.0359948,0,222066,222066
6680.29,0.0371574,0,221996,221996
6690.42,0.0382078,0,221931,221931
6700.53,0.0391514,0,221776,221776
6710.65,0.0399951,0,221706,221706
6720.42,0.0410919,0,221653,221653
6730.57,0.0415012,0,221346,221346
6740.67,0.0418599,0,221383,221383
6750.81,0.0423454,0,221262,221262
6760.95,0.0430916,0,221367,221367
6771.09,0.043301,0,221099,221099
6781.24,0.0434381,0,221423,221423
6791.38,0.0436016,0,221711,221711
6801.52,0.0436718,0,221462,221462
6811.68,0.0436495,0,221530,221530
6820.15,0.0435737,0,221705,221705
6830.32,0.0434249,0,221686,221686
6840.48,0.0432218,0,221291,221291
6850.61,0.0429698,0,220871,220871
6860.71,0.0426719,0,221068,221068
6870.79,0.0423287,0,220957,220957
6880.87,0.0419389,0,220987,220987
6890.94,0.0415039,0,221395,221395
6901.02,0.0410227,0,221781,221781
6911.11,0.0404964,0,221922,221922
6921.21,0.039928,0,221574,221574
6931.32,0.0393483,0,221475,221475
6941.43,0.0387527,0,221691,221691
6951.58,0.0381203,0,221976,221976
6960.06,0.0375584,0,221472,221472
6970.25,0.0368433,0,221404,221404
6980.43,0.0360656,0,221443,221443
6990.61,0.0352119,0,220968,220968
7000.79,0.0342789,0,220992,220992
7010.99,0.0332694,0,220959,220959
7021.15,0.0332198,0,221050,221050
7031.31,0.032883,0,220787,220787
7041.45,0.0321935,0,220402,220402
7051.56,0.0312583,0,220419,220419
7061.63,0.0301523,0,220057,220057
7070.03,0.0292007,0,220356,220356
7080.1,0.0280828,0,220531,220531
7090.18,0.0269133,0,220428,220428
7100.25,0.0256767,0,220134,220134
7110.33,0.0244415,0,219913,219913
7120.41,0.0231745,0,219725,219725
7130.48,0.0218506,0,220220,220220
7140.56,0.0204848,0,220344,220344
7150.64,0.0190997,0,219993,219993
7160.72,0.0177142,0,219787,219787
7170.79,0.0163463,0,219412,219412
7180.87,0.0150085,0,219809,219809
7190.95,0.0136907,0,219316,219316
7201.03,0.0123819,0,219307,219307
7211.11,0.0110814,0,218983,218983
7221.19,0.00979896,0,218898,218898
7231.28,0.00854712,0,219188,219188
7241.35,0.00733044,0,219181,219181
7251.41,0.00616524,0,219139,219139
7261.47,0.00506764,0,219149,219149
7271.51,0.00404996,0,219172,219172
7281.52,0.0031687,0,219120,219120
7291.52,0.00240282,0,219046,219046
7301.5,0.00166674,0,219125,219125
7311.46,0.000965968,0,218668,218668
7321.43,0.000301729,0,218458,218458
7331.39,-0.000324199,0,218653,218653
7341.35,-0.00091745,0,218450,218450
7351.32,-0.00147992,0,219069,219069
7361.28,-0.00200951,0,218815,218815
7371.24,-0.00250446,0,219219,219219
7381.2,-0.00306434,0,219343,219343
7391.15,-0.00352831,0,219234,219234
7401.1,-0.00393675,0,219190,219190
7411.03,-0.00431181,0,218872,218872
7420.97,-0.00464812,0,219301,219301
7430.91,-0.00508577,0,218946,218946
7440.84,-0.00552258,0,219065,219065
7450.78,-0.00583977,0,219233,219233
7460.72,-0.0063412,0,219334,219334
7470.67,-0.00644638,0,219739,219739
7480.63,-0.00569336,0,219868,219868
7490.6,-0.00562513,0,220241,220241
7500.57,-0.00553093,0,219911,219911
7510.55,-0.00541106,0,220082,220082
7520.52,-0.00526461,0,219808,219808
7530.49,-0.00508901,0,220052,220052
7540.46,-0.00488341,0,219687,219687
7550.44,-0.00464774,0,219323,219323
7560.42,-0.0043959,0,219356,219356
7570.41,-0.00416787,0,218885,218885
7580.4,-0.00388805,0,219000,219000
7590.4,-0.00356056,0,218753,218753
7600.41,-0.00318727,0,219074,219074
7610.4,-0.00277086,0,219120,219120
7620.41,-0.00231394,0,219261,219261
7630.44,-0.00182416,0,219242,219242
7640.46,-0.00150297,0,219348,219348
7650.49,-0.00194659,0,219261,219261
7660.52,-0.0021615,0,218966,218966
7670.55,-0.00220051,0,218862,218862
7680.58,-0.00208899,0,218935,218935
7690.61,-0.00184337,0,218951,218951
7700.64,-0.00147863,0,218966,218966
7710.65,-0.0010112,0,218926,218926
7720.66,-0.000455562,0,218903,218903
7730.65,0.000161211,0,219118,219118
7740.63,0.000812933,0,219021,219021
7750.6,0.00151571,0,219188,219188
7760.56,0.00226983,0,219724,219724
7770.52,0.00307086,0,220096,220096
7780.48,0.00391136,0,220510,220510
7790.44,0.00478318,0,220622,220622
7800.4,0.00567813,0,220184,220184
7810.35,0.00658935,0,220157,220157
7820.29,0.0075123,0,220442,220442
7830.22,0.00844414,0,220163,220163
7840.11,0.00861438,0,220436,220436
7851.63,0.00916045,0,220747,220747
7861.48,0.00992535,0,220418,220418
7871.3,0.0108498,0,220403,220403
7881.12,0.011867,0,220682,220682
7890.93,0.0129294,0,220416,220416
7900.73,0.0140002,0,220092,220092
7910.48,0.0150523,0,220449,220449
7920.15,0.0160629,0,220321,220321
7931.46,0.0171284,0,219629,219629
7941.11,0.0179507,0,219608,219608
7950.73,0.0187453,0,220099,220099
7960.36,0.0195078,0,220060,220060
7971.57,0.0203504,0,219993,219993
7981.19,0.0210109,0,219909,219909
7990.8,0.0216059,0,219745,219745
8000.41,0.0221343,0,219407,219407
8010.02,0.0225996,0,218983,218983
8021.24,0.0230694,0,219356,219356
8030.85,0.023415,0,218509,218509
8040.46,0.023712,0,218388,218388
8050.07,0.0239629,0,218290,218290
8061.29,0.0243842,0,218326,218326
8070.9,0.0243994,0,218155,218155
8080.53,0.0244043,0,218056,218056
8090.16,0.0243884,0,218145,218145
8101.42,0.0243349,0,217380,217380
8111.08,0.0242539,0,217286,217286
8120.75,0.0241366,0,217580,217580
8130.41,0.0239796,0,216792,216792
8140.08,0.0237798,0,216381,216381
8151.37,0.0234892,0,217140,217140
8161.06,0.0231863,0,216721,216721
8170.77,0.022826,0,216243,216243
8180.48,0.0224091,0,216479,216479
8190.2,0.0219497,0,216583,216583
8201.58,0.0213737,0,215994,215994
8211.33,0.0208454,0,215642,215642
8221.07,0.0202735,0,216032,216032
8230.82,0.0196462,0,215483,215483
8240.57,0.018955,0,215353,215353
8250.32,0.0181956,0,215103,215103
8260.07,0.0173671,0,215003,215003
8271.45,0.016315,0,214804,214804
8281.2,0.0153422,0,214149,214149
8290.95,0.0154422,0,213885,213885
8300.7,0.0150229,0,214477,214477
8310.45,0.0143125,0,214302,214302
8320.21,0.0134406,0,214099,214099
8331.61,0.012169,0,213846,213846
8341.39,0.0108724,0,213853,213853
8351.16,0.00942983,0,213642,213642
8360.94,0.00789776,0,213150,213150
8370.72,0.00631745,0,213502,213502
8380.5,0.00470617,0,213766,213766
8390.27,0.0030617,0,213503,213503
8400.05,0.00137366,0,213563,213563
8411.46,-0.000597716,0,213659,213659
8421.23,-0.00235561,0,213515,213515
8431.01,-0.00421861,0,213432,213432
8440.78,-0.00619193,0,213554,213554
8450.55,-0.00596571,0,213815,213815
8460.31,-0.0068075,0,213526,213526
8470.06,-0.00834768,0,213263,213263
8481.41,-0.0106626,0,213173,213173
8491.14,-0.0128805,0,213260,213260
8500.87,-0.0152008,0,213218,213218
8510.6,-0.0175697,0,213507,213507
8520.33,-0.0199604,0,213292,213292
8530.06,-0.0223577,0,213011,213011
8541.41,-0.0251455,0,213180,213180
8551.14,-0.027513,0,213192,213192
8560.87,-0.0298486,0,212923,212923
8570.59,-0.0321434,0,212832,212832
8580.32,-0.0344001,0,213213,213213
8590.05,-0.036649,0,212990,212990
8601.4,-0.0392981,0,213000,213000
8611.14,-0.0415848,0,212811,212811
8620.91,-0.0438531,0,212371,212371
8630.68,-0.0460582,0,212759,212759
8640.44,-0.0481657,0,212422,212422
8650.21,-0.0501561,0,212831,212831
8661.61,-0.0523245,0,212343,212343
8671.38,-0.054087,0,212110,212110
8681.15,-0.0558015,0,212371,212371
8690.92,-0.0573595,0,212156,212156
8700.69,-0.0587668,0,211961,211961
8710.45,-0.0600644,0,211450,211450
8720.19,-0.0612508,0,211499,211499
8731.55,-0.0625311,0,211717,211717
8741.29,-0.0635595,0,211645,211645
8751.03,-0.0645127,0,211293,211293
8760.77,-0.0653902,0,211341,211341
8770.51,-0.0661898,0,211367,211367
8780.25,-0.0681988,0,211342,211342
8791.61,-0.0685953,0,211084,211084
8801.35,-0.0688482,0,211168,211168
8811.1,-0.0686916,0,211056,211056
8820.85,-0.0686705,0,210870,210870
8830.62,-0.0686235,0,211010,211010
8840.38,-0.0686012,0,210659,210659
8850.15,-0.0685251,0,210229,210229
8861.56,-0.068377,0,210002,210002
8871.34,-0.0682023,0,209906,209906
8881.11,-0.0679838,0,209445,209445
8890.88,-0.0677224,0,209216,209216
8900.65,-0.0674233,0,209533,209533
8910.42,-0.0670822,0,209219,209219
8920.19,-0.0667069,0,209433,209433
8931.59,-0.0662386,0,209490,209490
8941.36,-0.0658188,0,209491,209491
8951.13,-0.0653856,0,210020,210020
8960.91,-0.0649402,0,209636,209636
8970.69,-0.0644833,0,209826,209826
8980.47,-0.0640145,0,209155,209155
8990.25,-0.0635339,0,208986,208986
9000.02,-0.0630407,0,209174,209174
9011.42,-0.0624493,0,209223,209223
9021.19,-0.0619283,0,209198,209198
9030.96,-0.0613945,0,209145,209145
9040.73,-0.0608483,0,208999,208999
9050.5,-0.0602902,0,209214,209214
9060.27,-0.059721,0,208999,208999
9070.04,-0.0591419,0,209236,209236
9081.45,-0.0584545,0,209387,209387
9091.24,-0.0578573,0,208960,208960
9101.03,-0.0572545,0,208704,208704
9110.8,-0.0566487,0,208532,208532
9120.56,-0.0560408,0,208393,208393
9130.31,-0.0554334,0,208311,208311
9140.05,-0.0548264,0,208149,208149
9151.41,-0.0541218,0,207870,207870
9161.13,-0.0535219,0,207519,207519
9170.82,-0.0529278,0,206888,206888
9180.52,-0.052339,0,206346,206346
9190.21,-0.0517564,0,206702,206702
9201.52,-0.0510856,0,206545,206545
9211.23,-0.0505186,0,206263,206263
9220.96,-0.0499593,0,206118,206118
9230.71,-0.0494085,0,206098,206098
9240.46,-0.0488683,0,206708,206708
9250.2,-0.0483396,0,206474,206474
9261.57,-0.0477381,0,206198,206198
9271.31,-0.0472365,0,206116,206116
9281.05,-0.0467483,0,205439,205439
9290.8,-0.0462742,0,205017,205017
9300.54,-0.0458148,0,205104,205104
9310.28,-0.0453705,0,204309,204309
9321.61,-0.0448734,0,204678,204678
9331.31,-0.0444582,0,204454,204454
9340.99,-0.0440502,0,203989,203989
9350.66,-0.043657,0,203911,203911
9360.33,-0.0432834,0,204019,204019
9371.58,-0.0428758,0,203986,203986
9381.19,-0.0425532,0,203557,203557
9390.79,-0.0422543,0,203181,203181
9400.39,-0.0419773,0,203300,203300
9411.59,-0.0416794,0,202941,202941
9421.21,-0.0414432,0,203427,203427
9430.84,-0.041223,0,203836,203836
9440.48,-0.0410175,0,203627,203627
9450.11,-0.040825,0,203821,203821
9461.36,-0.040615,0,203760,203760
9471.02,-0.0404461,0,203983,203983
9480.67,-0.0402864,0,203609,203609
9490.33,-0.0401353,0,203574,203574
9501.59,-0.039969,0,203678,203678
9511.25,-0.0398344,0,203660,203660
9520.9,-0.0402933,0,203159,203159
9530.56,-0.040226,0,202966,202966
9540.21,-0.0401563,0,202843,202843
9551.48,-0.0400745,0,202573,202573
9561.14,-0.0399562,0,202427,202427
9570.81,-0.039847,0,202347,202347
9580.51,-0.0390094,0,202169,202169
9590.25,-0.0389847,0,201930,201930
9600.01,-0.0389574,0,201909,201909
9611.42,-0.0389227,0,202005,202005
9621.22,-0.038892,0,201763,201763
9631.02,-0.0388616,0,202076,202076
9640.82,-0.0388326,0,201802,201802
9650.61,-0.0388058,0,201966,201966
9660.41,-0.0387883,0,201658,201658
9670.21,-0.0387821,0,201340,201340
9680,-0.0387849,0,201445,201445
9691.43,-0.0387964,0,201777,201777
9701.24,-0.0388114,0,202007,202007
9711.05,-0.0388296,0,202089,202089
9720.87,-0.0388499,0,202216,202216
9730.69,-0.0388712,0,201924,201924
9740.5,-0.0388924,0,201586,201586
9750.33,-0.0389424,0,201825,201825
9760.16,-0.0389974,0,201710,201710
9771.63,-0.0390489,0,201664,201664
9781.46,-0.0390838,0,202114,202114
9791.29,-0.039111,0,202046,202046
9801.12,-0.0391315,0,202078,202078
9810.95,-0.0391458,0,201776,201776
9820.77,-0.0391544,0,201933,201933
9830.6,-0.0391577,0,202138,202138
9840.43,-0.0391559,0,202133,202133
9850.26,-0.0391494,0,202538,202538
9860.13,-0.0391415,0,202905,202905
9870.01,-0.0391383,0,202354,202354
9881.55,-0.0391357,0,201946,201946
9891.41,-0.0391313,0,202313,202313
9901.24,-0.0391216,0,202681,202681
9911.02,-0.0391053,0,202329,202329
9920.77,-0.0390829,0,202290,202290
9930.49,-0.0390546,0,202366,202366
9940.18,-0.0390204,0,202424,202424
9951.47,-0.0389729,0,202808,202808
9961.15,-0.0389253,0,203628,203628
9970.83,-0.0388713,0,203724,203724
9980.51,-0.0388104,0,202512,202512
9990.2,-0.0387426,0,202264,202264
10001.5,-0.0386542,0,201863,201863
10011.3,-0.0385696,0,201731,201731
10021.1,-0.0384775,0,200917,200917
10030.8,-0.0383784,0,200622,200622
10040.5,-0.0382717,0,200843,200843
10050.3,-0.0381574,0,200795,200795
10061.6,-0.0380142,0,201140,201140
10071.3,-0.0378829,0,200523,200523
10081,-0.0377433,0,199837,199837
10090.7,-0.0375955,0,199491,199491
10100.5,-0.0374393,0,199848,199848
10110.2,-0.0372753,0,199659,199659
10120.1,-0.0370729,0,199234,199234
10131.5,-0.0365493,0,198893,198893
10141.4,-0.0362085,0,198874,198874
10151.3,-0.0359204,0,198757,198757
10161.2,-0.0356517,0,198324,198324
10171.2,-0.0353853,0,197750,197750
10181.1,-0.0351139,0,197961,197961
10191,-0.034836,0,197580,197580
10200.9,-0.0345528,0,196687,196687
10210.9,-0.0342663,0,196469,196469
10220.8,-0.0339783,0,196408,196408
10230.7,-0.0336903,0,196282,196282
10240.6,-0.0334028,0,196234,196234
10250.5,-0.0331166,0,196338,196338
10260.4,-0.0328309,0,195927,195927
10270.2,-0.0325441,0,195853,195853
10280.1,-0.0322541,0,195611,195611
10291.6,-0.0319029,0,195246,195246
10301.5,-0.0315937,0,194723,194723
10311.4,-0.0312784,0,194305,194305
10321.3,-0.0309562,0,194568,194568
10331.2,-0.0306248,0,194252,194252
10341.1,-0.0302803,0,194053,194053
10351,-0.0299177,0,193872,193872
10360.9,-0.0295324,0,193900,193900
10370.8,-0.0291208,0,194090,194090
10380.7,-0.0286808,0,193744,193744
10390.6,-0.0282133,0,194530,194530
10400.5,-0.0277189,0,194344,194344
10410.4,-0.0271974,0,194332,194332
10420.3,-0.026733,0,194332,194332
10430.2,-0.026204,0,193644,193644
10440,-0.0256127,0,193142,193142
10451.6,-0.024849,0,192811,192811
10461.4,-0.0241363,0,192906,192906
10471.3,-0.0233754,0,192939,192939
10481.2,-0.0225723,0,193208,193208
10491.1,-0.0217341,0,193228,193228
10500.9,-0.0208767,0,193085,193085
10510.8,-0.0200003,0,192977,192977
10520.7,-0.0190976,0,192660,192660
10530.5,-0.018162,0,192462,192462
10540.4,-0.0171886,0,192200,192200
10550.3,-0.0166326,0,192375,192375
10560.1,-0.0165772,0,191472,191472
10571.6,-0.0159855,0,191167,191167
10581.5,-0.0151768,0,190894,190894
10591.4,-0.0141992,0,190996,190996
10601.2,-0.0132118,0,190958,190958
10611.1,-0.012156,0,191084,191084
10621,-0.0110058,0,191332,191332
10630.8,-0.00976598,0,191159,191159
10640.7,-0.00844999,0,190848,190848
10650.6,-0.00707072,0,191234,191234
10660.4,-0.00564011,0,191203,191203
10670.3,-0.00416931,0,191216,191216
10680.2,-0.00266599,0,191439,191439
10690,-0.0011417,0,191885,191885
10701.5,0.000648224,0,191349,191349
10711.4,0.00218967,0,190668,190668
10721.1,0.00372429,0,191057,191057
10730.9,0.00525485,0,191617,191617
10740.6,0.00677962,0,191178,191178
10750.3,0.00829818,0,191203,191203
10760,0.00981053,0,191224,191224
10771.3,0.0115655,0,191527,191527
10781,0.01306,0,191166,191166
10790.8,0.0145439,0,191066,191066
10800.5,0.0160157,0,190621,190621
10810.2,0.0174722,0,190016,190016
10821.5,0.0191561,0,189937,189937
10831.2,0.0205832,0,190146,190146
10840.9,0.0219936,0,190008,190008
10850.6,0.0233828,0,189224,189224
10860.3,0.0247504,0,188871,188871
10871.6,0.0263183,0,188772,188772
10881.3,0.0276362,0,188720,188720
10890.9,0.0289274,0,188874,188874
10900.6,0.0301917,0,188827,188827
10910.3,0.0314272,0,188642,188642
10921.5,0.0328291,0,188099,188099
10931.2,0.0339945,0,187189,187189
10940.9,0.0351326,0,186762,186762
10950.5,0.0362516,0,186629,186629
10960.2,0.0373398,0,186478,186478
10971.5,0.0385497,0,185962,185962
10981.2,0.039471,0,186406,186406
10990.9,0.0403583,0,186590,186590
11000.7,0.0412317,0,186332,186332
11010.5,0.042057,0,185952,185952
11020.3,0.0428133,0,185542,185542
11030.1,0.0434855,0,185337,185337
11040,0.0440634,0,184744,184744
11051.5,0.044618,0,183811,183811
11061.4,0.0449984,0,183640,183640
11071.2,0.0452981,0,183589,183589
11081.1,0.0470491,0,182876,182876
11091,0.047063,0,182703,182703
11100.8,0.0480484,0,182442,182442
11110.7,0.047943,0,182072,182072
11120.6,0.0478164,0,181737,181737
11130.5,0.0476696,0,182010,182010
11140.4,0.0475029,0,181623,181623
11150.3,0.0473171,0,181513,181513
11160.2,0.0471125,0,181104,181104
11170.2,0.0469281,0,180782,180782
11180.2,0.0467808,0,181014,181014
11190.3,0.0465903,0,180756,180756
11200.3,0.0463632,0,180015,180015
11210.3,0.046105,0,179751,179751
11220.3,0.0458199,0,179461,179461
11230.3,0.0455087,0,179030,179030
11240.3,0.0451703,0,178151,178151
11250.3,0.0448095,0,177566,177566
11260.3,0.0444296,0,177849,177849
11270.3,0.0440341,0,177726,177726
11280.3,0.0436257,0,177067,177067
11290.3,0.0432073,0,176292,176292
11300.3,0.0427798,0,176261,176261
11310.2,0.0423442,0,176266,176266
11320.2,0.0419005,0,175954,175954
11330.2,0.0414495,0,175797,175797
11340.1,0.0409923,0,175473,175473
11350.1,0.0405309,0,174982,174982
11360.1,0.0400664,0,174282,174282
11370,0.0395992,0,174234,174234
11381.6,0.0390509,0,173865,173865
11391.6,0.0385782,0,173830,173830
11401.6,0.0381021,0,172930,172930
11411.6,0.0376229,0,172658,172658
11421.6,0.03714,0,172837,172837
11431.5,0.0366543,0,172788,172788
11441.5,0.0361655,0,172466,172466
11451.5,0.0356739,0,172278,172278
11461.5,0.0351795,0,171866,171866
11471.4,0.0346826,0,171706,171706
11481.4,0.0341834,0,171992,171992
11491.4,0.0336815,0,171806,171806
11501.4,0.0331756,0,171956,171956
11511.5,0.0326673,0,172080,172080
11521.5,0.032157,0,171838,171838
11531.6,0.0316502,0,171689,171689
11541.7,0.0311491,0,171311,171311
11550.1,0.0307328,0,171421,171421
11560.1,0.0302337,0,171378,171378
11570,0.029737,0,171693,171693
11581.6,0.0291573,0,171866,171866
11591.5,0.0286612,0,171596,171596
11601.3,0.0281671,0,171776,171776
11611.1,0.0276749,0,172102,172102
11620.8,0.0271843,0,172072,172072
11630.6,0.0266957,0,171708,171708
11640.3,0.0262093,0,171130,171130
11650,0.0257255,0,171054,171054
11661.4,0.025165,0,171121,171121
11671.1,0.0246884,0,170377,170377
11680.9,0.0242161,0,169991,169991
11690.6,0.0237482,0,169414,169414
11700.3,0.0232853,0,169671,169671
11710.1,0.0228277,0,169421,169421
11721.5,0.0222997,0,168773,168773
11731.3,0.0218522,0,168531,168531
11741.1,0.021409,0,168567,168567
11751,0.0209713,0,169133,169133
11760.9,0.0205399,0,169082,169082
11770.8,0.0201157,0,168941,168941
11780.7,0.0196978,0,169415,169415
11790.6,0.0192868,0,168999,168999
11800.6,0.0188839,0,168738,168738
11810.5,0.018489,0,169188,169188
11820.5,0.0181021,0,168930,168930
11830.4,0.0177226,0,168842,168842
11840.4,0.017351,0,168103,168103
11850.4,0.0169881,0,167730,167730
11860.4,0.0166339,0,167616,167616
11870.4,0.0162887,0,167249,167249
11880.4,0.0159524,0,167329,167329
11890.4,0.015625,0,167162,167162
11900.4,0.0153065,0,166948,166948
11910.4,0.014997,0,166984,166984
11920.4,0.0146967,0,166569,166569
11930.4,0.0144059,0,165891,165891
11940.4,0.0141246,0,166134,166134
11950.4,0.0138529,0,165750,165750
11960.4,0.0135906,0,165503,165503
11970.4,0.0133379,0,165401,165401
11980.3,0.0130944,0,165158,165158
11990.3,0.0128604,0,164559,164559
12000.3,0.012634,0,164190,164190
12010.3,0.0124137,0,164026,164026
12020.3,0.0121992,0,163623,163623
12030.3,0.0119912,0,163616,163616
12040.3,0.0117358,0,163981,163981
12050.2,0.0114851,0,163647,163647
12060.2,0.0112653,0,163384,163384
12070.1,0.0110713,0,163518,163518
12080.1,0.0108979,0,162888,162888
12090,0.0107341,0,162294,162294
12101.6,0.010556,0,161835,161835
12111.5,0.0104171,0,161153,161153
12121.5,0.0102915,0,160722,160722
12131.4,0.0101791,0,160738,160738
12141.4,0.0100792,0,160350,160350
12151.3,0.00999078,0,160054,160054
12161.3,0.0107099,0,159849,159849
12171.3,0.0104805,0,159893,159893
12181.2,0.0101914,0,159854,159854
12191.2,0.00998615,0,159868,159868
12201.2,0.00984153,0,159684,159684
12211.1,0.00974209,0,159685,159685
12221.1,0.00967768,0,159496,159496
12231,0.00964247,0,159774,159774
12241,0.00963507,0,159780,159780
12250.9,0.00964834,0,159007,159007
12260.9,0.00967589,0,158754,158754
12270.8,0.0097128,0,158661,158661
12280.6,0.00975383,0,158375,158375
12290.5,0.00978337,0,157998,157998
12300.3,0.00980694,0,158079,158079
12310.1,0.00983261,0,157872,157872
12321.6,0.00986808,0,157753,157753
12331.4,0.00990364,0,157632,157632
12341.2,0.0108859,0,157705,157705
12351,0.010901,0,157185,157185
12360.8,0.0109253,0,157037,157037
12370.7,0.011013,0,156824,156824
12380.5,0.0111897,0,156456,156456
12390.3,0.0113397,0,156621,156621
12400.1,0.0114672,0,156720,156720
12410,0.0115758,0,156691,156691
12421.5,0.0116824,0,156033,156033
12431.4,0.0117593,0,156122,156122
12441.3,0.0118249,0,156004,156004
12451.2,0.011881,0,155497,155497
12461.2,0.0119289,0,155296,155296
12471.2,0.0119698,0,155162,155162
12481.1,0.0119992,0,154759,154759
12491.1,0.0120083,0,155054,155054
12501.1,0.0120087,0,155074,155074
12511.1,0.0120032,0,154974,154974
12521.1,0.0119933,0,154202,154202
12531.1,0.0119804,0,153765,153765
12541.1,0.0119667,0,153206,153206
12551.1,0.0119518,0,153099,153099
12561,0.011935,0,153083,153083
12571,0.0118841,0,152777,152777
12580.9,0.0117785,0,152897,152897
12590.9,0.0116856,0,152531,152531
12600.8,0.0116028,0,152500,152500
12610.7,0.0115429,0,152430,152430
12620.6,0.011501,0,151793,151793
12630.6,0.0114607,0,151879,151879
12640.5,0.0114211,0,151670,151670
12650.4,0.0113815,0,151214,151214
12660.3,0.0113414,0,150742,150742
12670.2,0.0113004,0,150625,150625
12680.1,0.0112578,0,150523,150523
12691.6,0.0112057,0,150662,150662
12701.5,0.0111585,0,150517,150517
12711.4,0.0111086,0,150506,150506
12721.3,0.0110557,0,149996,149996
12731.2,0.0107809,0,149958,149958
12741.1,0.0105734,0,149993,149993
12751,0.0104052,0,149482,149482
12761,0.0102624,0,149139,149139
12770.9,0.0101385,0,149152,149152
12780.8,0.0100301,0,149179,149179
12790.7,0.00993468,0,148902,148902
12800.6,0.00984941,0,148534,148534
12810.5,0.00977164,0,148123,148123
12820.4,0.00969936,0,147710,147710
12830.3,0.0096306,0,147453,147453
12840.2,0.00956317,0,148029,148029
12850,0.00949494,0,147874,147874
12861.6,0.00941129,0,147366,147366
12871.4,0.00934333,0,147356,147356
12881.3,0.00930079,0,147369,147369
12891.3,0.00922647,0,146968,146968
12901.2,0.00912648,0,146585,146585
12911.1,0.0090055,0,146452,146452
12921,0.0088674,0,146452,146452
12930.9,0.00871494,0,146553,146553
12940.8,0.00855017,0,146658,146658
12950.7,0.00837436,0,146775,146775
12960.6,0.00818858,0,146573,146573
12970.5,0.00799352,0,146400,146400
12980.4,0.00778973,0,146186,146186
12990.3,0.00757741,0,145722,145722
13000.2,0.00735686,0,145591,145591
13010.1,0.00712813,0,145808,145808
13020,0.00689158,0,145837,145837
13031.6,0.00660593,0,145566,145566
13041.5,0.00676199,0,145292,145292
13051.4,0.00683726,0,145154,145154
13061.4,0.00678904,0,145400,145400
13071.3,0.0066549,0,145601,145601
13081.2,0.00645938,0,145210,145210
13091.1,0.00621923,0,144419,144419
13101.1,0.00593412,0,144613,144613
13111.1,0.00562457,0,144698,144698
13121,0.00531572,0,144556,144556
13131,0.00499911,0,144277,144277
13141,0.00467154,0,144431,144431
13151,0.00433224,0,144250,144250
13160.9,0.00398232,0,143904,143904
13170.9,0.00362291,0,143825,143825
13180.8,0.00325574,0,143621,143621
13190.7,0.00288175,0,143516,143516
13200.7,0.00250236,0,143483,143483
13210.6,0.00211735,0,143307,143307
13220.6,0.0017287,0,143072,143072
13230.5,0.00133774,0,142972,142972
13240.5,0.000943901,0,142870,142870
13250.8,0.000535307,0,142873,142873
13260.2,0.000165852,0,142698,142698
13271.8,-0.000296142,0,142662,142662
13281.2,-0.000665942,0,142725,142725
13290.5,-0.00103563,0,142657,142657
13302.3,-0.00149707,0,142430,142430
13311.6,-0.00186517,0,142236,142236
13321,-0.00223197,0,142022,142022
13330.4,-0.0025974,0,141856,141856
13342.1,-0.00305221,0,141845,141845
13351.5,-0.00341421,0,141616,141616
13360.9,-0.00377456,0,141411,141411
13370.3,-0.00413343,0,141187,141187
13382,-0.00457952,0,140978,140978
13391.4,-0.00493444,0,141057,141057
13400.8,-0.00528784,0,141343,141343
13410.2,-0.00563947,0,141700,141700
13422,-0.00607667,0,141392,141392
13431.4,-0.00642479,0,140947,140947
13440.8,-0.00677156,0,140764,140764
13450.2,-0.00711726,0,140904,140904
13462,-0.00754741,0,140858,140858
13471.4,-0.00789007,0,140932,140932
13480.8,-0.00823151,0,140824,140824
13490.3,-0.0085717,0,141158,141158
13502.1,-0.00899515,0,140642,140642
13511.5,-0.00933268,0,140441,140441
13520.9,-0.00966895,0,139879,139879
13530.4,-0.0100039,0,139654,139654
13542.2,-0.0104207,0,139680,139680
13551.6,-0.0107527,0,139869,139869
13561.1,-0.0110831,0,139993,139993
13570.5,-0.0114119,0,140191,140191
13582.3,-0.0118205,0,139843,139843
13591.8,-0.012145,0,139513,139513
13600.4,-0.0124373,0,139603,139603
13612.2,-0.0128373,0,139353,139353
13621.6,-0.0131547,0,139355,139355
13631.1,-0.0134695,0,139322,139322
13640.5,-0.0137818,0,139016,139016
13652.3,-0.0141682,0,138731,138731
13661.8,-0.0144741,0,138793,138793
13671.2,-0.0147771,0,138570,138570
13680.7,-0.0150769,0,138249,138249
13690.1,-0.0153734,0,138549,138549
13701.9,-0.0157395,0,138207,138207
13711.4,-0.0160286,0,137679,137679
13720.8,-0.0163141,0,137379,137379
13730.3,-0.016596,0,137238,137238
13742.1,-0.0169433,0,137022,137022
13751.5,-0.0172171,0,137077,137077
13761,-0.0174873,0,136639,136639
13770.4,-0.0177539,0,136543,136543
13782.2,-0.018082,0,136544,136544
13791.7,-0.0183404,0,136238,136238
13801.1,-0.0185952,0,136531,136531
13810.6,-0.0188469,0,136547,136547
13820,-0.0190967,0,136713,136713
13831.8,-0.0194061,0,136399,136399
13841.3,-0.0196507,0,135945,135945
13850.7,-0.0198919,0,135529,135529
13860.2,-0.0201294,0,135285,135285
13872,-0.0204201,0,134977,134977
13881.4,-0.0206477,0,134884,134884
13890.8,-0.0208706,0,135152,135152
13900.3,-0.021089,0,135068,135068
13912.1,-0.0213554,0,134696,134696
13921.6,-0.0215636,0,134189,134189
13931,-0.0217675,0,134050,134050
13940.5,-0.0219666,0,133783,133783
13952.3,-0.0223823,0,133730,133730
13961.8,-0.0225243,0,134092,134092
13971.3,-0.0226657,0,133864,133864
13980.7,-0.0228065,0,133648,133648
13990.2,-0.0229467,0,133461,133461
14002,-0.023121,0,133331,133331
14011.5,-0.0232597,0,133450,133450
14021,-0.0233975,0,133391,133391
14030.4,-0.0235346,0,133198,133198
14042.2,-0.0237048,0,133190,133190
14051.7,-0.0238399,0,133112,133112
14061.1,-0.0239739,0,132852,132852
14070.6,-0.0241068,0,132954,132954
14080,-0.0242383,0,132728,132728
14091.9,-0.0244006,0,132334,132334
14101.3,-0.0245576,0,132276,132276
14110.7,-0.0247022,0,132257,132257
14120.2,-0.0248371,0,132259,132259
14132,-0.0249952,0,132563,132563
14141.4,-0.0251147,0,132398,132398
14150.8,-0.0252289,0,131993,131993
14160.3,-0.0253294,0,131527,131527
14172.1,-0.0255282,0,131053,131053
14181.5,-0.0257502,0,130641,130641
14190.9,-0.0259248,0,130487,130487
14200.4,-0.0260617,0,130581,130581
14212.2,-0.0261937,0,130780,130780
14221.6,-0.0262766,0,130802,130802
14231,-0.0263446,0,130828,130828
14240.5,-0.0264011,0,130167,130167
14252.3,-0.0264596,0,129875,129875
14261.7,-0.0264994,0,129809,129809
14271.2,-0.0265352,0,129454,129454
14280.6,-0.0265688,0,129274,129274
14290.1,-0.0270473,0,129251,129251
14302,-0.0271007,0,128780,128780
14311.5,-0.0271159,0,128736,128736
14321,-0.0270635,0,128450,128450
14330.5,-0.0270269,0,128114,128114
14342.4,-0.0269987,0,127445,127445
14351.9,-0.0262922,0,127173,127173
14361.4,-0.0262697,0,127461,127461
14370.9,-0.0262531,0,127333,127333
14380.3,-0.0262408,0,127190,127190
14392.1,-0.0262293,0,127034,127034
14401.6,-0.0262218,0,126898,126898
14411,-0.0262148,0,126658,126658
14420.4,-0.0262078,0,126425,126425
14432.2,-0.0261981,0,126203,126203
14441.5,-0.026189,0,126145,126145
14450.9,-0.0261779,0,125804,125804
14460.2,-0.0261644,0,125380,125380
14471.9,-0.0261434,0,124932,124932
14481.2,-0.0261231,0,124569,124569
14490.5,-0.0260992,0,124554,124554
14502.2,-0.0260643,0,123978,123978
14511.6,-0.0260321,0,123577,123577
14520.9,-0.025996,0,123523,123523
14530.2,-0.025956,0,123449,123449
14541.9,-0.0259005,0,123042,123042
14551.3,-0.0258518,0,122900,122900
14560.6,-0.0257992,0,122799,122799
14572.3,-0.0257282,0,122380,122380
14581.6,-0.0256673,0,121999,121999
14591,-0.0256026,0,121686,121686
14600.4,-0.0255343,0,121717,121717
14612.1,-0.0254438,0,121418,121418
14621.6,-0.0253674,0,120942,120942
14631,-0.0252874,0,120710,120710
14640.5,-0.0252043,0,120807,120807
14652.4,-0.0250959,0,119752,119752
14661.9,-0.0250058,0,119315,119315
14671.4,-0.0249128,0,118722,118722
14680.9,-0.024817,0,118467,118467
14690.4,-0.0247186,0,118111,118111
14702.3,-0.0245923,0,117912,117912
14711.8,-0.0244887,0,117497,117497
14721.4,-0.0243829,0,117159,117159
14730.9,-0.0242753,0,116733,116733
14740.4,-0.024166,0,116443,116443
14752.3,-0.0240271,0,116395,116395
14761.8,-0.0239146,0,116124,116124
14770.7,-0.0238083,0,115781,115781
14781.8,-0.0236739,0,115398,115398
14791.3,-0.0235582,0,115275,115275
14800.8,-0.0234418,0,114911,114911
14810.2,-0.0233249,0,114557,114557
14822.1,-0.0231782,0,113718,113718
14831,-0.0230679,0,113923,113923
14840.4,-0.0229503,0,114041,114041
14851.6,-0.0228101,0,113282,113282
14860.7,-0.0226976,0,112571,112571
14871.5,-0.0225631,0,111826,111826
14880.4,-0.0224523,0,111492,111492
14891.3,-0.022317,0,111521,111521
14901.7,-0.0221885,0,111810,111810
14910.4,-0.0220824,0,111583,111583
14920.8,-0.021956,0,110983,110983
14931.3,-0.0218301,0,110699,110699
14940.2,-0.0217246,0,110585,110585
14950.9,-0.0215983,0,110474,110474
14961.7,-0.0214721,0,110331,110331
14970.7,-0.0213673,0,109833,109833
14981.9,-0.0212378,0,109374,109374
14991.6,-0.0211265,0,109345,109345
15001.6,-0.0210131,0,109053,109053
15011.6,-0.0209005,0,109319,109319
15021.6,-0.0207878,0,108846,108846
15031.9,-0.0206737,0,108014,108014
15040.4,-0.020579,0,107454,107454
15051.9,-0.0204524,0,106583,106583
15061.5,-0.0203484,0,106144,106144
15071,-0.020245,0,105838,105838
15080.5,-0.0201422,0,105550,105550
15090.1,-0.0200402,0,104975,104975
15101.4,-0.0199192,0,104660,104660
15111,-0.0198186,0,104085,104085
15120.5,-0.0197187,0,103264,103264
15130.6,-0.0196143,0,102752,102752
15140.9,-0.0195078,0,102142,102142
15150.6,-0.0194086,0,101309,101309
15160.1,-0.0193122,0,101135,101135
15170.5,-0.0192078,0,100645,100645
15181.8,-0.0190963,0,99646,99646
15191.6,-0.0189998,0,99003,99003
15200.8,-0.0189107,0,98769,98769
15211.8,-0.0188048,0,98273,98273
15220.9,-0.0187191,0,98064,98064
15231.1,-0.0186239,0,97189,97189
15240.1,-0.0185417,0,96677,96677
15250.8,-0.0184389,0,96236,96236
15261,-0.0183311,0,95974,95974
15270.6,-0.0182243,0,95370,95370
15280.2,-0.0181137,0,94660,94660
15291.5,-0.0179807,0,94389,94389
15300.5,-0.0178739,0,93993,93993
15310.1,-0.0177595,0,93795,93795
15321.5,-0.0176243,0,93962,93962
15331.1,-0.0175113,0,93388,93388
15340.7,-0.0173994,0,93052,93052
15351.6,-0.0172749,0,92768,92768
15361.1,-0.0171668,0,92257,92257
15370.8,-0.0170576,0,91545,91545
15380.6,-0.016951,0,90999,90999
15390.4,-0.0168473,0,91180,91180
15400.1,-0.0167469,0,90946,90946
15412.4,-0.0166267,0,90951,90951
15422.2,-0.0165342,0,90766,90766
15432.2,-0.0164456,0,90205,90205
15442.1,-0.0163614,0,89647,89647
15452.1,-0.0162822,0,89162,89162
15462.1,-0.0162079,0,88532,88532
15472.2,-0.0161389,0,88215,88215
15482.2,-0.0160755,0,87525,87525
15492.3,-0.0160179,0,86881,86881
15502.4,-0.0159661,0,87121,87121
15512.5,-0.0159204,0,87130,87130
15520.4,-0.0158888,0,86949,86949
15531.6,-0.0158506,0,86466,86466
15541.7,-0.0158226,0,86046,86046
15551.8,-0.0158005,0,85763,85763
15561.9,-0.0157845,0,85358,85358
15572.1,-0.0157744,0,85014,85014
15580.7,-0.0157704,0,84764,84764
15591.2,-0.0157711,0,84240,84240
15601.3,-0.0157773,0,83913,83913
15611.4,-0.0157887,0,83413,83413
15621.5,-0.0158052,0,83010,83010
15631.6,-0.0158265,0,82498,82498
15641.8,-0.0158526,0,82568,82568
15651.9,-0.0158831,0,82535,82535
15662,-0.0159178,0,82482,82482
15672.1,-0.0159565,0,82486,82486
15682.2,-0.0159991,0,82025,82025
15692.3,-0.0160452,0,81496,81496
15702.4,-0.0160949,0,80947,80947
15710,-0.0161344,0,80683,80683
15720.2,-0.0161902,0,80197,80197
15730.5,-0.0162492,0,79609,79609
15740.8,-0.0163118,0,79237,79237
15751.4,-0.0163792,0,78975,78975
15762.3,-0.0164507,0,79248,79248
15770.7,-0.0165059,0,78532,78532
15782.3,-0.0165821,0,77331,77331
15791.1,-0.0166399,0,77042,77042
15802.2,-0.0167119,0,76508,76508
15810.3,-0.0167645,0,76288,76288
15822.6,-0.0168443,0,75957,75957
15831.8,-0.0169042,0,75539,75539
15841,-0.0169421,0,75201,75201
15850.3,-0.0169762,0,74506,74506
15862.8,-0.017033,0,73776,73776
15872.2,-0.0170822,0,73437,73437
15881.6,-0.0171362,0,73340,73340
15891.2,-0.017194,0,73150,73150
15900.7,-0.0172543,0,72722,72722
15912.9,-0.0172225,0,72731,72731
15922.6,-0.0173689,0,72513,72513
15932.4,-0.0175182,0,71825,71825
15942.3,-0.0176738,0,71207,71207
15952.1,-0.017827,0,71209,71209
15962.1,-0.0179822,0,71165,71165
15971.5,-0.0181336,0,70965,70965
15982.6,-0.0173148,0,70533,70533
15992.7,-0.0173794,0,70054,70054
16002.7,-0.0174168,0,69761,69761
16012.7,-0.0174641,0,69748,69748
16022.7,-0.0175217,0,69706,69706
16032.6,-0.0175924,0,69171,69171
16042.6,-0.0183908,0,69072,69072
16052.6,-0.0184234,0,69036,69036
16062.6,-0.0184511,0,68541,68541
16072.7,-0.0184721,0,68238,68238
16082.8,-0.018485,0,68305,68305
16091.7,-0.0184884,0,67951,67951
16100.1,-0.0183963,0,67793,67793
16110.5,-0.0182937,0,67657,67657
16121,-0.0182001,0,67652,67652
16131.4,-0.018113,0,67311,67311
16141.6,-0.0180305,0,66842,66842
16151.7,-0.0179482,0,66527,66527
16160.6,-0.0178731,0,66464,66464
16170.7,-0.0177857,0,66192,66192
16180.6,-0.0176953,0,65874,65874
16190.4,-0.0175996,0,65663,65663
16200.6,-0.0174947,0,65621,65621
16210.8,-0.0173827,0,65626,65626
16221.2,-0.0172603,0,65197,65197
16231.3,-0.0171346,0,65059,65059
16241.3,-0.017001,0,65056,65056
16252.4,-0.0168438,0,64698,64698
16261.9,-0.0167018,0,64401,64401
16272,-0.0165433,0,64515,64515
16281.7,-0.0163821,0,64480,64480
16291.3,-0.0162151,0,64497,64497
16301.4,-0.0160301,0,64316,64316
16311.8,-0.0158327,0,64291,64291
16322.2,-0.0156254,0,64333,64333
16331.8,-0.0154285,0,64016,64016
16340.2,-0.0152522,0,63648,63648
16351.4,-0.0150072,0,63080,63080
16362.6,-0.0147518,0,62739,62739
16370.2,-0.0145734,0,62559,62559
16382.4,-0.014275,0,62385,62385
16393,-0.0139426,0,62223,62223
16403.5,-0.0136419,0,62125,62125
16410.4,-0.0134504,0,61998,61998
16420.3,-0.0131798,0,61777,61777
16430.3,-0.0129094,0,61630,61630
16440.4,-0.0126329,0,61377,61377
16450.6,-0.0123454,0,61118,61118
16460.9,-0.0120515,0,60856,60856
16472.1,-0.0117237,0,60417,60417
16482.8,-0.0114009,0,60150,60150
16493.1,-0.0110776,0,59884,59884
16500.1,-0.0108534,0,59884,59884
16510.8,-0.0105035,0,59843,59843
16521.6,-0.010137,0,59673,59673
16532.1,-0.00977051,0,59399,59399
16542.3,-0.00940427,0,59033,59033
16552.6,-0.009029,0,58732,58732
16563.1,-0.008633,0,58327,58327
16570.1,-0.00836525,0,58320,58320
16581.7,-0.00790335,0,58179,58179
16591.3,-0.00751495,0,57829,57829
16600.8,-0.00711576,0,57724,57724
16610.5,-0.00669634,0,57796,57796
16621.9,-0.00619329,0,58150,58150
16632.3,-0.00571969,0,58018,58018
16642.5,-0.00524264,0,57675,57675
16653.1,-0.0047354,0,56940,56940
16662.1,-0.00434243,0,56227,56227
16672.5,-0.00384011,0,55904,55904
16682.8,-0.00326809,0,55855,55855
16693.3,-0.00264565,0,55674,55674
16700.3,-0.00221702,0,55654,55654
16710.4,-0.00157762,0,55367,55367
16720.6,-0.0009315,0,55098,55098
16730.4,-0.000310356,0,55089,55089
16740.5,0.000330771,0,55042,55042
16752.7,0.00109552,0,54565,54565
16762.3,0.0016874,0,54066,54066
16770.3,0.0021846,0,53888,53888
16780.5,0.00280476,0,53700,53700
16791.4,0.0034679,0,53667,53667
16802,0.00410256,0,53570,53570
16812.6,0.00473182,0,53522,53522
16823.1,0.00535035,0,53382,53382
16831.7,0.00585345,0,53248,53248
16841.3,0.00641156,0,52960,52960
16852.4,0.00705149,0,52601,52601
16863.7,0.00769853,0,52299,52299
16870.9,0.00810367,0,52159,52159
16881.1,0.00867402,0,52171,52171
16891.3,0.00923463,0,52120,52120
16901.2,0.00977077,0,52224,52224
16912.3,0.0103657,0,52048,52048
16922.6,0.0109069,0,52040,52040
16930.9,0.0113355,0,52254,52254
16941.7,0.0118923,0,52572,52572
16952.3,0.0124249,0,52715,52715
16960.2,0.0128207,0,52757,52757
16970.7,0.0133432,0,52561,52561
16981.1,0.0138543,0,52385,52385
16991.3,0.0143517,0,52426,52426
17001.4,0.0148414,0,52254,52254
17011.6,0.0153261,0,52026,52026
17021.7,0.0158042,0,51825,51825
17031.8,0.016274,0,51788,51788
17042,0.0167379,0,51716,51716
17052.3,0.0172022,0,51512,51512
17060,0.0175447,0,51284,51284
17070.4,0.0179934,0,51046,51046
17081,0.0184472,0,51013,51013
17091.2,0.0188688,0,51509,51509
17101.3,0.0192811,0,51445,51445
17111.4,0.0196837,0,51034,51034
17121.6,0.0200764,0,50762,50762
17131.7,0.0204595,0,50451,50451
17142.1,0.0208428,0,50098,50098
17150.5,0.0211435,0,49902,49902
17161.7,0.0215335,0,49776,49776
17170.3,0.0218256,0,49624,49624
17182,0.0222084,0,49237,49237
17191,0.0224946,0,49248,49248
17200.9,0.0228017,0,49245,49245
17210.9,0.0230983,0,49559,49559
17220.7,0.0233785,0,49577,49577
17232,0.0236909,0,49382,49382
17240.3,0.0239169,0,49161,49161
17252.6,0.0242393,0,49031,49031
17262.7,0.0244906,0,48974,48974
17272.8,0.0247255,0,48524,48524
17282.7,0.0249432,0,48500,48500
17291.9,0.0251315,0,48234,48234
17301.7,0.0253206,0,48136,48136
17312.1,0.0255074,0,48175,48175
17322.5,0.0256859,0,47883,47883
17333,0.0259951,0,47731,47731
17342.5,0.0261308,0,47744,47744
17350.7,0.0262436,0,47774,47774
17362.2,0.0263406,0,47661,47661
17371.7,0.0264222,0,47927,47927
17381.6,0.0265088,0,47983,47983
17390.3,0.0265849,0,47817,47817
17402.3,0.0266897,0,47655,47655
17412.4,0.0267747,0,47632,47632
17422.4,0.0268597,0,47583,47583
17432.5,0.0269424,0,47672,47672
17442.6,0.02688,0,47430,47430
17452.6,0.0269427,0,47200,47200
17461.1,0.0269905,0,47412,47412
17472.3,0.0265915,0,47158,47158
17480.9,0.0265855,0,46994,46994
17490,0.0265796,0,46793,46793
17503.2,0.0265713,0,46644,46644
17512.9,0.0265652,0,46477,46477
17522.6,0.0265583,0,46539,46539
17532.1,0.0265469,0,46341,46341
17540.6,0.026533,0,46328,46328
17551.2,0.0265124,0,46361,46361
17563,0.0264869,0,46119,46119
17572.8,0.0264634,0,46116,46116
17582.9,0.0264363,0,46084,46084
17593,0.0264065,0,46071,46071
17603,0.0263747,0,46284,46284
17611.6,0.0263456,0,46315,46315
17622.8,0.0263058,0,46195,46195
17631.5,0.0262714,0,45899,45899
17641,0.0262295,0,45584,45584
17650.6,0.0261887,0,45829,45829
17660.1,0.0261487,0,46049,46049
17672.7,0.0260951,0,46053,46053
17683,0.0260508,0,45945,45945
17693.5,0.026005,0,45611,45611
17700.4,0.0259739,0,45342,45342
17710.7,0.0259264,0,45051,45051
17722.2,0.0258709,0,45011,45011
17730.9,0.0258273,0,44972,44972
17740.5,0.0257781,0,45055,45055
17750.7,0.0257233,0,44861,44861
17760.7,0.0256682,0,44646,44646
17772.5,0.0256016,0,44289,44289
17780.4,0.0255551,0,44257,44257
17791.9,0.025485,0,44286,44286
17801.5,0.0254242,0,44174,44174
17812.6,0.0253505,0,43981,43981
17820.6,0.0252961,0,44096,44096
17831.9,0.0252154,0,44481,44481
17841.4,0.0251453,0,44274,44274
17851.7,0.0250676,0,44201,44201
17861.9,0.0249873,0,44084,44084
17871.9,0.0249098,0,43881,43881
17882,0.024829,0,43922,43922
17891.7,0.0247487,0,43919,43919
17902,0.024661,0,43847,43847
17910.2,0.0245893,0,43819,43819
17922.3,0.0244814,0,43442,43442
17931.9,0.0243936,0,43112,43112
17941.1,0.0243084,0,43162,43162
17951.7,0.0242069,0,43218,43218
17962.3,0.0241045,0,43116,43116
17970.9,0.0240198,0,42964,42964
17982,0.0239085,0,42701,42701
17992.4,0.023803,0,42649,42649
18001.3,0.0237091,0,42651,42651
18011.9,0.0235945,0,42513,42513
18022.4,0.0234758,0,42296,42296
18031.2,0.0233748,0,41995,41995
18040.8,0.0232632,0,41973,41973
18050.3,0.02315,0,42474,42474
18062.9,0.0229976,0,42823,42823
18072.9,0.0228767,0,42545,42545
18082.9,0.0227534,0,42267,42267
18093,0.0226296,0,41853,41853
18103.1,0.0225043,0,41758,41758
18111.6,0.022399,0,41961,41961
18122.1,0.0222684,0,41636,41636
18130.4,0.0221657,0,41190,41190
18142.5,0.0220148,0,40985,40985
18152.1,0.0218954,0,40998,40998
18162,0.0217725,0,41124,41124
18172.1,0.0216472,0,41146,41146
18181.4,0.0215313,0,41361,41361
18192,0.0213999,0,41400,41400
18202.5,0.0212691,0,41185,41185
18210.6,0.0211693,0,40806,40806
18221.7,0.0210316,0,40558,40558
18230.5,0.0209218,0,40472,40472
18240,0.0208043,0,40404,40404
18251.4,0.0206641,0,40739,40739
18261.9,0.0205344,0,41259,41259
18272.6,0.0204032,0,41197,41197
18282.6,0.0202801,0,40992,40992
18291,0.0201781,0,40940,40940
18303.1,0.0200299,0,40606,40606
18312.5,0.0199159,0,40227,40227
18321.3,0.0198083,0,40019,40019
18331.9,0.0196807,0,39917,39917
18342.9,0.0195484,0,39977,39977
18352.1,0.0194377,0,39809,39809
18361.5,0.0193257,0,39486,39486
18371,0.0192133,0,39278,39278
18381.2,0.0190934,0,39227,39227
18392.2,0.0189644,0,39770,39770
18400,0.0188722,0,39933,39933
18410.6,0.0187496,0,40337,40337
18421.2,0.0186277,0,39831,39831
18432.5,0.018499,0,39392,39392
18441.7,0.018394,0,38829,38829
18451.9,0.0182795,0,38387,38387
18462,0.0181658,0,38678,38678
18472.2,0.0180531,0,38777,38777
18483,0.0179332,0,38609,38609
18491.4,0.0178401,0,38465,38465
18501.3,0.0177293,0,38268,38268
18511.6,0.0176154,0,38117,38117
18522.2,0.0174987,0,37884,37884
18530.5,0.0174077,0,37842,37842
18543,0.0172728,0,37745,37745
18551.7,0.0171803,0,37812,37812
18561.9,0.0170734,0,37977,37977
18571.9,0.0169709,0,37843,37843
18582.1,0.0168675,0,37369,37369
18592.4,0.0167658,0,37554,37554
18601.3,0.016679,0,37817,37817
18610.9,0.0165868,0,37755,37755
18622,0.0164817,0,37369,37369
18632.4,0.0163864,0,37174,37174
18640.9,0.0163095,0,37159,37159
18650.9,0.0162202,0,37073,37073
18661.8,0.0161258,0,37002,37002
18672.4,0.0160363,0,37460,37460
18680.2,0.0159721,0,37542,37542
18690.5,0.0158884,0,37188,37188
18701.4,0.0158024,0,36866,36866
18710.9,0.0157287,0,36857,36857
18721.1,0.0156514,0,37064,37064
18732.2,0.0155693,0,37226,37226
18740.8,0.0155074,0,37138,37138
18751.3,0.0154325,0,37006,37006
18761.7,0.0153599,0,36603,36603
18770.6,0.0152993,0,36343,36343
18781.1,0.0152286,0,36498,36498
18791.2,0.0151625,0,36454,36454
18801.9,0.0150943,0,36665,36665
18812.6,0.0150276,0,37418,37418
18821.1,0.0149761,0,37759,37759
18832.9,0.0149091,0,37317,37317
18842.2,0.0148633,0,36911,36911
18852.5,0.0148122,0,36481,36481
18860.4,0.0147731,0,36154,36154
18871,0.0147217,0,36266,36266
18881.2,0.0146727,0,36372,36372
18891.8,0.0146223,0,36051,36051
18900.9,0.0145806,0,35902,35902
18911.4,0.0145336,0,35901,35901
18921.1,0.0144912,0,36225,36225
18930.9,0.0144501,0,36287,36287
18940.6,0.0144103,0,36540,36540
18951.6,0.0143672,0,36515,36515
18960.8,0.0143321,0,36186,36186
18972.1,0.0142911,0,35911,35911
18981,0.0142599,0,35768,35768
18991,0.0142265,0,35747,35747
19000.9,0.0141949,0,35611,35611
19011.1,0.0141639,0,35847,35847
19020.9,0.0141351,0,36111,36111
19031.5,0.0141057,0,36040,36040
19042.1,0.0140778,0,35996,35996
19050.3,0.0140572,0,35937,35937
19061.4,0.0140304,0,35674,35674
19072,0.0140064,0,35845,35845
19082.2,0.0139845,0,35969,35969
19092.4,0.0139637,0,35934,35934
19100,0.013949,0,35894,35894
19110.9,0.0139288,0,35787,35787
19122.5,0.0139085,0,35504,35504
19130.5,0.0138953,0,35633,35633
19140.8,0.0138793,0,35358,35358
19151.4,0.013864,0,34945,34945
19160.9,0.0138513,0,34459,34459
19171.2,0.0138385,0,34791,34791
19181.6,0.0138269,0,34774,34774
19190.3,0.0138179,0,34629,34629
19202,0.0138071,0,34720,34720
19210.1,0.0138004,0,34950,34950
19222.4,0.0137914,0,35031,35031
19232.1,0.0137852,0,35076,35076
19241.9,0.0137798,0,35208,35208
19252.3,0.0137748,0,35261,35261
19260.1,0.0137715,0,35086,35086
19271.1,0.0137664,0,35215,35215
19282.1,0.0137611,0,35432,35432
19292.4,0.0137565,0,35469,35469
19302.6,0.0137529,0,35252,35252
19310.9,0.0137506,0,34885,34885
19323.1,0.0137478,0,34298,34298
19332.5,0.0137461,0,34107,34107
19341.9,0.0137447,0,34287,34287
19350.3,0.0137438,0,34574,34574
19360.6,0.013743,0,34789,34789
19370.4,0.0137427,0,34807,34807
19380.2,0.0137429,0,34809,34809
19390.2,0.0137435,0,34770,34770
19401.9,0.0137451,0,34665,34665
19410.1,0.0137467,0,34600,34600
19420.3,0.0137493,0,34899,34899
19430.4,0.0137525,0,35107,35107
19440.6,0.0137565,0,34902,34902
19451.2,0.0137614,0,34411,34411
19460.3,0.0137662,0,34187,34187
19472.8,0.0137737,0,34533,34533
19482.2,0.0137926,0,34565,34565
19492.6,0.0138402,0,34784,34784
19500.1,0.0138715,0,34902,34902
19512.3,0.0139162,0,35104,35104
19520.4,0.0139425,0,34843,34843
19531.9,0.0139758,0,34837,34837
19541.3,0.0136285,0,34610,34610
19550.8,0.0136275,0,34378,34378
19561.6,0.0136265,0,34639,34639
19571.5,0.0136257,0,34585,34585
19581.4,0.013625,0,34741,34741
19592,0.0136241,0,34377,34377
19602.6,0.0136231,0,34235,34235
19610.8,0.0136222,0,34327,34327
19621.3,0.0136209,0,34204,34204
19631.8,0.0136192,0,33901,33901
19640.5,0.0136176,0,33833,33833
19651.8,0.0136151,0,33793,33793
19661.3,0.0136126,0,33729,33729
19671.9,0.0136093,0,33525,33525
19680.1,0.0136063,0,33701,33701
19692.7,0.0136011,0,34302,34302
19700.5,0.0135975,0,34844,34844
19710.1,0.0135875,0,34896,34896
19721.9,0.0135733,0,34410,34410
19731.6,0.0135615,0,34196,34196
19741.6,0.0135494,0,34000,34000
19751.8,0.0135368,0,33753,33753
19762.5,0.0135229,0,33926,33926
19770.7,0.0135117,0,33828,33828
19781.6,0.0134958,0,33761,33761
19791.6,0.0134805,0,33956,33956
19801.6,0.0134646,0,34126,34126
19810,0.0134505,0,34265,34265
19820.7,0.0134321,0,34498,34498
19831.1,0.0134133,0,34588,34588
19841.6,0.0133936,0,34585,34585
19851.8,0.0133737,0,34460,34460
19862,0.0133534,0,34149,34149
19872.1,0.0133324,0,33985,33985
19882.1,0.013311,0,33890,33890
19892.3,0.0132885,0,33569,33569
19900.2,0.0132707,0,33627,33627
19910.5,0.0132469,0,33800,33800
19920.7,0.0132223,0,33532,33532
19930.9,0.013197,0,33672,33672
19941.2,0.013171,0,33672,33672
19952.7,0.0131405,0,33756,33756
19961,0.0131191,0,34014,34014
19971.7,0.0130917,0,33990,33990
19981.5,0.0130673,0,33653,33653
19991.7,0.0130415,0,33720,33720
