time,surface_elevation,reference_data,number_of_local_cells,number_of_global_cells
0,0,0,2048,2048
154.538,0,0,2048,2048
309.076,0,0,2048,2048
463.615,0,0,2048,2048
618.153,0,0,2048,2048
772.691,0,0,2048,2048
927.229,0,0,2048,2048
1081.77,0,0,2048,2048
1236.31,0,0,2048,2048
1390.84,0,0,2048,2048
1545.38,-1.65519e-06,0,2048,2048
1699.92,-1.78392e-05,0,2048,2048
1854.46,-6.69088e-05,0,2048,2048
2009,-0.000110122,0,2048,2048
2163.54,-5.04168e-05,0,2048,2048
2318.07,0.00028986,0,2048,2048
2472.61,0.00115972,0,2048,2048
2627.15,0.00286533,0,2048,2048
2781.69,0.00572095,0,2048,2048
2936.23,0.00998832,0,2048,2048
3090.76,0.0157968,0,2048,2048
3245.3,0.0230648,0,2048,2048
3399.84,0.0314376,0,2048,2048
3554.38,0.0402747,0,2048,2048
3708.92,0.0487033,0,2048,2048
3863.46,0.055738,0,2048,2048
4017.99,0.0604417,0,2048,2048
4172.53,0.0620913,0,2048,2048
4327.07,0.0603067,0,2048,2048
4481.61,0.0551169,0,2048,2048
4636.15,0.0469527,0,2048,2048
4790.69,0.0365707,0,2048,2048
4945.22,0.0249288,0,2048,2048
5099.76,0.0130392,0,2048,2048
5254.3,0.00182657,0,2048,2048
5408.84,-0.00798124,0,2048,2048
5563.38,-0.0159177,0,2048,2048
5717.91,-0.0217901,0,2048,2048
5872.45,-0.0256487,0,2048,2048
6026.99,-0.0277237,0,2048,2048
6181.53,-0.0283503,0,2048,2048
6336.07,-0.027895,0,2048,2048
6490.61,-0.0266986,0,2048,2048
6645.14,-0.0250412,0,2048,2048
6799.68,-0.023129,0,2048,2048
6954.22,-0.0211009,0,2048,2048
7108.76,-0.0190445,0,2048,2048
7263.3,-0.017016,0,2048,2048
7417.83,-0.015056,0,2048,2048
7572.37,-0.0131992,0,2048,2048
7726.91,-0.0114766,0,2048,2048
7881.45,-0.00991248,0,2048,2048
8035.99,-0.00851989,0,2048,2048
8190.52,-0.0072961,0,2048,2048
8345.06,-0.00622181,0,2048,2048
8499.6,-0.00526379,0,2048,2048
8654.14,-0.00438062,0,2048,2048
8808.67,-0.00352986,0,2048,2048
8963.21,-0.00267513,0,2048,2048
9117.75,-0.00179127,0,2048,2048
9272.28,-0.00086706,0,2048,2048
9426.82,9.47485e-05,0,2048,2048
9581.36,0.00107959,0,2048,2048
9735.89,0.00206453,0,2048,2048
9890.43,0.00302223,0,2048,2048
10045,0.00392459,0,2048,2048
10199.5,0.00474581,0,2048,2048
10354,0.00546458,0,2048,2048
10508.6,0.00606546,0,2048,2048
10663.1,0.00653953,0,2048,2048
10817.7,0.00688456,0,2048,2048
10972.2,0.0071046,0,2048,2048
11126.7,0.00720926,0,2048,2048
11281.3,0.00721259,0,2048,2048
11435.8,0.00713177,0,2048,2048
11590.4,0.00698562,0,2048,2048
11744.9,0.00679306,0,2048,2048
11899.4,0.00657177,0,2048,2048
12054,0.00633697,0,2048,2048
12208.5,0.00610059,0,2048,2048
12363,0.00587078,0,2048,2048
12517.6,0.00565173,0,2048,2048
12672.1,0.00544393,0,2048,2048
12826.7,0.00524452,0,2048,2048
12981.2,0.00504807,0,2048,2048
13135.7,0.0048473,0,2048,2048
13290.3,0.00463408,0,2048,2048
13444.8,0.00440045,0,2048,2048
13599.3,0.00413973,0,2048,2048
13753.9,0.00384763,0,2048,2048
13908.4,0.0035228,0,2048,2048
14063,0.0031671,0,2048,2048
14217.5,0.00278524,0,2048,2048
14372,0.00238426,0,2048,2048
14526.6,0.0019727,0,2048,2048
14681.1,0.00155985,0,2048,2048
14835.7,0.00115489,0,2048,2048
14990.2,0.00076618,0,2048,2048
15144.7,0.00040071,0,2048,2048
15299.3,6.36571e-05,0,2048,2048
15453.8,-0.00024173,0,2048,2048
15608.3,-0.000514038,0,2048,2048
15762.9,-0.000753383,0,2048,2048
15917.4,-0.000961014,0,2048,2048
16072,-0.0011389,0,2048,2048
16226.5,-0.0012894,0,2048,2048
16381,-0.00141506,0,2048,2048
16535.6,-0.00151852,0,2048,2048
16690.1,-0.00160247,0,2048,2048
16844.6,-0.00166959,0,2048,2048
16999.2,-0.00172247,0,2048,2048
17153.7,-0.00176336,0,2048,2048
17308.3,-0.00179406,0,2048,2048
17462.8,-0.00181573,0,2048,2048
17617.3,-0.00182887,0,2048,2048
17771.9,-0.00183342,0,2048,2048
17926.4,-0.00182897,0,2048,2048
18081,-0.00181501,0,2048,2048
18235.5,-0.00179124,0,2048,2048
18390,-0.00175776,0,2048,2048
18544.6,-0.00171522,0,2048,2048
18699.1,-0.00166479,0,2048,2048
18853.6,-0.00160801,0,2048,2048
19008.2,-0.00154671,0,2048,2048
19162.7,-0.00148272,0,2048,2048
19317.3,-0.00141782,0,2048,2048
19471.8,-0.00135358,0,2048,2048
19626.3,-0.00129137,0,2048,2048
19780.9,-0.0012323,0,2048,2048
19935.4,-0.00117726,0,2048,2048
