time,surface_elevation,reference_data,number_of_local_cells,number_of_global_cells
0,0,0,2048,2048
154.538,0,0,2048,2048
309.076,0,0,2048,2048
463.615,0,0,2048,2048
618.153,0.00851928,0,2048,2048
772.691,0.0232745,0,2048,2048
927.229,0.0414159,0,2048,2048
1081.77,0.0622685,0,2048,2048
1236.31,0.0861372,0,2048,2048
1390.84,0.110972,0,2048,2048
1545.38,0.131669,0,2048,2048
1699.92,0.143128,0,2048,2048
1854.46,0.142732,0,2048,2048
2009,0.130749,0,2048,2048
2163.54,0.10914,0,2048,2048
2318.07,0.0805821,0,2048,2048
2472.61,0.0481134,0,2048,2048
2627.15,0.0149809,0,2048,2048
2781.69,-0.0157211,0,2048,2048
2936.23,-0.0415298,0,2048,2048
3090.76,-0.0609598,0,2048,2048
3245.3,-0.0735746,0,2048,2048
3399.84,-0.0798296,0,2048,2048
3554.38,-0.0807905,0,2048,2048
3708.92,-0.0778184,0,2048,2048
3863.46,-0.0722841,0,2048,2048
4017.99,-0.0653555,0,2048,2048
4172.53,-0.0578843,0,2048,2048
4327.07,-0.0503945,0,2048,2048
4481.61,-0.0431516,0,2048,2048
4636.15,-0.0362716,0,2048,2048
4790.69,-0.0298249,0,2048,2048
4945.22,-0.023903,0,2048,2048
5099.76,-0.0186367,0,2048,2048
5254.3,-0.0141722,0,2048,2048
5408.84,-0.0106271,0,2048,2048
5563.38,-0.00804548,0,2048,2048
5717.91,-0.00637141,0,2048,2048
5872.45,-0.00544794,0,2048,2048
6026.99,-0.00504242,0,2048,2048
6181.53,-0.00488916,0,2048,2048
6336.07,-0.004737,0,2048,2048
6490.61,-0.00438932,0,2048,2048
6645.14,-0.00372802,0,2048,2048
6799.68,-0.00271844,0,2048,2048
6954.22,-0.00139756,0,2048,2048
7108.76,0.000148277,0,2048,2048
7263.3,0.00180916,0,2048,2048
7417.83,0.00347448,0,2048,2048
7572.37,0.0050489,0,2048,2048
7726.91,0.00646046,0,2048,2048
7881.45,0.00766158,0,2048,2048
8035.99,0.00862581,0,2048,2048
8190.52,0.0093426,0,2048,2048
8345.06,0.00981249,0,2048,2048
8499.6,0.0100436,0,2048,2048
8654.14,0.0100495,0,2048,2048
8808.67,0.00984839,0,2048,2048
8963.21,0.00946256,0,2048,2048
9117.75,0.00891759,0,2048,2048
9272.28,0.0082415,0,2048,2048
9426.82,0.0074635,0,2048,2048
9581.36,0.00661275,0,2048,2048
9735.89,0.00571729,0,2048,2048
9890.43,0.00480327,0,2048,2048
10045,0.00389446,0,2048,2048
10199.5,0.00301195,0,2048,2048
10354,0.00217387,0,2048,2048
10508.6,0.00139508,0,2048,2048
10663.1,0.000686855,0,2048,2048
10817.7,5.66963e-05,0,2048,2048
10972.2,-0.000491718,0,2048,2048
11126.7,-0.000958252,0,2048,2048
11281.3,-0.00134576,0,2048,2048
11435.8,-0.00165936,0,2048,2048
11590.4,-0.00190559,0,2048,2048
11744.9,-0.0020917,0,2048,2048
11899.4,-0.00222514,0,2048,2048
12054,-0.00231318,0,2048,2048
12208.5,-0.0023628,0,2048,2048
12363,-0.00238058,0,2048,2048
12517.6,-0.00237262,0,2048,2048
12672.1,-0.00234435,0,2048,2048
12826.7,-0.00230029,0,2048,2048
12981.2,-0.0022437,0,2048,2048
13135.7,-0.00217637,0,2048,2048
13290.3,-0.00209845,0,2048,2048
13444.8,-0.00200859,0,2048,2048
13599.3,-0.00190423,0,2048,2048
13753.9,-0.00178217,0,2048,2048
13908.4,-0.00163923,0,2048,2048
14063,-0.00147294,0,2048,2048
14217.5,-0.00128216,0,2048,2048
14372,-0.00106751,0,2048,2048
14526.6,-0.000831554,0,2048,2048
14681.1,-0.000578816,0,2048,2048
14835.7,-0.000315481,0,2048,2048
14990.2,-4.90066e-05,0,2048,2048
15144.7,0.00021239,0,2048,2048
15299.3,0.000460264,0,2048,2048
15453.8,0.000686457,0,2048,2048
15608.3,0.000883537,0,2048,2048
15762.9,0.00104517,0,2048,2048
15917.4,0.00116638,0,2048,2048
16072,0.00124375,0,2048,2048
16226.5,0.00127553,0,2048,2048
16381,0.00126164,0,2048,2048
16535.6,0.00120371,0,2048,2048
16690.1,0.00110492,0,2048,2048
16844.6,0.000969881,0,2048,2048
16999.2,0.000804365,0,2048,2048
17153.7,0.000615018,0,2048,2048
17308.3,0.000409004,0,2048,2048
17462.8,0.000193635,0,2048,2048
17617.3,-2.39821e-05,0,2048,2048
17771.9,-0.000237249,0,2048,2048
17926.4,-0.000440302,0,2048,2048
18081,-0.000628142,0,2048,2048
18235.5,-0.000796677,0,2048,2048
18390,-0.000942684,0,2048,2048
18544.6,-0.00106371,0,2048,2048
18699.1,-0.00115796,0,2048,2048
18853.6,-0.00122412,0,2048,2048
19008.2,-0.00126127,0,2048,2048
19162.7,-0.00126875,0,2048,2048
19317.3,-0.0012461,0,2048,2048
19471.8,-0.00119299,0,2048,2048
19626.3,-0.00110925,0,2048,2048
19780.9,-0.00099489,0,2048,2048
19935.4,-0.000850219,0,2048,2048
