Simple NetCDF:
 + Bathymetry data-window: (-500000, -2500000) x (6500000, 1500000)
 + Bathymetry data-size: (7000000, 4000000)
 + Displacement window: (-250000, -400000) x (250000, 400000)
 + Displacement size: (500000, 800000)
 + Terrain raw-data array size: 14000, 8000
 + Max meaningful cartesian-grid refinement depth: 12.9657842846621
 + Max meaningful triangle-grid refinement depth: 25.9315685693242
 + Terrain raw-data cell size: (500, 500)
 + Initial number of triangles after base triangulation: 2048
 + Number of threads to use: 32
 + Max number of threads (system): 32
 + Verbose: 3
 + Terminate simulation after #n equal timesteps: -1
 + Timesteps: -1

 + Output data each #nth timestep: -100
 + Output data each n simulation seconds: 10
 + Output data each n computation seconds: -1

 + Output .vtp grid data: off
 + Output .vtk cluster data: off

Output simulation specific data:
 + Output simulation specific data each n simulation seconds: 10
 + Output simulation specific: on

 + Output simulation grid filename: frame_%08i.vtp
 + Output simulation cluster filename: 

 + CONFIG_SIERPI_ADAPTIVE_CLUSTER_STACKS: [enabled]
 + CONFIG_SIERPI_ADAPTIVE_CLUSTER_STACK_GROW_EXTRA_PADDING: 128
 + CONFIG_SIERPI_ADAPTIVE_CLUSTER_STACK_SHRINK_EXTRA_PADDING: 112
 + CONFIG_ENABLE_WRITER_TASK: [enabled]
 + CONFIG_WRITER_THREAD_WITH_PTHREAD: [disabled]
 +
 + Compile options:
   - Flux solver: augumented riemann (geoclaw)
   - RK ORDER: 1
   - Order of basis functions: 0
   - Bathymetry kernels: [enabled]
   - Adaptivity mode: 2
   - Gravitation: 9.81
   - Dry threshold: 0.1
   - Zero threshold: 1e-09

 + Grid options:
   - initial recursion depth: 10
   - min relative recursion depth: 0
   - max relative recursion depth: 0

 + Parallelization options:
   - split size: 9
   - join size: 4

 + Simulation options:
   - CFL / neg. fixed timestep: 0.5
   - Adaptive timestep size with CFL: [enabled]
   - Timestep size: 154.538235882611
   - Minimum timestep size: 1e-06
   - Gravitation: 9.81
   - World Scene ID: -1
   - Terrain Scene ID: -2
   - Displacement Scene ID: -2

 + Adaptive:
   - conforming cluster skipping: [DEACTIVATED]
   - refine threshold: 25000
   - coarsen threshold: 5000
   - domain boundary condition: outflow
Simple NetCDF:
 + Bathymetry data-window: (-500000, -2500000) x (6500000, 1500000)
 + Bathymetry data-size: (7000000, 4000000)
 + Displacement window: (-250000, -400000) x (250000, 400000)
 + Displacement size: (500000, 800000)
 + Terrain raw-data array size: 14000, 8000
 + Max meaningful cartesian-grid refinement depth: 12.9657842846621
 + Max meaningful triangle-grid refinement depth: 25.9315685693242
 + Terrain raw-data cell size: (500, 500)
[ START ]
=========================================
   + 0	TIMESTEP
   + 0	SIMULATION_TIME
   + 2048	CELLS
   + 32	NUMBER_OF_THREADS
   + 0.007495 RT (REAL_TIME)
   + 0.125	CellData Megabyte per time-step (RW)
   + 154.538235882611	TIMESTEP SIZE
   + 256	CLUSTERS
   + 0/0/0	TIMINGS (edgeComm/adaptive/splitJoin)
WARNING: Timestep size for accurate data output is too small, fixing...
WARNING: Timestep size for accurate simulation specific data output is too small. Fixing the problem for this timestep...
=========================================
   + 0.138471940500338 Overall MTPS (Mega Triangles per second)
   + 0 Last Second MCPS (Mega Cellsper second)
   + 1	TIMESTEP
   + 154.538235882611	SIMULATION_TIME
   + 2048	CELLS
   + 32	NUMBER_OF_THREADS
   + 0.014812 RT (REAL_TIME)
   + 0.125	CellData Megabyte per time-step (RW)
   + 154.538235882611	TIMESTEP SIZE
   + 256	CLUSTERS
   + 0.000131/0.000473/0.000658	TIMINGS (edgeComm/adaptive/splitJoin)
WARNING: Timestep size for accurate data output is too small, fixing...
WARNING: Timestep size for accurate simulation specific data output is too small. Fixing the problem for this timestep...
=========================================
   + 0.194095626214282 Overall MTPS (Mega Triangles per second)
   + 0 Last Second MCPS (Mega Cellsper second)
   + 2	TIMESTEP
   + 309.076471765222	SIMULATION_TIME
   + 2048	CELLS
   + 32	NUMBER_OF_THREADS
   + 0.021125 RT (REAL_TIME)
   + 0.125	CellData Megabyte per time-step (RW)
   + 154.538235882611	TIMESTEP SIZE
   + 256	CLUSTERS
   + 0.000255/0.000747/0.001432	TIMINGS (edgeComm/adaptive/splitJoin)
WARNING: Timestep size for accurate data output is too small, fixing...
WARNING: Timestep size for accurate simulation specific data output is too small. Fixing the problem for this timestep...
=========================================
   + 0.213140914452231 Overall MTPS (Mega Triangles per second)
   + 0 Last Second MCPS (Mega Cellsper second)
   + 3	TIMESTEP
   + 463.614707647833	SIMULATION_TIME
   + 2048	CELLS
   + 32	NUMBER_OF_THREADS
   + 0.028849 RT (REAL_TIME)
   + 0.125	CellData Megabyte per time-step (RW)
   + 154.538235882611	TIMESTEP SIZE
   + 256	CLUSTERS
   + 0.000376/0.001267/0.002192	TIMINGS (edgeComm/adaptive/splitJoin)
WARNING: Timestep size for accurate data output is too small, fixing...
WARNING: Timestep size for accurate simulation specific data output is too small. Fixing the problem for this timestep...
=========================================
   + 0.232140327014084 Overall MTPS (Mega Triangles per second)
   + 0 Last Second MCPS (Mega Cellsper second)
   + 4	TIMESTEP
   + 618.152943530444	SIMULATION_TIME
   + 2048	CELLS
   + 32	NUMBER_OF_THREADS
   + 0.035311 RT (REAL_TIME)
   + 0.125	CellData Megabyte per time-step (RW)
   + 154.538235882611	TIMESTEP SIZE
   + 256	CLUSTERS
   + 0.000497/0.001491/0.002714	TIMINGS (edgeComm/adaptive/splitJoin)
WARNING: Timestep size for accurate data output is too small, fixing...
WARNING: Timestep size for accurate simulation specific data output is too small. Fixing the problem for this timestep...
=========================================
   + 0.250771415976882 Overall MTPS (Mega Triangles per second)
   + 0 Last Second MCPS (Mega Cellsper second)
   + 5	TIMESTEP
   + 772.691179413055	SIMULATION_TIME
   + 2048	CELLS
   + 32	NUMBER_OF_THREADS
   + 0.040857 RT (REAL_TIME)
   + 0.125	CellData Megabyte per time-step (RW)
   + 154.538235882611	TIMESTEP SIZE
   + 256	CLUSTERS
   + 0.000614/0.001704/0.003153	TIMINGS (edgeComm/adaptive/splitJoin)
WARNING: Timestep size for accurate data output is too small, fixing...
WARNING: Timestep size for accurate simulation specific data output is too small. Fixing the problem for this timestep...
=========================================
   + 0.267345473533059 Overall MTPS (Mega Triangles per second)
   + 0 Last Second MCPS (Mega Cellsper second)
   + 6	TIMESTEP
   + 927.229415295666	SIMULATION_TIME
   + 2048	CELLS
   + 32	NUMBER_OF_THREADS
   + 0.045985 RT (REAL_TIME)
   + 0.125	CellData Megabyte per time-step (RW)
   + 154.538235882611	TIMESTEP SIZE
   + 256	CLUSTERS
   + 0.000734/0.001881/0.003635	TIMINGS (edgeComm/adaptive/splitJoin)
WARNING: Timestep size for accurate data output is too small, fixing...
WARNING: Timestep size for accurate simulation specific data output is too small. Fixing the problem for this timestep...
=========================================
   + 0.276282063635838 Overall MTPS (Mega Triangles per second)
   + 0 Last Second MCPS (Mega Cellsper second)
   + 7	TIMESTEP
   + 1081.76765117828	SIMULATION_TIME
   + 2048	CELLS
   + 32	NUMBER_OF_THREADS
   + 0.051911 RT (REAL_TIME)
   + 0.125	CellData Megabyte per time-step (RW)
   + 154.538235882611	TIMESTEP SIZE
   + 256	CLUSTERS
   + 0.000855/0.002137/0.004404	TIMINGS (edgeComm/adaptive/splitJoin)
WARNING: Timestep size for accurate data output is too small, fixing...
WARNING: Timestep size for accurate simulation specific data output is too small. Fixing the problem for this timestep...
=========================================
   + 0.285729233881516 Overall MTPS (Mega Triangles per second)
   + 0 Last Second MCPS (Mega Cellsper second)
   + 8	TIMESTEP
   + 1236.30588706089	SIMULATION_TIME
   + 2048	CELLS
   + 32	NUMBER_OF_THREADS
   + 0.057363 RT (REAL_TIME)
   + 0.125	CellData Megabyte per time-step (RW)
   + 154.538235882611	TIMESTEP SIZE
   + 256	CLUSTERS
   + 0.000976/0.002557/0.005036	TIMINGS (edgeComm/adaptive/splitJoin)
WARNING: Timestep size for accurate data output is too small, fixing...
WARNING: Timestep size for accurate simulation specific data output is too small. Fixing the problem for this timestep...
=========================================
   + 0.292255977674891 Overall MTPS (Mega Triangles per second)
   + 0 Last Second MCPS (Mega Cellsper second)
   + 9	TIMESTEP
   + 1390.8441229435	SIMULATION_TIME
   + 2048	CELLS
   + 32	NUMBER_OF_THREADS
   + 0.063091 RT (REAL_TIME)
   + 0.125	CellData Megabyte per time-step (RW)
   + 154.538235882611	TIMESTEP SIZE
   + 256	CLUSTERS
   + 0.001096/0.002881/0.005528	TIMINGS (edgeComm/adaptive/splitJoin)
WARNING: Timestep size for accurate data output is too small, fixing...
WARNING: Timestep size for accurate simulation specific data output is too small. Fixing the problem for this timestep...
=========================================
   + 0.292927125795609 Overall MTPS (Mega Triangles per second)
   + 0 Last Second MCPS (Mega Cellsper second)
   + 10	TIMESTEP
   + 1545.38235882611	SIMULATION_TIME
   + 2048	CELLS
   + 32	NUMBER_OF_THREADS
   + 0.069938 RT (REAL_TIME)
   + 0.125	CellData Megabyte per time-step (RW)
   + 154.538235882611	TIMESTEP SIZE
   + 256	CLUSTERS
   + 0.001219/0.003158/0.006062	TIMINGS (edgeComm/adaptive/splitJoin)
WARNING: Timestep size for accurate data output is too small, fixing...
WARNING: Timestep size for accurate simulation specific data output is too small. Fixing the problem for this timestep...
=========================================
   + 0.2987204137108 Overall MTPS (Mega Triangles per second)
   + 0 Last Second MCPS (Mega Cellsper second)
   + 11	TIMESTEP
   + 1699.92059470872	SIMULATION_TIME
   + 2048	CELLS
   + 32	NUMBER_OF_THREADS
   + 0.075438 RT (REAL_TIME)
   + 0.125	CellData Megabyte per time-step (RW)
   + 154.538235882611	TIMESTEP SIZE
   + 256	CLUSTERS
   + 0.00134/0.003429/0.006647	TIMINGS (edgeComm/adaptive/splitJoin)
WARNING: Timestep size for accurate data output is too small, fixing...
WARNING: Timestep size for accurate simulation specific data output is too small. Fixing the problem for this timestep...
=========================================
   + 0.303175347265056 Overall MTPS (Mega Triangles per second)
   + 0 Last Second MCPS (Mega Cellsper second)
   + 12	TIMESTEP
   + 1854.45883059133	SIMULATION_TIME
   + 2048	CELLS
   + 32	NUMBER_OF_THREADS
   + 0.081084 RT (REAL_TIME)
   + 0.125	CellData Megabyte per time-step (RW)
   + 154.538235882611	TIMESTEP SIZE
   + 256	CLUSTERS
   + 0.001458/0.003678/0.007299	TIMINGS (edgeComm/adaptive/splitJoin)
WARNING: Timestep size for accurate data output is too small, fixing...
WARNING: Timestep size for accurate simulation specific data output is too small. Fixing the problem for this timestep...
=========================================
   + 0.306947358712444 Overall MTPS (Mega Triangles per second)
   + 0 Last Second MCPS (Mega Cellsper second)
   + 13	TIMESTEP
   + 2008.99706647394	SIMULATION_TIME
   + 2048	CELLS
   + 32	NUMBER_OF_THREADS
   + 0.086916 RT (REAL_TIME)
   + 0.125	CellData Megabyte per time-step (RW)
   + 154.538235882611	TIMESTEP SIZE
   + 256	CLUSTERS
   + 0.001577/0.003911/0.008143	TIMINGS (edgeComm/adaptive/splitJoin)
WARNING: Timestep size for accurate data output is too small, fixing...
WARNING: Timestep size for accurate simulation specific data output is too small. Fixing the problem for this timestep...
=========================================
   + 0.310024545051523 Overall MTPS (Mega Triangles per second)
   + 0 Last Second MCPS (Mega Cellsper second)
   + 14	TIMESTEP
   + 2163.53530235655	SIMULATION_TIME
   + 2048	CELLS
   + 32	NUMBER_OF_THREADS
   + 0.092686 RT (REAL_TIME)
   + 0.125	CellData Megabyte per time-step (RW)
   + 154.538235882611	TIMESTEP SIZE
   + 256	CLUSTERS
   + 0.001722/0.004283/0.008958	TIMINGS (edgeComm/adaptive/splitJoin)
WARNING: Timestep size for accurate data output is too small, fixing...
WARNING: Timestep size for accurate simulation specific data output is too small. Fixing the problem for this timestep...
=========================================
   + 0.312011212902964 Overall MTPS (Mega Triangles per second)
   + 0 Last Second MCPS (Mega Cellsper second)
   + 15	TIMESTEP
   + 2318.07353823916	SIMULATION_TIME
   + 2048	CELLS
   + 32	NUMBER_OF_THREADS
   + 0.098655 RT (REAL_TIME)
   + 0.125	CellData Megabyte per time-step (RW)
   + 154.538235882611	TIMESTEP SIZE
   + 256	CLUSTERS
   + 0.001856/0.004604/0.009786	TIMINGS (edgeComm/adaptive/splitJoin)
WARNING: Timestep size for accurate data output is too small, fixing...
WARNING: Timestep size for accurate simulation specific data output is too small. Fixing the problem for this timestep...
=========================================
   + 0.313563376777478 Overall MTPS (Mega Triangles per second)
   + 0 Last Second MCPS (Mega Cellsper second)
   + 16	TIMESTEP
   + 2472.61177412178	SIMULATION_TIME
   + 2048	CELLS
   + 32	NUMBER_OF_THREADS
   + 0.104684 RT (REAL_TIME)
   + 0.125	CellData Megabyte per time-step (RW)
   + 154.538235882611	TIMESTEP SIZE
   + 256	CLUSTERS
   + 0.001989/0.004902/0.010711	TIMINGS (edgeComm/adaptive/splitJoin)
WARNING: Timestep size for accurate data output is too small, fixing...
WARNING: Timestep size for accurate simulation specific data output is too small. Fixing the problem for this timestep...
=========================================
   + 0.314476429623073 Overall MTPS (Mega Triangles per second)
   + 0 Last Second MCPS (Mega Cellsper second)
   + 17	TIMESTEP
   + 2627.15001000439	SIMULATION_TIME
   + 2048	CELLS
   + 32	NUMBER_OF_THREADS
   + 0.110734 RT (REAL_TIME)
   + 0.125	CellData Megabyte per time-step (RW)
   + 154.538235882611	TIMESTEP SIZE
   + 256	CLUSTERS
   + 0.002123/0.005288/0.011856	TIMINGS (edgeComm/adaptive/splitJoin)
WARNING: Timestep size for accurate data output is too small, fixing...
WARNING: Timestep size for accurate simulation specific data output is too small. Fixing the problem for this timestep...
=========================================
   + 0.317303471367459 Overall MTPS (Mega Triangles per second)
   + 0 Last Second MCPS (Mega Cellsper second)
   + 18	TIMESTEP
   + 2781.688245887	SIMULATION_TIME
   + 2048	CELLS
   + 32	NUMBER_OF_THREADS
   + 0.116202 RT (REAL_TIME)
   + 0.125	CellData Megabyte per time-step (RW)
   + 154.538235882611	TIMESTEP SIZE
   + 256	CLUSTERS
   + 0.002248/0.00568/0.01245	TIMINGS (edgeComm/adaptive/splitJoin)
WARNING: Timestep size for accurate data output is too small, fixing...
WARNING: Timestep size for accurate simulation specific data output is too small. Fixing the problem for this timestep...
=========================================
   + 0.318880247814008 Overall MTPS (Mega Triangles per second)
   + 0 Last Second MCPS (Mega Cellsper second)
   + 19	TIMESTEP
   + 2936.22648176961	SIMULATION_TIME
   + 2048	CELLS
   + 32	NUMBER_OF_THREADS
   + 0.122049 RT (REAL_TIME)
   + 0.125	CellData Megabyte per time-step (RW)
   + 154.538235882611	TIMESTEP SIZE
   + 256	CLUSTERS
   + 0.002375/0.006053/0.01311	TIMINGS (edgeComm/adaptive/splitJoin)
WARNING: Timestep size for accurate data output is too small, fixing...
WARNING: Timestep size for accurate simulation specific data output is too small. Fixing the problem for this timestep...
=========================================
   + 0.321650974140707 Overall MTPS (Mega Triangles per second)
   + 0 Last Second MCPS (Mega Cellsper second)
   + 20	TIMESTEP
   + 3090.76471765222	SIMULATION_TIME
   + 2048	CELLS
   + 32	NUMBER_OF_THREADS
   + 0.127366 RT (REAL_TIME)
   + 0.125	CellData Megabyte per time-step (RW)
   + 154.538235882611	TIMESTEP SIZE
   + 256	CLUSTERS
   + 0.002502/0.006361/0.013574	TIMINGS (edgeComm/adaptive/splitJoin)
WARNING: Timestep size for accurate data output is too small, fixing...
WARNING: Timestep size for accurate simulation specific data output is too small. Fixing the problem for this timestep...
=========================================
   + 0.324111684690456 Overall MTPS (Mega Triangles per second)
   + 0 Last Second MCPS (Mega Cellsper second)
   + 21	TIMESTEP
   + 3245.30295353483	SIMULATION_TIME
   + 2048	CELLS
   + 32	NUMBER_OF_THREADS
   + 0.132716 RT (REAL_TIME)
   + 0.125	CellData Megabyte per time-step (RW)
   + 154.538235882611	TIMESTEP SIZE
   + 256	CLUSTERS
   + 0.002633/0.006625/0.014206	TIMINGS (edgeComm/adaptive/splitJoin)
WARNING: Timestep size for accurate data output is too small, fixing...
WARNING: Timestep size for accurate simulation specific data output is too small. Fixing the problem for this timestep...
=========================================
   + 0.325130973170344 Overall MTPS (Mega Triangles per second)
   + 0 Last Second MCPS (Mega Cellsper second)
   + 22	TIMESTEP
   + 3399.84118941744	SIMULATION_TIME
   + 2048	CELLS
   + 32	NUMBER_OF_THREADS
   + 0.138601 RT (REAL_TIME)
   + 0.125	CellData Megabyte per time-step (RW)
   + 154.538235882611	TIMESTEP SIZE
   + 256	CLUSTERS
   + 0.002759/0.007229/0.014879	TIMINGS (edgeComm/adaptive/splitJoin)
WARNING: Timestep size for accurate data output is too small, fixing...
WARNING: Timestep size for accurate simulation specific data output is too small. Fixing the problem for this timestep...
=========================================
   + 0.325418483029244 Overall MTPS (Mega Triangles per second)
   + 0 Last Second MCPS (Mega Cellsper second)
   + 23	TIMESTEP
   + 3554.37942530005	SIMULATION_TIME
   + 2048	CELLS
   + 32	NUMBER_OF_THREADS
   + 0.144771 RT (REAL_TIME)
   + 0.125	CellData Megabyte per time-step (RW)
   + 154.538235882611	TIMESTEP SIZE
   + 256	CLUSTERS
   + 0.002899/0.007604/0.016078	TIMINGS (edgeComm/adaptive/splitJoin)
WARNING: Timestep size for accurate data output is too small, fixing...
WARNING: Timestep size for accurate simulation specific data output is too small. Fixing the problem for this timestep...
=========================================
   + 0.3271304208929 Overall MTPS (Mega Triangles per second)
   + 0 Last Second MCPS (Mega Cellsper second)
   + 24	TIMESTEP
   + 3708.91766118266	SIMULATION_TIME
   + 2048	CELLS
   + 32	NUMBER_OF_THREADS
   + 0.150274 RT (REAL_TIME)
   + 0.125	CellData Megabyte per time-step (RW)
   + 154.538235882611	TIMESTEP SIZE
   + 256	CLUSTERS
   + 0.003029/0.007817/0.016541	TIMINGS (edgeComm/adaptive/splitJoin)
WARNING: Timestep size for accurate data output is too small, fixing...
WARNING: Timestep size for accurate simulation specific data output is too small. Fixing the problem for this timestep...
=========================================
   + 0.329232925864719 Overall MTPS (Mega Triangles per second)
   + 0 Last Second MCPS (Mega Cellsper second)
   + 25	TIMESTEP
   + 3863.45589706527	SIMULATION_TIME
   + 2048	CELLS
   + 32	NUMBER_OF_THREADS
   + 0.155536 RT (REAL_TIME)
   + 0.125	CellData Megabyte per time-step (RW)
   + 154.538235882611	TIMESTEP SIZE
   + 256	CLUSTERS
   + 0.003156/0.008024/0.017163	TIMINGS (edgeComm/adaptive/splitJoin)
WARNING: Timestep size for accurate data output is too small, fixing...
WARNING: Timestep size for accurate simulation specific data output is too small. Fixing the problem for this timestep...
=========================================
   + 0.330478389315062 Overall MTPS (Mega Triangles per second)
   + 0 Last Second MCPS (Mega Cellsper second)
   + 26	TIMESTEP
   + 4017.99413294788	SIMULATION_TIME
   + 2048	CELLS
   + 32	NUMBER_OF_THREADS
   + 0.161146 RT (REAL_TIME)
   + 0.125	CellData Megabyte per time-step (RW)
   + 154.538235882611	TIMESTEP SIZE
   + 256	CLUSTERS
   + 0.003283/0.008319/0.017756	TIMINGS (edgeComm/adaptive/splitJoin)
WARNING: Timestep size for accurate data output is too small, fixing...
WARNING: Timestep size for accurate simulation specific data output is too small. Fixing the problem for this timestep...
=========================================
   + 0.331425351977608 Overall MTPS (Mega Triangles per second)
   + 0 Last Second MCPS (Mega Cellsper second)
   + 27	TIMESTEP
   + 4172.5323688305	SIMULATION_TIME
   + 2048	CELLS
   + 32	NUMBER_OF_THREADS
   + 0.166865 RT (REAL_TIME)
   + 0.125	CellData Megabyte per time-step (RW)
   + 154.538235882611	TIMESTEP SIZE
   + 256	CLUSTERS
   + 0.003409/0.008559/0.018337	TIMINGS (edgeComm/adaptive/splitJoin)
WARNING: Timestep size for accurate data output is too small, fixing...
WARNING: Timestep size for accurate simulation specific data output is too small. Fixing the problem for this timestep...
=========================================
   + 0.33160621761658 Overall MTPS (Mega Triangles per second)
   + 0 Last Second MCPS (Mega Cellsper second)
   + 28	TIMESTEP
   + 4327.07060471311	SIMULATION_TIME
   + 2048	CELLS
   + 32	NUMBER_OF_THREADS
   + 0.172951 RT (REAL_TIME)
   + 0.125	CellData Megabyte per time-step (RW)
   + 154.538235882611	TIMESTEP SIZE
   + 256	CLUSTERS
   + 0.003535/0.008954/0.01928	TIMINGS (edgeComm/adaptive/splitJoin)
WARNING: Timestep size for accurate data output is too small, fixing...
WARNING: Timestep size for accurate simulation specific data output is too small. Fixing the problem for this timestep...
=========================================
   + 0.332324289239412 Overall MTPS (Mega Triangles per second)
   + 0 Last Second MCPS (Mega Cellsper second)
   + 29	TIMESTEP
   + 4481.60884059572	SIMULATION_TIME
   + 2048	CELLS
   + 32	NUMBER_OF_THREADS
   + 0.17874 RT (REAL_TIME)
   + 0.125	CellData Megabyte per time-step (RW)
   + 154.538235882611	TIMESTEP SIZE
   + 256	CLUSTERS
   + 0.003663/0.009284/0.020141	TIMINGS (edgeComm/adaptive/splitJoin)
WARNING: Timestep size for accurate data output is too small, fixing...
WARNING: Timestep size for accurate simulation specific data output is too small. Fixing the problem for this timestep...
=========================================
   + 0.3332592034107 Overall MTPS (Mega Triangles per second)
   + 0 Last Second MCPS (Mega Cellsper second)
   + 30	TIMESTEP
   + 4636.14707647833	SIMULATION_TIME
   + 2048	CELLS
   + 32	NUMBER_OF_THREADS
   + 0.184383 RT (REAL_TIME)
   + 0.125	CellData Megabyte per time-step (RW)
   + 154.538235882611	TIMESTEP SIZE
   + 256	CLUSTERS
   + 0.003789/0.009728/0.020826	TIMINGS (edgeComm/adaptive/splitJoin)
WARNING: Timestep size for accurate data output is too small, fixing...
WARNING: Timestep size for accurate simulation specific data output is too small. Fixing the problem for this timestep...
=========================================
   + 0.33340860514334 Overall MTPS (Mega Triangles per second)
   + 0 Last Second MCPS (Mega Cellsper second)
   + 31	TIMESTEP
   + 4790.68531236094	SIMULATION_TIME
   + 2048	CELLS
   + 32	NUMBER_OF_THREADS
   + 0.190444 RT (REAL_TIME)
   + 0.125	CellData Megabyte per time-step (RW)
   + 154.538235882611	TIMESTEP SIZE
   + 256	CLUSTERS
   + 0.003918/0.010232/0.021673	TIMINGS (edgeComm/adaptive/splitJoin)
WARNING: Timestep size for accurate data output is too small, fixing...
WARNING: Timestep size for accurate simulation specific data output is too small. Fixing the problem for this timestep...
=========================================
   + 0.334538029606942 Overall MTPS (Mega Triangles per second)
   + 0 Last Second MCPS (Mega Cellsper second)
   + 32	TIMESTEP
   + 4945.22354824355	SIMULATION_TIME
   + 2048	CELLS
   + 32	NUMBER_OF_THREADS
   + 0.195921 RT (REAL_TIME)
   + 0.125	CellData Megabyte per time-step (RW)
   + 154.538235882611	TIMESTEP SIZE
   + 256	CLUSTERS
   + 0.004045/0.010591/0.022249	TIMINGS (edgeComm/adaptive/splitJoin)
WARNING: Timestep size for accurate data output is too small, fixing...
WARNING: Timestep size for accurate simulation specific data output is too small. Fixing the problem for this timestep...
=========================================
   + 0.335702683773675 Overall MTPS (Mega Triangles per second)
   + 0 Last Second MCPS (Mega Cellsper second)
   + 33	TIMESTEP
   + 5099.76178412616	SIMULATION_TIME
   + 2048	CELLS
   + 32	NUMBER_OF_THREADS
   + 0.201381 RT (REAL_TIME)
   + 0.125	CellData Megabyte per time-step (RW)
   + 154.538235882611	TIMESTEP SIZE
   + 256	CLUSTERS
   + 0.004188/0.01101/0.022834	TIMINGS (edgeComm/adaptive/splitJoin)
WARNING: Timestep size for accurate data output is too small, fixing...
WARNING: Timestep size for accurate simulation specific data output is too small. Fixing the problem for this timestep...
=========================================
   + 0.336640173270677 Overall MTPS (Mega Triangles per second)
   + 0 Last Second MCPS (Mega Cellsper second)
   + 34	TIMESTEP
   + 5254.30002000877	SIMULATION_TIME
   + 2048	CELLS
   + 32	NUMBER_OF_THREADS
   + 0.206867 RT (REAL_TIME)
   + 0.125	CellData Megabyte per time-step (RW)
   + 154.53823588261	TIMESTEP SIZE
   + 256	CLUSTERS
   + 0.004333/0.011387/0.023447	TIMINGS (edgeComm/adaptive/splitJoin)
WARNING: Timestep size for accurate data output is too small, fixing...
WARNING: Timestep size for accurate simulation specific data output is too small. Fixing the problem for this timestep...
=========================================
   + 0.337605207258889 Overall MTPS (Mega Triangles per second)
   + 0 Last Second MCPS (Mega Cellsper second)
   + 35	TIMESTEP
   + 5408.83825589136	SIMULATION_TIME
   + 2048	CELLS
   + 32	NUMBER_OF_THREADS
   + 0.212342 RT (REAL_TIME)
   + 0.125	CellData Megabyte per time-step (RW)
   + 154.538235882588	TIMESTEP SIZE
   + 256	CLUSTERS
   + 0.004449/0.011797/0.023953	TIMINGS (edgeComm/adaptive/splitJoin)
WARNING: Timestep size for accurate data output is too small, fixing...
WARNING: Timestep size for accurate simulation specific data output is too small. Fixing the problem for this timestep...
=========================================
   + 0.33681902281916 Overall MTPS (Mega Triangles per second)
   + 0 Last Second MCPS (Mega Cellsper second)
   + 36	TIMESTEP
   + 5563.37649177317	SIMULATION_TIME
   + 2048	CELLS
   + 32	NUMBER_OF_THREADS
   + 0.218917 RT (REAL_TIME)
   + 0.125	CellData Megabyte per time-step (RW)
   + 154.538235881807	TIMESTEP SIZE
   + 256	CLUSTERS
   + 0.004567/0.012356/0.024672	TIMINGS (edgeComm/adaptive/splitJoin)
WARNING: Timestep size for accurate data output is too small, fixing...
WARNING: Timestep size for accurate simulation specific data output is too small. Fixing the problem for this timestep...
=========================================
   + 0.336789706437921 Overall MTPS (Mega Triangles per second)
   + 0 Last Second MCPS (Mega Cellsper second)
   + 37	TIMESTEP
   + 5717.9147276486	SIMULATION_TIME
   + 2048	CELLS
   + 32	NUMBER_OF_THREADS
   + 0.225017 RT (REAL_TIME)
   + 0.125	CellData Megabyte per time-step (RW)
   + 154.538235875431	TIMESTEP SIZE
   + 256	CLUSTERS
   + 0.004684/0.01279/0.025639	TIMINGS (edgeComm/adaptive/splitJoin)
WARNING: Timestep size for accurate data output is too small, fixing...
WARNING: Timestep size for accurate simulation specific data output is too small. Fixing the problem for this timestep...
=========================================
   + 0.337299059061142 Overall MTPS (Mega Triangles per second)
   + 0 Last Second MCPS (Mega Cellsper second)
   + 38	TIMESTEP
   + 5872.45296349276	SIMULATION_TIME
   + 2048	CELLS
   + 32	NUMBER_OF_THREADS
   + 0.230762 RT (REAL_TIME)
   + 0.125	CellData Megabyte per time-step (RW)
   + 154.538235844166	TIMESTEP SIZE
   + 256	CLUSTERS
   + 0.004807/0.013105/0.026342	TIMINGS (edgeComm/adaptive/splitJoin)
WARNING: Timestep size for accurate data output is too small, fixing...
WARNING: Timestep size for accurate simulation specific data output is too small. Fixing the problem for this timestep...
=========================================
   + 0.338920336408307 Overall MTPS (Mega Triangles per second)
   + 0 Last Second MCPS (Mega Cellsper second)
   + 39	TIMESTEP
   + 6026.99119922174	SIMULATION_TIME
   + 2048	CELLS
   + 32	NUMBER_OF_THREADS
   + 0.235689 RT (REAL_TIME)
   + 0.125	CellData Megabyte per time-step (RW)
   + 154.538235728976	TIMESTEP SIZE
   + 256	CLUSTERS
   + 0.004926/0.01337/0.02676	TIMINGS (edgeComm/adaptive/splitJoin)
WARNING: Timestep size for accurate data output is too small, fixing...
WARNING: Timestep size for accurate simulation specific data output is too small. Fixing the problem for this timestep...
=========================================
   + 0.339877524602951 Overall MTPS (Mega Triangles per second)
   + 0 Last Second MCPS (Mega Cellsper second)
   + 40	TIMESTEP
   + 6181.52943460098	SIMULATION_TIME
   + 2048	CELLS
   + 32	NUMBER_OF_THREADS
   + 0.241049 RT (REAL_TIME)
   + 0.125	CellData Megabyte per time-step (RW)
   + 154.538235379244	TIMESTEP SIZE
   + 256	CLUSTERS
   + 0.005047/0.013618/0.02746	TIMINGS (edgeComm/adaptive/splitJoin)
WARNING: Timestep size for accurate data output is too small, fixing...
WARNING: Timestep size for accurate simulation specific data output is too small. Fixing the problem for this timestep...
=========================================
   + 0.340538742933156 Overall MTPS (Mega Triangles per second)
   + 0 Last Second MCPS (Mega Cellsper second)
   + 41	TIMESTEP
   + 6336.06766906169	SIMULATION_TIME
   + 2048	CELLS
   + 32	NUMBER_OF_THREADS
   + 0.246597 RT (REAL_TIME)
   + 0.125	CellData Megabyte per time-step (RW)
   + 154.538234460703	TIMESTEP SIZE
   + 256	CLUSTERS
   + 0.005166/0.013857/0.028031	TIMINGS (edgeComm/adaptive/splitJoin)
WARNING: Timestep size for accurate data output is too small, fixing...
WARNING: Timestep size for accurate simulation specific data output is too small. Fixing the problem for this timestep...
=========================================
   + 0.341070762984052 Overall MTPS (Mega Triangles per second)
   + 0 Last Second MCPS (Mega Cellsper second)
   + 42	TIMESTEP
   + 6490.6059013766	SIMULATION_TIME
   + 2048	CELLS
   + 32	NUMBER_OF_THREADS
   + 0.252216 RT (REAL_TIME)
   + 0.125	CellData Megabyte per time-step (RW)
   + 154.538232314912	TIMESTEP SIZE
   + 256	CLUSTERS
   + 0.00528/0.014343/0.028502	TIMINGS (edgeComm/adaptive/splitJoin)
WARNING: Timestep size for accurate data output is too small, fixing...
WARNING: Timestep size for accurate simulation specific data output is too small. Fixing the problem for this timestep...
=========================================
   + 0.341522626882342 Overall MTPS (Mega Triangles per second)
   + 0 Last Second MCPS (Mega Cellsper second)
   + 43	TIMESTEP
   + 6645.14412915469	SIMULATION_TIME
   + 2048	CELLS
   + 32	NUMBER_OF_THREADS
   + 0.257879 RT (REAL_TIME)
   + 0.125	CellData Megabyte per time-step (RW)
   + 154.538227778088	TIMESTEP SIZE
   + 256	CLUSTERS
   + 0.005401/0.014585/0.029437	TIMINGS (edgeComm/adaptive/splitJoin)
WARNING: Timestep size for accurate data output is too small, fixing...
WARNING: Timestep size for accurate simulation specific data output is too small. Fixing the problem for this timestep...
=========================================
   + 0.34175534940874 Overall MTPS (Mega Triangles per second)
   + 0 Last Second MCPS (Mega Cellsper second)
   + 44	TIMESTEP
   + 6799.682348149	SIMULATION_TIME
   + 2048	CELLS
   + 32	NUMBER_OF_THREADS
   + 0.263696 RT (REAL_TIME)
   + 0.125	CellData Megabyte per time-step (RW)
   + 154.538218994313	TIMESTEP SIZE
   + 256	CLUSTERS
   + 0.005521/0.014983/0.030129	TIMINGS (edgeComm/adaptive/splitJoin)
WARNING: Timestep size for accurate data output is too small, fixing...
WARNING: Timestep size for accurate simulation specific data output is too small. Fixing the problem for this timestep...
=========================================
   + 0.342121479853589 Overall MTPS (Mega Triangles per second)
   + 0 Last Second MCPS (Mega Cellsper second)
   + 45	TIMESTEP
   + 6954.22055143638	SIMULATION_TIME
   + 2048	CELLS
   + 32	NUMBER_OF_THREADS
   + 0.2694 RT (REAL_TIME)
   + 0.125	CellData Megabyte per time-step (RW)
   + 154.53820328738	TIMESTEP SIZE
   + 256	CLUSTERS
   + 0.005636/0.015492/0.030824	TIMINGS (edgeComm/adaptive/splitJoin)
WARNING: Timestep size for accurate data output is too small, fixing...
WARNING: Timestep size for accurate simulation specific data output is too small. Fixing the problem for this timestep...
=========================================
   + 0.342677971896972 Overall MTPS (Mega Triangles per second)
   + 0 Last Second MCPS (Mega Cellsper second)
   + 46	TIMESTEP
   + 7108.75872861167	SIMULATION_TIME
   + 2048	CELLS
   + 32	NUMBER_OF_THREADS
   + 0.27494 RT (REAL_TIME)
   + 0.125	CellData Megabyte per time-step (RW)
   + 154.538177175286	TIMESTEP SIZE
   + 256	CLUSTERS
   + 0.005754/0.015821/0.031469	TIMINGS (edgeComm/adaptive/splitJoin)
WARNING: Timestep size for accurate data output is too small, fixing...
WARNING: Timestep size for accurate simulation specific data output is too small. Fixing the problem for this timestep...
=========================================
   + 0.342941021383935 Overall MTPS (Mega Triangles per second)
   + 0 Last Second MCPS (Mega Cellsper second)
   + 47	TIMESTEP
   + 7263.29686521947	SIMULATION_TIME
   + 2048	CELLS
   + 32	NUMBER_OF_THREADS
   + 0.280701 RT (REAL_TIME)
   + 0.125	CellData Megabyte per time-step (RW)
   + 154.538136607801	TIMESTEP SIZE
   + 256	CLUSTERS
   + 0.005869/0.01615/0.031997	TIMINGS (edgeComm/adaptive/splitJoin)
WARNING: Timestep size for accurate data output is too small, fixing...
WARNING: Timestep size for accurate simulation specific data output is too small. Fixing the problem for this timestep...
=========================================
   + 0.34344408342941 Overall MTPS (Mega Triangles per second)
   + 0 Last Second MCPS (Mega Cellsper second)
   + 48	TIMESTEP
   + 7417.83494269329	SIMULATION_TIME
   + 2048	CELLS
   + 32	NUMBER_OF_THREADS
   + 0.286252 RT (REAL_TIME)
   + 0.125	CellData Megabyte per time-step (RW)
   + 154.538077473822	TIMESTEP SIZE
   + 256	CLUSTERS
   + 0.005992/0.016541/0.032491	TIMINGS (edgeComm/adaptive/splitJoin)
WARNING: Timestep size for accurate data output is too small, fixing...
WARNING: Timestep size for accurate simulation specific data output is too small. Fixing the problem for this timestep...
=========================================
   + 0.343539464315057 Overall MTPS (Mega Triangles per second)
   + 0 Last Second MCPS (Mega Cellsper second)
   + 49	TIMESTEP
   + 7572.37293905512	SIMULATION_TIME
   + 2048	CELLS
   + 32	NUMBER_OF_THREADS
   + 0.292135 RT (REAL_TIME)
   + 0.125	CellData Megabyte per time-step (RW)
   + 154.537996361826	TIMESTEP SIZE
   + 256	CLUSTERS
   + 0.00611/0.016881/0.033304	TIMINGS (edgeComm/adaptive/splitJoin)
WARNING: Timestep size for accurate data output is too small, fixing...
WARNING: Timestep size for accurate simulation specific data output is too small. Fixing the problem for this timestep...
=========================================
   + 0.343708358087719 Overall MTPS (Mega Triangles per second)
   + 0 Last Second MCPS (Mega Cellsper second)
   + 50	TIMESTEP
   + 7726.91083053179	SIMULATION_TIME
   + 2048	CELLS
   + 32	NUMBER_OF_THREADS
   + 0.297947 RT (REAL_TIME)
   + 0.125	CellData Megabyte per time-step (RW)
   + 154.537891476679	TIMESTEP SIZE
   + 256	CLUSTERS
   + 0.006231/0.017183/0.034048	TIMINGS (edgeComm/adaptive/splitJoin)
WARNING: Timestep size for accurate data output is too small, fixing...
WARNING: Timestep size for accurate simulation specific data output is too small. Fixing the problem for this timestep...
=========================================
   + 0.343687480256923 Overall MTPS (Mega Triangles per second)
   + 0 Last Second MCPS (Mega Cellsper second)
   + 51	TIMESTEP
   + 7881.44859407321	SIMULATION_TIME
   + 2048	CELLS
   + 32	NUMBER_OF_THREADS
   + 0.303926 RT (REAL_TIME)
   + 0.125	CellData Megabyte per time-step (RW)
   + 154.537763541412	TIMESTEP SIZE
   + 256	CLUSTERS
   + 0.006354/0.017634/0.03464	TIMINGS (edgeComm/adaptive/splitJoin)
WARNING: Timestep size for accurate data output is too small, fixing...
WARNING: Timestep size for accurate simulation specific data output is too small. Fixing the problem for this timestep...
=========================================
   + 0.343608639258681 Overall MTPS (Mega Triangles per second)
   + 0 Last Second MCPS (Mega Cellsper second)
   + 52	TIMESTEP
   + 8035.98621054251	SIMULATION_TIME
   + 2048	CELLS
   + 32	NUMBER_OF_THREADS
   + 0.309955 RT (REAL_TIME)
   + 0.125	CellData Megabyte per time-step (RW)
   + 154.537616469305	TIMESTEP SIZE
   + 256	CLUSTERS
   + 0.006473/0.018245/0.035193	TIMINGS (edgeComm/adaptive/splitJoin)
WARNING: Timestep size for accurate data output is too small, fixing...
WARNING: Timestep size for accurate simulation specific data output is too small. Fixing the problem for this timestep...
=========================================
   + 0.343679649430546 Overall MTPS (Mega Triangles per second)
   + 0 Last Second MCPS (Mega Cellsper second)
   + 53	TIMESTEP
   + 8190.52366814263	SIMULATION_TIME
   + 2048	CELLS
   + 32	NUMBER_OF_THREADS
   + 0.315851 RT (REAL_TIME)
   + 0.125	CellData Megabyte per time-step (RW)
   + 154.537457600118	TIMESTEP SIZE
   + 256	CLUSTERS
   + 0.00659/0.018629/0.03589	TIMINGS (edgeComm/adaptive/splitJoin)
WARNING: Timestep size for accurate data output is too small, fixing...
WARNING: Timestep size for accurate simulation specific data output is too small. Fixing the problem for this timestep...
=========================================
   + 0.343819658829125 Overall MTPS (Mega Triangles per second)
   + 0 Last Second MCPS (Mega Cellsper second)
   + 54	TIMESTEP
   + 8345.06096550369	SIMULATION_TIME
   + 2048	CELLS
   + 32	NUMBER_OF_THREADS
   + 0.321678 RT (REAL_TIME)
   + 0.125	CellData Megabyte per time-step (RW)
   + 154.537297361062	TIMESTEP SIZE
   + 256	CLUSTERS
   + 0.006708/0.018959/0.036549	TIMINGS (edgeComm/adaptive/splitJoin)
WARNING: Timestep size for accurate data output is too small, fixing...
WARNING: Timestep size for accurate simulation specific data output is too small. Fixing the problem for this timestep...
=========================================
   + 0.344390055981729 Overall MTPS (Mega Triangles per second)
   + 0 Last Second MCPS (Mega Cellsper second)
   + 55	TIMESTEP
   + 8499.5981138309	SIMULATION_TIME
   + 2048	CELLS
   + 32	NUMBER_OF_THREADS
   + 0.327094 RT (REAL_TIME)
   + 0.125	CellData Megabyte per time-step (RW)
   + 154.537148327212	TIMESTEP SIZE
   + 256	CLUSTERS
   + 0.006827/0.019387/0.037112	TIMINGS (edgeComm/adaptive/splitJoin)
WARNING: Timestep size for accurate data output is too small, fixing...
WARNING: Timestep size for accurate simulation specific data output is too small. Fixing the problem for this timestep...
=========================================
   + 0.344493238575265 Overall MTPS (Mega Triangles per second)
   + 0 Last Second MCPS (Mega Cellsper second)
   + 56	TIMESTEP
   + 8654.13513762173	SIMULATION_TIME
   + 2048	CELLS
   + 32	NUMBER_OF_THREADS
   + 0.332939 RT (REAL_TIME)
   + 0.125	CellData Megabyte per time-step (RW)
   + 154.537023790828	TIMESTEP SIZE
   + 256	CLUSTERS
   + 0.006947/0.019724/0.037731	TIMINGS (edgeComm/adaptive/splitJoin)
WARNING: Timestep size for accurate data output is too small, fixing...
WARNING: Timestep size for accurate simulation specific data output is too small. Fixing the problem for this timestep...
=========================================
   + 0.344622360776534 Overall MTPS (Mega Triangles per second)
   + 0 Last Second MCPS (Mega Cellsper second)
   + 57	TIMESTEP
   + 8808.67207369066	SIMULATION_TIME
   + 2048	CELLS
   + 32	NUMBER_OF_THREADS
   + 0.33878 RT (REAL_TIME)
   + 0.125	CellData Megabyte per time-step (RW)
   + 154.536936068925	TIMESTEP SIZE
   + 256	CLUSTERS
   + 0.007064/0.020333/0.038557	TIMINGS (edgeComm/adaptive/splitJoin)
WARNING: Timestep size for accurate data output is too small, fixing...
WARNING: Timestep size for accurate simulation specific data output is too small. Fixing the problem for this timestep...
=========================================
   + 0.345116725017069 Overall MTPS (Mega Triangles per second)
   + 0 Last Second MCPS (Mega Cellsper second)
   + 58	TIMESTEP
   + 8963.20896854048	SIMULATION_TIME
   + 2048	CELLS
   + 32	NUMBER_OF_THREADS
   + 0.344208 RT (REAL_TIME)
   + 0.125	CellData Megabyte per time-step (RW)
   + 154.536894849818	TIMESTEP SIZE
   + 256	CLUSTERS
   + 0.007186/0.020728/0.039004	TIMINGS (edgeComm/adaptive/splitJoin)
WARNING: Timestep size for accurate data output is too small, fixing...
WARNING: Timestep size for accurate simulation specific data output is too small. Fixing the problem for this timestep...
=========================================
   + 0.345334926178486 Overall MTPS (Mega Triangles per second)
   + 0 Last Second MCPS (Mega Cellsper second)
   + 59	TIMESTEP
   + 9117.74587442242	SIMULATION_TIME
   + 2048	CELLS
   + 32	NUMBER_OF_THREADS
   + 0.349919 RT (REAL_TIME)
   + 0.125	CellData Megabyte per time-step (RW)
   + 154.536905881942	TIMESTEP SIZE
   + 256	CLUSTERS
   + 0.007311/0.02119/0.039701	TIMINGS (edgeComm/adaptive/splitJoin)
WARNING: Timestep size for accurate data output is too small, fixing...
WARNING: Timestep size for accurate simulation specific data output is too small. Fixing the problem for this timestep...
=========================================
   + 0.345721110426496 Overall MTPS (Mega Triangles per second)
   + 0 Last Second MCPS (Mega Cellsper second)
   + 60	TIMESTEP
   + 9272.28284466169	SIMULATION_TIME
   + 2048	CELLS
   + 32	NUMBER_OF_THREADS
   + 0.355453 RT (REAL_TIME)
   + 0.125	CellData Megabyte per time-step (RW)
   + 154.536970239275	TIMESTEP SIZE
   + 256	CLUSTERS
   + 0.007432/0.021618/0.040148	TIMINGS (edgeComm/adaptive/splitJoin)
WARNING: Timestep size for accurate data output is too small, fixing...
WARNING: Timestep size for accurate simulation specific data output is too small. Fixing the problem for this timestep...
=========================================
   + 0.345786994237253 Overall MTPS (Mega Triangles per second)
   + 0 Last Second MCPS (Mega Cellsper second)
   + 61	TIMESTEP
   + 9426.81992893882	SIMULATION_TIME
   + 2048	CELLS
   + 32	NUMBER_OF_THREADS
   + 0.361309 RT (REAL_TIME)
   + 0.125	CellData Megabyte per time-step (RW)
   + 154.53708427713	TIMESTEP SIZE
   + 256	CLUSTERS
   + 0.00755/0.021919/0.040794	TIMINGS (edgeComm/adaptive/splitJoin)
WARNING: Timestep size for accurate data output is too small, fixing...
WARNING: Timestep size for accurate simulation specific data output is too small. Fixing the problem for this timestep...
=========================================
   + 0.3454800223108 Overall MTPS (Mega Triangles per second)
   + 0 Last Second MCPS (Mega Cellsper second)
   + 62	TIMESTEP
   + 9581.35716918784	SIMULATION_TIME
   + 2048	CELLS
   + 32	NUMBER_OF_THREADS
   + 0.367557 RT (REAL_TIME)
   + 0.125	CellData Megabyte per time-step (RW)
   + 154.537240249015	TIMESTEP SIZE
   + 256	CLUSTERS
   + 0.007678/0.022267/0.041568	TIMINGS (edgeComm/adaptive/splitJoin)
WARNING: Timestep size for accurate data output is too small, fixing...
WARNING: Timestep size for accurate simulation specific data output is too small. Fixing the problem for this timestep...
=========================================
   + 0.344932309600701 Overall MTPS (Mega Triangles per second)
   + 0 Last Second MCPS (Mega Cellsper second)
   + 63	TIMESTEP
   + 9735.89459661788	SIMULATION_TIME
   + 2048	CELLS
   + 32	NUMBER_OF_THREADS
   + 0.374078 RT (REAL_TIME)
   + 0.125	CellData Megabyte per time-step (RW)
   + 154.537427430045	TIMESTEP SIZE
   + 256	CLUSTERS
   + 0.0078/0.022632/0.04232	TIMINGS (edgeComm/adaptive/splitJoin)
WARNING: Timestep size for accurate data output is too small, fixing...
WARNING: Timestep size for accurate simulation specific data output is too small. Fixing the problem for this timestep...
=========================================
   + 0.344165528831005 Overall MTPS (Mega Triangles per second)
   + 0 Last Second MCPS (Mega Cellsper second)
   + 64	TIMESTEP
   + 9890.432230128	SIMULATION_TIME
   + 2048	CELLS
   + 32	NUMBER_OF_THREADS
   + 0.380862 RT (REAL_TIME)
   + 0.125	CellData Megabyte per time-step (RW)
   + 154.537633510116	TIMESTEP SIZE
   + 256	CLUSTERS
   + 0.007923/0.023037/0.043202	TIMINGS (edgeComm/adaptive/splitJoin)
WARNING: Timestep size for accurate data output is too small, fixing...
WARNING: Timestep size for accurate simulation specific data output is too small. Fixing the problem for this timestep...
=========================================
   + 0.343456599645501 Overall MTPS (Mega Triangles per second)
   + 0 Last Second MCPS (Mega Cellsper second)
   + 65	TIMESTEP
   + 10044.9700761288	SIMULATION_TIME
   + 2048	CELLS
   + 32	NUMBER_OF_THREADS
   + 0.387611 RT (REAL_TIME)
   + 0.125	CellData Megabyte per time-step (RW)
   + 154.537846000781	TIMESTEP SIZE
   + 256	CLUSTERS
   + 0.008044/0.023433/0.04397	TIMINGS (edgeComm/adaptive/splitJoin)
WARNING: Timestep size for accurate data output is too small, fixing...
WARNING: Timestep size for accurate simulation specific data output is too small. Fixing the problem for this timestep...
=========================================
   + 0.343639012261563 Overall MTPS (Mega Triangles per second)
   + 0 Last Second MCPS (Mega Cellsper second)
   + 66	TIMESTEP
   + 10199.5081295655	SIMULATION_TIME
   + 2048	CELLS
   + 32	NUMBER_OF_THREADS
   + 0.393366 RT (REAL_TIME)
   + 0.125	CellData Megabyte per time-step (RW)
   + 154.538053436682	TIMESTEP SIZE
   + 256	CLUSTERS
   + 0.008164/0.023678/0.044885	TIMINGS (edgeComm/adaptive/splitJoin)
WARNING: Timestep size for accurate data output is too small, fixing...
WARNING: Timestep size for accurate simulation specific data output is too small. Fixing the problem for this timestep...
=========================================
   + 0.34354759156654 Overall MTPS (Mega Triangles per second)
   + 0 Last Second MCPS (Mega Cellsper second)
   + 67	TIMESTEP
   + 10354.0462812114	SIMULATION_TIME
   + 2048	CELLS
   + 32	NUMBER_OF_THREADS
   + 0.39943 RT (REAL_TIME)
   + 0.125	CellData Megabyte per time-step (RW)
   + 154.538151645922	TIMESTEP SIZE
   + 256	CLUSTERS
   + 0.008282/0.023915/0.045525	TIMINGS (edgeComm/adaptive/splitJoin)
WARNING: Timestep size for accurate data output is too small, fixing...
WARNING: Timestep size for accurate simulation specific data output is too small. Fixing the problem for this timestep...
=========================================
   + 0.343785331654694 Overall MTPS (Mega Triangles per second)
   + 0 Last Second MCPS (Mega Cellsper second)
   + 68	TIMESTEP
   + 10508.5844525112	SIMULATION_TIME
   + 2048	CELLS
   + 32	NUMBER_OF_THREADS
   + 0.405112 RT (REAL_TIME)
   + 0.125	CellData Megabyte per time-step (RW)
   + 154.538171299822	TIMESTEP SIZE
   + 256	CLUSTERS
   + 0.008401/0.024211/0.045988	TIMINGS (edgeComm/adaptive/splitJoin)
WARNING: Timestep size for accurate data output is too small, fixing...
WARNING: Timestep size for accurate simulation specific data output is too small. Fixing the problem for this timestep...
=========================================
   + 0.343333624887023 Overall MTPS (Mega Triangles per second)
   + 0 Last Second MCPS (Mega Cellsper second)
   + 69	TIMESTEP
   + 10663.1226452513	SIMULATION_TIME
   + 2048	CELLS
   + 32	NUMBER_OF_THREADS
   + 0.41161 RT (REAL_TIME)
   + 0.125	CellData Megabyte per time-step (RW)
   + 154.538192740063	TIMESTEP SIZE
   + 256	CLUSTERS
   + 0.00852/0.024809/0.046759	TIMINGS (edgeComm/adaptive/splitJoin)
WARNING: Timestep size for accurate data output is too small, fixing...
WARNING: Timestep size for accurate simulation specific data output is too small. Fixing the problem for this timestep...
=========================================
   + 0.343526998595795 Overall MTPS (Mega Triangles per second)
   + 0 Last Second MCPS (Mega Cellsper second)
   + 70	TIMESTEP
   + 10817.6608596016	SIMULATION_TIME
   + 2048	CELLS
   + 32	NUMBER_OF_THREADS
   + 0.41734 RT (REAL_TIME)
   + 0.125	CellData Megabyte per time-step (RW)
   + 154.538214350359	TIMESTEP SIZE
   + 256	CLUSTERS
   + 0.008639/0.025101/0.047589	TIMINGS (edgeComm/adaptive/splitJoin)
WARNING: Timestep size for accurate data output is too small, fixing...
WARNING: Timestep size for accurate simulation specific data output is too small. Fixing the problem for this timestep...
=========================================
   + 0.343146532499192 Overall MTPS (Mega Triangles per second)
   + 0 Last Second MCPS (Mega Cellsper second)
   + 71	TIMESTEP
   + 10972.1990476103	SIMULATION_TIME
   + 2048	CELLS
   + 32	NUMBER_OF_THREADS
   + 0.423771 RT (REAL_TIME)
   + 0.125	CellData Megabyte per time-step (RW)
   + 154.538188008625	TIMESTEP SIZE
   + 256	CLUSTERS
   + 0.008757/0.025312/0.048702	TIMINGS (edgeComm/adaptive/splitJoin)
WARNING: Timestep size for accurate data output is too small, fixing...
WARNING: Timestep size for accurate simulation specific data output is too small. Fixing the problem for this timestep...
=========================================
   + 0.343361710847413 Overall MTPS (Mega Triangles per second)
   + 0 Last Second MCPS (Mega Cellsper second)
   + 72	TIMESTEP
   + 11126.7372046894	SIMULATION_TIME
   + 2048	CELLS
   + 32	NUMBER_OF_THREADS
   + 0.429469 RT (REAL_TIME)
   + 0.125	CellData Megabyte per time-step (RW)
   + 154.538157079123	TIMESTEP SIZE
   + 256	CLUSTERS
   + 0.008878/0.025596/0.04949	TIMINGS (edgeComm/adaptive/splitJoin)
WARNING: Timestep size for accurate data output is too small, fixing...
WARNING: Timestep size for accurate simulation specific data output is too small. Fixing the problem for this timestep...
=========================================
   + 0.343510468172711 Overall MTPS (Mega Triangles per second)
   + 0 Last Second MCPS (Mega Cellsper second)
   + 73	TIMESTEP
   + 11281.2753384263	SIMULATION_TIME
   + 2048	CELLS
   + 32	NUMBER_OF_THREADS
   + 0.435246 RT (REAL_TIME)
   + 0.125	CellData Megabyte per time-step (RW)
   + 154.538133736919	TIMESTEP SIZE
   + 256	CLUSTERS
   + 0.008996/0.026117/0.050174	TIMINGS (edgeComm/adaptive/splitJoin)
WARNING: Timestep size for accurate data output is too small, fixing...
WARNING: Timestep size for accurate simulation specific data output is too small. Fixing the problem for this timestep...
=========================================
   + 0.343596114955246 Overall MTPS (Mega Triangles per second)
   + 0 Last Second MCPS (Mega Cellsper second)
   + 74	TIMESTEP
   + 11435.8134562336	SIMULATION_TIME
   + 2048	CELLS
   + 32	NUMBER_OF_THREADS
   + 0.441098 RT (REAL_TIME)
   + 0.125	CellData Megabyte per time-step (RW)
   + 154.53811780726	TIMESTEP SIZE
   + 256	CLUSTERS
   + 0.009116/0.026608/0.051014	TIMINGS (edgeComm/adaptive/splitJoin)
WARNING: Timestep size for accurate data output is too small, fixing...
WARNING: Timestep size for accurate simulation specific data output is too small. Fixing the problem for this timestep...
=========================================
   + 0.34378182387896 Overall MTPS (Mega Triangles per second)
   + 0 Last Second MCPS (Mega Cellsper second)
   + 75	TIMESTEP
   + 11590.351564959	SIMULATION_TIME
   + 2048	CELLS
   + 32	NUMBER_OF_THREADS
   + 0.446816 RT (REAL_TIME)
   + 0.125	CellData Megabyte per time-step (RW)
   + 154.538108725458	TIMESTEP SIZE
   + 256	CLUSTERS
   + 0.009241/0.026922/0.051956	TIMINGS (edgeComm/adaptive/splitJoin)
WARNING: Timestep size for accurate data output is too small, fixing...
WARNING: Timestep size for accurate simulation specific data output is too small. Fixing the problem for this timestep...
=========================================
   + 0.343801010321894 Overall MTPS (Mega Triangles per second)
   + 0 Last Second MCPS (Mega Cellsper second)
   + 76	TIMESTEP
   + 11744.8896706121	SIMULATION_TIME
   + 2048	CELLS
   + 32	NUMBER_OF_THREADS
   + 0.452749 RT (REAL_TIME)
   + 0.125	CellData Megabyte per time-step (RW)
   + 154.538105653114	TIMESTEP SIZE
   + 256	CLUSTERS
   + 0.009363/0.027172/0.052642	TIMINGS (edgeComm/adaptive/splitJoin)
WARNING: Timestep size for accurate data output is too small, fixing...
WARNING: Timestep size for accurate simulation specific data output is too small. Fixing the problem for this timestep...
=========================================
   + 0.343766485732348 Overall MTPS (Mega Triangles per second)
   + 0 Last Second MCPS (Mega Cellsper second)
   + 77	TIMESTEP
   + 11899.4277782144	SIMULATION_TIME
   + 2048	CELLS
   + 32	NUMBER_OF_THREADS
   + 0.458764 RT (REAL_TIME)
   + 0.125	CellData Megabyte per time-step (RW)
   + 154.538107602228	TIMESTEP SIZE
   + 256	CLUSTERS
   + 0.009482/0.027368/0.053515	TIMINGS (edgeComm/adaptive/splitJoin)
WARNING: Timestep size for accurate data output is too small, fixing...
WARNING: Timestep size for accurate simulation specific data output is too small. Fixing the problem for this timestep...
=========================================
   + 0.344335972443465 Overall MTPS (Mega Triangles per second)
   + 0 Last Second MCPS (Mega Cellsper second)
   + 78	TIMESTEP
   + 12053.9658917632	SIMULATION_TIME
   + 2048	CELLS
   + 32	NUMBER_OF_THREADS
   + 0.463941 RT (REAL_TIME)
   + 0.125	CellData Megabyte per time-step (RW)
   + 154.538113548872	TIMESTEP SIZE
   + 256	CLUSTERS
   + 0.009602/0.027697/0.053872	TIMINGS (edgeComm/adaptive/splitJoin)
WARNING: Timestep size for accurate data output is too small, fixing...
WARNING: Timestep size for accurate simulation specific data output is too small. Fixing the problem for this timestep...
=========================================
   + 0.343803057831044 Overall MTPS (Mega Triangles per second)
   + 0 Last Second MCPS (Mega Cellsper second)
   + 79	TIMESTEP
   + 12208.5040142855	SIMULATION_TIME
   + 2048	CELLS
   + 32	NUMBER_OF_THREADS
   + 0.470618 RT (REAL_TIME)
   + 0.125	CellData Megabyte per time-step (RW)
   + 154.538122522282	TIMESTEP SIZE
   + 256	CLUSTERS
   + 0.00972/0.028001/0.054497	TIMINGS (edgeComm/adaptive/splitJoin)
WARNING: Timestep size for accurate data output is too small, fixing...
WARNING: Timestep size for accurate simulation specific data output is too small. Fixing the problem for this timestep...
=========================================
   + 0.343966107245878 Overall MTPS (Mega Triangles per second)
   + 0 Last Second MCPS (Mega Cellsper second)
   + 80	TIMESTEP
   + 12363.0421479471	SIMULATION_TIME
   + 2048	CELLS
   + 32	NUMBER_OF_THREADS
   + 0.476347 RT (REAL_TIME)
   + 0.125	CellData Megabyte per time-step (RW)
   + 154.538133661629	TIMESTEP SIZE
   + 256	CLUSTERS
   + 0.00985/0.028307/0.055059	TIMINGS (edgeComm/adaptive/splitJoin)
WARNING: Timestep size for accurate data output is too small, fixing...
WARNING: Timestep size for accurate simulation specific data output is too small. Fixing the problem for this timestep...
=========================================
   + 0.343746632738485 Overall MTPS (Mega Triangles per second)
   + 0 Last Second MCPS (Mega Cellsper second)
   + 81	TIMESTEP
   + 12517.5802941883	SIMULATION_TIME
   + 2048	CELLS
   + 32	NUMBER_OF_THREADS
   + 0.48261 RT (REAL_TIME)
   + 0.125	CellData Megabyte per time-step (RW)
   + 154.538146241129	TIMESTEP SIZE
   + 256	CLUSTERS
   + 0.009969/0.028611/0.055625	TIMINGS (edgeComm/adaptive/splitJoin)
WARNING: Timestep size for accurate data output is too small, fixing...
WARNING: Timestep size for accurate simulation specific data output is too small. Fixing the problem for this timestep...
=========================================
   + 0.343769062913243 Overall MTPS (Mega Triangles per second)
   + 0 Last Second MCPS (Mega Cellsper second)
   + 82	TIMESTEP
   + 12672.1184538586	SIMULATION_TIME
   + 2048	CELLS
   + 32	NUMBER_OF_THREADS
   + 0.488535 RT (REAL_TIME)
   + 0.125	CellData Megabyte per time-step (RW)
   + 154.538159670313	TIMESTEP SIZE
   + 256	CLUSTERS
   + 0.010109/0.028978/0.056427	TIMINGS (edgeComm/adaptive/splitJoin)
WARNING: Timestep size for accurate data output is too small, fixing...
WARNING: Timestep size for accurate simulation specific data output is too small. Fixing the problem for this timestep...
=========================================
   + 0.3411182507415 Overall MTPS (Mega Triangles per second)
   + 0 Last Second MCPS (Mega Cellsper second)
   + 83	TIMESTEP
   + 12826.6566273388	SIMULATION_TIME
   + 2048	CELLS
   + 32	NUMBER_OF_THREADS
   + 0.498336 RT (REAL_TIME)
   + 0.125	CellData Megabyte per time-step (RW)
   + 154.538173480217	TIMESTEP SIZE
   + 256	CLUSTERS
   + 0.010229/0.029258/0.057026	TIMINGS (edgeComm/adaptive/splitJoin)
WARNING: Timestep size for accurate data output is too small, fixing...
WARNING: Timestep size for accurate simulation specific data output is too small. Fixing the problem for this timestep...
=========================================
   + 0.341173577451828 Overall MTPS (Mega Triangles per second)
   + 0 Last Second MCPS (Mega Cellsper second)
   + 84	TIMESTEP
   + 12981.1948146443	SIMULATION_TIME
   + 2048	CELLS
   + 32	NUMBER_OF_THREADS
   + 0.504259 RT (REAL_TIME)
   + 0.125	CellData Megabyte per time-step (RW)
   + 154.538187305493	TIMESTEP SIZE
   + 256	CLUSTERS
   + 0.010348/0.029651/0.057471	TIMINGS (edgeComm/adaptive/splitJoin)
WARNING: Timestep size for accurate data output is too small, fixing...
WARNING: Timestep size for accurate simulation specific data output is too small. Fixing the problem for this timestep...
=========================================
   + 0.341420362053072 Overall MTPS (Mega Triangles per second)
   + 0 Last Second MCPS (Mega Cellsper second)
   + 85	TIMESTEP
   + 13135.7330155139	SIMULATION_TIME
   + 2048	CELLS
   + 32	NUMBER_OF_THREADS
   + 0.509892 RT (REAL_TIME)
   + 0.125	CellData Megabyte per time-step (RW)
   + 154.538200869611	TIMESTEP SIZE
   + 256	CLUSTERS
   + 0.010466/0.029847/0.057902	TIMINGS (edgeComm/adaptive/splitJoin)
WARNING: Timestep size for accurate data output is too small, fixing...
WARNING: Timestep size for accurate simulation specific data output is too small. Fixing the problem for this timestep...
=========================================
   + 0.341527262573516 Overall MTPS (Mega Triangles per second)
   + 0 Last Second MCPS (Mega Cellsper second)
   + 86	TIMESTEP
   + 13290.2712294889	SIMULATION_TIME
   + 2048	CELLS
   + 32	NUMBER_OF_THREADS
   + 0.515729 RT (REAL_TIME)
   + 0.125	CellData Megabyte per time-step (RW)
   + 154.538213975037	TIMESTEP SIZE
   + 256	CLUSTERS
   + 0.010584/0.030156/0.058681	TIMINGS (edgeComm/adaptive/splitJoin)
WARNING: Timestep size for accurate data output is too small, fixing...
WARNING: Timestep size for accurate simulation specific data output is too small. Fixing the problem for this timestep...
=========================================
   + 0.341743163257086 Overall MTPS (Mega Triangles per second)
   + 0 Last Second MCPS (Mega Cellsper second)
   + 87	TIMESTEP
   + 13444.8094559855	SIMULATION_TIME
   + 2048	CELLS
   + 32	NUMBER_OF_THREADS
   + 0.521395 RT (REAL_TIME)
   + 0.125	CellData Megabyte per time-step (RW)
   + 154.538226496601	TIMESTEP SIZE
   + 256	CLUSTERS
   + 0.010703/0.030381/0.059205	TIMINGS (edgeComm/adaptive/splitJoin)
WARNING: Timestep size for accurate data output is too small, fixing...
WARNING: Timestep size for accurate simulation specific data output is too small. Fixing the problem for this timestep...
=========================================
   + 0.341841563688438 Overall MTPS (Mega Triangles per second)
   + 0 Last Second MCPS (Mega Cellsper second)
   + 88	TIMESTEP
   + 13599.3476927481	SIMULATION_TIME
   + 2048	CELLS
   + 32	NUMBER_OF_THREADS
   + 0.527237 RT (REAL_TIME)
   + 0.125	CellData Megabyte per time-step (RW)
   + 154.538236762527	TIMESTEP SIZE
   + 256	CLUSTERS
   + 0.010821/0.030605/0.059892	TIMINGS (edgeComm/adaptive/splitJoin)
WARNING: Timestep size for accurate data output is too small, fixing...
WARNING: Timestep size for accurate simulation specific data output is too small. Fixing the problem for this timestep...
=========================================
   + 0.34166283962998 Overall MTPS (Mega Triangles per second)
   + 0 Last Second MCPS (Mega Cellsper second)
   + 89	TIMESTEP
   + 13753.8858961901	SIMULATION_TIME
   + 2048	CELLS
   + 32	NUMBER_OF_THREADS
   + 0.533508 RT (REAL_TIME)
   + 0.125	CellData Megabyte per time-step (RW)
   + 154.538203442007	TIMESTEP SIZE
   + 256	CLUSTERS
   + 0.010942/0.031302/0.060611	TIMINGS (edgeComm/adaptive/splitJoin)
WARNING: Timestep size for accurate data output is too small, fixing...
WARNING: Timestep size for accurate simulation specific data output is too small. Fixing the problem for this timestep...
=========================================
   + 0.341578764000801 Overall MTPS (Mega Triangles per second)
   + 0 Last Second MCPS (Mega Cellsper second)
   + 90	TIMESTEP
   + 13908.4240693347	SIMULATION_TIME
   + 2048	CELLS
   + 32	NUMBER_OF_THREADS
   + 0.539634 RT (REAL_TIME)
   + 0.125	CellData Megabyte per time-step (RW)
   + 154.538173144666	TIMESTEP SIZE
   + 256	CLUSTERS
   + 0.011062/0.031545/0.061263	TIMINGS (edgeComm/adaptive/splitJoin)
WARNING: Timestep size for accurate data output is too small, fixing...
WARNING: Timestep size for accurate simulation specific data output is too small. Fixing the problem for this timestep...
=========================================
   + 0.341599856298137 Overall MTPS (Mega Triangles per second)
   + 0 Last Second MCPS (Mega Cellsper second)
   + 91	TIMESTEP
   + 14062.9622150348	SIMULATION_TIME
   + 2048	CELLS
   + 32	NUMBER_OF_THREADS
   + 0.545597 RT (REAL_TIME)
   + 0.125	CellData Megabyte per time-step (RW)
   + 154.53814570005	TIMESTEP SIZE
   + 256	CLUSTERS
   + 0.011185/0.031931/0.061809	TIMINGS (edgeComm/adaptive/splitJoin)
WARNING: Timestep size for accurate data output is too small, fixing...
WARNING: Timestep size for accurate simulation specific data output is too small. Fixing the problem for this timestep...
=========================================
   + 0.341335188415879 Overall MTPS (Mega Triangles per second)
   + 0 Last Second MCPS (Mega Cellsper second)
   + 92	TIMESTEP
   + 14217.5003360126	SIMULATION_TIME
   + 2048	CELLS
   + 32	NUMBER_OF_THREADS
   + 0.552019 RT (REAL_TIME)
   + 0.125	CellData Megabyte per time-step (RW)
   + 154.53812097785	TIMESTEP SIZE
   + 256	CLUSTERS
   + 0.011308/0.032522/0.062438	TIMINGS (edgeComm/adaptive/splitJoin)
WARNING: Timestep size for accurate data output is too small, fixing...
WARNING: Timestep size for accurate simulation specific data output is too small. Fixing the problem for this timestep...
=========================================
   + 0.341360862435143 Overall MTPS (Mega Triangles per second)
   + 0 Last Second MCPS (Mega Cellsper second)
   + 93	TIMESTEP
   + 14372.0384349308	SIMULATION_TIME
   + 2048	CELLS
   + 32	NUMBER_OF_THREADS
   + 0.557976 RT (REAL_TIME)
   + 0.125	CellData Megabyte per time-step (RW)
   + 154.538098918166	TIMESTEP SIZE
   + 256	CLUSTERS
   + 0.011427/0.032765/0.063031	TIMINGS (edgeComm/adaptive/splitJoin)
WARNING: Timestep size for accurate data output is too small, fixing...
WARNING: Timestep size for accurate simulation specific data output is too small. Fixing the problem for this timestep...
=========================================
   + 0.341789052069426 Overall MTPS (Mega Triangles per second)
   + 0 Last Second MCPS (Mega Cellsper second)
   + 94	TIMESTEP
   + 14526.5765144785	SIMULATION_TIME
   + 2048	CELLS
   + 32	NUMBER_OF_THREADS
   + 0.563269 RT (REAL_TIME)
   + 0.125	CellData Megabyte per time-step (RW)
   + 154.538079547725	TIMESTEP SIZE
   + 256	CLUSTERS
   + 0.011545/0.033123/0.06352	TIMINGS (edgeComm/adaptive/splitJoin)
WARNING: Timestep size for accurate data output is too small, fixing...
WARNING: Timestep size for accurate simulation specific data output is too small. Fixing the problem for this timestep...
=========================================
   + 0.342315839849111 Overall MTPS (Mega Triangles per second)
   + 0 Last Second MCPS (Mega Cellsper second)
   + 95	TIMESTEP
   + 14681.1145774544	SIMULATION_TIME
   + 2048	CELLS
   + 32	NUMBER_OF_THREADS
   + 0.568385 RT (REAL_TIME)
   + 0.125	CellData Megabyte per time-step (RW)
   + 154.538062975901	TIMESTEP SIZE
   + 256	CLUSTERS
   + 0.011664/0.033475/0.063966	TIMINGS (edgeComm/adaptive/splitJoin)
WARNING: Timestep size for accurate data output is too small, fixing...
WARNING: Timestep size for accurate simulation specific data output is too small. Fixing the problem for this timestep...
=========================================
   + 0.342162006943901 Overall MTPS (Mega Triangles per second)
   + 0 Last Second MCPS (Mega Cellsper second)
   + 96	TIMESTEP
   + 14835.6526268232	SIMULATION_TIME
   + 2048	CELLS
   + 32	NUMBER_OF_THREADS
   + 0.574626 RT (REAL_TIME)
   + 0.125	CellData Megabyte per time-step (RW)
   + 154.538049368734	TIMESTEP SIZE
   + 256	CLUSTERS
   + 0.011785/0.033786/0.064609	TIMINGS (edgeComm/adaptive/splitJoin)
WARNING: Timestep size for accurate data output is too small, fixing...
WARNING: Timestep size for accurate simulation specific data output is too small. Fixing the problem for this timestep...
=========================================
   + 0.342176427830772 Overall MTPS (Mega Triangles per second)
   + 0 Last Second MCPS (Mega Cellsper second)
   + 97	TIMESTEP
   + 14990.1906657293	SIMULATION_TIME
   + 2048	CELLS
   + 32	NUMBER_OF_THREADS
   + 0.580587 RT (REAL_TIME)
   + 0.125	CellData Megabyte per time-step (RW)
   + 154.538038906178	TIMESTEP SIZE
   + 256	CLUSTERS
   + 0.011974/0.034208/0.065561	TIMINGS (edgeComm/adaptive/splitJoin)
WARNING: Timestep size for accurate data output is too small, fixing...
WARNING: Timestep size for accurate simulation specific data output is too small. Fixing the problem for this timestep...
=========================================
   + 0.342317788060562 Overall MTPS (Mega Triangles per second)
   + 0 Last Second MCPS (Mega Cellsper second)
   + 98	TIMESTEP
   + 15144.7286974614	SIMULATION_TIME
   + 2048	CELLS
   + 32	NUMBER_OF_THREADS
   + 0.586331 RT (REAL_TIME)
   + 0.125	CellData Megabyte per time-step (RW)
   + 154.538031732027	TIMESTEP SIZE
   + 256	CLUSTERS
   + 0.012091/0.034566/0.066039	TIMINGS (edgeComm/adaptive/splitJoin)
WARNING: Timestep size for accurate data output is too small, fixing...
WARNING: Timestep size for accurate simulation specific data output is too small. Fixing the problem for this timestep...
=========================================
   + 0.342336714174035 Overall MTPS (Mega Triangles per second)
   + 0 Last Second MCPS (Mega Cellsper second)
   + 99	TIMESTEP
   + 15299.26672537	SIMULATION_TIME
   + 2048	CELLS
   + 32	NUMBER_OF_THREADS
   + 0.59228 RT (REAL_TIME)
   + 0.125	CellData Megabyte per time-step (RW)
   + 154.538027908581	TIMESTEP SIZE
   + 256	CLUSTERS
   + 0.012208/0.034952/0.066718	TIMINGS (edgeComm/adaptive/splitJoin)
WARNING: Timestep size for accurate data output is too small, fixing...
WARNING: Timestep size for accurate simulation specific data output is too small. Fixing the problem for this timestep...
=========================================
   + 0.342553967303491 Overall MTPS (Mega Triangles per second)
   + 0 Last Second MCPS (Mega Cellsper second)
   + 100	TIMESTEP
   + 15453.8047527556	SIMULATION_TIME
   + 2048	CELLS
   + 32	NUMBER_OF_THREADS
   + 0.597884 RT (REAL_TIME)
   + 0.125	CellData Megabyte per time-step (RW)
   + 154.538027385619	TIMESTEP SIZE
   + 256	CLUSTERS
   + 0.012327/0.035264/0.067073	TIMINGS (edgeComm/adaptive/splitJoin)
WARNING: Timestep size for accurate data output is too small, fixing...
WARNING: Timestep size for accurate simulation specific data output is too small. Fixing the problem for this timestep...
=========================================
   + 0.342905833848623 Overall MTPS (Mega Triangles per second)
   + 0 Last Second MCPS (Mega Cellsper second)
   + 101	TIMESTEP
   + 15608.342782745	SIMULATION_TIME
   + 2048	CELLS
   + 32	NUMBER_OF_THREADS
   + 0.603242 RT (REAL_TIME)
   + 0.125	CellData Megabyte per time-step (RW)
   + 154.5380299894	TIMESTEP SIZE
   + 256	CLUSTERS
   + 0.012447/0.03551/0.06763	TIMINGS (edgeComm/adaptive/splitJoin)
WARNING: Timestep size for accurate data output is too small, fixing...
WARNING: Timestep size for accurate simulation specific data output is too small. Fixing the problem for this timestep...
=========================================
   + 0.342724391156262 Overall MTPS (Mega Triangles per second)
   + 0 Last Second MCPS (Mega Cellsper second)
   + 102	TIMESTEP
   + 15762.880818176	SIMULATION_TIME
   + 2048	CELLS
   + 32	NUMBER_OF_THREADS
   + 0.609538 RT (REAL_TIME)
   + 0.125	CellData Megabyte per time-step (RW)
   + 154.538035431061	TIMESTEP SIZE
   + 256	CLUSTERS
   + 0.012566/0.036054/0.068295	TIMINGS (edgeComm/adaptive/splitJoin)
WARNING: Timestep size for accurate data output is too small, fixing...
WARNING: Timestep size for accurate simulation specific data output is too small. Fixing the problem for this timestep...
=========================================
   + 0.34298889298995 Overall MTPS (Mega Triangles per second)
   + 0 Last Second MCPS (Mega Cellsper second)
   + 103	TIMESTEP
   + 15917.4188615057	SIMULATION_TIME
   + 2048	CELLS
   + 32	NUMBER_OF_THREADS
   + 0.61504 RT (REAL_TIME)
   + 0.125	CellData Megabyte per time-step (RW)
   + 154.538043329688	TIMESTEP SIZE
   + 256	CLUSTERS
   + 0.012682/0.036265/0.068928	TIMINGS (edgeComm/adaptive/splitJoin)
WARNING: Timestep size for accurate data output is too small, fixing...
WARNING: Timestep size for accurate simulation specific data output is too small. Fixing the problem for this timestep...
=========================================
   + 0.343124840916194 Overall MTPS (Mega Triangles per second)
   + 0 Last Second MCPS (Mega Cellsper second)
   + 104	TIMESTEP
   + 16071.9569147479	SIMULATION_TIME
   + 2048	CELLS
   + 32	NUMBER_OF_THREADS
   + 0.620764 RT (REAL_TIME)
   + 0.125	CellData Megabyte per time-step (RW)
   + 154.538053242216	TIMESTEP SIZE
   + 256	CLUSTERS
   + 0.012803/0.036499/0.069867	TIMINGS (edgeComm/adaptive/splitJoin)
WARNING: Timestep size for accurate data output is too small, fixing...
WARNING: Timestep size for accurate simulation specific data output is too small. Fixing the problem for this timestep...
=========================================
   + 0.343171753441053 Overall MTPS (Mega Triangles per second)
   + 0 Last Second MCPS (Mega Cellsper second)
   + 105	TIMESTEP
   + 16226.4949794411	SIMULATION_TIME
   + 2048	CELLS
   + 32	NUMBER_OF_THREADS
   + 0.626646 RT (REAL_TIME)
   + 0.125	CellData Megabyte per time-step (RW)
   + 154.538064693183	TIMESTEP SIZE
   + 256	CLUSTERS
   + 0.012921/0.037034/0.070392	TIMINGS (edgeComm/adaptive/splitJoin)
WARNING: Timestep size for accurate data output is too small, fixing...
WARNING: Timestep size for accurate simulation specific data output is too small. Fixing the problem for this timestep...
=========================================
   + 0.343357848952155 Overall MTPS (Mega Triangles per second)
   + 0 Last Second MCPS (Mega Cellsper second)
   + 106	TIMESTEP
   + 16381.0330566403	SIMULATION_TIME
   + 2048	CELLS
   + 32	NUMBER_OF_THREADS
   + 0.632272 RT (REAL_TIME)
   + 0.125	CellData Megabyte per time-step (RW)
   + 154.538077199181	TIMESTEP SIZE
   + 256	CLUSTERS
   + 0.013062/0.037288/0.071027	TIMINGS (edgeComm/adaptive/splitJoin)
WARNING: Timestep size for accurate data output is too small, fixing...
WARNING: Timestep size for accurate simulation specific data output is too small. Fixing the problem for this timestep...
=========================================
   + 0.343347962264565 Overall MTPS (Mega Triangles per second)
   + 0 Last Second MCPS (Mega Cellsper second)
   + 107	TIMESTEP
   + 16535.5711469271	SIMULATION_TIME
   + 2048	CELLS
   + 32	NUMBER_OF_THREADS
   + 0.638256 RT (REAL_TIME)
   + 0.125	CellData Megabyte per time-step (RW)
   + 154.538090286764	TIMESTEP SIZE
   + 256	CLUSTERS
   + 0.013183/0.037686/0.071577	TIMINGS (edgeComm/adaptive/splitJoin)
WARNING: Timestep size for accurate data output is too small, fixing...
WARNING: Timestep size for accurate simulation specific data output is too small. Fixing the problem for this timestep...
=========================================
   + 0.343273250995595 Overall MTPS (Mega Triangles per second)
   + 0 Last Second MCPS (Mega Cellsper second)
   + 108	TIMESTEP
   + 16690.1092504319	SIMULATION_TIME
   + 2048	CELLS
   + 32	NUMBER_OF_THREADS
   + 0.644359 RT (REAL_TIME)
   + 0.125	CellData Megabyte per time-step (RW)
   + 154.53810350481	TIMESTEP SIZE
   + 256	CLUSTERS
   + 0.013298/0.037935/0.072126	TIMINGS (edgeComm/adaptive/splitJoin)
WARNING: Timestep size for accurate data output is too small, fixing...
WARNING: Timestep size for accurate simulation specific data output is too small. Fixing the problem for this timestep...
=========================================
   + 0.343497789588523 Overall MTPS (Mega Triangles per second)
   + 0 Last Second MCPS (Mega Cellsper second)
   + 109	TIMESTEP
   + 16844.6473668663	SIMULATION_TIME
   + 2048	CELLS
   + 32	NUMBER_OF_THREADS
   + 0.6499 RT (REAL_TIME)
   + 0.125	CellData Megabyte per time-step (RW)
   + 154.538116434378	TIMESTEP SIZE
   + 256	CLUSTERS
   + 0.013418/0.038122/0.072647	TIMINGS (edgeComm/adaptive/splitJoin)
WARNING: Timestep size for accurate data output is too small, fixing...
WARNING: Timestep size for accurate simulation specific data output is too small. Fixing the problem for this timestep...
=========================================
   + 0.343518841843791 Overall MTPS (Mega Triangles per second)
   + 0 Last Second MCPS (Mega Cellsper second)
   + 110	TIMESTEP
   + 16999.1854955645	SIMULATION_TIME
   + 2048	CELLS
   + 32	NUMBER_OF_THREADS
   + 0.655822 RT (REAL_TIME)
   + 0.125	CellData Megabyte per time-step (RW)
   + 154.538128698217	TIMESTEP SIZE
   + 256	CLUSTERS
   + 0.013538/0.038508/0.073387	TIMINGS (edgeComm/adaptive/splitJoin)
WARNING: Timestep size for accurate data output is too small, fixing...
WARNING: Timestep size for accurate simulation specific data output is too small. Fixing the problem for this timestep...
=========================================
   + 0.3437218388441 Overall MTPS (Mega Triangles per second)
   + 0 Last Second MCPS (Mega Cellsper second)
   + 111	TIMESTEP
   + 17153.7236355357	SIMULATION_TIME
   + 2048	CELLS
   + 32	NUMBER_OF_THREADS
   + 0.661393 RT (REAL_TIME)
   + 0.125	CellData Megabyte per time-step (RW)
   + 154.538139971211	TIMESTEP SIZE
   + 256	CLUSTERS
   + 0.013658/0.03877/0.07397	TIMINGS (edgeComm/adaptive/splitJoin)
WARNING: Timestep size for accurate data output is too small, fixing...
WARNING: Timestep size for accurate simulation specific data output is too small. Fixing the problem for this timestep...
=========================================
   + 0.343698305003476 Overall MTPS (Mega Triangles per second)
   + 0 Last Second MCPS (Mega Cellsper second)
   + 112	TIMESTEP
   + 17308.2617855263	SIMULATION_TIME
   + 2048	CELLS
   + 32	NUMBER_OF_THREADS
   + 0.667398 RT (REAL_TIME)
   + 0.125	CellData Megabyte per time-step (RW)
   + 154.538149990589	TIMESTEP SIZE
   + 256	CLUSTERS
   + 0.013779/0.038966/0.074669	TIMINGS (edgeComm/adaptive/splitJoin)
WARNING: Timestep size for accurate data output is too small, fixing...
WARNING: Timestep size for accurate simulation specific data output is too small. Fixing the problem for this timestep...
=========================================
   + 0.3438339902744 Overall MTPS (Mega Triangles per second)
   + 0 Last Second MCPS (Mega Cellsper second)
   + 113	TIMESTEP
   + 17462.7999440903	SIMULATION_TIME
   + 2048	CELLS
   + 32	NUMBER_OF_THREADS
   + 0.673091 RT (REAL_TIME)
   + 0.125	CellData Megabyte per time-step (RW)
   + 154.538158564045	TIMESTEP SIZE
   + 256	CLUSTERS
   + 0.013898/0.039201/0.075319	TIMINGS (edgeComm/adaptive/splitJoin)
WARNING: Timestep size for accurate data output is too small, fixing...
WARNING: Timestep size for accurate simulation specific data output is too small. Fixing the problem for this timestep...
=========================================
   + 0.343979562069606 Overall MTPS (Mega Triangles per second)
   + 0 Last Second MCPS (Mega Cellsper second)
   + 114	TIMESTEP
   + 17617.338092617	SIMULATION_TIME
   + 2048	CELLS
   + 32	NUMBER_OF_THREADS
   + 0.678771 RT (REAL_TIME)
   + 0.125	CellData Megabyte per time-step (RW)
   + 154.538148526681	TIMESTEP SIZE
   + 256	CLUSTERS
   + 0.014015/0.03956/0.075905	TIMINGS (edgeComm/adaptive/splitJoin)
WARNING: Timestep size for accurate data output is too small, fixing...
WARNING: Timestep size for accurate simulation specific data output is too small. Fixing the problem for this timestep...
=========================================
   + 0.344247966113091 Overall MTPS (Mega Triangles per second)
   + 0 Last Second MCPS (Mega Cellsper second)
   + 115	TIMESTEP
   + 17771.8762300965	SIMULATION_TIME
   + 2048	CELLS
   + 32	NUMBER_OF_THREADS
   + 0.684179 RT (REAL_TIME)
   + 0.125	CellData Megabyte per time-step (RW)
   + 154.53813747953	TIMESTEP SIZE
   + 256	CLUSTERS
   + 0.014132/0.039915/0.076486	TIMINGS (edgeComm/adaptive/splitJoin)
WARNING: Timestep size for accurate data output is too small, fixing...
WARNING: Timestep size for accurate simulation specific data output is too small. Fixing the problem for this timestep...
=========================================
   + 0.344441721918636 Overall MTPS (Mega Triangles per second)
   + 0 Last Second MCPS (Mega Cellsper second)
   + 116	TIMESTEP
   + 17926.4143562003	SIMULATION_TIME
   + 2048	CELLS
   + 32	NUMBER_OF_THREADS
   + 0.689741 RT (REAL_TIME)
   + 0.125	CellData Megabyte per time-step (RW)
   + 154.538126103726	TIMESTEP SIZE
   + 256	CLUSTERS
   + 0.014256/0.040167/0.07709	TIMINGS (edgeComm/adaptive/splitJoin)
WARNING: Timestep size for accurate data output is too small, fixing...
WARNING: Timestep size for accurate simulation specific data output is too small. Fixing the problem for this timestep...
=========================================
   + 0.344725590281574 Overall MTPS (Mega Triangles per second)
   + 0 Last Second MCPS (Mega Cellsper second)
   + 117	TIMESTEP
   + 18080.9524710238	SIMULATION_TIME
   + 2048	CELLS
   + 32	NUMBER_OF_THREADS
   + 0.695112 RT (REAL_TIME)
   + 0.125	CellData Megabyte per time-step (RW)
   + 154.53811482353	TIMESTEP SIZE
   + 256	CLUSTERS
   + 0.014375/0.040499/0.077735	TIMINGS (edgeComm/adaptive/splitJoin)
WARNING: Timestep size for accurate data output is too small, fixing...
WARNING: Timestep size for accurate simulation specific data output is too small. Fixing the problem for this timestep...
=========================================
   + 0.344676893937233 Overall MTPS (Mega Triangles per second)
   + 0 Last Second MCPS (Mega Cellsper second)
   + 118	TIMESTEP
   + 18235.4905751387	SIMULATION_TIME
   + 2048	CELLS
   + 32	NUMBER_OF_THREADS
   + 0.701155 RT (REAL_TIME)
   + 0.125	CellData Megabyte per time-step (RW)
   + 154.538104114923	TIMESTEP SIZE
   + 256	CLUSTERS
   + 0.014494/0.040879/0.078587	TIMINGS (edgeComm/adaptive/splitJoin)
WARNING: Timestep size for accurate data output is too small, fixing...
WARNING: Timestep size for accurate simulation specific data output is too small. Fixing the problem for this timestep...
=========================================
   + 0.344531103109675 Overall MTPS (Mega Triangles per second)
   + 0 Last Second MCPS (Mega Cellsper second)
   + 119	TIMESTEP
   + 18390.0286696168	SIMULATION_TIME
   + 2048	CELLS
   + 32	NUMBER_OF_THREADS
   + 0.707395 RT (REAL_TIME)
   + 0.125	CellData Megabyte per time-step (RW)
   + 154.538094478087	TIMESTEP SIZE
   + 256	CLUSTERS
   + 0.014612/0.0414/0.079273	TIMINGS (edgeComm/adaptive/splitJoin)
WARNING: Timestep size for accurate data output is too small, fixing...
WARNING: Timestep size for accurate simulation specific data output is too small. Fixing the problem for this timestep...
=========================================
   + 0.344715374171034 Overall MTPS (Mega Triangles per second)
   + 0 Last Second MCPS (Mega Cellsper second)
   + 120	TIMESTEP
   + 18544.56675602	SIMULATION_TIME
   + 2048	CELLS
   + 32	NUMBER_OF_THREADS
   + 0.712958 RT (REAL_TIME)
   + 0.125	CellData Megabyte per time-step (RW)
   + 154.53808640319	TIMESTEP SIZE
   + 256	CLUSTERS
   + 0.01473/0.041676/0.07983	TIMINGS (edgeComm/adaptive/splitJoin)
WARNING: Timestep size for accurate data output is too small, fixing...
WARNING: Timestep size for accurate simulation specific data output is too small. Fixing the problem for this timestep...
=========================================
   + 0.344903992294888 Overall MTPS (Mega Triangles per second)
   + 0 Last Second MCPS (Mega Cellsper second)
   + 121	TIMESTEP
   + 18699.1048363511	SIMULATION_TIME
   + 2048	CELLS
   + 32	NUMBER_OF_THREADS
   + 0.718505 RT (REAL_TIME)
   + 0.125	CellData Megabyte per time-step (RW)
   + 154.538080331131	TIMESTEP SIZE
   + 256	CLUSTERS
   + 0.014849/0.042012/0.080353	TIMINGS (edgeComm/adaptive/splitJoin)
WARNING: Timestep size for accurate data output is too small, fixing...
WARNING: Timestep size for accurate simulation specific data output is too small. Fixing the problem for this timestep...
=========================================
   + 0.344983942097662 Overall MTPS (Mega Triangles per second)
   + 0 Last Second MCPS (Mega Cellsper second)
   + 122	TIMESTEP
   + 18853.6429129666	SIMULATION_TIME
   + 2048	CELLS
   + 32	NUMBER_OF_THREADS
   + 0.724276 RT (REAL_TIME)
   + 0.125	CellData Megabyte per time-step (RW)
   + 154.538076615476	TIMESTEP SIZE
   + 256	CLUSTERS
   + 0.014966/0.042292/0.081178	TIMINGS (edgeComm/adaptive/splitJoin)
WARNING: Timestep size for accurate data output is too small, fixing...
WARNING: Timestep size for accurate simulation specific data output is too small. Fixing the problem for this timestep...
=========================================
   + 0.345118412507912 Overall MTPS (Mega Triangles per second)
   + 0 Last Second MCPS (Mega Cellsper second)
   + 123	TIMESTEP
   + 19008.1809884551	SIMULATION_TIME
   + 2048	CELLS
   + 32	NUMBER_OF_THREADS
   + 0.729928 RT (REAL_TIME)
   + 0.125	CellData Megabyte per time-step (RW)
   + 154.538075488546	TIMESTEP SIZE
   + 256	CLUSTERS
   + 0.015085/0.042636/0.081841	TIMINGS (edgeComm/adaptive/splitJoin)
WARNING: Timestep size for accurate data output is too small, fixing...
WARNING: Timestep size for accurate simulation specific data output is too small. Fixing the problem for this timestep...
=========================================
   + 0.34530010755276 Overall MTPS (Mega Triangles per second)
   + 0 Last Second MCPS (Mega Cellsper second)
   + 124	TIMESTEP
   + 19162.7190654954	SIMULATION_TIME
   + 2048	CELLS
   + 32	NUMBER_OF_THREADS
   + 0.735476 RT (REAL_TIME)
   + 0.125	CellData Megabyte per time-step (RW)
   + 154.538077040234	TIMESTEP SIZE
   + 256	CLUSTERS
   + 0.015203/0.042887/0.082354	TIMINGS (edgeComm/adaptive/splitJoin)
WARNING: Timestep size for accurate data output is too small, fixing...
WARNING: Timestep size for accurate simulation specific data output is too small. Fixing the problem for this timestep...
=========================================
   + 0.345618075825366 Overall MTPS (Mega Triangles per second)
   + 0 Last Second MCPS (Mega Cellsper second)
   + 125	TIMESTEP
   + 19317.2571467045	SIMULATION_TIME
   + 2048	CELLS
   + 32	NUMBER_OF_THREADS
   + 0.740724 RT (REAL_TIME)
   + 0.125	CellData Megabyte per time-step (RW)
   + 154.538081209115	TIMESTEP SIZE
   + 256	CLUSTERS
   + 0.015323/0.043148/0.082975	TIMINGS (edgeComm/adaptive/splitJoin)
WARNING: Timestep size for accurate data output is too small, fixing...
WARNING: Timestep size for accurate simulation specific data output is too small. Fixing the problem for this timestep...
=========================================
   + 0.345365798817677 Overall MTPS (Mega Triangles per second)
   + 0 Last Second MCPS (Mega Cellsper second)
   + 126	TIMESTEP
   + 19471.7952344962	SIMULATION_TIME
   + 2048	CELLS
   + 32	NUMBER_OF_THREADS
   + 0.747195 RT (REAL_TIME)
   + 0.125	CellData Megabyte per time-step (RW)
   + 154.538087791708	TIMESTEP SIZE
   + 256	CLUSTERS
   + 0.015444/0.043537/0.083778	TIMINGS (edgeComm/adaptive/splitJoin)
WARNING: Timestep size for accurate data output is too small, fixing...
WARNING: Timestep size for accurate simulation specific data output is too small. Fixing the problem for this timestep...
=========================================
   + 0.345233291566674 Overall MTPS (Mega Triangles per second)
   + 0 Last Second MCPS (Mega Cellsper second)
   + 127	TIMESTEP
   + 19626.3333309594	SIMULATION_TIME
   + 2048	CELLS
   + 32	NUMBER_OF_THREADS
   + 0.753413 RT (REAL_TIME)
   + 0.125	CellData Megabyte per time-step (RW)
   + 154.538096463247	TIMESTEP SIZE
   + 256	CLUSTERS
   + 0.015562/0.043816/0.084614	TIMINGS (edgeComm/adaptive/splitJoin)
WARNING: Timestep size for accurate data output is too small, fixing...
WARNING: Timestep size for accurate simulation specific data output is too small. Fixing the problem for this timestep...
=========================================
   + 0.34531570468278 Overall MTPS (Mega Triangles per second)
   + 0 Last Second MCPS (Mega Cellsper second)
   + 128	TIMESTEP
   + 19780.8714377725	SIMULATION_TIME
   + 2048	CELLS
   + 32	NUMBER_OF_THREADS
   + 0.759164 RT (REAL_TIME)
   + 0.125	CellData Megabyte per time-step (RW)
   + 154.538106813047	TIMESTEP SIZE
   + 256	CLUSTERS
   + 0.01568/0.044334/0.085242	TIMINGS (edgeComm/adaptive/splitJoin)
WARNING: Timestep size for accurate data output is too small, fixing...
WARNING: Timestep size for accurate simulation specific data output is too small. Fixing the problem for this timestep...
=========================================
   + 0.345365272091236 Overall MTPS (Mega Triangles per second)
   + 0 Last Second MCPS (Mega Cellsper second)
   + 129	TIMESTEP
   + 19935.4095476487	SIMULATION_TIME
   + 2048	CELLS
   + 32	NUMBER_OF_THREADS
   + 0.764986 RT (REAL_TIME)
   + 0.125	CellData Megabyte per time-step (RW)
   + 154.538109876202	TIMESTEP SIZE
   + 256	CLUSTERS
   + 0.015797/0.044896/0.08583	TIMINGS (edgeComm/adaptive/splitJoin)
[ END ]


Timings for simulation phases:
 + EdgeCommTime: 0.015921
 + AdaptiveTime: 0.045212
 + SplitJoinTime: 0.086442

129 TS (Timesteps)
20089.9 ST (SIMULATION_TIME)
154.538 TSS (Timestep size)
0.766063 RT (REAL_TIME)
264192 CP (Cells processed)
0.00593847 ASPT (Averaged Seconds per Timestep)
0.002048 MCPPT (Million Cells Processed in Average per Simulation Timestep)
256 ACPST (Averaged number of clusters per Simulation Timestep)
0.34487 MCPS (Million Cells per Second) (local)
0.264192 MCP (Million Cells processed) (local)
1347.15 CPSPT (Clusters per Second per Thread)
0.125 EDMBPT (CellData Megabyte per Timestep (RW))
21.0492 EDMBPS (CellData Megabyte per Second (RW))
50 Flops per cell update (Matrix Multiplication)
0.0172435 GFLOPS
[ END ]
EXIT STATUS: OK
