cells/threads	40	39	38	37	36	35	34	33	32	31	30	29	28	27	26	25	24	23	22	21	20	19	18	17	16	15	14	13	12	11	10	9	8	7	6	5	4	3	2	1
69268	0	0	0	0	0	0	0	0	0	0	0	0	0	0	0	0	0	0	0	0	0	0	0	0	0	0	0	0	0	0	0	0	0	0	0	0	0	0	0	0
86694	9.5006	11.5583	11.5255	11.6405	11.4049	12.0441	12.2998	12.9199	13.166	13.022	10.4759	13.4143	12.5267	12.6488	12.5988	12.7483	13.5237	12.9565	13.0557	12.7565	13.7443	13.6772	11.8916	13.3051	14.716	13.6761	12.8061	14.3871	14.1982	13.9693	13.7719	13.9114	13.3382	12.8812	11.9314	10.9563	9.67986	7.41322	5.51707	2.8806
104856	12.4039	13.0349	12.8878	13.1974	12.6177	13.5719	14.2196	13.9857	14.3548	14.1595	13.9575	14.4193	13.8659	14.1671	14.3629	14.6976	14.2927	14.4131	14.3211	13.9324	14.7688	15.0257	13.324	14.8102	15.8516	15.2661	14.7323	15.2814	15.2487	14.9043	14.6676	14.0494	13.759	13.7889	12.0012	10.7421	9.30214	7.40141	5.41032	2.84836
124415	15.0376	14.9417	14.701	14.9074	14.229	15.0072	16.1639	15.9675	16.263	15.5353	16.3736	16.481	15.2686	15.6026	15.852	15.9225	15.8715	15.8879	16.1233	15.2098	16.1421	16.0492	14.7844	15.9237	16.3518	15.9276	15.9278	15.7484	15.5579	15.4082	15.1611	14.4255	13.6251	13.7958	12.3795	11.1205	9.44368	7.43942	5.39978	2.78833
145443	17.4833	16.8404	16.7073	18.0211	16.8347	17.8583	18.2918	18.1433	18.276	18.0322	18.817	18.6222	17.9573	17.4469	17.2507	17.971	18.1193	18.2471	18.1907	17.2689	17.7684	17.3421	17.7111	17.3505	17.616	17.2333	17.478	17.0332	17.2535	17.2577	16.4981	16.0201	14.8998	14.324	13.1331	11.6146	9.69169	7.53474	5.41895	2.77935
167994	21.1853	21.6105	19.9722	22.345	21.7383	23.9965	24.4479	24.7135	24.133	22.8683	25.2745	22.4453	22.6167	20.2245	18.2082	22.898	22.5621	22.3278	22.2042	21.6834	22.1559	22.1357	22.0927	21.4852	21.6865	21.1111	21.1657	19.8947	20.8593	20.404	19.1167	18.2561	16.6657	15.7418	14.1145	11.7239	9.87957	7.60194	5.42358	2.77853
191968	22.7356	23.1262	22.4985	24.5169	24.4508	25.6475	26.3183	25.9462	25.6138	24.6167	23.5674	23.6755	23.1628	21.8139	19.2939	24.1341	24.154	23.5436	23.4775	22.3793	23.2877	22.7256	22.4218	22.0351	22.4492	22.0005	21.8938	20.6107	20.9394	20.3384	19.1674	18.1112	16.7909	15.6093	13.9354	11.7393	9.89934	7.59475	5.40704	2.76508
217656	24.8241	25.0795	25.6893	25.8702	26.79	27.142	27.578	26.8181	27.1369	27.0098	23.8586	24.0589	24.6356	22.9807	22.6567	26.2343	25.0352	24.6682	24.1138	23.3481	23.8046	23.3645	23.3071	23.3654	23.04	22.5647	22.3712	21.0149	21.0899	20.2179	19.3038	18.301	16.6963	15.6219	13.8386	11.8428	9.89108	7.58896	5.33999	2.742
241286	25.5342	26.7951	26.8606	26.5355	28.0793	27.4744	27.9945	27.4725	27.4531	27.6143	25.9098	24.8878	25.0902	24.1984	25.0727	27.0841	25.4637	25.0545	24.5233	24.442	24.4748	24.0611	23.7579	23.5617	23.4124	22.4596	22.4379	21.2392	20.865	19.8841	19.1702	17.8105	16.8154	15.4917	13.83	11.8621	9.88432	7.64733	5.31246	2.72397
259151	28.4057	28.2183	28.1802	28.4223	29.7284	29.2528	29.163	29.9938	29.6294	30.056	28.1554	26.9041	27.1303	25.9363	25.6242	28.5451	26.9565	26.1451	25.9656	25.3814	25.7866	25.0215	25.1978	24.7931	24.4974	23.6681	23.1393	22.2183	21.4971	20.2668	19.5926	18.0809	17.4757	15.6013	14.0013	11.9458	9.92542	7.62284	5.24463	2.69468
279994	29.061	29.4474	30.0275	30.0697	30.5121	31.0241	31.5189	30.7441	30.7816	31.272	29.096	30.4476	28.3422	27.5537	26.678	29.7247	27.6814	27.3812	27.0144	26.8519	26.494	25.4749	25.7761	25.2203	24.8448	24.9376	23.1687	22.9201	21.5549	20.1866	19.5852	18.0197	17.5247	15.5112	14.0315	11.9324	9.92283	7.63432	5.22672	2.66829
301062	29.7305	29.5285	30.7384	31.6387	31.1762	31.9989	32.0431	30.9748	31.8506	31.5129	29.8912	30.9788	29.0965	28.0367	27.1087	30.157	28.7662	27.7406	27.2858	27.6913	26.7755	25.8359	25.6894	25.2271	24.8855	25.3526	23.0941	22.5666	21.1274	19.7857	19.4064	17.717	17.561	15.3337	14.0177	12.0157	9.90046	7.6145	5.17092	2.64693
321609	31.7494	30.8809	31.8535	32.2841	31.6365	32.9108	32.011	31.4725	32.7689	31.7938	30.5248	31.4792	29.4462	29.1628	27.5503	29.72	29.2599	28.2011	27.8219	27.8126	27.1506	26.2505	25.8925	25.3678	25.0313	25.1416	23.4713	22.7256	20.9744	19.5096	19.2406	17.5752	17.4033	15.2464	13.9387	12.0397	9.85952	7.62832	5.16552	2.63127
341858	33.7974	33.698	33.3955	34.8167	32.679	35.3261	34.2686	33.2393	34.6235	33.6843	31.9033	33.2317	31.4466	30.6063	28.9671	30.5637	30.6438	29.9995	29.2836	28.8314	28.68	27.4331	27.1419	26.4066	26.0153	26.2106	24.5492	23.3687	21.5288	19.8868	19.2488	17.7785	17.3488	15.4003	14.1478	12.1828	10.0161	7.68834	5.18155	2.63233
360398	34.7825	35.8589	34.9161	35.6224	35.769	35.765	35.0357	35.4786	35.6315	35.2693	33.3704	34.0592	32.2011	31.1003	30.1743	31.1104	30.887	30.9804	29.4959	29.668	28.9868	27.6337	27.4875	26.748	26.0538	25.5537	24.6727	22.8969	21.9044	19.8411	19.213	17.6983	17.1422	15.3297	14.131	12.1514	9.98117	7.62851	5.15373	2.61015
376380	37.8305	39.2473	38.1428	39.0346	39.406	39.9774	38.1668	38.1403	38.0634	38.4252	38.1566	36.7574	35.6138	34.0763	33.6942	33.1221	32.0139	32.7963	31.4886	31.6517	30.8009	29.5217	29.0294	27.9102	27.4577	26.1953	25.7211	23.7387	22.4147	20.4137	19.7007	18.1625	17.5008	15.5317	14.3512	12.2433	9.99188	7.61819	5.14335	2.6139
390516	37.0981	39.1071	37.2588	38.384	39.5166	39.1892	37.9641	37.908	38.3149	38.3195	37.8914	37.2935	34.5858	33.8231	33.4706	33.0297	32.6933	32.8989	31.1399	31.4493	30.298	29.3484	28.7993	27.8454	27.743	26.0037	25.5047	23.409	22.2379	20.2983	19.5793	18.1029	17.4119	15.4525	14.3078	12.2536	9.98407	7.58194	5.1677	2.62324
403217	35.6692	38.4539	36.6727	38.503	38.2088	38.9034	37.3689	37.5472	38.1458	37.5208	37.4394	36.8101	34.0272	33.4633	33.1648	32.7937	32.5239	32.5425	30.6446	31.258	30.1387	28.8798	28.5358	27.7925	27.4638	25.5971	25.3001	23.3843	21.5955	20.1977	19.4552	18.0233	17.3123	15.2593	14.1958	12.1881	9.97016	7.58625	5.15822	2.6268
414456	35.3339	37.7195	34.2176	37.3407	38.0009	38.5416	37.403	36.7395	38.1774	36.9902	37.4355	36.0133	34.2173	32.9595	33.2614	32.553	32.6532	32.106	30.07	31.0282	29.5962	28.5926	28.0814	27.5217	27.2818	25.5268	25.1308	23.4351	21.4652	20.1075	19.4055	17.9219	17.2518	15.224	14.1558	12.1399	9.97487	7.60753	5.16941	2.63366
421753	35.4274	38.4206	37.0291	37.6318	38.6791	37.7335	37.9745	35.5094	38.4702	36.6714	36.8493	35.9134	34.3606	33.0736	33.27	32.1983	32.1299	31.7035	30.1881	30.4776	29.5757	28.3807	28.0705	27.4227	27.0779	25.473	24.9264	23.5859	21.4213	19.9242	19.1761	17.9121	17.1947	15.1584	14.1144	12.1074	9.84435	7.54603	5.097	2.60175
425847	35.6703	38.2176	36.9834	37.4116	38.7649	38.089	37.78	35.1828	38.7853	36.0446	36.592	36.0186	34.1323	32.6559	33.1328	32.6362	32.1724	31.875	30.3475	30.448	29.6391	28.1488	27.8723	27.1764	27.1401	25.4278	24.78	23.4706	21.2985	19.7792	19.0775	17.8181	17.0962	15.0368	13.9765	12.0082	9.74943	7.44281	5.04177	2.57373
427571	40.1333	40.7295	39.739	39.502	40.9306	40.2893	40.3737	36.8588	41.1134	38.6984	39.611	37.8739	35.6964	34.1602	34.7107	33.7881	33.7088	33.1784	31.1888	31.2347	30.7944	29.2487	28.7354	28.3888	27.7178	26.1969	25.4397	24.0578	21.6921	20.2506	19.4805	18.1459	17.3645	15.2913	14.2244	12.1803	9.86345	7.52931	5.09275	2.57907
426998	39.7771	40.2484	39.8353	39.7442	39.9035	40.057	40.6252	38.9873	40.8267	38.6321	39.8976	37.1777	36.1127	34.3084	34.5615	33.6708	33.3957	33.0892	31.1308	31.5301	30.5559	29.2513	29.1278	28.4672	27.8557	26.1851	25.6308	24.0672	22.2982	20.3402	19.5547	18.2472	17.543	15.5089	14.2809	12.3511	9.93001	7.58589	5.12232	2.60043
424205	40.7089	41.1959	41.5648	40.2226	41.9083	41.2582	41.0169	38.4113	41.5005	39.5273	40.2874	38.4288	36.9206	34.6404	35.1829	33.8938	34.0344	33.6553	32.1763	32.1673	31.6381	29.795	29.0216	28.9932	28.0093	26.6105	26.0456	24.4297	22.2414	20.5129	19.6997	18.3736	17.5671	15.599	14.3759	12.3437	9.93247	7.57239	5.13034	2.59514
419477	40.2075	40.2727	41.8698	39.1143	39.9089	40.7875	40.8894	39.1188	41.0737	39.3917	39.8481	38.0889	36.1847	33.7373	35.1591	33.3591	33.8486	32.9024	31.8912	31.6912	32.2755	29.3069	28.289	28.6117	27.7193	26.0573	25.8978	24.5106	22.1434	20.4751	19.6573	18.2568	17.5739	15.6075	14.3357	12.3138	9.93554	7.56449	5.19308	2.59258
412595	38.6127	38.5124	40.7997	38.4916	38.8173	39.283	39.9131	38.3264	40.3134	38.4406	39.1001	37.0122	34.9405	33.1228	34.3745	32.7602	33.1421	32.3181	31.175	31.0983	31.6851	28.7555	28.0579	28.1797	27.4565	25.5399	25.4457	24.1422	21.8197	20.2311	19.4168	18.1837	17.3834	15.4516	14.2511	12.2522	9.86195	7.52973	5.29717	2.58574
403793	37.2817	37.8883	38.4961	37.1909	38.4853	38.3278	38.6958	37.274	39.4386	38.2966	38.3731	36.5362	34.2302	32.8289	33.5692	32.068	32.4853	32.0187	30.6107	30.679	31.3729	28.4255	27.6663	27.7745	27.1229	25.3692	24.8932	23.8524	21.6799	20.0769	19.2765	18.0698	17.6146	15.3398	14.184	12.1957	9.87529	7.51152	5.26501	2.58207
395152	37.0846	38.5944	33.8118	37.4139	37.2124	38.3216	38.8596	37.7008	39.5515	38.6863	38.1261	36.8037	34.1629	32.9573	33.2427	31.8969	32.1659	31.8317	30.4293	30.589	31.8318	28.2905	27.5964	27.7906	27.0913	25.7696	24.8285	23.9372	21.7083	20.2157	19.1088	18.0009	17.5466	15.2957	14.1463	12.1737	9.8631	7.48435	5.27947	2.5713
387456	35.7655	37.7695	33.4265	37.1527	37.9146	38.3358	38.048	37.7573	39.4838	37.7323	38.2923	37.1429	33.974	32.929	33.4474	31.8612	32.3705	31.6946	30.5724	30.7852	30.8701	28.4627	27.7993	27.9255	27.0422	25.9209	25.149	24.1129	21.7985	20.2416	19.1548	18.0475	17.4366	15.6073	14.2446	12.2613	9.93354	7.52412	5.33436	2.59478
379950	34.809	37.225	35.8432	36.2943	37.5361	37.9018	37.622	37.0671	38.3125	34.3843	37.6451	36.3627	33.5433	32.8594	32.8444	32.2396	32.4677	31.6363	30.354	30.3314	30.4064	28.677	27.7046	27.8898	26.999	25.7915	25.0255	23.956	21.6034	20.2924	19.2967	17.9717	17.2603	15.4586	14.1207	12.2383	9.92589	7.5158	5.36894	2.60685
372543	34.9841	37.1049	37.6144	36.8277	38.4721	38.4709	38.1775	35.3969	39.6946	36.6414	36.7922	36.8829	34.0158	32.9237	33.1116	32.0404	32.6237	31.6429	29.9064	30.4574	30.113	28.6715	27.6094	27.721	26.5739	25.6642	25.0664	23.7803	21.5322	20.561	19.2369	17.9107	17.1823	15.1799	13.9812	12.0934	9.86638	7.51807	5.34957	2.58621
365863	35.8336	37.7564	37.1095	36.8777	39.0087	38.4319	38.2435	35.1863	39.4084	38.5782	37.7307	36.8936	33.9323	33.242	33.2325	32.1052	32.7275	31.8807	30.5405	30.5956	30.0397	28.732	27.8836	27.7387	26.4186	25.7438	25.3041	24.1227	21.7672	20.7729	19.4552	18.126	17.3711	15.3759	14.1104	12.2647	9.9821	7.57542	5.37705	2.60663
361846	35.2049	37.0196	35.996	35.9385	37.8596	37.7529	37.012	36.0847	37.9872	37.6356	36.6914	36.065	33.874	32.7781	32.0113	31.4906	32.1961	31.4311	29.8409	30.2333	29.11	28.0872	27.4099	27.409	26.252	25.3081	25.0926	23.9833	21.5081	20.5516	19.1045	17.8059	17.1722	15.2279	14.0282	12.14	9.89439	7.51787	5.3685	2.59617
359446	34.6086	35.9169	36.132	35.6468	36.6564	37.0534	37.2279	36.4571	36.8787	37.3662	35.5419	35.0269	32.7148	32.138	31.1815	31.4591	31.7238	30.9671	29.551	29.9383	28.9149	27.653	27.0052	27.1073	25.8198	25.0708	24.699	23.4023	21.3482	20.396	19.0833	17.7179	16.9803	15.2163	14.1029	12.1215	9.84615	7.63954	5.40381	2.60429
358266	35.2572	36.7834	36.3872	35.5792	36.2174	37.0606	37.1919	35.7959	37.2871	37.2318	36.9829	33.7054	32.9559	32.1701	31.7316	31.265	31.6487	30.978	29.3916	29.8492	28.7891	27.3644	27.1175	27.0888	26.1192	25.2242	24.763	23.4587	21.5264	20.5634	19.1697	18.023	17.049	15.634	14.2606	12.2382	9.98287	7.66256	5.43285	2.62797
357922	35.6691	37.6899	37.194	35.7838	36.8393	37.9193	37.0819	35.8636	37.8672	37.5428	37.6299	32.7345	33.5501	32.1982	32.7731	30.8428	32.1394	31.3606	29.354	29.5161	29.0072	28.0524	27.4685	27.4799	26.6132	25.4755	25.0517	23.786	21.7341	20.67	19.3167	18.0936	17.3147	15.6874	14.3027	12.3042	10.0322	7.72944	5.42078	2.62926
358478	34.1834	35.8291	36.0991	34.6405	35.3478	36.4324	35.9859	34.7474	36.5681	36.7256	37.191	30.6128	32.6031	31.5536	31.5783	29.6332	31.2907	30.9269	28.8173	28.4955	28.5879	27.3274	26.9291	26.8626	26.1772	24.8395	24.354	23.5825	21.2543	20.1099	18.9115	17.7935	17.0093	15.4692	14.0213	12.1081	9.88822	7.63286	5.34584	2.59968
359804	33.2703	34.9165	35.043	33.7476	36.0255	35.8128	35.3772	34.5984	35.708	35.0661	35.8163	29.8703	31.8716	31.6459	30.67	29.7582	30.7069	29.8105	28.1726	28.1702	28.047	27.0632	26.4509	26.1442	25.8974	24.0762	24.0872	23.2488	20.8463	19.5719	18.5815	17.5162	16.6821	15.0997	13.7698	11.8627	9.71185	7.48386	5.28191	2.55993
361778	33.7258	36.1065	36.9693	35.3714	37.3431	37.426	36.7565	35.348	37.3838	36.4417	36.8323	34.9605	33.1164	33.0874	32.1033	31.1434	31.7281	30.5624	28.8664	30.2536	28.8006	27.9784	27.2692	27.3034	26.5836	25.3069	24.9845	23.8247	21.8639	20.147	19.162	17.9036	17.082	15.3304	13.9382	12.0464	9.82161	7.56232	5.35105	2.59646
364166	36.1601	36.8168	38.099	36.9227	39.2528	38.8041	38.5548	37.0679	39.1085	37.4833	37.9278	36.4155	34.2382	34.6143	32.2428	32.2421	32.459	32.1266	30.5965	31.186	29.8041	28.8619	28.1027	27.9028	27.5163	25.7446	25.6261	24.1398	21.9765	20.1717	19.2364	18.0714	17.3825	15.5384	14.1231	12.2443	9.93823	7.58195	5.36125	2.60089
366635	36.0897	37.3027	37.8792	37.2002	38.6416	38.8445	38.6855	37.8179	39.0533	37.5918	38.6587	36.8407	34.5133	34.8885	31.6758	32.4171	32.5272	31.964	30.6945	31.3223	30.0957	28.5475	28.0998	27.7808	27.485	25.7177	25.5306	24.0567	21.7087	20.2408	19.3975	18.154	17.2553	15.6148	14.1921	12.3256	9.97682	7.62249	5.42215	2.61032
369221	37.5739	37.9949	36.139	37.7409	38.9609	38.7304	38.9864	37.92	39.5666	38.2495	38.7265	36.9571	34.6847	35.6329	33.6637	32.9916	32.6419	31.8031	30.7913	31.4227	30.0291	28.4738	28.2403	27.816	26.9803	25.8926	25.397	23.7706	21.6756	20.1093	19.3634	18.0112	17.1954	15.5657	14.2159	12.2379	9.90407	7.7272	5.42406	2.61224
371887	36.7566	37.7934	37.8734	37.2087	38.5601	38.3706	37.5115	37.3322	38.936	38.0834	37.8002	35.5507	33.986	33.6985	32.9121	32.4437	32.2683	31.2944	30.18	30.9126	29.4178	28.2495	27.7169	27.4334	26.7365	25.616	24.8404	23.5881	21.2743	20.1954	19.1552	17.8702	17.2251	15.4712	14.1168	12.1357	9.89214	7.7841	5.40174	2.61187
374644	35.8495	36.2051	36.4882	34.7386	36.8619	36.5388	35.3244	35.7038	36.7534	36.435	36.7445	32.3481	32.8453	32.3463	31.3794	30.9269	31.0729	30.1509	29.1103	29.5199	28.5536	27.4011	27.0099	26.6291	25.8339	25.0131	24.1773	22.9331	20.8489	19.7239	18.8443	17.462	16.7979	15.2594	13.943	12.0134	9.88204	7.59675	5.35846	2.6113
377411	36.3418	35.609	35.6846	34.4482	36.2095	36.4219	35.4395	34.5463	35.7975	35.7014	35.6349	33.0392	32.6387	31.9598	30.2904	30.9292	30.5831	29.8429	28.8901	29.52	28.2592	27.1529	26.9405	26.476	25.6729	24.9988	24.2659	22.7222	20.9183	19.7349	18.8297	17.4607	16.8002	15.2777	13.9935	12.036	9.90643	7.60161	5.38127	2.61205
380081	36.2167	36.7016	36.0181	36.6756	36.0849	38.1379	37.0828	35.9312	37.3698	37.4121	36.1776	33.9748	33.4123	32.8178	31.02	31.8597	31.1095	30.7466	30.1039	30.2926	28.9137	28.0652	27.3591	27.1368	26.1926	25.4529	24.8296	23.181	21.2925	19.9139	18.8449	17.7654	16.9859	15.3815	13.9273	12.0492	9.8334	7.54956	5.32264	2.58366
382874	34.8707	39.5069	38.5228	39.0484	37.8648	39.6457	39.4774	37.7141	40.3257	38.8685	38.4612	35.2512	35.5163	33.9519	33.0071	33.1034	32.7432	31.7705	31.0691	31.4786	30.0296	29.3674	28.4022	27.8859	27.3049	26.1039	25.4838	23.699	21.6108	20.168	19.1191	17.8728	17.1945	15.4382	14.1025	12.1045	9.8474	7.55605	5.30333	2.58186
385513	34.9632	39.0458	38.495	38.2656	37.1311	38.4163	38.751	37.2126	39.4609	38.0211	38.2186	35.7768	34.7165	33.3325	32.6101	32.8472	32.462	31.6712	30.7391	30.8864	29.8424	29.2821	28.1508	27.7217	27.0349	25.475	25.1215	23.5281	21.4976	20.1116	19.1063	18.1093	17.2504	15.2903	14.1809	12.1897	9.89147	7.57933	5.31442	2.59586
388216	37.1484	37.7989	37.7997	37.4419	36.366	37.8723	38.3971	37.227	38.5445	36.1555	37.7814	36.4143	33.9549	32.2321	32.5066	32.1169	31.9251	31.1701	30.1028	30.0325	29.2669	28.5492	27.705	27.273	26.5604	25.2067	24.3924	23.4056	21.2846	20.0318	18.7685	17.9302	16.9971	15.1188	14.0746	12.1075	9.83044	7.52334	5.28769	2.57136
390860	37.3047	38.1369	38.704	38.2196	37.7384	37.8522	38.6787	37.4078	38.5953	35.9337	37.9025	36.3883	34.2531	32.8538	32.8464	32.3946	32.1536	30.9629	30.3831	30.2623	29.3533	28.47	27.9515	27.7035	26.4684	25.3856	24.5642	23.4199	21.6728	20.4181	18.622	17.8845	17.0656	15.1995	14.0848	12.117	9.82879	7.61194	5.32349	2.57581
393507	36.5756	36.9987	37.72	37.0343	37.2097	37.5769	37.5057	36.4353	38.1568	34.4913	37.776	35.5704	33.8991	32.7838	32.424	31.0368	31.8943	30.8128	30.0561	30.0981	29.2864	28.0198	27.7254	27.5399	26.5838	25.2483	24.3748	23.2871	21.8849	20.6981	18.789	17.9379	16.9636	15.2453	14.0681	12.2155	9.92316	7.68081	5.35514	2.6019
396295	37.6191	37.3557	38.3484	37.6964	36.8416	38.1355	37.529	37.4724	38.9989	36.9911	38.5802	35.0921	33.7615	32.7664	32.8381	31.4504	32.0825	30.8375	30.246	29.9621	29.4653	27.8097	27.7706	27.2685	26.294	25.1816	24.3416	23.2791	21.3646	20.7584	18.7743	18.0669	16.8728	15.2367	13.9576	12.0981	9.90799	7.61447	5.31329	2.5803
398885	38.6175	39.4901	38.8939	39.3201	37.0169	39.5448	39.3816	38.2776	40.168	37.9954	39.8845	36.455	34.9206	33.6304	33.7711	32.583	32.5982	31.6811	30.7937	30.3299	29.5991	29.079	28.1548	28.3886	26.6883	25.5002	24.5197	23.5326	21.8188	20.3946	18.745	18.0945	16.9524	15.4092	13.9459	12.1076	9.93739	7.63328	5.35405	2.58887
401713	36.8569	37.789	37.7407	37.4726	34.8426	38.1423	37.9849	37.2065	38.6283	36.7343	38.3969	35.7061	33.8734	32.7311	32.4681	31.9383	31.6003	30.866	30.1031	28.7325	28.979	28.5413	27.2682	28.8016	26.2002	25.0195	24.2524	23.2145	21.4742	20.2262	18.6189	17.8477	16.7761	15.2408	13.8398	12.0016	9.90058	7.59981	5.29797	2.58021
404275	37.0033	37.5097	37.4655	37.8603	36.248	37.8438	38.1945	37.2197	38.545	37.0733	38.4579	35.768	33.5944	32.7712	32.1849	31.8512	31.756	30.7775	29.9538	28.3747	28.9264	27.9801	27.4207	28.7001	26.1942	25.025	24.6998	23.1946	21.411	20.4194	18.8358	17.987	16.857	15.2893	13.8697	12.0316	9.92766	7.59558	5.34778	2.59233
406777	38.1999	38.6689	39.1761	38.2689	38.743	39.611	38.9903	37.9118	39.6112	38.7533	39.12	36.3472	34.5601	33.5652	33.1924	32.368	32.3197	31.8919	30.6238	30.4327	29.4192	27.8052	27.4912	29.4047	26.7317	25.5652	24.935	23.5498	21.6594	20.695	19.1182	18.1344	17.0626	15.42	13.9991	12.1659	9.96904	7.5655	5.33303	2.60127
405196	37.5745	38.7345	38.5546	38.8823	39.1409	39.5803	39.2346	38.4285	39.939	38.9353	39.293	35.0564	34.7693	33.7698	33.3371	32.8697	32.4898	31.7407	30.8808	30.6742	29.7089	28.5563	27.6709	28.9566	26.7391	25.7566	25.1954	23.4922	21.4297	20.8558	19.239	17.9284	17.1623	15.4332	14.0561	12.1911	10.0139	7.59581	5.37212	2.61022
400840	37.5459	38.8785	39.4346	39.6427	39.4202	40.3337	39.4805	39.1799	40.7252	39.4002	39.4197	37.3384	35.288	33.9972	33.8101	32.3696	33.0277	31.9133	31.6199	31.1217	30.151	29.3432	28.0712	28.3255	26.9273	26.217	25.4427	23.5244	21.5957	21.0111	19.3971	18.1088	17.181	15.4724	14.0189	12.1845	9.99883	7.60319	5.39319	2.61108
394255	35.9296	37.7738	38.9698	38.716	38.3523	38.6924	38.3495	38.1022	39.3705	37.8548	38.3985	36.2436	34.535	33.4164	33.4369	32.1961	32.3297	31.6213	32.4343	30.6002	29.8874	29.1092	27.7802	28.1448	26.8609	25.8577	25.3446	23.5089	21.583	20.6083	19.1933	18.3972	17.2548	15.5287	14.0245	12.1929	10.017	7.61082	5.37061	2.62074
386039	35.7593	36.9988	38.0311	37.4621	37.0942	37.565	37.6458	37.0676	38.0313	37.6422	37.3664	35.6494	34.0899	33.0559	33.1953	32.1713	32.3789	31.2249	32.4379	30.5349	29.6357	29.0478	27.7772	27.9496	27.1012	25.8351	25.3271	23.5808	21.5915	20.6618	19.3553	18.4213	17.293	15.5885	14.0744	12.1982	10.0572	7.75834	5.41672	2.6368
375430	35.1817	38.0917	37.6381	37.8866	37.785	37.2164	37.793	34.6118	38.2928	35.8184	36.8048	35.8366	34.0116	33.118	32.8181	32.1093	32.1901	30.9968	32.4915	30.3834	29.8477	28.7539	27.7011	27.7601	26.9903	25.9803	25.1311	23.8557	21.6843	20.8646	19.4455	18.5266	17.3874	15.707	14.1754	12.2507	10.0623	7.72084	5.44961	2.64571
359933	35.1701	37.0077	36.5452	37.1684	37.5296	37.2154	36.4904	34.7427	37.1869	35.5145	36.7817	35.1899	33.3503	32.5687	32.0869	31.6175	31.367	29.815	32.2957	29.9103	29.4074	28.3869	27.6046	27.5466	26.8311	25.5715	24.8754	23.8464	21.5199	20.6877	19.4073	18.5228	17.1231	15.6993	14.111	12.2287	10.055	7.68203	5.42941	2.63477
341114	36.4859	36.6611	36.0437	36.8049	36.9523	36.6056	36.751	35.6965	37.1447	36.2626	36.0845	34.852	33.0216	32.1212	32.0127	31.602	31.4722	29.9344	30.7866	30.0615	29.7041	28.4772	27.7214	27.921	27.4069	25.386	25.0615	24.167	21.8797	21.0605	19.6971	18.8721	17.4434	15.9175	14.31	12.4179	10.1654	7.70302	5.42918	2.64136
319918	35.2116	35.992	35.2408	36.0753	36.4408	35.7958	36.0557	34.6658	36.2347	34.5129	35.7815	34.9774	32.3074	31.7085	31.6855	31.3702	31.0173	29.5503	30.1772	29.8528	29.5588	28.2666	27.5614	27.3334	27.0227	25.1341	25.1843	24.1132	21.8317	20.9581	19.6184	18.8455	17.5165	15.6419	14.3758	12.4536	10.1404	7.75469	5.49741	2.65678
296294	34.0946	34.3197	33.928	34.4158	34.8446	34.0622	34.3634	33.7819	34.7668	33.9503	34.6259	34.2524	31.2364	30.435	30.211	30.2508	30.4869	29.9851	29.5164	29.1394	29.0572	27.9108	27.0778	26.6951	26.0282	24.712	24.8108	23.6775	21.4957	20.7302	19.2117	18.7599	17.4888	15.5186	14.291	12.4056	10.1055	7.72989	5.45501	2.66909
270494	32.0201	32.2486	32.7423	32.9601	32.8605	32.9323	32.9041	32.3707	33.1969	32.7923	33.5884	33.2355	29.8801	29.7131	29.1043	29.2299	29.1532	28.7779	28.6823	28.3163	28.0083	26.9495	26.5103	26.2102	25.4996	24.0077	25.2943	23.5306	21.5863	20.8277	19.3189	18.7003	17.6281	15.5527	14.2738	12.2834	10.041	7.72525	5.5042	2.69146
243278	30.0864	31.4172	31.2145	31.2604	31.6541	31.9568	31.6063	30.9608	31.847	31.2851	32.1208	32.3354	28.9459	27.9072	27.9046	28.4729	28.3717	27.4419	27.3835	27.4534	27.1993	26.3365	25.7869	25.7163	25.0746	23.882	25.347	23.4281	21.999	21.542	19.7024	19.2297	18.0314	15.9667	14.4859	12.3454	10.0788	7.80047	5.53639	2.71728
220417	29.7193	29.9447	30.8816	30.9984	31.0442	30.774	31.0036	30.6649	31.0535	30.9023	31.4473	31.2942	27.8697	27.5651	27.5799	27.5842	27.2165	26.9369	26.5032	26.7939	26.7052	26.2905	25.5194	25.3859	24.9957	24.4222	25.3384	23.2147	22.3797	21.8356	20.562	19.4119	18.3145	16.3455	14.6781	12.4521	10.1177	7.82749	5.53278	2.73857
199127	27.579	27.0496	28.7825	29.0681	29.2676	29.1495	28.6868	29.6242	29.7073	29.2771	28.7825	29.5763	25.9936	26.3702	25.8202	26.4306	26.1714	25.8369	25.1535	24.9455	25.4111	24.9723	24.4092	24.2746	24.0817	23.2943	24.654	22.7503	21.9291	21.2831	20.681	18.8583	18.3179	16.2647	14.7654	12.3983	10.122	7.86598	5.50874	2.76374
178746	23.702	23.6568	24.8663	25.676	25.6817	25.8372	26.0074	26.4407	26.6269	26.6366	25.9401	25.8768	23.0903	23.4626	23.1411	23.8294	23.4253	23.0691	22.9733	22.757	22.8066	22.491	22.4029	22.1949	22.0168	21.5276	23.6966	21.2459	20.7474	20.0448	19.59	18.0934	17.5811	15.4943	14.1717	11.9722	9.9444	7.62052	5.26763	2.73957
158541	20.3185	21.4866	22.5584	22.6135	22.823	23.0018	23.413	23.4682	23.9488	24.2052	22.9787	23.4087	21.4304	21.4485	21.2785	21.9391	21.6546	21.3885	21.3486	21.3848	21.1819	20.9801	20.8926	20.5717	20.4736	20.1327	21.4724	20.1232	19.8854	19.2356	18.489	17.3249	16.6458	15.267	13.8365	11.6852	9.73333	7.56839	5.36975	2.78201
140109	18.4601	20.616	20.2984	21.6936	21.6434	21.36	21.9887	22.3518	22.7513	23.0031	22.1953	21.8314	20.5808	20.6047	20.3733	21.325	20.6745	20.5286	20.2383	20.2834	19.4692	19.9334	19.9998	19.8085	19.6378	19.2691	20.128	19.7947	19.7427	19.3165	18.3957	17.299	16.6654	15.5041	13.7506	11.731	9.76152	7.58555	5.4868	2.82285
125900	17.4913	20.0111	19.441	20.3906	20.4745	20.0767	21.2281	21.8816	21.9113	22.6151	21.3288	21.6057	20.2786	20.4493	18.6979	21.1783	20.9897	19.8173	19.9253	20.0315	19.4541	19.4601	19.7497	19.3059	19.2005	19.0649	20.0092	19.8072	19.6204	19.0978	18.52	17.2175	16.7583	15.1447	13.6086	11.545	9.72899	7.64074	5.52519	2.84028
114489	16.3468	18.5891	18.5041	19.328	20.1484	17.209	19.913	20.2486	20.5044	20.7994	21.0147	20.3126	19.3972	19.1516	16.7098	19.7525	20.2223	19.969	19.6377	19.7161	19.6509	18.8396	19.3997	19.2752	18.4734	18.8143	19.873	19.603	19.8314	19.313	18.6498	17.1025	16.8453	15.3353	13.4648	11.5461	9.70261	7.68025	5.39857	2.84764
104696	15.624	17.2461	18.5167	17.6438	19.0102	17.5772	18.9304	18.2791	19.6502	20.1611	18.9876	19.5772	18.5974	18.653	15.0811	17.6231	20.1123	19.4792	19.3132	19.9079	19.5262	19.0645	19.1341	19.2778	18.9814	18.652	19.2133	19.1655	19.1879	18.5389	17.8172	16.9182	16.3927	15.1478	13.2803	11.4909	9.59982	7.69401	5.4791	2.84635
96028	14.251	15.8403	15.9896	15.5297	17.0142	16.2868	16.6356	15.8577	16.9027	17.2487	16.3564	16.472	16.2029	15.7926	13.8248	16.5565	16.8663	16.64	16.7782	16.727	16.9419	16.3599	16.4355	16.2891	15.8288	15.7905	16.4829	16.2374	16.4317	16.6748	16.2355	15.5698	15.1296	14.3627	12.8376	11.1988	9.51941	7.63117	5.53915	2.8532
88295	13.1241	13.7188	14.3575	14.7759	15.1851	15.0579	15.7707	14.4411	15.3298	15.5304	15.7572	15.3267	14.9935	14.7302	14.3592	15.2682	15.2484	15.5556	15.2133	15.6089	15.5687	15.2978	15.4121	15.3806	15.1079	14.9842	15.5181	14.9748	15.2165	15.248	14.9495	14.3962	14.0615	13.4887	12.1148	11.0171	9.26689	7.46204	5.40633	2.85499
80784	12.4912	12.3495	13.3174	13.5217	13.4724	13.5437	13.9661	13.103	13.8643	14.1234	14.1806	13.7765	13.0485	13.1785	13.8501	13.6978	13.5024	13.9689	13.227	14.196	14.1034	14.0619	13.8751	13.8777	14.0113	13.7869	14.2289	13.8747	13.9745	14.1085	13.6038	12.9491	13.0221	12.2073	11.5183	10.8262	9.1705	7.41396	5.33189	2.85647
73614	11.7836	12.5905	12.4274	12.58	13.3878	12.7151	13.4102	13.0115	11.5595	12.5889	13.2075	13.6362	11.7075	12.5164	13.0198	12.8828	12.8705	13.6456	13.0326	12.8844	13.8598	13.9588	13.9101	13.9056	13.9377	12.7565	13.5378	13.3479	13.487	13.795	14.5036	13.5573	13.0001	12.9429	11.8163	11.1458	9.19717	7.41944	5.31143	2.85485
66695	13.1881	13.7231	11.3287	13.6149	14.8006	14.0295	15.023	14.529	12.547	13.3585	14.872	14.6409	11.2973	13.8694	14.3622	14.0873	13.9813	15.134	13.3217	12.7582	15.6327	15.5882	16.0425	15.6258	15.4069	14.7273	14.9235	14.3389	14.3033	15.792	17.6585	15.712	14.4511	14.3621	13.089	11.7698	9.43007	7.47929	5.32755	2.85567
59941	11.991	11.6927	10.4957	12.5546	13.0693	12.3557	13.2173	13.0227	12.1768	12.9297	13.5776	13.3293	10.8066	13.0719	12.7767	13.0107	13.1388	14.0775	12.0161	12.8517	14.7973	14.3444	13.4414	14.3511	14.2807	13.7782	13.7528	13.2534	13.5993	14.3775	14.5353	14.0653	13.5888	12.9808	12.3473	11.1667	9.29961	7.47997	5.50532	2.85581
53474	9.56115	9.27758	9.08648	7.82854	9.82339	7.83505	10.0039	9.96811	9.95443	10.2404	10.4387	10.2851	9.37222	9.66309	9.65357	9.88329	8.63694	10.2519	9.39234	10.4435	10.5892	10.4798	10.0914	10.154	10.3114	10.1047	10.2593	10.1258	10.093	10.2985	10.2484	10.0747	10.0997	10.2665	10.0489	9.27752	8.78988	6.54265	5.48618	2.84878
47199	8.86895	9.02154	9.27925	7.17115	9.53404	7.0053	9.25544	9.68948	9.70376	9.95137	9.69291	9.31347	9.15028	9.1469	9.32045	9.7633	7.69929	9.80764	8.89803	10.1888	10.452	10.231	10.0667	9.95115	10.1247	10.0118	9.84795	9.78941	9.72969	10.0613	10.246	10.1766	9.83248	9.88818	10.2821	9.35485	8.45405	6.66615	5.37256	2.84563
41057	8.73278	8.7742	8.61129	7.49752	9.06051	6.88441	8.73658	8.96882	8.86589	9.37277	9.34827	9.05909	8.6021	8.67512	8.91075	9.21607	7.70466	9.4536	9.01442	10.3064	8.93495	10.2166	10.0181	10.0582	10.0545	10.1878	9.84113	10.1103	9.80337	10.0419	10.3846	10.0744	10.3662	10.6535	10.6869	9.58839	8.25573	7.01846	5.33013	2.8486
35071	7.07065	7.20656	7.32417	7.24867	7.62746	7.4205	7.49973	7.35528	7.68598	7.92015	7.71124	7.76756	7.34267	7.4403	7.87379	7.78703	7.75201	8.12623	7.92611	8.51811	8.26731	8.12692	8.45987	8.55846	8.52871	8.58568	8.37638	8.79745	8.08049	8.2611	8.11395	8.40453	8.77247	8.54779	9.67817	9.01134	7.71119	6.97075	5.29428	2.84878
29323	6.25471	6.34383	6.3966	6.49433	6.47888	6.62914	6.41546	6.41592	6.50656	6.8808	6.69853	6.93294	6.46289	6.66954	6.79038	6.65977	6.65509	7.04089	7.15398	7.39309	7.67649	6.47446	7.51426	7.27002	7.51505	7.49975	7.45895	7.70157	7.67926	7.76394	7.83652	7.73162	8.14822	7.70283	8.22031	8.26557	7.01229	6.42551	5.27635	2.83675
23781	6.37632	6.48656	6.48008	6.66909	6.68596	6.5017	5.71536	6.72106	7.06482	7.1586	6.93877	7.29503	5.5077	6.81131	7.12071	7.10532	6.89159	7.447	7.45491	7.9183	8.11868	7.16187	7.97226	7.84103	8.07799	8.352	8.12434	8.55399	7.76421	8.7543	8.94985	9.02066	9.70871	9.135	9.25327	8.20726	7.8678	6.39534	5.22526	2.82954
18809	5.94731	6.06975	5.73243	6.0076	6.10086	6.18396	5.04471	5.97944	6.3452	6.58516	6.60334	6.61586	4.80693	6.3979	6.11195	6.67081	6.69643	7.03662	7.1846	7.51927	7.49486	7.73608	7.58202	7.47705	8.02798	7.87927	7.96958	8.16675	7.46808	8.33424	8.78451	8.51071	8.70295	9.13443	9.94162	8.46991	7.50315	6.58333	5.2706	2.81336
14365	3.96078	4.01734	3.81297	3.9779	4.08402	4.01035	3.74108	3.86809	4.14258	4.0164	4.19214	4.08164	3.89203	3.96225	3.90985	4.1912	4.13269	4.22202	4.56617	4.75245	4.43668	4.62992	4.59047	4.59641	4.70499	4.69209	4.82001	4.9696	5.0818	4.98994	5.1658	5.11735	5.1371	5.06435	5.25664	5.30909	5.75588	5.40724	5.28634	2.79639
10539	3.29026	3.25053	3.29751	3.1838	3.48782	3.33435	3.28382	3.22464	3.2794	3.20253	3.31538	3.15566	3.27381	3.02802	3.10892	3.31639	3.42674	3.59042	3.67112	3.72619	3.61524	3.92615	3.74361	3.66589	3.78407	3.97701	3.90137	4.12457	4.11728	4.10691	4.12684	4.09828	4.28072	4.24185	4.27285	4.26151	4.88963	4.96022	5.16561	2.76417
7321	2.95021	2.9977	2.78689	2.72462	3.11393	3.06372	2.78996	2.88553	2.94452	2.98559	3.01509	2.9557	2.94127	2.86215	2.95949	2.9082	3.00642	3.23505	3.1847	3.36525	3.38115	3.47594	3.41893	3.45113	3.46406	3.58541	3.51511	3.57775	3.81529	3.81282	3.94051	3.91059	3.99803	3.92901	4.11302	4.20664	4.61921	4.3676	5.00523	2.73476
4663	2.58068	2.70785	2.66024	2.42482	2.74988	2.89079	2.66452	2.74856	2.8167	2.70534	2.749	2.74835	2.85725	2.51418	2.588	2.73779	2.72002	3.00354	2.85672	3.17326	3.28604	3.42428	3.21965	3.2588	3.27404	3.41573	3.42982	3.29031	3.68583	3.70607	3.78195	3.96583	3.87869	3.68727	4.06556	4.14115	4.35351	3.87708	5.11013	2.75557
2668	2.16261	2.17445	2.21345	1.89832	2.25734	2.42268	2.41627	2.18857	2.36354	2.30843	2.28334	2.49248	2.31177	2.08425	2.15157	2.25385	2.39398	2.78789	2.70888	2.8736	3.09098	3.20611	3.04028	3.00159	2.99307	3.08491	3.45495	3.29173	3.5143	3.69324	3.61523	3.95245	3.78328	3.66444	3.97533	4.04837	4.18723	3.79236	4.93271	2.69157
1247	1.4184	1.60284	1.60045	1.54085	1.63274	1.7274	1.5	1.68656	1.57002	1.70099	1.58181	1.78917	1.75311	1.65807	1.88849	1.67108	1.78804	2.09398	2.07918	2.59311	1.96959	2.43729	2.40928	2.45787	2.60686	2.87425	2.59866	2.55472	2.95571	3.2987	3.12802	3.6256	3.34504	3.31979	3.70778	3.49564	3.83466	3.31752	4.57855	2.58243
401	0.961852	1.01681	1.0114	0.87023	1.00785	1.11296	1.005	0.947742	1.1362	1.21256	1.06035	1.12542	1.20894	1.03371	1.26432	1.05332	1.21729	1.46773	1.45166	1.6073	1.42804	1.66425	1.72379	1.80597	1.6768	2.04383	2.1289	1.88069	2.49107	2.55319	2.59199	2.87655	2.7855	2.79731	3.04939	2.85274	3.30757	3.06024	3.8285	2.39603
50	0.463968	0.471974	0.487076	0.421896	0.527714	0.534139	0.522677	0.467593	0.525448	0.601765	0.556964	0.630893	0.485289	0.672177	0.560137	0.54027	0.598909	0.695793	0.642636	0.792656	0.850226	1.04362	0.827714	0.828864	1.11011	1.22018	1.06681	1.03257	1.19405	1.28345	1.54047	1.68083	1.59736	1.62883	2.01283	1.70412	2.03053	1.965	2.3616	2.114
