%%MatrixMarket matrix array real general
10 10
.7071067810
0.
0.
0.
0.
0.
0.
0.
0.
0.
.2357022604
-.8333333333e-1
0.
0.
.1443375673
0.
0.
0.
0.
0.
.1178511302
-.6666666667e-1
.1360827635e-1
0.
.1154700539
-.2357022604e-1
0.
.3042903097e-1
0.
0.
.7071067810e-1
-.5000000000e-1
.1749635531e-1
-.2525381361e-2
.8660254040e-1
-.3030457633e-1
.4374088827e-2
.3912303982e-1
-.5646924394e-2
.6681531049e-2
.2357022604
.1666666667
0.
0.
0.
0.
0.
0.
0.
0.
.5892556509e-1
.1666666667e-1
-.2041241452e-1
0.
.2886751347e-1
.2357022604e-1
0.
0.
0.
0.
.2357022604e-1
0.
-.9720197392e-2
.3367175148e-2
.1924500898e-1
.1010152544e-1
-.4860098696e-2
.4347004424e-2
.3764616260e-2
0.
.1178511302
.1333333333
.4082482906e-1
0.
0.
0.
0.
0.
0.
0.
.2357022604e-1
.1666666667e-1
-.5832118436e-2
-.5050762721e-2
.9622504490e-2
.1346870059e-1
.4860098696e-2
0.
0.
0.
.7071067810e-1
.1000000000
.5248906592e-1
.1010152544e-1
0.
0.
0.
0.
0.
0.
