%%MatrixMarket matrix array real general
4 10
1.414213562
1.414213562
1.414213562
1.414213562
-2.
-2.
-2.
-2.
2.449489743
2.449489743
2.449489743
2.449489743
-2.828427124
-2.828427124
-2.828427124
-2.828427124
-3.464101616
-1.549193338
1.549193338
3.464101616
4.242640686
1.897366595
-1.897366595
-4.242640686
-4.898979486
-2.190890230
2.190890230
4.898979486
5.477225575
-1.095445115
-1.095445115
5.477225575
-6.324555320
1.264911064
1.264911064
-6.324555320
-7.483314774
3.346640106
-3.346640106
7.483314774
