0	0	345164
10.9729	0	367956
20.9351	0	382288
30.897	0	395486
40.859	0	407876
50.798	0	417982
60.6335	0	425780
70.4425	0	432102
80.2486	0	438134
90.9572	0	443848
100.598	0	448154
110.21	0	452106
120.783	0	456328
130.4	0	459668
140.05	0	463170
150.695	0	466648
160.279	0	469786
170.746	0	473046
180.283	0	475860
190.919	0	479164
200.769	0	481778
210.726	0	484688
220.776	0	487668
230.942	0	490562
240.092	0	493330
250.274	0	496656
260.463	0	499734
270.651	0	502658
280.84	0	505650
290.012	0	508526
300.209	0	511440
310.406	0	514562
320.603	0	517516
330.795	0	520760
340.972	0	524288
350.069	0	527516
360.062	0	531528
370.055	0	535404
380.047	0	539514
390.04	0	543612
400.033	0	547446
410.033	0	551494
420.036	0	555376
430.04	0	559520
440.137	0	563716
450.233	0	567836
460.329	0	572362
470.426	0	576158
480.522	0	580226
490.61	0	584590
500.633	0	588256
510.607	0	592496
520.571	0	596550
530.535	0	600822
540.499	0	604858
550.463	0	608576
560.427	0	612976
570.396	0	616786
580.374	0	620920
590.359	0	625290
600.323	0	629490
610.285	0	634088
620.247	0	638160
630.209	0	642626
640.171	0	646814
650.138	0	651018
660.129	0	655988
670.158	0	660226
680.187	0	664572
690.209	0	668806
700.22	0	673300
710.182	0	677370
720.107	0	682044
730.015	0	686702
740.914	0	691638
750.823	0	696566
760.758	0	701270
770.79	0	706304
780.865	0	711086
790.916	0	716426
800.966	0	721500
810.014	0	725990
820.074	0	731592
830.133	0	736798
840.308	0	742462
850.508	0	747660
860.719	0	753132
870.93	0	758244
880.12	0	762442
890.331	0	767944
900.543	0	772994
910.754	0	778634
920.965	0	784472
930.156	0	789188
940.367	0	795040
950.569	0	800292
960.758	0	806166
970.947	0	811886
980.117	0	817306
990.306	0	823508
1000.5	0	829196
1010.68	0	835230
1020.87	0	841060
1030.04	0	846494
1040.23	0	852206
1050.42	1.81899e-12	857910
1060.61	9.09495e-12	863752
1070.8	1.63709e-11	869460
1080.99	2.45564e-11	875664
1090.16	3.27418e-11	881132
1100.35	4.18368e-11	887214
1110.54	5.09317e-11	893226
1120.73	6.00267e-11	899396
1130.91	6.91216e-11	905302
1140.08	7.7307e-11	910466
1150.26	9.45874e-11	915980
1160.43	1.12777e-10	921770
1170.6	1.32786e-10	927824
1180.77	1.60071e-10	934400
1190.94	1.89175e-10	940360
1200.09	2.21917e-10	945726
1210.25	2.62844e-10	951704
1220.42	3.11047e-10	957672
1230.59	3.68345e-10	963782
1240.75	4.34738e-10	969890
1250.92	5.12046e-10	975668
1260.07	5.92081e-10	980992
1270.24	6.95763e-10	986208
1280.44	8.16726e-10	991728
1290.67	9.57698e-10	997162
1300.91	1.12141e-09	1002758
1310.13	1.28966e-09	1008014
1320.37	1.50339e-09	1013764
1330.6	1.75078e-09	1019532
1340.82	2.03454e-09	1025746
1350	2.3274e-09	1031152
1360.15	2.69392e-09	1037038
1370.22	3.10956e-09	1043192
1380.22	3.57977e-09	1049122
1390.18	4.11364e-09	1054542
1400.14	4.72119e-09	1060088
1410.11	5.40786e-09	1066382
1420.07	6.18729e-09	1072274
1430.04	7.07041e-09	1078460
1441	8.17454e-09	1085246
1450.96	9.31323e-09	1091024
1460.92	1.05974e-08	1096766
1470.89	1.20399e-08	1101920
1480.85	1.36615e-08	1107454
1490.81	1.54814e-08	1112702
1500.78	1.75205e-08	1118556
1510.74	1.98033e-08	1124436
1520.7	2.23554e-08	1130044
1530.66	2.52039e-08	1135264
1540.62	2.83799e-08	1139678
1550.59	3.19169e-08	1143514
1560.55	3.58514e-08	1147830
1570.51	4.02215e-08	1152240
1580.47	4.50709e-08	1156422
1590.44	5.04469e-08	1160388
1600.39	5.63941e-08	1165276
1610.33	6.29616e-08	1169558
1620.21	7.01675e-08	1173536
1630.09	7.81056e-08	1178006
1640.95	8.7769e-08	1182652
1650.82	9.74778e-08	1186828
1660.7	1.08145e-07	1191362
1670.57	1.19855e-07	1195792
1680.44	1.32695e-07	1199826
1690.32	1.4676e-07	1204258
1700.19	1.6215e-07	1208640
1710.06	1.78975e-07	1212882
1720.92	1.99276e-07	1217374
1730.8	2.19497e-07	1221558
1740.67	2.41535e-07	1225860
1750.55	2.65532e-07	1230200
1760.42	2.91633e-07	1234196
1770.29	3.19999e-07	1238072
1780.17	3.508e-07	1242110
1790.04	3.84212e-07	1246088
1800.9	4.24205e-07	1250373
1810.78	4.63724e-07	1254731
1820.65	5.06474e-07	1258837
1830.52	5.52676e-07	1263299
1840.4	6.02568e-07	1267407
1850.27	6.56395e-07	1271515
1860.15	7.14418e-07	1275365
1870.02	7.76912e-07	1279325
1880.88	8.51163e-07	1283827
1890.76	9.23999e-07	1287641
1900.63	1.00225e-06	1291619
1910.5	1.08624e-06	1295455
1920.38	1.17632e-06	1299257
1930.25	1.27286e-06	1303385
1940.13	1.37624e-06	1307123
1950	1.48685e-06	1311193
1960.93	1.61827e-06	1315463
1970.9	1.74671e-06	1319731
1980.86	1.88388e-06	1323573
1990.83	2.0303e-06	1326447
2000.8	2.18659e-06	1330505
2010.82	2.35393e-06	1333961
2021.01	2.53528e-06	1337543
2030.22	2.70937e-06	1340857
2040.46	2.91486e-06	1343871
2050.74	3.13464e-06	1347437
2060.04	3.34535e-06	1350657
2070.21	3.58966e-06	1353987
2080.54	3.85333e-06	1357841
2090.9	4.13408e-06	1361545
2100.29	4.4033e-06	1365129
2110.73	4.72006e-06	1369023
2120.12	5.02136e-06	1371891
2130.54	5.37468e-06	1375403
2140.97	5.74883e-06	1379035
2150.33	6.1035e-06	1382013
2160.69	6.51701e-06	1385089
2171	6.95196e-06	1388687
2180.29	7.3648e-06	1391773
2190.62	7.84767e-06	1394647
2200.93	8.35538e-06	1397799
2210.2	8.83561e-06	1400358
2220.5	9.39619e-06	1403471
2230.81	9.98629e-06	1406217
2240.08	1.05435e-05	1408569
2250.39	1.11929e-05	1411229
2260.7	1.18755e-05	1413935
2271	1.25923e-05	1417063
2280.29	1.32687e-05	1419807
2290.62	1.4056e-05	1422017
2300.92	1.48799e-05	1424739
2310.21	1.56563e-05	1426483
2320.54	1.6559e-05	1429075
2330.89	1.75056e-05	1431635
2340.22	1.83977e-05	1434223
2350.53	1.94258e-05	1436655
2360.84	2.05007e-05	1439291
2370.18	2.15172e-05	1441533
2380.5	2.26878e-05	1444236
2390.83	2.39101e-05	1446702
2400.16	2.50608e-05	1448394
2410.54	2.6395e-05	1450840
2421.01	2.77968e-05	1452638
2430.38	2.91048e-05	1454932
2440.7	3.06016e-05	1458106
2451.01	3.21595e-05	1461297
2460.29	3.36156e-05	1463691
2470.61	3.5299e-05	1466289
2480.96	3.70539e-05	1469127
2490.23	3.86868e-05	1472001
2500.54	4.05699e-05	1475301
2510.84	4.25272e-05	1478435
2520.13	4.43562e-05	1480863
2530.54	4.64806e-05	1483691
2540.85	4.8667e-05	1487345
2550.13	5.07037e-05	1490373
2560.46	5.30537e-05	1494113
2570.8	5.54931e-05	1498213
2580.09	5.77599e-05	1501465
2590.41	6.03645e-05	1505561
2600.72	6.30621e-05	1509182
2611.02	6.58534e-05	1513054
2620.29	6.845e-05	1515834
2630.62	7.14376e-05	1519391
2640.95	7.45298e-05	1523357
2650.25	7.74056e-05	1526575
2660.61	8.07136e-05	1530037
2670.93	8.41208e-05	1533937
2680.22	8.72867e-05	1536761
2690.55	9.09178e-05	1540199
2700.88	9.46707e-05	1543689
2710.17	9.81521e-05	1546639
2720.52	0.00010215	1549780
2730.89	0.000106289	1553054
2740.21	0.000110123	1556054
2750.56	0.000114515	1558836
2760.97	0.000119074	1562052
2770.29	0.000123282	1565046
2780.63	0.000128088	1567824
2790.98	0.000133054	1570104
2800.3	0.000137654	1572866
2810.64	0.000142914	1575384
2821.01	0.000148345	1578538
2830.3	0.000153349	1581936
2840.62	0.000159066	1585264
2850.97	0.000164968	1588661
2860.29	0.000170434	1590905
2870.66	0.000176676	1594279
2880.97	0.000183057	1598117
2890.26	0.000188962	1601235
2900.58	0.000195701	1605415
2910.89	0.000202617	1609029
2920.16	0.000209007	1612505
2930.48	0.000216304	1616671
2940.82	0.00022383	1621002
2950.11	0.000230776	1625522
2960.41	0.000238702	1629429
2970.72	0.000246863	1633737
2981.02	0.00025527	1637121
2990.32	0.000263072	1640875
3000.65	0.000272006	1644777
3010.97	0.00028121	1649477
3020.25	0.000289743	1652580
3030.59	0.000299531	1656366
3040.96	0.000309664	1660178
3050.29	0.000319071	1664392
3060.6	0.000329784	1668758
3070.9	0.000340851	1672252
3080.2	0.000351162	1675500
3090.73	0.000363232	1679426
3100.22	0.000374453	1683396
3110.76	0.000387252	1687844
3120.25	0.000399054	1691191
3130.8	0.000412492	1695059
3140.36	0.000424959	1698679
3151.05	0.000439128	1702433
3160.7	0.000452121	1706231
3170.38	0.000465335	1709735
3180.06	0.000478735	1713251
3190.77	0.000493828	1717204
3200.36	0.000507621	1721140
3211.02	0.000523297	1724746
3220.61	0.000537782	1728351
3230.19	0.000552677	1731423
3240.82	0.000569788	1735303
3250.39	0.000585774	1738489
3261.01	0.000604239	1741994
3270.57	0.000621593	1745034
3280.12	0.000639713	1747843
3290.7	0.000660759	1751073
3300.21	0.000680619	1754046
3310.8	0.000703856	1757081
3320.37	0.000725923	1760237
3331.01	0.000756661	1763534
3340.58	0.000784911	1766114
3350.16	0.000813399	1769320
3360.82	0.000845319	1772734
3370.43	0.000874428	1775562
3380.06	0.000904078	1778796
3390.57	0.000937303	1782118
3400.23	0.000968839	1785640
3410.96	0.00100535	1789296
3420.61	0.00103965	1792449
3430.13	0.00107502	1795728
3440.65	0.00111604	1799120
3450.06	0.00115457	1801939
3460.42	0.00119921	1805231
3470.76	0.00124667	1808264
3480.05	0.00129199	1811155
3490.37	0.00134536	1814471
3500.69	0.00144547	1817991
3511.01	0.00157398	1821794
3520.3	0.00168679	1825116
3530.62	0.00180739	1828775
3540.94	0.00192197	1832430
3550.23	0.00202039	1835488
3560.55	0.00212547	1838874
3570.88	0.00222721	1842618
3580.17	0.00231706	1845928
3590.54	0.00241668	1849848
3600.98	0.00251751	1853490
3610.41	0.00261002	1856948
3620.9	0.00271529	1860483
3630.34	0.00281309	1863547
3640.82	0.0029261	1866853
3650.21	0.00303233	1870077
3660.6	0.0031564	1873457
3670.98	0.00328797	1876713
3680.33	0.00341311	1879987
3690.7	0.00355304	1883709
3700.03	0.00368001	1887095
3710.39	0.00382841	1890456
3720.76	0.00398645	1894027
3730.04	0.00413995	1897369
3740.3	0.00432757	1901187
3750.52	0.00453345	1904637
3760.71	0.00475594	1908928
3770.8	0.00515344	1912386
3780.85	0.00563102	1916452
3790.89	0.00605686	1919981
3800.93	0.00643786	1923997
3810.97	0.00678731	1927961
3820.01	0.00708561	1931325
3830.07	0.00740996	1935405
3840.16	0.00773576	1939150
3850.25	0.00807034	1943240
3860.36	0.00841843	1947201
3870.42	0.00876346	1951288
3880.4	0.00910271	1955117
3890.38	0.00945541	1959017
3900.35	0.009839	1962703
3910.3	0.0102646	1966235
3920.23	0.010737	1969637
3930.06	0.011254	1973129
3940.87	0.0118833	1976348
3950.7	0.012922	1979497
3960.52	0.0138308	1982666
3970.35	0.0147392	1985882
3980.19	0.0156968	1989220
3990.04	0.0167139	1992213
4000.89	0.0178772	1995269
4010.69	0.0189781	1998603
4020.43	0.0201472	2001836
4030.16	0.0213964	2005077
4040.87	0.0228461	2008519
4050.6	0.0242026	2011501
4060.34	0.025624	2014652
4070.07	0.0270902	2017962
4080.82	0.0287374	2020872
4090.6	0.030454	2024214
4100.35	0.0325569	2027268
4110.09	0.0349789	2030440
4120.81	0.0379708	2033833
4130.56	0.0409193	2036471
4140.3	0.0439989	2039959
4150.05	0.0461604	2043145
4160.83	0.0506463	2046962
4170.67	0.0556014	2050622
4180.52	0.0606418	2054366
4190.39	0.0662491	2058272
4200.28	0.0719799	2062487
4210.37	0.0779781	2066325
4220.48	0.0844609	2070443
4230.59	0.0996001	2074667
4240.7	0.110342	2078576
4250.81	0.121835	2082657
4260.89	0.136351	2086244
4270.95	0.155502	2090687
4280.01	0.174544	2094196
4290.07	0.197772	2098168
4300.13	0.22165	2102532
4310.19	0.248788	2106687
4320.22	0.281635	2110559
4330.19	0.330672	2114021
4340.16	0.401683	2117976
4350.13	0.48587	2122496
4360.1	0.572613	2126597
4370.07	0.659901	2130444
4380.04	0.749483	2134639
4390.01	0.840255	2138287
4400.98	0.943123	2142379
4410.95	1.03646	2145900
4420.92	1.12859	2149489
4430.89	1.21765	2152678
4440.86	1.30306	2156438
4450.84	1.38359	2159533
4460.81	1.45848	2162998
4470.78	1.52734	2166804
4480.79	1.58971	2169922
4490.81	1.64545	2173443
4500.8	1.69366	2177109
4510.72	1.7337	2180558
4520.61	1.76506	2184350
4530.47	1.7869	2187539
4540.31	1.79947	2191293
4550.15	1.8011	2194237
4560.98	1.79125	2197341
4570.82	1.77396	2200302
4580.66	1.74938	2203046
4590.5	1.71606	2205786
4600.34	1.67473	2208205
4610.18	1.62729	2210334
4620.04	1.52916	2212811
4630.9	1.41676	2215777
4640.78	1.30692	2218286
4650.66	1.18994	2221686
4660.56	1.06811	2224064
4670.45	0.942802	2226497
4680.36	0.815454	2229251
4690.35	0.686481	2232103
4700.34	0.558553	2235053
4710.33	0.43343	2237401
4720.26	0.312659	2239743
4730.19	0.196448	2242267
4740.12	0.085122	2244471
4750.06	-0.0210417	2247538
4760.98	-0.131424	2250788
4770.91	-0.225226	2253318
4780.85	-0.312702	2255665
4790.78	-0.393957	2257850
4800.71	-0.468746	2260498
4810.64	-0.537	2263804
4820.61	-0.599112	2266585
4830.6	-0.655266	2269154
4840.59	-0.705854	2272263
4850.58	-0.751568	2274629
4860.56	-0.793207	2277595
4870.55	-0.831638	2279847
4880.54	-0.867703	2281749
4890.53	-0.90211	2284850
4900.52	-0.935358	2287371
4910.51	-0.967776	2289592
4920.5	-0.999488	2292177
4930.51	-1.03049	2294746
4940.55	-1.06064	2297594
4950.59	-1.08942	2300797
4960.63	-1.11624	2304168
4970.67	-1.14047	2307384
4980.7	-1.16134	2310689
4990.74	-1.17785	2314134
5000.81	-1.18941	2317266
5010.94	-1.19414	2320188
5020.06	-1.19064	2323255
5030.19	-1.18538	2326613
5040.33	-1.17826	2330233
5050.47	-1.1698	2333116
5060.63	-1.15967	2336655
5070.79	-1.14796	2339529
5080	-1.13593	2342196
5090.28	-1.12071	2345595
5100.65	-1.10173	2348226
5111.03	-1.08103	2351878
5120.39	-1.0606	2354962
5130.8	-1.03594	2358532
5140.2	-1.01624	2361737
5150.71	-0.973935	2365104
5160.2	-0.928759	2368448
5170.74	-0.883214	2371835
5180.25	-0.839595	2374702
5190.87	-0.790896	2378262
5200.46	-0.746216	2381226
5210.1	-0.699391	2384662
5220.65	-0.647779	2388107
5230.07	-0.600375	2390469
5240.44	-0.548378	2393029
5250.86	-0.495999	2395761
5260.26	-0.450011	2398149
5270.56	-0.401245	2400302
5280.87	-0.354427	2403202
5290.14	-0.313981	2405534
5300.47	-0.270651	2408051
5310.84	-0.228885	2410531
5320.21	-0.192464	2412361
5330.59	-0.153736	2414430
5340.1	-0.119773	2416547
5350.75	-0.0836774	2419071
5360.37	-0.0529963	2421153
5370.89	-0.0217665	2423357
5380.36	0.00416765	2425542
5390.9	0.0305445	2428028
5400.57	0.0523	2430787
5410.05	0.0712571	2432658
5420.84	0.0899273	2435347
5430.97	0.104701	2437567
5440.33	0.116465	2439984
5450.69	0.125857	2442815
5460.25	0.13071	2445184
5470.95	0.133448	2448211
5480.37	0.134436	2450914
5490.8	0.135404	2454398
5500.18	0.135275	2457785
5510.61	0.134831	2460193
5520.24	0.134032	2462194
5530.23	0.132821	2464451
5540.06	0.131197	2466670
5550.52	0.129037	2468548
5560.97	0.126499	2470620
5570.37	0.123912	2471930
5580.05	0.120962	2473696
5590.4	0.117518	2475248
5600.01	0.114095	2476653
5610.13	0.11032	2478591
5620.9	0.106239	2481094
5631.02	0.10076	2483463
5641.11	0.0910886	2485349
5650.13	0.0858496	2487325
5660.27	0.0794403	2489335
5670.35	0.0725975	2491640
5680.36	0.0657052	2493837
5690.9	0.0591969	2497055
5700.39	0.0535719	2499589
5710.36	0.0473068	2501878
5720.5	0.0407034	2504633
5730.68	0.0341313	2507555
5740.28	0.0279583	2510477
5750.77	0.0210891	2512715
5760.22	0.0147542	2515095
5770.74	0.00755285	2517590
5780.12	0.00105116	2520278
5790.54	-0.00623418	2523753
5800.99	-0.0135699	2526111
5810.41	-0.0202062	2528047
5820.89	-0.0276255	2529879
5830.32	-0.034328	2531945
5840.7	-0.0417436	2535405
5850.08	-0.0484853	2537755
5860.52	-0.0560522	2540715
5870.97	-0.0636894	2543658
5880.36	-0.0706088	2546791
5890.79	-0.0784001	2549714
5900.18	-0.0854573	2553306
5910.61	-0.0932528	2556685
5920.97	-0.100983	2560441
5930.29	-0.107901	2563468
5940.75	-0.115554	2566511
5950.18	-0.122356	2568982
5960.72	-0.129878	2572059
5970.14	-0.136581	2575019
5980.62	-0.144022	2578351
5990.05	-0.15069	2581334
6000.59	-0.158081	2584463
6010.11	-0.164632	2587913
6020.7	-0.171672	2591627
6030.19	-0.177668	2595630
6040.72	-0.183915	2599411
6050.22	-0.189136	2602412
6061.07	-0.194481	2606128
6070.58	-0.198393	2609553
6081	-0.201738	2613089
6090.55	-0.203994	2616849
6100.12	-0.20551	2620765
6110.56	-0.206245	2625188
6121.01	-0.205937	2629339
6130.49	-0.204744	2633888
6140.2	-0.202663	2637850
6150.08	-0.199698	2641794
6160.72	-0.195553	2646051
6170.29	-0.19101	2650634
6180.91	-0.185192	2655695
6190.38	-0.179268	2660265
6200.96	-0.171912	2665111
6210.42	-0.164763	2670455
6220.8	-0.156364	2674419
6230.52	-0.148025	2678153
6240.23	-0.139304	2682020
6250.81	-0.129438	2686232
6260.38	-0.12027	2690069
6270.95	-0.109932	2693955
6280.44	-0.100516	2697539
6290.94	-0.0900132	2701714
6300.38	-0.0805777	2705286
6310.92	-0.0701095	2708252
6320.38	-0.0608077	2710717
6330.84	-0.0506653	2713648
6340.25	-0.0417175	2716314
6350.72	-0.0319853	2718897
6360.1	-0.0235154	2722363
6370.53	-0.014403	2724670
6380.98	-0.00562794	2728191
6390.39	0.00194547	2730887
6401.02	0.0101013	2734871
6410.53	0.0170091	2738790
6420.26	0.0236734	2743020
6430.78	0.0303901	2747865
6440.23	0.0359875	2752663
6450.82	0.0417627	2758114
6460.3	0.0464895	2763332
6470.75	0.0512149	2767674
6480.14	0.055038	2771758
6490.56	0.058804	2775425
6500.91	0.0618523	2779701
6510.32	0.064117	2783330
6520.94	0.0668061	2787978
6530.52	0.0687924	2792225
6540.95	0.0702908	2797038
6550.28	0.0712797	2800708
6560.6	0.0719969	2804502
6571.05	0.0733483	2809443
6580.51	0.0734439	2812848
6590.96	0.0731831	2817310
6600.3	0.0728536	2820799
6610.73	0.0723827	2824899
6620.26	0.0718534	2829079
6630.84	0.0713047	2833511
6640.37	0.0707337	2837649
6651.01	0.0701868	2842433
6660.69	0.069681	2846566
6670.14	0.0688259	2850248
6680.62	0.068036	2854696
6690.04	0.0675834	2858407
6700.46	0.0671902	2862477
6710.89	0.0667547	2866586
6720.32	0.0663139	2870393
6730.84	0.0661117	2874704
6740.25	0.0659255	2877389
6750.76	0.0654644	2881566
6760.31	0.065031	2885455
6770.97	0.0645313	2889521
6780.48	0.0640278	2892905
6790.95	0.0633742	2896643
6800.33	0.06268	2900087
6810.75	0.0617561	2903313
6820.15	0.0607545	2906897
6830.71	0.0594869	2910788
6840.13	0.0582266	2914381
6850.63	0.0564672	2918708
6860.1	0.0545598	2922828
6870.57	0.0516524	2927951
6881.04	0.0482065	2932704
6890.47	0.0450615	2937298
6900.94	0.0416075	2942881
6910.4	0.0384058	2946877
6920.9	0.0340387	2951475
6930.38	0.0288959	2955407
6941.04	0.023655	2959597
6950.52	0.0188899	2963905
6961.02	0.013538	2968606
6970.5	0.00855229	2973006
6980.03	0.00344863	2976179
6990.62	-0.00239996	2980318
7000.23	-0.00780371	2985262
7010.71	-0.0135566	2990370
7020.14	-0.0185071	2995087
7030.64	-0.0237786	3000854
7040.11	-0.028375	3004681
7050.64	-0.0333494	3008978
7060.17	-0.037705	3013243
7070.77	-0.0422751	3017624
7080.37	-0.0460949	3021420
7091.03	-0.0499431	3025424
7100.78	-0.0531245	3029886
7110.41	-0.0560025	3034208
7120.42	-0.0587678	3038285
7130.43	-0.0613296	3042651
7140.41	-0.0636871	3046968
7150.11	-0.0657902	3050720
7160.64	-0.0678818	3055128
7170.12	-0.0696205	3058616
7180.71	-0.0714389	3062708
7190.47	-0.0730338	3066581
7200.21	-0.0745618	3070819
7211.07	-0.0762012	3075765
7220.78	-0.0776138	3079729
7230.43	-0.0789706	3083742
7240.09	-0.0802794	3087778
7250.59	-0.0816413	3091886
7261.01	-0.0829132	3095935
7270.8	-0.0840151	3099433
7280.38	-0.0849764	3103174
7290.69	-0.0858489	3106698
7300.08	-0.0864522	3110241
7310.61	-0.0868998	3114857
7320.09	-0.0869861	3118370
7330.62	-0.0869582	3122492
7340.98	-0.0868341	3127441
7350.25	-0.0862787	3131033
7360.55	-0.0857489	3135522
7370.86	-0.0847729	3139487
7380.14	-0.0838277	3142846
7390.45	-0.0825666	3146133
7400.86	-0.0809388	3148950
7410.35	-0.0792322	3152290
7420.7	-0.0771796	3155388
7431.01	-0.0749489	3159105
7440.28	-0.0727526	3162218
7450.72	-0.0700269	3165607
7460.03	-0.0673552	3169436
7470.36	-0.0641378	3173084
7480.69	-0.0606898	3177400
7491.01	-0.0570553	3181311
7500.42	-0.053583	3184322
7510.31	-0.0497972	3188198
7520.95	-0.0455489	3192416
7530.3	-0.0407582	3196808
7540.61	-0.0346976	3201259
7550.92	-0.0287113	3204811
7560.66	-0.0228246	3208872
7570.52	-0.0168525	3212644
7580.22	-0.0110797	3215431
7591.01	-0.00442973	3218989
7600.79	0.00188967	3221594
7610.45	0.00825779	3224503
7620.08	0.0145522	3227633
7630.77	0.0214261	3230576
7640.38	0.0275585	3234002
7650.71	0.0341713	3236893
7660.05	0.0401731	3239534
7670.86	0.0471125	3242736
7680.62	0.0533128	3244591
7690.57	0.0595405	3247624
7700.65	0.0657569	3250286
7710.76	0.0719134	3252861
7720.87	0.0780071	3255650
7730.98	0.0840308	3257857
7741.1	0.0899732	3260326
7750.09	0.0951782	3262318
7760.2	0.100942	3264854
7770.33	0.106609	3268228
7780.45	0.112166	3270893
7790.56	0.1176	3273907
7800.68	0.122899	3276624
7810.79	0.128043	3279737
7820.91	0.133011	3282257
7831.02	0.13778	3285779
7841.04	0.142289	3288699
7850.97	0.146526	3291954
7860.88	0.150514	3295644
7870.78	0.154244	3298973
7880.68	0.157705	3302252
7890.58	0.160885	3306011
7900.49	0.16377	3309416
7910.39	0.166346	3313532
7920.29	0.1686	3317461
7930.2	0.170521	3321848
7940.1	0.1721	3325959
7950.01	0.173331	3329865
7961.01	0.174287	3334491
7970.91	0.174779	3338073
7980.82	0.174929	3341534
7990.72	0.174747	3344902
8000.52	0.174256	3349406
8010.4	0.173468	3353484
8021.06	0.172315	3356868
8030.68	0.171031	3360457
8040.27	0.169554	3363519
8051.03	0.16769	3367316
8060.7	0.165866	3370343
8070.19	0.163964	3373512
8080.64	0.161776	3377235
8090.03	0.159755	3379892
8100.44	0.15748	3383452
8110.89	0.155194	3387279
8120.44	0.153125	3390216
8130.95	0.150892	3395187
8140.22	0.14898	3398610
8150.52	0.146932	3402961
8160.82	0.144976	3407271
8170.13	0.143295	3411099
8180.65	0.141496	3415041
8190.26	0.139949	3418365
8200.76	0.138358	3422043
8210.23	0.137006	3424803
8220.76	0.135584	3427841
8230.29	0.134351	3431017
8240.88	0.133018	3434428
8250.39	0.131834	3437152
8260.06	0.130639	3440851
8270.57	0.129319	3444804
8280.03	0.12808	3448678
8290.63	0.126591	3452981
8300.22	0.125123	3456942
8310.67	0.123359	3461814
8320.16	0.121587	3465895
8330.79	0.11938	3470277
8340.31	0.117178	3474818
8350.84	0.114472	3478710
8360.22	0.111816	3482357
8370.64	0.108597	3485389
8380.03	0.105475	3487664
8390.45	0.101776	3489972
8400.87	0.0978547	3492417
8410.49	0.0940644	3494578
8420.99	0.0897545	3497224
8430.46	0.0857412	3499395
8440.99	0.0811684	3501715
8450.41	0.0769932	3504238
8460.87	0.0722934	3506574
8470.28	0.0680255	3509296
8480.74	0.063264	3511362
8490.21	0.0589597	3513110
8500.84	0.0541704	3515215
8510.44	0.0499041	3517409
8520.87	0.0453768	3519908
8530.51	0.0413132	3522066
8540.51	0.037261	3524152
8550.5	0.0333978	3526796
8560	0.0299234	3529452
8570.48	0.0263428	3531207
8580.99	0.0230381	3533200
8590.77	0.0202373	3534937
8600.31	0.0177664	3536645
8610.81	0.0153536	3538812
8620.25	0.0134575	3541122
8630.75	0.0116933	3544077
8640.21	0.0104331	3546934
8650.75	0.00913658	3549781
8660.26	0.00823644	3552711
8670.87	0.0074965	3553977
8680.39	0.0070732	3556457
8690.86	0.00684763	3558085
8700.28	0.00680562	3560013
8710.79	0.00691503	3562577
8720.25	0.0071438	3564259
8730.77	0.00750624	3566336
8740.25	0.0078879	3567946
8750.81	0.0083316	3570829
8760.34	0.00871871	3573555
8770.95	0.00912372	3575686
8780.45	0.00960876	3578134
8790.92	0.00969455	3580783
8800.45	0.0096221	3582254
8810.11	0.00944279	3583630
8820.79	0.00905381	3584946
8830.34	0.00851073	3586678
8840.7	0.0075175	3588267
8850.01	0.00657097	3590056
8860.54	0.00530469	3591523
8870.03	0.0039732	3592983
8880.53	0.00223852	3594177
8890.88	0.000315922	3595752
8900.17	-0.00159919	3598158
8910.48	-0.00396257	3599615
8920.83	-0.00660044	3601913
8930.34	-0.00925384	3604406
8940.9	-0.0124406	3606275
8950.2	-0.0154327	3609224
8960.5	-0.0189293	3610709
8970.82	-0.0225947	3611985
8980.2	-0.0260435	3613155
8990.7	-0.0300062	3614594
9000.14	-0.0336299	3615616
9010.61	-0.0376794	3617724
9020.98	-0.0416957	3620264
9030.27	-0.0452707	3621253
9040.59	-0.0491926	3623403
9050.93	-0.0530385	3624910
9060.43	-0.0564654	3627515
9070.89	-0.0600864	3630812
9080.27	-0.0631659	3633208
9090.62	-0.0663555	3636612
9100.01	-0.0690402	3639554
9110.42	-0.0717727	3642235
9120.73	-0.0742165	3644716
9131.03	-0.0763941	3648880
9140.4	-0.0781413	3651905
9150.92	-0.0798415	3656454
9160.38	-0.0811397	3659706
9170.83	-0.0823377	3664113
9180.18	-0.0832125	3667932
9190.57	-0.0839885	3672696
9200.96	-0.0845818	3677631
9210.31	-0.0849802	3681127
9220.71	-0.0852995	3685624
9230.01	-0.0854978	3688540
9240.35	-0.0856482	3691453
9250.7	-0.0857518	3694662
9260.14	-0.0858269	3697489
9270.59	-0.0859101	3701858
9281.02	-0.0860126	3705828
9290.4	-0.0861356	3709061
9300.86	-0.086319	3711912
9310.23	-0.0865321	3714188
9320.67	-0.086829	3718225
9331.03	-0.0871881	3720277
9340.44	-0.0875697	3723096
9350.84	-0.0880509	3725814
9360.23	-0.0885352	3728084
9370.74	-0.089126	3731988
9380.13	-0.0896877	3734785
9390.54	-0.0903346	3736956
9400.88	-0.0909857	3740233
9410.17	-0.0915611	3742945
9420.54	-0.0921769	3745726
9430.88	-0.0927443	3749418
9440.16	-0.0931975	3752293
9450.5	-0.0936241	3756232
9460.83	-0.0939494	3759244
9470.18	-0.0941416	3761850
9480.58	-0.0942258	3763259
9490.96	-0.0941585	3765540
9500.28	-0.0939588	3767771
9510.7	-0.0935712	3769228
9520.1	-0.093067	3771248
9530.4	-0.0923437	3773888
9540.81	-0.091432	3777094
9550.1	-0.0904677	3778705
9560.43	-0.0892347	3780173
9570.85	-0.087832	3782196
9580.22	-0.0864459	3784134
9590.57	-0.0847979	3785076
9600.93	-0.0830487	3785839
9610.38	-0.0813868	3785597
9620.85	-0.0795005	3786431
9630.28	-0.0777863	3787214
9640.74	-0.0758993	3787301
9650.17	-0.0742379	3787842
9660.6	-0.0724777	3788502
9671.03	-0.070839	3789902
9680.47	-0.0694439	3791067
9691.03	-0.0680155	3790346
9700.55	-0.0668636	3790437
9710.88	-0.0657633	3790384
9720.17	-0.0649089	3791307
9730.53	-0.0641123	3792188
9740.94	-0.0634755	3792597
9750.33	-0.0630355	3793486
9760.84	-0.0626874	3793118
9770.32	-0.0624945	3793709
9780.77	-0.0624007	3794049
9790.13	-0.0624036	3794496
9800.46	-0.0624754	3795471
9810.78	-0.0625812	3796264
9820.07	-0.0626641	3796154
9830.4	-0.0627226	3796666
9840.75	-0.0627529	3796153
9850.13	-0.0627567	3795106
9860.59	-0.0627133	3793676
9870.98	-0.0625855	3793487
9880.33	-0.0623617	3792866
9890.65	-0.0619524	3793090
9900.95	-0.0613524	3793287
9910.23	-0.0607715	3794470
9920.55	-0.0597549	3794749
9931.01	-0.0582954	3795754
9940.4	-0.0563323	3796929
9950.91	-0.0544325	3798114
9960.34	-0.0521315	3799406
9970.78	-0.0490899	3802008
9980.08	-0.0465279	3803954
9990.41	-0.0436008	3807362
10000.7	-0.040569	3810200
10010.1	-0.0377239	3812621
10020.4	-0.034403	3814682
10030.9	-0.0310099	3817170
10040.3	-0.0279716	3819620
10050.7	-0.0246425	3822488
10060	-0.0216846	3824737
10070.4	-0.0183719	3827688
10080.9	-0.0150603	3829520
10090.2	-0.0121273	3831730
10100.6	-0.00901511	3833959
10110.9	-0.00606736	3836328
10120.1	-0.00356107	3837454
10130.4	-0.000934445	3838425
10140.8	0.00152398	3839935
10150	0.00357725	3842239
10160.4	0.00565853	3845056
10170.7	0.00750745	3846675
10180.1	0.00895812	3848395
10190.5	0.0103337	3850223
10201	0.0114519	3852998
10210.4	0.0122451	3856205
10220.8	0.0128129	3860827
10230.2	0.0130248	3864467
10240.7	0.0133317	3869242
10250.1	0.0133213	3872189
10260.7	0.0129978	3875707
10270.1	0.0124802	3878986
10280.6	0.0116928	3881769
10290.1	0.0107724	3884352
10300.6	0.0095268	3886468
10310.1	0.00826676	3888071
10320.6	0.00672953	3889784
10330.1	0.00519375	3891510
10340.6	0.0032875	3893965
10350.1	0.00140292	3896183
10360.6	-0.000860806	3898369
10370.1	-0.00303312	3901098
10380.7	-0.00558138	3904599
10390.1	-0.00797107	3907283
10400.6	-0.010738	3911378
10411	-0.0136083	3913917
10420.4	-0.0162834	3916486
10430.9	-0.0193664	3919915
10440.4	-0.0222406	3922192
10450.9	-0.025516	3924851
10460.4	-0.0285284	3927200
10470.8	-0.0318986	3931198
10480.2	-0.0349604	3933529
10490.5	-0.0384176	3936240
10500.8	-0.0419309	3939652
10510.1	-0.0451447	3942218
10520.5	-0.0487577	3946336
10530.9	-0.0524197	3948630
10540.3	-0.055744	3952107
10550.7	-0.0594051	3955889
10560.1	-0.0626914	3959573
10570.4	-0.0663028	3963785
10580.7	-0.0698893	3966989
10590	-0.0731102	3969979
10600.3	-0.0766811	3973124
10610.7	-0.0802705	3976081
10620.1	-0.0834719	3978172
10630.6	-0.0869953	3981179
10640.1	-0.0901291	3983286
10650.4	-0.093487	3986222
10660.7	-0.0967613	3989920
10670	-0.0996343	3991715
10680.3	-0.102738	3994628
10690.8	-0.105786	3998387
10700.1	-0.108397	4001056
10710.4	-0.111196	4004203
10720.7	-0.113879	4007773
10731	-0.116439	4011087
10740.3	-0.118632	4013500
10750.7	-0.120931	4017129
10761	-0.123078	4019999
10770.5	-0.124898	4022396
10781	-0.126779	4025065
10790.4	-0.128328	4028568
10801	-0.12991	4031350
10810.5	-0.131193	4033592
10820.9	-0.132434	4036689
10830.2	-0.133418	4038543
10840.7	-0.134392	4041815
10851	-0.135216	4044096
10860.3	-0.135821	4045452
10870.7	-0.136318	4047124
10880.2	-0.136614	4049179
10890.8	-0.136793	4051262
10900.2	-0.136828	4054094
10910.6	-0.13673	4056482
10920.9	-0.136487	4059604
10930.2	-0.136143	4062013
10940.5	-0.13562	4065142
10951	-0.134946	4068085
10960.4	-0.134214	4070311
10970.8	-0.133263	4072256
10980.3	-0.132276	4074880
10990.8	-0.131042	4078463
11000.2	-0.129797	4081135
11010.8	-0.12827	4084092
11020.2	-0.126779	4086543
11030.5	-0.124997	4089405
11040.9	-0.123067	4091965
11050.2	-0.121203	4092155
11060.5	-0.118984	4094159
11070.9	-0.116594	4096175
11080.3	-0.114283	4098210
11090.8	-0.111573	4099963
11100.1	-0.109017	4101815
11110.5	-0.106029	4102706
11120.9	-0.102888	4104552
11130.3	-0.0999215	4105988
11140.7	-0.0964819	4107816
11150.2	-0.0932509	4108257
11160.7	-0.0895228	4109936
11170.1	-0.0860719	4110626
11180.5	-0.0821341	4112230
11190.9	-0.0780908	4113868
11200.3	-0.0743545	4115723
11211	-0.0700481	4117946
11220.4	-0.0661484	4119416
11230.8	-0.0617625	4120471
11240.4	-0.0576982	4121586
11250.1	-0.0535423	4121689
11260.7	-0.0489256	4122906
11270.2	-0.0447966	4123162
11280.7	-0.0401883	4124259
11290.1	-0.0360431	4124641
11300.6	-0.031439	4123494
11310.1	-0.0272846	4122997
11320.6	-0.0226888	4123583
11330.1	-0.0185901	4124262
11340.5	-0.014136	4125331
11350.7	-0.00977783	4126137
11360.9	-0.00551062	4127792
11371	-0.00133199	4128967
11380.1	0.00237042	4130231
11390.2	0.00641842	4131417
11400.3	0.0103931	4132415
11410.4	0.0142904	4133646
11420.5	0.0181065	4135052
11430.6	0.0218373	4136419
11440.7	0.0254787	4137677
11450.8	0.0290269	4139117
11460.9	0.0324788	4141063
11471	0.0358322	4143320
11480.1	0.0387653	4145362
11490.2	0.0419302	4148709
11500.3	0.0449968	4151964
11510.4	0.047967	4155275
11520.5	0.0508424	4158038
11530.5	0.053625	4161815
11540.6	0.0563168	4164947
11550.7	0.0589199	4168154
11560.8	0.0614368	4170912
11570.9	0.0638703	4173751
11580	0.0659917	4176521
11590.1	0.0682765	4179713
11600.3	0.0704968	4182523
11610.5	0.0726614	4184400
11620.9	0.0747971	4186058
11630.4	0.0766893	4187097
11640.9	0.0787344	4188376
11650.4	0.0805241	4189339
11661	0.0824598	4189937
11670.5	0.0841569	4190153
11681	0.0859957	4191350
11690.5	0.0876109	4191841
11700	0.0891902	4193640
11710.5	0.0909046	4195879
11720.2	0.0924435	4198080
11731	0.0941208	4200025
11740.7	0.0955992	4201516
11750.4	0.0970493	4204590
11760.1	0.0984721	4207308
11770.8	0.100022	4210731
11780.5	0.10139	4214289
11790.2	0.102733	4217239
11801	0.104197	4220441
11810.7	0.105488	4223606
11820.3	0.106744	4226167
11830.9	0.108098	4228670
11840.5	0.109298	4231372
11850.1	0.110471	4233271
11860.8	0.111757	4234819
11870.5	0.112884	4234942
11880.2	0.113973	4236994
11890.7	0.115128	4238346
11900.2	0.116134	4238856
11910.8	0.117229	4240100
11920.5	0.118183	4241092
11930.2	0.119098	4241952
11941	0.120066	4243353
11950.5	0.120882	4244359
11961	0.121723	4245825
11970.4	0.122438	4246403
11980.9	0.123184	4248259
11990.3	0.123809	4249466
12000.6	0.124444	4249952
12011	0.125025	4250614
12020.3	0.125502	4249899
12030.6	0.125982	4250351
12040.1	0.126373	4250935
12050.5	0.126757	4251754
12061	0.127089	4252819
12070.4	0.127346	4253269
12081	0.127587	4254357
12090.5	0.127765	4256263
12101	0.127918	4259457
12110.4	0.128023	4262141
12120.9	0.128106	4263164
12130.4	0.128152	4264682
12140.9	0.128176	4266141
12150.4	0.128176	4268619
12160.8	0.128158	4270505
12170.2	0.128128	4271198
12180.7	0.128084	4272801
12190.1	0.128041	4274192
12200.5	0.127991	4274806
12211	0.127947	4275046
12220.4	0.127914	4275344
12230.9	0.127891	4276254
12240.4	0.127884	4275364
12250.9	0.127894	4274159
12260.4	0.12792	4274041
12270.1	0.127961	4273587
12280.6	0.128023	4273189
12290.1	0.128092	4272951
12300.7	0.128184	4272513
12310.2	0.128282	4273074
12320.9	0.128412	4272251
12330.5	0.128646	4271984
12340.2	0.128813	4271835
12351	0.128922	4271237
12360.6	0.129014	4271115
12370.3	0.129145	4270653
12381	0.129343	4271540
12390.7	0.129569	4272016
12400.3	0.129835	4273223
12410.8	0.130159	4273776
12420.3	0.130463	4274902
12430.8	0.130804	4275747
12440.2	0.131113	4276850
12450.8	0.131459	4278804
12460.3	0.131766	4281395
12470.9	0.132095	4283473
12480.4	0.132373	4285225
12491	0.132649	4286580
12500.4	0.132859	4287734
12511	0.13304	4288925
12520.5	0.133146	4290570
12531	0.13319	4292811
12540.5	0.133153	4293973
12550	0.133035	4295936
12560.6	0.132802	4297727
12570.1	0.132495	4300494
12580.6	0.132055	4302753
12590.1	0.131571	4304353
12600.7	0.13091	4306555
12610.2	0.130175	4307899
12620.7	0.129209	4310702
12630.2	0.128202	4311870
12640.8	0.126906	4313788
12650.3	0.125572	4315045
12660.8	0.123917	4316575
12670.3	0.122275	4318597
12680.8	0.120283	4319756
12690.3	0.118339	4320850
12700.9	0.116008	4321400
12710.4	0.113752	4321755
12720.9	0.111068	4322177
12730.4	0.108498	4323302
12741	0.105483	4323494
12750.4	0.102655	4324781
12760.7	0.0994405	4324980
12771	0.096069	4325400
12780.3	0.0928032	4325816
12790.6	0.0890975	4325835
12801	0.0849949	4326115
12810.4	0.0810326	4326552
12820.9	0.0764653	4327392
12830.4	0.0722698	4328380
12840.9	0.0675535	4329634
12850.4	0.0633069	4331240
12860.9	0.0585517	4332989
12870.4	0.0541893	4334696
12880.9	0.0493261	4337454
12890.2	0.0449176	4339576
12900.6	0.0399901	4342238
12910	0.035513	4345101
12920.6	0.0305251	4347409
12930.1	0.0260712	4349567
12940.6	0.0211714	4351247
12950.1	0.0168099	4352531
12960.7	0.0120205	4354831
12970.2	0.00776428	4356286
12980.7	0.00311295	4358256
12990.2	-0.00101487	4359245
13000.6	-0.00548816	4360556
13010.1	-0.00945376	4361271
13020.6	-0.013801	4362359
13030.1	-0.0176233	4363179
13040.6	-0.0217633	4364976
13050.1	-0.025394	4366680
13060.7	-0.0293189	4367581
13070.2	-0.032744	4368230
13080.6	-0.0363936	4368060
13090.1	-0.0395991	4367945
13100.7	-0.0430406	4367706
13110.2	-0.0460245	4367595
13120.7	-0.0491768	4367528
13130.2	-0.0518691	4367875
13140.8	-0.0547101	4368778
13150.2	-0.0571113	4369840
13160.6	-0.0596406	4371061
13170.1	-0.0618083	4371650
13180.6	-0.0640753	4373867
13190	-0.0659857	4375523
13200.6	-0.0679699	4377596
13210.1	-0.0696266	4379113
13220.6	-0.0713262	4381914
13230.1	-0.0727361	4384452
13240.5	-0.0740481	4386776
13250.9	-0.0753375	4389173
13260.3	-0.0765076	4390690
13270.8	-0.0776806	4391256
13280.3	-0.0785353	4392647
13290.8	-0.0793275	4394179
13300.3	-0.0799295	4395057
13310.8	-0.0805031	4397568
13320.2	-0.0809605	4400365
13330.7	-0.0814168	4401949
13340	-0.0818252	4403562
13350.5	-0.0823206	4405799
13360	-0.0823799	4407170
13370.6	-0.0820855	4408208
13380	-0.0819396	4408794
13390.6	-0.0817456	4410470
13400.2	-0.0815948	4410908
13410.8	-0.0813424	4411992
13420.2	-0.0810211	4413349
13430.7	-0.0805722	4413878
13440.1	-0.0800975	4414204
13450.6	-0.0794977	4414762
13461	-0.0788289	4415486
13470.3	-0.0781736	4415844
13480.6	-0.0773807	4415790
13490.9	-0.0765187	4416617
13500.2	-0.0756849	4417345
13510.5	-0.0746966	4417865
13520.9	-0.0736353	4418430
13530.4	-0.0726202	4419082
13540.7	-0.0714618	4418326
13550.1	-0.0703742	4418415
13560.5	-0.0691285	4417824
13571	-0.067845	4417235
13580.4	-0.0666648	4415903
13590.9	-0.0653342	4415982
13600.3	-0.0641274	4416369
13610.8	-0.0627826	4417579
13620.2	-0.06158	4418018
13630.5	-0.0602622	4418096
13640.9	-0.0589465	4419227
13650.3	-0.0577821	4420188
13660.7	-0.0565215	4421455
13670.1	-0.0554209	4422910
13680.4	-0.0542417	4424806
13690.9	-0.0530988	4425070
13700.3	-0.0521179	4425914
13710.6	-0.0510992	4425696
13720.9	-0.0501443	4425371
13730.2	-0.0493432	4425663
13740.5	-0.0485216	4425422
13750.8	-0.0477719	4424727
13760.3	-0.0471533	4424359
13770.8	-0.0465433	4424199
13780.3	-0.0460699	4424193
13790.6	-0.0456283	4425276
13801	-0.0452759	4426543
13810.3	-0.0450294	4427083
13820.7	-0.0448161	4427768
13830.1	-0.044704	4428301
13840.5	-0.0446854	4429776
13851	-0.0447755	4431044
13860.3	-0.0449373	4432533
13870.6	-0.0451928	4434080
13881	-0.0455219	4435977
13890.4	-0.0458749	4437949
13900.8	-0.0463251	4440325
13910.2	-0.0467788	4441794
13920.6	-0.0473324	4443515
13931	-0.0479308	4445621
13940.3	-0.0484989	4447795
13950.6	-0.0491577	4448544
13960.9	-0.0498393	4449767
13970.3	-0.0504696	4450541
13980.7	-0.0511746	4451893
13990.1	-0.0518012	4454002
14000.5	-0.0524877	4456043
14010.9	-0.0531571	4457312
14020.3	-0.0537402	4458351
14030.8	-0.0543614	4459303
14040.1	-0.0548794	4460444
14050.4	-0.0554078	4460370
14060.7	-0.0558797	4459617
14071	-0.0562882	4459449
14080.2	-0.0565973	4459577
14090.7	-0.0568745	4459246
14100.1	-0.0570583	4459339
14110.5	-0.057185	4458283
14120.8	-0.05723	4459033
14130.1	-0.0571992	4459986
14140.5	-0.057085	4461174
14150.8	-0.0568858	4461898
14160.1	-0.0566337	4462148
14170.6	-0.0562659	4464079
14180.1	-0.0558608	4465181
14190.4	-0.0553422	4466440
14200.7	-0.054748	4466534
14210	-0.0541468	4466558
14220.5	-0.0533867	4466060
14230	-0.0526259	4465732
14240.4	-0.0517363	4466203
14250.8	-0.0508155	4463767
14260.2	-0.0499703	4463468
14270.5	-0.0490109	4462822
14281	-0.0480222	4461783
14290.4	-0.0470951	4460392
14301	-0.0460365	4458217
14310.5	-0.0450608	4457952
14321	-0.0439579	4457916
14330.5	-0.042956	4457374
14340	-0.0419528	4456965
14350.4	-0.0408662	4457030
14360.7	-0.0397972	4456797
14370	-0.0388531	4456038
14380.3	-0.0378288	4455843
14390.7	-0.0368336	4454819
14401	-0.0358722	4453553
14410.5	-0.035027	4452181
14420.8	-0.0341361	4450386
14430.2	-0.0333682	4448026
14440.8	-0.0325474	4445515
14450.3	-0.0318495	4443538
14460.7	-0.0311277	4440800
14470.2	-0.0305139	4438243
14480.8	-0.0298797	4434732
14490.3	-0.0293518	4431595
14500.8	-0.0288128	4429384
14510.3	-0.0283699	4426890
14520.8	-0.0279241	4423965
14530.3	-0.0275626	4421138
14540.9	-0.0272044	4417471
14550.4	-0.0269198	4413944
14560.7	-0.0266484	4411728
14570	-0.0264386	4408148
14580.4	-0.0262406	4404685
14590.8	-0.0260766	4401186
14600.2	-0.0259567	4398498
14610.6	-0.0258539	4394928
14620	-0.0257871	4391581
14630.5	-0.025738	4387305
14640.9	-0.0257117	4384189
14650.3	-0.0257039	4381575
14660.7	-0.0257105	4379443
14670.2	-0.0257294	4376729
14680.7	-0.0257641	4374347
14690.2	-0.0258072	4371744
14700.7	-0.0258671	4367817
14710.1	-0.0259299	4364599
14720.7	-0.0260074	4358895
14730.2	-0.0260813	4354551
14740.7	-0.0261646	4349502
14750.1	-0.0262371	4344930
14760.6	-0.0263125	4339657
14771	-0.0263797	4334009
14780.4	-0.026431	4329232
14790.8	-0.0264761	4323421
14800.3	-0.0265042	4318017
14810.8	-0.0265196	4311254
14820.2	-0.0265178	4305995
14830.6	-0.0264971	4298904
14840.1	-0.0264599	4292855
14850.6	-0.0263958	4285392
14860	-0.0263162	4278329
14870.5	-0.0262008	4270930
14881	-0.026053	4264113
14890.5	-0.0258904	4258204
14901	-0.0256736	4251237
14910.4	-0.0254448	4245193
14920.9	-0.0251508	4237921
14930.4	-0.024846	4232991
14940.8	-0.0244658	4228621
14950.2	-0.0240823	4224413
14960.6	-0.0236059	4218266
14971	-0.0230735	4211977
14980.4	-0.022544	4206402
14990.8	-0.0218967	4200256
15000.2	-0.0212583	4194941
15010.6	-0.020483	4187720
15021	-0.0196398	4181659
15030.4	-0.0188141	4174869
15040.9	-0.0178179	4167527
15050.3	-0.0168481	4162044
15060.7	-0.0157053	4154747
15070	-0.0146044	4148978
15080.4	-0.013299	4142609
15091	-0.0118834	4136110
15100.3	-0.0105574	4130322
15110.6	-0.00900323	4123675
15120.9	-0.00736124	4117141
15130.1	-0.00581774	4111124
15140.3	-0.00402475	4104744
15150.4	-0.00215054	4097970
15160.6	-0.000192736	4092107
15170.8	0.00184663	4085193
15181	0.00396523	4078048
15190.1	0.0059376	4072242
15200.3	0.00819908	4065450
15210.5	0.0105304	4058667
15220.7	0.012922	4051617
15230.9	0.0153583	4044462
15240	0.017588	4037433
15250.2	0.0201088	4029717
15260.4	0.0226836	4022209
15270.5	0.0251837	4014613
15280.7	0.0276386	4006944
15290.9	0.030264	3999950
15300.1	0.0327866	3993472
15310.2	0.035769	3985586
15320.4	0.038561	3977882
15330.6	0.0411566	3970980
15340.8	0.0436288	3962959
15351	0.046	3955513
15360.1	0.0480253	3949199
15370.3	0.0501267	3941520
15380.5	0.052071	3934413
15390.7	0.0538788	3926761
15400.9	0.0555714	3919844
15410.2	0.0569954	3913834
15420.5	0.0584611	3906702
15430.9	0.0597779	3899254
15440.3	0.0608151	3893184
15450.9	0.0617696	3886447
15460.3	0.062449	3879214
15470.8	0.0630495	3871561
15480.3	0.0634361	3865024
15490.8	0.0638482	3858561
15500.3	0.0637907	3852127
15510.7	0.0636302	3844552
15520	0.0633512	3837958
15530.3	0.0628854	3832153
15540.5	0.0622939	3825431
15550.6	0.0615713	3818737
15560.8	0.0607145	3811564
15571	0.059725	3805017
15580.1	0.0587242	3798786
15590.3	0.0574942	3791787
15600.5	0.0561439	3784310
15610.7	0.0546775	3777582
15620.9	0.0531014	3770277
15630	0.0515965	3763444
15640.2	0.0498386	3756319
15650.4	0.0480015	3749212
15660.6	0.0460963	3743255
15670.7	0.0441327	3736720
15680.9	0.0421198	3730053
15690.1	0.0402729	3724364
15700.3	0.0381897	3718255
15710.4	0.036083	3712397
15720.6	0.0339626	3706387
15730.8	0.0318388	3701351
15741	0.0297218	3694549
15750.1	0.0278309	3688292
15760.3	0.0257551	3681813
15770.6	0.0236851	3674947
15780.1	0.0218217	3668658
15790.7	0.0198044	3660633
15800.2	0.0180434	3654562
15810.7	0.0161549	3647020
15820.2	0.0145227	3640505
15830.8	0.0127903	3633457
15840.2	0.01132	3627213
15850.5	0.00979352	3620849
15860.9	0.00834907	3613249
15870.4	0.00711466	3607007
15880.9	0.00583264	3600017
15890.3	0.0047671	3593702
15900.7	0.00367414	3586439
15910.1	0.00276294	3579343
15920.4	0.00182713	3571216
15930.9	0.000958787	3562972
15940.3	0.000243026	3555293
15950.7	-0.000487025	3547480
15960.1	-0.00108801	3540285
15970.5	-0.00169615	3532495
15980.9	-0.00224125	3525245
15990.4	-0.0026933	3517658
16000.9	-0.00314426	3509684
16010.4	-0.00350678	3503224
16020.9	-0.00386392	3496195
16030.4	-0.00414819	3489871
16040.8	-0.00442583	3483745
16050.2	-0.00464746	3478022
16060.6	-0.00486831	3471320
16070.1	-0.00504835	3464687
16080.7	-0.00523121	3456901
16090.2	-0.00538488	3449986
16100.7	-0.00554866	3442584
16110.2	-0.00569412	3435441
16120.8	-0.00585833	3427873
16130.3	-0.00601222	3420246
16140.8	-0.00619291	3412930
16150	-0.00636582	3405845
16160.3	-0.00657554	3398096
16170.9	-0.00681236	3390553
16180.4	-0.00704853	3384840
16190.9	-0.00733791	3377985
16200.2	-0.00762113	3372602
16210.5	-0.0079675	3366159
16220.8	-0.00835032	3359673
16230.1	-0.0087279	3354136
16240.4	-0.00918594	3347717
16250.7	-0.00968591	3340706
16260	-0.0101727	3333885
16270.3	-0.0107553	3327090
16280.6	-0.0113821	3319264
16290	-0.0119923	3312459
16300.6	-0.0127205	3304616
16310	-0.0134096	3298025
16320.6	-0.0142209	3290194
16330	-0.0149855	3283777
16340.4	-0.0158627	3276508
16350.8	-0.0167768	3270612
16360.2	-0.0176325	3264122
16370.8	-0.0186232	3257843
16380.3	-0.0195432	3251828
16390.8	-0.0205931	3244713
16400.3	-0.0215606	3238544
16410.8	-0.0226588	3232191
16420.3	-0.0236671	3225537
16430.9	-0.0248071	3217985
16440.4	-0.0258492	3211936
16450.9	-0.0270234	3204916
16460.4	-0.0280916	3198066
16470.9	-0.0292877	3190498
16480.4	-0.0303795	3183302
16490.9	-0.0316072	3175913
16500.4	-0.0327223	3169391
16511	-0.0339724	3162584
16520.5	-0.035107	3155775
16531	-0.0363697	3149325
16540.3	-0.0375012	3143204
16550.6	-0.0387683	3136418
16561	-0.0400457	3129985
16570.3	-0.0412049	3124343
16580.7	-0.0425091	3118715
16590.1	-0.0437095	3113248
16600.6	-0.0450483	3108174
16610	-0.0462658	3103330
16620.5	-0.0476266	3097757
16630.9	-0.0489984	3091760
16640.3	-0.0502472	3086300
16650.8	-0.0516487	3080221
16660.2	-0.0529272	3074064
16670.7	-0.0543698	3068507
16680.2	-0.0556848	3063797
16690.7	-0.0571547	3059519
16700.1	-0.0584931	3054433
16710.7	-0.0599997	3049076
16720.1	-0.0613657	3044660
16730.6	-0.0628946	3038818
16740	-0.0642724	3033177
16750.5	-0.0658106	3027417
16760.9	-0.0673608	3021315
16770.3	-0.0687726	3015527
16780.8	-0.0703651	3009202
16790.3	-0.0718122	3003865
16800.9	-0.0734379	2998669
16810.4	-0.074915	2993092
16820.9	-0.0765715	2986996
16830.3	-0.0780594	2981224
16840.8	-0.0797298	2974687
16850.3	-0.0812546	2969534
16860.8	-0.0829559	2963305
16870.3	-0.0844904	2956378
16880.9	-0.0861981	2949994
16890.3	-0.0877339	2943829
16900.9	-0.0894343	2937141
16910.2	-0.0909245	2930681
16920.5	-0.09256	2923343
16930.9	-0.0941842	2916257
16940.4	-0.0956422	2909297
16950.9	-0.097231	2902799
16960.4	-0.0985698	2896634
16970.9	-0.100359	2888930
16980.3	-0.101924	2882223
16990.9	-0.103375	2874965
17000.3	-0.104492	2868967
17010.8	-0.105625	2861792
17020.3	-0.106582	2855616
17030.9	-0.107566	2848929
17040.3	-0.10836	2842789
17050.9	-0.109133	2836631
17060.3	-0.109734	2831283
17070.6	-0.110304	2824624
17080.9	-0.110778	2818899
17090.3	-0.11111	2812933
17100.9	-0.111348	2807440
17110.4	-0.111422	2801375
17120.9	-0.111334	2795470
17130.4	-0.111097	2790754
17141	-0.110661	2784547
17150.5	-0.110117	2778924
17161	-0.109349	2773113
17170.5	-0.108515	2767987
17180	-0.107548	2763133
17190.6	-0.106318	2756478
17200.1	-0.105072	2750948
17210.6	-0.103533	2744340
17220.1	-0.102012	2738561
17230.7	-0.100168	2732410
17240.1	-0.0983837	2727347
17250.5	-0.0962689	2722426
17260.9	-0.0939988	2717081
17270.3	-0.0918206	2712447
17280.8	-0.0892214	2706803
17290.3	-0.0867524	2702528
17300.9	-0.0838698	2697285
17310.4	-0.0811542	2692980
17320.9	-0.0780065	2687552
17330.4	-0.0750615	2682985
17341	-0.0716724	2677931
17350.5	-0.0685221	2672937
17361	-0.0649236	2666919
17370.5	-0.061604	2661711
17381.1	-0.0578045	2655394
17390.6	-0.0543097	2650112
17400	-0.0507483	2645044
17410.6	-0.0466949	2639282
17420.1	-0.0429606	2634772
17430.6	-0.0387475	2629490
17440.1	-0.0349398	2624788
17450.7	-0.0307376	2619689
17460.2	-0.027012	2615364
17470.7	-0.0229678	2610357
17480.2	-0.0194191	2606386
17490.8	-0.0155565	2601297
17500.3	-0.0121489	2596443
17510.8	-0.00845499	2591642
17520.3	-0.00522989	2587364
17530.8	-0.00179356	2583273
17540.3	0.00120623	2579205
17550.9	0.00440878	2574452
17560.4	0.00717262	2569961
17570.9	0.0101108	2565240
17580.4	0.0126344	2560787
17591	0.0153031	2555505
17600.5	0.0175826	2550729
17611	0.019979	2545681
17620.5	0.0220131	2541910
17631.1	0.0241374	2537766
17640.6	0.0259278	2533943
17650	0.0276042	2530096
17660.6	0.029335	2525703
17670.1	0.0307763	2521666
17680.6	0.0322515	2517002
17690.1	0.0334689	2513364
17700.7	0.0347033	2509279
17710.2	0.0357093	2506393
17720.5	0.0367002	2501793
17730.8	0.0375868	2497366
17740.1	0.0382994	2493388
17750.6	0.0391445	2488774
17760.1	0.0396718	2484758
17770.6	0.0401443	2480225
17780.1	0.0405227	2475499
17790.7	0.0408929	2470422
17800.2	0.0411756	2465807
17810.7	0.0414287	2461112
17820.2	0.0415994	2455700
17830.8	0.0417267	2450223
17840.3	0.0417896	2445944
17850.8	0.0418061	2441439
17860.3	0.0417729	2437133
17870.9	0.041686	2432778
17880.3	0.0415746	2428295
17890.7	0.0414315	2423966
17900.1	0.0412954	2419733
17910.5	0.0411382	2414480
17921	0.0409953	2409540
17930.4	0.0409042	2404833
17940.9	0.040778	2399400
17950.4	0.0406497	2394756
17960.9	0.0402543	2389862
17970.3	0.0401616	2386616
17980.8	0.0400658	2382011
17990.2	0.0398637	2377341
18000.7	0.0397418	2372034
18010.1	0.0396771	2368265
18020.7	0.0396358	2363879
18030.2	0.0396189	2360366
18040.7	0.039618	2355831
18050.2	0.0396302	2352543
18060.7	0.0396554	2349261
18070.1	0.0396866	2345922
18080.7	0.0397292	2341860
18090.1	0.0397725	2338907
18100.6	0.0398236	2335131
18111	0.0398764	2331475
18120.3	0.0399234	2328341
18130.6	0.0399741	2324890
18140.9	0.040022	2321914
18150.2	0.0400611	2318208
18160.7	0.0400902	2315243
18170.1	0.0400777	2312218
18180.6	0.0400358	2308167
18190	0.039994	2304568
18200.6	0.0399524	2300118
18210.1	0.0399152	2297295
18220.5	0.0398625	2294263
18231	0.0397833	2289752
18240.5	0.0396786	2286666
18251	0.0395263	2282794
18260.5	0.0394214	2279952
18270	0.0392716	2276990
18280.6	0.0389788	2273509
18290.1	0.0385949	2270792
18300.6	0.0380608	2267530
18310.1	0.0377257	2263916
18320.7	0.0376733	2260623
18330.1	0.0371985	2257334
18340.7	0.0364361	2253818
18350.1	0.0356554	2250780
18360.4	0.0347383	2246894
18370.7	0.0337689	2243353
18381	0.0327421	2239519
18390.3	0.03176	2236191
18400.7	0.0305852	2232729
18410.2	0.0294485	2229466
18420.8	0.0281074	2225697
18430.2	0.0268378	2222495
18440.7	0.0253633	2218194
18450.2	0.0239647	2214753
18460.7	0.0223592	2210460
18470.2	0.0208649	2207112
18480.7	0.0191495	2202972
18490.2	0.0175623	2200107
18500.6	0.0157667	2196064
18510.1	0.0141062	2192535
18520.6	0.0122528	2188951
18530	0.010546	2185212
18540.6	0.00867172	2180546
18550.1	0.00707368	2176605
18560.6	0.00509985	2172221
18570.1	0.0031775	2168652
18580.7	0.000947225	2164860
18590.2	-0.00119291	2161824
18600.7	-0.00336972	2158321
18610.2	-0.00518377	2155092
18620.8	-0.00711513	2151475
18630.3	-0.00882983	2148193
18640.8	-0.0107367	2144542
18650.3	-0.0123932	2141360
18660.9	-0.0141509	2138181
18670.4	-0.0156637	2135345
18680.9	-0.0172745	2131742
18690.4	-0.0186658	2127714
18701	-0.0201514	2124303
18710.5	-0.0214392	2120987
18721	-0.0228208	2117521
18730.5	-0.0240237	2114132
18740	-0.02519	2111462
18750.6	-0.0264435	2107864
18760.1	-0.0275338	2104973
18770.6	-0.0287038	2101925
18780.1	-0.0297209	2099078
18790.7	-0.0308131	2096186
18800.2	-0.0317646	2093352
18810.7	-0.032791	2090834
18820.2	-0.0336912	2088394
18830.8	-0.034671	2085839
18840.3	-0.0355391	2083984
18850.8	-0.0364916	2081860
18860.3	-0.0373409	2079837
18870.9	-0.0382891	2077443
18880.3	-0.0391655	2075288
18890.9	-0.0402084	2072850
18900.4	-0.0413164	2070331
18910.9	-0.0426856	2068127
18920.4	-0.0439019	2065469
18931	-0.0451744	2062839
18940.5	-0.0462871	2060833
18951	-0.0475507	2058164
18960.5	-0.0487732	2055885
18970	-0.0499931	2053946
18980.6	-0.051515	2050959
18990.1	-0.0530235	2049153
19000.6	-0.054956	2047296
19010.1	-0.0570746	2045324
19020.7	-0.0607182	2042946
19030.2	-0.0631593	2040957
19040.7	-0.0648763	2038953
19050.2	-0.0662262	2037003
19060.8	-0.0676932	2034775
19070.3	-0.068998	2032849
19080.8	-0.0704112	2030422
19090.3	-0.0716546	2028539
19100.9	-0.0730134	2026166
19110.4	-0.0741826	2023556
19120.9	-0.0753793	2021249
19130.4	-0.0763358	2018814
19141	-0.0772437	2016089
19150.5	-0.077917	2014096
19161	-0.078509	2011146
19170.5	-0.0789008	2008573
19180	-0.0791499	2006280
19190.6	-0.0792416	2003548
19200.1	-0.0791313	2000963
19210.6	-0.0788035	1997887
19220.1	-0.0783668	1995300
19230.7	-0.0777106	1992415
19240.2	-0.0769159	1990129
19250.7	-0.0758354	1987259
19260.2	-0.0747002	1984648
19270.8	-0.073256	1981679
19280.3	-0.0721941	1978935
19290.8	-0.0704623	1975899
19300.3	-0.0686292	1973379
19310.9	-0.0665792	1970390
19320.4	-0.0646161	1967278
19330.9	-0.0622453	1964154
19340.4	-0.0599499	1961394
19351	-0.0572501	1958459
19360.5	-0.0547249	1955684
19371	-0.0518282	1952564
19380.5	-0.0491341	1949843
19391.1	-0.0460365	1946677
19400.6	-0.0431537	1944051
19410	-0.0401839	1941274
19420.6	-0.0367897	1938097
19430.1	-0.0336579	1935952
19440.6	-0.0301032	1932746
19450.1	-0.0268469	1930585
19460.7	-0.0231787	1928348
19470.2	-0.0198451	1926380
19480.7	-0.0161209	1923740
19490.2	-0.0127643	1921875
19500.8	-0.00904345	1919277
19510.3	-0.00571322	1916792
19520.8	-0.0020441	1914336
19530.3	0.00122224	1912198
19540.9	0.00480417	1909719
19550.4	0.00798051	1907892
19560.9	0.0114358	1905216
19570.3	0.0144777	1903016
19580.7	0.0177983	1900148
19590.1	0.0207335	1897325
19600.7	0.0239559	1893909
19610.2	0.0267876	1891233
19620.7	0.029835	1888350
19630.1	0.0325026	1886859
19640.6	0.0353842	1884709
19651	0.0381814	1882306
19660.5	0.0406328	1879697
19670.9	0.0432823	1877148
19680.3	0.0456038	1874859
19690.8	0.0481302	1872791
19700.3	0.0503389	1869886
19710.9	0.0527104	1867334
19720.4	0.0547695	1865221
19730.9	0.056975	1862398
19740.4	0.0588804	1860247
19750.8	0.0609158	1857696
19760.3	0.0626835	1855578
19770.7	0.0645776	1853246
19780.2	0.0662226	1850640
19790.7	0.067986	1847840
19800.2	0.0695073	1845206
19810.8	0.071121	1842399
19820.3	0.0725031	1840028
19830.8	0.0739601	1837855
19840.3	0.0751976	1835709
19850.9	0.0764802	1833562
19860.4	0.0775545	1831237
19870.9	0.0786355	1828491
19880.4	0.0795464	1826231
19891	0.0803272	1824143
19900.4	0.0804628	1822127
19911	0.0807401	1820289
19920.5	0.0810634	1818434
19931	0.0814614	1816811
19940.5	0.081754	1814406
19951	0.0823145	1812074
19960.5	0.0822649	1809435
19970	0.0821359	1806652
19980.6	0.0820685	1804500
19990.1	0.0818271	1801916
