0	0	33554432
10.0538	0	33554432
20.1077	0	33554432
30.1615	0	33554432
40.2154	0	33554432
50.2692	0	33554432
60.323	0	33554432
70.3769	0	33554432
80.4307	0	33554432
90.4846	0	33554432
100.538	0	33554432
110.592	0	33554432
120.646	0	33554432
130.7	0	33554432
140.754	0	33554432
150.808	0	33554432
160.861	0	33554432
170.001	0	33554432
180.055	0	33554432
190.109	0	33554432
200.163	0	33554432
210.217	0	33554432
220.27	0	33554432
230.324	0	33554432
240.378	0	33554432
250.432	0	33554432
260.486	0	33554432
270.54	0	33554432
280.594	0	33554432
290.647	0	33554432
300.701	0	33554432
310.755	0	33554432
320.809	0	33554432
330.863	0	33554432
340.003	0	33554432
350.056	0	33554432
360.11	0	33554432
370.164	0	33554432
380.218	0	33554432
390.272	0	33554432
400.326	0	33554432
410.379	0	33554432
420.433	0	33554432
430.487	0	33554432
440.541	0	33554432
450.595	0	33554432
460.649	0	33554432
470.702	0	33554432
480.756	0	33554432
490.81	0	33554432
500.864	0	33554432
510.004	0	33554432
520.058	0	33554432
530.112	0	33554432
540.165	0	33554432
550.219	0	33554432
560.273	0	33554432
570.327	0	33554432
580.381	0	33554432
590.435	0	33554432
600.488	0	33554432
610.542	0	33554432
620.596	0	33554432
630.65	0	33554432
640.704	0	33554432
650.758	0	33554432
660.811	0	33554432
670.865	0	33554432
680.005	0	33554432
690.059	0	33554432
700.113	0	33554432
710.167	0	33554432
720.221	0	33554432
730.274	0	33554432
740.328	0	33554432
750.382	0	33554432
760.436	0	33554432
770.49	0	33554432
780.544	0	33554432
790.597	0	33554432
800.651	0	33554432
810.705	0	33554432
820.759	0	33554432
830.813	0	33554432
840.867	0	33554432
850.006	0	33554432
860.06	0	33554432
870.114	0	33554432
880.168	0	33554432
890.222	0	33554432
900.276	0	33554432
910.329	0	33554432
920.383	0	33554432
930.437	0	33554432
940.491	0	33554432
950.545	0	33554432
960.599	0	33554432
970.653	0	33554432
980.706	0	33554432
990.76	0	33554432
1000.81	0	33554432
1010.87	0	33554432
1020.01	0	33554432
1030.06	0	33554432
1040.12	0	33554432
1050.17	0	33554432
1060.22	0	33554432
1070.28	0	33554432
1080.33	0	33554432
1090.38	0	33554432
1100.44	0	33554432
1110.49	0	33554432
1120.55	0	33554432
1130.6	0	33554432
1140.65	0	33554432
1150.71	0	33554432
1160.76	0	33554432
1170.82	0	33554432
1180.87	0	33554432
1190.01	0	33554432
1200.06	0	33554432
1210.12	-9.09495e-13	33554432
1220.17	0	33554432
1230.22	0	33554432
1240.28	0	33554432
1250.33	0	33554432
1260.39	0	33554432
1270.44	0	33554432
1280.49	0	33554432
1290.55	0	33554432
1300.6	0	33554432
1310.66	0	33554432
1320.71	0	33554432
1330.76	0	33554432
1340.82	0	33554432
1350.87	0	33554432
1360.01	0	33554432
1370.06	0	33554432
1380.12	0	33554432
1390.17	0	33554432
1400.23	0	33554432
1410.28	0	33554432
1420.33	0	33554432
1430.39	0	33554432
1440.44	0	33554432
1450.49	0	33554432
1460.55	0	33554432
1470.6	0	33554432
1480.66	0	33554432
1490.71	0	33554432
1500.76	0	33554432
1510.82	0	33554432
1520.87	0	33554432
1530.01	0	33554432
1540.07	0	33554432
1550.12	0	33554432
1560.17	0	33554432
1570.23	0	33554432
1580.28	0	33554432
1590.33	0	33554432
1600.39	0	33554432
1610.44	0	33554432
1620.5	0	33554432
1630.55	0	33554432
1640.6	0	33554432
1650.66	0	33554432
1660.71	0	33554432
1670.77	0	33554432
1680.82	0	33554432
1690.87	0	33554432
1700.01	0	33554432
1710.07	0	33554432
1720.12	0	33554432
1730.17	0	33554432
1740.23	0	33554432
1750.28	0	33554432
1760.34	0	33554432
1770.39	0	33554432
1780.44	0	33554432
1790.5	0	33554432
1800.55	0	33554432
1810.61	0	33554432
1820.66	0	33554432
1830.71	0	33554432
1840.77	0	33554432
1850.82	0	33554432
1860.87	0	33554432
1870.01	0	33554432
1880.07	0	33554432
1890.12	0	33554432
1900.18	0	33554432
1910.23	0	33554432
1920.28	0	33554432
1930.34	0	33554432
1940.39	0	33554432
1950.44	0	33554432
1960.5	0	33554432
1970.55	0	33554432
1980.61	0	33554432
1990.66	0	33554432
2000.71	0	33554432
2010.77	0	33554432
2020.82	0	33554432
2030.88	0	33554432
2040.02	0	33554432
2050.07	0	33554432
2060.12	0	33554432
2070.18	0	33554432
2080.23	0	33554432
2090.28	0	33554432
2100.34	0	33554432
2110.39	0	33554432
2120.45	0	33554432
2130.5	0	33554432
2140.55	0	33554432
2150.61	0	33554432
2160.66	0	33554432
2170.72	0	33554432
2180.77	0	33554432
2190.82	0	33554432
2200.88	0	33554432
2210.02	0	33554432
2220.07	0	33554432
2230.12	0	33554432
2240.18	0	33554432
2250.23	0	33554432
2260.29	0	33554432
2270.34	-2.72848e-12	33554432
2280.39	-8.18545e-12	33554432
2290.45	-1.54614e-11	33554432
2300.5	-2.27374e-11	33554432
2310.56	-3.63798e-11	33554432
2320.61	-5.54792e-11	33554432
2330.66	-8.54925e-11	33554432
2340.72	-1.32786e-10	33554432
2350.77	-2.05546e-10	33554432
2360.82	-3.12866e-10	33554432
2370.88	-4.74756e-10	33554432
2380.02	-6.88487e-10	33554432
2390.07	-1.02318e-09	33554432
2400.13	-1.49794e-09	33554432
2410.18	-2.16096e-09	33554432
2420.23	-3.08046e-09	33554432
2430.29	-4.33192e-09	33554432
2440.34	-6.01449e-09	33554432
2450.39	-8.24912e-09	33554432
2460.45	-1.11741e-08	33554432
2470.5	-1.49548e-08	33554432
2480.56	-1.97824e-08	33554432
2490.61	-2.58724e-08	33554432
2500.66	-3.34685e-08	33554432
2510.72	-4.28427e-08	33554432
2520.77	-5.43141e-08	33554432
2530.83	-6.8293e-08	33554432
2540.88	-8.53852e-08	33554432
2550.02	-1.045e-07	33554432
2560.07	-1.31322e-07	33554432
2570.13	-1.68178e-07	33554432
2580.18	-2.23429e-07	33554432
2590.23	-3.14051e-07	33554432
2600.29	-4.73446e-07	33554432
2610.34	-7.64937e-07	33554432
2620.4	-1.30406e-06	33554432
2630.45	-2.29355e-06	33554432
2640.5	-4.07565e-06	33554432
2650.56	-7.20633e-06	33554432
2660.61	-1.25552e-05	33554432
2670.67	-2.14325e-05	33554432
2680.72	-3.57406e-05	33554432
2690.77	-5.81431e-05	33554432
2700.83	-9.22356e-05	33554432
2710.88	-0.0001427	33554432
2720.02	-0.000207706	33554432
2730.07	-0.000306786	33554432
2740.13	-0.000442701	33554432
2750.18	-0.000624613	33554432
2760.24	-0.000862338	33554432
2770.29	-0.00116586	33554432
2780.34	-0.00154473	33554432
2790.4	-0.00200728	33554432
2800.45	-0.00255993	33554432
2810.5	-0.00320642	33554432
2820.56	-0.00394723	33554432
2830.61	-0.00477921	33554432
2840.67	-0.00569557	33554432
2850.72	-0.00668616	33554432
2860.77	-0.0077382	33554432
2870.83	-0.00883728	33554432
2880.88	-0.00996853	33554432
2890.02	-0.011013	33554432
2900.07	-0.0121683	33554432
2910.13	-0.013321	33554432
2920.18	-0.0144649	33554432
2930.24	-0.0155967	33554432
2940.29	-0.0167163	33554432
2950.34	-0.0178253	33554432
2960.4	-0.0189266	33554432
2970.45	-0.0200229	33554432
2980.51	-0.0211158	33554432
2990.56	-0.0222054	33554432
3000.61	-0.0232897	33554432
3010.67	-0.0243649	33554432
3020.72	-0.025426	33554432
3030.77	-0.0264669	33554432
3040.83	-0.0274818	33554432
3050.88	-0.0284654	33554432
3060.02	-0.0293287	33554432
3070.07	-0.0302419	33554432
3080.13	-0.0311152	33554432
3090.18	-0.0319479	33554432
3100.24	-0.0327398	33554432
3110.29	-0.0334911	33554432
3120.34	-0.0342014	33554432
3130.4	-0.0348699	33554432
3140.45	-0.0354946	33554432
3150.5	-0.0360728	33554432
3160.56	-0.0366003	33554432
3170.61	-0.0370719	33554432
3180.66	-0.0374811	33554432
3190.72	-0.0378201	33554432
3200.77	-0.0380792	33554432
3210.83	-0.0382459	33554432
3220.88	-0.0383044	33554432
3230.02	-0.038246	33554432
3240.07	-0.0380333	33554432
3250.13	-0.0376292	33554432
3260.18	-0.0369851	33554432
3270.23	-0.0360376	33554432
3280.29	-0.0347066	33554432
3290.34	-0.0328928	33554432
3300.39	-0.0304775	33554432
3310.45	-0.0273234	33554432
3320.5	-0.0232772	33554432
3330.55	-0.0181744	33554432
3340.61	-0.0118468	33554432
3350.66	-0.00413059	33554432
3360.72	0.00512307	33554432
3370.77	0.016038	33554432
3380.82	0.0287028	33554432
3390.88	0.0431625	33554432
3400.02	0.0578621	33554432
3410.07	0.0756903	33554432
3420.12	0.0951519	33554432
3430.18	0.116091	33554432
3440.23	0.138308	33554432
3450.28	0.16157	33554432
3460.34	0.185618	33554432
3470.39	0.210183	33554432
3480.44	0.234999	33554432
3490.5	0.259811	33554432
3500.55	0.284385	33554432
3510.6	0.308525	33554432
3520.66	0.332069	33554432
3530.71	0.354901	33554432
3540.76	0.376949	33554432
3550.82	0.398182	33554432
3560.87	0.41861	33554432
3570.01	0.436516	33554432
3580.06	0.455536	33554432
3590.12	0.47392	33554432
3600.17	0.491743	33554432
3610.22	0.509074	33554432
3620.28	0.52596	33554432
3630.33	0.542427	33554432
3640.38	0.55847	33554432
3650.44	0.574055	33554432
3660.49	0.589117	33554432
3670.54	0.603564	33554432
3680.6	0.617288	33554432
3690.65	0.630161	33554432
3700.7	0.64205	33554432
3710.76	0.652819	33554432
3720.81	0.662332	33554432
3730.86	0.670459	33554432
3740	0.67654	33554432
3750.05	0.681684	33554432
3760.11	0.685102	33554432
3770.16	0.686695	33554432
3780.21	0.68637	33554432
3790.27	0.684044	33554432
3800.32	0.679645	33554432
3810.37	0.673114	33554432
3820.43	0.664407	33554432
3830.48	0.6535	33554432
3840.53	0.640391	33554432
3850.59	0.625101	33554432
3860.64	0.607681	33554432
3870.69	0.588208	33554432
3880.75	0.56679	33554432
3890.8	0.543562	33554432
3900.85	0.518687	33554432
3910.91	0.49235	33554432
3920.05	0.46731	33554432
3930.1	0.438762	33554432
3940.15	0.40938	33554432
3950.21	0.379396	33554432
3960.26	0.349034	33554432
3970.31	0.318514	33554432
3980.37	0.288036	33554432
3990.42	0.257783	33554432
4000.47	0.227909	33554432
4010.53	0.198542	33554432
4020.58	0.169778	33554432
4030.63	0.14168	33554432
4040.69	0.114284	33554432
4050.74	0.0875926	33554432
4060.79	0.0615889	33554432
4070.85	0.0362358	33554432
4080.9	0.0114841	33554432
4090.04	-0.0105419	33554432
4100.09	-0.0342986	33554432
4110.15	-0.0576099	33554432
4120.2	-0.0805171	33554432
4130.25	-0.10305	33554432
4140.31	-0.125226	33554432
4150.36	-0.147047	33554432
4160.41	-0.168505	33554432
4170.47	-0.189581	33554432
4180.52	-0.210246	33554432
4190.58	-0.230467	33554432
4200.63	-0.250206	33554432
4210.68	-0.26942	33554432
4220.74	-0.288063	33554432
4230.79	-0.306088	33554432
4240.84	-0.323442	33554432
4250.9	-0.340067	33554432
4260.04	-0.354492	33554432
4270.09	-0.369535	33554432
4280.15	-0.383632	33554432
4290.2	-0.39669	33554432
4300.25	-0.408605	33554432
4310.31	-0.419263	33554432
4320.36	-0.428545	33554432
4330.41	-0.43633	33554432
4340.47	-0.442499	33554432
