time,surface_elevation,reference_data,number_of_local_cells,number_of_global_cells
0,0,0,9573,57504
10.3518,0,0,9748,58656
20.6916,0,0,11565,69416
31.022,0,0,13087,78472
41.3282,0,0,13217,79340
51.5753,0,0,13214,79202
61.8037,0,0,13279,79672
71.9737,0,0,13416,80608
80.0645,0,0,13609,81720
90.1581,0,0,13882,83324
100.21,0,0,14126,84766
110.201,0,0,14353,86008
120.183,0,0,14517,87000
130.149,0,0,14638,87704
140.059,0,0,14740,88502
151.95,0,0,14968,89802
161.829,0,0,15150,90904
171.662,0,0,15317,91850
181.496,0,0,15473,92908
191.358,0,0,15632,93796
201.142,9.09495e-13,0,15801,94840
210.927,5.45697e-12,0,15962,95790
220.755,1.36424e-11,0,16115,96496
230.974,3.09228e-11,0,16193,97252
241.051,6.73026e-11,0,16370,98050
251.413,1.32786e-10,0,16473,98978
261.83,2.49202e-10,0,16647,99876
270.144,3.9563e-10,0,16778,100826
280.536,6.75755e-10,0,16990,101878
290.893,1.09958e-09,0,17186,102954
301.175,1.72167e-09,0,17305,103812
311.457,2.61753e-09,0,17479,104852
321.739,3.88536e-09,0,17666,105990
332.02,5.66251e-09,0,17888,107292
340.246,7.57609e-09,0,18068,108484
350.527,1.06875e-08,0,18226,109400
360.809,1.45546e-08,0,18424,110578
371.088,1.91667e-08,0,18639,111890
381.366,2.45182e-08,0,18814,113036
391.645,3.06445e-08,0,19025,114246
401.923,3.76722e-08,0,19245,115472
410.145,4.40923e-08,0,19423,116528
420.424,5.33819e-08,0,19627,117776
430.702,6.44704e-08,0,19822,118910
440.98,7.78991e-08,0,19988,119944
451.258,9.43646e-08,0,20194,121142
461.536,1.14749e-07,0,20386,122334
471.796,1.40111e-07,0,20570,123438
482.035,1.71787e-07,0,20767,124578
490.216,2.02764e-07,0,20972,125830
500.421,2.50018e-07,0,21159,126922
510.534,3.08172e-07,0,21327,127966
520.648,3.79679e-07,0,21556,129362
530.717,4.66329e-07,0,21763,130684
540.709,5.69861e-07,0,22006,132008
550.7,6.9341e-07,0,22177,133040
560.691,8.39873e-07,0,22341,134040
570.601,1.01116e-06,0,22590,135492
580.511,1.21236e-06,0,22743,136422
590.421,1.4483e-06,0,22957,137710
600.27,2.00831e-06,0,23213,139320
610.103,2.55483e-06,0,23450,140688
621.903,3.125e-06,0,23715,142296
631.697,3.56168e-06,0,23913,143488
641.481,3.99492e-06,0,24101,144560
651.266,4.4587e-06,0,24277,145674
661.022,4.90827e-06,0,24467,146810
670.759,5.32643e-06,0,24652,147896
680.496,5.73858e-06,0,24912,149460
690.217,6.16977e-06,0,25075,150446
701.871,6.74981e-06,0,25296,151776
711.582,7.31738e-06,0,25568,153386
721.276,7.98939e-06,0,25776,154670
730.937,8.79013e-06,0,26006,156046
740.584,9.74522e-06,0,26200,157172
750.227,1.08701e-05,0,26410,158478
761.785,1.24263e-05,0,26669,160022
771.383,1.38768e-05,0,26866,161202
780.982,1.54735e-05,0,27129,162762
790.573,1.72409e-05,0,27355,164148
800.128,1.92062e-05,0,27543,165250
811.595,2.18778e-05,0,27813,166884
821.149,2.44023e-05,0,28085,168476
830.7,2.72371e-05,0,28260,169546
840.252,3.04278e-05,0,28462,170790
851.712,3.46892e-05,0,28869,173210
861.262,3.82772e-05,0,29041,174254
870.812,4.20933e-05,0,29207,175228
880.361,4.63321e-05,0,29431,176596
891.821,5.21692e-05,0,29742,178446
901.371,5.77717e-05,0,29935,179592
910.92,6.42094e-05,0,30162,180982
920.47,7.20847e-05,0,30470,182794
930.02,8.19698e-05,0,30822,184940
941.479,9.68997e-05,0,31052,186326
951.029,0.000112079,0,31321,187898
960.579,0.000129863,0,31571,189458
970.128,0.000150341,0,31877,191216
981.599,0.000178569,0,32039,192234
991.164,0.000201239,0,32274,193636
1000.73,0.000209871,0,32555,195278
1010.31,0.000220417,0,32829,196922
1021.79,0.0002368,0,33031,198160
1031.36,0.000254247,0,33178,199024
1040.93,0.000275294,0,33399,200352
1050.5,0.000297336,0,33725,202350
1060.05,0.000320722,0,33932,203554
1071.53,0.000352438,0,34159,204908
1081.1,0.000383037,0,34438,206664
1090.67,0.000417741,0,34802,208786
1100.24,0.000457155,0,35004,210032
1111.72,0.000511588,0,35230,211330
1121.3,0.000562649,0,35483,212848
1130.87,0.000616804,0,35791,214760
1140.42,0.000677462,0,36059,216362
1151.9,0.000763266,0,36311,217822
1161.51,0.000835231,0,36499,218994
1171.21,0.000885984,0,36841,221054
1180.88,0.000981331,0,37145,222828
1190.53,0.00111264,0,37324,223962
1200.17,0.00127479,0,37617,225684
1211.74,0.00164722,0,37909,227446
1221.37,0.00215056,0,38196,229190
1231,0.0028526,0,38453,230694
1240.63,0.00356193,0,38659,231970
1250.22,0.00428094,0,38865,233220
1261.69,0.00486056,0,39162,234928
1271.24,0.00508545,0,39559,237340
1280.8,0.00565599,0,39798,238810
1290.35,0.00652132,0,40102,240626
1301.81,0.00784148,0,40325,241920
1311.36,0.00912932,0,40564,243344
1320.91,0.0104776,0,40848,245082
1330.46,0.0115925,0,41157,246978
1340.01,0.0137153,0,41409,248448
1351.47,0.0167563,0,41660,249922
1361.02,0.0189901,0,41917,251480
1370.57,0.020764,0,42088,252612
1380.12,0.0244702,0,42398,254402
1391.58,0.0292276,0,42607,255640
1401.13,0.0336401,0,42793,256778
1410.67,0.038342,0,43052,258326
1420.22,0.0432881,0,43335,259962
1431.68,0.0491351,0,43631,261782
1441.23,0.0541483,0,43829,263016
1450.78,0.0592498,0,44066,264410
1460.33,0.064415,0,44263,265546
1471.79,0.0699762,0,44559,267358
1481.34,0.077982,0,44678,268108
1490.89,0.0879648,0,44857,269062
1500.44,0.0980321,0,45140,270792
1511.9,0.110998,0,45401,272446
1521.45,0.131013,0,45692,274168
1531,0.156095,0,45997,276006
1540.54,0.18455,0,46236,277420
1550.09,0.217575,0,46453,278730
1561.55,0.265683,0,46679,280072
1571.1,0.312724,0,46887,281362
1580.65,0.366074,0,47132,282718
1590.2,0.426653,0,47497,284994
1601.66,0.508351,0,47784,286764
1611.22,0.583337,0,47925,287630
1620.78,0.664425,0,48207,289164
1630.35,0.750701,0,48420,290462
1641.84,0.859311,0,48670,291952
1651.4,0.952879,0,48875,293258
1660.97,1.04788,0,49121,294762
1670.54,1.14278,0,49346,296090
1680.11,1.23624,0,49631,297858
1691.59,1.3449,0,50008,299952
1701.16,1.43116,0,50114,300696
1710.73,1.51236,0,50468,302810
1720.3,1.58748,0,50801,304806
1731.78,1.6683,0,51008,306082
1741.35,1.72702,0,51142,306830
1750.92,1.77743,0,51253,307504
1760.49,1.81934,0,51460,308798
1770.06,1.85269,0,51698,310208
1781.56,1.88136,0,51961,311688
1791.16,1.89569,0,52056,312288
1800.76,1.90055,0,52276,313670
1810.31,1.89714,0,52502,315032
1821.78,1.88355,0,52758,316524
1831.38,1.86507,0,52978,317798
1840.98,1.83563,0,53197,319198
1850.54,1.79985,0,53314,319894
1860.08,1.758,0,53504,321014
1871.57,1.69865,0,53679,322134
1881.18,1.64111,0,53887,323370
1890.78,1.57734,0,54060,324368
1900.33,1.508,0,54263,325642
1911.79,1.4165,0,54502,327096
1921.35,1.33382,0,54632,327836
1930.9,1.24555,0,54725,328348
1940.45,1.15099,0,55045,330208
1950,1.05093,0,55201,331164
1961.46,0.924534,0,55376,332276
1971.02,0.813834,0,55524,333146
1980.57,0.698784,0,55734,334384
1990.12,0.580156,0,55966,335824
2001.58,0.43402,0,56104,336642
2011.13,0.309925,0,56227,337352
2020.69,0.184743,0,56460,338832
2030.24,0.0595004,0,56672,340046
2041.7,-0.0896121,0,56885,341304
2051.25,-0.211829,0,57021,342126
2060.79,-0.331217,0,57303,343724
2070.34,-0.446904,0,57485,344838
2081.8,-0.579673,0,57641,345888
2091.35,-0.684373,0,57838,346964
2100.9,-0.782965,0,58049,348306
2110.45,-0.874874,0,58190,349234
2121.91,-0.975672,0,58375,350176
2131.46,-1.0513,0,58599,351658
2141.01,-1.11897,0,58813,352848
2150.56,-1.17844,0,58986,353944
2160.11,-1.22956,0,59144,354846
2171.56,-1.27981,0,59392,356428
2181.06,-1.31237,0,59675,358036
2190.59,-1.33688,0,59871,359212
2200.14,-1.35349,0,60122,360718
2211.6,-1.36065,0,60324,361862
2221.15,-1.35911,0,60450,362754
2230.7,-1.35183,0,60609,363718
2240.25,-1.34244,0,60770,364608
2251.71,-1.31928,0,61124,366810
2261.26,-1.2949,0,61393,368438
2270.8,-1.26667,0,61531,369142
2280.35,-1.23455,0,61681,370090
2291.81,-1.19205,0,61873,371308
2301.36,-1.15398,0,62087,372572
2310.91,-1.11404,0,62205,373148
2320.46,-1.0728,0,62403,374412
2330.01,-1.03058,0,62563,375288
2341.47,-0.979356,0,62762,376644
2351.02,-0.936241,0,62936,377658
2360.57,-0.893117,0,63071,378446
2370.12,-0.850272,0,63190,379226
2381.58,-0.7993,0,63517,381130
2391.13,-0.757386,0,63674,382066
2400.68,-0.716085,0,63803,382830
2410.23,-0.67545,0,64004,383978
2421.69,-0.627631,0,64298,385826
2431.24,-0.588619,0,64441,386640
2440.79,-0.55038,0,64607,387712
2450.34,-0.51293,0,64726,388304
2461.8,-0.469116,0,64887,389378
2471.35,-0.433626,0,65019,390092
2480.9,-0.399141,0,65126,390788
2490.45,-0.365722,0,65299,391740
2501.91,-0.327045,0,65641,393798
2511.45,-0.296102,0,65797,394690
2520.96,-0.266507,0,65933,395572
2530.44,-0.238266,0,66074,396556
2541.91,-0.20594,0,66360,398074
2551.47,-0.180552,0,66664,400017
2561.04,-0.156617,0,66728,400329
2570.61,-0.134188,0,66748,400418
2580.18,-0.113307,0,66900,401390
2591.66,-0.0903276,0,67038,402248
2601.23,-0.0728947,0,67235,403334
2610.8,-0.0569961,0,67382,404326
2620.36,-0.042617,0,67480,404876
2631.85,-0.0273567,0,67627,405848
2641.41,-0.0162917,0,67980,407848
2650.98,-0.00672143,0,68047,408298
2660.53,0.00133507,0,68127,408700
2670.09,0.007941,0,68225,409314
2681.57,0.0147197,0,68585,411584
2691.14,0.0172447,0,68772,412768
2700.71,0.0170917,0,69038,414210
2710.29,0.0169776,0,69088,414624
2721.76,0.0156986,0,69218,415212
2731.31,0.0149234,0,69258,415559
2740.89,0.0137836,0,69485,416800
2750.47,0.0124655,0,69649,417855
2760.04,0.0110766,0,69837,419077
2771.5,0.0100853,0,70047,420219
2781.06,0.00832299,0,70147,420819
2790.64,0.00553698,0,70277,421711
2800.21,0.00335651,0,70613,423759
2811.7,-0.000890436,0,70875,425273
2821.27,-0.00480612,0,71075,426427
2830.85,-0.00975348,0,71126,426789
2840.43,-0.0153901,0,71338,427989
2850.01,-0.0212791,0,71575,429477
2861.49,-0.0281422,0,71719,430365
2871.07,-0.0340268,0,71897,431415
2880.65,-0.0389974,0,72333,433901
2890.23,-0.0465706,0,72615,435689
2901.74,-0.0548138,0,72629,435851
2911.33,-0.0616134,0,72833,436915
2920.91,-0.0678922,0,73038,438155
2930.46,-0.0739685,0,73221,439401
2941.87,-0.0814137,0,73322,439915
2951.4,-0.0875292,0,73518,441089
2960.94,-0.0935109,0,73756,442441
2970.43,-0.0992825,0,73948,443661
2981.9,-0.105877,0,74125,444787
2991.53,-0.111035,0,74316,445954
3001.14,-0.115934,0,74548,447294
3010.7,-0.120622,0,74846,449140
3020.25,-0.125133,0,74983,449870
3031.73,-0.130041,0,75144,450803
3041.21,-0.133747,0,75224,451437
3050.7,-0.137213,0,75572,453499
3060.21,-0.140461,0,75748,454467
3071.7,-0.144106,0,75894,455443
3081.31,-0.146916,0,76117,456769
3090.86,-0.149605,0,76358,458059
3100.41,-0.152496,0,76359,458207
3111.89,-0.154587,0,76507,458974
3121.44,-0.156772,0,76569,459494
3130.99,-0.157514,0,76926,461523
3140.52,-0.157776,0,77238,463369
3150.05,-0.158668,0,77413,464531
3161.47,-0.15872,0,77581,465453
3171,-0.158622,0,77695,466217
3180.52,-0.158482,0,77772,466663
3190.04,-0.158342,0,77913,467570
3201.47,-0.158194,0,78122,468796
3210.99,-0.158116,0,78348,470172
3220.52,-0.158015,0,78561,471386
3230.04,-0.157888,0,78768,472698
3241.47,-0.157532,0,79089,474521
3250.99,-0.157218,0,79310,475921
3260.51,-0.156884,0,79441,476648
3271.86,-0.156354,0,79569,477354
3281.38,-0.156079,0,79726,478425
3290.9,-0.155868,0,79931,479497
3300.43,-0.155533,0,80144,480965
3311.86,-0.154912,0,80517,483058
3321.38,-0.154374,0,80656,484026
3330.9,-0.153683,0,80776,484566
3340.42,-0.152759,0,80961,485700
3351.85,-0.151386,0,81126,486754
3361.38,-0.150151,0,81426,488471
3370.9,-0.148834,0,81790,490685
3380.42,-0.147379,0,82135,492772
3391.85,-0.146172,0,82306,493872
3401.37,-0.144848,0,82358,494268
3410.9,-0.142633,0,82656,495844
3420.42,-0.140125,0,82891,497256
3431.85,-0.137111,0,83167,499069
3441.37,-0.134566,0,83445,500735
3450.89,-0.131917,0,83725,502440
3460.42,-0.129107,0,83944,503720
3471.84,-0.125547,0,84187,505066
3481.37,-0.122487,0,84365,506254
3490.89,-0.120528,0,84568,507361
3500.41,-0.117296,0,84755,508383
3511.84,-0.113286,0,85168,511105
3521.36,-0.109615,0,85454,512713
3530.88,-0.105823,0,85564,513380
3540.41,-0.101774,0,85875,515076
3551.83,-0.0967855,0,86135,516648
3561.36,-0.0926637,0,86467,518616
3570.88,-0.0885572,0,86724,520212
3580.4,-0.0843935,0,86810,520821
3591.83,-0.0793295,0,86999,522024
3601.35,-0.0751609,0,87316,523845
3610.88,-0.0711057,0,87483,524863
3620.4,-0.0671714,0,87576,525445
3631.83,-0.0625847,0,87970,527905
3641.35,-0.0588501,0,88219,529233
3650.87,-0.0551865,0,88485,530823
3660.4,-0.0516056,0,88529,531338
3671.82,-0.0474486,0,88790,532724
3681.35,-0.0441229,0,88965,533902
3690.88,-0.0409331,0,89264,535714
3700.43,-0.0378761,0,89440,536598
3711.89,-0.0343848,0,89781,538498
3721.44,-0.0316183,0,89997,540102
3730.99,-0.0289861,0,90136,540669
3740.49,-0.0265104,0,90421,542547
3750,-0.0241937,0,90652,543817
3761.37,-0.0216438,0,90755,544525
3770.92,-0.0197098,0,90925,545617
3780.41,-0.0179884,0,91327,547939
3791.85,-0.0161059,0,91646,549825
3801.4,-0.0140589,0,91879,551114
3810.95,-0.0130866,0,92019,552182
3820.5,-0.0122513,0,92197,553187
3830.01,-0.0116581,0,92273,553741
3841.45,-0.0112106,0,92559,555352
3851,-0.0112572,0,92801,556696
3860.56,-0.0113963,0,92986,557894
3870.11,-0.0115094,0,93296,559892
3881.52,-0.0115271,0,93717,562292
3891,-0.011627,0,93763,562628
3900.55,-0.0117911,0,94111,564480
3910.1,-0.0119928,0,94271,565579
3921.51,-0.0122467,0,94527,567171
3931.04,-0.0124639,0,94746,568454
3940.52,-0.0126818,0,94950,569782
3951.87,-0.0129308,0,95161,570901
3961.4,-0.0131258,0,95417,572421
3970.86,-0.0133064,0,95575,573302
3980.32,-0.0134772,0,95791,574658
3991.77,-0.0136197,0,95946,575848
4001.29,-0.0137446,0,96251,577412
4010.72,-0.01386,0,96498,579141
4020.16,-0.0139686,0,96740,580270
4031.61,-0.0140867,0,97054,582312
4041.15,-0.0141674,0,97268,583708
4050.69,-0.0140914,0,97419,584600
4060.18,-0.0139863,0,97642,586005
4071.53,-0.0139214,0,97903,587424
4081.06,-0.0138978,0,98315,589968
4090.6,-0.0138684,0,98546,591193
4100.14,-0.0138161,0,98766,592729
4111.58,-0.0137244,0,98997,594025
4121.1,-0.0136383,0,99204,595400
4130.62,-0.0135247,0,99393,596327
4140.14,-0.0133777,0,99464,596709
4151.53,-0.0131502,0,99884,599202
4161.01,-0.0129112,0,100110,600707
4170.55,-0.0126287,0,100392,602543
4180.1,-0.0123497,0,100696,604277
4191.53,-0.0119676,0,100827,605054
4201.09,-0.0115665,0,101015,606108
4210.64,-0.0111239,0,101410,608481
4220.18,-0.0106521,0,101653,609945
4231.59,-0.0100559,0,101826,611055
4241.06,-0.00953213,0,102011,611950
4250.54,-0.00897724,0,102251,613372
4260,-0.00840511,0,102441,614590
4271.35,-0.00762733,0,102594,615480
4280.81,-0.00690394,0,102786,616728
4290.27,-0.00635943,0,102970,617860
4301.62,-0.00572133,0,103099,618687
4311.07,-0.00492907,0,103309,619989
4320.53,-0.00405369,0,103597,621522
4331.88,-0.00303989,0,103988,623852
4341.34,-0.00208859,0,104148,624719
4350.79,-0.00101042,0,104167,624963
4360.25,0.000175755,0,104140,624748
4371.6,0.00165549,0,104436,626588
4381.06,0.00305906,0,104557,627175
4390.52,0.00346326,0,104663,627925
4401.86,0.00519016,0,104974,629773
4411.31,0.00732453,0,105233,631381
4420.74,0.00947516,0,105360,632010
4430.18,0.0115381,0,105393,632320
4441.49,0.0139417,0,105525,633283
4450.93,0.015932,0,105677,634015
4460.36,0.0181197,0,105915,635477
4471.68,0.0210417,0,106070,636453
4481.11,0.023591,0,105974,635896
4490.54,0.0263379,0,106076,636614
4501.86,0.0280045,0,106479,638808
4511.29,0.0308782,0,106778,640747
4520.72,0.0347288,0,106941,641617
4530.15,0.0389157,0,107061,642257
4541.47,0.0439408,0,107102,642737
4550.9,0.0480675,0,107377,644295
4560.34,0.0522022,0,107792,646647
4571.65,0.0570354,0,108191,649092
4581.09,0.0609447,0,108422,650394
4590.52,0.0648334,0,108591,651372
4601.84,0.0696295,0,108864,653068
4611.27,0.0737712,0,109026,654039
4620.7,0.0780082,0,109213,655511
4630.13,0.082321,0,109496,656919
4641.45,0.0876029,0,109715,658387
4650.88,0.092102,0,110035,660281
4660.32,0.0966891,0,110131,660628
4671.65,0.10229,0,110318,661850
4681.1,0.107,0,110553,663162
4690.56,0.11171,0,110913,665503
4700.06,0.116425,0,111164,666817
4711.48,0.122061,0,111373,668321
4721,0.126735,0,111746,670429
4730.52,0.131379,0,111807,671007
4740.04,0.135984,0,112139,672768
4751.45,0.141442,0,112509,675006
4760.97,0.145931,0,112863,677030
4770.49,0.150358,0,113247,679650
4780.01,0.154715,0,113309,679723
4791.35,0.159794,0,113468,680793
4800.83,0.163919,0,113737,682416
4810.35,0.167937,0,114061,684209
4821.8,0.172567,0,114285,685632
4831.33,0.176231,0,114394,686197
4840.76,0.179653,0,114572,687339
4850.27,0.182866,0,114374,686419
4861.77,0.186391,0,114728,688380
4871.39,0.188978,0,114878,689164
4880.97,0.191206,0,114897,689219
4890.51,0.193094,0,115108,690542
4901.83,0.194804,0,115351,691935
4911.32,0.19619,0,115265,691479
4920.83,0.196143,0,115271,691643
4930.41,0.196277,0,115429,692546
4941.82,0.196182,0,115372,692082
4951.37,0.196329,0,115503,693068
4961,0.196258,0,115771,694664
4970.6,0.196011,0,115635,693950
4980.15,0.19584,0,115639,693924
4991.64,0.195441,0,115818,695013
5001.28,0.194818,0,115924,695451
5010.93,0.194004,0,115958,695787
5020.53,0.19306,0,116149,696704
5030.07,0.192366,0,116188,697089
5041.59,0.191086,0,116401,698389
5051.32,0.190317,0,116562,699569
5060.91,0.189233,0,116740,700586
5070.55,0.187084,0,117017,702059
5080.12,0.184555,0,117074,702314
5091.61,0.181509,0,117200,703099
5101.34,0.178929,0,117232,703467
5111.15,0.176302,0,117335,703891
5120.76,0.174007,0,117448,704869
5130.33,0.171701,0,117859,707086
5141.83,0.166633,0,117953,707765
5151.58,0.161489,0,117979,707829
5161.16,0.155749,0,118162,708832
5170.77,0.149689,0,118317,710048
5180.47,0.14373,0,118320,710100
5190.28,0.138015,0,118392,710287
5200.08,0.13252,0,118918,713655
5211.78,0.126001,0,119531,717012
5221.31,0.12058,0,119639,717645
5230.83,0.115057,0,119701,718245
5240.57,0.109367,0,119940,719609
5250.22,0.103744,0,119982,719890
5261.85,0.0969987,0,120056,720375
5271.66,0.0912888,0,120400,722143
5281.45,0.085534,0,120611,723633
5291.14,0.0798118,0,120785,724849
5300.79,0.074132,0,120877,725337
5310.27,0.0686169,0,120971,725574
5321.76,0.0620351,0,121121,726863
5331.56,0.0564963,0,121424,728780
5341.13,0.0511362,0,121720,730076
5350.66,0.0458305,0,121853,731110
5360.11,0.0406216,0,121937,731793
5371.63,0.0343796,0,121976,731610
5381.39,0.0292174,0,122051,732135
5391.16,0.024179,0,122140,732795
5400.7,0.0193826,0,122359,734192
5410.23,0.0146977,0,122434,734718
5421.92,0.00911147,0,122616,735835
5431.48,0.00468805,0,122867,737239
5441.1,0.000379545,0,122943,737872
5450.95,-0.0038675,0,122944,737758
5460.79,-0.00794291,0,123076,738554
5470.55,-0.0118187,0,123214,739377
5480.09,-0.0154412,0,123348,740101
5491.82,-0.0196673,0,123481,740878
5501.45,-0.0229384,0,123652,741669
5511,-0.025999,0,123648,741931
5520.55,-0.0288818,0,123579,741518
5530.09,-0.0315931,0,123631,741810
5541.77,-0.03466,0,123853,743031
5551.88,-0.0371634,0,124135,744820
5561.89,-0.0394582,0,124140,745067
5571.74,-0.0414723,0,124322,745853
5581.27,-0.0431835,0,124403,746439
5590.88,-0.0447768,0,124609,747641
5600.45,-0.0462675,0,124832,749011
5610.08,-0.0476066,0,124787,748706
5621.71,-0.0492271,0,125111,750660
5631.25,-0.0501622,0,125388,752338
5641.17,-0.0508317,0,125459,752857
5651,-0.0520841,0,125425,752601
5661.22,-0.052598,0,125666,753906
5671.33,-0.0529031,0,125837,755164
5680.97,-0.052907,0,126124,756673
5690.51,-0.0530179,0,126344,758135
5700.08,-0.0531039,0,126453,758647
5711.63,-0.0542377,0,126562,759278
5721.42,-0.0542637,0,126669,759867
5731.14,-0.0541784,0,126834,761113
5740.75,-0.0537584,0,127023,762244
5750.73,-0.0533129,0,126909,761229
5761.2,-0.0528594,0,126937,761440
5771.82,-0.0521103,0,127119,762597
5780.3,-0.0514614,0,127281,763446
5790.1,-0.0507648,0,127515,765181
5801.62,-0.0499807,0,127584,765472
5811.21,-0.0492801,0,127718,766322
5820.8,-0.0484925,0,127985,767791
5830.48,-0.0476078,0,127927,767497
5840.65,-0.0465942,0,127674,766093
5850.26,-0.0454724,0,127910,767577
5861.82,-0.0438829,0,128106,768926
5871.38,-0.0423647,0,128317,769649
5881.27,-0.0413267,0,128424,770575
5891.21,-0.039438,0,128422,770590
5900.81,-0.0372204,0,128614,771745
5910.47,-0.0348983,0,128709,772082
5920.07,-0.0326457,0,128783,772492
5931.73,-0.0297523,0,128753,772431
5941.56,-0.0272196,0,128861,773117
5951.56,-0.024565,0,129238,775355
5961.18,-0.0219152,0,129404,776517
5970.79,-0.0191527,0,129495,776852
5980.93,-0.0161171,0,129175,774944
5991.04,-0.0130043,0,129437,776659
6001.03,-0.00988293,0,129662,777976
6011,-0.00675586,0,129814,778820
6020.55,-0.00376562,0,129882,779329
6030.54,-0.000650867,0,129733,778422
6040.71,0.00249814,0,130002,780149
6051.07,0.00562363,0,130329,782022
6061.1,0.00865357,0,130733,784397
6070.91,0.0116073,0,130874,785272
6080.54,0.014648,0,131031,786206
6090.18,0.0158673,0,130973,785805
6100.08,0.0194987,0,130917,785476
6110.58,0.024083,0,131127,786894
6120.9,0.0281036,0,131291,787713
6131.18,0.0321739,0,131375,788099
6141.42,0.0365489,0,131555,789254
6151.35,0.0402853,0,131753,790534
6161.29,0.0435932,0,131951,791710
6171.34,0.046891,0,132200,793381
6180.97,0.0501032,0,132432,794467
6190.81,0.0533918,0,132453,794989
6201.3,0.0567456,0,132619,795737
6211.58,0.0597864,0,132722,796331
6221.86,0.0626549,0,132769,796510
6231.78,0.0653506,0,132877,797263
6241.4,0.0678793,0,132982,797697
6251.04,0.0704122,0,132977,797687
6260.72,0.0727318,0,133152,798900
6270.36,0.0747126,0,133169,798972
6280.79,0.076822,0,133214,799420
6291.22,0.0788073,0,133384,800149
6301.62,0.0806371,0,133562,801297
6310.03,0.0819993,0,133451,800541
6320.59,0.0836109,0,133252,799515
6331.52,0.0851839,0,133157,798952
6341.56,0.0867663,0,133101,798592
6351.97,0.0875176,0,133133,799005
6360.41,0.0881247,0,133240,799396
6370.1,0.0894867,0,133176,799096
6381.66,0.0899821,0,133080,798455
6391.29,0.0902468,0,133251,799474
6401.07,0.0900478,0,133506,800982
6411.22,0.0897727,0,133697,802209
6421.91,0.0893535,0,133603,801670
6430.25,0.0891054,0,133607,801705
6440.61,0.0887499,0,133622,801631
6450.93,0.0882644,0,133748,802482
6461.26,0.0875626,0,134132,804966
6471.78,0.0866533,0,134193,805131
6480.3,0.085864,0,134237,805492
6490.58,0.0843729,0,134659,808107
6500.2,0.0829726,0,134836,808988
6511.8,0.0812681,0,134808,808861
6521.52,0.0799529,0,135019,810212
6531.07,0.0781602,0,135133,810708
6540.57,0.0757902,0,135417,812229
6550.17,0.0731441,0,135480,812841
6561.64,0.0700272,0,135388,812187
6571.13,0.0675445,0,135702,814080
6581.38,0.0644813,0,136020,816169
6591.5,0.0631105,0,136285,817524
6601.63,0.0593689,0,136243,817623
6611.87,0.0548268,0,136266,817518
6620.52,0.0508235,0,136408,818445
6631.3,0.0456061,0,136513,819015
6640.82,0.0409626,0,136674,819901
6650.33,0.0364914,0,136677,820041
6661.9,0.0312632,0,136669,819981
6670.05,0.0276129,0,136820,820837
6680.38,0.0229002,0,137247,823579
6691.13,0.017875,0,137672,826148
6701.79,0.0128082,0,137865,826995
6710.31,0.00874073,0,137927,827367
6720.59,0.00383672,0,138083,828677
6730.72,-0.00101115,0,138351,830080
6740.9,-0.00592538,0,138561,831477
6751.02,-0.0108591,0,138547,831405
6761.19,-0.015859,0,138791,832614
6771.61,-0.02099,0,138928,833542
6782.07,-0.0260911,0,139109,834580
6791.82,-0.0307657,0,139406,836491
6801.37,-0.035274,0,139621,837783
6811.5,-0.0399966,0,139627,837717
6821.74,-0.0447312,0,139720,838231
6830,-0.0485181,0,139920,839687
6840.32,-0.0531974,0,140129,840944
6851.72,-0.0582592,0,140362,842321
6861.46,-0.0624703,0,140350,842108
6871.67,-0.0667592,0,140388,842293
6881.88,-0.0709213,0,140590,843546
6890.04,-0.0741592,0,140637,843756
6900.25,-0.0780825,0,140691,844016
6910.46,-0.0818476,0,141032,846243
6920.66,-0.0854317,0,141099,846624
6930.87,-0.0888223,0,141182,846923
6941.08,-0.0920242,0,141058,846585
6951.28,-0.0950537,0,141335,847892
6961.44,-0.0979218,0,141538,849365
6971.59,-0.100702,0,141580,849481
6981.74,-0.10312,0,141780,850848
6991.9,-0.105371,0,141946,851686
7000.02,-0.107052,0,142006,852193
7010.17,-0.10897,0,142020,851983
7020.33,-0.110793,0,142098,852679
7030.48,-0.112525,0,142333,854068
7040.64,-0.114221,0,142505,854997
7050.71,-0.115876,0,142768,856754
7060.36,-0.117436,0,143007,857907
7070.08,-0.119514,0,142892,857502
7081.49,-0.120561,0,143104,858835
7091.17,-0.12155,0,143444,860440
7101.32,-0.122938,0,143619,861813
7111.26,-0.123197,0,143857,863106
7121.08,-0.123946,0,143717,862420
7131.23,-0.124001,0,143978,863857
7141.29,-0.124056,0,144095,864437
7151.04,-0.124286,0,144166,865108
7161.2,-0.124426,0,144546,867196
7171.35,-0.124533,0,144633,867729
7181.5,-0.124632,0,144667,867988
7191.66,-0.124695,0,144704,868359
7201.81,-0.124721,0,144665,867968
7211.96,-0.124742,0,144730,868229
7220.09,-0.124756,0,144965,869629
7230.24,-0.124755,0,145279,871839
7240.39,-0.124726,0,145603,873742
7250.55,-0.124713,0,145685,873987
7260.7,-0.124634,0,145784,874536
7270.85,-0.124508,0,145957,875632
7281.01,-0.124344,0,146213,877339
7291.16,-0.124148,0,146432,878464
7301.32,-0.123913,0,146416,878420
7311.47,-0.123642,0,146399,878338
7321.62,-0.123189,0,146652,879985
7331.78,-0.122659,0,146852,881059
7342.03,-0.122168,0,147087,882397
7350.22,-0.121797,0,147467,884785
7360.36,-0.121347,0,147466,884790
7370.8,-0.120881,0,147201,883096
7381.27,-0.120812,0,147363,883930
7391.72,-0.120509,0,147585,885791
7402.04,-0.120003,0,147960,887844
7410.13,-0.119564,0,147931,887623
7420.27,-0.119006,0,148059,888335
7430.7,-0.118439,0,148231,889428
7441.14,-0.117895,0,148430,890316
7451.28,-0.117438,0,148665,892123
7461.09,-0.116941,0,148905,893264
7471.29,-0.116368,0,149151,895030
7481.54,-0.115781,0,149281,895667
7491.48,-0.115215,0,149396,896246
7501.75,-0.114629,0,149331,896150
7510.11,-0.114149,0,149377,896228
7520.52,-0.113546,0,149850,898973
7530.94,-0.11294,0,150292,901886
7541.39,-0.112332,0,150293,901760
7551.59,-0.111742,0,150211,901115
7561.83,-0.111156,0,150399,902373
7570.19,-0.110683,0,150697,904300
7580.63,-0.110098,0,151010,906199
7591.07,-0.109524,0,151728,910399
7601.51,-0.108968,0,152011,912209
7611.96,-0.108438,0,152199,913246
7620.31,-0.108039,0,152255,913498
7630.75,-0.107572,0,152130,912973
7641.2,-0.107136,0,152314,913829
7651.64,-0.106726,0,152522,915245
7662.08,-0.106331,0,152840,916783
7670.43,-0.10601,0,153042,918274
7680.88,-0.10562,0,153259,919588
7691.32,-0.105267,0,153524,921299
7701.76,-0.104968,0,153826,922850
7710.11,-0.104761,0,154042,924029
7720.54,-0.104516,0,153913,923644
7730.96,-0.104194,0,154101,924655
7741.29,-0.103663,0,154299,925830
7751.71,-0.103457,0,154567,927405
7760.06,-0.103298,0,154696,928148
7770.5,-0.103096,0,154894,929466
7780.95,-0.102886,0,155225,931338
7791.39,-0.102664,0,155397,932408
7801.83,-0.10243,0,155630,933727
7811.77,-0.102199,0,155657,934020
7821.31,-0.101972,0,155935,935659
7830.79,-0.101745,0,156124,936560
7840.32,-0.101516,0,155955,935811
7851.83,-0.101241,0,156234,937257
7861.91,-0.101002,0,156358,938157
7870.27,-0.100804,0,156379,938250
7880.73,-0.100556,0,156623,939903
7891.19,-0.100305,0,156932,941476
7901.65,-0.10005,0,157027,942197
7910.02,-0.0998418,0,157120,942793
7920.49,-0.0995776,0,157395,944216
7930.34,-0.0993265,0,157311,943846
7941.76,-0.0990364,0,157563,945520
7951.67,-0.098787,0,157550,945300
7960.06,-0.0985761,0,157824,946784
7970.55,-0.0983079,0,157713,946271
7981.08,-0.0980295,0,157930,947600
7991.65,-0.0977407,0,158099,948626
8000.1,-0.0975043,0,158094,948595
8010.65,-0.0972038,0,158138,948868
8021.19,-0.0968959,0,158014,948206
8031.66,-0.0965784,0,158091,948483
8040.02,-0.096313,0,158109,948751
8050.47,-0.095963,0,157975,947717
8060.91,-0.0955798,0,157831,946999
8071.37,-0.0951355,0,157970,947763
8081.88,-0.094648,0,158373,950496
8090.28,-0.0942486,0,158587,951585
8100.75,-0.0937556,0,158530,951082
8111.22,-0.0932726,0,158620,951670
8121.72,-0.0927935,0,158650,952021
8130.11,-0.0924028,0,158771,952672
8140.58,-0.0918968,0,158669,952201
8151.06,-0.091369,0,158883,953221
8161.53,-0.0908214,0,159068,954354
8172,-0.0902575,0,159056,954395
8180.38,-0.0897956,0,159278,955842
8190.86,-0.089206,0,159610,957766
8201.33,-0.0886034,0,159577,957448
8211.74,-0.0879879,0,159502,956881
8220.09,-0.0874782,0,159486,956856
8230.56,-0.0868147,0,159492,956851
8241.04,-0.0861266,0,159802,958781
8251.47,-0.0854187,0,159979,959689
8261.93,-0.0846835,0,159972,959963
8270.31,-0.0840732,0,160322,961875
8280.78,-0.0832817,0,160601,963331
8291.26,-0.0824621,0,160439,962729
8301.74,-0.0817718,0,160791,964764
8310.14,-0.0812299,0,161151,966724
8320.58,-0.0803713,0,161207,967255
8331.05,-0.0794026,0,161137,966622
8341.54,-0.0783666,0,160981,965555
8351.94,-0.0773217,0,160978,965956
8360.34,-0.0764762,0,161151,966920
8370.93,-0.075409,0,161420,968435
8381.49,-0.0743405,0,161721,970457
8391.93,-0.0732719,0,161994,971947
8400.26,-0.0724066,0,162223,973299
8410.86,-0.0712818,0,162397,974383
8421.38,-0.0701257,0,162492,974761
8431.85,-0.0689203,0,162466,974773
8440.44,-0.0678956,0,162366,974107
8451.24,-0.0665737,0,162688,976075
8460.03,-0.0654663,0,162845,977147
8471.05,-0.0640685,0,163102,978567
8481.8,-0.0627256,0,163123,978834
8490.2,-0.0615512,0,163134,978615
8500.71,-0.0599378,0,163206,979365
8511.41,-0.0591973,0,163442,980353
8520.15,-0.0577643,0,163544,980911
8530.85,-0.0557283,0,163656,981968
8541.56,-0.0534207,0,163611,981759
8550.18,-0.0515788,0,163600,981641
8561.18,-0.0492679,0,163828,982789
8572.17,-0.0468575,0,163900,983503
8580.74,-0.0448535,0,163947,983782
8591.41,-0.0424022,0,164301,985780
8600.06,-0.0404991,0,164380,986140
8611.08,-0.0380778,0,164400,986296
8621.8,-0.0356364,0,164257,985632
8630.31,-0.0336201,0,164382,986276
8641.02,-0.0309928,0,164831,989124
8651.76,-0.0282732,0,164782,988867
8660.4,-0.0260474,0,164884,989169
8671.48,-0.0231687,0,164776,988928
8680.05,-0.0209418,0,164837,989017
8690.62,-0.018189,0,165105,990659
8701.22,-0.0154173,0,165227,991215
8711.97,-0.0125807,0,165381,992159
8720.57,-0.0102855,0,165426,992429
8731.62,-0.00730582,0,165720,994336
8740.31,-0.00493708,0,165713,994339
8751.05,-0.00198827,0,165740,994628
8761.76,0.000998161,0,165760,994488
8770.31,0.00345978,0,165691,994340
8781.17,0.00681016,0,166020,996084
8791.64,0.0086141,0,166176,997237
8800.07,0.0113669,0,166167,996875
8810.87,0.0157409,0,166265,997584
8821.9,0.0205328,0,166465,999093
8830.55,0.0242175,0,166629,999587
8841.3,0.0287343,0,166689,1000285
8852.06,0.033162,0,166823,1001119
8860.67,0.0365892,0,166853,1001334
8871.61,0.0408423,0,167073,1002261
8880.46,0.044272,0,166955,1001614
8891.28,0.0485008,0,167061,1002197
8902.05,0.0526991,0,167267,1003610
8910.66,0.0559883,0,167487,1004875
8921.44,0.0600259,0,167543,1005368
8930.07,0.0632192,0,167752,1006143
8940.87,0.0671966,0,167841,1006954
8951.73,0.0711874,0,167896,1007433
8960.41,0.0743563,0,168023,1008026
8971.14,0.078217,0,168231,1009608
8981.88,0.0819966,0,168381,1010301
8990.46,0.0849493,0,168590,1011671
9001.44,0.0886543,0,168810,1012787
9010.3,0.0915866,0,168797,1012509
9021.37,0.0951832,0,168855,1013184
9030.04,0.097939,0,169112,1014632
9040.76,0.101265,0,169168,1015002
9051.79,0.104591,0,169207,1014994
9060.64,0.1072,0,169377,1016555
9071.61,0.110365,0,169791,1018736
9080.17,0.112789,0,169815,1018973
9091.01,0.11581,0,169990,1019893
9102.08,0.118856,0,170042,1019902
9110.94,0.121134,0,169982,1020103
9122.01,0.123745,0,170189,1021099
9130.84,0.125686,0,170392,1022196
9141.5,0.127848,0,170428,1022646
9150.13,0.129523,0,170386,1022545
9161.18,0.131558,0,170391,1022617
9170.04,0.133081,0,170523,1023150
9180.99,0.134846,0,170703,1024252
9191.69,0.136473,0,170667,1024129
9200.47,0.137748,0,170543,1022999
9211.66,0.139319,0,170315,1021939
9220.62,0.141112,0,170494,1023152
9231.81,0.142135,0,170970,1025616
9240.62,0.14237,0,171491,1028749
9250.34,0.142622,0,171609,1029825
9260.56,0.142512,0,171315,1027526
9270.65,0.142306,0,171136,1026595
9281.15,0.142011,0,170929,1025765
9290.08,0.141679,0,170993,1026318
9300.78,0.141186,0,171301,1027941
9311.43,0.14056,0,171459,1028456
9320.04,0.14003,0,171461,1028755
9331.05,0.139308,0,171382,1028261
9340.03,0.138603,0,171488,1028685
9351.16,0.137716,0,171357,1027934
9362.19,0.136785,0,171350,1028369
9371.09,0.13609,0,171609,1029523
9382.2,0.135018,0,171663,1030077
9390.96,0.133994,0,171801,1031019
9401.63,0.132607,0,171657,1030039
9410.18,0.131439,0,171564,1029492
9421.14,0.129913,0,171819,1030712
9432.12,0.128367,0,171825,1031014
9440.93,0.127116,0,171917,1031776
9451.82,0.125562,0,171987,1031974
9460.6,0.124287,0,172151,1032713
9471.68,0.122731,0,172326,1033824
9480.54,0.121353,0,172454,1034684
9491.62,0.119577,0,172489,1034904
9500.31,0.118512,0,172431,1034763
9510.49,0.117548,0,172617,1035512
9520.61,0.115637,0,172872,1037286
9530.75,0.113405,0,172831,1037226
9540.91,0.111189,0,172802,1036996
9551.58,0.108825,0,172644,1036095
9560.3,0.106842,0,172604,1035934
9571.02,0.10436,0,172873,1036875
9581.59,0.10187,0,173177,1039126
9590.23,0.0998053,0,173617,1041411
9601.02,0.0971973,0,173483,1040961
9611.96,0.0945213,0,173327,1040015
9620.82,0.0923415,0,173496,1041114
9631.73,0.0896607,0,173864,1043336
9641.89,0.0871751,0,174020,1044184
9650.03,0.0851986,0,174208,1045293
9660.46,0.0826848,0,174189,1045199
9671.24,0.0801103,0,174202,1045531
9682.21,0.0775141,0,174314,1046145
9690.96,0.0754614,0,174606,1047680
9701.82,0.0729285,0,174687,1048091
9710.43,0.070935,0,174745,1048378
9721.28,0.0684347,0,174875,1049482
9731.54,0.0660793,0,175295,1051633
9741.64,0.0637746,0,175415,1052260
9750.03,0.061867,0,175346,1052235
9760.82,0.0594262,0,175655,1053930
9770.95,0.0571502,0,175701,1054228
9781.06,0.0548977,0,175956,1055384
9791.23,0.0526557,0,176114,1056734
9801.82,0.0503499,0,176078,1056715
9810.42,0.0484988,0,176422,1058491
9821.18,0.0462186,0,176446,1058889
9831.95,0.0439782,0,176555,1059373
9840.31,0.0422653,0,176574,1059594
9850.41,0.0402291,0,176800,1060757
9860.55,0.0382209,0,177048,1062036
9870.78,0.0362289,0,177034,1062496
9881.06,0.0342623,0,176811,1061106
9891.42,0.0323145,0,176924,1061885
9901.64,0.0304265,0,177184,1062806
9911.79,0.0285844,0,177082,1062729
9921.9,0.0267846,0,177198,1063172
9930.01,0.025365,0,177214,1063154
9940.13,0.0236254,0,177119,1062754
9950.41,0.0218962,0,177250,1063386
9960.75,0.020194,0,177088,1062495
9970.89,0.0185658,0,177246,1063102
9980.98,0.0169831,0,177269,1063711
9991.21,0.0154201,0,177643,1065607
10001.4,0.0138993,0,177553,1065454
10011.6,0.0124244,0,177209,1063324
10021.8,0.0109964,0,177106,1062357
10031.9,0.00960951,0,177281,1063432
10040.1,0.00855728,0,177511,1065138
10050.2,0.00726644,0,177479,1064757
10060.4,0.00596301,0,177334,1064031
10070.5,0.00470939,0,177385,1064180
10080.7,0.00354616,0,177350,1064222
10090.9,0.00245917,0,177497,1064759
10101,0.00142784,0,177456,1065063
10111.2,0.000443034,0,177576,1065362
10121.4,-0.000495724,0,177699,1066274
10131.6,-0.00138586,0,177941,1067823
10141.7,-0.00222551,0,177713,1066463
10151.9,-0.003014,0,177549,1065581
10160,-0.00360896,0,177577,1065278
10170.2,-0.00431232,0,177481,1065089
10180.4,-0.00497284,0,177318,1063861
10190.5,-0.00590499,0,177341,1064305
10200.7,-0.00647708,0,177450,1064618
10210.9,-0.00693348,0,177586,1065365
10221.1,-0.00742734,0,177420,1064479
10231.2,-0.00790192,0,177156,1062636
10241.4,-0.00832655,0,176639,1059804
10251.6,-0.0087016,0,176250,1057360
10261.7,-0.00904906,0,176580,1059377
10271.9,-0.0100282,0,176736,1060437
10280,-0.0102143,0,176932,1061698
10290.2,-0.0104563,0,176708,1060304
10300.4,-0.0106894,0,176707,1060025
10310.6,-0.0109591,0,176928,1061817
10320.7,-0.0111572,0,177277,1063847
10330.9,-0.0106888,0,177521,1065004
10341.1,-0.0107423,0,177616,1065465
10351.3,-0.0108304,0,177924,1067710
10361.4,-0.0109476,0,178245,1069367
10371.6,-0.011147,0,178356,1070167
10381.9,-0.0113099,0,178310,1069984
10390.2,-0.0114094,0,178537,1071308
10400.7,-0.0115246,0,178894,1073457
10411.4,-0.0116316,0,179018,1074056
10422.1,-0.011719,0,179226,1075508
10430.7,-0.0117408,0,179398,1076334
10441.4,-0.0117547,0,179656,1077741
10452,-0.0117866,0,179967,1079903
10460.4,-0.0118321,0,180080,1080377
10470.9,-0.0119133,0,180070,1080428
10481.4,-0.0120092,0,180284,1081760
10491.6,-0.0120993,0,180303,1081805
10501.9,-0.0121825,0,180233,1081227
10510.2,-0.0122539,0,180374,1082090
10520.7,-0.0123228,0,180619,1083640
10531.2,-0.0123782,0,180942,1085893
10541.6,-0.0130749,0,181007,1085819
10551.8,-0.0125921,0,181030,1086101
10562,-0.0127548,0,181151,1086945
10570.4,-0.012874,0,181363,1088085
10580.9,-0.0129797,0,181632,1089831
10591.4,-0.01304,0,181785,1090970
10601.5,-0.0130815,0,181936,1091788
10611.7,-0.0131172,0,181889,1091267
10620.1,-0.0131672,0,181915,1091193
10630.5,-0.0132562,0,181996,1092265
10641,-0.0133496,0,182123,1092908
10651.4,-0.0134072,0,182312,1093801
10661.9,-0.0134676,0,182466,1094773
10670.2,-0.013536,0,182369,1094176
10680.5,-0.0136517,0,182394,1094425
10690.6,-0.013791,0,182611,1095839
10700.7,-0.0139515,0,182622,1095931
10710.9,-0.0141401,0,182698,1096428
10721.2,-0.0143514,0,182566,1095198
10731.4,-0.0145778,0,182369,1094375
10741.6,-0.0148107,0,182564,1095231
10751.7,-0.0150503,0,182327,1093967
10761.8,-0.0152982,0,182616,1095647
10770.1,-0.0155176,0,182961,1097869
10780.6,-0.0158003,0,183032,1098092
10791,-0.0160858,0,182973,1097607
10801.4,-0.0163797,0,182647,1095849
10811.6,-0.0166782,0,182741,1096351
10821.8,-0.0169831,0,182496,1094919
10830.2,-0.0172346,0,182431,1094653
10840.7,-0.0175612,0,182299,1093850
10851.2,-0.0179068,0,182192,1093242
10861.8,-0.0182736,0,182131,1093133
10870.2,-0.018579,0,182078,1092223
10880.6,-0.0189746,0,181925,1091378
10890.8,-0.0193788,0,181919,1091265
10901.2,-0.0201328,0,181536,1089111
10911.9,-0.0208465,0,181607,1089584
10920.4,-0.0213325,0,181631,1089664
10931.1,-0.0219533,0,181524,1089413
10941.8,-0.0225645,0,181620,1089817
10950.3,-0.0230324,0,181583,1089707
10960.9,-0.0235826,0,181554,1089200
10971.1,-0.0240844,0,181391,1088549
10981.4,-0.0245741,0,181471,1089075
10992.1,-0.0250737,0,181798,1090951
11000.6,-0.0254747,0,181662,1090001
11011.3,-0.0259891,0,181845,1091301
11022,-0.0265323,0,181705,1090156
11030.6,-0.026992,0,181556,1089369
11041.2,-0.0275892,0,181579,1089330
11051.7,-0.0281795,0,181313,1088091
11060.1,-0.0286576,0,181269,1087713
11070.8,-0.0292508,0,181181,1087102
11081.5,-0.0298323,0,181312,1087819
11090.1,-0.0302889,0,181282,1087436
11100.7,-0.0308498,0,181276,1087324
11111.4,-0.0314011,0,181280,1087841
11121.9,-0.0319349,0,181413,1088623
11130.3,-0.0323544,0,181425,1088418
11140.9,-0.0328831,0,181044,1086368
11151.5,-0.0334003,0,180708,1084273
11160.2,-0.0338191,0,180438,1082524
11170.9,-0.0343337,0,180275,1081588
11181.4,-0.0348278,0,180197,1081105
11191.9,-0.0353145,0,180160,1081023
11200.3,-0.035701,0,179988,1079848
11210.7,-0.0361692,0,180054,1080306
11221.4,-0.0366493,0,180149,1080877
11231.8,-0.037108,0,179880,1079236
11240.2,-0.0374667,0,179625,1077880
11250.5,-0.0379058,0,179321,1075929
11261.4,-0.0383545,0,178909,1073410
11272,-0.0387771,0,178713,1072309
11280.3,-0.0391023,0,178549,1071275
11290.7,-0.0395016,0,178592,1071733
11301.5,-0.0399083,0,178602,1071822
11310.2,-0.0402394,0,178841,1073224
11321.1,-0.0407025,0,178847,1072831
11331.8,-0.0411116,0,178771,1072951
11340.5,-0.0414072,0,178779,1072508
11351.2,-0.0417578,0,178565,1071035
11361.7,-0.0420957,0,178748,1072259
11370,-0.0423639,0,178657,1071820
11380.4,-0.0428627,0,178371,1070462
11390.8,-0.0432324,0,178304,1070159
11401.3,-0.0435531,0,178277,1069809
11411.7,-0.0438293,0,178636,1071915
11422,-0.0441114,0,178575,1071390
11430.4,-0.0443333,0,178503,1071148
11440.7,-0.0446073,0,178500,1071083
11451.1,-0.0448775,0,178626,1071589
11461.5,-0.0451322,0,178555,1071427
11471.9,-0.0453379,0,178544,1071091
11480.2,-0.0454714,0,178619,1071750
11490.6,-0.04578,0,178702,1072244
11501,-0.046108,0,178551,1071245
11511.3,-0.0462463,0,178404,1070498
11521.7,-0.0462671,0,178578,1071282
11530,-0.0450712,0,178736,1072259
11540.4,-0.0449266,0,178661,1071928
11550.8,-0.044787,0,178418,1070444
11561.2,-0.0446408,0,178180,1069036
11571.6,-0.0444464,0,178204,1069067
11581.9,-0.0442503,0,178282,1069837
11590.3,-0.0441045,0,178389,1070384
11600.6,-0.0439436,0,178190,1068956
11611,-0.0438216,0,177951,1067799
11621.4,-0.0437009,0,178046,1068199
11631.8,-0.043561,0,178031,1068225
11640.1,-0.04343,0,177853,1067077
11650.5,-0.0432414,0,177897,1067354
11660.9,-0.0430277,0,178004,1068015
11671.2,-0.0427932,0,178021,1068146
11681.5,-0.0425441,0,178043,1068325
11691.7,-0.0422829,0,177985,1067811
11702,-0.0420047,0,177920,1067271
11710.3,-0.0417749,0,177838,1066855
11720.7,-0.041482,0,177911,1067272
11731.1,-0.0411848,0,177623,1065980
11741.2,-0.0408874,0,177705,1066107
11751.6,-0.0405763,0,177463,1064933
11762.1,-0.0402559,0,177241,1063441
11770.6,-0.0399908,0,177276,1063329
11781.3,-0.0396462,0,177141,1062778
11792.1,-0.0392923,0,177055,1062276
11800.9,-0.0389997,0,176903,1061415
11812.1,-0.0386201,0,176820,1060843
11821.1,-0.038308,0,176990,1061748
11830.1,-0.0379925,0,176688,1060203
11841.4,-0.0375957,0,176176,1056842
11850.5,-0.0372771,0,176034,1056102
11861,-0.036901,0,175791,1054547
11871.5,-0.0365167,0,175712,1054207
11881.9,-0.0361313,0,175439,1052754
11890.5,-0.0358113,0,175142,1050994
11901.3,-0.0354055,0,175039,1050052
11910,-0.0350798,0,174806,1048725
11921,-0.0346741,0,174659,1047964
11931.8,-0.0342812,0,174744,1048454
11940.2,-0.0339791,0,174698,1048476
11950.7,-0.0336042,0,174756,1048592
11961.3,-0.0332309,0,174841,1048912
11971.9,-0.0328632,0,174744,1048446
11980.6,-0.0325627,0,174414,1046691
11991.8,-0.0321823,0,174304,1045770
12000.7,-0.0318816,0,174282,1045606
12011.7,-0.0315147,0,174336,1046237
12020.3,-0.0312323,0,174409,1046587
12031.1,-0.0308851,0,174279,1045777
12041.8,-0.030543,0,173965,1043797
12050.4,-0.0302734,0,173775,1042460
12061.2,-0.0299408,0,173621,1041804
12072,-0.0296122,0,173617,1041650
12080.7,-0.0293526,0,173757,1042340
12091.5,-0.0290317,0,173718,1042478
12100.2,-0.028777,0,173617,1041907
12111,-0.0284604,0,173591,1041196
12121.8,-0.0281445,0,173321,1040045
12130.5,-0.0278918,0,173072,1038584
12141.3,-0.0275796,0,172971,1038039
12152.1,-0.0272738,0,172522,1035228
12160.8,-0.0270304,0,172411,1034258
12171.6,-0.0267222,0,172326,1034014
12180.3,-0.0264696,0,172434,1034307
12191.1,-0.0261445,0,172400,1034377
12201.9,-0.0258479,0,172280,1033416
12210.6,-0.0256242,0,172026,1032235
12221.4,-0.0253178,0,171880,1031080
12230.1,-0.0250447,0,171703,1030227
12240.9,-0.0244412,0,171778,1030893
12251.7,-0.0233665,0,171924,1031541
12260.4,-0.0228369,0,171836,1031043
12271.2,-0.0221716,0,171821,1030749
12282,-0.0214035,0,171765,1030862
12290.7,-0.0209771,0,171906,1031530
12301.5,-0.020618,0,172109,1032441
12310.2,-0.0203636,0,172079,1032423
12321,-0.0200419,0,172199,1033000
12331.8,-0.0197173,0,172180,1033211
12340.5,-0.0194563,0,172076,1032182
12351.4,-0.0192306,0,171927,1031355
12360.2,-0.0189072,0,171972,1031796
12371.4,-0.0185392,0,172100,1032811
12380.4,-0.0182583,0,172215,1033259
12391.6,-0.0179198,0,172047,1032064
12400.7,-0.0176551,0,172031,1032124
12412.1,-0.0173188,0,172055,1032242
12421.2,-0.0170455,0,172027,1032128
12430.2,-0.0167838,0,172026,1032303
12441.4,-0.0164775,0,172238,1033497
12450.4,-0.0158324,0,172337,1033903
12461.6,-0.0154524,0,172082,1032578
12470.6,-0.0154091,0,171903,1031170
12481.8,-0.0154649,0,171714,1030082
12490.9,-0.0167193,0,171590,1029781
12501.8,-0.0167686,0,171638,1029776
12510.7,-0.01667,0,171522,1028818
12522,-0.0166002,0,171146,1026907
12530.8,-0.0165662,0,170860,1025139
12541.7,-0.0165401,0,170947,1025564
12550.7,-0.0165352,0,170959,1025870
12561.8,-0.0165164,0,170644,1024055
12570.6,-0.0164135,0,170850,1024787
12581.6,-0.0162927,0,170676,1024281
12590.4,-0.0162686,0,170668,1023916
12601.4,-0.0161456,0,170588,1023333
12612.1,-0.0159425,0,170559,1023069
12620.7,-0.0158284,0,170131,1020538
12631.3,-0.0163799,0,169940,1019550
12642.1,-0.0165239,0,170004,1020069
12651.1,-0.0166656,0,170200,1021173
12660,-0.0168139,0,170365,1022143
12671,-0.0170108,0,170185,1021415
12682.1,-0.0172682,0,170090,1020280
12690.8,-0.017522,0,169941,1019641
12701.5,-0.0176681,0,169999,1019933
12710.3,-0.0176692,0,170014,1020215
12721.5,-0.0176014,0,169912,1019484
12730.4,-0.0177123,0,169742,1018262
12741.7,-0.0178579,0,169673,1018074
12750.6,-0.0180152,0,169886,1019405
12761.7,-0.0182306,0,169849,1019291
12770.3,-0.0184063,0,169794,1018648
12781.4,-0.0186324,0,170030,1020094
12792,-0.0188496,0,170079,1020409
12800.6,-0.0190219,0,169974,1019756
12811.3,-0.0192388,0,170012,1020040
12822.1,-0.0194606,0,170244,1021294
12830.9,-0.0196449,0,170096,1020689
12841.8,-0.0198772,0,169965,1019558
12850.4,-0.0200636,0,170040,1020043
12861,-0.0202938,0,170208,1021383
12871.7,-0.0205227,0,170281,1021764
12880.6,-0.0207128,0,170214,1021188
12891.7,-0.0209485,0,170150,1021071
12900.5,-0.0211325,0,170123,1020743
12911.1,-0.0213554,0,170129,1020396
12921.9,-0.0215809,0,170109,1020787
12930.6,-0.0217618,0,170119,1020777
12941.2,-0.0219854,0,170187,1021100
12952.1,-0.0222136,0,170341,1022194
12961,-0.0223994,0,170451,1022642
12972.2,-0.0226299,0,170234,1021385
12981.1,-0.022813,0,170371,1022323
12992.1,-0.0230382,0,170565,1023412
13000.7,-0.0232092,0,170453,1022950
13011.3,-0.023418,0,170544,1023108
13020.1,-0.0235853,0,170318,1021891
13031.4,-0.0237898,0,170462,1022553
13040,-0.0239395,0,170439,1022629
13050.8,-0.0241159,0,170766,1024507
13061.5,-0.0242818,0,171058,1026202
13070.1,-0.0244068,0,171078,1026569
13080.7,-0.0245537,0,170916,1025349
13091.3,-0.0246899,0,170963,1025526
13101.6,-0.0248149,0,170819,1024967
13110,-0.0249118,0,170743,1024608
13121.2,-0.0250352,0,170700,1024209
13131.7,-0.0251464,0,170710,1024126
13140.5,-0.0251925,0,170603,1023465
13151.7,-0.0252589,0,170832,1024801
13160.5,-0.0253248,0,171096,1026366
13171.2,-0.0254122,0,171358,1027942
13181.5,-0.0254994,0,171161,1026779
13192,-0.0255872,0,170799,1024818
13200.8,-0.0256574,0,170767,1024380
13211.9,-0.0257382,0,170893,1025259
13220.1,-0.0257943,0,171052,1026134
13230.5,-0.0258611,0,171036,1026348
13241.4,-0.0259317,0,170886,1025686
13250.3,-0.0259925,0,170749,1024442
13261.3,-0.0260718,0,170383,1021988
13270.1,-0.0261349,0,170128,1020814
13281.2,-0.0262102,0,170280,1022007
13292,-0.0262784,0,170734,1024148
13300.5,-0.026329,0,170807,1024620
13311.1,-0.0263888,0,170578,1023369
13322.1,-0.0264584,0,170234,1021419
13330.9,-0.026502,0,170044,1020243
13341.9,-0.0265626,0,169854,1018990
13350.7,-0.0266142,0,169686,1018032
13361.7,-0.0266803,0,169738,1018235
13370.5,-0.0267333,0,169796,1018635
13381.6,-0.026799,0,169649,1018055
13390.4,-0.0268506,0,169395,1016542
13401.4,-0.0269142,0,169389,1016395
13410.2,-0.026965,0,169200,1015358
13421.1,-0.0270299,0,169301,1015791
13432.1,-0.0270996,0,169349,1016073
13440.9,-0.0271592,0,169267,1015511
13452,-0.0272395,0,169496,1016978
13460.8,-0.0273084,0,169343,1016173
13471.6,-0.0273985,0,169079,1014497
13482.1,-0.0274922,0,168863,1013117
13490.5,-0.0275727,0,168622,1011652
13501.2,-0.0276784,0,168628,1011991
13511.8,-0.0277888,0,168687,1012195
13520.3,-0.0278795,0,168834,1013034
13530.9,-0.0279953,0,168967,1013926
13541.5,-0.0281131,0,169371,1016154
13552.1,-0.028233,0,169479,1016665
13560.6,-0.0283304,0,169415,1016436
13571.2,-0.0284543,0,169153,1014908
13581.8,-0.0285806,0,169313,1015571
13590.3,-0.0286824,0,169331,1015700
13600.9,-0.0287989,0,169376,1016379
13611.6,-0.0292172,0,169444,1016746
13620,-0.0294973,0,169400,1016255
13630.7,-0.0298007,0,169115,1014541
13641.3,-0.0302104,0,169330,1015914
13651.9,-0.0308854,0,169315,1016045
13660.4,-0.0309627,0,169288,1015559
13671,-0.0310778,0,169095,1014492
13681.6,-0.0312099,0,169008,1014091
13690.1,-0.0313346,0,169024,1014092
13700.7,-0.0315553,0,169048,1014446
13711.3,-0.0318001,0,168992,1013765
13721.9,-0.0320446,0,168976,1013883
13730.4,-0.0322362,0,168760,1012788
13741.2,-0.0324746,0,168616,1011759
13751.9,-0.0327106,0,168591,1011341
13760.6,-0.032895,0,168469,1010901
13771.5,-0.0331277,0,168545,1011060
13780.3,-0.0333219,0,168647,1011699
13791.2,-0.0335759,0,168676,1011845
13801.7,-0.0338358,0,168513,1010916
13810.3,-0.0340604,0,168199,1009276
13821.2,-0.0343581,0,167949,1007464
13831.7,-0.0346574,0,167872,1007425
13840,-0.0349039,0,167906,1007577
13850.9,-0.0352305,0,167852,1007280
13861.6,-0.0355594,0,168032,1008060
13872,-0.0358814,0,167853,1007418
13880.4,-0.0361444,0,167839,1007287
13891.2,-0.0364844,0,168085,1008564
13902,-0.0368111,0,168108,1008557
13910.6,-0.0370614,0,167976,1007635
13921.1,-0.0373792,0,167751,1006623
13931.6,-0.0377242,0,167640,1006026
13942.1,-0.0381007,0,167421,1004640
13950.5,-0.0384176,0,167403,1004443
13961,-0.0388202,0,167540,1005122
13971.5,-0.0392255,0,167412,1004324
13981.9,-0.0396291,0,167573,1005597
13990.3,-0.0399153,0,167614,1005883
14000.8,-0.0402465,0,167626,1005751
14011.3,-0.0405632,0,167623,1006010
14021.7,-0.0408709,0,167624,1005755
14030,-0.0411156,0,167539,1005259
14040.5,-0.0414234,0,167581,1005776
14051,-0.041736,0,167463,1004712
14061.4,-0.042051,0,167525,1005217
14071.7,-0.0423675,0,167599,1005550
14080,-0.0426231,0,167442,1004522
14090.4,-0.0429422,0,167532,1005121
14100.8,-0.0432601,0,167513,1005265
14111.3,-0.0435765,0,167290,1003889
14121.7,-0.0438868,0,167299,1004012
14130.1,-0.0441295,0,167198,1003555
14140.6,-0.0444256,0,167374,1004012
14151.1,-0.0447143,0,167257,1003686
14161.5,-0.0449917,0,167327,1003947
14171.9,-0.0452528,0,167294,1003535
14180.2,-0.0454576,0,167165,1003339
14190.7,-0.0457003,0,167250,1003453
14201.1,-0.0459009,0,167249,1003571
14211.5,-0.0460449,0,167135,1002839
14221.9,-0.0459871,0,167101,1002825
14230.2,-0.0449206,0,167271,1003497
14240.7,-0.0449231,0,167318,1004006
14251.1,-0.0449304,0,167179,1003087
14261.5,-0.044929,0,166823,1001067
14271.9,-0.044912,0,166757,1000635
14280.3,-0.0448839,0,166856,1001141
14290.7,-0.0442704,0,166607,999823
14301.1,-0.0442197,0,166682,1000111
14311.6,-0.0441366,0,166789,1000564
14322.1,-0.0440355,0,166523,998961
14330.4,-0.0439463,0,166546,999553
14340.9,-0.0438269,0,166627,999636
14351.4,-0.0436995,0,166440,998455
14361.7,-0.0435388,0,166056,996115
14370,-0.0434944,0,165884,995200
14380.7,-0.0437988,0,165643,993920
14391.5,-0.0439728,0,165342,992152
14400.1,-0.0439397,0,165219,991326
14410.5,-0.0436887,0,165227,991249
14420.9,-0.0434163,0,164936,989512
14431.4,-0.0431172,0,164678,987834
14440,-0.0428476,0,164607,987645
14450.7,-0.0424947,0,164424,986299
14461.2,-0.0421355,0,164055,984298
14471.5,-0.0417694,0,163789,982621
14481.9,-0.0413902,0,163582,981555
14490.2,-0.0410764,0,163487,980907
14500.9,-0.0406575,0,163005,978092
14511.3,-0.040232,0,162859,977019
14521.7,-0.0397873,0,162675,975962
14530,-0.039422,0,162739,976444
14540.4,-0.0389501,0,162583,975687
14550.8,-0.0384615,0,162252,973521
14561.2,-0.0379604,0,162180,973321
14571.6,-0.0374465,0,161953,971480
14582,-0.0369155,0,161668,969791
14590.3,-0.0364746,0,161353,968205
14600.7,-0.035899,0,161056,966064
14611.1,-0.0352966,0,160738,964391
14621.5,-0.0346707,0,160514,963325
14631.9,-0.0340478,0,160242,961555
14640.2,-0.0335325,0,159967,959533
14650.6,-0.0328526,0,159606,957582
14661,-0.0321169,0,159387,956471
14671.4,-0.0313282,0,159441,956749
14681.8,-0.0305051,0,159115,954407
14690.2,-0.0298339,0,158636,951891
14700.6,-0.0292082,0,158618,951826
14711,-0.0290549,0,158233,949165
14721.4,-0.028418,0,157722,946251
14731.8,-0.0275654,0,157576,945421
14740.1,-0.0268429,0,157488,945019
14750.5,-0.0259569,0,157332,943928
14760.9,-0.0250955,0,157036,942165
14771.3,-0.0242342,0,156874,941369
14781.7,-0.0233615,0,156831,941138
14792.1,-0.0225001,0,156508,938867
14800.4,-0.0218185,0,156179,937104
14810.8,-0.0209328,0,155872,935076
14821.2,-0.0199752,0,155503,932965
14831.6,-0.0189446,0,155226,931532
14842,-0.017855,0,154987,930032
14850.3,-0.016943,0,154575,927418
14860.7,-0.0157423,0,154418,926311
14871.1,-0.0144942,0,154118,924481
14881.5,-0.0132452,0,153742,922312
14891.9,-0.0120217,0,153341,920011
14900.3,-0.0110599,0,153124,918615
14910.7,-0.00986862,0,152826,917208
14921.3,-0.00867455,0,152392,914468
14931.8,-0.00747929,0,151915,911534
14940.2,-0.00651882,0,151443,908739
14950.8,-0.00531096,0,151128,906719
14961.3,-0.00409414,0,150830,905008
14971.9,-0.00286742,0,150497,902743
14980.3,-0.00187861,0,150236,901575
14991.1,-0.000609228,0,149862,899286
15001.8,0.000669002,0,149683,898147
15010.5,0.00169131,0,149430,896625
15021.2,0.00296065,0,149206,895141
15031.9,0.00422135,0,148815,893102
15040.6,0.00523397,0,148360,890268
15051.6,0.00651943,0,147923,887656
15060.5,0.00754586,0,147583,885593
15071.3,0.00880492,0,147240,883288
15082,0.0100368,0,147067,882205
15090.6,0.0110217,0,146754,880460
15101.5,0.0122786,0,146170,877026
15110.3,0.0132979,0,145683,873955
15121.2,0.0145645,0,145353,872115
15131.7,0.0157835,0,145083,870649
15142.1,0.0169947,0,144696,868127
15150.6,0.018002,0,144077,864509
15161.3,0.019251,0,143535,861210
15171.7,0.0204659,0,143083,858475
15182,0.0216714,0,142688,856214
15190.5,0.0226428,0,142422,854476
15201.1,0.0238588,0,142294,853730
15211.7,0.0250404,0,142021,852321
15220,0.0259624,0,141913,851375
15230.4,0.0270961,0,141659,850061
15240.8,0.0282206,0,141547,849211
15251.5,0.0293567,0,141098,846503
15262.1,0.0304705,0,140523,843005
15270.4,0.0313409,0,140156,840906
15280.9,0.0324242,0,139756,838681
15291.6,0.0335151,0,139250,835596
15300,0.0343664,0,138796,832764
15310.5,0.0354108,0,138502,830891
15321.2,0.036463,0,138261,829794
15331.8,0.0374991,0,138150,828943
15340.4,0.0383161,0,137894,827303
15351,0.0393165,0,137414,824502
15361.4,0.0402839,0,137161,823097
15371.9,0.0412473,0,136939,821512
15380.3,0.0420035,0,136823,820832
15390.9,0.0429613,0,136548,819117
15401.6,0.0439101,0,136563,819399
15410.1,0.0446635,0,136156,817011
15420.8,0.0455981,0,135889,815307
15431.2,0.0465045,0,135627,813657
15441.6,0.0474035,0,135208,811073
15450,0.0481288,0,134914,809453
15460.6,0.0490325,0,134614,807903
15471.3,0.0499293,0,134401,806354
15482,0.0508153,0,133991,803804
15490.5,0.0515086,0,133768,802641
15501.1,0.0523437,0,133573,801432
15511.7,0.0531465,0,133219,799319
15520.3,0.0538727,0,132908,797679
15530.9,0.0546566,0,132317,794046
15541.4,0.0552783,0,131958,791594
15551.7,0.0558397,0,131486,789057
15560.1,0.0562762,0,131152,786716
15570.9,0.0568214,0,130569,783416
15581.8,0.0573297,0,130110,780613
15590.4,0.057675,0,129858,779075
15601,0.0581068,0,129423,776710
15611.5,0.0585182,0,129065,774306
15621.9,0.0594944,0,128949,773512
15630.5,0.0596334,0,128485,770873
15641.2,0.059726,0,127791,766832
15652.2,0.0597699,0,127419,764454
15660.9,0.0591078,0,127509,764962
15671.5,0.0590927,0,127137,762668
15681.9,0.0590179,0,126684,759987
15690.2,0.0586339,0,126138,756762
15700.9,0.0586193,0,125670,753788
15711.6,0.0586354,0,125392,752374
15720.1,0.0586259,0,125178,751267
15730.9,0.0586994,0,124658,747996
15741.6,0.0588191,0,124327,746068
15750,0.0588519,0,124038,744268
15760.5,0.0588334,0,123458,740729
15770.9,0.0582831,0,123122,738743
15781.5,0.0582818,0,122805,736904
15790.1,0.0582695,0,122628,735715
15800.8,0.0582336,0,122383,734215
15811.5,0.0581834,0,122175,733122
15820,0.0581556,0,121937,731508
15830.5,0.0581004,0,121333,728040
15841,0.058024,0,120832,725006
15851.7,0.0579245,0,120543,723227
15860.2,0.0578275,0,120272,721411
15870.7,0.0576882,0,119839,719152
15881.4,0.0575256,0,119586,717583
15892.1,0.057345,0,119282,715803
15900.6,0.0571894,0,119122,714797
15911.1,0.0569824,0,119003,713895
15921.5,0.056713,0,118939,713530
15931.9,0.0564098,0,118933,713356
15940.2,0.0561554,0,118471,710920
15950.6,0.0558269,0,118162,709161
15960.9,0.0554813,0,117994,707936
15971.3,0.0551129,0,117630,706013
15981.7,0.0547454,0,117508,705138
15992.1,0.0545119,0,117187,703185
16000.4,0.0542202,0,116868,700968
16010.8,0.0537385,0,116395,698442
16021.2,0.0532223,0,116225,697300
16031.7,0.0527115,0,116234,697419
16040,0.052315,0,116184,697081
16050.5,0.0518334,0,115855,695092
16061,0.0513577,0,115513,693025
16071.4,0.0508776,0,115284,691693
16081.9,0.0503796,0,114946,689617
16090.2,0.0499701,0,114733,688451
16100.8,0.0494426,0,114440,686716
16111.5,0.0489166,0,114095,684651
16120.1,0.0484602,0,113726,682447
16130.9,0.0478596,0,113492,681108
16141.3,0.0472616,0,113293,679780
16151.8,0.0466643,0,113092,678466
16160.1,0.046189,0,112845,677163
16170.6,0.045603,0,112429,674524
16181.1,0.0450248,0,111778,670797
16191.6,0.0444482,0,111347,668023
16200,0.0439811,0,110878,665080
16210.6,0.0433904,0,110359,662387
16221.2,0.0427906,0,110083,660534
16231.9,0.0421739,0,109875,659145
16240.5,0.0416746,0,109686,658154
16250.9,0.0410726,0,109603,657536
16261.3,0.040468,0,109239,655536
16271.9,0.0398489,0,108776,652433
16280.8,0.0393388,0,108428,650479
16291.9,0.0387057,0,108123,648613
16300.7,0.0382042,0,107815,646918
16311.8,0.0375894,0,107527,645020
16320.6,0.037105,0,107320,643786
16331.6,0.0365104,0,107021,642233
16340.4,0.0360444,0,106719,640394
16351,0.0354907,0,106430,638460
16361.4,0.0349528,0,105877,635329
16372,0.0344174,0,105334,631903
16380.5,0.0339909,0,105111,630638
16391,0.0334706,0,105187,631240
16401.4,0.0329613,0,104989,629853
16411.8,0.0324592,0,104664,628115
16420.1,0.0320634,0,104406,626238
16430.5,0.0315772,0,104080,624360
16440.9,0.0311015,0,103729,622459
16451.3,0.0306371,0,103527,621284
16461.7,0.0301844,0,103362,620383
16470.1,0.0298306,0,103207,619228
16480.5,0.0293983,0,102842,617212
16490.9,0.0289764,0,102468,614659
16501.2,0.0285642,0,102192,613091
16511.6,0.0281612,0,101837,610967
16522.1,0.0277664,0,101524,609127
16530.4,0.0274555,0,101329,608023
16540.8,0.0270698,0,101186,607171
16551.2,0.0266873,0,100829,605041
16561.7,0.0263102,0,100502,602864
16570.1,0.0260157,0,100290,601705
16580.5,0.0256588,0,100116,600651
16591,0.0253143,0,99956,599610
16601.4,0.0249083,0,99662,597944
16611.9,0.0238996,0,99415,596514
16620.3,0.0237122,0,99304,595814
16630.9,0.0234707,0,98814,592860
16641.5,0.023224,0,98320,589925
16650.1,0.023028,0,98020,588272
16660.8,0.0227873,0,97848,586919
16671.6,0.022553,0,97805,586682
16680.3,0.0223687,0,97616,585651
16690.9,0.0221483,0,97486,584964
16701.4,0.0219385,0,97228,583296
16711.7,0.021737,0,97009,582011
16720.3,0.0215719,0,96546,579194
16731.1,0.021361,0,96137,576775
16741.9,0.0211504,0,95906,575401
16750.6,0.0209755,0,95770,574710
16761.5,0.0207367,0,95565,573517
16770.1,0.0205612,0,95436,572509
16780.5,0.020369,0,95046,570132
16791,0.0201886,0,94577,567523
16801.3,0.0208018,0,94211,565388
16811.7,0.0206913,0,94088,564398
16820.4,0.0205811,0,94018,564087
16831.4,0.0204036,0,93663,561980
16842,0.0202674,0,93548,561253
16850.6,0.0201933,0,93375,560244
16861.1,0.0201272,0,93022,558143
16871.6,0.0212683,0,92593,555638
16882,0.0212829,0,92201,553246
16890.4,0.021296,0,91985,551841
16900.8,0.0213015,0,91897,551405
16911.3,0.021307,0,91690,550151
16921.7,0.0213167,0,91741,550460
16930.1,0.021325,0,91573,549303
16940.6,0.0213137,0,91108,546672
16951,0.021349,0,90740,544373
16961.5,0.0213785,0,90223,541282
16972,0.0213962,0,89864,539238
16980.3,0.0214018,0,89743,538398
16990.8,0.0213999,0,89924,539501
17001.3,0.021398,0,89655,537927
17011.7,0.0213894,0,89326,536018
17020.1,0.0213862,0,89291,535769
17030.6,0.0213921,0,89168,534984
17041,0.0214031,0,88938,533591
17051.5,0.0204227,0,88478,530915
17062,0.0204837,0,88403,530424
17070.4,0.0204845,0,88270,529651
17081,0.0203348,0,87999,527872
17091.6,0.019896,0,87581,525454
17100.2,0.0195463,0,87420,524651
17111.1,0.0193999,0,87295,523852
17122.1,0.0201782,0,87026,522180
17130.9,0.0202191,0,86816,520813
17142.1,0.0202973,0,86348,518117
17151.1,0.0217532,0,86096,516494
17160.2,0.0217157,0,85678,514035
17171.5,0.0216551,0,85271,511457
17180.6,0.0215982,0,85087,510333
17192,0.0215404,0,84464,506723
17201.1,0.021482,0,84039,504112
17210.2,0.0210711,0,83854,503033
17221.7,0.0205639,0,83654,501729
17230.6,0.0200233,0,83437,500648
17242.1,0.0195085,0,83122,498651
17251.4,0.0186335,0,82787,496608
17260.7,0.0194755,0,82412,494381
17270,0.0194701,0,82096,492626
17281.6,0.0194598,0,81780,490669
17290.9,0.0194343,0,81434,488577
17300.1,0.0193883,0,81354,488048
17311.7,0.0193042,0,81134,486764
17321,0.0192166,0,80936,485707
17330.3,0.0191125,0,80706,484241
17342,0.0189608,0,80287,481738
17351.3,0.0188248,0,80099,480427
17360.5,0.0186773,0,79921,479401
17372.1,0.0184792,0,79733,478375
17381.4,0.0183121,0,79642,477940
17390.7,0.0181389,0,79608,477695
17402.2,0.0179145,0,79414,476514
17411.4,0.0177292,0,79299,475861
17420.7,0.0175361,0,79188,475206
17432.3,0.0172841,0,79287,475809
17441.6,0.0170744,0,79295,475744
17450.9,0.0168569,0,79201,475116
17460.1,0.0166309,0,79079,474540
17471.7,0.0163349,0,78973,473901
17481,0.0160865,0,78985,473975
17490.3,0.0158286,0,78766,472583
17501.9,0.0154952,0,78367,470232
17511.2,0.015216,0,78298,469867
17520.5,0.014925,0,78134,468891
17532.1,0.0145438,0,77891,467347
17541.4,0.0142257,0,77888,467292
17550.7,0.0138963,0,78087,468430
17562.3,0.0134632,0,78178,468982
17571.6,0.0130959,0,78178,469075
17580.8,0.0128779,0,77947,467702
17590.1,0.012681,0,77886,467232
17601.8,0.0122681,0,77843,467020
17611.1,0.0118674,0,77843,466993
17620.4,0.0114372,0,77703,466271
17632,0.0108548,0,77449,464825
17641.3,0.0103635,0,77409,464416
17650.6,0.00985255,0,77318,463938
17662.3,0.00918508,0,77125,462826
17671.6,0.00863428,0,77024,462134
17680.9,0.0080835,0,76991,461936
17690.1,0.00752935,0,76888,461304
17701.6,0.00676827,0,76653,459878
17710.9,0.00608401,0,76593,459493
17720.1,0.00533731,0,76453,458659
17731.8,0.00325219,0,76321,457873
17741.1,0.0019817,0,76237,457438
17750.3,0.000948588,0,76021,456210
17761.9,-0.000219441,0,75810,454694
17771.2,-0.00114341,0,75803,454787
17780.5,-0.00209695,0,75884,455220
17792.2,-0.00336727,0,75660,453857
17801.5,-0.00446617,0,75430,452625
17810.8,-0.0056192,0,75159,451018
17820.1,-0.00675057,0,75020,450132
17831.7,-0.0083221,0,74726,448458
17840.9,-0.00973462,0,74550,447355
17850.1,-0.0113185,0,74400,446442
17861.6,-0.0148307,0,74254,445423
17870.6,-0.0173673,0,74215,445279
17882.2,-0.0198168,0,74255,445517
17891.5,-0.0215881,0,74212,445269
17900.6,-0.0234872,0,74009,443999
17912.2,-0.0259442,0,73540,441217
17921.6,-0.0278812,0,73216,439297
17930.9,-0.0298133,0,73088,438473
17940,-0.0317316,0,72939,437548
17951.7,-0.0342417,0,72944,437568
17961.1,-0.0362396,0,72842,437005
17970.4,-0.0381722,0,72680,436045
17982.1,-0.0404596,0,72525,435252
17991.4,-0.0421918,0,72267,433549
18000.8,-0.0438586,0,71985,431962
18010.1,-0.0454766,0,71706,430316
18021.8,-0.0474357,0,71723,430262
18031.1,-0.0489419,0,71489,428984
18040.5,-0.0503817,0,71317,427893
18052.2,-0.0520882,0,71314,427872
18061.5,-0.0533003,0,71131,426766
18070.9,-0.0534553,0,70773,424664
18080.2,-0.0543418,0,70567,423446
18091.9,-0.0556343,0,70487,422853
18101.2,-0.056297,0,70348,422107
18110.4,-0.0565284,0,69997,420036
18122.1,-0.0571719,0,69857,419106
18131.4,-0.0574067,0,69705,418282
18140.7,-0.0574836,0,69594,417495
18152.2,-0.0574078,0,69302,415821
18161.4,-0.0568799,0,69200,415171
18170.7,-0.0567914,0,69006,414029
18182.2,-0.0565698,0,68838,412981
18191.1,-0.0563061,0,68664,412026
18200.3,-0.0559726,0,68527,411156
18211.9,-0.0555181,0,68383,410272
18221,-0.0551275,0,68342,410108
18230.2,-0.054689,0,68247,409420
18241.8,-0.0540959,0,68248,409422
18251.1,-0.0535881,0,68187,409064
18260.4,-0.0530473,0,67964,407736
18271.7,-0.0523233,0,67743,406421
18280.8,-0.0517242,0,67690,406181
18292.1,-0.0509072,0,67524,405088
18301.3,-0.0501744,0,67430,404609
18310.2,-0.0492651,0,67203,403292
18321.7,-0.0479599,0,66918,401388
18331,-0.0468211,0,66708,400318
18340.4,-0.0456318,0,66568,399303
18352.1,-0.0440978,0,66379,398164
18361.4,-0.0428402,0,66110,396594
18370.8,-0.0415456,0,65719,394324
18380.2,-0.0402299,0,65392,392281
18392,-0.0385755,0,65184,391115
18401.4,-0.0370853,0,65148,390759
18410.8,-0.0353547,0,65025,390206
18420.3,-0.033368,0,64745,388543
18431.2,-0.0309644,0,64490,387010
18440.6,-0.0288756,0,64324,385950
18450.1,-0.0266785,0,63993,383935
18462,-0.0238536,0,63611,381681
18470.9,-0.0217127,0,63483,380905
18480.1,-0.0194489,0,63351,380048
18491.9,-0.0164205,0,63105,378741
18501.5,-0.0139126,0,62946,377771
18511,-0.0113963,0,62810,376795
18520.6,-0.00887086,0,62566,375364
18530.2,-0.00634416,0,62371,374261
18542.1,-0.00324046,0,62052,372377
18551.5,-0.000788271,0,61806,370899
18561,0.00166627,0,61665,370108
18570.4,0.00412534,0,61492,368946
18582.3,0.00721895,0,61220,367410
18591.8,0.00969876,0,61151,366962
18601.3,0.0121525,0,60953,365662
18610.8,0.0145629,0,60851,365158
18620.3,0.0169023,0,60907,365346
18632.1,0.0197703,0,60686,364158
18641.6,0.0220082,0,60618,363676
18651,0.0242014,0,60479,362991
18660.5,0.0263323,0,60284,361763
18672.3,0.0289194,0,60118,360712
18681.9,0.0309481,0,59861,359243
18691.5,0.0329054,0,59786,358777
18701,0.0347697,0,59615,357660
18710.4,0.0365385,0,59550,357346
18722.2,0.038625,0,59417,356393
18731.5,0.0401967,0,59398,356438
18740.9,0.0416878,0,59270,355572
18750.3,0.0430983,0,59197,355126
18762,0.0447446,0,59099,354568
18771.4,0.0459675,0,59101,354585
18780.9,0.0471145,0,59059,354392
18790.5,0.0482907,0,58881,353333
18800.1,0.0492442,0,58742,352330
18812.1,0.0502538,0,58600,351506
18821.7,0.0510075,0,58478,350950
18831.3,0.0516733,0,58480,350939
18840.8,0.0522154,0,58443,350606
18850.4,0.0531359,0,58320,349840
18862.4,0.0537846,0,58069,348440
18872,0.0542121,0,57943,347683
18881.4,0.0544858,0,57880,347248
18891,0.0547446,0,57574,345503
18900.5,0.0555511,0,57326,343879
18910.1,0.0557334,0,57129,342708
18922,0.0560244,0,56978,341864
18931.5,0.0562204,0,56981,341858
18941.1,0.056384,0,56864,341267
18950.8,0.0565304,0,56695,340070
18960.4,0.0566672,0,56761,340608
18970.1,0.0563552,0,56884,341372
18982.1,0.0565098,0,56989,341841
18991.5,0.056594,0,56709,340243
19001.3,0.0565803,0,56567,339368
19010.9,0.0566531,0,56324,337906
19020.4,0.0567634,0,56143,336849
19030.1,0.0568369,0,56069,336366
19042.3,0.0568626,0,55887,335385
19051.9,0.0554448,0,55874,335126
19061.5,0.0557353,0,55825,334895
19071.1,0.0561384,0,55750,334439
19080.7,0.0565958,0,55618,333671
19090.3,0.0570155,0,55459,332742
19102.2,0.0572573,0,55257,331622
19111.8,0.0572147,0,55164,331024
19121.3,0.0570241,0,55058,330358
19131,0.0568111,0,54962,329706
19140.8,0.0565847,0,54877,329202
19150.6,0.056336,0,54879,329324
19160.3,0.0560874,0,54818,328925
19170.2,0.0562034,0,54625,327711
19182.3,0.0563062,0,54467,326822
19191.9,0.0561321,0,54261,325588
19201.5,0.0558482,0,54144,324830
19211.7,0.0554601,0,54107,324604
19222,0.0550203,0,53940,323612
19232.3,0.05458,0,53821,322843
19242,0.0542157,0,53750,322433
19252.3,0.0538555,0,53716,322329
19262.2,0.0534629,0,53809,322838
19272.2,0.0529787,0,53754,322464
19282,0.0524814,0,53655,321999
19293.2,0.0519447,0,53698,322145
19302.3,0.0515439,0,53680,322073
19310,0.0512408,0,53622,321673
19321.7,0.0508375,0,53552,321323
19331.4,0.050532,0,53655,321947
19342.7,0.0501967,0,53834,323042
19352.5,0.0499056,0,53626,321823
19362.4,0.0495934,0,53600,321670
19370.6,0.0493212,0,53554,321240
19380.3,0.0489803,0,53424,320490
19392.5,0.0485142,0,53397,320412
19400.2,0.0481993,0,53462,320722
19411.2,0.0477257,0,53318,319939
19421,0.0472891,0,53205,319138
19431.3,0.0468138,0,53195,319222
19442.1,0.0463025,0,53196,319191
19450.8,0.0458941,0,53168,319063
19463,0.0453199,0,53124,318758
19470.3,0.0449774,0,53086,318491
19480.1,0.0445262,0,53083,318546
19490.2,0.0440616,0,52942,317677
19502.2,0.0435179,0,52733,316329
19512.1,0.0430762,0,52728,316430
19521.4,0.0426614,0,52731,316477
19530.3,0.0422702,0,52816,316931
19540.1,0.0418411,0,52731,316400
19550,0.0414105,0,52711,316292
19562.4,0.0408746,0,52619,315760
19570.6,0.0405176,0,52589,315587
19580.5,0.0400914,0,52371,314170
19590.3,0.0396698,0,52209,313326
19600.1,0.0392486,0,52131,312765
19613.2,0.0386826,0,52007,312100
19622.7,0.0382721,0,51984,311890
19630.5,0.0379342,0,52017,312073
19643.2,0.0373862,0,51998,311967
19651.2,0.0370367,0,51815,310895
19660.6,0.0366213,0,51825,310955
19672.3,0.0361026,0,51900,311411
19681,0.0357151,0,51801,310776
19690.1,0.0353111,0,51643,309859
19702,0.034774,0,51434,308646
19711.5,0.0343412,0,51234,307416
19721.3,0.0338946,0,51185,307139
19731.1,0.0334514,0,51196,307152
19740.4,0.0330233,0,51214,307263
19753,0.0324459,0,51094,306561
19762.8,0.0319967,0,50923,305518
19772.5,0.0315466,0,50779,304662
19782.3,0.0310955,0,50657,303925
19792.1,0.030643,0,50642,303857
19800.5,0.0302501,0,50744,304478
19813.1,0.0296617,0,50709,304284
19822.9,0.0292019,0,50636,303803
19832.3,0.0287551,0,50436,302647
19841.9,0.0282985,0,50264,301547
19851.4,0.0278392,0,50125,300770
19861,0.0273716,0,50066,300373
19870.7,0.0268949,0,50059,300347
19880.4,0.0264127,0,50082,300536
19890.2,0.0259212,0,50079,300477
19903.1,0.0252611,0,49911,299498
19912.5,0.0247769,0,49884,299226
19921.3,0.0243152,0,49996,300022
19931.1,0.0237936,0,49863,299221
19940.9,0.0232626,0,49718,298241
19950.6,0.022731,0,49521,297088
19960.2,0.0221995,0,49280,295706
19970.1,0.0216446,0,49166,295019
19982.9,0.0209105,0,49193,295158
19992.8,0.0203377,0,49183,295052
