time,surface_elevation,reference_data,number_of_local_cells,number_of_global_cells
0,0,0,882,5280
18.5527,0,0,850,5090
37.3129,0,0,850,5120
55.8656,0,0,870,5214
74.4183,0,0,872,5246
92.971,0,0,899,5378
111.403,0,0,917,5482
129.605,0,0,926,5540
147.806,0,0,944,5658
166.008,0,0,944,5682
184.209,0,0,961,5754
202.329,0,0,969,5820
220.448,0,0,985,5922
238.568,0,0,1002,6008
256.437,0,0,1019,6090
274.307,0,0,1028,6174
292.129,0,0,1044,6270
309.951,0,0,1055,6334
327.774,0,0,1068,6398
345.329,0,0,1081,6472
362.884,0,0,1089,6538
380.439,0,0,1105,6618
397.994,0,0,1115,6688
415.549,0,0,1126,6744
433.104,0,0,1143,6846
450.619,0,0,1154,6924
468.133,0,0,1175,7052
485.648,0,0,1190,7126
503.163,0,0,1197,7200
520.677,0,0,1216,7286
538.192,0,0,1228,7352
555.706,0,0,1242,7442
573.221,0,0,1250,7504
590.735,0,0,1269,7606
608.25,0,0,1282,7682
625.765,0,0,1293,7750
643.279,0,0,1303,7820
660.794,0,0,1319,7908
678.308,0,0,1336,8022
695.823,0,0,1351,8100
713.337,0,0,1361,8158
730.852,0,0,1374,8242
748.366,0,0,1388,8328
765.881,0,0,1399,8380
783.395,0,0,1415,8492
800.91,0,0,1430,8558
818.425,0,0,1440,8612
835.939,0,0,1448,8698
853.454,0,0,1468,8808
870.968,0,0,1498,8892
888.483,0,0,1512,8990
905.997,0,0,1500,9084
923.512,0,0,1530,9188
941.026,0,0,1553,9272
958.541,9.09495e-13,0,1566,9386
976.055,1.81899e-12,0,1582,9492
993.57,2.72848e-12,0,1594,9568
1011.08,3.63798e-12,0,1608,9652
1028.6,5.45697e-12,0,1625,9744
1046.11,7.27596e-12,0,1643,9844
1063.63,1.00044e-11,0,1655,9930
1081.14,1.36424e-11,0,1672,10016
1098.66,1.90994e-11,0,1683,10098
1116.17,2.63753e-11,0,1697,10186
1133.69,3.54703e-11,0,1714,10298
1151.2,4.72937e-11,0,1734,10388
1168.71,6.27551e-11,0,1738,10412
1186.23,8.2764e-11,0,1754,10522
1203.74,1.0732e-10,0,1766,10586
1221.26,1.38243e-10,0,1784,10699
1238.77,1.77351e-10,0,1811,10860
1256.29,2.26464e-10,0,1828,10952
1273.8,2.86491e-10,0,1838,11024
1291.32,3.61069e-10,0,1849,11092
1308.83,4.52019e-10,0,1871,11226
1326.34,5.62977e-10,0,1887,11318
1343.86,6.96673e-10,0,1903,11408
1361.37,8.58563e-10,0,1915,11494
1378.89,1.05319e-09,0,1933,11588
1396.4,1.28603e-09,0,1944,11670
1413.92,1.56433e-09,0,1968,11798
1431.43,1.8963e-09,0,1984,11906
1448.94,2.29102e-09,0,1999,11992
1466.46,2.76032e-09,0,2019,12116
1483.97,3.31602e-09,0,2037,12213
1501.49,3.97267e-09,0,2054,12323
1519,4.74756e-09,0,2068,12417
1536.52,5.6607e-09,0,2087,12523
1554.03,6.7339e-09,0,2108,12632
1571.54,7.99264e-09,0,2124,12746
1589.06,9.46511e-09,0,2146,12868
1606.57,1.11841e-08,0,2162,12972
1624.09,1.31849e-08,0,2175,13043
1641.6,1.55105e-08,0,2184,13106
1659.11,1.82063e-08,0,2206,13236
1676.63,2.1324e-08,0,2226,13340
1694.14,2.49229e-08,0,2246,13482
1711.66,2.90684e-08,0,2266,13602
1729.17,3.38332e-08,0,2278,13662
1746.68,3.92956e-08,0,2292,13762
1764.2,4.5542e-08,0,2308,13858
1781.71,5.26652e-08,0,2332,13983
1799.23,6.07624e-08,0,2354,14135
1816.74,6.99374e-08,0,2380,14269
1834.25,8.03002e-08,0,2398,14389
1851.77,9.19645e-08,0,2417,14495
1869.28,1.05051e-07,0,2433,14593
1886.8,1.19689e-07,0,2447,14675
1904.31,1.36011e-07,0,2464,14773
1921.82,1.54164e-07,0,2486,14923
1939.34,1.74301e-07,0,2506,15035
1956.85,1.96592e-07,0,2532,15181
1974.36,2.21218e-07,0,2550,15283
1991.88,2.48379e-07,0,2565,15386
2009.39,2.78349e-07,0,2585,15508
2026.9,3.1143e-07,0,2603,15611
2044.42,3.47954e-07,0,2621,15721
2061.93,3.88273e-07,0,2650,15886
2079.45,4.32764e-07,0,2671,16017
2096.96,4.81818e-07,0,2689,16136
2114.47,5.35837e-07,0,2709,16246
2131.99,5.95234e-07,0,2726,16366
2149.5,6.60429e-07,0,2741,16450
2167.01,7.31851e-07,0,2763,16580
2184.53,8.09951e-07,0,2793,16750
2202.03,8.95126e-07,0,2812,16865
2219.52,9.8795e-07,0,2830,16966
2236.97,1.08865e-06,0,2849,17106
2254.41,1.19812e-06,0,2865,17179
2271.85,1.31703e-06,0,2884,17299
2289.28,1.44602e-06,0,2902,17415
2306.7,1.58595e-06,0,2928,17559
2324.13,1.73768e-06,0,2950,17693
2341.56,1.90211e-06,0,2972,17829
2358.99,2.08176e-06,0,2992,17960
2376.42,2.27538e-06,0,3009,18059
2393.84,2.4823e-06,0,3030,18176
2411.27,2.70274e-06,0,3052,18316
2428.7,2.93445e-06,0,3070,18432
2446.13,3.17623e-06,0,3097,18575
2463.56,3.4277e-06,0,3120,18725
2480.98,3.68904e-06,0,3139,18822
2498.41,3.96096e-06,0,3163,18988
2515.84,4.24456e-06,0,3186,19115
2533.27,4.54137e-06,0,3210,19267
2550.7,4.85327e-06,0,3230,19371
2568.12,5.1825e-06,0,3260,19544
2585.55,5.53159e-06,0,3280,19672
2602.98,5.90332e-06,0,3298,19796
2620.41,6.30073e-06,0,3316,19902
2637.83,6.72696e-06,0,3343,20050
2655.26,7.18518e-06,0,3360,20160
2672.69,7.67851e-06,0,3384,20309
2690.12,8.21004e-06,0,3404,20424
2707.55,8.85447e-06,0,3432,20589
2724.97,9.55916e-06,0,3448,20689
2742.4,1.02981e-05,0,3473,20833
2759.83,1.10608e-05,0,3498,20980
2777.26,1.18467e-05,0,3526,21140
2794.69,1.26577e-05,0,3544,21250
2812.11,1.34995e-05,0,3569,21406
2829.54,1.43802e-05,0,3590,21532
2846.97,1.53102e-05,0,3608,21660
2864.4,1.63014e-05,0,3630,21780
2881.83,1.73665e-05,0,3657,21931
2899.25,1.85188e-05,0,3681,22083
2916.68,1.9776e-05,0,3703,22220
2934.11,2.11334e-05,0,3730,22368
2951.54,2.25662e-05,0,3752,22513
2968.97,2.40721e-05,0,3772,22623
2986.39,2.5659e-05,0,3798,22780
3003.82,2.73382e-05,0,3828,22952
3021.25,2.91236e-05,0,3848,23086
3038.68,3.10345e-05,0,3872,23224
3056.11,3.30985e-05,0,3892,23364
3073.53,3.85267e-05,0,3922,23519
3090.96,4.3533e-05,0,3944,23649
3108.39,4.84268e-05,0,3970,23815
3125.82,5.34093e-05,0,3990,23952
3143.25,5.84183e-05,0,4016,24088
3160.67,6.32449e-05,0,4035,24212
3178.1,6.80515e-05,0,4055,24324
3195.53,7.31831e-05,0,4083,24486
3212.96,7.90093e-05,0,4109,24646
3230.38,8.54502e-05,0,4133,24802
3247.81,9.27457e-05,0,4165,24989
3265.24,9.9962e-05,0,4189,25125
3282.67,0.000107748,0,4211,25261
3300.1,0.000129223,0,4234,25408
3317.52,0.000150123,0,4266,25588
3334.95,0.000172225,0,4288,25730
3352.38,0.000197709,0,4309,25849
3369.81,0.000220047,0,4333,25997
3387.23,0.000286723,0,4355,26141
3404.66,0.000347059,0,4386,26309
3422.09,0.000411896,0,4418,26496
3439.52,0.000476791,0,4446,26662
3456.94,0.000535788,0,4465,26795
3474.37,0.000605999,0,4490,26947
3491.8,0.000680025,0,4520,27115
3509.23,0.000759642,0,4547,27274
3526.65,0.000842352,0,4567,27400
3544.08,0.000932084,0,4591,27548
3561.51,0.00102855,0,4623,27722
3578.94,0.00113293,0,4651,27891
3596.36,0.00124903,0,4670,28024
3613.79,0.00137872,0,4699,28186
3631.22,0.00152844,0,4719,28326
3648.65,0.00170224,0,4744,28458
3666.07,0.00190396,0,4775,28647
3683.5,0.00213846,0,4802,28816
3700.93,0.00241297,0,4824,28937
3718.36,0.00273676,0,4845,29073
3735.78,0.00312083,0,4873,29233
3753.21,0.00357824,0,4899,29387
3770.64,0.00412428,0,4925,29545
3788.07,0.00477718,0,4959,29739
3805.49,0.0055576,0,4982,29902
3822.92,0.00648893,0,5008,30045
3840.35,0.00759751,0,5034,30210
3857.77,0.00891315,0,5058,30353
3875.2,0.0104692,0,5087,30525
3892.63,0.0123026,0,5118,30693
3910.06,0.0144541,0,5148,30871
3927.48,0.0169673,0,5172,31025
3944.91,0.0198893,0,5200,31197
3962.34,0.0232695,0,5222,31340
3979.76,0.0271587,0,5249,31498
3997.19,0.0316086,0,5277,31673
4014.62,0.0366706,0,5301,31799
4032.05,0.042395,0,5333,31991
4049.47,0.0488302,0,5359,32145
4066.9,0.0560211,0,5386,32317
4084.33,0.0640081,0,5411,32461
4101.75,0.0728262,0,5435,32614
4119.18,0.0825027,0,5462,32763
4136.61,0.0930564,0,5488,32933
4154.04,0.104496,0,5518,33113
4171.46,0.116819,0,5548,33274
4188.89,0.13001,0,5568,33426
4206.32,0.144041,0,5605,33613
4223.74,0.158868,0,5629,33763
4241.17,0.174434,0,5650,33893
4258.6,0.190667,0,5687,34117
4276.03,0.207479,0,5721,34312
4293.45,0.224769,0,5745,34471
4310.88,0.242422,0,5778,34668
4328.31,0.26031,0,5801,34802
4345.74,0.278292,0,5825,34940
4363.16,0.296217,0,5851,35108
4380.59,0.313926,0,5883,35290
4398.02,0.331253,0,5910,35443
4415.45,0.348027,0,5935,35600
4432.88,0.364074,0,5963,35778
4450.3,0.379219,0,5991,35952
4467.73,0.393292,0,6013,36077
4485.16,0.406125,0,6043,36245
4502.59,0.417559,0,6065,36387
4520.01,0.427442,0,6100,36590
4537.44,0.435637,0,6136,36804
4554.87,0.442017,0,6164,36968
4572.3,0.446472,0,6184,37104
4589.73,0.448911,0,6212,37260
4607.15,0.449257,0,6240,37434
4624.58,0.447457,0,6274,37627
4642.01,0.443476,0,6298,37803
4659.44,0.4373,0,6328,37957
4676.87,0.428936,0,6356,38131
4694.29,0.418412,0,6389,38324
4711.72,0.405778,0,6414,38470
4729.15,0.391101,0,6436,38621
4746.58,0.374471,0,6462,38759
4764.01,0.355992,0,6488,38911
4781.43,0.335787,0,6518,39093
4798.86,0.313994,0,6554,39317
4816.29,0.290761,0,6584,39501
4833.72,0.266253,0,6614,39675
4851.14,0.240639,0,6645,39856
4868.57,0.214098,0,6669,39999
4886,0.186814,0,6695,40155
4903.43,0.158973,0,6719,40315
4920.86,0.130765,0,6751,40497
4938.28,0.102375,0,6778,40660
4955.71,0.0739871,0,6811,40849
4973.14,0.0457814,0,6843,41057
4990.57,0.0179304,0,6876,41245
5007.99,-0.00940146,0,6904,41430
5025.42,-0.036059,0,6928,41568
5042.85,-0.0618979,0,6956,41742
5060.28,-0.0867859,0,6988,41934
5077.71,-0.110603,0,7023,42133
5095.13,-0.133244,0,7045,42275
5112.56,-0.154616,0,7079,42469
5129.99,-0.174642,0,7107,42625
5147.42,-0.193258,0,7131,42791
5164.84,-0.210417,0,7165,42977
5182.27,-0.226082,0,7194,43154
5199.7,-0.240234,0,7219,43297
5217.13,-0.252865,0,7251,43499
5234.56,-0.26398,0,7278,43673
5251.98,-0.273598,0,7312,43867
5269.41,-0.281745,0,7340,44037
5286.84,-0.28846,0,7367,44204
5304.27,-0.293792,0,7397,44386
5321.7,-0.297794,0,7430,44565
5339.12,-0.300531,0,7462,44765
5356.55,-0.30207,0,7494,44959
5373.98,-0.302485,0,7523,45122
5391.41,-0.301852,0,7552,45309
5408.83,-0.300252,0,7584,45496
5426.26,-0.297766,0,7614,45676
5443.69,-0.294476,0,7643,45852
5461.12,-0.290465,0,7677,46045
5478.55,-0.285814,0,7707,46227
5495.97,-0.280602,0,7737,46410
5513.4,-0.274907,0,7769,46608
5530.83,-0.268804,0,7801,46808
5548.26,-0.262363,0,7830,46966
5565.69,-0.255653,0,7854,47117
5583.11,-0.248736,0,7889,47323
5600.54,-0.241671,0,7918,47503
5617.97,-0.234513,0,7948,47685
5635.4,-0.22731,0,7978,47865
5652.82,-0.220109,0,8008,48043
5670.25,-0.212948,0,8040,48243
5687.68,-0.205863,0,8076,48441
5705.11,-0.198884,0,8105,48616
5722.54,-0.192039,0,8131,48790
5739.96,-0.185348,0,8169,49020
5757.39,-0.17883,0,8201,49200
5774.82,-0.172499,0,8227,49360
5792.25,-0.166365,0,8255,49533
5809.68,-0.160435,0,8289,49719
5827.1,-0.154715,0,8316,49888
5844.53,-0.149204,0,8346,50082
5861.96,-0.143903,0,8388,50312
5879.39,-0.138809,0,8415,50488
5896.82,-0.133917,0,8449,50700
5914.24,-0.129221,0,8482,50887
5931.67,-0.124712,0,8510,51059
5949.1,-0.120383,0,8548,51277
5966.53,-0.116225,0,8576,51451
5983.96,-0.112226,0,8599,51590
6001.38,-0.108377,0,8633,51790
6018.81,-0.104668,0,8666,51988
6036.24,-0.101087,0,8699,52185
6053.67,-0.0976248,0,8735,52407
6071.09,-0.0942702,0,8769,52601
6088.52,-0.0910137,0,8795,52765
6105.95,-0.0878458,0,8825,52937
6123.38,-0.0847575,0,8855,53132
6140.81,-0.0817405,0,8888,53334
6158.23,-0.0787869,0,8927,53547
6175.66,-0.0758898,0,8956,53729
6193.09,-0.0730427,0,8988,53924
6210.52,-0.0702398,0,9016,54092
6227.95,-0.0674763,0,9042,54258
6245.37,-0.0647477,0,9078,54474
6262.8,-0.0620505,0,9114,54682
6280.23,-0.0593817,0,9145,54866
6297.66,-0.0567388,0,9178,55060
6315.09,-0.0541202,0,9208,55243
6332.51,-0.0515247,0,9242,55442
6349.94,-0.0489515,0,9274,55639
6367.37,-0.0464005,0,9310,55849
6384.8,-0.0438719,0,9330,55965
6402.23,-0.0413663,0,9366,56181
6419.65,-0.0388848,0,9405,56417
6437.08,-0.0364287,0,9439,56624
6454.51,-0.0339994,0,9465,56796
6471.94,-0.0315988,0,9506,57028
6489.37,-0.0292288,0,9538,57225
6506.79,-0.0268916,0,9570,57424
6524.22,-0.0245892,0,9612,57655
6541.65,-0.0223241,0,9632,57794
6559.08,-0.0200985,0,9668,58008
6576.51,-0.0179147,0,9701,58209
6593.93,-0.0157749,0,9737,58406
6611.36,-0.0136815,0,9765,58593
6628.79,-0.0116366,0,9792,58749
6646.22,-0.00964216,0,9826,58942
6663.65,-0.00770011,0,9858,59148
6681.07,-0.0058122,0,9889,59333
6698.5,-0.00398002,0,9927,59546
6715.93,-0.00220496,0,9947,59686
6733.36,-0.000488201,0,9979,59864
6750.79,0.00116927,0,10011,60059
6768.21,0.00276671,0,10046,60273
6785.64,0.00430361,0,10076,60450
6803.07,0.00577969,0,10104,60624
6820.5,0.00719492,0,10142,60827
6837.93,0.00854953,0,10175,61050
6855.35,0.009844,0,10209,61238
6872.78,0.011079,0,10238,61414
6890.21,0.0122556,0,10263,61576
6907.64,0.013375,0,10295,61782
6925.07,0.0144386,0,10329,61962
6942.49,0.015448,0,10361,62164
6959.92,0.0164052,0,10397,62379
6977.35,0.0173123,0,10425,62547
6994.78,0.0181716,0,10454,62721
7012.21,0.0189855,0,10484,62894
7029.63,0.0197567,0,10520,63108
7047.06,0.020488,0,10550,63301
7064.49,0.0211823,0,10575,63464
7081.92,0.0218426,0,10613,63662
7099.34,0.0224722,0,10643,63863
7116.77,0.0230742,0,10675,64045
7134.2,0.023652,0,10697,64196
7151.63,0.0242089,0,10732,64402
7169.06,0.0247481,0,10772,64618
7186.48,0.0252732,0,10801,64791
7203.91,0.0257874,0,10830,64973
7221.34,0.026294,0,10867,65188
7238.77,0.0267962,0,10901,65395
7256.2,0.0272972,0,10929,65563
7273.62,0.0277999,0,10957,65736
7291.05,0.0283074,0,10991,65933
7308.48,0.0288222,0,11027,66151
7325.91,0.0293471,0,11056,66339
7343.34,0.0298844,0,11086,66510
7360.76,0.0304363,0,11124,66740
7378.19,0.0310047,0,11156,66938
7395.62,0.0315915,0,11190,67136
7413.05,0.032198,0,11226,67343
7430.48,0.0328256,0,11252,67508
7447.9,0.0334752,0,11290,67724
7465.33,0.0341475,0,11314,67877
7482.76,0.0348429,0,11349,68077
7500.19,0.0355616,0,11381,68279
7517.62,0.0363033,0,11406,68438
7535.04,0.0370676,0,11438,68619
7552.47,0.0378537,0,11470,68813
7569.9,0.0386607,0,11498,68994
7587.33,0.0394872,0,11535,69213
7604.75,0.0403315,0,11571,69410
7622.18,0.0411918,0,11598,69578
7639.61,0.042066,0,11624,69730
7657.04,0.0429516,0,11664,69977
7674.47,0.043846,0,11703,70210
7691.89,0.0447465,0,11733,70395
7709.32,0.0456498,0,11766,70588
7726.75,0.0465528,0,11796,70767
7744.18,0.0474521,0,11827,70953
7761.61,0.048344,0,11853,71119
7779.03,0.049225,0,11888,71333
7796.46,0.0500911,0,11927,71547
7813.89,0.0509385,0,11957,71743
7831.32,0.0517632,0,11983,71887
7848.75,0.0525613,0,12013,72074
7866.17,0.0533288,0,12050,72300
7883.6,0.0540615,0,12084,72487
7901.03,0.0547557,0,12116,72702
7918.46,0.0554073,0,12151,72897
7935.89,0.0560125,0,12185,73099
7953.31,0.0565676,0,12213,73267
7970.74,0.057069,0,12253,73502
7988.17,0.0575132,0,12283,73697
8005.6,0.0578969,0,12313,73862
8023.02,0.0582169,0,12343,74030
8040.45,0.0584704,0,12376,74242
8057.88,0.0586545,0,12408,74444
8075.31,0.0587668,0,12446,74661
8092.74,0.058805,0,12474,74837
8110.16,0.0587672,0,12507,75021
8127.59,0.0586515,0,12537,75206
8145.02,0.0584565,0,12563,75382
8162.45,0.058181,0,12609,75626
8179.88,0.0578241,0,12635,75795
8197.3,0.0573852,0,12665,75993
8214.73,0.056864,0,12701,76178
8232.16,0.0562604,0,12729,76374
8249.59,0.0555747,0,12765,76602
8267.01,0.0548075,0,12795,76787
8284.44,0.0539595,0,12840,77020
8301.87,0.053032,0,12870,77235
8319.3,0.0520263,0,12900,77388
8336.73,0.0509441,0,12928,77566
8354.15,0.0497873,0,12965,77806
8371.58,0.0485582,0,12994,77958
8389.01,0.047259,0,13029,78152
8406.44,0.0458924,0,13064,78363
8423.87,0.0444613,0,13096,78569
8441.29,0.0429687,0,13124,78749
8458.72,0.0414179,0,13164,78959
8476.15,0.0398123,0,13197,79166
8493.58,0.0381554,0,13224,79337
8511,0.036451,0,13248,79497
8528.43,0.0347029,0,13293,79747
8545.86,0.0329151,0,13325,79947
8563.29,0.0310916,0,13355,80107
8580.72,0.0292366,0,13391,80320
8598.14,0.0273543,0,13419,80485
8615.57,0.0254489,0,13445,80687
8633,0.0235246,0,13490,80917
8650.43,0.0215858,0,13527,81135
8667.85,0.0196369,0,13559,81351
8685.28,0.0176821,0,13601,81574
8702.71,0.0157257,0,13627,81758
8720.14,0.013772,0,13657,81913
8737.57,0.0118252,0,13692,82133
8754.99,0.00988947,0,13727,82338
8772.42,0.0079688,0,13759,82549
8789.85,0.00606719,0,13785,82727
8807.28,0.0041885,0,13820,82907
8824.71,0.00233648,0,13854,83120
8842.13,0.000514733,0,13898,83368
8859.56,-0.00127325,0,13922,83546
8876.99,-0.00302414,0,13964,83764
8894.42,-0.00473475,0,13984,83919
8911.84,-0.0064021,0,14024,84122
8929.27,-0.00802333,0,14062,84382
8946.7,-0.00959582,0,14095,84582
8964.13,-0.0111171,0,14126,84741
8981.56,-0.012585,0,14162,84988
8998.98,-0.0139974,0,14192,85146
9016.41,-0.0153524,0,14226,85351
9033.84,-0.0166486,0,14260,85561
9051.27,-0.0178845,0,14293,85771
9068.7,-0.0190588,0,14323,85931
9086.12,-0.0201708,0,14359,86153
9103.55,-0.0212195,0,14393,86372
9120.98,-0.0222046,0,14428,86584
9138.41,-0.0231257,0,14460,86765
9155.84,-0.0239828,0,14497,86959
9173.26,-0.0247759,0,14527,87163
9190.69,-0.0255055,0,14561,87352
9208.12,-0.026172,0,14589,87550
9225.55,-0.0267763,0,14631,87794
9242.97,-0.0273193,0,14659,87950
9260.4,-0.027802,0,14685,88128
9277.83,-0.0282258,0,14725,88334
9295.26,-0.0285921,0,14754,88502
9312.69,-0.0289025,0,14784,88718
9330.11,-0.0291587,0,14827,88940
9347.54,-0.0293626,0,14855,89119
9364.97,-0.0295162,0,14881,89294
9382.4,-0.0296215,0,14911,89459
9399.83,-0.0296807,0,14940,89639
9417.25,-0.0296961,0,14988,89890
9434.68,-0.0296699,0,15012,90086
9452.11,-0.0296045,0,15048,90279
9469.54,-0.0295023,0,15078,90462
9486.97,-0.0293658,0,15098,90612
9504.39,-0.0291974,0,15131,90785
9521.82,-0.0289994,0,15165,90988
9539.25,-0.0287743,0,15188,91136
9556.68,-0.0285245,0,15229,91372
9574.11,-0.0282522,0,15257,91547
9591.53,-0.0279598,0,15287,91722
9608.96,-0.0276494,0,15331,91975
9626.39,-0.0273233,0,15359,92126
9643.82,-0.0269836,0,15381,92296
9661.25,-0.0266325,0,15413,92471
9678.67,-0.0262719,0,15437,92608
9696.1,-0.0259038,0,15460,92783
9713.53,-0.02553,0,15492,92961
9730.96,-0.0251523,0,15529,93147
9748.39,-0.0247722,0,15554,93295
9765.81,-0.0243911,0,15575,93466
9783.24,-0.0240104,0,15601,93607
9800.67,-0.0236312,0,15637,93814
9818.1,-0.0232546,0,15665,93987
9835.53,-0.0228816,0,15704,94195
9852.95,-0.0225129,0,15725,94364
9870.38,-0.0221493,0,15750,94518
9887.81,-0.0217915,0,15775,94667
9905.24,-0.02144,0,15809,94856
9922.66,-0.0210952,0,15831,95003
9940.09,-0.0207575,0,15861,95138
9957.52,-0.020427,0,15890,95329
9974.95,-0.0201041,0,15906,95453
9992.38,-0.0197886,0,15948,95681
10009.8,-0.0194805,0,15974,95853
10027.2,-0.0191797,0,16000,95991
10044.7,-0.018886,0,16029,96166
10062.1,-0.0185989,0,16055,96305
10079.5,-0.0183183,0,16081,96457
10096.9,-0.0180437,0,16105,96633
10114.4,-0.0177747,0,16137,96825
10131.8,-0.0175108,0,16163,96958
10149.2,-0.0172516,0,16175,97068
10166.7,-0.0169966,0,16214,97272
10184.1,-0.0167453,0,16242,97446
10201.5,-0.016497,0,16268,97584
10218.9,-0.0162514,0,16292,97762
10236.4,-0.0160078,0,16320,97898
10253.8,-0.0157656,0,16347,98079
10271.2,-0.0155244,0,16374,98238
10288.7,-0.0152837,0,16399,98384
10306.1,-0.0150428,0,16417,98509
10323.5,-0.0148013,0,16450,98674
10340.9,-0.0145586,0,16464,98794
10358.4,-0.0143143,0,16494,98974
10375.8,-0.0140679,0,16523,99115
10393.2,-0.013819,0,16548,99276
10410.6,-0.0135669,0,16582,99487
10428.1,-0.0133114,0,16600,99608
10445.5,-0.0130521,0,16630,99787
10462.9,-0.0127884,0,16652,99921
10480.4,-0.0125201,0,16673,100051
10497.8,-0.0122469,0,16703,100207
10515.2,-0.0119685,0,16731,100399
10532.6,-0.0116849,0,16759,100555
10550.1,-0.0113959,0,16783,100708
10567.5,-0.0111014,0,16805,100838
10584.9,-0.0108014,0,16829,100968
10602.4,-0.010496,0,16855,101134
10619.8,-0.010185,0,16888,101305
10637.2,-0.0098684,0,16912,101449
10654.6,-0.00954627,0,16935,101608
10672.1,-0.00921866,0,16967,101788
10689.5,-0.0088857,0,16990,101919
10706.9,-0.00854762,0,17014,102063
10724.4,-0.00820472,0,17034,102211
10741.8,-0.0078574,0,17062,102367
10759.2,-0.00750609,0,17093,102540
10776.6,-0.00715125,0,17109,102669
10794.1,-0.00679336,0,17141,102856
10811.5,-0.00643287,0,17170,103011
10828.9,-0.00607026,0,17190,103147
10846.3,-0.00570602,0,17215,103289
10863.8,-0.00534074,0,17241,103422
10881.2,-0.00497507,0,17261,103564
10898.6,-0.00460973,0,17289,103732
10916.1,-0.00424556,0,17319,103899
10933.5,-0.00388343,0,17347,104054
10950.9,-0.00352424,0,17365,104197
10968.3,-0.00316889,0,17395,104380
10985.8,-0.00281825,0,17425,104533
11003.2,-0.00247313,0,17448,104678
11020.6,-0.00213427,0,17470,104795
11038.1,-0.00180234,0,17492,104948
11055.5,-0.00147798,0,17514,105102
11072.9,-0.00116179,0,17540,105234
11090.3,-0.000854373,0,17569,105421
11107.8,-0.000556345,0,17595,105541
11125.2,-0.000268359,0,17615,105687
11142.6,8.89427e-06,0,17640,105829
11160,0.000274689,0,17665,105967
11177.5,0.000528277,0,17686,106129
11194.9,0.000768904,0,17713,106285
11212.3,0.000995828,0,17733,106410
11229.8,0.00120834,0,17761,106573
11247.2,0.00140575,0,17788,106739
11264.6,0.00158743,0,17813,106877
11282,0.00175279,0,17846,107057
11299.5,0.00190127,0,17866,107190
11316.9,0.00203237,0,17886,107321
11334.3,0.0021456,0,17906,107440
11351.8,0.00224054,0,17929,107554
11369.2,0.00231679,0,17949,107711
11386.6,0.002374,0,17977,107842
11404,0.00241188,0,17999,108004
11421.5,0.00243017,0,18031,108193
11438.9,0.00242864,0,18060,108358
11456.3,0.00240714,0,18088,108513
11473.8,0.00236553,0,18116,108672
11491.2,0.00230375,0,18130,108788
11508.6,0.00222177,0,18156,108948
11526,0.00211963,0,18187,109125
11543.5,0.00199741,0,18210,109278
11560.9,0.00185527,0,18244,109460
11578.3,0.00169341,0,18268,109617
11595.7,0.00151211,0,18292,109762
11613.2,0.00131169,0,18313,109882
11630.6,0.00109255,0,18338,110030
11648,0.00085515,0,18360,110171
11665.5,0.000598575,0,18392,110333
11682.9,0.000324043,0,18406,110454
11700.3,3.05233e-05,0,18441,110648
11717.7,-0.000278572,0,18461,110779
11735.2,-0.000601248,0,18483,110915
11752.6,-0.000934036,0,18511,111076
11770,-0.00127803,0,18531,111198
11787.5,-0.00163328,0,18553,111328
11804.9,-0.00200131,0,18578,111468
11822.3,-0.00238113,0,18604,111648
11839.7,-0.00277271,0,18639,111825
11857.2,-0.00317464,0,18665,111979
11874.6,-0.00358646,0,18691,112121
11892,-0.00400663,0,18712,112248
11909.5,-0.00443424,0,18737,112397
11926.9,-0.00486772,0,18757,112519
11944.3,-0.00530616,0,18777,112667
11961.7,-0.00574831,0,18796,112791
11979.2,-0.00619338,0,18828,112989
11996.6,-0.00664025,0,18860,113136
12014,-0.00708807,0,18882,113273
12031.4,-0.00753573,0,18900,113404
12048.9,-0.00798239,0,18922,113536
12066.3,-0.00842711,0,18946,113672
12083.7,-0.00886919,0,18970,113823
12101.2,-0.00930784,0,18998,113981
12118.6,-0.00974242,0,19024,114150
12136,-0.0101722,0,19055,114333
12153.4,-0.0105966,0,19075,114429
12170.9,-0.0110148,0,19095,114564
12188.3,-0.0114262,0,19117,114705
12205.7,-0.0118301,0,19144,114861
12223.2,-0.0122258,0,19161,114982
12240.6,-0.0126128,0,19197,115174
12258,-0.0129906,0,19222,115321
12275.4,-0.0133587,0,19246,115485
12292.9,-0.0137167,0,19270,115618
12310.3,-0.0140645,0,19287,115732
12327.7,-0.0144017,0,19318,115901
12345.1,-0.0147279,0,19338,116018
12362.6,-0.0150431,0,19361,116174
12380,-0.0153469,0,19389,116346
12397.4,-0.0156392,0,19416,116477
12414.9,-0.0159198,0,19436,116601
12432.3,-0.0161885,0,19458,116755
12449.7,-0.0164452,0,19482,116893
12467.1,-0.0166899,0,19516,117069
12484.6,-0.0169224,0,19532,117201
12502,-0.0171426,0,19560,117369
12519.4,-0.0173505,0,19587,117500
12536.9,-0.0175459,0,19609,117658
12554.3,-0.0177288,0,19631,117778
12571.7,-0.0178991,0,19653,117911
12589.1,-0.0180566,0,19679,118062
12606.6,-0.0182014,0,19709,118235
12624,-0.0183333,0,19735,118412
12641.4,-0.0184523,0,19760,118571
12658.9,-0.0185584,0,19784,118711
12676.3,-0.0186515,0,19812,118854
12693.7,-0.0187317,0,19827,118974
12711.1,-0.018799,0,19845,119093
12728.6,-0.0188533,0,19867,119192
12746,-0.0188947,0,19895,119363
12763.4,-0.0189231,0,19921,119508
12780.8,-0.0189385,0,19940,119642
12798.3,-0.018941,0,19965,119768
12815.7,-0.0189404,0,19981,119865
12833.1,-0.0189255,0,20001,120006
12850.6,-0.0189232,0,20027,120139
12868,-0.0188476,0,20045,120287
12885.4,-0.018771,0,20063,120400
12902.8,-0.0186797,0,20095,120591
12920.3,-0.0185906,0,20125,120729
12937.7,-0.0184859,0,20148,120881
12955.1,-0.0183762,0,20166,120992
12972.6,-0.0182559,0,20184,121113
12990,-0.0181222,0,20209,121227
13007.4,-0.017972,0,20231,121359
13024.8,-0.0177962,0,20245,121483
13042.3,-0.0176153,0,20270,121625
13059.7,-0.0174262,0,20290,121734
13077.1,-0.0172289,0,20308,121840
13094.6,-0.0170174,0,20324,121929
13112,-0.016792,0,20344,122046
13129.4,-0.0165527,0,20358,122158
13146.8,-0.0163017,0,20378,122256
13164.3,-0.0160389,0,20398,122380
13181.7,-0.0157647,0,20421,122498
13199.1,-0.0154782,0,20431,122584
13216.5,-0.0151798,0,20447,122687
13234,-0.0148694,0,20461,122783
13251.4,-0.0145475,0,20477,122868
13268.8,-0.0142147,0,20489,122932
13286.3,-0.0138716,0,20507,123039
13303.7,-0.0135185,0,20519,123126
13321.1,-0.0131557,0,20538,123217
13338.5,-0.0127831,0,20556,123320
13356,-0.0124005,0,20568,123413
13373.4,-0.0120077,0,20579,123474
13390.8,-0.0116051,0,20587,123527
13408.3,-0.011193,0,20600,123597
13425.7,-0.010772,0,20611,123666
13443.1,-0.0103431,0,20622,123721
13460.5,-0.00990694,0,20635,123798
13478,-0.00946428,0,20643,123841
13495.4,-0.0090156,0,20654,123912
13512.8,-0.00856129,0,20656,123924
13530.3,-0.00810161,0,20668,124014
13547.7,-0.00763681,0,20679,124060
13565.1,-0.00716723,0,20681,124098
13582.5,-0.00669331,0,20692,124147
13600,-0.00621562,0,20698,124175
13617.4,-0.00573482,0,20710,124246
13634.8,-0.00525159,0,20723,124340
13652.2,-0.00476658,0,20735,124398
13669.7,-0.00428036,0,20737,124416
13687.1,-0.00379339,0,20745,124459
13704.5,-0.00330605,0,20749,124497
13722,-0.00281869,0,20766,124594
13739.4,-0.00233163,0,20774,124628
13756.8,-0.00184526,0,20776,124639
13774.2,-0.00136002,0,20787,124711
13791.7,-0.000876429,0,20796,124775
13809.1,-0.000395056,0,20803,124813
13826.5,8.35037e-05,0,20826,124950
13844,0.000558665,0,20826,124954
13861.4,0.00102988,0,20839,125020
13878.8,0.00149667,0,20837,125022
13896.2,0.0019586,0,20842,125057
13913.7,0.00241532,0,20859,125146
13931.1,0.0028665,0,20876,125251
13948.5,0.00331186,0,20886,125312
13965.9,0.00375112,0,20883,125312
13983.4,0.004184,0,20891,125339
14000.8,0.00461022,0,20893,125363
14018.2,0.0050295,0,20902,125407
14035.7,0.00544153,0,20911,125459
14053.1,0.00584602,0,20911,125476
14070.5,0.00624269,0,20926,125545
14087.9,0.00663123,0,20936,125611
14105.4,0.00701139,0,20942,125652
14122.8,0.00738291,0,20955,125715
14140.2,0.00774558,0,20962,125774
14157.7,0.00809919,0,20971,125810
14175.1,0.00844358,0,20971,125826
14192.5,0.00877861,0,20980,125851
14209.9,0.00910418,0,20988,125909
14227.4,0.00942019,0,20991,125936
14244.8,0.00972659,0,20993,125975
14262.2,0.0100233,0,21000,126009
14279.7,0.0103104,0,21008,126041
14297.1,0.0105878,0,21014,126065
14314.5,0.0108555,0,21021,126114
14331.9,0.0111135,0,21019,126136
14349.4,0.0113619,0,21028,126159
14366.8,0.0116008,0,21036,126193
14384.2,0.0118301,0,21032,126201
14401.6,0.0120502,0,21045,126248
14419.1,0.0122609,0,21047,126278
14436.5,0.0124624,0,21043,126267
14453.9,0.0126549,0,21043,126258
14471.4,0.0128384,0,21047,126297
14488.8,0.013013,0,21056,126312
14506.2,0.0131789,0,21053,126329
14523.6,0.0133361,0,21064,126356
14541.1,0.0134849,0,21061,126349
14558.5,0.0136252,0,21053,126329
14575.9,0.0137573,0,21067,126382
14593.4,0.0138813,0,21074,126430
14610.8,0.0139973,0,21076,126473
14628.2,0.0141055,0,21081,126467
14645.6,0.014206,0,21085,126526
14663.1,0.0142991,0,21095,126542
14680.5,0.0143848,0,21098,126588
14697.9,0.0144634,0,21105,126641
14715.3,0.0145349,0,21111,126676
14732.8,0.0145996,0,21115,126693
14750.2,0.0146576,0,21119,126709
14767.6,0.0147091,0,21121,126727
14785.1,0.0147541,0,21122,126743
14802.5,0.0147929,0,21134,126785
14819.9,0.0148256,0,21134,126787
14837.3,0.0148523,0,21132,126802
14854.8,0.0148731,0,21138,126813
14872.2,0.0148883,0,21141,126843
14889.6,0.0148978,0,21141,126870
14907.1,0.0149018,0,21149,126890
14924.5,0.0149005,0,21148,126903
14941.9,0.014894,0,21158,126931
14959.3,0.0148822,0,21160,126961
14976.8,0.0148655,0,21162,126975
14994.2,0.0148438,0,21170,126998
15011.6,0.0148173,0,21162,126990
15029.1,0.0147861,0,21168,126999
15046.5,0.0147502,0,21177,127049
15063.9,0.0147098,0,21181,127064
15081.3,0.0146649,0,21187,127096
15098.8,0.0146156,0,21195,127156
15116.2,0.014562,0,21197,127159
15133.6,0.0145042,0,21196,127178
15151,0.0144422,0,21202,127197
15168.5,0.014376,0,21204,127209
15185.9,0.0143059,0,21210,127240
15203.3,0.0142317,0,21209,127226
15220.8,0.0141535,0,21209,127230
15238.2,0.0140715,0,21208,127224
15255.6,0.0139856,0,21210,127235
15273,0.0138958,0,21210,127240
15290.5,0.0138023,0,21208,127258
15307.9,0.0137051,0,21214,127284
15325.3,0.0136041,0,21213,127250
15342.8,0.0134995,0,21208,127270
15360.2,0.0133913,0,21210,127283
15377.6,0.0132794,0,21212,127276
15395,0.013164,0,21212,127294
15412.5,0.0130451,0,21217,127288
15429.9,0.0129227,0,21207,127253
15447.3,0.0127968,0,21206,127244
15464.8,0.0126675,0,21209,127248
15482.2,0.0125348,0,21201,127226
15499.6,0.0123988,0,21207,127243
15517,0.0122593,0,21210,127255
15534.5,0.0121166,0,21212,127288
15551.9,0.0119707,0,21224,127331
15569.3,0.011822,0,21213,127298
15586.7,0.0116704,0,21227,127339
15604.2,0.0115159,0,21226,127362
15621.6,0.0113583,0,21229,127375
15639,0.011197,0,21231,127372
15656.5,0.0110316,0,21234,127388
15673.9,0.010862,0,21232,127398
15691.3,0.0106881,0,21230,127374
15708.7,0.0105101,0,21233,127396
15726.2,0.0103282,0,21229,127380
15743.6,0.0101427,0,21231,127377
15761,0.00995424,0,21231,127369
15778.5,0.00976289,0,21229,127364
15795.9,0.00956877,0,21234,127405
15813.3,0.00937169,0,21239,127423
15830.7,0.0091715,0,21237,127417
15848.2,0.00896796,0,21234,127395
15865.6,0.00876094,0,21224,127340
15883,0.00855025,0,21224,127352
15900.5,0.00833582,0,21229,127359
15917.9,0.00811756,0,21229,127363
15935.3,0.00789549,0,21239,127419
15952.7,0.00766962,0,21235,127406
15970.2,0.00743996,0,21232,127386
15987.6,0.00720651,0,21232,127393
16005,0.00696922,0,21231,127382
16022.4,0.00672803,0,21233,127399
16039.9,0.00648287,0,21233,127397
16057.3,0.00623369,0,21231,127380
16074.7,0.0059805,0,21233,127389
16092.2,0.00572336,0,21230,127384
16109.6,0.00546236,0,21232,127394
16127,0.00519766,0,21228,127370
16144.4,0.00492943,0,21228,127362
16161.9,0.00465787,0,21234,127398
16179.3,0.00438313,0,21234,127388
16196.7,0.00410539,0,21230,127375
16214.2,0.00382478,0,21234,127387
16231.6,0.00354143,0,21230,127386
16249,0.0032555,0,21234,127389
16266.4,0.00296713,0,21224,127347
16283.9,0.00267648,0,21225,127360
16301.3,0.00238375,0,21229,127366
16318.7,0.00208913,0,21231,127387
16336.1,0.00179284,0,21234,127389
16353.6,0.00149513,0,21232,127399
16371,0.00119623,0,21238,127427
16388.4,0.000896419,0,21242,127457
16405.9,0.000595961,0,21242,127453
16423.3,0.000295156,0,21244,127463
16440.7,-5.67112e-06,0,21242,127436
16458.1,-0.000306171,0,21242,127437
16475.6,-0.000605965,0,21242,127452
16493,-0.000904651,0,21240,127433
16510.4,-0.00120181,0,21243,127457
16527.9,-0.00149702,0,21239,127437
16545.3,-0.00178984,0,21236,127412
16562.7,-0.00207987,0,21236,127401
16580.1,-0.00236668,0,21236,127409
16597.6,-0.00264984,0,21236,127415
16615,-0.00292889,0,21236,127417
16632.4,-0.00320331,0,21232,127386
16649.9,-0.00347251,0,21232,127385
16667.3,-0.00373583,0,21236,127419
16684.8,-0.00399324,0,21244,127448
16702.2,-0.0042432,0,21242,127460
16719.7,-0.00448494,0,21244,127469
16737.2,-0.00471767,0,21248,127489
16754.7,-0.00494066,0,21258,127540
16772.1,-0.00515264,0,21260,127554
16789.5,-0.0053536,0,21266,127579
16806.9,-0.00554297,0,21260,127562
16824.4,-0.00572022,0,21264,127569
16841.8,-0.00588486,0,21265,127578
16859.2,-0.00603644,0,21265,127584
16876.7,-0.00617456,0,21267,127592
16894.1,-0.00629883,0,21264,127574
16911.5,-0.00640893,0,21258,127548
16928.9,-0.00650455,0,21258,127556
16946.4,-0.00658538,0,21264,127580
16963.8,-0.0066511,0,21258,127543
16981.2,-0.00670137,0,21258,127531
16998.7,-0.00673577,0,21258,127536
17016.1,-0.00675386,0,21258,127550
17033.5,-0.00675517,0,21264,127573
17050.9,-0.00673923,0,21256,127536
17068.4,-0.00681938,0,21252,127520
17085.8,-0.0067576,0,21254,127531
17103.2,-0.00667047,0,21256,127539
17120.6,-0.0065553,0,21260,127553
17138.1,-0.00638488,0,21256,127539
17155.5,-0.00622848,0,21256,127525
17172.9,-0.00607352,0,21250,127503
17190.4,-0.00591199,0,21246,127465
17207.8,-0.00574024,0,21242,127454
17225.2,-0.00554246,0,21232,127397
17242.6,-0.00533023,0,21236,127407
17260.1,-0.00509917,0,21238,127427
17277.5,-0.00485705,0,21240,127445
17294.9,-0.00459887,0,21238,127419
17312.4,-0.00432224,0,21240,127443
17329.8,-0.00402391,0,21242,127450
17347.2,-0.00370307,0,21238,127435
17364.6,-0.00336229,0,21236,127406
17382.1,-0.00300376,0,21232,127403
17399.5,-0.00262957,0,21240,127430
17416.9,-0.00224093,0,21238,127440
17434.3,-0.00183946,0,21244,127455
17451.8,-0.00142573,0,21244,127453
17469.2,-0.00100026,0,21240,127446
17486.6,-0.000563165,0,21239,127417
17504.1,-0.00011511,0,21235,127404
17521.5,0.000343172,0,21241,127429
17538.9,0.000810326,0,21244,127455
17556.3,0.00128513,0,21244,127458
17573.8,0.00176628,0,21249,127486
17591.2,0.00225283,0,21249,127486
17608.6,0.00274384,0,21249,127494
17626.1,0.00323839,0,21247,127479
17643.5,0.00373538,0,21252,127504
17660.9,0.00423368,0,21254,127516
17678.3,0.00473194,0,21254,127517
17695.8,0.00522867,0,21250,127505
17713.2,0.00572219,0,21249,127502
17730.6,0.00621076,0,21251,127494
17748.1,0.00669263,0,21246,127482
17765.5,0.00716622,0,21246,127472
17782.9,0.00763014,0,21243,127462
17800.3,0.00808323,0,21241,127430
17817.8,0.0085245,0,21231,127386
17835.2,0.00895312,0,21217,127307
17852.6,0.00936825,0,21214,127289
17870,0.00976903,0,21216,127298
17887.5,0.0101545,0,21220,127306
17904.9,0.0105236,0,21214,127274
17922.3,0.0108751,0,21216,127287
17939.8,0.0112079,0,21208,127253
17957.2,0.0115207,0,21202,127224
17974.6,0.0118125,0,21204,127211
17992,0.0120823,0,21197,127185
18009.5,0.0123292,0,21201,127211
18026.9,0.0125525,0,21203,127230
18044.3,0.0127515,0,21202,127210
18061.8,0.0129257,0,21203,127212
18079.2,0.0130745,0,21196,127197
18096.6,0.0131976,0,21196,127183
18114,0.0132945,0,21202,127201
18131.5,0.0133649,0,21202,127201
18148.9,0.0134087,0,21196,127180
18166.3,0.0134257,0,21198,127190
18183.7,0.013416,0,21186,127118
18201.2,0.0133797,0,21192,127131
18218.6,0.0133173,0,21193,127153
18236,0.013229,0,21183,127103
18253.5,0.0131154,0,21191,127151
18270.9,0.0129771,0,21204,127221
18288.3,0.0128146,0,21211,127274
18305.7,0.0126287,0,21213,127275
18323.2,0.0124201,0,21206,127246
18340.6,0.0121898,0,21210,127270
18358,0.0119386,0,21214,127285
18375.5,0.0116675,0,21214,127300
18392.9,0.0113777,0,21212,127262
18410.3,0.0110702,0,21204,127226
18427.7,0.0107463,0,21198,127192
18445.2,0.0104071,0,21194,127149
18462.6,0.0100539,0,21188,127130
18480,0.00968803,0,21194,127173
18497.5,0.00931066,0,21194,127175
18514.9,0.00892314,0,21194,127172
18532.3,0.00852677,0,21200,127200
18549.7,0.00812292,0,21210,127245
18567.2,0.00771295,0,21208,127242
18584.6,0.00729822,0,21209,127248
18602,0.00688013,0,21212,127251
18619.4,0.00646004,0,21210,127239
18636.9,0.0060393,0,21214,127262
18654.3,0.00561924,0,21212,127283
18671.7,0.00520115,0,21220,127291
18689.2,0.00478631,0,21212,127275
18706.6,0.00437592,0,21210,127251
18724,0.00397116,0,21208,127260
18741.4,0.00357315,0,21206,127245
18758.9,0.00318297,0,21216,127269
18776.3,0.00280163,0,21208,127229
18793.7,0.00243006,0,21208,127223
18811.2,0.00206917,0,21196,127174
18828.6,0.00171975,0,21194,127150
18846,0.00138255,0,21188,127105
18863.4,0.00105822,0,21186,127108
18880.9,0.000747384,0,21176,127046
18898.3,0.000450601,0,21164,126989
18915.7,0.000168407,0,21158,126965
18933.1,-9.86693e-05,0,21153,126939
18950.6,-0.000350086,0,21162,126963
18968,-0.000585284,0,21166,126998
18985.4,-0.000803701,0,21164,126959
19002.9,-0.00100482,0,21161,126989
19020.3,-0.00118822,0,21168,127000
19037.7,-0.00135368,0,21165,127000
19055.1,-0.00150119,0,21165,126973
19072.6,-0.00163098,0,21164,126998
19090,-0.00174346,0,21159,126971
19107.4,-0.00183914,0,21157,126956
19124.9,-0.00191858,0,21163,126978
19142.3,-0.00198225,0,21159,126939
19159.7,-0.0020305,0,21160,126949
19177.1,-0.00206356,0,21157,126930
19194.6,-0.00208142,0,21148,126898
19212,-0.00208407,0,21152,126904
19229.4,-0.00207155,0,21142,126870
19246.9,-0.00183351,0,21152,126883
19264.3,-0.00179788,0,21150,126888
19281.7,-0.00177537,0,21148,126874
19299.1,-0.00177895,0,21144,126855
19316.6,-0.00185093,0,21143,126853
19334,-0.00183333,0,21141,126839
19351.4,-0.00173662,0,21138,126818
19368.8,-0.00158267,0,21135,126815
19386.3,-0.00139646,0,21131,126790
19403.7,-0.00119006,0,21128,126770
19421.1,-0.000983801,0,21131,126785
19438.6,-0.00078673,0,21138,126832
19456,-0.000597573,0,21126,126754
19473.4,-0.000410082,0,21127,126766
19490.8,-0.000217045,0,21136,126802
19508.3,-1.30945e-05,0,21131,126786
19525.7,0.000204248,0,21135,126813
19543.1,0.000435055,0,21142,126829
19560.6,0.000676867,0,21148,126864
19578,0.000926472,0,21149,126901
19595.4,0.00118044,0,21150,126902
19612.8,0.001437,0,21158,126921
19630.3,0.0016959,0,21160,126970
19647.7,0.00195824,0,21168,126983
19665.1,0.00222588,0,21169,127018
19682.6,0.00250072,0,21173,127017
19700,0.00278411,0,21168,127009
19717.4,0.00307635,0,21170,127005
19734.8,0.00337665,0,21172,127029
19752.3,0.00368337,0,21178,127060
19769.7,0.00399452,0,21180,127097
19787.1,0.00430822,0,21179,127057
19804.5,0.00462306,0,21185,127095
19822,0.0049383,0,21177,127079
19839.4,0.00525388,0,21179,127079
19856.8,0.00557024,0,21174,127048
19874.3,0.00588797,0,21171,127017
19891.7,0.00620747,0,21171,127030
19909.1,0.0065287,0,21171,127003
19926.5,0.00685118,0,21168,127002
19944,0.00717406,0,21166,126991
19961.4,0.00749628,0,21170,127044
19978.8,0.00781679,0,21180,127092
19996.3,0.00813475,0,21183,127073
