time,surface_elevation,reference_data,number_of_local_cells,number_of_global_cells
0,0,0,710,4430
18.7605,0,0,710,4324
37.521,0,0,710,4334
56.2812,0,0,708,4378
75.0413,0,0,768,4422
93.8013,0,0,768,4458
112.561,0,0,774,4544
131.114,0,0,774,4650
149.667,0,0,774,4694
168.219,0,0,774,4690
186.652,0,0,774,4706
205.084,0,0,774,4728
223.516,0,0,777,4752
241.948,0,0,777,4792
260.381,0,0,777,4822
278.582,0,0,777,4854
296.784,0,0,841,4880
314.985,0,0,844,4938
333.158,0,0,844,4964
351.33,0,0,844,4962
369.503,0,0,844,5012
387.675,0,0,852,5068
405.848,0,0,852,5090
424.02,0,0,860,5152
441.89,0,0,864,5190
459.712,0,0,872,5214
477.534,0,0,873,5234
495.357,0,0,881,5288
513.179,0,0,887,5330
531.001,0,0,893,5362
548.823,0,0,903,5408
566.646,0,0,920,5510
584.16,0,0,925,5558
601.675,0,0,934,5606
619.189,0,0,943,5650
636.704,9.09495e-13,0,947,5686
654.218,1.81899e-12,0,959,5758
671.733,2.72848e-12,0,967,5796
689.248,4.54747e-12,0,971,5816
706.762,6.36646e-12,0,977,5858
724.277,1.00044e-11,0,984,5896
741.791,1.45519e-11,0,999,5988
759.306,2.09184e-11,0,1004,6020
777.128,3.00133e-11,0,1011,6066
794.95,4.27463e-11,0,1018,6102
812.772,6.00267e-11,0,1026,6148
830.595,8.36735e-11,0,1038,6220
848.15,1.14596e-10,0,1043,6254
865.705,1.55524e-10,0,1049,6288
883.26,2.10093e-10,0,1055,6334
900.815,2.81034e-10,0,1066,6390
918.37,3.72893e-10,0,1079,6472
935.925,4.91127e-10,0,1091,6536
953.48,6.43013e-10,0,1097,6574
971.035,8.36735e-10,0,1104,6610
988.55,1.08048e-09,0,1111,6658
1006.06,1.38698e-09,0,1121,6718
1023.58,1.76988e-09,0,1132,6778
1041.09,2.24554e-09,0,1138,6814
1058.61,2.83308e-09,0,1147,6866
1076.12,3.55521e-09,0,1155,6938
1093.64,4.43742e-09,0,1167,7002
1111.15,5.51154e-09,0,1172,7034
1128.67,6.81302e-09,0,1180,7086
1146.18,8.38281e-09,0,1196,7160
1163.69,1.02682e-08,0,1204,7228
1181.21,1.25237e-08,0,1213,7304
1198.72,1.52104e-08,0,1224,7348
1216.24,1.84e-08,0,1231,7392
1233.75,2.21717e-08,0,1244,7464
1251.27,2.66164e-08,0,1259,7550
1268.78,3.1836e-08,0,1272,7624
1286.3,3.7945e-08,0,1281,7686
1303.81,4.50727e-08,0,1292,7746
1321.32,5.33637e-08,0,1301,7798
1338.84,6.29789e-08,0,1312,7872
1356.35,7.40974e-08,0,1325,7954
1373.87,8.69177e-08,0,1335,7994
1391.38,1.0166e-07,0,1337,8020
1408.9,1.18567e-07,0,1348,8084
1426.41,1.37908e-07,0,1362,8158
1443.92,1.59977e-07,0,1372,8252
1461.44,1.85099e-07,0,1389,8310
1478.95,2.13629e-07,0,1407,8394
1496.47,2.45956e-07,0,1427,8452
1513.98,2.82505e-07,0,1440,8506
1531.5,3.23741e-07,0,1412,8592
1549.01,3.7017e-07,0,1426,8658
1566.52,4.22344e-07,0,1434,8712
1584.04,4.80863e-07,0,1448,8758
1601.55,5.46382e-07,0,1470,8852
1619.07,6.19609e-07,0,1494,8930
1636.58,7.01316e-07,0,1504,9008
1654.09,7.92341e-07,0,1514,9070
1671.61,8.9359e-07,0,1528,9168
1689.12,1.00605e-06,0,1538,9232
1706.64,1.13078e-06,0,1549,9298
1724.15,1.26894e-06,0,1560,9362
1741.66,1.42178e-06,0,1581,9484
1759.18,1.59064e-06,0,1596,9570
1776.69,1.77699e-06,0,1602,9608
1794.21,1.9824e-06,0,1620,9712
1811.72,2.20858e-06,0,1632,9782
1829.23,2.45736e-06,0,1643,9858
1846.75,2.73073e-06,0,1656,9932
1864.26,3.03083e-06,0,1668,10004
1881.78,3.35997e-06,0,1678,10072
1899.29,3.72063e-06,0,1690,10144
1916.8,4.11547e-06,0,1708,10246
1934.32,4.54735e-06,0,1720,10304
1951.83,5.01935e-06,0,1730,10374
1969.34,5.53474e-06,0,1746,10464
1986.86,6.09702e-06,0,1760,10552
2004.37,6.70993e-06,0,1775,10644
2021.89,7.37746e-06,0,1790,10724
2039.4,8.10384e-06,0,1802,10812
2056.91,8.89359e-06,0,1818,10910
2074.43,9.75153e-06,0,1832,10998
2091.94,1.06828e-05,0,1842,11064
2109.45,1.1693e-05,0,1854,11128
2126.97,1.27879e-05,0,1868,11198
2144.48,1.39739e-05,0,1879,11262
2161.99,1.52577e-05,0,1897,11388
2179.51,1.66465e-05,0,1918,11496
2197.02,1.8148e-05,0,1924,11546
2214.54,1.97705e-05,0,1936,11606
2232.05,2.15227e-05,0,1950,11702
2249.56,2.34138e-05,0,1971,11810
2267.08,2.5454e-05,0,1981,11884
2284.59,2.76535e-05,0,2000,11984
2302.1,3.00236e-05,0,2020,12122
2319.62,3.25762e-05,0,2044,12264
2337.13,3.53238e-05,0,2061,12358
2354.65,3.82797e-05,0,2071,12426
2372.16,4.14579e-05,0,2080,12472
2389.67,4.48735e-05,0,2092,12540
2407.19,4.85424e-05,0,2111,12668
2424.7,5.24815e-05,0,2125,12752
2442.22,5.67088e-05,0,2145,12856
2459.73,6.12431e-05,0,2162,12962
2477.25,6.61036e-05,0,2174,13044
2494.76,7.13104e-05,0,2190,13130
2512.27,7.68837e-05,0,2202,13218
2529.79,8.28439e-05,0,2216,13280
2547.3,8.92115e-05,0,2228,13370
2564.82,9.60074e-05,0,2248,13474
2582.33,0.000103252,0,2264,13596
2599.85,0.000110968,0,2274,13648
2617.36,0.000119175,0,2288,13728
2634.88,0.000127895,0,2304,13830
2652.39,0.000137153,0,2319,13920
2669.9,0.00014697,0,2335,14022
2687.42,0.000157373,0,2352,14112
2704.93,0.000168405,0,2364,14184
2722.45,0.000180111,0,2382,14286
2739.96,0.000192537,0,2398,14398
2757.48,0.000205729,0,2412,14472
2774.99,0.000219734,0,2426,14556
2792.51,0.000234596,0,2442,14652
2810.02,0.000250359,0,2459,14754
2827.54,0.000267069,0,2473,14828
2845.05,0.000284767,0,2489,14942
2862.56,0.0003035,0,2508,15046
2880.08,0.000323311,0,2524,15156
2897.59,0.000344249,0,2536,15228
2915.11,0.000366363,0,2554,15336
2932.62,0.000389711,0,2574,15440
2950.14,0.000414351,0,2588,15520
2967.65,0.000440351,0,2607,15628
2985.17,0.000467783,0,2624,15741
3002.66,0.000496696,0,2636,15805
3020.16,0.000527197,0,2640,15845
3037.66,0.000559376,0,2668,16011
3055.1,0.000593442,0,2687,16121
3072.54,0.000629417,0,2705,16217
3089.98,0.00066688,0,2722,16329
3107.41,0.000705534,0,2730,16384
3124.84,0.000745249,0,2750,16500
3142.27,0.000785951,0,2772,16638
3159.69,0.000827631,0,2784,16700
3177.12,0.000870341,0,2804,16814
3194.55,0.00091418,0,2813,16882
3211.98,0.000959296,0,2828,16965
3229.41,0.00100588,0,2850,17089
3246.83,0.00105416,0,2860,17163
3264.26,0.00110439,0,2876,17241
3281.69,0.00115688,0,2888,17319
3299.12,0.00121191,0,2908,17447
3316.54,0.00126978,0,2927,17547
3333.97,0.00133078,0,2942,17638
3351.4,0.00139521,0,2959,17746
3368.83,0.00146741,0,2973,17824
3386.26,0.00154355,0,2993,17950
3403.68,0.00162366,0,3005,18022
3421.11,0.00170557,0,3023,18128
3438.54,0.00178857,0,3033,18192
3455.97,0.00187286,0,3047,18269
3473.39,0.00195924,0,3065,18385
3490.82,0.00204889,0,3071,18431
3508.25,0.00214315,0,3086,18513
3525.68,0.00224345,0,3103,18609
3543.1,0.00235122,0,3110,18653
3560.53,0.00246793,0,3124,18731
3577.96,0.0025956,0,3136,18823
3595.39,0.00273389,0,3160,18965
3612.81,0.00288046,0,3170,19021
3630.24,0.003035,0,3189,19140
3647.67,0.00319818,0,3201,19208
3665.1,0.0033711,0,3213,19274
3682.52,0.00355519,0,3227,19360
3699.95,0.00375237,0,3249,19482
3717.38,0.00396529,0,3263,19573
3734.8,0.0045057,0,3276,19653
3752.23,0.00500678,0,3298,19771
3769.66,0.00549717,0,3309,19855
3787.09,0.00598664,0,3319,19919
3804.51,0.00645191,0,3329,19983
3821.94,0.00691991,0,3343,20069
3839.37,0.00742028,0,3369,20213
3856.79,0.0079846,0,3388,20324
3874.22,0.00863963,0,3400,20406
3891.65,0.00937807,0,3412,20457
3909.08,0.0101735,0,3418,20505
3926.5,0.0110591,0,3439,20632
3943.93,0.0119525,0,3453,20716
3961.36,0.014384,0,3462,20768
3978.87,0.0169842,0,3478,20862
3996.39,0.0190258,0,3489,20938
4013.9,0.0218394,0,3501,21002
4031.42,0.0306537,0,3512,21068
4048.93,0.0383924,0,3530,21170
4066.41,0.0469505,0,3540,21232
4083.88,0.0551211,0,3552,21310
4101.36,0.0651843,0,3574,21435
4118.79,0.0756997,0,3588,21524
4136.21,0.0872095,0,3590,21529
4153.64,0.0991748,0,3605,21624
4171.07,0.112075,0,3624,21740
4188.49,0.125676,0,3639,21823
4205.92,0.139803,0,3655,21920
4223.35,0.154331,0,3665,21982
4240.78,0.16977,0,3673,22040
4258.2,0.186213,0,3686,22114
4275.63,0.203589,0,3704,22227
4293.06,0.22155,0,3717,22301
4310.49,0.239892,0,3730,22375
4327.91,0.25836,0,3742,22457
4345.34,0.276758,0,3754,22521
4362.77,0.294948,0,3776,22658
4380.2,0.312735,0,3792,22750
4397.62,0.33012,0,3799,22792
4415.05,0.346991,0,3811,22870
4432.48,0.363257,0,3828,22965
4449.91,0.378711,0,3844,23057
4467.34,0.393182,0,3864,23178
4484.76,0.406432,0,3875,23250
4502.19,0.418247,0,3881,23291
4519.62,0.428387,0,3903,23415
4537.05,0.436683,0,3921,23523
4554.48,0.443024,0,3938,23624
4571.9,0.447366,0,3948,23687
4589.33,0.449676,0,3957,23745
4606.76,0.449934,0,3968,23801
4624.19,0.448112,0,3983,23896
4641.61,0.444185,0,3993,23961
4659.04,0.438119,0,4013,24062
4676.47,0.429892,0,4018,24106
4693.9,0.419496,0,4034,24197
4711.33,0.406959,0,4047,24278
4728.75,0.39234,0,4069,24414
4746.18,0.375735,0,4089,24531
4763.61,0.357264,0,4099,24588
4781.04,0.337066,0,4113,24673
4798.47,0.315289,0,4133,24782
4815.89,0.292085,0,4132,24798
4833.32,0.267608,0,4147,24867
4850.75,0.242011,0,4160,24966
4868.18,0.215456,0,4172,25028
4885.6,0.188115,0,4183,25092
4903.16,0.159959,0,4197,25179
4920.72,0.131389,0,4210,25251
4938.28,0.102612,0,4230,25371
4955.91,0.0737212,0,4238,25413
4973.54,0.0450273,0,4251,25497
4991.18,0.0166989,0,4268,25604
5008.72,-0.0109118,0,4283,25693
5026.19,-0.037715,0,4306,25820
5043.67,-0.063671,0,4320,25916
5061.14,-0.088651,0,4328,25962
5078.62,-0.112537,0,4333,26001
5096.09,-0.135223,0,4354,26107
5113.52,-0.156556,0,4375,26234
5130.95,-0.176526,0,4390,26332
5148.38,-0.195068,0,4408,26436
5165.81,-0.212139,0,4422,26530
5183.23,-0.22771,0,4435,26607
5200.66,-0.241764,0,4445,26665
5218.09,-0.254301,0,4459,26744
5235.52,-0.265325,0,4470,26812
5252.94,-0.274852,0,4472,26832
5270.37,-0.282907,0,4489,26923
5287.8,-0.28952,0,4505,27017
5305.23,-0.294734,0,4515,27090
5322.66,-0.298603,0,4535,27193
5340.08,-0.301188,0,4542,27247
5357.51,-0.302562,0,4554,27309
5374.94,-0.302803,0,4564,27367
5392.37,-0.301996,0,4579,27469
5409.79,-0.300224,0,4590,27531
5427.22,-0.297574,0,4603,27602
5444.65,-0.294129,0,4613,27673
5462.08,-0.289973,0,4624,27734
5479.51,-0.285187,0,4628,27767
5496.93,-0.27985,0,4642,27845
5514.36,-0.274043,0,4657,27947
5531.79,-0.267842,0,4673,28022
5549.22,-0.261321,0,4683,28084
5566.65,-0.254551,0,4692,28136
5584.07,-0.247597,0,4698,28193
5601.5,-0.240516,0,4712,28272
5619.06,-0.233306,0,4719,28305
5636.62,-0.226065,0,4732,28398
5654.48,-0.21871,0,4746,28475
5672.34,-0.211399,0,4761,28564
5690.5,-0.204042,0,4785,28703
5708.66,-0.196795,0,4797,28773
5726.82,-0.189684,0,4807,28839
5744.98,-0.182734,0,4813,28875
5763.18,-0.175951,0,4816,28902
5781.37,-0.169367,0,4832,28984
5799.57,-0.162997,0,4844,29068
5817.77,-0.156849,0,4863,29174
5835.97,-0.15093,0,4874,29236
5854.17,-0.145244,0,4892,29355
5872.37,-0.139791,0,4911,29466
5890.56,-0.134571,0,4925,29539
5908.76,-0.129579,0,4940,29646
5927.18,-0.124754,0,4950,29695
5945.59,-0.120147,0,4956,29741
5964.01,-0.115748,0,4961,29770
5982.42,-0.111542,0,4978,29856
6000.99,-0.10748,0,4988,29927
6019.56,-0.10358,0,5005,30030
6038.14,-0.0998241,0,5027,30154
6056.71,-0.0961976,0,5032,30193
6075.29,-0.0926845,0,5041,30249
6093.83,-0.0892791,0,5055,30315
6112.36,-0.0859614,0,5076,30455
6130.9,-0.0827206,0,5093,30549
6149.43,-0.0795473,0,5093,30550
6167.96,-0.0764333,0,5105,30625
6186.36,-0.0733939,0,5118,30714
6204.76,-0.0704003,0,5140,30842
6223.16,-0.0674486,0,5144,30854
6241.56,-0.0645364,0,5148,30872
6260.1,-0.0616413,0,5146,30877
6278.63,-0.058785,0,5160,30948
6297.17,-0.0559676,0,5178,31051
6315.7,-0.0531894,0,5193,31144
6334.23,-0.0504501,0,5201,31200
6352.77,-0.0477485,0,5209,31241
6371.3,-0.0450833,0,5208,31254
6389.84,-0.0424525,0,5237,31325
6408.37,-0.0398543,0,5234,31397
6426.91,-0.0372873,0,5239,31439
6445.44,-0.0347508,0,5248,31489
6463.97,-0.0322445,0,5270,31608
6482.51,-0.0297691,0,5284,31694
6501.04,-0.0273256,0,5292,31735
6519.58,-0.0249155,0,5311,31870
6538.11,-0.0225405,0,5313,31864
6556.65,-0.0202026,0,5313,31862
6575.18,-0.0179041,0,5317,31885
6593.71,-0.0156475,0,5327,31946
6612.25,-0.0134357,0,5333,31998
6630.78,-0.0112715,0,5349,32095
6649.32,-0.00915755,0,5343,32111
6667.85,-0.00709594,0,5354,32170
6686.39,-0.00508781,0,5372,32223
6704.92,-0.00313342,0,5380,32280
6723.45,-0.00123118,0,5387,32320
6741.99,0.000621755,0,5395,32362
6760.52,0.00242792,0,5403,32414
6779.06,0.00420578,0,5414,32488
6797.64,0.00594746,0,5424,32535
6816.21,0.00764821,0,5435,32611
6834.79,0.00931632,0,5439,32625
6853.41,0.010991,0,5443,32644
6872.03,0.0125791,0,5454,32716
6890.64,0.0142467,0,5473,32846
6909.26,0.0155159,0,5482,32875
6927.87,0.016869,0,5494,32955
6946.49,0.016981,0,5494,32967
6965.05,0.0177692,0,5503,33003
6983.61,0.0187449,0,5505,33027
7002.17,0.0196329,0,5505,33023
7020.7,0.0213002,0,5518,33098
7039.23,0.0222221,0,5540,33246
7057.77,0.0225349,0,5551,33303
7076.3,0.0230171,0,5568,33391
7094.84,0.0235012,0,5572,33434
7113.37,0.0239898,0,5581,33488
7131.91,0.0245077,0,5587,33525
7150.44,0.0249791,0,5598,33578
7168.98,0.0254985,0,5610,33659
7187.51,0.0259415,0,5622,33716
7206.04,0.0264478,0,5633,33801
7224.58,0.0269739,0,5651,33891
7243.11,0.0275115,0,5659,33953
7261.65,0.0280627,0,5675,34056
7280.18,0.0286482,0,5690,34139
7298.72,0.0292311,0,5706,34242
7317.25,0.0298112,0,5707,34240
7335.79,0.0304044,0,5720,34310
7354.32,0.0310042,0,5733,34384
7372.86,0.0316048,0,5738,34418
7391.39,0.0322053,0,5741,34440
7409.93,0.0328077,0,5752,34512
7428.46,0.0334146,0,5761,34561
7447,0.0340286,0,5777,34650
7465.53,0.0346526,0,5799,34783
7484.06,0.0352887,0,5810,34849
7502.6,0.0359376,0,5803,34819
7521.13,0.0366002,0,5819,34918
7539.67,0.037276,0,5834,35010
7558.2,0.0379634,0,5842,35049
7576.74,0.0386599,0,5855,35123
7595.27,0.039362,0,5864,35175
7613.81,0.0400661,0,5864,35189
7632.34,0.0407679,0,5864,35190
7650.88,0.0414635,0,5877,35250
7669.41,0.042149,0,5883,35304
7687.95,0.0428208,0,5896,35381
7706.48,0.0434759,0,5909,35444
7725.02,0.0441114,0,5908,35442
7743.55,0.0447247,0,5910,35463
7762.08,0.0453135,0,5922,35525
7780.65,0.0458768,0,5930,35586
7799.21,0.0464115,0,5938,35624
7817.78,0.046916,0,5937,35622
7836.34,0.0473887,0,5949,35684
7854.91,0.047828,0,5964,35785
7873.47,0.0482323,0,5976,35855
7892.04,0.0486,0,5977,35856
7910.61,0.0489294,0,5980,35882
7929.17,0.0492185,0,5982,35894
7947.73,0.0494653,0,5993,35952
7966.28,0.0496678,0,6000,35998
7984.84,0.0498241,0,6012,36065
8003.4,0.0499325,0,6023,36141
8021.79,0.0499909,0,6021,36125
8040.19,0.0499994,0,6020,36128
8058.58,0.0499572,0,6030,36179
8076.98,0.0498634,0,6041,36249
8095.37,0.0497175,0,6051,36300
8113.77,0.0495191,0,6050,36295
8132.16,0.049268,0,6047,36274
8150.71,0.0489616,0,6059,36352
8169.26,0.0486014,0,6067,36397
8187.8,0.0481875,0,6066,36392
8206.35,0.0477199,0,6077,36458
8224.9,0.0471987,0,6085,36502
8243.45,0.0466241,0,6090,36543
8262,0.0459961,0,6091,36554
8280.54,0.045315,0,6100,36596
8299.12,0.04458,0,6102,36612
8317.69,0.0437925,0,6094,36574
8336.26,0.0429527,0,6098,36592
8354.83,0.0420612,0,6102,36624
8373.4,0.0411188,0,6113,36670
8391.98,0.0401264,0,6113,36684
8410.55,0.039085,0,6119,36720
8429.12,0.0379959,0,6124,36739
8447.69,0.0368605,0,6135,36813
8466.26,0.0356805,0,6141,36844
8484.84,0.0344576,0,6147,36876
8503.41,0.0331937,0,6150,36896
8521.98,0.0318911,0,6163,36968
8540.55,0.0305519,0,6167,37007
8559.13,0.0291786,0,6162,36976
8577.7,0.0277736,0,6167,36993
8596.27,0.0263396,0,6178,37057
8614.84,0.0248793,0,6175,37058
8633.42,0.0233956,0,6179,37075
8651.99,0.0218914,0,6185,37110
8670.56,0.0203698,0,6193,37164
8689.13,0.018834,0,6192,37146
8707.71,0.0172873,0,6189,37142
8726.28,0.0157329,0,6199,37196
8744.85,0.0141743,0,6216,37289
8763.43,0.012615,0,6228,37365
8782,0.0110583,0,6224,37340
8800.57,0.00950779,0,6227,37363
8819.14,0.00796694,0,6232,37399
8837.72,0.00643917,0,6235,37403
8856.29,0.00492788,0,6241,37442
8874.86,0.00343637,0,6241,37445
8893.44,0.00196786,0,6243,37466
8912.01,0.000525451,0,6251,37507
8930.58,-0.000887878,0,6261,37560
8949.15,-0.00226929,0,6261,37562
8967.73,-0.00361611,0,6258,37550
8986.3,-0.00492584,0,6266,37595
9004.87,-0.00619613,0,6262,37571
9023.44,-0.00742488,0,6263,37571
9042.02,-0.00861014,0,6271,37625
9060.59,-0.0097502,0,6283,37681
9079.16,-0.0108436,0,6279,37667
9097.74,-0.0118892,0,6286,37726
9116.32,-0.0128857,0,6292,37753
9134.89,-0.0138325,0,6299,37798
9153.47,-0.0147288,0,6306,37835
9172.05,-0.0155743,0,6308,37858
9190.62,-0.0163689,0,6319,37915
9209.2,-0.017113,0,6325,37942
9227.79,-0.0178065,0,6318,37917
9246.37,-0.0184499,0,6319,37907
9264.95,-0.0190441,0,6327,37951
9283.53,-0.0195898,0,6323,37941
9302.12,-0.020088,0,6332,37989
9320.7,-0.02054,0,6334,37998
9339.28,-0.020947,0,6336,38028
9357.87,-0.0213106,0,6340,38051
9376.46,-0.0216321,0,6340,38044
9395.04,-0.0219131,0,6351,38105
9413.63,-0.0221554,0,6361,38164
9432.22,-0.0223605,0,6361,38165
9450.81,-0.0225304,0,6359,38156
9469.4,-0.0226667,0,6363,38175
9488,-0.0227712,0,6370,38219
9506.59,-0.0228458,0,6379,38273
9525.18,-0.0228923,0,6390,38336
9543.78,-0.0229124,0,6385,38303
9562.37,-0.0229079,0,6381,38280
9580.97,-0.0228805,0,6392,38337
9599.56,-0.0228319,0,6398,38381
9618.16,-0.0227639,0,6395,38362
9636.76,-0.0226779,0,6400,38410
9655.38,-0.0225754,0,6418,38498
9673.99,-0.0224581,0,6432,38576
9692.61,-0.0223272,0,6435,38594
9711.23,-0.0221843,0,6447,38690
9729.85,-0.0220305,0,6455,38727
9748.49,-0.0218668,0,6452,38715
9767.14,-0.0216947,0,6454,38716
9785.78,-0.021515,0,6465,38790
9804.42,-0.0213289,0,6470,38823
9823.07,-0.0211372,0,6465,38796
9841.71,-0.0209406,0,6476,38856
9860.38,-0.0207399,0,6481,38886
9879.04,-0.0205357,0,6485,38904
9897.7,-0.0203286,0,6483,38885
9916.38,-0.0201192,0,6498,38990
9935.05,-0.0199078,0,6506,39031
9953.72,-0.0196948,0,6512,39067
9972.32,-0.0194815,0,6520,39120
9990.92,-0.0192671,0,6520,39119
10009.5,-0.0190519,0,6526,39156
10028.1,-0.018836,0,6530,39180
10046.7,-0.0186195,0,6532,39189
10065.3,-0.0184024,0,6537,39220
10083.9,-0.0181847,0,6549,39290
10102.5,-0.0179665,0,6552,39310
10121.1,-0.0177477,0,6550,39301
10139.7,-0.0175282,0,6547,39282
10158.3,-0.0173079,0,6555,39325
10176.9,-0.0170868,0,6554,39323
10195.5,-0.0168648,0,6562,39369
10214.1,-0.0166418,0,6565,39385
10232.7,-0.0164177,0,6568,39403
10251.3,-0.0161925,0,6570,39418
10269.9,-0.0159659,0,6583,39498
10288.5,-0.015738,0,6577,39460
10307.1,-0.0155087,0,6579,39472
10325.7,-0.0152779,0,6591,39540
10344.3,-0.0150457,0,6594,39564
10362.9,-0.0148119,0,6582,39489
10381.5,-0.0145766,0,6587,39517
10400.1,-0.0143397,0,6596,39575
10418.7,-0.0141013,0,6598,39585
10437.3,-0.0138615,0,6600,39598
10455.9,-0.0136202,0,6595,39565
10474.5,-0.0133777,0,6596,39574
10493.1,-0.0131338,0,6596,39573
10511.7,-0.0128889,0,6605,39625
10530.3,-0.012643,0,6604,39627
10548.9,-0.0123962,0,6603,39616
10567.5,-0.0121488,0,6605,39619
10586.1,-0.0119009,0,6598,39584
10604.7,-0.0116527,0,6601,39604
10623.3,-0.0114045,0,6604,39613
10641.9,-0.0111564,0,6604,39621
10660.5,-0.0109088,0,6593,39556
10679.1,-0.0106619,0,6595,39576
10697.8,-0.0104155,0,6607,39639
10716.4,-0.0101703,0,6612,39662
10735.1,-0.00992681,0,6607,39641
10753.7,-0.00968525,0,6601,39602
10772.3,-0.00944599,0,6601,39605
10791,-0.00920938,0,6595,39569
10809.6,-0.0089758,0,6600,39596
10828.3,-0.00874562,0,6605,39627
10846.9,-0.00851921,0,6605,39629
10865.6,-0.00829698,0,6608,39647
10884.2,-0.00807931,0,6607,39639
10902.9,-0.00786662,0,6607,39639
10921.5,-0.00765931,0,6606,39633
10940.1,-0.00745779,0,6611,39661
10958.8,-0.00726247,0,6612,39669
10977.4,-0.00707377,0,6618,39705
10996.1,-0.0068921,0,6621,39723
11014.7,-0.00671787,0,6619,39713
11033.4,-0.00655148,0,6620,39717
11052,-0.00639334,0,6623,39733
11070.7,-0.00624382,0,6626,39756
11089.3,-0.00610332,0,6619,39712
11108,-0.00597221,0,6625,39748
11126.6,-0.00585084,0,6617,39697
11145.2,-0.00573955,0,6615,39685
11163.9,-0.00563867,0,6614,39684
11182.5,-0.0055485,0,6617,39702
11201.2,-0.00546926,0,6620,39716
11219.9,-0.00540129,0,6615,39688
11238.5,-0.00534484,0,6615,39688
11257.2,-0.00530012,0,6623,39737
11275.8,-0.0052673,0,6619,39713
11294.5,-0.00524654,0,6620,39716
11313.3,-0.00523792,0,6621,39724
11332,-0.00524168,0,6613,39677
11350.8,-0.0052579,0,6627,39762
11369.5,-0.00528658,0,6636,39814
11388.3,-0.00532774,0,6642,39848
11407,-0.00538133,0,6649,39893
11425.8,-0.00544744,0,6644,39864
11444.6,-0.00552586,0,6639,39831
11463.4,-0.00561647,0,6639,39834
11482.2,-0.00571912,0,6644,39862
11501,-0.00583377,0,6649,39890
11519.8,-0.00596003,0,6639,39831
11538.6,-0.00609769,0,6634,39799
11557.4,-0.00624649,0,6641,39841
11576.2,-0.00640611,0,6647,39879
11595,-0.00657625,0,6648,39886
11613.8,-0.00675647,0,6653,39914
11632.6,-0.00694644,0,6657,39938
11651.4,-0.00714582,0,6650,39899
11670.2,-0.00735418,0,6653,39915
11689,-0.00757112,0,6661,39963
11707.8,-0.00779618,0,6657,39939
11726.6,-0.00802891,0,6653,39915
11745.4,-0.00826881,0,6657,39938
11764.2,-0.00851542,0,6659,39950
11783,-0.00876824,0,6659,39949
11801.8,-0.00902673,0,6656,39931
11820.6,-0.00929041,0,6653,39914
11839.4,-0.00955878,0,6653,39914
11858.2,-0.0098313,0,6651,39906
11877,-0.0101074,0,6638,39828
11895.8,-0.0103866,0,6639,39830
11914.6,-0.0106683,0,6636,39813
11933.3,-0.0109522,0,6634,39801
11952.1,-0.0112376,0,6632,39791
11970.9,-0.0115241,0,6634,39802
11989.7,-0.0118111,0,6643,39855
12008.5,-0.0120981,0,6647,39880
12027.3,-0.0123847,0,6638,39823
12046.1,-0.0126703,0,6635,39806
12064.8,-0.0129545,0,6633,39797
12083.6,-0.0132368,0,6630,39778
12102.4,-0.0135167,0,6631,39784
12121.2,-0.0137939,0,6628,39768
12140,-0.0140679,0,6632,39791
12158.7,-0.0143382,0,6626,39754
12177.5,-0.0146045,0,6619,39714
12196.3,-0.0148664,0,6620,39720
12215.1,-0.0151234,0,6617,39702
12233.8,-0.0153752,0,6614,39683
12252.6,-0.0156215,0,6608,39643
12271.4,-0.0158617,0,6605,39630
12290.2,-0.0160958,0,6612,39670
12309,-0.0163232,0,6622,39732
12327.7,-0.0165436,0,6612,39672
12346.5,-0.0167568,0,6590,39540
12365.3,-0.0169625,0,6583,39496
12384.1,-0.0171603,0,6577,39459
12402.9,-0.01735,0,6581,39484
12421.6,-0.0175314,0,6580,39475
12440.4,-0.0177041,0,6567,39400
12459.2,-0.017868,0,6556,39333
12478,-0.0180227,0,6554,39324
12496.8,-0.0181681,0,6556,39333
12515.5,-0.018304,0,6565,39390
12534.3,-0.0184301,0,6565,39390
12553.1,-0.0185463,0,6569,39410
12571.9,-0.0186523,0,6570,39418
12590.7,-0.0187481,0,6574,39439
12609.5,-0.0188334,0,6567,39400
12628.2,-0.018908,0,6560,39357
12647,-0.0189719,0,6547,39280
12665.8,-0.0190248,0,6543,39257
12684.6,-0.0190667,0,6537,39222
12703.4,-0.0190974,0,6531,39181
12722.2,-0.0191168,0,6534,39203
12741,-0.0191248,0,6539,39229
12759.7,-0.0191213,0,6538,39226
12778.5,-0.0191063,0,6539,39230
12797.3,-0.0190796,0,6532,39190
12816.1,-0.0190412,0,6538,39223
12834.9,-0.0189911,0,6544,39263
12853.6,-0.0189291,0,6543,39254
12872.4,-0.0188553,0,6547,39281
12891.2,-0.0187697,0,6555,39325
12910,-0.0186722,0,6554,39320
12928.8,-0.0185629,0,6549,39291
12947.5,-0.0184417,0,6543,39258
12966.3,-0.0183087,0,6539,39231
12985.1,-0.0181639,0,6539,39231
13003.9,-0.0180074,0,6536,39214
13022.7,-0.0178393,0,6541,39242
13041.4,-0.0176595,0,6542,39251
13060.2,-0.0174684,0,6543,39255
13079,-0.0172659,0,6547,39277
13097.8,-0.0170521,0,6541,39241
13116.6,-0.0168273,0,6547,39277
13135.3,-0.0165915,0,6554,39320
13154.1,-0.0163451,0,6551,39305
13172.9,-0.016088,0,6549,39291
13191.7,-0.0158206,0,6550,39295
13210.5,-0.0155431,0,6546,39271
13229.2,-0.0152557,0,6545,39267
13248,-0.0149586,0,6535,39206
13266.8,-0.0146521,0,6533,39195
13285.6,-0.0143365,0,6538,39224
13304.4,-0.0140121,0,6541,39243
13323.1,-0.0136792,0,6552,39311
13341.9,-0.013338,0,6547,39277
13360.7,-0.012989,0,6553,39316
13379.5,-0.0126324,0,6552,39307
13398.3,-0.0122687,0,6561,39362
13417,-0.011898,0,6561,39362
13435.8,-0.011521,0,6560,39360
13454.6,-0.0111378,0,6558,39344
13473.4,-0.0107489,0,6559,39349
13492.2,-0.0103546,0,6553,39314
13510.9,-0.00995533,0,6547,39281
13529.7,-0.00955156,0,6543,39255
13548.5,-0.00914365,0,6537,39218
13567.3,-0.00873193,0,6541,39242
13586.1,-0.00831689,0,6538,39223
13604.9,-0.00789894,0,6543,39254
13623.7,-0.00747837,0,6543,39254
13642.4,-0.00705571,0,6541,39246
13661.2,-0.00663138,0,6553,39315
13680,-0.0062058,0,6557,39342
13698.8,-0.00577936,0,6552,39310
13717.6,-0.00535248,0,6555,39328
13736.4,-0.00492557,0,6553,39315
13755.2,-0.00449901,0,6557,39341
13774,-0.00407321,0,6562,39371
13792.8,-0.00364856,0,6548,39285
13811.6,-0.00322543,0,6549,39294
13830.4,-0.0028042,0,6550,39297
13849.2,-0.00238524,0,6546,39271
13868,-0.00196891,0,6550,39295
13886.7,-0.00155556,0,6552,39308
13905.5,-0.00114553,0,6550,39300
13924.3,-0.000739159,0,6548,39286
13943.1,-0.000336763,0,6547,39279
13961.9,6.13448e-05,0,6548,39286
13980.7,0.000454866,0,6548,39284
13999.5,0.000843511,0,6544,39261
14018.3,0.00122701,0,6548,39283
14037.1,0.00160509,0,6542,39250
14055.9,0.0019775,0,6535,39208
14074.7,0.00234402,0,6520,39119
14093.5,0.00270441,0,6517,39097
14112.2,0.00305846,0,6516,39092
14131,0.00340599,0,6520,39116
14149.8,0.0037468,0,6521,39121
14168.6,0.00408074,0,6515,39090
14187.4,0.00440765,0,6507,39037
14206.2,0.00472739,0,6510,39057
14225,0.00503984,0,6513,39077
14243.8,0.00534489,0,6503,39013
14262.6,0.00564245,0,6503,39018
14281.4,0.00593243,0,6499,38994
14300.2,0.00621502,0,6490,38939
14319,0.00648991,0,6485,38909
14337.8,0.00675705,0,6472,38831
14356.6,0.00701642,0,6466,38796
14375.4,0.00726835,0,6458,38746
14394.3,0.00751247,0,6452,38711
14413.1,0.00774881,0,6455,38730
14432,0.00797738,0,6459,38754
14450.8,0.00819819,0,6450,38695
14469.6,0.00841131,0,6436,38613
14488.4,0.00861681,0,6420,38520
14507.3,0.00881473,0,6417,38501
14526.1,0.00900516,0,6408,38447
14544.9,0.00918817,0,6401,38402
14563.8,0.00936386,0,6402,38408
14582.6,0.00953231,0,6404,38421
14601.4,0.00969362,0,6398,38387
14620.3,0.00984791,0,6396,38375
14639.1,0.00999527,0,6386,38312
14657.9,0.0101358,0,6375,38248
14676.8,0.0102697,0,6369,38210
14695.6,0.010397,0,6365,38189
14714.4,0.0105179,0,6360,38155
14733.3,0.0106324,0,6355,38125
14752.1,0.0107407,0,6351,38103
14771,0.0108432,0,6350,38095
14789.9,0.0109398,0,6344,38059
14808.8,0.0110304,0,6332,37989
14827.7,0.0111153,0,6325,37950
14846.6,0.0111948,0,6321,37926
14865.5,0.0112688,0,6313,37876
14884.5,0.0113373,0,6308,37844
14903.4,0.0114005,0,6297,37780
14922.3,0.0114583,0,6292,37749
14941.2,0.0115111,0,6289,37734
14960.1,0.0115588,0,6284,37703
14979,0.0116016,0,6278,37665
14997.8,0.0116396,0,6266,37596
15016.7,0.0116728,0,6258,37546
15035.5,0.0117014,0,6251,37504
15054.4,0.0117255,0,6243,37458
15073.2,0.011745,0,6233,37395
15092,0.01176,0,6226,37353
15110.9,0.0117706,0,6221,37323
15129.7,0.0117769,0,6211,37265
15148.5,0.0117789,0,6204,37221
15167.3,0.0117766,0,6194,37163
15186.1,0.01177,0,6183,37096
15205,0.0117591,0,6174,37040
15223.8,0.0117439,0,6166,36995
15242.6,0.0117245,0,6165,36990
15261.4,0.0117008,0,6161,36962
15280.2,0.0116727,0,6156,36936
15299.1,0.0116403,0,6147,36879
15317.9,0.0116035,0,6138,36827
15336.7,0.0115622,0,6127,36757
15355.5,0.0115164,0,6125,36745
15374.3,0.011466,0,6115,36690
15393.1,0.0114109,0,6100,36600
15411.9,0.011351,0,6091,36546
15430.8,0.0112862,0,6085,36510
15449.6,0.0112164,0,6076,36454
15468.4,0.0111415,0,6068,36408
15487.2,0.0110613,0,6055,36328
15506,0.0109757,0,6040,36240
15524.8,0.0108846,0,6027,36160
15543.6,0.0107877,0,6009,36053
15562.4,0.0106849,0,5997,35977
15581.3,0.010576,0,5986,35916
15600.1,0.0104608,0,5973,35835
15618.9,0.0103391,0,5964,35779
15637.7,0.0102107,0,5955,35726
15656.5,0.0100754,0,5949,35689
15675.3,0.00993295,0,5940,35637
15694.1,0.00978317,0,5936,35616
15712.9,0.00962581,0,5922,35530
15731.8,0.00946064,0,5911,35462
15750.6,0.00928743,0,5896,35376
15769.4,0.00910596,0,5886,35315
15788.2,0.00891601,0,5880,35275
15807,0.00871734,0,5868,35204
15825.8,0.00850969,0,5860,35158
15844.6,0.00829291,0,5850,35099
15863.5,0.00806679,0,5834,35003
15882.3,0.00783118,0,5822,34929
15901.1,0.00758573,0,5817,34902
15920,0.00733027,0,5808,34844
15938.8,0.00706486,0,5797,34780
15957.6,0.00678939,0,5783,34695
15976.5,0.00650379,0,5775,34647
15995.3,0.00620803,0,5765,34589
16014.2,0.00590108,0,5754,34521
16033.2,0.00558393,0,5739,34430
16052.2,0.00525454,0,5732,34392
16071.3,0.00491379,0,5722,34329
16090.4,0.00456295,0,5715,34285
16109.5,0.00420194,0,5708,34244
16128.6,0.00383131,0,5698,34187
16147.7,0.00345138,0,5693,34153
16166.8,0.00306251,0,5683,34093
16185.9,0.00266513,0,5682,34090
16205,0.00225974,0,5683,34095
16224.2,0.00184687,0,5679,34073
16243.3,0.00142714,0,5671,34026
16262.4,0.0010012,0,5665,33986
16281.7,0.000564916,0,5659,33952
16301.2,0.000121052,0,5658,33943
16320.6,-0.000326794,0,5649,33891
16340.1,-0.00077834,0,5649,33893
16359.6,-0.00123193,0,5643,33858
16379,-0.00168652,0,5637,33820
16398.5,-0.00214099,0,5629,33769
16418,-0.00259511,0,5624,33744
16437.6,-0.00304676,0,5619,33709
16457.1,-0.00349472,0,5618,33707
16476.6,-0.00393772,0,5611,33661
16496.1,-0.00437448,0,5609,33649
16515.6,-0.00480369,0,5605,33625
16535.1,-0.00522405,0,5601,33603
16554.7,-0.00563423,0,5599,33589
16574.2,-0.00603293,0,5593,33553
16593.7,-0.00641885,0,5591,33544
16613.2,-0.00679071,0,5582,33491
16632.7,-0.00714724,0,5580,33476
16652.3,-0.00748736,0,5576,33454
16671.8,-0.00780975,0,5572,33428
16691.3,-0.00811328,0,5571,33421
16710.8,-0.00839687,0,5568,33406
16730.4,-0.0086595,0,5567,33400
16749.9,-0.00890026,0,5562,33371
16769.4,-0.00911823,0,5560,33360
16788.9,-0.00931262,0,5555,33329
16808.5,-0.0094827,0,5548,33285
16828,-0.009628,0,5547,33280
16847.5,-0.00974779,0,5543,33256
16867.1,-0.00984168,0,5538,33228
16886.7,-0.00990925,0,5538,33226
16906.2,-0.00995026,0,5534,33200
16925.8,-0.00996457,0,5530,33177
16945.3,-0.00995212,0,5528,33168
16964.9,-0.00991295,0,5524,33139
16984.5,-0.00984719,0,5517,33097
17004.1,-0.00975513,0,5513,33075
17023.7,-0.00963712,0,5510,33057
17043.2,-0.00949358,0,5509,33051
17062.8,-0.00932496,0,5505,33029
17082.5,-0.00913201,0,5502,33009
17102.1,-0.00891549,0,5495,32967
17121.7,-0.0086761,0,5490,32937
17141.3,-0.00841489,0,5486,32912
17160.9,-0.00813282,0,5483,32894
17180.5,-0.00783142,0,5477,32858
17200.1,-0.00751138,0,5472,32828
17219.6,-0.00717465,0,5468,32804
17239.1,-0.00682247,0,5464,32781
17258.6,-0.00645545,0,5464,32782
17278.1,-0.0060749,0,5462,32770
17297.6,-0.00568213,0,5459,32750
17317.1,-0.00527851,0,5453,32714
17336.5,-0.00486696,0,5448,32686
17355.9,-0.00444739,0,5445,32668
17375.3,-0.00402118,0,5442,32652
17394.7,-0.00359104,0,5440,32635
17414.1,-0.00315707,0,5435,32607
17433.4,-0.00272064,0,5429,32574
17452.8,-0.00228387,0,5422,32528
17472.1,-0.00184735,0,5418,32506
17491.4,-0.00141236,0,5418,32503
17510.8,-0.000980206,0,5414,32484
17530.1,-0.00055213,0,5412,32471
17549.4,-0.000129352,0,5407,32442
17568.7,0.000286697,0,5406,32432
17588,0.00069514,0,5402,32410
17607.4,0.00109489,0,5402,32412
17626.7,0.00148475,0,5398,32387
17646,0.00186389,0,5396,32373
17665.3,0.00223136,0,5395,32367
17684.6,0.00258628,0,5391,32346
17703.9,0.00292782,0,5388,32323
17723.2,0.0032552,0,5387,32319
17742.5,0.00356772,0,5383,32295
17761.9,0.00386471,0,5380,32279
17781.2,0.00414559,0,5379,32270
17800.5,0.00440973,0,5376,32251
17819.8,0.00465676,0,5376,32253
17839.1,0.00488628,0,5373,32233
17858.4,0.00509793,0,5369,32214
17877.7,0.00529142,0,5367,32202
17897,0.00546653,0,5365,32187
17916.3,0.00562308,0,5364,32179
17935.6,0.00576096,0,5361,32163
17954.9,0.00588012,0,5357,32142
17974.2,0.00598055,0,5355,32128
17993.5,0.00606231,0,5352,32111
18012.8,0.0061255,0,5352,32108
18032.1,0.00617028,0,5349,32094
18051.4,0.00619685,0,5348,32086
18070.7,0.00620547,0,5343,32057
18090,0.00619643,0,5340,32039
18109.4,0.00617007,0,5340,32039
18128.7,0.00612678,0,5338,32024
18148,0.00606697,0,5336,32012
18167.3,0.00599111,0,5333,31993
18186.6,0.00589967,0,5332,31989
18205.9,0.00579318,0,5330,31977
18225.2,0.0056722,0,5327,31961
18244.5,0.00553729,0,5326,31953
18263.8,0.00538907,0,5326,31954
18283.1,0.00522816,0,5327,31958
18302.4,0.00505519,0,5327,31958
18321.7,0.00487078,0,5327,31960
18341,0.00467558,0,5327,31962
18360.4,0.00447036,0,5325,31946
18379.7,0.0042558,0,5320,31917
18399.1,0.00403178,0,5318,31905
18418.4,0.0037999,0,5316,31895
18437.8,0.00356079,0,5315,31889
18457.2,0.00331518,0,5312,31871
18476.6,0.00306352,0,5309,31850
18496,0.00280681,0,5305,31825
18515.4,0.00254577,0,5302,31809
18534.9,0.00227969,0,5301,31802
18554.5,0.00201053,0,5300,31796
18574,0.00173916,0,5298,31787
18593.5,0.00146629,0,5296,31772
18613,0.00119264,0,5294,31764
18632.6,0.000918723,0,5292,31748
18652.1,0.000645366,0,5289,31729
18679.6,0.000262453,0,5287,31721
18707.1,-0.00011681,0,5282,31689
18734.6,-0.000491436,0,5280,31677
18761.8,-0.000854354,0,5278,31665
18789,-0.00120887,0,5278,31665
18816.6,-0.00155887,0,5274,31643
18844.2,-0.00189733,0,5276,31651
18871.8,-0.0022229,0,5278,31665
18897.3,-0.00251006,0,5277,31662
18922.7,-0.00278424,0,5278,31668
18948.2,-0.00304459,0,5279,31670
18975.8,-0.00331115,0,5279,31669
19000.6,-0.00353455,0,5280,31675
19025.4,-0.00374279,0,5279,31669
19050.2,-0.00393535,0,5279,31669
19075.1,-0.00411175,0,5279,31669
19099.9,-0.0042716,0,5278,31667
19124.7,-0.00441454,0,5278,31667
19152.3,-0.00455444,0,5279,31673
19179.9,-0.00467273,0,5279,31673
19207.5,-0.00476913,0,5279,31669
19235.1,-0.00484346,0,5281,31681
19262.7,-0.00489559,0,5282,31691
19290.4,-0.00492545,0,5285,31706
19318,-0.00493306,0,5286,31712
19345.6,-0.00491849,0,5287,31717
19373.2,-0.00488186,0,5288,31727
19398,-0.00482928,0,5290,31739
19422.8,-0.00475923,0,5290,31737
19447.6,-0.00467193,0,5290,31740
19472.4,-0.0045676,0,5289,31734
19497.3,-0.00444652,0,5288,31726
19522.1,-0.004309,0,5288,31726
19546.9,-0.00415535,0,5287,31720
19573.3,-0.00397463,0,5286,31716
19599.8,-0.0037764,0,5286,31714
19626.3,-0.00356113,0,5287,31718
19652.8,-0.00332933,0,5287,31720
19679.2,-0.00308155,0,5287,31720
19713.1,-0.00274483,0,5287,31720
19743.3,-0.00242296,0,5287,31720
19771.7,-0.00210235,0,5286,31716
19800.2,-0.0017663,0,5287,31721
19826.4,-0.00144372,0,5288,31728
19851.2,-0.00112684,0,5289,31734
19876,-0.000800046,0,5291,31746
19900.8,-0.000463916,0,5292,31752
19925.6,-0.000119024,0,5295,31766
19950.4,0.00023405,0,5296,31776
19976.6,0.000614504,0,5296,31772
