time,surface_elevation,reference_data,number_of_local_cells,number_of_global_cells
0,0,0,17224,103300
10.3361,0,0,17457,104644
20.6589,0,0,18692,112320
30.9302,0,0,19415,116470
41.1586,0,0,19629,117646
51.3241,0,0,19846,119126
61.441,0,0,20265,121572
71.5056,0,0,20773,124828
81.5168,0,0,21133,126784
91.501,0,0,21348,128074
101.446,0,0,21665,129826
111.362,0,0,21964,131886
121.247,0,0,22289,133832
131.104,0,0,22517,135196
140.936,0,0,22764,136702
150.752,0,0,23028,137982
160.545,0,0,23273,139692
170.323,0,0,23536,141332
180.079,0,0,23808,142714
191.764,0,0,24072,144518
201.493,0,0,24293,145856
211.21,0,0,24591,147408
220.918,0,0,24850,149064
230.612,0,0,25045,150122
240.278,0,0,25261,151674
251.847,0,0,25583,153410
261.473,0,0,25803,154744
271.08,0,0,26010,156210
280.674,0,0,26233,157442
290.249,0,0,26557,159156
301.717,0,0,26813,160838
311.272,0,0,27021,162078
320.824,0,0,27280,163656
330.376,0,0,27567,165244
341.837,0,0,27843,166898
351.387,0,0,28081,168572
360.937,0,0,28365,170072
370.487,0,0,28578,171560
380.036,0,0,28855,173316
391.496,0,0,29216,175192
401.046,0,0,29485,176966
410.596,0,0,29774,178488
420.145,0,0,30000,180184
431.605,0,0,30398,182442
441.155,0,0,30701,184104
450.705,0,0,30964,185940
460.254,0,0,31287,187686
471.714,0,0,31562,189434
481.265,0,0,31897,191436
490.827,0,0,32182,193130
500.393,0,0,32519,195080
511.862,0,0,32884,197322
521.431,0,0,33167,198982
530.999,0,0,33451,200652
540.568,0,0,33809,202776
550.121,0,0,34083,204658
561.581,0,0,34489,206902
571.133,0,0,34843,209168
580.688,0,0,35155,211014
590.242,0,0,35508,212928
601.708,0,0,35861,215190
611.262,0,0,36138,216932
620.814,0,0,36475,218912
630.366,0,0,36820,220746
641.828,0,0,37147,222892
651.379,0,0,37456,224710
660.929,0,0,37826,226938
670.479,0,0,38190,229046
680.029,0,0,38513,231068
691.488,0,0,38899,233386
701.038,0,0,39254,235476
710.588,0,0,39563,237356
720.138,0,0,39868,239210
731.597,0,0,40266,241552
741.147,0,0,40548,243472
750.697,0,0,40959,245616
760.247,0,0,41301,247894
771.707,0,0,41674,250056
781.256,0,0,42055,252324
790.806,0,0,42398,254406
800.356,0,0,42723,256354
811.816,0,0,43119,258726
821.365,0,0,43468,260846
830.915,0,0,43838,262996
840.465,0,0,44138,264838
850.015,0,0,44494,266912
861.474,0,0,44990,269946
871.024,0,0,45268,271642
880.574,0,0,45653,273884
890.123,0,0,46003,275988
901.583,0,0,46321,277954
911.133,0,0,46697,280184
920.682,0,0,47074,282454
930.232,0,0,47454,284754
941.692,0,0,47830,286984
951.241,0,0,48185,289136
960.791,0,0,48558,291358
970.34,0,0,48866,293180
981.8,0,0,49314,295900
991.35,0,0,49755,298528
1000.9,0,0,50067,300370
1010.45,0,0,50438,302588
1021.91,0,0,50860,305174
1031.46,0,0,51157,306998
1041.01,0,0,51573,309474
1050.56,0,0,51915,311510
1060.11,0,0,52273,313618
1071.57,0,0,52727,316392
1081.12,0,0,53047,318254
1090.67,0,0,53410,320534
1100.22,0,0,53808,322892
1111.68,0,0,54235,325356
1121.23,0,0,54640,327790
1130.78,0,0,54917,329522
1140.33,0,0,55294,331750
1151.79,0,0,55733,334408
1161.34,0,0,56090,336488
1170.89,0,0,56453,338700
1180.44,0,0,56804,340772
1191.9,0,0,57209,343234
1201.45,0,0,57565,345386
1211,0,0,57939,347676
1220.55,0,0,58337,349990
1230.1,0,0,58723,352258
1241.56,0,0,59181,355018
1251.11,0,0,59537,357248
1260.66,0,0,59925,359518
1270.21,0,0,60315,361852
1281.67,0,0,60779,364604
1291.21,0,0,61096,366584
1300.76,0,0,61519,369034
1310.31,0,0,61922,371524
1321.77,0,0,62316,373874
1331.32,0,0,62697,376202
1340.87,0,0,63094,378618
1350.42,0,0,63480,380876
1361.88,0,0,63906,383534
1371.43,0,0,64277,385730
1380.98,-1.81899e-12,0,64722,388316
1390.53,-6.36646e-12,0,65087,390528
1400.08,-1.09139e-11,0,65456,392716
1411.54,-1.63709e-11,0,65919,395544
1421.09,-2.09184e-11,0,66354,398110
1430.64,-2.54659e-11,0,66723,400388
1440.18,-3.00133e-11,0,67158,402878
1451.61,-3.54703e-11,0,67616,405686
1461.14,-4.00178e-11,0,68005,408006
1470.66,-4.45652e-11,0,68408,410454
1480.19,-4.91127e-11,0,68784,412614
1491.62,-5.45697e-11,0,69214,415226
1501.11,-6.36646e-11,0,69594,417590
1510.59,-7.27596e-11,0,70053,420278
1520.07,-8.18545e-11,0,70460,422748
1531.45,-9.27685e-11,0,70953,425724
1540.93,-1.02773e-10,0,71351,428126
1550.41,-1.16415e-10,0,71734,430434
1561.81,-1.32786e-10,0,72303,433870
1571.36,-1.47338e-10,0,72646,435964
1580.91,-1.65528e-10,0,73059,438280
1590.46,-1.83718e-10,0,73481,440876
1600.01,-2.05546e-10,0,73854,443130
1611.47,-2.32831e-10,0,74329,445938
1621.02,-2.60115e-10,0,74747,448486
1630.57,-2.8831e-10,0,75150,450882
1640.11,-3.20142e-10,0,75578,453448
1651.57,-3.62888e-10,0,76120,456684
1661.12,-4.01997e-10,0,76566,459320
1670.67,-4.44743e-10,0,76925,461580
1680.22,-4.92037e-10,0,77324,463982
1691.68,-5.54792e-10,0,77814,466924
1701.2,-6.12999e-10,0,78241,469472
1710.71,-6.76664e-10,0,78641,471790
1720.25,-7.46695e-10,0,79072,474390
1731.71,-8.40373e-10,0,79488,476938
1741.26,-9.25866e-10,0,79883,479410
1750.81,-1.01954e-09,0,80374,482350
1760.32,-1.12141e-09,0,80780,484718
1771.72,-1.25601e-09,0,81256,487596
1781.22,-1.3797e-09,0,81704,490254
1790.72,-1.51522e-09,0,82083,492392
1800.22,-1.66165e-09,0,82434,494716
1811.62,-1.85537e-09,0,83012,498060
1821.12,-2.03272e-09,0,83429,500566
1830.62,-2.22553e-09,0,83814,502952
1840.12,-2.43381e-09,0,84227,505342
1851.52,-2.70848e-09,0,84751,508520
1861,-2.95859e-09,0,85159,511024
1870.48,-3.23143e-09,0,85627,513724
1881.85,-3.58887e-09,0,86119,516730
1891.33,-3.91174e-09,0,86497,519064
1900.81,-4.26189e-09,0,86968,521725
1910.29,-4.64115e-09,0,87418,524347
1921.67,-5.13592e-09,0,87871,527155
1931.15,-5.58521e-09,0,88308,529869
1940.63,-6.06997e-09,0,88726,532353
1950.11,-6.59384e-09,0,89147,534861
1961.49,-7.27596e-09,0,89608,537604
1970.97,-7.89441e-09,0,90049,540386
1980.45,-8.55835e-09,0,90524,543142
1991.82,-9.42327e-09,0,91026,546318
2001.3,-1.02045e-08,0,91511,549128
2010.78,-1.1044e-08,0,91950,551878
2020.26,-1.19462e-08,0,92468,554708
2031.64,-1.31167e-08,0,92982,557808
2041.12,-1.41727e-08,0,93447,560590
2050.6,-1.53059e-08,0,93880,563308
2060.08,-1.65219e-08,0,94285,565836
2071.45,-1.80989e-08,0,94919,569460
2080.93,-1.9515e-08,0,95359,572246
2090.41,-2.1033e-08,0,95769,574706
2101.79,-2.29984e-08,0,96287,577690
2111.27,-2.47637e-08,0,96746,580540
2120.75,-2.66527e-08,0,97304,583648
2130.23,-2.86736e-08,0,97738,586546
2141.61,-3.12857e-08,0,98278,589762
2151.09,-3.36277e-08,0,98802,592718
2160.57,-3.61306e-08,0,99258,595440
2170.05,-3.88036e-08,0,99660,597968
2181.42,-4.22515e-08,0,100255,601610
2190.9,-4.53392e-08,0,100818,604936
2200.38,-4.86334e-08,0,101249,607614
2211.76,-5.28753e-08,0,101749,610516
2221.24,-5.66688e-08,0,102215,613288
2230.72,-6.07115e-08,0,102636,615928
2240.2,-6.5018e-08,0,103109,618732
2251.57,-7.05559e-08,0,103749,622540
2261.05,-7.54981e-08,0,104196,625216
2270.53,-8.07559e-08,0,104583,627628
2280.01,-8.63492e-08,0,105103,630593
2291.39,-9.35279e-08,0,105669,633953
2300.87,-9.99262e-08,0,106005,636181
2310.35,-1.06722e-07,0,106559,639261
2321.73,-1.15436e-07,0,107162,643093
2331.21,-1.2319e-07,0,107687,645991
2340.69,-1.31419e-07,0,108015,648121
2350.17,-1.40149e-07,0,108416,650573
2361.54,-1.5132e-07,0,109030,654108
2371.02,-1.61243e-07,0,109378,656458
2380.5,-1.71756e-07,0,109924,659588
2391.88,-1.85192e-07,0,110558,663374
2401.36,-1.97109e-07,0,111006,665982
2410.84,-2.09716e-07,0,111435,668646
2420.32,-2.23051e-07,0,111912,671490
2431.69,-2.40071e-07,0,112539,675278
2441.17,-2.5515e-07,0,112981,677800
2450.65,-2.71082e-07,0,113484,680854
2460.13,-2.87905e-07,0,113876,683418
2471.51,-3.0932e-07,0,114497,687014
2480.99,-3.28231e-07,0,114931,689768
2490.47,-3.48149e-07,0,115480,692742
2501.84,-3.73431e-07,0,116066,696370
2511.32,-3.95694e-07,0,116560,699326
2520.8,-4.19084e-07,0,117035,702286
2530.28,-4.43642e-07,0,117489,704947
2541.66,-4.74711e-07,0,118143,708781
2551.14,-5.01989e-07,0,118614,711739
2560.62,-5.3058e-07,0,119080,714397
2570.1,-5.60532e-07,0,119595,717449
2581.47,-5.98347e-07,0,120235,721397
2590.95,-6.31515e-07,0,120752,724484
2600.43,-6.6643e-07,0,121266,727532
2611.81,-7.10765e-07,0,121893,731182
2621.29,-7.49816e-07,0,122349,734220
2630.77,-7.90857e-07,0,122883,737148
2640.25,-8.33955e-07,0,123358,740017
2651.62,-8.88491e-07,0,123943,743653
2661.1,-9.36373e-07,0,124362,746166
2670.58,-9.86553e-07,0,124855,749142
2680.06,-1.03911e-06,0,125281,751859
2691.44,-1.10545e-06,0,125863,755109
2700.92,-1.16357e-06,0,126341,757993
2710.4,-1.22437e-06,0,126751,760595
2721.77,-1.30102e-06,0,127209,763201
2731.25,-1.36811e-06,0,127717,766287
2740.73,-1.43824e-06,0,128256,769509
2750.21,-1.51153e-06,0,128731,772323
2761.59,-1.60382e-06,0,129346,775991
2771.07,-1.68448e-06,0,129806,778967
2780.53,-1.76857e-06,0,130250,781617
2791.88,-1.87414e-06,0,130850,785106
2801.36,-1.96641e-06,0,131379,788324
2810.81,-2.06239e-06,0,131946,791752
2820.24,-2.1621e-06,0,132467,794644
2831.56,-2.28718e-06,0,133011,797902
2840.99,-2.39611e-06,0,133551,801332
2850.43,-2.50946e-06,0,134113,804772
2861.75,-2.65157e-06,0,134626,807783
2871.18,-2.77527e-06,0,135129,810627
2880.61,-2.90398e-06,0,135656,813900
2890.04,-3.04084e-06,0,136144,816696
2901.36,-3.21811e-06,0,136670,820207
2910.79,-3.37306e-06,0,137249,823371
2920.22,-3.53508e-06,0,137740,826341
2931.54,-3.73942e-06,0,138327,830151
2940.97,-3.91841e-06,0,138778,832745
2950.41,-4.10567e-06,0,139366,836068
2961.72,-4.34177e-06,0,139884,839227
2971.16,-4.54842e-06,0,140335,842057
2980.59,-4.76452e-06,0,140786,844811
2990.02,-4.99048e-06,0,141286,847878
3001.34,-5.27519e-06,0,141784,850729
3010.77,-5.52423e-06,0,142294,853816
3020.2,-5.78438e-06,0,142867,857006
3031.52,-6.11181e-06,0,143457,860712
3040.95,-6.65914e-06,0,144049,864340
3050.39,-7.22811e-06,0,144566,867492
3061.7,-7.94155e-06,0,145179,871082
3071.14,-8.56279e-06,0,145742,874502
3080.57,-9.20907e-06,0,146266,877689
3091.89,-1.00184e-05,0,147008,882039
3101.32,-1.07216e-05,0,147516,884913
3110.75,-1.14515e-05,0,148058,888421
3120.18,-1.22086e-05,0,148618,891831
3131.5,-1.31543e-05,0,149269,895628
3140.93,-1.39743e-05,0,149847,898950
3150.36,-1.48246e-05,0,150346,902136
3161.68,-1.58861e-05,0,150985,905898
3171.11,-1.68058e-05,0,151630,909636
3180.55,-1.77582e-05,0,152115,912817
3191.86,-1.89455e-05,0,152784,916693
3201.3,-1.99733e-05,0,153320,919757
3210.73,-2.10374e-05,0,153838,923045
3220.16,-2.26901e-05,0,154313,926005
3231.48,-2.51897e-05,0,155104,930740
3240.91,-2.73423e-05,0,155595,933693
3250.34,-2.95584e-05,0,156204,937195
3261.66,-3.23014e-05,0,156958,941886
3271.09,-3.46567e-05,0,157501,945168
3280.52,-3.65136e-05,0,158040,948200
3291.84,-3.77979e-05,0,158633,951838
3301.27,-3.89495e-05,0,159132,954795
3310.71,-4.02003e-05,0,159690,957954
3320.14,-4.1567e-05,0,160231,961556
3331.46,-4.33771e-05,0,161005,965975
3340.89,-4.50373e-05,0,161615,969713
3350.32,-4.68421e-05,0,162201,973147
3361.64,-4.91853e-05,0,162963,977964
3371.07,-5.11808e-05,0,163440,980743
3380.5,-5.32173e-05,0,163973,983772
3391.82,-5.57484e-05,0,164602,987429
3401.25,-5.79573e-05,0,165079,990537
3410.68,-6.02797e-05,0,165639,993846
3420.12,-6.27358e-05,0,166404,998339
3431.43,-6.58859e-05,0,167111,1002617
3440.87,-6.87005e-05,0,167448,1004724
3450.3,-7.17052e-05,0,168025,1008126
3461.62,-7.55808e-05,0,168795,1012565
3471.05,-7.89644e-05,0,169484,1016741
3480.48,-8.23309e-05,0,170259,1021607
3491.8,-8.64311e-05,0,170979,1025890
3501.23,-8.99615e-05,0,171664,1029902
3510.66,-9.36442e-05,0,172313,1033846
3520.09,-9.75212e-05,0,172925,1037700
3531.41,-0.000102485,0,173646,1041808
3540.84,-0.000106852,0,174171,1044960
3550.27,-0.000111429,0,174923,1049254
3561.59,-0.000120029,0,175554,1053028
3571.02,-0.000128194,0,176049,1056098
3580.46,-0.000136265,0,176617,1059561
3591.77,-0.000145987,0,177370,1064287
3601.21,-0.00015425,0,177827,1066869
3610.64,-0.000161584,0,178447,1070763
3620.07,-0.000167159,0,179137,1074670
3631.39,-0.000174408,0,179830,1078995
3640.82,-0.000181357,0,180416,1082449
3650.25,-0.000189375,0,181055,1086235
3661.57,-0.000200598,0,181829,1090860
3671,-0.000211388,0,182308,1094135
3680.43,-0.000223222,0,182860,1097281
3691.75,-0.000237796,0,183716,1102357
3701.18,-0.000250625,0,184479,1106875
3710.61,-0.000264478,0,184968,1109618
3720.04,-0.000283376,0,185469,1112726
3731.36,-0.000309006,0,186289,1117670
3740.79,-0.000332022,0,187041,1122257
3750.23,-0.000356622,0,187729,1126425
3761.54,-0.000388446,0,188243,1129531
3770.98,-0.000417103,0,188904,1133253
3780.41,-0.000447397,0,189438,1136654
3791.72,-0.000485724,0,190183,1141084
3801.16,-0.000529763,0,190640,1143887
3810.59,-0.000578108,0,191076,1146549
3820.02,-0.000628037,0,191405,1148746
3831.34,-0.000691779,0,192070,1152564
3840.77,-0.000746854,0,192650,1155876
3850.2,-0.000802515,0,193039,1158141
3861.52,-0.000870053,0,193808,1162915
3870.95,-0.00092598,0,194374,1166171
3880.38,-0.000982355,0,195087,1170274
3891.7,-0.00105495,0,195806,1174623
3901.13,-0.0011209,0,196463,1178429
3910.56,-0.00119517,0,196966,1181968
3921.88,-0.00120816,0,197827,1186887
3931.31,-0.00127546,0,198539,1191056
3940.74,-0.00136359,0,199153,1194681
3950.17,-0.00147,0,199729,1198312
3961.51,-0.00161416,0,200373,1202414
3970.96,-0.00174252,0,201088,1206552
3980.41,-0.00188,0,201829,1210843
3991.76,-0.00202122,0,202678,1215931
4001.21,-0.00209483,0,203331,1220149
4010.66,-0.00225803,0,204001,1223924
4020.11,-0.00245185,0,204521,1227371
4031.42,-0.00270832,0,205281,1232061
4040.85,-0.00292196,0,205929,1235405
4050.29,-0.00313679,0,206512,1238974
4061.6,-0.00340012,0,207181,1243084
4071.04,-0.00362466,0,207892,1247224
4080.47,-0.00385385,0,208591,1251172
4091.78,-0.00413836,0,209210,1254889
4101.22,-0.00438312,0,209789,1258933
4110.65,-0.0046344,0,210349,1262076
4120.08,-0.00490024,0,211021,1265918
4131.4,-0.0053924,0,211726,1270476
4140.83,-0.00584847,0,212304,1273823
4150.26,-0.00628342,0,212891,1277491
4161.58,-0.00679245,0,213712,1282031
4171.01,-0.00724593,0,214122,1285082
4180.44,-0.00771846,0,214792,1288635
4191.76,-0.0082979,0,215556,1293546
4201.19,-0.00875728,0,216168,1297196
4210.62,-0.00921077,0,216916,1301137
4220.05,-0.00968502,0,217503,1305222
4231.37,-0.0102912,0,218271,1309944
4240.8,-0.0108147,0,218918,1313392
4250.23,-0.0113434,0,219333,1316204
4261.55,-0.0119841,0,220048,1320037
4270.98,-0.0125309,0,220664,1323715
4280.42,-0.0130901,0,221223,1327192
4291.73,-0.0137588,0,221827,1331287
4301.17,-0.0144109,0,222449,1334520
4310.6,-0.0151031,0,222940,1337672
4320.03,-0.0158611,0,223499,1341086
4331.35,-0.0166134,0,224368,1346082
4340.78,-0.0172764,0,224893,1349676
4350.21,-0.0179308,0,225656,1353570
4361.53,-0.0187107,0,226313,1358067
4370.96,-0.0193164,0,226908,1361142
4380.39,-0.0199038,0,227203,1363176
4391.71,-0.0206069,0,227845,1366901
4401.14,-0.0211819,0,228419,1370304
4410.57,-0.0217274,0,228954,1374003
4420.01,-0.0223168,0,229647,1377709
4431.32,-0.0227535,0,230192,1380981
4440.76,-0.0231091,0,230857,1385018
4450.19,-0.0234098,0,231534,1388843
4461.51,-0.0236455,0,232225,1393406
4470.94,-0.0237574,0,232786,1396365
4480.37,-0.02377,0,233453,1400619
4491.69,-0.0237248,0,234215,1405387
4501.12,-0.0236514,0,234912,1409245
4510.55,-0.0235386,0,235530,1413365
4521.87,-0.0233521,0,236289,1417473
4531.3,-0.0231638,0,237000,1421979
4540.73,-0.0229506,0,237828,1426668
4550.17,-0.0226827,0,238595,1431269
4561.48,-0.0223666,0,239374,1435926
4570.92,-0.0219382,0,239952,1439679
4580.35,-0.0211789,0,240777,1444682
4591.67,-0.0200514,0,241677,1449939
4601.1,-0.0188252,0,242305,1453457
4610.53,-0.0167668,0,243023,1458446
4621.85,-0.0138768,0,243987,1464129
4631.28,-0.0111539,0,244746,1468176
4640.71,-0.00803386,0,245281,1471611
4650.15,-0.00450266,0,245987,1476285
4661.46,0.000316498,0,247026,1481796
4670.9,0.00486894,0,247551,1485170
4680.33,0.00991523,0,248186,1489293
4691.65,0.0165984,0,248988,1494052
4701.08,0.022764,0,249698,1498069
4710.51,0.0294934,0,250374,1502322
4721.83,0.0383167,0,251080,1506235
4731.26,0.0462992,0,251800,1510647
4740.69,0.0548511,0,252481,1514591
4750.12,0.0639721,0,253256,1519425
4761.44,0.0756603,0,254071,1524272
4770.87,0.085994,0,254579,1527593
4780.31,0.0968365,0,255234,1531774
4791.62,0.110471,0,255954,1535840
4801.06,0.122309,0,256891,1541079
4810.49,0.134543,0,257539,1545384
4821.81,0.149689,0,258224,1549524
4831.25,0.16265,0,258780,1552735
4840.69,0.175849,0,259403,1556608
4850.12,0.18923,0,260104,1560400
4861.44,0.205476,0,260923,1565157
4870.87,0.219118,0,261556,1569153
4880.3,0.232806,0,262225,1573248
4891.62,0.24923,0,263141,1578986
4901.05,0.262863,0,263667,1581846
4910.48,0.276403,0,264186,1584831
4921.8,0.292476,0,264710,1588149
4931.23,0.305683,0,265310,1592166
4940.67,0.318684,0,266036,1596394
4950.1,0.331448,0,266484,1599239
4961.42,0.346408,0,267088,1602741
4970.85,0.358547,0,267822,1606834
4980.28,0.37036,0,268513,1611369
4991.6,0.384063,0,269371,1616334
5001.03,0.395051,0,269877,1619513
5010.46,0.405614,0,270718,1624298
5021.78,0.41768,0,271572,1629629
5031.21,0.42719,0,272183,1633234
5040.64,0.436169,0,273074,1638173
5050.08,0.444582,0,273815,1642942
5061.39,0.453884,0,274648,1647891
5070.83,0.460932,0,275446,1652601
5080.26,0.4673,0,276115,1657038
5091.58,0.473992,0,277101,1662637
5101.01,0.478738,0,277925,1667272
5110.44,0.482689,0,278777,1672871
5121.76,0.486337,0,279815,1678582
5131.19,0.488433,0,280539,1683465
5140.62,0.489557,0,281351,1688029
5150.05,0.490252,0,281916,1691690
5161.37,0.488832,0,282864,1697010
5170.81,0.486568,0,283548,1701087
5180.24,0.483828,0,284195,1705409
5191.56,0.479165,0,285204,1711037
5200.99,0.474096,0,285928,1715300
5210.42,0.468182,0,286454,1718785
5221.74,0.459625,0,287388,1724352
5231.17,0.451553,0,288166,1728802
5240.6,0.442495,0,288603,1731808
5250.03,0.432535,0,289309,1736069
5261.35,0.419478,0,290339,1742049
5270.78,0.407648,0,290938,1745757
5280.22,0.39506,0,291498,1749410
5291.55,0.378994,0,292452,1754786
5301.03,0.364835,0,293220,1759418
5310.49,0.350119,0,294091,1764482
5321.85,0.331738,0,294881,1769264
5331.35,0.315847,0,295591,1773690
5340.85,0.299579,0,296357,1777898
5350.32,0.283021,0,297089,1782751
5361.64,0.262955,0,297954,1787789
5371.08,0.246077,0,298562,1791251
5380.51,0.229109,0,299471,1796470
5391.88,0.208664,0,300217,1801377
5401.36,0.19167,0,300828,1805186
5410.82,0.174818,0,301582,1809546
5420.28,0.158128,0,302245,1813750
5431.62,0.138363,0,303130,1818537
5441.1,0.122105,0,303667,1821640
5450.58,0.106094,0,304100,1824614
5460.06,0.0903486,0,304744,1828111
5471.47,0.0717604,0,305422,1832785
5481,0.056555,0,306002,1836165
5490.54,0.0415933,0,306762,1840297
5500.08,0.0268968,0,307462,1845023
5511.46,0.00967517,0,308286,1849922
5520.94,-0.00443266,0,309012,1853872
5530.43,-0.0183846,0,309819,1858576
5541.83,-0.0349379,0,310798,1864742
5551.37,-0.0486702,0,311517,1869120
5560.91,-0.0623099,0,312182,1873094
5570.41,-0.0758087,0,312931,1877746
5581.74,-0.0918351,0,313987,1883775
5591.18,-0.10512,0,314802,1888592
5600.63,-0.118373,0,315549,1893278
5610.11,-0.131599,0,316290,1897382
5621.56,-0.147459,0,317194,1903046
5631.02,-0.160433,0,318148,1908749
5640.47,-0.173232,0,318954,1913680
5651.84,-0.188375,0,319863,1918887
5661.38,-0.200784,0,320661,1923976
5670.93,-0.212855,0,321639,1930073
5680.46,-0.224505,0,322701,1936152
5691.9,-0.237852,0,323673,1942146
5701.44,-0.248354,0,324356,1946595
5710.96,-0.258173,0,325241,1951108
5720.42,-0.267216,0,326114,1957101
5731.82,-0.277036,0,327190,1962613
5741.35,-0.28426,0,327928,1967125
5750.89,-0.290523,0,328701,1971898
5760.42,-0.295744,0,329484,1976682
5771.84,-0.300556,0,330447,1983021
5781.36,-0.303311,0,331205,1987309
5790.9,-0.304891,0,332138,1992908
5800.44,-0.305267,0,333073,1997823
5811.89,-0.304113,0,333895,2003047
5821.41,-0.301824,0,334670,2007771
5830.9,-0.298354,0,335715,2014261
5840.39,-0.293729,0,336673,2020060
5851.78,-0.286712,0,337768,2025909
5861.26,-0.279714,0,338347,2030588
5870.74,-0.271736,0,339193,2035239
5880.22,-0.262856,0,340087,2040591
5891.6,-0.251126,0,341064,2046553
5901.08,-0.240565,0,342067,2052108
5910.56,-0.229393,0,342812,2057059
5920.04,-0.217711,0,343668,2061532
5931.41,-0.203165,0,344345,2065998
5940.89,-0.190726,0,345222,2071386
5950.35,-0.178132,0,346092,2076273
5961.7,-0.162933,0,346720,2080431
5971.16,-0.150302,0,347521,2085174
5980.62,-0.137799,0,348412,2091027
5990.08,-0.125509,0,349333,2095284
6001.42,-0.111153,0,350042,2099987
6010.88,-0.0995978,0,350731,2104314
6020.34,-0.0884813,0,351514,2109240
6031.69,-0.0757932,0,352619,2115208
6041.15,-0.0658119,0,353255,2120270
6050.6,-0.0564034,0,354159,2124849
6060.06,-0.0475922,0,354875,2129528
6071.41,-0.0378323,0,356125,2136244
6080.87,-0.0303904,0,356774,2140513
6090.33,-0.023582,0,357659,2145729
6101.67,-0.0162454,0,359006,2153493
6111.13,-0.0108171,0,359926,2159352
6120.59,-0.00599926,0,360811,2164141
6130.05,-0.0017762,0,361633,2169642
6141.4,0.00253115,0,362430,2174238
6150.85,0.00550817,0,362961,2177669
6160.31,0.0079467,0,363691,2182315
6171.66,0.0101848,0,364633,2187731
6181.12,0.0115054,0,365381,2192359
6190.57,0.0123721,0,366176,2197101
6200.03,0.0126247,0,366669,2200381
6211.38,0.0130265,0,367815,2206231
6220.84,0.0126928,0,368674,2212468
6230.3,0.0120653,0,369759,2218888
6241.65,0.0110316,0,370869,2225114
6251.1,0.00925922,0,371685,2229764
6260.56,0.0073339,0,372646,2235190
6270.02,0.00510716,0,373554,2241156
6281.37,0.00234216,0,374399,2246124
6290.82,-0.000172763,0,375120,2250422
6300.28,-0.00298004,0,375646,2253403
6311.63,-0.00654056,0,376228,2256757
6321.09,-0.00965332,0,376823,2261023
6330.55,-0.0128591,0,377092,2262812
6340,-0.0161746,0,377360,2264575
6351.35,-0.0202322,0,377870,2267608
6360.81,-0.0236722,0,378538,2271000
6370.27,-0.0271445,0,379120,2274881
6381.62,-0.0312734,0,379824,2278280
6391.07,-0.0346545,0,380622,2284270
6400.53,-0.0379495,0,381418,2289088
6411.88,-0.0417587,0,382414,2294729
6421.34,-0.0447908,0,383116,2298213
6430.8,-0.0476715,0,383641,2301977
6440.25,-0.0503754,0,384445,2307050
6451.6,-0.0533519,0,385843,2314734
6461.06,-0.0555988,0,386531,2319646
6470.52,-0.05763,0,387506,2324610
6481.87,-0.0597738,0,388526,2331129
6491.32,-0.0613142,0,389583,2337033
6500.78,-0.0626361,0,390465,2343225
6510.24,-0.0637458,0,391613,2349314
6521.6,-0.0648139,0,392806,2357361
6531.08,-0.0655505,0,393914,2363157
6540.56,-0.066046,0,394970,2369904
6550.04,-0.0661396,0,395816,2374393
6561.42,-0.0659267,0,396788,2381381
6570.9,-0.0656828,0,397711,2387008
6580.38,-0.0654248,0,398893,2393355
6591.75,-0.0650444,0,399980,2400373
6601.23,-0.0646998,0,401323,2407547
6610.71,-0.0643474,0,401977,2412281
6620.19,-0.0639801,0,402735,2416058
6631.57,-0.0635092,0,403961,2423780
6641.01,-0.0630959,0,405152,2430523
6650.44,-0.0626706,0,406060,2435613
6661.81,-0.0621519,0,407074,2443005
6671.31,-0.0617209,0,408111,2447998
6680.78,-0.0613047,0,408889,2453397
6690.27,-0.0609111,0,410277,2460946
6701.64,-0.0604781,0,411434,2468201
6711.07,-0.0601517,0,412490,2475534
6720.51,-0.0598591,0,413425,2480187
6731.87,-0.0595606,0,414474,2486261
6741.37,-0.0593652,0,415360,2492407
6750.85,-0.0592202,0,416446,2499063
6760.33,-0.0591091,0,417427,2505194
6771.7,-0.0591106,0,418343,2510793
6781.18,-0.058997,0,419607,2517479
6790.66,-0.0591672,0,420920,2525162
6800.14,-0.0592558,0,421760,2530939
6811.52,-0.0592468,0,423149,2538623
6821,-0.0595306,0,423892,2543363
6830.48,-0.0597317,0,425078,2549837
6841.85,-0.0599379,0,425864,2555177
6851.33,-0.0601419,0,426688,2559396
6860.81,-0.0603431,0,427455,2565346
6870.29,-0.0605478,0,428562,2571243
6881.67,-0.0607206,0,429315,2575248
6891.15,-0.0608076,0,429837,2578524
6900.63,-0.0608795,0,430429,2582975
6910.11,-0.0609485,0,431295,2587633
6921.44,-0.0610245,0,432156,2592517
6930.9,-0.0610486,0,433166,2598579
6940.37,-0.0612831,0,434272,2604953
6951.75,-0.0612402,0,435293,2611782
6961.23,-0.0611698,0,436078,2616680
6970.71,-0.0610479,0,436859,2621002
6980.18,-0.0607429,0,437917,2627392
6991.51,-0.0604506,0,439422,2636304
7000.95,-0.0602212,0,440330,2642369
7010.41,-0.0599055,0,441435,2649140
7021.76,-0.059324,0,442498,2655638
7031.21,-0.0591273,0,443409,2660136
7040.67,-0.05854,0,444382,2666870
7050.14,-0.0578067,0,445547,2673114
7061.48,-0.0567059,0,446643,2679837
7070.91,-0.0559777,0,447745,2686285
7080.34,-0.0553492,0,448393,2691097
7091.66,-0.0545544,0,449479,2696193
7101.09,-0.0537451,0,450524,2702836
7110.53,-0.0528734,0,451352,2708871
7121.84,-0.0518474,0,452684,2716417
7131.28,-0.0509938,0,453540,2720726
7140.71,-0.0501122,0,454227,2725167
7150.14,-0.0492255,0,455049,2730758
7161.46,-0.048198,0,456047,2736220
7170.89,-0.0473774,0,457028,2742315
7180.32,-0.0465849,0,457880,2746684
7191.64,-0.0456651,0,458805,2753062
7201.07,-0.0449181,0,459529,2757861
7210.51,-0.0441829,0,460261,2762138
7221.82,-0.0433114,0,461535,2769284
7231.26,-0.0425949,0,462479,2774839
7240.69,-0.0418919,0,463197,2779617
7250.12,-0.0412107,0,464059,2784521
7261.44,-0.0404534,0,465098,2790134
7270.87,-0.0398876,0,465755,2794724
7280.3,-0.0393897,0,466358,2797577
7291.62,-0.0387706,0,467118,2802658
7301.05,-0.0383611,0,468056,2807833
7310.48,-0.0379741,0,468871,2813765
7321.8,-0.0374813,0,469566,2818111
7331.23,-0.0371177,0,470466,2821920
7340.67,-0.0368145,0,471090,2826283
7350.1,-0.0365613,0,471630,2829854
7361.42,-0.0363613,0,472955,2837165
7370.85,-0.0361697,0,473487,2841521
7380.28,-0.0360052,0,474095,2844538
7391.6,-0.0359252,0,474718,2848776
7401.03,-0.0357673,0,475671,2854228
7410.46,-0.0355664,0,476457,2858973
7421.78,-0.0353155,0,476959,2861848
7431.21,-0.0351078,0,477485,2864946
7440.64,-0.034893,0,478018,2867752
7450.08,-0.0346736,0,478789,2872312
7461.39,-0.0343971,0,479572,2876965
7470.83,-0.0341377,0,480115,2880506
7480.26,-0.0338204,0,480238,2882137
7491.58,-0.0333559,0,481193,2886953
7501.01,-0.0328584,0,481927,2892184
7510.44,-0.0323465,0,482828,2897730
7521.76,-0.0317781,0,484226,2904985
7531.19,-0.031276,0,484922,2909948
7540.62,-0.030596,0,485871,2915391
7550.05,-0.0300961,0,486698,2920507
7561.37,-0.0289539,0,488322,2930094
7570.8,-0.02807,0,489314,2935201
7580.24,-0.0271803,0,489963,2940492
7591.55,-0.0259531,0,491470,2949191
7600.99,-0.0248284,0,492859,2957060
7610.42,-0.0236103,0,493278,2960088
7621.74,-0.0216438,0,494368,2965858
7631.17,-0.0200353,0,494947,2970254
7640.6,-0.0183498,0,496042,2976076
7650.03,-0.016553,0,497209,2982864
7661.35,-0.014342,0,498424,2989943
7670.78,-0.0124048,0,498824,2992494
7680.21,-0.0104173,0,499509,2996556
7691.53,-0.00794442,0,500567,3003430
7700.96,-0.00585046,0,501240,3006987
7710.4,-0.00374165,0,501875,3011725
7721.71,-0.00117684,0,502984,3017412
7731.15,0.000986007,0,503840,3022326
7740.58,0.00316583,0,504531,3027116
7750.01,0.00534483,0,505618,3033691
7761.33,0.0079467,0,506564,3039082
7770.76,0.0100999,0,507395,3044611
7780.19,0.0122315,0,508368,3050329
7791.51,0.0147443,0,509149,3055521
7800.94,0.0167809,0,509894,3058642
7810.37,0.0187516,0,510135,3060579
7821.69,0.0210237,0,510940,3065105
7831.14,0.0228438,0,512131,3072065
7840.59,0.0245948,0,513009,3077645
7850.06,0.026273,0,513562,3081970
7861.47,0.0281828,0,514475,3086207
7870.95,0.0296725,0,514801,3089418
7880.41,0.0310766,0,515792,3095244
7891.79,0.0326587,0,516865,3101081
7901.31,0.0338948,0,517708,3106121
7910.74,0.0350338,0,518951,3113209
7920.19,0.0360789,0,519812,3118289
7931.6,0.0371936,0,520375,3122885
7941.12,0.0379922,0,521269,3127224
7950.63,0.0386843,0,521897,3131741
7960.09,0.0392333,0,523105,3138245
7971.4,0.0394825,0,523820,3143319
7980.84,0.0394088,0,524858,3148467
7990.35,0.0392891,0,525489,3153533
8001.76,0.0391563,0,526519,3158859
8011.28,0.0389323,0,527259,3163135
8020.74,0.0386408,0,527874,3167194
8030.21,0.0383484,0,528604,3170873
8041.61,0.0379812,0,528969,3173933
8051.12,0.0375845,0,529706,3178671
8060.65,0.0373362,0,530576,3182984
8070.17,0.0367945,0,531212,3187205
8081.59,0.0357983,0,531893,3191122
8091.1,0.0350909,0,532454,3194753
8100.63,0.0342905,0,533168,3199267
8110.09,0.0334138,0,534117,3204433
8121.42,0.0322788,0,535354,3211867
8130.95,0.0312941,0,535991,3215217
8140.48,0.0301802,0,536480,3219277
8150.02,0.0287835,0,537617,3226429
8161.46,0.0272032,0,538805,3232198
8170.9,0.0258364,0,539540,3236905
8180.33,0.0245447,0,540157,3241300
8191.65,0.0229331,0,541419,3248835
8201.17,0.0215155,0,542056,3252802
8210.71,0.0200661,0,542638,3256454
8220.16,0.0185603,0,543375,3259727
8231.48,0.0166808,0,544093,3265162
8240.98,0.0150498,0,544728,3268186
8250.52,0.0133887,0,545407,3272990
8260.05,0.0116977,0,546191,3276619
8271.49,0.00961339,0,547112,3282819
8281.03,0.00783694,0,547815,3286558
8290.55,0.00603802,0,548110,3289030
8301.86,0.00388435,0,548875,3293231
8311.35,0.00209925,0,549452,3296828
8320.87,0.000328444,0,550404,3301919
8330.4,-0.00145457,0,551363,3307569
8341.87,-0.00362235,0,552040,3312740
8351.44,-0.00542431,0,552901,3316986
8361,-0.00719656,0,553561,3321329
8370.45,-0.00891297,0,554329,3326412
8381.78,-0.0109236,0,555592,3334235
8391.28,-0.0125809,0,556274,3336970
8400.72,-0.014203,0,556828,3341522
8410.17,-0.0157911,0,557616,3346031
8421.58,-0.0176447,0,559116,3354727
8431.01,-0.0191198,0,560347,3361331
8440.45,-0.0205417,0,560718,3364900
8451.81,-0.0221879,0,561894,3371460
8461.32,-0.0235108,0,563268,3379622
8470.79,-0.0247781,0,564377,3386760
8480.22,-0.0259936,0,565744,3393796
8491.57,-0.0273938,0,566322,3398107
8501.12,-0.028516,0,567272,3403516
8510.66,-0.0295837,0,568376,3409733
8520.19,-0.0305933,0,569424,3415935
8531.54,-0.031726,0,570194,3420928
8541.02,-0.0326175,0,571007,3426726
8550.52,-0.0334629,0,572003,3431787
8560.07,-0.0342643,0,572860,3437039
8571.51,-0.0351739,0,573620,3442042
8581.03,-0.0359171,0,574933,3449535
8590.55,-0.0366887,0,576284,3457591
8600.07,-0.0374761,0,576870,3461428
8611.47,-0.0379415,0,577802,3466559
8620.94,-0.0380459,0,578529,3471709
8630.41,-0.0382742,0,579240,3475407
8641.78,-0.0385197,0,580121,3480214
8651.25,-0.0383259,0,580932,3485708
8660.73,-0.038218,0,581574,3489394
8670.2,-0.0381839,0,582303,3493376
8681.57,-0.0381229,0,583158,3498747
8691.04,-0.0379628,0,583403,3500272
8700.51,-0.0379143,0,583842,3503475
8711.83,-0.0376057,0,584892,3508874
8721.26,-0.0373044,0,585403,3512029
8730.69,-0.0369965,0,586399,3517844
8740.12,-0.0365995,0,587094,3522191
8751.44,-0.0360995,0,587756,3526505
8760.87,-0.0355903,0,588623,3531112
8770.3,-0.0350892,0,588998,3533869
8781.62,-0.0342909,0,589942,3539688
8791.05,-0.0335098,0,590902,3545238
8800.49,-0.0327485,0,591790,3550128
8811.81,-0.0318775,0,593026,3558066
8821.24,-0.031035,0,593762,3562150
8830.67,-0.0301164,0,594242,3565728
8840.1,-0.0290808,0,595027,3570694
8851.42,-0.0277713,0,596258,3577950
8860.85,-0.0263767,0,597093,3581894
8870.28,-0.0248965,0,597580,3585349
8881.6,-0.023305,0,598469,3590567
8891.03,-0.0219739,0,599202,3594985
8900.47,-0.0205455,0,599970,3600246
8911.78,-0.0187507,0,600838,3604774
8921.22,-0.0172211,0,601521,3609613
8930.65,-0.0156246,0,602189,3613063
8940.08,-0.0139781,0,602761,3616682
8951.4,-0.0119229,0,603721,3622764
8960.83,-0.0101285,0,604905,3629809
8970.26,-0.00828354,0,605846,3635233
8981.58,-0.00602192,0,606713,3640894
8991.01,-0.00409862,0,607964,3647674
9000.44,-0.00212597,0,609032,3654615
9011.76,0.000302349,0,610132,3661294
9021.19,0.002342,0,611229,3666694
9030.63,0.00438129,0,611999,3672018
9040.06,0.0064298,0,613016,3677878
9051.38,0.008907,0,614409,3686109
9060.81,0.0109821,0,614965,3690361
9070.24,0.0130631,0,616147,3696999
9081.56,0.015568,0,617391,3704824
9090.99,0.0176635,0,618234,3709400
9100.42,0.0197655,0,619020,3714594
9111.74,0.0222889,0,619968,3720129
9121.17,0.0243846,0,620692,3724030
9130.61,0.026468,0,621608,3730089
9140.04,0.0285363,0,622626,3735499
9151.36,0.0309934,0,623034,3738951
9160.79,0.0330138,0,624106,3744025
9170.22,0.0350045,0,624958,3749488
9181.54,0.0373502,0,625871,3755106
9190.97,0.0392672,0,626295,3757007
9200.4,0.0411479,0,626763,3761286
9211.72,0.043354,0,627654,3766305
9221.15,0.0451483,0,628333,3770122
9230.58,0.0469006,0,628678,3771961
9240.02,0.0486084,0,629037,3774911
9251.34,0.0505936,0,630215,3781089
9260.77,0.0521913,0,631094,3786702
9270.2,0.0537364,0,631870,3791804
9281.52,0.0555214,0,632979,3797294
9290.95,0.0569508,0,634012,3803549
9300.38,0.0583243,0,634545,3807920
9311.7,0.0598924,0,635216,3811610
9321.13,0.0611272,0,635964,3816461
9330.56,0.0622925,0,636866,3821897
9341.88,0.0635947,0,638107,3829435
9351.31,0.0645951,0,638752,3833231
9360.75,0.0655133,0,639491,3835617
9370.18,0.0663443,0,639823,3838356
9381.5,0.0672241,0,641255,3846962
9390.93,0.0678702,0,642006,3851852
9400.36,0.0684253,0,642457,3854920
9411.68,0.068815,0,643467,3861011
9421.11,0.0690455,0,644337,3865971
9430.54,0.0692684,0,645085,3869433
9441.87,0.0694979,0,646184,3876654
9451.34,0.0694613,0,647054,3883076
9460.84,0.069544,0,648084,3888847
9470.35,0.0695125,0,648484,3891017
9481.73,0.0694225,0,649657,3897474
9491.25,0.0694558,0,650886,3905172
9500.77,0.069439,0,651819,3911195
9510.28,0.0693392,0,652716,3915819
9521.7,0.0692361,0,653149,3918732
9531.15,0.0691508,0,653881,3922568
9540.62,0.0690393,0,654198,3925343
9550.15,0.0689075,0,654691,3928592
9561.57,0.0689428,0,655706,3933479
9571.1,0.0688765,0,656598,3938955
9580.64,0.0685472,0,657240,3942920
9590.18,0.0677521,0,657651,3946519
9601.62,0.0664541,0,659634,3956392
9611.16,0.064986,0,660623,3963295
9620.7,0.0638563,0,661583,3969140
9630.24,0.0626241,0,662798,3977021
9641.69,0.0609262,0,663826,3983478
9651.17,0.0593935,0,664648,3988618
9660.61,0.0578589,0,666036,3996248
9670.04,0.0562086,0,667391,4004847
9681.36,0.054063,0,668823,4013626
9690.79,0.052229,0,669819,4019272
9700.22,0.0503561,0,670898,4024673
9711.54,0.0480798,0,671934,4031277
9720.97,0.0461406,0,673249,4038131
9730.41,0.0441396,0,674323,4046557
9741.72,0.041656,0,675802,4053484
9751.16,0.0395239,0,676413,4059492
9760.59,0.037346,0,677476,4064547
9770.02,0.035124,0,678790,4072079
9781.34,0.0323935,0,680137,4080321
9790.77,0.030059,0,681315,4087819
9800.2,0.0276748,0,682430,4094460
9811.52,0.0247746,0,683458,4100943
9820.95,0.0223435,0,684498,4106578
9830.38,0.019905,0,685318,4112133
9841.7,0.0169721,0,686443,4118952
9851.13,0.0145274,0,687087,4122887
9860.57,0.0120889,0,688098,4128254
9871.88,0.00917865,0,689244,4136176
9881.32,0.00677361,0,690543,4143265
9890.75,0.00439069,0,691115,4147252
9900.18,0.00202896,0,692362,4153586
9911.5,-0.000779922,0,693418,4160762
9920.93,-0.00309776,0,694181,4165387
9930.36,-0.00538818,0,695294,4173058
9941.68,-0.00809018,0,696526,4178313
9951.11,-0.0102973,0,697233,4183476
9960.55,-0.0124604,0,698212,4190637
9971.86,-0.0149934,0,699498,4195632
9981.3,-0.017048,0,699551,4198610
9990.73,-0.0190485,0,700510,4201910
10000.2,-0.0209958,0,700749,4204506
10011.6,-0.0232556,0,701952,4212514
10021.1,-0.0250652,0,702545,4215899
10030.6,-0.0268002,0,703199,4218995
10040.1,-0.02846,0,703379,4221029
10051.4,-0.0303499,0,704276,4225711
10060.9,-0.0318466,0,705242,4231643
10070.4,-0.0332624,0,706412,4238179
10081.8,-0.0348677,0,706769,4241407
10091.3,-0.0361263,0,707434,4244246
10100.8,-0.0373109,0,708359,4249837
10110.3,-0.0384223,0,708870,4252758
10121.7,-0.0396619,0,708903,4254071
10131.2,-0.0406186,0,709446,4257681
10140.7,-0.041504,0,710277,4260494
10150.1,-0.0423038,0,710081,4261333
10161.5,-0.0431368,0,710838,4265976
10170.9,-0.0436027,0,711846,4270543
10180.3,-0.0438953,0,712240,4272977
10191.6,-0.044063,0,712819,4276732
10201.1,-0.0440504,0,713515,4281799
10210.5,-0.0440061,0,714010,4285379
10221.8,-0.043963,0,714836,4289962
10231.3,-0.0439338,0,716087,4295271
10240.7,-0.0439489,0,716635,4299539
10250.1,-0.0441588,0,716803,4302337
10261.4,-0.0442182,0,717900,4306576
10270.9,-0.0440759,0,718026,4307283
10280.3,-0.0440311,0,718314,4309656
10291.6,-0.0440678,0,719019,4313942
10301.1,-0.0439669,0,719905,4318614
10310.5,-0.0438086,0,720523,4322516
10321.8,-0.0436445,0,720780,4326111
10331.2,-0.0432973,0,721388,4327303
10340.7,-0.0428917,0,721173,4327452
10350.1,-0.0424574,0,722267,4332144
10361.4,-0.0419979,0,722552,4336382
10370.9,-0.0416043,0,723628,4340882
10380.3,-0.0411825,0,724680,4348592
10391.6,-0.0406921,0,725741,4353920
10401,-0.0403025,0,726085,4356498
10410.5,-0.0398158,0,726840,4360114
10421.8,-0.0390108,0,727927,4367437
10431.2,-0.0384778,0,728276,4370505
10440.6,-0.0377404,0,728666,4370888
10450.1,-0.037124,0,728967,4372953
10461.4,-0.0363931,0,729755,4378933
10470.8,-0.0357785,0,730417,4382260
10480.3,-0.0351391,0,731264,4387160
10491.6,-0.0343386,0,732157,4391651
10501,-0.033727,0,733006,4396525
10510.4,-0.0331605,0,733565,4402009
10521.8,-0.0324393,0,734672,4408079
10531.2,-0.0317984,0,736402,4416995
10540.7,-0.03119,0,737482,4423739
10550.1,-0.0306347,0,737980,4428855
10561.5,-0.0300009,0,739128,4435824
10571,-0.0294664,0,740138,4440180
10580.5,-0.028923,0,740925,4446677
10591.8,-0.0282795,0,742156,4453231
10601.3,-0.0276366,0,742966,4457461
10610.8,-0.0272628,0,744202,4464482
10620.3,-0.0268178,0,745139,4470890
10631.6,-0.0263122,0,746474,4477843
10641.1,-0.0259371,0,746706,4481098
10650.6,-0.0256018,0,747045,4483117
10660.1,-0.0252741,0,748468,4490385
10671.5,-0.0248786,0,750145,4501773
10680.9,-0.0246047,0,751054,4505504
10690.4,-0.0245124,0,751378,4508129
10701.8,-0.0244489,0,751903,4512284
10711.4,-0.0244018,0,753570,4520510
10720.9,-0.0244346,0,754463,4526299
10730.4,-0.0243148,0,755124,4530648
10741.8,-0.024334,0,755731,4534310
10751.2,-0.0243106,0,756624,4538228
10760.7,-0.0241687,0,757019,4542410
10770.2,-0.0241446,0,757991,4548320
10781.6,-0.0241602,0,759191,4554927
10791.1,-0.0241828,0,759678,4558655
10800.6,-0.024213,0,760702,4562955
10810.1,-0.0242448,0,761457,4568374
10821.5,-0.0242675,0,761713,4570228
10831,-0.0242919,0,762029,4572830
10840.4,-0.0243265,0,762240,4573306
10851.8,-0.0243784,0,763209,4579299
10861.3,-0.0244287,0,764010,4585059
10870.8,-0.0243949,0,764112,4586006
10880.3,-0.0244502,0,764682,4587721
10891.6,-0.0242154,0,764835,4590009
10901.1,-0.024324,0,765610,4593987
10910.6,-0.0244158,0,766401,4599874
10920.1,-0.0244974,0,767268,4604060
10931.5,-0.0247381,0,767670,4606300
10941,-0.0249539,0,767224,4604351
10950.4,-0.0251323,0,767854,4606540
10961.8,-0.0247804,0,768263,4608361
10971.3,-0.0248832,0,768242,4609907
10980.8,-0.0250575,0,768377,4609576
10990.3,-0.0252631,0,768372,4611591
11001.6,-0.0255144,0,769633,4618664
11011.1,-0.0256584,0,770165,4621062
11020.6,-0.0258185,0,770144,4621960
11030.1,-0.0263192,0,769967,4620838
11041.5,-0.026986,0,770429,4624089
11050.9,-0.0273701,0,771262,4627788
11060.4,-0.0276151,0,771267,4628878
11071.8,-0.028056,0,771687,4630254
11081.3,-0.0284336,0,771724,4631041
11090.8,-0.0289044,0,772056,4632011
11100.2,-0.0293874,0,771954,4632172
11111.6,-0.0299266,0,773307,4638641
11121.1,-0.0304378,0,773454,4641132
11130.6,-0.0310283,0,773629,4642338
11140.1,-0.0316429,0,774476,4646336
11151.4,-0.0323351,0,775299,4650510
11160.9,-0.0328957,0,775522,4651976
11170.4,-0.0335856,0,775834,4653479
11181.8,-0.0344119,0,775592,4652775
11191.3,-0.0350864,0,775886,4654113
11200.7,-0.0357733,0,775889,4656015
11210.2,-0.0365176,0,776048,4657033
11221.6,-0.0374023,0,776411,4658973
11231.1,-0.0381126,0,776894,4660992
11240.5,-0.0388619,0,776418,4659635
11250,-0.0396661,0,777395,4663663
11261.4,-0.0406596,0,776973,4662427
11270.9,-0.0414911,0,777248,4663950
11280.4,-0.0423212,0,777971,4667846
11291.7,-0.0433051,0,779110,4675339
11301.2,-0.0441022,0,779287,4675980
11310.7,-0.0448741,0,778973,4673331
11320.2,-0.0456216,0,779150,4674179
11331.6,-0.0464882,0,780297,4681418
11341,-0.0471892,0,780745,4685313
11350.5,-0.0478749,0,781052,4685069
11361.9,-0.0486713,0,780561,4684022
11371.4,-0.049304,0,781244,4688639
11380.9,-0.0499082,0,782275,4694277
11390.3,-0.0504934,0,782884,4697357
11401.7,-0.0511847,0,782839,4698441
11411.2,-0.0517618,0,783456,4701907
11420.7,-0.0523402,0,784663,4709160
11430.2,-0.052906,0,785422,4712159
11441.5,-0.0535655,0,785359,4713183
11451,-0.0540835,0,786262,4716821
11460.5,-0.0545448,0,786850,4721453
11471.9,-0.0550619,0,788135,4727835
11481.3,-0.0554283,0,788758,4732922
11490.8,-0.055578,0,789374,4737062
11500.3,-0.0557238,0,790061,4741457
11511.7,-0.0560077,0,790631,4743561
11521.2,-0.0562469,0,791245,4748146
11530.6,-0.0564411,0,792315,4752584
11540.1,-0.0566068,0,792251,4754169
11551.5,-0.0567149,0,792289,4754682
11561,-0.0568655,0,793289,4758793
11570.5,-0.0570889,0,794538,4765718
11581.8,-0.0567995,0,794829,4768651
11591.3,-0.056968,0,795765,4773344
11600.8,-0.0570812,0,795816,4774841
11610.3,-0.0570838,0,796816,4779374
11621.6,-0.0571039,0,797213,4782817
11631.1,-0.0570942,0,797194,4782874
11640.6,-0.0571156,0,797359,4785039
11650.1,-0.0567609,0,798372,4791173
11661.5,-0.0570293,0,799005,4794159
11670.9,-0.0569193,0,799320,4795223
11680.4,-0.0567868,0,799538,4797103
11691.8,-0.0565305,0,800329,4801473
11701.3,-0.0559927,0,801194,4805929
11710.8,-0.0553405,0,801439,4808908
11720.2,-0.0549831,0,801418,4809438
11731.6,-0.0542704,0,802175,4813281
11741,-0.0537217,0,803436,4819079
11750.5,-0.0530754,0,804366,4826644
11761.8,-0.0525952,0,805388,4831938
11771.3,-0.0521329,0,806219,4835967
11780.8,-0.0516542,0,807057,4841434
11790.2,-0.0511372,0,807434,4843235
11801.6,-0.0504412,0,807983,4847883
11811,-0.0498166,0,808750,4853146
11820.5,-0.0491672,0,810171,4861139
11831.8,-0.0482954,0,810478,4863418
11841.3,-0.0475447,0,810457,4863216
11850.8,-0.0468124,0,811134,4867522
11860.2,-0.0460534,0,812023,4871326
11871.6,-0.045049,0,812682,4876785
11881,-0.0442355,0,813854,4881695
11890.5,-0.0434442,0,814044,4883782
11901.9,-0.0424621,0,814836,4890146
11911.4,-0.0416171,0,815665,4893909
11920.9,-0.0407734,0,816325,4897595
11930.3,-0.0399365,0,816516,4899445
11941.7,-0.0389129,0,816906,4902330
11951.1,-0.0380245,0,818018,4907457
11960.6,-0.0371005,0,819338,4915995
11970.1,-0.0361524,0,820653,4923022
11981.4,-0.0349882,0,821120,4926877
11990.9,-0.0339904,0,821626,4928789
12000.4,-0.0329608,0,821453,4928984
12011.8,-0.0316874,0,822276,4932731
12021.2,-0.0306038,0,823000,4938557
12030.7,-0.0295058,0,824098,4943148
12040.2,-0.0283955,0,825008,4951231
12051.6,-0.0270509,0,825363,4953364
12061.1,-0.0259249,0,825483,4952471
12070.5,-0.0247911,0,825470,4954114
12080,-0.0239558,0,825628,4954810
12091.4,-0.0224175,0,825514,4953885
12100.9,-0.021044,0,826307,4956416
12110.4,-0.0194253,0,825589,4954189
12121.7,-0.0177185,0,825628,4954617
12131.2,-0.0162386,0,826530,4957706
12140.7,-0.0147618,0,827112,4961696
12150.2,-0.013276,0,826945,4962597
12161.5,-0.0114896,0,827329,4964491
12171,-0.0099834,0,828163,4967793
12180.5,-0.00848125,0,828288,4970424
12191.9,-0.00667914,0,828582,4970785
12201.4,-0.00515122,0,828312,4969674
12210.8,-0.0036033,0,828816,4972361
12220.3,-0.00205181,0,829313,4975410
12231.7,-0.000192788,0,829333,4976624
12241.2,0.00135926,0,829422,4976912
12250.7,0.00290637,0,829977,4978805
12260.1,0.00443532,0,830169,4982187
12271.5,0.00624371,0,831218,4987039
12281,0.00773223,0,831434,4987620
12290.5,0.00920363,0,831516,4989941
12301.9,0.0109452,0,832411,4993096
12311.3,0.0123753,0,832704,4996621
12320.8,0.0137824,0,833092,4997582
12330.2,0.0151583,0,833397,5001765
12341.6,0.0167762,0,834537,5008145
12351.1,0.0180872,0,835499,5011808
12360.6,0.0193612,0,835837,5015361
12370,0.0205926,0,836496,5020204
12381.3,0.0220215,0,837501,5025309
12390.8,0.0231755,0,837377,5024706
12400.3,0.0242938,0,837101,5023972
12411.7,0.0255873,0,837460,5024079
12421.1,0.0266248,0,836947,5023202
12430.6,0.0276219,0,837399,5024740
12440,0.0285831,0,837153,5023183
12451.4,0.0296975,0,836459,5018884
12460.9,0.0305924,0,836411,5017163
12470.3,0.0314573,0,836501,5017855
12481.7,0.0324538,0,836431,5019056
12491.1,0.0332545,0,835884,5014979
12500.6,0.0340345,0,835268,5011800
12510.1,0.0347972,0,835331,5011599
12521.4,0.0356959,0,835462,5012790
12530.9,0.0364393,0,835489,5014219
12540.4,0.0371876,0,836651,5019733
12551.7,0.0381015,0,837655,5026954
12561.2,0.0388734,0,838964,5033753
12570.7,0.0396501,0,839836,5039186
12580.2,0.0404257,0,841158,5045949
12591.5,0.0413492,0,842300,5053210
12601,0.0421134,0,842712,5057162
12610.5,0.0428668,0,843709,5060776
12621.9,0.043753,0,843986,5063589
12631.4,0.0444835,0,844752,5069649
12641,0.0452031,0,845779,5073235
12650.5,0.045907,0,845401,5073187
12660,0.0465931,0,845581,5073656
12671.4,0.0473999,0,845656,5075325
12680.9,0.0480734,0,845397,5072105
12690.4,0.0487642,0,845713,5074938
12701.7,0.0496105,0,846225,5076812
12711.2,0.0502986,0,846139,5075703
12720.7,0.0507292,0,845373,5073728
12730.2,0.0512286,0,845347,5072165
12741.6,0.0519502,0,845770,5074581
12751,0.0525165,0,846098,5076553
12760.5,0.0530508,0,847270,5082312
12770,0.0535877,0,847114,5084108
12781.4,0.054255,0,849185,5095477
12790.9,0.0548142,0,850046,5101053
12800.4,0.0553756,0,850712,5104198
12811.7,0.0560509,0,851708,5109405
12821.2,0.056612,0,851873,5111413
12830.7,0.0571831,0,852559,5115303
12840.2,0.0577705,0,853865,5122226
12851.6,0.0584955,0,855046,5130548
12861,0.0591155,0,855762,5134786
12870.5,0.0597513,0,855734,5134914
12880,0.0604031,0,856128,5136736
12891.4,0.0612029,0,857345,5143119
12900.9,0.06188,0,858662,5151456
12910.4,0.0625634,0,859728,5158116
12921.7,0.0633868,0,860401,5161897
12931.2,0.0640708,0,860479,5163867
12940.7,0.0647475,0,861023,5165092
12950.2,0.0654109,0,860903,5165141
12961.6,0.0661804,0,861506,5168561
12971,0.0667912,0,862316,5174556
12980.5,0.0673674,0,863246,5179623
12990,0.067906,0,864174,5184106
13001.4,0.0684768,0,863845,5184383
13010.9,0.0689443,0,864222,5185037
13020.3,0.0694244,0,864149,5185167
13031.7,0.0697367,0,864785,5188224
13041.2,0.0700878,0,865048,5189242
13050.7,0.0703892,0,864811,5190359
13060.2,0.0706626,0,864850,5189435
13071.6,0.0707065,0,865169,5190209
13081,0.0707596,0,864752,5188365
13090.5,0.0708794,0,864650,5187035
13100,0.070984,0,864847,5188165
13111.4,0.0714018,0,864773,5187206
13120.9,0.071615,0,864206,5184521
13130.3,0.0716159,0,864430,5187347
13141.7,0.0721296,0,864206,5184562
13151.3,0.0717526,0,864370,5185018
13160.8,0.0714012,0,864351,5185771
13170.3,0.0717084,0,864732,5189121
13181.8,0.0717933,0,864978,5191358
13191.3,0.0716588,0,866306,5197487
13200.8,0.0714219,0,867362,5202860
13210.4,0.0712566,0,867429,5205238
13221.8,0.0711769,0,867133,5202078
13231.4,0.0709307,0,866525,5199845
13240.9,0.0708644,0,866157,5196471
13250.5,0.0705281,0,866590,5199262
13260,0.0702125,0,866391,5197148
13271.4,0.069859,0,865433,5191625
13281,0.0695344,0,864955,5190052
13290.5,0.0692011,0,865046,5189765
13300.1,0.0688532,0,864222,5185016
13311.5,0.0684101,0,864098,5184503
13321,0.0680357,0,863758,5183310
13330.5,0.0676851,0,863375,5179463
13341.9,0.0673374,0,863492,5180141
13351.4,0.0670637,0,863500,5180014
13360.9,0.066933,0,863684,5180982
13370.4,0.0666732,0,863727,5183216
13381.9,0.0663959,0,862926,5177520
13391.4,0.0661484,0,862524,5176059
13401,0.0658776,0,863460,5180231
13410.5,0.0655969,0,864562,5186896
13421.8,0.0652561,0,865335,5191474
13431.3,0.0649661,0,865008,5191401
13440.8,0.0646675,0,865517,5192455
13450.3,0.0643571,0,866191,5197880
13461.7,0.0639739,0,867322,5203156
13471.3,0.0636501,0,867777,5207495
13480.8,0.0633335,0,868290,5209856
13490.3,0.0630325,0,869063,5214306
13501.6,0.0626926,0,870239,5222748
13511.1,0.062422,0,870627,5224490
13520.6,0.0621581,0,871046,5227330
13530.1,0.0618938,0,872165,5231748
13541.5,0.0615586,0,873689,5243138
13551,0.061295,0,875049,5250403
13560.4,0.0610473,0,875845,5253634
13571.8,0.0607942,0,875623,5254911
13581.3,0.0605834,0,876822,5261493
13590.9,0.0603531,0,877491,5264890
13600.3,0.0601111,0,878019,5266855
13611.6,0.0598174,0,878679,5271033
13621.1,0.0595681,0,878825,5273770
13630.7,0.0593104,0,879310,5277236
13640.2,0.0590538,0,879477,5278584
13651.5,0.0587568,0,880470,5282588
13661.1,0.0585301,0,881080,5286907
13670.5,0.0582778,0,881476,5288668
13681.9,0.0578989,0,882128,5291379
13691.4,0.0580321,0,882659,5294624
13700.9,0.0579585,0,882727,5297520
13710.4,0.0578806,0,883801,5301403
13721.8,0.0576147,0,883547,5302783
13731.3,0.0573857,0,883428,5299197
13740.8,0.057217,0,883050,5299589
13750.4,0.0571998,0,883932,5303441
13761.8,0.0575117,0,884117,5304675
13771.3,0.0574811,0,884916,5309361
13780.8,0.0574283,0,884757,5308214
13790.3,0.0568764,0,884897,5310378
13801.8,0.0564384,0,886062,5315340
13811.4,0.0564981,0,886342,5317971
13820.9,0.0564222,0,886697,5320470
13830.4,0.0562396,0,887347,5324374
13841.8,0.0560291,0,888239,5330948
13851.4,0.0559324,0,888761,5332320
13860.9,0.0558043,0,889892,5338279
13870.4,0.0557235,0,890832,5345454
13881.8,0.0556132,0,891913,5351652
13891.4,0.0554299,0,893231,5358798
13900.9,0.0552573,0,894632,5367273
13910.5,0.0551039,0,895282,5371213
13921.8,0.0549223,0,895639,5375050
13931.4,0.0547582,0,896630,5378526
13940.9,0.0545508,0,897983,5386975
13950.4,0.0543312,0,898742,5391476
13961.8,0.0540471,0,898232,5389779
13971.3,0.05387,0,898769,5393437
13980.9,0.0536681,0,899219,5395952
13990.4,0.0534329,0,900101,5400941
14001.8,0.0531161,0,899759,5398826
14011.3,0.0528281,0,900419,5401696
14020.8,0.0525086,0,900470,5402161
14030.4,0.0521561,0,900271,5400216
14041.7,0.051701,0,899791,5398936
14051.3,0.0512473,0,899647,5397604
14060.8,0.050745,0,899730,5397026
14070.3,0.0502287,0,899758,5398000
14081.7,0.0496224,0,899744,5398183
14091.2,0.0491779,0,899868,5398405
14100.7,0.0485957,0,900159,5401963
14110.1,0.0481943,0,900317,5400890
14121.5,0.0472437,0,901219,5408072
14131,0.046595,0,901178,5407575
14140.5,0.0459253,0,901316,5407348
14151.9,0.0450513,0,901905,5411086
14161.4,0.0443011,0,902454,5416035
14170.8,0.0434875,0,903381,5419524
14180.3,0.0426105,0,903324,5419188
14191.6,0.0415636,0,903185,5419483
14201.2,0.0406838,0,903027,5417327
14210.6,0.0397791,0,903673,5422013
14220.1,0.0388415,0,904964,5429944
14231.5,0.0377165,0,905532,5431667
14241,0.036781,0,904902,5430675
14250.6,0.0358467,0,906000,5435951
14260.1,0.034896,0,906982,5440967
14271.5,0.0337011,0,907097,5442226
14281.1,0.0326276,0,907451,5444116
14290.6,0.0314219,0,908161,5449772
14300.1,0.029691,0,908969,5454939
14311.5,0.0283473,0,909186,5454437
14321,0.0271733,0,908937,5452796
14330.6,0.0259427,0,909333,5456630
14340.1,0.0247053,0,910023,5461036
14351.5,0.0232269,0,909443,5456758
14361,0.0219953,0,909134,5454135
14370.5,0.0207409,0,908363,5449407
14380,0.0195054,0,908656,5452732
14391.4,0.0179541,0,909111,5454143
14400.9,0.0166376,0,909227,5455035
14410.4,0.0153569,0,909223,5456158
14421.9,0.0137773,0,909559,5456878
14431.4,0.0124286,0,909926,5459420
14440.9,0.0110892,0,909081,5455877
14450.4,0.00973811,0,909332,5456578
14461.8,0.0080968,0,910030,5458647
14471.3,0.00670946,0,909869,5459808
14480.9,0.00530697,0,909633,5458298
14490.4,0.00390173,0,909150,5456112
14501.7,0.00220462,0,910049,5459630
14511.3,0.000776668,0,909701,5456900
14520.8,-0.000658203,0,908720,5453268
14530.3,-0.00208021,0,908781,5452590
14541.7,-0.00377774,0,908888,5453184
14551.2,-0.0051917,0,908124,5449354
14560.8,-0.00660504,0,907482,5446037
14570.3,-0.00801239,0,907979,5446509
14581.7,-0.00967462,0,907320,5442921
14591.1,-0.0110646,0,907526,5445026
14600.7,-0.012463,0,907186,5444325
14610.2,-0.0138501,0,907358,5442623
14621.5,-0.015508,0,906837,5440052
14631,-0.0168927,0,906496,5438452
14640.6,-0.0182744,0,906742,5439349
14650.2,-0.0196478,0,906236,5437459
14661.6,-0.0212733,0,906656,5438558
14671,-0.0226198,0,906310,5437785
14680.5,-0.0239679,0,906285,5436962
14691.8,-0.0255661,0,905979,5436378
14701.4,-0.0268785,0,906676,5438813
14711,-0.0281678,0,906556,5439969
14720.5,-0.0294376,0,906935,5440565
14731.9,-0.030946,0,908288,5449673
14741.4,-0.0322066,0,908172,5449259
14750.9,-0.0334721,0,908899,5454214
14760.5,-0.0347459,0,909677,5457966
14770.1,-0.0360225,0,910159,5461222
14781.6,-0.037561,0,910593,5464638
14791.1,-0.0388499,0,910999,5465195
14800.6,-0.0401497,0,910454,5464614
14810.1,-0.0414682,0,911027,5464788
14821.5,-0.0430875,0,911205,5465631
14831.1,-0.0444624,0,910826,5465907
14840.7,-0.045857,0,910177,5462453
14850.2,-0.0472565,0,911305,5467705
14861.6,-0.0489427,0,911085,5467309
14871.1,-0.050351,0,910989,5464795
14880.7,-0.0517702,0,910044,5460286
14890.3,-0.0531792,0,909490,5458128
14901.7,-0.054848,0,909384,5456347
14911.3,-0.0562288,0,909088,5455135
14920.8,-0.0576056,0,908625,5451602
14930.4,-0.0589856,0,907209,5444279
14941.9,-0.0606544,0,906991,5440449
14951.4,-0.0620668,0,906393,5437582
14961,-0.0634993,0,905609,5434922
14970.5,-0.0649405,0,905503,5432432
14980.1,-0.0663844,0,904708,5427286
14991.5,-0.0680932,0,903957,5422772
15001.1,-0.0694823,0,903250,5419960
15010.6,-0.0708337,0,902971,5417958
15020.1,-0.0721586,0,903479,5419591
15031.5,-0.0737198,0,903274,5420939
15041.1,-0.075019,0,903341,5420731
15050.6,-0.0763092,0,903449,5421334
15060.2,-0.0775949,0,903074,5419742
15071.6,-0.0791146,0,904130,5423417
15081,-0.0803589,0,904334,5426110
15090.5,-0.0815913,0,903993,5425243
15101.9,-0.083044,0,905045,5429634
15111.3,-0.0842045,0,905136,5430282
15120.8,-0.0853303,0,904197,5424379
15130.3,-0.0864352,0,904535,5426405
15141.8,-0.0877283,0,905090,5430342
15151.3,-0.0887772,0,905658,5434926
15160.9,-0.0897909,0,906302,5437876
15170.4,-0.0907614,0,906037,5436884
15181.8,-0.0918704,0,906392,5439346
15191.3,-0.0927516,0,906879,5441319
15200.9,-0.0935979,0,906417,5439967
15210.5,-0.0944066,0,906883,5439930
15220,-0.0951718,0,907228,5444062
15231.5,-0.0960214,0,906918,5440584
15241.1,-0.0966633,0,907375,5444122
15250.6,-0.0972418,0,907231,5443486
15260.1,-0.0977866,0,907274,5444350
15271.6,-0.0983504,0,907209,5442940
15281.1,-0.0991798,0,907389,5444284
15290.6,-0.0991039,0,908266,5450659
15300.1,-0.0990407,0,908985,5453882
15311.6,-0.098797,0,909224,5454074
15321.1,-0.0984802,0,908802,5452369
15330.6,-0.0981093,0,909275,5455536
15340.1,-0.0976839,0,909937,5460451
15351.5,-0.097146,0,911275,5467463
15361.1,-0.0964917,0,912227,5472112
15370.6,-0.0958653,0,912950,5477307
15380.2,-0.0950636,0,913649,5480447
15391.5,-0.0941539,0,914143,5484690
15401,-0.0932391,0,914369,5486391
15410.5,-0.0922582,0,915307,5490526
15420.1,-0.0912327,0,916285,5496400
15431.5,-0.0899411,0,916394,5499808
15441.1,-0.0888379,0,917447,5504234
15450.6,-0.0876972,0,918026,5508004
15460.2,-0.0865408,0,919082,5514036
15471.6,-0.0849594,0,919071,5513897
15481.2,-0.0834612,0,918483,5511650
15490.8,-0.0819415,0,918724,5512709
15500.3,-0.0803436,0,918454,5510234
15511.7,-0.078329,0,918120,5508908
15521.3,-0.0765964,0,918342,5508704
15530.8,-0.0748037,0,917660,5507239
15540.4,-0.07293,0,917399,5503461
15551.8,-0.0705694,0,916766,5500061
15561.3,-0.0685017,0,916590,5498223
15570.9,-0.0663572,0,915174,5491712
15580.4,-0.0641356,0,914525,5488440
15591.8,-0.0613621,0,913404,5479762
15601.3,-0.0589751,0,912070,5472854
15610.9,-0.0565343,0,911996,5472503
15620.4,-0.0540563,0,910913,5467171
15631.8,-0.0510542,0,909336,5456275
15641.3,-0.0485399,0,908409,5451328
15650.8,-0.046016,0,908483,5451449
15660.3,-0.0434823,0,907652,5445334
15671.7,-0.0404313,0,905724,5435540
15681.2,-0.0378828,0,905483,5433512
15690.7,-0.0353334,0,905465,5433360
15700.2,-0.0327894,0,905865,5433501
15711.6,-0.029753,0,904545,5429075
15721.1,-0.0272448,0,903509,5422431
15730.6,-0.0247612,0,903862,5421545
15740.1,-0.0223117,0,903897,5423281
15751.4,-0.0194388,0,904316,5424986
15760.9,-0.017105,0,903669,5421207
15770.3,-0.0148185,0,902961,5417597
15781.7,-0.0121267,0,903234,5420704
15791.2,-0.009936,0,904667,5426993
15800.7,-0.00781952,0,905105,5430215
15810.1,-0.00577915,0,904832,5428656
15821.5,-0.00343197,0,904689,5429274
15831.1,-0.00156171,0,905100,5431305
15840.6,0.000210305,0,905121,5431480
15850,0.0018676,0,905548,5433429
15861.3,0.00372673,0,906204,5438014
15870.8,0.00517801,0,906927,5440675
15880.4,0.00653825,0,907236,5443965
15891.7,0.00803023,0,908230,5450384
15901.2,0.00917895,0,908225,5449767
15910.7,0.0102443,0,908583,5450706
15920.3,0.0112219,0,908845,5452858
15931.7,0.0122711,0,909699,5458952
15941.1,0.0130423,0,910942,5465622
15950.6,0.0137241,0,910854,5466731
15960.1,0.0143218,0,911244,5468029
15971.6,0.0149746,0,912055,5472304
15981.1,0.0155495,0,912672,5474942
15990.6,0.0158988,0,912486,5473939
16000.1,0.0162929,0,911953,5471101
16011.5,0.0162191,0,911972,5472968
16021.1,0.0160651,0,912034,5473130
16030.6,0.0160408,0,911206,5467739
16040.1,0.0159809,0,910552,5463533
16051.5,0.0159273,0,909919,5459882
16061,0.0158573,0,910533,5461903
16070.5,0.0156967,0,909931,5461071
16080,0.0155665,0,909503,5458228
16091.5,0.0153679,0,909982,5460570
16101,0.0154195,0,909903,5459722
16110.4,0.0153978,0,909064,5455370
16121.8,0.0144968,0,909268,5455841
16131.4,0.0137036,0,909001,5455085
16140.9,0.0131615,0,908637,5450667
16150.4,0.0125583,0,907685,5445472
16161.8,0.0116825,0,906636,5440637
16171.3,0.0110788,0,906079,5436090
16180.8,0.0104066,0,905952,5435421
16190.3,0.00949758,0,905630,5432611
16201.7,0.00834432,0,905057,5428992
16211.3,0.007458,0,904272,5425381
16220.8,0.00652375,0,903368,5421277
16230.3,0.00547635,0,903076,5417135
16241.7,0.00400118,0,902544,5415291
16251.3,0.00251306,0,901769,5410098
16260.8,0.00137244,0,901248,5407293
16270.3,9.53634e-05,0,900458,5402322
16281.8,-0.00135671,0,899708,5397473
16291.3,-0.00252739,0,897841,5386760
16300.8,-0.00369778,0,896825,5380958
16310.4,-0.00484541,0,896376,5379689
16321.8,-0.00618354,0,895898,5374691
16331.4,-0.00729053,0,895808,5373906
16340.9,-0.00838093,0,895136,5369585
16350.4,-0.00944641,0,894249,5365332
16361.8,-0.0106744,0,893717,5363332
16371.3,-0.0116275,0,893203,5359129
16380.8,-0.0125143,0,893228,5359699
16390.3,-0.0133471,0,893490,5361037
16401.7,-0.0142686,0,893622,5361052
16411.2,-0.014954,0,892788,5357496
16420.6,-0.0155897,0,892375,5353598
16430.1,-0.0162,0,891475,5347842
16441.6,-0.0169195,0,891545,5350016
16451.1,-0.0175158,0,891397,5348301
16460.5,-0.0180433,0,890977,5345553
16471.9,-0.018199,0,890862,5344968
16481.4,-0.0183813,0,891620,5349341
16490.9,-0.018311,0,890712,5344388
16500.5,-0.0181646,0,890536,5344169
16510,-0.0179778,0,890870,5346063
16521.4,-0.017679,0,891616,5350332
16530.8,-0.0174012,0,891705,5350108
16540.3,-0.0171198,0,891985,5352742
16551.7,-0.0167684,0,891590,5349003
16561.2,-0.016468,0,891454,5348412
16570.7,-0.0160413,0,891191,5347303
16580.2,-0.0156272,0,890463,5343860
16591.5,-0.0151422,0,889768,5337863
16601,-0.0147203,0,888445,5330812
16610.5,-0.0142742,0,888585,5332603
16620,-0.0138128,0,888092,5329425
16631.5,-0.013246,0,887826,5327788
16641,-0.0127536,0,887704,5326022
16650.5,-0.0122376,0,886759,5320443
16661.9,-0.0115709,0,885981,5315444
16671.4,-0.0110379,0,885872,5314552
16681,-0.0104309,0,885835,5313717
16690.5,-0.00980006,0,884360,5307708
16701.8,-0.0090927,0,882755,5298128
16711.3,-0.00852377,0,882558,5295635
16720.8,-0.00797106,0,882256,5294232
16730.3,-0.00743073,0,881479,5287575
16741.6,-0.00680278,0,880774,5283527
16751.1,-0.00630519,0,879858,5279376
16760.6,-0.00582909,0,879438,5275795
16770,-0.00537567,0,879348,5277381
16781.4,-0.00487136,0,878119,5269284
16790.8,-0.00449595,0,877402,5264632
16800.3,-0.00416223,0,877044,5263228
16811.7,-0.00380739,0,876500,5260067
16821.2,-0.00354504,0,876292,5257251
16830.6,-0.00351128,0,876097,5256414
16840.1,-0.00333404,0,875993,5256391
16851.5,-0.00312081,0,875112,5252146
16861,-0.00296212,0,874469,5247146
16870.4,-0.00259272,0,874717,5247172
16881.8,-0.00258843,0,873975,5244753
16891.2,-0.00258149,0,874566,5248347
16900.7,-0.00267805,0,874503,5248006
16910.2,-0.0027488,0,874513,5246315
16921.5,-0.00303093,0,874299,5245588
16931,-0.00320036,0,873996,5244433
16940.5,-0.00335689,0,874025,5244509
16951.9,-0.00366469,0,872890,5238177
16961.3,-0.00386341,0,873608,5242602
16970.8,-0.00403054,0,873437,5241008
16980.3,-0.00419536,0,872868,5236663
16991.7,-0.00441509,0,872085,5231510
17001.1,-0.00461601,0,871647,5230284
17010.5,-0.00479085,0,871363,5227978
17020,-0.00495192,0,870814,5225515
17031.4,-0.0051502,0,869838,5218525
17040.8,-0.00532695,0,869014,5214676
17050.3,-0.0055128,0,870124,5219617
17061.6,-0.00574404,0,870151,5222257
17071.1,-0.0059376,0,870107,5222046
17080.6,-0.00612574,0,870649,5223735
17090,-0.00630064,0,871089,5226583
17101.4,-0.00648664,0,871457,5227646
17110.9,-0.0066188,0,872574,5234017
17120.3,-0.00646772,0,872315,5233049
17131.7,-0.00655823,0,872165,5232855
17141.1,-0.00662701,0,871871,5231594
17150.6,-0.00702128,0,871226,5228796
17160.1,-0.00707338,0,871352,5228038
17171.4,-0.00679327,0,871288,5228082
17180.9,-0.00691099,0,871024,5227182
17190.4,-0.00685612,0,870238,5220461
17201.7,-0.00672958,0,870234,5221416
17211.2,-0.00666776,0,870195,5220394
17220.6,-0.00667299,0,869461,5217797
17230.1,-0.00691711,0,868309,5210616
17241.5,-0.00690515,0,866512,5198264
17251,-0.00681873,0,865752,5194720
17260.4,-0.00665407,0,864789,5188095
17271.8,-0.00639818,0,862568,5175575
17281.3,-0.00615773,0,862020,5172409
17290.8,-0.00590409,0,860743,5165720
17300.2,-0.00564878,0,860317,5162193
17311.6,-0.00533939,0,859040,5154079
17321.1,-0.00507067,0,857635,5146624
17330.6,-0.00479711,0,856663,5140552
17340.1,-0.00448891,0,855399,5132748
17351.4,-0.00411505,0,854099,5124929
17360.9,-0.00376848,0,853482,5122035
17370.4,-0.0034116,0,853011,5117857
17381.8,-0.0029974,0,852439,5115077
17391.4,-0.00264872,0,851827,5111107
17400.9,-0.00229221,0,851833,5110454
17410.5,-0.00192034,0,850905,5106244
17420,-0.00153245,0,850489,5102880
17431.5,-0.00106593,0,849496,5097953
17441,-0.000685416,0,849122,5096174
17450.6,-0.000313047,0,849493,5097374
17460.1,5.24189e-05,0,848892,5093597
17471.5,0.000483234,0,849891,5098494
17481,0.000835708,0,849613,5097501
17490.5,0.00118004,0,850683,5102755
17501.9,0.00157717,0,851376,5108926
17511.4,0.00189316,0,851235,5109045
17520.9,0.00219521,0,851806,5111369
17530.5,0.00248417,0,852108,5112094
17541.9,0.00281312,0,853313,5120778
17551.4,0.00307388,0,854263,5125396
17560.9,0.00332626,0,854691,5128801
17570.4,0.003572,0,854416,5127143
17581.9,0.00384826,0,854782,5128300
17591.4,0.0040657,0,855710,5133681
17601,0.00427491,0,856335,5137711
17610.5,0.00447533,0,856785,5140020
17620,0.00465975,0,856788,5139873
17631.5,0.0048616,0,857433,5143196
17640.9,0.00502129,0,857061,5143008
17650.4,0.00519099,0,857209,5144067
17661.7,0.00539366,0,857500,5146018
17671.2,0.00555193,0,857584,5145964
17680.7,0.00569993,0,857525,5146679
17690.1,0.00584882,0,857393,5144128
17701.5,0.00602419,0,857881,5147717
17710.9,0.0058164,0,858271,5148273
17720.4,0.00593068,0,858227,5148772
17731.7,0.0060239,0,858870,5152537
17741.2,0.00611332,0,858695,5152330
17750.6,0.00617035,0,858441,5150306
17760.1,0.00622657,0,858757,5151165
17771.5,0.00628506,0,858665,5151750
17780.9,0.00633308,0,858434,5149642
17790.4,0.00641542,0,857227,5143361
17801.7,0.00644242,0,856763,5141527
17811.2,0.00647258,0,857397,5145005
17820.6,0.00649988,0,856851,5142471
17830.1,0.00646448,0,856132,5137552
17841.4,0.00643293,0,855306,5132828
17850.9,0.00662204,0,855784,5134650
17860.4,0.00681251,0,856017,5136276
17871.7,0.00740526,0,855607,5133612
17881.2,0.00711824,0,855160,5130136
17890.6,0.00708615,0,854447,5126968
17900.1,0.00748759,0,853691,5122532
17911.4,0.00756596,0,852975,5118015
17920.9,0.00767442,0,853108,5118662
17930.3,0.00798547,0,852319,5113528
17941.7,0.00832798,0,851924,5112267
17951.1,0.00857071,0,851033,5105140
17960.6,0.00883983,0,850661,5104028
17970.1,0.0090192,0,849432,5097734
17981.4,0.00931884,0,848807,5092443
17990.9,0.00974723,0,847553,5085082
18000.3,0.0101235,0,846223,5078053
18011.7,0.0105345,0,844433,5067611
18021.1,0.0109107,0,844361,5066905
18030.6,0.011329,0,844524,5066078
18040,0.0117822,0,842559,5055434
18051.4,0.0123683,0,841169,5047543
18060.9,0.0128861,0,841359,5047144
18070.3,0.0131806,0,840891,5044934
18081.7,0.0139854,0,840328,5042815
18091.1,0.0145653,0,839210,5033549
18100.6,0.0151301,0,837562,5023887
18110,0.0156916,0,836730,5019806
18121.4,0.016335,0,836033,5017684
18130.8,0.0168542,0,836196,5017172
18140.3,0.017374,0,834965,5009718
18151.6,0.0180217,0,833134,4999005
18161.1,0.0184662,0,832854,4997743
18170.6,0.0189245,0,832595,4996084
18180,0.0193777,0,833672,5002103
18191.4,0.0199221,0,833676,5001907
18200.8,0.0203664,0,833250,4998975
18210.3,0.020777,0,832588,4994284
18221.6,0.0212548,0,832724,4995221
18231,0.0216139,0,832612,4995033
18240.5,0.0219624,0,832549,4994740
18251.8,0.0222284,0,832084,4993916
18261.2,0.0224238,0,832468,4994715
18270.7,0.0226248,0,831924,4992113
18280.1,0.0227857,0,831834,4989821
18291.4,0.0229249,0,831126,4988028
18300.8,0.0229962,0,830710,4983098
18310.3,0.0231266,0,829975,4980616
18321.6,0.0231773,0,829660,4976682
18331,0.0232165,0,828861,4971739
18340.4,0.0231367,0,827431,4963834
18351.8,0.0233306,0,826463,4957800
18361.2,0.0233112,0,825803,4955283
18370.6,0.0232516,0,824526,4947643
18380.1,0.0231574,0,823786,4941536
18391.4,0.0230087,0,822835,4937434
18400.8,0.0228075,0,821994,4931005
18410.2,0.0225877,0,820101,4920621
18421.6,0.0223017,0,818532,4910575
18431,0.0220025,0,817072,4903583
18440.4,0.0216734,0,816292,4897877
18451.7,0.0213304,0,815575,4894678
18461.2,0.0211698,0,814554,4886661
18470.6,0.0207993,0,813211,4878810
18480,0.0204215,0,812275,4875301
18491.4,0.0199719,0,810979,4867080
18500.8,0.0195914,0,810546,4861893
18510.2,0.0191945,0,809371,4856401
18521.5,0.0186854,0,808096,4848530
18531,0.0182323,0,807943,4845944
18540.4,0.0177556,0,807161,4842399
18551.7,0.017158,0,805645,4832916
18561.2,0.0166444,0,805087,4829182
18570.6,0.0161216,0,804194,4825089
18580,0.0155931,0,803072,4818469
18591.4,0.0149511,0,802383,4814499
18600.9,0.0144075,0,801982,4811597
18610.5,0.0138576,0,801435,4809192
18620.1,0.0133019,0,801231,4806929
18631.4,0.0126286,0,800147,4802105
18640.9,0.0120578,0,799276,4796488
18650.4,0.0114789,0,798614,4792796
18661.9,0.010769,0,798176,4789665
18671.4,0.0101741,0,797698,4785595
18680.9,0.00958083,0,797682,4786158
18690.4,0.00898642,0,798859,4792100
18701.9,0.00827864,0,798049,4787735
18711.5,0.00769125,0,797843,4787125
18721,0.00710136,0,797269,4782907
18730.6,0.00651434,0,796346,4779053
18740.1,0.0059311,0,796032,4775609
18751.6,0.0052405,0,796502,4779661
18761.1,0.00467719,0,796701,4779581
18770.6,0.0041212,0,795715,4775516
18780.1,0.00356844,0,794169,4766390
18791.5,0.00292161,0,794872,4768206
18801,0.00239286,0,795462,4772357
18810.5,0.00187066,0,794968,4770133
18820.1,0.00135529,0,793959,4763572
18831.5,0.000747066,0,792631,4755185
18841,0.000242155,0,793192,4758156
18850.6,-0.000259818,0,793192,4758770
18860.1,-0.000755179,0,792968,4757354
18871.5,-0.00134436,0,792329,4753377
18881,-0.00182618,0,791542,4749418
18890.5,-0.00230809,0,791225,4746688
18900.1,-0.00278332,0,790396,4741728
18911.5,-0.00333938,0,789357,4737651
18921,-0.00379317,0,788344,4731479
18930.5,-0.00423722,0,787483,4725764
18940.1,-0.00466995,0,787166,4722762
18951.5,-0.00516507,0,786307,4717750
18961.1,-0.00556354,0,785154,4709581
18970.6,-0.00594507,0,783801,4701829
18980.1,-0.00630905,0,782942,4698158
18991.6,-0.00672464,0,781316,4689266
19001.1,-0.00705237,0,780652,4683563
19010.7,-0.00736294,0,780440,4681644
19020.2,-0.00765294,0,779853,4678407
19031.6,-0.00797297,0,778758,4672152
19041.1,-0.00822257,0,778048,4667507
19050.6,-0.00857745,0,777406,4663985
19060.1,-0.00875232,0,777302,4663806
19071.5,-0.00892854,0,776090,4656371
19081.1,-0.00892556,0,775513,4653504
19090.7,-0.00904851,0,775274,4650719
19100.1,-0.00915106,0,774552,4647132
19111.6,-0.00920549,0,774593,4646797
19121.1,-0.00919594,0,773695,4642522
19130.7,-0.00916811,0,773126,4638423
19140.1,-0.0090862,0,773058,4637560
19151.5,-0.00896829,0,772362,4634922
19161,-0.00884226,0,772011,4632542
19170.6,-0.00870154,0,771473,4628042
19180.2,-0.00853421,0,771321,4628334
19191.5,-0.0083193,0,771804,4629886
19201,-0.0081408,0,770698,4624622
19210.6,-0.00794702,0,769974,4620178
19220.1,-0.00772628,0,770246,4620779
19231.4,-0.00743107,0,768906,4613877
19241,-0.00716533,0,768137,4607797
19250.6,-0.0068786,0,767751,4607198
19260.2,-0.00658657,0,766894,4601713
19271.6,-0.00619792,0,766607,4599455
19281.1,-0.00585057,0,766530,4598718
19290.6,-0.00549927,0,765983,4597287
19300.2,-0.00510221,0,765916,4595191
19311.7,-0.00466991,0,765401,4590937
19321.2,-0.00433696,0,765635,4593523
19330.8,-0.00395783,0,766027,4595509
19340.4,-0.00354521,0,765611,4592790
19351.8,-0.00303737,0,765017,4589829
19361.3,-0.00259925,0,764071,4584875
19370.8,-0.00213564,0,763810,4583202
19380.4,-0.00164915,0,763691,4582384
19391.8,-0.00104629,0,763876,4581823
19401.4,-0.000540584,0,763838,4582919
19411,-5.33753e-05,0,763509,4581606
19420.5,0.000413949,0,763239,4579683
19431.9,0.00095508,0,763346,4580283
19441.5,0.00140381,0,763450,4580394
19451,0.00184809,0,762843,4577611
19460.5,0.00229056,0,762545,4574784
19470,0.00272848,0,762182,4573605
19481.4,0.00324445,0,762552,4575846
19490.9,0.00366107,0,762741,4577383
19500.3,0.00406301,0,762749,4577234
19511.7,0.0045209,0,762866,4575829
19521.1,0.00487917,0,762477,4574232
19530.6,0.00521514,0,762097,4573242
19540,0.0055288,0,761974,4573345
19551.4,0.00587584,0,762666,4577040
19560.8,0.00613917,0,762499,4574106
19570.3,0.0063782,0,762236,4573092
19581.7,0.00660371,0,762255,4572598
19591.1,0.00678017,0,761385,4569137
19600.6,0.00693143,0,762235,4572169
19610,0.00717632,0,762571,4575118
19621.4,0.00698427,0,762535,4573881
19630.8,0.00695158,0,762537,4576084
19640.3,0.00690123,0,762389,4575296
19651.6,0.00682635,0,762625,4574544
19661.1,0.00677106,0,763145,4578869
19670.5,0.0067453,0,763579,4580486
19681.8,0.00648483,0,763327,4578927
19691.2,0.00621959,0,762638,4575496
19700.7,0.00592755,0,762968,4576282
19710.1,0.00555409,0,762687,4577228
19721.4,0.00510792,0,762743,4576254
19730.9,0.0047134,0,762051,4571379
19740.3,0.00426934,0,761015,4566549
19751.6,0.00364709,0,760667,4565349
19761,0.00305691,0,760576,4564605
19770.5,0.00229326,0,760834,4566283
19781.8,0.00151577,0,760170,4561367
19791.2,0.000867892,0,759206,4555713
19800.7,0.000206358,0,758451,4549647
19810.1,-0.000427963,0,757968,4547202
19821.4,-0.00116664,0,758550,4550712
19830.8,-0.00176701,0,758011,4548607
19840.3,-0.00234757,0,756687,4540910
19851.6,-0.00301334,0,755997,4534769
19861,-0.00354136,0,755190,4530832
19870.5,-0.0040456,0,754457,4526828
19881.8,-0.00462018,0,754665,4528860
19891.2,-0.00507725,0,754538,4527165
19900.6,-0.005514,0,754416,4525814
19910.1,-0.00592697,0,753023,4518534
19921.4,-0.00638818,0,752034,4512196
19930.8,-0.00674286,0,752078,4513569
19940.3,-0.00707013,0,751483,4509650
19951.6,-0.00742708,0,750807,4503792
19961,-0.00768994,0,750492,4502472
19970.4,-0.00791089,0,749959,4498691
19981.8,-0.0082311,0,749013,4495226
19991.2,-0.00856163,0,748362,4490386
