time,surface_elevation,reference_data,number_of_local_cells,number_of_global_cells
0,0,0,20480,131072
17.428,0,0,20480,131072
34.856,0,0,20480,131072
52.2839,0,0,20480,131072
69.7119,0,0,20480,131072
87.1399,0,0,20480,131072
104.568,0,0,20480,131072
121.996,0,0,20480,131072
139.424,0,0,20480,131072
156.852,0,0,20480,131072
174.28,0,0,20480,131072
191.708,0,0,20480,131072
209.136,0,0,20480,131072
226.564,0,0,20480,131072
243.992,0,0,20480,131072
261.42,0,0,20480,131072
278.848,0,0,20480,131072
296.276,0,0,20480,131072
313.704,0,0,20480,131072
331.132,0,0,20480,131072
348.56,0,0,20480,131072
365.988,0,0,20480,131072
383.416,0,0,20480,131072
400.844,0,0,20480,131072
418.271,0,0,20480,131072
435.699,0,0,20480,131072
453.127,0,0,20480,131072
470.555,0,0,20480,131072
487.983,0,0,20480,131072
505.411,0,0,20480,131072
522.839,0,0,20480,131072
540.267,0,0,20480,131072
557.695,0,0,20480,131072
575.123,0,0,20480,131072
592.551,0,0,20480,131072
609.979,0,0,20480,131072
627.407,0,0,20480,131072
644.835,0,0,20480,131072
662.263,0,0,20480,131072
679.691,0,0,20480,131072
697.119,0,0,20480,131072
714.547,0,0,20480,131072
731.975,0,0,20480,131072
749.403,0,0,20480,131072
766.831,0,0,20480,131072
784.259,0,0,20480,131072
801.687,0,0,20480,131072
819.115,0,0,20480,131072
836.543,9.09495e-13,0,20480,131072
853.971,9.09495e-13,0,20480,131072
871.399,9.09495e-13,0,20480,131072
888.827,0,0,20480,131072
906.255,0,0,20480,131072
923.683,0,0,20480,131072
941.111,0,0,20480,131072
958.539,0,0,20480,131072
975.967,0,0,20480,131072
993.395,9.09495e-13,0,20480,131072
1010.82,9.09495e-13,0,20480,131072
1028.25,0,0,20480,131072
1045.68,0,0,20480,131072
1063.11,0,0,20480,131072
1080.53,0,0,20480,131072
1097.96,0,0,20480,131072
1115.39,0,0,20480,131072
1132.82,0,0,20480,131072
1150.25,0,0,20480,131072
1167.67,0,0,20480,131072
1185.1,0,0,20480,131072
1202.53,0,0,20480,131072
1219.96,0,0,20480,131072
1237.39,0,0,20480,131072
1254.81,0,0,20480,131072
1272.24,0,0,20480,131072
1289.67,0,0,20480,131072
1307.1,0,0,20480,131072
1324.53,0,0,20480,131072
1341.95,0,0,20480,131072
1359.38,0,0,20480,131072
1376.81,0,0,20480,131072
1394.24,0,0,20480,131072
1411.67,0,0,20480,131072
1429.09,0,0,20480,131072
1446.52,0,0,20480,131072
1463.95,0,0,20480,131072
1481.38,0,0,20480,131072
1498.81,0,0,20480,131072
1516.23,0,0,20480,131072
1533.66,0,0,20480,131072
1551.09,0,0,20480,131072
1568.52,0,0,20480,131072
1585.95,0,0,20480,131072
1603.37,0,0,20480,131072
1620.8,0,0,20480,131072
1638.23,0,0,20480,131072
1655.66,0,0,20480,131072
1673.09,0,0,20480,131072
1690.51,0,0,20480,131072
1707.94,0,0,20480,131072
1725.37,0,0,20480,131072
1742.8,0,0,20480,131072
1760.23,0,0,20480,131072
1777.65,0,0,20480,131072
1795.08,0,0,20480,131072
1812.51,0,0,20480,131072
1829.94,0,0,20480,131072
1847.37,0,0,20480,131072
1864.79,0,0,20480,131072
1882.22,0,0,20480,131072
1899.65,0,0,20480,131072
1917.08,0,0,20480,131072
1934.51,0,0,20480,131072
1951.93,0,0,20480,131072
1969.36,0,0,20480,131072
1986.79,0,0,20480,131072
2004.22,0,0,20480,131072
2021.65,0,0,20480,131072
2039.07,0,0,20480,131072
2056.5,0,0,20480,131072
2073.93,0,0,20480,131072
2091.36,0,0,20480,131072
2108.79,0,0,20480,131072
2126.21,0,0,20480,131072
2143.64,0,0,20480,131072
2161.07,0,0,20480,131072
2178.5,0,0,20480,131072
2195.93,0,0,20480,131072
2213.35,0,0,20480,131072
2230.78,0,0,20480,131072
2248.21,0,0,20480,131072
2265.64,0,0,20480,131072
2283.07,0,0,20480,131072
2300.49,0,0,20480,131072
2317.92,0,0,20480,131072
2335.35,0,0,20480,131072
2352.78,0,0,20480,131072
2370.21,0,0,20480,131072
2387.63,0,0,20480,131072
2405.06,0,0,20480,131072
2422.49,9.09495e-13,0,20480,131072
2439.92,9.09495e-13,0,20480,131072
2457.35,1.81899e-12,0,20480,131072
2474.77,3.63798e-12,0,20480,131072
2492.2,8.18545e-12,0,20480,131072
2509.63,1.81899e-11,0,20480,131072
2527.06,3.81988e-11,0,20480,131072
2544.48,7.54881e-11,0,20480,131072
2561.91,1.46429e-10,0,20480,131072
2579.34,2.78305e-10,0,20480,131072
2596.77,5.17502e-10,0,20480,131072
2614.2,9.41327e-10,0,20480,131072
2631.62,1.67711e-09,0,20480,131072
2649.05,2.92857e-09,0,20480,131072
2666.48,5.01859e-09,0,20480,131072
2683.91,8.44284e-09,0,20480,131072
2701.34,1.39535e-08,0,20480,131072
2718.76,2.26664e-08,0,20480,131072
2736.19,3.62115e-08,0,20480,131072
2753.62,5.6928e-08,0,20480,131072
2771.05,8.81082e-08,0,20480,131072
2788.48,1.34322e-07,0,20480,131072
2805.9,2.01797e-07,0,20480,131072
2823.33,2.98893e-07,0,20480,131072
2840.76,4.36653e-07,0,20480,131072
2858.19,6.29445e-07,0,20480,131072
2875.62,8.95681e-07,0,20480,131072
2893.04,1.25861e-06,0,20480,131072
2910.47,1.74718e-06,0,20480,131072
2927.9,2.39688e-06,0,20480,131072
2945.33,3.25065e-06,0,20480,131072
2962.76,4.35974e-06,0,20480,131072
2980.18,5.78443e-06,0,20480,131072
2997.61,7.59471e-06,0,20480,131072
3015.04,9.87077e-06,0,20480,131072
3032.47,1.27033e-05,0,20480,131072
3049.9,1.61933e-05,0,20480,131072
3067.32,2.04522e-05,0,20480,131072
3084.75,2.5601e-05,0,20480,131072
3102.18,3.17695e-05,0,20480,131072
3119.61,3.90952e-05,0,20480,131072
3137.04,4.7722e-05,0,20480,131072
3154.46,5.77982e-05,0,20480,131072
3171.89,6.94749e-05,0,20480,131072
3189.32,8.29045e-05,0,20480,131072
3206.75,9.82381e-05,0,20480,131072
3224.17,0.000115624,0,20480,131072
3241.6,0.000135208,0,20480,131072
3259.03,0.000157127,0,20480,131072
3276.46,0.000181515,0,20480,131072
3293.89,0.000208498,0,20480,131072
3311.31,0.000238197,0,20480,131072
3328.74,0.000270729,0,20480,131072
3346.17,0.000306209,0,20480,131072
3363.6,0.000344756,0,20480,131072
3381.02,0.000386494,0,20480,131072
3398.45,0.000431564,0,20480,131072
3415.88,0.000480133,0,20480,131072
3433.31,0.000532402,0,20480,131072
3450.73,0.000588626,0,20480,131072
3468.16,0.000649132,0,20480,131072
3485.59,0.000714341,0,20480,131072
3503.02,0.000784804,0,20480,131072
3520.44,0.000861233,0,20480,131072
3537.87,0.000944549,0,20480,131072
3555.3,0.00103594,0,20480,131072
3572.73,0.00113694,0,20480,131072
3590.15,0.00124947,0,20480,131072
3607.58,0.001376,0,20480,131072
3625.01,0.00151961,0,20480,131072
3642.44,0.00168414,0,20480,131072
3659.86,0.00187436,0,20480,131072
3677.29,0.00209612,0,20480,131072
3694.72,0.00235657,0,20480,131072
3712.15,0.00266435,0,20480,131072
3729.57,0.00302984,0,20480,131072
3747,0.00346539,0,20480,131072
3764.43,0.00398558,0,20480,131072
3781.86,0.00460747,0,20480,131072
3799.28,0.00535083,0,20480,131072
3816.71,0.00623838,0,20480,131072
3834.14,0.00729599,0,20480,131072
3851.56,0.00855279,0,20480,131072
3868.99,0.0100413,0,20480,131072
3886.42,0.0117974,0,20480,131072
3903.85,0.0138603,0,20480,131072
3921.27,0.0162723,0,20480,131072
3938.7,0.0190787,0,20480,131072
3956.13,0.0223269,0,20480,131072
3973.55,0.0260665,0,20480,131072
3990.98,0.0303479,0,20480,131072
4008.41,0.0352223,0,20480,131072
4025.84,0.0407398,0,20480,131072
4043.26,0.0469491,0,20480,131072
4060.69,0.0538959,0,20480,131072
4078.12,0.0616218,0,20480,131072
4095.54,0.0701628,0,20480,131072
4112.97,0.079548,0,20480,131072
4130.4,0.0897983,0,20480,131072
4147.83,0.100925,0,20480,131072
4165.25,0.112929,0,20480,131072
4182.68,0.125799,0,20480,131072
4200.11,0.139511,0,20480,131072
4217.53,0.154025,0,20480,131072
4234.96,0.169292,0,20480,131072
4252.39,0.185242,0,20480,131072
4269.82,0.201795,0,20480,131072
4287.24,0.218855,0,20480,131072
4304.67,0.236311,0,20480,131072
4322.1,0.25404,0,20480,131072
4339.53,0.271907,0,20480,131072
4356.95,0.289766,0,20480,131072
4374.38,0.30746,0,20480,131072
4391.81,0.324827,0,20480,131072
4409.24,0.341699,0,20480,131072
4426.67,0.357904,0,20480,131072
4444.09,0.37327,0,20480,131072
4461.52,0.387626,0,20480,131072
4478.95,0.400804,0,20480,131072
4496.38,0.412644,0,20480,131072
4513.8,0.422994,0,20480,131072
4531.23,0.431711,0,20480,131072
4548.66,0.438666,0,20480,131072
4566.09,0.443745,0,20480,131072
4583.52,0.44685,0,20480,131072
4600.94,0.447901,0,20480,131072
4618.37,0.446836,0,20480,131072
4635.8,0.443615,0,20480,131072
4653.23,0.438215,0,20480,131072
4670.66,0.430638,0,20480,131072
4688.08,0.420902,0,20480,131072
4705.51,0.409051,0,20480,131072
4722.94,0.395145,0,20480,131072
4740.37,0.379265,0,20480,131072
4757.8,0.361508,0,20480,131072
4775.22,0.341992,0,20480,131072
4792.65,0.320847,0,20480,131072
4810.08,0.298217,0,20480,131072
4827.51,0.274259,0,20480,131072
4844.93,0.24914,0,20480,131072
4862.36,0.223034,0,20480,131072
4879.79,0.196123,0,20480,131072
4897.22,0.168591,0,20480,131072
4914.65,0.140623,0,20480,131072
4932.07,0.112407,0,20480,131072
4949.5,0.0841258,0,20480,131072
4966.93,0.0559598,0,20480,131072
4984.36,0.0280829,0,20480,131072
5001.78,0.000661804,0,20480,131072
5019.21,-0.026146,0,20480,131072
5036.64,-0.052193,0,20480,131072
5054.07,-0.0773433,0,20480,131072
5071.5,-0.101473,0,20480,131072
5088.92,-0.124473,0,20480,131072
5106.35,-0.146244,0,20480,131072
5123.78,-0.166706,0,20480,131072
5141.21,-0.185789,0,20480,131072
5158.63,-0.20344,0,20480,131072
5176.06,-0.219619,0,20480,131072
5193.49,-0.2343,0,20480,131072
5210.92,-0.24747,0,20480,131072
5228.35,-0.259131,0,20480,131072
5245.77,-0.269293,0,20480,131072
5263.2,-0.277982,0,20480,131072
5280.63,-0.285231,0,20480,131072
5298.06,-0.291085,0,20480,131072
5315.49,-0.295594,0,20480,131072
5332.91,-0.298819,0,20480,131072
5350.34,-0.300825,0,20480,131072
5367.77,-0.301683,0,20480,131072
5385.2,-0.301468,0,20480,131072
5402.62,-0.300259,0,20480,131072
5420.05,-0.298135,0,20480,131072
5437.48,-0.295179,0,20480,131072
5454.91,-0.291472,0,20480,131072
5472.34,-0.287095,0,20480,131072
5489.76,-0.282128,0,20480,131072
5507.19,-0.276649,0,20480,131072
5524.62,-0.270734,0,20480,131072
5542.05,-0.264454,0,20480,131072
5559.48,-0.257878,0,20480,131072
5576.9,-0.25107,0,20480,131072
5594.33,-0.244091,0,20480,131072
5611.76,-0.236997,0,20480,131072
5629.19,-0.229839,0,20480,131072
5646.61,-0.222662,0,20480,131072
5664.04,-0.215509,0,20480,131072
5681.47,-0.208418,0,20480,131072
5698.9,-0.201419,0,20480,131072
5716.33,-0.194542,0,20480,131072
5733.75,-0.187809,0,20480,131072
5751.18,-0.181241,0,20480,131072
5768.61,-0.174852,0,20480,131072
5786.04,-0.168656,0,20480,131072
5803.47,-0.16266,0,20480,131072
5820.89,-0.15687,0,20480,131072
5838.32,-0.151289,0,20480,131072
5855.75,-0.145917,0,20480,131072
5873.18,-0.140753,0,20480,131072
5890.61,-0.135792,0,20480,131072
5908.03,-0.131029,0,20480,131072
5925.46,-0.126457,0,20480,131072
5942.89,-0.122068,0,20480,131072
5960.32,-0.117853,0,20480,131072
5977.74,-0.113804,0,20480,131072
5995.17,-0.109908,0,20480,131072
6012.6,-0.106157,0,20480,131072
6030.03,-0.10254,0,20480,131072
6047.46,-0.0990468,0,20480,131072
6064.88,-0.0956666,0,20480,131072
6082.31,-0.0923897,0,20480,131072
6099.74,-0.0892067,0,20480,131072
6117.17,-0.0861085,0,20480,131072
6134.6,-0.0830866,0,20480,131072
6152.02,-0.080133,0,20480,131072
6169.45,-0.0772404,0,20480,131072
6186.88,-0.0744023,0,20480,131072
6204.31,-0.0716126,0,20480,131072
6221.74,-0.0688661,0,20480,131072
6239.16,-0.0661581,0,20480,131072
6256.59,-0.0634847,0,20480,131072
6274.02,-0.0608427,0,20480,131072
6291.45,-0.0582293,0,20480,131072
6308.88,-0.0556424,0,20480,131072
6326.3,-0.0530806,0,20480,131072
6343.73,-0.0505429,0,20480,131072
6361.16,-0.0480287,0,20480,131072
6378.59,-0.045538,0,20480,131072
6396.02,-0.043071,0,20480,131072
6413.44,-0.0406286,0,20480,131072
6430.87,-0.0382117,0,20480,131072
6448.3,-0.0358216,0,20480,131072
6465.73,-0.0334599,0,20480,131072
6483.16,-0.0311281,0,20480,131072
6500.58,-0.0288283,0,20480,131072
6518.01,-0.0265624,0,20480,131072
6535.44,-0.0243324,0,20480,131072
6552.87,-0.0221405,0,20480,131072
6570.3,-0.0199888,0,20480,131072
6587.72,-0.0178793,0,20480,131072
6605.15,-0.0158143,0,20480,131072
6622.58,-0.0137955,0,20480,131072
6640.01,-0.0118251,0,20480,131072
6657.44,-0.00990472,0,20480,131072
6674.86,-0.00803603,0,20480,131072
6692.29,-0.00622056,0,20480,131072
6709.72,-0.00445962,0,20480,131072
6727.15,-0.00275438,0,20480,131072
6744.58,-0.00110578,0,20480,131072
6762,0.000485424,0,20480,131072
6779.43,0.00201869,0,20480,131072
6796.86,0.0034937,0,20480,131072
6814.29,0.00491036,0,20480,131072
6831.72,0.00626878,0,20480,131072
6849.14,0.00756934,0,20480,131072
6866.57,0.00881262,0,20480,131072
6884,0.00999942,0,20480,131072
6901.43,0.0111308,0,20480,131072
6918.86,0.0122079,0,20480,131072
6936.28,0.0132324,0,20480,131072
6953.71,0.0142057,0,20480,131072
6971.14,0.0151298,0,20480,131072
6988.57,0.0160068,0,20480,131072
7005.99,0.0168388,0,20480,131072
7023.42,0.0176282,0,20480,131072
7040.85,0.0183775,0,20480,131072
7058.28,0.0190894,0,20480,131072
7075.71,0.0197666,0,20480,131072
7093.13,0.020412,0,20480,131072
7110.56,0.0210286,0,20480,131072
7127.99,0.0216193,0,20480,131072
7145.42,0.0221872,0,20480,131072
7162.85,0.0227354,0,20480,131072
7180.27,0.023267,0,20480,131072
7197.7,0.023785,0,20480,131072
7215.13,0.0242925,0,20480,131072
7232.56,0.0247926,0,20480,131072
7249.99,0.025288,0,20480,131072
7267.41,0.0257818,0,20480,131072
7284.84,0.0262766,0,20480,131072
7302.27,0.026775,0,20480,131072
7319.7,0.0272795,0,20480,131072
7337.13,0.0277925,0,20480,131072
7354.55,0.0283161,0,20480,131072
7371.98,0.0288523,0,20480,131072
7389.41,0.0294028,0,20480,131072
7406.84,0.0299692,0,20480,131072
7424.27,0.0305528,0,20480,131072
7441.69,0.0311548,0,20480,131072
7459.12,0.0317761,0,20480,131072
7476.55,0.0324172,0,20480,131072
7493.98,0.0330785,0,20480,131072
7511.4,0.0337602,0,20480,131072
7528.83,0.0344622,0,20480,131072
7546.26,0.035184,0,20480,131072
7563.69,0.035925,0,20480,131072
7581.12,0.0366843,0,20480,131072
7598.54,0.0374609,0,20480,131072
7615.97,0.0382532,0,20480,131072
7633.4,0.0390598,0,20480,131072
7650.83,0.0398787,0,20480,131072
7668.26,0.0407079,0,20480,131072
7685.68,0.0415452,0,20480,131072
7703.11,0.042388,0,20480,131072
7720.54,0.0432339,0,20480,131072
7737.97,0.04408,0,20480,131072
7755.4,0.0449234,0,20480,131072
7772.82,0.045761,0,20480,131072
7790.25,0.0465897,0,20480,131072
7807.68,0.0474062,0,20480,131072
7825.11,0.0482072,0,20480,131072
7842.53,0.0489893,0,20480,131072
7859.96,0.0497491,0,20480,131072
7877.39,0.0504832,0,20480,131072
7894.82,0.0511882,0,20480,131072
7912.25,0.0518606,0,20480,131072
7929.67,0.0524971,0,20480,131072
7947.1,0.0530944,0,20480,131072
7964.53,0.0536493,0,20480,131072
7981.96,0.0541587,0,20480,131072
7999.39,0.0546197,0,20480,131072
8016.81,0.0550292,0,20480,131072
8034.24,0.0553848,0,20480,131072
8051.67,0.0556837,0,20480,131072
8069.1,0.0559236,0,20480,131072
8086.53,0.0561023,0,20480,131072
8103.95,0.0562179,0,20480,131072
8121.38,0.0562685,0,20480,131072
8138.81,0.0562525,0,20480,131072
8156.24,0.0561687,0,20480,131072
8173.66,0.0560159,0,20480,131072
8191.09,0.0557933,0,20480,131072
8208.52,0.0555,0,20480,131072
8225.95,0.0551358,0,20480,131072
8243.38,0.0547005,0,20480,131072
8260.8,0.054194,0,20480,131072
8278.23,0.0536167,0,20480,131072
8295.66,0.0529692,0,20480,131072
8313.09,0.0522521,0,20480,131072
8330.52,0.0514664,0,20480,131072
8347.94,0.0506133,0,20480,131072
8365.37,0.0496941,0,20480,131072
8382.8,0.0487106,0,20480,131072
8400.23,0.0476644,0,20480,131072
8417.65,0.0465575,0,20480,131072
8435.08,0.0453921,0,20480,131072
8452.51,0.0441705,0,20480,131072
8469.94,0.0428952,0,20480,131072
8487.37,0.0415687,0,20480,131072
8504.79,0.0401938,0,20480,131072
8522.22,0.0387733,0,20480,131072
8539.65,0.0373103,0,20480,131072
8557.08,0.0358079,0,20480,131072
8574.5,0.0342691,0,20480,131072
8591.93,0.0326972,0,20480,131072
8609.36,0.0310956,0,20480,131072
8626.79,0.0294676,0,20480,131072
8644.22,0.0278166,0,20480,131072
8661.64,0.026146,0,20480,131072
8679.07,0.0244593,0,20480,131072
8696.5,0.02276,0,20480,131072
8713.93,0.0210515,0,20480,131072
8731.36,0.0193373,0,20480,131072
8748.78,0.0176209,0,20480,131072
8766.21,0.0159055,0,20480,131072
8783.64,0.0141945,0,20480,131072
8801.07,0.0124913,0,20480,131072
8818.49,0.010799,0,20480,131072
8835.92,0.00912088,0,20480,131072
8853.35,0.00745991,0,20480,131072
8870.78,0.00581909,0,20480,131072
8888.21,0.00420128,0,20480,131072
8905.63,0.00260925,0,20480,131072
8923.06,0.00104564,0,20480,131072
8940.49,-0.000487058,0,20480,131072
8957.92,-0.00198645,0,20480,131072
8975.35,-0.00345031,0,20480,131072
8992.77,-0.00487655,0,20480,131072
9010.2,-0.00626324,0,20480,131072
9027.63,-0.0076086,0,20480,131072
9045.06,-0.00891101,0,20480,131072
9062.48,-0.010169,0,20480,131072
9079.91,-0.0113814,0,20480,131072
9097.34,-0.012547,0,20480,131072
9114.77,-0.0136649,0,20480,131072
9132.2,-0.0147343,0,20480,131072
9149.62,-0.0157547,0,20480,131072
9167.05,-0.0167257,0,20480,131072
9184.48,-0.0176469,0,20480,131072
9201.91,-0.0185184,0,20480,131072
9219.34,-0.0193401,0,20480,131072
9236.76,-0.0201124,0,20480,131072
9254.19,-0.0208357,0,20480,131072
9271.62,-0.0215104,0,20480,131072
9289.05,-0.0221374,0,20480,131072
9306.48,-0.0227173,0,20480,131072
9323.9,-0.0232512,0,20480,131072
9341.33,-0.0237401,0,20480,131072
9358.76,-0.0241853,0,20480,131072
9376.19,-0.0245878,0,20480,131072
9393.62,-0.0249492,0,20480,131072
9411.04,-0.0252709,0,20480,131072
9428.47,-0.0255543,0,20480,131072
9445.9,-0.0258011,0,20480,131072
9463.33,-0.0260128,0,20480,131072
9480.75,-0.026191,0,20480,131072
9498.18,-0.0263375,0,20480,131072
9515.61,-0.026454,0,20480,131072
9533.04,-0.0265421,0,20480,131072
9550.47,-0.0266035,0,20480,131072
9567.89,-0.02664,0,20480,131072
9585.32,-0.026653,0,20480,131072
9602.75,-0.0266444,0,20480,131072
9620.18,-0.0266156,0,20480,131072
9637.61,-0.0265681,0,20480,131072
9655.03,-0.0265036,0,20480,131072
9672.46,-0.0264233,0,20480,131072
9689.89,-0.0263287,0,20480,131072
9707.32,-0.0262211,0,20480,131072
9724.75,-0.0261015,0,20480,131072
9742.17,-0.0259713,0,20480,131072
9759.6,-0.0258314,0,20480,131072
9777.03,-0.0256829,0,20480,131072
9794.46,-0.0255265,0,20480,131072
9811.89,-0.0253632,0,20480,131072
9829.31,-0.0251936,0,20480,131072
9846.74,-0.0250184,0,20480,131072
9864.17,-0.0248382,0,20480,131072
9881.6,-0.0246533,0,20480,131072
9899.03,-0.0244643,0,20480,131072
9916.45,-0.0242715,0,20480,131072
9933.88,-0.0240751,0,20480,131072
9951.31,-0.0238752,0,20480,131072
9968.74,-0.0236721,0,20480,131072
9986.17,-0.0234657,0,20480,131072
10003.6,-0.0232561,0,20480,131072
10021,-0.0230432,0,20480,131072
10038.4,-0.0228269,0,20480,131072
10055.9,-0.022607,0,20480,131072
10073.3,-0.0223835,0,20480,131072
10090.7,-0.022156,0,20480,131072
10108.2,-0.0219243,0,20480,131072
10125.6,-0.0216883,0,20480,131072
10143,-0.0214475,0,20480,131072
10160.4,-0.0212016,0,20480,131072
10177.9,-0.0209505,0,20480,131072
10195.3,-0.0206938,0,20480,131072
10212.7,-0.0204311,0,20480,131072
10230.2,-0.0201621,0,20480,131072
10247.6,-0.0198866,0,20480,131072
10265,-0.0196043,0,20480,131072
10282.4,-0.0193149,0,20480,131072
10299.9,-0.0190182,0,20480,131072
10317.3,-0.0187139,0,20480,131072
10334.7,-0.0184018,0,20480,131072
10352.2,-0.0180818,0,20480,131072
10369.6,-0.0177537,0,20480,131072
10387,-0.0174173,0,20480,131072
10404.4,-0.0170727,0,20480,131072
10421.9,-0.0167197,0,20480,131072
10439.3,-0.0163583,0,20480,131072
10456.7,-0.0159886,0,20480,131072
10474.1,-0.0156107,0,20480,131072
10491.6,-0.0152245,0,20480,131072
10509,-0.0148304,0,20480,131072
10526.4,-0.0144283,0,20480,131072
10543.9,-0.0140187,0,20480,131072
10561.3,-0.0136016,0,20480,131072
10578.7,-0.0131774,0,20480,131072
10596.1,-0.0127465,0,20480,131072
10613.6,-0.0123092,0,20480,131072
10631,-0.0118658,0,20480,131072
10648.4,-0.0114169,0,20480,131072
10665.9,-0.0109629,0,20480,131072
10683.3,-0.0105043,0,20480,131072
10700.7,-0.0100417,0,20480,131072
10718.1,-0.00957553,0,20480,131072
10735.6,-0.00910647,0,20480,131072
10753,-0.00863513,0,20480,131072
10770.4,-0.00816215,0,20480,131072
10787.9,-0.0076882,0,20480,131072
10805.3,-0.00721397,0,20480,131072
10822.7,-0.00674016,0,20480,131072
10840.1,-0.00626751,0,20480,131072
10857.6,-0.00579676,0,20480,131072
10875,-0.00532868,0,20480,131072
10892.4,-0.00486403,0,20480,131072
10909.8,-0.0044036,0,20480,131072
10927.3,-0.00394819,0,20480,131072
10944.7,-0.00349858,0,20480,131072
10962.1,-0.0030556,0,20480,131072
10979.6,-0.00262004,0,20480,131072
10997,-0.00219271,0,20480,131072
11014.4,-0.00177443,0,20480,131072
11031.8,-0.00136599,0,20480,131072
11049.3,-0.000968185,0,20480,131072
11066.7,-0.000581815,0,20480,131072
11084.1,-0.000207655,0,20480,131072
11101.6,0.000153529,0,20480,131072
11119,0.000500983,0,20480,131072
11136.4,0.000833972,0,20480,131072
11153.8,0.00115178,0,20480,131072
11171.3,0.00145372,0,20480,131072
11188.7,0.00173911,0,20480,131072
11206.1,0.00200731,0,20480,131072
11223.5,0.0022577,0,20480,131072
11241,0.00248971,0,20480,131072
11258.4,0.00270277,0,20480,131072
11275.8,0.00289637,0,20480,131072
11293.3,0.00307003,0,20480,131072
11310.7,0.00322332,0,20480,131072
11328.1,0.00335582,0,20480,131072
11345.5,0.00346718,0,20480,131072
11363,0.0035571,0,20480,131072
11380.4,0.00362531,0,20480,131072
11397.8,0.00367158,0,20480,131072
11415.3,0.00369576,0,20480,131072
11432.7,0.00369772,0,20480,131072
11450.1,0.00367741,0,20480,131072
11467.5,0.00363481,0,20480,131072
11485,0.00356996,0,20480,131072
11502.4,0.00348295,0,20480,131072
11519.8,0.00337395,0,20480,131072
11537.3,0.00324315,0,20480,131072
11554.7,0.0030908,0,20480,131072
11572.1,0.00291724,0,20480,131072
11589.5,0.00272281,0,20480,131072
11607,0.00250794,0,20480,131072
11624.4,0.0022731,0,20480,131072
11641.8,0.00201881,0,20480,131072
11659.2,0.00174563,0,20480,131072
11676.7,0.00145418,0,20480,131072
11694.1,0.00114511,0,20480,131072
11711.5,0.000819138,0,20480,131072
11729,0.000476988,0,20480,131072
11746.4,0.00011944,0,20480,131072
11763.8,-0.000252694,0,20480,131072
11781.2,-0.000638576,0,20480,131072
11798.7,-0.00103734,0,20480,131072
11816.1,-0.00144808,0,20480,131072
11833.5,-0.0018699,0,20480,131072
11851,-0.00230187,0,20480,131072
11868.4,-0.00274304,0,20480,131072
11885.8,-0.00319246,0,20480,131072
11903.2,-0.00364917,0,20480,131072
11920.7,-0.00411221,0,20480,131072
11938.1,-0.00458063,0,20480,131072
11955.5,-0.00505346,0,20480,131072
11973,-0.00552977,0,20480,131072
11990.4,-0.00600862,0,20480,131072
12007.8,-0.00648908,0,20480,131072
12025.2,-0.00697027,0,20480,131072
12042.7,-0.00745129,0,20480,131072
12060.1,-0.0079313,0,20480,131072
12077.5,-0.00840946,0,20480,131072
12094.9,-0.00888497,0,20480,131072
12112.4,-0.00935705,0,20480,131072
12129.8,-0.00982497,0,20480,131072
12147.2,-0.010288,0,20480,131072
12164.7,-0.0107455,0,20480,131072
12182.1,-0.0111968,0,20480,131072
12199.5,-0.0116414,0,20480,131072
12216.9,-0.0120785,0,20480,131072
12234.4,-0.0125078,0,20480,131072
12251.8,-0.0129287,0,20480,131072
12269.2,-0.0133407,0,20480,131072
12286.7,-0.0137435,0,20480,131072
12304.1,-0.0141366,0,20480,131072
12321.5,-0.0145197,0,20480,131072
12338.9,-0.0148925,0,20480,131072
12356.4,-0.0152546,0,20480,131072
12373.8,-0.0156058,0,20480,131072
12391.2,-0.0159458,0,20480,131072
12408.7,-0.0162745,0,20480,131072
12426.1,-0.0165915,0,20480,131072
12443.5,-0.0168969,0,20480,131072
12460.9,-0.0171903,0,20480,131072
12478.4,-0.0174717,0,20480,131072
12495.8,-0.0177409,0,20480,131072
12513.2,-0.0179978,0,20480,131072
12530.6,-0.0182424,0,20480,131072
12548.1,-0.0184745,0,20480,131072
12565.5,-0.0186941,0,20480,131072
12582.9,-0.0189011,0,20480,131072
12600.4,-0.0190954,0,20480,131072
12617.8,-0.019277,0,20480,131072
12635.2,-0.0194458,0,20480,131072
12652.6,-0.0196017,0,20480,131072
12670.1,-0.0197446,0,20480,131072
12687.5,-0.0198747,0,20480,131072
12704.9,-0.0199916,0,20480,131072
12722.4,-0.0200955,0,20480,131072
12739.8,-0.0201862,0,20480,131072
12757.2,-0.0202637,0,20480,131072
12774.6,-0.0203279,0,20480,131072
12792.1,-0.0203788,0,20480,131072
12809.5,-0.0204162,0,20480,131072
12826.9,-0.0204402,0,20480,131072
12844.3,-0.0204506,0,20480,131072
12861.8,-0.0204473,0,20480,131072
12879.2,-0.0204304,0,20480,131072
12896.6,-0.0203998,0,20480,131072
12914.1,-0.0203553,0,20480,131072
12931.5,-0.020297,0,20480,131072
12948.9,-0.0202248,0,20480,131072
12966.3,-0.0201386,0,20480,131072
12983.8,-0.0200384,0,20480,131072
13001.2,-0.0199242,0,20480,131072
13018.6,-0.0197959,0,20480,131072
13036.1,-0.0196536,0,20480,131072
13053.5,-0.0194973,0,20480,131072
13070.9,-0.019327,0,20480,131072
13088.3,-0.0191426,0,20480,131072
13105.8,-0.0189443,0,20480,131072
13123.2,-0.0187321,0,20480,131072
13140.6,-0.0185061,0,20480,131072
13158.1,-0.0182663,0,20480,131072
13175.5,-0.018013,0,20480,131072
13192.9,-0.0177462,0,20480,131072
13210.3,-0.017466,0,20480,131072
13227.8,-0.0171727,0,20480,131072
13245.2,-0.0168664,0,20480,131072
13262.6,-0.0165473,0,20480,131072
13280,-0.0162157,0,20480,131072
13297.5,-0.0158718,0,20480,131072
13314.9,-0.0155158,0,20480,131072
13332.3,-0.0151481,0,20480,131072
13349.8,-0.014769,0,20480,131072
13367.2,-0.0143788,0,20480,131072
13384.6,-0.0139779,0,20480,131072
13402,-0.0135665,0,20480,131072
13419.5,-0.0131451,0,20480,131072
13436.9,-0.0127141,0,20480,131072
13454.3,-0.0122739,0,20480,131072
13471.8,-0.011825,0,20480,131072
13489.2,-0.0113677,0,20480,131072
13506.6,-0.0109026,0,20480,131072
13524,-0.0104301,0,20480,131072
13541.5,-0.00995073,0,20480,131072
13558.9,-0.00946494,0,20480,131072
13576.3,-0.00897325,0,20480,131072
13593.8,-0.00847619,0,20480,131072
13611.2,-0.00797427,0,20480,131072
13628.6,-0.00746802,0,20480,131072
13646,-0.00695797,0,20480,131072
13663.5,-0.00644466,0,20480,131072
13680.9,-0.00592862,0,20480,131072
13698.3,-0.0054104,0,20480,131072
13715.7,-0.00489053,0,20480,131072
13733.2,-0.00436955,0,20480,131072
13750.6,-0.00384798,0,20480,131072
13768,-0.00332636,0,20480,131072
13785.5,-0.00280522,0,20480,131072
13802.9,-0.00228506,0,20480,131072
13820.3,-0.0017664,0,20480,131072
13837.7,-0.00124973,0,20480,131072
13855.2,-0.000735541,0,20480,131072
13872.6,-0.000224316,0,20480,131072
13890,0.00028348,0,20480,131072
13907.5,0.000787397,0,20480,131072
13924.9,0.00128699,0,20480,131072
13942.3,0.00178185,0,20480,131072
13959.7,0.00227155,0,20480,131072
13977.2,0.0027557,0,20480,131072
13994.6,0.00323394,0,20480,131072
14012,0.00370589,0,20480,131072
14029.4,0.00417121,0,20480,131072
14046.9,0.00462959,0,20480,131072
14064.3,0.00508072,0,20480,131072
14081.7,0.00552431,0,20480,131072
14099.2,0.00596009,0,20480,131072
14116.6,0.00638781,0,20480,131072
14134,0.00680724,0,20480,131072
14151.4,0.00721818,0,20480,131072
14168.9,0.00762042,0,20480,131072
14186.3,0.00801379,0,20480,131072
14203.7,0.00839813,0,20480,131072
14221.2,0.00877331,0,20480,131072
14238.6,0.00913921,0,20480,131072
14256,0.00949572,0,20480,131072
14273.4,0.00984275,0,20480,131072
14290.9,0.0101802,0,20480,131072
14308.3,0.0105081,0,20480,131072
14325.7,0.0108264,0,20480,131072
14343.2,0.0111349,0,20480,131072
14360.6,0.0114339,0,20480,131072
14378,0.0117231,0,20480,131072
14395.4,0.0120027,0,20480,131072
14412.9,0.0122726,0,20480,131072
14430.3,0.012533,0,20480,131072
14447.7,0.0127838,0,20480,131072
14465.1,0.0130251,0,20480,131072
14482.6,0.013257,0,20480,131072
14500,0.0134796,0,20480,131072
14517.4,0.0136929,0,20480,131072
14534.9,0.013897,0,20480,131072
14552.3,0.0140921,0,20480,131072
14569.7,0.0142783,0,20480,131072
14587.1,0.0144555,0,20480,131072
14604.6,0.0146241,0,20480,131072
14622,0.0147839,0,20480,131072
14639.4,0.0149353,0,20480,131072
14656.9,0.0150783,0,20480,131072
14674.3,0.0152131,0,20480,131072
14691.7,0.0153396,0,20480,131072
14709.1,0.0154582,0,20480,131072
14726.6,0.0155689,0,20480,131072
14744,0.0156718,0,20480,131072
14761.4,0.015767,0,20480,131072
14778.8,0.0158547,0,20480,131072
14796.3,0.015935,0,20480,131072
14813.7,0.016008,0,20480,131072
14831.1,0.0160739,0,20480,131072
14848.6,0.0161327,0,20480,131072
14866,0.0161846,0,20480,131072
14883.4,0.0162296,0,20480,131072
14900.8,0.0162679,0,20480,131072
14918.3,0.0162996,0,20480,131072
14935.7,0.0163248,0,20480,131072
14953.1,0.0163436,0,20480,131072
14970.6,0.0163561,0,20480,131072
14988,0.0163623,0,20480,131072
15005.4,0.0163624,0,20480,131072
15022.8,0.0163565,0,20480,131072
15040.3,0.0163446,0,20480,131072
15057.7,0.0163268,0,20480,131072
15075.1,0.0163032,0,20480,131072
15092.6,0.016274,0,20480,131072
15110,0.0162391,0,20480,131072
15127.4,0.0161986,0,20480,131072
15144.8,0.0161526,0,20480,131072
15162.3,0.0161012,0,20480,131072
15179.7,0.0160445,0,20480,131072
15197.1,0.0159824,0,20480,131072
15214.5,0.0159151,0,20480,131072
15232,0.0158427,0,20480,131072
15249.4,0.0157651,0,20480,131072
15266.8,0.0156825,0,20480,131072
15284.3,0.0155949,0,20480,131072
15301.7,0.0155024,0,20480,131072
15319.1,0.015405,0,20480,131072
15336.5,0.0153027,0,20480,131072
15354,0.0151957,0,20480,131072
15371.4,0.0150839,0,20480,131072
15388.8,0.0149675,0,20480,131072
15406.3,0.0148464,0,20480,131072
15423.7,0.0147207,0,20480,131072
15441.1,0.0145904,0,20480,131072
15458.5,0.0144557,0,20480,131072
15476,0.0143164,0,20480,131072
15493.4,0.0141728,0,20480,131072
15510.8,0.0140247,0,20480,131072
15528.3,0.0138722,0,20480,131072
15545.7,0.0137154,0,20480,131072
15563.1,0.0135543,0,20480,131072
15580.5,0.0133889,0,20480,131072
15598,0.0132192,0,20480,131072
15615.4,0.0130452,0,20480,131072
15632.8,0.0128671,0,20480,131072
15650.2,0.0126847,0,20480,131072
15667.7,0.012498,0,20480,131072
15685.1,0.0123072,0,20480,131072
15702.5,0.0121122,0,20480,131072
15720,0.011913,0,20480,131072
15737.4,0.0117096,0,20480,131072
15754.8,0.0115021,0,20480,131072
15772.2,0.0112903,0,20480,131072
15789.7,0.0110744,0,20480,131072
15807.1,0.0108543,0,20480,131072
15824.5,0.0106301,0,20480,131072
15842,0.0104016,0,20480,131072
15859.4,0.010169,0,20480,131072
15876.8,0.00993218,0,20480,131072
15894.2,0.0096912,0,20480,131072
15911.7,0.00944606,0,20480,131072
15929.1,0.00919676,0,20480,131072
15946.5,0.00894332,0,20480,131072
15964,0.00868575,0,20480,131072
15981.4,0.00842408,0,20480,131072
15998.8,0.00815833,0,20480,131072
16016.2,0.00788854,0,20480,131072
16033.7,0.00761475,0,20480,131072
16051.1,0.007337,0,20480,131072
16068.5,0.00705536,0,20480,131072
16085.9,0.00676988,0,20480,131072
16103.4,0.00648065,0,20480,131072
16120.8,0.00618775,0,20480,131072
16138.2,0.00589128,0,20480,131072
16155.7,0.00559135,0,20480,131072
16173.1,0.00528807,0,20480,131072
16190.5,0.00498159,0,20480,131072
16207.9,0.00467206,0,20480,131072
16225.4,0.00435962,0,20480,131072
16242.8,0.00404447,0,20480,131072
16260.2,0.0037268,0,20480,131072
16277.7,0.00340681,0,20480,131072
16295.1,0.00308473,0,20480,131072
16312.5,0.0027608,0,20480,131072
16329.9,0.00243527,0,20480,131072
16347.4,0.00210843,0,20480,131072
16364.8,0.00178057,0,20480,131072
16382.2,0.00145198,0,20480,131072
16399.6,0.00112301,0,20480,131072
16417.1,0.000793998,0,20480,131072
16434.5,0.000465302,0,20480,131072
16451.9,0.000137301,0,20480,131072
16469.4,-0.000189606,0,20480,131072
16486.8,-0.000515007,0,20480,131072
16504.2,-0.000838472,0,20480,131072
16521.6,-0.00115956,0,20480,131072
16539.1,-0.0014778,0,20480,131072
16556.5,-0.00179272,0,20480,131072
16573.9,-0.00210384,0,20480,131072
16591.4,-0.00241065,0,20480,131072
16608.8,-0.00271262,0,20480,131072
16626.2,-0.00300924,0,20480,131072
16643.6,-0.00329997,0,20480,131072
16661.1,-0.00358425,0,20480,131072
16678.5,-0.00386152,0,20480,131072
16695.9,-0.00413123,0,20480,131072
16713.4,-0.0043928,0,20480,131072
16730.8,-0.00464566,0,20480,131072
16748.2,-0.00488922,0,20480,131072
16765.6,-0.00512291,0,20480,131072
16783.1,-0.00534615,0,20480,131072
16800.5,-0.00555836,0,20480,131072
16817.9,-0.00575896,0,20480,131072
16835.3,-0.00594738,0,20480,131072
16852.8,-0.00612306,0,20480,131072
16870.2,-0.00628545,0,20480,131072
16887.6,-0.00643401,0,20480,131072
16905.1,-0.0065682,0,20480,131072
16922.5,-0.00668751,0,20480,131072
16939.9,-0.00679145,0,20480,131072
16957.3,-0.00687953,0,20480,131072
16974.8,-0.00695131,0,20480,131072
16992.2,-0.00700635,0,20480,131072
17009.6,-0.00704425,0,20480,131072
17027.1,-0.00706462,0,20480,131072
17044.5,-0.00706713,0,20480,131072
17061.9,-0.00705145,0,20480,131072
17079.3,-0.00701731,0,20480,131072
17096.8,-0.00696447,0,20480,131072
17114.2,-0.00689272,0,20480,131072
17131.6,-0.0068019,0,20480,131072
17149.1,-0.00669189,0,20480,131072
17166.5,-0.0065626,0,20480,131072
17183.9,-0.00641402,0,20480,131072
17201.3,-0.00624616,0,20480,131072
17218.8,-0.00605908,0,20480,131072
17236.2,-0.00585291,0,20480,131072
17253.6,-0.0056278,0,20480,131072
17271,-0.00538399,0,20480,131072
17288.5,-0.00512175,0,20480,131072
17305.9,-0.00484141,0,20480,131072
17323.3,-0.00454336,0,20480,131072
17340.8,-0.00422804,0,20480,131072
17358.2,-0.00389594,0,20480,131072
17375.6,-0.00354762,0,20480,131072
17393,-0.00318369,0,20480,131072
17410.5,-0.00280481,0,20480,131072
17427.9,-0.0024117,0,20480,131072
17445.3,-0.00200513,0,20480,131072
17462.8,-0.00158593,0,20480,131072
17480.2,-0.00115498,0,20480,131072
17497.6,-0.000713193,0,20480,131072
17515,-0.000261555,0,20480,131072
17532.5,0.000198918,0,20480,131072
17549.9,0.000667162,0,20480,131072
17567.3,0.00114207,0,20480,131072
17584.8,0.00162251,0,20480,131072
17602.2,0.00210729,0,20480,131072
17619.6,0.0025952,0,20480,131072
17637,0.00308501,0,20480,131072
17654.5,0.00357545,0,20480,131072
17671.9,0.00406524,0,20480,131072
17689.3,0.00455307,0,20480,131072
17706.7,0.00503763,0,20480,131072
17724.2,0.0055176,0,20480,131072
17741.6,0.00599164,0,20480,131072
17759,0.00645844,0,20480,131072
17776.5,0.00691666,0,20480,131072
17793.9,0.00736501,0,20480,131072
17811.3,0.00780218,0,20480,131072
17828.7,0.00822691,0,20480,131072
17846.2,0.00863794,0,20480,131072
17863.6,0.00903405,0,20480,131072
17881,0.00941407,0,20480,131072
17898.5,0.00977686,0,20480,131072
17915.9,0.0101213,0,20480,131072
17933.3,0.0104464,0,20480,131072
17950.7,0.0107511,0,20480,131072
17968.2,0.0110346,0,20480,131072
17985.6,0.0112959,0,20480,131072
18003,0.0115342,0,20480,131072
18020.4,0.0117489,0,20480,131072
18037.9,0.0119393,0,20480,131072
18055.3,0.0121048,0,20480,131072
18072.7,0.012245,0,20480,131072
18090.2,0.0123594,0,20480,131072
18107.6,0.0124478,0,20480,131072
18125,0.01251,0,20480,131072
18142.4,0.0125457,0,20480,131072
18159.9,0.0125551,0,20480,131072
18177.3,0.0125381,0,20480,131072
18194.7,0.012495,0,20480,131072
18212.2,0.0124259,0,20480,131072
18229.6,0.0123312,0,20480,131072
18247,0.0122114,0,20480,131072
18264.4,0.012067,0,20480,131072
18281.9,0.0118985,0,20480,131072
18299.3,0.0117067,0,20480,131072
18316.7,0.0114923,0,20480,131072
18334.2,0.0112563,0,20480,131072
18351.6,0.0109994,0,20480,131072
18369,0.0107228,0,20480,131072
18386.4,0.0104274,0,20480,131072
18403.9,0.0101144,0,20480,131072
18421.3,0.00978489,0,20480,131072
18438.7,0.00944013,0,20480,131072
18456.1,0.00908135,0,20480,131072
18473.6,0.00870983,0,20480,131072
18491,0.00832687,0,20480,131072
18508.4,0.00793381,0,20480,131072
18525.9,0.00753198,0,20480,131072
18543.3,0.00712275,0,20480,131072
18560.7,0.00670747,0,20480,131072
18578.1,0.00628748,0,20480,131072
18595.6,0.00586412,0,20480,131072
18613,0.00543874,0,20480,131072
18630.4,0.00501262,0,20480,131072
18647.9,0.00458706,0,20480,131072
18665.3,0.00416329,0,20480,131072
18682.7,0.00374254,0,20480,131072
18700.1,0.00332597,0,20480,131072
18717.6,0.00291473,0,20480,131072
18735,0.00250989,0,20480,131072
18752.4,0.00211249,0,20480,131072
18769.8,0.00172351,0,20480,131072
18787.3,0.00134388,0,20480,131072
18804.7,0.000974466,0,20480,131072
18822.1,0.000616089,0,20480,131072
18839.6,0.000269499,0,20480,131072
18857,-6.46086e-05,0,20480,131072
18874.4,-0.000385601,0,20480,131072
18891.8,-0.000692904,0,20480,131072
18909.3,-0.000986005,0,20480,131072
18926.7,-0.00126445,0,20480,131072
18944.1,-0.00152784,0,20480,131072
18961.6,-0.00177584,0,20480,131072
18979,-0.00200816,0,20480,131072
18996.4,-0.00222458,0,20480,131072
19013.8,-0.00242492,0,20480,131072
19031.3,-0.00260905,0,20480,131072
19048.7,-0.0027769,0,20480,131072
19066.1,-0.00292843,0,20480,131072
19083.5,-0.00306365,0,20480,131072
19101,-0.00318262,0,20480,131072
19118.4,-0.00328542,0,20480,131072
19135.8,-0.00337218,0,20480,131072
19153.3,-0.00344305,0,20480,131072
19170.7,-0.00349822,0,20480,131072
19188.1,-0.00353791,0,20480,131072
19205.5,-0.00356235,0,20480,131072
19223,-0.0035718,0,20480,131072
19240.4,-0.00356654,0,20480,131072
19257.8,-0.00354686,0,20480,131072
19275.3,-0.00351308,0,20480,131072
19292.7,-0.00346552,0,20480,131072
19310.1,-0.0034045,0,20480,131072
19327.5,-0.00333037,0,20480,131072
19345,-0.00324346,0,20480,131072
19362.4,-0.00314413,0,20480,131072
19379.8,-0.00303273,0,20480,131072
19397.3,-0.0029096,0,20480,131072
19414.7,-0.00277509,0,20480,131072
19432.1,-0.00262955,0,20480,131072
19449.5,-0.00247333,0,20480,131072
19467,-0.00230677,0,20480,131072
19484.4,-0.0021302,0,20480,131072
19501.8,-0.00194396,0,20480,131072
19519.2,-0.00174837,0,20480,131072
19536.7,-0.00154377,0,20480,131072
19554.1,-0.00133046,0,20480,131072
19571.5,-0.00110877,0,20480,131072
19589,-0.000878998,0,20480,131072
19606.4,-0.000641451,0,20480,131072
19623.8,-0.000396433,0,20480,131072
19641.2,-0.000144241,0,20480,131072
19658.7,0.000114828,0,20480,131072
19676.1,0.000380478,0,20480,131072
19693.5,0.000652416,0,20480,131072
19711,0.000930347,0,20480,131072
19728.4,0.00121398,0,20480,131072
19745.8,0.00150301,0,20480,131072
19763.2,0.00179714,0,20480,131072
19780.7,0.00209608,0,20480,131072
19798.1,0.00239952,0,20480,131072
19815.5,0.00270714,0,20480,131072
19833,0.00301863,0,20480,131072
19850.4,0.00333368,0,20480,131072
19867.8,0.00365196,0,20480,131072
19885.2,0.00397314,0,20480,131072
19902.7,0.00429688,0,20480,131072
19920.1,0.00462283,0,20480,131072
19937.5,0.00495066,0,20480,131072
19954.9,0.00528,0,20480,131072
19972.4,0.0056105,0,20480,131072
19989.8,0.00594179,0,20480,131072
