time,surface_elevation,reference_data,number_of_local_cells,number_of_global_cells
0,0,0,327680,2097152
11.5888,0,0,327680,2097152
23.1776,0,0,327680,2097152
30.9034,0,0,327680,2097152
42.4922,0,0,327680,2097152
50.2181,0,0,327680,2097152
61.8068,0,0,327680,2097152
73.3956,0,0,327680,2097152
81.1215,0,0,327680,2097152
92.7103,0,0,327680,2097152
100.436,0,0,327680,2097152
112.025,0,0,327680,2097152
123.614,0,0,327680,2097152
131.34,0,0,327680,2097152
142.928,0,0,327680,2097152
150.654,0,0,327680,2097152
162.243,0,0,327680,2097152
173.832,0,0,327680,2097152
181.558,0,0,327680,2097152
193.146,0,0,327680,2097152
200.872,0,0,327680,2097152
212.461,0,0,327680,2097152
220.187,0,0,327680,2097152
231.776,0,0,327680,2097152
243.364,0,0,327680,2097152
251.09,0,0,327680,2097152
262.679,0,0,327680,2097152
270.405,0,0,327680,2097152
281.994,0,0,327680,2097152
293.582,0,0,327680,2097152
301.308,0,0,327680,2097152
312.897,0,0,327680,2097152
320.623,0,0,327680,2097152
332.212,0,0,327680,2097152
343.801,0,0,327680,2097152
351.526,0,0,327680,2097152
363.115,0,0,327680,2097152
370.841,0,0,327680,2097152
382.43,0,0,327680,2097152
390.156,0,0,327680,2097152
401.744,0,0,327680,2097152
413.333,0,0,327680,2097152
421.059,0,0,327680,2097152
432.648,0,0,327680,2097152
440.374,0,0,327680,2097152
451.962,0,0,327680,2097152
463.551,0,0,327680,2097152
471.277,0,0,327680,2097152
482.866,0,0,327680,2097152
490.592,0,0,327680,2097152
502.181,0,0,327680,2097152
513.769,0,0,327680,2097152
521.495,0,0,327680,2097152
533.084,0,0,327680,2097152
540.81,0,0,327680,2097152
552.399,0,0,327680,2097152
560.124,0,0,327680,2097152
571.713,0,0,327680,2097152
583.302,0,0,327680,2097152
591.028,0,0,327680,2097152
602.617,0,0,327680,2097152
610.343,0,0,327680,2097152
621.931,0,0,327680,2097152
633.52,0,0,327680,2097152
641.246,0,0,327680,2097152
652.835,0,0,327680,2097152
660.561,0,0,327680,2097152
672.149,0,0,327680,2097152
683.738,0,0,327680,2097152
691.464,0,0,327680,2097152
703.053,0,0,327680,2097152
710.779,0,0,327680,2097152
722.367,0,0,327680,2097152
730.093,0,0,327680,2097152
741.682,0,0,327680,2097152
753.271,0,0,327680,2097152
760.997,0,0,327680,2097152
772.585,0,0,327680,2097152
780.311,0,0,327680,2097152
791.9,0,0,327680,2097152
803.489,0,0,327680,2097152
811.215,0,0,327680,2097152
822.804,0,0,327680,2097152
830.529,0,0,327680,2097152
842.118,0,0,327680,2097152
853.707,0,0,327680,2097152
861.433,0,0,327680,2097152
873.022,0,0,327680,2097152
880.747,0,0,327680,2097152
892.336,0,0,327680,2097152
900.062,0,0,327680,2097152
911.651,0,0,327680,2097152
923.24,0,0,327680,2097152
930.965,0,0,327680,2097152
942.554,0,0,327680,2097152
950.28,0,0,327680,2097152
961.869,0,0,327680,2097152
973.458,0,0,327680,2097152
981.184,0,0,327680,2097152
992.772,0,0,327680,2097152
1000.5,0,0,327680,2097152
1012.09,0,0,327680,2097152
1023.68,0,0,327680,2097152
1031.4,0,0,327680,2097152
1042.99,0,0,327680,2097152
1050.72,0,0,327680,2097152
1062.31,0,0,327680,2097152
1070.03,0,0,327680,2097152
1081.62,0,0,327680,2097152
1093.21,0,0,327680,2097152
1100.93,0,0,327680,2097152
1112.52,0,0,327680,2097152
1120.25,0,0,327680,2097152
1131.84,0,0,327680,2097152
1143.43,0,0,327680,2097152
1151.15,0,0,327680,2097152
1162.74,0,0,327680,2097152
1170.47,0,0,327680,2097152
1182.06,0,0,327680,2097152
1193.64,0,0,327680,2097152
1201.37,0,0,327680,2097152
1212.96,0,0,327680,2097152
1220.69,0,0,327680,2097152
1232.27,0,0,327680,2097152
1243.86,0,0,327680,2097152
1251.59,0,0,327680,2097152
1263.18,0,0,327680,2097152
1270.9,0,0,327680,2097152
1282.49,0,0,327680,2097152
1290.22,0,0,327680,2097152
1301.81,0,0,327680,2097152
1313.4,0,0,327680,2097152
1321.12,0,0,327680,2097152
1332.71,0,0,327680,2097152
1340.44,0,0,327680,2097152
1352.02,0,0,327680,2097152
1363.61,0,0,327680,2097152
1371.34,0,0,327680,2097152
1382.93,0,0,327680,2097152
1390.65,0,0,327680,2097152
1402.24,0,0,327680,2097152
1413.83,0,0,327680,2097152
1421.56,0,0,327680,2097152
1433.15,0,0,327680,2097152
1440.87,0,0,327680,2097152
1452.46,0,0,327680,2097152
1460.19,0,0,327680,2097152
1471.78,0,0,327680,2097152
1483.36,0,0,327680,2097152
1491.09,0,0,327680,2097152
1502.68,0,0,327680,2097152
1510.4,0,0,327680,2097152
1521.99,0,0,327680,2097152
1533.58,0,0,327680,2097152
1541.31,0,0,327680,2097152
1552.9,0,0,327680,2097152
1560.62,0,0,327680,2097152
1572.21,0,0,327680,2097152
1583.8,0,0,327680,2097152
1591.53,0,0,327680,2097152
1603.11,0,0,327680,2097152
1610.84,0,0,327680,2097152
1622.43,0,0,327680,2097152
1630.16,0,0,327680,2097152
1641.74,0,0,327680,2097152
1653.33,0,0,327680,2097152
1661.06,0,0,327680,2097152
1672.65,0,0,327680,2097152
1680.37,0,0,327680,2097152
1691.96,0,0,327680,2097152
1703.55,0,0,327680,2097152
1711.28,0,0,327680,2097152
1722.87,0,0,327680,2097152
1730.59,0,0,327680,2097152
1742.18,0,0,327680,2097152
1753.77,0,0,327680,2097152
1761.49,0,0,327680,2097152
1773.08,0,0,327680,2097152
1780.81,0,0,327680,2097152
1792.4,0,0,327680,2097152
1800.12,0,0,327680,2097152
1811.71,0,0,327680,2097152
1823.3,0,0,327680,2097152
1831.03,0,0,327680,2097152
1842.62,0,0,327680,2097152
1850.34,0,0,327680,2097152
1861.93,0,0,327680,2097152
1873.52,0,0,327680,2097152
1881.25,0,0,327680,2097152
1892.83,0,0,327680,2097152
1900.56,0,0,327680,2097152
1912.15,0,0,327680,2097152
1923.74,0,0,327680,2097152
1931.46,0,0,327680,2097152
1943.05,0,0,327680,2097152
1950.78,0,0,327680,2097152
1962.37,0,0,327680,2097152
1970.09,0,0,327680,2097152
1981.68,0,0,327680,2097152
1993.27,0,0,327680,2097152
2001,0,0,327680,2097152
2012.59,0,0,327680,2097152
2020.31,0,0,327680,2097152
2031.9,0,0,327680,2097152
2043.49,0,0,327680,2097152
2051.21,0,0,327680,2097152
2062.8,0,0,327680,2097152
2070.53,0,0,327680,2097152
2082.12,0,0,327680,2097152
2093.71,0,0,327680,2097152
2101.43,0,0,327680,2097152
2113.02,0,0,327680,2097152
2120.75,0,0,327680,2097152
2132.34,0,0,327680,2097152
2140.06,0,0,327680,2097152
2151.65,0,0,327680,2097152
2163.24,0,0,327680,2097152
2170.97,0,0,327680,2097152
2182.55,0,0,327680,2097152
2190.28,0,0,327680,2097152
2201.87,0,0,327680,2097152
2213.46,0,0,327680,2097152
2221.18,0,0,327680,2097152
2232.77,0,0,327680,2097152
2240.5,0,0,327680,2097152
2252.09,0,0,327680,2097152
2263.68,0,0,327680,2097152
2271.4,0,0,327680,2097152
2282.99,0,0,327680,2097152
2290.72,0,0,327680,2097152
2302.3,9.09495e-13,0,327680,2097152
2310.03,9.09495e-13,0,327680,2097152
2321.62,0,0,327680,2097152
2333.21,0,0,327680,2097152
2340.93,0,0,327680,2097152
2352.52,0,0,327680,2097152
2360.25,0,0,327680,2097152
2371.84,0,0,327680,2097152
2383.43,0,0,327680,2097152
2391.15,0,0,327680,2097152
2402.74,0,0,327680,2097152
2410.47,0,0,327680,2097152
2422.06,0,0,327680,2097152
2433.64,0,0,327680,2097152
2441.37,9.09495e-13,0,327680,2097152
2452.96,0,0,327680,2097152
2460.68,0,0,327680,2097152
2472.27,0,0,327680,2097152
2483.86,0,0,327680,2097152
2491.59,0,0,327680,2097152
2503.18,0,0,327680,2097152
2510.9,0,0,327680,2097152
2522.49,0,0,327680,2097152
2530.22,0,0,327680,2097152
2541.81,0,0,327680,2097152
2553.39,0,0,327680,2097152
2561.12,0,0,327680,2097152
2572.71,0,0,327680,2097152
2580.44,0,0,327680,2097152
2592.02,0,0,327680,2097152
2603.61,0,0,327680,2097152
2611.34,0,0,327680,2097152
2622.93,0,0,327680,2097152
2630.65,0,0,327680,2097152
2642.24,0,0,327680,2097152
2653.83,0,0,327680,2097152
2661.56,0,0,327680,2097152
2673.15,0,0,327680,2097152
2680.87,0,0,327680,2097152
2692.46,0,0,327680,2097152
2700.19,0,0,327680,2097152
2711.77,0,0,327680,2097152
2723.36,0,0,327680,2097152
2731.09,0,0,327680,2097152
2742.68,0,0,327680,2097152
2750.4,0,0,327680,2097152
2761.99,0,0,327680,2097152
2773.58,0,0,327680,2097152
2781.31,0,0,327680,2097152
2792.9,0,0,327680,2097152
2800.62,0,0,327680,2097152
2812.21,0,0,327680,2097152
2823.8,0,0,327680,2097152
2831.53,0,0,327680,2097152
2843.11,0,0,327680,2097152
2850.84,0,0,327680,2097152
2862.43,9.09495e-13,0,327680,2097152
2870.15,1.81899e-12,0,327680,2097152
2881.74,5.45697e-12,0,327680,2097152
2893.33,1.09139e-11,0,327680,2097152
2901.06,1.72804e-11,0,327680,2097152
2912.65,3.36513e-11,0,327680,2097152
2920.37,5.18412e-11,0,327680,2097152
2931.96,9.82254e-11,0,327680,2097152
2943.55,1.83718e-10,0,327680,2097152
2951.28,2.76486e-10,0,327680,2097152
2962.87,5.01132e-10,0,327680,2097152
2970.59,7.376e-10,0,327680,2097152
2982.18,1.29876e-09,0,327680,2097152
2993.77,2.25191e-09,0,327680,2097152
3001.49,3.22234e-09,0,327680,2097152
3013.08,5.44605e-09,0,327680,2097152
3020.81,7.66249e-09,0,327680,2097152
3032.4,1.26311e-08,0,327680,2097152
3040.12,1.74814e-08,0,327680,2097152
3051.71,2.81243e-08,0,327680,2097152
3063.3,4.46098e-08,0,327680,2097152
3071.03,6.02031e-08,0,327680,2097152
3082.62,9.33132e-08,0,327680,2097152
3090.34,1.24039e-07,0,327680,2097152
3101.93,1.87997e-07,0,327680,2097152
3113.52,2.81226e-07,0,327680,2097152
3121.24,3.65216e-07,0,327680,2097152
3132.83,5.34817e-07,0,327680,2097152
3140.56,6.84905e-07,0,327680,2097152
3152.15,9.8249e-07,0,327680,2097152
3163.74,1.39248e-06,0,327680,2097152
3171.46,1.74544e-06,0,327680,2097152
3183.05,2.42587e-06,0,327680,2097152
3190.78,3.00202e-06,0,327680,2097152
3202.37,4.09413e-06,0,327680,2097152
3210.09,5.00408e-06,0,327680,2097152
3221.68,6.701e-06,0,327680,2097152
3233.27,8.8783e-06,0,327680,2097152
3240.99,1.0648e-05,0,327680,2097152
3252.58,1.38667e-05,0,327680,2097152
3260.31,1.64443e-05,0,327680,2097152
3271.9,2.10626e-05,0,327680,2097152
3283.49,2.67187e-05,0,327680,2097152
3291.21,3.11462e-05,0,327680,2097152
3302.8,3.88995e-05,0,327680,2097152
3310.53,4.48866e-05,0,327680,2097152
3322.12,5.52292e-05,0,327680,2097152
3333.7,6.7369e-05,0,327680,2097152
3341.43,7.65505e-05,0,327680,2097152
3353.02,9.20861e-05,0,327680,2097152
3360.74,0.000103692,0,327680,2097152
3372.33,0.00012309,0,327680,2097152
3380.06,0.00013741,0,327680,2097152
3391.65,0.000161066,0,327680,2097152
3403.24,0.000187425,0,327680,2097152
3410.96,0.000206539,0,327680,2097152
3422.55,0.000237563,0,327680,2097152
3430.28,0.000259825,0,327680,2097152
3441.87,0.000295588,0,327680,2097152
3453.45,0.000334167,0,327680,2097152
3461.18,0.000361423,0,327680,2097152
3472.77,0.000404547,0,327680,2097152
3480.49,0.000434742,0,327680,2097152
3492.08,0.000482102,0,327680,2097152
3503.67,0.000531808,0,327680,2097152
3511.4,0.000566163,0,327680,2097152
3522.99,0.000619385,0,327680,2097152
3530.71,0.000655909,0,327680,2097152
3542.3,0.000712112,0,327680,2097152
3550.03,0.000750439,0,327680,2097152
3561.61,0.000809073,0,327680,2097152
3573.2,0.000868913,0,327680,2097152
3580.93,0.000909389,0,327680,2097152
3592.52,0.000970863,0,327680,2097152
3600.24,0.00101229,0,327680,2097152
3611.83,0.00107501,0,327680,2097152
3623.42,0.00113835,0,327680,2097152
3631.14,0.00118089,0,327680,2097152
3642.73,0.00124513,0,327680,2097152
3650.46,0.00128825,0,327680,2097152
3662.05,0.00135338,0,327680,2097152
3673.64,0.0014191,0,327680,2097152
3681.36,0.00146328,0,327680,2097152
3692.95,0.00153019,0,327680,2097152
3700.68,0.00157528,0,327680,2097152
3712.26,0.00164376,0,327680,2097152
3723.85,0.00171342,0,327680,2097152
3731.58,0.00176064,0,327680,2097152
3743.17,0.00183279,0,327680,2097152
3750.89,0.00188189,0,327680,2097152
3762.48,0.00195727,0,327680,2097152
3770.21,0.00200881,0,327680,2097152
3781.79,0.0020883,0,327680,2097152
3793.38,0.00217075,0,327680,2097152
3801.11,0.00222756,0,327680,2097152
3812.7,0.0023159,0,327680,2097152
3820.42,0.00237709,0,327680,2097152
3832.01,0.00247276,0,327680,2097152
3843.6,0.00257366,0,327680,2097152
3851.32,0.00264421,0,327680,2097152
3862.91,0.00275559,0,327680,2097152
3870.64,0.00283398,0,327680,2097152
3882.23,0.00295864,0,327680,2097152
3893.81,0.003093,0,327680,2097152
3901.54,0.00318876,0,327680,2097152
3913.13,0.0033431,0,327680,2097152
3920.85,0.00345411,0,327680,2097152
3932.44,0.00363475,0,327680,2097152
3940.17,0.00376596,0,327680,2097152
3951.76,0.00398168,0,327680,2097152
3963.34,0.00422405,0,327680,2097152
3971.07,0.004403,0,327680,2097152
3982.66,0.00470212,0,327680,2097152
3990.38,0.00492517,0,327680,2097152
4001.97,0.00530153,0,327680,2097152
4013.56,0.00573711,0,327680,2097152
4021.29,0.00606625,0,327680,2097152
4032.87,0.00662842,0,327680,2097152
4040.6,0.00705581,0,327680,2097152
4052.19,0.00778957,0,327680,2097152
4063.78,0.0086537,0,327680,2097152
4071.5,0.00931436,0,327680,2097152
4083.09,0.0104531,0,327680,2097152
4090.81,0.0113246,0,327680,2097152
4102.4,0.0128266,0,327680,2097152
4110.13,0.0139752,0,327680,2097152
4121.72,0.0159514,0,327680,2097152
4133.31,0.0182755,0,327680,2097152
4141.03,0.0200446,0,327680,2097152
4152.62,0.0230717,0,327680,2097152
4160.34,0.025366,0,327680,2097152
4171.93,0.0292721,0,327680,2097152
4183.52,0.0338001,0,327680,2097152
4191.25,0.0372019,0,327680,2097152
4202.83,0.0429382,0,327680,2097152
4210.56,0.0472202,0,327680,2097152
4222.15,0.0543918,0,327680,2097152
4233.74,0.0625368,0,327680,2097152
4241.46,0.0685488,0,327680,2097152
4253.05,0.0785005,0,327680,2097152
4260.78,0.0857914,0,327680,2097152
4272.36,0.0977669,0,327680,2097152
4280.09,0.106473,0,327680,2097152
4291.68,0.120659,0,327680,2097152
4303.27,0.136242,0,327680,2097152
4310.99,0.147425,0,327680,2097152
4322.58,0.165411,0,327680,2097152
4330.31,0.178213,0,327680,2097152
4341.9,0.19863,0,327680,2097152
4353.48,0.220481,0,327680,2097152
4361.21,0.235825,0,327680,2097152
4372.8,0.25996,0,327680,2097152
4380.52,0.276761,0,327680,2097152
4392.11,0.302953,0,327680,2097152
4403.7,0.330225,0,327680,2097152
4411.43,0.348937,0,327680,2097152
4423.01,0.377681,0,327680,2097152
4430.74,0.397216,0,327680,2097152
4442.33,0.426933,0,327680,2097152
4450.05,0.446928,0,327680,2097152
4461.64,0.477033,0,327680,2097152
4473.23,0.507061,0,327680,2097152
4480.96,0.526915,0,327680,2097152
4492.55,0.556264,0,327680,2097152
4500.27,0.57543,0,327680,2097152
4511.86,0.603389,0,327680,2097152
4523.45,0.63017,0,327680,2097152
4531.18,0.647245,0,327680,2097152
4542.76,0.671507,0,327680,2097152
4550.49,0.686678,0,327680,2097152
4562.08,0.707764,0,327680,2097152
4573.67,0.726655,0,327680,2097152
4581.39,0.737934,0,327680,2097152
4592.98,0.752747,0,327680,2097152
4600.71,0.761152,0,327680,2097152
4612.3,0.77145,0,327680,2097152
4620.02,0.776725,0,327680,2097152
4631.61,0.782182,0,327680,2097152
4643.2,0.784629,0,327680,2097152
4650.93,0.784564,0,327680,2097152
4662.51,0.781902,0,327680,2097152
4670.24,0.778418,0,327680,2097152
4681.83,0.77064,0,327680,2097152
4693.42,0.759838,0,327680,2097152
4701.14,0.750986,0,327680,2097152
4712.73,0.735293,0,327680,2097152
4720.46,0.723264,0,327680,2097152
4732.05,0.702953,0,327680,2097152
4743.64,0.680039,0,327680,2097152
4751.36,0.663388,0,327680,2097152
4762.95,0.636464,0,327680,2097152
4770.68,0.617288,0,327680,2097152
4782.26,0.586816,0,327680,2097152
4793.85,0.554455,0,327680,2097152
4801.58,0.531925,0,327680,2097152
4813.17,0.49684,0,327680,2097152
4820.89,0.472674,0,327680,2097152
4832.48,0.43541,0,327680,2097152
4840.21,0.409975,0,327680,2097152
4851.8,0.371083,0,327680,2097152
4863.38,0.331477,0,327680,2097152
4871.11,0.304774,0,327680,2097152
4882.7,0.264411,0,327680,2097152
4890.42,0.237379,0,327680,2097152
4902.01,0.196781,0,327680,2097152
4913.6,0.156282,0,327680,2097152
4921.33,0.129424,0,327680,2097152
4932.92,0.0894701,0,327680,2097152
4940.64,0.063127,0,327680,2097152
4952.23,0.0241655,0,327680,2097152
4963.82,-0.0140017,0,327680,2097152
4971.55,-0.0389361,0,327680,2097152
4983.13,-0.075474,0,327680,2097152
4990.86,-0.099203,0,327680,2097152
5002.45,-0.133765,0,327680,2097152
5010.17,-0.156072,0,327680,2097152
5021.76,-0.188355,0,327680,2097152
5033.35,-0.219142,0,327680,2097152
5041.08,-0.238795,0,327680,2097152
5052.67,-0.266909,0,327680,2097152
5060.39,-0.284713,0,327680,2097152
5071.98,-0.309968,0,327680,2097152
5083.57,-0.333438,0,327680,2097152
5091.29,-0.348072,0,327680,2097152
5102.88,-0.368483,0,327680,2097152
5110.61,-0.381053,0,327680,2097152
5122.2,-0.398343,0,327680,2097152
5133.79,-0.41375,0,327680,2097152
5141.51,-0.422977,0,327680,2097152
5153.1,-0.435261,0,327680,2097152
5160.83,-0.442421,0,327680,2097152
5172.42,-0.451638,0,327680,2097152
5180.14,-0.456783,0,327680,2097152
5191.73,-0.463032,0,327680,2097152
5203.32,-0.467563,0,327680,2097152
5211.04,-0.469658,0,327680,2097152
5222.63,-0.471456,0,327680,2097152
5230.36,-0.471789,0,327680,2097152
5241.95,-0.471043,0,327680,2097152
5253.54,-0.468872,0,327680,2097152
5261.26,-0.466673,0,327680,2097152
5272.85,-0.46231,0,327680,2097152
5280.58,-0.458729,0,327680,2097152
5292.17,-0.452417,0,327680,2097152
5303.75,-0.445056,0,327680,2097152
5311.48,-0.439613,0,327680,2097152
5323.07,-0.430713,0,327680,2097152
5330.79,-0.424331,0,327680,2097152
5342.38,-0.414151,0,327680,2097152
5350.11,-0.407001,0,327680,2097152
5361.7,-0.395798,0,327680,2097152
5373.29,-0.384101,0,327680,2097152
5381.01,-0.376072,0,327680,2097152
5392.6,-0.363746,0,327680,2097152
5400.33,-0.355375,0,327680,2097152
5411.92,-0.342649,0,327680,2097152
5423.5,-0.329787,0,327680,2097152
5431.23,-0.321172,0,327680,2097152
5442.82,-0.308242,0,327680,2097152
5450.54,-0.299646,0,327680,2097152
5462.13,-0.286832,0,327680,2097152
5473.72,-0.274167,0,327680,2097152
5481.45,-0.265833,0,327680,2097152
5493.04,-0.253534,0,327680,2097152
5500.76,-0.245489,0,327680,2097152
5512.35,-0.233685,0,327680,2097152
5520.08,-0.226008,0,327680,2097152
5531.67,-0.214807,0,327680,2097152
5543.25,-0.20401,0,327680,2097152
5550.98,-0.197051,0,327680,2097152
5562.57,-0.186988,0,327680,2097152
5570.29,-0.180538,0,327680,2097152
5581.88,-0.171264,0,327680,2097152
5593.47,-0.162484,0,327680,2097152
5601.2,-0.156909,0,327680,2097152
5612.79,-0.148972,0,327680,2097152
5620.51,-0.143965,0,327680,2097152
5632.1,-0.136884,0,327680,2097152
5643.69,-0.130316,0,327680,2097152
5651.42,-0.126222,0,327680,2097152
5663,-0.120502,0,327680,2097152
5670.73,-0.116967,0,327680,2097152
5682.32,-0.112075,0,327680,2097152
5690.04,-0.109083,0,327680,2097152
5701.63,-0.104989,0,327680,2097152
5713.22,-0.101354,0,327680,2097152
5720.95,-0.0991798,0,327680,2097152
5732.54,-0.0962774,0,327680,2097152
5740.26,-0.0945747,0,327680,2097152
5751.85,-0.0923552,0,327680,2097152
5763.44,-0.0905196,0,327680,2097152
5771.17,-0.0894993,0,327680,2097152
5782.75,-0.0882586,0,327680,2097152
5790.48,-0.0876156,0,327680,2097152
5802.07,-0.0869112,0,327680,2097152
5813.66,-0.0864999,0,327680,2097152
5821.38,-0.0863777,0,327680,2097152
5832.97,-0.0864063,0,327680,2097152
5840.7,-0.0865572,0,327680,2097152
5852.29,-0.0869654,0,327680,2097152
5860.01,-0.0873494,0,327680,2097152
5871.6,-0.0880775,0,327680,2097152
5883.19,-0.0889698,0,327680,2097152
5890.92,-0.0896456,0,327680,2097152
5902.5,-0.090766,0,327680,2097152
5910.23,-0.0915756,0,327680,2097152
5921.82,-0.0928697,0,327680,2097152
5933.41,-0.0942429,0,327680,2097152
5941.13,-0.0951934,0,327680,2097152
5952.72,-0.0966587,0,327680,2097152
5960.45,-0.0976545,0,327680,2097152
5972.04,-0.0991645,0,327680,2097152
5983.63,-0.10068,0,327680,2097152
5991.35,-0.101686,0,327680,2097152
6002.94,-0.103177,0,327680,2097152
6010.67,-0.104153,0,327680,2097152
6022.25,-0.10558,0,327680,2097152
6033.84,-0.106952,0,327680,2097152
6041.57,-0.107829,0,327680,2097152
6053.16,-0.109081,0,327680,2097152
6060.88,-0.109868,0,327680,2097152
6072.47,-0.110969,0,327680,2097152
6080.2,-0.111645,0,327680,2097152
6091.79,-0.112568,0,327680,2097152
6103.38,-0.113371,0,327680,2097152
6111.1,-0.113836,0,327680,2097152
6122.69,-0.114422,0,327680,2097152
6130.42,-0.114736,0,327680,2097152
6142,-0.115086,0,327680,2097152
6153.59,-0.115287,0,327680,2097152
6161.32,-0.115335,0,327680,2097152
6172.91,-0.115275,0,327680,2097152
6180.63,-0.115146,0,327680,2097152
6192.22,-0.114815,0,327680,2097152
6203.81,-0.114318,0,327680,2097152
6211.54,-0.113894,0,327680,2097152
6223.13,-0.113116,0,327680,2097152
6230.85,-0.112504,0,327680,2097152
6242.44,-0.111444,0,327680,2097152
6250.17,-0.110643,0,327680,2097152
6261.75,-0.109303,0,327680,2097152
6273.34,-0.107796,0,327680,2097152
6281.07,-0.106701,0,327680,2097152
6292.66,-0.104925,0,327680,2097152
6300.38,-0.103653,0,327680,2097152
6311.97,-0.101616,0,327680,2097152
6323.56,-0.0994299,0,327680,2097152
6331.29,-0.097892,0,327680,2097152
6342.88,-0.0954691,0,327680,2097152
6350.6,-0.093779,0,327680,2097152
6362.19,-0.091137,0,327680,2097152
6373.78,-0.0883731,0,327680,2097152
6381.5,-0.0864665,0,327680,2097152
6393.09,-0.0835167,0,327680,2097152
6400.82,-0.0814938,0,327680,2097152
6412.41,-0.0783812,0,327680,2097152
6420.13,-0.0762578,0,327680,2097152
6431.72,-0.0730069,0,327680,2097152
6443.31,-0.0696853,0,327680,2097152
6451.04,-0.0674361,0,327680,2097152
6462.63,-0.0640173,0,327680,2097152
6470.35,-0.0617122,0,327680,2097152
6481.94,-0.0582226,0,327680,2097152
6493.53,-0.0547034,0,327680,2097152
6501.25,-0.0523455,0,327680,2097152
6512.84,-0.0487979,0,327680,2097152
6520.57,-0.0464297,0,327680,2097152
6532.16,-0.0428798,0,327680,2097152
6543.75,-0.0393408,0,327680,2097152
6551.47,-0.0369919,0,327680,2097152
6563.06,-0.0334909,0,327680,2097152
6570.79,-0.0311754,0,327680,2097152
6582.38,-0.0277362,0,327680,2097152
6590.1,-0.0254697,0,327680,2097152
6601.69,-0.0221152,0,327680,2097152
6613.28,-0.018822,0,327680,2097152
6621.01,-0.0166641,0,327680,2097152
6632.59,-0.0134892,0,327680,2097152
6640.32,-0.0114168,0,327680,2097152
6651.91,-0.00837947,0,327680,2097152
6663.5,-0.00543321,0,327680,2097152
6671.22,-0.00352264,0,327680,2097152
6682.81,-0.000741399,0,327680,2097152
6690.54,0.001054,0,327680,2097152
6702.13,0.00365517,0,327680,2097152
6713.72,0.00614176,0,327680,2097152
6721.44,0.00773362,0,327680,2097152
6733.03,0.0100196,0,327680,2097152
6740.76,0.011474,0,327680,2097152
6752.34,0.0135486,0,327680,2097152
6760.07,0.0148591,0,327680,2097152
6771.66,0.0167137,0,327680,2097152
6783.25,0.0184327,0,327680,2097152
6790.97,0.0195024,0,327680,2097152
6802.56,0.0209912,0,327680,2097152
6810.29,0.0219058,0,327680,2097152
6821.88,0.0231603,0,327680,2097152
6833.47,0.0242731,0,327680,2097152
6841.19,0.0249361,0,327680,2097152
6852.78,0.0258124,0,327680,2097152
6860.51,0.0263179,0,327680,2097152
6872.1,0.0269588,0,327680,2097152
6883.68,0.02746,0,327680,2097152
6891.41,0.0277172,0,327680,2097152
6903,0.027989,0,327680,2097152
6910.72,0.0280952,0,327680,2097152
6922.31,0.0281441,0,327680,2097152
6930.04,0.0281043,0,327680,2097152
6941.63,0.0279384,0,327680,2097152
6953.22,0.0276484,0,327680,2097152
6960.94,0.027388,0,327680,2097152
6972.53,0.0269001,0,327680,2097152
6980.26,0.026512,0,327680,2097152
6991.85,0.0258389,0,327680,2097152
7003.43,0.0250615,0,327680,2097152
7011.16,0.0244878,0,327680,2097152
7022.75,0.0235485,0,327680,2097152
7030.48,0.0228722,0,327680,2097152
7042.06,0.0217871,0,327680,2097152
7053.65,0.0206226,0,327680,2097152
7061.38,0.0198054,0,327680,2097152
7072.97,0.0185229,0,327680,2097152
7080.69,0.017633,0,327680,2097152
7092.28,0.0162508,0,327680,2097152
7100.01,0.0153006,0,327680,2097152
7111.6,0.0138372,0,327680,2097152
7123.19,0.0123344,0,327680,2097152
7130.91,0.0113139,0,327680,2097152
7142.5,0.00976051,0,327680,2097152
7150.23,0.00871271,0,327680,2097152
7161.81,0.00712785,0,327680,2097152
7173.4,0.00553327,0,327680,2097152
7181.13,0.00446818,0,327680,2097152
7192.72,0.00287252,0,327680,2097152
7200.44,0.00181296,0,327680,2097152
7212.03,0.000234866,0,327680,2097152
7223.62,-0.00132388,0,327680,2097152
7231.35,-0.00234909,0,327680,2097152
7242.94,-0.0038612,0,327680,2097152
7250.66,-0.0048494,0,327680,2097152
7262.25,-0.00629728,0,327680,2097152
7273.84,-0.00769838,0,327680,2097152
7281.57,-0.00860348,0,327680,2097152
7293.15,-0.00991326,0,327680,2097152
7300.88,-0.010752,0,327680,2097152
7312.47,-0.0119543,0,327680,2097152
7320.19,-0.0127161,0,327680,2097152
7331.78,-0.0137953,0,327680,2097152
7343.37,-0.0147933,0,327680,2097152
7351.1,-0.0154111,0,327680,2097152
7362.69,-0.0162624,0,327680,2097152
7370.41,-0.0167777,0,327680,2097152
7382,-0.0174687,0,327680,2097152
7393.59,-0.0180571,0,327680,2097152
7401.32,-0.0183902,0,327680,2097152
7412.9,-0.0187979,0,327680,2097152
7420.63,-0.0190066,0,327680,2097152
7432.22,-0.019222,0,327680,2097152
7443.81,-0.0193172,0,327680,2097152
7451.53,-0.019312,0,327680,2097152
7463.12,-0.0191989,0,327680,2097152
7470.85,-0.0190519,0,327680,2097152
7482.44,-0.0187221,0,327680,2097152
7490.16,-0.0184282,0,327680,2097152
7501.75,-0.0178747,0,327680,2097152
7513.34,-0.0171842,0,327680,2097152
7521.07,-0.016647,0,327680,2097152
7532.65,-0.0157247,0,327680,2097152
7540.38,-0.0150318,0,327680,2097152
7551.97,-0.013875,0,327680,2097152
7563.56,-0.0125768,0,327680,2097152
7571.28,-0.0116329,0,327680,2097152
7582.87,-0.0100996,0,327680,2097152
7590.6,-0.00899952,0,327680,2097152
7602.19,-0.00723337,0,327680,2097152
7613.78,-0.00532949,0,327680,2097152
7621.5,-0.00398469,0,327680,2097152
7633.09,-0.00185601,0,327680,2097152
7640.82,-0.000363776,0,327680,2097152
7652.4,0.00198183,0,327680,2097152
7660.13,0.00361552,0,327680,2097152
7671.72,0.00616799,0,327680,2097152
7683.31,0.00883884,0,327680,2097152
7691.03,0.0106828,0,327680,2097152
7702.62,0.01354,0,327680,2097152
7710.35,0.0155031,0,327680,2097152
7721.94,0.0185311,0,327680,2097152
7733.53,0.0216533,0,327680,2097152
7741.25,0.0237839,0,327680,2097152
7752.84,0.0270484,0,327680,2097152
7760.57,0.0292672,0,327680,2097152
7772.15,0.0326538,0,327680,2097152
7783.74,0.0361035,0,327680,2097152
7791.47,0.0384345,0,327680,2097152
7803.06,0.0419716,0,327680,2097152
7810.78,0.0443533,0,327680,2097152
7822.37,0.0479548,0,327680,2097152
7830.1,0.0503716,0,327680,2097152
7841.69,0.0540138,0,327680,2097152
7853.27,0.0576688,0,327680,2097152
7861,0.0601084,0,327680,2097152
7872.59,0.0637654,0,327680,2097152
7880.32,0.0661981,0,327680,2097152
7891.9,0.0698328,0,327680,2097152
7903.49,0.0734426,0,327680,2097152
7911.22,0.0758311,0,327680,2097152
7922.81,0.0793804,0,327680,2097152
7930.53,0.0817207,0,327680,2097152
7942.12,0.0851864,0,327680,2097152
7953.71,0.0885912,0,327680,2097152
7961.44,0.0908233,0,327680,2097152
7973.02,0.0941091,0,327680,2097152
7980.75,0.0962549,0,327680,2097152
7992.34,0.0994011,0,327680,2097152
8000.06,0.101447,0,327680,2097152
8011.65,0.104434,0,327680,2097152
8023.24,0.107316,0,327680,2097152
8030.97,0.109177,0,327680,2097152
8042.56,0.111871,0,327680,2097152
8050.28,0.113601,0,327680,2097152
8061.87,0.11609,0,327680,2097152
8073.46,0.11845,0,327680,2097152
8081.19,0.119949,0,327680,2097152
8092.77,0.122081,0,327680,2097152
8100.5,0.123423,0,327680,2097152
8112.09,0.125314,0,327680,2097152
8123.68,0.127056,0,327680,2097152
8131.4,0.128131,0,327680,2097152
8142.99,0.129614,0,327680,2097152
8150.72,0.130515,0,327680,2097152
8162.31,0.13173,0,327680,2097152
8170.03,0.132449,0,327680,2097152
8181.62,0.133389,0,327680,2097152
8193.21,0.134161,0,327680,2097152
8200.94,0.134581,0,327680,2097152
8212.52,0.135069,0,327680,2097152
8220.25,0.135297,0,327680,2097152
8231.84,0.135496,0,327680,2097152
8243.43,0.13552,0,327680,2097152
8251.15,0.135439,0,327680,2097152
8262.74,0.135172,0,327680,2097152
8270.47,0.134897,0,327680,2097152
8282.06,0.134338,0,327680,2097152
8293.65,0.133606,0,327680,2097152
8301.37,0.133022,0,327680,2097152
8312.96,0.132003,0,327680,2097152
8320.69,0.131229,0,327680,2097152
8332.28,0.129927,0,327680,2097152
8340,0.128967,0,327680,2097152
8351.59,0.127389,0,327680,2097152
8363.18,0.12565,0,327680,2097152
8370.9,0.124403,0,327680,2097152
8382.49,0.122402,0,327680,2097152
8390.22,0.120983,0,327680,2097152
8401.81,0.118731,0,327680,2097152
8413.4,0.116335,0,327680,2097152
8421.12,0.114659,0,327680,2097152
8432.71,0.112031,0,327680,2097152
8440.44,0.110205,0,327680,2097152
8452.03,0.107361,0,327680,2097152
8463.61,0.104394,0,327680,2097152
8471.34,0.10235,0,327680,2097152
8482.93,0.0991913,0,327680,2097152
8490.65,0.0970254,0,327680,2097152
8502.24,0.0936909,0,327680,2097152
8513.83,0.0902592,0,327680,2097152
8521.56,0.0879205,0,327680,2097152
8533.15,0.0843405,0,327680,2097152
8540.87,0.0819086,0,327680,2097152
8552.46,0.0781974,0,327680,2097152
8560.19,0.0756836,0,327680,2097152
8571.77,0.071858,0,327680,2097152
8583.36,0.0679718,0,327680,2097152
8591.09,0.0653502,0,327680,2097152
8602.68,0.0613759,0,327680,2097152
8610.4,0.0587008,0,327680,2097152
8621.99,0.054654,0,327680,2097152
8633.58,0.0505708,0,327680,2097152
8641.31,0.047831,0,327680,2097152
8652.9,0.0436986,0,327680,2097152
8660.62,0.0409306,0,327680,2097152
8672.21,0.0367623,0,327680,2097152
8683.8,0.0325787,0,327680,2097152
8691.52,0.0297832,0,327680,2097152
8703.11,0.0255834,0,327680,2097152
8710.84,0.0227808,0,327680,2097152
8722.43,0.0185759,0,327680,2097152
8730.15,0.0157734,0,327680,2097152
8741.74,0.0115735,0,327680,2097152
8753.33,0.00738135,0,327680,2097152
8761.06,0.00459245,0,327680,2097152
8772.65,0.00042028,0,327680,2097152
8780.37,-0.00235239,0,327680,2097152
8791.96,-0.00649601,0,327680,2097152
8803.55,-0.0106186,0,327680,2097152
8811.27,-0.0133539,0,327680,2097152
8822.86,-0.0174352,0,327680,2097152
8830.59,-0.0201404,0,327680,2097152
8842.18,-0.0241728,0,327680,2097152
8853.77,-0.0281723,0,327680,2097152
8861.49,-0.030819,0,327680,2097152
8873.08,-0.0347578,0,327680,2097152
8880.81,-0.0373617,0,327680,2097152
8892.4,-0.0412324,0,327680,2097152
8900.12,-0.0437885,0,327680,2097152
8911.71,-0.047584,0,327680,2097152
8923.3,-0.0513307,0,327680,2097152
8931.02,-0.0538001,0,327680,2097152
8942.61,-0.0574596,0,327680,2097152
8950.34,-0.0598684,0,327680,2097152
8961.93,-0.0634332,0,327680,2097152
8973.52,-0.0669376,0,327680,2097152
8981.24,-0.0692389,0,327680,2097152
8992.83,-0.0726363,0,327680,2097152
9000.56,-0.0748637,0,327680,2097152
9012.14,-0.0781464,0,327680,2097152
9023.73,-0.0813565,0,327680,2097152
9031.46,-0.0834549,0,327680,2097152
9043.05,-0.0865379,0,327680,2097152
9050.77,-0.088549,0,327680,2097152
9062.36,-0.091497,0,327680,2097152
9070.09,-0.0934154,0,327680,2097152
9081.68,-0.0962206,0,327680,2097152
9093.27,-0.0989365,0,327680,2097152
9100.99,-0.100696,0,327680,2097152
9112.58,-0.103257,0,327680,2097152
9120.31,-0.104911,0,327680,2097152
9131.89,-0.107309,0,327680,2097152
9143.48,-0.109606,0,327680,2097152
9151.21,-0.11108,0,327680,2097152
9162.8,-0.113203,0,327680,2097152
9170.52,-0.114559,0,327680,2097152
9182.11,-0.116501,0,327680,2097152
9193.7,-0.118331,0,327680,2097152
9201.43,-0.119488,0,327680,2097152
9213.02,-0.121127,0,327680,2097152
9220.74,-0.122154,0,327680,2097152
9232.33,-0.123596,0,327680,2097152
9240.06,-0.12449,0,327680,2097152
9251.64,-0.125729,0,327680,2097152
9263.23,-0.126844,0,327680,2097152
9270.96,-0.127518,0,327680,2097152
9282.55,-0.128423,0,327680,2097152
9290.27,-0.128956,0,327680,2097152
9301.86,-0.129648,0,327680,2097152
9313.45,-0.130211,0,327680,2097152
9321.18,-0.130514,0,327680,2097152
9332.77,-0.13086,0,327680,2097152
9340.49,-0.131017,0,327680,2097152
9352.08,-0.131145,0,327680,2097152
9363.67,-0.131143,0,327680,2097152
9371.39,-0.131068,0,327680,2097152
9382.98,-0.130848,0,327680,2097152
9390.71,-0.13063,0,327680,2097152
9402.3,-0.130195,0,327680,2097152
9410.02,-0.129834,0,327680,2097152
9421.61,-0.129188,0,327680,2097152
9433.2,-0.128418,0,327680,2097152
9440.93,-0.127835,0,327680,2097152
9452.52,-0.126861,0,327680,2097152
9460.24,-0.126146,0,327680,2097152
9471.83,-0.124976,0,327680,2097152
9483.42,-0.123691,0,327680,2097152
9491.14,-0.122773,0,327680,2097152
9502.73,-0.121306,0,327680,2097152
9510.46,-0.120269,0,327680,2097152
9522.05,-0.118629,0,327680,2097152
9533.64,-0.116891,0,327680,2097152
9541.36,-0.115679,0,327680,2097152
9552.95,-0.113785,0,327680,2097152
9560.68,-0.112474,0,327680,2097152
9572.27,-0.110438,0,327680,2097152
9583.85,-0.108323,0,327680,2097152
9591.58,-0.106871,0,327680,2097152
9603.17,-0.104634,0,327680,2097152
9610.9,-0.103106,0,327680,2097152
9622.48,-0.100761,0,327680,2097152
9630.21,-0.0991663,0,327680,2097152
9641.8,-0.096729,0,327680,2097152
9653.39,-0.0942426,0,327680,2097152
9661.11,-0.0925604,0,327680,2097152
9672.7,-0.090004,0,327680,2097152
9680.43,-0.0882798,0,327680,2097152
9692.02,-0.0856677,0,327680,2097152
9703.6,-0.0830288,0,327680,2097152
9711.33,-0.0812573,0,327680,2097152
9722.92,-0.0785852,0,327680,2097152
9730.65,-0.0767961,0,327680,2097152
9742.23,-0.0741042,0,327680,2097152
9753.82,-0.0714068,0,327680,2097152
9761.55,-0.0696077,0,327680,2097152
9773.14,-0.066911,0,327680,2097152
9780.86,-0.0651163,0,327680,2097152
9792.45,-0.0624322,0,327680,2097152
9800.18,-0.0606496,0,327680,2097152
9811.77,-0.057989,0,327680,2097152
9823.36,-0.0553475,0,327680,2097152
9831.08,-0.0535987,0,327680,2097152
9842.67,-0.0509964,0,327680,2097152
9850.4,-0.0492768,0,327680,2097152
9861.98,-0.0467223,0,327680,2097152
9873.57,-0.0442001,0,327680,2097152
9881.3,-0.0425378,0,327680,2097152
9892.89,-0.0400748,0,327680,2097152
9900.61,-0.0384539,0,327680,2097152
9912.2,-0.0360558,0,327680,2097152
9923.79,-0.0336988,0,327680,2097152
9931.52,-0.0321511,0,327680,2097152
9943.11,-0.0298658,0,327680,2097152
9950.83,-0.028367,0,327680,2097152
9962.42,-0.0261563,0,327680,2097152
9970.15,-0.0247079,0,327680,2097152
9981.73,-0.0225737,0,327680,2097152
9993.32,-0.0204858,0,327680,2097152
10001,-0.0191198,0,327680,2097152
10012.6,-0.0171095,0,327680,2097152
10020.4,-0.015795,0,327680,2097152
10032,-0.0138618,0,327680,2097152
10043.5,-0.0119743,0,327680,2097152
10051.3,-0.0107412,0,327680,2097152
10062.9,-0.00892864,0,327680,2097152
10070.6,-0.0077448,0,327680,2097152
10082.2,-0.00600519,0,327680,2097152
10093.8,-0.00430815,0,327680,2097152
10101.5,-0.00319996,0,327680,2097152
10113.1,-0.00157168,0,327680,2097152
10120.8,-0.00050837,0,327680,2097152
10132.4,0.00105409,0,327680,2097152
10140.1,0.00207454,0,327680,2097152
10151.7,0.00357425,0,327680,2097152
10163.3,0.00503781,0,327680,2097152
10171,0.00599398,0,327680,2097152
10182.6,0.00739975,0,327680,2097152
10190.3,0.0083184,0,327680,2097152
10201.9,0.00966937,0,327680,2097152
10213.5,0.0109888,0,327680,2097152
10221.2,0.0118514,0,327680,2097152
10232.8,0.0131204,0,327680,2097152
10240.5,0.0139502,0,327680,2097152
10252.1,0.0151712,0,327680,2097152
10263.7,0.0163645,0,327680,2097152
10271.5,0.0171449,0,327680,2097152
10283,0.0182934,0,327680,2097152
10290.8,0.0190446,0,327680,2097152
10302.4,0.02015,0,327680,2097152
10310.1,0.0208729,0,327680,2097152
10321.7,0.0219364,0,327680,2097152
10333.3,0.0229755,0,327680,2097152
10341,0.0236546,0,327680,2097152
10352.6,0.0246533,0,327680,2097152
10360.3,0.0253058,0,327680,2097152
10371.9,0.0262648,0,327680,2097152
10383.5,0.0272002,0,327680,2097152
10391.2,0.0278107,0,327680,2097152
10402.8,0.0287068,0,327680,2097152
10410.5,0.0292912,0,327680,2097152
10422.1,0.0301483,0,327680,2097152
10433.7,0.030982,0,327680,2097152
10441.4,0.0315247,0,327680,2097152
10453,0.0323193,0,327680,2097152
10460.7,0.032836,0,327680,2097152
10472.3,0.0335914,0,327680,2097152
10480.1,0.034082,0,327680,2097152
10491.6,0.0347982,0,327680,2097152
10503.2,0.0354909,0,327680,2097152
10511,0.0359397,0,327680,2097152
10522.5,0.0365932,0,327680,2097152
10530.3,0.0370158,0,327680,2097152
10541.9,0.0376303,0,327680,2097152
10553.4,0.0382215,0,327680,2097152
10561.2,0.0386027,0,327680,2097152
10572.8,0.0391553,0,327680,2097152
10580.5,0.0395109,0,327680,2097152
10592.1,0.0400253,0,327680,2097152
10603.7,0.0405172,0,327680,2097152
10611.4,0.0408327,0,327680,2097152
10623,0.0412875,0,327680,2097152
10630.7,0.0415786,0,327680,2097152
10642.3,0.0419973,0,327680,2097152
10650,0.0422646,0,327680,2097152
10661.6,0.0426481,0,327680,2097152
10673.2,0.043011,0,327680,2097152
10680.9,0.0432418,0,327680,2097152
10692.5,0.0435715,0,327680,2097152
10700.2,0.0437806,0,327680,2097152
10711.8,0.0440785,0,327680,2097152
10723.4,0.0443579,0,327680,2097152
10731.1,0.0445342,0,327680,2097152
10742.7,0.0447842,0,327680,2097152
10750.5,0.0449414,0,327680,2097152
10762,0.0451635,0,327680,2097152
10773.6,0.0453696,0,327680,2097152
10781.4,0.0454985,0,327680,2097152
10792.9,0.0456795,0,327680,2097152
10800.7,0.0457922,0,327680,2097152
10812.3,0.0459498,0,327680,2097152
10823.9,0.0460942,0,327680,2097152
10831.6,0.0461835,0,327680,2097152
10843.2,0.0463074,0,327680,2097152
10850.9,0.0463836,0,327680,2097152
10862.5,0.0464889,0,327680,2097152
10870.2,0.0465533,0,327680,2097152
10881.8,0.0466418,0,327680,2097152
10893.4,0.0467212,0,327680,2097152
10901.1,0.0467694,0,327680,2097152
10912.7,0.0468352,0,327680,2097152
10920.4,0.046875,0,327680,2097152
10932,0.0469292,0,327680,2097152
10943.6,0.0469773,0,327680,2097152
10951.3,0.0470065,0,327680,2097152
10962.9,0.0470463,0,327680,2097152
10970.6,0.0470706,0,327680,2097152
10982.2,0.0471042,0,327680,2097152
10993.8,0.0471352,0,327680,2097152
11001.5,0.0471548,0,327680,2097152
11013.1,0.047183,0,327680,2097152
11020.9,0.0472016,0,327680,2097152
11032.4,0.0472294,0,327680,2097152
11040.2,0.0472484,0,327680,2097152
11051.8,0.0472782,0,327680,2097152
11063.4,0.0473103,0,327680,2097152
11071.1,0.0473334,0,327680,2097152
11082.7,0.0473711,0,327680,2097152
11090.4,0.0473988,0,327680,2097152
11102,0.0474446,0,327680,2097152
11113.6,0.0474965,0,327680,2097152
11121.3,0.0475348,0,327680,2097152
11132.9,0.0475985,0,327680,2097152
11140.6,0.0476455,0,327680,2097152
11152.2,0.0477233,0,327680,2097152
11163.8,0.0478107,0,327680,2097152
11171.5,0.0478747,0,327680,2097152
11183.1,0.0479798,0,327680,2097152
11190.8,0.0480562,0,327680,2097152
11202.4,0.0481809,0,327680,2097152
11210.1,0.048271,0,327680,2097152
11221.7,0.0484171,0,327680,2097152
11233.3,0.0485768,0,327680,2097152
11241,0.0486911,0,327680,2097152
11252.6,0.0488746,0,327680,2097152
11260.4,0.0490051,0,327680,2097152
11271.9,0.0492136,0,327680,2097152
11283.5,0.0494374,0,327680,2097152
11291.3,0.0495952,0,327680,2097152
11302.9,0.0498451,0,327680,2097152
11310.6,0.0500205,0,327680,2097152
11322.2,0.0502966,0,327680,2097152
11333.8,0.0505886,0,327680,2097152
11341.5,0.0507919,0,327680,2097152
11353.1,0.0511097,0,327680,2097152
11360.8,0.0513301,0,327680,2097152
11372.4,0.0516731,0,327680,2097152
11380.1,0.0519098,0,327680,2097152
11391.7,0.0522768,0,327680,2097152
11403.3,0.0526575,0,327680,2097152
11411,0.0529187,0,327680,2097152
11422.6,0.0533208,0,327680,2097152
11430.3,0.0535954,0,327680,2097152
11441.9,0.0540168,0,327680,2097152
11453.5,0.0544486,0,327680,2097152
11461.2,0.0547418,0,327680,2097152
11472.8,0.0551888,0,327680,2097152
11480.5,0.0554912,0,327680,2097152
11492.1,0.0559506,0,327680,2097152
11503.7,0.0564158,0,327680,2097152
11511.5,0.0567286,0,327680,2097152
11523,0.0572009,0,327680,2097152
11530.8,0.0575172,0,327680,2097152
11542.4,0.0579931,0,327680,2097152
11550.1,0.0583106,0,327680,2097152
11561.7,0.0587863,0,327680,2097152
11573.3,0.05926,0,327680,2097152
11581,0.0595741,0,327680,2097152
11592.6,0.0600414,0,327680,2097152
11600.3,0.0603498,0,327680,2097152
11611.9,0.0608066,0,327680,2097152
11623.5,0.0612551,0,327680,2097152
11631.2,0.0615487,0,327680,2097152
11642.8,0.06198,0,327680,2097152
11650.5,0.0622608,0,327680,2097152
11662.1,0.0626705,0,327680,2097152
11673.7,0.0630653,0,327680,2097152
11681.4,0.0633194,0,327680,2097152
11693,0.0636857,0,327680,2097152
11700.7,0.0639192,0,327680,2097152
11712.3,0.0642526,0,327680,2097152
11720,0.0644627,0,327680,2097152
11731.6,0.0647586,0,327680,2097152
11743.2,0.0650299,0,327680,2097152
11751,0.0651963,0,327680,2097152
11762.5,0.065423,0,327680,2097152
11770.3,0.0655582,0,327680,2097152
11781.9,0.0657357,0,327680,2097152
11793.4,0.0658817,0,327680,2097152
11801.2,0.0659606,0,327680,2097152
11812.8,0.0660503,0,327680,2097152
11820.5,0.0660902,0,327680,2097152
11832.1,0.0661192,0,327680,2097152
11843.7,0.0661097,0,327680,2097152
11851.4,0.0660812,0,327680,2097152
11863,0.0660041,0,327680,2097152
11870.7,0.0659291,0,327680,2097152
11882.3,0.0657803,0,327680,2097152
11890,0.0656563,0,327680,2097152
11901.6,0.0654318,0,327680,2097152
11913.2,0.0651602,0,327680,2097152
11920.9,0.0649523,0,327680,2097152
11932.5,0.0645993,0,327680,2097152
11940.2,0.0643361,0,327680,2097152
11951.8,0.0638985,0,327680,2097152
11963.4,0.0634087,0,327680,2097152
11971.1,0.0630528,0,327680,2097152
11982.7,0.0624742,0,327680,2097152
11990.5,0.0620583,0,327680,2097152
12002,0.0613886,0,327680,2097152
12013.6,0.0606636,0,327680,2097152
12021.4,0.0601493,0,327680,2097152
12032.9,0.0593311,0,327680,2097152
12040.7,0.0587544,0,327680,2097152
12052.3,0.0578424,0,327680,2097152
12063.8,0.0568741,0,327680,2097152
12071.6,0.0561973,0,327680,2097152
12083.2,0.0551356,0,327680,2097152
12090.9,0.0543969,0,327680,2097152
12102.5,0.0532429,0,327680,2097152
12110.2,0.0524432,0,327680,2097152
12121.8,0.0511988,0,327680,2097152
12133.4,0.0499014,0,327680,2097152
12141.1,0.0490075,0,327680,2097152
12152.7,0.0476242,0,327680,2097152
12160.4,0.0466742,0,327680,2097152
12172,0.0452087,0,327680,2097152
12183.6,0.0436961,0,327680,2097152
12191.3,0.0426623,0,327680,2097152
12202.9,0.0410749,0,327680,2097152
12210.6,0.0399931,0,327680,2097152
12222.2,0.0383366,0,327680,2097152
12233.8,0.0366414,0,327680,2097152
12241.5,0.0354909,0,327680,2097152
12253.1,0.0337365,0,327680,2097152
12260.9,0.0325488,0,327680,2097152
12272.4,0.0307421,0,327680,2097152
12280.2,0.0295219,0,327680,2097152
12291.8,0.0276701,0,327680,2097152
12303.4,0.0257948,0,327680,2097152
12311.1,0.0245331,0,327680,2097152
12322.7,0.0226251,0,327680,2097152
12330.4,0.0213441,0,327680,2097152
12342,0.0194112,0,327680,2097152
12353.6,0.0174673,0,327680,2097152
12361.3,0.0161666,0,327680,2097152
12372.9,0.0142107,0,327680,2097152
12380.6,0.0129046,0,327680,2097152
12392.2,0.0109446,0,327680,2097152
12403.8,0.00898578,0,327680,2097152
12411.5,0.00768198,0,327680,2097152
12423.1,0.00573136,0,327680,2097152
12430.8,0.00443548,0,327680,2097152
12442.4,0.00250034,0,327680,2097152
12450.1,0.00121712,0,327680,2097152
12461.7,-0.000695653,0,327680,2097152
12473.3,-0.00259189,0,327680,2097152
12481,-0.00384577,0,327680,2097152
12492.6,-0.00570964,0,327680,2097152
12500.4,-0.00694006,0,327680,2097152
12511.9,-0.00876605,0,327680,2097152
12523.5,-0.0105669,0,327680,2097152
12531.3,-0.0117528,0,327680,2097152
12542.9,-0.0135084,0,327680,2097152
12550.6,-0.0146627,0,327680,2097152
12562.2,-0.0163692,0,327680,2097152
12573.8,-0.0180447,0,327680,2097152
12581.5,-0.0191441,0,327680,2097152
12593.1,-0.0207661,0,327680,2097152
12600.8,-0.0218291,0,327680,2097152
12612.4,-0.0233958,0,327680,2097152
12620.1,-0.0244215,0,327680,2097152
12631.7,-0.0259318,0,327680,2097152
12643.3,-0.027408,0,327680,2097152
12651,-0.0283732,0,327680,2097152
12662.6,-0.0297929,0,327680,2097152
12670.3,-0.0307206,0,327680,2097152
12681.9,-0.0320844,0,327680,2097152
12693.5,-0.0334153,0,327680,2097152
12701.2,-0.0342847,0,327680,2097152
12712.8,-0.0355624,0,327680,2097152
12720.5,-0.0363969,0,327680,2097152
12732.1,-0.0376236,0,327680,2097152
12743.7,-0.038821,0,327680,2097152
12751.5,-0.0396036,0,327680,2097152
12763,-0.0407546,0,327680,2097152
12770.8,-0.0415073,0,327680,2097152
12782.4,-0.0426153,0,327680,2097152
12790.1,-0.0433405,0,327680,2097152
12801.7,-0.0444091,0,327680,2097152
12813.3,-0.0454558,0,327680,2097152
12821,-0.0461421,0,327680,2097152
12832.6,-0.0471553,0,327680,2097152
12840.3,-0.0478205,0,327680,2097152
12851.9,-0.048804,0,327680,2097152
12863.5,-0.0497715,0,327680,2097152
12871.2,-0.0504082,0,327680,2097152
12882.8,-0.0513519,0,327680,2097152
12890.5,-0.0519738,0,327680,2097152
12902.1,-0.0528969,0,327680,2097152
12913.7,-0.0538092,0,327680,2097152
12921.4,-0.0544119,0,327680,2097152
12933,-0.0553085,0,327680,2097152
12940.7,-0.0559015,0,327680,2097152
12952.3,-0.0567847,0,327680,2097152
12960,-0.0573696,0,327680,2097152
12971.6,-0.0582415,0,327680,2097152
12983.2,-0.0591074,0,327680,2097152
12991,-0.0596816,0,327680,2097152
13002.5,-0.0605384,0,327680,2097152
13010.3,-0.0611067,0,327680,2097152
13021.9,-0.0619551,0,327680,2097152
13033.4,-0.0627985,0,327680,2097152
13041.2,-0.0633581,0,327680,2097152
13052.8,-0.0641931,0,327680,2097152
13060.5,-0.0647469,0,327680,2097152
13072.1,-0.0655729,0,327680,2097152
13083.7,-0.0663929,0,327680,2097152
13091.4,-0.066936,0,327680,2097152
13103,-0.0677449,0,327680,2097152
13110.7,-0.06828,0,327680,2097152
13122.3,-0.0690757,0,327680,2097152
13130,-0.0696013,0,327680,2097152
13141.6,-0.0703817,0,327680,2097152
13153.2,-0.0711515,0,327680,2097152
13160.9,-0.0716583,0,327680,2097152
13172.5,-0.0724082,0,327680,2097152
13180.2,-0.0729007,0,327680,2097152
13191.8,-0.0736274,0,327680,2097152
13203.4,-0.0743387,0,327680,2097152
13211.1,-0.0748035,0,327680,2097152
13222.7,-0.0754859,0,327680,2097152
13230.5,-0.0759304,0,327680,2097152
13242,-0.0765802,0,327680,2097152
13253.6,-0.0772087,0,327680,2097152
13261.4,-0.0776151,0,327680,2097152
13272.9,-0.0782048,0,327680,2097152
13280.7,-0.078584,0,327680,2097152
13292.3,-0.079131,0,327680,2097152
13303.8,-0.0796504,0,327680,2097152
13311.6,-0.0799806,0,327680,2097152
13323.2,-0.0804511,0,327680,2097152
13330.9,-0.0807474,0,327680,2097152
13342.5,-0.081165,0,327680,2097152
13350.2,-0.0814249,0,327680,2097152
13361.8,-0.0817861,0,327680,2097152
13373.4,-0.0821118,0,327680,2097152
13381.1,-0.0823086,0,327680,2097152
13392.7,-0.0825724,0,327680,2097152
13400.4,-0.082727,0,327680,2097152
13412,-0.082926,0,327680,2097152
13423.6,-0.0830849,0,327680,2097152
13431.3,-0.0831681,0,327680,2097152
13442.9,-0.083258,0,327680,2097152
13450.6,-0.0832945,0,327680,2097152
13462.2,-0.0833136,0,327680,2097152
13473.8,-0.0832892,0,327680,2097152
13481.5,-0.0832487,0,327680,2097152
13493.1,-0.083151,0,327680,2097152
13500.9,-0.0830613,0,327680,2097152
13512.4,-0.0828895,0,327680,2097152
13520.2,-0.0827502,0,327680,2097152
13531.8,-0.0825039,0,327680,2097152
13543.4,-0.0822131,0,327680,2097152
13551.1,-0.0819946,0,327680,2097152
13562.7,-0.0816299,0,327680,2097152
13570.4,-0.0813624,0,327680,2097152
13582,-0.080925,0,327680,2097152
13593.6,-0.0804447,0,327680,2097152
13601.3,-0.0801011,0,327680,2097152
13612.9,-0.0795509,0,327680,2097152
13620.6,-0.0791614,0,327680,2097152
13632.2,-0.0785438,0,327680,2097152
13643.8,-0.0778872,0,327680,2097152
13651.5,-0.0774282,0,327680,2097152
13663.1,-0.076709,0,327680,2097152
13670.8,-0.0762096,0,327680,2097152
13682.4,-0.0754315,0,327680,2097152
13690.1,-0.074894,0,327680,2097152
13701.7,-0.0740609,0,327680,2097152
13713.3,-0.0731967,0,327680,2097152
13721,-0.0726042,0,327680,2097152
13732.6,-0.0716918,0,327680,2097152
13740.4,-0.0710686,0,327680,2097152
13751.9,-0.0701126,0,327680,2097152
13763.5,-0.0691326,0,327680,2097152
13771.3,-0.0684668,0,327680,2097152
13782.9,-0.0674504,0,327680,2097152
13790.6,-0.0667619,0,327680,2097152
13802.2,-0.0657138,0,327680,2097152
13813.8,-0.0646489,0,327680,2097152
13821.5,-0.0639303,0,327680,2097152
13833.1,-0.0628408,0,327680,2097152
13840.8,-0.0621072,0,327680,2097152
13852.4,-0.0609973,0,327680,2097152
13860.1,-0.0602515,0,327680,2097152
13871.7,-0.0591251,0,327680,2097152
13883.3,-0.0579907,0,327680,2097152
13891,-0.0572306,0,327680,2097152
13902.6,-0.0560855,0,327680,2097152
13910.3,-0.0553194,0,327680,2097152
13921.9,-0.0541669,0,327680,2097152
13933.5,-0.0530114,0,327680,2097152
13941.2,-0.0522398,0,327680,2097152
13952.8,-0.0510813,0,327680,2097152
13960.5,-0.0503085,0,327680,2097152
13972.1,-0.0491494,0,327680,2097152
13983.7,-0.0479909,0,327680,2097152
13991.4,-0.0472193,0,327680,2097152
14003,-0.0460634,0,327680,2097152
14010.8,-0.0452941,0,327680,2097152
14022.4,-0.0441424,0,327680,2097152
14030.1,-0.0433764,0,327680,2097152
14041.7,-0.0422304,0,327680,2097152
14053.3,-0.0410884,0,327680,2097152
14061,-0.0403295,0,327680,2097152
14072.6,-0.0391951,0,327680,2097152
14080.3,-0.0384416,0,327680,2097152
14091.9,-0.037316,0,327680,2097152
14103.5,-0.036196,0,327680,2097152
14111.2,-0.0354527,0,327680,2097152
14122.8,-0.0343431,0,327680,2097152
14130.5,-0.0336071,0,327680,2097152
14142.1,-0.0325088,0,327680,2097152
14153.7,-0.031418,0,327680,2097152
14161.4,-0.030695,0,327680,2097152
14173,-0.0296173,0,327680,2097152
14180.7,-0.0289036,0,327680,2097152
14192.3,-0.0278403,0,327680,2097152
14200,-0.0271366,0,327680,2097152
14211.6,-0.0260892,0,327680,2097152
14223.2,-0.0250519,0,327680,2097152
14231,-0.0243664,0,327680,2097152
14242.5,-0.0233474,0,327680,2097152
14250.3,-0.0226745,0,327680,2097152
14261.9,-0.0216755,0,327680,2097152
14273.4,-0.0206893,0,327680,2097152
14281.2,-0.0200393,0,327680,2097152
14292.8,-0.0190761,0,327680,2097152
14300.5,-0.018442,0,327680,2097152
14312.1,-0.0175037,0,327680,2097152
14323.7,-0.0165812,0,327680,2097152
14331.4,-0.0159755,0,327680,2097152
14343,-0.0150812,0,327680,2097152
14350.7,-0.0144949,0,327680,2097152
14362.3,-0.0136308,0,327680,2097152
14370,-0.0130654,0,327680,2097152
14381.6,-0.0122335,0,327680,2097152
14393.2,-0.0114219,0,327680,2097152
14400.9,-0.0108925,0,327680,2097152
14412.5,-0.0101161,0,327680,2097152
14420.2,-0.00961074,0,327680,2097152
14431.8,-0.00887138,0,327680,2097152
14443.4,-0.00815495,0,327680,2097152
14451.1,-0.00769033,0,327680,2097152
14462.7,-0.00701324,0,327680,2097152
14470.5,-0.00657526,0,327680,2097152
14482,-0.0059387,0,327680,2097152
14493.6,-0.00532692,0,327680,2097152
14501.4,-0.00493298,0,327680,2097152
14512.9,-0.00436308,0,327680,2097152
14520.7,-0.00399724,0,327680,2097152
14532.3,-0.0034697,0,327680,2097152
14543.8,-0.00296767,0,327680,2097152
14551.6,-0.00264716,0,327680,2097152
14563.2,-0.00218761,0,327680,2097152
14570.9,-0.00189534,0,327680,2097152
14582.5,-0.00147793,0,327680,2097152
14590.2,-0.00121356,0,327680,2097152
14601.8,-0.000837635,0,327680,2097152
14613.4,-0.000486161,0,327680,2097152
14621.1,-0.000265224,0,327680,2097152
14632.7,4.6459e-05,0,327680,2097152
14640.4,0.000241327,0,327680,2097152
14652,0.000514675,0,327680,2097152
14663.6,0.00076584,0,327680,2097152
14671.3,0.000921299,0,327680,2097152
14682.9,0.00113706,0,327680,2097152
14690.6,0.00126961,0,327680,2097152
14702.2,0.00145214,0,327680,2097152
14713.8,0.00161587,0,327680,2097152
14721.5,0.00171505,0,327680,2097152
14733.1,0.00184955,0,327680,2097152
14740.9,0.00193015,0,327680,2097152
14752.4,0.00203821,0,327680,2097152
14760.2,0.00210215,0,327680,2097152
14771.8,0.00218674,0,327680,2097152
14783.3,0.00225876,0,327680,2097152
14791.1,0.00230036,0,327680,2097152
14802.7,0.00235404,0,327680,2097152
14810.4,0.00238453,0,327680,2097152
14822,0.00242324,0,327680,2097152
14833.6,0.00245465,0,327680,2097152
14841.3,0.00247215,0,327680,2097152
14852.9,0.00249419,0,327680,2097152
14860.6,0.00250665,0,327680,2097152
14872.2,0.00252292,0,327680,2097152
14883.8,0.00253746,0,327680,2097152
14891.5,0.00254682,0,327680,2097152
14903.1,0.00256132,0,327680,2097152
14910.8,0.00257185,0,327680,2097152
14922.4,0.00258985,0,327680,2097152
14930.1,0.00260387,0,327680,2097152
14941.7,0.00262882,0,327680,2097152
14953.3,0.00265953,0,327680,2097152
14961,0.00268378,0,327680,2097152
14972.6,0.00272663,0,327680,2097152
14980.4,0.00275998,0,327680,2097152
14991.9,0.00281795,0,327680,2097152
15003.5,0.0028863,0,327680,2097152
15011.3,0.00293809,0,327680,2097152
15022.8,0.00302574,0,327680,2097152
15030.6,0.00309115,0,327680,2097152
15042.2,0.00320027,0,327680,2097152
15053.8,0.00332315,0,327680,2097152
15061.5,0.00341299,0,327680,2097152
15073.1,0.00355998,0,327680,2097152
15080.8,0.0036663,0,327680,2097152
15092.4,0.00383847,0,327680,2097152
15100.1,0.00396181,0,327680,2097152
15111.7,0.00415974,0,327680,2097152
15123.3,0.00437318,0,327680,2097152
15131,0.00452405,0,327680,2097152
15142.6,0.00476309,0,327680,2097152
15150.3,0.0049308,0,327680,2097152
15161.9,0.00519462,0,327680,2097152
15173.5,0.00547271,0,327680,2097152
15181.2,0.00566573,0,327680,2097152
15192.8,0.00596619,0,327680,2097152
15200.5,0.00617345,0,327680,2097152
15212.1,0.0064941,0,327680,2097152
15223.7,0.00682561,0,327680,2097152
15231.4,0.00705212,0,327680,2097152
15243,0.00739929,0,327680,2097152
15250.8,0.00763514,0,327680,2097152
15262.4,0.00799458,0,327680,2097152
15270.1,0.00823739,0,327680,2097152
15281.7,0.00860531,0,327680,2097152
15293.3,0.00897637,0,327680,2097152
15301,0.00922474,0,327680,2097152
15312.6,0.00959762,0,327680,2097152
15320.3,0.00984573,0,327680,2097152
15331.9,0.010216,0,327680,2097152
15343.5,0.0105824,0,327680,2097152
15351.2,0.0108238,0,327680,2097152
15362.8,0.0111803,0,327680,2097152
15370.5,0.0114135,0,327680,2097152
15382.1,0.0117554,0,327680,2097152
15393.7,0.0120864,0,327680,2097152
15401.4,0.0123003,0,327680,2097152
15413,0.0126096,0,327680,2097152
15420.7,0.0128076,0,327680,2097152
15432.3,0.0130911,0,327680,2097152
15440,0.0132706,0,327680,2097152
15451.6,0.0135245,0,327680,2097152
15463.2,0.0137589,0,327680,2097152
15470.9,0.0139038,0,327680,2097152
15482.5,0.0141033,0,327680,2097152
15490.3,0.014224,0,327680,2097152
15501.9,0.0143858,0,327680,2097152
15513.4,0.014524,0,327680,2097152
15521.2,0.0146027,0,327680,2097152
15532.8,0.0147001,0,327680,2097152
15540.5,0.0147511,0,327680,2097152
15552.1,0.0148065,0,327680,2097152
15563.7,0.0148364,0,327680,2097152
15571.4,0.0148421,0,327680,2097152
15583,0.0148293,0,327680,2097152
15590.7,0.0148066,0,327680,2097152
15602.3,0.0147516,0,327680,2097152
15610,0.0147011,0,327680,2097152
15621.6,0.0146049,0,327680,2097152
15633.2,0.0144847,0,327680,2097152
15640.9,0.0143916,0,327680,2097152
15652.5,0.014233,0,327680,2097152
15660.2,0.0141152,0,327680,2097152
15671.8,0.0139208,0,327680,2097152
15683.4,0.0137064,0,327680,2097152
15691.1,0.0135528,0,327680,2097152
15702.7,0.0133075,0,327680,2097152
15710.4,0.0131346,0,327680,2097152
15722,0.0128621,0,327680,2097152
15733.6,0.0125752,0,327680,2097152
15741.4,0.0123767,0,327680,2097152
15752.9,0.0120692,0,327680,2097152
15760.7,0.0118583,0,327680,2097152
15772.3,0.0115344,0,327680,2097152
15783.8,0.0112029,0,327680,2097152
15791.6,0.0109785,0,327680,2097152
15803.2,0.0106379,0,327680,2097152
15810.9,0.010409,0,327680,2097152
15822.5,0.010064,0,327680,2097152
15830.2,0.00983357,0,327680,2097152
15841.8,0.00948862,0,327680,2097152
15853.4,0.00914586,0,327680,2097152
15861.1,0.00891934,0,327680,2097152
15872.7,0.00858368,0,327680,2097152
15880.4,0.00836329,0,327680,2097152
15892,0.00803886,0,327680,2097152
15903.6,0.00772306,0,327680,2097152
15911.3,0.00751797,0,327680,2097152
15922.9,0.00721946,0,327680,2097152
15930.6,0.00702705,0,327680,2097152
15942.2,0.00674919,0,327680,2097152
15953.8,0.00648519,0,327680,2097152
15961.5,0.00631739,0,327680,2097152
15973.1,0.00607865,0,327680,2097152
15980.9,0.0059285,0,327680,2097152
15992.4,0.00571737,0,327680,2097152
16000.2,0.00558631,0,327680,2097152
16011.8,0.0054047,0,327680,2097152
16023.3,0.00524154,0,327680,2097152
16031.1,0.00514322,0,327680,2097152
16042.7,0.00501171,0,327680,2097152
16050.4,0.00493479,0,327680,2097152
16062,0.00483568,0,327680,2097152
16073.6,0.00475617,0,327680,2097152
16081.3,0.00471406,0,327680,2097152
16092.9,0.0046672,0,327680,2097152
16100.6,0.00464675,0,327680,2097152
16112.2,0.0046321,0,327680,2097152
16123.8,0.00463641,0,327680,2097152
16131.5,0.00464961,0,327680,2097152
16143.1,0.00468457,0,327680,2097152
16150.8,0.00471773,0,327680,2097152
16162.4,0.00478183,0,327680,2097152
16170.1,0.00483382,0,327680,2097152
16181.7,0.00492514,0,327680,2097152
16193.3,0.00503174,0,327680,2097152
16201,0.00511086,0,327680,2097152
16212.6,0.00524089,0,327680,2097152
16220.4,0.00533472,0,327680,2097152
16231.9,0.00548538,0,327680,2097152
16243.5,0.00564693,0,327680,2097152
16251.3,0.00576011,0,327680,2097152
16262.8,0.00593718,0,327680,2097152
16270.6,0.00605954,0,327680,2097152
16282.2,0.00624858,0,327680,2097152
16293.7,0.00644303,0,327680,2097152
16301.5,0.00657497,0,327680,2097152
16313.1,0.0067753,0,327680,2097152
16320.8,0.00690983,0,327680,2097152
16332.4,0.00711202,0,327680,2097152
16340.1,0.00724643,0,327680,2097152
16351.7,0.00744635,0,327680,2097152
16363.3,0.0076429,0,327680,2097152
16371,0.0077713,0,327680,2097152
16382.6,0.00795883,0,327680,2097152
16390.3,0.00807983,0,327680,2097152
16401.9,0.00825415,0,327680,2097152
16413.5,0.00841856,0,327680,2097152
16421.2,0.00852193,0,327680,2097152
16432.8,0.00866657,0,327680,2097152
16440.5,0.00875544,0,327680,2097152
16452.1,0.0088764,0,327680,2097152
16463.7,0.00898135,0,327680,2097152
16471.4,0.0090418,0,327680,2097152
16483,0.00911727,0,327680,2097152
16490.8,0.00915695,0,327680,2097152
16502.3,0.00919969,0,327680,2097152
16510.1,0.00921655,0,327680,2097152
16521.7,0.00922365,0,327680,2097152
16533.2,0.00920813,0,327680,2097152
16541,0.00918482,0,327680,2097152
16552.6,0.00912985,0,327680,2097152
16560.3,0.00907958,0,327680,2097152
16571.9,0.00898333,0,327680,2097152
16583.5,0.00886165,0,327680,2097152
16591.2,0.00876621,0,327680,2097152
16602.8,0.00860136,0,327680,2097152
16610.5,0.00847692,0,327680,2097152
16622.1,0.00826837,0,327680,2097152
16633.7,0.00803356,0,327680,2097152
16641.4,0.00786249,0,327680,2097152
16653,0.00758423,0,327680,2097152
16660.7,0.00738441,0,327680,2097152
16672.3,0.0070635,0,327680,2097152
16680,0.00683565,0,327680,2097152
16691.6,0.00647344,0,327680,2097152
16703.2,0.0060873,0,327680,2097152
16710.9,0.00581694,0,327680,2097152
16722.5,0.00539265,0,327680,2097152
16730.3,0.00509768,0,327680,2097152
16741.8,0.00463782,0,327680,2097152
16753.4,0.00415805,0,327680,2097152
16761.2,0.00382771,0,327680,2097152
16772.7,0.00331742,0,327680,2097152
16780.5,0.00296792,0,327680,2097152
16792.1,0.00243076,0,327680,2097152
16803.7,0.00187941,0,327680,2097152
16811.4,0.00150469,0,327680,2097152
16823,0.000933091,0,327680,2097152
16830.7,0.000546371,0,327680,2097152
16842.3,-4.09322e-05,0,327680,2097152
16850,-0.000436533,0,327680,2097152
16861.6,-0.00103471,0,327680,2097152
16873.2,-0.00163699,0,327680,2097152
16880.9,-0.00203987,0,327680,2097152
16892.5,-0.00264481,0,327680,2097152
16900.2,-0.00304767,0,327680,2097152
16911.8,-0.00364988,0,327680,2097152
16923.4,-0.00424778,0,327680,2097152
16931.1,-0.004643,0,327680,2097152
16942.7,-0.00522925,0,327680,2097152
16950.4,-0.00561479,0,327680,2097152
16962,-0.00618365,0,327680,2097152
16973.6,-0.00673931,0,327680,2097152
16981.3,-0.00710138,0,327680,2097152
16992.9,-0.00763041,0,327680,2097152
17000.7,-0.0079728,0,327680,2097152
17012.3,-0.00846942,0,327680,2097152
17023.8,-0.00894383,0,327680,2097152
17031.6,-0.00924675,0,327680,2097152
17043.2,-0.00967961,0,327680,2097152
17050.9,-0.00995298,0,327680,2097152
17062.5,-0.0103387,0,327680,2097152
17070.2,-0.0105789,0,327680,2097152
17081.8,-0.0109121,0,327680,2097152
17093.4,-0.0112113,0,327680,2097152
17101.1,-0.011391,0,327680,2097152
17112.7,-0.0116296,0,327680,2097152
17120.4,-0.0117672,0,327680,2097152
17132,-0.0119402,0,327680,2097152
17143.6,-0.0120718,0,327680,2097152
17151.3,-0.0121357,0,327680,2097152
17162.9,-0.0121949,0,327680,2097152
17170.6,-0.0122092,0,327680,2097152
17182.2,-0.012192,0,327680,2097152
17193.8,-0.0121274,0,327680,2097152
17201.5,-0.0120573,0,327680,2097152
17213.1,-0.011911,0,327680,2097152
17220.8,-0.0117856,0,327680,2097152
17232.4,-0.0115549,0,327680,2097152
17240.2,-0.0113724,0,327680,2097152
17251.8,-0.0110551,0,327680,2097152
17263.3,-0.010685,0,327680,2097152
17271.1,-0.0104086,0,327680,2097152
17282.7,-0.00994917,0,327680,2097152
17290.4,-0.00961293,0,327680,2097152
17302,-0.0090634,0,327680,2097152
17313.6,-0.00845954,0,327680,2097152
17321.3,-0.00802676,0,327680,2097152
17332.9,-0.00733233,0,327680,2097152
17340.6,-0.00683926,0,327680,2097152
17352.2,-0.00605467,0,327680,2097152
17363.8,-0.00521639,0,327680,2097152
17371.5,-0.00462791,0,327680,2097152
17383.1,-0.00370117,0,327680,2097152
17390.8,-0.00305426,0,327680,2097152
17402.4,-0.00204077,0,327680,2097152
17410.1,-0.00133671,0,327680,2097152
17421.7,-0.000238663,0,327680,2097152
17433.3,0.000908892,0,327680,2097152
17441,0.00170092,0,327680,2097152
17452.6,0.00292862,0,327680,2097152
17460.3,0.00377301,0,327680,2097152
17471.9,0.00507756,0,327680,2097152
17483.5,0.00642645,0,327680,2097152
17491.3,0.00734966,0,327680,2097152
17502.8,0.0087693,0,327680,2097152
17510.6,0.00973829,0,327680,2097152
17522.2,0.0112244,0,327680,2097152
17533.7,0.0127483,0,327680,2097152
17541.5,0.0137843,0,327680,2097152
17553.1,0.0153672,0,327680,2097152
17560.8,0.0164409,0,327680,2097152
17572.4,0.0180778,0,327680,2097152
17580.1,0.0191858,0,327680,2097152
17591.7,0.0208715,0,327680,2097152
17603.3,0.0225839,0,327680,2097152
17611,0.0237393,0,327680,2097152
17622.6,0.0254916,0,327680,2097152
17630.3,0.0266718,0,327680,2097152
17641.9,0.0284584,0,327680,2097152
17653.5,0.0302628,0,327680,2097152
17661.2,0.0314746,0,327680,2097152
17672.8,0.0333039,0,327680,2097152
17680.5,0.0345304,0,327680,2097152
17692.1,0.0363787,0,327680,2097152
17703.7,0.0382355,0,327680,2097152
17711.4,0.0394771,0,327680,2097152
17723,0.0413433,0,327680,2097152
17730.8,0.042589,0,327680,2097152
17742.3,0.0444585,0,327680,2097152
17750.1,0.0457045,0,327680,2097152
17761.7,0.0475713,0,327680,2097152
17773.2,0.0494336,0,327680,2097152
17781,0.0506715,0,327680,2097152
17792.6,0.0525215,0,327680,2097152
17800.3,0.0537492,0,327680,2097152
17811.9,0.055581,0,327680,2097152
17823.5,0.0573989,0,327680,2097152
17831.2,0.0586022,0,327680,2097152
17842.8,0.0603925,0,327680,2097152
17850.5,0.0615754,0,327680,2097152
17862.1,0.0633322,0,327680,2097152
17873.7,0.0650663,0,327680,2097152
17881.4,0.0662087,0,327680,2097152
17893,0.0679003,0,327680,2097152
17900.7,0.0690125,0,327680,2097152
17912.3,0.070656,0,327680,2097152
17920,0.0717343,0,327680,2097152
17931.6,0.0733244,0,327680,2097152
17943.2,0.0748797,0,327680,2097152
17950.9,0.0758964,0,327680,2097152
17962.5,0.0773897,0,327680,2097152
17970.3,0.0783633,0,327680,2097152
17981.8,0.0797895,0,327680,2097152
17993.4,0.0811729,0,327680,2097152
18001.2,0.0820706,0,327680,2097152
18012.7,0.0833789,0,327680,2097152
18020.5,0.0842249,0,327680,2097152
18032.1,0.0854532,0,327680,2097152
18043.7,0.0866314,0,327680,2097152
18051.4,0.0873881,0,327680,2097152
18063,0.0884791,0,327680,2097152
18070.7,0.0891762,0,327680,2097152
18082.3,0.0901756,0,327680,2097152
18090,0.0908104,0,327680,2097152
18101.6,0.0917141,0,327680,2097152
18113.2,0.0925586,0,327680,2097152
18120.9,0.0930881,0,327680,2097152
18132.5,0.0938309,0,327680,2097152
18140.2,0.0942914,0,327680,2097152
18151.8,0.0949291,0,327680,2097152
18163.4,0.0955023,0,327680,2097152
18171.1,0.095848,0,327680,2097152
18182.7,0.0963112,0,327680,2097152
18190.4,0.0965828,0,327680,2097152
18202,0.0969336,0,327680,2097152
18213.6,0.0972159,0,327680,2097152
18221.3,0.0973657,0,327680,2097152
18232.9,0.0975323,0,327680,2097152
18240.7,0.0976044,0,327680,2097152
18252.2,0.0976538,0,327680,2097152
18263.8,0.0976325,0,327680,2097152
18271.6,0.0975788,0,327680,2097152
18283.2,0.0974391,0,327680,2097152
18290.9,0.0973064,0,327680,2097152
18302.5,0.0970481,0,327680,2097152
18310.2,0.0968364,0,327680,2097152
18321.8,0.09646,0,327680,2097152
18333.4,0.0960132,0,327680,2097152
18341.1,0.0956765,0,327680,2097152
18352.7,0.0951136,0,327680,2097152
18360.4,0.0947001,0,327680,2097152
18372,0.0940232,0,327680,2097152
18383.6,0.0932791,0,327680,2097152
18391.3,0.0927463,0,327680,2097152
18402.9,0.0918928,0,327680,2097152
18410.6,0.0912882,0,327680,2097152
18422.2,0.0903289,0,327680,2097152
18433.8,0.0893083,0,327680,2097152
18441.5,0.0885946,0,327680,2097152
18453.1,0.0874754,0,327680,2097152
18460.8,0.0866976,0,327680,2097152
18472.4,0.0854851,0,327680,2097152
18480.2,0.084647,0,327680,2097152
18491.7,0.0833468,0,327680,2097152
18503.3,0.0819969,0,327680,2097152
18511.1,0.0810705,0,327680,2097152
18522.6,0.0796429,0,327680,2097152
18530.4,0.0786669,0,327680,2097152
18542,0.0771682,0,327680,2097152
18553.6,0.07563,0,327680,2097152
18561.3,0.0745839,0,327680,2097152
18572.9,0.0729856,0,327680,2097152
18580.6,0.0719016,0,327680,2097152
18592.2,0.0702499,0,327680,2097152
18603.8,0.0685695,0,327680,2097152
18611.5,0.0674345,0,327680,2097152
18623.1,0.0657115,0,327680,2097152
18630.8,0.0645503,0,327680,2097152
18642.4,0.0627912,0,327680,2097152
18650.1,0.061608,0,327680,2097152
18661.7,0.059819,0,327680,2097152
18673.3,0.0580148,0,327680,2097152
18681,0.0568045,0,327680,2097152
18692.6,0.0549794,0,327680,2097152
18700.3,0.0537569,0,327680,2097152
18711.9,0.0519157,0,327680,2097152
18723.5,0.0500673,0,327680,2097152
18731.2,0.0488317,0,327680,2097152
18742.8,0.0469743,0,327680,2097152
18750.6,0.0457341,0,327680,2097152
18762.1,0.0438717,0,327680,2097152
18773.7,0.0420079,0,327680,2097152
18781.5,0.0407652,0,327680,2097152
18793.1,0.0389016,0,327680,2097152
18800.8,0.0376599,0,327680,2097152
18812.4,0.0357994,0,327680,2097152
18820.1,0.0345608,0,327680,2097152
18831.7,0.032706,0,327680,2097152
18843.3,0.0308559,0,327680,2097152
18851,0.0296256,0,327680,2097152
18862.6,0.0277853,0,327680,2097152
18870.3,0.0265624,0,327680,2097152
18881.9,0.0247346,0,327680,2097152
18893.5,0.0229155,0,327680,2097152
18901.2,0.0217082,0,327680,2097152
18912.8,0.019906,0,327680,2097152
18920.5,0.018711,0,327680,2097152
18932.1,0.016929,0,327680,2097152
18943.7,0.0151606,0,327680,2097152
18951.4,0.01399,0,327680,2097152
18963,0.0122476,0,327680,2097152
18970.7,0.0110956,0,327680,2097152
18982.3,0.00938327,0,327680,2097152
18990.1,0.0082528,0,327680,2097152
19001.6,0.00657503,0,327680,2097152
19013.2,0.00492036,0,327680,2097152
19021,0.00383099,0,327680,2097152
19032.6,0.00221894,0,327680,2097152
19040.3,0.00115975,0,327680,2097152
19051.9,-0.000404285,0,327680,2097152
19063.5,-0.00193685,0,327680,2097152
19071.2,-0.00294007,0,327680,2097152
19082.8,-0.00441566,0,327680,2097152
19090.5,-0.00537902,0,327680,2097152
19102.1,-0.00679199,0,327680,2097152
19113.7,-0.00816473,0,327680,2097152
19121.4,-0.00905657,0,327680,2097152
19133,-0.0103579,0,327680,2097152
19140.7,-0.0112005,0,327680,2097152
19152.3,-0.0124254,0,327680,2097152
19160,-0.0132154,0,327680,2097152
19171.6,-0.0143592,0,327680,2097152
19183.2,-0.0154524,0,327680,2097152
19190.9,-0.0161524,0,327680,2097152
19202.5,-0.0171582,0,327680,2097152
19210.2,-0.0177989,0,327680,2097152
19221.8,-0.0187144,0,327680,2097152
19233.4,-0.0195745,0,327680,2097152
19241.1,-0.0201168,0,327680,2097152
19252.7,-0.0208832,0,327680,2097152
19260.5,-0.0213627,0,327680,2097152
19272.1,-0.0220345,0,327680,2097152
19283.6,-0.0226495,0,327680,2097152
19291.4,-0.0230279,0,327680,2097152
19303,-0.0235484,0,327680,2097152
19310.7,-0.0238642,0,327680,2097152
19322.3,-0.0242913,0,327680,2097152
19333.9,-0.0246634,0,327680,2097152
19341.6,-0.0248812,0,327680,2097152
19353.2,-0.0251634,0,327680,2097152
19360.9,-0.0253222,0,327680,2097152
19372.5,-0.0255174,0,327680,2097152
19380.2,-0.0256194,0,327680,2097152
19391.8,-0.0257314,0,327680,2097152
19403.4,-0.0257953,0,327680,2097152
19411.1,-0.025812,0,327680,2097152
19422.7,-0.0257995,0,327680,2097152
19430.4,-0.0257668,0,327680,2097152
19442,-0.0256826,0,327680,2097152
19453.6,-0.025558,0,327680,2097152
19461.3,-0.0254533,0,327680,2097152
19472.9,-0.0252655,0,327680,2097152
19480.6,-0.0251206,0,327680,2097152
19492.2,-0.0248751,0,327680,2097152
19503.8,-0.0245978,0,327680,2097152
19511.6,-0.0243963,0,327680,2097152
19523.1,-0.0240706,0,327680,2097152
19530.9,-0.0238388,0,327680,2097152
19542.5,-0.0234706,0,327680,2097152
19550.2,-0.0232125,0,327680,2097152
19561.8,-0.0228077,0,327680,2097152
19573.4,-0.0223839,0,327680,2097152
19581.1,-0.0220917,0,327680,2097152
19592.7,-0.0216407,0,327680,2097152
19600.4,-0.0213324,0,327680,2097152
19612,-0.0208599,0,327680,2097152
19623.6,-0.0203774,0,327680,2097152
19631.3,-0.020051,0,327680,2097152
19642.9,-0.019556,0,327680,2097152
19650.6,-0.0192231,0,327680,2097152
19662.2,-0.018721,0,327680,2097152
19673.8,-0.0182169,0,327680,2097152
19681.5,-0.0178807,0,327680,2097152
19693.1,-0.0173775,0,327680,2097152
19700.8,-0.0170434,0,327680,2097152
19712.4,-0.0165456,0,327680,2097152
19720.2,-0.0162165,0,327680,2097152
19731.7,-0.0157283,0,327680,2097152
19743.3,-0.0152476,0,327680,2097152
19751.1,-0.014932,0,327680,2097152
19762.6,-0.0144668,0,327680,2097152
19770.4,-0.0141626,0,327680,2097152
19782,-0.0137159,0,327680,2097152
19793.5,-0.0132817,0,327680,2097152
19801.3,-0.0129996,0,327680,2097152
19812.9,-0.0125879,0,327680,2097152
19820.6,-0.0123215,0,327680,2097152
19832.2,-0.0119343,0,327680,2097152
19843.8,-0.0115624,0,327680,2097152
19851.5,-0.0113233,0,327680,2097152
19863.1,-0.0109779,0,327680,2097152
19870.8,-0.0107567,0,327680,2097152
19882.4,-0.0104385,0,327680,2097152
19890.1,-0.0102355,0,327680,2097152
19901.7,-0.00994481,0,327680,2097152
19913.3,-0.00967054,0,327680,2097152
19921,-0.00949679,0,327680,2097152
19932.6,-0.00924969,0,327680,2097152
19940.3,-0.00909387,0,327680,2097152
19951.9,-0.00887332,0,327680,2097152
19963.5,-0.00866831,0,327680,2097152
19971.2,-0.0085401,0,327680,2097152
19982.8,-0.00836019,0,327680,2097152
19990.6,-0.00824835,0,327680,2097152
