time,surface_elevation,reference_data,number_of_local_cells,number_of_global_cells
0,0,0,844,5052
18.7602,0,0,844,4896
37.5204,0,0,840,4914
56.2805,0,0,844,5030
74.8332,0,0,844,5062
93.3859,0,0,853,5146
111.939,0,0,866,5194
130.371,0,0,878,5248
148.803,0,0,878,5272
167.235,0,0,892,5344
185.437,0,0,902,5418
203.638,0,0,908,5452
221.84,0,0,922,5518
239.959,0,0,925,5558
258.079,0,0,933,5596
276.198,0,0,946,5686
294.068,0,0,958,5748
311.938,0,0,966,5808
329.807,0,0,981,5894
347.629,0,0,995,5962
365.452,0,0,999,5988
383.274,0,0,1008,6044
400.829,0,0,1020,6114
418.384,0,0,1027,6156
435.939,0,0,1041,6240
453.494,0,0,1049,6286
471.049,0,0,1058,6348
488.604,0,0,1067,6406
506.119,0,0,1075,6468
523.634,0,0,1094,6562
541.148,0,0,1103,6602
558.663,0,0,1114,6688
576.177,0,0,1127,6762
593.692,0,0,1135,6800
611.206,0,0,1147,6862
628.721,0,0,1157,6936
646.235,0,0,1165,6982
663.75,0,0,1177,7068
681.265,0,0,1188,7130
698.779,0,0,1197,7172
716.294,0,0,1208,7248
733.808,0,0,1219,7318
751.323,0,0,1239,7420
768.837,0,0,1245,7478
786.352,0,0,1254,7536
803.866,9.09495e-13,0,1265,7606
821.381,1.81899e-12,0,1280,7680
838.895,2.72848e-12,0,1284,7746
856.41,3.63798e-12,0,1303,7812
873.925,5.45697e-12,0,1314,7920
891.439,8.18545e-12,0,1326,7950
908.954,1.18234e-11,0,1340,8026
926.468,1.63709e-11,0,1346,8080
943.983,2.27374e-11,0,1351,8124
961.497,3.18323e-11,0,1391,8220
979.012,4.36557e-11,0,1415,8298
996.526,5.91172e-11,0,1369,8374
1014.04,8.00355e-11,0,1386,8438
1031.56,1.0732e-10,0,1411,8518
1049.07,1.42791e-10,0,1424,8596
1066.58,1.89175e-10,0,1449,8678
1084.1,2.49202e-10,0,1451,8726
1101.61,3.25599e-10,0,1469,8840
1119.13,4.23825e-10,0,1490,8930
1136.64,5.49335e-10,0,1497,8978
1154.16,7.07587e-10,0,1509,9044
1171.67,9.07676e-10,0,1517,9106
1189.19,1.1587e-09,0,1529,9174
1206.7,1.47156e-09,0,1545,9268
1224.21,1.86083e-09,0,1561,9366
1241.73,2.34195e-09,0,1569,9420
1259.24,2.93494e-09,0,1585,9520
1276.76,3.66254e-09,0,1603,9610
1294.27,4.5502e-09,0,1613,9678
1311.79,5.62977e-09,0,1623,9736
1329.3,6.93581e-09,0,1635,9804
1346.81,8.51014e-09,0,1652,9902
1364.33,1.04001e-08,0,1660,9952
1381.84,1.26602e-08,0,1675,10050
1399.36,1.53532e-08,0,1690,10146
1416.87,1.85491e-08,0,1700,10200
1434.39,2.23281e-08,0,1708,10252
1451.9,2.67792e-08,0,1726,10344
1469.41,3.20042e-08,0,1747,10472
1486.93,3.8116e-08,0,1762,10562
1504.44,4.52401e-08,0,1778,10654
1521.96,5.35156e-08,0,1794,10758
1539.47,6.30953e-08,0,1806,10820
1556.99,7.41493e-08,0,1816,10890
1574.5,8.68613e-08,0,1829,10978
1592.01,1.01434e-07,0,1848,11076
1609.53,1.18088e-07,0,1860,11160
1627.04,1.37062e-07,0,1874,11232
1644.56,1.58614e-07,0,1887,11322
1662.07,1.83028e-07,0,1901,11408
1679.58,2.10607e-07,0,1915,11494
1697.1,2.41684e-07,0,1933,11582
1714.61,2.76616e-07,0,1950,11696
1732.13,3.15795e-07,0,1962,11766
1749.64,3.5964e-07,0,1975,11838
1767.15,4.08607e-07,0,1991,11930
1784.67,4.63186e-07,0,2005,12022
1802.18,5.23904e-07,0,2022,12120
1819.7,5.91326e-07,0,2033,12204
1837.21,6.66058e-07,0,2053,12312
1854.72,7.48746e-07,0,2067,12392
1872.24,8.4008e-07,0,2085,12500
1889.75,9.40795e-07,0,2102,12600
1907.27,1.05167e-06,0,2112,12658
1924.78,1.17355e-06,0,2132,12778
1942.29,1.3073e-06,0,2150,12890
1959.81,1.45388e-06,0,2166,12994
1977.32,1.61429e-06,0,2183,13084
1994.83,1.7896e-06,0,2197,13176
2012.35,1.98093e-06,0,2211,13266
2029.86,2.18953e-06,0,2229,13363
2047.37,2.41669e-06,0,2241,13449
2064.89,2.66379e-06,0,2260,13564
2082.4,2.9323e-06,0,2278,13670
2099.92,3.2237e-06,0,2287,13728
2117.43,3.53952e-06,0,2301,13802
2134.94,3.8813e-06,0,2319,13912
2152.46,4.25063e-06,0,2335,14002
2169.97,4.64908e-06,0,2353,14120
2187.48,5.07825e-06,0,2378,14262
2205,5.53974e-06,0,2395,14376
2222.51,6.03518e-06,0,2414,14468
2240.03,6.56625e-06,0,2424,14556
2257.54,7.13464e-06,0,2443,14666
2275.05,7.74214e-06,0,2461,14762
2292.57,8.3906e-06,0,2475,14856
2310.08,9.08197e-06,0,2489,14936
2327.59,9.81831e-06,0,2509,15064
2345.11,1.06018e-05,0,2537,15208
2362.62,1.14363e-05,0,2557,15333
2380.14,1.23257e-05,0,2568,15420
2397.65,1.32738e-05,0,2584,15508
2415.15,1.42837e-05,0,2600,15608
2432.65,1.536e-05,0,2616,15694
2450.14,1.65064e-05,0,2642,15849
2467.64,1.77266e-05,0,2664,15981
2485.08,1.90196e-05,0,2681,16090
2502.53,2.03925e-05,0,2696,16178
2519.97,2.18487e-05,0,2713,16276
2537.41,2.33915e-05,0,2733,16400
2554.84,2.50235e-05,0,2753,16510
2572.26,2.67498e-05,0,2766,16596
2589.69,2.85751e-05,0,2790,16730
2607.12,3.05043e-05,0,2804,16818
2624.55,3.25432e-05,0,2822,16932
2641.98,3.46981e-05,0,2838,17034
2659.4,3.69756e-05,0,2860,17148
2676.83,3.93834e-05,0,2876,17251
2694.26,4.19293e-05,0,2896,17377
2711.69,4.4622e-05,0,2918,17510
2729.12,4.74816e-05,0,2932,17602
2746.63,5.05036e-05,0,2952,17724
2764.11,5.36774e-05,0,2975,17834
2781.58,5.6971e-05,0,2990,17926
2799.06,6.03629e-05,0,3008,18036
2816.48,6.38334e-05,0,3030,18186
2833.91,6.73897e-05,0,3058,18352
2851.34,7.10358e-05,0,3078,18461
2868.77,7.47808e-05,0,3096,18583
2886.2,7.86381e-05,0,3115,18701
2903.62,8.26248e-05,0,3136,18810
2921.05,8.67614e-05,0,3157,18942
2938.48,9.1071e-05,0,3179,19069
2955.91,9.55786e-05,0,3207,19231
2973.34,0.00010031,0,3229,19376
2990.76,0.000105293,0,3250,19503
3008.19,0.000110554,0,3266,19600
3025.62,0.000116119,0,3286,19714
3043.05,0.000122013,0,3300,19802
3060.48,0.00012851,0,3322,19920
3077.9,0.000135161,0,3341,20042
3095.33,0.000142055,0,3364,20182
3112.76,0.000149268,0,3392,20341
3130.19,0.000156725,0,3417,20488
3147.62,0.000164245,0,3433,20600
3165.04,0.000171799,0,3452,20716
3182.47,0.000179456,0,3475,20848
3199.9,0.000187341,0,3495,20970
3217.33,0.000195582,0,3515,21088
3234.75,0.000204315,0,3532,21199
3252.18,0.000213675,0,3554,21326
3269.61,0.000223796,0,3570,21428
3287.04,0.000234875,0,3589,21541
3304.47,0.000246818,0,3613,21682
3321.89,0.000259642,0,3641,21841
3339.32,0.000273424,0,3666,22008
3356.75,0.000288304,0,3691,22135
3374.18,0.000304077,0,3704,22222
3391.6,0.00032075,0,3728,22374
3409.03,0.000338458,0,3747,22480
3426.46,0.000357385,0,3765,22586
3443.89,0.000377752,0,3799,22778
3461.31,0.000399837,0,3819,22903
3478.74,0.000456099,0,3835,23013
3496.17,0.000510183,0,3857,23134
3513.6,0.000563347,0,3891,23342
3531.02,0.000616818,0,3915,23483
3548.45,0.000670842,0,3943,23656
3565.88,0.000723214,0,3971,23838
3583.31,0.000775549,0,3993,23970
3600.73,0.000831618,0,4016,24097
3618.16,0.000891594,0,4036,24221
3635.59,0.000959119,0,4056,24319
3653.02,0.00103297,0,4069,24418
3670.44,0.00110601,0,4091,24536
3687.87,0.00131785,0,4119,24711
3705.3,0.00153806,0,4145,24867
3722.73,0.00178302,0,4169,25009
3740.15,0.00198576,0,4188,25130
3757.58,0.00227324,0,4210,25252
3775.01,0.00320858,0,4231,25384
3792.44,0.00406193,0,4253,25528
3809.86,0.00504086,0,4273,25641
3827.29,0.00605014,0,4297,25769
3844.72,0.00734235,0,4316,25902
3862.14,0.00881236,0,4346,26070
3879.57,0.0105272,0,4365,26200
3897,0.0125117,0,4393,26359
3914.43,0.0148223,0,4415,26487
3931.85,0.0174981,0,4437,26631
3949.28,0.0205565,0,4473,26832
3966.71,0.0240376,0,4497,26991
3984.13,0.0280468,0,4521,27131
4001.56,0.0326618,0,4547,27288
4018.99,0.037921,0,4570,27424
4036.42,0.0438618,0,4598,27591
4053.84,0.0505206,0,4620,27715
4071.27,0.0579406,0,4647,27880
4088.7,0.0661513,0,4673,28036
4106.12,0.0751886,0,4699,28186
4123.55,0.0850754,0,4728,28367
4140.98,0.0958429,0,4748,28486
4158.41,0.107503,0,4773,28630
4175.83,0.120054,0,4799,28778
4193.26,0.133474,0,4825,28942
4210.69,0.147731,0,4855,29130
4228.11,0.162771,0,4880,29284
4245.54,0.178529,0,4902,29414
4262.97,0.194922,0,4925,29552
4280.4,0.211858,0,4948,29694
4297.82,0.229235,0,4975,29858
4315.25,0.246941,0,5005,30030
4332.68,0.264852,0,5033,30192
4350.11,0.282828,0,5060,30354
4367.53,0.300721,0,5079,30465
4384.96,0.318368,0,5105,30618
4402.39,0.335598,0,5123,30744
4419.82,0.352237,0,5151,30892
4437.25,0.368104,0,5179,31070
4454.67,0.383024,0,5209,31258
4472.1,0.396826,0,5234,31403
4489.53,0.409345,0,5258,31541
4506.96,0.420424,0,5282,31689
4524.39,0.429917,0,5313,31867
4541.81,0.437689,0,5333,31999
4559.24,0.443618,0,5361,32171
4576.67,0.447596,0,5395,32343
4594.1,0.449532,0,5418,32509
4611.52,0.449355,0,5444,32651
4628.95,0.447014,0,5471,32821
4646.38,0.442477,0,5501,33000
4663.81,0.435739,0,5530,33184
4681.24,0.426813,0,5557,33328
4698.66,0.415734,0,5587,33506
4716.09,0.402559,0,5605,33630
4733.52,0.387363,0,5631,33782
4750.95,0.370238,0,5666,33980
4768.38,0.351295,0,5698,34172
4785.8,0.330659,0,5718,34312
4803.23,0.308471,0,5744,34458
4820.66,0.284885,0,5772,34615
4838.09,0.260063,0,5795,34768
4855.51,0.234179,0,5823,34937
4872.94,0.207414,0,5850,35099
4890.37,0.179952,0,5872,35227
4907.8,0.15198,0,5902,35398
4925.23,0.123687,0,5925,35554
4942.65,0.095258,0,5947,35679
4960.08,0.0668768,0,5985,35908
4977.51,0.0387212,0,6010,36048
4994.94,0.0109626,0,6032,36188
5012.36,-0.0162359,0,6069,36398
5029.79,-0.0427211,0,6094,36568
5047.22,-0.068351,0,6121,36718
5064.65,-0.092996,0,6142,36854
5082.08,-0.11654,0,6170,37023
5099.5,-0.138879,0,6208,37253
5116.93,-0.159927,0,6236,37411
5134.36,-0.179609,0,6264,37583
5151.79,-0.197867,0,6298,37771
5169.21,-0.214654,0,6326,37950
5186.64,-0.22994,0,6350,38096
5204.07,-0.243709,0,6370,38222
5221.5,-0.255955,0,6396,38382
5238.93,-0.266688,0,6428,38552
5256.35,-0.275927,0,6456,38719
5273.78,-0.283705,0,6488,38920
5291.21,-0.290061,0,6512,39062
5308.64,-0.295047,0,6538,39216
5326.07,-0.298719,0,6566,39390
5343.49,-0.301143,0,6588,39517
5360.92,-0.302387,0,6616,39701
5378.35,-0.302525,0,6649,39880
5395.78,-0.301636,0,6671,40025
5413.2,-0.299799,0,6697,40174
5430.63,-0.297096,0,6719,40314
5448.06,-0.29361,0,6755,40527
5465.49,-0.289422,0,6783,40686
5482.92,-0.284614,0,6809,40840
5500.34,-0.279264,0,6837,41024
5517.77,-0.273451,0,6860,41156
5535.2,-0.267248,0,6888,41331
5552.63,-0.260725,0,6920,41525
5570.06,-0.253948,0,6949,41686
5587.48,-0.246981,0,6972,41819
5604.91,-0.239881,0,7003,42011
5622.34,-0.2327,0,7037,42215
5639.77,-0.225489,0,7071,42420
5657.19,-0.218289,0,7098,42583
5674.62,-0.211141,0,7122,42728
5692.05,-0.204078,0,7143,42857
5709.48,-0.19713,0,7171,43028
5726.91,-0.190321,0,7203,43212
5744.33,-0.183672,0,7235,43394
5761.76,-0.177199,0,7259,43552
5779.19,-0.170916,0,7287,43725
5796.62,-0.164832,0,7318,43907
5814.05,-0.158954,0,7355,44136
5831.47,-0.153284,0,7385,44301
5848.9,-0.147825,0,7417,44493
5866.33,-0.142573,0,7450,44689
5883.76,-0.137527,0,7483,44881
5901.19,-0.132681,0,7515,45087
5918.61,-0.128028,0,7540,45242
5936.04,-0.123562,0,7574,45447
5953.47,-0.119272,0,7606,45620
5970.9,-0.115151,0,7644,45869
5988.33,-0.111187,0,7686,46108
6005.75,-0.107372,0,7706,46241
6023.18,-0.103694,0,7732,46385
6040.61,-0.100143,0,7764,46588
6058.04,-0.0967083,0,7804,46809
6075.46,-0.0933804,0,7828,46958
6092.89,-0.0901491,0,7856,47140
6110.32,-0.0870049,0,7890,47342
6127.75,-0.083939,0,7920,47510
6145.18,-0.0809427,0,7956,47734
6162.6,-0.0780086,0,7990,47933
6180.03,-0.0751293,0,8018,48110
6197.46,-0.0722987,0,8054,48317
6214.89,-0.0695111,0,8088,48511
6232.32,-0.0667615,0,8116,48701
6249.74,-0.0640456,0,8146,48861
6267.17,-0.0613601,0,8172,49017
6284.6,-0.0587019,0,8197,49178
6302.03,-0.0560687,0,8232,49391
6319.46,-0.0534591,0,8263,49563
6336.88,-0.0508718,0,8297,49778
6354.31,-0.0483062,0,8327,49968
6371.74,-0.0457624,0,8354,50128
6389.17,-0.0432406,0,8384,50308
6406.6,-0.0407416,0,8427,50546
6424.02,-0.0382664,0,8464,50781
6441.45,-0.0358164,0,8496,50975
6458.88,-0.0333932,0,8528,51169
6476.31,-0.0309985,0,8551,51299
6493.74,-0.0286345,0,8573,51430
6511.16,-0.0263033,0,8607,51645
6528.59,-0.0240071,0,8639,51824
6546.02,-0.0217484,0,8678,52058
6563.45,-0.0195294,0,8715,52277
6580.88,-0.0173527,0,8741,52445
6598.3,-0.0152205,0,8784,52708
6615.73,-0.0131352,0,8816,52895
6633.16,-0.011099,0,8846,53076
6650.59,-0.00911405,0,8872,53232
6668.02,-0.0071822,0,8905,53421
6685.44,-0.00530524,0,8945,53669
6702.87,-0.00348477,0,8985,53904
6720.3,-0.00172216,0,9021,54111
6737.73,-1.85477e-05,0,9044,54249
6755.16,0.00162516,0,9065,54393
6772.58,0.00320831,0,9096,54577
6790.01,0.00473049,0,9134,54809
6807.44,0.00619155,0,9166,54979
6824.87,0.0075916,0,9192,55150
6842.3,0.00893097,0,9212,55278
6859.72,0.0102103,0,9256,55522
6877.15,0.0114303,0,9289,55721
6894.58,0.0125922,0,9316,55893
6912.01,0.0136971,0,9343,56043
6929.44,0.0147467,0,9366,56201
6946.86,0.0157425,0,9396,56376
6964.29,0.0166865,0,9433,56584
6981.72,0.0175809,0,9455,56726
6999.15,0.0184279,0,9477,56860
7016.58,0.01923,0,9506,57019
7034,0.0199898,0,9534,57184
7051.43,0.0207103,0,9563,57384
7068.86,0.0213942,0,9597,57583
7086.29,0.0220448,0,9630,57773
7103.72,0.0226653,0,9663,57968
7121.14,0.0232588,0,9688,58118
7138.57,0.0238288,0,9731,58354
7156,0.0243786,0,9766,58592
7173.43,0.0249117,0,9790,58762
7190.85,0.0254315,0,9818,58905
7208.28,0.0259413,0,9850,59094
7225.71,0.0264444,0,9867,59211
7243.14,0.0269441,0,9910,59455
7260.57,0.0274435,0,9948,59685
7277.99,0.0279455,0,9975,59841
7295.42,0.028453,0,10009,60043
7312.85,0.0289686,0,10043,60241
7330.28,0.0294949,0,10079,60471
7347.71,0.0300342,0,10115,60686
7365.13,0.0305884,0,10149,60900
7382.56,0.0311597,0,10184,61089
7399.99,0.0317495,0,10207,61245
7417.42,0.0323593,0,10258,61535
7434.85,0.0329903,0,10285,61699
7452.27,0.0336435,0,10315,61885
7469.7,0.0343194,0,10352,62109
7487.13,0.0350185,0,10388,62314
7504.56,0.0357408,0,10422,62516
7521.99,0.0364862,0,10448,62682
7539.41,0.0372543,0,10474,62827
7556.84,0.0380442,0,10502,63016
7574.27,0.0388549,0,10530,63170
7591.7,0.039685,0,10560,63350
7609.13,0.0405329,0,10605,63628
7626.55,0.0413966,0,10635,63814
7643.98,0.0422741,0,10659,63960
7661.41,0.0431627,0,10687,64118
7678.84,0.0440598,0,10715,64290
7696.26,0.0449625,0,10755,64521
7713.69,0.0458677,0,10784,64693
7731.12,0.046772,0,10810,64847
7748.55,0.0476719,0,10831,64989
7765.98,0.0485639,0,10869,65197
7783.4,0.0494442,0,10893,65362
7800.83,0.050309,0,10923,65528
7818.26,0.0511545,0,10954,65720
7835.69,0.0519767,0,10975,65847
7853.12,0.0527716,0,10985,65906
7870.54,0.0535354,0,11015,66074
7887.97,0.0542638,0,11041,66241
7905.4,0.054953,0,11065,66382
7922.83,0.0555987,0,11083,66502
7940.26,0.0561966,0,11105,66635
7957.68,0.0567422,0,11147,66870
7975.11,0.0572304,0,11177,67077
7992.54,0.0576563,0,11207,67247
8009.97,0.058016,0,11230,67373
8027.39,0.0583089,0,11255,67523
8044.82,0.058513,0,11275,67647
8062.25,0.0586226,0,11298,67775
8079.68,0.0586342,0,11313,67874
8097.11,0.0585892,0,11338,68032
8114.53,0.0584062,0,11367,68188
8131.96,0.0582968,0,11391,68335
8149.39,0.0581264,0,11413,68484
8166.82,0.0579071,0,11450,68696
8184.25,0.0576407,0,11493,68933
8201.67,0.0573672,0,11533,69193
8219.1,0.0570664,0,11567,69391
8236.53,0.0566437,0,11599,69579
8253.96,0.0558291,0,11627,69778
8271.38,0.0549217,0,11655,69926
8288.81,0.0539384,0,11685,70081
8306.24,0.0528925,0,11706,70219
8323.67,0.0517749,0,11741,70455
8341.1,0.0506099,0,11772,70636
8358.52,0.0493873,0,11803,70822
8375.95,0.0481266,0,11826,70969
8393.38,0.0468189,0,11852,71108
8410.81,0.0454609,0,11874,71224
8428.24,0.0440317,0,11911,71441
8445.66,0.0425313,0,11926,71574
8463.09,0.0409594,0,11952,71704
8480.61,0.0393179,0,11973,71841
8498.12,0.0376257,0,11997,71991
8515.63,0.0358953,0,12027,72166
8533.15,0.0341302,0,12065,72371
8550.66,0.0323334,0,12089,72536
8568.18,0.0305033,0,12123,72709
8585.69,0.028642,0,12155,72944
8603.21,0.0267499,0,12194,73139
8620.63,0.0248421,0,12217,73310
8638.06,0.0229147,0,12236,73429
8655.49,0.0209752,0,12266,73603
8672.92,0.0190287,0,12301,73811
8690.35,0.0170802,0,12313,73884
8707.77,0.0151331,0,12343,74052
8725.2,0.0131915,0,12378,74247
8742.63,0.0112584,0,12400,74378
8760.06,0.00933776,0,12428,74546
8777.49,0.00743296,0,12439,74636
8794.91,0.00554804,0,12466,74772
8812.34,0.00368659,0,12474,74850
8829.77,0.00185229,0,12506,75038
8847.2,4.84715e-05,0,12529,75153
8864.62,-0.00172151,0,12548,75287
8882.05,-0.00345441,0,12564,75373
8899.48,-0.00514692,0,12592,75556
8916.91,-0.00679592,0,12622,75742
8934.34,-0.00839849,0,12653,75920
8951.76,-0.00995213,0,12685,76089
8969.19,-0.0114546,0,12717,76284
8986.62,-0.0129041,0,12741,76429
9004.05,-0.0142986,0,12765,76571
9021.48,-0.0156365,0,12796,76755
9038.9,-0.0169159,0,12816,76908
9056.33,-0.0181348,0,12827,76976
9073.76,-0.0192912,0,12846,77100
9091.19,-0.0203833,0,12882,77278
9108.62,-0.0214099,0,12910,77444
9126.04,-0.0223703,0,12935,77592
9143.47,-0.0232647,0,12964,77801
9160.9,-0.0240938,0,12998,77965
9178.33,-0.0248588,0,13027,78144
9195.75,-0.0255613,0,13046,78266
9213.18,-0.0262026,0,13055,78354
9230.61,-0.0267837,0,13083,78471
9248.04,-0.0273053,0,13097,78593
9265.47,-0.027768,0,13127,78779
9282.89,-0.0281719,0,13149,78891
9300.32,-0.0285174,0,13176,79033
9317.75,-0.0288046,0,13202,79189
9335.18,-0.0290342,0,13232,79397
9352.61,-0.0292071,0,13266,79602
9370.03,-0.0294139,0,13293,79777
9387.46,-0.0294334,0,13314,79890
9404.89,-0.0294018,0,13329,79990
9422.32,-0.0292895,0,13357,80151
9439.75,-0.0291233,0,13389,80329
9457.17,-0.0289626,0,13413,80449
9474.6,-0.0287856,0,13429,80592
9492.03,-0.0285785,0,13451,80702
9509.46,-0.0283456,0,13463,80762
9526.89,-0.0281235,0,13478,80861
9544.31,-0.0278855,0,13506,81044
9561.74,-0.0276223,0,13528,81152
9579.17,-0.027343,0,13529,81192
9596.6,-0.0270492,0,13555,81306
9614.03,-0.0267507,0,13571,81403
9631.45,-0.026453,0,13602,81594
9648.88,-0.0261599,0,13612,81658
9666.31,-0.02587,0,13622,81703
9683.74,-0.0255798,0,13642,81837
9701.16,-0.0252834,0,13653,81909
9718.59,-0.0249799,0,13695,82149
9736.02,-0.0246707,0,13715,82296
9753.45,-0.0243603,0,13749,82477
9770.88,-0.0240519,0,13774,82629
9788.3,-0.0237454,0,13792,82732
9805.73,-0.0234459,0,13818,82895
9823.16,-0.0231437,0,13844,83056
9840.59,-0.0228368,0,13875,83223
9858.02,-0.0225295,0,13905,83425
9875.44,-0.0222231,0,13943,83647
9892.87,-0.0219207,0,13967,83780
9910.3,-0.0216237,0,13992,83968
9927.73,-0.0213313,0,14027,84153
9945.16,-0.0210434,0,14059,84332
9962.58,-0.0207597,0,14070,84425
9980.01,-0.0204798,0,14106,84622
9997.44,-0.0202032,0,14150,84892
10014.9,-0.0199296,0,14178,85071
10032.3,-0.0196571,0,14203,85223
10049.7,-0.0193843,0,14227,85380
10067.2,-0.0191108,0,14260,85579
10084.6,-0.0188373,0,14279,85681
10102,-0.0185645,0,14309,85837
10119.4,-0.0182936,0,14337,86028
10136.9,-0.0180253,0,14364,86179
10154.3,-0.0177596,0,14395,86348
10171.7,-0.017496,0,14424,86516
10189.1,-0.0172331,0,14454,86718
10206.6,-0.0169692,0,14486,86893
10224,-0.0167027,0,14511,87069
10241.4,-0.0164324,0,14539,87208
10258.9,-0.0161581,0,14557,87334
10276.3,-0.0158798,0,14590,87533
10293.7,-0.0155984,0,14634,87822
10311.1,-0.0153149,0,14660,87977
10328.6,-0.0150301,0,14694,88175
10346,-0.0147448,0,14727,88342
10363.4,-0.0144594,0,14739,88427
10380.9,-0.0141739,0,14757,88548
10398.3,-0.0138876,0,14787,88709
10415.7,-0.0135998,0,14816,88881
10433.1,-0.0133097,0,14829,88987
10450.6,-0.0130163,0,14849,89110
10468,-0.012719,0,14881,89289
10485.4,-0.0124174,0,14903,89433
10502.9,-0.0121113,0,14919,89521
10520.3,-0.0118007,0,14932,89614
10537.7,-0.0114787,0,14961,89741
10555.1,-0.0111433,0,14980,89865
10572.6,-0.010809,0,14995,89985
10590,-0.0104811,0,15013,90060
10607.4,-0.0101584,0,15032,90191
10624.8,-0.00984266,0,15060,90376
10642.3,-0.0095224,0,15097,90586
10659.7,-0.00919198,0,15118,90709
10677.1,-0.0088517,0,15132,90799
10694.6,-0.00850445,0,15165,90975
10712,-0.00815252,0,15179,91078
10729.4,-0.00779668,0,15201,91192
10746.8,-0.00746616,0,15225,91337
10764.3,-0.00751864,0,15244,91459
10781.7,-0.00722765,0,15257,91526
10799.1,-0.00681252,0,15265,91563
10816.6,-0.00637317,0,15284,91706
10834,-0.00594102,0,15299,91809
10851.4,-0.00566311,0,15322,91937
10868.8,-0.00526163,0,15324,91965
10886.3,-0.00485131,0,15336,92002
10903.7,-0.00443917,0,15339,92055
10921.1,-0.00405478,0,15370,92204
10938.5,-0.00367834,0,15379,92260
10956,-0.00331514,0,15387,92334
10973.4,-0.00296669,0,15397,92371
10990.8,-0.00262582,0,15395,92373
11008.3,-0.00228046,0,15407,92445
11025.7,-0.00194698,0,15414,92484
11043.1,-0.00164807,0,15422,92537
11060.5,-0.00137219,0,15423,92551
11078.1,-0.00111388,0,15432,92601
11095.6,-0.00086224,0,15450,92686
11113.1,-0.000615271,0,15447,92662
11130.6,-0.000369873,0,15445,92678
11148.1,-0.000128977,0,15441,92662
11165.6,0.000106582,0,15456,92707
11183.1,0.000333894,0,15469,92831
11200.7,0.00055171,0,15463,92775
11218.2,0.0007577,0,15465,92803
11235.7,0.000951528,0,15489,92942
11253.2,0.00113229,0,15505,93040
11270.7,0.00130177,0,15521,93130
11288.2,0.00145957,0,15531,93200
11305.7,0.00160647,0,15536,93217
11323.2,0.00175069,0,15573,93430
11340.7,0.00226162,0,15600,93584
11358.2,0.00231164,0,15604,93616
11375.7,0.00236048,0,15633,93783
11393.2,0.002388,0,15647,93899
11410.7,0.00242739,0,15650,93916
11428.3,0.00239151,0,15654,93917
11445.8,0.00239285,0,15654,93921
11463.3,0.00235651,0,15660,93943
11480.8,0.00244411,0,15650,93915
11498.3,0.00234015,0,15666,93981
11515.8,0.00216836,0,15670,93999
11533.3,0.00193408,0,15674,94028
11550.9,0.00168026,0,15693,94152
11568.4,0.00144094,0,15702,94214
11585.9,0.0012289,0,15721,94305
11603.4,0.00103894,0,15730,94356
11620.9,0.000863735,0,15745,94479
11638.3,0.000691262,0,15770,94601
11655.8,0.000511009,0,15776,94635
11673.2,0.000321319,0,15799,94796
11690.6,0.000120332,0,15813,94855
11708.1,-9.05742e-05,0,15827,94958
11725.5,-0.000312029,0,15849,95066
11742.9,-0.000546049,0,15867,95202
11760.3,-0.000798428,0,15899,95402
11777.8,-0.00106775,0,15921,95539
11795.2,-0.00134836,0,15940,95647
11812.6,-0.00163155,0,15959,95774
11830,-0.0019237,0,15977,95865
11847.5,-0.00218216,0,15992,95963
11864.9,-0.00246475,0,16026,96177
11882.3,-0.00282465,0,16046,96299
11899.8,-0.00336449,0,16082,96481
11917.2,-0.00380275,0,16105,96612
11934.6,-0.00433472,0,16113,96672
11952,-0.00490477,0,16124,96739
11969.5,-0.00549439,0,16134,96803
11986.9,-0.00607326,0,16146,96898
12004.3,-0.00663099,0,16168,97011
12021.8,-0.00712758,0,16185,97106
12039.2,-0.00761601,0,16202,97185
12056.6,-0.00809585,0,16221,97329
12074,-0.00856478,0,16228,97346
12091.5,-0.00902009,0,16242,97452
12108.9,-0.00947466,0,16265,97607
12126.3,-0.00992062,0,16280,97671
12143.7,-0.0103583,0,16283,97719
12161.2,-0.0107826,0,16304,97812
12178.6,-0.0111938,0,16305,97836
12196,-0.0115942,0,16310,97882
12213.5,-0.0119825,0,16324,97919
12230.9,-0.0123656,0,16328,97968
12248.3,-0.0127423,0,16344,98042
12265.7,-0.0131129,0,16350,98088
12283.2,-0.013477,0,16344,98081
12300.6,-0.0138344,0,16364,98201
12318,-0.0141826,0,16385,98324
12335.5,-0.0145184,0,16404,98407
12352.9,-0.0148387,0,16429,98549
12370.3,-0.0151427,0,16437,98614
12387.7,-0.0154309,0,16456,98725
12405.2,-0.0157045,0,16482,98866
12422.6,-0.0159656,0,16505,99005
12440,-0.0162153,0,16530,99155
12457.5,-0.0164549,0,16548,99295
12474.9,-0.0166845,0,16565,99389
12492.3,-0.016903,0,16589,99512
12509.7,-0.0171104,0,16591,99555
12527.2,-0.0173051,0,16618,99682
12544.6,-0.0174789,0,16625,99728
12562,-0.0176425,0,16639,99823
12579.4,-0.0177749,0,16653,99919
12596.9,-0.0179862,0,16657,99933
12614.3,-0.0180477,0,16675,100050
12631.7,-0.0180416,0,16693,100140
12649.2,-0.0185586,0,16690,100150
12666.6,-0.0186741,0,16715,100261
12684,-0.0187988,0,16722,100329
12701.4,-0.0189694,0,16745,100473
12718.9,-0.019052,0,16763,100569
12736.3,-0.0195169,0,16765,100593
12753.7,-0.0194863,0,16768,100611
12771.2,-0.0194875,0,16790,100751
12788.6,-0.0195262,0,16808,100831
12806,-0.0195544,0,16823,100923
12823.4,-0.0195372,0,16841,101034
12840.9,-0.0195116,0,16850,101102
12858.3,-0.0195698,0,16869,101199
12875.7,-0.019565,0,16886,101304
12893.2,-0.0195102,0,16895,101384
12910.6,-0.019421,0,16918,101506
12928,-0.0193128,0,16922,101546
12945.4,-0.0191907,0,16950,101687
12962.9,-0.0190538,0,16961,101771
12980.3,-0.0189038,0,16974,101838
12997.7,-0.0187398,0,16978,101869
13015.1,-0.018307,0,16997,101974
13032.6,-0.0175947,0,16995,101980
13050,-0.0172231,0,17021,102103
13067.4,-0.0168494,0,17025,102155
13084.9,-0.0168155,0,17035,102217
13102.3,-0.0167165,0,17052,102309
13119.7,-0.01667,0,17064,102380
13137.1,-0.0165371,0,17076,102439
13154.6,-0.0163378,0,17086,102524
13172,-0.016044,0,17103,102601
13189.4,-0.0157503,0,17104,102613
13206.9,-0.0153816,0,17111,102645
13224.3,-0.0149913,0,17116,102716
13241.7,-0.0145808,0,17124,102757
13259.1,-0.0142014,0,17137,102833
13276.6,-0.0138345,0,17120,102726
13294,-0.0134759,0,17109,102676
13311.4,-0.0131046,0,17102,102607
13328.9,-0.0127213,0,17098,102566
13346.3,-0.012326,0,17093,102538
13363.7,-0.0119188,0,17085,102498
13381.1,-0.0115067,0,17074,102448
13398.6,-0.0110796,0,17065,102390
13416,-0.0106329,0,17052,102320
13433.4,-0.0101778,0,17041,102257
13450.8,-0.00972935,0,17016,102112
13468.3,-0.00928402,0,17010,102053
13485.7,-0.00884677,0,17006,102018
13503.1,-0.00841579,0,16988,101944
13520.6,-0.00799079,0,16974,101824
13538,-0.0075658,0,16958,101734
13555.4,-0.00713689,0,16942,101654
13572.8,-0.00670222,0,16916,101508
13590.3,-0.00625852,0,16894,101372
13607.7,-0.00580413,0,16892,101342
13625.1,-0.00534119,0,16893,101367
13642.6,-0.00487297,0,16871,101218
13660,-0.00440226,0,16872,101219
13677.4,-0.00393051,0,16869,101228
13694.8,-0.00345859,0,16877,101264
13712.3,-0.0029887,0,16870,101202
13729.7,-0.00252048,0,16864,101183
13747.1,-0.00205324,0,16836,101011
13764.5,-0.00158499,0,16818,100911
13782,-0.0011146,0,16790,100744
13799.4,-0.000640976,0,16780,100684
13816.8,-0.00016459,0,16775,100674
13834.3,0.000313978,0,16771,100635
13851.8,0.000795218,0,16767,100610
13869.3,0.00127481,0,16746,100468
13886.8,0.00175028,0,16758,100529
13904.3,0.00222002,0,16763,100568
13921.8,0.00268275,0,16776,100669
13939.3,0.00313827,0,16769,100626
13956.9,0.00358686,0,16778,100644
13974.4,0.00402935,0,16789,100752
13991.9,0.00446646,0,16803,100839
14009.4,0.00489887,0,16821,100900
14026.9,0.00532679,0,16829,100978
14044.4,0.00575026,0,16841,101024
14061.9,0.00616899,0,16847,101055
14079.5,0.0065826,0,16860,101163
14097,0.00699056,0,16886,101306
14114.5,0.00739237,0,16909,101471
14131.9,0.00778549,0,16925,101539
14149.3,0.00817132,0,16935,101622
14166.8,0.00854906,0,16940,101620
14184.3,0.00891962,0,16948,101674
14201.8,0.00927997,0,16939,101632
14219.3,0.00962897,0,16957,101751
14236.8,0.00996554,0,16979,101857
14254.4,0.0102888,0,16981,101888
14271.9,0.0105982,0,16984,101912
14289.4,0.0108933,0,16983,101883
14306.9,0.011174,0,16981,101859
14324.4,0.0114402,0,16971,101828
14341.9,0.0116921,0,16976,101856
14359.4,0.0119296,0,16974,101831
14377,0.0121535,0,16980,101859
14394.5,0.0123631,0,16973,101822
14412.1,0.0125596,0,16953,101730
14429.7,0.0127408,0,16940,101624
14447.2,0.0128929,0,16915,101484
14464.8,0.0130242,0,16885,101310
14482.3,0.0131767,0,16879,101281
14499.8,0.0133555,0,16860,101155
14517.4,0.0134569,0,16845,101058
14534.9,0.0135634,0,16814,100887
14552.4,0.0136648,0,16808,100832
14569.9,0.0137652,0,16797,100756
14587.4,0.0138911,0,16767,100607
14605,0.0140012,0,16747,100467
14622.4,0.014108,0,16722,100304
14639.8,0.0141956,0,16693,100149
14657.3,0.0142903,0,16676,100036
14674.7,0.0145279,0,16666,99986
14692.1,0.0145824,0,16665,99967
14709.5,0.0145766,0,16647,99887
14727,0.0145789,0,16633,99773
14744.4,0.0146995,0,16605,99630
14761.8,0.0147038,0,16593,99558
14779.3,0.0146843,0,16589,99536
14796.7,0.0146794,0,16557,99360
14814.1,0.0146965,0,16543,99242
14831.5,0.0147278,0,16510,99063
14849,0.0147586,0,16479,98863
14866.4,0.0147969,0,16453,98704
14883.8,0.0148467,0,16436,98605
14901.3,0.014913,0,16410,98461
14918.7,0.0149866,0,16395,98370
14936.1,0.0150575,0,16387,98311
14953.5,0.0151212,0,16376,98252
14971,0.0151877,0,16386,98308
14988.4,0.0152406,0,16388,98345
15005.8,0.0152821,0,16401,98390
15023.3,0.0153143,0,16379,98272
15040.7,0.0153383,0,16363,98159
15058.1,0.0153953,0,16358,98151
15075.5,0.0154181,0,16330,97985
15093,0.0154237,0,16324,97929
15110.4,0.015421,0,16309,97862
15127.8,0.015413,0,16311,97845
15145.2,0.015401,0,16287,97733
15162.7,0.0153858,0,16279,97659
15180.1,0.0153708,0,16267,97586
15197.5,0.0153525,0,16264,97565
15215,0.0153422,0,16267,97600
15232.4,0.0153393,0,16237,97421
15249.8,0.0153391,0,16229,97368
15267.2,0.0153367,0,16221,97325
15284.7,0.0153252,0,16198,97191
15302.1,0.0153029,0,16182,97108
15319.5,0.0152679,0,16159,96968
15337,0.0152159,0,16152,96926
15354.4,0.0151518,0,16128,96747
15371.8,0.0150765,0,16095,96578
15389.2,0.0149895,0,16060,96346
15406.7,0.0148899,0,16033,96188
15424.1,0.0147781,0,16019,96102
15441.5,0.0146551,0,15998,95979
15459,0.0145218,0,15994,95947
15476.4,0.0143818,0,15986,95915
15493.8,0.0142367,0,15979,95872
15511.2,0.014087,0,15962,95749
15528.7,0.0139313,0,15936,95626
15546.1,0.0137692,0,15929,95580
15563.5,0.0136006,0,15918,95517
15580.9,0.0134256,0,15913,95467
15598.4,0.0132453,0,15902,95424
15615.8,0.0129925,0,15891,95357
15633.2,0.0128337,0,15886,95301
15650.7,0.0126559,0,15870,95215
15668.1,0.0124674,0,15856,95134
15685.5,0.0122575,0,15836,95008
15702.9,0.0120463,0,15812,94854
15720.4,0.0118466,0,15800,94791
15737.8,0.0111582,0,15784,94708
15755.2,0.0107196,0,15751,94520
15772.7,0.0103755,0,15732,94392
15790.1,0.0101516,0,15715,94294
15807.5,0.00998479,0,15707,94253
15824.9,0.00985292,0,15699,94203
15842.4,0.00973327,0,15690,94131
15859.8,0.00958996,0,15683,94082
15877.2,0.00940327,0,15651,93890
15894.6,0.00917585,0,15629,93774
15912.1,0.00892347,0,15622,93715
15929.5,0.00866355,0,15596,93564
15946.9,0.00840882,0,15568,93405
15964.4,0.00816467,0,15555,93333
15981.8,0.00793034,0,15545,93268
15999.2,0.00770187,0,15528,93164
16016.6,0.00747371,0,15543,93264
16034.1,0.00724069,0,15544,93253
16051.5,0.00699824,0,15551,93279
16068.9,0.00674454,0,15538,93236
16086.4,0.00647936,0,15545,93252
16103.8,0.00620541,0,15553,93320
16121.2,0.00592658,0,15567,93413
16138.6,0.00564734,0,15579,93449
16156.1,0.00537026,0,15578,93460
16173.6,0.005098,0,15580,93458
16191.2,0.00482912,0,15578,93453
16208.7,0.00456335,0,15559,93336
16226.3,0.00429813,0,15542,93258
16243.8,0.0040308,0,15537,93236
16261.4,0.00375915,0,15507,93019
16278.9,0.00348172,0,15474,92824
16296.6,0.00319673,0,15459,92754
16314.3,0.00290648,0,15435,92617
16331.9,0.00261277,0,15422,92525
16349.6,0.00231771,0,15428,92570
16367.2,0.00202322,0,15400,92385
16384.9,0.00173086,0,15375,92225
16402.5,0.00144143,0,15370,92198
16420.2,0.00115516,0,15342,92036
16437.8,0.000871647,0,15321,91922
16455.5,0.000590348,0,15297,91785
16473.1,0.000310732,0,15276,91642
16490.8,3.25805e-05,0,15277,91660
16508.4,-0.000243988,0,15263,91551
16526.1,-0.000518515,0,15239,91413
16543.7,-0.000790324,0,15234,91384
16561.4,-0.00105861,0,15229,91371
16579,-0.00132258,0,15209,91271
16596.7,-0.00158147,0,15194,91170
16614.2,-0.00183304,0,15196,91187
16631.6,-0.0020768,0,15211,91250
16649.1,-0.00231383,0,15205,91225
16666.5,-0.00254348,0,15187,91134
16684,-0.0027665,0,15170,91003
16701.6,-0.00298069,0,15157,90944
16719.1,-0.00318538,0,15135,90810
16736.7,-0.00338023,0,15140,90834
16754.2,-0.00356458,0,15155,90917
16771.8,-0.00373882,0,15149,90899
16789.5,-0.00390207,0,15142,90860
16807.1,-0.00405426,0,15151,90927
16824.7,-0.00419531,0,15170,91016
16842.4,-0.00438374,0,15189,91123
16860,-0.00449666,0,15177,91071
16877.7,-0.00444554,0,15178,91060
16895.3,-0.00443269,0,15177,91054
16913,-0.00442856,0,15165,90969
16930.6,-0.00445959,0,15161,90939
16948.3,-0.00450311,0,15146,90875
16965.9,-0.00453282,0,15146,90873
16983.6,-0.00453982,0,15128,90773
17001.2,-0.00452795,0,15136,90800
17018.9,-0.0045555,0,15143,90867
17036.5,-0.0045256,0,15140,90836
17054.2,-0.0044597,0,15147,90879
17071.8,-0.00436946,0,15143,90872
17089.5,-0.00426218,0,15138,90806
17107.1,-0.0041427,0,15122,90755
17124.8,-0.00401564,0,15132,90793
17142.4,-0.00395492,0,15098,90599
17160.1,-0.0037854,0,15060,90341
17177.7,-0.00357896,0,15029,90164
17195.4,-0.00335468,0,15003,90035
17213,-0.00313227,0,14984,89899
17230.6,-0.00293266,0,14983,89886
17248.2,-0.00281138,0,14957,89755
17265.7,-0.00267729,0,14966,89777
17283.3,-0.0025418,0,14947,89695
17300.8,-0.00239198,0,14939,89618
17318.4,-0.00220525,0,14931,89610
17335.9,-0.00199246,0,14943,89673
17353.5,-0.00174636,0,14954,89747
17371.1,-0.00148031,0,14956,89755
17388.5,-0.00120108,0,14962,89764
17406,-0.000925549,0,14977,89871
17423.4,-0.000628584,0,14974,89861
17440.9,-0.000307992,0,14995,89990
17458.3,3.06482e-05,0,15015,90108
17475.7,0.000399713,0,15023,90134
17493.1,0.000352293,0,15032,90208
17510.6,0.000660614,0,15056,90351
17528,0.00113667,0,15081,90463
17545.4,0.00166855,0,15102,90619
17562.9,0.00221713,0,15122,90713
17580.3,0.00271269,0,15123,90738
17597.7,0.00324861,0,15131,90802
17615.1,0.00377894,0,15121,90742
17632.6,0.00429921,0,15114,90667
17650,0.00479375,0,15117,90718
17667.4,0.005281,0,15111,90678
17684.9,0.00577606,0,15108,90637
17702.3,0.00627325,0,15092,90570
17719.7,0.00674663,0,15071,90428
17737.1,0.00718819,0,15035,90226
17754.6,0.00760231,0,15018,90109
17772,0.00799379,0,14994,89956
17789.4,0.00837031,0,14944,89682
17806.8,0.00873484,0,14893,89353
17824.3,0.00908748,0,14855,89116
17841.7,0.00942655,0,14819,88902
17859.1,0.00974839,0,14779,88677
17876.6,0.0100526,0,14748,88478
17894,0.0103403,0,14716,88280
17911.4,0.0106101,0,14680,88052
17928.8,0.0108656,0,14632,87766
17946.3,0.0111141,0,14590,87558
17963.7,0.0113315,0,14583,87480
17981.1,0.011478,0,14563,87390
17998.6,0.0116049,0,14540,87250
18016,0.0116718,0,14496,86991
18033.4,0.011721,0,14471,86823
18050.8,0.011756,0,14460,86741
18068.3,0.0117767,0,14413,86481
18085.7,0.0116162,0,14390,86322
18103.1,0.0115941,0,14390,86320
18120.5,0.0115517,0,14376,86269
18138,0.0115013,0,14366,86178
18155.4,0.0114664,0,14346,86091
18172.8,0.011426,0,14348,86082
18190.3,0.0113721,0,14325,85936
18207.7,0.0113006,0,14320,85903
18225.1,0.011201,0,14313,85881
18242.5,0.011094,0,14320,85924
18260,0.0109766,0,14303,85805
18277.4,0.0108507,0,14308,85825
18294.8,0.010713,0,14302,85817
18312.3,0.0105442,0,14298,85776
18329.7,0.0103762,0,14292,85769
18347.1,0.0101701,0,14298,85796
18364.5,0.01024,0,14312,85858
18382,0.0100233,0,14286,85724
18399.5,0.00970923,0,14280,85680
18417,0.00935171,0,14269,85621
18434.4,0.00897741,0,14256,85514
18452,0.00907345,0,14212,85285
18469.5,0.00885674,0,14201,85213
18487,0.00846018,0,14193,85159
18504.6,0.0080724,0,14207,85246
18522.1,0.0075783,0,14217,85299
18539.7,0.0070955,0,14218,85304
18557.4,0.00663694,0,14206,85234
18575.1,0.00621581,0,14201,85205
18592.8,0.00582446,0,14189,85144
18610.5,0.00544661,0,14193,85139
18628.2,0.00507852,0,14185,85097
18645.9,0.00471754,0,14192,85150
18663.6,0.00433624,0,14165,84982
18681.1,0.00393537,0,14160,84962
18698.6,0.00353078,0,14130,84802
18716.2,0.00314831,0,14109,84630
18733.7,0.00279319,0,14080,84489
18751.2,0.00245884,0,14066,84393
18768.7,0.00213998,0,14052,84318
18786.3,0.00182707,0,14044,84279
18803.7,0.0015162,0,14037,84211
18821.1,0.00120096,0,14036,84208
18838.6,0.000882871,0,14011,84052
18856,0.000567192,0,13992,83964
18873.4,0.000259361,0,13965,83796
18890.8,-3.60992e-05,0,13930,83584
18908.3,-0.000314251,0,13901,83404
18925.7,-0.000571157,0,13888,83315
18943.1,-0.000801886,0,13868,83214
18960.5,-0.00100477,0,13869,83218
18978,-0.00118168,0,13871,83214
18995.4,-0.00134125,0,13872,83235
19012.8,-0.00142842,0,13875,83252
19030.3,-0.00154885,0,13887,83338
19047.7,-0.00170633,0,13887,83302
19065.1,-0.00202101,0,13879,83272
19082.5,-0.00209684,0,13875,83268
19100,-0.00211097,0,13856,83166
19117.4,-0.00210405,0,13831,82988
19134.8,-0.00202482,0,13810,82881
19152.3,-0.0019287,0,13784,82717
19169.7,-0.00186747,0,13773,82625
19187.1,-0.00180246,0,13752,82516
19204.5,-0.00173855,0,13746,82478
19222,-0.0016554,0,13723,82329
19239.4,-0.00157382,0,13715,82294
19256.8,-0.00148489,0,13712,82244
19274.3,-0.00138258,0,13697,82181
19291.7,-0.0012649,0,13700,82189
19309.1,-0.0011326,0,13699,82176
19326.5,-0.00099113,0,13681,82088
19344,-0.000733388,0,13674,82023
19361.4,-0.000467103,0,13671,82032
19378.8,-0.000236742,0,13678,82048
19396.2,-7.08903e-05,0,13663,82000
19413.7,7.40204e-05,0,13681,82078
19431.1,0.000214797,0,13678,82050
19448.5,0.000366712,0,13680,82062
19466,0.000541059,0,13673,82018
19483.4,0.000736133,0,13646,81858
19500.8,0.000937399,0,13637,81824
19518.2,0.00114025,0,13611,81686
19535.7,0.00134552,0,13589,81520
19553.1,0.00155478,0,13569,81395
19570.5,0.00176735,0,13540,81232
19588,0.00198076,0,13514,81061
19605.4,0.00220038,0,13494,80943
19622.8,0.00243406,0,13461,80777
19640.2,0.00268167,0,13452,80700
19657.8,0.00294522,0,13440,80625
19675.3,0.00322038,0,13402,80429
19692.8,0.00350258,0,13372,80246
19710.4,0.00378616,0,13359,80157
19727.9,0.00406644,0,13342,80056
19745.5,0.00434091,0,13328,79946
19763.1,0.00461124,0,13325,79959
19780.7,0.00487773,0,13318,79914
19798.4,0.0051431,0,13324,79925
19816.2,0.00541196,0,13290,79718
19834,0.00568296,0,13295,79759
19851.8,0.00595605,0,13299,79791
19869.6,0.00623086,0,13307,79821
19887.4,0.00650714,0,13318,79917
19905.2,0.00678506,0,13324,79934
19923.1,0.00706566,0,13300,79785
19940.9,0.00734892,0,13290,79753
19958.5,0.00763131,0,13274,79642
19976.1,0.0079164,0,13255,79534
19993.7,0.00820351,0,13220,79299
