time,surface_elevation,reference_data,number_of_local_cells,number_of_global_cells
0,0,0,81920,524288
16.1487,0,0,81920,524288
24.223,0,0,81920,524288
32.2974,0,0,81920,524288
40.3717,0,0,81920,524288
56.5204,0,0,81920,524288
64.5948,0,0,81920,524288
72.6691,0,0,81920,524288
80.7434,0,0,81920,524288
96.8921,0,0,81920,524288
104.966,0,0,81920,524288
113.041,0,0,81920,524288
121.115,0,0,81920,524288
137.264,0,0,81920,524288
145.338,0,0,81920,524288
153.413,0,0,81920,524288
161.487,0,0,81920,524288
177.636,0,0,81920,524288
185.71,0,0,81920,524288
193.784,0,0,81920,524288
201.859,0,0,81920,524288
218.007,0,0,81920,524288
226.082,0,0,81920,524288
234.156,0,0,81920,524288
242.23,0,0,81920,524288
250.305,0,0,81920,524288
266.453,0,0,81920,524288
274.528,0,0,81920,524288
282.602,0,0,81920,524288
290.676,0,0,81920,524288
306.825,0,0,81920,524288
314.899,0,0,81920,524288
322.974,0,0,81920,524288
331.048,0,0,81920,524288
347.197,0,0,81920,524288
355.271,0,0,81920,524288
363.345,0,0,81920,524288
371.42,0,0,81920,524288
387.569,0,0,81920,524288
395.643,0,0,81920,524288
403.717,0,0,81920,524288
411.792,0,0,81920,524288
427.94,0,0,81920,524288
436.015,0,0,81920,524288
444.089,0,0,81920,524288
452.163,0,0,81920,524288
460.238,0,0,81920,524288
476.386,0,0,81920,524288
484.461,0,0,81920,524288
492.535,0,0,81920,524288
500.609,0,0,81920,524288
516.758,0,0,81920,524288
524.832,0,0,81920,524288
532.907,0,0,81920,524288
540.981,0,0,81920,524288
557.13,0,0,81920,524288
565.204,0,0,81920,524288
573.278,0,0,81920,524288
581.353,0,0,81920,524288
597.501,0,0,81920,524288
605.576,0,0,81920,524288
613.65,0,0,81920,524288
621.724,0,0,81920,524288
637.873,0,0,81920,524288
645.948,0,0,81920,524288
654.022,-9.09495e-13,0,81920,524288
662.096,-9.09495e-13,0,81920,524288
670.171,-9.09495e-13,0,81920,524288
686.319,-9.09495e-13,0,81920,524288
694.394,-9.09495e-13,0,81920,524288
702.468,0,0,81920,524288
710.542,9.09495e-13,0,81920,524288
726.691,9.09495e-13,0,81920,524288
734.765,0,0,81920,524288
742.84,0,0,81920,524288
750.914,0,0,81920,524288
767.063,0,0,81920,524288
775.137,0,0,81920,524288
783.211,0,0,81920,524288
791.285,0,0,81920,524288
807.434,0,0,81920,524288
815.508,0,0,81920,524288
823.583,0,0,81920,524288
831.657,0,0,81920,524288
847.806,0,0,81920,524288
855.88,0,0,81920,524288
863.954,0,0,81920,524288
872.029,0,0,81920,524288
880.103,0,0,81920,524288
896.252,0,0,81920,524288
904.326,0,0,81920,524288
912.4,0,0,81920,524288
920.475,0,0,81920,524288
936.623,0,0,81920,524288
944.698,0,0,81920,524288
952.772,0,0,81920,524288
960.846,0,0,81920,524288
976.995,0,0,81920,524288
985.069,0,0,81920,524288
993.144,0,0,81920,524288
1001.22,0,0,81920,524288
1017.37,0,0,81920,524288
1025.44,0,0,81920,524288
1033.52,0,0,81920,524288
1041.59,0,0,81920,524288
1057.74,0,0,81920,524288
1065.81,0,0,81920,524288
1073.89,0,0,81920,524288
1081.96,0,0,81920,524288
1090.04,0,0,81920,524288
1106.18,0,0,81920,524288
1114.26,0,0,81920,524288
1122.33,0,0,81920,524288
1130.41,0,0,81920,524288
1146.56,0,0,81920,524288
1154.63,0,0,81920,524288
1162.7,0,0,81920,524288
1170.78,0,0,81920,524288
1186.93,0,0,81920,524288
1195,0,0,81920,524288
1203.08,0,0,81920,524288
1211.15,0,0,81920,524288
1227.3,0,0,81920,524288
1235.37,0,0,81920,524288
1243.45,0,0,81920,524288
1251.52,0,0,81920,524288
1267.67,0,0,81920,524288
1275.74,0,0,81920,524288
1283.82,0,0,81920,524288
1291.89,0,0,81920,524288
1308.04,0,0,81920,524288
1316.11,0,0,81920,524288
1324.19,0,0,81920,524288
1332.26,0,0,81920,524288
1340.34,0,0,81920,524288
1356.49,0,0,81920,524288
1364.56,0,0,81920,524288
1372.63,0,0,81920,524288
1380.71,0,0,81920,524288
1396.86,0,0,81920,524288
1404.93,0,0,81920,524288
1413,0,0,81920,524288
1421.08,0,0,81920,524288
1437.23,0,0,81920,524288
1445.3,0,0,81920,524288
1453.37,0,0,81920,524288
1461.45,0,0,81920,524288
1477.6,0,0,81920,524288
1485.67,0,0,81920,524288
1493.75,0,0,81920,524288
1501.82,0,0,81920,524288
1517.97,0,0,81920,524288
1526.04,0,0,81920,524288
1534.12,0,0,81920,524288
1542.19,0,0,81920,524288
1550.26,0,0,81920,524288
1566.41,0,0,81920,524288
1574.49,0,0,81920,524288
1582.56,0,0,81920,524288
1590.63,0,0,81920,524288
1606.78,0,0,81920,524288
1614.86,0,0,81920,524288
1622.93,0,0,81920,524288
1631,0,0,81920,524288
1647.15,0,0,81920,524288
1655.23,0,0,81920,524288
1663.3,0,0,81920,524288
1671.37,0,0,81920,524288
1687.52,0,0,81920,524288
1695.6,0,0,81920,524288
1703.67,0,0,81920,524288
1711.74,0,0,81920,524288
1727.89,0,0,81920,524288
1735.97,0,0,81920,524288
1744.04,0,0,81920,524288
1752.11,0,0,81920,524288
1760.19,0,0,81920,524288
1776.33,0,0,81920,524288
1784.41,0,0,81920,524288
1792.48,0,0,81920,524288
1800.56,0,0,81920,524288
1816.7,0,0,81920,524288
1824.78,0,0,81920,524288
1832.85,0,0,81920,524288
1840.93,0,0,81920,524288
1857.07,0,0,81920,524288
1865.15,0,0,81920,524288
1873.22,0,0,81920,524288
1881.29,0,0,81920,524288
1897.44,0,0,81920,524288
1905.52,0,0,81920,524288
1913.59,0,0,81920,524288
1921.66,0,0,81920,524288
1937.81,0,0,81920,524288
1945.88,0,0,81920,524288
1953.96,-9.09495e-13,0,81920,524288
1962.03,-9.09495e-13,0,81920,524288
1970.11,-9.09495e-13,0,81920,524288
1986.25,-9.09495e-13,0,81920,524288
1994.33,-9.09495e-13,0,81920,524288
2002.4,0,0,81920,524288
2010.47,9.09495e-13,0,81920,524288
2026.62,9.09495e-13,0,81920,524288
2034.7,9.09495e-13,0,81920,524288
2042.77,9.09495e-13,0,81920,524288
2050.84,9.09495e-13,0,81920,524288
2066.99,0,0,81920,524288
2075.06,0,0,81920,524288
2083.14,0,0,81920,524288
2091.21,0,0,81920,524288
2107.36,0,0,81920,524288
2115.43,0,0,81920,524288
2123.51,0,0,81920,524288
2131.58,0,0,81920,524288
2147.73,0,0,81920,524288
2155.8,0,0,81920,524288
2163.87,0,0,81920,524288
2171.95,0,0,81920,524288
2180.02,0,0,81920,524288
2196.17,0,0,81920,524288
2204.24,0,0,81920,524288
2212.32,0,0,81920,524288
2220.39,0,0,81920,524288
2236.54,0,0,81920,524288
2244.61,0,0,81920,524288
2252.69,0,0,81920,524288
2260.76,0,0,81920,524288
2276.91,0,0,81920,524288
2284.98,0,0,81920,524288
2293.06,0,0,81920,524288
2301.13,0,0,81920,524288
2317.28,0,0,81920,524288
2325.35,0,0,81920,524288
2333.42,0,0,81920,524288
2341.5,0,0,81920,524288
2357.65,0,0,81920,524288
2365.72,0,0,81920,524288
2373.79,0,0,81920,524288
2381.87,0,0,81920,524288
2398.02,0,0,81920,524288
2406.09,0,0,81920,524288
2414.16,0,0,81920,524288
2422.24,0,0,81920,524288
2430.31,0,0,81920,524288
2446.46,0,0,81920,524288
2454.54,0,0,81920,524288
2462.61,0,0,81920,524288
2470.68,0,0,81920,524288
2486.83,0,0,81920,524288
2494.91,0,0,81920,524288
2502.98,0,0,81920,524288
2511.05,0,0,81920,524288
2527.2,0,0,81920,524288
2535.28,0,0,81920,524288
2543.35,0,0,81920,524288
2551.43,0,0,81920,524288
2567.57,0,0,81920,524288
2575.65,0,0,81920,524288
2583.72,0,0,81920,524288
2591.8,0,0,81920,524288
2607.95,0,0,81920,524288
2616.02,0,0,81920,524288
2624.1,0,0,81920,524288
2632.17,0,0,81920,524288
2640.24,0,0,81920,524288
2656.39,9.09495e-13,0,81920,524288
2664.47,1.81899e-12,0,81920,524288
2672.54,2.72848e-12,0,81920,524288
2680.62,4.54747e-12,0,81920,524288
2696.76,1.00044e-11,0,81920,524288
2704.84,1.45519e-11,0,81920,524288
2712.91,2.09184e-11,0,81920,524288
2720.99,3.00133e-11,0,81920,524288
2737.14,6.36646e-11,0,81920,524288
2745.21,9.09495e-11,0,81920,524288
2753.28,1.29148e-10,0,81920,524288
2761.36,1.82808e-10,0,81920,524288
2777.51,3.61069e-10,0,81920,524288
2785.58,5.02951e-10,0,81920,524288
2793.66,6.95763e-10,0,81920,524288
2801.73,9.57698e-10,0,81920,524288
2817.88,1.78534e-09,0,81920,524288
2825.95,2.41926e-09,0,81920,524288
2834.03,3.26236e-09,0,81920,524288
2842.1,4.37558e-09,0,81920,524288
2850.18,5.84077e-09,0,81920,524288
2866.32,1.02555e-08,0,81920,524288
2874.4,1.34905e-08,0,81920,524288
2882.47,1.76624e-08,0,81920,524288
2890.55,2.30184e-08,0,81920,524288
2906.7,3.85608e-08,0,81920,524288
2914.77,4.9572e-08,0,81920,524288
2922.84,6.34464e-08,0,81920,524288
2930.92,8.08495e-08,0,81920,524288
2947.07,1.29606e-07,0,81920,524288
2955.14,1.63059e-07,0,81920,524288
2963.22,2.04296e-07,0,81920,524288
2971.29,2.54914e-07,0,81920,524288
2987.44,3.92113e-07,0,81920,524288
2995.51,4.83436e-07,0,81920,524288
3003.59,5.93713e-07,0,81920,524288
3011.66,7.26347e-07,0,81920,524288
3027.81,1.07488e-06,0,81920,524288
3035.88,1.30032e-06,0,81920,524288
3043.96,1.56731e-06,0,81920,524288
3052.03,1.88234e-06,0,81920,524288
3060.11,2.25268e-06,0,81920,524288
3076.26,3.19271e-06,0,81920,524288
3084.33,3.78145e-06,0,81920,524288
3092.4,4.46371e-06,0,81920,524288
3100.48,5.25162e-06,0,81920,524288
3116.63,7.19854e-06,0,81920,524288
3124.7,8.3876e-06,0,81920,524288
3132.78,9.74244e-06,0,81920,524288
3140.85,1.12812e-05,0,81920,524288
3157,1.49891e-05,0,81920,524288
3165.07,1.72007e-05,0,81920,524288
3173.15,1.9681e-05,0,81920,524288
3181.22,2.24544e-05,0,81920,524288
3197.37,2.89824e-05,0,81920,524288
3205.44,3.27907e-05,0,81920,524288
3213.52,3.69991e-05,0,81920,524288
3221.59,4.16364e-05,0,81920,524288
3237.74,5.23162e-05,0,81920,524288
3245.81,5.84188e-05,0,81920,524288
3253.89,6.50703e-05,0,81920,524288
3261.96,7.23011e-05,0,81920,524288
3270.04,8.01411e-05,0,81920,524288
3286.19,9.77675e-05,0,81920,524288
3294.26,0.000107611,0,81920,524288
3302.33,0.000118179,0,81920,524288
3310.41,0.000129497,0,81920,524288
3326.56,0.000154481,0,81920,524288
3334.63,0.000168193,0,81920,524288
3342.71,0.000182745,0,81920,524288
3350.78,0.000198156,0,81920,524288
3366.93,0.000231614,0,81920,524288
3375,0.000249688,0,81920,524288
3383.08,0.000268672,0,81920,524288
3391.15,0.000288572,0,81920,524288
3407.3,0.000331142,0,81920,524288
3415.38,0.000353814,0,81920,524288
3423.45,0.000377411,0,81920,524288
3431.52,0.000401928,0,81920,524288
3447.67,0.000453699,0,81920,524288
3455.75,0.000480938,0,81920,524288
3463.82,0.000509066,0,81920,524288
3471.9,0.000538071,0,81920,524288
3488.04,0.000598667,0,81920,524288
3496.12,0.000630232,0,81920,524288
3504.19,0.000662624,0,81920,524288
3512.27,0.00069583,0,81920,524288
3520.34,0.000729839,0,81920,524288
3536.49,0.00080022,0,81920,524288
3544.56,0.000836575,0,81920,524288
3552.64,0.000873697,0,81920,524288
3560.71,0.000911583,0,81920,524288
3576.86,0.000989652,0,81920,524288
3584.94,0.00102984,0,81920,524288
3593.01,0.00107082,0,81920,524288
3601.08,0.00111261,0,81920,524288
3617.23,0.00119869,0,81920,524288
3625.31,0.00124305,0,81920,524288
3633.38,0.00128835,0,81920,524288
3641.46,0.00133465,0,81920,524288
3657.6,0.00143048,0,81920,524288
3665.68,0.00148018,0,81920,524288
3673.75,0.0015312,0,81920,524288
3681.83,0.00158365,0,81920,524288
3697.98,0.00169344,0,81920,524288
3706.05,0.00175109,0,81920,524288
3714.12,0.00181084,0,81920,524288
3722.2,0.00187292,0,81920,524288
3730.27,0.00193758,0,81920,524288
3746.42,0.00207584,0,81920,524288
3754.5,0.00215015,0,81920,524288
3762.57,0.00222846,0,81920,524288
3770.64,0.00231123,0,81920,524288
3786.79,0.00249239,0,81920,524288
3794.87,0.00259205,0,81920,524288
3802.94,0.00269876,0,81920,524288
3811.02,0.00281337,0,81920,524288
3827.16,0.00307022,0,81920,524288
3835.24,0.00321474,0,81920,524288
3843.31,0.00337171,0,81920,524288
3851.39,0.00354264,0,81920,524288
3867.54,0.00393316,0,81920,524288
3875.61,0.00415662,0,81920,524288
3883.68,0.00440183,0,81920,524288
3891.76,0.00467126,0,81920,524288
3907.91,0.00529405,0,81920,524288
3915.98,0.00565371,0,81920,524288
3924.06,0.00605026,0,81920,524288
3932.13,0.00648764,0,81920,524288
3940.2,0.00697013,0,81920,524288
3956.35,0.00808942,0,81920,524288
3964.43,0.00873669,0,81920,524288
3972.5,0.00945004,0,81920,524288
3980.58,0.0102357,0,81920,524288
3996.72,0.0120515,0,81920,524288
4004.8,0.0130964,0,81920,524288
4012.87,0.0142433,0,81920,524288
4020.95,0.0155006,0,81920,524288
4037.1,0.0183833,0,81920,524288
4045.17,0.020028,0,81920,524288
4053.25,0.0218218,0,81920,524288
4061.32,0.0237754,0,81920,524288
4077.47,0.0282069,0,81920,524288
4085.54,0.0307078,0,81920,524288
4093.62,0.0334147,0,81920,524288
4101.69,0.0363396,0,81920,524288
4117.84,0.0428928,0,81920,524288
4125.91,0.0465458,0,81920,524288
4133.99,0.0504661,0,81920,524288
4142.06,0.0546657,0,81920,524288
4150.14,0.0591566,0,81920,524288
4166.29,0.0690578,0,81920,524288
4174.36,0.0744898,0,81920,524288
4182.43,0.0802561,0,81920,524288
4190.51,0.0863658,0,81920,524288
4206.66,0.0996482,0,81920,524288
4214.73,0.106834,0,81920,524288
4222.81,0.114391,0,81920,524288
4230.88,0.122322,0,81920,524288
4247.03,0.139317,0,81920,524288
4255.1,0.14838,0,81920,524288
4263.18,0.157818,0,81920,524288
4271.25,0.167628,0,81920,524288
4287.4,0.188335,0,81920,524288
4295.47,0.199216,0,81920,524288
4303.55,0.210433,0,81920,524288
4311.62,0.221974,0,81920,524288
4327.77,0.245959,0,81920,524288
4335.85,0.258367,0,81920,524288
4343.92,0.271024,0,81920,524288
4351.99,0.283907,0,81920,524288
4360.07,0.296989,0,81920,524288
4376.22,0.323642,0,81920,524288
4384.29,0.337153,0,81920,524288
4392.37,0.350744,0,81920,524288
4400.44,0.364382,0,81920,524288
4416.59,0.391654,0,81920,524288
4424.66,0.405215,0,81920,524288
4432.74,0.418674,0,81920,524288
4440.81,0.431992,0,81920,524288
4456.96,0.458046,0,81920,524288
4465.04,0.470701,0,81920,524288
4473.11,0.483052,0,81920,524288
4481.18,0.49506,0,81920,524288
4497.33,0.517885,0,81920,524288
4505.41,0.528622,0,81920,524288
4513.48,0.538857,0,81920,524288
4521.56,0.548553,0,81920,524288
4537.7,0.566181,0,81920,524288
4545.78,0.574045,0,81920,524288
4553.85,0.581233,0,81920,524288
4561.93,0.587714,0,81920,524288
4570,0.593459,0,81920,524288
4586.15,0.602641,0,81920,524288
4594.22,0.606032,0,81920,524288
4602.3,0.608595,0,81920,524288
4610.37,0.610314,0,81920,524288
4626.52,0.611162,0,81920,524288
4634.6,0.61027,0,81920,524288
4642.67,0.60849,0,81920,524288
4650.75,0.605818,0,81920,524288
4666.89,0.597794,0,81920,524288
4674.97,0.592446,0,81920,524288
4683.04,0.586215,0,81920,524288
4691.12,0.579109,0,81920,524288
4707.27,0.562321,0,81920,524288
4715.34,0.552668,0,81920,524288
4723.41,0.5422,0,81920,524288
4731.49,0.530937,0,81920,524288
4747.64,0.506119,0,81920,524288
4755.71,0.492615,0,81920,524288
4763.79,0.478419,0,81920,524288
4771.86,0.46356,0,81920,524288
4788.01,0.431983,0,81920,524288
4796.08,0.415332,0,81920,524288
4804.16,0.398155,0,81920,524288
4812.23,0.380487,0,81920,524288
4820.31,0.362366,0,81920,524288
4836.46,0.324921,0,81920,524288
4844.53,0.305676,0,81920,524288
4852.6,0.286136,0,81920,524288
4860.68,0.266343,0,81920,524288
4876.83,0.226156,0,81920,524288
4884.9,0.205844,0,81920,524288
4892.98,0.185441,0,81920,524288
4901.05,0.164987,0,81920,524288
4917.2,0.124083,0,81920,524288
4925.27,0.103711,0,81920,524288
4933.35,0.0834437,0,81920,524288
4941.42,0.0633176,0,81920,524288
4957.57,0.0236322,0,81920,524288
4965.64,0.00414196,0,81920,524288
4973.72,-0.0150693,0,81920,524288
4981.79,-0.0339699,0,81920,524288
4997.94,-0.0707203,0,81920,524288
5006.02,-0.0885139,0,81920,524288
5014.09,-0.105885,0,81920,524288
5022.17,-0.122808,0,81920,524288
5030.24,-0.139262,0,81920,524288
5046.39,-0.170676,0,81920,524288
5054.46,-0.185599,0,81920,524288
5062.54,-0.199978,0,81920,524288
5070.61,-0.213797,0,81920,524288
5086.76,-0.239707,0,81920,524288
5094.83,-0.251778,0,81920,524288
5102.91,-0.263247,0,81920,524288
5110.98,-0.274109,0,81920,524288
5127.13,-0.293995,0,81920,524288
5135.21,-0.303014,0,81920,524288
5143.28,-0.311417,0,81920,524288
5151.35,-0.319204,0,81920,524288
5167.5,-0.332949,0,81920,524288
5175.58,-0.338915,0,81920,524288
5183.65,-0.344287,0,81920,524288
5191.73,-0.349072,0,81920,524288
5207.87,-0.356922,0,81920,524288
5215.95,-0.360008,0,81920,524288
5224.02,-0.362552,0,81920,524288
5232.1,-0.364568,0,81920,524288
5240.17,-0.366069,0,81920,524288
5256.32,-0.367589,0,81920,524288
5264.4,-0.367641,0,81920,524288
5272.47,-0.367244,0,81920,524288
5280.54,-0.366414,0,81920,524288
5296.69,-0.363533,0,81920,524288
5304.77,-0.361519,0,81920,524288
5312.84,-0.359147,0,81920,524288
5320.92,-0.356438,0,81920,524288
5337.06,-0.350084,0,81920,524288
5345.14,-0.346478,0,81920,524288
5353.21,-0.342613,0,81920,524288
5361.29,-0.338507,0,81920,524288
5377.44,-0.329651,0,81920,524288
5385.51,-0.324938,0,81920,524288
5393.58,-0.320061,0,81920,524288
5401.66,-0.315036,0,81920,524288
5417.81,-0.304618,0,81920,524288
5425.88,-0.299259,0,81920,524288
5433.96,-0.293821,0,81920,524288
5442.03,-0.288321,0,81920,524288
5450.1,-0.282774,0,81920,524288
5466.25,-0.271598,0,81920,524288
5474.33,-0.265997,0,81920,524288
5482.4,-0.260404,0,81920,524288
5490.48,-0.254834,0,81920,524288
5506.63,-0.243802,0,81920,524288
5514.7,-0.238364,0,81920,524288
5522.77,-0.23299,0,81920,524288
5530.85,-0.227691,0,81920,524288
5547,-0.217347,0,81920,524288
5555.07,-0.212319,0,81920,524288
5563.15,-0.207396,0,81920,524288
5571.22,-0.202583,0,81920,524288
5587.37,-0.193311,0,81920,524288
5595.44,-0.188862,0,81920,524288
5603.52,-0.184542,0,81920,524288
5611.59,-0.180354,0,81920,524288
5627.74,-0.172386,0,81920,524288
5635.81,-0.16861,0,81920,524288
5643.89,-0.164974,0,81920,524288
5651.96,-0.161478,0,81920,524288
5660.04,-0.158124,0,81920,524288
5676.19,-0.151838,0,81920,524288
5684.26,-0.148905,0,81920,524288
5692.33,-0.14611,0,81920,524288
5700.41,-0.143451,0,81920,524288
5716.56,-0.138535,0,81920,524288
5724.63,-0.136273,0,81920,524288
5732.71,-0.134138,0,81920,524288
5740.78,-0.132127,0,81920,524288
5756.93,-0.128464,0,81920,524288
5765,-0.126804,0,81920,524288
5773.08,-0.125254,0,81920,524288
5781.15,-0.123811,0,81920,524288
5797.3,-0.121225,0,81920,524288
5805.37,-0.120074,0,81920,524288
5813.45,-0.119012,0,81920,524288
5821.52,-0.118035,0,81920,524288
5837.67,-0.116319,0,81920,524288
5845.75,-0.115569,0,81920,524288
5853.82,-0.114887,0,81920,524288
5861.89,-0.114267,0,81920,524288
5878.04,-0.113198,0,81920,524288
5886.12,-0.112739,0,81920,524288
5894.19,-0.112325,0,81920,524288
5902.27,-0.111952,0,81920,524288
5910.34,-0.111615,0,81920,524288
5926.49,-0.111034,0,81920,524288
5934.56,-0.110782,0,81920,524288
5942.64,-0.110551,0,81920,524288
5950.71,-0.110337,0,81920,524288
5966.86,-0.109944,0,81920,524288
5974.93,-0.109759,0,81920,524288
5983.01,-0.109576,0,81920,524288
5991.08,-0.109394,0,81920,524288
6007.23,-0.109017,0,81920,524288
6015.31,-0.108816,0,81920,524288
6023.38,-0.108604,0,81920,524288
6031.45,-0.108377,0,81920,524288
6047.6,-0.107874,0,81920,524288
6055.68,-0.107592,0,81920,524288
6063.75,-0.107287,0,81920,524288
6071.83,-0.106957,0,81920,524288
6087.97,-0.106218,0,81920,524288
6096.05,-0.105806,0,81920,524288
6104.12,-0.105362,0,81920,524288
6112.2,-0.104887,0,81920,524288
6120.27,-0.104379,0,81920,524288
6136.42,-0.10326,0,81920,524288
6144.49,-0.102648,0,81920,524288
6152.57,-0.102,0,81920,524288
6160.64,-0.101315,0,81920,524288
6176.79,-0.0998348,0,81920,524288
6184.86,-0.0990387,0,81920,524288
6192.94,-0.0982052,0,81920,524288
6201.01,-0.0973343,0,81920,524288
6217.16,-0.0954807,0,81920,524288
6225.24,-0.0944986,0,81920,524288
6233.31,-0.09348,0,81920,524288
6241.38,-0.0924254,0,81920,524288
6257.53,-0.0902106,0,81920,524288
6265.61,-0.0890515,0,81920,524288
6273.68,-0.087859,0,81920,524288
6281.75,-0.0866338,0,81920,524288
6297.9,-0.084089,0,81920,524288
6305.98,-0.0827712,0,81920,524288
6314.05,-0.0814244,0,81920,524288
6322.13,-0.0800499,0,81920,524288
6330.2,-0.0786486,0,81920,524288
6346.35,-0.0757702,0,81920,524288
6354.42,-0.0742956,0,81920,524288
6362.5,-0.072799,0,81920,524288
6370.57,-0.0712817,0,81920,524288
6386.72,-0.06819,0,81920,524288
6394.79,-0.0666183,0,81920,524288
6402.87,-0.0650311,0,81920,524288
6410.94,-0.0634298,0,81920,524288
6427.09,-0.0601903,0,81920,524288
6435.16,-0.0585549,0,81920,524288
6443.24,-0.0569108,0,81920,524288
6451.31,-0.0552596,0,81920,524288
6467.46,-0.0519407,0,81920,524288
6475.54,-0.0502759,0,81920,524288
6483.61,-0.0486093,0,81920,524288
6491.68,-0.0469423,0,81920,524288
6507.83,-0.0436121,0,81920,524288
6515.91,-0.0419517,0,81920,524288
6523.98,-0.0402959,0,81920,524288
6532.05,-0.0386463,0,81920,524288
6540.13,-0.0370038,0,81920,524288
6556.28,-0.0337456,0,81920,524288
6564.35,-0.0321321,0,81920,524288
6572.43,-0.0305306,0,81920,524288
6580.5,-0.0289422,0,81920,524288
6596.65,-0.0258088,0,81920,524288
6604.72,-0.0242659,0,81920,524288
6612.8,-0.0227402,0,81920,524288
6620.87,-0.0212326,0,81920,524288
6637.02,-0.0182754,0,81920,524288
6645.09,-0.0168276,0,81920,524288
6653.17,-0.0154014,0,81920,524288
6661.24,-0.0139975,0,81920,524288
6677.39,-0.0112597,0,81920,524288
6685.46,-0.0099272,0,81920,524288
6693.54,-0.00861976,0,81920,524288
6701.61,-0.00733799,0,81920,524288
6717.76,-0.00485361,0,81920,524288
6725.83,-0.003652,0,81920,524288
6733.91,-0.00247803,0,81920,524288
6741.98,-0.0013321,0,81920,524288
6750.06,-0.000214571,0,81920,524288
6766.21,0.00193403,0,81920,524288
6774.28,0.00296456,0,81920,524288
6782.35,0.00396562,0,81920,524288
6790.43,0.00493703,0,81920,524288
6806.58,0.00679038,0,81920,524288
6814.65,0.00767214,0,81920,524288
6822.73,0.0085239,0,81920,524288
6830.8,0.00934566,0,81920,524288
6846.95,0.0108993,0,81920,524288
6855.02,0.0116314,0,81920,524288
6863.1,0.0123338,0,81920,524288
6871.17,0.0130067,0,81920,524288
6887.32,0.0142648,0,81920,524288
6895.39,0.0148504,0,81920,524288
6903.47,0.0154075,0,81920,524288
6911.54,0.0159363,0,81920,524288
6927.69,0.0169105,0,81920,524288
6935.76,0.0173566,0,81920,524288
6943.84,0.017776,0,81920,524288
6951.91,0.0181691,0,81920,524288
6968.06,0.0188781,0,81920,524288
6976.14,0.019195,0,81920,524288
6984.21,0.0194876,0,81920,524288
6992.28,0.0197565,0,81920,524288
7000.36,0.0200021,0,81920,524288
7016.51,0.0204259,0,81920,524288
7024.58,0.0206054,0,81920,524288
7032.66,0.0207642,0,81920,524288
7040.73,0.0209028,0,81920,524288
7056.88,0.0211224,0,81920,524288
7064.95,0.0212047,0,81920,524288
7073.03,0.0212697,0,81920,524288
7081.1,0.0213181,0,81920,524288
7097.25,0.0213678,0,81920,524288
7105.32,0.0213707,0,81920,524288
7113.4,0.0213599,0,81920,524288
7121.47,0.0213362,0,81920,524288
7137.62,0.0212533,0,81920,524288
7145.7,0.0211955,0,81920,524288
7153.77,0.021128,0,81920,524288
7161.84,0.0210515,0,81920,524288
7177.99,0.0208745,0,81920,524288
7186.07,0.0207756,0,81920,524288
7194.14,0.0206709,0,81920,524288
7202.22,0.020561,0,81920,524288
7210.29,0.0204468,0,81920,524288
7226.44,0.0202085,0,81920,524288
7234.51,0.0200858,0,81920,524288
7242.59,0.0199619,0,81920,524288
7250.66,0.0198374,0,81920,524288
7266.81,0.0195895,0,81920,524288
7274.89,0.0194676,0,81920,524288
7282.96,0.0193479,0,81920,524288
7291.03,0.0192311,0,81920,524288
7307.18,0.0190089,0,81920,524288
7315.26,0.0189048,0,81920,524288
7323.33,0.0188062,0,81920,524288
7331.41,0.0187135,0,81920,524288
7347.55,0.0185487,0,81920,524288
7355.63,0.0184775,0,81920,524288
7363.7,0.0184145,0,81920,524288
7371.78,0.0183601,0,81920,524288
7387.93,0.0182793,0,81920,524288
7396,0.0182536,0,81920,524288
7404.07,0.0182383,0,81920,524288
7412.15,0.0182337,0,81920,524288
7420.22,0.0182401,0,81920,524288
7436.37,0.0182873,0,81920,524288
7444.45,0.0183287,0,81920,524288
7452.52,0.0183821,0,81920,524288
7460.59,0.0184479,0,81920,524288
7476.74,0.0186172,0,81920,524288
7484.82,0.018721,0,81920,524288
7492.89,0.0188376,0,81920,524288
7500.97,0.0189672,0,81920,524288
7517.12,0.0192655,0,81920,524288
7525.19,0.0194341,0,81920,524288
7533.26,0.0196158,0,81920,524288
7541.34,0.0198104,0,81920,524288
7557.49,0.0202381,0,81920,524288
7565.56,0.020471,0,81920,524288
7573.64,0.0207164,0,81920,524288
7581.71,0.0209742,0,81920,524288
7597.86,0.0215261,0,81920,524288
7605.93,0.0218198,0,81920,524288
7614.01,0.0221251,0,81920,524288
7622.08,0.0224416,0,81920,524288
7630.16,0.0227692,0,81920,524288
7646.3,0.0234563,0,81920,524288
7654.38,0.0238153,0,81920,524288
7662.45,0.0241841,0,81920,524288
7670.53,0.0245625,0,81920,524288
7686.68,0.0253464,0,81920,524288
7694.75,0.0257514,0,81920,524288
7702.82,0.0261645,0,81920,524288
7710.9,0.0265855,0,81920,524288
7727.05,0.0274495,0,81920,524288
7735.12,0.0278918,0,81920,524288
7743.2,0.0283405,0,81920,524288
7751.27,0.0287952,0,81920,524288
7767.42,0.0297215,0,81920,524288
7775.49,0.0301922,0,81920,524288
7783.57,0.0306677,0,81920,524288
7791.64,0.0311474,0,81920,524288
7807.79,0.0321184,0,81920,524288
7815.86,0.032609,0,81920,524288
7823.94,0.0331026,0,81920,524288
7832.01,0.0335989,0,81920,524288
7840.09,0.0340976,0,81920,524288
7856.24,0.0351009,0,81920,524288
7864.31,0.0356051,0,81920,524288
7872.38,0.0361105,0,81920,524288
7880.46,0.0366168,0,81920,524288
7896.61,0.0376317,0,81920,524288
7904.68,0.0381396,0,81920,524288
7912.76,0.0386477,0,81920,524288
7920.83,0.0391556,0,81920,524288
7936.98,0.0401701,0,81920,524288
7945.05,0.0406763,0,81920,524288
7953.13,0.0411817,0,81920,524288
7961.2,0.041686,0,81920,524288
7977.35,0.0426906,0,81920,524288
7985.42,0.0431906,0,81920,524288
7993.5,0.0436889,0,81920,524288
8001.57,0.0441853,0,81920,524288
8017.72,0.045172,0,81920,524288
8025.8,0.045662,0,81920,524288
8033.87,0.0461496,0,81920,524288
8041.94,0.0466347,0,81920,524288
8050.02,0.0471171,0,81920,524288
8066.17,0.0480733,0,81920,524288
8074.24,0.0485469,0,81920,524288
8082.32,0.0490174,0,81920,524288
8090.39,0.0494845,0,81920,524288
8106.54,0.0504082,0,81920,524288
8114.61,0.0508645,0,81920,524288
8122.69,0.0513169,0,81920,524288
8130.76,0.0517653,0,81920,524288
8146.91,0.0526493,0,81920,524288
8154.98,0.0530846,0,81920,524288
8163.06,0.0535153,0,81920,524288
8171.13,0.053941,0,81920,524288
8187.28,0.0547772,0,81920,524288
8195.36,0.0551872,0,81920,524288
8203.43,0.0555916,0,81920,524288
8211.5,0.05599,0,81920,524288
8227.65,0.0567685,0,81920,524288
8235.73,0.0571481,0,81920,524288
8243.8,0.0575209,0,81920,524288
8251.88,0.0578866,0,81920,524288
8268.02,0.058596,0,81920,524288
8276.1,0.0589391,0,81920,524288
8284.17,0.0592741,0,81920,524288
8292.25,0.0596008,0,81920,524288
8300.32,0.0599189,0,81920,524288
8316.47,0.060528,0,81920,524288
8324.54,0.0608185,0,81920,524288
8332.62,0.0610993,0,81920,524288
8340.69,0.0613699,0,81920,524288
8356.84,0.0618799,0,81920,524288
8364.92,0.0621186,0,81920,524288
8372.99,0.0623461,0,81920,524288
8381.06,0.062562,0,81920,524288
8397.21,0.0629582,0,81920,524288
8405.29,0.0631378,0,81920,524288
8413.36,0.0633048,0,81920,524288
8421.44,0.0634589,0,81920,524288
8437.58,0.063727,0,81920,524288
8445.66,0.0638406,0,81920,524288
8453.73,0.0639403,0,81920,524288
8461.81,0.0640257,0,81920,524288
8477.96,0.0641529,0,81920,524288
8486.03,0.0641942,0,81920,524288
8494.1,0.0642205,0,81920,524288
8502.18,0.0642314,0,81920,524288
8510.25,0.0642269,0,81920,524288
8526.4,0.0641706,0,81920,524288
8534.48,0.0641185,0,81920,524288
8542.55,0.0640503,0,81920,524288
8550.62,0.0639658,0,81920,524288
8566.77,0.0637476,0,81920,524288
8574.85,0.0636136,0,81920,524288
8582.92,0.063463,0,81920,524288
8591,0.0632955,0,81920,524288
8607.14,0.0629102,0,81920,524288
8615.22,0.0626922,0,81920,524288
8623.29,0.0624573,0,81920,524288
8631.37,0.0622054,0,81920,524288
8647.52,0.0616507,0,81920,524288
8655.59,0.0613479,0,81920,524288
8663.66,0.0610282,0,81920,524288
8671.74,0.0606916,0,81920,524288
8687.89,0.0599679,0,81920,524288
8695.96,0.059581,0,81920,524288
8704.04,0.0591773,0,81920,524288
8712.11,0.058757,0,81920,524288
8720.18,0.0583203,0,81920,524288
8736.33,0.0573975,0,81920,524288
8744.41,0.0569116,0,81920,524288
8752.48,0.0564097,0,81920,524288
8760.56,0.0558917,0,81920,524288
8776.7,0.0548081,0,81920,524288
8784.78,0.0542427,0,81920,524288
8792.85,0.0536617,0,81920,524288
8800.93,0.0530653,0,81920,524288
8817.08,0.0518267,0,81920,524288
8825.15,0.0511848,0,81920,524288
8833.22,0.050528,0,81920,524288
8841.3,0.0498564,0,81920,524288
8857.45,0.0484695,0,81920,524288
8865.52,0.0477545,0,81920,524288
8873.6,0.0470253,0,81920,524288
8881.67,0.0462821,0,81920,524288
8897.82,0.0447541,0,81920,524288
8905.89,0.0439696,0,81920,524288
8913.97,0.0431717,0,81920,524288
8922.04,0.0423605,0,81920,524288
8930.12,0.0415363,0,81920,524288
8946.27,0.039849,0,81920,524288
8954.34,0.0389864,0,81920,524288
8962.41,0.0381113,0,81920,524288
8970.49,0.037224,0,81920,524288
8986.64,0.0354134,0,81920,524288
8994.71,0.0344904,0,81920,524288
9002.79,0.033556,0,81920,524288
9010.86,0.0326102,0,81920,524288
9027.01,0.0306858,0,81920,524288
9035.08,0.0297076,0,81920,524288
9043.16,0.0287189,0,81920,524288
9051.23,0.0277202,0,81920,524288
9067.38,0.0256934,0,81920,524288
9075.45,0.0246659,0,81920,524288
9083.53,0.0236293,0,81920,524288
9091.6,0.022584,0,81920,524288
9107.75,0.0204685,0,81920,524288
9115.83,0.0193989,0,81920,524288
9123.9,0.0183219,0,81920,524288
9131.97,0.0172378,0,81920,524288
9140.05,0.0161471,0,81920,524288
9156.2,0.0139472,0,81920,524288
9164.27,0.0128388,0,81920,524288
9172.35,0.0117253,0,81920,524288
9180.42,0.0106072,0,81920,524288
9196.57,0.00835902,0,81920,524288
9204.64,0.00722984,0,81920,524288
9212.72,0.00609792,0,81920,524288
9220.79,0.00496376,0,81920,524288
9236.94,0.00269079,0,81920,524288
9245.01,0.00155303,0,81920,524288
9253.09,0.000415144,0,81920,524288
9261.16,-0.000722318,0,81920,524288
9277.31,-0.00299371,0,81920,524288
9285.39,-0.00412651,0,81920,524288
9293.46,-0.00525658,0,81920,524288
9301.54,-0.00638336,0,81920,524288
9317.68,-0.00862465,0,81920,524288
9325.76,-0.00973796,0,81920,524288
9333.83,-0.0108456,0,81920,524288
9341.91,-0.0119469,0,81920,524288
9358.06,-0.0141284,0,81920,524288
9366.13,-0.0152073,0,81920,524288
9374.2,-0.0162775,0,81920,524288
9382.28,-0.0173385,0,81920,524288
9390.35,-0.0183896,0,81920,524288
9406.5,-0.0204601,0,81920,524288
9414.58,-0.0214784,0,81920,524288
9422.65,-0.0224845,0,81920,524288
9430.72,-0.0234781,0,81920,524288
9446.87,-0.0254253,0,81920,524288
9454.95,-0.026378,0,81920,524288
9463.02,-0.0273161,0,81920,524288
9471.1,-0.0282392,0,81920,524288
9487.24,-0.0300383,0,81920,524288
9495.32,-0.0309136,0,81920,524288
9503.39,-0.0317722,0,81920,524288
9511.47,-0.0326137,0,81920,524288
9527.62,-0.0342441,0,81920,524288
9535.69,-0.0350324,0,81920,524288
9543.76,-0.0358024,0,81920,524288
9551.84,-0.0365538,0,81920,524288
9567.99,-0.0380001,0,81920,524288
9576.06,-0.0386946,0,81920,524288
9584.14,-0.0393697,0,81920,524288
9592.21,-0.0400253,0,81920,524288
9600.28,-0.0406614,0,81920,524288
9616.43,-0.0418744,0,81920,524288
9624.51,-0.0424513,0,81920,524288
9632.58,-0.0430084,0,81920,524288
9640.66,-0.0435457,0,81920,524288
9656.81,-0.0445611,0,81920,524288
9664.88,-0.0450394,0,81920,524288
9672.95,-0.0454981,0,81920,524288
9681.03,-0.0459373,0,81920,524288
9697.18,-0.0467582,0,81920,524288
9705.25,-0.04714,0,81920,524288
9713.33,-0.0475031,0,81920,524288
9721.4,-0.0478476,0,81920,524288
9737.55,-0.0484818,0,81920,524288
9745.62,-0.0487719,0,81920,524288
9753.7,-0.0490444,0,81920,524288
9761.77,-0.0492995,0,81920,524288
9777.92,-0.0497588,0,81920,524288
9785.99,-0.0499636,0,81920,524288
9794.07,-0.0501521,0,81920,524288
9802.14,-0.0503248,0,81920,524288
9810.22,-0.050482,0,81920,524288
9826.37,-0.0507508,0,81920,524288
9834.44,-0.0508632,0,81920,524288
9842.51,-0.0509614,0,81920,524288
9850.59,-0.0510456,0,81920,524288
9866.74,-0.0511735,0,81920,524288
9874.81,-0.0512179,0,81920,524288
9882.89,-0.0512496,0,81920,524288
9890.96,-0.0512691,0,81920,524288
9907.11,-0.0512723,0,81920,524288
9915.18,-0.0512567,0,81920,524288
9923.26,-0.05123,0,81920,524288
9931.33,-0.0511926,0,81920,524288
9947.48,-0.0510864,0,81920,524288
9955.55,-0.0510183,0,81920,524288
9963.63,-0.0509405,0,81920,524288
9971.7,-0.0508532,0,81920,524288
9987.85,-0.0506513,0,81920,524288
9995.93,-0.0505372,0,81920,524288
10004,-0.0504145,0,81920,524288
10012.1,-0.0502835,0,81920,524288
10020.1,-0.0501443,0,81920,524288
10036.3,-0.0498425,0,81920,524288
10044.4,-0.04968,0,81920,524288
10052.4,-0.0495102,0,81920,524288
10060.5,-0.0493331,0,81920,524288
10076.7,-0.0489576,0,81920,524288
10084.7,-0.0487594,0,81920,524288
10092.8,-0.0485545,0,81920,524288
10100.9,-0.0483429,0,81920,524288
10117,-0.0479002,0,81920,524288
10125.1,-0.0476692,0,81920,524288
10133.2,-0.047432,0,81920,524288
10141.3,-0.0471885,0,81920,524288
10157.4,-0.0466833,0,81920,524288
10165.5,-0.0464216,0,81920,524288
10173.6,-0.0461539,0,81920,524288
10181.6,-0.0458804,0,81920,524288
10197.8,-0.0453159,0,81920,524288
10205.9,-0.045025,0,81920,524288
10213.9,-0.0447285,0,81920,524288
10222,-0.0444263,0,81920,524288
10230.1,-0.0441185,0,81920,524288
10246.2,-0.0434863,0,81920,524288
10254.3,-0.0431621,0,81920,524288
10262.4,-0.0428324,0,81920,524288
10270.5,-0.0424974,0,81920,524288
10286.6,-0.0418117,0,81920,524288
10294.7,-0.0414611,0,81920,524288
10302.8,-0.0411053,0,81920,524288
10310.8,-0.0407446,0,81920,524288
10327,-0.0400083,0,81920,524288
10335,-0.0396329,0,81920,524288
10343.1,-0.0392528,0,81920,524288
10351.2,-0.038868,0,81920,524288
10367.3,-0.0380851,0,81920,524288
10375.4,-0.0376871,0,81920,524288
10383.5,-0.0372848,0,81920,524288
10391.6,-0.0368785,0,81920,524288
10407.7,-0.036054,0,81920,524288
10415.8,-0.0356361,0,81920,524288
10423.9,-0.0352145,0,81920,524288
10431.9,-0.0347895,0,81920,524288
10440,-0.0343612,0,81920,524288
10456.2,-0.0334952,0,81920,524288
10464.2,-0.0330579,0,81920,524288
10472.3,-0.0326178,0,81920,524288
10480.4,-0.0321752,0,81920,524288
10496.5,-0.031283,0,81920,524288
10504.6,-0.0308338,0,81920,524288
10512.7,-0.0303827,0,81920,524288
10520.8,-0.02993,0,81920,524288
10536.9,-0.0290203,0,81920,524288
10545,-0.0285637,0,81920,524288
10553.1,-0.0281062,0,81920,524288
10561.1,-0.0276479,0,81920,524288
10577.3,-0.02673,0,81920,524288
10585.4,-0.0262708,0,81920,524288
10593.4,-0.0258116,0,81920,524288
10601.5,-0.0253526,0,81920,524288
10617.6,-0.0244362,0,81920,524288
10625.7,-0.0239792,0,81920,524288
10633.8,-0.0235232,0,81920,524288
10641.9,-0.0230683,0,81920,524288
10658,-0.0221631,0,81920,524288
10666.1,-0.0217131,0,81920,524288
10674.2,-0.021265,0,81920,524288
10682.2,-0.0208191,0,81920,524288
10690.3,-0.0203755,0,81920,524288
10706.5,-0.019496,0,81920,524288
10714.5,-0.0190604,0,81920,524288
10722.6,-0.0186279,0,81920,524288
10730.7,-0.0181985,0,81920,524288
10746.8,-0.0173499,0,81920,524288
10754.9,-0.0169309,0,81920,524288
10763,-0.0165158,0,81920,524288
10771.1,-0.0161045,0,81920,524288
10787.2,-0.0152944,0,81920,524288
10795.3,-0.0148957,0,81920,524288
10803.4,-0.0145015,0,81920,524288
10811.4,-0.0141119,0,81920,524288
10827.6,-0.0133467,0,81920,524288
10835.7,-0.0129714,0,81920,524288
10843.7,-0.0126011,0,81920,524288
10851.8,-0.0122359,0,81920,524288
10868,-0.0115209,0,81920,524288
10876,-0.0111714,0,81920,524288
10884.1,-0.0108272,0,81920,524288
10892.2,-0.0104885,0,81920,524288
10900.3,-0.0101554,0,81920,524288
10916.4,-0.00950576,0,81920,524288
10924.5,-0.00918943,0,81920,524288
10932.5,-0.00887879,0,81920,524288
10940.6,-0.00857388,0,81920,524288
10956.8,-0.00798136,0,81920,524288
10964.8,-0.00769379,0,81920,524288
10972.9,-0.00741202,0,81920,524288
10981,-0.00713608,0,81920,524288
10997.1,-0.00660164,0,81920,524288
11005.2,-0.00634313,0,81920,524288
11013.3,-0.00609042,0,81920,524288
11021.4,-0.00584348,0,81920,524288
11037.5,-0.00536685,0,81920,524288
11045.6,-0.00513709,0,81920,524288
11053.7,-0.004913,0,81920,524288
11061.7,-0.00469452,0,81920,524288
11077.9,-0.00427426,0,81920,524288
11086,-0.00407236,0,81920,524288
11094,-0.00387589,0,81920,524288
11102.1,-0.00368477,0,81920,524288
11110.2,-0.00349895,0,81920,524288
11126.3,-0.00314293,0,81920,524288
11134.4,-0.00297259,0,81920,524288
11142.5,-0.00280725,0,81920,524288
11150.6,-0.00264684,0,81920,524288
11166.7,-0.00234049,0,81920,524288
11174.8,-0.00219437,0,81920,524288
11182.8,-0.00205284,0,81920,524288
11190.9,-0.00191581,0,81920,524288
11207.1,-0.00165485,0,81920,524288
11215.1,-0.00153074,0,81920,524288
11223.2,-0.00141074,0,81920,524288
11231.3,-0.00129476,0,81920,524288
11247.4,-0.00107445,0,81920,524288
11255.5,-0.000969924,0,81920,524288
11263.6,-0.00086901,0,81920,524288
11271.7,-0.000771612,0,81920,524288
11287.8,-0.00058696,0,81920,524288
11295.9,-0.000499507,0,81920,524288
11304,-0.000415171,0,81920,524288
11312,-0.000333856,0,81920,524288
11320.1,-0.000255466,0,81920,524288
11336.3,-0.000107083,0,81920,524288
11344.3,-3.69079e-05,0,81920,524288
11352.4,3.07072e-05,0,81920,524288
11360.5,9.58481e-05,0,81920,524288
11376.6,0.000219035,0,81920,524288
11384.7,0.000277237,0,81920,524288
11392.8,0.000333277,0,81920,524288
11400.9,0.000387224,0,81920,524288
11417,0.000489096,0,81920,524288
11425.1,0.000537141,0,81920,524288
11433.2,0.000583329,0,81920,524288
11441.2,0.00062771,0,81920,524288
11457.4,0.000711216,0,81920,524288
11465.4,0.000750414,0,81920,524288
11473.5,0.000787946,0,81920,524288
11481.6,0.000823837,0,81920,524288
11497.7,0.000890755,0,81920,524288
11505.8,0.000921799,0,81920,524288
11513.9,0.000951235,0,81920,524288
11522,0.000979058,0,81920,524288
11530,0.00100525,0,81920,524288
11546.2,0.00105269,0,81920,524288
11554.3,0.00107388,0,81920,524288
11562.3,0.00109333,0,81920,524288
11570.4,0.00111101,0,81920,524288
11586.6,0.00114084,0,81920,524288
11594.6,0.00115288,0,81920,524288
11602.7,0.00116292,0,81920,524288
11610.8,0.00117088,0,81920,524288
11626.9,0.00118027,0,81920,524288
11635,0.00118153,0,81920,524288
11643.1,0.00118037,0,81920,524288
11651.2,0.0011767,0,81920,524288
11667.3,0.00116142,0,81920,524288
11675.4,0.00114958,0,81920,524288
11683.5,0.0011348,0,81920,524288
11691.5,0.00111696,0,81920,524288
11707.7,0.00107157,0,81920,524288
11715.8,0.00104378,0,81920,524288
11723.8,0.00101242,0,81920,524288
11731.9,0.00097735,0,81920,524288
11748,0.000895548,0,81920,524288
11756.1,0.000848542,0,81920,524288
11764.2,0.00079728,0,81920,524288
11772.3,0.000741624,0,81920,524288
11780.3,0.000681434,0,81920,524288
11796.5,0.0005469,0,81920,524288
11804.6,0.00047228,0,81920,524288
11812.6,0.000392577,0,81920,524288
11820.7,0.000307658,0,81920,524288
11836.9,0.000121651,0,81920,524288
11844.9,2.03087e-05,0,81920,524288
11853,-8.67549e-05,0,81920,524288
11861.1,-0.000199658,0,81920,524288
11877.2,-0.000443427,0,81920,524288
11885.3,-0.000574505,0,81920,524288
11893.4,-0.000711843,0,81920,524288
11901.5,-0.000855533,0,81920,524288
11917.6,-0.0011623,0,81920,524288
11925.7,-0.00132553,0,81920,524288
11933.8,-0.00149541,0,81920,524288
11941.8,-0.00167199,0,81920,524288
11958,-0.00204547,0,81920,524288
11966.1,-0.00224243,0,81920,524288
11974.1,-0.00244624,0,81920,524288
11982.2,-0.00265692,0,81920,524288
11990.3,-0.00287446,0,81920,524288
12006.4,-0.00333013,0,81920,524288
12014.5,-0.00356822,0,81920,524288
12022.6,-0.0038131,0,81920,524288
12030.6,-0.00406473,0,81920,524288
12046.8,-0.00458802,0,81920,524288
12054.9,-0.00485954,0,81920,524288
12062.9,-0.00513753,0,81920,524288
12071,-0.00542191,0,81920,524288
12087.2,-0.0060094,0,81920,524288
12095.2,-0.00631228,0,81920,524288
12103.3,-0.00662106,0,81920,524288
12111.4,-0.00693561,0,81920,524288
12127.5,-0.00758142,0,81920,524288
12135.6,-0.00791233,0,81920,524288
12143.7,-0.00824836,0,81920,524288
12151.8,-0.0085893,0,81920,524288
12167.9,-0.00928518,0,81920,524288
12176,-0.00963969,0,81920,524288
12184.1,-0.00999829,0,81920,524288
12192.1,-0.0103608,0,81920,524288
12200.2,-0.0107269,0,81920,524288
12216.4,-0.0114691,0,81920,524288
12224.4,-0.0118447,0,81920,524288
12232.5,-0.0122229,0,81920,524288
12240.6,-0.0126035,0,81920,524288
12256.7,-0.0133709,0,81920,524288
12264.8,-0.0137572,0,81920,524288
12272.9,-0.0141447,0,81920,524288
12280.9,-0.0145334,0,81920,524288
12297.1,-0.0153127,0,81920,524288
12305.2,-0.0157028,0,81920,524288
12313.2,-0.0160929,0,81920,524288
12321.3,-0.0164826,0,81920,524288
12337.5,-0.01726,0,81920,524288
12345.5,-0.0176471,0,81920,524288
12353.6,-0.0180328,0,81920,524288
12361.7,-0.0184168,0,81920,524288
12377.8,-0.0191787,0,81920,524288
12385.9,-0.019556,0,81920,524288
12394,-0.0199306,0,81920,524288
12402.1,-0.0203022,0,81920,524288
12410.1,-0.0206706,0,81920,524288
12426.3,-0.0213967,0,81920,524288
12434.4,-0.021754,0,81920,524288
12442.4,-0.0221072,0,81920,524288
12450.5,-0.022456,0,81920,524288
12466.7,-0.0231396,0,81920,524288
12474.7,-0.0234741,0,81920,524288
12482.8,-0.0238035,0,81920,524288
12490.9,-0.0241276,0,81920,524288
12507,-0.0247591,0,81920,524288
12515.1,-0.0250662,0,81920,524288
12523.2,-0.0253674,0,81920,524288
12531.3,-0.0256625,0,81920,524288
12547.4,-0.0262341,0,81920,524288
12555.5,-0.0265103,0,81920,524288
12563.6,-0.02678,0,81920,524288
12571.6,-0.0270431,0,81920,524288
12587.8,-0.0275491,0,81920,524288
12595.8,-0.0277919,0,81920,524288
12603.9,-0.0280278,0,81920,524288
12612,-0.0282568,0,81920,524288
12620.1,-0.0284788,0,81920,524288
12636.2,-0.0289017,0,81920,524288
12644.3,-0.0291026,0,81920,524288
12652.4,-0.0292964,0,81920,524288
12660.4,-0.0294831,0,81920,524288
12676.6,-0.0298354,0,81920,524288
12684.7,-0.030001,0,81920,524288
12692.7,-0.0301595,0,81920,524288
12700.8,-0.030311,0,81920,524288
12717,-0.0305932,0,81920,524288
12725,-0.0307239,0,81920,524288
12733.1,-0.0308478,0,81920,524288
12741.2,-0.0309648,0,81920,524288
12757.3,-0.0311788,0,81920,524288
12765.4,-0.0312757,0,81920,524288
12773.5,-0.0313661,0,81920,524288
12781.6,-0.03145,0,81920,524288
12797.7,-0.0315984,0,81920,524288
12805.8,-0.0316631,0,81920,524288
12813.9,-0.0317216,0,81920,524288
12821.9,-0.0317738,0,81920,524288
12830,-0.03182,0,81920,524288
12846.2,-0.0318942,0,81920,524288
12854.2,-0.0319224,0,81920,524288
12862.3,-0.0319448,0,81920,524288
12870.4,-0.0319613,0,81920,524288
12886.5,-0.0319774,0,81920,524288
12894.6,-0.031977,0,81920,524288
12902.7,-0.0319711,0,81920,524288
12910.7,-0.0319597,0,81920,524288
12926.9,-0.0319207,0,81920,524288
12935,-0.0318932,0,81920,524288
12943,-0.0318604,0,81920,524288
12951.1,-0.0318223,0,81920,524288
12967.3,-0.0317306,0,81920,524288
12975.3,-0.0316771,0,81920,524288
12983.4,-0.0316184,0,81920,524288
12991.5,-0.0315546,0,81920,524288
13007.6,-0.0314118,0,81920,524288
13015.7,-0.0313329,0,81920,524288
13023.8,-0.0312489,0,81920,524288
13031.9,-0.0311598,0,81920,524288
13048,-0.0309667,0,81920,524288
13056.1,-0.0308625,0,81920,524288
13064.2,-0.0307533,0,81920,524288
13072.2,-0.0306389,0,81920,524288
13080.3,-0.0305195,0,81920,524288
13096.5,-0.0302653,0,81920,524288
13104.5,-0.0301304,0,81920,524288
13112.6,-0.0299903,0,81920,524288
13120.7,-0.0298449,0,81920,524288
13136.8,-0.0295382,0,81920,524288
13144.9,-0.0293767,0,81920,524288
13153,-0.0292098,0,81920,524288
13161.1,-0.0290374,0,81920,524288
13177.2,-0.0286759,0,81920,524288
13185.3,-0.0284866,0,81920,524288
13193.3,-0.0282916,0,81920,524288
13201.4,-0.0280908,0,81920,524288
13217.6,-0.0276714,0,81920,524288
13225.6,-0.0274527,0,81920,524288
13233.7,-0.0272279,0,81920,524288
13241.8,-0.026997,0,81920,524288
13257.9,-0.0265163,0,81920,524288
13266,-0.0262664,0,81920,524288
13274.1,-0.0260101,0,81920,524288
13282.2,-0.0257472,0,81920,524288
13290.2,-0.0254777,0,81920,524288
13306.4,-0.0249186,0,81920,524288
13314.5,-0.0246288,0,81920,524288
13322.5,-0.0243321,0,81920,524288
13330.6,-0.0240285,0,81920,524288
13346.8,-0.0234001,0,81920,524288
13354.8,-0.0230751,0,81920,524288
13362.9,-0.022743,0,81920,524288
13371,-0.0224035,0,81920,524288
13387.1,-0.0217025,0,81920,524288
13395.2,-0.0213409,0,81920,524288
13403.3,-0.0209717,0,81920,524288
13411.4,-0.020595,0,81920,524288
13427.5,-0.0198189,0,81920,524288
13435.6,-0.0194193,0,81920,524288
13443.7,-0.0190121,0,81920,524288
13451.7,-0.0185971,0,81920,524288
13467.9,-0.017744,0,81920,524288
13476,-0.0173058,0,81920,524288
13484,-0.0168599,0,81920,524288
13492.1,-0.0164061,0,81920,524288
13500.2,-0.0159446,0,81920,524288
13516.3,-0.0149984,0,81920,524288
13524.4,-0.0145136,0,81920,524288
13532.5,-0.0140211,0,81920,524288
13540.5,-0.013521,0,81920,524288
13556.7,-0.0124978,0,81920,524288
13564.8,-0.0119748,0,81920,524288
13572.8,-0.0114443,0,81920,524288
13580.9,-0.0109064,0,81920,524288
13597.1,-0.00980838,0,81920,524288
13605.1,-0.00924846,0,81920,524288
13613.2,-0.00868137,0,81920,524288
13621.3,-0.0081072,0,81920,524288
13637.4,-0.00693795,0,81920,524288
13645.5,-0.00634308,0,81920,524288
13653.6,-0.00574153,0,81920,524288
13661.7,-0.0051334,0,81920,524288
13677.8,-0.00389792,0,81920,524288
13685.9,-0.00327083,0,81920,524288
13694,-0.00263768,0,81920,524288
13702,-0.00199862,0,81920,524288
13710.1,-0.00135379,0,81920,524288
13726.3,-4.74647e-05,0,81920,524288
13734.3,0.00061371,0,81920,524288
13742.4,0.00128,0,81920,524288
13750.5,0.00195124,0,81920,524288
13766.6,0.00330782,0,81920,524288
13774.7,0.00399278,0,81920,524288
13782.8,0.00468195,0,81920,524288
13790.9,0.00537512,0,81920,524288
13807,0.00677264,0,81920,524288
13815.1,0.00747658,0,81920,524288
13823.1,0.00818368,0,81920,524288
13831.2,0.00889374,0,81920,524288
13847.4,0.0103218,0,81920,524288
13855.4,0.0110394,0,81920,524288
13863.5,0.011759,0,81920,524288
13871.6,0.0124804,0,81920,524288
13887.7,0.0139278,0,81920,524288
13895.8,0.0146532,0,81920,524288
13903.9,0.0153795,0,81920,524288
13912,0.0161064,0,81920,524288
13920,0.0168337,0,81920,524288
13936.2,0.0182884,0,81920,524288
13944.3,0.0190152,0,81920,524288
13952.3,0.0197415,0,81920,524288
13960.4,0.0204668,0,81920,524288
13976.6,0.0219138,0,81920,524288
13984.6,0.0226349,0,81920,524288
13992.7,0.0233541,0,81920,524288
14000.8,0.0240712,0,81920,524288
14016.9,0.0254978,0,81920,524288
14025,0.0262068,0,81920,524288
14033.1,0.0269127,0,81920,524288
14041.2,0.0276151,0,81920,524288
14057.3,0.0290087,0,81920,524288
14065.4,0.0296993,0,81920,524288
14073.5,0.0303855,0,81920,524288
14081.5,0.031067,0,81920,524288
14097.7,0.0324151,0,81920,524288
14105.7,0.0330811,0,81920,524288
14113.8,0.0337415,0,81920,524288
14121.9,0.034396,0,81920,524288
14138,0.0356865,0,81920,524288
14146.1,0.0363221,0,81920,524288
14154.2,0.0369508,0,81920,524288
14162.3,0.0375725,0,81920,524288
14170.3,0.038187,0,81920,524288
14186.5,0.0393936,0,81920,524288
14194.6,0.0399851,0,81920,524288
14202.6,0.0405687,0,81920,524288
14210.7,0.0411439,0,81920,524288
14226.9,0.042269,0,81920,524288
14234.9,0.0428183,0,81920,524288
14243,0.0433587,0,81920,524288
14251.1,0.0438898,0,81920,524288
14267.2,0.0449239,0,81920,524288
14275.3,0.0454265,0,81920,524288
14283.4,0.0459192,0,81920,524288
14291.5,0.0464019,0,81920,524288
14307.6,0.0473367,0,81920,524288
14315.7,0.0477886,0,81920,524288
14323.8,0.0482298,0,81920,524288
14331.8,0.0486604,0,81920,524288
14348,0.0494889,0,81920,524288
14356.1,0.0498866,0,81920,524288
14364.1,0.0502732,0,81920,524288
14372.2,0.0506485,0,81920,524288
14380.3,0.0510124,0,81920,524288
14396.4,0.0517059,0,81920,524288
14404.5,0.0520353,0,81920,524288
14412.6,0.052353,0,81920,524288
14420.6,0.0526589,0,81920,524288
14436.8,0.0532354,0,81920,524288
14444.9,0.0535058,0,81920,524288
14452.9,0.0537642,0,81920,524288
14461,0.0540107,0,81920,524288
14477.2,0.0544676,0,81920,524288
14485.2,0.054678,0,81920,524288
14493.3,0.0548763,0,81920,524288
14501.4,0.0550626,0,81920,524288
14517.5,0.055399,0,81920,524288
14525.6,0.0555491,0,81920,524288
14533.7,0.0556872,0,81920,524288
14541.8,0.0558133,0,81920,524288
14557.9,0.0560298,0,81920,524288
14566,0.0561202,0,81920,524288
14574.1,0.0561987,0,81920,524288
14582.1,0.0562656,0,81920,524288
14590.2,0.0563207,0,81920,524288
14606.4,0.0563961,0,81920,524288
14614.4,0.0564165,0,81920,524288
14622.5,0.0564256,0,81920,524288
14630.6,0.0564233,0,81920,524288
14646.7,0.0563853,0,81920,524288
14654.8,0.0563497,0,81920,524288
14662.9,0.0563032,0,81920,524288
14671,0.0562459,0,81920,524288
14687.1,0.0560995,0,81920,524288
14695.2,0.0560107,0,81920,524288
14703.2,0.0559115,0,81920,524288
14711.3,0.0558022,0,81920,524288
14727.5,0.0555537,0,81920,524288
14735.5,0.0554149,0,81920,524288
14743.6,0.0552664,0,81920,524288
14751.7,0.0551085,0,81920,524288
14767.8,0.0547651,0,81920,524288
14775.9,0.0545799,0,81920,524288
14784,0.0543859,0,81920,524288
14792.1,0.0541832,0,81920,524288
14800.1,0.0539721,0,81920,524288
14816.3,0.0535252,0,81920,524288
14824.4,0.0532896,0,81920,524288
14832.4,0.0530463,0,81920,524288
14840.5,0.0527953,0,81920,524288
14856.7,0.0522712,0,81920,524288
14864.7,0.0519983,0,81920,524288
14872.8,0.0517185,0,81920,524288
14880.9,0.0514318,0,81920,524288
14897,0.0508388,0,81920,524288
14905.1,0.0505327,0,81920,524288
14913.2,0.0502205,0,81920,524288
14921.3,0.0499022,0,81920,524288
14937.4,0.0492484,0,81920,524288
14945.5,0.0489131,0,81920,524288
14953.6,0.0485724,0,81920,524288
14961.6,0.0482265,0,81920,524288
14977.8,0.0475195,0,81920,524288
14985.9,0.0471587,0,81920,524288
14993.9,0.0467932,0,81920,524288
15002,0.0464232,0,81920,524288
15010.1,0.0460487,0,81920,524288
15026.2,0.0452869,0,81920,524288
15034.3,0.0448998,0,81920,524288
15042.4,0.0445088,0,81920,524288
15050.4,0.0441139,0,81920,524288
15066.6,0.0433128,0,81920,524288
15074.7,0.0429069,0,81920,524288
15082.7,0.0424975,0,81920,524288
15090.8,0.0420847,0,81920,524288
15107,0.0412491,0,81920,524288
15115,0.0408265,0,81920,524288
15123.1,0.0404008,0,81920,524288
15131.2,0.039972,0,81920,524288
15147.3,0.0391056,0,81920,524288
15155.4,0.038668,0,81920,524288
15163.5,0.0382275,0,81920,524288
15171.6,0.0377842,0,81920,524288
15187.7,0.0368893,0,81920,524288
15195.8,0.0364378,0,81920,524288
15203.9,0.0359836,0,81920,524288
15211.9,0.0355267,0,81920,524288
15220,0.0350672,0,81920,524288
15236.2,0.0341402,0,81920,524288
15244.2,0.0336728,0,81920,524288
15252.3,0.0332027,0,81920,524288
15260.4,0.0327301,0,81920,524288
15276.5,0.031777,0,81920,524288
15284.6,0.0312965,0,81920,524288
15292.7,0.0308134,0,81920,524288
15300.7,0.0303277,0,81920,524288
15316.9,0.0293484,0,81920,524288
15325,0.0288549,0,81920,524288
15333,0.0283586,0,81920,524288
15341.1,0.0278597,0,81920,524288
15357.3,0.0268539,0,81920,524288
15365.3,0.026347,0,81920,524288
15373.4,0.0258373,0,81920,524288
15381.5,0.025325,0,81920,524288
15397.6,0.0242922,0,81920,524288
15405.7,0.0237717,0,81920,524288
15413.8,0.0232485,0,81920,524288
15421.9,0.0227226,0,81920,524288
15438,0.0216627,0,81920,524288
15446.1,0.0211286,0,81920,524288
15454.2,0.0205919,0,81920,524288
15462.2,0.0200524,0,81920,524288
15470.3,0.0195103,0,81920,524288
15486.5,0.0184182,0,81920,524288
15494.5,0.0178682,0,81920,524288
15502.6,0.0173157,0,81920,524288
15510.7,0.0167606,0,81920,524288
15526.8,0.0156429,0,81920,524288
15534.9,0.0150805,0,81920,524288
15543,0.0145156,0,81920,524288
15551.1,0.0139485,0,81920,524288
15567.2,0.0128075,0,81920,524288
15575.3,0.0122338,0,81920,524288
15583.4,0.0116581,0,81920,524288
15591.4,0.0110803,0,81920,524288
15607.6,0.00991928,0,81920,524288
15615.6,0.00933613,0,81920,524288
15623.7,0.00875136,0,81920,524288
15631.8,0.00816507,0,81920,524288
15647.9,0.00698833,0,81920,524288
15656,0.0063981,0,81920,524288
15664.1,0.00580679,0,81920,524288
15672.2,0.00521451,0,81920,524288
15680.2,0.00462139,0,81920,524288
15696.4,0.00343312,0,81920,524288
15704.5,0.00283825,0,81920,524288
15712.5,0.00224306,0,81920,524288
15720.6,0.0016477,0,81920,524288
15736.8,0.00045703,0,81920,524288
15744.8,-0.000137982,0,81920,524288
15752.9,-0.000732578,0,81920,524288
15761,-0.00132661,0,81920,524288
15777.1,-0.00251234,0,81920,524288
15785.2,-0.00310373,0,81920,524288
15793.3,-0.00369393,0,81920,524288
15801.4,-0.00428277,0,81920,524288
15817.5,-0.00545576,0,81920,524288
15825.6,-0.00603958,0,81920,524288
15833.7,-0.00662141,0,81920,524288
15841.7,-0.00720108,0,81920,524288
15857.9,-0.00835334,0,81920,524288
15866,-0.0089256,0,81920,524288
15874,-0.00949508,0,81920,524288
15882.1,-0.0100616,0,81920,524288
15890.2,-0.0106251,0,81920,524288
15906.3,-0.0117422,0,81920,524288
15914.4,-0.0122955,0,81920,524288
15922.5,-0.0128451,0,81920,524288
15930.5,-0.013391,0,81920,524288
15946.7,-0.0144707,0,81920,524288
15954.8,-0.0150044,0,81920,524288
15962.8,-0.0155337,0,81920,524288
15970.9,-0.0160586,0,81920,524288
15987.1,-0.0170947,0,81920,524288
15995.1,-0.0176057,0,81920,524288
16003.2,-0.0181118,0,81920,524288
16011.3,-0.0186129,0,81920,524288
16027.4,-0.0196001,0,81920,524288
16035.5,-0.0200859,0,81920,524288
16043.6,-0.0205664,0,81920,524288
16051.7,-0.0210416,0,81920,524288
16067.8,-0.0219759,0,81920,524288
16075.9,-0.0224348,0,81920,524288
16084,-0.0228881,0,81920,524288
16092,-0.023336,0,81920,524288
16100.1,-0.0237782,0,81920,524288
16116.3,-0.0246457,0,81920,524288
16124.3,-0.025071,0,81920,524288
16132.4,-0.0254907,0,81920,524288
16140.5,-0.0259047,0,81920,524288
16156.6,-0.0267158,0,81920,524288
16164.7,-0.027113,0,81920,524288
16172.8,-0.0275045,0,81920,524288
16180.9,-0.0278905,0,81920,524288
16197,-0.0286459,0,81920,524288
16205.1,-0.0290154,0,81920,524288
16213.1,-0.0293795,0,81920,524288
16221.2,-0.0297383,0,81920,524288
16237.4,-0.0304401,0,81920,524288
16245.4,-0.0307832,0,81920,524288
16253.5,-0.0311212,0,81920,524288
16261.6,-0.0314542,0,81920,524288
16277.7,-0.0321056,0,81920,524288
16285.8,-0.032424,0,81920,524288
16293.9,-0.0327378,0,81920,524288
16302,-0.033047,0,81920,524288
16310,-0.0333516,0,81920,524288
16326.2,-0.0339478,0,81920,524288
16334.3,-0.0342395,0,81920,524288
16342.3,-0.0345271,0,81920,524288
16350.4,-0.0348106,0,81920,524288
16366.6,-0.0353659,0,81920,524288
16374.6,-0.0356379,0,81920,524288
16382.7,-0.0359062,0,81920,524288
16390.8,-0.036171,0,81920,524288
16406.9,-0.0366902,0,81920,524288
16415,-0.0369449,0,81920,524288
16423.1,-0.0371963,0,81920,524288
16431.2,-0.0374447,0,81920,524288
16447.3,-0.0379324,0,81920,524288
16455.4,-0.0381719,0,81920,524288
16463.5,-0.0384086,0,81920,524288
16471.5,-0.0386426,0,81920,524288
16487.7,-0.0391028,0,81920,524288
16495.7,-0.039329,0,81920,524288
16503.8,-0.0395528,0,81920,524288
16511.9,-0.0397741,0,81920,524288
16528,-0.0402097,0,81920,524288
16536.1,-0.0404241,0,81920,524288
16544.2,-0.0406361,0,81920,524288
16552.3,-0.0408459,0,81920,524288
16560.3,-0.0410535,0,81920,524288
16576.5,-0.0414621,0,81920,524288
16584.6,-0.041663,0,81920,524288
16592.6,-0.0418618,0,81920,524288
16600.7,-0.0420583,0,81920,524288
16616.9,-0.0424446,0,81920,524288
16624.9,-0.0426343,0,81920,524288
16633,-0.0428216,0,81920,524288
16641.1,-0.0430066,0,81920,524288
16657.2,-0.0433693,0,81920,524288
16665.3,-0.0435468,0,81920,524288
16673.4,-0.0437217,0,81920,524288
16681.5,-0.043894,0,81920,524288
16697.6,-0.04423,0,81920,524288
16705.7,-0.0443936,0,81920,524288
16713.8,-0.0445542,0,81920,524288
16721.8,-0.0447116,0,81920,524288
16738,-0.0450164,0,81920,524288
16746.1,-0.0451636,0,81920,524288
16754.1,-0.0453072,0,81920,524288
16762.2,-0.045447,0,81920,524288
16770.3,-0.0455828,0,81920,524288
16786.4,-0.0458422,0,81920,524288
16794.5,-0.0459654,0,81920,524288
16802.6,-0.0460841,0,81920,524288
16810.6,-0.046198,0,81920,524288
16826.8,-0.0464113,0,81920,524288
16834.9,-0.0465102,0,81920,524288
16842.9,-0.0466038,0,81920,524288
16851,-0.0466918,0,81920,524288
16867.2,-0.0468504,0,81920,524288
16875.2,-0.0469207,0,81920,524288
16883.3,-0.0469846,0,81920,524288
16891.4,-0.0470421,0,81920,524288
16907.5,-0.0471369,0,81920,524288
16915.6,-0.0471739,0,81920,524288
16923.7,-0.0472036,0,81920,524288
16931.8,-0.0472258,0,81920,524288
16947.9,-0.0472473,0,81920,524288
16956,-0.0472462,0,81920,524288
16964.1,-0.0472368,0,81920,524288
16972.1,-0.047219,0,81920,524288
16980.2,-0.0471927,0,81920,524288
16996.4,-0.0471137,0,81920,524288
17004.4,-0.0470605,0,81920,524288
17012.5,-0.0469981,0,81920,524288
17020.6,-0.0469263,0,81920,524288
17036.7,-0.0467534,0,81920,524288
17044.8,-0.0466522,0,81920,524288
17052.9,-0.0465408,0,81920,524288
17061,-0.0464191,0,81920,524288
17077.1,-0.0461442,0,81920,524288
17085.2,-0.0459908,0,81920,524288
17093.2,-0.0458265,0,81920,524288
17101.3,-0.0456512,0,81920,524288
17117.5,-0.0452672,0,81920,524288
17125.5,-0.0450582,0,81920,524288
17133.6,-0.0448378,0,81920,524288
17141.7,-0.0446058,0,81920,524288
17157.8,-0.0441068,0,81920,524288
17165.9,-0.0438396,0,81920,524288
17174,-0.0435606,0,81920,524288
17182.1,-0.0432695,0,81920,524288
17190.1,-0.0429665,0,81920,524288
17206.3,-0.0423241,0,81920,524288
17214.4,-0.0419847,0,81920,524288
17222.4,-0.0416332,0,81920,524288
17230.5,-0.0412694,0,81920,524288
17246.7,-0.0405052,0,81920,524288
17254.7,-0.0401048,0,81920,524288
17262.8,-0.0396922,0,81920,524288
17270.9,-0.0392674,0,81920,524288
17287,-0.0383814,0,81920,524288
17295.1,-0.0379203,0,81920,524288
17303.2,-0.0374471,0,81920,524288
17311.3,-0.036962,0,81920,524288
17327.4,-0.0359561,0,81920,524288
17335.5,-0.0354356,0,81920,524288
17343.6,-0.0349034,0,81920,524288
17351.6,-0.0343597,0,81920,524288
17367.8,-0.0332382,0,81920,524288
17375.9,-0.0326606,0,81920,524288
17383.9,-0.032072,0,81920,524288
17392,-0.0314725,0,81920,524288
17400.1,-0.0308624,0,81920,524288
17416.2,-0.0296105,0,81920,524288
17424.3,-0.0289692,0,81920,524288
17432.4,-0.0283178,0,81920,524288
17440.4,-0.0276567,0,81920,524288
17456.6,-0.0263057,0,81920,524288
17464.7,-0.0256163,0,81920,524288
17472.7,-0.024918,0,81920,524288
17480.8,-0.0242109,0,81920,524288
17497,-0.0227716,0,81920,524288
17505,-0.0220398,0,81920,524288
17513.1,-0.0213004,0,81920,524288
17521.2,-0.0205535,0,81920,524288
17537.3,-0.0190384,0,81920,524288
17545.4,-0.0182709,0,81920,524288
17553.5,-0.0174971,0,81920,524288
17561.6,-0.0167172,0,81920,524288
17577.7,-0.0151409,0,81920,524288
17585.8,-0.014345,0,81920,524288
17593.9,-0.0135443,0,81920,524288
17601.9,-0.0127393,0,81920,524288
17610,-0.0119303,0,81920,524288
17626.2,-0.0103014,0,81920,524288
17634.2,-0.00948222,0,81920,524288
17642.3,-0.00866042,0,81920,524288
17650.4,-0.00783632,0,81920,524288
17666.5,-0.00618269,0,81920,524288
17674.6,-0.00535389,0,81920,524288
17682.7,-0.00452426,0,81920,524288
17690.7,-0.00369418,0,81920,524288
17706.9,-0.00203419,0,81920,524288
17715,-0.00120503,0,81920,524288
17723,-0.000376959,0,81920,524288
17731.1,0.000449656,0,81920,524288
17747.3,0.00209695,0,81920,524288
17755.3,0.00291684,0,81920,524288
17763.4,0.00373372,0,81920,524288
17771.5,0.00454719,0,81920,524288
17787.6,0.00616234,0,81920,524288
17795.7,0.00696323,0,81920,524288
17803.8,0.00775916,0,81920,524288
17811.9,0.00854972,0,81920,524288
17828,0.0101132,0,81920,524288
17836.1,0.0108854,0,81920,524288
17844.2,0.0116507,0,81920,524288
17852.2,0.0124087,0,81920,524288
17860.3,0.013159,0,81920,524288
17876.5,0.0146353,0,81920,524288
17884.5,0.0153604,0,81920,524288
17892.6,0.0160765,0,81920,524288
17900.7,0.0167831,0,81920,524288
17916.8,0.0181663,0,81920,524288
17924.9,0.0188423,0,81920,524288
17933,0.0195075,0,81920,524288
17941.1,0.0201614,0,81920,524288
17957.2,0.0214344,0,81920,524288
17965.3,0.0220528,0,81920,524288
17973.4,0.0226588,0,81920,524288
17981.4,0.023252,0,81920,524288
17997.6,0.0243989,0,81920,524288
18005.6,0.024952,0,81920,524288
18013.7,0.0254913,0,81920,524288
18021.8,0.0260164,0,81920,524288
18037.9,0.0270233,0,81920,524288
18046,0.0275045,0,81920,524288
18054.1,0.0279707,0,81920,524288
18062.2,0.0284215,0,81920,524288
18070.2,0.0288569,0,81920,524288
18086.4,0.0296804,0,81920,524288
18094.5,0.0300681,0,81920,524288
18102.5,0.0304397,0,81920,524288
18110.6,0.030795,0,81920,524288
18126.8,0.031456,0,81920,524288
18134.8,0.0317616,0,81920,524288
18142.9,0.0320503,0,81920,524288
18151,0.0323222,0,81920,524288
18167.1,0.0328152,0,81920,524288
18175.2,0.0330362,0,81920,524288
18183.3,0.0332401,0,81920,524288
18191.4,0.033427,0,81920,524288
18207.5,0.0337497,0,81920,524288
18215.6,0.0338855,0,81920,524288
18223.7,0.0340043,0,81920,524288
18231.7,0.0341062,0,81920,524288
18247.9,0.0342597,0,81920,524288
18256,0.0343115,0,81920,524288
18264,0.0343467,0,81920,524288
18272.1,0.0343656,0,81920,524288
18280.2,0.0343682,0,81920,524288
18296.3,0.0343253,0,81920,524288
18304.4,0.0342803,0,81920,524288
18312.5,0.0342197,0,81920,524288
18320.5,0.0341438,0,81920,524288
18336.7,0.0339472,0,81920,524288
18344.8,0.0338268,0,81920,524288
18352.8,0.0336922,0,81920,524288
18360.9,0.0335436,0,81920,524288
18377.1,0.0332055,0,81920,524288
18385.1,0.0330167,0,81920,524288
18393.2,0.032815,0,81920,524288
18401.3,0.032601,0,81920,524288
18417.4,0.0321369,0,81920,524288
18425.5,0.0318876,0,81920,524288
18433.6,0.0316273,0,81920,524288
18441.7,0.0313564,0,81920,524288
18457.8,0.0307843,0,81920,524288
18465.9,0.0304838,0,81920,524288
18474,0.0301743,0,81920,524288
18482,0.0298562,0,81920,524288
18490.1,0.0295298,0,81920,524288
18506.3,0.0288541,0,81920,524288
18514.3,0.0285055,0,81920,524288
18522.4,0.0281504,0,81920,524288
18530.5,0.0277892,0,81920,524288
18546.6,0.0270501,0,81920,524288
18554.7,0.0266731,0,81920,524288
18562.8,0.0262916,0,81920,524288
18570.9,0.0259061,0,81920,524288
18587,0.0251247,0,81920,524288
18595.1,0.0247297,0,81920,524288
18603.1,0.0243322,0,81920,524288
18611.2,0.0239328,0,81920,524288
18627.4,0.0231296,0,81920,524288
18635.4,0.0227267,0,81920,524288
18643.5,0.0223233,0,81920,524288
18651.6,0.0219198,0,81920,524288
18667.7,0.0211141,0,81920,524288
18675.8,0.0207127,0,81920,524288
18683.9,0.0203125,0,81920,524288
18692,0.0199141,0,81920,524288
18700,0.0195176,0,81920,524288
18716.2,0.018732,0,81920,524288
18724.3,0.0183435,0,81920,524288
18732.3,0.0179581,0,81920,524288
18740.4,0.0175762,0,81920,524288
18756.6,0.0168241,0,81920,524288
18764.6,0.0164543,0,81920,524288
18772.7,0.016089,0,81920,524288
18780.8,0.0157285,0,81920,524288
18796.9,0.0150226,0,81920,524288
18805,0.0146776,0,81920,524288
18813.1,0.0143382,0,81920,524288
18821.2,0.0140046,0,81920,524288
18837.3,0.0133554,0,81920,524288
18845.4,0.0130402,0,81920,524288
18853.5,0.0127314,0,81920,524288
18861.5,0.0124292,0,81920,524288
18877.7,0.0118452,0,81920,524288
18885.8,0.0115635,0,81920,524288
18893.8,0.0112889,0,81920,524288
18901.9,0.0110216,0,81920,524288
18918,0.0105088,0,81920,524288
18926.1,0.0102635,0,81920,524288
18934.2,0.0100258,0,81920,524288
18942.3,0.00979575,0,81920,524288
18950.3,0.00957332,0,81920,524288
18966.5,0.0091517,0,81920,524288
18974.6,0.0089526,0,81920,524288
18982.6,0.00876135,0,81920,524288
18990.7,0.00857798,0,81920,524288
19006.9,0.008235,0,81920,524288
19014.9,0.00807542,0,81920,524288
19023,0.00792378,0,81920,524288
19031.1,0.0077801,0,81920,524288
19047.2,0.00751656,0,81920,524288
19055.3,0.00739668,0,81920,524288
19063.4,0.0072847,0,81920,524288
19071.5,0.0071806,0,81920,524288
19087.6,0.00699592,0,81920,524288
19095.7,0.00691526,0,81920,524288
19103.8,0.00684233,0,81920,524288
19111.8,0.00677709,0,81920,524288
19128,0.00666944,0,81920,524288
19136.1,0.00662692,0,81920,524288
19144.1,0.00659184,0,81920,524288
19152.2,0.00656415,0,81920,524288
19160.3,0.00654378,0,81920,524288
19176.4,0.00652464,0,81920,524288
19184.5,0.00652573,0,81920,524288
19192.6,0.0065338,0,81920,524288
19200.7,0.00654878,0,81920,524288
19216.8,0.00659908,0,81920,524288
19224.9,0.00663421,0,81920,524288
19232.9,0.00667586,0,81920,524288
19241,0.00672395,0,81920,524288
19257.2,0.00683899,0,81920,524288
19265.2,0.00690574,0,81920,524288
19273.3,0.00697851,0,81920,524288
19281.4,0.00705718,0,81920,524288
19297.5,0.00723183,0,81920,524288
19305.6,0.00732758,0,81920,524288
19313.7,0.00742881,0,81920,524288
19321.8,0.00753541,0,81920,524288
19337.9,0.00776429,0,81920,524288
19346,0.00788634,0,81920,524288
19354.1,0.00801333,0,81920,524288
19362.1,0.00814515,0,81920,524288
19370.2,0.00828169,0,81920,524288
19386.4,0.00856853,0,81920,524288
19394.4,0.00871861,0,81920,524288
19402.5,0.00887301,0,81920,524288
19410.6,0.00903161,0,81920,524288
19426.7,0.00936105,0,81920,524288
19434.8,0.00953169,0,81920,524288
19442.9,0.00970614,0,81920,524288
19451,0.00988433,0,81920,524288
19467.1,0.0102515,0,81920,524288
19475.2,0.0104404,0,81920,524288
19483.3,0.0106325,0,81920,524288
19491.3,0.010828,0,81920,524288
19507.5,0.0112285,0,81920,524288
19515.5,0.0114334,0,81920,524288
19523.6,0.0116412,0,81920,524288
19531.7,0.0118519,0,81920,524288
19547.8,0.0122816,0,81920,524288
19555.9,0.0125005,0,81920,524288
19564,0.0127219,0,81920,524288
19572.1,0.0129459,0,81920,524288
19580.1,0.0131723,0,81920,524288
19596.3,0.0136322,0,81920,524288
19604.4,0.0138655,0,81920,524288
19612.4,0.0141009,0,81920,524288
19620.5,0.0143385,0,81920,524288
19636.7,0.0148195,0,81920,524288
19644.7,0.0150629,0,81920,524288
19652.8,0.015308,0,81920,524288
19660.9,0.0155549,0,81920,524288
19677,0.0160536,0,81920,524288
19685.1,0.0163052,0,81920,524288
19693.2,0.0165583,0,81920,524288
19701.3,0.0168127,0,81920,524288
19717.4,0.0173253,0,81920,524288
19725.5,0.0175833,0,81920,524288
19733.6,0.0178424,0,81920,524288
19741.6,0.0181024,0,81920,524288
19757.8,0.0186249,0,81920,524288
19765.9,0.0188872,0,81920,524288
19773.9,0.0191501,0,81920,524288
19782,0.0194135,0,81920,524288
19790.1,0.0196773,0,81920,524288
19806.2,0.0202056,0,81920,524288
19814.3,0.02047,0,81920,524288
19822.4,0.0207343,0,81920,524288
19830.4,0.0209986,0,81920,524288
19846.6,0.0215262,0,81920,524288
19854.7,0.0217893,0,81920,524288
19862.7,0.0220519,0,81920,524288
19870.8,0.0223138,0,81920,524288
19887,0.0228349,0,81920,524288
19895,0.0230939,0,81920,524288
19903.1,0.0233517,0,81920,524288
19911.2,0.0236082,0,81920,524288
19927.3,0.0241166,0,81920,524288
19935.4,0.0243682,0,81920,524288
19943.5,0.024618,0,81920,524288
19951.6,0.0248658,0,81920,524288
19967.7,0.0253547,0,81920,524288
19975.8,0.0255956,0,81920,524288
19983.9,0.0258339,0,81920,524288
19991.9,0.0260695,0,81920,524288
