time,surface_elevation,reference_data,number_of_local_cells,number_of_global_cells
0,0,0,36864,228988
10.3361,0,0,36864,230764
20.6589,0,0,40960,238416
30.9302,0,0,40960,242504
41.1586,0,0,40960,243648
51.3241,0,0,40960,245060
61.441,0,0,40960,247458
71.5056,0,0,40960,250672
81.5168,0,0,40960,252614
91.501,0,0,40960,253850
101.446,0,0,40960,255544
111.362,0,0,40960,257586
121.247,0,0,45056,259524
131.104,0,0,45056,260862
140.936,0,0,45056,262348
150.752,0,0,45056,263598
160.545,0,0,45056,265280
170.323,0,0,45056,266908
180.079,0,0,45056,268216
191.764,0,0,45056,269984
201.493,0,0,45056,271288
211.21,0,0,45056,272832
220.918,0,0,45056,274440
230.612,0,0,45056,275436
240.278,0,0,45056,276950
251.847,0,0,45056,278658
261.473,0,0,45056,279872
271.08,0,0,45056,281436
280.674,0,0,45056,282624
290.249,0,0,49152,284290
301.717,0,0,49152,285940
311.272,0,0,49152,287164
320.824,0,0,49152,288638
330.376,0,0,49152,290102
341.837,0,0,49152,291662
351.387,0,0,49152,293208
360.937,0,0,49152,294850
370.487,0,0,49152,296448
380.036,0,0,49152,298096
391.496,0,0,49161,300162
401.046,0,0,49164,301854
410.596,0,0,49173,303084
420.145,0,0,49191,304646
431.605,0,0,49249,307162
441.155,0,0,53409,308836
450.705,0,0,53522,310446
460.254,0,0,53639,311844
471.714,0,0,53814,313822
481.267,0,0,53968,315688
490.829,0,0,54162,317432
500.389,0,0,54364,319304
511.851,0,0,54634,321908
521.409,0,0,54877,323664
530.978,1.81899e-12,0,55159,325242
540.546,6.36646e-12,0,55467,326840
550.115,1.09139e-11,0,55793,328628
561.583,1.81899e-11,0,56229,331002
571.132,2.91038e-11,0,56585,332952
580.682,4.54747e-11,0,56920,334910
590.237,7.18501e-11,0,57274,336738
601.702,1.24601e-10,0,57580,339002
611.256,1.9736e-10,0,57909,340670
620.808,3.065e-10,0,58175,342694
630.36,4.72028e-10,0,58484,344530
641.822,7.80346e-10,0,58804,346590
651.372,1.17234e-09,0,59067,348762
660.923,1.7435e-09,0,59324,350618
670.473,2.56568e-09,0,59676,352758
680.022,3.73802e-09,0,60022,354792
691.482,5.79894e-09,0,60293,356680
701.032,8.27549e-09,0,60442,358642
710.582,1.17034e-08,0,60700,360514
720.131,1.64073e-08,0,60919,362678
731.591,2.43353e-08,0,61322,365174
741.141,3.34949e-08,0,61572,366998
750.691,4.57339e-08,0,61870,369000
760.241,6.1963e-08,0,62113,370848
771.7,8.83265e-08,0,62695,373200
781.25,1.17736e-07,0,63065,375342
790.8,1.55833e-07,0,63352,377712
800.35,2.04842e-07,0,63639,379572
811.809,2.81905e-07,0,64166,381874
821.359,3.65239e-07,0,64593,383944
830.909,4.70242e-07,0,64839,385852
840.459,6.01739e-07,0,65241,387900
850.008,7.65446e-07,0,65531,389862
861.468,1.01396e-06,0,66094,392544
871.018,1.27381e-06,0,66652,394672
880.568,1.59162e-06,0,67008,396638
890.117,1.97829e-06,0,67275,398550
901.577,2.55099e-06,0,67831,400654
911.126,3.13593e-06,0,68140,402778
920.676,3.8366e-06,0,68572,404870
930.226,4.67207e-06,0,68949,407032
941.685,5.88315e-06,0,69530,409460
951.235,7.09503e-06,0,70017,411552
960.785,8.52083e-06,0,70462,413732
970.334,1.01918e-05,0,68767,415452
981.794,1.25698e-05,0,69659,417948
991.343,1.49076e-05,0,70107,420510
1000.89,1.76153e-05,0,70404,422472
1010.44,2.07412e-05,0,70754,424638
1021.9,2.51198e-05,0,71423,427254
1031.45,2.93604e-05,0,71888,429126
1041,3.42093e-05,0,72554,431512
1050.55,3.97427e-05,0,73039,433500
1060.1,4.60468e-05,0,73484,435636
1071.56,5.47401e-05,0,72071,438324
1081.11,6.30037e-05,0,72679,440210
1090.68,7.23088e-05,0,73150,442524
1100.23,8.27894e-05,0,73696,444502
1111.69,9.71913e-05,0,74336,447344
1121.24,0.000110915,0,74963,449438
1130.79,0.000126216,0,75503,451168
1140.35,0.000143273,0,75926,453230
1151.81,0.000166839,0,76557,455690
1161.36,0.000189652,0,77161,457748
1170.91,0.000216701,0,77855,460062
1180.46,0.000276013,0,78421,462472
1190.01,0.000349722,0,78951,464566
1201.47,0.000391347,0,79516,467040
1211.02,0.000430967,0,79924,469074
1220.56,0.000504613,0,80444,471134
1230.11,0.000613,0,77138,473578
1241.57,0.000781782,0,77860,476200
1251.12,0.000885402,0,78445,478480
1260.67,0.00111626,0,79074,480788
1270.22,0.0012548,0,80734,482978
1281.68,0.00179114,0,81380,485484
1291.23,0.00233617,0,80868,487530
1300.78,0.00309069,0,81594,489686
1310.33,0.00471709,0,82220,491996
1321.79,0.00735473,0,82290,494766
1331.34,0.00990005,0,82811,496882
1340.89,0.0126517,0,82927,499088
1350.44,0.0157601,0,83661,501338
1361.9,0.0198626,0,84043,504172
1371.45,0.0234318,0,84422,506488
1381,0.0271788,0,84799,508754
1390.55,0.0310351,0,85187,511110
1400.09,0.0348716,0,85544,513196
1411.55,0.0395097,0,85997,515962
1421.1,0.0435022,0,86297,517898
1430.63,0.0476498,0,86714,520240
1440.17,0.0520817,0,87115,522804
1451.63,0.058013,0,87561,525524
1461.18,0.063703,0,87964,527664
1470.73,0.0703573,0,88342,530038
1480.28,0.0783074,0,88713,532342
1491.69,0.0900679,0,89211,535242
1501.17,0.102273,0,89614,537624
1510.65,0.117232,0,89988,539854
1520.18,0.135617,0,90356,542092
1531.64,0.163012,0,90829,545152
1541.19,0.191022,0,91252,547502
1550.74,0.224419,0,91633,549664
1560.29,0.26376,0,92054,552142
1571.75,0.31944,0,92491,554936
1581.3,0.373248,0,92938,557510
1590.84,0.43392,0,93332,560032
1600.39,0.501368,0,93721,562302
1611.85,0.590783,0,94229,565452
1621.4,0.671687,0,94697,568152
1630.95,0.757545,0,95099,570546
1640.5,0.847357,0,95501,573162
1650.05,0.939965,0,95970,575730
1661.51,1.053,0,96408,578338
1671.06,1.14724,0,96799,580772
1680.59,1.23994,0,97178,583218
1690.12,1.33002,0,97583,585458
1701.58,1.43311,0,98005,588014
1711.11,1.51327,0,98467,590738
1720.61,1.58718,0,98809,592854
1730.14,1.65445,0,99203,595060
1741.58,1.72544,0,99726,598216
1751.13,1.77583,0,100139,600844
1760.64,1.81767,0,100540,603288
1770.14,1.85097,0,100986,605908
1781.57,1.8796,0,101466,608792
1791.09,1.89396,0,101820,610954
1800.62,1.89979,0,102209,613172
1810.14,1.89726,0,102662,615892
1821.56,1.8835,0,103192,619224
1831.09,1.8634,0,103579,621420
1840.6,1.83578,0,103925,623720
1850.1,1.80096,0,104295,625952
1861.48,1.75012,0,104791,628806
1870.96,1.70046,0,105245,631650
1880.44,1.64436,0,105701,634108
1891.82,1.56881,0,106138,636798
1901.3,1.49913,0,106550,639332
1910.78,1.42347,0,106989,642068
1920.26,1.34193,0,107411,644390
1931.64,1.23648,0,107917,647462
1941.12,1.14245,0,108291,649756
1950.6,1.04306,0,108771,652486
1960.08,0.938588,0,109115,654734
1971.45,0.807068,0,109614,657742
1980.93,0.69291,0,110056,660404
1990.41,0.575245,0,110491,663074
2001.79,0.430398,0,111107,666568
2011.27,0.307569,0,111511,669120
2020.75,0.183716,0,111995,672022
2030.23,0.0597332,0,112467,674670
2041.6,-0.0879281,0,113013,677994
2051.09,-0.208974,0,113377,680366
2060.57,-0.327247,0,113816,683088
2070.05,-0.441891,0,114345,686110
2081.42,-0.573552,0,114886,689184
2090.9,-0.677494,0,115237,691434
2100.38,-0.775493,0,115681,694170
2111.76,-0.884439,0,116243,697512
2121.24,-0.967446,0,116656,699860
2130.72,-1.04295,0,117088,702686
2140.2,-1.11062,0,117576,705500
2151.57,-1.18119,0,118115,708708
2161.05,-1.23095,0,118621,711856
2170.53,-1.27244,0,119031,714304
2180.01,-1.30571,0,119508,717156
2191.39,-1.33497,0,120064,720466
2200.87,-1.35075,0,120525,723158
2210.35,-1.35904,0,120984,726000
2221.73,-1.35966,0,121584,729502
2231.21,-1.35295,0,122025,732210
2240.69,-1.34024,0,122468,734674
2250.17,-1.32208,0,122941,737584
2261.54,-1.29391,0,123480,740910
2271.02,-1.26584,0,123909,743390
2280.5,-1.2342,0,124373,746230
2291.88,-1.19235,0,124933,749460
2301.36,-1.15487,0,125238,751614
2310.84,-1.11556,0,125736,754462
2320.32,-1.07486,0,126205,757322
2331.69,-1.02478,0,126729,760404
2341.17,-0.98242,0,127173,763100
2350.65,-0.939801,0,127635,765730
2360.13,-0.897169,0,128059,768448
2371.51,-0.846267,0,128571,771604
2380.99,-0.804238,0,129109,774522
2390.47,-0.762685,0,129569,777256
2401.84,-0.713564,0,130115,780528
2411.32,-0.673318,0,130564,783244
2420.8,-0.633748,0,130973,786010
2430.28,-0.594889,0,131505,788972
2441.66,-0.549248,0,132029,792190
2451.14,-0.512081,0,132514,794986
2460.62,-0.475746,0,132976,798028
2470.1,-0.440293,0,133504,800980
2481.47,-0.398991,0,134043,804370
2490.95,-0.36568,0,134519,807080
2500.43,-0.333446,0,134928,809650
2511.81,-0.296284,0,135569,813358
2521.29,-0.266661,0,136073,816434
2530.77,-0.238333,0,136461,818738
2540.25,-0.21136,0,136940,821648
2551.63,-0.180859,0,137546,825230
2561.1,-0.157048,0,137993,828116
2570.58,-0.134737,0,138512,831044
2580.06,-0.113948,0,139105,834460
2591.44,-0.0910285,0,139677,837960
2600.92,-0.0736208,0,140134,840708
2610.4,-0.0577414,0,140630,843904
2621.78,-0.0406757,0,141219,847240
2631.25,-0.0280785,0,141713,850186
2640.73,-0.0169183,0,142152,852868
2650.21,-0.00715091,0,142646,855962
2661.59,0.00280294,0,143160,859146
2671.07,0.00969107,0,143648,861986
2680.55,0.0153638,0,144091,864712
2690.03,0.0198809,0,144576,867284
2701.4,0.023856,0,145008,870198
2710.88,0.026025,0,145604,873472
2720.36,0.0272263,0,145960,875906
2731.74,0.0273709,0,146526,878964
2741.22,0.0265467,0,147019,882136
2750.7,0.0252226,0,147501,885078
2760.18,0.023507,0,147970,887684
2771.52,0.0206554,0,148420,890426
2781,0.0174038,0,148903,893436
2790.44,0.0135432,0,149444,896626
2801.76,0.00823984,0,150131,900710
2811.19,0.00342268,0,150571,903440
2820.62,-0.00171871,0,151065,906578
2830.07,-0.00716971,0,151609,909662
2841.43,-0.0140682,0,152166,913162
2850.91,-0.0200769,0,152681,916248
2860.39,-0.0262751,0,153167,918926
2871.76,-0.0339021,0,153668,921946
2881.24,-0.040376,0,154178,924938
2890.72,-0.0469158,0,154716,928224
2900.2,-0.0534738,0,155257,931480
2911.58,-0.0613178,0,155885,935126
2921.05,-0.0678086,0,156276,937622
2930.52,-0.0742257,0,156791,940691
2941.84,-0.0817491,0,157361,944064
2951.27,-0.087863,0,157783,946793
2960.7,-0.0938113,0,158244,949424
2970.13,-0.0995697,0,158743,952618
2981.45,-0.106203,0,159223,955519
2990.88,-0.111479,0,159771,958457
3000.32,-0.116502,0,160253,961608
3011.63,-0.122171,0,160804,964654
3021.07,-0.126583,0,161213,967189
3030.5,-0.130704,0,161709,970423
3041.82,-0.13526,0,162416,974667
3051.25,-0.138734,0,162939,977759
3060.68,-0.141923,0,163389,980343
3070.11,-0.144836,0,163908,983549
3081.43,-0.147982,0,164708,988249
3090.86,-0.150327,0,165263,991559
3100.3,-0.152439,0,165683,994091
3111.61,-0.15469,0,166378,998161
3121.05,-0.156357,0,166866,1001190
3130.48,-0.157853,0,167434,1004576
3141.8,-0.159433,0,168070,1008364
3151.23,-0.160572,0,168545,1011384
3160.66,-0.161555,0,169122,1014728
3170.09,-0.16241,0,169612,1017820
3181.41,-0.163329,0,170291,1021712
3190.84,-0.163675,0,170801,1024754
3200.27,-0.163371,0,171297,1027778
3211.59,-0.163533,0,171964,1031959
3221.02,-0.163493,0,172625,1035497
3230.46,-0.163546,0,173148,1038979
3241.77,-0.164398,0,173765,1042688
3251.21,-0.163622,0,174324,1046101
3260.64,-0.163697,0,174824,1049099
3270.07,-0.163718,0,175425,1052419
3281.39,-0.164504,0,176094,1056460
3290.82,-0.164012,0,176635,1059854
3300.25,-0.16364,0,177066,1062248
3311.57,-0.163142,0,177574,1065588
3321,-0.162665,0,178226,1069371
3330.43,-0.162146,0,178897,1073299
3341.75,-0.16135,0,179579,1077431
3351.18,-0.160397,0,180154,1080873
3360.62,-0.159264,0,180714,1084342
3370.05,-0.158371,0,181224,1087525
3381.37,-0.15646,0,181940,1091780
3390.8,-0.1547,0,182439,1094806
3400.23,-0.152934,0,182969,1097727
3411.55,-0.15048,0,183586,1101655
3420.98,-0.14822,0,184268,1105295
3430.41,-0.145707,0,184779,1108866
3441.73,-0.142419,0,185372,1112223
3451.16,-0.139477,0,186058,1115967
3460.59,-0.136373,0,186516,1119352
3470.03,-0.133124,0,187183,1123126
3481.34,-0.129028,0,187905,1127689
3490.78,-0.125459,0,188631,1132052
3500.21,-0.121761,0,189442,1136564
3511.52,-0.117165,0,190220,1141321
3520.96,-0.113214,0,190620,1143978
3530.39,-0.109171,0,191327,1147649
3541.71,-0.104226,0,191943,1151674
3551.14,-0.100049,0,192633,1155415
3560.57,-0.0958322,0,193081,1158693
3570,-0.0915914,0,193644,1162030
3581.32,-0.0864955,0,194426,1166434
3590.75,-0.0822676,0,194948,1169898
3600.18,-0.0780792,0,195422,1172746
3611.5,-0.0731337,0,196137,1176899
3620.93,-0.0691014,0,196820,1180761
3630.36,-0.0651665,0,197324,1183713
3641.68,-0.0605891,0,198068,1188230
3651.11,-0.0569048,0,198736,1192275
3660.55,-0.0533461,0,199302,1195732
3671.86,-0.0492506,0,200066,1200081
3681.3,-0.0459903,0,200507,1203152
3690.73,-0.0428752,0,201195,1207193
3700.16,-0.0399109,0,201846,1210771
3711.48,-0.0365594,0,202359,1214219
3720.91,-0.0339408,0,203180,1218912
3730.34,-0.0314813,0,203811,1223039
3741.66,-0.0287369,0,204491,1226829
3751.09,-0.0266187,0,205000,1230252
3760.52,-0.02465,0,205715,1234188
3771.84,-0.0224812,0,206443,1238361
3781.27,-0.0208331,0,206875,1241606
3790.7,-0.0193283,0,207361,1244453
3800.13,-0.0179659,0,207960,1247819
3811.45,-0.0165196,0,208530,1251417
3820.88,-0.0154742,0,208865,1253456
3830.31,-0.0145767,0,209342,1256331
3841.63,-0.0136877,0,210082,1260209
3851.06,-0.0130442,0,210491,1263188
3860.5,-0.0124436,0,211122,1266499
3871.81,-0.0121824,0,211662,1269711
3881.24,-0.0122559,0,212316,1273564
3890.68,-0.0123521,0,212985,1277608
3900.11,-0.0124873,0,213716,1282099
3911.43,-0.0127727,0,214527,1286788
3920.86,-0.0130844,0,215059,1290255
3930.29,-0.0134453,0,215711,1293881
3941.61,-0.0138949,0,216377,1297999
3951.04,-0.0143058,0,216904,1301742
3960.47,-0.0147554,0,217562,1305106
3971.79,-0.0153454,0,218246,1309469
3981.25,-0.0158656,0,218894,1313166
3990.7,-0.0163867,0,219468,1317079
4000.15,-0.0168977,0,220265,1321673
4011.47,-0.0175804,0,221160,1326861
4020.9,-0.0181109,0,221736,1330352
4030.33,-0.018931,0,222295,1333522
4041.65,-0.0199211,0,222844,1337116
4051.08,-0.0207945,0,223435,1340767
4060.51,-0.0216932,0,224013,1344210
4071.83,-0.022825,0,224703,1348384
4081.26,-0.0237579,0,225327,1352140
4090.69,-0.024622,0,226069,1356287
4100.12,-0.0253795,0,226689,1359999
4111.44,-0.0261637,0,227226,1363575
4120.87,-0.0267457,0,227802,1366898
4130.31,-0.0272565,0,228603,1371768
4141.62,-0.0277671,0,229433,1376632
4151.05,-0.0281022,0,229831,1379237
4160.49,-0.0284232,0,230366,1382509
4171.8,-0.0285857,0,231047,1386530
4181.24,-0.0284067,0,231709,1390240
4190.67,-0.028121,0,232393,1394728
4200.1,-0.0277525,0,232913,1397811
4211.42,-0.0272171,0,233597,1401460
4220.85,-0.0267094,0,234179,1404948
4230.28,-0.0261713,0,234902,1409470
4241.6,-0.0255118,0,235717,1414316
4251.03,-0.0249517,0,236052,1416565
4260.46,-0.0244228,0,236804,1420587
4271.78,-0.0235998,0,237439,1424854
4281.21,-0.0227745,0,237928,1427427
4290.64,-0.0219281,0,238555,1431291
4300.07,-0.0209748,0,239104,1434696
4311.39,-0.0198207,0,239732,1438670
4320.82,-0.0188332,0,240465,1442577
4330.26,-0.0178882,0,240997,1445827
4341.57,-0.016127,0,241649,1449839
4351,-0.0144145,0,242201,1453317
4360.44,-0.012624,0,242569,1455725
4371.75,-0.0104793,0,243248,1459561
4381.19,-0.00858816,0,243960,1463454
4390.62,-0.00655562,0,244433,1466272
4400.05,-0.0044636,0,244907,1469128
4411.37,-0.00188936,0,245309,1471958
4420.8,0.000341466,0,246032,1476274
4430.23,0.00257357,0,246661,1480182
4441.55,0.00527515,0,247224,1483550
4450.98,0.00763664,0,247841,1486739
4460.41,0.0101008,0,248528,1491180
4471.73,0.0131564,0,249467,1496702
4481.16,0.0158008,0,250065,1500308
4490.6,0.018551,0,250617,1503894
4500.03,0.0214012,0,251259,1507813
4511.35,0.0249127,0,252166,1512942
4520.78,0.0279109,0,252715,1516057
4530.21,0.0309984,0,253287,1519983
4541.53,0.034833,0,254194,1525362
4550.96,0.0381492,0,254937,1529636
4560.39,0.0415894,0,255793,1534255
4571.71,0.0458757,0,256426,1538622
4581.14,0.0495685,0,257179,1542728
4590.58,0.0533731,0,257892,1547407
4600.01,0.057303,0,258596,1551748
4611.33,0.0621943,0,259421,1556473
4620.76,0.0663979,0,260070,1560734
4630.19,0.0706949,0,260707,1564470
4641.51,0.0759756,0,261527,1568862
4650.94,0.0804928,0,262108,1572693
4660.37,0.085115,0,262874,1577242
4671.69,0.0907798,0,263551,1581344
4681.12,0.0955811,0,264350,1586332
4690.55,0.100445,0,265154,1590537
4701.87,0.106354,0,265806,1594946
4711.3,0.111333,0,266569,1599156
4720.74,0.11635,0,267076,1602535
4730.17,0.121392,0,267698,1606193
4741.49,0.127459,0,268636,1611614
4750.92,0.132512,0,269287,1615662
4760.35,0.137548,0,269914,1619817
4771.67,0.143543,0,270639,1624033
4781.1,0.148475,0,271356,1628269
4790.53,0.153327,0,271897,1631285
4801.85,0.159016,0,272681,1635769
4811.28,0.163626,0,273340,1640244
4820.73,0.168106,0,274155,1645004
4830.17,0.172435,0,274784,1648596
4841.49,0.17741,0,275432,1652160
4850.92,0.181362,0,276032,1656138
4860.35,0.185123,0,276659,1660148
4871.67,0.189365,0,277455,1664651
4881.1,0.192655,0,278010,1668363
4890.53,0.195707,0,278887,1672834
4901.85,0.199028,0,279319,1675985
4911.28,0.201489,0,279767,1679008
4920.72,0.203651,0,280408,1682692
4930.15,0.205494,0,281053,1686285
4941.47,0.207265,0,281673,1689668
4950.9,0.208368,0,282189,1692556
4960.33,0.209134,0,282593,1695930
4971.65,0.209644,0,283663,1701744
4981.08,0.209462,0,284303,1705795
4990.51,0.209089,0,284817,1709238
5001.83,0.208514,0,285700,1714464
5011.26,0.207902,0,286258,1717691
5020.7,0.207216,0,287037,1722147
5030.13,0.206259,0,287741,1726218
5041.45,0.204325,0,288624,1732030
5050.88,0.201981,0,289402,1736393
5060.31,0.199413,0,290149,1740818
5071.63,0.196096,0,291126,1746719
5081.06,0.193071,0,291968,1751489
5090.49,0.189765,0,292492,1755136
5101.81,0.185521,0,293396,1760386
5111.24,0.181701,0,294079,1764813
5120.67,0.17765,0,295057,1769995
5130.11,0.173427,0,295822,1775011
5141.42,0.16812,0,296614,1779804
5150.86,0.163492,0,297317,1784447
5160.29,0.158692,0,298006,1788150
5171.61,0.152721,0,298785,1793172
5181.04,0.147586,0,299518,1797453
5190.47,0.142318,0,300232,1801431
5201.79,0.13584,0,300919,1805600
5211.22,0.130327,0,301696,1810382
5220.65,0.124728,0,302423,1814284
5230.09,0.119063,0,303098,1818334
5241.4,0.112203,0,303941,1823946
5250.84,0.10645,0,304702,1828110
5260.27,0.100674,0,305303,1831984
5271.59,0.0937234,0,306012,1836194
5281.02,0.0879233,0,306737,1840537
5290.47,0.0821198,0,307602,1845778
5301.82,0.0751832,0,308501,1850716
5311.28,0.0694527,0,308923,1853740
5320.78,0.0637633,0,309765,1858753
5330.26,0.0581501,0,310721,1864089
5341.62,0.0515189,0,311451,1868820
5351.08,0.0460804,0,312246,1873574
5360.51,0.0407408,0,313087,1878175
5371.86,0.0344426,0,313834,1883084
5381.36,0.0292908,0,314286,1886056
5390.87,0.0242448,0,315035,1890473
5400.34,0.0193477,0,315831,1895112
5411.68,0.0136478,0,316675,1900098
5421.16,0.0090244,0,317049,1902649
5430.6,0.00454941,0,317772,1906588
5440.08,0.000192324,0,318260,1909594
5451.43,-0.0048442,0,318926,1914073
5460.89,-0.00888802,0,319576,1917477
5470.37,-0.0127936,0,320150,1921215
5481.82,-0.0173153,0,320874,1925350
5491.29,-0.0208945,0,321673,1929836
5500.76,-0.0243259,0,322302,1933766
5510.24,-0.0276143,0,322908,1937748
5521.66,-0.0313859,0,323790,1942868
5531.19,-0.0343727,0,324380,1946138
5540.64,-0.0371913,0,325132,1951113
5550.07,-0.0398616,0,326040,1956125
5561.43,-0.0428888,0,326974,1962117
5570.94,-0.045261,0,327782,1966703
5580.47,-0.0474916,0,328383,1970345
5590.01,-0.0495787,0,329078,1974565
5601.46,-0.0518919,0,330243,1981118
5610.97,-0.0536575,0,331135,1986695
5620.4,-0.0552743,0,331842,1991180
5631.72,-0.0570386,0,332628,1996044
5641.16,-0.0583649,0,333634,2002011
5650.64,-0.0595656,0,334538,2006810
5660.14,-0.0606381,0,335157,2010702
5671.59,-0.061758,0,336034,2016130
5681.12,-0.0625508,0,336863,2021273
5690.61,-0.0632298,0,337954,2027553
5700.15,-0.0638124,0,338834,2033048
5711.6,-0.0641977,0,339560,2037568
5721.1,-0.0646108,0,340528,2042533
5730.63,-0.0646153,0,341273,2047486
5740.17,-0.0645506,0,342148,2052732
5751.61,-0.0642376,0,343040,2058464
5761.13,-0.0641741,0,343689,2062078
5770.68,-0.0640773,0,344688,2068033
5780.22,-0.0638106,0,345562,2073114
5791.67,-0.0633196,0,346404,2078500
5801.19,-0.06293,0,347239,2083683
5810.72,-0.0623879,0,348021,2088000
5820.24,-0.0614519,0,348802,2093082
5831.67,-0.0604062,0,349807,2098533
5841.17,-0.059443,0,350643,2103730
5850.66,-0.0583254,0,351315,2108233
5860.14,-0.057518,0,352370,2114076
5871.51,-0.055426,0,353285,2120078
5880.99,-0.0535612,0,354200,2125640
5890.47,-0.0517304,0,354898,2129462
5901.85,-0.0494379,0,355650,2134655
5911.33,-0.0472873,0,356616,2139266
5920.81,-0.0450173,0,357636,2145705
5930.29,-0.0426549,0,358324,2150265
5941.67,-0.0396702,0,359124,2154929
5951.15,-0.037065,0,359942,2159319
5960.62,-0.0343756,0,360615,2163158
5970.05,-0.0315941,0,361273,2168379
5981.37,-0.0280782,0,362199,2173417
5990.8,-0.0250057,0,363212,2179267
6000.23,-0.0217984,0,364063,2184715
6011.55,-0.0177822,0,364771,2188686
6020.98,-0.014327,0,365507,2193620
6030.41,-0.0107934,0,366390,2198497
6041.73,-0.0064568,0,367118,2202747
6051.16,-0.00275941,0,368077,2208184
6060.6,0.00101628,0,368905,2212779
6070.03,0.00486318,0,369450,2217167
6081.35,0.00955195,0,370606,2223249
6090.78,0.0135029,0,371438,2228794
6100.21,0.0174838,0,372491,2234424
6111.53,0.0222889,0,373418,2241186
6120.96,0.0263026,0,374246,2245425
6130.39,0.0303101,0,375110,2250346
6141.71,0.0350948,0,375848,2255479
6151.14,0.0390524,0,376699,2259797
6160.58,0.0429767,0,377306,2264099
6170.01,0.0468626,0,378159,2268362
6181.33,0.0514654,0,378888,2273001
6190.76,0.05524,0,379671,2278000
6200.19,0.0589474,0,380242,2281488
6211.51,0.0632913,0,381190,2287504
6220.94,0.0668114,0,382098,2293136
6230.37,0.0702316,0,383201,2299244
6241.69,0.0741953,0,384203,2305426
6251.12,0.0773763,0,385055,2310943
6260.55,0.0804413,0,385930,2315245
6271.87,0.0839558,0,386724,2321008
6281.31,0.0867365,0,387422,2325066
6290.74,0.08937,0,388357,2330130
6300.17,0.0918438,0,388814,2332607
6311.49,0.0945852,0,389406,2336986
6320.92,0.0966683,0,389868,2339274
6330.35,0.0985598,0,389983,2340432
6341.67,0.10057,0,390338,2342761
6351.1,0.102024,0,391018,2345788
6360.53,0.103274,0,391752,2350854
6371.85,0.104494,0,392203,2353563
6381.28,0.105243,0,393031,2357427
6390.72,0.105782,0,393816,2362500
6400.15,0.106049,0,394497,2366312
6411.47,0.106575,0,395185,2370871
6420.9,0.106433,0,395941,2375031
6430.33,0.106152,0,396661,2380055
6441.65,0.10505,0,397667,2385341
6451.08,0.104896,0,398588,2390776
6460.51,0.104178,0,399415,2395950
6471.83,0.10304,0,400306,2402244
6481.26,0.101942,0,401277,2407651
6490.7,0.100392,0,402303,2413799
6500.13,0.098393,0,403202,2419453
6511.45,0.0956009,0,404478,2426389
6520.9,0.09304,0,405421,2433173
6530.38,0.0902549,0,406481,2439017
6541.75,0.0867763,0,407755,2446978
6551.23,0.0837443,0,408483,2450870
6560.71,0.080567,0,409212,2455645
6570.19,0.0772381,0,410171,2461465
6581.57,0.0729947,0,411598,2470024
6591.05,0.0692857,0,412887,2476721
6600.53,0.0654432,0,413468,2481227
6610.01,0.061467,0,414553,2486798
6621.38,0.0565361,0,415560,2493740
6630.86,0.052297,0,416447,2498655
6640.34,0.0479536,0,417425,2505149
6651.66,0.0426469,0,418535,2510937
6661.1,0.0381381,0,419283,2516075
6670.57,0.0335352,0,420368,2522203
6680.06,0.0288664,0,421429,2528664
6691.46,0.0231866,0,422540,2535227
6700.93,0.0184035,0,423619,2541768
6710.4,0.0135696,0,424732,2548691
6721.79,0.00770748,0,425755,2555145
6731.31,0.00279244,0,426825,2560591
6740.83,-0.00211,0,427807,2567272
6750.34,-0.00697987,0,428601,2572329
6761.75,-0.0127752,0,429629,2577414
6771.25,-0.0175717,0,430396,2582518
6780.75,-0.0223374,0,431621,2589725
6790.23,-0.0270667,0,432689,2596304
6801.6,-0.0326838,0,433936,2603813
6811.07,-0.0372919,0,435154,2610492
6820.53,-0.0418162,0,436313,2617955
6831.85,-0.0471167,0,437355,2623526
6841.29,-0.0514243,0,438202,2629654
6850.72,-0.0556263,0,439029,2633494
6860.19,-0.0597358,0,439869,2639435
6871.56,-0.0645258,0,440688,2643662
6881.04,-0.0683943,0,441111,2647200
6890.52,-0.0721465,0,441795,2650146
6900,-0.0757744,0,442615,2655034
6911.36,-0.0799514,0,443433,2660912
6920.83,-0.0832871,0,443961,2664474
6930.31,-0.0864936,0,445117,2669943
6941.68,-0.0901687,0,446152,2676187
6951.16,-0.093091,0,446861,2681110
6960.64,-0.0958826,0,447654,2686341
6970.09,-0.0985329,0,448745,2692928
6981.4,-0.101532,0,450193,2700885
6990.86,-0.10389,0,451049,2706880
7000.33,-0.106122,0,452221,2712577
7011.64,-0.108627,0,453116,2719071
7021.09,-0.110588,0,454062,2724760
7030.55,-0.112436,0,455280,2730927
7040,-0.114171,0,456217,2737925
7051.32,-0.1161,0,457630,2745251
7060.75,-0.117583,0,458287,2750147
7070.18,-0.118952,0,459151,2754883
7081.55,-0.120453,0,460409,2762282
7091.03,-0.121586,0,461098,2766391
7100.51,-0.122618,0,461992,2772149
7111.88,-0.123746,0,463380,2779959
7121.36,-0.12462,0,464062,2784838
7130.84,-0.125452,0,465006,2789618
7140.32,-0.126233,0,466225,2794862
7151.7,-0.127146,0,466086,2801795
7161.19,-0.127323,0,467678,2805794
7170.71,-0.127508,0,468172,2809040
7180.19,-0.127754,0,469158,2815145
7191.52,-0.127871,0,470428,2822093
7200.95,-0.127929,0,471291,2828028
7210.38,-0.127954,0,472130,2832868
7221.7,-0.127968,0,472722,2836097
7231.13,-0.12801,0,473615,2841397
7240.56,-0.127951,0,474585,2848129
7251.88,-0.127795,0,475755,2854179
7261.32,-0.12765,0,476036,2856228
7270.75,-0.127523,0,476580,2859267
7280.18,-0.127364,0,477260,2864010
7291.5,-0.127103,0,478616,2872135
7300.93,-0.126831,0,479140,2874168
7310.36,-0.126903,0,480008,2879768
7321.68,-0.126875,0,480785,2884529
7331.11,-0.126371,0,481666,2889336
7340.54,-0.125845,0,482271,2893182
7351.86,-0.125054,0,483175,2898567
7361.29,-0.124413,0,484001,2903731
7370.73,-0.123801,0,484345,2906310
7380.16,-0.123104,0,485215,2911430
7391.48,-0.122474,0,486059,2915956
7400.91,-0.121909,0,486437,2918561
7410.34,-0.121279,0,487168,2922712
7421.66,-0.120476,0,487697,2925684
7431.09,-0.1198,0,488564,2931464
7440.52,-0.119157,0,489070,2935078
7451.84,-0.118434,0,489844,2939182
7461.27,-0.117834,0,490282,2941590
7470.7,-0.11721,0,490758,2944786
7480.14,-0.116578,0,491341,2948204
7491.45,-0.115814,0,492538,2954636
7500.89,-0.115169,0,493195,2958814
7510.32,-0.114532,0,493615,2961585
7521.64,-0.113799,0,494952,2969553
7531.07,-0.113213,0,495888,2975235
7540.5,-0.112639,0,497088,2982325
7551.82,-0.111953,0,498043,2988725
7561.25,-0.11138,0,498884,2993034
7570.68,-0.110793,0,499972,3000487
7580.11,-0.110189,0,501285,3007045
7591.43,-0.109454,0,502297,3013702
7600.86,-0.108845,0,503266,3019415
7610.3,-0.108228,0,504058,3024248
7621.61,-0.107498,0,505189,3030524
7631.05,-0.106898,0,505664,3033848
7640.48,-0.106299,0,506421,3038424
7651.8,-0.105616,0,507898,3046657
7661.23,-0.10511,0,508561,3050950
7670.66,-0.104708,0,509692,3057709
7680.09,-0.104335,0,510271,3061516
7691.41,-0.103992,0,510698,3064038
7700.84,-0.103688,0,511442,3068190
7710.27,-0.10337,0,512103,3072555
7721.59,-0.102976,0,513098,3078179
7731.02,-0.102699,0,514099,3084676
7740.45,-0.102452,0,514871,3089769
7751.77,-0.102151,0,515838,3094929
7761.2,-0.10199,0,516891,3100914
7770.64,-0.101789,0,517508,3105217
7780.07,-0.101585,0,518606,3110867
7791.39,-0.101364,0,518813,3113512
7800.82,-0.101185,0,519442,3116906
7810.25,-0.100989,0,520027,3120668
7821.57,-0.100751,0,520946,3125712
7831.01,-0.100551,0,521758,3131187
7840.48,-0.10036,0,522627,3135565
7851.86,-0.100162,0,523541,3141437
7861.34,-0.100013,0,524421,3145795
7870.78,-0.0997957,0,524896,3150098
7880.21,-0.0996706,0,525881,3155775
7891.53,-0.0997234,0,526970,3162152
7900.99,-0.0996245,0,527778,3166676
7910.42,-0.0993359,0,528389,3170186
7921.75,-0.0991275,0,529479,3176602
7931.22,-0.0992997,0,530592,3184144
7940.66,-0.0992413,0,531509,3188924
7950.09,-0.0989883,0,532137,3193384
7961.43,-0.0982591,0,532998,3197265
7970.91,-0.0983776,0,533799,3202576
7980.38,-0.0990905,0,535051,3209622
7991.73,-0.0989706,0,536093,3215930
8001.21,-0.0983424,0,536791,3220179
8010.67,-0.0982225,0,537024,3222541
8020.14,-0.0988203,0,537353,3224770
8031.51,-0.0990836,0,537998,3228725
8040.99,-0.0989088,0,538873,3233649
8050.47,-0.0981455,0,539796,3238556
8061.82,-0.0983962,0,540484,3242513
8071.29,-0.0988279,0,541109,3245652
8080.77,-0.0986781,0,541626,3250003
8090.22,-0.0987296,0,542425,3255079
8101.54,-0.0985396,0,543551,3260988
8110.98,-0.0984121,0,544341,3266015
8120.46,-0.0983211,0,545327,3271526
8131.84,-0.0980869,0,545820,3274894
8141.3,-0.0978234,0,546574,3279988
8150.73,-0.0975939,0,547594,3285919
8160.16,-0.0974179,0,548487,3291247
8171.51,-0.0971105,0,549297,3296406
8180.96,-0.0965441,0,549873,3299962
8190.41,-0.0956217,0,550812,3304767
8201.79,-0.0954653,0,552076,3311973
8211.27,-0.0951176,0,552175,3313809
8220.75,-0.0946532,0,553001,3317755
8230.19,-0.0941702,0,553557,3320981
8241.51,-0.0936054,0,554524,3327081
8250.96,-0.0930759,0,555314,3331512
8260.44,-0.0924769,0,555636,3334289
8271.81,-0.0916294,0,556237,3337892
8281.29,-0.0908548,0,556680,3340439
8290.77,-0.0900287,0,557616,3345585
8300.22,-0.089171,0,558076,3347717
8311.55,-0.0881267,0,558867,3352728
8321.04,-0.0872279,0,559780,3358722
8330.58,-0.0862946,0,560647,3364131
8340.11,-0.085329,0,561175,3366937
8351.54,-0.0841188,0,562123,3372122
8361.07,-0.0830625,0,563017,3377834
8370.62,-0.0819723,0,563476,3381051
8380.15,-0.0808775,0,564661,3387258
8391.58,-0.0794824,0,566113,3397093
8401.03,-0.0785124,0,566719,3400365
8410.48,-0.0771551,0,567027,3402586
8421.89,-0.075622,0,568492,3410352
8431.41,-0.0742264,0,569608,3417690
8440.93,-0.0728013,0,570406,3422835
8450.42,-0.0713331,0,570962,3425906
8461.84,-0.0695633,0,572403,3434112
8471.27,-0.0679663,0,573717,3442218
8480.7,-0.0663056,0,575076,3450237
8490.21,-0.0646256,0,575659,3453897
8501.53,-0.0625109,0,576770,3460075
8510.97,-0.060658,0,577490,3464656
8520.41,-0.058775,0,578436,3470533
8531.75,-0.0564332,0,579281,3475796
8541.29,-0.0543731,0,580083,3480671
8550.83,-0.0522745,0,581467,3488494
8560.38,-0.0501388,0,582207,3493519
8571.84,-0.0475057,0,583046,3497899
8581.39,-0.0452931,0,583949,3502983
8590.93,-0.0430589,0,584803,3509122
8600.44,-0.0407625,0,585892,3515922
8611.87,-0.0379291,0,586944,3521154
8621.41,-0.035513,0,587685,3525575
8630.89,-0.0330366,0,588049,3528905
8640.37,-0.0304738,0,588852,3532680
8651.73,-0.0273054,0,589832,3539163
8661.2,-0.0246065,0,590551,3543976
8670.65,-0.0218446,0,590795,3545157
8680.11,-0.0190136,0,591064,3547064
8691.46,-0.0155279,0,592232,3553653
8700.92,-0.0125488,0,592936,3556877
8710.37,-0.0094986,0,593359,3560585
8721.71,-0.00574422,0,594139,3565386
8731.14,-0.00252756,0,594809,3569525
8740.57,0.000781925,0,595581,3574066
8750,0.00418491,0,596493,3578738
8761.32,0.00837819,0,596877,3580571
8770.75,0.0119516,0,596997,3582720
8780.18,0.0155924,0,598509,3591727
8791.5,0.0200517,0,599397,3597137
8800.93,0.0238427,0,600009,3599654
8810.37,0.0276977,0,600695,3604782
8821.68,0.0323984,0,601590,3609375
8831.12,0.0363689,0,602663,3616275
8840.55,0.0403802,0,603718,3622785
8851.87,0.0452375,0,604517,3626670
8861.3,0.0493145,0,604920,3629949
8870.73,0.0534127,0,605697,3634225
8880.16,0.0575273,0,606497,3638790
8891.48,0.0624797,0,607314,3643519
8900.91,0.0666125,0,608218,3649046
8910.34,0.0707444,0,609077,3654102
8921.66,0.0756936,0,609436,3656944
8931.1,0.0798038,0,610267,3660964
8940.53,0.0838951,0,610951,3665462
8951.85,0.0887709,0,612018,3671922
8961.28,0.0927984,0,613025,3678623
8970.71,0.0967855,0,614101,3684341
8980.14,0.100724,0,615142,3690140
8991.46,0.105375,0,616130,3696849
9000.89,0.109176,0,616983,3702971
9010.32,0.112902,0,618251,3709466
9021.64,0.117261,0,619076,3714983
9031.07,0.120793,0,620172,3721127
9040.51,0.124227,0,620851,3724704
9051.82,0.128211,0,621980,3731981
9061.26,0.13141,0,623093,3738105
9070.69,0.134494,0,623963,3743177
9080.12,0.137458,0,624842,3749049
9091.44,0.140851,0,626030,3756769
9100.87,0.143537,0,627297,3763264
9110.3,0.146091,0,627983,3767895
9121.62,0.148976,0,629072,3774200
9131.05,0.15123,0,629619,3777582
9140.48,0.153344,0,630139,3781150
9151.8,0.155695,0,631308,3787619
9161.24,0.157501,0,632169,3792638
9170.67,0.159166,0,632734,3796892
9180.1,0.160691,0,633542,3801885
9191.42,0.162336,0,634444,3807171
9200.85,0.163553,0,634929,3809030
9210.28,0.164633,0,635393,3812573
9221.6,0.165748,0,636147,3817432
9231.03,0.166531,0,636546,3819610
9240.46,0.167186,0,636835,3821444
9251.78,0.167819,0,637935,3827940
9261.21,0.168475,0,638598,3831224
9270.65,0.168702,0,639123,3834647
9280.08,0.168465,0,640320,3842333
9291.4,0.168094,0,641374,3848191
9300.83,0.167705,0,642201,3852924
9310.26,0.167248,0,643218,3859357
9321.58,0.166588,0,644417,3865940
9331.01,0.1662,0,644588,3869004
9340.44,0.165478,0,645170,3869939
9351.76,0.164201,0,646114,3876204
9361.19,0.163248,0,647040,3881512
9370.63,0.162201,0,647741,3886039
9380.06,0.161028,0,648038,3889017
9391.38,0.159649,0,648842,3894468
9400.81,0.15806,0,649920,3900490
9410.24,0.156467,0,650516,3903744
9421.56,0.154466,0,651056,3907088
9430.99,0.152735,0,652013,3912125
9440.42,0.150961,0,653297,3920304
9451.77,0.148719,0,654381,3925418
9461.22,0.14675,0,655088,3929881
9470.7,0.144732,0,655992,3935706
9480.21,0.14265,0,657294,3943037
9491.63,0.140057,0,657945,3948120
9501.15,0.137827,0,658727,3951980
9510.67,0.135532,0,659090,3954966
9520.14,0.133185,0,660278,3961853
9531.49,0.130305,0,661334,3969262
9540.97,0.127855,0,661597,3969875
9550.5,0.125357,0,661887,3971377
9560.03,0.122821,0,662674,3974549
9571.49,0.119714,0,663547,3980581
9581.04,0.117081,0,664349,3984581
9590.54,0.114419,0,664881,3989926
9600.03,0.11172,0,666334,3997065
9611.4,0.108427,0,667706,4005449
9620.89,0.105644,0,668822,4012178
9630.37,0.102839,0,669981,4018908
9641.75,0.0994577,0,670991,4025158
9651.22,0.0966394,0,671913,4031993
9660.66,0.093828,0,672945,4037524
9670.09,0.0910193,0,673943,4044000
9681.41,0.0876502,0,675670,4054081
9690.84,0.0848463,0,677216,4062688
9700.27,0.0820482,0,678136,4068722
9711.59,0.0787018,0,678917,4073782
9721.02,0.0759249,0,679940,4079159
9730.45,0.073161,0,680996,4086814
9741.77,0.069863,0,682587,4096653
9751.2,0.0671308,0,683959,4103161
9760.64,0.064413,0,684742,4108227
9770.07,0.0617098,0,685602,4114219
9781.39,0.0584866,0,687113,4123438
9790.82,0.0558191,0,688325,4130162
9800.25,0.0531692,0,689343,4135898
9811.57,0.050013,0,690365,4141487
9821,0.0474031,0,690677,4144555
9830.43,0.0448128,0,691822,4151231
9841.75,0.0417339,0,692981,4157649
9851.18,0.0391967,0,693774,4162491
9860.61,0.0366896,0,694571,4167965
9870.05,0.0342167,0,695418,4173747
9881.36,0.0312984,0,696585,4179445
9890.8,0.0289093,0,698011,4186722
9900.23,0.0265597,0,698860,4193461
9911.55,0.0237929,0,700092,4199505
9920.98,0.021532,0,700462,4203216
9930.41,0.0193134,0,701883,4210560
9941.73,0.01671,0,702868,4218020
9951.16,0.0145924,0,703509,4222450
9960.59,0.0125252,0,704296,4226692
9970.03,0.0105114,0,705485,4232577
9981.34,0.00816962,0,706214,4238404
9990.78,0.00628377,0,707081,4242897
10000.2,0.00445614,0,707102,4243496
10011.6,0.00234261,0,708200,4248206
10021.1,0.000654756,0,708910,4252777
10030.6,-0.00096423,0,709416,4257884
10040,-0.00251264,0,710043,4261136
10051.4,-0.00427229,0,711351,4267698
10060.9,-0.00565981,0,711915,4271654
10070.3,-0.00697902,0,712268,4274976
10081.7,-0.00847084,0,712966,4278681
10091.1,-0.00963477,0,713529,4281934
10100.6,-0.0107345,0,714761,4288321
10110,-0.0117751,0,715116,4290714
10121.4,-0.0129422,0,715370,4292053
10130.9,-0.0138463,0,716305,4296917
10140.4,-0.014689,0,716622,4299513
10151.8,-0.0156215,0,716738,4300201
10161.2,-0.016335,0,717157,4303501
10170.7,-0.0169922,0,718218,4308273
10180.2,-0.0175937,0,718780,4311905
10191.6,-0.0182417,0,719568,4317271
10201.1,-0.0189564,0,719810,4318403
10210.5,-0.0194009,0,720479,4323414
10220,-0.019773,0,721172,4326902
10231.4,-0.0200986,0,722052,4332074
10240.9,-0.0204903,0,722169,4334107
10250.4,-0.02068,0,722965,4337095
10261.7,-0.0208551,0,723035,4338744
10271.2,-0.0212837,0,724092,4345097
10280.7,-0.021333,0,724517,4348083
10290.2,-0.021419,0,724812,4348703
10301.5,-0.0214475,0,725347,4351374
10311,-0.0213796,0,725152,4351580
10320.5,-0.0212567,0,725944,4356298
10331.9,-0.0211425,0,727180,4361572
10341.4,-0.0210304,0,727221,4362137
10350.8,-0.0208746,0,727923,4366184
10360.3,-0.0206984,0,728754,4372558
10371.7,-0.0204531,0,729809,4379143
10381.2,-0.0202251,0,730358,4381882
10390.7,-0.0199971,0,731227,4386901
10400.1,-0.0197757,0,732221,4392588
10411.5,-0.0195197,0,733254,4398521
10421,-0.0189057,0,733920,4403500
10430.5,-0.0180692,0,734187,4406334
10441.8,-0.0177315,0,734985,4409158
10451.3,-0.0174483,0,735182,4410582
10460.8,-0.0171672,0,735863,4415202
10470.3,-0.0169068,0,736596,4418740
10481.7,-0.0165852,0,737245,4422758
10491.1,-0.0162986,0,737644,4427321
10500.6,-0.0160036,0,738385,4430938
10510.1,-0.0156911,0,739377,4437270
10521.5,-0.0152642,0,740631,4444656
10531,-0.0149429,0,741748,4449561
10540.4,-0.0146885,0,742635,4454920
10551.8,-0.014392,0,744212,4463842
10561.3,-0.0141074,0,744957,4469612
10570.8,-0.0143104,0,745941,4474462
10580.3,-0.014186,0,746623,4479790
10591.6,-0.014001,0,747733,4487652
10601.1,-0.0138044,0,749227,4494680
10610.6,-0.0139707,0,749918,4500144
10620.1,-0.0140512,0,751085,4506366
10631.4,-0.0140878,0,751992,4512745
10640.9,-0.0141014,0,752609,4516659
10650.3,-0.0142026,0,753387,4520832
10661.7,-0.0143599,0,754674,4528655
10671.3,-0.0142627,0,755654,4534678
10680.7,-0.0143657,0,756293,4538734
10690.2,-0.0145122,0,757073,4543146
10701.5,-0.0147343,0,757958,4547168
10711,-0.014968,0,758876,4552469
10720.5,-0.0152152,0,759481,4557828
10730.1,-0.0154749,0,760640,4564123
10741.5,-0.0157847,0,761104,4565184
10751,-0.0160458,0,761696,4571033
10760.5,-0.0163414,0,762114,4572973
10770.1,-0.0166651,0,763470,4580264
10781.5,-0.0170771,0,764142,4584116
10791,-0.0174651,0,764781,4587440
10800.5,-0.0178666,0,765131,4589574
10810,-0.0182581,0,765398,4591611
10821.4,-0.0187227,0,766346,4598195
10830.9,-0.0191124,0,766991,4601087
10840.3,-0.0195057,0,767196,4603530
10851.7,-0.0199727,0,767932,4606770
10861.2,-0.02035,0,768486,4610980
10870.7,-0.0207119,0,769084,4613694
10880.1,-0.0210622,0,769482,4617870
10891.5,-0.0214732,0,769971,4620599
10901,-0.0218094,0,770594,4624517
10910.4,-0.0221457,0,771313,4626968
10921.8,-0.0225674,0,771508,4629916
10931.3,-0.0229084,0,771776,4631632
10940.8,-0.0232382,0,771895,4632036
10950.2,-0.0235798,0,772112,4632428
10961.6,-0.024,0,772366,4635659
10971.1,-0.0243349,0,772629,4635170
10980.5,-0.0246476,0,772972,4636768
10990,-0.0249336,0,773094,4638974
11001.4,-0.0252586,0,774074,4643688
11010.9,-0.0255289,0,774351,4645373
11020.3,-0.0257879,0,774477,4646686
11031.7,-0.0260816,0,774563,4646892
11041.2,-0.0263208,0,775004,4651323
11050.6,-0.0265648,0,775400,4652549
11060.1,-0.0268207,0,775263,4650716
11071.5,-0.0271517,0,775616,4653095
11081,-0.0274583,0,775897,4655670
11090.4,-0.027791,0,776375,4658856
11101.8,-0.0282052,0,775795,4655890
11111.3,-0.0285546,0,776184,4656447
11120.7,-0.0288967,0,776614,4660013
11130.2,-0.0292032,0,777693,4666078
11141.6,-0.0295789,0,778595,4670182
11151.1,-0.0299022,0,778756,4672553
11160.5,-0.0302206,0,778542,4671983
11170,-0.0305426,0,779144,4673596
11181.4,-0.030952,0,779629,4677501
11190.8,-0.0313136,0,779997,4680767
11200.3,-0.0316872,0,780704,4683549
11211.7,-0.0321434,0,780159,4681724
11221.2,-0.0325294,0,780231,4682364
11230.6,-0.0329194,0,780122,4680905
11240.1,-0.0333082,0,780551,4683973
11251.5,-0.0337656,0,780987,4685684
11260.9,-0.0341369,0,781189,4686469
11270.4,-0.0344991,0,781791,4689817
11281.8,-0.0349246,0,782370,4694477
11291.3,-0.0352789,0,782886,4696533
11300.7,-0.0356302,0,783221,4698874
11310.2,-0.0359685,0,782932,4699109
11321.6,-0.03635,0,783645,4701215
11331,-0.0366472,0,783911,4704327
11340.5,-0.0369254,0,784575,4707592
11351.9,-0.0372385,0,784557,4708366
11361.4,-0.037488,0,784857,4710342
11370.8,-0.0377221,0,785459,4712294
11380.3,-0.0379477,0,785905,4716328
11391.7,-0.0381721,0,786915,4720150
11401.1,-0.0382075,0,786927,4720494
11410.6,-0.0383557,0,787302,4724484
11420.1,-0.038423,0,788302,4729887
11431.4,-0.0387322,0,789473,4737478
11440.9,-0.0389616,0,790061,4739979
11450.4,-0.0387671,0,790322,4741548
11461.8,-0.0383521,0,790328,4742310
11471.2,-0.0382288,0,791119,4746855
11480.7,-0.038018,0,792741,4756157
11490.2,-0.0380538,0,793408,4760220
11501.6,-0.037836,0,794047,4763007
11511.1,-0.0374645,0,794115,4765055
11520.5,-0.0370935,0,794766,4768914
11530,-0.036713,0,795674,4773383
11541.4,-0.0362736,0,795614,4774293
11550.9,-0.035904,0,796354,4777330
11560.4,-0.0355222,0,796701,4780531
11571.7,-0.0350499,0,797668,4785198
11581.2,-0.03462,0,797843,4787532
11590.7,-0.0341464,0,798386,4791032
11600.2,-0.0336381,0,799014,4794962
11611.6,-0.0329797,0,799765,4798319
11621,-0.0324182,0,800532,4803238
11630.5,-0.0315102,0,800995,4804684
11641.9,-0.0309013,0,800769,4804867
11651.4,-0.0302394,0,801772,4810403
11660.8,-0.0295556,0,802291,4813016
11670.3,-0.0289409,0,802892,4817247
11681.7,-0.0281353,0,803248,4819278
11691.2,-0.0274702,0,803407,4819412
11700.6,-0.0268102,0,803565,4820102
11710.1,-0.0261564,0,803943,4822240
11721.5,-0.0253819,0,804976,4831228
11731,-0.0247428,0,805879,4836261
11740.4,-0.0241141,0,806082,4838011
11751.7,-0.0233813,0,806956,4841734
11761.2,-0.0227944,0,807783,4847416
11770.7,-0.0222306,0,808642,4851738
11780.2,-0.0216891,0,808883,4853915
11791.5,-0.0210719,0,809835,4859000
11800.9,-0.0205754,0,810854,4865120
11810.4,-0.0202022,0,812392,4872879
11821.7,-0.0196849,0,812373,4875282
11831.2,-0.0192763,0,812336,4874773
11840.7,-0.018888,0,813076,4877138
11850.1,-0.0185411,0,813346,4881265
11861.4,-0.0181874,0,814302,4887078
11870.9,-0.0179312,0,814837,4890257
11880.4,-0.0176797,0,815706,4894852
11891.7,-0.0175854,0,816960,4901364
11901.2,-0.0173932,0,817837,4905971
11910.7,-0.0173279,0,817913,4908125
11920.2,-0.0173457,0,818372,4909676
11931.5,-0.0172975,0,818991,4914054
11941,-0.0171603,0,819414,4916604
11950.5,-0.0173317,0,820966,4925471
11961.8,-0.0173837,0,822131,4931515
11971.3,-0.017452,0,822923,4938237
11980.8,-0.017566,0,823540,4940987
11990.3,-0.0176668,0,824107,4945118
12001.6,-0.0177846,0,825548,4952019
12011.1,-0.0178832,0,825994,4955359
12020.6,-0.0178356,0,826550,4958337
12030.1,-0.0179109,0,826536,4959167
12041.5,-0.0180897,0,827308,4964487
12050.9,-0.0182454,0,828249,4968404
12060.4,-0.0183869,0,827952,4968921
12071.8,-0.018568,0,828149,4970328
12081.3,-0.018733,0,828222,4970188
12090.8,-0.0188949,0,828682,4971982
12100.2,-0.0190463,0,829095,4973364
12111.6,-0.0192246,0,828105,4969495
12121.1,-0.019387,0,827447,4966180
12130.6,-0.0195239,0,828835,4972233
12140.1,-0.0195558,0,829613,4976382
12151.4,-0.0197016,0,829811,4977827
12160.9,-0.0198164,0,830564,4981966
12170.4,-0.0198084,0,830632,4983887
12181.8,-0.0196422,0,830566,4984087
12191.2,-0.019464,0,830196,4982436
12200.7,-0.0192808,0,830475,4984288
12210.2,-0.0190811,0,831231,4987111
12221.6,-0.0192215,0,831317,4988505
12231.1,-0.0191535,0,831526,4990244
12240.5,-0.0189037,0,831577,4989064
12250,-0.0186273,0,831649,4990484
12261.4,-0.0183051,0,832065,4993423
12270.9,-0.0180165,0,832830,4995543
12280.4,-0.0177698,0,833563,5001191
12291.7,-0.0174217,0,834322,5005126
12301.2,-0.0161229,0,834168,5004895
12310.7,-0.0150872,0,834469,5007615
12320.2,-0.0150669,0,834820,5010255
12331.6,-0.0146785,0,835808,5016398
12341,-0.0141889,0,837317,5024204
12350.5,-0.0138086,0,837890,5027289
12361.8,-0.0133369,0,837764,5026570
12371.3,-0.0129161,0,838381,5029819
12380.8,-0.012489,0,838669,5032449
12390.2,-0.0120624,0,839505,5036377
12401.6,-0.0115881,0,839599,5036602
12411.1,-0.0112342,0,839827,5038705
12420.5,-0.0108589,0,839395,5036189
12430,-0.0104639,0,838605,5032684
12441.4,-0.00999075,0,838944,5032800
12450.8,-0.00958511,0,837983,5028983
12460.3,-0.00926718,0,838455,5029332
12471.7,-0.00888381,0,838095,5029585
12481.1,-0.00950552,0,837898,5028070
12490.6,-0.00944755,0,837666,5025195
12500,-0.00933551,0,836869,5021366
12511.4,-0.00910449,0,837309,5023308
12520.9,-0.00916579,0,837411,5023569
12530.3,-0.00907695,0,837908,5026776
12541.7,-0.00796295,0,838639,5032543
12551.1,-0.00885491,0,839418,5035492
12560.6,-0.009083,0,840604,5042869
12570.1,-0.00921066,0,841712,5049306
12581.4,-0.00932771,0,842173,5053050
12590.9,-0.00930267,0,843381,5060349
12600.4,-0.00948144,0,844446,5066350
12611.8,-0.00926698,0,845082,5069752
12621.3,-0.00906514,0,845666,5074074
12630.7,-0.00927587,0,846224,5076843
12640.2,-0.00999241,0,846671,5080982
12651.6,-0.010309,0,847500,5084881
12661.2,-0.0106466,0,847490,5085158
12670.7,-0.0109841,0,847708,5085358
12680.1,-0.0113088,0,847455,5084727
12691.5,-0.0117293,0,847800,5085802
12701,-0.0121338,0,847919,5087213
12710.5,-0.0125561,0,847874,5088361
12721.9,-0.0128514,0,847881,5087935
12731.3,-0.0133975,0,848062,5086969
12740.8,-0.0139297,0,847255,5084574
12750.3,-0.0145547,0,847890,5087691
12761.7,-0.0152143,0,848473,5091198
12771.2,-0.0158336,0,849856,5097889
12780.6,-0.0165009,0,851042,5104757
12790.1,-0.0172044,0,851700,5109730
12801.5,-0.0180634,0,852337,5114844
12811,-0.0188002,0,852632,5116064
12820.5,-0.0195637,0,852889,5116979
12831.9,-0.0205109,0,854314,5125746
12841.3,-0.0213081,0,856090,5135590
12850.8,-0.0221674,0,856255,5136985
12860.3,-0.0230761,0,856461,5137924
12871.7,-0.0241841,0,857196,5141708
12881.2,-0.0251094,0,857912,5147036
12890.6,-0.0260287,0,858945,5152843
12900.1,-0.0269377,0,859829,5159313
12911.5,-0.0280089,0,860568,5163425
12921,-0.0288912,0,861324,5168777
12930.5,-0.029769,0,862457,5173861
12941.8,-0.030816,0,863303,5178806
12951.3,-0.031676,0,863238,5177875
12960.8,-0.0325158,0,863151,5177847
12970.3,-0.033331,0,863836,5182883
12981.7,-0.0342721,0,865135,5190063
12991.2,-0.0350203,0,865152,5190620
13000.6,-0.0357325,0,865191,5191019
13010.1,-0.0364082,0,865706,5194964
13021.5,-0.0371687,0,866955,5201617
13031,-0.0377572,0,867117,5202252
13040.5,-0.0383006,0,866620,5200439
13051.8,-0.0388896,0,867351,5203073
13061.3,-0.0393267,0,867470,5203075
13070.8,-0.0397158,0,867076,5201772
13080.3,-0.0400548,0,866835,5200439
13091.7,-0.0403959,0,866325,5198131
13101.1,-0.0406432,0,867095,5201031
13110.6,-0.0407187,0,867272,5203059
13120.1,-0.0407325,0,866823,5199830
13131.5,-0.0408245,0,865597,5194687
13141,-0.0408943,0,865232,5191626
13150.6,-0.0409468,0,865840,5195141
13160.1,-0.0407921,0,866269,5198308
13171.5,-0.0407106,0,866154,5198407
13181.1,-0.0406194,0,867165,5203092
13190.6,-0.0405268,0,867889,5208091
13200.1,-0.0402878,0,869117,5214736
13211.5,-0.0399488,0,868787,5213409
13221.1,-0.0396804,0,868434,5209917
13230.6,-0.0393947,0,868403,5211916
13240.1,-0.039147,0,868804,5213599
13251.5,-0.0387245,0,868575,5211581
13261.1,-0.0383407,0,868233,5210751
13270.6,-0.0379517,0,866759,5201623
13280.2,-0.0375459,0,865741,5195300
13291.6,-0.0370326,0,865446,5191967
13301.1,-0.0365807,0,865781,5193483
13310.7,-0.0361112,0,865500,5194403
13320.2,-0.0356329,0,865342,5192636
13331.7,-0.0350567,0,865806,5193483
13341.2,-0.0345781,0,865352,5191703
13350.7,-0.0341031,0,864536,5188144
13360.2,-0.0336317,0,865390,5191786
13371.5,-0.0330691,0,864559,5187160
13381.1,-0.0326068,0,864243,5186145
13390.6,-0.0321587,0,864979,5188615
13400.1,-0.0317329,0,865561,5193568
13411.4,-0.0312518,0,866604,5199529
13420.9,-0.0308745,0,866438,5198280
13430.4,-0.0305172,0,865884,5196488
13441.9,-0.0301229,0,868077,5207723
13451.3,-0.0298253,0,868595,5211490
13460.7,-0.029554,0,868911,5211880
13470.2,-0.0293094,0,868354,5210953
13481.7,-0.0290527,0,869456,5216769
13491.2,-0.0288721,0,870904,5226389
13500.7,-0.0287165,0,871594,5229547
13510.2,-0.0285561,0,872149,5234556
13521.6,-0.0281378,0,873162,5238667
13531.1,-0.028124,0,873850,5244672
13540.6,-0.0281145,0,875046,5251194
13550.1,-0.0285841,0,875597,5254409
13561.4,-0.0289716,0,876280,5258377
13570.9,-0.02871,0,877319,5262161
13580.4,-0.0287922,0,877474,5264171
13591.8,-0.0289154,0,878054,5268015
13601.4,-0.0291692,0,878173,5270158
13610.8,-0.0294083,0,879123,5274793
13620.3,-0.0296246,0,879485,5278133
13631.7,-0.0298981,0,880020,5280986
13641.2,-0.0301489,0,880106,5280261
13650.7,-0.0304498,0,880501,5283141
13660.2,-0.0309458,0,881038,5287159
13671.6,-0.0316439,0,882001,5290532
13681.1,-0.0319291,0,882625,5294389
13690.6,-0.032272,0,883346,5299511
13700.1,-0.0326922,0,884277,5304288
13711.4,-0.0332691,0,883537,5302143
13720.9,-0.0337751,0,883735,5302979
13730.4,-0.034272,0,883830,5303150
13741.8,-0.0348548,0,884264,5304095
13751.4,-0.0353505,0,884376,5306091
13760.8,-0.0358369,0,884823,5309797
13770.3,-0.0363099,0,885204,5311826
13781.7,-0.0368802,0,885815,5316195
13791.2,-0.0374409,0,886273,5318686
13800.8,-0.037955,0,886783,5320441
13810.3,-0.0384449,0,887584,5326243
13821.7,-0.0390273,0,887620,5325747
13831.2,-0.0395044,0,887888,5327816
13840.7,-0.0399608,0,888194,5330590
13850.2,-0.0403992,0,889471,5337531
13861.6,-0.0409108,0,890945,5346202
13871.1,-0.0413225,0,891394,5348995
13880.7,-0.0417144,0,892327,5354630
13890.2,-0.0421058,0,893802,5362901
13901.7,-0.0425785,0,895489,5373494
13911.2,-0.0429759,0,896078,5375691
13920.7,-0.0433646,0,896865,5381235
13930.2,-0.0437389,0,897861,5387252
13941.7,-0.0441672,0,899221,5394661
13951.2,-0.0444929,0,899005,5395370
13960.7,-0.0448013,0,899700,5397318
13970.3,-0.0451031,0,900211,5400774
13981.7,-0.0454543,0,900735,5403285
13991.2,-0.0457502,0,900326,5402763
14000.8,-0.0460532,0,900022,5401595
14010.3,-0.0463591,0,900917,5404696
14021.7,-0.0467252,0,901100,5407372
14031.2,-0.0470287,0,901110,5408179
14040.7,-0.0473278,0,901509,5407760
14050.2,-0.047608,0,900944,5405569
14061.6,-0.0480043,0,900511,5402574
14071.1,-0.0482725,0,899954,5400817
14080.6,-0.0485438,0,899758,5399136
14090,-0.0487757,0,900332,5402014
14101.4,-0.0490619,0,900264,5403398
14110.9,-0.0492497,0,900580,5404924
14120.3,-0.0494452,0,901528,5408268
14131.7,-0.0497242,0,901419,5410040
14141.2,-0.0499319,0,902032,5412562
14150.7,-0.0501219,0,902321,5413319
14160.2,-0.050315,0,902460,5415709
14171.6,-0.0505735,0,902710,5416394
14181.1,-0.0507217,0,903810,5421449
14190.6,-0.0509027,0,904544,5426998
14200.1,-0.05145,0,904860,5428986
14211.5,-0.0514791,0,904737,5429230
14221,-0.0515567,0,905247,5431687
14230.5,-0.0516266,0,905932,5434217
14240,-0.051223,0,906438,5437747
14251.4,-0.0511902,0,907050,5441938
14261,-0.051363,0,907355,5445147
14270.5,-0.0513253,0,908296,5448685
14281.9,-0.0518456,0,908978,5454108
14291.4,-0.0520069,0,909792,5457936
14301,-0.0510919,0,909680,5458262
14310.5,-0.051331,0,910351,5462629
14321.9,-0.0513783,0,910589,5463363
14331.3,-0.0515856,0,910813,5464795
14340.9,-0.0515201,0,910603,5464896
14350.4,-0.051469,0,910162,5460854
14361.8,-0.0512023,0,909692,5458049
14371.3,-0.05093,0,909414,5457815
14380.8,-0.0507003,0,909918,5460546
14390.3,-0.0504673,0,910166,5461167
14401.8,-0.0501787,0,909658,5458920
14411.3,-0.0499254,0,909754,5459978
14420.8,-0.04966,0,910041,5461773
14430.2,-0.0494001,0,910438,5462162
14441.7,-0.0490657,0,910430,5462235
14451.3,-0.0487593,0,910338,5462023
14460.8,-0.0484657,0,910105,5461000
14470.3,-0.0480332,0,910084,5461384
14481.7,-0.0475251,0,909745,5458244
14491.2,-0.0470982,0,909517,5457957
14500.7,-0.0466826,0,909451,5457874
14510.3,-0.0462621,0,909737,5459189
14521.6,-0.0457258,0,909690,5458037
14531.1,-0.0452485,0,909246,5455691
14540.7,-0.0447564,0,908526,5451491
14550.2,-0.0442659,0,908082,5449385
14561.6,-0.0436857,0,908188,5448370
14571.2,-0.0431904,0,907484,5445474
14580.6,-0.0426831,0,907843,5446531
14590.1,-0.0421241,0,907706,5447178
14601.5,-0.0414361,0,908563,5450230
14610.9,-0.0408747,0,907592,5446912
14620.4,-0.0405167,0,907227,5443816
14631.9,-0.0395808,0,907208,5442078
14641.4,-0.038898,0,907451,5444724
14650.8,-0.0382108,0,906922,5442528
14660.3,-0.0375123,0,906083,5437984
14671.7,-0.0366651,0,906350,5437259
14681.3,-0.0359304,0,906509,5439208
14690.7,-0.0351946,0,906441,5439233
14700.2,-0.0344365,0,906661,5440384
14711.6,-0.033506,0,906968,5442226
14721.2,-0.032709,0,907069,5443537
14730.7,-0.031898,0,907426,5445193
14740.2,-0.0310621,0,908517,5450332
14751.6,-0.0300323,0,909636,5458623
14761.1,-0.0291633,0,910422,5460960
14770.7,-0.0282808,0,910638,5464340
14780.2,-0.0273678,0,911643,5468740
14791.7,-0.0262172,0,911784,5471303
14801.3,-0.0252163,0,911841,5471885
14810.9,-0.024194,0,911537,5469828
14820.5,-0.0231755,0,912099,5471748
14830.1,-0.0221699,0,912536,5473612
14841.5,-0.0209746,0,911942,5471870
14851,-0.0199909,0,912368,5473094
14860.5,-0.0190054,0,912166,5473480
14870.1,-0.0180059,0,912409,5473642
14881.6,-0.016782,0,911912,5471396
14891.1,-0.0157398,0,911402,5468179
14900.7,-0.014689,0,911015,5465524
14910.2,-0.0136183,0,910668,5463431
14921.6,-0.0122996,0,909549,5456945
14931.2,-0.0111768,0,908856,5453989
14940.7,-0.0100485,0,908340,5449564
14950.2,-0.00891471,0,907451,5445892
14961.7,-0.00754812,0,906422,5439024
14971.3,-0.00641493,0,905748,5435435
14980.8,-0.00524342,0,905778,5433945
14990.4,-0.00405466,0,905324,5432960
15001.8,-0.00260263,0,905211,5431755
15011.4,-0.00142323,0,904846,5427995
15020.9,-0.000252738,0,903997,5424613
15030.4,0.000937764,0,904151,5425701
15041.9,0.00241266,0,905205,5430976
15051.4,0.00315677,0,905321,5431141
15061,0.00457403,0,904880,5430442
15070.4,0.00591995,0,905330,5431504
15081.7,0.00737109,0,905132,5432280
15091.2,0.00864743,0,906238,5435888
15100.8,0.00996971,0,905973,5436940
15110.2,0.0112272,0,906141,5437057
15121.6,0.0127829,0,906342,5436655
15131.1,0.0140796,0,906670,5438863
15140.7,0.0153888,0,906583,5440771
15150.3,0.016721,0,906996,5441601
15161.7,0.0183105,0,907489,5445680
15171.3,0.0196216,0,907599,5446396
15180.8,0.0209385,0,907772,5445434
15190.4,0.0222688,0,907506,5446545
15201.8,0.0238647,0,908206,5448526
15211.3,0.025195,0,908632,5451836
15220.8,0.0265129,0,908378,5450619
15230.2,0.0278274,0,907366,5445542
15241.7,0.0294135,0,907356,5443267
15251.2,0.0307175,0,907420,5445139
15260.7,0.0320029,0,908304,5449423
15270.3,0.0332763,0,909293,5456728
15281.7,0.0347839,0,908909,5454927
15291.2,0.0360278,0,909101,5454458
15300.7,0.0372684,0,909548,5457657
15310.3,0.0385054,0,910238,5462072
15321.7,0.0399763,0,911244,5466684
15331.2,0.0411919,0,911074,5466230
15340.7,0.0424008,0,911566,5468781
15350.2,0.043604,0,912188,5473129
15361.7,0.0450316,0,913144,5478929
15371.2,0.0461918,0,913980,5483127
15380.7,0.0473322,0,914274,5486418
15390.2,0.0484585,0,914855,5488207
15401.6,0.049794,0,915678,5493854
15411.2,0.0508918,0,916424,5499763
15420.7,0.0519726,0,917464,5503614
15430.2,0.0530364,0,917847,5507059
15441.6,0.0542969,0,918616,5512195
15451.2,0.0553376,0,919252,5515078
15460.7,0.056365,0,919623,5517699
15470.3,0.0573797,0,919945,5520540
15481.7,0.0585794,0,920205,5521709
15491.3,0.0595638,0,920040,5520721
15500.8,0.0605336,0,919574,5517561
15510.3,0.0614891,0,919262,5515637
15521.8,0.0626201,0,919618,5517141
15531.3,0.0635524,0,918658,5512854
15540.9,0.064474,0,918221,5507884
15550.4,0.065385,0,917355,5503981
15561.9,0.0664652,0,917726,5506577
15571.4,0.067356,0,916760,5500347
15581,0.0682398,0,915424,5493491
15590.5,0.0691158,0,915453,5491328
15600,0.0699826,0,914577,5485828
15611.5,0.0709977,0,913800,5482020
15621,0.0717979,0,912140,5472047
15630.5,0.072525,0,911513,5469494
15640.1,0.0731413,0,910893,5465463
15651.5,0.0738887,0,909879,5458503
15661,0.0737616,0,909298,5455595
15670.6,0.0738516,0,907446,5445423
15680.1,0.0742774,0,907550,5444142
15691.5,0.0744811,0,907516,5445377
15701.1,0.0745887,0,907013,5443138
15710.6,0.0747666,0,907327,5443261
15720,0.0750901,0,906981,5441376
15731.4,0.0751397,0,905567,5433074
15741,0.075111,0,905182,5431762
15750.4,0.0753106,0,905731,5433666
15761.8,0.0749194,0,905277,5432540
15771.3,0.0752646,0,905277,5431503
15780.8,0.0753196,0,905606,5435072
15790.3,0.0750402,0,906680,5438802
15801.6,0.0747826,0,906732,5440208
15811.1,0.0745024,0,906402,5437134
15820.6,0.0741649,0,906222,5437984
15830.1,0.0738164,0,906942,5441726
15841.4,0.0733229,0,906984,5443033
15850.9,0.0729722,0,907626,5446128
15860.4,0.0725895,0,907749,5447304
15871.8,0.0720642,0,908302,5450578
15881.3,0.0715743,0,909257,5455173
15890.8,0.0710237,0,909148,5454236
15900.3,0.0704236,0,910470,5461903
15911.8,0.0699464,0,910890,5464204
15921.2,0.0692108,0,911362,5466870
15930.7,0.0684621,0,911843,5469575
15940.1,0.0676312,0,912125,5473709
15951.6,0.0666279,0,912434,5475055
15961.1,0.0657689,0,913689,5482566
15970.6,0.0649052,0,914278,5485989
15980.1,0.0640222,0,913609,5482526
15991.5,0.0629284,0,913927,5483538
16001,0.0619912,0,914416,5485666
16010.5,0.0610199,0,914097,5484766
16020,0.0600054,0,913724,5482400
16031.5,0.0587394,0,913414,5479736
16041,0.0576583,0,912437,5474527
16050.5,0.0565672,0,911934,5472259
16060,0.0554672,0,911810,5471709
16071.4,0.054136,0,911384,5467522
16081,0.0530292,0,910761,5465237
16090.5,0.0519263,0,910626,5464993
16100,0.0508129,0,910817,5465182
16111.5,0.0494644,0,910520,5464167
16121,0.0482806,0,910804,5464317
16130.5,0.0473078,0,910319,5460672
16141.9,0.0458419,0,909692,5458439
16151.4,0.0446422,0,908516,5450857
16161,0.0434869,0,908294,5449988
16170.5,0.042392,0,907701,5445725
16180,0.0412691,0,906798,5440632
16191.4,0.039941,0,906254,5437934
16200.9,0.0388535,0,905873,5435673
16210.5,0.0377859,0,905492,5434380
16220.1,0.0367406,0,905039,5431365
16231.5,0.0355238,0,905202,5429855
16241,0.0345406,0,904481,5426111
16250.5,0.0335848,0,903589,5420691
16260,0.0326581,0,902936,5418156
16271.4,0.0315836,0,901417,5409439
16280.9,0.0307166,0,900820,5403392
16290.5,0.0298738,0,900012,5398804
16300,0.0290568,0,898807,5393607
16311.4,0.0281076,0,898733,5391746
16321,0.027343,0,897545,5386737
16330.5,0.0266109,0,897214,5382589
16340,0.025905,0,896417,5377949
16351.5,0.0250944,0,895829,5375311
16361,0.0244496,0,896372,5377136
16370.6,0.0238385,0,895780,5373393
16380,0.0232651,0,895076,5371120
16391.4,0.0226183,0,894953,5368531
16400.9,0.0218428,0,894751,5368458
16410.5,0.021363,0,894921,5369429
16420,0.020897,0,893990,5364515
16431.3,0.0204439,0,893199,5358468
16440.8,0.0200618,0,892069,5352859
16450.3,0.019704,0,892574,5353921
16461.7,0.0193385,0,891903,5350240
16471.3,0.0190726,0,892348,5354610
16480.7,0.0187851,0,892865,5356160
16490.1,0.0185164,0,891728,5351856
16501.5,0.0181046,0,891634,5350905
16511,0.0179728,0,892279,5354605
16520.5,0.0177709,0,892601,5354945
16530,0.0172274,0,892777,5356699
16541.4,0.0171048,0,893006,5356637
16550.9,0.0166064,0,892562,5354411
16560.4,0.0179236,0,891719,5350009
16571.8,0.0176692,0,891714,5350149
16581.3,0.0171621,0,891978,5350592
16590.8,0.0171609,0,891251,5347179
16600.3,0.0172211,0,890875,5345985
16611.6,0.017319,0,890217,5340366
16621.1,0.017439,0,889167,5335985
16630.7,0.0175298,0,889121,5334054
16640.2,0.0176001,0,888709,5333141
16651.5,0.0177498,0,888536,5331871
16661,0.0179097,0,888256,5329565
16670.5,0.0180719,0,887105,5323515
16680,0.0182347,0,886092,5317517
16691.5,0.0184251,0,885232,5311271
16700.9,0.0185802,0,884385,5305573
16710.4,0.0187356,0,883610,5300877
16721.8,0.0189091,0,883644,5302274
16731.3,0.0190503,0,883437,5299819
16740.8,0.0191917,0,882095,5292711
16750.3,0.0193315,0,881624,5289059
16761.7,0.0194949,0,880752,5284677
16771.2,0.0196269,0,880795,5284817
16780.7,0.019754,0,880255,5280891
16790.2,0.0198772,0,879672,5279308
16801.6,0.020025,0,879035,5274567
16811,0.0201478,0,878122,5268514
16820.5,0.0202697,0,877475,5266026
16831.9,0.0204152,0,877765,5267232
16841.4,0.0205336,0,877726,5267264
16850.8,0.0206446,0,877261,5265353
16860.3,0.0207479,0,876638,5258280
16871.7,0.0208708,0,875422,5253596
16881.2,0.0209774,0,875844,5255625
16890.7,0.0210813,0,875939,5256070
16900.1,0.021178,0,875295,5252235
16911.5,0.0212822,0,875455,5252287
16920.9,0.0213577,0,875099,5249852
16930.4,0.0214277,0,874907,5249926
16941.8,0.0215122,0,874561,5246482
16951.3,0.0215837,0,874553,5246185
16960.7,0.0216593,0,873468,5241381
16970.1,0.0217376,0,873942,5244170
16981.5,0.0218671,0,874634,5246481
16991,0.0219517,0,873775,5241654
17000.5,0.0220481,0,872578,5235503
17011.8,0.0220808,0,871966,5231350
17021.3,0.0221005,0,870916,5225499
17030.8,0.0221458,0,871139,5226144
17040.2,0.0222713,0,870782,5224131
17051.6,0.0224521,0,871132,5225533
17061,0.0226239,0,871675,5229682
17070.5,0.0230205,0,872030,5232578
17081.8,0.02403,0,872077,5231300
17091.3,0.0241554,0,872348,5235339
17100.8,0.0243947,0,872860,5237664
17110.3,0.0247165,0,873316,5240937
17121.6,0.0251888,0,873221,5239636
17131,0.0256511,0,874012,5242919
17140.5,0.0261102,0,874313,5245961
17151.9,0.026637,0,873560,5240533
17161.3,0.0270436,0,872431,5234937
17170.8,0.027437,0,872198,5233322
17180.3,0.0278541,0,872616,5236300
17191.6,0.028411,0,871897,5231208
17201.1,0.0288905,0,871793,5231728
17210.5,0.029388,0,871064,5226919
17220,0.0299169,0,869963,5219306
17231.4,0.0305709,0,868670,5213126
17240.9,0.0311179,0,868242,5209776
17250.3,0.0316723,0,867416,5204128
17261.7,0.0323604,0,865578,5194174
17271.1,0.0329537,0,864957,5189061
17280.6,0.0335748,0,863755,5182071
17290.1,0.0341627,0,862342,5175404
17301.5,0.0350041,0,861926,5170682
17311,0.0356089,0,861096,5165747
17320.4,0.0362626,0,860151,5160389
17331.8,0.0370181,0,857827,5147453
17341.3,0.0376346,0,857015,5142009
17350.8,0.0382505,0,855693,5134446
17360.3,0.0388551,0,855379,5133440
17371.7,0.0395605,0,854963,5129582
17381.2,0.0401287,0,854130,5123855
17390.8,0.0406244,0,853934,5122540
17400.3,0.0410695,0,853853,5122107
17411.8,0.0415321,0,852780,5116255
17421.4,0.0418806,0,851419,5109449
17430.9,0.0421803,0,850597,5104801
17440.4,0.0421082,0,851332,5107672
17450,0.042099,0,851014,5106903
17461.4,0.0421481,0,851261,5107001
17470.9,0.0418757,0,851487,5108909
17480.4,0.0418277,0,851241,5107233
17491.8,0.0416507,0,851413,5108520
17501.3,0.0414621,0,851964,5110900
17510.8,0.0412685,0,852735,5115773
17520.3,0.0411264,0,853131,5118754
17531.8,0.0407926,0,853388,5119072
17541.3,0.040478,0,853286,5120612
17550.8,0.0401437,0,853703,5123130
17560.4,0.0397335,0,855238,5132802
17571.9,0.0391722,0,855797,5134606
17581.4,0.0387108,0,856066,5136871
17591,0.0380508,0,857123,5141057
17600.6,0.037272,0,857460,5145216
17610.1,0.0365357,0,858144,5147354
17621.6,0.0355748,0,859075,5153699
17631.1,0.0347099,0,857802,5147445
17640.6,0.0337796,0,858578,5151483
17650,0.032791,0,858916,5152406
17661.4,0.0315444,0,858829,5152795
17670.9,0.0301464,0,858722,5152280
17680.3,0.0282913,0,858407,5149277
17691.7,0.0261891,0,858635,5151827
17701.1,0.0243122,0,858573,5152681
17710.6,0.0223804,0,859464,5158026
17720,0.0203437,0,860021,5159092
17731.4,0.0177292,0,859405,5155482
17740.8,0.0154641,0,859342,5154840
17750.3,0.0130841,0,859842,5157652
17761.6,0.0100505,0,859305,5155926
17771.1,0.00740189,0,859076,5155410
17780.6,0.00465152,0,859490,5157632
17790,0.00182058,0,859572,5156403
17801.4,-0.00166031,0,858308,5149945
17810.8,-0.00463959,0,858229,5150036
17820.3,-0.00768877,0,857969,5149044
17831.6,-0.011421,0,857170,5143924
17841.1,-0.0145873,0,857098,5141966
17850.5,-0.017801,0,857062,5141507
17860,-0.0210536,0,856938,5141168
17871.4,-0.0250021,0,856443,5137202
17880.8,-0.0283287,0,855066,5131298
17890.3,-0.0316819,0,854591,5127994
17901.6,-0.0357256,0,854358,5125628
17911.1,-0.0390954,0,853377,5121657
17920.5,-0.0424497,0,853564,5122198
17931.9,-0.0464404,0,852460,5115406
17941.3,-0.0497269,0,852278,5112575
17950.8,-0.0529662,0,851785,5111170
17960.3,-0.056146,0,850879,5104531
17971.6,-0.0598684,0,849692,5098520
17981.1,-0.0628845,0,849612,5097341
17990.5,-0.0658169,0,848584,5091916
18001.9,-0.069214,0,847188,5082057
18011.3,-0.0719303,0,845554,5073123
18020.8,-0.0745302,0,844295,5065957
18030.2,-0.0770053,0,843971,5063506
18041.6,-0.0798023,0,842914,5057088
18051,-0.0819824,0,841849,5051214
18060.5,-0.0840183,0,841017,5046652
18071.9,-0.0862587,0,841555,5049032
18081.3,-0.0879446,0,840991,5045420
18090.8,-0.0894537,0,839957,5039835
18100.2,-0.0907736,0,838271,5030159
18111.6,-0.0920908,0,837274,5022958
18121,-0.0929578,0,837083,5020978
18130.5,-0.0936293,0,835906,5016243
18141.8,-0.0942977,0,835231,5010529
18151.3,-0.094043,0,834066,5004764
18160.8,-0.0939785,0,833576,5000912
18170.2,-0.0936122,0,833065,4998863
18181.6,-0.093081,0,833551,5002009
18191,-0.0923432,0,833330,5000711
18200.5,-0.0916034,0,832989,4998890
18211.8,-0.0906627,0,832257,4993911
18221.3,-0.0897108,0,832014,4992016
18230.7,-0.0887115,0,831956,4991898
18240.1,-0.0876078,0,831485,4990575
18251.4,-0.0861583,0,831493,4989000
18260.9,-0.0849456,0,831948,4991315
18270.3,-0.0831715,0,832434,4993694
18281.6,-0.0807808,0,830886,4985667
18291.1,-0.0784907,0,830724,4983412
18300.5,-0.0760266,0,830463,4982146
18311.8,-0.0727765,0,830608,4982559
18321.2,-0.0698736,0,829958,4980629
18330.7,-0.0668604,0,829770,4977413
18340.1,-0.0637557,0,828269,4968607
18351.4,-0.0599306,0,826834,4959976
18360.9,-0.0566625,0,825678,4955273
18370.3,-0.0533231,0,825684,4952934
18381.6,-0.0492267,0,824166,4944260
18391,-0.0457443,0,822899,4937699
18400.5,-0.0422076,0,821333,4928808
18411.8,-0.0379155,0,819705,4919867
18421.2,-0.0343144,0,819547,4917152
18430.6,-0.0306971,0,818495,4911038
18440.1,-0.0270696,0,817005,4903018
18451.4,-0.022723,0,815474,4891881
18460.8,-0.0191245,0,814923,4889363
18470.3,-0.0155548,0,814195,4885099
18481.6,-0.0113127,0,813379,4880874
18491,-0.00781462,0,812044,4873340
18500.4,-0.00435031,0,811423,4868320
18511.8,-0.000238411,0,810944,4865320
18521.2,0.00314606,0,809023,4854596
18530.6,0.00648307,0,808626,4851752
18540.1,0.0097621,0,808533,4849942
18551.4,0.0136092,0,807669,4844560
18560.8,0.0167373,0,806350,4837057
18570.2,0.019793,0,804769,4829697
18581.6,0.023362,0,804504,4826427
18591,0.0262556,0,803311,4820413
18600.5,0.0290723,0,802483,4815696
18610.1,0.0318071,0,801986,4811807
18621.5,0.0349657,0,801475,4810008
18631,0.0374895,0,801117,4807368
18640.5,0.0399224,0,800270,4801633
18651.9,0.0427169,0,799857,4798297
18661.4,0.0449352,0,799025,4795090
18671,0.0470475,0,798580,4792006
18680.5,0.0490423,0,799441,4796597
18691.9,0.0512809,0,799781,4798765
18701.4,0.0530267,0,798784,4792507
18710.9,0.0546711,0,798002,4787136
18720.4,0.0562062,0,797661,4784518
18731.9,0.0578928,0,797888,4787589
18741.4,0.0591659,0,797882,4787538
18751,0.0603176,0,796398,4779912
18760.5,0.0613482,0,795959,4776203
18771.9,0.0624138,0,795915,4775641
18781.4,0.0631826,0,794973,4770328
18791,0.0638683,0,794677,4767747
18800.5,0.0646108,0,795395,4771017
18811.9,0.0646338,0,794707,4769270
18821.4,0.0650517,0,794530,4767425
18830.9,0.0652042,0,794662,4767156
18840.4,0.0644964,0,794498,4766693
18851.9,0.0643271,0,793534,4761469
18861.4,0.064994,0,792791,4757469
18871,0.0648132,0,792370,4753993
18880.5,0.0644352,0,792581,4754488
18891.9,0.0641509,0,792220,4752296
18901.4,0.0639444,0,790086,4741022
18911,0.0636504,0,789215,4734533
18920.6,0.0633664,0,788409,4731520
18930,0.0630406,0,787920,4727329
18941.4,0.0626083,0,786578,4719803
18951,0.0622184,0,785246,4712717
18960.6,0.0618019,0,784711,4708457
18970.1,0.0609625,0,784462,4706335
18981.5,0.0594714,0,783289,4700212
18991.1,0.0590497,0,782412,4693866
19000.6,0.0582976,0,781322,4687694
19010.2,0.0576879,0,780767,4684073
19021.6,0.0569903,0,779744,4678827
19031.1,0.0563572,0,778888,4672613
19040.7,0.0556479,0,778089,4667210
19050.3,0.0549237,0,777889,4668092
19061.8,0.0540274,0,778042,4668880
19071.3,0.0532184,0,777065,4662892
19080.8,0.0523715,0,775976,4656738
19090.2,0.0514769,0,774781,4649602
19101.6,0.0503641,0,773855,4643934
19111.2,0.0494364,0,774385,4647362
19120.7,0.0485542,0,774488,4647097
19130.2,0.0477103,0,772827,4637103
19141.7,0.0466953,0,772284,4634644
19151.1,0.0458583,0,772965,4636561
19160.6,0.0450483,0,772609,4635113
19170.2,0.0442716,0,772447,4633780
19181.5,0.0434048,0,771679,4629939
19191,0.0427234,0,771010,4626619
19200.6,0.0420795,0,771187,4626873
19210.1,0.0414757,0,771080,4625745
19221.5,0.0407979,0,770782,4625708
19230.9,0.0402624,0,769865,4618756
19240.5,0.0397373,0,768586,4612350
19250.1,0.0391596,0,769056,4613623
19261.5,0.0391211,0,768463,4611552
19271.1,0.0387594,0,767649,4605312
19280.6,0.0383479,0,766572,4600625
19290.1,0.0379238,0,766538,4598846
19301.6,0.0374775,0,766473,4599503
19311.1,0.0370894,0,766006,4595237
19320.6,0.0367307,0,765751,4593319
19330.2,0.0363617,0,765889,4596308
19341.7,0.0362868,0,765993,4595732
19351.2,0.0363577,0,765349,4593269
19360.7,0.0362297,0,765598,4592962
19370.3,0.035983,0,764756,4588771
19381.8,0.0357836,0,763912,4584168
19391.4,0.0359384,0,764433,4585436
19400.9,0.0364377,0,765106,4590344
19410.4,0.0363348,0,764266,4584361
19421.9,0.0346967,0,762895,4578627
19431.5,0.0351832,0,763636,4581734
19441.1,0.0354539,0,763686,4582634
19450.6,0.0353098,0,763409,4579217
19460.1,0.0357341,0,763259,4578928
19471.4,0.0357606,0,762491,4574544
19480.9,0.035636,0,762498,4576480
19490.4,0.0356355,0,762808,4577560
19501.7,0.0357648,0,763096,4578639
19511.2,0.0356963,0,762442,4574408
19520.7,0.0351328,0,761923,4571895
19530.1,0.0350734,0,761083,4566317
19541.5,0.0354511,0,761309,4568656
19551,0.0354926,0,761702,4568808
19560.4,0.0356191,0,761598,4570908
19571.8,0.0355997,0,762684,4574626
19581.3,0.0354145,0,762119,4571839
19590.7,0.0351274,0,761758,4570591
19600.2,0.0354432,0,761962,4570317
19611.5,0.0355909,0,761871,4572689
19621,0.035565,0,762069,4571922
19630.5,0.0355282,0,762161,4572285
19641.8,0.0354801,0,761982,4572777
19651.3,0.0354428,0,762158,4574355
19660.8,0.0354032,0,762763,4575398
19670.2,0.035354,0,762460,4575044
19681.6,0.0352594,0,762425,4574397
19691,0.0352306,0,762443,4573790
19700.4,0.0351335,0,762647,4575656
19711.7,0.0349803,0,762565,4576799
19721.2,0.0348538,0,762551,4576554
19730.6,0.0347652,0,762400,4573584
19740,0.0346493,0,761289,4567898
19751.4,0.0344763,0,760971,4566660
19760.8,0.0343205,0,761267,4568233
19770.2,0.0341634,0,760721,4565092
19781.5,0.0339717,0,760666,4562878
19791,0.0338039,0,759586,4558512
19800.4,0.0336215,0,759158,4554939
19811.7,0.0333789,0,759624,4556828
19821.2,0.0331555,0,758196,4550272
19830.6,0.0329113,0,757888,4546865
19840,0.0326587,0,757861,4545979
19851.3,0.0323525,0,756340,4537562
19860.8,0.0320857,0,755652,4534701
19870.2,0.0318184,0,755525,4533986
19881.5,0.0314675,0,755946,4536529
19890.9,0.0313523,0,755410,4531324
19900.4,0.0310564,0,753646,4522542
19911.7,0.0305779,0,753292,4518477
19921.1,0.0301843,0,753519,4521119
19930.6,0.029805,0,753738,4523637
19941.9,0.0293387,0,752883,4518188
19951.3,0.0289373,0,751508,4509763
19960.7,0.0285292,0,751056,4505645
19970.2,0.0281127,0,750639,4503859
19981.5,0.0275968,0,749657,4497706
19990.9,0.0271498,0,748802,4491532
