time,surface_elevation,reference_data,number_of_local_cells,number_of_global_cells
0,0,0,21480,128714
10.2895,0,0,21423,128724
20.5383,0,0,21868,131290
30.7356,0,0,22273,133590
40.8827,0,0,22613,135678
50.9813,0,0,22926,137592
61.0619,0,0,23273,139616
71.096,0,0,23627,141646
81.0826,0,0,23921,143606
91.0361,0,0,24257,145734
100.957,0,0,24654,147908
110.842,0,0,24964,149912
120.696,0,0,25331,151790
130.524,0,0,25665,153934
140.33,0,0,25999,156064
150.117,0,0,26329,157936
161.837,0,0,26750,160362
171.581,0,0,27072,162446
181.312,0,0,27430,164446
191.032,0,0,27741,166360
200.741,0,0,28098,168404
210.441,0,0,28419,170354
220.112,0,0,28679,172238
231.687,0,0,29123,174822
241.312,0,0,29487,176778
250.919,0,0,29815,178762
260.511,0,0,30111,180824
270.084,0,0,30453,182780
281.552,0,0,30818,185058
291.106,0,0,31213,187090
300.658,0,0,31534,189082
310.21,0,0,31842,191046
321.671,0,0,32267,193470
331.22,0,0,32600,195496
340.77,0,0,32916,197424
350.32,0,0,33221,199444
361.78,0,0,33626,201742
371.329,0,0,33950,203752
380.879,0,0,34283,205754
390.429,0,0,34621,207670
401.889,0,0,35061,210274
411.439,0,0,35380,212254
420.988,0,0,35729,214318
430.538,0,0,36080,216414
440.088,0,0,36387,218430
451.548,0,0,36814,221022
461.097,0,0,37178,223064
470.647,0,0,37519,225048
480.197,0,0,37854,227176
491.657,0,0,38227,229544
501.206,0,0,38613,231574
510.756,0,0,38996,233782
520.306,0,0,39313,235988
531.767,0,0,39749,238380
541.317,0,0,40069,240582
550.866,0,0,40462,242752
560.416,0,0,40781,244758
571.876,0,0,41233,247270
581.426,0,0,41592,249564
590.975,0,0,41930,251636
600.525,0,0,42280,253672
610.075,0,0,42681,256046
621.535,0,0,43146,258818
631.084,0,0,43529,261110
640.634,0,0,43891,263366
650.184,0,0,44280,265718
661.644,0,0,44673,268162
671.193,0,0,45105,270608
680.743,0,0,45458,272744
690.293,0,0,45831,275000
701.753,0,0,46311,277912
711.303,0,0,46707,280168
720.852,0,0,47096,282428
730.402,0,0,47436,284636
741.862,0,0,47902,287414
751.412,0,0,48337,289980
760.961,0,0,48679,292042
770.511,0,0,49091,294568
780.061,0,0,49461,296736
791.521,0,0,49943,299632
801.071,0,0,50313,301914
810.62,0,0,50706,304254
820.17,0,0,51093,306600
831.63,0,0,51544,309304
841.18,0,0,51960,311766
850.729,0,0,52363,314220
860.279,0,0,52760,316552
871.739,0,0,53177,319054
881.288,0,0,53568,321442
890.838,0,0,53956,323688
900.388,0,0,54367,326256
911.847,0,0,54863,329142
921.397,0,0,55225,331344
930.947,0,0,55592,333576
940.496,0,0,56008,336046
950.046,0,0,56443,338674
961.505,0,0,56962,341676
971.055,0,0,57325,343900
980.605,0,0,57739,346338
990.154,0,0,58124,348804
1001.61,0,0,58614,351758
1011.16,0,0,59082,354420
1020.71,0,0,59406,356480
1030.26,0,0,59833,358984
1041.72,0,0,60351,362020
1051.27,0,0,60760,364552
1060.82,0,0,61194,367176
1070.37,0,0,61579,369462
1081.83,0,0,62089,372493
1091.38,0,0,62486,374937
1100.93,0,0,62925,377575
1110.48,0,0,63399,380379
1120.03,0,0,63782,382703
1131.49,0,0,64263,385537
1141.04,0,0,64676,388013
1150.59,0,0,65094,390619
1160.14,0,0,65597,393531
1171.6,0,0,66106,396664
1181.15,0,0,66503,399040
1190.69,0,0,66963,401720
1200.24,0,0,67351,404100
1211.7,0,0,67922,407475
1221.25,0,0,68351,410149
1230.8,0,0,68793,412663
1240.35,0,0,69208,415217
1251.81,0,0,69743,418343
1261.36,0,0,70133,420815
1270.91,0,0,70581,423399
1280.46,0,0,71042,426273
1290.01,0,0,71495,428931
1301.47,0,0,72010,432211
1311.02,0,0,72463,434703
1320.57,0,0,72870,437309
1330.11,0,0,73374,440201
1341.54,0,0,73876,443311
1351.07,0,0,74339,446061
1360.56,0,0,74790,448639
1370.04,0,0,75233,451373
1381.42,0,0,75808,454861
1390.9,0,0,76237,457337
1400.38,0,0,76646,459883
1411.75,0,0,77209,463283
1421.23,0,0,77670,466023
1430.71,0,0,78146,468891
1440.2,0,0,78590,471549
1451.57,0,0,79118,474707
1461.05,0,0,79594,477549
1470.53,0,0,80113,480581
1480.01,0,0,80539,483197
1491.39,0,0,81046,486267
1500.87,0,0,81515,489118
1510.35,0,0,82016,492067
1521.72,0,0,82561,495369
1531.2,0,0,83057,498283
1540.68,0,0,83484,500861
1550.16,0,0,83966,503725
1561.54,0,0,84524,507141
1571.02,0,0,85006,510063
1580.5,0,0,85515,513067
1591.88,0,0,86058,516355
1601.36,-1.81899e-12,0,86517,519083
1610.84,-6.36646e-12,0,86985,521979
1620.32,-1.09139e-11,0,87484,524833
1631.69,-1.63709e-11,0,88085,528385
1641.17,-2.09184e-11,0,88529,531249
1650.65,-2.54659e-11,0,89026,534169
1660.13,-3.00133e-11,0,89486,536968
1671.51,-3.54703e-11,0,90101,540491
1680.99,-4.00178e-11,0,90540,543418
1690.47,-4.45652e-11,0,91062,546305
1701.85,-5.00222e-11,0,91594,549661
1711.33,-5.45697e-11,0,92102,552613
1720.81,-5.91172e-11,0,92626,555721
1730.29,-6.36646e-11,0,93092,558581
1741.66,-7.36691e-11,0,93671,561973
1751.14,-8.2764e-11,0,94204,565143
1760.62,-9.1859e-11,0,94680,568008
1770.1,-1.00954e-10,0,95222,571248
1781.48,-1.11868e-10,0,95829,574888
1790.96,-1.24601e-10,0,96293,577793
1800.44,-1.38243e-10,0,96772,580577
1811.82,-1.54614e-10,0,97369,584251
1821.3,-1.69166e-10,0,97892,587271
1830.78,-1.87356e-10,0,98391,590371
1840.26,-2.05546e-10,0,98950,593721
1851.63,-2.30102e-10,0,99527,597089
1861.11,-2.5284e-10,0,99968,599895
1870.59,-2.76486e-10,0,100490,602932
1880.07,-3.03771e-10,0,101032,606092
1891.45,-3.37423e-10,0,101643,609843
1900.93,-3.69255e-10,0,102213,613243
1910.41,-4.03816e-10,0,102747,616530
1921.78,-4.48381e-10,0,103350,620083
1931.26,-4.89308e-10,0,103896,623211
1940.74,-5.33873e-10,0,104360,626273
1950.22,-5.82077e-10,0,104847,629243
1961.6,-6.44832e-10,0,105610,633515
1971.08,-7.0213e-10,0,106096,636622
1980.56,-7.63976e-10,0,106649,639750
1990.04,-8.30369e-10,0,107133,642759
2001.42,-9.1768e-10,0,107770,646749
2010.9,-9.96806e-10,0,108332,650121
2020.38,-1.08139e-09,0,108927,653389
2031.75,-1.19235e-09,0,109530,657247
2041.23,-1.29239e-09,0,110091,660507
2050.71,-1.39971e-09,0,110633,663738
2060.19,-1.51613e-09,0,111154,666984
2071.57,-1.66801e-09,0,111847,671118
2081.05,-1.80535e-09,0,112421,674391
2090.53,-1.95178e-09,0,112964,677603
2100.01,-2.11003e-09,0,113490,680930
2111.39,-2.31466e-09,0,114168,684869
2120.87,-2.5002e-09,0,114770,688436
2130.35,-2.69847e-09,0,115316,691727
2141.72,-2.95677e-09,0,115936,695727
2151.2,-3.18869e-09,0,116499,698992
2160.68,-3.43698e-09,0,117079,702414
2170.16,-3.70346e-09,0,117627,705810
2181.54,-4.04816e-09,0,118367,710113
2191.02,-4.35739e-09,0,118899,713301
2200.5,-4.68935e-09,0,119441,716737
2211.87,-5.11773e-09,0,120114,720743
2221.35,-5.50153e-09,0,120681,724075
2230.83,-5.91172e-09,0,121215,727293
2240.31,-6.35009e-09,0,121758,730723
2251.69,-6.9158e-09,0,122545,735273
2261.17,-7.42148e-09,0,123121,738683
2270.65,-7.96172e-09,0,123691,742089
2280.13,-8.53652e-09,0,124251,745594
2291.51,-9.27594e-09,0,124936,749545
2300.99,-9.93532e-09,0,125516,753046
2310.47,-1.06365e-08,0,126122,756722
2321.81,-1.15369e-08,0,126836,761078
2331.27,-1.23373e-08,0,127402,764390
2340.72,-1.31886e-08,0,127993,768027
2350.16,-1.40917e-08,0,128570,771405
2361.48,-1.52486e-08,0,129268,775461
2370.92,-1.62781e-08,0,129903,779251
2380.35,-1.73704e-08,0,130478,782821
2391.67,-1.87702e-08,0,131228,787559
2401.1,-2.00116e-08,0,131866,791157
2410.53,-2.13249e-08,0,132376,794088
2421.85,-2.30011e-08,0,133004,798082
2431.28,-2.44845e-08,0,133597,801703
2440.71,-2.60507e-08,0,134250,805494
2450.14,-2.77023e-08,0,134857,809094
2461.46,-2.98032e-08,0,135611,813534
2470.89,-3.16559e-08,0,136266,817445
2480.33,-3.36058e-08,0,136775,820790
2491.65,-3.60806e-08,0,137506,824875
2501.08,-3.82634e-08,0,138150,828774
2510.51,-4.05707e-08,0,138711,832392
2521.83,-4.3513e-08,0,139430,836691
2531.26,-4.61159e-08,0,140010,840219
2540.69,-4.88617e-08,0,140687,843945
2550.12,-5.17557e-08,0,141284,847709
2561.44,-5.5431e-08,0,142000,851920
2570.87,-5.86706e-08,0,142625,855869
2580.31,-6.20785e-08,0,143259,859565
2591.62,-6.64004e-08,0,143958,863638
2601.06,-7.0203e-08,0,144500,867101
2610.49,-7.41975e-08,0,145155,870808
2621.81,-7.92543e-08,0,145847,875156
2631.24,-8.37008e-08,0,146558,879181
2640.67,-8.83674e-08,0,147109,882795
2650.1,-9.3265e-08,0,147778,886550
2661.42,-9.94623e-08,0,148452,890759
2670.85,-1.04905e-07,0,149059,894511
2680.29,-1.10612e-07,0,149698,898316
2691.6,-1.17822e-07,0,150486,902860
2701.04,-1.24147e-07,0,151050,906444
2710.47,-1.3077e-07,0,151692,909959
2721.79,-1.39126e-07,0,152377,914443
2731.22,-1.46447e-07,0,153045,918260
2740.67,-1.54118e-07,0,153700,922283
2750.13,-1.62156e-07,0,154335,926054
2761.49,-1.72289e-07,0,155093,930393
2770.93,-1.81128e-07,0,155691,934205
2780.36,-1.90356e-07,0,156277,937711
2791.68,-2.01978e-07,0,157017,942179
2801.11,-2.12139e-07,0,157634,945963
2810.54,-2.22752e-07,0,158317,949900
2821.86,-2.36116e-07,0,159080,954598
2831.29,-2.48046e-07,0,159777,958483
2840.73,-2.60908e-07,0,160321,962060
2850.16,-2.74394e-07,0,160986,965795
2861.48,-2.91469e-07,0,161731,970427
2870.91,-3.06495e-07,0,162373,974419
2880.34,-3.22287e-07,0,163058,978287
2891.66,-3.42305e-07,0,163793,982819
2901.09,-3.59933e-07,0,164446,986701
2910.52,-3.78469e-07,0,165154,990821
2921.84,-4.01971e-07,0,165905,995290
2931.27,-4.22654e-07,0,166511,999092
2940.7,-4.56175e-07,0,167139,1002903
2950.14,-4.99342e-07,0,167774,1006747
2961.46,-5.53902e-07,0,168602,1011640
2970.89,-6.01784e-07,0,169255,1015361
2980.32,-6.51927e-07,0,169827,1019057
2991.64,-7.15143e-07,0,170647,1023965
3001.07,-7.70412e-07,0,171307,1027799
3010.5,-8.28085e-07,0,171968,1031856
3021.82,-9.00551e-07,0,172806,1036762
3031.25,-9.6374e-07,0,173467,1040767
3040.68,-1.02957e-06,0,174165,1044915
3050.12,-1.09816e-06,0,174797,1048604
3061.43,-1.18428e-06,0,175519,1053020
3070.87,-1.25936e-06,0,176190,1057091
3080.3,-1.33757e-06,0,176843,1061111
3091.62,-1.43571e-06,0,177641,1065935
3101.05,-1.52122e-06,0,178341,1070035
3110.48,-1.61026e-06,0,179022,1074085
3121.8,-1.72197e-06,0,179759,1078507
3131.23,-1.81926e-06,0,180441,1082545
3140.66,-1.95533e-06,0,181110,1086619
3150.09,-2.14924e-06,0,181833,1090804
3161.41,-2.39065e-06,0,182584,1095687
3170.84,-2.59938e-06,0,183309,1099695
3180.28,-2.81521e-06,0,183916,1103501
3191.6,-3.06024e-06,0,184757,1108510
3201.03,-3.16982e-06,0,185457,1112658
3210.46,-3.28313e-06,0,186123,1116661
3221.78,-3.42862e-06,0,186899,1121325
3231.21,-3.56062e-06,0,187577,1125499
3240.64,-3.7043e-06,0,188284,1129604
3250.07,-3.86096e-06,0,188952,1133635
3261.39,-4.06736e-06,0,189801,1138862
3270.82,-4.25526e-06,0,190501,1142952
3280.26,-4.45713e-06,0,191136,1146836
3291.57,-4.71354e-06,0,192015,1152067
3301.01,-4.92838e-06,0,192678,1156024
3310.44,-5.14724e-06,0,193367,1160156
3321.76,-5.42063e-06,0,194254,1165461
3331.19,-5.66152e-06,0,194901,1169480
3340.62,-5.91759e-06,0,195658,1173808
3350.05,-6.19151e-06,0,196345,1178077
3361.37,-6.5457e-06,0,197270,1183544
3370.8,-6.85542e-06,0,197916,1187458
3380.23,-7.1643e-06,0,198631,1191706
3391.55,-7.54358e-06,0,199543,1197192
3400.98,-7.87425e-06,0,200204,1201307
3410.41,-8.22347e-06,0,200982,1205777
3421.73,-8.67336e-06,0,201868,1211129
3431.16,-9.07909e-06,0,202507,1215124
3440.6,-9.51738e-06,0,203201,1219135
3450.03,-9.99182e-06,0,203970,1223728
3461.35,-1.09326e-05,0,204858,1229137
3470.78,-1.17135e-05,0,205565,1233371
3480.21,-1.24983e-05,0,206328,1237871
3491.53,-1.34594e-05,0,207154,1242997
3500.96,-1.41181e-05,0,207832,1247054
3510.39,-1.46541e-05,0,208592,1251473
3521.71,-1.53588e-05,0,209476,1256780
3531.14,-1.60492e-05,0,210138,1260818
3540.57,-1.68623e-05,0,210834,1265008
3550.01,-1.78133e-05,0,211575,1269488
3561.32,-1.91139e-05,0,212416,1274507
3570.76,-2.02435e-05,0,213112,1278589
3580.19,-2.14255e-05,0,213883,1283222
3591.5,-2.28506e-05,0,214743,1288470
3600.94,-2.42863e-05,0,215462,1292794
3610.37,-2.63804e-05,0,216246,1297388
3621.69,-2.91795e-05,0,217141,1302769
3631.12,-3.17968e-05,0,217848,1307021
3640.55,-3.46971e-05,0,218556,1311423
3651.87,-3.85183e-05,0,219428,1316618
3661.3,-4.29416e-05,0,220202,1321125
3670.73,-4.79918e-05,0,220897,1325342
3680.16,-5.33441e-05,0,221611,1329756
3691.48,-6.0037e-05,0,222523,1335170
3700.91,-6.58076e-05,0,223144,1339213
3710.34,-7.19134e-05,0,224008,1343812
3721.66,-7.99213e-05,0,224846,1349200
3731.09,-8.72455e-05,0,225563,1353454
3740.52,-8.86039e-05,0,226281,1357921
3751.84,-9.47006e-05,0,227119,1362717
3761.27,-0.000103545,0,227753,1366868
3770.71,-0.000114275,0,228571,1371360
3780.14,-0.000127304,0,229305,1375914
3791.46,-0.000141547,0,230151,1380945
3800.89,-0.000150065,0,230904,1385389
3810.32,-0.000166079,0,231630,1389798
3821.64,-0.000191581,0,232496,1394994
3831.07,-0.000216242,0,233222,1399356
3840.5,-0.000241637,0,233961,1403695
3851.82,-0.000274079,0,234846,1409057
3861.25,-0.000317562,0,235568,1413319
3870.68,-0.000364042,0,236294,1417749
3880.11,-0.000414991,0,237084,1422563
3891.43,-0.00048718,0,237912,1427507
3900.86,-0.000558497,0,238614,1431758
3910.29,-0.000652282,0,239442,1436674
3921.61,-0.000762058,0,240315,1441843
3931.04,-0.000858426,0,241015,1446069
3940.47,-0.000955374,0,241743,1450510
3951.79,-0.0010749,0,242627,1455912
3961.22,-0.0011757,0,243357,1460199
3970.65,-0.00133735,0,244135,1464858
3980.08,-0.00151855,0,244910,1469396
3991.4,-0.00173886,0,245748,1474510
4000.83,-0.00192448,0,246436,1478645
4010.27,-0.00212679,0,247231,1483290
4021.58,-0.00237824,0,248088,1488519
4031.01,-0.00259651,0,248838,1492982
4040.45,-0.00283029,0,249609,1497581
4051.76,-0.00312679,0,250527,1503111
4061.2,-0.00338757,0,251214,1507342
4070.63,-0.00366457,0,252016,1512041
4080.06,-0.00395544,0,252763,1516542
4091.38,-0.00432204,0,253619,1521655
4100.81,-0.0046451,0,254418,1526465
4110.24,-0.00498433,0,255247,1531296
4121.56,-0.00541207,0,256077,1536399
4130.99,-0.00578616,0,256793,1540849
4140.42,-0.00617584,0,257591,1545515
4151.74,-0.00666393,0,258500,1551016
4161.17,-0.0070886,0,259242,1555417
4170.6,-0.00752985,0,260008,1559953
4180.03,-0.00798727,0,260800,1564844
4191.35,-0.00855655,0,261651,1569910
4200.78,-0.00904678,0,262477,1574819
4210.21,-0.00955056,0,263227,1579604
4221.53,-0.0101726,0,264061,1584476
4230.96,-0.0107055,0,264901,1589427
4240.39,-0.0112511,0,265749,1594335
4251.71,-0.0119216,0,266576,1599786
4261.14,-0.0124924,0,267439,1604543
4270.58,-0.0130732,0,268176,1609277
4280.01,-0.0136635,0,269044,1614112
4291.33,-0.0143839,0,270019,1619763
4300.76,-0.0149937,0,270817,1624792
4310.19,-0.0156115,0,271621,1629682
4321.51,-0.0163616,0,272527,1635241
4330.94,-0.0169923,0,273325,1639871
4340.37,-0.0176264,0,274105,1644684
4351.69,-0.0183896,0,275045,1650200
4361.12,-0.0190254,0,275841,1654868
4370.55,-0.0196586,0,276614,1659769
4381.87,-0.0204108,0,277596,1665534
4391.3,-0.0210272,0,278382,1670259
4400.73,-0.0216301,0,279182,1675039
4410.17,-0.0222153,0,280025,1680099
4421.48,-0.0228877,0,280987,1685773
4430.92,-0.0234169,0,281816,1690788
4440.35,-0.0239116,0,282607,1695645
4451.67,-0.0244501,0,283594,1701565
4461.1,-0.0248444,0,284365,1706224
4470.53,-0.0251807,0,285168,1711260
4481.85,-0.0254957,0,286169,1716966
4491.28,-0.0256741,0,286905,1721385
4500.71,-0.0257692,0,287727,1726292
4510.14,-0.0257934,0,288572,1731283
4521.46,-0.0255716,0,289574,1737363
4530.89,-0.0253113,0,290336,1742112
4540.33,-0.0249186,0,291158,1747111
4551.64,-0.0242435,0,292176,1753073
4561.08,-0.0234839,0,292968,1757688
4570.51,-0.0225274,0,293775,1762445
4581.83,-0.0211067,0,294758,1768519
4591.26,-0.0196587,0,295605,1773758
4600.69,-0.0179523,0,296395,1778547
4610.12,-0.0159652,0,297225,1783422
4621.44,-0.0131664,0,298259,1789679
4630.87,-0.010459,0,299084,1794605
4640.31,-0.00738019,0,299891,1799369
4651.62,-0.00315262,0,300935,1805518
4661.06,0.000845879,0,301772,1810731
4670.49,0.00530578,0,302574,1815458
4681.81,0.0113045,0,303473,1820967
4691.24,0.0168699,0,304334,1826187
4700.67,0.0229732,0,305200,1831357
4710.1,0.0296318,0,306069,1836523
4721.42,0.0383715,0,307114,1842640
4730.85,0.046287,0,307977,1847940
4740.28,0.0547791,0,308796,1852950
4751.6,0.0657229,0,309825,1858944
4761.03,0.0754569,0,310668,1864013
4770.47,0.0857296,0,311497,1868824
4781.78,0.0987321,0,312461,1874802
4791.22,0.110094,0,313336,1879966
4800.65,0.121895,0,314211,1885183
4810.08,0.134095,0,315102,1890604
4821.4,0.149199,0,316145,1896798
4830.83,0.162118,0,317003,1902014
4840.26,0.175287,0,317792,1906731
4851.58,0.191348,0,318773,1912693
4861.01,0.204891,0,319631,1917721
4870.44,0.218526,0,320461,1922724
4881.76,0.234942,0,321445,1928944
4891.2,0.248615,0,322360,1934135
4900.63,0.262237,0,323198,1939123
4910.06,0.275768,0,324117,1944631
4921.38,0.291832,0,325092,1950645
4930.81,0.305033,0,325876,1955324
4940.24,0.31803,0,326703,1960324
4951.56,0.333315,0,327793,1966804
4960.99,0.345757,0,328679,1972022
4970.42,0.3579,0,329586,1977421
4981.74,0.372036,0,330655,1983639
4991.17,0.38342,0,331449,1988681
5000.61,0.394411,0,332400,1994225
5010.04,0.404979,0,333278,1999839
5021.36,0.417058,0,334387,2006386
5030.79,0.426583,0,335298,2011591
5040.22,0.435581,0,336151,2016862
5051.54,0.445632,0,337198,2023174
5060.97,0.453343,0,338070,2028500
5070.4,0.460412,0,338978,2033958
5081.72,0.467995,0,340027,2040147
5091.15,0.47352,0,340877,2045575
5100.58,0.478286,0,341812,2051008
5110.02,0.482259,0,342720,2056554
5121.34,0.48593,0,343744,2062311
5130.77,0.488041,0,344551,2067475
5140.2,0.48926,0,345584,2073180
5151.52,0.489508,0,346666,2080228
5160.95,0.488678,0,347518,2085189
5170.38,0.486886,0,348442,2090729
5181.7,0.483449,0,349535,2097066
5191.13,0.479503,0,350369,2102393
5200.56,0.474569,0,351324,2108130
5211.88,0.467351,0,352534,2115133
5221.31,0.460264,0,353433,2120621
5230.75,0.452219,0,354398,2126272
5240.18,0.443236,0,355344,2131991
5251.5,0.431258,0,356478,2138927
5260.93,0.420317,0,357357,2144325
5270.36,0.408547,0,358269,2149640
5281.68,0.393393,0,359438,2156672
5291.11,0.379969,0,360450,2162704
5300.54,0.365881,0,361273,2167973
5311.86,0.348189,0,362454,2174814
5321.29,0.332867,0,363431,2180389
5330.73,0.317092,0,364321,2186144
5340.16,0.300937,0,365245,2191802
5351.48,0.28115,0,366377,2198253
5360.91,0.264411,0,367274,2203905
5370.34,0.247521,0,368277,2209493
5381.66,0.227149,0,369427,2216418
5391.09,0.21016,0,370337,2221915
5400.52,0.193225,0,371223,2227185
5411.84,0.173047,0,372289,2233918
5421.27,0.156407,0,373220,2239313
5430.7,0.139967,0,374100,2244565
5440.14,0.123758,0,375102,2250512
5451.45,0.104643,0,376270,2257612
5460.89,0.0890101,0,377304,2263822
5470.32,0.0736528,0,378148,2269125
5481.64,0.055585,0,379451,2276382
5491.07,0.0408187,0,380361,2282102
5500.5,0.0263003,0,381399,2288040
5511.82,0.00917753,0,382564,2295266
5521.25,-0.00486944,0,383564,2301304
5530.68,-0.0187417,0,384524,2306987
5540.12,-0.0324775,0,385532,2312859
5551.44,-0.0487845,0,386630,2319771
5560.87,-0.0622659,0,387656,2325705
5570.31,-0.0756692,0,388648,2331775
5581.62,-0.0916685,0,389868,2338977
5591.06,-0.104938,0,390903,2345030
5600.49,-0.11815,0,391895,2351143
5611.81,-0.133915,0,393107,2358358
5621.24,-0.146955,0,394007,2364412
5630.67,-0.159879,0,395101,2370734
5640.1,-0.17265,0,396146,2376659
5651.42,-0.187709,0,397319,2384197
5660.85,-0.199974,0,398447,2389979
5670.29,-0.211916,0,399336,2396133
5681.6,-0.225725,0,400577,2403316
5691.04,-0.236714,0,401601,2409230
5700.47,-0.247151,0,402592,2415526
5711.79,-0.258836,0,403762,2422616
5721.22,-0.267783,0,404724,2428412
5730.65,-0.27593,0,405842,2434638
5740.08,-0.283203,0,406744,2440619
5751.4,-0.290682,0,407978,2448327
5760.83,-0.2958,0,409103,2454213
5770.26,-0.299848,0,410018,2460054
5781.58,-0.303231,0,411208,2467523
5791.02,-0.304783,0,412303,2473907
5800.45,-0.305158,0,413210,2479982
5811.77,-0.304042,0,414541,2487075
5821.2,-0.30181,0,415462,2493077
5830.63,-0.298413,0,416423,2499118
5840.06,-0.293879,0,417513,2505257
5851.38,-0.286993,0,418752,2512735
5860.81,-0.280114,0,419837,2519102
5870.24,-0.272264,0,420759,2524804
5881.56,-0.261667,0,422117,2532651
5890.99,-0.251952,0,423140,2539027
5900.43,-0.241527,0,424308,2545077
5911.74,-0.228216,0,425421,2552115
5921.18,-0.216571,0,426239,2557950
5930.61,-0.204532,0,427317,2564227
5940.04,-0.192202,0,428385,2570236
5951.36,-0.177164,0,429446,2577252
5960.79,-0.164548,0,430528,2583000
5970.22,-0.151955,0,431484,2588846
5981.54,-0.137003,0,432687,2596428
5990.97,-0.124775,0,433883,2603145
6000.41,-0.112839,0,434794,2608934
6011.72,-0.0989979,0,436112,2616294
6021.16,-0.0879373,0,437063,2622206
6030.59,-0.0773624,0,438087,2628273
6040.02,-0.0673164,0,439251,2635284
6051.34,-0.0560081,0,440503,2642982
6060.77,-0.0472378,0,441627,2649865
6070.2,-0.0390812,0,442670,2656320
6081.52,-0.0301183,0,444033,2664430
6090.95,-0.0233417,0,445223,2671111
6100.39,-0.0171926,0,446353,2677850
6111.7,-0.0106324,0,447536,2685714
6121.14,-0.00583424,0,448622,2692049
6130.57,-0.0016283,0,449661,2698182
6141.89,0.00266205,0,451086,2706164
6151.32,0.00562982,0,452125,2712745
6160.75,0.00806785,0,453145,2718813
6170.18,0.00999817,0,454164,2724951
6181.5,0.0116761,0,455391,2731995
6190.93,0.012569,0,456388,2738467
6200.36,0.0130265,0,457439,2744852
6211.68,0.0130323,0,458810,2752466
6221.12,0.0126106,0,459884,2759390
6230.55,0.0118244,0,460879,2765623
6241.87,0.0104305,0,462272,2773501
6251.3,0.00891904,0,463257,2779574
6260.73,0.00711293,0,464285,2786035
6270.16,0.00503433,0,465343,2792050
6281.48,0.00221224,0,466610,2799642
6290.91,-0.000385349,0,467787,2806488
6300.34,-0.00318087,0,468940,2813272
6311.66,-0.00676187,0,470214,2821084
6321.09,-0.00990466,0,471317,2827292
6330.53,-0.0131636,0,472366,2833846
6341.84,-0.0171896,0,473637,2841927
6351.28,-0.0206085,0,474677,2848317
6360.71,-0.0240558,0,475754,2854743
6370.14,-0.0275038,0,476698,2860532
6381.46,-0.0316037,0,478051,2868375
6390.89,-0.0349574,0,479178,2874716
6400.32,-0.0382264,0,480290,2882055
6411.64,-0.0420031,0,481781,2889951
6421.07,-0.0450019,0,482844,2896628
6430.51,-0.047844,0,483937,2903543
6441.82,-0.0510223,0,485181,2911236
6451.26,-0.0534593,0,486230,2917833
6460.69,-0.0556907,0,487527,2924564
6470.12,-0.0577074,0,488594,2931028
6481.44,-0.0598352,0,489818,2939034
6490.87,-0.0613617,0,490904,2945496
6500.3,-0.0626642,0,492078,2952765
6511.62,-0.0639367,0,493560,2961330
6521.05,-0.0647631,0,494723,2967830
6530.49,-0.0653868,0,495610,2974277
6541.8,-0.0658857,0,497138,2982883
6551.24,-0.0661127,0,498123,2989260
6560.67,-0.0661777,0,499385,2995572
6570.1,-0.0660954,0,500361,3001913
6581.42,-0.0658382,0,501654,3009880
6590.85,-0.0655044,0,502780,3016215
6600.28,-0.0650981,0,503910,3022821
6611.6,-0.064528,0,505131,3030436
6621.03,-0.0639963,0,506126,3036888
6630.46,-0.0634397,0,507246,3043450
6641.78,-0.0627538,0,508635,3051443
6651.21,-0.062189,0,509802,3058180
6660.65,-0.0616442,0,510665,3064651
6670.09,-0.0611259,0,511829,3071138
6681.41,-0.0605561,0,513072,3079073
6690.84,-0.06013,0,514283,3085507
6700.27,-0.0597559,0,515317,3092103
6711.59,-0.0593848,0,516712,3100984
6721.02,-0.0591432,0,518129,3108133
6730.46,-0.0589619,0,519128,3114090
6741.77,-0.058824,0,520259,3121481
6751.21,-0.0588086,0,521402,3128373
6760.64,-0.0588381,0,522586,3134871
6770.07,-0.0588776,0,523544,3141920
6781.39,-0.0590373,0,524931,3149928
6790.82,-0.0591645,0,526219,3156671
6800.25,-0.059299,0,527159,3163634
6811.57,-0.0596013,0,528787,3172272
6821,-0.0598939,0,529913,3178925
6830.44,-0.0601858,0,530815,3185464
6841.75,-0.06051,0,532132,3193517
6851.19,-0.0607621,0,533439,3200298
6860.62,-0.0610072,0,534561,3207267
6870.05,-0.0612467,0,535538,3213681
6881.37,-0.061509,0,536939,3221157
6890.8,-0.0616821,0,537983,3227575
6900.23,-0.0618219,0,539148,3234235
6911.55,-0.0619719,0,540417,3242599
6920.98,-0.0620324,0,541613,3249651
6930.41,-0.0621811,0,542728,3256074
6941.73,-0.0619343,0,543949,3264399
6951.17,-0.0620498,0,545244,3270804
6960.6,-0.0619225,0,546100,3277082
6970.03,-0.0617234,0,547516,3284374
6981.35,-0.0613655,0,548739,3292075
6990.78,-0.0610827,0,549935,3299067
7000.21,-0.0607273,0,551039,3305696
7011.53,-0.0602,0,552250,3314043
7020.96,-0.0597131,0,553466,3320394
7030.39,-0.0591884,0,554585,3327093
7041.71,-0.0584776,0,555901,3334895
7051.14,-0.0578179,0,557019,3341712
7060.58,-0.0571259,0,558056,3348254
7070.01,-0.0564026,0,559264,3355474
7081.33,-0.055479,0,560542,3363328
7090.76,-0.0546646,0,561720,3369904
7100.19,-0.0538197,0,562799,3376176
7111.51,-0.0527837,0,564138,3384589
7120.94,-0.0519053,0,565277,3391170
7130.37,-0.0510104,0,566373,3398090
7141.69,-0.0499222,0,567527,3405759
7151.12,-0.0490104,0,568695,3412695
7160.56,-0.0481002,0,569930,3419350
7171.87,-0.047019,0,571193,3427729
7181.31,-0.0461365,0,572520,3434503
7190.74,-0.0452778,0,573548,3441391
7200.17,-0.0444452,0,574724,3448484
7211.49,-0.0434812,0,576030,3456111
7220.92,-0.0427101,0,577178,3462838
7230.35,-0.0419738,0,578241,3469711
7241.67,-0.0411427,0,579681,3477651
7251.1,-0.0404974,0,580686,3484332
7260.54,-0.0398972,0,581924,3491273
7271.85,-0.0392388,0,583327,3499310
7281.29,-0.0387429,0,584461,3506237
7290.72,-0.0382945,0,585606,3513015
7300.15,-0.0378922,0,586687,3520123
7311.47,-0.037468,0,587899,3527749
7320.9,-0.0371598,0,589172,3534457
7330.33,-0.0368893,0,590247,3541625
7341.65,-0.0366149,0,591730,3549978
7351.08,-0.0364307,0,592657,3556517
7360.51,-0.0362925,0,593747,3563212
7371.83,-0.0361704,0,595307,3571789
7381.26,-0.0360752,0,596449,3578089
7390.7,-0.0359725,0,597525,3585239
7400.13,-0.0358736,0,598635,3591832
7411.45,-0.0357634,0,599962,3600043
7420.88,-0.0357057,0,601100,3606768
7430.31,-0.0355888,0,602257,3613266
7441.63,-0.0354276,0,603518,3621599
7451.06,-0.0352723,0,604738,3628379
7460.49,-0.0350253,0,605766,3634881
7471.81,-0.0347349,0,607158,3642975
7481.24,-0.0344388,0,608304,3649832
7490.67,-0.0340801,0,609337,3656148
7500.11,-0.0336586,0,610596,3663088
7511.42,-0.0330766,0,612072,3671541
7520.86,-0.032519,0,613231,3678887
7530.29,-0.0318786,0,614282,3684937
7541.61,-0.0309926,0,615582,3693883
7551.04,-0.0301673,0,616877,3700544
7560.47,-0.0292646,0,617825,3707568
7571.79,-0.0280618,0,619460,3716446
7581.22,-0.0269535,0,620553,3723609
7590.65,-0.0257534,0,621691,3730550
7600.08,-0.0244636,0,622968,3737236
7611.4,-0.0227954,0,624082,3745073
7620.83,-0.0213069,0,625389,3751753
7630.27,-0.019733,0,626330,3758651
7641.58,-0.0177374,0,627965,3767177
7651.02,-0.0159917,0,629009,3773829
7660.45,-0.0141772,0,630208,3780628
7671.77,-0.011917,0,631457,3788979
7681.2,-0.00997151,0,632741,3796038
7690.63,-0.0079764,0,633770,3803237
7700.06,-0.0059388,0,635134,3810357
7711.38,-0.00344842,0,636361,3818291
7720.81,-0.00134507,0,637463,3825478
7730.24,0.000774772,0,638742,3832605
7741.56,0.00332875,0,640216,3841548
7750.99,0.00545621,0,641469,3848326
7760.42,0.00757428,0,642626,3855667
7771.74,0.0100908,0,644082,3864035
7781.17,0.012155,0,645096,3870053
7790.61,0.0141794,0,646217,3877096
7800.04,0.0161563,0,647393,3884432
7811.36,0.0184567,0,648799,3892577
7820.79,0.020306,0,649950,3900048
7830.22,0.0220865,0,651204,3906976
7841.54,0.0241239,0,652436,3915348
7850.97,0.0257329,0,653601,3922175
7860.4,0.0272566,0,654729,3928995
7871.72,0.0289665,0,656256,3937207
7881.15,0.0302881,0,657311,3944492
7890.58,0.0315118,0,658650,3951679
7900.02,0.0326342,0,659696,3958285
7911.34,0.0338433,0,661098,3967130
7920.77,0.0347331,0,662383,3973716
7930.2,0.0355151,0,663293,3980365
7941.52,0.0363108,0,664742,3988701
7950.95,0.0368553,0,666117,3996043
7960.38,0.0372924,0,667125,4003048
7971.7,0.0376766,0,668650,4011157
7981.13,0.0378891,0,669941,4018958
7990.57,0.0380105,0,671087,4026384
8001.88,0.0379583,0,672524,4035057
8011.32,0.0378229,0,673726,4041815
8020.75,0.0376138,0,674792,4048989
8030.18,0.0373078,0,675915,4055837
8041.5,0.0368201,0,677348,4063973
8050.93,0.0363162,0,678603,4071119
8060.36,0.0357265,0,679795,4078306
8071.68,0.0349126,0,680940,4086316
8081.11,0.0341482,0,682167,4093374
8090.54,0.033307,0,683378,4100568
8101.86,0.0322006,0,685044,4109599
8111.29,0.0312023,0,686183,4116974
8120.73,0.030138,0,687342,4123835
8130.16,0.0290093,0,688473,4130504
8141.48,0.0275731,0,689795,4139434
8150.91,0.0263113,0,690953,4146426
8160.35,0.0249951,0,692268,4153474
8171.67,0.0233462,0,693784,4162190
8181.1,0.0219194,0,695013,4169320
8190.53,0.0204475,0,695896,4176133
8201.85,0.0186228,0,697393,4184752
8211.28,0.0170588,0,698460,4191292
8220.71,0.0154612,0,699433,4197316
8230.15,0.0138323,0,700514,4203554
8241.46,0.0118413,0,702063,4211802
8250.9,0.0101578,0,703181,4219117
8260.33,0.00845669,0,704321,4225880
8271.65,0.00639623,0,705783,4233952
8281.08,0.00466711,0,706741,4241112
8290.51,0.00293112,0,708026,4248674
8301.83,0.000844967,0,709411,4256801
8311.26,-0.000890355,0,710731,4263804
8320.69,-0.0026184,0,712021,4271532
8330.12,-0.00433527,0,712945,4277860
8341.44,-0.00637483,0,714366,4286248
8350.87,-0.00805332,0,715616,4293036
8360.31,-0.00970941,0,716703,4299580
8371.62,-0.0116618,0,717977,4308359
8381.06,-0.013255,0,719192,4314665
8390.49,-0.0148135,0,720339,4321797
8401.81,-0.0166334,0,721680,4330004
8411.24,-0.0181053,0,722818,4336799
8420.67,-0.0195338,0,723875,4343749
8430.1,-0.0209166,0,725113,4350697
8441.42,-0.0225123,0,726397,4359000
8450.85,-0.0237872,0,727552,4366355
8460.29,-0.0250115,0,728699,4373103
8471.61,-0.0264107,0,730213,4381753
8481.04,-0.0275174,0,731540,4388557
8490.47,-0.028569,0,732601,4395982
8501.79,-0.0297573,0,733894,4403887
8511.22,-0.0306861,0,735098,4410589
8520.65,-0.0315588,0,736375,4417158
8530.08,-0.0323757,0,737177,4422855
8541.4,-0.0332825,0,738234,4430543
8550.83,-0.0339775,0,739467,4437113
8560.27,-0.034618,0,740887,4444552
8571.59,-0.0353151,0,742246,4452719
8581.02,-0.0358371,0,743427,4459108
8590.45,-0.0363065,0,744399,4465951
8601.77,-0.0368027,0,745805,4474005
8611.2,-0.0371628,0,746973,4481156
8620.63,-0.0374705,0,748110,4488643
8630.06,-0.0377169,0,749302,4494678
8641.38,-0.0379448,0,750510,4502597
8650.81,-0.0380317,0,751331,4509469
8660.25,-0.0380296,0,752819,4515627
8671.56,-0.0380879,0,754126,4523765
8681,-0.0379789,0,755275,4531079
8690.43,-0.0379228,0,756403,4537280
8701.75,-0.0377196,0,757358,4545331
8711.18,-0.0374621,0,758669,4552702
8720.61,-0.0371764,0,759994,4559696
8730.04,-0.0368108,0,760888,4565811
8741.36,-0.0363048,0,762464,4574704
8750.79,-0.035787,0,763573,4582112
8760.22,-0.03521,0,764675,4588415
8771.54,-0.0344481,0,765812,4595509
8780.97,-0.0337495,0,766919,4602212
8790.41,-0.0329844,0,767959,4608176
8801.72,-0.0319659,0,769566,4616725
8811.16,-0.0310439,0,770807,4623798
8820.59,-0.030061,0,771539,4630188
8830.02,-0.0290163,0,773055,4637636
8841.34,-0.0276755,0,774210,4646345
8850.77,-0.0264863,0,775357,4653000
8860.2,-0.0252325,0,776587,4660151
8871.52,-0.0236424,0,777872,4668198
8880.95,-0.0222501,0,779367,4675285
8890.38,-0.0208011,0,780499,4682456
8901.7,-0.0189902,0,781586,4690402
8911.14,-0.0174202,0,782957,4697301
8920.57,-0.0157968,0,783817,4703480
8931.89,-0.0137845,0,785402,4711028
8941.32,-0.0120562,0,786362,4717858
8950.75,-0.0102829,0,787444,4724574
8960.18,-0.00846771,0,788592,4730642
8971.5,-0.00623866,0,789708,4738325
8980.93,-0.00434324,0,790829,4745009
8990.36,-0.00241744,0,791832,4750787
9001.68,-7.07832e-05,0,793315,4759074
9011.11,0.00191107,0,794148,4765534
9020.55,0.00391365,0,795196,4771240
9031.86,0.00633993,0,796721,4778990
9041.3,0.00837797,0,797481,4785998
9050.73,0.010428,0,798825,4792551
9060.16,0.012487,0,799849,4799309
9071.48,0.0149646,0,800969,4807298
9080.91,0.0170306,0,802200,4813659
9090.34,0.0190944,0,803359,4820308
9101.66,0.0215638,0,804515,4828226
9111.09,0.0236125,0,805873,4834748
9120.52,0.0256501,0,807072,4841453
9131.84,0.0280767,0,808013,4848753
9141.28,0.030081,0,809544,4856133
9150.71,0.0320666,0,810513,4862428
9160.14,0.0340312,0,811303,4869099
9171.46,0.0363575,0,812921,4877587
9180.89,0.0382669,0,814125,4884200
9190.32,0.0401473,0,814931,4890627
9201.64,0.0423622,0,816555,4899009
9211.07,0.0441708,0,817816,4905611
9220.5,0.0459435,0,818683,4912518
9231.82,0.0480201,0,820085,4920662
9241.25,0.0497057,0,821129,4927757
9250.69,0.0513482,0,822329,4934424
9260.12,0.0529454,0,823678,4941887
9271.44,0.0547995,0,825151,4950125
9280.87,0.0562901,0,826020,4956860
9290.3,0.0577292,0,827305,4964197
9301.62,0.0593851,0,829055,4973070
9311.05,0.0607034,0,829791,4980070
9320.48,0.0619635,0,831298,4987231
9331.8,0.063396,0,832505,4996163
9341.23,0.0645214,0,833809,5002949
9350.67,0.0655826,0,834980,5009201
9360.1,0.0665779,0,835966,5016854
9371.42,0.0676827,0,837487,5025262
9380.85,0.0685268,0,838699,5031447
9390.28,0.0692998,0,839851,5038087
9401.6,0.0701315,0,841358,5046621
9411.03,0.0707435,0,842323,5052715
9420.46,0.0712809,0,843250,5060097
9431.78,0.071826,0,844742,5069055
9441.21,0.0721957,0,846207,5075952
9450.64,0.0724865,0,846883,5082509
9460.08,0.0726973,0,848245,5089477
9471.4,0.0728503,0,849399,5097355
9480.83,0.0728251,0,850831,5104324
9490.26,0.0727672,0,851824,5111661
9501.58,0.0727005,0,853436,5119931
9511.01,0.072486,0,854203,5126357
9520.46,0.0722176,0,855684,5132743
9531.78,0.0717626,0,856864,5141336
9541.21,0.0712798,0,858281,5148394
9550.65,0.07072,0,859010,5155350
9560.08,0.0700708,0,860114,5162020
9571.4,0.0691875,0,861413,5169242
9580.83,0.0683631,0,862746,5176304
9590.26,0.0674483,0,863748,5183438
9601.58,0.0662472,0,865515,5191898
9611.01,0.0651599,0,866406,5199028
9620.44,0.0639921,0,867795,5205312
9631.76,0.0624854,0,868909,5213128
9641.19,0.0611413,0,870059,5220170
9650.63,0.0597192,0,870862,5226645
9660.06,0.0582214,0,872211,5234279
9671.38,0.0563265,0,873787,5242130
9680.81,0.0546682,0,874980,5248328
9690.24,0.052939,0,875957,5254685
9701.56,0.0507722,0,876844,5262520
9710.99,0.0488919,0,878126,5269076
9720.42,0.0469462,0,879009,5275560
9731.74,0.0445291,0,880306,5283179
9741.17,0.0424499,0,881444,5289068
9750.6,0.0403154,0,882787,5296040
9760.04,0.0381295,0,883894,5302802
9771.35,0.0354435,0,885290,5311022
9780.79,0.0331569,0,886236,5317569
9790.22,0.0308308,0,887320,5323783
9801.54,0.0279938,0,888315,5331377
9810.97,0.0255973,0,889405,5337429
9820.4,0.0231764,0,890630,5343666
9831.72,0.0202459,0,891795,5351418
9841.15,0.0177883,0,892899,5357645
9850.58,0.0153222,0,893867,5364166
9860.02,0.0128533,0,894772,5369869
9871.33,0.00989422,0,896393,5376902
9880.77,0.00743733,0,897222,5383194
9890.2,0.00499407,0,898417,5389860
9901.52,0.00208762,0,899415,5396889
9910.95,-0.000306874,0,900566,5403856
9920.38,-0.00267065,0,901730,5410309
9931.7,-0.00545953,0,902888,5417796
9941.13,-0.00773837,0,903843,5423493
9950.56,-0.00997142,0,904914,5429977
9961.88,-0.0125848,0,906298,5438020
9971.31,-0.0147027,0,907185,5443882
9980.74,-0.0167621,0,908128,5449221
9990.18,-0.0187595,0,909034,5454969
10001.5,-0.0210701,0,910152,5462100
10010.9,-0.0229204,0,911066,5467824
10020.4,-0.0246996,0,912322,5472602
10031.7,-0.0267377,0,913116,5480162
10041.1,-0.0283534,0,914710,5486804
10050.5,-0.0298923,0,915179,5492260
10061.9,-0.0316378,0,916298,5499053
10071.3,-0.0330047,0,917644,5504972
10080.7,-0.0342927,0,918209,5510465
10090.2,-0.0355017,0,919565,5516526
10101.5,-0.0368483,0,920579,5522800
10110.9,-0.0378842,0,921272,5528693
10120.3,-0.0388425,0,922244,5534418
10131.7,-0.0398913,0,923317,5540660
10141.1,-0.0406824,0,924130,5545620
10150.5,-0.0413996,0,925010,5550526
10161.8,-0.0421645,0,926020,5557046
10171.3,-0.0427237,0,927279,5562473
10180.7,-0.0432131,0,927884,5567872
10190.1,-0.0436339,0,928851,5573385
10201.5,-0.0440509,0,929804,5579584
10210.9,-0.0443251,0,930654,5585402
10220.3,-0.0445325,0,931775,5591460
10231.6,-0.0446858,0,932943,5598623
10241.1,-0.0446041,0,934024,5604072
10250.5,-0.0446131,0,934753,5609344
10261.8,-0.044579,0,935982,5616698
10271.3,-0.0445106,0,936871,5622463
10280.7,-0.0445204,0,938262,5628070
10290.1,-0.0442827,0,938690,5633339
10301.4,-0.0439964,0,939860,5639686
10310.9,-0.0436929,0,940882,5644783
10320.3,-0.0433452,0,941713,5649760
10331.6,-0.0429183,0,942881,5656520
10341.1,-0.0425095,0,943378,5661675
10350.5,-0.0420659,0,944620,5666634
10361.8,-0.0414993,0,945475,5673164
10371.2,-0.0409901,0,946534,5678224
10380.7,-0.0404571,0,947111,5683603
10390.1,-0.0399036,0,948060,5688688
10401.4,-0.0392127,0,949508,5695730
10410.9,-0.0386134,0,950416,5701903
10420.3,-0.037999,0,950948,5706980
10431.6,-0.037245,0,952093,5713204
10441,-0.0366057,0,953166,5718806
10450.5,-0.0359624,0,954212,5724574
10461.8,-0.0351861,0,955070,5731428
10471.2,-0.0345369,0,956256,5736392
10480.6,-0.0338891,0,957161,5741460
10490.1,-0.0332451,0,957709,5747467
10501.4,-0.0324805,0,959185,5754198
10510.8,-0.0318524,0,959787,5759924
10520.3,-0.0312348,0,960660,5765224
10531.6,-0.0305111,0,961838,5771813
10541,-0.0299251,0,962823,5777326
10550.4,-0.0293563,0,963918,5782929
10561.8,-0.0286988,0,964653,5789085
10571.2,-0.0281733,0,965948,5794591
10580.6,-0.0276699,0,966781,5799886
10590.1,-0.0271898,0,967615,5805395
10601.4,-0.0266461,0,968377,5811544
10610.8,-0.0262203,0,969386,5816460
10620.2,-0.0258192,0,969959,5821016
10631.6,-0.025371,0,971347,5827583
10641,-0.0250245,0,972284,5833319
10650.4,-0.0247013,0,973287,5839151
10661.7,-0.0243406,0,974287,5844623
10671.2,-0.0240594,0,974757,5849773
10680.6,-0.023798,0,976212,5855791
10690,-0.0235649,0,976977,5861333
10701.4,-0.0233242,0,977917,5867565
10710.8,-0.0231702,0,978948,5872669
10720.2,-0.0230564,0,979844,5877836
10731.5,-0.0229156,0,980492,5884155
10741,-0.0227836,0,981863,5890100
10750.4,-0.022779,0,982514,5894306
10761.7,-0.022645,0,983285,5899337
10771.2,-0.0225374,0,984103,5904789
10780.6,-0.0224717,0,985173,5910315
10790,-0.0224437,0,985866,5915071
10801.3,-0.0224128,0,986863,5921665
10810.8,-0.0223966,0,987906,5926932
10820.2,-0.0223867,0,988485,5932041
10831.5,-0.0223873,0,989357,5937526
10841,-0.02239,0,990271,5942777
10850.4,-0.0223957,0,991359,5947845
10861.7,-0.022415,0,992254,5954225
10871.1,-0.0224343,0,993315,5959714
10880.6,-0.0224823,0,994354,5965486
10891.9,-0.0225453,0,995174,5971105
10901.3,-0.0226032,0,995686,5975557
10910.7,-0.0226729,0,996520,5980454
10920.2,-0.0227204,0,997534,5985378
10931.5,-0.0228022,0,998674,5991093
10940.9,-0.0229892,0,999170,5996502
10950.4,-0.0230963,0,1000220,6001218
10961.7,-0.0232382,0,1001441,6007172
10971.1,-0.0233941,0,1002083,6012689
10980.5,-0.0236139,0,1003103,6017803
10991.9,-0.0238238,0,1003865,6023443
11001.3,-0.0240479,0,1004927,6028124
11010.7,-0.0243118,0,1005496,6032564
11020.2,-0.0245789,0,1006422,6037147
11031.5,-0.0249239,0,1007394,6044255
11040.9,-0.0252663,0,1008049,6049014
11050.3,-0.0256203,0,1009055,6053194
11061.7,-0.0260645,0,1009767,6059463
11071.1,-0.0264605,0,1010938,6064488
11080.5,-0.0268927,0,1011379,6069475
11091.8,-0.0274557,0,1012635,6075914
11101.3,-0.027948,0,1013172,6080456
11110.7,-0.0284659,0,1014243,6086376
11120.1,-0.0290135,0,1015125,6091079
11131.5,-0.0297058,0,1016127,6097328
11140.9,-0.0303075,0,1017122,6103099
11150.3,-0.0309323,0,1017927,6108124
11161.6,-0.0317162,0,1018920,6114622
11171.1,-0.0323951,0,1019968,6119402
11180.5,-0.0330936,0,1020566,6123976
11191.8,-0.0339588,0,1021544,6130589
11201.3,-0.034703,0,1022654,6136063
11210.7,-0.0354651,0,1023354,6140254
11220.1,-0.0362411,0,1023849,6144475
11231.4,-0.0371888,0,1025217,6151350
11240.9,-0.0379928,0,1025826,6155891
11250.3,-0.0388083,0,1027051,6161242
11261.6,-0.0397978,0,1028161,6168135
11271.1,-0.0406276,0,1028651,6172810
11280.5,-0.04146,0,1029613,6177093
11291.8,-0.0424605,0,1030428,6182752
11301.2,-0.0432936,0,1031448,6189163
11310.7,-0.0441233,0,1032678,6195072
11320.1,-0.0449471,0,1033026,6199122
11331.4,-0.0459243,0,1034259,6204461
11340.8,-0.0467263,0,1035204,6209963
11350.3,-0.047514,0,1035500,6214388
11361.6,-0.0484355,0,1036868,6221472
11371,-0.04918,0,1037892,6226549
11380.5,-0.0499008,0,1038400,6231260
11391.8,-0.0507326,0,1039741,6238147
11401.2,-0.0513975,0,1040598,6243103
11410.6,-0.0520356,0,1041497,6247953
11420.1,-0.0526453,0,1042388,6253495
11431.4,-0.0533369,0,1043572,6260575
11440.8,-0.0538774,0,1044063,6265603
11450.3,-0.0543836,0,1045142,6271078
11461.6,-0.054944,0,1046367,6276884
11471,-0.0553706,0,1047013,6283021
11480.4,-0.0557598,0,1047971,6289091
11491.8,-0.0561758,0,1049205,6294875
11501.2,-0.0564752,0,1050047,6299412
11510.6,-0.0567244,0,1050936,6304602
11520.1,-0.056928,0,1051591,6308999
11531.4,-0.0571195,0,1052734,6315139
11540.8,-0.0572308,0,1053244,6319611
11550.2,-0.057274,0,1054391,6325697
11561.6,-0.0573822,0,1055334,6331651
11571,-0.0573741,0,1056247,6336418
11580.4,-0.0573958,0,1056903,6341455
11591.7,-0.0572562,0,1057665,6347172
11601.2,-0.0570952,0,1058571,6352353
11610.6,-0.0569244,0,1059873,6357928
11620,-0.0567122,0,1060637,6363117
11631.4,-0.0564232,0,1061673,6368609
11640.8,-0.0561222,0,1061979,6373124
11650.2,-0.0558112,0,1062881,6378271
11661.5,-0.0554185,0,1063929,6384343
11671,-0.0550336,0,1065026,6390012
11680.4,-0.054619,0,1065762,6395669
11691.7,-0.0540934,0,1066920,6402037
11701.1,-0.0536368,0,1068272,6408417
11710.6,-0.0531662,0,1068907,6412662
11720,-0.0526776,0,1069450,6417598
11731.3,-0.0520659,0,1070626,6424241
11740.8,-0.0515381,0,1071637,6429901
11750.2,-0.0509991,0,1072639,6435382
11761.5,-0.0503362,0,1073534,6441227
11770.9,-0.0497686,0,1074275,6446439
11780.4,-0.0491871,0,1075070,6450790
11791.7,-0.0484771,0,1076080,6457168
11801.1,-0.0478782,0,1077079,6462494
11810.6,-0.0472708,0,1078032,6468481
11821.9,-0.046531,0,1079171,6475397
11831.3,-0.0459065,0,1080090,6480421
11840.7,-0.0452745,0,1080883,6485678
11850.2,-0.0446342,0,1081966,6491258
11861.5,-0.0438541,0,1082933,6498166
11870.9,-0.0431932,0,1084067,6502943
11880.4,-0.0425207,0,1084696,6507494
11891.7,-0.0416958,0,1085671,6514172
11901.1,-0.0409916,0,1086534,6520564
11910.5,-0.0402707,0,1087572,6525410
11921.9,-0.0393828,0,1088693,6530844
11931.3,-0.038624,0,1089484,6536079
11940.7,-0.0378472,0,1090135,6541642
11950.2,-0.0370506,0,1091130,6547017
11961.5,-0.0360657,0,1092259,6553185
11970.9,-0.035219,0,1093059,6558760
11980.3,-0.0343474,0,1093993,6563839
11991.7,-0.0332668,0,1095035,6570612
12001.1,-0.0323357,0,1096306,6577017
12010.5,-0.0313755,0,1096881,6582214
12021.8,-0.030183,0,1098202,6588027
12031.3,-0.029154,0,1099059,6593604
12040.7,-0.0280911,0,1099678,6598895
12050.1,-0.026993,0,1100490,6604298
12061.4,-0.0256272,0,1101890,6609956
12070.9,-0.0244485,0,1102784,6615979
12080.3,-0.023233,0,1103445,6621282
12091.6,-0.0217265,0,1104683,6627731
12101.1,-0.0204317,0,1105439,6633550
12110.5,-0.0191016,0,1106674,6639204
12121.8,-0.0174593,0,1107553,6644763
12131.2,-0.0160531,0,1108567,6649882
12140.7,-0.0146142,0,1109072,6655580
12150.1,-0.0131447,0,1109917,6661011
12161.4,-0.0113445,0,1111262,6667037
12170.9,-0.00981721,0,1112030,6672013
12180.3,-0.00826813,0,1112754,6677325
12191.6,-0.00638426,0,1113955,6683680
12201,-0.00479662,0,1114727,6687633
12210.5,-0.00319581,0,1115534,6691869
12221.8,-0.00126177,0,1116408,6698059
12231.2,0.0003569,0,1117516,6703903
12240.7,0.00197821,0,1118292,6709909
12250.1,0.00359863,0,1119050,6714711
12261.4,0.00553708,0,1120233,6721093
12270.8,0.00714339,0,1120931,6726388
12280.3,0.00873791,0,1121592,6730638
12291.6,0.0106313,0,1122801,6737404
12301,0.0121888,0,1124026,6743040
12310.5,0.0137248,0,1124829,6748999
12321.8,0.0155355,0,1125887,6754900
12331.2,0.0170142,0,1126515,6760425
12340.6,0.0184628,0,1127606,6765074
12350.1,0.0198788,0,1128578,6770099
12361.4,0.0215323,0,1129865,6777678
12370.8,0.0228701,0,1130595,6782390
12380.2,0.0241699,0,1131340,6787653
12391.6,0.0256781,0,1132311,6792422
12401,0.0268911,0,1132919,6797762
12410.4,0.0280638,0,1133706,6803515
12421.7,0.0294174,0,1135101,6810117
12431.2,0.0305009,0,1135698,6815116
12440.6,0.0315444,0,1136755,6820190
12450.1,0.0325507,0,1137249,6824202
12461.4,0.0337064,0,1138144,6830371
12470.8,0.0346271,0,1138954,6835085
12480.3,0.0355137,0,1139789,6838475
12491.6,0.0365314,0,1140832,6843626
12501.1,0.0373414,0,1141536,6849028
12510.5,0.0381197,0,1142186,6853516
12521.8,0.0390138,0,1143064,6859364
12531.2,0.0397275,0,1144183,6864545
12540.7,0.0404145,0,1144828,6870019
12550.1,0.0410765,0,1145881,6875380
12561.4,0.0418406,0,1146865,6882345
12570.9,0.0424547,0,1147943,6887664
12580.3,0.0430504,0,1148461,6891753
12591.6,0.0437441,0,1149431,6896418
12601,0.0443074,0,1150426,6901159
12610.5,0.0448595,0,1151021,6906424
12621.8,0.0455104,0,1152436,6913905
12631.2,0.0460454,0,1153053,6919528
12640.6,0.0465755,0,1153898,6924063
12650.1,0.0471026,0,1154622,6929218
12661.4,0.0477332,0,1155914,6935715
12670.8,0.0482591,0,1156971,6940806
12680.3,0.048787,0,1157548,6944177
12691.6,0.0494252,0,1158066,6948704
12701,0.0499625,0,1159025,6952952
12710.4,0.0505062,0,1159589,6958361
12721.8,0.0511684,0,1160892,6964187
12731.2,0.0517294,0,1161666,6968807
12740.6,0.0522993,0,1162244,6974006
12750.1,0.0528789,0,1163214,6978795
12761.4,0.0535873,0,1163706,6983644
12770.8,0.0541885,0,1164787,6988925
12780.2,0.0547995,0,1165341,6993353
12791.6,0.0555447,0,1166639,7000055
12801,0.0561749,0,1167294,7005110
12810.4,0.0568122,0,1168578,7010350
12821.7,0.0575848,0,1169401,7017122
12831.2,0.0582332,0,1170446,7022099
12840.6,0.0588842,0,1171264,7026544
12850,0.0595361,0,1171737,7030624
12861.4,0.0603182,0,1172395,7035495
12870.8,0.0609686,0,1173317,7040662
12880.2,0.0616165,0,1174428,7045721
12891.5,0.0623884,0,1175478,7051418
12901,0.0630248,0,1176270,7056673
12910.4,0.0636529,0,1176725,7061342
12921.7,0.0643941,0,1178035,7067957
12931.2,0.0650003,0,1178737,7072967
12940.6,0.0655955,0,1179730,7078208
12950,0.0661786,0,1180599,7083539
12961.3,0.0668609,0,1181512,7088829
12970.8,0.067414,0,1182539,7094664
12980.2,0.0679528,0,1183621,7100343
12991.5,0.0685805,0,1184110,7106087
13001,0.0690873,0,1185022,7110389
13010.4,0.0695778,0,1185959,7115156
13021.7,0.0701432,0,1186983,7121670
13031.1,0.0705938,0,1187848,7126929
13040.6,0.0710244,0,1188664,7131150
13051.9,0.0715132,0,1189252,7136321
13061.3,0.0718962,0,1190092,7140139
13070.7,0.0722572,0,1191013,7145243
13080.2,0.0725966,0,1191855,7150586
13091.5,0.0729745,0,1192739,7155750
13100.9,0.0732626,0,1193211,7160517
13110.4,0.0735234,0,1194206,7164203
13121.7,0.0737985,0,1195138,7170169
13131.1,0.0739963,0,1195780,7174917
13140.5,0.0741632,0,1196650,7179189
13151.9,0.0743205,0,1197273,7185157
13161.3,0.0744256,0,1198361,7190582
13170.7,0.0745212,0,1199314,7195735
13180.2,0.0744933,0,1199751,7199667
13191.5,0.0746153,0,1200704,7205342
13200.9,0.0744944,0,1201760,7210223
13210.3,0.0745025,0,1202592,7215373
13221.7,0.0744436,0,1203446,7220381
13231.1,0.0745166,0,1204124,7225067
13240.5,0.0743725,0,1204861,7229165
13251.8,0.0741388,0,1205721,7235767
13261.3,0.073959,0,1207072,7241599
13270.7,0.0737,0,1207552,7245909
13280.1,0.0734539,0,1208422,7250465
13291.5,0.0730981,0,1209665,7257254
13300.9,0.0727972,0,1210827,7263876
13310.3,0.0724763,0,1211386,7268665
13321.6,0.0720474,0,1212067,7272739
13331.1,0.0716746,0,1212834,7277574
13340.5,0.071293,0,1213694,7282920
13351.8,0.0708296,0,1215189,7289919
13361.3,0.070432,0,1215657,7294314
13370.7,0.070014,0,1216476,7299428
13380.1,0.069578,0,1217135,7303082
13391.4,0.0690397,0,1218045,7308817
13400.9,0.0685767,0,1219022,7314244
13410.3,0.0681041,0,1219932,7318895
13421.6,0.0675369,0,1221067,7325530
13431.1,0.0670699,0,1221863,7330459
13440.5,0.0666095,0,1222502,7335909
13451.8,0.0660624,0,1223835,7341680
13461.2,0.0656051,0,1224564,7345923
13470.7,0.0651459,0,1225062,7351585
13480.1,0.064688,0,1225984,7356478
13491.4,0.0641454,0,1227019,7362620
13500.9,0.0637003,0,1227993,7368223
13510.3,0.0632617,0,1228636,7372185
13521.6,0.0627446,0,1229744,7379034
13531,0.0623246,0,1230348,7383168
13540.5,0.0619187,0,1231193,7388078
13551.8,0.0614525,0,1232162,7392687
13561.2,0.0610803,0,1232930,7398381
13570.6,0.0607221,0,1233641,7403246
13580.1,0.0603795,0,1234612,7408541
13591.4,0.059991,0,1235864,7413932
13600.8,0.0596868,0,1236590,7418079
13610.3,0.0593999,0,1237340,7423751
13621.6,0.0590788,0,1238087,7429834
13631,0.0588323,0,1239178,7434469
13640.4,0.0586064,0,1239962,7439558
13651.8,0.0583629,0,1240610,7444786
13661.2,0.0581818,0,1241487,7449967
13670.6,0.0580189,0,1242782,7455538
13680.1,0.0578739,0,1243338,7460144
13691.4,0.0577235,0,1244437,7466305
13700.8,0.057617,0,1245200,7470676
13710.2,0.0575216,0,1246167,7476178
13721.6,0.0574125,0,1247332,7483033
13731,0.0573497,0,1248085,7488635
13740.4,0.0572665,0,1248824,7492712
13751.7,0.057274,0,1249999,7498770
13761.2,0.0573708,0,1250682,7503440
13770.6,0.0574616,0,1251535,7509296
13780,0.0574475,0,1252601,7515312
13791.4,0.0573011,0,1253265,7519805
13800.8,0.0574838,0,1253896,7523763
13810.2,0.0575594,0,1254756,7528142
13821.5,0.0574986,0,1255867,7534617
13831,0.0576085,0,1256720,7539029
13840.4,0.057749,0,1257013,7543279
13851.7,0.0577165,0,1258373,7549215
13861.2,0.0577703,0,1258698,7553382
13870.6,0.0578893,0,1259674,7556704
13880,0.0579096,0,1260194,7560320
13891.3,0.0579458,0,1261125,7565260
13900.8,0.0579707,0,1261888,7570600
13910.2,0.0579753,0,1262580,7575208
13921.5,0.0578923,0,1263458,7579888
13931,0.0579246,0,1264211,7584358
13940.4,0.0578802,0,1264505,7587609
13951.7,0.0578183,0,1265358,7591576
13961.1,0.0576925,0,1266094,7595639
13970.6,0.0575853,0,1266600,7598561
13980,0.0574029,0,1267294,7603424
13991.3,0.0571236,0,1268149,7608725
14000.8,0.0568997,0,1269010,7612638
14010.2,0.0566094,0,1269349,7617081
14021.5,0.0562551,0,1270581,7622005
14030.9,0.0559259,0,1270962,7626076
14040.4,0.0555482,0,1271631,7628702
14051.7,0.0550343,0,1271978,7632636
14061.1,0.0545623,0,1272857,7637672
14070.5,0.054072,0,1273371,7641377
14081.9,0.0534374,0,1274149,7645677
14091.3,0.0528538,0,1274992,7649377
14100.7,0.0522294,0,1275641,7652503
14110.2,0.051562,0,1275930,7654923
14121.5,0.0507023,0,1276503,7660498
14130.9,0.0499502,0,1277500,7664029
14140.3,0.0491728,0,1277895,7667942
14151.7,0.0482052,0,1278556,7672208
14161.1,0.0473732,0,1279003,7675442
14170.6,0.046512,0,1279805,7678599
14181.9,0.0454246,0,1280258,7682384
14191.3,0.0444702,0,1281096,7685836
14200.7,0.0434863,0,1281775,7689366
14210.2,0.0424847,0,1281839,7691571
14221.5,0.0412584,0,1282226,7694724
14230.9,0.0402108,0,1282725,7696599
14240.4,0.0391374,0,1283261,7698539
14251.7,0.0378186,0,1283576,7701478
14261.1,0.0366973,0,1284133,7703871
14270.5,0.0355573,0,1284282,7706022
14281.9,0.0341682,0,1285037,7708841
14291.3,0.032997,0,1284910,7710904
14300.7,0.0318143,0,1285679,7713120
14310.2,0.0306187,0,1285884,7714955
14321.5,0.0291658,0,1286048,7717781
14330.9,0.0279419,0,1286629,7720469
14340.3,0.0267083,0,1287102,7722025
14351.7,0.0252159,0,1287105,7724110
14361.1,0.0239621,0,1287820,7726988
14370.5,0.0227003,0,1288158,7728892
14381.8,0.021179,0,1288641,7730756
14391.3,0.019907,0,1288767,7732495
14400.7,0.018631,0,1289363,7735314
14410.1,0.0173494,0,1289531,7738303
14421.5,0.0158031,0,1289995,7740498
14430.9,0.0145082,0,1290645,7742727
14440.3,0.0132092,0,1290621,7744536
14451.6,0.0116459,0,1290986,7747399
14461.1,0.0103391,0,1291376,7749646
14470.5,0.00902826,0,1291928,7752529
14481.8,0.00744995,0,1292838,7755548
14491.2,0.00613041,0,1292991,7757382
14500.7,0.00480687,0,1293581,7760673
14510.1,0.00347904,0,1293646,7763132
14521.4,0.00187977,0,1294342,7766315
14530.9,0.00054252,0,1294800,7768723
14540.3,-0.000797992,0,1294890,7770733
14551.6,-0.00240977,0,1295666,7772722
14561,-0.00375515,0,1295634,7773691
14570.5,-0.0051028,0,1296023,7775326
14581.8,-0.00672365,0,1296150,7778217
14591.2,-0.00807779,0,1296410,7779480
14600.7,-0.00943497,0,1297061,7781999
14610.1,-0.0107957,0,1297459,7783501
14621.4,-0.01243,0,1297850,7786417
14630.8,-0.0137935,0,1297917,7787687
14640.3,-0.0151582,0,1298132,7789394
14651.6,-0.0167979,0,1298335,7790796
14661,-0.0181666,0,1298925,7792217
14670.5,-0.0195376,0,1298533,7793139
14681.8,-0.0211862,0,1298654,7794143
14691.2,-0.0225626,0,1299019,7794900
14700.6,-0.0239411,0,1299439,7796205
14710.1,-0.0253217,0,1299197,7797546
14721.4,-0.0269818,0,1300109,7799768
14730.8,-0.028369,0,1300145,7801618
14740.3,-0.0297597,0,1300271,7803108
14751.6,-0.0314311,0,1300817,7805012
14761,-0.0328224,0,1300934,7807011
14770.4,-0.0342094,0,1301672,7810257
14781.8,-0.0358676,0,1301814,7811985
14791.2,-0.0372468,0,1302395,7814118
14800.6,-0.0386267,0,1302676,7815962
14810.1,-0.0400093,0,1302806,7817685
14821.4,-0.0416719,0,1303277,7819079
14830.8,-0.0430589,0,1303445,7820746
14840.2,-0.0444457,0,1303587,7822225
14851.6,-0.0461081,0,1304233,7824964
14861,-0.0474909,0,1304251,7826217
14870.4,-0.0488706,0,1304612,7826849
14881.7,-0.0505212,0,1304746,7828654
14891.2,-0.0518921,0,1305207,7830429
14900.6,-0.0532585,0,1305290,7831805
14910,-0.0546203,0,1305490,7832573
14921.4,-0.0562473,0,1305746,7835357
14930.8,-0.0575962,0,1306309,7836941
14940.2,-0.0589391,0,1306414,7839291
14951.5,-0.0605435,0,1307264,7842917
14961,-0.0618741,0,1307100,7843593
14970.4,-0.0631969,0,1307415,7844649
14981.7,-0.0647718,0,1308005,7848002
14991.2,-0.066074,0,1308443,7850207
15000.6,-0.0673679,0,1308604,7852273
15010,-0.0686544,0,1308846,7854317
15021.3,-0.070188,0,1309198,7856651
15030.8,-0.071457,0,1309664,7858398
15040.2,-0.0727165,0,1309901,7859437
15051.5,-0.0742137,0,1310087,7861229
15060.9,-0.0754476,0,1310418,7862704
15070.4,-0.0766673,0,1310492,7864398
15081.7,-0.0781107,0,1311118,7866319
15091.1,-0.0792948,0,1311151,7867741
15100.6,-0.08046,0,1311663,7870076
15111.9,-0.0818294,0,1311762,7870926
15121.3,-0.0829435,0,1312309,7872399
15130.8,-0.0840325,0,1312321,7874183
15140.2,-0.0850932,0,1312561,7876064
15151.6,-0.086326,0,1312894,7877251
15161,-0.0873166,0,1313180,7878585
15170.4,-0.0882732,0,1313327,7879555
15181.7,-0.0893713,0,1313269,7879676
15191.2,-0.0902405,0,1313454,7879305
15200.6,-0.091064,0,1313320,7879819
15210,-0.0918384,0,1313355,7880817
15221.4,-0.0926987,0,1313542,7882344
15230.8,-0.0933548,0,1314184,7883952
15240.2,-0.0939525,0,1314381,7885569
15251.5,-0.0945889,0,1314524,7887668
15261,-0.0950486,0,1314903,7889449
15270.4,-0.095441,0,1315208,7890967
15281.7,-0.0958186,0,1315467,7892956
15291.1,-0.0960514,0,1315524,7893642
15300.6,-0.0962054,0,1315952,7894809
15310,-0.0962904,0,1316144,7896319
15321.3,-0.0962824,0,1316649,7898587
15330.8,-0.0961035,0,1316655,7899828
15340.2,-0.0958745,0,1316981,7900804
15351.5,-0.0955708,0,1317237,7900767
15360.9,-0.0951797,0,1317010,7902778
15370.4,-0.0946745,0,1317249,7904740
15381.7,-0.09395,0,1317690,7905908
15391.1,-0.093251,0,1318161,7907386
15400.6,-0.0924565,0,1317630,7908822
15411.9,-0.0913716,0,1318049,7910249
15421.3,-0.0903666,0,1318666,7912084
15430.7,-0.0892688,0,1318967,7913376
15440.2,-0.0880786,0,1319242,7914221
15451.5,-0.0865262,0,1318780,7914862
15460.9,-0.085126,0,1319038,7915711
15470.4,-0.0836374,0,1319421,7916782
15481.7,-0.0817461,0,1319586,7918499
15491.1,-0.0800811,0,1319865,7920449
15500.5,-0.0783318,0,1320343,7923059
15511.9,-0.0761219,0,1321229,7925856
15521.3,-0.0741921,0,1321364,7927287
15530.7,-0.0721891,0,1321175,7928475
15540.2,-0.0701197,0,1321794,7930390
15551.5,-0.0675532,0,1322325,7932500
15560.9,-0.0653483,0,1322091,7933406
15570.3,-0.0630882,0,1322215,7934784
15581.7,-0.0603118,0,1322668,7936276
15591.1,-0.0579519,0,1322947,7936967
15600.5,-0.0555552,0,1322826,7938331
15611.8,-0.0526371,0,1323211,7939411
15621.3,-0.0501766,0,1323269,7939563
15630.7,-0.0476967,0,1323273,7940822
15640.1,-0.0452041,0,1323512,7941763
15651.5,-0.0422039,0,1323867,7942980
15660.9,-0.0397012,0,1323923,7943349
15670.3,-0.0372006,0,1324120,7944140
15681.6,-0.0342092,0,1324620,7944836
15691.1,-0.0317307,0,1324674,7945100
15700.5,-0.0292711,0,1324327,7945980
15711.8,-0.0263519,0,1324167,7948047
15721.3,-0.0239504,0,1324706,7950200
15730.7,-0.0215795,0,1325388,7951745
15740.1,-0.0192508,0,1325596,7952464
15751.5,-0.0165125,0,1325709,7953805
15760.9,-0.0142822,0,1325885,7955298
15770.3,-0.0121033,0,1325946,7956809
15781.6,-0.00956196,0,1326381,7957881
15791.1,-0.00751004,0,1326135,7957759
15800.5,-0.00552196,0,1326435,7957629
15811.8,-0.00322515,0,1326244,7956419
15821.2,-0.00138835,0,1326358,7955417
15830.7,0.00037608,0,1325980,7956881
15840.1,0.00206646,0,1326831,7958212
15851.4,0.00399497,0,1326614,7959766
15860.9,0.00551786,0,1327060,7961060
15870.3,0.00696136,0,1326569,7962265
15881.6,0.00858424,0,1326704,7961891
15891.1,0.00984466,0,1327026,7961719
15900.5,0.0110197,0,1327145,7961934
15911.8,0.012315,0,1327675,7963583
15921.2,0.0132979,0,1326908,7963801
15930.7,0.0141922,0,1326982,7963287
15940.1,0.0149978,0,1327157,7963715
15951.4,0.0158474,0,1327232,7964741
15960.9,0.0164582,0,1328051,7966841
15970.3,0.0169815,0,1327708,7967265
15981.6,0.0174952,0,1327904,7968324
15991,0.0178295,0,1328212,7969558
16000.5,0.0180804,0,1328360,7970354
16011.8,0.0182782,0,1328401,7970334
16021.2,0.0185021,0,1328536,7970136
16030.7,0.0184442,0,1328591,7970034
16040.1,0.018159,0,1328064,7970366
16051.4,0.0180927,0,1328175,7970072
16060.8,0.0177263,0,1328406,7970142
16070.3,0.0174132,0,1328744,7971123
16081.6,0.0169624,0,1328215,7971661
16091,0.0164524,0,1328547,7972793
16100.5,0.0159065,0,1328842,7972639
16111.8,0.0151763,0,1329133,7972577
16121.2,0.0145108,0,1329332,7973090
16130.6,0.0137868,0,1328487,7973146
16140.1,0.0129912,0,1328780,7972727
16151.4,0.0119726,0,1329033,7973284
16160.8,0.0110849,0,1329348,7973150
16170.2,0.0101625,0,1328507,7972778
16181.6,0.00901564,0,1328908,7973379
16191,0.00801897,0,1329145,7973429
16200.4,0.0069916,0,1329289,7974503
16211.7,0.00573454,0,1329639,7975328
16221.2,0.00466899,0,1328750,7975026
16230.6,0.00358883,0,1328984,7975504
16240,0.00249948,0,1329127,7975706
16251.4,0.0011913,0,1329313,7976430
16260.8,0.000103,0,1329424,7976833
16270.2,-0.000982863,0,1329597,7977389
16281.5,-0.00227246,0,1329643,7977771
16291,-0.00332723,0,1329645,7977150
16300.4,-0.00436017,0,1329378,7977741
16311.7,-0.0055655,0,1329518,7979250
16321.2,-0.00653542,0,1329546,7979969
16330.6,-0.00747137,0,1330080,7979062
16340,-0.00837258,0,1329585,7980082
16351.3,-0.00940339,0,1330553,7981387
16360.8,-0.0102147,0,1330621,7981790
16370.2,-0.0109791,0,1329959,7982044
16381.5,-0.0118317,0,1330384,7980116
16391,-0.0124856,0,1330473,7980118
16400.4,-0.0130849,0,1329653,7979741
16411.7,-0.0137289,0,1329816,7979190
16421.1,-0.0142024,0,1329785,7979692
16430.6,-0.0146191,0,1329948,7980272
16440,-0.0149799,0,1329835,7979418
16451.3,-0.0153391,0,1329653,7978434
16460.8,-0.0155767,0,1329660,7979457
16470.2,-0.0157621,0,1329702,7979247
16481.6,-0.0159293,0,1329795,7979968
16491,-0.0160226,0,1330218,7980114
16500.4,-0.015982,0,1330400,7980911
16511.8,-0.0157958,0,1330331,7981044
16521.2,-0.0156979,0,1330604,7981115
16530.6,-0.015535,0,1330680,7981309
16540.1,-0.015302,0,1330683,7981113
16551.4,-0.0149783,0,1330558,7980946
16560.8,-0.0146814,0,1329728,7979589
16570.2,-0.0143527,0,1329890,7980123
16581.6,-0.0138628,0,1329814,7979307
16591,-0.0134324,0,1329966,7978515
16600.4,-0.0129809,0,1329807,7978120
16611.7,-0.0123928,0,1329866,7978509
16621.2,-0.0118581,0,1329691,7978162
16630.6,-0.0112939,0,1329329,7977386
16640,-0.0107193,0,1329423,7977505
16651.3,-0.0100202,0,1329691,7978277
16660.8,-0.00942251,0,1329771,7978513
16670.2,-0.00881805,0,1329937,7979012
16681.5,-0.00809557,0,1329696,7979467
16691,-0.00749631,0,1329604,7978971
16700.4,-0.00690091,0,1329558,7979000
16711.7,-0.0061946,0,1329620,7979439
16721.1,-0.0056205,0,1329579,7979231
16730.6,-0.0050649,0,1329794,7978821
16740,-0.00452722,0,1329702,7978083
16751.3,-0.00390766,0,1330052,7978026
16760.8,-0.00341796,0,1330110,7978498
16770.2,-0.00295561,0,1329141,7977646
16781.5,-0.00243762,0,1329500,7976705
16790.9,-0.00203727,0,1329423,7976424
16800.4,-0.00166726,0,1329462,7975623
16811.7,-0.00126787,0,1329163,7975577
16821.1,-0.000975626,0,1328997,7975088
16830.6,-0.000720388,0,1329049,7974324
16841.9,-0.000460743,0,1329072,7974128
16851.3,-0.000282611,0,1329320,7974514
16860.7,-0.000140578,0,1329345,7975903
16870.2,-3.61787e-05,0,1329471,7975653
16881.5,4.77881e-05,0,1329642,7976086
16891,0.000106607,0,1329903,7977125
16900.4,3.41096e-05,0,1329987,7978719
16911.7,-1.40555e-05,0,1329795,7979598
16921.2,-0.000100184,0,1329718,7980445
16930.6,-0.000236698,0,1329878,7982004
16940.1,-0.000320418,0,1330794,7982200
16951.4,-0.000502328,0,1330750,7982656
16960.8,-0.000704517,0,1330693,7982023
16970.3,-0.000959201,0,1329801,7981539
16981.6,-0.00123392,0,1330703,7981621
16991,-0.00147989,0,1330707,7981721
17000.4,-0.00174465,0,1330384,7981393
17011.8,-0.00206151,0,1330420,7981448
17021.2,-0.00233516,0,1330114,7981451
17030.6,-0.00261247,0,1329931,7981642
17040,-0.00288978,0,1330365,7981912
17051.4,-0.00323009,0,1330638,7981761
17060.8,-0.00351941,0,1330885,7983169
17070.2,-0.00380469,0,1330966,7983092
17081.5,-0.00412929,0,1331046,7983598
17091,-0.00438466,0,1330356,7983667
17100.4,-0.00462317,0,1330123,7982790
17111.7,-0.00488434,0,1330849,7982186
17121.2,-0.0050863,0,1330726,7981882
17130.6,-0.0052743,0,1330779,7981896
17140,-0.00544276,0,1330671,7982786
17151.3,-0.00561237,0,1330317,7982014
17160.8,-0.00572498,0,1330669,7982537
17170.2,-0.00581247,0,1330849,7982859
17181.5,-0.00588129,0,1330702,7983061
17191,-0.00592753,0,1330720,7982909
17200.4,-0.00588777,0,1330824,7983508
17211.7,-0.00585814,0,1330724,7983405
17221.1,-0.00583881,0,1330942,7984412
17230.6,-0.00576868,0,1330863,7984730
17240,-0.00558206,0,1330771,7984784
17251.3,-0.00538538,0,1330628,7984636
17260.8,-0.00524148,0,1330549,7984427
17270.2,-0.00506098,0,1330814,7984718
17281.5,-0.00482901,0,1330915,7985096
17290.9,-0.00460425,0,1330677,7984401
17300.4,-0.00432587,0,1330849,7984851
17311.7,-0.00394556,0,1330869,7984889
17321.1,-0.00361104,0,1330712,7983869
17330.6,-0.00326533,0,1330736,7983615
17341.9,-0.00283193,0,1330259,7983841
17351.3,-0.0024556,0,1331270,7985005
17360.7,-0.00206117,0,1331349,7985997
17370.2,-0.00164686,0,1331327,7985484
17381.5,-0.00112579,0,1330505,7985073
17390.9,-0.000673311,0,1330594,7985105
17400.4,-0.000206494,0,1330771,7985236
17411.7,0.00036594,0,1330659,7985835
17421.1,0.000847929,0,1330520,7985734
17430.5,0.00133454,0,1331523,7986709
17441.9,0.00192729,0,1331321,7986012
17451.3,0.00242665,0,1330904,7986166
17460.7,0.00292598,0,1331005,7986431
17470.1,0.00342146,0,1331169,7986829
17481.5,0.00400902,0,1331344,7987454
17490.9,0.00449227,0,1331312,7987904
17500.3,0.00496843,0,1331244,7987194
17511.6,0.00552753,0,1330971,7986642
17521.1,0.00598043,0,1330815,7986761
17530.5,0.00641841,0,1331430,7985869
17541.8,0.0069204,0,1331281,7985374
17551.3,0.00731773,0,1331166,7985707
17560.7,0.00769636,0,1330474,7984893
17570.1,0.00805643,0,1330427,7984671
17581.4,0.00846191,0,1330347,7983207
17590.9,0.00877532,0,1330417,7982917
17600.3,0.00906657,0,1330492,7983753
17611.6,0.00938954,0,1330673,7984268
17621.1,0.00963834,0,1330359,7983252
17630.5,0.00987027,0,1330159,7983026
17641.8,0.0101204,0,1330148,7981397
17651.2,0.0103006,0,1330217,7980058
17660.7,0.010462,0,1330212,7979182
17670.1,0.010611,0,1330124,7977732
17681.4,0.0107547,0,1329882,7977245
17690.9,0.0108421,0,1330032,7977384
17700.3,0.0109494,0,1329709,7977647
17711.6,0.0109526,0,1329531,7976660
17721,0.0110463,0,1329663,7978050
17730.5,0.0110323,0,1329747,7978641
17741.8,0.0111287,0,1329841,7978573
17751.2,0.0110579,0,1329820,7978867
17760.7,0.0111219,0,1329649,7978869
17770.1,0.0111342,0,1329827,7978900
17781.4,0.0109798,0,1329988,7978741
17790.8,0.0108592,0,1330180,7979412
17800.3,0.010987,0,1330243,7978890
17811.6,0.0109986,0,1329899,7979202
17821,0.0108769,0,1330106,7978462
17830.5,0.0108297,0,1329225,7977309
17841.8,0.0106938,0,1329307,7977020
17851.2,0.0108372,0,1329393,7976337
17860.6,0.0107954,0,1329088,7975251
17870.1,0.0108901,0,1328825,7975805
17881.4,0.0108453,0,1329819,7976167
17890.8,0.0108944,0,1329884,7976327
17900.2,0.0111485,0,1329897,7976355
17911.6,0.011169,0,1329109,7975980
17921,0.0113229,0,1329223,7976143
17930.4,0.0114671,0,1329218,7975462
17941.7,0.0116176,0,1329247,7974435
17951.2,0.0118557,0,1329229,7973553
17960.6,0.0121063,0,1328922,7974408
17970,0.0123611,0,1328939,7975376
17981.4,0.0126605,0,1328621,7974605
17990.8,0.0129539,0,1328691,7974255
18000.2,0.0132616,0,1328628,7973801
18011.5,0.013654,0,1328740,7973125
18021,0.0139901,0,1328864,7973358
18030.4,0.0143337,0,1328848,7973775
18041.7,0.0147995,0,1328735,7973589
18051.2,0.0152189,0,1328649,7972752
18060.6,0.0156569,0,1328271,7971946
18070,0.0161177,0,1328337,7971784
18081.3,0.0166809,0,1328107,7970565
18090.8,0.017151,0,1328105,7969614
18100.2,0.0176292,0,1328062,7969047
18111.5,0.0182156,0,1327845,7968572
18121,0.0187104,0,1327785,7967337
18130.4,0.0192078,0,1327758,7966351
18141.7,0.0198037,0,1327765,7966518
18151.1,0.0202956,0,1328157,7965881
18160.6,0.020782,0,1327188,7964799
18170,0.0212614,0,1327057,7963992
18181.3,0.0218258,0,1327073,7963052
18190.8,0.0222856,0,1326648,7962459
18200.2,0.0227324,0,1326558,7961680
18211.5,0.0232475,0,1326605,7962276
18220.9,0.023659,0,1327445,7962343
18230.4,0.0240544,0,1327194,7962399
18241.7,0.0245038,0,1327092,7962301
18251.1,0.0248539,0,1327273,7962693
18260.5,0.0251802,0,1327298,7963032
18271.9,0.025539,0,1327194,7963435
18281.3,0.0258109,0,1327155,7962569
18290.7,0.0260601,0,1327322,7963026
18300.2,0.0262855,0,1327339,7963297
18311.5,0.0265166,0,1327100,7961567
18320.9,0.02667,0,1327184,7961166
18330.3,0.0267859,0,1326865,7961155
18341.7,0.0268779,0,1326808,7959315
18351.1,0.0270101,0,1326587,7958003
18360.5,0.0270048,0,1326261,7956841
18371.8,0.0269767,0,1326080,7955234
18381.3,0.0269082,0,1325115,7953063
18390.7,0.0266742,0,1325340,7951195
18400.1,0.0265857,0,1324843,7950657
18411.5,0.0264441,0,1324731,7949766
18420.9,0.0262258,0,1324980,7948374
18430.3,0.0260063,0,1324977,7946955
18441.6,0.0256944,0,1323834,7945408
18451.1,0.0253994,0,1324652,7944913
18460.5,0.0250735,0,1323643,7944587
18471.8,0.024633,0,1324094,7943987
18481.3,0.0242352,0,1323941,7943268
18490.7,0.0238176,0,1323527,7942781
18500.1,0.0233821,0,1323393,7942458
18511.4,0.0228293,0,1324280,7942797
18520.9,0.0223356,0,1324147,7942681
18530.3,0.0218141,0,1323465,7941141
18541.6,0.0211597,0,1323711,7939967
18551.1,0.0205927,0,1323523,7940278
18560.5,0.0200071,0,1323645,7941572
18571.8,0.0192847,0,1323631,7941951
18581.2,0.0186703,0,1323497,7942953
18590.7,0.0180458,0,1323543,7943197
18600.1,0.0174099,0,1323957,7943282
18611.4,0.0166299,0,1323793,7943788
18620.8,0.0159662,0,1323979,7944478
18630.3,0.0152919,0,1323913,7943770
18641.6,0.0144734,0,1324124,7943082
18651,0.0137875,0,1324147,7943731
18660.5,0.0131009,0,1324224,7944077
18671.8,0.012277,0,1324347,7943991
18681.2,0.0115906,0,1324386,7944639
18690.6,0.0109051,0,1324127,7945099
18700.1,0.0102222,0,1324144,7945557
18711.4,0.0094089,0,1324568,7945458
18720.8,0.00873871,0,1324903,7947110
18730.3,0.00807697,0,1324257,7948192
18741.6,0.00729557,0,1324516,7949940
18751,0.00665586,0,1324638,7950377
18760.5,0.00602604,0,1324831,7951594
18771.8,0.00528412,0,1325846,7952450
18781.3,0.00467772,0,1325043,7951787
18790.7,0.0040811,0,1325056,7952079
18800.2,0.00349355,0,1325998,7952924
18811.5,0.00280223,0,1325123,7952731
18820.9,0.00223592,0,1325035,7952825
18830.4,0.00167672,0,1324841,7951966
18841.7,0.00101845,0,1325278,7950820
18851.2,0.000480819,0,1325108,7950841
18860.7,-4.64121e-05,0,1324920,7949812
18870.1,-0.000563419,0,1324543,7949300
18881.5,-0.00117022,0,1324281,7948091
18891,-0.00166358,0,1324183,7946917
18900.5,-0.00214484,0,1323961,7946022
18911.8,-0.00270646,0,1323774,7945477
18921.2,-0.00315889,0,1323637,7944665
18930.7,-0.0035979,0,1324136,7943914
18940.1,-0.00402278,0,1324503,7944132
18951.4,-0.00451345,0,1323555,7943255
18960.9,-0.0049064,0,1324159,7943064
18970.3,-0.00528519,0,1324007,7942559
18981.6,-0.00572152,0,1323978,7942533
18991,-0.00606997,0,1323827,7941050
19000.5,-0.00640415,0,1323689,7940796
19011.8,-0.00678494,0,1323762,7941030
19021.2,-0.00708385,0,1323785,7942037
19030.7,-0.00736446,0,1323857,7941437
19040.1,-0.0076254,0,1323334,7940404
19051.4,-0.00791088,0,1322862,7938823
19060.8,-0.00812459,0,1322553,7938273
19070.3,-0.0083154,0,1322391,7937334
19081.6,-0.008513,0,1322466,7937638
19091,-0.00865054,0,1323402,7937912
19100.4,-0.00876252,0,1322877,7937660
19111.8,-0.00886198,0,1322578,7937842
19121.2,-0.00892748,0,1322421,7937517
19130.6,-0.00893125,0,1323294,7937375
19140.1,-0.0088903,0,1323317,7938131
19151.4,-0.00886874,0,1322809,7937665
19160.8,-0.00878239,0,1323352,7937627
19170.2,-0.00867881,0,1322936,7937282
19181.6,-0.00854159,0,1322935,7936715
19191,-0.00835557,0,1323031,7937301
19200.4,-0.008142,0,1323028,7937282
19211.7,-0.00784328,0,1323135,7937127
19221.2,-0.0075399,0,1323065,7936491
19230.6,-0.00719043,0,1322888,7935079
19240,-0.00681524,0,1322953,7935151
19251.4,-0.00634185,0,1322830,7935328
19260.8,-0.00592682,0,1322080,7935175
19270.2,-0.00549613,0,1322048,7934220
19281.6,-0.00495132,0,1322844,7935342
19291,-0.00446396,0,1323096,7936036
19300.4,-0.00394164,0,1323117,7936493
19311.8,-0.00327023,0,1323139,7938126
19321.2,-0.0026766,0,1323199,7937761
19330.6,-0.002055,0,1323284,7936858
19340.1,-0.00141019,0,1322338,7936090
19351.4,-0.000611179,0,1322233,7935829
19360.8,7.09864e-05,0,1323166,7937595
19370.2,0.000762597,0,1322985,7937850
19381.6,0.00159864,0,1323197,7938079
19391,0.00229662,0,1323373,7937777
19400.4,0.00299299,0,1323418,7938389
19411.7,0.00382179,0,1322630,7938809
19421.2,0.00450279,0,1322996,7939350
19430.6,0.00517198,0,1323087,7939942
19440,0.0058271,0,1324016,7941177
19451.4,0.00659194,0,1324037,7942551
19460.8,0.00720925,0,1323712,7943081
19470.2,0.00780621,0,1324037,7943841
19481.5,0.00849255,0,1323934,7943181
19491,0.00903655,0,1323917,7943382
19500.4,0.00955262,0,1323801,7944712
19511.7,0.0101326,0,1324267,7944529
19521.1,0.0105817,0,1324678,7945024
19530.6,0.010998,0,1324713,7945264
19540,0.0113789,0,1324688,7945855
19551.3,0.0117855,0,1324568,7946876
19560.8,0.0120799,0,1324468,7947086
19570.2,0.0123325,0,1324651,7948235
19581.5,0.0125796,0,1324471,7948381
19590.9,0.0127382,0,1324338,7948318
19600.4,0.0128529,0,1325173,7948673
19611.7,0.0129205,0,1324852,7949420
19621.1,0.0128177,0,1324703,7949466
19630.6,0.0127835,0,1324650,7948495
19641.9,0.0126961,0,1324784,7947933
19651.3,0.012697,0,1324606,7947074
19660.7,0.012568,0,1324430,7946861
19670.2,0.0123321,0,1324524,7946123
19681.5,0.0120259,0,1324538,7945166
19690.9,0.0117436,0,1324431,7945590
19700.4,0.0113938,0,1324521,7945220
19711.7,0.0109213,0,1324502,7945643
19721.1,0.0105001,0,1324466,7945719
19730.5,0.0100488,0,1324168,7946732
19741.9,0.00947826,0,1324782,7947128
19751.3,0.00897374,0,1324753,7947128
19760.7,0.00844002,0,1324491,7946651
19770.2,0.00787765,0,1324632,7946055
19781.5,0.00717125,0,1323771,7944465
19790.9,0.00656671,0,1324333,7944438
19800.3,0.00595135,0,1324171,7943550
19811.7,0.00519665,0,1324164,7942606
19821.1,0.00455226,0,1323288,7941579
19830.5,0.00389567,0,1323387,7941421
19841.8,0.0030979,0,1323296,7941480
19851.3,0.00243141,0,1323847,7940809
19860.7,0.00176873,0,1323513,7939372
19870.1,0.00111227,0,1323128,7937902
19881.4,0.000332822,0,1323074,7936830
19890.9,-0.000310471,0,1323386,7937564
19900.3,-0.000947524,0,1322315,7935249
19911.6,-0.0017007,0,1322068,7934030
19921.1,-0.00231553,0,1322092,7933005
19930.5,-0.00291574,0,1321860,7933417
19941.8,-0.00361344,0,1322022,7933075
19951.2,-0.00417392,0,1322246,7932200
19960.7,-0.00471382,0,1322266,7930695
19970.1,-0.00523188,0,1321526,7929557
19981.4,-0.00582286,0,1321101,7927769
19990.9,-0.00628811,0,1321300,7927667
