time,surface_elevation,reference_data,number_of_local_cells,number_of_global_cells
0,0,0,24576,147020
10.5152,0,0,24576,148186
20.9356,0,0,24576,154172
31.3559,0,0,24576,157932
41.7801,0,0,24576,158604
50.0939,0,0,24576,159116
60.5326,0,0,28672,159962
71.0098,0,0,28672,160704
81.508,0,0,28672,161310
92.0173,0,0,28672,161824
100.425,0,0,28672,162356
110.949,0,0,28672,163050
121.483,0,0,28672,163708
132.018,0,0,28672,164344
140.446,0,0,28672,164888
150.981,0,0,28672,165384
161.516,0,0,28672,165912
172.052,0,0,28672,166488
180.482,0,0,28672,166822
191.02,0,0,28672,167402
201.558,0,0,28672,167726
212.097,0,0,28672,168204
220.529,0,0,28672,168438
231.07,0,0,28672,168928
241.61,0,0,28672,169084
250.043,0,0,28672,169256
260.583,0,0,28672,169402
271.124,0,0,28672,169906
281.664,0,0,28672,170086
290.096,0,0,28672,170260
300.637,0,0,28672,170542
311.177,0,0,28672,170820
321.717,0,0,28672,170948
330.149,0,0,28672,171022
340.69,0,0,28672,171494
351.23,0,0,28672,171544
361.77,0,0,28672,171748
370.204,0,0,28672,172138
380.749,0,0,28672,172588
391.34,0,0,28672,172762
401.942,0,0,28672,173162
410.424,0,0,28672,173214
421.027,0,0,28672,173408
431.631,0,0,28672,173502
440.113,0,0,28672,173642
450.725,0,0,28672,173902
461.373,0,0,28672,174330
472.021,0,0,28672,174748
480.543,0,0,28672,175042
491.203,0,0,28672,175058
501.878,0,0,28672,175122
510.435,0,0,28672,175310
521.074,0,0,28672,175822
531.748,0,0,28672,176084
540.27,0,0,28672,175990
550.916,0,0,28672,176232
561.581,0,0,28672,176106
570.128,0,0,28672,176256
580.763,0,0,28672,176712
591.343,0,0,28672,177146
601.941,0,0,28672,177516
610.376,0,0,28672,177848
620.925,0,0,28672,177818
631.599,0,0,28672,177818
640.102,0,0,28672,178090
650.758,0,0,28672,179176
661.399,0,0,28672,179750
672.034,0,0,28672,179874
680.558,0,0,28672,180052
691.211,0,0,28672,180504
701.864,0,0,28672,180964
710.387,0,0,28672,181228
721.012,0,0,28672,181372
731.612,0,0,28672,181964
740.11,0,0,28672,182406
750.755,0,0,28672,183088
761.402,0,0,28672,183102
772.05,0,0,28672,183386
780.573,0,0,28672,183702
791.228,0,0,28672,183984
801.882,0,0,28672,184298
810.405,0,0,32768,184470
821.058,0,0,32768,184916
831.7,0,0,32768,185116
840.211,0,0,32768,185088
850.843,0,0,32768,185378
861.463,0,0,32768,185622
872.079,0,0,32768,186014
880.568,0,0,32768,186174
891.179,0,0,32768,186280
901.788,0,0,32768,186510
910.251,0,0,32768,186540
920.806,0,0,32768,186752
931.312,0,0,32768,187092
941.762,0,0,32768,187078
950.122,0,0,32768,187286
960.531,0,0,32768,187686
970.931,0,0,32768,187594
981.335,0,0,32768,187894
991.771,0,0,32768,188218
1000.2,0,0,32768,188174
1010.84,0,0,32768,188332
1021.48,0,0,32768,188454
1031.95,0,0,32768,188684
1040.33,0,0,32768,188800
1050.8,0,0,32768,189150
1061.26,0,0,32768,189624
1071.73,0,0,32768,189750
1080.11,0,0,32768,189840
1090.61,0,0,32768,190138
1101.12,0,0,32768,190744
1111.63,0,0,32768,190822
1120.06,0,0,32768,190934
1130.66,0,0,32768,190944
1141.42,0,0,32768,191144
1150.13,0,0,32768,191384
1161.12,0,0,32768,191882
1172.17,0,0,32768,192308
1181.02,0,0,32768,192356
1192.07,0,0,32768,192402
1200.94,0,0,32768,192532
1212.05,0,0,32768,192690
1220.95,0,0,32768,192892
1232.11,0,0,32768,193118
1241.06,0,0,32768,193320
1250.01,0,0,32768,193396
1261.23,0,0,32768,193380
1270.15,0,0,32768,193546
1281.32,0,0,32768,193602
1290.37,0,0,32768,193820
1301.88,0,0,32768,194306
1310.96,0,0,32768,194478
1320.04,0,0,32768,194684
1331.8,0,0,32768,194848
1341.21,0,0,32768,194890
1350.6,0,0,32768,194954
1362.34,0,0,32768,195044
1371.42,0,0,32768,195098
1380.81,0,0,32768,195358
1390.2,0,0,32768,195494
1401.79,0,0,32768,195648
1410.87,0,0,32768,195576
1420.27,0,0,32768,195570
1432.02,0,0,32768,195706
1441.43,0,0,32768,195866
1450.87,0,0,32768,195912
1460.32,0,0,32768,196070
1472.15,0,0,32768,196330
1481.63,0,0,32768,196380
1491.11,0,0,32768,196466
1500.2,0,0,32768,196590
1510.96,0,0,32768,196536
1520.01,0,0,32768,196588
1531.09,0,0,32768,196858
1540.41,0,0,32768,196784
1551.4,0,0,32768,196878
1560.89,0,0,32768,196916
1572.13,0,0,32768,197230
1581.62,0,0,32768,197558
1590.17,0,0,32768,197386
1602,0,0,32768,197562
1611.46,0,0,32768,197562
1620.93,0,0,32768,197654
1630.39,0,0,32768,197970
1642.22,0,0,32768,197870
1651.68,0,0,32768,198014
1661.14,0,0,32768,198116
1670.6,0,0,32768,198408
1680.07,0,0,32768,198624
1691.89,0,0,32768,198710
1701.35,0,0,32768,198740
1710.81,0,0,32768,199036
1720.27,0,0,32768,198990
1732.09,0,0,32768,199206
1741.55,0,0,32768,199260
1751.01,0,0,32768,199206
1760.48,0,0,32768,199124
1772.33,0,0,32768,199490
1781.81,0,0,32768,199622
1791.3,0,0,32768,199496
1800.78,0,0,32768,199750
1810.27,0,0,32768,199734
1822.13,0,0,32768,199928
1831.6,0,0,32768,200256
1841.07,0,0,32768,200356
1850.54,0,0,32768,200290
1860,0,0,32768,200356
1871.82,0,0,32768,200422
1881.27,0,0,32768,200382
1890.71,0,0,32768,200490
1900.16,0,0,32768,200876
1911.95,0,0,32768,200914
1921.38,0,0,32768,200866
1930.8,0,0,32768,200888
1940.21,0,0,32768,200978
1951.97,0,0,32768,201084
1961.38,0,0,32768,201144
1970.78,0,0,32768,201320
1980.16,0,0,32768,201306
1991.89,0,0,32768,201474
2001.26,0,0,32768,201660
2010.62,0,0,32768,201782
2022.32,0,0,32768,201828
2031.66,0,0,32768,201892
2040.99,0,0,32768,201998
2050.18,0,0,32768,202246
2061.38,0,0,32768,202178
2070.68,0,0,32768,202318
2082.3,0,0,32768,202394
2091.6,0,0,32768,202470
2100.88,0,0,32768,202630
2110.17,0,0,32768,202522
2121.78,0,0,32768,202716
2131.06,0,0,32768,202936
2140.35,0,0,32768,202964
2151.95,0,0,32768,203106
2161.24,0,0,32768,203086
2170.51,0,0,32768,203058
2182.1,0,0,32768,203038
2191.36,0,0,32768,203164
2200.62,0,0,32768,203298
2212.19,0,0,32768,203194
2221.45,0,0,32768,203272
2230.71,0,0,32768,203340
2242.28,0,0,32768,203270
2251.54,0,0,32768,203364
2260.79,0,0,32768,203550
2270.05,0,0,32768,203640
2281.62,0,0,32768,203552
2290.87,0,0,32768,203592
2300.13,0,0,32768,203750
2311.7,-9.09495e-13,0,32768,203742
2320.96,-2.72848e-12,0,32768,203822
2330.24,-4.54747e-12,0,32768,203934
2341.84,-8.18545e-12,0,32768,204116
2351.12,-1.09139e-11,0,32768,204292
2360.37,-1.36424e-11,0,32768,204526
2371.89,-1.81899e-11,0,32768,204828
2381.11,-2.18279e-11,0,32768,204986
2390.32,-2.54659e-11,0,32768,204794
2401.84,-3.00133e-11,0,32768,205004
2411.05,-3.63798e-11,0,32768,204936
2420.25,-4.36557e-11,0,32768,204918
2431.75,-5.27507e-11,0,32768,205076
2440.96,-6.36646e-11,0,32768,205062
2450.16,-7.63976e-11,0,32768,205082
2461.66,-9.64064e-11,0,32768,205478
2470.86,-1.17325e-10,0,32768,205586
2480.07,-1.42791e-10,0,32768,205640
2491.57,-1.82808e-10,0,32768,205804
2500.77,-2.23736e-10,0,32768,205976
2512.28,-2.8831e-10,0,32768,206100
2521.49,-3.51974e-10,0,32768,206272
2530.69,-4.311e-10,0,32768,206412
2542.2,-5.55701e-10,0,32768,206662
2551.41,-6.79393e-10,0,32768,206448
2560.61,-8.2855e-10,0,32768,206568
2572.12,-1.06138e-09,0,32768,206798
2581.33,-1.29239e-09,0,32768,206862
2590.55,-1.56979e-09,0,32768,206856
2602.08,-1.99907e-09,0,32768,206948
2611.31,-2.42107e-09,0,32768,206896
2620.54,-2.92766e-09,0,32768,206896
2632.09,-3.70528e-09,0,32768,207136
2641.33,-4.46471e-09,0,32768,207312
2650.58,-5.37329e-09,0,32768,207300
2662.14,-6.75755e-09,0,32768,207454
2671.37,-8.09723e-09,0,32768,207408
2680.58,-9.68612e-09,0,32768,207294
2692.09,-1.20872e-08,0,32768,207514
2701.29,-1.44037e-08,0,32768,207386
2710.5,-1.71358e-08,0,32768,207524
2722,-2.12422e-08,0,32768,207434
2731.2,-2.51794e-08,0,32768,207388
2740.41,-2.97996e-08,0,32768,207266
2751.91,-3.67045e-08,0,32768,207162
2761.11,-4.32856e-08,0,32768,207308
2770.31,-5.09654e-08,0,32768,207370
2781.81,-6.23804e-08,0,32768,207440
2791.01,-7.32034e-08,0,32768,207324
2800.21,-8.57763e-08,0,32768,207604
2811.72,-1.04352e-07,0,32768,207688
2820.92,-1.21864e-07,0,32768,207728
2830.13,-1.42104e-07,0,32768,207684
2841.63,-1.71834e-07,0,32768,207546
2850.82,-1.99704e-07,0,32768,207732
2860.02,-2.31763e-07,0,32768,207880
2871.52,-2.78606e-07,0,32768,207888
2880.72,-3.22292e-07,0,32768,207926
2892.21,-3.85897e-07,0,32768,207932
2901.41,-4.45009e-07,0,32768,207808
2910.61,-5.1247e-07,0,32768,207768
2922.11,-6.10189e-07,0,32768,207798
2931.31,-7.00629e-07,0,32768,207674
2940.53,-8.03476e-07,0,32768,207910
2952.04,-9.51747e-07,0,32768,208252
2961.26,-1.08828e-06,0,32768,208260
2970.48,-1.24279e-06,0,32768,208364
2982.01,-1.46447e-06,0,32768,208188
2991.24,-1.66756e-06,0,32768,208422
3000.46,-1.8963e-06,0,32768,208308
3011.98,-2.22262e-06,0,32768,208238
3021.18,-2.51965e-06,0,32768,208332
3030.38,-2.85277e-06,0,32768,208380
3041.87,-3.32547e-06,0,32768,208514
3051.06,-3.7541e-06,0,32768,208696
3060.25,-4.23281e-06,0,32768,208724
3071.74,-4.90958e-06,0,32768,208810
3080.93,-5.52066e-06,0,36864,208924
3090.12,-6.20042e-06,0,36864,209142
3101.61,-7.15711e-06,0,36864,209242
3110.8,-8.01712e-06,0,36864,209160
3122.29,-9.22381e-06,0,36864,209042
3131.48,-1.03053e-05,0,36864,209124
3140.67,-1.15004e-05,0,36864,209000
3152.18,-1.31742e-05,0,36864,209134
3161.4,-1.46682e-05,0,36864,209164
3170.61,-1.63143e-05,0,36864,209092
3182.14,-1.8606e-05,0,36864,208924
3191.37,-2.06453e-05,0,36864,208960
3200.63,-2.28886e-05,0,36864,209024
3212.22,-2.60051e-05,0,36864,208912
3221.49,-2.87663e-05,0,36864,209326
3230.77,-3.17861e-05,0,36864,209320
3240.05,-3.5085e-05,0,36864,209314
3251.64,-3.96346e-05,0,36864,209128
3260.92,-4.36432e-05,0,36864,209054
3270.2,-4.80067e-05,0,36864,209048
3281.79,-5.39998e-05,0,36864,208966
3291.07,-5.92592e-05,0,36864,208994
3300.35,-6.49636e-05,0,36864,209006
3311.95,-7.27671e-05,0,32768,208716
3321.23,-7.95881e-05,0,36864,209036
3330.51,-8.69603e-05,0,36864,209006
3342.11,-9.70053e-05,0,32768,208730
3351.39,-0.000105751,0,32768,208826
3360.67,-0.00011517,0,32768,208846
3372.26,-0.000127954,0,32768,208696
3381.54,-0.000139042,0,32768,208508
3390.82,-0.000150942,0,32768,208506
3400.1,-0.000163702,0,32768,208526
3411.7,-0.000180932,0,32768,208444
3420.98,-0.000195801,0,32768,208590
3430.26,-0.00021169,0,32768,208722
3441.87,-0.000233099,0,32768,208782
3451.18,-0.000251521,0,32768,208774
3460.48,-0.000271144,0,36864,208908
3472.1,-0.000297445,0,32768,208894
3481.4,-0.000319974,0,36864,208900
3490.7,-0.000343889,0,36864,209008
3500.01,-0.000369248,0,36864,209120
3511.63,-0.000403068,0,36864,209010
3520.93,-0.000431893,0,36864,208962
3530.23,-0.000462357,0,36864,209200
3541.86,-0.000502828,0,36864,209352
3551.16,-0.000537191,0,36864,209490
3560.46,-0.000573385,0,36864,209396
3572.09,-0.000621289,0,36864,209304
3581.39,-0.000661812,0,36864,209382
3590.7,-0.000704347,0,36864,209412
3600,-0.000748945,0,36864,209508
3611.63,-0.000807663,0,36864,209326
3620.94,-0.000857068,0,36864,209338
3630.24,-0.000908681,0,36864,209452
3641.87,-0.000976371,0,36864,209416
3651.18,-0.00103312,0,36864,209372
3660.5,-0.00109219,0,36864,209360
3672.14,-0.00116934,0,36864,209206
3681.45,-0.00123372,0,36864,209134
3690.77,-0.00130047,0,36864,209402
3700.08,-0.00136959,0,36864,209328
3711.72,-0.00145931,0,36864,209150
3721.03,-0.00153373,0,36864,209100
3730.35,-0.00161048,0,36864,209232
3741.99,-0.00170963,0,36864,209490
3751.3,-0.00179146,0,36864,209328
3760.62,-0.00187547,0,36864,209272
3772.26,-0.00198346,0,36864,209348
3781.58,-0.00207213,0,36864,209292
3790.9,-0.00216273,0,36864,209320
3800.22,-0.00225514,0,36864,209384
3811.87,-0.00237301,0,36864,209106
3821.19,-0.00246898,0,36864,209316
3830.52,-0.00256627,0,36864,209440
3842.17,-0.00268949,0,36864,209254
3851.49,-0.0027891,0,36864,209220
3860.81,-0.0028894,0,36864,209072
3870.14,-0.00299014,0,36864,209250
3881.79,-0.0031163,0,36864,209216
3891.11,-0.00321708,0,36864,209350
3900.44,-0.00331739,0,36864,209276
3912.09,-0.00344161,0,36864,208924
3921.42,-0.00353964,0,36864,208990
3930.74,-0.00363605,0,36864,208956
3940.07,-0.00373044,0,36864,209074
3951.72,-0.00384493,0,32768,208874
3961.05,-0.00393317,0,36864,208926
3970.37,-0.00401791,0,32768,208872
3982.03,-0.00411814,0,32768,208822
3991.35,-0.00419309,0,36864,209048
4000.68,-0.00426278,0,36864,209122
4010,-0.00432662,0,36864,208998
4021.66,-0.00439724,0,36864,209030
4030.99,-0.00444559,0,36864,208910
4040.32,-0.00448595,0,32768,208848
4051.99,-0.00452405,0,32768,208844
4061.33,-0.00454372,0,32768,208798
4070.67,-0.00455292,0,32768,208854
4080.02,-0.00455084,0,36864,208938
4091.69,-0.00453107,0,36864,208988
4101.04,-0.00450046,0,36864,208978
4110.39,-0.00445568,0,36864,209012
4122.08,-0.00437833,0,36864,208962
4131.43,-0.00429817,0,32768,208838
4140.79,-0.00420063,0,32768,208772
4150.16,-0.00408468,0,32768,208764
4161.87,-0.00391222,0,32768,208500
4171.24,-0.00375085,0,32768,208684
4180.61,-0.00356765,0,36864,208944
4192.33,-0.00330582,0,36864,208952
4201.72,-0.0030687,0,36864,209088
4211.08,-0.00280637,0,36864,208976
4220.47,-0.00251642,0,36864,208900
4232.19,-0.0021149,0,32768,208648
4241.56,-0.00176054,0,32768,208500
4250.94,-0.00137466,0,32768,208368
4260.32,-0.000956889,0,32768,208370
4272.04,-0.000387459,0,32768,208354
4281.37,0.000104726,0,32768,208232
4290.68,0.000631919,0,32768,208154
4302.31,0.00134324,0,32768,208186
4311.62,0.00195569,0,32768,208050
4320.97,0.0026111,0,32768,208226
4330.34,0.00330888,0,32768,208312
4342.02,0.00423975,0,32768,208330
4351.36,0.00503418,0,32768,208120
4360.7,0.00587364,0,32768,208010
4370.03,0.00675928,0,32768,207908
4381.71,0.00793453,0,32768,207854
4391.02,0.00892756,0,32768,207914
4400.34,0.00997087,0,32768,207754
4411.98,0.0113475,0,32768,207612
4421.3,0.0125081,0,32768,207654
4430.61,0.0137227,0,32768,207534
4442.25,0.0153183,0,32768,207458
4451.57,0.0166581,0,32768,207348
4460.89,0.0180564,0,32768,207266
4470.22,0.0195146,0,32768,207190
4481.89,0.0214226,0,32768,207132
4491.23,0.0230187,0,32768,206792
4500.57,0.0246796,0,32768,206644
4512.29,0.026852,0,32768,206964
4521.65,0.0286615,0,32768,207088
4530.99,0.0305361,0,32768,206964
4540.41,0.0324939,0,32768,207098
4552.03,0.0350089,0,32768,207134
4561.38,0.0371153,0,32768,207100
4570.79,0.0393114,0,32768,207226
4580.1,0.0415563,0,32768,207216
4591.82,0.0444842,0,32768,207226
4601.22,0.0469175,0,32768,206964
4610.59,0.0494222,0,32768,207046
4622.29,0.0526778,0,32768,206728
4631.6,0.055384,0,32768,206528
4640.92,0.0581584,0,32768,206436
4650.23,0.0609592,0,32768,206446
4661.85,0.0644484,0,32768,206484
4671.17,0.0673193,0,32768,206440
4680.49,0.070505,0,32768,206366
4692.14,0.0752507,0,32768,206404
4701.46,0.0792253,0,32768,206326
4710.81,0.0834245,0,32768,206646
4720.16,0.0878876,0,32768,206616
4731.88,0.0915032,0,32768,206356
4741.28,0.0948047,0,32768,206336
4750.71,0.0994701,0,32768,206394
4760.16,0.105348,0,32768,206342
4771.96,0.113642,0,32768,206258
4781.41,0.120397,0,32768,206264
4790.84,0.127078,0,32768,206204
4800.28,0.13378,0,32768,206190
4812.06,0.142375,0,32768,206300
4821.48,0.149553,0,32768,206338
4830.89,0.157019,0,32768,206052
4840.29,0.164744,0,32768,205940
4852.04,0.174688,0,32768,205978
4861.45,0.182797,0,32768,205848
4870.85,0.190977,0,32768,205678
4880.27,0.199119,0,32768,205770
4892.05,0.209246,0,32768,205942
4901.49,0.217526,0,32768,206002
4910.93,0.225833,0,32771,205936
4920.38,0.233993,0,32776,205834
4932.24,0.243882,0,32779,205638
4941.72,0.251479,0,32781,205480
4951.18,0.258781,0,32783,205460
4960.6,0.265801,0,32811,205396
4970.03,0.272562,0,32836,205468
4981.74,0.280568,0,32854,205412
4991.09,0.286613,0,32868,205382
5000.44,0.292346,0,32880,205440
5012.13,0.299051,0,32910,205204
5021.5,0.304011,0,32927,204990
5030.9,0.308614,0,32944,204966
5040.31,0.312872,0,32950,204978
5052.08,0.317742,0,32997,204990
5061.56,0.321164,0,33078,204998
5071.05,0.324108,0,33129,204760
5080.57,0.326633,0,33153,204738
5090.08,0.329447,0,33180,204478
5101.96,0.331171,0,33223,204510
5111.45,0.335015,0,33252,204154
5120.94,0.335536,0,33282,204100
5130.43,0.335797,0,33338,204280
5142.29,0.335797,0,33393,204062
5151.78,0.335683,0,33471,204116
5161.27,0.335239,0,33535,203762
5170.75,0.333843,0,33589,203620
5180.24,0.332523,0,33645,203430
5192.11,0.33073,0,33759,203264
5201.61,0.329078,0,33824,203178
5211.13,0.327179,0,33874,202964
5220.66,0.325072,0,33934,203006
5230.16,0.322831,0,34015,202922
5242.02,0.319777,0,34180,202788
5251.52,0.317031,0,34325,202728
5260.98,0.312304,0,34450,202614
5270.45,0.307501,0,34514,202502
5282.27,0.30171,0,34626,202388
5291.71,0.296903,0,34740,202138
5301.16,0.291782,0,34803,202154
5310.6,0.290525,0,34888,202100
5320.02,0.287396,0,34941,201906
5331.79,0.280494,0,35055,201824
5341.21,0.273215,0,35206,201720
5350.63,0.264855,0,35303,201648
5360.06,0.255779,0,35401,201578
5371.84,0.243835,0,35455,201298
5381.27,0.234006,0,35510,201088
5390.71,0.223995,0,31458,200942
5400.17,0.213748,0,31550,200686
5412.02,0.200793,0,31621,200630
5421.51,0.190053,0,31739,200477
5431.02,0.178836,0,31855,200406
5440.56,0.167204,0,31916,200408
5450.11,0.155252,0,31993,200223
5462.05,0.13991,0,32042,200047
5471.6,0.127272,0,32086,199806
5481.16,0.114281,0,32198,199977
5490.72,0.100981,0,32289,199806
5500.28,0.0875013,0,32265,199595
5512.24,0.0704735,0,32290,199201
5521.82,0.0563382,0,32314,199165
5531.4,0.041261,0,32454,199221
5540.99,0.025815,0,32597,199106
5550.59,0.0195222,0,32694,198864
5560.21,0.0116617,0,32826,199004
5572.23,-0.00886368,0,32985,198824
5581.86,-0.0266303,0,33165,198803
5591.48,-0.0417703,0,33225,198376
5601.11,-0.0559866,0,33313,198441
5610.74,-0.0693685,0,33476,198277
5620.37,-0.0822602,0,33625,198065
5630.01,-0.0953621,0,33818,197991
5642.03,-0.110185,0,34043,197959
5651.67,-0.119406,0,34171,197673
5661.29,-0.126444,0,34421,197585
5670.92,-0.132999,0,34710,197759
5680.55,-0.139322,0,34877,197677
5690.17,-0.145894,0,30975,197754
5702.19,-0.157934,0,31157,197443
5711.81,-0.161813,0,31407,197383
5721.43,-0.165642,0,31680,197073
5731.05,-0.168648,0,31924,197080
5740.66,-0.17061,0,32216,197030
5750.26,-0.174256,0,32421,196865
5762.27,-0.175099,0,32801,196745
5771.86,-0.175603,0,33141,196676
5781.45,-0.175978,0,33456,196487
5791.04,-0.176265,0,33667,196312
5800.62,-0.175901,0,33906,195998
5810.21,-0.175642,0,34194,195740
5822.18,-0.175649,0,34611,195705
5831.76,-0.175412,0,30723,195474
5841.33,-0.174964,0,33062,195454
5850.9,-0.174324,0,32285,195469
5860.48,-0.173509,0,32663,195507
5870.1,-0.172513,0,32454,195363
5882.07,-0.171036,0,32398,194896
5891.72,-0.169657,0,32527,194835
5901.39,-0.16811,0,32419,194702
5911.06,-0.166403,0,32425,194538
5920.73,-0.164545,0,32384,194343
5930.39,-0.162542,0,32386,194291
5940.06,-0.160405,0,32375,194275
5952.14,-0.15757,0,32373,194225
5961.8,-0.155193,0,32348,194073
5971.43,-0.152736,0,32338,194018
5981.06,-0.150203,0,32278,193602
5990.69,-0.147599,0,32212,193316
6000.33,-0.144922,0,32217,193305
6012.42,-0.141466,0,32187,193104
6022.07,-0.138624,0,32179,193090
6031.72,-0.135716,0,32157,192951
6041.36,-0.132739,0,32121,192676
6051,-0.129722,0,32093,192589
6060.64,-0.126731,0,32102,192625
6070.29,-0.123757,0,32071,192487
6082.34,-0.119984,0,32025,192191
6091.98,-0.116859,0,31989,191969
6101.63,-0.113612,0,31980,191871
6111.28,-0.110243,0,31928,191555
6120.93,-0.10678,0,31889,191365
6130.61,-0.103246,0,31875,191268
6140.31,-0.0996854,0,31871,191182
6150.02,-0.0961371,0,31846,191098
6162.17,-0.0917646,0,31809,190830
6171.88,-0.0883507,0,31780,190709
6181.59,-0.0850254,0,31764,190633
6191.3,-0.0817999,0,31799,190747
6201.01,-0.0786762,0,31773,190651
6210.73,-0.0756501,0,31760,190495
6220.46,-0.0727246,0,31741,190436
6230.18,-0.0699086,0,31714,190299
6242.32,-0.0665575,0,31719,190299
6252.04,-0.0640249,0,31693,190203
6261.74,-0.0616295,0,31680,190122
6271.45,-0.0593688,0,31650,189929
6281.15,-0.0571318,0,31649,189833
6290.84,-0.0549774,0,31704,189794
6300.52,-0.0529801,0,31694,189482
6310.13,-0.051178,0,31736,189157
6322.14,-0.0491716,0,31727,188944
6331.76,-0.0477482,0,31445,189026
6341.36,-0.0464648,0,31425,188688
6350.97,-0.0452957,0,31538,188524
6360.57,-0.0442369,0,31496,188316
6370.19,-0.0432886,0,31544,188105
6382.21,-0.0422571,0,31190,187943
6391.87,-0.0415456,0,31279,187853
6401.52,-0.0409308,0,31317,187894
6411.17,-0.0404031,0,31254,187568
6420.85,-0.0399534,0,31285,187740
6430.53,-0.0395767,0,31297,187764
6440.2,-0.039267,0,31304,187802
6452.23,-0.0389709,0,31273,187647
6461.87,-0.0388005,0,31235,187463
6471.51,-0.038681,0,31273,187654
6481.15,-0.0386045,0,31245,187447
6490.8,-0.0385657,0,31209,187277
6500.56,-0.0385614,0,31231,187384
6510.29,-0.0385905,0,31225,187356
6522.41,-0.0386722,0,31186,187091
6532.2,-0.0387742,0,31150,186925
6541.98,-0.0389083,0,31143,186911
6551.75,-0.0390741,0,31124,186779
6561.66,-0.0392741,0,31106,186592
6571.59,-0.0395065,0,31113,186662
6581.43,-0.0397672,0,31098,186639
6591.27,-0.040057,0,31114,186651
6601.12,-0.0403746,0,31058,186395
6610.96,-0.0407167,0,31061,186371
6620.77,-0.0410808,0,31040,186278
6630.57,-0.0414636,0,31041,186210
6640.31,-0.0418609,0,31032,186201
6650.04,-0.0422708,0,31009,186094
6662.18,-0.0427965,0,31014,186054
6671.88,-0.0432252,0,30998,186016
6681.58,-0.0436587,0,30999,186008
6691.27,-0.0440946,0,30984,185922
6700.95,-0.0445313,0,30974,185888
6710.63,-0.0449672,0,30983,185879
6720.3,-0.045401,0,30987,185966
6732.39,-0.0459389,0,31002,185993
6742.05,-0.0463641,0,30995,185970
6751.69,-0.0467835,0,31001,186020
6761.34,-0.0471967,0,31021,186112
6770.95,-0.047602,0,30976,185836
6780.56,-0.0479994,0,30951,185728
6790.17,-0.0483882,0,30972,185806
6802.17,-0.0488609,0,30955,185681
6811.78,-0.0492277,0,30919,185482
6821.38,-0.0495833,0,30864,185232
6830.98,-0.0499269,0,30899,185408
6840.58,-0.0502577,0,30879,185303
6850.19,-0.0505747,0,30844,185039
6862.19,-0.0509503,0,30820,184877
6871.79,-0.0512333,0,30814,184923
6881.4,-0.0515,0,30791,184748
6891,-0.0517495,0,30755,184532
6900.61,-0.0519813,0,30787,184659
6910.22,-0.0521946,0,30802,184773
6922.23,-0.0524343,0,30776,184683
6931.84,-0.0526039,0,30775,184605
6941.47,-0.0527532,0,30765,184531
6951.09,-0.0528817,0,30768,184598
6960.72,-0.0529891,0,30765,184562
6970.37,-0.0530748,0,30700,184224
6980.03,-0.0531385,0,30710,184265
6992.1,-0.0531865,0,30675,184088
7001.77,-0.0531992,0,30673,183988
7011.45,-0.0531889,0,30654,183894
7021.12,-0.0531554,0,30653,183946
7030.79,-0.0530985,0,30663,183942
7040.46,-0.0530182,0,30620,183770
7050.1,-0.0529147,0,30602,183648
7062.12,-0.0527527,0,30626,183701
7071.73,-0.0525973,0,30592,183565
7081.3,-0.0524192,0,30564,183379
7090.87,-0.0522182,0,30519,183078
7100.41,-0.0519952,0,30495,182933
7112.33,-0.0516845,0,30461,182777
7121.87,-0.0514104,0,30452,182701
7131.4,-0.0511139,0,30424,182548
7140.94,-0.0507949,0,30423,182491
7150.48,-0.0504536,0,30412,182499
7160.01,-0.0500899,0,30414,182472
7171.93,-0.0496041,0,30380,182289
7181.47,-0.0491904,0,30371,182227
7191.01,-0.0487546,0,30363,182180
7200.54,-0.0482967,0,30345,182062
7210.08,-0.0478166,0,30315,181886
7222,-0.0471856,0,30354,182121
7231.56,-0.0466552,0,30364,182192
7241.12,-0.0461026,0,30348,182095
7250.68,-0.045528,0,30328,182003
7260.23,-0.0449321,0,30314,181840
7272.17,-0.044157,0,30303,181767
7281.72,-0.0435127,0,30292,181745
7291.25,-0.0428484,0,30264,181586
7300.78,-0.0421631,0,30267,181630
7310.31,-0.041457,0,30276,181615
7322.21,-0.0405467,0,30297,181796
7331.69,-0.0397985,0,30307,181804
7341.16,-0.0390313,0,30301,181793
7350.63,-0.0382447,0,30261,181578
7360.1,-0.0374391,0,30250,181541
7371.93,-0.0364067,0,30234,181363
7381.39,-0.0355605,0,30213,181292
7390.85,-0.0346967,0,30185,181103
7400.31,-0.0338164,0,30166,180988
7412.13,-0.0326928,0,30145,180836
7421.59,-0.0317761,0,30139,180813
7431.05,-0.0308443,0,30123,180724
7440.53,-0.0298957,0,30124,180689
7450.01,-0.0289327,0,30106,180646
7461.88,-0.0277097,0,30069,180435
7471.37,-0.0267175,0,30041,180266
7480.87,-0.0257129,0,30025,180156
7490.38,-0.0246968,0,30041,180243
7502.28,-0.0234114,0,29991,179980
7511.82,-0.0223712,0,30014,180091
7521.37,-0.0213215,0,30061,180376
7530.94,-0.0202637,0,30062,180344
7540.5,-0.0191996,0,30017,180091
7550.07,-0.0181303,0,30004,180034
7562.03,-0.0167882,0,29993,179956
7571.59,-0.0157112,0,29986,179916
7581.16,-0.0146328,0,29972,179898
7590.72,-0.0135541,0,29969,179787
7600.28,-0.0124757,0,29970,179801
7612.22,-0.0111299,0,29970,179777
7621.78,-0.0100561,0,29979,179830
7631.34,-0.00898597,0,29945,179726
7640.89,-0.00792142,0,29936,179607
7650.42,-0.00686457,0,29917,179508
7662.31,-0.00555518,0,29931,179569
7671.83,-0.00451588,0,29920,179532
7681.36,-0.0034852,0,29881,179349
7690.87,-0.00246579,0,29899,179420
7700.38,-0.00145803,0,29893,179361
7712.23,-0.000218478,0,29864,179216
7721.71,0.000757956,0,29871,179197
7731.19,0.00172031,0,29862,179168
7740.65,0.00266596,0,29855,179095
7750.1,0.00359482,0,29849,179052
7761.91,0.00473242,0,29852,179144
7771.35,0.00562156,0,29882,179270
7780.77,0.00649102,0,29859,179122
7790.19,0.0073413,0,29848,179076
7801.96,0.00837496,0,29830,178984
7811.37,0.00917793,0,29813,178873
7820.78,0.00995938,0,29798,178800
7830.18,0.010718,0,29769,178616
7841.92,0.0116331,0,29762,178576
7851.3,0.0123386,0,29762,178530
7860.68,0.0130194,0,29737,178446
7870.05,0.0136751,0,29731,178376
7881.75,0.0144593,0,29680,178116
7891.1,0.0150565,0,29715,178247
7900.42,0.0156267,0,29701,178218
7912.05,0.016302,0,29737,178422
7921.34,0.0168112,0,29723,178308
7930.62,0.0172939,0,29695,178187
7942.19,0.017858,0,29685,178114
7951.39,0.0182768,0,29653,177892
7960.59,0.0186689,0,29617,177737
7972.08,0.0191209,0,29632,177784
7981.21,0.0194502,0,29626,177736
7990.33,0.0197528,0,29624,177733
8001.74,0.0200939,0,29582,177502
8010.85,0.0203369,0,29574,177456
8022.24,0.0206039,0,29558,177348
8031.36,0.0207881,0,29538,177230
8040.47,0.0209466,0,29540,177244
8051.87,0.0211086,0,29517,177088
8060.98,0.0212097,0,29510,177081
8070.1,0.0212858,0,29515,177080
8081.49,0.0213463,0,29499,176990
8090.62,0.0213675,0,29483,176892
8102.06,0.0213604,0,29439,176624
8111.22,0.0213283,0,29458,176758
8120.38,0.0212733,0,29471,176816
8131.82,0.0211731,0,29429,176564
8140.98,0.0210685,0,29419,176506
8150.14,0.0209427,0,29393,176345
8161.59,0.0207567,0,29403,176440
8170.76,0.0205857,0,29369,176216
8182.22,0.0203452,0,29371,176202
8191.39,0.0201321,0,29351,176106
8200.59,0.019901,0,29323,175944
8212.1,0.0195886,0,29327,175952
8221.31,0.0193208,0,29313,175866
8230.53,0.0190376,0,29284,175707
8242.05,0.0186639,0,29256,175552
8251.27,0.0183503,0,29271,175634
8260.48,0.0180244,0,29258,175557
8272,0.0176014,0,29251,175498
8281.22,0.0172513,0,29267,175596
8290.44,0.016892,0,29264,175578
8301.96,0.0164309,0,29213,175260
8311.19,0.0160535,0,29207,175264
8320.43,0.0156689,0,29205,175248
8331.99,0.0151805,0,29165,175028
8341.24,0.0147848,0,29171,175006
8350.48,0.0143858,0,29138,174818
8362.02,0.0138841,0,29114,174680
8371.25,0.0134811,0,29093,174572
8380.48,0.0130776,0,29112,174678
8392.02,0.0125737,0,29106,174610
8401.25,0.0121721,0,29054,174368
8410.48,0.0117726,0,29056,174334
8422.03,0.0112776,0,29031,174168
8431.26,0.010886,0,29022,174126
8440.49,0.0104994,0,28998,173994
8452.03,0.010024,0,28992,173902
8461.26,0.00965091,0,28994,173902
8470.49,0.00928509,0,28980,173854
8482.03,0.00883899,0,28951,173716
8491.25,0.00849217,0,28941,173704
8500.47,0.00815478,0,28925,173534
8511.99,0.00774708,0,28934,173550
8521.21,0.00743285,0,28911,173462
8530.43,0.00712984,0,28871,173234
8541.96,0.00676758,0,28868,173146
8551.19,0.0064913,0,28863,173162
8560.42,0.00622773,0,28877,173250
8571.97,0.00591697,0,28856,173158
8581.21,0.00568373,0,28839,173016
8590.45,0.00546447,0,28812,172880
8602,0.00521081,0,28781,172728
8611.25,0.0050246,0,28773,172674
8620.49,0.0048535,0,28761,172582
8632.06,0.00466096,0,28744,172422
8641.29,0.00452476,0,28704,172244
8650.53,0.00440432,0,28698,172226
8662.08,0.00427615,0,28695,172136
8671.4,0.004191,0,28671,172010
8680.72,0.00412223,0,28676,172038
8690.04,0.00406989,0,28640,171976
8701.69,0.00402763,0,28652,171904
8711.01,0.00401234,0,28638,171786
8720.34,0.00401347,0,28624,171708
8732,0.00403787,0,28592,171600
8741.32,0.00407566,0,28608,171602
8750.65,0.00412956,0,28586,171496
8762.32,0.00421933,0,28604,171584
8771.64,0.00430883,0,28582,171544
8780.97,0.00441382,0,28585,171516
8790.3,0.00453405,0,28552,171310
8801.97,0.00470536,0,28555,171364
8811.3,0.00485887,0,28544,171240
8820.63,0.00502668,0,28494,170980
8832.29,0.00525601,0,28487,170960
8841.62,0.00545468,0,28512,171024
8850.94,0.00566611,0,28495,170951
8860.25,0.0058901,0,28506,170992
8871.9,0.00618722,0,28482,170867
8881.21,0.00643806,0,28465,170783
8890.52,0.00669993,0,28463,170741
8902.15,0.00704222,0,28458,170776
8911.48,0.00732796,0,28450,170736
8920.81,0.00762351,0,28426,170588
8930.11,0.00792712,0,28404,170472
8941.76,0.008319,0,28372,170246
8951.1,0.00864199,0,28328,169968
8960.45,0.00897266,0,28336,169978
8972.14,0.00939544,0,28329,170026
8981.49,0.00974041,0,28316,169868
8990.85,0.0100908,0,28277,169694
9000.21,0.0104459,0,28236,169396
9011.92,0.0108954,0,28206,169256
9021.28,0.0112588,0,28192,169094
9030.65,0.0116247,0,28183,169084
9040,0.0119922,0,28188,169088
9051.7,0.0124533,0,28176,169070
9061.06,0.0128226,0,28185,169108
9070.42,0.0131918,0,28160,168972
9082.12,0.013652,0,28153,168918
9091.48,0.0140182,0,28138,168856
9100.83,0.014382,0,28128,168750
9110.21,0.0147433,0,28137,168862
9121.92,0.0151896,0,28104,168644
9131.3,0.0155416,0,28100,168548
9140.69,0.0158889,0,28073,168456
9150.08,0.0162306,0,28062,168388
9161.85,0.0166493,0,28071,168404
9171.28,0.0169767,0,28064,168390
9180.71,0.0172961,0,28076,168454
9190.14,0.0176068,0,28039,168238
9201.93,0.0179821,0,28002,168024
9211.36,0.0182712,0,27973,167838
9220.79,0.0185498,0,27974,167840
9230.21,0.0188173,0,27971,167838
9242,0.0191352,0,28012,168084
9251.42,0.0193757,0,28018,168098
9260.85,0.0196035,0,27991,167940
9270.28,0.0198179,0,28000,167992
9282.06,0.0200665,0,27995,167968
9291.49,0.0202493,0,27981,167878
9300.92,0.0204174,0,27986,167912
9310.35,0.0205702,0,27992,167950
9322.13,0.0207393,0,27965,167794
9331.56,0.0208565,0,27957,167734
9341,0.0209575,0,27973,167832
9350.43,0.0210417,0,27969,167814
9362.23,0.021123,0,27964,167768
9371.68,0.0211685,0,27930,167570
9381.13,0.0211964,0,27926,167530
9390.58,0.0212064,0,27916,167512
9400.04,0.0211982,0,27917,167492
9411.87,0.0211623,0,27888,167334
9421.33,0.0211127,0,27883,167294
9430.81,0.0210445,0,27885,167292
9440.29,0.0209575,0,27887,167294
9452.14,0.0208222,0,27856,167098
9461.63,0.0206926,0,27834,167024
9471.12,0.020544,0,27814,166888
9480.61,0.0203765,0,27784,166716
9490.1,0.0201902,0,27803,166842
9501.97,0.0199309,0,27815,166880
9511.46,0.0197024,0,27791,166744
9520.95,0.0194554,0,27783,166700
9530.45,0.0191899,0,27767,166628
9542.32,0.0188325,0,27730,166400
9551.81,0.0185264,0,27724,166370
9561.3,0.0182028,0,27725,166346
9570.78,0.0178621,0,27701,166211
9580.26,0.0175042,0,27680,166083
9592.1,0.0170334,0,27655,165933
9601.57,0.0166387,0,27695,166169
9611.04,0.0162281,0,27681,166069
9620.5,0.0158018,0,27654,165929
9632.33,0.0152477,0,27622,165711
9641.79,0.0147879,0,27597,165561
9651.25,0.0143138,0,27587,165504
9660.71,0.013826,0,27554,165304
9670.16,0.013325,0,27516,165144
9681.98,0.0126812,0,27533,165211
9691.42,0.0121526,0,27540,165183
9700.86,0.0116126,0,27521,165130
9710.3,0.0110613,0,27504,165067
9722.1,0.0103575,0,27495,164980
9731.53,0.00978324,0,27469,164842
9740.96,0.00920057,0,27474,164814
9750.38,0.00860911,0,27464,164744
9762.15,0.0078583,0,27424,164561
9771.58,0.00724917,0,27393,164351
9781,0.00663313,0,27421,164537
9790.42,0.00601078,0,27450,164742
9802.2,0.00522488,0,27465,164750
9811.62,0.00459051,0,27460,164776
9821.04,0.00395168,0,27462,164750
9830.46,0.00330905,0,27438,164578
9842.24,0.00250135,0,27422,164485
9851.69,0.00185076,0,27407,164444
9861.16,0.00119707,0,27384,164246
9870.63,0.000541458,0,27356,164114
9880.11,-0.000115142,0,27342,164036
9891.97,-0.000936375,0,27310,163850
9901.46,-0.00159319,0,27315,163872
9910.96,-0.00224916,0,27323,163908
9920.46,-0.00290332,0,27308,163842
9932.34,-0.00371763,0,27280,163642
9941.83,-0.00436575,0,27242,163492
9951.33,-0.00501031,0,27251,163540
9960.83,-0.00565079,0,27241,163464
9970.34,-0.0062867,0,27221,163314
9982.21,-0.00707445,0,27193,163182
9991.71,-0.0076983,0,27195,163118
10001.2,-0.00831639,0,27135,162857
10010.7,-0.0089284,0,27133,162852
10020.3,-0.00953355,0,27128,162754
10032.2,-0.0102802,0,27092,162566
10041.7,-0.0108689,0,27070,162402
10051.2,-0.0114487,0,27061,162368
10060.7,-0.0120199,0,27047,162316
10070.3,-0.0125839,0,27048,162290
10082.2,-0.0132767,0,27043,162297
10091.8,-0.0138202,0,26993,161995
10101.4,-0.0143538,0,26966,161804
10110.9,-0.0148772,0,26975,161810
10120.5,-0.0153904,0,26958,161732
10130.1,-0.0158935,0,26935,161568
10142.1,-0.0165076,0,26917,161476
10151.7,-0.0169862,0,26913,161454
10161.3,-0.0174536,0,26862,161157
10170.9,-0.0179093,0,26834,161013
10180.4,-0.018353,0,26807,160878
10190,-0.0187851,0,26821,160898
10202,-0.019309,0,26793,160739
10211.5,-0.0197149,0,26779,160644
10221.1,-0.020109,0,26760,160594
10230.7,-0.0204911,0,26736,160426
10240.2,-0.0208617,0,26739,160452
10252.2,-0.0213085,0,26744,160492
10261.7,-0.0216531,0,26719,160302
10271.3,-0.0219861,0,26699,160163
10280.9,-0.0223078,0,26670,160029
10290.4,-0.0226191,0,26687,160121
10300,-0.0229188,0,26647,159900
10312,-0.023278,0,26648,159896
10321.5,-0.0235506,0,26625,159762
10331,-0.0238125,0,26617,159720
10340.5,-0.0240641,0,26619,159702
10352.3,-0.0243626,0,26636,159799
10361.7,-0.0245895,0,26632,159820
10371.1,-0.0248068,0,26626,159770
10380.5,-0.0250146,0,26601,159570
10392.2,-0.0252612,0,26585,159493
10401.6,-0.0254483,0,26577,159495
10411,-0.0256267,0,26582,159485
10420.4,-0.0257965,0,26571,159455
10432.1,-0.0259969,0,26577,159489
10441.5,-0.0261482,0,26568,159439
10450.9,-0.0262917,0,26565,159365
10460.2,-0.0264278,0,26587,159495
10472,-0.0265878,0,26569,159435
10481.3,-0.0267081,0,26552,159279
10490.7,-0.0268218,0,26535,159207
10500.1,-0.026929,0,26552,159279
10511.9,-0.0270543,0,26535,159209
10521.3,-0.0271478,0,26508,159067
10530.7,-0.0272362,0,26516,159065
10540.3,-0.0273205,0,26506,159013
10552.4,-0.0274187,0,26501,159017
10562,-0.027491,0,26532,159143
10571.5,-0.0275584,0,26511,159082
10581.1,-0.0276212,0,26492,158952
10590.6,-0.0276793,0,26473,158785
10600.1,-0.027733,0,26472,158833
10611.9,-0.0277948,0,26484,158882
10621.3,-0.0278404,0,26456,158722
10630.7,-0.0278827,0,26441,158641
10640.2,-0.027922,0,26451,158707
10652,-0.0279671,0,26449,158681
10661.5,-0.0280003,0,26422,158525
10670.9,-0.0280311,0,26402,158397
10680.4,-0.0280596,0,26398,158401
10692.2,-0.0280924,0,26378,158265
10701.7,-0.0281166,0,26353,158119
10711.3,-0.028139,0,26346,158074
10720.8,-0.0281598,0,26322,157928
10730.2,-0.0281792,0,26309,157851
10742.1,-0.0282016,0,26337,158013
10751.6,-0.0282183,0,26335,158005
10761.1,-0.0282339,0,26347,158077
10770.6,-0.0282485,0,26320,157925
10780.1,-0.0282624,0,26298,157769
10792.1,-0.0282787,0,26263,157571
10801.6,-0.028291,0,26233,157391
10811.2,-0.0283028,0,26215,157294
10820.7,-0.028314,0,26169,156993
10830.3,-0.0283247,0,26168,157003
10841.6,-0.0283368,0,26153,156921
10851.4,-0.0283468,0,26160,156933
10861.1,-0.0283565,0,26150,156893
10872.2,-0.028367,0,26162,156975
10881.4,-0.0283753,0,26151,156905
10890.6,-0.0283833,0,26133,156794
10900.4,-0.0283914,0,26121,156718
10911.9,-0.0284004,0,26128,156765
10921.2,-0.0284072,0,26100,156591
10930,-0.0284133,0,26069,156421
10940.3,-0.0284198,0,26061,156353
10951.9,-0.0284263,0,26028,156153
10963,-0.0284317,0,25997,155967
10971,-0.028435,0,26004,156001
10981.3,-0.0284384,0,25993,155952
10991.1,-0.0284407,0,25963,155788
11000.9,-0.028442,0,25966,155777
11010.6,-0.0284422,0,25951,155697
11020.4,-0.0284411,0,25917,155509
11030.2,-0.0284388,0,25919,155519
11040,-0.0284349,0,25927,155541
11053.2,-0.0284273,0,25919,155525
11063,-0.0284195,0,25947,155669
11072.9,-0.0284097,0,25950,155700
11082.8,-0.0283978,0,25950,155696
11092.8,-0.0283837,0,25917,155495
11102.7,-0.0283672,0,25905,155417
11112.7,-0.0283481,0,25893,155353
11122.6,-0.0283262,0,25871,155229
11132.6,-0.0283014,0,25865,155201
11142.6,-0.0282735,0,25854,155129
11152.6,-0.0282424,0,25851,155095
11162.6,-0.0282079,0,25854,155145
11172.5,-0.0281697,0,25840,155030
11182.5,-0.0281278,0,25806,154848
11192.5,-0.028082,0,25811,154867
11202,-0.0280345,0,25826,154953
11210.1,-0.0279911,0,25809,154843
11220.1,-0.0279333,0,25791,154754
11230.2,-0.0278708,0,25784,154704
11240.2,-0.0278035,0,25788,154726
11250.7,-0.0277278,0,25808,154845
11260.2,-0.0276542,0,25799,154800
11272.1,-0.0275554,0,25743,154475
11282.1,-0.0274662,0,25716,154299
11292.1,-0.0273714,0,25738,154415
11302.1,-0.0272709,0,25725,154346
11312.2,-0.0271644,0,25725,154340
11322.2,-0.0270518,0,25700,154203
11332.2,-0.0269329,0,25687,154126
11342.2,-0.0268075,0,25671,154048
11352.3,-0.0266756,0,25651,153909
11362.3,-0.0265369,0,25626,153758
11372,-0.0263955,0,25609,153655
11382,-0.0262438,0,25601,153606
11392,-0.0260851,0,25615,153668
11401.6,-0.0259249,0,25618,153708
11411.2,-0.025758,0,25591,153547
11421.3,-0.0255759,0,25563,153384
11432.9,-0.0253558,0,25573,153429
11442.8,-0.0251601,0,25577,153465
11452.8,-0.0249562,0,25559,153373
11462.7,-0.0247445,0,25557,153344
11472.7,-0.0245247,0,25560,153351
11482.7,-0.0242966,0,25527,153166
11492.6,-0.0240603,0,25523,153122
11502.6,-0.0238157,0,25518,153109
11512.6,-0.0235629,0,25512,153067
11522.6,-0.0233002,0,25520,153115
11532.7,-0.0230282,0,25528,153178
11542.7,-0.0227473,0,25518,153106
11552.8,-0.0224577,0,25520,153119
11562.9,-0.0221592,0,25520,153103
11570.1,-0.0219402,0,25520,153115
11583,-0.0215352,0,25512,153065
11593,-0.0212133,0,25489,152940
11602.9,-0.0208857,0,25480,152880
11612.8,-0.0205498,0,25470,152806
11622.6,-0.0202072,0,25460,152757
11632.4,-0.0198565,0,25478,152849
11642.2,-0.0194973,0,25454,152742
11652,-0.0191296,0,25466,152804
11661.8,-0.0187535,0,25454,152719
11671.6,-0.0183689,0,25423,152533
11681.4,-0.0179758,0,25406,152442
11691.3,-0.0175743,0,25413,152474
11701.1,-0.0171644,0,25412,152466
11710.9,-0.0167462,0,25414,152488
11720.7,-0.0163197,0,25452,152698
11730.5,-0.015885,0,25452,152716
11741.8,-0.0153762,0,25452,152706
11751.2,-0.0149428,0,25458,152742
11761,-0.0144808,0,25434,152588
11770.9,-0.0140081,0,25437,152618
11780.8,-0.0135263,0,25417,152517
11790.8,-0.0130365,0,25413,152487
11800.7,-0.0125386,0,25438,152651
11810.7,-0.0120325,0,25448,152674
11820.6,-0.011518,0,25428,152576
11830.6,-0.0109954,0,25417,152504
11842,-0.0103868,0,25391,152360
11851.6,-0.00986974,0,25381,152291
11861.6,-0.00932277,0,25362,152164
11871.6,-0.00876814,0,25370,152219
11881.6,-0.00820655,0,25360,152155
11891.6,-0.00763816,0,25348,152091
11901.6,-0.00706312,0,25344,152049
11911.6,-0.00648156,0,25316,151908
11921.6,-0.00589371,0,25304,151830
11931.6,-0.00529974,0,25310,151846
11941.6,-0.00469981,0,25312,151862
11951.6,-0.00409408,0,25311,151868
11961.6,-0.0034828,0,25275,151657
11971.7,-0.00286627,0,25261,151579
11981.7,-0.00224478,0,25244,151465
11991.7,-0.00161836,0,25236,151419
12001.7,-0.000987616,0,25228,151345
12011.7,-0.000352388,0,25224,151359
12021.7,0.000287099,0,25202,151207
12031.7,0.000930347,0,25180,151066
12041.6,0.00157727,0,25136,150812
12051.6,0.00222776,0,25135,150815
12061.6,0.00288141,0,25137,150811
12071.6,0.00353816,0,25119,150704
12081.6,0.00419776,0,25112,150662
12091.6,0.00485952,0,25097,150566
12101.6,0.00552271,0,25096,150570
12111.5,0.00618804,0,25070,150423
12121.5,0.00685527,0,25052,150303
12131.5,0.00752414,0,25022,150136
12141.4,0.00819443,0,24999,149969
12151.4,0.00886588,0,24971,149808
12161.4,0.00953847,0,24973,149843
12171.4,0.0102126,0,24951,149709
12181.3,0.0108875,0,24956,149752
12191.3,0.0115626,0,24936,149617
12201.3,0.012237,0,24924,149533
12211.3,0.0129108,0,24891,149338
12221.3,0.0135841,0,24847,149066
12231.2,0.0142565,0,24836,149009
12241.2,0.0149271,0,24841,149049
12251.2,0.0155964,0,24869,149222
12261.1,0.0162642,0,24869,149217
12271.1,0.0169303,0,24866,149179
12281,0.0175945,0,24828,148979
12291,0.0182559,0,24812,148845
12300.9,0.0189145,0,24802,148805
12310.9,0.0195702,0,24790,148734
12320.8,0.020222,0,24786,148724
12330.7,0.0208696,0,24792,148740
12340.6,0.0215136,0,24775,148635
12350.5,0.022154,0,24757,148541
12360.4,0.02279,0,24757,148552
12370.3,0.0234218,0,24747,148481
12380.1,0.0240496,0,24720,148324
12390,0.0246731,0,24712,148268
12403.2,0.0254977,0,24700,148210
12413.1,0.0261108,0,24672,148034
12422.9,0.026719,0,24669,148012
12432.8,0.0273221,0,24658,147943
12442.7,0.0279199,0,24644,147865
12452.6,0.0285125,0,24630,147770
12462.4,0.0290995,0,24661,147956
12472.3,0.0296809,0,24651,147896
12482.2,0.0302567,0,24621,147738
12492.1,0.030828,0,24595,147567
12502,0.0313938,0,24621,147717
12511.9,0.0319537,0,24607,147623
12521.9,0.0325077,0,24600,147577
12531.9,0.0330574,0,24586,147517
12541.9,0.0336008,0,24567,147402
12551.8,0.0341368,0,24532,147201
12561.8,0.0346658,0,24526,147180
12571.8,0.0351882,0,24513,147073
12581.9,0.0357032,0,24512,147072
12591.9,0.0362099,0,24507,147029
12601.8,0.036708,0,24505,147031
12611.8,0.0371974,0,24493,146953
12621.8,0.0376787,0,24494,146954
12631.7,0.0381509,0,24468,146812
12641.7,0.0386144,0,24466,146792
12651.6,0.0390695,0,24469,146800
12661.6,0.039516,0,24474,146827
12671.5,0.0399538,0,24485,146889
12681.5,0.0403827,0,24472,146822
12691.4,0.0408028,0,24453,146709
12701.3,0.0412137,0,24428,146568
12711.3,0.0416154,0,24402,146400
12721.2,0.0420078,0,24394,146370
12731.2,0.0423906,0,24395,146387
12741.1,0.042764,0,24385,146311
12751,0.0431275,0,24389,146332
12761,0.0434814,0,24383,146310
12770.9,0.0438253,0,24388,146318
12780.8,0.044159,0,24369,146217
12790.8,0.0444825,0,24382,146282
12800.7,0.0447958,0,24385,146299
12810.6,0.0450988,0,24395,146364
12820.6,0.0453914,0,24386,146302
12830.5,0.0456735,0,24352,146130
12840.4,0.0459449,0,24332,145970
12850.3,0.0462057,0,24315,145899
12860.3,0.0464556,0,24305,145824
12870.2,0.0466945,0,24300,145783
12880.1,0.0469224,0,24297,145793
12890.1,0.0471392,0,24288,145736
12900,0.0473449,0,24284,145698
12913.3,0.0476017,0,24282,145686
12923.2,0.047781,0,24270,145616
12933.2,0.0479487,0,24252,145522
12943.1,0.0481048,0,24241,145439
12953.1,0.0482491,0,24215,145297
12963,0.0483817,0,24219,145303
12973,0.0485026,0,24207,145236
12982.9,0.0486116,0,24186,145118
12992.9,0.0487087,0,24190,145138
13002.3,0.0487896,0,24182,145092
13011.6,0.0488598,0,24182,145102
13021,0.0489194,0,24198,145184
13030.3,0.0489682,0,24188,145128
13044.4,0.0490213,0,24192,145152
13053.7,0.0490432,0,24192,145140
13063.1,0.0490543,0,24193,145169
13072.4,0.0490546,0,24205,145225
13081.8,0.049044,0,24201,145202
13091.2,0.0490227,0,24177,145067
13100.5,0.0489905,0,24184,145098
13114.6,0.0489219,0,24191,145129
13123.9,0.0488626,0,24193,145157
13133.3,0.0487926,0,24193,145181
13142.6,0.0487118,0,24202,145208
13152,0.0486203,0,24216,145296
13161.4,0.0485181,0,24226,145362
13170.7,0.0484053,0,24199,145199
13180.1,0.0482819,0,24191,145149
13194.1,0.0480769,0,24179,145047
13203.5,0.0479272,0,24162,144970
13212.8,0.0477671,0,24163,144957
13222.2,0.0475967,0,24146,144888
13231.6,0.047416,0,24146,144878
13240.9,0.0472252,0,24134,144794
13250.3,0.0470243,0,24144,144864
13264.4,0.0467044,0,24158,144956
13273.7,0.0464788,0,24169,145009
13283.1,0.0462435,0,24155,144930
13292.5,0.0459987,0,24136,144818
13301.8,0.0457443,0,24136,144816
13311.2,0.0454807,0,24131,144789
13320.6,0.0452078,0,24117,144709
13334.7,0.0447815,0,24098,144586
13344,0.0444862,0,24090,144540
13353.4,0.0441823,0,24086,144496
13362.8,0.0438698,0,24067,144403
13372.2,0.0435491,0,24062,144362
13381.6,0.0432201,0,24051,144298
13391,0.042883,0,24047,144268
13400.3,0.042538,0,24047,144277
13414.4,0.0420058,0,24071,144433
13423.8,0.0416417,0,24062,144376
13433.2,0.0412703,0,24064,144388
13442.6,0.0408918,0,24057,144325
13452,0.0405064,0,24027,144167
13461.5,0.0401142,0,24025,144147
13470.9,0.0397155,0,24018,144102
13480.3,0.0393101,0,24011,144068
13494.4,0.0386906,0,24002,143997
13503.8,0.0382703,0,23993,143955
13513.3,0.0378444,0,23984,143922
13522.7,0.0374131,0,23970,143810
13532.1,0.0369763,0,23959,143755
13541.6,0.0365343,0,23953,143713
13551,0.0360876,0,23967,143797
13560.4,0.0356364,0,23966,143790
13574.6,0.0349513,0,23958,143753
13584,0.0344894,0,23946,143665
13593.5,0.0340237,0,23939,143644
13602.9,0.0335542,0,23945,143656
13612.3,0.0330811,0,23942,143639
13621.8,0.0326045,0,23941,143665
13631.2,0.0321244,0,23931,143607
13640.7,0.0316412,0,23939,143645
13650.1,0.031155,0,23957,143733
13664.4,0.0304193,0,23944,143664
13673.8,0.0299258,0,23953,143730
13683.3,0.0294299,0,23946,143681
13692.8,0.0289316,0,23956,143731
13702.3,0.0284317,0,23970,143829
13711.7,0.0279307,0,23980,143871
13721.2,0.0274287,0,23983,143892
13730.7,0.0269251,0,23966,143809
13740.1,0.0264202,0,23977,143861
13754.3,0.0256605,0,23987,143923
13763.8,0.0251528,0,24009,144043
13773.2,0.024644,0,24008,144034
13782.7,0.0241345,0,23994,143967
13792.1,0.0236241,0,23976,143839
13801.6,0.0231131,0,23960,143747
13811.1,0.0226016,0,23965,143800
13820.5,0.0220896,0,23963,143786
13834.7,0.0213207,0,23952,143707
13844.2,0.0208078,0,23926,143555
13853.6,0.0202946,0,23912,143473
13863.1,0.0197811,0,23921,143532
13872.5,0.0192676,0,23925,143549
13882,0.0187539,0,23930,143571
13891.5,0.0182401,0,23916,143491
13900.9,0.0177263,0,23901,143398
13910.4,0.0172121,0,23899,143402
13924.6,0.0164401,0,23888,143327
13934.1,0.0159256,0,23903,143424
13942.2,0.0154841,0,23907,143442
13951.7,0.0149695,0,23905,143440
13961.1,0.0144549,0,23913,143494
13970.6,0.0139402,0,23906,143433
13980.1,0.0134249,0,23888,143323
13994.3,0.0126519,0,23868,143216
14003.8,0.0121365,0,23850,143101
14013.3,0.0116211,0,23834,142987
14022.8,0.0111056,0,23813,142890
14032.3,0.01059,0,23798,142786
14041.8,0.0100743,0,23780,142670
14051.2,0.00955835,0,23777,142657
14060.7,0.00904224,0,23785,142703
14070.2,0.00852589,0,23800,142806
14084.5,0.00775081,0,23822,142926
14093.9,0.00723356,0,23818,142914
14103.4,0.00671568,0,23802,142804
14112.9,0.00619746,0,23784,142710
14122.4,0.00567905,0,23783,142698
14131.9,0.00516028,0,23774,142647
14141.4,0.00464153,0,23756,142535
14150.8,0.00412216,0,23756,142523
14160.3,0.00360213,0,23744,142463
14174.5,0.00282074,0,23734,142409
14184,0.00229886,0,23734,142407
14193.5,0.00177616,0,23725,142346
14203,0.00125261,0,23723,142348
14212.4,0.000728155,0,23741,142446
14221.9,0.000202771,0,23758,142543
14231.4,-0.000323581,0,23770,142617
14240.8,-0.000850935,0,23775,142654
14250.3,-0.00137932,0,23768,142614
14264.5,-0.00217391,0,23758,142536
14274,-0.002705,0,23740,142444
14283.5,-0.00323722,0,23715,142289
14292.9,-0.00377057,0,23703,142221
14302.4,-0.00430509,0,23693,142141
14311.9,-0.00484077,0,23685,142101
14321.4,-0.00537874,0,23667,142011
14330.9,-0.0059179,0,23653,141907
14340.4,-0.00645825,0,23648,141880
14354.6,-0.00727098,0,23656,141930
14364.1,-0.00781451,0,23644,141862
14373.6,-0.00835942,0,23648,141884
14383.1,-0.00890595,0,23652,141924
14392.6,-0.00945325,0,23661,141967
14402.1,-0.0100016,0,23675,142051
14411.6,-0.0105511,0,23679,142063
14421.1,-0.0111015,0,23664,141992
14430.6,-0.0116529,0,23632,141786
14440.1,-0.0122052,0,23622,141722
14454.4,-0.0130328,0,23609,141637
14463.8,-0.0135854,0,23619,141719
14473.3,-0.0141384,0,23604,141618
14482.8,-0.0146915,0,23594,141556
14492.2,-0.0152452,0,23582,141490
14501.7,-0.0157993,0,23571,141415
14511.1,-0.0163538,0,23548,141278
14520.6,-0.0169087,0,23540,141242
14530,-0.0174637,0,23533,141197
14544.2,-0.0182965,0,23547,141285
14553.7,-0.0188516,0,23545,141271
14563.1,-0.0194066,0,23541,141231
14572.6,-0.0199612,0,23517,141095
14582.1,-0.0205155,0,23506,141042
14591.5,-0.0210692,0,23503,141011
14601,-0.0216223,0,23493,140959
14610.4,-0.0221745,0,23479,140857
14624.6,-0.0230011,0,23466,140792
14634.1,-0.0235506,0,23455,140721
14643.5,-0.0240989,0,23457,140745
14653,-0.0246457,0,23457,140719
14662.5,-0.0251915,0,23471,140807
14672,-0.0257362,0,23474,140840
14681.4,-0.0262789,0,23488,140932
14690.9,-0.0268194,0,23492,140956
14700.4,-0.0273576,0,23467,140797
14714.7,-0.0281631,0,23430,140572
14724.2,-0.028697,0,23398,140372
14733.7,-0.0292281,0,23372,140218
14743.3,-0.029756,0,23378,140256
14752.8,-0.0302804,0,23388,140334
14762.3,-0.0308012,0,23414,140486
14771.8,-0.0313181,0,23422,140540
14781.4,-0.0318309,0,23436,140638
14790.9,-0.0323394,0,23424,140554
14800.4,-0.0328433,0,23404,140426
14814.7,-0.0335904,0,23414,140492
14824.2,-0.034082,0,23445,140665
14833.7,-0.0345683,0,23460,140746
14843.3,-0.0350491,0,23465,140799
14852.8,-0.0355243,0,23461,140771
14862.3,-0.0359933,0,23449,140683
14871.8,-0.036456,0,23423,140545
14881.3,-0.0369124,0,23431,140597
14890.8,-0.0373623,0,23443,140651
14900.3,-0.0378053,0,23449,140695
14914.6,-0.0384567,0,23431,140577
14924.1,-0.0388819,0,23433,140587
14933.6,-0.0392995,0,23431,140573
14943.1,-0.0397093,0,23426,140550
14952.6,-0.0401111,0,23427,140573
14962.1,-0.0405047,0,23437,140615
14971.6,-0.0408899,0,23434,140598
14981.1,-0.0412664,0,23430,140584
14990.6,-0.041634,0,23428,140557
15000.1,-0.0419926,0,23407,140427
15014.4,-0.0425137,0,23383,140309
15024,-0.0428492,0,23377,140263
15033.5,-0.0431748,0,23374,140216
15043,-0.0434905,0,23358,140155
15052.5,-0.0437959,0,23365,140181
15062.1,-0.0440909,0,23387,140308
15071.6,-0.0443755,0,23396,140372
15081.1,-0.0446492,0,23392,140344
15090.7,-0.0449121,0,23378,140275
15102.2,-0.0452158,0,23385,140318
15111.8,-0.0454538,0,23380,140270
15121.3,-0.0456804,0,23356,140140
15130.9,-0.0458952,0,23340,140030
15140.4,-0.0460983,0,23326,139941
15150,-0.0462894,0,23299,139802
15164.4,-0.0465532,0,23316,139887
15173.7,-0.0467089,0,23332,139963
15182.7,-0.0468485,0,23316,139894
15191.7,-0.0469782,0,23300,139807
15200.9,-0.0470975,0,23280,139694
15210.1,-0.0472049,0,23270,139619
15224.1,-0.0473454,0,23228,139355
15233.7,-0.0474257,0,23201,139196
15243.2,-0.0474926,0,23169,138997
15252.8,-0.0475464,0,23144,138848
15262.4,-0.0475872,0,23126,138740
15270.3,-0.0476101,0,23105,138639
15283,-0.0476283,0,23089,138519
15292.6,-0.0476267,0,23080,138475
15302.2,-0.0476116,0,23064,138377
15311.9,-0.0475827,0,23038,138227
15321.5,-0.0475402,0,23018,138099
15331.2,-0.047484,0,23005,138022
15340.9,-0.0474141,0,22992,137970
15350.5,-0.0473306,0,22988,137915
15360.2,-0.0472335,0,22982,137867
15374.7,-0.0470624,0,22952,137712
15384.4,-0.0469312,0,22955,137723
15394.1,-0.0467862,0,22965,137804
15403.9,-0.0466273,0,22988,137919
15413.6,-0.0464546,0,23002,137998
15422.5,-0.0462868,0,22978,137864
15430.3,-0.0461275,0,22952,137717
15440.2,-0.0459177,0,22954,137732
15450,-0.0456946,0,22950,137686
15464.8,-0.0453339,0,22914,137467
15474.8,-0.0450759,0,22887,137314
15484.7,-0.0448038,0,22871,137224
15494.8,-0.044517,0,22856,137125
15504.8,-0.0442172,0,22854,137108
15515,-0.043903,0,22851,137122
15520,-0.0437412,0,22857,137141
15530.2,-0.0434083,0,22863,137160
15540.3,-0.0430634,0,22853,137134
15550.5,-0.0427038,0,22837,137009
15560.7,-0.0423317,0,22823,136939
15571,-0.0419473,0,22811,136870
15581.2,-0.0415517,0,22805,136829
15591.5,-0.0411452,0,22801,136805
15601.7,-0.0407282,0,22814,136878
15612,-0.0403011,0,22818,136881
15622.2,-0.039864,0,22807,136846
15632.5,-0.0394184,0,22813,136884
15642.7,-0.0389636,0,22819,136905
15652.9,-0.0385001,0,22807,136840
15663.2,-0.0380282,0,22803,136828
15673.4,-0.0375482,0,22791,136752
15683.6,-0.0370606,0,22779,136673
15693.9,-0.0365656,0,22767,136586
15704.1,-0.0360638,0,22741,136447
15714.3,-0.0355554,0,22728,136364
15724.6,-0.0350408,0,22711,136284
15734.9,-0.0345167,0,22703,136224
15740,-0.0342525,0,22695,136158
15750.6,-0.0337069,0,22675,136053
15761.2,-0.0331535,0,22661,135956
15772.1,-0.0325836,0,22655,135930
15782.9,-0.0320076,0,22661,135955
15794,-0.0314189,0,22669,136010
15805.2,-0.0308177,0,22651,135918
15810.8,-0.0305159,0,22649,135894
15822.3,-0.0298924,0,22654,135909
15834.1,-0.0292514,0,22652,135903
15840.1,-0.0289215,0,22660,135953
15852.2,-0.0282602,0,22662,135969
15864.9,-0.0275653,0,22662,135944
15871.3,-0.0272174,0,22660,135965
15883,-0.0265715,0,22656,135940
15894.8,-0.0259256,0,22646,135859
15901.2,-0.0255742,0,22629,135765
15914.2,-0.0248616,0,22611,135671
15920.8,-0.0245017,0,22607,135625
15934,-0.0237834,0,22583,135502
15940.3,-0.0234404,0,22575,135434
15952.8,-0.0227605,0,22561,135365
15962.9,-0.022215,0,22537,135194
15974.6,-0.021584,0,22519,135119
15981.3,-0.021226,0,22513,135073
15994,-0.0205459,0,22513,135081
16000.1,-0.0202236,0,22521,135119
16011.3,-0.019632,0,22521,135112
16022,-0.0190703,0,22529,135185
16033.4,-0.01848,0,22534,135213
16042.4,-0.0180153,0,22541,135238
16052.7,-0.0174863,0,22535,135209
16064.4,-0.0168948,0,22517,135089
16070.2,-0.0166012,0,22509,135063
16083.4,-0.0159414,0,22493,134954
16090.1,-0.0156063,0,22479,134877
16103.7,-0.0149427,0,22465,134778
16110.4,-0.0146142,0,22457,134726
16123.6,-0.0139781,0,22447,134672
16130.1,-0.0136704,0,22443,134641
16143,-0.0130614,0,22432,134581
16156,-0.0124613,0,22436,134611
16162.4,-0.0121646,0,22448,134699
16175.4,-0.0115779,0,22485,134911
16181.8,-0.011288,0,22489,134942
16194.8,-0.010715,0,22489,134917
16201.2,-0.010432,0,22475,134839
16214.2,-0.00987296,0,22467,134798
16220.6,-0.00959694,0,22469,134810
16233.3,-0.00906305,0,22469,134800
16244.7,-0.0085898,0,22478,134868
16254,-0.00821275,0,22495,134978
16262.8,-0.00785651,0,22505,135012
16272.8,-0.00745808,0,22491,134940
16284,-0.00701931,0,22490,134926
16295.1,-0.00658736,0,22477,134845
16300.7,-0.00637392,0,22473,134828
16311.9,-0.00595206,0,22451,134710
16326.3,-0.00541799,0,22433,134597
16333.9,-0.00513926,0,22425,134554
16341.5,-0.00486356,0,22417,134492
16356.9,-0.00431824,0,22422,134542
16363,-0.00410586,0,22428,134568
16375.1,-0.00368653,0,22435,134625
16381.2,-0.00347956,0,22447,134691
16393.9,-0.00304998,0,22471,134815
16400.3,-0.00283988,0,22471,134835
16412.2,-0.00244795,0,22455,134731
16424.1,-0.00206562,0,22457,134743
16430,-0.00187677,0,22463,134771
16441,-0.00153277,0,22467,134798
16454.3,-0.00112152,0,22457,134734
16463.1,-0.000850887,0,22437,134605
16474.4,-0.000510397,0,22415,134481
16480.6,-0.000326026,0,22407,134437
16493,3.84629e-05,0,22407,134445
16505.6,0.000403762,0,22409,134459
16512,0.000587475,0,22413,134463
16524,0.000926984,0,22412,134483
16535.9,0.00125938,0,22394,134367
16541.8,0.00142405,0,22381,134292
16556,0.00181394,0,22373,134231
16563.1,0.0020067,0,22377,134263
16570.1,0.00219506,0,22377,134246
16584.1,0.00256785,0,22399,134399
16591.8,0.00276934,0,22403,134417
16607.1,0.00316808,0,22429,134585
16614.3,0.00335353,0,22457,134751
16621.4,0.00353783,0,22470,134832
16635.7,0.00390002,0,22481,134890
16642.8,0.00407957,0,22473,134831
16655.6,0.00440012,0,22459,134753
16661.7,0.00454997,0,22447,134685
16673.5,0.00484243,0,22423,134529
16685.1,0.00512729,0,22409,134437
16691,0.00526893,0,22413,134477
16703.9,0.00558152,0,22416,134503
16710.6,0.00574302,0,22412,134477
16724,0.00606423,0,22403,134418
16730.4,0.00621684,0,22397,134372
16742.5,0.00650474,0,22395,134359
16755.4,0.00680672,0,22399,134393
16761.8,0.00695705,0,22399,134410
16774.6,0.00725648,0,22409,134447
16781,0.00740561,0,22405,134427
16794.9,0.00772842,0,22396,134393
16802.4,0.00790199,0,22388,134325
16817.4,0.0082456,0,22383,134286
16824.8,0.00841568,0,22373,134242
16832.3,0.00858752,0,22369,134212
16847.3,0.00892992,0,22373,134235
16854.9,0.00910049,0,22377,134255
16862.7,0.00927835,0,22375,134255
16874.8,0.00955048,0,22395,134364
16880.8,0.00968617,0,22402,134404
16892.9,0.00995686,0,22402,134405
16904.8,0.0102222,0,22391,134340
16910.7,0.0103547,0,22383,134291
16924.9,0.010671,0,22357,134125
16932.1,0.0108296,0,22345,134069
16947.6,0.0111717,0,22337,134011
16954.7,0.0113276,0,22337,134012
16961.4,0.0114745,0,22327,133934
16973.8,0.0117445,0,22312,133870
16986,0.0120099,0,22300,133785
16992.4,0.0121494,0,22300,133795
17005.3,0.0124272,0,22303,133825
17011.8,0.0125656,0,22307,133837
17023.7,0.0128211,0,22327,133967
17035.2,0.0130656,0,22339,134023
17041.2,0.0131918,0,22349,134089
17053.3,0.0134469,0,22338,134022
17065.4,0.0137009,0,22338,134027
17071.5,0.0138271,0,22346,134058
17084.9,0.0141042,0,22337,134037
17091.1,0.0142328,0,22337,134014
17103.5,0.0144846,0,22324,133941
17115.4,0.014725,0,22310,133863
17123.2,0.014882,0,22304,133808
17131,0.015038,0,22296,133761
17146.3,0.0153404,0,22286,133699
17154,0.0154901,0,22286,133726
17161.6,0.0156387,0,22306,133830
17176.9,0.0159326,0,22350,134091
17185,0.0160857,0,22366,134203
17192.2,0.0162208,0,22367,134214
17204.8,0.0164562,0,22392,134345
17210.8,0.0165651,0,22396,134385
17222.4,0.0167767,0,22400,134393
17234,0.016985,0,22392,134349
17245.7,0.01719,0,22394,134365
17251.9,0.0172976,0,22394,134367
17264.2,0.01751,0,22398,134383
17270.6,0.0176183,0,22382,134303
17283.7,0.0178364,0,22368,134191
17290.4,0.0179461,0,22357,134134
17303.8,0.0181616,0,22332,133995
17310.5,0.0182674,0,22328,133954
17325.1,0.0184919,0,22308,133848
17332.5,0.0186043,0,22304,133820
17340.3,0.0187208,0,22304,133810
17355.9,0.0189479,0,22296,133776
17363.7,0.0190584,0,22298,133778
17371.5,0.0191669,0,22294,133738
17387.2,0.0193776,0,22296,133776
17394.3,0.0194707,0,22308,133842
17400.7,0.0195529,0,22308,133862
17412.8,0.0197045,0,22344,134068
17425,0.0198507,0,22376,134252
17431,0.0199214,0,22388,134318
17442.9,0.0200564,0,22402,134402
17455.5,0.0201941,0,22398,134380
17461.3,0.0202555,0,22402,134414
17472.8,0.020373,0,22418,134516
17484.6,0.0204875,0,22418,134516
17491,0.0205481,0,22414,134476
17503.9,0.0206643,0,22406,134442
17510.3,0.0207199,0,22406,134442
17523.2,0.020826,0,22398,134394
17536.1,0.0209254,0,22386,134306
17542.5,0.0209725,0,22374,134250
17550,0.0210255,0,22370,134226
17562.8,0.0211099,0,22386,134322
17572,0.0211658,0,22402,134424
17581.1,0.0212182,0,22410,134460
17590.3,0.0212671,0,22398,134380
17605.6,0.0213415,0,22374,134248
17612,0.0213697,0,22362,134176
17624.9,0.0214208,0,22338,134030
17632,0.0214463,0,22324,133948
17647.6,0.021495,0,22312,133852
17654.8,0.0215142,0,22312,133858
17661.2,0.0215289,0,22316,133900
17673,0.0215516,0,22344,134076
17684.5,0.0215681,0,22352,134116
17690.2,0.0215743,0,22356,134130
17701.7,0.0215826,0,22376,134276
17713.9,0.0215854,0,22396,134376
17720.3,0.0215845,0,22388,134334
17733.1,0.0215776,0,22368,134212
17745.3,0.0215648,0,22360,134150
17751.3,0.0215562,0,22352,134114
17765.1,0.0215313,0,22352,134118
17772.1,0.0215159,0,22356,134128
17785.5,0.0214808,0,22372,134232
17791.8,0.0214619,0,22384,134298
17803.7,0.0214215,0,22384,134284
17815.6,0.021376,0,22372,134238
17821.7,0.0213506,0,22368,134214
17836.5,0.0212838,0,22364,134178
17843.1,0.0212512,0,22352,134102
17856.2,0.0211813,0,22340,134032
17862.8,0.021144,0,22336,133998
17876,0.0210649,0,22340,134034
17882.6,0.021023,0,22348,134078
17896.1,0.0209326,0,22356,134130
17903,0.0208839,0,22364,134178
17910.1,0.0208323,0,22364,134188
17924.6,0.0207226,0,22368,134202
17934.4,0.0206435,0,22356,134134
17943.6,0.0205671,0,22356,134136
17954.1,0.0204763,0,22348,134094
17964.6,0.0203821,0,22340,134046
17970.4,0.0203288,0,22348,134092
17982.7,0.0202127,0,22360,134164
17995,0.0200923,0,22376,134270
18000.9,0.0200327,0,22376,134276
18012.8,0.0199106,0,22384,134284
18026,0.0197712,0,22376,134262
18033.1,0.0196939,0,22368,134204
18040.2,0.0196155,0,22356,134130
18054.1,0.0194581,0,22346,134064
18061,0.0193793,0,22338,134028
18074.6,0.0192186,0,22326,133944
18081.4,0.0191367,0,22318,133900
18095.1,0.0189698,0,22302,133816
18102.2,0.0188814,0,22302,133824
18117.1,0.0186926,0,22298,133780
18125.4,0.0185864,0,22294,133754
18133.6,0.018479,0,22292,133756
18141.7,0.0183722,0,22296,133772
18156.4,0.0181755,0,22324,133956
18162.8,0.0180886,0,22348,134086
18172.7,0.0179538,0,22394,134376
18181.8,0.017827,0,22414,134488
18191.7,0.0176895,0,22394,134370
18202.5,0.0175362,0,22366,134196
18213.7,0.0173768,0,22338,134014
18225.3,0.0172095,0,22322,133922
18231.1,0.0171252,0,22314,133872
18243.3,0.0169469,0,22290,133730
18256.2,0.0167583,0,22294,133772
18262.6,0.0166634,0,22306,133826
18277.2,0.0164454,0,22318,133918
18283.1,0.0163564,0,22330,133978
18295,0.0161778,0,22338,134030
18300.9,0.016088,0,22346,134066
18315.1,0.0158727,0,22342,134048
18322.2,0.0157646,0,22338,134000
18336.4,0.0155474,0,22314,133864
18343.5,0.0154385,0,22314,133856
18355.4,0.0152547,0,22294,133760
18361.2,0.0151661,0,22282,133696
18372.7,0.0149877,0,22266,133576
18386.3,0.0147782,0,22252,133500
18393.9,0.0146603,0,22248,133480
18401.6,0.0145423,0,22246,133488
18416.4,0.0143141,0,22266,133580
18423.1,0.0142108,0,22282,133684
18435.4,0.0140203,0,22326,133958
18440.7,0.0139393,0,22342,134044
18454.4,0.0137284,0,22338,134028
18463.6,0.0135882,0,22326,133940
18474.6,0.0134192,0,22306,133846
18480.4,0.0133308,0,22306,133822
18492.1,0.0131546,0,22290,133746
18503.7,0.0129792,0,22274,133648
18516,0.0127943,0,22272,133644
18522.5,0.0126971,0,22280,133692
18535.5,0.0125037,0,22296,133770
18542.8,0.0123964,0,22292,133742
18550.1,0.012288,0,22288,133702
18562.4,0.0121098,0,22276,133648
18572.6,0.011962,0,22288,133732
18582.5,0.01182,0,22304,133844
18592.3,0.0116792,0,22312,133852
18602.2,0.0115397,0,22304,133828
18613,0.0113894,0,22320,133918
18620,0.0112917,0,22336,133996
18633.9,0.0111013,0,22352,134114
18640.7,0.0110097,0,22352,134104
18653.3,0.01084,0,22344,134052
18664.7,0.0106905,0,22328,133968
18674.9,0.0105572,0,22312,133856
18680,0.0104913,0,22304,133808
18690.6,0.0103573,0,22312,133860
18701.1,0.0102254,0,22316,133888
18714.6,0.010059,0,22312,133844
18721.4,0.00997712,0,22304,133808
18735.3,0.00981161,0,22298,133788
18742.6,0.00972555,0,22299,133787
18757.3,0.00955775,0,22290,133730
18763.5,0.00948819,0,22288,133712
18774.5,0.0093669,0,22304,133822
18785,0.00925365,0,22312,133870
18790.2,0.009198,0,22304,133842
18801.4,0.0090817,0,22296,133770
18815,0.00894458,0,22276,133652
18822.9,0.00886712,0,22276,133658
18831.1,0.00878755,0,22288,133706
18847.4,0.0086359,0,22300,133806
18855.4,0.00856377,0,22316,133902
18862.7,0.00849964,0,22322,133932
18877.2,0.00837567,0,22339,134031
18884.4,0.00831703,0,22338,134018
18890.8,0.00826545,0,22338,134000
18902.9,0.00817167,0,22340,134046
18914.4,0.00808648,0,22344,134058
18920.2,0.00804529,0,22340,134046
18931.8,0.00796488,0,22344,134066
18942.1,0.00789742,0,22328,133980
18951.9,0.00783528,0,22344,134076
18961.8,0.00777603,0,22378,134270
18972.9,0.00771312,0,22379,134281
18984.5,0.007651,0,22354,134112
18990.3,0.00762147,0,22338,134016
19004.6,0.007553,0,22316,133900
19011.9,0.00752033,0,22320,133928
19027.1,0.00745762,0,22320,133904
19033.5,0.00743341,0,22312,133862
19045.1,0.00739278,0,22304,133814
19050.9,0.00737402,0,22300,133800
19062.5,0.00733962,0,22288,133724
19074.1,0.00730938,0,22304,133842
19085.7,0.00728327,0,22328,133972
19091.5,0.00727177,0,22340,134044
19103,0.00725204,0,22340,134034
19114.7,0.00723614,0,22328,133958
19120.6,0.00722962,0,22328,133954
19133.3,0.00721918,0,22336,134000
19147,0.00721311,0,22352,134102
19154.2,0.00721216,0,22356,134126
19161.3,0.0072127,0,22360,134162
19174.5,0.00721769,0,22368,134214
19184.7,0.00722521,0,22376,134270
19194.6,0.00723533,0,22384,134282
19204.5,0.00724819,0,22376,134276
19216.1,0.00726666,0,22376,134260
19223.2,0.0072795,0,22372,134218
19230.9,0.00729511,0,22360,134162
19246.5,0.00733109,0,22336,133994
19254.2,0.00735141,0,22320,133918
19262,0.00737326,0,22312,133858
19276.2,0.00741719,0,22296,133760
19282.6,0.00743861,0,22280,133696
19295.4,0.00748431,0,22268,133604
19301.8,0.00750856,0,22264,133586
19316,0.00756573,0,22256,133532
19323.9,0.00759907,0,22248,133482
19331.8,0.00763369,0,22232,133410
19347.5,0.00770663,0,22224,133332
19355.6,0.00774623,0,22232,133390
19363.8,0.00778705,0,22240,133436
19371.9,0.00782904,0,22248,133484
19386.2,0.00790514,0,22280,133676
19392.1,0.00793785,0,22296,133780
19401.9,0.00799334,0,22316,133886
19411.1,0.00804622,0,22316,133890
19420.9,0.00810422,0,22328,133968
19432.6,0.00817428,0,22312,133876
19445,0.00825081,0,22300,133806
19451.4,0.00829103,0,22300,133788
19464.3,0.00837258,0,22320,133926
19470.4,0.00841145,0,22340,134030
19480.6,0.00847751,0,22352,134104
19490.5,0.00854215,0,22348,134078
19500.4,0.00860729,0,22336,134016
19511.4,0.00868023,0,22328,133982
19523.5,0.00876097,0,22316,133890
19536,0.00884417,0,22300,133786
19542.3,0.00888691,0,22288,133734
19555.1,0.00897231,0,22280,133674
19561.5,0.00901491,0,22276,133662
19575.4,0.00910707,0,22280,133686
19583.3,0.00915886,0,22276,133648
19591.1,0.00921036,0,22276,133650
19604.9,0.00929967,0,22296,133770
19611,0.00933854,0,22320,133918
19621.2,0.00940324,0,22356,134130
19631.1,0.009465,0,22364,134178
19641,0.00952573,0,22356,134122
19651.7,0.00959055,0,22336,134022
19663.4,0.009659,0,22336,133994
19675.7,0.00972957,0,22320,133910
19682.5,0.00976726,0,22312,133844
19696,0.00984042,0,22292,133740
19702.7,0.00987583,0,22288,133734
19716.2,0.00994413,0,22292,133746
19721.5,0.00996969,0,22300,133808
19731.8,0.0100179,0,22338,134026
19742,0.0100638,0,22352,134106
19752.5,0.0101086,0,22352,134108
19763.5,0.0101527,0,22344,134064
19774.5,0.0101938,0,22344,134048
19782.2,0.0102209,0,22356,134140
19795.8,0.010265,0,22372,134240
19802.1,0.0102838,0,22376,134266
19813.9,0.0103158,0,22372,134238
19825.4,0.0103432,0,22368,134200
19831.1,0.0103554,0,22372,134234
19842.6,0.0103769,0,22376,134256
19854.8,0.0103953,0,22372,134222
19861.2,0.0104031,0,22372,134242
19874.1,0.0104149,0,22368,134208
19881.2,0.0104191,0,22360,134162
19895.4,0.0104225,0,22340,134028
19902.8,0.0104216,0,22328,133956
19910.2,0.0104189,0,22324,133950
19925.8,0.0104068,0,22328,133986
19934.1,0.010397,0,22336,133996
19942.4,0.0103846,0,22340,134034
19953,0.0103646,0,22360,134170
19962.2,0.0103439,0,22400,134408
19971.3,0.0103201,0,22412,134476
19980.5,0.0102931,0,22398,134378
19992.1,0.0102546,0,22376,134268
