
Simulation on single triangle.

Serial: simply the serial version
Parallel1: parallel version without any splits
Parallel2: parallel version with splits and joins
Parallel3: parallel version with splits and joins running on 2 threads
Parallel4: parallel version with splits and joins running on 10 threads
Parallel5: parallel version with splits and joins running on 20 threads
Parallel6: parallel version with splits and joins running on 40 threads

INITIAL_DEPTH	MTPS_SERIAL	MTPS_PARALLEL1	MTPS_PER_CORE_PARALLEL2	MTPS_PER_CORE_PARALLEL3	MTPS_PER_CORE_PARALLEL4	MTPS_PER_CORE_PARALLEL5	MTPS_PER_CORE_PARALLEL6	TIMESTEPS	AVERAGE_TRIANGLES_SERIAL	AVERAGE_TRIANGLES_PARALLEL1	AVERAGE_TRIANGLES_PARALLEL2	AVERAGE_TRIANGLES_PARALLEL3	AVERAGE_PARTITIONS_PARALLEL4	AVERAGE_PARTITIONS_PARALLEL5	AVERAGE_PARTITIONS_PARALLEL6
10	2.76842	2.75714	2.71198	2.32158	0.888173	0.351657	0.136891	65536	15898.5	15898.5	15898.5	15898.5	22.04	22.04	22.04
11	2.73726	2.77672	2.73857	2.36152	0.941634	0.453316	0.173394	32768	29936.6	29936.7	29936.7	29936.7	30.8	30.8	30.8
12	2.82854	2.8427	2.86384	2.71968	1.61579	0.748498	0.32219	16384	57268.8	57268.8	57268.8	57268.8	36.17	36.17	36.17
13	2.76695	2.75279	2.81685	2.71499	1.76928	0.913751	0.41746	8192	111053	111053	111053	111053	57.47	57.47	57.47
14	2.77121	2.75538	2.77177	2.70651	1.86477	1.05769	0.580945	4096	217089	217089	217089	217089	63.23	63.23	63.23
15	2.62969	2.69139	2.60176	2.5611	1.85307	1.42273	0.77883	2048	427351	427351	427351	427351	107.86	107.86	107.86
16	2.61497	2.62509	2.68038	2.63533	1.79196	1.3873	1.08079	1024	844892	844892	844892	844892	117.58	117.58	117.58
17	2.45582	2.43944	2.61761	2.58445	1.84675	1.53334	1.28258	512	1.67638e+06	1.67638e+06	1.67638e+06	1.67638e+06	212.63	212.63	212.63
18	2.5035	2.47614	2.69984	2.66121	1.86607	1.66637	1.42524	256	3.33337e+06	3.33337e+06	3.33337e+06	3.33337e+06	228.22	228.22	228.22
19	2.46054	2.48415	2.65018	2.61635	1.8665	1.69106	1.5548	128	6.64005e+06	6.64005e+06	6.64005e+06	6.64005e+06	420.65	420.65	420.65
20	2.51857	2.52407	2.70438	2.67352	1.86551	1.62007	1.35929	64	1.32415e+07	1.32415e+07	1.32415e+07	1.32415e+07	471.4	471.4	471.4
