STARTING WORLD SCHEDULER SERVER
CLIENT SETUP: adding client 45425
 + TIMESTAMP: 0.191809
START TIMESTAMP: 0.191836
+++++++++++++++++++++++++++++++++++++++++++++++++++++++++++
+ Client Mapping:
  > Client 45425 (0):	

+ Core Mapping:	0 0 0 0 0 0 0 0 0 0 0 0 0 0 0 0 0 0 0 0 0 0 0 0 0 0 0 0 0 0 0 0 0 0 0 0 0 0 0 0 
+ Optimal point: 
+++++++++++++++++++++++++++++++++++++++++++++++++++++++++++
INVADE: client 45425
 + TIMESTAMP: 0.195857
RESSOURCE DISTRIBUTION CHANGED
++++++++++++++++++++++++++++++++++++++++++++++++
INVADE (45425)
  + pid: 45425
  + min_cores: 1
  + max_cores: 512
  + scalability graph: 
1, 1.36329, 1.52423, 1.62017, 1.68565, 1.73398, 1.77154, 1.80182, 1.8269, 1.84812, 1.86637, 1.88229, 1.89634, 1.90885, 1.92009, 1.93026, 1.93952, 1.94799, 1.95579, 1.963, 1.96968, 1.9759, 1.98172, 1.98716, 1.99228, 1.9971, 2.00164, 2.00594, 2.01002, 2.01389, 2.01757, 2.02108, 2.02443, 2.02763, 2.03069, 2.03362, 2.03644, 2.03914, 2.04173, 2.04423, 
Number of clients: 1

+++++++++++++++++++++++++++++++++++++++++++++++++++++++++++
+ Client Mapping:
  > Client 45425 (40):	0 1 2 3 4 5 6 7 8 9 10 11 12 13 14 15 16 17 18 19 20 21 22 23 24 25 26 27 28 29 30 31 32 33 34 35 36 37 38 39 

+ Core Mapping:	45425 45425 45425 45425 45425 45425 45425 45425 45425 45425 45425 45425 45425 45425 45425 45425 45425 45425 45425 45425 45425 45425 45425 45425 45425 45425 45425 45425 45425 45425 45425 45425 45425 45425 45425 45425 45425 45425 45425 45425 
+ Optimal point: 40 
+++++++++++++++++++++++++++++++++++++++++++++++++++++++++++
CLIENT SETUP: adding client 45426
 + TIMESTAMP: 0.196
+++++++++++++++++++++++++++++++++++++++++++++++++++++++++++
+ Client Mapping:
  > Client 45425 (40):	0 1 2 3 4 5 6 7 8 9 10 11 12 13 14 15 16 17 18 19 20 21 22 23 24 25 26 27 28 29 30 31 32 33 34 35 36 37 38 39 
  > Client 45426 (0):	

+ Core Mapping:	45425 45425 45425 45425 45425 45425 45425 45425 45425 45425 45425 45425 45425 45425 45425 45425 45425 45425 45425 45425 45425 45425 45425 45425 45425 45425 45425 45425 45425 45425 45425 45425 45425 45425 45425 45425 45425 45425 45425 45425 
+ Optimal point: 40 
+++++++++++++++++++++++++++++++++++++++++++++++++++++++++++
INVADE: client 45426
 + TIMESTAMP: 0.199886
CLIENT SETUP: adding client 45424
 + TIMESTAMP: 0.2278
+++++++++++++++++++++++++++++++++++++++++++++++++++++++++++
+ Client Mapping:
  > Client 45425 (40):	0 1 2 3 4 5 6 7 8 9 10 11 12 13 14 15 16 17 18 19 20 21 22 23 24 25 26 27 28 29 30 31 32 33 34 35 36 37 38 39 
  > Client 45426 (0):	
  > Client 45424 (0):	

+ Core Mapping:	45425 45425 45425 45425 45425 45425 45425 45425 45425 45425 45425 45425 45425 45425 45425 45425 45425 45425 45425 45425 45425 45425 45425 45425 45425 45425 45425 45425 45425 45425 45425 45425 45425 45425 45425 45425 45425 45425 45425 45425 
+ Optimal point: 20 20 
+++++++++++++++++++++++++++++++++++++++++++++++++++++++++++
INVADE: client 45424
 + TIMESTAMP: 0.231841
CLIENT SETUP: adding client 45427
 + TIMESTAMP: 0.267872
+++++++++++++++++++++++++++++++++++++++++++++++++++++++++++
+ Client Mapping:
  > Client 45425 (40):	0 1 2 3 4 5 6 7 8 9 10 11 12 13 14 15 16 17 18 19 20 21 22 23 24 25 26 27 28 29 30 31 32 33 34 35 36 37 38 39 
  > Client 45426 (0):	
  > Client 45424 (0):	
  > Client 45427 (0):	

+ Core Mapping:	45425 45425 45425 45425 45425 45425 45425 45425 45425 45425 45425 45425 45425 45425 45425 45425 45425 45425 45425 45425 45425 45425 45425 45425 45425 45425 45425 45425 45425 45425 45425 45425 45425 45425 45425 45425 45425 45425 45425 45425 
+ Optimal point: 14 13 13 
+++++++++++++++++++++++++++++++++++++++++++++++++++++++++++
INVADE: client 45427
 + TIMESTAMP: 0.275776
++++++++++++++++++++++++++++++++++++++++++++++++
 + TIMESTAMP: 0.28779
REINVADE (45425)
  + pid: 45425
  + min_cores: 1
  + max_cores: 512
  + scalability graph: 
1, 1.36329, 1.52423, 1.62017, 1.68565, 1.73398, 1.77154, 1.80182, 1.8269, 1.84812, 1.86637, 1.88229, 1.89634, 1.90885, 1.92009, 1.93026, 1.93952, 1.94799, 1.95579, 1.963, 1.96968, 1.9759, 1.98172, 1.98716, 1.99228, 1.9971, 2.00164, 2.00594, 2.01002, 2.01389, 2.01757, 2.02108, 2.02443, 2.02763, 2.03069, 2.03362, 2.03644, 2.03914, 2.04173, 2.04423, 
Number of clients: 4

+++++++++++++++++++++++++++++++++++++++++++++++++++++++++++
+ Client Mapping:
  > Client 45425 (10):	30 31 32 33 34 35 36 37 38 39 
  > Client 45426 (0):	
  > Client 45424 (0):	
  > Client 45427 (0):	

+ Core Mapping:	0 0 0 0 0 0 0 0 0 0 0 0 0 0 0 0 0 0 0 0 0 0 0 0 0 0 0 0 0 0 45425 45425 45425 45425 45425 45425 45425 45425 45425 45425 
+ Optimal point: 10 10 10 10 
+++++++++++++++++++++++++++++++++++++++++++++++++++++++++++
++++++++++++++++++++++++++++++++++++++++++++++++
 + TIMESTAMP: 0.309653
REINVADE (45427)
  + pid: 45427
  + min_cores: 1
  + max_cores: 512
  + scalability graph: 
1, 1.36329, 1.52423, 1.62017, 1.68565, 1.73398, 1.77154, 1.80182, 1.8269, 1.84812, 1.86637, 1.88229, 1.89634, 1.90885, 1.92009, 1.93026, 1.93952, 1.94799, 1.95579, 1.963, 1.96968, 1.9759, 1.98172, 1.98716, 1.99228, 1.9971, 2.00164, 2.00594, 2.01002, 2.01389, 2.01757, 2.02108, 2.02443, 2.02763, 2.03069, 2.03362, 2.03644, 2.03914, 2.04173, 2.04423, 
Number of clients: 4

+++++++++++++++++++++++++++++++++++++++++++++++++++++++++++
+ Client Mapping:
  > Client 45425 (10):	30 31 32 33 34 35 36 37 38 39 
  > Client 45426 (0):	
  > Client 45424 (0):	
  > Client 45427 (10):	0 1 2 3 4 5 6 7 8 9 

+ Core Mapping:	45427 45427 45427 45427 45427 45427 45427 45427 45427 45427 0 0 0 0 0 0 0 0 0 0 0 0 0 0 0 0 0 0 0 0 45425 45425 45425 45425 45425 45425 45425 45425 45425 45425 
+ Optimal point: 10 10 10 10 
+++++++++++++++++++++++++++++++++++++++++++++++++++++++++++
++++++++++++++++++++++++++++++++++++++++++++++++
 + TIMESTAMP: 0.336336
REINVADE (45426)
  + pid: 45426
  + min_cores: 1
  + max_cores: 512
  + scalability graph: 
1, 1.36329, 1.52423, 1.62017, 1.68565, 1.73398, 1.77154, 1.80182, 1.8269, 1.84812, 1.86637, 1.88229, 1.89634, 1.90885, 1.92009, 1.93026, 1.93952, 1.94799, 1.95579, 1.963, 1.96968, 1.9759, 1.98172, 1.98716, 1.99228, 1.9971, 2.00164, 2.00594, 2.01002, 2.01389, 2.01757, 2.02108, 2.02443, 2.02763, 2.03069, 2.03362, 2.03644, 2.03914, 2.04173, 2.04423, 
Number of clients: 4

+++++++++++++++++++++++++++++++++++++++++++++++++++++++++++
+ Client Mapping:
  > Client 45425 (10):	30 31 32 33 34 35 36 37 38 39 
  > Client 45426 (10):	10 11 12 13 14 15 16 17 18 19 
  > Client 45424 (0):	
  > Client 45427 (10):	0 1 2 3 4 5 6 7 8 9 

+ Core Mapping:	45427 45427 45427 45427 45427 45427 45427 45427 45427 45427 45426 45426 45426 45426 45426 45426 45426 45426 45426 45426 0 0 0 0 0 0 0 0 0 0 45425 45425 45425 45425 45425 45425 45425 45425 45425 45425 
+ Optimal point: 10 10 10 10 
+++++++++++++++++++++++++++++++++++++++++++++++++++++++++++
++++++++++++++++++++++++++++++++++++++++++++++++
 + TIMESTAMP: 0.362584
REINVADE (45424)
  + pid: 45424
  + min_cores: 1
  + max_cores: 512
  + scalability graph: 
1, 1.36329, 1.52423, 1.62017, 1.68565, 1.73398, 1.77154, 1.80182, 1.8269, 1.84812, 1.86637, 1.88229, 1.89634, 1.90885, 1.92009, 1.93026, 1.93952, 1.94799, 1.95579, 1.963, 1.96968, 1.9759, 1.98172, 1.98716, 1.99228, 1.9971, 2.00164, 2.00594, 2.01002, 2.01389, 2.01757, 2.02108, 2.02443, 2.02763, 2.03069, 2.03362, 2.03644, 2.03914, 2.04173, 2.04423, 
Number of clients: 4

+++++++++++++++++++++++++++++++++++++++++++++++++++++++++++
+ Client Mapping:
  > Client 45425 (10):	30 31 32 33 34 35 36 37 38 39 
  > Client 45426 (10):	10 11 12 13 14 15 16 17 18 19 
  > Client 45424 (10):	20 21 22 23 24 25 26 27 28 29 
  > Client 45427 (10):	0 1 2 3 4 5 6 7 8 9 

+ Core Mapping:	45427 45427 45427 45427 45427 45427 45427 45427 45427 45427 45426 45426 45426 45426 45426 45426 45426 45426 45426 45426 45424 45424 45424 45424 45424 45424 45424 45424 45424 45424 45425 45425 45425 45425 45425 45425 45425 45425 45425 45425 
+ Optimal point: 10 10 10 10 
+++++++++++++++++++++++++++++++++++++++++++++++++++++++++++
CLIENT SHUTDOWN: client 45425
 + TIMESTAMP: 22.2575
+++++++++++++++++++++++++++++++++++++++++++++++++++++++++++
+ Client Mapping:
  > Client 45425 (0):	
  > Client 45426 (10):	10 11 12 13 14 15 16 17 18 19 
  > Client 45424 (10):	20 21 22 23 24 25 26 27 28 29 
  > Client 45427 (10):	0 1 2 3 4 5 6 7 8 9 

+ Core Mapping:	45427 45427 45427 45427 45427 45427 45427 45427 45427 45427 45426 45426 45426 45426 45426 45426 45426 45426 45426 45426 45424 45424 45424 45424 45424 45424 45424 45424 45424 45424 0 0 0 0 0 0 0 0 0 0 
+ Optimal point: 10 10 10 10 
+++++++++++++++++++++++++++++++++++++++++++++++++++++++++++
client (45425) shutdown hint: 437.984
sum_client_shutdown_hint: 437.984
sum_client_shutdown_hint_div_time: 0
++++++++++++++++++++++++++++++++++++++++++++++++
 + TIMESTAMP: 22.258
REINVADE (45424)
  + pid: 45424
  + min_cores: 1
  + max_cores: 512
  + scalability graph: 
1, 1.36329, 1.52423, 1.62017, 1.68565, 1.73398, 1.77154, 1.80182, 1.8269, 1.84812, 1.86637, 1.88229, 1.89634, 1.90885, 1.92009, 1.93026, 1.93952, 1.94799, 1.95579, 1.963, 1.96968, 1.9759, 1.98172, 1.98716, 1.99228, 1.9971, 2.00164, 2.00594, 2.01002, 2.01389, 2.01757, 2.02108, 2.02443, 2.02763, 2.03069, 2.03362, 2.03644, 2.03914, 2.04173, 2.04423, 
Number of clients: 3

+++++++++++++++++++++++++++++++++++++++++++++++++++++++++++
+ Client Mapping:
  > Client 45426 (10):	10 11 12 13 14 15 16 17 18 19 
  > Client 45424 (13):	20 21 22 23 24 25 26 27 28 29 30 31 32 
  > Client 45427 (10):	0 1 2 3 4 5 6 7 8 9 

+ Core Mapping:	45427 45427 45427 45427 45427 45427 45427 45427 45427 45427 45426 45426 45426 45426 45426 45426 45426 45426 45426 45426 45424 45424 45424 45424 45424 45424 45424 45424 45424 45424 45424 45424 45424 0 0 0 0 0 0 0 
+ Optimal point: 14 13 13 
+++++++++++++++++++++++++++++++++++++++++++++++++++++++++++
++++++++++++++++++++++++++++++++++++++++++++++++
 + TIMESTAMP: 22.2586
REINVADE (45426)
  + pid: 45426
  + min_cores: 1
  + max_cores: 512
  + scalability graph: 
1, 1.36329, 1.52423, 1.62017, 1.68565, 1.73398, 1.77154, 1.80182, 1.8269, 1.84812, 1.86637, 1.88229, 1.89634, 1.90885, 1.92009, 1.93026, 1.93952, 1.94799, 1.95579, 1.963, 1.96968, 1.9759, 1.98172, 1.98716, 1.99228, 1.9971, 2.00164, 2.00594, 2.01002, 2.01389, 2.01757, 2.02108, 2.02443, 2.02763, 2.03069, 2.03362, 2.03644, 2.03914, 2.04173, 2.04423, 
Number of clients: 3

+++++++++++++++++++++++++++++++++++++++++++++++++++++++++++
+ Client Mapping:
  > Client 45426 (14):	10 11 12 13 14 15 16 17 18 19 33 34 35 36 
  > Client 45424 (13):	20 21 22 23 24 25 26 27 28 29 30 31 32 
  > Client 45427 (10):	0 1 2 3 4 5 6 7 8 9 

+ Core Mapping:	45427 45427 45427 45427 45427 45427 45427 45427 45427 45427 45426 45426 45426 45426 45426 45426 45426 45426 45426 45426 45424 45424 45424 45424 45424 45424 45424 45424 45424 45424 45424 45424 45424 45426 45426 45426 45426 0 0 0 
+ Optimal point: 14 13 13 
+++++++++++++++++++++++++++++++++++++++++++++++++++++++++++
++++++++++++++++++++++++++++++++++++++++++++++++
 + TIMESTAMP: 22.2593
REINVADE (45427)
  + pid: 45427
  + min_cores: 1
  + max_cores: 512
  + scalability graph: 
1, 1.36329, 1.52423, 1.62017, 1.68565, 1.73398, 1.77154, 1.80182, 1.8269, 1.84812, 1.86637, 1.88229, 1.89634, 1.90885, 1.92009, 1.93026, 1.93952, 1.94799, 1.95579, 1.963, 1.96968, 1.9759, 1.98172, 1.98716, 1.99228, 1.9971, 2.00164, 2.00594, 2.01002, 2.01389, 2.01757, 2.02108, 2.02443, 2.02763, 2.03069, 2.03362, 2.03644, 2.03914, 2.04173, 2.04423, 
Number of clients: 3

+++++++++++++++++++++++++++++++++++++++++++++++++++++++++++
+ Client Mapping:
  > Client 45426 (14):	10 11 12 13 14 15 16 17 18 19 33 34 35 36 
  > Client 45424 (13):	20 21 22 23 24 25 26 27 28 29 30 31 32 
  > Client 45427 (13):	0 1 2 3 4 5 6 7 8 9 37 38 39 

+ Core Mapping:	45427 45427 45427 45427 45427 45427 45427 45427 45427 45427 45426 45426 45426 45426 45426 45426 45426 45426 45426 45426 45424 45424 45424 45424 45424 45424 45424 45424 45424 45424 45424 45424 45424 45426 45426 45426 45426 45427 45427 45427 
+ Optimal point: 14 13 13 
+++++++++++++++++++++++++++++++++++++++++++++++++++++++++++
CLIENT SHUTDOWN: client 45426
 + TIMESTAMP: 22.8024
+++++++++++++++++++++++++++++++++++++++++++++++++++++++++++
+ Client Mapping:
  > Client 45426 (0):	
  > Client 45424 (13):	20 21 22 23 24 25 26 27 28 29 30 31 32 
  > Client 45427 (13):	0 1 2 3 4 5 6 7 8 9 37 38 39 

+ Core Mapping:	45427 45427 45427 45427 45427 45427 45427 45427 45427 45427 0 0 0 0 0 0 0 0 0 0 45424 45424 45424 45424 45424 45424 45424 45424 45424 45424 45424 45424 45424 0 0 0 0 45427 45427 45427 
+ Optimal point: 14 13 13 
+++++++++++++++++++++++++++++++++++++++++++++++++++++++++++
client (45426) shutdown hint: 437.984
sum_client_shutdown_hint: 875.968
sum_client_shutdown_hint_div_time: 0
++++++++++++++++++++++++++++++++++++++++++++++++
 + TIMESTAMP: 22.8032
REINVADE (45427)
  + pid: 45427
  + min_cores: 1
  + max_cores: 512
  + scalability graph: 
1, 1.36329, 1.52423, 1.62017, 1.68565, 1.73398, 1.77154, 1.80182, 1.8269, 1.84812, 1.86637, 1.88229, 1.89634, 1.90885, 1.92009, 1.93026, 1.93952, 1.94799, 1.95579, 1.963, 1.96968, 1.9759, 1.98172, 1.98716, 1.99228, 1.9971, 2.00164, 2.00594, 2.01002, 2.01389, 2.01757, 2.02108, 2.02443, 2.02763, 2.03069, 2.03362, 2.03644, 2.03914, 2.04173, 2.04423, 
Number of clients: 2

+++++++++++++++++++++++++++++++++++++++++++++++++++++++++++
+ Client Mapping:
  > Client 45424 (13):	20 21 22 23 24 25 26 27 28 29 30 31 32 
  > Client 45427 (20):	0 1 2 3 4 5 6 7 8 9 37 38 39 10 11 12 13 14 15 16 

+ Core Mapping:	45427 45427 45427 45427 45427 45427 45427 45427 45427 45427 45427 45427 45427 45427 45427 45427 45427 0 0 0 45424 45424 45424 45424 45424 45424 45424 45424 45424 45424 45424 45424 45424 0 0 0 0 45427 45427 45427 
+ Optimal point: 20 20 
+++++++++++++++++++++++++++++++++++++++++++++++++++++++++++
++++++++++++++++++++++++++++++++++++++++++++++++
 + TIMESTAMP: 22.8035
REINVADE (45424)
  + pid: 45424
  + min_cores: 1
  + max_cores: 512
  + scalability graph: 
1, 1.36329, 1.52423, 1.62017, 1.68565, 1.73398, 1.77154, 1.80182, 1.8269, 1.84812, 1.86637, 1.88229, 1.89634, 1.90885, 1.92009, 1.93026, 1.93952, 1.94799, 1.95579, 1.963, 1.96968, 1.9759, 1.98172, 1.98716, 1.99228, 1.9971, 2.00164, 2.00594, 2.01002, 2.01389, 2.01757, 2.02108, 2.02443, 2.02763, 2.03069, 2.03362, 2.03644, 2.03914, 2.04173, 2.04423, 
Number of clients: 2

+++++++++++++++++++++++++++++++++++++++++++++++++++++++++++
+ Client Mapping:
  > Client 45424 (20):	20 21 22 23 24 25 26 27 28 29 30 31 32 17 18 19 33 34 35 36 
  > Client 45427 (20):	0 1 2 3 4 5 6 7 8 9 37 38 39 10 11 12 13 14 15 16 

+ Core Mapping:	45427 45427 45427 45427 45427 45427 45427 45427 45427 45427 45427 45427 45427 45427 45427 45427 45427 45424 45424 45424 45424 45424 45424 45424 45424 45424 45424 45424 45424 45424 45424 45424 45424 45424 45424 45424 45424 45427 45427 45427 
+ Optimal point: 20 20 
+++++++++++++++++++++++++++++++++++++++++++++++++++++++++++
CLIENT SHUTDOWN: client 45424
 + TIMESTAMP: 24.0248
+++++++++++++++++++++++++++++++++++++++++++++++++++++++++++
+ Client Mapping:
  > Client 45424 (0):	
  > Client 45427 (20):	0 1 2 3 4 5 6 7 8 9 37 38 39 10 11 12 13 14 15 16 

+ Core Mapping:	45427 45427 45427 45427 45427 45427 45427 45427 45427 45427 45427 45427 45427 45427 45427 45427 45427 0 0 0 0 0 0 0 0 0 0 0 0 0 0 0 0 0 0 0 0 45427 45427 45427 
+ Optimal point: 20 20 
+++++++++++++++++++++++++++++++++++++++++++++++++++++++++++
client (45424) shutdown hint: 437.984
sum_client_shutdown_hint: 1313.95
sum_client_shutdown_hint_div_time: 0
++++++++++++++++++++++++++++++++++++++++++++++++
 + TIMESTAMP: 24.0253
REINVADE (45427)
  + pid: 45427
  + min_cores: 1
  + max_cores: 512
  + scalability graph: 
1, 1.36329, 1.52423, 1.62017, 1.68565, 1.73398, 1.77154, 1.80182, 1.8269, 1.84812, 1.86637, 1.88229, 1.89634, 1.90885, 1.92009, 1.93026, 1.93952, 1.94799, 1.95579, 1.963, 1.96968, 1.9759, 1.98172, 1.98716, 1.99228, 1.9971, 2.00164, 2.00594, 2.01002, 2.01389, 2.01757, 2.02108, 2.02443, 2.02763, 2.03069, 2.03362, 2.03644, 2.03914, 2.04173, 2.04423, 
Number of clients: 1

+++++++++++++++++++++++++++++++++++++++++++++++++++++++++++
+ Client Mapping:
  > Client 45427 (40):	0 1 2 3 4 5 6 7 8 9 37 38 39 10 11 12 13 14 15 16 17 18 19 20 21 22 23 24 25 26 27 28 29 30 31 32 33 34 35 36 

+ Core Mapping:	45427 45427 45427 45427 45427 45427 45427 45427 45427 45427 45427 45427 45427 45427 45427 45427 45427 45427 45427 45427 45427 45427 45427 45427 45427 45427 45427 45427 45427 45427 45427 45427 45427 45427 45427 45427 45427 45427 45427 45427 
+ Optimal point: 40 
+++++++++++++++++++++++++++++++++++++++++++++++++++++++++++
CLIENT SHUTDOWN: client 45427
 + TIMESTAMP: 24.944
+++++++++++++++++++++++++++++++++++++++++++++++++++++++++++
+ Client Mapping:
  > Client 45427 (0):	

+ Core Mapping:	0 0 0 0 0 0 0 0 0 0 0 0 0 0 0 0 0 0 0 0 0 0 0 0 0 0 0 0 0 0 0 0 0 0 0 0 0 0 0 0 
+ Optimal point: 40 
+++++++++++++++++++++++++++++++++++++++++++++++++++++++++++
client (45427) shutdown hint: 437.984
sum_client_shutdown_hint: 1751.94
sum_client_shutdown_hint_div_time: 0
END TIMESTAMP: 24.944
OVERALL TIME: 24.7522
 + sum_client_shutdown_hint: 1751.94
 + sum_client_shutdown_hint/time: 70.779
sum_client_shutdown_hint: 1751.94
sum_client_shutdown_hint_div_time: 70.779
