STARTING WORLD SCHEDULER SERVER
CLIENT SETUP: adding client 46705
 + TIMESTAMP: 0.218721
START TIMESTAMP: 0.218763
+++++++++++++++++++++++++++++++++++++++++++++++++++++++++++
+ Client Mapping:
  > Client 46705 (0):	

+ Core Mapping:	0 0 0 0 0 0 0 0 0 0 0 0 0 0 0 0 0 0 0 0 0 0 0 0 0 0 0 0 0 0 0 0 0 0 0 0 0 0 0 0 
+ Optimal point: 
+++++++++++++++++++++++++++++++++++++++++++++++++++++++++++
CLIENT SETUP: adding client 46703
 + TIMESTAMP: 0.218819
+++++++++++++++++++++++++++++++++++++++++++++++++++++++++++
+ Client Mapping:
  > Client 46705 (0):	
  > Client 46703 (0):	

+ Core Mapping:	0 0 0 0 0 0 0 0 0 0 0 0 0 0 0 0 0 0 0 0 0 0 0 0 0 0 0 0 0 0 0 0 0 0 0 0 0 0 0 0 
+ Optimal point: 
+++++++++++++++++++++++++++++++++++++++++++++++++++++++++++
INVADE: client 46705
 + TIMESTAMP: 0.218866
RESSOURCE DISTRIBUTION CHANGED
++++++++++++++++++++++++++++++++++++++++++++++++
INVADE (46705)
  + pid: 46705
  + min_cores: 1
  + max_cores: 512
  + scalability graph: 
1, 1.36329, 1.52423, 1.62017, 1.68565, 1.73398, 1.77154, 1.80182, 1.8269, 1.84812, 1.86637, 1.88229, 1.89634, 1.90885, 1.92009, 1.93026, 1.93952, 1.94799, 1.95579, 1.963, 1.96968, 1.9759, 1.98172, 1.98716, 1.99228, 1.9971, 2.00164, 2.00594, 2.01002, 2.01389, 2.01757, 2.02108, 2.02443, 2.02763, 2.03069, 2.03362, 2.03644, 2.03914, 2.04173, 2.04423, 
Number of clients: 2

+++++++++++++++++++++++++++++++++++++++++++++++++++++++++++
+ Client Mapping:
  > Client 46705 (1):	0 
  > Client 46703 (0):	

+ Core Mapping:	46705 0 0 0 0 0 0 0 0 0 0 0 0 0 0 0 0 0 0 0 0 0 0 0 0 0 0 0 0 0 0 0 0 0 0 0 0 0 0 0 
+ Optimal point: 1 39 
+++++++++++++++++++++++++++++++++++++++++++++++++++++++++++
INVADE: client 46703
 + TIMESTAMP: 0.242621
RESSOURCE DISTRIBUTION CHANGED
++++++++++++++++++++++++++++++++++++++++++++++++
INVADE (46703)
  + pid: 46703
  + min_cores: 1
  + max_cores: 512
  + scalability graph: 
1, 1.36329, 1.52423, 1.62017, 1.68565, 1.73398, 1.77154, 1.80182, 1.8269, 1.84812, 1.86637, 1.88229, 1.89634, 1.90885, 1.92009, 1.93026, 1.93952, 1.94799, 1.95579, 1.963, 1.96968, 1.9759, 1.98172, 1.98716, 1.99228, 1.9971, 2.00164, 2.00594, 2.01002, 2.01389, 2.01757, 2.02108, 2.02443, 2.02763, 2.03069, 2.03362, 2.03644, 2.03914, 2.04173, 2.04423, 
Number of clients: 2

+++++++++++++++++++++++++++++++++++++++++++++++++++++++++++
+ Client Mapping:
  > Client 46705 (1):	0 
  > Client 46703 (20):	1 2 3 4 5 6 7 8 9 10 11 12 13 14 15 16 17 18 19 20 

+ Core Mapping:	46705 46703 46703 46703 46703 46703 46703 46703 46703 46703 46703 46703 46703 46703 46703 46703 46703 46703 46703 46703 46703 0 0 0 0 0 0 0 0 0 0 0 0 0 0 0 0 0 0 0 
+ Optimal point: 20 20 
+++++++++++++++++++++++++++++++++++++++++++++++++++++++++++
++++++++++++++++++++++++++++++++++++++++++++++++
 + TIMESTAMP: 0.250437
REINVADE (46705)
  + pid: 46705
  + min_cores: 1
  + max_cores: 512
  + scalability graph: 
1, 1.36329, 1.52423, 1.62017, 1.68565, 1.73398, 1.77154, 1.80182, 1.8269, 1.84812, 1.86637, 1.88229, 1.89634, 1.90885, 1.92009, 1.93026, 1.93952, 1.94799, 1.95579, 1.963, 1.96968, 1.9759, 1.98172, 1.98716, 1.99228, 1.9971, 2.00164, 2.00594, 2.01002, 2.01389, 2.01757, 2.02108, 2.02443, 2.02763, 2.03069, 2.03362, 2.03644, 2.03914, 2.04173, 2.04423, 
Number of clients: 2

+++++++++++++++++++++++++++++++++++++++++++++++++++++++++++
+ Client Mapping:
  > Client 46705 (20):	0 21 22 23 24 25 26 27 28 29 30 31 32 33 34 35 36 37 38 39 
  > Client 46703 (20):	1 2 3 4 5 6 7 8 9 10 11 12 13 14 15 16 17 18 19 20 

+ Core Mapping:	46705 46703 46703 46703 46703 46703 46703 46703 46703 46703 46703 46703 46703 46703 46703 46703 46703 46703 46703 46703 46703 46705 46705 46705 46705 46705 46705 46705 46705 46705 46705 46705 46705 46705 46705 46705 46705 46705 46705 46705 
+ Optimal point: 20 20 
+++++++++++++++++++++++++++++++++++++++++++++++++++++++++++
CLIENT SETUP: adding client 46708
 + TIMESTAMP: 0.274585
+++++++++++++++++++++++++++++++++++++++++++++++++++++++++++
+ Client Mapping:
  > Client 46705 (20):	0 21 22 23 24 25 26 27 28 29 30 31 32 33 34 35 36 37 38 39 
  > Client 46703 (20):	1 2 3 4 5 6 7 8 9 10 11 12 13 14 15 16 17 18 19 20 
  > Client 46708 (0):	

+ Core Mapping:	46705 46703 46703 46703 46703 46703 46703 46703 46703 46703 46703 46703 46703 46703 46703 46703 46703 46703 46703 46703 46703 46705 46705 46705 46705 46705 46705 46705 46705 46705 46705 46705 46705 46705 46705 46705 46705 46705 46705 46705 
+ Optimal point: 20 20 
+++++++++++++++++++++++++++++++++++++++++++++++++++++++++++
INVADE: client 46708
 + TIMESTAMP: 0.274672
CLIENT SETUP: adding client 46706
 + TIMESTAMP: 0.28839
+++++++++++++++++++++++++++++++++++++++++++++++++++++++++++
+ Client Mapping:
  > Client 46705 (20):	0 21 22 23 24 25 26 27 28 29 30 31 32 33 34 35 36 37 38 39 
  > Client 46703 (20):	1 2 3 4 5 6 7 8 9 10 11 12 13 14 15 16 17 18 19 20 
  > Client 46708 (0):	
  > Client 46706 (0):	

+ Core Mapping:	46705 46703 46703 46703 46703 46703 46703 46703 46703 46703 46703 46703 46703 46703 46703 46703 46703 46703 46703 46703 46703 46705 46705 46705 46705 46705 46705 46705 46705 46705 46705 46705 46705 46705 46705 46705 46705 46705 46705 46705 
+ Optimal point: 14 13 13 
+++++++++++++++++++++++++++++++++++++++++++++++++++++++++++
CLIENT SETUP: adding client 46707
 + TIMESTAMP: 0.288458
+++++++++++++++++++++++++++++++++++++++++++++++++++++++++++
+ Client Mapping:
  > Client 46705 (20):	0 21 22 23 24 25 26 27 28 29 30 31 32 33 34 35 36 37 38 39 
  > Client 46703 (20):	1 2 3 4 5 6 7 8 9 10 11 12 13 14 15 16 17 18 19 20 
  > Client 46708 (0):	
  > Client 46706 (0):	
  > Client 46707 (0):	

+ Core Mapping:	46705 46703 46703 46703 46703 46703 46703 46703 46703 46703 46703 46703 46703 46703 46703 46703 46703 46703 46703 46703 46703 46705 46705 46705 46705 46705 46705 46705 46705 46705 46705 46705 46705 46705 46705 46705 46705 46705 46705 46705 
+ Optimal point: 14 13 13 
+++++++++++++++++++++++++++++++++++++++++++++++++++++++++++
INVADE: client 46707
 + TIMESTAMP: 0.288873
CLIENT SETUP: adding client 46702
 + TIMESTAMP: 0.288905
+++++++++++++++++++++++++++++++++++++++++++++++++++++++++++
+ Client Mapping:
  > Client 46705 (20):	0 21 22 23 24 25 26 27 28 29 30 31 32 33 34 35 36 37 38 39 
  > Client 46703 (20):	1 2 3 4 5 6 7 8 9 10 11 12 13 14 15 16 17 18 19 20 
  > Client 46708 (0):	
  > Client 46706 (0):	
  > Client 46707 (0):	
  > Client 46702 (0):	

+ Core Mapping:	46705 46703 46703 46703 46703 46703 46703 46703 46703 46703 46703 46703 46703 46703 46703 46703 46703 46703 46703 46703 46703 46705 46705 46705 46705 46705 46705 46705 46705 46705 46705 46705 46705 46705 46705 46705 46705 46705 46705 46705 
+ Optimal point: 1 1 1 36 1 
+++++++++++++++++++++++++++++++++++++++++++++++++++++++++++
INVADE: client 46706
 + TIMESTAMP: 0.289217
INVADE: client 46702
 + TIMESTAMP: 0.290641
++++++++++++++++++++++++++++++++++++++++++++++++
 + TIMESTAMP: 0.296148
REINVADE (46703)
  + pid: 46703
  + min_cores: 1
  + max_cores: 512
  + scalability graph: 
1, 1.36329, 1.52423, 1.62017, 1.68565, 1.73398, 1.77154, 1.80182, 1.8269, 1.84812, 1.86637, 1.88229, 1.89634, 1.90885, 1.92009, 1.93026, 1.93952, 1.94799, 1.95579, 1.963, 1.96968, 1.9759, 1.98172, 1.98716, 1.99228, 1.9971, 2.00164, 2.00594, 2.01002, 2.01389, 2.01757, 2.02108, 2.02443, 2.02763, 2.03069, 2.03362, 2.03644, 2.03914, 2.04173, 2.04423, 
Number of clients: 6

+++++++++++++++++++++++++++++++++++++++++++++++++++++++++++
+ Client Mapping:
  > Client 46705 (20):	0 21 22 23 24 25 26 27 28 29 30 31 32 33 34 35 36 37 38 39 
  > Client 46703 (7):	14 15 16 17 18 19 20 
  > Client 46708 (0):	
  > Client 46706 (0):	
  > Client 46707 (0):	
  > Client 46702 (0):	

+ Core Mapping:	46705 0 0 0 0 0 0 0 0 0 0 0 0 0 46703 46703 46703 46703 46703 46703 46703 46705 46705 46705 46705 46705 46705 46705 46705 46705 46705 46705 46705 46705 46705 46705 46705 46705 46705 46705 
+ Optimal point: 7 7 7 7 6 6 
+++++++++++++++++++++++++++++++++++++++++++++++++++++++++++
CLIENT SETUP: adding client 46704
 + TIMESTAMP: 0.29988
+++++++++++++++++++++++++++++++++++++++++++++++++++++++++++
+ Client Mapping:
  > Client 46705 (20):	0 21 22 23 24 25 26 27 28 29 30 31 32 33 34 35 36 37 38 39 
  > Client 46703 (7):	14 15 16 17 18 19 20 
  > Client 46708 (0):	
  > Client 46706 (0):	
  > Client 46707 (0):	
  > Client 46702 (0):	
  > Client 46704 (0):	

+ Core Mapping:	46705 0 0 0 0 0 0 0 0 0 0 0 0 0 46703 46703 46703 46703 46703 46703 46703 46705 46705 46705 46705 46705 46705 46705 46705 46705 46705 46705 46705 46705 46705 46705 46705 46705 46705 46705 
+ Optimal point: 7 7 7 7 6 6 
+++++++++++++++++++++++++++++++++++++++++++++++++++++++++++
INVADE: client 46704
 + TIMESTAMP: 0.299995
RESSOURCE DISTRIBUTION CHANGED
++++++++++++++++++++++++++++++++++++++++++++++++
INVADE (46704)
  + pid: 46704
  + min_cores: 1
  + max_cores: 512
  + scalability graph: 
1, 1.36329, 1.52423, 1.62017, 1.68565, 1.73398, 1.77154, 1.80182, 1.8269, 1.84812, 1.86637, 1.88229, 1.89634, 1.90885, 1.92009, 1.93026, 1.93952, 1.94799, 1.95579, 1.963, 1.96968, 1.9759, 1.98172, 1.98716, 1.99228, 1.9971, 2.00164, 2.00594, 2.01002, 2.01389, 2.01757, 2.02108, 2.02443, 2.02763, 2.03069, 2.03362, 2.03644, 2.03914, 2.04173, 2.04423, 
Number of clients: 7

+++++++++++++++++++++++++++++++++++++++++++++++++++++++++++
+ Client Mapping:
  > Client 46705 (20):	0 21 22 23 24 25 26 27 28 29 30 31 32 33 34 35 36 37 38 39 
  > Client 46703 (7):	14 15 16 17 18 19 20 
  > Client 46708 (0):	
  > Client 46706 (0):	
  > Client 46707 (0):	
  > Client 46702 (0):	
  > Client 46704 (5):	1 2 3 4 5 

+ Core Mapping:	46705 46704 46704 46704 46704 46704 0 0 0 0 0 0 0 0 46703 46703 46703 46703 46703 46703 46703 46705 46705 46705 46705 46705 46705 46705 46705 46705 46705 46705 46705 46705 46705 46705 46705 46705 46705 46705 
+ Optimal point: 6 6 6 6 6 5 5 
+++++++++++++++++++++++++++++++++++++++++++++++++++++++++++
++++++++++++++++++++++++++++++++++++++++++++++++
 + TIMESTAMP: 0.307926
REINVADE (46708)
  + pid: 46708
  + min_cores: 1
  + max_cores: 512
  + scalability graph: 
1, 1.36329, 1.52423, 1.62017, 1.68565, 1.73398, 1.77154, 1.80182, 1.8269, 1.84812, 1.86637, 1.88229, 1.89634, 1.90885, 1.92009, 1.93026, 1.93952, 1.94799, 1.95579, 1.963, 1.96968, 1.9759, 1.98172, 1.98716, 1.99228, 1.9971, 2.00164, 2.00594, 2.01002, 2.01389, 2.01757, 2.02108, 2.02443, 2.02763, 2.03069, 2.03362, 2.03644, 2.03914, 2.04173, 2.04423, 
Number of clients: 7

+++++++++++++++++++++++++++++++++++++++++++++++++++++++++++
+ Client Mapping:
  > Client 46705 (20):	0 21 22 23 24 25 26 27 28 29 30 31 32 33 34 35 36 37 38 39 
  > Client 46703 (7):	14 15 16 17 18 19 20 
  > Client 46708 (6):	6 7 8 9 10 11 
  > Client 46706 (0):	
  > Client 46707 (0):	
  > Client 46702 (0):	
  > Client 46704 (5):	1 2 3 4 5 

+ Core Mapping:	46705 46704 46704 46704 46704 46704 46708 46708 46708 46708 46708 46708 0 0 46703 46703 46703 46703 46703 46703 46703 46705 46705 46705 46705 46705 46705 46705 46705 46705 46705 46705 46705 46705 46705 46705 46705 46705 46705 46705 
+ Optimal point: 6 6 6 6 6 5 5 
+++++++++++++++++++++++++++++++++++++++++++++++++++++++++++
++++++++++++++++++++++++++++++++++++++++++++++++
 + TIMESTAMP: 0.31975
REINVADE (46703)
  + pid: 46703
  + min_cores: 1
  + max_cores: 512
  + scalability graph: 
1, 1.36329, 1.52423, 1.62017, 1.68565, 1.73398, 1.77154, 1.80182, 1.8269, 1.84812, 1.86637, 1.88229, 1.89634, 1.90885, 1.92009, 1.93026, 1.93952, 1.94799, 1.95579, 1.963, 1.96968, 1.9759, 1.98172, 1.98716, 1.99228, 1.9971, 2.00164, 2.00594, 2.01002, 2.01389, 2.01757, 2.02108, 2.02443, 2.02763, 2.03069, 2.03362, 2.03644, 2.03914, 2.04173, 2.04423, 
Number of clients: 7

+++++++++++++++++++++++++++++++++++++++++++++++++++++++++++
+ Client Mapping:
  > Client 46705 (20):	0 21 22 23 24 25 26 27 28 29 30 31 32 33 34 35 36 37 38 39 
  > Client 46703 (6):	15 16 17 18 19 20 
  > Client 46708 (6):	6 7 8 9 10 11 
  > Client 46706 (0):	
  > Client 46707 (0):	
  > Client 46702 (0):	
  > Client 46704 (5):	1 2 3 4 5 

+ Core Mapping:	46705 46704 46704 46704 46704 46704 46708 46708 46708 46708 46708 46708 0 0 0 46703 46703 46703 46703 46703 46703 46705 46705 46705 46705 46705 46705 46705 46705 46705 46705 46705 46705 46705 46705 46705 46705 46705 46705 46705 
+ Optimal point: 6 6 6 6 6 5 5 
+++++++++++++++++++++++++++++++++++++++++++++++++++++++++++
++++++++++++++++++++++++++++++++++++++++++++++++
 + TIMESTAMP: 0.338628
REINVADE (46702)
  + pid: 46702
  + min_cores: 1
  + max_cores: 512
  + scalability graph: 
1, 1.36329, 1.52423, 1.62017, 1.68565, 1.73398, 1.77154, 1.80182, 1.8269, 1.84812, 1.86637, 1.88229, 1.89634, 1.90885, 1.92009, 1.93026, 1.93952, 1.94799, 1.95579, 1.963, 1.96968, 1.9759, 1.98172, 1.98716, 1.99228, 1.9971, 2.00164, 2.00594, 2.01002, 2.01389, 2.01757, 2.02108, 2.02443, 2.02763, 2.03069, 2.03362, 2.03644, 2.03914, 2.04173, 2.04423, 
Number of clients: 7

+++++++++++++++++++++++++++++++++++++++++++++++++++++++++++
+ Client Mapping:
  > Client 46705 (20):	0 21 22 23 24 25 26 27 28 29 30 31 32 33 34 35 36 37 38 39 
  > Client 46703 (6):	15 16 17 18 19 20 
  > Client 46708 (6):	6 7 8 9 10 11 
  > Client 46706 (0):	
  > Client 46707 (0):	
  > Client 46702 (3):	12 13 14 
  > Client 46704 (5):	1 2 3 4 5 

+ Core Mapping:	46705 46704 46704 46704 46704 46704 46708 46708 46708 46708 46708 46708 46702 46702 46702 46703 46703 46703 46703 46703 46703 46705 46705 46705 46705 46705 46705 46705 46705 46705 46705 46705 46705 46705 46705 46705 46705 46705 46705 46705 
+ Optimal point: 6 6 6 6 6 5 5 
+++++++++++++++++++++++++++++++++++++++++++++++++++++++++++
++++++++++++++++++++++++++++++++++++++++++++++++
 + TIMESTAMP: 0.344187
REINVADE (46705)
  + pid: 46705
  + min_cores: 1
  + max_cores: 512
  + scalability graph: 
1, 1.36329, 1.52423, 1.62017, 1.68565, 1.73398, 1.77154, 1.80182, 1.8269, 1.84812, 1.86637, 1.88229, 1.89634, 1.90885, 1.92009, 1.93026, 1.93952, 1.94799, 1.95579, 1.963, 1.96968, 1.9759, 1.98172, 1.98716, 1.99228, 1.9971, 2.00164, 2.00594, 2.01002, 2.01389, 2.01757, 2.02108, 2.02443, 2.02763, 2.03069, 2.03362, 2.03644, 2.03914, 2.04173, 2.04423, 
Number of clients: 7

+++++++++++++++++++++++++++++++++++++++++++++++++++++++++++
+ Client Mapping:
  > Client 46705 (6):	34 35 36 37 38 39 
  > Client 46703 (6):	15 16 17 18 19 20 
  > Client 46708 (6):	6 7 8 9 10 11 
  > Client 46706 (0):	
  > Client 46707 (0):	
  > Client 46702 (3):	12 13 14 
  > Client 46704 (5):	1 2 3 4 5 

+ Core Mapping:	0 46704 46704 46704 46704 46704 46708 46708 46708 46708 46708 46708 46702 46702 46702 46703 46703 46703 46703 46703 46703 0 0 0 0 0 0 0 0 0 0 0 0 0 46705 46705 46705 46705 46705 46705 
+ Optimal point: 6 6 6 6 6 5 5 
+++++++++++++++++++++++++++++++++++++++++++++++++++++++++++
++++++++++++++++++++++++++++++++++++++++++++++++
 + TIMESTAMP: 0.361885
REINVADE (46706)
  + pid: 46706
  + min_cores: 1
  + max_cores: 512
  + scalability graph: 
1, 1.36329, 1.52423, 1.62017, 1.68565, 1.73398, 1.77154, 1.80182, 1.8269, 1.84812, 1.86637, 1.88229, 1.89634, 1.90885, 1.92009, 1.93026, 1.93952, 1.94799, 1.95579, 1.963, 1.96968, 1.9759, 1.98172, 1.98716, 1.99228, 1.9971, 2.00164, 2.00594, 2.01002, 2.01389, 2.01757, 2.02108, 2.02443, 2.02763, 2.03069, 2.03362, 2.03644, 2.03914, 2.04173, 2.04423, 
Number of clients: 7

+++++++++++++++++++++++++++++++++++++++++++++++++++++++++++
+ Client Mapping:
  > Client 46705 (6):	34 35 36 37 38 39 
  > Client 46703 (6):	15 16 17 18 19 20 
  > Client 46708 (6):	6 7 8 9 10 11 
  > Client 46706 (6):	0 21 22 23 24 25 
  > Client 46707 (0):	
  > Client 46702 (3):	12 13 14 
  > Client 46704 (5):	1 2 3 4 5 

+ Core Mapping:	46706 46704 46704 46704 46704 46704 46708 46708 46708 46708 46708 46708 46702 46702 46702 46703 46703 46703 46703 46703 46703 46706 46706 46706 46706 46706 0 0 0 0 0 0 0 0 46705 46705 46705 46705 46705 46705 
+ Optimal point: 6 6 6 6 6 5 5 
+++++++++++++++++++++++++++++++++++++++++++++++++++++++++++
++++++++++++++++++++++++++++++++++++++++++++++++
 + TIMESTAMP: 0.362732
REINVADE (46707)
  + pid: 46707
  + min_cores: 1
  + max_cores: 512
  + scalability graph: 
1, 1.36329, 1.52423, 1.62017, 1.68565, 1.73398, 1.77154, 1.80182, 1.8269, 1.84812, 1.86637, 1.88229, 1.89634, 1.90885, 1.92009, 1.93026, 1.93952, 1.94799, 1.95579, 1.963, 1.96968, 1.9759, 1.98172, 1.98716, 1.99228, 1.9971, 2.00164, 2.00594, 2.01002, 2.01389, 2.01757, 2.02108, 2.02443, 2.02763, 2.03069, 2.03362, 2.03644, 2.03914, 2.04173, 2.04423, 
Number of clients: 7

+++++++++++++++++++++++++++++++++++++++++++++++++++++++++++
+ Client Mapping:
  > Client 46705 (6):	34 35 36 37 38 39 
  > Client 46703 (6):	15 16 17 18 19 20 
  > Client 46708 (6):	6 7 8 9 10 11 
  > Client 46706 (6):	0 21 22 23 24 25 
  > Client 46707 (6):	26 27 28 29 30 31 
  > Client 46702 (3):	12 13 14 
  > Client 46704 (5):	1 2 3 4 5 

+ Core Mapping:	46706 46704 46704 46704 46704 46704 46708 46708 46708 46708 46708 46708 46702 46702 46702 46703 46703 46703 46703 46703 46703 46706 46706 46706 46706 46706 46707 46707 46707 46707 46707 46707 0 0 46705 46705 46705 46705 46705 46705 
+ Optimal point: 6 6 6 6 6 5 5 
+++++++++++++++++++++++++++++++++++++++++++++++++++++++++++
++++++++++++++++++++++++++++++++++++++++++++++++
 + TIMESTAMP: 0.4015
REINVADE (46702)
  + pid: 46702
  + min_cores: 1
  + max_cores: 512
  + scalability graph: 
1, 1.36329, 1.52423, 1.62017, 1.68565, 1.73398, 1.77154, 1.80182, 1.8269, 1.84812, 1.86637, 1.88229, 1.89634, 1.90885, 1.92009, 1.93026, 1.93952, 1.94799, 1.95579, 1.963, 1.96968, 1.9759, 1.98172, 1.98716, 1.99228, 1.9971, 2.00164, 2.00594, 2.01002, 2.01389, 2.01757, 2.02108, 2.02443, 2.02763, 2.03069, 2.03362, 2.03644, 2.03914, 2.04173, 2.04423, 
Number of clients: 7

+++++++++++++++++++++++++++++++++++++++++++++++++++++++++++
+ Client Mapping:
  > Client 46705 (6):	34 35 36 37 38 39 
  > Client 46703 (6):	15 16 17 18 19 20 
  > Client 46708 (6):	6 7 8 9 10 11 
  > Client 46706 (6):	0 21 22 23 24 25 
  > Client 46707 (6):	26 27 28 29 30 31 
  > Client 46702 (5):	12 13 14 32 33 
  > Client 46704 (5):	1 2 3 4 5 

+ Core Mapping:	46706 46704 46704 46704 46704 46704 46708 46708 46708 46708 46708 46708 46702 46702 46702 46703 46703 46703 46703 46703 46703 46706 46706 46706 46706 46706 46707 46707 46707 46707 46707 46707 46702 46702 46705 46705 46705 46705 46705 46705 
+ Optimal point: 6 6 6 6 6 5 5 
+++++++++++++++++++++++++++++++++++++++++++++++++++++++++++
CLIENT SHUTDOWN: client 46708
 + TIMESTAMP: 29.1708
+++++++++++++++++++++++++++++++++++++++++++++++++++++++++++
+ Client Mapping:
  > Client 46705 (6):	34 35 36 37 38 39 
  > Client 46703 (6):	15 16 17 18 19 20 
  > Client 46708 (0):	
  > Client 46706 (6):	0 21 22 23 24 25 
  > Client 46707 (6):	26 27 28 29 30 31 
  > Client 46702 (5):	12 13 14 32 33 
  > Client 46704 (5):	1 2 3 4 5 

+ Core Mapping:	46706 46704 46704 46704 46704 46704 0 0 0 0 0 0 46702 46702 46702 46703 46703 46703 46703 46703 46703 46706 46706 46706 46706 46706 46707 46707 46707 46707 46707 46707 46702 46702 46705 46705 46705 46705 46705 46705 
+ Optimal point: 6 6 6 6 6 5 5 
+++++++++++++++++++++++++++++++++++++++++++++++++++++++++++
client (46708) shutdown hint: 437.984
sum_client_shutdown_hint: 437.984
sum_client_shutdown_hint_div_time: 0
++++++++++++++++++++++++++++++++++++++++++++++++
 + TIMESTAMP: 29.1709
REINVADE (46704)
  + pid: 46704
  + min_cores: 1
  + max_cores: 512
  + scalability graph: 
1, 1.36329, 1.52423, 1.62017, 1.68565, 1.73398, 1.77154, 1.80182, 1.8269, 1.84812, 1.86637, 1.88229, 1.89634, 1.90885, 1.92009, 1.93026, 1.93952, 1.94799, 1.95579, 1.963, 1.96968, 1.9759, 1.98172, 1.98716, 1.99228, 1.9971, 2.00164, 2.00594, 2.01002, 2.01389, 2.01757, 2.02108, 2.02443, 2.02763, 2.03069, 2.03362, 2.03644, 2.03914, 2.04173, 2.04423, 
Number of clients: 6

+++++++++++++++++++++++++++++++++++++++++++++++++++++++++++
+ Client Mapping:
  > Client 46705 (6):	34 35 36 37 38 39 
  > Client 46703 (6):	15 16 17 18 19 20 
  > Client 46706 (6):	0 21 22 23 24 25 
  > Client 46707 (6):	26 27 28 29 30 31 
  > Client 46702 (5):	12 13 14 32 33 
  > Client 46704 (6):	1 2 3 4 5 6 

+ Core Mapping:	46706 46704 46704 46704 46704 46704 46704 0 0 0 0 0 46702 46702 46702 46703 46703 46703 46703 46703 46703 46706 46706 46706 46706 46706 46707 46707 46707 46707 46707 46707 46702 46702 46705 46705 46705 46705 46705 46705 
+ Optimal point: 7 7 7 7 6 6 
+++++++++++++++++++++++++++++++++++++++++++++++++++++++++++
++++++++++++++++++++++++++++++++++++++++++++++++
 + TIMESTAMP: 29.171
REINVADE (46706)
  + pid: 46706
  + min_cores: 1
  + max_cores: 512
  + scalability graph: 
1, 1.36329, 1.52423, 1.62017, 1.68565, 1.73398, 1.77154, 1.80182, 1.8269, 1.84812, 1.86637, 1.88229, 1.89634, 1.90885, 1.92009, 1.93026, 1.93952, 1.94799, 1.95579, 1.963, 1.96968, 1.9759, 1.98172, 1.98716, 1.99228, 1.9971, 2.00164, 2.00594, 2.01002, 2.01389, 2.01757, 2.02108, 2.02443, 2.02763, 2.03069, 2.03362, 2.03644, 2.03914, 2.04173, 2.04423, 
Number of clients: 6

+++++++++++++++++++++++++++++++++++++++++++++++++++++++++++
+ Client Mapping:
  > Client 46705 (6):	34 35 36 37 38 39 
  > Client 46703 (6):	15 16 17 18 19 20 
  > Client 46706 (7):	0 21 22 23 24 25 7 
  > Client 46707 (6):	26 27 28 29 30 31 
  > Client 46702 (5):	12 13 14 32 33 
  > Client 46704 (6):	1 2 3 4 5 6 

+ Core Mapping:	46706 46704 46704 46704 46704 46704 46704 46706 0 0 0 0 46702 46702 46702 46703 46703 46703 46703 46703 46703 46706 46706 46706 46706 46706 46707 46707 46707 46707 46707 46707 46702 46702 46705 46705 46705 46705 46705 46705 
+ Optimal point: 7 7 7 7 6 6 
+++++++++++++++++++++++++++++++++++++++++++++++++++++++++++
++++++++++++++++++++++++++++++++++++++++++++++++
 + TIMESTAMP: 29.1712
REINVADE (46707)
  + pid: 46707
  + min_cores: 1
  + max_cores: 512
  + scalability graph: 
1, 1.36329, 1.52423, 1.62017, 1.68565, 1.73398, 1.77154, 1.80182, 1.8269, 1.84812, 1.86637, 1.88229, 1.89634, 1.90885, 1.92009, 1.93026, 1.93952, 1.94799, 1.95579, 1.963, 1.96968, 1.9759, 1.98172, 1.98716, 1.99228, 1.9971, 2.00164, 2.00594, 2.01002, 2.01389, 2.01757, 2.02108, 2.02443, 2.02763, 2.03069, 2.03362, 2.03644, 2.03914, 2.04173, 2.04423, 
Number of clients: 6

+++++++++++++++++++++++++++++++++++++++++++++++++++++++++++
+ Client Mapping:
  > Client 46705 (6):	34 35 36 37 38 39 
  > Client 46703 (6):	15 16 17 18 19 20 
  > Client 46706 (7):	0 21 22 23 24 25 7 
  > Client 46707 (7):	26 27 28 29 30 31 8 
  > Client 46702 (5):	12 13 14 32 33 
  > Client 46704 (6):	1 2 3 4 5 6 

+ Core Mapping:	46706 46704 46704 46704 46704 46704 46704 46706 46707 0 0 0 46702 46702 46702 46703 46703 46703 46703 46703 46703 46706 46706 46706 46706 46706 46707 46707 46707 46707 46707 46707 46702 46702 46705 46705 46705 46705 46705 46705 
+ Optimal point: 7 7 7 7 6 6 
+++++++++++++++++++++++++++++++++++++++++++++++++++++++++++
++++++++++++++++++++++++++++++++++++++++++++++++
 + TIMESTAMP: 29.1713
REINVADE (46705)
  + pid: 46705
  + min_cores: 1
  + max_cores: 512
  + scalability graph: 
1, 1.36329, 1.52423, 1.62017, 1.68565, 1.73398, 1.77154, 1.80182, 1.8269, 1.84812, 1.86637, 1.88229, 1.89634, 1.90885, 1.92009, 1.93026, 1.93952, 1.94799, 1.95579, 1.963, 1.96968, 1.9759, 1.98172, 1.98716, 1.99228, 1.9971, 2.00164, 2.00594, 2.01002, 2.01389, 2.01757, 2.02108, 2.02443, 2.02763, 2.03069, 2.03362, 2.03644, 2.03914, 2.04173, 2.04423, 
Number of clients: 6

+++++++++++++++++++++++++++++++++++++++++++++++++++++++++++
+ Client Mapping:
  > Client 46705 (7):	34 35 36 37 38 39 9 
  > Client 46703 (6):	15 16 17 18 19 20 
  > Client 46706 (7):	0 21 22 23 24 25 7 
  > Client 46707 (7):	26 27 28 29 30 31 8 
  > Client 46702 (5):	12 13 14 32 33 
  > Client 46704 (6):	1 2 3 4 5 6 

+ Core Mapping:	46706 46704 46704 46704 46704 46704 46704 46706 46707 46705 0 0 46702 46702 46702 46703 46703 46703 46703 46703 46703 46706 46706 46706 46706 46706 46707 46707 46707 46707 46707 46707 46702 46702 46705 46705 46705 46705 46705 46705 
+ Optimal point: 7 7 7 7 6 6 
+++++++++++++++++++++++++++++++++++++++++++++++++++++++++++
++++++++++++++++++++++++++++++++++++++++++++++++
 + TIMESTAMP: 29.1716
REINVADE (46703)
  + pid: 46703
  + min_cores: 1
  + max_cores: 512
  + scalability graph: 
1, 1.36329, 1.52423, 1.62017, 1.68565, 1.73398, 1.77154, 1.80182, 1.8269, 1.84812, 1.86637, 1.88229, 1.89634, 1.90885, 1.92009, 1.93026, 1.93952, 1.94799, 1.95579, 1.963, 1.96968, 1.9759, 1.98172, 1.98716, 1.99228, 1.9971, 2.00164, 2.00594, 2.01002, 2.01389, 2.01757, 2.02108, 2.02443, 2.02763, 2.03069, 2.03362, 2.03644, 2.03914, 2.04173, 2.04423, 
Number of clients: 6

+++++++++++++++++++++++++++++++++++++++++++++++++++++++++++
+ Client Mapping:
  > Client 46705 (7):	34 35 36 37 38 39 9 
  > Client 46703 (7):	15 16 17 18 19 20 10 
  > Client 46706 (7):	0 21 22 23 24 25 7 
  > Client 46707 (7):	26 27 28 29 30 31 8 
  > Client 46702 (5):	12 13 14 32 33 
  > Client 46704 (6):	1 2 3 4 5 6 

+ Core Mapping:	46706 46704 46704 46704 46704 46704 46704 46706 46707 46705 46703 0 46702 46702 46702 46703 46703 46703 46703 46703 46703 46706 46706 46706 46706 46706 46707 46707 46707 46707 46707 46707 46702 46702 46705 46705 46705 46705 46705 46705 
+ Optimal point: 7 7 7 7 6 6 
+++++++++++++++++++++++++++++++++++++++++++++++++++++++++++
++++++++++++++++++++++++++++++++++++++++++++++++
 + TIMESTAMP: 29.1722
REINVADE (46702)
  + pid: 46702
  + min_cores: 1
  + max_cores: 512
  + scalability graph: 
1, 1.36329, 1.52423, 1.62017, 1.68565, 1.73398, 1.77154, 1.80182, 1.8269, 1.84812, 1.86637, 1.88229, 1.89634, 1.90885, 1.92009, 1.93026, 1.93952, 1.94799, 1.95579, 1.963, 1.96968, 1.9759, 1.98172, 1.98716, 1.99228, 1.9971, 2.00164, 2.00594, 2.01002, 2.01389, 2.01757, 2.02108, 2.02443, 2.02763, 2.03069, 2.03362, 2.03644, 2.03914, 2.04173, 2.04423, 
Number of clients: 6

+++++++++++++++++++++++++++++++++++++++++++++++++++++++++++
+ Client Mapping:
  > Client 46705 (7):	34 35 36 37 38 39 9 
  > Client 46703 (7):	15 16 17 18 19 20 10 
  > Client 46706 (7):	0 21 22 23 24 25 7 
  > Client 46707 (7):	26 27 28 29 30 31 8 
  > Client 46702 (6):	12 13 14 32 33 11 
  > Client 46704 (6):	1 2 3 4 5 6 

+ Core Mapping:	46706 46704 46704 46704 46704 46704 46704 46706 46707 46705 46703 46702 46702 46702 46702 46703 46703 46703 46703 46703 46703 46706 46706 46706 46706 46706 46707 46707 46707 46707 46707 46707 46702 46702 46705 46705 46705 46705 46705 46705 
+ Optimal point: 7 7 7 7 6 6 
+++++++++++++++++++++++++++++++++++++++++++++++++++++++++++
CLIENT SHUTDOWN: client 46707
 + TIMESTAMP: 29.2104
+++++++++++++++++++++++++++++++++++++++++++++++++++++++++++
+ Client Mapping:
  > Client 46705 (7):	34 35 36 37 38 39 9 
  > Client 46703 (7):	15 16 17 18 19 20 10 
  > Client 46706 (7):	0 21 22 23 24 25 7 
  > Client 46707 (0):	
  > Client 46702 (6):	12 13 14 32 33 11 
  > Client 46704 (6):	1 2 3 4 5 6 

+ Core Mapping:	46706 46704 46704 46704 46704 46704 46704 46706 0 46705 46703 46702 46702 46702 46702 46703 46703 46703 46703 46703 46703 46706 46706 46706 46706 46706 0 0 0 0 0 0 46702 46702 46705 46705 46705 46705 46705 46705 
+ Optimal point: 7 7 7 7 6 6 
+++++++++++++++++++++++++++++++++++++++++++++++++++++++++++
client (46707) shutdown hint: 437.984
sum_client_shutdown_hint: 875.968
sum_client_shutdown_hint_div_time: 0
++++++++++++++++++++++++++++++++++++++++++++++++
 + TIMESTAMP: 29.2113
REINVADE (46702)
  + pid: 46702
  + min_cores: 1
  + max_cores: 512
  + scalability graph: 
1, 1.36329, 1.52423, 1.62017, 1.68565, 1.73398, 1.77154, 1.80182, 1.8269, 1.84812, 1.86637, 1.88229, 1.89634, 1.90885, 1.92009, 1.93026, 1.93952, 1.94799, 1.95579, 1.963, 1.96968, 1.9759, 1.98172, 1.98716, 1.99228, 1.9971, 2.00164, 2.00594, 2.01002, 2.01389, 2.01757, 2.02108, 2.02443, 2.02763, 2.03069, 2.03362, 2.03644, 2.03914, 2.04173, 2.04423, 
Number of clients: 5

+++++++++++++++++++++++++++++++++++++++++++++++++++++++++++
+ Client Mapping:
  > Client 46705 (7):	34 35 36 37 38 39 9 
  > Client 46703 (7):	15 16 17 18 19 20 10 
  > Client 46706 (7):	0 21 22 23 24 25 7 
  > Client 46702 (8):	12 13 14 32 33 11 8 26 
  > Client 46704 (6):	1 2 3 4 5 6 

+ Core Mapping:	46706 46704 46704 46704 46704 46704 46704 46706 46702 46705 46703 46702 46702 46702 46702 46703 46703 46703 46703 46703 46703 46706 46706 46706 46706 46706 46702 0 0 0 0 0 46702 46702 46705 46705 46705 46705 46705 46705 
+ Optimal point: 8 8 8 8 8 
+++++++++++++++++++++++++++++++++++++++++++++++++++++++++++
++++++++++++++++++++++++++++++++++++++++++++++++
 + TIMESTAMP: 29.2115
REINVADE (46706)
  + pid: 46706
  + min_cores: 1
  + max_cores: 512
  + scalability graph: 
1, 1.36329, 1.52423, 1.62017, 1.68565, 1.73398, 1.77154, 1.80182, 1.8269, 1.84812, 1.86637, 1.88229, 1.89634, 1.90885, 1.92009, 1.93026, 1.93952, 1.94799, 1.95579, 1.963, 1.96968, 1.9759, 1.98172, 1.98716, 1.99228, 1.9971, 2.00164, 2.00594, 2.01002, 2.01389, 2.01757, 2.02108, 2.02443, 2.02763, 2.03069, 2.03362, 2.03644, 2.03914, 2.04173, 2.04423, 
Number of clients: 5

+++++++++++++++++++++++++++++++++++++++++++++++++++++++++++
+ Client Mapping:
  > Client 46705 (7):	34 35 36 37 38 39 9 
  > Client 46703 (7):	15 16 17 18 19 20 10 
  > Client 46706 (8):	0 21 22 23 24 25 7 27 
  > Client 46702 (8):	12 13 14 32 33 11 8 26 
  > Client 46704 (6):	1 2 3 4 5 6 

+ Core Mapping:	46706 46704 46704 46704 46704 46704 46704 46706 46702 46705 46703 46702 46702 46702 46702 46703 46703 46703 46703 46703 46703 46706 46706 46706 46706 46706 46702 46706 0 0 0 0 46702 46702 46705 46705 46705 46705 46705 46705 
+ Optimal point: 8 8 8 8 8 
+++++++++++++++++++++++++++++++++++++++++++++++++++++++++++
++++++++++++++++++++++++++++++++++++++++++++++++
 + TIMESTAMP: 29.2116
REINVADE (46705)
  + pid: 46705
  + min_cores: 1
  + max_cores: 512
  + scalability graph: 
1, 1.36329, 1.52423, 1.62017, 1.68565, 1.73398, 1.77154, 1.80182, 1.8269, 1.84812, 1.86637, 1.88229, 1.89634, 1.90885, 1.92009, 1.93026, 1.93952, 1.94799, 1.95579, 1.963, 1.96968, 1.9759, 1.98172, 1.98716, 1.99228, 1.9971, 2.00164, 2.00594, 2.01002, 2.01389, 2.01757, 2.02108, 2.02443, 2.02763, 2.03069, 2.03362, 2.03644, 2.03914, 2.04173, 2.04423, 
Number of clients: 5

+++++++++++++++++++++++++++++++++++++++++++++++++++++++++++
+ Client Mapping:
  > Client 46705 (8):	34 35 36 37 38 39 9 28 
  > Client 46703 (7):	15 16 17 18 19 20 10 
  > Client 46706 (8):	0 21 22 23 24 25 7 27 
  > Client 46702 (8):	12 13 14 32 33 11 8 26 
  > Client 46704 (6):	1 2 3 4 5 6 

+ Core Mapping:	46706 46704 46704 46704 46704 46704 46704 46706 46702 46705 46703 46702 46702 46702 46702 46703 46703 46703 46703 46703 46703 46706 46706 46706 46706 46706 46702 46706 46705 0 0 0 46702 46702 46705 46705 46705 46705 46705 46705 
+ Optimal point: 8 8 8 8 8 
+++++++++++++++++++++++++++++++++++++++++++++++++++++++++++
++++++++++++++++++++++++++++++++++++++++++++++++
 + TIMESTAMP: 29.2118
REINVADE (46703)
  + pid: 46703
  + min_cores: 1
  + max_cores: 512
  + scalability graph: 
1, 1.36329, 1.52423, 1.62017, 1.68565, 1.73398, 1.77154, 1.80182, 1.8269, 1.84812, 1.86637, 1.88229, 1.89634, 1.90885, 1.92009, 1.93026, 1.93952, 1.94799, 1.95579, 1.963, 1.96968, 1.9759, 1.98172, 1.98716, 1.99228, 1.9971, 2.00164, 2.00594, 2.01002, 2.01389, 2.01757, 2.02108, 2.02443, 2.02763, 2.03069, 2.03362, 2.03644, 2.03914, 2.04173, 2.04423, 
Number of clients: 5

+++++++++++++++++++++++++++++++++++++++++++++++++++++++++++
+ Client Mapping:
  > Client 46705 (8):	34 35 36 37 38 39 9 28 
  > Client 46703 (8):	15 16 17 18 19 20 10 29 
  > Client 46706 (8):	0 21 22 23 24 25 7 27 
  > Client 46702 (8):	12 13 14 32 33 11 8 26 
  > Client 46704 (6):	1 2 3 4 5 6 

+ Core Mapping:	46706 46704 46704 46704 46704 46704 46704 46706 46702 46705 46703 46702 46702 46702 46702 46703 46703 46703 46703 46703 46703 46706 46706 46706 46706 46706 46702 46706 46705 46703 0 0 46702 46702 46705 46705 46705 46705 46705 46705 
+ Optimal point: 8 8 8 8 8 
+++++++++++++++++++++++++++++++++++++++++++++++++++++++++++
++++++++++++++++++++++++++++++++++++++++++++++++
 + TIMESTAMP: 29.2163
REINVADE (46704)
  + pid: 46704
  + min_cores: 1
  + max_cores: 512
  + scalability graph: 
1, 1.36329, 1.52423, 1.62017, 1.68565, 1.73398, 1.77154, 1.80182, 1.8269, 1.84812, 1.86637, 1.88229, 1.89634, 1.90885, 1.92009, 1.93026, 1.93952, 1.94799, 1.95579, 1.963, 1.96968, 1.9759, 1.98172, 1.98716, 1.99228, 1.9971, 2.00164, 2.00594, 2.01002, 2.01389, 2.01757, 2.02108, 2.02443, 2.02763, 2.03069, 2.03362, 2.03644, 2.03914, 2.04173, 2.04423, 
Number of clients: 5

+++++++++++++++++++++++++++++++++++++++++++++++++++++++++++
+ Client Mapping:
  > Client 46705 (8):	34 35 36 37 38 39 9 28 
  > Client 46703 (8):	15 16 17 18 19 20 10 29 
  > Client 46706 (8):	0 21 22 23 24 25 7 27 
  > Client 46702 (8):	12 13 14 32 33 11 8 26 
  > Client 46704 (8):	1 2 3 4 5 6 30 31 

+ Core Mapping:	46706 46704 46704 46704 46704 46704 46704 46706 46702 46705 46703 46702 46702 46702 46702 46703 46703 46703 46703 46703 46703 46706 46706 46706 46706 46706 46702 46706 46705 46703 46704 46704 46702 46702 46705 46705 46705 46705 46705 46705 
+ Optimal point: 8 8 8 8 8 
+++++++++++++++++++++++++++++++++++++++++++++++++++++++++++
CLIENT SHUTDOWN: client 46706
 + TIMESTAMP: 29.8367
+++++++++++++++++++++++++++++++++++++++++++++++++++++++++++
+ Client Mapping:
  > Client 46705 (8):	34 35 36 37 38 39 9 28 
  > Client 46703 (8):	15 16 17 18 19 20 10 29 
  > Client 46706 (0):	
  > Client 46702 (8):	12 13 14 32 33 11 8 26 
  > Client 46704 (8):	1 2 3 4 5 6 30 31 

+ Core Mapping:	0 46704 46704 46704 46704 46704 46704 0 46702 46705 46703 46702 46702 46702 46702 46703 46703 46703 46703 46703 46703 0 0 0 0 0 46702 0 46705 46703 46704 46704 46702 46702 46705 46705 46705 46705 46705 46705 
+ Optimal point: 8 8 8 8 8 
+++++++++++++++++++++++++++++++++++++++++++++++++++++++++++
client (46706) shutdown hint: 437.984
sum_client_shutdown_hint: 1313.95
sum_client_shutdown_hint_div_time: 0
++++++++++++++++++++++++++++++++++++++++++++++++
 + TIMESTAMP: 29.8369
REINVADE (46703)
  + pid: 46703
  + min_cores: 1
  + max_cores: 512
  + scalability graph: 
1, 1.36329, 1.52423, 1.62017, 1.68565, 1.73398, 1.77154, 1.80182, 1.8269, 1.84812, 1.86637, 1.88229, 1.89634, 1.90885, 1.92009, 1.93026, 1.93952, 1.94799, 1.95579, 1.963, 1.96968, 1.9759, 1.98172, 1.98716, 1.99228, 1.9971, 2.00164, 2.00594, 2.01002, 2.01389, 2.01757, 2.02108, 2.02443, 2.02763, 2.03069, 2.03362, 2.03644, 2.03914, 2.04173, 2.04423, 
Number of clients: 4

+++++++++++++++++++++++++++++++++++++++++++++++++++++++++++
+ Client Mapping:
  > Client 46705 (8):	34 35 36 37 38 39 9 28 
  > Client 46703 (10):	15 16 17 18 19 20 10 29 0 7 
  > Client 46702 (8):	12 13 14 32 33 11 8 26 
  > Client 46704 (8):	1 2 3 4 5 6 30 31 

+ Core Mapping:	46703 46704 46704 46704 46704 46704 46704 46703 46702 46705 46703 46702 46702 46702 46702 46703 46703 46703 46703 46703 46703 0 0 0 0 0 46702 0 46705 46703 46704 46704 46702 46702 46705 46705 46705 46705 46705 46705 
+ Optimal point: 10 10 10 10 
+++++++++++++++++++++++++++++++++++++++++++++++++++++++++++
++++++++++++++++++++++++++++++++++++++++++++++++
 + TIMESTAMP: 29.8376
REINVADE (46705)
  + pid: 46705
  + min_cores: 1
  + max_cores: 512
  + scalability graph: 
1, 1.36329, 1.52423, 1.62017, 1.68565, 1.73398, 1.77154, 1.80182, 1.8269, 1.84812, 1.86637, 1.88229, 1.89634, 1.90885, 1.92009, 1.93026, 1.93952, 1.94799, 1.95579, 1.963, 1.96968, 1.9759, 1.98172, 1.98716, 1.99228, 1.9971, 2.00164, 2.00594, 2.01002, 2.01389, 2.01757, 2.02108, 2.02443, 2.02763, 2.03069, 2.03362, 2.03644, 2.03914, 2.04173, 2.04423, 
Number of clients: 4

+++++++++++++++++++++++++++++++++++++++++++++++++++++++++++
+ Client Mapping:
  > Client 46705 (10):	34 35 36 37 38 39 9 28 21 22 
  > Client 46703 (10):	15 16 17 18 19 20 10 29 0 7 
  > Client 46702 (8):	12 13 14 32 33 11 8 26 
  > Client 46704 (8):	1 2 3 4 5 6 30 31 

+ Core Mapping:	46703 46704 46704 46704 46704 46704 46704 46703 46702 46705 46703 46702 46702 46702 46702 46703 46703 46703 46703 46703 46703 46705 46705 0 0 0 46702 0 46705 46703 46704 46704 46702 46702 46705 46705 46705 46705 46705 46705 
+ Optimal point: 10 10 10 10 
+++++++++++++++++++++++++++++++++++++++++++++++++++++++++++
++++++++++++++++++++++++++++++++++++++++++++++++
 + TIMESTAMP: 29.8407
REINVADE (46704)
  + pid: 46704
  + min_cores: 1
  + max_cores: 512
  + scalability graph: 
1, 1.36329, 1.52423, 1.62017, 1.68565, 1.73398, 1.77154, 1.80182, 1.8269, 1.84812, 1.86637, 1.88229, 1.89634, 1.90885, 1.92009, 1.93026, 1.93952, 1.94799, 1.95579, 1.963, 1.96968, 1.9759, 1.98172, 1.98716, 1.99228, 1.9971, 2.00164, 2.00594, 2.01002, 2.01389, 2.01757, 2.02108, 2.02443, 2.02763, 2.03069, 2.03362, 2.03644, 2.03914, 2.04173, 2.04423, 
Number of clients: 4

+++++++++++++++++++++++++++++++++++++++++++++++++++++++++++
+ Client Mapping:
  > Client 46705 (10):	34 35 36 37 38 39 9 28 21 22 
  > Client 46703 (10):	15 16 17 18 19 20 10 29 0 7 
  > Client 46702 (8):	12 13 14 32 33 11 8 26 
  > Client 46704 (10):	1 2 3 4 5 6 30 31 23 24 

+ Core Mapping:	46703 46704 46704 46704 46704 46704 46704 46703 46702 46705 46703 46702 46702 46702 46702 46703 46703 46703 46703 46703 46703 46705 46705 46704 46704 0 46702 0 46705 46703 46704 46704 46702 46702 46705 46705 46705 46705 46705 46705 
+ Optimal point: 10 10 10 10 
+++++++++++++++++++++++++++++++++++++++++++++++++++++++++++
++++++++++++++++++++++++++++++++++++++++++++++++
 + TIMESTAMP: 29.8411
REINVADE (46702)
  + pid: 46702
  + min_cores: 1
  + max_cores: 512
  + scalability graph: 
1, 1.36329, 1.52423, 1.62017, 1.68565, 1.73398, 1.77154, 1.80182, 1.8269, 1.84812, 1.86637, 1.88229, 1.89634, 1.90885, 1.92009, 1.93026, 1.93952, 1.94799, 1.95579, 1.963, 1.96968, 1.9759, 1.98172, 1.98716, 1.99228, 1.9971, 2.00164, 2.00594, 2.01002, 2.01389, 2.01757, 2.02108, 2.02443, 2.02763, 2.03069, 2.03362, 2.03644, 2.03914, 2.04173, 2.04423, 
Number of clients: 4

+++++++++++++++++++++++++++++++++++++++++++++++++++++++++++
+ Client Mapping:
  > Client 46705 (10):	34 35 36 37 38 39 9 28 21 22 
  > Client 46703 (10):	15 16 17 18 19 20 10 29 0 7 
  > Client 46702 (10):	12 13 14 32 33 11 8 26 25 27 
  > Client 46704 (10):	1 2 3 4 5 6 30 31 23 24 

+ Core Mapping:	46703 46704 46704 46704 46704 46704 46704 46703 46702 46705 46703 46702 46702 46702 46702 46703 46703 46703 46703 46703 46703 46705 46705 46704 46704 46702 46702 46702 46705 46703 46704 46704 46702 46702 46705 46705 46705 46705 46705 46705 
+ Optimal point: 10 10 10 10 
+++++++++++++++++++++++++++++++++++++++++++++++++++++++++++
CLIENT SHUTDOWN: client 46705
 + TIMESTAMP: 29.8772
+++++++++++++++++++++++++++++++++++++++++++++++++++++++++++
+ Client Mapping:
  > Client 46705 (0):	
  > Client 46703 (10):	15 16 17 18 19 20 10 29 0 7 
  > Client 46702 (10):	12 13 14 32 33 11 8 26 25 27 
  > Client 46704 (10):	1 2 3 4 5 6 30 31 23 24 

+ Core Mapping:	46703 46704 46704 46704 46704 46704 46704 46703 46702 0 46703 46702 46702 46702 46702 46703 46703 46703 46703 46703 46703 0 0 46704 46704 46702 46702 46702 0 46703 46704 46704 46702 46702 0 0 0 0 0 0 
+ Optimal point: 10 10 10 10 
+++++++++++++++++++++++++++++++++++++++++++++++++++++++++++
client (46705) shutdown hint: 437.984
sum_client_shutdown_hint: 1751.94
sum_client_shutdown_hint_div_time: 0
++++++++++++++++++++++++++++++++++++++++++++++++
 + TIMESTAMP: 29.8775
REINVADE (46704)
  + pid: 46704
  + min_cores: 1
  + max_cores: 512
  + scalability graph: 
1, 1.36329, 1.52423, 1.62017, 1.68565, 1.73398, 1.77154, 1.80182, 1.8269, 1.84812, 1.86637, 1.88229, 1.89634, 1.90885, 1.92009, 1.93026, 1.93952, 1.94799, 1.95579, 1.963, 1.96968, 1.9759, 1.98172, 1.98716, 1.99228, 1.9971, 2.00164, 2.00594, 2.01002, 2.01389, 2.01757, 2.02108, 2.02443, 2.02763, 2.03069, 2.03362, 2.03644, 2.03914, 2.04173, 2.04423, 
Number of clients: 3

+++++++++++++++++++++++++++++++++++++++++++++++++++++++++++
+ Client Mapping:
  > Client 46703 (10):	15 16 17 18 19 20 10 29 0 7 
  > Client 46702 (10):	12 13 14 32 33 11 8 26 25 27 
  > Client 46704 (13):	1 2 3 4 5 6 30 31 23 24 9 21 22 

+ Core Mapping:	46703 46704 46704 46704 46704 46704 46704 46703 46702 46704 46703 46702 46702 46702 46702 46703 46703 46703 46703 46703 46703 46704 46704 46704 46704 46702 46702 46702 0 46703 46704 46704 46702 46702 0 0 0 0 0 0 
+ Optimal point: 14 13 13 
+++++++++++++++++++++++++++++++++++++++++++++++++++++++++++
++++++++++++++++++++++++++++++++++++++++++++++++
 + TIMESTAMP: 29.8777
REINVADE (46703)
  + pid: 46703
  + min_cores: 1
  + max_cores: 512
  + scalability graph: 
1, 1.36329, 1.52423, 1.62017, 1.68565, 1.73398, 1.77154, 1.80182, 1.8269, 1.84812, 1.86637, 1.88229, 1.89634, 1.90885, 1.92009, 1.93026, 1.93952, 1.94799, 1.95579, 1.963, 1.96968, 1.9759, 1.98172, 1.98716, 1.99228, 1.9971, 2.00164, 2.00594, 2.01002, 2.01389, 2.01757, 2.02108, 2.02443, 2.02763, 2.03069, 2.03362, 2.03644, 2.03914, 2.04173, 2.04423, 
Number of clients: 3

+++++++++++++++++++++++++++++++++++++++++++++++++++++++++++
+ Client Mapping:
  > Client 46703 (14):	15 16 17 18 19 20 10 29 0 7 28 34 35 36 
  > Client 46702 (10):	12 13 14 32 33 11 8 26 25 27 
  > Client 46704 (13):	1 2 3 4 5 6 30 31 23 24 9 21 22 

+ Core Mapping:	46703 46704 46704 46704 46704 46704 46704 46703 46702 46704 46703 46702 46702 46702 46702 46703 46703 46703 46703 46703 46703 46704 46704 46704 46704 46702 46702 46702 46703 46703 46704 46704 46702 46702 46703 46703 46703 0 0 0 
+ Optimal point: 14 13 13 
+++++++++++++++++++++++++++++++++++++++++++++++++++++++++++
++++++++++++++++++++++++++++++++++++++++++++++++
 + TIMESTAMP: 29.8784
REINVADE (46702)
  + pid: 46702
  + min_cores: 1
  + max_cores: 512
  + scalability graph: 
1, 1.36329, 1.52423, 1.62017, 1.68565, 1.73398, 1.77154, 1.80182, 1.8269, 1.84812, 1.86637, 1.88229, 1.89634, 1.90885, 1.92009, 1.93026, 1.93952, 1.94799, 1.95579, 1.963, 1.96968, 1.9759, 1.98172, 1.98716, 1.99228, 1.9971, 2.00164, 2.00594, 2.01002, 2.01389, 2.01757, 2.02108, 2.02443, 2.02763, 2.03069, 2.03362, 2.03644, 2.03914, 2.04173, 2.04423, 
Number of clients: 3

+++++++++++++++++++++++++++++++++++++++++++++++++++++++++++
+ Client Mapping:
  > Client 46703 (14):	15 16 17 18 19 20 10 29 0 7 28 34 35 36 
  > Client 46702 (13):	12 13 14 32 33 11 8 26 25 27 37 38 39 
  > Client 46704 (13):	1 2 3 4 5 6 30 31 23 24 9 21 22 

+ Core Mapping:	46703 46704 46704 46704 46704 46704 46704 46703 46702 46704 46703 46702 46702 46702 46702 46703 46703 46703 46703 46703 46703 46704 46704 46704 46704 46702 46702 46702 46703 46703 46704 46704 46702 46702 46703 46703 46703 46702 46702 46702 
+ Optimal point: 14 13 13 
+++++++++++++++++++++++++++++++++++++++++++++++++++++++++++
CLIENT SHUTDOWN: client 46703
 + TIMESTAMP: 30.3096
+++++++++++++++++++++++++++++++++++++++++++++++++++++++++++
+ Client Mapping:
  > Client 46703 (0):	
  > Client 46702 (13):	12 13 14 32 33 11 8 26 25 27 37 38 39 
  > Client 46704 (13):	1 2 3 4 5 6 30 31 23 24 9 21 22 

+ Core Mapping:	0 46704 46704 46704 46704 46704 46704 0 46702 46704 0 46702 46702 46702 46702 0 0 0 0 0 0 46704 46704 46704 46704 46702 46702 46702 0 0 46704 46704 46702 46702 0 0 0 46702 46702 46702 
+ Optimal point: 14 13 13 
+++++++++++++++++++++++++++++++++++++++++++++++++++++++++++
client (46703) shutdown hint: 437.984
sum_client_shutdown_hint: 2189.92
sum_client_shutdown_hint_div_time: 0
++++++++++++++++++++++++++++++++++++++++++++++++
 + TIMESTAMP: 30.31
REINVADE (46702)
  + pid: 46702
  + min_cores: 1
  + max_cores: 512
  + scalability graph: 
1, 1.36329, 1.52423, 1.62017, 1.68565, 1.73398, 1.77154, 1.80182, 1.8269, 1.84812, 1.86637, 1.88229, 1.89634, 1.90885, 1.92009, 1.93026, 1.93952, 1.94799, 1.95579, 1.963, 1.96968, 1.9759, 1.98172, 1.98716, 1.99228, 1.9971, 2.00164, 2.00594, 2.01002, 2.01389, 2.01757, 2.02108, 2.02443, 2.02763, 2.03069, 2.03362, 2.03644, 2.03914, 2.04173, 2.04423, 
Number of clients: 2

+++++++++++++++++++++++++++++++++++++++++++++++++++++++++++
+ Client Mapping:
  > Client 46702 (20):	12 13 14 32 33 11 8 26 25 27 37 38 39 0 7 10 15 16 17 18 
  > Client 46704 (13):	1 2 3 4 5 6 30 31 23 24 9 21 22 

+ Core Mapping:	46702 46704 46704 46704 46704 46704 46704 46702 46702 46704 46702 46702 46702 46702 46702 46702 46702 46702 46702 0 0 46704 46704 46704 46704 46702 46702 46702 0 0 46704 46704 46702 46702 0 0 0 46702 46702 46702 
+ Optimal point: 20 20 
+++++++++++++++++++++++++++++++++++++++++++++++++++++++++++
++++++++++++++++++++++++++++++++++++++++++++++++
 + TIMESTAMP: 30.3106
REINVADE (46704)
  + pid: 46704
  + min_cores: 1
  + max_cores: 512
  + scalability graph: 
1, 1.36329, 1.52423, 1.62017, 1.68565, 1.73398, 1.77154, 1.80182, 1.8269, 1.84812, 1.86637, 1.88229, 1.89634, 1.90885, 1.92009, 1.93026, 1.93952, 1.94799, 1.95579, 1.963, 1.96968, 1.9759, 1.98172, 1.98716, 1.99228, 1.9971, 2.00164, 2.00594, 2.01002, 2.01389, 2.01757, 2.02108, 2.02443, 2.02763, 2.03069, 2.03362, 2.03644, 2.03914, 2.04173, 2.04423, 
Number of clients: 2

+++++++++++++++++++++++++++++++++++++++++++++++++++++++++++
+ Client Mapping:
  > Client 46702 (20):	12 13 14 32 33 11 8 26 25 27 37 38 39 0 7 10 15 16 17 18 
  > Client 46704 (20):	1 2 3 4 5 6 30 31 23 24 9 21 22 19 20 28 29 34 35 36 

+ Core Mapping:	46702 46704 46704 46704 46704 46704 46704 46702 46702 46704 46702 46702 46702 46702 46702 46702 46702 46702 46702 46704 46704 46704 46704 46704 46704 46702 46702 46702 46704 46704 46704 46704 46702 46702 46704 46704 46704 46702 46702 46702 
+ Optimal point: 20 20 
+++++++++++++++++++++++++++++++++++++++++++++++++++++++++++
CLIENT SHUTDOWN: client 46704
 + TIMESTAMP: 33.0487
+++++++++++++++++++++++++++++++++++++++++++++++++++++++++++
+ Client Mapping:
  > Client 46702 (20):	12 13 14 32 33 11 8 26 25 27 37 38 39 0 7 10 15 16 17 18 
  > Client 46704 (0):	

+ Core Mapping:	46702 0 0 0 0 0 0 46702 46702 0 46702 46702 46702 46702 46702 46702 46702 46702 46702 0 0 0 0 0 0 46702 46702 46702 0 0 0 0 46702 46702 0 0 0 46702 46702 46702 
+ Optimal point: 20 20 
+++++++++++++++++++++++++++++++++++++++++++++++++++++++++++
client (46704) shutdown hint: 437.984
sum_client_shutdown_hint: 2627.9
sum_client_shutdown_hint_div_time: 0
++++++++++++++++++++++++++++++++++++++++++++++++
 + TIMESTAMP: 33.049
REINVADE (46702)
  + pid: 46702
  + min_cores: 1
  + max_cores: 512
  + scalability graph: 
1, 1.36329, 1.52423, 1.62017, 1.68565, 1.73398, 1.77154, 1.80182, 1.8269, 1.84812, 1.86637, 1.88229, 1.89634, 1.90885, 1.92009, 1.93026, 1.93952, 1.94799, 1.95579, 1.963, 1.96968, 1.9759, 1.98172, 1.98716, 1.99228, 1.9971, 2.00164, 2.00594, 2.01002, 2.01389, 2.01757, 2.02108, 2.02443, 2.02763, 2.03069, 2.03362, 2.03644, 2.03914, 2.04173, 2.04423, 
Number of clients: 1

+++++++++++++++++++++++++++++++++++++++++++++++++++++++++++
+ Client Mapping:
  > Client 46702 (40):	12 13 14 32 33 11 8 26 25 27 37 38 39 0 7 10 15 16 17 18 1 2 3 4 5 6 9 19 20 21 22 23 24 28 29 30 31 34 35 36 

+ Core Mapping:	46702 46702 46702 46702 46702 46702 46702 46702 46702 46702 46702 46702 46702 46702 46702 46702 46702 46702 46702 46702 46702 46702 46702 46702 46702 46702 46702 46702 46702 46702 46702 46702 46702 46702 46702 46702 46702 46702 46702 46702 
+ Optimal point: 40 
+++++++++++++++++++++++++++++++++++++++++++++++++++++++++++
CLIENT SHUTDOWN: client 46702
 + TIMESTAMP: 34.5173
+++++++++++++++++++++++++++++++++++++++++++++++++++++++++++
+ Client Mapping:
  > Client 46702 (0):	

+ Core Mapping:	0 0 0 0 0 0 0 0 0 0 0 0 0 0 0 0 0 0 0 0 0 0 0 0 0 0 0 0 0 0 0 0 0 0 0 0 0 0 0 0 
+ Optimal point: 40 
+++++++++++++++++++++++++++++++++++++++++++++++++++++++++++
client (46702) shutdown hint: 437.984
sum_client_shutdown_hint: 3065.89
sum_client_shutdown_hint_div_time: 0
END TIMESTAMP: 34.5173
OVERALL TIME: 34.2986
 + sum_client_shutdown_hint: 3065.89
 + sum_client_shutdown_hint/time: 89.3882
sum_client_shutdown_hint: 3065.89
sum_client_shutdown_hint_div_time: 89.3882
