MODE: ipmo_prog0
PARCOUNT: 37
PROBLEMS: 1
Running on INWEST
Using iPMO

Programs:
 + ../../build/sierpi_intel_ipmo_tsunami_parallel_release  -u 10 -U 10 -T 1000 -n 40 -d 12
 + ../../build/sierpi_intel_ipmo_tsunami_parallel_release  -u 10 -U 10 -T 1000 -n 40 -d 12
 + ../../build/sierpi_intel_ipmo_tsunami_parallel_release  -u 10 -U 10 -T 1000 -n 40 -d 10
 + ../../build/sierpi_intel_ipmo_tsunami_parallel_release  -u 10 -U 10 -T 1000 -n 40 -d 12
 + ../../build/sierpi_intel_ipmo_tsunami_parallel_release  -u 10 -U 10 -T 1000 -n 40 -d 10

Sat Mar 31 16:03:21 CEST 2012
iPMO: Prog0 parallel execution with ipmo (37 times)
Waiting for job 18089
18091: CHANGING RESSOURCES
18091: CHANGING RESSOURCES
18124: CHANGING RESSOURCES
18119: CHANGING RESSOURCES
18116: CHANGING RESSOURCES
18093: CHANGING RESSOURCES
18112: CHANGING RESSOURCES
18105: CHANGING RESSOURCES
18113: CHANGING RESSOURCES
18122: CHANGING RESSOURCES
18125: CHANGING RESSOURCES
18099: CHANGING RESSOURCES
18111: CHANGING RESSOURCES
18089: CHANGING RESSOURCES
18100: CHANGING RESSOURCES
18120: CHANGING RESSOURCES
18096: CHANGING RESSOURCES
18108: CHANGING RESSOURCES
18118: CHANGING RESSOURCES
18121: CHANGING RESSOURCES
18107: CHANGING RESSOURCES
18103: CHANGING RESSOURCES
18114: CHANGING RESSOURCES
18104: CHANGING RESSOURCES
18092: CHANGING RESSOURCES
18102: CHANGING RESSOURCES
18115: CHANGING RESSOURCES
18097: CHANGING RESSOURCES
18101: CHANGING RESSOURCES
18098: CHANGING RESSOURCES
18095: CHANGING RESSOURCES
18106: CHANGING RESSOURCES
18109: CHANGING RESSOURCES
18094: CHANGING RESSOURCES
18090: CHANGING RESSOURCES
18110: CHANGING RESSOURCES
18123: CHANGING RESSOURCES

 + Terminating after 1000 timesteps with equal number of triangles -> EXIT
 + Final timestep: 6749

6750 TS (Timesteps)
715.114 ST (SIMULATION_TIME)
0.100037 TSS (Timestep size)
75.6167 SFS (Overall seconds for Simulation)
437983904 TP (Triangles processed)
0.0112025 ASPT (Averaged Seconds per Timestep)
64886.5 TPST (Triangles Processed in Average per Simulation Timestep)
48.6681 PPST (Clusters Processed in Average per Simulation Timestep)
5.79216 MTPS (Million Triangles per Second)
-5.79216 MTPSPT (Million Triangles per Second per Thread)
1.98018 EDMBPT (ElementData Megabyte per Timestep (RW))
176.763 EDMBPS (ElementData Megabyte per Second (RW))
SUM CLIENT SHUTDOWN HINT: 437.984
SUM CLIENT SHUTDOWN HINT DIV TIME: 0
18124: CHANGING RESSOURCES
18115: CHANGING RESSOURCES

 + Terminating after 1000 timesteps with equal number of triangles -> EXIT
 + Final timestep: 6749

6750 TS (Timesteps)
715.114 ST (SIMULATION_TIME)
0.100037 TSS (Timestep size)
75.7825 SFS (Overall seconds for Simulation)
437983904 TP (Triangles processed)
0.011227 ASPT (Averaged Seconds per Timestep)
64886.5 TPST (Triangles Processed in Average per Simulation Timestep)
48.6681 PPST (Clusters Processed in Average per Simulation Timestep)
5.77949 MTPS (Million Triangles per Second)
-5.77949 MTPSPT (Million Triangles per Second per Thread)
1.98018 EDMBPT (ElementData Megabyte per Timestep (RW))
176.376 EDMBPS (ElementData Megabyte per Second (RW))
SUM CLIENT SHUTDOWN HINT: 875.968
SUM CLIENT SHUTDOWN HINT DIV TIME: 0
18115: CHANGING RESSOURCES
18119: CHANGING RESSOURCES
18106: CHANGING RESSOURCES
18125: CHANGING RESSOURCES

 + Terminating after 1000 timesteps with equal number of triangles -> EXIT
 + Final timestep: 6749

6750 TS (Timesteps)
715.114 ST (SIMULATION_TIME)
0.100037 TSS (Timestep size)
77.2758 SFS (Overall seconds for Simulation)
437983904 TP (Triangles processed)
0.0114483 ASPT (Averaged Seconds per Timestep)
64886.5 TPST (Triangles Processed in Average per Simulation Timestep)
48.6681 PPST (Clusters Processed in Average per Simulation Timestep)
5.6678 MTPS (Million Triangles per Second)
-5.6678 MTPSPT (Million Triangles per Second per Thread)
1.98018 EDMBPT (ElementData Megabyte per Timestep (RW))
172.968 EDMBPS (ElementData Megabyte per Second (RW))
SUM CLIENT SHUTDOWN HINT: 1313.95
SUM CLIENT SHUTDOWN HINT DIV TIME: 0
18096: CHANGING RESSOURCES
18106: CHANGING RESSOURCES
18089: CHANGING RESSOURCES
18100: CHANGING RESSOURCES

 + Terminating after 1000 timesteps with equal number of triangles -> EXIT
 + Final timestep: 6749

6750 TS (Timesteps)
715.114 ST (SIMULATION_TIME)
0.100037 TSS (Timestep size)
105.939 SFS (Overall seconds for Simulation)
437983904 TP (Triangles processed)
0.0156947 ASPT (Averaged Seconds per Timestep)
64886.5 TPST (Triangles Processed in Average per Simulation Timestep)
48.6681 PPST (Clusters Processed in Average per Simulation Timestep)
4.13431 MTPS (Million Triangles per Second)
-4.13431 MTPSPT (Million Triangles per Second per Thread)
1.98018 EDMBPT (ElementData Megabyte per Timestep (RW))
126.169 EDMBPS (ElementData Megabyte per Second (RW))
SUM CLIENT SHUTDOWN HINT: 1751.94
SUM CLIENT SHUTDOWN HINT DIV TIME: 0
18096: CHANGING RESSOURCES
18111: CHANGING RESSOURCES
18090: CHANGING RESSOURCES
18102: CHANGING RESSOURCES

 + Terminating after 1000 timesteps with equal number of triangles -> EXIT
 + Final timestep: 6749

6750 TS (Timesteps)
715.114 ST (SIMULATION_TIME)
0.100037 TSS (Timestep size)
106.162 SFS (Overall seconds for Simulation)
437983904 TP (Triangles processed)
0.0157276 ASPT (Averaged Seconds per Timestep)
64886.5 TPST (Triangles Processed in Average per Simulation Timestep)
48.6681 PPST (Clusters Processed in Average per Simulation Timestep)
4.12563 MTPS (Million Triangles per Second)
-4.12563 MTPSPT (Million Triangles per Second per Thread)
1.98018 EDMBPT (ElementData Megabyte per Timestep (RW))
125.904 EDMBPS (ElementData Megabyte per Second (RW))
SUM CLIENT SHUTDOWN HINT: 2189.92
SUM CLIENT SHUTDOWN HINT DIV TIME: 0
18111: CHANGING RESSOURCES
18122: CHANGING RESSOURCES
18123: CHANGING RESSOURCES

 + Terminating after 1000 timesteps with equal number of triangles -> EXIT
 + Final timestep: 6749

6750 TS (Timesteps)
715.114 ST (SIMULATION_TIME)
0.100037 TSS (Timestep size)
108.41 SFS (Overall seconds for Simulation)
437983904 TP (Triangles processed)
0.0160608 ASPT (Averaged Seconds per Timestep)
64886.5 TPST (Triangles Processed in Average per Simulation Timestep)
48.6681 PPST (Clusters Processed in Average per Simulation Timestep)
4.04006 MTPS (Million Triangles per Second)
-4.04006 MTPSPT (Million Triangles per Second per Thread)
1.98018 EDMBPT (ElementData Megabyte per Timestep (RW))
123.293 EDMBPS (ElementData Megabyte per Second (RW))
SUM CLIENT SHUTDOWN HINT: 2627.9
SUM CLIENT SHUTDOWN HINT DIV TIME: 0
18099: CHANGING RESSOURCES
18120: CHANGING RESSOURCES
18110: CHANGING RESSOURCES
18101: CHANGING RESSOURCES
Waiting for job 18090

 + Terminating after 1000 timesteps with equal number of triangles -> EXIT
 + Final timestep: 6749

6750 TS (Timesteps)
715.114 ST (SIMULATION_TIME)
0.100037 TSS (Timestep size)
110.832 SFS (Overall seconds for Simulation)
437983904 TP (Triangles processed)
0.0164195 ASPT (Averaged Seconds per Timestep)
64886.5 TPST (Triangles Processed in Average per Simulation Timestep)
48.6681 PPST (Clusters Processed in Average per Simulation Timestep)
3.95179 MTPS (Million Triangles per Second)
-3.95179 MTPSPT (Million Triangles per Second per Thread)
1.98018 EDMBPT (ElementData Megabyte per Timestep (RW))
120.599 EDMBPS (ElementData Megabyte per Second (RW))
SUM CLIENT SHUTDOWN HINT: 3065.89
SUM CLIENT SHUTDOWN HINT DIV TIME: 0
18097: CHANGING RESSOURCES
18110: CHANGING RESSOURCES
18113: CHANGING RESSOURCES
18107: CHANGING RESSOURCES

 + Terminating after 1000 timesteps with equal number of triangles -> EXIT
 + Final timestep: 6749

6750 TS (Timesteps)
715.114 ST (SIMULATION_TIME)
0.100037 TSS (Timestep size)
111.985 SFS (Overall seconds for Simulation)
437983904 TP (Triangles processed)
0.0165903 ASPT (Averaged Seconds per Timestep)
64886.5 TPST (Triangles Processed in Average per Simulation Timestep)
48.6681 PPST (Clusters Processed in Average per Simulation Timestep)
3.9111 MTPS (Million Triangles per Second)
-3.9111 MTPSPT (Million Triangles per Second per Thread)
1.98018 EDMBPT (ElementData Megabyte per Timestep (RW))
119.357 EDMBPS (ElementData Megabyte per Second (RW))
SUM CLIENT SHUTDOWN HINT: 3503.87
SUM CLIENT SHUTDOWN HINT DIV TIME: 0
18117: CHANGING RESSOURCES
18103: CHANGING RESSOURCES

 + Terminating after 1000 timesteps with equal number of triangles -> EXIT
 + Final timestep: 6749

6750 TS (Timesteps)
715.114 ST (SIMULATION_TIME)
0.100037 TSS (Timestep size)
115.173 SFS (Overall seconds for Simulation)
437983904 TP (Triangles processed)
0.0170627 ASPT (Averaged Seconds per Timestep)
64886.5 TPST (Triangles Processed in Average per Simulation Timestep)
48.6681 PPST (Clusters Processed in Average per Simulation Timestep)
3.80283 MTPS (Million Triangles per Second)
-3.80283 MTPSPT (Million Triangles per Second per Thread)
1.98018 EDMBPT (ElementData Megabyte per Timestep (RW))
116.053 EDMBPS (ElementData Megabyte per Second (RW))
SUM CLIENT SHUTDOWN HINT: 3941.86
SUM CLIENT SHUTDOWN HINT DIV TIME: 0
18121: CHANGING RESSOURCES

 + Terminating after 1000 timesteps with equal number of triangles -> EXIT
 + Final timestep: 6749

6750 TS (Timesteps)
715.114 ST (SIMULATION_TIME)
0.100037 TSS (Timestep size)
120.843 SFS (Overall seconds for Simulation)
437983904 TP (Triangles processed)
0.0179026 ASPT (Averaged Seconds per Timestep)
64886.5 TPST (Triangles Processed in Average per Simulation Timestep)
48.6681 PPST (Clusters Processed in Average per Simulation Timestep)
3.62441 MTPS (Million Triangles per Second)
-3.62441 MTPSPT (Million Triangles per Second per Thread)
1.98018 EDMBPT (ElementData Megabyte per Timestep (RW))
110.608 EDMBPS (ElementData Megabyte per Second (RW))
SUM CLIENT SHUTDOWN HINT: 4379.84
SUM CLIENT SHUTDOWN HINT DIV TIME: 0
18109: CHANGING RESSOURCES
18095: CHANGING RESSOURCES
Waiting for job 18091
Waiting for job 18092

 + Terminating after 1000 timesteps with equal number of triangles -> EXIT
 + Final timestep: 6749

6750 TS (Timesteps)
715.114 ST (SIMULATION_TIME)
0.100037 TSS (Timestep size)
120.941 SFS (Overall seconds for Simulation)
437983904 TP (Triangles processed)
0.0179172 ASPT (Averaged Seconds per Timestep)
64886.5 TPST (Triangles Processed in Average per Simulation Timestep)
48.6681 PPST (Clusters Processed in Average per Simulation Timestep)
3.62146 MTPS (Million Triangles per Second)
-3.62146 MTPSPT (Million Triangles per Second per Thread)
1.98018 EDMBPT (ElementData Megabyte per Timestep (RW))
110.518 EDMBPS (ElementData Megabyte per Second (RW))
SUM CLIENT SHUTDOWN HINT: 4817.82
SUM CLIENT SHUTDOWN HINT DIV TIME: 0
18116: CHANGING RESSOURCES
18112: CHANGING RESSOURCES

 + Terminating after 1000 timesteps with equal number of triangles -> EXIT
 + Final timestep: 6749

6750 TS (Timesteps)
715.114 ST (SIMULATION_TIME)
0.100037 TSS (Timestep size)
121.047 SFS (Overall seconds for Simulation)
437983904 TP (Triangles processed)
0.0179329 ASPT (Averaged Seconds per Timestep)
64886.5 TPST (Triangles Processed in Average per Simulation Timestep)
48.6681 PPST (Clusters Processed in Average per Simulation Timestep)
3.61829 MTPS (Million Triangles per Second)
-3.61829 MTPSPT (Million Triangles per Second per Thread)
1.98018 EDMBPT (ElementData Megabyte per Timestep (RW))
110.422 EDMBPS (ElementData Megabyte per Second (RW))
SUM CLIENT SHUTDOWN HINT: 5255.81
SUM CLIENT SHUTDOWN HINT DIV TIME: 0
18108: CHANGING RESSOURCES
18098: CHANGING RESSOURCES

 + Terminating after 1000 timesteps with equal number of triangles -> EXIT
 + Final timestep: 6749

6750 TS (Timesteps)
715.114 ST (SIMULATION_TIME)
0.100037 TSS (Timestep size)
122.875 SFS (Overall seconds for Simulation)
437983904 TP (Triangles processed)
0.0182037 ASPT (Averaged Seconds per Timestep)
64886.5 TPST (Triangles Processed in Average per Simulation Timestep)
48.6681 PPST (Clusters Processed in Average per Simulation Timestep)
3.56446 MTPS (Million Triangles per Second)
-3.56446 MTPSPT (Million Triangles per Second per Thread)
1.98018 EDMBPT (ElementData Megabyte per Timestep (RW))
108.779 EDMBPS (ElementData Megabyte per Second (RW))
SUM CLIENT SHUTDOWN HINT: 5693.79
SUM CLIENT SHUTDOWN HINT DIV TIME: 0
18104: CHANGING RESSOURCES
18094: CHANGING RESSOURCES

 + Terminating after 1000 timesteps with equal number of triangles -> EXIT
 + Final timestep: 6749

6750 TS (Timesteps)
715.114 ST (SIMULATION_TIME)
0.100037 TSS (Timestep size)
124.116 SFS (Overall seconds for Simulation)
437983904 TP (Triangles processed)
0.0183875 ASPT (Averaged Seconds per Timestep)
64886.5 TPST (Triangles Processed in Average per Simulation Timestep)
48.6681 PPST (Clusters Processed in Average per Simulation Timestep)
3.52883 MTPS (Million Triangles per Second)
-3.52883 MTPSPT (Million Triangles per Second per Thread)
1.98018 EDMBPT (ElementData Megabyte per Timestep (RW))
107.691 EDMBPS (ElementData Megabyte per Second (RW))
SUM CLIENT SHUTDOWN HINT: 6131.77
SUM CLIENT SHUTDOWN HINT DIV TIME: 0
18118: CHANGING RESSOURCES
18114: CHANGING RESSOURCES

 + Terminating after 1000 timesteps with equal number of triangles -> EXIT
 + Final timestep: 6749

6750 TS (Timesteps)
715.114 ST (SIMULATION_TIME)
0.100037 TSS (Timestep size)
124.913 SFS (Overall seconds for Simulation)
437983904 TP (Triangles processed)
0.0185056 ASPT (Averaged Seconds per Timestep)
64886.5 TPST (Triangles Processed in Average per Simulation Timestep)
48.6681 PPST (Clusters Processed in Average per Simulation Timestep)
3.50631 MTPS (Million Triangles per Second)
-3.50631 MTPSPT (Million Triangles per Second per Thread)
1.98018 EDMBPT (ElementData Megabyte per Timestep (RW))
107.004 EDMBPS (ElementData Megabyte per Second (RW))
SUM CLIENT SHUTDOWN HINT: 6569.76
SUM CLIENT SHUTDOWN HINT DIV TIME: 0
18115: CHANGING RESSOURCES
18092: CHANGING RESSOURCES

 + Terminating after 1000 timesteps with equal number of triangles -> EXIT
 + Final timestep: 6749

6750 TS (Timesteps)
715.114 ST (SIMULATION_TIME)
0.100037 TSS (Timestep size)
126.682 SFS (Overall seconds for Simulation)
437983904 TP (Triangles processed)
0.0187677 ASPT (Averaged Seconds per Timestep)
64886.5 TPST (Triangles Processed in Average per Simulation Timestep)
48.6681 PPST (Clusters Processed in Average per Simulation Timestep)
3.45734 MTPS (Million Triangles per Second)
-3.45734 MTPSPT (Million Triangles per Second per Thread)
1.98018 EDMBPT (ElementData Megabyte per Timestep (RW))
105.51 EDMBPS (ElementData Megabyte per Second (RW))
SUM CLIENT SHUTDOWN HINT: 7007.74
SUM CLIENT SHUTDOWN HINT DIV TIME: 0
18111: CHANGING RESSOURCES

 + Terminating after 1000 timesteps with equal number of triangles -> EXIT
 + Final timestep: 6749

6750 TS (Timesteps)
715.114 ST (SIMULATION_TIME)
0.100037 TSS (Timestep size)
126.897 SFS (Overall seconds for Simulation)
437983904 TP (Triangles processed)
0.0187995 ASPT (Averaged Seconds per Timestep)
64886.5 TPST (Triangles Processed in Average per Simulation Timestep)
48.6681 PPST (Clusters Processed in Average per Simulation Timestep)
3.45149 MTPS (Million Triangles per Second)
-3.45149 MTPSPT (Million Triangles per Second per Thread)
1.98018 EDMBPT (ElementData Megabyte per Timestep (RW))
105.331 EDMBPS (ElementData Megabyte per Second (RW))
SUM CLIENT SHUTDOWN HINT: 7445.73
SUM CLIENT SHUTDOWN HINT DIV TIME: 0
18099: CHANGING RESSOURCES
18110: CHANGING RESSOURCES

 + Terminating after 1000 timesteps with equal number of triangles -> EXIT
 + Final timestep: 6749

6750 TS (Timesteps)
715.114 ST (SIMULATION_TIME)
0.100037 TSS (Timestep size)
127.437 SFS (Overall seconds for Simulation)
437983904 TP (Triangles processed)
0.0188796 ASPT (Averaged Seconds per Timestep)
64886.5 TPST (Triangles Processed in Average per Simulation Timestep)
48.6681 PPST (Clusters Processed in Average per Simulation Timestep)
3.43686 MTPS (Million Triangles per Second)
-3.43686 MTPSPT (Million Triangles per Second per Thread)
1.98018 EDMBPT (ElementData Megabyte per Timestep (RW))
104.885 EDMBPS (ElementData Megabyte per Second (RW))
SUM CLIENT SHUTDOWN HINT: 7883.71
SUM CLIENT SHUTDOWN HINT DIV TIME: 0
18108: CHANGING RESSOURCES
18116: CHANGING RESSOURCES

 + Terminating after 1000 timesteps with equal number of triangles -> EXIT
 + Final timestep: 6749

6750 TS (Timesteps)
715.114 ST (SIMULATION_TIME)
0.100037 TSS (Timestep size)
128.228 SFS (Overall seconds for Simulation)
437983904 TP (Triangles processed)
0.0189968 ASPT (Averaged Seconds per Timestep)
64886.5 TPST (Triangles Processed in Average per Simulation Timestep)
48.6681 PPST (Clusters Processed in Average per Simulation Timestep)
3.41565 MTPS (Million Triangles per Second)
-3.41565 MTPSPT (Million Triangles per Second per Thread)
1.98018 EDMBPT (ElementData Megabyte per Timestep (RW))
104.237 EDMBPS (ElementData Megabyte per Second (RW))
SUM CLIENT SHUTDOWN HINT: 8321.69
SUM CLIENT SHUTDOWN HINT DIV TIME: 0
18116: CHANGING RESSOURCES
18104: CHANGING RESSOURCES
18098: CHANGING RESSOURCES
18094: CHANGING RESSOURCES

 + Terminating after 1000 timesteps with equal number of triangles -> EXIT
 + Final timestep: 6749

6750 TS (Timesteps)
715.114 ST (SIMULATION_TIME)
0.100037 TSS (Timestep size)
128.615 SFS (Overall seconds for Simulation)
437983904 TP (Triangles processed)
0.0190541 ASPT (Averaged Seconds per Timestep)
64886.5 TPST (Triangles Processed in Average per Simulation Timestep)
48.6681 PPST (Clusters Processed in Average per Simulation Timestep)
3.40538 MTPS (Million Triangles per Second)
-3.40538 MTPSPT (Million Triangles per Second per Thread)
1.98018 EDMBPT (ElementData Megabyte per Timestep (RW))
103.924 EDMBPS (ElementData Megabyte per Second (RW))
SUM CLIENT SHUTDOWN HINT: 8759.68
SUM CLIENT SHUTDOWN HINT DIV TIME: 0
18115: CHANGING RESSOURCES
18114: CHANGING RESSOURCES

 + Terminating after 1000 timesteps with equal number of triangles -> EXIT
 + Final timestep: 6749

6750 TS (Timesteps)
715.114 ST (SIMULATION_TIME)
0.100037 TSS (Timestep size)
128.704 SFS (Overall seconds for Simulation)
437983904 TP (Triangles processed)
0.0190673 ASPT (Averaged Seconds per Timestep)
64886.5 TPST (Triangles Processed in Average per Simulation Timestep)
48.6681 PPST (Clusters Processed in Average per Simulation Timestep)
3.40302 MTPS (Million Triangles per Second)
-3.40302 MTPSPT (Million Triangles per Second per Thread)
1.98018 EDMBPT (ElementData Megabyte per Timestep (RW))
103.852 EDMBPS (ElementData Megabyte per Second (RW))
SUM CLIENT SHUTDOWN HINT: 9197.66
SUM CLIENT SHUTDOWN HINT DIV TIME: 0
18098: CHANGING RESSOURCES
18115: CHANGING RESSOURCES
18106: CHANGING RESSOURCES
18099: CHANGING RESSOURCES
18092: CHANGING RESSOURCES
18111: CHANGING RESSOURCES

 + Terminating after 1000 timesteps with equal number of triangles -> EXIT
 + Final timestep: 6749

6750 TS (Timesteps)
715.114 ST (SIMULATION_TIME)
0.100037 TSS (Timestep size)
129.929 SFS (Overall seconds for Simulation)
437983904 TP (Triangles processed)
0.0192487 ASPT (Averaged Seconds per Timestep)
64886.5 TPST (Triangles Processed in Average per Simulation Timestep)
48.6681 PPST (Clusters Processed in Average per Simulation Timestep)
3.37095 MTPS (Million Triangles per Second)
-3.37095 MTPSPT (Million Triangles per Second per Thread)
1.98018 EDMBPT (ElementData Megabyte per Timestep (RW))
102.873 EDMBPS (ElementData Megabyte per Second (RW))
SUM CLIENT SHUTDOWN HINT: 9635.65
SUM CLIENT SHUTDOWN HINT DIV TIME: 0
18121: CHANGING RESSOURCES
18115: CHANGING RESSOURCES
18110: CHANGING RESSOURCES
18095: CHANGING RESSOURCES

 + Terminating after 1000 timesteps with equal number of triangles -> EXIT
 + Final timestep: 6749

6750 TS (Timesteps)
715.114 ST (SIMULATION_TIME)
0.100037 TSS (Timestep size)
130.157 SFS (Overall seconds for Simulation)
437983904 TP (Triangles processed)
0.0192825 ASPT (Averaged Seconds per Timestep)
64886.5 TPST (Triangles Processed in Average per Simulation Timestep)
48.6681 PPST (Clusters Processed in Average per Simulation Timestep)
3.36504 MTPS (Million Triangles per Second)
-3.36504 MTPSPT (Million Triangles per Second per Thread)
1.98018 EDMBPT (ElementData Megabyte per Timestep (RW))
102.693 EDMBPS (ElementData Megabyte per Second (RW))
SUM CLIENT SHUTDOWN HINT: 10073.6
SUM CLIENT SHUTDOWN HINT DIV TIME: 0
18112: CHANGING RESSOURCES
18104: CHANGING RESSOURCES
18106: CHANGING RESSOURCES

 + Terminating after 1000 timesteps with equal number of triangles -> EXIT
 + Final timestep: 6749

6750 TS (Timesteps)
715.114 ST (SIMULATION_TIME)
0.100037 TSS (Timestep size)
130.34 SFS (Overall seconds for Simulation)
437983904 TP (Triangles processed)
0.0193096 ASPT (Averaged Seconds per Timestep)
64886.5 TPST (Triangles Processed in Average per Simulation Timestep)
48.6681 PPST (Clusters Processed in Average per Simulation Timestep)
3.36032 MTPS (Million Triangles per Second)
-3.36032 MTPSPT (Million Triangles per Second per Thread)
1.98018 EDMBPT (ElementData Megabyte per Timestep (RW))
102.549 EDMBPS (ElementData Megabyte per Second (RW))
SUM CLIENT SHUTDOWN HINT: 10511.6
SUM CLIENT SHUTDOWN HINT DIV TIME: 0
18104: CHANGING RESSOURCES
18116: CHANGING RESSOURCES

 + Terminating after 1000 timesteps with equal number of triangles -> EXIT
 + Final timestep: 6749

6750 TS (Timesteps)
715.114 ST (SIMULATION_TIME)
0.100037 TSS (Timestep size)
130.418 SFS (Overall seconds for Simulation)
437983904 TP (Triangles processed)
0.0193212 ASPT (Averaged Seconds per Timestep)
64886.5 TPST (Triangles Processed in Average per Simulation Timestep)
48.6681 PPST (Clusters Processed in Average per Simulation Timestep)
3.35831 MTPS (Million Triangles per Second)
-3.35831 MTPSPT (Million Triangles per Second per Thread)
1.98018 EDMBPT (ElementData Megabyte per Timestep (RW))
102.487 EDMBPS (ElementData Megabyte per Second (RW))
SUM CLIENT SHUTDOWN HINT: 10949.6
SUM CLIENT SHUTDOWN HINT DIV TIME: 0
18121: CHANGING RESSOURCES
18099: CHANGING RESSOURCES
18110: CHANGING RESSOURCES

 + Terminating after 1000 timesteps with equal number of triangles -> EXIT
 + Final timestep: 6749

6750 TS (Timesteps)
715.114 ST (SIMULATION_TIME)
0.100037 TSS (Timestep size)
130.488 SFS (Overall seconds for Simulation)
437983904 TP (Triangles processed)
0.0193316 ASPT (Averaged Seconds per Timestep)
64886.5 TPST (Triangles Processed in Average per Simulation Timestep)
48.6681 PPST (Clusters Processed in Average per Simulation Timestep)
3.3565 MTPS (Million Triangles per Second)
-3.3565 MTPSPT (Million Triangles per Second per Thread)
1.98018 EDMBPT (ElementData Megabyte per Timestep (RW))
102.432 EDMBPS (ElementData Megabyte per Second (RW))
SUM CLIENT SHUTDOWN HINT: 11387.6
SUM CLIENT SHUTDOWN HINT DIV TIME: 0
18114: CHANGING RESSOURCES
18095: CHANGING RESSOURCES
18116: CHANGING RESSOURCES
18094: CHANGING RESSOURCES

 + Terminating after 1000 timesteps with equal number of triangles -> EXIT
 + Final timestep: 6749

6750 TS (Timesteps)
715.114 ST (SIMULATION_TIME)
0.100037 TSS (Timestep size)
130.897 SFS (Overall seconds for Simulation)
437983904 TP (Triangles processed)
0.0193921 ASPT (Averaged Seconds per Timestep)
64886.5 TPST (Triangles Processed in Average per Simulation Timestep)
48.6681 PPST (Clusters Processed in Average per Simulation Timestep)
3.34603 MTPS (Million Triangles per Second)
-3.34603 MTPSPT (Million Triangles per Second per Thread)
1.98018 EDMBPT (ElementData Megabyte per Timestep (RW))
102.113 EDMBPS (ElementData Megabyte per Second (RW))
SUM CLIENT SHUTDOWN HINT: 11825.6
SUM CLIENT SHUTDOWN HINT DIV TIME: 0
18106: CHANGING RESSOURCES
18111: CHANGING RESSOURCES
18092: CHANGING RESSOURCES
18099: CHANGING RESSOURCES

 + Terminating after 1000 timesteps with equal number of triangles -> EXIT
 + Final timestep: 6749

6750 TS (Timesteps)
715.114 ST (SIMULATION_TIME)
0.100037 TSS (Timestep size)
131.056 SFS (Overall seconds for Simulation)
437983904 TP (Triangles processed)
0.0194157 ASPT (Averaged Seconds per Timestep)
64886.5 TPST (Triangles Processed in Average per Simulation Timestep)
48.6681 PPST (Clusters Processed in Average per Simulation Timestep)
3.34197 MTPS (Million Triangles per Second)
-3.34197 MTPSPT (Million Triangles per Second per Thread)
1.98018 EDMBPT (ElementData Megabyte per Timestep (RW))
101.989 EDMBPS (ElementData Megabyte per Second (RW))
SUM CLIENT SHUTDOWN HINT: 12263.5
SUM CLIENT SHUTDOWN HINT DIV TIME: 0
18095: CHANGING RESSOURCES
18116: CHANGING RESSOURCES

 + Terminating after 1000 timesteps with equal number of triangles -> EXIT
 + Final timestep: 6749

6750 TS (Timesteps)
715.114 ST (SIMULATION_TIME)
0.100037 TSS (Timestep size)
131.221 SFS (Overall seconds for Simulation)
437983904 TP (Triangles processed)
0.0194402 ASPT (Averaged Seconds per Timestep)
64886.5 TPST (Triangles Processed in Average per Simulation Timestep)
48.6681 PPST (Clusters Processed in Average per Simulation Timestep)
3.33775 MTPS (Million Triangles per Second)
-3.33775 MTPSPT (Million Triangles per Second per Thread)
1.98018 EDMBPT (ElementData Megabyte per Timestep (RW))
101.86 EDMBPS (ElementData Megabyte per Second (RW))
SUM CLIENT SHUTDOWN HINT: 12701.5
SUM CLIENT SHUTDOWN HINT DIV TIME: 0
18106: CHANGING RESSOURCES
18099: CHANGING RESSOURCES
18111: CHANGING RESSOURCES

 + Terminating after 1000 timesteps with equal number of triangles -> EXIT
 + Final timestep: 6749

6750 TS (Timesteps)
715.114 ST (SIMULATION_TIME)
0.100037 TSS (Timestep size)
131.242 SFS (Overall seconds for Simulation)
437983904 TP (Triangles processed)
0.0194432 ASPT (Averaged Seconds per Timestep)
64886.5 TPST (Triangles Processed in Average per Simulation Timestep)
48.6681 PPST (Clusters Processed in Average per Simulation Timestep)
3.33723 MTPS (Million Triangles per Second)
-3.33723 MTPSPT (Million Triangles per Second per Thread)
1.98018 EDMBPT (ElementData Megabyte per Timestep (RW))
101.844 EDMBPS (ElementData Megabyte per Second (RW))
SUM CLIENT SHUTDOWN HINT: 13139.5
SUM CLIENT SHUTDOWN HINT DIV TIME: 0
18106: CHANGING RESSOURCES
18111: CHANGING RESSOURCES

 + Terminating after 1000 timesteps with equal number of triangles -> EXIT
 + Final timestep: 6749

6750 TS (Timesteps)
715.114 ST (SIMULATION_TIME)
0.100037 TSS (Timestep size)
131.445 SFS (Overall seconds for Simulation)
437983904 TP (Triangles processed)
0.0194734 ASPT (Averaged Seconds per Timestep)
64886.5 TPST (Triangles Processed in Average per Simulation Timestep)
48.6681 PPST (Clusters Processed in Average per Simulation Timestep)
3.33206 MTPS (Million Triangles per Second)
-3.33206 MTPSPT (Million Triangles per Second per Thread)
1.98018 EDMBPT (ElementData Megabyte per Timestep (RW))
101.687 EDMBPS (ElementData Megabyte per Second (RW))
SUM CLIENT SHUTDOWN HINT: 13577.5
SUM CLIENT SHUTDOWN HINT DIV TIME: 0
18106: CHANGING RESSOURCES
18110: CHANGING RESSOURCES
18092: CHANGING RESSOURCES
18111: CHANGING RESSOURCES

 + Terminating after 1000 timesteps with equal number of triangles -> EXIT
 + Final timestep: 6749

6750 TS (Timesteps)
715.114 ST (SIMULATION_TIME)
0.100037 TSS (Timestep size)
131.466 SFS (Overall seconds for Simulation)
437983904 TP (Triangles processed)
0.0194765 ASPT (Averaged Seconds per Timestep)
64886.5 TPST (Triangles Processed in Average per Simulation Timestep)
48.6681 PPST (Clusters Processed in Average per Simulation Timestep)
3.33153 MTPS (Million Triangles per Second)
-3.33153 MTPSPT (Million Triangles per Second per Thread)
1.98018 EDMBPT (ElementData Megabyte per Timestep (RW))
101.67 EDMBPS (ElementData Megabyte per Second (RW))
SUM CLIENT SHUTDOWN HINT: 14015.5
SUM CLIENT SHUTDOWN HINT DIV TIME: 0
18110: CHANGING RESSOURCES
18092: CHANGING RESSOURCES
18099: CHANGING RESSOURCES
18094: CHANGING RESSOURCES

 + Terminating after 1000 timesteps with equal number of triangles -> EXIT
 + Final timestep: 6749

6750 TS (Timesteps)
715.114 ST (SIMULATION_TIME)
0.100037 TSS (Timestep size)
132.091 SFS (Overall seconds for Simulation)
437983904 TP (Triangles processed)
0.0195691 ASPT (Averaged Seconds per Timestep)
64886.5 TPST (Triangles Processed in Average per Simulation Timestep)
48.6681 PPST (Clusters Processed in Average per Simulation Timestep)
3.31577 MTPS (Million Triangles per Second)
-3.31577 MTPSPT (Million Triangles per Second per Thread)
1.98018 EDMBPT (ElementData Megabyte per Timestep (RW))
101.189 EDMBPS (ElementData Megabyte per Second (RW))
SUM CLIENT SHUTDOWN HINT: 14453.5
SUM CLIENT SHUTDOWN HINT DIV TIME: 0
18110: CHANGING RESSOURCES
18111: CHANGING RESSOURCES

 + Terminating after 1000 timesteps with equal number of triangles -> EXIT
 + Final timestep: 6749

6750 TS (Timesteps)
715.114 ST (SIMULATION_TIME)
0.100037 TSS (Timestep size)
132.91 SFS (Overall seconds for Simulation)
437983904 TP (Triangles processed)
0.0196904 ASPT (Averaged Seconds per Timestep)
64886.5 TPST (Triangles Processed in Average per Simulation Timestep)
48.6681 PPST (Clusters Processed in Average per Simulation Timestep)
3.29535 MTPS (Million Triangles per Second)
-3.29535 MTPSPT (Million Triangles per Second per Thread)
1.98018 EDMBPT (ElementData Megabyte per Timestep (RW))
100.566 EDMBPS (ElementData Megabyte per Second (RW))
SUM CLIENT SHUTDOWN HINT: 14891.5
SUM CLIENT SHUTDOWN HINT DIV TIME: 0
18099: CHANGING RESSOURCES
Waiting for job 18093
Waiting for job 18094
Waiting for job 18095
Waiting for job 18096
Waiting for job 18097
Waiting for job 18098
Waiting for job 18099

 + Terminating after 1000 timesteps with equal number of triangles -> EXIT
 + Final timestep: 6749

6750 TS (Timesteps)
715.114 ST (SIMULATION_TIME)
0.100037 TSS (Timestep size)
133.07 SFS (Overall seconds for Simulation)
437983904 TP (Triangles processed)
0.019714 ASPT (Averaged Seconds per Timestep)
64886.5 TPST (Triangles Processed in Average per Simulation Timestep)
48.6681 PPST (Clusters Processed in Average per Simulation Timestep)
3.29139 MTPS (Million Triangles per Second)
-3.29139 MTPSPT (Million Triangles per Second per Thread)
1.98018 EDMBPT (ElementData Megabyte per Timestep (RW))
100.445 EDMBPS (ElementData Megabyte per Second (RW))
SUM CLIENT SHUTDOWN HINT: 15329.4
SUM CLIENT SHUTDOWN HINT DIV TIME: 0
18111: CHANGING RESSOURCES
18099: CHANGING RESSOURCES

 + Terminating after 1000 timesteps with equal number of triangles -> EXIT
 + Final timestep: 6749

6750 TS (Timesteps)
715.114 ST (SIMULATION_TIME)
0.100037 TSS (Timestep size)
133.214 SFS (Overall seconds for Simulation)
437983904 TP (Triangles processed)
0.0197353 ASPT (Averaged Seconds per Timestep)
64886.5 TPST (Triangles Processed in Average per Simulation Timestep)
48.6681 PPST (Clusters Processed in Average per Simulation Timestep)
3.28783 MTPS (Million Triangles per Second)
-3.28783 MTPSPT (Million Triangles per Second per Thread)
1.98018 EDMBPT (ElementData Megabyte per Timestep (RW))
100.337 EDMBPS (ElementData Megabyte per Second (RW))
SUM CLIENT SHUTDOWN HINT: 15767.4
SUM CLIENT SHUTDOWN HINT DIV TIME: 0
18111: CHANGING RESSOURCES
Waiting for job 18100
Waiting for job 18101
Waiting for job 18102
Waiting for job 18103
Waiting for job 18104
Waiting for job 18105
Waiting for job 18106
Waiting for job 18107
Waiting for job 18108
Waiting for job 18109
Waiting for job 18110
Waiting for job 18111

 + Terminating after 1000 timesteps with equal number of triangles -> EXIT
 + Final timestep: 6749

6750 TS (Timesteps)
715.114 ST (SIMULATION_TIME)
0.100037 TSS (Timestep size)
133.761 SFS (Overall seconds for Simulation)
437983904 TP (Triangles processed)
0.0198165 ASPT (Averaged Seconds per Timestep)
64886.5 TPST (Triangles Processed in Average per Simulation Timestep)
48.6681 PPST (Clusters Processed in Average per Simulation Timestep)
3.27437 MTPS (Million Triangles per Second)
-3.27437 MTPSPT (Million Triangles per Second per Thread)
1.98018 EDMBPT (ElementData Megabyte per Timestep (RW))
99.9259 EDMBPS (ElementData Megabyte per Second (RW))
SUM CLIENT SHUTDOWN HINT: 16205.4
SUM CLIENT SHUTDOWN HINT DIV TIME: 121.18
Waiting for job 18112
Waiting for job 18113
Waiting for job 18114
Waiting for job 18115
Waiting for job 18116
Waiting for job 18117
Waiting for job 18118
Waiting for job 18119
Waiting for job 18120
Waiting for job 18121
Waiting for job 18122
Waiting for job 18123
Waiting for job 18124
Waiting for job 18125
Sat Mar 31 16:05:35 CEST 2012
Seconds: 134
