%%MatrixMarket matrix array complex general
10 4
0.212646651 0
-0.00299872674 0
-0.202946344 0
0.130677343 0
0.348981843 0
0.277839175 0
-0.332189611 0
0.369693229 0
0.559247634 0
0.338410279 0
0.212646651 0
0.303726505 0
0.047493759 0
-0.265303228 0
0.171893948 0
0.494726667 0
0.580205678 0
0.0896926798 0
0.382159734 0
0.0404405272 0
0.113425926 0
-0.126996113 0
0.0968060028 0
-0.0371452737 0
0.258545002 0
-0.20672312 0
0.098010786 0
0.380412113 0
-0.225770642 0
0.483655252 0
0.113425926 0
0.287404596 0
0.435162765 0
0.49784374 0
0.0192906411 0
0.0863024317 0
0.218747417 0
0.00211775322 0
0.0134837185 0
0.000200893976 0
