%%MatrixMarket matrix array complex general
4 10
1.41421356 0
1.41421356 0
1.41421356 0
1.41421356 0
-2 0
-2 0
-2 0
-2 0
2.44948974 0
2.44948974 0
2.44948974 0
2.44948974 0
-2.82842712 0
-2.82842712 0
-2.82842712 0
-2.82842712 0
-1.17772888 0
1.17772888 0
-2.98306369 0
2.98306369 0
1.44241741 0
-1.44241741 0
3.65349195 0
-3.65349195 0
-1.66556016 0
1.66556016 0
-4.21868912 0
4.21868912 0
-1.78896778 0
-1.78896778 0
3.35388936 0
3.35388938 0
2.06572206 0
2.06572205 0
-3.87273785 0
-3.87273787 0
3.08109024 0
-3.08109023 0
-2.2805176 0
2.28051758 0
