0	0
11.4345	0
22.8689	0
34.3031	0
40.0202	0
51.4544	0
62.8884	0
74.3225	0
80.0395	0
91.436	0
102.87	0
114.222	0
125.433	-9.09495e-13
131.038	-1.81899e-12
142.249	-3.63798e-12
153.46	-6.36646e-12
164.67	-1.00044e-11
170.275	-1.27329e-11
181.486	-1.90994e-11
192.696	-2.72848e-11
203.877	-3.72893e-11
215.058	-5.09317e-11
220.648	-5.91172e-11
231.828	-8.00355e-11
243.009	-1.06411e-10
254.189	-1.39153e-10
265.37	-1.80989e-10
270.96	-2.05546e-10
282.141	-2.62844e-10
293.321	-3.33785e-10
304.501	-4.19277e-10
310.091	-4.6839e-10
321.272	-5.82077e-10
332.452	-7.17591e-10
343.538	-8.76753e-10
354.624	-1.06411e-09
360.167	-1.16961e-09
371.253	-1.40608e-09
382.356	-1.68166e-09
393.459	-1.99998e-09
404.431	-2.36014e-09
415.245	-2.76486e-09
420.652	-2.98678e-09
431.467	-3.47245e-09
442.281	-4.01906e-09
453.095	-4.63024e-09
463.909	-5.31054e-09
474.624	-6.05723e-09
485.295	-6.87669e-09
490.631	-7.31507e-09
501.29	-8.25094e-09
511.937	-9.27139e-09
522.584	-1.03828e-08
533.206	-1.15888e-08
543.828	-1.29021e-08
554.449	-1.43309e-08
565.071	-1.58861e-08
570.382	-1.67138e-08
581.004	-1.84746e-08
591.625	-2.03827e-08
602.247	-2.24491e-08
612.869	-2.46855e-08
623.49	-2.71057e-08
634.112	-2.97287e-08
644.733	-3.25708e-08
650.044	-3.40806e-08
660.665	-3.72911e-08
671.287	-4.07745e-08
681.884	-4.45434e-08
692.481	-4.86298e-08
703.077	-5.30563e-08
713.674	-5.78493e-08
724.271	-6.30316e-08
734.868	-6.86277e-08
740.166	-7.15881e-08
750.763	-7.78491e-08
761.359	-8.45821e-08
771.956	-9.18117e-08
782.553	-9.95569e-08
793.149	-1.07838e-07
803.746	-1.16673e-07
814.342	-1.26077e-07
824.939	-1.36063e-07
830.237	-1.41278e-07
840.834	-1.52157e-07
851.43	-1.63637e-07
862.026	-1.7572e-07
872.623	-1.88399e-07
883.219	-2.01667e-07
893.815	-2.15507e-07
904.412	-2.29897e-07
915.008	-2.44808e-07
920.306	-2.52448e-07
930.902	-2.68068e-07
941.498	-2.84103e-07
952.095	-3.00498e-07
962.691	-3.17189e-07
973.287	-3.34105e-07
983.883	-3.51166e-07
994.479	-3.68288e-07
1005.08	-3.85375e-07
1010.37	-3.93873e-07
1020.97	-4.10711e-07
1031.57	-4.2724e-07
1042.16	-4.43327e-07
1052.76	-4.58831e-07
1063.35	-4.73596e-07
1073.95	-4.87449e-07
1084.55	-5.00202e-07
1095.14	-5.1165e-07
1100.44	-5.16815e-07
1111.03	-5.25878e-07
1121.63	-5.33038e-07
1132.23	-5.38022e-07
1142.82	-5.4053e-07
1153.42	-5.40243e-07
1164.01	-5.36815e-07
1174.61	-5.29874e-07
1185.21	-5.19024e-07
1190.5	-5.12001e-07
1201.1	-4.94479e-07
1211.69	-4.71927e-07
1222.29	-4.43842e-07
1232.89	-4.09688e-07
1243.48	-3.68897e-07
1254.08	-3.20862e-07
1264.67	-2.64768e-07
1275.24	-1.99532e-07
1280.51	-1.6331e-07
1291.05	-8.31787e-08
1301.59	7.49878e-09
1312.13	1.09001e-07
1322.67	2.2156e-07
1333.21	3.45385e-07
1343.75	4.80686e-07
1354.29	6.2769e-07
1364.83	7.86657e-07
1370.1	8.70721e-07
1380.64	1.04823e-06
1391.17	1.23833e-06
1401.68	1.44145e-06
1412.16	1.65772e-06
1422.67	1.88904e-06
1433.18	2.13554e-06
1443.66	2.39724e-06
1454.17	2.67663e-06
1464.69	2.97399e-06
1475.2	3.29049e-06
1480.45	3.4563e-06
1490.97	3.8039e-06
1501.48	4.17403e-06
1511.99	4.56825e-06
1522.5	4.98824e-06
1532.91	5.4316e-06
1543.25	5.90033e-06
1553.59	6.39958e-06
1563.92	6.93143e-06
1574.26	7.49806e-06
1584.59	8.1018e-06
1594.93	8.74507e-06
1600.1	9.08233e-06
1610.43	9.78971e-06
1620.77	1.05432e-05
1631.1	1.13457e-05
1641.44	1.21995e-05
1651.77	1.31068e-05
1662.11	1.40695e-05
1672.44	1.50894e-05
1682.78	1.61679e-05
1693.11	1.73066e-05
1703.45	1.8507e-05
1713.78	1.97706e-05
1724.12	2.10988e-05
1734.46	2.24933e-05
1744.79	2.39556e-05
1755.13	2.54876e-05
1760.29	2.62803e-05
1770.63	2.79203e-05
1780.96	2.96349e-05
1791.3	3.14265e-05
1801.63	3.32974e-05
1811.97	3.52503e-05
1822.3	3.72881e-05
1832.64	3.94138e-05
1842.97	4.1631e-05
1853.31	4.39431e-05
1863.64	4.6354e-05
1873.98	4.88678e-05
1884.31	5.14889e-05
1894.65	5.42216e-05
1904.98	5.70709e-05
1910.15	5.85407e-05
1920.49	6.1574e-05
1930.82	6.47367e-05
1941.16	6.80342e-05
1951.49	7.14723e-05
1961.83	7.50571e-05
1972.16	7.8795e-05
1982.5	7.9824e-05
1992.83	7.82731e-05
2003.17	7.70315e-05
2013.5	7.60762e-05
2023.84	7.53873e-05
2034.17	7.49468e-05
2044.51	7.47387e-05
2054.84	7.47482e-05
2060.01	7.48304e-05
2070.34	7.51422e-05
2080.68	7.56419e-05
2091.01	7.63203e-05
2101.35	7.71695e-05
2111.68	7.81829e-05
2122.01	7.93552e-05
2132.35	8.06822e-05
2142.68	8.21606e-05
2153.02	8.37883e-05
2163.35	8.55641e-05
2173.69	8.74877e-05
2184.02	8.95595e-05
2194.36	9.17809e-05
2204.69	9.4154e-05
2215.03	9.66816e-05
2220.19	9.80044e-05
2230.53	0.00010077
2240.86	0.0001037
2251.2	0.0001068
2261.53	0.000110074
2271.86	0.000113528
2282.2	0.000117169
2292.53	0.000121004
2302.87	0.000125039
2313.2	0.000129282
2323.54	0.000133741
2333.87	0.000138425
2344.21	0.000143341
2354.54	0.000148499
2364.87	0.000153914
2370.04	0.000156711
2380.38	0.000162476
2390.71	0.000168451
2401.05	0.000174626
2411.38	0.000180991
2421.71	0.000187542
2432.05	0.000194276
2442.38	0.000201192
2452.72	0.000208295
2463.05	0.000215587
2473.39	0.000223076
2483.72	0.000230768
2494.06	0.000238674
2504.39	0.000246805
2514.73	0.000255172
2525.06	0.00026379
2530.23	0.000268198
2540.56	0.000277221
2550.9	0.000286536
2561.23	0.00029616
2571.57	0.000306115
2581.9	0.00031642
2592.24	0.000327096
2602.57	0.000338163
2612.91	0.000349642
2623.24	0.000361553
2633.58	0.000373915
2643.91	0.000386747
2654.25	0.00040007
2664.58	0.000413903
2674.92	0.000428267
2680.09	0.000435655
2690.42	0.000450856
2700.76	0.000466644
2711.09	0.000483044
2721.43	0.000500082
2731.76	0.000541612
2742.1	0.00058312
2752.43	0.000624402
2762.77	0.000665353
2773.13	0.000706014
2783.48	0.000746319
2793.84	0.000786323
2804.19	0.000826114
2814.55	0.000865803
2824.9	0.000905522
2830.08	0.000925438
2840.44	0.000965478
2850.79	0.00100593
2861.15	0.00104696
2871.5	0.00108874
2881.86	0.00113144
2892.22	0.00117523
2902.57	0.00122027
2912.93	0.00126674
2923.28	0.00131479
2933.64	0.00136443
2943.99	0.00141539
2954.35	0.00146747
2964.7	0.00152057
2975.06	0.00157468
2980.24	0.00160212
2990.59	0.00165783
3000.95	0.00171474
3011.3	0.00177303
3021.66	0.0018329
3032.01	0.00189462
3042.37	0.00195846
3052.72	0.00202471
3063.08	0.00209365
3073.43	0.00216554
3083.79	0.00224065
3094.14	0.00231922
3104.5	0.00240153
3114.85	0.00259107
3120.03	0.00268218
3130.39	0.00285688
3140.74	0.00302258
3151.1	0.00318149
3161.45	0.00333637
3171.81	0.00349014
3182.16	0.00364569
3192.52	0.00380572
3202.87	0.00397276
3213.23	0.00414834
3223.58	0.00433014
3233.94	0.00451727
3244.29	0.00471028
3254.65	0.00491078
3265	0.00512133
3270.18	0.00523136
3280.53	0.00546294
3290.89	0.00583721
3301.25	0.00633244
3311.6	0.0068087
3321.96	0.00727128
3332.31	0.00774197
3342.67	0.00824213
3353.02	0.00878294
3363.38	0.00934463
3373.73	0.00993414
3384.09	0.0105806
3394.44	0.0119609
3404.8	0.0130885
3415.15	0.0142756
3420.33	0.0149893
3430.68	0.0165729
3441.04	0.0197415
3451.4	0.0228865
3461.75	0.0266685
3472.11	0.0312088
3482.46	0.0358366
3492.82	0.0398618
3503.17	0.043568
3513.53	0.0473909
3523.88	0.0512871
3534.24	0.0552526
3544.6	0.0593658
3554.95	0.0636221
3560.13	0.0657749
3570.48	0.0700742
3580.84	0.0743533
3591.2	0.078652
3601.55	0.0830205
3611.91	0.087507
3622.26	0.0921477
3632.62	0.0969343
3642.98	0.101816
3653.33	0.106739
3663.69	0.111674
3674.04	0.116617
3684.4	0.121579
3694.78	0.126596
3705.17	0.131678
3710.36	0.13425
3720.74	0.139453
3731.13	0.144727
3741.51	0.150056
3751.9	0.155424
3762.28	0.160831
3772.66	0.166285
3783.05	0.1718
3793.43	0.177385
3803.82	0.183038
3814.2	0.188748
3824.59	0.194497
3834.97	0.200272
3840.16	0.203167
3850.55	0.208974
3860.93	0.214817
3871.32	0.220715
3881.7	0.226687
3892.08	0.232751
3902.47	0.238921
3912.85	0.245207
3923.24	0.251622
3933.62	0.258182
3944.01	0.264907
3954.39	0.271822
3964.78	0.278952
3975.16	0.286321
3980.35	0.290102
3990.74	0.297871
4001.12	0.305931
4011.51	0.314304
4021.89	0.323015
4032.28	0.332093
4042.66	0.341571
4053.05	0.351486
4063.43	0.361875
4073.82	0.372774
4084.2	0.38422
4094.59	0.396248
4104.98	0.408889
4110.17	0.415448
4120.64	0.429174
4131.11	0.443592
4141.59	0.458723
4152.06	0.474583
4162.53	0.491182
4173.07	0.508631
4183.61	0.526824
4194.15	0.545745
4204.69	0.565385
4215.24	0.585698
4220.51	0.596093
4231.06	0.617328
4241.6	0.639103
4252.15	0.661339
4262.7	0.683945
4273.24	0.706812
4283.79	0.729815
4294.33	0.752814
4304.88	0.775648
4310.15	0.786949
4320.7	0.809202
4331.25	0.830818
4341.79	0.851581
4352.34	0.871258
4362.88	0.889603
4373.43	0.906362
4383.98	0.921269
4394.52	0.934056
4405.07	0.944449
4410.34	0.948663
4420.89	0.954954
4431.44	0.958174
4441.98	0.958062
4452.53	0.954368
4463.08	0.946857
4473.62	0.935311
4484.17	0.919535
4494.71	0.89936
4505.26	0.874647
4510.53	0.860553
4521.08	0.828842
4531.63	0.792391
4542.17	0.751183
4552.72	0.705237
4563.27	0.654605
4573.81	0.59937
4584.36	0.539631
4594.91	0.475491
4600.18	0.441792
4610.73	0.371172
4621.27	0.296502
4631.87	0.217096
4642.47	0.135299
4653.06	0.0449147
4663.66	-0.0279862
4674.26	-0.0999974
4684.85	-0.151822
4690.15	-0.165924
4700.75	-0.198081
4711.35	-0.214644
4721.94	-0.236679
4732.54	-0.26088
4743.13	-0.280439
4753.73	-0.296846
4764.33	-0.311577
4774.92	-0.324353
4780.22	-0.330282
4790.82	-0.341393
4801.42	-0.351562
4812.01	-0.34127
4822.61	-0.34968
4833.21	-0.356234
4843.8	-0.366036
4854.4	-0.37402
4864.99	-0.380619
4870.29	-0.383507
4880.89	-0.388664
4891.44	-0.393177
4902	-0.397251
4912.55	-0.400624
4923.09	-0.403658
4933.63	-0.406441
4944.17	-0.409174
4954.71	-0.411799
4965.25	-0.41427
4970.52	-0.415438
4981.06	-0.417625
4991.6	-0.419606
5002.14	-0.42138
5012.68	-0.411242
5023.22	-0.413013
5033.76	-0.41502
5044.3	-0.417128
5054.84	-0.419072
5060.11	-0.419924
5070.65	-0.421349
5081.16	-0.422443
5091.64	-0.423252
5102.12	-0.423819
5112.63	-0.424168
5123.14	-0.424304
5133.62	-0.424252
5144.14	-0.424037
5154.65	-0.42368
5165.16	-0.423201
5170.42	-0.422921
5180.93	-0.422288
5191.44	-0.421568
5201.95	-0.420754
5212.45	-0.419872
5222.95	-0.418954
5233.29	-0.418027
5243.63	-0.416956
5253.96	-0.415752
5264.3	-0.414525
5274.63	-0.413273
5284.97	-0.411994
5290.13	-0.411344
5300.47	-0.410021
5310.81	-0.408666
5321.14	-0.407278
5331.48	-0.405857
5341.81	-0.404402
5352.15	-0.402916
5362.48	-0.401399
5372.82	-0.399847
5383.15	-0.398243
5393.49	-0.396601
5403.82	-0.388932
5414.16	-0.388031
5424.5	-0.387109
5434.83	-0.386167
5445.17	-0.385203
5450.33	-0.384714
5460.67	-0.383721
5471	-0.382706
5481.34	-0.381672
5491.68	-0.380626
5502.01	-0.379573
5512.35	-0.378515
5522.68	-0.377457
5533.02	-0.376399
5543.35	-0.375344
5553.69	-0.374292
5564.02	-0.373244
5574.36	-0.372199
5584.69	-0.371158
5595.03	-0.370119
5600.2	-0.369599
5610.53	-0.368559
5620.87	-0.367513
5631.2	-0.366459
5641.54	-0.365391
5651.87	-0.364307
5662.21	-0.363203
5672.54	-0.362075
5682.88	-0.360919
5693.22	-0.359732
5703.55	-0.358511
5713.89	-0.357252
5724.22	-0.355953
5734.56	-0.354611
5744.89	-0.353223
5750.06	-0.352511
5760.39	-0.351119
5770.73	-0.349726
5781.07	-0.348257
5791.4	-0.346717
5801.74	-0.345107
5812.07	-0.343428
5822.41	-0.34168
5832.74	-0.339724
5843.08	-0.337704
5853.41	-0.336035
5863.75	-0.334661
5874.08	-0.333169
5884.42	-0.331574
5894.75	-0.329891
5905.09	-0.328127
5910.26	-0.327218
5920.59	-0.325348
5930.93	-0.323411
5941.26	-0.32141
5951.6	-0.319346
5961.93	-0.317221
5972.27	-0.315035
5982.6	-0.312788
5992.94	-0.310479
6003.27	-0.308109
6013.61	-0.305678
6023.94	-0.303186
6034.28	-0.300632
6044.62	-0.298019
6054.95	-0.295345
6060.12	-0.293986
6070.45	-0.291224
6080.79	-0.288406
6091.12	-0.285542
6101.46	-0.282644
6111.79	-0.279722
6122.13	-0.276782
6132.47	-0.273828
6142.8	-0.270858
6153.14	-0.267861
6163.47	-0.264841
6173.81	-0.261799
6184.14	-0.258736
6194.48	-0.255651
6204.81	-0.252542
6215.15	-0.249407
6220.32	-0.247829
6230.65	-0.244651
6240.99	-0.241443
6251.32	-0.238205
6261.66	-0.234934
6271.99	-0.229504
6282.33	-0.224179
6292.66	-0.219006
6303	-0.213993
6313.33	-0.209124
6323.67	-0.20437
6334	-0.199696
6344.34	-0.195065
6354.68	-0.190444
6365.01	-0.185801
6370.18	-0.183463
6380.51	-0.178741
6390.85	-0.17395
6401.18	-0.169142
6411.52	-0.164341
6421.86	-0.159548
6432.19	-0.154747
6442.53	-0.149907
6452.86	-0.144996
6463.2	-0.139983
6473.53	-0.130707
6483.87	-0.121938
6494.2	-0.113676
6504.54	-0.105699
6514.87	-0.097768
6520.04	-0.0937632
6530.38	-0.0855997
6540.71	-0.0773383
6551.05	-0.0692086
6561.38	-0.0611355
6571.72	-0.0496028
6582.06	-0.0367785
6592.39	-0.0257947
6602.73	-0.0139825
6613.06	-0.00137877
6623.4	0.0190824
6633.73	0.0380772
6644.09	0.0585544
6654.45	0.0793663
6664.8	0.0959666
6675.16	0.106355
6680.33	0.109635
6690.69	0.114966
6701.05	0.119171
6711.4	0.122063
6721.76	0.124294
6732.11	0.126569
6742.47	0.12888
6752.83	0.130659
6763.18	0.131576
6773.54	0.131805
6783.89	0.131814
6794.25	0.132064
6804.61	0.132882
6814.96	0.134341
6820.14	0.135238
6830.49	0.137088
6840.85	0.138643
6851.21	0.139634
6861.56	0.140003
6871.92	0.139833
6882.27	0.139272
6892.63	0.138499
6902.99	0.137686
6913.34	0.136937
6923.7	0.136259
6934.05	0.135598
6944.41	0.134913
6954.76	0.134228
6965.12	0.133631
6970.3	0.133401
6980.65	0.133122
6991.01	0.133066
7001.37	0.133113
7011.72	0.13306
7022.08	0.132694
7032.43	0.131868
7042.79	0.130548
7053.15	0.128812
7063.5	0.126805
7073.86	0.124692
7084.21	0.122595
7094.57	0.120579
7104.92	0.118654
7110.1	0.11772
7120.46	0.115899
7130.81	0.11414
7141.17	0.112474
7151.53	0.110958
7161.88	0.109661
7172.24	0.108642
7182.59	0.10793
7192.95	0.10751
7203.31	0.107333
7213.66	0.10733
7224.02	0.107432
7234.37	0.10759
7244.73	0.107782
7255.08	0.10801
7260.26	0.108144
7270.62	0.108464
7280.97	0.108876
7291.33	0.1094
7301.69	0.110046
7312.04	0.110815
7322.4	0.111698
7332.75	0.112678
7343.11	0.113729
7353.47	0.114818
7363.82	0.11591
7374.18	0.116966
7384.53	0.117948
7394.89	0.118826
7400.07	0.119218
7410.42	0.119897
7420.78	0.120431
7431.14	0.120821
7441.49	0.121075
7451.86	0.121209
7462.25	0.121243
7472.63	0.121203
7483.02	0.121116
7493.4	0.121014
7503.79	0.120927
7514.17	0.120882
7524.56	0.120895
7534.94	0.120975
7540.13	0.121039
7550.52	0.12121
7560.9	0.121427
7571.29	0.121671
7581.67	0.121929
7592.06	0.122191
7602.44	0.122455
7612.83	0.12273
7623.21	0.123028
7633.6	0.123368
7643.98	0.123769
7654.37	0.124245
7664.75	0.124809
7675.14	0.125461
7680.33	0.125819
7690.71	0.126588
7701.1	0.12741
7711.48	0.128253
7721.87	0.12908
7732.25	0.12985
7742.64	0.130518
7753.02	0.131045
7763.41	0.131398
7773.79	0.13155
7784.18	0.131488
7794.56	0.131207
7804.95	0.130713
7810.14	0.130392
7820.52	0.129611
7830.91	0.128669
7841.29	0.127594
7851.68	0.126416
7862.06	0.125161
7872.45	0.123856
7882.83	0.122522
7893.22	0.121176
7903.6	0.119831
7913.99	0.118494
7924.37	0.11717
7934.76	0.115862
7945.14	0.114571
7950.34	0.113932
7960.72	0.112671
7971.11	0.111434
7981.49	0.110226
7991.88	0.109053
8002.26	0.107922
8012.65	0.106839
8023.03	0.105811
8033.42	0.10484
8043.8	0.103926
8054.19	0.103064
8064.57	0.102247
8074.96	0.101462
8080.15	0.101077
8090.53	0.100309
8100.92	0.0995289
8111.3	0.0987147
8121.69	0.0978452
8132.07	0.0968999
8142.46	0.0958603
8152.84	0.0947108
8163.23	0.0934393
8173.61	0.0920378
8184	0.0905027
8194.38	0.0888341
8204.77	0.0870359
8215.15	0.0851149
8220.34	0.0841112
8230.73	0.0820238
8241.11	0.0798393
8251.5	0.0775693
8261.89	0.0752253
8272.27	0.0728181
8282.66	0.0703572
8293.04	0.067852
8303.43	0.0653103
8313.82	0.0627387
8324.29	0.0601218
8334.76	0.0574852
8345.23	0.0548329
8350.47	0.0535017
8360.94	0.0508304
8371.41	0.0481473
8381.88	0.0454509
8392.35	0.0427368
8402.83	0.0399969
8413.3	0.0372182
8423.77	0.0343807
8434.24	0.031455
8444.71	0.0283994
8455.18	0.0251569
8460.42	0.0234426
8470.89	0.0197089
8481.36	0.015353
8491.84	0.00820601
8502.31	-0.00144001
8512.78	-0.00868385
8523.25	-0.0142705
8533.71	-0.0196441
8544.17	-0.0202431
8554.64	-0.0251123
8565.11	-0.0292796
8570.35	-0.0310921
8580.82	-0.034505
8591.28	-0.0379924
8601.75	-0.0410664
8612.23	-0.0437461
8622.7	-0.0461635
8633.17	-0.0445433
8643.64	-0.0464709
8654.11	-0.0493038
8664.58	-0.0515941
8675.06	-0.0535513
8680.29	-0.0544498
8690.76	-0.0561581
8701.24	-0.0578012
8711.64	-0.0593977
8721.97	-0.0609559
8732.31	-0.062575
8742.65	-0.0640684
8752.98	-0.0654949
8763.32	-0.0668512
8773.65	-0.0681352
8783.99	-0.069348
8794.32	-0.0704932
8804.66	-0.0715759
8814.99	-0.0731576
8820.16	-0.0736166
8830.5	-0.0744647
8840.83	-0.0751912
8851.17	-0.0758027
8861.5	-0.0763174
8871.84	-0.0767535
8882.17	-0.0771288
8892.51	-0.0774612
8902.85	-0.0777661
8913.18	-0.0780553
8923.52	-0.0783382
8933.85	-0.0786214
8944.19	-0.0789097
8954.52	-0.079206
8964.86	-0.0795121
8970.03	-0.0797613
8980.36	-0.080239
8990.7	-0.0806929
9001.03	-0.0811262
9011.37	-0.0815411
9021.7	-0.0819385
9032.04	-0.0823183
9042.37	-0.0826802
9052.71	-0.0830237
9063.04	-0.0833481
9073.38	-0.0836532
9083.72	-0.0839388
9094.05	-0.0842048
9104.39	-0.0844514
9114.72	-0.0846788
9125.06	-0.0848871
9130.22	-0.0849843
9140.56	-0.0816055
9150.9	-0.0819712
9161.23	-0.0822811
9171.57	-0.0825747
9181.9	-0.0828511
9192.24	-0.0831012
9202.57	-0.0833234
9212.91	-0.0835187
9223.24	-0.0836868
9233.58	-0.0838282
9243.91	-0.083944
9254.25	-0.0840352
9264.59	-0.0841031
9274.92	-0.0841487
9280.09	-0.0841636
9290.42	-0.0841782
9300.76	-0.0841737
9311.09	-0.0841476
9321.43	-0.0841002
9331.77	-0.0840334
9342.1	-0.0839491
9352.44	-0.0838486
9362.77	-0.0837333
9373.11	-0.0836044
9383.44	-0.0834631
9393.78	-0.0833103
9404.11	-0.0831471
9414.45	-0.0829743
9424.78	-0.0827927
9435.12	-0.0826028
9440.29	-0.0825049
9450.62	-0.0823044
9460.96	-0.082098
9471.29	-0.0818843
9481.63	-0.0816186
9491.96	-0.0813456
9502.3	-0.0810665
9512.64	-0.080782
9522.97	-0.0806603
9533.31	-0.0805225
9543.64	-0.0803697
9553.98	-0.080203
9564.31	-0.0800233
9574.65	-0.0798313
9584.98	-0.0796277
9590.15	-0.0795217
9600.49	-0.0793015
9610.82	-0.0790709
9621.16	-0.07883
9631.49	-0.0785792
9641.83	-0.0783188
9652.16	-0.0780487
9662.5	-0.0777692
9672.83	-0.0774803
9683.17	-0.0771821
9693.5	-0.0768747
9703.84	-0.076558
9714.18	-0.0762321
9724.51	-0.0758971
9734.85	-0.0755529
9740.01	-0.0753774
9750.35	-0.0750196
9760.69	-0.0746528
9771.02	-0.074277
9781.36	-0.0738923
9791.69	-0.0734988
9802.03	-0.0730966
9812.36	-0.0726858
9822.7	-0.0722666
9833.03	-0.0718395
9843.37	-0.0727783
9853.7	-0.0723556
9864.04	-0.0719301
9874.37	-0.0715017
9884.71	-0.0710701
9895.05	-0.0706353
9900.21	-0.0704167
9910.55	-0.0699766
9920.88	-0.0695329
9931.22	-0.0690853
9941.56	-0.0686336
9951.89	-0.0680456
9962.23	-0.0674578
9972.56	-0.0668685
9982.9	-0.0662774
9993.23	-0.0656843
10003.6	-0.0650892
10013.9	-0.0644922
10024.2	-0.0638932
10034.6	-0.0632933
10044.9	-0.0626953
10050.1	-0.0623968
10060.4	-0.0618004
10070.7	-0.0612044
10081.1	-0.0606083
10091.4	-0.0600117
10101.8	-0.0594142
10112.1	-0.0588154
10122.4	-0.0582152
10132.8	-0.0576132
10143.1	-0.0570092
10153.4	-0.0564031
10163.8	-0.0557947
10174.1	-0.0551839
10184.4	-0.0545706
10194.8	-0.0539547
10205.1	-0.0533361
10210.3	-0.0530258
10220.6	-0.0524034
10231	-0.051777
10241.3	-0.0511481
10251.7	-0.0505166
10262	-0.0498825
10272.4	-0.0492459
10282.8	-0.0486071
10293.1	-0.0479661
10303.5	-0.0473234
10313.8	-0.0466792
10324.2	-0.0460337
10334.5	-0.0453871
10344.9	-0.0447397
10350.1	-0.0444157
10360.4	-0.0437674
10370.8	-0.0431187
10381.1	-0.0424697
10391.5	-0.0418208
10401.8	-0.0411719
10412.2	-0.0405233
10422.6	-0.039875
10432.9	-0.0392273
10443.3	-0.0385803
10453.6	-0.0379341
10464	-0.0372888
10474.3	-0.0366446
10484.7	-0.0360019
10495	-0.0353608
10500.2	-0.035041
10510.6	-0.0344028
10520.9	-0.0337667
10531.3	-0.033133
10541.7	-0.0325033
10552	-0.0318807
10562.4	-0.0312647
10572.7	-0.0306548
10583.1	-0.0300507
10593.4	-0.0294519
10603.8	-0.0288126
10614.1	-0.0281388
10624.5	-0.027477
10634.9	-0.0268265
10640	-0.0265052
10650.4	-0.0257723
10660.7	-0.0249834
10671.1	-0.0242411
10681.5	-0.023539
10691.8	-0.0228714
10702.2	-0.0222336
10712.5	-0.0216212
10722.9	-0.0210306
10733.2	-0.0204586
10743.6	-0.0199024
10753.9	-0.0193612
10764.3	-0.018838
10774.7	-0.018331
10785	-0.0178384
10790.2	-0.0175969
10800.5	-0.0171224
10810.9	-0.0166574
10821.3	-0.0162004
10831.6	-0.0157497
10842	-0.0153036
10852.3	-0.0148609
10862.7	-0.0144205
10873	-0.0139813
10883.4	-0.0135431
10893.8	-0.0131055
10904.1	-0.0126681
10914.5	-0.0122303
10924.8	-0.0117918
10935.2	-0.0113517
10940.4	-0.011131
10950.7	-0.0106876
10961.1	-0.0102447
10971.4	-0.00981026
10981.8	-0.00938101
10992.1	-0.00895478
11002.5	-0.00853004
11012.8	-0.0081053
11023.2	-0.00767913
11033.6	-0.00725027
11043.9	-0.00673442
11054.3	-0.00610193
11064.6	-0.00544249
11075	-0.00476937
11080.2	-0.00443039
11090.5	-0.00375104
11100.9	-0.00307249
11111.2	-0.00239544
11121.6	-0.00172059
11132	-0.0010507
11142.4	-0.000386113
11152.8	0.00027463
11163.2	0.000939143
11173.6	0.00160779
11183.9	0.00228036
11194.3	0.00295644
11204.7	0.00363508
11215.1	0.00431229
11220.3	0.00464953
11230.7	0.00579807
11241.1	0.00739699
11251.4	0.00888151
11261.8	0.0102193
11272.2	0.0114069
11282.6	0.0124812
11293	0.0134644
11303.4	0.01437
11313.8	0.015614
11324.1	0.0165794
11334.5	0.0174643
11344.9	0.0181578
11350.1	0.0185089
11360.5	0.0194734
11370.9	0.021363
11381.3	0.023131
11391.6	0.0247978
11402	0.0264489
11412.4	0.0281382
11422.8	0.0297635
11433.2	0.0314424
11443.6	0.0333029
11453.9	0.0352884
11464.3	0.0372993
11474.7	0.0393058
11485.2	0.0413894
11490.4	0.042481
11500.9	0.0447655
11511.3	0.0471861
11521.8	0.0497211
11532.3	0.0523248
11542.7	0.054938
11553.2	0.0574945
11563.7	0.0599388
11574.2	0.062257
11584.7	0.0644662
11590	0.0655388
11600.5	0.0676398
11611.2	0.0697076
11621.8	0.0717149
11632.4	0.0736357
11643	0.0754441
11653.7	0.0771248
11664.3	0.0786745
11674.9	0.0800957
11680.2	0.080759
11690.8	0.0819918
11701.4	0.0831
11712.1	0.0840859
11722.7	0.084955
11733.3	0.0857155
11743.9	0.0863751
11754.6	0.0869368
11765.2	0.0873976
11770.5	0.0875881
11781.1	0.087886
11791.7	0.088073
11802.4	0.0881579
11813	0.088159
11823.6	0.0881005
11834.2	0.0880072
11844.8	0.087899
11850.1	0.0878438
11860.8	0.0877355
11871.4	0.0876324
11882	0.0875331
11892.6	0.0874344
11903.3	0.0873323
11913.9	0.0872239
11924.5	0.0871083
11935.1	0.086987
11940.4	0.0869253
11951.1	0.0868024
11961.7	0.0866839
11972.3	0.0865729
11982.9	0.0864697
11993.5	0.0863715
