0	0
11.4128	0
22.8254	0
31.3849	0
42.7974	0
51.3567	0
62.769	0
71.3282	0
82.7404	0
91.2829	0
102.628	0
111.045	0
122.261	0
130.665	0
141.863	-1.81899e-12
150.261	-4.54747e-12
161.458	-8.18545e-12
172.653	-1.18234e-11
181.043	-1.63709e-11
192.229	-2.36469e-11
200.623	-3.09228e-11
211.816	-4.18368e-11
220.214	-5.27507e-11
231.411	-7.00311e-11
242.608	-9.27685e-11
251.006	-1.12777e-10
262.203	-1.4461e-10
270.601	-1.72804e-10
281.798	-2.18279e-10
290.196	-2.58296e-10
301.392	-3.20142e-10
312.589	-3.94721e-10
320.987	-4.57476e-10
332.109	-5.53882e-10
340.394	-6.35737e-10
351.464	-7.61247e-10
362.557	-9.05857e-10
370.863	-1.02682e-09
381.831	-1.20508e-09
392.679	-1.40335e-09
400.771	-1.56615e-09
411.56	-1.80444e-09
422.349	-2.06819e-09
430.441	-2.28192e-09
441.231	-2.59024e-09
451.981	-2.92312e-09
460.004	-3.18687e-09
470.712	-3.56067e-09
481.391	-3.95812e-09
492.045	-4.38013e-09
500.041	-4.71573e-09
510.683	-5.18958e-09
521.318	-5.69889e-09
531.952	-6.24641e-09
542.584	-6.8394e-09
550.555	-7.31507e-09
561.185	-7.99355e-09
571.814	-8.72569e-09
582.443	-9.51513e-09
590.414	-1.01463e-08
601.043	-1.10467e-08
611.672	-1.20226e-08
622.301	-1.30849e-08
630.273	-1.39462e-08
640.902	-1.51913e-08
651.531	-1.65628e-08
662.15	-1.80762e-08
670.103	-1.93131e-08
680.697	-2.1113e-08
691.29	-2.31039e-08
701.883	-2.5304e-08
712.476	-2.77323e-08
720.421	-2.97141e-08
731.014	-3.25863e-08
741.607	-3.57368e-08
752.2	-3.9181e-08
760.145	-4.19677e-08
770.737	-4.59686e-08
781.33	-5.03051e-08
791.923	-5.4989e-08
802.516	-6.00303e-08
810.46	-6.40512e-08
821.053	-6.97355e-08
831.646	-7.57909e-08
842.238	-8.22156e-08
850.183	-8.72733e-08
860.775	-9.43273e-08
871.368	-1.01725e-07
881.96	-1.09446e-07
892.553	-1.17467e-07
900.497	-1.23659e-07
911.09	-1.32122e-07
921.682	-1.40783e-07
932.275	-1.49595e-07
940.219	-1.56268e-07
950.811	-1.65206e-07
961.403	-1.74127e-07
971.996	-1.82959e-07
982.588	-1.91626e-07
990.532	-1.97965e-07
1001.12	-2.06131e-07
1011.72	-2.1388e-07
1022.31	-2.21105e-07
1030.25	-2.26109e-07
1040.85	-2.32132e-07
1051.44	-2.37284e-07
1062.03	-2.41418e-07
1072.62	-2.44368e-07
1080.57	-2.457e-07
1091.16	-2.46145e-07
1101.75	-2.44881e-07
1112.34	-2.41684e-07
1120.28	-2.37874e-07
1130.87	-2.30705e-07
1141.45	-2.20892e-07
1152.04	-2.08138e-07
1162.62	-1.92123e-07
1170.56	-1.77769e-07
1181.15	-1.55213e-07
1191.74	-1.28399e-07
1202.32	-9.69167e-08
1210.26	-6.99802e-08
1220.85	-2.92603e-08
1231.43	1.73986e-08
1242.02	7.05122e-08
1252.6	1.30754e-07
1260.54	1.81274e-07
1271.12	2.56185e-07
1281.67	3.39829e-07
1292.22	4.32618e-07
1300.13	5.08317e-07
1310.68	6.17488e-07
1321.22	7.36084e-07
1331.73	8.63989e-07
1342.25	1.00163e-06
1350.13	1.11136e-06
1360.65	1.26652e-06
1371.16	1.43203e-06
1381.67	1.60823e-06
1392.19	1.7955e-06
1400.07	1.94352e-06
1410.59	2.15138e-06
1421.1	2.37183e-06
1431.61	2.60556e-06
1442.09	2.85235e-06
1452.56	3.11399e-06
1460.41	3.32053e-06
1470.88	3.61052e-06
1481.36	3.91825e-06
1491.83	4.24495e-06
1502.3	4.59199e-06
1510.15	4.86646e-06
1520.62	5.25259e-06
1531.1	5.66327e-06
1541.53	6.09876e-06
1551.97	6.56208e-06
1562.44	7.0567e-06
1570.26	7.44695e-06
1580.68	7.99664e-06
1591.11	8.58205e-06
1601.54	9.20525e-06
1611.97	9.86862e-06
1622.4	1.05746e-05
1630.22	1.11336e-05
1640.65	1.192e-05
1651.08	1.27551e-05
1661.51	1.36407e-05
1671.94	1.45781e-05
1682.37	1.55689e-05
1690.19	1.63477e-05
1700.62	1.74349e-05
1711.05	1.8579e-05
1721.48	1.97811e-05
1731.91	2.10428e-05
1742.34	2.23652e-05
1750.16	2.33978e-05
1760.59	2.48303e-05
1771.02	2.63278e-05
1781.45	2.78922e-05
1791.87	2.95235e-05
1802.29	3.1226e-05
1810.11	3.25517e-05
1820.53	3.4383e-05
1830.95	3.62922e-05
1841.36	3.82811e-05
1851.77	4.03514e-05
1862.18	4.25079e-05
1872.59	4.4754e-05
1880.4	4.64994e-05
1890.81	4.89108e-05
1901.22	5.14219e-05
1911.63	5.40368e-05
1922.04	5.67598e-05
1932.45	5.95951e-05
1940.26	6.17982e-05
1950.67	6.48416e-05
1961.08	6.80106e-05
1971.48	7.13105e-05
1981.89	7.47468e-05
1992.3	7.30941e-05
2000.11	7.20526e-05
2010.52	7.09098e-05
2020.93	7.00294e-05
2031.34	6.93931e-05
2041.75	6.89844e-05
2052.16	6.87882e-05
2062.57	6.8791e-05
2070.38	6.89164e-05
2080.79	6.92392e-05
2091.19	6.97313e-05
2101.6	7.03844e-05
2112.01	7.11915e-05
2122.42	7.21467e-05
2130.23	7.29573e-05
2140.64	7.41606e-05
2151.05	7.55011e-05
2161.46	7.69766e-05
2171.87	7.85858e-05
2182.28	8.03281e-05
2190.08	8.17223e-05
2200.49	8.36985e-05
2210.9	8.58101e-05
2221.31	8.80591e-05
2231.72	9.04482e-05
2242.13	9.29805e-05
2252.54	9.56598e-05
2260.35	9.77682e-05
2270.75	0.000100715
2281.16	0.000103821
2291.57	0.000107091
2301.98	0.000110532
2312.39	0.000114149
2320.2	0.000116981
2330.61	0.000120921
2341.02	0.000125055
2351.42	0.00012939
2361.83	0.000133935
2372.24	0.000138696
2380.05	0.000142398
2390.46	0.000147496
2400.87	0.000152768
2411.28	0.000158204
2421.68	0.0001638
2432.09	0.000169551
2442.5	0.000175456
2450.31	0.000179987
2460.7	0.000186155
2471.08	0.000192478
2481.46	0.00019896
2491.83	0.000205618
2502.22	0.000212461
2510.01	0.000217717
2520.39	0.000224899
2530.78	0.000232291
2541.16	0.000239904
2551.54	0.000247752
2561.93	0.00025585
2572.31	0.000264215
2580.1	0.000270673
2590.48	0.000279542
2600.84	0.0002887
2611.15	0.000298147
2621.43	0.000307898
2631.71	0.000318001
2641.99	0.000328472
2652.27	0.000339326
2662.55	0.000350578
2670.26	0.000359287
2680.54	0.000371273
2690.82	0.0003837
2701.1	0.000396587
2711.38	0.000409952
2721.66	0.000423813
2731.94	0.000438191
2742.22	0.000468912
2752.5	0.00050492
2760.21	0.000531798
2770.48	0.000567385
2780.76	0.000602646
2791.04	0.000637576
2801.32	0.000672204
2811.6	0.000706589
2821.88	0.000740809
2832.16	0.00077496
2842.44	0.000809153
2850.15	0.000834895
2860.43	0.000869449
2870.71	0.000904386
2880.99	0.000939838
2891.27	0.000975937
2901.55	0.00101281
2911.83	0.0010506
2922.1	0.00108942
2932.38	0.00112941
2940.09	0.00116019
2950.37	0.00120214
2960.65	0.00124496
2970.93	0.00128855
2981.21	0.00133287
2991.49	0.00137794
3001.77	0.00142382
3012.05	0.0014706
3022.33	0.00151841
3030.04	0.00155504
3040.31	0.00160508
3050.59	0.00165665
3060.87	0.00170997
3071.15	0.00176524
3081.43	0.00182264
3091.71	0.00188236
3101.99	0.00194459
3112.27	0.00200952
3122.55	0.00211999
3130.25	0.00223162
3140.53	0.00237336
3150.81	0.00250768
3161.09	0.00263613
3171.37	0.00276071
3181.65	0.00288358
3191.93	0.00300688
3202.21	0.00313265
3212.48	0.00326274
3220.19	0.00336413
3230.47	0.00350405
3240.75	0.00364809
3251.03	0.003796
3261.31	0.00394849
3271.59	0.00410695
3281.87	0.00427328
3292.14	0.00444952
3302.42	0.00463749
3310.13	0.00488232
3320.41	0.00526537
3330.69	0.00563318
3340.97	0.00599406
3351.25	0.00636263
3361.52	0.0067526
3371.8	0.00716429
3382.08	0.0075886
3392.36	0.00803382
3400.07	0.00839243
3410.35	0.00932003
3420.63	0.0101098
3430.9	0.0109381
3441.18	0.0118613
3451.46	0.0131955
3461.74	0.0150775
3472.02	0.0173754
3482.3	0.0223059
3490.01	0.0264133
3500.28	0.0321892
3510.56	0.0370487
3520.84	0.0419446
3531.12	0.0468407
3541.4	0.0515645
3551.68	0.0558835
3561.96	0.0602759
3572.24	0.0649781
3582.51	0.0698225
3590.22	0.073386
3600.5	0.0780458
3610.78	0.0827784
3621.06	0.087687
3631.34	0.0926958
3641.62	0.0977678
3651.9	0.102983
3662.18	0.108364
3672.45	0.113802
3680.16	0.117852
3690.44	0.123209
3700.72	0.128569
3711	0.133955
3721.28	0.139343
3731.56	0.144724
3741.84	0.150125
3752.12	0.155569
3762.4	0.161035
3770.11	0.165125
3780.39	0.17055
3790.67	0.175953
3800.95	0.181352
3811.29	0.186793
3821.64	0.192261
3832	0.197749
3842.36	0.203253
3850.13	0.207383
3860.49	0.212879
3870.85	0.218358
3881.21	0.223831
3891.57	0.229316
3901.93	0.234842
3912.28	0.240437
3920.05	0.244691
3930.41	0.250453
3940.78	0.256319
3951.14	0.262293
3961.5	0.268384
3971.86	0.27461
3982.23	0.280993
3992.59	0.287552
4000.36	0.292596
4010.72	0.299494
4021.09	0.306595
4031.45	0.313906
4041.81	0.32144
4052.18	0.329218
4062.54	0.337278
4070.31	0.343533
4080.69	0.352206
4091.08	0.361301
4101.49	0.370883
4111.93	0.381021
4122.38	0.391752
4130.21	0.400232
4140.65	0.412179
4151.1	0.424936
4161.57	0.438632
4172.07	0.453368
4182.57	0.469198
4190.44	0.481839
4200.94	0.499779
4211.44	0.519023
4221.94	0.539634
4232.44	0.56167
4240.32	0.579165
4250.82	0.603811
4261.32	0.629987
4271.82	0.657691
4282.32	0.68689
4290.19	0.709732
4300.69	0.741364
4311.19	0.774218
4321.69	0.808128
4332.19	0.84289
4340.07	0.869374
4350.57	0.905012
4361.07	0.940725
4371.57	0.976144
4382.07	1.01085
4392.57	1.04439
4400.44	1.06848
4410.94	1.09874
4421.44	1.12639
4431.94	1.15082
4442.44	1.17145
4450.32	1.18404
4460.82	1.19647
4471.32	1.20334
4481.82	1.204
4492.32	1.1978
4500.2	1.1883
4510.7	1.16867
4521.2	1.14061
4531.7	1.10364
4542.2	1.05737
4550.07	1.01639
4560.57	0.953192
4571.07	0.880107
4581.57	0.797075
4592.07	0.704068
4602.58	0.601019
4610.45	0.517037
4620.95	0.395859
4631.45	0.263827
4641.95	0.121287
4652.5	-0.0232337
4660.44	-0.111255
4671.03	-0.175743
4681.63	-0.204081
4692.22	-0.246859
4700.16	-0.270865
4710.75	-0.297746
4721.34	-0.320861
4731.93	-0.329038
4742.51	-0.349753
4750.45	-0.361714
4761.04	-0.37483
4771.62	-0.38615
4782.21	-0.39514
4790.15	-0.401593
4800.74	-0.409795
4811.32	-0.417322
4821.91	-0.40774
4832.49	-0.413778
4840.43	-0.415683
4851.02	-0.423217
4861.61	-0.429388
4872.19	-0.434447
4880.13	-0.437646
4890.72	-0.441293
4901.3	-0.44441
4911.89	-0.447158
4922.47	-0.449113
4930.41	-0.450513
4940.99	-0.452338
4951.55	-0.454018
4962.1	-0.455652
4970.01	-0.456826
4980.56	-0.458296
4991.11	-0.459633
5001.65	-0.460823
5012.17	-0.461787
5020.05	-0.452569
5030.56	-0.453787
5041.08	-0.455646
5051.59	-0.457199
5062.11	-0.458522
5072.62	-0.459602
5080.51	-0.460233
5091.02	-0.460851
5101.53	-0.461247
5112.05	-0.461444
5122.56	-0.46145
5130.44	-0.461343
5140.91	-0.461065
5151.38	-0.460651
5161.85	-0.460115
5172.32	-0.459472
5180.18	-0.458925
5190.65	-0.458118
5201.12	-0.457229
5211.59	-0.456304
5222.06	-0.455313
5232.5	-0.454274
5240.32	-0.453463
5250.79	-0.452246
5261.22	-0.450754
5271.65	-0.449238
5282.08	-0.447693
5292.5	-0.446115
5300.33	-0.444909
5310.76	-0.443269
5321.19	-0.44159
5331.62	-0.439871
5342.04	-0.43811
5352.47	-0.436309
5360.3	-0.434932
5370.73	-0.43306
5381.16	-0.431122
5391.58	-0.429125
5402.01	-0.427086
5412.44	-0.416119
5420.27	-0.415212
5430.7	-0.41399
5441.12	-0.412759
5451.55	-0.411527
5461.96	-0.410297
5472.38	-0.409071
5480.19	-0.408155
5490.62	-0.406942
5501.04	-0.405743
5511.46	-0.404561
5521.87	-0.4034
5532.28	-0.402259
5540.09	-0.401417
5550.5	-0.400314
5560.91	-0.399233
5571.32	-0.398172
5581.73	-0.397131
5592.14	-0.396109
5602.55	-0.395102
5610.36	-0.394356
5620.76	-0.393367
5631.17	-0.392382
5641.58	-0.391393
5651.99	-0.390396
5662.4	-0.389384
5670.21	-0.388613
5680.62	-0.387564
5691.03	-0.386486
5701.44	-0.385375
5711.85	-0.384227
5722.26	-0.383038
5730.07	-0.382117
5740.48	-0.380846
5750.89	-0.379524
5761.3	-0.378255
5771.71	-0.377008
5782.12	-0.375666
5792.52	-0.374232
5800.33	-0.373403
5810.74	-0.372975
5821.15	-0.372379
5831.56	-0.371335
5841.97	-0.370067
5852.38	-0.368683
5860.19	-0.367575
5870.6	-0.366008
5881.01	-0.364344
5891.42	-0.362586
5901.83	-0.360736
5912.24	-0.358796
5920.04	-0.357284
5930.45	-0.355191
5940.86	-0.353012
5951.27	-0.350748
5961.68	-0.3484
5972.09	-0.345969
5982.5	-0.343455
5990.31	-0.341517
6000.72	-0.338862
6011.13	-0.33613
6021.54	-0.333327
6031.95	-0.330467
6042.36	-0.327561
6050.16	-0.325355
6060.57	-0.322383
6070.98	-0.319381
6081.39	-0.316351
6091.8	-0.313293
6102.21	-0.310207
6110.02	-0.307874
6120.43	-0.304737
6130.84	-0.301568
6141.25	-0.298361
6151.66	-0.295101
6162.07	-0.291788
6172.46	-0.288432
6180.26	-0.285884
6190.63	-0.282455
6201	-0.278982
6211.38	-0.27501
6221.76	-0.269645
6232.14	-0.264326
6242.52	-0.259099
6250.3	-0.255247
6260.68	-0.250195
6271.06	-0.245217
6281.44	-0.240289
6291.83	-0.235382
6302.21	-0.230469
6312.6	-0.225525
6320.38	-0.221786
6330.77	-0.216787
6341.15	-0.211801
6351.53	-0.206832
6361.92	-0.201867
6372.3	-0.19688
6380.09	-0.193107
6390.44	-0.188018
6400.72	-0.182866
6411	-0.173353
6421.28	-0.164421
6431.56	-0.155996
6441.84	-0.147863
6452.12	-0.139813
6462.4	-0.131694
6470.11	-0.125593
6480.39	-0.117565
6490.67	-0.109593
6500.95	-0.101494
6511.23	-0.0878545
6521.51	-0.0762783
6531.79	-0.0648832
6542.07	-0.0529604
6552.35	-0.0382024
6560.05	-0.0238289
6570.33	-0.00405533
6580.61	0.0315188
6590.89	0.0658992
6601.17	0.0935595
6611.45	0.111635
6621.73	0.12538
6632.01	0.135122
6642.29	0.139884
6652.57	0.140192
6660.28	0.140357
6670.56	0.141967
6680.84	0.144558
6691.12	0.146261
6701.4	0.146284
6711.68	0.145795
6721.96	0.146053
6732.24	0.146819
6742.51	0.147715
6750.22	0.148793
6760.5	0.15113
6770.78	0.153919
6781.06	0.156071
6791.34	0.157172
6801.62	0.157668
6811.9	0.158086
6822.18	0.158389
6832.46	0.158247
6840.17	0.157852
6850.45	0.157276
6860.73	0.156917
6871.01	0.156609
6881.29	0.155933
6891.57	0.154714
6901.84	0.153173
6912.12	0.151667
6922.4	0.150432
6930.11	0.149724
6940.39	0.149009
6950.67	0.148347
6960.95	0.147398
6971.23	0.145839
6981.51	0.143525
6991.79	0.140538
7002.07	0.137114
7012.35	0.133553
7020.06	0.130966
7030.34	0.1278
7040.62	0.125014
7050.89	0.122511
7061.17	0.120108
7071.45	0.117678
7081.73	0.115226
7092.01	0.112876
7102.29	0.110795
7110	0.109496
7120.28	0.108166
7130.56	0.107277
7140.84	0.106718
7151.12	0.106319
7161.4	0.105922
7171.68	0.10543
7181.96	0.104833
7192.23	0.104184
7202.51	0.103566
7210.22	0.10317
7220.5	0.102775
7230.78	0.10256
7241.06	0.10253
7251.34	0.102679
7261.62	0.102995
7271.9	0.103469
7282.18	0.104089
7292.46	0.104831
7300.17	0.105439
7310.45	0.106258
7320.73	0.107003
7331	0.107583
7341.28	0.107936
7351.56	0.108043
7361.84	0.107927
7372.12	0.107644
7382.4	0.107255
7390.11	0.106926
7400.39	0.106467
7410.67	0.105999
7420.95	0.105531
7431.23	0.105081
7441.51	0.104687
7451.79	0.104415
7462.07	0.104338
7472.35	0.104512
7480.05	0.104822
7490.33	0.105449
7500.61	0.106257
7510.89	0.107147
7521.17	0.108023
7531.45	0.108817
7541.73	0.109511
7552.01	0.110133
7562.29	0.110749
7572.57	0.111435
7580.28	0.112038
7590.56	0.112994
7600.84	0.114142
7611.12	0.11548
7621.4	0.116991
7631.68	0.118654
7641.95	0.120449
7652.23	0.122355
7662.51	0.124341
7670.22	0.125854
7680.5	0.12785
7690.78	0.12975
7701.06	0.131469
7711.34	0.132928
7721.62	0.134074
7731.9	0.134881
7742.18	0.13536
7752.46	0.135545
7760.17	0.135522
7770.45	0.135325
7780.73	0.134987
7791.07	0.134556
7801.43	0.134075
7811.78	0.133577
7822.14	0.133094
7832.5	0.132647
7840.27	0.132347
7850.63	0.132001
7860.99	0.131718
7871.35	0.131487
7881.71	0.131294
7892.07	0.13112
7902.42	0.130949
7910.19	0.130818
7920.55	0.130638
7930.91	0.130457
7941.27	0.130288
7951.63	0.130142
7961.99	0.13003
7972.35	0.12996
7980.12	0.129935
7990.48	0.129934
8000.83	0.12996
8011.19	0.129996
8021.55	0.130018
8031.91	0.129999
8042.27	0.129907
8050.05	0.129769
8060.41	0.129468
8070.77	0.129006
8081.13	0.128356
8091.5	0.127502
8101.86	0.12643
8112.22	0.125139
8122.59	0.123628
8130.36	0.122355
8140.72	0.120481
8151.08	0.118418
8161.45	0.116182
8171.81	0.113796
8182.17	0.111281
8192.53	0.108661
8200.31	0.106641
8210.67	0.10389
8221.03	0.101088
8231.39	0.0982495
8241.76	0.095382
8252.12	0.0924922
8262.48	0.0895855
8270.26	0.0873962
8280.65	0.0844702
8291.08	0.0815436
8301.52	0.0786347
8311.96	0.0757665
8322.4	0.0729576
8330.24	0.0709008
8340.68	0.0682392
8351.12	0.0656842
8361.57	0.0632488
8372.07	0.0609301
8382.57	0.0587471
8390.44	0.0571993
8400.94	0.0552516
8411.44	0.0534279
8421.94	0.0517146
8432.45	0.0500943
8440.32	0.0489282
8450.82	0.047423
8461.32	0.0459562
8471.82	0.0445098
8482.32	0.0430676
8490.2	0.0419801
8500.7	0.0405116
8511.2	0.0390108
8521.7	0.0374657
8532.2	0.0358636
8540.08	0.034616
8550.58	0.0328767
8561.08	0.0310273
8571.58	0.0290271
8582.08	0.0267823
8592.58	0.0239506
8600.45	0.0208362
8610.95	0.0130919
8621.46	0.000516812
8631.96	-0.00866025
8642.46	-0.0130012
8650.33	-0.0189828
8660.83	-0.025264
8671.33	-0.0313235
8681.83	-0.0364338
8692.33	-0.0349393
8700.21	-0.0388643
8710.71	-0.0434547
8721.21	-0.0473748
8731.71	-0.0510569
8742.2	-0.0545936
8750.05	-0.0570451
8760.52	-0.0600558
8770.99	-0.0628028
8781.47	-0.0651553
8791.94	-0.0680628
8802.41	-0.0703706
8810.26	-0.0718725
8820.74	-0.0736714
8831.21	-0.0753099
8841.68	-0.076881
8852.08	-0.0784593
8862.56	-0.080002
8870.37	-0.08114
8880.84	-0.0825813
8891.3	-0.083917
8901.72	-0.0851529
8912.15	-0.0862523
8922.57	-0.0872216
8930.39	-0.0850604
8940.82	-0.0856002
8951.25	-0.0863522
8961.68	-0.0869946
8972.11	-0.0875157
8982.54	-0.0879023
8990.36	-0.0881179
9000.79	-0.0883234
9011.22	-0.0884546
9021.65	-0.0885296
9032.08	-0.0885642
9042.51	-0.0885719
9050.33	-0.0885673
9060.76	-0.0886308
9071.19	-0.088878
9081.62	-0.0890882
9092.05	-0.0892769
9102.48	-0.0893881
9110.3	-0.0894641
9120.73	-0.0895793
9131.16	-0.0897084
9141.59	-0.0898488
9152.02	-0.0899976
9162.45	-0.0901519
9170.26	-0.0902694
9180.68	-0.0904263
9191.09	-0.0905813
9201.52	-0.0907324
9211.94	-0.0910005
9222.36	-0.0913947
9230.17	-0.0916742
9240.59	-0.0920239
9251	-0.0923316
9261.41	-0.0925997
9271.82	-0.0928333
9282.23	-0.0930366
9290.04	-0.0955708
9300.45	-0.0957429
9310.86	-0.0958916
9321.27	-0.0960179
9331.68	-0.0961228
9342.09	-0.0962074
9352.5	-0.0962722
9360.3	-0.0963059
9370.71	-0.0963256
9381.12	-0.0963182
9391.53	-0.0962854
9401.94	-0.0962298
9412.35	-0.0961535
9420.16	-0.0960842
9430.57	-0.0959769
9440.98	-0.0958526
9451.39	-0.0957126
9461.8	-0.0955579
9472.21	-0.0953896
9480.02	-0.095255
9490.43	-0.0950647
9500.84	-0.0948627
9511.25	-0.0946496
9521.66	-0.0944258
9532.06	-0.0941918
9542.47	-0.093948
9550.28	-0.0937589
9560.69	-0.0934973
9571.1	-0.0932207
9581.51	-0.0929841
9591.92	-0.0928867
9602.33	-0.092761
9610.14	-0.0926501
9620.55	-0.0924811
9630.96	-0.0922896
9641.37	-0.092077
9651.78	-0.0918444
9662.19	-0.0915929
9672.6	-0.0913236
9680.4	-0.0910637
9690.81	-0.0906774
9701.22	-0.0902822
9711.63	-0.0898782
9722.04	-0.0894654
9732.45	-0.0890439
9740.26	-0.088722
9750.67	-0.0882853
9761.08	-0.08784
9771.49	-0.0873861
9781.9	-0.0869237
9792.31	-0.0864528
9800.11	-0.0860941
9810.52	-0.0856085
9820.93	-0.0851146
9831.34	-0.0846125
9841.75	-0.0841023
9852.16	-0.0835839
9862.56	-0.0830583
9870.37	-0.0826585
9880.74	-0.0821204
9891.12	-0.0815748
9901.5	-0.0810219
9911.88	-0.0804618
9922.27	-0.0798949
9930.06	-0.0794656
9940.44	-0.078888
9950.82	-0.0783047
9961.21	-0.0777159
9971.59	-0.0771218
9981.98	-0.0765227
9992.36	-0.0777168
10000.1	-0.0773145
10010.5	-0.0767738
10020.9	-0.0762274
10031.3	-0.0756734
10041.7	-0.0751118
10052	-0.0745443
10062.4	-0.0739764
10070.1	-0.0735498
10080.4	-0.0729779
10090.6	-0.0724021
10100.9	-0.0718222
10111.2	-0.071238
10121.5	-0.0706493
10131.8	-0.070056
10142	-0.069458
10152.3	-0.068855
10160	-0.0683996
10170.3	-0.067747
10180.6	-0.0669714
10190.9	-0.0661987
10201.1	-0.0654285
10211.4	-0.0646609
10221.7	-0.0638955
10232	-0.0631323
10242.3	-0.0623712
10252.5	-0.0616121
10260.2	-0.061044
10270.5	-0.0602881
10280.8	-0.0595341
10291.1	-0.0587818
10301.4	-0.0580315
10311.6	-0.0572834
10321.9	-0.0565376
10332.2	-0.0557944
10342.5	-0.0550539
10350.2	-0.0545004
10360.5	-0.0537648
10370.8	-0.0530322
10381	-0.0523027
10391.3	-0.0515762
10401.6	-0.0508527
10411.9	-0.0501324
10422.2	-0.049415
10432.4	-0.0487007
10440.1	-0.0481669
10450.4	-0.0474579
10460.7	-0.0467519
10471	-0.0460489
10481.3	-0.0453491
10491.5	-0.0446524
10501.8	-0.0439588
10512.1	-0.0432684
10522.4	-0.0425815
10530.1	-0.0420686
10540.4	-0.041388
10550.6	-0.0407111
10560.9	-0.0400381
10571.2	-0.0393689
10581.5	-0.0387038
10591.8	-0.0380447
10602	-0.0373928
10612.3	-0.0367478
10620	-0.0362682
10630.3	-0.0356342
10640.6	-0.035006
10650.9	-0.0343833
10661.1	-0.0337659
10671.4	-0.0331533
10681.7	-0.0325455
10692	-0.0318662
10702.3	-0.0310349
10712.5	-0.0301982
10720.3	-0.0296028
10730.5	-0.0288471
10740.8	-0.0281298
10751.1	-0.0274462
10761.4	-0.0267922
10771.7	-0.0261638
10781.9	-0.0255581
10792.2	-0.024973
10802.5	-0.0244109
10810.2	-0.0240035
10820.5	-0.0234775
10830.8	-0.0229694
10841	-0.0224771
10851.3	-0.0219984
10861.6	-0.0215314
10871.9	-0.0210742
10882.2	-0.0206252
10892.4	-0.0201826
10900.1	-0.0198542
10910.4	-0.0194198
10920.7	-0.0189888
10931	-0.0185606
10941.3	-0.0181348
10951.5	-0.0177107
10961.8	-0.0172877
10972.1	-0.016865
10982.4	-0.0164421
10990.1	-0.0161243
11000.4	-0.0156992
11010.6	-0.0152721
11020.9	-0.0148472
11031.2	-0.0144302
11041.5	-0.0140188
11051.8	-0.0136108
11062	-0.0132044
11072.3	-0.0127979
11080	-0.0124919
11090.3	-0.0120813
11100.6	-0.0116201
11110.9	-0.0109914
11121.2	-0.0103353
11131.4	-0.00966512
11141.7	-0.00898917
11152	-0.00831239
11162.3	-0.0076374
11172.6	-0.00696526
11180.3	-0.00646345
11190.5	-0.00579868
11200.8	-0.00513901
11211.1	-0.0044842
11221.4	-0.00382683
11231.7	-0.0031641
11241.9	-0.00249607
11252.2	-0.00182302
11262.5	-0.00114675
11270.2	-0.000639647
11280.5	3.45982e-05
11290.8	0.000706075
11301	0.00240644
11311.3	0.0040165
11321.6	0.00548487
11331.9	0.00680015
11342.2	0.00796978
11352.4	0.00903662
11360.2	0.00978078
11370.4	0.0107041
11380.7	0.0118222
11391	0.0129021
11401.3	0.0138216
11411.5	0.0146409
11421.8	0.0153883
11432.1	0.0161723
11442.4	0.0174615
11450.1	0.0184606
11460.4	0.0218565
11470.7	0.0240896
11480.9	0.0261889
11491.2	0.0284178
11501.5	0.0310172
11511.8	0.0337661
11522.1	0.0365619
11532.3	0.0394403
11540	0.041708
11550.3	0.0448207
11560.6	0.0480031
11570.9	0.0513247
11581.2	0.0548229
11591.4	0.0584201
11601.7	0.0620389
11612	0.0656647
11622.3	0.0692437
11632.6	0.0726371
11640.3	0.0749796
11650.5	0.0777909
11660.8	0.0802734
11671.1	0.0824965
11681.4	0.0845195
11691.7	0.086366
11701.9	0.0880316
11712.2	0.0895087
11722.5	0.0908088
11730.2	0.0916865
11740.5	0.0927581
11750.9	0.0937361
11761.2	0.094628
11771.6	0.0954444
11782	0.0962006
11792.3	0.0969153
11800.1	0.0974338
11810.5	0.0981106
11820.8	0.09878
11831.2	0.0994545
11841.5	0.100145
11851.9	0.10085
11862.2	0.101549
11870	0.102048
11880.4	0.102653
11890.7	0.103178
11901.1	0.10364
11911.5	0.104074
11921.8	0.104515
11932.2	0.104987
11942.6	0.105495
11950.3	0.105897
11960.7	0.106454
11971.1	0.107021
11981.4	0.107581
11991.8	0.108115
