0	0
26.1914	0
52.3816	0
78.5723	0
104.763	0
130.954	0
157.146	0
183.337	0
209.529	9.09495e-13
235.722	1.81899e-12
261.915	1.81899e-12
288.107	-9.09495e-13
314.3	-1.27329e-11
338.56	-3.81988e-11
362.82	-8.4583e-11
387.08	-1.58252e-10
411.34	-2.61025e-10
435.6	-3.85626e-10
459.859	-5.05679e-10
484.119	-5.65706e-10
508.379	-4.6839e-10
532.639	-6.09361e-11
556.806	8.74934e-10
580.973	2.64572e-09
605.14	5.65888e-09
629.308	1.04492e-08
653.475	1.77033e-08
677.642	2.82935e-08
701.808	4.33183e-08
725.975	6.41558e-08
750.142	9.25229e-08
774.198	1.29684e-07
798.255	1.77119e-07
822.312	2.36354e-07
846.368	3.08515e-07
870.424	3.94584e-07
894.481	4.95586e-07
918.537	6.12727e-07
942.593	7.47498e-07
966.649	9.01785e-07
990.705	1.07796e-06
1014.76	1.27899e-06
1038.82	1.50857e-06
1062.87	1.7713e-06
1086.93	2.07281e-06
1110.98	2.42003e-06
1135.04	2.82137e-06
1159.1	3.28691e-06
1183.15	3.82835e-06
1207.21	4.45913e-06
1231.26	5.19446e-06
1255.32	6.05143e-06
1279.37	7.04919e-06
1303.43	8.20914e-06
1327.48	9.55521e-06
1351.54	1.11142e-05
1375.59	1.29159e-05
1399.64	1.50084e-05
1423.7	1.74532e-05
1447.75	2.02867e-05
1471.81	2.35354e-05
1495.86	2.72223e-05
1519.92	3.13708e-05
1543.97	3.60083e-05
1568.03	4.11686e-05
1592.08	4.68937e-05
1616.14	5.32363e-05
1640.19	6.02606e-05
1664.24	6.80449e-05
1688.3	7.66823e-05
1712.35	8.6282e-05
1736.41	9.69703e-05
1760.46	0.000108887
1784.52	0.000122127
1808.57	0.000136768
1832.63	0.000152886
1856.68	0.000170564
1880.74	0.000189901
1904.79	0.00021101
1928.85	0.00023403
1952.9	0.000259128
1976.96	0.000286504
2001.02	0.000316401
2025.07	0.000349101
2049.13	0.000384922
2073.18	0.000377193
2097.24	0.000374579
2121.3	0.000376191
2145.35	0.000381413
2169.41	0.000389834
2193.47	0.000401211
2217.52	0.000415443
2241.58	0.000432537
2265.64	0.000452593
2289.69	0.00047579
2313.31	0.000501885
2336.93	0.000531533
2360.54	0.000565073
2384.16	0.000602886
2407.78	0.000645393
2431.39	0.00069305
2455.01	0.000746582
2478.62	0.000804825
2502.24	0.00086727
2525.86	0.000933791
2549.47	0.00100451
2573.09	0.00107973
2596.71	0.00115992
2620.32	0.00124574
2643.94	0.00133807
2667.55	0.001438
2691.17	0.00154667
2714.79	0.00166522
2738.4	0.0017948
2762.02	0.00193661
2785.63	0.00226898
2809.25	0.00260427
2832.87	0.00293045
2856.48	0.00324699
2880.1	0.00356049
2903.71	0.00388075
2927.33	0.00421839
2950.94	0.00458405
2974.56	0.00498846
2998.17	0.00542924
3021.79	0.00589644
3045.41	0.00639562
3069.02	0.00693409
3092.64	0.00752444
3116.25	0.00818612
3139.87	0.00984372
3163.48	0.0114595
3187.1	0.0128685
3210.71	0.0142522
3234.33	0.0158644
3257.94	0.0178559
3281.56	0.0202899
3305.17	0.0263903
3328.79	0.0313806
3352.4	0.0363822
3376.02	0.0418467
3399.63	0.0477743
3423.25	0.054075
3446.87	0.0606856
3470.48	0.0675924
3494.1	0.0748135
3517.71	0.082379
3541.33	0.0903209
3564.94	0.0986289
3588.56	0.107291
3612.17	0.116304
3635.79	0.125692
3659.41	0.135486
3683.02	0.145703
3706.64	0.156335
3730.25	0.167349
3753.87	0.178695
3777.49	0.19031
3801.1	0.202131
3824.72	0.214085
3848.34	0.226096
3871.95	0.238081
3895.57	0.249952
3919.19	0.261615
3942.8	0.272976
3966.42	0.283931
3990.08	0.294388
4013.74	0.304205
4037.4	0.313253
4061.06	0.321396
4084.72	0.328492
4108.38	0.334403
4132.04	0.338993
4155.7	0.342132
4179.36	0.343702
4203.02	0.3436
4226.68	0.341737
4250.34	0.338045
4274	0.332475
4297.66	0.325001
4321.32	0.315616
4345.41	0.304133
4369.5	0.290721
4393.59	0.275433
4417.67	0.25835
4441.76	0.239555
4465.85	0.219124
4489.94	0.197182
4514.03	0.173944
4538.11	0.149015
4562.2	0.122938
4586.29	0.0963934
4610.38	0.070209
4634.47	0.0450356
4658.56	0.0109463
4682.65	-0.0115802
4706.73	-0.0335569
4730.82	-0.0531132
4754.91	-0.0702234
4779	-0.0848904
4803.09	-0.0738644
4827.18	-0.0827835
4851.27	-0.0920818
4875.36	-0.0999634
4899.44	-0.110452
4923.53	-0.118585
4947.62	-0.125449
4971.71	-0.131575
4995.8	-0.137493
5019.89	-0.142666
5043.98	-0.147863
5068.07	-0.152179
5092.33	-0.155819
5116.59	-0.158931
5140.75	-0.161628
5164.92	-0.164
5189.09	-0.166101
5213.25	-0.159978
5237.42	-0.161741
5261.59	-0.163606
5285.65	-0.165103
5309.7	-0.166146
5333.76	-0.166713
5357.82	-0.166889
5381.87	-0.166763
5405.93	-0.166409
5429.98	-0.165883
5454.04	-0.165225
5478.1	-0.164462
5502.15	-0.16361
5526.21	-0.162679
5550.27	-0.161678
5574.32	-0.160612
5598.38	-0.159486
5622.44	-0.158338
5646.49	-0.157218
5670.55	-0.156094
5694.61	-0.154918
5718.66	-0.153679
5742.72	-0.152374
5766.78	-0.151006
5790.83	-0.149635
5814.89	-0.148259
5838.95	-0.146874
5863	-0.145476
5887.06	-0.144057
5911.11	-0.142611
5935.17	-0.141132
5959.23	-0.139614
5983.28	-0.141521
6007.34	-0.140745
6031.4	-0.139875
6055.45	-0.138621
6079.51	-0.137316
6103.57	-0.135957
6127.62	-0.134538
6151.68	-0.133055
6175.74	-0.131497
6199.79	-0.129865
6223.85	-0.12816
6247.91	-0.126376
6271.96	-0.124534
6296.02	-0.122646
6320.08	-0.120721
6344.13	-0.118761
6368.19	-0.116769
6392.24	-0.114744
6416.3	-0.112685
6440.36	-0.11059
6464.41	-0.108455
6488.47	-0.106276
6512.53	-0.104049
6536.58	-0.101772
6560.64	-0.0994428
6584.7	-0.0970608
6608.75	-0.0946263
6632.81	-0.0899285
6656.87	-0.0853517
6680.92	-0.0809881
6704.98	-0.076842
6729.04	-0.0728778
6753.09	-0.069045
6777.15	-0.0652922
6801.21	-0.0615745
6825.26	-0.0578568
6849.32	-0.0541135
6873.37	-0.0503279
6897.43	-0.0464902
6921.49	-0.0426449
6945.54	-0.0388555
6969.6	-0.0351345
6993.66	-0.0314712
7017.71	-0.0278374
7041.77	-0.0241975
7065.83	-0.0205201
7089.88	-0.0129757
7113.94	-0.00672452
7138	-0.0017106
7162.05	0.00272015
7186.11	0.00710027
7210.17	0.011648
7234.22	0.0163505
7258.28	0.0210938
7282.34	0.0281407
7306.39	0.0334517
7330.45	0.0386568
7354.5	0.0434569
7378.56	0.0477058
7402.62	0.0512516
7426.67	0.0540372
7450.73	0.05609
7474.79	0.0574772
7498.84	0.0582733
7522.46	0.0585384
7546.08	0.0583578
7569.69	0.0577504
7593.31	0.0567974
7616.93	0.0555568
7640.54	0.0541036
7664.16	0.0525141
7687.77	0.0508521
7711.39	0.0491584
7735.01	0.0474523
7758.62	0.0457392
7782.24	0.0440187
7805.86	0.0422892
7829.47	0.0405505
7853.09	0.0388022
7876.71	0.0370469
7900.32	0.0352887
7923.94	0.0335356
7947.55	0.0317991
7971.17	0.0300901
7994.79	0.0284149
8018.4	0.026772
8042.02	0.0251514
8065.64	0.0235359
8089.25	0.0219049
8112.87	0.0202386
8136.49	0.0185196
8160.1	0.0165895
8183.72	0.0144969
8207.33	0.0109528
8230.95	0.00859968
8254.57	0.00642203
8278.18	0.00461782
8301.8	0.00300895
8325.42	0.00367831
8349.03	0.00226996
8372.65	0.00136045
8396.27	-3.42482e-05
8419.88	-0.00155834
8443.5	-0.00289314
8467.11	-0.0040822
8490.73	-0.00523027
8514.35	-0.00635969
8537.96	-0.00753111
8561.58	-0.00877842
8585.2	-0.00977851
8608.81	-0.0106045
8632.43	-0.0113021
8656.05	-0.0118947
8679.66	-0.0123974
8703.28	-0.0128218
8726.89	-0.010251
8750.51	-0.0107172
8774.13	-0.00871206
8797.74	-0.00922636
8821.36	-0.009674
8844.98	-0.0100802
8868.59	-0.0104116
8892.21	-0.0106982
8915.83	-0.01096
8939.44	-0.0112117
8963.06	-0.0114628
8986.67	-0.0119603
9010.29	-0.0123908
9033.91	-0.0127792
9057.52	-0.0131292
9081.14	-0.0134442
9104.76	-0.0137346
9128.37	-0.0139999
9151.99	-0.0143868
9175.61	-0.0147071
9199.22	-0.0149703
9222.84	-0.0151786
9246.45	-0.0153391
9270.07	-0.0154573
9293.69	-0.0155394
9317.3	-0.0155901
9340.92	-0.0156127
9364.54	-0.0156097
9388.15	-0.0155828
9411.77	-0.0139944
9435.39	-0.0143082
9459	-0.0141549
9482.62	-0.0139968
9506.23	-0.013833
9529.85	-0.0136631
9553.47	-0.0134867
9577.08	-0.0133038
9600.7	-0.0131143
9624.32	-0.0129183
9647.93	-0.0127159
9671.55	-0.0125068
9695.17	-0.0122913
9718.78	-0.0120664
9742.4	-0.0118327
9766.02	-0.0115911
9789.63	-0.011342
9813.25	-0.0110861
9836.86	-0.010824
9860.48	-0.0105563
9884.1	-0.0102835
9907.71	-0.0100102
9931.33	-0.00973608
9954.95	-0.00946104
9978.56	-0.00918498
10002.2	-0.00890784
10025.8	-0.0086296
10049.4	-0.00835027
10073	-0.0080689
10096.6	-0.00778584
10120.3	-0.00750136
10143.9	-0.0072157
10167.5	-0.00692851
10191.2	-0.00664051
10214.9	-0.00635187
10238.5	-0.00606292
10262.2	-0.00577392
10285.8	-0.00542137
10309.5	-0.00507687
10333.2	-0.00473978
10356.8	-0.00440948
10380.5	-0.00408543
10404.1	-0.00376717
10427.8	-0.00345426
10451.5	-0.00314636
10475.1	-0.00284316
10498.8	-0.0025444
10522.9	-0.00224456
10547	-0.00194896
10571.1	-0.00165751
10595.1	-0.00137015
10619.2	-0.00108685
10643.3	-0.000807663
10667.4	-0.000532643
10691.5	-0.000261899
10715.6	4.41913e-06
10739.7	0.000266127
10763.8	0.00052301
10787.9	0.000774829
10811.9	0.0010213
10836	0.00127086
10860.1	0.00152072
10884.2	0.00176847
10909	0.00201909
10933.8	0.00226343
10958.6	0.00249988
10983.3	0.00272707
11008.1	0.00294386
11032.9	0.0031493
11057.7	0.00334263
11082.5	0.00352324
11107.3	0.00369067
11133.3	0.00385251
11159.4	0.00399918
11185.5	0.00413039
11211.5	0.00424603
11237.6	0.00434607
11263.6	0.00443063
11289.7	0.0044999
11315.8	0.00455415
11341.8	0.00459372
11367.9	0.00461901
11393.3	0.00463019
11418.8	0.00462861
11444.3	0.00461472
11469.7	0.00458901
11495.2	0.00455197
11520.7	0.00450412
11546.1	0.00444596
11571.6	0.00437801
11597	0.00430076
11622.5	0.00421474
11649.2	0.00411569
11676	0.00400804
11702.7	0.00389233
11729.5	0.00376911
11756.2	0.0036389
11783	0.00350178
11809.8	0.00335862
11836.7	0.00320976
11862.7	0.00306029
11888.8	0.00290639
11914.8	0.00274844
11940.9	0.00258681
11967	0.00242183
11993	0.00225383
