0	0
12.9623	0
22.684	0
32.4056	0
42.1271	0
51.8485	0
61.5698	0
71.291	0
81.0122	0
90.7334	0
100.454	0
110.175	0
123.137	0
132.858	0
142.579	0
152.272	0
161.993	0
171.714	0
181.376	0
191.039	0
200.76	0
210.481	0
220.078	0
232.792	0
242.327	2.72848e-12
251.863	5.45697e-12
261.398	8.18545e-12
270.933	1.09139e-11
280.469	1.54614e-11
290.004	2.09184e-11
302.718	3.00133e-11
312.253	3.81988e-11
321.788	4.91127e-11
331.323	6.27551e-11
340.858	8.00355e-11
350.381	1.00044e-10
363.048	1.34605e-10
372.548	1.67347e-10
382.048	2.05546e-10
391.548	2.5193e-10
401.048	3.09228e-10
410.548	3.76531e-10
423.09	4.8658e-10
432.474	5.86624e-10
441.881	7.04858e-10
451.288	8.44011e-10
460.694	1.00772e-09
470.037	1.19599e-09
482.412	1.49248e-09
491.693	1.75532e-09
500.974	2.05819e-09
510.224	2.40289e-09
522.473	2.93494e-09
531.66	3.39878e-09
540.712	3.91447e-09
552.788	4.70573e-09
561.846	5.38421e-09
570.904	6.14364e-09
582.975	7.29506e-09
592.018	8.27185e-09
601.051	9.35415e-09
610.084	1.05529e-08
622.128	1.23473e-08
631.161	1.38543e-08
640.193	1.55133e-08
652.237	1.79789e-08
661.27	2.00343e-08
670.303	2.22835e-08
682.346	2.56077e-08
691.379	2.83644e-08
700.407	3.13639e-08
712.434	3.5765e-08
721.454	3.93866e-08
730.474	4.32965e-08
742.5	4.89763e-08
751.52	5.35993e-08
760.548	5.85496e-08
772.591	6.56719e-08
781.623	7.14181e-08
790.655	7.75226e-08
802.697	8.62383e-08
811.729	9.32259e-08
820.761	1.00615e-07
832.804	1.11113e-07
841.836	1.19481e-07
850.858	1.28271e-07
862.883	1.40661e-07
871.901	1.50461e-07
880.919	1.607e-07
892.944	1.7503e-07
901.962	1.86287e-07
910.98	1.97982e-07
923.004	2.14251e-07
932.022	2.26963e-07
941.041	2.40114e-07
950.059	2.53704e-07
962.083	2.72516e-07
971.101	2.8715e-07
980.119	3.02242e-07
992.143	3.23093e-07
1001.16	3.39292e-07
1010.18	3.55988e-07
1022.2	3.79053e-07
1031.22	3.9698e-07
1040.24	4.15473e-07
1052.26	4.41059e-07
1061.28	4.60986e-07
1070.3	4.81588e-07
1082.32	5.10181e-07
1091.34	5.32528e-07
1100.36	5.5571e-07
1112.38	5.88024e-07
1121.4	6.134e-07
1130.42	6.39839e-07
1142.44	6.76888e-07
1151.46	7.06124e-07
1160.47	7.36727e-07
1172.49	7.79844e-07
1181.5	8.14066e-07
1190.51	8.50043e-07
1202.53	9.00975e-07
1211.54	9.41582e-07
1220.55	9.84422e-07
1232.57	1.04529e-06
1241.58	1.09399e-06
1250.59	1.14549e-06
1262.61	1.21886e-06
1271.62	1.27767e-06
1280.64	1.33998e-06
1292.65	1.42887e-06
1301.67	1.50021e-06
1310.68	1.57585e-06
1322.69	1.68384e-06
1331.65	1.76998e-06
1340.6	1.86128e-06
1352.54	1.9916e-06
1361.5	2.09618e-06
1370.45	2.20701e-06
1382.39	2.36514e-06
1391.35	2.49198e-06
1400.3	2.62634e-06
1412.24	2.81791e-06
1421.19	2.97169e-06
1430.15	3.13518e-06
1442.03	3.36784e-06
1450.9	3.55365e-06
1462.72	3.81813e-06
1471.58	4.02935e-06
1480.45	4.25184e-06
1492.27	4.56638e-06
1501.23	4.81848e-06
1510.18	5.08279e-06
1522.12	5.4546e-06
1531.07	5.74835e-06
1540.03	6.0552e-06
1551.97	6.48526e-06
1560.87	6.82199e-06
1572.74	7.29309e-06
1581.64	7.66359e-06
1590.55	8.04939e-06
1602.42	8.5886e-06
1611.3	9.01143e-06
1620.14	9.44954e-06
1631.93	1.00617e-05
1640.77	1.05429e-05
1652.55	1.12157e-05
1661.4	1.17449e-05
1670.24	1.22963e-05
1682.02	1.30682e-05
1690.87	1.3676e-05
1702.65	1.45276e-05
1711.49	1.51989e-05
1720.33	1.58998e-05
1732.12	1.6883e-05
1740.96	1.76589e-05
1752.75	1.87483e-05
1761.59	1.96087e-05
1770.43	2.05083e-05
1782.22	2.17725e-05
1791.06	2.27716e-05
1802.85	2.41753e-05
1811.69	2.52836e-05
1820.53	2.64413e-05
1832.32	2.80637e-05
1841.16	2.93413e-05
1852.95	3.1128e-05
1861.79	3.25321e-05
1870.63	3.39923e-05
1882.41	3.60288e-05
1891.26	3.76248e-05
1900.1	3.92812e-05
1911.88	4.1586e-05
1920.72	4.33888e-05
1932.51	4.58944e-05
1941.35	4.78522e-05
1950.19	4.98795e-05
1961.98	5.26941e-05
1970.82	5.48916e-05
1982.61	5.79413e-05
1991.45	6.03216e-05
2000.29	6.27849e-05
2012.08	6.62032e-05
2020.92	6.88714e-05
2032.7	7.25746e-05
2041.55	7.54657e-05
2050.39	7.84584e-05
2062.17	8.26131e-05
2071.01	8.58579e-05
2082.8	9.03637e-05
2091.64	9.38835e-05
2100.48	9.75288e-05
2112.27	0.000102593
2121.11	0.00010655
2132.9	0.000112048
2141.74	0.000112506
2150.58	0.000111284
2162.37	0.00011003
2171.21	0.000109354
2180.05	0.00010889
2191.83	0.000108582
2200.67	0.000108573
2212.46	0.000108837
2221.3	0.000109233
2230.14	0.000109791
2241.93	0.000110777
2250.77	0.000111692
2262.56	0.000113138
2271.4	0.000114387
2280.24	0.000115776
2292.02	0.000117841
2300.86	0.000119549
2312.65	0.000122037
2321.49	0.000124062
2330.33	0.000126224
2342.12	0.000129323
2350.96	0.000131812
2362.75	0.000135354
2371.59	0.000138182
2380.43	0.000141162
2392.21	0.000145376
2401.05	0.000148724
2412.84	0.000153446
2421.68	0.000157187
2430.52	0.000161105
2442.31	0.000166614
2451.13	0.00017096
2462.87	0.000177042
2471.67	0.000181839
2480.46	0.000186846
2492.2	0.00019386
2501	0.000199384
2512.73	0.000207116
2521.56	0.000213218
2530.4	0.000219552
2542.19	0.000228325
2551.03	0.000235139
2562.81	0.000244522
2571.65	0.00025177
2580.48	0.000259202
2592.27	0.000269405
2601.11	0.000277273
2612.89	0.000288056
2621.73	0.000296368
2630.57	0.00030488
2642.36	0.000316551
2651.2	0.000325556
2660.04	0.000334787
2671.83	0.000347465
2680.67	0.000357264
2692.46	0.000370744
2701.3	0.000381181
2710.14	0.000391916
2721.92	0.00040672
2730.77	0.000418212
2742.55	0.000434087
2751.39	0.000446429
2760.23	0.000459163
2772.02	0.000476781
2780.86	0.000490495
2792.65	0.000509479
2801.49	0.000524257
2810.32	0.000539512
2822.09	0.000560635
2830.92	0.000577074
2842.68	0.000599832
2851.5	0.00061756
2860.32	0.000635878
2872.08	0.000661253
2880.91	0.000689239
2892.68	0.000748669
2901.5	0.000792937
2910.34	0.000836892
2922.11	0.000894915
2930.91	0.000937857
2942.65	0.000994638
2951.45	0.00103696
2960.25	0.00107914
2971.98	0.00113536
2980.78	0.00117764
2992.51	0.00123441
3001.31	0.00127744
3010.11	0.00132101
3021.85	0.00138018
3030.65	0.00142553
3042.38	0.00148755
3051.18	0.00153541
3062.91	0.00160126
3071.71	0.00165234
3080.51	0.00170501
3092.25	0.00177761
3101.05	0.00183359
3112.78	0.00191
3121.58	0.00196854
3130.38	0.00202813
3142.12	0.00210925
3150.92	0.00217145
3162.65	0.00225637
3171.45	0.00232175
3180.25	0.00238876
3191.98	0.00248099
3200.78	0.0025526
3212.52	0.00265177
3221.32	0.00272918
3230.12	0.00280941
3241.85	0.00292111
3250.65	0.00300869
3262.38	0.00313091
3271.18	0.00333713
3282.92	0.00359951
3291.72	0.00378705
3300.52	0.00396792
3312.25	0.0042017
3321.05	0.00437407
3332.78	0.00460389
3341.58	0.00477886
3350.38	0.0049582
3362.12	0.00520715
3370.92	0.00540227
3382.65	0.00567082
3391.45	0.00587771
3400.25	0.00608972
3411.98	0.0063825
3420.78	0.00661204
3432.51	0.00693542
3441.31	0.00719355
3450.11	0.00756271
3461.85	0.0083011
3470.65	0.00883149
3482.38	0.00952628
3491.18	0.0100576
3502.91	0.0108066
3511.71	0.0114005
3520.51	0.0120098
3532.25	0.0128593
3541.04	0.0135481
3552.78	0.0153555
3561.58	0.0165086
3570.38	0.0177089
3582.11	0.0195736
3590.91	0.0219932
3602.64	0.025266
3611.44	0.0277022
3620.24	0.0301373
3631.98	0.0333028
3640.78	0.0355944
3652.51	0.0385442
3661.31	0.0406853
3670.11	0.0427893
3681.84	0.0455909
3690.64	0.0477203
3702.37	0.0506165
3711.17	0.052832
3722.91	0.0558385
3731.71	0.0581317
3740.5	0.0604618
3752.24	0.0636388
3761.04	0.0660839
3772.77	0.0694356
3781.57	0.0720189
3790.37	0.0746591
3802.1	0.0782613
3810.9	0.0810203
3822.63	0.0847742
3831.43	0.0876499
3840.23	0.0905836
3851.97	0.094599
3860.77	0.0976995
3872.5	0.101968
3881.3	0.105279
3890.1	0.108692
3901.83	0.113413
3910.63	0.117088
3922.36	0.122178
3931.16	0.126142
3942.9	0.131631
3951.7	0.135903
3960.5	0.14031
3972.23	0.146401
3981.03	0.151133
3992.76	0.157667
4001.56	0.162741
4010.36	0.16797
4022.1	0.17519
4030.9	0.1808
4042.63	0.188548
4051.43	0.194566
4060.23	0.200768
4071.96	0.209327
4080.76	0.215967
4092.49	0.225115
4101.29	0.232197
4110.09	0.239466
4121.83	0.249443
4130.63	0.257133
4142.36	0.267651
4151.16	0.275728
4162.89	0.286731
4171.69	0.295146
4180.49	0.303687
4192.23	0.315251
4201.03	0.324036
4212.76	0.335872
4221.56	0.344817
4230.36	0.353801
4242.1	0.365802
4250.9	0.374792
4262.63	0.386718
4271.51	0.395658
4280.38	0.404498
4292.22	0.416075
4301.09	0.424561
4312.93	0.435551
4321.81	0.443506
4330.69	0.451186
4342.55	0.46093
4351.44	0.467815
4360.39	0.474343
4372.37	0.48238
4381.35	0.487838
4390.33	0.49277
4402.31	0.498466
4411.29	0.502036
4420.28	0.504968
4432.25	0.507831
4441.24	0.509155
4450.22	0.509742
4462.2	0.509332
4471.18	0.5081
4480.16	0.506051
4492.14	0.502012
4501.12	0.497983
4510.11	0.493082
4522.08	0.48517
4531.07	0.478195
4540.05	0.470322
4552.03	0.458429
4561.01	0.448466
4572.99	0.433803
4581.97	0.421784
4590.95	0.408905
4602.93	0.390424
4611.91	0.375607
4620.89	0.359996
4632.87	0.337988
4641.86	0.320624
4650.84	0.302558
4662.82	0.277429
4671.8	0.257846
4680.78	0.237667
4692.76	0.209892
4701.74	0.188459
4710.73	0.166544
4722.7	0.136653
4731.69	0.113788
4740.67	0.0903715
4752.65	0.0591573
4761.63	0.0367395
4770.61	0.00983227
4782.59	-0.0178764
4791.57	-0.0354498
4800.56	-0.0504844
4812.53	-0.0531364
4821.52	-0.0661143
4830.5	-0.0771082
4842.48	-0.0901881
4851.46	-0.0992698
4860.45	-0.106908
4872.42	-0.115733
4881.41	-0.121775
4890.39	-0.127463
4902.37	-0.122083
4911.35	-0.126283
4920.33	-0.13245
4932.31	-0.140059
4941.3	-0.14484
4950.28	-0.148996
4962.26	-0.153839
4971.25	-0.157084
4980.27	-0.160076
4992.29	-0.163743
5001.31	-0.16601
5010.33	-0.168148
5022.35	-0.170771
5031.37	-0.172664
5040.39	-0.174527
5052.42	-0.176928
5061.43	-0.178649
5070.45	-0.18029
5082.48	-0.182345
5091.49	-0.183765
5100.51	-0.176124
5112.54	-0.177892
5121.55	-0.17892
5130.57	-0.18069
5142.6	-0.182765
5151.61	-0.184106
5160.63	-0.18527
5172.66	-0.186586
5181.68	-0.18742
5190.69	-0.188139
5202.72	-0.188939
5211.74	-0.189434
5220.75	-0.189846
5232.77	-0.190285
5241.78	-0.19054
5250.8	-0.19074
5262.81	-0.190933
5271.83	-0.191029
5280.84	-0.19109
5292.85	-0.191012
5301.87	-0.190949
5310.88	-0.19089
5322.9	-0.190812
5331.91	-0.190684
5340.92	-0.190551
5352.94	-0.190364
5361.95	-0.190216
5370.96	-0.190061
5382.98	-0.189841
5391.99	-0.189665
5401.01	-0.189479
5410.02	-0.189283
5421.98	-0.189007
5430.93	-0.188788
5442.87	-0.18848
5451.83	-0.188237
5460.78	-0.18798
5472.72	-0.186118
5481.67	-0.184559
5490.63	-0.18431
5502.57	-0.183976
5511.52	-0.183724
5520.48	-0.183471
5532.42	-0.18313
5541.37	-0.18287
5550.32	-0.182602
5562.23	-0.182235
5571.1	-0.181955
5582.92	-0.181579
5591.79	-0.181299
5600.66	-0.181021
5612.48	-0.18065
5621.34	-0.180372
5630.21	-0.180094
5642.15	-0.179719
5651.1	-0.179436
5660.06	-0.179151
5672	-0.178766
5680.95	-0.178474
5692.89	-0.178076
5701.83	-0.177772
5710.73	-0.177462
5722.6	-0.177035
5731.5	-0.176705
5740.41	-0.176364
5752.23	-0.175895
5761.08	-0.175532
5772.86	-0.175027
5781.7	-0.174634
5790.54	-0.174228
5802.33	-0.173665
5811.17	-0.173225
5820.01	-0.172771
5831.8	-0.172142
5840.64	-0.171651
5852.43	-0.170968
5861.27	-0.170434
5870.11	-0.169884
5881.9	-0.169124
5890.74	-0.168534
5902.53	-0.167721
5911.37	-0.167062
5920.21	-0.16637
5932	-0.165422
5940.84	-0.164692
5952.63	-0.163694
5961.47	-0.162929
5970.31	-0.16215
5982.1	-0.16109
5990.94	-0.160281
6002.72	-0.159182
6011.56	-0.158345
6020.41	-0.157499
6032.19	-0.156361
6041.03	-0.1555
6052.82	-0.154344
6061.66	-0.153473
6070.5	-0.1526
6082.29	-0.151432
6091.13	-0.150554
6102.92	-0.149381
6111.76	-0.148502
6120.6	-0.147621
6132.39	-0.146447
6141.23	-0.145567
6150.07	-0.144686
6161.86	-0.143513
6170.7	-0.142633
6182.49	-0.14146
6191.33	-0.14058
6200.17	-0.1397
6211.96	-0.138527
6220.8	-0.142137
6232.58	-0.141458
6241.43	-0.14086
6250.27	-0.140221
6262.05	-0.13937
6270.89	-0.138733
6282.68	-0.137884
6291.52	-0.137246
6300.36	-0.136608
6312.15	-0.135755
6320.99	-0.135114
6332.78	-0.134257
6341.62	-0.133611
6350.46	-0.132963
6362.25	-0.132095
6371.09	-0.13144
6382.88	-0.130106
6391.72	-0.128979
6400.56	-0.127847
6412.35	-0.126334
6421.19	-0.125201
6430.03	-0.124072
6441.82	-0.122574
6450.66	-0.121458
6462.44	-0.119978
6471.29	-0.118876
6480.13	-0.117779
6491.91	-0.116324
6500.75	-0.115237
6512.54	-0.113794
6521.38	-0.112715
6530.22	-0.111637
6542.01	-0.1102
6550.85	-0.109123
6562.64	-0.107684
6571.48	-0.106603
6580.32	-0.105519
6592.11	-0.104068
6600.95	-0.102975
6612.74	-0.10151
6621.58	-0.100406
6630.42	-0.099299
6642.21	-0.0978243
6651.05	-0.096721
6662.84	-0.0952552
6671.68	-0.0941601
6680.52	-0.0930686
6692.31	-0.0916179
6701.15	-0.0905321
6712.93	-0.0890855
6721.78	-0.0879997
6730.62	-0.0869114
6742.4	-0.0854541
6751.24	-0.0843546
6760.09	-0.0832478
6771.87	-0.0817588
6780.71	-0.0806309
6792.49	-0.079112
6801.29	-0.0775466
6810.09	-0.0752386
6821.82	-0.0723696
6830.62	-0.0703607
6842.35	-0.0678429
6851.15	-0.0660517
6862.88	-0.0637584
6871.68	-0.0620878
6880.48	-0.0604423
6892.25	-0.0582571
6901.09	-0.0566141
6912.87	-0.0544047
6921.71	-0.0527222
6930.55	-0.0510169
6942.34	-0.0487261
6951.18	-0.0470045
6960.02	-0.0452808
6971.81	-0.042973
6980.65	-0.0412267
6992.44	-0.0388637
7001.28	-0.0370568
7010.12	-0.0347861
7021.91	-0.0307179
7030.75	-0.0277414
7042.54	-0.0239078
7051.38	-0.0210872
7060.22	-0.0182662
7072.01	-0.0144499
7080.85	-0.0115318
7092.64	-0.00762599
7101.48	-0.00473034
7110.32	-0.00185223
7122.1	0.00269169
7130.94	0.00719296
7142.73	0.012462
7151.56	0.0163685
7160.4	0.0203576
7172.19	0.0283497
7181.03	0.0337346
7192.82	0.0402736
7201.66	0.0444945
7210.5	0.0481013
7222.29	0.0520372
7231.13	0.0544058
7242.92	0.056913
7251.76	0.0584087
7260.6	0.0596555
7272.39	0.0610221
7281.23	0.0618765
7290.06	0.0626216
7301.84	0.0634997
7310.67	0.0641139
7322.44	0.0649339
7331.27	0.0655821
7340.09	0.0662721
7351.85	0.0672469
7360.67	0.0679946
7372.43	0.0689651
7381.26	0.0696412
7390.09	0.0702507
7401.86	0.0709376
7410.69	0.0713548
7422.43	0.0717884
7431.23	0.0720376
7440.03	0.0722379
7451.77	0.0724565
7460.57	0.0726043
7472.3	0.0728074
7481.1	0.0729801
7492.83	0.0732543
7501.63	0.0734978
7510.43	0.0737716
7522.17	0.0741705
7530.97	0.0744787
7542.7	0.0748724
7551.5	0.0751343
7560.3	0.0753518
7572.04	0.0755555
7580.84	0.0756359
7592.57	0.0756446
7601.37	0.0755809
7610.17	0.0754635
7621.9	0.0752362
7630.7	0.0750237
7642.44	0.0747015
7651.24	0.0744423
7660.04	0.0741775
7671.77	0.0738297
7680.57	0.0735816
7692.3	0.0732779
7701.1	0.0730747
7712.84	0.0728393
7721.64	0.0726889
7730.44	0.072559
7742.17	0.0724129
7750.97	0.07232
7762.7	0.0722126
7771.5	0.0721416
7780.3	0.0720767
7792.04	0.0719978
7800.84	0.0719431
7812.57	0.0718749
7821.37	0.0718263
7830.17	0.0717783
7841.91	0.0717121
7850.71	0.0716576
7862.44	0.0715721
7871.24	0.0714935
7880.04	0.0713978
7891.77	0.0712363
7900.57	0.0710841
7912.31	0.0708326
7921.11	0.0706031
7932.84	0.0702379
7941.64	0.0699173
7950.44	0.0695557
7962.17	0.0690099
7970.97	0.0685536
7982.71	0.0678853
7991.51	0.0673416
8000.31	0.066764
8012.04	0.0659453
8020.84	0.065298
8032.58	0.0643953
8041.38	0.0636912
8050.18	0.0629665
8061.91	0.061971
8070.71	0.061205
8082.44	0.0601609
8091.24	0.0593632
8100.04	0.058555
8111.78	0.0574646
8120.58	0.05664
8132.31	0.0555359
8141.11	0.0547074
8152.84	0.0536066
8161.64	0.0527866
8170.44	0.0519734
8182.18	0.0509018
8190.98	0.0501086
8202.71	0.0490652
8211.51	0.0482925
8220.31	0.0475268
8232.05	0.0465137
8240.85	0.0457568
8252.58	0.0447464
8261.38	0.0439842
8270.18	0.0432151
8281.91	0.0421745
8290.71	0.0413795
8302.45	0.0402965
8311.25	0.0394651
8320.05	0.0386158
8331.78	0.0374547
8340.58	0.0365615
8352.31	0.0353404
8361.11	0.0344017
8372.85	0.0331184
8381.65	0.0321313
8390.45	0.0311216
8402.18	0.0297363
8410.98	0.0286641
8422.71	0.027182
8431.52	0.026023
8440.32	0.0248138
8452.05	0.0231017
8460.85	0.0217202
8472.58	0.0197077
8481.38	0.0180321
8490.18	0.0161363
8501.92	0.0133671
8510.72	0.0104661
8522.45	0.0072771
8531.25	0.00519661
8540.05	0.0033031
8551.78	0.00289968
8560.58	0.00106641
8572.32	-0.00107496
8581.12	-0.00256929
8592.85	-0.00447444
8601.65	-0.00582689
8610.45	-0.00706361
8622.19	-0.00857968
8630.99	-0.00733451
8642.72	-0.00804093
8651.52	-0.00927936
8660.32	-0.0104921
8672.05	-0.011945
8680.85	-0.0129499
8692.59	-0.0142582
8701.39	-0.0152317
8710.19	-0.0162043
8721.92	-0.0176262
8730.72	-0.0186445
8742.45	-0.0199493
8751.25	-0.0208515
8760.05	-0.0196216
8771.79	-0.0207788
8780.59	-0.0216323
8792.32	-0.022752
8801.12	-0.022738
8812.86	-0.0238979
8821.66	-0.0247274
8830.46	-0.0255173
8842.19	-0.0264979
8850.99	-0.0271864
8862.72	-0.0280504
8871.52	-0.0286619
8880.32	-0.0292456
8892.06	-0.0299863
8900.86	-0.0305178
8912.59	-0.0311893
8921.39	-0.0316731
8930.19	-0.0321444
8941.92	-0.0327561
8950.72	-0.0332075
8962.46	-0.0338001
8971.26	-0.0342995
8980.06	-0.034807
8991.79	-0.0354464
9000.59	-0.0359008
9012.33	-0.0364765
9021.13	-0.0368873
9032.86	-0.0374089
9041.66	-0.0377814
9050.46	-0.0381384
9062.19	-0.0385909
9070.99	-0.0389096
9082.73	-0.0393057
9091.53	-0.0376809
9100.33	-0.0368018
9112.06	-0.0370557
9120.86	-0.0372329
9132.59	-0.0374525
9141.39	-0.0376053
9150.19	-0.0377483
9161.93	-0.0379245
9170.73	-0.0380464
9182.46	-0.0381919
9191.26	-0.0382881
9200.06	-0.0383741
9211.8	-0.0384743
9220.6	-0.0385397
9232.33	-0.0386151
9241.13	-0.0386637
9252.86	-0.0387191
9261.66	-0.0387543
9270.46	-0.0387846
9282.2	-0.0388184
9291	-0.0388393
9302.73	-0.0388619
9311.53	-0.038876
9320.33	-0.0388882
9332.06	-0.0389013
9340.86	-0.0389087
9352.6	-0.0389153
9361.4	-0.0389176
9370.2	-0.0389178
9381.93	-0.0389154
9390.73	-0.0389132
9402.47	-0.0389079
9411.27	-0.038902
9420.07	-0.0388944
9431.8	-0.0388814
9440.6	-0.0388694
9452.33	-0.0388492
9461.13	-0.0388307
9472.87	-0.0388014
9481.67	-0.038776
9490.47	-0.0387477
9502.2	-0.0387056
9511	-0.0386708
9522.73	-0.0386515
9531.54	-0.0386547
9540.34	-0.038652
9552.07	-0.0386395
9560.87	-0.0386238
9572.6	-0.0385947
9581.4	-0.038567
9590.2	-0.0385344
9601.94	-0.0384838
9610.74	-0.0384405
9622.47	-0.0383759
9631.27	-0.0383225
9640.07	-0.038265
9651.8	-0.0381821
9660.6	-0.0381153
9672.34	-0.0380202
9681.14	-0.0379446
9692.87	-0.037838
9701.67	-0.0377538
9710.47	-0.0376662
9722.21	-0.037544
9731.01	-0.0374484
9742.74	-0.0373159
9751.54	-0.0372129
9760.34	-0.0359323
9772.07	-0.0357693
9780.87	-0.0356461
9792.61	-0.0354804
9801.41	-0.0353547
9810.21	-0.0352278
9821.94	-0.0350565
9830.74	-0.0349263
9842.47	-0.0347502
9851.27	-0.0346163
9860.07	-0.0344806
9871.81	-0.0342968
9880.61	-0.0341568
9892.34	-0.0339671
9901.14	-0.0338225
9912.88	-0.0336266
9921.68	-0.0334771
9930.48	-0.0333256
9942.21	-0.0331201
9951.01	-0.0329635
9962.74	-0.0327512
9971.54	-0.0325891
9980.34	-0.0324245
9992.08	-0.0322009
10000.9	-0.0320301
10012.6	-0.0317985
10021.4	-0.0316218
10030.2	-0.0314425
10041.9	-0.0311996
10050.7	-0.0310145
10062.5	-0.030764
10071.3	-0.0305732
10080.1	-0.03038
10091.8	-0.0301188
10100.6	-0.02992
10112.3	-0.0296515
10121.1	-0.0294473
10132.9	-0.0291716
10141.7	-0.0290048
10150.5	-0.0288566
10162.2	-0.0286548
10171	-0.0285002
10182.7	-0.0282894
10191.5	-0.028128
10200.3	-0.0279635
10212.1	-0.0277397
10220.9	-0.0275683
10232.6	-0.0273351
10241.4	-0.0271569
10250.2	-0.0269756
10261.9	-0.0267294
10270.7	-0.0265413
10282.5	-0.0262861
10291.3	-0.0260913
10300.1	-0.0258937
10311.8	-0.0256258
10320.6	-0.0254217
10332.3	-0.0251452
10341.1	-0.0249347
10352.9	-0.0246498
10361.7	-0.0244331
10370.5	-0.0242138
10382.2	-0.0239173
10391	-0.0236921
10402.7	-0.0233881
10411.5	-0.0231591
10420.3	-0.0229295
10432.1	-0.0226222
10440.9	-0.0223912
10452.6	-0.0220824
10461.4	-0.0218501
10470.2	-0.0216169
10481.9	-0.0213047
10490.7	-0.0210693
10502.5	-0.0207537
10511.3	-0.0205157
10520.1	-0.0202764
10531.8	-0.0199554
10540.6	-0.019713
10552.3	-0.0193878
10561.1	-0.0191423
10572.9	-0.0188127
10581.7	-0.018564
10590.5	-0.0183138
10602.2	-0.0179174
10611	-0.0176217
10622.7	-0.0172294
10631.5	-0.0169366
10640.4	-0.0166449
10652.1	-0.0162577
10660.9	-0.0159687
10672.6	-0.0155849
10681.4	-0.0152984
10690.2	-0.0150131
10702	-0.0146342
10710.8	-0.0143513
10722.5	-0.0139757
10731.3	-0.0136951
10740.1	-0.0134155
10751.8	-0.0130441
10760.6	-0.0127666
10772.4	-0.0123979
10781.2	-0.0121225
10792.9	-0.0117565
10801.7	-0.011483
10810.5	-0.0112098
10822.2	-0.0108462
10831	-0.010574
10842.8	-0.010212
10851.6	-0.00994144
10860.4	-0.0096717
10872.1	-0.00931348
10880.9	-0.00904598
10892.6	-0.00869098
10901.4	-0.00842732
10910.2	-0.00816649
10922	-0.00782277
10930.8	-0.00756775
10942.5	-0.00723108
10951.3	-0.00698088
10960.1	-0.00673249
10971.8	-0.00640389
10980.6	-0.00615547
10992.4	-0.00583629
11001.2	-0.00560724
11012.9	-0.00531266
11021.7	-0.00509809
11030.5	-0.00488771
11042.2	-0.00461203
11051	-0.00440781
11062.8	-0.00413758
11071.6	-0.0039357
11080.4	-0.00373394
11092.1	-0.00346439
11100.9	-0.00326355
11112.6	-0.00299927
11121.4	-0.00280313
11130.2	-0.00260828
11142	-0.0023497
11150.8	-0.00215614
11162.5	-0.00189781
11171.3	-0.0017034
11180.1	-0.00150805
11191.8	-0.00124565
11200.6	-0.00104708
11212.4	-0.000779698
11221.2	-0.00057716
11232.9	-0.000304616
11241.7	-9.8391e-05
11250.5	0.000109379
11262.2	0.00038889
11271	0.000600494
11282.8	0.000885462
11291.6	0.00110145
11300.4	0.00131947
11312.1	0.00160731
11320.9	0.00182054
11332.6	0.00210331
11341.4	0.00231509
11350.2	0.0025271
11362	0.0028108
11370.8	0.00302484
11382.5	0.00331255
11391.3	0.00353043
11400.1	0.00375034
11411.8	0.00417829
11420.6	0.00451435
11432.4	0.00497264
11441.2	0.00531971
11452.9	0.00578319
11461.7	0.00612992
11470.5	0.00647531
11482.2	0.00693344
11491	0.00727455
11502.9	0.00773157
11512.2	0.00808502
11521.5	0.00843595
11530.7	0.0087882
11540	0.00914295
11552.4	0.00962026
11561.7	0.00998149
11570.9	0.0103443
11580.2	0.0107072
11592.6	0.0111905
11601.8	0.0118767
11611.1	0.012704
11620.4	0.0134797
11632.8	0.0144191
11642	0.0150527
11651.3	0.015637
11660.6	0.016193
11673	0.0168984
11682.2	0.0176687
11691.5	0.0183089
11700.8	0.0189204
11710	0.0194661
11722.4	0.0202509
11731.7	0.0210471
11741	0.0219323
11750.2	0.0228492
11762.6	0.0240567
11771.9	0.0249443
11781.2	0.025805
11790.4	0.0266386
11802.8	0.0277266
11812.1	0.0285316
11821.3	0.0293286
11830.6	0.0301239
11843	0.0311988
11852.3	0.0320274
11861.5	0.0328792
11870.8	0.0337518
11880.1	0.0346384
11892.4	0.0358264
11901.7	0.0367086
11911	0.0375724
11920.3	0.0384104
11932.6	0.0394801
11941.9	0.0402453
11951.2	0.0409805
11960.5	0.0416886
11972.8	0.0425956
11982.1	0.0432512
11991.4	0.0438874
