CPUS: 0 1 2 3 4 5 6 7 8 9 10 11
SPLIT SIZES:  2 4 8 16 32 64 128 256 512 1024 2048 4096 8192
Split Size: 2
Threads	MTPS	SPEEDUP	SPEEDUP_PER	KML_SPEEDUP	KML_SPEEDUP_TO_NONAFFINITY
1	2.48283	1.0000	1.0000	1.0000	.0045
2	3.99551	1.6092	.8046	1.6879	.0536
3	5.06939	2.0417	.6805	2.4171	.1892
4	6.36454	2.5634	.6408	3.1571	.2372
5	7.58456	3.0548	.6109	3.7929	.2472
6	8.68394	3.4975	.5829	4.4416	.2756
7	9.89745	3.9863	.5694	4.5505	.1467
8	10.8322	4.3628	.5453	4.7305	.0892
9	11.8285	4.7641	.5293	4.9503	.0438
10	12.6712	5.1035	.5103	5.2096	.0254
11	13.4107	5.4013	.4910	5.4294	.0097
12	14.2807	5.7517	.4793	5.7009	-.0043
Split Size: 4
Threads	MTPS	SPEEDUP	SPEEDUP_PER	KML_SPEEDUP	KML_SPEEDUP_TO_NONAFFINITY
1	2.59457	1.0000	1.0000	1.0000	-.0049
2	4.25073	1.6383	.8191	1.7075	.0371
3	5.39715	2.0801	.6933	2.4622	.1778
4	6.81945	2.6283	.6570	3.2207	.2193
5	8.15349	3.1425	.6285	3.9012	.2353
6	9.27583	3.5750	.5958	4.5670	.2711
7	10.5459	4.0646	.5806	4.6998	.1505
8	11.594	4.4685	.5585	4.8929	.0895
9	12.7466	4.9127	.5458	5.1272	.0385
10	13.6293	5.2530	.5253	5.3952	.0220
11	14.5149	5.5943	.5085	5.6770	.0097
12	15.3524	5.9171	.4930	5.9527	.0010
Split Size: 8
Threads	MTPS	SPEEDUP	SPEEDUP_PER	KML_SPEEDUP	KML_SPEEDUP_TO_NONAFFINITY
1	2.6361	1.0000	1.0000	1.0000	.0018
2	4.39717	1.6680	.8340	1.7261	.0367
3	5.6561	2.1456	.7152	2.4870	.1612
4	7.04019	2.6706	.6676	3.2361	.2139
5	8.4658	3.2114	.6422	3.9460	.2310
6	9.66803	3.6675	.6112	4.6065	.2583
7	10.9411	4.1504	.5929	4.7530	.1472
8	12.1122	4.5947	.5743	4.9701	.0836
9	13.3	5.0453	.5605	5.2086	.0342
10	14.2371	5.4008	.5400	5.4859	.0176
11	15.2559	5.7872	.5261	5.7686	-.0013
12	16.0724	6.0970	.5080	6.0626	-.0037
Split Size: 16
Threads	MTPS	SPEEDUP	SPEEDUP_PER	KML_SPEEDUP	KML_SPEEDUP_TO_NONAFFINITY
1	2.69361	1.0000	1.0000	1.0000	-.0091
2	4.4861	1.6654	.8327	1.7406	.0355
3	5.72575	2.1256	.7085	2.5161	.1728
4	7.19877	2.6725	.6681	3.2614	.2091
5	8.66075	3.2152	.6430	3.9718	.2239
6	9.92077	3.6830	.6138	4.6357	.2471
7	11.2118	4.1623	.5946	4.7872	.1395
8	12.3752	4.5942	.5742	4.9930	.0768
9	13.5584	5.0335	.5592	5.2568	.0347
10	14.7383	5.4715	.5471	5.5378	.0028
11	15.5331	5.7666	.5242	5.8162	-.0006
12	16.508	6.1285	.5107	6.0998	-.0138
Split Size: 32
Threads	MTPS	SPEEDUP	SPEEDUP_PER	KML_SPEEDUP	KML_SPEEDUP_TO_NONAFFINITY
1	2.65862	1.0000	1.0000	1.0000	.0089
2	4.543	1.7087	.8543	1.7506	.0336
3	5.81039	2.1854	.7284	2.5209	.1637
4	7.30758	2.7486	.6871	3.2776	.2030
5	8.73857	3.2868	.6573	3.9893	.2245
6	10.0214	3.7693	.6282	4.6641	.2484
7	11.4394	4.3027	.6146	4.8285	.1322
8	12.5665	4.7267	.5908	5.0488	.0776
9	13.7339	5.1658	.5739	5.2989	.0349
10	14.7709	5.5558	.5555	5.5982	.0166
11	15.6883	5.9009	.5364	5.8671	.0031
12	16.6741	6.2717	.5226	6.1986	-.0028
Split Size: 64
Threads	MTPS	SPEEDUP	SPEEDUP_PER	KML_SPEEDUP	KML_SPEEDUP_TO_NONAFFINITY
1	2.72658	1.0000	1.0000	1.0000	-.0081
2	4.56232	1.6732	.8366	1.7462	.0350
3	5.9002	2.1639	.7213	2.5354	.1620
4	7.39528	2.7122	.6780	3.3010	.2070
5	8.86005	3.2495	.6499	4.0026	.2216
6	10.1934	3.7385	.6230	4.6904	.2443
7	11.5912	4.2511	.6073	4.8493	.1313
8	12.8505	4.7130	.5891	5.0871	.0705
9	14.1206	5.1788	.5754	5.3655	.0275
10	14.9636	5.4880	.5488	5.6766	.0258
11	16.1495	5.9229	.5384	5.9572	-.0024
12	17.069	6.2602	.5216	6.2613	-.0080
Split Size: 128
Threads	MTPS	SPEEDUP	SPEEDUP_PER	KML_SPEEDUP	KML_SPEEDUP_TO_NONAFFINITY
1	2.95478	1.0000	1.0000	1.0000	-.0073
2	5.25601	1.7788	.8894	1.8365	.0248
3	6.97899	2.3619	.7873	2.6668	.1207
4	8.84319	2.9928	.7482	3.4863	.1563
5	10.6766	3.6133	.7226	4.2408	.1649
6	12.237	4.1414	.6902	4.9950	.1972
7	13.9617	4.7251	.6750	5.2378	.1003
8	15.4821	5.2396	.6549	5.5776	.0566
9	16.9549	5.7381	.6375	5.9256	.0250
10	18.2205	6.1664	.6166	6.2833	.0114
11	19.6515	6.6507	.6046	6.6503	-.0074
12	20.6832	6.9999	.5833	6.9744	-.0109
Split Size: 256
Threads	MTPS	SPEEDUP	SPEEDUP_PER	KML_SPEEDUP	KML_SPEEDUP_TO_NONAFFINITY
1	3.0823	1.0000	1.0000	1.0000	-.0041
2	5.6912	1.8464	.9232	1.8881	.0183
3	7.77893	2.5237	.8412	2.7399	.0811
4	9.95531	3.2298	.8074	3.6001	.1100
5	11.9837	3.8879	.7775	4.3809	.1221
6	13.8097	4.4803	.7467	5.1293	.1401
7	15.6837	5.0883	.7269	5.4916	.0747
8	17.3142	5.6172	.7021	5.8793	.0423
9	18.9261	6.1402	.6822	6.2721	.0172
10	20.4082	6.6210	.6621	6.7177	.0103
11	21.7573	7.0587	.6417	7.1001	.0017
12	23.1	7.4944	.6245	7.4700	-.0073
Split Size: 512
Threads	MTPS	SPEEDUP	SPEEDUP_PER	KML_SPEEDUP	KML_SPEEDUP_TO_NONAFFINITY
1	3.15904	1.0000	1.0000	1.0000	-.0019
2	5.93327	1.8781	.9390	1.9131	.0166
3	8.19709	2.5948	.8649	2.7543	.0594
4	10.4769	3.3164	.8291	3.6179	.0887
5	12.5753	3.9807	.7961	4.3681	.0951
6	14.4671	4.5795	.7632	5.0835	.1078
7	16.3429	5.1733	.7390	5.4860	.0583
8	18.174	5.7530	.7191	5.9727	.0361
9	19.6239	6.2119	.6902	6.3202	.0154
10	21.1785	6.7040	.6704	6.7156	-.0002
11	22.7695	7.2077	.6552	7.2250	.0004
12	23.7219	7.5092	.6257	7.5144	-.0012
Split Size: 1024
Threads	MTPS	SPEEDUP	SPEEDUP_PER	KML_SPEEDUP	KML_SPEEDUP_TO_NONAFFINITY
1	3.19429	1.0000	1.0000	1.0000	-.0005
2	6.06297	1.8980	.9490	1.9292	.0158
3	8.40195	2.6303	.8767	2.7587	.0482
4	10.828	3.3897	.8474	3.6266	.0692
5	12.736	3.9871	.7974	4.2454	.0641
6	14.5681	4.5606	.7601	4.9133	.0767
7	16.4444	5.1480	.7354	5.3983	.0480
8	18.6168	5.8281	.7285	5.9603	.0220
9	19.689	6.1638	.6848	6.2415	.0120
10	20.7653	6.5007	.6500	6.4898	-.0022
11	23.0918	7.2290	.6571	7.2221	-.0015
12	23.7495	7.4349	.6195	7.3963	-.0057
Split Size: 2048
Threads	MTPS	SPEEDUP	SPEEDUP_PER	KML_SPEEDUP	KML_SPEEDUP_TO_NONAFFINITY
1	3.21666	1.0000	1.0000	1.0000	.0015
2	6.15208	1.9125	.9562	1.9267	.0089
3	8.24656	2.5637	.8545	2.6471	.0341
4	10.93	3.3979	.8494	3.5805	.0553
5	11.9806	3.7245	.7449	3.8814	.0437
6	14.1863	4.4102	.7350	4.6522	.0564
7	15.0935	4.6922	.6703	4.8409	.0332
8	18.8648	5.8647	.7330	5.9877	.0225
9	19.4174	6.0365	.6707	6.0866	.0098
10	19.8423	6.1686	.6168	6.1826	.0038
11	20.1288	6.2576	.5688	6.2521	.0006
12	20.294	6.3090	.5257	6.2993	0
Split Size: 4096
Threads	MTPS	SPEEDUP	SPEEDUP_PER	KML_SPEEDUP	KML_SPEEDUP_TO_NONAFFINITY
1	3.26062	1.0000	1.0000	1.0000	-.0036
2	6.1457	1.8848	.9424	1.9061	.0075
3	8.09602	2.4829	.8276	2.5500	.0232
4	10.9475	3.3574	.8393	3.4973	.0378
5	11.3646	3.4854	.6970	3.6154	.0334
6	11.8723	3.6411	.6068	3.7864	.0360
7	12.2136	3.7457	.5351	3.8289	.0184
8	18.2622	5.6008	.7001	5.6912	.0123
9	18.2736	5.6043	.6227	5.6319	.0012
10	18.2254	5.5895	.5589	5.6011	-.0016
11	18.136	5.5621	.5056	5.5923	.0017
12	18.0834	5.5460	.4621	5.5666	0
Split Size: 8192
Threads	MTPS	SPEEDUP	SPEEDUP_PER	KML_SPEEDUP	KML_SPEEDUP_TO_NONAFFINITY
1	3.25964	1.0000	1.0000	1.0000	-.0006
2	6.0332	1.8508	.9254	1.8623	.0055
3	6.48688	1.9900	.6633	2.0297	.0192
4	10.4257	3.1984	.7996	3.2909	.0282
5	10.3721	3.1819	.6363	3.2819	.0306
6	10.4233	3.1976	.5329	3.2909	.0284
7	10.4089	3.1932	.4561	3.2426	.0147
8	10.3839	3.1855	.3981	3.2209	.0103
9	10.3654	3.1799	.3533	3.1888	.0021
10	10.3958	3.1892	.3189	3.1846	-.0021
11	10.3621	3.1789	.2889	3.1788	-.0006
12	10.3028	3.1607	.2633	3.1677	.0015
