srun: Job step aborted: Waiting up to 2 seconds for job step to finish.
slurmd[mac-snb05]: *** JOB 153762 CANCELLED AT 2014-03-11T18:26:39 DUE TO TIME LIMIT ***
slurmd[mac-snb05]: *** STEP 153762.0 CANCELLED AT 2014-03-11T18:26:39 DUE TO TIME LIMIT ***
