srun: Job step aborted: Waiting up to 2 seconds for job step to finish.
slurmd[mac-snb28]: *** STEP 153798.0 CANCELLED AT 2014-03-11T19:33:39 DUE TO TIME LIMIT ***
slurmd[mac-snb28]: *** JOB 153798 CANCELLED AT 2014-03-11T19:33:39 DUE TO TIME LIMIT ***
