srun: Job step aborted: Waiting up to 2 seconds for job step to finish.
slurmd[mac-snb06]: *** JOB 153769 CANCELLED AT 2014-03-11T18:28:38 DUE TO TIME LIMIT ***
slurmd[mac-snb06]: *** STEP 153769.0 CANCELLED AT 2014-03-11T18:28:38 DUE TO TIME LIMIT ***
