Problem size with different number of CPUs using function optimization
THREADS	MTPS	TIMESTEPS	TIMESTEP_SIZE	SECONDS_FOR_SIMULATION	AVERAGE_TRIANGLES	AVERAGE_PARTITIONS
80	100.816	100	0.000986073	19.0218	1.9177e+07	1162.24
79	101.067	100	0.000986073	18.9746	1.9177e+07	1162.24
78	101.296	100	0.000986073	18.9317	1.9177e+07	1162.24
77	100.326	100	0.000986073	19.1147	1.9177e+07	1162.24
76	99.8077	100	0.000986073	19.2139	1.9177e+07	1162.24
75	97.8732	100	0.000986073	19.5937	1.9177e+07	1162.24
74	99.3555	100	0.000986073	19.3014	1.9177e+07	1162.24
73	100.088	100	0.000986073	19.1601	1.9177e+07	1162.24
72	98.407	100	0.000986073	19.4874	1.9177e+07	1162.24
71	97.3591	100	0.000986073	19.6972	1.9177e+07	1162.24
70	98.6865	100	0.000986073	19.4322	1.9177e+07	1162.24
69	98.6256	100	0.000986073	19.4442	1.9177e+07	1162.24
68	91.0788	100	0.000986073	21.0554	1.9177e+07	1162.24
67	85.7021	100	0.000986073	22.3763	1.9177e+07	1162.24
66	83.2607	100	0.000986073	23.0325	1.9177e+07	1162.24
65	83.3007	100	0.000986073	23.0214	1.9177e+07	1162.24
64	79.375	100	0.000986073	24.16	1.9177e+07	1162.24
63	70.9426	100	0.000986073	27.0317	1.9177e+07	1162.24
62	78.4424	100	0.000986073	24.4472	1.9177e+07	1162.24
61	77.5457	100	0.000986073	24.7299	1.9177e+07	1162.24
60	75.0434	100	0.000986073	25.5546	1.9177e+07	1162.24
59	78.0044	100	0.000986073	24.5845	1.9177e+07	1162.24
58	74.9321	100	0.000986073	25.5925	1.9177e+07	1162.24
57	71.0232	100	0.000986073	27.001	1.9177e+07	1162.24
56	75.059	100	0.000986073	25.5492	1.9177e+07	1162.24
55	76.4943	100	0.000986073	25.0698	1.9177e+07	1162.24
54	76.8855	100	0.000986073	24.9423	1.9177e+07	1162.24
53	67.9078	100	0.000986073	28.2397	1.9177e+07	1162.24
52	81.1341	100	0.000986073	23.6362	1.9177e+07	1162.24
51	76.6587	100	0.000986073	25.0161	1.9177e+07	1162.24
50	80.2648	100	0.000986073	23.8922	1.9177e+07	1162.24
49	76.5597	100	0.000986073	25.0484	1.9177e+07	1162.24
48	77.2492	100	0.000986073	24.8249	1.9177e+07	1162.24
47	78.0028	100	0.000986073	24.585	1.9177e+07	1162.24
46	75.167	100	0.000986073	25.5125	1.9177e+07	1162.24
45	79.1035	100	0.000986073	24.2429	1.9177e+07	1162.24
44	68.536	100	0.000986073	27.9809	1.9177e+07	1162.24
43	71.9664	100	0.000986073	26.6471	1.9177e+07	1162.24
42	70.9165	100	0.000986073	27.0417	1.9177e+07	1162.24
41	73.7183	100	0.000986073	26.0139	1.9177e+07	1162.24
40	74.7806	100	0.000986073	25.6443	1.9177e+07	1162.24
39	66.2827	100	0.000986073	28.9321	1.9177e+07	1162.24
38	63.7464	100	0.000986073	30.0833	1.9177e+07	1162.24
37	76.445	100	0.000986073	25.086	1.9177e+07	1162.24
36	66.8538	100	0.000986073	28.685	1.9177e+07	1162.24
35	70.5466	100	0.000986073	27.1834	1.9177e+07	1162.24
34	71.4527	100	0.000986073	26.8387	1.9177e+07	1162.24
33	71.2394	100	0.000986073	26.9191	1.9177e+07	1162.24
32	66.9571	100	0.000986073	28.6407	1.9177e+07	1162.24
31	68.4816	100	0.000986073	28.0032	1.9177e+07	1162.24
30	56.2854	100	0.000986073	34.071	1.9177e+07	1162.24
29	64.0904	100	0.000986073	29.9218	1.9177e+07	1162.24
28	64.8816	100	0.000986073	29.5569	1.9177e+07	1162.24
27	67.0239	100	0.000986073	28.6122	1.9177e+07	1162.24
26	62.9854	100	0.000986073	30.4467	1.9177e+07	1162.24
25	61.2767	100	0.000986073	31.2957	1.9177e+07	1162.24
24	59.4506	100	0.000986073	32.257	1.9177e+07	1162.24
23	55.7092	100	0.000986073	34.4234	1.9177e+07	1162.24
22	54.8387	100	0.000986073	34.9698	1.9177e+07	1162.24
21	52.4294	100	0.000986073	36.5768	1.9177e+07	1162.24
20	48.738	100	0.000986073	39.3471	1.9177e+07	1162.24
19	49.5901	100	0.000986073	38.671	1.9177e+07	1162.24
18	49.2837	100	0.000986073	38.9114	1.9177e+07	1162.24
17	46.233	100	0.000986073	41.4791	1.9177e+07	1162.24
16	44.8581	100	0.000986073	42.7503	1.9177e+07	1162.24
15	38.81	100	0.000986073	49.4125	1.9177e+07	1162.24
14	38.4856	100	0.000986073	49.829	1.9177e+07	1162.24
13	37.3546	100	0.000986073	51.3377	1.9177e+07	1162.24
12	33.9661	100	0.000986073	56.4592	1.9177e+07	1162.24
11	32.1559	100	0.000986073	59.6375	1.9177e+07	1162.24
10	29.5808	100	0.000986073	64.8291	1.9177e+07	1162.24
9	26.7099	100	0.000986073	71.7972	1.9177e+07	1162.24
8	23.6156	100	0.000986073	81.2049	1.9177e+07	1162.24
7	20.824	100	0.000986073	92.0909	1.9177e+07	1162.24
6	17.8731	100	0.000986073	107.296	1.9177e+07	1162.24
5	14.9059	100	0.000986073	128.654	1.9177e+07	1162.24
4	11.9163	100	0.000986073	160.931	1.9177e+07	1162.24
3	8.94831	100	0.000986073	214.308	1.9177e+07	1162.24
2	6.00615	100	0.000986073	319.289	1.9177e+07	1162.24
1	3.04551	100	0.000986073	629.681	1.9177e+07	1162.24
