0	0
13.237	0
23.1647	0
33.0924	0
43.0202	0
52.9479	0
62.8756	0
72.8033	0
82.7311	0
92.6588	0
102.587	0
112.514	0
122.442	0
132.37	0
142.297	0
152.225	0
162.153	0
172.081	0
182.008	0
191.936	0
201.864	0
211.792	0
221.719	0
231.647	0
241.575	0
251.502	0
261.43	0
271.358	0
281.286	0
291.213	0
301.141	0
311.069	0
320.997	0
330.924	0
340.852	0
350.78	0
360.707	0
370.635	0
380.563	0
390.491	0
400.418	0
410.346	0
420.274	0
430.202	0
440.129	0
450.057	0
463.294	0
473.222	0
483.149	0
493.077	0
503.005	0
512.933	0
522.86	0
532.788	0
542.716	0
552.644	0
562.571	0
572.499	0
582.427	0
592.354	0
602.282	0
612.21	0
622.138	0
632.065	0
641.993	0
651.921	0
661.849	0
671.776	0
681.704	0
691.632	0
701.559	0
711.487	0
721.415	0
731.343	0
741.27	0
751.198	0
761.126	0
771.054	0
780.981	0
790.909	0
800.837	0
810.764	0
820.692	0
830.62	0
840.548	0
850.475	0
860.403	0
870.331	0
880.259	0
890.186	0
900.114	0
910.042	0
923.279	0
933.206	0
943.134	0
953.062	0
962.99	0
972.917	0
982.845	0
992.773	0
1002.7	0
1012.63	0
1022.56	0
1032.48	0
1042.41	0
1052.34	0
1062.27	0
1072.19	0
1082.12	0
1092.05	0
1101.98	0
1111.91	0
1121.83	0
1131.76	0
1141.69	0
1151.62	0
1161.54	0
1171.47	0
1181.4	0
1191.33	0
1201.26	0
1211.18	0
1221.11	0
1231.04	0
1240.97	0
1250.89	0
1260.82	0
1270.75	0
1280.68	0
1290.6	0
1300.53	0
1310.46	0
1320.39	0
1330.32	0
1340.24	0
1350.17	0
1360.1	0
1370.03	0
1383.26	0
1393.19	0
1403.12	0
1413.05	0
1422.97	0
1432.9	0
1442.83	0
1452.76	0
1462.69	0
1472.61	0
1482.54	0
1492.47	0
1502.4	0
1512.32	0
1522.25	0
1532.18	0
1542.11	0
1552.03	0
1561.96	0
1571.89	0
1581.82	0
1591.75	0
1601.67	0
1611.6	0
1621.53	0
1631.46	0
1641.38	0
1651.31	0
1661.24	0
1671.17	0
1681.1	0
1691.02	0
1700.95	0
1710.88	0
1720.81	0
1730.73	0
1740.66	0
1750.59	0
1760.52	0
1770.44	0
1780.37	0
1790.3	0
1800.23	0
1810.16	0
1820.08	0
1830.01	0
1843.25	0
1853.18	0
1863.1	0
1873.03	0
1882.96	0
1892.89	0
1902.81	0
1912.74	0
1922.67	0
1932.6	0
1942.53	0
1952.45	0
1962.38	0
1972.31	0
1982.24	0
1992.16	0
2002.09	0
2012.02	0
2021.95	0
2031.87	0
2041.8	0
2051.73	0
2061.66	0
2071.59	0
2081.51	0
2091.44	0
2101.37	0
2111.3	0
2121.22	0
2131.15	0
2141.08	0
2151.01	-9.09495e-13
2160.94	-2.72848e-12
2170.86	-5.45697e-12
2180.79	-9.09495e-12
2190.72	-1.81899e-11
2200.65	-3.45608e-11
2210.57	-6.45741e-11
2220.5	-1.18234e-10
2230.43	-2.1555e-10
2240.36	-3.86535e-10
2250.28	-6.85759e-10
2260.21	-1.19871e-09
2270.14	-2.07001e-09
2280.07	-3.52702e-09
2293.31	-7.04313e-09
2303.23	-1.1667e-08
2313.16	-1.90958e-08
2323.09	-3.08901e-08
2333.02	-4.93965e-08
2342.94	-7.80956e-08
2352.87	-1.22094e-07
2362.8	-1.88787e-07
2372.73	-2.88757e-07
2382.65	-4.36969e-07
2392.58	-6.54324e-07
2402.51	-9.69691e-07
2412.44	-1.42246e-06
2422.37	-2.06577e-06
2432.29	-2.97048e-06
2442.22	-4.22999e-06
2452.15	-5.96605e-06
2462.08	-8.33558e-06
2472	-1.15385e-05
2481.93	-1.58268e-05
2491.86	-2.15144e-05
2501.79	-2.89883e-05
2511.72	-3.87199e-05
2521.64	-5.12776e-05
2531.57	-6.73387e-05
2541.5	-8.77015e-05
2551.43	-0.000113296
2561.35	-0.000145195
2571.28	-0.00018462
2581.21	-0.000232946
2591.14	-0.000291705
2601.06	-0.000362581
2610.99	-0.000447403
2620.92	-0.000548135
2630.85	-0.000666857
2640.78	-0.000805742
2650.7	-0.000967026
2660.63	-0.00115298
2670.56	-0.00136587
2680.49	-0.00160791
2690.41	-0.00188123
2700.34	-0.00218783
2710.27	-0.00252954
2720.2	-0.00290794
2730.12	-0.00332439
2740.05	-0.00377992
2753.29	-0.0044493
2763.22	-0.00499822
2773.15	-0.00558725
2783.07	-0.00621586
2793	-0.00688318
2802.93	-0.00758796
2812.86	-0.00832858
2822.78	-0.00910308
2832.71	-0.00990921
2842.64	-0.0107444
2852.57	-0.0116059
2862.49	-0.0124906
2872.42	-0.0133954
2882.35	-0.0143169
2892.28	-0.0152516
2902.2	-0.0161958
2912.13	-0.017146
2922.06	-0.0180983
2931.99	-0.019049
2941.92	-0.0199941
2951.84	-0.0209296
2961.77	-0.0218514
2971.7	-0.0227551
2981.63	-0.0236362
2991.55	-0.0244899
3001.48	-0.0253109
3011.41	-0.0260935
3021.34	-0.0268315
3031.26	-0.0275177
3041.19	-0.0281443
3051.12	-0.0287023
3061.05	-0.0291816
3070.97	-0.0295707
3080.9	-0.0298566
3090.83	-0.0300248
3100.76	-0.0300586
3110.69	-0.0299398
3120.61	-0.0296477
3130.54	-0.0291599
3140.47	-0.0284514
3150.4	-0.0274955
3160.32	-0.0262632
3170.25	-0.0247234
3180.18	-0.0228436
3190.11	-0.0205896
3200.03	-0.0179262
3213.27	-0.0136758
3223.2	-0.00991667
3233.13	-0.00562796
3243.05	-0.000774962
3252.98	0.00467537
3262.91	0.0107538
3272.84	0.0174881
3282.76	0.0249023
3292.69	0.0330166
3302.62	0.0418459
3312.55	0.0514001
3322.47	0.0616834
3332.4	0.0726939
3342.33	0.0844235
3352.26	0.0968575
3362.18	0.109975
3372.11	0.123749
3382.04	0.138146
3391.97	0.153126
3401.89	0.168646
3411.82	0.184655
3421.75	0.201101
3431.67	0.217925
3441.6	0.235066
3451.53	0.252462
3461.46	0.270046
3471.38	0.287753
3481.31	0.305513
3491.24	0.32326
3501.17	0.340924
3511.09	0.358439
3521.02	0.375736
3530.95	0.392751
3540.88	0.409416
3550.8	0.425669
3560.73	0.441446
3570.66	0.456686
3580.59	0.471328
3590.51	0.485313
3600.44	0.498584
3610.37	0.511084
3620.29	0.522757
3630.22	0.533552
3640.15	0.543416
3650.08	0.5523
3660	0.560155
3673.24	0.568953
3683.17	0.57424
3693.09	0.578361
3703.02	0.581281
3712.95	0.582971
3722.88	0.583406
3732.8	0.582566
3742.73	0.580434
3752.66	0.577003
3762.59	0.57227
3772.51	0.566236
3782.44	0.558912
3792.37	0.550314
3802.3	0.540464
3812.22	0.52939
3822.15	0.517128
3832.08	0.503717
3842	0.489205
3851.93	0.473643
3861.86	0.457086
3871.79	0.439595
3881.71	0.421233
3891.64	0.402065
3901.57	0.382162
3911.5	0.361592
3921.42	0.340427
3931.35	0.318739
3941.28	0.296599
3951.2	0.274077
3961.13	0.251243
3971.06	0.228166
3980.99	0.204911
3990.91	0.181542
4000.84	0.158122
4010.77	0.134709
4020.7	0.111362
4030.62	0.0881345
4040.55	0.065079
4050.48	0.0422457
4060.41	0.0196825
4070.33	-0.00256439
4080.26	-0.0244505
4090.19	-0.0459331
4100.12	-0.0669703
4110.04	-0.0875217
4123.28	-0.1141
4133.21	-0.133365
4143.14	-0.152015
4153.06	-0.170012
4162.99	-0.18732
4172.92	-0.203903
4182.85	-0.219724
4192.77	-0.23475
4202.7	-0.248945
4212.63	-0.262278
4222.56	-0.274718
4232.48	-0.286234
4242.41	-0.296801
4252.34	-0.306393
4262.27	-0.314987
4272.19	-0.322566
4282.12	-0.329114
4292.05	-0.33462
4301.98	-0.339075
4311.91	-0.342478
4321.83	-0.344831
4331.76	-0.34614
4341.69	-0.346417
4351.62	-0.345679
4361.54	-0.343948
4371.47	-0.341252
4381.4	-0.337624
4391.33	-0.333099
4401.25	-0.327719
4411.18	-0.321531
4421.11	-0.314585
4431.04	-0.306933
4440.97	-0.298631
4450.89	-0.289739
4460.82	-0.280316
4470.75	-0.270425
4480.68	-0.260129
4490.6	-0.249489
4500.53	-0.23857
4510.46	-0.227432
4520.39	-0.216136
4530.31	-0.204739
4540.24	-0.193299
4550.17	-0.181869
4560.1	-0.170499
4570.02	-0.159235
4583.26	-0.144457
4593.19	-0.133605
4603.12	-0.122989
4613.04	-0.11264
4622.97	-0.102586
4632.9	-0.0928482
4642.83	-0.0834469
4652.75	-0.0743975
4662.68	-0.0657126
4672.61	-0.0574013
4682.54	-0.0494703
4692.47	-0.0419232
4702.39	-0.0347617
4712.32	-0.0279851
4722.25	-0.0215912
4732.18	-0.015576
4742.1	-0.00993432
4752.03	-0.00465996
4761.96	0.000254142
4771.89	0.00481566
4781.81	0.00903273
4791.74	0.0129138
4801.67	0.0164674
4811.6	0.0197022
4821.52	0.0226267
4831.45	0.0252496
4841.38	0.0275792
4851.31	0.0296236
4861.24	0.0313909
4871.16	0.032889
4881.09	0.0341257
4891.02	0.0351086
4900.95	0.0358454
4910.87	0.0363437
4920.8	0.0366112
4930.73	0.0366559
4940.66	0.0364856
4950.58	0.0361087
4960.51	0.0355338
4970.44	0.0347697
4980.37	0.0338258
4990.29	0.0327118
5000.22	0.0314378
5010.15	0.0300143
5020.08	0.0284523
5030.01	0.0267632
5043.24	0.0243336
5053.17	0.0223938
5063.1	0.020367
5073.03	0.0182657
5082.95	0.0161023
5092.88	0.0138894
5102.81	0.0116394
5112.74	0.00936433
5122.66	0.00707606
5132.59	0.00478596
5142.52	0.00250485
5152.45	0.000242923
5162.37	-0.00199034
5172.3	-0.00418625
5182.23	-0.00633701
5192.16	-0.00843573
5202.09	-0.0104765
5212.01	-0.0124543
5221.94	-0.0143652
5231.87	-0.0162064
5241.8	-0.0179757
5251.72	-0.0196723
5261.65	-0.021296
5271.58	-0.0228474
5281.51	-0.0243282
5291.43	-0.0257404
5301.36	-0.0270869
5311.29	-0.0283711
5321.22	-0.0295966
5331.15	-0.0307676
5341.07	-0.0318883
5351	-0.0329633
5360.93	-0.0339971
5370.86	-0.0349941
5380.78	-0.0359588
5390.71	-0.0368955
5400.64	-0.0378081
5410.57	-0.0387003
5420.49	-0.0395756
5430.42	-0.040437
5440.35	-0.0412873
5450.28	-0.0421287
5460.2	-0.0429633
5470.13	-0.0437925
5480.06	-0.0446176
5493.3	-0.0457128
5503.22	-0.0465312
5513.15	-0.0473472
5523.08	-0.0481607
5533.01	-0.0489715
5542.94	-0.0497792
5552.86	-0.0505832
5562.79	-0.0513828
5572.72	-0.0521774
5582.65	-0.0529662
5592.57	-0.0537485
5602.5	-0.0545236
5612.43	-0.0552909
5622.36	-0.0560498
5632.28	-0.0567999
5642.21	-0.0575408
5652.14	-0.0582723
5662.07	-0.0589943
5671.99	-0.0597066
5681.92	-0.0604096
5691.85	-0.0611033
5701.78	-0.0617881
5711.71	-0.0624644
5721.63	-0.0631326
5731.56	-0.0637932
5741.49	-0.0644469
5751.42	-0.0650942
5761.34	-0.0657355
5771.27	-0.0663716
5781.2	-0.0670027
5791.13	-0.0676293
5801.05	-0.0682518
5810.98	-0.0688702
5820.91	-0.0694847
5830.84	-0.070095
5840.76	-0.070701
5850.69	-0.0713022
5860.62	-0.0718979
5870.55	-0.0724872
5880.48	-0.0730691
5890.4	-0.0736423
5900.33	-0.0742051
5910.26	-0.074756
5920.19	-0.075293
5930.11	-0.0758138
5940.04	-0.0763161
5953.28	-0.0769528
5963.21	-0.0774019
5973.13	-0.0778234
5983.06	-0.0782142
5992.99	-0.0785712
6002.92	-0.0788912
6012.84	-0.0791708
6022.77	-0.0794067
6032.7	-0.0795955
6042.63	-0.0797339
6052.56	-0.0798186
6062.48	-0.0798464
6072.41	-0.079814
6082.34	-0.0797186
6092.27	-0.0795571
6102.19	-0.079327
6112.12	-0.0790257
6122.05	-0.0786509
6131.98	-0.0782005
6141.9	-0.0776726
6151.83	-0.0770658
6161.76	-0.0763788
6171.69	-0.0756105
6181.62	-0.0747602
6191.54	-0.0738275
6201.47	-0.0728124
6211.4	-0.0717151
6221.33	-0.070536
6231.25	-0.0692761
6241.18	-0.0679364
6251.11	-0.0665184
6261.04	-0.0650238
6270.96	-0.0634546
6280.89	-0.0618131
6290.82	-0.0601018
6300.75	-0.0583234
6310.68	-0.0564808
6320.6	-0.0545773
6330.53	-0.0526163
6340.46	-0.0506011
6350.39	-0.0485354
6360.31	-0.0464231
6370.24	-0.044268
6380.17	-0.0420739
6390.1	-0.039845
6400.02	-0.0375852
6413.26	-0.0345311
6423.19	-0.032215
6433.12	-0.0298814
6443.04	-0.0275344
6452.97	-0.0251778
6462.9	-0.0228155
6472.83	-0.0204512
6482.76	-0.0180885
6492.68	-0.0157311
6502.61	-0.0133822
6512.54	-0.0110453
6522.47	-0.00872345
6532.39	-0.00641983
6542.32	-0.00413733
6552.25	-0.00187878
6562.18	0.000353129
6572.1	0.00255583
6582.03	0.00472686
6591.96	0.00686388
6601.89	0.00896466
6611.82	0.0110271
6621.74	0.0130491
6631.67	0.0150287
6641.6	0.0169642
6651.53	0.0188537
6661.45	0.0206956
6671.38	0.0224883
6681.31	0.0242302
6691.24	0.0259199
6701.16	0.0275561
6711.09	0.0291375
6721.02	0.0306628
6730.95	0.0321309
6740.88	0.0335407
6750.8	0.0348913
6760.73	0.0361819
6770.66	0.0374116
6780.59	0.0385797
6790.51	0.0396858
6800.44	0.0407291
6810.37	0.0417096
6820.3	0.0426267
6830.22	0.0434805
6840.15	0.044271
6850.08	0.0449981
6860.01	0.0456622
6873.24	0.0464501
6883.17	0.0469686
6893.1	0.0474257
6903.03	0.047822
6912.96	0.0481586
6922.88	0.0484363
6932.81	0.0486562
6942.74	0.0488195
6952.67	0.0489275
6962.59	0.0489815
6972.52	0.0489828
6982.45	0.0489332
6992.38	0.048834
7002.3	0.0486869
7012.23	0.0484936
7022.16	0.0482557
7032.09	0.0479751
7042.02	0.0476534
7051.94	0.0472925
7061.87	0.0468941
7071.8	0.04646
7081.73	0.0459921
7091.65	0.0454921
7101.58	0.0449618
7111.51	0.044403
7121.44	0.0438173
7131.36	0.0432065
7141.29	0.0425723
7151.22	0.0419163
7161.15	0.0412402
7171.08	0.0405455
7181	0.0398336
7190.93	0.0391062
7200.86	0.0383646
7210.79	0.0376103
7220.71	0.0368445
7230.64	0.0360687
7240.57	0.0352839
7250.5	0.0344915
7260.42	0.0336926
7270.35	0.0328883
7280.28	0.0320798
7290.21	0.031268
7300.14	0.030454
7310.06	0.0296389
7323.3	0.0285519
7333.23	0.0277379
7343.15	0.0269259
7353.08	0.0261171
7363.01	0.0253123
7372.94	0.0245125
7382.87	0.0237189
7392.79	0.0229325
7402.72	0.0221543
7412.65	0.0213855
7422.58	0.0206273
7432.5	0.0198809
7442.43	0.0191476
7452.36	0.0184288
7462.29	0.0177256
7472.21	0.0170397
7482.14	0.0163724
7492.07	0.0157253
7502	0.0150999
7511.92	0.0144976
7521.85	0.0139202
7531.78	0.0133691
7541.71	0.0128459
7551.63	0.0123521
7561.56	0.0118892
7571.49	0.0114587
7581.42	0.0110619
7591.35	0.0107001
7601.27	0.0103746
7611.2	0.0100864
7621.13	0.00983643
7631.06	0.00962557
7640.98	0.00945447
7650.91	0.00932361
7660.84	0.00923332
7670.77	0.00918375
7680.69	0.00917482
7690.62	0.00920629
7700.55	0.00927767
7710.48	0.00938832
7720.4	0.00953733
7730.33	0.00972364
7740.26	0.00994595
7750.19	0.0102028
7760.11	0.0104924
7770.04	0.0108131
7783.28	0.0112853
7793.21	0.0116701
7803.13	0.0120785
7813.06	0.012508
7822.99	0.0129561
7832.92	0.0134199
7842.84	0.0138967
7852.77	0.0143837
7862.7	0.0148779
7872.63	0.0153764
7882.56	0.0158763
7892.48	0.0163746
7902.41	0.0168685
7912.34	0.017355
7922.27	0.0178313
7932.19	0.0182946
7942.12	0.0187422
7952.05	0.0191715
7961.98	0.0195798
7971.9	0.0199649
7981.83	0.0203243
7991.76	0.0206558
8001.69	0.0209572
8011.61	0.0212265
8021.54	0.021462
8031.47	0.0216617
8041.4	0.021824
8051.33	0.0219475
8061.25	0.0220306
8071.18	0.0220722
8081.11	0.022071
8091.04	0.0220261
8100.96	0.0219365
8110.89	0.0218014
8120.82	0.0216201
8130.75	0.021392
8140.67	0.0211168
8150.6	0.0207941
8160.53	0.0204237
8170.46	0.0200055
8180.38	0.0195395
8190.31	0.0190258
8200.24	0.0184648
8210.17	0.0178568
8220.1	0.0172023
8230.02	0.016502
8243.26	0.015498
8253.19	0.0146935
8263.12	0.0138461
8273.04	0.0129567
8282.97	0.0120266
8292.9	0.0110572
8302.83	0.0100497
8312.75	0.00900589
8322.68	0.00792722
8332.61	0.00681542
8342.54	0.00567229
8352.46	0.00449968
8362.39	0.00329952
8372.32	0.0020738
8382.25	0.000824548
8392.18	-0.000446151
8402.1	-0.00173618
8412.03	-0.00304341
8421.96	-0.00436568
8431.89	-0.00570083
8441.81	-0.0070467
8451.74	-0.00840114
8461.67	-0.00976204
8471.6	-0.0111273
8481.52	-0.0124948
8491.45	-0.0138627
8501.38	-0.0152288
8511.31	-0.0165913
8521.24	-0.0179484
8531.16	-0.0192982
8541.09	-0.0206391
8551.02	-0.0219694
8560.95	-0.0232875
8570.87	-0.0245919
8580.8	-0.0258812
8590.73	-0.0271541
8600.66	-0.0284093
8610.59	-0.0296456
8620.51	-0.0308618
8630.44	-0.0320569
8640.37	-0.0332299
8650.3	-0.0343799
8660.22	-0.0355059
8670.15	-0.0366072
8680.08	-0.037683
8690.01	-0.0387326
8703.24	-0.04009
8713.17	-0.0410758
8723.1	-0.0420334
8733.03	-0.0429621
8742.95	-0.0438615
8752.88	-0.0447312
8762.81	-0.0455706
8772.74	-0.0463796
8782.67	-0.0471576
8792.59	-0.0479045
8802.52	-0.04862
8812.45	-0.0493039
8822.38	-0.0499559
8832.3	-0.0505761
8842.23	-0.0511643
8852.16	-0.0517206
8862.09	-0.0522449
8872.01	-0.0527375
8881.94	-0.0531983
8891.87	-0.0536278
8901.8	-0.0540261
8911.73	-0.0543936
8921.65	-0.0547307
8931.58	-0.0550379
8941.51	-0.0553156
8951.44	-0.0555645
8961.36	-0.0557852
8971.29	-0.0559784
8981.22	-0.0561449
8991.15	-0.0562853
9001.07	-0.0564005
9011	-0.0564913
9020.93	-0.0565586
9030.86	-0.0566033
9040.79	-0.0566263
9050.71	-0.0566284
9060.64	-0.0566107
9070.57	-0.0565738
9080.5	-0.0565189
9090.42	-0.0564466
9100.35	-0.0563578
9110.28	-0.0562534
9120.21	-0.0561341
9130.13	-0.0560006
9140.06	-0.0558536
9153.3	-0.0556377
9163.23	-0.0554616
9173.15	-0.0552739
9183.08	-0.0550752
9193.01	-0.0548659
9202.94	-0.0546463
9212.87	-0.0544168
9222.79	-0.0541777
9232.72	-0.0539294
9242.65	-0.0536719
9252.58	-0.0534056
9262.5	-0.0531307
9272.43	-0.0528473
9282.36	-0.0525555
9292.29	-0.0522556
9302.21	-0.0519477
9312.14	-0.051632
9322.07	-0.0513085
9332	-0.0509776
9341.93	-0.0506393
9351.85	-0.050294
9361.78	-0.0499417
9371.71	-0.0495828
9381.64	-0.0492175
9391.56	-0.0488462
9401.49	-0.0484691
9411.42	-0.0480866
9421.35	-0.0476991
9431.27	-0.0473069
9441.2	-0.0469104
9451.13	-0.04651
9461.06	-0.0461062
9470.99	-0.0456995
9480.91	-0.0452901
9490.84	-0.0448786
9500.77	-0.0444654
9510.7	-0.044051
9520.62	-0.0436356
9530.55	-0.0432198
9540.48	-0.0428038
9550.41	-0.0423881
9560.34	-0.0419728
9570.26	-0.0415584
9580.19	-0.0411451
9590.12	-0.040733
9600.05	-0.0403224
9613.28	-0.0397773
9623.21	-0.0393705
9633.14	-0.0389654
9643.07	-0.038562
9652.99	-0.0381603
9662.92	-0.0377601
9672.85	-0.0373615
9682.78	-0.0369643
9692.7	-0.0365681
9702.63	-0.036173
9712.56	-0.0357786
9722.49	-0.0353847
9732.42	-0.0349911
9742.34	-0.0345974
9752.27	-0.0342035
9762.2	-0.0338089
9772.13	-0.0334136
9782.05	-0.033017
9791.98	-0.0326191
9801.91	-0.0322196
9811.84	-0.0318182
9821.77	-0.0314148
9831.69	-0.0310091
9841.62	-0.0306011
9851.55	-0.0301906
9861.48	-0.0297775
9871.4	-0.0293618
9881.33	-0.0289435
9891.26	-0.0285226
9901.19	-0.0280992
9911.11	-0.0276735
9921.04	-0.0272456
9930.97	-0.0268157
9940.9	-0.0263841
9950.83	-0.025951
9960.75	-0.0255169
9970.68	-0.025082
9980.61	-0.0246468
9990.54	-0.0242117
10000.5	-0.0237773
10010.4	-0.0233439
10020.3	-0.0229122
10030.2	-0.0224827
10040.2	-0.0220559
10050.1	-0.0216324
10060	-0.0212127
10073.3	-0.0206603
10083.2	-0.0202519
10093.1	-0.0198493
10103.1	-0.0194531
10113	-0.0190637
10122.9	-0.0186817
10132.8	-0.0183075
10142.8	-0.0179416
10152.7	-0.0175844
10162.6	-0.0172363
10172.5	-0.0168977
10182.5	-0.0165687
10192.4	-0.0162497
10202.3	-0.0159408
10212.3	-0.0156423
10222.2	-0.0153542
10232.1	-0.0150766
10242	-0.0148094
10252	-0.0145528
10261.9	-0.0143066
10271.8	-0.0140707
10281.7	-0.0138449
10291.7	-0.0136291
10301.6	-0.0134232
10311.5	-0.0132267
10321.5	-0.0130397
10331.4	-0.0128616
10341.3	-0.0126924
10351.2	-0.0125318
10361.2	-0.0123794
10371.1	-0.0122351
10381	-0.0120985
10391	-0.0119695
10400.9	-0.0118479
10410.8	-0.0117335
10420.7	-0.0116262
10430.7	-0.0115258
10440.6	-0.0114323
10450.5	-0.0113456
10460.4	-0.0112658
10470.4	-0.0111928
10480.3	-0.0111268
10490.2	-0.0110679
10500.2	-0.0110161
10510.1	-0.0109718
10520	-0.0109351
10533.2	-0.0108983
10543.2	-0.0108802
10553.1	-0.0108704
10563	-0.0108694
10573	-0.0108772
10582.9	-0.0108942
10592.8	-0.0109205
10602.7	-0.0109564
10612.7	-0.011002
10622.6	-0.0110574
10632.5	-0.0111227
10642.5	-0.0111979
10652.4	-0.011283
10662.3	-0.0113778
10672.2	-0.0114821
10682.2	-0.0115956
10692.1	-0.0117181
10702	-0.011849
10711.9	-0.0119878
10721.9	-0.0121339
10731.8	-0.0122866
10741.7	-0.0124451
10751.7	-0.0126087
10761.6	-0.0127762
10771.5	-0.0129467
10781.4	-0.0131192
10791.4	-0.0132925
10801.3	-0.0134654
10811.2	-0.0136367
10821.2	-0.0138052
10831.1	-0.0139695
10841	-0.0141285
10850.9	-0.0142807
10860.9	-0.014425
10870.8	-0.0145601
10880.7	-0.0146848
10890.6	-0.014798
10900.6	-0.0148985
10910.5	-0.0149854
10920.4	-0.0150578
10930.4	-0.0151146
10940.3	-0.0151554
10950.2	-0.0151793
10960.1	-0.0151859
10970.1	-0.0151748
10983.3	-0.0151319
10993.2	-0.0150786
11003.2	-0.0150072
11013.1	-0.0149179
11023	-0.0148109
11032.9	-0.0146868
11042.9	-0.0145459
11052.8	-0.0143891
11062.7	-0.0142171
11072.7	-0.0140309
11082.6	-0.0138313
11092.5	-0.0136196
11102.4	-0.0133969
11112.4	-0.0131644
11122.3	-0.0129236
11132.2	-0.0126756
11142.1	-0.012422
11152.1	-0.0121641
11162	-0.0119034
11171.9	-0.0116413
11181.9	-0.0113793
11191.8	-0.0111188
11201.7	-0.0108611
11211.6	-0.0106076
11221.6	-0.0103595
11231.5	-0.0101181
11241.4	-0.00988444
11251.4	-0.00965967
11261.3	-0.00944472
11271.2	-0.00924045
11281.1	-0.00904764
11291.1	-0.00886695
11301	-0.00869893
11310.9	-0.00854402
11320.8	-0.00840255
11330.8	-0.00827472
11340.7	-0.00816063
11350.6	-0.00806026
11360.6	-0.00797346
11370.5	-0.00789998
11380.4	-0.00783947
11390.3	-0.00779146
11400.3	-0.00775537
11410.2	-0.00773054
11420.1	-0.00771621
11430.1	-0.00771152
11443.3	-0.00771867
11453.2	-0.00773275
11463.1	-0.00775309
11473.1	-0.00777854
11483	-0.00780788
11492.9	-0.00783985
11502.9	-0.00787316
11512.8	-0.00790647
11522.7	-0.00793843
11532.6	-0.00796766
11542.6	-0.00799278
11552.5	-0.00801239
11562.4	-0.00802512
11572.3	-0.00802958
11582.3	-0.00802441
11592.2	-0.00800829
11602.1	-0.0079799
11612.1	-0.00793797
11622	-0.0078813
11631.9	-0.0078087
11641.8	-0.00771905
11651.8	-0.00761131
11661.7	-0.00748449
11671.6	-0.00733767
11681.6	-0.00717002
11691.5	-0.00698078
11701.4	-0.0067693
11711.3	-0.00653501
11721.3	-0.00627742
11731.2	-0.00599617
11741.1	-0.00569097
11751	-0.00536165
11761	-0.00500816
11770.9	-0.00463053
11780.8	-0.00422892
11790.8	-0.00380358
11800.7	-0.00335489
11810.6	-0.00288331
11820.5	-0.00238942
11830.5	-0.0018739
11840.4	-0.00133753
11850.3	-0.000781185
11860.2	-0.000205831
11870.2	0.000387484
11880.1	0.000997629
11890	0.0016234
11903.3	0.00247986
11913.2	0.00313705
11923.1	0.00380541
11933.1	0.0044835
11943	0.00516986
11952.9	0.00586299
11962.8	0.00656137
11972.8	0.00726351
11982.7	0.00796789
11992.6	0.00867301
12002.5	0.00937742
12012.5	0.0100797
12022.4	0.0107783
12032.3	0.0114721
12042.3	0.0121597
12052.2	0.0128398
12062.1	0.0135114
12072	0.0141733
12082	0.0148246
12091.9	0.0154643
12101.8	0.0160917
12111.8	0.0167059
12121.7	0.0173065
12131.6	0.0178929
12141.5	0.0184646
12151.5	0.0190214
12161.4	0.0195631
12171.3	0.0200895
12181.2	0.0206006
12191.2	0.0210964
12201.1	0.0215772
12211	0.0220431
12221	0.0224945
12230.9	0.0229318
12240.8	0.0233553
12250.7	0.0237656
12260.7	0.0241632
12270.6	0.0245487
12280.5	0.0249227
12290.4	0.0252858
12300.4	0.0256386
12310.3	0.0259818
12320.2	0.026316
12330.2	0.0266419
12340.1	0.02696
12350	0.0272708
12363.3	0.027675
12373.2	0.027971
12383.1	0.0282614
12393	0.0285465
12403	0.0288267
12412.9	0.0291022
12422.8	0.0293732
12432.7	0.0296398
12442.7	0.0299021
12452.6	0.0301601
12462.5	0.0304136
12472.5	0.0306626
12482.4	0.0309069
12492.3	0.0311462
12502.2	0.0313802
12512.2	0.0316086
12522.1	0.0318311
12532	0.0320472
12542	0.0322564
12551.9	0.0324584
12561.8	0.0326526
12571.7	0.0328387
12581.7	0.0330161
12591.6	0.0331844
12601.5	0.0333431
12611.4	0.0334919
12621.4	0.0336303
12631.3	0.0337581
12641.2	0.033875
12651.2	0.0339807
12661.1	0.034075
12671	0.0341579
12680.9	0.0342293
12690.9	0.0342892
12700.8	0.0343378
12710.7	0.0343752
12720.6	0.0344016
12730.6	0.0344175
12740.5	0.0344232
12750.4	0.0344191
12760.4	0.034406
12770.3	0.0343844
12780.2	0.034355
12790.1	0.0343186
12800.1	0.0342761
12813.3	0.0342115
12823.2	0.0341583
12833.2	0.0341021
12843.1	0.0340441
12853	0.0339853
12862.9	0.0339269
12872.9	0.0338699
12882.8	0.0338156
12892.7	0.0337651
12902.7	0.0337195
12912.6	0.03368
12922.5	0.0336477
12932.4	0.0336238
12942.4	0.0336092
12952.3	0.0336049
12962.2	0.0336121
12972.2	0.0336315
12982.1	0.033664
12992	0.0337105
13001.9	0.0337716
13011.9	0.0338479
13021.8	0.0339401
13031.7	0.0340485
13041.6	0.0341735
13051.6	0.0343154
13061.5	0.0344744
13071.4	0.0346504
13081.4	0.0348436
13091.3	0.0350535
13101.2	0.0352801
13111.1	0.035523
13121.1	0.0357815
13131	0.0360551
13140.9	0.0363431
13150.8	0.0366447
13160.8	0.0369588
13170.7	0.0372844
13180.6	0.0376204
13190.6	0.0379654
13200.5	0.0383181
13210.4	0.038677
13220.3	0.0390406
13230.3	0.0394073
13240.2	0.0397751
13250.1	0.0401424
13260.1	0.0405073
13273.3	0.0409867
13283.2	0.0413382
13293.1	0.0416806
13303.1	0.0420116
13313	0.0423293
13322.9	0.0426312
13332.9	0.0429154
13342.8	0.0431795
13352.7	0.0434213
13362.6	0.0436385
13372.6	0.0438291
13382.5	0.0439907
13392.4	0.0441213
13402.4	0.0442186
13412.3	0.0442807
13422.2	0.0443054
13432.1	0.0442909
13442.1	0.0442351
13452	0.0441363
13461.9	0.0439928
13471.8	0.0438028
13481.8	0.0435648
13491.7	0.0432774
13501.6	0.0429392
13511.6	0.042549
13521.5	0.0421056
13531.4	0.041608
13541.3	0.0410554
13551.3	0.0404471
13561.2	0.0397823
13571.1	0.0390608
13581.1	0.0382821
13591	0.0374461
13600.9	0.0365527
13610.8	0.0356021
13620.8	0.0345945
13630.7	0.0335304
13640.6	0.0324102
13650.5	0.0312347
13660.5	0.0300048
13670.4	0.0287214
13680.3	0.0273857
13690.3	0.0259989
13700.2	0.0245626
13710.1	0.0230782
13720	0.0215475
13733.3	0.0194377
13743.2	0.0178062
13753.1	0.0161349
13763.1	0.014426
13773	0.012682
13782.9	0.0109052
13792.8	0.00909827
13802.8	0.00726376
13812.7	0.00540443
13822.6	0.00352311
13832.6	0.00162269
13842.5	-0.000293861
13852.4	-0.00222351
13862.3	-0.00416318
13872.3	-0.00610972
13882.2	-0.00805997
13892.1	-0.0100107
13902	-0.0119587
13912	-0.0139007
13921.9	-0.0158334
13931.8	-0.0177536
13941.8	-0.019658
13951.7	-0.0215434
13961.6	-0.0234065
13971.5	-0.0252441
13981.5	-0.0270531
13991.4	-0.0288304
14001.3	-0.0305729
14011.3	-0.0322777
14021.2	-0.0339418
14031.1	-0.0355625
14041	-0.037137
14051	-0.0386626
14060.9	-0.0401368
14070.8	-0.0415572
14080.7	-0.0429216
14090.7	-0.0442277
14100.6	-0.0454735
14110.5	-0.0466571
14120.5	-0.0477769
14130.4	-0.0488311
14140.3	-0.0498185
14150.2	-0.0507376
14160.2	-0.0515875
14170.1	-0.0523671
14180	-0.0530758
14193.3	-0.0539094
14203.2	-0.0544506
14213.1	-0.0549196
14223	-0.0553165
14233	-0.0556414
14242.9	-0.0558948
14252.8	-0.0560772
14262.8	-0.0561894
14272.7	-0.0562322
14282.6	-0.0562068
14292.5	-0.0561144
14302.5	-0.0559564
14312.4	-0.0557344
14322.3	-0.0554501
14332.2	-0.0551053
14342.2	-0.0547021
14352.1	-0.0542425
14362	-0.0537287
14372	-0.0531632
14381.9	-0.0525484
14391.8	-0.0518867
14401.7	-0.0511808
14411.7	-0.0504335
14421.6	-0.0496473
14431.5	-0.0488252
14441.5	-0.0479699
14451.4	-0.0470842
14461.3	-0.0461712
14471.2	-0.0452336
14481.2	-0.0442742
14491.1	-0.0432961
14501	-0.0423019
14510.9	-0.0412945
14520.9	-0.0402765
14530.8	-0.0392508
14540.7	-0.0382199
14550.7	-0.0371864
14560.6	-0.0361527
14570.5	-0.0351211
14580.4	-0.034094
14590.4	-0.0330736
14600.3	-0.0320618
14610.2	-0.0310607
14620.2	-0.030072
14630.1	-0.0290975
14640	-0.0281387
14653.2	-0.0268871
14663.2	-0.0259702
14673.1	-0.0250733
14683	-0.0241974
14693	-0.0233432
14702.9	-0.0225115
14712.8	-0.0217028
14722.7	-0.0209177
14732.7	-0.0201563
14742.6	-0.019419
14752.5	-0.0187057
14762.4	-0.0180164
14772.4	-0.0173509
14782.3	-0.0167089
14792.2	-0.0160901
14802.2	-0.015494
14812.1	-0.0149199
14822	-0.0143673
14831.9	-0.0138353
14841.9	-0.0133232
14851.8	-0.0128302
14861.7	-0.0123552
14871.7	-0.0118973
14881.6	-0.0114555
14891.5	-0.0110288
14901.4	-0.0106161
14911.4	-0.0102162
14921.3	-0.00982811
14931.2	-0.00945072
14941.1	-0.00908294
14951.1	-0.00872368
14961	-0.00837188
14970.9	-0.00802652
14980.9	-0.00768658
14990.8	-0.00735112
15000.7	-0.00701922
15010.6	-0.00669001
15020.6	-0.0063627
15030.5	-0.00603652
15040.4	-0.00571082
15050.4	-0.00538497
15060.3	-0.00505843
15070.2	-0.00473076
15080.1	-0.00440155
15090.1	-0.00407053
15103.3	-0.00362596
15113.2	-0.00328998
15123.2	-0.00295179
15133.1	-0.00261147
15143	-0.00226916
15152.9	-0.00192513
15162.9	-0.00157971
15172.8	-0.00123333
15182.7	-0.000886482
15192.6	-0.000539774
15202.6	-0.00019388
15212.5	0.000150441
15222.4	0.000492352
15232.4	0.000830938
15242.3	0.00116521
15252.2	0.00149411
15262.1	0.00181651
15272.1	0.00213122
15282	0.00243699
15291.9	0.00273249
15301.9	0.00301637
15311.8	0.00328721
15321.7	0.00354355
15331.6	0.00378387
15341.6	0.00400664
15351.5	0.00421026
15361.4	0.00439315
15371.3	0.00455365
15381.3	0.00469011
15391.2	0.00480086
15401.1	0.00488421
15411.1	0.00493846
15421	0.00496193
15430.9	0.00495291
15440.8	0.00490971
15450.8	0.00483066
15460.7	0.0047141
15470.6	0.00455838
15480.6	0.0043619
15490.5	0.00412306
15500.4	0.00384033
15510.3	0.0035122
15520.3	0.00313721
15530.2	0.00271396
15540.1	0.0022411
15550	0.00171735
15563.3	0.000937753
15573.2	0.000290652
15583.1	-0.000411094
15593.1	-0.00116843
15603	-0.00198222
15612.9	-0.00285321
15622.9	-0.00378206
15632.8	-0.00476932
15642.7	-0.0058154
15652.6	-0.00692064
15662.6	-0.00808522
15672.5	-0.00930919
15682.4	-0.0105925
15692.3	-0.0119349
15702.3	-0.0133361
15712.2	-0.0147955
15722.1	-0.0163125
15732.1	-0.0178864
15742	-0.0195161
15751.9	-0.0212005
15761.8	-0.0229384
15771.8	-0.0247283
15781.7	-0.0265686
15791.6	-0.0284575
15801.5	-0.0303931
15811.5	-0.0323733
15821.4	-0.0343958
15831.3	-0.0364581
15841.3	-0.0385577
15851.2	-0.0406918
15861.1	-0.0428575
15871	-0.0450516
15881	-0.047271
15890.9	-0.0495123
15900.8	-0.0517719
15910.8	-0.0540461
15920.7	-0.0563313
15930.6	-0.0586234
15940.5	-0.0609185
15950.5	-0.0632123
15960.4	-0.0655007
15970.3	-0.0677793
15980.2	-0.0700437
15990.2	-0.0722894
16000.1	-0.0745119
16010	-0.0767065
16023.3	-0.0795814
16033.2	-0.081693
16043.1	-0.0837612
16053.1	-0.0857814
16063	-0.0877488
16072.9	-0.0896589
16082.8	-0.0915071
16092.8	-0.0932887
16102.7	-0.0949994
16112.6	-0.0966348
16122.5	-0.0981905
16132.5	-0.0996623
16142.4	-0.101046
16152.3	-0.102338
16162.3	-0.103535
16172.2	-0.104632
16182.1	-0.105626
16192	-0.106515
16202	-0.107294
16211.9	-0.107962
16221.8	-0.108515
16231.8	-0.10895
16241.7	-0.109267
16251.6	-0.109462
16261.5	-0.109535
16271.5	-0.109483
16281.4	-0.109305
16291.3	-0.109002
16301.2	-0.108571
16311.2	-0.108012
16321.1	-0.107327
16331	-0.106514
16341	-0.105574
16350.9	-0.104508
16360.8	-0.103318
16370.7	-0.102004
16380.7	-0.100568
16390.6	-0.099012
16400.5	-0.0973386
16410.4	-0.0955501
16420.4	-0.0936492
16430.3	-0.091639
16440.2	-0.0895227
16450.2	-0.0873038
16460.1	-0.0849862
16470	-0.0825737
16483.3	-0.079217
16493.2	-0.0766001
16503.1	-0.0739033
16513	-0.0711313
16523	-0.0682892
16532.9	-0.0653821
16542.8	-0.0624154
16552.7	-0.0593944
16562.7	-0.0563246
16572.6	-0.0532118
16582.5	-0.0500614
16592.5	-0.0468794
16602.4	-0.0436713
16612.3	-0.0404431
16622.2	-0.0372005
16632.2	-0.0339494
16642.1	-0.0306954
16652	-0.0274443
16662	-0.0242017
16671.9	-0.0209733
16681.8	-0.0177644
16691.7	-0.0145805
16701.7	-0.0114269
16711.6	-0.00830861
16721.5	-0.00523061
16731.4	-0.00219772
16741.4	0.000785438
16751.3	0.00371445
16761.2	0.00658507
16771.2	0.0093933
16781.1	0.0121353
16791	0.0148076
16800.9	0.0174068
16810.9	0.0199299
16820.8	0.0223739
16830.7	0.0247364
16840.6	0.0270151
16850.6	0.0292079
16860.5	0.031313
16870.4	0.033329
16880.4	0.0352545
16890.3	0.0370887
16900.2	0.0388309
16910.1	0.0404805
16920.1	0.0420375
16933.3	0.0439695
16943.2	0.045311
16953.2	0.0465611
16963.1	0.0477207
16973	0.0487908
16982.9	0.0497729
16992.9	0.0506684
17002.8	0.0514791
17012.7	0.052207
17022.7	0.0528541
17032.6	0.0534226
17042.5	0.053915
17052.4	0.0543339
17062.4	0.0546819
17072.3	0.0549618
17082.2	0.0551764
17092.2	0.0553287
17102.1	0.0554218
17112	0.0554587
17121.9	0.0554426
17131.9	0.0553766
17141.8	0.0552639
17151.7	0.0551076
17161.6	0.0549109
17171.6	0.054677
17181.5	0.054409
17191.4	0.0541098
17201.4	0.0537826
17211.3	0.0534302
17221.2	0.0530555
17231.1	0.0526613
17241.1	0.0522502
17251	0.0518249
17260.9	0.0513877
17270.9	0.0509411
17280.8	0.0504872
17290.7	0.0500282
17300.6	0.049566
17310.6	0.0491025
17320.5	0.0486394
17330.4	0.0481782
17340.3	0.0477204
17350.3	0.0472672
17360.2	0.0468199
17370.1	0.0463794
17380.1	0.0459466
17393.3	0.0453829
17403.2	0.0449708
17413.1	0.0445685
17423.1	0.0441763
17433	0.0437944
17442.9	0.0434229
17452.9	0.0430618
17462.8	0.0427111
17472.7	0.0423706
17482.6	0.0420401
17492.6	0.0417192
17502.5	0.0414075
17512.4	0.0411046
17522.4	0.0408099
17532.3	0.040523
17542.2	0.0402432
17552.1	0.0399698
17562.1	0.0397023
17572	0.03944
17581.9	0.0391821
17591.8	0.0389281
17601.8	0.0386772
17611.7	0.0384288
17621.6	0.0381821
17631.6	0.0379367
17641.5	0.0376918
17651.4	0.0374468
17661.3	0.0372014
17671.3	0.0369548
17681.2	0.0367068
17691.1	0.0364568
17701.1	0.0362044
17711	0.0359495
17720.9	0.0356916
17730.8	0.0354307
17740.8	0.0351665
17750.7	0.0348989
17760.6	0.0346279
17770.5	0.0343535
17780.5	0.0340757
17790.4	0.0337948
17800.3	0.0335107
17810.3	0.0332239
17820.2	0.0329345
17830.1	0.0326429
17840	0.0323493
17853.3	0.0319558
17863.2	0.0316595
17873.1	0.0313628
17883.1	0.0310663
17893	0.0307704
17902.9	0.0304758
17912.8	0.030183
17922.8	0.0298926
17932.7	0.0296052
17942.6	0.0293215
17952.6	0.029042
17962.5	0.0287674
17972.4	0.0284983
17982.3	0.0282353
17992.3	0.027979
18002.2	0.02773
18012.1	0.0274888
18022	0.0272559
18032	0.0270319
18041.9	0.0268172
18051.8	0.0266123
18061.8	0.0264175
18071.7	0.0262333
18081.6	0.0260599
18091.5	0.0258977
18101.5	0.0257468
18111.4	0.0256075
18121.3	0.02548
18131.3	0.0253642
18141.2	0.0252604
18151.1	0.0251684
18161	0.0250883
18171	0.0250199
18180.9	0.0249631
18190.8	0.0249177
18200.7	0.0248835
18210.7	0.0248602
18220.6	0.0248475
18230.5	0.024845
18240.5	0.0248523
18250.4	0.024869
18260.3	0.0248945
18270.2	0.0249283
18280.2	0.0249699
18290.1	0.0250187
18300	0.025074
18313.3	0.0251567
18323.2	0.0252247
18333.1	0.0252968
18343	0.0253724
18353	0.0254507
18362.9	0.0255309
18372.8	0.0256121
18382.8	0.0256936
18392.7	0.0257745
18402.6	0.0258539
18412.5	0.025931
18422.5	0.0260048
18432.4	0.0260745
18442.3	0.0261391
18452.2	0.0261978
18462.2	0.0262496
18472.1	0.0262935
18482	0.0263287
18492	0.0263542
18501.9	0.0263691
18511.8	0.0263724
18521.7	0.0263632
18531.7	0.0263407
18541.6	0.0263037
18551.5	0.0262516
18561.5	0.0261832
18571.4	0.0260978
18581.3	0.0259944
18591.2	0.0258722
18601.2	0.0257304
18611.1	0.025568
18621	0.0253843
18630.9	0.0251784
18640.9	0.0249496
18650.8	0.0246972
18660.7	0.0244204
18670.7	0.0241185
18680.6	0.0237909
18690.5	0.023437
18700.4	0.0230561
18710.4	0.0226478
18720.3	0.0222116
18730.2	0.021747
18740.2	0.0212537
18750.1	0.0207312
18760	0.0201794
18773.2	0.0193974
18783.2	0.0187761
18793.1	0.018125
18803	0.0174438
18813	0.0167327
18822.9	0.0159918
18832.8	0.0152213
18842.7	0.0144214
18852.7	0.0135924
18862.6	0.0127348
18872.5	0.0118489
18882.5	0.0109353
18892.4	0.0099947
18902.3	0.00902765
18912.2	0.00803494
18922.2	0.0070174
18932.1	0.00597591
18942	0.00491143
18951.9	0.00382498
18961.9	0.00271765
18971.8	0.00159059
18981.7	0.000445008
18991.7	-0.000717832
19001.6	-0.00189661
19011.5	-0.00308995
19021.4	-0.00429645
19031.4	-0.00551463
19041.3	-0.006743
19051.2	-0.00798002
19061.1	-0.00922412
19071.1	-0.0104737
19081	-0.0117271
19090.9	-0.0129828
19100.9	-0.014239
19110.8	-0.0154941
19120.7	-0.0167464
19130.6	-0.0179942
19140.6	-0.0192359
19150.5	-0.0204697
19160.4	-0.0216941
19170.4	-0.0229073
19180.3	-0.0241078
19190.2	-0.0252938
19200.1	-0.0264639
19210.1	-0.0276164
19223.3	-0.0291232
19233.2	-0.0302289
19243.2	-0.0313121
19253.1	-0.0323713
19263	-0.0334053
19272.9	-0.0344126
19282.9	-0.0353921
19292.8	-0.0363425
19302.7	-0.0372626
19312.7	-0.0381512
19322.6	-0.0390075
19332.5	-0.0398302
19342.4	-0.0406185
19352.4	-0.0413715
19362.3	-0.0420883
19372.2	-0.0427682
19382.1	-0.0434103
19392.1	-0.0440142
19402	-0.0445791
19411.9	-0.0451045
19421.9	-0.04559
19431.8	-0.0460352
19441.7	-0.0464396
19451.6	-0.0468029
19461.6	-0.0471251
19471.5	-0.0474058
19481.4	-0.0476449
19491.3	-0.0478425
19501.3	-0.0479986
19511.2	-0.0481131
19521.1	-0.0481863
19531.1	-0.0482183
19541	-0.0482094
19550.9	-0.0481599
19560.8	-0.0480703
19570.8	-0.0479409
19580.7	-0.0477722
19590.6	-0.0475648
19600.6	-0.0473194
19610.5	-0.0470366
19620.4	-0.0467172
19630.3	-0.0463619
19640.3	-0.0459716
19650.2	-0.0455473
19660.1	-0.0450899
19670	-0.0446005
19683.3	-0.0439
19693.2	-0.0433402
19703.1	-0.0427522
19713.1	-0.0421372
19723	-0.0414967
19732.9	-0.040832
19742.9	-0.0401445
19752.8	-0.0394356
19762.7	-0.038707
19772.6	-0.0379601
19782.6	-0.0371965
19792.5	-0.0364179
19802.4	-0.035626
19812.3	-0.0348224
19822.3	-0.0340089
19832.2	-0.0331873
19842.1	-0.0323592
19852.1	-0.0315266
19862	-0.0306912
19871.9	-0.0298548
19881.8	-0.0290193
19891.8	-0.0281864
19901.7	-0.0273581
19911.6	-0.0265361
19921.5	-0.0257222
19931.5	-0.0249182
19941.4	-0.0241259
19951.3	-0.0233471
19961.3	-0.0225833
19971.2	-0.0218364
19981.1	-0.0211078
19991	-0.0203993
