0	0
18.7743	0
37.5486	0
56.323	0
75.0973	0
93.8716	0
112.646	0
131.42	0
150.195	0
168.969	0
187.743	0
206.518	0
225.292	0
244.066	0
262.841	0
281.615	0
300.389	0
319.163	0
337.938	0
356.712	0
375.486	0
394.261	0
413.035	0
431.809	0
450.584	0
469.358	0
488.132	0
506.907	0
525.681	0
544.455	3.63798e-12
563.23	2.54659e-11
582.004	1.49157e-10
600.778	7.13953e-10
619.553	2.95313e-09
638.327	1.07693e-08
657.101	3.52256e-08
675.876	1.04737e-07
694.65	2.86133e-07
713.424	7.2468e-07
732.199	1.71453e-06
750.973	3.81447e-06
769.747	8.02682e-06
788.522	1.6059e-05
807.296	3.06889e-05
826.07	5.62559e-05
844.844	9.93026e-05
863.619	0.000169398
882.393	0.000280186
901.167	0.000450715
919.942	0.000707141
938.716	0.00108488
957.49	0.00163137
976.265	0.00240942
995.039	0.0035014
1013.81	0.00501406
1032.59	0.00708383
1051.36	0.0098825
1070.14	0.0136224
1088.91	0.0185608
1107.68	0.0250024
1126.46	0.0332988
1145.23	0.0438452
1164.01	0.0570714
1182.78	0.073429
1201.56	0.0933731
1220.33	0.11734
1239.11	0.145718
1257.88	0.178824
1276.65	0.216868
1295.43	0.259929
1314.2	0.307927
1332.98	0.360608
1351.75	0.417529
1370.53	0.478058
1389.3	0.541378
1408.07	0.606501
1426.85	0.672297
1445.62	0.73752
1464.4	0.800848
1483.17	0.860924
1501.95	0.916396
1520.72	0.965962
1539.49	1.00841
1558.27	1.04265
1577.04	1.06774
1595.82	1.08294
1614.59	1.08769
1633.37	1.08165
1652.14	1.06469
1670.91	1.03691
1689.69	0.998602
1708.46	0.950265
1727.24	0.892582
1746.01	0.826397
1764.79	0.752691
1783.56	0.672562
1802.33	0.587191
1821.11	0.497819
1839.88	0.405716
1858.66	0.312154
1877.43	0.218379
1896.21	0.125589
1914.98	0.0349103
1933.76	-0.0526224
1952.53	-0.136078
1971.3	-0.214643
1990.08	-0.287629
2008.85	-0.354477
2027.63	-0.414757
2046.4	-0.468172
2065.18	-0.514544
2083.95	-0.553816
2102.72	-0.586039
2121.5	-0.611362
2140.27	-0.630023
2159.05	-0.642337
2177.82	-0.648682
2196.6	-0.64949
2215.37	-0.645233
2234.14	-0.636412
2252.92	-0.623547
2271.69	-0.607168
2290.47	-0.5878
2309.24	-0.565962
2328.02	-0.542154
2346.79	-0.516855
2365.56	-0.490514
2384.34	-0.463547
2403.11	-0.436334
2421.89	-0.409218
2440.66	-0.382502
2459.44	-0.35645
2478.21	-0.331286
2496.98	-0.307197
2515.76	-0.284332
2534.53	-0.262808
2553.31	-0.242707
2572.08	-0.224084
2590.86	-0.206968
2609.63	-0.191361
2628.4	-0.177249
2647.18	-0.164598
2665.95	-0.15336
2684.73	-0.143473
2703.5	-0.134869
2722.28	-0.12747
2741.05	-0.121193
2759.82	-0.115953
2778.6	-0.111661
2797.37	-0.108231
2816.15	-0.105574
2834.92	-0.103606
2853.69	-0.102242
2872.47	-0.101403
2891.24	-0.101013
2910.02	-0.100998
2928.79	-0.10129
2947.57	-0.101824
2966.34	-0.102541
2985.11	-0.103383
3003.89	-0.1043
3022.66	-0.105243
3041.44	-0.10617
3060.21	-0.107042
3078.98	-0.107824
3097.76	-0.108485
3116.53	-0.108997
3135.31	-0.109339
3154.08	-0.109489
3172.85	-0.109434
3191.63	-0.109161
3210.4	-0.108661
3229.17	-0.107928
3247.95	-0.106962
3266.72	-0.105762
3285.5	-0.104332
3304.27	-0.102677
3323.04	-0.100807
3341.82	-0.0987316
3360.59	-0.0964626
3379.36	-0.0940136
3398.14	-0.0913994
3416.91	-0.0886357
3435.69	-0.0857388
3454.46	-0.0827252
3473.23	-0.0796117
3492.01	-0.0764148
3510.78	-0.0731506
3529.55	-0.0698346
3548.33	-0.0664813
3567.1	-0.0631046
3585.88	-0.0597169
3604.65	-0.0563295
3623.42	-0.0529525
3642.2	-0.0495946
3660.97	-0.0462631
3679.74	-0.0429639
3698.52	-0.0397018
3717.29	-0.03648
3736.07	-0.0333009
3754.84	-0.0301654
3773.61	-0.0270738
3792.39	-0.0240254
3811.16	-0.0210187
3829.93	-0.0180517
3848.71	-0.0151219
3867.48	-0.0122265
3886.26	-0.00936269
3905.03	-0.00652729
3923.8	-0.00371737
3942.58	-0.000930116
3961.35	0.00183704
3980.13	0.00458631
3998.9	0.00731953
4017.67	0.0100381
4036.45	0.0127428
4055.22	0.0154341
4074	0.0181117
4092.77	0.0207751
4111.55	0.0234228
4130.32	0.0260533
4149.09	0.0286643
4167.87	0.0312532
4186.64	0.033817
4205.42	0.0363521
4224.19	0.0388551
4242.97	0.0413218
4261.74	0.0437483
4280.51	0.0461301
4299.29	0.0484629
4318.06	0.0507423
4336.84	0.0529637
4355.61	0.0551227
4374.39	0.057215
4393.16	0.0592362
4411.93	0.0611822
4430.71	0.063049
4449.48	0.0648326
4468.26	0.0665295
4487.03	0.0681362
4505.81	0.0696493
4524.58	0.0710659
4543.35	0.0723831
4562.13	0.0735983
4580.9	0.0747093
4599.68	0.0757139
4618.45	0.0766103
4637.23	0.0773968
4656	0.0780721
4674.77	0.0786352
4693.55	0.0790852
4712.32	0.0794215
4731.1	0.0796439
4749.87	0.0797523
4768.65	0.0797471
4787.42	0.0796287
4806.19	0.0793981
4824.97	0.0790562
4843.74	0.0786045
4862.52	0.0780448
4881.29	0.077379
4900.07	0.0766094
4918.84	0.0757387
4937.61	0.0747695
4956.39	0.0737052
4975.16	0.0725492
4993.94	0.0713051
5012.71	0.0699769
5031.48	0.0685687
5050.26	0.0670851
5069.03	0.0655306
5087.81	0.0639102
5106.58	0.0622288
5125.36	0.0604915
5144.13	0.0587038
5162.9	0.056871
5181.68	0.0549987
5200.45	0.0530924
5219.23	0.0511578
5238	0.0492005
5256.78	0.0472261
5275.55	0.0452402
5294.32	0.0432483
5313.1	0.0412558
5331.87	0.039268
5350.65	0.03729
5369.42	0.0353269
5388.2	0.0333833
5406.97	0.0314639
5425.74	0.029573
5444.52	0.0277146
5463.29	0.0258924
5482.07	0.02411
5500.84	0.0223706
5519.62	0.0206769
5538.39	0.0190315
5557.17	0.0174366
5575.94	0.0158939
5594.71	0.0144049
5613.49	0.0129707
5632.26	0.011592
5651.04	0.0102692
5669.81	0.00900247
5688.59	0.00779136
5707.36	0.0066353
5726.13	0.00553332
5744.91	0.00448418
5763.68	0.00348634
5782.46	0.00253799
5801.23	0.00163708
5820.01	0.000781311
5838.78	-3.17906e-05
5857.55	-0.000804898
5876.33	-0.00154083
5895.1	-0.00224255
5913.88	-0.00291309
5932.65	-0.0035556
5951.43	-0.00417325
5970.2	-0.00476923
5988.97	-0.00534676
6007.75	-0.00590899
6026.52	-0.00645905
6045.3	-0.00699996
6064.07	-0.00753466
6082.85	-0.00806598
6101.62	-0.0085966
6120.39	-0.00912903
6139.17	-0.00966564
6157.94	-0.0102086
6176.72	-0.0107598
6195.49	-0.0113212
6214.27	-0.0118941
6233.04	-0.0124801
6251.81	-0.0130801
6270.59	-0.0136952
6289.36	-0.0143259
6308.14	-0.0149728
6326.91	-0.0156361
6345.69	-0.0163159
6364.46	-0.0170121
6383.23	-0.0177243
6402.01	-0.0184521
6420.78	-0.0191948
6439.56	-0.0199516
6458.33	-0.0207216
6477.11	-0.0215038
6495.88	-0.022297
6514.66	-0.0231
6533.43	-0.0239114
6552.2	-0.02473
6570.98	-0.0255542
6589.75	-0.0263826
6608.53	-0.0272138
6627.3	-0.0280463
6646.08	-0.0288785
6664.85	-0.029709
6683.62	-0.0305364
6702.4	-0.0313591
6721.17	-0.0321759
6739.95	-0.0329853
6758.72	-0.0337861
6777.5	-0.0345769
6796.27	-0.0353566
6815.04	-0.0361239
6833.82	-0.0368778
6852.59	-0.0376171
6871.37	-0.0383409
6890.14	-0.0390482
6908.92	-0.039738
6927.69	-0.0404095
6946.46	-0.0410617
6965.24	-0.041694
6984.01	-0.0423055
7002.79	-0.0428954
7021.56	-0.0434631
7040.34	-0.0440079
7059.11	-0.044529
7077.88	-0.0450257
7096.66	-0.0454976
7115.43	-0.0459439
7134.21	-0.046364
7152.98	-0.0467572
7171.76	-0.0471231
7190.53	-0.0474611
7209.3	-0.0477704
7228.08	-0.0480507
7246.85	-0.0483013
7265.63	-0.0485218
7284.4	-0.0487117
7303.18	-0.0488704
7321.95	-0.0489975
7340.72	-0.0490927
7359.5	-0.0491555
7378.27	-0.0491856
7397.05	-0.0491827
7415.82	-0.0491465
7434.59	-0.049077
7453.37	-0.0489738
7472.14	-0.0488371
7490.92	-0.0486667
7509.69	-0.0484627
7528.47	-0.0482252
7547.24	-0.0479545
7566.01	-0.0476508
7584.79	-0.0473146
7603.56	-0.0469461
7622.34	-0.046546
7641.11	-0.0461148
7659.89	-0.0456532
7678.66	-0.045162
7697.43	-0.0446419
7716.21	-0.044094
7734.98	-0.0435191
7753.76	-0.0429183
7772.53	-0.0422926
7791.31	-0.0416434
7810.08	-0.0409716
7828.85	-0.0402787
7847.63	-0.0395659
7866.4	-0.0388344
7885.18	-0.0380858
7903.95	-0.0373213
7922.73	-0.0365424
7941.5	-0.0357503
7960.27	-0.0349467
7979.05	-0.0341327
7997.82	-0.0333099
8016.6	-0.0324795
8035.37	-0.0316429
8054.14	-0.0308014
8072.92	-0.0299563
8091.69	-0.0291087
8110.47	-0.02826
8129.24	-0.0274111
8148.02	-0.0265632
8166.79	-0.0257173
8185.56	-0.0248744
8204.34	-0.0240353
8223.11	-0.0232009
8241.89	-0.022372
8260.66	-0.0215493
8279.44	-0.0207334
8298.21	-0.019925
8316.98	-0.0191245
8335.76	-0.0183326
8354.53	-0.0175495
8373.31	-0.0167757
8392.08	-0.0160115
8410.86	-0.0152572
8429.63	-0.014513
8448.4	-0.0137792
8467.18	-0.0130559
8485.95	-0.0123432
8504.73	-0.0116413
8523.5	-0.0109503
8542.28	-0.0102702
8561.05	-0.00960118
8579.82	-0.00894322
8598.6	-0.00829639
8617.37	-0.00766075
8636.15	-0.00703633
8654.92	-0.0064232
8673.7	-0.00582139
8692.47	-0.00523098
8711.24	-0.00465202
8730.02	-0.0040846
8748.79	-0.0035288
8767.57	-0.0029847
8786.34	-0.00245243
8805.12	-0.00193208
8823.89	-0.00142378
8842.66	-0.000927657
8861.44	-0.000443853
8880.21	2.74953e-05
8898.99	0.000486242
8917.76	0.000932242
8936.54	0.00136535
8955.31	0.00178542
8974.08	0.00219232
8992.86	0.00258592
9011.63	0.00296611
9030.41	0.00333276
9049.18	0.0036858
9067.96	0.00402515
9086.73	0.00435076
9105.5	0.00466259
9124.28	0.00496064
9143.05	0.00524493
9161.83	0.00551551
9180.6	0.00577244
9199.38	0.00601584
9218.15	0.00624585
9236.92	0.00646264
9255.7	0.00666641
9274.47	0.0068574
9293.25	0.00703588
9312.02	0.00720215
9330.8	0.00735655
9349.57	0.00749945
9368.34	0.00763124
9387.12	0.00775235
9405.89	0.00786324
9424.67	0.00796438
9443.44	0.00805627
9462.22	0.00813944
9480.99	0.00821443
9499.76	0.00828179
9518.54	0.00834209
9537.31	0.00839591
9556.09	0.00844382
9574.86	0.00848642
9593.64	0.00852429
9612.41	0.008558
9631.18	0.00858813
9649.96	0.00861523
9668.73	0.00863984
9687.51	0.0086625
9706.28	0.0086837
9725.06	0.00870392
9743.83	0.00872359
9762.6	0.00874314
9781.38	0.00876294
9800.15	0.00878332
9818.93	0.00880459
9837.7	0.00882699
9856.48	0.00885073
9875.25	0.00887596
9894.02	0.0089028
9912.8	0.00893129
9931.57	0.00896143
9950.35	0.00899318
9969.12	0.00902642
9987.9	0.00906099
10006.7	0.00909668
10025.4	0.00913319
10044.2	0.00917022
10063	0.00920737
10081.8	0.00924421
10100.5	0.00928026
10119.3	0.00931498
10138.1	0.00934779
10156.9	0.00937806
10175.6	0.00940513
10194.4	0.00942829
10213.2	0.00944681
10232	0.0094599
10250.7	0.00946677
10269.5	0.0094666
10288.3	0.00945853
10307.1	0.00944171
10325.8	0.00941527
10344.6	0.00937833
10363.4	0.00933001
10382.2	0.00926942
10400.9	0.0091957
10419.7	0.00910799
10438.5	0.00900544
10457.3	0.00888723
10476	0.00875257
10494.8	0.00860068
10513.6	0.00843085
10532.4	0.00824236
10551.1	0.00803458
10569.9	0.00780689
10588.7	0.00755875
10607.4	0.00728966
10626.2	0.00699917
10645	0.0066869
10663.8	0.00635253
10682.5	0.00599581
10701.3	0.00561655
10720.1	0.00521463
10738.9	0.00479001
10757.6	0.0043427
10776.4	0.00387281
10795.2	0.00338051
10814	0.00286603
10832.7	0.0023297
10851.5	0.00177191
10870.3	0.00119312
10889.1	0.000593855
10907.8	-2.52735e-05
10926.6	-0.000663597
10945.4	-0.00132038
10964.2	-0.00199482
10982.9	-0.00268605
11001.7	-0.00339316
11020.5	-0.00411517
11039.3	-0.00485104
11058	-0.00559969
11076.8	-0.00636001
11095.6	-0.00713083
11114.4	-0.00791093
11133.1	-0.00869908
11151.9	-0.00949401
11170.7	-0.0102944
11189.5	-0.011099
11208.2	-0.0119064
11227	-0.0127152
11245.8	-0.0135242
11264.5	-0.0143319
11283.3	-0.015137
11302.1	-0.0159381
11320.9	-0.0167339
11339.6	-0.017523
11358.4	-0.0183042
11377.2	-0.019076
11396	-0.0198372
11414.7	-0.0205866
11433.5	-0.0213229
11452.3	-0.022045
11471.1	-0.0227517
11489.8	-0.0234419
11508.6	-0.0241145
11527.4	-0.0247686
11546.2	-0.0254031
11564.9	-0.0260172
11583.7	-0.02661
11602.5	-0.0271807
11621.3	-0.0277286
11640	-0.0282529
11658.8	-0.0287532
11677.6	-0.0292287
11696.4	-0.0296791
11715.1	-0.0301039
11733.9	-0.0305028
11752.7	-0.0308754
11771.5	-0.0312215
11790.2	-0.031541
11809	-0.0318338
11827.8	-0.0320998
11846.6	-0.0323391
11865.3	-0.0325517
11884.1	-0.0327378
11902.9	-0.0328976
11921.6	-0.0330314
11940.4	-0.0331395
11959.2	-0.0332222
11978	-0.03328
11996.7	-0.0333134
12015.5	-0.0333228
12034.3	-0.0333088
12053.1	-0.0332721
12071.8	-0.0332132
12090.6	-0.0331328
12109.4	-0.0330316
12128.2	-0.0329103
12146.9	-0.0327698
12165.7	-0.0326107
12184.5	-0.0324338
12203.3	-0.03224
12222	-0.03203
12240.8	-0.0318047
12259.6	-0.031565
12278.4	-0.0313116
12297.1	-0.0310453
12315.9	-0.0307671
12334.7	-0.0304777
12353.5	-0.030178
12372.2	-0.0298687
12391	-0.0295506
12409.8	-0.0292246
12428.6	-0.0288914
12447.3	-0.0285517
12466.1	-0.0282062
12484.9	-0.0278557
12503.7	-0.0275008
12522.4	-0.0271422
12541.2	-0.0267805
12560	-0.0264163
12578.7	-0.0260501
12597.5	-0.0256826
12616.3	-0.0253142
12635.1	-0.0249454
12653.8	-0.0245767
12672.6	-0.0242085
12691.4	-0.0238412
12710.2	-0.0234752
12728.9	-0.0231107
12747.7	-0.0227482
12766.5	-0.0223879
12785.3	-0.02203
12804	-0.0216749
12822.8	-0.0213226
12841.6	-0.0209734
12860.4	-0.0206274
12879.1	-0.0202848
12897.9	-0.0199457
12916.7	-0.0196102
12935.5	-0.0192782
12954.2	-0.01895
12973	-0.0186255
12991.8	-0.0183047
13010.6	-0.0179876
13029.3	-0.0176743
13048.1	-0.0173646
13066.9	-0.0170586
13085.7	-0.0167562
13104.4	-0.0164574
13123.2	-0.016162
13142	-0.01587
13160.8	-0.0155813
13179.5	-0.0152958
13198.3	-0.0150134
13217.1	-0.0147341
13235.8	-0.0144578
13254.6	-0.0141842
13273.4	-0.0139134
13292.2	-0.0136453
13310.9	-0.0133797
13329.7	-0.0131166
13348.5	-0.0128558
13367.3	-0.0125974
13386	-0.0123412
13404.8	-0.0120871
13423.6	-0.0118351
13442.4	-0.0115851
13461.1	-0.0113371
13479.9	-0.011091
13498.7	-0.0108469
13517.5	-0.0106047
13536.2	-0.0103643
13555	-0.0101258
13573.8	-0.00988923
13592.6	-0.00965458
13611.3	-0.00942187
13630.1	-0.00919117
13648.9	-0.00896253
13667.7	-0.008736
13686.4	-0.00851168
13705.2	-0.00828965
13724	-0.00807
13742.8	-0.00785286
13761.5	-0.00763833
13780.3	-0.00742654
13799.1	-0.00721764
13817.9	-0.00701175
13836.6	-0.00680904
13855.4	-0.00660967
13874.2	-0.00641379
13893	-0.00622157
13911.7	-0.00603319
13930.5	-0.00584882
13949.3	-0.00566864
13968	-0.00549283
13986.8	-0.00532156
14005.6	-0.00515502
14024.4	-0.00499339
14043.1	-0.00483683
14061.9	-0.00468551
14080.7	-0.00453961
14099.5	-0.00439927
14118.2	-0.00426466
14137	-0.00413591
14155.8	-0.00401317
14174.6	-0.00389656
14193.3	-0.00378619
14212.1	-0.00368217
14230.9	-0.0035846
14249.7	-0.00349354
14268.4	-0.00340907
14287.2	-0.00333124
14306	-0.00326008
14324.8	-0.00319562
14343.5	-0.00313787
14362.3	-0.00308681
14381.1	-0.00304242
14399.9	-0.00300465
14418.6	-0.00297346
14437.4	-0.00294876
14456.2	-0.00293046
14475	-0.00291846
14493.7	-0.00291263
14512.5	-0.00291284
14531.3	-0.00291892
14550.1	-0.00293071
14568.8	-0.00294801
14587.6	-0.00297064
14606.4	-0.00299838
14625.1	-0.003031
14643.9	-0.00306826
14662.7	-0.00310991
14681.5	-0.00315569
14700.2	-0.00320532
14719	-0.00325852
14737.8	-0.00331501
14756.6	-0.00337448
14775.3	-0.00343662
14794.1	-0.00350113
14812.9	-0.00356768
14831.7	-0.00363595
14850.4	-0.00370561
14869.2	-0.00377634
14888	-0.0038478
14906.8	-0.00391966
14925.5	-0.00399159
14944.3	-0.00406326
14963.1	-0.00413432
14981.9	-0.00420445
15000.6	-0.00427333
15019.4	-0.00434063
15038.2	-0.00440603
15057	-0.0044692
15075.7	-0.00452985
15094.5	-0.00458767
15113.3	-0.00464235
15132.1	-0.0046936
15150.8	-0.00474113
15169.6	-0.00478467
15188.4	-0.00482395
15207.2	-0.00485869
15225.9	-0.00488865
15244.7	-0.00491357
15263.5	-0.00493322
15282.3	-0.00494736
15301	-0.00495578
15319.8	-0.00495825
15338.6	-0.00495459
15357.3	-0.00494459
15376.1	-0.00492806
15394.9	-0.00490484
15413.7	-0.00487474
15432.4	-0.00483762
15451.2	-0.00479333
15470	-0.00474173
15488.8	-0.00468268
15507.5	-0.00461606
15526.3	-0.00454177
15545.1	-0.0044597
15563.9	-0.00436976
15582.6	-0.00427185
15601.4	-0.00416592
15620.2	-0.00405189
15639	-0.00392971
15657.7	-0.00379933
15676.5	-0.00366072
15695.3	-0.00351384
15714.1	-0.00335868
15732.8	-0.00319524
15751.6	-0.00302352
15770.4	-0.00284354
15789.2	-0.00265531
15807.9	-0.00245888
15826.7	-0.0022543
15845.5	-0.00204162
15864.3	-0.00182092
15883	-0.00159228
15901.8	-0.0013558
15920.6	-0.00111159
15939.4	-0.000859774
15958.1	-0.000600489
15976.9	-0.000333888
15995.7	-6.01384e-05
16014.4	0.000220578
16033.2	0.000508063
16052	0.000802103
16070.8	0.00110247
16089.5	0.00140891
16108.3	0.00172118
16127.1	0.00203897
16145.9	0.00236201
16164.6	0.00268997
16183.4	0.00302251
16202.2	0.0033593
16221	0.00369996
16239.7	0.0040441
16258.5	0.00439132
16277.3	0.0047412
16296.1	0.0050933
16314.8	0.00544716
16333.6	0.00580231
16352.4	0.00615826
16371.2	0.0065145
16389.9	0.00687051
16408.7	0.00722576
16427.5	0.0075797
16446.3	0.00793177
16465	0.00828138
16483.8	0.00862797
16502.6	0.00897094
16521.4	0.00930968
16540.1	0.00964358
16558.9	0.00997204
16577.7	0.0102944
16596.5	0.0106102
16615.2	0.0109186
16634	0.0112191
16652.8	0.011511
16671.5	0.0117939
16690.3	0.012067
16709.1	0.0123297
16727.9	0.0125816
16746.6	0.0128219
16765.4	0.0130503
16784.2	0.0132661
16803	0.0134688
16821.7	0.013658
16840.5	0.0138332
16859.3	0.0139939
16878.1	0.0141398
16896.8	0.0142705
16915.6	0.0143856
16934.4	0.0144848
16953.2	0.0145679
16971.9	0.0146347
16990.7	0.0146849
17009.5	0.0147185
17028.3	0.0147352
17047	0.0147352
17065.8	0.0147183
17084.6	0.0146846
17103.4	0.0146342
17122.1	0.0145672
17140.9	0.0144839
17159.7	0.0143844
17178.5	0.014269
17197.2	0.0141382
17216	0.0139922
17234.8	0.0138315
17253.6	0.0136567
17272.3	0.0134681
17291.1	0.0132665
17309.9	0.0130524
17328.7	0.0128265
17347.4	0.0125895
17366.2	0.0123421
17385	0.0120851
17403.7	0.0118194
17422.5	0.0115457
17441.3	0.011265
17460.1	0.0109782
17478.8	0.0106861
17497.6	0.0103898
17516.4	0.0100902
17535.2	0.00978817
17553.9	0.00948482
17572.7	0.00918109
17591.5	0.00887797
17610.3	0.00857646
17629	0.00827753
17647.8	0.00798215
17666.6	0.00769129
17685.4	0.00740589
17704.1	0.00712687
17722.9	0.00685513
17741.7	0.00659154
17760.5	0.00633694
17779.2	0.00609215
17798	0.00585792
17816.8	0.005635
17835.6	0.00542406
17854.3	0.00522574
17873.1	0.00504065
17891.9	0.00486932
17910.7	0.00471225
17929.4	0.00456986
17948.2	0.00444254
17967	0.00433061
17985.8	0.00423434
18004.5	0.00415392
18023.3	0.00408951
18042.1	0.00404119
18060.8	0.00400898
18079.6	0.00399285
18098.4	0.0039927
18117.2	0.00400837
18135.9	0.00403965
18154.7	0.00408627
18173.5	0.00414791
18192.3	0.00422416
18211	0.00431462
18229.8	0.00441878
18248.6	0.00453611
18267.4	0.00466603
18286.1	0.00480792
18304.9	0.00496111
18323.7	0.0051249
18342.5	0.00529854
18361.2	0.00548127
18380	0.00567228
18398.8	0.00587075
18417.6	0.00607583
18436.3	0.00628664
18455.1	0.0065023
18473.9	0.00672192
18492.7	0.00694459
18511.4	0.00716939
18530.2	0.00739542
18549	0.00762174
18567.8	0.00784747
18586.5	0.00807168
18605.3	0.0082935
18624.1	0.00851204
18642.9	0.00872644
18661.6	0.00893585
18680.4	0.00913947
18699.2	0.00933648
18717.9	0.00952612
18736.7	0.00970766
18755.5	0.00988038
18774.3	0.0100436
18793	0.0101967
18811.8	0.0103391
18830.6	0.0104701
18849.4	0.0105894
18868.1	0.0106963
18886.9	0.0107905
18905.7	0.0108715
18924.5	0.0109391
18943.2	0.0109928
18962	0.0110324
18980.8	0.0110577
18999.6	0.0110686
19018.3	0.0110648
19037.1	0.0110462
19055.9	0.0110129
19074.7	0.0109648
19093.4	0.010902
19112.2	0.0108245
19131	0.0107324
19149.8	0.0106259
19168.5	0.0105052
19187.3	0.0103705
19206.1	0.0102221
19224.9	0.0100602
19243.6	0.00988524
19262.4	0.0096975
19281.2	0.00949739
19300	0.00928531
19318.7	0.00906171
19337.5	0.00882704
19356.3	0.00858178
19375.1	0.00832645
19393.8	0.00806155
19412.6	0.00778762
19431.4	0.00750521
19450.1	0.00721489
19468.9	0.00691723
19487.7	0.0066128
19506.5	0.0063022
19525.2	0.00598602
19544	0.00566487
19562.8	0.00533934
19581.6	0.00501004
19600.3	0.00467757
19619.1	0.00434252
19637.9	0.0040055
19656.7	0.00366709
19675.4	0.00332788
19694.2	0.00298844
19713	0.00264935
19731.8	0.00231116
19750.5	0.00197441
19769.3	0.00163965
19788.1	0.0013074
19806.9	0.000978164
19825.6	0.00065244
19844.4	0.000330706
19863.2	1.34274e-05
19882	-0.000298949
19900.7	-0.000605991
19919.5	-0.000907287
19938.3	-0.00120244
19957.1	-0.00149107
19975.8	-0.00177283
19994.6	-0.00204736
