0	0
26.6808	0
53.3616	0
80.0424	0
106.723	0
133.404	0
160.085	0
186.766	0
213.446	0
240.127	0
266.808	0
293.489	0
320.17	0
346.85	0
373.531	0
400.212	0
426.893	0
453.574	0
480.254	0
506.935	0
533.616	0
560.297	0
586.978	0
613.658	0
640.339	0
667.02	0
693.701	0
720.382	0
747.062	0
773.743	0
800.424	0
827.105	0
853.786	0
880.466	0
907.147	0
933.828	0
960.509	0
987.19	0
1013.87	0
1040.55	0
1067.23	0
1093.91	0
1120.59	0
1147.27	0
1173.96	0
1200.64	0
1227.32	0
1254	0
1280.68	0
1307.36	0
1334.04	0
1360.72	0
1387.4	0
1414.08	0
1440.76	0
1467.44	0
1494.12	0
1520.81	0
1547.49	0
1574.17	0
1600.85	0
1627.53	0
1654.21	0
1680.89	0
1707.57	0
1734.25	0
1760.93	0
1787.61	0
1814.29	0
1840.98	0
1867.66	0
1894.34	0
1921.02	1.81899e-12
1947.7	5.45697e-12
1974.38	1.45519e-11
2001.06	3.45608e-11
2027.74	7.82165e-11
2054.42	1.71894e-10
2081.1	3.62888e-10
2107.78	7.43057e-10
2134.46	1.47429e-09
2161.14	2.84126e-09
2187.83	5.32691e-09
2214.51	9.73068e-09
2241.19	1.73386e-08
2267.87	3.01716e-08
2294.55	5.13292e-08
2321.23	8.54543e-08
2347.91	1.39353e-07
2374.59	2.22785e-07
2401.27	3.49465e-07
2427.95	5.38273e-07
2454.63	8.14699e-07
2481.31	1.21251e-06
2508	1.77564e-06
2534.68	2.56018e-06
2561.36	3.63656e-06
2588.04	5.0917e-06
2614.72	7.03112e-06
2641.4	9.58097e-06
2668.08	1.28897e-05
2694.76	1.71298e-05
2721.44	2.2499e-05
2748.12	2.92216e-05
2774.8	3.75501e-05
2801.48	4.77672e-05
2828.16	6.01897e-05
2854.84	7.51743e-05
2881.53	9.31274e-05
2908.21	0.00011452
2934.89	0.000139912
2961.57	0.000169983
2988.25	0.000205583
3014.93	0.000247793
3041.61	0.000298013
3068.29	0.000358074
3094.97	0.000430379
3121.65	0.000518079
3148.33	0.000625291
3175.01	0.000757351
3201.69	0.000921115
3228.37	0.0011253
3255.05	0.00138085
3281.73	0.00170139
3308.41	0.00210357
3335.09	0.0026076
3361.77	0.0032376
3388.45	0.00402201
3415.13	0.00499392
3441.81	0.00619124
3468.49	0.00765684
3495.17	0.00943843
3521.85	0.0115883
3548.53	0.0141628
3575.21	0.0172217
3601.89	0.0208267
3628.57	0.0250406
3655.25	0.0299257
3681.93	0.0355415
3708.61	0.041943
3735.29	0.0491781
3761.97	0.0572857
3788.65	0.0662928
3815.33	0.0762123
3842.01	0.087041
3868.69	0.098757
3895.37	0.111319
3922.05	0.124663
3948.73	0.138705
3975.41	0.153338
4002.09	0.168431
4028.77	0.183837
4055.45	0.199385
4082.13	0.214892
4108.81	0.230158
4135.49	0.244974
4162.17	0.259125
4188.86	0.272395
4215.54	0.284569
4242.22	0.295439
4268.9	0.304811
4295.58	0.312505
4322.26	0.31836
4348.94	0.322241
4375.62	0.324039
4402.3	0.323672
4428.98	0.321092
4455.66	0.31628
4482.34	0.309252
4509.02	0.300053
4535.7	0.288762
4562.38	0.275484
4589.06	0.260354
4615.75	0.243528
4642.43	0.225185
4669.11	0.205521
4695.79	0.184744
4722.47	0.163072
4749.15	0.14073
4775.83	0.117943
4802.51	0.0949351
4829.19	0.0719234
4855.87	0.0491172
4882.55	0.0267138
4909.23	0.00489633
4935.91	-0.0161685
4962.59	-0.0363319
4989.28	-0.0554643
5015.96	-0.0734561
5042.64	-0.090218
5069.32	-0.105681
5096	-0.119796
5122.68	-0.132533
5149.36	-0.143881
5176.04	-0.153844
5202.72	-0.162443
5229.4	-0.169713
5256.08	-0.175701
5282.76	-0.180463
5309.44	-0.184065
5336.12	-0.18658
5362.8	-0.188085
5389.48	-0.188662
5416.17	-0.188394
5442.85	-0.187363
5469.53	-0.185654
5496.21	-0.183347
5522.89	-0.180519
5549.57	-0.177246
5576.25	-0.173597
5602.93	-0.169637
5629.61	-0.165425
5656.29	-0.161016
5682.97	-0.156458
5709.65	-0.151794
5736.33	-0.147062
5763.01	-0.142294
5789.69	-0.137516
5816.38	-0.132751
5843.06	-0.128016
5869.74	-0.123327
5896.42	-0.118694
5923.1	-0.114123
5949.78	-0.109621
5976.46	-0.10519
6003.14	-0.100831
6029.82	-0.0965441
6056.5	-0.0923275
6083.18	-0.0881796
6109.86	-0.0840981
6136.54	-0.0800805
6163.22	-0.0761246
6189.9	-0.0722282
6216.59	-0.0683896
6243.27	-0.0646077
6269.95	-0.0608818
6296.63	-0.0572117
6323.31	-0.053598
6349.99	-0.0500416
6376.67	-0.0465439
6403.35	-0.0431069
6430.03	-0.0397327
6456.71	-0.0364238
6483.39	-0.0331828
6510.07	-0.0300122
6536.75	-0.0269146
6563.43	-0.0238925
6590.12	-0.0209481
6616.8	-0.0180833
6643.48	-0.0152995
6670.16	-0.012598
6696.84	-0.00997926
6723.52	-0.0074436
6750.2	-0.00499069
6776.88	-0.00261974
6803.56	-0.000329521
6830.24	0.00188162
6856.92	0.00401573
6883.6	0.00607518
6910.29	0.0080626
6936.97	0.00998082
6963.65	0.0118328
6990.33	0.0136216
7017.01	0.0153501
7043.69	0.0170213
7070.37	0.0186379
7097.05	0.0202024
7123.73	0.0217169
7150.41	0.0231834
7177.09	0.0246031
7203.77	0.0259773
7230.45	0.0273063
7257.14	0.0285903
7283.82	0.0298289
7310.5	0.031021
7337.18	0.0321655
7363.86	0.0332604
7390.54	0.0343034
7417.22	0.0352919
7443.9	0.036223
7470.58	0.0370933
7497.26	0.0378993
7523.94	0.0386372
7550.62	0.0393033
7577.3	0.0398936
7603.99	0.0404041
7630.67	0.0408311
7657.35	0.0411708
7684.03	0.0414195
7710.71	0.041574
7737.39	0.0416311
7764.07	0.0415882
7790.75	0.0414427
7817.43	0.0411928
7844.11	0.0408367
7870.79	0.0403734
7897.47	0.0398023
7924.15	0.039123
7950.84	0.038336
7977.52	0.037442
8004.2	0.0364424
8030.88	0.0353388
8057.56	0.0341335
8084.24	0.0328293
8110.92	0.0314292
8137.6	0.0299369
8164.28	0.0283563
8190.96	0.0266918
8217.64	0.0249479
8244.32	0.0231298
8271	0.0212427
8297.69	0.0192921
8324.37	0.0172839
8351.05	0.015224
8377.73	0.0131184
8404.41	0.0109736
8431.09	0.00879573
8457.77	0.00659138
8484.45	0.00436699
8511.13	0.00212905
8537.81	-0.000115958
8564.49	-0.0023616
8591.17	-0.0046015
8617.85	-0.00682937
8644.54	-0.00903907
8671.22	-0.0112246
8697.9	-0.01338
8724.58	-0.0154997
8751.26	-0.0175782
8777.94	-0.0196102
8804.62	-0.0215908
8831.3	-0.0235152
8857.98	-0.0253789
8884.66	-0.0271777
8911.34	-0.0289078
8938.02	-0.0305655
8964.7	-0.0321476
8991.39	-0.0336512
9018.07	-0.0350736
9044.75	-0.0364127
9071.43	-0.0376664
9098.11	-0.0388332
9124.79	-0.0399118
9151.47	-0.0409013
9178.15	-0.0418011
9204.83	-0.042611
9231.51	-0.043331
9258.19	-0.0439615
9284.87	-0.044503
9311.55	-0.0449566
9338.23	-0.0453234
9364.92	-0.0456049
9391.6	-0.0458027
9418.28	-0.0459187
9444.96	-0.0459549
9471.64	-0.0459136
9498.32	-0.0457973
9525	-0.0456084
9551.68	-0.0453496
9578.36	-0.0450235
9605.04	-0.0446331
9631.72	-0.0441812
9658.4	-0.0436707
9685.08	-0.0431044
9711.77	-0.0424853
9738.45	-0.0418162
9765.13	-0.0411001
9791.81	-0.0403396
9818.49	-0.0395376
9845.17	-0.0386968
9871.85	-0.0378196
9898.53	-0.0369087
9925.21	-0.0359663
9951.89	-0.0349949
9978.57	-0.0339966
10005.3	-0.0329734
10031.9	-0.0319275
10058.6	-0.0308607
10085.3	-0.0297747
10112	-0.0286712
10138.7	-0.0275518
10165.3	-0.026418
10192	-0.0252711
10218.7	-0.0241125
10245.4	-0.0229433
10272.1	-0.0217649
10298.7	-0.0205781
10325.4	-0.0193842
10352.1	-0.018184
10378.8	-0.0169785
10405.5	-0.0157688
10432.1	-0.0145556
10458.8	-0.0133398
10485.5	-0.0121224
10512.2	-0.0109041
10538.9	-0.00968594
10565.5	-0.00846871
10592.2	-0.00725332
10618.9	-0.00604068
10645.6	-0.00483173
10672.3	-0.00362742
10699	-0.00242874
10725.6	-0.0012367
10752.3	-5.23391e-05
10779	0.00112326
10805.7	0.00228898
10832.4	0.0034437
10859	0.00458623
10885.7	0.00571539
10912.4	0.00682993
10939.1	0.00792862
10965.8	0.00901017
10992.4	0.0100733
11019.1	0.0111167
11045.8	0.012139
11072.5	0.0131389
11099.2	0.0141151
11125.8	0.0150662
11152.5	0.015991
11179.2	0.016888
11205.9	0.0177561
11232.6	0.0185939
11259.3	0.0194002
11285.9	0.0201737
11312.6	0.0209133
11339.3	0.0216179
11366	0.0222862
11392.7	0.0229174
11419.3	0.0235104
11446	0.0240642
11472.7	0.024578
11499.4	0.025051
11526.1	0.0254824
11552.7	0.0258715
11579.4	0.0262178
11606.1	0.0265207
11632.8	0.0267798
11659.5	0.0269947
11686.1	0.027165
11712.8	0.0272906
11739.5	0.0273712
11766.2	0.027407
11792.9	0.0273977
11819.5	0.0273436
11846.2	0.0272448
11872.9	0.0271014
11899.6	0.0269139
11926.3	0.0266826
11952.9	0.0264078
11979.6	0.0260902
12006.3	0.0257303
12033	0.0253288
12059.7	0.0248862
12086.4	0.0244035
12113	0.0238814
12139.7	0.0233207
12166.4	0.0227225
12193.1	0.0220877
12219.8	0.0214172
12246.4	0.0207123
12273.1	0.019974
12299.8	0.0192036
12326.5	0.0184021
12353.2	0.017571
12379.8	0.0167116
12406.5	0.0158251
12433.2	0.014913
12459.9	0.0139768
12486.6	0.0130178
12513.2	0.0120378
12539.9	0.0110381
12566.6	0.0100205
12593.3	0.00898644
12620	0.00793774
12646.7	0.00687603
12673.3	0.00580305
12700	0.00472055
12726.7	0.00363031
12753.4	0.00253412
12780.1	0.00143379
12806.7	0.000331157
12833.4	-0.00077194
12860.1	-0.00187366
12886.8	-0.00297214
12913.5	-0.00406555
12940.1	-0.00515203
12966.8	-0.00622977
12993.5	-0.00729693
13020.2	-0.00835173
13046.9	-0.0093924
13073.5	-0.0104172
13100.2	-0.0114244
13126.9	-0.0124124
13153.6	-0.0133795
13180.3	-0.0143242
13206.9	-0.015245
13233.6	-0.0161404
13260.3	-0.017009
13287	-0.0178496
13313.7	-0.0186608
13340.4	-0.0194415
13367	-0.0201907
13393.7	-0.0209073
13420.4	-0.0215904
13447.1	-0.0222391
13473.8	-0.0228528
13500.4	-0.0234308
13527.1	-0.0239725
13553.8	-0.0244775
13580.5	-0.0249454
13607.2	-0.025376
13633.8	-0.025769
13660.5	-0.0261243
13687.2	-0.0264421
13713.9	-0.0267223
13740.6	-0.0269651
13767.2	-0.0271708
13793.9	-0.0273398
13820.6	-0.0274724
13847.3	-0.0275692
13874	-0.0276308
13900.6	-0.0276577
13927.3	-0.0276507
13954	-0.0276106
13980.7	-0.0275382
14007.4	-0.0274344
14034.1	-0.0273001
14060.7	-0.0271363
14087.4	-0.026944
14114.1	-0.0267243
14140.8	-0.0264783
14167.5	-0.0262072
14194.1	-0.0259119
14220.8	-0.0255939
14247.5	-0.0252542
14274.2	-0.0248941
14300.9	-0.0245148
14327.5	-0.0241175
14354.2	-0.0237036
14380.9	-0.0232742
14407.6	-0.0228307
14434.3	-0.0223742
14460.9	-0.0219061
14487.6	-0.0214276
14514.3	-0.0209399
14541	-0.0204443
14567.7	-0.019942
14594.3	-0.0194342
14621	-0.0189221
14647.7	-0.018407
14674.4	-0.0178899
14701.1	-0.017372
14727.8	-0.0168545
14754.4	-0.0163384
14781.1	-0.0158249
14807.8	-0.015315
14834.5	-0.0148097
14861.2	-0.0143101
14887.8	-0.0138171
14914.5	-0.0133316
14941.2	-0.0128548
14967.9	-0.0123873
14994.6	-0.0119301
15021.2	-0.011484
15047.9	-0.0110498
15074.6	-0.0106284
15101.3	-0.0102203
15128	-0.00982636
15154.6	-0.00944719
15181.3	-0.00908341
15208	-0.00873559
15234.7	-0.0084043
15261.4	-0.00809001
15288	-0.00779319
15314.7	-0.00751426
15341.4	-0.00725357
15368.1	-0.00701147
15394.8	-0.00678821
15421.5	-0.00658404
15448.1	-0.00639913
15474.8	-0.00623362
15501.5	-0.00608759
15528.2	-0.00596107
15554.9	-0.00585405
15581.5	-0.00576645
15608.2	-0.00569816
15634.9	-0.005649
15661.6	-0.00561874
15688.3	-0.0056071
15714.9	-0.00561375
15741.6	-0.0056383
15768.3	-0.00568031
15795	-0.0057393
15821.7	-0.00581472
15848.3	-0.00590598
15875	-0.00601243
15901.7	-0.00613339
15928.4	-0.00626812
15955.1	-0.00641583
15981.7	-0.00657569
16008.4	-0.00674684
16035.1	-0.00692836
16061.8	-0.0071193
16088.5	-0.00731869
16115.2	-0.00752551
16141.8	-0.00773872
16168.5	-0.00795725
16195.2	-0.00818001
16221.9	-0.00840589
16248.6	-0.00863376
16275.2	-0.0088625
16301.9	-0.00909096
16328.6	-0.009318
16355.3	-0.00954248
16382	-0.00976326
16408.6	-0.00997923
16435.3	-0.0101893
16462	-0.0103923
16488.7	-0.0105872
16515.4	-0.0107731
16542	-0.0109488
16568.7	-0.0111135
16595.4	-0.0112662
16622.1	-0.0114061
16648.8	-0.0115323
16675.4	-0.011644
16702.1	-0.0117407
16728.8	-0.0118216
16755.5	-0.0118861
16782.2	-0.0119338
16808.9	-0.0119643
16835.5	-0.0119771
16862.2	-0.011972
16888.9	-0.0119487
16915.6	-0.0119073
16942.3	-0.0118475
16968.9	-0.0117695
16995.6	-0.0116734
17022.3	-0.0115593
17049	-0.0114276
17075.7	-0.0112785
17102.3	-0.0111125
17129	-0.0109301
17155.7	-0.010732
17182.4	-0.0105186
17209.1	-0.0102907
17235.7	-0.0100491
17262.4	-0.00979469
17289.1	-0.00952822
17315.8	-0.00925066
17342.5	-0.00896298
17369.1	-0.00866619
17395.8	-0.00836134
17422.5	-0.00804947
17449.2	-0.0077317
17475.9	-0.00740911
17502.6	-0.00708284
17529.2	-0.00675398
17555.9	-0.00642367
17582.6	-0.00609302
17609.3	-0.0057631
17636	-0.00543501
17662.6	-0.00510979
17689.3	-0.00478845
17716	-0.00447198
17742.7	-0.00416132
17769.4	-0.00385735
17796	-0.00356092
17822.7	-0.0032728
17849.4	-0.00299374
17876.1	-0.00272437
17902.8	-0.00246531
17929.4	-0.00221707
17956.1	-0.0019801
17982.8	-0.00175478
18009.5	-0.00154141
18036.2	-0.00134022
18062.9	-0.00115135
18089.5	-0.000974875
18116.2	-0.000810779
18142.9	-0.000658977
18169.6	-0.000519307
18196.3	-0.000391532
18222.9	-0.000275341
18249.6	-0.000170354
18276.3	-7.61225e-05
18303	7.86455e-06
18329.7	8.21808e-05
18356.3	0.000147456
18383	0.000204375
18409.7	0.000253667
18436.4	0.00029611
18463.1	0.000332516
18489.7	0.000363736
18516.4	0.000390645
18543.1	0.000414145
18569.8	0.000435153
18596.5	0.000454601
18623.1	0.000473424
18649.8	0.000492561
18676.5	0.000512947
18703.2	0.000535505
18729.9	0.000561144
18756.6	0.000590753
18783.2	0.000625195
18809.9	0.000665302
18836.6	0.000711874
18863.3	0.000765668
18890	0.000827399
18916.6	0.000897735
18943.3	0.000977295
18970	0.00106664
18996.7	0.00116628
19023.4	0.00127665
19050	0.00139815
19076.7	0.0015311
19103.4	0.00167576
19130.1	0.00183231
19156.8	0.00200088
19183.4	0.00218154
19210.1	0.00237427
19236.8	0.002579
19263.5	0.00279561
19290.2	0.00302387
19316.8	0.00326354
19343.5	0.00351429
19370.2	0.00377574
19396.9	0.00404744
19423.6	0.00432891
19450.3	0.00461962
19476.9	0.00491896
19503.6	0.00522632
19530.3	0.00554102
19557	0.00586236
19583.7	0.00618959
19610.3	0.00652196
19637	0.00685866
19663.7	0.0071989
19690.4	0.00754183
19717.1	0.00788662
19743.7	0.00823243
19770.4	0.0085784
19797.1	0.00892367
19823.8	0.0092674
19850.5	0.00960875
19877.1	0.00994689
19903.8	0.010281
19930.5	0.0106103
19957.2	0.0109339
19983.9	0.0112512
