0	0
109.03	0
218.061	0
327.091	0.000333397
436.122	0.00322773
545.152	0.0115719
654.182	0.0263259
763.212	0.052523
872.242	0.0885387
981.271	0.127448
1090.3	0.160048
1199.33	0.179148
1308.35	0.181364
1417.38	0.166987
1526.41	0.138814
1635.43	0.100985
1744.46	0.0581695
1853.49	0.0149846
1962.52	-0.0244933
2071.55	-0.057165
2180.58	-0.0811953
2289.61	-0.09607
2398.64	-0.102416
2507.67	-0.101664
2616.7	-0.0956508
2725.73	-0.086263
2834.76	-0.0751705
2943.79	-0.063666
3052.82	-0.0526072
3161.85	-0.0424418
3270.88	-0.0332911
3379.91	-0.0250644
3488.94	-0.0175781
3597.97	-0.0106557
3707	-0.00419358
3816.03	0.00181347
3925.06	0.00728324
4034.09	0.0120821
4143.12	0.0160721
4252.15	0.0191554
4361.18	0.0213049
4470.21	0.0225768
4579.24	0.0231034
4688.27	0.0230704
4797.3	0.0226847
4906.33	0.0221408
5015.36	0.0215919
5124.39	0.0211307
5233.42	0.0207827
5342.45	0.0205117
5451.48	0.0202351
5560.51	0.0198455
5669.54	0.0192329
5778.57	0.0183054
5887.6	0.0170037
5996.63	0.0153088
6105.66	0.0132417
6214.69	0.0108578
6323.72	0.0082365
6432.75	0.00546941
6541.78	0.00264878
6650.81	-0.000141684
6759.84	-0.00283276
6868.87	-0.00537217
6977.9	-0.00772397
7086.93	-0.00986567
7195.96	-0.0117844
7304.99	-0.013473
7414.02	-0.0149269
7523.05	-0.0161426
7632.08	-0.0171171
7741.11	-0.0178488
7850.15	-0.018339
7959.18	-0.0185937
8068.21	-0.0186251
8177.24	-0.0184515
8286.27	-0.0180979
8395.3	-0.0175939
8504.33	-0.0169726
8613.36	-0.0162677
8722.39	-0.0155119
8831.42	-0.0147342
8940.45	-0.0139593
9049.48	-0.0132064
9158.51	-0.0124895
9267.54	-0.0118174
9376.57	-0.0111953
9485.6	-0.0106251
9594.63	-0.0101069
9703.66	-0.00963993
9812.69	-0.00922258
9921.72	-0.0088532
10030.8	-0.00852994
10139.8	-0.00825072
10248.8	-0.00801294
10357.8	-0.00781336
10466.9	-0.00764797
10575.9	-0.00751198
10684.9	-0.00739991
10794	-0.00730587
10903	-0.00722375
11012	-0.0071476
11121.1	-0.0070718
11230.1	-0.00699137
11339.1	-0.006902
11448.1	-0.00680021
11557.2	-0.00668327
11666.2	-0.0065492
11775.2	-0.00639669
11884.3	-0.00622502
11993.3	-0.00603405
12102.3	-0.00582414
12211.4	-0.00559613
12320.4	-0.00535134
12429.4	-0.00509154
12538.5	-0.00481893
12647.5	-0.00453604
12756.5	-0.0042457
12865.5	-0.00395088
12974.6	-0.00365461
13083.6	-0.00335984
13192.6	-0.00306929
13301.7	-0.00278537
13410.7	-0.00251007
13519.7	-0.00224495
13628.8	-0.00199105
13737.8	-0.00174896
13846.8	-0.00151882
13955.8	-0.00130036
14064.9	-0.00109301
14173.9	-0.000895908
14282.9	-0.000708025
14392	-0.000528206
14501	-0.000355238
14610	-0.000187913
14719.1	-2.50729e-05
14828.1	0.000134343
14937.1	0.000291266
15046.2	0.000446464
15155.2	0.000600524
15264.2	0.00075384
15373.2	0.000906605
15482.3	0.00105882
15591.3	0.00121031
15700.3	0.00136072
15809.4	0.0015096
15918.4	0.00165636
16027.4	0.00180037
16136.5	0.00194096
16245.5	0.00207745
16354.5	0.00220918
16463.5	0.00233554
16572.6	0.00245597
16681.6	0.00256997
16790.6	0.00267709
16899.7	0.00277695
17008.7	0.00286922
17117.7	0.00295359
17226.8	0.00302977
17335.8	0.00309749
17444.8	0.00315646
17553.9	0.00320638
17662.9	0.00324693
17771.9	0.00327778
17880.9	0.00329853
17990	0.0033088
18099	0.00330818
18208	0.00329625
18317.1	0.00327261
18426.1	0.00323689
18535.1	0.00318876
18644.2	0.00312794
18753.2	0.00305425
18862.2	0.0029676
18971.2	0.00286802
19080.3	0.00275565
19189.3	0.00263079
19298.3	0.00249385
19407.4	0.00234541
19516.4	0.00218619
19625.4	0.00201701
19734.5	0.00183885
19843.5	0.00165279
19952.5	0.00146001
