%%MatrixMarket matrix array real general
4 3
-.4714045206
-.8164965809
-.1924500898
-.7698003590
-.4714045206
-.8164965809
-.1924500898
-.1924500898
-.4714045206
-.8164965809
-.7698003590
-.1924500898
