0	0
11.7662	0
20.5908	0
32.357	0
41.1817	0
50.0063	0
61.7725	0
70.5972	0
82.3634	0
91.188	0
100.013	0
111.779	0
120.604	0
132.37	0
141.194	0
150.019	0
161.785	0
170.61	0
182.376	0
191.201	0
200.025	0
211.792	0
220.616	0
232.382	0
241.207	0
250.032	0
261.798	0
270.623	0
282.389	0
291.213	0
300.038	0
311.804	0
320.629	0
332.395	0
341.22	0
350.044	0
361.811	0
370.635	0
382.401	0
391.226	0
400.051	0
411.817	0
420.642	0
432.408	0
441.232	0
450.057	0
461.823	0
470.648	0
482.414	0
491.239	0
500.063	0
511.83	0
520.654	0
532.42	0
541.245	0
550.07	0
561.836	0
570.661	0
582.427	0
591.251	0
600.076	0
611.842	0
620.667	0
632.433	0
641.258	0
650.082	0
661.849	0
670.673	0
682.439	0
691.264	0
700.089	0
711.855	0
720.68	0
732.446	0
741.27	0
750.095	0
761.861	0
770.686	0
782.452	0
791.277	0
800.101	0
811.868	0
820.692	0
832.458	0
841.283	0
850.108	0
861.874	0
870.699	0
882.465	0
891.289	0
900.114	0
911.88	0
920.705	0
932.471	0
941.296	0
950.12	0
961.887	0
970.711	0
982.477	0
991.302	0
1000.13	0
1011.89	0
1020.72	0
1032.48	0
1041.31	0
1050.13	0
1061.9	0
1070.72	0
1082.49	0
1091.31	0
1100.14	0
1111.91	0
1120.73	0
1132.5	0
1141.32	0
1150.15	0
1161.91	0
1170.74	0
1182.5	0
1191.33	0
1200.15	0
1211.92	0
1220.74	0
1232.51	0
1241.33	0
1250.16	0
1261.92	0
1270.75	0
1282.52	0
1291.34	0
1300.16	0
1311.93	0
1320.76	0
1332.52	0
1341.35	0
1350.17	0
1361.94	0
1370.76	0
1382.53	0
1391.35	0
1400.18	0
1411.94	0
1420.77	0
1432.53	0
1441.36	0
1450.18	0
1461.95	0
1470.77	0
1482.54	0
1491.37	0
1500.19	0
1511.96	0
1520.78	0
1532.55	0
1541.37	0
1550.2	0
1561.96	0
1570.79	0
1582.55	0
1591.38	0
1600.2	0
1611.97	0
1620.79	0
1632.56	0
1641.38	0
1650.21	0
1661.98	0
1670.8	0
1682.57	0
1691.39	0
1700.22	0
1711.98	0
1720.81	0
1732.57	0
1741.4	0
1750.22	0
1761.99	0
1770.81	0
1782.58	0
1791.4	0
1800.23	0
1811.99	0
1820.82	0
1832.59	0
1841.41	0
1850.23	0
1862	0
1870.83	0
1882.59	0
1891.42	0
1900.24	0
1912.01	0
1920.83	0
1932.6	0
1941.42	0
1950.25	0
1962.01	0
1970.84	0
1982.6	0
1991.43	0
2000.25	0
2012.02	0
2020.84	0
2032.61	0
2041.44	0
2050.26	0
2062.03	0
2070.85	0
2082.62	0
2091.44	0
2100.27	0
2112.03	0
2120.86	0
2132.62	0
2141.45	0
2150.27	0
2162.04	0
2170.86	0
2182.63	0
2191.45	0
2200.28	0
2212.04	0
2220.87	0
2232.64	0
2241.46	0
2250.28	0
2262.05	0
2270.88	0
2282.64	0
2291.47	0
2300.29	0
2312.06	0
2320.88	0
2332.65	0
2341.47	0
2350.3	0
2362.06	0
2370.89	0
2382.65	0
2391.48	0
2400.3	0
2412.07	0
2420.89	0
2432.66	0
2441.49	0
2450.31	0
2462.08	0
2470.9	0
2482.67	0
2491.49	0
2500.32	0
2512.08	0
2520.91	0
2532.67	0
2541.5	0
2550.32	0
2562.09	0
2570.91	0
2582.68	0
2591.5	0
2600.33	0
2612.1	0
2620.92	0
2632.69	0
2641.51	0
2650.34	0
2662.1	0
2670.93	0
2682.69	0
2691.52	0
2700.34	0
2712.11	0
2720.93	0
2732.7	0
2741.52	0
2750.35	0
2762.11	0
2770.94	0
2782.71	0
2791.53	0
2800.35	0
2812.12	0
2820.95	0
2832.71	0
2841.54	0
2850.36	0
2862.13	0
2870.95	0
2882.72	0
2891.54	0
2900.37	0
2912.13	0
2920.96	0
2932.72	0
2941.55	0
2950.37	0
2962.14	0
2970.96	0
2982.73	0
2991.55	0
3000.38	0
3012.14	0
3020.97	0
3032.74	0
3041.56	0
3050.38	0
3062.15	0
3070.97	0
3082.74	0
3091.57	0
3100.39	0
3112.16	0
3120.98	0
3132.75	0
3141.57	-2.72848e-12
3150.4	-4.54747e-12
3162.16	-8.18545e-12
3170.99	-1.36424e-11
3182.75	-2.18279e-11
3191.58	-3.27418e-11
3200.4	-5.00222e-11
3212.17	-8.73115e-11
3220.99	-1.31877e-10
3232.76	-2.26464e-10
3241.58	-3.36513e-10
3250.41	-4.96584e-10
3262.17	-8.25821e-10
3271	-1.20053e-09
3282.76	-1.95814e-09
3291.59	-2.80397e-09
3300.41	-3.98995e-09
3312.18	-6.32372e-09
3321	-8.86666e-09
3332.77	-1.37852e-08
3341.59	-1.90594e-08
3350.42	-2.61953e-08
3362.18	-3.96631e-08
3371.01	-5.37721e-08
3382.77	-7.99691e-08
3391.6	-1.06988e-07
3400.42	-1.4234e-07
3412.19	-2.06505e-07
3421.01	-2.71261e-07
3432.78	-3.87013e-07
3441.6	-5.02125e-07
3450.43	-6.48105e-07
3462.19	-9.03592e-07
3471.02	-1.15257e-06
3482.78	-1.58216e-06
3491.61	-1.99512e-06
3500.43	-2.50383e-06
3512.2	-3.36458e-06
3521.02	-4.17661e-06
3532.79	-5.53267e-06
3541.61	-6.79593e-06
3550.44	-8.31095e-06
3562.2	-1.07961e-05
3571.03	-1.30715e-05
3582.79	-1.67595e-05
3591.62	-2.00977e-05
3600.44	-2.40046e-05
3612.21	-3.02349e-05
3621.03	-3.57867e-05
3632.8	-4.45454e-05
3641.62	-5.227e-05
3650.44	-6.11141e-05
3662.21	-7.48664e-05
3671.03	-8.68275e-05
3682.8	-0.000105251
3691.62	-0.000121129
3700.45	-0.00013896
3712.21	-0.000166079
3721.04	-0.00018917
3732.8	-0.000224003
3741.63	-0.000253431
3750.45	-0.000285929
3762.22	-0.000334428
3771.04	-0.000374979
3782.81	-0.000435076
3791.63	-0.000484994
3800.46	-0.000539349
3812.22	-0.000619179
3821.05	-0.000684917
3832.81	-0.000780908
3841.64	-0.00085952
3850.46	-0.000944118
3862.23	-0.00106672
3871.05	-0.00116641
3882.82	-0.00131018
3891.64	-0.00142654
3900.47	-0.00155052
3912.23	-0.00172821
3921.06	-0.00187113
3932.82	-0.00207509
3941.65	-0.00223848
3950.47	-0.00241111
3962.24	-0.00265608
3971.06	-0.00285125
3982.83	-0.00312718
3991.65	-0.00334619
4000.47	-0.00357578
4012.24	-0.00389866
4021.06	-0.00415362
4032.83	-0.0045109
4041.65	-0.00479201
4050.48	-0.00508449
4062.24	-0.00549223
4071.07	-0.00581139
4082.84	-0.00625471
4091.66	-0.00660044
4100.48	-0.00695742
4112.25	-0.0074506
4121.07	-0.00783312
4132.84	-0.00835949
4141.66	-0.00876609
4150.49	-0.00918238
4162.26	-0.00975166
4171.08	-0.0101886
4182.85	-0.0107831
4191.67	-0.0112371
4200.5	-0.0116969
4212.26	-0.0123176
4221.09	-0.0127872
4232.85	-0.0134164
4241.68	-0.0138888
4250.5	-0.0143598
4262.27	-0.0149824
4271.09	-0.0154428
4282.86	-0.0160435
4291.68	-0.016481
4300.51	-0.0169041
4312.27	-0.0174409
4321.1	-0.0178185
4332.86	-0.0182816
4341.69	-0.0185934
4350.51	-0.01887
4362.28	-0.0191754
4371.1	-0.0193504
4382.87	-0.0195008
4391.7	-0.0195435
4400.52	-0.019519
4412.29	-0.0193698
4421.11	-0.0191608
4432.88	-0.0187379
4441.7	-0.0183018
4450.53	-0.017754
4462.29	-0.0168343
4471.12	-0.0159901
4482.88	-0.0146401
4491.71	-0.0134462
4500.53	-0.0120853
4512.3	-0.00999291
4521.12	-0.00820144
4532.89	-0.00549648
4541.71	-0.00321689
4550.54	-0.000710794
4562.3	0.00300036
4571.13	0.00607351
4582.89	0.0105747
4591.72	0.0142644
4600.54	0.0182317
4612.31	0.0239648
4621.13	0.028605
4632.9	0.0352548
4641.72	0.0405938
4650.55	0.0462368
4662.32	0.0542351
4671.14	0.0605889
4682.91	0.0695299
4691.73	0.076583
4700.55	0.0839277
4712.32	0.0941625
4721.15	0.102159
4732.91	0.113229
4741.74	0.121822
4750.56	0.130649
4762.33	0.142757
4771.15	0.152071
4782.92	0.164768
4791.74	0.174473
4800.57	0.184314
4812.33	0.197608
4821.16	0.20768
4832.92	0.2212
4841.75	0.231377
4850.57	0.241559
4862.34	0.255099
4871.16	0.265193
4882.93	0.278522
4891.75	0.288387
4900.58	0.298109
4912.34	0.310805
4921.17	0.320093
4932.94	0.332112
4941.76	0.340819
4950.58	0.349235
4962.35	0.359958
4971.18	0.367594
4982.94	0.377188
4991.77	0.383913
5000.59	0.390208
5012.36	0.397897
5021.18	0.403107
5030.01	0.40782
5041.77	0.413297
5050.6	0.416778
5062.36	0.420557
5071.19	0.422725
5080.01	0.424311
5091.78	0.425502
5100.6	0.425692
5112.37	0.424999
5121.19	0.423764
5130.02	0.421915
5141.78	0.418498
5150.61	0.415224
5162.37	0.409924
5171.2	0.405257
5180.02	0.400008
5191.79	0.392127
5200.61	0.385572
5212.38	0.376004
5221.21	0.368231
5230.03	0.359969
5241.8	0.348227
5250.62	0.338907
5262.39	0.325838
5271.21	0.315588
5280.04	0.304981
5291.8	0.290328
5300.63	0.27899
5312.39	0.263458
5321.22	0.251531
5330.04	0.239395
5341.81	0.222933
5350.63	0.210407
5362.4	0.193513
5371.22	0.180729
5380.05	0.167871
5391.81	0.150651
5400.64	0.137705
5412.41	0.12044
5421.23	0.107512
5430.05	0.0946222
5441.82	0.0775234
5450.64	0.064786
5462.41	0.0479479
5471.24	0.0354474
5480.06	0.0230729
5491.83	0.00679397
5500.65	-0.00523174
5512.42	-0.0209948
5521.24	-0.0325955
5530.07	-0.0439905
5541.83	-0.0588391
5550.66	-0.0696979
5562.42	-0.0837775
5571.25	-0.0940181
5580.07	-0.103968
5591.84	-0.116754
5600.66	-0.125961
5612.43	-0.137699
5621.25	-0.146075
5630.08	-0.154068
5641.84	-0.1641
5650.67	-0.171134
5662.44	-0.179831
5671.26	-0.185824
5680.08	-0.191347
5691.85	-0.19796
5700.67	-0.202342
5712.44	-0.207397
5721.27	-0.210587
5730.09	-0.213256
5741.86	-0.215997
5750.68	-0.217439
5762.45	-0.218546
5771.27	-0.218768
5780.1	-0.218476
5791.86	-0.217303
5800.69	-0.215849
5812.45	-0.213171
5821.28	-0.21063
5830.1	-0.207651
5841.87	-0.203037
5850.69	-0.199123
5862.46	-0.193346
5871.28	-0.188628
5880.11	-0.183612
5891.87	-0.176507
5900.7	-0.170905
5912.47	-0.163129
5921.29	-0.157106
5930.11	-0.150954
5941.88	-0.142603
5950.71	-0.136269
5962.47	-0.127785
5971.3	-0.12143
5980.12	-0.115115
5991.89	-0.1068
6000.71	-0.100677
6012.48	-0.0927087
6021.3	-0.0869086
6030.13	-0.0812822
6041.89	-0.0740831
6050.72	-0.0689327
6062.48	-0.0624259
6071.31	-0.0578329
6080.13	-0.0534981
6091.9	-0.0481359
6100.72	-0.0444367
6112.49	-0.0399444
6121.31	-0.0369093
6130.14	-0.0341627
6141.9	-0.0309488
6150.73	-0.0288725
6162.5	-0.0265435
6171.32	-0.0251201
6180.14	-0.0239672
6191.91	-0.0228381
6200.74	-0.0222865
6212.5	-0.0219265
6221.33	-0.0219247
6230.15	-0.0221403
6241.92	-0.0227452
6250.74	-0.0234207
6262.51	-0.0245924
6271.33	-0.025657
6280.16	-0.0268656
6291.92	-0.0286771
6300.75	-0.0301677
6312.51	-0.0323044
6321.34	-0.0340012
6330.16	-0.0357636
6341.93	-0.0381925
6350.75	-0.0400569
6362.52	-0.0425761
6371.35	-0.0444752
6380.17	-0.0463703
6391.94	-0.0488724
6400.76	-0.0507179
6412.53	-0.0531202
6421.35	-0.0548675
6430.18	-0.0565601
6441.94	-0.0587207
6450.77	-0.0602618
6462.53	-0.0622021
6471.36	-0.0635665
6480.18	-0.0648498
6491.95	-0.0664313
6500.77	-0.0675184
6512.54	-0.068835
6521.36	-0.0697229
6530.19	-0.0705265
6541.95	-0.0714691
6550.78	-0.072082
6562.55	-0.0727781
6571.37	-0.0732131
6580.19	-0.0735767
6591.96	-0.0739565
6600.78	-0.074167
6612.55	-0.0743554
6621.38	-0.0744322
6630.2	-0.0744579
6641.97	-0.0744186
6650.79	-0.0743384
6662.56	-0.0741702
6671.38	-0.074002
6680.21	-0.073801
6691.97	-0.0734862
6700.8	-0.073218
6712.56	-0.0728214
6721.39	-0.0724969
6730.21	-0.0721507
6741.98	-0.071657
6750.8	-0.0712639
6762.57	-0.07071
6771.39	-0.0702726
6780.22	-0.0698165
6791.98	-0.0691786
6800.81	-0.0686774
6812.58	-0.0679778
6821.4	-0.0674287
6830.22	-0.0668578
6841.99	-0.0660613
6850.82	-0.0654364
6862.58	-0.0645647
6871.41	-0.0638811
6880.23	-0.063171
6892	-0.062182
6900.82	-0.0614078
6912.59	-0.0603314
6921.41	-0.0594907
6930.24	-0.0586211
6942	-0.0574168
6950.83	-0.0564803
6962.59	-0.055188
6971.42	-0.0541868
6980.24	-0.053159
6992.01	-0.0517489
7000.83	-0.0506631
7012.6	-0.0491801
7021.42	-0.0480433
7030.25	-0.0468873
7042.02	-0.0453189
7050.84	-0.0441248
7062.61	-0.0425126
7071.43	-0.041291
7080.26	-0.0400611
7092.02	-0.0384119
7100.85	-0.0371707
7112.61	-0.0355143
7121.44	-0.0342736
7130.26	-0.0330365
7142.03	-0.0313964
7150.85	-0.0301757
7162.62	-0.0285643
7171.44	-0.0273702
7180.27	-0.0261903
7192.03	-0.0246418
7200.86	-0.0235008
7212.62	-0.022009
7221.45	-0.0209137
7230.27	-0.0198396
7242.04	-0.0184418
7250.86	-0.0174201
7262.63	-0.0160942
7271.46	-0.0151275
7280.28	-0.0141846
7292.05	-0.0129647
7300.87	-0.0120775
7312.64	-0.0109312
7321.46	-0.0100984
7330.29	-0.00928825
7342.05	-0.0082422
7350.88	-0.00748248
7362.64	-0.00650127
7371.47	-0.00578821
7380.29	-0.00509383
7392.06	-0.00419566
7400.88	-0.0035417
7412.65	-0.00269443
7421.47	-0.00207643
7430.3	-0.00147252
7442.06	-0.000687985
7450.89	-0.000114197
7462.65	0.000632532
7471.48	0.00117954
7480.3	0.00171588
7492.07	0.00241504
7500.89	0.00292781
7512.66	0.00359637
7521.48	0.00408654
7530.31	0.00456705
7542.08	0.00519246
7550.9	0.00564978
7562.67	0.00624329
7571.49	0.00667567
7580.31	0.00709657
7592.08	0.00763889
7600.91	0.0080306
7612.67	0.00853147
7621.5	0.00889003
7630.32	0.00923302
7642.09	0.0096646
7650.91	0.00996781
7662.68	0.010343
7671.5	0.0106015
7680.33	0.0108392
7692.09	0.0111224
7700.92	0.0113083
7712.68	0.0115192
7721.51	0.0116487
7730.33	0.0117527
7742.1	0.0118507
7750.92	0.0118928
7762.69	0.011906
7771.51	0.0118833
7780.34	0.011832
7792.1	0.0117188
7800.93	0.0116
7812.69	0.0113963
7821.52	0.0112094
7830.34	0.0109934
7842.11	0.0106603
7850.93	0.0103771
7862.7	0.0099553
7871.53	0.00960648
7880.35	0.0092303
7892.12	0.0086871
7900.94	0.00824926
7912.71	0.00762612
7921.53	0.00713016
7930.36	0.00661053
7942.12	0.0058822
7950.95	0.00531041
7962.71	0.00451556
7971.54	0.00389621
7980.36	0.00325793
7992.13	0.00237901
8000.95	0.00170007
8012.72	0.000770194
8021.54	5.54899e-05
8030.37	-0.000673043
8042.13	-0.0016644
8050.96	-0.00242175
8062.72	-0.00344836
8071.55	-0.0042298
8080.37	-0.00502015
8092.14	-0.00608636
8100.96	-0.00689428
8112.73	-0.00798098
8121.55	-0.00880208
8130.38	-0.00962753
8142.15	-0.0107336
8150.97	-0.0115662
8162.74	-0.0126791
8171.56	-0.0135149
8180.39	-0.0143509
8192.15	-0.0154645
8200.98	-0.016298
8212.74	-0.0174059
8221.57	-0.0182332
8230.39	-0.0190568
8242.16	-0.020148
8250.98	-0.0209603
8262.75	-0.022034
8271.57	-0.0228315
8280.4	-0.0236216
8292.16	-0.0246626
8300.99	-0.0254332
8312.75	-0.026446
8321.58	-0.0271939
8330.4	-0.0279312
8342.17	-0.0288968
8350.99	-0.0296072
8362.76	-0.030535
8371.59	-0.0312157
8380.41	-0.0318829
8392.18	-0.0327506
8401	-0.0333843
8412.77	-0.0342056
8421.59	-0.0348033
8430.42	-0.0353849
8442.18	-0.0361342
8451.01	-0.0366761
8462.77	-0.037371
8471.6	-0.0378708
8480.42	-0.0383516
8492.19	-0.0389625
8501.01	-0.0393973
8512.78	-0.0399448
8521.6	-0.0403305
8530.43	-0.0406943
8542.19	-0.041144
8551.02	-0.0414541
8562.79	-0.0418299
8571.61	-0.0420827
8580.43	-0.0423097
8592.2	-0.0425712
8601.03	-0.0427353
8612.79	-0.04291
8621.62	-0.0430069
8630.44	-0.0430737
8642.21	-0.0431144
8651.03	-0.0431077
8662.8	-0.0430473
8671.62	-0.0429625
8680.45	-0.0428429
8692.21	-0.0426278
8701.04	-0.0424238
8712.8	-0.0420934
8721.63	-0.041801
8730.45	-0.0414694
8742.22	-0.0409655
8751.04	-0.0405404
8762.81	-0.0399098
8771.64	-0.0393884
8780.46	-0.0388251
8792.23	-0.0380082
8801.05	-0.0373459
8812.82	-0.0363965
8821.64	-0.0356347
8830.47	-0.0348303
8842.23	-0.0336918
8851.06	-0.0327888
8862.82	-0.0315201
8871.65	-0.0305206
8880.47	-0.0294807
8892.24	-0.0280326
8901.06	-0.0269014
8912.83	-0.0253346
8921.65	-0.0241169
8930.48	-0.0228641
8942.24	-0.0211411
8951.07	-0.0198111
8962.84	-0.0179902
8971.66	-0.0165906
8980.48	-0.0151639
8992.25	-0.0132221
9001.08	-0.0117384
9012.84	-0.0097271
9021.67	-0.00819616
9030.49	-0.00664809
9042.26	-0.00456071
9051.08	-0.00298026
9062.85	-0.000856892
9071.67	0.000745081
9080.5	0.00235289
9092.26	0.0045022
9101.09	0.0061157
9112.85	0.00826519
9121.68	0.00987329
9130.5	0.0114757
9142.27	0.0136001
9151.09	0.0151817
9162.86	0.0172712
9171.68	0.0188215
9180.51	0.0203554
9192.28	0.0223719
9201.1	0.0238605
9212.87	0.0258105
9221.69	0.0272449
9230.52	0.0286534
9242.28	0.0304888
9251.11	0.0318315
9262.87	0.0335742
9271.7	0.034844
9280.52	0.0360805
9292.29	0.0376756
9301.11	0.0388304
9312.88	0.0403132
9321.7	0.0413814
9330.53	0.0424111
9342.29	0.0437231
9351.12	0.0446605
9362.88	0.0458475
9371.71	0.0466898
9380.53	0.0474908
9392.3	0.0484938
9401.12	0.049197
9412.89	0.0500691
9421.72	0.0506739
9430.54	0.0512365
9442.31	0.051921
9451.13	0.0523853
9462.9	0.0529393
9471.72	0.0533064
9480.55	0.0536324
9492.31	0.0540036
9501.14	0.054235
9512.9	0.0544818
9521.73	0.0546214
9530.55	0.0547224
9542.32	0.0547986
9551.14	0.0548125
9562.91	0.054775
9571.73	0.0547058
9580.56	0.0546023
9592.32	0.0544125
9601.15	0.0542323
9612.92	0.0539435
9621.74	0.0536918
9630.57	0.0534109
9642.33	0.052993
9651.16	0.0526484
9662.92	0.0521493
9671.75	0.0517466
9680.57	0.051321
9692.34	0.0507195
9701.16	0.0502445
9712.93	0.0495813
9721.75	0.0490631
9730.58	0.0485283
9742.34	0.0477913
9751.17	0.0472222
9762.93	0.0464434
9771.76	0.045846
9780.58	0.0452382
9792.35	0.0444136
9801.17	0.0437858
9812.94	0.0429383
9821.77	0.0422959
9830.59	0.0416489
9842.36	0.0407804
9851.18	0.0401258
9860.01	0.0394692
9871.77	0.0385921
9880.6	0.0379339
9892.36	0.037057
9901.19	0.0364005
9910.01	0.0357456
9921.78	0.0348757
9930.6	0.0342262
9942.37	0.0333648
9951.19	0.0327225
9960.02	0.0320836
9971.78	0.0312374
9980.61	0.030607
9992.38	0.0297723
10001.2	0.0291506
10010	0.0285324
10021.8	0.0277135
10030.6	0.0271031
10042.4	0.0262939
10051.2	0.0256901
10060	0.0250886
10071.8	0.0242897
10080.6	0.0236924
10092.4	0.0228976
10101.2	0.0223023
10110	0.0217072
10121.8	0.0209132
10130.6	0.0203167
10142.4	0.0195194
10151.2	0.0189193
10160	0.0183168
10171.8	0.0175092
10180.6	0.0168996
10192.4	0.016081
10201.2	0.0154621
10210	0.0148386
10221.8	0.0139995
10230.6	0.0133639
10242.4	0.0125075
10251.2	0.0118581
10260.1	0.0112025
10271.8	0.0103182
10280.6	0.00964708
10292.4	0.00874162
10301.2	0.00805438
10310.1	0.00736008
10321.8	0.00642335
10330.7	0.00571255
10342.4	0.00475394
10351.2	0.00402692
10360.1	0.00329316
10371.8	0.00230458
10380.7	0.00155575
10392.4	0.000547907
10401.2	-0.000214663
10410.1	-0.000982612
10421.8	-0.0020143
10430.7	-0.00279338
10442.4	-0.00383843
10451.3	-0.00462633
10460.1	-0.00541723
10471.8	-0.0064755
10480.7	-0.00727131
10492.4	-0.00833411
10501.3	-0.00913172
10510.1	-0.00992907
10521.9	-0.0109907
10530.7	-0.0117849
10542.4	-0.01284
10551.3	-0.0136274
10560.1	-0.0144108
10571.9	-0.0154478
10580.7	-0.0162189
10592.4	-0.017237
10601.3	-0.017992
10610.1	-0.018739
10621.9	-0.0197213
10630.7	-0.0204468
10642.5	-0.0213981
10651.3	-0.0220987
10660.1	-0.0227876
10671.9	-0.0236869
10680.7	-0.0243462
10692.5	-0.0252043
10701.3	-0.0258315
10710.1	-0.0264442
10721.9	-0.0272379
10730.7	-0.0278155
10742.5	-0.0285613
10751.3	-0.0291023
10760.1	-0.0296274
10771.9	-0.0303027
10780.7	-0.0307904
10792.5	-0.0314159
10801.3	-0.0318665
10810.1	-0.0323015
10821.9	-0.0328575
10830.7	-0.033257
10842.5	-0.0337668
10851.3	-0.0341326
10860.1	-0.0344848
10871.9	-0.0349341
10880.7	-0.0352565
10892.5	-0.0356683
10901.3	-0.0359644
10910.1	-0.0362503
10921.9	-0.0366171
10930.7	-0.0368822
10942.5	-0.0372242
10951.3	-0.037473
10960.1	-0.0377161
10971.9	-0.0380331
10980.7	-0.0382664
10992.5	-0.0385733
11001.3	-0.0388014
11010.1	-0.0390287
11021.9	-0.039332
11030.7	-0.0395606
11042.5	-0.0398686
11051.3	-0.0401028
11060.2	-0.0403406
11071.9	-0.0406645
11080.7	-0.0409134
11092.5	-0.0412543
11101.3	-0.0415175
11110.2	-0.0417876
11121.9	-0.0421595
11130.8	-0.0424477
11142.5	-0.0428449
11151.3	-0.0431529
11160.2	-0.0434698
11171.9	-0.0439065
11180.8	-0.0442447
11192.5	-0.0447101
11201.3	-0.0450699
11210.2	-0.0454388
11221.9	-0.0459447
11230.8	-0.0463345
11242.5	-0.0468674
11251.4	-0.0472767
11260.2	-0.0476939
11271.9	-0.0482617
11280.8	-0.0486958
11292.5	-0.0492846
11301.4	-0.0497332
11310.2	-0.0501872
11322	-0.0508
11330.8	-0.0512646
11342.5	-0.0518895
11351.4	-0.0523616
11360.2	-0.052836
11372	-0.053471
11380.8	-0.0539484
11392.5	-0.0545853
11401.4	-0.0550626
11410.2	-0.0555389
11422	-0.0561714
11430.8	-0.0566432
11442.6	-0.0572679
11451.4	-0.0577324
11460.2	-0.0581931
11472	-0.0588003
11480.8	-0.05925
11492.6	-0.0598411
11501.4	-0.0602777
11510.2	-0.0607079
11522	-0.0612713
11530.8	-0.0616858
11542.6	-0.0622269
11551.4	-0.0626239
11560.2	-0.063013
11572	-0.063519
11580.8	-0.0638888
11592.6	-0.0643683
11601.4	-0.0647176
11610.2	-0.0650578
11622	-0.0654971
11630.8	-0.0658155
11642.6	-0.066225
11651.4	-0.0665207
11660.2	-0.0668063
11672	-0.0671711
11680.8	-0.0674325
11692.6	-0.0677644
11701.4	-0.0680005
11710.2	-0.0682254
11722	-0.0685073
11730.8	-0.068705
11742.6	-0.0689497
11751.4	-0.0691187
11760.2	-0.0692749
11772	-0.0694625
11780.8	-0.0695874
11792.6	-0.069732
11801.4	-0.0698236
11810.2	-0.0699002
11822	-0.0699785
11830.8	-0.0700187
11842.6	-0.0700468
11851.4	-0.0700482
11860.3	-0.0700322
11872	-0.0699833
11880.8	-0.0699252
11892.6	-0.0698187
11901.4	-0.0697163
11910.3	-0.0695943
11922	-0.0694005
11930.8	-0.0692313
11942.6	-0.0689735
11951.4	-0.0687555
11960.3	-0.0685163
11972	-0.0681638
11980.9	-0.0678741
11992.6	-0.0674539
12001.4	-0.0671133
12010.3	-0.0667507
12022	-0.0662333
12030.9	-0.0658199
12042.6	-0.0652352
12051.4	-0.0647718
12060.3	-0.0642873
12072	-0.0636091
12080.9	-0.0630768
12092.6	-0.0623362
12101.5	-0.0617582
12110.3	-0.0611614
12122	-0.0603374
12130.9	-0.059699
12142.6	-0.0588217
12151.5	-0.058145
12160.3	-0.0574529
12172.1	-0.0565075
12180.9	-0.0557825
12192.6	-0.0547957
12201.5	-0.0540416
12210.3	-0.0532762
12222.1	-0.0522395
12230.9	-0.0514508
12242.6	-0.0503857
12251.5	-0.0495775
12260.3	-0.0487622
12272.1	-0.0476651
12280.9	-0.0468356
12292.7	-0.0457218
12301.5	-0.0448813
12310.3	-0.044037
12322.1	-0.0429061
12330.9	-0.0420547
12342.7	-0.0409159
12351.5	-0.0400594
12360.3	-0.0392014
12372.1	-0.0380551
12380.9	-0.037194
12392.7	-0.0360442
12401.5	-0.0351807
12410.3	-0.0343164
12422.1	-0.0331623
12430.9	-0.0322956
12442.7	-0.031138
12451.5	-0.0302683
12460.3	-0.0293969
12472.1	-0.028232
12480.9	-0.0273558
12492.7	-0.0261835
12501.5	-0.0253008
12510.3	-0.0244148
12522.1	-0.0232274
12530.9	-0.0223318
12542.7	-0.0211304
12551.5	-0.0202231
12560.3	-0.0193102
12572.1	-0.0180832
12580.9	-0.0171552
12592.7	-0.0159067
12601.5	-0.0149615
12610.3	-0.0140082
12622.1	-0.0127239
12630.9	-0.0117504
12642.7	-0.010438
12651.5	-0.00944265
12660.3	-0.00843745
12672.1	-0.00708157
12680.9	-0.00605271
12692.7	-0.00466471
12701.5	-0.00361147
12710.4	-0.00254769
12722.1	-0.0011129
12730.9	-2.45598e-05
12742.7	0.0014427
12751.5	0.00255506
12760.4	0.00367742
12772.1	0.00518905
12781	0.00633375
12792.7	0.00787403
12801.5	0.00903924
12810.4	0.0102125
12822.1	0.0117887
12831	0.012979
12842.7	0.0145759
12851.5	0.0157802
12860.4	0.0169894
12872.1	0.0186082
12881	0.0198263
12892.7	0.0214544
12901.6	0.0226774
12910.4	0.0239012
12922.1	0.0255327
12931	0.0267552
12942.7	0.028382
12951.6	0.0295986
12960.4	0.0308112
12972.2	0.0324203
12981	0.0336202
12992.7	0.0352092
13001.6	0.0363916
13010.4	0.037565
13022.2	0.0391142
13031	0.0402634
13042.7	0.0417771
13051.6	0.0428974
13060.4	0.0440039
13072.2	0.0454566
13081	0.0465281
13092.8	0.0479312
13101.6	0.0489636
13110.4	0.049978
13122.2	0.0513016
13131	0.0522718
13142.8	0.0535342
13151.6	0.054457
13160.4	0.0553586
13172.2	0.056527
13181	0.0573775
13192.8	0.0584764
13201.6	0.0592737
13210.4	0.0600478
13222.2	0.0610434
13231	0.0617623
13242.8	0.0626837
13251.6	0.0633467
13260.4	0.0639856
13272.2	0.0647999
13281	0.0653826
13292.8	0.0661221
13301.6	0.0666489
13310.4	0.067152
13322.2	0.0677864
13331	0.068235
13342.8	0.0687976
13351.6	0.0691933
13360.4	0.0695668
13372.2	0.070031
13381	0.0703543
13392.8	0.070753
13401.6	0.0710283
13410.4	0.0712839
13422.2	0.0715947
13431	0.0718061
13442.8	0.0720598
13451.6	0.0722298
13460.4	0.0723829
13472.2	0.0725618
13481	0.0726778
13492.8	0.0728091
13501.6	0.0728908
13510.5	0.0729587
13522.2	0.0730288
13531	0.0730667
13542.8	0.0730986
13551.6	0.0731092
13560.5	0.0731089
13572.2	0.0730924
13581.1	0.0730684
13592.8	0.0730218
13601.6	0.0729765
13610.5	0.0729226
13622.2	0.072838
13631.1	0.0727654
13642.8	0.072657
13651.6	0.0725673
13660.5	0.0724707
13672.2	0.0723314
13681.1	0.0722193
13692.8	0.07206
13701.7	0.0719332
13710.5	0.0718003
13722.2	0.0716136
13731.1	0.0714665
13742.8	0.0712611
13751.7	0.0710999
13760.5	0.0709327
13772.3	0.0707002
13781.1	0.0705185
13792.8	0.0702664
13801.7	0.0700698
13810.5	0.0698666
13822.3	0.0695852
13831.1	0.0693661
13842.8	0.069063
13851.7	0.0688273
13860.5	0.0685842
13872.3	0.0682484
13881.1	0.0679875
13892.9	0.0676274
13901.7	0.067348
13910.5	0.0670605
13922.3	0.0666642
13931.1	0.0663571
13942.9	0.0659345
13951.7	0.0656075
13960.5	0.0652718
13972.3	0.0648106
13981.1	0.0644544
13992.9	0.0639657
14001.7	0.0635889
14010.5	0.0632033
14022.3	0.0626754
14031.1	0.0622692
14042.9	0.0617141
14051.7	0.0612877
14060.5	0.0608526
14072.3	0.0602594
14081.1	0.0598047
14092.9	0.0591855
14101.7	0.0587115
14110.5	0.0582296
14122.3	0.0575746
14131.1	0.0570743
14142.9	0.0563952
14151.7	0.0558771
14160.5	0.0553516
14172.3	0.0546394
14181.1	0.0540968
14192.9	0.0533623
14201.7	0.0528031
14210.5	0.0522368
14222.3	0.051471
14231.1	0.0508885
14242.9	0.0501011
14251.7	0.0495023
14260.5	0.0488966
14272.3	0.0480779
14281.1	0.0474555
14292.9	0.0466144
14301.7	0.045975
14310.6	0.045328
14322.3	0.0444534
14331.1	0.0437882
14342.9	0.0428887
14351.7	0.0422043
14360.6	0.0415112
14372.3	0.0405733
14381.2	0.0398592
14392.9	0.0388923
14401.7	0.0381556
14410.6	0.0374088
14422.3	0.0363968
14431.2	0.0356251
14442.9	0.0345789
14451.7	0.0337807
14460.6	0.0329706
14472.3	0.0318715
14481.2	0.0310325
14492.9	0.0298937
14501.8	0.0290241
14510.6	0.028141
14522.3	0.0269419
14531.2	0.0260262
14542.9	0.0247828
14551.8	0.0238331
14560.6	0.0228686
14572.4	0.0215592
14581.2	0.0205595
14590	0.0195445
14601.8	0.0181672
14610.6	0.0171161
14622.4	0.0156907
14631.2	0.0146036
14640	0.0135011
14651.8	0.0120073
14660.6	0.0108692
14672.4	0.00932837
14681.2	0.00815552
14690	0.00696814
14701.8	0.00536283
14710.6	0.00414264
14722.4	0.00249476
14731.2	0.00124362
14740	-2.00904e-05
14751.8	-0.00172381
14760.6	-0.00301504
14772.4	-0.00475357
14781.2	-0.00606939
14790	-0.00739476
14801.8	-0.00917563
14810.6	-0.0105207
14822.4	-0.0123253
14831.2	-0.0136861
14840	-0.0150524
14851.8	-0.0168813
14860.6	-0.0182571
14872.4	-0.0200954
14881.2	-0.0214759
14890	-0.0228568
14901.8	-0.0246971
14910.6	-0.0260752
14922.4	-0.0279079
14931.2	-0.0292776
14940	-0.0306418
14951.8	-0.0324504
14960.6	-0.0337976
14972.4	-0.0355795
14981.2	-0.0369034
14990.1	-0.0382154
15001.8	-0.0399441
15010.6	-0.0412235
15022.4	-0.0429042
15031.2	-0.0441442
15040.1	-0.0453653
15051.8	-0.0469618
15060.6	-0.0481337
15072.4	-0.0496601
15081.2	-0.0507759
15090.1	-0.0518657
15101.8	-0.0532758
15110.7	-0.0542997
15122.4	-0.0556174
15131.2	-0.0565686
15140.1	-0.0574866
15151.8	-0.0586569
15160.7	-0.0594929
15172.4	-0.0605497
15181.3	-0.0612975
15190.1	-0.0620057
15201.8	-0.0628865
15210.7	-0.0634983
15222.4	-0.0642472
15231.3	-0.0647575
15240.1	-0.0652228
15251.8	-0.065772
15260.7	-0.0661295
15272.4	-0.0665325
15281.3	-0.0667786
15290.1	-0.0669761
15301.9	-0.067163
15310.7	-0.0672453
15322.4	-0.0672776
15331.3	-0.0672433
15340.1	-0.0671588
15351.9	-0.066968
15360.7	-0.0667663
15372.5	-0.0664197
15381.3	-0.0661017
15390.1	-0.0657345
15401.9	-0.0651689
15410.7	-0.0646886
15422.5	-0.0639743
15431.3	-0.0633843
15440.1	-0.0627487
15451.9	-0.0618318
15460.7	-0.0610935
15472.5	-0.0600437
15481.3	-0.0592089
15490.1	-0.0583349
15501.9	-0.057111
15510.7	-0.0561511
15522.5	-0.0548183
15531.3	-0.0537811
15540.1	-0.0527136
15551.9	-0.0512464
15560.7	-0.0501154
15572.5	-0.0485704
15581.3	-0.0473865
15590.1	-0.0461833
15601.9	-0.0445527
15610.7	-0.0433128
15622.5	-0.0416411
15631.3	-0.0403763
15640.1	-0.0391046
15651.9	-0.0374022
15660.7	-0.0361232
15672.5	-0.0344193
15681.3	-0.0331454
15690.1	-0.0318775
15701.9	-0.0302001
15710.7	-0.028955
15722.5	-0.0273161
15731.3	-0.0261058
15740.1	-0.0249141
15751.9	-0.0233575
15760.7	-0.0222172
15772.5	-0.0207366
15781.3	-0.0196585
15790.2	-0.0186102
15801.9	-0.0172621
15810.7	-0.0162903
15822.5	-0.0150502
15831.3	-0.0141638
15840.2	-0.0133165
15851.9	-0.0122497
15860.7	-0.0114986
15872.5	-0.0105645
15881.3	-0.00991581
15890.2	-0.00931261
15901.9	-0.00858051
15910.8	-0.00808644
15922.5	-0.00750213
15931.3	-0.00712029
15940.2	-0.00678718
15951.9	-0.00641915
15960.8	-0.00620034
15972.5	-0.00598478
15981.4	-0.00588005
15990.2	-0.0058238
16001.9	-0.00582351
16010.8	-0.00587866
16022.5	-0.00602478
16031.4	-0.00618783
16040.2	-0.00639574
16051.9	-0.00674105
16060.8	-0.00704969
16072.5	-0.00752519
16081.4	-0.00792812
16090.2	-0.00836922
16102	-0.00901421
16110.8	-0.00953858
16122.5	-0.0102888
16131.4	-0.0108876
16140.2	-0.0115154
16152	-0.0123945
16160.8	-0.0130828
16172.6	-0.0140357
16181.4	-0.0147741
16190.2	-0.0155306
16202	-0.0165641
16210.8	-0.0173552
16222.6	-0.0184272
16231.4	-0.0192416
16240.2	-0.0200625
16252	-0.0211637
16260.8	-0.0219921
16272.6	-0.0230958
16281.4	-0.0239206
16290.2	-0.0247406
16302	-0.0258233
16310.8	-0.0266249
16322.6	-0.0276764
16331.4	-0.0284498
16340.2	-0.0292083
16352	-0.0301937
16360.8	-0.0309114
16372.6	-0.031837
16381.4	-0.032506
16390.2	-0.033152
16402	-0.0339756
16410.8	-0.0345634
16422.6	-0.0353058
16431.4	-0.0358302
16440.2	-0.0363262
16452	-0.0369418
16460.8	-0.0373687
16472.6	-0.0378903
16481.4	-0.0382455
16490.2	-0.0385695
16502	-0.0389526
16510.8	-0.0392032
16522.6	-0.0394885
16531.4	-0.0396659
16540.2	-0.0398123
16552	-0.0399596
16560.8	-0.0400348
16572.6	-0.0400888
16581.4	-0.0400953
16590.3	-0.0400733
16602	-0.040001
16610.8	-0.0399154
16622.6	-0.039761
16631.4	-0.0396161
16640.3	-0.0394473
16652	-0.0391866
16660.8	-0.0389655
16672.6	-0.0386388
16681.4	-0.0383711
16690.3	-0.0380851
16702	-0.037677
16710.9	-0.0373524
16722.6	-0.0368968
16731.4	-0.0365393
16740.3	-0.0361696
16752	-0.0356592
16760.9	-0.0352648
16772.6	-0.0347251
16781.5	-0.0343114
16790.3	-0.033891
16802	-0.0333216
16810.9	-0.0328891
16822.6	-0.0323068
16831.5	-0.0318667
16840.3	-0.0314247
16852	-0.0308335
16860.9	-0.0303895
16872.6	-0.0297981
16881.5	-0.0293555
16890.3	-0.0289145
16902.1	-0.0283295
16910.9	-0.0278936
16922.6	-0.027317
16931.5	-0.0268884
16940.3	-0.0264633
16952.1	-0.0259025
16960.9	-0.0254866
16972.7	-0.0249386
16981.5	-0.0245327
16990.3	-0.0241313
17002.1	-0.0236029
17010.9	-0.0232119
17022.7	-0.0226975
17031.5	-0.0223169
17040.3	-0.0219405
17052.1	-0.0214453
17060.9	-0.0210788
17072.7	-0.0205962
17081.5	-0.0202387
17090.3	-0.0198849
17102.1	-0.0194186
17110.9	-0.0190727
17122.7	-0.0186165
17131.5	-0.0182777
17140.3	-0.0179418
17152.1	-0.0174981
17160.9	-0.0171682
17172.7	-0.0167319
17181.5	-0.0164073
17190.3	-0.0160848
17202.1	-0.0156578
17210.9	-0.0153398
17222.7	-0.0149185
17231.5	-0.0146046
17240.3	-0.0142925
17252.1	-0.0138789
17260.9	-0.0135706
17272.7	-0.0131623
17281.5	-0.0128581
17290.3	-0.0125556
17302.1	-0.0121552
17310.9	-0.0118571
17322.7	-0.0114627
17331.5	-0.0111694
17340.3	-0.0108783
17352.1	-0.0104939
17360.9	-0.0102084
17372.7	-0.00983187
17381.5	-0.00955268
17390.4	-0.0092764
17402.1	-0.00891276
17410.9	-0.00864375
17422.7	-0.00829027
17431.5	-0.00802921
17440.4	-0.00777176
17452.1	-0.00743428
17460.9	-0.00718565
17472.7	-0.00686028
17481.5	-0.00662095
17490.4	-0.00638572
17502.1	-0.00607854
17511	-0.00585305
17522.7	-0.00555895
17531.5	-0.0053433
17540.4	-0.00513185
17552.1	-0.00485639
17561	-0.00465457
17572.7	-0.00439173
17581.6	-0.00419915
17590.4	-0.00401036
17602.1	-0.0037643
17611	-0.00358382
17622.7	-0.00334825
17631.6	-0.00317516
17640.4	-0.00300491
17652.1	-0.00278195
17661	-0.00261746
17672.7	-0.00240133
17681.6	-0.00224128
17690.4	-0.00208269
17702.2	-0.00187302
17711	-0.00171673
17722.7	-0.00150909
17731.6	-0.00135352
17740.4	-0.00119776
17752.2	-0.00098927
17761	-0.000831899
17772.8	-0.000620171
17781.6	-0.000459572
17790.4	-0.000297109
17802.2	-7.71151e-05
17811	9.07604e-05
17822.8	0.000318919
17831.6	0.000493593
17840.4	0.000671567
17852.2	0.000914357
17861	0.00110082
17872.8	0.00135557
17881.6	0.00155145
17890.4	0.00175158
17902.2	0.00202522
17911	0.00223566
17922.8	0.00252329
17931.6	0.00274434
17940.4	0.00296995
17952.2	0.00327783
17961	0.00351397
17972.8	0.00383566
17981.6	0.00408192
17990.4	0.00433232
18002.2	0.00467236
18011	0.00493179
18022.8	0.00528317
18031.6	0.00555053
18040.4	0.00582088
18052.2	0.00618556
18061	0.00646185
18072.8	0.00683335
18081.6	0.00711391
18090.4	0.00739574
18102.2	0.0077729
18111	0.00805633
18122.8	0.00843428
18131.6	0.0087173
18140.4	0.00899949
18152.2	0.00937379
18161	0.00965255
18172.8	0.0100208
18181.6	0.010294
18190.5	0.0105642
18202.2	0.010919
18211	0.0111806
18222.8	0.0115227
18231.6	0.0117738
18240.5	0.0120197
18252.2	0.0123391
18261	0.0125719
18272.8	0.0128727
18281.6	0.0130907
18290.5	0.0133019
18302.2	0.0135725
18311.1	0.0137669
18322.8	0.0140143
18331.6	0.0141908
18340.5	0.0143593
18352.2	0.0145714
18361.1	0.0147209
18372.8	0.0149072
18381.7	0.015037
18390.5	0.0151583
18402.2	0.0153068
18411.1	0.0154081
18422.8	0.0155299
18431.7	0.0156113
18440.5	0.0156842
18452.2	0.0157683
18461.1	0.0158217
18472.8	0.0158801
18481.7	0.0159144
18490.5	0.0159408
18502.3	0.0159639
18511.1	0.0159723
18522.8	0.0159719
18531.7	0.0159631
18540.5	0.0159473
18552.3	0.0159156
18561.1	0.015884
18572.9	0.0158321
18581.7	0.0157859
18590.5	0.0157339
18602.3	0.0156556
18611.1	0.0155906
18622.9	0.0154959
18631.7	0.0154191
18640.5	0.0153377
18652.3	0.0152223
18661.1	0.0151309
18672.9	0.015003
18681.7	0.0149029
18690.5	0.0147994
18702.3	0.0146566
18711.1	0.0145463
18722.9	0.0143951
18731.7	0.0142792
18740.5	0.0141612
18752.3	0.0140012
18761.1	0.0138794
18772.9	0.0137154
18781.7	0.0135913
18790.5	0.0134666
18802.3	0.0132998
18811.1	0.0131748
18822.9	0.0130085
18831.7	0.0128845
18840.5	0.0127615
18852.3	0.0125993
18861.1	0.0124796
18872.9	0.0123228
18881.7	0.0122079
18890.5	0.0120956
18902.3	0.0119504
18911.1	0.0118454
18922.9	0.011711
18931.7	0.011615
18940.5	0.0115233
18952.3	0.0114086
18961.1	0.0113285
18972.9	0.0112304
18981.7	0.0111637
18990.6	0.0111033
19002.3	0.0110332
19011.1	0.0109887
19022.9	0.010941
19031.7	0.0109143
19040.6	0.0108957
19052.3	0.010884
19061.1	0.0108855
19072.9	0.0109016
19081.7	0.0109247
19090.6	0.0109574
19102.3	0.0110164
19111.2	0.0110725
19122.9	0.0111634
19131.7	0.0112439
19140.6	0.0113351
19152.3	0.0114736
19161.2	0.0115902
19172.9	0.0117628
19181.8	0.0119051
19190.6	0.0120585
19202.3	0.01228
19211.2	0.0124589
19222.9	0.0127142
19231.8	0.0129181
19240.6	0.0131324
19252.3	0.0134341
19261.2	0.0136719
19272.9	0.0140039
19281.8	0.0142637
19290.6	0.0145323
19302.4	0.0149036
19311.2	0.0151914
19320	0.0154866
19331.8	0.0158909
19340.6	0.0162016
19352.4	0.0166246
19361.2	0.0169477
19370	0.0172752
19381.8	0.0177175
19390.6	0.0180527
19402.4	0.0185029
19411.2	0.018842
19420	0.0191818
19431.8	0.0196344
19440.6	0.0199725
19452.4	0.0204203
19461.2	0.0207529
19470	0.0210818
19481.8	0.0215132
19490.6	0.0218306
19502.4	0.0222439
19511.2	0.0225455
19520	0.0228392
19531.8	0.0232172
19540.6	0.0234895
19552.4	0.0238363
19561.2	0.0240834
19570	0.0243186
19581.8	0.0246125
19590.6	0.0248174
19602.4	0.0250688
19611.2	0.0252404
19620	0.0253967
19631.8	0.0255807
19640.6	0.0256997
19652.4	0.0258324
19661.2	0.025912
19670	0.0259741
19681.8	0.0260291
19690.6	0.0260493
19702.4	0.0260478
19711.2	0.0260251
19720.1	0.0259837
19731.8	0.0258995
19740.6	0.0258145
19752.4	0.0256722
19761.2	0.0255437
19770.1	0.0253967
19781.8	0.0251722
19790.7	0.0249828
19802.4	0.0247024
19811.2	0.0244717
19820.1	0.0242238
19831.8	0.0238672
19840.7	0.0235806
19852.4	0.0231738
19861.2	0.0228508
19870.1	0.0225129
19881.8	0.0220401
19890.7	0.0216694
19902.4	0.0211549
19911.3	0.0207544
19920.1	0.0203421
19931.8	0.0197749
19940.7	0.0193373
19952.4	0.0187384
19961.3	0.0182787
19970.1	0.0178104
19981.9	0.017174
19990.7	0.0166883
