0	0
14.7745	0
22.1618	0
36.9363	0
44.3236	0
51.7109	0
66.4854	0
73.8727	0
81.2599	0
96.0345	0
103.422	0
110.809	0
125.584	0
132.971	0
140.358	0
155.133	0
162.52	0
177.294	0
184.682	0
192.069	0
206.843	0
214.231	0
221.618	0
236.393	0
243.78	0
251.167	0
265.942	0
273.329	0
280.716	0
295.491	0
302.878	0
310.265	0
325.04	0
332.427	0
347.202	0
354.589	0
361.976	0
376.751	0
384.138	0
391.525	0
406.3	0
413.687	0
421.074	0
435.849	0
443.236	0
450.623	0
465.398	0
472.785	0
480.172	0
494.947	0
502.334	0
517.109	0
524.496	0
531.883	0
546.658	0
554.045	0
561.432	0
576.207	0
583.594	0
590.981	0
605.756	0
613.143	0
620.53	0
635.305	0
642.692	0
650.08	0
664.854	0
672.241	0
687.016	0
694.403	0
701.79	0
716.565	0
723.952	0
731.34	0
746.114	0
753.501	0
760.889	0
775.663	0
783.05	0
790.438	0
805.212	0
812.599	0
827.374	0
834.761	0
842.149	0
856.923	0
864.31	0
871.698	0
886.472	0
893.859	0
901.247	0
916.021	0
923.408	0
930.796	0
945.57	0
952.958	0
960.345	0
975.119	0
982.507	0
997.281	0
1004.67	0
1012.06	0
1026.83	0
1034.22	0
1041.6	0
1056.38	0
1063.77	0
1071.15	0
1085.93	0
1093.32	0
1100.7	0
1115.48	0
1122.86	0
1130.25	0
1145.03	0
1152.41	0
1167.19	0
1174.58	0
1181.96	0
1196.74	0
1204.12	0
1211.51	0
1226.29	0
1233.67	0
1241.06	0
1255.84	0
1263.22	0
1270.61	0
1285.38	-9.09495e-13
1292.77	-9.09495e-13
1300.16	-1.81899e-12
1314.93	-3.63798e-12
1322.32	-4.54747e-12
1337.1	-7.27596e-12
1344.48	-9.09495e-12
1351.87	-1.18234e-11
1366.64	-2.00089e-11
1374.03	-2.54659e-11
1381.42	-3.18323e-11
1396.19	-5.09317e-11
1403.58	-6.45741e-11
1410.97	-8.18545e-11
1425.74	-1.30058e-10
1433.13	-1.63709e-10
1440.52	-2.05546e-10
1455.29	-3.20142e-10
1462.68	-3.98359e-10
1470.07	-4.94765e-10
1484.84	-7.58519e-10
1492.23	-9.3587e-10
1507	-1.41699e-09
1514.39	-1.73804e-09
1521.78	-2.1264e-09
1536.55	-3.16504e-09
1543.94	-3.84989e-09
1551.33	-4.67298e-09
1566.1	-6.84486e-09
1573.49	-8.26003e-09
1580.88	-9.94805e-09
1595.65	-1.43491e-08
1603.04	-1.71858e-08
1610.42	-2.05446e-08
1625.2	-2.92002e-08
1632.59	-3.47191e-08
1647.36	-4.88235e-08
1654.75	-5.77465e-08
1662.14	-6.8183e-08
1676.91	-9.45747e-08
1684.3	-1.11107e-07
1691.68	-1.30313e-07
1706.46	-1.78387e-07
1713.85	-2.08212e-07
1721.23	-2.42639e-07
1736.01	-3.27966e-07
1743.4	-3.80413e-07
1750.78	-4.40577e-07
1765.56	-5.88287e-07
1772.94	-6.78272e-07
1780.33	-7.80874e-07
1795.11	-1.03049e-06
1802.49	-1.18125e-06
1817.27	-1.54561e-06
1824.66	-1.76429e-06
1832.04	-2.01114e-06
1846.82	-2.60262e-06
1854.2	-2.95475e-06
1861.59	-3.35005e-06
1876.37	-4.28946e-06
1883.75	-4.84431e-06
1891.14	-5.46391e-06
1905.92	-6.92459e-06
1913.3	-7.78075e-06
1920.69	-8.73193e-06
1935.46	-1.09569e-05
1942.85	-1.22515e-05
1950.24	-1.36825e-05
1965.01	-1.70048e-05
1972.4	-1.89239e-05
1987.18	-2.33548e-05
1994.56	-2.59008e-05
2001.95	-2.86916e-05
2016.72	-3.50893e-05
2024.11	-3.87399e-05
2031.5	-4.27233e-05
2046.27	-5.1791e-05
2053.66	-5.69304e-05
2061.05	-6.25128e-05
2075.82	-7.51337e-05
2083.21	-8.22399e-05
2090.6	-8.99243e-05
2105.37	-0.000107181
2112.76	-0.000116834
2120.15	-0.000127227
2134.92	-0.000150412
2142.31	-0.000163298
2157.08	-0.000191904
2164.47	-0.000207727
2171.86	-0.000224633
2186.63	-0.000261919
2194.02	-0.000282412
2201.41	-0.000304214
2216.18	-0.000351983
2223.57	-0.000378068
2230.95	-0.000405701
2245.73	-0.000465844
2253.12	-0.000498474
2260.5	-0.000532886
2275.28	-0.000607283
2282.67	-0.000647376
2290.05	-0.000689467
2304.83	-0.000779836
2312.21	-0.0008282
2326.99	-0.000931473
2334.38	-0.000986442
2341.76	-0.00104366
2356.54	-0.00116492
2363.93	-0.00122897
2371.31	-0.00129529
2386.09	-0.00143466
2393.47	-0.00150766
2400.86	-0.00158279
2415.64	-0.00173925
2423.02	-0.00182041
2430.41	-0.0019034
2445.19	-0.00207437
2452.57	-0.00216208
2467.35	-0.00234107
2474.73	-0.00243197
2482.12	-0.00252351
2496.9	-0.00270749
2504.28	-0.00279936
2511.67	-0.00289073
2526.45	-0.00307057
2533.83	-0.00315827
2541.22	-0.00324393
2555.99	-0.00340725
2563.38	-0.00348392
2570.77	-0.00355653
2585.54	-0.00368727
2592.93	-0.00374413
2600.32	-0.00379442
2615.09	-0.00387242
2622.48	-0.00389859
2637.25	-0.00392121
2644.64	-0.0039159
2652.03	-0.00389831
2666.8	-0.00382235
2674.19	-0.00376198
2681.58	-0.00368526
2696.35	-0.00347836
2703.74	-0.00334588
2711.13	-0.00319247
2725.9	-0.00281789
2733.29	-0.00259419
2740.68	-0.00234445
2755.45	-0.00176152
2762.84	-0.00142557
2770.23	-0.00105808
2785	-0.000222796
2792.39	0.000247916
2807.16	0.00130284
2814.55	0.00189002
2821.94	0.00251902
2836.71	0.00390841
2844.1	0.0046718
2851.49	0.00548296
2866.26	0.00725449
2873.65	0.00821777
2881.03	0.00923461
2895.81	0.0114346
2903.2	0.0126204
2910.58	0.0138651
2925.36	0.0165366
2932.74	0.0179656
2940.13	0.0194583
2954.91	0.0226392
2962.29	0.0243292
2977.07	0.0279127
2984.46	0.0298077
2991.84	0.0317724
3006.62	0.0359131
3014	0.03809
3021.39	0.0403382
3036.17	0.0450495
3043.55	0.0475126
3050.94	0.0500471
3065.71	0.0553297
3073.1	0.0580769
3080.49	0.0608939
3095.26	0.0667345
3102.65	0.0697563
3110.04	0.0728443
3124.81	0.0792142
3132.2	0.0824933
3146.97	0.0892316
3154.36	0.0926873
3161.75	0.0961981
3176.52	0.103376
3183.91	0.107039
3191.3	0.110748
3206.07	0.118293
3213.46	0.122123
3220.85	0.125988
3235.62	0.133809
3243.01	0.137759
3250.39	0.141731
3265.17	0.149725
3272.56	0.15374
3287.33	0.161787
3294.72	0.165811
3302.1	0.169831
3316.88	0.177839
3324.27	0.181819
3331.65	0.185777
3346.43	0.193612
3353.81	0.197479
3361.2	0.201308
3375.98	0.20883
3383.36	0.212515
3390.75	0.216143
3405.52	0.223211
3412.91	0.226642
3420.3	0.229999
3435.07	0.236473
3442.46	0.239581
3457.23	0.24552
3464.62	0.248343
3472.01	0.251062
3486.78	0.256175
3494.17	0.258562
3501.56	0.260831
3516.33	0.265002
3523.72	0.266897
3531.1	0.268662
3545.88	0.271786
3553.27	0.273141
3560.65	0.274355
3575.43	0.276348
3582.81	0.277124
3590.2	0.27775
3604.98	0.278546
3612.36	0.278714
3627.14	0.278582
3634.52	0.278281
3641.91	0.277823
3656.68	0.276433
3664.07	0.275501
3671.46	0.274412
3686.23	0.271761
3693.62	0.270201
3701.01	0.268487
3715.78	0.264596
3723.17	0.262424
3730.55	0.260102
3745.33	0.255017
3752.72	0.252259
3760.1	0.249359
3774.88	0.243147
3782.26	0.23984
3797.04	0.23284
3804.42	0.229152
3811.81	0.225345
3826.59	0.217384
3833.97	0.213237
3841.36	0.208986
3856.13	0.200182
3863.52	0.195639
3870.91	0.191007
3885.68	0.181495
3893.07	0.176623
3900.46	0.171681
3915.23	0.161602
3922.62	0.156475
3930	0.151296
3944.78	0.140801
3952.16	0.135494
3966.94	0.124788
3974.32	0.119397
3981.71	0.113989
3996.49	0.103135
4003.87	0.0976998
4011.26	0.0922651
4026.03	0.0814162
4033.42	0.0760111
4040.81	0.070625
4055.58	0.059927
4062.97	0.0546239
4070.36	0.0493569
4085.13	0.0389477
4092.52	0.0338135
4107.29	0.0237049
4114.68	0.0187378
4122.06	0.0138336
4136.84	0.0042272
4144.23	-0.000468547
4151.61	-0.00508859
4166.39	-0.0140901
4173.77	-0.0184661
4181.16	-0.0227555
4195.94	-0.0310653
4203.32	-0.0350813
4210.71	-0.039002
4225.48	-0.0465502
4232.87	-0.0501745
4240.26	-0.0536968
4255.03	-0.0604309
4262.42	-0.0636404
4277.19	-0.0697398
4284.58	-0.0726283
4291.97	-0.0754086
4306.74	-0.0806434
4314.13	-0.0830974
4321.52	-0.0854426
4336.29	-0.0898067
4343.68	-0.0918263
4351.06	-0.0937382
4365.84	-0.0972412
4373.23	-0.0988338
4380.61	-0.100322
4395.39	-0.102987
4402.77	-0.104167
4410.16	-0.105247
4424.94	-0.107111
4432.32	-0.107898
4447.1	-0.109192
4454.48	-0.109701
4461.87	-0.110121
4476.65	-0.110702
4484.03	-0.110866
4491.42	-0.110949
4506.19	-0.110879
4513.58	-0.11073
4520.97	-0.110509
4535.74	-0.109855
4543.13	-0.109428
4550.52	-0.108937
4565.29	-0.107772
4572.68	-0.107102
4580.07	-0.106378
4594.84	-0.104775
4602.23	-0.103901
4617	-0.102018
4624.39	-0.101015
4631.78	-0.0999725
4646.55	-0.0977816
4653.94	-0.0966375
4661.33	-0.0954637
4676.1	-0.0930363
4683.49	-0.0917869
4690.88	-0.0905165
4705.65	-0.0879211
4713.04	-0.0866001
4720.43	-0.0852661
4735.2	-0.0825671
4742.59	-0.0812056
4757.36	-0.078468
4764.75	-0.0770953
4772.14	-0.0757221
4786.91	-0.0729809
4794.3	-0.0716159
4801.68	-0.0702567
4816.46	-0.067561
4823.85	-0.0662272
4831.23	-0.0649045
4846.01	-0.0622972
4853.4	-0.0610148
4860.78	-0.059748
4875.56	-0.0572653
4882.94	-0.0560512
4890.33	-0.0548566
4905.11	-0.0525285
4912.49	-0.0513965
4927.27	-0.0492002
4934.66	-0.0481371
4942.04	-0.0470979
4956.82	-0.0450937
4964.2	-0.0441294
4971.59	-0.0431908
4986.37	-0.0413919
4993.75	-0.0405321
5001.14	-0.039699
5015.91	-0.0381134
5023.3	-0.0373612
5030.69	-0.036636
5045.46	-0.0352669
5052.85	-0.0346229
5060.24	-0.0340058
5075.01	-0.0328518
5082.4	-0.0323146
5097.17	-0.0313187
5104.56	-0.0308596
5111.95	-0.0304259
5126.72	-0.0296339
5134.11	-0.0292749
5141.5	-0.02894
5156.27	-0.0283412
5163.66	-0.0280764
5171.05	-0.0278342
5185.82	-0.0274156
5193.21	-0.0272383
5200.6	-0.0270816
5215.37	-0.0268283
5222.76	-0.0267306
5230.15	-0.0266515
5244.92	-0.0265471
5252.31	-0.0265207
5267.08	-0.0265168
5274.47	-0.0265381
5281.86	-0.0265742
5296.63	-0.0266886
5304.02	-0.0267657
5311.4	-0.0268554
5326.18	-0.0270701
5333.57	-0.027194
5340.95	-0.0273283
5355.73	-0.0276254
5363.12	-0.0277873
5370.5	-0.0279572
5385.28	-0.0283192
5392.66	-0.0285102
5400.05	-0.0287073
5414.83	-0.0291172
5422.21	-0.0293291
5436.99	-0.0297644
5444.38	-0.0299868
5451.76	-0.0302117
5466.54	-0.0306673
5473.92	-0.0308971
5481.31	-0.0311277
5496.09	-0.0315895
5503.47	-0.0318198
5510.86	-0.0320493
5525.63	-0.0325041
5533.02	-0.0327287
5540.41	-0.032951
5555.18	-0.0333871
5562.57	-0.0336003
5577.35	-0.0340155
5584.73	-0.034217
5592.12	-0.0344139
5606.89	-0.0347931
5614.28	-0.034975
5621.67	-0.0351513
5636.44	-0.0354866
5643.83	-0.0356452
5651.22	-0.0357974
5665.99	-0.0360821
5673.38	-0.0362143
5680.77	-0.0363394
5695.54	-0.0365682
5702.93	-0.0366716
5710.32	-0.0367675
5725.09	-0.0369363
5732.48	-0.0370091
5747.25	-0.037131
5754.64	-0.03718
5762.03	-0.037221
5776.8	-0.0372787
5784.19	-0.0372953
5791.58	-0.0373039
5806.35	-0.0372964
5813.74	-0.0372804
5821.12	-0.0372563
5835.9	-0.0371837
5843.29	-0.0371353
5850.67	-0.0370788
5865.45	-0.036942
5872.84	-0.0368617
5880.22	-0.0367736
5895	-0.0365741
5902.38	-0.0364629
5917.16	-0.036218
5924.55	-0.0360845
5931.93	-0.0359436
5946.71	-0.0356406
5954.1	-0.0354785
5961.48	-0.0353096
5976.26	-0.0349516
5983.64	-0.0347627
5991.03	-0.0345674
6005.81	-0.0341581
6013.19	-0.0339443
6020.58	-0.0337245
6035.36	-0.0332678
6042.74	-0.033031
6050.13	-0.0327889
6064.9	-0.0322888
6072.29	-0.0320312
6087.07	-0.0315015
6094.45	-0.0312297
6101.84	-0.0309533
6116.62	-0.0303878
6124	-0.0300988
6131.39	-0.0298059
6146.16	-0.0292088
6153.55	-0.0289048
6160.94	-0.0285975
6175.71	-0.027973
6183.1	-0.0276561
6190.49	-0.0273364
6205.26	-0.0266887
6212.65	-0.0263609
6220.04	-0.0260308
6234.81	-0.0253637
6242.2	-0.025027
6256.97	-0.024348
6264.36	-0.0240058
6271.75	-0.023662
6286.52	-0.0229699
6293.91	-0.0226219
6301.3	-0.0222727
6316.07	-0.0215711
6323.46	-0.0212189
6330.85	-0.0208658
6345.62	-0.0201577
6353.01	-0.0198027
6360.39	-0.0194473
6375.17	-0.0187355
6382.56	-0.0183792
6397.33	-0.0176663
6404.72	-0.0173098
6412.11	-0.0169535
6426.88	-0.0162412
6434.27	-0.0158855
6441.65	-0.0155301
6456.43	-0.0148207
6463.82	-0.0144668
6471.2	-0.0141134
6485.98	-0.0134088
6493.37	-0.0130575
6500.75	-0.0127071
6515.53	-0.012009
6522.91	-0.0116614
6530.3	-0.0113147
6545.08	-0.0106247
6552.46	-0.0102813
6567.24	-0.00959827
6574.63	-0.00925864
6582.01	-0.00892031
6596.79	-0.00824776
6604.17	-0.00791361
6611.56	-0.00758093
6626.34	-0.0069201
6633.72	-0.00659203
6641.11	-0.00626557
6655.89	-0.00561761
6663.27	-0.00529618
6670.66	-0.0049765
6685.43	-0.0043425
6692.82	-0.00402825
6700.21	-0.00371587
6714.98	-0.00309689
6722.37	-0.00279034
6737.15	-0.0021833
6744.53	-0.00188287
6751.92	-0.00158455
6766.69	-0.000994345
6774.08	-0.00070253
6781.47	-0.00041295
6796.24	0.00015937
6803.63	0.000442043
6811.02	0.000722347
6825.79	0.00127571
6833.18	0.0015487
6840.57	0.00181918
6855.34	0.00235249
6862.73	0.00261524
6870.12	0.00287534
6884.89	0.00338745
6892.28	0.00363939
6907.05	0.00413485
6914.44	0.0043783
6921.83	0.00461884
6936.6	0.00509105
6943.99	0.00532264
6951.38	0.00555118
6966.15	0.00599893
6973.54	0.00621807
6980.93	0.00643399
6995.7	0.00685606
7003.09	0.00706212
7010.48	0.00726482
7025.25	0.00765996
7032.64	0.00785233
7040.02	0.00804118
7054.8	0.00840818
7062.19	0.00858624
7076.96	0.00893133
7084.35	0.00909827
7091.74	0.00926144
7106.51	0.00957628
7113.9	0.00972788
7121.28	0.00987556
7136.06	0.010159
7143.45	0.0102947
7150.83	0.0104264
7165.61	0.0106774
7173	0.0107966
7180.38	0.0109117
7195.16	0.0111292
7202.54	0.0112316
7217.32	0.0114234
7224.71	0.0115128
7232.09	0.0115978
7246.87	0.0117545
7254.26	0.0118263
7261.64	0.0118935
7276.42	0.0120146
7283.8	0.0120683
7291.19	0.0121175
7305.97	0.0122021
7313.35	0.0122376
7320.74	0.0122684
7335.52	0.0123162
7342.9	0.0123331
7350.29	0.0123454
7365.06	0.012356
7372.45	0.0123543
7387.23	0.0123369
7394.61	0.0123211
7402	0.0123007
7416.77	0.0122457
7424.16	0.0122112
7431.55	0.012172
7446.32	0.0120797
7453.71	0.0120265
7461.1	0.0119686
7475.87	0.011839
7483.26	0.0117672
7490.65	0.0116908
7505.42	0.0115242
7512.81	0.0114341
7520.2	0.0113394
7534.97	0.0111363
7542.36	0.0110281
7557.13	0.0107981
7564.52	0.0106764
7571.91	0.0105503
7586.68	0.010285
7594.07	0.0101458
7601.46	0.0100023
7616.23	0.00970241
7623.62	0.00954613
7631	0.00938566
7645.78	0.00905224
7653.17	0.00887937
7660.55	0.00870243
7675.33	0.0083365
7682.72	0.00814758
7690.1	0.00795474
7704.88	0.00755744
7712.26	0.00735306
7727.04	0.00693306
7734.43	0.00671751
7741.81	0.00649833
7756.59	0.00604921
7763.97	0.00581936
7771.36	0.00558605
7786.14	0.00510922
7793.52	0.00486579
7800.91	0.00461908
7815.69	0.00411601
7823.07	0.00385976
7830.46	0.00360041
7845.23	0.00307266
7852.62	0.00280436
7860.01	0.00253318
7874.78	0.00198237
7882.17	0.00170285
7896.95	0.00113584
7904.33	0.000848462
7911.72	0.000558571
7926.49	-2.85253e-05
7933.88	-0.00032562
7941.27	-0.000625003
7956.04	-0.00123041
7963.43	-0.00153633
7970.82	-0.0018443
7985.59	-0.0024662
7992.98	-0.00278001
8000.37	-0.00309565
8015.14	-0.00373218
8022.53	-0.00405295
8037.3	-0.00469919
8044.69	-0.00502455
8052.08	-0.00535131
8066.85	-0.00600882
8074.24	-0.00633944
8081.63	-0.00667122
8096.4	-0.00733801
8103.79	-0.0076729
8111.17	-0.00800869
8125.95	-0.00868277
8133.34	-0.00902092
8140.72	-0.00935973
8155.5	-0.0100391
8162.89	-0.0103795
8170.27	-0.0107202
8185.05	-0.0114028
8192.43	-0.0117444
8207.21	-0.012428
8214.6	-0.0127698
8221.98	-0.0131116
8236.76	-0.0137947
8244.14	-0.0141359
8251.53	-0.0144768
8266.31	-0.0151574
8273.69	-0.015497
8281.08	-0.015836
8295.86	-0.016512
8303.24	-0.0168488
8310.63	-0.0171849
8325.4	-0.0178541
8332.79	-0.0181872
8340.18	-0.0185193
8354.95	-0.0191797
8362.34	-0.019508
8377.11	-0.0201606
8384.5	-0.0204846
8391.89	-0.0208071
8406.66	-0.0214472
8414.05	-0.0217647
8421.44	-0.0220804
8436.21	-0.0227061
8443.6	-0.023016
8450.99	-0.0233238
8465.76	-0.0239331
8473.15	-0.0242345
8480.54	-0.0245335
8495.31	-0.0251245
8502.7	-0.0254163
8510.08	-0.0257056
8524.86	-0.0262764
8532.25	-0.0265578
8547.02	-0.0271122
8554.41	-0.0273852
8561.8	-0.0276552
8576.57	-0.0281863
8583.96	-0.0284473
8591.34	-0.0287052
8606.12	-0.0292113
8613.51	-0.0294595
8620.89	-0.0297043
8635.67	-0.0301839
8643.05	-0.0304185
8650.44	-0.0306496
8665.22	-0.031101
8672.6	-0.0313213
8687.38	-0.0317508
8694.77	-0.0319599
8702.15	-0.0321652
8716.93	-0.0325643
8724.31	-0.0327579
8731.7	-0.0329476
8746.48	-0.033315
8753.86	-0.0334926
8761.25	-0.0336661
8776.03	-0.0340008
8783.41	-0.0341618
8790.8	-0.0343187
8805.57	-0.0346196
8812.96	-0.0347636
8820.35	-0.0349033
8835.12	-0.0351697
8842.51	-0.0352963
8857.28	-0.0355363
8864.67	-0.0356497
8872.06	-0.0357585
8886.83	-0.0359628
8894.22	-0.0360582
8901.61	-0.036149
8916.38	-0.0363171
8923.77	-0.0363943
8931.16	-0.0364669
8945.93	-0.0365984
8953.32	-0.0366573
8960.71	-0.0367116
8975.48	-0.0368063
8982.87	-0.0368468
8990.26	-0.0368827
9005.03	-0.0369406
9012.42	-0.0369626
9027.19	-0.0369929
9034.58	-0.0370011
9041.97	-0.0370048
9056.74	-0.0369984
9064.13	-0.0369883
9071.51	-0.0369737
9086.29	-0.0369309
9093.68	-0.0369027
9101.06	-0.03687
9115.84	-0.0367911
9123.23	-0.036745
9130.61	-0.0366945
9145.39	-0.0365801
9152.77	-0.0365164
9160.16	-0.0364482
9174.94	-0.036299
9182.32	-0.036218
9197.1	-0.0360431
9204.49	-0.0359494
9211.87	-0.0358514
9226.65	-0.0356431
9234.03	-0.0355328
9241.42	-0.0354184
9256.2	-0.0351776
9263.58	-0.0350512
9270.97	-0.0349209
9285.74	-0.0346486
9293.13	-0.0345067
9300.52	-0.0343611
9315.29	-0.0340585
9322.68	-0.0339017
9330.07	-0.0337413
9344.84	-0.0334097
9352.23	-0.0332386
9367	-0.0328862
9374.39	-0.0327049
9381.78	-0.0325202
9396.55	-0.0321411
9403.94	-0.0319468
9411.33	-0.0317493
9426.1	-0.0313451
9433.49	-0.0311385
9440.88	-0.0309289
9455.65	-0.0305011
9463.04	-0.0302831
9470.43	-0.0300622
9485.2	-0.0296126
9492.59	-0.0293839
9507.36	-0.0289189
9514.75	-0.0286827
9522.14	-0.0284442
9536.91	-0.0279604
9544.3	-0.0277152
9551.69	-0.0274678
9566.46	-0.0269669
9573.85	-0.0267134
9581.23	-0.0264581
9596.01	-0.0259419
9603.4	-0.0256813
9610.78	-0.0254189
9625.56	-0.0248894
9632.95	-0.0246224
9640.33	-0.024354
9655.11	-0.0238132
9662.49	-0.0235408
9677.27	-0.0229927
9684.66	-0.022717
9692.04	-0.0224404
9706.82	-0.0218843
9714.21	-0.021605
9721.59	-0.021325
9736.37	-0.0207629
9743.75	-0.020481
9751.14	-0.0201986
9765.92	-0.0196326
9773.3	-0.0193491
9780.69	-0.0190653
9795.47	-0.0184973
9802.85	-0.0182132
9810.24	-0.0179291
9825.01	-0.0173611
9832.4	-0.0170773
9847.18	-0.0165106
9854.56	-0.0162278
9861.95	-0.0159454
9876.73	-0.0153821
9884.11	-0.0151013
9891.5	-0.0148212
9906.27	-0.0142633
9913.66	-0.0139855
9921.05	-0.0137087
9935.82	-0.013158
9943.21	-0.0128842
9950.6	-0.0126116
9965.37	-0.01207
9972.76	-0.0118011
9980.15	-0.0115335
9994.92	-0.0110027
10002.3	-0.0107396
10017.1	-0.010218
10024.5	-0.00995974
10031.9	-0.00970318
10046.6	-0.00919545
10054	-0.00894437
10061.4	-0.00869522
10076.2	-0.00820288
10083.6	-0.00795979
10091	-0.00771881
10105.7	-0.00724338
10113.1	-0.00700901
10120.5	-0.00677693
10135.3	-0.00631983
10142.7	-0.00609488
10150.1	-0.00587239
10164.8	-0.00543493
10172.2	-0.00522004
10187	-0.00479813
10194.4	-0.00459118
10201.8	-0.00438694
10216.5	-0.00398675
10223.9	-0.00379086
10231.3	-0.00359781
10246.1	-0.00322038
10253.5	-0.00303605
10260.9	-0.00285467
10275.6	-0.00250091
10283	-0.00232857
10290.4	-0.00215929
10305.2	-0.00182999
10312.6	-0.00167002
10327.3	-0.00135953
10334.7	-0.00120905
10342.1	-0.00106176
10356.9	-0.000776841
10364.3	-0.000639236
10371.7	-0.000504884
10386.4	-0.000245988
10393.8	-0.000121464
10401.2	-2.34343e-07
10416	0.000232313
10423.4	0.000343618
10430.8	0.000451605
10445.5	0.000657609
10452.9	0.000755623
10460.3	0.000850311
10475.1	0.00102971
10482.5	0.00111443
10497.3	0.00127391
10504.6	0.00134868
10512	0.00142016
10526.8	0.00155324
10534.2	0.00161486
10541.6	0.00167322
10556.4	0.0017802
10563.7	0.00182884
10571.1	0.00187427
10585.9	0.00195556
10593.3	0.00199145
10600.7	0.00202421
10615.5	0.00208036
10622.8	0.0021038
10630.2	0.00212418
10645	0.00215587
10652.4	0.00216722
10667.2	0.00218105
10674.5	0.0021836
10681.9	0.00218327
10696.7	0.00217409
10704.1	0.0021653
10711.5	0.00215376
10726.3	0.00212254
10733.6	0.00210293
10741	0.0020807
10755.8	0.00202853
10763.2	0.00199866
10770.6	0.00196632
10785.4	0.00189437
10792.7	0.00185485
10800.1	0.00181301
10814.9	0.00172257
10822.3	0.00167405
10837.1	0.00157063
10844.5	0.00151582
10851.8	0.00145899
10866.6	0.0013395
10874	0.00127693
10881.4	0.00121254
10896.2	0.00107848
10903.6	0.00100891
10910.9	0.000937709
10925.7	0.000790628
10933.1	0.000714845
10940.5	0.000637637
10955.3	0.000479144
10962.7	0.000397964
10970	0.000315564
10984.8	0.000147316
10992.2	6.15724e-05
11007	-0.000112885
11014.4	-0.000201493
11021.8	-0.000290948
11036.5	-0.000472183
11043.9	-0.000563856
11051.3	-0.00065616
11066.1	-0.000842441
11073.5	-0.00093631
11080.8	-0.00103059
11095.6	-0.00122018
11103	-0.00131537
11110.4	-0.00141076
11125.2	-0.0016019
11132.6	-0.00169755
11147.3	-0.00188873
11154.7	-0.00198415
11162.1	-0.00207939
11176.9	-0.00226911
11184.3	-0.00236348
11191.7	-0.00245746
11206.4	-0.00264402
11213.8	-0.00273651
11221.2	-0.00282839
11236	-0.00301016
11243.4	-0.00309994
11250.8	-0.00318891
11265.5	-0.00336427
11272.9	-0.00345055
11280.3	-0.00353583
11295.1	-0.00370323
11302.5	-0.00378524
11317.2	-0.00394569
11324.6	-0.00402403
11332	-0.00410106
11346.8	-0.004251
11354.2	-0.00432383
11361.6	-0.00439518
11376.3	-0.00453327
11383.7	-0.00459993
11391.1	-0.00466495
11405.9	-0.00478992
11413.3	-0.00484981
11420.7	-0.0049079
11435.4	-0.0050186
11442.8	-0.00507114
11450.2	-0.00512176
11465	-0.00521713
11472.4	-0.00526182
11487.1	-0.00534506
11494.5	-0.00538356
11501.9	-0.00541994
11516.7	-0.00548626
11524.1	-0.00551615
11531.5	-0.00554383
11546.2	-0.00559248
11553.6	-0.00561341
11561	-0.00563205
11575.8	-0.00566241
11583.2	-0.00567409
11590.6	-0.00568342
11605.3	-0.00569498
11612.7	-0.00569718
11620.1	-0.00569699
11634.9	-0.00568938
11642.3	-0.00568194
11657.1	-0.00565978
11664.4	-0.00564505
11671.8	-0.00562787
11686.6	-0.00558618
11694	-0.00556167
11701.4	-0.00553472
11716.2	-0.00547349
11723.5	-0.00543921
11730.9	-0.00540251
11745.7	-0.00532182
11753.1	-0.00527785
11760.5	-0.00523148
11775.3	-0.00513157
11782.6	-0.00507805
11790	-0.00502216
11804.8	-0.00490336
11812.2	-0.00484048
11827	-0.00470781
11834.4	-0.00463806
11841.7	-0.00456606
11856.5	-0.00441538
11863.9	-0.00433674
11871.3	-0.00425594
11886.1	-0.0040879
11893.4	-0.00400072
11900.8	-0.00391146
11915.6	-0.00372681
11923	-0.00363148
11930.4	-0.00353418
11945.2	-0.00333378
11952.5	-0.00323074
11967.3	-0.00301913
11974.7	-0.00291062
11982.1	-0.00280036
11996.9	-0.00257468
12004.3	-0.00245934
12011.6	-0.00234238
12026.4	-0.00210371
12033.8	-0.00198209
12041.2	-0.00185898
12056	-0.00160848
12063.4	-0.00148116
12070.7	-0.0013525
12085.5	-0.00109136
12092.9	-0.000958953
12100.3	-0.000825372
12115.1	-0.000554854
12122.5	-0.000417999
12137.2	-0.000141303
12144.6	-1.54537e-06
12152	0.000139096
12166.8	0.000422859
12174.2	0.000565896
12181.6	0.000709645
12196.3	0.000999108
12203.7	0.00114474
12211.1	0.0012909
12225.9	0.00158467
12233.3	0.00173219
12240.6	0.00188007
12255.4	0.00217674
12262.8	0.00232544
12270.2	0.00247432
12285	0.00277246
12292.4	0.00292163
12307.1	0.00321995
12314.5	0.003369
12321.9	0.00351793
12336.7	0.00381523
12344.1	0.00396351
12351.5	0.00411148
12366.2	0.00440634
12373.6	0.00455314
12381	0.00469945
12395.8	0.00499046
12403.2	0.00513507
12410.6	0.00527903
12425.3	0.00556481
12432.7	0.00570654
12440.1	0.00584745
12454.9	0.00612662
12462.3	0.0062648
12477	0.00653814
12484.4	0.00667321
12491.8	0.00680717
12506.6	0.00707157
12514	0.00720194
12521.4	0.00733103
12536.1	0.00758522
12543.5	0.00771024
12550.9	0.00783382
12565.7	0.00807655
12573.1	0.00819561
12580.5	0.00831308
12595.2	0.00854314
12602.6	0.00865565
12610	0.00876642
12624.8	0.00898265
12632.2	0.00908803
12646.9	0.00929316
12654.3	0.00939284
12661.7	0.00949055
12676.5	0.00967994
12683.9	0.00977155
12691.3	0.00986108
12706	0.0100337
12713.4	0.0101168
12720.8	0.0101976
12735.6	0.0103525
12743	0.0104266
12750.4	0.0104983
12765.1	0.0106346
12772.5	0.0106992
12787.3	0.010821
12794.7	0.0108782
12802.1	0.0109329
12816.9	0.0110348
12824.2	0.0110818
12831.6	0.0111263
12846.4	0.0112074
12853.8	0.011244
12861.2	0.0112779
12876	0.0113377
12883.3	0.0113635
12890.7	0.0113866
12905.5	0.0114244
12912.9	0.0114392
12920.3	0.0114512
12935.1	0.0114667
12942.4	0.0114702
12957.2	0.0114687
12964.6	0.0114636
12972	0.0114557
12986.8	0.0114312
12994.2	0.0114146
13001.5	0.0113951
13016.3	0.0113474
13023.7	0.0113192
13031.1	0.0112881
13045.9	0.0112171
13053.2	0.0111772
13060.6	0.0111344
13075.4	0.0110401
13082.8	0.0109885
13090.2	0.0109341
13105	0.0108165
13112.3	0.0107534
13127.1	0.0106184
13134.5	0.0105467
13141.9	0.010472
13156.7	0.0103142
13164.1	0.0102311
13171.4	0.0101451
13186.2	0.00996482
13193.6	0.00987051
13201	0.00977345
13215.8	0.00957114
13223.2	0.00946593
13230.5	0.00935805
13245.3	0.00913433
13252.7	0.00901854
13260.1	0.00890016
13274.9	0.00865573
13282.3	0.00852973
13297	0.0082703
13304.4	0.00813692
13311.8	0.00800115
13326.6	0.00772251
13334	0.00757972
13341.4	0.00743464
13356.1	0.00713781
13363.5	0.00698612
13370.9	0.00683229
13385.7	0.00651837
13393.1	0.00635835
13400.5	0.00619635
13415.2	0.00586655
13422.6	0.00569884
13437.4	0.00535799
13444.8	0.00518494
13452.2	0.0050102
13466.9	0.00465582
13474.3	0.00447628
13481.7	0.00429522
13496.5	0.00392877
13503.9	0.00374348
13511.3	0.00355687
13526	0.00317989
13533.4	0.00298962
13540.8	0.00279824
13555.6	0.00241234
13563	0.00221792
13570.4	0.00202259
13585.1	0.00162943
13592.5	0.0014317
13607.3	0.00103422
13614.7	0.00083457
13622.1	0.000634394
13636.8	0.000232676
13644.2	3.12445e-05
13651.6	-0.000170495
13666.4	-0.000574671
13673.8	-0.000776996
13681.2	-0.000979404
13695.9	-0.00138425
13703.3	-0.00158657
13710.7	-0.00178874
13725.5	-0.00219245
13732.9	-0.00239387
13740.3	-0.00259492
13755	-0.0029957
13762.4	-0.00319532
13777.2	-0.00359274
13784.6	-0.00379043
13792	-0.00398737
13806.7	-0.00437878
13814.1	-0.00457315
13821.5	-0.00476655
13836.3	-0.00515024
13843.7	-0.00534044
13851.1	-0.00552946
13865.8	-0.00590379
13873.2	-0.006089
13880.6	-0.00627284
13895.4	-0.00663623
13902.8	-0.00681568
13910.2	-0.00699357
13924.9	-0.0073445
13932.3	-0.00751745
13947.1	-0.00785812
13954.5	-0.00802575
13961.9	-0.00819152
13976.7	-0.00851733
13984	-0.0086773
13991.4	-0.00883526
14006.2	-0.009145
14013.6	-0.00929671
14021	-0.00944628
14035.8	-0.00973885
14043.1	-0.0098818
14050.5	-0.0100225
14065.3	-0.0102969
14072.7	-0.0104306
14080.1	-0.0105619
14094.9	-0.0108174
14102.2	-0.0109415
14117	-0.0111822
14124.4	-0.0112989
14131.8	-0.011413
14146.6	-0.0116337
14154	-0.0117402
14161.3	-0.0118442
14176.1	-0.0120444
14183.5	-0.0121406
14190.9	-0.0122342
14205.7	-0.0124136
14213	-0.0124994
14220.4	-0.0125826
14235.2	-0.0127412
14242.6	-0.0128165
14257.4	-0.0129594
14264.8	-0.013027
14272.1	-0.013092
14286.9	-0.0132142
14294.3	-0.0132715
14301.7	-0.0133262
14316.5	-0.0134281
14323.9	-0.0134753
14331.2	-0.01352
14346	-0.013602
14353.4	-0.0136394
14360.8	-0.0136743
14375.6	-0.0137371
14383	-0.0137649
14390.3	-0.0137905
14405.1	-0.0138348
14412.5	-0.0138536
14427.3	-0.0138846
14434.7	-0.0138969
14442.1	-0.0139071
14456.8	-0.0139213
14464.2	-0.0139254
14471.6	-0.0139275
14486.4	-0.013926
14493.8	-0.0139225
14501.2	-0.0139171
14515.9	-0.0139012
14523.3	-0.0138906
14530.7	-0.0138785
14545.5	-0.0138494
14552.9	-0.0138326
14560.3	-0.0138143
14575	-0.0137735
14582.4	-0.013751
14597.2	-0.0137024
14604.6	-0.0136763
14612	-0.013649
14626.7	-0.0135913
14634.1	-0.0135609
14641.5	-0.0135296
14656.3	-0.0134643
14663.7	-0.0134305
14671.1	-0.0133959
14685.8	-0.0133248
14693.2	-0.0132883
14700.6	-0.0132513
14715.4	-0.0131758
14722.8	-0.0131375
14730.2	-0.0130988
14744.9	-0.0130207
14752.3	-0.0129814
14767.1	-0.0129023
14774.5	-0.0128628
14781.9	-0.0128232
14796.6	-0.0127443
14804	-0.0127051
14811.4	-0.0126661
14826.2	-0.0125889
14833.6	-0.0125508
14841	-0.0125131
14855.7	-0.0124391
14863.1	-0.0124029
14870.5	-0.0123673
14885.3	-0.012298
14892.7	-0.0122643
14900.1	-0.0122315
14914.8	-0.0121681
14922.2	-0.0121377
14937	-0.0120797
14944.4	-0.0120521
14951.8	-0.0120256
14966.6	-0.0119757
14973.9	-0.0119523
14981.3	-0.0119302
14996.1	-0.0118894
15003.5	-0.0118709
15010.9	-0.0118536
15025.6	-0.011823
15033	-0.0118096
15040.4	-0.0117977
15055.2	-0.0117779
15062.6	-0.0117701
15077.4	-0.0117589
15084.7	-0.0117556
15092.1	-0.0117537
15106.9	-0.0117544
15114.3	-0.011757
15121.7	-0.0117612
15136.5	-0.0117742
15143.8	-0.0117831
15151.2	-0.0117935
15166	-0.0118189
15173.4	-0.011834
15180.8	-0.0118507
15195.6	-0.0118887
15202.9	-0.0119101
15210.3	-0.0119329
15225.1	-0.0119833
15232.5	-0.0120108
15247.3	-0.0120703
15254.7	-0.0121023
15262	-0.0121358
15276.8	-0.012207
15284.2	-0.0122448
15291.6	-0.012284
15306.4	-0.0123664
15313.8	-0.0124096
15321.1	-0.0124541
15335.9	-0.012547
15343.3	-0.0125952
15350.7	-0.0126446
15365.5	-0.012747
15372.8	-0.0127998
15380.2	-0.0128536
15395	-0.0129644
15402.4	-0.0130212
15417.2	-0.0131375
15424.6	-0.0131969
15431.9	-0.0132571
15446.7	-0.0133796
15454.1	-0.0134418
15461.5	-0.0135047
15476.3	-0.013632
15483.7	-0.0136964
15491	-0.0137612
15505.8	-0.0138918
15513.2	-0.0139575
15520.6	-0.0140234
15535.4	-0.0141556
15542.8	-0.0142218
15550.1	-0.014288
15564.9	-0.0144201
15572.3	-0.0144859
15587.1	-0.0146168
15594.5	-0.0146817
15601.9	-0.0147463
15616.6	-0.0148739
15624	-0.0149368
15631.4	-0.0149991
15646.2	-0.0151216
15653.6	-0.0151816
15661	-0.0152408
15675.7	-0.0153562
15683.1	-0.0154124
15690.5	-0.0154674
15705.3	-0.0155739
15712.7	-0.0156253
15720.1	-0.0156753
15734.8	-0.015771
15742.2	-0.0158165
15757	-0.0159029
15764.4	-0.0159435
15771.8	-0.0159824
15786.5	-0.0160547
15793.9	-0.016088
15801.3	-0.0161194
15816.1	-0.0161759
15823.5	-0.0162009
15830.9	-0.0162238
15845.6	-0.0162628
15853	-0.0162789
15860.4	-0.0162925
15875.2	-0.0163125
15882.6	-0.0163187
15897.3	-0.0163233
15904.7	-0.0163217
15912.1	-0.0163173
15926.9	-0.0163004
15934.3	-0.0162877
15941.7	-0.0162722
15956.4	-0.0162324
15963.8	-0.0162081
15971.2	-0.0161808
15986	-0.016117
15993.4	-0.0160806
16000.8	-0.016041
16015.5	-0.0159523
16022.9	-0.0159032
16030.3	-0.0158509
16045.1	-0.0157366
16052.5	-0.0156746
16067.3	-0.0155406
16074.6	-0.0154686
16082	-0.0153933
16096.8	-0.0152327
16104.2	-0.0151474
16111.6	-0.0150587
16126.4	-0.0148711
16133.7	-0.0147723
16141.1	-0.0146701
16155.9	-0.0144556
16163.3	-0.0143433
16170.7	-0.0142276
16185.4	-0.0139862
16192.8	-0.0138605
16200.2	-0.0137315
16215	-0.0134635
16222.4	-0.0133246
16237.2	-0.013037
16244.5	-0.0128883
16251.9	-0.0127364
16266.7	-0.0124232
16274.1	-0.0122619
16281.5	-0.0120974
16296.3	-0.0117594
16303.6	-0.0115858
16311	-0.0114093
16325.8	-0.0110474
16333.2	-0.0108622
16340.6	-0.0106741
16355.4	-0.0102896
16362.7	-0.0100933
16370.1	-0.00989429
16384.9	-0.00948848
16392.3	-0.00928176
16407.1	-0.00886093
16414.5	-0.00864692
16421.8	-0.00843058
16436.6	-0.00799112
16444	-0.00776811
16451.4	-0.00754298
16466.2	-0.00708661
16473.6	-0.00685548
16480.9	-0.00662246
16495.7	-0.00615101
16503.1	-0.00591269
16510.5	-0.00567273
16525.3	-0.00518813
16532.7	-0.00494362
16540	-0.00469772
16554.8	-0.004202
16562.2	-0.00395232
16577	-0.00344964
16584.4	-0.00319677
16591.7	-0.00294298
16606.5	-0.00243288
16613.9	-0.00217671
16621.3	-0.00191989
16636.1	-0.00140457
16643.5	-0.0011462
16650.8	-0.000887459
16665.6	-0.000369117
16673	-0.000109658
16680.4	0.000149899
16695.2	0.000669035
16702.6	0.000928473
16717.3	0.00144675
16724.7	0.00170544
16732.1	0.00196376
16746.9	0.00247895
16754.3	0.0027357
16761.7	0.00299179
16776.4	0.00350174
16783.8	0.00375546
16791.2	0.00400826
16806	0.00451083
16813.4	0.00476047
16820.8	0.00500893
16835.5	0.00550205
16842.9	0.00574659
16850.3	0.00598969
16865.1	0.00647137
16872.5	0.00670983
16887.2	0.00718167
16894.6	0.00741494
16902	0.00764637
16916.8	0.00810349
16924.2	0.00832907
16931.6	0.00855259
16946.3	0.00899325
16953.7	0.00921029
16961.1	0.00942506
16975.9	0.00984764
16983.3	0.0100553
16990.7	0.0102606
17005.4	0.0106636
17012.8	0.0108612
17020.2	0.0110563
17035	0.0114383
17042.4	0.0116252
17057.1	0.0119907
17064.5	0.0121692
17071.9	0.0123448
17086.7	0.0126873
17094.1	0.012854
17101.5	0.0130178
17116.2	0.0133362
17123.6	0.0134907
17131	0.0136422
17145.8	0.0139357
17153.2	0.0140776
17160.6	0.0142164
17175.3	0.0144842
17182.7	0.0146133
17190.1	0.014739
17204.9	0.0149806
17212.3	0.0150964
17227.1	0.0153181
17234.4	0.0154239
17241.8	0.0155263
17256.6	0.0157211
17264	0.0158134
17271.4	0.0159023
17286.2	0.0160699
17293.5	0.0161486
17300.9	0.0162239
17315.7	0.0163644
17323.1	0.0164295
17330.5	0.0164913
17345.2	0.0166046
17352.6	0.0166562
17360	0.0167044
17374.8	0.0167908
17382.2	0.0168289
17397	0.0168952
17404.3	0.0169234
17411.7	0.0169483
17426.5	0.0169882
17433.9	0.0170033
17441.3	0.0170151
17456.1	0.0170291
17463.4	0.0170313
17470.8	0.0170304
17485.6	0.017019
17493	0.0170086
17500.4	0.0169952
17515.2	0.0169591
17522.5	0.0169365
17537.3	0.0168823
17544.7	0.0168508
17552.1	0.0168163
17566.9	0.0167387
17574.3	0.0166957
17581.6	0.0166498
17596.4	0.0165496
17603.8	0.0164954
17611.2	0.0164385
17626	0.0163167
17633.4	0.0162518
17640.7	0.0161843
17655.5	0.0160418
17662.9	0.0159667
17670.3	0.0158892
17685.1	0.0157269
17692.5	0.0156422
17707.2	0.0154657
17714.6	0.0153741
17722	0.0152802
17736.8	0.0150858
17744.2	0.0149853
17751.5	0.0148828
17766.3	0.0146715
17773.7	0.0145628
17781.1	0.0144522
17795.9	0.0142251
17803.3	0.0141087
17810.6	0.0139904
17825.4	0.0137486
17832.8	0.013625
17840.2	0.0134998
17855	0.0132443
17862.4	0.0131141
17877.1	0.0128491
17884.5	0.0127143
17891.9	0.012578
17906.7	0.0123012
17914.1	0.0121608
17921.5	0.0120189
17936.2	0.0117315
17943.6	0.0115858
17951	0.011439
17965.8	0.0111419
17973.2	0.0109916
17980.6	0.0108403
17995.3	0.0105345
18002.7	0.0103802
18010.1	0.0102249
18024.9	0.00991153
18032.3	0.00975356
18047	0.00943518
18054.4	0.00927483
18061.8	0.00911374
18076.6	0.00878949
18084	0.00862639
18091.4	0.00846267
18106.1	0.0081335
18113.5	0.00796811
18120.9	0.00780223
18135.7	0.00746907
18143.1	0.00730186
18150.5	0.00713426
18165.2	0.00679801
18172.6	0.00662942
18180	0.00646055
18194.8	0.00612208
18202.2	0.00595253
18216.9	0.00561295
18224.3	0.00544297
18231.7	0.00527289
18246.5	0.00493255
18253.9	0.00476234
18261.3	0.00459212
18276	0.00425181
18283.4	0.00408176
18290.8	0.0039118
18305.6	0.00357229
18313	0.00340277
18320.4	0.00323345
18335.1	0.00289547
18342.5	0.00272686
18357.3	0.0023905
18364.7	0.0022228
18372.1	0.00205544
18386.9	0.00172185
18394.2	0.00155566
18401.6	0.0013899
18416.4	0.00105974
18423.8	0.000895393
18431.2	0.000731551
18446	0.000405475
18453.3	0.000243279
18460.7	8.16715e-05
18475.5	-0.000239707
18482.9	-0.000399441
18490.3	-0.000558513
18505.1	-0.000874599
18512.4	-0.00103158
18527.2	-0.00134332
18534.6	-0.00149805
18542	-0.00165199
18556.8	-0.00195745
18564.1	-0.00210894
18571.5	-0.00225957
18586.3	-0.00255823
18593.7	-0.00270621
18601.1	-0.00285328
18615.9	-0.00314462
18623.2	-0.00328885
18630.6	-0.00343211
18645.4	-0.00371564
18652.8	-0.00385588
18660.2	-0.00399509
18675	-0.00427035
18682.3	-0.00440637
18697.1	-0.00467514
18704.5	-0.00480785
18711.9	-0.00493944
18726.7	-0.00519918
18734.1	-0.0053273
18741.4	-0.00545425
18756.2	-0.00570455
18763.6	-0.00582789
18771	-0.00595
18785.8	-0.0061905
18793.2	-0.00630887
18800.5	-0.00642597
18815.3	-0.00665631
18822.7	-0.00676953
18830.1	-0.00688144
18844.9	-0.00710129
18852.3	-0.00720921
18867	-0.007421
18874.4	-0.00752484
18881.8	-0.00762731
18896.6	-0.0078281
18904	-0.00792639
18911.4	-0.00802328
18926.1	-0.00821281
18933.5	-0.00830543
18940.9	-0.00839662
18955.7	-0.00857466
18963.1	-0.0086615
18970.4	-0.00874688
18985.2	-0.00891324
18992.6	-0.00899421
19007.4	-0.00915169
19014.8	-0.0092282
19022.2	-0.00930321
19036.9	-0.00944874
19044.3	-0.00951924
19051.7	-0.00958823
19066.5	-0.00972168
19073.9	-0.00978613
19081.3	-0.00984906
19096	-0.00997035
19103.4	-0.0100287
19110.8	-0.0100855
19125.6	-0.0101946
19133	-0.0102469
19140.4	-0.0102976
19155.1	-0.0103944
19162.5	-0.0104406
19177.3	-0.0105283
19184.7	-0.0105698
19192.1	-0.0106099
19206.8	-0.0106854
19214.2	-0.0107208
19221.6	-0.0107548
19236.4	-0.0108182
19243.8	-0.0108476
19251.2	-0.0108756
19265.9	-0.0109269
19273.3	-0.0109504
19280.7	-0.0109724
19295.5	-0.0110119
19302.9	-0.0110294
19310.3	-0.0110455
19325	-0.0110733
19332.4	-0.0110851
19347.2	-0.0111042
19354.6	-0.0111117
19362	-0.0111177
19376.7	-0.0111255
19384.1	-0.0111274
19391.5	-0.0111278
19406.3	-0.0111246
19413.7	-0.0111209
19421.1	-0.0111159
19435.8	-0.0111019
19443.2	-0.0110928
19450.6	-0.0110825
19465.4	-0.011058
19472.8	-0.0110438
19480.2	-0.0110284
19494.9	-0.0109937
19502.3	-0.0109745
19517.1	-0.0109325
19524.5	-0.0109096
19531.9	-0.0108856
19546.7	-0.010834
19554	-0.0108065
19561.4	-0.0107779
19576.2	-0.0107172
19583.6	-0.0106852
19591	-0.0106521
19605.8	-0.0105828
19613.1	-0.0105465
19620.5	-0.0105092
19635.3	-0.0104316
19642.7	-0.0103913
19650.1	-0.01035
19664.9	-0.0102645
19672.2	-0.0102204
19687	-0.0101294
19694.4	-0.0100826
19701.8	-0.0100348
19716.6	-0.00993681
19723.9	-0.00988654
19731.3	-0.00983546
19746.1	-0.00973091
19753.5	-0.00967747
19760.9	-0.00962327
19775.7	-0.00951266
19783	-0.00945628
19790.4	-0.00939921
19805.2	-0.00928303
19812.6	-0.00922396
19827.4	-0.00910392
19834.8	-0.00904298
19842.1	-0.00898146
19856.9	-0.00885669
19864.3	-0.00879349
19871.7	-0.00872975
19886.5	-0.00860075
19893.9	-0.00853551
19901.2	-0.0084698
19916	-0.00833703
19923.4	-0.00827
19930.8	-0.00820256
19945.6	-0.00806649
19953	-0.0079979
19960.3	-0.00792896
19975.1	-0.00779006
19982.5	-0.00772014
19997.3	-0.00757941
