0	0
11.8196	0
23.6393	0
35.4589	0
41.3687	0
53.1883	0
65.008	0
70.9178	0
82.7374	0
94.557	0
100.467	0
112.286	0
124.106	0
130.016	0
141.836	0
153.655	0
165.475	0
171.385	0
183.204	0
195.024	0
200.934	0
212.753	0
224.573	0
230.483	0
242.302	0
254.122	0
260.032	0
271.851	0
283.671	0
295.491	0
301.401	0
313.22	0
325.04	0
330.95	0
342.769	0
354.589	0
360.499	0
372.318	0
384.138	0
390.048	0
401.867	0
413.687	0
425.507	0
431.416	0
443.236	0
455.056	0
460.966	0
472.785	0
484.605	0
490.515	0
502.334	0
514.154	0
520.064	0
531.883	0
543.703	0
555.523	0
561.432	0
573.252	0
585.072	0
590.981	0
602.801	0
614.621	0
620.53	0
632.35	0
644.17	0
650.08	0
661.899	0
673.719	0
685.538	0
691.448	0
703.268	0
715.088	0
720.997	0
732.817	0
744.637	0
750.546	0
762.366	0
774.186	0
780.095	0
791.915	0
803.735	0
815.554	0
821.464	0
833.284	0
845.103	0
851.013	0
862.833	0
874.652	0
880.562	0
892.382	0
904.202	0
910.111	0
921.931	0
933.751	0
945.57	0
951.48	0
963.3	0
975.119	0
981.029	0
992.849	0
1004.67	0
1010.58	0
1022.4	0
1034.22	0
1040.13	0
1051.95	0
1063.77	0
1075.59	0
1081.5	0
1093.32	0
1105.14	0
1111.05	0
1122.86	0
1134.68	0
1140.59	0
1152.41	0
1164.23	0
1170.14	0
1181.96	0
1193.78	0
1205.6	0
1211.51	0
1223.33	0
1235.15	0
1241.06	0
1252.88	0
1264.7	0
1270.61	0
1282.43	0
1294.25	0
1300.16	0
1311.98	0
1323.8	0
1335.62	0
1341.53	0
1353.35	0
1365.17	0
1371.08	0
1382.9	0
1394.72	0
1400.63	0
1412.45	0
1424.27	0
1430.18	0
1441.99	0
1453.81	0
1465.63	0
1471.54	0
1483.36	0
1495.18	0
1501.09	0
1512.91	0
1524.73	0
1530.64	0
1542.46	0
1554.28	0
1560.19	0
1572.01	0
1583.83	0
1595.65	0
1601.56	0
1613.38	0
1625.2	0
1631.11	0
1642.93	0
1654.75	0
1660.66	0
1672.48	0
1684.3	0
1690.21	0
1702.03	0
1713.85	0
1725.67	0
1731.58	0
1743.4	0
1755.21	0
1761.12	0
1772.94	0
1784.76	0
1790.67	0
1802.49	0
1814.31	0
1820.22	0
1832.04	0
1843.86	0
1855.68	0
1861.59	0
1873.41	0
1885.23	9.09495e-13
1891.14	1.81899e-12
1902.96	2.72848e-12
1914.78	3.63798e-12
1920.69	4.54747e-12
1932.51	6.36646e-12
1944.33	8.18545e-12
1950.24	1.00044e-11
1962.06	1.36424e-11
1973.88	1.81899e-11
1985.7	2.36469e-11
1991.61	2.72848e-11
2003.43	3.54703e-11
2015.25	4.72937e-11
2021.16	5.45697e-11
2032.98	7.27596e-11
2044.8	9.64064e-11
2050.71	1.10958e-10
2062.53	1.46429e-10
2074.34	1.92813e-10
2080.25	2.21007e-10
2092.07	2.90129e-10
2103.89	3.79259e-10
2115.71	4.93856e-10
2121.62	5.62977e-10
2133.44	7.29415e-10
2145.26	9.42237e-10
2151.17	1.06866e-09
2162.99	1.37243e-09
2174.81	1.75805e-09
2180.72	1.98725e-09
2192.54	2.53294e-09
2204.36	3.21779e-09
2210.27	3.62252e-09
2222.09	4.57931e-09
2233.91	5.77074e-09
2245.73	7.24867e-09
2251.64	8.11542e-09
2263.46	1.01472e-08
2275.28	1.26493e-08
2281.19	1.41063e-08
2293.01	1.7505e-08
2304.83	2.16569e-08
2310.74	2.40625e-08
2322.56	2.96413e-08
2334.38	3.64071e-08
2340.29	4.03052e-08
2352.11	4.92955e-08
2363.93	6.01221e-08
2375.75	7.31252e-08
2381.66	8.0563e-08
2393.47	9.75861e-08
2405.29	1.17891e-07
2411.2	1.29447e-07
2423.02	1.55763e-07
2434.84	1.86942e-07
2440.75	2.04602e-07
2452.57	2.44616e-07
2464.39	2.9172e-07
2470.3	3.18273e-07
2482.12	3.78152e-07
2493.94	4.48199e-07
2505.76	5.29943e-07
2511.67	5.75731e-07
2523.49	6.78316e-07
2535.31	7.97315e-07
2541.22	8.6368e-07
2553.04	1.01171e-06
2564.86	1.18243e-06
2570.77	1.27724e-06
2582.59	1.4878e-06
2594.41	1.7293e-06
2600.32	1.86287e-06
2612.14	2.15829e-06
2623.96	2.49529e-06
2635.78	2.87893e-06
2641.69	3.08995e-06
2653.51	3.55413e-06
2665.33	4.07988e-06
2671.24	4.368e-06
2683.06	4.9994e-06
2694.88	5.7111e-06
2700.79	6.09976e-06
2712.6	6.94848e-06
2724.42	7.90075e-06
2730.33	8.41904e-06
2742.15	9.54708e-06
2753.97	1.08073e-05
2765.79	1.22129e-05
2771.7	1.29746e-05
2783.52	1.46253e-05
2795.34	1.64592e-05
2801.25	1.74503e-05
2813.07	1.9592e-05
2824.89	2.19631e-05
2830.8	2.32411e-05
2842.62	2.59962e-05
2854.44	2.90365e-05
2860.35	3.06716e-05
2872.17	3.41886e-05
2883.99	3.80591e-05
2895.81	4.23144e-05
2901.72	4.45968e-05
2913.54	4.94939e-05
2925.36	5.48665e-05
2931.27	5.7744e-05
2943.09	6.39096e-05
2954.91	7.06628e-05
2960.82	7.4276e-05
2972.64	8.20102e-05
2984.46	9.04721e-05
2990.37	9.49964e-05
3002.18	0.000104675
3014	0.000115259
3025.82	0.000126831
3031.73	0.000133016
3043.55	0.000146245
3055.37	0.000160712
3061.28	0.000168446
3073.1	0.000184993
3084.92	0.000203097
3090.83	0.00021278
3102.65	0.000233511
3114.47	0.000256211
3120.38	0.00026836
3132.2	0.000294392
3144.02	0.000322927
3155.84	0.000354221
3161.75	0.00037099
3173.57	0.000406962
3185.39	0.000446456
3191.3	0.000467637
3203.12	0.000513109
3214.94	0.000563086
3220.85	0.000589906
3232.67	0.000647525
3244.48	0.000710901
3250.39	0.000744929
3262.21	0.000818064
3274.03	0.000898541
3285.85	0.000987104
3291.76	0.00103467
3303.58	0.0011369
3315.4	0.0012494
3321.31	0.0013098
3333.13	0.0014396
3344.95	0.00158233
3350.86	0.00165894
3362.68	0.00182344
3374.5	0.00200416
3380.41	0.00210106
3392.23	0.00230896
3404.05	0.00253703
3415.87	0.00278708
3421.78	0.00292094
3433.6	0.00320759
3445.41	0.00352125
3451.32	0.0036889
3463.14	0.00404735
3474.96	0.00443871
3480.87	0.00464754
3492.69	0.00509319
3504.51	0.00557855
3510.42	0.00583704
3522.24	0.00638757
3534.06	0.00698552
3545.88	0.00763423
3551.79	0.0079787
3563.61	0.00871012
3575.43	0.00950126
3581.34	0.00992042
3593.16	0.0108084
3604.98	0.0117658
3610.89	0.0122719
3622.7	0.0133414
3634.52	0.0144909
3640.43	0.0150969
3652.25	0.0163746
3664.07	0.0177432
3675.89	0.0192073
3681.8	0.0199766
3693.62	0.0215923
3705.44	0.0233149
3711.35	0.0242176
3723.17	0.0261086
3734.99	0.0281176
3740.9	0.0291676
3752.72	0.0313615
3764.53	0.0336837
3770.44	0.0348943
3782.26	0.0374166
3794.08	0.040077
3805.9	0.0428788
3811.81	0.0443337
3823.63	0.0473536
3835.45	0.0505223
3841.36	0.0521632
3853.18	0.0555595
3865	0.0591098
3870.91	0.0609432
3882.73	0.064727
3894.55	0.0686673
3900.46	0.0706962
3912.27	0.0748715
3924.09	0.0792026
3930	0.0814263
3941.82	0.0859887
3953.64	0.0907028
3965.46	0.0955656
3971.37	0.0980518
3983.19	0.103131
3995.01	0.108349
4000.92	0.111009
4012.74	0.116425
4024.56	0.121966
4030.47	0.124781
4042.29	0.130495
4054.1	0.136315
4060.01	0.139262
4071.83	0.145223
4083.65	0.151267
4095.47	0.157382
4101.38	0.160463
4113.2	0.166665
4125.02	0.172909
4130.93	0.176043
4142.75	0.182326
4154.57	0.188618
4160.48	0.191763
4172.3	0.198042
4184.12	0.204293
4190.03	0.207404
4201.85	0.213585
4213.66	0.219699
4225.48	0.22573
4231.39	0.22871
4243.21	0.234585
4255.03	0.240336
4260.94	0.24316
4272.76	0.248692
4284.58	0.254058
4290.49	0.256673
4302.31	0.261756
4314.13	0.266631
4320.04	0.268985
4331.86	0.273517
4343.68	0.277799
4355.5	0.281817
4361.41	0.283723
4373.23	0.287316
4385.05	0.290609
4390.95	0.292138
4402.77	0.294954
4414.59	0.297436
4420.5	0.298549
4432.32	0.30051
4444.14	0.302109
4450.05	0.302771
4461.87	0.303811
4473.69	0.304468
4485.51	0.304735
4491.42	0.30472
4503.24	0.30439
4515.06	0.303657
4520.97	0.303138
4532.79	0.301794
4544.61	0.30004
4550.52	0.29901
4562.34	0.296641
4574.16	0.293863
4580.07	0.292321
4591.89	0.288935
4603.71	0.285149
4615.53	0.280966
4621.44	0.278729
4633.26	0.273966
4645.08	0.268825
4650.98	0.266116
4662.8	0.260426
4674.62	0.254382
4680.53	0.251231
4692.35	0.24468
4704.17	0.237805
4710.08	0.23425
4721.9	0.226917
4733.72	0.219295
4745.54	0.211402
4751.45	0.207358
4763.27	0.199086
4775.09	0.190584
4781	0.186251
4792.82	0.177435
4804.64	0.168433
4810.55	0.163867
4822.37	0.154619
4834.19	0.145231
4840.1	0.14049
4851.92	0.130927
4863.74	0.121271
4875.56	0.111542
4881.47	0.106656
4893.29	0.096851
4905.11	0.08702
4911.02	0.0821003
4922.84	0.0722642
4934.66	0.0624475
4940.57	0.057552
4952.38	0.0477976
4964.2	0.0381063
4970.11	0.0332896
4981.93	0.0237241
4993.75	0.0142626
5005.57	0.00492042
5011.48	0.000298673
5023.3	-0.00883718
5035.12	-0.0178181
5041.03	-0.0222464
5052.85	-0.0309706
5064.67	-0.0395087
5070.58	-0.0437043
5082.4	-0.0519421
5094.22	-0.059967
5100.13	-0.0638966
5111.95	-0.0715849
5123.77	-0.0790385
5135.59	-0.08625
5141.5	-0.089763
5153.32	-0.0965994
5165.14	-0.103179
5171.05	-0.106371
5182.87	-0.112557
5194.69	-0.118476
5200.6	-0.121335
5212.42	-0.12685
5224.24	-0.132092
5230.15	-0.134611
5241.96	-0.139444
5253.78	-0.144004
5265.6	-0.148293
5271.51	-0.150336
5283.33	-0.15422
5295.15	-0.157837
5301.06	-0.159546
5312.88	-0.162769
5324.7	-0.165733
5330.61	-0.167119
5342.43	-0.169704
5354.25	-0.172041
5360.16	-0.173119
5371.98	-0.175096
5383.8	-0.17684
5395.62	-0.178357
5401.53	-0.179032
5413.35	-0.180222
5425.17	-0.181201
5431.08	-0.181613
5442.9	-0.182291
5454.72	-0.182776
5460.63	-0.182948
5472.45	-0.183159
5484.27	-0.183197
5490.18	-0.183153
5502	-0.182945
5513.82	-0.182583
5525.63	-0.182075
5531.54	-0.181768
5543.36	-0.181054
5555.18	-0.180213
5561.09	-0.179748
5572.91	-0.17873
5584.73	-0.177603
5590.64	-0.177001
5602.46	-0.175725
5614.28	-0.174357
5620.19	-0.173642
5632.01	-0.17215
5643.83	-0.170584
5655.65	-0.16895
5661.56	-0.16811
5673.38	-0.166385
5685.2	-0.164607
5691.11	-0.163699
5702.93	-0.161851
5714.75	-0.159964
5720.66	-0.159006
5732.48	-0.157068
5744.3	-0.155101
5750.21	-0.154108
5762.03	-0.152108
5773.85	-0.150089
5785.67	-0.148056
5791.58	-0.147036
5803.4	-0.144989
5815.22	-0.142935
5821.13	-0.141907
5832.94	-0.139851
5844.76	-0.137795
5850.67	-0.136768
5862.49	-0.134718
5874.31	-0.132674
5880.22	-0.131656
5892.04	-0.129625
5903.86	-0.127604
5915.68	-0.125596
5921.59	-0.124596
5933.41	-0.122608
5945.23	-0.120634
5951.14	-0.119653
5962.96	-0.117702
5974.78	-0.115768
5980.69	-0.114807
5992.51	-0.112898
6004.33	-0.111006
6010.24	-0.110067
6022.06	-0.108201
6033.88	-0.106354
6045.7	-0.104524
6051.61	-0.103616
6063.43	-0.101812
6075.25	-0.100026
6081.16	-0.0991398
6092.98	-0.0973797
6104.8	-0.0956365
6110.71	-0.0947712
6122.53	-0.0930528
6134.34	-0.0913507
6140.25	-0.0905056
6152.07	-0.0888271
6163.89	-0.0871641
6175.71	-0.0855161
6181.62	-0.0846977
6193.44	-0.0830717
6205.26	-0.08146
6211.17	-0.0806594
6222.99	-0.0790687
6234.81	-0.0774915
6240.72	-0.076708
6252.54	-0.0751508
6264.36	-0.0736067
6270.27	-0.0728395
6282.09	-0.0713148
6293.91	-0.0698028
6305.73	-0.0683035
6311.64	-0.0675586
6323.46	-0.0660781
6335.28	-0.0646103
6341.19	-0.0638811
6353.01	-0.0624322
6364.83	-0.0609961
6370.74	-0.0602828
6382.56	-0.058866
6394.38	-0.0574622
6400.29	-0.0567652
6412.11	-0.0553813
6423.93	-0.0540109
6435.75	-0.0526542
6441.65	-0.0519811
6453.47	-0.0506456
6465.29	-0.0493244
6471.2	-0.0486694
6483.02	-0.0473704
6494.84	-0.0460865
6500.75	-0.0454503
6512.57	-0.0441897
6524.39	-0.042945
6530.3	-0.0423287
6542.12	-0.0411084
6553.94	-0.0399047
6565.76	-0.038718
6571.67	-0.0381311
6583.49	-0.0369703
6595.31	-0.035827
6601.22	-0.0352621
6613.04	-0.0341457
6624.86	-0.0330475
6630.77	-0.0325053
6642.59	-0.0314346
6654.41	-0.0303825
6660.32	-0.0298634
6672.14	-0.0288393
6683.96	-0.027834
6695.78	-0.0268475
6701.69	-0.0263613
6713.51	-0.025403
6725.33	-0.0244635
6731.24	-0.0240007
6743.06	-0.023089
6754.88	-0.0221958
6760.79	-0.021756
6772.6	-0.0208901
6784.42	-0.020042
6790.33	-0.0196246
6802.15	-0.0188028
6813.97	-0.0179981
6825.79	-0.0172101
6831.7	-0.0168222
6843.52	-0.0160585
6855.34	-0.0153103
6861.25	-0.0149419
6873.07	-0.0142161
6884.89	-0.0135046
6890.8	-0.013154
6902.62	-0.0124628
6914.44	-0.0117843
6920.35	-0.0114496
6932.17	-0.0107889
6943.99	-0.0101392
6955.81	-0.00949976
6961.72	-0.00918368
6973.54	-0.00855833
6985.36	-0.00794139
6991.27	-0.00763583
7003.09	-0.00703004
7014.91	-0.0064307
7020.82	-0.0061332
7032.64	-0.00554204
7044.46	-0.00495531
7050.37	-0.00466336
7062.19	-0.0040818
7074.01	-0.00350266
7085.83	-0.00292517
7091.74	-0.00263679
7103.55	-0.0020603
7115.37	-0.0014835
7121.28	-0.00119476
7133.1	-0.000616133
7144.92	-3.53717e-05
7150.83	0.000256026
7162.65	0.000841282
7174.47	0.00143036
7180.38	0.00172654
7192.2	0.00232253
7204.02	0.00292387
7215.84	0.0035311
7221.75	0.00383709
7233.57	0.00445411
7245.39	0.00507825
7251.3	0.00539311
7263.12	0.00602868
7274.94	0.00667233
7280.85	0.00699728
7292.67	0.00765361
7304.49	0.00831872
7310.4	0.00865462
7322.22	0.00933324
7334.04	0.010021
7345.86	0.0107181
7351.77	0.0110701
7363.59	0.0117811
7375.41	0.0125013
7381.32	0.0128649
7393.14	0.0135988
7404.96	0.0143417
7410.87	0.0147164
7422.68	0.0154722
7434.5	0.0162364
7440.41	0.0166215
7452.23	0.0173975
7464.05	0.0181809
7475.87	0.0189712
7481.78	0.0193689
7493.6	0.0201687
7505.42	0.0209743
7511.33	0.021379
7523.15	0.022192
7534.97	0.0230091
7540.88	0.023419
7552.7	0.0242409
7564.52	0.0250653
7570.43	0.0254781
7582.25	0.0263046
7594.07	0.0271314
7605.89	0.0279578
7611.8	0.0283706
7623.62	0.0291947
7635.44	0.0300162
7641.35	0.0304257
7653.17	0.0312416
7664.99	0.0320525
7670.9	0.0324558
7682.72	0.0332575
7694.54	0.0340519
7700.44	0.0344461
7712.26	0.0352277
7724.08	0.0359995
7735.9	0.0367605
7741.81	0.0371367
7753.63	0.0378798
7765.45	0.0386097
7771.36	0.0389694
7783.18	0.0396777
7795	0.0403703
7800.91	0.0407105
7812.73	0.0413779
7824.55	0.0420274
7830.46	0.0423452
7842.28	0.042966
7854.1	0.0435666
7860.01	0.0438591
7871.83	0.0444278
7883.65	0.0449742
7895.47	0.0454974
7901.38	0.0457501
7913.2	0.0462372
7925.02	0.0466993
7930.93	0.0469207
7942.75	0.0473439
7954.57	0.0477403
7960.48	0.0479283
7972.29	0.0482834
7984.11	0.0486103
7990.02	0.048763
8001.84	0.0490465
8013.66	0.0493004
8025.48	0.0495242
8031.39	0.0496248
8043.21	0.0498029
8055.03	0.04995
8060.94	0.0500118
8072.76	0.0501118
8084.58	0.05018
8090.49	0.0502022
8102.31	0.0502224
8114.13	0.0502104
8120.04	0.0501923
8131.86	0.0501317
8143.68	0.0500386
8155.5	0.049913
8161.41	0.0498379
8173.23	0.0496635
8185.05	0.0494566
8190.96	0.049341
8202.78	0.0490857
8214.6	0.0487981
8220.51	0.0486423
8232.33	0.0483069
8244.14	0.0479398
8250.05	0.0477445
8261.87	0.0473305
8273.69	0.0468856
8285.51	0.0464101
8291.42	0.046161
8303.24	0.0456405
8315.06	0.0450904
8320.97	0.0448044
8332.79	0.0442109
8344.61	0.043589
8350.52	0.0432676
8362.34	0.0426042
8374.16	0.0419138
8380.07	0.0415586
8391.89	0.0408289
8403.71	0.0400737
8415.53	0.0392936
8421.44	0.0388945
8433.26	0.0380784
8445.08	0.0372393
8450.99	0.0368112
8462.81	0.0359387
8474.63	0.0350448
8480.54	0.0345901
8492.36	0.0336657
8504.18	0.0327218
8510.08	0.0322429
8521.9	0.0312714
8533.72	0.0302824
8545.54	0.0292768
8551.45	0.0287681
8563.27	0.0277391
8575.09	0.0266956
8581	0.0261687
8592.82	0.0251049
8604.64	0.0240287
8610.55	0.0234862
8622.37	0.0223929
8634.19	0.0212894
8640.1	0.020734
8651.92	0.0196166
8663.74	0.018491
8675.56	0.0173581
8681.47	0.0167892
8693.29	0.015647
8705.11	0.0144996
8711.02	0.0139242
8722.84	0.0127707
8734.66	0.0116141
8740.57	0.0110349
8752.39	0.00987537
8764.21	0.00871485
8770.12	0.00813448
8781.94	0.00697405
8793.75	0.0058147
8805.57	0.00465722
8811.48	0.00407943
8823.3	0.00292624
8835.12	0.00177687
8841.03	0.00120385
8852.85	6.16381e-05
8864.67	-0.00107488
8870.58	-0.00164077
8882.4	-0.00276737
8894.22	-0.00388649
8900.13	-0.00444302
8911.95	-0.00554961
8923.77	-0.006647
8935.59	-0.00773456
8941.5	-0.00827444
8953.32	-0.00934605
8965.14	-0.0104063
8971.05	-0.0109319
8982.87	-0.0119739
8994.69	-0.0130031
9000.6	-0.0135127
9012.42	-0.0145216
9024.24	-0.0155163
9030.15	-0.0160082
9041.97	-0.0169807
9053.79	-0.0179379
9065.61	-0.0188792
9071.51	-0.0193439
9083.33	-0.0202607
9095.15	-0.0211607
9101.06	-0.0216042
9112.88	-0.0224783
9124.7	-0.0233346
9130.61	-0.023756
9142.43	-0.024585
9154.25	-0.0253956
9160.16	-0.0257939
9171.98	-0.0265763
9183.8	-0.0273395
9195.62	-0.0280834
9201.53	-0.028448
9213.35	-0.0291625
9225.17	-0.0298572
9231.08	-0.0301971
9242.9	-0.0308619
9254.72	-0.0315066
9260.63	-0.0318214
9272.45	-0.0324358
9284.27	-0.0330299
9290.18	-0.0333193
9302	-0.033883
9313.82	-0.0344263
9325.64	-0.0349492
9331.55	-0.0352031
9343.37	-0.0356956
9355.19	-0.0361679
9361.09	-0.0363965
9372.91	-0.0368386
9384.73	-0.0372607
9390.64	-0.0374643
9402.46	-0.0378566
9414.28	-0.0382292
9420.19	-0.0384081
9432.01	-0.0387515
9443.83	-0.0390756
9455.65	-0.0393806
9461.56	-0.039526
9473.38	-0.0398028
9485.2	-0.040061
9491.11	-0.0401833
9502.93	-0.0404141
9514.75	-0.040627
9520.66	-0.0407268
9532.48	-0.0409133
9544.3	-0.0410826
9550.21	-0.0411608
9562.03	-0.0413047
9573.85	-0.0414321
9585.67	-0.0415433
9591.58	-0.0415929
9603.4	-0.0416803
9615.22	-0.0417523
9621.13	-0.0417826
9632.95	-0.0418321
9644.77	-0.041867
9650.68	-0.0418791
9662.49	-0.0418928
9674.31	-0.0418928
9680.22	-0.0418877
9692.04	-0.0418677
9703.86	-0.0418349
9715.68	-0.0417895
9721.59	-0.0417623
9733.41	-0.0416989
9745.23	-0.0416238
9751.14	-0.041582
9762.96	-0.0414902
9774.78	-0.0413876
9780.69	-0.0413324
9792.51	-0.0412143
9804.33	-0.0410864
9810.24	-0.0410188
9822.06	-0.0408767
9833.88	-0.0407255
9845.7	-0.0405656
9851.61	-0.0404825
9863.43	-0.0403102
9875.25	-0.04013
9881.16	-0.040037
9892.98	-0.0398455
9904.8	-0.0396469
9910.71	-0.039545
9922.53	-0.0393362
9934.35	-0.0391211
9940.26	-0.0390112
9952.08	-0.038787
9963.9	-0.0385572
9975.71	-0.0383219
9981.62	-0.0382022
9993.44	-0.0379593
10005.3	-0.0377115
10011.2	-0.0375859
10023	-0.0373314
10034.8	-0.0370727
10040.7	-0.0369418
10052.5	-0.0366772
10064.4	-0.0364089
10070.3	-0.0362735
10082.1	-0.0360001
10093.9	-0.0357235
10105.7	-0.0354439
10111.6	-0.035303
10123.5	-0.0350192
10135.3	-0.0347328
10141.2	-0.0345887
10153	-0.0342988
10164.8	-0.0340066
10170.7	-0.0338597
10182.6	-0.0335644
10194.4	-0.0332673
10200.3	-0.033118
10212.1	-0.0328182
10223.9	-0.0325168
10235.7	-0.0322138
10241.7	-0.0320618
10253.5	-0.0317567
10265.3	-0.0314503
10271.2	-0.0312966
10283	-0.0309883
10294.8	-0.0306789
10300.8	-0.0305238
10312.6	-0.0302127
10324.4	-0.0299006
10330.3	-0.0297442
10342.1	-0.0294307
10353.9	-0.0291162
10365.8	-0.0288008
10371.7	-0.0286427
10383.5	-0.028326
10395.3	-0.0280084
10401.2	-0.0278493
10413	-0.0275305
10424.9	-0.0272107
10430.8	-0.0270506
10442.6	-0.0267296
10454.4	-0.0264077
10460.3	-0.0262464
10472.1	-0.0259233
10484	-0.0255992
10495.8	-0.0252742
10501.7	-0.0251113
10513.5	-0.0247849
10525.3	-0.0244575
10531.2	-0.0242935
10543.1	-0.0239645
10554.9	-0.0236346
10560.8	-0.0234692
10572.6	-0.0231375
10584.4	-0.0228048
10590.3	-0.0226379
10602.2	-0.0223034
10614	-0.0219676
10625.8	-0.0216305
10631.7	-0.0214614
10643.5	-0.0211223
10655.3	-0.0207818
10661.3	-0.020611
10673.1	-0.0202683
10684.9	-0.0199242
10690.8	-0.0197515
10702.6	-0.019405
10714.4	-0.0190569
10720.4	-0.0188822
10732.2	-0.0185316
10744	-0.0181792
10755.8	-0.0178252
10761.7	-0.0176475
10773.5	-0.0172907
10785.4	-0.0169321
10791.3	-0.016752
10803.1	-0.0163906
10814.9	-0.0160272
10820.8	-0.0158448
10832.6	-0.0154784
10844.5	-0.0151101
10850.4	-0.0149252
10862.2	-0.0145538
10874	-0.0141804
10885.8	-0.0138049
10891.7	-0.0136164
10903.6	-0.0132377
10915.4	-0.012857
10921.3	-0.0126658
10933.1	-0.0122819
10944.9	-0.0118959
10950.8	-0.0117021
10962.7	-0.0113129
10974.5	-0.0109216
10980.4	-0.0107251
10992.2	-0.0103307
11004	-0.00993411
11015.8	-0.00953552
11021.8	-0.00933545
11033.6	-0.0089338
11045.4	-0.00853015
11051.3	-0.00832759
11063.1	-0.007921
11074.9	-0.00751251
11080.8	-0.00730755
11092.7	-0.00689627
11104.5	-0.00648318
11110.4	-0.00627597
11122.2	-0.00586028
11134	-0.00544293
11145.9	-0.00502397
11151.8	-0.00481391
11163.6	-0.00439268
11175.4	-0.00397001
11181.3	-0.00375816
11193.1	-0.00333349
11205	-0.00290758
11210.9	-0.00269419
11222.7	-0.00226659
11234.5	-0.00183798
11240.4	-0.00162332
11252.2	-0.00119336
11264.1	-0.000762632
11275.9	-0.000331232
11281.8	-0.000115315
11293.6	0.000316887
11305.4	0.000749484
11311.3	0.000965895
11323.2	0.00139887
11335	0.00183194
11340.9	0.00204848
11352.7	0.00248148
11364.5	0.00291427
11370.4	0.00313054
11382.2	0.00356277
11394.1	0.00399446
11405.9	0.00442548
11411.8	0.0046407
11423.6	0.00507044
11435.4	0.00549917
11441.3	0.00571311
11453.2	0.00614003
11465	0.00656558
11470.9	0.00677778
11482.7	0.00720098
11494.5	0.00762242
11500.4	0.00783244
11512.3	0.00825097
11524.1	0.00866737
11535.9	0.0090815
11541.8	0.00928766
11553.6	0.00969807
11565.5	0.0101058
11571.4	0.0103087
11583.2	0.0107121
11595	0.0111125
11600.9	0.0113116
11612.7	0.0117071
11624.6	0.0120992
11630.5	0.012294
11642.3	0.0126806
11654.1	0.0130635
11660	0.0132535
11671.8	0.0136303
11683.7	0.014003
11695.5	0.0143713
11701.4	0.0145538
11713.2	0.0149153
11725	0.0152722
11730.9	0.0154488
11742.7	0.0157983
11754.6	0.0161427
11760.5	0.016313
11772.3	0.0166495
11784.1	0.0169807
11790	0.0171442
11801.8	0.017467
11813.7	0.017784
11825.5	0.0180951
11831.4	0.0182485
11843.2	0.0185506
11855	0.0188465
11860.9	0.018992
11872.8	0.0192784
11884.6	0.0195583
11890.5	0.0196958
11902.3	0.0199657
11914.1	0.0202288
11920	0.0203578
11931.9	0.0206106
11943.7	0.0208563
11955.5	0.0210949
11961.4	0.0212115
11973.2	0.0214392
11985.1	0.0216595
11991	0.0217668
12002.8	0.0219758
12014.6	0.0221773
12020.5	0.0222751
12032.3	0.0224649
12044.1	0.0226469
12050.1	0.022735
12061.9	0.0229051
12073.7	0.0230672
12085.5	0.0232213
12091.4	0.0232952
12103.2	0.023437
12115.1	0.0235706
12121	0.0236343
12132.8	0.0237554
12144.6	0.0238681
12150.5	0.0239212
12162.3	0.0240213
12174.2	0.0241128
12180.1	0.0241553
12191.9	0.024234
12203.7	0.0243041
12215.5	0.0243655
12221.4	0.0243929
12233.3	0.0244413
12245.1	0.0244809
12251	0.0244974
12262.8	0.0245239
12274.6	0.0245416
12280.5	0.0245472
12292.4	0.0245516
12304.2	0.0245472
12310.1	0.0245417
12321.9	0.0245241
12333.7	0.0244976
12345.5	0.0244622
12351.5	0.0244412
12363.3	0.0243926
12375.1	0.0243351
12381	0.024303
12392.8	0.0242322
12404.6	0.0241526
12410.6	0.0241094
12422.4	0.0240166
12434.2	0.0239149
12440.1	0.0238608
12451.9	0.023746
12463.7	0.0236225
12475.6	0.0234903
12481.5	0.0234209
12493.3	0.0232757
12505.1	0.0231219
12511	0.0230418
12522.8	0.0228752
12534.7	0.0227
12540.6	0.0226093
12552.4	0.0224215
12564.2	0.0222254
12570.1	0.0221242
12581.9	0.0219157
12593.8	0.0216989
12605.6	0.021474
12611.5	0.0213586
12623.3	0.0211216
12635.1	0.0208767
12641	0.0207513
12652.9	0.0204947
12664.7	0.0202303
12670.6	0.0200952
12682.4	0.0198194
12694.2	0.0195361
12700.1	0.0193916
12712	0.0190973
12723.8	0.0187956
12735.6	0.0184869
12741.5	0.0183299
12753.3	0.0180106
12765.1	0.0176846
12771.1	0.017519
12782.9	0.0171829
12794.7	0.0168403
12800.6	0.0166665
12812.4	0.0163144
12824.2	0.015956
12830.2	0.0157745
12842	0.0154071
12853.8	0.0150339
12865.6	0.014655
12871.5	0.0144635
12883.3	0.0140763
12895.2	0.0136839
12901.1	0.0134857
12912.9	0.0130856
12924.7	0.0126807
12930.6	0.0124764
12942.4	0.0120644
12954.3	0.011648
12960.2	0.0114381
12972	0.0110153
12983.8	0.0105885
12995.6	0.0101579
13001.5	0.00994117
13013.4	0.00950513
13025.2	0.00906572
13031.1	0.00884482
13042.9	0.00840073
13054.7	0.00795375
13060.6	0.00772925
13072.5	0.00727832
13084.3	0.00682501
13090.2	0.00659752
13102	0.006141
13113.8	0.0056826
13125.6	0.00522252
13131.6	0.00499191
13143.4	0.00452969
13155.2	0.00406631
13161.1	0.00383424
13172.9	0.0033695
13184.7	0.0029041
13190.7	0.00267122
13202.5	0.00220525
13214.3	0.00173914
13220.2	0.0015061
13232	0.00104019
13243.8	0.000574672
13255.7	0.000109749
13261.6	-0.000122423
13273.4	-0.000586062
13285.2	-0.00104859
13291.1	-0.00127937
13302.9	-0.00173985
13314.8	-0.00219871
13320.7	-0.00242747
13332.5	-0.00288352
13344.3	-0.00333745
13350.2	-0.00356356
13362	-0.00401395
13373.9	-0.00446173
13385.7	-0.00490672
13391.6	-0.0051281
13403.4	-0.00556854
13415.2	-0.00600571
13421.1	-0.00622302
13433	-0.00665495
13444.8	-0.00708317
13450.7	-0.00729583
13462.5	-0.00771815
13474.3	-0.00813632
13480.2	-0.0083438
13492.1	-0.00875544
13503.9	-0.00916251
13515.7	-0.00956488
13521.6	-0.00976424
13533.4	-0.0101592
13545.2	-0.0105491
13551.2	-0.0107421
13563	-0.0111241
13574.8	-0.0115006
13580.7	-0.0116868
13592.5	-0.0120549
13604.3	-0.0124172
13610.2	-0.0125962
13622.1	-0.0129496
13633.9	-0.0132969
13645.7	-0.013638
13651.6	-0.0138062
13663.4	-0.0141379
13675.3	-0.014463
13681.2	-0.0146231
13693	-0.0149384
13704.8	-0.015247
13710.7	-0.0153987
13722.5	-0.0156971
13734.4	-0.0159885
13740.3	-0.0161316
13752.1	-0.0164126
13763.9	-0.0166864
13775.7	-0.0169531
13781.6	-0.0170837
13793.5	-0.0173396
13805.3	-0.0175881
13811.2	-0.0177096
13823	-0.0179472
13834.8	-0.0181773
13840.7	-0.0182895
13852.6	-0.0185084
13864.4	-0.0187199
13870.3	-0.0188228
13882.1	-0.0190229
13893.9	-0.0192155
13905.7	-0.0194005
13911.6	-0.0194902
13923.5	-0.0196638
13935.3	-0.0198298
13941.2	-0.01991
13953	-0.0200647
13964.8	-0.0202117
13970.7	-0.0202824
13982.6	-0.0204181
13994.4	-0.0205462
14000.3	-0.0206075
14012.1	-0.0207243
14023.9	-0.0208336
14035.8	-0.0209354
14041.7	-0.0209835
14053.5	-0.0210742
14065.3	-0.0211574
14071.2	-0.0211962
14083	-0.0212684
14094.9	-0.0213333
14100.8	-0.021363
14112.6	-0.021417
14124.4	-0.0214637
14130.3	-0.0214844
14142.1	-0.0215205
14154	-0.0215496
14165.8	-0.0215716
14171.7	-0.02158
14183.5	-0.0215916
14195.3	-0.0215964
14201.2	-0.0215963
14213	-0.0215909
14224.9	-0.0215789
14230.8	-0.0215704
14242.6	-0.0215485
14254.4	-0.0215201
14260.3	-0.0215035
14272.1	-0.0214655
14284	-0.0214212
14295.8	-0.0213708
14301.7	-0.0213432
14313.5	-0.0212836
14325.3	-0.0212179
14331.2	-0.0211829
14343.1	-0.0211084
14354.9	-0.0210282
14360.8	-0.0209859
14372.6	-0.0208972
14384.4	-0.0208029
14390.3	-0.0207537
14402.2	-0.0206513
14414	-0.0205435
14425.8	-0.0204306
14431.7	-0.0203722
14443.5	-0.0202517
14455.4	-0.0201262
14461.3	-0.0200616
14473.1	-0.0199289
14484.9	-0.0197914
14490.8	-0.019721
14502.6	-0.0195767
14514.4	-0.019428
14520.4	-0.019352
14532.2	-0.0191968
14544	-0.0190374
14555.8	-0.018874
14561.7	-0.0187908
14573.5	-0.0186216
14585.4	-0.0184485
14591.3	-0.0183606
14603.1	-0.018182
14614.9	-0.018
14620.8	-0.0179077
14632.6	-0.0177206
14644.5	-0.0175303
14650.4	-0.0174339
14662.2	-0.017239
14674	-0.0170411
14685.8	-0.0168404
14691.7	-0.016739
14703.6	-0.0165343
14715.4	-0.0163271
14721.3	-0.0162225
14733.1	-0.0160117
14744.9	-0.0157986
14750.8	-0.0156912
14762.7	-0.015475
14774.5	-0.0152568
14780.4	-0.015147
14792.2	-0.0149261
14804	-0.0147035
14815.9	-0.0144794
14821.8	-0.0143668
14833.6	-0.0141406
14845.4	-0.0139131
14851.3	-0.0137989
14863.1	-0.0135698
14874.9	-0.0133397
14880.9	-0.0132244
14892.7	-0.0129931
14904.5	-0.0127611
14910.4	-0.0126449
14922.2	-0.0124121
14934	-0.012179
14945.9	-0.0119456
14951.8	-0.0118289
14963.6	-0.0115953
14975.4	-0.0113618
14981.3	-0.011245
14993.1	-0.0110118
15005	-0.0107788
15010.9	-0.0106625
15022.7	-0.0104302
15034.5	-0.0101985
15040.4	-0.0100829
15052.2	-0.00985236
15064.1	-0.00962266
15075.9	-0.00939394
15081.8	-0.00927999
15093.6	-0.00905295
15105.4	-0.00882717
15111.3	-0.00871479
15123.2	-0.0084911
15135	-0.00826893
15140.9	-0.00815845
15152.7	-0.00793876
15164.5	-0.00772085
15170.4	-0.0076126
15182.3	-0.00739756
15194.1	-0.00718456
15205.9	-0.0069737
15211.8	-0.00686909
15223.6	-0.00666161
15235.4	-0.00645651
15241.4	-0.00635488
15253.2	-0.00615352
15265	-0.00595477
15270.9	-0.00585641
15282.7	-0.00566174
15294.5	-0.00546992
15300.5	-0.0053751
15312.3	-0.00518769
15324.1	-0.00500333
15330	-0.00491232
15341.8	-0.00473268
15353.6	-0.00455631
15365.5	-0.00438326
15371.4	-0.00429801
15383.2	-0.00413011
15395	-0.00396572
15400.9	-0.00388487
15412.7	-0.0037259
15424.6	-0.00357062
15430.5	-0.00349439
15442.3	-0.00334477
15454.1	-0.00319902
15460	-0.00312761
15471.8	-0.00298775
15483.7	-0.0028519
15495.5	-0.00272012
15501.4	-0.00265577
15513.2	-0.00253018
15525	-0.00240878
15530.9	-0.00234967
15542.8	-0.00223464
15554.6	-0.00212393
15560.5	-0.00207021
15572.3	-0.00196603
15584.1	-0.00186627
15590	-0.00181805
15601.9	-0.00172497
15613.7	-0.00163638
15625.5	-0.00155231
15631.4	-0.00151199
15643.2	-0.00143476
15655	-0.00136212
15661	-0.00132752
15672.8	-0.0012618
15684.6	-0.00120071
15690.5	-0.00117191
15702.3	-0.0011178
15714.1	-0.00106836
15720.1	-0.00104539
15731.9	-0.00100297
15743.7	-0.000965218
15755.5	-0.000932153
15761.4	-0.000917376
15773.2	-0.000891331
15785.1	-0.000869961
15791	-0.000861026
15802.8	-0.000846651
15814.6	-0.000836925
15820.5	-0.000833802
15832.3	-0.000831021
15844.2	-0.000832848
15850.1	-0.000835482
15861.9	-0.000844179
15873.7	-0.000857425
15885.5	-0.000875191
15891.4	-0.00088576
15903.3	-0.000910249
15915.1	-0.000939177
15921	-0.000955293
15932.8	-0.000990808
15944.6	-0.00103066
15950.5	-0.0010522
15962.4	-0.00109849
15974.2	-0.00114899
15980.1	-0.00117582
15991.9	-0.00123257
16003.7	-0.00129341
16015.5	-0.00135829
16021.5	-0.00139222
16033.3	-0.00146305
16045.1	-0.00153776
16051	-0.00157654
16062.8	-0.00165695
16074.6	-0.00174108
16080.5	-0.00178451
16092.4	-0.00187407
16104.2	-0.00196716
16110.1	-0.002015
16121.9	-0.00211324
16133.7	-0.00221481
16145.6	-0.00231962
16151.5	-0.00237322
16163.3	-0.00248275
16175.1	-0.00259531
16181	-0.00265269
16192.8	-0.00276962
16204.7	-0.00288934
16210.6	-0.00295023
16222.4	-0.00307397
16234.2	-0.00320026
16240.1	-0.00326433
16251.9	-0.00339426
16263.8	-0.00352649
16275.6	-0.00366091
16281.5	-0.0037289
16293.3	-0.0038664
16305.1	-0.00400582
16311	-0.00407622
16322.9	-0.00421831
16334.7	-0.00436203
16340.6	-0.00443447
16352.4	-0.00458044
16364.2	-0.00472775
16370.1	-0.00480187
16382	-0.00495099
16393.8	-0.00510115
16405.6	-0.00525223
16411.5	-0.00532809
16423.3	-0.00548034
16435.1	-0.00563321
16441	-0.00570985
16452.9	-0.00586342
16464.7	-0.00601731
16470.6	-0.00609433
16482.4	-0.00624844
16494.2	-0.00640256
16500.1	-0.00647957
16512	-0.00663344
16523.8	-0.006787
16535.6	-0.0069401
16541.5	-0.00701645
16553.3	-0.00716865
16565.2	-0.00732009
16571.1	-0.00739548
16582.9	-0.00754554
16594.7	-0.00769453
16600.6	-0.00776858
16612.4	-0.00791572
16624.3	-0.00806147
16630.2	-0.00813379
16642	-0.00827723
16653.8	-0.00841898
16665.6	-0.00855892
16671.5	-0.00862817
16683.4	-0.00876517
16695.2	-0.00890007
16701.1	-0.00896669
16712.9	-0.00909821
16724.7	-0.00922733
16730.6	-0.00929096
16742.4	-0.00941629
16754.3	-0.00953896
16760.2	-0.00959926
16772	-0.00971772
16783.8	-0.00983326
16795.6	-0.00994577
16801.5	-0.0100009
16813.4	-0.0101086
16825.2	-0.0102132
16831.1	-0.0102642
16842.9	-0.0103636
16854.7	-0.0104595
16860.6	-0.0105062
16872.5	-0.0105967
16884.3	-0.0106836
16890.2	-0.0107256
16902	-0.0108067
16913.8	-0.010884
16925.7	-0.0109573
16931.6	-0.0109925
16943.4	-0.0110597
16955.2	-0.0111229
16961.1	-0.0111529
16972.9	-0.0112098
16984.8	-0.0112624
16990.7	-0.0112872
17002.5	-0.0113333
17014.3	-0.0113752
17020.2	-0.0113945
17032	-0.0114297
17043.8	-0.0114605
17055.7	-0.0114869
17061.6	-0.0114984
17073.4	-0.011518
17085.2	-0.0115331
17091.1	-0.011539
17102.9	-0.0115473
17114.8	-0.0115511
17120.7	-0.0115513
17132.5	-0.0115483
17144.3	-0.0115408
17150.2	-0.0115353
17162	-0.011521
17173.9	-0.0115023
17185.7	-0.011479
17191.6	-0.0114657
17203.4	-0.0114359
17215.2	-0.0114016
17221.1	-0.0113828
17233	-0.011342
17244.8	-0.0112969
17250.7	-0.0112727
17262.5	-0.0112213
17274.3	-0.0111657
17280.2	-0.0111363
17292.1	-0.0110745
17303.9	-0.0110087
17315.7	-0.010939
17321.6	-0.0109027
17333.4	-0.0108272
17345.2	-0.0107479
17351.2	-0.0107069
17363	-0.0106221
17374.8	-0.0105338
17380.7	-0.0104884
17392.5	-0.0103949
17404.3	-0.0102981
17410.3	-0.0102485
17422.1	-0.010147
17433.9	-0.0100424
17445.7	-0.00993481
17451.6	-0.00987996
17463.4	-0.00976819
17475.3	-0.00965374
17481.2	-0.00959556
17493	-0.00947734
17504.8	-0.00935675
17510.7	-0.00929561
17522.5	-0.0091717
17534.4	-0.00904574
17540.3	-0.00898204
17552.1	-0.00885324
17563.9	-0.00872273
17575.7	-0.00859062
17581.6	-0.00852401
17593.5	-0.00838977
17605.3	-0.00825429
17611.2	-0.00818612
17623	-0.00804902
17634.8	-0.00791103
17640.7	-0.00784174
17652.6	-0.00770266
17664.4	-0.00756305
17670.3	-0.00749308
17682.1	-0.00735291
17693.9	-0.00721256
17705.7	-0.00707217
17711.7	-0.007002
17723.5	-0.00686181
17735.3	-0.00672194
17741.2	-0.00665216
17753	-0.00651303
17764.8	-0.00637456
17770.8	-0.00630562
17782.6	-0.00616842
17794.4	-0.00603224
17800.3	-0.00596457
17812.1	-0.00583017
17823.9	-0.00569712
17835.8	-0.00556557
17841.7	-0.00550039
17853.5	-0.00537131
17865.3	-0.00524405
17871.2	-0.00518113
17883	-0.00505682
17894.9	-0.00493464
17900.8	-0.00487438
17912.6	-0.0047556
17924.4	-0.00463924
17930.3	-0.004582
17942.1	-0.00446948
17954	-0.00435965
17965.8	-0.00425261
17971.7	-0.00420018
17983.5	-0.00409753
17995.3	-0.00399792
18001.2	-0.00394929
18013.1	-0.00385443
18024.9	-0.00376283
18030.8	-0.00371828
18042.6	-0.00363174
18054.4	-0.00354867
18060.3	-0.00350846
18072.2	-0.00343072
18084	-0.00335663
18095.8	-0.00328624
18101.7	-0.00325245
18113.5	-0.00318772
18125.3	-0.00312683
18131.3	-0.00309785
18143.1	-0.00304281
18154.9	-0.00299171
18160.8	-0.00296766
18172.6	-0.00292255
18184.4	-0.00288147
18190.4	-0.00286245
18202.2	-0.00282745
18214	-0.00279653
18225.8	-0.0027697
18231.7	-0.00275782
18243.5	-0.00273712
18255.4	-0.00272053
18261.3	-0.00271376
18273.1	-0.0027033
18284.9	-0.0026969
18290.8	-0.00269523
18302.6	-0.00269491
18314.5	-0.00269861
18320.4	-0.00270196
18332.2	-0.00271163
18344	-0.00272525
18355.8	-0.00274276
18361.7	-0.00275297
18373.6	-0.00277624
18385.4	-0.0028033
18391.3	-0.00281823
18403.1	-0.00285084
18414.9	-0.00288709
18420.8	-0.00290655
18432.7	-0.00294812
18444.5	-0.00299314
18450.4	-0.00301692
18462.2	-0.00306698
18474	-0.0031203
18485.8	-0.00317679
18491.8	-0.0032062
18503.6	-0.00326728
18515.4	-0.0033313
18521.3	-0.00336438
18533.1	-0.00343263
18544.9	-0.00350356
18550.9	-0.00354001
18562.7	-0.00361478
18574.5	-0.00369197
18580.4	-0.00373144
18592.2	-0.00381204
18604	-0.00389478
18615.9	-0.00397954
18621.8	-0.00402263
18633.6	-0.00411017
18645.4	-0.00419942
18651.3	-0.00424465
18663.1	-0.00433622
18675	-0.00442918
18680.9	-0.00447614
18692.7	-0.00457093
18704.5	-0.00466679
18710.4	-0.00471507
18722.2	-0.00481227
18734.1	-0.00491018
18745.9	-0.00500869
18751.8	-0.00505812
18763.6	-0.00515726
18775.4	-0.00525665
18781.3	-0.00530639
18793.2	-0.00540589
18805	-0.0055053
18810.9	-0.00555493
18822.7	-0.00565394
18834.5	-0.00575253
18840.4	-0.00580161
18852.3	-0.00589929
18864.1	-0.0059962
18875.9	-0.00609221
18881.8	-0.00613984
18893.6	-0.00623425
18905.4	-0.00632742
18911.4	-0.00637351
18923.2	-0.00646461
18935	-0.00655415
18940.9	-0.00659831
18952.7	-0.0066853
18964.5	-0.00677044
18970.4	-0.00681227
18982.3	-0.00689441
18994.1	-0.00697439
19005.9	-0.00705212
19011.8	-0.0070901
19023.6	-0.00716422
19035.5	-0.00723582
19041.4	-0.00727063
19053.2	-0.00733823
19065	-0.00740305
19070.9	-0.00743438
19082.7	-0.00749484
19094.6	-0.00755227
19100.5	-0.00757983
19112.3	-0.00763257
19124.1	-0.00768207
19130	-0.00770559
19141.8	-0.00775009
19153.7	-0.00779117
19165.5	-0.00782875
19171.4	-0.00784621
19183.2	-0.00787842
19195	-0.00790698
19200.9	-0.00791986
19212.8	-0.00794283
19224.6	-0.007962
19230.5	-0.00797015
19242.3	-0.00798354
19254.1	-0.00799303
19260	-0.0079963
19271.8	-0.00799987
19283.7	-0.00799945
19295.5	-0.00799501
19301.4	-0.00799128
19313.2	-0.00798078
19325	-0.0079662
19330.9	-0.00795739
19342.8	-0.0079367
19354.6	-0.00791191
19360.5	-0.00789798
19372.3	-0.00786706
19384.1	-0.00783204
19390	-0.007813
19401.9	-0.00777185
19413.7	-0.00772664
19425.5	-0.00767738
19431.4	-0.00765124
19443.2	-0.00759594
19455.1	-0.00753665
19461	-0.00750551
19472.8	-0.00744029
19484.6	-0.00737115
19490.5	-0.00733513
19502.3	-0.0072602
19514.2	-0.00718145
19520.1	-0.00714067
19531.9	-0.0070563
19543.7	-0.00696824
19555.5	-0.00687655
19561.4	-0.00682936
19573.2	-0.00673233
19585.1	-0.00663182
19591	-0.00658028
19602.8	-0.00647467
19614.6	-0.00636574
19620.5	-0.00631006
19632.3	-0.00619629
19644.2	-0.00607939
19650.1	-0.00601979
19661.9	-0.00589834
19673.7	-0.00577396
19685.5	-0.00564673
19691.4	-0.00558207
19703.3	-0.00545071
19715.1	-0.00531672
19721	-0.00524877
19732.8	-0.00511099
19744.6	-0.0049708
19750.5	-0.00489983
19762.4	-0.0047562
19774.2	-0.00461039
19780.1	-0.0045367
19791.9	-0.0043878
19803.7	-0.00423696
19815.6	-0.00408429
19821.5	-0.00400729
19833.3	-0.00385204
19845.1	-0.00369519
19851	-0.0036162
19862.8	-0.00345715
19874.6	-0.00329676
19880.6	-0.00321609
19892.4	-0.00305386
19904.2	-0.00289054
19910.1	-0.0028085
19921.9	-0.00264373
19933.7	-0.0024781
19945.6	-0.00231173
19951.5	-0.0022283
19963.3	-0.00206099
19975.1	-0.00189317
19981	-0.00180911
19992.8	-0.00164072
