0	0
16.3148	0
24.4721	0
32.6293	0
40.7865	0
57.1005	0
65.2573	0
73.4141	0
81.5708	0
97.8842	0
106.041	0
114.198	0
122.354	0
130.511	0
146.577	0
154.572	0
162.559	0
170.547	0
186.521	0
194.508	0
202.495	0
210.482	0
226.456	0
234.444	0
242.431	0
250.4	0
266.34	0
274.31	0
282.297	0
290.284	0
306.258	0
314.245	0
322.232	0
330.218	0
346.175	0
354.162	0
362.149	0
370.135	0
386.109	0
394.096	0
401.896	0
417.498	0
425.299	0
433.1	0
440.901	0
456.329	0
464.044	0
471.739	0
487.168	0
494.774	0
502.381	0
517.595	0
525.186	0
532.796	0
540.406	0
555.586	0
563.156	0
570.727	0
585.868	0
593.45	0
601.031	0
616.194	0
623.775	0
631.357	0
646.52	0
654.101	0
661.682	0
676.845	0
684.427	0
692.008	0
707.153	0
714.727	0
722.301	0
737.439	0
745.003	0
752.568	0
760.132	0
775.261	0
782.826	0
790.39	0
805.519	0
813.084	0
820.648	0
835.777	0
843.342	0
850.906	0
866.035	0
873.599	0
881.164	0
896.293	0
903.857	0
911.421	0
926.55	0
934.114	0
941.679	0
956.807	0
964.372	0
971.936	0
987.065	0
994.629	0
1002.19	0
1017.32	0
1024.89	0
1032.45	0
1040.02	0
1055.14	0
1062.71	0
1070.27	0
1085.4	0
1092.97	0
1100.53	0
1115.66	0
1123.22	0
1130.79	0
1145.92	0
1153.48	0
1161.04	0
1176.17	0
1183.74	0
1191.3	0
1206.43	0
1213.99	0
1221.56	0
1236.69	0
1244.25	0
1251.82	0
1266.94	0
1274.51	0
1282.07	0
1297.11	0
1304.63	0
1312.15	0
1327.18	0
1334.69	0
1342.2	0
1357.23	0
1364.75	0
1372.26	0
1387.29	0
1394.81	0
1402.32	0
1417.35	0
1424.87	0
1432.37	0
1447.36	0
1454.86	0
1462.33	0
1477.3	0
1484.78	0
1492.26	0
1507.19	0
1514.65	0
1522.1	0
1537.01	0
1544.47	0
1551.92	0
1566.83	0
1574.29	0
1581.74	0
1596.65	0
1604.1	0
1611.55	0
1626.44	0
1633.89	0
1641.33	0
1656.23	0
1663.67	0
1671.12	0
1686.01	0
1693.46	0
1700.9	0
1715.79	0
1723.24	0
1730.69	0
1745.58	0
1753.02	0
1760.47	0
1775.36	0
1782.81	0
1790.25	0
1805.14	0
1812.59	0
1820.04	0
1834.92	0
1842.36	0
1857.24	0
1864.68	0
1872.11	0
1886.98	0
1894.42	0
1901.85	0
1916.72	0
1924.16	0
1931.59	0
1946.45	0
1953.88	0
1961.31	0
1976.17	0
1983.6	0
1991.03	0
2005.89	0
2013.32	0
2020.75	0
2035.61	0
2043.04	0
2050.47	9.09495e-13
2065.33	1.81899e-12
2072.76	1.81899e-12
2080.2	2.72848e-12
2095.06	4.54747e-12
2102.49	5.45697e-12
2117.35	9.09495e-12
2124.78	1.09139e-11
2132.21	1.36424e-11
2147.07	2.09184e-11
2154.5	2.63753e-11
2161.93	3.27418e-11
2176.79	5.00222e-11
2184.22	6.18456e-11
2191.65	7.63976e-11
2206.51	1.16415e-10
2213.94	1.42791e-10
2221.37	1.75532e-10
2236.23	2.62844e-10
2243.66	3.21052e-10
2251.09	3.91083e-10
2265.95	5.7571e-10
2273.38	6.97582e-10
2280.81	8.43102e-10
2295.67	1.22509e-09
2303.1	1.47247e-09
2310.53	1.76624e-09
2325.39	2.5284e-09
2332.82	3.01679e-09
2340.25	3.59341e-09
2355.11	5.07043e-09
2362.54	6.00721e-09
2377.4	8.38918e-09
2384.83	9.88894e-09
2392.26	1.16379e-08
2407.12	1.6038e-08
2414.55	1.87811e-08
2421.98	2.19579e-08
2436.84	2.98714e-08
2444.27	3.47582e-08
2451.7	4.03807e-08
2466.56	5.42495e-08
2473.99	6.2736e-08
2481.42	7.24394e-08
2496.28	9.615e-08
2503.71	1.10529e-07
2511.14	1.26873e-07
2525.96	1.66331e-07
2533.37	1.90018e-07
2540.77	2.16774e-07
2555.57	2.80935e-07
2562.96	3.19075e-07
2570.34	3.61905e-07
2585.11	4.63721e-07
2592.5	5.23874e-07
2607.27	6.65992e-07
2614.65	7.49464e-07
2622.03	8.42323e-07
2636.8	1.05997e-06
2644.19	1.18683e-06
2651.57	1.32723e-06
2666.34	1.65379e-06
2673.73	1.84272e-06
2681.11	2.0508e-06
2695.84	2.52969e-06
2703.2	2.80468e-06
2710.57	3.10601e-06
2725.29	3.79633e-06
2732.66	4.19001e-06
2740.02	4.6194e-06
2754.75	5.59628e-06
2762.11	6.14967e-06
2776.84	7.4023e-06
2784.2	8.10843e-06
2791.56	8.87268e-06
2806.29	1.05913e-05
2813.65	1.1554e-05
2821.02	1.25916e-05
2835.74	1.49101e-05
2843.11	1.6201e-05
2850.47	1.75866e-05
2865.2	2.0664e-05
2872.56	2.23673e-05
2887.29	2.61336e-05
2894.65	2.82093e-05
2902.01	3.04223e-05
2916.74	3.52877e-05
2924.1	3.79545e-05
2931.47	4.07871e-05
2946.19	4.69809e-05
2953.56	5.03578e-05
2960.92	5.39322e-05
2975.64	6.1707e-05
2983.01	6.59245e-05
2990.37	7.03736e-05
3005.1	8.00029e-05
3012.46	8.52011e-05
3027.19	9.64114e-05
3034.55	0.000102442
3041.91	0.00010877
3056.64	0.000122353
3064	0.000129629
3071.37	0.00013724
3086.09	0.00015351
3093.46	0.000162189
3100.82	0.000171244
3115.55	0.000190523
3122.91	0.000200769
3130.27	0.000211431
3145	0.000234051
3152.36	0.00024603
3167.09	0.000271378
3174.45	0.000284769
3181.82	0.000298654
3196.54	0.000327947
3203.9	0.000343379
3211.27	0.00035935
3225.99	0.00039296
3233.36	0.000410623
3240.72	0.000428876
3255.45	0.000467206
3262.81	0.000487311
3270.17	0.000508062
3284.9	0.000551567
3292.26	0.000574354
3306.99	0.000622085
3314.35	0.000647067
3321.72	0.00067282
3336.44	0.000726726
3343.8	0.000754927
3351.17	0.000783992
3365.89	0.000844826
3373.26	0.000876653
3380.62	0.000909461
3395.35	0.00097816
3402.71	0.00101412
3410.07	0.00105122
3424.8	0.00112896
3432.16	0.00116971
3446.89	0.00125521
3454.25	0.00130007
3461.61	0.00134642
3476.34	0.00144383
3483.7	0.00149504
3491.07	0.00154802
3505.79	0.00165961
3513.15	0.00171839
3520.52	0.00177929
3535.24	0.00190784
3542.61	0.00197572
3557.33	0.00211924
3564.7	0.00219514
3572.06	0.00227398
3586.78	0.00244107
3594.15	0.00252962
3601.51	0.00262173
3616.24	0.00281732
3623.6	0.00292117
3630.96	0.00302932
3645.69	0.00325936
3653.05	0.00338168
3660.41	0.00350919
3675.14	0.00378072
3682.5	0.00392527
3697.23	0.00423328
3704.59	0.00439733
3711.96	0.00456849
3726.68	0.0049334
3734.04	0.00512782
3741.41	0.00533071
3756.13	0.00576332
3763.5	0.00599383
3770.86	0.00623433
3785.59	0.00674706
3792.95	0.00702013
3800.31	0.00730491
3815.04	0.00791112
3822.4	0.00823338
3837.13	0.00891894
3844.49	0.00928343
3851.85	0.00966266
3866.58	0.0104648
3873.94	0.0108882
3881.31	0.0113283
3896.03	0.0122724
3903.4	0.0127812
3910.76	0.0132984
3925.48	0.0143245
3932.85	0.0148674
3940.21	0.0154321
3954.94	0.0168148
3962.3	0.017515
3977.03	0.0196128
3984.39	0.0211349
3991.75	0.0247429
4006.48	0.0304421
4013.84	0.0338415
4021.21	0.03745
4035.93	0.0451142
4043.3	0.0491975
4050.66	0.0534919
4065.39	0.0627624
4072.75	0.0677539
4080.11	0.0730558
4094.84	0.0848209
4102.2	0.0913329
4116.93	0.10557
4124.29	0.113259
4131.68	0.121333
4146.46	0.138551
4153.84	0.147715
4161.23	0.157271
4176.01	0.17761
4183.39	0.1884
4190.78	0.199596
4205.56	0.223156
4212.95	0.235479
4220.33	0.248137
4235.11	0.274384
4242.5	0.287949
4257.27	0.315915
4264.66	0.330289
4272.05	0.344897
4286.82	0.374705
4294.21	0.389833
4301.6	0.405059
4316.37	0.435637
4323.76	0.450907
4331.15	0.466109
4345.93	0.496147
4353.31	0.510896
4360.7	0.525405
4375.48	0.553511
4382.86	0.567009
4390.26	0.580077
4405.04	0.604712
4412.43	0.616188
4427.21	0.637246
4434.6	0.646747
4442	0.65551
4456.89	0.67078
4464.33	0.677142
4471.78	0.682606
4486.67	0.690713
4494.11	0.693295
4501.55	0.694862
4516.61	0.694851
4524.13	0.693208
4531.66	0.690456
4546.71	0.681588
4554.23	0.675464
4561.76	0.668215
4576.81	0.650372
4584.34	0.639802
4591.86	0.628156
4606.91	0.601727
4614.44	0.586998
4621.97	0.571299
4637.02	0.537133
4644.54	0.518739
4652.07	0.499525
4667.12	0.45881
4674.65	0.437399
4682.17	0.415348
4697.22	0.369511
4704.75	0.345817
4712.28	0.321664
4727.33	0.272141
4734.85	0.246846
4742.38	0.221237
4757.43	0.169214
4764.96	0.142847
4772.48	0.11649
4780.01	0.0894955
4795.06	0.0373538
4802.59	0.0047345
4810.11	-0.013542
4825.16	-0.0498659
4832.69	-0.0645075
4840.21	-0.0608605
4855.27	-0.0790541
4862.79	-0.0865362
4870.32	-0.0945198
4885.37	-0.112334
4892.9	-0.121935
4900.42	-0.130852
4915.47	-0.146776
4923	-0.154145
4930.52	-0.161363
4945.58	-0.175761
4953.1	-0.18342
4960.63	-0.191172
4975.68	-0.206124
4983.21	-0.212948
4990.73	-0.219236
5005.78	-0.230358
5013.31	-0.23535
5020.84	-0.240064
5035.92	-0.248861
5043.47	-0.252982
5051.01	-0.256934
5066.12	-0.264377
5073.68	-0.267899
5081.25	-0.271308
5096.38	-0.277837
5103.94	-0.280953
5111.51	-0.283948
5126.63	-0.289468
5134.2	-0.291936
5141.76	-0.294178
5156.89	-0.297918
5164.46	-0.299401
5172.02	-0.300627
5187.15	-0.302325
5194.71	-0.302818
5202.28	-0.303091
5217.41	-0.303037
5224.97	-0.302744
5232.54	-0.302295
5240.1	-0.301705
5255.23	-0.300146
5262.79	-0.299191
5270.36	-0.298125
5285.49	-0.295657
5293.05	-0.294251
5300.62	-0.292725
5315.75	-0.2893
5323.31	-0.287396
5330.88	-0.285363
5346	-0.280914
5353.57	-0.278505
5361.13	-0.275981
5376.26	-0.270616
5383.83	-0.267793
5391.39	-0.264889
5406.52	-0.258879
5414.08	-0.255791
5421.65	-0.252659
5436.78	-0.246291
5444.34	-0.243066
5451.91	-0.23982
5467.03	-0.233274
5474.6	-0.22998
5482.16	-0.226674
5497.29	-0.220033
5504.86	-0.216702
5512.42	-0.213367
5527.55	-0.206696
5535.11	-0.203369
5542.68	-0.200051
5550.24	-0.196749
5565.37	-0.190209
5572.94	-0.186981
5580.5	-0.183788
5595.63	-0.177524
5603.15	-0.174479
5610.67	-0.171485
5625.7	-0.165658
5633.22	-0.162831
5640.73	-0.160063
5655.75	-0.154715
5663.27	-0.152132
5670.79	-0.149612
5685.82	-0.144767
5693.33	-0.142441
5700.85	-0.140182
5715.88	-0.135865
5723.39	-0.133808
5730.91	-0.131819
5745.94	-0.128048
5753.44	-0.12627
5760.94	-0.124561
5775.93	-0.121349
5783.41	-0.11985
5790.89	-0.118415
5805.85	-0.11574
5813.33	-0.114496
5820.81	-0.113314
5835.74	-0.111127
5843.2	-0.110119
5850.65	-0.109162
5865.56	-0.107397
5873.02	-0.106584
5880.47	-0.105814
5895.38	-0.104391
5902.84	-0.103733
5910.3	-0.103108
5925.2	-0.101943
5932.65	-0.101397
5940.1	-0.100872
5955	-0.0998705
5962.44	-0.0993889
5977.33	-0.0984475
5984.78	-0.0979819
5992.23	-0.0975156
6007.12	-0.0965703
6014.56	-0.0960859
6022.01	-0.0955904
6036.9	-0.0945572
6044.35	-0.0940153
6051.79	-0.0934543
6066.69	-0.0922683
6074.13	-0.0916407
6081.58	-0.0909886
6096.47	-0.089607
6103.92	-0.0888761
6111.36	-0.0881177
6126.25	-0.0865169
6133.7	-0.085674
6141.15	-0.0848026
6156.04	-0.0829744
6163.48	-0.0820186
6170.92	-0.0810348
6185.8	-0.0789851
6193.23	-0.0779208
6200.67	-0.0768305
6215.54	-0.0745752
6222.97	-0.0734119
6230.41	-0.0722262
6245.28	-0.0697918
6252.72	-0.0685456
6260.15	-0.0672818
6275.01	-0.0647086
6282.44	-0.0634013
6297.3	-0.0607527
6304.73	-0.0594146
6312.16	-0.0580692
6327.02	-0.0553629
6334.45	-0.0540051
6341.88	-0.052646
6356.74	-0.0499301
6364.17	-0.0485759
6371.6	-0.047226
6386.47	-0.0445439
6393.9	-0.0432141
6401.33	-0.0418932
6416.19	-0.039282
6423.62	-0.0379937
6431.05	-0.0367181
6445.91	-0.0342079
6453.34	-0.0329748
6460.77	-0.0317573
6475.63	-0.0293713
6483.06	-0.0282039
6490.49	-0.0270543
6505.35	-0.0248102
6512.78	-0.0237166
6520.21	-0.0226424
6535.07	-0.0205537
6542.5	-0.0195398
6557.36	-0.0175749
6564.79	-0.0166243
6572.22	-0.0156954
6587.08	-0.0139038
6594.51	-0.0130416
6601.94	-0.0122023
6616.8	-0.0105933
6624.23	-0.00982416
6631.66	-0.00907907
6646.52	-0.0076621
6653.95	-0.00699083
6661.38	-0.00634477
6676.25	-0.00512947
6683.68	-0.00456083
6691.11	-0.00401856
6705.97	-0.00301426
6713.4	-0.00255274
6720.83	-0.00211863
6735.69	-0.00133345
6743.12	-0.000982749
6750.55	-0.000660186
6765.41	-9.991e-05
6772.84	0.000137657
6780.27	0.000346801
6795.13	0.000679918
6802.56	0.000804039
6817.42	0.00096809
6824.85	0.00100843
6832.28	0.00102133
6847.14	0.000966168
6854.57	0.000898904
6861.99	0.000805964
6876.79	0.000545596
6884.2	0.000379242
6891.6	0.000189668
6906.4	-0.000256133
6913.8	-0.000510637
6921.19	-0.000784519
6935.96	-0.00138806
6943.34	-0.0017157
6950.73	-0.00205917
6965.5	-0.00278904
6972.88	-0.00317307
6980.27	-0.0035682
6995.04	-0.00438659
7002.42	-0.00480722
7017.19	-0.0056645
7024.57	-0.00609838
7031.96	-0.00653386
7046.73	-0.00740392
7054.11	-0.00783563
7061.5	-0.00826321
7076.27	-0.00910045
7083.65	-0.00950739
7091.04	-0.0099048
7105.81	-0.0106661
7113.19	-0.0110276
7120.57	-0.0113749
7135.34	-0.012022
7142.73	-0.0123196
7150.11	-0.0125985
7164.88	-0.0130957
7172.27	-0.013312
7187.04	-0.0136748
7194.42	-0.0138196
7201.81	-0.0139388
7216.58	-0.0140976
7223.96	-0.0141355
7231.34	-0.0141449
7246.11	-0.0140748
7253.5	-0.013994
7260.88	-0.0138819
7275.65	-0.0135615
7283.04	-0.0133523
7290.42	-0.01311
7305.19	-0.0125253
7312.58	-0.0121827
7327.34	-0.011397
7334.73	-0.0109541
7342.11	-0.010478
7356.88	-0.00942759
7364.27	-0.00885378
7371.65	-0.00824801
7386.42	-0.00694203
7393.81	-0.00624255
7401.19	-0.00551254
7415.96	-0.00396236
7423.35	-0.00314282
7430.73	-0.00229406
7445.5	-0.000509933
7452.88	0.00042496
7460.27	0.00138811
7475.04	0.00339822
7482.42	0.00444465
7497.19	0.00661838
7504.58	0.00774463
7511.96	0.00889624
7526.73	0.0112714
7534.11	0.0124913
7541.5	0.013729
7556.27	0.0162218
7563.65	0.0174585
7571.04	0.0182421
7585.81	0.020428
7593.19	0.0214685
7600.58	0.0226457
7615.35	0.0254287
7622.73	0.0269547
7630.12	0.0285402
7644.88	0.0318147
7652.27	0.0334704
7667.04	0.0368367
7674.43	0.0385518
7681.81	0.0402749
7696.59	0.0436976
7703.98	0.0453785
7711.37	0.0470278
7726.14	0.050203
7733.53	0.0517231
7740.92	0.0532007
7755.69	0.0560451
7763.08	0.0574206
7770.47	0.0587692
7785.24	0.0613913
7792.63	0.0626647
7800.02	0.0639115
7814.8	0.0663191
7822.18	0.0674773
7836.96	0.0696982
7844.35	0.0707599
7851.73	0.0717889
7866.51	0.0737481
7873.9	0.0746782
7881.29	0.0755751
7896.06	0.0772689
7903.45	0.078065
7910.84	0.0788266
7925.61	0.0802439
7933	0.0808983
7940.39	0.0815157
7955.16	0.0826382
7962.55	0.0831431
7977.33	0.0840409
7984.72	0.0844346
7992.1	0.0847923
8006.88	0.0854007
8014.27	0.085652
8021.66	0.085868
8036.43	0.0861942
8043.82	0.086304
8051.21	0.0863781
8065.98	0.0864198
8073.37	0.0863876
8080.76	0.0863207
8095.53	0.0860846
8102.92	0.0859167
8110.31	0.0857165
8125.09	0.0852221
8132.47	0.0849292
8147.25	0.0842555
8154.64	0.0838759
8162.02	0.0834685
8176.8	0.0825723
8184.19	0.0820843
8191.58	0.0815703
8206.35	0.0804655
8213.74	0.0798755
8221.13	0.0792608
8235.9	0.0779593
8243.29	0.0772737
8250.68	0.0765655
8265.45	0.0750846
8272.84	0.0743134
8280.23	0.0735228
8295.01	0.0718867
8302.39	0.0710428
8317.17	0.0693074
8324.56	0.0684172
8331.95	0.0675131
8346.72	0.065665
8354.11	0.0647221
8361.47	0.0637704
8376.2	0.0618332
8383.56	0.0608484
8390.93	0.0598534
8405.65	0.057834
8413.02	0.0568106
8420.38	0.0557785
8435.11	0.0536906
8442.47	0.0526358
8457.2	0.0505075
8464.56	0.0494351
8471.92	0.048358
8486.65	0.0461921
8494.01	0.0451043
8501.38	0.0440141
8516.1	0.041828
8523.47	0.0407329
8530.83	0.0396369
8545.56	0.0374431
8552.92	0.0363457
8560.28	0.035248
8575.01	0.0330518
8582.37	0.0319533
8597.1	0.0297545
8604.46	0.0286539
8611.83	0.0275524
8626.55	0.0253453
8633.92	0.0242393
8641.28	0.0231316
8656.01	0.0209099
8663.37	0.0197958
8670.73	0.0186794
8685.46	0.0164397
8692.82	0.0153166
8700.19	0.0141914
8714.91	0.0119337
8722.28	0.0107686
8737	0.00768503
8744.37	0.00685895
8751.73	0.00547872
8766.46	0.00323551
8773.82	0.00211683
8781.18	0.000975639
8795.91	-0.00123366
8803.28	-0.00230216
8810.64	-0.00338357
8825.37	-0.0056571
8832.73	-0.00678436
8840.09	-0.00789564
8854.82	-0.010051
8862.18	-0.0110902
8876.91	-0.0130906
8884.27	-0.0140546
8891.64	-0.0149981
8906.36	-0.0168354
8913.73	-0.017734
8921.09	-0.0186212
8935.82	-0.0203613
8943.18	-0.0212124
8950.54	-0.0220489
8965.27	-0.0236717
8972.63	-0.0244552
8987.36	-0.0259617
8994.72	-0.0266839
9002.09	-0.0273857
9016.81	-0.0287302
9024.18	-0.0293745
9031.54	-0.0300012
9046.27	-0.0312054
9053.63	-0.0317843
9060.99	-0.0323483
9075.72	-0.0334334
9083.08	-0.0339549
9090.45	-0.0344625
9105.17	-0.0354368
9112.54	-0.0359036
9127.26	-0.0367976
9134.63	-0.0372253
9141.99	-0.0376405
9156.72	-0.0384346
9164.08	-0.0388143
9171.44	-0.0391828
9186.17	-0.0398876
9193.53	-0.0402243
9200.9	-0.0405508
9215.62	-0.0411741
9222.99	-0.041471
9230.35	-0.0417584
9245.08	-0.0423044
9252.44	-0.0425632
9267.17	-0.0430531
9274.53	-0.0432844
9281.89	-0.0435067
9296.62	-0.0439249
9303.98	-0.0441211
9311.35	-0.0443089
9326.07	-0.0446599
9333.46	-0.044824
9340.85	-0.0449802
9355.63	-0.0452696
9363.01	-0.045403
9370.4	-0.0455291
9385.18	-0.0457598
9392.57	-0.0458647
9407.34	-0.0460541
9414.73	-0.046139
9422.12	-0.0462175
9436.89	-0.046356
9444.28	-0.0464165
9451.67	-0.0464712
9466.45	-0.0465643
9473.83	-0.046603
9481.22	-0.0466368
9496	-0.04669
9503.39	-0.0467097
9510.78	-0.0467251
9525.57	-0.0467432
9532.96	-0.0467462
9540.35	-0.0467454
9555.13	-0.0467326
9562.52	-0.0467209
9577.3	-0.0466873
9584.7	-0.0466656
9592.14	-0.0466406
9607.03	-0.0465816
9614.48	-0.0465477
9621.92	-0.0465111
9636.81	-0.0464298
9644.26	-0.0463854
9651.7	-0.0463384
9666.59	-0.0462375
9674.04	-0.0461836
9681.48	-0.0461274
9696.37	-0.0460086
9703.82	-0.045946
9711.26	-0.0458813
9726.34	-0.0457438
9733.88	-0.045672
9741.42	-0.0455981
9756.51	-0.0454442
9764.05	-0.0453642
9771.59	-0.0452824
9786.7	-0.0451127
9794.26	-0.045025
9801.82	-0.0449356
9816.96	-0.0447515
9824.54	-0.0446569
9832.11	-0.0445608
9847.26	-0.0443642
9854.84	-0.0442639
9862.42	-0.0441624
9877.57	-0.0439557
9885.14	-0.0438507
9892.72	-0.0437447
9900.22	-0.0436387
9915.25	-0.0434239
9922.77	-0.0433153
9930.28	-0.0432059
9945.32	-0.0429852
9952.83	-0.0428739
9960.35	-0.0427622
9975.36	-0.0425374
9982.86	-0.0424246
9990.36	-0.0423115
10005.4	-0.0420844
10012.8	-0.041971
10020.3	-0.0418575
10035.3	-0.0416303
10042.7	-0.0415169
10050.2	-0.0414036
10065.2	-0.0411779
10072.7	-0.0410656
10080.1	-0.0409541
10095	-0.0407329
10102.5	-0.0406232
10117.4	-0.0404061
10124.9	-0.0402989
10132.3	-0.0401925
10147.2	-0.0399829
10154.7	-0.0398798
10162.1	-0.0397778
10177	-0.0395775
10184.5	-0.0394793
10192	-0.0393825
10206.9	-0.0391932
10214.3	-0.0391007
10221.8	-0.0390098
10236.7	-0.0388324
10244.1	-0.038746
10251.6	-0.0386613
10266.4	-0.0384965
10273.9	-0.0384164
10281.3	-0.038338
10296.2	-0.0381858
10303.7	-0.038112
10311.1	-0.0380397
10326	-0.0378997
10333.5	-0.0378319
10340.9	-0.0377655
10355.8	-0.0376367
10363.2	-0.0375743
10370.7	-0.0375131
10385.6	-0.0373942
10393	-0.0373364
10400.5	-0.0372797
10415.4	-0.0371689
10422.8	-0.0371147
10430.3	-0.0370613
10445.1	-0.0369565
10452.6	-0.0369049
10460	-0.0368537
10474.9	-0.0367523
10482.3	-0.0367019
10497.2	-0.0366012
10504.6	-0.0365507
10512	-0.0365
10526.9	-0.0363977
10534.3	-0.0363458
10541.8	-0.0362933
10556.6	-0.0361861
10564	-0.0361311
10571.5	-0.0360752
10586.3	-0.0359599
10593.8	-0.0359003
10601.2	-0.0358392
10616.1	-0.0357123
10623.5	-0.0356463
10630.9	-0.0355784
10645.8	-0.0354364
10653.2	-0.0353622
10660.6	-0.0352856
10675.5	-0.0351249
10682.9	-0.0350405
10690.4	-0.0349534
10705.2	-0.0347702
10712.7	-0.0346739
10720.1	-0.0345743
10734.9	-0.0343646
10742.4	-0.0342544
10757.2	-0.0340223
10764.7	-0.0339003
10772.1	-0.0337741
10787	-0.0335087
10794.4	-0.0333692
10801.8	-0.033225
10816.7	-0.0329222
10824.1	-0.0327633
10831.5	-0.0325992
10846.4	-0.0322551
10853.8	-0.0320748
10861.3	-0.0318889
10876.1	-0.0314996
10883.6	-0.0312961
10891	-0.0310865
10905.8	-0.0306486
10913.3	-0.0304201
10920.7	-0.0301851
10935.6	-0.0296952
10943	-0.0294402
10950.4	-0.0291783
10965.3	-0.0286336
10972.7	-0.0283507
10980.1	-0.0280606
10995	-0.0274588
11002.4	-0.0271469
11017.3	-0.026501
11024.7	-0.0261669
11032.2	-0.0258253
11047	-0.0251196
11054.4	-0.0247554
11061.9	-0.0243837
11076.7	-0.0236177
11084.2	-0.0232234
11091.6	-0.0228215
11106.5	-0.0219954
11113.9	-0.0215712
11121.3	-0.0211397
11136.2	-0.0202547
11143.6	-0.0198014
11151	-0.019341
11165.9	-0.0183992
11173.3	-0.0179179
11180.8	-0.0174299
11195.6	-0.0164341
11203.1	-0.0159265
11210.5	-0.0154127
11225.3	-0.0143666
11232.8	-0.0138347
11240.2	-0.0132971
11255.1	-0.0122054
11262.5	-0.0116516
11277.4	-0.0105289
11284.8	-0.00996048
11292.2	-0.00938749
11307.1	-0.00822869
11314.5	-0.00764327
11321.9	-0.0070541
11336.8	-0.00586534
11344.2	-0.00526616
11351.7	-0.00466406
11366.5	-0.00345197
11373.9	-0.00284241
11381.4	-0.00223081
11396.2	-0.00100238
11403.7	-0.000386014
11411.1	0.000231468
11426	0.00146881
11433.4	0.00208818
11440.8	0.00270766
11455.7	0.00394589
11463.1	0.00456409
11470.5	0.00518129
11485.4	0.00641148
11492.8	0.00702385
11500.3	0.00763395
11515.1	0.00884599
11522.6	0.00944723
11537.4	0.0106383
11544.8	0.0112273
11552.3	0.0118115
11567.1	0.0129634
11574.6	0.0135302
11582	0.0140902
11596.9	0.0151864
11604.3	0.0157206
11611.7	0.0162436
11626.6	0.0172417
11634	0.0177095
11641.4	0.0181595
11656.3	0.0187177
11663.8	0.0190905
11671.2	0.0194478
11686.1	0.0201579
11693.6	0.020742
11701	0.0213393
11715.9	0.0226706
11723.3	0.0232858
11730.8	0.0238534
11745.7	0.0248651
11753.1	0.0253313
11760.6	0.0257886
11775.5	0.0267254
11782.9	0.0272097
11790.4	0.0277102
11805.3	0.0287718
11812.7	0.0293248
11820.2	0.029882
11835.1	0.030979
11842.5	0.0315121
11857.4	0.0325381
11864.9	0.0330286
11872.4	0.033501
11887.3	0.0343877
11894.7	0.0348042
11902.2	0.0352062
11917.1	0.0359792
11924.6	0.0363552
11932	0.0367262
11947	0.0374559
11954.4	0.0378161
11961.9	0.0381728
11976.9	0.0388781
11984.4	0.0392279
11991.9	0.0395764
12006.8	0.0402728
12014.3	0.0406228
12021.8	0.0409756
12036.7	0.041694
12044.2	0.0420602
12051.7	0.0424302
12066.8	0.0431827
12074.4	0.0435572
12081.9	0.0439276
12097.1	0.0446501
12104.6	0.0450004
12112.2	0.0453434
12127.3	0.0460103
12134.8	0.0463367
12142.4	0.0466602
12157.5	0.0473022
12165.1	0.0476217
12172.6	0.04794
12180.2	0.0482563
12195.3	0.048879
12202.9	0.0491831
12210.4	0.0494811
12225.5	0.0500565
12233.1	0.0503331
12240.6	0.0506022
12255.7	0.0511165
12263.3	0.051361
12270.9	0.0515965
12286	0.052037
12293.5	0.0522406
12301.1	0.0524323
12316.2	0.0527789
12323.8	0.0529337
12331.3	0.0530766
12346.4	0.0533288
12354	0.0534394
12361.5	0.0535407
12376.7	0.0537174
12384.2	0.053794
12391.8	0.0538633
12406.9	0.0539811
12414.4	0.0540298
12422	0.0540717
12437.1	0.0541343
12444.7	0.0541541
12452.2	0.0541658
12467.3	0.0541621
12474.9	0.0541458
12482.5	0.0541192
12490	0.0540822
12505.1	0.0539766
12512.7	0.0539082
12520.2	0.0538297
12535.4	0.0536435
12542.9	0.0535364
12550.5	0.0534206
12565.6	0.0531616
12573.1	0.053019
12580.7	0.0528675
12595.8	0.052538
12603.4	0.0523599
12610.9	0.0521726
12626	0.0517702
12633.6	0.0515549
12641.1	0.0513297
12656.2	0.0508485
12663.7	0.0505919
12671.2	0.050324
12686.3	0.0497532
12693.8	0.0494498
12701.3	0.0491345
12716.4	0.0484679
12723.9	0.0481168
12731.4	0.0477543
12746.5	0.0469957
12754	0.0466002
12761.5	0.0461943
12776.6	0.0453523
12784.1	0.0449167
12791.6	0.0444716
12806.7	0.0435536
12814.2	0.0430808
12821.8	0.042599
12836.8	0.0416078
12844.3	0.0410983
12851.9	0.0405796
12866.9	0.0395138
12874.4	0.0389668
12882	0.0384105
12897	0.0372702
12904.5	0.0366866
12912.1	0.0360945
12927.1	0.0348857
12934.6	0.0342697
12942.2	0.0336467
12957.2	0.0323808
12964.7	0.0317389
12972.3	0.0310915
12987.3	0.0297822
12994.8	0.0291211
13002.4	0.0284562
13017.4	0.0271162
13025	0.0264417
13032.5	0.0257646
13040	0.0250849
13055.1	0.0237186
13062.6	0.0230321
13070.1	0.0223435
13085.2	0.02096
13092.7	0.0202652
13100.2	0.0195685
13115.3	0.0181693
13122.8	0.0174672
13130.3	0.0167636
13145.4	0.0153529
13152.9	0.0146464
13160.4	0.0139394
13175.5	0.0125257
13183	0.0118196
13190.5	0.0111146
13205.6	0.00927917
13213.1	0.00849729
13220.6	0.0078172
13235.7	0.00604843
13243.2	0.00534161
13250.7	0.00465439
13265.8	0.00328299
13273.3	0.00259195
13280.8	0.00191788
13295.9	0.000548682
13303.4	-0.000126857
13310.9	-0.000793806
13326	-0.00210302
13333.5	-0.00274769
13341	-0.0033877
13356.1	-0.00465559
13363.6	-0.00528372
13371.1	-0.00590778
13386.2	-0.00714269
13393.7	-0.00775304
13401.3	-0.00835837
13416.3	-0.00955373
13423.8	-0.0101438
13431.4	-0.0107287
13446.4	-0.0118827
13453.9	-0.0124513
13461.5	-0.013014
13476.5	-0.0141209
13484	-0.0146648
13491.6	-0.015202
13506.6	-0.0162564
13514.1	-0.0167734
13521.7	-0.0172834
13536.7	-0.0182821
13544.2	-0.0187706
13551.8	-0.0192517
13566.8	-0.0201912
13574.3	-0.0206496
13581.9	-0.0211003
13596.9	-0.0219787
13604.5	-0.0224063
13612	-0.0228262
13627	-0.0236432
13634.6	-0.0240403
13642.1	-0.0244298
13657.1	-0.0251862
13664.7	-0.0255531
13672.2	-0.0259126
13687.2	-0.0266093
13694.8	-0.0269466
13702.3	-0.0272766
13717.3	-0.0279146
13724.9	-0.0282228
13732.4	-0.0285237
13747.4	-0.0291041
13755	-0.0293836
13762.5	-0.0296561
13770	-0.0299215
13785.1	-0.0304313
13792.6	-0.0306758
13800.1	-0.0309133
13815.2	-0.0313679
13822.7	-0.031585
13830.2	-0.0317954
13845.3	-0.0321961
13852.8	-0.0323866
13860.3	-0.0325706
13875.4	-0.0329195
13882.9	-0.0330844
13890.4	-0.0332432
13905.5	-0.0335425
13913	-0.0336832
13920.5	-0.033818
13935.6	-0.0340704
13943.1	-0.0341882
13950.6	-0.0343005
13965.7	-0.0345091
13973.2	-0.0346055
13980.7	-0.0346967
13995.8	-0.0348644
14003.3	-0.034941
14010.9	-0.0350129
14025.9	-0.035143
14033.4	-0.0352015
14041	-0.0352556
14056	-0.0353516
14063.5	-0.0353936
14071.1	-0.0354318
14086.1	-0.0354969
14093.6	-0.0355241
14101.2	-0.0355478
14116.2	-0.0355851
14123.7	-0.0355989
14131.3	-0.0356094
14146.3	-0.0356214
14153.8	-0.0356228
14161.4	-0.0356214
14176.4	-0.0356099
14184	-0.0356
14191.5	-0.0355874
14206.5	-0.0355543
14214.1	-0.0355338
14221.6	-0.0355108
14236.6	-0.0354573
14244.2	-0.0354269
14251.7	-0.0353942
14266.7	-0.0353216
14274.3	-0.0352819
14281.8	-0.0352399
14296.8	-0.0351493
14304.4	-0.0351006
14311.9	-0.0350498
14326.9	-0.0349416
14334.5	-0.0348843
14342	-0.0348247
14357.1	-0.034699
14364.6	-0.0346327
14372.2	-0.0345642
14387.2	-0.0344205
14395	-0.0343426
14402.9	-0.0342621
14410.7	-0.0341792
14426.3	-0.0340052
14434.2	-0.033914
14442	-0.0338201
14457.7	-0.033624
14465.6	-0.0335218
14473.4	-0.0334166
14481.2	-0.0333086
14496.9	-0.0330837
14504.8	-0.0329667
14512.6	-0.0328466
14520.5	-0.0327235
14536.2	-0.0324677
14544	-0.0323348
14551.9	-0.0321984
14567.8	-0.031914
14575.7	-0.0317668
14583.6	-0.031616
14591.5	-0.0314618
14607.4	-0.0311431
14615.3	-0.0309785
14623.2	-0.0308103
14631.1	-0.0306387
14647	-0.0302847
14654.9	-0.0301025
14662.8	-0.0299167
14670.7	-0.0297273
14686.6	-0.029338
14694.5	-0.029138
14702.4	-0.0289345
14710.4	-0.0287276
14726.2	-0.0283032
14734.1	-0.0280859
14742.1	-0.0278651
14757.9	-0.0274135
14765.8	-0.0271827
14773.7	-0.0269486
14781.7	-0.0267113
14797.5	-0.0262271
14805.4	-0.0259804
14813.4	-0.0257306
14821.3	-0.0254777
14837.1	-0.0249633
14845.1	-0.0247018
14853	-0.0244375
14860.9	-0.0241705
14876.7	-0.0236287
14884.7	-0.0233541
14892.6	-0.0230764
14900.5	-0.0227965
14916.4	-0.0222297
14924.4	-0.0219434
14932.3	-0.021655
14940.2	-0.0213646
14956.3	-0.0207698
14964.5	-0.0204654
14972.6	-0.0201593
14980.8	-0.0198517
14996.9	-0.0192396
15005	-0.0189319
15012.9	-0.0186275
15020.9	-0.0183221
15036.7	-0.0177089
15044.7	-0.0174012
15052.6	-0.0170924
15060.6	-0.0167831
15076.5	-0.0161638
15084.5	-0.015854
15092.4	-0.0155442
15100.4	-0.0152346
15116.3	-0.0146164
15124.3	-0.014308
15132.2	-0.0140003
15140.2	-0.0136934
15156.1	-0.0130825
15164.1	-0.0127788
15172	-0.0124763
15187.9	-0.0118758
15195.9	-0.011578
15203.8	-0.011282
15211.8	-0.0109878
15227.7	-0.0104058
15235.7	-0.0101182
15243.6	-0.00983287
15251.6	-0.00955007
15267.5	-0.00899235
15275.4	-0.00872087
15283.3	-0.00845034
15291.2	-0.00818276
15307	-0.00765688
15315	-0.00739873
15322.9	-0.0071439
15330.8	-0.00689355
15346.5	-0.00640341
15354.4	-0.00616365
15362.3	-0.00592751
15370.2	-0.00569504
15385.9	-0.00524132
15393.8	-0.00502017
15401.7	-0.00480288
15417.5	-0.00438
15425.3	-0.00417593
15433.1	-0.00397578
15440.9	-0.00377957
15456.6	-0.003399
15464.4	-0.00321466
15472.3	-0.0030343
15480.1	-0.0028579
15495.7	-0.00251699
15503.6	-0.00235246
15511.4	-0.00219187
15527	-0.0018824
15534.9	-0.00173348
15542.7	-0.00158841
15550.5	-0.00144716
15566.2	-0.00117598
15574	-0.00104599
15581.8	-0.000919681
15597.5	-0.000677953
15605.3	-0.000562453
15613.1	-0.000450472
15620.9	-0.000341966
15636.6	-0.000135199
15644.4	-3.68451e-05
15652.2	5.82179e-05
15660.1	0.000150038
15675.7	0.000324138
15683.5	0.000406514
15691.4	0.000485837
15707	0.000635515
15714.8	0.000705963
15722.7	0.000773543
15730.5	0.0008383
15746.1	0.00095952
15754	0.00101606
15761.8	0.00106995
15777.4	0.00116991
15785.3	0.00121604
15793.1	0.00125966
15800.9	0.0013008
15816.6	0.00137572
15824.3	0.00140906
15832	0.00144008
15847.4	0.00149523
15855.1	0.00151938
15862.9	0.00154126
15870.6	0.00156089
15886	0.00159337
15893.7	0.00160623
15901.4	0.00161682
15916.8	0.00163121
15924.5	0.00163499
15932.2	0.00163648
15947.6	0.00163251
15955.3	0.00162701
15963	0.00161914
15970.7	0.0016089
15986.1	0.00158117
15993.7	0.0015636
16001.4	0.00154354
16016.8	0.00149575
16024.5	0.00146795
16032.1	0.0014375
16047.5	0.00136852
16055.2	0.00132989
16062.8	0.00128845
16070.5	0.00124414
16085.9	0.00114676
16093.6	0.0010936
16101.2	0.0010374
16116.6	0.000915682
16124.3	0.000850078
16131.9	0.00078125
16147.3	0.00063374
16155	0.000554971
16162.6	0.000472801
16170.3	0.00038719
16185.7	0.000205482
16193.3	0.000109308
16201	9.53834e-06
16216.4	-0.000200922
16224	-0.000311676
16231.7	-0.000426152
16247.1	-0.000666368
16254.7	-0.000792154
16262.4	-0.00092175
16270.1	-0.00105517
16285.5	-0.00133354
16293.1	-0.00147851
16300.8	-0.00162733
16316.2	-0.00193656
16323.8	-0.00209695
16331.5	-0.00226118
16346.9	-0.00260109
16354.5	-0.00277673
16362.2	-0.00295614
16377.6	-0.00332612
16385.2	-0.00351661
16392.9	-0.00371074
16400.6	-0.00390843
16415.9	-0.00431436
16423.6	-0.00452248
16431.3	-0.00473395
16446.6	-0.00516672
16454.3	-0.00538787
16462	-0.00561209
16477.4	-0.00606944
16485	-0.0063024
16492.7	-0.00653809
16500.4	-0.00677642
16515.7	-0.0072606
16523.4	-0.00750625
16531.1	-0.00775412
16546.4	-0.00825607
16554.1	-0.00850993
16561.8	-0.00876555
16577.1	-0.00928156
16584.8	-0.0095417
16592.5	-0.00980309
16600.2	-0.0100656
16615.5	-0.0105934
16623.2	-0.0108584
16630.9	-0.011124
16646.2	-0.0116562
16653.9	-0.0119226
16661.6	-0.0121889
16676.9	-0.0127209
16684.6	-0.0129862
16692.2	-0.0132485
16707.4	-0.0137707
16715	-0.0140297
16722.6	-0.0142882
16730.2	-0.0145452
16745.4	-0.015052
16753	-0.0153027
16760.5	-0.0155515
16775.7	-0.0160431
16783.3	-0.0162855
16790.8	-0.0165254
16806	-0.016997
16813.6	-0.0172284
16821.2	-0.0174567
16836.3	-0.0179035
16843.9	-0.0181217
16851.5	-0.0183363
16866.6	-0.0187536
16874.2	-0.0189563
16881.8	-0.0191549
16896.9	-0.0195388
16904.5	-0.0197241
16912	-0.0199048
16927.2	-0.0202521
16934.7	-0.0204184
16942.3	-0.0205798
16957.4	-0.0208872
16965	-0.021033
16972.6	-0.0211735
16980.1	-0.0213086
16995.2	-0.0215621
17002.8	-0.0216804
17010.4	-0.0217929
17025.5	-0.0220006
17033.1	-0.0220956
17040.6	-0.0221846
17055.8	-0.0223446
17063.3	-0.0224154
17070.9	-0.0224801
17086	-0.0225909
17093.6	-0.0226369
17101.2	-0.0226766
17116.3	-0.0227372
17123.8	-0.022758
17131.4	-0.0227725
17146.5	-0.0227824
17154.1	-0.0227778
17161.7	-0.0227669
17176.8	-0.0227261
17184.4	-0.0226962
17191.9	-0.0226601
17207.1	-0.0225689
17214.6	-0.022514
17222.2	-0.0224529
17237.3	-0.0223123
17244.9	-0.0222329
17252.4	-0.0221474
17260	-0.022056
17275.1	-0.0218554
17282.7	-0.0217463
17290.3	-0.0216315
17305.4	-0.0213849
17313	-0.0212532
17320.5	-0.021116
17335.7	-0.0208255
17343.2	-0.0206723
17350.8	-0.020514
17365.9	-0.0201821
17373.5	-0.0200088
17381	-0.0198306
17396.2	-0.0194603
17403.7	-0.0192682
17411.3	-0.0190718
17426.4	-0.018666
17434	-0.0184569
17441.6	-0.0182438
17456.7	-0.017806
17464.2	-0.0175829
17471.7	-0.0173563
17486.8	-0.0168931
17494.3	-0.0166568
17501.8	-0.0164173
17516.8	-0.0159299
17524.3	-0.0156822
17531.9	-0.0154319
17546.9	-0.0149244
17554.4	-0.0146672
17561.9	-0.0144085
17576.9	-0.0138846
17584.4	-0.0136205
17592	-0.0133545
17607	-0.0128186
17614.5	-0.0125488
17622	-0.0122781
17637.1	-0.0117342
17644.6	-0.0114614
17652.1	-0.011188
17667.1	-0.0106405
17674.6	-0.0103666
17682.1	-0.0100927
17697.2	-0.0095458
17704.7	-0.00927297
17712.2	-0.00900075
17727.2	-0.00845864
17734.8	-0.00818901
17742.3	-0.0079205
17757.3	-0.00738735
17764.8	-0.00712297
17772.3	-0.00686021
17787.4	-0.00634008
17794.9	-0.00608295
17802.4	-0.00582793
17817.4	-0.00532473
17824.9	-0.00507678
17832.5	-0.00483142
17847.5	-0.00434892
17855	-0.00411199
17862.5	-0.00387811
17870	-0.00364736
17885.1	-0.00319571
17892.6	-0.00297502
17900.1	-0.00275787
17915.1	-0.00233464
17922.6	-0.00212874
17930.2	-0.00192677
17945.2	-0.001535
17952.7	-0.00134537
17960.2	-0.00116002
17975.2	-0.000802494
17982.8	-0.000630472
17990.3	-0.000463044
18005.3	-0.000142261
18012.8	1.09577e-05
18020.3	0.000159306
18035.4	0.000441143
18042.9	0.000574513
18050.4	0.000702776
18065.4	0.00094377
18072.9	0.0010564
18080.5	0.00116373
18095.5	0.0013623
18103	0.00145346
18110.5	0.00153916
18125.6	0.00169405
18133.1	0.00176317
18140.6	0.00182672
18155.6	0.00193697
18163.1	0.00198365
18170.6	0.00202467
18185.7	0.00208969
18193.2	0.00211367
18200.7	0.00213195
18215.7	0.00215144
18223.3	0.00215265
18230.8	0.00214816
18245.8	0.00212216
18253.3	0.00210067
18260.8	0.00207353
18275.9	0.0020024
18283.4	0.00195846
18290.9	0.00190895
18305.9	0.0017934
18313.4	0.0017274
18321	0.00165598
18336	0.00149702
18343.5	0.00140955
18351	0.00131683
18366	0.00111581
18373.6	0.00100761
18381.1	0.000894365
18396.1	0.000652964
18403.6	0.000524935
18411.1	0.000392108
18426.2	0.00011234
18433.7	-3.44561e-05
18441.2	-0.000185758
18456.2	-0.000501561
18463.7	-0.000665897
18471.3	-0.000834406
18486.3	-0.00118359
18493.8	-0.00136408
18501.3	-0.00154838
18516.4	-0.00192798
18523.9	-0.00212308
18531.4	-0.00232159
18546.4	-0.00272834
18553.9	-0.00293638
18561.4	-0.00314737
18576.5	-0.00357774
18584	-0.00379688
18591.5	-0.0040185
18606.5	-0.00446866
18614.1	-0.00469696
18621.6	-0.00492723
18636.6	-0.00539315
18644.1	-0.00562854
18651.6	-0.00586537
18666.7	-0.0063428
18674.2	-0.00658312
18681.7	-0.00682432
18696.7	-0.00730883
18704.2	-0.00755185
18711.8	-0.00779518
18726.8	-0.00828222
18734.3	-0.00852563
18741.8	-0.00876879
18756.8	-0.00925373
18764.4	-0.00949522
18771.9	-0.00973587
18786.9	-0.010214
18794.4	-0.0104513
18801.9	-0.0106871
18817	-0.0111539
18824.5	-0.0113846
18832	-0.0116133
18847	-0.0120641
18854.5	-0.0122859
18862.1	-0.0125053
18877.1	-0.0129357
18884.6	-0.0131466
18892.1	-0.0133543
18907.2	-0.0137602
18914.7	-0.0139579
18922.2	-0.0141521
18937.2	-0.0145293
18944.7	-0.0147121
18952.2	-0.0148908
18967.3	-0.0152356
18974.8	-0.0154015
18982.3	-0.0155629
18997.3	-0.015872
19004.9	-0.0160194
19012.4	-0.0161619
19027.4	-0.0164321
19034.9	-0.0165596
19042.4	-0.0166819
19057.5	-0.0169105
19065	-0.0170167
19072.5	-0.0171175
19080	-0.0172127
19095	-0.0173863
19102.6	-0.0174645
19110.1	-0.0175369
19125.1	-0.0176644
19132.6	-0.0177192
19140.1	-0.0177682
19155.2	-0.0178481
19162.7	-0.017879
19170.2	-0.0179038
19185.2	-0.0179353
19192.7	-0.0179419
19200.3	-0.0179423
19215.3	-0.0179247
19222.8	-0.0179068
19230.3	-0.0178826
19245.3	-0.0178162
19252.8	-0.0177739
19260.2	-0.0177259
19275	-0.0176127
19282.4	-0.0175473
19297.1	-0.0173994
19304.5	-0.0173169
19311.8	-0.0172287
19326.6	-0.0170354
19333.9	-0.0169303
19341.3	-0.0168197
19356	-0.0165819
19363.4	-0.0164549
19370.8	-0.0163226
19385.5	-0.0160419
19392.8	-0.0158938
19400.2	-0.0157405
19414.9	-0.0154188
19422.3	-0.0152505
19437	-0.0148993
19444.4	-0.0147165
19451.7	-0.0145291
19466.5	-0.0141406
19473.8	-0.0139396
19481.2	-0.0137343
19495.9	-0.0133109
19503.3	-0.013093
19510.7	-0.0128711
19525.4	-0.0124155
19532.7	-0.012182
19540.1	-0.0119449
19554.8	-0.0114599
19562.2	-0.0112124
19576.9	-0.0107074
19584.3	-0.0104502
19591.7	-0.01019
19606.4	-0.00966104
19613.7	-0.00939244
19621.1	-0.00912124
19635.8	-0.00857143
19643.2	-0.00829303
19650.6	-0.00801243
19665.3	-0.00744506
19672.6	-0.0071585
19680	-0.00687016
19694.7	-0.00628855
19702.1	-0.00599549
19716.8	-0.00540538
19724.2	-0.00510854
19731.6	-0.00481065
19746.3	-0.00421213
19753.6	-0.00391171
19761	-0.00361065
19775.7	-0.00300702
19783.1	-0.00270466
19790.5	-0.00240207
19805.2	-0.00179659
19812.6	-0.0014939
19827.3	-0.000889121
19834.6	-0.000587223
19842	-0.000285781
19856.7	0.000315357
19864.1	0.000614867
19871.5	0.000913547
19886.2	0.00150806
19893.6	0.00180371
19900.9	0.00209817
19915.6	0.0026832
19923	0.0029736
19930.4	0.00326247
19945.1	0.00383533
19952.5	0.00411916
19967.2	0.00468122
19974.5	0.00495931
19981.9	0.00523534
19996.6	0.00578094
