0	0
14.7745	0
22.1618	0
36.9363	0
44.3236	0
51.7109	0
66.4854	0
73.8727	0
81.2599	0
96.0345	0
103.422	0
110.809	0
125.584	0
132.971	0
140.358	0
155.133	0
162.52	0
177.294	0
184.682	0
192.069	0
206.843	0
214.231	0
221.618	0
236.393	0
243.78	0
251.167	0
265.942	0
273.329	0
280.716	0
295.491	0
302.878	0
310.265	0
325.04	0
332.427	0
347.202	0
354.589	0
361.976	0
376.751	0
384.138	0
391.525	0
406.3	0
413.687	0
421.074	0
435.849	0
443.236	0
450.623	0
465.398	0
472.785	0
480.172	0
494.947	0
502.334	0
517.109	0
524.496	0
531.883	0
546.658	0
554.045	0
561.432	0
576.207	0
583.594	0
590.981	0
605.756	0
613.143	0
620.53	0
635.305	0
642.692	0
650.08	0
664.854	0
672.241	0
687.016	0
694.403	0
701.79	0
716.565	0
723.952	0
731.34	0
746.114	0
753.501	0
760.889	0
775.663	0
783.05	0
790.438	0
805.212	0
812.599	0
827.374	0
834.761	0
842.149	0
856.923	0
864.31	0
871.698	0
886.472	0
893.859	0
901.247	0
916.021	0
923.408	0
930.796	0
945.57	0
952.958	0
960.345	0
975.119	0
982.507	0
997.281	0
1004.67	0
1012.06	0
1026.83	0
1034.22	0
1041.6	0
1056.38	0
1063.77	0
1071.15	0
1085.93	0
1093.32	0
1100.7	0
1115.48	0
1122.86	0
1130.25	0
1145.03	0
1152.41	0
1167.19	0
1174.58	0
1181.96	0
1196.74	0
1204.12	0
1211.51	0
1226.29	0
1233.67	0
1241.06	0
1255.84	0
1263.22	0
1270.61	0
1285.38	0
1292.77	0
1300.16	0
1314.93	0
1322.32	0
1337.1	0
1344.48	0
1351.87	0
1366.64	0
1374.03	0
1381.42	0
1396.19	0
1403.58	0
1410.97	0
1425.74	0
1433.13	0
1440.52	0
1455.29	0
1462.68	0
1470.07	0
1484.84	0
1492.23	0
1507	0
1514.39	0
1521.78	0
1536.55	0
1543.94	0
1551.33	0
1566.1	0
1573.49	0
1580.88	0
1595.65	0
1603.04	0
1610.42	0
1625.2	0
1632.59	0
1647.36	0
1654.75	0
1662.14	0
1676.91	0
1684.3	0
1691.68	0
1706.46	0
1713.85	0
1721.23	0
1736.01	0
1743.4	0
1750.78	0
1765.56	0
1772.94	0
1780.33	0
1795.11	0
1802.49	0
1817.27	0
1824.66	0
1832.04	0
1846.82	0
1854.2	0
1861.59	0
1876.37	9.09495e-13
1883.75	9.09495e-13
1891.14	9.09495e-13
1905.92	2.72848e-12
1913.3	3.63798e-12
1920.69	4.54747e-12
1935.46	6.36646e-12
1942.85	8.18545e-12
1950.24	1.00044e-11
1965.01	1.54614e-11
1972.4	1.81899e-11
1987.18	2.63753e-11
1994.56	3.09228e-11
2001.95	3.72893e-11
2016.72	5.27507e-11
2024.11	6.27551e-11
2031.5	7.54881e-11
2046.27	1.0732e-10
2053.66	1.28239e-10
2061.05	1.52795e-10
2075.82	2.1646e-10
2083.21	2.57387e-10
2090.6	3.0559e-10
2105.37	4.27463e-10
2112.76	5.0477e-10
2120.15	5.9481e-10
2134.92	8.23093e-10
2142.31	9.66793e-10
2157.08	1.32695e-09
2164.47	1.5516e-09
2171.86	1.81171e-09
2186.63	2.46109e-09
2194.02	2.86309e-09
2201.41	3.32602e-09
2216.18	4.47108e-09
2223.57	5.17412e-09
2230.95	5.97993e-09
2245.73	7.95808e-09
2253.12	9.16316e-09
2260.5	1.05383e-08
2275.28	1.38871e-08
2282.67	1.59134e-08
2290.05	1.82135e-08
2304.83	2.37751e-08
2312.21	2.71166e-08
2326.99	3.51538e-08
2334.38	3.99577e-08
2341.76	4.53665e-08
2356.54	5.82868e-08
2363.93	6.59584e-08
2371.31	7.45576e-08
2386.09	9.49594e-08
2393.47	1.06997e-07
2400.86	1.20432e-07
2415.64	1.52098e-07
2423.02	1.70663e-07
2430.41	1.91299e-07
2445.19	2.3963e-07
2452.57	2.67794e-07
2467.35	3.33453e-07
2474.73	3.71546e-07
2482.12	4.13591e-07
2496.9	5.11024e-07
2504.28	5.6723e-07
2511.67	6.29028e-07
2526.45	7.71408e-07
2533.83	8.53087e-07
2541.22	9.4256e-07
2555.99	1.14755e-06
2563.38	1.26452e-06
2570.77	1.39219e-06
2585.54	1.68312e-06
2592.93	1.84827e-06
2600.32	2.0279e-06
2615.09	2.43513e-06
2622.48	2.66514e-06
2637.25	3.18462e-06
2644.64	3.47698e-06
2652.03	3.79318e-06
2666.8	4.50385e-06
2674.19	4.90197e-06
2681.58	5.33122e-06
2696.35	6.29157e-06
2703.74	6.8272e-06
2711.13	7.40303e-06
2725.9	8.68572e-06
2733.29	9.39817e-06
2740.68	1.0162e-05
2755.45	1.18565e-05
2762.84	1.2794e-05
2770.23	1.37965e-05
2785	1.60122e-05
2792.39	1.72336e-05
2807.16	1.9926e-05
2814.55	2.14066e-05
2821.94	2.29835e-05
2836.71	2.64483e-05
2844.1	2.83478e-05
2851.49	3.0367e-05
2866.26	3.4791e-05
2873.65	3.72101e-05
2881.03	3.97772e-05
2895.81	4.53882e-05
2903.2	4.84494e-05
2910.58	5.16935e-05
2925.36	5.87703e-05
2932.74	6.26244e-05
2940.13	6.67043e-05
2954.91	7.55914e-05
2962.29	8.04252e-05
2977.07	9.09464e-05
2984.46	9.66654e-05
2991.84	0.000102713
3006.62	0.000115868
3014	0.000123015
3021.39	0.000130572
3036.17	0.000147009
3043.55	0.00015594
3050.94	0.000165384
3065.71	0.000185932
3073.1	0.000197102
3080.49	0.000208919
3095.26	0.000234647
3102.65	0.000248645
3110.04	0.000263461
3124.81	0.000295752
3132.2	0.000313338
3146.97	0.000351699
3154.36	0.000372609
3161.75	0.000394768
3176.52	0.00044316
3183.91	0.000469566
3191.3	0.00049757
3206.07	0.000558789
3213.46	0.000592226
3220.85	0.000627708
3235.62	0.000705337
3243.01	0.000747766
3250.39	0.00079281
3265.17	0.000891406
3272.56	0.000945317
3287.33	0.00106334
3294.72	0.00112787
3302.1	0.00119638
3316.88	0.00134635
3324.27	0.00142832
3331.65	0.00151533
3346.43	0.00170564
3353.81	0.0018096
3361.2	0.00191987
3375.98	0.00216083
3383.36	0.0022923
3390.75	0.00243163
3405.52	0.00273568
3412.91	0.00290131
3420.3	0.00307667
3435.07	0.00345863
3442.46	0.00366633
3457.23	0.00411805
3464.62	0.0043633
3472.01	0.00462232
3486.78	0.00518437
3494.17	0.00548881
3501.56	0.00580983
3516.33	0.00650467
3523.72	0.00688009
3531.1	0.00727525
3545.88	0.00812828
3553.27	0.0085879
3560.65	0.00907081
3575.43	0.0101102
3582.81	0.0106687
3590.2	0.0112543
3604.98	0.012511
3612.36	0.0131842
3627.14	0.0146256
3634.52	0.0153958
3641.91	0.0162007
3656.68	0.0179184
3664.07	0.0188335
3671.46	0.0197876
3686.23	0.0218172
3693.62	0.022895
3701.01	0.0240163
3715.78	0.0263937
3723.17	0.027652
3730.55	0.0289582
3745.33	0.0317183
3752.72	0.0331743
3760.1	0.0346823
3774.88	0.0378579
3782.26	0.0395275
3797.04	0.0430342
3804.42	0.0448729
3811.81	0.0467697
3826.59	0.0507398
3833.97	0.0528143
3841.36	0.0549492
3856.13	0.0594018
3863.52	0.0617203
3870.91	0.0641005
3885.68	0.0690469
3893.07	0.0716132
3900.46	0.0742415
3915.23	0.0796833
3922.62	0.0824963
3930	0.0853701
3944.78	0.0912979
3952.16	0.0943506
3966.94	0.100629
3974.32	0.103853
3981.71	0.107133
3996.49	0.113851
4003.87	0.117287
4011.26	0.120772
4026.03	0.127883
4033.42	0.131506
4040.81	0.13517
4055.58	0.142615
4062.97	0.146391
4070.36	0.1502
4085.13	0.157904
4092.52	0.161794
4107.29	0.169635
4114.68	0.173581
4122.06	0.177538
4136.84	0.185476
4144.23	0.189449
4151.61	0.193421
4166.39	0.201345
4173.77	0.20529
4181.16	0.209219
4195.94	0.21701
4203.32	0.220865
4210.71	0.224688
4225.48	0.232219
4232.87	0.23592
4240.26	0.239571
4255.03	0.24671
4262.42	0.250189
4277.19	0.256946
4284.58	0.260216
4291.97	0.263407
4306.74	0.269537
4314.13	0.272469
4321.52	0.275306
4336.29	0.280681
4343.68	0.283212
4351.06	0.285632
4365.84	0.290129
4373.23	0.292199
4380.61	0.294145
4395.39	0.297652
4402.77	0.299208
4410.16	0.300627
4424.94	0.303046
4432.32	0.304041
4447.1	0.30559
4454.48	0.306139
4461.87	0.306536
4476.65	0.306865
4484.03	0.306794
4491.42	0.306565
4506.19	0.305626
4513.58	0.304915
4520.97	0.304043
4535.74	0.30181
4543.13	0.300451
4550.52	0.298929
4565.29	0.295399
4572.68	0.293393
4580.07	0.291226
4594.84	0.286418
4602.23	0.283779
4617	0.278039
4624.39	0.274941
4631.78	0.271694
4646.55	0.264763
4653.94	0.261083
4661.33	0.257264
4676.1	0.24922
4683.49	0.245002
4690.88	0.240656
4705.65	0.231597
4713.04	0.226891
4720.43	0.222073
4735.2	0.212113
4742.59	0.206979
4757.36	0.196426
4764.75	0.191015
4772.14	0.18552
4786.91	0.174297
4794.3	0.168577
4801.68	0.162791
4816.46	0.15104
4823.85	0.145084
4831.23	0.139081
4846.01	0.126953
4853.4	0.120837
4860.78	0.114692
4875.56	0.102337
4882.94	0.0961364
4890.33	0.0899258
4905.11	0.0774943
4912.49	0.0712826
4927.27	0.0588896
4934.66	0.0527172
4942.04	0.0465665
4956.82	0.0343474
4964.2	0.0282872
4971.59	0.0222653
4986.37	0.0103518
4993.75	0.00446775
5001.14	-0.00136289
5015.91	-0.0128501
5023.3	-0.0184998
5030.69	-0.0240828
5045.46	-0.0350357
5052.85	-0.0403999
5060.24	-0.0456856
5075.01	-0.0560107
5082.4	-0.0610453
5097.17	-0.0708473
5104.56	-0.0756104
5111.95	-0.0802791
5126.72	-0.0893263
5134.11	-0.0937016
5141.5	-0.0979761
5156.27	-0.106218
5163.66	-0.110183
5171.05	-0.114042
5185.82	-0.121444
5193.21	-0.124984
5200.6	-0.128416
5215.37	-0.134957
5222.76	-0.138065
5230.15	-0.141065
5244.92	-0.14674
5252.31	-0.149416
5267.08	-0.154446
5274.47	-0.156802
5281.86	-0.159052
5296.63	-0.163239
5304.02	-0.165178
5311.4	-0.167015
5326.18	-0.170387
5333.57	-0.171925
5340.95	-0.173365
5355.73	-0.17596
5363.12	-0.177117
5370.5	-0.178183
5385.28	-0.180046
5392.66	-0.180847
5400.05	-0.181562
5414.83	-0.182746
5422.21	-0.183217
5436.99	-0.183928
5444.38	-0.184171
5451.76	-0.184342
5466.54	-0.184474
5473.92	-0.184439
5481.31	-0.184339
5496.09	-0.183954
5503.47	-0.183671
5510.86	-0.183332
5525.63	-0.18249
5533.02	-0.181991
5540.41	-0.181443
5555.18	-0.180205
5562.57	-0.179519
5577.35	-0.178024
5584.73	-0.177217
5592.12	-0.176374
5606.89	-0.174584
5614.28	-0.173641
5621.67	-0.172667
5636.44	-0.170637
5643.83	-0.169582
5651.22	-0.168504
5665.99	-0.166282
5673.38	-0.165141
5680.77	-0.163982
5695.54	-0.161614
5702.93	-0.160408
5710.32	-0.159188
5725.09	-0.156715
5732.48	-0.155463
5747.25	-0.152933
5754.64	-0.151658
5762.03	-0.150376
5776.8	-0.1478
5784.19	-0.146507
5791.58	-0.145211
5806.35	-0.142614
5813.74	-0.141315
5821.12	-0.140016
5835.9	-0.137422
5843.29	-0.136128
5850.67	-0.134836
5865.45	-0.132262
5872.84	-0.130981
5880.22	-0.129703
5895	-0.127163
5902.38	-0.125901
5917.16	-0.123393
5924.55	-0.122148
5931.93	-0.120909
5946.71	-0.11845
5954.1	-0.117231
5961.48	-0.116019
5976.26	-0.113615
5983.64	-0.112424
5991.03	-0.111239
6005.81	-0.108892
6013.19	-0.10773
6020.58	-0.106574
6035.36	-0.104285
6042.74	-0.103151
6050.13	-0.102024
6064.9	-0.0997915
6072.29	-0.0986856
6087.07	-0.0964945
6094.45	-0.095409
6101.84	-0.0943302
6116.62	-0.092192
6124	-0.0911326
6131.39	-0.0900794
6146.16	-0.0879916
6153.55	-0.0869567
6160.94	-0.0859278
6175.71	-0.0838874
6183.1	-0.0828757
6190.49	-0.0818696
6205.26	-0.0798738
6212.65	-0.078884
6220.04	-0.0778995
6234.81	-0.0759461
6242.2	-0.0749771
6256.97	-0.0730543
6264.36	-0.0721003
6271.75	-0.0711513
6286.52	-0.069268
6293.91	-0.0683337
6301.3	-0.0674042
6316.07	-0.0655597
6323.46	-0.0646447
6330.85	-0.0637345
6345.62	-0.0619288
6353.01	-0.0610333
6360.39	-0.0601427
6375.17	-0.0583764
6382.56	-0.0575008
6397.33	-0.0557648
6404.72	-0.0549045
6412.11	-0.0540494
6426.88	-0.0523552
6434.27	-0.0515162
6441.65	-0.0506827
6456.43	-0.0490323
6463.82	-0.0482156
6471.2	-0.0474047
6485.98	-0.0458004
6493.37	-0.0450072
6500.75	-0.0442201
6515.53	-0.0426644
6522.91	-0.041896
6530.3	-0.041134
6545.08	-0.0396293
6552.46	-0.0388869
6567.24	-0.0374221
6574.63	-0.0366999
6582.01	-0.0359846
6596.79	-0.0345748
6604.17	-0.0338805
6611.56	-0.0331933
6626.34	-0.0318404
6633.72	-0.0311747
6641.11	-0.0305164
6655.89	-0.0292216
6663.27	-0.0285852
6670.66	-0.0279562
6685.43	-0.0267203
6692.82	-0.0261135
6700.21	-0.025514
6714.98	-0.0243371
6722.37	-0.0237596
6737.15	-0.0226265
6744.53	-0.0220708
6751.92	-0.0215223
6766.69	-0.0204466
6774.08	-0.0199193
6781.47	-0.0193988
6796.24	-0.0183785
6803.63	-0.0178783
6811.02	-0.0173848
6825.79	-0.0164169
6833.18	-0.0159425
6840.57	-0.0154742
6855.34	-0.0145554
6862.73	-0.0141047
6870.12	-0.0136596
6884.89	-0.0127857
6892.28	-0.0123566
6907.05	-0.0115132
6914.44	-0.0110986
6921.83	-0.0106885
6936.6	-0.0098811
6943.99	-0.00948346
6951.38	-0.0090896
6966.15	-0.00831253
6973.54	-0.00792892
6980.93	-0.00754835
6995.7	-0.00679553
7003.09	-0.00642289
7010.48	-0.00605249
7025.25	-0.00531765
7032.64	-0.0049528
7040.02	-0.0045894
7054.8	-0.00386615
7062.19	-0.00350591
7076.96	-0.00278721
7084.35	-0.00242836
7091.74	-0.00206959
7106.51	-0.00135153
7113.9	-0.000991873
7121.28	-0.000631551
7136.06	9.17916e-05
7143.45	0.000455157
7150.83	0.000819875
7165.61	0.00155402
7173	0.00192375
7180.38	0.00229547
7195.16	0.0030454
7202.54	0.00342389
7217.32	0.00418856
7224.71	0.00457498
7232.09	0.00496427
7246.87	0.00575187
7254.26	0.00615036
7261.64	0.00655211
7276.42	0.00736566
7283.8	0.00777759
7291.19	0.00819304
7305.97	0.00903468
7313.35	0.00946095
7320.74	0.00989089
7335.52	0.0107619
7342.9	0.0112029
7350.29	0.0116477
7365.06	0.0125483
7372.45	0.0130041
7387.23	0.0139265
7394.61	0.014393
7402	0.0148631
7416.77	0.0158133
7424.16	0.0162934
7431.55	0.0167766
7446.32	0.0177523
7453.71	0.0182446
7461.1	0.0187396
7475.87	0.0197376
7483.26	0.0202402
7490.65	0.0207452
7505.42	0.0217612
7512.81	0.0222721
7520.2	0.0227846
7534.97	0.0238139
7542.36	0.0243304
7557.13	0.025366
7564.52	0.0258848
7571.91	0.0264039
7586.68	0.0274426
7594.07	0.0279616
7601.46	0.0284803
7616.23	0.0295153
7623.62	0.0300312
7631	0.0305459
7645.78	0.0315702
7653.17	0.0320795
7660.55	0.0325864
7675.33	0.0335927
7682.72	0.0340915
7690.1	0.034587
7704.88	0.0355676
7712.26	0.036052
7727.04	0.0370082
7734.43	0.0374794
7741.81	0.0379456
7756.59	0.0388625
7763.97	0.0393126
7771.36	0.0397568
7786.14	0.0406267
7793.52	0.041052
7800.91	0.0414704
7815.69	0.0422859
7823.07	0.0426825
7830.46	0.0430714
7845.23	0.0438253
7852.62	0.0441898
7860.01	0.0445458
7874.78	0.0452312
7882.17	0.0455603
7896.95	0.0461903
7904.33	0.0464908
7911.72	0.0467813
7926.49	0.0473321
7933.88	0.047592
7941.27	0.0478413
7956.04	0.0483075
7963.43	0.0485242
7970.82	0.0487297
7985.59	0.0491067
7992.98	0.0492779
8000.37	0.0494375
8015.14	0.0497212
8022.53	0.0498451
8037.3	0.0500567
8044.69	0.0501441
8052.08	0.0502192
8066.85	0.0503322
8074.24	0.0503699
8081.63	0.0503951
8096.4	0.0504074
8103.79	0.0503946
8111.17	0.050369
8125.95	0.0502795
8133.34	0.0502156
8140.72	0.0501389
8155.5	0.0499472
8162.89	0.0498321
8170.27	0.0497043
8185.05	0.0494105
8192.43	0.0492446
8207.21	0.0488749
8214.6	0.0486712
8221.98	0.048455
8236.76	0.0479854
8244.14	0.0477322
8251.53	0.0474667
8266.31	0.0468995
8273.69	0.0465979
8281.08	0.0462844
8295.86	0.0456224
8303.24	0.045274
8310.63	0.0449141
8325.4	0.0441607
8332.79	0.0437673
8340.18	0.043363
8354.95	0.0425221
8362.34	0.0420858
8377.11	0.0411822
8384.5	0.0407152
8391.89	0.0402384
8406.66	0.0392555
8414.05	0.0387499
8421.44	0.038235
8436.21	0.0371781
8443.6	0.0366365
8450.99	0.0360863
8465.76	0.034961
8473.15	0.0343862
8480.54	0.0338036
8495.31	0.0326158
8502.7	0.032011
8510.08	0.0313991
8524.86	0.0301549
8532.25	0.0295231
8547.02	0.0282409
8554.41	0.0275909
8561.8	0.0269354
8576.57	0.0256082
8583.96	0.024937
8591.34	0.024261
8606.12	0.0228954
8613.51	0.0222063
8620.89	0.0215132
8635.67	0.020116
8643.05	0.0194123
8650.44	0.0187055
8665.22	0.0172834
8672.6	0.0165685
8687.38	0.0151322
8694.77	0.0144112
8702.15	0.0136885
8716.93	0.0122391
8724.31	0.0115127
8731.7	0.0107855
8746.48	0.00932956
8753.86	0.00860117
8761.25	0.00787278
8776.03	0.00641678
8783.41	0.00568957
8790.8	0.00496315
8805.57	0.00351344
8812.96	0.00279053
8820.35	0.00206917
8835.12	0.000631854
8842.51	-8.37382e-05
8857.28	-0.00150788
8864.67	-0.00221608
8872.06	-0.00292147
8886.83	-0.0043231
8894.22	-0.00501901
8901.61	-0.00571143
8916.38	-0.00708515
8923.77	-0.00776613
8931.16	-0.00844299
8945.93	-0.00978372
8953.32	-0.0104473
8960.71	-0.0111061
8975.48	-0.0124091
8982.87	-0.013053
8990.26	-0.0136916
9005.03	-0.0149524
9012.42	-0.0155745
9027.19	-0.0168011
9034.58	-0.0174054
9041.97	-0.0180037
9056.74	-0.0191814
9064.13	-0.0197607
9071.51	-0.0203334
9086.29	-0.0214589
9093.68	-0.0220115
9101.06	-0.0225572
9115.84	-0.0236276
9123.23	-0.0241521
9130.61	-0.0246695
9145.39	-0.0256822
9152.77	-0.0261776
9160.16	-0.0266654
9174.94	-0.0276185
9182.32	-0.0280837
9197.1	-0.0289909
9204.49	-0.0294329
9211.87	-0.0298671
9226.65	-0.0307121
9234.03	-0.0311227
9241.42	-0.0315255
9256.2	-0.0323072
9263.58	-0.0326861
9270.97	-0.0330571
9285.74	-0.033775
9293.13	-0.034122
9300.52	-0.034461
9315.29	-0.0351151
9322.68	-0.0354302
9330.07	-0.0357373
9344.84	-0.0363277
9352.23	-0.036611
9367	-0.037154
9374.39	-0.0374138
9381.78	-0.0376657
9396.55	-0.0381463
9403.94	-0.038375
9411.33	-0.0385961
9426.1	-0.0390154
9433.49	-0.0392138
9440.88	-0.0394046
9455.65	-0.0397641
9463.04	-0.0399329
9470.43	-0.0400944
9485.2	-0.0403958
9492.59	-0.0405358
9507.36	-0.0407949
9514.75	-0.040914
9522.14	-0.0410264
9536.91	-0.0412309
9544.3	-0.0413232
9551.69	-0.041409
9566.46	-0.0415612
9573.85	-0.0416278
9581.23	-0.0416882
9596.01	-0.0417906
9603.4	-0.0418327
9610.78	-0.041869
9625.56	-0.0419241
9632.95	-0.0419431
9640.33	-0.0419566
9655.11	-0.0419671
9662.49	-0.0419643
9677.27	-0.0419431
9684.66	-0.0419249
9692.04	-0.0419017
9706.82	-0.0418407
9714.21	-0.0418031
9721.59	-0.0417609
9736.37	-0.0416629
9743.75	-0.0416073
9751.14	-0.0415474
9765.92	-0.0414151
9773.3	-0.0413428
9780.69	-0.0412667
9795.47	-0.0411028
9802.85	-0.0410153
9810.24	-0.0409242
9825.01	-0.0407315
9832.4	-0.0406301
9847.18	-0.0404175
9854.56	-0.0403064
9861.95	-0.0401923
9876.73	-0.0399553
9884.11	-0.0398325
9891.5	-0.039707
9906.27	-0.039448
9913.66	-0.0393147
9921.05	-0.039179
9935.82	-0.0389004
9943.21	-0.0387576
9950.6	-0.0386127
9965.37	-0.0383167
9972.76	-0.0381656
9980.15	-0.0380126
9994.92	-0.0377011
10002.3	-0.0375427
10017.1	-0.0372208
10024.5	-0.0370575
10031.9	-0.0368926
10046.6	-0.0365585
10054	-0.0363894
10061.4	-0.0362189
10076.2	-0.0358742
10083.6	-0.0357
10091	-0.0355247
10105.7	-0.0351707
10113.1	-0.0349922
10120.5	-0.0348127
10135.3	-0.0344509
10142.7	-0.0342687
10150.1	-0.0340856
10164.8	-0.0337171
10172.2	-0.0335317
10187	-0.0331588
10194.4	-0.0329713
10201.8	-0.0327832
10216.5	-0.0324051
10223.9	-0.0322152
10231.3	-0.0320248
10246.1	-0.0316424
10253.5	-0.0314504
10260.9	-0.031258
10275.6	-0.0308718
10283	-0.0306781
10290.4	-0.0304839
10305.2	-0.0300944
10312.6	-0.0298991
10327.3	-0.0295073
10334.7	-0.0293109
10342.1	-0.0291141
10356.9	-0.0287195
10364.3	-0.0285218
10371.7	-0.0283237
10386.4	-0.0279265
10393.8	-0.0277274
10401.2	-0.027528
10416	-0.0271283
10423.4	-0.0269279
10430.8	-0.0267272
10445.5	-0.0263249
10452.9	-0.0261232
10460.3	-0.0259212
10475.1	-0.0255161
10482.5	-0.0253131
10497.3	-0.0249059
10504.6	-0.0247018
10512	-0.0244973
10526.8	-0.024087
10534.2	-0.0238813
10541.6	-0.0236752
10556.4	-0.0232618
10563.7	-0.0230544
10571.1	-0.0228465
10585.9	-0.0224295
10593.3	-0.0222202
10600.7	-0.0220105
10615.5	-0.0215895
10622.8	-0.0213783
10630.2	-0.0211665
10645	-0.0207413
10652.4	-0.0205279
10667.2	-0.0200993
10674.5	-0.0198841
10681.9	-0.0196683
10696.7	-0.0192348
10704.1	-0.0190171
10711.5	-0.0187988
10726.3	-0.0183602
10733.6	-0.0181399
10741	-0.0179188
10755.8	-0.0174747
10763.2	-0.0172516
10770.6	-0.0170277
10785.4	-0.0165778
10792.7	-0.0163517
10800.1	-0.0161248
10814.9	-0.0156688
10822.3	-0.0154396
10837.1	-0.0149789
10844.5	-0.0147474
10851.8	-0.014515
10866.6	-0.0140479
10874	-0.0138131
10881.4	-0.0135774
10896.2	-0.0131037
10903.6	-0.0128656
10910.9	-0.0126267
10925.7	-0.0121463
10933.1	-0.0119049
10940.5	-0.0116626
10955.3	-0.0111755
10962.7	-0.0109308
10970	-0.0106852
10984.8	-0.0101915
10992.2	-0.0099434
11007	-0.00944481
11014.4	-0.00919432
11021.8	-0.00894302
11036.5	-0.00843806
11043.9	-0.00818442
11051.3	-0.00793001
11066.1	-0.00741892
11073.5	-0.00716227
11080.8	-0.0069049
11095.6	-0.00638802
11103	-0.00612854
11110.4	-0.00586839
11125.2	-0.00534612
11132.6	-0.00508403
11147.3	-0.00455803
11154.7	-0.00429415
11162.1	-0.00402971
11176.9	-0.00349922
11184.3	-0.00323321
11191.7	-0.00296672
11206.4	-0.00243236
11213.8	-0.00216454
11221.2	-0.00189632
11236	-0.00135879
11243.4	-0.00108952
11250.8	-0.000819953
11265.5	-0.000280018
11272.9	-9.7029e-06
11280.3	0.000260808
11295.1	0.000802309
11302.5	0.00107324
11317.2	0.00161533
11324.6	0.00188642
11332	0.00215751
11346.8	0.00269954
11354.2	0.00297042
11361.6	0.00324117
11376.3	0.00378214
11383.7	0.0040523
11391.1	0.0043222
11405.9	0.00486106
11413.3	0.00512996
11420.7	0.00539846
11435.4	0.00593411
11442.8	0.0062012
11450.2	0.00646774
11465	0.00699905
11472.4	0.00726375
11487.1	0.00779105
11494.5	0.00805357
11501.9	0.0083153
11516.7	0.0088362
11524.1	0.0090953
11531.5	0.00935346
11546.2	0.00986678
11553.6	0.0101219
11561	0.0103758
11575.8	0.0108804
11583.2	0.0111308
11590.6	0.01138
11605.3	0.0118745
11612.7	0.0121198
11620.1	0.0123636
11634.9	0.0128469
11642.3	0.0130863
11657.1	0.0135604
11664.4	0.013795
11671.8	0.014028
11686.6	0.0144888
11694	0.0147166
11701.4	0.0149425
11716.2	0.0153889
11723.5	0.0156092
11730.9	0.0158276
11745.7	0.0162584
11753.1	0.0164707
11760.5	0.0166809
11775.3	0.017095
11782.6	0.0172988
11790	0.0175004
11804.8	0.0178967
11812.2	0.0180914
11827	0.0184738
11834.4	0.0186614
11841.7	0.0188465
11856.5	0.0192094
11863.9	0.019387
11871.3	0.0195621
11886.1	0.0199046
11893.4	0.0200718
11900.8	0.0202364
11915.6	0.0205576
11923	0.020714
11930.4	0.0208677
11945.2	0.0211666
11952.5	0.0213119
11967.3	0.0215937
11974.7	0.0217303
11982.1	0.0218639
11996.9	0.0221222
12004.3	0.0222469
12011.6	0.0223686
12026.4	0.0226028
12033.8	0.0227153
12041.2	0.0228247
12056	0.0230341
12063.4	0.0231341
12070.7	0.0232309
12085.5	0.023415
12092.9	0.0235022
12100.3	0.0235862
12115.1	0.0237445
12122.5	0.0238187
12137.2	0.0239573
12144.6	0.0240216
12152	0.0240826
12166.8	0.0241946
12174.2	0.0242456
12181.6	0.0242932
12196.3	0.0243782
12203.7	0.0244157
12211.1	0.0244497
12225.9	0.0245076
12233.3	0.0245314
12240.6	0.0245518
12255.4	0.0245822
12262.8	0.0245923
12270.2	0.0245989
12285	0.0246017
12292.4	0.0245979
12307.1	0.02458
12314.5	0.0245658
12321.9	0.0245482
12336.7	0.0245025
12344.1	0.0244744
12351.5	0.0244429
12366.2	0.0243694
12373.6	0.0243275
12381	0.0242821
12395.8	0.024181
12403.2	0.0241253
12410.6	0.0240661
12425.3	0.0239373
12432.7	0.0238678
12440.1	0.0237949
12454.9	0.0236388
12462.3	0.0235556
12477	0.0233791
12484.4	0.0232858
12491.8	0.0231891
12506.6	0.0229857
12514	0.022879
12521.4	0.0227689
12536.1	0.0225389
12543.5	0.022419
12550.9	0.0222958
12565.7	0.0220397
12573.1	0.0219068
12580.5	0.0217707
12595.2	0.0214889
12602.6	0.0213433
12610	0.0211945
12624.8	0.0208877
12632.2	0.0207297
12646.9	0.0204044
12654.3	0.0202373
12661.7	0.0200672
12676.5	0.019718
12683.9	0.0195391
12691.3	0.0193572
12706	0.018985
12713.4	0.0187946
12720.8	0.0186015
12735.6	0.0182069
12743	0.0180055
12750.4	0.0178015
12765.1	0.0173855
12772.5	0.0171737
12787.3	0.0167423
12794.7	0.0165229
12802.1	0.016301
12816.9	0.01585
12824.2	0.015621
12831.6	0.0153897
12846.4	0.0149202
12853.8	0.0146821
12861.2	0.0144419
12876	0.0139551
12883.3	0.0137086
12890.7	0.01346
12905.5	0.0129571
12912.9	0.0127028
12920.3	0.0124467
12935.1	0.011929
12942.4	0.0116675
12957.2	0.0111396
12964.6	0.0108733
12972	0.0106054
12986.8	0.0100651
12994.2	0.00979286
13001.5	0.00951923
13016.3	0.00896807
13023.7	0.00869063
13031.1	0.00841202
13045.9	0.00785145
13053.2	0.00756959
13060.6	0.00728675
13075.4	0.00671832
13082.8	0.00643282
13090.2	0.00614653
13105	0.0055718
13112.3	0.00528346
13127.1	0.00470505
13134.5	0.0044151
13141.9	0.0041247
13156.7	0.00354281
13164.1	0.00325142
13171.4	0.00295979
13186.2	0.00237604
13193.6	0.00208402
13201	0.00179198
13215.8	0.001208
13223.2	0.000916172
13230.5	0.00062452
13245.3	4.19431e-05
13252.7	-0.00024888
13260.1	-0.000539325
13274.9	-0.00111888
13282.3	-0.0014079
13297	-0.00198414
13304.4	-0.00227127
13311.8	-0.00255767
13326.6	-0.00312811
13334	-0.00341205
13341.4	-0.00369507
13356.1	-0.00425816
13363.5	-0.00453813
13370.9	-0.004817
13385.7	-0.00537123
13393.1	-0.00564649
13400.5	-0.00592047
13415.2	-0.00646437
13422.6	-0.0067342
13437.4	-0.00726943
13444.8	-0.00753473
13452.2	-0.00779844
13466.9	-0.00832091
13474.3	-0.00857959
13481.7	-0.00883651
13496.5	-0.00934492
13503.9	-0.00959633
13511.3	-0.00984583
13526	-0.0103389
13533.4	-0.0105825
13540.8	-0.010824
13555.6	-0.0113006
13563	-0.0115357
13570.4	-0.0117687
13585.1	-0.0122278
13592.5	-0.0124539
13607.3	-0.0128992
13614.7	-0.0131183
13622.1	-0.013335
13636.8	-0.0137611
13644.2	-0.0139704
13651.6	-0.0141773
13666.4	-0.0145832
13673.8	-0.0147824
13681.2	-0.0149789
13695.9	-0.015364
13703.3	-0.0155526
13710.7	-0.0157385
13725.5	-0.0161021
13732.9	-0.0162798
13740.3	-0.0164547
13755	-0.0167963
13762.4	-0.0169628
13777.2	-0.0172874
13784.6	-0.0174454
13792	-0.0176006
13806.7	-0.0179023
13814.1	-0.0180488
13821.5	-0.0181923
13836.3	-0.0184708
13843.7	-0.0186056
13851.1	-0.0187374
13865.8	-0.0189923
13873.2	-0.0191154
13880.6	-0.0192354
13895.4	-0.0194666
13902.8	-0.0195778
13910.2	-0.019686
13924.9	-0.0198934
13932.3	-0.0199926
13947.1	-0.0201822
13954.5	-0.0202725
13961.9	-0.0203599
13976.7	-0.0205257
13984	-0.0206042
13991.4	-0.0206797
14006.2	-0.0208219
14013.6	-0.0208886
14021	-0.0209523
14035.8	-0.0210711
14043.1	-0.0211261
14050.5	-0.0211782
14065.3	-0.0212737
14072.7	-0.0213172
14080.1	-0.0213578
14094.9	-0.0214304
14102.2	-0.0214625
14117	-0.0215183
14124.4	-0.0215419
14131.8	-0.0215628
14146.6	-0.0215964
14154	-0.021609
14161.3	-0.021619
14176.1	-0.0216308
14183.5	-0.0216327
14190.9	-0.0216319
14205.7	-0.0216225
14213	-0.0216139
14220.4	-0.0216027
14235.2	-0.0215726
14242.6	-0.0215537
14257.4	-0.0215086
14264.8	-0.0214822
14272.1	-0.0214535
14286.9	-0.0213887
14294.3	-0.0213527
14301.7	-0.0213144
14316.5	-0.0212306
14323.9	-0.0211853
14331.2	-0.0211377
14346	-0.0210357
14353.4	-0.0209814
14360.8	-0.0209249
14375.6	-0.0208054
14383	-0.0207424
14390.3	-0.0206774
14405.1	-0.0205411
14412.5	-0.0204699
14427.3	-0.0203216
14434.7	-0.0202445
14442.1	-0.0201654
14456.8	-0.0200016
14464.2	-0.019917
14471.6	-0.0198305
14486.4	-0.0196521
14493.8	-0.0195602
14501.2	-0.0194667
14515.9	-0.0192745
14523.3	-0.019176
14530.7	-0.0190758
14545.5	-0.0188707
14552.9	-0.0187658
14560.3	-0.0186594
14575	-0.0184422
14582.4	-0.0183314
14597.2	-0.0181057
14604.6	-0.0179908
14612	-0.0178746
14626.7	-0.0176384
14634.1	-0.0175184
14641.5	-0.0173972
14656.3	-0.0171512
14663.7	-0.0170265
14671.1	-0.0169008
14685.8	-0.016646
14693.2	-0.0165171
14700.6	-0.0163873
14715.4	-0.0161247
14722.8	-0.015992
14730.2	-0.0158584
14744.9	-0.0155889
14752.3	-0.0154529
14767.1	-0.0151787
14774.5	-0.0150405
14781.9	-0.0149017
14796.6	-0.0146221
14804	-0.0144814
14811.4	-0.0143402
14826.2	-0.0140561
14833.6	-0.0139134
14841	-0.0137702
14855.7	-0.0134826
14863.1	-0.0133383
14870.5	-0.0131936
14885.3	-0.0129034
14892.7	-0.0127579
14900.1	-0.0126122
14914.8	-0.0123203
14922.2	-0.0121741
14937	-0.0118815
14944.4	-0.0117352
14951.8	-0.0115888
14966.6	-0.011296
14973.9	-0.0111498
14981.3	-0.0110036
14996.1	-0.0107116
15003.5	-0.0105659
15010.9	-0.0104204
15025.6	-0.0101301
15033	-0.00998537
15040.4	-0.00984096
15055.2	-0.00955319
15062.6	-0.00940989
15077.4	-0.0091246
15084.7	-0.00898265
15092.1	-0.00884121
15106.9	-0.00855994
15114.3	-0.00842017
15121.7	-0.008281
15136.5	-0.0080046
15143.8	-0.00786741
15151.2	-0.00773093
15166	-0.0074602
15173.4	-0.007326
15180.8	-0.00719261
15195.6	-0.00692834
15202.9	-0.00679752
15210.3	-0.0066676
15225.1	-0.00641056
15232.5	-0.0062835
15247.3	-0.00603237
15254.7	-0.00590836
15262	-0.00578542
15276.8	-0.0055428
15284.2	-0.00542317
15291.6	-0.0053047
15306.4	-0.00507128
15313.8	-0.00495638
15321.1	-0.00484271
15335.9	-0.00461914
15343.3	-0.00450928
15350.7	-0.00440074
15365.5	-0.00418764
15372.8	-0.00408314
15380.2	-0.00398001
15395	-0.00377798
15402.4	-0.00367911
15417.2	-0.00348574
15424.6	-0.00339127
15431.9	-0.0032983
15446.7	-0.00311692
15454.1	-0.00302854
15461.5	-0.00294171
15476.3	-0.0027728
15483.7	-0.00269074
15491	-0.00261029
15505.8	-0.00245428
15513.2	-0.00237875
15520.6	-0.00230487
15535.4	-0.00216216
15542.8	-0.00209334
15550.1	-0.00202622
15564.9	-0.00189714
15572.3	-0.0018352
15587.1	-0.00171654
15594.5	-0.00165984
15601.9	-0.00160492
15616.6	-0.00150038
15624	-0.00145079
15631.4	-0.00140299
15646.2	-0.00131279
15653.6	-0.0012704
15661	-0.00122983
15675.7	-0.00115412
15683.1	-0.001119
15690.5	-0.00108571
15705.3	-0.00102462
15712.7	-0.000996815
15720.1	-0.000970848
15734.8	-0.000924418
15742.2	-0.000903956
15757	-0.000868534
15764.4	-0.000853573
15771.8	-0.000840443
15786.5	-0.000819667
15793.9	-0.000812016
15801.3	-0.000806186
15816.1	-0.000799973
15823.5	-0.000799582
15830.9	-0.000800994
15845.6	-0.000809207
15853	-0.000815997
15860.4	-0.000824566
15875.2	-0.000847018
15882.6	-0.000860884
15897.3	-0.000893859
15904.7	-0.000912949
15912.1	-0.000933763
15926.9	-0.000980519
15934.3	-0.00100644
15941.7	-0.00103405
15956.4	-0.00109425
15963.8	-0.00112683
15971.2	-0.00116104
15986	-0.00123432
15993.4	-0.00127335
16000.8	-0.00131397
16015.5	-0.00139987
16022.9	-0.00144514
16030.3	-0.00149192
16045.1	-0.00158997
16052.5	-0.00164122
16067.3	-0.00174804
16074.6	-0.00180358
16082	-0.00186053
16096.8	-0.00197854
16104.2	-0.00203956
16111.6	-0.00210191
16126.4	-0.00223049
16133.7	-0.00229669
16141.1	-0.00236412
16155.9	-0.00250262
16163.3	-0.00257364
16170.7	-0.00264581
16185.4	-0.00279352
16192.8	-0.002869
16200.2	-0.00294555
16215	-0.00310173
16222.4	-0.00318131
16237.2	-0.00334332
16244.5	-0.00342571
16251.9	-0.00350898
16266.7	-0.00367807
16274.1	-0.00376384
16281.5	-0.00385039
16296.3	-0.00402571
16303.6	-0.00411443
16311	-0.00420382
16325.8	-0.0043845
16333.2	-0.00447574
16340.6	-0.00456752
16355.4	-0.00475266
16362.7	-0.00484594
16370.1	-0.00493967
16384.9	-0.00512833
16392.3	-0.0052232
16407.1	-0.00541388
16414.5	-0.00550962
16421.8	-0.0056056
16436.6	-0.00579813
16444	-0.00589462
16451.4	-0.00599122
16466.2	-0.00618462
16473.6	-0.00628137
16480.9	-0.00637809
16495.7	-0.00657139
16503.1	-0.00666789
16510.5	-0.00676425
16525.3	-0.00695643
16532.7	-0.0070522
16540	-0.00714769
16554.8	-0.00733778
16562.2	-0.00743231
16577	-0.00762018
16584.4	-0.00771346
16591.7	-0.00780626
16606.5	-0.0079903
16613.9	-0.00808149
16621.3	-0.00817208
16636.1	-0.00835133
16643.5	-0.00843995
16650.8	-0.00852784
16665.6	-0.00870136
16673	-0.00878693
16680.4	-0.00887167
16695.2	-0.00903853
16702.6	-0.00912059
16717.3	-0.00928187
16724.7	-0.00936102
16732.1	-0.00943914
16746.9	-0.00959221
16754.3	-0.0096671
16761.7	-0.00974086
16776.4	-0.0098849
16783.8	-0.00995512
16791.2	-0.0100241
16806	-0.0101583
16813.4	-0.0102235
16820.8	-0.0102873
16835.5	-0.010411
16842.9	-0.0104708
16850.3	-0.0105291
16865.1	-0.0106415
16872.5	-0.0106955
16887.2	-0.0107991
16894.6	-0.0108486
16902	-0.0108966
16916.8	-0.0109879
16924.2	-0.0110312
16931.6	-0.0110728
16946.3	-0.0111513
16953.7	-0.0111881
16961.1	-0.0112232
16975.9	-0.0112885
16983.3	-0.0113186
16990.7	-0.011347
17005.4	-0.0113987
17012.8	-0.0114219
17020.2	-0.0114434
17035	-0.0114812
17042.4	-0.0114975
17057.1	-0.0115248
17064.5	-0.0115357
17071.9	-0.0115449
17086.7	-0.011558
17094.1	-0.0115619
17101.5	-0.011564
17116.2	-0.0115628
17123.6	-0.0115596
17131	-0.0115546
17145.8	-0.0115392
17153.2	-0.0115289
17160.6	-0.0115168
17175.3	-0.0114874
17182.7	-0.0114701
17190.1	-0.011451
17204.9	-0.0114077
17212.3	-0.0113834
17227.1	-0.0113299
17234.4	-0.0113006
17241.8	-0.0112697
17256.6	-0.0112028
17264	-0.0111669
17271.4	-0.0111294
17286.2	-0.0110497
17293.5	-0.0110075
17300.9	-0.0109637
17315.7	-0.0108716
17323.1	-0.0108233
17330.5	-0.0107735
17345.2	-0.0106696
17352.6	-0.0106155
17360	-0.0105601
17374.8	-0.0104451
17382.2	-0.0103856
17397	-0.0102627
17404.3	-0.0101994
17411.7	-0.0101349
17426.5	-0.0100023
17433.9	-0.00993428
17441.3	-0.00986514
17456.1	-0.00972363
17463.4	-0.00965132
17470.8	-0.00957801
17485.6	-0.0094285
17493	-0.00935237
17500.4	-0.00927536
17515.2	-0.00911882
17522.5	-0.00903935
17537.3	-0.0088782
17544.7	-0.00879657
17552.1	-0.00871429
17566.9	-0.00854789
17574.3	-0.00846384
17581.6	-0.00837927
17596.4	-0.00820869
17603.8	-0.00812276
17611.2	-0.00803644
17626	-0.00786279
17633.4	-0.00777552
17640.7	-0.00768801
17655.5	-0.00751239
17662.9	-0.00742435
17670.3	-0.00733621
17685.1	-0.00715975
17692.5	-0.0070715
17707.2	-0.00689515
17714.6	-0.00680711
17722	-0.00671922
17736.8	-0.00654399
17744.2	-0.00645672
17751.5	-0.00636974
17766.3	-0.00619675
17773.7	-0.00611081
17781.1	-0.00602528
17795.9	-0.00585562
17803.3	-0.00577154
17810.6	-0.00568802
17825.4	-0.00552275
17832.8	-0.00544107
17840.2	-0.00536007
17855	-0.00520022
17862.4	-0.00512144
17877.1	-0.00496631
17884.5	-0.00489003
17891.9	-0.00481463
17906.7	-0.00466663
17914.1	-0.00459407
17921.5	-0.00452253
17936.2	-0.00438254
17943.6	-0.00431416
17951	-0.00424689
17965.8	-0.00411577
17973.2	-0.00405197
17980.6	-0.00398937
17995.3	-0.00386788
18002.7	-0.00380903
18010.1	-0.00375147
18024.9	-0.00364031
18032.3	-0.00358675
18047	-0.00348375
18054.4	-0.00343435
18061.8	-0.00338637
18076.6	-0.00329475
18084	-0.00325113
18091.4	-0.00320899
18106.1	-0.00312921
18113.5	-0.0030916
18120.9	-0.00305551
18135.7	-0.00298797
18143.1	-0.00295654
18150.5	-0.00292667
18165.2	-0.00287168
18172.6	-0.00284656
18180	-0.00282303
18194.8	-0.00278079
18202.2	-0.00276207
18216.9	-0.00272947
18224.3	-0.00271559
18231.7	-0.00270332
18246.5	-0.00268361
18253.9	-0.00267617
18261.3	-0.00267033
18276	-0.00266347
18283.4	-0.00266243
18290.8	-0.00266298
18305.6	-0.00266882
18313	-0.00267409
18320.4	-0.00268092
18335.1	-0.00269923
18342.5	-0.00271068
18357.3	-0.00273813
18364.7	-0.0027541
18372.1	-0.00277155
18386.9	-0.00281085
18394.2	-0.00283266
18401.6	-0.00285589
18416.4	-0.00290655
18423.8	-0.00293394
18431.2	-0.00296269
18446	-0.00302416
18453.3	-0.00305684
18460.7	-0.0030908
18475.5	-0.00316245
18482.9	-0.0032001
18490.3	-0.00323893
18505.1	-0.00332005
18512.4	-0.00336229
18527.2	-0.00345
18534.6	-0.00349543
18542	-0.00354187
18556.8	-0.00363766
18564.1	-0.00368697
18571.5	-0.00373717
18586.3	-0.00384017
18593.7	-0.0038929
18601.1	-0.00394642
18615.9	-0.00405569
18623.2	-0.00411138
18630.6	-0.00416774
18645.4	-0.00428231
18652.8	-0.00434047
18660.2	-0.00439917
18675	-0.00451804
18682.3	-0.00457816
18697.1	-0.00469958
18704.5	-0.00476083
18711.9	-0.00482238
18726.7	-0.00494628
18734.1	-0.00500856
18741.4	-0.00507102
18756.2	-0.00519633
18763.6	-0.00525912
18771	-0.00532194
18785.8	-0.00544759
18793.2	-0.00551034
18800.5	-0.005573
18815.3	-0.00569792
18822.7	-0.0057601
18830.1	-0.00582206
18844.9	-0.00594516
18852.3	-0.00600625
18867	-0.00612731
18874.4	-0.00618722
18881.8	-0.00624668
18896.6	-0.00636411
18904	-0.00642202
18911.4	-0.00647935
18926.1	-0.00659214
18933.5	-0.00664755
18940.9	-0.00670225
18955.7	-0.00680943
18963.1	-0.00686185
18970.4	-0.00691345
18985.2	-0.00701408
18992.6	-0.00706306
19007.4	-0.0071582
19014.8	-0.00720431
19022.2	-0.00724941
19036.9	-0.00733648
19044.3	-0.00737841
19051.7	-0.00741923
19066.5	-0.00749744
19073.9	-0.0075348
19081.3	-0.00757096
19096	-0.00763959
19103.4	-0.00767202
19110.8	-0.00770317
19125.6	-0.00776156
19133	-0.00778875
19140.4	-0.00781458
19155.1	-0.00786212
19162.5	-0.00788378
19177.3	-0.00792284
19184.7	-0.00794019
19192.1	-0.00795609
19206.8	-0.00798343
19214.2	-0.00799485
19221.6	-0.00800476
19236.4	-0.00802
19243.8	-0.00802531
19251.2	-0.00802907
19265.9	-0.00803189
19273.3	-0.00803095
19280.7	-0.00802842
19295.5	-0.0080186
19302.9	-0.0080113
19310.3	-0.0080024
19325	-0.00797978
19332.4	-0.00796606
19347.2	-0.00793379
19354.6	-0.00791524
19362	-0.00789509
19376.7	-0.00784995
19384.1	-0.00782497
19391.5	-0.00779839
19406.3	-0.00774044
19413.7	-0.00770908
19421.1	-0.00767613
19435.8	-0.00760551
19443.2	-0.00756785
19450.6	-0.00752863
19465.4	-0.00744555
19472.8	-0.00740171
19480.2	-0.00735635
19494.9	-0.0072611
19502.3	-0.00721123
19517.1	-0.00710708
19524.5	-0.00705282
19531.9	-0.00699711
19546.7	-0.00688144
19554	-0.0068215
19561.4	-0.00676018
19576.2	-0.00663345
19583.6	-0.00656807
19591	-0.00650138
19605.8	-0.0063641
19613.1	-0.00629356
19620.5	-0.00622177
19635.3	-0.00607452
19642.7	-0.0059991
19650.1	-0.00592251
19664.9	-0.00576589
19672.2	-0.00568591
19687	-0.0055227
19694.4	-0.00543951
19701.8	-0.0053553
19716.6	-0.00518389
19723.9	-0.00509674
19731.3	-0.00500865
19746.1	-0.00482976
19753.5	-0.004739
19760.9	-0.0046474
19775.7	-0.00446176
19783	-0.00436777
19790.4	-0.00427303
19805.2	-0.0040814
19812.6	-0.00398456
19827.4	-0.00378895
19834.8	-0.00369022
19842.1	-0.00359092
19856.9	-0.00339068
19864.3	-0.00328979
19871.7	-0.00318842
19886.5	-0.00298433
19893.9	-0.00288166
19901.2	-0.00277861
19916	-0.00257147
19923.4	-0.00246742
19930.8	-0.00236308
19945.6	-0.00215365
19953	-0.0020486
19960.3	-0.00194337
19975.1	-0.00173242
19982.5	-0.00162676
19997.3	-0.00141517
