CPUS:	0	1	2	3	4	5	6	7	8	9	10	11
SPLIT	SIZES:		64	128	256	512	1024	2048	4096	8192
Split	Size:	64
Threads	MTPS	SPEEDUP	SPEEDUP_PER	KML_SPEEDUP	KML_SPEEDUP_TO_NONAFFINITY
1	1.43422	1.0000	1.0000
2	2.63295	1.8358	.9179
3	3.2779	2.2854	.7618
4	4.29887	2.9973	.7493
5	5.25319	3.6627	.7325
6	6.23077	4.3443	.7240
7	7.15165	4.9864	.7123
8	8.07505	5.6302	.7037
9	8.93507	6.2299	.6922
10	9.82101	6.8476	.6847
11	10.6587	7.4317	.6756
12	11.4145	7.9586	.6632
Split	Size:	128
Threads	MTPS	SPEEDUP	SPEEDUP_PER	KML_SPEEDUP	KML_SPEEDUP_TO_NONAFFINITY
1	1.76706	1.0000	1.0000
2	3.68638	2.0861	1.0430
3	4.91146	2.7794	.9264
4	6.43309	3.6405	.9101
5	7.85309	4.4441	.8888
6	9.29878	5.2622	.8770
7	10.6955	6.0527	.8646
8	12.0465	6.8172	.8521
9	13.3567	7.5587	.8398
10	14.6147	8.2706	.8270
11	15.7974	8.9399	.8127
12	16.8981	9.5628	.7969
Split	Size:	256
Threads	MTPS	SPEEDUP	SPEEDUP_PER	KML_SPEEDUP	KML_SPEEDUP_TO_NONAFFINITY
1	2.37222	1.0000	1.0000
2	4.79165	2.0199	1.0099
3	6.57469	2.7715	.9238
4	8.48706	3.5776	.8944
5	10.5146	4.4323	.8864
6	12.404	5.2288	.8714
7	14.2013	5.9865	.8552
8	15.9372	6.7182	.8397
9	17.6053	7.4214	.8246
10	19.1663	8.0794	.8079
11	20.7508	8.7474	.7952
12	22.0559	9.2975	.7747
Split	Size:	512
Threads	MTPS	SPEEDUP	SPEEDUP_PER	KML_SPEEDUP	KML_SPEEDUP_TO_NONAFFINITY
1	2.77586	1.0000	1.0000
2	5.5305	1.9923	.9961
3	7.72421	2.7826	.9275
4	10.0663	3.6263	.9065
5	12.3418	4.4461	.8892
6	14.543	5.2390	.8731
7	16.6692	6.0050	.8578
8	18.719	6.7434	.8429
9	20.6469	7.4380	.8264
10	22.5423	8.1208	.8120
11	24.2538	8.7374	.7943
12	25.9064	9.3327	.7777
Split	Size:	1024
Threads	MTPS	SPEEDUP	SPEEDUP_PER	KML_SPEEDUP	KML_SPEEDUP_TO_NONAFFINITY
1	2.95999	1.0000	1.0000
2	5.9256	2.0018	1.0009
3	8.33561	2.8160	.9386
4	10.8983	3.6818	.9204
5	13.46	4.5473	.9094
6	15.8672	5.3605	.8934
7	18.2163	6.1541	.8791
8	20.4601	6.9122	.8640
9	22.6036	7.6363	.8484
10	24.5656	8.2992	.8299
11	26.5018	8.9533	.8139
12	28.2646	9.5488	.7957
Split	Size:	2048
Threads	MTPS	SPEEDUP	SPEEDUP_PER	KML_SPEEDUP	KML_SPEEDUP_TO_NONAFFINITY
1	3.03195	1.0000	1.0000
2	6.143	2.0260	1.0130
3	8.69732	2.8685	.9561
4	11.4154	3.7650	.9412
5	14.0255	4.6259	.9251
6	16.5592	5.4615	.9102
7	19.0175	6.2723	.8960
8	21.359	7.0446	.8805
9	23.5935	7.7816	.8646
10	25.4582	8.3966	.8396
11	27.7795	9.1622	.8329
12	29.6033	9.7637	.8136
Split	Size:	4096
Threads	MTPS	SPEEDUP	SPEEDUP_PER	KML_SPEEDUP	KML_SPEEDUP_TO_NONAFFINITY
1	3.10292	1.0000	1.0000
2	6.34498	2.0448	1.0224
3	9.03633	2.9122	.9707
4	11.8526	3.8198	.9549
5	14.5249	4.6810	.9362
6	17.1341	5.5219	.9203
7	19.5895	6.3132	.9018
8	21.8908	7.0549	.8818
9	24.1059	7.7687	.8631
10	26.2463	8.4585	.8458
11	27.8305	8.9691	.8153
12	29.6496	9.5553	.7962
Split	Size:	8192
Threads	MTPS	SPEEDUP	SPEEDUP_PER	KML_SPEEDUP	KML_SPEEDUP_TO_NONAFFINITY
1	3.17647	1.0000	1.0000
2	6.47522	2.0384	1.0192
3	9.20781	2.8987	.9662
4	12.0086	3.7804	.9451
5	14.595	4.5947	.9189
6	17.1439	5.3971	.8995
7	19.3872	6.1033	.8719
8	21.7712	6.8538	.8567
9	23.7294	7.4703	.8300
10	25.5482	8.0429	.8042
11	27.5616	8.6768	.7888
12	29.0115	9.1332	.7611
Split	Size:	16384
Threads	MTPS	SPEEDUP	SPEEDUP_PER	KML_SPEEDUP	KML_SPEEDUP_TO_NONAFFINITY
1	3.22678	1.0000	1.0000
2	6.48742	2.0104	1.0052
3	9.15535	2.8373	.9457
4	11.7544	3.6427	.9106
5	14.2059	4.4025	.8805
6	16.3686	5.0727	.8454
7	18.3536	5.6878	.8125
8	19.9963	6.1969	.7746
9	21.8738	6.7788	.7532
10	23.3097	7.2238	.7223
11	24.5459	7.6069	.6915
12	25.4555	7.8888	.6574
Split	Size:	32768
Threads	MTPS	SPEEDUP	SPEEDUP_PER	KML_SPEEDUP	KML_SPEEDUP_TO_NONAFFINITY
1	3.33117	1.0000	1.0000
2	6.40494	1.9227	.9613
3	8.68555	2.6073	.8691
4	10.8893	3.2689	.8172
5	12.4929	3.7503	.7500
6	14.3843	4.3180	.7196
7	15.3973	4.6221	.6603
8	16.6097	4.9861	.6232
9	17.2272	5.1715	.5746
10	17.8394	5.3552	.5355
11	18.6997	5.6135	.5103
12	18.9596	5.6915	.4742
