0	0	2097152	2097152	
15.3477	0	2097152	2097152	
30.6954	0	2097152	2097152	
46.0431	0	2097152	2097152	
61.3908	0	2097152	2097152	
76.7385	0	2097152	2097152	
92.0862	0	2097152	2097152	
107.434	0	2097152	2097152	
122.782	0	2097152	2097152	
138.129	0	2097152	2097152	
153.477	0	2097152	2097152	
168.825	0	2097152	2097152	
184.172	0	2097152	2097152	
199.52	0	2097152	2097152	
214.868	0	2097152	2097152	
230.215	0	2097152	2097152	
245.563	0	2097152	2097152	
260.911	0	2097152	2097152	
276.259	0	2097152	2097152	
291.606	0	2097152	2097152	
306.954	0	2097152	2097152	
322.302	0	2097152	2097152	
337.649	0	2097152	2097152	
352.997	0	2097152	2097152	
368.345	0	2097152	2097152	
383.692	0	2097152	2097152	
399.04	0	2097152	2097152	
414.388	0	2097152	2097152	
429.735	0	2097152	2097152	
445.083	0	2097152	2097152	
460.431	0	2097152	2097152	
475.779	0	2097152	2097152	
491.126	0	2097152	2097152	
506.474	0	2097152	2097152	
521.822	0	2097152	2097152	
537.169	0	2097152	2097152	
552.517	0	2097152	2097152	
567.865	0	2097152	2097152	
583.212	0	2097152	2097152	
598.56	0	2097152	2097152	
613.908	0	2097152	2097152	
629.256	0	2097152	2097152	
644.603	0	2097152	2097152	
659.951	0	2097152	2097152	
675.299	0	2097152	2097152	
690.646	0	2097152	2097152	
705.994	0	2097152	2097152	
721.342	0	2097152	2097152	
736.689	0	2097152	2097152	
752.037	0	2097152	2097152	
767.385	0	2097152	2097152	
782.732	0	2097152	2097152	
798.08	0	2097152	2097152	
813.428	0	2097152	2097152	
828.776	0	2097152	2097152	
844.123	0	2097152	2097152	
859.471	0	2097152	2097152	
874.819	0	2097152	2097152	
890.166	0	2097152	2097152	
905.514	0	2097152	2097152	
920.862	0	2097152	2097152	
936.209	0	2097152	2097152	
951.557	0	2097152	2097152	
966.905	0	2097152	2097152	
982.252	0	2097152	2097152	
997.6	0	2097152	2097152	
1012.95	0	2097152	2097152	
1028.3	0	2097152	2097152	
1043.64	0	2097152	2097152	
1058.99	0	2097152	2097152	
1074.34	0	2097152	2097152	
1089.69	0	2097152	2097152	
1105.03	0	2097152	2097152	
1120.38	0	2097152	2097152	
1135.73	0	2097152	2097152	
1151.08	0	2097152	2097152	
1166.42	0	2097152	2097152	
1181.77	0	2097152	2097152	
1197.12	0	2097152	2097152	
1212.47	0	2097152	2097152	
1227.82	0	2097152	2097152	
1243.16	0	2097152	2097152	
1258.51	0	2097152	2097152	
1273.86	0	2097152	2097152	
1289.21	0	2097152	2097152	
1304.55	0	2097152	2097152	
1319.9	0	2097152	2097152	
1335.25	0	2097152	2097152	
1350.6	0	2097152	2097152	
1365.94	0	2097152	2097152	
1381.29	0	2097152	2097152	
1396.64	0	2097152	2097152	
1411.99	0	2097152	2097152	
1427.34	0	2097152	2097152	
1442.68	0	2097152	2097152	
1458.03	0	2097152	2097152	
1473.38	0	2097152	2097152	
1488.73	0	2097152	2097152	
1504.07	0	2097152	2097152	
1519.42	0	2097152	2097152	
1534.77	0	2097152	2097152	
1550.12	0	2097152	2097152	
1565.46	0	2097152	2097152	
1580.81	0	2097152	2097152	
1596.16	0	2097152	2097152	
1611.51	0	2097152	2097152	
1626.86	0	2097152	2097152	
1642.2	0	2097152	2097152	
1657.55	0	2097152	2097152	
1672.9	0	2097152	2097152	
1688.25	0	2097152	2097152	
1703.59	0	2097152	2097152	
1718.94	0	2097152	2097152	
1734.29	0	2097152	2097152	
1749.64	0	2097152	2097152	
1764.98	0	2097152	2097152	
1780.33	0	2097152	2097152	
1795.68	0	2097152	2097152	
1811.03	0	2097152	2097152	
1826.38	0	2097152	2097152	
1841.72	0	2097152	2097152	
1857.07	0	2097152	2097152	
1872.42	0	2097152	2097152	
1887.77	0	2097152	2097152	
1903.11	0	2097152	2097152	
1918.46	0	2097152	2097152	
1933.81	0	2097152	2097152	
1949.16	0	2097152	2097152	
1964.5	0	2097152	2097152	
1979.85	0	2097152	2097152	
1995.2	0	2097152	2097152	
2010.55	0	2097152	2097152	
2025.9	0	2097152	2097152	
2041.24	0	2097152	2097152	
2056.59	0	2097152	2097152	
2071.94	0	2097152	2097152	
2087.29	0	2097152	2097152	
2102.63	0	2097152	2097152	
2117.98	0	2097152	2097152	
2133.33	0	2097152	2097152	
2148.68	0	2097152	2097152	
2164.03	0	2097152	2097152	
2179.37	0	2097152	2097152	
2194.72	0	2097152	2097152	
2210.07	0	2097152	2097152	
2225.42	0	2097152	2097152	
2240.76	0	2097152	2097152	
2256.11	0	2097152	2097152	
2271.46	0	2097152	2097152	
2286.81	0	2097152	2097152	
2302.15	0	2097152	2097152	
2317.5	0	2097152	2097152	
2332.85	0	2097152	2097152	
2348.2	0	2097152	2097152	
2363.55	0	2097152	2097152	
2378.89	0	2097152	2097152	
2394.24	0	2097152	2097152	
2409.59	0	2097152	2097152	
2424.94	0	2097152	2097152	
2440.28	0	2097152	2097152	
2455.63	0	2097152	2097152	
2470.98	0	2097152	2097152	
2486.33	0	2097152	2097152	
2501.67	0	2097152	2097152	
2517.02	0	2097152	2097152	
2532.37	0	2097152	2097152	
2547.72	0	2097152	2097152	
2563.07	0	2097152	2097152	
2578.41	0	2097152	2097152	
2593.76	0	2097152	2097152	
2609.11	0	2097152	2097152	
2624.46	0	2097152	2097152	
2639.8	0	2097152	2097152	
2655.15	0	2097152	2097152	
2670.5	0	2097152	2097152	
2685.85	0	2097152	2097152	
2701.19	0	2097152	2097152	
2716.54	0	2097152	2097152	
2731.89	0	2097152	2097152	
2747.24	0	2097152	2097152	
2762.59	0	2097152	2097152	
2777.93	0	2097152	2097152	
2793.28	0	2097152	2097152	
2808.63	0	2097152	2097152	
2823.98	0	2097152	2097152	
2839.32	0	2097152	2097152	
2854.67	0	2097152	2097152	
2870.02	0	2097152	2097152	
2885.37	0	2097152	2097152	
2900.71	0	2097152	2097152	
2916.06	0	2097152	2097152	
2931.41	0	2097152	2097152	
2946.76	0	2097152	2097152	
2962.11	0	2097152	2097152	
2977.45	0	2097152	2097152	
2992.8	0	2097152	2097152	
3008.15	0	2097152	2097152	
3023.5	0	2097152	2097152	
3038.84	0	2097152	2097152	
3054.19	0	2097152	2097152	
3069.54	0	2097152	2097152	
3084.89	0	2097152	2097152	
3100.23	0	2097152	2097152	
3115.58	0	2097152	2097152	
3130.93	0	2097152	2097152	
3146.28	0	2097152	2097152	
3161.63	0	2097152	2097152	
3176.97	0	2097152	2097152	
3192.32	0	2097152	2097152	
3207.67	0	2097152	2097152	
3223.02	0	2097152	2097152	
3238.36	0	2097152	2097152	
3253.71	0	2097152	2097152	
3269.06	0	2097152	2097152	
3284.41	0	2097152	2097152	
3299.75	0	2097152	2097152	
3315.1	0	2097152	2097152	
3330.45	0	2097152	2097152	
3345.8	0	2097152	2097152	
3361.15	0	2097152	2097152	
3376.49	0	2097152	2097152	
3391.84	0	2097152	2097152	
3407.19	0	2097152	2097152	
3422.54	0	2097152	2097152	
3437.88	0	2097152	2097152	
3453.23	0	2097152	2097152	
3468.58	0	2097152	2097152	
3483.93	0	2097152	2097152	
3499.27	0	2097152	2097152	
3514.62	0	2097152	2097152	
3529.97	0	2097152	2097152	
3545.32	0	2097152	2097152	
3560.67	0	2097152	2097152	
3576.01	0	2097152	2097152	
3591.36	0	2097152	2097152	
3606.71	0	2097152	2097152	
3622.06	0	2097152	2097152	
3637.4	0	2097152	2097152	
3652.75	0	2097152	2097152	
3668.1	0	2097152	2097152	
3683.45	0	2097152	2097152	
3698.79	0	2097152	2097152	
3714.14	0	2097152	2097152	
3729.49	0	2097152	2097152	
3744.84	0	2097152	2097152	
3760.19	0	2097152	2097152	
3775.53	0	2097152	2097152	
3790.88	0	2097152	2097152	
3806.23	0	2097152	2097152	
3821.58	0	2097152	2097152	
3836.92	0	2097152	2097152	
3852.27	0	2097152	2097152	
3867.62	0	2097152	2097152	
3882.97	0	2097152	2097152	
3898.31	0	2097152	2097152	
3913.66	0	2097152	2097152	
3929.01	0	2097152	2097152	
3944.36	0	2097152	2097152	
3959.71	0	2097152	2097152	
3975.05	0	2097152	2097152	
3990.4	0	2097152	2097152	
4005.75	0	2097152	2097152	
4021.1	0	2097152	2097152	
4036.44	0	2097152	2097152	
4051.79	0	2097152	2097152	
4067.14	0	2097152	2097152	
4082.49	0	2097152	2097152	
4097.83	0	2097152	2097152	
4113.18	0	2097152	2097152	
4128.53	0	2097152	2097152	
4143.88	0	2097152	2097152	
4159.23	0	2097152	2097152	
4174.57	0	2097152	2097152	
4189.92	0	2097152	2097152	
4205.27	0	2097152	2097152	
4220.62	0	2097152	2097152	
4235.96	0	2097152	2097152	
4251.31	0	2097152	2097152	
4266.66	0	2097152	2097152	
4282.01	0	2097152	2097152	
4297.35	0	2097152	2097152	
4312.7	0	2097152	2097152	
4328.05	0	2097152	2097152	
4343.4	0	2097152	2097152	
4358.75	0	2097152	2097152	
4374.09	0	2097152	2097152	
4389.44	0	2097152	2097152	
4404.79	0	2097152	2097152	
4420.14	0	2097152	2097152	
4435.48	0	2097152	2097152	
4450.83	0	2097152	2097152	
4466.18	0	2097152	2097152	
4481.53	0	2097152	2097152	
4496.87	0	2097152	2097152	
4512.22	0	2097152	2097152	
4527.57	0	2097152	2097152	
4542.92	0	2097152	2097152	
4558.27	0	2097152	2097152	
4573.61	0	2097152	2097152	
4588.96	0	2097152	2097152	
4604.31	0	2097152	2097152	
4619.66	0	2097152	2097152	
4635	0	2097152	2097152	
4650.35	0	2097152	2097152	
4665.7	0	2097152	2097152	
4681.05	0	2097152	2097152	
4696.39	0	2097152	2097152	
4711.74	0	2097152	2097152	
4727.09	0	2097152	2097152	
4742.44	0	2097152	2097152	
4757.79	0	2097152	2097152	
4773.13	0	2097152	2097152	
4788.48	0	2097152	2097152	
4803.83	0	2097152	2097152	
4819.18	0	2097152	2097152	
4834.52	0	2097152	2097152	
4849.87	0	2097152	2097152	
4865.22	0	2097152	2097152	
4880.57	0	2097152	2097152	
4895.91	0	2097152	2097152	
4911.26	0	2097152	2097152	
4926.61	0	2097152	2097152	
4941.96	0	2097152	2097152	
4957.31	0	2097152	2097152	
4972.65	0	2097152	2097152	
4988	0	2097152	2097152	
5003.35	0	2097152	2097152	
5018.7	0	2097152	2097152	
5034.04	0	2097152	2097152	
5049.39	0	2097152	2097152	
5064.74	0	2097152	2097152	
5080.09	0	2097152	2097152	
5095.43	0	2097152	2097152	
5110.78	0	2097152	2097152	
5126.13	0	2097152	2097152	
5141.48	0	2097152	2097152	
5156.83	0	2097152	2097152	
5172.17	0	2097152	2097152	
5187.52	0	2097152	2097152	
5202.87	0	2097152	2097152	
5218.22	0	2097152	2097152	
5233.56	0	2097152	2097152	
5248.91	0	2097152	2097152	
5264.26	0	2097152	2097152	
5279.61	0	2097152	2097152	
5294.95	0	2097152	2097152	
5310.3	0	2097152	2097152	
5325.65	0	2097152	2097152	
5341	0	2097152	2097152	
5356.35	0	2097152	2097152	
5371.69	0	2097152	2097152	
5387.04	0	2097152	2097152	
5402.39	0	2097152	2097152	
5417.74	0	2097152	2097152	
5433.08	0	2097152	2097152	
5448.43	0	2097152	2097152	
5463.78	0	2097152	2097152	
5479.13	0	2097152	2097152	
5494.47	0	2097152	2097152	
5509.82	0	2097152	2097152	
5525.17	0	2097152	2097152	
5540.52	0	2097152	2097152	
5555.87	0	2097152	2097152	
5571.21	0	2097152	2097152	
5586.56	0	2097152	2097152	
5601.91	0	2097152	2097152	
5617.26	0	2097152	2097152	
5632.6	0	2097152	2097152	
5647.95	0	2097152	2097152	
5663.3	0	2097152	2097152	
5678.65	0	2097152	2097152	
5693.99	0	2097152	2097152	
5709.34	0	2097152	2097152	
5724.69	0	2097152	2097152	
5740.04	0	2097152	2097152	
5755.39	0	2097152	2097152	
5770.73	0	2097152	2097152	
5786.08	0	2097152	2097152	
5801.43	0	2097152	2097152	
5816.78	0	2097152	2097152	
5832.12	0	2097152	2097152	
5847.47	0	2097152	2097152	
5862.82	0	2097152	2097152	
5878.17	0	2097152	2097152	
5893.51	0	2097152	2097152	
5908.86	0	2097152	2097152	
5924.21	0	2097152	2097152	
5939.56	0	2097152	2097152	
5954.91	0	2097152	2097152	
5970.25	0	2097152	2097152	
5985.6	0	2097152	2097152	
6000.95	0	2097152	2097152	
6016.3	0	2097152	2097152	
6031.64	0	2097152	2097152	
6046.99	0	2097152	2097152	
6062.34	0	2097152	2097152	
6077.69	0	2097152	2097152	
6093.03	0	2097152	2097152	
6108.38	0	2097152	2097152	
6123.73	0	2097152	2097152	
6139.08	0	2097152	2097152	
6154.43	0	2097152	2097152	
6169.77	0	2097152	2097152	
6185.12	0	2097152	2097152	
6200.47	0	2097152	2097152	
6215.82	0	2097152	2097152	
6231.16	0	2097152	2097152	
6246.51	0	2097152	2097152	
6261.86	0	2097152	2097152	
6277.21	0	2097152	2097152	
6292.56	0	2097152	2097152	
6307.9	0	2097152	2097152	
6323.25	0	2097152	2097152	
6338.6	0	2097152	2097152	
6353.95	0	2097152	2097152	
6369.29	0	2097152	2097152	
6384.64	0	2097152	2097152	
6399.99	0	2097152	2097152	
6415.34	0	2097152	2097152	
6430.68	0	2097152	2097152	
6446.03	0	2097152	2097152	
6461.38	0	2097152	2097152	
6476.73	0	2097152	2097152	
6492.08	0	2097152	2097152	
6507.42	0	2097152	2097152	
6522.77	0	2097152	2097152	
6538.12	0	2097152	2097152	
6553.47	0	2097152	2097152	
6568.81	0	2097152	2097152	
6584.16	0	2097152	2097152	
6599.51	0	2097152	2097152	
6614.86	0	2097152	2097152	
6630.2	0	2097152	2097152	
6645.55	0	2097152	2097152	
6660.9	0	2097152	2097152	
6676.25	0	2097152	2097152	
6691.6	0	2097152	2097152	
6706.94	0	2097152	2097152	
6722.29	0	2097152	2097152	
6737.64	0	2097152	2097152	
6752.99	0	2097152	2097152	
6768.33	0	2097152	2097152	
6783.68	0	2097152	2097152	
6799.03	0	2097152	2097152	
6814.38	0	2097152	2097152	
6829.72	0	2097152	2097152	
6845.07	0	2097152	2097152	
6860.42	9.09495e-13	2097152	2097152	
6875.77	1.81899e-12	2097152	2097152	
6891.12	1.81899e-12	2097152	2097152	
6906.46	2.72848e-12	2097152	2097152	
6921.81	3.63798e-12	2097152	2097152	
6937.16	4.54747e-12	2097152	2097152	
6952.51	6.36646e-12	2097152	2097152	
6967.85	8.18545e-12	2097152	2097152	
6983.2	1.00044e-11	2097152	2097152	
6998.55	1.18234e-11	2097152	2097152	
7013.9	1.36424e-11	2097152	2097152	
7029.24	1.63709e-11	2097152	2097152	
7044.59	2.00089e-11	2097152	2097152	
7059.94	2.36469e-11	2097152	2097152	
7075.29	2.81943e-11	2097152	2097152	
7090.64	3.36513e-11	2097152	2097152	
7105.98	3.81988e-11	2097152	2097152	
7121.33	4.45652e-11	2097152	2097152	
7136.68	5.00222e-11	2097152	2097152	
7152.03	5.63887e-11	2097152	2097152	
7167.37	6.27551e-11	2097152	2097152	
7182.72	7.00311e-11	2097152	2097152	
7198.07	7.63976e-11	2097152	2097152	
7213.42	8.18545e-11	2097152	2097152	
7228.76	8.6402e-11	2097152	2097152	
7244.11	8.8221e-11	2097152	2097152	
7259.46	8.73115e-11	2097152	2097152	
7274.81	8.0945e-11	2097152	2097152	
7290.16	6.91216e-11	2097152	2097152	
7305.5	4.82032e-11	2097152	2097152	
7320.85	1.54614e-11	2097152	2097152	
7336.2	-3.18323e-11	2097152	2097152	
7351.55	-9.91349e-11	2097152	2097152	
7366.89	-1.90994e-10	2097152	2097152	
7382.24	-3.13776e-10	2097152	2097152	
7397.59	-4.75666e-10	2097152	2097152	
7412.94	-6.85759e-10	2097152	2097152	
7428.28	-9.56788e-10	2097152	2097152	
7443.63	-1.3024e-09	2097152	2097152	
7458.98	-1.73804e-09	2097152	2097152	
7474.33	-2.28374e-09	2097152	2097152	
7489.68	-2.96313e-09	2097152	2097152	
7505.02	-3.80442e-09	2097152	2097152	
7520.37	-4.83942e-09	2097152	2097152	
7535.72	-6.10544e-09	2097152	2097152	
7551.07	-7.64703e-09	2097152	2097152	
7566.41	-9.51695e-09	2097152	2097152	
7581.76	-1.17743e-08	2097152	2097152	
7597.11	-1.44883e-08	2097152	2097152	
7612.46	-1.77397e-08	2097152	2097152	
7627.8	-2.16205e-08	2097152	2097152	
7643.15	-2.62362e-08	2097152	2097152	
7658.5	-3.17086e-08	2097152	2097152	
7673.85	-3.8176e-08	2097152	2097152	
7689.2	-4.57949e-08	2097152	2097152	
7704.54	-5.47452e-08	2097152	2097152	
7719.89	-6.52281e-08	2097152	2097152	
7735.24	-7.74726e-08	2097152	2097152	
7750.59	-9.17371e-08	2097152	2097152	
7765.93	-1.08311e-07	2097152	2097152	
7781.28	-1.27518e-07	2097152	2097152	
7796.63	-1.49724e-07	2097152	2097152	
7811.98	-1.75335e-07	2097152	2097152	
7827.32	-2.04803e-07	2097152	2097152	
7842.67	-2.3863e-07	2097152	2097152	
7858.02	-2.77375e-07	2097152	2097152	
7873.37	-3.21656e-07	2097152	2097152	
7888.72	-3.72154e-07	2097152	2097152	
7904.06	-4.29622e-07	2097152	2097152	
7919.41	-4.94885e-07	2097152	2097152	
7934.76	-5.68852e-07	2097152	2097152	
7950.11	-6.52516e-07	2097152	2097152	
7965.45	-7.46963e-07	2097152	2097152	
7980.8	-8.5338e-07	2097152	2097152	
7996.15	-9.73057e-07	2097152	2097152	
8011.5	-1.1074e-06	2097152	2097152	
8026.84	-1.25792e-06	2097152	2097152	
8042.19	-1.42627e-06	2097152	2097152	
8057.54	-1.61424e-06	2097152	2097152	
8072.89	-1.82374e-06	2097152	2097152	
8088.24	-2.05684e-06	2097152	2097152	
8103.58	-2.31577e-06	2097152	2097152	
8118.93	-2.6029e-06	2097152	2097152	
8134.28	-2.92079e-06	2097152	2097152	
8149.63	-3.27218e-06	2097152	2097152	
8164.97	-3.65997e-06	2097152	2097152	
8180.32	-4.08727e-06	2097152	2097152	
8195.67	-4.55739e-06	2097152	2097152	
8211.02	-5.07382e-06	2097152	2097152	
8226.36	-5.64029e-06	2097152	2097152	
8241.71	-6.26073e-06	2097152	2097152	
8257.06	-6.93929e-06	2097152	2097152	
8272.41	-7.68037e-06	2097152	2097152	
8287.76	-8.48857e-06	2097152	2097152	
8303.1	-9.36877e-06	2097152	2097152	
8318.45	-1.0326e-05	2097152	2097152	
8333.8	-1.13658e-05	2097152	2097152	
8349.15	-1.24935e-05	2097152	2097152	
8364.49	-1.37151e-05	2097152	2097152	
8379.84	-1.50367e-05	2097152	2097152	
8395.19	-1.64647e-05	2097152	2097152	
8410.54	-1.80056e-05	2097152	2097152	
8425.88	-1.96664e-05	2097152	2097152	
8441.23	-2.14541e-05	2097152	2097152	
8456.58	-2.33762e-05	2097152	2097152	
8471.93	-2.54403e-05	2097152	2097152	
8487.28	-2.76543e-05	2097152	2097152	
8502.62	-3.00264e-05	2097152	2097152	
8517.97	-3.25649e-05	2097152	2097152	
8533.32	-3.52785e-05	2097152	2097152	
8548.67	-3.8176e-05	2097152	2097152	
8564.01	-4.12667e-05	2097152	2097152	
8579.36	-4.45597e-05	2097152	2097152	
8594.71	-4.80646e-05	2097152	2097152	
8610.06	-5.17912e-05	2097152	2097152	
8625.4	-5.57494e-05	2097152	2097152	
8640.75	-5.99493e-05	2097152	2097152	
8656.1	-6.44013e-05	2097152	2097152	
8671.45	-6.91158e-05	2097152	2097152	
8686.8	-7.41034e-05	2097152	2097152	
8702.14	-7.9375e-05	2097152	2097152	
8717.49	-8.49413e-05	2097152	2097152	
8732.84	-9.08134e-05	2097152	2097152	
8748.19	-9.70024e-05	2097152	2097152	
8763.53	-0.000103519	2097152	2097152	
8778.88	-0.000110376	2097152	2097152	
8794.23	-0.000117583	2097152	2097152	
8809.58	-0.000125151	2097152	2097152	
8824.92	-0.000133093	2097152	2097152	
8840.27	-0.00014142	2097152	2097152	
8855.62	-0.000150142	2097152	2097152	
8870.97	-0.000159271	2097152	2097152	
8886.32	-0.000168817	2097152	2097152	
8901.66	-0.000178793	2097152	2097152	
8917.01	-0.000189209	2097152	2097152	
8932.36	-0.000200075	2097152	2097152	
8947.71	-0.000211402	2097152	2097152	
8963.05	-0.0002232	2097152	2097152	
8978.4	-0.00023548	2097152	2097152	
8993.75	-0.00024825	2097152	2097152	
9009.1	-0.000261521	2097152	2097152	
9024.44	-0.000275301	2097152	2097152	
9039.79	-0.0002896	2097152	2097152	
9055.14	-0.000304424	2097152	2097152	
9070.49	-0.000319783	2097152	2097152	
9085.84	-0.000335682	2097152	2097152	
9101.18	-0.00035213	2097152	2097152	
9116.53	-0.000369132	2097152	2097152	
9131.88	-0.000386692	2097152	2097152	
9147.23	-0.000404817	2097152	2097152	
9162.57	-0.000423509	2097152	2097152	
9177.92	-0.000442772	2097152	2097152	
9193.27	-0.000462607	2097152	2097152	
9208.62	-0.000483017	2097152	2097152	
9223.96	-0.000504	2097152	2097152	
9239.31	-0.000525556	2097152	2097152	
9254.66	-0.000547683	2097152	2097152	
9270.01	-0.000570376	2097152	2097152	
9285.36	-0.000593631	2097152	2097152	
9300.7	-0.000617441	2097152	2097152	
9316.05	-0.000641798	2097152	2097152	
9331.4	-0.000666692	2097152	2097152	
9346.75	-0.000692111	2097152	2097152	
9362.09	-0.000718041	2097152	2097152	
9377.44	-0.000744466	2097152	2097152	
9392.79	-0.000771368	2097152	2097152	
9408.14	-0.000798725	2097152	2097152	
9423.48	-0.000826515	2097152	2097152	
9438.83	-0.000854709	2097152	2097152	
9454.18	-0.00088328	2097152	2097152	
9469.53	-0.000912193	2097152	2097152	
9484.88	-0.000941412	2097152	2097152	
9500.22	-0.000970896	2097152	2097152	
9515.57	-0.0010006	2097152	2097152	
9530.92	-0.00103048	2097152	2097152	
9546.27	-0.00106047	2097152	2097152	
9561.61	-0.00109052	2097152	2097152	
9576.96	-0.00112057	2097152	2097152	
9592.31	-0.00115054	2097152	2097152	
9607.66	-0.00118035	2097152	2097152	
9623	-0.00120993	2097152	2097152	
9638.35	-0.00123918	2097152	2097152	
9653.7	-0.001268	2097152	2097152	
9669.05	-0.00129629	2097152	2097152	
9684.4	-0.00132393	2097152	2097152	
9699.74	-0.0013508	2097152	2097152	
9715.09	-0.00137675	2097152	2097152	
9730.44	-0.00140166	2097152	2097152	
9745.79	-0.00142535	2097152	2097152	
9761.13	-0.00144767	2097152	2097152	
9776.48	-0.00146843	2097152	2097152	
9791.83	-0.00148744	2097152	2097152	
9807.18	-0.00150449	2097152	2097152	
9822.52	-0.00151936	2097152	2097152	
9837.87	-0.00153181	2097152	2097152	
9853.22	-0.0015416	2097152	2097152	
9868.57	-0.00154844	2097152	2097152	
9883.92	-0.00155207	2097152	2097152	
9899.26	-0.00155216	2097152	2097152	
9914.61	-0.0015484	2097152	2097152	
9929.96	-0.00154045	2097152	2097152	
9945.31	-0.00152794	2097152	2097152	
9960.65	-0.00151049	2097152	2097152	
9976	-0.0014877	2097152	2097152	
9991.35	-0.00145914	2097152	2097152	
10006.7	-0.00142437	2097152	2097152	
10022	-0.00138291	2097152	2097152	
10037.4	-0.00133427	2097152	2097152	
10052.7	-0.00127794	2097152	2097152	
10068.1	-0.00121337	2097152	2097152	
10083.4	-0.00114001	2097152	2097152	
10098.8	-0.00105726	2097152	2097152	
10114.1	-0.00096452	2097152	2097152	
10129.5	-0.000861156	2097152	2097152	
10144.8	-0.000746512	2097152	2097152	
10160.2	-0.000619909	2097152	2097152	
10175.5	-0.000480649	2097152	2097152	
10190.9	-0.000328011	2097152	2097152	
10206.2	-0.000161255	2097152	2097152	
10221.6	2.03798e-05	2097152	2097152	
10236.9	0.00021767	2097152	2097152	
10252.3	0.000431409	2097152	2097152	
10267.6	0.000662406	2097152	2097152	
10283	0.000911483	2097152	2097152	
10298.3	0.00117947	2097152	2097152	
10313.7	0.00146722	2097152	2097152	
10329	0.00177557	2097152	2097152	
10344.3	0.00210538	2097152	2097152	
10359.7	0.00245751	2097152	2097152	
10375	0.00283281	2097152	2097152	
10390.4	0.00323214	2097152	2097152	
10405.7	0.00365633	2097152	2097152	
10421.1	0.00410623	2097152	2097152	
10436.4	0.00458266	2097152	2097152	
10451.8	0.00508643	2097152	2097152	
10467.1	0.00561832	2097152	2097152	
10482.5	0.00617909	2097152	2097152	
10497.8	0.00676948	2097152	2097152	
10513.2	0.00739018	2097152	2097152	
10528.5	0.00804188	2097152	2097152	
10543.9	0.00872519	2097152	2097152	
10559.2	0.0094407	2097152	2097152	
10574.6	0.0101889	2097152	2097152	
10589.9	0.0109704	2097152	2097152	
10605.3	0.0117855	2097152	2097152	
10620.6	0.0126347	2097152	2097152	
10636	0.0135181	2097152	2097152	
10651.3	0.0144362	2097152	2097152	
10666.6	0.015389	2097152	2097152	
10682	0.0163766	2097152	2097152	
10697.3	0.017399	2097152	2097152	
10712.7	0.0184563	2097152	2097152	
10728	0.0195481	2097152	2097152	
10743.4	0.0206744	2097152	2097152	
10758.7	0.0218348	2097152	2097152	
10774.1	0.0230288	2097152	2097152	
10789.4	0.0242561	2097152	2097152	
10804.8	0.0255158	2097152	2097152	
10820.1	0.0268075	2097152	2097152	
10835.5	0.0281302	2097152	2097152	
10850.8	0.0294831	2097152	2097152	
10866.2	0.0308652	2097152	2097152	
10881.5	0.0322754	2097152	2097152	
10896.9	0.0337126	2097152	2097152	
10912.2	0.0351755	2097152	2097152	
10927.6	0.0366626	2097152	2097152	
10942.9	0.0381725	2097152	2097152	
10958.3	0.0397038	2097152	2097152	
10973.6	0.0412546	2097152	2097152	
10988.9	0.0428234	2097152	2097152	
11004.3	0.0444083	2097152	2097152	
11019.6	0.0460074	2097152	2097152	
11035	0.0476187	2097152	2097152	
11050.3	0.0492403	2097152	2097152	
11065.7	0.05087	2097152	2097152	
11081	0.0525057	2097152	2097152	
11096.4	0.0541451	2097152	2097152	
11111.7	0.0557861	2097152	2097152	
11127.1	0.0574263	2097152	2097152	
11142.4	0.0590634	2097152	2097152	
11157.8	0.060695	2097152	2097152	
11173.1	0.0623187	2097152	2097152	
11188.5	0.0639322	2097152	2097152	
11203.8	0.0655329	2097152	2097152	
11219.2	0.0671186	2097152	2097152	
11234.5	0.0686866	2097152	2097152	
11249.9	0.0702348	2097152	2097152	
11265.2	0.0717606	2097152	2097152	
11280.6	0.0732617	2097152	2097152	
11295.9	0.0747358	2097152	2097152	
11311.3	0.0761806	2097152	2097152	
11326.6	0.0775938	2097152	2097152	
11341.9	0.0789732	2097152	2097152	
11357.3	0.0803166	2097152	2097152	
11372.6	0.0816221	2097152	2097152	
11388	0.0828876	2097152	2097152	
11403.3	0.0841111	2097152	2097152	
11418.7	0.0852908	2097152	2097152	
11434	0.086425	2097152	2097152	
11449.4	0.0875119	2097152	2097152	
11464.7	0.08855	2097152	2097152	
11480.1	0.0895377	2097152	2097152	
11495.4	0.0904738	2097152	2097152	
11510.8	0.0913568	2097152	2097152	
11526.1	0.0921857	2097152	2097152	
11541.5	0.0929594	2097152	2097152	
11556.8	0.093677	2097152	2097152	
11572.2	0.0943375	2097152	2097152	
11587.5	0.0949404	2097152	2097152	
11602.9	0.0954849	2097152	2097152	
11618.2	0.0959706	2097152	2097152	
11633.6	0.0963971	2097152	2097152	
11648.9	0.0967643	2097152	2097152	
11664.2	0.0970718	2097152	2097152	
11679.6	0.0973197	2097152	2097152	
11694.9	0.0975082	2097152	2097152	
11710.3	0.0976373	2097152	2097152	
11725.6	0.0977074	2097152	2097152	
11741	0.0977189	2097152	2097152	
11756.3	0.0976723	2097152	2097152	
11771.7	0.0975681	2097152	2097152	
11787	0.0974072	2097152	2097152	
11802.4	0.0971902	2097152	2097152	
11817.7	0.0969181	2097152	2097152	
11833.1	0.0965918	2097152	2097152	
11848.4	0.0962123	2097152	2097152	
11863.8	0.0957808	2097152	2097152	
11879.1	0.0952984	2097152	2097152	
11894.5	0.0947663	2097152	2097152	
11909.8	0.0941859	2097152	2097152	
11925.2	0.0935585	2097152	2097152	
11940.5	0.0928854	2097152	2097152	
11955.9	0.0921681	2097152	2097152	
11971.2	0.0914082	2097152	2097152	
11986.5	0.0906069	2097152	2097152	
12001.9	0.089766	2097152	2097152	
12017.2	0.0888869	2097152	2097152	
12032.6	0.0879713	2097152	2097152	
12047.9	0.0870206	2097152	2097152	
12063.3	0.0860364	2097152	2097152	
12078.6	0.0850204	2097152	2097152	
12094	0.0839742	2097152	2097152	
12109.3	0.0828992	2097152	2097152	
12124.7	0.0817971	2097152	2097152	
12140	0.0806693	2097152	2097152	
12155.4	0.0795175	2097152	2097152	
12170.7	0.0783431	2097152	2097152	
12186.1	0.0771477	2097152	2097152	
12201.4	0.0759325	2097152	2097152	
12216.8	0.0746991	2097152	2097152	
12232.1	0.0734489	2097152	2097152	
12247.5	0.0721832	2097152	2097152	
12262.8	0.0709032	2097152	2097152	
12278.2	0.0696103	2097152	2097152	
12293.5	0.0683057	2097152	2097152	
12308.9	0.0669905	2097152	2097152	
12324.2	0.0656659	2097152	2097152	
12339.5	0.064333	2097152	2097152	
12354.9	0.0629928	2097152	2097152	
12370.2	0.0616463	2097152	2097152	
12385.6	0.0602944	2097152	2097152	
12400.9	0.0589381	2097152	2097152	
12416.3	0.0575781	2097152	2097152	
12431.6	0.0562154	2097152	2097152	
12447	0.0548506	2097152	2097152	
12462.3	0.0534844	2097152	2097152	
12477.7	0.0521175	2097152	2097152	
12493	0.0507506	2097152	2097152	
12508.4	0.0493842	2097152	2097152	
12523.7	0.0480188	2097152	2097152	
12539.1	0.0466549	2097152	2097152	
12554.4	0.045293	2097152	2097152	
12569.8	0.0439336	2097152	2097152	
12585.1	0.0425769	2097152	2097152	
12600.5	0.0412233	2097152	2097152	
12615.8	0.0398732	2097152	2097152	
12631.2	0.0385268	2097152	2097152	
12646.5	0.0371844	2097152	2097152	
12661.8	0.0358462	2097152	2097152	
12677.2	0.0345124	2097152	2097152	
12692.5	0.0331833	2097152	2097152	
12707.9	0.0318589	2097152	2097152	
12723.2	0.0305394	2097152	2097152	
12738.6	0.0292249	2097152	2097152	
12753.9	0.0279157	2097152	2097152	
12769.3	0.0266116	2097152	2097152	
12784.6	0.0253129	2097152	2097152	
12800	0.0240196	2097152	2097152	
12815.3	0.0227318	2097152	2097152	
12830.7	0.0214496	2097152	2097152	
12846	0.020173	2097152	2097152	
12861.4	0.018902	2097152	2097152	
12876.7	0.0176367	2097152	2097152	
12892.1	0.0163772	2097152	2097152	
12907.4	0.0151236	2097152	2097152	
12922.8	0.0138758	2097152	2097152	
12938.1	0.012634	2097152	2097152	
12953.5	0.0113981	2097152	2097152	
12968.8	0.0101683	2097152	2097152	
12984.2	0.00894467	2097152	2097152	
12999.5	0.00772723	2097152	2097152	
13014.8	0.00651607	2097152	2097152	
13030.2	0.0053113	2097152	2097152	
13045.5	0.00411301	2097152	2097152	
13060.9	0.0029213	2097152	2097152	
13076.2	0.00173628	2097152	2097152	
13091.6	0.000558081	2097152	2097152	
13106.9	-0.000613179	2097152	2097152	
13122.3	-0.00177736	2097152	2097152	
13137.6	-0.00293432	2097152	2097152	
13153	-0.0040839	2097152	2097152	
13168.3	-0.00522595	2097152	2097152	
13183.7	-0.0063603	2097152	2097152	
13199	-0.00748677	2097152	2097152	
13214.4	-0.00860518	2097152	2097152	
13229.7	-0.00971535	2097152	2097152	
13245.1	-0.0108171	2097152	2097152	
13260.4	-0.0119102	2097152	2097152	
13275.8	-0.0129944	2097152	2097152	
13291.1	-0.0140696	2097152	2097152	
13306.5	-0.0151356	2097152	2097152	
13321.8	-0.0161921	2097152	2097152	
13337.1	-0.0172389	2097152	2097152	
13352.5	-0.0182757	2097152	2097152	
13367.8	-0.0193025	2097152	2097152	
13383.2	-0.0203188	2097152	2097152	
13398.5	-0.0213246	2097152	2097152	
13413.9	-0.0223196	2097152	2097152	
13429.2	-0.0233036	2097152	2097152	
13444.6	-0.0242763	2097152	2097152	
13459.9	-0.0252376	2097152	2097152	
13475.3	-0.0261872	2097152	2097152	
13490.6	-0.0271248	2097152	2097152	
13506	-0.0280504	2097152	2097152	
13521.3	-0.0289637	2097152	2097152	
13536.7	-0.0298644	2097152	2097152	
13552	-0.0307525	2097152	2097152	
13567.4	-0.0316276	2097152	2097152	
13582.7	-0.0324897	2097152	2097152	
13598.1	-0.0333385	2097152	2097152	
13613.4	-0.0341739	2097152	2097152	
13628.8	-0.0349956	2097152	2097152	
13644.1	-0.0358036	2097152	2097152	
13659.4	-0.0365977	2097152	2097152	
13674.8	-0.0373777	2097152	2097152	
13690.1	-0.0381435	2097152	2097152	
13705.5	-0.038895	2097152	2097152	
13720.8	-0.039632	2097152	2097152	
13736.2	-0.0403544	2097152	2097152	
13751.5	-0.0410621	2097152	2097152	
13766.9	-0.041755	2097152	2097152	
13782.2	-0.0424331	2097152	2097152	
13797.6	-0.0430962	2097152	2097152	
13812.9	-0.0437442	2097152	2097152	
13828.3	-0.0443771	2097152	2097152	
13843.6	-0.0449948	2097152	2097152	
13859	-0.0455973	2097152	2097152	
13874.3	-0.0461844	2097152	2097152	
13889.7	-0.0467563	2097152	2097152	
13905	-0.0473127	2097152	2097152	
13920.4	-0.0478537	2097152	2097152	
13935.7	-0.0483793	2097152	2097152	
13951.1	-0.0488894	2097152	2097152	
13966.4	-0.049384	2097152	2097152	
13981.8	-0.0498631	2097152	2097152	
13997.1	-0.0503268	2097152	2097152	
14012.4	-0.0507749	2097152	2097152	
14027.8	-0.0512076	2097152	2097152	
14043.1	-0.0516247	2097152	2097152	
14058.5	-0.0520264	2097152	2097152	
14073.8	-0.0524127	2097152	2097152	
14089.2	-0.0527835	2097152	2097152	
14104.5	-0.0531389	2097152	2097152	
14119.9	-0.0534789	2097152	2097152	
14135.2	-0.0538036	2097152	2097152	
14150.6	-0.0541129	2097152	2097152	
14165.9	-0.054407	2097152	2097152	
14181.3	-0.0546858	2097152	2097152	
14196.6	-0.0549494	2097152	2097152	
14212	-0.0551978	2097152	2097152	
14227.3	-0.0554311	2097152	2097152	
14242.7	-0.0556493	2097152	2097152	
14258	-0.0558525	2097152	2097152	
14273.4	-0.0560406	2097152	2097152	
14288.7	-0.0562138	2097152	2097152	
14304.1	-0.0563721	2097152	2097152	
14319.4	-0.0565156	2097152	2097152	
14334.7	-0.0566442	2097152	2097152	
14350.1	-0.0567581	2097152	2097152	
14365.4	-0.0568573	2097152	2097152	
14380.8	-0.0569418	2097152	2097152	
14396.1	-0.0570117	2097152	2097152	
14411.5	-0.0570671	2097152	2097152	
14426.8	-0.0571079	2097152	2097152	
14442.2	-0.0571343	2097152	2097152	
14457.5	-0.0571463	2097152	2097152	
14472.9	-0.057144	2097152	2097152	
14488.2	-0.0571273	2097152	2097152	
14503.6	-0.0570964	2097152	2097152	
14518.9	-0.0570514	2097152	2097152	
14534.3	-0.0569921	2097152	2097152	
14549.6	-0.0569189	2097152	2097152	
14565	-0.0568315	2097152	2097152	
14580.3	-0.0567302	2097152	2097152	
14595.7	-0.056615	2097152	2097152	
14611	-0.056486	2097152	2097152	
14626.4	-0.0563431	2097152	2097152	
14641.7	-0.0561865	2097152	2097152	
14657	-0.0560162	2097152	2097152	
14672.4	-0.0558323	2097152	2097152	
14687.7	-0.0556348	2097152	2097152	
14703.1	-0.0554239	2097152	2097152	
14718.4	-0.0551995	2097152	2097152	
14733.8	-0.0549617	2097152	2097152	
14749.1	-0.0547106	2097152	2097152	
14764.5	-0.0544464	2097152	2097152	
14779.8	-0.0541689	2097152	2097152	
14795.2	-0.0538784	2097152	2097152	
14810.5	-0.0535749	2097152	2097152	
14825.9	-0.0532584	2097152	2097152	
14841.2	-0.0529291	2097152	2097152	
14856.6	-0.052587	2097152	2097152	
14871.9	-0.0522322	2097152	2097152	
14887.3	-0.0518649	2097152	2097152	
14902.6	-0.051485	2097152	2097152	
14918	-0.0510927	2097152	2097152	
14933.3	-0.0506881	2097152	2097152	
14948.7	-0.0502712	2097152	2097152	
14964	-0.0498422	2097152	2097152	
14979.4	-0.0494012	2097152	2097152	
14994.7	-0.0489483	2097152	2097152	
15010	-0.0484835	2097152	2097152	
15025.4	-0.0480071	2097152	2097152	
15040.7	-0.047519	2097152	2097152	
15056.1	-0.0470195	2097152	2097152	
15071.4	-0.0465086	2097152	2097152	
15086.8	-0.0459865	2097152	2097152	
15102.1	-0.0454533	2097152	2097152	
15117.5	-0.0449091	2097152	2097152	
15132.8	-0.0443541	2097152	2097152	
15148.2	-0.0437883	2097152	2097152	
15163.5	-0.043212	2097152	2097152	
15178.9	-0.0426253	2097152	2097152	
15194.2	-0.0420283	2097152	2097152	
15209.6	-0.0414211	2097152	2097152	
15224.9	-0.0408039	2097152	2097152	
15240.3	-0.0401769	2097152	2097152	
15255.6	-0.0395403	2097152	2097152	
15271	-0.0388941	2097152	2097152	
15286.3	-0.0382385	2097152	2097152	
15301.7	-0.0375738	2097152	2097152	
15317	-0.0369	2097152	2097152	
15332.3	-0.0362174	2097152	2097152	
15347.7	-0.0355261	2097152	2097152	
15363	-0.0348263	2097152	2097152	
15378.4	-0.0341182	2097152	2097152	
15393.7	-0.0334019	2097152	2097152	
15409.1	-0.0326777	2097152	2097152	
15424.4	-0.0319457	2097152	2097152	
15439.8	-0.0312062	2097152	2097152	
15455.1	-0.0304592	2097152	2097152	
15470.5	-0.0297051	2097152	2097152	
15485.8	-0.0289439	2097152	2097152	
15501.2	-0.028176	2097152	2097152	
15516.5	-0.0274015	2097152	2097152	
15531.9	-0.0266206	2097152	2097152	
15547.2	-0.0258335	2097152	2097152	
15562.6	-0.0250405	2097152	2097152	
15577.9	-0.0242417	2097152	2097152	
15593.3	-0.0234373	2097152	2097152	
15608.6	-0.0226277	2097152	2097152	
15624	-0.0218129	2097152	2097152	
15639.3	-0.0209933	2097152	2097152	
15654.6	-0.0201689	2097152	2097152	
15670	-0.0193402	2097152	2097152	
15685.3	-0.0185072	2097152	2097152	
15700.7	-0.0176703	2097152	2097152	
15716	-0.0168296	2097152	2097152	
15731.4	-0.0159854	2097152	2097152	
15746.7	-0.0151379	2097152	2097152	
15762.1	-0.0142874	2097152	2097152	
15777.4	-0.0134341	2097152	2097152	
15792.8	-0.0125783	2097152	2097152	
15808.1	-0.0117201	2097152	2097152	
15823.5	-0.0108599	2097152	2097152	
15838.8	-0.00999786	2097152	2097152	
15854.2	-0.00913427	2097152	2097152	
15869.5	-0.00826937	2097152	2097152	
15884.9	-0.00740343	2097152	2097152	
15900.2	-0.00653669	2097152	2097152	
15915.6	-0.00566943	2097152	2097152	
15930.9	-0.00480189	2097152	2097152	
15946.3	-0.00393435	2097152	2097152	
15961.6	-0.00306706	2097152	2097152	
15977	-0.00220031	2097152	2097152	
15992.3	-0.00133435	2097152	2097152	
16007.6	-0.000469469	2097152	2097152	
16023	0.000394072	2097152	2097152	
16038.3	0.00125599	2097152	2097152	
16053.7	0.00211601	2097152	2097152	
16069	0.00297386	2097152	2097152	
16084.4	0.00382924	2097152	2097152	
16099.7	0.00468188	2097152	2097152	
16115.1	0.0055315	2097152	2097152	
16130.4	0.0063778	2097152	2097152	
16145.8	0.0072205	2097152	2097152	
16161.1	0.00805931	2097152	2097152	
16176.5	0.00889394	2097152	2097152	
16191.8	0.00972409	2097152	2097152	
16207.2	0.0105495	2097152	2097152	
16222.5	0.0113698	2097152	2097152	
16237.9	0.0121848	2097152	2097152	
16253.2	0.0129941	2097152	2097152	
16268.6	0.0137975	2097152	2097152	
16283.9	0.0145946	2097152	2097152	
16299.3	0.0153852	2097152	2097152	
16314.6	0.016169	2097152	2097152	
16329.9	0.0169456	2097152	2097152	
16345.3	0.0177148	2097152	2097152	
16360.6	0.0184762	2097152	2097152	
16376	0.0192296	2097152	2097152	
16391.3	0.0199747	2097152	2097152	
16406.7	0.0207112	2097152	2097152	
16422	0.0214387	2097152	2097152	
16437.4	0.0221571	2097152	2097152	
16452.7	0.0228659	2097152	2097152	
16468.1	0.0235649	2097152	2097152	
16483.4	0.0242539	2097152	2097152	
16498.8	0.0249325	2097152	2097152	
16514.1	0.0256004	2097152	2097152	
16529.5	0.0262574	2097152	2097152	
16544.8	0.0269032	2097152	2097152	
16560.2	0.0275374	2097152	2097152	
16575.5	0.0281599	2097152	2097152	
16590.9	0.0287704	2097152	2097152	
16606.2	0.0293686	2097152	2097152	
16621.6	0.0299542	2097152	2097152	
16636.9	0.030527	2097152	2097152	
16652.2	0.0310866	2097152	2097152	
16667.6	0.031633	2097152	2097152	
16682.9	0.0321658	2097152	2097152	
16698.3	0.0326848	2097152	2097152	
16713.6	0.0331897	2097152	2097152	
16729	0.0336804	2097152	2097152	
16744.3	0.0341565	2097152	2097152	
16759.7	0.0346179	2097152	2097152	
16775	0.0350644	2097152	2097152	
16790.4	0.0354958	2097152	2097152	
16805.7	0.0359119	2097152	2097152	
16821.1	0.0363124	2097152	2097152	
16836.4	0.0366972	2097152	2097152	
16851.8	0.0370662	2097152	2097152	
16867.1	0.0374191	2097152	2097152	
16882.5	0.0377558	2097152	2097152	
16897.8	0.0380762	2097152	2097152	
16913.2	0.0383801	2097152	2097152	
16928.5	0.0386673	2097152	2097152	
16943.9	0.0389378	2097152	2097152	
16959.2	0.0391913	2097152	2097152	
16974.6	0.0394279	2097152	2097152	
16989.9	0.0396474	2097152	2097152	
17005.2	0.0398498	2097152	2097152	
17020.6	0.0400348	2097152	2097152	
17035.9	0.0402025	2097152	2097152	
17051.3	0.0403528	2097152	2097152	
17066.6	0.0404857	2097152	2097152	
17082	0.0406011	2097152	2097152	
17097.3	0.0406989	2097152	2097152	
17112.7	0.0407791	2097152	2097152	
17128	0.0408418	2097152	2097152	
17143.4	0.0408869	2097152	2097152	
17158.7	0.0409144	2097152	2097152	
17174.1	0.0409244	2097152	2097152	
17189.4	0.0409168	2097152	2097152	
17204.8	0.0408917	2097152	2097152	
17220.1	0.0408491	2097152	2097152	
17235.5	0.0407891	2097152	2097152	
17250.8	0.0407118	2097152	2097152	
17266.2	0.0406172	2097152	2097152	
17281.5	0.0405054	2097152	2097152	
17296.9	0.0403764	2097152	2097152	
17312.2	0.0402305	2097152	2097152	
17327.5	0.0400677	2097152	2097152	
17342.9	0.039888	2097152	2097152	
17358.2	0.0396918	2097152	2097152	
17373.6	0.039479	2097152	2097152	
17388.9	0.0392499	2097152	2097152	
17404.3	0.0390045	2097152	2097152	
17419.6	0.0387431	2097152	2097152	
17435	0.0384658	2097152	2097152	
17450.3	0.0381728	2097152	2097152	
17465.7	0.0378643	2097152	2097152	
17481	0.0375405	2097152	2097152	
17496.4	0.0372016	2097152	2097152	
17511.7	0.0368478	2097152	2097152	
17527.1	0.0364793	2097152	2097152	
17542.4	0.0360964	2097152	2097152	
17557.8	0.0356993	2097152	2097152	
17573.1	0.0352882	2097152	2097152	
17588.5	0.0348633	2097152	2097152	
17603.8	0.034425	2097152	2097152	
17619.2	0.0339735	2097152	2097152	
17634.5	0.033509	2097152	2097152	
17649.8	0.0330318	2097152	2097152	
17665.2	0.0325423	2097152	2097152	
17680.5	0.0320406	2097152	2097152	
17695.9	0.0315271	2097152	2097152	
17711.2	0.0310021	2097152	2097152	
17726.6	0.0304659	2097152	2097152	
17741.9	0.0299187	2097152	2097152	
17757.3	0.0293608	2097152	2097152	
17772.6	0.0287927	2097152	2097152	
17788	0.0282145	2097152	2097152	
17803.3	0.0276267	2097152	2097152	
17818.7	0.0270295	2097152	2097152	
17834	0.0264232	2097152	2097152	
17849.4	0.0258082	2097152	2097152	
17864.7	0.0251848	2097152	2097152	
17880.1	0.0245533	2097152	2097152	
17895.4	0.0239142	2097152	2097152	
17910.8	0.0232676	2097152	2097152	
17926.1	0.0226139	2097152	2097152	
17941.5	0.0219535	2097152	2097152	
17956.8	0.0212867	2097152	2097152	
17972.2	0.0206139	2097152	2097152	
17987.5	0.0199353	2097152	2097152	
18002.8	0.0192514	2097152	2097152	
18018.2	0.0185624	2097152	2097152	
18033.5	0.0178687	2097152	2097152	
18048.9	0.0171707	2097152	2097152	
18064.2	0.0164686	2097152	2097152	
18079.6	0.0157628	2097152	2097152	
18094.9	0.0150537	2097152	2097152	
18110.3	0.0143415	2097152	2097152	
18125.6	0.0136266	2097152	2097152	
18141	0.0129094	2097152	2097152	
18156.3	0.0121901	2097152	2097152	
18171.7	0.0114691	2097152	2097152	
18187	0.0107467	2097152	2097152	
18202.4	0.0100233	2097152	2097152	
18217.7	0.00929904	2097152	2097152	
18233.1	0.00857438	2097152	2097152	
18248.4	0.0078496	2097152	2097152	
18263.8	0.00712499	2097152	2097152	
18279.1	0.00640087	2097152	2097152	
18294.5	0.00567752	2097152	2097152	
18309.8	0.00495525	2097152	2097152	
18325.1	0.00423436	2097152	2097152	
18340.5	0.00351512	2097152	2097152	
18355.8	0.00279782	2097152	2097152	
18371.2	0.00208275	2097152	2097152	
18386.5	0.00137017	2097152	2097152	
18401.9	0.000660351	2097152	2097152	
18417.2	-4.64353e-05	2097152	2097152	
18432.6	-0.000749933	2097152	2097152	
18447.9	-0.00144989	2097152	2097152	
18463.3	-0.00214605	2097152	2097152	
18478.6	-0.00283817	2097152	2097152	
18494	-0.00352602	2097152	2097152	
18509.3	-0.00420936	2097152	2097152	
18524.7	-0.00488797	2097152	2097152	
18540	-0.00556162	2097152	2097152	
18555.4	-0.00623009	2097152	2097152	
18570.7	-0.00689319	2097152	2097152	
18586.1	-0.00755069	2097152	2097152	
18601.4	-0.00820242	2097152	2097152	
18616.8	-0.00884816	2097152	2097152	
18632.1	-0.00948774	2097152	2097152	
18647.4	-0.010121	2097152	2097152	
18662.8	-0.0107477	2097152	2097152	
18678.1	-0.0113677	2097152	2097152	
18693.5	-0.0119809	2097152	2097152	
18708.8	-0.0125871	2097152	2097152	
18724.2	-0.0131861	2097152	2097152	
18739.5	-0.0137779	2097152	2097152	
18754.9	-0.0143622	2097152	2097152	
18770.2	-0.0149389	2097152	2097152	
18785.6	-0.0155079	2097152	2097152	
18800.9	-0.0160692	2097152	2097152	
18816.3	-0.0166224	2097152	2097152	
18831.6	-0.0171677	2097152	2097152	
18847	-0.0177048	2097152	2097152	
18862.3	-0.0182337	2097152	2097152	
18877.7	-0.0187543	2097152	2097152	
18893	-0.0192664	2097152	2097152	
18908.4	-0.0197701	2097152	2097152	
18923.7	-0.0202651	2097152	2097152	
18939.1	-0.0207516	2097152	2097152	
18954.4	-0.0212293	2097152	2097152	
18969.8	-0.0216983	2097152	2097152	
18985.1	-0.0221585	2097152	2097152	
19000.4	-0.0226098	2097152	2097152	
19015.8	-0.0230522	2097152	2097152	
19031.1	-0.0234857	2097152	2097152	
19046.5	-0.0239101	2097152	2097152	
19061.8	-0.0243256	2097152	2097152	
19077.2	-0.024732	2097152	2097152	
19092.5	-0.0251294	2097152	2097152	
19107.9	-0.0255177	2097152	2097152	
19123.2	-0.0258969	2097152	2097152	
19138.6	-0.026267	2097152	2097152	
19153.9	-0.0266279	2097152	2097152	
19169.3	-0.0269798	2097152	2097152	
19184.6	-0.0273226	2097152	2097152	
19200	-0.0276563	2097152	2097152	
19215.3	-0.0279809	2097152	2097152	
19230.7	-0.0282964	2097152	2097152	
19246	-0.0286028	2097152	2097152	
19261.4	-0.0289002	2097152	2097152	
19276.7	-0.0291885	2097152	2097152	
19292.1	-0.0294679	2097152	2097152	
19307.4	-0.0297382	2097152	2097152	
19322.7	-0.0299996	2097152	2097152	
19338.1	-0.0302521	2097152	2097152	
19353.4	-0.0304957	2097152	2097152	
19368.8	-0.0307305	2097152	2097152	
19384.1	-0.0309564	2097152	2097152	
19399.5	-0.0311736	2097152	2097152	
19414.8	-0.031382	2097152	2097152	
19430.2	-0.0315817	2097152	2097152	
19445.5	-0.0317727	2097152	2097152	
19460.9	-0.0319552	2097152	2097152	
19476.2	-0.0321291	2097152	2097152	
19491.6	-0.0322945	2097152	2097152	
19506.9	-0.0324514	2097152	2097152	
19522.3	-0.0325999	2097152	2097152	
19537.6	-0.03274	2097152	2097152	
19553	-0.0328719	2097152	2097152	
19568.3	-0.0329955	2097152	2097152	
19583.7	-0.0331108	2097152	2097152	
19599	-0.0332181	2097152	2097152	
19614.4	-0.0333172	2097152	2097152	
19629.7	-0.0334083	2097152	2097152	
19645	-0.0334915	2097152	2097152	
19660.4	-0.0335667	2097152	2097152	
19675.7	-0.033634	2097152	2097152	
19691.1	-0.0336936	2097152	2097152	
19706.4	-0.0337454	2097152	2097152	
19721.8	-0.0337895	2097152	2097152	
19737.1	-0.033826	2097152	2097152	
19752.5	-0.0338549	2097152	2097152	
19767.8	-0.0338763	2097152	2097152	
19783.2	-0.0338902	2097152	2097152	
19798.5	-0.0338968	2097152	2097152	
19813.9	-0.033896	2097152	2097152	
19829.2	-0.033888	2097152	2097152	
19844.6	-0.0338727	2097152	2097152	
19859.9	-0.0338503	2097152	2097152	
19875.3	-0.0338209	2097152	2097152	
19890.6	-0.0337843	2097152	2097152	
19906	-0.0337408	2097152	2097152	
19921.3	-0.0336904	2097152	2097152	
19936.7	-0.0336332	2097152	2097152	
19952	-0.0335691	2097152	2097152	
19967.4	-0.0334983	2097152	2097152	
19982.7	-0.0334208	2097152	2097152	
19998	-0.0333367	2097152	2097152	
20013.4	-0.0332461	2097152	2097152	
20028.7	-0.033149	2097152	2097152	
20044.1	-0.0330454	2097152	2097152	
20059.4	-0.0329354	2097152	2097152	
20074.8	-0.0328191	2097152	2097152	
20090.1	-0.0326965	2097152	2097152	
20105.5	-0.0325678	2097152	2097152	
20120.8	-0.0324328	2097152	2097152	
20136.2	-0.0322918	2097152	2097152	
20151.5	-0.0321447	2097152	2097152	
20166.9	-0.0319917	2097152	2097152	
20182.2	-0.0318327	2097152	2097152	
20197.6	-0.0316679	2097152	2097152	
20212.9	-0.0314973	2097152	2097152	
20228.3	-0.0313209	2097152	2097152	
20243.6	-0.0311388	2097152	2097152	
20259	-0.0309511	2097152	2097152	
20274.3	-0.0307578	2097152	2097152	
20289.7	-0.030559	2097152	2097152	
20305	-0.0303547	2097152	2097152	
20320.3	-0.030145	2097152	2097152	
20335.7	-0.02993	2097152	2097152	
20351	-0.0297097	2097152	2097152	
20366.4	-0.0294841	2097152	2097152	
20381.7	-0.0292534	2097152	2097152	
20397.1	-0.0290175	2097152	2097152	
20412.4	-0.0287766	2097152	2097152	
20427.8	-0.0285307	2097152	2097152	
20443.1	-0.0282798	2097152	2097152	
20458.5	-0.028024	2097152	2097152	
20473.8	-0.0277634	2097152	2097152	
20489.2	-0.0274981	2097152	2097152	
20504.5	-0.027228	2097152	2097152	
20519.9	-0.0269533	2097152	2097152	
20535.2	-0.0266741	2097152	2097152	
20550.6	-0.0263903	2097152	2097152	
20565.9	-0.026102	2097152	2097152	
20581.3	-0.0258093	2097152	2097152	
20596.6	-0.0255124	2097152	2097152	
20612	-0.0252111	2097152	2097152	
20627.3	-0.0249057	2097152	2097152	
20642.7	-0.0245961	2097152	2097152	
20658	-0.0242824	2097152	2097152	
20673.3	-0.0239647	2097152	2097152	
20688.7	-0.0236432	2097152	2097152	
20704	-0.0233177	2097152	2097152	
20719.4	-0.0229885	2097152	2097152	
20734.7	-0.0226555	2097152	2097152	
20750.1	-0.0223189	2097152	2097152	
20765.4	-0.0219787	2097152	2097152	
20780.8	-0.0216351	2097152	2097152	
20796.1	-0.021288	2097152	2097152	
20811.5	-0.0209376	2097152	2097152	
20826.8	-0.0205839	2097152	2097152	
20842.2	-0.020227	2097152	2097152	
20857.5	-0.0198671	2097152	2097152	
20872.9	-0.0195042	2097152	2097152	
20888.2	-0.0191383	2097152	2097152	
20903.6	-0.0187696	2097152	2097152	
20918.9	-0.0183981	2097152	2097152	
20934.3	-0.018024	2097152	2097152	
20949.6	-0.0176474	2097152	2097152	
20965	-0.0172683	2097152	2097152	
20980.3	-0.0168868	2097152	2097152	
20995.6	-0.016503	2097152	2097152	
21011	-0.0161171	2097152	2097152	
21026.3	-0.0157291	2097152	2097152	
21041.7	-0.0153392	2097152	2097152	
21057	-0.0149474	2097152	2097152	
21072.4	-0.0145539	2097152	2097152	
21087.7	-0.0141587	2097152	2097152	
21103.1	-0.013762	2097152	2097152	
21118.4	-0.0133639	2097152	2097152	
21133.8	-0.0129645	2097152	2097152	
21149.1	-0.012564	2097152	2097152	
21164.5	-0.0121624	2097152	2097152	
21179.8	-0.0117599	2097152	2097152	
21195.2	-0.0113566	2097152	2097152	
21210.5	-0.0109526	2097152	2097152	
21225.9	-0.0105481	2097152	2097152	
21241.2	-0.0101431	2097152	2097152	
21256.6	-0.00973793	2097152	2097152	
21271.9	-0.00933258	2097152	2097152	
21287.3	-0.00892724	2097152	2097152	
21302.6	-0.00852202	2097152	2097152	
21317.9	-0.00811709	2097152	2097152	
21333.3	-0.00771258	2097152	2097152	
21348.6	-0.00730863	2097152	2097152	
21364	-0.0069054	2097152	2097152	
21379.3	-0.00650302	2097152	2097152	
21394.7	-0.00610166	2097152	2097152	
21410	-0.00570145	2097152	2097152	
21425.4	-0.00530256	2097152	2097152	
21440.7	-0.00490514	2097152	2097152	
21456.1	-0.00450933	2097152	2097152	
21471.4	-0.00411531	2097152	2097152	
21486.8	-0.00372322	2097152	2097152	
21502.1	-0.00333322	2097152	2097152	
21517.5	-0.00294547	2097152	2097152	
21532.8	-0.00256013	2097152	2097152	
21548.2	-0.00217736	2097152	2097152	
21563.5	-0.00179732	2097152	2097152	
21578.9	-0.00142017	2097152	2097152	
21594.2	-0.00104608	2097152	2097152	
21609.6	-0.000675195	2097152	2097152	
21624.9	-0.000307687	2097152	2097152	
21640.3	5.62861e-05	2097152	2097152	
21655.6	0.000416563	2097152	2097152	
21670.9	0.000772985	2097152	2097152	
21686.3	0.00112539	2097152	2097152	
21701.6	0.00147362	2097152	2097152	
21717	0.00181753	2097152	2097152	
21732.3	0.00215694	2097152	2097152	
21747.7	0.00249171	2097152	2097152	
21763	0.00282168	2097152	2097152	
21778.4	0.00314669	2097152	2097152	
21793.7	0.00346661	2097152	2097152	
21809.1	0.00378127	2097152	2097152	
21824.4	0.00409054	2097152	2097152	
21839.8	0.00439425	2097152	2097152	
21855.1	0.00469228	2097152	2097152	
21870.5	0.00498448	2097152	2097152	
21885.8	0.00527072	2097152	2097152	
21901.2	0.00555084	2097152	2097152	
21916.5	0.00582474	2097152	2097152	
21931.9	0.00609226	2097152	2097152	
21947.2	0.00635329	2097152	2097152	
21962.6	0.0066077	2097152	2097152	
21977.9	0.00685537	2097152	2097152	
21993.2	0.00709619	2097152	2097152	
22008.6	0.00733004	2097152	2097152	
22023.9	0.00755681	2097152	2097152	
22039.3	0.00777639	2097152	2097152	
22054.6	0.00798868	2097152	2097152	
22070	0.00819359	2097152	2097152	
22085.3	0.00839102	2097152	2097152	
22100.7	0.00858089	2097152	2097152	
22116	0.00876309	2097152	2097152	
22131.4	0.00893756	2097152	2097152	
22146.7	0.00910422	2097152	2097152	
22162.1	0.00926299	2097152	2097152	
22177.4	0.00941381	2097152	2097152	
22192.8	0.00955662	2097152	2097152	
22208.1	0.00969136	2097152	2097152	
22223.5	0.00981797	2097152	2097152	
22238.8	0.00993641	2097152	2097152	
22254.2	0.0100466	2097152	2097152	
22269.5	0.0101486	2097152	2097152	
22284.9	0.0102423	2097152	2097152	
22300.2	0.0103277	2097152	2097152	
22315.5	0.0104047	2097152	2097152	
22330.9	0.0104734	2097152	2097152	
22346.2	0.0105337	2097152	2097152	
22361.6	0.0105856	2097152	2097152	
22376.9	0.0106292	2097152	2097152	
22392.3	0.0106644	2097152	2097152	
22407.6	0.0106912	2097152	2097152	
22423	0.0107096	2097152	2097152	
22438.3	0.0107198	2097152	2097152	
22453.7	0.0107216	2097152	2097152	
22469	0.0107151	2097152	2097152	
22484.4	0.0107004	2097152	2097152	
22499.7	0.0106775	2097152	2097152	
22515.1	0.0106464	2097152	2097152	
22530.4	0.0106072	2097152	2097152	
22545.8	0.0105599	2097152	2097152	
22561.1	0.0105047	2097152	2097152	
22576.5	0.0104414	2097152	2097152	
22591.8	0.0103704	2097152	2097152	
22607.2	0.0102915	2097152	2097152	
22622.5	0.0102048	2097152	2097152	
22637.9	0.0101106	2097152	2097152	
22653.2	0.0100087	2097152	2097152	
22668.5	0.00989942	2097152	2097152	
22683.9	0.00978274	2097152	2097152	
22699.2	0.00965878	2097152	2097152	
22714.6	0.00952765	2097152	2097152	
22729.9	0.00938945	2097152	2097152	
22745.3	0.00924429	2097152	2097152	
22760.6	0.00909229	2097152	2097152	
22776	0.00893356	2097152	2097152	
22791.3	0.00876822	2097152	2097152	
22806.7	0.00859641	2097152	2097152	
22822	0.00841825	2097152	2097152	
22837.4	0.00823386	2097152	2097152	
22852.7	0.00804339	2097152	2097152	
22868.1	0.00784697	2097152	2097152	
22883.4	0.00764475	2097152	2097152	
22898.8	0.00743686	2097152	2097152	
22914.1	0.00722345	2097152	2097152	
22929.5	0.00700468	2097152	2097152	
22944.8	0.00678069	2097152	2097152	
22960.2	0.00655163	2097152	2097152	
22975.5	0.00631767	2097152	2097152	
22990.8	0.00607896	2097152	2097152	
23006.2	0.00583566	2097152	2097152	
23021.5	0.00558794	2097152	2097152	
23036.9	0.00533595	2097152	2097152	
23052.2	0.00507986	2097152	2097152	
23067.6	0.00481984	2097152	2097152	
23082.9	0.00455606	2097152	2097152	
23098.3	0.00428868	2097152	2097152	
23113.6	0.00401789	2097152	2097152	
23129	0.00374384	2097152	2097152	
23144.3	0.00346672	2097152	2097152	
23159.7	0.00318669	2097152	2097152	
23175	0.00290393	2097152	2097152	
23190.4	0.00261862	2097152	2097152	
23205.7	0.00233092	2097152	2097152	
23221.1	0.00204103	2097152	2097152	
23236.4	0.0017491	2097152	2097152	
23251.8	0.00145532	2097152	2097152	
23267.1	0.00115987	2097152	2097152	
23282.5	0.000862912	2097152	2097152	
23297.8	0.000564631	2097152	2097152	
23313.1	0.0002652	2097152	2097152	
23328.5	-3.52061e-05	2097152	2097152	
23343.8	-0.000336414	2097152	2097152	
23359.2	-0.000638251	2097152	2097152	
23374.5	-0.000940543	2097152	2097152	
23389.9	-0.00124312	2097152	2097152	
23405.2	-0.00154581	2097152	2097152	
23420.6	-0.00184845	2097152	2097152	
23435.9	-0.00215086	2097152	2097152	
23451.3	-0.00245288	2097152	2097152	
23466.6	-0.00275435	2097152	2097152	
23482	-0.00305509	2097152	2097152	
23497.3	-0.00335496	2097152	2097152	
23512.7	-0.00365379	2097152	2097152	
23528	-0.00395141	2097152	2097152	
23543.4	-0.00424768	2097152	2097152	
23558.7	-0.00454244	2097152	2097152	
23574.1	-0.00483554	2097152	2097152	
23589.4	-0.00512682	2097152	2097152	
23604.8	-0.00541615	2097152	2097152	
23620.1	-0.00570337	2097152	2097152	
23635.5	-0.00598834	2097152	2097152	
23650.8	-0.00627093	2097152	2097152	
23666.1	-0.00655099	2097152	2097152	
23681.5	-0.00682839	2097152	2097152	
23696.8	-0.007103	2097152	2097152	
23712.2	-0.00737469	2097152	2097152	
23727.5	-0.00764334	2097152	2097152	
23742.9	-0.00790881	2097152	2097152	
23758.2	-0.008171	2097152	2097152	
23773.6	-0.00842978	2097152	2097152	
23788.9	-0.00868504	2097152	2097152	
23804.3	-0.00893667	2097152	2097152	
23819.6	-0.00918457	2097152	2097152	
23835	-0.00942862	2097152	2097152	
23850.3	-0.00966874	2097152	2097152	
23865.7	-0.00990482	2097152	2097152	
23881	-0.0101368	2097152	2097152	
23896.4	-0.0103645	2097152	2097152	
23911.7	-0.0105879	2097152	2097152	
23927.1	-0.010807	2097152	2097152	
23942.4	-0.0110215	2097152	2097152	
23957.8	-0.0112316	2097152	2097152	
23973.1	-0.011437	2097152	2097152	
23988.4	-0.0116377	2097152	2097152	
24003.8	-0.0118337	2097152	2097152	
24019.1	-0.0120249	2097152	2097152	
24034.5	-0.0122113	2097152	2097152	
24049.8	-0.0123927	2097152	2097152	
24065.2	-0.0125691	2097152	2097152	
24080.5	-0.0127406	2097152	2097152	
24095.9	-0.012907	2097152	2097152	
24111.2	-0.0130683	2097152	2097152	
24126.6	-0.0132245	2097152	2097152	
24141.9	-0.0133755	2097152	2097152	
24157.3	-0.0135213	2097152	2097152	
24172.6	-0.013662	2097152	2097152	
24188	-0.0137974	2097152	2097152	
24203.3	-0.0139276	2097152	2097152	
24218.7	-0.0140525	2097152	2097152	
24234	-0.0141722	2097152	2097152	
24249.4	-0.0142866	2097152	2097152	
24264.7	-0.0143957	2097152	2097152	
24280.1	-0.0144996	2097152	2097152	
24295.4	-0.0145982	2097152	2097152	
24310.7	-0.0146915	2097152	2097152	
24326.1	-0.0147796	2097152	2097152	
24341.4	-0.0148624	2097152	2097152	
24356.8	-0.0149401	2097152	2097152	
24372.1	-0.0150125	2097152	2097152	
24387.5	-0.0150798	2097152	2097152	
24402.8	-0.0151419	2097152	2097152	
24418.2	-0.0151988	2097152	2097152	
24433.5	-0.0152507	2097152	2097152	
24448.9	-0.0152976	2097152	2097152	
24464.2	-0.0153394	2097152	2097152	
24479.6	-0.0153762	2097152	2097152	
24494.9	-0.0154081	2097152	2097152	
24510.3	-0.015435	2097152	2097152	
24525.6	-0.0154571	2097152	2097152	
24541	-0.0154744	2097152	2097152	
24556.3	-0.015487	2097152	2097152	
24571.7	-0.0154948	2097152	2097152	
24587	-0.015498	2097152	2097152	
24602.4	-0.0154966	2097152	2097152	
24617.7	-0.0154906	2097152	2097152	
24633.1	-0.0154802	2097152	2097152	
24648.4	-0.0154653	2097152	2097152	
24663.7	-0.015446	2097152	2097152	
24679.1	-0.0154225	2097152	2097152	
24694.4	-0.0153947	2097152	2097152	
24709.8	-0.0153628	2097152	2097152	
24725.1	-0.0153267	2097152	2097152	
24740.5	-0.0152866	2097152	2097152	
24755.8	-0.0152425	2097152	2097152	
24771.2	-0.0151945	2097152	2097152	
24786.5	-0.0151427	2097152	2097152	
24801.9	-0.0150871	2097152	2097152	
24817.2	-0.0150279	2097152	2097152	
24832.6	-0.014965	2097152	2097152	
24847.9	-0.0148985	2097152	2097152	
24863.3	-0.0148286	2097152	2097152	
24878.6	-0.0147553	2097152	2097152	
24894	-0.0146787	2097152	2097152	
24909.3	-0.0145988	2097152	2097152	
24924.7	-0.0145157	2097152	2097152	
24940	-0.0144295	2097152	2097152	
24955.4	-0.0143403	2097152	2097152	
24970.7	-0.0142481	2097152	2097152	
24986	-0.014153	2097152	2097152	
25001.4	-0.0140551	2097152	2097152	
25016.7	-0.0139545	2097152	2097152	
25032.1	-0.0138511	2097152	2097152	
25047.4	-0.0137452	2097152	2097152	
25062.8	-0.0136368	2097152	2097152	
25078.1	-0.0135259	2097152	2097152	
25093.5	-0.0134127	2097152	2097152	
25108.8	-0.0132971	2097152	2097152	
25124.2	-0.0131793	2097152	2097152	
25139.5	-0.0130593	2097152	2097152	
25154.9	-0.0129372	2097152	2097152	
25170.2	-0.0128131	2097152	2097152	
25185.6	-0.0126871	2097152	2097152	
25200.9	-0.0125591	2097152	2097152	
25216.3	-0.0124293	2097152	2097152	
25231.6	-0.0122977	2097152	2097152	
25247	-0.0121645	2097152	2097152	
25262.3	-0.0120296	2097152	2097152	
25277.7	-0.0118931	2097152	2097152	
25293	-0.0117552	2097152	2097152	
25308.3	-0.0116158	2097152	2097152	
25323.7	-0.011475	2097152	2097152	
25339	-0.0113329	2097152	2097152	
25354.4	-0.0111895	2097152	2097152	
25369.7	-0.011045	2097152	2097152	
25385.1	-0.0108993	2097152	2097152	
25400.4	-0.0107525	2097152	2097152	
25415.8	-0.0106047	2097152	2097152	
25431.1	-0.0104559	2097152	2097152	
25446.5	-0.0103062	2097152	2097152	
25461.8	-0.0101556	2097152	2097152	
25477.2	-0.0100043	2097152	2097152	
25492.5	-0.00985217	2097152	2097152	
25507.9	-0.00969935	2097152	2097152	
25523.2	-0.00954588	2097152	2097152	
25538.6	-0.00939181	2097152	2097152	
25553.9	-0.00923719	2097152	2097152	
25569.3	-0.00908206	2097152	2097152	
25584.6	-0.00892648	2097152	2097152	
25600	-0.00877049	2097152	2097152	
25615.3	-0.00861414	2097152	2097152	
25630.7	-0.00845747	2097152	2097152	
25646	-0.00830053	2097152	2097152	
25661.3	-0.00814336	2097152	2097152	
25676.7	-0.00798601	2097152	2097152	
25692	-0.00782851	2097152	2097152	
25707.4	-0.00767091	2097152	2097152	
25722.7	-0.00751324	2097152	2097152	
25738.1	-0.00735555	2097152	2097152	
25753.4	-0.00719788	2097152	2097152	
25768.8	-0.00704027	2097152	2097152	
25784.1	-0.00688274	2097152	2097152	
25799.5	-0.00672534	2097152	2097152	
25814.8	-0.00656811	2097152	2097152	
25830.2	-0.00641107	2097152	2097152	
25845.5	-0.00625426	2097152	2097152	
25860.9	-0.00609772	2097152	2097152	
25876.2	-0.00594148	2097152	2097152	
25891.6	-0.00578556	2097152	2097152	
25906.9	-0.00563001	2097152	2097152	
25922.3	-0.00547484	2097152	2097152	
25937.6	-0.0053201	2097152	2097152	
25953	-0.0051658	2097152	2097152	
25968.3	-0.00501197	2097152	2097152	
25983.6	-0.00485865	2097152	2097152	
25999	-0.00470585	2097152	2097152	
26014.3	-0.0045536	2097152	2097152	
26029.7	-0.00440193	2097152	2097152	
26045	-0.00425086	2097152	2097152	
26060.4	-0.00410042	2097152	2097152	
26075.7	-0.00395061	2097152	2097152	
26091.1	-0.00380148	2097152	2097152	
26106.4	-0.00365303	2097152	2097152	
26121.8	-0.00350528	2097152	2097152	
26137.1	-0.00335826	2097152	2097152	
26152.5	-0.00321197	2097152	2097152	
26167.8	-0.00306645	2097152	2097152	
26183.2	-0.0029217	2097152	2097152	
26198.5	-0.00277774	2097152	2097152	
26213.9	-0.00263459	2097152	2097152	
26229.2	-0.00249225	2097152	2097152	
26244.6	-0.00235074	2097152	2097152	
26259.9	-0.00221008	2097152	2097152	
26275.3	-0.00207027	2097152	2097152	
26290.6	-0.00193132	2097152	2097152	
26305.9	-0.00179325	2097152	2097152	
26321.3	-0.00165606	2097152	2097152	
26336.6	-0.00151977	2097152	2097152	
26352	-0.00138437	2097152	2097152	
26367.3	-0.00124988	2097152	2097152	
26382.7	-0.0011163	2097152	2097152	
26398	-0.000983637	2097152	2097152	
26413.4	-0.000851896	2097152	2097152	
26428.7	-0.00072108	2097152	2097152	
26444.1	-0.000591192	2097152	2097152	
26459.4	-0.000462235	2097152	2097152	
26474.8	-0.00033421	2097152	2097152	
26490.1	-0.000207119	2097152	2097152	
26505.5	-8.09616e-05	2097152	2097152	
26520.8	4.4262e-05	2097152	2097152	
26536.2	0.000168553	2097152	2097152	
26551.5	0.000291912	2097152	2097152	
26566.9	0.000414341	2097152	2097152	
26582.2	0.000535844	2097152	2097152	
26597.6	0.000656422	2097152	2097152	
26612.9	0.00077608	2097152	2097152	
26628.3	0.000894821	2097152	2097152	
26643.6	0.00101265	2097152	2097152	
26658.9	0.00112957	2097152	2097152	
26674.3	0.00124559	2097152	2097152	
26689.6	0.00136072	2097152	2097152	
26705	0.00147495	2097152	2097152	
26720.3	0.0015883	2097152	2097152	
26735.7	0.00170078	2097152	2097152	
26751	0.00181239	2097152	2097152	
26766.4	0.00192313	2097152	2097152	
26781.7	0.00203302	2097152	2097152	
26797.1	0.00214206	2097152	2097152	
26812.4	0.00225027	2097152	2097152	
26827.8	0.00235764	2097152	2097152	
26843.1	0.0024642	2097152	2097152	
26858.5	0.00256994	2097152	2097152	
26873.8	0.00267487	2097152	2097152	
26889.2	0.00277901	2097152	2097152	
26904.5	0.00288237	2097152	2097152	
26919.9	0.00298495	2097152	2097152	
26935.2	0.00308675	2097152	2097152	
26950.6	0.0031878	2097152	2097152	
26965.9	0.00328809	2097152	2097152	
26981.2	0.00338765	2097152	2097152	
26996.6	0.00348646	2097152	2097152	
27011.9	0.00358455	2097152	2097152	
27027.3	0.00368193	2097152	2097152	
27042.6	0.00377859	2097152	2097152	
27058	0.00387456	2097152	2097152	
27073.3	0.00396982	2097152	2097152	
27088.7	0.00406441	2097152	2097152	
27104	0.00415831	2097152	2097152	
27119.4	0.00425154	2097152	2097152	
27134.7	0.0043441	2097152	2097152	
27150.1	0.00443601	2097152	2097152	
27165.4	0.00452726	2097152	2097152	
27180.8	0.00461786	2097152	2097152	
27196.1	0.00470783	2097152	2097152	
27211.5	0.00479715	2097152	2097152	
27226.8	0.00488584	2097152	2097152	
27242.2	0.0049739	2097152	2097152	
27257.5	0.00506133	2097152	2097152	
27272.9	0.00514815	2097152	2097152	
27288.2	0.00523434	2097152	2097152	
27303.5	0.00531991	2097152	2097152	
27318.9	0.00540487	2097152	2097152	
27334.2	0.00548921	2097152	2097152	
27349.6	0.00557294	2097152	2097152	
27364.9	0.00565606	2097152	2097152	
27380.3	0.00573856	2097152	2097152	
27395.6	0.00582044	2097152	2097152	
27411	0.00590171	2097152	2097152	
27426.3	0.00598236	2097152	2097152	
27441.7	0.00606239	2097152	2097152	
27457	0.00614179	2097152	2097152	
27472.4	0.00622056	2097152	2097152	
27487.7	0.0062987	2097152	2097152	
27503.1	0.0063762	2097152	2097152	
27518.4	0.00645306	2097152	2097152	
27533.8	0.00652927	2097152	2097152	
27549.1	0.00660482	2097152	2097152	
27564.5	0.00667971	2097152	2097152	
27579.8	0.00675393	2097152	2097152	
27595.2	0.00682747	2097152	2097152	
27610.5	0.00690032	2097152	2097152	
27625.9	0.00697247	2097152	2097152	
27641.2	0.00704391	2097152	2097152	
27656.5	0.00711464	2097152	2097152	
27671.9	0.00718463	2097152	2097152	
27687.2	0.00725387	2097152	2097152	
27702.6	0.00732237	2097152	2097152	
27717.9	0.00739009	2097152	2097152	
27733.3	0.00745703	2097152	2097152	
27748.6	0.00752318	2097152	2097152	
27764	0.00758851	2097152	2097152	
27779.3	0.00765301	2097152	2097152	
27794.7	0.00771667	2097152	2097152	
27810	0.00777947	2097152	2097152	
27825.4	0.0078414	2097152	2097152	
27840.7	0.00790243	2097152	2097152	
27856.1	0.00796255	2097152	2097152	
27871.4	0.00802173	2097152	2097152	
27886.8	0.00807997	2097152	2097152	
27902.1	0.00813724	2097152	2097152	
27917.5	0.00819351	2097152	2097152	
27932.8	0.00824878	2097152	2097152	
27948.2	0.00830301	2097152	2097152	
27963.5	0.00835619	2097152	2097152	
27978.8	0.00840829	2097152	2097152	
27994.2	0.0084593	2097152	2097152	
28009.5	0.00850919	2097152	2097152	
28024.9	0.00855793	2097152	2097152	
28040.2	0.0086055	2097152	2097152	
28055.6	0.00865188	2097152	2097152	
28070.9	0.00869705	2097152	2097152	
28086.3	0.00874097	2097152	2097152	
28101.6	0.00878363	2097152	2097152	
28117	0.008825	2097152	2097152	
28132.3	0.00886505	2097152	2097152	
28147.7	0.00890375	2097152	2097152	
28163	0.00894108	2097152	2097152	
28178.4	0.00897702	2097152	2097152	
28193.7	0.00901153	2097152	2097152	
28209.1	0.00904459	2097152	2097152	
28224.4	0.00907617	2097152	2097152	
28239.8	0.00910624	2097152	2097152	
28255.1	0.00913478	2097152	2097152	
28270.5	0.00916175	2097152	2097152	
28285.8	0.00918713	2097152	2097152	
28301.1	0.00921089	2097152	2097152	
28316.5	0.009233	2097152	2097152	
28331.8	0.00925344	2097152	2097152	
28347.2	0.00927216	2097152	2097152	
28362.5	0.00928915	2097152	2097152	
28377.9	0.00930438	2097152	2097152	
28393.2	0.00931781	2097152	2097152	
28408.6	0.00932942	2097152	2097152	
28423.9	0.00933918	2097152	2097152	
28439.3	0.00934706	2097152	2097152	
28454.6	0.00935302	2097152	2097152	
28470	0.00935705	2097152	2097152	
28485.3	0.00935911	2097152	2097152	
28500.7	0.00935917	2097152	2097152	
28516	0.00935721	2097152	2097152	
28531.4	0.0093532	2097152	2097152	
28546.7	0.0093471	2097152	2097152	
28562.1	0.00933889	2097152	2097152	
28577.4	0.00932855	2097152	2097152	
28592.8	0.00931604	2097152	2097152	
28608.1	0.00930134	2097152	2097152	
28623.5	0.00928443	2097152	2097152	
28638.8	0.00926526	2097152	2097152	
28654.1	0.00924383	2097152	2097152	
28669.5	0.0092201	2097152	2097152	
28684.8	0.00919405	2097152	2097152	
28700.2	0.00916565	2097152	2097152	
28715.5	0.00913489	2097152	2097152	
28730.9	0.00910173	2097152	2097152	
28746.2	0.00906615	2097152	2097152	
28761.6	0.00902813	2097152	2097152	
28776.9	0.00898765	2097152	2097152	
28792.3	0.00894468	2097152	2097152	
28807.6	0.00889922	2097152	2097152	
28823	0.00885123	2097152	2097152	
28838.3	0.00880069	2097152	2097152	
28853.7	0.0087476	2097152	2097152	
28869	0.00869192	2097152	2097152	
28884.4	0.00863365	2097152	2097152	
28899.7	0.00857276	2097152	2097152	
28915.1	0.00850925	2097152	2097152	
28930.4	0.0084431	2097152	2097152	
28945.8	0.00837429	2097152	2097152	
28961.1	0.00830281	2097152	2097152	
28976.4	0.00822865	2097152	2097152	
28991.8	0.0081518	2097152	2097152	
29007.1	0.00807225	2097152	2097152	
29022.5	0.00798999	2097152	2097152	
29037.8	0.00790501	2097152	2097152	
29053.2	0.0078173	2097152	2097152	
29068.5	0.00772687	2097152	2097152	
29083.9	0.0076337	2097152	2097152	
29099.2	0.00753779	2097152	2097152	
29114.6	0.00743914	2097152	2097152	
29129.9	0.00733775	2097152	2097152	
29145.3	0.00723362	2097152	2097152	
29160.6	0.00712674	2097152	2097152	
29176	0.00701713	2097152	2097152	
29191.3	0.00690478	2097152	2097152	
29206.7	0.0067897	2097152	2097152	
29222	0.00667189	2097152	2097152	
29237.4	0.00655136	2097152	2097152	
29252.7	0.00642812	2097152	2097152	
29268.1	0.00630218	2097152	2097152	
29283.4	0.00617354	2097152	2097152	
29298.8	0.00604223	2097152	2097152	
29314.1	0.00590825	2097152	2097152	
29329.4	0.00577162	2097152	2097152	
29344.8	0.00563235	2097152	2097152	
29360.1	0.00549046	2097152	2097152	
29375.5	0.00534597	2097152	2097152	
29390.8	0.00519889	2097152	2097152	
29406.2	0.00504925	2097152	2097152	
29421.5	0.00489707	2097152	2097152	
29436.9	0.00474237	2097152	2097152	
29452.2	0.00458517	2097152	2097152	
29467.6	0.00442551	2097152	2097152	
29482.9	0.0042634	2097152	2097152	
29498.3	0.00409888	2097152	2097152	
29513.6	0.00393197	2097152	2097152	
29529	0.00376271	2097152	2097152	
29544.3	0.00359112	2097152	2097152	
29559.7	0.00341724	2097152	2097152	
29575	0.0032411	2097152	2097152	
29590.4	0.00306273	2097152	2097152	
29605.7	0.00288218	2097152	2097152	
29621.1	0.00269947	2097152	2097152	
29636.4	0.00251465	2097152	2097152	
29651.7	0.00232776	2097152	2097152	
29667.1	0.00213883	2097152	2097152	
29682.4	0.00194791	2097152	2097152	
29697.8	0.00175503	2097152	2097152	
29713.1	0.00156025	2097152	2097152	
29728.5	0.00136361	2097152	2097152	
29743.8	0.00116514	2097152	2097152	
29759.2	0.000964906	2097152	2097152	
29774.5	0.000762942	2097152	2097152	
29789.9	0.0005593	2097152	2097152	
29805.2	0.000354028	2097152	2097152	
29820.6	0.000147176	2097152	2097152	
29835.9	-6.1206e-05	2097152	2097152	
29851.3	-0.000271067	2097152	2097152	
29866.6	-0.000482355	2097152	2097152	
29882	-0.000695018	2097152	2097152	
29897.3	-0.000909002	2097152	2097152	
29912.7	-0.00112425	2097152	2097152	
29928	-0.00134072	2097152	2097152	
29943.4	-0.00155834	2097152	2097152	
29958.7	-0.00177706	2097152	2097152	
29974	-0.00199683	2097152	2097152	
29989.4	-0.00221758	2097152	2097152	
30004.7	-0.00243927	2097152	2097152	
30020.1	-0.00266182	2097152	2097152	
30035.4	-0.00288519	2097152	2097152	
30050.8	-0.00310931	2097152	2097152	
30066.1	-0.00333413	2097152	2097152	
30081.5	-0.00355958	2097152	2097152	
30096.8	-0.0037856	2097152	2097152	
30112.2	-0.00401214	2097152	2097152	
30127.5	-0.00423913	2097152	2097152	
30142.9	-0.00446651	2097152	2097152	
30158.2	-0.00469421	2097152	2097152	
30173.6	-0.00492218	2097152	2097152	
30188.9	-0.00515036	2097152	2097152	
30204.3	-0.00537867	2097152	2097152	
30219.6	-0.00560706	2097152	2097152	
30235	-0.00583547	2097152	2097152	
30250.3	-0.00606382	2097152	2097152	
30265.7	-0.00629207	2097152	2097152	
30281	-0.00652013	2097152	2097152	
30296.4	-0.00674795	2097152	2097152	
30311.7	-0.00697547	2097152	2097152	
30327	-0.00720262	2097152	2097152	
30342.4	-0.00742933	2097152	2097152	
30357.7	-0.00765554	2097152	2097152	
30373.1	-0.00788119	2097152	2097152	
30388.4	-0.00810622	2097152	2097152	
30403.8	-0.00833054	2097152	2097152	
30419.1	-0.00855412	2097152	2097152	
30434.5	-0.00877687	2097152	2097152	
30449.8	-0.00899873	2097152	2097152	
30465.2	-0.00921964	2097152	2097152	
30480.5	-0.00943953	2097152	2097152	
30495.9	-0.00965834	2097152	2097152	
30511.2	-0.00987601	2097152	2097152	
30526.6	-0.0100925	2097152	2097152	
30541.9	-0.0103076	2097152	2097152	
30557.3	-0.0105215	2097152	2097152	
30572.6	-0.0107339	2097152	2097152	
30588	-0.0109449	2097152	2097152	
30603.3	-0.0111543	2097152	2097152	
30618.7	-0.0113622	2097152	2097152	
30634	-0.0115684	2097152	2097152	
30649.3	-0.0117728	2097152	2097152	
30664.7	-0.0119755	2097152	2097152	
30680	-0.0121764	2097152	2097152	
30695.4	-0.0123753	2097152	2097152	
30710.7	-0.0125722	2097152	2097152	
30726.1	-0.0127671	2097152	2097152	
30741.4	-0.0129599	2097152	2097152	
30756.8	-0.0131506	2097152	2097152	
30772.1	-0.013339	2097152	2097152	
30787.5	-0.0135252	2097152	2097152	
30802.8	-0.013709	2097152	2097152	
30818.2	-0.0138904	2097152	2097152	
30833.5	-0.0140693	2097152	2097152	
30848.9	-0.0142458	2097152	2097152	
30864.2	-0.0144196	2097152	2097152	
30879.6	-0.0145908	2097152	2097152	
30894.9	-0.0147593	2097152	2097152	
30910.3	-0.014925	2097152	2097152	
30925.6	-0.015088	2097152	2097152	
30941	-0.015248	2097152	2097152	
30956.3	-0.0154052	2097152	2097152	
30971.6	-0.0155593	2097152	2097152	
30987	-0.0157104	2097152	2097152	
31002.3	-0.0158584	2097152	2097152	
31017.7	-0.0160033	2097152	2097152	
31033	-0.016145	2097152	2097152	
31048.4	-0.0162834	2097152	2097152	
31063.7	-0.0164186	2097152	2097152	
31079.1	-0.0165503	2097152	2097152	
31094.4	-0.0166787	2097152	2097152	
31109.8	-0.0168037	2097152	2097152	
31125.1	-0.0169251	2097152	2097152	
31140.5	-0.017043	2097152	2097152	
31155.8	-0.0171572	2097152	2097152	
31171.2	-0.0172679	2097152	2097152	
31186.5	-0.0173749	2097152	2097152	
31201.9	-0.0174781	2097152	2097152	
31217.2	-0.0175776	2097152	2097152	
31232.6	-0.0176732	2097152	2097152	
31247.9	-0.017765	2097152	2097152	
31263.3	-0.0178529	2097152	2097152	
31278.6	-0.0179369	2097152	2097152	
31294	-0.0180169	2097152	2097152	
31309.3	-0.0180929	2097152	2097152	
31324.6	-0.0181649	2097152	2097152	
31340	-0.0182328	2097152	2097152	
31355.3	-0.0182966	2097152	2097152	
31370.7	-0.0183563	2097152	2097152	
31386	-0.0184118	2097152	2097152	
31401.4	-0.0184631	2097152	2097152	
31416.7	-0.0185102	2097152	2097152	
31432.1	-0.018553	2097152	2097152	
31447.4	-0.0185916	2097152	2097152	
31462.8	-0.0186259	2097152	2097152	
31478.1	-0.0186559	2097152	2097152	
31493.5	-0.0186816	2097152	2097152	
31508.8	-0.0187029	2097152	2097152	
31524.2	-0.0187199	2097152	2097152	
31539.5	-0.0187325	2097152	2097152	
31554.9	-0.0187407	2097152	2097152	
31570.2	-0.0187446	2097152	2097152	
31585.6	-0.018744	2097152	2097152	
31600.9	-0.018739	2097152	2097152	
31616.3	-0.0187296	2097152	2097152	
31631.6	-0.0187158	2097152	2097152	
31646.9	-0.0186975	2097152	2097152	
31662.3	-0.0186749	2097152	2097152	
31677.6	-0.0186478	2097152	2097152	
31693	-0.0186163	2097152	2097152	
31708.3	-0.0185804	2097152	2097152	
31723.7	-0.0185401	2097152	2097152	
31739	-0.0184954	2097152	2097152	
31754.4	-0.0184464	2097152	2097152	
31769.7	-0.018393	2097152	2097152	
31785.1	-0.0183352	2097152	2097152	
31800.4	-0.0182731	2097152	2097152	
31815.8	-0.0182067	2097152	2097152	
31831.1	-0.018136	2097152	2097152	
31846.5	-0.0180611	2097152	2097152	
31861.8	-0.0179819	2097152	2097152	
31877.2	-0.0178985	2097152	2097152	
31892.5	-0.0178109	2097152	2097152	
31907.9	-0.0177191	2097152	2097152	
31923.2	-0.0176233	2097152	2097152	
31938.6	-0.0175233	2097152	2097152	
31953.9	-0.0174193	2097152	2097152	
31969.2	-0.0173113	2097152	2097152	
31984.6	-0.0171993	2097152	2097152	
31999.9	-0.0170834	2097152	2097152	
32015.3	-0.0169637	2097152	2097152	
32030.6	-0.0168401	2097152	2097152	
32046	-0.0167127	2097152	2097152	
32061.3	-0.0165815	2097152	2097152	
32076.7	-0.0164467	2097152	2097152	
32092	-0.0163083	2097152	2097152	
32107.4	-0.0161662	2097152	2097152	
32122.7	-0.0160207	2097152	2097152	
32138.1	-0.0158717	2097152	2097152	
32153.4	-0.0157193	2097152	2097152	
32168.8	-0.0155635	2097152	2097152	
32184.1	-0.0154045	2097152	2097152	
32199.5	-0.0152422	2097152	2097152	
32214.8	-0.0150768	2097152	2097152	
32230.2	-0.0149083	2097152	2097152	
32245.5	-0.0147368	2097152	2097152	
32260.9	-0.0145624	2097152	2097152	
32276.2	-0.0143851	2097152	2097152	
32291.6	-0.014205	2097152	2097152	
32306.9	-0.0140221	2097152	2097152	
32322.2	-0.0138366	2097152	2097152	
32337.6	-0.0136485	2097152	2097152	
32352.9	-0.0134579	2097152	2097152	
32368.3	-0.0132649	2097152	2097152	
32383.6	-0.0130696	2097152	2097152	
32399	-0.012872	2097152	2097152	
32414.3	-0.0126722	2097152	2097152	
32429.7	-0.0124703	2097152	2097152	
32445	-0.0122664	2097152	2097152	
32460.4	-0.0120605	2097152	2097152	
32475.7	-0.0118528	2097152	2097152	
32491.1	-0.0116433	2097152	2097152	
32506.4	-0.0114321	2097152	2097152	
32521.8	-0.0112193	2097152	2097152	
32537.1	-0.011005	2097152	2097152	
32552.5	-0.0107893	2097152	2097152	
32567.8	-0.0105722	2097152	2097152	
32583.2	-0.0103538	2097152	2097152	
32598.5	-0.0101343	2097152	2097152	
32613.9	-0.00991367	2097152	2097152	
32629.2	-0.00969206	2097152	2097152	
32644.5	-0.00946952	2097152	2097152	
32659.9	-0.00924616	2097152	2097152	
32675.2	-0.00902205	2097152	2097152	
32690.6	-0.00879728	2097152	2097152	
32705.9	-0.00857195	2097152	2097152	
32721.3	-0.00834612	2097152	2097152	
32736.6	-0.0081199	2097152	2097152	
32752	-0.00789336	2097152	2097152	
32767.3	-0.00766659	2097152	2097152	
32782.7	-0.00743967	2097152	2097152	
32798	-0.00721269	2097152	2097152	
32813.4	-0.00698573	2097152	2097152	
32828.7	-0.00675888	2097152	2097152	
32844.1	-0.0065322	2097152	2097152	
32859.4	-0.00630579	2097152	2097152	
32874.8	-0.00607973	2097152	2097152	
32890.1	-0.00585409	2097152	2097152	
32905.5	-0.00562896	2097152	2097152	
32920.8	-0.00540441	2097152	2097152	
32936.2	-0.00518052	2097152	2097152	
32951.5	-0.00495736	2097152	2097152	
32966.8	-0.00473501	2097152	2097152	
32982.2	-0.00451355	2097152	2097152	
32997.5	-0.00429304	2097152	2097152	
33012.9	-0.00407356	2097152	2097152	
33028.2	-0.00385518	2097152	2097152	
33043.6	-0.00363797	2097152	2097152	
33058.9	-0.00342199	2097152	2097152	
33074.3	-0.00320731	2097152	2097152	
33089.6	-0.00299401	2097152	2097152	
33105	-0.00278213	2097152	2097152	
33120.3	-0.00257176	2097152	2097152	
33135.7	-0.00236293	2097152	2097152	
33151	-0.00215573	2097152	2097152	
33166.4	-0.0019502	2097152	2097152	
33181.7	-0.00174641	2097152	2097152	
33197.1	-0.0015444	2097152	2097152	
33212.4	-0.00134424	2097152	2097152	
33227.8	-0.00114597	2097152	2097152	
33243.1	-0.00094965	2097152	2097152	
33258.5	-0.000755329	2097152	2097152	
33273.8	-0.000563053	2097152	2097152	
33289.2	-0.00037287	2097152	2097152	
33304.5	-0.000184825	2097152	2097152	
33319.8	1.03737e-06	2097152	2097152	
33335.2	0.000184676	2097152	2097152	
33350.5	0.00036605	2097152	2097152	
33365.9	0.000545121	2097152	2097152	
33381.2	0.00072185	2097152	2097152	
33396.6	0.000896202	2097152	2097152	
33411.9	0.00106814	2097152	2097152	
33427.3	0.00123764	2097152	2097152	
33442.6	0.00140466	2097152	2097152	
33458	0.00156917	2097152	2097152	
33473.3	0.00173115	2097152	2097152	
33488.7	0.00189057	2097152	2097152	
33504	0.0020474	2097152	2097152	
33519.4	0.00220163	2097152	2097152	
33534.7	0.00235322	2097152	2097152	
33550.1	0.00250216	2097152	2097152	
33565.4	0.00264842	2097152	2097152	
33580.8	0.002792	2097152	2097152	
33596.1	0.00293287	2097152	2097152	
33611.5	0.00307102	2097152	2097152	
33626.8	0.00320643	2097152	2097152	
33642.1	0.0033391	2097152	2097152	
33657.5	0.00346901	2097152	2097152	
33672.8	0.00359615	2097152	2097152	
33688.2	0.00372051	2097152	2097152	
33703.5	0.00384209	2097152	2097152	
33718.9	0.00396089	2097152	2097152	
33734.2	0.00407688	2097152	2097152	
33749.6	0.00419008	2097152	2097152	
33764.9	0.00430049	2097152	2097152	
33780.3	0.00440809	2097152	2097152	
33795.6	0.00451289	2097152	2097152	
33811	0.00461489	2097152	2097152	
33826.3	0.00471409	2097152	2097152	
33841.7	0.00481051	2097152	2097152	
33857	0.00490413	2097152	2097152	
33872.4	0.00499497	2097152	2097152	
33887.7	0.00508303	2097152	2097152	
33903.1	0.00516831	2097152	2097152	
33918.4	0.00525084	2097152	2097152	
33933.8	0.00533061	2097152	2097152	
33949.1	0.00540764	2097152	2097152	
33964.4	0.00548194	2097152	2097152	
33979.8	0.00555351	2097152	2097152	
33995.1	0.00562238	2097152	2097152	
34010.5	0.00568855	2097152	2097152	
34025.8	0.00575203	2097152	2097152	
34041.2	0.00581284	2097152	2097152	
34056.5	0.00587101	2097152	2097152	
34071.9	0.00592653	2097152	2097152	
34087.2	0.00597943	2097152	2097152	
34102.6	0.00602972	2097152	2097152	
34117.9	0.00607743	2097152	2097152	
34133.3	0.00612256	2097152	2097152	
34148.6	0.00616515	2097152	2097152	
34164	0.0062052	2097152	2097152	
34179.3	0.00624273	2097152	2097152	
34194.7	0.00627777	2097152	2097152	
34210	0.00631033	2097152	2097152	
34225.4	0.00634044	2097152	2097152	
34240.7	0.00636812	2097152	2097152	
34256.1	0.00639338	2097152	2097152	
34271.4	0.00641626	2097152	2097152	
34286.8	0.00643676	2097152	2097152	
34302.1	0.00645492	2097152	2097152	
34317.4	0.00647075	2097152	2097152	
34332.8	0.00648427	2097152	2097152	
34348.1	0.00649552	2097152	2097152	
34363.5	0.00650451	2097152	2097152	
34378.8	0.00651127	2097152	2097152	
34394.2	0.00651582	2097152	2097152	
34409.5	0.00651818	2097152	2097152	
34424.9	0.00651838	2097152	2097152	
34440.2	0.00651644	2097152	2097152	
34455.6	0.00651238	2097152	2097152	
34470.9	0.00650624	2097152	2097152	
34486.3	0.00649802	2097152	2097152	
34501.6	0.00648777	2097152	2097152	
34517	0.00647549	2097152	2097152	
34532.3	0.00646123	2097152	2097152	
34547.7	0.00644499	2097152	2097152	
34563	0.00642682	2097152	2097152	
34578.4	0.00640672	2097152	2097152	
34593.7	0.00638473	2097152	2097152	
34609.1	0.00636087	2097152	2097152	
34624.4	0.00633516	2097152	2097152	
34639.7	0.00630764	2097152	2097152	
34655.1	0.00627832	2097152	2097152	
34670.4	0.00624723	2097152	2097152	
34685.8	0.0062144	2097152	2097152	
34701.1	0.00617985	2097152	2097152	
34716.5	0.00614361	2097152	2097152	
34731.8	0.00610569	2097152	2097152	
34747.2	0.00606614	2097152	2097152	
34762.5	0.00602497	2097152	2097152	
34777.9	0.0059822	2097152	2097152	
34793.2	0.00593787	2097152	2097152	
34808.6	0.005892	2097152	2097152	
34823.9	0.00584461	2097152	2097152	
34839.3	0.00579573	2097152	2097152	
34854.6	0.00574538	2097152	2097152	
34870	0.0056936	2097152	2097152	
34885.3	0.0056404	2097152	2097152	
34900.7	0.00558581	2097152	2097152	
34916	0.00552986	2097152	2097152	
34931.4	0.00547257	2097152	2097152	
34946.7	0.00541397	2097152	2097152	
34962	0.00535409	2097152	2097152	
34977.4	0.00529294	2097152	2097152	
34992.7	0.00523056	2097152	2097152	
35008.1	0.00516698	2097152	2097152	
35023.4	0.00510221	2097152	2097152	
35038.8	0.00503628	2097152	2097152	
35054.1	0.00496923	2097152	2097152	
35069.5	0.00490107	2097152	2097152	
35084.8	0.00483183	2097152	2097152	
35100.2	0.00476154	2097152	2097152	
35115.5	0.00469023	2097152	2097152	
35130.9	0.00461791	2097152	2097152	
35146.2	0.00454463	2097152	2097152	
35161.6	0.00447039	2097152	2097152	
35176.9	0.00439524	2097152	2097152	
35192.3	0.0043192	2097152	2097152	
35207.6	0.00424229	2097152	2097152	
35223	0.00416454	2097152	2097152	
35238.3	0.00408598	2097152	2097152	
35253.7	0.00400663	2097152	2097152	
35269	0.00392652	2097152	2097152	
35284.4	0.00384568	2097152	2097152	
35299.7	0.00376414	2097152	2097152	
35315	0.00368192	2097152	2097152	
35330.4	0.00359904	2097152	2097152	
35345.7	0.00351555	2097152	2097152	
35361.1	0.00343146	2097152	2097152	
35376.4	0.0033468	2097152	2097152	
35391.8	0.0032616	2097152	2097152	
35407.1	0.00317589	2097152	2097152	
35422.5	0.00308969	2097152	2097152	
35437.8	0.00300303	2097152	2097152	
35453.2	0.00291594	2097152	2097152	
35468.5	0.00282845	2097152	2097152	
35483.9	0.00274058	2097152	2097152	
35499.2	0.00265237	2097152	2097152	
35514.6	0.00256383	2097152	2097152	
35529.9	0.00247501	2097152	2097152	
35545.3	0.00238591	2097152	2097152	
35560.6	0.00229659	2097152	2097152	
35576	0.00220705	2097152	2097152	
35591.3	0.00211733	2097152	2097152	
35606.7	0.00202746	2097152	2097152	
35622	0.00193746	2097152	2097152	
35637.3	0.00184736	2097152	2097152	
35652.7	0.0017572	2097152	2097152	
35668	0.00166699	2097152	2097152	
35683.4	0.00157676	2097152	2097152	
35698.7	0.00148655	2097152	2097152	
35714.1	0.00139638	2097152	2097152	
35729.4	0.00130627	2097152	2097152	
35744.8	0.00121626	2097152	2097152	
35760.1	0.00112636	2097152	2097152	
35775.5	0.00103662	2097152	2097152	
35790.8	0.000947051	2097152	2097152	
35806.2	0.000857684	2097152	2097152	
35821.5	0.000768546	2097152	2097152	
35836.9	0.000679663	2097152	2097152	
35852.2	0.00059106	2097152	2097152	
35867.6	0.000502766	2097152	2097152	
35882.9	0.000414805	2097152	2097152	
35898.3	0.000327204	2097152	2097152	
35913.6	0.000239988	2097152	2097152	
35929	0.000153182	2097152	2097152	
35944.3	6.6813e-05	2097152	2097152	
35959.6	-1.90954e-05	2097152	2097152	
35975	-0.000104518	2097152	2097152	
35990.3	-0.00018943	2097152	2097152	
36005.7	-0.000273808	2097152	2097152	
36021	-0.000357626	2097152	2097152	
36036.4	-0.000440862	2097152	2097152	
36051.7	-0.000523491	2097152	2097152	
36067.1	-0.000605491	2097152	2097152	
36082.4	-0.000686838	2097152	2097152	
36097.8	-0.00076751	2097152	2097152	
36113.1	-0.000847484	2097152	2097152	
36128.5	-0.000926739	2097152	2097152	
36143.8	-0.00100525	2097152	2097152	
36159.2	-0.001083	2097152	2097152	
36174.5	-0.00115997	2097152	2097152	
36189.9	-0.00123613	2097152	2097152	
36205.2	-0.00131146	2097152	2097152	
36220.6	-0.00138595	2097152	2097152	
36235.9	-0.00145958	2097152	2097152	
36251.3	-0.00153232	2097152	2097152	
36266.6	-0.00160416	2097152	2097152	
36282	-0.00167507	2097152	2097152	
36297.3	-0.00174505	2097152	2097152	
36312.6	-0.00181407	2097152	2097152	
36328	-0.00188211	2097152	2097152	
36343.3	-0.00194916	2097152	2097152	
36358.7	-0.00201521	2097152	2097152	
36374	-0.00208022	2097152	2097152	
36389.4	-0.0021442	2097152	2097152	
36404.7	-0.00220713	2097152	2097152	
36420.1	-0.00226898	2097152	2097152	
36435.4	-0.00232975	2097152	2097152	
36450.8	-0.00238942	2097152	2097152	
36466.1	-0.00244798	2097152	2097152	
36481.5	-0.00250541	2097152	2097152	
36496.8	-0.0025617	2097152	2097152	
36512.2	-0.00261685	2097152	2097152	
36527.5	-0.00267084	2097152	2097152	
36542.9	-0.00272365	2097152	2097152	
36558.2	-0.00277528	2097152	2097152	
36573.6	-0.00282571	2097152	2097152	
36588.9	-0.00287495	2097152	2097152	
36604.3	-0.00292297	2097152	2097152	
36619.6	-0.00296977	2097152	2097152	
36634.9	-0.00301534	2097152	2097152	
36650.3	-0.00305968	2097152	2097152	
36665.6	-0.00310277	2097152	2097152	
36681	-0.00314461	2097152	2097152	
36696.3	-0.00318519	2097152	2097152	
36711.7	-0.00322451	2097152	2097152	
36727	-0.00326256	2097152	2097152	
36742.4	-0.00329933	2097152	2097152	
36757.7	-0.00333483	2097152	2097152	
36773.1	-0.00336905	2097152	2097152	
36788.4	-0.00340198	2097152	2097152	
36803.8	-0.00343362	2097152	2097152	
36819.1	-0.00346397	2097152	2097152	
36834.5	-0.00349303	2097152	2097152	
36849.8	-0.0035208	2097152	2097152	
36865.2	-0.00354727	2097152	2097152	
36880.5	-0.00357244	2097152	2097152	
36895.9	-0.00359633	2097152	2097152	
36911.2	-0.00361891	2097152	2097152	
36926.6	-0.0036402	2097152	2097152	
36941.9	-0.00366021	2097152	2097152	
36957.2	-0.00367892	2097152	2097152	
36972.6	-0.00369634	2097152	2097152	
36987.9	-0.00371248	2097152	2097152	
37003.3	-0.00372733	2097152	2097152	
37018.6	-0.00374091	2097152	2097152	
37034	-0.00375322	2097152	2097152	
37049.3	-0.00376426	2097152	2097152	
37064.7	-0.00377404	2097152	2097152	
37080	-0.00378255	2097152	2097152	
37095.4	-0.00378982	2097152	2097152	
37110.7	-0.00379585	2097152	2097152	
37126.1	-0.00380063	2097152	2097152	
37141.4	-0.00380419	2097152	2097152	
37156.8	-0.00380652	2097152	2097152	
37172.1	-0.00380764	2097152	2097152	
37187.5	-0.00380756	2097152	2097152	
37202.8	-0.00380628	2097152	2097152	
37218.2	-0.00380382	2097152	2097152	
37233.5	-0.00380018	2097152	2097152	
37248.9	-0.00379538	2097152	2097152	
37264.2	-0.00378942	2097152	2097152	
37279.6	-0.00378232	2097152	2097152	
37294.9	-0.00377408	2097152	2097152	
37310.2	-0.00376473	2097152	2097152	
37325.6	-0.00375427	2097152	2097152	
37340.9	-0.00374272	2097152	2097152	
37356.3	-0.00373008	2097152	2097152	
37371.6	-0.00371638	2097152	2097152	
37387	-0.00370162	2097152	2097152	
37402.3	-0.00368583	2097152	2097152	
37417.7	-0.003669	2097152	2097152	
37433	-0.00365117	2097152	2097152	
37448.4	-0.00363234	2097152	2097152	
37463.7	-0.00361253	2097152	2097152	
37479.1	-0.00359175	2097152	2097152	
37494.4	-0.00357003	2097152	2097152	
37509.8	-0.00354737	2097152	2097152	
37525.1	-0.0035238	2097152	2097152	
37540.5	-0.00349932	2097152	2097152	
37555.8	-0.00347396	2097152	2097152	
37571.2	-0.00344773	2097152	2097152	
37586.5	-0.00342066	2097152	2097152	
37601.9	-0.00339275	2097152	2097152	
37617.2	-0.00336403	2097152	2097152	
37632.5	-0.00333451	2097152	2097152	
37647.9	-0.00330422	2097152	2097152	
37663.2	-0.00327316	2097152	2097152	
37678.6	-0.00324136	2097152	2097152	
37693.9	-0.00320884	2097152	2097152	
37709.3	-0.00317561	2097152	2097152	
37724.6	-0.0031417	2097152	2097152	
37740	-0.00310712	2097152	2097152	
37755.3	-0.00307189	2097152	2097152	
37770.7	-0.00303603	2097152	2097152	
37786	-0.00299957	2097152	2097152	
37801.4	-0.00296251	2097152	2097152	
37816.7	-0.00292488	2097152	2097152	
37832.1	-0.00288669	2097152	2097152	
37847.4	-0.00284798	2097152	2097152	
37862.8	-0.00280875	2097152	2097152	
37878.1	-0.00276903	2097152	2097152	
37893.5	-0.00272883	2097152	2097152	
37908.8	-0.00268817	2097152	2097152	
37924.2	-0.00264708	2097152	2097152	
37939.5	-0.00260558	2097152	2097152	
37954.9	-0.00256367	2097152	2097152	
37970.2	-0.00252139	2097152	2097152	
37985.5	-0.00247875	2097152	2097152	
38000.9	-0.00243577	2097152	2097152	
38016.2	-0.00239248	2097152	2097152	
38031.6	-0.00234888	2097152	2097152	
38046.9	-0.002305	2097152	2097152	
38062.3	-0.00226085	2097152	2097152	
38077.6	-0.00221647	2097152	2097152	
38093	-0.00217186	2097152	2097152	
38108.3	-0.00212704	2097152	2097152	
38123.7	-0.00208203	2097152	2097152	
38139	-0.00203686	2097152	2097152	
38154.4	-0.00199154	2097152	2097152	
38169.7	-0.00194608	2097152	2097152	
38185.1	-0.00190051	2097152	2097152	
38200.4	-0.00185485	2097152	2097152	
38215.8	-0.0018091	2097152	2097152	
38231.1	-0.0017633	2097152	2097152	
38246.5	-0.00171745	2097152	2097152	
38261.8	-0.00167158	2097152	2097152	
38277.2	-0.0016257	2097152	2097152	
38292.5	-0.00157983	2097152	2097152	
38307.8	-0.00153398	2097152	2097152	
38323.2	-0.00148818	2097152	2097152	
38338.5	-0.00144243	2097152	2097152	
38353.9	-0.00139676	2097152	2097152	
38369.2	-0.00135118	2097152	2097152	
38384.6	-0.0013057	2097152	2097152	
38399.9	-0.00126035	2097152	2097152	
38415.3	-0.00121513	2097152	2097152	
38430.6	-0.00117006	2097152	2097152	
38446	-0.00112516	2097152	2097152	
38461.3	-0.00108044	2097152	2097152	
38476.7	-0.00103592	2097152	2097152	
38492	-0.000991607	2097152	2097152	
38507.4	-0.000947515	2097152	2097152	
38522.7	-0.00090366	2097152	2097152	
38538.1	-0.000860053	2097152	2097152	
38553.4	-0.000816709	2097152	2097152	
38568.8	-0.00077364	2097152	2097152	
38584.1	-0.000730857	2097152	2097152	
38599.5	-0.000688373	2097152	2097152	
38614.8	-0.000646199	2097152	2097152	
38630.1	-0.000604347	2097152	2097152	
38645.5	-0.000562828	2097152	2097152	
38660.8	-0.000521651	2097152	2097152	
38676.2	-0.000480829	2097152	2097152	
38691.5	-0.000440369	2097152	2097152	
38706.9	-0.000400283	2097152	2097152	
38722.2	-0.00036058	2097152	2097152	
38737.6	-0.000321268	2097152	2097152	
38752.9	-0.000282356	2097152	2097152	
38768.3	-0.000243852	2097152	2097152	
38783.6	-0.000205765	2097152	2097152	
38799	-0.000168102	2097152	2097152	
38814.3	-0.00013087	2097152	2097152	
38829.7	-9.40758e-05	2097152	2097152	
38845	-5.77267e-05	2097152	2097152	
38860.4	-2.18286e-05	2097152	2097152	
38875.7	1.36126e-05	2097152	2097152	
38891.1	4.85913e-05	2097152	2097152	
38906.4	8.31023e-05	2097152	2097152	
38921.8	0.000117141	2097152	2097152	
38937.1	0.000150702	2097152	2097152	
38952.5	0.000183782	2097152	2097152	
38967.8	0.000216376	2097152	2097152	
38983.1	0.000248482	2097152	2097152	
38998.5	0.000280095	2097152	2097152	
39013.8	0.000311213	2097152	2097152	
39029.2	0.000341833	2097152	2097152	
39044.5	0.000371953	2097152	2097152	
39059.9	0.000401569	2097152	2097152	
39075.2	0.000430682	2097152	2097152	
39090.6	0.000459288	2097152	2097152	
39105.9	0.000487387	2097152	2097152	
39121.3	0.000514977	2097152	2097152	
39136.6	0.000542058	2097152	2097152	
39152	0.000568629	2097152	2097152	
39167.3	0.000594689	2097152	2097152	
39182.7	0.000620238	2097152	2097152	
39198	0.000645277	2097152	2097152	
39213.4	0.000669805	2097152	2097152	
39228.7	0.000693823	2097152	2097152	
39244.1	0.000717331	2097152	2097152	
39259.4	0.000740331	2097152	2097152	
39274.8	0.000762822	2097152	2097152	
39290.1	0.000784806	2097152	2097152	
39305.4	0.000806284	2097152	2097152	
39320.8	0.000827257	2097152	2097152	
39336.1	0.000847727	2097152	2097152	
39351.5	0.000867696	2097152	2097152	
39366.8	0.000887164	2097152	2097152	
39382.2	0.000906134	2097152	2097152	
39397.5	0.000924608	2097152	2097152	
39412.9	0.000942587	2097152	2097152	
39428.2	0.000960073	2097152	2097152	
39443.6	0.000977069	2097152	2097152	
39458.9	0.000993578	2097152	2097152	
39474.3	0.0010096	2097152	2097152	
39489.6	0.00102514	2097152	2097152	
39505	0.0010402	2097152	2097152	
39520.3	0.00105478	2097152	2097152	
39535.7	0.00106888	2097152	2097152	
39551	0.00108251	2097152	2097152	
39566.4	0.00109567	2097152	2097152	
39581.7	0.00110837	2097152	2097152	
39597.1	0.0011206	2097152	2097152	
39612.4	0.00113237	2097152	2097152	
39627.7	0.00114368	2097152	2097152	
39643.1	0.00115454	2097152	2097152	
39658.4	0.00116495	2097152	2097152	
39673.8	0.0011749	2097152	2097152	
39689.1	0.00118442	2097152	2097152	
39704.5	0.0011935	2097152	2097152	
39719.8	0.00120213	2097152	2097152	
39735.2	0.00121034	2097152	2097152	
39750.5	0.00121812	2097152	2097152	
39765.9	0.00122548	2097152	2097152	
39781.2	0.00123241	2097152	2097152	
39796.6	0.00123893	2097152	2097152	
39811.9	0.00124505	2097152	2097152	
39827.3	0.00125075	2097152	2097152	
39842.6	0.00125606	2097152	2097152	
39858	0.00126097	2097152	2097152	
39873.3	0.0012655	2097152	2097152	
39888.7	0.00126964	2097152	2097152	
39904	0.0012734	2097152	2097152	
39919.4	0.00127679	2097152	2097152	
39934.7	0.00127981	2097152	2097152	
39950.1	0.00128247	2097152	2097152	
39965.4	0.00128478	2097152	2097152	
39980.7	0.00128674	2097152	2097152	
39996.1	0.00128837	2097152	2097152	
40011.4	0.00128966	2097152	2097152	
40026.8	0.00129062	2097152	2097152	
40042.1	0.00129126	2097152	2097152	
40057.5	0.00129159	2097152	2097152	
40072.8	0.00129162	2097152	2097152	
40088.2	0.00129135	2097152	2097152	
40103.5	0.00129079	2097152	2097152	
40118.9	0.00128996	2097152	2097152	
40134.2	0.00128885	2097152	2097152	
40149.6	0.00128747	2097152	2097152	
40164.9	0.00128584	2097152	2097152	
40180.3	0.00128396	2097152	2097152	
40195.6	0.00128184	2097152	2097152	
40211	0.00127949	2097152	2097152	
40226.3	0.00127692	2097152	2097152	
40241.7	0.00127414	2097152	2097152	
40257	0.00127116	2097152	2097152	
40272.4	0.00126797	2097152	2097152	
40287.7	0.00126461	2097152	2097152	
40303	0.00126106	2097152	2097152	
40318.4	0.00125735	2097152	2097152	
40333.7	0.00125348	2097152	2097152	
40349.1	0.00124945	2097152	2097152	
40364.4	0.00124529	2097152	2097152	
40379.8	0.001241	2097152	2097152	
40395.1	0.00123658	2097152	2097152	
40410.5	0.00123206	2097152	2097152	
40425.8	0.00122742	2097152	2097152	
40441.2	0.0012227	2097152	2097152	
40456.5	0.00121788	2097152	2097152	
40471.9	0.00121299	2097152	2097152	
40487.2	0.00120803	2097152	2097152	
40502.6	0.00120302	2097152	2097152	
40517.9	0.00119795	2097152	2097152	
40533.3	0.00119284	2097152	2097152	
40548.6	0.0011877	2097152	2097152	
40564	0.00118253	2097152	2097152	
40579.3	0.00117735	2097152	2097152	
40594.7	0.00117217	2097152	2097152	
40610	0.00116698	2097152	2097152	
40625.3	0.00116181	2097152	2097152	
40640.7	0.00115665	2097152	2097152	
40656	0.00115152	2097152	2097152	
40671.4	0.00114642	2097152	2097152	
40686.7	0.00114137	2097152	2097152	
40702.1	0.00113636	2097152	2097152	
40717.4	0.00113142	2097152	2097152	
40732.8	0.00112654	2097152	2097152	
40748.1	0.00112173	2097152	2097152	
40763.5	0.00111701	2097152	2097152	
40778.8	0.00111237	2097152	2097152	
40794.2	0.00110783	2097152	2097152	
40809.5	0.0011034	2097152	2097152	
40824.9	0.00109907	2097152	2097152	
40840.2	0.00109487	2097152	2097152	
40855.6	0.00109078	2097152	2097152	
40870.9	0.00108683	2097152	2097152	
40886.3	0.00108302	2097152	2097152	
40901.6	0.00107936	2097152	2097152	
40917	0.00107584	2097152	2097152	
40932.3	0.00107249	2097152	2097152	
40947.7	0.0010693	2097152	2097152	
40963	0.00106628	2097152	2097152	
40978.3	0.00106345	2097152	2097152	
40993.7	0.00106079	2097152	2097152	
41009	0.00105833	2097152	2097152	
41024.4	0.00105607	2097152	2097152	
41039.7	0.00105401	2097152	2097152	
41055.1	0.00105217	2097152	2097152	
41070.4	0.00105054	2097152	2097152	
41085.8	0.00104913	2097152	2097152	
41101.1	0.00104795	2097152	2097152	
41116.5	0.00104701	2097152	2097152	
41131.8	0.00104631	2097152	2097152	
41147.2	0.00104586	2097152	2097152	
41162.5	0.00104566	2097152	2097152	
41177.9	0.00104571	2097152	2097152	
41193.2	0.00104604	2097152	2097152	
41208.6	0.00104663	2097152	2097152	
41223.9	0.00104751	2097152	2097152	
41239.3	0.00104866	2097152	2097152	
41254.6	0.0010501	2097152	2097152	
41270	0.00105184	2097152	2097152	
41285.3	0.00105388	2097152	2097152	
41300.6	0.00105622	2097152	2097152	
41316	0.00105887	2097152	2097152	
41331.3	0.00106184	2097152	2097152	
41346.7	0.00106513	2097152	2097152	
41362	0.00106875	2097152	2097152	
41377.4	0.0010727	2097152	2097152	
41392.7	0.00107699	2097152	2097152	
41408.1	0.00108163	2097152	2097152	
41423.4	0.00108661	2097152	2097152	
41438.8	0.00109194	2097152	2097152	
41454.1	0.00109764	2097152	2097152	
41469.5	0.0011037	2097152	2097152	
41484.8	0.00111013	2097152	2097152	
41500.2	0.00111693	2097152	2097152	
41515.5	0.00112411	2097152	2097152	
41530.9	0.00113167	2097152	2097152	
41546.2	0.00113962	2097152	2097152	
41561.6	0.00114797	2097152	2097152	
41576.9	0.00115671	2097152	2097152	
41592.3	0.00116585	2097152	2097152	
41607.6	0.0011754	2097152	2097152	
41622.9	0.00118536	2097152	2097152	
41638.3	0.00119573	2097152	2097152	
41653.6	0.00120652	2097152	2097152	
41669	0.00121773	2097152	2097152	
41684.3	0.00122936	2097152	2097152	
41699.7	0.00124143	2097152	2097152	
41715	0.00125392	2097152	2097152	
41730.4	0.00126685	2097152	2097152	
41745.7	0.00128021	2097152	2097152	
41761.1	0.00129401	2097152	2097152	
41776.4	0.00130826	2097152	2097152	
41791.8	0.00132295	2097152	2097152	
41807.1	0.00133809	2097152	2097152	
41822.5	0.00135368	2097152	2097152	
41837.8	0.00136972	2097152	2097152	
41853.2	0.00138621	2097152	2097152	
41868.5	0.00140315	2097152	2097152	
41883.9	0.00142055	2097152	2097152	
41899.2	0.00143841	2097152	2097152	
41914.6	0.00145672	2097152	2097152	
41929.9	0.00147548	2097152	2097152	
41945.3	0.00149471	2097152	2097152	
41960.6	0.00151439	2097152	2097152	
41975.9	0.00153453	2097152	2097152	
41991.3	0.00155513	2097152	2097152	
42006.6	0.00157618	2097152	2097152	
42022	0.00159768	2097152	2097152	
42037.3	0.00161964	2097152	2097152	
42052.7	0.00164205	2097152	2097152	
42068	0.00166491	2097152	2097152	
42083.4	0.00168822	2097152	2097152	
42098.7	0.00171197	2097152	2097152	
42114.1	0.00173617	2097152	2097152	
42129.4	0.0017608	2097152	2097152	
42144.8	0.00178588	2097152	2097152	
42160.1	0.00181138	2097152	2097152	
42175.5	0.00183731	2097152	2097152	
42190.8	0.00186367	2097152	2097152	
42206.2	0.00189045	2097152	2097152	
42221.5	0.00191764	2097152	2097152	
42236.9	0.00194525	2097152	2097152	
42252.2	0.00197326	2097152	2097152	
42267.6	0.00200167	2097152	2097152	
42282.9	0.00203047	2097152	2097152	
42298.2	0.00205966	2097152	2097152	
42313.6	0.00208924	2097152	2097152	
42328.9	0.00211918	2097152	2097152	
42344.3	0.0021495	2097152	2097152	
42359.6	0.00218017	2097152	2097152	
42375	0.0022112	2097152	2097152	
42390.3	0.00224257	2097152	2097152	
42405.7	0.00227428	2097152	2097152	
42421	0.00230631	2097152	2097152	
42436.4	0.00233866	2097152	2097152	
42451.7	0.00237132	2097152	2097152	
42467.1	0.00240428	2097152	2097152	
42482.4	0.00243753	2097152	2097152	
42497.8	0.00247107	2097152	2097152	
42513.1	0.00250487	2097152	2097152	
42528.5	0.00253893	2097152	2097152	
42543.8	0.00257324	2097152	2097152	
42559.2	0.00260778	2097152	2097152	
42574.5	0.00264256	2097152	2097152	
42589.9	0.00267754	2097152	2097152	
42605.2	0.00271273	2097152	2097152	
42620.5	0.00274812	2097152	2097152	
42635.9	0.00278367	2097152	2097152	
42651.2	0.0028194	2097152	2097152	
42666.6	0.00285528	2097152	2097152	
42681.9	0.0028913	2097152	2097152	
42697.3	0.00292744	2097152	2097152	
42712.6	0.0029637	2097152	2097152	
42728	0.00300005	2097152	2097152	
42743.3	0.0030365	2097152	2097152	
42758.7	0.00307301	2097152	2097152	
42774	0.00310958	2097152	2097152	
42789.4	0.00314619	2097152	2097152	
42804.7	0.00318284	2097152	2097152	
42820.1	0.00321949	2097152	2097152	
42835.4	0.00325614	2097152	2097152	
42850.8	0.00329278	2097152	2097152	
42866.1	0.00332938	2097152	2097152	
42881.5	0.00336594	2097152	2097152	
42896.8	0.00340243	2097152	2097152	
42912.2	0.00343884	2097152	2097152	
42927.5	0.00347516	2097152	2097152	
42942.9	0.00351137	2097152	2097152	
42958.2	0.00354745	2097152	2097152	
42973.5	0.00358339	2097152	2097152	
42988.9	0.00361917	2097152	2097152	
43004.2	0.00365478	2097152	2097152	
43019.6	0.00369019	2097152	2097152	
43034.9	0.00372539	2097152	2097152	
43050.3	0.00376037	2097152	2097152	
43065.6	0.00379511	2097152	2097152	
43081	0.0038296	2097152	2097152	
43096.3	0.0038638	2097152	2097152	
43111.7	0.00389772	2097152	2097152	
43127	0.00393133	2097152	2097152	
43142.4	0.00396462	2097152	2097152	
43157.7	0.00399756	2097152	2097152	
43173.1	0.00403015	2097152	2097152	
43188.4	0.00406237	2097152	2097152	
