0	0	4089764	4089764	
10.0436	0	4418410	4418410	
20.0856	0	4499640	4499640	
30.127	0	4542494	4542494	
40.1647	0	4579670	4579670	
50.2024	0	4613666	4613666	
60.2402	0	4646268	4646268	
70.2779	0	4673344	4673344	
80.3156	0	4699208	4699208	
90.3504	0	4724312	4724312	
100.378	0	4747898	4747898	
110.406	0	4771104	4771104	
120.409	0	4794164	4794164	
130.401	0	4816980	4816980	
140.393	0	4840070	4840070	
150.386	0	4863822	4863822	
160.378	0	4887390	4887390	
170.37	0	4910852	4910852	
180.362	0	4932774	4932774	
190.355	0	4956144	4956144	
200.347	0	4977992	4977992	
210.337	0	4999078	4999078	
220.322	0	5023480	5023480	
230.304	0	5043848	5043848	
240.285	0	5068306	5068306	
250.265	0	5091588	5091588	
260.245	0	5113440	5113440	
270.224	0	5137776	5137776	
280.203	0	5160224	5160224	
290.182	0	5185910	5185910	
300.161	0	5206700	5206700	
310.139	0	5232784	5232784	
320.118	0	5254616	5254616	
330.097	0	5277390	5277390	
340.076	0	5298510	5298510	
350.054	0	5323036	5323036	
360.026	0	5344882	5344882	
370.55	0	5369874	5369874	
380.521	0	5392112	5392112	
390.492	0	5415186	5415186	
400.462	0	5437156	5437156	
410.427	0	5460904	5460904	
420.385	0	5482086	5482086	
430.336	0	5504946	5504946	
440.282	0	5526992	5526992	
450.228	0	5551588	5551588	
460.172	0	5575384	5575384	
470.117	0	5596344	5596344	
480.056	0	5623426	5623426	
490.547	0	5648550	5648550	
500.486	0	5673316	5673316	
510.425	0	5695050	5695050	
520.352	0	5717894	5717894	
530.277	0	5741128	5741128	
540.202	0	5763376	5763376	
550.127	0	5784412	5784412	
560.053	0	5803782	5803782	
570.529	0	5821864	5821864	
580.454	0	5839496	5839496	
590.379	0	5857518	5857518	
600.304	0	5875770	5875770	
610.229	0	5894788	5894788	
620.155	0	5911288	5911288	
630.08	0	5926742	5926742	
640.005	0	5943010	5943010	
650.481	0	5960058	5960058	
660.406	0	5977142	5977142	
670.331	0	5993282	5993282	
680.257	0	6007290	6007290	
690.182	0	6022814	6022814	
700.107	0	6038684	6038684	
710.032	0	6051448	6051448	
720.508	0	6064950	6064950	
730.433	0	6080314	6080314	
740.358	0	6095082	6095082	
750.284	0	6110132	6110132	
760.209	0	6127312	6127312	
770.134	0	6142156	6142156	
780.059	0	6158764	6158764	
790.535	0	6174994	6174994	
800.46	0	6189988	6189988	
810.385	0	6203904	6203904	
820.311	0	6217758	6217758	
830.236	0	6231580	6231580	
840.16	0	6244692	6244692	
850.079	0	6255912	6255912	
860.547	0	6270012	6270012	
870.464	0	6285588	6285588	
880.381	0	6301990	6301990	
890.296	0	6317432	6317432	
900.211	0	6333880	6333880	
910.125	0	6351492	6351492	
920.04	0	6368526	6368526	
930.506	0	6387324	6387324	
940.42	0	6406338	6406338	
950.334	0	6424934	6424934	
960.248	0	6443986	6443986	
970.162	0	6464046	6464046	
980.075	0	6486094	6486094	
990.54	0	6509120	6509120	
1000.45	0	6531580	6531580	
1010.37	0	6554218	6554218	
1020.28	0	6576344	6576344	
1030.19	0	6599736	6599736	
1040.11	0	6623586	6623586	
1050.02	0	6649244	6649244	
1060.49	0	6674580	6674580	
1070.4	0	6697920	6697920	
1080.31	0	6719408	6719408	
1090.22	0	6742318	6742318	
1100.11	0	6761488	6761488	
1110.55	0	6784082	6784082	
1120.44	0	6804038	6804038	
1130.32	0	6824116	6824116	
1140.21	0	6845424	6845424	
1150.1	0	6867878	6867878	
1160.54	0	6890426	6890426	
1170.43	0	6912414	6912414	
1180.31	0	6935096	6935096	
1190.2	0	6955876	6955876	
1200.09	0	6979098	6979098	
1210.53	0	7004030	7004030	
1220.42	0	7027264	7027264	
1230.3	0	7050786	7050786	
1240.19	0	7076686	7076686	
1250.08	0	7101600	7101600	
1260.52	0	7130198	7130198	
1270.41	0	7154760	7154760	
1280.29	0	7179722	7179722	
1290.18	0	7203148	7203148	
1300.07	0	7228532	7228532	
1310.51	0	7256022	7256022	
1320.4	0	7280792	7280792	
1330.28	0	7306948	7306948	
1340.17	0	7331952	7331952	
1350.06	0	7359380	7359380	
1360.5	0	7386728	7386728	
1370.39	0	7411150	7411150	
1380.27	0	7436124	7436124	
1390.16	0	7460810	7460810	
1400.05	0	7487946	7487946	
1410.49	0	7515330	7515330	
1420.38	0	7542302	7542302	
1430.26	0	7568468	7568468	
1440.15	0	7594686	7594686	
1450.04	0	7621692	7621692	
1460.48	0	7650620	7650620	
1470.37	0	7675922	7675922	
1480.25	0	7705266	7705266	
1490.14	0	7728582	7728582	
1500.03	0	7754258	7754258	
1510.47	0	7781318	7781318	
1520.36	0	7809920	7809920	
1530.24	0	7838132	7838132	
1540.13	0	7864772	7864772	
1550.02	0	7892616	7892616	
1560.46	0	7917784	7917784	
1570.35	0	7939398	7939398	
1580.23	0	7965110	7965110	
1590.12	0	7988198	7988198	
1600.01	0	8014976	8014976	
1610.45	0	8044026	8044026	
1620.34	0	8073892	8073892	
1630.22	0	8103868	8103868	
1640.11	0	8133742	8133742	
1650	0	8165148	8165148	
1660.44	0	8196378	8196378	
1670.33	0	8221064	8221064	
1680.21	0	8251760	8251760	
1690.1	0	8278976	8278976	
1700.54	0	8312086	8312086	
1710.43	0	8339718	8339718	
1720.32	0	8374102	8374102	
1730.2	0	8402982	8402982	
1740.09	0	8431426	8431426	
1750.39	0	8463808	8463808	
1760.01	0	8494506	8494506	
1770.14	0	8527280	8527280	
1780.25	0	8561004	8561004	
1790.37	0	8595528	8595528	
1800.49	0	8630816	8630816	
1810.07	0	8662862	8662862	
1820.18	0	8700930	8700930	
1830.25	0	8735988	8735988	
1840.31	0	8768642	8768642	
1850.36	0	8801112	8801112	
1860.42	0	8833888	8833888	
1870.47	0	8866542	8866542	
1880.52	0	8903442	8903442	
1890.05	0	8932872	8932872	
1900.1	0	8969922	8969922	
1910.15	0	9003458	9003458	
1920.21	0	9036024	9036024	
1930.26	0	9069952	9069952	
1940.31	0	9102632	9102632	
1950.36	0	9134450	9134450	
1960.42	0	9170806	9170806	
1970.47	0	9201020	9201020	
1980.52	0	9235564	9235564	
1990.05	0	9268268	9268268	
2000.1	0	9304960	9304960	
2010.15	0	9341422	9341422	
2020.21	0	9377164	9377164	
2030.26	0	9412554	9412554	
2040.31	0	9449486	9449486	
2050.37	0	9482598	9482598	
2060.39	0	9513074	9513074	
2070.3	0	9544420	9544420	
2080.18	0	9575096	9575096	
2090.03	0	9606130	9606130	
2100.33	0	9636302	9636302	
2110.11	0	9665602	9665602	
2120.41	0	9699010	9699010	
2130.18	0	9728652	9728652	
2140.47	0	9762944	9762944	
2150.25	0	9793424	9793424	
2160.03	0	9824800	9824800	
2170.32	0	9858092	9858092	
2180.1	0	9887466	9887466	
2190.39	0	9915498	9915498	
2200.16	0	9943884	9943884	
2210.46	0	9974500	9974500	
2220.23	0	10003080	10003080	
2230.01	0	10032250	10032250	
2240.3	0	10061008	10061008	
2250.08	0	10092046	10092046	
2260.37	0	10135222	10135222	
2270.15	0	10160532	10160532	
2280.44	0	10196102	10196102	
2290.21	0	10235618	10235618	
2300.51	0	10273104	10273104	
2310.28	0	10315202	10315202	
2320.06	0	10354260	10354260	
2330.35	0	10401652	10401652	
2340.13	0	10440016	10440016	
2350.42	0	10478346	10478346	
2360.2	0	10518664	10518664	
2370.48	0	10555734	10555734	
2380.24	0	10590594	10590594	
2390.49	0	10627500	10627500	
2400.24	0	10659248	10659248	
2410.5	0	10695072	10695072	
2420.24	0	10730614	10730614	
2430.5	0	10766640	10766640	
2440.24	0	10801982	10801982	
2450.49	0	10842586	10842586	
2460.21	0	10882188	10882188	
2470.44	0	10920110	10920110	
2480.15	0	10958532	10958532	
2490.38	0	11000532	11000532	
2500.09	0	11038814	11038814	
2510.32	0	11083312	11083312	
2520.04	0	11117412	11117412	
2530.26	0	11152866	11152866	
2540.49	0	11193820	11193820	
2550.19	0	11223414	11223414	
2560.4	0	11259226	11259226	
2570.1	0	11302084	11302084	
2580.3	0	11342646	11342646	
2590	0	11382854	11382854	
2600.21	0	11425806	11425806	
2610.41	0	11470652	11470652	
2620.11	0	11509276	11509276	
2630.32	0	11554386	11554386	
2640.01	0	11593746	11593746	
2650.22	0	11629626	11629626	
2660.43	0	11681850	11681850	
2670.12	0	11718198	11718198	
2680.33	0	11755594	11755594	
2690.03	0	11796558	11796558	
2700.23	0	11833764	11833764	
2710.44	0	11866620	11866620	
2720.14	0	11907442	11907442	
2730.34	0	11947358	11947358	
2740.04	0	11980904	11980904	
2750.25	0	12019078	12019078	
2760.45	0	12057188	12057188	
2770.15	0	12092186	12092186	
2780.36	0	12129402	12129402	
2790.05	0	12168954	12168954	
2800.26	0	12210864	12210864	
2810.47	0	12244692	12244692	
2820.16	0	12284618	12284618	
2830.37	0	12330458	12330458	
2840.07	0	12368748	12368748	
2850.27	0	12416288	12416288	
2860.48	0	12463346	12463346	
2870.18	0	12508808	12508808	
2880.38	0	12556932	12556932	
2890.08	0	12596388	12596388	
2900.29	0	12642460	12642460	
2910.46	0	12687874	12687874	
2920.09	0	12731700	12731700	
2930.23	0	12775100	12775100	
2940.37	0	12819732	12819732	
2950.01	0	12867362	12867362	
2960.15	0	12914474	12914474	
2970.29	0	12968054	12968054	
2980.43	0	13016754	13016754	
2990.06	0	13063636	13063636	
3000.2	0	13116744	13116744	
3010.34	0	13165802	13165802	
3020.49	0	13214244	13214244	
3030.12	0	13258982	13258982	
3040.26	0	13305512	13305512	
3050.4	0	13344856	13344856	
3060.04	0	13390726	13390726	
3070.18	0	13431062	13431062	
3080.32	0	13476976	13476976	
3090.46	0	13521126	13521126	
3100.09	0	13564084	13564084	
3110.23	0	13604662	13604662	
3120.37	0	13646372	13646372	
3130.01	0	13683916	13683916	
3140.15	0	13724734	13724734	
3150.29	0	13768306	13768306	
3160.43	0	13812626	13812626	
3170.07	0	13859394	13859394	
3180.21	0	13903898	13903898	
3190.35	0	13949142	13949142	
3200.49	0	13990762	13990762	
3210.12	0	14036426	14036426	
3220.26	0	14080924	14080924	
3230.4	0	14121608	14121608	
3240.04	0	14166016	14166016	
3250.18	0	14213798	14213798	
3260.32	0	14258890	14258890	
3270.46	0	14311090	14311090	
3280.1	0	14356650	14356650	
3290.24	0	14410316	14410316	
3300.38	0	14461844	14461844	
3310.01	0	14512978	14512978	
3320.15	0	14565468	14565468	
3330.29	0	14618600	14618600	
3340.44	0	14671022	14671022	
3350.07	0	14721770	14721770	
3360.21	0	14771124	14771124	
3370.35	0	14823298	14823298	
3380.49	0	14872576	14872576	
3390.13	0	14915578	14915578	
3400.27	0	14965482	14965482	
3410.41	0	15012292	15012292	
3420.04	0	15053904	15053904	
3430.18	0	15096382	15096382	
3440.32	0	15142080	15142080	
3450.47	0	15186430	15186430	
3460.1	0	15230576	15230576	
3470.27	0	15277900	15277900	
3480.46	0	15323236	15323236	
3490.16	0	15361270	15361270	
3500.38	0	15410406	15410406	
3510.07	0	15457144	15457144	
3520.28	0	15503838	15503838	
3530.49	0	15555326	15555326	
3540.18	0	15603278	15603278	
3550.39	0	15663010	15663010	
3560.09	0	15714774	15714774	
3570.29	0	15766930	15766930	
3580.5	0	15817790	15817790	
3590.19	0	15865102	15865102	
3600.4	0	15917298	15917298	
3610.09	0	15969628	15969628	
3620.3	0	16021098	16021098	
3630.49	0	16074674	16074674	
3640.18	0	16125698	16125698	
3650.37	0	16179558	16179558	
3660.01	0	16230676	16230676	
3670.16	0	16285270	16285270	
3680.33	0	16340978	16340978	
3690.46	0	16394642	16394642	
3700.07	0	16447034	16447034	
3710.2	0	16496628	16496628	
3720.32	0	16550384	16550384	
3730.45	0	16599944	16599944	
3740.05	0	16650352	16650352	
3750.17	0	16702094	16702094	
3760.29	0	16751078	16751078	
3770.41	0	16803238	16803238	
3780.01	0	16852360	16852360	
3790.13	0	16899686	16899686	
3800.26	0	16946508	16946508	
3810.41	0	16995616	16995616	
3820.04	0	17039516	17039516	
3830.16	0	17087464	17087464	
3840.29	0	17137060	17137060	
3850.48	0	17188712	17188712	
3860.17	0	17233012	17233012	
3870.36	0	17277950	17277950	
3880.05	0	17321102	17321102	
3890.25	0	17369820	17369820	
3900.44	0	17414010	17414010	
3910.13	0	17453522	17453522	
3920.33	0	17501962	17501962	
3930.5	0	17546994	17546994	
3940.13	0	17598640	17598640	
3950.26	0	17656934	17656934	
3960.36	0	17709858	17709858	
3970.45	0	17769362	17769362	
3980.05	0	17825548	17825548	
3990.14	0	17886692	17886692	
4000.24	0	17942334	17942334	
4010.31	0	18005018	18005018	
4020.37	0	18063296	18063296	
4030.43	0	18122762	18122762	
4040.49	0	18181502	18181502	
4050.05	0	18236914	18236914	
4060.11	0	18298104	18298104	
4070.17	0	18351762	18351762	
4080.23	0	18409258	18409258	
4090.29	0	18465974	18465974	
4100.35	0	18520070	18520070	
4110.41	0	18575804	18575804	
4120.47	0	18629302	18629302	
4130.03	0	18679728	18679728	
4140.09	0	18735978	18735978	
4150.15	0	18791212	18791212	
4160.21	0	18841802	18841802	
4170.26	0	18896270	18896270	
4180.32	0	18948558	18948558	
4190.38	0	19002454	19002454	
4200.43	0	19055828	19055828	
4210.49	0	19105866	19105866	
4220.04	0	19151896	19151896	
4230.1	0	19201594	19201594	
4240.16	0	19250992	19250992	
4250.21	0	19305878	19305878	
4260.27	0	19358912	19358912	
4270.33	0	19410122	19410122	
4280.38	0	19459004	19459004	
4290.44	0	19502416	19502416	
4300.5	0	19550302	19550302	
4310.05	0	19601078	19601078	
4320.11	0	19650682	19650682	
4330.16	0	19700742	19700742	
4340.22	0	19753868	19753868	
4350.28	0	19806892	19806892	
4360.33	0	19863750	19863750	
4370.39	0	19916632	19916632	
4380.44	0	19977136	19977136	
4390.5	0	20030756	20030756	
4400.05	0	20089334	20089334	
4410.11	0	20147462	20147462	
4420.17	0	20214950	20214950	
4430.22	0	20282596	20282596	
4440.28	0	20353052	20353052	
4450.34	0	20420452	20420452	
4460.39	0	20483806	20483806	
4470.45	0	20549992	20549992	
4480	0	20607298	20607298	
4490.06	0	20668630	20668630	
4500.12	0	20726634	20726634	
4510.17	0	20781492	20781492	
4520.23	0	20839506	20839506	
4530.28	0	20896880	20896880	
4540.34	0	20955026	20955026	
4550.4	0	21012144	21012144	
4560.45	0	21070064	21070064	
4570.01	0	21119642	21119642	
4580.06	0	21175486	21175486	
4590.12	0	21228858	21228858	
4600.18	0	21283938	21283938	
4610.23	0	21339762	21339762	
4620.29	0	21394018	21394018	
4630.35	0	21449920	21449920	
4640.4	0	21502700	21502700	
4650.46	0	21553678	21553678	
4660.01	0	21605478	21605478	
4670.07	0	21661064	21661064	
4680.12	0	21712328	21712328	
4690.18	0	21766188	21766188	
4700.24	0	21821300	21821300	
4710.29	0	21872392	21872392	
4720.35	0	21928528	21928528	
4730.4	0	21983706	21983706	
4740.42	0	22037442	22037442	
4750.41	0	22105544	22105544	
4760.4	0	22163812	22163812	
4770.39	0	22228140	22228140	
4780.39	0	22289644	22289644	
4790.38	0	22350590	22350590	
4800.37	0	22419076	22419076	
4810.36	0	22481854	22481854	
4820.35	0	22548468	22548468	
4830.35	0	22613062	22613062	
4840.34	0	22675036	22675036	
4850.33	0	22731428	22731428	
4860.32	0	22790392	22790392	
4870.31	0	22851808	22851808	
4880.3	0	22915926	22915926	
4890.3	0	22980182	22980182	
4900.29	0	23045952	23045952	
4910.28	0	23101028	23101028	
4920.26	0	23155624	23155624	
4930.12	0	23210618	23210618	
4940.05	0	23268648	23268648	
4950.43	0	23330810	23330810	
4960.33	0	23389416	23389416	
4970.2	0	23442548	23442548	
4980.08	0	23496056	23496056	
4990.47	0	23554336	23554336	
5000.37	0	23613712	23613712	
5010.24	0	23663576	23663576	
5020.12	0	23720870	23720870	
5030.02	0	23774240	23774240	
5040.39	0	23828614	23828614	
5050.32	0	23895534	23895534	
5060.3	0	23953978	23953978	
5070.28	0	24022812	24022812	
5080.25	0	24088630	24088630	
5090.18	0	24156120	24156120	
5100.14	0	24217418	24217418	
5110.1	0	24281068	24281068	
5120.07	0	24349848	24349848	
5130.05	0	24412184	24412184	
5140.03	0	24486898	24486898	
5150.47	0	24560820	24560820	
5160.44	0	24627772	24627772	
5170.42	0	24700758	24700758	
5180.38	0	24769882	24769882	
5190.35	0	24836928	24836928	
5200.29	0	24901096	24901096	
5210.21	0	24963900	24963900	
5220.12	0	25032178	25032178	
5230.04	0	25098850	25098850	
5240.42	0	25169094	25169094	
5250.29	0	25235602	25235602	
5260.13	0	25299256	25299256	
5270.46	0	25368036	25368036	
5280.3	0	25429836	25429836	
5290.14	0	25489258	25489258	
5300.47	0	25555460	25555460	
5310.32	0	25606638	25606638	
5320.16	0	25661930	25661930	
5330.49	0	25731534	25731534	
5340.33	0	25781784	25781784	
5350.17	0	25844080	25844080	
5360.01	0	25900850	25900850	
5370.34	0	25968354	25968354	
5380.18	0	26029382	26029382	
5390.02	0	26090980	26090980	
5400.35	0	26160318	26160318	
5410.19	0	26226980	26226980	
5420.03	0	26296444	26296444	
5430.36	0	26366886	26366886	
5440.19	0	26440610	26440610	
5450.03	0	26511126	26511126	
5460.36	0	26584872	26584872	
5470.19	0	26650392	26650392	
5480.03	0	26714140	26714140	
5490.36	0	26785838	26785838	
5500.19	0	26853414	26853414	
5510.03	0	26927128	26927128	
5520.36	0	26999990	26999990	
5530.19	0	27070254	27070254	
5540.03	0	27134912	27134912	
5550.35	0	27205500	27205500	
5560.19	0	27273940	27273940	
5570.03	0	27340236	27340236	
5580.35	0	27410902	27410902	
5590.19	0	27472258	27472258	
5600.02	0	27531776	27531776	
5610.35	0	27599092	27599092	
5620.19	0	27667924	27667924	
5630.02	0	27728316	27728316	
5640.35	0	27794402	27794402	
5650.19	0	27864586	27864586	
5660.02	0	27923196	27923196	
5670.35	0	27991808	27991808	
5680.18	0	28050990	28050990	
5690.02	0	28110874	28110874	
5700.35	0	28178286	28178286	
5710.18	0	28238044	28238044	
5720.02	0	28301792	28301792	
5730.35	0	28364496	28364496	
5740.18	0	28429118	28429118	
5750.02	0	28488892	28488892	
5760.34	0	28548638	28548638	
5770.18	0	28606070	28606070	
5780.02	0	28670420	28670420	
5790.34	0	28733894	28733894	
5800.18	0	28787880	28787880	
5810.01	0	28840960	28840960	
5820.34	0	28893752	28893752	
5830.18	0	28958612	28958612	
5840.01	0	29016606	29016606	
5850.34	0	29086040	29086040	
5860.17	0	29140862	29140862	
5870.01	0	29207522	29207522	
5880.34	0	29281036	29281036	
5890.17	0	29342666	29342666	
5900.01	0	29410692	29410692	
5910.34	0	29479688	29479688	
5920.17	0	29554496	29554496	
5930.01	0	29620432	29620432	
5940.33	0	29702984	29702984	
5950.17	0	29789774	29789774	
5960.01	0	29870826	29870826	
5970.33	0	29961610	29961610	
5980.17	0	30053858	30053858	
5990	0	30135632	30135632	
6000.33	0	30224700	30224700	
6010.17	0	30303798	30303798	
6020	0	30380530	30380530	
6030.33	0	30461080	30461080	
6040.16	0	30537962	30537962	
6050	0	30613920	30613920	
6060.33	0	30694116	30694116	
6070.16	0	30773016	30773016	
6080.49	0	30846230	30846230	
6090.33	0	30917562	30917562	
6100.16	0	30989658	30989658	
6110.49	0	31056952	31056952	
6120.32	0	31112514	31112514	
6130.16	0	31187510	31187510	
6140.49	0	31253442	31253442	
6150.32	0	31315894	31315894	
6160.16	0	31388254	31388254	
6170.48	0	31458788	31458788	
6180.32	0	31523684	31523684	
6190.16	0	31593536	31593536	
6200.48	0	31666582	31666582	
6210.32	0	31735592	31735592	
6220.15	0	31807758	31807758	
6230.48	0	31880374	31880374	
6240.32	0	31945992	31945992	
6250.15	0	32011700	32011700	
6260.48	0	32081136	32081136	
6270.31	0	32150984	32150984	
6280.15	0	32221632	32221632	
6290.48	0	32287662	32287662	
6300.31	0	32356238	32356238	
6310.15	0	32421168	32421168	
6320.47	0	32510830	32510830	
6330.31	0	32586228	32586228	
6340.15	0	32672936	32672936	
6350.47	0	32760584	32760584	
6360.31	0	32843886	32843886	
6370.14	0	32937208	32937208	
6380.47	0	33032676	33032676	
6390.31	0	33116670	33116670	
6400.14	0	33210540	33210540	
6410.47	0	33295998	33295998	
6420.3	0	33375740	33375740	
6430.14	0	33452560	33452560	
6440.47	0	33539248	33539248	
6450.3	0	33616704	33616704	
6460.14	0	33686636	33686636	
6470.46	0	33766162	33766162	
6480.3	0	33841854	33841854	
6490.13	0	33918616	33918616	
6500.46	0	33989702	33989702	
6510.3	0	34066646	34066646	
6520.13	0	34135052	34135052	
6530.46	0	34210518	34210518	
6540.29	0	34274922	34274922	
6550.13	0	34337496	34337496	
6560.46	0	34400052	34400052	
6570.29	0	34467732	34467732	
6580.13	0	34527068	34527068	
6590.45	0	34596438	34596438	
6600.29	0	34665256	34665256	
6610.13	0	34741782	34741782	
6620.45	0	34830060	34830060	
6630.29	0	34902282	34902282	
6640.12	0	34981354	34981354	
6650.45	0	35066238	35066238	
6660.29	0	35132094	35132094	
6670.12	0	35213764	35213764	
6680.45	0	35279470	35279470	
6690.28	0	35350364	35350364	
6700.12	0	35428500	35428500	
6710.45	0	35504246	35504246	
6720.28	0	35572474	35572474	
6730.12	0	35650900	35650900	
6740.44	0	35734392	35734392	
6750.28	0	35814206	35814206	
6760.11	0	35902862	35902862	
6770.44	0	35987048	35987048	
6780.28	0	36066218	36066218	
6790.11	0	36145976	36145976	
6800.44	0	36223766	36223766	
6810.27	0	36301140	36301140	
6820.11	0	36373778	36373778	
6830.44	0	36441586	36441586	
6840.27	0	36513854	36513854	
6850.11	0	36591246	36591246	
6860.43	0	36673616	36673616	
6870.27	0	36752792	36752792	
6880.1	0	36842728	36842728	
6890.43	0	36920666	36920666	
6900.27	0	37009612	37009612	
6910.1	0	37089054	37089054	
6920.43	0	37178198	37178198	
6930.26	0	37260576	37260576	
6940.1	0	37342186	37342186	
6950.43	0	37432164	37432164	
6960.26	0	37519058	37519058	
6970.1	0	37600450	37600450	
6980.42	0	37688220	37688220	
6990.26	0	37763832	37763832	
7000.09	0	37843278	37843278	
7010.42	0	37922206	37922206	
7020.26	0	37979190	37979190	
7030.09	0	38036758	38036758	
7040.42	0	38091914	38091914	
7050.25	0	38134148	38134148	
7060.09	0	38185572	38185572	
7070.42	0	38233114	38233114	
7080.25	0	38270308	38270308	
7090.09	0	38327918	38327918	
7100.41	0	38386346	38386346	
7110.25	0	38470416	38470416	
7120.08	0	38542374	38542374	
7130.41	0	38626974	38626974	
7140.25	0	38692938	38692938	
7150.08	0	38762950	38762950	
7160.41	0	38846590	38846590	
7170.24	0	38918024	38918024	
7180.08	0	38989630	38989630	
7190.41	0	39075690	39075690	
7200.24	0	39169266	39169266	
7210.08	0	39262252	39262252	
7220.4	0	39357906	39357906	
7230.24	0	39444404	39444404	
7240.07	0	39538950	39538950	
7250.4	0	39620236	39620236	
7260.24	0	39706372	39706372	
7270.07	0	39794842	39794842	
7280.4	0	39888096	39888096	
7290.24	0	39974666	39974666	
7300.07	0	40064624	40064624	
7310.4	0	40157942	40157942	
7320.23	0	40246394	40246394	
7330.07	0	40328670	40328670	
7340.4	0	40421332	40421332	
7350.23	0	40495830	40495830	
7360.07	0	40565598	40565598	
7370.39	0	40635164	40635164	
7380.23	0	40697770	40697770	
7390.06	0	40755746	40755746	
7400.39	0	40803540	40803540	
7410.23	0	40859050	40859050	
7420.06	0	40913838	40913838	
7430.39	0	40966762	40966762	
7440.22	0	41029906	41029906	
7450.06	0	41086548	41086548	
7460.39	0	41152384	41152384	
7470.22	0	41212290	41212290	
7480.06	0	41287818	41287818	
7490.38	0	41356552	41356552	
7500.22	0	41427398	41427398	
7510.06	0	41499466	41499466	
7520.38	0	41589214	41589214	
7530.22	0	41660308	41660308	
7540.05	0	41759212	41759212	
7550.38	0	41851068	41851068	
7560.22	0	41957400	41957400	
7570.05	0	42063320	42063320	
7580.38	0	42159092	42159092	
7590.21	0	42255502	42255502	
7600.05	0	42333314	42333314	
7610.38	0	42422506	42422506	
7620.21	0	42495960	42495960	
7630.05	0	42584936	42584936	
7640.38	0	42670116	42670116	
7650.21	0	42743892	42743892	
7660.05	0	42831830	42831830	
7670.37	0	42913304	42913304	
7680.21	0	43003936	43003936	
7690.04	0	43090500	43090500	
7700.37	0	43191006	43191006	
7710.21	0	43286636	43286636	
7720.04	0	43386042	43386042	
7730.37	0	43481770	43481770	
7740.21	0	43574368	43574368	
7750.04	0	43667394	43667394	
7760.37	0	43768360	43768360	
7770.2	0	43861706	43861706	
7780.04	0	43959238	43959238	
7790.37	0	44045684	44045684	
7800.2	0	44140712	44140712	
7810.04	0	44217552	44217552	
7820.37	0	44315732	44315732	
7830.2	0	44389910	44389910	
7840.04	0	44470586	44470586	
7850.36	0	44539402	44539402	
7860.2	0	44609482	44609482	
7870.04	0	44672828	44672828	
7880.36	0	44749214	44749214	
7890.2	0	44825846	44825846	
7900.03	0	44912974	44912974	
7910.36	0	44984984	44984984	
7920.2	0	45062074	45062074	
7930.03	0	45132068	45132068	
7940.36	0	45219024	45219024	
7950.2	0	45296924	45296924	
7960.03	0	45379168	45379168	
7970.36	0	45472888	45472888	
7980.19	0	45550816	45550816	
7990.03	0	45637616	45637616	
8000.36	0	45724200	45724200	
8010.19	0	45819390	45819390	
8020.03	0	45902820	45902820	
8030.36	0	45981306	45981306	
8040.19	0	46083386	46083386	
8050.03	0	46171468	46171468	
8060.36	0	46263786	46263786	
8070.19	0	46350948	46350948	
8080.03	0	46453088	46453088	
8090.35	0	46542594	46542594	
8100.19	0	46632978	46632978	
8110.03	0	46717016	46717016	
8120.35	0	46809750	46809750	
8130.19	0	46881306	46881306	
8140.02	0	46960202	46960202	
8150.35	0	47037844	47037844	
8160.19	0	47104524	47104524	
8170.02	0	47188136	47188136	
8180.35	0	47259460	47259460	
8190.19	0	47334518	47334518	
8200.02	0	47410818	47410818	
8210.35	0	47488324	47488324	
8220.18	0	47566762	47566762	
8230.02	0	47649520	47649520	
8240.35	0	47740860	47740860	
8250.18	0	47820592	47820592	
8260.02	0	47915884	47915884	
8270.35	0	48026900	48026900	
8280.18	0	48108506	48108506	
8290.02	0	48211682	48211682	
8300.34	0	48311558	48311558	
8310.18	0	48403818	48403818	
8320.02	0	48488380	48488380	
8330.34	0	48577208	48577208	
8340.18	0	48657480	48657480	
8350.01	0	48743376	48743376	
8360.34	0	48822670	48822670	
8370.18	0	48885990	48885990	
8380.01	0	48951416	48951416	
8390.34	0	49011604	49011604	
8400.18	0	49070516	49070516	
8410.01	0	49122556	49122556	
8420.34	0	49178230	49178230	
8430.17	0	49235130	49235130	
8440.01	0	49287892	49287892	
8450.34	0	49360202	49360202	
8460.17	0	49425058	49425058	
8470.01	0	49499356	49499356	
8480.34	0	49585762	49585762	
8490.17	0	49658068	49658068	
8500.01	0	49744784	49744784	
8510.33	0	49828194	49828194	
8520.17	0	49916008	49916008	
8530.01	0	49999140	49999140	
8540.33	0	50090804	50090804	
8550.17	0	50189474	50189474	
8560	0	50290606	50290606	
8570.33	0	50386898	50386898	
8580.17	0	50471094	50471094	
8590	0	50573400	50573400	
8600.33	0	50662594	50662594	
8610.17	0	50757202	50757202	
8620	0	50853314	50853314	
8630.33	0	50953588	50953588	
8640.16	0	51050988	51050988	
8650	0	51129978	51129978	
8660.33	0	51215182	51215182	
8670.16	0	51296630	51296630	
8680.49	0	51369100	51369100	
8690.33	0	51437034	51437034	
8700.16	0	51521870	51521870	
8710.49	0	51601420	51601420	
8720.32	0	51695626	51695626	
8730.16	0	51770308	51770308	
8740.49	0	51858952	51858952	
8750.32	0	51936994	51936994	
8760.16	0	52029658	52029658	
8770.49	0	52116080	52116080	
8780.32	0	52198830	52198830	
8790.16	0	52279220	52279220	
8800.48	0	52357436	52357436	
8810.32	0	52437652	52437652	
8820.16	0	52520776	52520776	
8830.48	0	52621466	52621466	
8840.32	0	52710580	52710580	
8850.15	0	52813368	52813368	
8860.48	0	52908322	52908322	
8870.32	0	53022634	53022634	
8880.15	0	53130460	53130460	
8890.48	0	53234266	53234266	
8900.32	0	53337128	53337128	
8910.15	0	53427380	53427380	
8920.48	0	53525894	53525894	
8930.32	0	53616038	53616038	
8940.15	0	53708424	53708424	
8950.48	0	53800806	53800806	
8960.31	0	53899748	53899748	
8970.15	0	53989964	53989964	
8980.48	0	54080420	54080420	
8990.31	0	54164156	54164156	
9000.15	0	54254976	54254976	
9010.48	0	54323968	54323968	
9020.31	0	54410284	54410284	
9030.15	0	54497500	54497500	
9040.47	0	54588088	54588088	
9050.31	0	54674234	54674234	
9060.14	0	54757134	54757134	
9070.47	0	54848492	54848492	
9080.31	0	54930968	54930968	
9090.14	0	55002712	55002712	
9100.47	0	55094898	55094898	
9110.31	0	55177566	55177566	
9120.14	0	55257894	55257894	
9130.47	0	55328688	55328688	
9140.3	0	55396570	55396570	
9150.14	0	55459262	55459262	
9160.47	0	55531218	55531218	
9170.3	0	55600660	55600660	
9180.14	0	55650930	55650930	
9190.47	0	55710688	55710688	
9200.3	0	55769226	55769226	
9210.14	0	55832204	55832204	
9220.47	0	55887680	55887680	
9230.3	0	55957640	55957640	
9240.14	0	56040138	56040138	
9250.46	0	56110534	56110534	
9260.3	0	56186200	56186200	
9270.13	0	56269270	56269270	
9280.46	0	56346590	56346590	
9290.3	0	56426208	56426208	
9300.13	0	56509260	56509260	
9310.46	0	56591478	56591478	
9320.3	0	56676078	56676078	
9330.13	0	56769070	56769070	
9340.46	0	56852602	56852602	
9350.3	0	56953754	56953754	
9360.13	0	57031384	57031384	
9370.46	0	57127462	57127462	
9380.29	0	57205932	57205932	
9390.13	0	57303290	57303290	
9400.46	0	57384910	57384910	
9410.29	0	57471728	57471728	
9420.13	0	57561476	57561476	
9430.46	0	57649640	57649640	
9440.29	0	57730338	57730338	
9450.13	0	57825376	57825376	
9460.45	0	57925128	57925128	
9470.29	0	58017654	58017654	
9480.13	0	58109434	58109434	
9490.45	0	58223170	58223170	
9500.29	0	58320668	58320668	
9510.12	0	58421486	58421486	
9520.45	0	58532534	58532534	
9530.29	0	58633992	58633992	
9540.12	0	58729284	58729284	
9550.45	0	58832194	58832194	
9560.29	0	58935314	58935314	
9570.12	0	59028864	59028864	
9580.45	0	59145860	59145860	
9590.28	0	59244486	59244486	
9600.12	0	59341516	59341516	
9610.45	0	59450758	59450758	
9620.28	0	59558888	59558888	
9630.12	0	59644554	59644554	
9640.45	0	59749578	59749578	
9650.28	0	59838340	59838340	
9660.12	0	59926388	59926388	
9670.44	0	60022984	60022984	
9680.28	0	60112246	60112246	
9690.12	0	60201236	60201236	
9700.44	0	60296718	60296718	
9710.28	0	60378534	60378534	
9720.11	0	60463608	60463608	
9730.44	0	60554356	60554356	
9740.28	0	60626062	60626062	
9750.11	0	60706432	60706432	
9760.44	0	60790740	60790740	
9770.28	0	60869992	60869992	
9780.11	0	60960210	60960210	
9790.44	0	61063282	61063282	
9800.27	0	61129850	61129850	
9810.11	0	61203970	61203970	
9820.44	0	61296896	61296896	
9830.27	0	61379668	61379668	
9840.11	0	61440496	61440496	
9850.44	0	61505690	61505690	
9860.27	0	61591472	61591472	
9870.11	0	61660720	61660720	
9880.44	0	61733382	61733382	
9890.27	0	61808362	61808362	
9900.11	0	61892154	61892154	
9910.43	0	61995960	61995960	
9920.27	0	62099226	62099226	
9930.11	0	62189256	62189256	
9940.43	0	62283522	62283522	
9950.27	0	62386802	62386802	
9960.1	0	62483940	62483940	
9970.43	0	62577990	62577990	
9980.27	0	62662896	62662896	
9990.1	0	62759782	62759782	
10000.4	0	62846700	62846700	
10010.3	0	62954140	62954140	
10020.1	0	63039100	63039100	
10030.4	0	63162764	63162764	
10040.3	0	63264932	63264932	
10050.1	0	63364792	63364792	
10060.4	0	63469558	63469558	
10070.3	0	63561154	63561154	
10080.1	0	63634560	63634560	
10090.4	0	63708782	63708782	
10100.3	0	63770852	63770852	
10110.1	0	63847948	63847948	
10120.4	0	63913980	63913980	
10130.3	0	63958832	63958832	
10140.1	0	64031074	64031074	
10150.4	0	64106238	64106238	
10160.3	0	64170238	64170238	
10170.1	0	64236326	64236326	
10180.4	0	64316666	64316666	
10190.3	0	64394402	64394402	
10200.1	0	64475236	64475236	
10210.4	0	64576806	64576806	
10220.3	0	64668614	64668614	
10230.1	0	64766444	64766444	
10240.4	0	64873484	64873484	
10250.3	0	64971814	64971814	
10260.1	0	65046296	65046296	
10270.4	0	65147146	65147146	
10280.3	0	65216130	65216130	
10290.1	0	65298630	65298630	
10300.4	0	65372316	65372316	
10310.3	0	65453370	65453370	
10320.1	0	65537240	65537240	
10330.4	0	65612134	65612134	
10340.3	0	65706394	65706394	
10350.1	0	65788486	65788486	
10360.4	0	65870854	65870854	
10370.3	0	65958970	65958970	
10380.1	0	66047294	66047294	
10390.4	0	66138324	66138324	
10400.2	0	66221538	66221538	
10410.1	0	66302468	66302468	
10420.4	0	66383250	66383250	
10430.2	0	66459870	66459870	
10440.1	0	66538124	66538124	
10450.4	0	66613614	66613614	
10460.3	0	66725754	66725754	
10470.1	0	66806600	66806600	
10480.5	0	66909698	66909698	
10490.3	0	67013626	67013626	
10500.1	0	67117950	67117950	
10510.5	0	67223988	67223988	
10520.3	0	67320922	67320922	
10530.1	0	67416282	67416282	
10540.5	0	67503892	67503892	
10550.3	0	67599584	67599584	
10560.2	0	67700852	67700852	
10570.5	0	67821412	67821412	
10580.3	0	67931460	67931460	
10590.2	0	68044582	68044582	
10600	0	68142496	68142496	
10610.3	0	68266900	68266900	
10620.2	0	68382616	68382616	
10630	0	68483468	68483468	
10640.4	0	68596014	68596014	
10650.2	0	68702308	68702308	
10660	0	68795010	68795010	
10670.4	0	68898486	68898486	
10680.2	0	68997236	68997236	
10690	0	69099380	69099380	
10700.4	0	69203712	69203712	
10710.2	0	69323366	69323366	
10720.1	0	69439098	69439098	
10730.4	0	69545872	69545872	
10740.2	0	69661632	69661632	
10750	0	69759632	69759632	
10760.4	0	69856730	69856730	
10770.2	0	69914692	69914692	
10780	0	70008732	70008732	
10790.4	0	70051554	70051554	
10800.2	0	70128870	70128870	
10810	0	70193552	70193552	
10820.4	0	70275888	70275888	
10830.2	0	70347832	70347832	
10840	0	70402404	70402404	
10850.4	0	70485932	70485932	
10860.2	0	70558778	70558778	
10870	0	70630084	70630084	
10880.4	0	70699004	70699004	
10890.2	0	70761206	70761206	
10900	0	70838636	70838636	
10910.4	0	70923212	70923212	
10920.2	0	71061092	71061092	
10930	0	71155526	71155526	
10940.4	0	71276336	71276336	
10950.2	0	71379924	71379924	
10960	0	71492030	71492030	
10970.4	0	71617494	71617494	
10980.2	0	71730662	71730662	
10990	0	71852298	71852298	
11000.4	0	71954938	71954938	
11010.2	0	72068158	72068158	
11020	0	72142440	72142440	
11030.4	0	72230990	72230990	
11040.2	0	72322002	72322002	
11050	0	72416818	72416818	
11060.4	0	72509626	72509626	
11070.2	0	72586416	72586416	
11080	0	72681730	72681730	
11090.4	0	72804702	72804702	
11100.2	0	72897752	72897752	
11110	0	72980844	72980844	
11120.4	0	73085114	73085114	
11130.2	0	73167170	73167170	
11140	0	73243384	73243384	
11150.4	0	73360414	73360414	
11160.2	0	73450316	73450316	
11170	0	73545146	73545146	
11180.4	0	73647768	73647768	
11190.2	0	73749512	73749512	
11200	0	73845130	73845130	
11210.4	0	73941148	73941148	
11220.2	0	74045238	74045238	
11230	0	74142820	74142820	
11240.4	0	74217122	74217122	
11250.2	0	74343958	74343958	
11260	0	74435390	74435390	
11270.4	0	74535182	74535182	
11280.2	0	74629480	74629480	
11290	0	74730852	74730852	
11300.4	0	74835868	74835868	
11310.2	0	74940262	74940262	
11320	0	75043934	75043934	
11330.4	0	75164164	75164164	
11340.2	0	75276248	75276248	
11350	0	75384306	75384306	
11360.4	0	75504152	75504152	
11370.2	0	75604314	75604314	
11380	0	75719884	75719884	
11390.3	0	75830544	75830544	
11400.2	0	75934966	75934966	
11410	0	76061784	76061784	
11420.4	0	76143988	76143988	
11430.2	0	76219716	76219716	
11440	0	76314012	76314012	
11450.4	0	76395672	76395672	
11460.2	0	76492546	76492546	
11470	0	76567418	76567418	
11480.4	0	76656118	76656118	
11490.2	0	76755464	76755464	
11500	0	76846006	76846006	
11510.4	0	76913064	76913064	
11520.2	0	76993882	76993882	
11530	0	77073996	77073996	
11540.4	0	77148720	77148720	
11550.2	0	77236186	77236186	
11560	0	77309340	77309340	
11570.4	0	77371038	77371038	
11580.2	0	77453898	77453898	
11590	0	77523380	77523380	
11600.4	0	77617002	77617002	
11610.2	0	77707772	77707772	
11620	0	77800856	77800856	
11630.4	0	77903632	77903632	
11640.2	0	77995638	77995638	
11650	0	78111806	78111806	
11660.4	0	78236130	78236130	
11670.2	0	78323904	78323904	
11680	0	78435076	78435076	
11690.4	0	78541996	78541996	
11700.2	0	78645704	78645704	
11710	0	78742496	78742496	
11720.4	0	78854610	78854610	
11730.2	0	78939392	78939392	
11740	0	79021574	79021574	
11750.4	0	79112594	79112594	
11760.2	0	79182332	79182332	
11770	0	79268886	79268886	
11780.3	0	79362510	79362510	
11790.2	0	79447554	79447554	
11800	0	79537050	79537050	
11810.3	0	79648074	79648074	
11820.2	0	79719776	79719776	
11830	0	79800402	79800402	
11840.3	0	79904314	79904314	
11850.2	0	79989896	79989896	
11860	0	80098230	80098230	
11870.3	0	80179142	80179142	
11880.2	0	80270758	80270758	
11890	0	80372646	80372646	
11900.3	0	80458646	80458646	
11910.2	0	80545184	80545184	
11920	0	80616950	80616950	
11930.3	0	80701660	80701660	
11940.2	0	80778122	80778122	
11950	0	80857164	80857164	
11960.3	0	80921712	80921712	
11970.2	0	80986202	80986202	
11980	0	81062312	81062312	
11990.3	0	81153620	81153620	
12000.2	0	81245148	81245148	
12010	0	81327590	81327590	
12020.3	0	81426984	81426984	
12030.2	0	81529004	81529004	
12040	0	81646166	81646166	
12050.3	0	81735344	81735344	
12060.2	0	81829184	81829184	
12070	0	81943550	81943550	
12080.3	0	82036032	82036032	
12090.2	0	82116866	82116866	
12100	0	82228214	82228214	
12110.3	0	82308384	82308384	
12120.2	0	82410208	82410208	
12130	0	82498486	82498486	
12140.3	0	82578472	82578472	
12150.2	0	82679820	82679820	
12160	0	82756324	82756324	
12170.3	0	82863960	82863960	
12180.2	0	82969546	82969546	
12190	0	83068230	83068230	
12200.3	0	83187372	83187372	
12210.2	0	83280406	83280406	
12220	0	83355578	83355578	
12230.3	0	83467654	83467654	
12240.2	0	83562060	83562060	
12250.5	0	83639182	83639182	
12260.3	0	83718482	83718482	
12270.2	0	83812490	83812490	
12280.5	0	83902206	83902206	
12290.3	0	83987416	83987416	
12300.2	0	84069176	84069176	
12310.5	0	84158460	84158460	
12320.3	0	84238866	84238866	
12330.2	0	84312412	84312412	
12340.5	0	84392664	84392664	
12350.3	0	84473938	84473938	
12360.2	0	84550780	84550780	
12370.5	0	84649930	84649930	
12380.3	0	84759826	84759826	
12390.2	0	84856310	84856310	
12400.5	0	84981300	84981300	
12410.3	0	85091104	85091104	
12420.2	0	85229782	85229782	
12430.5	0	85358774	85358774	
12440.3	0	85463416	85463416	
12450.2	0	85595880	85595880	
12460.5	0	85702304	85702304	
12470.3	0	85809738	85809738	
12480.2	0	85930704	85930704	
12490.5	0	86056144	86056144	
12500.3	0	86182554	86182554	
12510.2	0	86294018	86294018	
12520.5	0	86388612	86388612	
12530.3	0	86499482	86499482	
12540.2	0	86587306	86587306	
12550.5	0	86685222	86685222	
12560.3	0	86786212	86786212	
12570.1	0	86894770	86894770	
12580.5	0	87019342	87019342	
12590.3	0	87101190	87101190	
12600.1	0	87209264	87209264	
12610.5	0	87329072	87329072	
12620.3	0	87456824	87456824	
12630.1	0	87569184	87569184	
12640.5	0	87694550	87694550	
12650.3	0	87804532	87804532	
12660.1	0	87912304	87912304	
12670.5	0	88006964	88006964	
12680.3	0	88096220	88096220	
12690.1	0	88197174	88197174	
12700.5	0	88268592	88268592	
12710.3	0	88340828	88340828	
12720.1	0	88424896	88424896	
12730.5	0	88496110	88496110	
12740.3	0	88573996	88573996	
12750.1	0	88614864	88614864	
12760.5	0	88708750	88708750	
12770.3	0	88758890	88758890	
12780.1	0	88815422	88815422	
12790.5	0	88904300	88904300	
12800.3	0	88980426	88980426	
12810.1	0	89060664	89060664	
12820.5	0	89149220	89149220	
12830.3	0	89232820	89232820	
12840.1	0	89314398	89314398	
12850.5	0	89384202	89384202	
12860.3	0	89505932	89505932	
12870.1	0	89586136	89586136	
12880.5	0	89677222	89677222	
12890.3	0	89786102	89786102	
12900.1	0	89888028	89888028	
12910.5	0	90017508	90017508	
12920.3	0	90133282	90133282	
12930.1	0	90219700	90219700	
12940.5	0	90333252	90333252	
12950.3	0	90424694	90424694	
12960.1	0	90508882	90508882	
12970.5	0	90605224	90605224	
12980.3	0	90674514	90674514	
12990.1	0	90765364	90765364	
13000.5	0	90855412	90855412	
13010.3	0	90951788	90951788	
13020.1	0	91021956	91021956	
13030.5	0	91091662	91091662	
13040.3	0	91178136	91178136	
13050.1	0	91241034	91241034	
13060.5	0	91300916	91300916	
13070.3	0	91371316	91371316	
13080.1	0	91459444	91459444	
13090.5	0	91510688	91510688	
13100.3	0	91583914	91583914	
13110.1	0	91630906	91630906	
13120.5	0	91685220	91685220	
13130.3	0	91731956	91731956	
13140.1	0	91789148	91789148	
13150.5	0	91852420	91852420	
13160.3	0	91899618	91899618	
13170.1	0	91983016	91983016	
13180.4	0	92074384	92074384	
13190.3	0	92158300	92158300	
13200.1	0	92261618	92261618	
13210.4	0	92341932	92341932	
13220.3	0	92451142	92451142	
13230.1	0	92528498	92528498	
13240.4	0	92635622	92635622	
13250.3	0	92728340	92728340	
13260.1	0	92846864	92846864	
13270.4	0	92949738	92949738	
13280.3	0	93074802	93074802	
13290.1	0	93165944	93165944	
13300.4	0	93304022	93304022	
13310.3	0	93393118	93393118	
13320.1	0	93523068	93523068	
13330.4	0	93627452	93627452	
13340.3	0	93723112	93723112	
13350.1	0	93835428	93835428	
13360.4	0	93968784	93968784	
13370.3	0	94067672	94067672	
13380.1	0	94147286	94147286	
13390.4	0	94264918	94264918	
13400.3	0	94397842	94397842	
13410.1	0	94506536	94506536	
13420.4	0	94646098	94646098	
13430.3	0	94777638	94777638	
13440.1	0	94894306	94894306	
13450.4	0	95029502	95029502	
13460.3	0	95152052	95152052	
13470.1	0	95274622	95274622	
13480.4	0	95388176	95388176	
13490.3	0	95502842	95502842	
13500.1	0	95607092	95607092	
13510.4	0	95707528	95707528	
13520.3	0	95835428	95835428	
13530.1	0	95937874	95937874	
13540.5	0	96075656	96075656	
13550.3	0	96198380	96198380	
13560.1	0	96307516	96307516	
13570.5	0	96434510	96434510	
13580.3	0	96576320	96576320	
13590.1	0	96695362	96695362	
13600.5	0	96817526	96817526	
13610.3	0	96942180	96942180	
13620.1	0	97042796	97042796	
13630.5	0	97173734	97173734	
13640.3	0	97302592	97302592	
13650.2	0	97429718	97429718	
13660	0	97571174	97571174	
13670.4	0	97683554	97683554	
13680.2	0	97787472	97787472	
13690.1	0	97881372	97881372	
13700.4	0	97988356	97988356	
13710.2	0	98086536	98086536	
13720.1	0	98171642	98171642	
13730.4	0	98274146	98274146	
13740.2	0	98384356	98384356	
13750.1	0	98503002	98503002	
13760.4	0	98607864	98607864	
13770.2	0	98704904	98704904	
13780.1	0	98819606	98819606	
13790.4	0	98917736	98917736	
13800.2	0	99005226	99005226	
13810.1	0	99097538	99097538	
13820.4	0	99178428	99178428	
13830.2	0	99265484	99265484	
13840.1	0	99361954	99361954	
13850.4	0	99443074	99443074	
13860.2	0	99542068	99542068	
13870.1	0	99658752	99658752	
13880.4	0	99774198	99774198	
13890.2	0	99887116	99887116	
13900.1	0	100016758	100016758	
13910.4	0	100140484	100140484	
13920.3	0	100256550	100256550	
13930.1	0	100391536	100391536	
13940.5	0	100509962	100509962	
13950.3	0	100632892	100632892	
13960.1	0	100732062	100732062	
13970.5	0	100831386	100831386	
13980.3	0	100910608	100910608	
13990.2	0	100979706	100979706	
14000	0	101039012	101039012	
14010.4	0	101116114	101116114	
14020.2	0	101170140	101170140	
14030	0	101252874	101252874	
14040.4	0	101311286	101311286	
14050.2	0	101372582	101372582	
14060	0	101424918	101424918	
14070.4	0	101496292	101496292	
14080.2	0	101556452	101556452	
14090	0	101622652	101622652	
14100.4	0	101726526	101726526	
14110.2	0	101808150	101808150	
14120	0	101916844	101916844	
14130.4	0	102020974	102020974	
14140.2	0	102137852	102137852	
14150	0	102260478	102260478	
14160.4	0	102391166	102391166	
14170.2	0	102515132	102515132	
14180	0	102649570	102649570	
14190.4	0	102819948	102819948	
14200.2	0	102953416	102953416	
14210	0	103112328	103112328	
14220.4	0	103274332	103274332	
14230.2	0	103436144	103436144	
14240	0	103595048	103595048	
14250.4	0	103768094	103768094	
14260.2	0	103910424	103910424	
14270	0	104071084	104071084	
14280.4	0	104213080	104213080	
14290.2	0	104328174	104328174	
14300	0	104447116	104447116	
14310.4	0	104575760	104575760	
14320.2	0	104688796	104688796	
14330	0	104815102	104815102	
14340.4	0	104926794	104926794	
14350.2	0	105052838	105052838	
14360	0	105176738	105176738	
14370.3	0	105305720	105305720	
14380.2	0	105382766	105382766	
14390	0	105469564	105469564	
14400.3	0	105553084	105553084	
14410.2	0	105632748	105632748	
14420	0	105699596	105699596	
14430.3	0	105777564	105777564	
14440.2	0	105854442	105854442	
14450	0	105903056	105903056	
14460.3	0	105976770	105976770	
14470.2	0	106050012	106050012	
14480	0	106068040	106068040	
14490.3	0	106114098	106114098	
14500.2	0	106169702	106169702	
14510	0	106209890	106209890	
14520.3	0	106261640	106261640	
14530.2	0	106318210	106318210	
14540	0	106353686	106353686	
14550.3	0	106416184	106416184	
14560.2	0	106491968	106491968	
14570	0	106554350	106554350	
14580.3	0	106613564	106613564	
14590.2	0	106703202	106703202	
14600	0	106794528	106794528	
14610.3	0	106898972	106898972	
14620.2	0	107007414	107007414	
14630	0	107132268	107132268	
14640.3	0	107254140	107254140	
14650.2	0	107385896	107385896	
14660	0	107508008	107508008	
14670.3	0	107651708	107651708	
14680.2	0	107763054	107763054	
14690	0	107875624	107875624	
14700.3	0	107994656	107994656	
14710.2	0	108111066	108111066	
14720	0	108223884	108223884	
14730.3	0	108330108	108330108	
14740.2	0	108436338	108436338	
14750	0	108527024	108527024	
14760.3	0	108655152	108655152	
14770.2	0	108780082	108780082	
14780	0	108891720	108891720	
14790.3	0	109008232	109008232	
14800.2	0	109144452	109144452	
14810	0	109296824	109296824	
14820.3	0	109443116	109443116	
14830.2	0	109555028	109555028	
14840.5	0	109681866	109681866	
14850.3	0	109813050	109813050	
14860.2	0	109917348	109917348	
14870.5	0	110009272	110009272	
14880.3	0	110102724	110102724	
14890.2	0	110183504	110183504	
14900.5	0	110252668	110252668	
14910.3	0	110320980	110320980	
14920.2	0	110415050	110415050	
14930.5	0	110469918	110469918	
14940.3	0	110546062	110546062	
14950.2	0	110598496	110598496	
14960.5	0	110705570	110705570	
14970.3	0	110787184	110787184	
14980.2	0	110849248	110849248	
14990.5	0	110927202	110927202	
15000.3	0	110996164	110996164	
15010.2	0	111106190	111106190	
15020.5	0	111199102	111199102	
15030.3	0	111294064	111294064	
15040.2	0	111400336	111400336	
15050.5	0	111506234	111506234	
15060.3	0	111619004	111619004	
15070.2	0	111706998	111706998	
15080.5	0	111813670	111813670	
15090.3	0	111937406	111937406	
15100.2	0	112040082	112040082	
15110.5	0	112144004	112144004	
15120.3	0	112252252	112252252	
15130.2	0	112331326	112331326	
15140.5	0	112444814	112444814	
15150.3	0	112532374	112532374	
15160.1	0	112619970	112619970	
15170.5	0	112740242	112740242	
15180.3	0	112835956	112835956	
15190.1	0	112938800	112938800	
15200.5	0	113035770	113035770	
15210.3	0	113138252	113138252	
15220.1	0	113211848	113211848	
15230.5	0	113313798	113313798	
15240.3	0	113394212	113394212	
15250.1	0	113489540	113489540	
15260.5	0	113582836	113582836	
15270.3	0	113663022	113663022	
15280.1	0	113755710	113755710	
15290.5	0	113849666	113849666	
15300.3	0	113926406	113926406	
15310.1	0	114045268	114045268	
15320.5	0	114137478	114137478	
15330.3	0	114241808	114241808	
15340.1	0	114346596	114346596	
15350.5	0	114480248	114480248	
15360.3	0	114582678	114582678	
15370.1	0	114699516	114699516	
15380.5	0	114786660	114786660	
15390.3	0	114901148	114901148	
15400.1	0	115022760	115022760	
15410.5	0	115133094	115133094	
15420.3	0	115211844	115211844	
15430.1	0	115296942	115296942	
15440.5	0	115419826	115419826	
15450.3	0	115483578	115483578	
15460.1	0	115591412	115591412	
15470.5	0	115688404	115688404	
15480.3	0	115792862	115792862	
15490.1	0	115887316	115887316	
15500.5	0	115988754	115988754	
15510.3	0	116083746	116083746	
15520.1	0	116194980	116194980	
15530.5	0	116290448	116290448	
15540.3	0	116416486	116416486	
15550.1	0	116544366	116544366	
15560.5	0	116658284	116658284	
15570.3	0	116793664	116793664	
15580.1	0	116926458	116926458	
15590.5	0	117068250	117068250	
15600.3	0	117200262	117200262	
15610.1	0	117344086	117344086	
15620.5	0	117449912	117449912	
15630.3	0	117578808	117578808	
15640.1	0	117704866	117704866	
15650.5	0	117837808	117837808	
15660.3	0	117934784	117934784	
15670.1	0	118056484	118056484	
15680.5	0	118181836	118181836	
15690.3	0	118276456	118276456	
15700.1	0	118381714	118381714	
15710.5	0	118492314	118492314	
15720.3	0	118572012	118572012	
15730.1	0	118666446	118666446	
15740.5	0	118779552	118779552	
15750.3	0	118889362	118889362	
15760.1	0	118973050	118973050	
15770.5	0	119069832	119069832	
15780.3	0	119151982	119151982	
15790.1	0	119222234	119222234	
15800.5	0	119309960	119309960	
15810.3	0	119392862	119392862	
15820.1	0	119468816	119468816	
15830.5	0	119565562	119565562	
15840.3	0	119668192	119668192	
15850.1	0	119767450	119767450	
15860.4	0	119844676	119844676	
15870.3	0	119932396	119932396	
15880.1	0	120022970	120022970	
15890.4	0	120105698	120105698	
15900.3	0	120202238	120202238	
15910.1	0	120275012	120275012	
15920.4	0	120370520	120370520	
15930.3	0	120455612	120455612	
15940.1	0	120534798	120534798	
15950.4	0	120660322	120660322	
15960.3	0	120776262	120776262	
15970.1	0	120880650	120880650	
15980.4	0	121001470	121001470	
15990.3	0	121119632	121119632	
16000.1	0	121227622	121227622	
16010.4	0	121330938	121330938	
16020.3	0	121433050	121433050	
16030.1	0	121520356	121520356	
16040.4	0	121607186	121607186	
16050.3	0	121695230	121695230	
16060.1	0	121780422	121780422	
16070.4	0	121853072	121853072	
16080.3	0	121922992	121922992	
16090.1	0	121980838	121980838	
16100.4	0	122075400	122075400	
16110.3	0	122141424	122141424	
16120.1	0	122238036	122238036	
16130.4	0	122317726	122317726	
16140.3	0	122413418	122413418	
16150.1	0	122503666	122503666	
16160.4	0	122631216	122631216	
16170.3	0	122718568	122718568	
16180.1	0	122833996	122833996	
16190.4	0	122959192	122959192	
16200.3	0	123074432	123074432	
16210.1	0	123190160	123190160	
16220.4	0	123317216	123317216	
16230.3	0	123424798	123424798	
16240.1	0	123546264	123546264	
16250.4	0	123654360	123654360	
16260.3	0	123774810	123774810	
16270.1	0	123895754	123895754	
16280.4	0	124024356	124024356	
16290.3	0	124156128	124156128	
16300.1	0	124300244	124300244	
16310.4	0	124412378	124412378	
16320.3	0	124539516	124539516	
16330.1	0	124685846	124685846	
16340.4	0	124818842	124818842	
16350.3	0	124926992	124926992	
16360.1	0	125054084	125054084	
16370.4	0	125167494	125167494	
16380.3	0	125289966	125289966	
16390.1	0	125419204	125419204	
16400.4	0	125546574	125546574	
16410.3	0	125679696	125679696	
16420.1	0	125778806	125778806	
16430.4	0	125914398	125914398	
16440.3	0	125975056	125975056	
16450.1	0	126058510	126058510	
16460.4	0	126103106	126103106	
16470.3	0	126163664	126163664	
16480.1	0	126197852	126197852	
16490.4	0	126243938	126243938	
16500.3	0	126278758	126278758	
16510.1	0	126349620	126349620	
16520.4	0	126361994	126361994	
16530.3	0	126411278	126411278	
16540.1	0	126453766	126453766	
16550.4	0	126521268	126521268	
16560.3	0	126569818	126569818	
16570.1	0	126639816	126639816	
16580.4	0	126721308	126721308	
16590.3	0	126769310	126769310	
16600.1	0	126850206	126850206	
16610.4	0	126919786	126919786	
16620.3	0	126999612	126999612	
16630.1	0	127082834	127082834	
16640.4	0	127193092	127193092	
16650.3	0	127320208	127320208	
16660.1	0	127454108	127454108	
16670.4	0	127573134	127573134	
16680.3	0	127705128	127705128	
16690.1	0	127843582	127843582	
16700.4	0	127996202	127996202	
16710.3	0	128126104	128126104	
16720.1	0	128228868	128228868	
16730.4	0	128359708	128359708	
16740.3	0	128468476	128468476	
16750.1	0	128583248	128583248	
16760.4	0	128723544	128723544	
16770.3	0	128839430	128839430	
16780.1	0	128975454	128975454	
16790.4	0	129095832	129095832	
16800.3	0	129209936	129209936	
16810.1	0	129316494	129316494	
16820.4	0	129432046	129432046	
16830.3	0	129512992	129512992	
16840.1	0	129595182	129595182	
16850.4	0	129659044	129659044	
16860.3	0	129741750	129741750	
16870.1	0	129804510	129804510	
16880.4	0	129846870	129846870	
16890.3	0	129920458	129920458	
16900.1	0	129993464	129993464	
16910.4	0	130049748	130049748	
16920.3	0	130136292	130136292	
16930.1	0	130219728	130219728	
16940.4	0	130310274	130310274	
16950.3	0	130403520	130403520	
16960.1	0	130521884	130521884	
16970.4	0	130656134	130656134	
16980.3	0	130762734	130762734	
16990.1	0	130901918	130901918	
17000.4	0	131049326	131049326	
17010.3	0	131147766	131147766	
17020.1	0	131273662	131273662	
17030.5	0	131391608	131391608	
17040.3	0	131481288	131481288	
17050.2	0	131614420	131614420	
17060.1	0	131721588	131721588	
17070.4	0	131824866	131824866	
17080.2	0	131941906	131941906	
17090.1	0	132059800	132059800	
17100.4	0	132181662	132181662	
17110.2	0	132289740	132289740	
17120.1	0	132428886	132428886	
17130.4	0	132552176	132552176	
17140.3	0	132703924	132703924	
17150.1	0	132827754	132827754	
17160.5	0	132953600	132953600	
17170.4	0	133076870	133076870	
17180.2	0	133203136	133203136	
17190.1	0	133323124	133323124	
17200.4	0	133424966	133424966	
17210.2	0	133515478	133515478	
17220.1	0	133585302	133585302	
17230.4	0	133650394	133650394	
17240.3	0	133714572	133714572	
17250.1	0	133748894	133748894	
17260	0	133808048	133808048	
17270.4	0	133858128	133858128	
17280.3	0	133921572	133921572	
17290.1	0	133969320	133969320	
17300.5	0	134027696	134027696	
17310.3	0	134094464	134094464	
17320.2	0	134143324	134143324	
17330.1	0	134235550	134235550	
17340.4	0	134303632	134303632	
17350.3	0	134365326	134365326	
17360.2	0	134425598	134425598	
17370	0	134476884	134476884	
17380.4	0	134520068	134520068	
17390.3	0	134564238	134564238	
17400.2	0	134636916	134636916	
17410	0	134680566	134680566	
17420.4	0	134750132	134750132	
17430.3	0	134814504	134814504	
17440.2	0	134920416	134920416	
17450.1	0	135009098	135009098	
17460.5	0	135095972	135095972	
17470.3	0	135218632	135218632	
17480.2	0	135337386	135337386	
17490.1	0	135452364	135452364	
17500.5	0	135588772	135588772	
17510.3	0	135714594	135714594	
17520.2	0	135825130	135825130	
17530.1	0	135943560	135943560	
17540.4	0	136076520	136076520	
17550.3	0	136171172	136171172	
17560.2	0	136324688	136324688	
17570.1	0	136437336	136437336	
17580.4	0	136553706	136553706	
17590.3	0	136697344	136697344	
17600.2	0	136827226	136827226	
17610	0	136922964	136922964	
17620.4	0	137040562	137040562	
17630.3	0	137132922	137132922	
17640.2	0	137264820	137264820	
17650.1	0	137403366	137403366	
17660.4	0	137519706	137519706	
17670.3	0	137641354	137641354	
17680.2	0	137794130	137794130	
17690.1	0	137917562	137917562	
17700	0	138056516	138056516	
17710.4	0	138193040	138193040	
17720.3	0	138317804	138317804	
17730.2	0	138460532	138460532	
17740.1	0	138557230	138557230	
17750.4	0	138670666	138670666	
17760.3	0	138771762	138771762	
17770.2	0	138887734	138887734	
17780.1	0	138979466	138979466	
17790.5	0	139072708	139072708	
17800.4	0	139156046	139156046	
17810.3	0	139259706	139259706	
17820.2	0	139352654	139352654	
17830.1	0	139432302	139432302	
17840.5	0	139511304	139511304	
17850.4	0	139562054	139562054	
17860.3	0	139612914	139612914	
17870.2	0	139689656	139689656	
17880.1	0	139763010	139763010	
17890.5	0	139812484	139812484	
17900.4	0	139859410	139859410	
17910.3	0	139927458	139927458	
17920.2	0	139983238	139983238	
17930.1	0	140051486	140051486	
17940	0	140108152	140108152	
17950.3	0	140185394	140185394	
17960.2	0	140262088	140262088	
17970	0	140349936	140349936	
17980.4	0	140429756	140429756	
17990.2	0	140515310	140515310	
18000.1	0	140598914	140598914	
18010.4	0	140722288	140722288	
18020.3	0	140819796	140819796	
18030.2	0	140947964	140947964	
18040.1	0	141034056	141034056	
18050.5	0	141158382	141158382	
18060.4	0	141242534	141242534	
18070.2	0	141323486	141323486	
18080.1	0	141423050	141423050	
18090	0	141512734	141512734	
18100.4	0	141606156	141606156	
18110.3	0	141679248	141679248	
18120.2	0	141760730	141760730	
18130.1	0	141862398	141862398	
18140.5	0	141946964	141946964	
18150.3	0	142068270	142068270	
18160.2	0	142156994	142156994	
18170.1	0	142288886	142288886	
18180.5	0	142430418	142430418	
18190.4	0	142543834	142543834	
18200.2	0	142672090	142672090	
18210.1	0	142812844	142812844	
18220	0	142889138	142889138	
18230.4	0	143038668	143038668	
18240.3	0	143139444	143139444	
18250.1	0	143253810	143253810	
18260.5	0	143396974	143396974	
18270.3	0	143507196	143507196	
18280.2	0	143620906	143620906	
18290.5	0	143758296	143758296	
18300.3	0	143872462	143872462	
18310.2	0	143973370	143973370	
18320	0	144058728	144058728	
18330.4	0	144184284	144184284	
18340.2	0	144292932	144292932	
18350.1	0	144352820	144352820	
18360.4	0	144443100	144443100	
18370.2	0	144568674	144568674	
18380.1	0	144655074	144655074	
18390.4	0	144789720	144789720	
18400.2	0	144882802	144882802	
18410.1	0	144983430	144983430	
18420.4	0	145086152	145086152	
18430.2	0	145200504	145200504	
18440.1	0	145283512	145283512	
18450.4	0	145372100	145372100	
18460.2	0	145457718	145457718	
18470.1	0	145525652	145525652	
18480.4	0	145626418	145626418	
18490.2	0	145739974	145739974	
18500.1	0	145843168	145843168	
18510.4	0	145970662	145970662	
18520.2	0	146078022	146078022	
18530.1	0	146209184	146209184	
18540.4	0	146316124	146316124	
18550.2	0	146414318	146414318	
18560.1	0	146525564	146525564	
18570.4	0	146631174	146631174	
18580.2	0	146712430	146712430	
18590.1	0	146792136	146792136	
18600.4	0	146858944	146858944	
18610.2	0	146928172	146928172	
18620.1	0	147005086	147005086	
18630.4	0	147090944	147090944	
18640.2	0	147181822	147181822	
18650.1	0	147282730	147282730	
18660.4	0	147379750	147379750	
18670.2	0	147476884	147476884	
18680.1	0	147593794	147593794	
18690.4	0	147685890	147685890	
18700.2	0	147790210	147790210	
18710.1	0	147878432	147878432	
18720.4	0	147977930	147977930	
18730.2	0	148073066	148073066	
18740.1	0	148163932	148163932	
18750.4	0	148229512	148229512	
18760.2	0	148337616	148337616	
18770.1	0	148420794	148420794	
18780.4	0	148531686	148531686	
18790.2	0	148657498	148657498	
18800.1	0	148777236	148777236	
18810.4	0	148884302	148884302	
18820.2	0	149022072	149022072	
18830.1	0	149169408	149169408	
18840.4	0	149312088	149312088	
18850.2	0	149458974	149458974	
18860.1	0	149592306	149592306	
18870.4	0	149769422	149769422	
18880.2	0	149904744	149904744	
18890	0	150015680	150015680	
18900.4	0	150153744	150153744	
18910.2	0	150302656	150302656	
18920	0	150428634	150428634	
18930.4	0	150548190	150548190	
18940.2	0	150673050	150673050	
18950	0	150792256	150792256	
18960.4	0	150917788	150917788	
18970.2	0	151007314	151007314	
18980	0	151113398	151113398	
18990.4	0	151241308	151241308	
19000.2	0	151329760	151329760	
19010	0	151434538	151434538	
19020.4	0	151550740	151550740	
19030.2	0	151668624	151668624	
19040	0	151810386	151810386	
19050.4	0	151944206	151944206	
19060.2	0	152063004	152063004	
19070	0	152163686	152163686	
19080.4	0	152274988	152274988	
19090.2	0	152356858	152356858	
19100	0	152462430	152462430	
19110.4	0	152546440	152546440	
19120.2	0	152616314	152616314	
19130	0	152688736	152688736	
19140.4	0	152749500	152749500	
19150.2	0	152833686	152833686	
19160	0	152874510	152874510	
19170.4	0	152954130	152954130	
19180.2	0	153026636	153026636	
19190	0	153090676	153090676	
19200.4	0	153156834	153156834	
19210.2	0	153199362	153199362	
19220	0	153274302	153274302	
19230.4	0	153342092	153342092	
19240.2	0	153419382	153419382	
19250.1	0	153473636	153473636	
19260.4	0	153587502	153587502	
19270.3	0	153682258	153682258	
19280.1	0	153748012	153748012	
19290.4	0	153855950	153855950	
19300.3	0	153976666	153976666	
19310.1	0	154085680	154085680	
19320.4	0	154213066	154213066	
19330.3	0	154336022	154336022	
19340.1	0	154459382	154459382	
19350.4	0	154609068	154609068	
19360.3	0	154734352	154734352	
19370.1	0	154881804	154881804	
19380.4	0	155030192	155030192	
19390.3	0	155148626	155148626	
19400.1	0	155294950	155294950	
19410.4	0	155413976	155413976	
19420.3	0	155547288	155547288	
19430.1	0	155667280	155667280	
19440.4	0	155794356	155794356	
19450.3	0	155918342	155918342	
19460.1	0	156029878	156029878	
19470.4	0	156174192	156174192	
19480.3	0	156254338	156254338	
19490.1	0	156394924	156394924	
19500.4	0	156493750	156493750	
19510.3	0	156590996	156590996	
19520.1	0	156687784	156687784	
19530.4	0	156799376	156799376	
19540.3	0	156886280	156886280	
19550.1	0	156981028	156981028	
19560.4	0	157090936	157090936	
19570.3	0	157165322	157165322	
19580.1	0	157277308	157277308	
19590.4	0	157383028	157383028	
19600.3	0	157484162	157484162	
19610.1	0	157587866	157587866	
19620.4	0	157689498	157689498	
19630.3	0	157785682	157785682	
19640.1	0	157875746	157875746	
19650.4	0	157969698	157969698	
19660.3	0	158094384	158094384	
19670.1	0	158197319	158197319	
19680.4	0	158316846	158316846	
19690.3	0	158430210	158430210	
19700.1	0	158542840	158542840	
19710.4	0	158672147	158672147	
19720.3	0	158773148	158773148	
19730.1	0	158872642	158872642	
19740.4	0	159000837	159000837	
19750.3	0	159115382	159115382	
19760.1	0	159211910	159211910	
19770.4	0	159342959	159342959	
19780.3	0	159421745	159421745	
19790.1	0	159535816	159535816	
19800.4	0	159640555	159640555	
19810.3	0	159740413	159740413	
19820.1	0	159823959	159823959	
19830.4	0	159903076	159903076	
19840.3	0	159999781	159999781	
19850.1	0	160081855	160081855	
19860.4	0	160181747	160181747	
19870.3	0	160273252	160273252	
19880.1	0	160379696	160379696	
19890.4	0	160470059	160470059	
19900.3	0	160597189	160597189	
19910.1	0	160700527	160700527	
19920.4	0	160810966	160810966	
19930.3	0	160925634	160925634	
19940.1	0	161005297	161005297	
19950.4	0	161131239	161131239	
19960.2	0	161225191	161225191	
19970.1	0	161302954	161302954	
19980.4	0	161433890	161433890	
19990.2	0	161502658	161502658	
20000.1	0	161592103	161592103	
20010.4	0	161700723	161700723	
20020.2	0	161782650	161782650	
20030.1	0	161875002	161875002	
20040.4	0	161978946	161978946	
20050.2	0	162084249	162084249	
20060.1	0	162208561	162208561	
20070.4	0	162309408	162309408	
20080.2	0	162396237	162396237	
20090.1	0	162508246	162508246	
20100.4	0	162607780	162607780	
20110.2	0	162703291	162703291	
20120.1	0	162790674	162790674	
20130.4	0	162901738	162901738	
20140.2	0	163008380	163008380	
20150.1	0	163116940	163116940	
20160.4	0	163230037	163230037	
20170.2	0	163343885	163343885	
20180.1	0	163451536	163451536	
20190.4	0	163578639	163578639	
20200.2	0	163728677	163728677	
20210.1	0	163860834	163860834	
20220.4	0	164005992	164005992	
20230.2	0	164110123	164110123	
20240.1	0	164237047	164237047	
20250.4	0	164346810	164346810	
20260.2	0	164429693	164429693	
20270.1	0	164547426	164547426	
20280.4	0	164639470	164639470	
20290.2	0	164716144	164716144	
20300.1	0	164809358	164809358	
20310.4	0	164890211	164890211	
20320.2	0	164983673	164983673	
20330.1	0	165073814	165073814	
20340.4	0	165162982	165162982	
20350.2	0	165267382	165267382	
20360.1	0	165336160	165336160	
20370.4	0	165405206	165405206	
20380.2	0	165498490	165498490	
20390.1	0	165599350	165599350	
20400.4	0	165717635	165717635	
20410.2	0	165797660	165797660	
20420.1	0	165896121	165896121	
20430.4	0	166022266	166022266	
20440.2	0	166119400	166119400	
20450.1	0	166194306	166194306	
20460.4	0	166278963	166278963	
20470.2	0	166369568	166369568	
20480.1	0	166422522	166422522	
20490.4	0	166509026	166509026	
20500.2	0	166580874	166580874	
20510.1	0	166634760	166634760	
20520.4	0	166695323	166695323	
20530.2	0	166739250	166739250	
20540.1	0	166803129	166803129	
20550.4	0	166841825	166841825	
20560.2	0	166869099	166869099	
20570.1	0	166889977	166889977	
20580.4	0	166924589	166924589	
20590.2	0	166939096	166939096	
20600.1	0	166960864	166960864	
20610.4	0	167014360	167014360	
20620.2	0	167047257	167047257	
20630.1	0	167106871	167106871	
20640.4	0	167212496	167212496	
20650.2	0	167283587	167283587	
20660.1	0	167365010	167365010	
20670.4	0	167479434	167479434	
20680.2	0	167565000	167565000	
20690.1	0	167644404	167644404	
20700.4	0	167721727	167721727	
20710.2	0	167797461	167797461	
20720.1	0	167896999	167896999	
20730.4	0	167970847	167970847	
20740.2	0	168048169	168048169	
20750.1	0	168131396	168131396	
20760.4	0	168207995	168207995	
20770.2	0	168302331	168302331	
20780	0	168352927	168352927	
20790.4	0	168434977	168434977	
20800.2	0	168530805	168530805	
20810	0	168609583	168609583	
20820.4	0	168698175	168698175	
20830.2	0	168788031	168788031	
20840	0	168893077	168893077	
20850.4	0	169017827	169017827	
20860.2	0	169118356	169118356	
20870	0	169233499	169233499	
20880.4	0	169354068	169354068	
20890.2	0	169482209	169482209	
20900	0	169586257	169586257	
20910.4	0	169745764	169745764	
20920.2	0	169872779	169872779	
20930	0	169995893	169995893	
20940.4	0	170113755	170113755	
20950.2	0	170236591	170236591	
20960	0	170348786	170348786	
20970.4	0	170423103	170423103	
20980.2	0	170511586	170511586	
20990	0	170564562	170564562	
21000.4	0	170645920	170645920	
21010.2	0	170679370	170679370	
21020	0	170736801	170736801	
21030.4	0	170787184	170787184	
21040.2	0	170862372	170862372	
21050	0	170917292	170917292	
21060.4	0	171005258	171005258	
21070.2	0	171068669	171068669	
21080	0	171152101	171152101	
21090.4	0	171239897	171239897	
21100.2	0	171316409	171316409	
21110	0	171375279	171375279	
21120.4	0	171463334	171463334	
21130.2	0	171526622	171526622	
21140	0	171593243	171593243	
21150.4	0	171650815	171650815	
21160.2	0	171731306	171731306	
21170	0	171805493	171805493	
21180.4	0	171884805	171884805	
21190.2	0	171953645	171953645	
21200	0	172016783	172016783	
21210.4	0	172077893	172077893	
21220.2	0	172186435	172186435	
21230	0	172242772	172242772	
21240.4	0	172331365	172331365	
21250.2	0	172443867	172443867	
21260	0	172530924	172530924	
21270.4	0	172625162	172625162	
21280.2	0	172723279	172723279	
21290	0	172830646	172830646	
21300.4	0	172937488	172937488	
21310.2	0	173033791	173033791	
21320	0	173133281	173133281	
21330.4	0	173250600	173250600	
21340.2	0	173345075	173345075	
21350	0	173454050	173454050	
21360.4	0	173577758	173577758	
21370.2	0	173698230	173698230	
21380	0	173800908	173800908	
21390.4	0	173918347	173918347	
21400.2	0	174052642	174052642	
21410	0	174154516	174154516	
21420.3	0	174313563	174313563	
21430.2	0	174419956	174419956	
21440	0	174533953	174533953	
21450.3	0	174669317	174669317	
21460.2	0	174823461	174823461	
21470	0	174977672	174977672	
21480.3	0	175101337	175101337	
21490.2	0	175240604	175240604	
21500	0	175350889	175350889	
21510.3	0	175486684	175486684	
21520.2	0	175576697	175576697	
21530	0	175677972	175677972	
21540.3	0	175809169	175809169	
21550.2	0	175925367	175925367	
21560	0	176039202	176039202	
21570.3	0	176163905	176163905	
21580.2	0	176238340	176238340	
21590	0	176337790	176337790	
21600.3	0	176432933	176432933	
21610.2	0	176515932	176515932	
21620	0	176609212	176609212	
21630.3	0	176721263	176721263	
21640.2	0	176796215	176796215	
21650	0	176896968	176896968	
21660.3	0	176977065	176977065	
21670.2	0	177065808	177065808	
21680	0	177134440	177134440	
21690.3	0	177197919	177197919	
21700.2	0	177251076	177251076	
21710	0	177306756	177306756	
21720.3	0	177354550	177354550	
21730.2	0	177416787	177416787	
21740	0	177504274	177504274	
21750.3	0	177577793	177577793	
21760.2	0	177630175	177630175	
21770	0	177685391	177685391	
21780.3	0	177734782	177734782	
21790.2	0	177817198	177817198	
21800	0	177868719	177868719	
21810.3	0	177955591	177955591	
21820.2	0	178055418	178055418	
21830	0	178122908	178122908	
21840.3	0	178214119	178214119	
21850.2	0	178313950	178313950	
21860	0	178379114	178379114	
21870.3	0	178460514	178460514	
21880.2	0	178540912	178540912	
21890.5	0	178628843	178628843	
21900.3	0	178681032	178681032	
21910.2	0	178734085	178734085	
21920.5	0	178794163	178794163	
21930.3	0	178856061	178856061	
21940.2	0	178914162	178914162	
21950.5	0	178950009	178950009	
21960.3	0	179022844	179022844	
21970.2	0	179075489	179075489	
21980.5	0	179158230	179158230	
21990.3	0	179220013	179220013	
22000.2	0	179323130	179323130	
22010.5	0	179410339	179410339	
22020.3	0	179513056	179513056	
22030.2	0	179600942	179600942	
22040.5	0	179686241	179686241	
22050.3	0	179767141	179767141	
22060.2	0	179828724	179828724	
22070.5	0	179915704	179915704	
22080.3	0	180004037	180004037	
22090.2	0	180112507	180112507	
22100.5	0	180189111	180189111	
22110.3	0	180283829	180283829	
22120.2	0	180332090	180332090	
22130.5	0	180381618	180381618	
22140.3	0	180474396	180474396	
22150.2	0	180566462	180566462	
22160.5	0	180630261	180630261	
22170.3	0	180786482	180786482	
22180.2	0	180868023	180868023	
22190.5	0	180997522	180997522	
22200.3	0	181126874	181126874	
22210.1	0	181229239	181229239	
22220.5	0	181381616	181381616	
22230.3	0	181509343	181509343	
22240.1	0	181605654	181605654	
22250.5	0	181740951	181740951	
22260.3	0	181870456	181870456	
22270.1	0	182023503	182023503	
22280.5	0	182184126	182184126	
22290.3	0	182297619	182297619	
22300.1	0	182444581	182444581	
22310.5	0	182607723	182607723	
22320.3	0	182744200	182744200	
22330.1	0	182895587	182895587	
22340.5	0	183061865	183061865	
22350.3	0	183188727	183188727	
22360.1	0	183320000	183320000	
22370.5	0	183466876	183466876	
22380.3	0	183588415	183588415	
22390.1	0	183691808	183691808	
22400.5	0	183794956	183794956	
22410.3	0	183865368	183865368	
22420.1	0	183952464	183952464	
22430.5	0	184019286	184019286	
22440.3	0	184119497	184119497	
22450.1	0	184153496	184153496	
22460.5	0	184232052	184232052	
22470.3	0	184279443	184279443	
22480.1	0	184345064	184345064	
22490.5	0	184436027	184436027	
22500.3	0	184487346	184487346	
22510.1	0	184526218	184526218	
22520.5	0	184595201	184595201	
22530.3	0	184656707	184656707	
22540.1	0	184699672	184699672	
22550.5	0	184767309	184767309	
22560.3	0	184812726	184812726	
22570.1	0	184864907	184864907	
22580.5	0	184917838	184917838	
22590.3	0	184957603	184957603	
22600.1	0	185027125	185027125	
22610.5	0	185097807	185097807	
22620.3	0	185140425	185140425	
22630.1	0	185189616	185189616	
22640.5	0	185265454	185265454	
22650.3	0	185317709	185317709	
22660.1	0	185381660	185381660	
22670.5	0	185485752	185485752	
22680.3	0	185555793	185555793	
22690.1	0	185658604	185658604	
22700.5	0	185793694	185793694	
22710.3	0	185918035	185918035	
22720.1	0	186020001	186020001	
22730.5	0	186127973	186127973	
22740.3	0	186234818	186234818	
22750.1	0	186324654	186324654	
22760.5	0	186411280	186411280	
22770.3	0	186482672	186482672	
22780.1	0	186559388	186559388	
22790.5	0	186659121	186659121	
22800.3	0	186757712	186757712	
22810.1	0	186838424	186838424	
22820.5	0	186936228	186936228	
22830.3	0	187007922	187007922	
22840.1	0	187103625	187103625	
22850.4	0	187202081	187202081	
22860.3	0	187284356	187284356	
22870.1	0	187369685	187369685	
22880.4	0	187453308	187453308	
22890.3	0	187502106	187502106	
22900.1	0	187625301	187625301	
22910.4	0	187675958	187675958	
22920.3	0	187743599	187743599	
22930.1	0	187794399	187794399	
22940.4	0	187850736	187850736	
22950.3	0	187882585	187882585	
22960.1	0	187934312	187934312	
22970.4	0	187999975	187999975	
22980.3	0	188067890	188067890	
22990.1	0	188128393	188128393	
23000.4	0	188187067	188187067	
23010.3	0	188226750	188226750	
23020.1	0	188276155	188276155	
23030.4	0	188320979	188320979	
23040.3	0	188374060	188374060	
23050.1	0	188418316	188418316	
23060.4	0	188450958	188450958	
23070.3	0	188483987	188483987	
23080.1	0	188529503	188529503	
23090.4	0	188596289	188596289	
23100.3	0	188657434	188657434	
23110.1	0	188714526	188714526	
23120.4	0	188794419	188794419	
23130.3	0	188874076	188874076	
23140.1	0	188944913	188944913	
23150.4	0	189081806	189081806	
23160.3	0	189160890	189160890	
23170.1	0	189261176	189261176	
23180.4	0	189340480	189340480	
23190.3	0	189438789	189438789	
23200.1	0	189526687	189526687	
23210.5	0	189593622	189593622	
23220.3	0	189658015	189658015	
23230.2	0	189725221	189725221	
23240.1	0	189801083	189801083	
23250	0	189867698	189867698	
23260.4	0	189895652	189895652	
23270.3	0	189953288	189953288	
23280.1	0	189976368	189976368	
23290.4	0	189999552	189999552	
23300.3	0	190061476	190061476	
23310.1	0	190093376	190093376	
23320.5	0	190155642	190155642	
23330.3	0	190200879	190200879	
23340.2	0	190232685	190232685	
23350	0	190294533	190294533	
23360.4	0	190367122	190367122	
23370.2	0	190421495	190421495	
23380.1	0	190476033	190476033	
23390.5	0	190551218	190551218	
23400.3	0	190635926	190635926	
23410.2	0	190691210	190691210	
23420	0	190766324	190766324	
23430.4	0	190853237	190853237	
23440.2	0	190915718	190915718	
23450.1	0	191003026	191003026	
23460.5	0	191108925	191108925	
23470.4	0	191215156	191215156	
23480.2	0	191319315	191319315	
23490.1	0	191417321	191417321	
23500.4	0	191543378	191543378	
23510.2	0	191643319	191643319	
23520.1	0	191771663	191771663	
23530.4	0	191917066	191917066	
23540.2	0	192013625	192013625	
23550.1	0	192107294	192107294	
23560.4	0	192248896	192248896	
23570.2	0	192370247	192370247	
23580.1	0	192488472	192488472	
23590.4	0	192635738	192635738	
23600.2	0	192746330	192746330	
23610.1	0	192853157	192853157	
23620.4	0	192951851	192951851	
23630.2	0	193056958	193056958	
23640.1	0	193170442	193170442	
23650.4	0	193284313	193284313	
23660.3	0	193417453	193417453	
23670.1	0	193545230	193545230	
23680	0	193653062	193653062	
23690.4	0	193820810	193820810	
23700.2	0	193938300	193938300	
23710.1	0	194065807	194065807	
23720.4	0	194184191	194184191	
23730.3	0	194278795	194278795	
23740.1	0	194367889	194367889	
23750.4	0	194440487	194440487	
23760.3	0	194542206	194542206	
23770.1	0	194606398	194606398	
23780.4	0	194709169	194709169	
23790.3	0	194762081	194762081	
23800.1	0	194824803	194824803	
23810.4	0	194889126	194889126	
23820.3	0	194924168	194924168	
23830.1	0	194976940	194976940	
23840.4	0	195028899	195028899	
23850.3	0	195045705	195045705	
23860.1	0	195081478	195081478	
23870.5	0	195115348	195115348	
23880.3	0	195172916	195172916	
23890.2	0	195197454	195197454	
23900.1	0	195233483	195233483	
23910.5	0	195297644	195297644	
23920.3	0	195342067	195342067	
23930.2	0	195414720	195414720	
23940	0	195477385	195477385	
23950.4	0	195544923	195544923	
23960.2	0	195638681	195638681	
23970	0	195749574	195749574	
23980.4	0	195836353	195836353	
23990.2	0	195922616	195922616	
24000.1	0	196029107	196029107	
24010.5	0	196156660	196156660	
24020.3	0	196262535	196262535	
24030.2	0	196371106	196371106	
24040	0	196495319	196495319	
24050.4	0	196627881	196627881	
24060.3	0	196743813	196743813	
24070.2	0	196834760	196834760	
24080	0	196954367	196954367	
24090.4	0	197052873	197052873	
24100.3	0	197161617	197161617	
24110.2	0	197257472	197257472	
24120.5	0	197352664	197352664	
24130.3	0	197434080	197434080	
24140.2	0	197514892	197514892	
24150.5	0	197603756	197603756	
24160.3	0	197676604	197676604	
24170.2	0	197756822	197756822	
24180	0	197843315	197843315	
24190.4	0	197927785	197927785	
24200.2	0	198024612	198024612	
24210.1	0	198110387	198110387	
24220.5	0	198218173	198218173	
24230.3	0	198326693	198326693	
24240.2	0	198409442	198409442	
24250.5	0	198524666	198524666	
24260.3	0	198621929	198621929	
24270.2	0	198701597	198701597	
24280.5	0	198812904	198812904	
24290.3	0	198892198	198892198	
24300.2	0	198946479	198946479	
24310.5	0	199018790	199018790	
24320.3	0	199128827	199128827	
24330.2	0	199217473	199217473	
24340.5	0	199294828	199294828	
24350.3	0	199342774	199342774	
24360.2	0	199412106	199412106	
24370	0	199464943	199464943	
24380.4	0	199516682	199516682	
24390.3	0	199580837	199580837	
24400.1	0	199654025	199654025	
24410.5	0	199694154	199694154	
24420.3	0	199757465	199757465	
24430.1	0	199817731	199817731	
24440.5	0	199872271	199872271	
24450.3	0	199891402	199891402	
24460.1	0	199964773	199964773	
24470.5	0	200045349	200045349	
24480.3	0	200108707	200108707	
24490.1	0	200171210	200171210	
24500.5	0	200237243	200237243	
24510.3	0	200310182	200310182	
