0	0	32768	32768	
135.718	0	32768	32768	
271.435	0	32768	32768	
407.153	0	32768	32768	
542.871	0	32768	32768	
678.589	0	32768	32768	
814.306	0	32768	32768	
950.024	0	32768	32768	
1085.74	0	32768	32768	
1221.46	0	32768	32768	
1357.18	0	32768	32768	
1492.89	0	32768	32768	
1628.61	0	32768	32768	
1764.33	0	32768	32768	
1900.05	0	32768	32768	
2035.77	0	32768	32768	
2171.48	0	32768	32768	
2307.2	0	32768	32768	
2442.92	0	32768	32768	
2578.64	0	32768	32768	
2714.35	0	32768	32768	
2850.07	0	32768	32768	
2985.79	0	32768	32768	
3121.51	0	32768	32768	
3257.23	0	32768	32768	
3392.94	0	32768	32768	
3528.66	0	32768	32768	
3664.38	0	32768	32768	
3800.1	0	32768	32768	
3935.81	0	32768	32768	
4071.53	0	32768	32768	
4207.25	0	32768	32768	
4342.97	0	32768	32768	
4478.68	0	32768	32768	
4614.4	0	32768	32768	
4750.12	0	32768	32768	
4885.84	0	32768	32768	
5021.56	0	32768	32768	
5157.27	0	32768	32768	
5292.99	0	32768	32768	
5428.71	0	32768	32768	
5564.43	0	32768	32768	
5700.14	0	32768	32768	
5835.86	0	32768	32768	
5971.58	0	32768	32768	
6107.3	0	32768	32768	
6243.02	0	32768	32768	
6378.73	0	32768	32768	
6514.45	0	32768	32768	
6650.17	0	32768	32768	
6785.89	0	32768	32768	
6921.6	0	32768	32768	
7057.32	0	32768	32768	
7193.04	0	32768	32768	
7328.76	0	32768	32768	
7464.47	0	32768	32768	
7600.19	0	32768	32768	
7735.91	0	32768	32768	
7871.63	0	32768	32768	
8007.35	0	32768	32768	
8143.06	0	32768	32768	
8278.78	0	32768	32768	
8414.5	0	32768	32768	
8550.22	0	32768	32768	
8685.93	0	32768	32768	
8821.65	4.54747e-13	32768	32768	
8957.37	9.09495e-13	32768	32768	
9093.09	1.81899e-12	32768	32768	
9228.8	3.63798e-12	32768	32768	
9364.52	6.36646e-12	32768	32768	
9500.24	1.09139e-11	32768	32768	
9635.96	1.77351e-11	32768	32768	
9771.68	2.81943e-11	32768	32768	
9907.39	4.41105e-11	32768	32768	
10043.1	6.77574e-11	32768	32768	
10178.8	1.02318e-10	32768	32768	
10314.5	1.51431e-10	32768	32768	
10450.3	2.20552e-10	32768	32768	
10586	3.1514e-10	32768	32768	
10721.7	4.44288e-10	32768	32768	
10857.4	6.17547e-10	32768	32768	
10993.1	8.46285e-10	32768	32768	
11128.9	1.14505e-09	32768	32768	
11264.6	1.52977e-09	32768	32768	
11400.3	2.01999e-09	32768	32768	
11536	2.63617e-09	32768	32768	
11671.7	3.40242e-09	32768	32768	
11807.4	4.34557e-09	32768	32768	
11943.2	5.49471e-09	32768	32768	
12078.9	6.88124e-09	32768	32768	
12214.6	8.5397e-09	32768	32768	
12350.3	1.05056e-08	32768	32768	
12486	1.28184e-08	32768	32768	
12621.7	1.55192e-08	32768	32768	
12757.5	1.86519e-08	32768	32768	
12893.2	2.22644e-08	32768	32768	
13028.9	2.64067e-08	32768	32768	
13164.6	3.11347e-08	32768	32768	
13300.3	3.65076e-08	32768	32768	
13436.1	4.25921e-08	32768	32768	
13571.8	4.94615e-08	32768	32768	
13707.5	5.71963e-08	32768	32768	
13843.2	6.58861e-08	32768	32768	
13978.9	7.56299e-08	32768	32768	
14114.6	8.65366e-08	32768	32768	
14250.4	9.87243e-08	32768	32768	
14386.1	1.12319e-07	32768	32768	
14521.8	1.27452e-07	32768	32768	
14657.5	1.44262e-07	32768	32768	
14793.2	1.62883e-07	32768	32768	
14928.9	1.83446e-07	32768	32768	
15064.7	2.06066e-07	32768	32768	
15200.4	2.30837e-07	32768	32768	
15336.1	2.57814e-07	32768	32768	
15471.8	2.87002e-07	32768	32768	
15607.5	3.18334e-07	32768	32768	
15743.3	3.51646e-07	32768	32768	
15879	3.86656e-07	32768	32768	
16014.7	4.22931e-07	32768	32768	
16150.4	4.59858e-07	32768	32768	
16286.1	4.96627e-07	32768	32768	
16421.8	5.32218e-07	32768	32768	
16557.6	5.65421e-07	32768	32768	
16693.3	5.949e-07	32768	32768	
16829	6.19324e-07	32768	32768	
16964.7	6.37611e-07	32768	32768	
17100.4	6.49321e-07	32768	32768	
17236.2	6.55255e-07	32768	32768	
17371.9	6.58347e-07	32768	32768	
17507.6	6.64907e-07	32768	32768	
17643.3	6.86348e-07	32768	32768	
17779	7.41467e-07	32768	32768	
17914.7	8.59432e-07	32768	32768	
18050.5	1.08357e-06	32768	32768	
18186.2	1.47607e-06	32768	32768	
18321.9	2.12373e-06	32768	32768	
18457.6	3.14476e-06	32768	32768	
18593.3	4.69675e-06	32768	32768	
18729	6.98577e-06	32768	32768	
18864.8	1.02765e-05	32768	32768	
19000.5	1.49031e-05	32768	32768	
19136.2	2.12812e-05	32768	32768	
19271.9	2.99197e-05	32768	32768	
19407.6	4.14327e-05	32768	32768	
19543.4	5.65511e-05	32768	32768	
19679.1	7.61326e-05	32768	32768	
19814.8	0.00010117	32768	32768	
19950.5	0.000132797	32768	32768	
20086.2	0.00017229	32768	32768	
20221.9	0.00022107	32768	32768	
20357.7	0.00028069	32768	32768	
20493.4	0.000352831	32768	32768	
20629.1	0.000439279	32768	32768	
20764.8	0.000541905	32768	32768	
20900.5	0.000662635	32768	32768	
21036.2	0.000803416	32768	32768	
21172	0.000966173	32768	32768	
21307.7	0.00115277	32768	32768	
21443.4	0.00136494	32768	32768	
21579.1	0.00160428	32768	32768	
21714.8	0.00187213	32768	32768	
21850.6	0.00216958	32768	32768	
21986.3	0.00249738	32768	32768	
22122	0.0028559	32768	32768	
22257.7	0.0032451	32768	32768	
22393.4	0.00366448	32768	32768	
22529.1	0.00411303	32768	32768	
22664.9	0.00458926	32768	32768	
22800.6	0.00509113	32768	32768	
22936.3	0.00561608	32768	32768	
23072	0.00616105	32768	32768	
23207.7	0.00672249	32768	32768	
23343.4	0.00729637	32768	32768	
23479.2	0.00787827	32768	32768	
23614.9	0.00846339	32768	32768	
23750.6	0.00904664	32768	32768	
23886.3	0.00962268	32768	32768	
24022	0.010186	32768	32768	
24157.8	0.0107311	32768	32768	
24293.5	0.0112524	32768	32768	
24429.2	0.0117443	32768	32768	
24564.9	0.0122015	32768	32768	
24700.6	0.012619	32768	32768	
24836.3	0.0129918	32768	32768	
24972.1	0.0133156	32768	32768	
25107.8	0.0135862	32768	32768	
25243.5	0.0138002	32768	32768	
25379.2	0.0139544	32768	32768	
25514.9	0.0140465	32768	32768	
25650.6	0.0140744	32768	32768	
25786.4	0.0140369	32768	32768	
25922.1	0.0139333	32768	32768	
26057.8	0.0137633	32768	32768	
26193.5	0.0135275	32768	32768	
26329.2	0.013227	32768	32768	
26465	0.0128633	32768	32768	
26600.7	0.0124387	32768	32768	
26736.4	0.0119558	32768	32768	
26872.1	0.0114178	32768	32768	
27007.8	0.0108284	32768	32768	
27143.5	0.0101916	32768	32768	
27279.3	0.00951166	32768	32768	
27415	0.00879347	32768	32768	
27550.7	0.008042	32768	32768	
27686.4	0.00726251	32768	32768	
27822.1	0.00646048	32768	32768	
27957.9	0.00564152	32768	32768	
28093.6	0.00481138	32768	32768	
28229.3	0.00397586	32768	32768	
28365	0.00314079	32768	32768	
28500.7	0.00231198	32768	32768	
28636.4	0.00149517	32768	32768	
28772.2	0.000696011	32768	32768	
28907.9	-8.00156e-05	32768	32768	
29043.6	-0.000827606	32768	32768	
29179.3	-0.00154169	32768	32768	
29315	-0.00221747	32768	32768	
29450.7	-0.00285046	32768	32768	
29586.5	-0.00343651	32768	32768	
29722.2	-0.00397185	32768	32768	
29857.9	-0.00445312	32768	32768	
29993.6	-0.0048774	32768	32768	
30129.3	-0.00524223	32768	32768	
30265.1	-0.00554563	32768	32768	
30400.8	-0.00578612	32768	32768	
30536.5	-0.00596275	32768	32768	
30672.2	-0.00607508	32768	32768	
30807.9	-0.00612319	32768	32768	
30943.6	-0.0061077	32768	32768	
31079.4	-0.00602975	32768	32768	
31215.1	-0.00589099	32768	32768	
31350.8	-0.00569357	32768	32768	
31486.5	-0.00544011	32768	32768	
31622.2	-0.00513368	32768	32768	
31757.9	-0.0047778	32768	32768	
31893.7	-0.00437633	32768	32768	
32029.4	-0.00393354	32768	32768	
32165.1	-0.00345397	32768	32768	
32300.8	-0.00294246	32768	32768	
32436.5	-0.00240406	32768	32768	
32572.3	-0.00184399	32768	32768	
32708	-0.00126763	32768	32768	
32843.7	-0.000680397	32768	32768	
32979.4	-8.77676e-05	32768	32768	
33115.1	0.000504817	32768	32768	
33250.8	0.00109198	32768	32768	
33386.6	0.00166848	32768	32768	
33522.3	0.00222921	32768	32768	
33658	0.0027693	32768	32768	
33793.7	0.00328412	32768	32768	
33929.4	0.00376932	32768	32768	
34065.1	0.0042209	32768	32768	
34200.9	0.00463518	32768	32768	
34336.6	0.00500888	32768	32768	
34472.3	0.00533912	32768	32768	
34608	0.00562345	32768	32768	
34743.7	0.00585983	32768	32768	
34879.5	0.00604669	32768	32768	
35015.2	0.0061829	32768	32768	
35150.9	0.00626777	32768	32768	
35286.6	0.00630106	32768	32768	
35422.3	0.00628298	32768	32768	
35558	0.00621413	32768	32768	
35693.8	0.00609554	32768	32768	
35829.5	0.00592863	32768	32768	
35965.2	0.00571517	32768	32768	
36100.9	0.00545727	32768	32768	
36236.6	0.00515737	32768	32768	
36372.3	0.00481815	32768	32768	
36508.1	0.00444258	32768	32768	
36643.8	0.00403381	32768	32768	
36779.5	0.00359518	32768	32768	
36915.2	0.00313019	32768	32768	
37050.9	0.00264243	32768	32768	
37186.7	0.00213557	32768	32768	
37322.4	0.00161332	32768	32768	
37458.1	0.0010794	32768	32768	
37593.8	0.000537505	32768	32768	
37729.5	-8.73888e-06	32768	32768	
37865.2	-0.000555779	32768	32768	
38001	-0.00110018	32768	32768	
38136.7	-0.00163865	32768	32768	
38272.4	-0.00216804	32768	32768	
38408.1	-0.0026854	32768	32768	
38543.8	-0.00318798	32768	32768	
38679.5	-0.00367324	32768	32768	
38815.3	-0.00413886	32768	32768	
38951	-0.00458276	32768	32768	
39086.7	-0.00500312	32768	32768	
39222.4	-0.00539836	32768	32768	
39358.1	-0.00576714	32768	32768	
39493.9	-0.00610838	32768	32768	
39629.6	-0.00642126	32768	32768	
39765.3	-0.0067052	32768	32768	
39901	-0.00695985	32768	32768	
40036.7	-0.00718509	32768	32768	
40172.4	-0.00738104	32768	32768	
40308.2	-0.00754801	32768	32768	
40443.9	-0.00768651	32768	32768	
40579.6	-0.00779724	32768	32768	
40715.3	-0.00788105	32768	32768	
40851	-0.00793895	32768	32768	
40986.8	-0.00797209	32768	32768	
41122.5	-0.00798173	32768	32768	
41258.2	-0.00796925	32768	32768	
41393.9	-0.00793608	32768	32768	
41529.6	-0.00788376	32768	32768	
41665.3	-0.00781384	32768	32768	
41801.1	-0.00772794	32768	32768	
41936.8	-0.00762768	32768	32768	
42072.5	-0.00751469	32768	32768	
42208.2	-0.0073906	32768	32768	
42343.9	-0.00725701	32768	32768	
42479.6	-0.00711548	32768	32768	
42615.4	-0.00696755	32768	32768	
42751.1	-0.00681467	32768	32768	
42886.8	-0.00665825	32768	32768	
43022.5	-0.00649963	32768	32768	
43158.2	-0.00634006	32768	32768	
