0	0	132970	132970	
36.0427	0	132782	132782	
72.2269	0	132810	132810	
108.411	0	132862	132862	
144.595	0	132940	132940	
180.779	0	132928	132928	
216.989	0	132940	132940	
253.198	0	132958	132958	
289.407	0	132984	132984	
325.616	0	133018	133018	
361.825	0	133022	133022	
398.035	0	133072	133072	
434.244	0	133078	133078	
470.453	0	133098	133098	
507.441	0	133044	133044	
544.575	0	132954	132954	
581.709	0	132876	132876	
618.843	0	132836	132836	
655.977	0	132778	132778	
693.111	0	132774	132774	
730.245	0	132804	132804	
767.379	0	132834	132834	
804.513	0	132844	132844	
841.648	0	132870	132870	
878.782	0	132900	132900	
915.916	0	132926	132926	
953.05	0	133006	133006	
990.184	0	133050	133050	
1027.32	0	133088	133088	
1064.45	0	133118	133118	
1101.59	0	133170	133170	
1138.72	0	133210	133210	
1175.85	0	133260	133260	
1212.11	0	133324	133324	
1248.38	0	133358	133358	
1284.64	0	133382	133382	
1320.9	0	133444	133444	
1357.16	0	133474	133474	
1393.42	0	133512	133512	
1429.68	0	133552	133552	
1465.94	0	133602	133602	
1502.2	0	133658	133658	
1538.46	0	133724	133724	
1574.69	0	133770	133770	
1610.91	0	133810	133810	
1647.14	0	133836	133836	
1683.36	0	133880	133880	
1719.59	0	133938	133938	
1755.81	0	133994	133994	
1792.04	0	134038	134038	
1828.26	0	134064	134064	
1864.48	0	134108	134108	
1900.71	0	134150	134150	
1936.93	0	134214	134214	
1973.16	0	134274	134274	
2009.35	0	134320	134320	
2045.53	0	134350	134350	
2081.72	0	134428	134428	
2117.91	0	134456	134456	
2154.09	0	134504	134504	
2190.28	0	134542	134542	
2226.47	0	134612	134612	
2262.66	0	134642	134642	
2298.84	0	134720	134720	
2335.03	0	134772	134772	
2371.22	0	134816	134816	
2407.4	0	134844	134844	
2443.59	0	134906	134906	
2479.46	0	134978	134978	
2515.34	0	135036	135036	
2551.21	0	135082	135082	
2587.08	0	135138	135138	
2622.95	0	135178	135178	
2658.83	0	135206	135206	
2694.45	0	135242	135242	
2730.08	0	135338	135338	
2765.7	0	135404	135404	
2801.33	0	135446	135446	
2836.73	0	135496	135496	
2872.13	0	135532	135532	
2907.53	0	135586	135586	
2942.94	0	135660	135660	
2978.34	0	135718	135718	
3013.74	0	135766	135766	
3048.76	0	135806	135806	
3083.79	0	135872	135872	
3118.81	0	135932	135932	
3153.83	0	135990	135990	
3188.86	0	136048	136048	
3223.88	0	136086	136086	
3258.9	0	136132	136132	
3293.54	0	136210	136210	
3328.17	0	136272	136272	
3362.81	0	136328	136328	
3397.44	0	136384	136384	
3432.08	0	136422	136422	
3466.71	0	136480	136480	
3501.35	0	136542	136542	
3535.98	0	136598	136598	
3570.62	0	136646	136646	
3605.25	0	136718	136718	
3639.89	0	136774	136774	
3674.52	0	136816	136816	
3709.16	0	136900	136900	
3743.79	0	136952	136952	
3778.43	0	137002	137002	
3813.06	0	137062	137062	
3847.7	0	137132	137132	
3882.34	0	137204	137204	
3916.97	0	137286	137286	
3951.61	0	137334	137334	
3986.24	0	137384	137384	
4020.88	0	137422	137422	
4055.51	0	137488	137488	
4090.15	0	137572	137572	
4124.78	0	137664	137664	
4159.42	0	137708	137708	
4194.05	0	137778	137778	
4228.69	0	137832	137832	
4263.32	0	137888	137888	
4297.96	0	137948	137948	
4332.59	0	137994	137994	
4367.23	0	138034	138034	
4401.86	0	138090	138090	
4436.5	0	138158	138158	
4471.13	0	138252	138252	
4505.77	0	138336	138336	
4540.4	0	138382	138382	
4575.04	0	138442	138442	
4609.67	0	138498	138498	
4644.31	0	138556	138556	
4678.94	0	138606	138606	
4713.58	0	138714	138714	
4748.21	0	138804	138804	
4782.85	0	138850	138850	
4817.48	0	138904	138904	
4852.12	0	138958	138958	
4886.76	0	139028	139028	
4921.39	0	139114	139114	
4956.03	0	139186	139186	
4990.66	0	139242	139242	
5025.3	0	139332	139332	
5059.93	0	139440	139440	
5094.57	0	139498	139498	
5129.2	0	139530	139530	
5163.84	0	139606	139606	
5198.47	0	139684	139684	
5233.11	0	139754	139754	
5267.74	0	139814	139814	
5302.38	0	139878	139878	
5337.01	0	139944	139944	
5371.65	0	140004	140004	
5406.28	0	140082	140082	
5440.92	0	140148	140148	
5475.55	0	140260	140260	
5510.19	0	140350	140350	
5544.82	0	140424	140424	
5579.46	0	140450	140450	
5614.09	0	140540	140540	
5648.73	0	140632	140632	
5683.36	0	140704	140704	
5718	0	140732	140732	
5752.63	0	140796	140796	
5787.27	0	140846	140846	
5821.9	0	140956	140956	
5856.54	0	141052	141052	
5891.17	0	141140	141140	
5925.81	0	141190	141190	
5960.44	0	141228	141228	
5995.08	0	141288	141288	
6029.71	0	141396	141396	
6064.35	0	141498	141498	
6098.98	0	141552	141552	
6133.62	0	141604	141604	
6168.25	0	141674	141674	
6202.89	0	141734	141734	
6237.52	0	141836	141836	
6272.16	0	141924	141924	
6306.79	0	141978	141978	
6341.43	0	142054	142054	
6376.06	0	142112	142112	
6410.7	0	142192	142192	
6445.33	0	142294	142294	
6479.97	0	142374	142374	
6514.6	0	142430	142430	
6549.24	0	142480	142480	
6583.87	0	142522	142522	
6618.51	0	142626	142626	
6653.14	0	142706	142706	
6687.78	0	142802	142802	
6722.41	0	142900	142900	
6757.04	0	142938	142938	
6791.68	0	143038	143038	
6826.31	0	143138	143138	
6860.95	0	143196	143196	
6895.58	0	143270	143270	
6930.22	0	143322	143322	
6964.85	0	143400	143400	
6999.48	0	143494	143494	
7034.12	0	143578	143578	
7068.75	0	143664	143664	
7103.39	0	143730	143730	
7138.02	0	143796	143796	
7172.66	0	143884	143884	
7207.29	0	143966	143966	
7241.92	0	144076	144076	
7276.56	0	144140	144140	
7311.19	0	144226	144226	
7345.83	0	144314	144314	
7380.46	0	144414	144414	
7415.1	0	144494	144494	
7449.73	0	144560	144560	
7484.36	0	144628	144628	
7519	0	144712	144712	
7553.63	0	144796	144796	
7588.27	0	144892	144892	
7622.9	0	145004	145004	
7657.53	0	145098	145098	
7692.17	0	145172	145172	
7726.8	0	145240	145240	
7761.44	0	145344	145344	
7796.07	0	145422	145422	
7830.71	0	145504	145504	
7865.34	0	145564	145564	
7899.97	0	145674	145674	
7934.61	0	145772	145772	
7969.24	0	145852	145852	
8003.88	0	145942	145942	
8038.51	0	146016	146016	
8073.15	0	146076	146076	
8107.78	0	146178	146178	
8142.42	0	146296	146296	
8177.05	0	146398	146398	
8211.69	0	146488	146488	
8246.32	0	146552	146552	
8280.96	0	146650	146650	
8315.59	0	146738	146738	
8350.23	0	146822	146822	
8384.86	0	146920	146920	
8419.5	0	147028	147028	
8454.13	0	147122	147122	
8488.77	0	147204	147204	
8523.4	0	147320	147320	
8558.04	0	147392	147392	
8592.67	0	147506	147506	
8627.31	0	147564	147564	
8661.94	0	147642	147642	
8696.58	0	147746	147746	
8731.21	0	147862	147862	
8765.85	0	147928	147928	
8800.48	0	148018	148018	
8835.12	0	148110	148110	
8869.75	0	148240	148240	
8904.39	0	148328	148328	
8939.02	0	148418	148418	
8973.66	0	148526	148526	
9008.29	0	148624	148624	
9042.93	0	148722	148722	
9077.56	0	148804	148804	
9112.2	0	148924	148924	
9146.83	0	149022	149022	
9181.47	0	149082	149082	
9216.1	0	149188	149188	
9250.74	0	149252	149252	
9285.37	0	149406	149406	
9320.01	0	149558	149558	
9354.64	0	149646	149646	
9389.28	0	149762	149762	
9423.91	0	149848	149848	
9458.54	0	149966	149966	
9493.18	0	150072	150072	
9527.81	0	150184	150184	
9562.45	0	150266	150266	
9597.08	0	150360	150360	
9631.72	0	150470	150470	
9666.35	0	150598	150598	
9700.99	0	150708	150708	
9735.62	0	150812	150812	
9770.26	0	150916	150916	
9804.89	0	150992	150992	
9839.53	0	151100	151100	
9874.16	0	151212	151212	
9908.8	0	151346	151346	
9943.43	0	151472	151472	
9978.07	0	151558	151558	
10012.7	0	151640	151640	
10047.3	0	151760	151760	
10082	0	151872	151872	
10116.6	0	151956	151956	
10151.2	0	152052	152052	
10185.9	0	152166	152166	
10220.5	0	152268	152268	
10255.1	0	152408	152408	
10289.8	0	152528	152528	
10324.4	0	152650	152650	
10359.1	0	152738	152738	
10393.7	0	152816	152816	
10428.3	0	152896	152896	
10463	0	153008	153008	
10497.6	0	153132	153132	
10532.2	0	153258	153258	
10566.9	0	153354	153354	
10601.5	0	153464	153464	
10636.1	0	153582	153582	
10670.8	0	153686	153686	
10705.4	0	153798	153798	
10740	0	153908	153908	
10774.7	0	154010	154010	
10809.3	0	154116	154116	
10843.9	0	154254	154254	
10878.6	0	154342	154342	
10913.2	0	154482	154482	
10947.8	0	154570	154570	
10982.5	0	154670	154670	
11017.1	0	154786	154786	
11051.8	0	154904	154904	
11086.4	0	155012	155012	
11121	0	155136	155136	
11155.7	0	155244	155244	
11190.3	0	155354	155354	
11224.9	0	155450	155450	
11259.6	0	155582	155582	
11294.2	0	155666	155666	
11328.8	0	155768	155768	
11363.5	0	155862	155862	
11398.1	0	156010	156010	
11432.7	0	156116	156116	
11467.4	0	156232	156232	
11502	0	156350	156350	
11536.6	0	156464	156464	
11571.3	0	156556	156556	
11605.9	0	156680	156680	
11640.5	0	156814	156814	
11675.2	0	156934	156934	
11709.9	0	157066	157066	
11744.6	0	157190	157190	
11779.3	0	157356	157356	
11814	0	157464	157464	
11848.7	0	157592	157592	
11883.8	0	157698	157698	
11918.8	0	157814	157814	
11953.8	0	157942	157942	
11988.8	0	158072	158072	
12023.9	0	158214	158214	
12058.5	0	158358	158358	
12093.1	0	158500	158500	
12127.8	0	158604	158604	
12162.4	0	158684	158684	
12197	0	158820	158820	
12231.7	0	158924	158924	
12266.4	0	159082	159082	
12301	0	159188	159188	
12335.6	0	159302	159302	
12370.3	0	159428	159428	
12404.9	0	159588	159588	
12439.6	0	159724	159724	
12474.2	0	159844	159844	
12508.8	0	159982	159982	
12543.5	0	160118	160118	
12578.1	0	160208	160208	
12612.7	0	160320	160320	
12647.4	0	160484	160484	
12682	0	160590	160590	
12716.6	0	160740	160740	
12751.3	0	160864	160864	
12785.9	0	161030	161030	
12820.5	0	161172	161172	
12855.2	0	161290	161290	
12889.8	0	161428	161428	
12924.4	0	161548	161548	
12959.1	0	161660	161660	
12993.7	0	161840	161840	
13028.3	0	162010	162010	
13063	0	162134	162134	
13097.6	0	162278	162278	
13132.3	0	162384	162384	
13166.9	0	162530	162530	
13201.5	0	162700	162700	
13236.2	0	162848	162848	
13270.8	0	162986	162986	
13305.4	0	163140	163140	
13340.1	0	163256	163256	
13374.7	0	163386	163386	
13409.3	0	163564	163564	
13444	0	163764	163764	
13478.6	0	163886	163886	
13513.2	0	163986	163986	
13547.9	0	164114	164114	
13582.5	0	164238	164238	
13617.1	0	164378	164378	
13651.8	0	164522	164522	
13686.4	0	164698	164698	
13721	0	164844	164844	
13755.7	0	164964	164964	
13790.3	0	165090	165090	
13825	0	165274	165274	
13859.6	0	165400	165400	
13894.2	0	165526	165526	
13928.9	0	165628	165628	
13963.5	0	165778	165778	
13998.1	0	165898	165898	
14032.8	0	166052	166052	
14067.4	0	166208	166208	
14102	0	166350	166350	
14136.7	0	166470	166470	
14171.3	0	166566	166566	
14205.9	0	166678	166678	
14240.6	0	166850	166850	
14275.2	0	166990	166990	
14309.8	0	167166	167166	
14344.5	0	167292	167292	
14379.1	0	167432	167432	
14413.7	0	167550	167550	
14448.4	0	167682	167682	
14483	0	167834	167834	
14517.7	0	167938	167938	
14552.3	0	168042	168042	
14586.9	0	168158	168158	
14621.6	0	168274	168274	
14656.2	0	168434	168434	
14690.8	0	168616	168616	
14725.5	0	168750	168750	
14760.1	0	168858	168858	
14794.7	0	168966	168966	
14829.4	0	169088	169088	
14864	0	169318	169318	
14898.6	0	169490	169490	
14933.3	0	169674	169674	
14967.9	0	169840	169840	
15002.5	0	169986	169986	
15037.2	0	170140	170140	
15071.8	0	170316	170316	
15106.5	0	170450	170450	
15141.1	0	170608	170608	
15175.7	0	170760	170760	
15210.4	0	170922	170922	
15245	0	171094	171094	
15279.6	0	171276	171276	
15314.3	0	171434	171434	
15348.9	0	171588	171588	
15383.5	0	171764	171764	
15418.2	0	171954	171954	
15452.8	0	172094	172094	
15487.4	0	172260	172260	
15522.1	0	172438	172438	
15556.7	0	172604	172604	
15591.3	0	172760	172760	
15626	0	172944	172944	
15660.6	0	173116	173116	
15695.2	0	173316	173316	
15729.9	0	173474	173474	
15764.5	0	173632	173632	
15799.2	0	173762	173762	
15833.8	0	173896	173896	
15868.4	0	174060	174060	
15903.1	0	174260	174260	
15937.7	0	174458	174458	
15972.3	0	174574	174574	
16007	0	174726	174726	
16041.6	0	174884	174884	
16076.2	0	175058	175058	
16110.9	0	175274	175274	
16145.5	0	175430	175430	
16180.1	0	175600	175600	
16214.8	0	175762	175762	
16249.4	0	175922	175922	
16284	0	176080	176080	
16318.7	0	176240	176240	
16353.3	0	176416	176416	
16388	0	176566	176566	
16422.6	0	176756	176756	
16457.2	0	176902	176902	
16491.9	0	177056	177056	
16526.5	0	177222	177222	
16561.1	0	177400	177400	
16595.8	0	177516	177516	
16630.4	0	177694	177694	
16665	0	177850	177850	
16699.7	0	177998	177998	
16734.3	0	178188	178188	
16768.9	0	178378	178378	
16803.6	0	178578	178578	
16838.2	0	178718	178718	
16872.8	0	178850	178850	
16907.5	0	178972	178972	
16942.1	0	179120	179120	
16976.8	0	179368	179368	
17011.4	0	179546	179546	
17046	0	179744	179744	
17080.7	0	179912	179912	
17115.3	0	180008	180008	
17149.9	0	180186	180186	
17184.6	0	180366	180366	
17219.2	0	180602	180602	
17253.8	0	180808	180808	
17288.5	0	180936	180936	
17323.1	0	181078	181078	
17357.7	0	181284	181284	
17392.4	0	181472	181472	
17427	0	181706	181706	
17461.6	0	181890	181890	
17496.3	0	182044	182044	
17530.9	0	182206	182206	
17565.5	0	182400	182400	
17600.2	0	182594	182594	
17634.8	0	182798	182798	
17669.5	0	183010	183010	
17704.1	0	183201	183201	
17738.7	0	183410	183410	
17773.4	0	183594	183594	
17808	0	183756	183756	
17842.6	0	183981	183981	
17877.3	0	184174	184174	
17911.9	0	184328	184328	
17946.5	0	184498	184498	
17981.2	0	184673	184673	
18015.8	0	184860	184860	
18050.4	0	185042	185042	
18085.1	0	185271	185271	
18119.7	0	185463	185463	
18154.3	0	185636	185636	
18189	0	185816	185816	
18223.6	0	185892	185892	
18258.2	0	186056	186056	
18292.9	0	186244	186244	
18327.5	0	186496	186496	
18362.2	0	186644	186644	
18396.8	0	186805	186805	
18431.4	0	186948	186948	
18466.1	0	187070	187070	
18500.7	0	187228	187228	
18535.3	0	187445	187445	
18570	0	187600	187600	
18604.6	0	187753	187753	
18639.2	0	187873	187873	
18673.9	0	188021	188021	
18708.5	0	188198	188198	
18743.1	0	188394	188394	
18777.8	0	188609	188609	
18812.4	0	188743	188743	
18847	0	188907	188907	
18881.7	0	189027	189027	
18916.3	0	189148	189148	
18951	0	189346	189346	
18985.6	0	189556	189556	
19020.2	0	189713	189713	
19054.9	0	189888	189888	
19089.5	0	190008	190008	
19124.1	0	190154	190154	
19158.8	0	190271	190271	
19193.4	0	190419	190419	
19228	0	190606	190606	
19262.7	0	190756	190756	
19297.3	0	190874	190874	
19331.9	0	191084	191084	
19366.6	0	191225	191225	
19401.2	0	191345	191345	
19435.8	0	191523	191523	
19470.5	0	191604	191604	
19505.1	0	191733	191733	
19539.7	0	191817	191817	
19574.4	0	191980	191980	
19609	0	192147	192147	
19643.7	0	192324	192324	
19678.3	0	192515	192515	
19712.9	0	192723	192723	
19747.6	0	192850	192850	
19782.2	0	193008	193008	
19816.8	0	193124	193124	
19851.5	0	193251	193251	
19886.1	0	193426	193426	
19920.7	0	193603	193603	
19955.4	0	193802	193802	
19990	0	193971	193971	
20024.6	0	194112	194112	
20059.3	0	194215	194215	
20093.9	0	194436	194436	
20128.5	0	194634	194634	
20163.2	0	194842	194842	
20197.8	0	194983	194983	
20232.4	0	195168	195168	
20267.1	0	195306	195306	
20301.7	0	195454	195454	
20336.4	0	195653	195653	
20371	0	195826	195826	
20405.6	0	196028	196028	
20440.3	0	196149	196149	
20474.9	0	196332	196332	
20509.5	9.09495e-13	196438	196438	
20544.2	9.09495e-13	196586	196586	
20578.8	1.81899e-12	196821	196821	
20613.4	2.72848e-12	196992	196992	
20648.1	2.72848e-12	197142	197142	
20682.7	3.63798e-12	197309	197309	
20717.3	4.54747e-12	197463	197463	
20752	5.45697e-12	197591	197591	
20786.6	6.36646e-12	197731	197731	
20821.2	7.27596e-12	197920	197920	
20855.9	8.18545e-12	198132	198132	
20890.5	9.09495e-12	198268	198268	
20925.1	1.00044e-11	198407	198407	
20959.8	1.09139e-11	198572	198572	
20994.4	1.18234e-11	198779	198779	
21029.1	1.36424e-11	198922	198922	
21063.7	1.54614e-11	199070	199070	
21098.3	1.72804e-11	199231	199231	
21133	1.90994e-11	199338	199338	
21167.6	2.09184e-11	199497	199497	
21202.2	2.36469e-11	199664	199664	
21236.9	2.63753e-11	199782	199782	
21271.5	3.00133e-11	199931	199931	
21306.1	3.36513e-11	200049	200049	
21340.8	3.72893e-11	200189	200189	
21375.4	4.18368e-11	200311	200311	
21410	4.72937e-11	200488	200488	
21444.7	5.27507e-11	200592	200592	
21479.3	5.91172e-11	200716	200716	
21513.9	6.63931e-11	200888	200888	
21548.6	7.36691e-11	201067	201067	
21583.2	8.2764e-11	201246	201246	
21617.8	9.27685e-11	201377	201377	
21652.5	1.03682e-10	201473	201473	
21687.1	1.15506e-10	201579	201579	
21721.7	1.29148e-10	201739	201739	
21756.4	1.4461e-10	201933	201933	
21791	1.6189e-10	202122	202122	
21825.7	1.80989e-10	202318	202318	
21860.3	2.01908e-10	202434	202434	
21894.9	2.25555e-10	202592	202592	
21929.6	2.51021e-10	202693	202693	
21964.2	2.80124e-10	202814	202814	
21998.8	3.11957e-10	202956	202956	
22033.5	3.47427e-10	203104	203104	
22068.1	3.86535e-10	203265	203265	
22102.7	4.29281e-10	203430	203430	
22137.4	4.77485e-10	203601	203601	
22172	5.30235e-10	203809	203809	
22206.6	5.88443e-10	203957	203957	
22241.3	6.53017e-10	204087	204087	
22275.9	7.23958e-10	204278	204278	
22310.5	8.02174e-10	204412	204412	
22345.2	8.88576e-10	204545	204545	
22379.8	9.84073e-10	204673	204673	
22414.4	1.08867e-09	204819	204819	
22449.1	1.20417e-09	204951	204951	
22483.7	1.33059e-09	205152	205152	
22518.4	1.46883e-09	205251	205251	
22553	1.62163e-09	205429	205429	
22587.6	1.78898e-09	205569	205569	
22622.3	1.97178e-09	205708	205708	
22656.9	2.17278e-09	205840	205840	
22691.5	2.39288e-09	206030	206030	
22726.2	2.6339e-09	206193	206193	
22760.8	2.89765e-09	206319	206319	
22795.4	3.18596e-09	206444	206444	
22830.1	3.50065e-09	206582	206582	
22864.7	3.84443e-09	206716	206716	
22899.3	4.22006e-09	206883	206883	
22934	4.62933e-09	207105	207105	
22968.6	5.07589e-09	207257	207257	
23003.2	5.56247e-09	207373	207373	
23037.9	6.0918e-09	207486	207486	
23072.5	6.66842e-09	207642	207642	
23107.1	7.29688e-09	207841	207841	
23141.8	7.97991e-09	208046	208046	
23176.4	8.72205e-09	208199	208199	
23211.1	9.52787e-09	208315	208315	
23245.7	1.04028e-08	208388	208388	
23280.3	1.13523e-08	208492	208492	
23315	1.23828e-08	208700	208700	
23349.6	1.34996e-08	208875	208875	
23384.2	1.47093e-08	209111	209111	
23418.9	1.60189e-08	209214	209214	
23453.5	1.74368e-08	209322	209322	
23488.1	1.89711e-08	209427	209427	
23522.8	2.06301e-08	209603	209603	
23557.4	2.24227e-08	209714	209714	
23592	2.4359e-08	209903	209903	
23626.7	2.64499e-08	210049	210049	
23661.3	2.87064e-08	210201	210201	
23695.9	3.11393e-08	210331	210331	
23730.6	3.37632e-08	210497	210497	
23765.2	3.65899e-08	210656	210656	
23799.8	3.9634e-08	210790	210790	
23834.5	4.29109e-08	210942	210942	
23869.1	4.6437e-08	211054	211054	
23903.7	5.02296e-08	211243	211243	
23938.4	5.43059e-08	211430	211430	
23973	5.86851e-08	211568	211568	
24007.7	6.33891e-08	211737	211737	
24042.3	6.84377e-08	211885	211885	
24076.9	7.38546e-08	212036	212036	
24111.6	7.96636e-08	212157	212157	
24146.2	8.58909e-08	212292	212292	
24180.8	9.25629e-08	212415	212415	
24215.5	9.97088e-08	212549	212549	
24250.1	1.07358e-07	212692	212692	
24284.7	1.15542e-07	212872	212872	
24319.4	1.24296e-07	213028	213028	
24354	1.33655e-07	213175	213175	
24388.6	1.43655e-07	213343	213343	
24423.3	1.54337e-07	213514	213514	
24457.9	1.65741e-07	213626	213626	
24492.5	1.77912e-07	213798	213798	
24527.2	1.90895e-07	213940	213940	
24561.8	2.04739e-07	214062	214062	
24596.4	2.19496e-07	214153	214153	
24631.1	2.35218e-07	214249	214249	
24665.7	2.51962e-07	214349	214349	
24700.3	2.69786e-07	214509	214509	
24735	2.88754e-07	214601	214601	
24769.6	3.08929e-07	214755	214755	
24804.3	3.3038e-07	214906	214906	
24838.9	3.5318e-07	214984	214984	
24873.5	3.77404e-07	215099	215099	
24908.2	4.03187e-07	215262	215262	
24942.9	4.30501e-07	215403	215403	
24977.5	4.59487e-07	215478	215478	
25012.1	4.90235e-07	215595	215595	
25046.8	5.22841e-07	215779	215779	
25081.4	5.57404e-07	215920	215920	
25116	5.94027e-07	216072	216072	
25150.7	6.3282e-07	216161	216161	
25185.3	6.73896e-07	216374	216374	
25219.9	7.17374e-07	216536	216536	
25254.6	7.63378e-07	216686	216686	
25289.2	8.12038e-07	216888	216888	
25323.8	8.6349e-07	217023	217023	
25358.5	9.17874e-07	217047	217047	
25393.1	9.75338e-07	217167	217167	
25427.8	1.03604e-06	217309	217309	
25462.4	1.10013e-06	217471	217471	
25497	1.16778e-06	217591	217591	
25531.7	1.23917e-06	217742	217742	
25566.3	1.31448e-06	217883	217883	
25600.9	1.39389e-06	218042	218042	
25635.6	1.4776e-06	218215	218215	
25670.2	1.56581e-06	218383	218383	
25704.8	1.65873e-06	218527	218527	
25739.5	1.75659e-06	218684	218684	
25774.1	1.8596e-06	218834	218834	
25808.7	1.968e-06	218987	218987	
25843.4	2.08204e-06	219080	219080	
25878	2.20196e-06	219229	219229	
25912.6	2.328e-06	219370	219370	
25947.3	2.46044e-06	219558	219558	
25981.9	2.59954e-06	219657	219657	
26016.5	2.74559e-06	219762	219762	
26051.2	2.89889e-06	219961	219961	
26085.8	3.05978e-06	220148	220148	
26120.4	3.22859e-06	220301	220301	
26155.1	3.40567e-06	220463	220463	
26189.7	3.59138e-06	220555	220555	
26224.3	3.78598e-06	220775	220775	
26259	3.98965e-06	220898	220898	
26293.6	4.20244e-06	221099	221099	
26328.2	4.42461e-06	221248	221248	
26362.9	4.65666e-06	221497	221497	
26397.5	4.89943e-06	221626	221626	
26432.2	5.15388e-06	221818	221818	
26466.8	5.42113e-06	222003	222003	
26501.4	5.70238e-06	222153	222153	
26536.1	5.99899e-06	222310	222310	
26570.7	6.31107e-06	222452	222452	
26605.3	6.63773e-06	222567	222567	
26640	6.97964e-06	222764	222764	
26674.6	7.33979e-06	222898	222898	
26709.2	7.96773e-06	223044	223044	
26743.9	8.55615e-06	223168	223168	
26778.5	9.09372e-06	223376	223376	
26813.1	9.5805e-06	223596	223596	
26847.8	1.00767e-05	223731	223731	
26882.4	1.06253e-05	223910	223910	
26917	1.12572e-05	224106	224106	
26951.7	1.19721e-05	224260	224260	
26986.3	1.27249e-05	224338	224338	
27020.9	1.36225e-05	224458	224458	
27055.6	1.47342e-05	224578	224578	
27090.2	1.60392e-05	224681	224681	
27124.8	1.56303e-05	224828	224828	
27159.5	1.66185e-05	224988	224988	
27194.1	1.82796e-05	225133	225133	
27228.7	2.03699e-05	225306	225306	
27263.4	2.28746e-05	225489	225489	
27298	2.56952e-05	225595	225595	
27332.6	2.88352e-05	225775	225775	
27367.3	3.22895e-05	225980	225980	
27401.9	3.59951e-05	226126	226126	
27436.5	3.93231e-05	226216	226216	
27471.2	4.36909e-05	226360	226360	
27505.8	4.87706e-05	226450	226450	
27540.4	5.44897e-05	226586	226586	
27575.1	6.07853e-05	226818	226818	
27609.7	6.76375e-05	227001	227001	
27644.3	7.50472e-05	227204	227204	
27679	8.30561e-05	227366	227366	
27713.6	9.17363e-05	227498	227498	
27748.3	0.000101174	227629	227629	
27782.9	0.000111459	227732	227732	
27817.5	0.000122685	227856	227856	
27852.2	0.000134948	228021	228021	
27886.8	0.000148334	228174	228174	
27921.4	0.000162916	228353	228353	
27956.1	0.000178806	228524	228524	
27990.7	0.000196142	228665	228665	
28025.3	0.000215055	228870	228870	
28060	0.000235666	228995	228995	
28094.6	0.000258094	229158	229158	
28129.2	0.000282463	229365	229365	
28163.9	0.000308906	229472	229472	
28198.5	0.000337568	229658	229658	
28233.1	0.000368602	229813	229813	
28267.8	0.000402172	229937	229937	
28302.4	0.000438449	230075	230075	
28337	0.000477618	230216	230216	
28371.7	0.00051988	230348	230348	
28406.3	0.000565446	230423	230423	
28440.9	0.000614541	230542	230542	
28475.6	0.0006674	230792	230792	
28510.2	0.000724263	230903	230903	
28544.8	0.000785377	231055	231055	
28579.5	0.000850996	231185	231185	
28614.1	0.00092138	231291	231291	
28648.7	0.000996794	231392	231392	
28683.4	0.00107751	231473	231473	
28718	0.00116382	231571	231571	
28752.6	0.001256	231677	231677	
28787.3	0.00135436	231814	231814	
28821.9	0.00145918	231951	231951	
28856.5	0.00157079	232078	232078	
28891.2	0.00168949	232254	232254	
28925.8	0.00181559	232404	232404	
28960.4	0.00194942	232570	232570	
28995.1	0.00209129	232708	232708	
29029.7	0.00224153	232790	232790	
29064.3	0.00240045	232846	232846	
29099	0.00256835	232956	232956	
29133.6	0.00274556	233018	233018	
29168.2	0.00293237	233155	233155	
29202.9	0.00312906	233363	233363	
29237.5	0.00333593	233539	233539	
29272.1	0.00355322	233596	233596	
29306.8	0.00378121	233709	233709	
29341.4	0.00402011	233810	233810	
29376	0.00427016	233965	233965	
29410.7	0.00453155	234136	234136	
29445.3	0.00480446	234284	234284	
29479.9	0.00508905	234408	234408	
29514.6	0.00538544	234580	234580	
29549.2	0.00569375	234676	234676	
29583.8	0.00601403	234803	234803	
29618.5	0.00634634	234898	234898	
29653.1	0.00669066	235027	235027	
29687.7	0.00704698	235108	235108	
29722.4	0.00741521	235238	235238	
29757	0.00779524	235422	235422	
29791.6	0.00818692	235587	235587	
29826.3	0.00859003	235733	235733	
29860.9	0.00900435	235949	235949	
29895.5	0.00942958	236066	236066	
29930.2	0.00986537	236253	236253	
29964.8	0.0103113	236362	236362	
29999.4	0.0107671	236496	236496	
30034.1	0.011232	236667	236667	
30068.7	0.0117057	236804	236804	
30103.3	0.0121876	236948	236948	
30138	0.0126769	237089	237089	
30172.6	0.013173	237166	237166	
30207.2	0.0136752	237248	237248	
30241.9	0.0141827	237429	237429	
30276.5	0.0146946	237582	237582	
30311.1	0.0152101	237791	237791	
30345.8	0.0157282	238023	238023	
30380.4	0.016248	238161	238161	
30415	0.0167684	238340	238340	
30449.7	0.0172883	238431	238431	
30484.3	0.0178068	238570	238570	
30518.9	0.0183226	238739	238739	
30553.5	0.0188347	238980	238980	
30588.2	0.0193417	239116	239116	
30622.8	0.0198426	239270	239270	
30657.4	0.0203361	239402	239402	
30692.1	0.0208209	239569	239569	
30726.7	0.0212958	239694	239694	
30761.3	0.0217596	239842	239842	
30796	0.0222109	240057	240057	
30830.6	0.0226486	240275	240275	
30865.2	0.0230712	240388	240388	
30899.9	0.0234777	240586	240586	
30934.5	0.0238668	240719	240719	
30969.1	0.0242371	240901	240901	
31003.7	0.0245876	240970	240970	
31038.4	0.0249171	241049	241049	
31073	0.0252245	241144	241144	
31107.6	0.0255085	241263	241263	
31142.3	0.0257683	241395	241395	
31176.9	0.0260028	241550	241550	
31211.5	0.026211	241680	241680	
31246.2	0.0263921	241843	241843	
31280.8	0.0265451	242019	242019	
31315.4	0.0266694	242170	242170	
31350.1	0.0267642	242271	242271	
31384.7	0.0268288	242356	242356	
31419.3	0.0268627	242490	242490	
31454	0.0268654	242665	242665	
31488.6	0.0268365	242830	242830	
31523.2	0.0267756	242943	242943	
31557.9	0.0266825	243038	243038	
31592.5	0.026557	243060	243060	
31627.1	0.026399	243161	243161	
31661.7	0.0262084	243378	243378	
31696.4	0.0259854	243537	243537	
31731	0.0257302	243670	243670	
31765.6	0.0254428	243763	243763	
31800.3	0.0251238	243923	243923	
31834.9	0.0247734	244092	244092	
31869.5	0.0243922	244245	244245	
31904.2	0.0239808	244391	244391	
31938.8	0.0235397	244455	244455	
31973.4	0.0230697	244573	244573	
32008.1	0.0225716	244669	244669	
32042.7	0.0220463	244814	244814	
32077.3	0.0214946	245053	245053	
32112	0.0209176	245284	245284	
32146.6	0.0203163	245469	245469	
32181.2	0.0196918	245612	245612	
32215.8	0.0190453	245777	245777	
32250.5	0.0183781	245858	245858	
32285.1	0.0176912	245995	245995	
32319.7	0.0169861	246099	246099	
32354.4	0.0162641	246191	246191	
32389	0.0155265	246298	246298	
32423.6	0.0147748	246489	246489	
32458.3	0.0140102	246669	246669	
32492.9	0.0132344	246748	246748	
32527.5	0.0124486	246934	246934	
32562.2	0.0116544	247218	247218	
32596.8	0.0108532	247397	247397	
32631.4	0.0100464	247556	247556	
32666.1	0.00923555	247697	247697	
32700.7	0.00842205	247796	247796	
32735.3	0.00760732	247962	247962	
32769.9	0.00679278	248062	248062	
32804.6	0.00597983	248134	248134	
32839.2	0.00516982	248347	248347	
32873.8	0.0043641	248580	248580	
32908.5	0.00356398	248773	248773	
32943.1	0.00277074	248931	248931	
32977.7	0.0019856	249098	249098	
33012.4	0.00120978	249245	249245	
33047	0.00044442	249374	249374	
33081.6	-0.000309354	249538	249538	
33116.3	-0.00105048	249676	249676	
33150.9	-0.00177794	249793	249793	
33185.5	-0.00249076	249955	249955	
33220.2	-0.00318804	250171	250171	
33254.8	-0.00386889	250376	250376	
33289.4	-0.00453251	250625	250625	
33324	-0.00517815	250783	250783	
33358.7	-0.0058051	250943	250943	
33393.3	-0.00641271	251104	251104	
33427.9	-0.00700039	251207	251207	
33462.6	-0.00756761	251337	251337	
33497.2	-0.00811389	251487	251487	
33531.8	-0.00863879	251563	251563	
33566.5	-0.00914197	251696	251696	
33601.1	-0.00962308	251854	251854	
33635.7	-0.0100819	251994	251994	
33670.4	-0.0105182	252206	252206	
33705	-0.0109318	252411	252411	
33739.6	-0.0113226	252599	252599	
33774.2	-0.0116905	252710	252710	
33808.9	-0.0120356	252899	252899	
33843.5	-0.0123578	252999	252999	
33878.1	-0.0126573	253151	253151	
33912.8	-0.012934	253298	253298	
33947.4	-0.0131883	253454	253454	
33982	-0.0134202	253632	253632	
34016.7	-0.0136301	253798	253798	
34051.3	-0.0138182	253939	253939	
34085.9	-0.0139848	254066	254066	
34120.6	-0.0141304	254250	254250	
34155.2	-0.0142554	254397	254397	
34189.8	-0.0143604	254532	254532	
34224.4	-0.014446	254661	254661	
34259.1	-0.0145128	254781	254781	
34293.7	-0.0145597	254851	254851	
34328.3	-0.0145874	254994	254994	
34363	-0.0145916	255213	255213	
34397.6	-0.0145934	255362	255362	
34432.2	-0.0145583	255449	255449	
34466.9	-0.0145047	255729	255729	
34501.5	-0.0144568	255961	255961	
34536.1	-0.0144073	256122	256122	
34570.8	-0.0143342	256243	256243	
34605.4	-0.0142347	256418	256418	
34640	-0.0141226	256533	256533	
34674.6	-0.0140024	256676	256676	
34709.3	-0.0138694	256789	256789	
34743.9	-0.013702	256959	256959	
34778.5	-0.01357	257169	257169	
34813.2	-0.0134132	257332	257332	
34847.8	-0.0132326	257481	257481	
34882.4	-0.0130395	257679	257679	
34917.1	-0.012838	257827	257827	
34951.7	-0.0126357	257981	257981	
34986.3	-0.0124281	258193	258193	
35021	-0.0122141	258367	258367	
35055.6	-0.0119909	258561	258561	
35090.2	-0.0117607	258627	258627	
35124.8	-0.0115238	258815	258815	
35159.5	-0.0112829	259040	259040	
35194.1	-0.0110393	259159	259159	
35228.7	-0.0107921	259319	259319	
35263.4	-0.0105446	259380	259380	
35298	-0.0102983	259510	259510	
35332.6	-0.0100522	259700	259700	
35367.3	-0.00980489	259837	259837	
35401.9	-0.00955597	260053	260053	
35436.5	-0.00930582	260186	260186	
35471.1	-0.00905501	260340	260340	
35505.8	-0.00880413	260507	260507	
35540.4	-0.00855353	260689	260689	
35575	-0.00830356	260888	260888	
35609.7	-0.0080547	261047	261047	
35644.3	-0.00780754	261241	261241	
35678.9	-0.00756276	261398	261398	
35713.6	-0.00732085	261662	261662	
35748.2	-0.00708239	261723	261723	
35782.8	-0.00684783	261821	261821	
35817.5	-0.00661739	261991	261991	
35852.1	-0.00639107	262205	262205	
35886.7	-0.00616879	262375	262375	
35921.3	-0.0059505	262538	262538	
35956	-0.0057362	262679	262679	
35990.6	-0.00552591	262828	262828	
36025.2	-0.00531972	262992	262992	
36059.9	-0.0051177	263145	263145	
36094.5	-0.00491999	263269	263269	
36129.1	-0.00472673	263455	263455	
36163.8	-0.00453807	263635	263635	
36198.4	-0.00435413	263786	263786	
36233	-0.00417497	263955	263955	
36267.6	-0.00400062	264177	264177	
36302.3	-0.00383105	264370	264370	
36336.9	-0.00366624	264509	264509	
36371.5	-0.00350613	264575	264575	
36406.2	-0.00335071	264666	264666	
36440.8	-0.00319996	264810	264810	
36475.4	-0.00305389	265031	265031	
36510.1	-0.00291248	265196	265196	
36544.7	-0.00277568	265360	265360	
36579.3	-0.00264341	265501	265501	
36613.9	-0.00251551	265657	265657	
36648.6	-0.00239183	265794	265794	
36683.2	-0.00227214	265960	265960	
36717.8	-0.00215621	266119	266119	
36752.5	-0.00204381	266256	266256	
36787.1	-0.00193473	266452	266452	
36821.7	-0.00182877	266622	266622	
36856.4	-0.00172575	266795	266795	
36891	-0.00162552	266956	266956	
36925.6	-0.00152794	267123	267123	
36960.2	-0.00143287	267273	267273	
36994.9	-0.00134014	267464	267464	
37029.5	-0.0012496	267674	267674	
37064.1	-0.00116105	267816	267816	
37098.8	-0.00107428	267901	267901	
37133.4	-0.000989088	268039	268039	
37168	-0.000905243	268239	268239	
37202.7	-0.000822533	268428	268428	
37237.3	-0.000740756	268625	268625	
37271.9	-0.000659723	268758	268758	
37306.5	-0.000579259	268929	268929	
37341.2	-0.000499205	269094	269094	
37375.8	-0.000419411	269258	269258	
37410.4	-0.000339734	269393	269393	
37445.1	-0.000260034	269541	269541	
37479.7	-0.000180175	269661	269661	
37514.3	-0.000100021	269783	269783	
37549	-1.94394e-05	269944	269944	
37583.6	6.16988e-05	270156	270156	
37618.2	0.000143515	270315	270315	
37652.8	0.000226122	270407	270407	
37687.5	0.000309623	270559	270559	
37722.1	0.000394109	270656	270656	
37756.7	0.000479658	270805	270805	
37791.4	0.000566338	271040	271040	
37826	0.000654203	271207	271207	
37860.6	0.000743292	271363	271363	
37895.3	0.000833634	271601	271601	
37929.9	0.000925241	271693	271693	
37964.5	0.00101811	271859	271859	
37999.1	0.00111223	271996	271996	
38033.8	0.00120756	272176	272176	
38068.4	0.00130407	272336	272336	
38103	0.00140168	272532	272532	
38137.7	0.00150033	272663	272663	
38172.3	0.00159993	272872	272872	
38206.9	0.00170039	273032	273032	
38241.6	0.0018016	273181	273181	
38276.2	0.00190345	273241	273241	
38310.8	0.0020058	273362	273362	
38345.4	0.00210853	273513	273513	
38380.1	0.00221148	273772	273772	
38414.7	0.0023145	273942	273942	
38449.3	0.00241743	274152	274152	
38484	0.00252007	274269	274269	
38518.6	0.00262224	274413	274413	
38553.2	0.00272375	274579	274579	
38587.8	0.00282439	274758	274758	
38622.5	0.00292394	274875	274875	
38657.1	0.00302218	275047	275047	
38691.7	0.00311888	275182	275182	
38726.4	0.00321383	275327	275327	
38761	0.00330677	275402	275402	
38795.6	0.00339747	275601	275601	
38830.3	0.00348569	275789	275789	
38864.9	0.0035712	276002	276002	
38899.5	0.00365375	276190	276190	
38934.1	0.00373309	276353	276353	
38968.8	0.00380899	276548	276548	
39003.4	0.00388122	276806	276806	
39038	0.00394952	276900	276900	
39072.7	0.00401367	277068	277068	
39107.3	0.00407343	277250	277250	
39141.9	0.00412857	277424	277424	
39176.5	0.00417887	277552	277552	
39211.2	0.00422411	277782	277782	
39245.8	0.00426407	277910	277910	
39280.4	0.00429855	278103	278103	
39315.1	0.00432734	278239	278239	
39349.7	0.00435026	278457	278457	
39384.3	0.00436712	278582	278582	
39419	0.00437776	278781	278781	
39453.6	0.00438201	278961	278961	
39488.2	0.00437972	279146	279146	
39522.8	0.00437077	279282	279282	
39557.5	0.00435504	279448	279448	
39592.1	0.0043324	279594	279594	
39626.7	0.00430277	279758	279758	
39661.4	0.00426606	279954	279954	
39696	0.00422221	280106	280106	
39730.6	0.00417115	280213	280213	
39765.2	0.00411286	280383	280383	
39799.9	0.0040473	280529	280529	
39834.5	0.00397446	280664	280664	
39869.1	0.00389434	280818	280818	
39903.8	0.00380697	280919	280919	
39938.4	0.00371237	281057	281057	
39973	0.00361059	281221	281221	
40007.6	0.0035017	281420	281420	
40042.3	0.00338576	281689	281689	
40076.9	0.00326288	281857	281857	
40111.5	0.00313316	282028	282028	
40146.2	0.00299672	282193	282193	
40180.8	0.0028537	282382	282382	
40215.4	0.00270424	282470	282470	
40250.1	0.00254851	282582	282582	
40284.7	0.0023867	282759	282759	
40319.3	0.00221898	282908	282908	
40353.9	0.00204556	282999	282999	
40388.6	0.00186666	283183	283183	
40423.2	0.00168251	283390	283390	
40457.8	0.00149334	283600	283600	
40492.5	0.00129941	283862	283862	
40527.1	0.00110097	284078	284078	
40561.7	0.000898306	284192	284192	
40596.3	0.000691686	284376	284376	
40631	0.000481405	284474	284474	
40665.6	0.000267762	284605	284605	
40700.2	5.10629e-05	284746	284746	
40734.9	-0.000168379	284856	284856	
40769.5	-0.000390244	285095	285095	
40804.1	-0.000614207	285329	285329	
40838.7	-0.000839935	285500	285500	
40873.4	-0.0010671	285719	285719	
40908	-0.00129535	285843	285843	
40942.6	-0.00152435	286023	286023	
40977.3	-0.00175376	286255	286255	
41011.9	-0.00198324	286356	286356	
41046.5	-0.00221242	286485	286485	
41081.1	-0.00244098	286645	286645	
41115.8	-0.00266856	286833	286833	
41150.4	-0.00289481	286961	286961	
41185	-0.0031194	287089	287089	
41219.7	-0.00334197	287198	287198	
41254.3	-0.00356221	287378	287378	
41288.9	-0.00377976	287516	287516	
41323.6	-0.0039943	287710	287710	
41358.2	-0.0042055	287855	287855	
41392.8	-0.00441305	288054	288054	
41427.4	-0.00461663	288255	288255	
41462.1	-0.00481593	288343	288343	
41496.7	-0.00501066	288442	288442	
41531.3	-0.00520052	288540	288540	
41566	-0.00538523	288713	288713	
41600.6	-0.00556452	288893	288893	
41635.2	-0.00573812	289040	289040	
41669.8	-0.00590577	289249	289249	
41704.5	-0.00606724	289391	289391	
41739.1	-0.00622229	289547	289547	
41773.7	-0.0063707	289691	289691	
41808.4	-0.00651225	289839	289839	
41843	-0.00664676	290018	290018	
41877.6	-0.00677402	290175	290175	
41912.2	-0.00689388	290311	290311	
41946.9	-0.00700615	290463	290463	
41981.5	-0.00711068	290549	290549	
42016.1	-0.00720732	290709	290709	
42050.8	-0.00729595	290879	290879	
42085.4	-0.00737645	291043	291043	
42120	-0.00744873	291210	291210	
42154.6	-0.00751272	291374	291374	
42189.3	-0.00756839	291528	291528	
42223.9	-0.0076157	291610	291610	
42258.5	-0.00765469	291682	291682	
42293.2	-0.00768538	291829	291829	
42327.8	-0.00770781	292051	292051	
42362.4	-0.00772201	292206	292206	
42397	-0.00772802	292330	292330	
42431.7	-0.00772588	292557	292557	
42466.3	-0.00771562	292656	292656	
42500.9	-0.00769728	292796	292796	
42535.6	-0.00767092	292983	292983	
42570.2	-0.00763661	293157	293157	
42604.8	-0.00759461	293335	293335	
42639.4	-0.00754571	293520	293520	
42674.1	-0.00748977	293648	293648	
42708.7	-0.00742433	293840	293840	
42743.3	-0.00735115	293965	293965	
42778	-0.00727058	294138	294138	
42812.6	-0.00718334	294356	294356	
42847.2	-0.00709018	294610	294610	
42881.8	-0.00699002	294736	294736	
42916.5	-0.00688416	294877	294877	
42951.1	-0.00677285	295018	295018	
42985.7	-0.00665686	295273	295273	
43020.4	-0.00653488	295419	295419	
43055	-0.00640656	295552	295552	
43089.6	-0.0062727	295753	295753	
43124.2	-0.00613431	296007	296007	
43158.9	-0.00599208	296197	296197	
43193.5	-0.00584634	296471	296471	
