0	0	33616	33616	
76.2883	0	33612	33612	
152.577	0	33584	33584	
228.909	0	33740	33740	
305.197	0	33766	33766	
381.486	0	33856	33856	
457.609	0	33922	33922	
533.733	0	34004	34004	
609.857	0	34060	34060	
685.98	0	34116	34116	
762.104	0	34186	34186	
838.285	0	34256	34256	
914.465	0	34332	34332	
990.565	0	34412	34412	
1066.56	0	34488	34488	
1142.4	0	34526	34526	
1218.24	0	34592	34592	
1294.08	0	34642	34642	
1369.92	0	34714	34714	
1445.76	0	34770	34770	
1521.6	0	34876	34876	
1597.28	0	34926	34926	
1672.97	0	34958	34958	
1748.57	0	35014	35014	
1823.96	0	35078	35078	
1899.34	0	35094	35094	
1974.73	0	35136	35136	
2050.11	0	35198	35198	
2125.4	0	35280	35280	
2200.68	0	35342	35342	
2275.72	0	35402	35402	
2350.71	0	35456	35456	
2419.92	0	35466	35466	
2489.12	0	35524	35524	
2558.33	0	35574	35574	
2627.53	0	35612	35612	
2696.74	0	35668	35668	
2765.95	0	35728	35728	
2835.15	0	35778	35778	
2904.36	0	35824	35824	
2973.56	0	35894	35894	
3042.77	0	35946	35946	
3108.65	0	35954	35954	
3174.52	0	35980	35980	
3239.14	0	36058	36058	
3303.75	0	36120	36120	
3368.36	0	36132	36132	
3432.98	0	36156	36156	
3497.59	0	36196	36196	
3562.2	0	36228	36228	
3626.82	0	36266	36266	
3691.43	0	36312	36312	
3756.05	0	36358	36358	
3820.66	0	36414	36414	
3885.27	0	36478	36478	
3949.89	0	36552	36552	
4014.5	0	36590	36590	
4079.12	0	36634	36634	
4143.73	0	36660	36660	
4208.34	0	36690	36690	
4272.96	0	36740	36740	
4337.57	0	36794	36794	
4402.19	0	36846	36846	
4466.8	0	36876	36876	
4531.41	0	36908	36908	
4596.03	0	36952	36952	
4660.64	0	36984	36984	
4725.26	0	37038	37038	
4789.87	0	37070	37070	
4854.48	0	37136	37136	
4919.1	0	37186	37186	
4983.71	0	37226	37226	
5048.33	0	37280	37280	
5112.94	0	37304	37304	
5177.55	0	37320	37320	
5242.17	0	37356	37356	
5306.78	0	37402	37402	
5371.39	0	37472	37472	
5436.01	0	37524	37524	
5500.62	0	37576	37576	
5565.24	0	37596	37596	
5629.85	0	37642	37642	
5694.46	0	37690	37690	
5759.08	0	37718	37718	
5823.69	0	37748	37748	
5888.31	0	37784	37784	
5952.92	0	37802	37802	
6017.53	0	37834	37834	
6082.15	0	37890	37890	
6146.76	0	37902	37902	
6211.38	0	37906	37906	
6275.99	0	37924	37924	
6340.6	0	37962	37962	
6405.22	0	38008	38008	
6469.83	0	38040	38040	
6534.45	0	38074	38074	
6599.06	0	38128	38128	
6663.67	0	38136	38136	
6728.29	0	38188	38188	
6792.9	0	38238	38238	
6857.53	0	38258	38258	
6922.16	0	38310	38310	
6986.79	0	38346	38346	
7051.42	0	38386	38386	
7116.05	0	38430	38430	
7180.68	0	38470	38470	
7245.31	0	38488	38488	
7312.82	0	38528	38528	
7380.33	0	38572	38572	
7447.99	0	38604	38604	
7515.64	0	38648	38648	
7583.29	0	38688	38688	
7651.97	0	38721	38721	
7720.64	0	38725	38725	
7789.31	0	38758	38758	
7857.98	0	38796	38796	
7926.65	0	38838	38838	
7995.32	0	38883	38883	
8064.32	4.54747e-13	38901	38901	
8133.32	4.54747e-13	38928	38928	
8202.32	9.09495e-13	38968	38968	
8271.31	1.36424e-12	38974	38974	
8340.31	1.81899e-12	39000	39000	
8409.31	2.27374e-12	39014	39014	
8478.31	3.18323e-12	39058	39058	
8547.3	4.09273e-12	39087	39087	
8616.3	5.00222e-12	39137	39137	
8685.3	6.36646e-12	39171	39171	
8754.53	8.18545e-12	39217	39217	
8823.75	1.00044e-11	39269	39269	
8893.65	1.22782e-11	39301	39301	
8963.54	1.54614e-11	39345	39345	
9033.44	1.90994e-11	39379	39379	
9103.33	2.31921e-11	39413	39413	
9173.22	2.86491e-11	39453	39453	
9243.12	3.50155e-11	39486	39486	
9313.01	4.27463e-11	39524	39524	
9377.63	5.13865e-11	39596	39596	
9442.24	6.13909e-11	39619	39619	
9506.86	7.32143e-11	39659	39659	
9571.49	8.68567e-11	39691	39691	
9636.12	1.02773e-10	39748	39748	
9700.75	1.21418e-10	39794	39794	
9765.38	1.42791e-10	39808	39808	
9830.01	1.67802e-10	39854	39854	
9894.64	1.96451e-10	39882	39882	
9959.27	2.29647e-10	39928	39928	
10023.9	2.67391e-10	39936	39936	
10088.5	3.10592e-10	39964	39964	
10153.2	3.6016e-10	39994	39994	
10217.8	4.16094e-10	40034	40034	
10282.4	4.79758e-10	40086	40086	
10347	5.52063e-10	40148	40148	
10411.7	6.33918e-10	40190	40190	
10483	7.35781e-10	40264	40264	
10547.6	8.40828e-10	40322	40322	
10612.2	9.58607e-10	40376	40376	
10676.8	1.09048e-09	40428	40428	
10741.4	1.23828e-09	40462	40462	
10806.1	1.4029e-09	40490	40490	
10870.7	1.58616e-09	40518	40518	
10935.3	1.78989e-09	40564	40564	
10999.9	2.0159e-09	40590	40590	
11073	2.29875e-09	40664	40664	
11142.2	2.59843e-09	40720	40720	
11211.4	2.93085e-09	40782	40782	
11280.7	3.29919e-09	40820	40820	
11349.9	3.70665e-09	40898	40898	
11417.4	4.14502e-09	40986	40986	
11482	4.60614e-09	41024	41024	
11546.6	5.11045e-09	41064	41064	
11611.2	5.66115e-09	41126	41126	
11679.9	6.29871e-09	41182	41182	
11748.6	6.99583e-09	41214	41214	
11817.2	7.75708e-09	41290	41290	
11885.9	8.58699e-09	41314	41314	
11954.6	9.49058e-09	41370	41370	
12023.2	1.04724e-08	41442	41442	
12091.9	1.15383e-08	41514	41514	
12160.6	1.26938e-08	41540	41540	
12229.8	1.39544e-08	41596	41596	
12299	1.53177e-08	41670	41670	
12368.2	1.67911e-08	41708	41708	
12435.7	1.83418e-08	41800	41800	
12503.2	2.00102e-08	41862	41862	
12570.7	2.18038e-08	41910	41910	
12638.2	2.37292e-08	41968	41968	
12707.4	2.58465e-08	42014	42014	
12776.6	2.81188e-08	42088	42088	
12845.9	3.05554e-08	42166	42166	
12915.1	3.31656e-08	42234	42234	
12984.3	3.59591e-08	42326	42326	
13053.5	3.89464e-08	42394	42394	
13122.7	4.21378e-08	42438	42438	
13191.9	4.55443e-08	42528	42528	
13261.1	4.91777e-08	42600	42600	
13330.3	5.30495e-08	42676	42676	
13399.5	5.71713e-08	42728	42728	
13468.7	6.15564e-08	42790	42790	
13542.1	6.64986e-08	42858	42858	
13615.5	7.17664e-08	42938	42938	
13688.8	7.73753e-08	43034	43034	
13762.2	8.33411e-08	43116	43116	
13835.6	8.96812e-08	43156	43156	
13911.9	9.66788e-08	43202	43202	
13988.2	1.04117e-07	43272	43272	
14064.5	1.12015e-07	43390	43390	
14140.8	1.2039e-07	43444	43444	
14217	1.29261e-07	43506	43506	
14293.3	1.38647e-07	43582	43582	
14369.6	1.48563e-07	43654	43654	
14445.9	1.59026e-07	43760	43760	
14522.2	1.70051e-07	43854	43854	
14598.5	1.81652e-07	43944	43944	
14674.8	1.93841e-07	44028	44028	
14751.1	2.06629e-07	44108	44108	
14827.4	2.20024e-07	44208	44208	
14903.6	2.34033e-07	44288	44288	
14979.9	2.48659e-07	44400	44400	
15056.2	2.63906e-07	44498	44498	
15132.5	2.79771e-07	44596	44596	
15205.9	2.95625e-07	44732	44732	
15275.1	3.11104e-07	44818	44818	
15344.3	3.27073e-07	44902	44902	
15413.5	3.43523e-07	45008	45008	
15482.7	3.60439e-07	45102	45102	
15551.9	3.77806e-07	45200	45200	
15621.1	3.95606e-07	45280	45280	
15693.8	4.14733e-07	45362	45362	
15766.5	4.34288e-07	45444	45444	
15839.2	4.54238e-07	45554	45554	
15911.9	4.74548e-07	45650	45650	
15984.6	4.9518e-07	45736	45736	
16057.3	5.1609e-07	45850	45850	
16130	5.37231e-07	45960	45960	
16202.7	5.58552e-07	46036	46036	
16275.4	5.79997e-07	46138	46138	
16348	6.01503e-07	46222	46222	
16421.4	6.23211e-07	46308	46308	
16494.7	6.44809e-07	46378	46378	
16568	6.66253e-07	46444	46444	
16641.2	6.87456e-07	46533	46533	
16714.5	7.08328e-07	46651	46651	
16787.7	7.2877e-07	46782	46782	
16861	7.48677e-07	46876	46876	
16934.3	7.67934e-07	46974	46974	
17007.5	7.86419e-07	47066	47066	
17080.8	8.03998e-07	47122	47122	
17157.1	8.21209e-07	47224	47224	
17233.4	8.37116e-07	47324	47324	
17309.7	8.5154e-07	47387	47387	
17386	8.64295e-07	47478	47478	
17462.3	8.75188e-07	47569	47569	
17538.5	8.84008e-07	47651	47651	
17614.8	8.90515e-07	47730	47730	
17691.1	8.94445e-07	47818	47818	
17764.4	8.95465e-07	47951	47951	
17829	8.93775e-07	48038	48038	
17893.6	8.89673e-07	48143	48143	
17958.2	8.83016e-07	48240	48240	
18022.8	8.73674e-07	48298	48298	
18092	8.60725e-07	48365	48365	
18161.2	8.44407e-07	48428	48428	
18233.9	8.2334e-07	48537	48537	
18306.6	7.9828e-07	48598	48598	
18379.3	7.67154e-07	48663	48663	
18452	7.30748e-07	48772	48772	
18525.4	6.86556e-07	48878	48878	
18598.8	6.36761e-07	48956	48956	
18672.1	5.77157e-07	49037	49037	
18745.5	5.01002e-07	49147	49147	
18818.9	4.05064e-07	49221	49221	
18892.2	1.59647e-07	49297	49297	
18965.4	6.20585e-08	49410	49410	
19037.9	-1.31781e-07	49449	49449	
19110.3	-4.01736e-07	49528	49528	
19182.8	-7.6303e-07	49646	49646	
19255	-1.19388e-06	49727	49727	
19327.2	-1.68811e-06	49788	49788	
19399.4	-2.24293e-06	49860	49860	
19471.3	-2.8269e-06	49909	49909	
19535.9	-3.42614e-06	49951	49951	
19600.5	-4.06682e-06	50031	50031	
19665.1	-4.75573e-06	50091	50091	
19729.7	-5.48489e-06	50146	50146	
19794.4	-6.2439e-06	50246	50246	
19866.2	-7.10319e-06	50312	50312	
19938.1	-7.95091e-06	50391	50391	
20010	-8.74518e-06	50451	50451	
20081.9	-9.43025e-06	50543	50543	
20153.8	-9.93545e-06	50569	50569	
20226	-1.0174e-05	50656	50656	
20298.3	-1.0032e-05	50743	50743	
20370.5	-9.37452e-06	50866	50866	
20442.7	-8.03681e-06	50931	50931	
20515	-5.82065e-06	51029	51029	
20587.2	-2.49222e-06	51113	51113	
20659.4	2.2219e-06	51178	51178	
20731.3	8.6093e-06	51258	51258	
20803.1	1.70479e-05	51347	51347	
20867.8	2.68516e-05	51397	51397	
20932.4	3.9031e-05	51524	51524	
20997	5.39752e-05	51621	51621	
21061.6	7.21173e-05	51698	51698	
21126.2	9.39361e-05	51750	51750	
21198.1	0.000122881	51803	51803	
21270	0.000157741	51857	51857	
21341.8	0.000199379	51917	51917	
21413.7	0.000248738	52031	52031	
21485.6	0.000306842	52133	52133	
21557.4	0.000374791	52235	52235	
21629.3	0.000453766	52275	52275	
21701.2	0.000545019	52333	52333	
21773.1	0.000649875	52416	52416	
21844.9	0.000769719	52513	52513	
21916.8	0.000905993	52569	52569	
21988.7	0.00106019	52629	52629	
22060.5	0.00123382	52719	52719	
22132.4	0.00142845	52794	52794	
22204.3	0.00164562	52893	52893	
22276.2	0.00188688	52957	52957	
22340.8	0.00212679	53042	53042	
22405.4	0.0023886	53091	53091	
22470	0.00267331	53167	53167	
22534.6	0.0029819	53212	53212	
22606.5	0.0033527	53320	53320	
22678.4	0.00375513	53398	53398	
22750.2	0.00419017	53475	53475	
22822.1	0.00465861	53538	53538	
22894	0.00516107	53571	53571	
22965.8	0.00569791	53633	53633	
23037.7	0.00626927	53712	53712	
23109.6	0.00687503	53797	53797	
23181.5	0.00751476	53910	53910	
23253.3	0.00818776	54008	54008	
23325.2	0.00889299	54057	54057	
23397.1	0.00962908	54163	54163	
23468.9	0.0103944	54234	54234	
23540.8	0.0111867	54307	54307	
23612.7	0.0120039	54373	54373	
23684.6	0.012843	54418	54418	
23756.4	0.0137011	54530	54530	
23828.3	0.0145746	54678	54678	
23900.2	0.01546	54754	54754	
23964.8	0.0162629	54860	54860	
24029.4	0.0170685	54905	54905	
24094	0.0178737	54937	54937	
24158.6	0.0186748	55033	55033	
24223.2	0.0194684	55111	55111	
24287.9	0.0202506	55183	55183	
24359.7	0.0211039	55256	55256	
24431.6	0.0219338	55337	55337	
24503.5	0.0227349	55397	55397	
24575.3	0.0235019	55504	55504	
24647.2	0.0242293	55571	55571	
24719.1	0.0249119	55626	55626	
24791	0.0255445	55680	55680	
24862.8	0.0261222	55786	55786	
24934.7	0.02664	55907	55907	
25006.6	0.0270934	55984	55984	
25078.4	0.0274781	56026	56026	
25150.3	0.0277902	56056	56056	
25222.2	0.028026	56133	56133	
25294.1	0.0281822	56203	56203	
25361.6	0.0282517	56251	56251	
25429.1	0.0282465	56321	56321	
25496.6	0.028165	56414	56414	
25564.1	0.028006	56534	56534	
25636	0.0277535	56638	56638	
25705.2	0.0274246	56737	56737	
25774.4	0.027013	56834	56834	
25843.6	0.0265193	56933	56933	
25909.5	0.025972	57043	57043	
25975.3	0.0253522	57159	57159	
26040	0.0246749	57200	57200	
26104.6	0.0239312	57306	57306	
26169.2	0.0231232	57371	57371	
26233.8	0.0222532	57445	57445	
26298.4	0.0213239	57530	57530	
26363	0.0203383	57598	57598	
26427.6	0.0192994	57661	57661	
26492.3	0.0182107	57764	57764	
26556.9	0.0170756	57866	57866	
26624.4	0.0158452	57954	57954	
26691.9	0.0145728	58001	58001	
26759.4	0.0132628	58069	58069	
26826.9	0.0119202	58118	58118	
26894.4	0.0105497	58195	58195	
26961.9	0.00915656	58234	58234	
27033.8	0.00765454	58303	58303	
27105.7	0.00613824	58392	58392	
27177.5	0.00461384	58530	58530	
27249.4	0.0030875	58646	58646	
27321.3	0.00156533	58745	58745	
27393.2	5.33596e-05	58832	58832	
27465	-0.00144251	58919	58919	
27536.9	-0.00291649	58992	58992	
27604.4	-0.00427521	59075	59075	
27671.9	-0.00560489	59156	59156	
27739.4	-0.00690123	59239	59239	
27806.9	-0.00816009	59308	59308	
27878.8	-0.00945619	59357	59357	
27950.7	-0.0107012	59469	59469	
28022.6	-0.0118908	59539	59539	
28094.4	-0.0130211	59610	59610	
28166.3	-0.0140886	59689	59689	
28238.2	-0.0150899	59783	59783	
28310	-0.0160221	59852	59852	
28377.6	-0.0168305	59937	59937	
28445.1	-0.0175736	59980	59980	
28512.6	-0.0182498	60091	60091	
28580.1	-0.0188575	60145	60145	
28652	-0.0194302	60222	60222	
28723.8	-0.0199225	60289	60289	
28795.7	-0.0203328	60367	60367	
28867.6	-0.0206602	60471	60471	
28939.4	-0.020904	60549	60549	
29011.3	-0.0210622	60592	60592	
29083.2	-0.0211359	60662	60662	
29155.1	-0.0211292	60744	60744	
29226.9	-0.0210462	60800	60800	
29298.8	-0.0208743	60855	60855	
29370.7	-0.020642	60938	60938	
29442.5	-0.0203496	61032	61032	
29514.4	-0.0199963	61089	61089	
29586.3	-0.0195823	61156	61156	
29658.2	-0.0191311	61243	61243	
29722.8	-0.0186724	61305	61305	
29787.4	-0.0181674	61379	61379	
29852	-0.0176109	61466	61466	
29916.6	-0.0170133	61516	61516	
29981.2	-0.0163788	61596	61596	
30045.8	-0.0157102	61700	61700	
30110.5	-0.0150074	61726	61726	
30175.1	-0.0142718	61764	61764	
30242.6	-0.0134721	61826	61826	
30310.1	-0.0126436	61868	61868	
30377.6	-0.01179	61918	61918	
30445.1	-0.0109137	61986	61986	
30512.7	-0.010018	62067	62067	
30584.5	-0.00904802	62184	62184	
30656.4	-0.00806534	62286	62286	
30728.3	-0.00707406	62401	62401	
30800.1	-0.00607807	62519	62519	
30872	-0.00508108	62571	62571	
30943.9	-0.00408669	62708	62708	
31015.8	-0.00309641	62826	62826	
31087.6	-0.00211136	62977	62977	
31155.1	-0.00119187	63125	63125	
31222.6	-0.000279935	63274	63274	
31290.2	0.000621857	63371	63371	
31357.7	0.00151058	63444	63444	
31429.5	0.00243961	63523	63523	
31501.4	0.00334694	63636	63636	
31573.3	0.00422869	63736	63736	
31645.2	0.00508087	63843	63843	
31717	0.00589979	63920	63920	
31788.9	0.00668224	64018	64018	
31856.4	0.00738042	64106	64106	
31923.9	0.00804201	64206	64206	
31991.4	0.00866526	64304	64304	
32058.9	0.00924856	64406	64406	
32130.8	0.00982556	64469	64469	
32202.7	0.0103539	64573	64573	
32274.6	0.0108359	64668	64668	
32346.4	0.0112708	64732	64732	
32418.3	0.0116568	64804	64804	
32490.2	0.0120065	64852	64852	
32562	0.0122985	64889	64889	
32633.9	0.0125424	64947	64947	
32705.8	0.0127882	65053	65053	
32777.7	0.012921	65132	65132	
32849.5	0.0130256	65194	65194	
32921.4	0.0131197	65285	65285	
32993.3	0.0131965	65359	65359	
33065.1	0.0132559	65401	65401	
33137	0.0132896	65455	65455	
33208.9	0.0132966	65505	65505	
33280.8	0.0132863	65570	65570	
33352.6	0.0132574	65587	65587	
33424.5	0.0132067	65672	65672	
33496.4	0.0131337	65792	65792	
33568.2	0.0130386	65887	65887	
33640.1	0.0129216	65955	65955	
33712	0.0127827	66049	66049	
33783.9	0.0126222	66069	66069	
33855.7	0.0124401	66111	66111	
33927.6	0.0122344	66198	66198	
33999.5	0.0120041	66221	66221	
34071.3	0.0117496	66347	66347	
34143.2	0.0114723	66426	66426	
34215.1	0.0111736	66514	66514	
34287	0.0108546	66616	66616	
34358.8	0.0105168	66695	66695	
34430.7	0.0101616	66862	66862	
34502.6	0.00979069	67033	67033	
34574.4	0.00940597	67156	67156	
34646.3	0.00900929	67290	67290	
34718.2	0.00860239	67372	67372	
34790.1	0.00818676	67454	67454	
34861.9	0.00776367	67503	67503	
34933.8	0.00733417	67589	67589	
35005.7	0.00689924	67668	67668	
35077.5	0.00645984	67808	67808	
35149.4	0.00601694	67930	67930	
35221.3	0.00557149	68028	68028	
35293.2	0.0051244	68038	68038	
35365	0.00467651	68125	68125	
35436.9	0.00422854	68204	68204	
35508.8	0.00378113	68301	68301	
35580.6	0.00333477	68418	68418	
35652.5	0.00288991	68483	68483	
35724.4	0.00244693	68552	68552	
35796.3	0.00200628	68650	68650	
35868.1	0.00156842	68759	68759	
35940	0.00113396	68852	68852	
36011.9	0.000703612	68954	68954	
36083.7	0.000278236	69054	69054	
36155.6	-0.000141202	69138	69138	
36227.5	-0.000553643	69222	69222	
36299.4	-0.000957966	69296	69296	
36371.2	-0.00135303	69379	69379	
36443.1	-0.0017377	69468	69468	
36515	-0.00211089	69583	69583	
36586.8	-0.00247154	69670	69670	
36658.7	-0.00281867	69754	69754	
36730.6	-0.00315136	69862	69862	
36802.5	-0.00346876	69974	69974	
36874.3	-0.00377007	70048	70048	
36946.2	-0.00405456	70124	70124	
37018.1	-0.00432155	70160	70160	
37089.9	-0.00457045	70253	70253	
37161.8	-0.00480076	70325	70325	
37233.7	-0.00501204	70420	70420	
37305.6	-0.005204	70493	70493	
37377.4	-0.00537644	70604	70604	
37449.3	-0.00552931	70701	70701	
37521.2	-0.00566269	70747	70747	
37593	-0.0057768	70817	70817	
37664.9	-0.00587201	70918	70918	
37736.8	-0.00594884	71010	71010	
37808.7	-0.00600794	71104	71104	
37880.5	-0.00605011	71177	71177	
37952.4	-0.00607627	71235	71235	
38024.3	-0.00608746	71258	71258	
38096.1	-0.00608485	71372	71372	
38168	-0.0060697	71452	71452	
38239.9	-0.00604338	71582	71582	
38311.8	-0.00600732	71659	71659	
38383.6	-0.00596306	71752	71752	
38455.5	-0.00591214	71818	71818	
38527.4	-0.00585616	71927	71927	
38599.2	-0.00579669	71996	71996	
38671.1	-0.00573526	72073	72073	
38743	-0.00567332	72138	72138	
38814.9	-0.00561219	72231	72231	
38886.7	-0.00555307	72395	72395	
38958.6	-0.00549695	72468	72468	
39030.5	-0.00544467	72591	72591	
39102.3	-0.00539686	72628	72628	
39174.2	-0.00535397	72713	72713	
39246.1	-0.00531627	72802	72802	
39318	-0.00528389	72930	72930	
39382.6	-0.00525957	72976	72976	
39447.2	-0.00523947	73001	73001	
39511.8	-0.00522346	73053	73053	
39576.4	-0.0052114	73112	73112	
39641	-0.0052031	73191	73191	
39705.6	-0.00519836	73270	73270	
39770.3	-0.00519698	73362	73362	
39834.9	-0.00519875	73428	73428	
39899.5	-0.00520347	73513	73513	
39964.1	-0.00521092	73559	73559	
40028.7	-0.00522091	73685	73685	
40100.6	-0.00523461	73751	73751	
40172.5	-0.00525096	73804	73804	
40244.3	-0.00526968	73917	73917	
40316.2	-0.00529053	74022	74022	
40388.1	-0.00531327	74106	74106	
40459.9	-0.00533766	74193	74193	
40531.8	-0.00536349	74295	74295	
40603.7	-0.00539055	74396	74396	
40675.6	-0.00541866	74521	74521	
40747.4	-0.00544758	74622	74622	
40819.3	-0.00547712	74759	74759	
40883.9	-0.00550404	74836	74836	
40948.5	-0.00553115	74912	74912	
41013.1	-0.00555834	74979	74979	
41077.8	-0.00558551	75107	75107	
41142.4	-0.00561258	75216	75216	
41207	-0.00563943	75356	75356	
41271.6	-0.00566595	75441	75441	
41336.2	-0.005692	75520	75520	
41400.9	-0.00571742	75627	75627	
41468.4	-0.00574313	75735	75735	
41533	-0.00576669	75803	75803	
41597.6	-0.005789	75860	75860	
41662.3	-0.00580984	75933	75933	
41726.9	-0.00582899	76056	76056	
41791.5	-0.00584619	76146	76146	
41856.2	-0.00586121	76235	76235	
41923.7	-0.00587436	76348	76348	
41991.2	-0.0058846	76452	76452	
42063	-0.00589211	76521	76521	
42134.9	-0.00589574	76588	76588	
42206.8	-0.0058952	76655	76655	
42278.7	-0.00589028	76727	76727	
42346.2	-0.00588138	76772	76772	
42413.7	-0.00586836	76845	76845	
42481.2	-0.00585125	76923	76923	
42548.7	-0.00583011	76994	76994	
42620.6	-0.0058035	77064	77064	
42692.4	-0.00577281	77138	77138	
42764.3	-0.00573843	77216	77216	
42836.2	-0.00570086	77279	77279	
42908.1	-0.00566065	77364	77364	
42975.6	-0.00562097	77401	77401	
43043.1	-0.00558008	77452	77452	
43110.6	-0.00553856	77474	77474	
43178.1	-0.00549696	77508	77508	
