0	0	527186	527186	
18.4875	0	527144	527144	
37.1736	0	527210	527210	
55.6611	0	527336	527336	
74.1486	0	527454	527454	
92.6361	0	527588	527588	
111.1	0	527704	527704	
129.564	0	527802	527802	
148.029	0	527906	527906	
166.348	0	527946	527946	
184.668	0	528002	528002	
202.987	0	528058	528058	
221.307	0	528114	528114	
239.627	0	528176	528176	
257.946	0	528246	528246	
276.266	0	528316	528316	
294.585	0	528384	528384	
312.905	0	528440	528440	
331.224	0	528478	528478	
349.544	0	528548	528548	
367.864	0	528630	528630	
386.183	0	528700	528700	
404.503	0	528762	528762	
422.822	0	528818	528818	
441.142	0	528894	528894	
459.461	0	528970	528970	
477.781	0	529032	529032	
496.051	0	529106	529106	
514.322	0	529180	529180	
532.592	0	529230	529230	
550.863	0	529312	529312	
569.133	0	529344	529344	
587.404	0	529396	529396	
605.674	0	529474	529474	
623.944	0	529544	529544	
642.215	0	529610	529610	
660.485	0	529674	529674	
678.756	0	529770	529770	
697.026	0	529866	529866	
715.296	0	529918	529918	
733.567	0	530004	530004	
751.837	0	530082	530082	
770.108	0	530140	530140	
788.378	0	530198	530198	
806.648	0	530256	530256	
824.919	0	530324	530324	
843.189	0	530380	530380	
861.46	0	530456	530456	
879.73	0	530520	530520	
898	0	530594	530594	
916.271	0	530680	530680	
934.541	0	530764	530764	
952.812	0	530852	530852	
971.082	0	530916	530916	
989.352	0	530980	530980	
1007.62	0	531054	531054	
1025.89	0	531126	531126	
1044.16	0	531200	531200	
1062.43	0	531260	531260	
1080.7	0	531336	531336	
1098.97	0	531400	531400	
1117.25	0	531490	531490	
1135.52	0	531576	531576	
1153.79	0	531668	531668	
1172.06	0	531750	531750	
1190.33	0	531808	531808	
1208.6	0	531900	531900	
1226.87	0	531972	531972	
1244.88	0	532028	532028	
1262.9	0	532100	532100	
1280.92	0	532166	532166	
1298.93	0	532238	532238	
1316.95	0	532330	532330	
1334.97	0	532436	532436	
1352.64	0	532510	532510	
1370.31	0	532580	532580	
1387.98	0	532626	532626	
1405.64	0	532730	532730	
1422.93	0	532810	532810	
1440.22	0	532866	532866	
1457.51	0	532966	532966	
1474.8	0	533018	533018	
1492.09	0	533086	533086	
1509.38	0	533160	533160	
1526.51	0	533224	533224	
1543.63	0	533322	533322	
1560.76	0	533394	533394	
1577.88	0	533472	533472	
1595.01	0	533542	533542	
1612.13	0	533650	533650	
1629.26	0	533728	533728	
1646.39	0	533806	533806	
1663.51	0	533850	533850	
1680.64	0	533942	533942	
1697.76	0	534010	534010	
1714.76	0	534106	534106	
1731.76	0	534190	534190	
1748.76	0	534266	534266	
1765.76	0	534344	534344	
1782.76	0	534412	534412	
1799.76	0	534454	534454	
1816.76	0	534566	534566	
1833.76	0	534660	534660	
1850.76	0	534762	534762	
1867.76	0	534842	534842	
1884.76	0	534916	534916	
1901.76	0	534960	534960	
1918.76	0	535038	535038	
1935.76	0	535116	535116	
1952.76	0	535206	535206	
1969.76	0	535250	535250	
1986.76	0	535376	535376	
2003.76	0	535450	535450	
2020.76	0	535540	535540	
2037.76	0	535590	535590	
2054.76	0	535688	535688	
2071.74	0	535760	535760	
2088.72	0	535820	535820	
2105.69	0	535882	535882	
2122.67	0	536014	536014	
2139.65	0	536094	536094	
2156.63	0	536176	536176	
2173.61	0	536238	536238	
2190.58	0	536310	536310	
2207.56	0	536364	536364	
2224.54	0	536474	536474	
2241.52	0	536556	536556	
2258.49	0	536680	536680	
2275.47	0	536758	536758	
2292.45	0	536854	536854	
2309.43	0	536926	536926	
2326.41	0	537000	537000	
2343.38	0	537062	537062	
2360.36	0	537146	537146	
2377.34	0	537232	537232	
2394.32	0	537340	537340	
2411.3	0	537424	537424	
2428.27	0	537518	537518	
2445.25	0	537600	537600	
2462.23	0	537684	537684	
2479.21	0	537760	537760	
2496.16	0	537838	537838	
2513.11	0	537924	537924	
2530.06	0	538040	538040	
2547.02	0	538106	538106	
2563.97	0	538232	538232	
2580.92	0	538296	538296	
2597.87	0	538374	538374	
2614.52	0	538436	538436	
2631.16	0	538504	538504	
2647.8	0	538574	538574	
2664.44	0	538704	538704	
2681.08	0	538832	538832	
2697.73	0	538918	538918	
2714.37	0	538968	538968	
2731.01	0	539072	539072	
2747.56	0	539126	539126	
2764.1	0	539210	539210	
2780.65	0	539300	539300	
2797.19	0	539422	539422	
2813.74	0	539520	539520	
2830.28	0	539610	539610	
2846.83	0	539720	539720	
2863.38	0	539798	539798	
2879.92	0	539858	539858	
2896.47	0	539944	539944	
2913.01	0	540004	540004	
2929.56	0	540082	540082	
2946.1	0	540204	540204	
2962.65	0	540308	540308	
2979.2	0	540402	540402	
2995.74	0	540488	540488	
3012.29	0	540578	540578	
3028.83	0	540646	540646	
3045.38	0	540738	540738	
3061.93	0	540842	540842	
3078.47	0	540962	540962	
3095.02	0	541070	541070	
3111.56	0	541158	541158	
3128.11	0	541292	541292	
3144.65	0	541352	541352	
3161.2	0	541444	541444	
3177.72	0	541518	541518	
3194.23	0	541602	541602	
3210.75	0	541708	541708	
3227.26	0	541824	541824	
3243.78	0	541908	541908	
3260.29	0	542008	542008	
3276.81	0	542092	542092	
3293.32	0	542198	542198	
3309.84	0	542276	542276	
3326.35	0	542374	542374	
3342.87	0	542478	542478	
3359.38	0	542566	542566	
3375.9	0	542708	542708	
3392.41	0	542796	542796	
3408.93	0	542920	542920	
3425.44	0	543002	543002	
3441.96	0	543092	543092	
3458.47	0	543176	543176	
3474.99	0	543256	543256	
3491.5	0	543352	543352	
3508.02	0	543462	543462	
3524.53	0	543560	543560	
3541.05	0	543668	543668	
3557.56	0	543752	543752	
3574.07	0	543832	543832	
3590.58	0	543928	543928	
3607.09	0	544026	544026	
3623.6	0	544128	544128	
3640.11	0	544242	544242	
3656.62	0	544338	544338	
3673.13	0	544472	544472	
3689.64	0	544580	544580	
3706.15	0	544670	544670	
3722.66	0	544760	544760	
3739.17	0	544822	544822	
3755.68	0	544880	544880	
3772.19	0	545002	545002	
3788.7	0	545114	545114	
3805.21	0	545258	545258	
3821.72	0	545374	545374	
3838.23	0	545432	545432	
3854.74	0	545558	545558	
3871.25	0	545670	545670	
3887.76	0	545766	545766	
3904.27	0	545870	545870	
3920.78	0	545974	545974	
3937.29	0	546080	546080	
3953.8	0	546178	546178	
3970.31	0	546300	546300	
3986.82	0	546392	546392	
4003.33	0	546486	546486	
4019.84	0	546558	546558	
4036.35	0	546664	546664	
4052.86	0	546766	546766	
4069.37	0	546892	546892	
4085.88	0	547032	547032	
4102.39	0	547160	547160	
4118.9	0	547264	547264	
4135.41	0	547380	547380	
4151.92	0	547442	547442	
4168.43	0	547560	547560	
4184.94	0	547684	547684	
4201.45	0	547818	547818	
4217.96	0	547892	547892	
4234.47	0	547982	547982	
4250.98	0	548134	548134	
4267.49	0	548226	548226	
4284	0	548352	548352	
4300.51	0	548450	548450	
4317.02	0	548528	548528	
4333.53	0	548628	548628	
4350.04	0	548738	548738	
4366.55	0	548814	548814	
4383.06	0	548912	548912	
4399.57	0	549056	549056	
4416.08	0	549178	549178	
4432.59	0	549246	549246	
4449.1	0	549322	549322	
4465.61	0	549426	549426	
4482.12	0	549568	549568	
4498.63	0	549676	549676	
4515.14	0	549792	549792	
4531.65	0	549932	549932	
4548.16	0	550034	550034	
4564.67	0	550118	550118	
4581.18	0	550250	550250	
4597.69	0	550348	550348	
4614.2	0	550466	550466	
4630.71	0	550596	550596	
4647.22	0	550696	550696	
4663.73	0	550774	550774	
4680.24	0	550896	550896	
4696.75	0	551006	551006	
4713.26	0	551154	551154	
4729.77	0	551264	551264	
4746.28	0	551366	551366	
4762.79	0	551468	551468	
4779.3	0	551592	551592	
4795.81	0	551730	551730	
4812.32	0	551858	551858	
4828.83	0	551976	551976	
4845.34	0	552080	552080	
4861.85	0	552224	552224	
4878.36	0	552346	552346	
4894.87	0	552460	552460	
4911.38	0	552586	552586	
4927.89	0	552714	552714	
4944.4	0	552834	552834	
4960.91	0	552970	552970	
4977.42	0	553072	553072	
4993.93	0	553192	553192	
5010.44	0	553306	553306	
5026.95	0	553424	553424	
5043.46	0	553530	553530	
5059.97	0	553698	553698	
5076.48	0	553784	553784	
5092.99	0	553916	553916	
5109.5	0	554050	554050	
5126.01	0	554126	554126	
5142.52	0	554270	554270	
5159.03	0	554346	554346	
5175.54	0	554462	554462	
5192.05	0	554616	554616	
5208.56	0	554760	554760	
5225.07	0	554908	554908	
5241.58	0	555026	555026	
5258.09	0	555162	555162	
5274.6	0	555266	555266	
5291.11	0	555402	555402	
5307.62	0	555498	555498	
5324.13	0	555628	555628	
5340.64	0	555756	555756	
5357.15	0	555892	555892	
5373.66	0	555992	555992	
5390.17	0	556120	556120	
5406.68	0	556256	556256	
5423.19	0	556372	556372	
5439.7	0	556492	556492	
5456.21	0	556616	556616	
5472.72	0	556734	556734	
5489.23	0	556844	556844	
5505.74	0	556992	556992	
5522.25	0	557118	557118	
5538.77	0	557236	557236	
5555.28	0	557346	557346	
5571.79	0	557472	557472	
5588.3	0	557570	557570	
5604.81	0	557710	557710	
5621.32	0	557816	557816	
5637.83	0	557928	557928	
5654.34	0	558032	558032	
5670.85	0	558180	558180	
5687.36	0	558304	558304	
5703.87	0	558472	558472	
5720.38	0	558564	558564	
5736.89	0	558690	558690	
5753.4	0	558776	558776	
5769.91	0	558886	558886	
5786.42	0	559006	559006	
5802.93	0	559186	559186	
5819.44	0	559306	559306	
5835.95	0	559468	559468	
5852.46	0	559578	559578	
5868.97	0	559686	559686	
5885.48	0	559770	559770	
5901.99	0	559888	559888	
5918.5	0	560044	560044	
5935.01	0	560192	560192	
5951.52	0	560314	560314	
5968.03	0	560462	560462	
5984.54	0	560610	560610	
6001.05	0	560736	560736	
6017.56	0	560858	560858	
6034.07	0	561008	561008	
6050.58	0	561128	561128	
6067.09	0	561254	561254	
6083.6	0	561368	561368	
6100.11	0	561482	561482	
6116.62	0	561636	561636	
6133.13	0	561776	561776	
6149.64	0	561900	561900	
6166.15	0	562006	562006	
6182.66	0	562148	562148	
6199.17	0	562260	562260	
6215.68	0	562394	562394	
6232.19	0	562520	562520	
6248.7	0	562680	562680	
6265.21	0	562786	562786	
6281.71	0	562930	562930	
6298.22	0	563080	563080	
6314.73	0	563204	563204	
6331.24	0	563336	563336	
6347.75	0	563434	563434	
6364.26	0	563534	563534	
6380.77	0	563678	563678	
6397.28	0	563814	563814	
6413.79	0	563942	563942	
6430.3	0	564082	564082	
6446.81	0	564232	564232	
6463.32	0	564338	564338	
6479.83	0	564468	564468	
6496.34	0	564594	564594	
6512.85	0	564700	564700	
6529.36	0	564844	564844	
6545.87	0	565008	565008	
6562.38	0	565138	565138	
6578.89	0	565274	565274	
6595.4	0	565452	565452	
6611.91	0	565544	565544	
6628.42	0	565648	565648	
6644.93	0	565744	565744	
6661.44	0	565936	565936	
6677.95	0	566056	566056	
6694.46	0	566240	566240	
6710.97	0	566360	566360	
6727.48	0	566490	566490	
6743.99	0	566618	566618	
6760.5	0	566736	566736	
6777.01	0	566844	566844	
6793.52	0	566990	566990	
6810.03	0	567120	567120	
6826.54	0	567230	567230	
6843.05	0	567374	567374	
6859.56	0	567524	567524	
6876.07	0	567694	567694	
6892.58	0	567834	567834	
6909.09	0	567966	567966	
6925.6	0	568116	568116	
6942.11	0	568262	568262	
6958.62	0	568390	568390	
6975.13	0	568558	568558	
6991.64	0	568690	568690	
7008.15	0	568812	568812	
7024.65	0	568934	568934	
7041.16	0	569068	569068	
7057.67	0	569216	569216	
7074.18	0	569338	569338	
7090.69	0	569486	569486	
7107.2	0	569628	569628	
7123.71	0	569774	569774	
7140.22	0	569872	569872	
7156.73	0	570018	570018	
7173.24	0	570180	570180	
7189.75	0	570330	570330	
7206.26	0	570496	570496	
7222.77	0	570636	570636	
7239.28	0	570738	570738	
7255.79	0	570860	570860	
7272.3	0	571036	571036	
7288.81	0	571174	571174	
7305.32	0	571312	571312	
7321.83	0	571452	571452	
7338.34	0	571592	571592	
7354.85	0	571746	571746	
7371.36	0	571876	571876	
7387.87	0	572024	572024	
7404.38	0	572190	572190	
7420.88	0	572328	572328	
7437.39	0	572432	572432	
7453.9	0	572562	572562	
7470.41	0	572750	572750	
7486.92	0	572900	572900	
7503.43	0	573030	573030	
7519.94	0	573150	573150	
7536.45	0	573268	573268	
7552.96	0	573432	573432	
7569.47	0	573592	573592	
7585.98	0	573744	573744	
7602.49	0	573866	573866	
7619	0	573998	573998	
7635.51	0	574164	574164	
7652.02	0	574298	574298	
7668.53	0	574472	574472	
7685.04	0	574636	574636	
7701.55	0	574746	574746	
7718.06	0	574886	574886	
7734.57	0	575000	575000	
7751.08	0	575154	575154	
7767.59	0	575328	575328	
7784.1	0	575518	575518	
7800.61	0	575700	575700	
7817.11	0	575818	575818	
7833.62	0	575958	575958	
7850.13	0	576102	576102	
7866.64	0	576260	576260	
7883.15	0	576428	576428	
7899.66	0	576556	576556	
7916.17	0	576680	576680	
7932.68	0	576820	576820	
7949.19	0	576964	576964	
7965.7	0	577166	577166	
7982.21	0	577326	577326	
7998.72	0	577466	577466	
8015.23	0	577628	577628	
8031.74	0	577806	577806	
8048.25	0	577896	577896	
8064.76	0	578080	578080	
8081.27	0	578274	578274	
8097.78	0	578422	578422	
8114.29	0	578570	578570	
8130.8	0	578708	578708	
8147.31	0	578824	578824	
8163.82	0	579002	579002	
8180.33	0	579184	579184	
8196.84	0	579318	579318	
8213.35	0	579458	579458	
8229.86	0	579646	579646	
8246.37	0	579792	579792	
8262.88	0	579990	579990	
8279.39	0	580156	580156	
8295.9	0	580310	580310	
8312.41	0	580438	580438	
8328.92	0	580568	580568	
8345.43	0	580716	580716	
8361.94	0	580946	580946	
8378.45	0	581128	581128	
8394.96	0	581280	581280	
8411.47	0	581426	581426	
8427.98	0	581550	581550	
8444.49	0	581696	581696	
8461	0	581926	581926	
8477.51	0	582086	582086	
8494.02	0	582252	582252	
8510.53	0	582364	582364	
8527.04	0	582534	582534	
8543.55	0	582660	582660	
8560.06	0	582902	582902	
8576.57	0	583058	583058	
8593.08	0	583216	583216	
8609.59	0	583340	583340	
8626.1	0	583444	583444	
8642.61	0	583640	583640	
8659.12	0	583824	583824	
8675.63	0	583968	583968	
8692.14	0	584160	584160	
8708.65	0	584310	584310	
8725.16	0	584446	584446	
8741.67	0	584622	584622	
8758.18	0	584812	584812	
8774.69	0	585002	585002	
8791.2	0	585128	585128	
8807.71	0	585250	585250	
8824.22	0	585348	585348	
8840.73	0	585578	585578	
8857.24	0	585766	585766	
8873.75	0	585930	585930	
8890.26	0	586040	586040	
8906.77	0	586236	586236	
8923.28	0	586384	586384	
8939.79	0	586564	586564	
8956.3	0	586780	586780	
8972.81	0	586914	586914	
8989.32	0	587078	587078	
9005.83	0	587236	587236	
9022.34	0	587404	587404	
9038.85	0	587650	587650	
9055.36	0	587834	587834	
9071.87	0	587990	587990	
9088.38	0	588088	588088	
9104.89	0	588214	588214	
9121.4	0	588350	588350	
9137.91	0	588594	588594	
9154.41	0	588828	588828	
9170.92	0	589000	589000	
9187.43	0	589168	589168	
9203.94	0	589318	589318	
9220.45	0	589498	589498	
9236.96	0	589692	589692	
9253.47	0	589844	589844	
9269.98	0	589952	589952	
9286.49	0	590152	590152	
9303	0	590296	590296	
9319.51	0	590486	590486	
9336.02	0	590676	590676	
9352.53	0	590860	590860	
9369.04	0	591046	591046	
9385.55	0	591260	591260	
9402.06	0	591378	591378	
9418.57	0	591556	591556	
9435.08	0	591774	591774	
9451.59	0	591922	591922	
9468.1	0	592130	592130	
9484.61	0	592332	592332	
9501.12	0	592430	592430	
9517.63	0	592604	592604	
9534.14	0	592766	592766	
9550.65	0	592996	592996	
9567.16	0	593146	593146	
9583.67	0	593364	593364	
9600.18	0	593536	593536	
9616.69	0	593708	593708	
9633.2	0	593916	593916	
9649.71	0	594078	594078	
9666.22	0	594272	594272	
9682.73	0	594432	594432	
9699.24	0	594646	594646	
9715.75	0	594866	594866	
9732.26	0	595096	595096	
9748.77	0	595254	595254	
9765.28	0	595420	595420	
9781.79	0	595572	595572	
9798.3	0	595736	595736	
9814.81	0	595952	595952	
9831.32	0	596176	596176	
9847.83	0	596372	596372	
9864.34	0	596528	596528	
9880.85	0	596744	596744	
9897.36	0	596972	596972	
9913.87	0	597180	597180	
9930.38	0	597358	597358	
9946.89	0	597550	597550	
9963.4	0	597714	597714	
9979.91	0	597888	597888	
9996.42	0	598042	598042	
10012.9	0	598270	598270	
10029.4	0	598426	598426	
10045.9	0	598630	598630	
10062.5	0	598828	598828	
10079	0	599054	599054	
10095.5	0	599242	599242	
10112	0	599448	599448	
10128.5	0	599602	599602	
10145	0	599760	599760	
10161.5	0	599916	599916	
10178	0	600136	600136	
10194.5	0	600310	600310	
10211	0	600552	600552	
10227.6	0	600754	600754	
10244.1	0	600928	600928	
10260.6	0	601152	601152	
10277.1	0	601296	601296	
10293.6	0	601492	601492	
10310.1	0	601742	601742	
10326.6	0	601928	601928	
10343.1	0	602102	602102	
10359.6	0	602262	602262	
10376.1	0	602486	602486	
10392.7	0	602632	602632	
10409.2	0	602858	602858	
10425.7	0	603034	603034	
10442.2	0	603196	603196	
10458.7	0	603374	603374	
10475.2	0	603544	603544	
10491.7	0	603752	603752	
10508.2	0	604034	604034	
10524.7	0	604240	604240	
10541.2	0	604388	604388	
10557.8	0	604560	604560	
10574.3	0	604760	604760	
10590.8	0	604908	604908	
10607.3	0	605100	605100	
10623.8	0	605308	605308	
10640.3	0	605512	605512	
10656.8	0	605742	605742	
10673.3	0	605890	605890	
10689.8	0	606078	606078	
10706.3	0	606264	606264	
10722.9	0	606458	606458	
10739.4	0	606608	606608	
10755.9	0	606774	606774	
10772.4	0	606998	606998	
10788.9	0	607180	607180	
10805.4	0	607404	607404	
10821.9	0	607660	607660	
10838.4	0	607856	607856	
10854.9	0	608046	608046	
10871.4	0	608204	608204	
10888	0	608384	608384	
10904.5	0	608576	608576	
10921	0	608796	608796	
10937.5	0	609008	609008	
10954	0	609224	609224	
10970.5	0	609420	609420	
10987	0	609582	609582	
11003.5	0	609780	609780	
11020	0	609966	609966	
11036.5	0	610220	610220	
11053.1	0	610396	610396	
11069.6	0	610582	610582	
11086.1	0	610756	610756	
11102.6	0	610914	610914	
11119.1	0	611122	611122	
11135.6	0	611352	611352	
11152.1	0	611516	611516	
11168.6	0	611710	611710	
11185.1	0	611900	611900	
11201.6	0	612072	612072	
11218.2	0	612334	612334	
11234.7	0	612510	612510	
11251.2	0	612660	612660	
11267.7	0	612868	612868	
11284.2	0	613068	613068	
11300.7	0	613206	613206	
11317.2	0	613374	613374	
11333.7	0	613588	613588	
11350.2	0	613770	613770	
11366.7	0	613888	613888	
11383.3	0	614068	614068	
11399.8	0	614234	614234	
11416.3	0	614430	614430	
11432.8	0	614620	614620	
11449.3	0	614850	614850	
11465.8	0	615108	615108	
11482.3	0	615298	615298	
11498.8	0	615526	615526	
11515.3	0	615680	615680	
11531.8	0	615858	615858	
11548.4	0	615998	615998	
11564.9	0	616218	616218	
11581.4	0	616464	616464	
11597.9	0	616710	616710	
11614.4	0	616876	616876	
11630.9	0	617088	617088	
11647.4	0	617340	617340	
11663.9	0	617544	617544	
11680.4	0	617780	617780	
11696.9	0	617946	617946	
11713.5	0	618136	618136	
11730	0	618372	618372	
11746.5	0	618606	618606	
11763	0	618846	618846	
11779.5	0	619080	619080	
11796	0	619320	619320	
11812.5	0	619518	619518	
11829	0	619744	619744	
11845.5	0	620002	620002	
11862	0	620186	620186	
11878.6	0	620378	620378	
11895.1	0	620558	620558	
11911.6	0	620762	620762	
11928.1	0	620956	620956	
11944.6	0	621202	621202	
11961.1	0	621442	621442	
11977.6	0	621726	621726	
11994.1	0	621984	621984	
12010.7	0	622234	622234	
12027.2	0	622386	622386	
12043.7	0	622668	622668	
12060.2	0	622876	622876	
12076.7	0	623082	623082	
12093.2	0	623274	623274	
12109.7	0	623478	623478	
12126.2	0	623740	623740	
12142.8	0	623998	623998	
12159.3	0	624256	624256	
12175.8	0	624482	624482	
12192.3	0	624684	624684	
12208.8	0	624856	624856	
12225.3	0	625044	625044	
12241.8	0	625278	625278	
12258.4	0	625530	625530	
12274.9	0	625736	625736	
12291.4	0	625976	625976	
12307.9	0	626196	626196	
12324.4	0	626396	626396	
12340.9	0	626652	626652	
12357.4	0	626968	626968	
12373.9	0	627188	627188	
12390.5	0	627372	627372	
12407	0	627624	627624	
12423.5	0	627836	627836	
12440	0	628044	628044	
12456.5	0	628310	628310	
12473	0	628558	628558	
12489.5	0	628754	628754	
12506	0	628998	628998	
12522.5	0	629190	629190	
12539.1	0	629406	629406	
12555.6	0	629706	629706	
12572.1	0	629996	629996	
12588.6	0	630190	630190	
12605.1	0	630404	630404	
12621.6	0	630632	630632	
12638.1	0	630832	630832	
12654.6	0	631096	631096	
12671.1	0	631372	631372	
12687.6	0	631596	631596	
12704.2	0	631818	631818	
12720.7	0	632034	632034	
12737.2	0	632212	632212	
12753.7	0	632416	632416	
12770.2	0	632662	632662	
12786.7	0	632902	632902	
12803.2	0	633172	633172	
12819.7	0	633392	633392	
12836.2	0	633636	633636	
12852.7	0	633876	633876	
12869.3	0	634174	634174	
12885.8	0	634368	634368	
12902.3	0	634552	634552	
12918.8	0	634770	634770	
12935.3	0	635014	635014	
12951.8	0	635262	635262	
12968.3	0	635502	635502	
12984.8	0	635732	635732	
13001.3	0	635978	635978	
13017.8	0	636150	636150	
13034.4	0	636382	636382	
13050.9	0	636656	636656	
13067.4	0	636952	636952	
13083.9	0	637258	637258	
13100.4	0	637468	637468	
13116.9	0	637704	637704	
13133.4	0	637964	637964	
13149.9	0	638170	638170	
13166.4	0	638456	638456	
13182.9	0	638768	638768	
13199.5	0	639078	639078	
13216	0	639350	639350	
13232.5	0	639552	639552	
13249	0	639768	639768	
13265.5	0	640002	640002	
13282	0	640258	640258	
13298.5	0	640526	640526	
13315	0	640758	640758	
13331.5	0	640956	640956	
13348	0	641218	641218	
13364.6	0	641448	641448	
13381.1	0	641688	641688	
13397.6	0	641982	641982	
13414.1	0	642204	642204	
13430.6	0	642414	642414	
13447.1	0	642604	642604	
13463.6	0	642884	642884	
13480.1	0	643104	643104	
13496.6	0	643402	643402	
13513.1	0	643662	643662	
13529.7	0	643898	643898	
13546.2	0	644140	644140	
13562.7	0	644356	644356	
13579.2	0	644642	644642	
13595.7	0	644920	644920	
13612.2	0	645174	645174	
13628.7	0	645390	645390	
13645.2	0	645580	645580	
13661.7	0	645820	645820	
13678.2	0	645994	645994	
13694.8	0	646318	646318	
13711.3	0	646586	646586	
13727.8	0	646826	646826	
13744.3	0	647054	647054	
13760.8	0	647272	647272	
13777.3	0	647532	647532	
13793.8	0	647780	647780	
13810.3	0	648082	648082	
13826.8	0	648340	648340	
13843.3	0	648550	648550	
13859.9	0	648770	648770	
13876.4	0	649028	649028	
13892.9	0	649256	649256	
13909.4	0	649572	649572	
13925.9	0	649844	649844	
13942.4	0	650112	650112	
13958.9	0	650300	650300	
13975.4	0	650536	650536	
13991.9	0	650784	650784	
14008.4	0	650998	650998	
14025	0	651338	651338	
14041.5	0	651624	651624	
14058	0	651840	651840	
14074.5	0	652056	652056	
14091	0	652206	652206	
14107.5	0	652466	652466	
14124	0	652752	652752	
14140.5	0	652976	652976	
14157	0	653248	653248	
14173.5	0	653512	653512	
14190.1	0	653782	653782	
14206.6	0	654016	654016	
14223.1	0	654262	654262	
14239.6	0	654506	654506	
14256.1	0	654730	654730	
14272.6	0	654998	654998	
14289.1	0	655294	655294	
14305.6	0	655498	655498	
14322.1	0	655686	655686	
14338.6	0	655970	655970	
14355.2	0	656206	656206	
14371.7	0	656454	656454	
14388.2	0	656628	656628	
14404.7	0	656886	656886	
14421.2	0	657152	657152	
14437.7	0	657432	657432	
14454.2	0	657680	657680	
14470.7	0	657910	657910	
14487.2	0	658148	658148	
14503.7	0	658362	658362	
14520.3	0	658652	658652	
14536.8	0	658982	658982	
14553.3	0	659274	659274	
14569.8	0	659428	659428	
14586.3	0	659700	659700	
14602.8	0	659846	659846	
14619.3	0	660092	660092	
14635.8	0	660254	660254	
14652.3	0	660512	660512	
14668.8	0	660844	660844	
14685.4	0	661152	661152	
14701.9	0	661350	661350	
14718.4	0	661510	661510	
14734.9	0	661686	661686	
14751.4	0	661970	661970	
14767.9	0	662258	662258	
14784.4	0	662470	662470	
14800.9	0	662788	662788	
14817.4	0	663030	663030	
14833.9	0	663266	663266	
14850.5	0	663488	663488	
14867	0	663762	663762	
14883.5	0	664010	664010	
14900	0	664284	664284	
14916.5	0	664592	664592	
14933	0	664896	664896	
14949.5	0	665192	665192	
14966	0	665530	665530	
14982.5	0	665770	665770	
14999	0	666038	666038	
15015.6	0	666284	666284	
15032.1	0	666476	666476	
15048.6	0	666676	666676	
15065.1	0	666980	666980	
15081.6	0	667204	667204	
15098.1	0	667446	667446	
15114.6	0	667740	667740	
15131.1	0	668062	668062	
15147.6	0	668358	668358	
15164.1	0	668618	668618	
15180.7	0	668902	668902	
15197.2	0	669218	669218	
15213.7	0	669490	669490	
15230.2	0	669820	669820	
15246.7	0	670118	670118	
15263.2	0	670404	670404	
15279.7	0	670702	670702	
15296.2	0	670944	670944	
15312.7	0	671242	671242	
15329.2	0	671474	671474	
15345.8	0	671786	671786	
15362.3	0	672134	672134	
15378.8	0	672394	672394	
15395.3	0	672696	672696	
15411.8	0	672972	672972	
15428.3	0	673286	673286	
15444.8	0	673604	673604	
15461.3	0	673872	673872	
15477.8	0	674166	674166	
15494.3	0	674448	674448	
15510.9	0	674728	674728	
15527.4	0	675034	675034	
15543.9	0	675262	675262	
15560.4	0	675596	675596	
15576.9	0	675866	675866	
15593.4	0	676186	676186	
15609.9	0	676520	676520	
15626.4	0	676814	676814	
15642.9	0	677050	677050	
15659.4	0	677324	677324	
15676	0	677590	677590	
15692.5	0	677844	677844	
15709	0	678164	678164	
15725.5	0	678494	678494	
15742	0	678748	678748	
15758.5	0	678958	678958	
15775	0	679272	679272	
15791.5	0	679558	679558	
15808	0	679804	679804	
15824.5	0	680078	680078	
15841.1	0	680306	680306	
15857.6	0	680592	680592	
15874.1	0	680892	680892	
15890.6	0	681210	681210	
15907.1	0	681520	681520	
15923.6	0	681816	681816	
15940.1	0	682088	682088	
15956.6	0	682294	682294	
15973.1	0	682550	682550	
15989.6	0	682794	682794	
16006.2	0	683068	683068	
16022.7	0	683386	683386	
16039.2	0	683704	683704	
16055.7	0	684004	684004	
16072.2	0	684248	684248	
16088.7	0	684576	684576	
16105.2	0	684870	684870	
16121.7	0	685172	685172	
16138.2	0	685478	685478	
16154.7	0	685778	685778	
16171.3	0	686060	686060	
16187.8	0	686352	686352	
16204.3	0	686622	686622	
16220.8	0	686924	686924	
16237.3	0	687228	687228	
16253.8	0	687596	687596	
16270.3	0	687854	687854	
16286.8	0	688074	688074	
16303.3	0	688402	688402	
16319.8	0	688700	688700	
16336.4	0	689034	689034	
16352.9	0	689292	689292	
16369.4	0	689538	689538	
16385.9	0	689780	689780	
16402.4	0	689980	689980	
16418.9	0	690300	690300	
16435.4	0	690636	690636	
16451.9	0	690850	690850	
16468.4	0	691116	691116	
16484.9	0	691364	691364	
16501.5	0	691722	691722	
16518	0	692028	692028	
16534.5	0	692360	692360	
16551	0	692644	692644	
16567.5	0	692946	692946	
16584	0	693318	693318	
16600.5	0	693602	693602	
16617	0	693814	693814	
16633.5	0	694058	694058	
16650	0	694402	694402	
16666.6	0	694630	694630	
16683.1	0	694908	694908	
16699.6	0	695188	695188	
16716.1	0	695414	695414	
16732.6	0	695640	695640	
16749.1	0	695978	695978	
16765.6	0	696290	696290	
16782.1	0	696686	696686	
16798.6	0	696938	696938	
16815.1	0	697192	697192	
16831.7	0	697466	697466	
16848.2	0	697774	697774	
16864.7	0	698146	698146	
16881.2	0	698448	698448	
16897.7	0	698676	698676	
16914.2	0	698914	698914	
16930.7	0	699164	699164	
16947.2	0	699502	699502	
16963.7	0	699794	699794	
16980.2	0	700092	700092	
16996.8	0	700378	700378	
17013.3	0	700636	700636	
17029.8	0	700874	700874	
17046.3	0	701168	701168	
17062.8	0	701390	701390	
17079.3	0	701706	701706	
17095.8	0	702042	702042	
17112.3	0	702402	702402	
17128.8	0	702686	702686	
17145.3	0	702934	702934	
17161.9	0	703178	703178	
17178.4	0	703516	703516	
17194.9	0	703854	703854	
17211.4	0	704196	704196	
17227.9	0	704484	704484	
17244.4	0	704906	704906	
17260.9	0	705204	705204	
17277.4	0	705490	705490	
17293.9	0	705824	705824	
17310.4	0	706226	706226	
17327	0	706598	706598	
17343.5	0	706894	706894	
17360	0	707212	707212	
17376.5	0	707526	707526	
17393	0	707856	707856	
17409.5	0	708256	708256	
17426	0	708552	708552	
17442.5	0	708850	708850	
17459	0	709190	709190	
17475.5	0	709528	709528	
17492.1	0	709776	709776	
17508.6	0	710116	710116	
17525.1	0	710534	710534	
17541.6	0	710870	710870	
17558.1	0	711206	711206	
17574.6	0	711514	711514	
17591.1	0	711818	711818	
17607.6	0	712154	712154	
17624.1	0	712482	712482	
17640.6	0	712956	712956	
17657.2	0	713298	713298	
17673.7	0	713666	713666	
17690.2	0	713978	713978	
17706.7	0	714230	714230	
17723.2	0	714510	714510	
17739.7	0	714826	714826	
17756.2	0	715176	715176	
17772.7	0	715608	715608	
17789.2	0	715924	715924	
17805.7	0	716266	716266	
17822.3	0	716542	716542	
17838.8	0	716914	716914	
17855.3	0	717270	717270	
17871.8	0	717616	717616	
17888.3	0	717976	717976	
17904.8	0	718278	718278	
17921.3	0	718628	718628	
17937.8	0	718918	718918	
17954.3	0	719172	719172	
17970.8	0	719476	719476	
17987.4	0	719814	719814	
18003.9	0	720158	720158	
18020.4	0	720444	720444	
18036.9	0	720740	720740	
18053.4	0	721052	721052	
18069.9	0	721418	721418	
18086.4	0	721794	721794	
18102.9	0	722134	722134	
18119.4	0	722500	722500	
18135.9	0	722858	722858	
18152.5	0	723142	723142	
18169	0	723454	723454	
18185.5	0	723838	723838	
18202	0	724262	724262	
18218.5	0	724586	724586	
18235	0	724962	724962	
18251.5	0	725288	725288	
18268	0	725574	725574	
18284.5	0	725900	725900	
18301	0	726202	726202	
18317.6	0	726540	726540	
18334.1	0	726916	726916	
18350.6	0	727284	727284	
18367.1	0	727618	727618	
18383.6	0	727940	727940	
18400.1	0	728206	728206	
18416.6	0	728508	728508	
18433.1	0	728838	728838	
18449.6	0	729202	729202	
18466.1	0	729574	729574	
18482.7	0	729854	729854	
18499.2	0	730148	730148	
18515.7	0	730498	730498	
18532.2	0	730848	730848	
18548.7	0	731124	731124	
18565.2	0	731442	731442	
18581.7	0	731752	731752	
18598.2	0	732121	732121	
18614.7	0	732451	732451	
18631.2	0	732773	732773	
18647.8	0	733100	733100	
18664.3	0	733416	733416	
18680.8	0	733778	733778	
18697.3	0	734065	734065	
18713.8	0	734345	734345	
18730.3	0	734713	734713	
18746.8	0	735065	735065	
18763.3	0	735471	735471	
18779.8	0	735799	735799	
18796.3	0	736136	736136	
18812.9	0	736476	736476	
18829.4	0	736757	736757	
18845.9	0	737069	737069	
18862.4	0	737392	737392	
18878.9	0	737809	737809	
18895.4	0	738127	738127	
18911.9	0	738469	738469	
18928.4	0	738790	738790	
18944.9	0	739086	739086	
18961.4	0	739434	739434	
18978	0	739774	739774	
18994.5	0	740166	740166	
19011	0	740578	740578	
19027.5	0	740967	740967	
19044	0	741276	741276	
19060.5	0	741649	741649	
19077	0	741903	741903	
19093.5	0	742219	742219	
19110	0	742515	742515	
19126.5	0	742826	742826	
19143.1	0	743186	743186	
19159.6	0	743566	743566	
19176.1	0	743917	743917	
19192.6	0	744221	744221	
19209.1	0	744566	744566	
19225.6	0	744940	744940	
19242.1	0	745227	745227	
19258.6	0	745568	745568	
19275.1	0	745849	745849	
19291.6	0	746190	746190	
19308.2	0	746492	746492	
19324.7	0	746837	746837	
19341.2	0	747054	747054	
19357.7	0	747491	747491	
19374.2	0	747838	747838	
19390.7	0	748172	748172	
19407.2	0	748482	748482	
19423.7	0	748785	748785	
19440.2	0	749074	749074	
19456.7	0	749435	749435	
19473.3	0	749796	749796	
19489.8	0	750147	750147	
19506.3	0	750464	750464	
19522.8	0	750767	750767	
19539.3	0	751025	751025	
19555.8	0	751324	751324	
19572.3	0	751603	751603	
19588.8	0	751885	751885	
19605.3	0	752226	752226	
19621.8	0	752488	752488	
19638.4	0	752802	752802	
19654.9	0	753047	753047	
19671.4	0	753348	753348	
19687.9	0	753744	753744	
19704.4	0	754032	754032	
19720.9	0	754343	754343	
19737.4	0	754628	754628	
19753.9	0	754865	754865	
19770.4	0	755076	755076	
19786.9	0	755325	755325	
19803.5	0	755665	755665	
19820	0	755932	755932	
19836.5	0	756297	756297	
19853	0	756634	756634	
19869.5	0	756865	756865	
19886	0	757072	757072	
19902.5	0	757335	757335	
19919	0	757649	757649	
19935.5	0	757988	757988	
19952	0	758342	758342	
19968.6	0	758576	758576	
19985.1	0	758813	758813	
20001.6	0	759106	759106	
20018.1	0	759392	759392	
20034.6	0	759674	759674	
20051.1	0	759971	759971	
20067.6	0	760222	760222	
20084.1	0	760454	760454	
20100.6	0	760761	760761	
20117.1	0	761005	761005	
20133.7	0	761288	761288	
20150.2	0	761524	761524	
20166.7	0	761950	761950	
20183.2	0	762224	762224	
20199.7	0	762414	762414	
20216.2	0	762633	762633	
20232.7	0	762884	762884	
20249.2	0	763163	763163	
20265.7	0	763461	763461	
20282.2	0	763764	763764	
20298.8	0	764120	764120	
20315.3	0	764314	764314	
20331.8	0	764522	764522	
20348.3	0	764700	764700	
20364.8	0	764985	764985	
20381.3	0	765352	765352	
20397.8	0	765690	765690	
20414.3	0	765969	765969	
20430.8	0	766128	766128	
20447.3	0	766330	766330	
20463.9	0	766565	766565	
20480.4	0	766818	766818	
20496.9	0	767076	767076	
20513.4	0	767341	767341	
20529.9	0	767571	767571	
20546.4	0	767817	767817	
20562.9	0	768112	768112	
20579.4	0	768394	768394	
20595.9	0	768753	768753	
20612.4	0	769050	769050	
20629	0	769285	769285	
20645.5	0	769504	769504	
20662	0	769707	769707	
20678.5	0	769982	769982	
20695	0	770250	770250	
20711.5	0	770521	770521	
20728	0	770818	770818	
20744.5	0	771169	771169	
20761	0	771511	771511	
20777.5	0	771867	771867	
20794.1	0	772229	772229	
20810.6	0	772501	772501	
20827.1	0	772771	772771	
20843.6	0	773029	773029	
20860.1	0	773367	773367	
20876.6	0	773635	773635	
20893.1	0	773804	773804	
20909.6	0	774021	774021	
20926.1	0	774297	774297	
20942.6	0	774567	774567	
20959.2	0	774869	774869	
20975.7	0	775074	775074	
20992.2	0	775476	775476	
21008.7	0	775809	775809	
21025.2	0	776150	776150	
21041.7	0	776527	776527	
21058.2	0	776813	776813	
21074.7	0	777100	777100	
21091.2	0	777355	777355	
21107.7	0	777677	777677	
21124.3	0	777998	777998	
21140.8	0	778279	778279	
21157.3	0	778602	778602	
21173.8	0	778951	778951	
21190.3	0	779182	779182	
21206.8	0	779527	779527	
21223.3	0	779858	779858	
21239.8	0	780139	780139	
21256.3	0	780402	780402	
21272.8	0	780704	780704	
21289.4	0	781034	781034	
21305.9	0	781413	781413	
21322.4	0	781705	781705	
21338.9	0	782071	782071	
21355.4	0	782374	782374	
21371.9	0	782778	782778	
21388.4	0	783142	783142	
21404.9	0	783425	783425	
21421.4	0	783662	783662	
21437.9	0	783922	783922	
21454.5	0	784195	784195	
21471	0	784542	784542	
21487.5	0	784900	784900	
21504	0	785224	785224	
21520.5	0	785545	785545	
21537	0	785954	785954	
21553.5	0	786219	786219	
21570	0	786494	786494	
21586.5	0	786733	786733	
21603	0	787063	787063	
21619.6	0	787378	787378	
21636.1	0	787711	787711	
21652.6	0	788037	788037	
21669.1	0	788370	788370	
21685.6	0	788686	788686	
21702.1	0	789033	789033	
21718.6	0	789361	789361	
21735.1	0	789698	789698	
21751.6	0	789931	789931	
21768.1	0	790230	790230	
21784.7	0	790474	790474	
21801.2	0	790749	790749	
21817.7	0	791129	791129	
21834.2	0	791438	791438	
21850.7	0	791726	791726	
21867.2	0	791963	791963	
21883.7	0	792268	792268	
21900.2	0	792519	792519	
21916.7	0	792870	792870	
21933.2	0	793139	793139	
21949.8	0	793412	793412	
21966.3	0	793731	793731	
21982.8	0	794034	794034	
21999.3	0	794410	794410	
22015.8	0	794770	794770	
22032.3	0	795047	795047	
22048.8	0	795361	795361	
22065.3	0	795622	795622	
22081.8	0	795953	795953	
22098.3	0	796141	796141	
22114.9	0	796464	796464	
22131.4	0	796722	796722	
22147.9	0	797014	797014	
22164.4	0	797285	797285	
22180.9	0	797570	797570	
22197.4	0	797876	797876	
22213.9	0	798217	798217	
22230.4	0	798511	798511	
22246.9	0	798841	798841	
22263.4	0	799213	799213	
22280	0	799444	799444	
22296.5	0	799763	799763	
22313	0	800069	800069	
22329.5	0	800384	800384	
22346	0	800629	800629	
22362.5	0	800899	800899	
22379	0	801212	801212	
22395.5	0	801440	801440	
22412	0	801665	801665	
22428.5	0	801995	801995	
22445.1	0	802250	802250	
22461.6	0	802513	802513	
22478.1	0	802835	802835	
22494.6	0	803097	803097	
22511.1	0	803375	803375	
22527.6	0	803640	803640	
22544.1	0	803903	803903	
22560.6	0	804194	804194	
22577.1	0	804359	804359	
22593.6	0	804621	804621	
22610.2	0	804993	804993	
22626.7	0	805232	805232	
22643.2	0	805515	805515	
22659.7	0	805702	805702	
22676.2	0	805959	805959	
22692.7	0	806268	806268	
22709.2	0	806584	806584	
22725.7	0	806868	806868	
22742.2	0	807122	807122	
22758.7	0	807388	807388	
22775.3	0	807665	807665	
22791.8	0	807878	807878	
22808.3	0	808158	808158	
22824.8	0	808415	808415	
22841.3	0	808721	808721	
22857.8	0	808912	808912	
22874.3	0	809213	809213	
22890.8	0	809399	809399	
22907.3	0	809722	809722	
22923.8	0	809959	809959	
22940.4	0	810224	810224	
22956.9	0	810623	810623	
22973.4	0	810926	810926	
22989.9	0	811177	811177	
23006.4	0	811406	811406	
23022.9	0	811676	811676	
23039.4	0	811969	811969	
23055.9	0	812220	812220	
23072.4	0	812447	812447	
23088.9	0	812779	812779	
23105.5	0	813030	813030	
23122	0	813259	813259	
23138.5	0	813509	813509	
23155	0	813878	813878	
23171.5	0	814142	814142	
23188	0	814435	814435	
23204.5	0	814662	814662	
23221	0	814923	814923	
23237.5	0	815175	815175	
23254	0	815501	815501	
23270.6	0	815759	815759	
23287.1	0	816100	816100	
23303.6	0	816383	816383	
23320.1	0	816690	816690	
23336.6	0	817000	817000	
23353.1	0	817251	817251	
23369.6	0	817567	817567	
23386.1	0	817855	817855	
23402.6	0	818136	818136	
23419.1	0	818488	818488	
23435.7	0	818745	818745	
23452.2	0	818942	818942	
23468.7	0	819237	819237	
23485.2	0	819577	819577	
23501.7	0	819882	819882	
23518.2	0	820149	820149	
23534.7	0	820404	820404	
23551.2	0	820776	820776	
23567.7	0	821063	821063	
23584.2	0	821357	821357	
23600.8	0	821689	821689	
23617.3	0	821917	821917	
23633.8	0	822198	822198	
23650.3	0	822530	822530	
23666.8	0	822864	822864	
23683.3	0	823112	823112	
23699.8	0	823372	823372	
23716.3	0	823651	823651	
23732.8	0	823881	823881	
23749.3	0	824200	824200	
23765.9	0	824512	824512	
23782.4	0	824834	824834	
23798.9	0	825133	825133	
23815.4	0	825416	825416	
23831.9	0	825724	825724	
23848.4	0	826007	826007	
23864.9	0	826321	826321	
23881.4	0	826715	826715	
23897.9	0	827003	827003	
23914.4	0	827190	827190	
23931	0	827384	827384	
23947.5	0	827530	827530	
23964	0	827686	827686	
23980.5	0	827929	827929	
23997	0	828150	828150	
24013.5	0	828463	828463	
24030	0	828719	828719	
24046.5	0	829045	829045	
24063	0	829322	829322	
24079.5	0	829576	829576	
24096.1	0	829713	829713	
24112.6	0	829980	829980	
24129.1	0	830307	830307	
24145.6	0	830587	830587	
24162.1	0	830830	830830	
24178.6	0	831159	831159	
24195.1	0	831309	831309	
24211.6	0	831526	831526	
24228.1	0	831726	831726	
24244.6	0	832045	832045	
24261.2	0	832267	832267	
24277.7	0	832573	832573	
24294.2	0	832790	832790	
24310.7	0	833046	833046	
24327.2	0	833326	833326	
24343.7	0	833626	833626	
24360.2	0	833960	833960	
24376.7	0	834266	834266	
24393.2	0	834537	834537	
24409.7	0	834757	834757	
24426.3	0	834971	834971	
24442.8	0	835067	835067	
24459.3	0	835307	835307	
24475.8	0	835545	835545	
24492.3	0	835839	835839	
24508.8	0	836148	836148	
24525.3	0	836335	836335	
24541.8	0	836568	836568	
24558.3	0	836914	836914	
24574.8	0	837134	837134	
24591.4	0	837353	837353	
24607.9	0	837703	837703	
24624.4	0	838026	838026	
24640.9	0	838225	838225	
24657.4	0	838497	838497	
24673.9	0	838836	838836	
24690.4	0	839209	839209	
24706.9	0	839409	839409	
24723.4	0	839672	839672	
24739.9	0	839870	839870	
24756.5	0	839996	839996	
24773	0	840245	840245	
24789.5	0	840570	840570	
24806	0	840894	840894	
24822.5	0	841273	841273	
24839	0	841647	841647	
24855.5	0	841907	841907	
24872	0	842172	842172	
24888.5	0	842449	842449	
24905	0	842621	842621	
24921.6	0	842708	842708	
24938.1	0	843052	843052	
24954.6	0	843261	843261	
24971.1	0	843509	843509	
24987.6	0	843800	843800	
25004.1	0	844053	844053	
25020.6	0	844328	844328	
25037.1	0	844497	844497	
25053.6	0	844671	844671	
25070.1	0	844945	844945	
25086.7	0	845319	845319	
25103.2	0	845610	845610	
25119.7	0	845977	845977	
25136.2	0	846210	846210	
25152.7	0	846493	846493	
25169.2	0	846753	846753	
25185.7	0	847197	847197	
25202.2	0	847500	847500	
25218.7	0	847831	847831	
25235.2	0	848165	848165	
25251.8	0	848429	848429	
25268.3	0	848665	848665	
25284.8	0	848947	848947	
25301.3	0	849200	849200	
25317.8	0	849484	849484	
25334.3	0	849851	849851	
25350.8	0	850155	850155	
25367.3	0	850558	850558	
25383.8	0	850874	850874	
25400.3	0	851230	851230	
25416.9	0	851524	851524	
25433.4	0	851829	851829	
25449.9	0	852107	852107	
25466.4	0	852238	852238	
25482.9	0	852555	852555	
25499.4	0	852713	852713	
25515.9	0	852957	852957	
25532.4	0	853305	853305	
25548.9	0	853523	853523	
25565.4	-4.54747e-13	853753	853753	
25582	-4.54747e-13	854056	854056	
25598.5	-9.09495e-13	854326	854326	
25615	-1.36424e-12	854739	854739	
25631.5	-1.81899e-12	855056	855056	
25648	-1.81899e-12	855329	855329	
25664.5	-2.27374e-12	855561	855561	
25681	-2.72848e-12	855907	855907	
25697.5	-3.18323e-12	856181	856181	
25714	-3.63798e-12	856355	856355	
25730.5	-4.09273e-12	856571	856571	
25747.1	-4.54747e-12	856813	856813	
25763.6	-5.00222e-12	857054	857054	
25780.1	-5.45697e-12	857333	857333	
25796.6	-5.45697e-12	857566	857566	
25813.1	-5.91172e-12	857810	857810	
25829.6	-5.91172e-12	858060	858060	
25846.1	-6.36646e-12	858425	858425	
25862.6	-6.82121e-12	858833	858833	
25879.1	-7.27596e-12	859196	859196	
25895.6	-7.7307e-12	859456	859456	
25912.2	-8.18545e-12	859726	859726	
25928.7	-8.6402e-12	859890	859890	
25945.2	-9.09495e-12	860172	860172	
25961.7	-9.54969e-12	860420	860420	
25978.2	-1.00044e-11	860752	860752	
25994.7	-1.04592e-11	860953	860953	
26011.2	-1.09139e-11	861291	861291	
26027.7	-1.13687e-11	861574	861574	
26044.2	-1.18234e-11	861900	861900	
26060.7	-1.18234e-11	862230	862230	
26077.3	-1.22782e-11	862378	862378	
26093.8	-1.27329e-11	862573	862573	
26110.3	-1.31877e-11	862697	862697	
26126.8	-1.36424e-11	862880	862880	
26143.3	-1.40972e-11	863106	863106	
26159.8	-1.45519e-11	863456	863456	
26176.3	-1.50067e-11	863836	863836	
26192.8	-1.54614e-11	864154	864154	
26209.3	-1.59162e-11	864513	864513	
26225.8	-1.63709e-11	864725	864725	
26242.4	-1.68257e-11	865000	865000	
26258.9	-1.77351e-11	865272	865272	
26275.4	-1.81899e-11	865591	865591	
26291.9	-1.90994e-11	865818	865818	
26308.4	-2.00089e-11	866020	866020	
26324.9	-2.09184e-11	866134	866134	
26341.4	-2.18279e-11	866326	866326	
26357.9	-2.27374e-11	866523	866523	
26374.4	-2.41016e-11	866775	866775	
26390.9	-2.54659e-11	867068	867068	
26407.5	-2.68301e-11	867311	867311	
26424	-2.81943e-11	867659	867659	
26440.5	-2.95586e-11	867957	867957	
26457	-3.13776e-11	868227	868227	
26473.5	-3.31966e-11	868512	868512	
26490	-3.50155e-11	868715	868715	
26506.5	-3.72893e-11	868950	868950	
26523	-3.9563e-11	869182	869182	
26539.5	-4.18368e-11	869441	869441	
26556	-4.45652e-11	869685	869685	
26572.6	-4.77485e-11	869929	869929	
26589.1	-5.09317e-11	870292	870292	
26605.6	-5.41149e-11	870612	870612	
26622.1	-5.77529e-11	870982	870982	
26638.6	-6.18456e-11	871376	871376	
26655.1	-6.59384e-11	871705	871705	
26671.6	-7.04858e-11	871979	871979	
26688.1	-7.50333e-11	872267	872267	
26704.6	-8.00355e-11	872450	872450	
26721.1	-8.54925e-11	872799	872799	
26737.7	-9.14042e-11	873153	873153	
26754.2	-9.77707e-11	873406	873406	
26770.7	-1.04592e-10	873826	873826	
26787.2	-1.11868e-10	874202	874202	
26803.7	-1.20053e-10	874592	874592	
26820.2	-1.28239e-10	875010	875010	
26836.7	-1.37334e-10	875399	875399	
26853.2	-1.46883e-10	875606	875606	
26869.7	-1.57343e-10	875856	875856	
26886.2	-1.68257e-10	876211	876211	
26902.8	-1.8008e-10	876573	876573	
26919.3	-1.92813e-10	876962	876962	
26935.8	-2.06001e-10	877294	877294	
26952.3	-2.20552e-10	877698	877698	
26968.8	-2.36014e-10	878091	878091	
26985.3	-2.52385e-10	878422	878422	
27001.8	-2.69665e-10	878719	878719	
27018.3	-2.8831e-10	879033	879033	
27034.8	-3.08319e-10	879497	879497	
27051.4	-3.29692e-10	879850	879850	
27067.9	-3.52429e-10	880068	880068	
27084.4	-3.76531e-10	880336	880336	
27100.9	-4.02451e-10	880683	880683	
27117.4	-4.29736e-10	880949	880949	
27133.9	-4.59295e-10	881236	881236	
27150.4	-4.90672e-10	881556	881556	
27166.9	-5.23869e-10	881869	881869	
27183.4	-5.59339e-10	882290	882290	
27199.9	-5.96629e-10	882684	882684	
27216.5	-6.36646e-10	883003	883003	
27233	-6.79393e-10	883435	883435	
27249.5	-7.24413e-10	883806	883806	
27266	-7.72616e-10	884154	884154	
27282.5	-8.23547e-10	884497	884497	
27299	-8.78117e-10	884829	884829	
27315.5	-9.3587e-10	885110	885110	
27332	-9.97261e-10	885418	885418	
27348.5	-1.06229e-09	885832	885832	
27365	-1.13141e-09	886162	886162	
27381.6	-1.20463e-09	886441	886441	
27398.1	-1.28239e-09	886832	886832	
27414.6	-1.3647e-09	887098	887098	
27431.1	-1.45246e-09	887354	887354	
27447.6	-1.54523e-09	887636	887636	
27464.1	-1.64391e-09	887984	887984	
27480.6	-1.7485e-09	888338	888338	
27497.1	-1.85901e-09	888648	888648	
27513.6	-1.97633e-09	888895	888895	
27530.1	-2.10048e-09	889153	889153	
27546.7	-2.2319e-09	889441	889441	
27563.2	-2.37105e-09	889787	889787	
27579.7	-2.51839e-09	890115	890115	
27596.2	-2.67437e-09	890396	890396	
27612.7	-2.83944e-09	890649	890649	
27629.2	-3.01407e-09	890902	890902	
27645.7	-3.19869e-09	891182	891182	
27662.2	-3.39378e-09	891424	891424	
27678.7	-3.60023e-09	891749	891749	
27695.2	-3.81806e-09	891946	891946	
27711.8	-4.04862e-09	892259	892259	
27728.3	-4.29191e-09	892556	892556	
27744.8	-4.54929e-09	892874	892874	
27761.3	-4.82078e-09	893084	893084	
27777.8	-5.10727e-09	893285	893285	
27794.3	-5.41013e-09	893502	893502	
27810.8	-5.72982e-09	893763	893763	
27827.3	-6.06678e-09	894059	894059	
27843.8	-6.4224e-09	894351	894351	
27860.3	-6.79756e-09	894531	894531	
27876.9	-7.19319e-09	894799	894799	
27893.4	-7.6102e-09	895047	895047	
27909.9	-8.04994e-09	895234	895234	
27926.4	-8.51287e-09	895424	895424	
27942.9	-9.00081e-09	895662	895662	
27959.4	-9.51513e-09	895855	895855	
27975.9	-1.00567e-08	895971	895971	
27992.4	-1.0627e-08	896218	896218	
28008.9	-1.12277e-08	896591	896591	
28025.5	-1.18598e-08	896781	896781	
28042	-1.25251e-08	897013	897013	
28058.5	-1.3225e-08	897259	897259	
28075	-1.39612e-08	897504	897504	
28091.5	-1.47352e-08	897768	897768	
28108	-1.55492e-08	897942	897942	
28124.5	-1.6405e-08	898189	898189	
28141	-1.73045e-08	898453	898453	
28157.5	-1.82499e-08	898665	898665	
28174.1	-1.92435e-08	898833	898833	
28190.6	-2.02876e-08	899063	899063	
28207.1	-2.13836e-08	899390	899390	
28223.6	-2.2535e-08	899749	899749	
28240.1	-2.37437e-08	899956	899956	
28256.6	-2.50129e-08	900177	900177	
28273.1	-2.63444e-08	900375	900375	
28289.6	-2.77419e-08	900600	900600	
28306.1	-2.9208e-08	900832	900832	
28322.7	-3.07464e-08	901087	901087	
28339.2	-3.23589e-08	901329	901329	
28355.7	-3.40501e-08	901599	901599	
28372.2	-3.58232e-08	901782	901782	
28388.7	-3.76813e-08	901926	901926	
28405.2	-3.96285e-08	902364	902364	
28421.7	-4.1669e-08	902702	902702	
28438.2	-4.38063e-08	903003	903003	
28454.7	-4.60454e-08	903262	903262	
28471.3	-4.83901e-08	903499	903499	
28487.8	-5.08448e-08	903763	903763	
28504.3	-5.34146e-08	903919	903919	
28520.8	-5.61045e-08	904056	904056	
28537.3	-5.89193e-08	904146	904146	
28553.8	-6.18643e-08	904324	904324	
28570.3	-6.49452e-08	904516	904516	
28586.8	-6.81671e-08	904855	904855	
28603.3	-7.15368e-08	905234	905234	
28619.8	-7.50597e-08	905546	905546	
28636.4	-7.87422e-08	905877	905877	
28652.9	-8.25912e-08	906199	906199	
28669.4	-8.66135e-08	906461	906461	
28685.9	-9.08158e-08	906681	906681	
28702.4	-9.52055e-08	906952	906952	
28718.9	-9.97902e-08	907117	907117	
28735.4	-1.04578e-07	907323	907323	
28751.9	-1.09577e-07	907520	907520	
28768.4	-1.14795e-07	907794	907794	
28784.9	-1.20242e-07	907972	907972	
28801.5	-1.25925e-07	908204	908204	
28818	-1.31855e-07	908430	908430	
28834.5	-1.38041e-07	908650	908650	
28851	-1.44493e-07	909012	909012	
28867.5	-1.51222e-07	909468	909468	
28884	-1.58238e-07	909938	909938	
28900.5	-1.65551e-07	910237	910237	
28917	-1.73175e-07	910557	910557	
28933.5	-1.81119e-07	910772	910772	
28950	-1.89397e-07	911178	911178	
28966.6	-1.98021e-07	911464	911464	
28983.1	-2.07004e-07	911650	911650	
28999.6	-2.16359e-07	911852	911852	
29016.1	-2.26101e-07	912135	912135	
29032.6	-2.36243e-07	912359	912359	
29049.1	-2.468e-07	912641	912641	
29065.6	-2.57787e-07	913005	913005	
29082.1	-2.6922e-07	913350	913350	
29098.6	-2.81116e-07	913729	913729	
29115.1	-2.9349e-07	913946	913946	
29131.7	-3.06361e-07	914288	914288	
29148.2	-3.19746e-07	914682	914682	
29164.7	-3.33662e-07	915015	915015	
29181.2	-3.4813e-07	915269	915269	
29197.7	-3.63167e-07	915461	915461	
29214.2	-3.78795e-07	915683	915683	
29230.7	-3.95034e-07	915925	915925	
29247.2	-4.11904e-07	916244	916244	
29263.7	-4.29428e-07	916600	916600	
29280.2	-4.47629e-07	916811	916811	
29296.8	-4.66528e-07	917051	917051	
29313.3	-4.86151e-07	917352	917352	
29329.8	-5.06521e-07	917687	917687	
29346.3	-5.27664e-07	917993	917993	
29362.8	-5.49604e-07	918290	918290	
29379.3	-5.7237e-07	918561	918561	
29395.8	-5.95987e-07	918883	918883	
29412.3	-6.20485e-07	919068	919068	
29428.8	-6.4589e-07	919392	919392	
29445.3	-6.72235e-07	919773	919773	
29461.9	-6.99547e-07	920195	920195	
29478.4	-7.2786e-07	920451	920451	
29494.9	-7.57203e-07	920843	920843	
29511.4	-7.87611e-07	921051	921051	
29527.9	-8.19116e-07	921193	921193	
29544.4	-8.51753e-07	921422	921422	
29560.9	-8.85558e-07	921666	921666	
29577.4	-9.20566e-07	921931	921931	
29593.9	-9.56815e-07	922195	922195	
29610.4	-9.94342e-07	922454	922454	
29627	-1.03319e-06	922716	922716	
29643.5	-1.07339e-06	922945	922945	
29660	-1.11499e-06	923056	923056	
29676.5	-1.15803e-06	923271	923271	
29693	-1.20255e-06	923460	923460	
29709.5	-1.24859e-06	923767	923767	
29726	-1.29621e-06	924025	924025	
29742.5	-1.34544e-06	924354	924354	
29759	-1.39633e-06	924571	924571	
29775.5	-1.44893e-06	924757	924757	
29792.1	-1.50329e-06	924855	924855	
29808.6	-1.55946e-06	925063	925063	
29825.1	-1.61749e-06	925289	925289	
29841.6	-1.67742e-06	925544	925544	
29858.1	-1.73932e-06	925807	925807	
29874.6	-1.80323e-06	926122	926122	
29891.1	-1.86921e-06	926439	926439	
29907.6	-1.93732e-06	926756	926756	
29924.1	-2.0076e-06	926905	926905	
29940.6	-2.08013e-06	927148	927148	
29957.2	-2.15495e-06	927488	927488	
29973.7	-2.23214e-06	927675	927675	
29990.2	-2.31174e-06	927993	927993	
30006.7	-2.39381e-06	928219	928219	
30023.2	-2.47843e-06	928543	928543	
30039.7	-2.56566e-06	928729	928729	
30056.2	-2.65555e-06	929063	929063	
30072.7	-2.74817e-06	929330	929330	
30089.2	-2.8436e-06	929658	929658	
30105.7	-2.94189e-06	929856	929856	
30122.3	-3.04312e-06	930116	930116	
30138.8	-3.14734e-06	930283	930283	
30155.3	-3.25464e-06	930387	930387	
30171.8	-3.36508e-06	930609	930609	
30188.3	-3.47873e-06	930718	930718	
30204.8	-3.59567e-06	931007	931007	
30221.3	-3.71596e-06	931177	931177	
30237.8	-3.83967e-06	931403	931403	
30254.3	-3.96689e-06	931590	931590	
30270.8	-4.09769e-06	931910	931910	
30287.4	-4.23213e-06	932161	932161	
30303.9	-4.3703e-06	932499	932499	
30320.4	-4.51227e-06	932697	932697	
30336.9	-4.6581e-06	932932	932932	
30353.4	-4.80789e-06	933300	933300	
30369.9	-4.96169e-06	933638	933638	
30386.4	-5.1196e-06	934044	934044	
30402.9	-5.28167e-06	934312	934312	
30419.4	-5.44799e-06	934575	934575	
30435.9	-5.61863e-06	934805	934805	
30452.5	-5.79365e-06	935007	935007	
30469	-5.97315e-06	935376	935376	
30485.5	-6.15722e-06	935657	935657	
30502	-6.34595e-06	935987	935987	
30518.5	-6.53944e-06	936156	936156	
30535	-6.73771e-06	936366	936366	
30551.5	-6.94077e-06	936629	936629	
30568	-7.14856e-06	936857	936857	
30584.5	-7.36107e-06	937110	937110	
30601	-7.57829e-06	937363	937363	
30617.6	-7.80033e-06	937549	937549	
30634.1	-8.02748e-06	937727	937727	
30650.6	-8.2603e-06	937880	937880	
30667.1	-8.49914e-06	938041	938041	
30683.6	-8.74308e-06	938379	938379	
30700.1	-8.99044e-06	938754	938754	
30716.6	-9.24133e-06	939064	939064	
30733.1	-9.49755e-06	939369	939369	
30749.6	-9.76158e-06	939659	939659	
30766.1	-1.00361e-05	940019	940019	
30782.7	-1.03184e-05	940337	940337	
30799.2	-1.06248e-05	940644	940644	
30815.7	-1.09536e-05	940986	940986	
30832.2	-1.13158e-05	941196	941196	
30848.7	-1.12103e-05	941513	941513	
30865.2	-1.12991e-05	941756	941756	
30881.7	-1.15288e-05	942007	942007	
30898.2	-1.18617e-05	942305	942305	
30914.7	-1.22839e-05	942582	942582	
30931.2	-1.27086e-05	942950	942950	
30947.8	-1.3151e-05	943199	943199	
30964.3	-1.36516e-05	943447	943447	
30980.8	-1.42309e-05	943703	943703	
30997.3	-1.48913e-05	944000	944000	
31013.8	-1.5497e-05	944286	944286	
31030.3	-1.71646e-05	944627	944627	
31046.8	-1.82457e-05	944869	944869	
31063.3	-1.93399e-05	945200	945200	
31079.8	-2.05487e-05	945559	945559	
31096.3	-2.18532e-05	945795	945795	
31112.9	-2.32117e-05	946029	946029	
31129.4	-2.45932e-05	946248	946248	
31145.9	-2.6007e-05	946486	946486	
31162.4	-2.74233e-05	946669	946669	
31178.9	-2.88322e-05	946939	946939	
31195.4	-3.02508e-05	947255	947255	
31211.9	-3.16959e-05	947468	947468	
31228.4	-3.31758e-05	947720	947720	
31244.9	-3.47006e-05	948029	948029	
31261.4	-3.62782e-05	948359	948359	
31278	-3.79132e-05	948537	948537	
31294.5	-3.96074e-05	948746	948746	
31311	-4.13602e-05	949040	949040	
31327.5	-4.31671e-05	949327	949327	
31344	-4.50218e-05	949607	949607	
31360.5	-4.69177e-05	949948	949948	
31377	-4.88497e-05	950154	950154	
31393.5	-5.08137e-05	950438	950438	
31410	-5.2808e-05	950637	950637	
31426.5	-5.48344e-05	950759	950759	
31443.1	-5.68958e-05	950851	950851	
31459.6	-5.8995e-05	951074	951074	
31476.1	-6.11328e-05	951358	951358	
31492.6	-6.33087e-05	951540	951540	
31509.1	-6.55204e-05	951758	951758	
31525.6	-6.77647e-05	951887	951887	
31542.1	-7.00371e-05	952171	952171	
31558.6	-7.23325e-05	952422	952422	
31575.1	-7.46449e-05	952758	952758	
31591.6	-7.69677e-05	953049	953049	
31608.2	-7.92936e-05	953296	953296	
31624.7	-8.16149e-05	953501	953501	
31641.2	-8.39236e-05	953704	953704	
31657.7	-8.6212e-05	954025	954025	
31674.2	-8.84718e-05	954342	954342	
31690.7	-9.0695e-05	954672	954672	
31707.2	-9.28729e-05	954840	954840	
31723.7	-9.49966e-05	954953	954953	
31740.2	-9.70563e-05	955228	955228	
31756.7	-9.90415e-05	955472	955472	
31773.3	-0.000100941	955784	955784	
31789.8	-0.000102743	956164	956164	
31806.3	-0.000104436	956463	956463	
31822.8	-0.000106005	956705	956705	
31839.3	-0.000107439	956809	956809	
31855.8	-0.000108725	956918	956918	
31872.3	-0.000109855	957229	957229	
31888.8	-0.000110825	957460	957460	
31905.3	-0.000111622	957791	957791	
31921.8	-0.000112236	958072	958072	
31938.4	-0.000112665	958278	958278	
31954.9	-0.000112905	958500	958500	
31971.4	-0.000112947	958740	958740	
31987.9	-0.000112817	958956	958956	
32004.4	-0.000112512	959203	959203	
32020.9	-0.000112026	959552	959552	
32037.4	-0.000111315	959777	959777	
32053.9	-0.000110362	960028	960028	
32070.4	-0.00010962	960144	960144	
32086.9	-0.000108568	960373	960373	
32103.5	-0.00010722	960611	960611	
32120	-0.000105619	960795	960795	
32136.5	-0.000103756	960899	960899	
32153	-0.000101599	961123	961123	
32169.5	-9.90819e-05	961444	961444	
32186	-9.60597e-05	961688	961688	
32202.5	-9.25356e-05	961989	961989	
32219	-8.85084e-05	962265	962265	
32235.5	-8.40179e-05	962628	962628	
32252	-7.8901e-05	962980	962980	
32268.6	-6.77774e-05	963264	963264	
32285.1	-5.78123e-05	963556	963556	
32301.6	-4.76817e-05	963909	963909	
32318.1	-3.70779e-05	964233	964233	
32334.6	-2.57057e-05	964536	964536	
32351.1	-1.34002e-05	964885	964885	
32367.6	-5.10477e-08	965113	965113	
32384.1	1.44009e-05	965284	965284	
32400.6	2.99801e-05	965437	965437	
32417.1	4.6631e-05	965722	965722	
32433.7	6.44493e-05	965945	965945	
32450.2	8.35406e-05	966159	966159	
32466.7	0.00010401	966437	966437	
32483.2	0.000125922	966693	966693	
32499.7	0.000149347	967116	967116	
32516.2	0.000174305	967359	967359	
32532.7	0.000200873	967686	967686	
32549.2	0.000229144	968001	968001	
32565.7	0.000259208	968381	968381	
32582.2	0.000291134	968780	968780	
32598.8	0.000324969	969161	969161	
32615.3	0.000360749	969413	969413	
32631.8	0.000398513	969687	969687	
32648.3	0.000438308	969971	969971	
32664.8	0.00048019	970272	970272	
32681.3	0.000524229	970539	970539	
32697.8	0.000570502	970793	970793	
32714.3	0.000619097	970954	970954	
32730.8	0.000670107	971238	971238	
32747.3	0.000723631	971681	971681	
32763.9	0.000779772	971894	971894	
32780.4	0.000838628	972129	972129	
32796.9	0.000900298	972341	972341	
32813.4	0.000964872	972593	972593	
32829.9	0.00103244	972798	972798	
32846.4	0.00110308	973086	973086	
32862.9	0.00117686	973223	973223	
32879.4	0.00125388	973337	973337	
32895.9	0.00133419	973672	973672	
32912.4	0.00141789	973901	973901	
32929	0.00150506	974211	974211	
32945.5	0.00159577	974561	974561	
32962	0.00169013	974801	974801	
32978.5	0.00178821	975109	975109	
32995	0.00189012	975405	975405	
33011.5	0.00199593	975695	975695	
33028	0.00210575	976195	976195	
33044.5	0.00221965	976486	976486	
33061	0.00233773	976760	976760	
33077.5	0.00246008	976990	976990	
33094.1	0.00258676	977243	977243	
33110.6	0.00271786	977479	977479	
33127.1	0.00285346	977741	977741	
33143.6	0.00299364	977969	977969	
33160.1	0.00313847	978248	978248	
33176.6	0.00328802	978467	978467	
33193.1	0.00344236	978796	978796	
33209.6	0.00360157	979080	979080	
33226.1	0.0037657	979499	979499	
33242.6	0.00393483	979873	979873	
33259.2	0.00410902	980169	980169	
33275.7	0.00428832	980507	980507	
33292.2	0.00447279	980977	980977	
33308.7	0.00466249	981403	981403	
33325.2	0.00485745	981688	981688	
33341.7	0.00505774	982008	982008	
33358.2	0.00526337	982293	982293	
33374.7	0.0054744	982656	982656	
33391.2	0.00569085	983032	983032	
33407.7	0.00591275	983392	983392	
33424.3	0.00614013	983755	983755	
33440.8	0.00637299	984027	984027	
33457.3	0.00661135	984403	984403	
33473.8	0.00685522	984778	984778	
33490.3	0.0071046	985130	985130	
33506.8	0.00735949	985401	985401	
33523.3	0.00761988	985661	985661	
33539.8	0.00788575	985873	985873	
33556.3	0.00815708	986119	986119	
33572.9	0.00843385	986569	986569	
33589.4	0.00871602	986932	986932	
33605.9	0.00900355	987337	987337	
33622.4	0.0092964	987670	987670	
33638.9	0.00959452	988052	988052	
33655.4	0.00989784	988382	988382	
33671.9	0.0102063	988816	988816	
33688.4	0.0105198	989101	989101	
33704.9	0.0108384	989516	989516	
33721.4	0.0111618	989807	989807	
33738	0.0114901	990016	990016	
33754.5	0.011823	990252	990252	
33771	0.0121606	990455	990455	
33787.5	0.0125027	990663	990663	
33804	0.0128492	990963	990963	
33820.5	0.0131999	991232	991232	
33837	0.0135548	991548	991548	
33853.5	0.0139136	991730	991730	
33870	0.0142763	992027	992027	
33886.5	0.0146426	992312	992312	
33903.1	0.0150124	992610	992610	
33919.6	0.0153856	993030	993030	
33936.1	0.0157619	993389	993389	
33952.6	0.0161413	993655	993655	
33969.1	0.0165234	993910	993910	
33985.6	0.016908	994303	994303	
34002.1	0.0172951	994496	994496	
34018.6	0.0176844	994703	994703	
34035.1	0.0180756	994976	994976	
34051.6	0.0184686	995201	995201	
34068.2	0.018863	995435	995435	
34084.7	0.0192588	995660	995660	
34101.2	0.0196555	996068	996068	
34117.7	0.0200531	996390	996390	
34134.2	0.0204512	996595	996595	
34150.7	0.0208496	996876	996876	
34167.2	0.0212481	997170	997170	
34183.7	0.0216463	997440	997440	
34200.2	0.022044	997703	997703	
34216.7	0.0224409	997894	997894	
34233.3	0.0228368	998014	998014	
34249.8	0.0232314	998153	998153	
34266.3	0.0236243	998365	998365	
34282.8	0.0240154	998606	998606	
34299.3	0.0244043	998815	998815	
34315.8	0.0247907	999195	999195	
34332.3	0.0251744	999410	999410	
34348.8	0.025555	999643	999643	
34365.3	0.0259323	999913	999913	
34381.8	0.026306	1000117	1000117	
34398.4	0.0266758	1000431	1000431	
34414.9	0.0270413	1000706	1000706	
34431.4	0.0274024	1000864	1000864	
34447.9	0.0277586	1000999	1000999	
34464.4	0.0281097	1001176	1001176	
34480.9	0.0284555	1001381	1001381	
34497.4	0.0287956	1001691	1001691	
34513.9	0.0291297	1001990	1001990	
34530.4	0.0294576	1002315	1002315	
34546.9	0.029779	1002585	1002585	
34563.5	0.0300935	1002790	1002790	
34580	0.030401	1002901	1002901	
34596.5	0.0307012	1003077	1003077	
34613	0.0309937	1003198	1003198	
34629.5	0.0312784	1003459	1003459	
34646	0.0315549	1003790	1003790	
34662.5	0.0318231	1004111	1004111	
34679	0.0320826	1004404	1004404	
34695.5	0.0323332	1004622	1004622	
34712	0.0325748	1004927	1004927	
34728.6	0.032807	1005223	1005223	
34745.1	0.0330297	1005443	1005443	
34761.6	0.0332426	1005751	1005751	
34778.1	0.0334456	1006122	1006122	
34794.6	0.0336384	1006445	1006445	
34811.1	0.0338208	1006704	1006704	
34827.6	0.0339927	1007004	1007004	
34844.1	0.034154	1007172	1007172	
34860.6	0.0343043	1007405	1007405	
34877.1	0.0344436	1007570	1007570	
34893.7	0.0345718	1007941	1007941	
34910.2	0.0346886	1008213	1008213	
34926.7	0.034794	1008512	1008512	
34943.2	0.0348879	1008818	1008818	
34959.7	0.0349701	1009193	1009193	
34976.2	0.0350406	1009636	1009636	
34992.7	0.0350992	1010007	1010007	
35009.2	0.0351459	1010308	1010308	
35025.7	0.0351807	1010655	1010655	
35042.2	0.0352034	1011047	1011047	
35058.8	0.035214	1011272	1011272	
35075.3	0.0352125	1011696	1011696	
35091.8	0.0351989	1012050	1012050	
35108.3	0.0351731	1012324	1012324	
35124.8	0.0351352	1012641	1012641	
35141.3	0.0350851	1012958	1012958	
35157.8	0.035023	1013252	1013252	
35174.3	0.0349487	1013618	1013618	
35190.8	0.0348624	1013897	1013897	
35207.3	0.0347641	1014238	1014238	
35223.9	0.0346539	1014567	1014567	
35240.4	0.0345318	1014912	1014912	
35256.9	0.0343979	1015210	1015210	
35273.4	0.0342524	1015467	1015467	
35289.9	0.0340953	1015741	1015741	
35306.4	0.0339267	1015942	1015942	
35322.9	0.0337468	1016248	1016248	
35339.4	0.0335556	1016485	1016485	
35355.9	0.0333534	1016759	1016759	
35372.4	0.0331403	1016950	1016950	
35389	0.0329165	1017243	1017243	
35405.5	0.0326821	1017510	1017510	
35422	0.0324372	1017842	1017842	
35438.5	0.0321822	1018122	1018122	
35455	0.0319171	1018579	1018579	
35471.5	0.0316423	1018786	1018786	
35488	0.0313578	1019093	1019093	
35504.5	0.0310639	1019427	1019427	
35521	0.0307609	1019628	1019628	
35537.5	0.0304489	1019915	1019915	
35554.1	0.0301283	1020030	1020030	
35570.6	0.0297992	1020123	1020123	
35587.1	0.0294619	1020367	1020367	
35603.6	0.0291167	1020639	1020639	
35620.1	0.0287638	1020974	1020974	
35636.6	0.0284034	1021171	1021171	
35653.1	0.028036	1021563	1021563	
35669.6	0.0276617	1021923	1021923	
35686.1	0.0272808	1022246	1022246	
35702.6	0.0268936	1022528	1022528	
35719.2	0.0265004	1022778	1022778	
35735.7	0.0261015	1022925	1022925	
35752.2	0.0256972	1023229	1023229	
35768.7	0.0252877	1023521	1023521	
35785.2	0.0248734	1023925	1023925	
35801.7	0.0244546	1024248	1024248	
35818.2	0.0240315	1024619	1024619	
35834.7	0.0236044	1024876	1024876	
35851.2	0.0231737	1025209	1025209	
35867.7	0.0227396	1025462	1025462	
35884.3	0.0223024	1025792	1025792	
35900.8	0.0218625	1025976	1025976	
35917.3	0.02142	1026317	1026317	
35933.8	0.0209754	1026591	1026591	
35950.3	0.0205288	1026990	1026990	
35966.8	0.0200807	1027343	1027343	
35983.3	0.0196311	1027642	1027642	
35999.8	0.0191805	1027893	1027893	
36016.3	0.0187291	1028232	1028232	
36032.8	0.0182772	1028469	1028469	
36049.4	0.017825	1028781	1028781	
36065.9	0.0173729	1029168	1029168	
36082.4	0.0169211	1029514	1029514	
36098.9	0.0164698	1029842	1029842	
36115.4	0.0160193	1030082	1030082	
36131.9	0.01557	1030417	1030417	
36148.4	0.0151219	1030725	1030725	
36164.9	0.0146755	1030990	1030990	
36181.4	0.0142309	1031368	1031368	
36197.9	0.0137884	1031757	1031757	
36214.5	0.0133482	1032050	1032050	
36231	0.0129106	1032308	1032308	
36247.5	0.0124758	1032576	1032576	
36264	0.012044	1032825	1032825	
36280.5	0.0116156	1033185	1033185	
36297	0.0111906	1033425	1033425	
36313.5	0.0107694	1033714	1033714	
36330	0.0103522	1034026	1034026	
36346.5	0.00993913	1034300	1034300	
36363	0.00953048	1034658	1034658	
36379.6	0.00912646	1034955	1034955	
36396.1	0.00872727	1035225	1035225	
36412.6	0.00833313	1035402	1035402	
36429.1	0.00794423	1035776	1035776	
36445.6	0.00756077	1035971	1035971	
36462.1	0.00718296	1036239	1036239	
36478.6	0.00681098	1036502	1036502	
36495.1	0.00644502	1036754	1036754	
36511.6	0.00608526	1037126	1037126	
36528.1	0.00573188	1037463	1037463	
36544.7	0.00538505	1037676	1037676	
36561.2	0.00504493	1038016	1038016	
36577.7	0.00471169	1038294	1038294	
36594.2	0.00438549	1038493	1038493	
36610.7	0.00406648	1038814	1038814	
36627.2	0.00375479	1039031	1039031	
36643.7	0.00345058	1039247	1039247	
36660.2	0.00315397	1039333	1039333	
36676.7	0.00286509	1039532	1039532	
36693.2	0.00258405	1039809	1039809	
36709.8	0.00231098	1040094	1040094	
36726.3	0.00204598	1040298	1040298	
36742.8	0.00178914	1040562	1040562	
36759.3	0.00154055	1040748	1040748	
36775.8	0.0013003	1041100	1041100	
36792.3	0.00106847	1041299	1041299	
36808.8	0.000845119	1041556	1041556	
36825.3	0.000630306	1041860	1041860	
36841.8	0.000424084	1042068	1042068	
36858.3	0.000226493	1042328	1042328	
36874.9	3.75652e-05	1042504	1042504	
36891.4	-0.000142676	1042785	1042785	
36907.9	-0.000314218	1043050	1043050	
36924.4	-0.000477058	1043237	1043237	
36940.9	-0.000631204	1043463	1043463	
36957.4	-0.000776675	1043783	1043783	
36973.9	-0.000913501	1044040	1044040	
36990.4	-0.00104172	1044353	1044353	
37006.9	-0.0011614	1044652	1044652	
37023.4	-0.00127259	1045029	1045029	
37040	-0.00137537	1045356	1045356	
37056.5	-0.00146984	1045661	1045661	
37073	-0.0015561	1045952	1045952	
37089.5	-0.00163427	1046174	1046174	
37106	-0.00170448	1046480	1046480	
37122.5	-0.00176687	1046980	1046980	
37139	-0.00182159	1047345	1047345	
37155.5	-0.00186882	1047562	1047562	
37172	-0.00190874	1047864	1047864	
37188.5	-0.00194154	1048153	1048153	
37205.1	-0.00196742	1048337	1048337	
37221.6	-0.00198661	1048646	1048646	
37238.1	-0.00199932	1048932	1048932	
37254.6	-0.00200579	1049236	1049236	
37271.1	-0.00200627	1049427	1049427	
37287.6	-0.002001	1049740	1049740	
37304.1	-0.00199025	1050059	1050059	
37320.6	-0.00197429	1050375	1050375	
37337.1	-0.00195337	1050657	1050657	
37353.6	-0.00192777	1050994	1050994	
37370.2	-0.00189776	1051284	1051284	
37386.7	-0.00186363	1051514	1051514	
37403.2	-0.00182563	1051794	1051794	
37419.7	-0.00178405	1051996	1051996	
37436.2	-0.00173914	1052332	1052332	
37452.7	-0.00169117	1052541	1052541	
37469.2	-0.0016404	1052786	1052786	
37485.7	-0.00158707	1053127	1053127	
37502.2	-0.00153141	1053408	1053408	
37518.7	-0.00147366	1053644	1053644	
37535.3	-0.00141402	1053937	1053937	
37551.8	-0.00135269	1054207	1054207	
37568.3	-0.00128986	1054464	1054464	
37584.8	-0.00122568	1054686	1054686	
37601.3	-0.00116032	1054897	1054897	
37617.8	-0.0010939	1055168	1055168	
37634.3	-0.00102653	1055446	1055446	
37650.8	-0.000958312	1055684	1055684	
37667.3	-0.000889308	1056029	1056029	
37683.9	-0.000819575	1056317	1056317	
37700.4	-0.000749146	1056672	1056672	
37716.9	-0.000678034	1056904	1056904	
37733.4	-0.000606234	1057062	1057062	
37749.9	-0.000533723	1057277	1057277	
37766.4	-0.000460458	1057567	1057567	
37782.9	-0.000386384	1057861	1057861	
37799.4	-0.000311427	1058104	1058104	
37815.9	-0.000235503	1058370	1058370	
37832.4	-0.000158515	1058567	1058567	
37849	-8.03546e-05	1058951	1058951	
37865.5	-9.06873e-07	1059260	1059260	
37882	7.995e-05	1059629	1059629	
37898.5	0.000162342	1060057	1060057	
37915	0.000246398	1060374	1060374	
37931.5	0.000332246	1060576	1060576	
37948	0.000420012	1060819	1060819	
37964.5	0.00050982	1061088	1061088	
37981	0.000601788	1061228	1061228	
37997.5	0.000696023	1061466	1061466	
38014.1	0.000792627	1061690	1061690	
38030.6	0.000891689	1062000	1062000	
38047.1	0.000993283	1062215	1062215	
38063.6	0.00109747	1062418	1062418	
38080.1	0.0012043	1062758	1062758	
38096.6	0.0013138	1063120	1063120	
38113.1	0.00142598	1063502	1063502	
38129.6	0.00154083	1063817	1063817	
38146.1	0.00165833	1064102	1064102	
38162.6	0.00177843	1064438	1064438	
38179.2	0.00190105	1064762	1064762	
38195.7	0.00202612	1065056	1065056	
38212.2	0.00215351	1065281	1065281	
38228.7	0.0022831	1065460	1065460	
38245.2	0.00241474	1065752	1065752	
38261.7	0.00254826	1066033	1066033	
38278.2	0.00268347	1066426	1066426	
38294.7	0.00282015	1066753	1066753	
38311.2	0.00295808	1067098	1067098	
38327.7	0.00309703	1067463	1067463	
38344.3	0.00323673	1067919	1067919	
38360.8	0.00337691	1068234	1068234	
38377.3	0.00351729	1068483	1068483	
38393.8	0.00365758	1068773	1068773	
38410.3	0.00379748	1069020	1069020	
38426.8	0.00393667	1069264	1069264	
38443.3	0.00407484	1069540	1069540	
38459.8	0.00421167	1069861	1069861	
38476.3	0.00434685	1070070	1070070	
38492.8	0.00448004	1070273	1070273	
38509.4	0.00461093	1070619	1070619	
38525.9	0.00473919	1070952	1070952	
38542.4	0.00486452	1071302	1071302	
38558.9	0.00498659	1071820	1071820	
38575.4	0.00510512	1072100	1072100	
38591.9	0.00521979	1072415	1072415	
38608.4	0.00533031	1072650	1072650	
38624.9	0.00543642	1072933	1072933	
38641.4	0.00553783	1073194	1073194	
38657.9	0.00563429	1073413	1073413	
38674.5	0.00572554	1073794	1073794	
38691	0.00581136	1074053	1074053	
38707.5	0.00589151	1074366	1074366	
38724	0.00596579	1074560	1074560	
38740.5	0.00603399	1074799	1074799	
38757	0.00609593	1075058	1075058	
38773.5	0.00615143	1075339	1075339	
38790	0.00620034	1075830	1075830	
38806.5	0.0062425	1076289	1076289	
38823	0.00627779	1076729	1076729	
38839.6	0.00630609	1076998	1076998	
38856.1	0.00632728	1077191	1077191	
38872.6	0.00634128	1077401	1077401	
38889.1	0.00634801	1077595	1077595	
38905.6	0.00634741	1077881	1077881	
38922.1	0.00633941	1078129	1078129	
38938.6	0.006324	1078383	1078383	
38955.1	0.00630114	1078658	1078658	
38971.6	0.00627084	1078995	1078995	
38988.1	0.00623309	1079329	1079329	
39004.7	0.00618792	1079604	1079604	
39021.2	0.00613537	1079829	1079829	
39037.7	0.00607549	1080047	1080047	
39054.2	0.00600836	1080335	1080335	
39070.7	0.00593405	1080599	1080599	
39087.2	0.00585266	1080844	1080844	
39103.7	0.0057643	1081201	1081201	
39120.2	0.00566909	1081411	1081411	
39136.7	0.00556717	1081809	1081809	
39153.2	0.00545869	1082102	1082102	
39169.8	0.0053438	1082457	1082457	
39186.3	0.00522268	1082717	1082717	
39202.8	0.0050955	1082971	1082971	
39219.3	0.00496243	1083196	1083196	
39235.8	0.00482368	1083389	1083389	
39252.3	0.00467944	1083802	1083802	
39268.8	0.00452991	1084044	1084044	
39285.3	0.00437528	1084293	1084293	
39301.8	0.00421576	1084497	1084497	
39318.3	0.00405155	1084848	1084848	
39334.9	0.00388284	1085083	1085083	
39351.4	0.00370982	1085447	1085447	
39367.9	0.00353269	1085632	1085632	
39384.4	0.00335163	1085915	1085915	
39400.9	0.00316681	1086223	1086223	
39417.4	0.0029784	1086476	1086476	
39433.9	0.00278658	1086646	1086646	
39450.4	0.00259149	1086824	1086824	
39466.9	0.00239331	1087031	1087031	
39483.4	0.00219219	1087312	1087312	
39500	0.00198827	1087625	1087625	
39516.5	0.00178171	1087956	1087956	
39533	0.00157264	1088253	1088253	
39549.5	0.00136121	1088638	1088638	
39566	0.00114755	1088898	1088898	
39582.5	0.000931785	1089159	1089159	
39599	0.000714024	1089379	1089379	
39615.5	0.000494378	1089680	1089680	
39632	0.000272947	1089810	1089810	
39648.5	4.982e-05	1090073	1090073	
39665.1	-0.00017492	1090244	1090244	
39681.6	-0.000401196	1090562	1090562	
39698.1	-0.000628939	1090943	1090943	
39714.6	-0.000858079	1091349	1091349	
39731.1	-0.00108855	1091638	1091638	
39747.6	-0.0013203	1091975	1091975	
39764.1	-0.00155325	1092414	1092414	
39780.6	-0.00178734	1092644	1092644	
39797.1	-0.00202252	1092763	1092763	
39813.6	-0.00225871	1093004	1093004	
39830.2	-0.00249587	1093326	1093326	
39846.7	-0.00273392	1093578	1093578	
39863.2	-0.00297281	1093944	1093944	
39879.7	-0.00321249	1094166	1094166	
39896.2	-0.00345291	1094548	1094548	
39912.7	-0.00369402	1094917	1094917	
39929.2	-0.00393576	1095251	1095251	
39945.7	-0.00417809	1095515	1095515	
39962.2	-0.00442096	1095763	1095763	
39978.7	-0.00466432	1096262	1096262	
39995.3	-0.00490812	1096588	1096588	
40011.8	-0.00515228	1097016	1097016	
40028.3	-0.00539676	1097281	1097281	
40044.8	-0.00564149	1097569	1097569	
40061.3	-0.00588639	1097871	1097871	
40077.8	-0.0061314	1098126	1098126	
40094.3	-0.00637645	1098415	1098415	
40110.8	-0.00662146	1098791	1098791	
40127.3	-0.00686637	1099195	1099195	
40143.8	-0.0071111	1099524	1099524	
40160.4	-0.00735557	1099895	1099895	
40176.9	-0.00759973	1100140	1100140	
40193.4	-0.00784349	1100509	1100509	
40209.9	-0.00808679	1100805	1100805	
40226.4	-0.00832955	1100999	1100999	
40242.9	-0.00857168	1101409	1101409	
40259.4	-0.00881313	1101649	1101649	
40275.9	-0.00905379	1101906	1101906	
40292.4	-0.0092936	1102278	1102278	
40308.9	-0.00953248	1102694	1102694	
40325.5	-0.00977033	1102948	1102948	
40342	-0.0100071	1103106	1103106	
40358.5	-0.0102427	1103576	1103576	
40375	-0.010477	1103963	1103963	
40391.5	-0.0107099	1104224	1104224	
40408	-0.0109415	1104519	1104519	
40424.5	-0.0111715	1104766	1104766	
40441	-0.0113999	1105135	1105135	
40457.5	-0.0116268	1105468	1105468	
40474.1	-0.0118519	1105794	1105794	
40490.6	-0.0120751	1106163	1106163	
40507.1	-0.0122964	1106494	1106494	
40523.6	-0.0125158	1106779	1106779	
40540.1	-0.0127331	1106998	1106998	
40556.6	-0.0129483	1107240	1107240	
40573.1	-0.0131612	1107484	1107484	
40589.6	-0.0133718	1107732	1107732	
40606.1	-0.01358	1108017	1108017	
40622.7	-0.0137857	1108217	1108217	
40639.2	-0.0139889	1108414	1108414	
40655.7	-0.0141894	1108685	1108685	
40672.2	-0.0143873	1109017	1109017	
40688.7	-0.0145823	1109290	1109290	
40705.2	-0.0147745	1109550	1109550	
40721.7	-0.0149637	1109833	1109833	
40738.2	-0.0151499	1110116	1110116	
40754.8	-0.0153329	1110446	1110446	
40771.3	-0.0155128	1110725	1110725	
40787.8	-0.0156893	1111135	1111135	
40804.3	-0.0158625	1111416	1111416	
40820.8	-0.0160322	1111609	1111609	
40837.3	-0.0161984	1111895	1111895	
40853.8	-0.016361	1112209	1112209	
40870.4	-0.0165198	1112442	1112442	
40886.9	-0.0166749	1112704	1112704	
40903.4	-0.0168262	1113028	1113028	
40919.9	-0.0169735	1113426	1113426	
40936.4	-0.0171168	1113839	1113839	
40952.9	-0.0172561	1114052	1114052	
40969.4	-0.0173912	1114204	1114204	
40985.9	-0.0175221	1114490	1114490	
41002.5	-0.0176487	1114737	1114737	
41019	-0.0177711	1115135	1115135	
41035.5	-0.017889	1115558	1115558	
41052	-0.0180024	1115876	1115876	
41068.5	-0.0181114	1116294	1116294	
41085	-0.0182158	1116731	1116731	
41101.5	-0.0183156	1117081	1117081	
41118	-0.0184106	1117346	1117346	
41134.5	-0.018501	1117569	1117569	
41151	-0.0185866	1117864	1117864	
41167.6	-0.0186674	1118255	1118255	
41184.1	-0.0187433	1118606	1118606	
41200.6	-0.0188144	1118936	1118936	
41217.1	-0.0188805	1119374	1119374	
41233.6	-0.0189416	1119646	1119646	
41250.1	-0.0189978	1119938	1119938	
41266.6	-0.019049	1120335	1120335	
41283.1	-0.0190951	1120565	1120565	
41299.6	-0.0191362	1120858	1120858	
41316.1	-0.0191722	1121114	1121114	
41332.7	-0.0192032	1121474	1121474	
41349.2	-0.0192291	1121745	1121745	
41365.7	-0.0192499	1121997	1121997	
41382.2	-0.0192656	1122274	1122274	
41398.7	-0.0192763	1122565	1122565	
41415.2	-0.0192819	1122937	1122937	
41431.7	-0.0192826	1123151	1123151	
41448.2	-0.0192783	1123481	1123481	
41464.7	-0.01927	1123928	1123928	
41481.2	-0.0192586	1124211	1124211	
41497.8	-0.0192432	1124462	1124462	
41514.3	-0.0192407	1124607	1124607	
41530.8	-0.0192121	1124936	1124936	
41547.3	-0.0191789	1125190	1125190	
41563.8	-0.019135	1125444	1125444	
41580.3	-0.0190807	1125662	1125662	
41596.8	-0.0190286	1125771	1125771	
41613.3	-0.0189586	1126079	1126079	
41629.8	-0.0189334	1126420	1126420	
41646.3	-0.0188653	1126683	1126683	
41662.9	-0.0187021	1126979	1126979	
41679.4	-0.0185943	1127341	1127341	
41695.9	-0.0184819	1127606	1127606	
41712.4	-0.0183957	1127897	1127897	
41728.9	-0.0183359	1128114	1128114	
41745.4	-0.0182683	1128294	1128294	
41761.9	-0.0181933	1128519	1128519	
41778.4	-0.0181111	1128852	1128852	
41794.9	-0.0180185	1129190	1129190	
41811.4	-0.0179043	1129451	1129451	
41828	-0.0177768	1129662	1129662	
41844.5	-0.0176587	1129863	1129863	
41861	-0.0175389	1130254	1130254	
41877.5	-0.0174097	1130560	1130560	
41894	-0.0172615	1130806	1130806	
41910.5	-0.0171126	1131068	1131068	
41927	-0.0169692	1131428	1131428	
41943.5	-0.0168204	1131683	1131683	
41960	-0.0166814	1132012	1132012	
41976.5	-0.0165351	1132280	1132280	
41993.1	-0.0163819	1132536	1132536	
42009.6	-0.0162103	1132936	1132936	
42026.2	-0.0160383	1133260	1133260	
42042.7	-0.0158728	1133697	1133697	
42059.2	-0.0157093	1134062	1134062	
42075.7	-0.015543	1134327	1134327	
42092.2	-0.015372	1134694	1134694	
42108.8	-0.0151899	1135012	1135012	
42125.3	-0.0150167	1135421	1135421	
42141.8	-0.014835	1135792	1135792	
42158.3	-0.0146501	1136179	1136179	
42174.9	-0.0144613	1136566	1136566	
42191.4	-0.0142703	1136924	1136924	
42207.9	-0.0140764	1137174	1137174	
42224.4	-0.0138797	1137505	1137505	
42241	-0.0136804	1137770	1137770	
42257.5	-0.013478	1138024	1138024	
42274	-0.0132735	1138404	1138404	
42290.5	-0.0130665	1138731	1138731	
42307.1	-0.0128569	1138981	1138981	
42323.6	-0.0126457	1139287	1139287	
42340.1	-0.0124324	1139538	1139538	
42356.6	-0.012218	1139952	1139952	
42373.1	-0.0120023	1140450	1140450	
42389.7	-0.0117854	1140826	1140826	
42406.2	-0.0115672	1141147	1141147	
42422.7	-0.0113479	1141557	1141557	
42439.2	-0.0111272	1141863	1141863	
42455.7	-0.0109053	1142218	1142218	
42472.2	-0.010682	1142517	1142517	
42488.7	-0.0104573	1142891	1142891	
42505.2	-0.0102312	1143058	1143058	
42521.7	-0.00999685	1143589	1143589	
42538.2	-0.00977194	1144024	1144024	
42554.8	-0.00955085	1144442	1144442	
42571.3	-0.009328	1144768	1144768	
42587.8	-0.00910224	1145042	1145042	
42604.3	-0.00887387	1145393	1145393	
42620.8	-0.0086431	1145752	1145752	
42637.3	-0.00840981	1146124	1146124	
42653.8	-0.00817381	1146631	1146631	
42670.3	-0.00793513	1147118	1147118	
42686.8	-0.00769416	1147405	1147405	
42703.3	-0.00745151	1147702	1147702	
42719.9	-0.00720784	1148057	1148057	
42736.4	-0.00696378	1148493	1148493	
42752.9	-0.00671696	1148836	1148836	
42769.4	-0.00647765	1149043	1149043	
42785.9	-0.00623698	1149383	1149383	
42802.4	-0.00599385	1149679	1149679	
42818.9	-0.00575086	1149978	1149978	
42835.4	-0.00550961	1150209	1150209	
42851.9	-0.00527045	1150618	1150618	
42868.4	-0.00503285	1150927	1150927	
42885	-0.0047961	1151213	1151213	
42901.5	-0.00455981	1151456	1151456	
42918	-0.00432402	1151833	1151833	
42934.5	-0.0040891	1151983	1151983	
42951	-0.00385555	1152268	1152268	
42967.5	-0.00362378	1152614	1152614	
42984	-0.00339409	1152971	1152971	
43000.5	-0.00316666	1153301	1153301	
43017	-0.0029416	1153605	1153605	
43033.5	-0.00271899	1153907	1153907	
43050.1	-0.0024989	1154248	1154248	
43066.6	-0.00228136	1154466	1154466	
43083.1	-0.00206631	1154706	1154706	
43099.6	-0.00185368	1154832	1154832	
43116.1	-0.00164337	1155081	1155081	
43132.6	-0.00143535	1155303	1155303	
43149.1	-0.00122967	1155685	1155685	
43165.6	-0.00102647	1156046	1156046	
43182.1	-0.000825966	1156414	1156414	
43198.6	-0.000628424	1156836	1156836	
