0	0	135936	135936	
18.4875	0	135734	135734	
37.1736	0	135814	135814	
55.6611	0	135962	135962	
74.1486	0	136114	136114	
92.6361	0	136294	136294	
111.1	0	136458	136458	
129.564	0	136594	136594	
148.029	0	136710	136710	
166.348	0	136682	136682	
184.668	0	136698	136698	
202.987	0	136712	136712	
221.307	0	136762	136762	
239.627	0	136810	136810	
257.946	0	136884	136884	
276.266	0	136966	136966	
294.585	0	137036	137036	
312.905	0	137100	137100	
331.224	0	137150	137150	
349.544	0	137226	137226	
367.864	0	137330	137330	
386.183	0	137422	137422	
404.503	0	137482	137482	
422.822	0	137538	137538	
441.142	0	137630	137630	
459.461	0	137682	137682	
477.781	0	137700	137700	
496.051	0	137724	137724	
514.322	0	137766	137766	
532.592	0	137782	137782	
550.863	0	137830	137830	
569.133	0	137826	137826	
587.404	0	137840	137840	
605.674	0	137910	137910	
623.944	0	137984	137984	
642.215	0	138058	138058	
660.485	0	138120	138120	
678.756	0	138228	138228	
697.026	0	138330	138330	
715.296	0	138402	138402	
733.567	0	138512	138512	
751.837	0	138608	138608	
770.108	0	138678	138678	
788.378	0	138750	138750	
806.648	0	138820	138820	
824.919	0	138916	138916	
843.189	0	138994	138994	
861.46	0	139092	139092	
879.73	0	139170	139170	
898	0	139282	139282	
916.271	0	139366	139366	
934.541	0	139464	139464	
952.812	0	139580	139580	
971.082	0	139660	139660	
989.352	0	139760	139760	
1007.62	0	139858	139858	
1025.89	0	139934	139934	
1044.16	0	140032	140032	
1062.43	0	140098	140098	
1080.7	0	140192	140192	
1098.97	0	140266	140266	
1117.25	0	140382	140382	
1135.52	0	140498	140498	
1153.79	0	140606	140606	
1172.06	0	140732	140732	
1190.33	0	140810	140810	
1208.6	0	140936	140936	
1226.87	0	141034	141034	
1244.88	0	141108	141108	
1262.9	0	141178	141178	
1280.92	0	141248	141248	
1298.93	0	141348	141348	
1316.95	0	141438	141438	
1334.97	0	141574	141574	
1352.64	0	141660	141660	
1370.31	0	141742	141742	
1387.98	0	141808	141808	
1405.64	0	141956	141956	
1422.93	0	142090	142090	
1440.22	0	142186	142186	
1457.51	0	142292	142292	
1474.8	0	142368	142368	
1492.09	0	142450	142450	
1509.38	0	142540	142540	
1526.51	0	142616	142616	
1543.63	0	142684	142684	
1560.76	0	142784	142784	
1577.88	0	142914	142914	
1595.01	0	142982	142982	
1612.13	0	143098	143098	
1629.26	0	143198	143198	
1646.39	0	143292	143292	
1663.51	0	143378	143378	
1680.64	0	143502	143502	
1697.76	0	143594	143594	
1714.76	0	143720	143720	
1731.76	0	143822	143822	
1748.76	0	143918	143918	
1765.76	0	144034	144034	
1782.76	0	144102	144102	
1799.76	0	144168	144168	
1816.76	0	144304	144304	
1833.76	0	144396	144396	
1850.76	0	144514	144514	
1867.76	0	144614	144614	
1884.76	0	144690	144690	
1901.76	0	144742	144742	
1918.76	0	144828	144828	
1935.76	0	144944	144944	
1952.76	0	145094	145094	
1969.76	0	145166	145166	
1986.76	0	145324	145324	
2003.76	0	145402	145402	
2020.76	0	145542	145542	
2037.76	0	145618	145618	
2054.76	0	145750	145750	
2071.74	0	145846	145846	
2088.72	0	145908	145908	
2105.69	0	145966	145966	
2122.67	0	146124	146124	
2139.65	0	146208	146208	
2156.63	0	146280	146280	
2173.61	0	146354	146354	
2190.58	0	146428	146428	
2207.56	0	146500	146500	
2224.54	0	146682	146682	
2241.52	0	146830	146830	
2258.49	0	146976	146976	
2275.47	0	147068	147068	
2292.45	0	147194	147194	
2309.43	0	147286	147286	
2326.41	0	147382	147382	
2343.38	0	147480	147480	
2360.36	0	147560	147560	
2377.34	0	147660	147660	
2394.32	0	147776	147776	
2411.3	0	147860	147860	
2428.27	0	147974	147974	
2445.25	0	148066	148066	
2462.23	0	148192	148192	
2479.21	0	148280	148280	
2496.16	0	148410	148410	
2513.11	0	148560	148560	
2530.06	0	148704	148704	
2547.02	0	148780	148780	
2563.97	0	148920	148920	
2580.92	0	149016	149016	
2597.87	0	149116	149116	
2614.52	0	149198	149198	
2631.16	0	149296	149296	
2647.8	0	149374	149374	
2664.44	0	149544	149544	
2681.08	0	149684	149684	
2697.73	0	149780	149780	
2714.37	0	149848	149848	
2731.01	0	149944	149944	
2747.56	0	150028	150028	
2764.1	0	150162	150162	
2780.65	0	150286	150286	
2797.19	0	150444	150444	
2813.74	0	150548	150548	
2830.28	0	150658	150658	
2846.83	0	150770	150770	
2863.38	0	150896	150896	
2879.92	0	150970	150970	
2896.47	0	151112	151112	
2913.01	0	151208	151208	
2929.56	0	151292	151292	
2946.1	0	151446	151446	
2962.65	0	151534	151534	
2979.2	0	151674	151674	
2995.74	0	151754	151754	
3012.29	0	151846	151846	
3028.83	0	151948	151948	
3045.38	0	152084	152084	
3061.93	0	152242	152242	
3078.47	0	152364	152364	
3095.02	0	152508	152508	
3111.56	0	152640	152640	
3128.11	0	152766	152766	
3144.65	0	152900	152900	
3161.2	0	153032	153032	
3177.72	0	153110	153110	
3194.23	0	153232	153232	
3210.75	0	153352	153352	
3227.26	0	153482	153482	
3243.78	0	153546	153546	
3260.29	0	153676	153676	
3276.81	0	153784	153784	
3293.32	0	153882	153882	
3309.84	0	154020	154020	
3326.35	0	154168	154168	
3342.87	0	154326	154326	
3359.38	0	154440	154440	
3375.9	0	154604	154604	
3392.41	0	154748	154748	
3408.93	0	154868	154868	
3425.44	0	155000	155000	
3441.96	0	155100	155100	
3458.47	0	155208	155208	
3474.99	0	155312	155312	
3491.5	0	155426	155426	
3508.02	0	155560	155560	
3524.53	0	155660	155660	
3541.05	0	155784	155784	
3557.56	0	155884	155884	
3574.07	0	155988	155988	
3590.58	0	156116	156116	
3607.09	0	156282	156282	
3623.6	0	156416	156416	
3640.11	0	156552	156552	
3656.62	0	156680	156680	
3673.13	0	156850	156850	
3689.64	0	156980	156980	
3706.15	0	157110	157110	
3722.66	0	157224	157224	
3739.17	0	157314	157314	
3755.68	0	157400	157400	
3772.19	0	157534	157534	
3788.7	0	157672	157672	
3805.21	0	157846	157846	
3821.72	0	157956	157956	
3838.23	0	158034	158034	
3854.74	0	158188	158188	
3871.25	0	158334	158334	
3887.76	0	158464	158464	
3904.27	0	158596	158596	
3920.78	0	158750	158750	
3937.29	0	158878	158878	
3953.8	0	158990	158990	
3970.31	0	159158	159158	
3986.82	0	159298	159298	
4003.33	0	159440	159440	
4019.84	0	159518	159518	
4036.35	0	159640	159640	
4052.86	0	159750	159750	
4069.37	0	159916	159916	
4085.88	0	160084	160084	
4102.39	0	160210	160210	
4118.9	0	160326	160326	
4135.41	0	160458	160458	
4151.92	0	160558	160558	
4168.43	0	160734	160734	
4184.94	0	160868	160868	
4201.45	0	161056	161056	
4217.96	0	161160	161160	
4234.47	0	161294	161294	
4250.98	0	161468	161468	
4267.49	0	161600	161600	
4284	0	161766	161766	
4300.51	0	161890	161890	
4317.02	0	162006	162006	
4333.53	0	162146	162146	
4350.04	0	162232	162232	
4366.55	0	162340	162340	
4383.06	0	162464	162464	
4399.57	0	162616	162616	
4416.08	0	162784	162784	
4432.59	0	162850	162850	
4449.1	0	162968	162968	
4465.61	0	163130	163130	
4482.12	0	163318	163318	
4498.63	0	163466	163466	
4515.14	0	163626	163626	
4531.65	0	163772	163772	
4548.16	0	163910	163910	
4564.67	0	164050	164050	
4581.18	0	164210	164210	
4597.69	0	164336	164336	
4614.2	0	164472	164472	
4630.71	0	164596	164596	
4647.22	0	164736	164736	
4663.73	0	164834	164834	
4680.24	0	164940	164940	
4696.75	0	165098	165098	
4713.26	0	165298	165298	
4729.77	0	165466	165466	
4746.28	0	165578	165578	
4762.79	0	165708	165708	
4779.3	0	165870	165870	
4795.81	0	166056	166056	
4812.32	0	166236	166236	
4828.83	0	166398	166398	
4845.34	0	166558	166558	
4861.85	0	166720	166720	
4878.36	0	166844	166844	
4894.87	0	166988	166988	
4911.38	0	167132	167132	
4927.89	0	167316	167316	
4944.4	0	167430	167430	
4960.91	0	167570	167570	
4977.42	0	167716	167716	
4993.93	0	167872	167872	
5010.44	0	168026	168026	
5026.95	0	168184	168184	
5043.46	0	168314	168314	
5059.97	0	168508	168508	
5076.48	0	168648	168648	
5092.99	0	168806	168806	
5109.5	0	168968	168968	
5126.01	0	169078	169078	
5142.52	0	169258	169258	
5159.03	0	169360	169360	
5175.54	0	169530	169530	
5192.05	0	169692	169692	
5208.56	0	169854	169854	
5225.07	0	170030	170030	
5241.58	0	170170	170170	
5258.09	0	170320	170320	
5274.6	0	170460	170460	
5291.11	0	170636	170636	
5307.62	0	170788	170788	
5324.13	0	170914	170914	
5340.64	0	171076	171076	
5357.15	0	171216	171216	
5373.66	0	171368	171368	
5390.17	0	171538	171538	
5406.68	0	171734	171734	
5423.19	0	171892	171892	
5439.7	0	172060	172060	
5456.21	0	172206	172206	
5472.72	0	172394	172394	
5489.23	0	172512	172512	
5505.74	0	172682	172682	
5522.25	0	172808	172808	
5538.76	0	172952	172952	
5555.27	0	173086	173086	
5571.78	0	173246	173246	
5588.29	0	173394	173394	
5604.8	0	173536	173536	
5621.31	0	173680	173680	
5637.82	0	173800	173800	
5654.33	0	173924	173924	
5670.84	0	174126	174126	
5687.35	0	174312	174312	
5703.86	0	174524	174524	
5720.37	0	174644	174644	
5736.88	0	174818	174818	
5753.39	0	174940	174940	
5769.9	0	175086	175086	
5786.41	0	175230	175230	
5802.92	0	175406	175406	
5819.43	0	175550	175550	
5835.94	0	175744	175744	
5852.45	0	175914	175914	
5868.96	0	176068	176068	
5885.47	0	176194	176194	
5901.98	0	176384	176384	
5918.49	0	176522	176522	
5935	0	176672	176672	
5951.51	0	176854	176854	
5968.02	0	177058	177058	
5984.53	0	177190	177190	
6001.04	0	177400	177400	
6017.55	0	177598	177598	
6034.06	0	177770	177770	
6050.57	0	177896	177896	
6067.08	0	178040	178040	
6083.59	0	178174	178174	
6100.1	0	178324	178324	
6116.61	0	178518	178518	
6133.12	0	178692	178692	
6149.63	0	178834	178834	
6166.14	0	178994	178994	
6182.65	0	179156	179156	
6199.16	0	179320	179320	
6215.67	0	179468	179468	
6232.18	0	179646	179646	
6248.69	0	179840	179840	
6265.2	0	179986	179986	
6281.71	0	180146	180146	
6298.22	0	180328	180328	
6314.73	0	180508	180508	
6331.24	0	180678	180678	
6347.75	0	180796	180796	
6364.26	0	180938	180938	
6380.77	0	181094	181094	
6397.28	0	181302	181302	
6413.79	0	181442	181442	
6430.3	0	181610	181610	
6446.81	0	181778	181778	
6463.32	0	181940	181940	
6479.83	0	182142	182142	
6496.34	0	182282	182282	
6512.85	0	182402	182402	
6529.36	0	182562	182562	
6545.87	0	182790	182790	
6562.38	0	182946	182946	
6578.89	0	183136	183136	
6595.4	0	183334	183334	
6611.91	0	183490	183490	
6628.42	0	183608	183608	
6644.93	0	183742	183742	
6661.44	0	183944	183944	
6677.95	0	184114	184114	
6694.46	0	184296	184296	
6710.97	0	184480	184480	
6727.48	0	184640	184640	
6743.99	0	184806	184806	
6760.5	0	184972	184972	
6777	0	185104	185104	
6793.51	0	185284	185284	
6810.02	0	185426	185426	
6826.53	0	185582	185582	
6843.04	0	185794	185794	
6859.55	0	185984	185984	
6876.06	0	186176	186176	
6892.57	0	186348	186348	
6909.08	0	186514	186514	
6925.59	0	186690	186690	
6942.1	0	186896	186896	
6958.61	0	187032	187032	
6975.12	0	187234	187234	
6991.63	0	187416	187416	
7008.14	0	187566	187566	
7024.65	0	187738	187738	
7041.16	0	187926	187926	
7057.67	0	188110	188110	
7074.18	0	188290	188290	
7090.69	0	188480	188480	
7107.2	0	188648	188648	
7123.71	0	188818	188818	
7140.22	0	188970	188970	
7156.73	0	189136	189136	
7173.24	0	189328	189328	
7189.75	0	189536	189536	
7206.26	0	189748	189748	
7222.77	0	189900	189900	
7239.27	0	190020	190020	
7255.78	0	190192	190192	
7272.29	0	190372	190372	
7288.8	0	190530	190530	
7305.31	0	190718	190718	
7321.82	0	190884	190884	
7338.33	0	191072	191072	
7354.84	0	191292	191292	
7371.35	0	191498	191498	
7387.86	0	191700	191700	
7404.37	0	191890	191890	
7420.88	0	192052	192052	
7437.39	0	192224	192224	
7453.9	0	192412	192412	
7470.41	0	192612	192612	
7486.92	0	192764	192764	
7503.43	0	192942	192942	
7519.94	0	193106	193106	
7536.45	0	193300	193300	
7552.96	0	193468	193468	
7569.47	0	193648	193648	
7585.98	0	193840	193840	
7602.49	0	193984	193984	
7618.99	0	194166	194166	
7635.5	0	194358	194358	
7652.01	0	194558	194558	
7668.52	0	194772	194772	
7685.03	0	194956	194956	
7701.54	0	195070	195070	
7718.05	0	195264	195264	
7734.56	0	195404	195404	
7751.07	0	195650	195650	
7767.58	0	195856	195856	
7784.09	0	196096	196096	
7800.6	0	196328	196328	
7817.11	0	196492	196492	
7833.62	0	196644	196644	
7850.13	0	196856	196856	
7866.64	0	197074	197074	
7883.15	0	197254	197254	
7899.66	0	197350	197350	
7916.17	0	197516	197516	
7932.68	0	197718	197718	
7949.19	0	197958	197958	
7965.7	0	198186	198186	
7982.21	0	198404	198404	
7998.72	0	198564	198564	
8015.23	0	198740	198740	
8031.74	0	198934	198934	
8048.25	0	199116	199116	
8064.76	0	199324	199324	
8081.27	0	199520	199520	
8097.77	0	199690	199690	
8114.28	0	199886	199886	
8130.79	0	200072	200072	
8147.3	0	200300	200300	
8163.81	0	200464	200464	
8180.32	0	200692	200692	
8196.83	0	200888	200888	
8213.34	0	201076	201076	
8229.85	0	201300	201300	
8246.36	0	201522	201522	
8262.87	0	201744	201744	
8279.38	0	201934	201934	
8295.89	0	202098	202098	
8312.4	0	202262	202262	
8328.91	0	202464	202464	
8345.42	0	202704	202704	
8361.93	0	202930	202930	
8378.44	0	203106	203106	
8394.95	0	203336	203336	
8411.46	0	203506	203506	
8427.97	0	203666	203666	
8444.48	0	203934	203934	
8460.99	0	204160	204160	
8477.5	0	204368	204368	
8494.01	0	204542	204542	
8510.52	0	204712	204712	
8527.03	0	204948	204948	
8543.54	0	205136	205136	
8560.05	0	205382	205382	
8576.56	0	205628	205628	
8593.07	0	205794	205794	
8609.58	0	205932	205932	
8626.09	0	206076	206076	
8642.6	0	206360	206360	
8659.11	0	206574	206574	
8675.62	0	206768	206768	
8692.13	0	206966	206966	
8708.64	0	207198	207198	
8725.15	0	207446	207446	
8741.66	0	207652	207652	
8758.17	0	207860	207860	
8774.68	0	208066	208066	
8791.19	0	208244	208244	
8807.7	0	208410	208410	
8824.21	0	208550	208550	
8840.72	0	208832	208832	
8857.23	0	209056	209056	
8873.74	0	209272	209272	
8890.25	0	209454	209454	
8906.76	0	209710	209710	
8923.27	0	209898	209898	
8939.78	0	210100	210100	
8956.29	0	210330	210330	
8972.8	0	210500	210500	
8989.31	0	210730	210730	
9005.82	0	210888	210888	
9022.33	0	211140	211140	
9038.84	0	211404	211404	
9055.35	0	211612	211612	
9071.86	0	211804	211804	
9088.37	0	211966	211966	
9104.88	0	212134	212134	
9121.39	0	212366	212366	
9137.9	0	212642	212642	
9154.41	0	212918	212918	
9170.92	0	213150	213150	
9187.43	0	213352	213352	
9203.94	0	213552	213552	
9220.45	0	213748	213748	
9236.96	0	213988	213988	
9253.47	0	214202	214202	
9269.98	0	214396	214396	
9286.49	0	214646	214646	
9303	0	214838	214838	
9319.51	0	215094	215094	
9336.02	0	215302	215302	
9352.53	0	215542	215542	
9369.04	0	215730	215730	
9385.55	0	215968	215968	
9402.06	0	216132	216132	
9418.57	0	216380	216380	
9435.08	0	216644	216644	
9451.59	0	216812	216812	
9468.1	0	217116	217116	
9484.61	0	217350	217350	
9501.12	0	217500	217500	
9517.63	0	217732	217732	
9534.14	0	217948	217948	
9550.65	0	218232	218232	
9567.16	0	218446	218446	
9583.67	0	218684	218684	
9600.18	0	218910	218910	
9616.69	0	219116	219116	
9633.2	0	219354	219354	
9649.71	0	219582	219582	
9666.22	0	219836	219836	
9682.73	0	220050	220050	
9699.24	0	220300	220300	
9715.75	0	220550	220550	
9732.26	0	220800	220800	
9748.77	0	221018	221018	
9765.27	0	221258	221258	
9781.78	0	221492	221492	
9798.29	0	221698	221698	
9814.8	0	221946	221946	
9831.31	0	222208	222208	
9847.82	0	222486	222486	
9864.33	0	222748	222748	
9880.84	0	222968	222968	
9897.35	0	223216	223216	
9913.86	0	223464	223464	
9930.37	0	223692	223692	
9946.88	0	223932	223932	
9963.39	0	224150	224150	
9979.9	0	224346	224346	
9996.41	0	224582	224582	
10012.9	0	224866	224866	
10029.4	0	225102	225102	
10045.9	0	225332	225332	
10062.5	0	225558	225558	
10079	0	225832	225832	
10095.5	0	226128	226128	
10112	0	226332	226332	
10128.5	0	226578	226578	
10145	0	226746	226746	
10161.5	0	226968	226968	
10178	0	227240	227240	
10194.5	0	227448	227448	
10211	0	227716	227716	
10227.6	0	227978	227978	
10244.1	0	228232	228232	
10260.6	0	228488	228488	
10277.1	0	228754	228754	
10293.6	0	229000	229000	
10310.1	0	229264	229264	
10326.6	0	229478	229478	
10343.1	0	229692	229692	
10359.6	0	229890	229890	
10376.1	0	230162	230162	
10392.7	0	230372	230372	
10409.2	0	230630	230630	
10425.7	0	230836	230836	
10442.2	0	231032	231032	
10458.7	0	231294	231294	
10475.2	0	231550	231550	
10491.7	0	231854	231854	
10508.2	0	232194	232194	
10524.7	0	232426	232426	
10541.2	0	232614	232614	
10557.8	0	232840	232840	
10574.3	0	233084	233084	
10590.8	0	233258	233258	
10607.3	0	233558	233558	
10623.8	0	233816	233816	
10640.3	0	234056	234056	
10656.8	0	234348	234348	
10673.3	0	234596	234596	
10689.8	0	234812	234812	
10706.3	0	235042	235042	
10722.9	0	235272	235272	
10739.4	0	235472	235472	
10755.9	0	235664	235664	
10772.4	0	235916	235916	
10788.9	0	236156	236156	
10805.4	0	236464	236464	
10821.9	0	236746	236746	
10838.4	0	236992	236992	
10854.9	0	237256	237256	
10871.4	0	237456	237456	
10888	0	237724	237724	
10904.5	0	237940	237940	
10921	0	238236	238236	
10937.5	0	238486	238486	
10954	0	238722	238722	
10970.5	0	238956	238956	
10987	0	239188	239188	
11003.5	0	239440	239440	
11020	0	239708	239708	
11036.5	0	239954	239954	
11053	0	240206	240206	
11069.6	0	240434	240434	
11086.1	0	240664	240664	
11102.6	0	240858	240858	
11119.1	0	241168	241168	
11135.6	0	241422	241422	
11152.1	0	241658	241658	
11168.6	0	241966	241966	
11185.1	0	242222	242222	
11201.6	0	242484	242484	
11218.1	0	242760	242760	
11234.7	0	242976	242976	
11251.2	0	243174	243174	
11267.7	0	243394	243394	
11284.2	0	243608	243608	
11300.7	0	243824	243824	
11317.2	0	244062	244062	
11333.7	0	244282	244282	
11350.2	0	244498	244498	
11366.7	0	244784	244784	
11383.2	0	245032	245032	
11399.8	0	245266	245266	
11416.3	0	245556	245556	
11432.8	0	245796	245796	
11449.3	0	246040	246040	
11465.8	0	246302	246302	
11482.3	0	246572	246572	
11498.8	0	246806	246806	
11515.3	0	246992	246992	
11531.8	0	247230	247230	
11548.3	0	247474	247474	
11564.9	0	247810	247810	
11581.4	0	248122	248122	
11597.9	0	248414	248414	
11614.4	0	248624	248624	
11630.9	0	248874	248874	
11647.4	0	249144	249144	
11663.9	0	249418	249418	
11680.4	0	249702	249702	
11696.9	0	249910	249910	
11713.4	0	250144	250144	
11730	0	250412	250412	
11746.5	0	250678	250678	
11763	0	250930	250930	
11779.5	0	251164	251164	
11796	0	251406	251406	
11812.5	0	251640	251640	
11829	0	251950	251950	
11845.5	0	252258	252258	
11862	0	252604	252604	
11878.5	0	252892	252892	
11895.1	0	253198	253198	
11911.6	0	253490	253490	
11928.1	0	253796	253796	
11944.6	0	254110	254110	
11961.1	0	254406	254406	
11977.7	0	254648	254648	
11994.2	0	254920	254920	
12010.7	0	255238	255238	
12027.2	0	255480	255480	
12043.7	0	255820	255820	
12060.2	0	256084	256084	
12076.7	0	256364	256364	
12093.2	0	256592	256592	
12109.8	0	256850	256850	
12126.3	0	257168	257168	
12142.8	0	257448	257448	
12159.3	0	257800	257800	
12175.8	0	258046	258046	
12192.3	0	258290	258290	
12208.8	0	258526	258526	
12225.4	0	258812	258812	
12241.9	0	259150	259150	
12258.4	0	259438	259438	
12274.9	0	259696	259696	
12291.4	0	260042	260042	
12307.9	0	260346	260346	
12324.4	0	260568	260568	
12341	0	260858	260858	
12357.5	0	261158	261158	
12374	0	261464	261464	
12390.5	0	261780	261780	
12407	0	262062	262062	
12423.5	0	262346	262346	
12440	0	262626	262626	
12456.5	0	262900	262900	
12473	0	263204	263204	
12489.6	0	263476	263476	
12506.1	0	263858	263858	
12522.6	0	264108	264108	
12539.1	0	264420	264420	
12555.6	0	264730	264730	
12572.1	0	265014	265014	
12588.6	0	265288	265288	
12605.1	0	265560	265560	
12621.6	0	265782	265782	
12638.1	0	265986	265986	
12654.7	0	266384	266384	
12671.2	0	266658	266658	
12687.7	0	266998	266998	
12704.2	0	267328	267328	
12720.7	0	267636	267636	
12737.2	0	267842	267842	
12753.7	0	268166	268166	
12770.2	0	268484	268484	
12786.7	0	268756	268756	
12803.2	0	269044	269044	
12819.8	0	269338	269338	
12836.3	0	269652	269652	
12852.8	0	269928	269928	
12869.3	0	270236	270236	
12885.8	0	270502	270502	
12902.3	0	270786	270786	
12918.8	0	271112	271112	
12935.3	0	271380	271380	
12951.8	0	271730	271730	
12968.3	0	272026	272026	
12984.9	0	272300	272300	
13001.4	0	272620	272620	
13017.9	0	272882	272882	
13034.4	0	273174	273174	
13050.9	0	273460	273460	
13067.4	0	273820	273820	
13083.9	0	274188	274188	
13100.4	0	274506	274506	
13116.9	0	274822	274822	
13133.4	0	275100	275100	
13150	0	275346	275346	
13166.5	0	275698	275698	
13183	0	276056	276056	
13199.5	0	276386	276386	
13216	0	276724	276724	
13232.5	0	277006	277006	
13249	0	277318	277318	
13265.5	0	277622	277622	
13282	0	277976	277976	
13298.5	0	278272	278272	
13315.1	0	278614	278614	
13331.6	0	278876	278876	
13348.1	0	279166	279166	
13364.6	0	279460	279460	
13381.1	0	279768	279768	
13397.6	0	280074	280074	
13414.1	0	280350	280350	
13430.6	0	280638	280638	
13447.1	0	280946	280946	
13463.6	0	281342	281342	
13480.2	0	281648	281648	
13496.7	0	281936	281936	
13513.2	0	282232	282232	
13529.7	0	282554	282554	
13546.2	0	282870	282870	
13562.7	0	283160	283160	
13579.2	0	283488	283488	
13595.7	0	283844	283844	
13612.2	0	284162	284162	
13628.7	0	284400	284400	
13645.3	0	284660	284660	
13661.8	0	284938	284938	
13678.3	0	285210	285210	
13694.8	0	285580	285580	
13711.3	0	285920	285920	
13727.8	0	286270	286270	
13744.3	0	286638	286638	
13760.8	0	286954	286954	
13777.3	0	287260	287260	
13793.8	0	287586	287586	
13810.4	0	287890	287890	
13826.9	0	288138	288138	
13843.4	0	288414	288414	
13859.9	0	288656	288656	
13876.4	0	288936	288936	
13892.9	0	289274	289274	
13909.4	0	289722	289722	
13925.9	0	290080	290080	
13942.4	0	290424	290424	
13958.9	0	290684	290684	
13975.5	0	290980	290980	
13992	0	291260	291260	
14008.5	0	291624	291624	
14025	0	291924	291924	
14041.5	0	292218	292218	
14058	0	292440	292440	
14074.5	0	292736	292736	
14091	0	292968	292968	
14107.5	0	293418	293418	
14124	0	293760	293760	
14140.6	0	294046	294046	
14157.1	0	294420	294420	
14173.6	0	294762	294762	
14190.1	0	295046	295046	
14206.6	0	295336	295336	
14223.1	0	295602	295602	
14239.6	0	295910	295910	
14256.1	0	296242	296242	
14272.6	0	296572	296572	
14289.1	0	296860	296860	
14305.7	0	297136	297136	
14322.2	0	297476	297476	
14338.7	0	297880	297880	
14355.2	0	298176	298176	
14371.7	0	298492	298492	
14388.2	0	298764	298764	
14404.7	0	299106	299106	
14421.2	0	299446	299446	
14437.7	0	299754	299754	
14454.2	0	300004	300004	
14470.8	0	300256	300256	
14487.3	0	300548	300548	
14503.8	0	300798	300798	
14520.3	0	301146	301146	
14536.8	0	301594	301594	
14553.3	0	301994	301994	
14569.8	0	302298	302298	
14586.3	0	302620	302620	
14602.8	0	302890	302890	
14619.3	0	303164	303164	
14635.9	0	303450	303450	
14652.4	0	303756	303756	
14668.9	0	304122	304122	
14685.4	0	304420	304420	
14701.9	0	304716	304716	
14718.4	0	305000	305000	
14734.9	0	305266	305266	
14751.4	0	305616	305616	
14767.9	0	306054	306054	
14784.4	0	306458	306458	
14801	0	306756	306756	
14817.5	0	307034	307034	
14834	0	307280	307280	
14850.5	0	307550	307550	
14867	0	307872	307872	
14883.5	0	308194	308194	
14900	0	308536	308536	
14916.5	0	308856	308856	
14933	0	309180	309180	
14949.5	0	309506	309506	
14966.1	0	309920	309920	
14982.6	0	310246	310246	
14999.1	0	310586	310586	
15015.6	0	310942	310942	
15032.1	0	311262	311262	
15048.6	0	311638	311638	
15065.1	0	312028	312028	
15081.6	0	312372	312372	
15098.1	0	312708	312708	
15114.6	0	313030	313030	
15131.2	0	313292	313292	
15147.7	0	313580	313580	
15164.2	0	313902	313902	
15180.7	0	314206	314206	
15197.2	0	314658	314658	
15213.7	0	315086	315086	
15230.2	0	315530	315530	
15246.7	0	315848	315848	
15263.2	0	316214	316214	
15279.7	0	316530	316530	
15296.3	0	316822	316822	
15312.8	0	317152	317152	
15329.3	0	317510	317510	
15345.8	0	317916	317916	
15362.3	0	318298	318298	
15378.8	0	318688	318688	
15395.3	0	319086	319086	
15411.8	0	319506	319506	
15428.3	0	319834	319834	
15444.8	0	320208	320208	
15461.4	0	320612	320612	
15477.9	0	320940	320940	
15494.4	0	321220	321220	
15510.9	0	321586	321586	
15527.4	0	321930	321930	
15543.9	0	322248	322248	
15560.4	0	322642	322642	
15576.9	0	323000	323000	
15593.4	0	323352	323352	
15609.9	0	323772	323772	
15626.5	0	324226	324226	
15643	0	324548	324548	
15659.5	0	324920	324920	
15676	0	325242	325242	
15692.5	0	325592	325592	
15709	0	325954	325954	
15725.5	0	326310	326310	
15742	0	326628	326628	
15758.5	0	326868	326868	
15775	0	327268	327268	
15791.6	0	327660	327660	
15808.1	0	328008	328008	
15824.6	0	328342	328342	
15841.1	0	328676	328676	
15857.6	0	329074	329074	
15874.1	0	329434	329434	
15890.6	0	329802	329802	
15907.1	0	330104	330104	
15923.6	0	330456	330456	
15940.1	0	330762	330762	
15956.7	0	331096	331096	
15973.2	0	331406	331406	
15989.7	0	331776	331776	
16006.2	0	332134	332134	
16022.7	0	332538	332538	
16039.2	0	332930	332930	
16055.7	0	333348	333348	
16072.2	0	333694	333694	
16088.7	0	334088	334088	
16105.2	0	334460	334460	
16121.8	0	334820	334820	
16138.3	0	335202	335202	
16154.8	0	335636	335636	
16171.3	0	335922	335922	
16187.8	0	336254	336254	
16204.3	0	336618	336618	
16220.8	0	337004	337004	
16237.3	0	337406	337406	
16253.8	0	337822	337822	
16270.3	0	338208	338208	
16286.9	0	338514	338514	
16303.4	0	338928	338928	
16319.9	0	339294	339294	
16336.4	0	339636	339636	
16352.9	0	339936	339936	
16369.4	0	340236	340236	
16385.9	0	340604	340604	
16402.4	0	340930	340930	
16418.9	0	341352	341352	
16435.4	0	341722	341722	
16452	0	342066	342066	
16468.5	0	342436	342436	
16485	0	342822	342822	
16501.5	0	343212	343212	
16518	0	343548	343548	
16534.5	0	343906	343906	
16551	0	344276	344276	
16567.5	0	344652	344652	
16584	0	345108	345108	
16600.5	0	345412	345412	
16617.1	0	345768	345768	
16633.6	0	346110	346110	
16650.1	0	346496	346496	
16666.6	0	346834	346834	
16683.1	0	347242	347242	
16699.6	0	347586	347586	
16716.1	0	347930	347930	
16732.6	0	348164	348164	
16749.1	0	348578	348578	
16765.6	0	348942	348942	
16782.2	0	349382	349382	
16798.7	0	349804	349804	
16815.2	0	350136	350136	
16831.7	0	350520	350520	
16848.2	0	350918	350918	
16864.7	0	351306	351306	
16881.2	0	351644	351644	
16897.7	0	351946	351946	
16914.2	0	352364	352364	
16930.7	0	352860	352860	
16947.3	0	353234	353234	
16963.8	0	353694	353694	
16980.3	0	354050	354050	
16996.8	0	354404	354404	
17013.3	0	354718	354718	
17029.8	0	355052	355052	
17046.3	0	355344	355344	
17062.8	0	355586	355586	
17079.3	0	355992	355992	
17095.8	0	356460	356460	
17112.4	0	356908	356908	
17128.9	0	357266	357266	
17145.4	0	357628	357628	
17161.9	0	357848	357848	
17178.4	0	358176	358176	
17194.9	0	358626	358626	
17211.4	0	359082	359082	
17227.9	0	359550	359550	
17244.4	0	359994	359994	
17260.9	0	360368	360368	
17277.5	0	360750	360750	
17294	0	361212	361212	
17310.5	0	361798	361798	
17327	0	362242	362242	
17343.5	0	362628	362628	
17360	0	362986	362986	
17376.5	0	363344	363344	
17393	0	363660	363660	
17409.5	0	364018	364018	
17426	0	364404	364404	
17442.6	0	364830	364830	
17459.1	0	365228	365228	
17475.6	0	365650	365650	
17492.1	0	366080	366080	
17508.6	0	366504	366504	
17525.1	0	366960	366960	
17541.6	0	367548	367548	
17558.1	0	367922	367922	
17574.6	0	368306	368306	
17591.1	0	368708	368708	
17607.7	0	369106	369106	
17624.2	0	369542	369542	
17640.7	0	370082	370082	
17657.2	0	370470	370470	
17673.7	0	370932	370932	
17690.2	0	371250	371250	
17706.7	0	371540	371540	
17723.2	0	371906	371906	
17739.7	0	372474	372474	
17756.2	0	372942	372942	
17772.8	0	373414	373414	
17789.3	0	373790	373790	
17805.8	0	374272	374272	
17822.3	0	374708	374708	
17838.8	0	375152	375152	
17855.3	0	375576	375576	
17871.8	0	375968	375968	
17888.3	0	376446	376446	
17904.8	0	376788	376788	
17921.3	0	377164	377164	
17937.9	0	377554	377554	
17954.4	0	377900	377900	
17970.9	0	378240	378240	
17987.4	0	378672	378672	
18003.9	0	379118	379118	
18020.4	0	379570	379570	
18036.9	0	379968	379968	
18053.4	0	380390	380390	
18069.9	0	380872	380872	
18086.4	0	381217	381217	
18103	0	381660	381660	
18119.5	0	382077	382077	
18136	0	382487	382487	
18152.5	0	382846	382846	
18169	0	383277	383277	
18185.5	0	383743	383743	
18202	0	384286	384286	
18218.5	0	384706	384706	
18235	0	385149	385149	
18251.5	0	385545	385545	
18268.1	0	385923	385923	
18284.6	0	386315	386315	
18301.1	0	386779	386779	
18317.6	0	387186	387186	
18334.1	0	387600	387600	
18350.6	0	388017	388017	
18367.1	0	388361	388361	
18383.6	0	388765	388765	
18400.1	0	389097	389097	
18416.6	0	389505	389505	
18433.2	0	389968	389968	
18449.7	0	390424	390424	
18466.2	0	390914	390914	
18482.7	0	391206	391206	
18499.2	0	391584	391584	
18515.7	0	392046	392046	
18532.2	0	392469	392469	
18548.7	0	392931	392931	
18565.2	0	393373	393373	
18581.7	0	393764	393764	
18598.3	0	394195	394195	
18614.8	0	394581	394581	
18631.3	0	394987	394987	
18647.8	0	395423	395423	
18664.3	0	395887	395887	
18680.8	0	396349	396349	
18697.3	0	396660	396660	
18713.8	0	397055	397055	
18730.3	0	397519	397519	
18746.8	0	397912	397912	
18763.4	0	398332	398332	
18779.9	0	398695	398695	
18796.4	0	399099	399099	
18812.9	0	399521	399521	
18829.4	0	399920	399920	
18845.9	0	400371	400371	
18862.4	0	400719	400719	
18878.9	0	401189	401189	
18895.4	0	401685	401685	
18911.9	0	402168	402168	
18928.5	0	402570	402570	
18945	0	402922	402922	
18961.5	0	403341	403341	
18978	0	403815	403815	
18994.5	0	404248	404248	
19011	0	404757	404757	
19027.5	0	405178	405178	
19044	0	405483	405483	
19060.5	0	405813	405813	
19077	0	406211	406211	
19093.6	0	406683	406683	
19110.1	0	407152	407152	
19126.6	0	407603	407603	
19143.1	0	408097	408097	
19159.6	0	408599	408599	
19176.1	0	409020	409020	
19192.6	0	409443	409443	
19209.1	0	409863	409863	
19225.6	0	410257	410257	
19242.1	0	410583	410583	
19258.7	0	410956	410956	
19275.2	0	411334	411334	
19291.7	0	411701	411701	
19308.2	0	412078	412078	
19324.7	0	412452	412452	
19341.2	0	412847	412847	
19357.7	0	413295	413295	
19374.2	0	413697	413697	
19390.7	0	414112	414112	
19407.2	0	414473	414473	
19423.8	0	414879	414879	
19440.3	0	415359	415359	
19456.8	0	415727	415727	
19473.3	0	416070	416070	
19489.8	0	416466	416466	
19506.3	0	416929	416929	
19522.8	0	417300	417300	
19539.3	0	417662	417662	
19555.8	0	418018	418018	
19572.3	0	418427	418427	
19588.9	0	418791	418791	
19605.4	0	419225	419225	
19621.9	0	419593	419593	
19638.4	0	419981	419981	
19654.9	0	420309	420309	
19671.4	0	420653	420653	
19687.9	0	421101	421101	
19704.4	0	421376	421376	
19720.9	0	421771	421771	
19737.4	0	422127	422127	
19754	-4.54747e-13	422463	422463	
19770.5	-4.54747e-13	422744	422744	
19787	-9.09495e-13	423101	423101	
19803.5	-9.09495e-13	423596	423596	
19820	-1.36424e-12	424046	424046	
19836.5	-1.36424e-12	424436	424436	
19853	-1.36424e-12	424756	424756	
19869.5	-1.81899e-12	425121	425121	
19886	-1.81899e-12	425422	425422	
19902.5	-1.81899e-12	425728	425728	
19919.1	-2.27374e-12	426093	426093	
19935.6	-2.27374e-12	426530	426530	
19952.1	-2.72848e-12	426905	426905	
19968.6	-3.18323e-12	427077	427077	
19985.1	-3.63798e-12	427422	427422	
20001.6	-4.09273e-12	427797	427797	
20018.1	-4.09273e-12	428156	428156	
20034.6	-4.54747e-12	428572	428572	
20051.1	-4.54747e-12	429026	429026	
20067.6	-5.00222e-12	429426	429426	
20084.2	-5.45697e-12	429721	429721	
20100.7	-5.91172e-12	430025	430025	
20117.2	-6.36646e-12	430268	430268	
20133.7	-6.82121e-12	430576	430576	
20150.2	-7.27596e-12	430994	430994	
20166.7	-7.7307e-12	431419	431419	
20183.2	-8.18545e-12	431757	431757	
20199.7	-8.18545e-12	432072	432072	
20216.2	-8.6402e-12	432361	432361	
20232.7	-9.09495e-12	432626	432626	
20249.3	-9.54969e-12	432897	432897	
20265.8	-9.54969e-12	433370	433370	
20282.3	-1.00044e-11	433748	433748	
20298.8	-1.04592e-11	434149	434149	
20315.3	-1.09139e-11	434451	434451	
20331.8	-1.13687e-11	434760	434760	
20348.3	-1.18234e-11	435112	435112	
20364.8	-1.22782e-11	435505	435505	
20381.3	-1.27329e-11	435906	435906	
20397.8	-1.27329e-11	436182	436182	
20414.4	-1.31877e-11	436547	436547	
20430.9	-1.36424e-11	436898	436898	
20447.4	-1.40972e-11	437293	437293	
20463.9	-1.45519e-11	437602	437602	
20480.4	-1.50067e-11	437986	437986	
20496.9	-1.54614e-11	438377	438377	
20513.4	-1.59162e-11	438765	438765	
20529.9	-1.63709e-11	439020	439020	
20546.4	-1.68257e-11	439333	439333	
20562.9	-1.72804e-11	439601	439601	
20579.5	-1.77351e-11	439843	439843	
20596	-1.81899e-11	440188	440188	
20612.5	-1.81899e-11	440469	440469	
20629	-1.86446e-11	440820	440820	
20645.5	-1.90994e-11	441082	441082	
20662	-1.95541e-11	441318	441318	
20678.5	-2.00089e-11	441622	441622	
20695	-2.04636e-11	441955	441955	
20711.5	-2.09184e-11	442262	442262	
20728	-2.13731e-11	442663	442663	
20744.6	-2.18279e-11	443143	443143	
20761.1	-2.22826e-11	443626	443626	
20777.6	-2.27374e-11	444117	444117	
20794.1	-2.31921e-11	444677	444677	
20810.6	-2.36469e-11	445102	445102	
20827.1	-2.41016e-11	445489	445489	
20843.6	-2.45564e-11	445809	445809	
20860.1	-2.50111e-11	446120	446120	
20876.6	-2.50111e-11	446437	446437	
20893.1	-2.54659e-11	446655	446655	
20909.7	-2.59206e-11	446987	446987	
20926.2	-2.63753e-11	447382	447382	
20942.7	-2.68301e-11	447658	447658	
20959.2	-2.72848e-11	447882	447882	
20975.7	-2.77396e-11	448162	448162	
20992.2	-2.81943e-11	448500	448500	
21008.7	-2.86491e-11	448987	448987	
21025.2	-2.91038e-11	449429	449429	
21041.7	-2.95586e-11	449907	449907	
21058.2	-3.00133e-11	450452	450452	
21074.8	-3.04681e-11	450919	450919	
21091.3	-3.04681e-11	451358	451358	
21107.8	-3.09228e-11	451751	451751	
21124.3	-3.13776e-11	452093	452093	
21140.8	-3.18323e-11	452298	452298	
21157.3	-3.22871e-11	452567	452567	
21173.8	-3.27418e-11	452803	452803	
21190.3	-3.31966e-11	453275	453275	
21206.8	-3.36513e-11	453703	453703	
21223.3	-3.41061e-11	454178	454178	
21239.9	-3.45608e-11	454623	454623	
21256.4	-3.50155e-11	454990	454990	
21272.9	-3.54703e-11	455356	455356	
21289.4	-3.5925e-11	455844	455844	
21305.9	-3.63798e-11	456207	456207	
21322.4	-3.68345e-11	456504	456504	
21338.9	-3.72893e-11	456967	456967	
21355.4	-3.7744e-11	457382	457382	
21371.9	-3.81988e-11	457734	457734	
21388.4	-3.86535e-11	458068	458068	
21405	-3.91083e-11	458437	458437	
21421.5	-3.9563e-11	458801	458801	
21438	-4.00178e-11	459193	459193	
21454.5	-4.04725e-11	459580	459580	
21471	-4.09273e-11	460060	460060	
21487.5	-4.1382e-11	460495	460495	
21504	-4.18368e-11	460897	460897	
21520.5	-4.22915e-11	461284	461284	
21537	-4.27463e-11	461729	461729	
21553.5	-4.3201e-11	462088	462088	
21570.1	-4.36557e-11	462404	462404	
21586.6	-4.41105e-11	462715	462715	
21603.1	-4.502e-11	463139	463139	
21619.6	-4.59295e-11	463527	463527	
21636.1	-4.63842e-11	463906	463906	
21652.6	-4.72937e-11	464310	464310	
21669.1	-4.82032e-11	464691	464691	
21685.6	-4.91127e-11	465063	465063	
21702.1	-4.95675e-11	465513	465513	
21718.6	-5.0477e-11	465895	465895	
21735.2	-5.13865e-11	466277	466277	
21751.7	-5.22959e-11	466623	466623	
21768.2	-5.32054e-11	467023	467023	
21784.7	-5.41149e-11	467391	467391	
21801.2	-5.50244e-11	467769	467769	
21817.7	-5.59339e-11	468109	468109	
21834.2	-5.68434e-11	468430	468430	
21850.7	-5.77529e-11	468897	468897	
21867.2	-5.86624e-11	469270	469270	
21883.7	-6.00267e-11	469654	469654	
21900.3	-6.13909e-11	469917	469917	
21916.8	-6.27551e-11	470309	470309	
21933.3	-6.41194e-11	470699	470699	
21949.8	-6.54836e-11	471085	471085	
21966.3	-6.68479e-11	471452	471452	
21982.8	-6.82121e-11	471844	471844	
21999.3	-6.95763e-11	472256	472256	
22015.8	-7.09406e-11	472754	472754	
22032.3	-7.23048e-11	473086	473086	
22048.8	-7.36691e-11	473409	473409	
22065.4	-7.54881e-11	473706	473706	
22081.9	-7.7307e-11	474125	474125	
22098.4	-7.9126e-11	474540	474540	
22114.9	-8.0945e-11	474876	474876	
22131.4	-8.2764e-11	475241	475241	
22147.9	-8.4583e-11	475536	475536	
22164.4	-8.68567e-11	475972	475972	
22180.9	-8.91305e-11	476326	476326	
22197.4	-9.14042e-11	476665	476665	
22213.9	-9.3678e-11	476994	476994	
22230.5	-9.59517e-11	477332	477332	
22247	-9.82254e-11	477706	477706	
22263.5	-1.00499e-10	478054	478054	
22280	-1.03228e-10	478431	478431	
22296.5	-1.05956e-10	478804	478804	
22313	-1.08685e-10	479273	479273	
22329.5	-1.11413e-10	479659	479659	
22346	-1.14142e-10	479970	479970	
22362.5	-1.17325e-10	480347	480347	
22379	-1.20508e-10	480626	480626	
22395.6	-1.23691e-10	480987	480987	
22412.1	-1.26875e-10	481363	481363	
22428.6	-1.30058e-10	481777	481777	
22445.1	-1.33696e-10	482156	482156	
22461.6	-1.37334e-10	482425	482425	
22478.1	-1.40972e-10	482805	482805	
22494.6	-1.4461e-10	483105	483105	
22511.1	-1.48248e-10	483555	483555	
22527.6	-1.5234e-10	483826	483826	
22544.1	-1.56433e-10	484088	484088	
22560.7	-1.60526e-10	484434	484434	
22577.2	-1.65073e-10	484676	484676	
22593.7	-1.69621e-10	485020	485020	
22610.2	-1.74168e-10	485419	485419	
22626.7	-1.7917e-10	485859	485859	
22643.2	-1.84173e-10	486264	486264	
22659.7	-1.89175e-10	486635	486635	
22676.2	-1.94177e-10	486902	486902	
22692.7	-1.99634e-10	487222	487222	
22709.2	-2.05091e-10	487576	487576	
22725.8	-2.10548e-10	487876	487876	
22742.3	-2.1646e-10	488251	488251	
22758.8	-2.22371e-10	488584	488584	
22775.3	-2.28738e-10	488951	488951	
22791.8	-2.35104e-10	489224	489224	
22808.3	-2.41471e-10	489561	489561	
22824.8	-2.48292e-10	489973	489973	
22841.3	-2.55113e-10	490301	490301	
22857.8	-2.61934e-10	490539	490539	
22874.3	-2.6921e-10	490853	490853	
22890.9	-2.76486e-10	491163	491163	
22907.4	-2.84217e-10	491538	491538	
22923.9	-2.91948e-10	491879	491879	
22940.4	-3.00133e-10	492234	492234	
22956.9	-3.08319e-10	492661	492661	
22973.4	-3.16504e-10	492974	492974	
22989.9	-3.25144e-10	493241	493241	
23006.4	-3.34239e-10	493585	493585	
23022.9	-3.43334e-10	493986	493986	
23039.4	-3.52429e-10	494419	494419	
23056	-3.61979e-10	494727	494727	
23072.5	-3.71983e-10	495031	495031	
23089	-3.81988e-10	495360	495360	
23105.5	-3.92447e-10	495675	495675	
23122	-4.02906e-10	496095	496095	
23138.5	-4.1382e-10	496523	496523	
23155	-4.24734e-10	496911	496911	
23171.5	-4.36103e-10	497171	497171	
23188	-4.47471e-10	497468	497468	
23204.5	-4.59295e-10	497761	497761	
23221.1	-4.71573e-10	498092	498092	
23237.6	-4.83851e-10	498415	498415	
23254.1	-4.96584e-10	498834	498834	
23270.6	-5.09772e-10	499202	499202	
23287.1	-5.23414e-10	499595	499595	
23303.6	-5.37057e-10	499951	499951	
23320.1	-5.51154e-10	500363	500363	
23336.6	-5.65706e-10	500700	500700	
23353.1	-5.80258e-10	501133	501133	
23369.6	-5.95264e-10	501520	501520	
23386.2	-6.10726e-10	501862	501862	
23402.7	-6.26642e-10	502191	502191	
23419.2	-6.42558e-10	502506	502506	
23435.7	-6.58929e-10	502839	502839	
23452.2	-6.75755e-10	503170	503170	
23468.7	-6.93035e-10	503485	503485	
23485.2	-7.1077e-10	503859	503859	
23501.7	-7.2896e-10	504188	504188	
23518.2	-7.47605e-10	504520	504520	
23534.7	-7.66249e-10	504893	504893	
23551.3	-7.85349e-10	505290	505290	
23567.8	-8.04903e-10	505686	505686	
23584.3	-8.24912e-10	506104	506104	
23600.8	-8.45375e-10	506535	506535	
23617.3	-8.66294e-10	506859	506859	
23633.8	-8.87667e-10	507179	507179	
23650.3	-9.09495e-10	507570	507570	
23666.8	-9.32232e-10	507930	507930	
23683.3	-9.54969e-10	508252	508252	
23699.8	-9.78162e-10	508593	508593	
23716.4	-1.00226e-09	508979	508979	
23732.9	-1.02636e-09	509282	509282	
23749.4	-1.05138e-09	509698	509698	
23765.9	-1.07684e-09	509996	509996	
23782.4	-1.10276e-09	510349	510349	
23798.9	-1.12914e-09	510675	510675	
23815.4	-1.15597e-09	511053	511053	
23831.9	-1.18325e-09	511385	511385	
23848.4	-1.21145e-09	511777	511777	
23864.9	-1.2401e-09	512186	512186	
23881.5	-1.2692e-09	512618	512618	
23898	-1.29876e-09	512952	512952	
23914.5	-1.32923e-09	513301	513301	
23931	-1.36015e-09	513552	513552	
23947.5	-1.39153e-09	513683	513683	
23964	-1.42381e-09	514078	514078	
23980.5	-1.45656e-09	514445	514445	
23997	-1.49021e-09	514770	514770	
24013.5	-1.52431e-09	515134	515134	
24030	-1.55887e-09	515385	515385	
24046.6	-1.59434e-09	515719	515719	
24063.1	-1.63027e-09	516104	516104	
24079.6	-1.6671e-09	516454	516454	
24096.1	-1.70439e-09	516700	516700	
24112.6	-1.74259e-09	516975	516975	
24129.1	-1.78125e-09	517377	517377	
24145.6	-1.82081e-09	517707	517707	
24162.1	-1.86128e-09	518041	518041	
24178.6	-1.90221e-09	518380	518380	
24195.1	-1.94404e-09	518623	518623	
24211.7	-1.98634e-09	518870	518870	
24228.2	-2.02954e-09	519201	519201	
24244.7	-2.07365e-09	519558	519558	
24261.2	-2.11867e-09	519760	519760	
24277.7	-2.1646e-09	520110	520110	
24294.2	-2.21098e-09	520507	520507	
24310.7	-2.25828e-09	520757	520757	
24327.2	-2.30648e-09	521041	521041	
24343.7	-2.35559e-09	521397	521397	
24360.2	-2.40561e-09	521762	521762	
24376.8	-2.45655e-09	522202	522202	
24393.3	-2.50839e-09	522583	522583	
24409.8	-2.56114e-09	522871	522871	
24426.3	-2.6148e-09	523203	523203	
24442.8	-2.66937e-09	523517	523517	
24459.3	-2.72485e-09	523861	523861	
24475.8	-2.78123e-09	524225	524225	
24492.3	-2.83853e-09	524607	524607	
24508.8	-2.89674e-09	525032	525032	
24525.3	-2.95586e-09	525310	525310	
24541.9	-3.01634e-09	525617	525617	
24558.4	-3.07773e-09	526001	526001	
24574.9	-3.14003e-09	526339	526339	
24591.4	-3.2037e-09	526684	526684	
24607.9	-3.26827e-09	527035	527035	
24624.4	-3.33375e-09	527406	527406	
24640.9	-3.4006e-09	527669	527669	
24657.4	-3.46836e-09	527987	527987	
24673.9	-3.53702e-09	528340	528340	
24690.4	-3.60706e-09	528736	528736	
24707	-3.67845e-09	529014	529014	
24723.5	-3.75076e-09	529313	529313	
24740	-3.82443e-09	529562	529562	
24756.5	-3.899e-09	529828	529828	
24773	-3.97495e-09	530193	530193	
24789.5	-4.05225e-09	530557	530557	
24806	-4.13047e-09	531023	531023	
24822.5	-4.21005e-09	531417	531417	
24839	-4.291e-09	531805	531805	
24855.5	-4.37331e-09	532143	532143	
24872.1	-4.45698e-09	532597	532597	
24888.6	-4.54202e-09	532805	532805	
24905.1	-4.62842e-09	533119	533119	
24921.6	-4.71573e-09	533345	533345	
24938.1	-4.80486e-09	533726	533726	
24954.6	-4.89536e-09	534028	534028	
24971.1	-4.98721e-09	534320	534320	
24987.6	-5.08044e-09	534603	534603	
25004.1	-5.17502e-09	534903	534903	
25020.6	-5.27098e-09	535196	535196	
25037.2	-5.36875e-09	535602	535602	
25053.7	-5.46788e-09	535897	535897	
25070.2	-5.56884e-09	536273	536273	
25086.7	-5.67115e-09	536609	536609	
25103.2	-5.77484e-09	537009	537009	
25119.7	-5.88034e-09	537455	537455	
25136.2	-5.98766e-09	537779	537779	
25152.7	-6.0968e-09	538061	538061	
25169.2	-6.2073e-09	538420	538420	
25185.7	-6.31962e-09	538906	538906	
25202.3	-6.43377e-09	539328	539328	
25218.8	-6.54973e-09	539733	539733	
25235.3	-6.66751e-09	540176	540176	
25251.8	-6.7871e-09	540531	540531	
25268.3	-6.90852e-09	540864	540864	
25284.8	-7.03176e-09	541237	541237	
25301.3	-7.15727e-09	541652	541652	
25317.8	-7.2846e-09	542006	542006	
25334.3	-7.41375e-09	542416	542416	
25350.8	-7.54517e-09	542685	542685	
25367.4	-7.67841e-09	543018	543018	
25383.9	-7.81392e-09	543324	543324	
25400.4	-7.95126e-09	543647	543647	
25416.9	-8.09086e-09	544007	544007	
25433.4	-8.23275e-09	544408	544408	
25449.9	-8.3769e-09	544780	544780	
25466.4	-8.52333e-09	545159	545159	
25482.9	-8.67203e-09	545548	545548	
25499.4	-8.82346e-09	545975	545975	
25515.9	-8.97717e-09	546271	546271	
25532.5	-9.1336e-09	546674	546674	
25549	-9.29231e-09	547070	547070	
25565.5	-9.45374e-09	547420	547420	
25582	-9.61745e-09	547768	547768	
25598.5	-9.78389e-09	548183	548183	
25615	-9.95306e-09	548586	548586	
25631.5	-1.01249e-08	548982	548982	
25648	-1.03e-08	549274	549274	
25664.5	-1.04778e-08	549458	549458	
25681	-1.06588e-08	549734	549734	
25697.6	-1.08425e-08	550074	550074	
25714.1	-1.10294e-08	550389	550389	
25730.6	-1.12195e-08	550704	550704	
25747.1	-1.14128e-08	551186	551186	
25763.6	-1.16092e-08	551596	551596	
25780.1	-1.18093e-08	551884	551884	
25796.6	-1.20126e-08	552191	552191	
25813.1	-1.22195e-08	552512	552512	
25829.6	-1.24301e-08	552898	552898	
25846.1	-1.26443e-08	553288	553288	
25862.7	-1.28621e-08	553644	553644	
25879.2	-1.30835e-08	553981	553981	
25895.7	-1.33091e-08	554256	554256	
25912.2	-1.35387e-08	554561	554561	
25928.7	-1.37725e-08	554961	554961	
25945.2	-1.40108e-08	555278	555278	
25961.7	-1.42531e-08	555619	555619	
25978.2	-1.45001e-08	556057	556057	
25994.7	-1.47515e-08	556445	556445	
26011.2	-1.50076e-08	556910	556910	
26027.8	-1.52681e-08	557246	557246	
26044.3	-1.55337e-08	557585	557585	
26060.8	-1.58043e-08	557887	557887	
26077.3	-1.60799e-08	558288	558288	
26093.8	-1.63609e-08	558616	558616	
26110.3	-1.66474e-08	558859	558859	
26126.8	-1.69393e-08	559098	559098	
26143.3	-1.72367e-08	559373	559373	
26159.8	-1.75401e-08	559687	559687	
26176.3	-1.78493e-08	560000	560000	
26192.9	-1.81649e-08	560418	560418	
26209.4	-1.84868e-08	560780	560780	
26225.9	-1.88152e-08	561158	561158	
26242.4	-1.91499e-08	561422	561422	
26258.9	-1.94914e-08	561799	561799	
26275.4	-1.98402e-08	562212	562212	
26291.9	-2.01958e-08	562546	562546	
26308.4	-2.05591e-08	562807	562807	
26324.9	-2.09297e-08	563119	563119	
26341.4	-2.13081e-08	563474	563474	
26358	-2.16946e-08	563769	563769	
26374.5	-2.20894e-08	564074	564074	
26391	-2.24923e-08	564545	564545	
26407.5	-2.29038e-08	564816	564816	
26424	-2.33244e-08	565047	565047	
26440.5	-2.37542e-08	565369	565369	
26457	-2.4193e-08	565595	565595	
26473.5	-2.46414e-08	565866	565866	
26490	-2.50998e-08	566169	566169	
26506.5	-2.55686e-08	566558	566558	
26523.1	-2.60475e-08	567049	567049	
26539.6	-2.65372e-08	567492	567492	
26556.1	-2.70379e-08	567946	567946	
26572.6	-2.755e-08	568388	568388	
26589.1	-2.80738e-08	568794	568794	
26605.6	-2.86095e-08	569177	569177	
26622.1	-2.91575e-08	569588	569588	
26638.6	-2.97182e-08	569892	569892	
26655.1	-3.02921e-08	570101	570101	
26671.6	-3.08792e-08	570454	570454	
26688.2	-3.14799e-08	570696	570696	
26704.7	-3.20947e-08	570896	570896	
26721.2	-3.27241e-08	571300	571300	
26737.7	-3.33685e-08	571772	571772	
26754.2	-3.40283e-08	572261	572261	
26770.7	-3.47036e-08	572748	572748	
26787.2	-3.53953e-08	573200	573200	
26803.7	-3.61038e-08	573665	573665	
26820.2	-3.68295e-08	574110	574110	
26836.8	-3.75726e-08	574505	574505	
26853.3	-3.83338e-08	574919	574919	
26869.8	-3.91137e-08	575383	575383	
26886.3	-3.99127e-08	575754	575754	
26902.8	-4.07313e-08	576098	576098	
26919.3	-4.15698e-08	576377	576377	
26935.8	-4.24293e-08	576694	576694	
26952.3	-4.33101e-08	577090	577090	
26968.8	-4.42128e-08	577497	577497	
26985.3	-4.51382e-08	577908	577908	
27001.9	-4.60868e-08	578364	578364	
27018.4	-4.70591e-08	578824	578824	
27034.9	-4.80559e-08	579302	579302	
27051.4	-4.90777e-08	579702	579702	
27067.9	-5.01254e-08	580197	580197	
27084.4	-5.11995e-08	580653	580653	
27100.9	-5.23009e-08	581210	581210	
27117.4	-5.34305e-08	581675	581675	
27133.9	-5.45888e-08	581876	581876	
27150.4	-5.57766e-08	582232	582232	
27167	-5.69948e-08	582483	582483	
27183.5	-5.8244e-08	582890	582890	
27200	-5.95255e-08	583319	583319	
27216.5	-6.08397e-08	583771	583771	
27233	-6.21881e-08	584173	584173	
27249.5	-6.3571e-08	584559	584559	
27266	-6.49898e-08	585004	585004	
27282.5	-6.6445e-08	585572	585572	
27299	-6.79379e-08	585990	585990	
27315.5	-6.9469e-08	586294	586294	
27332.1	-7.10402e-08	586737	586737	
27348.6	-7.26518e-08	587125	587125	
27365.1	-7.43053e-08	587614	587614	
27381.6	-7.60015e-08	587988	587988	
27398.1	-7.77418e-08	588306	588306	
27414.6	-7.95276e-08	588678	588678	
27431.1	-8.13593e-08	589039	589039	
27447.6	-8.32388e-08	589400	589400	
27464.1	-8.51674e-08	589784	589784	
27480.6	-8.7146e-08	590180	590180	
27497.2	-8.9176e-08	590559	590559	
27513.7	-9.12587e-08	590952	590952	
27530.2	-9.33956e-08	591317	591317	
27546.7	-9.55879e-08	591731	591731	
27563.2	-9.78375e-08	592088	592088	
27579.7	-1.00145e-07	592462	592462	
27596.2	-1.02513e-07	592787	592787	
27612.7	-1.04943e-07	593117	593117	
27629.2	-1.07435e-07	593431	593431	
27645.7	-1.09992e-07	593755	593755	
27662.3	-1.12615e-07	594087	594087	
27678.8	-1.15306e-07	594364	594364	
27695.3	-1.18067e-07	594592	594592	
27711.8	-1.20899e-07	594932	594932	
27728.3	-1.23805e-07	595278	595278	
27744.8	-1.26785e-07	595690	595690	
27761.3	-1.29842e-07	595974	595974	
27777.8	-1.32979e-07	596383	596383	
27794.3	-1.36196e-07	596661	596661	
27810.8	-1.39496e-07	596955	596955	
27827.4	-1.42881e-07	597274	597274	
27843.9	-1.46353e-07	597663	597663	
27860.4	-1.49914e-07	598014	598014	
27876.9	-1.53566e-07	598319	598319	
27893.4	-1.57311e-07	598658	598658	
27909.9	-1.61152e-07	598917	598917	
27926.4	-1.65091e-07	599144	599144	
27942.9	-1.69131e-07	599457	599457	
27959.4	-1.73273e-07	599773	599773	
27975.9	-1.77521e-07	599973	599973	
27992.5	-1.81877e-07	600257	600257	
28009	-1.86343e-07	600533	600533	
28025.5	-1.90921e-07	600823	600823	
28042	-1.95615e-07	601102	601102	
28058.5	-2.00428e-07	601369	601369	
28075	-2.05361e-07	601529	601529	
28091.5	-2.1042e-07	601773	601773	
28108	-2.15606e-07	602073	602073	
28124.6	-2.2092e-07	602529	602529	
28141.1	-2.26367e-07	602866	602866	
28157.6	-2.31949e-07	603180	603180	
28174.1	-2.37671e-07	603602	603602	
28190.6	-2.43536e-07	603946	603946	
28207.1	-2.49547e-07	604405	604405	
28223.6	-2.55704e-07	604877	604877	
28240.1	-2.62014e-07	605216	605216	
28256.6	-2.68479e-07	605581	605581	
28273.2	-2.75105e-07	605913	605913	
28289.7	-2.81893e-07	606082	606082	
28306.2	-2.88848e-07	606350	606350	
28322.7	-2.95973e-07	606612	606612	
28339.2	-3.03271e-07	606936	606936	
28355.7	-3.10747e-07	607212	607212	
28372.2	-3.18404e-07	607441	607441	
28388.8	-3.26246e-07	607768	607768	
28405.3	-3.34278e-07	608084	608084	
28421.8	-3.42501e-07	608445	608445	
28438.3	-3.50922e-07	608715	608715	
28454.8	-3.59544e-07	609138	609138	
28471.3	-3.68373e-07	609376	609376	
28487.8	-3.77412e-07	609678	609678	
28504.3	-3.86666e-07	609953	609953	
28520.8	-3.9614e-07	610234	610234	
28537.4	-4.05838e-07	610605	610605	
28553.9	-4.15765e-07	611019	611019	
28570.4	-4.25926e-07	611358	611358	
28586.9	-4.36326e-07	611838	611838	
28603.4	-4.46968e-07	612220	612220	
28619.9	-4.5786e-07	612493	612493	
28636.4	-4.69005e-07	612772	612772	
28652.9	-4.8041e-07	613042	613042	
28669.4	-4.92079e-07	613276	613276	
28685.9	-5.04017e-07	613556	613556	
28702.5	-5.16231e-07	613896	613896	
28719	-5.28725e-07	614157	614157	
28735.5	-5.41505e-07	614462	614462	
28752	-5.54578e-07	614670	614670	
28768.5	-5.67948e-07	615036	615036	
28785	-5.81621e-07	615480	615480	
28801.5	-5.95605e-07	615874	615874	
28818	-6.09904e-07	616316	616316	
28834.5	-6.24525e-07	616656	616656	
28851	-6.39473e-07	616777	616777	
28867.6	-6.54757e-07	617145	617145	
28884.1	-6.7038e-07	617543	617543	
28900.6	-6.86352e-07	617839	617839	
28917.1	-7.02677e-07	618253	618253	
28933.6	-7.19362e-07	618672	618672	
28950.1	-7.36415e-07	619021	619021	
28966.6	-7.53842e-07	619380	619380	
28983.1	-7.7165e-07	619719	619719	
28999.6	-7.89847e-07	620067	620067	
29016.2	-8.08438e-07	620438	620438	
29032.7	-8.27432e-07	620723	620723	
29049.2	-8.46836e-07	621184	621184	
29065.7	-8.66657e-07	621503	621503	
29082.2	-8.86903e-07	621802	621802	
29098.7	-9.07581e-07	622233	622233	
29115.2	-9.28699e-07	622525	622525	
29131.7	-9.50265e-07	622835	622835	
29148.2	-9.72286e-07	623238	623238	
29164.7	-9.9477e-07	623704	623704	
29181.3	-1.01773e-06	624057	624057	
29197.8	-1.04116e-06	624441	624441	
29214.3	-1.06509e-06	624658	624658	
29230.8	-1.0895e-06	624989	624989	
29247.3	-1.11443e-06	625399	625399	
29263.8	-1.13986e-06	625859	625859	
29280.3	-1.16582e-06	626263	626263	
29296.8	-1.19231e-06	626636	626636	
29313.3	-1.21934e-06	627011	627011	
29329.8	-1.24691e-06	627439	627439	
29346.4	-1.27505e-06	627740	627740	
29362.9	-1.30374e-06	628021	628021	
29379.4	-1.33302e-06	628332	628332	
29395.9	-1.36288e-06	628590	628590	
29412.4	-1.39333e-06	628924	628924	
29428.9	-1.42438e-06	629368	629368	
29445.4	-1.45605e-06	629826	629826	
29461.9	-1.48833e-06	630277	630277	
29478.4	-1.52125e-06	630557	630557	
29494.9	-1.55481e-06	630947	630947	
29511.5	-1.58901e-06	631150	631150	
29528	-1.62387e-06	631482	631482	
29544.5	-1.6594e-06	631832	631832	
29561	-1.69561e-06	632232	632232	
29577.5	-1.73251e-06	632552	632552	
29594	-1.77011e-06	632972	632972	
29610.5	-1.80843e-06	633363	633363	
29627	-1.84748e-06	633766	633766	
29643.5	-1.88727e-06	634004	634004	
29660	-1.92782e-06	634220	634220	
29676.6	-1.96914e-06	634489	634489	
29693.1	-2.01124e-06	634708	634708	
29709.6	-2.05414e-06	635066	635066	
29726.1	-2.09784e-06	635415	635415	
29742.6	-2.14235e-06	635709	635709	
29759.1	-2.18767e-06	635915	635915	
29775.6	-2.23381e-06	636085	636085	
29792.1	-2.28077e-06	636314	636314	
29808.6	-2.32856e-06	636706	636706	
29825.1	-2.37718e-06	637003	637003	
29841.7	-2.42665e-06	637451	637451	
29858.2	-2.477e-06	637779	637779	
29874.7	-2.52823e-06	638091	638091	
29891.2	-2.58039e-06	638436	638436	
29907.7	-2.63349e-06	638817	638817	
29924.2	-2.68759e-06	639285	639285	
29940.7	-2.74273e-06	639433	639433	
29957.2	-2.79897e-06	639731	639731	
29973.7	-2.85637e-06	639956	639956	
29990.2	-2.91497e-06	640245	640245	
30006.8	-2.97486e-06	640501	640501	
30023.3	-3.03616e-06	640748	640748	
30039.8	-3.09836e-06	640996	640996	
30056.3	-3.1612e-06	641467	641467	
30072.8	-3.22413e-06	641788	641788	
30089.3	-3.28721e-06	642150	642150	
30105.8	-3.35063e-06	642570	642570	
30122.3	-3.41486e-06	643072	643072	
30138.8	-3.48022e-06	643462	643462	
30155.3	-3.54695e-06	643849	643849	
30171.9	-3.61526e-06	644118	644118	
30188.4	-3.6854e-06	644357	644357	
30204.9	-3.75761e-06	644568	644568	
30221.4	-3.83218e-06	644754	644754	
30237.9	-3.90941e-06	645065	645065	
30254.4	-3.98964e-06	645334	645334	
30270.9	-4.07323e-06	645650	645650	
30287.4	-4.16055e-06	645854	645854	
30303.9	-4.25195e-06	646133	646133	
30320.4	-4.32222e-06	646455	646455	
30337	-4.40495e-06	646908	646908	
30353.5	-4.49343e-06	647346	647346	
30370	-4.58566e-06	647732	647732	
30386.5	-4.68188e-06	648074	648074	
30403	-4.78319e-06	648456	648456	
30419.5	-4.89081e-06	648756	648756	
30436	-5.00533e-06	649038	649038	
30452.5	-5.12725e-06	649376	649376	
30469	-5.25743e-06	649627	649627	
30485.5	-5.39384e-06	650001	650001	
30502.1	-5.37544e-06	650355	650355	
30518.6	-5.42713e-06	650659	650659	
30535.1	-5.52703e-06	650932	650932	
30551.6	-5.66216e-06	651340	651340	
30568.1	-5.82424e-06	651585	651585	
30584.6	-6.00756e-06	651942	651942	
30601.1	-6.20799e-06	652427	652427	
30617.6	-6.42244e-06	652812	652812	
30634.1	-6.64876e-06	653080	653080	
30650.6	-6.88556e-06	653421	653421	
30667.2	-7.13196e-06	653648	653648	
30683.7	-7.38725e-06	653919	653919	
30700.2	-7.64959e-06	654161	654161	
30716.7	-7.91713e-06	654355	654355	
30733.2	-8.1897e-06	654672	654672	
30749.7	-8.46865e-06	655039	655039	
30766.2	-8.75611e-06	655451	655451	
30782.7	-9.06066e-06	655966	655966	
30799.2	-9.35547e-06	656373	656373	
30815.7	-9.66537e-06	656831	656831	
30832.3	-9.99318e-06	657275	657275	
30848.8	-9.83934e-06	657590	657590	
30865.3	-9.89447e-06	657884	657884	
30881.8	-1.01066e-05	658272	658272	
30898.3	-1.04543e-05	658620	658620	
30914.8	-1.08386e-05	659008	659008	
30931.3	-1.12715e-05	659253	659253	
30947.8	-1.17751e-05	659508	659508	
30964.3	-1.23355e-05	659935	659935	
30980.8	-1.29489e-05	660204	660204	
30997.4	-1.35159e-05	660519	660519	
31013.9	-1.51363e-05	660902	660902	
31030.4	-1.62733e-05	661228	661228	
31046.9	-1.73876e-05	661621	661621	
31063.4	-1.85383e-05	662068	662068	
31079.9	-1.97806e-05	662365	662365	
31096.4	-2.10913e-05	662662	662662	
31112.9	-2.24437e-05	662913	662913	
31129.4	-2.38194e-05	663338	663338	
31145.9	-2.52015e-05	663718	663718	
31162.5	-2.66075e-05	664049	664049	
31179	-2.80284e-05	664402	664402	
31195.5	-2.94811e-05	664879	664879	
31212	-3.09719e-05	665048	665048	
31228.5	-3.2497e-05	665368	665368	
31245	-3.40595e-05	665614	665614	
31261.5	-3.56668e-05	665843	665843	
31278	-3.73271e-05	666068	666068	
31294.5	-3.90461e-05	666354	666354	
31311	-4.08254e-05	666669	666669	
31327.6	-4.26609e-05	667095	667095	
31344.1	-4.4547e-05	667500	667500	
31360.6	-4.64773e-05	667902	667902	
31377.1	-4.84464e-05	668334	668334	
31393.6	-5.04489e-05	668712	668712	
31410.1	-5.24819e-05	669032	669032	
31426.6	-5.45453e-05	669291	669291	
31443.1	-5.66407e-05	669665	669665	
31459.6	-5.87697e-05	669897	669897	
31476.1	-6.09336e-05	670212	670212	
31492.7	-6.31324e-05	670423	670423	
31509.2	-6.53648e-05	670616	670616	
31525.7	-6.76281e-05	670748	670748	
31542.2	-6.99187e-05	671068	671068	
31558.7	-7.22314e-05	671257	671257	
31575.2	-7.45603e-05	671545	671545	
31591.7	-7.68985e-05	671945	671945	
31608.2	-7.92385e-05	672305	672305	
31624.7	-8.15722e-05	672671	672671	
31641.2	-8.38919e-05	673103	673103	
31657.8	-8.61896e-05	673505	673505	
31674.3	-8.84574e-05	673811	673811	
31690.8	-9.06876e-05	674093	674093	
31707.3	-9.28718e-05	674403	674403	
31723.8	-9.50017e-05	674747	674747	
31740.3	-9.7068e-05	675070	675070	
31756.8	-9.90606e-05	675388	675388	
31773.3	-0.000100969	675687	675687	
31789.8	-0.000102781	675977	675977	
31806.3	-0.000104486	676303	676303	
31822.9	-0.000106071	676607	676607	
31839.4	-0.000107525	676857	676857	
31855.9	-0.000108838	677153	677153	
31872.4	-0.000110001	677531	677531	
31888.9	-0.000111004	677907	677907	
31905.4	-0.000111844	678066	678066	
31921.9	-0.000112507	678387	678387	
31938.4	-0.000112982	678746	678746	
31954.9	-0.000113264	679023	679023	
31971.4	-0.000113351	679312	679312	
31988	-0.000113241	679634	679634	
32004.5	-0.000112934	679919	679919	
32021	-0.000112436	680277	680277	
32037.5	-0.000111709	680533	680533	
32054	-0.000110739	680802	680802	
32070.5	-0.000110096	681034	681034	
32087	-0.000109038	681407	681407	
32103.5	-0.000107675	681712	681712	
32120	-0.000106047	682030	682030	
32136.5	-0.000104148	682374	682374	
32153.1	-0.000101947	682784	682784	
32169.6	-9.93819e-05	683184	683184	
32186.1	-9.63142e-05	683481	683481	
32202.6	-9.27648e-05	683899	683899	
32219.1	-8.86893e-05	684269	684269	
32235.6	-8.41396e-05	684456	684456	
32252.1	-7.89783e-05	684693	684693	
32268.6	-6.79698e-05	685144	685144	
32285.1	-5.81138e-05	685460	685460	
32301.6	-4.80584e-05	685838	685838	
32318.2	-3.74984e-05	686150	686150	
32334.7	-2.61516e-05	686444	686444	
32351.2	-1.38646e-05	686762	686762	
32367.7	-5.29513e-07	687087	687087	
32384.2	1.39122e-05	687334	687334	
32400.7	2.94844e-05	687660	687660	
32417.2	4.61322e-05	687900	687900	
32433.7	6.39519e-05	688353	688353	
32450.2	8.30483e-05	688777	688777	
32466.7	0.000103509	689227	689227	
32483.3	0.00012542	689534	689534	
32499.8	0.000148813	689902	689902	
32516.3	0.000173753	690234	690234	
32532.8	0.000200335	690633	690633	
32549.3	0.000228647	691018	691018	
32565.8	0.000258766	691287	691287	
32582.3	0.000290746	691520	691520	
32598.8	0.000324629	691873	691873	
32615.3	0.00036045	692188	692188	
32631.8	0.000398246	692489	692489	
32648.4	0.000438064	692907	692907	
32664.9	0.000479961	693286	693286	
32681.4	0.000524003	693770	693770	
32697.9	0.000570272	694064	694064	
32714.4	0.00061886	694570	694570	
32730.9	0.000669869	695054	695054	
32747.4	0.000723401	695413	695413	
32763.9	0.000779559	695695	695695	
32780.4	0.000838443	695878	695878	
32796.9	0.000900147	696124	696124	
32813.5	0.000964759	696417	696417	
32830	0.00103237	696669	696669	
32846.5	0.00110304	697033	697033	
32863	0.00117688	697267	697267	
32879.5	0.00125394	697588	697588	
32896	0.0013343	697974	697974	
32912.5	0.00141806	698269	698269	
32929	0.00150529	698621	698621	
32945.5	0.00159608	699048	699048	
32962	0.00169052	699547	699547	
32978.6	0.00178869	699942	699942	
32995.1	0.0018907	700299	700299	
33011.6	0.00199662	700567	700567	
33028.1	0.00210655	700866	700866	
33044.6	0.00222057	701201	701201	
33061.1	0.00233877	701529	701529	
33077.6	0.00246124	701772	701772	
33094.1	0.00258805	701975	701975	
33110.6	0.00271929	702293	702293	
33127.1	0.00285503	702656	702656	
33143.7	0.00299536	703049	703049	
33160.2	0.00314034	703533	703533	
33176.7	0.00329005	704036	704036	
33193.2	0.00344456	704464	704464	
33209.7	0.00360393	705071	705071	
33226.2	0.00376824	705532	705532	
33242.7	0.00393755	706025	706025	
33259.2	0.00411191	706401	706401	
33275.7	0.00429139	706702	706702	
33292.2	0.00447603	707042	707042	
33308.8	0.00466589	707471	707471	
33325.3	0.00486102	707796	707796	
33341.8	0.00506145	708115	708115	
33358.3	0.00526722	708307	708307	
33374.8	0.00547836	708633	708633	
33391.3	0.00569491	708890	708890	
33407.8	0.00591689	709286	709286	
33424.3	0.00614432	709617	709617	
33440.8	0.00637722	710071	710071	
33457.3	0.00661559	710615	710615	
33473.9	0.00685944	711161	711161	
33490.4	0.00710878	711752	711752	
33506.9	0.0073636	712333	712333	
33523.4	0.00762389	712693	712693	
33539.9	0.00788964	713079	713079	
33556.4	0.00816083	713343	713343	
33572.9	0.00843743	713745	713745	
33589.4	0.00871942	714267	714267	
33605.9	0.00900675	714620	714620	
33622.4	0.00929939	714909	714909	
33639	0.00959727	715338	715338	
33655.5	0.00990036	715770	715770	
33672	0.0102086	716132	716132	
33688.5	0.0105219	716468	716468	
33705	0.0108401	716885	716885	
33721.5	0.0111633	717190	717190	
33738	0.0114913	717431	717431	
33754.5	0.0118241	717793	717793	
33771	0.0121614	718193	718193	
33787.5	0.0125033	718574	718574	
33804.1	0.0128495	719013	719013	
33820.6	0.0132	719376	719376	
33837.1	0.0135547	719733	719733	
33853.6	0.0139133	720056	720056	
33870.1	0.0142758	720401	720401	
33886.6	0.0146419	720668	720668	
33903.1	0.0150116	721057	721057	
33919.6	0.0153846	721497	721497	
33936.1	0.0157609	721847	721847	
33952.6	0.0161401	722213	722213	
33969.2	0.0165221	722454	722454	
33985.7	0.0169067	722683	722683	
34002.2	0.0172937	723079	723079	
34018.7	0.017683	723481	723481	
34035.2	0.0180742	723940	723940	
34051.7	0.0184671	724353	724353	
34068.2	0.0188616	724597	724597	
34084.7	0.0192574	724809	724809	
34101.2	0.0196542	725096	725096	
34117.7	0.0200518	725391	725391	
34134.3	0.02045	725641	725641	
34150.8	0.0208484	726093	726093	
34167.3	0.021247	726413	726413	
34183.8	0.0216453	726748	726748	
34200.3	0.022043	727068	727068	
34216.8	0.0224401	727451	727451	
34233.3	0.0228361	727666	727666	
34249.8	0.0232307	727905	727905	
34266.3	0.0236238	728199	728199	
34282.8	0.0240149	728510	728510	
34299.4	0.0244039	728744	728744	
34315.9	0.0247905	729129	729129	
34332.4	0.0251742	729403	729403	
34348.9	0.025555	729699	729699	
34365.4	0.0259324	730020	730020	
34381.9	0.0263061	730411	730411	
34398.4	0.0266759	730763	730763	
34414.9	0.0270416	731074	731074	
34431.4	0.0274027	731338	731338	
34447.9	0.027759	731545	731545	
34464.5	0.0281102	731765	731765	
34481	0.028456	731962	731962	
34497.5	0.0287961	732224	732224	
34514	0.0291303	732490	732490	
34530.5	0.0294583	732945	732945	
34547	0.0297797	733278	733278	
34563.5	0.0300943	733652	733652	
34580	0.0304018	733996	733996	
34596.5	0.030702	734427	734427	
34613	0.0309945	734801	734801	
34629.6	0.0312792	735162	735162	
34646.1	0.0315558	735553	735553	
34662.6	0.031824	735890	735890	
34679.1	0.0320835	736196	736196	
34695.6	0.0323342	736552	736552	
34712.1	0.0325757	736769	736769	
34728.6	0.032808	737031	737031	
34745.1	0.0330307	737307	737307	
34761.6	0.0332436	737707	737707	
34778.1	0.0334466	738155	738155	
34794.7	0.0336394	738583	738583	
34811.2	0.0338218	738851	738851	
34827.7	0.0339937	739260	739260	
34844.2	0.0341549	739482	739482	
34860.7	0.0343052	739994	739994	
34877.2	0.0344446	740272	740272	
34893.7	0.0345727	740678	740678	
34910.2	0.0346895	740983	740983	
34926.7	0.0347949	741300	741300	
34943.2	0.0348888	741747	741747	
34959.8	0.034971	742009	742009	
34976.3	0.0350414	742434	742434	
34992.8	0.0351	742986	742986	
35009.3	0.0351467	743388	743388	
35025.8	0.0351814	743860	743860	
35042.3	0.0352041	744331	744331	
35058.8	0.0352147	744727	744727	
35075.3	0.0352131	745125	745125	
35091.8	0.0351995	745526	745526	
35108.3	0.0351737	745808	745808	
35124.9	0.0351357	746154	746154	
35141.4	0.0350856	746538	746538	
35157.9	0.0350234	746811	746811	
35174.4	0.034949	747195	747195	
35190.9	0.0348627	747545	747545	
35207.4	0.0347643	747978	747978	
35223.9	0.034654	748367	748367	
35240.4	0.0345319	748864	748864	
35256.9	0.0343979	749277	749277	
35273.4	0.0342523	749628	749628	
35290	0.0340951	750017	750017	
35306.5	0.0339265	750389	750389	
35323	0.0337464	750600	750600	
35339.5	0.0335552	750861	750861	
35356	0.0333529	751171	751171	
35372.5	0.0331397	751459	751459	
35389	0.0329158	751720	751720	
35405.5	0.0326812	752150	752150	
35422	0.0324363	752463	752463	
35438.6	0.0321811	752853	752853	
35455.1	0.031916	753284	753284	
35471.6	0.0316409	753676	753676	
35488.1	0.0313563	754125	754125	
35504.6	0.0310623	754513	754513	
35521.1	0.0307592	754770	754770	
35537.6	0.030447	755082	755082	
35554.1	0.0301262	755452	755452	
35570.6	0.029797	755686	755686	
35587.2	0.0294595	755895	755895	
35603.7	0.0291142	756208	756208	
35620.2	0.0287611	756572	756572	
35636.7	0.0284007	756907	756907	
35653.2	0.0280331	757339	757339	
35669.7	0.0276586	757697	757697	
35686.2	0.0272775	758078	758078	
35702.7	0.0268902	758542	758542	
35719.2	0.0264968	758971	758971	
35735.7	0.0260977	759309	759309	
35752.3	0.0256932	759630	759630	
35768.8	0.0252835	759882	759882	
35785.3	0.024869	760364	760364	
35801.8	0.0244499	760669	760669	
35818.3	0.0240266	761063	761063	
35834.8	0.0235993	761419	761419	
35851.3	0.0231683	761825	761825	
35867.8	0.022734	762221	762221	
35884.3	0.0222965	762580	762580	
35900.8	0.0218563	762906	762906	
35917.4	0.0214136	763285	763285	
35933.9	0.0209687	763640	763640	
35950.4	0.0205218	764098	764098	
35966.9	0.0200733	764567	764567	
35983.4	0.0196235	764893	764893	
35999.9	0.0191726	765218	765218	
36016.4	0.0187208	765490	765490	
36032.9	0.0182686	765819	765819	
36049.4	0.017816	766217	766217	
36065.9	0.0173636	766793	766793	
36082.5	0.0169113	767123	767123	
36099	0.0164597	767493	767493	
36115.5	0.0160089	767834	767834	
36132	0.0155591	768162	768162	
36148.5	0.0151107	768606	768606	
36165	0.0146638	768949	768949	
36181.5	0.0142188	769294	769294	
36198	0.0137759	769721	769721	
36214.5	0.0133353	770090	770090	
36231	0.0128973	770510	770510	
36247.6	0.0124621	770920	770920	
36264.1	0.01203	771261	771261	
36280.6	0.0116011	771665	771665	
36297.1	0.0111758	771933	771933	
36313.6	0.0107542	772219	772219	
36330.1	0.0103366	772647	772647	
36346.6	0.00992324	773094	773094	
36363.1	0.00951429	773434	773434	
36379.6	0.00911	773741	773741	
36396.1	0.00871057	774034	774034	
36412.7	0.00831622	774341	774341	
36429.2	0.00792715	774722	774722	
36445.7	0.00754357	774987	774987	
36462.2	0.00716568	775289	775289	
36478.7	0.00679367	775744	775744	
36495.2	0.00642772	776140	776140	
36511.7	0.00606804	776475	776475	
36528.2	0.00571478	776795	776795	
36544.7	0.00536814	777153	777153	
36561.2	0.00502827	777342	777342	
36577.8	0.00469535	777660	777660	
36594.3	0.00436952	777988	777988	
36610.8	0.00405096	778336	778336	
36627.3	0.00373979	778754	778754	
36643.8	0.00343616	779126	779126	
36660.3	0.0031402	779502	779502	
36676.8	0.00285205	779768	779768	
36693.3	0.00257181	780180	780180	
36709.8	0.00229961	780482	780482	
36726.3	0.00203554	780780	780780	
36742.9	0.00177971	781012	781012	
36759.4	0.00153219	781329	781329	
36775.9	0.00129308	781720	781720	
36792.4	0.00106245	782084	782084	
36808.9	0.000840352	782514	782514	
36825.4	0.000626849	782812	782812	
36841.9	0.000421985	782973	782973	
36858.4	0.000225796	783357	783357	
36874.9	3.83086e-05	783718	783718	
36891.4	-0.000140461	784046	784046	
36908	-0.000310506	784392	784392	
36924.5	-0.000471832	784811	784811	
36941	-0.000624454	784999	784999	
36957.5	-0.000768398	785310	785310	
36974	-0.000903704	785656	785656	
36990.5	-0.00103042	786005	786005	
37007	-0.00114861	786369	786369	
37023.5	-0.00125835	786715	786715	
37040	-0.00135973	787029	787029	
37056.5	-0.00145284	787370	787370	
37073.1	-0.00153779	787747	787747	
37089.6	-0.00161473	788136	788136	
37106.1	-0.00168377	788449	788449	
37122.6	-0.00174507	788953	788953	
37139.1	-0.0017988	789328	789328	
37155.6	-0.00184513	789754	789754	
37172.1	-0.00188425	790049	790049	
37188.6	-0.00191635	790332	790332	
37205.1	-0.00194165	790563	790563	
37221.6	-0.00196036	791010	791010	
37238.2	-0.00197273	791413	791413	
37254.7	-0.00197898	791743	791743	
37271.2	-0.00197936	792150	792150	
37287.7	-0.00197414	792536	792536	
37304.2	-0.00196357	792889	792889	
37320.7	-0.00194792	793259	793259	
37337.2	-0.00192746	793648	793648	
37353.7	-0.00190247	793889	793889	
37370.2	-0.00187322	794168	794168	
37386.7	-0.00183999	794578	794578	
37403.3	-0.00180305	794963	794963	
37419.8	-0.00176269	795275	795275	
37436.3	-0.00171917	795737	795737	
37452.8	-0.00167275	796033	796033	
37469.3	-0.00162369	796381	796381	
37485.8	-0.00157224	796901	796901	
37502.3	-0.00151864	797241	797241	
37518.8	-0.00146311	797582	797582	
37535.3	-0.00140587	797948	797948	
37551.8	-0.00134711	798230	798230	
37568.4	-0.00128702	798585	798585	
37584.9	-0.00122576	798748	798748	
37601.4	-0.00116348	798972	798972	
37617.9	-0.00110031	799247	799247	
37634.4	-0.00103634	799541	799541	
37650.9	-0.000971674	799939	799939	
37667.4	-0.000906371	800306	800306	
37683.9	-0.000840476	800761	800761	
37700.4	-0.000774013	801129	801129	
37716.9	-0.000706985	801478	801478	
37733.5	-0.000639376	801767	801767	
37750	-0.000571148	802083	802083	
37766.5	-0.000502249	802557	802557	
37783	-0.000432605	802850	802850	
37799.5	-0.000362132	803215	803215	
37816	-0.000290728	803523	803523	
37832.5	-0.00021828	803819	803819	
37849	-0.000144666	804131	804131	
37865.5	-6.97529e-05	804525	804525	
37882	6.5965e-06	804793	804793	
37898.6	8.45245e-05	805102	805102	
37915.1	0.000164175	805596	805596	
37931.6	0.000245693	806006	806006	
37948.1	0.00032922	806433	806433	
37964.6	0.000414893	806760	806760	
37981.1	0.000502845	807105	807105	
37997.6	0.000593197	807290	807290	
38014.1	0.000686064	807588	807588	
38030.6	0.000781546	807928	807928	
38047.1	0.000879731	808229	808229	
38063.7	0.00098069	808670	808670	
38080.2	0.00108448	808959	808959	
38096.7	0.00119114	809402	809402	
38113.2	0.00130068	809800	809800	
38129.7	0.00141311	810149	810149	
38146.2	0.00152841	810646	810646	
38162.7	0.00164653	811015	811015	
38179.2	0.00176741	811414	811414	
38195.7	0.00189096	811799	811799	
38212.2	0.00201708	812207	812207	
38228.8	0.00214563	812578	812578	
38245.3	0.00227647	812903	812903	
38261.8	0.00240943	813312	813312	
38278.3	0.00254431	813690	813690	
38294.8	0.00268091	814053	814053	
38311.3	0.00281899	814366	814366	
38327.8	0.00295832	814743	814743	
38344.3	0.00309863	815190	815190	
38360.8	0.00323965	815645	815645	
38377.3	0.0033811	816064	816064	
38393.9	0.00352267	816459	816459	
38410.4	0.00366405	816936	816936	
38426.9	0.00380494	817354	817354	
38443.4	0.00394502	817614	817614	
38459.9	0.00408396	817925	817925	
38476.4	0.00422143	818292	818292	
38492.9	0.00435712	818657	818657	
38509.4	0.00449069	819000	819000	
38525.9	0.00462183	819410	819410	
38542.4	0.00475021	819848	819848	
38559	0.00487553	820452	820452	
38575.5	0.00499749	820867	820867	
38592	0.00511578	821195	821195	
38608.5	0.00523012	821534	821534	
38625	0.00534023	821865	821865	
38641.5	0.00544586	822222	822222	
38658	0.00554673	822609	822609	
38674.5	0.00564261	822910	822910	
38691	0.00573327	823300	823300	
38707.5	0.00581849	823671	823671	
38724.1	0.00589806	823971	823971	
38740.6	0.00597179	824281	824281	
38757.1	0.00603951	824745	824745	
38773.6	0.00610103	825136	825136	
38790.1	0.00615621	825501	825501	
38806.6	0.0062049	825832	825832	
38823.1	0.00624697	826139	826139	
38839.6	0.0062823	826462	826462	
38856.1	0.00631078	826825	826825	
38872.6	0.00633232	827189	827189	
38889.2	0.00634683	827618	827618	
38905.7	0.00635424	828061	828061	
38922.2	0.00635449	828486	828486	
38938.7	0.00634753	828899	828899	
38955.2	0.00633333	829217	829217	
38971.7	0.00631187	829548	829548	
38988.2	0.00628313	829778	829778	
39004.7	0.00624713	830032	830032	
39021.2	0.00620387	830353	830353	
39037.7	0.00615338	830758	830758	
39054.3	0.00609571	831138	831138	
39070.8	0.00603091	831484	831484	
39087.3	0.00595906	831876	831876	
39103.8	0.00588023	832130	832130	
39120.3	0.00579452	832414	832414	
39136.8	0.00570203	832765	832765	
39153.3	0.00560287	833203	833203	
39169.8	0.00549719	833544	833544	
39186.3	0.0053851	833931	833931	
39202.8	0.00526675	834277	834277	
39219.4	0.0051423	834695	834695	
39235.9	0.0050119	835078	835078	
39252.4	0.00487572	835397	835397	
39268.9	0.00473391	835684	835684	
39285.4	0.00458666	836189	836189	
39301.9	0.00443412	836529	836529	
39318.4	0.00427647	837001	837001	
39334.9	0.00411387	837401	837401	
39351.4	0.0039465	837762	837762	
39367.9	0.00377452	838019	838019	
39384.5	0.00359809	838201	838201	
39401	0.00341737	838635	838635	
39417.5	0.00323252	838975	838975	
39434	0.00304372	839287	839287	
39450.5	0.00285111	839699	839699	
39467	0.00265485	840044	840044	
39483.5	0.00245511	840305	840305	
39500	0.00225205	840706	840706	
39516.5	0.00204582	840929	840929	
39533	0.00183658	841276	841276	
39549.6	0.00162447	841568	841568	
39566.1	0.00140965	841788	841788	
39582.6	0.00119225	842161	842161	
39599.1	0.000972396	842506	842506	
39615.6	0.000750215	842920	842920	
39632.1	0.000525819	843384	843384	
39648.6	0.000299313	843736	843736	
39665.1	7.07945e-05	844011	844011	
39681.6	-0.000159647	844410	844410	
39698.1	-0.000391928	844757	844757	
39714.7	-0.000625969	845159	845159	
39731.2	-0.000861693	845497	845497	
39747.7	-0.00109903	845859	845859	
39764.2	-0.0013379	846297	846297	
39780.7	-0.00157823	846524	846524	
39797.2	-0.00181995	846949	846949	
39813.7	-0.00206298	847234	847234	
39830.2	-0.00230723	847699	847699	
39846.7	-0.00255262	848112	848112	
39863.2	-0.00279907	848527	848527	
39879.8	-0.00304649	848894	848894	
39896.3	-0.0032948	849369	849369	
39912.8	-0.00354389	849769	849769	
39929.3	-0.0037937	850126	850126	
39945.8	-0.00404412	850502	850502	
39962.3	-0.00429508	851002	851002	
39978.8	-0.00454649	851478	851478	
39995.3	-0.00479827	851836	851836	
40011.8	-0.00505034	852180	852180	
40028.3	-0.00530262	852555	852555	
40044.9	-0.00555503	852886	852886	
40061.4	-0.00580748	853208	853208	
40077.9	-0.00605991	853390	853390	
40094.4	-0.00631223	853720	853720	
40110.9	-0.00656437	854205	854205	
40127.4	-0.00681624	854471	854471	
40143.9	-0.00706776	854859	854859	
40160.4	-0.00731885	855320	855320	
40176.9	-0.00756944	855832	855832	
40193.4	-0.00781944	856242	856242	
40210	-0.00806877	856757	856757	
40226.5	-0.00831735	857314	857314	
40243	-0.00856508	857809	857809	
40259.5	-0.00881189	858240	858240	
40276	-0.00905768	858494	858494	
40292.5	-0.00930237	858788	858788	
40309	-0.00954586	859131	859131	
40325.5	-0.00978807	859338	859338	
40342	-0.0100289	859626	859626	
40358.5	-0.0102683	859860	859860	
40375.1	-0.0105061	860402	860402	
40391.6	-0.0107422	860812	860812	
40408.1	-0.0109766	861314	861314	
40424.6	-0.0112092	861725	861725	
40441.1	-0.0114399	862238	862238	
40457.6	-0.0116686	862569	862569	
40474.1	-0.0118952	862853	862853	
40490.6	-0.0121196	863208	863208	
40507.1	-0.0123418	863526	863526	
40523.6	-0.0125616	863922	863922	
40540.2	-0.0127791	864269	864269	
40556.7	-0.012994	864520	864520	
40573.2	-0.0132064	864938	864938	
40589.7	-0.0134162	865389	865389	
40606.2	-0.0136232	865722	865722	
40622.7	-0.0138275	866111	866111	
40639.2	-0.0140289	866391	866391	
40655.7	-0.0142274	866805	866805	
40672.2	-0.0144229	867217	867217	
40688.7	-0.0146153	867592	867592	
40705.3	-0.0148045	867956	867956	
40721.8	-0.0149906	868210	868210	
40738.3	-0.0151733	868594	868594	
40754.8	-0.0153527	869030	869030	
40771.3	-0.0155288	869267	869267	
40787.8	-0.0157013	869676	869676	
40804.3	-0.0158703	870095	870095	
40820.8	-0.0160357	870359	870359	
40837.3	-0.0161974	870847	870847	
40853.8	-0.0163554	871359	871359	
40870.4	-0.0165096	871737	871737	
40886.9	-0.0166599	872092	872092	
40903.4	-0.0168064	872565	872565	
40919.9	-0.0169489	872939	872939	
40936.4	-0.0170874	873367	873367	
40952.9	-0.0172218	873791	873791	
40969.4	-0.0173521	874118	874118	
40985.9	-0.0174783	874386	874386	
41002.4	-0.0176002	874655	874655	
41018.9	-0.0177179	874947	874947	
41035.5	-0.0178313	875543	875543	
41052	-0.0179404	876059	876059	
41068.5	-0.0180451	876589	876589	
41085	-0.0181453	876981	876981	
41101.5	-0.0182411	877277	877277	
41118	-0.0183324	877511	877511	
41134.5	-0.0184192	877895	877895	
41151	-0.0185013	878332	878332	
41167.5	-0.0185789	878764	878764	
41184	-0.0186519	879159	879159	
41200.6	-0.0187202	879510	879510	
41217.1	-0.0187838	879941	879941	
41233.6	-0.0188427	880318	880318	
41250.1	-0.0188969	880812	880812	
41266.6	-0.0189463	881229	881229	
41283.1	-0.0189909	881636	881636	
41299.6	-0.0190308	882097	882097	
41316.1	-0.0190659	882565	882565	
41332.6	-0.0190961	883023	883023	
41349.1	-0.0191216	883411	883411	
41365.7	-0.0191422	883747	883747	
41382.2	-0.019158	884022	884022	
41398.7	-0.0191689	884324	884324	
41415.2	-0.0191751	884837	884837	
41431.7	-0.0191764	885217	885217	
41448.2	-0.019173	885630	885630	
41464.7	-0.0191649	886066	886066	
41481.2	-0.0191531	886577	886577	
41497.7	-0.0191385	886833	886833	
41514.3	-0.01912	887103	887103	
41530.8	-0.0191152	887336	887336	
41547.3	-0.0190845	887711	887711	
41563.8	-0.019049	888174	888174	
41580.3	-0.0190035	888566	888566	
41596.8	-0.0189482	888931	888931	
41613.3	-0.0188976	889176	889176	
41629.8	-0.0188284	889549	889549	
41646.3	-0.01879	889799	889799	
41662.8	-0.0187257	889885	889885	
41679.4	-0.0185705	890217	890217	
41695.9	-0.0184594	890629	890629	
41712.4	-0.0183847	890992	890992	
41728.9	-0.018314	891352	891352	
41745.4	-0.0182282	891703	891703	
41761.9	-0.0181378	892250	892250	
41778.4	-0.0180493	892890	892890	
41794.9	-0.0179608	893462	893462	
41811.4	-0.0178591	893963	893963	
41827.9	-0.0177464	894400	894400	
41844.5	-0.0176332	894552	894552	
41861	-0.0175148	894857	894857	
41877.5	-0.01738	895113	895113	
41894	-0.017236	895291	895291	
41910.5	-0.0171038	895480	895480	
41927	-0.0169731	895723	895723	
41943.5	-0.016835	895978	895978	
41960	-0.0166762	896168	896168	
41976.5	-0.0165171	896685	896685	
41993	-0.0163624	897216	897216	
42009.6	-0.0162028	897770	897770	
42026.1	-0.0160416	898272	898272	
42042.6	-0.0158814	898902	898902	
42059.1	-0.015728	899404	899404	
42075.6	-0.015558	899950	899950	
42092.1	-0.0153862	900386	900386	
42108.6	-0.0152093	900705	900705	
42125.1	-0.0150159	901015	901015	
42141.6	-0.0148229	901285	901285	
42158.1	-0.0146382	901697	901697	
42174.7	-0.0144565	902111	902111	
42191.2	-0.0142728	902311	902311	
42207.7	-0.014073	902747	902747	
42224.2	-0.0138727	903201	903201	
42240.7	-0.0136796	903623	903623	
42257.2	-0.0134885	904089	904089	
42273.7	-0.0132944	904527	904527	
42290.2	-0.0130953	904990	904990	
42306.7	-0.012891	905341	905341	
42323.2	-0.0126821	905749	905749	
42339.8	-0.0124693	906247	906247	
42356.3	-0.0122536	906669	906669	
42372.8	-0.0120355	907193	907193	
42389.3	-0.011815	907590	907590	
42405.8	-0.0115929	908064	908064	
42422.3	-0.0113697	908415	908415	
42438.8	-0.0111459	908629	908629	
42455.3	-0.0109216	909102	909102	
42471.8	-0.0106964	909540	909540	
42488.3	-0.0104702	909903	909903	
42504.9	-0.0102357	910282	910282	
42521.4	-0.0100106	910564	910564	
42537.9	-0.00978966	910818	910818	
42554.4	-0.00956721	911245	911245	
42570.9	-0.00934173	911590	911590	
42587.4	-0.00911357	912055	912055	
42603.9	-0.00888333	912615	912615	
42620.4	-0.00865127	913097	913097	
42636.9	-0.0083993	913697	913697	
42653.4	-0.00814883	914227	914227	
42670	-0.00790352	914710	914710	
42686.5	-0.00766961	915049	915049	
42703	-0.00743623	915531	915531	
42719.5	-0.00720296	915939	915939	
42736	-0.00697224	916310	916310	
42752.5	-0.00674493	916712	916712	
42769	-0.00652119	917089	917089	
42785.5	-0.00629728	917583	917583	
42802	-0.00605788	918062	918062	
42818.5	-0.00582217	918408	918408	
42835.1	-0.00558705	918840	918840	
42851.6	-0.00534667	919274	919274	
42868.1	-0.00511167	919558	919558	
42884.6	-0.00487408	920024	920024	
42901.1	-0.00463409	920394	920394	
42917.6	-0.00439504	920812	920812	
42934.1	-0.0041589	921171	921171	
42950.6	-0.00392573	921616	921616	
42967.1	-0.00369463	921995	921995	
42983.6	-0.00346467	922404	922404	
43000.2	-0.00323538	922881	922881	
43016.7	-0.00300678	923332	923332	
43033.2	-0.00277919	923608	923608	
43049.7	-0.00255303	923779	923779	
43066.2	-0.00232867	924148	924148	
43082.7	-0.0021064	924450	924450	
43099.2	-0.00188644	924724	924724	
43115.7	-0.001669	925097	925097	
43132.2	-0.00145426	925384	925384	
43148.7	-0.00124243	925885	925885	
43165.3	-0.00103368	926368	926368	
43181.8	-0.000828144	926836	926836	
43198.3	-0.000625874	927318	927318	
