CPUS: 0 1 2 3 4 5 6 7 8 9 10 11
SPLIT SIZES:  64 128 256 512 1024 2048 4096 8192 16384 32768
Split Size: 64
Threads	MTPS	SPEEDUP	SPEEDUP_PER	KML_SPEEDUP	KML_SPEEDUP_TO_NONAFFINITY
1	1.68237	1.0000	1.0000	1.0000	.2245
2	3.75402	2.2313	1.1156	1.6586	-.0898
3	4.35376	2.5878	.8626	2.4393	.1542
4	5.64362	3.3545	.8386	3.1674	.1562
5	6.95482	4.1339	.8267	3.8598	.1433
6	8.18135	4.8629	.8104	4.3236	.0887
7	9.40913	5.5927	.7989	4.7259	.0347
8	10.5301	6.2590	.7823	5.1795	.0133
9	11.6077	6.8996	.7666	5.6365	.0003
10	12.6403	7.5133	.7513	6.1381	.0003
11	13.6313	8.1024	.7365	6.6272	.0015
12	14.549	8.6479	.7206	7.0595	-.0004
Split Size: 128
Threads	MTPS	SPEEDUP	SPEEDUP_PER	KML_SPEEDUP	KML_SPEEDUP_TO_NONAFFINITY
1	2.86155	1.0000	1.0000	1.0000	-.1523
2	5.44551	1.9029	.9514	2.0544	-.0848
3	6.46397	2.2589	.7529	2.9676	.1136
4	8.18755	2.8612	.7153	3.8920	.1530
5	9.96883	3.4837	.6967	4.7201	.1485
6	11.7506	4.1063	.6843	5.3106	.0962
7	13.6539	4.7715	.6816	5.8384	.0372
8	15.1751	5.3031	.6628	6.3738	.0188
9	16.7085	5.8389	.6487	6.9568	.0099
10	18.1619	6.3468	.6346	7.4945	.0009
11	19.5512	6.8323	.6211	8.0952	.0043
12	20.6841	7.2282	.6023	8.5736	.0054
Split Size: 256
Threads	MTPS	SPEEDUP	SPEEDUP_PER	KML_SPEEDUP	KML_SPEEDUP_TO_NONAFFINITY
1	3.52721	1.0000	1.0000	1.0000	-.0848
2	6.87936	1.9503	.9751	1.8344	-.1393
3	8.56389	2.4279	.8093	2.7639	.0417
4	10.8464	3.0750	.7687	3.5381	.0529
5	13.2015	3.7427	.7485	4.3188	.0559
6	15.5054	4.3959	.7326	5.1473	.0715
7	17.8704	5.0664	.7237	5.6755	.0251
8	19.7082	5.5874	.6984	6.2624	.0256
9	21.8195	6.1860	.6873	6.8048	.0066
10	23.6185	6.6960	.6696	7.3407	.0032
11	25.4021	7.2017	.6547	7.8900	.0025
12	26.6693	7.5610	.6300	8.2716	.0011
Split Size: 512
Threads	MTPS	SPEEDUP	SPEEDUP_PER	KML_SPEEDUP	KML_SPEEDUP_TO_NONAFFINITY
1	3.90529	1.0000	1.0000	1.0000	-.0355
2	7.671	1.9642	.9821	1.8634	-.0850
3	10.0429	2.5716	.8572	2.7359	.0260
4	12.705	3.2532	.8133	3.6540	.0832
5	15.6048	3.9958	.7991	4.4654	.0777
6	18.2101	4.6629	.7771	5.2021	.0759
7	20.6836	5.2963	.7566	5.7214	.0418
8	23.1134	5.9184	.7398	6.2516	.0187
9	25.3753	6.4976	.7219	6.7955	.0086
10	27.4291	7.0235	.7023	7.2892	.0009
11	29.5688	7.5714	.6883	7.8517	.0001
12	31.2159	7.9932	.6661	8.2909	.0003
Split Size: 1024
Threads	MTPS	SPEEDUP	SPEEDUP_PER	KML_SPEEDUP	KML_SPEEDUP_TO_NONAFFINITY
1	4.10025	1.0000	1.0000	1.0000	-.0255
2	8.11691	1.9796	.9898	1.8937	-.0677
3	10.7443	2.6204	.8734	2.7906	.0377
4	13.9139	3.3934	.8483	3.7297	.0710
5	16.9753	4.1400	.8280	4.5564	.0724
6	19.8886	4.8505	.8084	5.3319	.0711
7	22.6892	5.5336	.7905	5.8783	.0351
8	25.1765	6.1402	.7675	6.4486	.0233
9	27.6299	6.7385	.7487	6.9734	.0084
10	29.9235	7.2979	.7297	7.5267	.0050
11	32.1773	7.8476	.7134	8.0645	.0013
12	33.6419	8.2048	.6837	8.4861	.0078
Split Size: 2048
Threads	MTPS	SPEEDUP	SPEEDUP_PER	KML_SPEEDUP	KML_SPEEDUP_TO_NONAFFINITY
1	4.18625	1.0000	1.0000	1.0000	-.0218
2	8.26959	1.9754	.9877	1.9447	-.0370
3	11.2225	2.6808	.8936	2.8767	.0496
4	14.4464	3.4509	.8627	3.6725	.0409
5	17.5757	4.1984	.8396	4.4594	.0389
6	20.606	4.9223	.8203	5.2787	.0490
7	23.3879	5.5868	.7981	5.9139	.0354
8	26.1377	6.2437	.7804	6.5053	.0191
9	28.5972	6.8312	.7590	7.0484	.0092
10	30.9455	7.3921	.7392	7.5861	.0038
11	33.1957	7.9296	.7208	8.1133	.0008
12	34.8576	8.3266	.6938	8.5238	.0013
Split Size: 4096
Threads	MTPS	SPEEDUP	SPEEDUP_PER	KML_SPEEDUP	KML_SPEEDUP_TO_NONAFFINITY
1	4.23995	1.0000	1.0000	1.0000	-.0143
2	8.39245	1.9793	.9896	1.9666	-.0206
3	11.5246	2.7180	.9060	2.8705	.0409
4	14.9396	3.5235	.8808	3.7227	.0414
5	18.0023	4.2458	.8491	4.4368	.0299
6	20.7841	4.9019	.8169	5.1959	.0447
7	23.5402	5.5519	.7931	5.7767	.0255
8	25.7227	6.0667	.7583	6.2985	.0233
9	28.2363	6.6595	.7399	6.7761	.0029
10	30.1467	7.1101	.7110	7.2639	.0069
11	32.1661	7.5864	.6896	7.7037	.0009
12	33.6155	7.9282	.6606	8.0247	-.0023
Split Size: 8192
Threads	MTPS	SPEEDUP	SPEEDUP_PER	KML_SPEEDUP	KML_SPEEDUP_TO_NONAFFINITY
1	4.29112	1.0000	1.0000	1.0000	-.0110
2	8.4795	1.9760	.9880	1.9614	-.0183
3	11.4595	2.6705	.8901	2.7952	.0351
4	14.8487	3.4603	.8650	3.6394	.0401
5	17.6903	4.1225	.8245	4.3094	.0338
6	20.0686	4.6767	.7794	4.9278	.0420
7	22.8094	5.3154	.7593	5.4845	.0204
8	24.6742	5.7500	.7187	5.8710	.0097
9	25.8553	6.0253	.6694	6.1540	.0101
10	26.925	6.2745	.6274	6.3600	.0024
11	28.0842	6.5447	.5949	6.6055	-.0018
12	28.7376	6.6969	.5580	6.7642	-.0010
Split Size: 16384
Threads	MTPS	SPEEDUP	SPEEDUP_PER	KML_SPEEDUP	KML_SPEEDUP_TO_NONAFFINITY
1	4.33369	1.0000	1.0000	1.0000	-.0116
2	8.46307	1.9528	.9764	1.9525	-.0117
3	11.1474	2.5722	.8574	2.6352	.0125
4	14.0683	3.2462	.8115	3.3763	.0279
5	15.7146	3.6261	.7252	3.8212	.0415
6	17.535	4.0462	.6743	4.2226	.0314
7	19.8948	4.5907	.6558	4.7316	.0187
8	21.8205	5.0350	.6293	5.1733	.0155
9	22.6157	5.2185	.5798	5.2682	-.0022
10	22.7318	5.2453	.5245	5.3035	-.0006
11	22.7789	5.2562	.4778	5.3642	.0086
12	22.3551	5.1584	.4298	5.2538	.0066
Split Size: 32768
Threads	MTPS	SPEEDUP	SPEEDUP_PER	KML_SPEEDUP	KML_SPEEDUP_TO_NONAFFINITY
1	4.34872	1.0000	1.0000	1.0000	-.0038
2	8.5438	1.9646	.9823	1.9472	-.0127
3	9.25691	2.1286	.7095	2.1939	.0266
4	13.0994	3.0122	.7530	3.0543	.0100
5	13.2067	3.0369	.6073	3.1450	.0315
6	13.2478	3.0463	.5077	3.1801	.0398
7	13.2349	3.0434	.4347	3.1375	.0269
8	13.3439	3.0684	.3835	3.1036	.0075
9	13.2582	3.0487	.3387	3.0724	.0038
10	13.1027	3.0130	.3013	3.0420	.0057
11	13.1586	3.0258	.2750	3.0401	.0008
12	12.8009	2.9436	.2453	2.9624	.0024
