STARTING WORLD SCHEDULER SERVER
CLIENT SETUP: adding client 49540
 + TIMESTAMP: 0.163181
START TIMESTAMP: 0.163222
+++++++++++++++++++++++++++++++++++++++++++++++++++++++++++
+ Client Mapping:
  > Client 49540 (0):	

+ Core Mapping:	0 0 0 0 0 0 0 0 0 0 0 0 0 0 0 0 0 0 0 0 0 0 0 0 0 0 0 0 0 0 0 0 0 0 0 0 0 0 0 0 
+ Optimal point: 
+++++++++++++++++++++++++++++++++++++++++++++++++++++++++++
INVADE: client 49540
 + TIMESTAMP: 0.21904
RESSOURCE DISTRIBUTION CHANGED
++++++++++++++++++++++++++++++++++++++++++++++++
INVADE (49540)
  + pid: 49540
  + min_cores: 1
  + max_cores: 512
  + scalability graph: 
1, 1.36329, 1.52423, 1.62017, 1.68565, 1.73398, 1.77154, 1.80182, 1.8269, 1.84812, 1.86637, 1.88229, 1.89634, 1.90885, 1.92009, 1.93026, 1.93952, 1.94799, 1.95579, 1.963, 1.96968, 1.9759, 1.98172, 1.98716, 1.99228, 1.9971, 2.00164, 2.00594, 2.01002, 2.01389, 2.01757, 2.02108, 2.02443, 2.02763, 2.03069, 2.03362, 2.03644, 2.03914, 2.04173, 2.04423, 
Number of clients: 1

+++++++++++++++++++++++++++++++++++++++++++++++++++++++++++
+ Client Mapping:
  > Client 49540 (40):	0 1 2 3 4 5 6 7 8 9 10 11 12 13 14 15 16 17 18 19 20 21 22 23 24 25 26 27 28 29 30 31 32 33 34 35 36 37 38 39 

+ Core Mapping:	49540 49540 49540 49540 49540 49540 49540 49540 49540 49540 49540 49540 49540 49540 49540 49540 49540 49540 49540 49540 49540 49540 49540 49540 49540 49540 49540 49540 49540 49540 49540 49540 49540 49540 49540 49540 49540 49540 49540 49540 
+ Optimal point: 40 
+++++++++++++++++++++++++++++++++++++++++++++++++++++++++++
CLIENT SETUP: adding client 49549
 + TIMESTAMP: 0.292189
+++++++++++++++++++++++++++++++++++++++++++++++++++++++++++
+ Client Mapping:
  > Client 49540 (40):	0 1 2 3 4 5 6 7 8 9 10 11 12 13 14 15 16 17 18 19 20 21 22 23 24 25 26 27 28 29 30 31 32 33 34 35 36 37 38 39 
  > Client 49549 (0):	

+ Core Mapping:	49540 49540 49540 49540 49540 49540 49540 49540 49540 49540 49540 49540 49540 49540 49540 49540 49540 49540 49540 49540 49540 49540 49540 49540 49540 49540 49540 49540 49540 49540 49540 49540 49540 49540 49540 49540 49540 49540 49540 49540 
+ Optimal point: 40 
+++++++++++++++++++++++++++++++++++++++++++++++++++++++++++
INVADE: client 49549
 + TIMESTAMP: 0.292273
CLIENT SETUP: adding client 49541
 + TIMESTAMP: 0.299841
+++++++++++++++++++++++++++++++++++++++++++++++++++++++++++
+ Client Mapping:
  > Client 49540 (40):	0 1 2 3 4 5 6 7 8 9 10 11 12 13 14 15 16 17 18 19 20 21 22 23 24 25 26 27 28 29 30 31 32 33 34 35 36 37 38 39 
  > Client 49549 (0):	
  > Client 49541 (0):	

+ Core Mapping:	49540 49540 49540 49540 49540 49540 49540 49540 49540 49540 49540 49540 49540 49540 49540 49540 49540 49540 49540 49540 49540 49540 49540 49540 49540 49540 49540 49540 49540 49540 49540 49540 49540 49540 49540 49540 49540 49540 49540 49540 
+ Optimal point: 20 20 
+++++++++++++++++++++++++++++++++++++++++++++++++++++++++++
INVADE: client 49541
 + TIMESTAMP: 0.299916
CLIENT SETUP: adding client 49547
 + TIMESTAMP: 0.306777
+++++++++++++++++++++++++++++++++++++++++++++++++++++++++++
+ Client Mapping:
  > Client 49540 (40):	0 1 2 3 4 5 6 7 8 9 10 11 12 13 14 15 16 17 18 19 20 21 22 23 24 25 26 27 28 29 30 31 32 33 34 35 36 37 38 39 
  > Client 49549 (0):	
  > Client 49541 (0):	
  > Client 49547 (0):	

+ Core Mapping:	49540 49540 49540 49540 49540 49540 49540 49540 49540 49540 49540 49540 49540 49540 49540 49540 49540 49540 49540 49540 49540 49540 49540 49540 49540 49540 49540 49540 49540 49540 49540 49540 49540 49540 49540 49540 49540 49540 49540 49540 
+ Optimal point: 14 13 13 
+++++++++++++++++++++++++++++++++++++++++++++++++++++++++++
CLIENT SETUP: adding client 49546
 + TIMESTAMP: 0.306948
+++++++++++++++++++++++++++++++++++++++++++++++++++++++++++
+ Client Mapping:
  > Client 49540 (40):	0 1 2 3 4 5 6 7 8 9 10 11 12 13 14 15 16 17 18 19 20 21 22 23 24 25 26 27 28 29 30 31 32 33 34 35 36 37 38 39 
  > Client 49549 (0):	
  > Client 49541 (0):	
  > Client 49547 (0):	
  > Client 49546 (0):	

+ Core Mapping:	49540 49540 49540 49540 49540 49540 49540 49540 49540 49540 49540 49540 49540 49540 49540 49540 49540 49540 49540 49540 49540 49540 49540 49540 49540 49540 49540 49540 49540 49540 49540 49540 49540 49540 49540 49540 49540 49540 49540 49540 
+ Optimal point: 14 13 13 
+++++++++++++++++++++++++++++++++++++++++++++++++++++++++++
INVADE: client 49546
 + TIMESTAMP: 0.307145
CLIENT SETUP: adding client 49544
 + TIMESTAMP: 0.307173
+++++++++++++++++++++++++++++++++++++++++++++++++++++++++++
+ Client Mapping:
  > Client 49540 (40):	0 1 2 3 4 5 6 7 8 9 10 11 12 13 14 15 16 17 18 19 20 21 22 23 24 25 26 27 28 29 30 31 32 33 34 35 36 37 38 39 
  > Client 49549 (0):	
  > Client 49541 (0):	
  > Client 49547 (0):	
  > Client 49546 (0):	
  > Client 49544 (0):	

+ Core Mapping:	49540 49540 49540 49540 49540 49540 49540 49540 49540 49540 49540 49540 49540 49540 49540 49540 49540 49540 49540 49540 49540 49540 49540 49540 49540 49540 49540 49540 49540 49540 49540 49540 49540 49540 49540 49540 49540 49540 49540 49540 
+ Optimal point: 1 1 1 36 1 
+++++++++++++++++++++++++++++++++++++++++++++++++++++++++++
INVADE: client 49547
 + TIMESTAMP: 0.30725
INVADE: client 49544
 + TIMESTAMP: 0.307282
++++++++++++++++++++++++++++++++++++++++++++++++
 + TIMESTAMP: 0.311342
REINVADE (49540)
  + pid: 49540
  + min_cores: 1
  + max_cores: 512
  + scalability graph: 
1, 1.36329, 1.52423, 1.62017, 1.68565, 1.73398, 1.77154, 1.80182, 1.8269, 1.84812, 1.86637, 1.88229, 1.89634, 1.90885, 1.92009, 1.93026, 1.93952, 1.94799, 1.95579, 1.963, 1.96968, 1.9759, 1.98172, 1.98716, 1.99228, 1.9971, 2.00164, 2.00594, 2.01002, 2.01389, 2.01757, 2.02108, 2.02443, 2.02763, 2.03069, 2.03362, 2.03644, 2.03914, 2.04173, 2.04423, 
Number of clients: 6

+++++++++++++++++++++++++++++++++++++++++++++++++++++++++++
+ Client Mapping:
  > Client 49540 (7):	33 34 35 36 37 38 39 
  > Client 49549 (0):	
  > Client 49541 (0):	
  > Client 49547 (0):	
  > Client 49546 (0):	
  > Client 49544 (0):	

+ Core Mapping:	0 0 0 0 0 0 0 0 0 0 0 0 0 0 0 0 0 0 0 0 0 0 0 0 0 0 0 0 0 0 0 0 0 49540 49540 49540 49540 49540 49540 49540 
+ Optimal point: 7 7 7 7 6 6 
+++++++++++++++++++++++++++++++++++++++++++++++++++++++++++
CLIENT SETUP: adding client 49548
 + TIMESTAMP: 0.316681
+++++++++++++++++++++++++++++++++++++++++++++++++++++++++++
+ Client Mapping:
  > Client 49540 (7):	33 34 35 36 37 38 39 
  > Client 49549 (0):	
  > Client 49541 (0):	
  > Client 49547 (0):	
  > Client 49546 (0):	
  > Client 49544 (0):	
  > Client 49548 (0):	

+ Core Mapping:	0 0 0 0 0 0 0 0 0 0 0 0 0 0 0 0 0 0 0 0 0 0 0 0 0 0 0 0 0 0 0 0 0 49540 49540 49540 49540 49540 49540 49540 
+ Optimal point: 7 7 7 7 6 6 
+++++++++++++++++++++++++++++++++++++++++++++++++++++++++++
INVADE: client 49548
 + TIMESTAMP: 0.316785
RESSOURCE DISTRIBUTION CHANGED
++++++++++++++++++++++++++++++++++++++++++++++++
INVADE (49548)
  + pid: 49548
  + min_cores: 1
  + max_cores: 512
  + scalability graph: 
1, 1.36329, 1.52423, 1.62017, 1.68565, 1.73398, 1.77154, 1.80182, 1.8269, 1.84812, 1.86637, 1.88229, 1.89634, 1.90885, 1.92009, 1.93026, 1.93952, 1.94799, 1.95579, 1.963, 1.96968, 1.9759, 1.98172, 1.98716, 1.99228, 1.9971, 2.00164, 2.00594, 2.01002, 2.01389, 2.01757, 2.02108, 2.02443, 2.02763, 2.03069, 2.03362, 2.03644, 2.03914, 2.04173, 2.04423, 
Number of clients: 7

+++++++++++++++++++++++++++++++++++++++++++++++++++++++++++
+ Client Mapping:
  > Client 49540 (7):	33 34 35 36 37 38 39 
  > Client 49549 (0):	
  > Client 49541 (0):	
  > Client 49547 (0):	
  > Client 49546 (0):	
  > Client 49544 (0):	
  > Client 49548 (5):	0 1 2 3 4 

+ Core Mapping:	49548 49548 49548 49548 49548 0 0 0 0 0 0 0 0 0 0 0 0 0 0 0 0 0 0 0 0 0 0 0 0 0 0 0 0 49540 49540 49540 49540 49540 49540 49540 
+ Optimal point: 6 6 6 6 6 5 5 
+++++++++++++++++++++++++++++++++++++++++++++++++++++++++++
CLIENT SETUP: adding client 49543
 + TIMESTAMP: 0.317147
+++++++++++++++++++++++++++++++++++++++++++++++++++++++++++
+ Client Mapping:
  > Client 49540 (7):	33 34 35 36 37 38 39 
  > Client 49549 (0):	
  > Client 49541 (0):	
  > Client 49547 (0):	
  > Client 49546 (0):	
  > Client 49544 (0):	
  > Client 49548 (5):	0 1 2 3 4 
  > Client 49543 (0):	

+ Core Mapping:	49548 49548 49548 49548 49548 0 0 0 0 0 0 0 0 0 0 0 0 0 0 0 0 0 0 0 0 0 0 0 0 0 0 0 0 49540 49540 49540 49540 49540 49540 49540 
+ Optimal point: 6 6 6 6 6 5 5 
+++++++++++++++++++++++++++++++++++++++++++++++++++++++++++
INVADE: client 49543
 + TIMESTAMP: 0.31728
RESSOURCE DISTRIBUTION CHANGED
++++++++++++++++++++++++++++++++++++++++++++++++
INVADE (49543)
  + pid: 49543
  + min_cores: 1
  + max_cores: 512
  + scalability graph: 
1, 1.36329, 1.52423, 1.62017, 1.68565, 1.73398, 1.77154, 1.80182, 1.8269, 1.84812, 1.86637, 1.88229, 1.89634, 1.90885, 1.92009, 1.93026, 1.93952, 1.94799, 1.95579, 1.963, 1.96968, 1.9759, 1.98172, 1.98716, 1.99228, 1.9971, 2.00164, 2.00594, 2.01002, 2.01389, 2.01757, 2.02108, 2.02443, 2.02763, 2.03069, 2.03362, 2.03644, 2.03914, 2.04173, 2.04423, 
Number of clients: 8

+++++++++++++++++++++++++++++++++++++++++++++++++++++++++++
+ Client Mapping:
  > Client 49540 (7):	33 34 35 36 37 38 39 
  > Client 49549 (0):	
  > Client 49541 (0):	
  > Client 49547 (0):	
  > Client 49546 (0):	
  > Client 49544 (0):	
  > Client 49548 (5):	0 1 2 3 4 
  > Client 49543 (5):	5 6 7 8 9 

+ Core Mapping:	49548 49548 49548 49548 49548 49543 49543 49543 49543 49543 0 0 0 0 0 0 0 0 0 0 0 0 0 0 0 0 0 0 0 0 0 0 0 49540 49540 49540 49540 49540 49540 49540 
+ Optimal point: 5 5 5 5 5 5 5 5 
+++++++++++++++++++++++++++++++++++++++++++++++++++++++++++
CLIENT SETUP: adding client 49545
 + TIMESTAMP: 0.319434
+++++++++++++++++++++++++++++++++++++++++++++++++++++++++++
+ Client Mapping:
  > Client 49540 (7):	33 34 35 36 37 38 39 
  > Client 49549 (0):	
  > Client 49541 (0):	
  > Client 49547 (0):	
  > Client 49546 (0):	
  > Client 49544 (0):	
  > Client 49548 (5):	0 1 2 3 4 
  > Client 49543 (5):	5 6 7 8 9 
  > Client 49545 (0):	

+ Core Mapping:	49548 49548 49548 49548 49548 49543 49543 49543 49543 49543 0 0 0 0 0 0 0 0 0 0 0 0 0 0 0 0 0 0 0 0 0 0 0 49540 49540 49540 49540 49540 49540 49540 
+ Optimal point: 5 5 5 5 5 5 5 5 
+++++++++++++++++++++++++++++++++++++++++++++++++++++++++++
INVADE: client 49545
 + TIMESTAMP: 0.319556
RESSOURCE DISTRIBUTION CHANGED
++++++++++++++++++++++++++++++++++++++++++++++++
INVADE (49545)
  + pid: 49545
  + min_cores: 1
  + max_cores: 512
  + scalability graph: 
1, 1.36329, 1.52423, 1.62017, 1.68565, 1.73398, 1.77154, 1.80182, 1.8269, 1.84812, 1.86637, 1.88229, 1.89634, 1.90885, 1.92009, 1.93026, 1.93952, 1.94799, 1.95579, 1.963, 1.96968, 1.9759, 1.98172, 1.98716, 1.99228, 1.9971, 2.00164, 2.00594, 2.01002, 2.01389, 2.01757, 2.02108, 2.02443, 2.02763, 2.03069, 2.03362, 2.03644, 2.03914, 2.04173, 2.04423, 
Number of clients: 9

+++++++++++++++++++++++++++++++++++++++++++++++++++++++++++
+ Client Mapping:
  > Client 49540 (7):	33 34 35 36 37 38 39 
  > Client 49549 (0):	
  > Client 49541 (0):	
  > Client 49547 (0):	
  > Client 49546 (0):	
  > Client 49544 (0):	
  > Client 49548 (5):	0 1 2 3 4 
  > Client 49543 (5):	5 6 7 8 9 
  > Client 49545 (4):	10 11 12 13 

+ Core Mapping:	49548 49548 49548 49548 49548 49543 49543 49543 49543 49543 49545 49545 49545 49545 0 0 0 0 0 0 0 0 0 0 0 0 0 0 0 0 0 0 0 49540 49540 49540 49540 49540 49540 49540 
+ Optimal point: 5 5 5 5 4 4 4 4 4 
+++++++++++++++++++++++++++++++++++++++++++++++++++++++++++
CLIENT SETUP: adding client 49542
 + TIMESTAMP: 0.320592
+++++++++++++++++++++++++++++++++++++++++++++++++++++++++++
+ Client Mapping:
  > Client 49540 (7):	33 34 35 36 37 38 39 
  > Client 49549 (0):	
  > Client 49541 (0):	
  > Client 49547 (0):	
  > Client 49546 (0):	
  > Client 49544 (0):	
  > Client 49548 (5):	0 1 2 3 4 
  > Client 49543 (5):	5 6 7 8 9 
  > Client 49545 (4):	10 11 12 13 
  > Client 49542 (0):	

+ Core Mapping:	49548 49548 49548 49548 49548 49543 49543 49543 49543 49543 49545 49545 49545 49545 0 0 0 0 0 0 0 0 0 0 0 0 0 0 0 0 0 0 0 49540 49540 49540 49540 49540 49540 49540 
+ Optimal point: 5 5 5 5 4 4 4 4 4 
+++++++++++++++++++++++++++++++++++++++++++++++++++++++++++
INVADE: client 49542
 + TIMESTAMP: 0.320683
RESSOURCE DISTRIBUTION CHANGED
++++++++++++++++++++++++++++++++++++++++++++++++
INVADE (49542)
  + pid: 49542
  + min_cores: 1
  + max_cores: 512
  + scalability graph: 
1, 1.36329, 1.52423, 1.62017, 1.68565, 1.73398, 1.77154, 1.80182, 1.8269, 1.84812, 1.86637, 1.88229, 1.89634, 1.90885, 1.92009, 1.93026, 1.93952, 1.94799, 1.95579, 1.963, 1.96968, 1.9759, 1.98172, 1.98716, 1.99228, 1.9971, 2.00164, 2.00594, 2.01002, 2.01389, 2.01757, 2.02108, 2.02443, 2.02763, 2.03069, 2.03362, 2.03644, 2.03914, 2.04173, 2.04423, 
Number of clients: 10

+++++++++++++++++++++++++++++++++++++++++++++++++++++++++++
+ Client Mapping:
  > Client 49540 (7):	33 34 35 36 37 38 39 
  > Client 49549 (0):	
  > Client 49541 (0):	
  > Client 49547 (0):	
  > Client 49546 (0):	
  > Client 49544 (0):	
  > Client 49548 (5):	0 1 2 3 4 
  > Client 49543 (5):	5 6 7 8 9 
  > Client 49545 (4):	10 11 12 13 
  > Client 49542 (4):	14 15 16 17 

+ Core Mapping:	49548 49548 49548 49548 49548 49543 49543 49543 49543 49543 49545 49545 49545 49545 49542 49542 49542 49542 0 0 0 0 0 0 0 0 0 0 0 0 0 0 0 49540 49540 49540 49540 49540 49540 49540 
+ Optimal point: 4 4 4 4 4 4 4 4 4 4 
+++++++++++++++++++++++++++++++++++++++++++++++++++++++++++
++++++++++++++++++++++++++++++++++++++++++++++++
 + TIMESTAMP: 0.331718
REINVADE (49543)
  + pid: 49543
  + min_cores: 1
  + max_cores: 512
  + scalability graph: 
1, 1.36329, 1.52423, 1.62017, 1.68565, 1.73398, 1.77154, 1.80182, 1.8269, 1.84812, 1.86637, 1.88229, 1.89634, 1.90885, 1.92009, 1.93026, 1.93952, 1.94799, 1.95579, 1.963, 1.96968, 1.9759, 1.98172, 1.98716, 1.99228, 1.9971, 2.00164, 2.00594, 2.01002, 2.01389, 2.01757, 2.02108, 2.02443, 2.02763, 2.03069, 2.03362, 2.03644, 2.03914, 2.04173, 2.04423, 
Number of clients: 10

+++++++++++++++++++++++++++++++++++++++++++++++++++++++++++
+ Client Mapping:
  > Client 49540 (7):	33 34 35 36 37 38 39 
  > Client 49549 (0):	
  > Client 49541 (0):	
  > Client 49547 (0):	
  > Client 49546 (0):	
  > Client 49544 (0):	
  > Client 49548 (5):	0 1 2 3 4 
  > Client 49543 (4):	6 7 8 9 
  > Client 49545 (4):	10 11 12 13 
  > Client 49542 (4):	14 15 16 17 

+ Core Mapping:	49548 49548 49548 49548 49548 0 49543 49543 49543 49543 49545 49545 49545 49545 49542 49542 49542 49542 0 0 0 0 0 0 0 0 0 0 0 0 0 0 0 49540 49540 49540 49540 49540 49540 49540 
+ Optimal point: 4 4 4 4 4 4 4 4 4 4 
+++++++++++++++++++++++++++++++++++++++++++++++++++++++++++
++++++++++++++++++++++++++++++++++++++++++++++++
 + TIMESTAMP: 0.369032
REINVADE (49548)
  + pid: 49548
  + min_cores: 1
  + max_cores: 512
  + scalability graph: 
1, 1.36329, 1.52423, 1.62017, 1.68565, 1.73398, 1.77154, 1.80182, 1.8269, 1.84812, 1.86637, 1.88229, 1.89634, 1.90885, 1.92009, 1.93026, 1.93952, 1.94799, 1.95579, 1.963, 1.96968, 1.9759, 1.98172, 1.98716, 1.99228, 1.9971, 2.00164, 2.00594, 2.01002, 2.01389, 2.01757, 2.02108, 2.02443, 2.02763, 2.03069, 2.03362, 2.03644, 2.03914, 2.04173, 2.04423, 
Number of clients: 10

+++++++++++++++++++++++++++++++++++++++++++++++++++++++++++
+ Client Mapping:
  > Client 49540 (7):	33 34 35 36 37 38 39 
  > Client 49549 (0):	
  > Client 49541 (0):	
  > Client 49547 (0):	
  > Client 49546 (0):	
  > Client 49544 (0):	
  > Client 49548 (4):	1 2 3 4 
  > Client 49543 (4):	6 7 8 9 
  > Client 49545 (4):	10 11 12 13 
  > Client 49542 (4):	14 15 16 17 

+ Core Mapping:	0 49548 49548 49548 49548 0 49543 49543 49543 49543 49545 49545 49545 49545 49542 49542 49542 49542 0 0 0 0 0 0 0 0 0 0 0 0 0 0 0 49540 49540 49540 49540 49540 49540 49540 
+ Optimal point: 4 4 4 4 4 4 4 4 4 4 
+++++++++++++++++++++++++++++++++++++++++++++++++++++++++++
CLIENT SETUP: adding client 49550
 + TIMESTAMP: 0.378285
+++++++++++++++++++++++++++++++++++++++++++++++++++++++++++
+ Client Mapping:
  > Client 49540 (7):	33 34 35 36 37 38 39 
  > Client 49549 (0):	
  > Client 49541 (0):	
  > Client 49547 (0):	
  > Client 49546 (0):	
  > Client 49544 (0):	
  > Client 49548 (4):	1 2 3 4 
  > Client 49543 (4):	6 7 8 9 
  > Client 49545 (4):	10 11 12 13 
  > Client 49542 (4):	14 15 16 17 
  > Client 49550 (0):	

+ Core Mapping:	0 49548 49548 49548 49548 0 49543 49543 49543 49543 49545 49545 49545 49545 49542 49542 49542 49542 0 0 0 0 0 0 0 0 0 0 0 0 0 0 0 49540 49540 49540 49540 49540 49540 49540 
+ Optimal point: 4 4 4 4 4 4 4 4 4 4 
+++++++++++++++++++++++++++++++++++++++++++++++++++++++++++
INVADE: client 49550
 + TIMESTAMP: 0.378551
RESSOURCE DISTRIBUTION CHANGED
++++++++++++++++++++++++++++++++++++++++++++++++
INVADE (49550)
  + pid: 49550
  + min_cores: 1
  + max_cores: 512
  + scalability graph: 
1, 1.36329, 1.52423, 1.62017, 1.68565, 1.73398, 1.77154, 1.80182, 1.8269, 1.84812, 1.86637, 1.88229, 1.89634, 1.90885, 1.92009, 1.93026, 1.93952, 1.94799, 1.95579, 1.963, 1.96968, 1.9759, 1.98172, 1.98716, 1.99228, 1.9971, 2.00164, 2.00594, 2.01002, 2.01389, 2.01757, 2.02108, 2.02443, 2.02763, 2.03069, 2.03362, 2.03644, 2.03914, 2.04173, 2.04423, 
Number of clients: 11

+++++++++++++++++++++++++++++++++++++++++++++++++++++++++++
+ Client Mapping:
  > Client 49540 (7):	33 34 35 36 37 38 39 
  > Client 49549 (0):	
  > Client 49541 (0):	
  > Client 49547 (0):	
  > Client 49546 (0):	
  > Client 49544 (0):	
  > Client 49548 (4):	1 2 3 4 
  > Client 49543 (4):	6 7 8 9 
  > Client 49545 (4):	10 11 12 13 
  > Client 49542 (4):	14 15 16 17 
  > Client 49550 (4):	0 5 18 19 

+ Core Mapping:	49550 49548 49548 49548 49548 49550 49543 49543 49543 49543 49545 49545 49545 49545 49542 49542 49542 49542 49550 49550 0 0 0 0 0 0 0 0 0 0 0 0 0 49540 49540 49540 49540 49540 49540 49540 
+ Optimal point: 4 4 4 4 4 4 3 3 3 3 4 
+++++++++++++++++++++++++++++++++++++++++++++++++++++++++++
++++++++++++++++++++++++++++++++++++++++++++++++
 + TIMESTAMP: 0.397682
REINVADE (49548)
  + pid: 49548
  + min_cores: 1
  + max_cores: 512
  + scalability graph: 
1, 1.36329, 1.52423, 1.62017, 1.68565, 1.73398, 1.77154, 1.80182, 1.8269, 1.84812, 1.86637, 1.88229, 1.89634, 1.90885, 1.92009, 1.93026, 1.93952, 1.94799, 1.95579, 1.963, 1.96968, 1.9759, 1.98172, 1.98716, 1.99228, 1.9971, 2.00164, 2.00594, 2.01002, 2.01389, 2.01757, 2.02108, 2.02443, 2.02763, 2.03069, 2.03362, 2.03644, 2.03914, 2.04173, 2.04423, 
Number of clients: 11

+++++++++++++++++++++++++++++++++++++++++++++++++++++++++++
+ Client Mapping:
  > Client 49540 (7):	33 34 35 36 37 38 39 
  > Client 49549 (0):	
  > Client 49541 (0):	
  > Client 49547 (0):	
  > Client 49546 (0):	
  > Client 49544 (0):	
  > Client 49548 (3):	2 3 4 
  > Client 49543 (4):	6 7 8 9 
  > Client 49545 (4):	10 11 12 13 
  > Client 49542 (4):	14 15 16 17 
  > Client 49550 (4):	0 5 18 19 

+ Core Mapping:	49550 0 49548 49548 49548 49550 49543 49543 49543 49543 49545 49545 49545 49545 49542 49542 49542 49542 49550 49550 0 0 0 0 0 0 0 0 0 0 0 0 0 49540 49540 49540 49540 49540 49540 49540 
+ Optimal point: 4 4 4 4 4 4 3 3 3 3 4 
+++++++++++++++++++++++++++++++++++++++++++++++++++++++++++
++++++++++++++++++++++++++++++++++++++++++++++++
 + TIMESTAMP: 0.398
REINVADE (49543)
  + pid: 49543
  + min_cores: 1
  + max_cores: 512
  + scalability graph: 
1, 1.36329, 1.52423, 1.62017, 1.68565, 1.73398, 1.77154, 1.80182, 1.8269, 1.84812, 1.86637, 1.88229, 1.89634, 1.90885, 1.92009, 1.93026, 1.93952, 1.94799, 1.95579, 1.963, 1.96968, 1.9759, 1.98172, 1.98716, 1.99228, 1.9971, 2.00164, 2.00594, 2.01002, 2.01389, 2.01757, 2.02108, 2.02443, 2.02763, 2.03069, 2.03362, 2.03644, 2.03914, 2.04173, 2.04423, 
Number of clients: 11

+++++++++++++++++++++++++++++++++++++++++++++++++++++++++++
+ Client Mapping:
  > Client 49540 (7):	33 34 35 36 37 38 39 
  > Client 49549 (0):	
  > Client 49541 (0):	
  > Client 49547 (0):	
  > Client 49546 (0):	
  > Client 49544 (0):	
  > Client 49548 (3):	2 3 4 
  > Client 49543 (3):	7 8 9 
  > Client 49545 (4):	10 11 12 13 
  > Client 49542 (4):	14 15 16 17 
  > Client 49550 (4):	0 5 18 19 

+ Core Mapping:	49550 0 49548 49548 49548 49550 0 49543 49543 49543 49545 49545 49545 49545 49542 49542 49542 49542 49550 49550 0 0 0 0 0 0 0 0 0 0 0 0 0 49540 49540 49540 49540 49540 49540 49540 
+ Optimal point: 4 4 4 4 4 4 3 3 3 3 4 
+++++++++++++++++++++++++++++++++++++++++++++++++++++++++++
++++++++++++++++++++++++++++++++++++++++++++++++
 + TIMESTAMP: 0.410852
REINVADE (49542)
  + pid: 49542
  + min_cores: 1
  + max_cores: 512
  + scalability graph: 
1, 1.36329, 1.52423, 1.62017, 1.68565, 1.73398, 1.77154, 1.80182, 1.8269, 1.84812, 1.86637, 1.88229, 1.89634, 1.90885, 1.92009, 1.93026, 1.93952, 1.94799, 1.95579, 1.963, 1.96968, 1.9759, 1.98172, 1.98716, 1.99228, 1.9971, 2.00164, 2.00594, 2.01002, 2.01389, 2.01757, 2.02108, 2.02443, 2.02763, 2.03069, 2.03362, 2.03644, 2.03914, 2.04173, 2.04423, 
Number of clients: 11

+++++++++++++++++++++++++++++++++++++++++++++++++++++++++++
+ Client Mapping:
  > Client 49540 (7):	33 34 35 36 37 38 39 
  > Client 49549 (0):	
  > Client 49541 (0):	
  > Client 49547 (0):	
  > Client 49546 (0):	
  > Client 49544 (0):	
  > Client 49548 (3):	2 3 4 
  > Client 49543 (3):	7 8 9 
  > Client 49545 (4):	10 11 12 13 
  > Client 49542 (3):	15 16 17 
  > Client 49550 (4):	0 5 18 19 

+ Core Mapping:	49550 0 49548 49548 49548 49550 0 49543 49543 49543 49545 49545 49545 49545 0 49542 49542 49542 49550 49550 0 0 0 0 0 0 0 0 0 0 0 0 0 49540 49540 49540 49540 49540 49540 49540 
+ Optimal point: 4 4 4 4 4 4 3 3 3 3 4 
+++++++++++++++++++++++++++++++++++++++++++++++++++++++++++
++++++++++++++++++++++++++++++++++++++++++++++++
 + TIMESTAMP: 0.423125
REINVADE (49545)
  + pid: 49545
  + min_cores: 1
  + max_cores: 512
  + scalability graph: 
1, 1.36329, 1.52423, 1.62017, 1.68565, 1.73398, 1.77154, 1.80182, 1.8269, 1.84812, 1.86637, 1.88229, 1.89634, 1.90885, 1.92009, 1.93026, 1.93952, 1.94799, 1.95579, 1.963, 1.96968, 1.9759, 1.98172, 1.98716, 1.99228, 1.9971, 2.00164, 2.00594, 2.01002, 2.01389, 2.01757, 2.02108, 2.02443, 2.02763, 2.03069, 2.03362, 2.03644, 2.03914, 2.04173, 2.04423, 
Number of clients: 11

+++++++++++++++++++++++++++++++++++++++++++++++++++++++++++
+ Client Mapping:
  > Client 49540 (7):	33 34 35 36 37 38 39 
  > Client 49549 (0):	
  > Client 49541 (0):	
  > Client 49547 (0):	
  > Client 49546 (0):	
  > Client 49544 (0):	
  > Client 49548 (3):	2 3 4 
  > Client 49543 (3):	7 8 9 
  > Client 49545 (3):	11 12 13 
  > Client 49542 (3):	15 16 17 
  > Client 49550 (4):	0 5 18 19 

+ Core Mapping:	49550 0 49548 49548 49548 49550 0 49543 49543 49543 0 49545 49545 49545 0 49542 49542 49542 49550 49550 0 0 0 0 0 0 0 0 0 0 0 0 0 49540 49540 49540 49540 49540 49540 49540 
+ Optimal point: 4 4 4 4 4 4 3 3 3 3 4 
+++++++++++++++++++++++++++++++++++++++++++++++++++++++++++
++++++++++++++++++++++++++++++++++++++++++++++++
 + TIMESTAMP: 0.427105
REINVADE (49540)
  + pid: 49540
  + min_cores: 1
  + max_cores: 512
  + scalability graph: 
1, 1.36329, 1.52423, 1.62017, 1.68565, 1.73398, 1.77154, 1.80182, 1.8269, 1.84812, 1.86637, 1.88229, 1.89634, 1.90885, 1.92009, 1.93026, 1.93952, 1.94799, 1.95579, 1.963, 1.96968, 1.9759, 1.98172, 1.98716, 1.99228, 1.9971, 2.00164, 2.00594, 2.01002, 2.01389, 2.01757, 2.02108, 2.02443, 2.02763, 2.03069, 2.03362, 2.03644, 2.03914, 2.04173, 2.04423, 
Number of clients: 11

+++++++++++++++++++++++++++++++++++++++++++++++++++++++++++
+ Client Mapping:
  > Client 49540 (4):	36 37 38 39 
  > Client 49549 (0):	
  > Client 49541 (0):	
  > Client 49547 (0):	
  > Client 49546 (0):	
  > Client 49544 (0):	
  > Client 49548 (3):	2 3 4 
  > Client 49543 (3):	7 8 9 
  > Client 49545 (3):	11 12 13 
  > Client 49542 (3):	15 16 17 
  > Client 49550 (4):	0 5 18 19 

+ Core Mapping:	49550 0 49548 49548 49548 49550 0 49543 49543 49543 0 49545 49545 49545 0 49542 49542 49542 49550 49550 0 0 0 0 0 0 0 0 0 0 0 0 0 0 0 0 49540 49540 49540 49540 
+ Optimal point: 4 4 4 4 4 4 3 3 3 3 4 
+++++++++++++++++++++++++++++++++++++++++++++++++++++++++++
++++++++++++++++++++++++++++++++++++++++++++++++
 + TIMESTAMP: 0.479422
REINVADE (49546)
  + pid: 49546
  + min_cores: 1
  + max_cores: 512
  + scalability graph: 
1, 1.36329, 1.52423, 1.62017, 1.68565, 1.73398, 1.77154, 1.80182, 1.8269, 1.84812, 1.86637, 1.88229, 1.89634, 1.90885, 1.92009, 1.93026, 1.93952, 1.94799, 1.95579, 1.963, 1.96968, 1.9759, 1.98172, 1.98716, 1.99228, 1.9971, 2.00164, 2.00594, 2.01002, 2.01389, 2.01757, 2.02108, 2.02443, 2.02763, 2.03069, 2.03362, 2.03644, 2.03914, 2.04173, 2.04423, 
Number of clients: 11

+++++++++++++++++++++++++++++++++++++++++++++++++++++++++++
+ Client Mapping:
  > Client 49540 (4):	36 37 38 39 
  > Client 49549 (0):	
  > Client 49541 (0):	
  > Client 49547 (0):	
  > Client 49546 (4):	1 6 10 14 
  > Client 49544 (0):	
  > Client 49548 (3):	2 3 4 
  > Client 49543 (3):	7 8 9 
  > Client 49545 (3):	11 12 13 
  > Client 49542 (3):	15 16 17 
  > Client 49550 (4):	0 5 18 19 

+ Core Mapping:	49550 49546 49548 49548 49548 49550 49546 49543 49543 49543 49546 49545 49545 49545 49546 49542 49542 49542 49550 49550 0 0 0 0 0 0 0 0 0 0 0 0 0 0 0 0 49540 49540 49540 49540 
+ Optimal point: 4 4 4 4 4 4 3 3 3 3 4 
+++++++++++++++++++++++++++++++++++++++++++++++++++++++++++
++++++++++++++++++++++++++++++++++++++++++++++++
 + TIMESTAMP: 0.491169
REINVADE (49544)
  + pid: 49544
  + min_cores: 1
  + max_cores: 512
  + scalability graph: 
1, 1.36329, 1.52423, 1.62017, 1.68565, 1.73398, 1.77154, 1.80182, 1.8269, 1.84812, 1.86637, 1.88229, 1.89634, 1.90885, 1.92009, 1.93026, 1.93952, 1.94799, 1.95579, 1.963, 1.96968, 1.9759, 1.98172, 1.98716, 1.99228, 1.9971, 2.00164, 2.00594, 2.01002, 2.01389, 2.01757, 2.02108, 2.02443, 2.02763, 2.03069, 2.03362, 2.03644, 2.03914, 2.04173, 2.04423, 
Number of clients: 11

+++++++++++++++++++++++++++++++++++++++++++++++++++++++++++
+ Client Mapping:
  > Client 49540 (4):	36 37 38 39 
  > Client 49549 (0):	
  > Client 49541 (0):	
  > Client 49547 (0):	
  > Client 49546 (4):	1 6 10 14 
  > Client 49544 (4):	20 21 22 23 
  > Client 49548 (3):	2 3 4 
  > Client 49543 (3):	7 8 9 
  > Client 49545 (3):	11 12 13 
  > Client 49542 (3):	15 16 17 
  > Client 49550 (4):	0 5 18 19 

+ Core Mapping:	49550 49546 49548 49548 49548 49550 49546 49543 49543 49543 49546 49545 49545 49545 49546 49542 49542 49542 49550 49550 49544 49544 49544 49544 0 0 0 0 0 0 0 0 0 0 0 0 49540 49540 49540 49540 
+ Optimal point: 4 4 4 4 4 4 3 3 3 3 4 
+++++++++++++++++++++++++++++++++++++++++++++++++++++++++++
++++++++++++++++++++++++++++++++++++++++++++++++
 + TIMESTAMP: 0.495404
REINVADE (49549)
  + pid: 49549
  + min_cores: 1
  + max_cores: 512
  + scalability graph: 
1, 1.36329, 1.52423, 1.62017, 1.68565, 1.73398, 1.77154, 1.80182, 1.8269, 1.84812, 1.86637, 1.88229, 1.89634, 1.90885, 1.92009, 1.93026, 1.93952, 1.94799, 1.95579, 1.963, 1.96968, 1.9759, 1.98172, 1.98716, 1.99228, 1.9971, 2.00164, 2.00594, 2.01002, 2.01389, 2.01757, 2.02108, 2.02443, 2.02763, 2.03069, 2.03362, 2.03644, 2.03914, 2.04173, 2.04423, 
Number of clients: 11

+++++++++++++++++++++++++++++++++++++++++++++++++++++++++++
+ Client Mapping:
  > Client 49540 (4):	36 37 38 39 
  > Client 49549 (4):	24 25 26 27 
  > Client 49541 (0):	
  > Client 49547 (0):	
  > Client 49546 (4):	1 6 10 14 
  > Client 49544 (4):	20 21 22 23 
  > Client 49548 (3):	2 3 4 
  > Client 49543 (3):	7 8 9 
  > Client 49545 (3):	11 12 13 
  > Client 49542 (3):	15 16 17 
  > Client 49550 (4):	0 5 18 19 

+ Core Mapping:	49550 49546 49548 49548 49548 49550 49546 49543 49543 49543 49546 49545 49545 49545 49546 49542 49542 49542 49550 49550 49544 49544 49544 49544 49549 49549 49549 49549 0 0 0 0 0 0 0 0 49540 49540 49540 49540 
+ Optimal point: 4 4 4 4 4 4 3 3 3 3 4 
+++++++++++++++++++++++++++++++++++++++++++++++++++++++++++
++++++++++++++++++++++++++++++++++++++++++++++++
 + TIMESTAMP: 0.503147
REINVADE (49547)
  + pid: 49547
  + min_cores: 1
  + max_cores: 512
  + scalability graph: 
1, 1.36329, 1.52423, 1.62017, 1.68565, 1.73398, 1.77154, 1.80182, 1.8269, 1.84812, 1.86637, 1.88229, 1.89634, 1.90885, 1.92009, 1.93026, 1.93952, 1.94799, 1.95579, 1.963, 1.96968, 1.9759, 1.98172, 1.98716, 1.99228, 1.9971, 2.00164, 2.00594, 2.01002, 2.01389, 2.01757, 2.02108, 2.02443, 2.02763, 2.03069, 2.03362, 2.03644, 2.03914, 2.04173, 2.04423, 
Number of clients: 11

+++++++++++++++++++++++++++++++++++++++++++++++++++++++++++
+ Client Mapping:
  > Client 49540 (4):	36 37 38 39 
  > Client 49549 (4):	24 25 26 27 
  > Client 49541 (0):	
  > Client 49547 (4):	28 29 30 31 
  > Client 49546 (4):	1 6 10 14 
  > Client 49544 (4):	20 21 22 23 
  > Client 49548 (3):	2 3 4 
  > Client 49543 (3):	7 8 9 
  > Client 49545 (3):	11 12 13 
  > Client 49542 (3):	15 16 17 
  > Client 49550 (4):	0 5 18 19 

+ Core Mapping:	49550 49546 49548 49548 49548 49550 49546 49543 49543 49543 49546 49545 49545 49545 49546 49542 49542 49542 49550 49550 49544 49544 49544 49544 49549 49549 49549 49549 49547 49547 49547 49547 0 0 0 0 49540 49540 49540 49540 
+ Optimal point: 4 4 4 4 4 4 3 3 3 3 4 
+++++++++++++++++++++++++++++++++++++++++++++++++++++++++++
++++++++++++++++++++++++++++++++++++++++++++++++
 + TIMESTAMP: 0.508505
REINVADE (49541)
  + pid: 49541
  + min_cores: 1
  + max_cores: 512
  + scalability graph: 
1, 1.36329, 1.52423, 1.62017, 1.68565, 1.73398, 1.77154, 1.80182, 1.8269, 1.84812, 1.86637, 1.88229, 1.89634, 1.90885, 1.92009, 1.93026, 1.93952, 1.94799, 1.95579, 1.963, 1.96968, 1.9759, 1.98172, 1.98716, 1.99228, 1.9971, 2.00164, 2.00594, 2.01002, 2.01389, 2.01757, 2.02108, 2.02443, 2.02763, 2.03069, 2.03362, 2.03644, 2.03914, 2.04173, 2.04423, 
Number of clients: 11

+++++++++++++++++++++++++++++++++++++++++++++++++++++++++++
+ Client Mapping:
  > Client 49540 (4):	36 37 38 39 
  > Client 49549 (4):	24 25 26 27 
  > Client 49541 (4):	32 33 34 35 
  > Client 49547 (4):	28 29 30 31 
  > Client 49546 (4):	1 6 10 14 
  > Client 49544 (4):	20 21 22 23 
  > Client 49548 (3):	2 3 4 
  > Client 49543 (3):	7 8 9 
  > Client 49545 (3):	11 12 13 
  > Client 49542 (3):	15 16 17 
  > Client 49550 (4):	0 5 18 19 

+ Core Mapping:	49550 49546 49548 49548 49548 49550 49546 49543 49543 49543 49546 49545 49545 49545 49546 49542 49542 49542 49550 49550 49544 49544 49544 49544 49549 49549 49549 49549 49547 49547 49547 49547 49541 49541 49541 49541 49540 49540 49540 49540 
+ Optimal point: 4 4 4 4 4 4 3 3 3 3 4 
+++++++++++++++++++++++++++++++++++++++++++++++++++++++++++
CLIENT SHUTDOWN: client 49546
 + TIMESTAMP: 37.559
+++++++++++++++++++++++++++++++++++++++++++++++++++++++++++
+ Client Mapping:
  > Client 49540 (4):	36 37 38 39 
  > Client 49549 (4):	24 25 26 27 
  > Client 49541 (4):	32 33 34 35 
  > Client 49547 (4):	28 29 30 31 
  > Client 49546 (0):	
  > Client 49544 (4):	20 21 22 23 
  > Client 49548 (3):	2 3 4 
  > Client 49543 (3):	7 8 9 
  > Client 49545 (3):	11 12 13 
  > Client 49542 (3):	15 16 17 
  > Client 49550 (4):	0 5 18 19 

+ Core Mapping:	49550 0 49548 49548 49548 49550 0 49543 49543 49543 0 49545 49545 49545 0 49542 49542 49542 49550 49550 49544 49544 49544 49544 49549 49549 49549 49549 49547 49547 49547 49547 49541 49541 49541 49541 49540 49540 49540 49540 
+ Optimal point: 4 4 4 4 4 4 3 3 3 3 4 
+++++++++++++++++++++++++++++++++++++++++++++++++++++++++++
client (49546) shutdown hint: 437.984
sum_client_shutdown_hint: 437.984
sum_client_shutdown_hint_div_time: 0
++++++++++++++++++++++++++++++++++++++++++++++++
 + TIMESTAMP: 37.5602
REINVADE (49545)
  + pid: 49545
  + min_cores: 1
  + max_cores: 512
  + scalability graph: 
1, 1.36329, 1.52423, 1.62017, 1.68565, 1.73398, 1.77154, 1.80182, 1.8269, 1.84812, 1.86637, 1.88229, 1.89634, 1.90885, 1.92009, 1.93026, 1.93952, 1.94799, 1.95579, 1.963, 1.96968, 1.9759, 1.98172, 1.98716, 1.99228, 1.9971, 2.00164, 2.00594, 2.01002, 2.01389, 2.01757, 2.02108, 2.02443, 2.02763, 2.03069, 2.03362, 2.03644, 2.03914, 2.04173, 2.04423, 
Number of clients: 10

+++++++++++++++++++++++++++++++++++++++++++++++++++++++++++
+ Client Mapping:
  > Client 49540 (4):	36 37 38 39 
  > Client 49549 (4):	24 25 26 27 
  > Client 49541 (4):	32 33 34 35 
  > Client 49547 (4):	28 29 30 31 
  > Client 49544 (4):	20 21 22 23 
  > Client 49548 (3):	2 3 4 
  > Client 49543 (3):	7 8 9 
  > Client 49545 (4):	11 12 13 1 
  > Client 49542 (3):	15 16 17 
  > Client 49550 (4):	0 5 18 19 

+ Core Mapping:	49550 49545 49548 49548 49548 49550 0 49543 49543 49543 0 49545 49545 49545 0 49542 49542 49542 49550 49550 49544 49544 49544 49544 49549 49549 49549 49549 49547 49547 49547 49547 49541 49541 49541 49541 49540 49540 49540 49540 
+ Optimal point: 4 4 4 4 4 4 4 4 4 4 
+++++++++++++++++++++++++++++++++++++++++++++++++++++++++++
++++++++++++++++++++++++++++++++++++++++++++++++
 + TIMESTAMP: 37.5607
REINVADE (49548)
  + pid: 49548
  + min_cores: 1
  + max_cores: 512
  + scalability graph: 
1, 1.36329, 1.52423, 1.62017, 1.68565, 1.73398, 1.77154, 1.80182, 1.8269, 1.84812, 1.86637, 1.88229, 1.89634, 1.90885, 1.92009, 1.93026, 1.93952, 1.94799, 1.95579, 1.963, 1.96968, 1.9759, 1.98172, 1.98716, 1.99228, 1.9971, 2.00164, 2.00594, 2.01002, 2.01389, 2.01757, 2.02108, 2.02443, 2.02763, 2.03069, 2.03362, 2.03644, 2.03914, 2.04173, 2.04423, 
Number of clients: 10

+++++++++++++++++++++++++++++++++++++++++++++++++++++++++++
+ Client Mapping:
  > Client 49540 (4):	36 37 38 39 
  > Client 49549 (4):	24 25 26 27 
  > Client 49541 (4):	32 33 34 35 
  > Client 49547 (4):	28 29 30 31 
  > Client 49544 (4):	20 21 22 23 
  > Client 49548 (4):	2 3 4 6 
  > Client 49543 (3):	7 8 9 
  > Client 49545 (4):	11 12 13 1 
  > Client 49542 (3):	15 16 17 
  > Client 49550 (4):	0 5 18 19 

+ Core Mapping:	49550 49545 49548 49548 49548 49550 49548 49543 49543 49543 0 49545 49545 49545 0 49542 49542 49542 49550 49550 49544 49544 49544 49544 49549 49549 49549 49549 49547 49547 49547 49547 49541 49541 49541 49541 49540 49540 49540 49540 
+ Optimal point: 4 4 4 4 4 4 4 4 4 4 
+++++++++++++++++++++++++++++++++++++++++++++++++++++++++++
++++++++++++++++++++++++++++++++++++++++++++++++
 + TIMESTAMP: 37.5623
REINVADE (49543)
  + pid: 49543
  + min_cores: 1
  + max_cores: 512
  + scalability graph: 
1, 1.36329, 1.52423, 1.62017, 1.68565, 1.73398, 1.77154, 1.80182, 1.8269, 1.84812, 1.86637, 1.88229, 1.89634, 1.90885, 1.92009, 1.93026, 1.93952, 1.94799, 1.95579, 1.963, 1.96968, 1.9759, 1.98172, 1.98716, 1.99228, 1.9971, 2.00164, 2.00594, 2.01002, 2.01389, 2.01757, 2.02108, 2.02443, 2.02763, 2.03069, 2.03362, 2.03644, 2.03914, 2.04173, 2.04423, 
Number of clients: 10

+++++++++++++++++++++++++++++++++++++++++++++++++++++++++++
+ Client Mapping:
  > Client 49540 (4):	36 37 38 39 
  > Client 49549 (4):	24 25 26 27 
  > Client 49541 (4):	32 33 34 35 
  > Client 49547 (4):	28 29 30 31 
  > Client 49544 (4):	20 21 22 23 
  > Client 49548 (4):	2 3 4 6 
  > Client 49543 (4):	7 8 9 10 
  > Client 49545 (4):	11 12 13 1 
  > Client 49542 (3):	15 16 17 
  > Client 49550 (4):	0 5 18 19 

+ Core Mapping:	49550 49545 49548 49548 49548 49550 49548 49543 49543 49543 49543 49545 49545 49545 0 49542 49542 49542 49550 49550 49544 49544 49544 49544 49549 49549 49549 49549 49547 49547 49547 49547 49541 49541 49541 49541 49540 49540 49540 49540 
+ Optimal point: 4 4 4 4 4 4 4 4 4 4 
+++++++++++++++++++++++++++++++++++++++++++++++++++++++++++
++++++++++++++++++++++++++++++++++++++++++++++++
 + TIMESTAMP: 37.5682
REINVADE (49542)
  + pid: 49542
  + min_cores: 1
  + max_cores: 512
  + scalability graph: 
1, 1.36329, 1.52423, 1.62017, 1.68565, 1.73398, 1.77154, 1.80182, 1.8269, 1.84812, 1.86637, 1.88229, 1.89634, 1.90885, 1.92009, 1.93026, 1.93952, 1.94799, 1.95579, 1.963, 1.96968, 1.9759, 1.98172, 1.98716, 1.99228, 1.9971, 2.00164, 2.00594, 2.01002, 2.01389, 2.01757, 2.02108, 2.02443, 2.02763, 2.03069, 2.03362, 2.03644, 2.03914, 2.04173, 2.04423, 
Number of clients: 10

+++++++++++++++++++++++++++++++++++++++++++++++++++++++++++
+ Client Mapping:
  > Client 49540 (4):	36 37 38 39 
  > Client 49549 (4):	24 25 26 27 
  > Client 49541 (4):	32 33 34 35 
  > Client 49547 (4):	28 29 30 31 
  > Client 49544 (4):	20 21 22 23 
  > Client 49548 (4):	2 3 4 6 
  > Client 49543 (4):	7 8 9 10 
  > Client 49545 (4):	11 12 13 1 
  > Client 49542 (4):	15 16 17 14 
  > Client 49550 (4):	0 5 18 19 

+ Core Mapping:	49550 49545 49548 49548 49548 49550 49548 49543 49543 49543 49543 49545 49545 49545 49542 49542 49542 49542 49550 49550 49544 49544 49544 49544 49549 49549 49549 49549 49547 49547 49547 49547 49541 49541 49541 49541 49540 49540 49540 49540 
+ Optimal point: 4 4 4 4 4 4 4 4 4 4 
+++++++++++++++++++++++++++++++++++++++++++++++++++++++++++
CLIENT SHUTDOWN: client 49547
 + TIMESTAMP: 40.0202
+++++++++++++++++++++++++++++++++++++++++++++++++++++++++++
+ Client Mapping:
  > Client 49540 (4):	36 37 38 39 
  > Client 49549 (4):	24 25 26 27 
  > Client 49541 (4):	32 33 34 35 
  > Client 49547 (0):	
  > Client 49544 (4):	20 21 22 23 
  > Client 49548 (4):	2 3 4 6 
  > Client 49543 (4):	7 8 9 10 
  > Client 49545 (4):	11 12 13 1 
  > Client 49542 (4):	15 16 17 14 
  > Client 49550 (4):	0 5 18 19 

+ Core Mapping:	49550 49545 49548 49548 49548 49550 49548 49543 49543 49543 49543 49545 49545 49545 49542 49542 49542 49542 49550 49550 49544 49544 49544 49544 49549 49549 49549 49549 0 0 0 0 49541 49541 49541 49541 49540 49540 49540 49540 
+ Optimal point: 4 4 4 4 4 4 4 4 4 4 
+++++++++++++++++++++++++++++++++++++++++++++++++++++++++++
client (49547) shutdown hint: 437.984
sum_client_shutdown_hint: 875.968
sum_client_shutdown_hint_div_time: 0
++++++++++++++++++++++++++++++++++++++++++++++++
 + TIMESTAMP: 40.0207
REINVADE (49549)
  + pid: 49549
  + min_cores: 1
  + max_cores: 512
  + scalability graph: 
1, 1.36329, 1.52423, 1.62017, 1.68565, 1.73398, 1.77154, 1.80182, 1.8269, 1.84812, 1.86637, 1.88229, 1.89634, 1.90885, 1.92009, 1.93026, 1.93952, 1.94799, 1.95579, 1.963, 1.96968, 1.9759, 1.98172, 1.98716, 1.99228, 1.9971, 2.00164, 2.00594, 2.01002, 2.01389, 2.01757, 2.02108, 2.02443, 2.02763, 2.03069, 2.03362, 2.03644, 2.03914, 2.04173, 2.04423, 
Number of clients: 9

+++++++++++++++++++++++++++++++++++++++++++++++++++++++++++
+ Client Mapping:
  > Client 49540 (4):	36 37 38 39 
  > Client 49549 (5):	24 25 26 27 28 
  > Client 49541 (4):	32 33 34 35 
  > Client 49544 (4):	20 21 22 23 
  > Client 49548 (4):	2 3 4 6 
  > Client 49543 (4):	7 8 9 10 
  > Client 49545 (4):	11 12 13 1 
  > Client 49542 (4):	15 16 17 14 
  > Client 49550 (4):	0 5 18 19 

+ Core Mapping:	49550 49545 49548 49548 49548 49550 49548 49543 49543 49543 49543 49545 49545 49545 49542 49542 49542 49542 49550 49550 49544 49544 49544 49544 49549 49549 49549 49549 49549 0 0 0 49541 49541 49541 49541 49540 49540 49540 49540 
+ Optimal point: 5 5 5 5 4 4 4 4 4 
+++++++++++++++++++++++++++++++++++++++++++++++++++++++++++
++++++++++++++++++++++++++++++++++++++++++++++++
 + TIMESTAMP: 40.0209
REINVADE (49540)
  + pid: 49540
  + min_cores: 1
  + max_cores: 512
  + scalability graph: 
1, 1.36329, 1.52423, 1.62017, 1.68565, 1.73398, 1.77154, 1.80182, 1.8269, 1.84812, 1.86637, 1.88229, 1.89634, 1.90885, 1.92009, 1.93026, 1.93952, 1.94799, 1.95579, 1.963, 1.96968, 1.9759, 1.98172, 1.98716, 1.99228, 1.9971, 2.00164, 2.00594, 2.01002, 2.01389, 2.01757, 2.02108, 2.02443, 2.02763, 2.03069, 2.03362, 2.03644, 2.03914, 2.04173, 2.04423, 
Number of clients: 9

+++++++++++++++++++++++++++++++++++++++++++++++++++++++++++
+ Client Mapping:
  > Client 49540 (5):	36 37 38 39 29 
  > Client 49549 (5):	24 25 26 27 28 
  > Client 49541 (4):	32 33 34 35 
  > Client 49544 (4):	20 21 22 23 
  > Client 49548 (4):	2 3 4 6 
  > Client 49543 (4):	7 8 9 10 
  > Client 49545 (4):	11 12 13 1 
  > Client 49542 (4):	15 16 17 14 
  > Client 49550 (4):	0 5 18 19 

+ Core Mapping:	49550 49545 49548 49548 49548 49550 49548 49543 49543 49543 49543 49545 49545 49545 49542 49542 49542 49542 49550 49550 49544 49544 49544 49544 49549 49549 49549 49549 49549 49540 0 0 49541 49541 49541 49541 49540 49540 49540 49540 
+ Optimal point: 5 5 5 5 4 4 4 4 4 
+++++++++++++++++++++++++++++++++++++++++++++++++++++++++++
++++++++++++++++++++++++++++++++++++++++++++++++
 + TIMESTAMP: 40.0212
REINVADE (49544)
  + pid: 49544
  + min_cores: 1
  + max_cores: 512
  + scalability graph: 
1, 1.36329, 1.52423, 1.62017, 1.68565, 1.73398, 1.77154, 1.80182, 1.8269, 1.84812, 1.86637, 1.88229, 1.89634, 1.90885, 1.92009, 1.93026, 1.93952, 1.94799, 1.95579, 1.963, 1.96968, 1.9759, 1.98172, 1.98716, 1.99228, 1.9971, 2.00164, 2.00594, 2.01002, 2.01389, 2.01757, 2.02108, 2.02443, 2.02763, 2.03069, 2.03362, 2.03644, 2.03914, 2.04173, 2.04423, 
Number of clients: 9

+++++++++++++++++++++++++++++++++++++++++++++++++++++++++++
+ Client Mapping:
  > Client 49540 (5):	36 37 38 39 29 
  > Client 49549 (5):	24 25 26 27 28 
  > Client 49541 (4):	32 33 34 35 
  > Client 49544 (5):	20 21 22 23 30 
  > Client 49548 (4):	2 3 4 6 
  > Client 49543 (4):	7 8 9 10 
  > Client 49545 (4):	11 12 13 1 
  > Client 49542 (4):	15 16 17 14 
  > Client 49550 (4):	0 5 18 19 

+ Core Mapping:	49550 49545 49548 49548 49548 49550 49548 49543 49543 49543 49543 49545 49545 49545 49542 49542 49542 49542 49550 49550 49544 49544 49544 49544 49549 49549 49549 49549 49549 49540 49544 0 49541 49541 49541 49541 49540 49540 49540 49540 
+ Optimal point: 5 5 5 5 4 4 4 4 4 
+++++++++++++++++++++++++++++++++++++++++++++++++++++++++++
++++++++++++++++++++++++++++++++++++++++++++++++
 + TIMESTAMP: 40.0214
REINVADE (49541)
  + pid: 49541
  + min_cores: 1
  + max_cores: 512
  + scalability graph: 
1, 1.36329, 1.52423, 1.62017, 1.68565, 1.73398, 1.77154, 1.80182, 1.8269, 1.84812, 1.86637, 1.88229, 1.89634, 1.90885, 1.92009, 1.93026, 1.93952, 1.94799, 1.95579, 1.963, 1.96968, 1.9759, 1.98172, 1.98716, 1.99228, 1.9971, 2.00164, 2.00594, 2.01002, 2.01389, 2.01757, 2.02108, 2.02443, 2.02763, 2.03069, 2.03362, 2.03644, 2.03914, 2.04173, 2.04423, 
Number of clients: 9

+++++++++++++++++++++++++++++++++++++++++++++++++++++++++++
+ Client Mapping:
  > Client 49540 (5):	36 37 38 39 29 
  > Client 49549 (5):	24 25 26 27 28 
  > Client 49541 (5):	32 33 34 35 31 
  > Client 49544 (5):	20 21 22 23 30 
  > Client 49548 (4):	2 3 4 6 
  > Client 49543 (4):	7 8 9 10 
  > Client 49545 (4):	11 12 13 1 
  > Client 49542 (4):	15 16 17 14 
  > Client 49550 (4):	0 5 18 19 

+ Core Mapping:	49550 49545 49548 49548 49548 49550 49548 49543 49543 49543 49543 49545 49545 49545 49542 49542 49542 49542 49550 49550 49544 49544 49544 49544 49549 49549 49549 49549 49549 49540 49544 49541 49541 49541 49541 49541 49540 49540 49540 49540 
+ Optimal point: 5 5 5 5 4 4 4 4 4 
+++++++++++++++++++++++++++++++++++++++++++++++++++++++++++
CLIENT SHUTDOWN: client 49550
 + TIMESTAMP: 40.1486
+++++++++++++++++++++++++++++++++++++++++++++++++++++++++++
+ Client Mapping:
  > Client 49540 (5):	36 37 38 39 29 
  > Client 49549 (5):	24 25 26 27 28 
  > Client 49541 (5):	32 33 34 35 31 
  > Client 49544 (5):	20 21 22 23 30 
  > Client 49548 (4):	2 3 4 6 
  > Client 49543 (4):	7 8 9 10 
  > Client 49545 (4):	11 12 13 1 
  > Client 49542 (4):	15 16 17 14 
  > Client 49550 (0):	

+ Core Mapping:	0 49545 49548 49548 49548 0 49548 49543 49543 49543 49543 49545 49545 49545 49542 49542 49542 49542 0 0 49544 49544 49544 49544 49549 49549 49549 49549 49549 49540 49544 49541 49541 49541 49541 49541 49540 49540 49540 49540 
+ Optimal point: 5 5 5 5 4 4 4 4 4 
+++++++++++++++++++++++++++++++++++++++++++++++++++++++++++
client (49550) shutdown hint: 437.984
sum_client_shutdown_hint: 1313.95
sum_client_shutdown_hint_div_time: 0
++++++++++++++++++++++++++++++++++++++++++++++++
 + TIMESTAMP: 40.1504
REINVADE (49543)
  + pid: 49543
  + min_cores: 1
  + max_cores: 512
  + scalability graph: 
1, 1.36329, 1.52423, 1.62017, 1.68565, 1.73398, 1.77154, 1.80182, 1.8269, 1.84812, 1.86637, 1.88229, 1.89634, 1.90885, 1.92009, 1.93026, 1.93952, 1.94799, 1.95579, 1.963, 1.96968, 1.9759, 1.98172, 1.98716, 1.99228, 1.9971, 2.00164, 2.00594, 2.01002, 2.01389, 2.01757, 2.02108, 2.02443, 2.02763, 2.03069, 2.03362, 2.03644, 2.03914, 2.04173, 2.04423, 
Number of clients: 8

+++++++++++++++++++++++++++++++++++++++++++++++++++++++++++
+ Client Mapping:
  > Client 49540 (5):	36 37 38 39 29 
  > Client 49549 (5):	24 25 26 27 28 
  > Client 49541 (5):	32 33 34 35 31 
  > Client 49544 (5):	20 21 22 23 30 
  > Client 49548 (4):	2 3 4 6 
  > Client 49543 (5):	7 8 9 10 0 
  > Client 49545 (4):	11 12 13 1 
  > Client 49542 (4):	15 16 17 14 

+ Core Mapping:	49543 49545 49548 49548 49548 0 49548 49543 49543 49543 49543 49545 49545 49545 49542 49542 49542 49542 0 0 49544 49544 49544 49544 49549 49549 49549 49549 49549 49540 49544 49541 49541 49541 49541 49541 49540 49540 49540 49540 
+ Optimal point: 5 5 5 5 5 5 5 5 
+++++++++++++++++++++++++++++++++++++++++++++++++++++++++++
++++++++++++++++++++++++++++++++++++++++++++++++
 + TIMESTAMP: 40.1515
REINVADE (49542)
  + pid: 49542
  + min_cores: 1
  + max_cores: 512
  + scalability graph: 
1, 1.36329, 1.52423, 1.62017, 1.68565, 1.73398, 1.77154, 1.80182, 1.8269, 1.84812, 1.86637, 1.88229, 1.89634, 1.90885, 1.92009, 1.93026, 1.93952, 1.94799, 1.95579, 1.963, 1.96968, 1.9759, 1.98172, 1.98716, 1.99228, 1.9971, 2.00164, 2.00594, 2.01002, 2.01389, 2.01757, 2.02108, 2.02443, 2.02763, 2.03069, 2.03362, 2.03644, 2.03914, 2.04173, 2.04423, 
Number of clients: 8

+++++++++++++++++++++++++++++++++++++++++++++++++++++++++++
+ Client Mapping:
  > Client 49540 (5):	36 37 38 39 29 
  > Client 49549 (5):	24 25 26 27 28 
  > Client 49541 (5):	32 33 34 35 31 
  > Client 49544 (5):	20 21 22 23 30 
  > Client 49548 (4):	2 3 4 6 
  > Client 49543 (5):	7 8 9 10 0 
  > Client 49545 (4):	11 12 13 1 
  > Client 49542 (5):	15 16 17 14 5 

+ Core Mapping:	49543 49545 49548 49548 49548 49542 49548 49543 49543 49543 49543 49545 49545 49545 49542 49542 49542 49542 0 0 49544 49544 49544 49544 49549 49549 49549 49549 49549 49540 49544 49541 49541 49541 49541 49541 49540 49540 49540 49540 
+ Optimal point: 5 5 5 5 5 5 5 5 
+++++++++++++++++++++++++++++++++++++++++++++++++++++++++++
++++++++++++++++++++++++++++++++++++++++++++++++
 + TIMESTAMP: 40.1538
REINVADE (49548)
  + pid: 49548
  + min_cores: 1
  + max_cores: 512
  + scalability graph: 
1, 1.36329, 1.52423, 1.62017, 1.68565, 1.73398, 1.77154, 1.80182, 1.8269, 1.84812, 1.86637, 1.88229, 1.89634, 1.90885, 1.92009, 1.93026, 1.93952, 1.94799, 1.95579, 1.963, 1.96968, 1.9759, 1.98172, 1.98716, 1.99228, 1.9971, 2.00164, 2.00594, 2.01002, 2.01389, 2.01757, 2.02108, 2.02443, 2.02763, 2.03069, 2.03362, 2.03644, 2.03914, 2.04173, 2.04423, 
Number of clients: 8

+++++++++++++++++++++++++++++++++++++++++++++++++++++++++++
+ Client Mapping:
  > Client 49540 (5):	36 37 38 39 29 
  > Client 49549 (5):	24 25 26 27 28 
  > Client 49541 (5):	32 33 34 35 31 
  > Client 49544 (5):	20 21 22 23 30 
  > Client 49548 (5):	2 3 4 6 18 
  > Client 49543 (5):	7 8 9 10 0 
  > Client 49545 (4):	11 12 13 1 
  > Client 49542 (5):	15 16 17 14 5 

+ Core Mapping:	49543 49545 49548 49548 49548 49542 49548 49543 49543 49543 49543 49545 49545 49545 49542 49542 49542 49542 49548 0 49544 49544 49544 49544 49549 49549 49549 49549 49549 49540 49544 49541 49541 49541 49541 49541 49540 49540 49540 49540 
+ Optimal point: 5 5 5 5 5 5 5 5 
+++++++++++++++++++++++++++++++++++++++++++++++++++++++++++
++++++++++++++++++++++++++++++++++++++++++++++++
 + TIMESTAMP: 40.1558
REINVADE (49545)
  + pid: 49545
  + min_cores: 1
  + max_cores: 512
  + scalability graph: 
1, 1.36329, 1.52423, 1.62017, 1.68565, 1.73398, 1.77154, 1.80182, 1.8269, 1.84812, 1.86637, 1.88229, 1.89634, 1.90885, 1.92009, 1.93026, 1.93952, 1.94799, 1.95579, 1.963, 1.96968, 1.9759, 1.98172, 1.98716, 1.99228, 1.9971, 2.00164, 2.00594, 2.01002, 2.01389, 2.01757, 2.02108, 2.02443, 2.02763, 2.03069, 2.03362, 2.03644, 2.03914, 2.04173, 2.04423, 
Number of clients: 8

+++++++++++++++++++++++++++++++++++++++++++++++++++++++++++
+ Client Mapping:
  > Client 49540 (5):	36 37 38 39 29 
  > Client 49549 (5):	24 25 26 27 28 
  > Client 49541 (5):	32 33 34 35 31 
  > Client 49544 (5):	20 21 22 23 30 
  > Client 49548 (5):	2 3 4 6 18 
  > Client 49543 (5):	7 8 9 10 0 
  > Client 49545 (5):	11 12 13 1 19 
  > Client 49542 (5):	15 16 17 14 5 

+ Core Mapping:	49543 49545 49548 49548 49548 49542 49548 49543 49543 49543 49543 49545 49545 49545 49542 49542 49542 49542 49548 49545 49544 49544 49544 49544 49549 49549 49549 49549 49549 49540 49544 49541 49541 49541 49541 49541 49540 49540 49540 49540 
+ Optimal point: 5 5 5 5 5 5 5 5 
+++++++++++++++++++++++++++++++++++++++++++++++++++++++++++
CLIENT SHUTDOWN: client 49540
 + TIMESTAMP: 40.1662
+++++++++++++++++++++++++++++++++++++++++++++++++++++++++++
+ Client Mapping:
  > Client 49540 (0):	
  > Client 49549 (5):	24 25 26 27 28 
  > Client 49541 (5):	32 33 34 35 31 
  > Client 49544 (5):	20 21 22 23 30 
  > Client 49548 (5):	2 3 4 6 18 
  > Client 49543 (5):	7 8 9 10 0 
  > Client 49545 (5):	11 12 13 1 19 
  > Client 49542 (5):	15 16 17 14 5 

+ Core Mapping:	49543 49545 49548 49548 49548 49542 49548 49543 49543 49543 49543 49545 49545 49545 49542 49542 49542 49542 49548 49545 49544 49544 49544 49544 49549 49549 49549 49549 49549 0 49544 49541 49541 49541 49541 49541 0 0 0 0 
+ Optimal point: 5 5 5 5 5 5 5 5 
+++++++++++++++++++++++++++++++++++++++++++++++++++++++++++
client (49540) shutdown hint: 437.984
sum_client_shutdown_hint: 1751.94
sum_client_shutdown_hint_div_time: 0
++++++++++++++++++++++++++++++++++++++++++++++++
 + TIMESTAMP: 40.1664
REINVADE (49549)
  + pid: 49549
  + min_cores: 1
  + max_cores: 512
  + scalability graph: 
1, 1.36329, 1.52423, 1.62017, 1.68565, 1.73398, 1.77154, 1.80182, 1.8269, 1.84812, 1.86637, 1.88229, 1.89634, 1.90885, 1.92009, 1.93026, 1.93952, 1.94799, 1.95579, 1.963, 1.96968, 1.9759, 1.98172, 1.98716, 1.99228, 1.9971, 2.00164, 2.00594, 2.01002, 2.01389, 2.01757, 2.02108, 2.02443, 2.02763, 2.03069, 2.03362, 2.03644, 2.03914, 2.04173, 2.04423, 
Number of clients: 7

+++++++++++++++++++++++++++++++++++++++++++++++++++++++++++
+ Client Mapping:
  > Client 49549 (6):	24 25 26 27 28 29 
  > Client 49541 (5):	32 33 34 35 31 
  > Client 49544 (5):	20 21 22 23 30 
  > Client 49548 (5):	2 3 4 6 18 
  > Client 49543 (5):	7 8 9 10 0 
  > Client 49545 (5):	11 12 13 1 19 
  > Client 49542 (5):	15 16 17 14 5 

+ Core Mapping:	49543 49545 49548 49548 49548 49542 49548 49543 49543 49543 49543 49545 49545 49545 49542 49542 49542 49542 49548 49545 49544 49544 49544 49544 49549 49549 49549 49549 49549 49549 49544 49541 49541 49541 49541 49541 0 0 0 0 
+ Optimal point: 6 6 6 6 6 5 5 
+++++++++++++++++++++++++++++++++++++++++++++++++++++++++++
++++++++++++++++++++++++++++++++++++++++++++++++
 + TIMESTAMP: 40.1669
REINVADE (49541)
  + pid: 49541
  + min_cores: 1
  + max_cores: 512
  + scalability graph: 
1, 1.36329, 1.52423, 1.62017, 1.68565, 1.73398, 1.77154, 1.80182, 1.8269, 1.84812, 1.86637, 1.88229, 1.89634, 1.90885, 1.92009, 1.93026, 1.93952, 1.94799, 1.95579, 1.963, 1.96968, 1.9759, 1.98172, 1.98716, 1.99228, 1.9971, 2.00164, 2.00594, 2.01002, 2.01389, 2.01757, 2.02108, 2.02443, 2.02763, 2.03069, 2.03362, 2.03644, 2.03914, 2.04173, 2.04423, 
Number of clients: 7

+++++++++++++++++++++++++++++++++++++++++++++++++++++++++++
+ Client Mapping:
  > Client 49549 (6):	24 25 26 27 28 29 
  > Client 49541 (6):	32 33 34 35 31 36 
  > Client 49544 (5):	20 21 22 23 30 
  > Client 49548 (5):	2 3 4 6 18 
  > Client 49543 (5):	7 8 9 10 0 
  > Client 49545 (5):	11 12 13 1 19 
  > Client 49542 (5):	15 16 17 14 5 

+ Core Mapping:	49543 49545 49548 49548 49548 49542 49548 49543 49543 49543 49543 49545 49545 49545 49542 49542 49542 49542 49548 49545 49544 49544 49544 49544 49549 49549 49549 49549 49549 49549 49544 49541 49541 49541 49541 49541 49541 0 0 0 
+ Optimal point: 6 6 6 6 6 5 5 
+++++++++++++++++++++++++++++++++++++++++++++++++++++++++++
++++++++++++++++++++++++++++++++++++++++++++++++
 + TIMESTAMP: 40.1673
REINVADE (49544)
  + pid: 49544
  + min_cores: 1
  + max_cores: 512
  + scalability graph: 
1, 1.36329, 1.52423, 1.62017, 1.68565, 1.73398, 1.77154, 1.80182, 1.8269, 1.84812, 1.86637, 1.88229, 1.89634, 1.90885, 1.92009, 1.93026, 1.93952, 1.94799, 1.95579, 1.963, 1.96968, 1.9759, 1.98172, 1.98716, 1.99228, 1.9971, 2.00164, 2.00594, 2.01002, 2.01389, 2.01757, 2.02108, 2.02443, 2.02763, 2.03069, 2.03362, 2.03644, 2.03914, 2.04173, 2.04423, 
Number of clients: 7

+++++++++++++++++++++++++++++++++++++++++++++++++++++++++++
+ Client Mapping:
  > Client 49549 (6):	24 25 26 27 28 29 
  > Client 49541 (6):	32 33 34 35 31 36 
  > Client 49544 (6):	20 21 22 23 30 37 
  > Client 49548 (5):	2 3 4 6 18 
  > Client 49543 (5):	7 8 9 10 0 
  > Client 49545 (5):	11 12 13 1 19 
  > Client 49542 (5):	15 16 17 14 5 

+ Core Mapping:	49543 49545 49548 49548 49548 49542 49548 49543 49543 49543 49543 49545 49545 49545 49542 49542 49542 49542 49548 49545 49544 49544 49544 49544 49549 49549 49549 49549 49549 49549 49544 49541 49541 49541 49541 49541 49541 49544 0 0 
+ Optimal point: 6 6 6 6 6 5 5 
+++++++++++++++++++++++++++++++++++++++++++++++++++++++++++
++++++++++++++++++++++++++++++++++++++++++++++++
 + TIMESTAMP: 40.1675
REINVADE (49548)
  + pid: 49548
  + min_cores: 1
  + max_cores: 512
  + scalability graph: 
1, 1.36329, 1.52423, 1.62017, 1.68565, 1.73398, 1.77154, 1.80182, 1.8269, 1.84812, 1.86637, 1.88229, 1.89634, 1.90885, 1.92009, 1.93026, 1.93952, 1.94799, 1.95579, 1.963, 1.96968, 1.9759, 1.98172, 1.98716, 1.99228, 1.9971, 2.00164, 2.00594, 2.01002, 2.01389, 2.01757, 2.02108, 2.02443, 2.02763, 2.03069, 2.03362, 2.03644, 2.03914, 2.04173, 2.04423, 
Number of clients: 7

+++++++++++++++++++++++++++++++++++++++++++++++++++++++++++
+ Client Mapping:
  > Client 49549 (6):	24 25 26 27 28 29 
  > Client 49541 (6):	32 33 34 35 31 36 
  > Client 49544 (6):	20 21 22 23 30 37 
  > Client 49548 (6):	2 3 4 6 18 38 
  > Client 49543 (5):	7 8 9 10 0 
  > Client 49545 (5):	11 12 13 1 19 
  > Client 49542 (5):	15 16 17 14 5 

+ Core Mapping:	49543 49545 49548 49548 49548 49542 49548 49543 49543 49543 49543 49545 49545 49545 49542 49542 49542 49542 49548 49545 49544 49544 49544 49544 49549 49549 49549 49549 49549 49549 49544 49541 49541 49541 49541 49541 49541 49544 49548 0 
+ Optimal point: 6 6 6 6 6 5 5 
+++++++++++++++++++++++++++++++++++++++++++++++++++++++++++
++++++++++++++++++++++++++++++++++++++++++++++++
 + TIMESTAMP: 40.1723
REINVADE (49543)
  + pid: 49543
  + min_cores: 1
  + max_cores: 512
  + scalability graph: 
1, 1.36329, 1.52423, 1.62017, 1.68565, 1.73398, 1.77154, 1.80182, 1.8269, 1.84812, 1.86637, 1.88229, 1.89634, 1.90885, 1.92009, 1.93026, 1.93952, 1.94799, 1.95579, 1.963, 1.96968, 1.9759, 1.98172, 1.98716, 1.99228, 1.9971, 2.00164, 2.00594, 2.01002, 2.01389, 2.01757, 2.02108, 2.02443, 2.02763, 2.03069, 2.03362, 2.03644, 2.03914, 2.04173, 2.04423, 
Number of clients: 7

+++++++++++++++++++++++++++++++++++++++++++++++++++++++++++
+ Client Mapping:
  > Client 49549 (6):	24 25 26 27 28 29 
  > Client 49541 (6):	32 33 34 35 31 36 
  > Client 49544 (6):	20 21 22 23 30 37 
  > Client 49548 (6):	2 3 4 6 18 38 
  > Client 49543 (6):	7 8 9 10 0 39 
  > Client 49545 (5):	11 12 13 1 19 
  > Client 49542 (5):	15 16 17 14 5 

+ Core Mapping:	49543 49545 49548 49548 49548 49542 49548 49543 49543 49543 49543 49545 49545 49545 49542 49542 49542 49542 49548 49545 49544 49544 49544 49544 49549 49549 49549 49549 49549 49549 49544 49541 49541 49541 49541 49541 49541 49544 49548 49543 
+ Optimal point: 6 6 6 6 6 5 5 
+++++++++++++++++++++++++++++++++++++++++++++++++++++++++++
CLIENT SHUTDOWN: client 49549
 + TIMESTAMP: 40.2817
+++++++++++++++++++++++++++++++++++++++++++++++++++++++++++
+ Client Mapping:
  > Client 49549 (0):	
  > Client 49541 (6):	32 33 34 35 31 36 
  > Client 49544 (6):	20 21 22 23 30 37 
  > Client 49548 (6):	2 3 4 6 18 38 
  > Client 49543 (6):	7 8 9 10 0 39 
  > Client 49545 (5):	11 12 13 1 19 
  > Client 49542 (5):	15 16 17 14 5 

+ Core Mapping:	49543 49545 49548 49548 49548 49542 49548 49543 49543 49543 49543 49545 49545 49545 49542 49542 49542 49542 49548 49545 49544 49544 49544 49544 0 0 0 0 0 0 49544 49541 49541 49541 49541 49541 49541 49544 49548 49543 
+ Optimal point: 6 6 6 6 6 5 5 
+++++++++++++++++++++++++++++++++++++++++++++++++++++++++++
client (49549) shutdown hint: 437.984
sum_client_shutdown_hint: 2189.92
sum_client_shutdown_hint_div_time: 0
++++++++++++++++++++++++++++++++++++++++++++++++
 + TIMESTAMP: 40.2822
REINVADE (49544)
  + pid: 49544
  + min_cores: 1
  + max_cores: 512
  + scalability graph: 
1, 1.36329, 1.52423, 1.62017, 1.68565, 1.73398, 1.77154, 1.80182, 1.8269, 1.84812, 1.86637, 1.88229, 1.89634, 1.90885, 1.92009, 1.93026, 1.93952, 1.94799, 1.95579, 1.963, 1.96968, 1.9759, 1.98172, 1.98716, 1.99228, 1.9971, 2.00164, 2.00594, 2.01002, 2.01389, 2.01757, 2.02108, 2.02443, 2.02763, 2.03069, 2.03362, 2.03644, 2.03914, 2.04173, 2.04423, 
Number of clients: 6

+++++++++++++++++++++++++++++++++++++++++++++++++++++++++++
+ Client Mapping:
  > Client 49541 (6):	32 33 34 35 31 36 
  > Client 49544 (7):	20 21 22 23 30 37 24 
  > Client 49548 (6):	2 3 4 6 18 38 
  > Client 49543 (6):	7 8 9 10 0 39 
  > Client 49545 (5):	11 12 13 1 19 
  > Client 49542 (5):	15 16 17 14 5 

+ Core Mapping:	49543 49545 49548 49548 49548 49542 49548 49543 49543 49543 49543 49545 49545 49545 49542 49542 49542 49542 49548 49545 49544 49544 49544 49544 49544 0 0 0 0 0 49544 49541 49541 49541 49541 49541 49541 49544 49548 49543 
+ Optimal point: 7 7 7 7 6 6 
+++++++++++++++++++++++++++++++++++++++++++++++++++++++++++
++++++++++++++++++++++++++++++++++++++++++++++++
 + TIMESTAMP: 40.2824
REINVADE (49543)
  + pid: 49543
  + min_cores: 1
  + max_cores: 512
  + scalability graph: 
1, 1.36329, 1.52423, 1.62017, 1.68565, 1.73398, 1.77154, 1.80182, 1.8269, 1.84812, 1.86637, 1.88229, 1.89634, 1.90885, 1.92009, 1.93026, 1.93952, 1.94799, 1.95579, 1.963, 1.96968, 1.9759, 1.98172, 1.98716, 1.99228, 1.9971, 2.00164, 2.00594, 2.01002, 2.01389, 2.01757, 2.02108, 2.02443, 2.02763, 2.03069, 2.03362, 2.03644, 2.03914, 2.04173, 2.04423, 
Number of clients: 6

+++++++++++++++++++++++++++++++++++++++++++++++++++++++++++
+ Client Mapping:
  > Client 49541 (6):	32 33 34 35 31 36 
  > Client 49544 (7):	20 21 22 23 30 37 24 
  > Client 49548 (6):	2 3 4 6 18 38 
  > Client 49543 (7):	7 8 9 10 0 39 25 
  > Client 49545 (5):	11 12 13 1 19 
  > Client 49542 (5):	15 16 17 14 5 

+ Core Mapping:	49543 49545 49548 49548 49548 49542 49548 49543 49543 49543 49543 49545 49545 49545 49542 49542 49542 49542 49548 49545 49544 49544 49544 49544 49544 49543 0 0 0 0 49544 49541 49541 49541 49541 49541 49541 49544 49548 49543 
+ Optimal point: 7 7 7 7 6 6 
+++++++++++++++++++++++++++++++++++++++++++++++++++++++++++
++++++++++++++++++++++++++++++++++++++++++++++++
 + TIMESTAMP: 40.2825
REINVADE (49541)
  + pid: 49541
  + min_cores: 1
  + max_cores: 512
  + scalability graph: 
1, 1.36329, 1.52423, 1.62017, 1.68565, 1.73398, 1.77154, 1.80182, 1.8269, 1.84812, 1.86637, 1.88229, 1.89634, 1.90885, 1.92009, 1.93026, 1.93952, 1.94799, 1.95579, 1.963, 1.96968, 1.9759, 1.98172, 1.98716, 1.99228, 1.9971, 2.00164, 2.00594, 2.01002, 2.01389, 2.01757, 2.02108, 2.02443, 2.02763, 2.03069, 2.03362, 2.03644, 2.03914, 2.04173, 2.04423, 
Number of clients: 6

+++++++++++++++++++++++++++++++++++++++++++++++++++++++++++
+ Client Mapping:
  > Client 49541 (7):	32 33 34 35 31 36 26 
  > Client 49544 (7):	20 21 22 23 30 37 24 
  > Client 49548 (6):	2 3 4 6 18 38 
  > Client 49543 (7):	7 8 9 10 0 39 25 
  > Client 49545 (5):	11 12 13 1 19 
  > Client 49542 (5):	15 16 17 14 5 

+ Core Mapping:	49543 49545 49548 49548 49548 49542 49548 49543 49543 49543 49543 49545 49545 49545 49542 49542 49542 49542 49548 49545 49544 49544 49544 49544 49544 49543 49541 0 0 0 49544 49541 49541 49541 49541 49541 49541 49544 49548 49543 
+ Optimal point: 7 7 7 7 6 6 
+++++++++++++++++++++++++++++++++++++++++++++++++++++++++++
++++++++++++++++++++++++++++++++++++++++++++++++
 + TIMESTAMP: 40.2828
REINVADE (49545)
  + pid: 49545
  + min_cores: 1
  + max_cores: 512
  + scalability graph: 
1, 1.36329, 1.52423, 1.62017, 1.68565, 1.73398, 1.77154, 1.80182, 1.8269, 1.84812, 1.86637, 1.88229, 1.89634, 1.90885, 1.92009, 1.93026, 1.93952, 1.94799, 1.95579, 1.963, 1.96968, 1.9759, 1.98172, 1.98716, 1.99228, 1.9971, 2.00164, 2.00594, 2.01002, 2.01389, 2.01757, 2.02108, 2.02443, 2.02763, 2.03069, 2.03362, 2.03644, 2.03914, 2.04173, 2.04423, 
Number of clients: 6

+++++++++++++++++++++++++++++++++++++++++++++++++++++++++++
+ Client Mapping:
  > Client 49541 (7):	32 33 34 35 31 36 26 
  > Client 49544 (7):	20 21 22 23 30 37 24 
  > Client 49548 (6):	2 3 4 6 18 38 
  > Client 49543 (7):	7 8 9 10 0 39 25 
  > Client 49545 (6):	11 12 13 1 19 27 
  > Client 49542 (5):	15 16 17 14 5 

+ Core Mapping:	49543 49545 49548 49548 49548 49542 49548 49543 49543 49543 49543 49545 49545 49545 49542 49542 49542 49542 49548 49545 49544 49544 49544 49544 49544 49543 49541 49545 0 0 49544 49541 49541 49541 49541 49541 49541 49544 49548 49543 
+ Optimal point: 7 7 7 7 6 6 
+++++++++++++++++++++++++++++++++++++++++++++++++++++++++++
++++++++++++++++++++++++++++++++++++++++++++++++
 + TIMESTAMP: 40.2836
REINVADE (49542)
  + pid: 49542
  + min_cores: 1
  + max_cores: 512
  + scalability graph: 
1, 1.36329, 1.52423, 1.62017, 1.68565, 1.73398, 1.77154, 1.80182, 1.8269, 1.84812, 1.86637, 1.88229, 1.89634, 1.90885, 1.92009, 1.93026, 1.93952, 1.94799, 1.95579, 1.963, 1.96968, 1.9759, 1.98172, 1.98716, 1.99228, 1.9971, 2.00164, 2.00594, 2.01002, 2.01389, 2.01757, 2.02108, 2.02443, 2.02763, 2.03069, 2.03362, 2.03644, 2.03914, 2.04173, 2.04423, 
Number of clients: 6

+++++++++++++++++++++++++++++++++++++++++++++++++++++++++++
+ Client Mapping:
  > Client 49541 (7):	32 33 34 35 31 36 26 
  > Client 49544 (7):	20 21 22 23 30 37 24 
  > Client 49548 (6):	2 3 4 6 18 38 
  > Client 49543 (7):	7 8 9 10 0 39 25 
  > Client 49545 (6):	11 12 13 1 19 27 
  > Client 49542 (6):	15 16 17 14 5 28 

+ Core Mapping:	49543 49545 49548 49548 49548 49542 49548 49543 49543 49543 49543 49545 49545 49545 49542 49542 49542 49542 49548 49545 49544 49544 49544 49544 49544 49543 49541 49545 49542 0 49544 49541 49541 49541 49541 49541 49541 49544 49548 49543 
+ Optimal point: 7 7 7 7 6 6 
+++++++++++++++++++++++++++++++++++++++++++++++++++++++++++
++++++++++++++++++++++++++++++++++++++++++++++++
 + TIMESTAMP: 40.2847
REINVADE (49548)
  + pid: 49548
  + min_cores: 1
  + max_cores: 512
  + scalability graph: 
1, 1.36329, 1.52423, 1.62017, 1.68565, 1.73398, 1.77154, 1.80182, 1.8269, 1.84812, 1.86637, 1.88229, 1.89634, 1.90885, 1.92009, 1.93026, 1.93952, 1.94799, 1.95579, 1.963, 1.96968, 1.9759, 1.98172, 1.98716, 1.99228, 1.9971, 2.00164, 2.00594, 2.01002, 2.01389, 2.01757, 2.02108, 2.02443, 2.02763, 2.03069, 2.03362, 2.03644, 2.03914, 2.04173, 2.04423, 
Number of clients: 6

+++++++++++++++++++++++++++++++++++++++++++++++++++++++++++
+ Client Mapping:
  > Client 49541 (7):	32 33 34 35 31 36 26 
  > Client 49544 (7):	20 21 22 23 30 37 24 
  > Client 49548 (7):	2 3 4 6 18 38 29 
  > Client 49543 (7):	7 8 9 10 0 39 25 
  > Client 49545 (6):	11 12 13 1 19 27 
  > Client 49542 (6):	15 16 17 14 5 28 

+ Core Mapping:	49543 49545 49548 49548 49548 49542 49548 49543 49543 49543 49543 49545 49545 49545 49542 49542 49542 49542 49548 49545 49544 49544 49544 49544 49544 49543 49541 49545 49542 49548 49544 49541 49541 49541 49541 49541 49541 49544 49548 49543 
+ Optimal point: 7 7 7 7 6 6 
+++++++++++++++++++++++++++++++++++++++++++++++++++++++++++
CLIENT SHUTDOWN: client 49541
 + TIMESTAMP: 40.3254
+++++++++++++++++++++++++++++++++++++++++++++++++++++++++++
+ Client Mapping:
  > Client 49541 (0):	
  > Client 49544 (7):	20 21 22 23 30 37 24 
  > Client 49548 (7):	2 3 4 6 18 38 29 
  > Client 49543 (7):	7 8 9 10 0 39 25 
  > Client 49545 (6):	11 12 13 1 19 27 
  > Client 49542 (6):	15 16 17 14 5 28 

+ Core Mapping:	49543 49545 49548 49548 49548 49542 49548 49543 49543 49543 49543 49545 49545 49545 49542 49542 49542 49542 49548 49545 49544 49544 49544 49544 49544 49543 0 49545 49542 49548 49544 0 0 0 0 0 0 49544 49548 49543 
+ Optimal point: 7 7 7 7 6 6 
+++++++++++++++++++++++++++++++++++++++++++++++++++++++++++
client (49541) shutdown hint: 437.984
sum_client_shutdown_hint: 2627.9
sum_client_shutdown_hint_div_time: 0
++++++++++++++++++++++++++++++++++++++++++++++++
 + TIMESTAMP: 40.3263
REINVADE (49542)
  + pid: 49542
  + min_cores: 1
  + max_cores: 512
  + scalability graph: 
1, 1.36329, 1.52423, 1.62017, 1.68565, 1.73398, 1.77154, 1.80182, 1.8269, 1.84812, 1.86637, 1.88229, 1.89634, 1.90885, 1.92009, 1.93026, 1.93952, 1.94799, 1.95579, 1.963, 1.96968, 1.9759, 1.98172, 1.98716, 1.99228, 1.9971, 2.00164, 2.00594, 2.01002, 2.01389, 2.01757, 2.02108, 2.02443, 2.02763, 2.03069, 2.03362, 2.03644, 2.03914, 2.04173, 2.04423, 
Number of clients: 5

+++++++++++++++++++++++++++++++++++++++++++++++++++++++++++
+ Client Mapping:
  > Client 49544 (7):	20 21 22 23 30 37 24 
  > Client 49548 (7):	2 3 4 6 18 38 29 
  > Client 49543 (7):	7 8 9 10 0 39 25 
  > Client 49545 (6):	11 12 13 1 19 27 
  > Client 49542 (8):	15 16 17 14 5 28 26 31 

+ Core Mapping:	49543 49545 49548 49548 49548 49542 49548 49543 49543 49543 49543 49545 49545 49545 49542 49542 49542 49542 49548 49545 49544 49544 49544 49544 49544 49543 49542 49545 49542 49548 49544 49542 0 0 0 0 0 49544 49548 49543 
+ Optimal point: 8 8 8 8 8 
+++++++++++++++++++++++++++++++++++++++++++++++++++++++++++
++++++++++++++++++++++++++++++++++++++++++++++++
 + TIMESTAMP: 40.3265
REINVADE (49544)
  + pid: 49544
  + min_cores: 1
  + max_cores: 512
  + scalability graph: 
1, 1.36329, 1.52423, 1.62017, 1.68565, 1.73398, 1.77154, 1.80182, 1.8269, 1.84812, 1.86637, 1.88229, 1.89634, 1.90885, 1.92009, 1.93026, 1.93952, 1.94799, 1.95579, 1.963, 1.96968, 1.9759, 1.98172, 1.98716, 1.99228, 1.9971, 2.00164, 2.00594, 2.01002, 2.01389, 2.01757, 2.02108, 2.02443, 2.02763, 2.03069, 2.03362, 2.03644, 2.03914, 2.04173, 2.04423, 
Number of clients: 5

+++++++++++++++++++++++++++++++++++++++++++++++++++++++++++
+ Client Mapping:
  > Client 49544 (8):	20 21 22 23 30 37 24 32 
  > Client 49548 (7):	2 3 4 6 18 38 29 
  > Client 49543 (7):	7 8 9 10 0 39 25 
  > Client 49545 (6):	11 12 13 1 19 27 
  > Client 49542 (8):	15 16 17 14 5 28 26 31 

+ Core Mapping:	49543 49545 49548 49548 49548 49542 49548 49543 49543 49543 49543 49545 49545 49545 49542 49542 49542 49542 49548 49545 49544 49544 49544 49544 49544 49543 49542 49545 49542 49548 49544 49542 49544 0 0 0 0 49544 49548 49543 
+ Optimal point: 8 8 8 8 8 
+++++++++++++++++++++++++++++++++++++++++++++++++++++++++++
++++++++++++++++++++++++++++++++++++++++++++++++
 + TIMESTAMP: 40.3273
REINVADE (49548)
  + pid: 49548
  + min_cores: 1
  + max_cores: 512
  + scalability graph: 
1, 1.36329, 1.52423, 1.62017, 1.68565, 1.73398, 1.77154, 1.80182, 1.8269, 1.84812, 1.86637, 1.88229, 1.89634, 1.90885, 1.92009, 1.93026, 1.93952, 1.94799, 1.95579, 1.963, 1.96968, 1.9759, 1.98172, 1.98716, 1.99228, 1.9971, 2.00164, 2.00594, 2.01002, 2.01389, 2.01757, 2.02108, 2.02443, 2.02763, 2.03069, 2.03362, 2.03644, 2.03914, 2.04173, 2.04423, 
Number of clients: 5

+++++++++++++++++++++++++++++++++++++++++++++++++++++++++++
+ Client Mapping:
  > Client 49544 (8):	20 21 22 23 30 37 24 32 
  > Client 49548 (8):	2 3 4 6 18 38 29 33 
  > Client 49543 (7):	7 8 9 10 0 39 25 
  > Client 49545 (6):	11 12 13 1 19 27 
  > Client 49542 (8):	15 16 17 14 5 28 26 31 

+ Core Mapping:	49543 49545 49548 49548 49548 49542 49548 49543 49543 49543 49543 49545 49545 49545 49542 49542 49542 49542 49548 49545 49544 49544 49544 49544 49544 49543 49542 49545 49542 49548 49544 49542 49544 49548 0 0 0 49544 49548 49543 
+ Optimal point: 8 8 8 8 8 
+++++++++++++++++++++++++++++++++++++++++++++++++++++++++++
++++++++++++++++++++++++++++++++++++++++++++++++
 + TIMESTAMP: 40.3297
REINVADE (49543)
  + pid: 49543
  + min_cores: 1
  + max_cores: 512
  + scalability graph: 
1, 1.36329, 1.52423, 1.62017, 1.68565, 1.73398, 1.77154, 1.80182, 1.8269, 1.84812, 1.86637, 1.88229, 1.89634, 1.90885, 1.92009, 1.93026, 1.93952, 1.94799, 1.95579, 1.963, 1.96968, 1.9759, 1.98172, 1.98716, 1.99228, 1.9971, 2.00164, 2.00594, 2.01002, 2.01389, 2.01757, 2.02108, 2.02443, 2.02763, 2.03069, 2.03362, 2.03644, 2.03914, 2.04173, 2.04423, 
Number of clients: 5

+++++++++++++++++++++++++++++++++++++++++++++++++++++++++++
+ Client Mapping:
  > Client 49544 (8):	20 21 22 23 30 37 24 32 
  > Client 49548 (8):	2 3 4 6 18 38 29 33 
  > Client 49543 (8):	7 8 9 10 0 39 25 34 
  > Client 49545 (6):	11 12 13 1 19 27 
  > Client 49542 (8):	15 16 17 14 5 28 26 31 

+ Core Mapping:	49543 49545 49548 49548 49548 49542 49548 49543 49543 49543 49543 49545 49545 49545 49542 49542 49542 49542 49548 49545 49544 49544 49544 49544 49544 49543 49542 49545 49542 49548 49544 49542 49544 49548 49543 0 0 49544 49548 49543 
+ Optimal point: 8 8 8 8 8 
+++++++++++++++++++++++++++++++++++++++++++++++++++++++++++
++++++++++++++++++++++++++++++++++++++++++++++++
 + TIMESTAMP: 40.3299
REINVADE (49545)
  + pid: 49545
  + min_cores: 1
  + max_cores: 512
  + scalability graph: 
1, 1.36329, 1.52423, 1.62017, 1.68565, 1.73398, 1.77154, 1.80182, 1.8269, 1.84812, 1.86637, 1.88229, 1.89634, 1.90885, 1.92009, 1.93026, 1.93952, 1.94799, 1.95579, 1.963, 1.96968, 1.9759, 1.98172, 1.98716, 1.99228, 1.9971, 2.00164, 2.00594, 2.01002, 2.01389, 2.01757, 2.02108, 2.02443, 2.02763, 2.03069, 2.03362, 2.03644, 2.03914, 2.04173, 2.04423, 
Number of clients: 5

+++++++++++++++++++++++++++++++++++++++++++++++++++++++++++
+ Client Mapping:
  > Client 49544 (8):	20 21 22 23 30 37 24 32 
  > Client 49548 (8):	2 3 4 6 18 38 29 33 
  > Client 49543 (8):	7 8 9 10 0 39 25 34 
  > Client 49545 (8):	11 12 13 1 19 27 35 36 
  > Client 49542 (8):	15 16 17 14 5 28 26 31 

+ Core Mapping:	49543 49545 49548 49548 49548 49542 49548 49543 49543 49543 49543 49545 49545 49545 49542 49542 49542 49542 49548 49545 49544 49544 49544 49544 49544 49543 49542 49545 49542 49548 49544 49542 49544 49548 49543 49545 49545 49544 49548 49543 
+ Optimal point: 8 8 8 8 8 
+++++++++++++++++++++++++++++++++++++++++++++++++++++++++++
CLIENT SHUTDOWN: client 49544
 + TIMESTAMP: 40.6421
+++++++++++++++++++++++++++++++++++++++++++++++++++++++++++
+ Client Mapping:
  > Client 49544 (0):	
  > Client 49548 (8):	2 3 4 6 18 38 29 33 
  > Client 49543 (8):	7 8 9 10 0 39 25 34 
  > Client 49545 (8):	11 12 13 1 19 27 35 36 
  > Client 49542 (8):	15 16 17 14 5 28 26 31 

+ Core Mapping:	49543 49545 49548 49548 49548 49542 49548 49543 49543 49543 49543 49545 49545 49545 49542 49542 49542 49542 49548 49545 0 0 0 0 0 49543 49542 49545 49542 49548 0 49542 0 49548 49543 49545 49545 0 49548 49543 
+ Optimal point: 8 8 8 8 8 
+++++++++++++++++++++++++++++++++++++++++++++++++++++++++++
client (49544) shutdown hint: 437.984
sum_client_shutdown_hint: 3065.89
sum_client_shutdown_hint_div_time: 0
++++++++++++++++++++++++++++++++++++++++++++++++
 + TIMESTAMP: 40.6428
REINVADE (49543)
  + pid: 49543
  + min_cores: 1
  + max_cores: 512
  + scalability graph: 
1, 1.36329, 1.52423, 1.62017, 1.68565, 1.73398, 1.77154, 1.80182, 1.8269, 1.84812, 1.86637, 1.88229, 1.89634, 1.90885, 1.92009, 1.93026, 1.93952, 1.94799, 1.95579, 1.963, 1.96968, 1.9759, 1.98172, 1.98716, 1.99228, 1.9971, 2.00164, 2.00594, 2.01002, 2.01389, 2.01757, 2.02108, 2.02443, 2.02763, 2.03069, 2.03362, 2.03644, 2.03914, 2.04173, 2.04423, 
Number of clients: 4

+++++++++++++++++++++++++++++++++++++++++++++++++++++++++++
+ Client Mapping:
  > Client 49548 (8):	2 3 4 6 18 38 29 33 
  > Client 49543 (10):	7 8 9 10 0 39 25 34 20 21 
  > Client 49545 (8):	11 12 13 1 19 27 35 36 
  > Client 49542 (8):	15 16 17 14 5 28 26 31 

+ Core Mapping:	49543 49545 49548 49548 49548 49542 49548 49543 49543 49543 49543 49545 49545 49545 49542 49542 49542 49542 49548 49545 49543 49543 0 0 0 49543 49542 49545 49542 49548 0 49542 0 49548 49543 49545 49545 0 49548 49543 
+ Optimal point: 10 10 10 10 
+++++++++++++++++++++++++++++++++++++++++++++++++++++++++++
++++++++++++++++++++++++++++++++++++++++++++++++
 + TIMESTAMP: 40.6444
REINVADE (49548)
  + pid: 49548
  + min_cores: 1
  + max_cores: 512
  + scalability graph: 
1, 1.36329, 1.52423, 1.62017, 1.68565, 1.73398, 1.77154, 1.80182, 1.8269, 1.84812, 1.86637, 1.88229, 1.89634, 1.90885, 1.92009, 1.93026, 1.93952, 1.94799, 1.95579, 1.963, 1.96968, 1.9759, 1.98172, 1.98716, 1.99228, 1.9971, 2.00164, 2.00594, 2.01002, 2.01389, 2.01757, 2.02108, 2.02443, 2.02763, 2.03069, 2.03362, 2.03644, 2.03914, 2.04173, 2.04423, 
Number of clients: 4

+++++++++++++++++++++++++++++++++++++++++++++++++++++++++++
+ Client Mapping:
  > Client 49548 (10):	2 3 4 6 18 38 29 33 22 23 
  > Client 49543 (10):	7 8 9 10 0 39 25 34 20 21 
  > Client 49545 (8):	11 12 13 1 19 27 35 36 
  > Client 49542 (8):	15 16 17 14 5 28 26 31 

+ Core Mapping:	49543 49545 49548 49548 49548 49542 49548 49543 49543 49543 49543 49545 49545 49545 49542 49542 49542 49542 49548 49545 49543 49543 49548 49548 0 49543 49542 49545 49542 49548 0 49542 0 49548 49543 49545 49545 0 49548 49543 
+ Optimal point: 10 10 10 10 
+++++++++++++++++++++++++++++++++++++++++++++++++++++++++++
++++++++++++++++++++++++++++++++++++++++++++++++
 + TIMESTAMP: 40.6445
REINVADE (49545)
  + pid: 49545
  + min_cores: 1
  + max_cores: 512
  + scalability graph: 
1, 1.36329, 1.52423, 1.62017, 1.68565, 1.73398, 1.77154, 1.80182, 1.8269, 1.84812, 1.86637, 1.88229, 1.89634, 1.90885, 1.92009, 1.93026, 1.93952, 1.94799, 1.95579, 1.963, 1.96968, 1.9759, 1.98172, 1.98716, 1.99228, 1.9971, 2.00164, 2.00594, 2.01002, 2.01389, 2.01757, 2.02108, 2.02443, 2.02763, 2.03069, 2.03362, 2.03644, 2.03914, 2.04173, 2.04423, 
Number of clients: 4

+++++++++++++++++++++++++++++++++++++++++++++++++++++++++++
+ Client Mapping:
  > Client 49548 (10):	2 3 4 6 18 38 29 33 22 23 
  > Client 49543 (10):	7 8 9 10 0 39 25 34 20 21 
  > Client 49545 (10):	11 12 13 1 19 27 35 36 24 30 
  > Client 49542 (8):	15 16 17 14 5 28 26 31 

+ Core Mapping:	49543 49545 49548 49548 49548 49542 49548 49543 49543 49543 49543 49545 49545 49545 49542 49542 49542 49542 49548 49545 49543 49543 49548 49548 49545 49543 49542 49545 49542 49548 49545 49542 0 49548 49543 49545 49545 0 49548 49543 
+ Optimal point: 10 10 10 10 
+++++++++++++++++++++++++++++++++++++++++++++++++++++++++++
++++++++++++++++++++++++++++++++++++++++++++++++
 + TIMESTAMP: 40.6458
REINVADE (49542)
  + pid: 49542
  + min_cores: 1
  + max_cores: 512
  + scalability graph: 
1, 1.36329, 1.52423, 1.62017, 1.68565, 1.73398, 1.77154, 1.80182, 1.8269, 1.84812, 1.86637, 1.88229, 1.89634, 1.90885, 1.92009, 1.93026, 1.93952, 1.94799, 1.95579, 1.963, 1.96968, 1.9759, 1.98172, 1.98716, 1.99228, 1.9971, 2.00164, 2.00594, 2.01002, 2.01389, 2.01757, 2.02108, 2.02443, 2.02763, 2.03069, 2.03362, 2.03644, 2.03914, 2.04173, 2.04423, 
Number of clients: 4

+++++++++++++++++++++++++++++++++++++++++++++++++++++++++++
+ Client Mapping:
  > Client 49548 (10):	2 3 4 6 18 38 29 33 22 23 
  > Client 49543 (10):	7 8 9 10 0 39 25 34 20 21 
  > Client 49545 (10):	11 12 13 1 19 27 35 36 24 30 
  > Client 49542 (10):	15 16 17 14 5 28 26 31 32 37 

+ Core Mapping:	49543 49545 49548 49548 49548 49542 49548 49543 49543 49543 49543 49545 49545 49545 49542 49542 49542 49542 49548 49545 49543 49543 49548 49548 49545 49543 49542 49545 49542 49548 49545 49542 49542 49548 49543 49545 49545 49542 49548 49543 
+ Optimal point: 10 10 10 10 
+++++++++++++++++++++++++++++++++++++++++++++++++++++++++++
CLIENT SHUTDOWN: client 49545
 + TIMESTAMP: 44.3256
+++++++++++++++++++++++++++++++++++++++++++++++++++++++++++
+ Client Mapping:
  > Client 49548 (10):	2 3 4 6 18 38 29 33 22 23 
  > Client 49543 (10):	7 8 9 10 0 39 25 34 20 21 
  > Client 49545 (0):	
  > Client 49542 (10):	15 16 17 14 5 28 26 31 32 37 

+ Core Mapping:	49543 0 49548 49548 49548 49542 49548 49543 49543 49543 49543 0 0 0 49542 49542 49542 49542 49548 0 49543 49543 49548 49548 0 49543 49542 0 49542 49548 0 49542 49542 49548 49543 0 0 49542 49548 49543 
+ Optimal point: 10 10 10 10 
+++++++++++++++++++++++++++++++++++++++++++++++++++++++++++
client (49545) shutdown hint: 437.984
sum_client_shutdown_hint: 3503.87
sum_client_shutdown_hint_div_time: 0
++++++++++++++++++++++++++++++++++++++++++++++++
 + TIMESTAMP: 44.3257
REINVADE (49543)
  + pid: 49543
  + min_cores: 1
  + max_cores: 512
  + scalability graph: 
1, 1.36329, 1.52423, 1.62017, 1.68565, 1.73398, 1.77154, 1.80182, 1.8269, 1.84812, 1.86637, 1.88229, 1.89634, 1.90885, 1.92009, 1.93026, 1.93952, 1.94799, 1.95579, 1.963, 1.96968, 1.9759, 1.98172, 1.98716, 1.99228, 1.9971, 2.00164, 2.00594, 2.01002, 2.01389, 2.01757, 2.02108, 2.02443, 2.02763, 2.03069, 2.03362, 2.03644, 2.03914, 2.04173, 2.04423, 
Number of clients: 3

+++++++++++++++++++++++++++++++++++++++++++++++++++++++++++
+ Client Mapping:
  > Client 49548 (10):	2 3 4 6 18 38 29 33 22 23 
  > Client 49543 (13):	7 8 9 10 0 39 25 34 20 21 1 11 12 
  > Client 49542 (10):	15 16 17 14 5 28 26 31 32 37 

+ Core Mapping:	49543 49543 49548 49548 49548 49542 49548 49543 49543 49543 49543 49543 49543 0 49542 49542 49542 49542 49548 0 49543 49543 49548 49548 0 49543 49542 0 49542 49548 0 49542 49542 49548 49543 0 0 49542 49548 49543 
+ Optimal point: 14 13 13 
+++++++++++++++++++++++++++++++++++++++++++++++++++++++++++
++++++++++++++++++++++++++++++++++++++++++++++++
 + TIMESTAMP: 44.3262
REINVADE (49542)
  + pid: 49542
  + min_cores: 1
  + max_cores: 512
  + scalability graph: 
1, 1.36329, 1.52423, 1.62017, 1.68565, 1.73398, 1.77154, 1.80182, 1.8269, 1.84812, 1.86637, 1.88229, 1.89634, 1.90885, 1.92009, 1.93026, 1.93952, 1.94799, 1.95579, 1.963, 1.96968, 1.9759, 1.98172, 1.98716, 1.99228, 1.9971, 2.00164, 2.00594, 2.01002, 2.01389, 2.01757, 2.02108, 2.02443, 2.02763, 2.03069, 2.03362, 2.03644, 2.03914, 2.04173, 2.04423, 
Number of clients: 3

+++++++++++++++++++++++++++++++++++++++++++++++++++++++++++
+ Client Mapping:
  > Client 49548 (10):	2 3 4 6 18 38 29 33 22 23 
  > Client 49543 (13):	7 8 9 10 0 39 25 34 20 21 1 11 12 
  > Client 49542 (13):	15 16 17 14 5 28 26 31 32 37 13 19 24 

+ Core Mapping:	49543 49543 49548 49548 49548 49542 49548 49543 49543 49543 49543 49543 49543 49542 49542 49542 49542 49542 49548 49542 49543 49543 49548 49548 49542 49543 49542 0 49542 49548 0 49542 49542 49548 49543 0 0 49542 49548 49543 
+ Optimal point: 14 13 13 
+++++++++++++++++++++++++++++++++++++++++++++++++++++++++++
++++++++++++++++++++++++++++++++++++++++++++++++
 + TIMESTAMP: 44.3267
REINVADE (49548)
  + pid: 49548
  + min_cores: 1
  + max_cores: 512
  + scalability graph: 
1, 1.36329, 1.52423, 1.62017, 1.68565, 1.73398, 1.77154, 1.80182, 1.8269, 1.84812, 1.86637, 1.88229, 1.89634, 1.90885, 1.92009, 1.93026, 1.93952, 1.94799, 1.95579, 1.963, 1.96968, 1.9759, 1.98172, 1.98716, 1.99228, 1.9971, 2.00164, 2.00594, 2.01002, 2.01389, 2.01757, 2.02108, 2.02443, 2.02763, 2.03069, 2.03362, 2.03644, 2.03914, 2.04173, 2.04423, 
Number of clients: 3

+++++++++++++++++++++++++++++++++++++++++++++++++++++++++++
+ Client Mapping:
  > Client 49548 (14):	2 3 4 6 18 38 29 33 22 23 27 30 35 36 
  > Client 49543 (13):	7 8 9 10 0 39 25 34 20 21 1 11 12 
  > Client 49542 (13):	15 16 17 14 5 28 26 31 32 37 13 19 24 

+ Core Mapping:	49543 49543 49548 49548 49548 49542 49548 49543 49543 49543 49543 49543 49543 49542 49542 49542 49542 49542 49548 49542 49543 49543 49548 49548 49542 49543 49542 49548 49542 49548 49548 49542 49542 49548 49543 49548 49548 49542 49548 49543 
+ Optimal point: 14 13 13 
+++++++++++++++++++++++++++++++++++++++++++++++++++++++++++
CLIENT SHUTDOWN: client 49548
 + TIMESTAMP: 44.5873
+++++++++++++++++++++++++++++++++++++++++++++++++++++++++++
+ Client Mapping:
  > Client 49548 (0):	
  > Client 49543 (13):	7 8 9 10 0 39 25 34 20 21 1 11 12 
  > Client 49542 (13):	15 16 17 14 5 28 26 31 32 37 13 19 24 

+ Core Mapping:	49543 49543 0 0 0 49542 0 49543 49543 49543 49543 49543 49543 49542 49542 49542 49542 49542 0 49542 49543 49543 0 0 49542 49543 49542 0 49542 0 0 49542 49542 0 49543 0 0 49542 0 49543 
+ Optimal point: 14 13 13 
+++++++++++++++++++++++++++++++++++++++++++++++++++++++++++
client (49548) shutdown hint: 437.984
sum_client_shutdown_hint: 3941.86
sum_client_shutdown_hint_div_time: 0
++++++++++++++++++++++++++++++++++++++++++++++++
 + TIMESTAMP: 44.5877
REINVADE (49543)
  + pid: 49543
  + min_cores: 1
  + max_cores: 512
  + scalability graph: 
1, 1.36329, 1.52423, 1.62017, 1.68565, 1.73398, 1.77154, 1.80182, 1.8269, 1.84812, 1.86637, 1.88229, 1.89634, 1.90885, 1.92009, 1.93026, 1.93952, 1.94799, 1.95579, 1.963, 1.96968, 1.9759, 1.98172, 1.98716, 1.99228, 1.9971, 2.00164, 2.00594, 2.01002, 2.01389, 2.01757, 2.02108, 2.02443, 2.02763, 2.03069, 2.03362, 2.03644, 2.03914, 2.04173, 2.04423, 
Number of clients: 2

+++++++++++++++++++++++++++++++++++++++++++++++++++++++++++
+ Client Mapping:
  > Client 49543 (20):	7 8 9 10 0 39 25 34 20 21 1 11 12 2 3 4 6 18 22 23 
  > Client 49542 (13):	15 16 17 14 5 28 26 31 32 37 13 19 24 

+ Core Mapping:	49543 49543 49543 49543 49543 49542 49543 49543 49543 49543 49543 49543 49543 49542 49542 49542 49542 49542 49543 49542 49543 49543 49543 49543 49542 49543 49542 0 49542 0 0 49542 49542 0 49543 0 0 49542 0 49543 
+ Optimal point: 20 20 
+++++++++++++++++++++++++++++++++++++++++++++++++++++++++++
++++++++++++++++++++++++++++++++++++++++++++++++
 + TIMESTAMP: 44.5879
REINVADE (49542)
  + pid: 49542
  + min_cores: 1
  + max_cores: 512
  + scalability graph: 
1, 1.36329, 1.52423, 1.62017, 1.68565, 1.73398, 1.77154, 1.80182, 1.8269, 1.84812, 1.86637, 1.88229, 1.89634, 1.90885, 1.92009, 1.93026, 1.93952, 1.94799, 1.95579, 1.963, 1.96968, 1.9759, 1.98172, 1.98716, 1.99228, 1.9971, 2.00164, 2.00594, 2.01002, 2.01389, 2.01757, 2.02108, 2.02443, 2.02763, 2.03069, 2.03362, 2.03644, 2.03914, 2.04173, 2.04423, 
Number of clients: 2

+++++++++++++++++++++++++++++++++++++++++++++++++++++++++++
+ Client Mapping:
  > Client 49543 (20):	7 8 9 10 0 39 25 34 20 21 1 11 12 2 3 4 6 18 22 23 
  > Client 49542 (20):	15 16 17 14 5 28 26 31 32 37 13 19 24 27 29 30 33 35 36 38 

+ Core Mapping:	49543 49543 49543 49543 49543 49542 49543 49543 49543 49543 49543 49543 49543 49542 49542 49542 49542 49542 49543 49542 49543 49543 49543 49543 49542 49543 49542 49542 49542 49542 49542 49542 49542 49542 49543 49542 49542 49542 49542 49543 
+ Optimal point: 20 20 
+++++++++++++++++++++++++++++++++++++++++++++++++++++++++++
CLIENT SHUTDOWN: client 49542
 + TIMESTAMP: 44.5943
+++++++++++++++++++++++++++++++++++++++++++++++++++++++++++
+ Client Mapping:
  > Client 49543 (20):	7 8 9 10 0 39 25 34 20 21 1 11 12 2 3 4 6 18 22 23 
  > Client 49542 (0):	

+ Core Mapping:	49543 49543 49543 49543 49543 0 49543 49543 49543 49543 49543 49543 49543 0 0 0 0 0 49543 0 49543 49543 49543 49543 0 49543 0 0 0 0 0 0 0 0 49543 0 0 0 0 49543 
+ Optimal point: 20 20 
+++++++++++++++++++++++++++++++++++++++++++++++++++++++++++
client (49542) shutdown hint: 437.984
sum_client_shutdown_hint: 4379.84
sum_client_shutdown_hint_div_time: 0
++++++++++++++++++++++++++++++++++++++++++++++++
 + TIMESTAMP: 44.5944
REINVADE (49543)
  + pid: 49543
  + min_cores: 1
  + max_cores: 512
  + scalability graph: 
1, 1.36329, 1.52423, 1.62017, 1.68565, 1.73398, 1.77154, 1.80182, 1.8269, 1.84812, 1.86637, 1.88229, 1.89634, 1.90885, 1.92009, 1.93026, 1.93952, 1.94799, 1.95579, 1.963, 1.96968, 1.9759, 1.98172, 1.98716, 1.99228, 1.9971, 2.00164, 2.00594, 2.01002, 2.01389, 2.01757, 2.02108, 2.02443, 2.02763, 2.03069, 2.03362, 2.03644, 2.03914, 2.04173, 2.04423, 
Number of clients: 1

+++++++++++++++++++++++++++++++++++++++++++++++++++++++++++
+ Client Mapping:
  > Client 49543 (40):	7 8 9 10 0 39 25 34 20 21 1 11 12 2 3 4 6 18 22 23 5 13 14 15 16 17 19 24 26 27 28 29 30 31 32 33 35 36 37 38 

+ Core Mapping:	49543 49543 49543 49543 49543 49543 49543 49543 49543 49543 49543 49543 49543 49543 49543 49543 49543 49543 49543 49543 49543 49543 49543 49543 49543 49543 49543 49543 49543 49543 49543 49543 49543 49543 49543 49543 49543 49543 49543 49543 
+ Optimal point: 40 
+++++++++++++++++++++++++++++++++++++++++++++++++++++++++++
CLIENT SHUTDOWN: client 49543
 + TIMESTAMP: 44.9704
+++++++++++++++++++++++++++++++++++++++++++++++++++++++++++
+ Client Mapping:
  > Client 49543 (0):	

+ Core Mapping:	0 0 0 0 0 0 0 0 0 0 0 0 0 0 0 0 0 0 0 0 0 0 0 0 0 0 0 0 0 0 0 0 0 0 0 0 0 0 0 0 
+ Optimal point: 40 
+++++++++++++++++++++++++++++++++++++++++++++++++++++++++++
client (49543) shutdown hint: 437.984
sum_client_shutdown_hint: 4817.82
sum_client_shutdown_hint_div_time: 0
END TIMESTAMP: 44.9704
OVERALL TIME: 44.8072
 + sum_client_shutdown_hint: 4817.82
 + sum_client_shutdown_hint/time: 107.523
sum_client_shutdown_hint: 4817.82
sum_client_shutdown_hint_div_time: 107.523
