STARTING WORLD SCHEDULER SERVER
CLIENT SETUP: adding client 43257
 + TIMESTAMP: 0.286764
START TIMESTAMP: 0.286798
+++++++++++++++++++++++++++++++++++++++++++++++++++++++++++
+ Client Mapping:
  > Client 43257 (0):	

+ Core Mapping:	0 0 0 0 0 0 0 0 0 0 0 0 0 0 0 0 0 0 0 0 0 0 0 0 0 0 0 0 0 0 0 0 0 0 0 0 0 0 0 0 
+ Optimal point: 
+++++++++++++++++++++++++++++++++++++++++++++++++++++++++++
CLIENT SETUP: adding client 43258
 + TIMESTAMP: 0.287943
+++++++++++++++++++++++++++++++++++++++++++++++++++++++++++
+ Client Mapping:
  > Client 43257 (0):	
  > Client 43258 (0):	

+ Core Mapping:	0 0 0 0 0 0 0 0 0 0 0 0 0 0 0 0 0 0 0 0 0 0 0 0 0 0 0 0 0 0 0 0 0 0 0 0 0 0 0 0 
+ Optimal point: 
+++++++++++++++++++++++++++++++++++++++++++++++++++++++++++
INVADE: client 43258
 + TIMESTAMP: 0.287999
RESSOURCE DISTRIBUTION CHANGED
++++++++++++++++++++++++++++++++++++++++++++++++
INVADE (43258)
  + pid: 43258
  + min_cores: 1
  + max_cores: 512
  + scalability graph: 
1, 1.36329, 1.52423, 1.62017, 1.68565, 1.73398, 1.77154, 1.80182, 1.8269, 1.84812, 1.86637, 1.88229, 1.89634, 1.90885, 1.92009, 1.93026, 1.93952, 1.94799, 1.95579, 1.963, 1.96968, 1.9759, 1.98172, 1.98716, 1.99228, 1.9971, 2.00164, 2.00594, 2.01002, 2.01389, 2.01757, 2.02108, 2.02443, 2.02763, 2.03069, 2.03362, 2.03644, 2.03914, 2.04173, 2.04423, 
Number of clients: 2

+++++++++++++++++++++++++++++++++++++++++++++++++++++++++++
+ Client Mapping:
  > Client 43257 (0):	
  > Client 43258 (1):	0 

+ Core Mapping:	43258 0 0 0 0 0 0 0 0 0 0 0 0 0 0 0 0 0 0 0 0 0 0 0 0 0 0 0 0 0 0 0 0 0 0 0 0 0 0 0 
+ Optimal point: 39 1 
+++++++++++++++++++++++++++++++++++++++++++++++++++++++++++
CLIENT SETUP: adding client 43259
 + TIMESTAMP: 0.288192
+++++++++++++++++++++++++++++++++++++++++++++++++++++++++++
+ Client Mapping:
  > Client 43257 (0):	
  > Client 43258 (1):	0 
  > Client 43259 (0):	

+ Core Mapping:	43258 0 0 0 0 0 0 0 0 0 0 0 0 0 0 0 0 0 0 0 0 0 0 0 0 0 0 0 0 0 0 0 0 0 0 0 0 0 0 0 
+ Optimal point: 39 1 
+++++++++++++++++++++++++++++++++++++++++++++++++++++++++++
INVADE: client 43257
 + TIMESTAMP: 0.288283
RESSOURCE DISTRIBUTION CHANGED
++++++++++++++++++++++++++++++++++++++++++++++++
INVADE (43257)
  + pid: 43257
  + min_cores: 1
  + max_cores: 512
  + scalability graph: 
1, 1.36329, 1.52423, 1.62017, 1.68565, 1.73398, 1.77154, 1.80182, 1.8269, 1.84812, 1.86637, 1.88229, 1.89634, 1.90885, 1.92009, 1.93026, 1.93952, 1.94799, 1.95579, 1.963, 1.96968, 1.9759, 1.98172, 1.98716, 1.99228, 1.9971, 2.00164, 2.00594, 2.01002, 2.01389, 2.01757, 2.02108, 2.02443, 2.02763, 2.03069, 2.03362, 2.03644, 2.03914, 2.04173, 2.04423, 
Number of clients: 3

+++++++++++++++++++++++++++++++++++++++++++++++++++++++++++
+ Client Mapping:
  > Client 43257 (1):	1 
  > Client 43258 (1):	0 
  > Client 43259 (0):	

+ Core Mapping:	43258 43257 0 0 0 0 0 0 0 0 0 0 0 0 0 0 0 0 0 0 0 0 0 0 0 0 0 0 0 0 0 0 0 0 0 0 0 0 0 0 
+ Optimal point: 1 1 38 
+++++++++++++++++++++++++++++++++++++++++++++++++++++++++++
CLIENT SETUP: adding client 43261
 + TIMESTAMP: 0.288388
+++++++++++++++++++++++++++++++++++++++++++++++++++++++++++
+ Client Mapping:
  > Client 43257 (1):	1 
  > Client 43258 (1):	0 
  > Client 43259 (0):	
  > Client 43261 (0):	

+ Core Mapping:	43258 43257 0 0 0 0 0 0 0 0 0 0 0 0 0 0 0 0 0 0 0 0 0 0 0 0 0 0 0 0 0 0 0 0 0 0 0 0 0 0 
+ Optimal point: 1 1 38 
+++++++++++++++++++++++++++++++++++++++++++++++++++++++++++
INVADE: client 43259
 + TIMESTAMP: 0.28842
RESSOURCE DISTRIBUTION CHANGED
++++++++++++++++++++++++++++++++++++++++++++++++
INVADE (43259)
  + pid: 43259
  + min_cores: 1
  + max_cores: 512
  + scalability graph: 
1, 1.36329, 1.52423, 1.62017, 1.68565, 1.73398, 1.77154, 1.80182, 1.8269, 1.84812, 1.86637, 1.88229, 1.89634, 1.90885, 1.92009, 1.93026, 1.93952, 1.94799, 1.95579, 1.963, 1.96968, 1.9759, 1.98172, 1.98716, 1.99228, 1.9971, 2.00164, 2.00594, 2.01002, 2.01389, 2.01757, 2.02108, 2.02443, 2.02763, 2.03069, 2.03362, 2.03644, 2.03914, 2.04173, 2.04423, 
Number of clients: 4

+++++++++++++++++++++++++++++++++++++++++++++++++++++++++++
+ Client Mapping:
  > Client 43257 (1):	1 
  > Client 43258 (1):	0 
  > Client 43259 (1):	2 
  > Client 43261 (0):	

+ Core Mapping:	43258 43257 43259 0 0 0 0 0 0 0 0 0 0 0 0 0 0 0 0 0 0 0 0 0 0 0 0 0 0 0 0 0 0 0 0 0 0 0 0 0 
+ Optimal point: 1 1 1 37 
+++++++++++++++++++++++++++++++++++++++++++++++++++++++++++
CLIENT SETUP: adding client 43262
 + TIMESTAMP: 0.288747
+++++++++++++++++++++++++++++++++++++++++++++++++++++++++++
+ Client Mapping:
  > Client 43257 (1):	1 
  > Client 43258 (1):	0 
  > Client 43259 (1):	2 
  > Client 43261 (0):	
  > Client 43262 (0):	

+ Core Mapping:	43258 43257 43259 0 0 0 0 0 0 0 0 0 0 0 0 0 0 0 0 0 0 0 0 0 0 0 0 0 0 0 0 0 0 0 0 0 0 0 0 0 
+ Optimal point: 1 1 1 37 
+++++++++++++++++++++++++++++++++++++++++++++++++++++++++++
CLIENT SETUP: adding client 43260
 + TIMESTAMP: 0.288812
+++++++++++++++++++++++++++++++++++++++++++++++++++++++++++
+ Client Mapping:
  > Client 43257 (1):	1 
  > Client 43258 (1):	0 
  > Client 43259 (1):	2 
  > Client 43261 (0):	
  > Client 43262 (0):	
  > Client 43260 (0):	

+ Core Mapping:	43258 43257 43259 0 0 0 0 0 0 0 0 0 0 0 0 0 0 0 0 0 0 0 0 0 0 0 0 0 0 0 0 0 0 0 0 0 0 0 0 0 
+ Optimal point: 1 1 1 37 
+++++++++++++++++++++++++++++++++++++++++++++++++++++++++++
CLIENT SETUP: adding client 43256
 + TIMESTAMP: 0.28885
+++++++++++++++++++++++++++++++++++++++++++++++++++++++++++
+ Client Mapping:
  > Client 43257 (1):	1 
  > Client 43258 (1):	0 
  > Client 43259 (1):	2 
  > Client 43261 (0):	
  > Client 43262 (0):	
  > Client 43260 (0):	
  > Client 43256 (0):	

+ Core Mapping:	43258 43257 43259 0 0 0 0 0 0 0 0 0 0 0 0 0 0 0 0 0 0 0 0 0 0 0 0 0 0 0 0 0 0 0 0 0 0 0 0 0 
+ Optimal point: 1 1 1 37 
+++++++++++++++++++++++++++++++++++++++++++++++++++++++++++
INVADE: client 43262
 + TIMESTAMP: 0.288887
RESSOURCE DISTRIBUTION CHANGED
++++++++++++++++++++++++++++++++++++++++++++++++
INVADE (43262)
  + pid: 43262
  + min_cores: 1
  + max_cores: 512
  + scalability graph: 
1, 1.36329, 1.52423, 1.62017, 1.68565, 1.73398, 1.77154, 1.80182, 1.8269, 1.84812, 1.86637, 1.88229, 1.89634, 1.90885, 1.92009, 1.93026, 1.93952, 1.94799, 1.95579, 1.963, 1.96968, 1.9759, 1.98172, 1.98716, 1.99228, 1.9971, 2.00164, 2.00594, 2.01002, 2.01389, 2.01757, 2.02108, 2.02443, 2.02763, 2.03069, 2.03362, 2.03644, 2.03914, 2.04173, 2.04423, 
Number of clients: 7

+++++++++++++++++++++++++++++++++++++++++++++++++++++++++++
+ Client Mapping:
  > Client 43257 (1):	1 
  > Client 43258 (1):	0 
  > Client 43259 (1):	2 
  > Client 43261 (0):	
  > Client 43262 (1):	3 
  > Client 43260 (0):	
  > Client 43256 (0):	

+ Core Mapping:	43258 43257 43259 43262 0 0 0 0 0 0 0 0 0 0 0 0 0 0 0 0 0 0 0 0 0 0 0 0 0 0 0 0 0 0 0 0 0 0 0 0 
+ Optimal point: 1 1 1 34 1 1 1 
+++++++++++++++++++++++++++++++++++++++++++++++++++++++++++
INVADE: client 43256
 + TIMESTAMP: 0.288974
RESSOURCE DISTRIBUTION CHANGED
++++++++++++++++++++++++++++++++++++++++++++++++
INVADE (43256)
  + pid: 43256
  + min_cores: 1
  + max_cores: 512
  + scalability graph: 
1, 1.36329, 1.52423, 1.62017, 1.68565, 1.73398, 1.77154, 1.80182, 1.8269, 1.84812, 1.86637, 1.88229, 1.89634, 1.90885, 1.92009, 1.93026, 1.93952, 1.94799, 1.95579, 1.963, 1.96968, 1.9759, 1.98172, 1.98716, 1.99228, 1.9971, 2.00164, 2.00594, 2.01002, 2.01389, 2.01757, 2.02108, 2.02443, 2.02763, 2.03069, 2.03362, 2.03644, 2.03914, 2.04173, 2.04423, 
Number of clients: 7

+++++++++++++++++++++++++++++++++++++++++++++++++++++++++++
+ Client Mapping:
  > Client 43257 (1):	1 
  > Client 43258 (1):	0 
  > Client 43259 (1):	2 
  > Client 43261 (0):	
  > Client 43262 (1):	3 
  > Client 43260 (0):	
  > Client 43256 (1):	4 

+ Core Mapping:	43258 43257 43259 43262 43256 0 0 0 0 0 0 0 0 0 0 0 0 0 0 0 0 0 0 0 0 0 0 0 0 0 0 0 0 0 0 0 0 0 0 0 
+ Optimal point: 1 1 1 34 1 1 1 
+++++++++++++++++++++++++++++++++++++++++++++++++++++++++++
INVADE: client 43261
 + TIMESTAMP: 0.289059
RESSOURCE DISTRIBUTION CHANGED
++++++++++++++++++++++++++++++++++++++++++++++++
INVADE (43261)
  + pid: 43261
  + min_cores: 1
  + max_cores: 512
  + scalability graph: 
1, 1.36329, 1.52423, 1.62017, 1.68565, 1.73398, 1.77154, 1.80182, 1.8269, 1.84812, 1.86637, 1.88229, 1.89634, 1.90885, 1.92009, 1.93026, 1.93952, 1.94799, 1.95579, 1.963, 1.96968, 1.9759, 1.98172, 1.98716, 1.99228, 1.9971, 2.00164, 2.00594, 2.01002, 2.01389, 2.01757, 2.02108, 2.02443, 2.02763, 2.03069, 2.03362, 2.03644, 2.03914, 2.04173, 2.04423, 
Number of clients: 7

+++++++++++++++++++++++++++++++++++++++++++++++++++++++++++
+ Client Mapping:
  > Client 43257 (1):	1 
  > Client 43258 (1):	0 
  > Client 43259 (1):	2 
  > Client 43261 (1):	5 
  > Client 43262 (1):	3 
  > Client 43260 (0):	
  > Client 43256 (1):	4 

+ Core Mapping:	43258 43257 43259 43262 43256 43261 0 0 0 0 0 0 0 0 0 0 0 0 0 0 0 0 0 0 0 0 0 0 0 0 0 0 0 0 0 0 0 0 0 0 
+ Optimal point: 1 1 1 1 1 34 1 
+++++++++++++++++++++++++++++++++++++++++++++++++++++++++++
CLIENT SETUP: adding client 43255
 + TIMESTAMP: 0.289422
+++++++++++++++++++++++++++++++++++++++++++++++++++++++++++
+ Client Mapping:
  > Client 43257 (1):	1 
  > Client 43258 (1):	0 
  > Client 43259 (1):	2 
  > Client 43261 (1):	5 
  > Client 43262 (1):	3 
  > Client 43260 (0):	
  > Client 43256 (1):	4 
  > Client 43255 (0):	

+ Core Mapping:	43258 43257 43259 43262 43256 43261 0 0 0 0 0 0 0 0 0 0 0 0 0 0 0 0 0 0 0 0 0 0 0 0 0 0 0 0 0 0 0 0 0 0 
+ Optimal point: 1 1 1 1 1 34 1 
+++++++++++++++++++++++++++++++++++++++++++++++++++++++++++
INVADE: client 43255
 + TIMESTAMP: 0.289481
RESSOURCE DISTRIBUTION CHANGED
++++++++++++++++++++++++++++++++++++++++++++++++
INVADE (43255)
  + pid: 43255
  + min_cores: 1
  + max_cores: 512
  + scalability graph: 
1, 1.36329, 1.52423, 1.62017, 1.68565, 1.73398, 1.77154, 1.80182, 1.8269, 1.84812, 1.86637, 1.88229, 1.89634, 1.90885, 1.92009, 1.93026, 1.93952, 1.94799, 1.95579, 1.963, 1.96968, 1.9759, 1.98172, 1.98716, 1.99228, 1.9971, 2.00164, 2.00594, 2.01002, 2.01389, 2.01757, 2.02108, 2.02443, 2.02763, 2.03069, 2.03362, 2.03644, 2.03914, 2.04173, 2.04423, 
Number of clients: 8

+++++++++++++++++++++++++++++++++++++++++++++++++++++++++++
+ Client Mapping:
  > Client 43257 (1):	1 
  > Client 43258 (1):	0 
  > Client 43259 (1):	2 
  > Client 43261 (1):	5 
  > Client 43262 (1):	3 
  > Client 43260 (0):	
  > Client 43256 (1):	4 
  > Client 43255 (1):	6 

+ Core Mapping:	43258 43257 43259 43262 43256 43261 43255 0 0 0 0 0 0 0 0 0 0 0 0 0 0 0 0 0 0 0 0 0 0 0 0 0 0 0 0 0 0 0 0 0 
+ Optimal point: 1 1 1 1 1 33 1 1 
+++++++++++++++++++++++++++++++++++++++++++++++++++++++++++
INVADE: client 43260
 + TIMESTAMP: 0.292025
RESSOURCE DISTRIBUTION CHANGED
++++++++++++++++++++++++++++++++++++++++++++++++
INVADE (43260)
  + pid: 43260
  + min_cores: 1
  + max_cores: 512
  + scalability graph: 
1, 1.36329, 1.52423, 1.62017, 1.68565, 1.73398, 1.77154, 1.80182, 1.8269, 1.84812, 1.86637, 1.88229, 1.89634, 1.90885, 1.92009, 1.93026, 1.93952, 1.94799, 1.95579, 1.963, 1.96968, 1.9759, 1.98172, 1.98716, 1.99228, 1.9971, 2.00164, 2.00594, 2.01002, 2.01389, 2.01757, 2.02108, 2.02443, 2.02763, 2.03069, 2.03362, 2.03644, 2.03914, 2.04173, 2.04423, 
Number of clients: 8

+++++++++++++++++++++++++++++++++++++++++++++++++++++++++++
+ Client Mapping:
  > Client 43257 (1):	1 
  > Client 43258 (1):	0 
  > Client 43259 (1):	2 
  > Client 43261 (1):	5 
  > Client 43262 (1):	3 
  > Client 43260 (5):	7 8 9 10 11 
  > Client 43256 (1):	4 
  > Client 43255 (1):	6 

+ Core Mapping:	43258 43257 43259 43262 43256 43261 43255 43260 43260 43260 43260 43260 0 0 0 0 0 0 0 0 0 0 0 0 0 0 0 0 0 0 0 0 0 0 0 0 0 0 0 0 
+ Optimal point: 5 5 5 5 5 5 5 5 
+++++++++++++++++++++++++++++++++++++++++++++++++++++++++++
++++++++++++++++++++++++++++++++++++++++++++++++
 + TIMESTAMP: 0.297055
REINVADE (43258)
  + pid: 43258
  + min_cores: 1
  + max_cores: 512
  + scalability graph: 
1, 1.36329, 1.52423, 1.62017, 1.68565, 1.73398, 1.77154, 1.80182, 1.8269, 1.84812, 1.86637, 1.88229, 1.89634, 1.90885, 1.92009, 1.93026, 1.93952, 1.94799, 1.95579, 1.963, 1.96968, 1.9759, 1.98172, 1.98716, 1.99228, 1.9971, 2.00164, 2.00594, 2.01002, 2.01389, 2.01757, 2.02108, 2.02443, 2.02763, 2.03069, 2.03362, 2.03644, 2.03914, 2.04173, 2.04423, 
Number of clients: 8

+++++++++++++++++++++++++++++++++++++++++++++++++++++++++++
+ Client Mapping:
  > Client 43257 (1):	1 
  > Client 43258 (5):	0 12 13 14 15 
  > Client 43259 (1):	2 
  > Client 43261 (1):	5 
  > Client 43262 (1):	3 
  > Client 43260 (5):	7 8 9 10 11 
  > Client 43256 (1):	4 
  > Client 43255 (1):	6 

+ Core Mapping:	43258 43257 43259 43262 43256 43261 43255 43260 43260 43260 43260 43260 43258 43258 43258 43258 0 0 0 0 0 0 0 0 0 0 0 0 0 0 0 0 0 0 0 0 0 0 0 0 
+ Optimal point: 5 5 5 5 5 5 5 5 
+++++++++++++++++++++++++++++++++++++++++++++++++++++++++++
++++++++++++++++++++++++++++++++++++++++++++++++
 + TIMESTAMP: 0.297681
REINVADE (43256)
  + pid: 43256
  + min_cores: 1
  + max_cores: 512
  + scalability graph: 
1, 1.36329, 1.52423, 1.62017, 1.68565, 1.73398, 1.77154, 1.80182, 1.8269, 1.84812, 1.86637, 1.88229, 1.89634, 1.90885, 1.92009, 1.93026, 1.93952, 1.94799, 1.95579, 1.963, 1.96968, 1.9759, 1.98172, 1.98716, 1.99228, 1.9971, 2.00164, 2.00594, 2.01002, 2.01389, 2.01757, 2.02108, 2.02443, 2.02763, 2.03069, 2.03362, 2.03644, 2.03914, 2.04173, 2.04423, 
Number of clients: 8

+++++++++++++++++++++++++++++++++++++++++++++++++++++++++++
+ Client Mapping:
  > Client 43257 (1):	1 
  > Client 43258 (5):	0 12 13 14 15 
  > Client 43259 (1):	2 
  > Client 43261 (1):	5 
  > Client 43262 (1):	3 
  > Client 43260 (5):	7 8 9 10 11 
  > Client 43256 (5):	4 16 17 18 19 
  > Client 43255 (1):	6 

+ Core Mapping:	43258 43257 43259 43262 43256 43261 43255 43260 43260 43260 43260 43260 43258 43258 43258 43258 43256 43256 43256 43256 0 0 0 0 0 0 0 0 0 0 0 0 0 0 0 0 0 0 0 0 
+ Optimal point: 5 5 5 5 5 5 5 5 
+++++++++++++++++++++++++++++++++++++++++++++++++++++++++++
++++++++++++++++++++++++++++++++++++++++++++++++
 + TIMESTAMP: 0.298795
REINVADE (43262)
  + pid: 43262
  + min_cores: 1
  + max_cores: 512
  + scalability graph: 
1, 1.36329, 1.52423, 1.62017, 1.68565, 1.73398, 1.77154, 1.80182, 1.8269, 1.84812, 1.86637, 1.88229, 1.89634, 1.90885, 1.92009, 1.93026, 1.93952, 1.94799, 1.95579, 1.963, 1.96968, 1.9759, 1.98172, 1.98716, 1.99228, 1.9971, 2.00164, 2.00594, 2.01002, 2.01389, 2.01757, 2.02108, 2.02443, 2.02763, 2.03069, 2.03362, 2.03644, 2.03914, 2.04173, 2.04423, 
Number of clients: 8

+++++++++++++++++++++++++++++++++++++++++++++++++++++++++++
+ Client Mapping:
  > Client 43257 (1):	1 
  > Client 43258 (5):	0 12 13 14 15 
  > Client 43259 (1):	2 
  > Client 43261 (1):	5 
  > Client 43262 (5):	3 20 21 22 23 
  > Client 43260 (5):	7 8 9 10 11 
  > Client 43256 (5):	4 16 17 18 19 
  > Client 43255 (1):	6 

+ Core Mapping:	43258 43257 43259 43262 43256 43261 43255 43260 43260 43260 43260 43260 43258 43258 43258 43258 43256 43256 43256 43256 43262 43262 43262 43262 0 0 0 0 0 0 0 0 0 0 0 0 0 0 0 0 
+ Optimal point: 5 5 5 5 5 5 5 5 
+++++++++++++++++++++++++++++++++++++++++++++++++++++++++++
++++++++++++++++++++++++++++++++++++++++++++++++
 + TIMESTAMP: 0.298952
REINVADE (43259)
  + pid: 43259
  + min_cores: 1
  + max_cores: 512
  + scalability graph: 
1, 1.36329, 1.52423, 1.62017, 1.68565, 1.73398, 1.77154, 1.80182, 1.8269, 1.84812, 1.86637, 1.88229, 1.89634, 1.90885, 1.92009, 1.93026, 1.93952, 1.94799, 1.95579, 1.963, 1.96968, 1.9759, 1.98172, 1.98716, 1.99228, 1.9971, 2.00164, 2.00594, 2.01002, 2.01389, 2.01757, 2.02108, 2.02443, 2.02763, 2.03069, 2.03362, 2.03644, 2.03914, 2.04173, 2.04423, 
Number of clients: 8

+++++++++++++++++++++++++++++++++++++++++++++++++++++++++++
+ Client Mapping:
  > Client 43257 (1):	1 
  > Client 43258 (5):	0 12 13 14 15 
  > Client 43259 (5):	2 24 25 26 27 
  > Client 43261 (1):	5 
  > Client 43262 (5):	3 20 21 22 23 
  > Client 43260 (5):	7 8 9 10 11 
  > Client 43256 (5):	4 16 17 18 19 
  > Client 43255 (1):	6 

+ Core Mapping:	43258 43257 43259 43262 43256 43261 43255 43260 43260 43260 43260 43260 43258 43258 43258 43258 43256 43256 43256 43256 43262 43262 43262 43262 43259 43259 43259 43259 0 0 0 0 0 0 0 0 0 0 0 0 
+ Optimal point: 5 5 5 5 5 5 5 5 
+++++++++++++++++++++++++++++++++++++++++++++++++++++++++++
++++++++++++++++++++++++++++++++++++++++++++++++
 + TIMESTAMP: 0.299185
REINVADE (43261)
  + pid: 43261
  + min_cores: 1
  + max_cores: 512
  + scalability graph: 
1, 1.36329, 1.52423, 1.62017, 1.68565, 1.73398, 1.77154, 1.80182, 1.8269, 1.84812, 1.86637, 1.88229, 1.89634, 1.90885, 1.92009, 1.93026, 1.93952, 1.94799, 1.95579, 1.963, 1.96968, 1.9759, 1.98172, 1.98716, 1.99228, 1.9971, 2.00164, 2.00594, 2.01002, 2.01389, 2.01757, 2.02108, 2.02443, 2.02763, 2.03069, 2.03362, 2.03644, 2.03914, 2.04173, 2.04423, 
Number of clients: 8

+++++++++++++++++++++++++++++++++++++++++++++++++++++++++++
+ Client Mapping:
  > Client 43257 (1):	1 
  > Client 43258 (5):	0 12 13 14 15 
  > Client 43259 (5):	2 24 25 26 27 
  > Client 43261 (5):	5 28 29 30 31 
  > Client 43262 (5):	3 20 21 22 23 
  > Client 43260 (5):	7 8 9 10 11 
  > Client 43256 (5):	4 16 17 18 19 
  > Client 43255 (1):	6 

+ Core Mapping:	43258 43257 43259 43262 43256 43261 43255 43260 43260 43260 43260 43260 43258 43258 43258 43258 43256 43256 43256 43256 43262 43262 43262 43262 43259 43259 43259 43259 43261 43261 43261 43261 0 0 0 0 0 0 0 0 
+ Optimal point: 5 5 5 5 5 5 5 5 
+++++++++++++++++++++++++++++++++++++++++++++++++++++++++++
++++++++++++++++++++++++++++++++++++++++++++++++
 + TIMESTAMP: 0.299749
REINVADE (43255)
  + pid: 43255
  + min_cores: 1
  + max_cores: 512
  + scalability graph: 
1, 1.36329, 1.52423, 1.62017, 1.68565, 1.73398, 1.77154, 1.80182, 1.8269, 1.84812, 1.86637, 1.88229, 1.89634, 1.90885, 1.92009, 1.93026, 1.93952, 1.94799, 1.95579, 1.963, 1.96968, 1.9759, 1.98172, 1.98716, 1.99228, 1.9971, 2.00164, 2.00594, 2.01002, 2.01389, 2.01757, 2.02108, 2.02443, 2.02763, 2.03069, 2.03362, 2.03644, 2.03914, 2.04173, 2.04423, 
Number of clients: 8

+++++++++++++++++++++++++++++++++++++++++++++++++++++++++++
+ Client Mapping:
  > Client 43257 (1):	1 
  > Client 43258 (5):	0 12 13 14 15 
  > Client 43259 (5):	2 24 25 26 27 
  > Client 43261 (5):	5 28 29 30 31 
  > Client 43262 (5):	3 20 21 22 23 
  > Client 43260 (5):	7 8 9 10 11 
  > Client 43256 (5):	4 16 17 18 19 
  > Client 43255 (5):	6 32 33 34 35 

+ Core Mapping:	43258 43257 43259 43262 43256 43261 43255 43260 43260 43260 43260 43260 43258 43258 43258 43258 43256 43256 43256 43256 43262 43262 43262 43262 43259 43259 43259 43259 43261 43261 43261 43261 43255 43255 43255 43255 0 0 0 0 
+ Optimal point: 5 5 5 5 5 5 5 5 
+++++++++++++++++++++++++++++++++++++++++++++++++++++++++++
++++++++++++++++++++++++++++++++++++++++++++++++
 + TIMESTAMP: 0.299864
REINVADE (43257)
  + pid: 43257
  + min_cores: 1
  + max_cores: 512
  + scalability graph: 
1, 1.36329, 1.52423, 1.62017, 1.68565, 1.73398, 1.77154, 1.80182, 1.8269, 1.84812, 1.86637, 1.88229, 1.89634, 1.90885, 1.92009, 1.93026, 1.93952, 1.94799, 1.95579, 1.963, 1.96968, 1.9759, 1.98172, 1.98716, 1.99228, 1.9971, 2.00164, 2.00594, 2.01002, 2.01389, 2.01757, 2.02108, 2.02443, 2.02763, 2.03069, 2.03362, 2.03644, 2.03914, 2.04173, 2.04423, 
Number of clients: 8

+++++++++++++++++++++++++++++++++++++++++++++++++++++++++++
+ Client Mapping:
  > Client 43257 (5):	1 36 37 38 39 
  > Client 43258 (5):	0 12 13 14 15 
  > Client 43259 (5):	2 24 25 26 27 
  > Client 43261 (5):	5 28 29 30 31 
  > Client 43262 (5):	3 20 21 22 23 
  > Client 43260 (5):	7 8 9 10 11 
  > Client 43256 (5):	4 16 17 18 19 
  > Client 43255 (5):	6 32 33 34 35 

+ Core Mapping:	43258 43257 43259 43262 43256 43261 43255 43260 43260 43260 43260 43260 43258 43258 43258 43258 43256 43256 43256 43256 43262 43262 43262 43262 43259 43259 43259 43259 43261 43261 43261 43261 43255 43255 43255 43255 43257 43257 43257 43257 
+ Optimal point: 5 5 5 5 5 5 5 5 
+++++++++++++++++++++++++++++++++++++++++++++++++++++++++++
CLIENT SHUTDOWN: client 43257
 + TIMESTAMP: 32.7456
+++++++++++++++++++++++++++++++++++++++++++++++++++++++++++
+ Client Mapping:
  > Client 43257 (0):	
  > Client 43258 (5):	0 12 13 14 15 
  > Client 43259 (5):	2 24 25 26 27 
  > Client 43261 (5):	5 28 29 30 31 
  > Client 43262 (5):	3 20 21 22 23 
  > Client 43260 (5):	7 8 9 10 11 
  > Client 43256 (5):	4 16 17 18 19 
  > Client 43255 (5):	6 32 33 34 35 

+ Core Mapping:	43258 0 43259 43262 43256 43261 43255 43260 43260 43260 43260 43260 43258 43258 43258 43258 43256 43256 43256 43256 43262 43262 43262 43262 43259 43259 43259 43259 43261 43261 43261 43261 43255 43255 43255 43255 0 0 0 0 
+ Optimal point: 5 5 5 5 5 5 5 5 
+++++++++++++++++++++++++++++++++++++++++++++++++++++++++++
client (43257) shutdown hint: 437.984
sum_client_shutdown_hint: 437.984
++++++++++++++++++++++++++++++++++++++++++++++++
 + TIMESTAMP: 32.7463
REINVADE (43261)
  + pid: 43261
  + min_cores: 1
  + max_cores: 512
  + scalability graph: 
1, 1.36329, 1.52423, 1.62017, 1.68565, 1.73398, 1.77154, 1.80182, 1.8269, 1.84812, 1.86637, 1.88229, 1.89634, 1.90885, 1.92009, 1.93026, 1.93952, 1.94799, 1.95579, 1.963, 1.96968, 1.9759, 1.98172, 1.98716, 1.99228, 1.9971, 2.00164, 2.00594, 2.01002, 2.01389, 2.01757, 2.02108, 2.02443, 2.02763, 2.03069, 2.03362, 2.03644, 2.03914, 2.04173, 2.04423, 
Number of clients: 7

+++++++++++++++++++++++++++++++++++++++++++++++++++++++++++
+ Client Mapping:
  > Client 43258 (5):	0 12 13 14 15 
  > Client 43259 (5):	2 24 25 26 27 
  > Client 43261 (6):	5 28 29 30 31 1 
  > Client 43262 (5):	3 20 21 22 23 
  > Client 43260 (5):	7 8 9 10 11 
  > Client 43256 (5):	4 16 17 18 19 
  > Client 43255 (5):	6 32 33 34 35 

+ Core Mapping:	43258 43261 43259 43262 43256 43261 43255 43260 43260 43260 43260 43260 43258 43258 43258 43258 43256 43256 43256 43256 43262 43262 43262 43262 43259 43259 43259 43259 43261 43261 43261 43261 43255 43255 43255 43255 0 0 0 0 
+ Optimal point: 6 6 6 6 6 5 5 
+++++++++++++++++++++++++++++++++++++++++++++++++++++++++++
++++++++++++++++++++++++++++++++++++++++++++++++
 + TIMESTAMP: 32.7465
REINVADE (43259)
  + pid: 43259
  + min_cores: 1
  + max_cores: 512
  + scalability graph: 
1, 1.36329, 1.52423, 1.62017, 1.68565, 1.73398, 1.77154, 1.80182, 1.8269, 1.84812, 1.86637, 1.88229, 1.89634, 1.90885, 1.92009, 1.93026, 1.93952, 1.94799, 1.95579, 1.963, 1.96968, 1.9759, 1.98172, 1.98716, 1.99228, 1.9971, 2.00164, 2.00594, 2.01002, 2.01389, 2.01757, 2.02108, 2.02443, 2.02763, 2.03069, 2.03362, 2.03644, 2.03914, 2.04173, 2.04423, 
Number of clients: 7

+++++++++++++++++++++++++++++++++++++++++++++++++++++++++++
+ Client Mapping:
  > Client 43258 (5):	0 12 13 14 15 
  > Client 43259 (6):	2 24 25 26 27 36 
  > Client 43261 (6):	5 28 29 30 31 1 
  > Client 43262 (5):	3 20 21 22 23 
  > Client 43260 (5):	7 8 9 10 11 
  > Client 43256 (5):	4 16 17 18 19 
  > Client 43255 (5):	6 32 33 34 35 

+ Core Mapping:	43258 43261 43259 43262 43256 43261 43255 43260 43260 43260 43260 43260 43258 43258 43258 43258 43256 43256 43256 43256 43262 43262 43262 43262 43259 43259 43259 43259 43261 43261 43261 43261 43255 43255 43255 43255 43259 0 0 0 
+ Optimal point: 6 6 6 6 6 5 5 
+++++++++++++++++++++++++++++++++++++++++++++++++++++++++++
++++++++++++++++++++++++++++++++++++++++++++++++
 + TIMESTAMP: 32.7466
REINVADE (43262)
  + pid: 43262
  + min_cores: 1
  + max_cores: 512
  + scalability graph: 
1, 1.36329, 1.52423, 1.62017, 1.68565, 1.73398, 1.77154, 1.80182, 1.8269, 1.84812, 1.86637, 1.88229, 1.89634, 1.90885, 1.92009, 1.93026, 1.93952, 1.94799, 1.95579, 1.963, 1.96968, 1.9759, 1.98172, 1.98716, 1.99228, 1.9971, 2.00164, 2.00594, 2.01002, 2.01389, 2.01757, 2.02108, 2.02443, 2.02763, 2.03069, 2.03362, 2.03644, 2.03914, 2.04173, 2.04423, 
Number of clients: 7

+++++++++++++++++++++++++++++++++++++++++++++++++++++++++++
+ Client Mapping:
  > Client 43258 (5):	0 12 13 14 15 
  > Client 43259 (6):	2 24 25 26 27 36 
  > Client 43261 (6):	5 28 29 30 31 1 
  > Client 43262 (6):	3 20 21 22 23 37 
  > Client 43260 (5):	7 8 9 10 11 
  > Client 43256 (5):	4 16 17 18 19 
  > Client 43255 (5):	6 32 33 34 35 

+ Core Mapping:	43258 43261 43259 43262 43256 43261 43255 43260 43260 43260 43260 43260 43258 43258 43258 43258 43256 43256 43256 43256 43262 43262 43262 43262 43259 43259 43259 43259 43261 43261 43261 43261 43255 43255 43255 43255 43259 43262 0 0 
+ Optimal point: 6 6 6 6 6 5 5 
+++++++++++++++++++++++++++++++++++++++++++++++++++++++++++
++++++++++++++++++++++++++++++++++++++++++++++++
 + TIMESTAMP: 32.7467
REINVADE (43260)
  + pid: 43260
  + min_cores: 1
  + max_cores: 512
  + scalability graph: 
1, 1.36329, 1.52423, 1.62017, 1.68565, 1.73398, 1.77154, 1.80182, 1.8269, 1.84812, 1.86637, 1.88229, 1.89634, 1.90885, 1.92009, 1.93026, 1.93952, 1.94799, 1.95579, 1.963, 1.96968, 1.9759, 1.98172, 1.98716, 1.99228, 1.9971, 2.00164, 2.00594, 2.01002, 2.01389, 2.01757, 2.02108, 2.02443, 2.02763, 2.03069, 2.03362, 2.03644, 2.03914, 2.04173, 2.04423, 
Number of clients: 7

+++++++++++++++++++++++++++++++++++++++++++++++++++++++++++
+ Client Mapping:
  > Client 43258 (5):	0 12 13 14 15 
  > Client 43259 (6):	2 24 25 26 27 36 
  > Client 43261 (6):	5 28 29 30 31 1 
  > Client 43262 (6):	3 20 21 22 23 37 
  > Client 43260 (6):	7 8 9 10 11 38 
  > Client 43256 (5):	4 16 17 18 19 
  > Client 43255 (5):	6 32 33 34 35 

+ Core Mapping:	43258 43261 43259 43262 43256 43261 43255 43260 43260 43260 43260 43260 43258 43258 43258 43258 43256 43256 43256 43256 43262 43262 43262 43262 43259 43259 43259 43259 43261 43261 43261 43261 43255 43255 43255 43255 43259 43262 43260 0 
+ Optimal point: 6 6 6 6 6 5 5 
+++++++++++++++++++++++++++++++++++++++++++++++++++++++++++
++++++++++++++++++++++++++++++++++++++++++++++++
 + TIMESTAMP: 32.7468
REINVADE (43258)
  + pid: 43258
  + min_cores: 1
  + max_cores: 512
  + scalability graph: 
1, 1.36329, 1.52423, 1.62017, 1.68565, 1.73398, 1.77154, 1.80182, 1.8269, 1.84812, 1.86637, 1.88229, 1.89634, 1.90885, 1.92009, 1.93026, 1.93952, 1.94799, 1.95579, 1.963, 1.96968, 1.9759, 1.98172, 1.98716, 1.99228, 1.9971, 2.00164, 2.00594, 2.01002, 2.01389, 2.01757, 2.02108, 2.02443, 2.02763, 2.03069, 2.03362, 2.03644, 2.03914, 2.04173, 2.04423, 
Number of clients: 7

+++++++++++++++++++++++++++++++++++++++++++++++++++++++++++
+ Client Mapping:
  > Client 43258 (6):	0 12 13 14 15 39 
  > Client 43259 (6):	2 24 25 26 27 36 
  > Client 43261 (6):	5 28 29 30 31 1 
  > Client 43262 (6):	3 20 21 22 23 37 
  > Client 43260 (6):	7 8 9 10 11 38 
  > Client 43256 (5):	4 16 17 18 19 
  > Client 43255 (5):	6 32 33 34 35 

+ Core Mapping:	43258 43261 43259 43262 43256 43261 43255 43260 43260 43260 43260 43260 43258 43258 43258 43258 43256 43256 43256 43256 43262 43262 43262 43262 43259 43259 43259 43259 43261 43261 43261 43261 43255 43255 43255 43255 43259 43262 43260 43258 
+ Optimal point: 6 6 6 6 6 5 5 
+++++++++++++++++++++++++++++++++++++++++++++++++++++++++++
CLIENT SHUTDOWN: client 43260
 + TIMESTAMP: 32.7501
+++++++++++++++++++++++++++++++++++++++++++++++++++++++++++
+ Client Mapping:
  > Client 43258 (6):	0 12 13 14 15 39 
  > Client 43259 (6):	2 24 25 26 27 36 
  > Client 43261 (6):	5 28 29 30 31 1 
  > Client 43262 (6):	3 20 21 22 23 37 
  > Client 43260 (0):	
  > Client 43256 (5):	4 16 17 18 19 
  > Client 43255 (5):	6 32 33 34 35 

+ Core Mapping:	43258 43261 43259 43262 43256 43261 43255 0 0 0 0 0 43258 43258 43258 43258 43256 43256 43256 43256 43262 43262 43262 43262 43259 43259 43259 43259 43261 43261 43261 43261 43255 43255 43255 43255 43259 43262 0 43258 
+ Optimal point: 6 6 6 6 6 5 5 
+++++++++++++++++++++++++++++++++++++++++++++++++++++++++++
client (43260) shutdown hint: 437.984
sum_client_shutdown_hint: 875.968
++++++++++++++++++++++++++++++++++++++++++++++++
 + TIMESTAMP: 32.7503
REINVADE (43255)
  + pid: 43255
  + min_cores: 1
  + max_cores: 512
  + scalability graph: 
1, 1.36329, 1.52423, 1.62017, 1.68565, 1.73398, 1.77154, 1.80182, 1.8269, 1.84812, 1.86637, 1.88229, 1.89634, 1.90885, 1.92009, 1.93026, 1.93952, 1.94799, 1.95579, 1.963, 1.96968, 1.9759, 1.98172, 1.98716, 1.99228, 1.9971, 2.00164, 2.00594, 2.01002, 2.01389, 2.01757, 2.02108, 2.02443, 2.02763, 2.03069, 2.03362, 2.03644, 2.03914, 2.04173, 2.04423, 
Number of clients: 6

+++++++++++++++++++++++++++++++++++++++++++++++++++++++++++
+ Client Mapping:
  > Client 43258 (6):	0 12 13 14 15 39 
  > Client 43259 (6):	2 24 25 26 27 36 
  > Client 43261 (6):	5 28 29 30 31 1 
  > Client 43262 (6):	3 20 21 22 23 37 
  > Client 43256 (5):	4 16 17 18 19 
  > Client 43255 (6):	6 32 33 34 35 7 

+ Core Mapping:	43258 43261 43259 43262 43256 43261 43255 43255 0 0 0 0 43258 43258 43258 43258 43256 43256 43256 43256 43262 43262 43262 43262 43259 43259 43259 43259 43261 43261 43261 43261 43255 43255 43255 43255 43259 43262 0 43258 
+ Optimal point: 7 7 7 7 6 6 
+++++++++++++++++++++++++++++++++++++++++++++++++++++++++++
++++++++++++++++++++++++++++++++++++++++++++++++
 + TIMESTAMP: 32.7504
REINVADE (43259)
  + pid: 43259
  + min_cores: 1
  + max_cores: 512
  + scalability graph: 
1, 1.36329, 1.52423, 1.62017, 1.68565, 1.73398, 1.77154, 1.80182, 1.8269, 1.84812, 1.86637, 1.88229, 1.89634, 1.90885, 1.92009, 1.93026, 1.93952, 1.94799, 1.95579, 1.963, 1.96968, 1.9759, 1.98172, 1.98716, 1.99228, 1.9971, 2.00164, 2.00594, 2.01002, 2.01389, 2.01757, 2.02108, 2.02443, 2.02763, 2.03069, 2.03362, 2.03644, 2.03914, 2.04173, 2.04423, 
Number of clients: 6

+++++++++++++++++++++++++++++++++++++++++++++++++++++++++++
+ Client Mapping:
  > Client 43258 (6):	0 12 13 14 15 39 
  > Client 43259 (7):	2 24 25 26 27 36 8 
  > Client 43261 (6):	5 28 29 30 31 1 
  > Client 43262 (6):	3 20 21 22 23 37 
  > Client 43256 (5):	4 16 17 18 19 
  > Client 43255 (6):	6 32 33 34 35 7 

+ Core Mapping:	43258 43261 43259 43262 43256 43261 43255 43255 43259 0 0 0 43258 43258 43258 43258 43256 43256 43256 43256 43262 43262 43262 43262 43259 43259 43259 43259 43261 43261 43261 43261 43255 43255 43255 43255 43259 43262 0 43258 
+ Optimal point: 7 7 7 7 6 6 
+++++++++++++++++++++++++++++++++++++++++++++++++++++++++++
++++++++++++++++++++++++++++++++++++++++++++++++
 + TIMESTAMP: 32.7505
REINVADE (43261)
  + pid: 43261
  + min_cores: 1
  + max_cores: 512
  + scalability graph: 
1, 1.36329, 1.52423, 1.62017, 1.68565, 1.73398, 1.77154, 1.80182, 1.8269, 1.84812, 1.86637, 1.88229, 1.89634, 1.90885, 1.92009, 1.93026, 1.93952, 1.94799, 1.95579, 1.963, 1.96968, 1.9759, 1.98172, 1.98716, 1.99228, 1.9971, 2.00164, 2.00594, 2.01002, 2.01389, 2.01757, 2.02108, 2.02443, 2.02763, 2.03069, 2.03362, 2.03644, 2.03914, 2.04173, 2.04423, 
Number of clients: 6

+++++++++++++++++++++++++++++++++++++++++++++++++++++++++++
+ Client Mapping:
  > Client 43258 (6):	0 12 13 14 15 39 
  > Client 43259 (7):	2 24 25 26 27 36 8 
  > Client 43261 (7):	5 28 29 30 31 1 9 
  > Client 43262 (6):	3 20 21 22 23 37 
  > Client 43256 (5):	4 16 17 18 19 
  > Client 43255 (6):	6 32 33 34 35 7 

+ Core Mapping:	43258 43261 43259 43262 43256 43261 43255 43255 43259 43261 0 0 43258 43258 43258 43258 43256 43256 43256 43256 43262 43262 43262 43262 43259 43259 43259 43259 43261 43261 43261 43261 43255 43255 43255 43255 43259 43262 0 43258 
+ Optimal point: 7 7 7 7 6 6 
+++++++++++++++++++++++++++++++++++++++++++++++++++++++++++
++++++++++++++++++++++++++++++++++++++++++++++++
 + TIMESTAMP: 32.7507
REINVADE (43256)
  + pid: 43256
  + min_cores: 1
  + max_cores: 512
  + scalability graph: 
1, 1.36329, 1.52423, 1.62017, 1.68565, 1.73398, 1.77154, 1.80182, 1.8269, 1.84812, 1.86637, 1.88229, 1.89634, 1.90885, 1.92009, 1.93026, 1.93952, 1.94799, 1.95579, 1.963, 1.96968, 1.9759, 1.98172, 1.98716, 1.99228, 1.9971, 2.00164, 2.00594, 2.01002, 2.01389, 2.01757, 2.02108, 2.02443, 2.02763, 2.03069, 2.03362, 2.03644, 2.03914, 2.04173, 2.04423, 
Number of clients: 6

+++++++++++++++++++++++++++++++++++++++++++++++++++++++++++
+ Client Mapping:
  > Client 43258 (6):	0 12 13 14 15 39 
  > Client 43259 (7):	2 24 25 26 27 36 8 
  > Client 43261 (7):	5 28 29 30 31 1 9 
  > Client 43262 (6):	3 20 21 22 23 37 
  > Client 43256 (6):	4 16 17 18 19 10 
  > Client 43255 (6):	6 32 33 34 35 7 

+ Core Mapping:	43258 43261 43259 43262 43256 43261 43255 43255 43259 43261 43256 0 43258 43258 43258 43258 43256 43256 43256 43256 43262 43262 43262 43262 43259 43259 43259 43259 43261 43261 43261 43261 43255 43255 43255 43255 43259 43262 0 43258 
+ Optimal point: 7 7 7 7 6 6 
+++++++++++++++++++++++++++++++++++++++++++++++++++++++++++
++++++++++++++++++++++++++++++++++++++++++++++++
 + TIMESTAMP: 32.7508
REINVADE (43258)
  + pid: 43258
  + min_cores: 1
  + max_cores: 512
  + scalability graph: 
1, 1.36329, 1.52423, 1.62017, 1.68565, 1.73398, 1.77154, 1.80182, 1.8269, 1.84812, 1.86637, 1.88229, 1.89634, 1.90885, 1.92009, 1.93026, 1.93952, 1.94799, 1.95579, 1.963, 1.96968, 1.9759, 1.98172, 1.98716, 1.99228, 1.9971, 2.00164, 2.00594, 2.01002, 2.01389, 2.01757, 2.02108, 2.02443, 2.02763, 2.03069, 2.03362, 2.03644, 2.03914, 2.04173, 2.04423, 
Number of clients: 6

+++++++++++++++++++++++++++++++++++++++++++++++++++++++++++
+ Client Mapping:
  > Client 43258 (7):	0 12 13 14 15 39 11 
  > Client 43259 (7):	2 24 25 26 27 36 8 
  > Client 43261 (7):	5 28 29 30 31 1 9 
  > Client 43262 (6):	3 20 21 22 23 37 
  > Client 43256 (6):	4 16 17 18 19 10 
  > Client 43255 (6):	6 32 33 34 35 7 

+ Core Mapping:	43258 43261 43259 43262 43256 43261 43255 43255 43259 43261 43256 43258 43258 43258 43258 43258 43256 43256 43256 43256 43262 43262 43262 43262 43259 43259 43259 43259 43261 43261 43261 43261 43255 43255 43255 43255 43259 43262 0 43258 
+ Optimal point: 7 7 7 7 6 6 
+++++++++++++++++++++++++++++++++++++++++++++++++++++++++++
++++++++++++++++++++++++++++++++++++++++++++++++
 + TIMESTAMP: 32.7509
REINVADE (43262)
  + pid: 43262
  + min_cores: 1
  + max_cores: 512
  + scalability graph: 
1, 1.36329, 1.52423, 1.62017, 1.68565, 1.73398, 1.77154, 1.80182, 1.8269, 1.84812, 1.86637, 1.88229, 1.89634, 1.90885, 1.92009, 1.93026, 1.93952, 1.94799, 1.95579, 1.963, 1.96968, 1.9759, 1.98172, 1.98716, 1.99228, 1.9971, 2.00164, 2.00594, 2.01002, 2.01389, 2.01757, 2.02108, 2.02443, 2.02763, 2.03069, 2.03362, 2.03644, 2.03914, 2.04173, 2.04423, 
Number of clients: 6

+++++++++++++++++++++++++++++++++++++++++++++++++++++++++++
+ Client Mapping:
  > Client 43258 (7):	0 12 13 14 15 39 11 
  > Client 43259 (7):	2 24 25 26 27 36 8 
  > Client 43261 (7):	5 28 29 30 31 1 9 
  > Client 43262 (7):	3 20 21 22 23 37 38 
  > Client 43256 (6):	4 16 17 18 19 10 
  > Client 43255 (6):	6 32 33 34 35 7 

+ Core Mapping:	43258 43261 43259 43262 43256 43261 43255 43255 43259 43261 43256 43258 43258 43258 43258 43258 43256 43256 43256 43256 43262 43262 43262 43262 43259 43259 43259 43259 43261 43261 43261 43261 43255 43255 43255 43255 43259 43262 43262 43258 
+ Optimal point: 7 7 7 7 6 6 
+++++++++++++++++++++++++++++++++++++++++++++++++++++++++++
CLIENT SHUTDOWN: client 43255
 + TIMESTAMP: 32.758
+++++++++++++++++++++++++++++++++++++++++++++++++++++++++++
+ Client Mapping:
  > Client 43258 (7):	0 12 13 14 15 39 11 
  > Client 43259 (7):	2 24 25 26 27 36 8 
  > Client 43261 (7):	5 28 29 30 31 1 9 
  > Client 43262 (7):	3 20 21 22 23 37 38 
  > Client 43256 (6):	4 16 17 18 19 10 
  > Client 43255 (0):	

+ Core Mapping:	43258 43261 43259 43262 43256 43261 0 0 43259 43261 43256 43258 43258 43258 43258 43258 43256 43256 43256 43256 43262 43262 43262 43262 43259 43259 43259 43259 43261 43261 43261 43261 0 0 0 0 43259 43262 43262 43258 
+ Optimal point: 7 7 7 7 6 6 
+++++++++++++++++++++++++++++++++++++++++++++++++++++++++++
client (43255) shutdown hint: 437.984
sum_client_shutdown_hint: 1313.95
++++++++++++++++++++++++++++++++++++++++++++++++
 + TIMESTAMP: 32.7581
REINVADE (43261)
  + pid: 43261
  + min_cores: 1
  + max_cores: 512
  + scalability graph: 
1, 1.36329, 1.52423, 1.62017, 1.68565, 1.73398, 1.77154, 1.80182, 1.8269, 1.84812, 1.86637, 1.88229, 1.89634, 1.90885, 1.92009, 1.93026, 1.93952, 1.94799, 1.95579, 1.963, 1.96968, 1.9759, 1.98172, 1.98716, 1.99228, 1.9971, 2.00164, 2.00594, 2.01002, 2.01389, 2.01757, 2.02108, 2.02443, 2.02763, 2.03069, 2.03362, 2.03644, 2.03914, 2.04173, 2.04423, 
Number of clients: 5

+++++++++++++++++++++++++++++++++++++++++++++++++++++++++++
+ Client Mapping:
  > Client 43258 (7):	0 12 13 14 15 39 11 
  > Client 43259 (7):	2 24 25 26 27 36 8 
  > Client 43261 (8):	5 28 29 30 31 1 9 6 
  > Client 43262 (7):	3 20 21 22 23 37 38 
  > Client 43256 (6):	4 16 17 18 19 10 

+ Core Mapping:	43258 43261 43259 43262 43256 43261 43261 0 43259 43261 43256 43258 43258 43258 43258 43258 43256 43256 43256 43256 43262 43262 43262 43262 43259 43259 43259 43259 43261 43261 43261 43261 0 0 0 0 43259 43262 43262 43258 
+ Optimal point: 8 8 8 8 8 
+++++++++++++++++++++++++++++++++++++++++++++++++++++++++++
++++++++++++++++++++++++++++++++++++++++++++++++
 + TIMESTAMP: 32.7584
REINVADE (43256)
  + pid: 43256
  + min_cores: 1
  + max_cores: 512
  + scalability graph: 
1, 1.36329, 1.52423, 1.62017, 1.68565, 1.73398, 1.77154, 1.80182, 1.8269, 1.84812, 1.86637, 1.88229, 1.89634, 1.90885, 1.92009, 1.93026, 1.93952, 1.94799, 1.95579, 1.963, 1.96968, 1.9759, 1.98172, 1.98716, 1.99228, 1.9971, 2.00164, 2.00594, 2.01002, 2.01389, 2.01757, 2.02108, 2.02443, 2.02763, 2.03069, 2.03362, 2.03644, 2.03914, 2.04173, 2.04423, 
Number of clients: 5

+++++++++++++++++++++++++++++++++++++++++++++++++++++++++++
+ Client Mapping:
  > Client 43258 (7):	0 12 13 14 15 39 11 
  > Client 43259 (7):	2 24 25 26 27 36 8 
  > Client 43261 (8):	5 28 29 30 31 1 9 6 
  > Client 43262 (7):	3 20 21 22 23 37 38 
  > Client 43256 (8):	4 16 17 18 19 10 7 32 

+ Core Mapping:	43258 43261 43259 43262 43256 43261 43261 43256 43259 43261 43256 43258 43258 43258 43258 43258 43256 43256 43256 43256 43262 43262 43262 43262 43259 43259 43259 43259 43261 43261 43261 43261 43256 0 0 0 43259 43262 43262 43258 
+ Optimal point: 8 8 8 8 8 
+++++++++++++++++++++++++++++++++++++++++++++++++++++++++++
++++++++++++++++++++++++++++++++++++++++++++++++
 + TIMESTAMP: 32.7587
REINVADE (43262)
  + pid: 43262
  + min_cores: 1
  + max_cores: 512
  + scalability graph: 
1, 1.36329, 1.52423, 1.62017, 1.68565, 1.73398, 1.77154, 1.80182, 1.8269, 1.84812, 1.86637, 1.88229, 1.89634, 1.90885, 1.92009, 1.93026, 1.93952, 1.94799, 1.95579, 1.963, 1.96968, 1.9759, 1.98172, 1.98716, 1.99228, 1.9971, 2.00164, 2.00594, 2.01002, 2.01389, 2.01757, 2.02108, 2.02443, 2.02763, 2.03069, 2.03362, 2.03644, 2.03914, 2.04173, 2.04423, 
Number of clients: 5

+++++++++++++++++++++++++++++++++++++++++++++++++++++++++++
+ Client Mapping:
  > Client 43258 (7):	0 12 13 14 15 39 11 
  > Client 43259 (7):	2 24 25 26 27 36 8 
  > Client 43261 (8):	5 28 29 30 31 1 9 6 
  > Client 43262 (8):	3 20 21 22 23 37 38 33 
  > Client 43256 (8):	4 16 17 18 19 10 7 32 

+ Core Mapping:	43258 43261 43259 43262 43256 43261 43261 43256 43259 43261 43256 43258 43258 43258 43258 43258 43256 43256 43256 43256 43262 43262 43262 43262 43259 43259 43259 43259 43261 43261 43261 43261 43256 43262 0 0 43259 43262 43262 43258 
+ Optimal point: 8 8 8 8 8 
+++++++++++++++++++++++++++++++++++++++++++++++++++++++++++
++++++++++++++++++++++++++++++++++++++++++++++++
 + TIMESTAMP: 32.7588
REINVADE (43259)
  + pid: 43259
  + min_cores: 1
  + max_cores: 512
  + scalability graph: 
1, 1.36329, 1.52423, 1.62017, 1.68565, 1.73398, 1.77154, 1.80182, 1.8269, 1.84812, 1.86637, 1.88229, 1.89634, 1.90885, 1.92009, 1.93026, 1.93952, 1.94799, 1.95579, 1.963, 1.96968, 1.9759, 1.98172, 1.98716, 1.99228, 1.9971, 2.00164, 2.00594, 2.01002, 2.01389, 2.01757, 2.02108, 2.02443, 2.02763, 2.03069, 2.03362, 2.03644, 2.03914, 2.04173, 2.04423, 
Number of clients: 5

+++++++++++++++++++++++++++++++++++++++++++++++++++++++++++
+ Client Mapping:
  > Client 43258 (7):	0 12 13 14 15 39 11 
  > Client 43259 (8):	2 24 25 26 27 36 8 34 
  > Client 43261 (8):	5 28 29 30 31 1 9 6 
  > Client 43262 (8):	3 20 21 22 23 37 38 33 
  > Client 43256 (8):	4 16 17 18 19 10 7 32 

+ Core Mapping:	43258 43261 43259 43262 43256 43261 43261 43256 43259 43261 43256 43258 43258 43258 43258 43258 43256 43256 43256 43256 43262 43262 43262 43262 43259 43259 43259 43259 43261 43261 43261 43261 43256 43262 43259 0 43259 43262 43262 43258 
+ Optimal point: 8 8 8 8 8 
+++++++++++++++++++++++++++++++++++++++++++++++++++++++++++
++++++++++++++++++++++++++++++++++++++++++++++++
 + TIMESTAMP: 32.7589
REINVADE (43258)
  + pid: 43258
  + min_cores: 1
  + max_cores: 512
  + scalability graph: 
1, 1.36329, 1.52423, 1.62017, 1.68565, 1.73398, 1.77154, 1.80182, 1.8269, 1.84812, 1.86637, 1.88229, 1.89634, 1.90885, 1.92009, 1.93026, 1.93952, 1.94799, 1.95579, 1.963, 1.96968, 1.9759, 1.98172, 1.98716, 1.99228, 1.9971, 2.00164, 2.00594, 2.01002, 2.01389, 2.01757, 2.02108, 2.02443, 2.02763, 2.03069, 2.03362, 2.03644, 2.03914, 2.04173, 2.04423, 
Number of clients: 5

+++++++++++++++++++++++++++++++++++++++++++++++++++++++++++
+ Client Mapping:
  > Client 43258 (8):	0 12 13 14 15 39 11 35 
  > Client 43259 (8):	2 24 25 26 27 36 8 34 
  > Client 43261 (8):	5 28 29 30 31 1 9 6 
  > Client 43262 (8):	3 20 21 22 23 37 38 33 
  > Client 43256 (8):	4 16 17 18 19 10 7 32 

+ Core Mapping:	43258 43261 43259 43262 43256 43261 43261 43256 43259 43261 43256 43258 43258 43258 43258 43258 43256 43256 43256 43256 43262 43262 43262 43262 43259 43259 43259 43259 43261 43261 43261 43261 43256 43262 43259 43258 43259 43262 43262 43258 
+ Optimal point: 8 8 8 8 8 
+++++++++++++++++++++++++++++++++++++++++++++++++++++++++++
CLIENT SHUTDOWN: client 43261
 + TIMESTAMP: 32.877
+++++++++++++++++++++++++++++++++++++++++++++++++++++++++++
+ Client Mapping:
  > Client 43258 (8):	0 12 13 14 15 39 11 35 
  > Client 43259 (8):	2 24 25 26 27 36 8 34 
  > Client 43261 (0):	
  > Client 43262 (8):	3 20 21 22 23 37 38 33 
  > Client 43256 (8):	4 16 17 18 19 10 7 32 

+ Core Mapping:	43258 0 43259 43262 43256 0 0 43256 43259 0 43256 43258 43258 43258 43258 43258 43256 43256 43256 43256 43262 43262 43262 43262 43259 43259 43259 43259 0 0 0 0 43256 43262 43259 43258 43259 43262 43262 43258 
+ Optimal point: 8 8 8 8 8 
+++++++++++++++++++++++++++++++++++++++++++++++++++++++++++
client (43261) shutdown hint: 437.984
sum_client_shutdown_hint: 1751.94
++++++++++++++++++++++++++++++++++++++++++++++++
 + TIMESTAMP: 32.8771
REINVADE (43259)
  + pid: 43259
  + min_cores: 1
  + max_cores: 512
  + scalability graph: 
1, 1.36329, 1.52423, 1.62017, 1.68565, 1.73398, 1.77154, 1.80182, 1.8269, 1.84812, 1.86637, 1.88229, 1.89634, 1.90885, 1.92009, 1.93026, 1.93952, 1.94799, 1.95579, 1.963, 1.96968, 1.9759, 1.98172, 1.98716, 1.99228, 1.9971, 2.00164, 2.00594, 2.01002, 2.01389, 2.01757, 2.02108, 2.02443, 2.02763, 2.03069, 2.03362, 2.03644, 2.03914, 2.04173, 2.04423, 
Number of clients: 4

+++++++++++++++++++++++++++++++++++++++++++++++++++++++++++
+ Client Mapping:
  > Client 43258 (8):	0 12 13 14 15 39 11 35 
  > Client 43259 (10):	2 24 25 26 27 36 8 34 1 5 
  > Client 43262 (8):	3 20 21 22 23 37 38 33 
  > Client 43256 (8):	4 16 17 18 19 10 7 32 

+ Core Mapping:	43258 43259 43259 43262 43256 43259 0 43256 43259 0 43256 43258 43258 43258 43258 43258 43256 43256 43256 43256 43262 43262 43262 43262 43259 43259 43259 43259 0 0 0 0 43256 43262 43259 43258 43259 43262 43262 43258 
+ Optimal point: 10 10 10 10 
+++++++++++++++++++++++++++++++++++++++++++++++++++++++++++
++++++++++++++++++++++++++++++++++++++++++++++++
 + TIMESTAMP: 32.8773
REINVADE (43258)
  + pid: 43258
  + min_cores: 1
  + max_cores: 512
  + scalability graph: 
1, 1.36329, 1.52423, 1.62017, 1.68565, 1.73398, 1.77154, 1.80182, 1.8269, 1.84812, 1.86637, 1.88229, 1.89634, 1.90885, 1.92009, 1.93026, 1.93952, 1.94799, 1.95579, 1.963, 1.96968, 1.9759, 1.98172, 1.98716, 1.99228, 1.9971, 2.00164, 2.00594, 2.01002, 2.01389, 2.01757, 2.02108, 2.02443, 2.02763, 2.03069, 2.03362, 2.03644, 2.03914, 2.04173, 2.04423, 
Number of clients: 4

+++++++++++++++++++++++++++++++++++++++++++++++++++++++++++
+ Client Mapping:
  > Client 43258 (10):	0 12 13 14 15 39 11 35 6 9 
  > Client 43259 (10):	2 24 25 26 27 36 8 34 1 5 
  > Client 43262 (8):	3 20 21 22 23 37 38 33 
  > Client 43256 (8):	4 16 17 18 19 10 7 32 

+ Core Mapping:	43258 43259 43259 43262 43256 43259 43258 43256 43259 43258 43256 43258 43258 43258 43258 43258 43256 43256 43256 43256 43262 43262 43262 43262 43259 43259 43259 43259 0 0 0 0 43256 43262 43259 43258 43259 43262 43262 43258 
+ Optimal point: 10 10 10 10 
+++++++++++++++++++++++++++++++++++++++++++++++++++++++++++
++++++++++++++++++++++++++++++++++++++++++++++++
 + TIMESTAMP: 32.8776
REINVADE (43256)
  + pid: 43256
  + min_cores: 1
  + max_cores: 512
  + scalability graph: 
1, 1.36329, 1.52423, 1.62017, 1.68565, 1.73398, 1.77154, 1.80182, 1.8269, 1.84812, 1.86637, 1.88229, 1.89634, 1.90885, 1.92009, 1.93026, 1.93952, 1.94799, 1.95579, 1.963, 1.96968, 1.9759, 1.98172, 1.98716, 1.99228, 1.9971, 2.00164, 2.00594, 2.01002, 2.01389, 2.01757, 2.02108, 2.02443, 2.02763, 2.03069, 2.03362, 2.03644, 2.03914, 2.04173, 2.04423, 
Number of clients: 4

+++++++++++++++++++++++++++++++++++++++++++++++++++++++++++
+ Client Mapping:
  > Client 43258 (10):	0 12 13 14 15 39 11 35 6 9 
  > Client 43259 (10):	2 24 25 26 27 36 8 34 1 5 
  > Client 43262 (8):	3 20 21 22 23 37 38 33 
  > Client 43256 (10):	4 16 17 18 19 10 7 32 28 29 

+ Core Mapping:	43258 43259 43259 43262 43256 43259 43258 43256 43259 43258 43256 43258 43258 43258 43258 43258 43256 43256 43256 43256 43262 43262 43262 43262 43259 43259 43259 43259 43256 43256 0 0 43256 43262 43259 43258 43259 43262 43262 43258 
+ Optimal point: 10 10 10 10 
+++++++++++++++++++++++++++++++++++++++++++++++++++++++++++
++++++++++++++++++++++++++++++++++++++++++++++++
 + TIMESTAMP: 32.8777
REINVADE (43262)
  + pid: 43262
  + min_cores: 1
  + max_cores: 512
  + scalability graph: 
1, 1.36329, 1.52423, 1.62017, 1.68565, 1.73398, 1.77154, 1.80182, 1.8269, 1.84812, 1.86637, 1.88229, 1.89634, 1.90885, 1.92009, 1.93026, 1.93952, 1.94799, 1.95579, 1.963, 1.96968, 1.9759, 1.98172, 1.98716, 1.99228, 1.9971, 2.00164, 2.00594, 2.01002, 2.01389, 2.01757, 2.02108, 2.02443, 2.02763, 2.03069, 2.03362, 2.03644, 2.03914, 2.04173, 2.04423, 
Number of clients: 4

+++++++++++++++++++++++++++++++++++++++++++++++++++++++++++
+ Client Mapping:
  > Client 43258 (10):	0 12 13 14 15 39 11 35 6 9 
  > Client 43259 (10):	2 24 25 26 27 36 8 34 1 5 
  > Client 43262 (10):	3 20 21 22 23 37 38 33 30 31 
  > Client 43256 (10):	4 16 17 18 19 10 7 32 28 29 

+ Core Mapping:	43258 43259 43259 43262 43256 43259 43258 43256 43259 43258 43256 43258 43258 43258 43258 43258 43256 43256 43256 43256 43262 43262 43262 43262 43259 43259 43259 43259 43256 43256 43262 43262 43256 43262 43259 43258 43259 43262 43262 43258 
+ Optimal point: 10 10 10 10 
+++++++++++++++++++++++++++++++++++++++++++++++++++++++++++
CLIENT SHUTDOWN: client 43262
 + TIMESTAMP: 32.9283
+++++++++++++++++++++++++++++++++++++++++++++++++++++++++++
+ Client Mapping:
  > Client 43258 (10):	0 12 13 14 15 39 11 35 6 9 
  > Client 43259 (10):	2 24 25 26 27 36 8 34 1 5 
  > Client 43262 (0):	
  > Client 43256 (10):	4 16 17 18 19 10 7 32 28 29 

+ Core Mapping:	43258 43259 43259 0 43256 43259 43258 43256 43259 43258 43256 43258 43258 43258 43258 43258 43256 43256 43256 43256 0 0 0 0 43259 43259 43259 43259 43256 43256 0 0 43256 0 43259 43258 43259 0 0 43258 
+ Optimal point: 10 10 10 10 
+++++++++++++++++++++++++++++++++++++++++++++++++++++++++++
client (43262) shutdown hint: 437.984
sum_client_shutdown_hint: 2189.92
++++++++++++++++++++++++++++++++++++++++++++++++
 + TIMESTAMP: 32.9284
REINVADE (43259)
  + pid: 43259
  + min_cores: 1
  + max_cores: 512
  + scalability graph: 
1, 1.36329, 1.52423, 1.62017, 1.68565, 1.73398, 1.77154, 1.80182, 1.8269, 1.84812, 1.86637, 1.88229, 1.89634, 1.90885, 1.92009, 1.93026, 1.93952, 1.94799, 1.95579, 1.963, 1.96968, 1.9759, 1.98172, 1.98716, 1.99228, 1.9971, 2.00164, 2.00594, 2.01002, 2.01389, 2.01757, 2.02108, 2.02443, 2.02763, 2.03069, 2.03362, 2.03644, 2.03914, 2.04173, 2.04423, 
Number of clients: 3

+++++++++++++++++++++++++++++++++++++++++++++++++++++++++++
+ Client Mapping:
  > Client 43258 (10):	0 12 13 14 15 39 11 35 6 9 
  > Client 43259 (13):	2 24 25 26 27 36 8 34 1 5 3 20 21 
  > Client 43256 (10):	4 16 17 18 19 10 7 32 28 29 

+ Core Mapping:	43258 43259 43259 43259 43256 43259 43258 43256 43259 43258 43256 43258 43258 43258 43258 43258 43256 43256 43256 43256 43259 43259 0 0 43259 43259 43259 43259 43256 43256 0 0 43256 0 43259 43258 43259 0 0 43258 
+ Optimal point: 14 13 13 
+++++++++++++++++++++++++++++++++++++++++++++++++++++++++++
++++++++++++++++++++++++++++++++++++++++++++++++
 + TIMESTAMP: 32.9287
REINVADE (43258)
  + pid: 43258
  + min_cores: 1
  + max_cores: 512
  + scalability graph: 
1, 1.36329, 1.52423, 1.62017, 1.68565, 1.73398, 1.77154, 1.80182, 1.8269, 1.84812, 1.86637, 1.88229, 1.89634, 1.90885, 1.92009, 1.93026, 1.93952, 1.94799, 1.95579, 1.963, 1.96968, 1.9759, 1.98172, 1.98716, 1.99228, 1.9971, 2.00164, 2.00594, 2.01002, 2.01389, 2.01757, 2.02108, 2.02443, 2.02763, 2.03069, 2.03362, 2.03644, 2.03914, 2.04173, 2.04423, 
Number of clients: 3

+++++++++++++++++++++++++++++++++++++++++++++++++++++++++++
+ Client Mapping:
  > Client 43258 (14):	0 12 13 14 15 39 11 35 6 9 22 23 30 31 
  > Client 43259 (13):	2 24 25 26 27 36 8 34 1 5 3 20 21 
  > Client 43256 (10):	4 16 17 18 19 10 7 32 28 29 

+ Core Mapping:	43258 43259 43259 43259 43256 43259 43258 43256 43259 43258 43256 43258 43258 43258 43258 43258 43256 43256 43256 43256 43259 43259 43258 43258 43259 43259 43259 43259 43256 43256 43258 43258 43256 0 43259 43258 43259 0 0 43258 
+ Optimal point: 14 13 13 
+++++++++++++++++++++++++++++++++++++++++++++++++++++++++++
++++++++++++++++++++++++++++++++++++++++++++++++
 + TIMESTAMP: 32.9289
REINVADE (43256)
  + pid: 43256
  + min_cores: 1
  + max_cores: 512
  + scalability graph: 
1, 1.36329, 1.52423, 1.62017, 1.68565, 1.73398, 1.77154, 1.80182, 1.8269, 1.84812, 1.86637, 1.88229, 1.89634, 1.90885, 1.92009, 1.93026, 1.93952, 1.94799, 1.95579, 1.963, 1.96968, 1.9759, 1.98172, 1.98716, 1.99228, 1.9971, 2.00164, 2.00594, 2.01002, 2.01389, 2.01757, 2.02108, 2.02443, 2.02763, 2.03069, 2.03362, 2.03644, 2.03914, 2.04173, 2.04423, 
Number of clients: 3

+++++++++++++++++++++++++++++++++++++++++++++++++++++++++++
+ Client Mapping:
  > Client 43258 (14):	0 12 13 14 15 39 11 35 6 9 22 23 30 31 
  > Client 43259 (13):	2 24 25 26 27 36 8 34 1 5 3 20 21 
  > Client 43256 (13):	4 16 17 18 19 10 7 32 28 29 33 37 38 

+ Core Mapping:	43258 43259 43259 43259 43256 43259 43258 43256 43259 43258 43256 43258 43258 43258 43258 43258 43256 43256 43256 43256 43259 43259 43258 43258 43259 43259 43259 43259 43256 43256 43258 43258 43256 43256 43259 43258 43259 43256 43256 43258 
+ Optimal point: 14 13 13 
+++++++++++++++++++++++++++++++++++++++++++++++++++++++++++
CLIENT SHUTDOWN: client 43259
 + TIMESTAMP: 33.003
+++++++++++++++++++++++++++++++++++++++++++++++++++++++++++
+ Client Mapping:
  > Client 43258 (14):	0 12 13 14 15 39 11 35 6 9 22 23 30 31 
  > Client 43259 (0):	
  > Client 43256 (13):	4 16 17 18 19 10 7 32 28 29 33 37 38 

+ Core Mapping:	43258 0 0 0 43256 0 43258 43256 0 43258 43256 43258 43258 43258 43258 43258 43256 43256 43256 43256 0 0 43258 43258 0 0 0 0 43256 43256 43258 43258 43256 43256 0 43258 0 43256 43256 43258 
+ Optimal point: 14 13 13 
+++++++++++++++++++++++++++++++++++++++++++++++++++++++++++
client (43259) shutdown hint: 437.984
sum_client_shutdown_hint: 2627.9
++++++++++++++++++++++++++++++++++++++++++++++++
 + TIMESTAMP: 33.0034
REINVADE (43258)
  + pid: 43258
  + min_cores: 1
  + max_cores: 512
  + scalability graph: 
1, 1.36329, 1.52423, 1.62017, 1.68565, 1.73398, 1.77154, 1.80182, 1.8269, 1.84812, 1.86637, 1.88229, 1.89634, 1.90885, 1.92009, 1.93026, 1.93952, 1.94799, 1.95579, 1.963, 1.96968, 1.9759, 1.98172, 1.98716, 1.99228, 1.9971, 2.00164, 2.00594, 2.01002, 2.01389, 2.01757, 2.02108, 2.02443, 2.02763, 2.03069, 2.03362, 2.03644, 2.03914, 2.04173, 2.04423, 
Number of clients: 2

+++++++++++++++++++++++++++++++++++++++++++++++++++++++++++
+ Client Mapping:
  > Client 43258 (20):	0 12 13 14 15 39 11 35 6 9 22 23 30 31 1 2 3 5 8 20 
  > Client 43256 (13):	4 16 17 18 19 10 7 32 28 29 33 37 38 

+ Core Mapping:	43258 43258 43258 43258 43256 43258 43258 43256 43258 43258 43256 43258 43258 43258 43258 43258 43256 43256 43256 43256 43258 0 43258 43258 0 0 0 0 43256 43256 43258 43258 43256 43256 0 43258 0 43256 43256 43258 
+ Optimal point: 20 20 
+++++++++++++++++++++++++++++++++++++++++++++++++++++++++++
++++++++++++++++++++++++++++++++++++++++++++++++
 + TIMESTAMP: 33.0042
REINVADE (43256)
  + pid: 43256
  + min_cores: 1
  + max_cores: 512
  + scalability graph: 
1, 1.36329, 1.52423, 1.62017, 1.68565, 1.73398, 1.77154, 1.80182, 1.8269, 1.84812, 1.86637, 1.88229, 1.89634, 1.90885, 1.92009, 1.93026, 1.93952, 1.94799, 1.95579, 1.963, 1.96968, 1.9759, 1.98172, 1.98716, 1.99228, 1.9971, 2.00164, 2.00594, 2.01002, 2.01389, 2.01757, 2.02108, 2.02443, 2.02763, 2.03069, 2.03362, 2.03644, 2.03914, 2.04173, 2.04423, 
Number of clients: 2

+++++++++++++++++++++++++++++++++++++++++++++++++++++++++++
+ Client Mapping:
  > Client 43258 (20):	0 12 13 14 15 39 11 35 6 9 22 23 30 31 1 2 3 5 8 20 
  > Client 43256 (20):	4 16 17 18 19 10 7 32 28 29 33 37 38 21 24 25 26 27 34 36 

+ Core Mapping:	43258 43258 43258 43258 43256 43258 43258 43256 43258 43258 43256 43258 43258 43258 43258 43258 43256 43256 43256 43256 43258 43256 43258 43258 43256 43256 43256 43256 43256 43256 43258 43258 43256 43256 43256 43258 43256 43256 43256 43258 
+ Optimal point: 20 20 
+++++++++++++++++++++++++++++++++++++++++++++++++++++++++++
CLIENT SHUTDOWN: client 43258
 + TIMESTAMP: 33.0488
+++++++++++++++++++++++++++++++++++++++++++++++++++++++++++
+ Client Mapping:
  > Client 43258 (0):	
  > Client 43256 (20):	4 16 17 18 19 10 7 32 28 29 33 37 38 21 24 25 26 27 34 36 

+ Core Mapping:	0 0 0 0 43256 0 0 43256 0 0 43256 0 0 0 0 0 43256 43256 43256 43256 0 43256 0 0 43256 43256 43256 43256 43256 43256 0 0 43256 43256 43256 0 43256 43256 43256 0 
+ Optimal point: 20 20 
+++++++++++++++++++++++++++++++++++++++++++++++++++++++++++
client (43258) shutdown hint: 437.984
sum_client_shutdown_hint: 3065.89
++++++++++++++++++++++++++++++++++++++++++++++++
 + TIMESTAMP: 33.0489
REINVADE (43256)
  + pid: 43256
  + min_cores: 1
  + max_cores: 512
  + scalability graph: 
1, 1.36329, 1.52423, 1.62017, 1.68565, 1.73398, 1.77154, 1.80182, 1.8269, 1.84812, 1.86637, 1.88229, 1.89634, 1.90885, 1.92009, 1.93026, 1.93952, 1.94799, 1.95579, 1.963, 1.96968, 1.9759, 1.98172, 1.98716, 1.99228, 1.9971, 2.00164, 2.00594, 2.01002, 2.01389, 2.01757, 2.02108, 2.02443, 2.02763, 2.03069, 2.03362, 2.03644, 2.03914, 2.04173, 2.04423, 
Number of clients: 1

+++++++++++++++++++++++++++++++++++++++++++++++++++++++++++
+ Client Mapping:
  > Client 43256 (40):	4 16 17 18 19 10 7 32 28 29 33 37 38 21 24 25 26 27 34 36 0 1 2 3 5 6 8 9 11 12 13 14 15 20 22 23 30 31 35 39 

+ Core Mapping:	43256 43256 43256 43256 43256 43256 43256 43256 43256 43256 43256 43256 43256 43256 43256 43256 43256 43256 43256 43256 43256 43256 43256 43256 43256 43256 43256 43256 43256 43256 43256 43256 43256 43256 43256 43256 43256 43256 43256 43256 
+ Optimal point: 40 
+++++++++++++++++++++++++++++++++++++++++++++++++++++++++++
CLIENT SHUTDOWN: client 43256
 + TIMESTAMP: 33.0843
+++++++++++++++++++++++++++++++++++++++++++++++++++++++++++
+ Client Mapping:
  > Client 43256 (0):	

+ Core Mapping:	0 0 0 0 0 0 0 0 0 0 0 0 0 0 0 0 0 0 0 0 0 0 0 0 0 0 0 0 0 0 0 0 0 0 0 0 0 0 0 0 
+ Optimal point: 40 
+++++++++++++++++++++++++++++++++++++++++++++++++++++++++++
client (43256) shutdown hint: 437.984
sum_client_shutdown_hint: 3503.87
END TIMESTAMP: 33.0844
OVERALL TIME: 32.7976
 + sum_client_shutdown_hint: 3503.87
 + sum_client_shutdown_hint/time: 106.833
sum_client_shutdown_hint: 3503.87
