MODE: ipmo_prog0
PARCOUNT: 26
PROBLEMS: 1
Running on INWEST
Using iPMO

Programs:
 + ../../build/sierpi_intel_ipmo_tsunami_parallel_release  -u 10 -U 10 -T 1000 -n 40 -d 12
 + ../../build/sierpi_intel_ipmo_tsunami_parallel_release  -u 10 -U 10 -T 1000 -n 40 -d 12
 + ../../build/sierpi_intel_ipmo_tsunami_parallel_release  -u 10 -U 10 -T 1000 -n 40 -d 10
 + ../../build/sierpi_intel_ipmo_tsunami_parallel_release  -u 10 -U 10 -T 1000 -n 40 -d 12
 + ../../build/sierpi_intel_ipmo_tsunami_parallel_release  -u 10 -U 10 -T 1000 -n 40 -d 10

Sat Mar 31 15:42:42 CEST 2012
iPMO: Prog0 parallel execution with ipmo (26 times)
Waiting for job 71742
71755: CHANGING RESSOURCES
71743: CHANGING RESSOURCES
71756: CHANGING RESSOURCES
71756: CHANGING RESSOURCES
71748: CHANGING RESSOURCES
71755: CHANGING RESSOURCES
71758: CHANGING RESSOURCES
71764: CHANGING RESSOURCES
71761: CHANGING RESSOURCES
71764: CHANGING RESSOURCES
71750: CHANGING RESSOURCES
71760: CHANGING RESSOURCES
71753: CHANGING RESSOURCES
71752: CHANGING RESSOURCES
71759: CHANGING RESSOURCES
71758: CHANGING RESSOURCES
71744: CHANGING RESSOURCES
71764: CHANGING RESSOURCES
71760: CHANGING RESSOURCES
71748: CHANGING RESSOURCES
71766: CHANGING RESSOURCES
71767: CHANGING RESSOURCES
71762: CHANGING RESSOURCES
71756: CHANGING RESSOURCES
71744: CHANGING RESSOURCES
71750: CHANGING RESSOURCES
71746: CHANGING RESSOURCES
71759: CHANGING RESSOURCES
71751: CHANGING RESSOURCES
71753: CHANGING RESSOURCES
71761: CHANGING RESSOURCES
71763: CHANGING RESSOURCES
71752: CHANGING RESSOURCES
71755: CHANGING RESSOURCES
71747: CHANGING RESSOURCES
71743: CHANGING RESSOURCES
71760: CHANGING RESSOURCES
71754: CHANGING RESSOURCES
71742: CHANGING RESSOURCES
71765: CHANGING RESSOURCES
71745: CHANGING RESSOURCES
71757: CHANGING RESSOURCES
71749: CHANGING RESSOURCES

 + Terminating after 1000 timesteps with equal number of triangles -> EXIT
 + Final timestep: 6749

6750 TS (Timesteps)
715.114 ST (SIMULATION_TIME)
0.100037 TSS (Timestep size)
68.8783 SFS (Overall seconds for Simulation)
437983904 TP (Triangles processed)
0.0102042 ASPT (Averaged Seconds per Timestep)
64886.5 TPST (Triangles Processed in Average per Simulation Timestep)
48.6681 PPST (Partitions Processed in Average per Simulation Timestep)
6.35881 MTPS (Million Triangles per Second)
-6.35881 MTPSPT (Million Triangles per Second per Thread)
1.98018 EDMBPT (ElementData Megabyte per Timestep (RW))
194.055 EDMBPS (ElementData Megabyte per Second (RW))
SUM CLIENT SHUTDOWN HINT: 437.984
SUM CLIENT SHUTDOWN HINT DIV TIME: 0
71750: CHANGING RESSOURCES
71760: CHANGING RESSOURCES

 + Terminating after 1000 timesteps with equal number of triangles -> EXIT
 + Final timestep: 6749

6750 TS (Timesteps)
715.114 ST (SIMULATION_TIME)
0.100037 TSS (Timestep size)
69.9495 SFS (Overall seconds for Simulation)
437983904 TP (Triangles processed)
0.0103629 ASPT (Averaged Seconds per Timestep)
64886.5 TPST (Triangles Processed in Average per Simulation Timestep)
48.6681 PPST (Partitions Processed in Average per Simulation Timestep)
6.26143 MTPS (Million Triangles per Second)
-6.26143 MTPSPT (Million Triangles per Second per Thread)
1.98018 EDMBPT (ElementData Megabyte per Timestep (RW))
191.084 EDMBPS (ElementData Megabyte per Second (RW))
SUM CLIENT SHUTDOWN HINT: 875.968
SUM CLIENT SHUTDOWN HINT DIV TIME: 0
71753: CHANGING RESSOURCES
71752: CHANGING RESSOURCES

 + Terminating after 1000 timesteps with equal number of triangles -> EXIT
 + Final timestep: 6749

6750 TS (Timesteps)
715.114 ST (SIMULATION_TIME)
0.100037 TSS (Timestep size)
70.1264 SFS (Overall seconds for Simulation)
437983904 TP (Triangles processed)
0.0103891 ASPT (Averaged Seconds per Timestep)
64886.5 TPST (Triangles Processed in Average per Simulation Timestep)
48.6681 PPST (Partitions Processed in Average per Simulation Timestep)
6.24563 MTPS (Million Triangles per Second)
-6.24563 MTPSPT (Million Triangles per Second per Thread)
1.98018 EDMBPT (ElementData Megabyte per Timestep (RW))
190.602 EDMBPS (ElementData Megabyte per Second (RW))
SUM CLIENT SHUTDOWN HINT: 1313.95
SUM CLIENT SHUTDOWN HINT DIV TIME: 0
71759: CHANGING RESSOURCES
71744: CHANGING RESSOURCES

 + Terminating after 1000 timesteps with equal number of triangles -> EXIT
 + Final timestep: 6749

6750 TS (Timesteps)
715.114 ST (SIMULATION_TIME)
0.100037 TSS (Timestep size)
70.5679 SFS (Overall seconds for Simulation)
437983904 TP (Triangles processed)
0.0104545 ASPT (Averaged Seconds per Timestep)
64886.5 TPST (Triangles Processed in Average per Simulation Timestep)
48.6681 PPST (Partitions Processed in Average per Simulation Timestep)
6.20656 MTPS (Million Triangles per Second)
-6.20656 MTPSPT (Million Triangles per Second per Thread)
1.98018 EDMBPT (ElementData Megabyte per Timestep (RW))
189.409 EDMBPS (ElementData Megabyte per Second (RW))
SUM CLIENT SHUTDOWN HINT: 1751.94
SUM CLIENT SHUTDOWN HINT DIV TIME: 0
71757: CHANGING RESSOURCES
71745: CHANGING RESSOURCES

 + Terminating after 1000 timesteps with equal number of triangles -> EXIT
 + Final timestep: 6749

6750 TS (Timesteps)
715.114 ST (SIMULATION_TIME)
0.100037 TSS (Timestep size)
70.681 SFS (Overall seconds for Simulation)
437983904 TP (Triangles processed)
0.0104713 ASPT (Averaged Seconds per Timestep)
64886.5 TPST (Triangles Processed in Average per Simulation Timestep)
48.6681 PPST (Partitions Processed in Average per Simulation Timestep)
6.19663 MTPS (Million Triangles per Second)
-6.19663 MTPSPT (Million Triangles per Second per Thread)
1.98018 EDMBPT (ElementData Megabyte per Timestep (RW))
189.106 EDMBPS (ElementData Megabyte per Second (RW))
SUM CLIENT SHUTDOWN HINT: 2189.92
SUM CLIENT SHUTDOWN HINT DIV TIME: 0
71766: CHANGING RESSOURCES
71762: CHANGING RESSOURCES

 + Terminating after 1000 timesteps with equal number of triangles -> EXIT
 + Final timestep: 6749

6750 TS (Timesteps)
715.114 ST (SIMULATION_TIME)
0.100037 TSS (Timestep size)
70.8454 SFS (Overall seconds for Simulation)
437983904 TP (Triangles processed)
0.0104956 ASPT (Averaged Seconds per Timestep)
64886.5 TPST (Triangles Processed in Average per Simulation Timestep)
48.6681 PPST (Partitions Processed in Average per Simulation Timestep)
6.18225 MTPS (Million Triangles per Second)
-6.18225 MTPSPT (Million Triangles per Second per Thread)
1.98018 EDMBPT (ElementData Megabyte per Timestep (RW))
188.667 EDMBPS (ElementData Megabyte per Second (RW))
SUM CLIENT SHUTDOWN HINT: 2627.9
SUM CLIENT SHUTDOWN HINT DIV TIME: 0
71746: CHANGING RESSOURCES
71763: CHANGING RESSOURCES

 + Terminating after 1000 timesteps with equal number of triangles -> EXIT
 + Final timestep: 6749

6750 TS (Timesteps)
715.114 ST (SIMULATION_TIME)
0.100037 TSS (Timestep size)
71.1257 SFS (Overall seconds for Simulation)
437983904 TP (Triangles processed)
0.0105371 ASPT (Averaged Seconds per Timestep)
64886.5 TPST (Triangles Processed in Average per Simulation Timestep)
48.6681 PPST (Partitions Processed in Average per Simulation Timestep)
6.15788 MTPS (Million Triangles per Second)
-6.15788 MTPSPT (Million Triangles per Second per Thread)
1.98018 EDMBPT (ElementData Megabyte per Timestep (RW))
187.924 EDMBPS (ElementData Megabyte per Second (RW))
SUM CLIENT SHUTDOWN HINT: 3065.89
SUM CLIENT SHUTDOWN HINT DIV TIME: 0
71742: CHANGING RESSOURCES
71760: CHANGING RESSOURCES

 + Terminating after 1000 timesteps with equal number of triangles -> EXIT
 + Final timestep: 6749

6750 TS (Timesteps)
715.114 ST (SIMULATION_TIME)
0.100037 TSS (Timestep size)
71.2797 SFS (Overall seconds for Simulation)
437983904 TP (Triangles processed)
0.01056 ASPT (Averaged Seconds per Timestep)
64886.5 TPST (Triangles Processed in Average per Simulation Timestep)
48.6681 PPST (Partitions Processed in Average per Simulation Timestep)
6.14458 MTPS (Million Triangles per Second)
-6.14458 MTPSPT (Million Triangles per Second per Thread)
1.98018 EDMBPT (ElementData Megabyte per Timestep (RW))
187.518 EDMBPS (ElementData Megabyte per Second (RW))
SUM CLIENT SHUTDOWN HINT: 3503.87
SUM CLIENT SHUTDOWN HINT DIV TIME: 0
71750: CHANGING RESSOURCES
71742: CHANGING RESSOURCES
71752: CHANGING RESSOURCES
71753: CHANGING RESSOURCES

 + Terminating after 1000 timesteps with equal number of triangles -> EXIT
 + Final timestep: 6749

6750 TS (Timesteps)
715.114 ST (SIMULATION_TIME)
0.100037 TSS (Timestep size)
71.4966 SFS (Overall seconds for Simulation)
437983904 TP (Triangles processed)
0.0105921 ASPT (Averaged Seconds per Timestep)
64886.5 TPST (Triangles Processed in Average per Simulation Timestep)
48.6681 PPST (Partitions Processed in Average per Simulation Timestep)
6.12594 MTPS (Million Triangles per Second)
-6.12594 MTPSPT (Million Triangles per Second per Thread)
1.98018 EDMBPT (ElementData Megabyte per Timestep (RW))
186.949 EDMBPS (ElementData Megabyte per Second (RW))
SUM CLIENT SHUTDOWN HINT: 3941.86
SUM CLIENT SHUTDOWN HINT DIV TIME: 0
71759: CHANGING RESSOURCES
71745: CHANGING RESSOURCES
71760: CHANGING RESSOURCES
71744: CHANGING RESSOURCES

 + Terminating after 1000 timesteps with equal number of triangles -> EXIT
 + Final timestep: 6749

6750 TS (Timesteps)
715.114 ST (SIMULATION_TIME)
0.100037 TSS (Timestep size)
71.5109 SFS (Overall seconds for Simulation)
437983904 TP (Triangles processed)
0.0105942 ASPT (Averaged Seconds per Timestep)
64886.5 TPST (Triangles Processed in Average per Simulation Timestep)
48.6681 PPST (Partitions Processed in Average per Simulation Timestep)
6.12471 MTPS (Million Triangles per Second)
-6.12471 MTPSPT (Million Triangles per Second per Thread)
1.98018 EDMBPT (ElementData Megabyte per Timestep (RW))
186.911 EDMBPS (ElementData Megabyte per Second (RW))
SUM CLIENT SHUTDOWN HINT: 4379.84
SUM CLIENT SHUTDOWN HINT DIV TIME: 0
71762: CHANGING RESSOURCES
71745: CHANGING RESSOURCES
71750: CHANGING RESSOURCES
71763: CHANGING RESSOURCES
71766: CHANGING RESSOURCES
71757: CHANGING RESSOURCES

 + Terminating after 1000 timesteps with equal number of triangles -> EXIT
 + Final timestep: 6749

6750 TS (Timesteps)
715.114 ST (SIMULATION_TIME)
0.100037 TSS (Timestep size)
71.8864 SFS (Overall seconds for Simulation)
437983904 TP (Triangles processed)
0.0106498 ASPT (Averaged Seconds per Timestep)
64886.5 TPST (Triangles Processed in Average per Simulation Timestep)
48.6681 PPST (Partitions Processed in Average per Simulation Timestep)
6.09273 MTPS (Million Triangles per Second)
-6.09273 MTPSPT (Million Triangles per Second per Thread)
1.98018 EDMBPT (ElementData Megabyte per Timestep (RW))
185.935 EDMBPS (ElementData Megabyte per Second (RW))
SUM CLIENT SHUTDOWN HINT: 4817.82
SUM CLIENT SHUTDOWN HINT DIV TIME: 0
71765: CHANGING RESSOURCES
71766: CHANGING RESSOURCES
71746: CHANGING RESSOURCES
71753: CHANGING RESSOURCES
71745: CHANGING RESSOURCES

 + Terminating after 1000 timesteps with equal number of triangles -> EXIT
 + Final timestep: 6749

6750 TS (Timesteps)
715.114 ST (SIMULATION_TIME)
0.100037 TSS (Timestep size)
72.2538 SFS (Overall seconds for Simulation)
437983904 TP (Triangles processed)
0.0107043 ASPT (Averaged Seconds per Timestep)
64886.5 TPST (Triangles Processed in Average per Simulation Timestep)
48.6681 PPST (Partitions Processed in Average per Simulation Timestep)
6.06174 MTPS (Million Triangles per Second)
-6.06174 MTPSPT (Million Triangles per Second per Thread)
1.98018 EDMBPT (ElementData Megabyte per Timestep (RW))
184.99 EDMBPS (ElementData Megabyte per Second (RW))
SUM CLIENT SHUTDOWN HINT: 5255.81
SUM CLIENT SHUTDOWN HINT DIV TIME: 0
71752: CHANGING RESSOURCES
71760: CHANGING RESSOURCES
71766: CHANGING RESSOURCES
71750: CHANGING RESSOURCES

 + Terminating after 1000 timesteps with equal number of triangles -> EXIT
 + Final timestep: 6749

6750 TS (Timesteps)
715.114 ST (SIMULATION_TIME)
0.100037 TSS (Timestep size)
72.3781 SFS (Overall seconds for Simulation)
437983904 TP (Triangles processed)
0.0107227 ASPT (Averaged Seconds per Timestep)
64886.5 TPST (Triangles Processed in Average per Simulation Timestep)
48.6681 PPST (Partitions Processed in Average per Simulation Timestep)
6.05133 MTPS (Million Triangles per Second)
-6.05133 MTPSPT (Million Triangles per Second per Thread)
1.98018 EDMBPT (ElementData Megabyte per Timestep (RW))
184.672 EDMBPS (ElementData Megabyte per Second (RW))
SUM CLIENT SHUTDOWN HINT: 5693.79
SUM CLIENT SHUTDOWN HINT DIV TIME: 0
71753: CHANGING RESSOURCES
71752: CHANGING RESSOURCES
Waiting for job 71743
Waiting for job 71744

 + Terminating after 1000 timesteps with equal number of triangles -> EXIT
 + Final timestep: 6749

6750 TS (Timesteps)
715.114 ST (SIMULATION_TIME)
0.100037 TSS (Timestep size)
72.5286 SFS (Overall seconds for Simulation)
437983904 TP (Triangles processed)
0.010745 ASPT (Averaged Seconds per Timestep)
64886.5 TPST (Triangles Processed in Average per Simulation Timestep)
48.6681 PPST (Partitions Processed in Average per Simulation Timestep)
6.03877 MTPS (Million Triangles per Second)
-6.03877 MTPSPT (Million Triangles per Second per Thread)
1.98018 EDMBPT (ElementData Megabyte per Timestep (RW))
184.289 EDMBPS (ElementData Megabyte per Second (RW))
SUM CLIENT SHUTDOWN HINT: 6131.77
SUM CLIENT SHUTDOWN HINT DIV TIME: 0
71763: CHANGING RESSOURCES
71752: CHANGING RESSOURCES
71759: CHANGING RESSOURCES
71760: CHANGING RESSOURCES
71746: CHANGING RESSOURCES

 + Terminating after 1000 timesteps with equal number of triangles -> EXIT
 + Final timestep: 6749

6750 TS (Timesteps)
715.114 ST (SIMULATION_TIME)
0.100037 TSS (Timestep size)
88.9406 SFS (Overall seconds for Simulation)
437983904 TP (Triangles processed)
0.0131764 ASPT (Averaged Seconds per Timestep)
64886.5 TPST (Triangles Processed in Average per Simulation Timestep)
48.6681 PPST (Partitions Processed in Average per Simulation Timestep)
4.92445 MTPS (Million Triangles per Second)
-4.92445 MTPSPT (Million Triangles per Second per Thread)
1.98018 EDMBPT (ElementData Megabyte per Timestep (RW))
150.282 EDMBPS (ElementData Megabyte per Second (RW))
SUM CLIENT SHUTDOWN HINT: 6569.76
SUM CLIENT SHUTDOWN HINT DIV TIME: 0
71752: CHANGING RESSOURCES
71757: CHANGING RESSOURCES
71763: CHANGING RESSOURCES
71750: CHANGING RESSOURCES
71744: CHANGING RESSOURCES

 + Terminating after 1000 timesteps with equal number of triangles -> EXIT
 + Final timestep: 6749

6750 TS (Timesteps)
715.114 ST (SIMULATION_TIME)
0.100037 TSS (Timestep size)
90.1206 SFS (Overall seconds for Simulation)
437983904 TP (Triangles processed)
0.0133512 ASPT (Averaged Seconds per Timestep)
64886.5 TPST (Triangles Processed in Average per Simulation Timestep)
48.6681 PPST (Partitions Processed in Average per Simulation Timestep)
4.85998 MTPS (Million Triangles per Second)
-4.85998 MTPSPT (Million Triangles per Second per Thread)
1.98018 EDMBPT (ElementData Megabyte per Timestep (RW))
148.315 EDMBPS (ElementData Megabyte per Second (RW))
SUM CLIENT SHUTDOWN HINT: 7007.74
SUM CLIENT SHUTDOWN HINT DIV TIME: 0
71763: CHANGING RESSOURCES
71762: CHANGING RESSOURCES
71766: CHANGING RESSOURCES
71745: CHANGING RESSOURCES

 + Terminating after 1000 timesteps with equal number of triangles -> EXIT
 + Final timestep: 6749

6750 TS (Timesteps)
715.114 ST (SIMULATION_TIME)
0.100037 TSS (Timestep size)
90.688 SFS (Overall seconds for Simulation)
437983904 TP (Triangles processed)
0.0134353 ASPT (Averaged Seconds per Timestep)
64886.5 TPST (Triangles Processed in Average per Simulation Timestep)
48.6681 PPST (Partitions Processed in Average per Simulation Timestep)
4.82957 MTPS (Million Triangles per Second)
-4.82957 MTPSPT (Million Triangles per Second per Thread)
1.98018 EDMBPT (ElementData Megabyte per Timestep (RW))
147.387 EDMBPS (ElementData Megabyte per Second (RW))
SUM CLIENT SHUTDOWN HINT: 7445.73
SUM CLIENT SHUTDOWN HINT DIV TIME: 0
71744: CHANGING RESSOURCES
71752: CHANGING RESSOURCES
71750: CHANGING RESSOURCES

 + Terminating after 1000 timesteps with equal number of triangles -> EXIT
 + Final timestep: 6749

6750 TS (Timesteps)
715.114 ST (SIMULATION_TIME)
0.100037 TSS (Timestep size)
90.9626 SFS (Overall seconds for Simulation)
437983904 TP (Triangles processed)
0.0134759 ASPT (Averaged Seconds per Timestep)
64886.5 TPST (Triangles Processed in Average per Simulation Timestep)
48.6681 PPST (Partitions Processed in Average per Simulation Timestep)
4.81499 MTPS (Million Triangles per Second)
-4.81499 MTPSPT (Million Triangles per Second per Thread)
1.98018 EDMBPT (ElementData Megabyte per Timestep (RW))
146.942 EDMBPS (ElementData Megabyte per Second (RW))
SUM CLIENT SHUTDOWN HINT: 7883.71
SUM CLIENT SHUTDOWN HINT DIV TIME: 0
71766: CHANGING RESSOURCES
71762: CHANGING RESSOURCES
71745: CHANGING RESSOURCES
71757: CHANGING RESSOURCES

 + Terminating after 1000 timesteps with equal number of triangles -> EXIT
 + Final timestep: 6749

6750 TS (Timesteps)
715.114 ST (SIMULATION_TIME)
0.100037 TSS (Timestep size)
92.6082 SFS (Overall seconds for Simulation)
437983904 TP (Triangles processed)
0.0137197 ASPT (Averaged Seconds per Timestep)
64886.5 TPST (Triangles Processed in Average per Simulation Timestep)
48.6681 PPST (Partitions Processed in Average per Simulation Timestep)
4.72943 MTPS (Million Triangles per Second)
-4.72943 MTPSPT (Million Triangles per Second per Thread)
1.98018 EDMBPT (ElementData Megabyte per Timestep (RW))
144.331 EDMBPS (ElementData Megabyte per Second (RW))
SUM CLIENT SHUTDOWN HINT: 8321.69
SUM CLIENT SHUTDOWN HINT DIV TIME: 0
71752: CHANGING RESSOURCES
71745: CHANGING RESSOURCES

 + Terminating after 1000 timesteps with equal number of triangles -> EXIT
 + Final timestep: 6749

6750 TS (Timesteps)
715.114 ST (SIMULATION_TIME)
0.100037 TSS (Timestep size)
92.6954 SFS (Overall seconds for Simulation)
437983904 TP (Triangles processed)
0.0137326 ASPT (Averaged Seconds per Timestep)
64886.5 TPST (Triangles Processed in Average per Simulation Timestep)
48.6681 PPST (Partitions Processed in Average per Simulation Timestep)
4.72498 MTPS (Million Triangles per Second)
-4.72498 MTPSPT (Million Triangles per Second per Thread)
1.98018 EDMBPT (ElementData Megabyte per Timestep (RW))
144.195 EDMBPS (ElementData Megabyte per Second (RW))
SUM CLIENT SHUTDOWN HINT: 8759.68
SUM CLIENT SHUTDOWN HINT DIV TIME: 0
71757: CHANGING RESSOURCES
71750: CHANGING RESSOURCES

 + Terminating after 1000 timesteps with equal number of triangles -> EXIT
 + Final timestep: 6749

6750 TS (Timesteps)
715.114 ST (SIMULATION_TIME)
0.100037 TSS (Timestep size)
92.733 SFS (Overall seconds for Simulation)
437983904 TP (Triangles processed)
0.0137382 ASPT (Averaged Seconds per Timestep)
64886.5 TPST (Triangles Processed in Average per Simulation Timestep)
48.6681 PPST (Partitions Processed in Average per Simulation Timestep)
4.72307 MTPS (Million Triangles per Second)
-4.72307 MTPSPT (Million Triangles per Second per Thread)
1.98018 EDMBPT (ElementData Megabyte per Timestep (RW))
144.137 EDMBPS (ElementData Megabyte per Second (RW))
SUM CLIENT SHUTDOWN HINT: 9197.66
SUM CLIENT SHUTDOWN HINT DIV TIME: 0
71766: CHANGING RESSOURCES
71757: CHANGING RESSOURCES
71750: CHANGING RESSOURCES

 + Terminating after 1000 timesteps with equal number of triangles -> EXIT
 + Final timestep: 6749

6750 TS (Timesteps)
715.114 ST (SIMULATION_TIME)
0.100037 TSS (Timestep size)
92.8199 SFS (Overall seconds for Simulation)
437983904 TP (Triangles processed)
0.0137511 ASPT (Averaged Seconds per Timestep)
64886.5 TPST (Triangles Processed in Average per Simulation Timestep)
48.6681 PPST (Partitions Processed in Average per Simulation Timestep)
4.71864 MTPS (Million Triangles per Second)
-4.71864 MTPSPT (Million Triangles per Second per Thread)
1.98018 EDMBPT (ElementData Megabyte per Timestep (RW))
144.001 EDMBPS (ElementData Megabyte per Second (RW))
SUM CLIENT SHUTDOWN HINT: 9635.65
SUM CLIENT SHUTDOWN HINT DIV TIME: 0
71752: CHANGING RESSOURCES
71766: CHANGING RESSOURCES
Waiting for job 71745
Waiting for job 71746
Waiting for job 71747
Waiting for job 71748
Waiting for job 71749
Waiting for job 71750

 + Terminating after 1000 timesteps with equal number of triangles -> EXIT
 + Final timestep: 6749

6750 TS (Timesteps)
715.114 ST (SIMULATION_TIME)
0.100037 TSS (Timestep size)
92.9232 SFS (Overall seconds for Simulation)
437983904 TP (Triangles processed)
0.0137664 ASPT (Averaged Seconds per Timestep)
64886.5 TPST (Triangles Processed in Average per Simulation Timestep)
48.6681 PPST (Partitions Processed in Average per Simulation Timestep)
4.7134 MTPS (Million Triangles per Second)
-4.7134 MTPSPT (Million Triangles per Second per Thread)
1.98018 EDMBPT (ElementData Megabyte per Timestep (RW))
143.841 EDMBPS (ElementData Megabyte per Second (RW))
SUM CLIENT SHUTDOWN HINT: 10073.6
SUM CLIENT SHUTDOWN HINT DIV TIME: 0
71766: CHANGING RESSOURCES
71757: CHANGING RESSOURCES
71750: CHANGING RESSOURCES

 + Terminating after 1000 timesteps with equal number of triangles -> EXIT
 + Final timestep: 6749

6750 TS (Timesteps)
715.114 ST (SIMULATION_TIME)
0.100037 TSS (Timestep size)
93.0597 SFS (Overall seconds for Simulation)
437983904 TP (Triangles processed)
0.0137866 ASPT (Averaged Seconds per Timestep)
64886.5 TPST (Triangles Processed in Average per Simulation Timestep)
48.6681 PPST (Partitions Processed in Average per Simulation Timestep)
4.70648 MTPS (Million Triangles per Second)
-4.70648 MTPSPT (Million Triangles per Second per Thread)
1.98018 EDMBPT (ElementData Megabyte per Timestep (RW))
143.63 EDMBPS (ElementData Megabyte per Second (RW))
SUM CLIENT SHUTDOWN HINT: 10511.6
SUM CLIENT SHUTDOWN HINT DIV TIME: 0
71757: CHANGING RESSOURCES
71750: CHANGING RESSOURCES

 + Terminating after 1000 timesteps with equal number of triangles -> EXIT
 + Final timestep: 6749

6750 TS (Timesteps)
715.114 ST (SIMULATION_TIME)
0.100037 TSS (Timestep size)
93.3297 SFS (Overall seconds for Simulation)
437983904 TP (Triangles processed)
0.0138266 ASPT (Averaged Seconds per Timestep)
64886.5 TPST (Triangles Processed in Average per Simulation Timestep)
48.6681 PPST (Partitions Processed in Average per Simulation Timestep)
4.69287 MTPS (Million Triangles per Second)
-4.69287 MTPSPT (Million Triangles per Second per Thread)
1.98018 EDMBPT (ElementData Megabyte per Timestep (RW))
143.215 EDMBPS (ElementData Megabyte per Second (RW))
SUM CLIENT SHUTDOWN HINT: 10949.6
SUM CLIENT SHUTDOWN HINT DIV TIME: 0
71757: CHANGING RESSOURCES
Waiting for job 71751
Waiting for job 71752
Waiting for job 71753
Waiting for job 71754
Waiting for job 71755
Waiting for job 71756
Waiting for job 71757

 + Terminating after 1000 timesteps with equal number of triangles -> EXIT
 + Final timestep: 6749

6750 TS (Timesteps)
715.114 ST (SIMULATION_TIME)
0.100037 TSS (Timestep size)
94.1063 SFS (Overall seconds for Simulation)
437983904 TP (Triangles processed)
0.0139417 ASPT (Averaged Seconds per Timestep)
64886.5 TPST (Triangles Processed in Average per Simulation Timestep)
48.6681 PPST (Partitions Processed in Average per Simulation Timestep)
4.65414 MTPS (Million Triangles per Second)
-4.65414 MTPSPT (Million Triangles per Second per Thread)
1.98018 EDMBPT (ElementData Megabyte per Timestep (RW))
142.033 EDMBPS (ElementData Megabyte per Second (RW))
SUM CLIENT SHUTDOWN HINT: 11387.6
SUM CLIENT SHUTDOWN HINT DIV TIME: 121.362
Waiting for job 71758
Waiting for job 71759
Waiting for job 71760
Waiting for job 71761
Waiting for job 71762
Waiting for job 71763
Waiting for job 71764
Waiting for job 71765
Waiting for job 71766
Waiting for job 71767
Sat Mar 31 15:44:16 CEST 2012
Seconds: 94
