0	0
75.9842	0
151.968	0
227.953	0
303.937	0
379.921	0
455.905	0
531.889	0
607.874	0
683.858	0
759.842	0
835.826	0
911.81	0
987.794	0
1063.78	0
1139.76	0
1215.75	0
1291.73	0
1367.72	0
1443.7	8.18545e-11
1519.68	1.28057e-09
1595.67	9.58698e-09
1671.65	4.72555e-08
1747.63	1.76347e-07
1823.62	5.40902e-07
1899.6	1.44295e-06
1975.58	3.49511e-06
2051.56	7.9445e-06
2127.55	1.73396e-05
2203.53	3.67951e-05
2279.51	7.61554e-05
2355.49	0.000153295
2431.48	0.000298577
2507.46	0.000560129
2583.44	0.00100914
2659.42	0.00174396
2735.41	0.00289168
2811.39	0.00460581
2887.37	0.00705916
2963.36	0.0104318
3039.34	0.0148943
3115.32	0.0205886
3191.31	0.027607
3267.29	0.0359731
3343.27	0.0456263
3419.26	0.0564117
3495.24	0.0680783
3571.23	0.080284
3647.21	0.0926097
3723.2	0.104579
3799.18	0.115684
3875.16	0.125416
3951.15	0.133293
4027.13	0.138889
4103.12	0.141859
4179.1	0.14196
4255.08	0.139064
4331.07	0.133161
4407.05	0.124364
4483.04	0.112895
4559.02	0.0990771
4635	0.0833124
4710.99	0.0660618
4786.97	0.0478218
4862.96	0.0291009
4938.94	0.0103975
5014.92	-0.0078197
5090.91	-0.0251283
5166.89	-0.0411649
5242.88	-0.0556331
5318.86	-0.0683086
5394.85	-0.0790393
5470.83	-0.0877429
5546.81	-0.0944016
5622.8	-0.0990549
5698.78	-0.101791
5774.77	-0.102738
5850.75	-0.102053
5926.73	-0.0999155
6002.72	-0.0965171
6078.7	-0.0920542
6154.69	-0.0867222
6230.67	-0.0807094
6306.65	-0.0741935
6382.64	-0.067338
6458.62	-0.0602904
6534.61	-0.0531815
6610.59	-0.0461245
6686.57	-0.0392163
6762.56	-0.0325376
6838.54	-0.0261549
6914.53	-0.0201213
6990.51	-0.0144786
7066.49	-0.00925854
7142.48	-0.00448388
7218.46	-0.000169988
7294.44	0.00367441
7370.43	0.00704637
7446.41	0.00994809
7522.4	0.0123863
7598.38	0.014372
7674.36	0.0159198
7750.35	0.0170476
7826.33	0.0177765
7902.32	0.0181302
7978.3	0.0181345
8054.28	0.0178172
8130.27	0.017208
8206.25	0.0163373
8282.23	0.0152368
8358.22	0.0139387
8434.2	0.0124756
8510.19	0.0108797
8586.17	0.00918346
8662.15	0.00741827
8738.14	0.00561483
8814.12	0.00380258
8890.11	0.00200945
8966.09	0.000261597
9042.08	-0.00141686
9118.06	-0.00300407
9194.04	-0.00448065
9270.03	-0.00582985
9346.01	-0.00703768
9422	-0.00809295
9497.98	-0.00898737
9573.96	-0.00971551
9649.95	-0.0102747
9725.93	-0.0106651
9801.92	-0.0108895
9877.9	-0.010953
9953.89	-0.0108631
10029.9	-0.0106295
10105.9	-0.0102634
10181.8	-0.00977792
10257.8	-0.0091873
10333.8	-0.00850686
10409.8	-0.00775266
10485.8	-0.00694117
10561.8	-0.00608905
10637.7	-0.00521283
10713.7	-0.00432867
10789.7	-0.00345214
10865.7	-0.00259797
10941.7	-0.0017799
11017.7	-0.00101048
11093.6	-0.000300992
11169.6	0.000338705
11245.6	0.000900227
11321.6	0.00137672
11397.6	0.00176289
11473.6	0.00205498
11549.6	0.00225079
11625.5	0.00234959
11701.5	0.00235208
11777.5	0.00226032
11853.5	0.00207758
11929.5	0.00180833
12005.5	0.00145803
12081.4	0.00103307
12157.4	0.000540585
12233.4	-1.16057e-05
12309.4	-0.000615193
12385.4	-0.00126148
12461.4	-0.00194152
12537.3	-0.00264624
12613.3	-0.00336656
12689.3	-0.0040935
12765.3	-0.00481832
12841.3	-0.00553256
12917.3	-0.00622819
12993.3	-0.00689764
13069.2	-0.00753389
13145.2	-0.00813056
13221.2	-0.0086819
13297.2	-0.00918285
13373.2	-0.0096291
13449.2	-0.0100171
13525.1	-0.0103439
13601.1	-0.0106075
13677.1	-0.0108065
13753.1	-0.0109403
13829.1	-0.0110089
13905.1	-0.0110129
13981	-0.0109538
14057	-0.0108334
14133	-0.010654
14209	-0.0104186
14285	-0.0101305
14361	-0.00979329
14437	-0.00941104
14512.9	-0.00898797
14588.9	-0.00852853
14664.9	-0.00803734
14740.9	-0.00751912
14816.9	-0.00697864
14892.9	-0.00642067
14968.8	-0.00584997
15044.8	-0.00527122
15120.8	-0.00468897
15196.8	-0.00410767
15272.8	-0.00353156
15348.8	-0.00296469
15424.7	-0.00241089
15500.7	-0.00187375
15576.7	-0.0013566
15652.7	-0.0008625
15728.7	-0.000394213
15804.7	4.57821e-05
15880.7	0.000455305
15956.6	0.000832481
16032.6	0.00117574
16108.6	0.0014838
16184.6	0.00175571
16260.6	0.00199079
16336.6	0.00218867
16412.5	0.00234924
16488.5	0.0024727
16564.5	0.00255949
16640.5	0.00261032
16716.5	0.00262615
16792.5	0.00260817
16868.4	0.00255779
16944.4	0.00247663
17020.4	0.00236649
17096.4	0.00222936
17172.4	0.00206738
17248.4	0.00188284
17324.3	0.00167815
17400.3	0.00145581
17476.3	0.00121843
17552.3	0.00096864
17628.3	0.000709156
17704.3	0.000442692
17780.3	0.000171962
17856.2	-0.000100338
17932.2	-0.000371561
18008.2	-0.000639121
18084.2	-0.000900521
18160.2	-0.00115337
18236.2	-0.00139539
18312.1	-0.00162446
18388.1	-0.0018386
18464.1	-0.00203601
18540.1	-0.00221507
18616.1	-0.00237436
18692.1	-0.00251265
18768	-0.00262891
18844	-0.00272235
18920	-0.00279237
18996	-0.00283859
19072	-0.00286084
19148	-0.00285914
19224	-0.00283373
19299.9	-0.00278504
19375.9	-0.00271366
19451.9	-0.00262036
19527.9	-0.00250606
19603.9	-0.00237184
19679.9	-0.00221888
19755.8	-0.00204849
19831.8	-0.00186206
19907.8	-0.00166109
19983.8	-0.0014471
