%%MatrixMarket matrix array real general
10 10
.5000000000
0.
0.
0.
0.
0.
0.
0.
0.
0.
0.
.5000000000
0.
0.
0.
0.
0.
0.
0.
0.
0.
0.
.5000000000
0.
0.
0.
0.
0.
0.
0.
0.
0.
0.
-.2500000000
0.
0.
-.4330127020
0.
0.
0.
0.
0.
0.
0.
-.2500000000
0.
0.
-.4330127020
0.
0.
0.
0.
0.
0.
0.
.1666666667
0.
0.
.2886751347
.3726779962
-.8164965809
0.
0.
.7216878367
0.
0.
-.7500000000
0.
0.
0.
0.
-.8164965809
0.
0.
.7216878367
0.
0.
-.7500000000
0.
0.
-.2500000000
0.
0.
.3535533905
0.
-.4330127020
.6123724358
0.
-.2500000000
.9682458365
2.904737510
0.
0.
-2.464751509
0.
1.155301788
3.320391543
0.
-1.484643616
1.083333333
