%%MatrixMarket matrix array real general
10 6
0.
0.
0.
.5000000000e-1
-.8660254040e-1
-.2721655270e-1
.8660254040e-1
-.1500000000
-.4714045206e-1
-.6085806194e-1
-.2357022604
.4082482906
-.5270462768
.1333333333
-.2309401077
-.2721655270e-1
0.
0.
0.
.1217161239
0.
0.
0.
.5000000000e-1
-.8660254040e-1
-.2721655270e-1
-.8660254040e-1
.1500000000
.4714045206e-1
-.6085806194e-1
-.2357022604
.4082482906
-.5270462768
-.6666666667e-1
.1154700539
.8164965809e-1
.1154700539
-.2000000000
.9428090414e-1
0.
-.2357022604
.4082482906
-.5270462768
-.6666666667e-1
.1154700539
.8164965809e-1
-.1154700539
.2000000000
-.9428090414e-1
0.
0.
0.
0.
-.1000000000
.1732050808
-.8164965809e-1
0.
0.
0.
0.
