%%MatrixMarket matrix array real general
9 10
1.414213562
1.414213562
1.414213562
1.414213562
1.414213562
1.414213562
1.414213562
1.414213562
1.414213562
-2.449489743
0.
2.449489743
-2.449489743
0.
2.449489743
-2.449489743
0.
2.449489743
3.162277660
-1.581138830
3.162277660
3.162277660
-1.581138830
3.162277660
3.162277660
-1.581138830
3.162277660
-2.
-2.
-2.
-2.
-2.
-2.
-2.
-2.
-2.
3.464101616
0.
-3.464101616
3.464101616
0.
-3.464101616
3.464101616
0.
-3.464101616
2.449489743
2.449489743
2.449489743
2.449489743
2.449489743
2.449489743
2.449489743
2.449489743
2.449489743
-3.464101616
-3.464101616
-3.464101616
0.
0.
0.
3.464101616
3.464101616
3.464101616
6.
0.
-6.
0.
0.
0.
-6.
0.
6.
4.242640686
4.242640686
4.242640686
0.
0.
0.
-4.242640686
-4.242640686
-4.242640686
5.477225575
5.477225575
5.477225575
-2.738612788
-2.738612788
-2.738612788
5.477225575
5.477225575
5.477225575
