0	0
11.5471	0
20.7849	0
30.0226	0
41.5697	0
50.8074	0
60.0452	0
71.5923	0
80.83	0
90.0677	0
101.615	0
110.853	0
120.09	0
131.637	0
140.875	0
150.113	0
161.66	0
170.898	0
180.135	0
191.683	0
200.92	0
210.158	0
221.705	0
230.943	0
240.181	0
251.728	0
260.966	0
270.203	0
281.75	0
290.988	0
300.226	0
311.773	0
321.011	0
330.248	-9.09495e-13
341.796	-9.09495e-13
351.033	0
360.271	-9.09495e-13
371.818	0
381.056	0
390.294	0
401.841	0
411.078	0
420.316	0
431.863	0
441.101	0
450.339	0
461.886	0
471.124	0
480.361	0
491.908	0
501.146	0
510.384	0
521.931	0
531.169	0
540.406	0
551.954	0
561.191	0
570.429	0
581.976	0
591.214	0
600.452	0
611.999	0
621.237	0
630.474	0
642.021	0
651.259	0
660.497	0
672.044	0
681.282	0
690.519	0
702.067	0
711.304	0
720.542	0
732.089	0
741.327	0
750.565	0
762.112	0
771.349	0
780.587	0
792.134	0
801.372	0
810.61	0
822.157	0
831.395	-9.09495e-13
840.632	-9.09495e-13
852.179	-9.09495e-13
861.417	-9.09495e-13
870.655	-9.09495e-13
882.202	0
891.44	0
900.677	0
912.225	0
921.462	0
930.7	0
942.247	0
951.485	0
960.723	0
972.27	0
981.508	0
990.745	0
1002.29	0
1011.53	0
1020.77	0
1030.01	0
1041.55	0
1050.79	0
1060.03	0
1071.58	0
1080.81	0
1090.05	0
1101.6	0
1110.84	0
1120.07	0
1131.62	0
1140.86	0
1150.1	0
1161.64	0
1170.88	0
1180.12	0
1191.67	0
1200.9	0
1210.14	0
1221.69	-9.09495e-13
1230.93	-9.09495e-13
1240.16	-9.09495e-13
1251.71	-9.09495e-13
1260.95	-9.09495e-13
1270.19	0
1281.73	0
1290.97	0
1300.21	0
1311.76	0
1320.99	0
1330.23	0
1341.78	0
1351.02	0
1360.25	0
1371.8	0
1381.04	0
1390.28	0
1401.82	0
1411.06	0
1420.3	0
1431.85	0
1441.08	0
1450.32	0
1461.87	0
1471.11	0
1480.34	0
1491.89	0
1501.13	0
1510.37	0
1521.91	0
1531.15	0
1540.39	0
1551.94	0
1561.17	0
1570.41	0
1581.96	0
1591.2	0
1600.43	0
1611.98	0
1621.22	0
1630.46	0
1642	0
1651.24	0
1660.48	0
1672.03	0
1681.26	0
1690.5	0
1702.05	0
1711.29	0
1720.52	0
1732.07	0
1741.31	0
1750.55	0
1762.09	0
1771.33	-9.09495e-13
1780.57	-9.09495e-13
1792.12	-9.09495e-13
1801.35	-9.09495e-13
1810.59	-9.09495e-13
1822.14	0
1831.38	0
1840.62	0
1852.16	0
1861.4	0
1870.64	0
1882.18	0
1891.42	0
1900.66	0
1912.21	0
1921.45	0
1930.68	0
1942.23	0
1951.47	0
1960.71	0
1972.25	0
1981.49	0
1990.73	0
2002.28	0
2011.51	0
2020.75	0
2032.3	0
2041.54	0
2050.77	0
2060.01	0
2071.56	0
2080.8	0
2090.03	0
2101.58	0
2110.82	0
2120.06	0
2131.6	0
2140.84	0
2150.08	0
2161.63	0
2170.86	0
2180.1	0
2191.65	0
2200.89	0
2210.12	0
2221.67	0
2230.91	0
2240.15	0
2251.69	0
2260.93	0
2270.17	-9.09495e-13
2281.72	-9.09495e-13
2290.95	-9.09495e-13
2300.19	-9.09495e-13
2311.74	0
2320.98	0
2330.21	0
2341.76	0
2351	0
2360.24	0
2371.78	0
2381.02	0
2390.26	0
2401.81	0
2411.04	0
2420.28	0
2431.83	0
2441.07	0
2450.3	0
2461.85	0
2471.09	0
2480.33	0
2491.87	0
2501.11	0
2510.35	0
2521.9	0
2531.13	0
2540.37	0
2551.92	0
2561.16	0
2570.39	0
2581.94	0
2591.18	0
2600.42	0
2611.96	0
2621.2	0
2630.44	0
2641.99	0
2651.22	0
2660.46	0
2672.01	0
2681.25	0
2690.49	0
2702.03	-9.09495e-13
2711.27	-9.09495e-13
2720.51	0
2732.05	-9.09495e-13
2741.29	-9.09495e-13
2750.53	9.09495e-13
2762.08	0
2771.31	0
2780.55	0
2792.1	0
2801.34	0
2810.58	0
2822.12	0
2831.36	0
2840.6	0
2852.14	0
2861.38	0
2870.62	0
2882.17	9.09495e-13
2891.4	2.72848e-12
2900.64	6.36646e-12
2912.19	1.27329e-11
2921.43	2.18279e-11
2930.66	3.72893e-11
2942.21	7.09406e-11
2951.45	1.18234e-10
2960.69	1.96451e-10
2972.23	3.62888e-10
2981.47	5.86624e-10
2990.71	9.38599e-10
3002.26	1.66347e-09
3011.49	2.60115e-09
3020.73	4.02815e-09
3032.28	6.86032e-09
3041.52	1.03901e-08
3050.75	1.55842e-08
3062.3	2.55268e-08
3071.54	3.74894e-08
3080.78	5.45515e-08
3090.01	7.86604e-08
3101.56	1.22732e-07
3110.8	1.73457e-07
3120.04	2.43014e-07
3131.58	3.65951e-07
3140.82	5.02929e-07
3150.06	6.85417e-07
3161.6	9.97649e-07
3170.84	1.33483e-06
3180.08	1.77175e-06
3191.63	2.49637e-06
3200.86	3.25573e-06
3210.1	4.21381e-06
3221.65	5.75611e-06
3230.89	7.32641e-06
3240.12	9.25779e-06
3251.67	1.22796e-05
3260.91	1.52726e-05
3270.15	1.88655e-05
3281.69	2.43366e-05
3290.93	2.96153e-05
3300.17	3.58073e-05
3311.71	4.49972e-05
3320.95	5.36461e-05
3330.19	6.35724e-05
3341.74	7.7952e-05
3350.97	9.11714e-05
3360.21	0.000106034
3371.76	0.000127082
3380.99	0.000146009
3390.23	0.000166885
3401.78	0.000195824
3411.02	0.000221319
3420.25	0.000248938
3431.8	0.000286476
3441.04	0.00031892
3450.27	0.000353485
3461.82	0.000399615
3471.06	0.000438784
3480.3	0.000479881
3491.84	0.000533815
3501.08	0.000578875
3510.32	0.000625498
3521.86	0.000685766
3531.1	0.000735395
3540.34	0.000786118
3551.88	0.00085083
3561.12	0.000903466
3570.36	0.000956717
3581.91	0.00102395
3591.14	0.00107812
3600.38	0.00113252
3611.93	0.00120074
3621.16	0.00125541
3630.4	0.00131013
3641.95	0.00137859
3651.19	0.00143343
3660.42	0.00148838
3671.97	0.00155734
3681.21	0.00161283
3690.44	0.00166875
3701.99	0.00173945
3711.23	0.00179683
3720.46	0.00185512
3732.01	0.00192952
3741.25	0.00199047
3750.49	0.00205289
3762.03	0.00213323
3771.27	0.00219955
3780.51	0.00226785
3792.05	0.00235623
3801.29	0.0024295
3810.53	0.0025052
3822.07	0.00260343
3831.31	0.00268506
3840.55	0.00276954
3852.09	0.00287944
3861.33	0.00297103
3870.57	0.00306617
3882.12	0.00319059
3891.35	0.00329503
3900.59	0.00340442
3912.14	0.00354915
3921.37	0.00367238
3930.61	0.00380338
3942.16	0.00398009
3951.39	0.00413379
3960.63	0.00430059
3972.18	0.00453115
3981.42	0.00473673
3990.65	0.00496478
4002.2	0.00528765
4011.44	0.00558205
4020.67	0.00591468
4032.22	0.00639437
4041.46	0.00683876
4050.7	0.00734686
4062.24	0.0080877
4071.48	0.00877983
4080.72	0.00957558
4092.26	0.0107406
4101.5	0.0118314
4110.74	0.013086
4122.29	0.0149204
4131.52	0.0166334
4140.76	0.0185964
4152.31	0.0214517
4161.55	0.024101
4170.78	0.0271172
4180.02	0.0305425
4191.57	0.0354683
4200.81	0.0399827
4210.04	0.0450617
4221.59	0.0522839
4230.83	0.0588259
4240.07	0.0661062
4251.61	0.0763274
4260.85	0.0854656
4270.09	0.0955138
4281.63	0.109426
4290.87	0.121691
4300.11	0.135006
4311.66	0.153173
4320.9	0.168953
4330.13	0.185856
4341.68	0.208571
4350.92	0.228
4360.16	0.248527
4371.7	0.275678
4380.94	0.298535
4390.18	0.322338
4401.72	0.353309
4410.96	0.378952
4420.2	0.405256
4431.75	0.438889
4440.98	0.466245
4450.22	0.49385
4461.77	0.528485
4471.01	0.556103
4480.24	0.583467
4491.79	0.617058
4501.03	0.64323
4510.27	0.668594
4521.81	0.698899
4531.05	0.72182
4540.29	0.743385
4551.84	0.7682
4561.07	0.786158
4570.31	0.802284
4581.86	0.819677
4591.1	0.831247
4600.33	0.840629
4611.88	0.849163
4621.12	0.853361
4630.36	0.855176
4641.9	0.854055
4651.14	0.85044
4660.38	0.844422
4671.93	0.833563
4681.16	0.822262
4690.4	0.808705
4701.95	0.788701
4711.19	0.77036
4720.42	0.750047
4731.97	0.722052
4741.21	0.697716
4750.44	0.671789
4761.99	0.637339
4771.23	0.608305
4780.47	0.578106
4792.01	0.53892
4801.25	0.50658
4810.49	0.473499
4822.04	0.431296
4831.27	0.396999
4840.51	0.362352
4852.06	0.318718
4861.3	0.283679
4870.53	0.24863
4882.08	0.204945
4891.32	0.170204
4900.56	0.135736
4912.1	0.0931517
4921.34	0.0595716
4930.58	0.0264978
4942.13	-0.0140363
4951.36	-0.0457446
4960.6	-0.076753
4972.15	-0.114448
4981.39	-0.143691
4990.62	-0.172071
5002.17	-0.206263
5011.41	-0.232539
5020.65	-0.257813
5032.19	-0.287939
5041.43	-0.310823
5050.67	-0.332591
5062.22	-0.358186
5071.45	-0.377338
5080.69	-0.395285
5092.24	-0.415998
5101.48	-0.431169
5110.71	-0.445084
5122.26	-0.460698
5131.5	-0.471759
5140.74	-0.481548
5152.28	-0.492004
5161.52	-0.498955
5170.76	-0.504662
5182.31	-0.510074
5191.54	-0.513053
5200.78	-0.514859
5210.02	-0.515523
5221.57	-0.514796
5230.8	-0.513015
5240.04	-0.510211
5251.59	-0.505336
5260.83	-0.500395
5270.06	-0.494583
5281.61	-0.48617
5290.85	-0.478587
5300.09	-0.470303
5311.63	-0.45905
5320.87	-0.449397
5330.11	-0.439227
5341.66	-0.425875
5350.89	-0.41475
5360.13	-0.403292
5371.68	-0.388585
5380.92	-0.376578
5390.15	-0.364414
5401.7	-0.349063
5410.94	-0.336726
5420.18	-0.32439
5431.72	-0.309037
5440.96	-0.29686
5450.2	-0.284818
5461.74	-0.270011
5470.98	-0.258401
5480.22	-0.247033
5491.77	-0.233205
5501	-0.222476
5510.24	-0.212066
5521.79	-0.199528
5531.03	-0.189896
5540.26	-0.180631
5551.81	-0.169578
5561.05	-0.161167
5570.29	-0.153143
5581.83	-0.143661
5591.07	-0.136514
5600.31	-0.129754
5611.86	-0.121843
5621.09	-0.11594
5630.33	-0.110409
5641.88	-0.104007
5651.12	-0.0992855
5660.35	-0.0949104
5671.9	-0.0899155
5681.14	-0.0862877
5690.38	-0.082977
5701.92	-0.0792705
5711.16	-0.0766395
5720.4	-0.0742957
5731.95	-0.0717564
5741.18	-0.0700266
5750.42	-0.0685558
5761.97	-0.0670692
5771.21	-0.0661516
5780.44	-0.0654672
5791.99	-0.0649283
5801.23	-0.0647415
5810.47	-0.064764
5822.01	-0.0650756
5831.25	-0.0655429
5840.49	-0.0661962
5852.04	-0.0672633
5861.27	-0.0683082
5870.51	-0.0695146
5882.06	-0.0712376
5891.3	-0.0727778
5900.53	-0.0744523
5912.08	-0.0767203
5921.32	-0.0786627
5930.56	-0.080708
5942.1	-0.083393
5951.34	-0.0856302
5960.58	-0.0879339
5972.13	-0.0908889
5981.36	-0.0932978
5990.6	-0.0957326
6002.15	-0.0987923
6011.39	-0.101237
6020.62	-0.103663
6032.17	-0.106649
6041.41	-0.108984
6050.65	-0.111256
6062.19	-0.113986
6071.43	-0.116066
6080.67	-0.118039
6092.22	-0.120337
6101.45	-0.122026
6110.69	-0.123569
6122.24	-0.125277
6131.48	-0.126456
6140.71	-0.127457
6152.26	-0.128448
6161.5	-0.129025
6170.74	-0.129402
6182.28	-0.129587
6191.52	-0.129502
6200.76	-0.129206
6212.31	-0.12854
6221.54	-0.127771
6230.78	-0.126791
6240.02	-0.125605
6251.57	-0.123835
6260.8	-0.122196
6270.04	-0.120364
6281.59	-0.117813
6290.83	-0.115571
6300.06	-0.11316
6311.61	-0.109921
6320.85	-0.10716
6330.09	-0.104261
6341.63	-0.100456
6350.87	-0.0972803
6360.11	-0.0940003
6371.66	-0.08977
6380.89	-0.0862954
6390.13	-0.0827527
6401.68	-0.0782459
6410.92	-0.0745914
6420.15	-0.0709052
6431.7	-0.0662694
6440.94	-0.0625509
6450.18	-0.0588347
6461.72	-0.0542072
6470.96	-0.0505307
6480.2	-0.0468861
6491.75	-0.0423876
6500.98	-0.0388438
6510.22	-0.0353562
6521.77	-0.0310854
6531.01	-0.0277466
6540.24	-0.0244824
6551.79	-0.0205136
6561.03	-0.0174323
6570.27	-0.014438
6581.81	-0.010821
6591.05	-0.00803094
6600.29	-0.0053345
6611.84	-0.00209744
6621.07	0.000384481
6630.31	0.00277018
6641.86	0.00561681
6651.1	0.00778583
6660.33	0.00985893
6671.88	0.012316
6681.12	0.0141749
6690.36	0.0159394
6701.9	0.0180131
6711.14	0.0195671
6720.38	0.0210281
6731.92	0.0227241
6741.16	0.0239767
6750.4	0.0251366
6761.95	0.0264558
6771.18	0.0274062
6780.42	0.0282625
6791.97	0.0291996
6801.21	0.0298415
6810.45	0.0303867
6821.99	0.0309303
6831.23	0.0312537
6840.47	0.0314768
6852.01	0.0316129
6861.25	0.0316065
6870.49	0.0314967
6882.04	0.031213
6891.27	0.0308685
6900.51	0.0304193
6912.06	0.0297109
6921.3	0.0290273
6930.53	0.0282408
6942.08	0.027115
6951.32	0.0261024
6960.56	0.0249926
6972.1	0.0234727
6981.34	0.0221543
6990.58	0.0207488
7002.13	0.0188751
7011.36	0.017288
7020.6	0.0156276
7032.15	0.0134565
7041.39	0.0116497
7050.62	0.00978656
7062.17	0.00738724
7071.41	0.00541857
7080.65	0.00341263
7092.19	0.00086199
7101.43	-0.00120572
7110.67	-0.00329106
7122.22	-0.00591341
7131.45	-0.00801665
7140.69	-0.0101184
7152.24	-0.0127349
7161.48	-0.0148128
7170.71	-0.0168715
7182.26	-0.0194099
7191.5	-0.0214067
7200.74	-0.0233683
7212.28	-0.0257637
7221.52	-0.0276296
7230.76	-0.0294461
7242.31	-0.0316411
7251.54	-0.033332
7260.78	-0.0349611
7270.02	-0.0365247
7281.57	-0.038382
7290.8	-0.039786
7300.04	-0.0411138
7311.59	-0.0426617
7320.83	-0.0438068
7330.06	-0.0448659
7341.61	-0.0460646
7350.85	-0.04692
7360.09	-0.0476806
7371.63	-0.0484941
7380.87	-0.0490322
7390.11	-0.0494676
7401.66	-0.0498641
7410.89	-0.0500607
7420.13	-0.050148
7431.68	-0.0501009
7440.91	-0.0499363
7450.15	-0.0496574
7461.7	-0.0491465
7470.94	-0.0486067
7480.17	-0.0479496
7491.72	-0.0469626
7500.96	-0.0460401
7510.2	-0.0449997
7521.74	-0.0435335
7530.98	-0.0422286
7540.22	-0.0408074
7551.77	-0.0388687
7561	-0.0371896
7570.24	-0.0353984
7581.79	-0.0330043
7591.02	-0.0309677
7600.26	-0.0288256
