0	0
175.888	0
351.776	0
527.664	0
703.552	0
879.44	0
1055.33	0
1231.22	0
1407.1	0
1582.99	0
1758.88	0
1934.77	0
2110.66	-9.21355e-06
2286.54	0.000791399
2462.43	0.00327492
2638.32	0.00915485
2814.2	0.0206859
2990.08	0.0399198
3165.96	0.0672909
3341.84	0.101191
3517.72	0.138327
3693.6	0.17468
3869.48	0.206325
4045.36	0.230035
4221.24	0.243633
4397.12	0.246196
4573	0.238073
4748.88	0.220695
4924.77	0.196228
5100.65	0.167165
5276.54	0.135975
5452.43	0.104867
5628.31	0.0756527
5804.2	0.0497038
5980.09	0.0279479
6155.97	0.0108868
6331.86	-0.00138047
6507.75	-0.00912557
6683.64	-0.0129439
6859.53	-0.0136828
7035.42	-0.0123445
7211.3	-0.0099689
7387.19	-0.00751363
7563.08	-0.00574893
7738.97	-0.00518761
7914.86	-0.00606142
8090.75	-0.00834562
8266.64	-0.0118225
8442.52	-0.0161666
8618.41	-0.0210313
8794.3	-0.0261185
8970.19	-0.0312199
9146.08	-0.0362265
9321.96	-0.0411104
9497.85	-0.0458905
9673.74	-0.0505933
9849.63	-0.0552213
10025.5	-0.0597353
10201.4	-0.0640536
10377.3	-0.0680648
10553.2	-0.0716493
10729.1	-0.0747009
10905	-0.0771434
11080.8	-0.0789387
11256.7	-0.0800846
11432.6	-0.0806054
11608.5	-0.0805391
11784.4	-0.0799248
11960.3	-0.0787945
