0	0
10.4965	0
20.1855	0
30.6818	0
40.3707	0
50.0594	0
60.5555	0
70.2441	0
80.74	0
90.4284	0
100.117	0
110.612	0
120.301	0
130.796	0
140.485	0
150.173	0
160.669	0
170.357	0
180.037	0
190.468	0
200.019	0
210.325	0
220.618	0
230.118	0
240.41	0
250.702	0
260.201	0
270.492	0
280.782	2.72848e-12
290.279	1.36424e-11
300.557	2.54659e-11
310.044	3.63798e-11
320.322	4.82032e-11
330.6	6.54836e-11
340.087	8.73115e-11
350.364	1.12777e-10
360.642	1.48248e-10
370.129	1.87356e-10
380.406	2.39197e-10
390.684	3.02862e-10
400.171	3.73802e-10
410.439	4.6748e-10
420.668	5.80258e-10
430.08	7.03949e-10
440.205	8.61291e-10
450.321	1.04956e-09
460.331	1.26965e-09
470.297	1.52704e-09
480.216	1.82627e-09
490.141	2.17278e-09
500.066	2.57569e-09
510.754	3.07864e-09
520.673	3.61979e-09
530.586	4.23734e-09
540.457	4.93765e-09
550.262	5.72709e-09
560.062	6.6193e-09
570.617	7.70706e-09
580.411	8.84665e-09
590.191	1.01218e-08
600.719	1.16588e-08
610.488	1.32595e-08
620.254	1.50385e-08
630.02	1.70103e-08
640.537	1.93713e-08
650.303	2.18015e-08
660.069	2.44827e-08
670.587	2.76732e-08
680.353	3.09365e-08
690.118	3.4519e-08
700.636	3.87581e-08
710.402	4.30719e-08
720.167	4.77667e-08
730.683	5.327e-08
740.428	5.88016e-08
750.166	6.47606e-08
760.653	7.16809e-08
770.391	7.85876e-08
780.128	8.59754e-08
790.615	9.44901e-08
800.353	1.02935e-07
810.09	1.11915e-07
820.577	1.22201e-07
830.315	1.32333e-07
840.052	1.43034e-07
850.539	1.55197e-07
860.277	1.67091e-07
870.014	1.79564e-07
880.501	1.93648e-07
890.238	2.07333e-07
900.725	2.22727e-07
910.462	2.37635e-07
920.2	2.53134e-07
930.686	2.70495e-07
940.424	2.87241e-07
950.161	3.04598e-07
960.647	3.23982e-07
970.385	3.42637e-07
980.122	3.61934e-07
990.609	3.83455e-07
1000.35	4.04143e-07
1010.08	4.25529e-07
1020.57	4.49369e-07
1030.31	4.72283e-07
1040.04	4.95987e-07
1050.53	5.22428e-07
1060.27	5.47875e-07
1070.01	5.74229e-07
1080.49	6.03679e-07
1090.23	6.32076e-07
1100.72	6.63861e-07
1110.45	6.94567e-07
1120.19	7.26495e-07
1130.68	7.62341e-07
1140.41	7.97081e-07
1150.15	8.33323e-07
1160.64	8.74155e-07
1170.37	9.13851e-07
1180.1	9.55384e-07
1190.59	1.00234e-06
1200.32	1.04816e-06
1210.05	1.09625e-06
1220.54	1.15076e-06
1230.27	1.20408e-06
1240	1.26017e-06
1250.49	1.32389e-06
1260.22	1.38634e-06
1270.7	1.45735e-06
1280.44	1.52699e-06
1290.17	1.60044e-06
1300.65	1.68404e-06
1310.39	1.7661e-06
1320.12	1.85263e-06
1330.58	1.95108e-06
1340.28	2.04754e-06
1350.72	2.15735e-06
1360.42	2.26508e-06
1370.1	2.37869e-06
1380.52	2.50787e-06
1390.19	2.63447e-06
1400.59	2.77844e-06
1410.25	2.91967e-06
1420.65	3.0803e-06
1430.31	3.23809e-06
1440.71	3.41827e-06
1450.37	3.59543e-06
1460.03	3.78231e-06
1470.43	3.99464e-06
1480.09	4.20223e-06
1490.49	4.43708e-06
1500.12	4.66507e-06
1510.48	4.92198e-06
1520.1	5.17126e-06
1530.46	5.45149e-06
1540.08	5.7228e-06
1550.43	6.02715e-06
1560.05	6.32128e-06
1570.41	6.65074e-06
1580.03	6.96878e-06
1590.39	7.32472e-06
1600.74	7.69472e-06
1610.32	8.05047e-06
1620.58	8.44615e-06
1630.06	8.8259e-06
1640.27	9.25066e-06
1650.48	9.69256e-06
1660.69	1.01524e-05
1670.17	1.05963e-05
1680.38	1.10935e-05
1690.59	1.16116e-05
1700.07	1.21123e-05
1710.28	1.26739e-05
1720.49	1.32599e-05
1730.7	1.38716e-05
1740.18	1.44639e-05
1750.39	1.51293e-05
1760.6	1.58248e-05
1770.08	1.6499e-05
1780.29	1.72573e-05
1790.5	1.80508e-05
1800.71	1.88811e-05
1810.19	1.96867e-05
1820.4	2.05929e-05
1830.61	2.15405e-05
1840.09	2.24583e-05
1850.3	2.34886e-05
1860.51	2.45634e-05
1870.71	2.56834e-05
1880.2	2.67648e-05
1890.4	2.79747e-05
1900.61	2.92326e-05
1910.09	3.04444e-05
1920.3	3.17976e-05
1930.51	3.32017e-05
1940.72	3.46579e-05
1950.2	3.60578e-05
1960.41	3.76182e-05
1970.62	3.92348e-05
1980.1	4.07876e-05
1990.31	4.25172e-05
2000.52	4.43082e-05
2010	4.60282e-05
2020.21	4.79438e-05
2030.42	4.99274e-05
2040.63	5.19817e-05
2050.11	5.39549e-05
2060.32	5.61532e-05
2070.53	5.84306e-05
2080.01	6.0619e-05
2090.22	6.3058e-05
2100.43	6.55858e-05
2110.64	6.82062e-05
2120.12	7.07255e-05
2130.33	7.35352e-05
2140.54	7.64493e-05
2150.02	7.92524e-05
2160.23	7.90599e-05
2170.44	7.7777e-05
2180.64	7.67357e-05
2190.12	7.59706e-05
2200.33	7.53502e-05
2210.54	7.49282e-05
2220.02	7.47033e-05
2230.23	7.46303e-05
2240.44	7.4723e-05
2250.65	7.49721e-05
2260.13	7.53366e-05
2270.34	7.5866e-05
2280.55	7.65313e-05
2290.03	7.72662e-05
2300.24	7.81797e-05
2310.45	7.92164e-05
2320.66	8.03735e-05
2330.14	8.15538e-05
2340.35	8.29377e-05
2350.55	8.44377e-05
2360.03	8.59345e-05
2370.24	8.76587e-05
2380.45	8.95002e-05
2390.66	9.14607e-05
2400.14	9.33893e-05
2410.35	9.5585e-05
2420.56	9.79066e-05
2430.58	0.000100312
2440.06	0.000102704
2450.27	0.000105412
2460.48	0.00010826
2470.69	0.000111254
2480.17	0.000114167
2490.38	0.000117455
2500.59	0.000120902
2510.07	0.000124251
2520.28	0.000128024
2530.49	0.000131974
2540.7	0.000136108
2550.18	0.000140099
2560.38	0.000144551
2570.59	0.000149151
2580.07	0.000153551
2590.28	0.000158421
2600.49	0.000163427
2610.7	0.000168567
2620.18	0.000173461
2630.39	0.000178864
2640.6	0.000184408
2650.08	0.000189686
2660.29	0.000195516
2670.5	0.000201504
2680.71	0.000207658
2690.14	0.000213503
2700.31	0.000219972
2710.47	0.000226634
2720.63	0.000233501
2730.06	0.000240073
2740.22	0.000247374
2750.38	0.000254919
2760.55	0.000262724
2770.71	0.000270803
2780.14	0.000278562
2790.3	0.000287209
2800.46	0.000296172
2810.62	0.000305464
2820.06	0.000314399
2830.22	0.000324365
2840.38	0.000334703
2850.54	0.000345427
2860.7	0.000356552
2870.14	0.000367258
2880.3	0.000379207
2890.46	0.000391608
2900.62	0.000404483
2910.06	0.000429874
2920.22	0.000461381
2930.38	0.000492672
2940.54	0.000523691
2950.7	0.000554423
2960.13	0.000582721
2970.29	0.000612975
2980.45	0.000643058
2990.62	0.000673046
3000.05	0.000700883
3010.21	0.000730941
3020.37	0.000761185
3030.53	0.000791723
3040.69	0.000822669
3050.13	0.000851872
3060.29	0.000883933
3070.45	0.00091674
3080.61	0.00095041
3090.05	0.000982545
3100.21	0.00101819
3110.37	0.00105494
3120.53	0.00109266
3130.69	0.00113122
3140.12	0.0011677
3150.28	0.00120769
3160.44	0.00124843
3170.6	0.00128997
3180.04	0.00132934
3190.2	0.00137271
3200.36	0.00141721
3210.52	0.00146303
3220.68	0.00151033
3230.12	0.00155575
3240.28	0.00160645
3250.44	0.00165916
3260.6	0.00171406
3270.03	0.00176715
3280.19	0.00182675
3290.35	0.00188879
3300.51	0.00199771
3310.67	0.00213532
3320.11	0.0022569
3330.27	0.00238227
3340.43	0.00250352
3350.59	0.00262255
3360.02	0.00273281
3370.18	0.00285303
3380.34	0.00297651
3390.5	0.00310476
3400.66	0.00323783
3410.1	0.00336484
3420.26	0.00350519
3430.42	0.00364984
3440.58	0.00379997
3450.01	0.0039457
3460.17	0.0041111
3470.33	0.00428686
3480.5	0.00448882
3490.66	0.00487566
3500.09	0.00522192
3510.25	0.00558668
3520.41	0.00595419
3530.57	0.00633554
3540.01	0.0067026
3550.17	0.00710664
3560.33	0.00752631
3570.49	0.00797508
3580.65	0.00878253
3590.08	0.00950629
3600.24	0.0102759
3610.4	0.0111043
3620.56	0.0120867
3630.72	0.0137312
3640.16	0.0153158
3650.32	0.0185173
3660.48	0.0242367
3670.64	0.0293359
3680.07	0.0335483
3690.23	0.0379914
3700.39	0.0421464
3710.55	0.0459539
3720.71	0.0493147
3730.15	0.0522931
3740.31	0.0555211
3750.47	0.0586955
3760.63	0.0616713
3770.06	0.0642441
3780.22	0.0669078
3790.39	0.0695282
3800.55	0.0720949
3810.71	0.074611
3820.14	0.076967
3830.3	0.0795761
3840.46	0.0822244
3850.62	0.0848466
3860.06	0.0872491
3870.22	0.0898411
3880.38	0.0924734
3890.54	0.0951545
3900.7	0.0978936
3910.14	0.100513
3920.3	0.10344
3930.46	0.106473
3940.62	0.109588
3950.08	0.112544
3960.33	0.115805
3970.58	0.119132
3980.1	0.122288
3990.34	0.125766
4000.59	0.129331
4010.11	0.132719
4020.36	0.136442
4030.61	0.140235
4040.13	0.143819
4050.38	0.147757
4060.63	0.151801
4070.14	0.155679
4080.4	0.160029
4090.65	0.164599
4100.18	0.169076
4110.43	0.174183
4120.69	0.179625
4130.21	0.185018
4140.47	0.191243
4150.73	0.197959
4160.25	0.204694
4170.51	0.212543
4180.03	0.220438
4190.29	0.229647
4200.54	0.239644
4210.07	0.249681
4220.33	0.261368
4230.6	0.274026
4240.15	0.286709
4250.43	0.301422
4260.02	0.316149
4270.35	0.333169
4280.69	0.351413
4290.29	0.36945
4300.63	0.390055
4310.26	0.410303
4320.65	0.433296
4330.32	0.455695
4340.74	0.480824
4350.41	0.505006
4360.08	0.529894
4370.49	0.557341
4380.16	0.583269
4390.58	0.611473
4400.25	0.63773
4410.66	0.665853
4420.33	0.691604
4430	0.716781
4440.42	0.742991
4450.09	0.766232
4460.5	0.789782
4470.17	0.809999
4480.59	0.829679
4490.26	0.845722
4500.67	0.860281
4510.34	0.870988
4520.02	0.87872
4530.43	0.883425
4540.1	0.884169
4550.52	0.880791
4560.19	0.873547
4570.6	0.861096
4580.27	0.845047
4590.69	0.822783
4600.36	0.797397
4610.03	0.767436
4620.44	0.730066
4630.11	0.690692
4640.53	0.643386
4650.2	0.595066
4660.61	0.538513
4670.28	0.482012
4680.7	0.417082
4690.37	0.353144
4700.04	0.285767
4710.46	0.209326
4720.13	0.134557
4730.54	0.0498385
4740.21	-0.0252942
4750.63	-0.0601542
4760.3	-0.0916244
4770.71	-0.103749
4780.38	-0.12553
4790.05	-0.141124
4800.47	-0.153887
4810.14	-0.164569
4820.56	-0.169415
4830.23	-0.179544
4840.64	-0.188087
4850.33	-0.194659
4860.04	-0.200349
4870.51	-0.205188
4880.23	-0.209565
4890.69	-0.214115
4900.42	-0.218081
4910.16	-0.212161
4920.64	-0.214104
4930.38	-0.218613
4940.12	-0.222444
4950.61	-0.22591
4960.34	-0.228631
4970.08	-0.230973
4980.57	-0.233163
4990.31	-0.234964
5000.04	-0.236559
5010.53	-0.237757
5020.27	-0.238915
5030	-0.239938
5040.49	-0.241047
5050.23	-0.242063
5060.72	-0.24312
5070.45	-0.244052
5080.19	-0.244925
5090.68	-0.245769
5100.42	-0.239518
5110.15	-0.240378
5120.64	-0.241239
5130.38	-0.242642
5140.11	-0.243731
5150.6	-0.24475
5160.34	-0.245539
5170.08	-0.246191
5180.56	-0.246757
5190.3	-0.247165
5200.04	-0.247472
5210.52	-0.247699
5220.25	-0.247821
5230.73	-0.247862
5240.47	-0.247824
5250.2	-0.247717
5260.68	-0.24753
5270.42	-0.247295
5280.15	-0.247005
5290.63	-0.246607
5300.37	-0.246162
5310.1	-0.245686
5320.58	-0.245142
5330.32	-0.244543
5340.05	-0.243791
5350.54	-0.24297
5360.27	-0.242194
5370.75	-0.241343
5380.47	-0.240537
5390.18	-0.239715
5400.62	-0.238813
5410.32	-0.237957
5420	-0.237085
5430.42	-0.236129
5440.08	-0.235227
5450.48	-0.234241
5460.14	-0.233305
5470.54	-0.232278
5480.2	-0.231313
5490.6	-0.225255
5500.26	-0.224788
5510.66	-0.224284
5520.32	-0.223816
5530.73	-0.223315
5540.38	-0.222852
5550.04	-0.222392
5560.44	-0.221901
5570.06	-0.221452
5580.43	-0.220976
5590.05	-0.220542
5600.41	-0.220085
5610.03	-0.219671
5620.39	-0.219235
5630	-0.218841
5640.36	-0.218427
5650.72	-0.218024
5660.34	-0.217658
5670.7	-0.217273
5680.3	-0.216923
5690.62	-0.216551
5700.14	-0.21621
5710.35	-0.215845
5720.56	-0.215476
5730.04	-0.215128
5740.25	-0.214744
5750.46	-0.214348
5760.67	-0.213937
5770.15	-0.21354
5780.36	-0.213093
5790.57	-0.212625
5800.05	-0.212168
5810.26	-0.211651
5820.47	-0.211107
5830.68	-0.210532
5840.16	-0.209978
5850.37	-0.20943
5860.58	-0.208827
5870.06	-0.20822
5880.27	-0.207518
5890.48	-0.206767
5900.69	-0.205972
5910.17	-0.205111
5920.38	-0.204139
5930.59	-0.203129
5940.07	-0.202162
5950.28	-0.20109
5960.49	-0.199989
5970.7	-0.198861
5980.18	-0.197792
5990.39	-0.196618
6000.6	-0.195422
6010.08	-0.194294
6020.29	-0.193061
6030.5	-0.19181
6040.71	-0.190542
6050.19	-0.189351
6060.4	-0.188053
6070.61	-0.186742
6080.09	-0.185513
6090.3	-0.184177
6100.51	-0.182829
6110.72	-0.181471
6120.2	-0.180202
6130.41	-0.178826
6140.62	-0.177441
6150.1	-0.17615
6160.31	-0.174752
6170.52	-0.17335
6180	-0.172043
6190.21	-0.170633
6200.42	-0.169219
6210.63	-0.167804
6220.11	-0.169807
6230.32	-0.168976
6240.53	-0.168142
6250.01	-0.167251
6260.22	-0.165976
6270.43	-0.164675
6280.64	-0.163356
6290.12	-0.162121
6300.33	-0.160781
6310.54	-0.159437
6320.02	-0.158184
6330.23	-0.156833
6340.44	-0.155481
6350.65	-0.154127
6360.13	-0.152869
6370.34	-0.151513
6380.55	-0.150156
6390.03	-0.148894
6400.24	-0.147533
6410.45	-0.146169
6420.66	-0.144803
6430.14	-0.143532
6440.35	-0.142159
6450.56	-0.140783
6460.04	-0.139501
6470.25	-0.138117
6480.46	-0.136731
6490.67	-0.135346
6500.15	-0.134066
6510.36	-0.132694
6520.57	-0.131331
6530.05	-0.130074
6540.26	-0.128729
6550.47	-0.127392
6560.68	-0.126062
6570.16	-0.124832
6580.37	-0.123511
6590.58	-0.122191
6600.06	-0.120965
6610.27	-0.119643
6620.48	-0.118316
6630.69	-0.116983
6640.17	-0.115738
6650.38	-0.114389
6660.59	-0.112924
6670.07	-0.110368
6680.28	-0.107767
6690.49	-0.105315
6700.7	-0.102994
6710.18	-0.100941
6720.39	-0.0988166
6730.6	-0.0967602
6740.08	-0.0948924
6750.29	-0.0929071
6760.5	-0.0909324
6770.71	-0.088954
6780.19	-0.08711
6790.4	-0.0851235
6800.61	-0.0831437
6810.09	-0.0813106
6820.3	-0.0793361
6830.51	-0.0773509
6840.72	-0.0753429
6850.2	-0.0734479
6860.41	-0.0713673
6870.62	-0.0680562
6880.13	-0.0648842
6890.39	-0.0615906
6900.61	-0.0583842
6910.08	-0.055422
6920.24	-0.052202
6930.41	-0.0489105
6940.57	-0.0455847
6950	-0.0425139
6960.16	-0.0392078
6970.32	-0.035851
6980.48	-0.0306352
6990.65	-0.0257174
7000.08	-0.0212792
7010.24	-0.0163435
7020.4	-0.0113049
7030.56	-0.00394988
7040.72	0.00356802
7050.16	0.0122355
7060.32	0.0263895
7070.48	0.0394412
7080.64	0.0468824
7090.08	0.0518165
7100.24	0.0553546
7110.4	0.0573828
7120.56	0.0578069
7130.72	0.0574241
7140.15	0.0574307
7150.32	0.0579758
7160.48	0.058476
7170.64	0.0584069
7180.07	0.0579734
7190.23	0.0575566
7200.39	0.057463
7210.55	0.0575918
7220.72	0.0578299
7230.15	0.0582603
7240.31	0.0590009
7250.47	0.0597871
7260.63	0.0603093
7270.07	0.0605079
7280.23	0.0605807
7290.39	0.0606606
7300.55	0.060741
7310.71	0.0607494
7320.15	0.0606939
7330.31	0.0606181
7340.47	0.0605306
7350.63	0.0603724
7360.06	0.0601304
7370.22	0.0598157
7380.38	0.0595506
7390.55	0.0594294
7400.71	0.0594948
7410.14	0.0597118
7420.3	0.0600457
7430.46	0.0603612
7440.62	0.0605221
7450.06	0.0604565
7460.22	0.060146
7470.38	0.0596402
7480.54	0.0590214
7490.7	0.0583741
7500.14	0.0578063
7510.3	0.0572607
7520.46	0.0567703
7530.62	0.0562907
7540.05	0.0558201
7550.21	0.055284
7560.38	0.0547603
7570.54	0.0543228
7580.7	0.0540479
7590.13	0.0539848
7600.29	0.0541384
7610.45	0.0544979
7620.61	0.0550108
7630.05	0.055572
7640.21	0.0562233
7650.37	0.056901
7660.53	0.0576076
7670.69	0.0583627
7680.13	0.0591277
7690.29	0.0600353
7700.45	0.0610319
7710.61	0.0621085
7720.05	0.0631688
7730.21	0.0643684
7740.37	0.0656283
7750.53	0.0669556
7760.69	0.0683575
7770.12	0.069726
7780.28	0.0712606
7790.45	0.0728362
7800.61	0.0744245
7810.04	0.0758876
7820.2	0.0774335
7830.36	0.0789417
7840.52	0.0804144
7850.69	0.0818586
7860.12	0.0831791
7870.28	0.084579
7880.44	0.0859498
7890.6	0.0872825
7900.04	0.0884794
7910.2	0.089724
7920.36	0.0909302
7930.52	0.0921112
7940.68	0.0932808
7950.12	0.0943633
7960.28	0.0955219
7970.44	0.0966588
7980.6	0.0977508
7990.03	0.0987031
8000.2	0.0996443
8010.36	0.10049
8020.52	0.101244
8030.71	0.101924
8040.23	0.102507
8050.48	0.103097
8060.73	0.103661
8070.24	0.104163
8080.49	0.104678
8090.01	0.105121
8100.26	0.105545
8110.51	0.105898
8120.03	0.106144
8130.28	0.106302
8140.52	0.106325
8150.04	0.106203
8160.29	0.105893
8170.54	0.105372
8180.06	0.104685
8190.31	0.103719
8200.56	0.102522
8210.07	0.101217
8220.32	0.0996253
8230.57	0.0978703
8240.1	0.0961208
8250.35	0.0941372
8260.61	0.0920766
8270.13	0.0901142
8280.39	0.0879652
8290.65	0.0857935
8300.17	0.0837659
8310.43	0.0815769
8320.68	0.079385
8330.21	0.0773465
8340.46	0.0751447
8350.72	0.0729319
8360.24	0.0708647
8370.5	0.0686249
8380.03	0.0665344
8390.31	0.0642799
8400.59	0.0620392
8410.17	0.0599792
8420.49	0.0578095
8430.09	0.0558528
8440.43	0.0538273
8450.03	0.0520339
8460.37	0.0502048
8470.71	0.0484861
8480.31	0.0469886
8490.65	0.045477
8500.25	0.0441592
8510.61	0.0428182
8520.24	0.0416302
8530.65	0.0403903
8540.32	0.0392609
8550.74	0.0380461
8560.41	0.0369001
8570.08	0.0357201
8580.5	0.034396
8590.17	0.0331063
8600.58	0.0316452
8610.25	0.0302188
8620.67	0.0286092
8630.34	0.0270514
8640.01	0.0254406
8650.42	0.0236583
8660.09	0.0219715
8670.51	0.0201357
8680.18	0.018426
8690.6	0.0165921
8700.27	0.0149035
8710.68	0.0131002
8720.35	0.0114184
8730.02	0.00961279
8740.44	0.00654479
8750.11	0.00240976
8760.52	0.000605316
8770.2	-0.00344579
8780.61	-0.00720138
8790.28	-0.0103744
8800.7	-0.0134977
8810.37	-0.0161447
8820.04	-0.0186006
8830.45	-0.0208826
8840.12	-0.0194366
8850.54	-0.0216592
8860.21	-0.0241634
8870.62	-0.0265054
8880.3	-0.0283412
8890.71	-0.0300391
8900.38	-0.0314132
8910.05	-0.0326082
8920.47	-0.0338169
8930.14	-0.0348377
8940.55	-0.0359068
8950.21	-0.0368848
8960.62	-0.0379211
8970.28	-0.0388655
8980.68	-0.039862
8990.34	-0.0407668
9000	-0.0394016
9010.4	-0.0407044
9020.06	-0.0418172
9030.46	-0.0428938
9040.12	-0.0437896
9050.53	-0.0446516
9060.18	-0.0453663
9070.59	-0.0460555
9080.24	-0.0466302
9090.65	-0.0471873
9100.31	-0.0476544
9110.71	-0.048111
9120.37	-0.0484984
9130.03	-0.0488568
9140.43	-0.0492188
9150.09	-0.0495393
9160.49	-0.0498958
9170.15	-0.0502195
9180.55	-0.0504281
9190.21	-0.0506399
9200.61	-0.0508845
9210.27	-0.0511241
9220.67	-0.0513929
9230.33	-0.0516501
9240.71	-0.0519319
9250.33	-0.0521966
9260.69	-0.0524829
9270.31	-0.0527483
9280.67	-0.0530322
9290.29	-0.0532927
9300.65	-0.0535689
9310.27	-0.0511713
9320.62	-0.0502175
9330.24	-0.0505992
9340.6	-0.0509931
9350.22	-0.0513434
9360.55	-0.0517034
9370.13	-0.0520227
9380.45	-0.05235
9390.68	-0.0526525
9400.16	-0.0529138
9410.37	-0.0531724
9420.58	-0.0534092
9430.06	-0.053611
9440.27	-0.0538104
9450.48	-0.0539926
9460.69	-0.0541589
9470.17	-0.0543001
9480.38	-0.0544388
9490.59	-0.0545645
9500.07	-0.0546697
9510.28	-0.0547694
9520.49	-0.0548559
9530.7	-0.05493
9540.18	-0.0549863
9550.39	-0.0550327
9560.6	-0.0550646
9570.08	-0.0550815
9580.29	-0.0550865
9590.5	-0.0550781
9600.71	-0.055057
9610.19	-0.0550264
9620.4	-0.0549822
9630.61	-0.0549269
9640.09	-0.0548644
9650.3	-0.0547855
9660.51	-0.0546955
9670.72	-0.0545954
9680.2	-0.0544749
9690.41	-0.0543312
9700.62	-0.0542262
9710.1	-0.0541515
9720.31	-0.0540611
9730.52	-0.0539614
9740.73	-0.0538533
9750.21	-0.0537459
9760.42	-0.0536235
9770.63	-0.0534947
9780.11	-0.0533698
9790.32	-0.0532301
9800.53	-0.0530855
9810.01	-0.0529471
9820.22	-0.0527941
9830.43	-0.0526372
9840.64	-0.0524767
9850.12	-0.0523248
9860.33	-0.0521581
9870.54	-0.0519885
9880.02	-0.0518285
9890.23	-0.0516536
9900.44	-0.0514761
9910.65	-0.0512961
9920.13	-0.0511268
9930.34	-0.0509422
9940.55	-0.0507552
9950.03	-0.0505796
9960.24	-0.0503883
9970.45	-0.0501947
9980.66	-0.049999
9990.14	-0.0498155
10000.3	-0.0494428
10010.6	-0.0492738
10020	-0.0491164
10030.2	-0.0489463
10040.5	-0.0487753
10050.7	-0.0486033
10060.1	-0.0484424
10070.4	-0.0482679
10080.6	-0.0480921
10090	-0.0479275
10100.3	-0.0477488
10110.5	-0.0475684
10120.7	-0.0473862
10130.2	-0.0472153
10140.4	-0.0470292
10150.6	-0.0468409
10160.1	-0.0466631
10170.3	-0.0464678
10180.5	-0.0462683
10190.7	-0.0460648
10200.2	-0.0458721
10210.4	-0.0456605
10220.6	-0.0454448
10230.1	-0.0451704
10240.3	-0.0448733
10250.5	-0.0445748
10260.7	-0.0442746
10270.2	-0.0439943
10280.4	-0.0436908
10290.6	-0.0433854
10300.1	-0.0431001
10310.3	-0.0427911
10320.5	-0.04248
10330.7	-0.0421669
10340.2	-0.0418742
10350.4	-0.0415569
10360.6	-0.0412375
10370.1	-0.0409388
10380.3	-0.040615
10390.5	-0.0402892
10400.7	-0.0399632
10410.2	-0.0396603
10420.4	-0.0393336
10430.6	-0.039006
10440.1	-0.0387009
10450.3	-0.0383709
10460.5	-0.0380393
10470.7	-0.0377059
10480.2	-0.0373946
10490.4	-0.0370573
10500.6	-0.0367179
10510.1	-0.0364008
10520.3	-0.036057
10530.5	-0.0357109
10540	-0.0353875
10550.2	-0.035037
10560.4	-0.0346841
10570.6	-0.0343289
10580.1	-0.0339971
10590.3	-0.0336377
10600.5	-0.0332761
10610	-0.0329385
10620.2	-0.032573
10630.4	-0.0322056
10640.6	-0.0318365
10650.1	-0.0314921
10660.3	-0.0311199
10670.5	-0.0307463
10680	-0.0303984
10690.2	-0.0300228
10700.4	-0.0296472
10710.7	-0.0292724
10720.1	-0.0289252
10730.2	-0.0285568
10740.4	-0.0281845
10750.6	-0.0278132
10760.1	-0.0274692
10770.3	-0.0270754
10780.5	-0.0266674
10790	-0.0262925
10800.2	-0.0258932
10810.4	-0.0254998
10820.5	-0.0251106
10830.7	-0.0247255
10840.1	-0.0243716
10850.3	-0.0239942
10860.5	-0.0236207
10870.6	-0.0232511
10880.1	-0.0229112
10890.2	-0.0225487
10900.4	-0.0221896
10910.5	-0.0218341
10920.7	-0.0214818
10930.1	-0.0211576
10940.3	-0.0208115
10950.5	-0.0204684
10960.6	-0.0201295
10970.1	-0.019819
10980.2	-0.0194887
10990.4	-0.0191622
11000.5	-0.0188392
11010.7	-0.0185194
11020.1	-0.0182249
11030.3	-0.0179102
11040.5	-0.0175978
11050.6	-0.0172875
11060.1	-0.0169852
11070.2	-0.0166724
11080.4	-0.0163721
11090.5	-0.0160818
11100.7	-0.0157996
11110.1	-0.0155431
11120.3	-0.0152717
11130.5	-0.0150049
11140.6	-0.0147445
11150.1	-0.0145078
11160.2	-0.0142578
11170.4	-0.0140118
11180.5	-0.013769
11190.7	-0.0135284
11200.1	-0.0133062
11210.3	-0.0130673
11220.5	-0.0128283
11230.6	-0.0125883
11240	-0.0123643
11250.2	-0.0121211
11260.4	-0.0118754
11270.5	-0.0116269
11280.7	-0.0113755
11290.1	-0.0111396
11300.3	-0.0108827
11310.4	-0.0106229
11320.6	-0.0103599
11330	-0.0101126
11340.2	-0.00984295
11350.4	-0.00956957
11360.5	-0.00929236
11370.7	-0.00901155
11380.1	-0.00874785
11390.3	-0.00846086
11400.4	-0.00817587
11410.6	-0.00789457
11420	-0.00763491
11430.2	-0.00735531
11440.4	-0.00707432
11450.5	-0.00679072
11460.7	-0.00650358
11470.1	-0.00623315
11480.3	-0.00580704
11490.4	-0.0053405
11500.6	-0.00486327
11510	-0.00441593
11520.2	-0.00393313
11530.4	-0.00345118
11540.5	-0.00297093
11550.7	-0.00249277
11560.1	-0.00205136
11570.3	-0.00157985
11580.4	-0.00111226
11590.6	-0.000647616
11600	-0.000217749
11610.2	0.000244504
11620.4	0.000710613
11630.5	0.00118143
11640.7	0.00165632
11650.1	0.00210092
11660.3	0.00258365
11670.4	0.00342519
11680.6	0.00458012
11690	0.00557592
11700.2	0.00655704
11710.4	0.00744593
11720.5	0.00824931
11730.7	0.00898318
11740.1	0.0096288
11750.3	0.0102933
11760.4	0.011167
11770.6	0.0120456
11780	0.0127541
11790.2	0.0134639
11800.3	0.0141517
11810.5	0.0148995
11820.7	0.0160393
11830.1	0.0171631
11840.3	0.0198691
11850.4	0.0233088
11860.6	0.0258275
11870	0.0283478
11880.2	0.0311413
11890.3	0.0340076
11900.5	0.0368807
11910.7	0.0396636
11920.1	0.0423337
11930.3	0.0453148
11940.4	0.0482709
11950.6	0.0511379
11960.1	0.053728
11970.4	0.056446
11980.6	0.0590853
11990.1	0.061418
