Executable + params: ../../build/sierpi_intel_tbb_tsunami_parallel_release -o 32768 -A 1 -d 20 -a 8 -t 100
Problem size with different number of CPUs using function optimization
THREADS	MTPS	TIMESTEPS	TIMESTEP_SIZE	SECONDS_FOR_SIMULATION	AVERAGE_TRIANGLES	AVERAGE_PARTITIONS
80	66.7408	100	0.000491318		1.9047e+07	1158.74
64	61.6113	100	0.000491318		1.9047e+07	1158.74
40	63.3971	100	0.000491318		1.9047e+07	1158.74
32	41.8104	100	0.000491318		1.9047e+07	1158.74
16	20.5179	100	0.000491318		1.9047e+07	1158.74
8	13.9999	100	0.000491318		1.9047e+07	1158.74
4	8.4913	100	0.000491318		1.9047e+07	1158.74
2	5.01195	100	0.000491318		1.9047e+07	1158.74
1	2.53999	100	0.000491318		1.9047e+07	1158.74
