0	9.004e-11	366784
7.98197	1.00954e-09	383484
15.9526	2.50384e-09	395096
22.9259	4.53383e-09	403758
29.8991	7.4815e-09	412222
36.8723	1.16042e-08	420824
43.8421	1.71804e-08	428350
49.8	2.33367e-08	434224
56.698	3.2368e-08	439916
62.5835	4.19241e-08	444180
69.4498	5.53209e-08	449148
75.3351	6.87996e-08	453100
81.2148	8.42028e-08	456594
87.0629	1.01573e-07	459358
93.8361	1.24466e-07	463276
99.6143	1.46579e-07	466052
105.382	1.71277e-07	468906
111.149	1.98877e-07	471456
114.994	2.19049e-07	473336
120.761	2.52217e-07	475826
125.567	2.82724e-07	478002
131.34	3.22895e-07	480682
136.161	3.5945e-07	482500
141.969	4.0726e-07	485038
147.761	4.59254e-07	487510
153.537	5.15663e-07	489964
159.26	5.76376e-07	492340
164.018	6.30761e-07	494172
169.72	7.00978e-07	496552
175.421	7.77108e-07	498932
180.171	8.45428e-07	500640
185.87	9.33767e-07	502984
190.634	1.01334e-06	504916
195.409	1.09873e-06	506500
201.158	1.20967e-06	508632
206.03	1.31118e-06	510390
211.889	1.44311e-06	512078
216.827	1.56337e-06	513766
222.775	1.72021e-06	515680
227.737	1.86189e-06	517136
232.771	2.0165e-06	519020
238.872	2.21969e-06	521122
243.953	2.40322e-06	522876
249.028	2.60056e-06	524676
255.121	2.85729e-06	526706
260.207	3.08935e-06	528562
265.29	3.33856e-06	530128
271.389	3.66188e-06	532250
276.472	3.95283e-06	534016
281.554	4.26452e-06	535676
286.637	4.59809e-06	537588
291.72	4.95469e-06	539530
297.819	5.41472e-06	541392
302.901	5.82628e-06	543392
307.984	6.26487e-06	545284
313.067	6.73193e-06	546848
318.153	7.22894e-06	548794
323.24	7.75731e-06	550570
328.329	8.31846e-06	552080
333.418	8.91374e-06	553918
338.505	9.5442e-06	555874
343.592	1.02117e-05	557518
348.649	1.09135e-05	559434
353.662	1.16485e-05	561304
358.674	1.26534e-05	563396
364.68	1.4924e-05	565750
368.681	1.63971e-05	567550
373.675	1.82041e-05	569828
378.66	1.99853e-05	571834
383.641	2.17558e-05	573896
387.627	2.3173e-05	575778
392.608	2.4955e-05	577794
397.589	2.67585e-05	579826
402.57	2.85928e-05	582184
407.551	3.04346e-05	584296
412.532	3.22697e-05	586342
416.517	3.37329e-05	587950
421.498	3.55575e-05	590414
426.479	3.73807e-05	592546
430.464	3.88419e-05	594122
434.448	4.03089e-05	595688
439.429	4.21565e-05	598098
444.41	4.40273e-05	600168
448.395	4.55468e-05	601936
453.378	4.74836e-05	604136
457.365	4.90698e-05	605772
462.352	5.11075e-05	607714
466.343	5.2789e-05	609406
471.346	5.49695e-05	611606
476.354	5.72435e-05	613482
479.364	5.86584e-05	614546
480.373	5.91418e-05	615026
484.412	6.11216e-05	616598
489.451	6.37023e-05	619038
493.472	6.58563e-05	620332
497.482	6.80936e-05	622070
502.477	7.10148e-05	624126
506.467	7.34612e-05	625836
