0	0
11.8196	0
23.6393	0
35.4589	0
47.2785	0
59.0981	0
70.9178	0
82.7374	0
94.557	0
106.377	0
118.196	0
130.016	0
141.836	0
153.655	0
165.475	0
177.294	0
189.114	0
200.934	0
212.753	0
224.573	0
236.393	0
248.212	0
260.032	0
271.851	0
283.671	0
295.491	0
307.31	0
319.13	0
330.95	0
342.769	0
354.589	0
366.408	0
378.228	0
390.048	0
401.867	0
413.687	0
425.507	0
437.326	0
449.146	0
460.966	0
472.785	0
484.605	0
496.424	0
508.244	0
520.064	0
531.883	0
543.703	0
555.523	0
567.342	0
579.162	0
590.981	0
602.801	0
614.621	0
626.44	0
638.26	0
650.08	0
661.899	0
673.719	0
685.538	0
697.358	0
709.178	0
720.997	0
732.817	0
744.637	0
756.456	0
768.276	0
780.095	0
791.915	0
803.735	0
815.554	0
827.374	0
839.194	0
851.013	0
862.833	0
874.652	0
886.472	0
898.292	0
910.111	0
921.931	0
933.751	0
945.57	0
957.39	0
969.21	0
981.029	0
992.849	0
1004.67	0
1016.49	0
1028.31	0
1040.13	0
1051.95	0
1063.77	0
1075.59	0
1087.41	0
1099.23	0
1111.05	0
1122.86	0
1134.68	0
1146.5	0
1158.32	0
1170.14	0
1181.96	0
1193.78	0
1205.6	0
1217.42	0
1229.24	0
1241.06	0
1252.88	0
1264.7	0
1276.52	0
1288.34	0
1300.16	0
1311.98	0
1323.8	0
1335.62	0
1347.44	0
1359.26	0
1371.08	0
1382.9	0
1394.72	0
1406.54	0
1418.36	0
1430.18	0
1441.99	0
1453.81	0
1465.63	0
1477.45	0
1489.27	0
1501.09	0
1512.91	0
1524.73	0
1536.55	0
1548.37	0
1560.19	0
1572.01	0
1583.83	0
1595.65	0
1607.47	0
1619.29	0
1631.11	0
1642.93	0
1654.75	0
1666.57	0
1678.39	0
1690.21	0
1702.03	0
1713.85	0
1725.67	0
1737.49	0
1749.3	0
1761.12	0
1772.94	0
1784.76	0
1796.58	0
1808.4	0
1820.22	0
1832.04	0
1843.86	0
1855.68	0
1867.5	0
1879.32	0
1891.14	0
1902.96	0
1914.78	0
1926.6	0
1938.42	0
1950.24	0
1962.06	0
1973.88	0
1985.7	0
1997.52	0
2009.34	0
2021.16	0
2032.98	0
2044.8	0
2056.62	0
2068.43	0
2080.25	0
2092.07	0
2103.89	0
2115.71	0
2127.53	0
2139.35	0
2151.17	0
2162.99	-9.09495e-13
2174.81	-1.81899e-12
2186.63	-2.72848e-12
2198.45	-3.63798e-12
2210.27	-5.45697e-12
2222.09	-7.27596e-12
2233.91	-1.00044e-11
2245.73	-1.36424e-11
2257.55	-1.81899e-11
2269.37	-2.45564e-11
2281.19	-3.36513e-11
2293.01	-4.54747e-11
2304.83	-6.09361e-11
2316.65	-8.0945e-11
2328.47	-1.0823e-10
2340.29	-1.437e-10
2352.11	-1.90084e-10
2363.93	-2.50111e-10
2375.75	-3.28328e-10
2387.56	-4.30191e-10
2399.38	-5.61158e-10
2411.2	-7.29415e-10
2423.02	-9.45874e-10
2434.84	-1.22145e-09
2446.66	-1.57343e-09
2458.48	-2.01999e-09
2470.3	-2.58478e-09
2482.12	-3.29692e-09
2493.94	-4.19277e-09
2505.76	-5.31509e-09
2517.58	-6.71844e-09
2529.4	-8.4674e-09
2541.22	-1.06411e-08
2553.04	-1.33332e-08
2564.86	-1.66601e-08
2576.68	-2.07583e-08
2588.5	-2.57933e-08
2600.32	-3.19615e-08
2612.14	-3.94966e-08
2623.96	-4.8678e-08
2635.78	-5.98357e-08
2647.6	-7.33589e-08
2659.42	-8.97053e-08
2671.24	-1.09415e-07
2683.06	-1.33118e-07
2694.88	-1.61554e-07
2706.69	-1.9558e-07
2718.51	-2.36198e-07
2730.33	-2.84564e-07
2742.15	-3.42018e-07
2753.97	-4.10107e-07
2765.79	-4.90608e-07
2777.61	-5.85563e-07
2789.43	-6.97308e-07
2801.25	-8.28513e-07
2813.07	-9.82222e-07
2824.89	-1.16189e-06
2836.71	-1.37144e-06
2848.53	-1.61531e-06
2860.35	-1.89851e-06
2872.17	-2.22667e-06
2883.99	-2.60613e-06
2895.81	-3.04399e-06
2907.63	-3.5482e-06
2919.45	-4.12762e-06
2931.27	-4.7921e-06
2943.09	-5.55261e-06
2954.91	-6.4213e-06
2966.73	-7.41158e-06
2978.55	-8.53827e-06
2990.37	-9.81767e-06
3002.18	-1.12677e-05
3014	-1.2908e-05
3025.82	-1.476e-05
3037.64	-1.68471e-05
3049.46	-1.91948e-05
3061.28	-2.18307e-05
3073.1	-2.47849e-05
3084.92	-2.80897e-05
3096.74	-3.17801e-05
3108.56	-3.58936e-05
3120.38	-4.04706e-05
3132.2	-4.55543e-05
3144.02	-5.11908e-05
3155.84	-5.74293e-05
3167.66	-6.43219e-05
3179.48	-7.19239e-05
3191.3	-8.02938e-05
3203.12	-8.94933e-05
3214.94	-9.95869e-05
3226.76	-0.000110643
3238.57	-0.000122731
3250.39	-0.000135926
3262.21	-0.000150303
3274.03	-0.000165942
3285.85	-0.000182924
3297.67	-0.000201331
3309.49	-0.000221249
3321.31	-0.000242764
3333.13	-0.000265962
3344.95	-0.00029093
3356.77	-0.000317754
3368.59	-0.00034652
3380.41	-0.000377312
3392.23	-0.00041021
3404.05	-0.000445292
3415.87	-0.000482629
3427.69	-0.000522289
3439.5	-0.00056433
3451.32	-0.000608803
3463.14	-0.000655751
3474.96	-0.000705201
3486.78	-0.000757172
3498.6	-0.000811663
3510.42	-0.00086866
3522.24	-0.000928128
3534.06	-0.000990013
3545.88	-0.00105424
3557.7	-0.00112069
3569.52	-0.00118925
3581.34	-0.00125974
3593.16	-0.00133198
3604.97	-0.00140573
3616.79	-0.00148072
3628.61	-0.00155663
3640.43	-0.00163312
3652.25	-0.00170976
3664.07	-0.00178612
3675.89	-0.00186168
3687.71	-0.00193587
3699.53	-0.00200806
3711.35	-0.00207758
3723.17	-0.00214366
3734.99	-0.00220548
3746.8	-0.00226214
3758.62	-0.00231269
3770.44	-0.00235607
3782.26	-0.00239116
3794.08	-0.00241677
3805.9	-0.00243159
3817.72	-0.00243426
3829.54	-0.00242334
3841.36	-0.00239726
3853.18	-0.00235442
3865	-0.00229308
3876.82	-0.00221146
3888.63	-0.00210766
3900.45	-0.00197971
3912.27	-0.00182556
3924.09	-0.00164307
3935.91	-0.00143002
3947.73	-0.00118412
3959.55	-0.000903022
3971.37	-0.00058429
3983.19	-0.000225437
3995.01	0.00017608
4006.83	0.000622854
4018.65	0.00111752
4030.46	0.00166275
4042.28	0.00226124
4054.1	0.0029157
4065.92	0.00362886
4077.74	0.00440343
4089.56	0.00524211
4101.38	0.0061476
4113.2	0.00712254
4125.02	0.00816952
4136.84	0.00929108
4148.66	0.0104897
4160.48	0.0117677
4172.3	0.0131274
4184.11	0.014571
4195.93	0.0161004
4207.75	0.0177176
4219.57	0.0194243
4231.39	0.0212221
4243.21	0.0231122
4255.03	0.025096
4266.85	0.0271742
4278.67	0.0293478
4290.49	0.031617
4302.31	0.0339823
4314.13	0.0364434
4325.95	0.0390002
4337.77	0.0416521
4349.59	0.044398
4361.41	0.0472369
4373.22	0.0501672
4385.04	0.053187
4396.86	0.0562942
4408.68	0.0594863
4420.5	0.0627605
4432.32	0.0661136
4444.14	0.069542
4455.96	0.073042
4467.78	0.0766093
4479.6	0.0802395
4491.42	0.0839276
4503.24	0.0876685
4515.06	0.0914568
4526.88	0.0952866
4538.7	0.0991518
4550.52	0.103046
4562.34	0.106963
4574.16	0.110895
4585.98	0.114836
4597.8	0.118778
4609.62	0.122713
4621.44	0.126634
4633.26	0.130533
4645.07	0.134402
4656.89	0.138232
4668.71	0.142016
4680.53	0.145744
4692.35	0.14941
4704.17	0.153004
4715.99	0.156518
4727.81	0.159943
4739.63	0.163272
4751.45	0.166495
4763.27	0.169606
4775.09	0.172596
4786.91	0.175458
4798.73	0.178183
4810.55	0.180764
4822.37	0.183195
4834.19	0.185468
4846.01	0.187578
4857.83	0.189517
4869.65	0.19128
4881.47	0.192861
4893.29	0.194256
4905.11	0.19546
4916.93	0.196467
4928.75	0.197275
4940.56	0.19788
4952.38	0.19828
4964.2	0.19847
4976.02	0.198451
4987.84	0.198219
4999.66	0.197775
5011.48	0.197117
5023.3	0.196246
5035.12	0.195162
5046.94	0.193867
5058.76	0.192361
5070.58	0.190646
5082.4	0.188726
5094.22	0.186603
5106.04	0.184281
5117.86	0.181764
5129.68	0.179055
5141.5	0.176161
5153.32	0.173085
5165.14	0.169834
5176.96	0.166414
5188.78	0.162831
5200.6	0.159093
5212.42	0.155205
5224.23	0.151175
5236.05	0.147012
5247.87	0.142722
5259.69	0.138314
5271.51	0.133797
5283.33	0.129179
5295.15	0.124468
5306.97	0.119673
5318.79	0.114804
5330.61	0.109868
5342.43	0.104876
5354.25	0.0998355
5366.07	0.0947561
5377.89	0.0896468
5389.71	0.0845163
5401.53	0.0793735
5413.35	0.074227
5425.17	0.0690855
5436.99	0.0639573
5448.81	0.0588506
5460.63	0.0537735
5472.45	0.0487338
5484.27	0.043739
5496.09	0.0387965
5507.91	0.0339133
5519.72	0.0290962
5531.54	0.0243516
5543.36	0.0196857
5555.18	0.0151044
5567	0.0106131
5578.82	0.00621706
5590.64	0.00192101
5602.46	-0.00227057
5614.28	-0.00635355
5626.1	-0.0103242
5637.92	-0.0141791
5649.74	-0.0179153
5661.56	-0.0215301
5673.38	-0.0250211
5685.2	-0.0283866
5697.02	-0.0316247
5708.84	-0.0347344
5720.66	-0.0377146
5732.48	-0.0405648
5744.3	-0.0432848
5756.12	-0.0458747
5767.94	-0.0483347
5779.76	-0.0506655
5791.58	-0.0528681
5803.4	-0.0549437
5815.21	-0.0568937
5827.03	-0.0587199
5838.85	-0.0604241
5850.67	-0.0620087
5862.49	-0.0634758
5874.31	-0.064828
5886.13	-0.0660682
5897.95	-0.067199
5909.77	-0.0682236
5921.59	-0.0691451
5933.41	-0.0699667
5945.23	-0.0706918
5957.05	-0.0713239
5968.87	-0.0718664
5980.69	-0.072323
5992.51	-0.0726971
6004.33	-0.0729925
6016.15	-0.0732129
6027.97	-0.0733618
6039.79	-0.0734429
6051.61	-0.0734599
6063.43	-0.0734164
6075.25	-0.0733159
6087.07	-0.073162
6098.89	-0.0729581
6110.71	-0.0727077
6122.52	-0.0724139
6134.34	-0.0720802
6146.16	-0.0717096
6157.98	-0.0713051
6169.8	-0.0708698
6181.62	-0.0704066
6193.44	-0.069918
6205.26	-0.0694069
6217.08	-0.0688757
6228.9	-0.0683268
6240.72	-0.0677625
6252.54	-0.067185
6264.36	-0.0665963
6276.18	-0.0659983
6288	-0.065393
6299.82	-0.0647818
6311.64	-0.0641665
6323.46	-0.0635485
6335.28	-0.062929
6347.1	-0.0623094
6358.92	-0.0616907
6370.74	-0.0610739
6382.56	-0.06046
6394.38	-0.0598498
6406.2	-0.0592438
6418.02	-0.0586428
6429.83	-0.0580473
6441.65	-0.0574577
6453.47	-0.0568743
6465.29	-0.0562974
6477.11	-0.0557272
6488.93	-0.0551639
6500.75	-0.0546075
6512.57	-0.054058
6524.39	-0.0535153
6536.21	-0.0529794
6548.03	-0.0524502
6559.85	-0.0519273
6571.67	-0.0514107
6583.49	-0.0509
6595.31	-0.050395
6607.13	-0.0498954
6618.95	-0.0494008
6630.77	-0.0489108
6642.59	-0.0484252
6654.41	-0.0479435
6666.23	-0.0474654
6678.05	-0.0469905
6689.87	-0.0465184
6701.69	-0.0460486
6713.51	-0.045581
6725.33	-0.045115
6737.15	-0.0446504
6748.97	-0.0441867
6760.78	-0.0437237
6772.6	-0.0432611
6784.42	-0.0427985
6796.24	-0.0423357
6808.06	-0.0418724
6819.88	-0.0414085
6831.7	-0.0409436
6843.52	-0.0404777
6855.34	-0.0400105
6867.16	-0.039542
6878.98	-0.039072
6890.8	-0.0386005
6902.62	-0.0381274
6914.44	-0.0376526
6926.26	-0.0371763
6938.08	-0.0366983
6949.9	-0.0362189
6961.72	-0.035738
6973.54	-0.0352557
6985.36	-0.0347723
6997.18	-0.0342878
7009	-0.0338024
7020.82	-0.0333164
7032.64	-0.0328299
7044.46	-0.0323432
7056.28	-0.0318565
7068.1	-0.0313702
7079.92	-0.0308844
7091.73	-0.0303997
7103.55	-0.0299161
7115.37	-0.0294342
7127.19	-0.0289541
7139.01	-0.0284764
7150.83	-0.0280013
7162.65	-0.0275293
7174.47	-0.0270607
7186.29	-0.0265958
7198.11	-0.0261352
7209.93	-0.0256791
7221.75	-0.0252279
7233.57	-0.0247821
7245.39	-0.024342
7257.21	-0.0239081
7269.03	-0.0234806
7280.85	-0.0230599
7292.67	-0.0226465
7304.49	-0.0222406
7316.31	-0.0218426
7328.13	-0.0214528
7339.95	-0.0210716
7351.77	-0.0206992
7363.59	-0.020336
7375.41	-0.0199821
7387.23	-0.019638
7399.04	-0.0193038
7410.86	-0.0189797
7422.68	-0.018666
7434.5	-0.0183627
7446.32	-0.0180702
7458.14	-0.0177886
7469.96	-0.0175179
7481.78	-0.0172583
7493.6	-0.0170099
7505.42	-0.0167727
7517.24	-0.0165468
7529.06	-0.0163321
7540.88	-0.0161288
7552.7	-0.0159367
7564.52	-0.0157559
7576.34	-0.0155862
7588.16	-0.0154275
7599.98	-0.0152798
7611.8	-0.0151429
7623.62	-0.0150167
7635.44	-0.014901
7647.26	-0.0147955
7659.08	-0.0147002
7670.9	-0.0146147
7682.71	-0.0145387
7694.53	-0.0144722
7706.35	-0.0144146
7718.17	-0.0143658
7729.99	-0.0143255
7741.81	-0.0142932
7753.63	-0.0142686
7765.45	-0.0142514
7777.27	-0.0142413
7789.09	-0.0142377
7800.91	-0.0142404
7812.73	-0.0142489
7824.55	-0.0142628
7836.37	-0.0142816
7848.19	-0.014305
7860.01	-0.0143325
7871.83	-0.0143637
7883.65	-0.0143981
7895.47	-0.0144353
7907.29	-0.0144747
7919.11	-0.0145161
7930.93	-0.0145588
7942.75	-0.0146025
7954.56	-0.0146467
7966.38	-0.014691
7978.2	-0.0147348
7990.02	-0.0147779
8001.84	-0.0148196
8013.66	-0.0148597
8025.48	-0.0148976
8037.3	-0.014933
8049.12	-0.0149655
8060.94	-0.0149945
8072.76	-0.0150199
8084.58	-0.0150411
8096.4	-0.0150579
8108.22	-0.0150698
8120.04	-0.0150765
8131.86	-0.0150778
8143.68	-0.0150732
8155.5	-0.0150624
8167.32	-0.0150453
8179.14	-0.0150214
8190.96	-0.0149907
8202.78	-0.0149527
8214.6	-0.0149073
8226.41	-0.0148543
8238.23	-0.0147935
8250.05	-0.0147247
8261.87	-0.0146477
8273.69	-0.0145625
8285.51	-0.0144688
8297.33	-0.0143666
8309.15	-0.0142558
8320.97	-0.0141363
8332.79	-0.0140081
8344.61	-0.0138711
8356.43	-0.0137253
8368.25	-0.0135707
8380.07	-0.0134073
8391.89	-0.0132351
8403.71	-0.0130542
8415.53	-0.0128646
8427.35	-0.0126665
8439.17	-0.0124599
8450.99	-0.0122448
8462.81	-0.0120216
8474.63	-0.0117902
8486.45	-0.0115508
8498.26	-0.0113036
8510.08	-0.0110487
8521.9	-0.0107864
8533.72	-0.0105169
8545.54	-0.0102404
8557.36	-0.00995697
8569.18	-0.00966702
8581	-0.00937074
8592.82	-0.00906837
8604.64	-0.0087602
8616.46	-0.00844648
8628.28	-0.0081275
8640.1	-0.00780355
8651.92	-0.00747491
8663.74	-0.0071419
8675.56	-0.0068048
8687.38	-0.00646395
8699.2	-0.00611964
8711.02	-0.0057722
8722.84	-0.00542195
8734.66	-0.00506923
8746.48	-0.00471434
8758.3	-0.00435764
8770.11	-0.00399943
8781.93	-0.00364007
8793.75	-0.00327987
8805.57	-0.00291917
8817.39	-0.0025583
8829.21	-0.00219759
8841.03	-0.00183737
8852.85	-0.00147795
8864.67	-0.00111967
8876.49	-0.000762839
8888.31	-0.000407774
8900.13	-5.47858e-05
8911.95	0.000295818
8923.77	0.000643737
8935.59	0.000988672
8947.41	0.00133033
8959.23	0.00166844
8971.05	0.0020027
8982.87	0.00233285
8994.69	0.00265863
9006.51	0.00297976
9018.33	0.00329601
9030.15	0.00360712
9041.97	0.00391287
9053.78	0.00421301
9065.6	0.00450733
9077.42	0.00479562
9089.24	0.00507767
9101.06	0.00535328
9112.88	0.00562227
9124.7	0.00588445
9136.52	0.00613966
9148.34	0.00638773
9160.16	0.00662852
9171.98	0.00686187
9183.8	0.00708764
9195.62	0.00730572
9207.44	0.00751598
9219.26	0.00771832
9231.08	0.00791262
9242.9	0.0080988
9254.72	0.00827677
9266.54	0.00844646
9278.36	0.0086078
9290.18	0.00876072
9302	0.00890518
9313.82	0.00904112
9325.64	0.00916852
9337.46	0.00928735
9349.27	0.00939757
9361.09	0.00949918
9372.91	0.00959217
9384.73	0.00967654
9396.55	0.00975229
9408.37	0.00981943
9420.19	0.00987799
9432.01	0.00992798
9443.83	0.00996944
9455.65	0.0100024
9467.47	0.0100269
9479.29	0.010043
9491.11	0.0100507
9502.93	0.0100501
9514.75	0.0100413
9526.57	0.0100243
9538.39	0.00999919
9550.21	0.00996603
9562.03	0.0099249
9573.85	0.00987589
9585.67	0.00981908
9597.49	0.00975456
9609.31	0.0096824
9621.13	0.00960271
9632.95	0.00951559
9644.76	0.00942111
9656.58	0.00931939
9668.4	0.00921053
9680.22	0.00909462
9692.04	0.00897177
9703.86	0.0088421
9715.68	0.00870569
9727.5	0.00856267
9739.32	0.00841315
9751.14	0.00825723
9762.96	0.00809502
9774.78	0.00792665
9786.6	0.00775221
9798.42	0.00757183
9810.24	0.00738562
9822.06	0.0071937
9833.88	0.00699617
9845.7	0.00679316
9857.52	0.00658478
9869.34	0.00637114
9881.16	0.00615237
9892.98	0.00592857
9904.8	0.00569986
9916.62	0.00546637
9928.44	0.00522819
9940.26	0.00498545
9952.07	0.00473826
9963.89	0.00448674
9975.71	0.00423101
9987.53	0.00397116
9999.35	0.00370733
10011.2	0.00343962
10023	0.00316814
10034.8	0.00289301
10046.6	0.00261434
10058.5	0.00233225
10070.3	0.00204684
10082.1	0.00175822
10093.9	0.0014665
10105.7	0.0011718
10117.5	0.000874231
10129.4	0.000573891
10141.2	0.000270895
10153	-3.46499e-05
10164.8	-0.000342635
10176.6	-0.000652954
10188.5	-0.000965498
10200.3	-0.00128016
10212.1	-0.00159684
10223.9	-0.00191542
10235.7	-0.00223581
10247.6	-0.0025579
10259.4	-0.00288158
10271.2	-0.00320674
10283	-0.0035333
10294.8	-0.00386114
10306.7	-0.00419017
10318.5	-0.00452027
10330.3	-0.00485136
10342.1	-0.00518332
10353.9	-0.00551607
10365.8	-0.0058495
10377.6	-0.00618351
10389.4	-0.00651801
10401.2	-0.0068529
10413	-0.00718809
10424.9	-0.00752347
10436.7	-0.00785895
10448.5	-0.00819444
10460.3	-0.00852985
10472.1	-0.00886509
10484	-0.00920005
10495.8	-0.00953466
10507.6	-0.00986882
10519.4	-0.0102024
10531.2	-0.0105354
10543.1	-0.0108677
10554.9	-0.0111992
10566.7	-0.0115298
10578.5	-0.0118594
10590.3	-0.012188
10602.2	-0.0125155
10614	-0.0128417
10625.8	-0.0131666
10637.6	-0.0134902
10649.4	-0.0138123
10661.3	-0.0141329
10673.1	-0.0144518
10684.9	-0.0147691
10696.7	-0.0150846
10708.5	-0.0153982
10720.4	-0.01571
10732.2	-0.0160198
10744	-0.0163275
10755.8	-0.016633
10767.6	-0.0169364
10779.4	-0.0172375
10791.3	-0.0175363
10803.1	-0.0178326
10814.9	-0.0181265
10826.7	-0.0184178
10838.5	-0.0187066
10850.4	-0.0189926
10862.2	-0.0192759
10874	-0.0195564
10885.8	-0.019834
10897.6	-0.0201086
10909.5	-0.0203803
10921.3	-0.0206489
10933.1	-0.0209143
10944.9	-0.0211766
10956.7	-0.0214356
10968.6	-0.0216912
10980.4	-0.0219435
10992.2	-0.0221923
11004	-0.0224375
11015.8	-0.0226792
11027.7	-0.0229173
11039.5	-0.0231516
11051.3	-0.0233821
11063.1	-0.0236088
11074.9	-0.0238316
11086.8	-0.0240503
11098.6	-0.0242651
11110.4	-0.0244757
11122.2	-0.0246821
11134	-0.0248843
11145.9	-0.0250822
11157.7	-0.0252757
11169.5	-0.0254647
11181.3	-0.0256492
11193.1	-0.0258291
11205	-0.0260043
11216.8	-0.0261748
11228.6	-0.0263405
11240.4	-0.0265013
11252.2	-0.0266571
11264.1	-0.0268079
11275.9	-0.0269536
11287.7	-0.0270942
11299.5	-0.0272294
11311.3	-0.0273594
11323.2	-0.0274839
11335	-0.027603
11346.8	-0.0277165
11358.6	-0.0278244
11370.4	-0.0279266
11382.2	-0.028023
11394.1	-0.0281135
11405.9	-0.0281982
11417.7	-0.0282768
11429.5	-0.0283493
11441.3	-0.0284157
11453.2	-0.0284758
11465	-0.0285296
11476.8	-0.0285771
11488.6	-0.0286181
11500.4	-0.0286526
11512.3	-0.0286805
11524.1	-0.0287017
11535.9	-0.0287162
11547.7	-0.0287238
11559.5	-0.0287246
11571.4	-0.0287185
11583.2	-0.0287053
11595	-0.0286851
11606.8	-0.0286578
11618.6	-0.0286233
11630.5	-0.0285815
11642.3	-0.0285324
11654.1	-0.0284759
11665.9	-0.0284121
11677.7	-0.0283407
11689.6	-0.0282619
11701.4	-0.0281755
11713.2	-0.0280815
11725	-0.0279798
11736.8	-0.0278705
11748.7	-0.0277534
11760.5	-0.0276286
11772.3	-0.027496
11784.1	-0.0273555
11795.9	-0.0272073
11807.8	-0.0270512
11819.6	-0.0268872
11831.4	-0.0267153
11843.2	-0.0265355
11855	-0.0263477
11866.9	-0.0261521
11878.7	-0.0259485
11890.5	-0.0257371
11902.3	-0.0255176
11914.1	-0.0252903
11926	-0.0250551
11937.8	-0.024812
11949.6	-0.0245611
11961.4	-0.0243023
11973.2	-0.0240357
11985.1	-0.0237614
11996.9	-0.0234793
12008.7	-0.0231894
12020.5	-0.022892
12032.3	-0.0225869
12044.1	-0.0222743
12056	-0.0219541
12067.8	-0.0216265
12079.6	-0.0212915
12091.4	-0.0209492
12103.2	-0.0205997
12115.1	-0.020243
12126.9	-0.0198792
12138.7	-0.0195084
12150.5	-0.0191307
12162.3	-0.0187461
12174.2	-0.0183548
12186	-0.0179569
12197.8	-0.0175524
12209.6	-0.0171416
12221.4	-0.0167244
12233.3	-0.0163009
12245.1	-0.0158714
12256.9	-0.015436
12268.7	-0.0149947
12280.5	-0.0145477
12292.4	-0.0140951
12304.2	-0.013637
12316	-0.0131737
12327.8	-0.0127052
12339.6	-0.0122317
12351.5	-0.0117533
12363.3	-0.0112701
12375.1	-0.0107825
12386.9	-0.0102904
12398.7	-0.00979401
12410.6	-0.00929358
12422.4	-0.00878923
12434.2	-0.00828113
12446	-0.00776944
12457.8	-0.00725436
12469.7	-0.00673604
12481.5	-0.00621467
12493.3	-0.00569042
12505.1	-0.00516349
12516.9	-0.00463406
12528.8	-0.0041023
12540.6	-0.00356842
12552.4	-0.0030326
12564.2	-0.00249504
12576	-0.00195592
12587.9	-0.00141544
12599.7	-0.000873808
12611.5	-0.000331211
12623.3	0.000212149
12635.1	0.00075607
12646.9	0.00130035
12658.8	0.00184479
12670.6	0.00238919
12682.4	0.00293333
12694.2	0.00347703
12706	0.00402006
12717.9	0.00456223
12729.7	0.00510332
12741.5	0.00564314
12753.3	0.00618148
12765.1	0.00671812
12777	0.00725287
12788.8	0.00778551
12800.6	0.00831585
12812.4	0.00884366
12824.2	0.00936876
12836.1	0.00989093
12847.9	0.01041
12859.7	0.0109257
12871.5	0.0114378
12883.3	0.0119463
12895.2	0.0124507
12907	0.0129511
12918.8	0.0134471
12930.6	0.0139385
12942.4	0.0144253
12954.3	0.014907
12966.1	0.0153837
12977.9	0.0158551
12989.7	0.0163209
13001.5	0.0167811
13013.4	0.0172353
13025.2	0.0176835
13037	0.0181255
13048.8	0.018561
13060.6	0.0189899
13072.5	0.019412
13084.3	0.0198272
13096.1	0.0202352
13107.9	0.0206359
13119.7	0.0210292
13131.6	0.0214148
13143.4	0.0217926
13155.2	0.0221624
13167	0.0225242
13178.8	0.0228777
13190.7	0.0232227
13202.5	0.0235592
13214.3	0.023887
13226.1	0.0242059
13237.9	0.0245159
13249.7	0.0248167
13261.6	0.0251082
13273.4	0.0253904
13285.2	0.025663
13297	0.025926
13308.8	0.0261793
13320.7	0.0264226
13332.5	0.026656
13344.3	0.0268794
13356.1	0.0270925
13367.9	0.0272953
13379.8	0.0274877
13391.6	0.0276697
13403.4	0.027841
13415.2	0.0280017
13427	0.0281517
13438.9	0.0282908
13450.7	0.0284191
13462.5	0.0285364
13474.3	0.0286427
13486.1	0.0287379
13498	0.0288219
13509.8	0.0288948
13521.6	0.0289564
13533.4	0.0290067
13545.2	0.0290457
13557.1	0.0290733
13568.9	0.0290896
13580.7	0.0290944
13592.5	0.0290878
13604.3	0.0290697
13616.2	0.0290402
13628	0.0289992
13639.8	0.0289467
13651.6	0.0288828
13663.4	0.0288074
13675.3	0.0287205
13687.1	0.0286222
13698.9	0.0285124
13710.7	0.0283913
13722.5	0.0282588
13734.4	0.028115
13746.2	0.0279599
13758	0.0277936
13769.8	0.027616
13781.6	0.0274274
13793.5	0.0272276
13805.3	0.0270169
13817.1	0.0267952
13828.9	0.0265626
13840.7	0.0263193
13852.6	0.0260653
13864.4	0.0258006
13876.2	0.0255255
13888	0.0252399
13899.8	0.0249441
13911.6	0.024638
13923.5	0.0243219
13935.3	0.0239958
13947.1	0.0236598
13958.9	0.0233142
13970.7	0.022959
13982.6	0.0225944
13994.4	0.0222205
14006.2	0.0218375
14018	0.0214455
14029.8	0.0210447
14041.7	0.0206352
14053.5	0.0202173
14065.3	0.019791
14077.1	0.0193567
14088.9	0.0189144
14100.8	0.0184643
14112.6	0.0180067
14124.4	0.0175417
14136.2	0.0170695
14148	0.0165904
14159.9	0.0161046
14171.7	0.0156122
14183.5	0.0151135
14195.3	0.0146087
14207.1	0.0140981
14219	0.0135817
14230.8	0.01306
14242.6	0.0125332
14254.4	0.0120013
14266.2	0.0114648
14278.1	0.0109239
14289.9	0.0103788
14301.7	0.00982969
14313.5	0.00927692
14325.3	0.00872072
14337.2	0.00816135
14349	0.00759906
14360.8	0.00703413
14372.6	0.00646682
14384.4	0.00589739
14396.3	0.00532612
14408.1	0.00475327
14419.9	0.00417912
14431.7	0.00360394
14443.5	0.003028
14455.4	0.00245157
14467.2	0.00187493
14479	0.00129836
14490.8	0.000722134
14502.6	0.00014652
14514.4	-0.000428204
14526.3	-0.00100176
14538.1	-0.00157389
14549.9	-0.0021443
14561.7	-0.00271273
14573.5	-0.0032789
14585.4	-0.00384256
14597.2	-0.00440343
14609	-0.00496125
14620.8	-0.00551575
14632.6	-0.00606668
14644.5	-0.00661377
14656.3	-0.00715677
14668.1	-0.00769544
14679.9	-0.00822951
14691.7	-0.00875875
14703.6	-0.00928291
14715.4	-0.00980175
14727.2	-0.010315
14739	-0.0108226
14750.8	-0.0113241
14762.7	-0.0118194
14774.5	-0.0123082
14786.3	-0.0127904
14798.1	-0.0132657
14809.9	-0.013734
14821.8	-0.014195
14833.6	-0.0146485
14845.4	-0.0150945
14857.2	-0.0155326
14869	-0.0159627
14880.9	-0.0163847
14892.7	-0.0167984
14904.5	-0.0172036
14916.3	-0.0176002
14928.1	-0.0179881
14940	-0.0183671
14951.8	-0.018737
14963.6	-0.0190979
14975.4	-0.0194495
14987.2	-0.0197918
14999.1	-0.0201246
15010.9	-0.0204479
15022.7	-0.0207616
15034.5	-0.0210656
15046.3	-0.0213598
15058.2	-0.0216442
15070	-0.0219187
15081.8	-0.0221834
15093.6	-0.022438
15105.4	-0.0226827
15117.3	-0.0229173
15129.1	-0.0231419
15140.9	-0.0233565
15152.7	-0.023561
15164.5	-0.0237555
15176.3	-0.02394
15188.2	-0.0241144
15200	-0.0242789
15211.8	-0.0244334
15223.6	-0.024578
15235.4	-0.0247128
15247.3	-0.0248377
15259.1	-0.0249529
15270.9	-0.0250585
15282.7	-0.0251544
15294.5	-0.0252408
15306.4	-0.0253177
15318.2	-0.0253853
15330	-0.0254436
15341.8	-0.0254927
15353.6	-0.0255329
15365.5	-0.025564
15377.3	-0.0255864
15389.1	-0.0256
15400.9	-0.0256051
15412.7	-0.0256017
15424.6	-0.02559
15436.4	-0.0255702
15448.2	-0.0255423
15460	-0.0255065
15471.8	-0.025463
15483.7	-0.025412
15495.5	-0.0253535
15507.3	-0.0252877
15519.1	-0.0252148
15530.9	-0.025135
15542.8	-0.0250484
15554.6	-0.0249552
15566.4	-0.0248555
15578.2	-0.0247496
15590	-0.0246375
15601.9	-0.0245195
15613.7	-0.0243958
15625.5	-0.0242665
15637.3	-0.0241317
15649.1	-0.0239918
15661	-0.0238467
15672.8	-0.0236968
15684.6	-0.0235421
15696.4	-0.0233829
15708.2	-0.0232193
15720.1	-0.0230516
15731.9	-0.0228797
15743.7	-0.022704
15755.5	-0.0225246
15767.3	-0.0223417
15779.1	-0.0221554
15791	-0.0219659
15802.8	-0.0217733
15814.6	-0.0215778
15826.4	-0.0213796
15838.2	-0.0211788
15850.1	-0.0209755
15861.9	-0.0207699
15873.7	-0.0205622
15885.5	-0.0203525
15897.3	-0.0201409
15909.2	-0.0199275
15921	-0.0197125
15932.8	-0.0194961
15944.6	-0.0192782
15956.4	-0.0190592
15968.3	-0.018839
15980.1	-0.0186178
15991.9	-0.0183957
16003.7	-0.0181728
16015.5	-0.0179492
16027.4	-0.0177251
16039.2	-0.0175004
16051	-0.0172753
16062.8	-0.01705
16074.6	-0.0168243
16086.5	-0.0165986
16098.3	-0.0163728
16110.1	-0.0161469
16121.9	-0.0159212
16133.7	-0.0156956
16145.6	-0.0154702
16157.4	-0.0152451
16169.2	-0.0150203
16181	-0.0147959
16192.8	-0.0145719
16204.7	-0.0143484
16216.5	-0.0141254
16228.3	-0.013903
16240.1	-0.0136812
16251.9	-0.01346
16263.8	-0.0132395
16275.6	-0.0130198
16287.4	-0.0128007
16299.2	-0.0125824
16311	-0.0123649
16322.9	-0.0121481
16334.7	-0.0119322
16346.5	-0.0117171
16358.3	-0.0115029
16370.1	-0.0112895
16381.9	-0.0110771
16393.8	-0.0108654
16405.6	-0.0106547
16417.4	-0.0104449
16429.2	-0.010236
16441	-0.0100279
16452.9	-0.00982079
16464.7	-0.00961456
16476.5	-0.00940924
16488.3	-0.00920481
16500.1	-0.00900129
16512	-0.00879866
16523.8	-0.00859693
16535.6	-0.00839609
16547.4	-0.00819613
16559.2	-0.00799706
16571.1	-0.00779886
16582.9	-0.00760152
16594.7	-0.00740506
16606.5	-0.00720945
16618.3	-0.0070147
16630.2	-0.0068208
16642	-0.00662774
16653.8	-0.00643552
16665.6	-0.00624413
16677.4	-0.00605358
16689.3	-0.00586385
16701.1	-0.00567494
16712.9	-0.00548686
16724.7	-0.0052996
16736.5	-0.00511315
16748.4	-0.00492752
16760.2	-0.00474271
16772	-0.00455871
16783.8	-0.00437553
16795.6	-0.00419318
16807.5	-0.00401165
16819.3	-0.00383094
16831.1	-0.00365107
16842.9	-0.00347204
16854.7	-0.00329385
16866.6	-0.00311652
16878.4	-0.00294005
16890.2	-0.00276445
16902	-0.00258973
16913.8	-0.0024159
16925.7	-0.00224297
16937.5	-0.00207097
16949.3	-0.00189989
16961.1	-0.00172976
16972.9	-0.00156059
16984.8	-0.0013924
16996.6	-0.00122521
17008.4	-0.00105902
17020.2	-0.000893876
17032	-0.00072978
17043.8	-0.000566756
17055.7	-0.000404827
17067.5	-0.000244014
17079.3	-8.43391e-05
17091.1	7.4174e-05
17102.9	0.000231502
17114.8	0.00038762
17126.6	0.000542503
17138.4	0.000696127
17150.2	0.000848466
17162	0.000999493
17173.9	0.00114918
17185.7	0.00129751
17197.5	0.00144444
17209.3	0.00158995
17221.1	0.00173402
17233	0.00187661
17244.8	0.0020177
17256.6	0.00215727
17268.4	0.00229527
17280.2	0.00243169
17292.1	0.0025665
17303.9	0.00269967
17315.7	0.00283117
17327.5	0.00296098
17339.3	0.00308906
17351.2	0.0032154
17363	0.00333996
17374.8	0.00346272
17386.6	0.00358366
17398.4	0.00370275
17410.3	0.00381996
17422.1	0.00393527
17433.9	0.00404866
17445.7	0.0041601
17457.5	0.00426957
17469.4	0.00437706
17481.2	0.00448253
17493	0.00458597
17504.8	0.00468736
17516.6	0.00478669
17528.5	0.00488392
17540.3	0.00497905
17552.1	0.00507206
17563.9	0.00516293
17575.7	0.00525165
17587.6	0.00533821
17599.4	0.00542259
17611.2	0.00550479
17623	0.00558478
17634.8	0.00566256
17646.6	0.00573813
17658.5	0.00581147
17670.3	0.00588258
17682.1	0.00595145
17693.9	0.00601808
17705.7	0.00608247
17717.6	0.00614461
17729.4	0.00620449
17741.2	0.00626213
17753	0.00631752
17764.8	0.00637066
17776.7	0.00642156
17788.5	0.00647022
17800.3	0.00651664
17812.1	0.00656083
17823.9	0.0066028
17835.8	0.00664256
17847.6	0.00668012
17859.4	0.00671548
17871.2	0.00674865
17883	0.00677966
17894.9	0.00680851
17906.7	0.00683522
17918.5	0.0068598
17930.3	0.00688227
17942.1	0.00690264
17954	0.00692094
17965.8	0.00693719
17977.6	0.00695139
17989.4	0.00696358
18001.2	0.00697378
18013.1	0.006982
18024.9	0.00698828
18036.7	0.00699263
18048.5	0.00699508
18060.3	0.00699566
18072.2	0.00699439
18084	0.0069913
18095.8	0.00698641
18107.6	0.00697976
18119.4	0.00697137
18131.3	0.00696128
18143.1	0.00694951
18154.9	0.00693608
18166.7	0.00692105
18178.5	0.00690443
18190.4	0.00688625
18202.2	0.00686655
18214	0.00684537
18225.8	0.00682272
18237.6	0.00679866
18249.5	0.0067732
18261.3	0.00674639
18273.1	0.00671825
18284.9	0.00668883
18296.7	0.00665814
18308.5	0.00662624
18320.4	0.00659315
18332.2	0.0065589
18344	0.00652354
18355.8	0.00648709
18367.6	0.00644959
18379.5	0.00641107
18391.3	0.00637156
18403.1	0.00633111
18414.9	0.00628974
18426.7	0.00624748
18438.6	0.00620437
18450.4	0.00616044
18462.2	0.00611572
18474	0.00607025
18485.8	0.00602405
18497.7	0.00597715
18509.5	0.0059296
18521.3	0.00588141
18533.1	0.00583261
18544.9	0.00578324
18556.8	0.00573332
18568.6	0.00568288
18580.4	0.00563195
18592.2	0.00558055
18604	0.00552872
18615.9	0.00547646
18627.7	0.00542382
18639.5	0.0053708
18651.3	0.00531744
18663.1	0.00526376
18675	0.00520978
18686.8	0.00515551
18698.6	0.00510098
18710.4	0.00504621
18722.2	0.00499121
18734.1	0.00493601
18745.9	0.00488061
18757.7	0.00482503
18769.5	0.00476929
18781.3	0.00471341
18793.2	0.00465738
18805	0.00460123
18816.8	0.00454496
18828.6	0.00448859
18840.4	0.00443212
18852.3	0.00437556
18864.1	0.00431892
18875.9	0.00426221
18887.7	0.00420542
18899.5	0.00414856
18911.3	0.00409164
18923.2	0.00403466
18935	0.00397762
18946.8	0.00392051
18958.6	0.00386334
18970.4	0.00380611
18982.3	0.00374882
18994.1	0.00369145
19005.9	0.00363402
19017.7	0.0035765
19029.5	0.0035189
19041.4	0.00346121
19053.2	0.00340342
19065	0.00334553
19076.8	0.00328752
19088.6	0.00322938
19100.5	0.00317111
19112.3	0.0031127
19124.1	0.00305412
19135.9	0.00299538
19147.7	0.00293645
19159.6	0.00287733
19171.4	0.00281799
19183.2	0.00275843
19195	0.00269863
19206.8	0.00263857
19218.7	0.00257824
19230.5	0.00251763
19242.3	0.00245671
19254.1	0.00239546
19265.9	0.00233388
19277.8	0.00227194
19289.6	0.00220963
19301.4	0.00214692
19313.2	0.00208381
19325	0.00202026
19336.9	0.00195627
19348.7	0.00189181
19360.5	0.00182687
19372.3	0.00176143
19384.1	0.00169547
19396	0.00162897
19407.8	0.00156191
19419.6	0.00149428
19431.4	0.00142606
19443.2	0.00135723
19455.1	0.00128778
19466.9	0.00121768
19478.7	0.00114692
19490.5	0.0010755
19502.3	0.00100338
19514.2	0.000930556
19526	0.000857015
19537.8	0.000782742
19549.6	0.000707723
19561.4	0.000631946
19573.2	0.000555399
19585.1	0.00047807
19596.9	0.000399949
19608.7	0.000321026
19620.5	0.000241293
19632.3	0.00016074
19644.2	7.93602e-05
19656	-2.85256e-06
19667.8	-8.59042e-05
19679.6	-0.0001698
19691.4	-0.000254542
19703.3	-0.000340136
19715.1	-0.000426581
19726.9	-0.00051388
19738.7	-0.000602032
19750.5	-0.000691037
19762.4	-0.000780891
19774.2	-0.000871592
19786	-0.000963135
19797.8	-0.00105551
19809.6	-0.00114873
19821.5	-0.00124276
19833.3	-0.00133761
19845.1	-0.00143326
19856.9	-0.0015297
19868.7	-0.00162693
19880.6	-0.00172492
19892.4	-0.00182367
19904.2	-0.00192316
19916	-0.00202336
19927.8	-0.00212427
19939.7	-0.00222586
19951.5	-0.00232812
19963.3	-0.00243102
19975.1	-0.00253454
19986.9	-0.00263866
19998.8	-0.00274335
