0	0
109.03	0
218.061	0
327.091	0
436.122	0
545.152	0
654.182	0
763.212	0
872.242	0
981.271	0
1090.3	0
1199.33	0
1308.35	0
1417.38	0
1526.41	0
1635.43	0
1744.46	3.065e-10
1853.49	-3.9845e-08
1962.52	-4.73239e-07
2071.55	-2.68175e-06
2180.58	-1.02807e-05
2289.61	-3.04495e-05
2398.64	-7.4517e-05
2507.67	-0.00015663
2616.7	-0.000289492
2725.73	-0.000476872
2834.76	-0.000703787
2943.79	-0.000926501
3052.82	-0.00106546
3161.85	-0.00100437
3270.88	-0.000597871
3379.91	0.000311708
3488.94	0.00187001
3597.97	0.0041825
3707	0.00728767
3816.03	0.0111369
3925.06	0.0155858
4034.09	0.0203994
4143.12	0.0252711
4252.15	0.0298541
4361.18	0.0337995
4470.21	0.0367954
4579.24	0.0386029
4688.27	0.0390814
4797.3	0.0382018
4906.33	0.0360458
5015.36	0.0327913
5124.39	0.0286892
5233.42	0.0240322
5342.45	0.0191234
5451.48	0.0142464
5560.51	0.00964252
5669.54	0.00549512
5778.57	0.00192358
5887.6	-0.00101498
5996.63	-0.00331729
6105.66	-0.00502138
6214.69	-0.00619228
6323.72	-0.00690837
6432.75	-0.00724996
6541.78	-0.00729121
6650.81	-0.0070957
6759.84	-0.0067151
6868.87	-0.00619042
6977.9	-0.00555463
7086.93	-0.00483565
7195.96	-0.00405898
7304.99	-0.00324937
7414.02	-0.00243129
7523.05	-0.00162844
7632.08	-0.000862498
7741.11	-0.000151635
7850.15	0.000490811
7959.18	0.0010571
8068.21	0.00154512
8177.24	0.00195766
8286.27	0.00230105
8395.3	0.00258339
8504.33	0.00281274
8613.36	0.00299545
8722.39	0.00313503
8831.42	0.00323154
8940.45	0.00328167
9049.48	0.00327932
9158.51	0.00321664
9267.54	0.00308527
9376.57	0.00287766
9485.6	0.00258812
9594.63	0.00221376
9703.66	0.0017549
9812.69	0.00121528
9921.72	0.000601822
10030.8	-7.57324e-05
10139.8	-0.000805444
10248.8	-0.00157379
10357.8	-0.0023663
10466.9	-0.00316811
10575.9	-0.00396446
10684.9	-0.00474109
10794	-0.00548453
10903	-0.00618237
11012	-0.0068235
11121.1	-0.0073983
11230.1	-0.00789885
11339.1	-0.00831905
11448.1	-0.00865482
11557.2	-0.00890411
11666.2	-0.00906702
11775.2	-0.00914562
11884.3	-0.0091439
11993.3	-0.00906753
12102.3	-0.00892354
12211.4	-0.00872002
12320.4	-0.00846578
12429.4	-0.00816993
12538.5	-0.00784162
12647.5	-0.00748971
12756.5	-0.00712253
12865.5	-0.00674771
12974.6	-0.00637201
13083.6	-0.00600131
13192.6	-0.00564051
13301.7	-0.00529356
13410.7	-0.0049635
13519.7	-0.00465251
13628.8	-0.00436193
13737.8	-0.0040924
13846.8	-0.0038439
13955.8	-0.00361586
14064.9	-0.00340721
14173.9	-0.00321655
14282.9	-0.00304217
14392	-0.00288219
14501	-0.00273461
14610	-0.00259742
14719.1	-0.00246866
14828.1	-0.00234645
14937.1	-0.00222907
15046.2	-0.00211499
15155.2	-0.00200286
15264.2	-0.00189154
15373.2	-0.00178012
15482.3	-0.00166787
15591.3	-0.00155429
15700.3	-0.00143906
15809.4	-0.00132204
15918.4	-0.00120324
16027.4	-0.00108287
16136.5	-0.00096124
16245.5	-0.000838808
16354.5	-0.000716143
16463.5	-0.000593911
16572.6	-0.000472859
16681.6	-0.000353796
16790.6	-0.00023757
16899.7	-0.000125055
17008.7	-1.71241e-05
17117.7	8.53686e-05
17226.8	0.000181605
17335.8	0.000270826
17444.8	0.000352342
17553.9	0.000425554
17662.9	0.000489964
17771.9	0.00054519
17880.9	0.00059097
17990	0.000627174
18099	0.000653803
18208	0.000670998
18317.1	0.000679031
18426.1	0.000678303
18535.1	0.00066934
18644.2	0.000652776
18753.2	0.000629345
18862.2	0.000599863
18971.2	0.000565208
19080.3	0.000526306
19189.3	0.000484106
19298.3	0.000439565
19407.4	0.000393621
19516.4	0.00034718
19625.4	0.000301097
19734.5	0.000256157
19843.5	0.000213065
19952.5	0.000172433
