0	0
10.3534	0
20.7068	0
31.0603	0
41.4137	0
51.7671	0
62.1205	0
72.4739	0
82.8273	0
93.1808	0
103.534	0
113.888	0
124.241	0
134.594	0
144.948	0
150.125	0
160.478	0
170.831	0
181.185	0
191.538	0
201.892	0
212.245	0
222.598	0
232.952	0
243.305	0
253.659	0
264.012	0
274.366	0
284.719	0
295.072	0
300.249	0
310.603	0
320.956	0
331.309	0
341.663	0
352.016	0
362.37	0
372.723	0
383.076	0
393.43	0
403.783	0
414.137	0
424.49	0
434.844	0
440.02	0
450.374	0
460.727	0
471.081	0
481.434	0
491.787	0
502.141	0
512.494	0
522.848	0
533.201	0
543.554	0
553.908	0
564.261	0
574.615	0
584.968	0
590.145	0
600.498	0
610.852	0
621.205	0
631.559	0
641.912	0
652.265	0
662.619	0
672.972	0
683.326	0
693.679	0
704.032	0
714.386	0
724.739	0
735.093	0
740.269	0
750.623	0
760.976	0
771.33	0
781.683	0
792.037	0
802.39	0
812.743	0
823.097	0
833.45	0
843.804	0
854.157	0
864.51	0
874.864	0
880.041	0
890.394	0
900.747	0
911.101	0
921.454	0
931.808	0
942.161	0
952.514	0
962.868	0
973.221	0
983.575	0
993.928	0
1004.28	0
1014.63	0
1024.99	0
1030.17	0
1040.52	0
1050.87	0
1061.23	0
1071.58	0
1081.93	0
1092.29	0
1102.64	0
1112.99	0
1123.35	0
1133.7	0
1144.05	0
1154.41	0
1164.76	0
1175.11	0
1180.29	0
1190.64	0
1201	0
1211.35	0
1221.7	0
1232.06	0
1242.41	0
1252.76	0
1263.12	0
1273.47	0
1283.82	0
1294.18	0
1304.53	0
1314.88	0
1320.06	0
1330.41	0
1340.77	0
1351.12	0
1361.47	0
1371.83	0
1382.18	0
1392.53	0
1402.89	0
1413.24	0
1423.6	0
1433.95	0
1444.3	0
1454.66	0
1465.01	0
1470.19	0
1480.54	0
1490.89	0
1501.25	0
1511.6	0
1521.95	0
1532.31	0
1542.66	0
1553.01	0
1563.37	0
1573.72	0
1584.07	0
1594.43	0
1604.78	0
1615.13	0
1620.31	0
1630.66	0
1641.02	0
1651.37	0
1661.72	0
1672.08	0
1682.43	0
1692.78	0
1703.14	0
1713.49	0
1723.84	0
1734.2	0
1744.55	0
1754.9	0
1760.08	0
1770.43	0
1780.79	0
1791.14	0
1801.49	0
1811.85	0
1822.2	0
1832.56	0
1842.91	0
1853.26	0
1863.62	0
1873.97	0
1884.32	0
1894.68	0
1905.03	0
1910.21	0
1920.56	0
1930.91	0
1941.27	0
1951.62	0
1961.97	0
1972.33	0
1982.68	0
1993.03	0
2003.39	0
2013.74	0
2024.09	0
2034.45	0
2044.8	0
2055.15	0
2060.33	0
2070.68	0
2081.04	0
2091.39	0
2101.74	0
2112.1	0
2122.45	0
2132.8	0
2143.16	0
2153.51	0
2163.86	0
2174.22	0
2184.57	0
2194.92	0
2200.1	0
2210.45	0
2220.81	0
2231.16	0
2241.52	0
2251.87	0
2262.22	0
2272.58	0
2282.93	0
2293.28	0
2303.64	0
2313.99	0
2324.34	0
2334.7	0
2345.05	0
2350.23	0
2360.58	0
2370.93	0
2381.29	0
2391.64	0
2401.99	0
2412.35	0
2422.7	0
2433.05	0
2443.41	0
2453.76	0
2464.11	0
2474.47	0
2484.82	0
2495.17	0
2500.35	0
2510.7	0
2521.06	0
2531.41	0
2541.76	0
2552.12	0
2562.47	0
2572.82	0
2583.18	0
2593.53	0
2603.88	0
2614.24	0
2624.59	0
2634.94	0
2640.12	0
2650.47	0
2660.83	0
2671.18	0
2681.54	0
2691.89	0
2702.24	0
2712.6	0
2722.95	0
2733.3	0
2743.66	0
2754.01	0
2764.36	0
2774.72	0
2785.07	0
2790.25	0
2800.6	0
2810.95	0
2821.31	0
2831.66	0
2842.01	0
2852.37	0
2862.72	0
2873.07	0
2883.43	0
2893.78	0
2904.13	0
2914.49	0
2924.84	0
2930.02	0
2940.37	0
2950.72	0
2961.08	0
2971.43	0
2981.78	0
2992.14	0
3002.49	0
3012.84	0
3023.2	0
3033.55	0
3043.9	0
3054.26	0
3064.61	-9.09495e-13
3074.96	-2.72848e-12
3080.14	-2.72848e-12
3090.49	-5.45697e-12
3100.85	-9.09495e-12
3111.2	-1.54614e-11
3121.55	-2.63753e-11
3131.91	-4.27463e-11
3142.26	-6.91216e-11
3152.61	-1.10958e-10
3162.97	-1.74623e-10
3173.32	-2.74667e-10
3183.67	-4.27463e-10
3194.03	-6.57565e-10
3204.38	-1.00408e-09
3214.73	-1.51977e-09
3225.09	-2.28192e-09
3230.26	-2.78669e-09
3240.62	-4.13274e-09
3250.97	-6.07997e-09
3261.32	-8.87576e-09
3271.68	-1.28575e-08
3282.03	-1.84828e-08
3292.38	-2.63708e-08
3302.74	-3.73493e-08
3313.09	-5.25142e-08
3323.44	-7.3308e-08
3333.79	-1.01615e-07
3344.15	-1.39873e-07
3354.5	-1.91219e-07
3364.85	-2.5965e-07
3370.03	-3.01807e-07
3380.38	-4.05757e-07
3390.74	-5.41976e-07
3401.09	-7.19304e-07
3411.44	-9.48654e-07
3421.8	-1.2434e-06
3432.15	-1.61981e-06
3442.5	-2.09755e-06
3452.86	-2.70021e-06
3463.21	-3.45593e-06
3473.56	-4.398e-06
3483.91	-5.56562e-06
3494.27	-7.00458e-06
3504.62	-8.76808e-06
3514.97	-1.09175e-05
3520.15	-1.21585e-05
3530.5	-1.50219e-05
3540.86	-1.84659e-05
3551.21	-2.25872e-05
3561.56	-2.74944e-05
3571.92	-3.33086e-05
3582.27	-4.01646e-05
3592.62	-4.82111e-05
3602.97	-5.76115e-05
3613.33	-6.85446e-05
3623.68	-8.12046e-05
3634.03	-9.58019e-05
3644.39	-0.000112563
3654.74	-0.00013173
3665.09	-0.000153563
3670.27	-0.000165565
3680.62	-0.000191917
3690.97	-0.000221652
3701.33	-0.000255085
3711.68	-0.000292544
3722.03	-0.000334373
3732.39	-0.000380929
3742.74	-0.000432581
3753.09	-0.000489711
3763.44	-0.000552711
3773.8	-0.000621982
3784.15	-0.000697937
3794.5	-0.000780992
3804.86	-0.000871573
3810.03	-0.000919819
3820.38	-0.00102249
3830.74	-0.00113377
3841.09	-0.00125409
3851.44	-0.00138389
3861.8	-0.00152358
3872.15	-0.00167362
3882.5	-0.0018344
3892.85	-0.00200635
3903.21	-0.00218987
3913.56	-0.00238534
3923.91	-0.00259314
3934.27	-0.00281362
3944.62	-0.00304711
3954.97	-0.00329392
3960.15	-0.00342241
3970.5	-0.00368971
3980.85	-0.00397096
3991.21	-0.00426637
4001.56	-0.00457607
4011.91	-0.00490017
4022.27	-0.00523873
4032.62	-0.00559175
4042.97	-0.00595917
4053.32	-0.00634085
4063.68	-0.00673659
4074.03	-0.00714611
4084.38	-0.00756901
4094.74	-0.00800483
4105.09	-0.00845298
4110.27	-0.00868146
4120.62	-0.00914672
4130.97	-0.00962226
4141.33	-0.010107
4151.68	-0.0105997
4162.03	-0.011099
4172.38	-0.0116031
4182.74	-0.0121102
4193.09	-0.0126182
4203.44	-0.0131246
4213.8	-0.0136268
4224.15	-0.0141217
4234.5	-0.014606
4244.86	-0.0150758
4250.03	-0.015304
4260.39	-0.0157443
4270.74	-0.0161589
4281.09	-0.0165425
4291.45	-0.0168893
4301.8	-0.0171931
4312.15	-0.0174468
4322.51	-0.017643
4332.86	-0.0177738
4343.21	-0.0178305
4353.57	-0.0178038
4363.92	-0.0176838
4374.27	-0.0174602
4384.63	-0.0171219
4394.98	-0.0166572
4400.16	-0.0163736
4410.51	-0.0156964
4420.86	-0.0148615
4431.22	-0.0138554
4441.57	-0.0126645
4451.92	-0.0112746
4462.28	-0.00967154
4472.63	-0.00784085
4482.98	-0.00576806
4493.34	-0.00343879
4503.69	-0.00083884
4514.04	0.00204565
4524.4	0.00522807
4534.75	0.00872124
4545.1	0.0125372
4550.28	0.0145697
4560.63	0.0188905
4570.99	0.0235599
4581.34	0.0285861
4591.69	0.0339762
4602.05	0.0397352
4612.4	0.0458668
4622.75	0.0523728
4633.11	0.0592531
4643.46	0.0665054
4653.81	0.0741256
4664.17	0.0821072
4674.52	0.0904415
4684.87	0.0991178
4690.05	0.10358
4700.4	0.112744
4710.76	0.122212
4721.11	0.131967
4731.46	0.141986
4741.82	0.152248
4752.17	0.162726
4762.52	0.173394
4772.88	0.184223
4783.23	0.195183
4793.58	0.206241
4803.94	0.217363
4814.29	0.228515
4824.64	0.239661
4835	0.250763
4840.17	0.256286
4850.53	0.267252
4860.88	0.278079
4871.23	0.288728
4881.59	0.29916
4891.94	0.309335
4902.3	0.319214
4912.65	0.328758
4923	0.33793
4933.36	0.346692
4943.71	0.355008
4954.06	0.362842
4964.42	0.370159
4974.77	0.376928
4985.12	0.383118
4990.3	0.385986
5000.65	0.391253
5011.01	0.39587
5021.36	0.399816
5031.71	0.403068
5042.07	0.405607
5052.42	0.407417
5062.77	0.408485
5073.13	0.408801
5083.48	0.408356
5093.83	0.407146
5104.19	0.40517
5114.54	0.402428
5124.89	0.398927
5130.07	0.396894
5140.42	0.392267
5150.78	0.386905
5161.13	0.380823
5171.48	0.374039
5181.84	0.366572
5192.19	0.358445
5202.54	0.349685
5212.9	0.340318
5223.25	0.330373
5233.6	0.319881
5243.96	0.308874
5254.31	0.297386
5264.66	0.285452
5275.02	0.273106
5280.19	0.266789
5290.55	0.253893
5300.9	0.240675
5311.25	0.227172
5321.61	0.213419
5331.96	0.199452
5342.31	0.185306
5352.67	0.171016
5363.02	0.156616
5373.37	0.142138
5383.73	0.127615
5394.08	0.113079
5404.43	0.0985596
5414.79	0.084087
5425.14	0.0696902
5430.32	0.062529
5440.67	0.0482986
5451.02	0.0342132
5461.38	0.0202996
5471.73	0.00658384
5482.08	-0.00690836
5492.44	-0.0201517
5502.79	-0.0331211
5513.14	-0.0457919
5523.5	-0.0581397
5533.85	-0.0701401
5544.2	-0.0817692
5554.56	-0.0930031
5564.91	-0.103819
5570.09	-0.109062
5580.44	-0.119207
5590.79	-0.128876
5601.15	-0.138049
5611.5	-0.146704
5621.85	-0.154821
5632.21	-0.162383
5642.56	-0.169371
5652.91	-0.17577
5663.27	-0.181567
5673.62	-0.186748
5683.97	-0.191304
5694.33	-0.195228
5704.68	-0.198515
5715.03	-0.201161
5720.21	-0.202245
5730.57	-0.203933
5740.92	-0.204989
5751.27	-0.205419
5761.63	-0.205234
5771.98	-0.20445
5782.33	-0.203082
5792.69	-0.20115
5803.04	-0.198678
5813.39	-0.195692
5823.75	-0.192218
5834.1	-0.188289
5844.45	-0.183937
5854.81	-0.179197
5865.16	-0.174104
5870.34	-0.171438
5880.69	-0.165889
5891.04	-0.160085
5901.4	-0.154066
5911.75	-0.147872
5922.1	-0.141544
5932.46	-0.135121
5942.81	-0.128644
5953.16	-0.122151
5963.52	-0.11568
5973.87	-0.109267
5984.22	-0.102947
5994.58	-0.0967517
6004.93	-0.0907129
6010.11	-0.0877612
6020.46	-0.0820098
6030.81	-0.0764817
6041.17	-0.0711996
6051.52	-0.0661835
6061.87	-0.0614507
6072.23	-0.0570161
6082.58	-0.0528917
6092.93	-0.0490869
6103.29	-0.0456088
6113.64	-0.0424615
6123.99	-0.039647
6134.35	-0.0371649
6144.7	-0.0350123
6155.05	-0.0331844
6160.23	-0.0323901
6170.58	-0.0310359
6180.94	-0.0299857
6191.29	-0.0292284
6201.64	-0.0287513
6212	-0.0285405
6222.35	-0.0285807
6232.7	-0.0288559
6243.06	-0.0293493
6253.41	-0.0300432
6263.76	-0.0309198
6274.12	-0.0319608
6284.47	-0.0331477
6294.82	-0.0344622
6300	-0.0351616
6310.35	-0.0366333
6320.71	-0.0381876
6331.06	-0.0398073
6341.41	-0.0414755
6351.77	-0.0431765
6362.12	-0.0448949
6372.47	-0.0466166
6382.83	-0.0483283
6393.18	-0.0500175
6403.53	-0.0516731
6413.89	-0.0532848
6424.24	-0.0548437
6434.59	-0.0563417
6444.95	-0.0577721
6450.12	-0.0584601
6460.48	-0.0597785
6470.83	-0.061017
6481.18	-0.0621723
6491.54	-0.0632423
6501.89	-0.0642258
6512.24	-0.0651223
6522.6	-0.0659323
6532.95	-0.0666567
6543.3	-0.0672973
6553.66	-0.0678563
6564.01	-0.0683362
6574.37	-0.0687402
6584.72	-0.0690715
6595.07	-0.0693337
6600.25	-0.0694401
6610.6	-0.0696054
6620.96	-0.0697109
6631.31	-0.0697601
6641.66	-0.0697566
6652.02	-0.0697039
6662.37	-0.0696051
6672.72	-0.0694633
6683.08	-0.069281
6693.43	-0.0690609
6703.78	-0.0688049
6714.14	-0.0685149
6724.49	-0.0681923
6734.84	-0.0678383
6740.02	-0.0676498
6750.37	-0.0672502
6760.73	-0.0668208
6771.08	-0.0663617
6781.43	-0.065873
6791.79	-0.0653542
6802.14	-0.064805
6812.49	-0.0642248
6822.85	-0.0636129
6833.2	-0.0629686
6843.55	-0.0622911
6853.91	-0.0615796
6864.26	-0.0608334
6874.61	-0.0600518
6884.97	-0.0592343
6890.14	-0.0588119
6900.5	-0.0579398
6910.85	-0.0570309
6921.2	-0.0560853
6931.56	-0.0551031
6941.91	-0.0540848
6952.26	-0.053031
6962.62	-0.0519424
6972.97	-0.0508202
6983.32	-0.0496656
6993.68	-0.0484802
7004.03	-0.0472656
7014.38	-0.0460239
7024.74	-0.044757
7035.09	-0.0434673
7040.27	-0.0428146
7050.62	-0.0414952
7060.97	-0.0401594
7071.33	-0.0388097
7081.68	-0.0374491
7092.03	-0.0360803
7102.39	-0.0347064
7112.74	-0.0333301
7123.09	-0.0319545
7133.45	-0.0305822
7143.8	-0.0292163
7154.16	-0.0278594
7164.51	-0.026514
7174.86	-0.0251829
7180.04	-0.0245234
7190.39	-0.0232179
7200.75	-0.0219323
7211.1	-0.0206686
7221.45	-0.0194286
7231.81	-0.018214
7242.16	-0.0170263
7252.51	-0.0158668
7262.87	-0.0147367
7273.22	-0.0136367
7283.57	-0.0125678
7293.93	-0.0115304
7304.28	-0.010525
7314.63	-0.00955177
7324.99	-0.0086108
7330.16	-0.0081524
7340.52	-0.00725966
7350.87	-0.00639877
7361.22	-0.00556935
7371.58	-0.00477091
7381.93	-0.00400288
7392.28	-0.00326463
7402.64	-0.00255545
7412.99	-0.0018746
7423.34	-0.0012213
7433.7	-0.000594747
7444.05	5.84252e-06
7454.4	0.00058126
7464.76	0.00113227
7475.11	0.00165961
7480.28	0.00191461
7490.64	0.00240772
7500.99	0.00287878
7511.34	0.00332834
7521.7	0.00375689
7532.05	0.00416483
7542.4	0.00455248
7552.76	0.0049201
7563.11	0.00526787
7573.46	0.00559586
7583.82	0.0059041
7594.17	0.00619251
7604.52	0.00646097
7614.88	0.00670927
7620.05	0.00682578
7630.41	0.00704332
7640.76	0.00723993
7651.11	0.00741522
7661.47	0.00756876
7671.82	0.00770007
7682.17	0.00780868
7692.53	0.00789408
7702.88	0.00795576
7713.23	0.00799323
7723.59	0.00800598
7733.94	0.00799354
7744.29	0.00795546
7754.65	0.00789131
7765	0.00780072
7770.18	0.0077454
7780.53	0.00761452
7790.88	0.00745645
7801.24	0.00727099
7811.59	0.00705798
7821.94	0.00681735
7832.3	0.00654908
7842.65	0.00625322
7853	0.00592989
7863.36	0.00557928
7873.71	0.00520165
7884.06	0.00479731
7894.42	0.00436666
7904.77	0.00391014
7915.12	0.00342829
7920.3	0.00317803
7930.65	0.00265926
7941.01	0.0021167
7951.36	0.00155106
7961.71	0.000963107
7972.07	0.000353662
7982.42	-0.000276421
7992.77	-0.000926242
8003.13	-0.00159486
8013.48	-0.00228132
8023.83	-0.0029846
8034.19	-0.00370368
8044.54	-0.00443751
8054.89	-0.005185
8060.07	-0.00556353
8070.42	-0.00632945
8080.78	-0.00710627
8091.13	-0.00789286
8101.48	-0.00868805
8111.83	-0.00949071
8122.19	-0.0102997
8132.54	-0.0111138
8142.89	-0.0119319
8153.25	-0.0127528
8163.6	-0.0135754
8173.95	-0.0143985
8184.31	-0.015221
8194.66	-0.0160417
8205.01	-0.0168595
8210.19	-0.017267
8220.54	-0.0180785
8230.9	-0.0188843
8241.25	-0.0196833
8251.6	-0.0204747
8261.96	-0.0212573
8272.31	-0.02203
8282.66	-0.022792
8293.02	-0.0235423
8303.37	-0.0242799
8313.72	-0.0250038
8324.08	-0.0257134
8334.43	-0.0264075
8344.78	-0.0270855
8355.14	-0.0277464
8360.32	-0.0280703
8370.67	-0.0287042
8381.02	-0.0293192
8391.38	-0.0299145
8401.73	-0.0304894
8412.08	-0.031043
8422.44	-0.0315748
8432.79	-0.0320841
8443.14	-0.0325701
8453.5	-0.0330322
8463.85	-0.0334697
8474.2	-0.0338819
8484.56	-0.0342681
8494.91	-0.0346277
8500.09	-0.0347973
8510.44	-0.0351157
8520.79	-0.0354057
8531.15	-0.0356667
8541.5	-0.0358979
8551.85	-0.0360986
8562.21	-0.0362681
8572.56	-0.0364056
8582.91	-0.0365105
8593.27	-0.0365819
8603.62	-0.0366193
8613.97	-0.0366217
8624.33	-0.0365885
8634.68	-0.036519
8645.03	-0.0364124
8650.21	-0.0363451
8660.56	-0.0361817
8670.92	-0.0359797
8681.27	-0.0357383
8691.62	-0.0354571
8701.98	-0.0351355
8712.33	-0.0347731
8722.68	-0.0343694
8733.04	-0.0339241
8743.39	-0.0334369
8753.74	-0.0329076
8764.1	-0.0323361
8774.45	-0.0317224
8784.8	-0.0310665
8795.16	-0.0303685
8800.33	-0.0300039
8810.69	-0.0292434
8821.04	-0.0284417
8831.39	-0.0275993
8841.75	-0.0267169
8852.1	-0.0257951
8862.45	-0.0248348
8872.81	-0.0238369
8883.16	-0.0228026
8893.51	-0.0217329
8903.87	-0.0206291
8914.22	-0.0194926
8924.57	-0.0183248
8934.93	-0.0171273
8940.1	-0.016518
8950.46	-0.015279
8960.81	-0.0140145
8971.17	-0.0127263
8981.52	-0.0114164
8991.87	-0.0100867
9002.23	-0.00873909
9012.58	-0.00737572
9022.93	-0.00599865
9033.29	-0.00460998
9043.64	-0.00321185
9053.99	-0.00180639
9064.35	-0.000395778
9074.7	0.00101785
9085.05	0.00243235
9090.23	0.00313926
9100.58	0.00455108
9110.94	0.00595848
9121.29	0.00735941
9131.64	0.00875183
9142	0.0101338
9152.35	0.0115033
9162.7	0.0128585
9173.06	0.0141976
9183.41	0.0155187
9193.76	0.0168203
9204.12	0.0181007
9214.47	0.0193582
9224.82	0.0205915
9230	0.0211986
9240.35	0.0223929
9250.71	0.0235596
9261.06	0.0246973
9271.41	0.0258051
9281.77	0.0268819
9292.12	0.0279267
9302.47	0.0289386
9312.83	0.0299168
9323.18	0.0308606
9333.53	0.0317693
9343.89	0.0326424
9354.24	0.0334794
9364.59	0.0342799
9374.95	0.0350436
9380.12	0.0354116
9390.48	0.0361195
9400.83	0.0367902
9411.18	0.0374234
9421.54	0.0380192
9431.89	0.0385777
9442.24	0.0390989
9452.6	0.0395832
9462.95	0.0400306
9473.31	0.0404417
9483.66	0.0408167
9494.01	0.0411561
9504.37	0.0414603
9514.72	0.04173
9525.07	0.0419658
9530.25	0.0420711
9540.6	0.0422572
9550.96	0.042411
9561.31	0.0425334
9571.66	0.0426251
9582.02	0.042687
9592.37	0.0427201
9602.72	0.0427251
9613.08	0.0427032
9623.43	0.0426552
9633.78	0.0425821
9644.14	0.0424851
9654.49	0.0423652
9664.84	0.0422234
9670.02	0.0421446
9680.37	0.0419719
9690.73	0.0417801
9701.08	0.0415702
9711.43	0.0413432
9721.79	0.0411002
9732.14	0.0408423
9742.49	0.0405704
9752.85	0.0402857
9763.2	0.039989
9773.55	0.0396813
9783.91	0.0393635
9794.26	0.0390365
9804.61	0.0387011
9814.97	0.038358
9820.14	0.0381839
9830.5	0.0378307
9840.85	0.0374716
9851.2	0.0371071
9861.56	0.0367378
9871.91	0.036364
9882.26	0.0359863
9892.62	0.0356048
9902.97	0.03522
9913.32	0.0348318
9923.68	0.0344406
9934.03	0.0340462
9944.38	0.0336488
9954.74	0.0332482
9965.09	0.0328442
9970.27	0.0326409
9980.62	0.0322316
9990.97	0.0318183
10001.3	0.0314007
10011.7	0.0309785
10022	0.0305511
10032.4	0.0301181
10042.7	0.029679
10053.1	0.0292331
10063.4	0.02878
10073.8	0.028319
10084.2	0.0278495
10094.5	0.0273708
10104.9	0.0268823
10110	0.0266342
10120.4	0.0261298
10130.7	0.025614
10141.1	0.0250861
10151.5	0.0245455
10161.8	0.0239916
10172.2	0.0234239
10182.5	0.0228419
10192.9	0.0222449
10203.2	0.0216325
10213.6	0.0210044
10223.9	0.0203601
10234.3	0.0196994
10244.6	0.0190218
10255	0.0183273
10260.2	0.0179736
10270.5	0.0172533
10280.9	0.0165156
10291.2	0.0157607
10301.6	0.0149886
10311.9	0.0141993
10322.3	0.013393
10332.6	0.01257
10343	0.0117305
10353.3	0.010875
10363.7	0.0100039
10374.1	0.00911763
10384.4	0.00821675
10394.8	0.00730186
10405.1	0.00637364
10410.3	0.00590475
10420.6	0.00495788
10431	0.00399954
10441.3	0.00303058
10451.7	0.00205188
10462.1	0.00106436
10472.4	6.89747e-05
10482.8	-0.000933278
10493.1	-0.00194137
10503.5	-0.00295426
10513.8	-0.00397086
10524.2	-0.00499009
10534.5	-0.00601083
10544.9	-0.00703196
10550.1	-0.00754232
10560.4	-0.00856193
10570.8	-0.00957912
10581.1	-0.0105928
10591.5	-0.0116018
10601.8	-0.012605
10612.2	-0.0136014
10622.5	-0.01459
10632.9	-0.0155696
10643.2	-0.0165394
10653.6	-0.0174983
10663.9	-0.0184455
10674.3	-0.0193801
10684.7	-0.0203014
10695	-0.0212085
10700.2	-0.0216565
10710.5	-0.0225412
10720.9	-0.0234102
10731.2	-0.0242629
10741.6	-0.0250989
10751.9	-0.0259178
10762.3	-0.0267194
10772.7	-0.0275035
10783	-0.0282697
10793.4	-0.0290182
10803.7	-0.0297488
10814.1	-0.0304617
10824.4	-0.031157
10834.8	-0.031835
10845.1	-0.0324958
10850.3	-0.0328199
10860.7	-0.0334558
10871	-0.0340755
10881.4	-0.0346797
10891.7	-0.0352687
10902.1	-0.0358433
10912.4	-0.0364041
10922.8	-0.0369517
10933.1	-0.0374867
10943.5	-0.03801
10953.8	-0.0385223
10964.2	-0.0390244
10974.5	-0.0395168
10984.9	-0.0400006
10990.1	-0.0402394
11000.4	-0.0407114
11010.8	-0.0411765
11021.1	-0.0416355
11031.5	-0.0420889
11041.8	-0.0425375
11052.2	-0.042982
11062.6	-0.0434229
11072.9	-0.0438608
11083.3	-0.0442961
11093.6	-0.0447295
11104	-0.0451613
11114.3	-0.0455919
11124.7	-0.0460216
11135	-0.0464507
11140.2	-0.0466651
11150.6	-0.0470937
11160.9	-0.0475223
11171.3	-0.0479508
11181.6	-0.0483793
11192	-0.0488078
11202.3	-0.0492364
11212.7	-0.0496648
11223	-0.0500929
11233.4	-0.0505207
11243.7	-0.0509477
11254.1	-0.0513739
11264.4	-0.0517988
11274.8	-0.0522221
11285.1	-0.0526436
11290.3	-0.0528536
11300.7	-0.0532715
11311	-0.0536866
11321.4	-0.0540984
11331.7	-0.0545065
11342.1	-0.0549104
11352.4	-0.0553097
11362.8	-0.055704
11373.2	-0.0560929
11383.5	-0.0564757
11393.9	-0.0568523
11404.2	-0.057222
11414.6	-0.0575846
11424.9	-0.0579396
11430.1	-0.0581141
11440.4	-0.058457
11450.8	-0.0587914
11461.2	-0.059117
11471.5	-0.0594334
11481.9	-0.0597403
11492.2	-0.0600375
11502.6	-0.0603246
11512.9	-0.0606015
11523.3	-0.0608678
11533.6	-0.0611235
11544	-0.0613682
11554.3	-0.0616017
11564.7	-0.0618239
11575	-0.0620345
11580.2	-0.0621355
11590.6	-0.0623285
11600.9	-0.0625096
11611.3	-0.0626785
11621.6	-0.062835
11632	-0.062979
11642.3	-0.0631103
11652.7	-0.0632287
11663	-0.063334
11673.4	-0.0634259
11683.8	-0.0635042
11694.1	-0.0635687
11704.5	-0.0636192
11714.8	-0.0636553
11725.2	-0.0636768
11730.3	-0.063682
11740.7	-0.0636811
11751.1	-0.0636648
11761.4	-0.0636329
11771.8	-0.0635851
11782.1	-0.0635209
11792.5	-0.0634402
11802.8	-0.0633425
11813.2	-0.0632275
11823.5	-0.063095
11833.9	-0.0629446
11844.2	-0.062776
11854.6	-0.0625888
11864.9	-0.062383
11870.1	-0.0622729
11880.5	-0.0620383
11890.8	-0.0617844
11901.2	-0.0615109
11911.5	-0.0612176
11921.9	-0.0609044
11932.2	-0.0605711
11942.6	-0.0602178
11952.9	-0.0598442
11963.3	-0.0594506
11973.6	-0.0590368
11984	-0.058603
11994.4	-0.0581493
12004.7	-0.0576759
12015.1	-0.0571829
12020.2	-0.0569292
12030.6	-0.0564074
12040.9	-0.0558668
12051.3	-0.0553078
12061.7	-0.0547307
12072	-0.0541359
12082.4	-0.053524
12092.7	-0.0528953
12103.1	-0.0522506
12113.4	-0.0515902
12123.8	-0.0509148
12134.1	-0.0502249
12144.5	-0.0495212
12154.8	-0.0488043
12160	-0.0484411
12170.4	-0.0477054
12180.7	-0.0469581
12191.1	-0.0461997
12201.4	-0.0454308
12211.8	-0.044652
12222.1	-0.0438638
12232.5	-0.0430669
12242.8	-0.0422617
12253.2	-0.0414487
12263.5	-0.0406283
12273.9	-0.039801
12284.2	-0.0389672
12294.6	-0.0381271
12305	-0.0372811
12310.1	-0.036856
12320.5	-0.0360015
12330.8	-0.0351416
12341.2	-0.0342764
12351.5	-0.033406
12361.9	-0.0325303
12372.3	-0.0316495
12382.6	-0.0307633
12393	-0.0298717
12403.3	-0.0289746
12413.7	-0.0280717
12424	-0.0271627
12434.4	-0.0262475
12444.7	-0.0253256
12455.1	-0.0243968
12460.3	-0.0239297
12470.6	-0.0229898
12481	-0.022042
12491.3	-0.0210859
12501.7	-0.0201211
12512	-0.0191471
12522.4	-0.0181636
12532.7	-0.01717
12543.1	-0.016166
12553.4	-0.0151512
12563.8	-0.0141252
12574.1	-0.0130876
12584.5	-0.0120381
12594.8	-0.0109764
12600	-0.0104409
12610.4	-0.00936038
12620.7	-0.00826705
12631.1	-0.00716073
12641.4	-0.0060413
12651.8	-0.00490871
12662.1	-0.00376293
12672.5	-0.00260401
12682.9	-0.00143204
12693.2	-0.000247176
12703.6	0.000950359
12713.9	0.00216029
12724.3	0.00338227
12734.6	0.00461591
12745	0.00586074
12750.1	0.00648719
12760.5	0.00774779
12770.9	0.00901817
12781.2	0.0102976
12791.6	0.0115855
12801.9	0.0128809
12812.3	0.014183
12822.6	0.0154911
12833	0.016804
12843.3	0.0181209
12853.7	0.0194408
12864	0.0207626
12874.4	0.0220852
12884.7	0.0234075
12895.1	0.0247284
12900.3	0.025388
12910.6	0.0267047
12921	0.028017
12931.3	0.0293238
12941.7	0.0306239
12952	0.0319162
12962.4	0.0331995
12972.7	0.0344725
12983.1	0.0357341
12993.5	0.0369832
13003.8	0.0382186
13014.2	0.0394393
13024.5	0.0406442
13034.9	0.0418322
13040	0.0424196
13050.4	0.0435805
13060.8	0.044722
13071.1	0.0458434
13081.5	0.0469437
13091.8	0.0480222
13102.2	0.049078
13112.5	0.0501106
13122.9	0.0511191
13133.2	0.0521031
13143.6	0.0530619
13153.9	0.0539952
13164.3	0.0549025
13174.6	0.0557833
13185	0.0566375
13190.2	0.0570545
13200.5	0.0578681
13210.9	0.0586546
13221.2	0.0594137
13231.6	0.0601454
13241.9	0.0608497
13252.3	0.0615267
13262.6	0.0621764
13273	0.062799
13283.3	0.0633946
13293.7	0.0639636
13304.1	0.064506
13314.4	0.0650223
13324.8	0.0655128
13335.1	0.0659778
13340.3	0.0662008
13350.6	0.0666283
13361	0.0670313
13371.4	0.0674102
13381.7	0.0677655
13392.1	0.0680976
13402.4	0.068407
13412.8	0.0686942
13423.1	0.0689596
13433.5	0.0692037
13443.8	0.0694271
13454.2	0.0696301
13464.5	0.0698132
13474.9	0.069977
13480.1	0.0700517
13490.4	0.0701873
13500.8	0.0703046
13511.1	0.0704042
13521.5	0.0704865
13531.8	0.0705519
13542.2	0.0706008
13552.5	0.0706337
13562.9	0.070651
13573.2	0.0706531
13583.6	0.0706405
13594	0.0706135
13604.3	0.0705724
13614.7	0.0705178
13625	0.0704499
13630.2	0.0704111
13640.5	0.070324
13650.9	0.0702246
13661.2	0.0701131
13671.6	0.0699899
13682	0.0698554
13692.3	0.0697097
13702.7	0.0695532
13713	0.0693862
13723.4	0.0692088
13733.7	0.0690213
13744.1	0.068824
13754.4	0.0686169
13764.8	0.0684003
13775.1	0.0681744
13780.3	0.0680579
13790.7	0.0678181
13801	0.0675692
13811.4	0.0673112
13821.7	0.0670443
13832.1	0.0667683
13842.4	0.0664834
13852.8	0.0661896
13863.1	0.0658867
13873.5	0.0655747
13883.8	0.0652536
13894.2	0.0649233
13904.6	0.0645836
13914.9	0.0642345
13920.1	0.0640563
13930.4	0.0636927
13940.8	0.0633194
13951.1	0.062936
13961.5	0.0625425
13971.9	0.0621387
13982.2	0.0617244
13992.6	0.0612994
14002.9	0.0608636
14013.3	0.0604167
14023.6	0.0599586
14034	0.059489
14044.3	0.0590078
14054.7	0.0585149
14065	0.0580099
14070.2	0.0577529
14080.6	0.0572296
14090.9	0.0566939
14101.3	0.0561456
14111.6	0.0555845
14122	0.0550105
14132.3	0.0544235
14142.7	0.0538232
14153	0.0532095
14163.4	0.0525822
14173.7	0.0519413
14184.1	0.0512866
14194.4	0.0506179
14204.8	0.0499351
14215.2	0.0492381
14220.3	0.0488842
14230.7	0.0481656
14241	0.0474324
14251.4	0.0466844
14261.7	0.0459216
14272.1	0.0451439
14282.5	0.0443509
14292.8	0.0435427
14303.2	0.0427191
14313.5	0.04188
14323.9	0.0410251
14334.2	0.0401544
14344.6	0.0392677
14354.9	0.0383648
14360.1	0.0379073
14370.5	0.03698
14380.8	0.0360363
14391.2	0.035076
14401.5	0.034099
14411.9	0.0331052
14422.2	0.0320944
14432.6	0.0310667
14442.9	0.0300219
14453.3	0.02896
14463.6	0.0278809
14474	0.0267846
14484.3	0.0256711
14494.7	0.0245404
14505.1	0.0233924
14510.2	0.022812
14520.6	0.0216382
14530.9	0.0204472
14541.3	0.019239
14551.6	0.0180136
14562	0.0167711
14572.3	0.0155112
14582.7	0.014234
14593.1	0.0129393
14603.4	0.0116269
14613.8	0.0102965
14624.1	0.00894779
14634.5	0.00758024
14644.8	0.00619331
14655.2	0.00478633
14660.4	0.00407507
14670.7	0.00263648
14681.1	0.00117563
14691.4	-0.000308544
14701.8	-0.00181723
14712.1	-0.00335167
14722.5	-0.00491321
14732.8	-0.0065032
14743.2	-0.00812301
14753.5	-0.00977398
14763.9	-0.0114574
14774.2	-0.0131744
14784.6	-0.0149259
14794.9	-0.0167129
14800.1	-0.0176198
14810.5	-0.0194608
14820.8	-0.0213379
14831.2	-0.0232509
14841.5	-0.0251991
14851.9	-0.0271812
14862.2	-0.0291958
14872.6	-0.0312408
14883	-0.0333135
14893.3	-0.0354109
14903.7	-0.0375295
14914	-0.0396653
14924.4	-0.0418138
14934.7	-0.0439702
14945.1	-0.0461292
14950.2	-0.0472081
14960.6	-0.0493608
14971	-0.051502
14981.3	-0.0536258
14991.7	-0.055726
15002	-0.0577965
15012.4	-0.0598312
15022.7	-0.0618243
15033.1	-0.0637699
15043.4	-0.0656623
15053.8	-0.0674964
15064.1	-0.0692671
15074.5	-0.0709697
15084.8	-0.0726
15090	-0.0733867
15100.4	-0.0749011
15110.7	-0.0763341
15121.1	-0.0776828
15131.4	-0.0789446
15141.8	-0.0801175
15152.1	-0.0811996
15162.5	-0.0821897
15172.8	-0.0830866
15183.2	-0.0838897
15193.6	-0.0845985
15203.9	-0.0852128
15214.3	-0.0857328
15224.6	-0.0861587
15235	-0.086491
15240.1	-0.0866223
15250.5	-0.0868156
15260.9	-0.0869173
15271.2	-0.0869287
15281.6	-0.0868508
15291.9	-0.086685
15302.3	-0.0864329
15312.6	-0.0860961
15323	-0.0856763
15333.3	-0.0851753
15343.7	-0.0845952
15354	-0.0839381
15364.4	-0.0832063
15374.7	-0.082402
15385.1	-0.0815279
15390.3	-0.0810655
15400.6	-0.0800916
15411	-0.0790547
15421.3	-0.0779577
15431.7	-0.0768038
15442	-0.0755962
15452.4	-0.0743382
15462.7	-0.0730332
15473.1	-0.0716847
15483.4	-0.0702965
15493.8	-0.0688722
15504.2	-0.0674154
15514.5	-0.0659302
15524.9	-0.0644203
15530	-0.0636573
15540.4	-0.0621176
15550.7	-0.060563
15561.1	-0.0589974
15571.5	-0.0574246
15581.8	-0.0558486
15592.2	-0.0542731
15602.5	-0.0527018
15612.9	-0.0511386
15623.2	-0.0495869
15633.6	-0.0480504
15643.9	-0.0465325
15654.3	-0.0450365
15664.6	-0.0435656
15675	-0.042123
15680.2	-0.0414132
15690.5	-0.0400184
15700.9	-0.0386589
15711.2	-0.0373375
15721.6	-0.0360564
15731.9	-0.0348181
15742.3	-0.0336247
15752.6	-0.0324781
15763	-0.0313801
15773.3	-0.0303325
15783.7	-0.0293366
15794	-0.0283938
15804.4	-0.0275053
15814.8	-0.026672
15825.1	-0.0258947
15830.3	-0.0255273
15840.6	-0.0248353
15851	-0.0242006
15861.3	-0.0236237
15871.7	-0.0231045
15882.1	-0.022643
15892.4	-0.0222392
15902.8	-0.0218926
15913.1	-0.0216029
15923.5	-0.0213694
15933.8	-0.0211913
15944.2	-0.021068
15954.5	-0.0209983
15964.9	-0.0209811
15970.1	-0.0209919
15980.4	-0.0210512
15990.8	-0.0211596
16001.1	-0.0213157
16011.5	-0.0215178
16021.8	-0.0217639
16032.2	-0.0220523
16042.5	-0.0223807
16052.9	-0.0227471
16063.2	-0.0231491
16073.6	-0.0235843
16083.9	-0.0240503
16094.3	-0.0245444
16104.7	-0.0250639
16115	-0.025606
16120.2	-0.0258847
16130.5	-0.0264554
16140.9	-0.0270415
16151.2	-0.02764
16161.6	-0.028248
16171.9	-0.0288623
16182.3	-0.02948
16192.7	-0.0300981
16203	-0.0307136
16213.4	-0.0313236
16223.7	-0.0319252
16234.1	-0.0325157
16244.4	-0.0330924
16254.8	-0.0336527
16265.1	-0.0341942
16270.3	-0.0344572
16280.7	-0.0349662
16291	-0.0354509
16301.4	-0.0359094
16311.7	-0.0363399
16322.1	-0.0367409
16332.4	-0.037111
16342.8	-0.0374489
16353.1	-0.0377537
16363.5	-0.0380246
16373.8	-0.0382608
16384.2	-0.038462
16394.5	-0.0386279
16404.9	-0.0387584
16410.1	-0.0388104
16420.4	-0.0388881
16430.8	-0.038931
16441.1	-0.0389395
16451.5	-0.0389144
16461.8	-0.0388564
16472.2	-0.0387665
16482.6	-0.0386457
16492.9	-0.0384951
16503.3	-0.0383159
16513.6	-0.0381096
16524	-0.0378775
16534.3	-0.0376209
16544.7	-0.0373415
16555	-0.0370406
16560.2	-0.0368827
16570.6	-0.0365525
16580.9	-0.0362048
16591.3	-0.0358409
16601.6	-0.0354623
16612	-0.0350705
16622.3	-0.0346667
16632.7	-0.0342523
16643	-0.0338286
16653.4	-0.0333966
16663.7	-0.0329574
16674.1	-0.0325121
16684.4	-0.0320616
16694.8	-0.0316067
16705.1	-0.0311481
16710.3	-0.0309176
16720.7	-0.0304547
16731	-0.0299897
16741.4	-0.0295229
16751.7	-0.0290549
16762.1	-0.028586
16772.4	-0.0281164
16782.8	-0.0276465
16793.2	-0.0271764
16803.5	-0.0267062
16813.9	-0.0262362
16824.2	-0.0257665
16834.6	-0.0252971
16844.9	-0.0248282
16850.1	-0.024594
16860.5	-0.024126
16870.8	-0.0236587
16881.2	-0.0231923
16891.5	-0.0227268
16901.9	-0.0222624
16912.2	-0.0217991
16922.6	-0.0213373
16932.9	-0.0208769
16943.3	-0.0204181
16953.6	-0.0199612
16964	-0.0195063
16974.3	-0.0190536
16984.7	-0.0186032
16995	-0.0181553
17000.2	-0.0179324
17010.6	-0.0174886
17020.9	-0.0170478
17031.3	-0.01661
17041.6	-0.0161755
17052	-0.0157443
17062.3	-0.0153165
17072.7	-0.0148923
17083	-0.0144716
17093.4	-0.0140546
17103.8	-0.0136413
17114.1	-0.0132318
17124.5	-0.0128259
17134.8	-0.0124237
17145.2	-0.0120252
17150.3	-0.0118273
17160.7	-0.0114341
17171.1	-0.0110445
17181.4	-0.0106584
17191.8	-0.0102756
17202.1	-0.00989606
17212.5	-0.00951973
17222.8	-0.00914648
17233.2	-0.00877621
17243.5	-0.00840881
17253.9	-0.00804419
17264.2	-0.00768223
17274.6	-0.00732284
17284.9	-0.00696591
17290.1	-0.00678833
17300.5	-0.00643491
17310.8	-0.00608371
17321.2	-0.00573465
17331.5	-0.00538763
17341.9	-0.00504256
17352.2	-0.00469938
17362.6	-0.00435799
17372.9	-0.00401833
17383.3	-0.00368032
17393.7	-0.00334389
17404	-0.00300898
17414.4	-0.00267551
17424.7	-0.00234343
17435.1	-0.00201268
17440.2	-0.00184778
17450.6	-0.00151891
17460.9	-0.00119122
17471.3	-0.000864669
17481.7	-0.000539202
17492	-0.000214774
17502.4	0.000108658
17512.7	0.000431133
17523.1	0.000752685
17533.4	0.00107335
17543.8	0.00139315
17554.1	0.00171211
17564.5	0.00203025
17574.8	0.00234759
17580	0.00250595
17590.4	0.0028221
17600.7	0.00313744
17611.1	0.003452
17621.4	0.00376575
17631.8	0.00407869
17642.1	0.0043908
17652.5	0.00470207
17662.8	0.00501246
17673.2	0.00532196
17683.5	0.00563053
17693.9	0.00593815
17704.3	0.00624478
17714.6	0.00655041
17725	0.00685498
17730.1	0.00700687
17740.5	0.00730983
17750.8	0.00761166
17761.2	0.00791236
17771.6	0.00821189
17781.9	0.00851024
17792.3	0.00880739
17802.6	0.00910333
17813	0.00939804
17823.3	0.00969152
17833.7	0.00998377
17844	0.0102748
17854.4	0.0105646
17864.7	0.0108531
17875.1	0.0111404
17880.3	0.0112836
17890.6	0.011569
17901	0.0118532
17911.3	0.0121361
17921.7	0.0124177
17932	0.012698
17942.4	0.012977
17952.7	0.0132546
17963.1	0.0135307
17973.4	0.0138052
17983.8	0.0140781
17994.1	0.0143493
18004.5	0.0146186
18014.9	0.0148858
18020	0.0150187
18030.4	0.0152825
18040.7	0.0155439
18051.1	0.0158026
18061.4	0.0160584
18071.8	0.016311
18082.2	0.0165601
18092.5	0.0168055
18102.9	0.0170469
18113.2	0.017284
18123.6	0.0175164
18133.9	0.017744
18144.3	0.0179664
18154.6	0.0181833
18165	0.0183943
18170.2	0.0184976
18180.5	0.0186994
18190.9	0.0188948
18201.2	0.0190833
18211.6	0.0192649
18221.9	0.0194391
18232.3	0.0196059
18242.6	0.019765
18253	0.0199162
18263.3	0.0200594
18273.7	0.0201943
18284	0.0203208
18294.4	0.0204388
18304.8	0.0205481
18315.1	0.0206487
18320.3	0.0206956
18330.6	0.0207828
18341	0.0208609
18351.3	0.0209298
18361.7	0.0209894
18372	0.0210397
18382.4	0.0210805
18392.8	0.0211117
18403.1	0.0211332
18413.5	0.0211449
18423.8	0.0211467
18434.2	0.0211384
18444.5	0.0211199
18454.9	0.0210911
18460.1	0.0210728
18470.4	0.0210282
18480.8	0.0209729
18491.1	0.0209067
18501.5	0.0208295
18511.8	0.0207411
18522.2	0.0206413
18532.5	0.0205299
18542.9	0.0204068
18553.2	0.0202719
18563.6	0.020125
18573.9	0.0199659
18584.3	0.0197947
18594.6	0.0196111
18605	0.0194152
18610.2	0.0193126
18620.5	0.0190981
18630.9	0.0188713
18641.2	0.0186322
18651.6	0.018381
18661.9	0.0181179
18672.3	0.0178431
18682.7	0.0175569
18693	0.0172597
18703.4	0.0169518
18713.7	0.0166338
18724.1	0.0163062
18734.4	0.0159696
18744.8	0.0156247
18755.1	0.0152722
18760.3	0.0150933
18770.7	0.0147309
18781	0.014363
18791.4	0.0139905
18801.7	0.0136144
18812.1	0.0132356
18822.4	0.0128553
18832.8	0.0124744
18843.1	0.012094
18853.5	0.0117152
18863.8	0.0113392
18874.2	0.010967
18884.5	0.0105997
18894.9	0.0102383
18900.1	0.0100602
18910.4	0.00970978
18920.8	0.00936788
18931.1	0.00903549
18941.5	0.00871353
18951.8	0.00840288
18962.2	0.00810438
18972.5	0.00781881
18982.9	0.00754687
18993.3	0.00728924
19003.6	0.0070465
19014	0.00681919
19024.3	0.00660778
19034.7	0.00641266
19045	0.00623415
19050.2	0.00615122
19060.5	0.00599812
19070.9	0.00586218
19081.3	0.00574348
19091.6	0.00564205
19102	0.00555786
19112.3	0.0054908
19122.7	0.00544072
19133	0.00540739
19143.4	0.00539053
19153.7	0.00538979
19164.1	0.0054048
19174.4	0.00543509
19184.8	0.00548018
19195.1	0.00553953
19200.3	0.00557437
19210.7	0.00565398
19221	0.00574631
19231.4	0.00585067
19241.7	0.00596633
19252.1	0.00609255
19262.4	0.00622854
19272.8	0.00637351
19283.1	0.00652661
19293.5	0.00668701
19303.9	0.00685384
19314.2	0.00702623
19324.6	0.00720328
19334.9	0.0073841
19340.1	0.00747565
19350.4	0.00766045
19360.8	0.00784677
19371.2	0.00803372
19381.5	0.00822041
19391.9	0.00840596
19402.2	0.0085895
19412.6	0.00877018
19422.9	0.00894715
19433.3	0.00911959
19443.6	0.0092867
19454	0.00944772
19464.3	0.00960188
19474.7	0.00974846
19485	0.00988677
19490.2	0.00995262
19500.6	0.0100773
19510.9	0.0101921
19521.3	0.0102964
19531.6	0.0103898
19542	0.0104716
19552.3	0.0105414
19562.7	0.0105988
19573	0.0106433
19583.4	0.0106747
19593.7	0.0106924
19604.1	0.0106963
19614.5	0.010686
19624.8	0.0106613
19635.2	0.010622
19640.3	0.0105968
19650.7	0.0105351
19661	0.0104584
19671.4	0.0103664
19681.8	0.0102592
19692.1	0.0101364
19702.5	0.00999816
19712.8	0.00984432
19723.2	0.00967487
19733.5	0.00948978
19743.9	0.00928908
19754.2	0.00907278
19764.6	0.00884096
19774.9	0.0085937
19780.1	0.00846432
19790.5	0.00819416
19800.8	0.00790896
19811.2	0.00760894
19821.5	0.00729436
19831.9	0.00696557
19842.2	0.00662291
19852.6	0.00626682
19862.9	0.00589777
19873.3	0.0055163
19883.6	0.00512297
19894	0.00471843
19904.4	0.00430336
19914.7	0.00387848
19925.1	0.00344457
19930.2	0.00322447
19940.6	0.0027785
19950.9	0.00232555
19961.3	0.00186647
19971.6	0.00140214
19982	0.000933407
19992.4	0.00046115
