0	0
26.6808	0
53.3616	0
80.0424	0
106.723	0
133.404	0
160.085	0
186.766	0
213.446	0
240.127	0
266.808	0
293.489	0
320.17	0
346.85	0
373.531	0
400.212	4.54747e-12
426.893	8.8221e-11
453.574	8.05812e-10
480.254	5.16138e-09
506.935	2.57796e-08
533.616	1.06563e-07
560.297	3.79678e-07
586.978	1.19686e-06
613.658	3.39635e-06
640.339	8.78865e-06
667.02	2.09635e-05
693.701	4.65431e-05
720.382	9.70436e-05
747.062	0.00019157
773.743	0.000360648
800.424	0.00065154
827.105	0.00113539
853.786	0.00191629
880.466	0.00314212
907.147	0.00501622
933.828	0.00780873
960.509	0.0118655
987.19	0.0176126
1013.87	0.0255535
1040.55	0.0362587
1067.23	0.0503444
1093.91	0.0684426
1120.59	0.0911616
1147.27	0.11904
1173.96	0.152497
1200.64	0.191784
1227.32	0.236933
1254	0.287724
1280.68	0.343653
1307.36	0.403916
1334.04	0.467416
1360.72	0.532774
1387.4	0.59837
1414.08	0.662392
1440.76	0.722903
1467.44	0.777918
1494.12	0.825485
1520.81	0.863776
1547.49	0.891166
1574.17	0.906313
1600.85	0.908218
1627.53	0.896281
1654.21	0.870321
1680.89	0.830596
1707.57	0.777787
1734.25	0.71297
1760.93	0.63757
1787.61	0.553298
1814.29	0.462083
1840.98	0.365993
1867.66	0.267157
1894.34	0.167688
1921.02	0.0696139
1947.7	-0.025186
1974.38	-0.115032
2001.06	-0.198483
2027.74	-0.274362
2054.42	-0.341773
2081.1	-0.400101
2107.78	-0.449003
2134.46	-0.488396
2161.14	-0.518429
2187.83	-0.539456
2214.51	-0.552002
2241.19	-0.55673
2267.87	-0.554408
2294.55	-0.545875
2321.23	-0.532008
2347.91	-0.513697
2374.59	-0.491819
2401.27	-0.467217
2427.95	-0.440683
2454.63	-0.412948
2481.31	-0.384669
2508	-0.356424
2534.68	-0.328711
2561.36	-0.301945
2588.04	-0.276464
2614.72	-0.252527
2641.4	-0.230325
2668.08	-0.209982
2694.76	-0.191566
2721.44	-0.175092
2748.12	-0.160536
2774.8	-0.147832
2801.48	-0.136888
2828.16	-0.127588
2854.84	-0.119798
2881.53	-0.113375
2908.21	-0.108165
2934.89	-0.104014
2961.57	-0.100767
2988.25	-0.0982741
3014.93	-0.0963894
3041.61	-0.0949763
3068.29	-0.0939073
3094.97	-0.0930653
3121.65	-0.0923443
3148.33	-0.09165
3175.01	-0.0909
3201.69	-0.0900233
3228.37	-0.0889605
3255.05	-0.0876635
3281.73	-0.0860944
3308.41	-0.0842255
3335.09	-0.0820382
3361.77	-0.0795226
3388.45	-0.0766763
3415.13	-0.0735038
3441.81	-0.0700159
3468.49	-0.0662285
3495.17	-0.0621619
3521.85	-0.0578402
3548.53	-0.0532902
3575.21	-0.0485411
3601.89	-0.0436234
3628.57	-0.0385686
3655.25	-0.0334085
3681.93	-0.0281746
3708.61	-0.0228976
3735.29	-0.0176074
3761.97	-0.0123322
3788.65	-0.00709862
3815.33	-0.0019313
3842.01	0.00314723
3868.69	0.00811668
3895.37	0.012959
3922.05	0.0176586
3948.73	0.022202
3975.41	0.026578
4002.09	0.0307776
4028.77	0.0347938
4055.45	0.0386213
4082.13	0.0422567
4108.81	0.0456981
4135.49	0.0489449
4162.17	0.0519976
4188.86	0.0548578
4215.54	0.0575277
4242.22	0.0600103
4268.9	0.0623088
4295.58	0.0644268
4322.26	0.0663679
4348.94	0.0681359
4375.62	0.0697341
4402.3	0.0711659
4428.98	0.0724342
4455.66	0.0735417
4482.34	0.0744905
4509.02	0.0752824
4535.7	0.0759186
4562.38	0.0764001
4589.06	0.0767274
4615.75	0.0769007
4642.43	0.0769197
4669.11	0.0767843
4695.79	0.0764937
4722.47	0.0760475
4749.15	0.075445
4775.83	0.0746858
4802.51	0.0737696
4829.19	0.0726964
4855.87	0.0714666
4882.55	0.0700808
4909.23	0.0685405
4935.91	0.0668475
4962.59	0.0650042
4989.28	0.063014
5015.96	0.0608806
5042.64	0.0586087
5069.32	0.0562036
5096	0.0536715
5122.68	0.0510192
5149.36	0.0482542
5176.04	0.0453847
5202.72	0.0424196
5229.4	0.0393683
5256.08	0.0362406
5282.76	0.0330469
5309.44	0.0297978
5336.12	0.0265043
5362.8	0.0231775
5389.48	0.0198285
5416.17	0.0164687
5442.85	0.0131091
5469.53	0.00976068
5496.21	0.00643402
5522.89	0.00313949
5549.57	-0.000113032
5576.25	-0.00331413
5602.93	-0.00645496
5629.61	-0.00952728
5656.29	-0.0125235
5682.97	-0.0154367
5709.65	-0.0182607
5736.33	-0.02099
5763.01	-0.0236199
5789.69	-0.0261464
5816.38	-0.0285664
5843.06	-0.0308772
5869.74	-0.0330771
5896.42	-0.0351648
5923.1	-0.0371399
5949.78	-0.0390024
5976.46	-0.0407528
6003.14	-0.0423924
6029.82	-0.0439227
6056.5	-0.0453456
6083.18	-0.0466634
6109.86	-0.0478787
6136.54	-0.0489943
6163.22	-0.0500134
6189.9	-0.050939
6216.59	-0.0517745
6243.27	-0.0525232
6269.95	-0.0531885
6296.63	-0.0537738
6323.31	-0.0542824
6349.99	-0.0547176
6376.67	-0.0550824
6403.35	-0.05538
6430.03	-0.0556132
6456.71	-0.0557849
6483.39	-0.0558975
6510.07	-0.0559536
6536.75	-0.0559554
6563.43	-0.0559049
6590.12	-0.055804
6616.8	-0.0556545
6643.48	-0.0554579
6670.16	-0.0552155
6696.84	-0.0549286
6723.52	-0.0545982
6750.2	-0.0542251
6776.88	-0.0538103
6803.56	-0.0533542
6830.24	-0.0528574
6856.92	-0.0523204
6883.6	-0.0517434
6910.29	-0.0511268
6936.97	-0.0504707
6963.65	-0.0497753
6990.33	-0.0490407
7017.01	-0.0482671
7043.69	-0.0474547
7070.37	-0.0466034
7097.05	-0.0457136
7123.73	-0.0447854
7150.41	-0.0438192
7177.09	-0.0428153
7203.77	-0.0417742
7230.45	-0.0406964
7257.14	-0.0395826
7283.82	-0.0384336
7310.5	-0.0372502
7337.18	-0.0360334
7363.86	-0.0347845
7390.54	-0.0335047
7417.22	-0.0321955
7443.9	-0.0308584
7470.58	-0.0294951
7497.26	-0.0281075
7523.94	-0.0266975
7550.62	-0.0252672
7577.3	-0.0238189
7603.99	-0.0223548
7630.67	-0.0208774
7657.35	-0.0193891
7684.03	-0.0178926
7710.71	-0.0163904
7737.39	-0.0148853
7764.07	-0.01338
7790.75	-0.0118773
7817.43	-0.0103799
7844.11	-0.00889074
7870.79	-0.00741247
7897.47	-0.00594787
7924.15	-0.00449969
7950.84	-0.00307059
7977.52	-0.00166321
8004.2	-0.000280117
8030.88	0.0010762
8057.56	0.00240333
8084.24	0.00369894
8110.92	0.00496079
8137.6	0.00618676
8164.28	0.0073748
8190.96	0.008523
8217.64	0.00962953
8244.32	0.0106927
8271	0.0117109
8297.69	0.0126826
8324.37	0.0136066
8351.05	0.0144815
8377.73	0.0153062
8404.41	0.0160798
8431.09	0.0168012
8457.77	0.0174698
8484.45	0.0180849
8511.13	0.0186459
8537.81	0.0191524
8564.49	0.0196041
8591.17	0.0200006
8617.85	0.0203421
8644.54	0.0206284
8671.22	0.0208596
8697.9	0.0210361
8724.58	0.0211582
8751.26	0.0212263
8777.94	0.0212409
8804.62	0.0212029
8831.3	0.021113
8857.98	0.0209721
8884.66	0.0207812
8911.34	0.0205414
8938.02	0.0202541
8964.7	0.0199205
8991.39	0.0195421
9018.07	0.0191205
9044.75	0.0186572
9071.43	0.0181542
9098.11	0.0176131
9124.79	0.017036
9151.47	0.0164248
9178.15	0.0157817
9204.83	0.0151087
9231.51	0.014408
9258.19	0.013682
9284.87	0.012933
9311.55	0.0121631
9338.23	0.0113748
9364.92	0.0105705
9391.6	0.00975236
9418.28	0.00892284
9444.96	0.00808421
9471.64	0.00723872
9498.32	0.00638857
9525	0.00553593
9551.68	0.00468285
9578.36	0.00383131
9605.04	0.00298321
9631.72	0.00214034
9658.4	0.00130435
9685.08	0.000476794
9711.77	-0.000340907
9738.45	-0.00114747
9765.13	-0.00194176
9791.81	-0.00272278
9818.49	-0.00348967
9845.17	-0.00424172
9871.85	-0.00497839
9898.53	-0.00569924
9925.21	-0.00640402
9951.89	-0.00709258
9978.57	-0.00776493
10005.3	-0.00842118
10031.9	-0.00906158
10058.6	-0.00968649
10085.3	-0.0102963
10112	-0.0108917
10138.7	-0.0114732
10165.3	-0.0120415
10192	-0.0125973
10218.7	-0.0131415
10245.4	-0.0136749
10272.1	-0.0141984
10298.7	-0.0147127
10325.4	-0.0152187
10352.1	-0.0157174
10378.8	-0.0162095
10405.5	-0.0166958
10432.1	-0.017177
10458.8	-0.0176538
10485.5	-0.0181269
10512.2	-0.0185968
10538.9	-0.0190641
10565.5	-0.019529
10592.2	-0.019992
10618.9	-0.0204533
10645.6	-0.020913
10672.3	-0.0213712
10699	-0.0218279
10725.6	-0.0222829
10752.3	-0.0227361
10779	-0.0231872
10805.7	-0.0236357
10832.4	-0.0240812
10859	-0.0245233
10885.7	-0.0249612
10912.4	-0.0253943
10939.1	-0.0258219
10965.8	-0.0262433
10992.4	-0.0266575
11019.1	-0.0270638
11045.8	-0.0274611
11072.5	-0.0278487
11099.2	-0.0282255
11125.8	-0.0285906
11152.5	-0.028943
11179.2	-0.0292818
11205.9	-0.0296061
11232.6	-0.0299148
11259.3	-0.0302072
11285.9	-0.0304823
11312.6	-0.0307392
11339.3	-0.0309773
11366	-0.0311956
11392.7	-0.0313937
11419.3	-0.0315706
11446	-0.031726
11472.7	-0.0318593
11499.4	-0.03197
11526.1	-0.0320578
11552.7	-0.0321223
11579.4	-0.0321632
11606.1	-0.0321806
11632.8	-0.0321742
11659.5	-0.0321441
11686.1	-0.0320903
11712.8	-0.0320131
11739.5	-0.0319126
11766.2	-0.0317891
11792.9	-0.0316431
11819.5	-0.031475
11846.2	-0.0312854
11872.9	-0.0310747
11899.6	-0.0308438
11926.3	-0.0305932
11952.9	-0.0303239
11979.6	-0.0300365
12006.3	-0.0297321
12033	-0.0294116
12059.7	-0.0290758
12086.4	-0.0287258
12113	-0.0283626
12139.7	-0.0279873
12166.4	-0.0276009
12193.1	-0.0272045
12219.8	-0.0267992
12246.4	-0.0263861
12273.1	-0.0259662
12299.8	-0.0255407
12326.5	-0.0251105
12353.2	-0.0246767
12379.8	-0.0242404
12406.5	-0.0238025
12433.2	-0.0233639
12459.9	-0.0229256
12486.6	-0.0224884
12513.2	-0.0220533
12539.9	-0.0216209
12566.6	-0.021192
12593.3	-0.0207673
12620	-0.0203475
12646.7	-0.019933
12673.3	-0.0195246
12700	-0.0191225
12726.7	-0.0187273
12753.4	-0.0183394
12780.1	-0.017959
12806.7	-0.0175865
12833.4	-0.017222
12860.1	-0.0168657
12886.8	-0.0165178
12913.5	-0.0161783
12940.1	-0.0158474
12966.8	-0.0155249
12993.5	-0.0152109
13020.2	-0.0149053
13046.9	-0.014608
13073.5	-0.014319
13100.2	-0.014038
13126.9	-0.013765
13153.6	-0.0134997
13180.3	-0.013242
13206.9	-0.0129916
13233.6	-0.0127484
13260.3	-0.0125122
13287	-0.0122826
13313.7	-0.0120596
13340.4	-0.0118428
13367	-0.0116321
13393.7	-0.0114271
13420.4	-0.0112278
13447.1	-0.0110339
13473.8	-0.0108451
13500.4	-0.0106613
13527.1	-0.0104822
13553.8	-0.0103076
13580.5	-0.0101374
13607.2	-0.00997127
13633.8	-0.00980908
13660.5	-0.00965063
13687.2	-0.00949573
13713.9	-0.00934419
13740.6	-0.00919582
13767.2	-0.00905045
13793.9	-0.00890789
13820.6	-0.00876796
13847.3	-0.00863049
13874	-0.0084953
13900.6	-0.00836221
13927.3	-0.00823104
13954	-0.00810161
13980.7	-0.00797375
14007.4	-0.00784727
14034.1	-0.007722
14060.7	-0.00759775
14087.4	-0.00747433
14114.1	-0.00735156
14140.8	-0.00722923
14167.5	-0.00710716
14194.1	-0.00698514
14220.8	-0.00686298
14247.5	-0.00674045
14274.2	-0.00661736
14300.9	-0.00649348
14327.5	-0.00636858
14354.2	-0.00624245
14380.9	-0.00611486
14407.6	-0.00598555
14434.3	-0.0058543
14460.9	-0.00572086
14487.6	-0.00558499
14514.3	-0.00544642
14541	-0.0053049
14567.7	-0.00516018
14594.3	-0.005012
14621	-0.0048601
14647.7	-0.00470422
14674.4	-0.00454409
14701.1	-0.00437946
14727.8	-0.00421006
14754.4	-0.00403566
14781.1	-0.00385599
14807.8	-0.0036708
14834.5	-0.00347987
14861.2	-0.00328295
14887.8	-0.00307981
14914.5	-0.00287024
14941.2	-0.00265403
14967.9	-0.00243098
14994.6	-0.0022009
15021.2	-0.00196361
15047.9	-0.00171894
15074.6	-0.00146675
15101.3	-0.0012069
15128	-0.000939259
15154.6	-0.000663729
15181.3	-0.000380217
15208	-8.86481e-05
15234.7	0.000211032
15261.4	0.000518862
15288	0.000834858
15314.7	0.00115902
15341.4	0.00149132
15368.1	0.00183172
15394.8	0.00218015
15421.5	0.00253651
15448.1	0.0029007
15474.8	0.00327258
15501.5	0.00365198
15528.2	0.00403871
15554.9	0.00443255
15581.5	0.00483327
15608.2	0.00524058
15634.9	0.00565418
15661.6	0.00607373
15688.3	0.00649889
15714.9	0.00692924
15741.6	0.00736437
15768.3	0.00780382
15795	0.00824709
15821.7	0.00869366
15848.3	0.00914299
15875	0.00959447
15901.7	0.0100475
15928.4	0.0105014
15955.1	0.0109555
15981.7	0.0114091
16008.4	0.0118614
16035.1	0.0123117
16061.8	0.0127592
16088.5	0.013203
16115.2	0.0136423
16141.8	0.0140762
16168.5	0.0145038
16195.2	0.0149242
16221.9	0.0153366
16248.6	0.0157399
16275.2	0.0161332
16301.9	0.0165156
16328.6	0.0168861
16355.3	0.0172439
16382	0.0175878
16408.6	0.0179171
16435.3	0.0182309
16462	0.0185281
16488.7	0.0188081
16515.4	0.0190699
16542	0.0193127
16568.7	0.0195359
16595.4	0.0197386
16622.1	0.0199203
16648.8	0.0200803
16675.4	0.0202181
16702.1	0.0203332
16728.8	0.0204251
16755.5	0.0204935
16782.2	0.0205382
16808.9	0.0205589
16835.5	0.0205556
16862.2	0.020528
16888.9	0.0204764
16915.6	0.0204008
16942.3	0.0203015
16968.9	0.0201786
16995.6	0.0200327
17022.3	0.0198641
17049	0.0196734
17075.7	0.0194613
17102.3	0.0192284
17129	0.0189755
17155.7	0.0187035
17182.4	0.0184133
17209.1	0.018106
17235.7	0.0177825
17262.4	0.017444
17289.1	0.0170916
17315.8	0.0167266
17342.5	0.0163501
17369.1	0.0159636
17395.8	0.0155682
17422.5	0.0151653
17449.2	0.0147562
17475.9	0.0143423
17502.6	0.0139249
17529.2	0.0135054
17555.9	0.013085
17582.6	0.012665
17609.3	0.0122467
17636	0.0118314
17662.6	0.0114201
17689.3	0.011014
17716	0.0106142
17742.7	0.0102217
17769.4	0.00983751
17796	0.0094624
17822.7	0.00909722
17849.4	0.0087427
17876.1	0.00839949
17902.8	0.00806814
17929.4	0.00774915
17956.1	0.00744291
17982.8	0.00714972
18009.5	0.00686982
18036.2	0.00660335
18062.9	0.00635035
18089.5	0.0061108
18116.2	0.00588459
18142.9	0.00567153
18169.6	0.00547135
18196.3	0.00528372
18222.9	0.00510823
18249.6	0.00494442
18276.3	0.00479175
18303	0.00464963
18329.7	0.00451743
18356.3	0.00439448
18383	0.00428005
18409.7	0.00417339
18436.4	0.00407371
18463.1	0.00398022
18489.7	0.00389209
18516.4	0.00380849
18543.1	0.00372859
18569.8	0.00365154
18596.5	0.00357652
18623.1	0.00350271
18649.8	0.0034293
18676.5	0.00335551
18703.2	0.00328058
18729.9	0.00320378
18756.6	0.00312442
18783.2	0.00304183
18809.9	0.00295541
18836.6	0.00286458
18863.3	0.00276881
18890	0.00266762
18916.6	0.00256059
18943.3	0.00244733
18970	0.00232753
18996.7	0.00220092
19023.4	0.00206729
19050	0.00192647
19076.7	0.00177837
19103.4	0.00162294
19130.1	0.00146018
19156.8	0.00129014
19183.4	0.00111295
19210.1	0.000928763
19236.8	0.000737782
19263.5	0.000540264
19290.2	0.000336508
19316.8	0.000126854
19343.5	-8.83189e-05
19370.2	-0.000308595
19396.9	-0.000533524
19423.6	-0.000762627
19450.3	-0.000995395
19476.9	-0.0012313
19503.6	-0.00146977
19530.3	-0.00171026
19557	-0.00195215
19583.7	-0.00219487
19610.3	-0.00243778
19637	-0.00268028
19663.7	-0.00292175
19690.4	-0.00316157
19717.1	-0.00339911
19743.7	-0.00363377
19770.4	-0.00386493
19797.1	-0.00409201
19823.8	-0.00431441
19850.5	-0.00453159
19877.1	-0.00474297
19903.8	-0.00494804
19930.5	-0.00514628
19957.2	-0.00533722
19983.9	-0.00552038
