0	0
20.6843	0
41.3687	0
62.053	0
82.7374	0
103.422	0
124.106	0
144.79	0
165.475	0
186.159	0
206.843	0
227.528	0
248.212	0
268.897	0
289.581	0
310.265	0
330.95	0
351.634	0
372.318	0
393.003	0
413.687	0
434.371	0
455.056	0
475.74	0
496.424	0
517.109	0
537.793	0
558.477	0
579.162	0
599.846	0
620.53	0
641.215	0
661.899	0
682.584	0
703.268	0
723.952	0
744.637	0
765.321	0
785.791	0
805.793	0
825.097	0
843.411	0
860.509	0
872.714	0
879.587	0
886.654	0
895.72	0
907.422	0
920.881	0
935.604	0
951.374	0
968.021	0
985.262	0
1002.58	0
1019.93	0
1037.34	0
1054.84	0
1072.42	0
1090.08	0
1107.81	0
1125.56	0
1143.25	0
1160.85	0
1178.36	0
1195.79	0
1213.09	0
1230.16	0
1246.97	0
1263.4	0
1279.4	-9.09495e-13
1294.9	-9.09495e-13
1309.82	-1.81899e-12
1324.27	-3.63798e-12
1338.77	-7.27596e-12
1353.7	-1.27329e-11
1368.96	-2.27374e-11
1384.59	-4.09273e-11
1400.52	-7.27596e-11
1416.69	-1.27329e-10
1432.98	-2.21007e-10
1449.38	-3.7835e-10
1465.85	-6.39375e-10
1482.38	-1.06593e-09
1498.95	-1.75532e-09
1515.52	-2.85581e-09
1532.06	-4.58385e-09
1548.55	-7.25595e-09
1564.97	-1.13296e-08
1581.15	-1.73832e-08
1596.96	-2.6148e-08
1612.41	-3.85971e-08
1627.78	-5.63432e-08
1643.23	-8.1639e-08
1658.65	-1.1719e-07
1674.02	-1.66561e-07
1689.39	-2.34788e-07
1704.88	-3.29125e-07
1720.54	-4.59266e-07
1736.37	-6.37897e-07
1752.34	-8.81427e-07
1768.46	-1.21173e-06
1784.69	-1.65641e-06
1801.01	-2.25022e-06
1817.49	-3.0421e-06
1834.05	-4.08718e-06
1850.64	-5.45331e-06
1867.17	-7.21582e-06
1883.61	-9.4667e-06
1899.97	-1.23183e-05
1916.11	-1.58707e-05
1932.11	-2.02726e-05
1947.97	-2.56861e-05
1963.71	-3.22955e-05
1979.31	-4.03034e-05
1994.76	-4.99097e-05
2010.04	-6.13467e-05
2025.19	-7.48929e-05
2040.24	-9.08717e-05
2055.23	-0.000109647
2070.18	-0.000131638
2085.14	-0.000157325
2100.17	-0.000187306
2115.28	-0.000222225
2130.49	-0.00026278
2145.83	-0.00030974
2161.31	-0.000363972
2176.81	-0.000425852
2192.39	-0.000496443
2208.06	-0.000576549
2223.82	-0.000667168
2239.72	-0.000769437
2255.72	-0.000884053
2271.8	-0.00101172
2287.96	-0.00115307
2304.19	-0.00130864
2320.5	-0.00147885
2336.89	-0.00166388
2353.34	-0.00186356
2369.86	-0.00207738
2386.45	-0.00230441
2403.1	-0.00254321
2419.8	-0.00279176
2436.53	-0.0030471
2453.26	-0.00330531
2469.99	-0.00356214
2486.7	-0.00381255
2503.4	-0.00405064
2520.07	-0.00426965
2536.72	-0.00446187
2553.34	-0.00461863
2569.94	-0.00473034
2586.49	-0.00478641
2603.01	-0.00477539
2619.48	-0.00468495
2635.81	-0.0045033
2652.04	-0.00421777
2668.08	-0.00381749
2683.83	-0.00329518
2699.28	-0.00264376
2714.43	-0.00185628
2729.7	-0.000898146
2745.12	0.00025211
2760.57	0.00160494
2776.02	0.0031744
2791.48	0.00498036
2806.99	0.00704314
2822.55	0.00938145
2838.15	0.0120136
2853.8	0.0149573
2869.48	0.0182295
2885.21	0.0218463
2900.98	0.0258222
2916.8	0.0301742
2932.68	0.0349179
2948.61	0.0400646
2964.61	0.0456216
2980.64	0.0515928
2996.72	0.0579791
3012.84	0.0647785
3028.99	0.0719855
3045.17	0.0795911
3061.36	0.0875778
3077.54	0.095911
3093.68	0.104564
3109.71	0.113466
3125.65	0.122594
3141.52	0.13193
3157.33	0.141446
3173.09	0.151107
3188.86	0.160917
3204.75	0.170906
3220.6	0.180938
3236.45	0.190982
3252.29	0.201
3268.15	0.210957
3284.04	0.220815
3299.97	0.230522
3315.92	0.240028
3331.99	0.249329
3348.08	0.258322
3364.08	0.266898
3380.01	0.275022
3395.97	0.282703
3411.9	0.289867
3427.79	0.296475
3443.73	0.302527
3459.82	0.308007
3475.91	0.312827
3492	0.316953
3508.01	0.320341
3523.96	0.322983
3539.96	0.324876
3555.97	0.325998
3572	0.32633
3587.96	0.325867
3603.97	0.3246
3620	0.322524
3636.05	0.319637
3652.03	0.315963
3668.04	0.311493
3684.01	0.306254
3699.93	0.30027
3715.82	0.293557
3731.67	0.286144
3747.47	0.278061
3763.23	0.269336
3778.95	0.259997
3794.67	0.250053
3810.37	0.239547
3826.1	0.22848
3841.87	0.216868
3857.66	0.204759
3873.48	0.192192
3889.32	0.179208
3905.17	0.165846
3921.02	0.152172
3936.88	0.13821
3952.77	0.124005
3968.65	0.109622
3984.52	0.0951143
4000.39	0.0805291
4016.25	0.0659204
4032.12	0.0513337
4047.99	0.0368156
4063.92	0.0223646
4079.9	0.00806095
4095.85	-0.00599014
4111.81	-0.0197507
4127.76	-0.0331705
4143.72	-0.0461987
4159.68	-0.0587905
4175.6	-0.0708574
4191.55	-0.08241
4207.47	-0.0933599
4223.43	-0.103713
4239.47	-0.11345
4255.58	-0.12252
4271.7	-0.130847
4287.78	-0.138385
4303.84	-0.145119
4319.94	-0.151053
4336.05	-0.156157
4352.17	-0.160424
4368.29	-0.163842
4384.43	-0.166414
4400.56	-0.168141
4416.69	-0.169035
4432.84	-0.169112
4448.98	-0.168392
4465.13	-0.166903
4481.29	-0.164672
4497.45	-0.161735
4513.61	-0.158134
4529.77	-0.153913
4545.94	-0.149113
4562.12	-0.143788
4578.29	-0.137994
4594.46	-0.131786
4610.62	-0.125222
4626.78	-0.118359
4642.96	-0.111246
4659.13	-0.10395
4675.31	-0.09653
4691.47	-0.0890446
4707.62	-0.0815485
4723.77	-0.0740941
4739.91	-0.0667307
4756.04	-0.0595041
4772.16	-0.0524563
4788.27	-0.045625
4804.38	-0.0390431
4820.47	-0.0327381
4836.55	-0.0267318
4852.62	-0.0210396
4868.67	-0.0156703
4884.71	-0.0106269
4900.74	-0.00590548
4916.75	-0.00149252
4932.75	0.00262963
4948.7	0.00647791
4964.6	0.0100848
4980.51	0.0135071
4996.43	0.0167877
5012.29	0.019966
5028.16	0.0231182
5044.1	0.0263205
5060.03	0.0296329
5075.96	0.0331359
5091.88	0.0369171
5107.75	0.0410542
5123.63	0.0456614
5139.58	0.0508592
5155.57	0.0567574
5171.56	0.0634541
5187.57	0.071071
5203.59	0.0797312
5219.63	0.0895603
5235.69	0.100686
5251.77	0.113235
5267.87	0.127337
5283.99	0.143117
5300.13	0.160698
5316.29	0.1802
5332.5	0.201771
5348.74	0.225511
5365.01	0.251516
5381.3	0.279876
5397.62	0.310668
5413.95	0.343957
5430.31	0.379793
5446.68	0.418209
5463.05	0.45918
5479.42	0.502684
5495.75	0.54861
5512.06	0.596926
5528.3	0.647397
5544.47	0.699952
5560.6	0.754482
5576.68	0.810848
5592.8	0.869224
5608.92	0.929328
5625.02	0.990815
5641	1.05315
5656.96	1.11644
5672.82	1.18012
5688.6	1.24401
5704.33	1.30803
5720.12	1.37225
5735.92	1.43628
5751.74	1.49977
5767.52	1.56228
5783.3	1.62359
5799.08	1.68342
5814.86	1.74148
5830.63	1.79738
5846.33	1.85071
5862.06	1.90149
5877.82	1.94942
5893.61	1.99421
5909.44	2.03565
5925.33	2.07346
5941.27	2.1074
5957.29	2.13725
5973.36	2.16276
5989.47	2.18369
6005.64	2.1999
6021.84	2.21123
6038.1	2.21757
6054.39	2.21886
6070.73	2.21504
6087.1	2.20612
6103.5	2.19213
6119.92	2.17318
6136.35	2.14938
6152.79	2.12092
6169.23	2.08799
6185.66	2.05084
6202.1	2.00973
6218.5	1.96505
6234.88	1.9171
6251.22	1.86624
6267.47	1.81305
6283.64	1.7579
6299.71	1.70118
6315.78	1.643
6331.69	1.58428
6347.46	1.52534
6363.12	1.46643
6378.69	1.40788
6394.16	1.34999
6409.53	1.2931
6424.79	1.23754
6439.95	1.18354
6455.02	1.1313
6470.02	1.081
6484.96	1.03281
6499.91	0.986715
6514.91	0.942822
6530.04	0.901117
6545.28	0.861901
6560.59	0.825508
6575.96	0.792109
6591.41	0.761863
6606.93	0.734914
6622.52	0.711392
6638.18	0.691403
6653.93	0.67502
6669.76	0.662317
6685.67	0.653339
6701.68	0.648097
6717.76	0.646598
6733.91	0.648804
6750.11	0.654646
6766.38	0.664029
6782.71	0.676836
6799.1	0.692931
6815.55	0.712151
6832.06	0.734316
6848.63	0.759225
6865.26	0.786659
6881.95	0.816383
6898.7	0.848149
6915.5	0.881693
6932.36	0.916739
6949.26	0.953008
6966.19	0.990181
6983.12	1.02789
7000.03	1.06584
7016.94	1.10378
7033.84	1.14143
7050.74	1.17856
7067.63	1.21492
7084.51	1.2503
7101.38	1.28449
7118.24	1.3173
7134.96	1.34835
7151.52	1.37749
7167.91	1.40464
7184.13	1.42975
7200.05	1.45264
7215.73	1.4734
7231.19	1.49213
7246.43	1.50888
7261.39	1.52367
7276.09	1.5366
7290.52	1.54778
7304.7	1.55733
7318.67	1.5654
7332.5	1.5721
7346.22	1.57753
7359.93	1.58182
7373.72	1.58503
7387.69	1.58723
7401.75	1.58844
7415.91	1.58873
7430.16	1.58816
7444.51	1.5868
7458.95	1.58472
7473.52	1.58202
7488.2	1.57875
7503.01	1.57502
7517.94	1.57091
7532.98	1.56652
7548.1	1.56193
7563.32	1.55724
7578.63	1.55254
7594.03	1.5479
7609.52	1.54341
7625.09	1.53912
7640.74	1.53511
7656.48	1.53142
7672.3	1.52809
7688.19	1.52514
7704.17	1.5226
7720.21	1.52046
7736.33	1.51872
7752.52	1.51734
7768.76	1.51629
7785.07	1.51551
7801.42	1.51494
7817.83	1.5145
7834.3	1.5141
7850.82	1.51364
7867.39	1.513
7884.02	1.51207
7900.7	1.51073
7917.45	1.50885
7934.25	1.50629
7951.11	1.50293
7968.02	1.49864
7984.97	1.49329
8001.94	1.48677
8018.93	1.47897
8035.95	1.46981
8052.99	1.45919
8070.06	1.44704
8087.16	1.43331
8104.28	1.41795
8121.43	1.40094
8138.61	1.38228
8155.82	1.36198
8173.06	1.34008
8190.33	1.31663
8207.62	1.29171
8224.95	1.2654
8242.3	1.23784
8259.68	1.20913
8277.08	1.17945
8294.5	1.14897
8311.94	1.11785
8329.39	1.08631
8346.86	1.05453
8364.33	1.02275
8381.82	0.991159
8399.3	0.959993
8416.79	0.929467
8434.22	0.899894
8451.58	0.871475
8468.86	0.844392
8486.07	0.818818
8503.08	0.795059
8519.79	0.773334
8535.92	0.753994
8551.18	0.737262
8565.33	0.723175
8577.74	0.711984
8589.58	0.702344
8601.4	0.693765
8613.05	0.686325
8624.76	0.679876
8636.69	0.674375
8648.84	0.669878
8661.16	0.666451
8673.7	0.664122
8686.51	0.66293
8699.49	0.662918
8712.62	0.664098
8725.97	0.666481
8739.56	0.670081
8753.39	0.674894
8767.5	0.680932
8781.81	0.688124
8796.31	0.696424
8805.5	0.702155
8820.36	0.712132
8835.38	0.722979
8850.57	0.734608
8864.78	0.74596
8876.63	0.75567
8886.8	0.764139
8902.49	0.777344
8918.26	0.79064
8934.13	0.803864
8950.07	0.816836
8966.09	0.829381
8982.17	0.841323
8998.31	0.852497
9014.47	0.86273
9030.69	0.871883
9046.95	0.879819
9063.25	0.886408
9077.43	0.890938
9077.61	0.890986
9077.75	0.891024
9077.89	0.891063
9078.02	0.891101
9078.16	0.891138
9078.3	0.891176
9078.44	0.891214
9078.58	0.891252
9078.72	0.89129
9078.86	0.891328
9079	0.891366
9079.14	0.891403
9079.28	0.891441
9079.42	0.891478
9079.56	0.891516
9079.7	0.891553
9079.84	0.89159
9079.98	0.891627
9080.12	0.891664
9080.26	0.891701
9080.41	0.891738
9080.55	0.891774
9080.69	0.891811
9080.83	0.891847
9080.97	0.891883
9081.11	0.89192
9081.25	0.891956
9081.39	0.891992
9081.53	0.892028
9081.67	0.892063
9081.82	0.892099
9081.96	0.892135
9082.1	0.89217
9082.24	0.892205
9082.38	0.892241
9082.52	0.892276
9082.66	0.892311
9082.81	0.892346
9082.95	0.89238
9083.09	0.892415
9083.23	0.89245
9083.37	0.892484
9083.51	0.892518
9083.65	0.892553
9083.8	0.892587
9083.94	0.892621
9084.08	0.892655
9084.22	0.892688
9084.36	0.892722
9084.5	0.892756
9084.65	0.892789
9084.79	0.892822
9084.93	0.892855
9085.07	0.892888
9085.21	0.892921
9085.36	0.892954
9085.5	0.892987
9085.64	0.89302
9085.78	0.893052
9085.92	0.893084
9086.06	0.893117
9086.21	0.893149
9086.35	0.893181
9086.49	0.893213
9086.63	0.893244
9086.77	0.893276
9086.92	0.893308
9087.06	0.893339
9087.2	0.89337
9087.34	0.893401
9087.48	0.893432
9087.63	0.893463
9087.77	0.893494
9087.91	0.893525
9088.05	0.893556
9088.19	0.893586
9088.34	0.893616
9088.48	0.893647
9088.62	0.893677
9088.76	0.893707
9088.9	0.893737
9089.05	0.893767
9089.19	0.893796
9089.33	0.893826
9089.48	0.893856
9089.62	0.893885
9089.76	0.893914
9089.91	0.893944
9090.05	0.893973
9090.19	0.894002
9090.34	0.894031
9090.48	0.894059
9090.62	0.894088
9090.77	0.894117
9090.91	0.894145
9091.06	0.894174
9091.2	0.894202
9091.35	0.89423
9091.49	0.894259
9091.64	0.894287
9091.78	0.894315
9091.93	0.894343
9092.08	0.894372
9092.23	0.8944
9092.37	0.894428
9092.52	0.894456
9092.68	0.894485
9092.83	0.894513
9092.98	0.894541
9093.13	0.89457
9093.29	0.894598
9093.44	0.894626
9093.6	0.894655
9093.77	0.894686
9093.94	0.894716
9094.11	0.894746
9094.29	0.894779
9094.47	0.89481
9094.65	0.894841
9094.83	0.894872
9095.01	0.894904
9095.2	0.894936
9095.39	0.89497
9095.59	0.895002
9095.78	0.895035
9095.93	0.895061
9096.12	0.895092
9096.31	0.895122
9096.51	0.895156
9096.74	0.895193
9097.02	0.895238
9097.27	0.895278
9097.47	0.895309
9097.65	0.895339
9097.81	0.895363
9098	0.895393
9098.19	0.895422
9098.38	0.89545
9098.53	0.895474
9098.73	0.895504
9098.93	0.895532
9099.15	0.895566
9099.32	0.89559
9099.51	0.895618
9099.68	0.895642
9099.84	0.895666
9100.01	0.895689
9100.17	0.895712
9100.33	0.895735
9100.5	0.895758
9100.66	0.89578
9100.83	0.895803
9100.99	0.895825
9101.16	0.895848
9101.32	0.89587
9101.52	0.895896
9101.68	0.895917
9101.85	0.89594
9102.02	0.895962
9102.19	0.895983
9102.36	0.896005
9102.52	0.896026
9102.69	0.896047
9102.85	0.896067
9103.02	0.896087
9103.19	0.896108
9103.36	0.896129
9103.58	0.896155
9103.79	0.89618
9104.04	0.89621
9104.33	0.896243
9104.61	0.896275
9104.91	0.896308
9105.18	0.896339
9105.44	0.896367
9105.71	0.896395
9105.9	0.896415
9106.11	0.896437
9106.29	0.896456
9106.47	0.896475
9106.66	0.896493
9106.87	0.896514
9107.06	0.896532
9107.24	0.89655
9107.42	0.896568
9107.6	0.896585
9107.78	0.896602
9107.95	0.896618
9108.13	0.896634
9108.32	0.89665
9108.49	0.896666
9108.69	0.896683
9108.9	0.896701
9109.12	0.89672
9109.33	0.896738
9109.69	0.896768
9110	0.896792
9110.29	0.896814
9110.51	0.896831
9110.72	0.896847
9110.96	0.896865
9111.2	0.896882
9111.4	0.896896
9111.64	0.896913
9111.84	0.896926
9112.04	0.89694
9112.24	0.896953
9112.43	0.896965
9112.62	0.896977
9112.82	0.896989
9113.01	0.897001
9113.19	0.897012
9113.38	0.897022
9113.57	0.897033
9113.75	0.897043
9113.94	0.897053
9114.13	0.897063
9114.36	0.897076
9114.64	0.897089
9114.94	0.897104
9115.29	0.89712
9115.65	0.897136
9115.98	0.89715
9116.33	0.897164
9116.63	0.897175
9116.92	0.897185
9117.2	0.897195
9117.48	0.897203
9117.75	0.897212
9118.03	0.89722
9118.27	0.897226
9118.53	0.897233
9118.78	0.897238
9119	0.897243
9119.26	0.897249
9119.47	0.897253
9119.68	0.897256
9119.9	0.89726
9120.11	0.897263
9120.3	0.897266
9120.48	0.897268
9120.67	0.89727
9120.88	0.897272
9121.12	0.897274
9121.38	0.897276
9121.65	0.897277
9121.91	0.897278
9122.18	0.897278
9122.46	0.897278
9122.7	0.897278
9122.93	0.897277
9123.16	0.897276
9123.4	0.897274
9123.6	0.897273
9123.84	0.897271
9124.06	0.897268
9124.28	0.897266
9124.5	0.897263
9124.72	0.897259
9124.99	0.897255
9125.3	0.897249
9125.59	0.897243
9125.84	0.897238
9126.13	0.89723
9126.39	0.897224
9126.63	0.897217
9126.88	0.89721
9127.12	0.897203
9127.36	0.897195
9127.59	0.897187
9127.82	0.897179
9128.06	0.897171
9128.34	0.89716
9128.87	0.897138
9129.42	0.897114
9129.74	0.897098
9130.08	0.897081
9130.4	0.897065
9130.74	0.897046
9131.01	0.897031
9131.33	0.897013
9131.63	0.896995
9131.89	0.896979
9132.19	0.89696
9132.44	0.896943
9132.75	0.896922
9133.09	0.896899
9133.38	0.896878
9133.72	0.896853
9134.05	0.896828
9134.33	0.896807
9134.66	0.896781
9134.98	0.896754
9135.75	0.896689
9136.36	0.896634
9136.82	0.896591
9137.3	0.896544
9137.71	0.896503
9138.07	0.896466
9138.45	0.896427
9138.79	0.896391
9139.14	0.896352
9139.5	0.896313
9139.85	0.896273
9140.2	0.896233
9140.55	0.896191
9140.9	0.896148
9141.25	0.896105
9141.58	0.896064
9141.91	0.896022
9142.25	0.895978
9142.68	0.895921
9143.1	0.895865
9143.44	0.895817
9143.9	0.895754
9144.32	0.895693
9144.69	0.89564
9145.17	0.895567
9145.51	0.895516
9145.85	0.895464
9146.23	0.895406
9146.61	0.895344
9147.04	0.895276
9147.38	0.89522
9147.73	0.895163
9148.22	0.895079
9148.69	0.894999
9149.12	0.894924
9149.56	0.894845
9150.06	0.894754
9150.52	0.894671
9151.04	0.894572
9151.57	0.894472
9152.13	0.894363
9152.62	0.894265
9153.05	0.894179
9153.51	0.894085
9153.99	0.893987
9154.53	0.893873
9155.05	0.893762
9155.58	0.893647
9156.11	0.893528
9156.65	0.893408
9157.17	0.89329
9157.38	0.893241
9157.62	0.893185
9157.82	0.893138
9158.03	0.89309
9158.25	0.893038
9158.47	0.892985
9158.7	0.892931
9158.99	0.892861
9159.26	0.892794
9159.6	0.892713
9160.28	0.892543
9170.07	0.889773
9180.01	0.88631
9190.01	0.88217
9200.06	0.877351
9210.03	0.871923
9220.09	0.865812
9230.1	0.859104
9240.07	0.85182
9250.04	0.843958
9260	0.83553
9270.01	-nan
9280.02	-nan
9290.02	-nan
9300.04	-nan
9310.08	-nan
9320.1	-nan
9330.06	-nan
9340.18	-nan
9350.18	-nan
9360.15	-nan
9370.14	-nan
9380.05	-nan
9390.03	-nan
9400.28	-nan
9410.35	-nan
9420.08	-nan
9430.09	-nan
9440.35	-nan
9450.35	-nan
9460.42	-nan
9470.46	-nan
9480.42	-nan
9490.21	-nan
9500.34	-nan
9510.25	-nan
9520.52	-nan
9530.52	-nan
9540.23	-nan
9550.28	-nan
9560	-nan
9570.08	-nan
9580.57	-nan
9590.67	-nan
9600.29	-nan
9610.19	-nan
9620.42	-nan
9630.08	-nan
9640.03	-nan
9650.29	-nan
9660.87	-nan
9670.76	-nan
9680.91	-nan
9690.27	-nan
9700.93	-nan
9710.76	-nan
9720.82	-nan
9731.1	-nan
9740.44	-nan
9751.04	-nan
9760.74	-nan
9770.67	-nan
9780.8	-nan
9791.13	-nan
9800.32	-nan
9811.02	-nan
9820.54	-nan
9830.22	-nan
9840.06	-nan
9850.06	-nan
9860.23	-nan
9870.57	-nan
9881.07	-nan
9890.22	-nan
9901.06	-nan
9910.5	-nan
9920.09	-nan
9931.45	-nan
9941.35	-nan
9951.41	-nan
9961.62	-nan
9970.25	-nan
9980.75	-nan
9991.4	-nan
10000.4	-nan
10011.4	-nan
10020.7	-nan
10030.1	-nan
10041.5	-nan
10051.2	-nan
10061.1	-nan
10071.1	-nan
10081.2	-nan
10091.5	-nan
10102	-nan
10110.4	-nan
10121.1	-nan
10132	-nan
10140.8	-nan
10152	-nan
10161	-nan
10170.1	-nan
10181.7	-nan
10191.1	-nan
10200.6	-nan
10210.2	-nan
10222.3	-nan
10232.1	-nan
10242.1	-nan
10252.1	-nan
10262.3	-nan
10272.6	-nan
10280.4	-nan
10290.9	-nan
10301.5	-nan
10312.2	-nan
10320.4	-nan
10331.3	-nan
10342.4	-nan
10350.8	-nan
10362.1	-nan
10370.7	-nan
10382.3	-nan
10391	-nan
10402.8	-nan
10411.7	-nan
10420.7	-nan
10432.9	-nan
10442.1	-nan
10451.3	-nan
10460.7	-nan
10470.1	-nan
10482.8	-nan
10492.5	-nan
10502.2	-nan
10512	-nan
10521.9	-nan
10531.2	-nan
10541.3	-nan
10551.4	-nan
10561.6	-nan
10571.9	-nan
10582.4	-nan
10592.9	-nan
10603.4	-nan
10610.6	-nan
10621.3	-nan
10632.1	-nan
10643.1	-nan
10650.4	-nan
10661.5	-nan
10672.7	-nan
10680.2	-nan
10691.6	-nan
10703	-nan
10710.7	-nan
10722.3	-nan
10730.1	-nan
10741.9	-nan
10753.7	-nan
10761.7	-nan
10773.8	-nan
10780	-nan
10790.7	-nan
10800.8	-nan
10810.7	-nan
10820.7	-nan
10832.4	-nan
10840.3	-nan
10852.2	-nan
10862.1	-nan
10872.8	-nan
10880.4	-nan
10892.6	-nan
10900.9	-nan
10913.9	-nan
10922.8	-nan
10931.8	-nan
10940.7	-nan
10954.4	-nan
10963.5	-nan
10972.8	-nan
10982.2	-nan
10991.6	-nan
11001.2	-nan
11011	-nan
11020	-nan
11031	-nan
11040.5	-nan
11050.8	-nan
11061.2	-nan
11071	-nan
11082.2	-nan
11091.5	-nan
11101.3	-nan
11111.3	-nan
11121.7	-nan
11132.5	-nan
11140	-nan
11150	-nan
11160	-nan
11170	-nan
11180.1	-nan
11190.2	-nan
11200.1	-nan
11210.3	-nan
11220	-nan
11230.4	-nan
11240.1	-nan
11250.1	-nan
11260.1	-nan
11270.3	-nan
11280.2	-nan
11290.2	-nan
11300.2	-nan
11310.4	-nan
11320.2	-nan
11330	-nan
11340.4	-nan
11350.1	-nan
11360.3	-nan
11370.3	-nan
11380.1	-nan
11390.3	-nan
11400.2	-nan
11410.5	-nan
11420.4	-nan
11430.6	-nan
11440.5	-nan
11450.6	-nan
11460.2	-nan
11470.1	-nan
11480.2	-nan
11490.7	-nan
11500.5	-nan
11510.6	-nan
11520	-nan
11530	-nan
11540.1	-nan
11550	-nan
11560.2	-nan
11570.2	-nan
11580.3	-nan
11590.1	-nan
11600.2	-nan
11610.4	-nan
11620.1	-nan
11630.2	-nan
11640.2	-nan
11650	-nan
11660.1	-nan
11670.4	-nan
11680.7	-nan
11690.1	-nan
11700.8	-nan
11710.3	-nan
11720.2	-nan
11730.7	-nan
11740.6	-nan
11751	-nan
11760.7	-nan
11770.9	-nan
11780.4	-nan
11790.3	-nan
11800.6	-nan
11811.3	-nan
11821.1	-nan
11831.3	-nan
11840.3	-nan
11851.2	-nan
11860.9	-nan
11870.9	-nan
11881.3	-nan
11890.2	-nan
11901.1	-nan
11910.5	-nan
11920.2	-nan
11930.1	-nan
11940.3	-nan
11950.8	-nan
11961.5	-nan
11970.3	-nan
11981.6	-nan
11990.9	-nan
12000.3	-nan
12012.2	-nan
12021.8	-nan
12031.6	-nan
12041.4	-nan
12051.4	-nan
12061.5	-nan
12071.7	-nan
12082	-nan
12092.4	-nan
12100.3	-nan
12110.9	-nan
12121.5	-nan
12132.2	-nan
12140.3	-nan
12151.2	-nan
12162.2	-nan
12170.5	-nan
12181.6	-nan
12192.8	-nan
12201.3	-nan
12212.6	-nan
12221.2	-nan
12232.8	-nan
12241.5	-nan
12250.2	-nan
12262	-nan
12270.9	-nan
12282.8	-nan
12291.9	-nan
12300.9	-nan
12310.1	-nan
12322.3	-nan
12331.5	-nan
12340.8	-nan
12350.1	-nan
12362.7	-nan
12372.1	-nan
12381.6	-nan
12391.2	-nan
12400.2	-nan
12413.1	-nan
12422.8	-nan
12432.6	-nan
12442.5	-nan
12452.4	-nan
12462.3	-nan
12472.4	-nan
12482.5	-nan
12492.6	-nan
12502.9	-nan
12513.1	-nan
12520	-nan
12530.3	-nan
12540.4	-nan
12550.3	-nan
12560.2	-nan
12573.1	-nan
12582.7	-nan
12592.2	-nan
12601.5	-nan
12610.8	-nan
12622.9	-nan
12632	-nan
12640.9	-nan
12652.7	-nan
12661.4	-nan
12670	-nan
12681.4	-nan
12692.6	-nan
12701	-nan
12712	-nan
12720.2	-nan
12731	-nan
12741.7	-nan
12752.2	-nan
12760.1	-nan
12770.5	-nan
12780.7	-nan
12790.9	-nan
12801	-nan
12811	-nan
12820.9	-nan
12830.7	-nan
12840.4	-nan
12850	-nan
12862	-nan
12871.4	-nan
12880.8	-nan
12890.1	-nan
12900	-nan
12910.1	-nan
12920.3	-nan
12930.1	-nan
12940	-nan
12950.3	-nan
12960.2	-nan
12970.2	-nan
12980.2	-nan
12990.8	-nan
13001.1	-nan
13011.3	-nan
13021.4	-nan
13031.1	-nan
13040	-nan
13051.8	-nan
13060.3	-nan
13071.8	-nan
13081.7	-nan
13092.2	-nan
13100.7	-nan
13112.6	-nan
13122.1	-nan
13132.1	-nan
13142.6	-nan
13153.6	-nan
13161.3	-nan
13171.1	-nan
13183.7	-nan
13192.4	-nan
13201.4	-nan
13210.3	-nan
13223.7	-nan
13232.9	-nan
13242.5	-nan
13250.8	-nan
13262	-nan
13272.4	-nan
13280.4	-nan
13290.8	-nan
13301	-nan
13315.4	-nan
13322.1	-nan
13332.4	-nan
13344.9	-nan
13351.7	-nan
13365.3	-nan
13375.3	-nan
13381.8	-nan
13395.9	-nan
13403	-nan
13410.1	-nan
13426.5	-nan
13433.7	-nan
13444.2	-nan
13450.1	-nan
13460.1	-nan
13470.4	-nan
13480	-nan
13490.1	-nan
13500.1	-nan
13510	-nan
13520.2	-nan
13530.7	-nan
13540.7	-nan
13551.6	-nan
13561.1	-nan
13571.7	-nan
13580.3	-nan
13590.1	-nan
13600.3	-nan
13611	-nan
13620.3	-nan
13631.7	-nan
13640.9	-nan
13651	-nan
13661.2	-nan
13672	-nan
13680.9	-nan
13692.9	-nan
13702.3	-nan
13710.1	-nan
13720.1	-nan
13730.1	-nan
13740.1	-nan
13750.5	-nan
13761.3	-nan
13771.3	-nan
13781.1	-nan
13790.8	-nan
13800	-nan
13811.1	-nan
13824.8	-nan
13834.6	-nan
13844.1	-nan
13854.9	-nan
13860.4	-nan
13871.2	-nan
13880.7	-nan
13891.5	-nan
13903.5	-nan
13914.6	-nan
13921	-nan
13936.1	-nan
13940.7	-nan
13950.2	-nan
13961	-nan
13970.7	-nan
13981.5	-nan
13993.3	-nan
14004.9	-nan
14010.5	-nan
14023.4	-nan
14030.3	-nan
14040.5	-nan
14050	-nan
14060.8	-nan
14070.5	-nan
14080.7	-nan
14090	-nan
14100.5	-nan
14110.5	-nan
14121.7	-nan
14130	-nan
14141.4	-nan
14151.4	-nan
14162.1	-nan
14170.7	-nan
14183.1	-nan
14193.1	-nan
14203.5	-nan
14210.8	-nan
14222.1	-nan
14230	-nan
14242	-nan
14250.6	-nan
14262	-nan
14270.2	-nan
14283.3	-nan
14290.2	-nan
14303.4	-nan
14312.3	-nan
14320	-nan
14330	-nan
14340	-nan
14350	-nan
14360	-nan
14370.6	-nan
14380.2	-nan
14390.5	-nan
14400.8	-nan
14410.2	-nan
14420.5	-nan
14430.6	-nan
14440.1	-nan
14450.1	-nan
14460.3	-nan
14470.5	-nan
14480.9	-nan
14490	-nan
14500.6	-nan
14511.2	-nan
14520.4	-nan
14530.6	-nan
14540.9	-nan
14550.1	-nan
14560.8	-nan
14570.4	-nan
14580.2	-nan
14590.3	-nan
14600.6	-nan
14611.3	-nan
14620.7	-nan
14630.4	-nan
14640.4	-nan
14650.7	-nan
14661.3	-nan
14670.5	-nan
14681.8	-nan
14691.5	-nan
14701.6	-nan
14712	-nan
14720.5	-nan
14731.5	-nan
14740.5	-nan
14752.1	-nan
14761.6	-nan
14771.3	-nan
14781.3	-nan
14791.5	-nan
14802	-nan
14812.6	-nan
14820.8	-nan
14831.9	-nan
14840.3	-nan
14851.9	-nan
14860.6	-nan
14872.6	-nan
14881.7	-nan
14891	-nan
14900.4	-nan
14913.2	-nan
14922.9	-nan
14932.8	-nan
14942.9	-nan
14953.2	-nan
14960.1	-nan
14970.4	-nan
14981.1	-nan
14992	-nan
15003	-nan
15010.5	-nan
15021.9	-nan
15033.4	-nan
15041.2	-nan
15053	-nan
15060.9	-nan
15072.9	-nan
15081	-nan
15093.3	-nan
15101.5	-nan
15114	-nan
15122.4	-nan
15130.9	-nan
15143.7	-nan
15152.3	-nan
15161	-nan
15174.1	-nan
15183	-nan
15191.9	-nan
15200.9	-nan
15210.1	-nan
15223.9	-nan
15233.3	-nan
15242.7	-nan
15252.2	-nan
15261.8	-nan
15271.6	-nan
15281.6	-nan
15291.8	-nan
15302.1	-nan
15312.5	-nan
15323	-nan
15333.7	-nan
15344.5	-nan
15355.5	-nan
15361	-nan
15371.8	-nan
15383.3	-nan
15393.5	-nan
15405.4	-nan
15411.3	-nan
15420.5	-nan
15430.8	-nan
15440.1	-nan
15455	-nan
15461.4	-nan
15470.8	-nan
15481.8	-nan
15491.1	-nan
15502.3	-nan
15513.9	-nan
15526.2	-nan
15533	-nan
15540.3	-nan
15555	-nan
15562.4	-nan
15577.3	-nan
15584.7	-nan
15592	-nan
15606.7	-nan
15614	-nan
15621.3	-nan
15635.8	-nan
15643.2	-nan
15653.2	-nan
15664.2	-nan
15671.8	-nan
15681.6	-nan
15697.4	-nan
15706.1	-nan
15714.8	-nan
15723.6	-nan
15731.5	-nan
15740.3	-nan
15758	-nan
15766.8	-nan
15775.7	-nan
15784.6	-nan
15794.4	-nan
15800.9	-nan
15816.3	-nan
15825.3	-nan
15836.1	-nan
15845.3	-nan
15854.5	-nan
15863.8	-nan
15873.2	-nan
15882.5	-nan
15892	-nan
15901.5	-nan
15911	-nan
15920	-nan
15939.3	-nan
15949	-nan
15958.8	-nan
15968.6	-nan
15978.5	-nan
15988.1	-nan
15990.8	-nan
16000.8	-nan
16010.8	-nan
16020.8	-nan
16030.9	-nan
16046.9	-nan
16057.1	-nan
16064.3	-nan
16073.5	-nan
16080.4	-nan
16090.5	-nan
16100.5	-nan
16110.6	-nan
16120.1	-nan
16130.2	-nan
16140.2	-nan
16150.3	-nan
16168.2	-nan
16179.9	-nan
16191.6	-nan
16203.4	-nan
16204.2	-nan
16210.4	-nan
16220	-nan
16230.2	-nan
16240.3	-nan
16250.4	-nan
16260	-nan
16270.1	-nan
16280.5	-nan
16290.4	-nan
16305.7	-nan
16313.8	-nan
16323.5	-nan
16331.1	-nan
16349.5	-nan
16360.6	-nan
16363.4	-nan
16374.2	-nan
16384.9	-nan
16397	-nan
16409.1	-nan
16421.1	-nan
16433.2	-nan
16445.3	-nan
16457.4	-nan
16469.5	-nan
16481.6	-nan
16493.6	-nan
16505.7	-nan
16517.8	-nan
16529.9	-nan
16542	-nan
16554.1	-nan
16554.1	-nan
16554.2	-nan
16554.2	-nan
16560	-nan
16576	-nan
16588.1	-nan
16600.2	-nan
16612.2	-nan
16616.7	-nan
16623.9	-nan
16630.7	-nan
16648.1	-nan
16658.2	-nan
16669.9	-nan
16682	-nan
16694.1	-nan
16706.1	-nan
16718.2	-nan
16730.3	-nan
16742.4	-nan
16754.5	-nan
16766.6	-nan
16778.6	-nan
16778.7	-nan
16778.9	-nan
16780.1	-nan
16790.2	-nan
16800.6	-nan
16810.5	-nan
16820.5	-nan
16831.1	-nan
16841.2	-nan
16851.5	-nan
16860.4	-nan
16870.4	-nan
16881.2	-nan
16892.8	-nan
16902.3	-nan
16912.2	-nan
16922.8	-nan
16930.1	-nan
16941.5	-nan
16950	-nan
16964.2	-nan
16973.3	-nan
16982.6	-nan
16992.6	-nan
17002.8	-nan
17013.3	-nan
17024.5	-nan
17030.2	-nan
17041.7	-nan
17053.8	-nan
17060.2	-nan
17073.1	-nan
17086.3	-nan
17093	-nan
17106.5	-nan
17113.4	-nan
17120.4	-nan
17134.9	-nan
17142.2	-nan
17157.1	-nan
17164.8	-nan
17174.9	-nan
17183	-nan
17191.3	-nan
17208.5	-nan
17217.3	-nan
17226.4	-nan
17235.8	-nan
17245.4	-nan
17255.3	-nan
17265.3	-nan
17275.6	-nan
17286.1	-nan
17296.6	-nan
17307.4	-nan
17318.4	-nan
17329.7	-nan
17341.2	-nan
17352.9	-nan
17364.9	-nan
17377	-nan
17389	-nan
17401.1	-nan
17413.2	-nan
17425.3	-nan
17437.3	-nan
17437.4	-nan
17437.4	-nan
17440	-nan
17450	-nan
17460.1	-nan
17470.2	-nan
17480.1	-nan
17490.3	-nan
17500.3	-nan
17510.3	-nan
17520	-nan
17530.5	-nan
17540.2	-nan
17550.2	-nan
17560.1	-nan
17570.1	-nan
17580.2	-nan
17590.7	-nan
17600.5	-nan
17610	-nan
17620	-nan
17630	-nan
17640	-nan
17650	-nan
17660.2	-nan
17670.3	-nan
17680	-nan
17690.9	-nan
17701	-nan
17711.2	-nan
17720.3	-nan
17730.6	-nan
17740.5	-nan
17751.3	-nan
17760.9	-nan
17770.9	-nan
17780.2	-nan
17790	-nan
17800.7	-nan
17810.2	-nan
17820.1	-nan
17830	-nan
17840.8	-nan
17853.9	-nan
17864.4	-nan
17875.4	-nan
17881	-nan
17893.5	-nan
17905.5	-nan
17911.7	-nan
17924.2	-nan
17930.6	-nan
17944.1	-nan
17951.2	-nan
17965.6	-nan
17972.9	-nan
17980.3	-nan
17995.3	-nan
18002.9	-nan
18010.7	-nan
18026.6	-nan
18034.7	-nan
18042.9	-nan
18051.2	-nan
18068	-nan
18076.5	-nan
18085.1	-nan
18093.7	-nan
18102.5	-nan
18111.4	-nan
18120.6	-nan
18139.9	-nan
18150.2	-nan
18150.3	-nan
18160.7	-nan
18170.2	-nan
18181.8	-nan
18190.8	-nan
18200	-nan
18213.5	-nan
18223.4	-nan
18233.3	-nan
18240.1	-nan
18253.8	-nan
18263.2	-nan
18274.5	-nan
18286.6	-nan
18298.6	-nan
18310.7	-nan
18322.8	-nan
18334.9	-nan
18347	-nan
18359.1	-nan
18371.1	-nan
18383.2	-nan
18395.3	-nan
18407.4	-nan
18419.5	-nan
18431.6	-nan
18443.6	-nan
18455.7	-nan
18467.8	-nan
18468.3	-nan
18468.7	-nan
18469.1	-nan
18470.3	-nan
18480	-nan
18490.4	-nan
18500.6	-nan
18510.1	-nan
18521.9	-nan
18531.2	-nan
18541.5	-nan
18550.1	-nan
18560.5	-nan
18570.7	-nan
18580	-nan
18590.1	-nan
18600.2	-nan
18610	-nan
18620.6	-nan
18630.4	-nan
18640.4	-nan
18651.1	-nan
18661.1	-nan
18671	-nan
18680.5	-nan
18690.9	-nan
18700.5	-nan
18711	-nan
18720	-nan
18732.3	-nan
18740.3	-nan
18751.6	-nan
18760.6	-nan
18770.2	-nan
18780.4	-nan
18791.2	-nan
18802.7	-nan
18810.8	-nan
18823.4	-nan
18832	-nan
18840.7	-nan
18854	-nan
18863	-nan
18872.1	-nan
18881.5	-nan
18891.4	-nan
18902	-nan
18913.3	-nan
18924.6	-nan
18930.2	-nan
18941	-nan
18951.8	-nan
18962.7	-nan
18973.9	-nan
18985.4	-nan
18991.3	-nan
19003.5	-nan
19016.1	-nan
19022.5	-nan
19035.7	-nan
19042.5	-nan
19056.3	-nan
19063.4	-nan
19070.6	-nan
19085.4	-nan
19093.1	-nan
19101.1	-nan
19117.6	-nan
19126.2	-nan
19135.1	-nan
19144.2	-nan
19153.6	-nan
19163.3	-nan
19173.2	-nan
19183.5	-nan
19194.2	-nan
19205.2	-nan
19216.6	-nan
19228.3	-nan
19236.6	-nan
19248.7	-nan
19260.8	-nan
19272.9	-nan
19284.9	-nan
19297	-nan
19309.1	-nan
19321.2	-nan
19333.3	-nan
19345.4	-nan
19357.4	-nan
19369.5	-nan
19381.6	-nan
19393.7	-nan
19405.8	-nan
19417.8	-nan
19429.9	-nan
19442	-nan
19454.1	-nan
19466.2	-nan
19478.3	-nan
19490.3	-nan
19502.4	-nan
19514.5	-nan
19526.6	-nan
19538.7	-nan
19550.8	-nan
19562.8	-nan
19574.9	-nan
19587	-nan
19599.1	-nan
19611.2	-nan
19623.3	-nan
19635.3	-nan
19647.4	-nan
19659.5	-nan
19671.6	-nan
19683.7	-nan
19695.7	-nan
19707.8	-nan
19719.9	-nan
19732	-nan
19744.1	-nan
19756.2	-nan
19767.6	-nan
19779.7	-nan
19791.8	-nan
19803.8	-nan
19815.9	-nan
19828	-nan
19840.1	-nan
19852.2	-nan
19864.2	-nan
19876.3	-nan
19888.4	-nan
19900.5	-nan
19912.6	-nan
19924.7	-nan
19936.7	-nan
19948.8	-nan
19960.9	-nan
19973	-nan
19985.1	-nan
19997.2	-nan
