0	0
11.8196	0
23.6393	0
35.4589	0
47.2785	0
59.0981	0
70.9178	0
82.7374	0
94.557	0
106.377	0
118.196	0
130.016	0
141.836	0
153.655	0
165.475	0
177.294	0
189.114	0
200.934	0
212.753	0
224.573	0
236.393	0
248.212	0
260.032	0
271.851	0
283.671	0
295.491	0
307.31	0
319.13	0
330.95	0
342.769	0
354.589	0
366.408	0
378.228	0
390.048	0
401.867	0
413.687	0
425.507	0
437.326	0
449.146	0
460.966	0
472.785	0
484.605	0
496.424	0
508.244	0
520.064	0
531.883	0
543.703	0
555.523	0
567.342	0
579.162	0
590.981	0
602.801	0
614.621	0
626.44	0
638.26	0
650.08	0
661.899	0
673.719	0
685.538	0
697.358	0
709.178	0
720.997	0
732.817	0
744.637	0
756.456	0
768.276	0
780.095	0
791.915	0
803.735	0
815.554	0
827.374	0
839.194	0
851.013	0
862.833	0
874.652	0
886.472	0
898.292	0
910.111	0
921.931	0
933.751	0
945.57	0
957.39	0
969.21	0
981.029	0
992.849	0
1004.67	0
1016.49	0
1028.31	0
1040.13	0
1051.95	0
1063.77	0
1075.59	0
1087.41	0
1099.23	0
1111.05	0
1122.86	0
1134.68	0
1146.5	0
1158.32	0
1170.14	0
1181.96	0
1193.78	0
1205.6	0
1217.42	0
1229.24	0
1241.06	0
1252.88	0
1264.7	0
1276.52	0
1288.34	0
1300.16	0
1311.98	0
1323.8	0
1335.62	0
1347.44	0
1359.26	0
1371.08	0
1382.9	0
1394.72	0
1406.54	0
1418.36	0
1430.18	0
1441.99	0
1453.81	0
1465.63	0
1477.45	0
1489.27	0
1501.09	0
1512.91	0
1524.73	0
1536.55	0
1548.37	0
1560.19	0
1572.01	0
1583.83	0
1595.65	0
1607.47	0
1619.29	0
1631.11	0
1642.93	0
1654.75	0
1666.57	0
1678.39	0
1690.21	0
1702.03	0
1713.85	0
1725.67	0
1737.49	0
1749.3	0
1761.12	0
1772.94	0
1784.76	0
1796.58	0
1808.4	0
1820.22	0
1832.04	0
1843.86	0
1855.68	0
1867.5	9.09495e-13
1879.32	1.81899e-12
1891.14	1.81899e-12
1902.96	2.72848e-12
1914.78	3.63798e-12
1926.6	5.45697e-12
1938.42	7.27596e-12
1950.24	1.00044e-11
1962.06	1.36424e-11
1973.88	1.90994e-11
1985.7	2.63753e-11
1997.52	3.63798e-11
2009.34	4.91127e-11
2021.16	6.63931e-11
2032.98	8.91305e-11
2044.8	1.20053e-10
2056.62	1.60071e-10
2068.43	2.13731e-10
2080.25	2.82853e-10
2092.07	3.73802e-10
2103.89	4.92037e-10
2115.71	6.43922e-10
2127.53	8.40373e-10
2139.35	1.0923e-09
2151.17	1.41426e-09
2162.99	1.82445e-09
2174.81	2.34468e-09
2186.63	3.00224e-09
2198.45	3.8317e-09
2210.27	4.87307e-09
2222.09	6.17638e-09
2233.91	7.80165e-09
2245.73	9.82072e-09
2257.55	1.23227e-08
2269.37	1.54123e-08
2281.19	1.92149e-08
2293.01	2.38788e-08
2304.83	2.95822e-08
2316.65	3.65344e-08
2328.47	4.49836e-08
2340.29	5.52191e-08
2352.11	6.75836e-08
2363.93	8.24739e-08
2375.75	1.00355e-07
2387.56	1.21764e-07
2399.38	1.47324e-07
2411.2	1.77755e-07
2423.02	2.13884e-07
2434.84	2.56659e-07
2446.66	3.07168e-07
2458.48	3.66648e-07
2470.3	4.36507e-07
2482.12	5.18345e-07
2493.94	6.13968e-07
2505.76	7.25416e-07
2517.58	8.54981e-07
2529.4	1.00524e-06
2541.22	1.17908e-06
2553.04	1.37971e-06
2564.86	1.61071e-06
2576.68	1.87607e-06
2588.5	2.18021e-06
2600.32	2.52799e-06
2612.14	2.92481e-06
2623.96	3.3766e-06
2635.78	3.88986e-06
2647.6	4.47173e-06
2659.42	5.13003e-06
2671.24	5.87328e-06
2683.06	6.71079e-06
2694.88	7.65268e-06
2706.69	8.70995e-06
2718.51	9.89453e-06
2730.33	1.12194e-05
2742.15	1.26984e-05
2753.97	1.43469e-05
2765.79	1.61811e-05
2777.61	1.82187e-05
2789.43	2.04788e-05
2801.25	2.2982e-05
2813.07	2.57503e-05
2824.89	2.88078e-05
2836.71	3.21802e-05
2848.53	3.58956e-05
2860.35	3.99839e-05
2872.17	4.44779e-05
2883.99	4.94128e-05
2895.81	5.48269e-05
2907.63	6.07618e-05
2919.45	6.72628e-05
2931.27	7.4379e-05
2943.09	8.21644e-05
2954.91	9.06777e-05
2966.73	9.99834e-05
2978.55	0.000110152
2990.37	0.000121262
3002.18	0.000133399
3014	0.000146657
3025.82	0.00016114
3037.64	0.000176965
3049.46	0.00019426
3061.28	0.000213166
3073.1	0.000233841
3084.92	0.00025646
3096.74	0.000281216
3108.56	0.000308327
3120.38	0.000338031
3132.2	0.000370594
3144.02	0.000406311
3155.84	0.00044551
3167.66	0.000488554
3179.48	0.000535845
3191.3	0.000587827
3203.12	0.000644992
3214.94	0.000707882
3226.76	0.000777094
3238.57	0.000853289
3250.39	0.000937187
3262.21	0.00102958
3274.03	0.00113135
3285.85	0.00124343
3297.67	0.00136686
3309.49	0.00150278
3321.31	0.00165241
3333.13	0.00181709
3344.95	0.00199826
3356.77	0.00219748
3368.59	0.00241644
3380.41	0.00265694
3392.23	0.00292093
3404.05	0.0032105
3415.87	0.00352788
3427.69	0.00387543
3439.5	0.0042557
3451.32	0.00467137
3463.14	0.00512528
3474.96	0.00562044
3486.78	0.00616001
3498.6	0.00674732
3510.42	0.00738587
3522.24	0.0080793
3534.06	0.00883142
3545.88	0.00964617
3557.7	0.0105277
3569.52	0.0114802
3581.34	0.012508
3593.16	0.0136157
3604.97	0.0148078
3616.79	0.016089
3628.61	0.0174641
3640.43	0.0189379
3652.25	0.0205152
3664.07	0.022201
3675.89	0.0240001
3687.71	0.0259174
3699.53	0.0279576
3711.35	0.0301255
3723.17	0.0324257
3734.99	0.0348625
3746.8	0.0374404
3758.62	0.0401633
3770.44	0.0430351
3782.26	0.0460594
3794.08	0.0492394
3805.9	0.0525779
3817.72	0.0560776
3829.54	0.0597404
3841.36	0.0635681
3853.18	0.0675617
3865	0.0717218
3876.82	0.0760485
3888.63	0.0805412
3900.45	0.0851987
3912.27	0.0900193
3924.09	0.0950003
3935.91	0.100139
3947.73	0.10543
3959.55	0.11087
3971.37	0.116454
3983.19	0.122174
3995.01	0.128024
4006.83	0.133996
4018.65	0.140081
4030.46	0.146271
4042.28	0.152554
4054.1	0.15892
4065.92	0.165357
4077.74	0.171852
4089.56	0.178393
4101.38	0.184966
4113.2	0.191556
4125.02	0.198148
4136.84	0.204727
4148.66	0.211275
4160.48	0.217777
4172.3	0.224216
4184.11	0.230574
4195.93	0.236833
4207.75	0.242976
4219.57	0.248984
4231.39	0.254839
4243.21	0.260523
4255.03	0.266017
4266.85	0.271305
4278.67	0.276367
4290.49	0.281186
4302.31	0.285746
4314.13	0.290028
4325.95	0.294017
4337.77	0.297698
4349.59	0.301054
4361.41	0.304071
4373.22	0.306737
4385.04	0.309037
4396.86	0.310961
4408.68	0.312497
4420.5	0.313635
4432.32	0.314366
4444.14	0.314682
4455.96	0.314577
4467.78	0.314045
4479.6	0.313082
4491.42	0.311685
4503.24	0.309851
4515.06	0.307581
4526.88	0.304875
4538.7	0.301734
4550.52	0.298162
4562.34	0.294163
4574.16	0.289744
4585.98	0.28491
4597.8	0.279669
4609.62	0.274032
4621.44	0.268008
4633.26	0.261608
4645.07	0.254846
4656.89	0.247734
4668.71	0.240287
4680.53	0.23252
4692.35	0.224449
4704.17	0.216091
4715.99	0.207464
4727.81	0.198585
4739.63	0.189473
4751.45	0.180148
4763.27	0.170629
4775.09	0.160936
4786.91	0.151089
4798.73	0.14111
4810.55	0.131017
4822.37	0.120832
4834.19	0.110576
4846.01	0.100269
4857.83	0.089932
4869.65	0.0795843
4881.47	0.0692462
4893.29	0.0589372
4905.11	0.0486765
4916.93	0.0384828
4928.75	0.0283744
4940.56	0.0183687
4952.38	0.008483
4964.2	-0.0012665
4976.02	-0.010864
4987.84	-0.0202947
4999.66	-0.0295441
5011.48	-0.0385991
5023.3	-0.0474468
5035.12	-0.0560756
5046.94	-0.0644745
5058.76	-0.0726334
5070.58	-0.0805432
5082.4	-0.0881955
5094.22	-0.0955828
5106.04	-0.102699
5117.86	-0.109537
5129.68	-0.116094
5141.5	-0.122365
5153.32	-0.128346
5165.14	-0.134037
5176.96	-0.139434
5188.78	-0.144538
5200.6	-0.149349
5212.42	-0.153867
5224.23	-0.158094
5236.05	-0.162032
5247.87	-0.165684
5259.69	-0.169053
5271.51	-0.172144
5283.33	-0.174961
5295.15	-0.177509
5306.97	-0.179794
5318.79	-0.181822
5330.61	-0.183599
5342.43	-0.185132
5354.25	-0.186429
5366.07	-0.187496
5377.89	-0.188341
5389.71	-0.188973
5401.53	-0.189399
5413.35	-0.189628
5425.17	-0.189667
5436.99	-0.189526
5448.81	-0.189213
5460.63	-0.188736
5472.45	-0.188104
5484.27	-0.187326
5496.09	-0.18641
5507.91	-0.185364
5519.72	-0.184196
5531.54	-0.182915
5543.36	-0.181528
5555.18	-0.180044
5567	-0.178469
5578.82	-0.176812
5590.64	-0.175079
5602.46	-0.173278
5614.28	-0.171415
5626.1	-0.169496
5637.92	-0.167529
5649.74	-0.165517
5661.56	-0.163469
5673.38	-0.161388
5685.2	-0.159279
5697.02	-0.157149
5708.84	-0.155
5720.66	-0.152838
5732.48	-0.150667
5744.3	-0.148489
5756.12	-0.146309
5767.94	-0.14413
5779.76	-0.141955
5791.58	-0.139785
5803.4	-0.137625
5815.21	-0.135475
5827.03	-0.133339
5838.85	-0.131216
5850.67	-0.12911
5862.49	-0.127022
5874.31	-0.124951
5886.13	-0.122901
5897.95	-0.12087
5909.77	-0.11886
5921.59	-0.116872
5933.41	-0.114905
5945.23	-0.11296
5957.05	-0.111037
5968.87	-0.109136
5980.69	-0.107257
5992.51	-0.1054
6004.33	-0.103563
6016.15	-0.101748
6027.97	-0.0999532
6039.79	-0.0981786
6051.61	-0.0964238
6063.43	-0.094688
6075.25	-0.092971
6087.07	-0.091272
6098.89	-0.0895906
6110.71	-0.0879262
6122.52	-0.0862783
6134.34	-0.0846464
6146.16	-0.0830298
6157.98	-0.0814283
6169.8	-0.0798411
6181.62	-0.0782681
6193.44	-0.0767086
6205.26	-0.0751625
6217.08	-0.0736293
6228.9	-0.0721087
6240.72	-0.0706005
6252.54	-0.0691046
6264.36	-0.0676207
6276.18	-0.0661487
6288	-0.0646885
6299.82	-0.0632402
6311.64	-0.0618037
6323.46	-0.0603791
6335.28	-0.0589664
6347.1	-0.0575658
6358.92	-0.0561775
6370.74	-0.0548016
6382.56	-0.0534384
6394.38	-0.052088
6406.2	-0.0507509
6418.02	-0.0494273
6429.83	-0.0481175
6441.65	-0.0468218
6453.47	-0.0455406
6465.29	-0.0442742
6477.11	-0.043023
6488.93	-0.0417874
6500.75	-0.0405678
6512.57	-0.0393644
6524.39	-0.0381777
6536.21	-0.0370079
6548.03	-0.0358554
6559.85	-0.0347205
6571.67	-0.0336036
6583.49	-0.0325048
6595.31	-0.0314243
6607.13	-0.0303626
6618.95	-0.0293196
6630.77	-0.0282955
6642.59	-0.0272905
6654.41	-0.0263046
6666.23	-0.025338
6678.05	-0.0243905
6689.87	-0.0234621
6701.69	-0.0225528
6713.51	-0.0216624
6725.33	-0.0207909
6737.15	-0.0199378
6748.97	-0.0191031
6760.78	-0.0182864
6772.6	-0.0174874
6784.42	-0.0167056
6796.24	-0.0159408
6808.06	-0.0151923
6819.88	-0.0144598
6831.7	-0.0137426
6843.52	-0.0130402
6855.34	-0.012352
6867.16	-0.0116773
6878.98	-0.0110155
6890.8	-0.0103658
6902.62	-0.00972752
6914.44	-0.00909989
6926.26	-0.00848214
6938.08	-0.00787346
6949.9	-0.00727304
6961.72	-0.00668004
6973.54	-0.00609362
6985.36	-0.00551294
6997.18	-0.00493713
7009	-0.00436534
7020.82	-0.00379671
7032.64	-0.00323039
7044.46	-0.00266553
7056.28	-0.00210129
7068.1	-0.00153685
7079.92	-0.000971399
7091.73	-0.00040414
7103.55	0.000165695
7115.37	0.000738851
7127.19	0.00131605
7139.01	0.00189798
7150.83	0.00248531
7162.65	0.00307866
7174.47	0.00367862
7186.29	0.00428575
7198.11	0.00490055
7209.93	0.00552349
7221.75	0.00615501
7233.57	0.00679549
7245.39	0.00744525
7257.21	0.0081046
7269.03	0.00877376
7280.85	0.00945292
7292.67	0.0101422
7304.49	0.0108418
7316.31	0.0115516
7328.13	0.0122716
7339.95	0.0130018
7351.77	0.0137421
7363.59	0.0144923
7375.41	0.0152521
7387.23	0.0160213
7399.04	0.0167996
7410.86	0.0175866
7422.68	0.0183818
7434.5	0.0191848
7446.32	0.0199951
7458.14	0.0208121
7469.96	0.0216352
7481.78	0.0224637
7493.6	0.0232971
7505.42	0.0241345
7517.24	0.0249751
7529.06	0.0258183
7540.88	0.0266631
7552.7	0.0275087
7564.52	0.0283543
7576.34	0.0291988
7588.16	0.0300414
7599.98	0.0308811
7611.8	0.031717
7623.62	0.032548
7635.44	0.0333731
7647.26	0.0341914
7659.08	0.0350018
7670.9	0.0358033
7682.71	0.0365947
7694.53	0.0373752
7706.35	0.0381437
7718.17	0.0388991
7729.99	0.0396404
7741.81	0.0403665
7753.63	0.0410766
7765.45	0.0417695
7777.27	0.0424444
7789.09	0.0431002
7800.91	0.0437359
7812.73	0.0443508
7824.55	0.0449438
7836.37	0.045514
7848.19	0.0460608
7860.01	0.0465831
7871.83	0.0470802
7883.65	0.0475514
7895.47	0.0479958
7907.29	0.0484129
7919.11	0.0488019
7930.93	0.0491622
7942.75	0.0494932
7954.56	0.0497944
7966.38	0.0500652
7978.2	0.0503051
7990.02	0.0505138
8001.84	0.0506907
8013.66	0.0508356
8025.48	0.050948
8037.3	0.0510278
8049.12	0.0510747
8060.94	0.0510884
8072.76	0.0510688
8084.58	0.0510159
8096.4	0.0509294
8108.22	0.0508094
8120.04	0.0506559
8131.86	0.0504689
8143.68	0.0502484
8155.5	0.0499946
8167.32	0.0497077
8179.14	0.0493879
8190.96	0.0490353
8202.78	0.0486502
8214.6	0.0482329
8226.41	0.0477838
8238.23	0.0473032
8250.05	0.0467916
8261.87	0.0462492
8273.69	0.0456767
8285.51	0.0450745
8297.33	0.0444431
8309.15	0.0437831
8320.97	0.0430949
8332.79	0.0423794
8344.61	0.0416369
8356.43	0.0408683
8368.25	0.0400741
8380.07	0.0392551
8391.89	0.0384119
8403.71	0.0375454
8415.53	0.0366561
8427.35	0.035745
8439.17	0.0348128
8450.99	0.0338602
8462.81	0.0328881
8474.63	0.0318973
8486.45	0.0308886
8498.26	0.0298629
8510.08	0.0288209
8521.9	0.0277637
8533.72	0.026692
8545.54	0.0256067
8557.36	0.0245087
8569.18	0.0233989
8581	0.0222781
8592.82	0.0211472
8604.64	0.0200072
8616.46	0.0188589
8628.28	0.0177031
8640.1	0.0165408
8651.92	0.0153729
8663.74	0.0142002
8675.56	0.0130237
8687.38	0.0118441
8699.2	0.0106623
8711.02	0.00947922
8722.84	0.00829569
8734.66	0.00711253
8746.48	0.00593059
8758.3	0.00475068
8770.11	0.00357362
8781.93	0.00240019
8793.75	0.00123119
8805.57	6.73949e-05
8817.39	-0.00109044
8829.21	-0.00224157
8841.03	-0.00338525
8852.85	-0.00452078
8864.67	-0.00564745
8876.49	-0.00676457
8888.31	-0.00787148
8900.13	-0.00896752
8911.95	-0.0100521
8923.77	-0.0111245
8935.59	-0.0121842
8947.41	-0.0132307
8959.23	-0.0142632
8971.05	-0.0152815
8982.87	-0.0162848
8994.69	-0.0172727
9006.51	-0.0182447
9018.33	-0.0192004
9030.15	-0.0201393
9041.97	-0.0210611
9053.78	-0.0219652
9065.6	-0.0228515
9077.42	-0.0237194
9089.24	-0.0245687
9101.06	-0.0253992
9112.88	-0.0262104
9124.7	-0.0270021
9136.52	-0.0277741
9148.34	-0.0285263
9160.16	-0.0292583
9171.98	-0.02997
9183.8	-0.0306614
9195.62	-0.0313321
9207.44	-0.0319822
9219.26	-0.0326115
9231.08	-0.03322
9242.9	-0.0338077
9254.72	-0.0343745
9266.54	-0.0349203
9278.36	-0.0354453
9290.18	-0.0359495
9302	-0.0364329
9313.82	-0.0368956
9325.64	-0.0373376
9337.46	-0.0377591
9349.27	-0.0381603
9361.09	-0.0385412
9372.91	-0.038902
9384.73	-0.0392429
9396.55	-0.0395641
9408.37	-0.0398658
9420.19	-0.0401481
9432.01	-0.0404114
9443.83	-0.0406559
9455.65	-0.0408818
9467.47	-0.0410894
9479.29	-0.041279
9491.11	-0.0414508
9502.93	-0.0416052
9514.75	-0.0417425
9526.57	-0.041863
9538.39	-0.041967
9550.21	-0.0420548
9562.03	-0.0421268
9573.85	-0.0421833
9585.67	-0.0422247
9597.49	-0.0422513
9609.31	-0.0422635
9621.13	-0.0422616
9632.95	-0.042246
9644.76	-0.0422172
9656.58	-0.0421753
9668.4	-0.0421208
9680.22	-0.0420541
9692.04	-0.0419756
9703.86	-0.0418855
9715.68	-0.0417843
9727.5	-0.0416724
9739.32	-0.04155
9751.14	-0.0414176
9762.96	-0.0412755
9774.78	-0.041124
9786.6	-0.0409636
9798.42	-0.0407945
9810.24	-0.0406171
9822.06	-0.0404317
9833.88	-0.0402387
9845.7	-0.0400384
9857.52	-0.039831
9869.34	-0.039617
9881.16	-0.0393965
9892.98	-0.0391699
9904.8	-0.0389375
9916.62	-0.0386996
9928.44	-0.0384565
9940.26	-0.0382083
9952.07	-0.0379554
9963.89	-0.037698
9975.71	-0.0374364
9987.53	-0.0371707
9999.35	-0.0369013
10011.2	-0.0366283
10023	-0.0363519
10034.8	-0.0360724
10046.6	-0.0357899
10058.5	-0.0355046
10070.3	-0.0352167
10082.1	-0.0349264
10093.9	-0.0346338
10105.7	-0.034339
10117.5	-0.0340422
10129.4	-0.0337436
10141.2	-0.0334432
10153	-0.0331412
10164.8	-0.0328377
10176.6	-0.0325328
10188.5	-0.0322266
10200.3	-0.0319192
10212.1	-0.0316105
10223.9	-0.0313009
10235.7	-0.0309902
10247.6	-0.0306785
10259.4	-0.030366
10271.2	-0.0300525
10283	-0.0297383
10294.8	-0.0294233
10306.7	-0.0291076
10318.5	-0.0287911
10330.3	-0.0284738
10342.1	-0.0281559
10353.9	-0.0278373
10365.8	-0.027518
10377.6	-0.027198
10389.4	-0.0268773
10401.2	-0.0265558
10413	-0.0262337
10424.9	-0.0259107
10436.7	-0.025587
10448.5	-0.0252625
10460.3	-0.0249372
10472.1	-0.024611
10484	-0.0242839
10495.8	-0.0239559
10507.6	-0.0236269
10519.4	-0.0232969
10531.2	-0.0229659
10543.1	-0.0226337
10554.9	-0.0223004
10566.7	-0.0219659
10578.5	-0.0216302
10590.3	-0.0212932
10602.2	-0.0209549
10614	-0.0206151
10625.8	-0.020274
10637.6	-0.0199313
10649.4	-0.0195872
10661.3	-0.0192414
10673.1	-0.018894
10684.9	-0.018545
10696.7	-0.0181942
10708.5	-0.0178417
10720.4	-0.0174873
10732.2	-0.0171311
10744	-0.016773
10755.8	-0.016413
10767.6	-0.016051
10779.4	-0.015687
10791.3	-0.0153209
10803.1	-0.0149528
10814.9	-0.0145826
10826.7	-0.0142103
10838.5	-0.0138359
10850.4	-0.0134592
10862.2	-0.0130805
10874	-0.0126995
10885.8	-0.0123163
10897.6	-0.0119309
10909.5	-0.0115433
10921.3	-0.0111535
10933.1	-0.0107615
10944.9	-0.0103673
10956.7	-0.00997095
10968.6	-0.0095724
10980.4	-0.00917172
10992.2	-0.00876891
11004	-0.008364
11015.8	-0.00795703
11027.7	-0.00754804
11039.5	-0.00713706
11051.3	-0.00672414
11063.1	-0.00630932
11074.9	-0.00589266
11086.8	-0.00547423
11098.6	-0.00505407
11110.4	-0.00463225
11122.2	-0.00420885
11134	-0.00378393
11145.9	-0.00335758
11157.7	-0.00292987
11169.5	-0.0025009
11181.3	-0.00207075
11193.1	-0.00163952
11205	-0.0012073
11216.8	-0.000774199
11228.6	-0.000340318
11240.4	9.42329e-05
11252.2	0.000529341
11264.1	0.000964892
11275.9	0.00140076
11287.7	0.00183684
11299.5	0.00227299
11311.3	0.00270908
11323.2	0.00314499
11335	0.00358059
11346.8	0.00401572
11358.6	0.00445027
11370.4	0.00488407
11382.2	0.005317
11394.1	0.0057489
11405.9	0.00617963
11417.7	0.00660904
11429.5	0.00703698
11441.3	0.00746329
11453.2	0.00788783
11465	0.00831043
11476.8	0.00873094
11488.6	0.0091492
11500.4	0.00956507
11512.3	0.00997837
11524.1	0.010389
11535.9	0.0107967
11547.7	0.0112013
11559.5	0.0116028
11571.4	0.0120009
11583.2	0.0123955
11595	0.0127865
11606.8	0.0131736
11618.6	0.0135568
11630.5	0.0139358
11642.3	0.0143105
11654.1	0.0146808
11665.9	0.0150465
11677.7	0.0154074
11689.6	0.0157635
11701.4	0.0161145
11713.2	0.0164604
11725	0.0168009
11736.8	0.017136
11748.7	0.0174654
11760.5	0.0177892
11772.3	0.018107
11784.1	0.0184189
11795.9	0.0187246
11807.8	0.019024
11819.6	0.0193171
11831.4	0.0196037
11843.2	0.0198836
11855	0.0201568
11866.9	0.0204231
11878.7	0.0206825
11890.5	0.0209348
11902.3	0.0211799
11914.1	0.0214178
11926	0.0216482
11937.8	0.0218712
11949.6	0.0220866
11961.4	0.0222943
11973.2	0.0224943
11985.1	0.0226865
11996.9	0.0228707
12008.7	0.023047
12020.5	0.0232152
12032.3	0.0233752
12044.1	0.0235271
12056	0.0236706
12067.8	0.0238059
12079.6	0.0239327
12091.4	0.0240511
12103.2	0.0241609
12115.1	0.0242623
12126.9	0.024355
12138.7	0.024439
12150.5	0.0245144
12162.3	0.024581
12174.2	0.0246389
12186	0.0246879
12197.8	0.0247281
12209.6	0.0247595
12221.4	0.024782
12233.3	0.0247956
12245.1	0.0248003
12256.9	0.024796
12268.7	0.0247828
12280.5	0.0247607
12292.4	0.0247296
12304.2	0.0246895
12316	0.0246404
12327.8	0.0245824
12339.6	0.0245155
12351.5	0.0244396
12363.3	0.0243548
12375.1	0.0242611
12386.9	0.0241585
12398.7	0.024047
12410.6	0.0239267
12422.4	0.0237975
12434.2	0.0236596
12446	0.023513
12457.8	0.0233576
12469.7	0.0231936
12481.5	0.0230209
12493.3	0.0228397
12505.1	0.02265
12516.9	0.0224518
12528.8	0.0222452
12540.6	0.0220303
12552.4	0.0218071
12564.2	0.0215757
12576	0.0213362
12587.9	0.0210886
12599.7	0.0208331
12611.5	0.0205697
12623.3	0.0202985
12635.1	0.0200196
12646.9	0.0197331
12658.8	0.0194392
12670.6	0.0191378
12682.4	0.0188291
12694.2	0.0185133
12706	0.0181904
12717.9	0.0178606
12729.7	0.017524
12741.5	0.0171807
12753.3	0.0168308
12765.1	0.0164745
12777	0.0161119
12788.8	0.0157432
12800.6	0.0153685
12812.4	0.014988
12824.2	0.0146017
12836.1	0.0142099
12847.9	0.0138128
12859.7	0.0134104
12871.5	0.013003
12883.3	0.0125907
12895.2	0.0121737
12907	0.0117522
12918.8	0.0113263
12930.6	0.0108963
12942.4	0.0104622
12954.3	0.0100244
12966.1	0.00958301
12977.9	0.00913817
12989.7	0.00869011
13001.5	0.00823903
13013.4	0.00778512
13025.2	0.0073286
13037	0.00686965
13048.8	0.00640848
13060.6	0.0059453
13072.5	0.00548032
13084.3	0.00501374
13096.1	0.00454577
13107.9	0.00407662
13119.7	0.00360651
13131.6	0.00313565
13143.4	0.00266424
13155.2	0.00219249
13167	0.00172064
13178.8	0.00124887
13190.7	0.000777408
13202.5	0.000306463
13214.3	-0.000163754
13226.1	-0.000633033
13237.9	-0.00110117
13249.7	-0.00156794
13261.6	-0.00203316
13273.4	-0.0024966
13285.2	-0.00295808
13297	-0.00341738
13308.8	-0.00387431
13320.7	-0.00432866
13332.5	-0.00478025
13344.3	-0.00522887
13356.1	-0.00567434
13367.9	-0.00611647
13379.8	-0.00655506
13391.6	-0.00698995
13403.4	-0.00742094
13415.2	-0.00784787
13427	-0.00827055
13438.9	-0.00868882
13450.7	-0.00910252
13462.5	-0.00951147
13474.3	-0.00991552
13486.1	-0.0103145
13498	-0.0107083
13509.8	-0.0110967
13521.6	-0.0114797
13533.4	-0.011857
13545.2	-0.0122285
13557.1	-0.0125941
13568.9	-0.0129537
13580.7	-0.0133071
13592.5	-0.0136543
13604.3	-0.0139951
13616.2	-0.0143294
13628	-0.0146571
13639.8	-0.0149781
13651.6	-0.0152923
13663.4	-0.0155997
13675.3	-0.0159001
13687.1	-0.0161935
13698.9	-0.0164797
13710.7	-0.0167587
13722.5	-0.0170305
13734.4	-0.017295
13746.2	-0.0175521
13758	-0.0178018
13769.8	-0.018044
13781.6	-0.0182788
13793.5	-0.0185059
13805.3	-0.0187255
13817.1	-0.0189374
13828.9	-0.0191417
13840.7	-0.0193384
13852.6	-0.0195273
13864.4	-0.0197086
13876.2	-0.0198821
13888	-0.020048
13899.8	-0.0202062
13911.6	-0.0203566
13923.5	-0.0204994
13935.3	-0.0206345
13947.1	-0.0207619
13958.9	-0.0208816
13970.7	-0.0209938
13982.6	-0.0210983
13994.4	-0.0211953
14006.2	-0.0212847
14018	-0.0213666
14029.8	-0.0214411
14041.7	-0.0215081
14053.5	-0.0215678
14065.3	-0.0216201
14077.1	-0.0216652
14088.9	-0.021703
14100.8	-0.0217337
14112.6	-0.0217573
14124.4	-0.0217738
14136.2	-0.0217833
14148	-0.021786
14159.9	-0.0217818
14171.7	-0.0217708
14183.5	-0.0217531
14195.3	-0.0217288
14207.1	-0.0216979
14219	-0.0216606
14230.8	-0.0216169
14242.6	-0.0215669
14254.4	-0.0215107
14266.2	-0.0214483
14278.1	-0.02138
14289.9	-0.0213056
14301.7	-0.0212254
14313.5	-0.0211394
14325.3	-0.0210478
14337.2	-0.0209505
14349	-0.0208478
14360.8	-0.0207397
14372.6	-0.0206263
14384.4	-0.0205078
14396.3	-0.0203841
14408.1	-0.0202555
14419.9	-0.020122
14431.7	-0.0199837
14443.5	-0.0198407
14455.4	-0.0196932
14467.2	-0.0195412
14479	-0.0193849
14490.8	-0.0192243
14502.6	-0.0190596
14514.4	-0.0188909
14526.3	-0.0187183
14538.1	-0.0185419
14549.9	-0.0183617
14561.7	-0.0181781
14573.5	-0.0179909
14585.4	-0.0178004
14597.2	-0.0176067
14609	-0.0174098
14620.8	-0.01721
14632.6	-0.0170073
14644.5	-0.0168017
14656.3	-0.0165936
14668.1	-0.0163829
14679.9	-0.0161697
14691.7	-0.0159543
14703.6	-0.0157366
14715.4	-0.0155169
14727.2	-0.0152953
14739	-0.0150718
14750.8	-0.0148466
14762.7	-0.0146197
14774.5	-0.0143914
14786.3	-0.0141618
14798.1	-0.0139308
14809.9	-0.0136988
14821.8	-0.0134657
14833.6	-0.0132318
14845.4	-0.012997
14857.2	-0.0127617
14869	-0.0125257
14880.9	-0.0122894
14892.7	-0.0120527
14904.5	-0.0118159
14916.3	-0.011579
14928.1	-0.0113421
14940	-0.0111054
14951.8	-0.0108689
14963.6	-0.0106329
14975.4	-0.0103973
14987.2	-0.0101624
14999.1	-0.00992816
15010.9	-0.00969479
15022.7	-0.00946238
15034.5	-0.00923103
15046.3	-0.00900086
15058.2	-0.00877196
15070	-0.00854446
15081.8	-0.00831846
15093.6	-0.00809406
15105.4	-0.00787138
15117.3	-0.00765051
15129.1	-0.00743155
15140.9	-0.00721462
15152.7	-0.00699981
15164.5	-0.00678723
15176.3	-0.00657696
15188.2	-0.00636911
15200	-0.00616377
15211.8	-0.00596103
15223.6	-0.005761
15235.4	-0.00556376
15247.3	-0.0053694
15259.1	-0.00517801
15270.9	-0.00498967
15282.7	-0.00480447
15294.5	-0.00462249
15306.4	-0.00444382
15318.2	-0.00426853
15330	-0.0040967
15341.8	-0.00392841
15353.6	-0.00376373
15365.5	-0.00360273
15377.3	-0.00344548
15389.1	-0.00329205
15400.9	-0.00314251
15412.7	-0.00299691
15424.6	-0.00285532
15436.4	-0.0027178
15448.2	-0.00258441
15460	-0.00245519
15471.8	-0.00233021
15483.7	-0.0022095
15495.5	-0.00209313
15507.3	-0.00198113
15519.1	-0.00187354
15530.9	-0.00177042
15542.8	-0.00167179
15554.6	-0.00157768
15566.4	-0.00148815
15578.2	-0.0014032
15590	-0.00132288
15601.9	-0.0012472
15613.7	-0.0011762
15625.5	-0.00110988
15637.3	-0.00104827
15649.1	-0.000991381
15661	-0.000939227
15672.8	-0.000891816
15684.6	-0.000849156
15696.4	-0.00081125
15708.2	-0.0007781
15720.1	-0.000749706
15731.9	-0.000726062
15743.7	-0.000707163
15755.5	-0.000692999
15767.3	-0.000683559
15779.1	-0.000678827
15791	-0.000678786
15802.8	-0.000683416
15814.6	-0.000692694
15826.4	-0.000706595
15838.2	-0.00072509
15850.1	-0.000748148
15861.9	-0.000775736
15873.7	-0.000807816
15885.5	-0.000844351
15897.3	-0.000885298
15909.2	-0.000930612
15921	-0.000980248
15932.8	-0.00103415
15944.6	-0.00109228
15956.4	-0.00115457
15968.3	-0.00122096
15980.1	-0.0012914
15991.9	-0.00136582
16003.7	-0.00144416
16015.5	-0.00152635
16027.4	-0.00161232
16039.2	-0.00170199
16051	-0.0017953
16062.8	-0.00189216
16074.6	-0.00199249
16086.5	-0.00209622
16098.3	-0.00220325
16110.1	-0.0023135
16121.9	-0.00242688
16133.7	-0.0025433
16145.6	-0.00266266
16157.4	-0.00278488
16169.2	-0.00290984
16181	-0.00303746
16192.8	-0.00316762
16204.7	-0.00330024
16216.5	-0.00343519
16228.3	-0.00357237
16240.1	-0.00371168
16251.9	-0.003853
16263.8	-0.00399622
16275.6	-0.00414123
16287.4	-0.0042879
16299.2	-0.00443613
16311	-0.00458579
16322.9	-0.00473677
16334.7	-0.00488894
16346.5	-0.00504218
16358.3	-0.00519637
16370.1	-0.00535138
16381.9	-0.00550709
16393.8	-0.00566337
16405.6	-0.0058201
16417.4	-0.00597715
16429.2	-0.00613438
16441	-0.00629168
16452.9	-0.00644891
16464.7	-0.00660594
16476.5	-0.00676264
16488.3	-0.0069189
16500.1	-0.00707456
16512	-0.00722951
16523.8	-0.00738362
16535.6	-0.00753676
16547.4	-0.0076888
16559.2	-0.00783961
16571.1	-0.00798906
16582.9	-0.00813704
16594.7	-0.00828341
16606.5	-0.00842805
16618.3	-0.00857083
16630.2	-0.00871164
16642	-0.00885035
16653.8	-0.00898685
16665.6	-0.00912102
16677.4	-0.00925273
16689.3	-0.00938188
16701.1	-0.00950836
16712.9	-0.00963205
16724.7	-0.00975285
16736.5	-0.00987065
16748.4	-0.00998535
16760.2	-0.0100968
16772	-0.010205
16783.8	-0.0103098
16795.6	-0.0104111
16807.5	-0.0105088
16819.3	-0.0106029
16831.1	-0.0106932
16842.9	-0.0107797
16854.7	-0.0108622
16866.6	-0.0109408
16878.4	-0.0110153
16890.2	-0.0110857
16902	-0.0111519
16913.8	-0.0112139
16925.7	-0.0112715
16937.5	-0.0113249
16949.3	-0.0113738
16961.1	-0.0114182
16972.9	-0.0114582
16984.8	-0.0114937
16996.6	-0.0115246
17008.4	-0.0115509
17020.2	-0.0115727
17032	-0.0115898
17043.8	-0.0116023
17055.7	-0.0116101
17067.5	-0.0116133
17079.3	-0.0116118
17091.1	-0.0116057
17102.9	-0.011595
17114.8	-0.0115796
17126.6	-0.0115596
17138.4	-0.0115351
17150.2	-0.011506
17162	-0.0114723
17173.9	-0.0114342
17185.7	-0.0113916
17197.5	-0.0113446
17209.3	-0.0112932
17221.1	-0.0112375
17233	-0.0111776
17244.8	-0.0111135
17256.6	-0.0110453
17268.4	-0.010973
17280.2	-0.0108968
17292.1	-0.0108167
17303.9	-0.0107327
17315.7	-0.010645
17327.5	-0.0105537
17339.3	-0.0104588
17351.2	-0.0103605
17363	-0.0102589
17374.8	-0.010154
17386.6	-0.010046
17398.4	-0.00993493
17410.3	-0.00982099
17422.1	-0.00970426
17433.9	-0.00958486
17445.7	-0.00946291
17457.5	-0.00933855
17469.4	-0.0092119
17481.2	-0.0090831
17493	-0.00895226
17504.8	-0.00881954
17516.6	-0.00868506
17528.5	-0.00854897
17540.3	-0.0084114
17552.1	-0.0082725
17563.9	-0.00813241
17575.7	-0.00799127
17587.6	-0.00784924
17599.4	-0.00770645
17611.2	-0.00756305
17623	-0.0074192
17634.8	-0.00727503
17646.6	-0.0071307
17658.5	-0.00698636
17670.3	-0.00684214
17682.1	-0.00669821
17693.9	-0.0065547
17705.7	-0.00641177
17717.6	-0.00626956
17729.4	-0.0061282
17741.2	-0.00598786
17753	-0.00584866
17764.8	-0.00571076
17776.7	-0.00557428
17788.5	-0.00543937
17800.3	-0.00530616
17812.1	-0.00517479
17823.9	-0.00504538
17835.8	-0.00491807
17847.6	-0.00479298
17859.4	-0.00467023
17871.2	-0.00454995
17883	-0.00443224
17894.9	-0.00431724
17906.7	-0.00420504
17918.5	-0.00409576
17930.3	-0.0039895
17942.1	-0.00388636
17954	-0.00378644
17965.8	-0.00368983
17977.6	-0.00359662
17989.4	-0.0035069
18001.2	-0.00342075
18013.1	-0.00333824
18024.9	-0.00325944
18036.7	-0.00318443
18048.5	-0.00311327
18060.3	-0.00304602
18072.2	-0.00298273
18084	-0.00292346
18095.8	-0.00286824
18107.6	-0.00281712
18119.4	-0.00277014
18131.3	-0.00272732
18143.1	-0.00268869
18154.9	-0.00265427
18166.7	-0.00262408
18178.5	-0.00259813
18190.4	-0.00257642
18202.2	-0.00255896
18214	-0.00254575
18225.8	-0.00253677
18237.6	-0.002532
18249.5	-0.00253144
18261.3	-0.00253506
18273.1	-0.00254283
18284.9	-0.00255472
18296.7	-0.00257068
18308.5	-0.00259068
18320.4	-0.00261467
18332.2	-0.0026426
18344	-0.00267441
18355.8	-0.00271004
18367.6	-0.00274943
18379.5	-0.0027925
18391.3	-0.00283919
18403.1	-0.00288941
18414.9	-0.00294308
18426.7	-0.00300011
18438.6	-0.00306043
18450.4	-0.00312393
18462.2	-0.00319051
18474	-0.00326008
18485.8	-0.00333253
18497.7	-0.00340776
18509.5	-0.00348565
18521.3	-0.00356609
18533.1	-0.00364897
18544.9	-0.00373417
18556.8	-0.00382156
18568.6	-0.00391102
18580.4	-0.00400243
18592.2	-0.00409565
18604	-0.00419056
18615.9	-0.00428703
18627.7	-0.00438492
18639.5	-0.00448409
18651.3	-0.00458442
18663.1	-0.00468576
18675	-0.00478797
18686.8	-0.00489092
18698.6	-0.00499446
18710.4	-0.00509845
18722.2	-0.00520275
18734.1	-0.00530723
18745.9	-0.00541173
18757.7	-0.00551612
18769.5	-0.00562025
18781.3	-0.005724
18793.2	-0.0058272
18805	-0.00592973
18816.8	-0.00603145
18828.6	-0.00613222
18840.4	-0.0062319
18852.3	-0.00633036
18864.1	-0.00642746
18875.9	-0.00652307
18887.7	-0.00661707
18899.5	-0.00670932
18911.3	-0.00679969
18923.2	-0.00688807
18935	-0.00697434
18946.8	-0.00705836
18958.6	-0.00714003
18970.4	-0.00721923
18982.3	-0.00729586
18994.1	-0.00736979
19005.9	-0.00744093
19017.7	-0.00750918
19029.5	-0.00757443
19041.4	-0.00763659
19053.2	-0.00769558
19065	-0.00775128
19076.8	-0.00780364
19088.6	-0.00785255
19100.5	-0.00789796
19112.3	-0.00793977
19124.1	-0.00797792
19135.9	-0.00801235
19147.7	-0.00804299
19159.6	-0.00806978
19171.4	-0.00809268
19183.2	-0.00811162
19195	-0.00812657
19206.8	-0.00813748
19218.7	-0.00814431
19230.5	-0.00814704
19242.3	-0.00814563
19254.1	-0.00814005
19265.9	-0.0081303
19277.8	-0.00811634
19289.6	-0.00809817
19301.4	-0.00807578
19313.2	-0.00804916
19325	-0.00801832
19336.9	-0.00798326
19348.7	-0.00794398
19360.5	-0.00790051
19372.3	-0.00785285
19384.1	-0.00780103
19396	-0.00774507
19407.8	-0.007685
19419.6	-0.00762085
19431.4	-0.00755265
19443.2	-0.00748045
19455.1	-0.00740428
19466.9	-0.0073242
19478.7	-0.00724026
19490.5	-0.00715249
19502.3	-0.00706097
19514.2	-0.00696576
19526	-0.0068669
19537.8	-0.00676448
19549.6	-0.00665855
19561.4	-0.00654919
19573.2	-0.00643647
19585.1	-0.00632047
19596.9	-0.00620126
19608.7	-0.00607894
19620.5	-0.00595357
19632.3	-0.00582525
19644.2	-0.00569407
19656	-0.0055601
19667.8	-0.00542345
19679.6	-0.00528421
19691.4	-0.00514247
19703.3	-0.00499832
19715.1	-0.00485187
19726.9	-0.0047032
19738.7	-0.00455243
19750.5	-0.00439965
19762.4	-0.00424495
19774.2	-0.00408845
19786	-0.00393025
19797.8	-0.00377044
19809.6	-0.00360913
19821.5	-0.00344643
19833.3	-0.00328243
19845.1	-0.00311724
19856.9	-0.00295097
19868.7	-0.00278371
19880.6	-0.00261557
19892.4	-0.00244666
19904.2	-0.00227706
19916	-0.00210689
19927.8	-0.00193624
19939.7	-0.00176522
19951.5	-0.00159392
19963.3	-0.00142243
19975.1	-0.00125086
19986.9	-0.00107931
19998.8	-0.000907853
