
Simulation on single triangle.

Serial: simply the serial version
Parallel1: parallel version without any splits
Parallel2: parallel version with splits and joins
Parallel3: parallel version with splits and joins running on 2 threads
Parallel4: parallel version with splits and joins running on 10 threads
Parallel5: parallel version with splits and joins running on 20 threads
Parallel6: parallel version with splits and joins running on 40 threads

INITIAL_DEPTH	MTPS_SERIAL	MTPS_PARALLEL1	MTPS_PER_CORE_PARALLEL2	MTPS_PER_CORE_PARALLEL3_n2	MTPS_PER_CORE_PARALLEL4_n10	MTPS_PER_CORE_PARALLEL5_n20	MTPS_PER_CORE_PARALLEL6_n40	TIMESTEPS	AVERAGE_TRIANGLES_SERIAL	AVERAGE_TRIANGLES_PARALLEL1	AVERAGE_TRIANGLES_PARALLEL2	AVERAGE_TRIANGLES_PARALLEL3	AVERAGE_PARTITIONS_PARALLEL4	AVERAGE_PARTITIONS_PARALLEL5	AVERAGE_PARTITIONS_PARALLEL6
10	2.77756	2.75	2.71219	2.33501	0.8887	0.366203	0.11737	100	15898.5	15898.5	15898.5	15898.5	22.04	22.04	22.04
11	2.75428	2.73688	2.74347	2.36416	0.977545	0.458767	0.190375	100	29936.6	29936.7	29936.7	29936.7	30.8	30.8	30.8
12	2.84091	2.84651	2.86648	2.72629	1.59194	0.710388	0.30464	100	57268.8	57268.8	57268.8	57268.8	36.17	36.17	36.17
13	2.76242	2.74994	2.8165	2.71813	1.67745	0.918769	0.419865	100	111053	111053	111053	111053	57.47	57.47	57.47
14	2.76921	2.73178	2.78499	2.70975	1.86531	1.2093	0.603615	100	217089	217089	217089	217089	63.23	63.23	63.23
15	2.62347	2.68859	2.59741	2.55549	1.807	1.40076	0.891694	100	427351	427351	427351	427351	107.86	107.86	107.86
16	2.60933	2.62481	2.68244	2.62657	1.82881	1.49878	1.06179	100	844892	844892	844892	844892	117.58	117.58	117.58
17	2.45821	2.44538	2.62093	2.58288	1.82949	1.5908	1.19538	100	1.67638e+06	1.67638e+06	1.67638e+06	1.67638e+06	212.63	212.63	212.63
18	2.4929	2.49124	2.69998	2.65742	1.86523	1.65505	1.35816	100	3.33337e+06	3.33337e+06	3.33337e+06	3.33337e+06	228.22	228.22	228.22
19	2.48031	2.48818	2.65018	2.61592	1.8727	1.69457	1.52829	100	6.64005e+06	6.64005e+06	6.64005e+06	6.64005e+06	420.65	420.65	420.65
20	2.52635	2.52263	2.7044	2.67135	1.86995	1.6216	1.36667	100	1.32415e+07	1.32415e+07	1.32415e+07	1.32415e+07	471.4	471.4	471.4
