time,surface_elevation,number_of_local_cells,number_of_global_cells
0,0,49152,49152,
9399.38,0,49152,49152,
15509,0,49152,49152,
24460.2,0,49152,49152,
30346.1,0,49152,49152,
39335.2,0,49152,49152,
45445.9,0,49152,49152,
54884.7,0,49152,49152,
61339.6,0,49152,49152,
67794.6,0,49152,49152,
77477,0,49152,49152,
83931.9,0,49152,49152,
90386.9,0,49152,49152,
100069,0,49152,49152,
106524,0,49152,49152,
112979,0,49152,49152,
122662,0,49152,49152,
129116,0,49152,49152,
135571,0,49152,49152,
145254,0,49152,49152,
151709,0,49152,49152,
158164,0,49152,49152,
167846,0,49152,49152,
174301,0,49152,49152,
180756,0,49152,49152,
190438,0,49152,49152,
196893,0,49152,49152,
203348,0,49152,49152,
213031,0,49152,49152,
219486,0,49152,49152,
225940,0,49152,49152,
235623,0,49152,49152,
242078,0,49152,49152,
248533,0,49152,49152,
258215,0,49152,49152,
264670,0,49152,49152,
271125,0,49152,49152,
277580,0,49152,49152,
287262,0,49152,49152,
293717,0,49152,49152,
300172,0,49152,49152,
309855,0,49152,49152,
316310,0,49152,49152,
322765,0,49152,49152,
332447,0,49152,49152,
338902,0,49152,49152,
345357,0,49152,49152,
355039,0,49152,49152,
361494,0,49152,49152,
367949,0,49152,49152,
377631,0,49152,49152,
384086,0,49152,49152,
390541,0,49152,49152,
400224,0,49152,49152,
406679,0,49152,49152,
413134,0,49152,49152,
422816,0,49152,49152,
429271,0,49152,49152,
435726,0,49152,49152,
445408,0,49152,49152,
451863,0,49152,49152,
458318,0,49152,49152,
468001,0,49152,49152,
474455,0,49152,49152,
480910,0,49152,49152,
490593,0,49152,49152,
497048,0,49152,49152,
503474,0,49152,49152,
512993,0,49152,49152,
519210,0,49152,49152,
525371,0,49152,49152,
534426,0,49152,49152,
540379,0,49152,49152,
549134,0,49152,49152,
557733,0,49152,49152,
563347,0,49152,49152,
571653,0,49152,49152,
579763,0,49152,49152,
585097,0,49152,49152,
592929,0,49152,49152,
600619,0,49152,49152,
608129,0,49152,49152,
615494,0,49152,49152,
622709,0,49152,49152,
632270,0,49152,49152,
639445,0,49152,49152,
646646,0,49152,49152,
653886,0,49152,49152,
661177,0,49152,49152,
668522,0,49152,49152,
675927,0,49152,49152,
683390,0,49152,49152,
690901,0,49152,49152,
698463,0,49152,49152,
706080,0,49152,49152,
713756,0,49152,49152,
721491,0,49152,49152,
729288,0,49152,49152,
737148,0,49152,49152,
745071,0,49152,49152,
750388,0,49152,49152,
758417,0,49152,49152,
766511,0,49152,49152,
774670,0,49152,49152,
780146,0,49152,49152,
788415,0,49152,49152,
796750,0,49152,49152,
805151,2.22045e-16,49152,49152,
810788,8.88178e-16,49152,49152,
819299,3.55271e-15,49152,49152,
825010,8.65974e-15,49152,49152,
833632,3.19744e-14,49152,49152,
842321,1.16351e-13,49152,49152,
848150,2.71339e-13,49152,49152,
856948,9.4813e-13,49152,49152,
862851,2.15827e-12,49152,49152,
871760,7.29572e-12,49152,49152,
877736,1.62688e-11,49152,49152,
886754,5.33997e-11,49152,49152,
892803,1.16829e-10,49152,49152,
901931,3.72652e-10,49152,49152,
908052,7.99407e-10,49152,49152,
917288,2.47105e-09,49152,49152,
923481,5.1821e-09,49152,49152,
932825,1.54343e-08,49152,49152,
939090,3.15043e-08,49152,49152,
945383,6.35326e-08,49152,49152,
954875,1.77605e-07,49152,49152,
961239,3.46524e-07,49152,49152,
967631,6.66613e-07,49152,49152,
977270,1.73063e-06,49152,49152,
983725,3.2069e-06,49152,49152,
990180,5.84041e-06,49152,49152,
999848,1.3881e-05,49152,49152,
1.00628e+06,2.41766e-05,49152,49152,
1.0127e+06,4.13766e-05,49152,49152,
1.02232e+06,8.96997e-05,49152,49152,
1.02872e+06,0.000147122,49152,49152,
1.03512e+06,0.000237367,49152,49152,
1.04469e+06,0.000472006,49152,49152,
1.05106e+06,0.000731873,49152,49152,
1.0606e+06,0.00137297,49152,49152,
1.06696e+06,0.00204925,49152,49152,
1.0733e+06,0.00301307,49152,49152,
1.0828e+06,0.00522241,49152,49152,
1.08913e+06,0.00739284,49152,49152,
1.09544e+06,0.0103017,49152,49152,
1.10491e+06,0.0164294,49152,49152,
1.11121e+06,0.0219412,49152,49152,
1.1175e+06,0.0287584,49152,49152,
1.12693e+06,0.041559,49152,49152,
1.13321e+06,0.0517205,49152,49152,
1.14261e+06,0.0688413,49152,49152,
1.14888e+06,0.0809502,49152,49152,
1.15513e+06,0.0930621,49152,49152,
1.16451e+06,0.110177,49152,49152,
1.17075e+06,0.120289,49152,49152,
1.18011e+06,0.13285,49152,49152,
1.18634e+06,0.139334,49152,49152,
1.19256e+06,0.144328,49152,49152,
1.20189e+06,0.149266,49152,49152,
1.2081e+06,0.151081,49152,49152,
1.21742e+06,0.152006,49152,49152,
1.22362e+06,0.151657,49152,49152,
1.23291e+06,0.150029,49152,49152,
1.23911e+06,0.148375,49152,49152,
1.2453e+06,0.146376,49152,49152,
1.25457e+06,0.142886,49152,49152,
1.26076e+06,0.140318,49152,49152,
1.27002e+06,0.136211,49152,49152,
1.2762e+06,0.133352,49152,49152,
1.28545e+06,0.128945,49152,49152,
1.29162e+06,0.125957,49152,49152,
1.29779e+06,0.122944,49152,49152,
1.30704e+06,0.118406,49152,49152,
1.31321e+06,0.115378,49152,49152,
1.32246e+06,0.11085,49152,49152,
1.32863e+06,0.107846,49152,49152,
1.33789e+06,0.103372,49152,49152,
1.34406e+06,0.100413,49152,49152,
1.35024e+06,0.0974751,49152,49152,
1.35952e+06,0.0931117,49152,49152,
1.36571e+06,0.0902327,49152,49152,
1.37501e+06,0.0859607,49152,49152,
1.38122e+06,0.0831442,49152,49152,
1.39056e+06,0.0789669,49152,49152,
1.39679e+06,0.0762139,49152,49152,
1.40304e+06,0.0734862,49152,49152,
1.41243e+06,0.0694423,49152,49152,
1.41871e+06,0.0667791,49152,49152,
1.42813e+06,0.0628359,49152,49152,
1.43443e+06,0.060241,49152,49152,
1.44073e+06,0.0576729,49152,49152,
1.4502e+06,0.0538707,49152,49152,
1.45652e+06,0.0513689,49152,49152,
1.46285e+06,0.0488934,49152,49152,
1.47237e+06,0.0452291,49152,49152,
1.47872e+06,0.0428188,49152,49152,
1.48508e+06,0.0404344,49152,49152,
1.49464e+06,0.0369065,49152,49152,
1.50102e+06,0.0345867,49152,49152,
1.51059e+06,0.0311553,49152,49152,
1.51699e+06,0.0288997,49152,49152,
1.52338e+06,0.0266694,49152,49152,
1.53299e+06,0.0233714,49152,49152,
1.53939e+06,0.0212041,49152,49152,
1.5458e+06,0.0190616,49152,49152,
1.55542e+06,0.0158939,49152,49152,
1.56183e+06,0.0138124,49152,49152,
1.56825e+06,0.011755,49152,49152,
1.57788e+06,0.00871317,49152,49152,
1.5843e+06,0.00671424,49152,49152,
1.59072e+06,0.00473776,49152,49152,
1.60033e+06,0.00182101,49152,49152,
1.60673e+06,-8.33907e-05,49152,49152,
1.61307e+06,-0.00194624,49152,49152,
1.6225e+06,-0.00466278,49152,49152,
1.62872e+06,-0.00642664,49152,49152,
1.63798e+06,-0.00900762,49152,49152,
1.6441e+06,-0.0106837,49152,49152,
1.65017e+06,-0.0123249,49152,49152,
1.65918e+06,-0.0147241,49152,49152,
1.66514e+06,-0.0162831,49152,49152,
1.67398e+06,-0.0185623,49152,49152,
1.68272e+06,-0.0207722,49152,49152,
1.6885e+06,-0.0222089,49152,49152,
1.69707e+06,-0.0243093,49152,49152,
1.70273e+06,-0.0256745,49152,49152,
1.71114e+06,-0.0276724,49152,49152,
1.71948e+06,-0.0296158,49152,49152,
1.725e+06,-0.0308838,49152,49152,
1.73325e+06,-0.0327482,49152,49152,
1.74147e+06,-0.0345706,49152,49152,
1.74964e+06,-0.0363482,49152,49152,
1.75506e+06,-0.0375091,49152,49152,
1.76316e+06,-0.0392169,49152,49152,
1.77124e+06,-0.0408874,49152,49152,
1.77931e+06,-0.0425229,49152,49152,
1.78737e+06,-0.0441251,49152,49152,
1.79275e+06,-0.0451753,49152,49152,
1.80083e+06,-0.0467242,49152,49152,
1.80892e+06,-0.0482419,49152,49152,
1.81703e+06,-0.0497286,49152,49152,
1.82515e+06,-0.051184,49152,49152,
1.83058e+06,-0.0521367,49152,49152,
1.83875e+06,-0.0535387,49152,49152,
1.84694e+06,-0.0549073,49152,49152,
1.85515e+06,-0.056241,49152,49152,
1.86065e+06,-0.0571099,49152,49152,
1.86892e+06,-0.0583809,49152,49152,
1.87721e+06,-0.059611,49152,49152,
1.88276e+06,-0.0604067,49152,49152,
1.89111e+06,-0.0615608,49152,49152,
1.89949e+06,-0.0626636,49152,49152,
1.90509e+06,-0.0633677,49152,49152,
1.91353e+06,-0.0643724,49152,49152,
1.922e+06,-0.0653091,49152,49152,
1.92766e+06,-0.0658917,49152,49152,
1.93619e+06,-0.0666956,49152,49152,
1.94474e+06,-0.0674056,49152,49152,
1.95047e+06,-0.0678205,49152,49152,
1.95908e+06,-0.0683449,49152,49152,
1.96774e+06,-0.0687375,49152,49152,
1.97352e+06,-0.0689172,49152,49152,
1.98223e+06,-0.0690496,49152,49152,
1.98806e+06,-0.0690374,49152,49152,
1.99682e+06,-0.0688521,49152,49152,
2.00269e+06,-0.0686073,49152,49152,
2.01152e+06,-0.068041,49152,49152,
2.02038e+06,-0.0672153,49152,49152,
2.02631e+06,-0.06651,49152,49152,
2.03523e+06,-0.0652052,49152,49152,
2.0412e+06,-0.0641639,49152,49152,
2.05018e+06,-0.0623362,49152,49152,
2.05619e+06,-0.060938,49152,49152,
2.06523e+06,-0.0585723,49152,49152,
2.07128e+06,-0.0568204,49152,49152,
2.08039e+06,-0.0539442,49152,49152,
2.08648e+06,-0.0518736,49152,49152,
2.09259e+06,-0.0496931,49152,49152,
2.10178e+06,-0.0462465,49152,49152,
2.10792e+06,-0.0438546,49152,49152,
2.11717e+06,-0.0401698,49152,49152,
2.12336e+06,-0.0376762,49152,49152,
2.13268e+06,-0.0339294,49152,49152,
2.13891e+06,-0.0314552,49152,49152,
2.14515e+06,-0.0290214,49152,49152,
2.15455e+06,-0.0254833,49152,49152,
2.16084e+06,-0.023221,49152,49152,
2.1703e+06,-0.0200027,49152,49152,
2.17663e+06,-0.0179876,49152,49152,
2.18298e+06,-0.0160846,49152,49152,
2.19253e+06,-0.013449,49152,49152,
2.1989e+06,-0.0118435,49152,49152,
2.20527e+06,-0.0103605,49152,49152,
2.21482e+06,-0.00835776,49152,49152,
2.22118e+06,-0.00716371,49152,49152,
2.22753e+06,-0.00607588,49152,49152,
2.23705e+06,-0.00462912,49152,49152,
2.24338e+06,-0.0037781,49152,49152,
2.25288e+06,-0.00265478,49152,49152,
2.2592e+06,-0.00199833,49152,49152,
2.26551e+06,-0.00140837,49152,49152,
2.27498e+06,-0.000634995,49152,49152,
2.28128e+06,-0.000185642,49152,49152,
2.28758e+06,0.000216734,49152,49152,
2.29701e+06,0.000742405,49152,49152,
2.3033e+06,0.00104709,49152,49152,
2.31271e+06,0.00144489,49152,49152,
2.31898e+06,0.0016755,49152,49152,
2.32525e+06,0.00188191,49152,49152,
2.33464e+06,0.00215195,49152,49152,
2.34089e+06,0.00230901,49152,49152,
2.35026e+06,0.00251533,49152,49152,
2.3565e+06,0.002636,49152,49152,
2.36274e+06,0.00274504,49152,49152,
2.37208e+06,0.00288989,49152,49152,
2.37831e+06,0.00297579,49152,49152,
2.38764e+06,0.00309139,49152,49152,
2.39385e+06,0.003161,49152,49152,
2.40006e+06,0.00322564,49152,49152,
2.40936e+06,0.00331486,49152,49152,
2.41556e+06,0.00337012,49152,49152,
2.42485e+06,0.00344808,49152,49152,
2.43104e+06,0.00349746,49152,49152,
2.44031e+06,0.00356868,49152,49152,
2.44649e+06,0.00361476,49152,49152,
2.45266e+06,0.00366008,49152,49152,
2.46192e+06,0.00372718,49152,49152,
2.46808e+06,0.00377164,49152,49152,
2.47732e+06,0.00383838,49152,49152,
2.48347e+06,0.00388312,49152,49152,
2.4927e+06,0.00395087,49152,49152,
2.49884e+06,0.00399662,49152,49152,
2.50806e+06,0.00406629,49152,49152,
2.51419e+06,0.00411351,49152,49152,
2.52033e+06,0.00416141,49152,49152,
2.52952e+06,0.00423457,49152,49152,
2.53565e+06,0.00428426,49152,49152,
2.54483e+06,0.00436018,49152,49152,
2.55095e+06,0.00441173,49152,49152,
2.56012e+06,0.00449045,49152,49152,
2.56623e+06,0.00454385,49152,49152,
2.57539e+06,0.00462531,49152,49152,
2.5815e+06,0.0046805,49152,49152,
2.5876e+06,0.00473639,49152,49152,
2.59675e+06,0.00482149,49152,49152,
2.60285e+06,0.00487904,49152,49152,
2.61199e+06,0.00496657,49152,49152,
2.61808e+06,0.0050257,49152,49152,
2.62722e+06,0.00511551,49152,49152,
2.63331e+06,0.00517611,49152,49152,
2.64244e+06,0.00526808,49152,49152,
2.64852e+06,0.00533008,49152,49152,
2.65765e+06,0.00542409,49152,49152,
2.66374e+06,0.00548742,49152,49152,
2.67286e+06,0.00558339,49152,49152,
2.67895e+06,0.00564802,49152,49152,
2.68503e+06,0.00571315,49152,49152,
2.69416e+06,0.0058118,49152,49152,
2.70024e+06,0.0058782,49152,49152,
2.70938e+06,0.00597876,49152,49152,
2.71547e+06,0.00604644,49152,49152,
2.72461e+06,0.00614893,49152,49152,
2.7307e+06,0.00621793,49152,49152,
2.73985e+06,0.00632243,49152,49152,
2.74595e+06,0.00639278,49152,49152,
2.75512e+06,0.00649938,49152,49152,
2.76123e+06,0.00657118,49152,49152,
2.77041e+06,0.00667999,49152,49152,
2.77653e+06,0.0067533,49152,49152,
2.78266e+06,0.00682724,49152,49152,
2.79186e+06,0.00693936,49152,49152,
2.798e+06,0.00701495,49152,49152,
2.80722e+06,0.0071296,49152,49152,
2.81337e+06,0.00720692,49152,49152,
2.82261e+06,0.00732423,49152,49152,
2.82878e+06,0.00740336,49152,49152,
2.83804e+06,0.00752345,49152,49152,
2.84421e+06,0.00760446,49152,49152,
2.85039e+06,0.00768624,49152,49152,
2.85967e+06,0.00781037,49152,49152,
2.86586e+06,0.00789411,49152,49152,
2.87515e+06,0.0080212,49152,49152,
2.88135e+06,0.00810693,49152,49152,
2.88755e+06,0.00819346,49152,49152,
2.89685e+06,0.00832477,49152,49152,
2.90306e+06,0.00841331,49152,49152,
2.91237e+06,0.00854765,49152,49152,
2.91858e+06,0.00863823,49152,49152,
2.92789e+06,0.00877561,49152,49152,
2.9341e+06,0.00886822,49152,49152,
2.94031e+06,0.00896165,49152,49152,
2.94962e+06,0.00910333,49152,49152,
2.95583e+06,0.00919881,49152,49152,
2.96515e+06,0.00934361,49152,49152,
2.97136e+06,0.0094412,49152,49152,
2.97756e+06,0.00953964,49152,49152,
2.98687e+06,0.00968893,49152,49152,
2.99307e+06,0.00978956,49152,49152,
3.00238e+06,0.0099422,49152,49152,
3.00858e+06,0.0100451,49152,49152,
3.01787e+06,0.0102013,49152,49152,
3.02407e+06,0.0103066,49152,49152,
3.03026e+06,0.0104129,49152,49152,
3.03955e+06,0.0105743,49152,49152,
3.04573e+06,0.0106831,49152,49152,
3.05501e+06,0.0108485,49152,49152,
3.06119e+06,0.01096,49152,49152,
3.07045e+06,0.0111294,49152,49152,
3.07662e+06,0.0112438,49152,49152,
3.08279e+06,0.0113592,49152,49152,
3.09203e+06,0.0115346,49152,49152,
3.09819e+06,0.0116528,49152,49152,
3.10742e+06,0.0118324,49152,49152,
3.11356e+06,0.0119534,49152,49152,
3.12277e+06,0.012137,49152,49152,
3.1289e+06,0.0122607,49152,49152,
3.13503e+06,0.0123854,49152,49152,
3.14421e+06,0.0125742,49152,49152,
3.15032e+06,0.0127012,49152,49152,
3.15947e+06,0.0128932,49152,49152,
3.16556e+06,0.0130222,49152,49152,
3.17467e+06,0.0132168,49152,49152,
3.18074e+06,0.0133473,49152,49152,
3.18981e+06,0.0135439,49152,49152,
3.19585e+06,0.0136755,49152,49152,
3.20487e+06,0.0138733,49152,49152,
3.21087e+06,0.0140054,49152,49152,
3.21983e+06,0.0142037,49152,49152,
3.22579e+06,0.014336,49152,49152,
3.23469e+06,0.0145342,49152,49152,
3.2406e+06,0.0146661,49152,49152,
3.24943e+06,0.0148637,49152,49152,
3.2553e+06,0.0149951,49152,49152,
3.26406e+06,0.0151918,49152,49152,
3.27279e+06,0.015388,49152,49152,
3.27859e+06,0.0155185,49152,49152,
3.28727e+06,0.015714,49152,49152,
3.29304e+06,0.0158441,49152,49152,
3.30167e+06,0.0160391,49152,49152,
3.3103e+06,0.0162342,49152,49152,
3.31604e+06,0.0163643,49152,49152,
3.32465e+06,0.0165599,49152,49152,
3.33039e+06,0.0166906,49152,49152,
3.339e+06,0.0168873,49152,49152,
3.34761e+06,0.0170852,49152,49152,
3.35336e+06,0.0172178,49152,49152,
3.36199e+06,0.0174181,49152,49152,
3.36775e+06,0.0175526,49152,49152,
3.37641e+06,0.0177563,49152,49152,
3.38509e+06,0.0179626,49152,49152,
3.39088e+06,0.0181017,49152,49152,
3.3996e+06,0.0183131,49152,49152,
3.40542e+06,0.018456,49152,49152,
3.41418e+06,0.0186738,49152,49152,
3.42003e+06,0.0188214,49152,49152,
3.42883e+06,0.0190469,49152,49152,
3.43766e+06,0.0192775,49152,49152,
3.44356e+06,0.0194345,49152,49152,
3.45242e+06,0.0196751,49152,49152,
3.45835e+06,0.0198392,49152,49152,
3.46726e+06,0.0200915,49152,49152,
3.47322e+06,0.0202641,49152,49152,
3.48218e+06,0.02053,49152,49152,
3.48817e+06,0.0207124,49152,49152,
3.49718e+06,0.0209941,49152,49152,
3.5032e+06,0.0211877,49152,49152,
3.51226e+06,0.0214877,49152,49152,
3.51831e+06,0.0216944,49152,49152,
3.52742e+06,0.0220153,49152,49152,
3.53351e+06,0.0222371,49152,49152,
3.54267e+06,0.0225825,49152,49152,
3.5488e+06,0.0228217,49152,49152,
3.55801e+06,0.0231954,49152,49152,
3.56417e+06,0.0234551,49152,49152,
3.57034e+06,0.0237241,49152,49152,
3.57962e+06,0.0241461,49152,49152,
3.58583e+06,0.024441,49152,49152,
3.59517e+06,0.024906,49152,49152,
3.60141e+06,0.0252324,49152,49152,
3.60766e+06,0.0255734,49152,49152,
3.61707e+06,0.0261151,49152,49152,
3.62336e+06,0.0264987,49152,49152,
3.63282e+06,0.0271122,49152,49152,
3.63914e+06,0.0275497,49152,49152,
3.64547e+06,0.0280129,49152,49152,
3.655e+06,0.0287617,49152,49152,
3.66137e+06,0.0293013,49152,49152,
3.66773e+06,0.0298763,49152,49152,
3.67728e+06,0.0308129,49152,49152,
3.68365e+06,0.0314922,49152,49152,
3.69001e+06,0.0322203,49152,49152,
3.69956e+06,0.0334129,49152,49152,
3.70592e+06,0.0342811,49152,49152,
3.71547e+06,0.0357029,49152,49152,
3.72183e+06,0.0367355,49152,49152,
3.72819e+06,0.0378391,49152,49152,
3.73773e+06,0.0396313,49152,49152,
3.74409e+06,0.0409178,49152,49152,
3.75044e+06,0.0422764,49152,49152,
3.75998e+06,0.0444425,49152,49152,
3.76633e+06,0.0459644,49152,49152,
3.77269e+06,0.04754,49152,49152,
3.78222e+06,0.0499831,49152,49152,
3.78857e+06,0.0516479,49152,49152,
3.7981e+06,0.0541653,49152,49152,
3.80445e+06,0.0558352,49152,49152,
3.8108e+06,0.0574799,49152,49152,
3.82033e+06,0.0598646,49152,49152,
3.82668e+06,0.0613768,49152,49152,
3.83302e+06,0.0628095,49152,49152,
3.84254e+06,0.0647811,49152,49152,
3.84889e+06,0.0659606,49152,49152,
3.85523e+06,0.0670214,49152,49152,
3.86475e+06,0.0683754,49152,49152,
3.87109e+06,0.0691133,49152,49152,
3.8806e+06,0.0699679,49152,49152,
3.88694e+06,0.0703698,49152,49152,
3.89328e+06,0.0706394,49152,49152,
3.90278e+06,0.0708037,49152,49152,
3.90911e+06,0.0707602,49152,49152,
3.91543e+06,0.0706007,49152,49152,
3.92491e+06,0.070158,49152,49152,
3.93123e+06,0.0697369,49152,49152,
3.93755e+06,0.069223,49152,49152,
3.94702e+06,0.0682932,49152,49152,
3.95332e+06,0.0675771,49152,49152,
3.96278e+06,0.0663748,49152,49152,
3.96908e+06,0.0654968,49152,49152,
3.97538e+06,0.0645644,49152,49152,
3.98482e+06,0.0630755,49152,49152,
3.99111e+06,0.0620301,49152,49152,
4.00055e+06,0.0603942,49152,49152,
4.00683e+06,0.0592645,49152,49152,
4.01312e+06,0.0581081,49152,49152,
4.02254e+06,0.0563308,49152,49152,
4.02881e+06,0.0551222,49152,49152,
4.03509e+06,0.0538978,49152,49152,
4.0445e+06,0.0520375,49152,49152,
4.05076e+06,0.0507848,49152,49152,
4.06016e+06,0.0488923,49152,49152,
4.06643e+06,0.0476243,49152,49152,
4.07269e+06,0.0463532,49152,49152,
4.08208e+06,0.0444441,49152,49152,
4.08833e+06,0.0431716,49152,49152,
4.09771e+06,0.0412662,49152,49152,
4.10396e+06,0.0399998,49152,49152,
4.11021e+06,0.0387374,49152,49152,
4.11958e+06,0.0368535,49152,49152,
4.12583e+06,0.035605,49152,49152,
4.13519e+06,0.0337451,49152,49152,
4.14143e+06,0.0325146,49152,49152,
4.14767e+06,0.0312921,49152,49152,
4.15703e+06,0.0294747,49152,49152,
4.16326e+06,0.0282744,49152,49152,
4.17261e+06,0.0264918,49152,49152,
4.17884e+06,0.0253157,49152,49152,
4.18507e+06,0.0241497,49152,49152,
4.19441e+06,0.0224202,49152,49152,
4.20063e+06,0.0212804,49152,49152,
4.20997e+06,0.0195908,49152,49152,
4.21619e+06,0.0184779,49152,49152,
4.22552e+06,0.0168289,49152,49152,
4.23174e+06,0.0157432,49152,49152,
4.23796e+06,0.0146684,49152,49152,
4.24728e+06,0.0130766,49152,49152,
4.2535e+06,0.0120288,49152,49152,
4.26282e+06,0.0104774,49152,49152,
4.26903e+06,0.0094575,49152,49152,
4.27523e+06,0.00845034,49152,49152,
4.28452e+06,0.00696447,49152,49152,
4.29071e+06,0.00599024,49152,49152,
4.29997e+06,0.00455341,49152,49152,
4.30614e+06,0.00361178,49152,49152,
4.31537e+06,0.0022228,49152,49152,
4.32151e+06,0.00131236,49152,49152,
4.32765e+06,0.000414355,49152,49152,
4.33683e+06,-0.000909454,49152,49152,
4.34294e+06,-0.00177675,49152,49152,
4.35208e+06,-0.00305523,49152,49152,
4.35816e+06,-0.00389276,49152,49152,
4.36726e+06,-0.00512715,49152,49152,
4.37332e+06,-0.00593567,49152,49152,
4.38238e+06,-0.00712727,49152,49152,
4.38841e+06,-0.0079078,49152,49152,
4.39744e+06,-0.0090582,49152,49152,
4.40344e+06,-0.00981179,49152,49152,
4.41243e+06,-0.0109225,49152,49152,
4.41842e+06,-0.0116498,49152,49152,
4.42737e+06,-0.0127214,49152,49152,
4.43333e+06,-0.0134232,49152,49152,
4.44225e+06,-0.0144573,49152,49152,
4.44819e+06,-0.0151345,49152,49152,
4.45708e+06,-0.0161327,49152,49152,
4.463e+06,-0.0167865,49152,49152,
4.47188e+06,-0.0177502,49152,49152,
4.47779e+06,-0.0183816,49152,49152,
4.48664e+06,-0.0193123,49152,49152,
4.49255e+06,-0.0199221,49152,49152,
4.50139e+06,-0.0208211,49152,49152,
4.51024e+06,-0.0217016,49152,49152,
4.51614e+06,-0.0222785,49152,49152,
4.52499e+06,-0.0231289,49152,49152,
4.53089e+06,-0.023686,49152,49152,
4.53975e+06,-0.0245072,49152,49152,
4.54565e+06,-0.025045,49152,49152,
4.55452e+06,-0.0258377,49152,49152,
