time,surface_elevation,number_of_local_cells,number_of_global_cells
0,0,49152,49152,
9399.38,0,49152,49152,
15509,0,49152,49152,
24460.2,0,49152,49152,
30346.1,0,49152,49152,
39335.2,0,49152,49152,
45445.9,0,49152,49152,
54884.7,0,49152,49152,
61339.6,0,49152,49152,
67794.6,0,49152,49152,
77477,0,49152,49152,
83931.9,0,49152,49152,
90386.9,0,49152,49152,
100069,0,49152,49152,
106524,0,49152,49152,
112979,0,49152,49152,
122662,0,49152,49152,
129116,0,49152,49152,
135571,0,49152,49152,
145254,0,49152,49152,
151709,0,49152,49152,
158164,0,49152,49152,
167846,0,49152,49152,
174301,0,49152,49152,
180756,0,49152,49152,
190438,0,49152,49152,
196893,0,49152,49152,
203348,0,49152,49152,
213031,0,49152,49152,
219486,0,49152,49152,
225940,0,49152,49152,
235623,0,49152,49152,
242078,0,49152,49152,
248533,0,49152,49152,
258215,0,49152,49152,
264670,0,49152,49152,
271125,0,49152,49152,
277580,0,49152,49152,
287262,0,49152,49152,
293717,0,49152,49152,
300172,0,49152,49152,
309855,0,49152,49152,
316310,0,49152,49152,
322765,0,49152,49152,
332447,0,49152,49152,
338902,0,49152,49152,
345357,0,49152,49152,
355039,0,49152,49152,
361494,0,49152,49152,
367949,0,49152,49152,
377631,0,49152,49152,
384086,0,49152,49152,
390541,0,49152,49152,
400224,0,49152,49152,
406679,0,49152,49152,
413134,0,49152,49152,
422816,0,49152,49152,
429271,0,49152,49152,
435726,0,49152,49152,
445408,0,49152,49152,
451863,0,49152,49152,
458318,0,49152,49152,
468001,0,49152,49152,
474455,0,49152,49152,
480910,0,49152,49152,
490593,0,49152,49152,
497048,0,49152,49152,
503474,0,49152,49152,
512993,0,49152,49152,
519210,0,49152,49152,
525371,0,49152,49152,
534426,0,49152,49152,
540379,0,49152,49152,
549134,0,49152,49152,
557733,0,49152,49152,
563347,0,49152,49152,
571653,0,49152,49152,
579763,0,49152,49152,
585097,0,49152,49152,
592929,0,49152,49152,
600619,0,49152,49152,
608129,0,49152,49152,
615494,0,49152,49152,
622709,0,49152,49152,
632270,0,49152,49152,
639445,0,49152,49152,
646646,0,49152,49152,
653886,0,49152,49152,
661177,0,49152,49152,
668522,0,49152,49152,
675927,0,49152,49152,
683390,0,49152,49152,
690901,0,49152,49152,
698463,0,49152,49152,
706080,0,49152,49152,
713756,0,49152,49152,
721491,0,49152,49152,
729288,0,49152,49152,
737148,0,49152,49152,
745071,4.44089e-16,49152,49152,
750388,8.88178e-16,49152,49152,
758417,3.10862e-15,49152,49152,
766511,1.04361e-14,49152,49152,
774670,3.26406e-14,49152,49152,
780146,6.81677e-14,49152,49152,
788415,2.02727e-13,49152,49152,
796750,5.91083e-13,49152,49152,
805151,1.69265e-12,49152,49152,
810788,3.38196e-12,49152,49152,
819299,9.42246e-12,49152,49152,
825010,1.84899e-11,49152,49152,
833632,5.01592e-11,49152,49152,
842321,1.33939e-10,49152,49152,
848150,2.55524e-10,49152,49152,
856948,6.64249e-10,49152,49152,
862851,1.24423e-09,49152,49152,
871760,3.144e-09,49152,49152,
877736,5.77479e-09,49152,49152,
886754,1.41525e-08,49152,49152,
892803,2.54492e-08,49152,49152,
901931,6.03405e-08,49152,49152,
908052,1.06053e-07,49152,49152,
917288,2.42711e-07,49152,49152,
923481,4.16358e-07,49152,49152,
932825,9.18016e-07,49152,49152,
939090,1.53542e-06,49152,49152,
945383,2.54165e-06,49152,49152,
954875,5.30826e-06,49152,49152,
961239,8.56006e-06,49152,49152,
967631,1.36592e-05,49152,49152,
977270,2.69935e-05,49152,49152,
983725,4.19358e-05,49152,49152,
990180,6.43649e-05,49152,49152,
999848,0.000119581,49152,49152,
1.00628e+06,0.000177972,49152,49152,
1.0127e+06,0.00026172,49152,49152,
1.02232e+06,0.000456569,49152,49152,
1.02872e+06,0.000652198,49152,49152,
1.03512e+06,0.000921204,49152,49152,
1.04469e+06,0.00151459,49152,49152,
1.05106e+06,0.00208125,49152,49152,
1.0606e+06,0.0032853,49152,49152,
1.06696e+06,0.0043945,49152,49152,
1.0733e+06,0.00581532,49152,49152,
1.0828e+06,0.0086745,49152,49152,
1.08913e+06,0.0111701,49152,49152,
1.09544e+06,0.014223,49152,49152,
1.10491e+06,0.0199987,49152,49152,
1.11121e+06,0.0247296,49152,49152,
1.1175e+06,0.0302062,49152,49152,
1.12693e+06,0.0398196,49152,49152,
1.13321e+06,0.0471015,49152,49152,
1.14261e+06,0.0591058,49152,49152,
1.14888e+06,0.0676256,49152,49152,
1.15513e+06,0.0763543,49152,49152,
1.16451e+06,0.0894074,49152,49152,
1.17075e+06,0.0977933,49152,49152,
1.18011e+06,0.10945,49152,49152,
1.18634e+06,0.116398,49152,49152,
1.19256e+06,0.122569,49152,49152,
1.20189e+06,0.130245,49152,49152,
1.2081e+06,0.134287,49152,49152,
1.21742e+06,0.138784,49152,49152,
1.22362e+06,0.140803,49152,49152,
1.23291e+06,0.142518,49152,49152,
1.23911e+06,0.142883,49152,49152,
1.2453e+06,0.142708,49152,49152,
1.25457e+06,0.141579,49152,49152,
1.26076e+06,0.140341,49152,49152,
1.27002e+06,0.137895,49152,49152,
1.2762e+06,0.135944,49152,49152,
1.28545e+06,0.132642,49152,49152,
1.29162e+06,0.130241,49152,49152,
1.29779e+06,0.127717,49152,49152,
1.30704e+06,0.123751,49152,49152,
1.31321e+06,0.121018,49152,49152,
1.32246e+06,0.116827,49152,49152,
1.32863e+06,0.113992,49152,49152,
1.33789e+06,0.109704,49152,49152,
1.34406e+06,0.106834,49152,49152,
1.35024e+06,0.103963,49152,49152,
1.35952e+06,0.0996678,49152,49152,
1.36571e+06,0.0968169,49152,49152,
1.37501e+06,0.0925677,49152,49152,
1.38122e+06,0.0897562,49152,49152,
1.39056e+06,0.0855753,49152,49152,
1.39679e+06,0.0828138,49152,49152,
1.40304e+06,0.080074,49152,49152,
1.41243e+06,0.0760058,49152,49152,
1.41871e+06,0.0733231,49152,49152,
1.42813e+06,0.069346,49152,49152,
1.43443e+06,0.0667255,49152,49152,
1.44073e+06,0.0641292,49152,49152,
1.4502e+06,0.0602797,49152,49152,
1.45652e+06,0.0577426,49152,49152,
1.46285e+06,0.0552286,49152,49152,
1.47237e+06,0.0515002,49152,49152,
1.47872e+06,0.0490425,49152,49152,
1.48508e+06,0.046607,49152,49152,
1.49464e+06,0.0429949,49152,49152,
1.50102e+06,0.0406141,49152,49152,
1.51059e+06,0.0370835,49152,49152,
1.51699e+06,0.0347567,49152,49152,
1.52338e+06,0.0324515,49152,49152,
1.53299e+06,0.029034,49152,49152,
1.53939e+06,0.0267825,49152,49152,
1.5458e+06,0.0245526,49152,49152,
1.55542e+06,0.0212479,49152,49152,
1.56183e+06,0.0190718,49152,49152,
1.56825e+06,0.0169173,49152,49152,
1.57788e+06,0.0137263,49152,49152,
1.5843e+06,0.0116261,49152,49152,
1.59072e+06,0.00954749,49152,49152,
1.60033e+06,0.0064742,49152,49152,
1.60673e+06,0.00446013,49152,49152,
1.61307e+06,0.0024842,49152,49152,
1.6225e+06,-0.00040371,49152,49152,
1.62872e+06,-0.00227923,49152,49152,
1.63798e+06,-0.00502079,49152,49152,
1.6441e+06,-0.00680063,49152,49152,
1.65017e+06,-0.00854497,49152,49152,
1.65918e+06,-0.0110975,49152,49152,
1.66514e+06,-0.0127568,49152,49152,
1.67398e+06,-0.0151834,49152,49152,
1.68272e+06,-0.0175364,49152,49152,
1.6885e+06,-0.0190659,49152,49152,
1.69707e+06,-0.0213014,49152,49152,
1.70273e+06,-0.0227539,49152,49152,
1.71114e+06,-0.0248788,49152,49152,
1.71948e+06,-0.0269449,49152,49152,
1.725e+06,-0.0282926,49152,49152,
1.73325e+06,-0.0302732,49152,49152,
1.74147e+06,-0.0322082,49152,49152,
1.74964e+06,-0.0340944,49152,49152,
1.75506e+06,-0.0353255,49152,49152,
1.76316e+06,-0.0371357,49152,49152,
1.77124e+06,-0.0389051,49152,49152,
1.77931e+06,-0.0406361,49152,49152,
1.78737e+06,-0.0423305,49152,49152,
1.79275e+06,-0.0434404,49152,49152,
1.80083e+06,-0.0450762,49152,49152,
1.80892e+06,-0.0466775,49152,49152,
1.81703e+06,-0.0482446,49152,49152,
1.82515e+06,-0.0497771,49152,49152,
1.83058e+06,-0.0507793,49152,49152,
1.83875e+06,-0.0522525,49152,49152,
1.84694e+06,-0.0536887,49152,49152,
1.85515e+06,-0.0550861,49152,49152,
1.86065e+06,-0.0559952,49152,49152,
1.86892e+06,-0.0573234,49152,49152,
1.87721e+06,-0.0586064,49152,49152,
1.88276e+06,-0.0594351,49152,49152,
1.89111e+06,-0.0606352,49152,49152,
1.89949e+06,-0.0617801,49152,49152,
1.90509e+06,-0.0625102,49152,49152,
1.91353e+06,-0.0635515,49152,49152,
1.922e+06,-0.0645223,49152,49152,
1.92766e+06,-0.0651269,49152,49152,
1.93619e+06,-0.0659639,49152,49152,
1.94474e+06,-0.0667092,49152,49152,
1.95047e+06,-0.0671503,49152,49152,
1.95908e+06,-0.0677202,49152,49152,
1.96774e+06,-0.0681698,49152,49152,
1.97352e+06,-0.0683964,49152,49152,
1.98223e+06,-0.0686169,49152,49152,
1.98806e+06,-0.0686783,49152,49152,
1.99682e+06,-0.068631,49152,49152,
2.00269e+06,-0.0685002,49152,49152,
2.01152e+06,-0.0681443,49152,49152,
2.02038e+06,-0.0675837,49152,49152,
2.02631e+06,-0.0670896,49152,49152,
2.03523e+06,-0.0661587,49152,49152,
2.0412e+06,-0.0654072,49152,49152,
2.05018e+06,-0.0640772,49152,49152,
2.05619e+06,-0.0630531,49152,49152,
2.06523e+06,-0.0613093,49152,49152,
2.07128e+06,-0.060009,49152,49152,
2.08039e+06,-0.0578567,49152,49152,
2.08648e+06,-0.0562919,49152,49152,
2.09259e+06,-0.0546285,49152,49152,
2.10178e+06,-0.0519617,49152,49152,
2.10792e+06,-0.05008,49152,49152,
2.11717e+06,-0.0471234,49152,49152,
2.12336e+06,-0.0450775,49152,49152,
2.13268e+06,-0.0419234,49152,49152,
2.13891e+06,-0.0397808,49152,49152,
2.14515e+06,-0.0376203,49152,49152,
2.15455e+06,-0.0343725,49152,49152,
2.16084e+06,-0.0322199,49152,49152,
2.1703e+06,-0.0290387,49152,49152,
2.17663e+06,-0.0269651,49152,49152,
2.18298e+06,-0.0249407,49152,49152,
2.19253e+06,-0.0220146,49152,49152,
2.1989e+06,-0.020152,49152,49152,
2.20527e+06,-0.0183693,49152,49152,
2.21482e+06,-0.015853,49152,49152,
2.22118e+06,-0.014284,49152,49152,
2.22753e+06,-0.0128031,49152,49152,
2.23705e+06,-0.0107461,49152,49152,
2.24338e+06,-0.00948234,49152,49152,
2.25288e+06,-0.00774262,49152,49152,
2.2592e+06,-0.00668247,49152,49152,
2.26551e+06,-0.00569806,49152,49152,
2.27498e+06,-0.00435522,49152,49152,
2.28128e+06,-0.00354334,49152,49152,
2.28758e+06,-0.00279336,49152,49152,
2.29701e+06,-0.00177545,49152,49152,
2.3033e+06,-0.00116231,49152,49152,
2.31271e+06,-0.000331058,49152,49152,
2.31898e+06,0.000169556,49152,49152,
2.32525e+06,0.000631409,49152,49152,
2.33464e+06,0.00125861,49152,49152,
2.34089e+06,0.0016374,49152,49152,
2.35026e+06,0.00215341,49152,49152,
2.3565e+06,0.00246621,49152,49152,
2.36274e+06,0.00275664,49152,49152,
2.37208e+06,0.0031547,49152,49152,
2.37831e+06,0.0033976,49152,49152,
2.38764e+06,0.00373213,49152,49152,
2.39385e+06,0.00393727,49152,49152,
2.40006e+06,0.00412953,49152,49152,
2.40936e+06,0.00439608,49152,49152,
2.41556e+06,0.00456059,49152,49152,
2.42485e+06,0.00478963,49152,49152,
2.43104e+06,0.00493156,49152,49152,
2.44031e+06,0.0051299,49152,49152,
2.44649e+06,0.00525324,49152,49152,
2.45266e+06,0.00537007,49152,49152,
2.46192e+06,0.0055341,49152,49152,
2.46808e+06,0.00563659,49152,49152,
2.47732e+06,0.00578099,49152,49152,
2.48347e+06,0.00587155,49152,49152,
2.4927e+06,0.00599962,49152,49152,
2.49884e+06,0.00608028,49152,49152,
2.50806e+06,0.00619487,49152,49152,
2.51419e+06,0.0062674,49152,49152,
2.52033e+06,0.00633711,49152,49152,
2.52952e+06,0.00643692,49152,49152,
2.53565e+06,0.0065006,49152,49152,
2.54483e+06,0.00659234,49152,49152,
2.55095e+06,0.00665125,49152,49152,
2.56012e+06,0.00673666,49152,49152,
2.56623e+06,0.00679186,49152,49152,
2.57539e+06,0.0068724,49152,49152,
2.5815e+06,0.00692478,49152,49152,
2.5876e+06,0.00697623,49152,49152,
2.59675e+06,0.00705189,49152,49152,
2.60285e+06,0.00710146,49152,49152,
2.61199e+06,0.0071747,49152,49152,
2.61808e+06,0.00722288,49152,49152,
2.62722e+06,0.00729432,49152,49152,
2.63331e+06,0.00734148,49152,49152,
2.64244e+06,0.00741162,49152,49152,
2.64852e+06,0.00745802,49152,49152,
2.65765e+06,0.00752718,49152,49152,
2.66374e+06,0.00757302,49152,49152,
2.67286e+06,0.00764143,49152,49152,
2.67895e+06,0.00768683,49152,49152,
2.68503e+06,0.00773209,49152,49152,
2.69416e+06,0.00779972,49152,49152,
2.70024e+06,0.00784465,49152,49152,
2.70938e+06,0.00791185,49152,49152,
2.71547e+06,0.00795652,49152,49152,
2.72461e+06,0.00802334,49152,49152,
2.7307e+06,0.00806779,49152,49152,
2.73985e+06,0.0081343,49152,49152,
2.74595e+06,0.00817855,49152,49152,
2.75512e+06,0.0082448,49152,49152,
2.76123e+06,0.00828889,49152,49152,
2.77041e+06,0.00835493,49152,49152,
2.77653e+06,0.00839891,49152,49152,
2.78266e+06,0.00844286,49152,49152,
2.79186e+06,0.00850874,49152,49152,
2.798e+06,0.00855266,49152,49152,
2.80722e+06,0.00861857,49152,49152,
2.81337e+06,0.00866255,49152,49152,
2.82261e+06,0.00872863,49152,49152,
2.82878e+06,0.00877278,49152,49152,
2.83804e+06,0.00883922,49152,49152,
2.84421e+06,0.0088837,49152,49152,
2.85039e+06,0.00892835,49152,49152,
2.85967e+06,0.00899571,49152,49152,
2.86586e+06,0.00904094,49152,49152,
2.87515e+06,0.00910933,49152,49152,
2.88135e+06,0.00915535,49152,49152,
2.88755e+06,0.00920175,49152,49152,
2.89685e+06,0.00927217,49152,49152,
2.90306e+06,0.00931972,49152,49152,
2.91237e+06,0.00939206,49152,49152,
2.91858e+06,0.00944102,49152,49152,
2.92789e+06,0.00951569,49152,49152,
2.9341e+06,0.00956634,49152,49152,
2.94031e+06,0.00961774,49152,49152,
2.94962e+06,0.00969635,49152,49152,
2.95583e+06,0.00974981,49152,49152,
2.96515e+06,0.0098317,49152,49152,
2.97136e+06,0.00988747,49152,49152,
2.97756e+06,0.00994424,49152,49152,
2.98687e+06,0.0100313,49152,49152,
2.99307e+06,0.0100907,49152,49152,
3.00238e+06,0.0101818,49152,49152,
3.00858e+06,0.010244,49152,49152,
3.01787e+06,0.0103394,49152,49152,
3.02407e+06,0.0104045,49152,49152,
3.03026e+06,0.0104708,49152,49152,
3.03955e+06,0.0105725,49152,49152,
3.04573e+06,0.0106419,49152,49152,
3.05501e+06,0.0107482,49152,49152,
3.06119e+06,0.0108207,49152,49152,
3.07045e+06,0.0109317,49152,49152,
3.07662e+06,0.0110073,49152,49152,
3.08279e+06,0.0110842,49152,49152,
3.09203e+06,0.0112018,49152,49152,
3.09819e+06,0.0112817,49152,49152,
3.10742e+06,0.011404,49152,49152,
3.11356e+06,0.011487,49152,49152,
3.12277e+06,0.0116138,49152,49152,
3.1289e+06,0.0116998,49152,49152,
3.13503e+06,0.011787,49152,49152,
3.14421e+06,0.01192,49152,49152,
3.15032e+06,0.0120102,49152,49152,
3.15947e+06,0.0121475,49152,49152,
3.16556e+06,0.0122405,49152,49152,
3.17467e+06,0.012382,49152,49152,
3.18074e+06,0.0124777,49152,49152,
3.18981e+06,0.0126232,49152,49152,
3.19585e+06,0.0127216,49152,49152,
3.20487e+06,0.012871,49152,49152,
3.21087e+06,0.0129718,49152,49152,
3.21983e+06,0.013125,49152,49152,
3.22579e+06,0.0132283,49152,49152,
3.23469e+06,0.0133851,49152,49152,
3.2406e+06,0.0134909,49152,49152,
3.24943e+06,0.0136513,49152,49152,
3.2553e+06,0.0137595,49152,49152,
3.26406e+06,0.0139236,49152,49152,
3.27279e+06,0.0140902,49152,49152,
3.27859e+06,0.0142025,49152,49152,
3.28727e+06,0.0143733,49152,49152,
3.29304e+06,0.0144886,49152,49152,
3.30167e+06,0.0146641,49152,49152,
3.3103e+06,0.0148426,49152,49152,
3.31604e+06,0.0149634,49152,49152,
3.32465e+06,0.0151475,49152,49152,
3.33039e+06,0.0152723,49152,49152,
3.339e+06,0.0154628,49152,49152,
3.34761e+06,0.0156573,49152,49152,
3.35336e+06,0.0157894,49152,49152,
3.36199e+06,0.0159914,49152,49152,
3.36775e+06,0.0161287,49152,49152,
3.37641e+06,0.0163389,49152,49152,
3.38509e+06,0.0165545,49152,49152,
3.39088e+06,0.0167014,49152,49152,
3.3996e+06,0.0169268,49152,49152,
3.40542e+06,0.0170805,49152,49152,
3.41418e+06,0.0173167,49152,49152,
3.42003e+06,0.017478,49152,49152,
3.42883e+06,0.0177262,49152,49152,
3.43766e+06,0.017982,49152,49152,
3.44356e+06,0.0181572,49152,49152,
3.45242e+06,0.0184271,49152,49152,
3.45835e+06,0.0186122,49152,49152,
3.46726e+06,0.0188979,49152,49152,
3.47322e+06,0.0190942,49152,49152,
3.48218e+06,0.019398,49152,49152,
3.48817e+06,0.019607,49152,49152,
3.49718e+06,0.0199313,49152,49152,
3.5032e+06,0.020155,49152,49152,
3.51226e+06,0.0205028,49152,49152,
3.51831e+06,0.0207434,49152,49152,
3.52742e+06,0.0211184,49152,49152,
3.53351e+06,0.0213787,49152,49152,
3.54267e+06,0.0217857,49152,49152,
3.5488e+06,0.022069,49152,49152,
3.55801e+06,0.0225137,49152,49152,
3.56417e+06,0.0228244,49152,49152,
3.57034e+06,0.0231475,49152,49152,
3.57962e+06,0.0236576,49152,49152,
3.58583e+06,0.0240162,49152,49152,
3.59517e+06,0.0245849,49152,49152,
3.60141e+06,0.0249866,49152,49152,
3.60766e+06,0.0254081,49152,49152,
3.61707e+06,0.0260813,49152,49152,
3.62336e+06,0.02656,49152,49152,
3.63282e+06,0.0273283,49152,49152,
3.63914e+06,0.0278772,49152,49152,
3.64547e+06,0.0284583,49152,49152,
3.655e+06,0.0293959,49152,49152,
3.66137e+06,0.0300688,49152,49152,
3.66773e+06,0.0307818,49152,49152,
3.67728e+06,0.0319317,49152,49152,
3.68365e+06,0.0327556,49152,49152,
3.69001e+06,0.0336277,49152,49152,
3.69956e+06,0.0350304,49152,49152,
3.70592e+06,0.0360308,49152,49152,
3.71547e+06,0.0376311,49152,49152,
3.72183e+06,0.0387646,49152,49152,
3.72819e+06,0.0399505,49152,49152,
3.73773e+06,0.0418238,49152,49152,
3.74409e+06,0.0431313,49152,49152,
3.75044e+06,0.0444812,49152,49152,
3.75998e+06,0.0465743,49152,49152,
3.76633e+06,0.0480058,49152,49152,
3.77269e+06,0.0494577,49152,49152,
3.78222e+06,0.0516554,49152,49152,
3.78857e+06,0.0531203,49152,49152,
3.7981e+06,0.0552927,49152,49152,
3.80445e+06,0.0567094,49152,49152,
3.8108e+06,0.0580889,49152,49152,
3.82033e+06,0.0600664,49152,49152,
3.82668e+06,0.0613095,49152,49152,
3.83302e+06,0.062482,49152,49152,
3.84254e+06,0.0640907,49152,49152,
3.84889e+06,0.0650532,49152,49152,
3.85523e+06,0.0659208,49152,49152,
3.86475e+06,0.0670349,49152,49152,
3.87109e+06,0.0676479,49152,49152,
3.8806e+06,0.0683685,49152,49152,
3.88694e+06,0.0687154,49152,49152,
3.89328e+06,0.068956,49152,49152,
3.90278e+06,0.0691214,49152,49152,
3.90911e+06,0.0691049,49152,49152,
3.91543e+06,0.0689906,49152,49152,
3.92491e+06,0.0686445,49152,49152,
3.93123e+06,0.0683032,49152,49152,
3.93755e+06,0.0678789,49152,49152,
3.94702e+06,0.067097,49152,49152,
3.95332e+06,0.0664858,49152,49152,
3.96278e+06,0.0654462,49152,49152,
3.96908e+06,0.0646782,49152,49152,
3.97538e+06,0.0638558,49152,49152,
3.98482e+06,0.0625297,49152,49152,
3.99111e+06,0.0615904,49152,49152,
4.00055e+06,0.0601085,49152,49152,
4.00683e+06,0.0590775,49152,49152,
4.01312e+06,0.0580163,49152,49152,
4.02254e+06,0.0563748,49152,49152,
4.02881e+06,0.0552519,49152,49152,
4.03509e+06,0.0541094,49152,49152,
4.0445e+06,0.0523646,49152,49152,
4.05076e+06,0.0511841,49152,49152,
4.06016e+06,0.0493927,49152,49152,
4.06643e+06,0.0481875,49152,49152,
4.07269e+06,0.0469757,49152,49152,
4.08208e+06,0.0451487,49152,49152,
4.08833e+06,0.0439267,49152,49152,
4.09771e+06,0.0420908,49152,49152,
4.10396e+06,0.0408666,49152,49152,
4.11021e+06,0.0396432,49152,49152,
4.11958e+06,0.0378118,49152,49152,
4.12583e+06,0.0365945,49152,49152,
4.13519e+06,0.0347756,49152,49152,
4.14143e+06,0.0335686,49152,49152,
4.14767e+06,0.0323668,49152,49152,
4.15703e+06,0.0305748,49152,49152,
4.16326e+06,0.0293878,49152,49152,
4.17261e+06,0.0276199,49152,49152,
4.17884e+06,0.0264501,49152,49152,
4.18507e+06,0.0252877,49152,49152,
4.19441e+06,0.0235585,49152,49152,
4.20063e+06,0.0224156,49152,49152,
4.20997e+06,0.0207167,49152,49152,
4.21619e+06,0.0195945,49152,49152,
4.22552e+06,0.0179274,49152,49152,
4.23174e+06,0.0168268,49152,49152,
4.23796e+06,0.0157351,49152,49152,
4.24728e+06,0.0141142,49152,49152,
4.2535e+06,0.0130447,49152,49152,
4.26282e+06,0.0114584,49152,49152,
4.26903e+06,0.0104136,49152,49152,
4.27523e+06,0.00937994,49152,49152,
4.28452e+06,0.00785134,49152,49152,
4.29071e+06,0.0068469,49152,49152,
4.29997e+06,0.00536172,49152,49152,
4.30614e+06,0.00438616,49152,49152,
4.31537e+06,0.00294537,49152,49152,
4.32151e+06,0.00199972,49152,49152,
4.32765e+06,0.00106589,49152,49152,
4.33683e+06,-0.000312809,49152,49152,
4.34294e+06,-0.00121738,49152,49152,
4.35208e+06,-0.00255243,49152,49152,
4.35816e+06,-0.00342794,49152,49152,
4.36726e+06,-0.00471953,49152,49152,
4.37332e+06,-0.00556627,49152,49152,
4.38238e+06,-0.00681519,49152,49152,
4.38841e+06,-0.00763387,49152,49152,
4.39744e+06,-0.00884134,49152,49152,
4.40344e+06,-0.00963281,49152,49152,
4.41243e+06,-0.0108,49152,49152,
4.41842e+06,-0.0115647,49152,49152,
4.42737e+06,-0.012692,49152,49152,
4.43333e+06,-0.0134306,49152,49152,
4.44225e+06,-0.0145195,49152,49152,
4.44819e+06,-0.0152329,49152,49152,
4.45708e+06,-0.0162848,49152,49152,
4.463e+06,-0.0169741,49152,49152,
4.47188e+06,-0.0179906,49152,49152,
4.47779e+06,-0.0186568,49152,49152,
4.48664e+06,-0.0196393,49152,49152,
4.49255e+06,-0.0202832,49152,49152,
4.50139e+06,-0.021233,49152,49152,
4.51024e+06,-0.0221638,49152,49152,
4.51614e+06,-0.022774,49152,49152,
4.52499e+06,-0.0236738,49152,49152,
4.53089e+06,-0.0242637,49152,49152,
4.53975e+06,-0.0251336,49152,49152,
4.54565e+06,-0.0257037,49152,49152,
4.55452e+06,-0.0265443,49152,49152,
