time,surface_elevation,number_of_local_cells,number_of_global_cells
0,0,49152,49152,
9399.38,0,49152,49152,
15509,0,49152,49152,
24460.2,0,49152,49152,
30346.1,0,49152,49152,
39335.2,0,49152,49152,
45445.9,0,49152,49152,
54884.7,0,49152,49152,
61339.6,0,49152,49152,
67794.6,0,49152,49152,
77477,0,49152,49152,
83931.9,0,49152,49152,
90386.9,0,49152,49152,
100069,0,49152,49152,
106524,0,49152,49152,
112979,0,49152,49152,
122662,0,49152,49152,
129116,0,49152,49152,
135571,0,49152,49152,
145254,0,49152,49152,
151709,0,49152,49152,
158164,0,49152,49152,
167846,0,49152,49152,
174301,0,49152,49152,
180756,0,49152,49152,
190438,0,49152,49152,
196893,0,49152,49152,
203348,0,49152,49152,
213031,0,49152,49152,
219486,0,49152,49152,
225940,0,49152,49152,
235623,0,49152,49152,
242078,0,49152,49152,
248533,0,49152,49152,
258215,0,49152,49152,
264670,0,49152,49152,
271125,0,49152,49152,
277580,0,49152,49152,
287262,0,49152,49152,
293717,0,49152,49152,
300172,0,49152,49152,
309855,0,49152,49152,
316310,0,49152,49152,
322765,0,49152,49152,
332447,0,49152,49152,
338902,0,49152,49152,
345357,0,49152,49152,
355039,0,49152,49152,
361494,0,49152,49152,
367949,0,49152,49152,
377631,0,49152,49152,
384086,0,49152,49152,
390541,0,49152,49152,
400224,0,49152,49152,
406679,0,49152,49152,
413134,0,49152,49152,
422816,0,49152,49152,
429271,0,49152,49152,
435726,0,49152,49152,
445408,0,49152,49152,
451863,0,49152,49152,
458318,0,49152,49152,
468001,0,49152,49152,
474455,0,49152,49152,
480910,0,49152,49152,
490593,0,49152,49152,
497048,0,49152,49152,
503474,0,49152,49152,
512993,0,49152,49152,
519210,0,49152,49152,
525371,0,49152,49152,
534426,0,49152,49152,
540379,0,49152,49152,
549134,0,49152,49152,
557733,0,49152,49152,
563347,0,49152,49152,
571653,0,49152,49152,
579763,0,49152,49152,
585097,0,49152,49152,
592929,0,49152,49152,
600619,0,49152,49152,
608129,0,49152,49152,
615494,0,49152,49152,
622709,0,49152,49152,
632270,0,49152,49152,
639445,0,49152,49152,
646646,0,49152,49152,
653886,0,49152,49152,
661177,0,49152,49152,
668522,0,49152,49152,
675927,0,49152,49152,
683390,0,49152,49152,
690901,0,49152,49152,
698463,0,49152,49152,
706080,0,49152,49152,
713756,0,49152,49152,
721491,0,49152,49152,
729288,0,49152,49152,
737148,0,49152,49152,
745071,0,49152,49152,
750388,0,49152,49152,
758417,0,49152,49152,
766511,2.22045e-16,49152,49152,
774670,1.33227e-15,49152,49152,
780146,3.10862e-15,49152,49152,
788415,1.06581e-14,49152,49152,
796750,3.55271e-14,49152,49152,
805151,1.14797e-13,49152,49152,
810788,2.47358e-13,49152,49152,
819299,7.69163e-13,49152,49152,
825010,1.62181e-12,49152,49152,
833632,4.89364e-12,49152,49152,
842321,1.45115e-11,49152,49152,
848150,2.96669e-11,49152,49152,
856948,8.54701e-11,49152,49152,
862851,1.71357e-10,49152,49152,
871760,4.79077e-10,49152,49152,
877736,9.40787e-10,49152,49152,
886754,2.54632e-09,49152,49152,
892803,4.88857e-09,49152,49152,
901931,1.27702e-08,49152,49152,
908052,2.3919e-08,49152,49152,
917288,6.01218e-08,49152,49152,
923481,1.09656e-07,49152,49152,
932825,2.64543e-07,49152,49152,
939090,4.69162e-07,49152,49152,
945383,8.22535e-07,49152,49152,
954875,1.86821e-06,49152,49152,
961239,3.18107e-06,49152,49152,
967631,5.35305e-06,49152,49152,
977270,1.14296e-05,49152,49152,
983725,1.86662e-05,49152,49152,
990180,3.00748e-05,49152,49152,
999848,5.99341e-05,49152,49152,
1.00628e+06,9.33054e-05,49152,49152,
1.0127e+06,0.000143331,49152,49152,
1.02232e+06,0.000266295,49152,49152,
1.02872e+06,0.000396079,49152,49152,
1.03512e+06,0.000581806,49152,49152,
1.04469e+06,0.00101229,49152,49152,
1.05106e+06,0.00144254,49152,49152,
1.0606e+06,0.00240003,49152,49152,
1.06696e+06,0.0033207,49152,49152,
1.0733e+06,0.00454097,49152,49152,
1.0828e+06,0.0071024,49152,49152,
1.08913e+06,0.00942745,49152,49152,
1.09544e+06,0.0123606,49152,49152,
1.10491e+06,0.0181194,49152,49152,
1.11121e+06,0.0229974,49152,49152,
1.1175e+06,0.0287867,49152,49152,
1.12693e+06,0.0392325,49152,49152,
1.13321e+06,0.0473237,49152,49152,
1.14261e+06,0.0608808,49152,49152,
1.14888e+06,0.0705962,49152,49152,
1.15513e+06,0.0805714,49152,49152,
1.16451e+06,0.0954168,49152,49152,
1.17075e+06,0.104835,49152,49152,
1.18011e+06,0.117648,49152,49152,
1.18634e+06,0.125057,49152,49152,
1.19256e+06,0.131432,49152,49152,
1.20189e+06,0.13897,49152,49152,
1.2081e+06,0.142668,49152,49152,
1.21742e+06,0.146371,49152,49152,
1.22362e+06,0.147732,49152,49152,
1.23291e+06,0.148356,49152,49152,
1.23911e+06,0.147969,49152,49152,
1.2453e+06,0.147046,49152,49152,
1.25457e+06,0.144843,49152,49152,
1.26076e+06,0.142934,49152,49152,
1.27002e+06,0.139568,49152,49152,
1.2762e+06,0.137063,49152,49152,
1.28545e+06,0.13302,49152,49152,
1.29162e+06,0.130184,49152,49152,
1.29779e+06,0.127266,49152,49152,
1.30704e+06,0.122786,49152,49152,
1.31321e+06,0.119755,49152,49152,
1.32246e+06,0.115177,49152,49152,
1.32863e+06,0.112119,49152,49152,
1.33789e+06,0.107542,49152,49152,
1.34406e+06,0.104506,49152,49152,
1.35024e+06,0.101488,49152,49152,
1.35952e+06,0.0969994,49152,49152,
1.36571e+06,0.094037,49152,49152,
1.37501e+06,0.089642,49152,49152,
1.38122e+06,0.0867456,49152,49152,
1.39056e+06,0.0824529,49152,49152,
1.39679e+06,0.079626,49152,49152,
1.40304e+06,0.0768272,49152,49152,
1.41243e+06,0.0726816,49152,49152,
1.41871e+06,0.0699541,49152,49152,
1.42813e+06,0.0659191,49152,49152,
1.43443e+06,0.063266,49152,49152,
1.44073e+06,0.0606421,49152,49152,
1.4502e+06,0.0567597,49152,49152,
1.45652e+06,0.0542068,49152,49152,
1.46285e+06,0.0516817,49152,49152,
1.47237e+06,0.0479458,49152,49152,
1.47872e+06,0.0454893,49152,49152,
1.48508e+06,0.0430598,49152,49152,
1.49464e+06,0.039466,49152,49152,
1.50102e+06,0.0371035,49152,49152,
1.51059e+06,0.0336096,49152,49152,
1.51699e+06,0.0313133,49152,49152,
1.52338e+06,0.0290433,49152,49152,
1.53299e+06,0.0256869,49152,49152,
1.53939e+06,0.0234815,49152,49152,
1.5458e+06,0.0213015,49152,49152,
1.55542e+06,0.0180788,49152,49152,
1.56183e+06,0.0159614,49152,49152,
1.56825e+06,0.0138689,49152,49152,
1.57788e+06,0.0107758,49152,49152,
1.5843e+06,0.00874345,49152,49152,
1.59072e+06,0.00673469,49152,49152,
1.60033e+06,0.00376996,49152,49152,
1.60673e+06,0.00183075,49152,49152,
1.61307e+06,-6.63316e-05,49152,49152,
1.6225e+06,-0.00283493,49152,49152,
1.62872e+06,-0.00463031,49152,49152,
1.63798e+06,-0.00725373,49152,49152,
1.6441e+06,-0.0089587,49152,49152,
1.65017e+06,-0.0106281,49152,49152,
1.65918e+06,-0.0130684,49152,49152,
1.66514e+06,-0.0146539,49152,49152,
1.67398e+06,-0.0169705,49152,49152,
1.68272e+06,-0.0192149,49152,49152,
1.6885e+06,-0.0206734,49152,49152,
1.69707e+06,-0.0228048,49152,49152,
1.70273e+06,-0.0241895,49152,49152,
1.71114e+06,-0.0262149,49152,49152,
1.71948e+06,-0.0281838,49152,49152,
1.725e+06,-0.0294677,49152,49152,
1.73325e+06,-0.0313545,49152,49152,
1.74147e+06,-0.0331975,49152,49152,
1.74964e+06,-0.034994,49152,49152,
1.75506e+06,-0.0361665,49152,49152,
1.76316e+06,-0.0378907,49152,49152,
1.77124e+06,-0.0395761,49152,49152,
1.77931e+06,-0.0412253,49152,49152,
1.78737e+06,-0.0428401,49152,49152,
1.79275e+06,-0.0438981,49152,49152,
1.80083e+06,-0.045458,49152,49152,
1.80892e+06,-0.0469859,49152,49152,
1.81703e+06,-0.048482,49152,49152,
1.82515e+06,-0.0499461,49152,49152,
1.83058e+06,-0.0509043,49152,49152,
1.83875e+06,-0.0523141,49152,49152,
1.84694e+06,-0.05369,49152,49152,
1.85515e+06,-0.0550305,49152,49152,
1.86065e+06,-0.0559037,49152,49152,
1.86892e+06,-0.0571812,49152,49152,
1.87721e+06,-0.0584174,49152,49152,
1.88276e+06,-0.0592172,49152,49152,
1.89111e+06,-0.0603775,49152,49152,
1.89949e+06,-0.0614867,49152,49152,
1.90509e+06,-0.0621955,49152,49152,
1.91353e+06,-0.0632081,49152,49152,
1.922e+06,-0.0641545,49152,49152,
1.92766e+06,-0.0647448,49152,49152,
1.93619e+06,-0.0655631,49152,49152,
1.94474e+06,-0.0662924,49152,49152,
1.95047e+06,-0.0667238,49152,49152,
1.95908e+06,-0.0672799,49152,49152,
1.96774e+06,-0.0677151,49152,49152,
1.97352e+06,-0.067931,49152,49152,
1.98223e+06,-0.0681322,49152,49152,
1.98806e+06,-0.0681773,49152,49152,
1.99682e+06,-0.0680989,49152,49152,
2.00269e+06,-0.0679414,49152,49152,
2.01152e+06,-0.0675342,49152,49152,
2.02038e+06,-0.0669057,49152,49152,
2.02631e+06,-0.0663555,49152,49152,
2.03523e+06,-0.0653218,49152,49152,
2.0412e+06,-0.0644879,49152,49152,
2.05018e+06,-0.0630119,49152,49152,
2.05619e+06,-0.0618747,49152,49152,
2.06523e+06,-0.0599372,49152,49152,
2.07128e+06,-0.058492,49152,49152,
2.08039e+06,-0.0561001,49152,49152,
2.08648e+06,-0.0543623,49152,49152,
2.09259e+06,-0.0525173,49152,49152,
2.10178e+06,-0.049566,49152,49152,
2.10792e+06,-0.0474903,49152,49152,
2.11717e+06,-0.0442433,49152,49152,
2.12336e+06,-0.0420088,49152,49152,
2.13268e+06,-0.0385877,49152,49152,
2.13891e+06,-0.0362824,49152,49152,
2.14515e+06,-0.0339752,49152,49152,
2.15455e+06,-0.0305436,49152,49152,
2.16084e+06,-0.0282962,49152,49152,
2.1703e+06,-0.0250189,49152,49152,
2.17663e+06,-0.0229138,49152,49152,
2.18298e+06,-0.0208845,49152,49152,
2.19253e+06,-0.0180006,49152,49152,
2.1989e+06,-0.0161979,49152,49152,
2.20527e+06,-0.0144989,49152,49152,
2.21482e+06,-0.0121478,49152,49152,
2.22118e+06,-0.0107122,49152,49152,
2.22753e+06,-0.00938043,49152,49152,
2.23705e+06,-0.0075708,49152,49152,
2.24338e+06,-0.00648411,49152,49152,
2.25288e+06,-0.00502201,49152,49152,
2.2592e+06,-0.00415171,49152,49152,
2.26551e+06,-0.00335861,49152,49152,
2.27498e+06,-0.00230154,49152,49152,
2.28128e+06,-0.0016772,49152,49152,
2.28758e+06,-0.0011109,49152,49152,
2.29701e+06,-0.000359095,49152,49152,
2.3033e+06,8.40222e-05,49152,49152,
2.31271e+06,0.000672677,49152,49152,
2.31898e+06,0.00102034,49152,49152,
2.32525e+06,0.00133648,49152,49152,
2.33464e+06,0.00175879,49152,49152,
2.34089e+06,0.00201004,49152,49152,
2.35026e+06,0.00234793,49152,49152,
2.3565e+06,0.0025505,49152,49152,
2.36274e+06,0.00273724,49152,49152,
2.37208e+06,0.0029914,49152,49152,
2.37831e+06,0.00314572,49152,49152,
2.38764e+06,0.00335771,49152,49152,
2.39385e+06,0.00348766,49152,49152,
2.40006e+06,0.00360959,49152,49152,
2.40936e+06,0.00377925,49152,49152,
2.41556e+06,0.00388455,49152,49152,
2.42485e+06,0.00403231,49152,49152,
2.43104e+06,0.00412477,49152,49152,
2.44031e+06,0.00425549,49152,49152,
2.44649e+06,0.00433789,49152,49152,
2.45266e+06,0.00441689,49152,49152,
2.46192e+06,0.00452965,49152,49152,
2.46808e+06,0.00460139,49152,49152,
2.47732e+06,0.0047044,49152,49152,
2.48347e+06,0.00477032,49152,49152,
2.4927e+06,0.00486551,49152,49152,
2.49884e+06,0.00492676,49152,49152,
2.50806e+06,0.00501567,49152,49152,
2.51419e+06,0.00507317,49152,49152,
2.52033e+06,0.00512938,49152,49152,
2.52952e+06,0.00521156,49152,49152,
2.53565e+06,0.00526507,49152,49152,
2.54483e+06,0.00534365,49152,49152,
2.55095e+06,0.00539505,49152,49152,
2.56012e+06,0.0054709,49152,49152,
2.56623e+06,0.00552074,49152,49152,
2.57539e+06,0.00559462,49152,49152,
2.5815e+06,0.00564338,49152,49152,
2.5876e+06,0.00569184,49152,49152,
2.59675e+06,0.00576409,49152,49152,
2.60285e+06,0.00581206,49152,49152,
2.61199e+06,0.00588388,49152,49152,
2.61808e+06,0.00593174,49152,49152,
2.62722e+06,0.00600364,49152,49152,
2.63331e+06,0.00605173,49152,49152,
2.64244e+06,0.00612418,49152,49152,
2.64852e+06,0.00617278,49152,49152,
2.65765e+06,0.00624618,49152,49152,
2.66374e+06,0.00629553,49152,49152,
2.67286e+06,0.00637022,49152,49152,
2.67895e+06,0.00642052,49152,49152,
2.68503e+06,0.00647125,49152,49152,
2.69416e+06,0.00654821,49152,49152,
2.70024e+06,0.00660013,49152,49152,
2.70938e+06,0.00667897,49152,49152,
2.71547e+06,0.00673222,49152,49152,
2.72461e+06,0.00681315,49152,49152,
2.7307e+06,0.00686785,49152,49152,
2.73985e+06,0.00695105,49152,49152,
2.74595e+06,0.00700732,49152,49152,
2.75512e+06,0.00709299,49152,49152,
2.76123e+06,0.00715097,49152,49152,
2.77041e+06,0.00723929,49152,49152,
2.77653e+06,0.00729912,49152,49152,
2.78266e+06,0.00735972,49152,49152,
2.79186e+06,0.00745215,49152,49152,
2.798e+06,0.00751481,49152,49152,
2.80722e+06,0.00761042,49152,49152,
2.81337e+06,0.00767529,49152,49152,
2.82261e+06,0.00777433,49152,49152,
2.82878e+06,0.00784154,49152,49152,
2.83804e+06,0.00794419,49152,49152,
2.84421e+06,0.00801388,49152,49152,
2.85039e+06,0.00808457,49152,49152,
2.85967e+06,0.00819254,49152,49152,
2.86586e+06,0.00826581,49152,49152,
2.87515e+06,0.00837766,49152,49152,
2.88135e+06,0.00845353,49152,49152,
2.88755e+06,0.00853043,49152,49152,
2.89685e+06,0.0086477,49152,49152,
2.90306e+06,0.00872713,49152,49152,
2.91237e+06,0.00884813,49152,49152,
2.91858e+06,0.00893,49152,49152,
2.92789e+06,0.00905453,49152,49152,
2.9341e+06,0.00913868,49152,49152,
2.94031e+06,0.00922369,49152,49152,
2.94962e+06,0.00935274,49152,49152,
2.95583e+06,0.00943977,49152,49152,
2.96515e+06,0.00957169,49152,49152,
2.97136e+06,0.00966053,49152,49152,
2.97756e+06,0.00975002,49152,49152,
2.98687e+06,0.00988545,49152,49152,
2.99307e+06,0.00997647,49152,49152,
3.00238e+06,0.010114,49152,49152,
3.00858e+06,0.0102064,49152,49152,
3.01787e+06,0.0103459,49152,49152,
3.02407e+06,0.0104395,49152,49152,
3.03026e+06,0.0105335,49152,49152,
3.03955e+06,0.0106753,49152,49152,
3.04573e+06,0.0107704,49152,49152,
3.05501e+06,0.0109138,49152,49152,
3.06119e+06,0.0110099,49152,49152,
3.07045e+06,0.0111547,49152,49152,
3.07662e+06,0.0112518,49152,49152,
3.08279e+06,0.0113493,49152,49152,
3.09203e+06,0.0114962,49152,49152,
3.09819e+06,0.0115947,49152,49152,
3.10742e+06,0.0117433,49152,49152,
3.11356e+06,0.0118428,49152,49152,
3.12277e+06,0.0119931,49152,49152,
3.1289e+06,0.0120938,49152,49152,
3.13503e+06,0.0121951,49152,49152,
3.14421e+06,0.0123479,49152,49152,
3.15032e+06,0.0124504,49152,49152,
3.15947e+06,0.0126052,49152,49152,
3.16556e+06,0.0127091,49152,49152,
3.17467e+06,0.0128661,49152,49152,
3.18074e+06,0.0129715,49152,49152,
3.18981e+06,0.0131307,49152,49152,
3.19585e+06,0.0132377,49152,49152,
3.20487e+06,0.0133994,49152,49152,
3.21087e+06,0.013508,49152,49152,
3.21983e+06,0.0136724,49152,49152,
3.22579e+06,0.0137828,49152,49152,
3.23469e+06,0.0139499,49152,49152,
3.2406e+06,0.0140623,49152,49152,
3.24943e+06,0.0142325,49152,49152,
3.2553e+06,0.0143472,49152,49152,
3.26406e+06,0.0145209,49152,49152,
3.27279e+06,0.014697,49152,49152,
3.27859e+06,0.0148158,49152,49152,
3.28727e+06,0.0149963,49152,49152,
3.29304e+06,0.0151183,49152,49152,
3.30167e+06,0.0153041,49152,49152,
3.3103e+06,0.0154933,49152,49152,
3.31604e+06,0.0156215,49152,49152,
3.32465e+06,0.0158171,49152,49152,
3.33039e+06,0.0159499,49152,49152,
3.339e+06,0.0161527,49152,49152,
3.34761e+06,0.0163603,49152,49152,
3.35336e+06,0.0165014,49152,49152,
3.36199e+06,0.0167174,49152,49152,
3.36775e+06,0.0168644,49152,49152,
3.37641e+06,0.0170895,49152,49152,
3.38509e+06,0.0173204,49152,49152,
3.39088e+06,0.0174777,49152,49152,
3.3996e+06,0.0177189,49152,49152,
3.40542e+06,0.0178833,49152,49152,
3.41418e+06,0.0181353,49152,49152,
3.42003e+06,0.0183071,49152,49152,
3.42883e+06,0.0185707,49152,49152,
3.43766e+06,0.0188413,49152,49152,
3.44356e+06,0.0190257,49152,49152,
3.45242e+06,0.0193087,49152,49152,
3.45835e+06,0.0195017,49152,49152,
3.46726e+06,0.019798,49152,49152,
3.47322e+06,0.0200002,49152,49152,
3.48218e+06,0.0203108,49152,49152,
3.48817e+06,0.020523,49152,49152,
3.49718e+06,0.0208494,49152,49152,
3.5032e+06,0.0210726,49152,49152,
3.51226e+06,0.0214166,49152,49152,
3.51831e+06,0.0216523,49152,49152,
3.52742e+06,0.0220163,49152,49152,
3.53351e+06,0.0222663,49152,49152,
3.54267e+06,0.0226533,49152,49152,
3.5488e+06,0.02292,49152,49152,
3.55801e+06,0.0233344,49152,49152,
3.56417e+06,0.023621,49152,49152,
3.57034e+06,0.0239167,49152,49152,
3.57962e+06,0.0243791,49152,49152,
3.58583e+06,0.0247011,49152,49152,
3.59517e+06,0.0252074,49152,49152,
3.60141e+06,0.0255622,49152,49152,
3.60766e+06,0.0259324,49152,49152,
3.61707e+06,0.02652,49152,49152,
3.62336e+06,0.0269357,49152,49152,
3.63282e+06,0.0276004,49152,49152,
3.63914e+06,0.0280742,49152,49152,
3.64547e+06,0.0285755,49152,49152,
3.655e+06,0.029385,49152,49152,
3.66137e+06,0.0299672,49152,49152,
3.66773e+06,0.0305862,49152,49152,
3.67728e+06,0.0315902,49152,49152,
3.68365e+06,0.0323146,49152,49152,
3.69001e+06,0.0330868,49152,49152,
3.69956e+06,0.0343414,49152,49152,
3.70592e+06,0.0352461,49152,49152,
3.71547e+06,0.0367117,49152,49152,
3.72183e+06,0.0377636,49152,49152,
3.72819e+06,0.0388765,49152,49152,
3.73773e+06,0.0406603,49152,49152,
3.74409e+06,0.0419241,49152,49152,
3.75044e+06,0.0432446,49152,49152,
3.75998e+06,0.0453233,49152,49152,
3.76633e+06,0.0467664,49152,49152,
3.77269e+06,0.0482474,49152,49152,
3.78222e+06,0.0505214,49152,49152,
3.78857e+06,0.0520583,49152,49152,
3.7981e+06,0.0543675,49152,49152,
3.80445e+06,0.0558923,49152,49152,
3.8108e+06,0.0573911,49152,49152,
3.82033e+06,0.059563,49152,49152,
3.82668e+06,0.0609425,49152,49152,
3.83302e+06,0.0622534,49152,49152,
3.84254e+06,0.0640682,49152,49152,
3.84889e+06,0.0651632,49152,49152,
3.85523e+06,0.0661568,49152,49152,
3.86475e+06,0.0674431,49152,49152,
3.87109e+06,0.0681577,49152,49152,
3.8806e+06,0.0690074,49152,49152,
3.88694e+06,0.069424,49152,49152,
3.89328e+06,0.0697208,49152,49152,
3.90278e+06,0.069945,49152,49152,
3.90911e+06,0.0699512,49152,49152,
3.91543e+06,0.0698473,49152,49152,
3.92491e+06,0.0694946,49152,49152,
3.93123e+06,0.0691359,49152,49152,
3.93755e+06,0.0686847,49152,49152,
3.94702e+06,0.0678471,49152,49152,
3.95332e+06,0.0671901,49152,49152,
3.96278e+06,0.0660714,49152,49152,
3.96908e+06,0.0652452,49152,49152,
3.97538e+06,0.064361,49152,49152,
3.98482e+06,0.0629379,49152,49152,
3.99111e+06,0.0619319,49152,49152,
4.00055e+06,0.0603488,49152,49152,
4.00683e+06,0.0592503,49152,49152,
4.01312e+06,0.058122,49152,49152,
4.02254e+06,0.056382,49152,49152,
4.02881e+06,0.055195,49152,49152,
4.03509e+06,0.0539902,49152,49152,
4.0445e+06,0.0521556,49152,49152,
4.05076e+06,0.0509179,49152,49152,
4.06016e+06,0.0490452,49152,49152,
4.06643e+06,0.0477887,49152,49152,
4.07269e+06,0.0465281,49152,49152,
4.08208e+06,0.0446327,49152,49152,
4.08833e+06,0.0433682,49152,49152,
4.09771e+06,0.0414734,49152,49152,
4.10396e+06,0.040213,49152,49152,
4.11021e+06,0.038956,49152,49152,
4.11958e+06,0.0370788,49152,49152,
4.12583e+06,0.0358339,49152,49152,
4.13519e+06,0.0339783,49152,49152,
4.14143e+06,0.0327497,49152,49152,
4.14767e+06,0.0315286,49152,49152,
4.15703e+06,0.0297118,49152,49152,
4.16326e+06,0.0285111,49152,49152,
4.17261e+06,0.0267265,49152,49152,
4.17884e+06,0.0255482,49152,49152,
4.18507e+06,0.0243792,49152,49152,
4.19441e+06,0.0226438,49152,49152,
4.20063e+06,0.0214991,49152,49152,
4.20997e+06,0.0198008,49152,49152,
4.21619e+06,0.0186812,49152,49152,
4.22552e+06,0.0170207,49152,49152,
4.23174e+06,0.0159265,49152,49152,
4.23796e+06,0.0148425,49152,49152,
4.24728e+06,0.0132356,49152,49152,
4.2535e+06,0.0121771,49152,49152,
4.26282e+06,0.0106093,49152,49152,
4.26903e+06,0.0095782,49152,49152,
4.27523e+06,0.00855938,49152,49152,
4.28452e+06,0.00705442,49152,49152,
4.29071e+06,0.00606689,49152,49152,
4.29997e+06,0.00460814,49152,49152,
4.30614e+06,0.00365163,49152,49152,
4.31537e+06,0.00224032,49152,49152,
4.32151e+06,0.00131483,49152,49152,
4.32765e+06,0.000401494,49152,49152,
4.33683e+06,-0.000945915,49152,49152,
4.34294e+06,-0.00182913,49152,49152,
4.35208e+06,-0.00313142,49152,49152,
4.35816e+06,-0.0039847,49152,49152,
4.36726e+06,-0.00524257,49152,49152,
4.37332e+06,-0.00606665,49152,49152,
4.38238e+06,-0.00728132,49152,49152,
4.38841e+06,-0.00807701,49152,49152,
4.39744e+06,-0.00924971,49152,49152,
4.40344e+06,-0.0100179,49152,49152,
4.41243e+06,-0.0111499,49152,49152,
4.41842e+06,-0.011891,49152,49152,
4.42737e+06,-0.0129829,49152,49152,
4.43333e+06,-0.0136977,49152,49152,
4.44225e+06,-0.0147508,49152,49152,
4.44819e+06,-0.0154404,49152,49152,
4.45708e+06,-0.0164563,49152,49152,
4.463e+06,-0.0171216,49152,49152,
4.47188e+06,-0.018102,49152,49152,
4.47779e+06,-0.018744,49152,49152,
4.48664e+06,-0.0196902,49152,49152,
4.49255e+06,-0.0203099,49152,49152,
4.50139e+06,-0.0212233,49152,49152,
4.51024e+06,-0.0221176,49152,49152,
4.51614e+06,-0.0227033,49152,49152,
4.52499e+06,-0.0235666,49152,49152,
4.53089e+06,-0.0241321,49152,49152,
4.53975e+06,-0.0249653,49152,49152,
4.54565e+06,-0.0255111,49152,49152,
4.55452e+06,-0.0263151,49152,49152,
