depth	adapt	refine	coarsen	errorNorm
10	00	25000	5000	0.0475940548038108
10	00	50000	10000	0.0475940548038108
10	12	50000	10000	0.0321386560500507
10	13	10000	2000	0.0186053330042766
10	13	25000	5000	0.0281240560183617
10	13	5000	1000	0.0152843006126886
10	14	10000	2000	0.0180969112415666
10	14	25000	5000	0.0280740825675222
10	14	50000	10000	0.0324270816389889
10	14	5000	1000	0.0132341121817735
20	00	50000	10000	0.0345814150750874
22	00	25000	5000	0.0163916786432794
22	00	50000	10000	0.0163916786432794
22	00	5000	1000	0.0163916786432794
24	00	50000	10000	0
