%%MatrixMarket matrix array real general
20 20
1.
0.
0.
0.
0.
0.
0.
0.
0.
0.
0.
0.
0.
0.
0.
0.
0.
0.
0.
0.
0.
1.
0.
0.
0.
0.
0.
0.
0.
0.
0.
0.
0.
0.
0.
0.
0.
0.
0.
0.
0.
0.
1.
0.
0.
0.
0.
0.
0.
0.
0.
0.
0.
0.
0.
0.
0.
0.
0.
0.
0.
0.
0.
1.
0.
0.
0.
0.
0.
0.
0.
0.
0.
0.
0.
0.
0.
0.
0.
0.
.7071067810
0.
0.
0.
-.7500000000
0.
0.
0.
0.
0.
.4330127020
0.
0.
0.
0.
0.
0.
0.
0.
0.
0.
.7071067810
0.
0.
0.
-.7500000000
0.
0.
0.
0.
0.
.4330127020
0.
0.
0.
0.
0.
0.
0.
0.
0.
0.
.7071067810
0.
0.
0.
-.7500000000
0.
0.
0.
0.
0.
.4330127020
0.
0.
0.
0.
0.
0.
0.
-.1443375673
0.
0.
0.
-.4082482906
0.
0.
.5833333333
0.
0.
.7071067810
0.
0.
-.4330127020
0.
0.
.1863389981
0.
0.
0.
0.
-.1443375673
0.
0.
0.
-.4082482906
0.
0.
.5833333333
0.
0.
.7071067810
0.
0.
-.4330127020
0.
0.
.1863389981
0.
0.
-.1250000000
0.
0.
0.
.2651650429
0.
0.
.2165063510
0.
-.4687500000
.2551551816
0.
0.
-.6250000000
0.
.4149705060
.4841229182
0.
-.2096313728
.8267972847e-1
-.4082482906
0.
0.
0.
-.7216878367
0.
0.
0.
0.
0.
-.2500000000
0.
0.
0.
0.
0.
0.
0.
0.
0.
0.
-.4082482906
0.
0.
0.
-.7216878367
0.
0.
0.
0.
0.
-.2500000000
0.
0.
0.
0.
0.
0.
0.
0.
0.
0.
-.4082482906
0.
0.
0.
-.7216878367
0.
0.
0.
0.
0.
-.2500000000
0.
0.
0.
0.
0.
0.
0.
-.1250000000
0.
0.
0.
-.3535533905
0.
0.
.7938566203
0.
0.
-.6123724358
0.
0.
-.1250000000
0.
0.
-.1613743061
0.
0.
0.
0.
-.1250000000
0.
0.
0.
-.3535533905
0.
0.
.7938566203
0.
0.
-.6123724358
0.
0.
-.1250000000
0.
0.
-.1613743061
0.
0.
.2453738645
0.
0.
0.
.5103103630e-1
0.
0.
.3750000000
0.
-.7252962758
-.4065863991
0.
0.
-.4330127020e-1
0.
.3187500000
-.5031152948
0.
.2420614591e-1
-.8592329430e-1
.1613743061
0.
0.
0.
.4564354646
0.
0.
.4658474951
0.
0.
.1581138830
0.
0.
.2904737510
0.
0.
.4166666667e-1
0.
0.
0.
0.
.1613743061
0.
0.
0.
.4564354646
0.
0.
.4658474951
0.
0.
.1581138830
0.
0.
.2904737510
0.
0.
.4166666667e-1
0.
0.
-.5590169942e-1
0.
0.
0.
.1185854122
0.
0.
.9682458365e-1
0.
-.6568449682
.2966830521
0.
0.
.6149186937
0.
-.1371681602
.2165063510
0.
.1562500000
.3697549864e-1
-.6614378278e-1
0.
0.
0.
-.2338535867
0.
0.
-.4091585443
0.
-.3047338563
-.8100925875e-1
0.
0.
-.2551260193
0.
-.2495867120
-.3659625275e-1
0.
-.6866878320e-1
-.6250000000e-2
