%%MatrixMarket matrix array real general
20 20
.5000000000
0.
0.
0.
0.
0.
0.
0.
0.
0.
0.
0.
0.
0.
0.
0.
0.
0.
0.
0.
0.
.5000000000
0.
0.
0.
0.
0.
0.
0.
0.
0.
0.
0.
0.
0.
0.
0.
0.
0.
0.
0.
0.
.5000000000
0.
0.
0.
0.
0.
0.
0.
0.
0.
0.
0.
0.
0.
0.
0.
0.
0.
0.
0.
0.
.5000000000
0.
0.
0.
0.
0.
0.
0.
0.
0.
0.
0.
0.
0.
0.
0.
0.
0.
0.
0.
0.
-.2500000000
0.
0.
0.
0.
0.
-.4330127020
0.
0.
0.
0.
0.
0.
0.
0.
0.
0.
0.
0.
0.
0.
-.2500000000
0.
0.
0.
0.
0.
-.4330127020
0.
0.
0.
0.
0.
0.
0.
0.
0.
0.
0.
0.
0.
0.
-.2500000000
0.
0.
0.
0.
0.
-.4330127020
0.
0.
0.
0.
0.
0.
0.
0.
0.
0.
0.
0.
0.
0.
.1666666667
0.
0.
0.
0.
0.
.2886751347
0.
0.
.3726779962
0.
0.
0.
0.
0.
0.
0.
0.
0.
0.
0.
.1666666667
0.
0.
0.
0.
0.
.2886751347
0.
0.
.3726779962
0.
0.
0.
0.
0.
0.
0.
0.
0.
0.
0.
-.1250000000
0.
0.
0.
0.
0.
-.2165063510
0.
0.
-.2795084971
-.3307189139
-.8164965809
0.
0.
0.
.7216878367
0.
0.
0.
0.
0.
-.7500000000
0.
0.
0.
0.
0.
0.
0.
0.
0.
0.
-.8164965809
0.
0.
0.
.7216878367
0.
0.
0.
0.
0.
-.7500000000
0.
0.
0.
0.
0.
0.
0.
0.
0.
0.
-.8164965809
0.
0.
0.
.7216878367
0.
0.
0.
0.
0.
-.7500000000
0.
0.
0.
0.
0.
0.
0.
-.2500000000
0.
0.
0.
.3535533905
0.
0.
-.4330127020
0.
0.
.6123724358
0.
0.
-.2500000000
0.
0.
.9682458365
0.
0.
0.
0.
-.2500000000
0.
0.
0.
.3535533905
0.
0.
-.4330127020
0.
0.
.6123724358
0.
0.
-.2500000000
0.
0.
.9682458365
0.
0.
-.1154700539
0.
0.
0.
.1632993162
0.
0.
-.2000000000
0.
.3031088914
.2828427124
0.
0.
-.3464101616
0.
.3250000000
-.4472135954
0.
-.9682458365e-1
-1.031079532
2.904737510
0.
0.
0.
-2.464751509
0.
0.
1.155301788
0.
0.
3.320391543
0.
0.
-1.484643616
0.
0.
1.083333333
0.
0.
0.
0.
2.904737510
0.
0.
0.
-2.464751509
0.
0.
1.155301788
0.
0.
3.320391543
0.
0.
-1.484643616
0.
0.
1.083333333
0.
0.
1.341640786
0.
0.
0.
-1.581138830
0.
0.
1.290994449
0.
-.7267220925
-1.278019301
0.
0.
.4472135954
0.
.3227486122e-1
-4.041451885
0.
1.375000000
-1.922725929
-11.64130577
0.
0.
0.
10.85080642
0.
0.
-6.197388082
0.
1.974864371
-15.76980237
0.
0.
8.919961562
0.
-2.776822654
-8.002380602
0.
2.387560769
-1.575000000
