%%MatrixMarket matrix array real general
20 20
1.414213562
0.
0.
0.
0.
0.
0.
0.
0.
0.
0.
0.
0.
0.
0.
0.
0.
0.
0.
0.
-2.449489743
0.
0.
0.
0.
0.
0.
0.
0.
0.
4.898979486
0.
0.
0.
0.
0.
0.
0.
0.
0.
3.162277660
0.
0.
0.
0.
0.
0.
0.
0.
0.
-18.97366596
0.
0.
0.
0.
0.
18.97366596
0.
0.
0.
-3.741657387
0.
0.
0.
0.
0.
0.
0.
0.
0.
44.89988864
0.
0.
0.
0.
0.
-112.2497216
0.
0.
74.83314774
-2.
0.
0.
0.
6.
0.
0.
0.
0.
0.
0.
0.
0.
0.
0.
0.
0.
0.
0.
0.
3.464101616
0.
0.
0.
-10.39230485
0.
0.
0.
0.
0.
-6.928203232
0.
0.
20.78460970
0.
0.
0.
0.
0.
0.
-4.472135954
0.
0.
0.
13.41640786
0.
0.
0.
0.
0.
26.83281572
0.
0.
-80.49844717
0.
0.
-26.83281572
0.
80.49844717
0.
2.449489743
0.
0.
0.
-19.59591794
0.
0.
24.49489743
0.
0.
0.
0.
0.
0.
0.
0.
0.
0.
0.
0.
-4.242640686
0.
0.
0.
33.94112549
0.
0.
-42.42640686
0.
0.
8.485281372
0.
0.
-67.88225098
0.
84.85281372
0.
0.
0.
0.
-2.828427124
0.
0.
0.
42.42640686
0.
0.
-127.2792206
0.
98.99494934
0.
0.
0.
0.
0.
0.
0.
0.
0.
0.
-3.464101616
6.928203232
0.
0.
3.464101616
0.
0.
0.
0.
0.
0.
0.
0.
0.
0.
0.
0.
0.
0.
0.
6.
-12.
0.
0.
-6.
0.
0.
0.
0.
0.
-12.
24.
0.
12.
0.
0.
0.
0.
0.
0.
-7.745966692
15.49193338
0.
0.
7.745966692
0.
0.
0.
0.
0.
46.47580015
-92.95160030
0.
-46.47580015
0.
0.
-46.47580015
92.95160030
46.47580015
0.
4.242640686
-8.485281372
0.
0.
-25.45584412
42.42640686
0.
21.21320343
0.
0.
0.
0.
0.
0.
0.
0.
0.
0.
0.
0.
-7.348469229
14.69693846
0.
0.
44.09081537
-73.48469229
0.
-36.74234614
0.
0.
14.69693846
-29.39387692
0.
-88.18163075
146.9693846
73.48469229
0.
0.
0.
0.
-4.898979486
9.797958972
0.
0.
63.68673332
-117.5755077
0.
-161.6663230
205.7571384
102.8785692
0.
0.
0.
0.
0.
0.
0.
0.
0.
0.
5.477225575
-32.86335345
32.86335345
0.
-10.95445115
32.86335345
0.
5.477225575
0.
0.
0.
0.
0.
0.
0.
0.
0.
0.
0.
0.
-9.486832980
56.92099788
-56.92099788
0.
18.97366596
-56.92099788
0.
-9.486832980
0.
0.
18.97366596
-113.8419958
113.8419958
-37.94733192
113.8419958
18.97366596
0.
0.
0.
0.
-6.324555320
37.94733192
-37.94733192
0.
56.92099788
-303.5786554
265.6313234
-94.86832980
265.6313234
44.27188724
0.
0.
0.
0.
0.
0.
0.
0.
0.
0.
-7.483314774
89.79977729
-224.4994432
149.6662955
22.44994432
-179.5995546
224.4994432
-22.44994432
89.79977729
7.483314774
0.
0.
0.
0.
0.
0.
0.
0.
0.
0.
