%%MatrixMarket matrix array real general
20 10
-.1340614568e-1
.2322012545e-1
-.2997705306e-1
.3546932749e-1
.1146243195e-2
-.1985351453e-2
.2563077703e-2
-.1498139764e-1
.2594854185e-1
.1100121325e-1
.1985351453e-2
-.3438729585e-2
.4439380807e-2
-.3320859927e-1
.5751898119e-1
.2156961794e-1
-.3912303979e-1
.6776309270e-1
.3109305337e-1
.3294813564e-1
-.5811504871e-1
.1006582171
-.1299491994
.1537579664
.8218709003e-1
-.1423522158
.1837759203
-.5272573275e-1
.9132364797e-1
.1245322472e-1
.1091925468
-.1891270389
.2441619572
-.3820943187e-1
.6618067742e-1
.5515056451e-2
.4287211731e-1
-.7425668538e-1
-.2784625702e-1
-.7581949096e-1
-.5811504871e-1
.1006582171
-.1299491994
.1537579663
.8218709011e-1
-.1423522158
.1837759203
-.5272573275e-1
.9132364797e-1
.1245322472e-1
-.1091925469
.1891270390
-.2441619574
.3820943193e-1
-.6618067742e-1
-.5515056451e-2
.4287211729e-1
-.7425668538e-1
-.2784625702e-1
.7581949096e-1
-.1340614568e-1
.2322012547e-1
-.2997705307e-1
.3546932754e-1
.1146243196e-2
-.1985351454e-2
.2563077706e-2
-.1498139764e-1
.2594854188e-1
.1100121325e-1
-.1985351454e-2
.3438729588e-2
-.4439380807e-2
.3320859926e-1
-.5751898117e-1
-.2156961794e-1
-.3912303978e-1
.6776309264e-1
.3109305338e-1
-.3294813565e-1
-.5811504871e-1
.1006582171
-.1299491994
.1537579662
.5346997435e-1
-.9261271237e-1
.1195624975
.3643997113e-1
-.6311588137e-1
-.3530856516e-1
.1257723813
-.2178441547
.2812355943
.3901033278e-1
-.6756787835e-1
-.5515056450e-1
-.5681817023e-1
.9841195758e-1
-.4920597878e-1
0.
-.3181980514
.5511351922
-.7115124735
.8418729121
0.
0.
0.
.1312226648
-.2272843224
-.4545686449e-1
0.
0.
0.
0.
0.
0.
.1173691195
-.2032892782
.1016446391
0.
-.5811504874e-1
.1006582171
-.1299491995
.1537579664
.5346997442e-1
-.9261271240e-1
.1195624975
.3643997114e-1
-.6311588142e-1
-.3530856518e-1
-.1257723814
.2178441546
-.2812355944
-.3901033278e-1
.6756787845e-1
.5515056457e-1
-.5681817020e-1
.9841195768e-1
-.4920597882e-1
0.
-.5811504871e-1
.1006582170
-.1299491994
.1537579663
-.1356570646
.2349649283
-.3033384178
-.7680480510e-2
.1330298246e-1
.6021501464e-1
.1657983447e-1
-.2871711568e-1
.3707363693e-1
.7721976470e-1
-.1337485559
.5515056449e-1
-.7490005736e-2
.1297307049e-1
-.6486535244e-2
0.
-.5811504876e-1
.1006582172
-.1299491995
.1537579664
-.1356570646
.2349649284
-.3033384180
-.7680480512e-2
.1330298247e-1
.6021501465e-1
-.1657983447e-1
.2871711570e-1
-.3707363695e-1
-.7721976474e-1
.1337485559
-.5515056457e-1
-.7490005739e-2
.1297307048e-1
-.6486535242e-2
0.
-.1340614568e-1
.2322012546e-1
-.2997705306e-1
.3546932753e-1
-.2292486392e-2
.3970702907e-2
-.5126155411e-2
-.5332738507e-1
.9236574035e-1
-.5126491036e-1
0.
0.
0.
0.
0.
0.
.3749077515e-2
-.6493592735e-2
.3246796368e-2
0.
