%%MatrixMarket matrix array real general
16 20
1.414213562
1.414213562
1.414213562
1.414213562
1.414213562
1.414213562
1.414213562
1.414213562
1.414213562
1.414213562
1.414213562
1.414213562
1.414213562
1.414213562
1.414213562
1.414213562
-2.449489743
-1.095445115
1.095445115
2.449489743
-2.449489743
-1.095445115
1.095445115
2.449489743
-2.449489743
-1.095445115
1.095445115
2.449489743
-2.449489743
-1.095445115
1.095445115
2.449489743
3.162277660
-.6324555318
-.6324555318
3.162277660
3.162277660
-.6324555318
-.6324555318
3.162277660
3.162277660
-.6324555318
-.6324555318
3.162277660
3.162277660
-.6324555318
-.6324555318
3.162277660
-3.741657387
1.673320053
-1.673320053
3.741657387
-3.741657387
1.673320053
-1.673320053
3.741657387
-3.741657387
1.673320053
-1.673320053
3.741657387
-3.741657387
1.673320053
-1.673320053
3.741657387
4.
4.
4.
4.
2.341640786
2.341640786
2.341640786
2.341640786
-.341640786
-.341640786
-.341640786
-.341640786
-2.
-2.
-2.
-2.
-6.928203232
-3.098386677
3.098386677
6.928203232
-4.055840816
-1.813827154
1.813827154
4.055840816
.5917391998
.2646338150
-.2646338150
-.5917391998
3.464101616
1.549193338
-1.549193338
-3.464101616
8.944271908
-1.788854382
-1.788854382
8.944271908
5.236067976
-1.047213595
-1.047213595
5.236067976
-.7639320216
.1527864043
.1527864043
-.7639320216
-4.472135954
.8944271908
.8944271908
-4.472135954
7.348469229
7.348469229
7.348469229
7.348469229
1.095445115
1.095445115
1.095445115
1.095445115
-1.095445115
-1.095445115
-1.095445115
-1.095445115
2.449489743
2.449489743
2.449489743
2.449489743
-12.72792206
-5.692099786
5.692099786
12.72792206
-1.897366595
-.8485281372
.8485281372
1.897366595
1.897366595
.8485281372
-.8485281372
-1.897366595
-4.242640686
-1.897366595
1.897366595
4.242640686
11.31370850
11.31370850
11.31370850
11.31370850
-1.264911064
-1.264911064
-1.264911064
-1.264911064
1.264911064
1.264911064
1.264911064
1.264911064
-2.828427124
-2.828427124
-2.828427124
-2.828427124
0.
0.
0.
0.
-.9574541388
-.9574541388
-.9574541388
-.9574541388
-2.506647478
-2.506647478
-2.506647478
-2.506647478
-3.464101616
-3.464101616
-3.464101616
-3.464101616
0.
0.
0.
0.
1.658359214
.7416407864
-.7416407864
-1.658359214
4.341640786
1.941640786
-1.941640786
-4.341640786
6.
2.683281572
-2.683281572
-6.
0.
0.
0.
0.
-2.140932538
.4281865076
.4281865076
-2.140932538
-5.605034154
1.121006831
1.121006831
-5.605034154
-7.745966692
1.549193338
1.549193338
-7.745966692
0.
0.
0.
0.
-3.070003641
-3.070003641
-3.070003641
-3.070003641
-1.172637045
-1.172637045
-1.172637045
-1.172637045
4.242640686
4.242640686
4.242640686
4.242640686
0.
0.
0.
0.
5.317402286
2.378014595
-2.378014595
-5.317402286
2.031066944
.9083207499
-.9083207499
-2.031066944
-7.348469229
-3.286335344
3.286335344
7.348469229
0.
0.
0.
0.
-4.485220266
-4.485220266
-4.485220266
-4.485220266
2.525628468
2.525628468
2.525628468
2.525628468
-4.898979486
-4.898979486
-4.898979486
-4.898979486
0.
0.
0.
0.
.4184228013
.4184228013
.4184228013
.4184228013
2.867912544
2.867912544
2.867912544
2.867912544
5.477225575
5.477225575
5.477225575
5.477225575
0.
0.
0.
0.
-.7247295507
-.3241089081
.3241089081
.7247295507
-4.967370234
-2.221475504
2.221475504
4.967370234
-9.486832980
-4.242640686
4.242640686
9.486832980
0.
0.
0.
0.
1.964136704
1.964136704
1.964136704
1.964136704
3.095507552
3.095507552
3.095507552
3.095507552
-6.324555320
-6.324555320
-6.324555320
-6.324555320
0.
0.
0.
0.
-.1580069126
-.1580069126
-.1580069126
-.1580069126
-2.835318997
-2.835318997
-2.835318997
-2.835318997
-7.483314774
-7.483314774
-7.483314774
-7.483314774
