%%MatrixMarket matrix array real general
20 16
-.9820927513e-2
.1701034544e-1
-.2196026153e-1
.1113588508e-1
-.2777777778e-1
.4811252245e-1
-.6211299937e-1
-.5103103630e-1
.8838834762e-1
-.5892556509e-1
0.
0.
0.
0.
0.
.2041241452e-1
0.
0.
.8784104612e-2
.1484784677e-2
-.4910463757e-1
.3803628867e-1
.2196026152e-1
-.2490059601e-1
-.1388888889
.1075828706
.6211299937e-1
-.2551551817
.1976423534
-.2946278254
0.
0.
0.
0.
0.
.1020620727
0.
0.
.4392052305e-1
.7423923388e-2
-.4910463757e-1
-.3803628871e-1
.2196026152e-1
.2490059602e-1
-.1388888889
-.1075828707
.6211299937e-1
-.2551551816
-.1976423537
-.2946278254
0.
0.
0.
0.
0.
.1020620726
0.
0.
.4392052305e-1
.7423923386e-2
-.9820927513e-2
-.1701034544e-1
-.2196026153e-1
-.1113588508e-1
-.2777777778e-1
-.4811252245e-1
-.6211299937e-1
-.5103103630e-1
-.8838834762e-1
-.5892556509e-1
0.
0.
0.
0.
0.
.2041241452e-1
0.
0.
.8784104612e-2
.1484784677e-2
-.4910463757e-1
.8505172722e-1
-.1098013076
.5567942541e-1
-.8130697173e-1
.1408278060
-.1818079158
-.3803628868e-1
.6588078456e-1
0.
.3324493542e-1
-.5758191722e-1
.7433793548e-1
.1065973485
-.1846320236
.1100932682
-.1452856955e-1
.2516422062e-1
-.8784104609e-1
.2166271727e-2
-.2455231880
.1901814434
.1098013076
-.1245029801
-.4065348587
.3149005471
.1818079158
-.1901814436
.1473139125
0.
.1662246771
-.1287570810
-.7433793548e-1
.5329867431
-.4128497551
.5504663412
-.7264284777e-1
.5626890782e-1
-.4392052307
.1083135864e-1
-.2455231878
-.1901814436
.1098013076
.1245029801
-.4065348587
-.3149005473
.1818079158
-.1901814434
-.1473139127
0.
.1662246771
.1287570811
-.7433793548e-1
.5329867429
.4128497560
.5504663412
-.7264284777e-1
-.5626890792e-1
-.4392052305
.1083135863e-1
-.4910463757e-1
-.8505172722e-1
-.1098013076
-.5567942541e-1
-.8130697173e-1
-.1408278060
-.1818079158
-.3803628868e-1
-.6588078456e-1
0.
.3324493542e-1
.5758191722e-1
.7433793548e-1
.1065973485
.1846320236
.1100932682
-.1452856955e-1
-.2516422062e-1
-.8784104609e-1
.2166271727e-2
-.4910463757e-1
.8505172718e-1
-.1098013076
.5567942540e-1
.1186252729e-1
-.2054650002e-1
.2652541750e-1
.3803628871e-1
-.6588078455e-1
0.
.8703637069e-1
-.1507514162
.1946192414
.4071656407e-1
-.7052315768e-1
-.4205188656e-1
-.9958029666e-1
.1724781332
-.8784104609e-1
.1017686557
-.2455231878
.1901814434
.1098013076
-.1245029801
.5931263656e-1
-.4594337068e-1
-.2652541750e-1
.1901814436
-.1473139125
0.
.4351818534
-.3370904137
-.1946192414
.2035828203
-.1576945743
-.2102594328
-.4979014835
.3856728304
-.4392052305
.5088432789
-.2455231878
-.1901814435
.1098013076
.1245029801
.5931263656e-1
.4594337076e-1
-.2652541750e-1
.1901814435
.1473139128
0.
.4351818534
.3370904144
-.1946192414
.2035828202
.1576945745
-.2102594328
-.4979014833
-.3856728304
-.4392052305
.5088432787
-.4910463757e-1
-.8505172718e-1
-.1098013076
-.5567942540e-1
.1186252729e-1
.2054650002e-1
.2652541750e-1
.3803628871e-1
.6588078455e-1
0.
.8703637069e-1
.1507514162
.1946192414
.4071656407e-1
.7052315768e-1
-.4205188656e-1
-.9958029666e-1
-.1724781332
-.8784104609e-1
.1017686557
-.9820927513e-2
.1701034544e-1
-.2196026153e-1
.1113588508e-1
.1388888889e-1
-.2405626122e-1
.3105649968e-1
-.1701034544e-1
.2946278254e-1
0.
.2405626122e-1
-.4166666667e-1
.5379143537e-1
-.2946278254e-1
.5103103630e-1
.1360827635e-1
-.3803628871e-1
.6588078457e-1
.3513641844e-1
.5048267902e-1
-.4910463757e-1
.3803628867e-1
.2196026152e-1
-.2490059601e-1
.6944444444e-1
-.5379143531e-1
-.3105649968e-1
-.8505172722e-1
.6588078447e-1
0.
.1202813062
-.9316949897e-1
-.5379143537e-1
-.1473139128
.1141088660
.6804138178e-1
-.1901814436
.1473139125
.1756820922
.2524133952
-.4910463757e-1
-.3803628871e-1
.2196026152e-1
.2490059602e-1
.6944444444e-1
.5379143537e-1
-.3105649968e-1
-.8505172718e-1
-.6588078455e-1
0.
.1202813061
.9316949905e-1
-.5379143537e-1
-.1473139128
-.1141088661
.6804138176e-1
-.1901814435
-.1473139128
.1756820922
.2524133952
-.9820927513e-2
-.1701034544e-1
-.2196026153e-1
-.1113588508e-1
.1388888889e-1
.2405626122e-1
.3105649968e-1
-.1701034544e-1
-.2946278254e-1
0.
.2405626122e-1
.4166666667e-1
.5379143537e-1
-.2946278254e-1
-.5103103630e-1
.1360827635e-1
-.3803628871e-1
-.6588078457e-1
.3513641844e-1
.5048267902e-1
