%%MatrixMarket matrix array real general
20 16
-.1388888889e-1
.2405626122e-1
-.3105649968e-1
.1574851971e-1
.1964185503e-1
-.3402069088e-1
.4392052305e-1
-.2405626122e-1
.4166666667e-1
0.
-.3402069088e-1
.5892556509e-1
-.7607257741e-1
.4166666667e-1
-.7216878367e-1
-.1924500898e-1
-.5379143537e-1
.9316949905e-1
.4969039948e-1
-.7139328933e-1
-.6944444444e-1
.5379143531e-1
.3105649968e-1
-.3521476059e-1
.9820927513e-1
-.7607257735e-1
-.4392052305e-1
-.1202813062
.9316949897e-1
0.
-.1701034544
.1317615690
.7607257741e-1
.2083333333
-.1613743059
-.9622504495e-1
-.2689571769
.2083333333
.2484519974
-.3569664467
-.6944444444e-1
-.5379143537e-1
.3105649968e-1
.3521476060e-1
.9820927513e-1
.7607257741e-1
-.4392052305e-1
-.1202813061
-.9316949905e-1
0.
-.1701034544
-.1317615691
.7607257741e-1
.2083333333
.1613743061
-.9622504490e-1
-.2689571768
-.2083333333
.2484519974
-.3569664467
-.1388888889e-1
-.2405626122e-1
-.3105649968e-1
-.1574851971e-1
.1964185503e-1
.3402069088e-1
.4392052305e-1
-.2405626122e-1
-.4166666667e-1
0.
-.3402069088e-1
-.5892556509e-1
-.7607257741e-1
.4166666667e-1
.7216878367e-1
-.1924500898e-1
-.5379143537e-1
-.9316949905e-1
.4969039948e-1
-.7139328933e-1
-.6944444444e-1
.1202813062
-.1552824984
.7874259854e-1
.1677614693e-1
-.2905713885e-1
.3751260493e-1
.5379143531e-1
-.9316949897e-1
0.
-.1230880159
.2131946973
-.2752331706
-.5758191722e-1
.9973480625e-1
.5947034815e-1
-.1408278060
.2439209152
-.1242259987
-.1439226131
-.3472222222
.2689571766
.1552824984
-.1760738030
.8388073465e-1
-.6497373762e-1
-.3751260493e-1
.2689571766
-.2083333333
0.
-.6154400797
.4767178350
.2752331706
-.2879095862
.2230138062
.2973517409
-.7041390305
.5454237466
-.6211299939
-.7196130654
-.3472222222
-.2689571769
.1552824984
.1760738030
.8388073465e-1
.6497373767e-1
-.3751260493e-1
.2689571765
.2083333333
0.
-.6154400794
-.4767178355
.2752331706
-.2879095861
-.2230138064
.2973517408
-.7041390302
-.5454237475
-.6211299937
-.7196130654
-.6944444444e-1
-.1202813062
-.1552824984
-.7874259854e-1
.1677614693e-1
.2905713885e-1
.3751260493e-1
.5379143531e-1
.9316949897e-1
0.
-.1230880159
-.2131946973
-.2752331706
-.5758191722e-1
-.9973480625e-1
.5947034815e-1
-.1408278060
-.2439209152
-.1242259987
-.1439226131
-.6944444444e-1
.1202813061
-.1552824984
.7874259854e-1
-.1149854221
.1991605932
-.2571152203
-.5379143537e-1
.9316949905e-1
0.
-.4701543842e-1
.8143312809e-1
-.1051297163
-.1507514162
.2611091120
-.1556953932
-.2054649999e-1
.355875819e-1
-.1242259987
-.3063570734e-2
-.3472222222
.2689571765
.1552824984
-.1760738030
-.5749271105
.4453366242
.2571152203
-.2689571769
.2083333333
0.
-.2350771922
.1820900098
.1051297163
-.7537570812
.5838577232
-.7784769662
-.1027325000
.7957625215e-1
-.6211299937
-.1531785368e-1
-.3472222222
-.2689571768
.1552824984
.1760738030
-.5749271104
-.4453366250
.2571152203
-.2689571768
-.2083333333
0.
-.2350771921
-.1820900102
.1051297163
-.7537570810
-.5838577246
-.7784769659
-.1027325000
-.7957625224e-1
-.6211299937
-.1531785367e-1
-.6944444444e-1
-.1202813061
-.1552824984
-.7874259854e-1
-.1149854221
-.1991605932
-.2571152203
-.5379143537e-1
-.9316949905e-1
0.
-.4701543842e-1
-.8143312809e-1
-.1051297163
-.1507514162
-.2611091120
-.1556953932
-.2054649999e-1
-.355875819e-1
-.1242259987
-.3063570734e-2
-.1388888889e-1
.2405626122e-1
-.3105649968e-1
.1574851971e-1
-.3928371006e-1
.6804138176e-1
-.8784104609e-1
-.7216878367e-1
.1250000000
-.8333333333e-1
0.
0.
0.
0.
0.
-.2886751347e-1
0.
0.
.1242259987e-1
-.2099802628e-2
-.6944444444e-1
.5379143531e-1
.3105649968e-1
-.3521476059e-1
-.1964185503
.1521451547
.8784104609e-1
-.3608439185
.2795084969
-.4166666667
0.
0.
0.
0.
0.
-.1443375674
0.
0.
.6211299937e-1
-.1049901314e-1
-.6944444444e-1
-.5379143537e-1
.3105649968e-1
.3521476060e-1
-.1964185503
-.1521451548
.8784104609e-1
-.3608439183
-.2795084971
-.4166666667
0.
0.
0.
0.
0.
-.1443375673
0.
0.
.6211299937e-1
-.1049901314e-1
-.1388888889e-1
-.2405626122e-1
-.3105649968e-1
-.1574851971e-1
-.3928371006e-1
-.6804138176e-1
-.8784104609e-1
-.7216878367e-1
-.1250000000
-.8333333333e-1
0.
0.
0.
0.
0.
-.2886751347e-1
0.
0.
.1242259987e-1
-.2099802628e-2
