STARTING WORLD SCHEDULER SERVER
CLIENT SETUP: adding client 45162
 + TIMESTAMP: 0.109038
START TIMESTAMP: 0.109064
+++++++++++++++++++++++++++++++++++++++++++++++++++++++++++
+ Client Mapping:
  > Client 45162 (0):	

+ Core Mapping:	0 0 0 0 0 0 0 0 0 0 0 0 0 0 0 0 0 0 0 0 0 0 0 0 0 0 0 0 0 0 0 0 0 0 0 0 0 0 0 0 
+ Optimal point: 
+++++++++++++++++++++++++++++++++++++++++++++++++++++++++++
INVADE: client 45162
 + TIMESTAMP: 0.109127
RESSOURCE DISTRIBUTION CHANGED
++++++++++++++++++++++++++++++++++++++++++++++++
INVADE (45162)
  + pid: 45162
  + min_cores: 1
  + max_cores: 512
  + scalability graph: 
1, 1.36329, 1.52423, 1.62017, 1.68565, 1.73398, 1.77154, 1.80182, 1.8269, 1.84812, 1.86637, 1.88229, 1.89634, 1.90885, 1.92009, 1.93026, 1.93952, 1.94799, 1.95579, 1.963, 1.96968, 1.9759, 1.98172, 1.98716, 1.99228, 1.9971, 2.00164, 2.00594, 2.01002, 2.01389, 2.01757, 2.02108, 2.02443, 2.02763, 2.03069, 2.03362, 2.03644, 2.03914, 2.04173, 2.04423, 
Number of clients: 1

+++++++++++++++++++++++++++++++++++++++++++++++++++++++++++
+ Client Mapping:
  > Client 45162 (40):	0 1 2 3 4 5 6 7 8 9 10 11 12 13 14 15 16 17 18 19 20 21 22 23 24 25 26 27 28 29 30 31 32 33 34 35 36 37 38 39 

+ Core Mapping:	45162 45162 45162 45162 45162 45162 45162 45162 45162 45162 45162 45162 45162 45162 45162 45162 45162 45162 45162 45162 45162 45162 45162 45162 45162 45162 45162 45162 45162 45162 45162 45162 45162 45162 45162 45162 45162 45162 45162 45162 
+ Optimal point: 40 
+++++++++++++++++++++++++++++++++++++++++++++++++++++++++++
CLIENT SETUP: adding client 45160
 + TIMESTAMP: 0.19656
+++++++++++++++++++++++++++++++++++++++++++++++++++++++++++
+ Client Mapping:
  > Client 45162 (40):	0 1 2 3 4 5 6 7 8 9 10 11 12 13 14 15 16 17 18 19 20 21 22 23 24 25 26 27 28 29 30 31 32 33 34 35 36 37 38 39 
  > Client 45160 (0):	

+ Core Mapping:	45162 45162 45162 45162 45162 45162 45162 45162 45162 45162 45162 45162 45162 45162 45162 45162 45162 45162 45162 45162 45162 45162 45162 45162 45162 45162 45162 45162 45162 45162 45162 45162 45162 45162 45162 45162 45162 45162 45162 45162 
+ Optimal point: 40 
+++++++++++++++++++++++++++++++++++++++++++++++++++++++++++
INVADE: client 45160
 + TIMESTAMP: 0.204466
CLIENT SETUP: adding client 45161
 + TIMESTAMP: 0.232549
+++++++++++++++++++++++++++++++++++++++++++++++++++++++++++
+ Client Mapping:
  > Client 45162 (40):	0 1 2 3 4 5 6 7 8 9 10 11 12 13 14 15 16 17 18 19 20 21 22 23 24 25 26 27 28 29 30 31 32 33 34 35 36 37 38 39 
  > Client 45160 (0):	
  > Client 45161 (0):	

+ Core Mapping:	45162 45162 45162 45162 45162 45162 45162 45162 45162 45162 45162 45162 45162 45162 45162 45162 45162 45162 45162 45162 45162 45162 45162 45162 45162 45162 45162 45162 45162 45162 45162 45162 45162 45162 45162 45162 45162 45162 45162 45162 
+ Optimal point: 20 20 
+++++++++++++++++++++++++++++++++++++++++++++++++++++++++++
INVADE: client 45161
 + TIMESTAMP: 0.240466
++++++++++++++++++++++++++++++++++++++++++++++++
 + TIMESTAMP: 0.292574
REINVADE (45162)
  + pid: 45162
  + min_cores: 1
  + max_cores: 512
  + scalability graph: 
1, 1.36329, 1.52423, 1.62017, 1.68565, 1.73398, 1.77154, 1.80182, 1.8269, 1.84812, 1.86637, 1.88229, 1.89634, 1.90885, 1.92009, 1.93026, 1.93952, 1.94799, 1.95579, 1.963, 1.96968, 1.9759, 1.98172, 1.98716, 1.99228, 1.9971, 2.00164, 2.00594, 2.01002, 2.01389, 2.01757, 2.02108, 2.02443, 2.02763, 2.03069, 2.03362, 2.03644, 2.03914, 2.04173, 2.04423, 
Number of clients: 3

+++++++++++++++++++++++++++++++++++++++++++++++++++++++++++
+ Client Mapping:
  > Client 45162 (14):	26 27 28 29 30 31 32 33 34 35 36 37 38 39 
  > Client 45160 (0):	
  > Client 45161 (0):	

+ Core Mapping:	0 0 0 0 0 0 0 0 0 0 0 0 0 0 0 0 0 0 0 0 0 0 0 0 0 0 45162 45162 45162 45162 45162 45162 45162 45162 45162 45162 45162 45162 45162 45162 
+ Optimal point: 14 13 13 
+++++++++++++++++++++++++++++++++++++++++++++++++++++++++++
++++++++++++++++++++++++++++++++++++++++++++++++
 + TIMESTAMP: 0.292736
REINVADE (45160)
  + pid: 45160
  + min_cores: 1
  + max_cores: 512
  + scalability graph: 
1, 1.36329, 1.52423, 1.62017, 1.68565, 1.73398, 1.77154, 1.80182, 1.8269, 1.84812, 1.86637, 1.88229, 1.89634, 1.90885, 1.92009, 1.93026, 1.93952, 1.94799, 1.95579, 1.963, 1.96968, 1.9759, 1.98172, 1.98716, 1.99228, 1.9971, 2.00164, 2.00594, 2.01002, 2.01389, 2.01757, 2.02108, 2.02443, 2.02763, 2.03069, 2.03362, 2.03644, 2.03914, 2.04173, 2.04423, 
Number of clients: 3

+++++++++++++++++++++++++++++++++++++++++++++++++++++++++++
+ Client Mapping:
  > Client 45162 (14):	26 27 28 29 30 31 32 33 34 35 36 37 38 39 
  > Client 45160 (13):	0 1 2 3 4 5 6 7 8 9 10 11 12 
  > Client 45161 (0):	

+ Core Mapping:	45160 45160 45160 45160 45160 45160 45160 45160 45160 45160 45160 45160 45160 0 0 0 0 0 0 0 0 0 0 0 0 0 45162 45162 45162 45162 45162 45162 45162 45162 45162 45162 45162 45162 45162 45162 
+ Optimal point: 14 13 13 
+++++++++++++++++++++++++++++++++++++++++++++++++++++++++++
++++++++++++++++++++++++++++++++++++++++++++++++
 + TIMESTAMP: 0.311029
REINVADE (45161)
  + pid: 45161
  + min_cores: 1
  + max_cores: 512
  + scalability graph: 
1, 1.36329, 1.52423, 1.62017, 1.68565, 1.73398, 1.77154, 1.80182, 1.8269, 1.84812, 1.86637, 1.88229, 1.89634, 1.90885, 1.92009, 1.93026, 1.93952, 1.94799, 1.95579, 1.963, 1.96968, 1.9759, 1.98172, 1.98716, 1.99228, 1.9971, 2.00164, 2.00594, 2.01002, 2.01389, 2.01757, 2.02108, 2.02443, 2.02763, 2.03069, 2.03362, 2.03644, 2.03914, 2.04173, 2.04423, 
Number of clients: 3

+++++++++++++++++++++++++++++++++++++++++++++++++++++++++++
+ Client Mapping:
  > Client 45162 (14):	26 27 28 29 30 31 32 33 34 35 36 37 38 39 
  > Client 45160 (13):	0 1 2 3 4 5 6 7 8 9 10 11 12 
  > Client 45161 (13):	13 14 15 16 17 18 19 20 21 22 23 24 25 

+ Core Mapping:	45160 45160 45160 45160 45160 45160 45160 45160 45160 45160 45160 45160 45160 45161 45161 45161 45161 45161 45161 45161 45161 45161 45161 45161 45161 45161 45162 45162 45162 45162 45162 45162 45162 45162 45162 45162 45162 45162 45162 45162 
+ Optimal point: 14 13 13 
+++++++++++++++++++++++++++++++++++++++++++++++++++++++++++
CLIENT SHUTDOWN: client 45161
 + TIMESTAMP: 22.2394
+++++++++++++++++++++++++++++++++++++++++++++++++++++++++++
+ Client Mapping:
  > Client 45162 (14):	26 27 28 29 30 31 32 33 34 35 36 37 38 39 
  > Client 45160 (13):	0 1 2 3 4 5 6 7 8 9 10 11 12 
  > Client 45161 (0):	

+ Core Mapping:	45160 45160 45160 45160 45160 45160 45160 45160 45160 45160 45160 45160 45160 0 0 0 0 0 0 0 0 0 0 0 0 0 45162 45162 45162 45162 45162 45162 45162 45162 45162 45162 45162 45162 45162 45162 
+ Optimal point: 14 13 13 
+++++++++++++++++++++++++++++++++++++++++++++++++++++++++++
client (45161) shutdown hint: 437.984
sum_client_shutdown_hint: 437.984
sum_client_shutdown_hint_div_time: 0
++++++++++++++++++++++++++++++++++++++++++++++++
 + TIMESTAMP: 22.2395
REINVADE (45160)
  + pid: 45160
  + min_cores: 1
  + max_cores: 512
  + scalability graph: 
1, 1.36329, 1.52423, 1.62017, 1.68565, 1.73398, 1.77154, 1.80182, 1.8269, 1.84812, 1.86637, 1.88229, 1.89634, 1.90885, 1.92009, 1.93026, 1.93952, 1.94799, 1.95579, 1.963, 1.96968, 1.9759, 1.98172, 1.98716, 1.99228, 1.9971, 2.00164, 2.00594, 2.01002, 2.01389, 2.01757, 2.02108, 2.02443, 2.02763, 2.03069, 2.03362, 2.03644, 2.03914, 2.04173, 2.04423, 
Number of clients: 2

+++++++++++++++++++++++++++++++++++++++++++++++++++++++++++
+ Client Mapping:
  > Client 45162 (14):	26 27 28 29 30 31 32 33 34 35 36 37 38 39 
  > Client 45160 (20):	0 1 2 3 4 5 6 7 8 9 10 11 12 13 14 15 16 17 18 19 

+ Core Mapping:	45160 45160 45160 45160 45160 45160 45160 45160 45160 45160 45160 45160 45160 45160 45160 45160 45160 45160 45160 45160 0 0 0 0 0 0 45162 45162 45162 45162 45162 45162 45162 45162 45162 45162 45162 45162 45162 45162 
+ Optimal point: 20 20 
+++++++++++++++++++++++++++++++++++++++++++++++++++++++++++
++++++++++++++++++++++++++++++++++++++++++++++++
 + TIMESTAMP: 22.2398
REINVADE (45162)
  + pid: 45162
  + min_cores: 1
  + max_cores: 512
  + scalability graph: 
1, 1.36329, 1.52423, 1.62017, 1.68565, 1.73398, 1.77154, 1.80182, 1.8269, 1.84812, 1.86637, 1.88229, 1.89634, 1.90885, 1.92009, 1.93026, 1.93952, 1.94799, 1.95579, 1.963, 1.96968, 1.9759, 1.98172, 1.98716, 1.99228, 1.9971, 2.00164, 2.00594, 2.01002, 2.01389, 2.01757, 2.02108, 2.02443, 2.02763, 2.03069, 2.03362, 2.03644, 2.03914, 2.04173, 2.04423, 
Number of clients: 2

+++++++++++++++++++++++++++++++++++++++++++++++++++++++++++
+ Client Mapping:
  > Client 45162 (20):	26 27 28 29 30 31 32 33 34 35 36 37 38 39 20 21 22 23 24 25 
  > Client 45160 (20):	0 1 2 3 4 5 6 7 8 9 10 11 12 13 14 15 16 17 18 19 

+ Core Mapping:	45160 45160 45160 45160 45160 45160 45160 45160 45160 45160 45160 45160 45160 45160 45160 45160 45160 45160 45160 45160 45162 45162 45162 45162 45162 45162 45162 45162 45162 45162 45162 45162 45162 45162 45162 45162 45162 45162 45162 45162 
+ Optimal point: 20 20 
+++++++++++++++++++++++++++++++++++++++++++++++++++++++++++
CLIENT SHUTDOWN: client 45162
 + TIMESTAMP: 23.088
+++++++++++++++++++++++++++++++++++++++++++++++++++++++++++
+ Client Mapping:
  > Client 45162 (0):	
  > Client 45160 (20):	0 1 2 3 4 5 6 7 8 9 10 11 12 13 14 15 16 17 18 19 

+ Core Mapping:	45160 45160 45160 45160 45160 45160 45160 45160 45160 45160 45160 45160 45160 45160 45160 45160 45160 45160 45160 45160 0 0 0 0 0 0 0 0 0 0 0 0 0 0 0 0 0 0 0 0 
+ Optimal point: 20 20 
+++++++++++++++++++++++++++++++++++++++++++++++++++++++++++
client (45162) shutdown hint: 437.984
sum_client_shutdown_hint: 875.968
sum_client_shutdown_hint_div_time: 0
++++++++++++++++++++++++++++++++++++++++++++++++
 + TIMESTAMP: 23.0884
REINVADE (45160)
  + pid: 45160
  + min_cores: 1
  + max_cores: 512
  + scalability graph: 
1, 1.36329, 1.52423, 1.62017, 1.68565, 1.73398, 1.77154, 1.80182, 1.8269, 1.84812, 1.86637, 1.88229, 1.89634, 1.90885, 1.92009, 1.93026, 1.93952, 1.94799, 1.95579, 1.963, 1.96968, 1.9759, 1.98172, 1.98716, 1.99228, 1.9971, 2.00164, 2.00594, 2.01002, 2.01389, 2.01757, 2.02108, 2.02443, 2.02763, 2.03069, 2.03362, 2.03644, 2.03914, 2.04173, 2.04423, 
Number of clients: 1

+++++++++++++++++++++++++++++++++++++++++++++++++++++++++++
+ Client Mapping:
  > Client 45160 (40):	0 1 2 3 4 5 6 7 8 9 10 11 12 13 14 15 16 17 18 19 20 21 22 23 24 25 26 27 28 29 30 31 32 33 34 35 36 37 38 39 

+ Core Mapping:	45160 45160 45160 45160 45160 45160 45160 45160 45160 45160 45160 45160 45160 45160 45160 45160 45160 45160 45160 45160 45160 45160 45160 45160 45160 45160 45160 45160 45160 45160 45160 45160 45160 45160 45160 45160 45160 45160 45160 45160 
+ Optimal point: 40 
+++++++++++++++++++++++++++++++++++++++++++++++++++++++++++
CLIENT SHUTDOWN: client 45160
 + TIMESTAMP: 23.3536
+++++++++++++++++++++++++++++++++++++++++++++++++++++++++++
+ Client Mapping:
  > Client 45160 (0):	

+ Core Mapping:	0 0 0 0 0 0 0 0 0 0 0 0 0 0 0 0 0 0 0 0 0 0 0 0 0 0 0 0 0 0 0 0 0 0 0 0 0 0 0 0 
+ Optimal point: 40 
+++++++++++++++++++++++++++++++++++++++++++++++++++++++++++
client (45160) shutdown hint: 437.984
sum_client_shutdown_hint: 1313.95
sum_client_shutdown_hint_div_time: 0
END TIMESTAMP: 23.3536
OVERALL TIME: 23.2446
 + sum_client_shutdown_hint: 1313.95
 + sum_client_shutdown_hint/time: 56.5273
sum_client_shutdown_hint: 1313.95
sum_client_shutdown_hint_div_time: 56.5273
