MODE: ipmo_prog0
PARCOUNT: 5
PROBLEMS: 1
Running on INWEST
Using iPMO

Programs:
 + ../../build/sierpi_intel_ipmo_tsunami_parallel_release  -u 10 -U 10 -T 1000 -n 40 -d 12
 + ../../build/sierpi_intel_ipmo_tsunami_parallel_release  -u 10 -U 10 -T 1000 -n 40 -d 12
 + ../../build/sierpi_intel_ipmo_tsunami_parallel_release  -u 10 -U 10 -T 1000 -n 40 -d 10
 + ../../build/sierpi_intel_ipmo_tsunami_parallel_release  -u 10 -U 10 -T 1000 -n 40 -d 12
 + ../../build/sierpi_intel_ipmo_tsunami_parallel_release  -u 10 -U 10 -T 1000 -n 40 -d 10

Sat Mar 31 15:22:03 CEST 2012
iPMO: Prog0 parallel execution with ipmo (5 times)
Waiting for job 45769
45771: CHANGING RESSOURCES
45771: CHANGING RESSOURCES
45772: CHANGING RESSOURCES
45769: CHANGING RESSOURCES
45770: CHANGING RESSOURCES
45773: CHANGING RESSOURCES

 + Terminating after 1000 timesteps with equal number of triangles -> EXIT
 + Final timestep: 6749

6750 TS (Timesteps)
715.114 ST (SIMULATION_TIME)
0.100037 TSS (Timestep size)
24.6197 SFS (Overall seconds for Simulation)
437983904 TP (Triangles processed)
0.00364736 ASPT (Averaged Seconds per Timestep)
64886.5 TPST (Triangles Processed in Average per Simulation Timestep)
48.6681 PPST (Clusters Processed in Average per Simulation Timestep)
17.79 MTPS (Million Triangles per Second)
-17.79 MTPSPT (Million Triangles per Second per Thread)
1.98018 EDMBPT (ElementData Megabyte per Timestep (RW))
542.907 EDMBPS (ElementData Megabyte per Second (RW))
SUM CLIENT SHUTDOWN HINT: 437.984
SUM CLIENT SHUTDOWN HINT DIV TIME: 0
45773: CHANGING RESSOURCES
45772: CHANGING RESSOURCES

 + Terminating after 1000 timesteps with equal number of triangles -> EXIT
 + Final timestep: 6749

6750 TS (Timesteps)
715.114 ST (SIMULATION_TIME)
0.100037 TSS (Timestep size)
24.7424 SFS (Overall seconds for Simulation)
437983904 TP (Triangles processed)
0.00366555 ASPT (Averaged Seconds per Timestep)
64886.5 TPST (Triangles Processed in Average per Simulation Timestep)
48.6681 PPST (Clusters Processed in Average per Simulation Timestep)
17.7017 MTPS (Million Triangles per Second)
-17.7017 MTPSPT (Million Triangles per Second per Thread)
1.98018 EDMBPT (ElementData Megabyte per Timestep (RW))
540.214 EDMBPS (ElementData Megabyte per Second (RW))
SUM CLIENT SHUTDOWN HINT: 875.968
SUM CLIENT SHUTDOWN HINT DIV TIME: 0
45770: CHANGING RESSOURCES
45772: CHANGING RESSOURCES
45773: CHANGING RESSOURCES
Waiting for job 45770

 + Terminating after 1000 timesteps with equal number of triangles -> EXIT
 + Final timestep: 6749

6750 TS (Timesteps)
715.114 ST (SIMULATION_TIME)
0.100037 TSS (Timestep size)
25.5564 SFS (Overall seconds for Simulation)
437983904 TP (Triangles processed)
0.00378614 ASPT (Averaged Seconds per Timestep)
64886.5 TPST (Triangles Processed in Average per Simulation Timestep)
48.6681 PPST (Clusters Processed in Average per Simulation Timestep)
17.1379 MTPS (Million Triangles per Second)
-17.1379 MTPSPT (Million Triangles per Second per Thread)
1.98018 EDMBPT (ElementData Megabyte per Timestep (RW))
523.007 EDMBPS (ElementData Megabyte per Second (RW))
SUM CLIENT SHUTDOWN HINT: 1313.95
SUM CLIENT SHUTDOWN HINT DIV TIME: 0
45773: CHANGING RESSOURCES
45770: CHANGING RESSOURCES

 + Terminating after 1000 timesteps with equal number of triangles -> EXIT
 + Final timestep: 6749

6750 TS (Timesteps)
715.114 ST (SIMULATION_TIME)
0.100037 TSS (Timestep size)
25.6351 SFS (Overall seconds for Simulation)
437983904 TP (Triangles processed)
0.00379779 ASPT (Averaged Seconds per Timestep)
64886.5 TPST (Triangles Processed in Average per Simulation Timestep)
48.6681 PPST (Clusters Processed in Average per Simulation Timestep)
17.0853 MTPS (Million Triangles per Second)
-17.0853 MTPSPT (Million Triangles per Second per Thread)
1.98018 EDMBPT (ElementData Megabyte per Timestep (RW))
521.403 EDMBPS (ElementData Megabyte per Second (RW))
SUM CLIENT SHUTDOWN HINT: 1751.94
SUM CLIENT SHUTDOWN HINT DIV TIME: 0
45773: CHANGING RESSOURCES
Waiting for job 45771
Waiting for job 45772
Waiting for job 45773

 + Terminating after 1000 timesteps with equal number of triangles -> EXIT
 + Final timestep: 6749

6750 TS (Timesteps)
715.114 ST (SIMULATION_TIME)
0.100037 TSS (Timestep size)
26.13 SFS (Overall seconds for Simulation)
437983904 TP (Triangles processed)
0.00387111 ASPT (Averaged Seconds per Timestep)
64886.5 TPST (Triangles Processed in Average per Simulation Timestep)
48.6681 PPST (Clusters Processed in Average per Simulation Timestep)
16.7617 MTPS (Million Triangles per Second)
-16.7617 MTPSPT (Million Triangles per Second per Thread)
1.98018 EDMBPT (ElementData Megabyte per Timestep (RW))
511.528 EDMBPS (ElementData Megabyte per Second (RW))
SUM CLIENT SHUTDOWN HINT: 2189.92
SUM CLIENT SHUTDOWN HINT DIV TIME: 84.2533
Sat Mar 31 15:22:30 CEST 2012
Seconds: 27
