STARTING WORLD SCHEDULER SERVER
CLIENT SETUP: adding client 39611
 + TIMESTAMP: 0.31794
START TIMESTAMP: 0.317977
+++++++++++++++++++++++++++++++++++++++++++++++++++++++++++
+ Client Mapping:
  > Client 39611 (0):	

+ Core Mapping:	0 0 0 0 0 0 0 0 0 0 0 0 0 0 0 0 0 0 0 0 0 0 0 0 0 0 0 0 0 0 0 0 0 0 0 0 0 0 0 0 
+ Optimal point: 
+++++++++++++++++++++++++++++++++++++++++++++++++++++++++++
INVADE: client 39611
 + TIMESTAMP: 0.325948
RESSOURCE DISTRIBUTION CHANGED
++++++++++++++++++++++++++++++++++++++++++++++++
INVADE (39611)
  + pid: 39611
  + min_cores: 1
  + max_cores: 512
  + scalability graph: 
1, 1.39494, 1.5699, 1.6742, 1.74538, 1.79792, 1.83875, 1.87167, 1.89893, 1.922, 1.94184, 1.95915, 1.97442, 1.98802, 2.00024, 2.0113, 2.02136, 2.03058, 2.03906, 2.04689, 2.05415, 2.06092, 2.06724, 2.07316, 2.07872, 2.08396, 2.0889, 2.09358, 2.09801, 2.10222, 2.10622, 2.11003, 2.11367, 2.11715, 2.12048, 2.12367, 2.12672, 2.12966, 2.13248, 2.1352, 
Number of clients: 1

+++++++++++++++++++++++++++++++++++++++++++++++++++++++++++
+ Client Mapping:
  > Client 39611 (40):	0 1 2 3 4 5 6 7 8 9 10 11 12 13 14 15 16 17 18 19 20 21 22 23 24 25 26 27 28 29 30 31 32 33 34 35 36 37 38 39 

+ Core Mapping:	39611 39611 39611 39611 39611 39611 39611 39611 39611 39611 39611 39611 39611 39611 39611 39611 39611 39611 39611 39611 39611 39611 39611 39611 39611 39611 39611 39611 39611 39611 39611 39611 39611 39611 39611 39611 39611 39611 39611 39611 
+ Optimal point: 40 
+++++++++++++++++++++++++++++++++++++++++++++++++++++++++++
CLIENT SETUP: adding client 39612
 + TIMESTAMP: 0.396538
+++++++++++++++++++++++++++++++++++++++++++++++++++++++++++
+ Client Mapping:
  > Client 39611 (40):	0 1 2 3 4 5 6 7 8 9 10 11 12 13 14 15 16 17 18 19 20 21 22 23 24 25 26 27 28 29 30 31 32 33 34 35 36 37 38 39 
  > Client 39612 (0):	

+ Core Mapping:	39611 39611 39611 39611 39611 39611 39611 39611 39611 39611 39611 39611 39611 39611 39611 39611 39611 39611 39611 39611 39611 39611 39611 39611 39611 39611 39611 39611 39611 39611 39611 39611 39611 39611 39611 39611 39611 39611 39611 39611 
+ Optimal point: 40 
+++++++++++++++++++++++++++++++++++++++++++++++++++++++++++
INVADE: client 39612
 + TIMESTAMP: 0.396717
CLIENT SETUP: adding client 39610
 + TIMESTAMP: 0.398099
+++++++++++++++++++++++++++++++++++++++++++++++++++++++++++
+ Client Mapping:
  > Client 39611 (40):	0 1 2 3 4 5 6 7 8 9 10 11 12 13 14 15 16 17 18 19 20 21 22 23 24 25 26 27 28 29 30 31 32 33 34 35 36 37 38 39 
  > Client 39612 (0):	
  > Client 39610 (0):	

+ Core Mapping:	39611 39611 39611 39611 39611 39611 39611 39611 39611 39611 39611 39611 39611 39611 39611 39611 39611 39611 39611 39611 39611 39611 39611 39611 39611 39611 39611 39611 39611 39611 39611 39611 39611 39611 39611 39611 39611 39611 39611 39611 
+ Optimal point: 20 20 
+++++++++++++++++++++++++++++++++++++++++++++++++++++++++++
INVADE: client 39610
 + TIMESTAMP: 0.398348
CLIENT SETUP: adding client 39614
 + TIMESTAMP: 0.400848
+++++++++++++++++++++++++++++++++++++++++++++++++++++++++++
+ Client Mapping:
  > Client 39611 (40):	0 1 2 3 4 5 6 7 8 9 10 11 12 13 14 15 16 17 18 19 20 21 22 23 24 25 26 27 28 29 30 31 32 33 34 35 36 37 38 39 
  > Client 39612 (0):	
  > Client 39610 (0):	
  > Client 39614 (0):	

+ Core Mapping:	39611 39611 39611 39611 39611 39611 39611 39611 39611 39611 39611 39611 39611 39611 39611 39611 39611 39611 39611 39611 39611 39611 39611 39611 39611 39611 39611 39611 39611 39611 39611 39611 39611 39611 39611 39611 39611 39611 39611 39611 
+ Optimal point: 14 13 13 
+++++++++++++++++++++++++++++++++++++++++++++++++++++++++++
CLIENT SETUP: adding client 39609
 + TIMESTAMP: 0.400988
+++++++++++++++++++++++++++++++++++++++++++++++++++++++++++
+ Client Mapping:
  > Client 39611 (40):	0 1 2 3 4 5 6 7 8 9 10 11 12 13 14 15 16 17 18 19 20 21 22 23 24 25 26 27 28 29 30 31 32 33 34 35 36 37 38 39 
  > Client 39612 (0):	
  > Client 39610 (0):	
  > Client 39614 (0):	
  > Client 39609 (0):	

+ Core Mapping:	39611 39611 39611 39611 39611 39611 39611 39611 39611 39611 39611 39611 39611 39611 39611 39611 39611 39611 39611 39611 39611 39611 39611 39611 39611 39611 39611 39611 39611 39611 39611 39611 39611 39611 39611 39611 39611 39611 39611 39611 
+ Optimal point: 14 13 13 
+++++++++++++++++++++++++++++++++++++++++++++++++++++++++++
INVADE: client 39614
 + TIMESTAMP: 0.401132
INVADE: client 39609
 + TIMESTAMP: 0.401438
++++++++++++++++++++++++++++++++++++++++++++++++
 + TIMESTAMP: 0.437342
REINVADE (39611)
  + pid: 39611
  + min_cores: 1
  + max_cores: 512
  + scalability graph: 
1, 1.39494, 1.5699, 1.6742, 1.74538, 1.79792, 1.83875, 1.87167, 1.89893, 1.922, 1.94184, 1.95915, 1.97442, 1.98802, 2.00024, 2.0113, 2.02136, 2.03058, 2.03906, 2.04689, 2.05415, 2.06092, 2.06724, 2.07316, 2.07872, 2.08396, 2.0889, 2.09358, 2.09801, 2.10222, 2.10622, 2.11003, 2.11367, 2.11715, 2.12048, 2.12367, 2.12672, 2.12966, 2.13248, 2.1352, 
Number of clients: 5

+++++++++++++++++++++++++++++++++++++++++++++++++++++++++++
+ Client Mapping:
  > Client 39611 (8):	32 33 34 35 36 37 38 39 
  > Client 39612 (0):	
  > Client 39610 (0):	
  > Client 39614 (0):	
  > Client 39609 (0):	

+ Core Mapping:	0 0 0 0 0 0 0 0 0 0 0 0 0 0 0 0 0 0 0 0 0 0 0 0 0 0 0 0 0 0 0 0 39611 39611 39611 39611 39611 39611 39611 39611 
+ Optimal point: 8 8 8 8 8 
+++++++++++++++++++++++++++++++++++++++++++++++++++++++++++
CLIENT SETUP: adding client 39615
 + TIMESTAMP: 0.439872
+++++++++++++++++++++++++++++++++++++++++++++++++++++++++++
+ Client Mapping:
  > Client 39611 (8):	32 33 34 35 36 37 38 39 
  > Client 39612 (0):	
  > Client 39610 (0):	
  > Client 39614 (0):	
  > Client 39609 (0):	
  > Client 39615 (0):	

+ Core Mapping:	0 0 0 0 0 0 0 0 0 0 0 0 0 0 0 0 0 0 0 0 0 0 0 0 0 0 0 0 0 0 0 0 39611 39611 39611 39611 39611 39611 39611 39611 
+ Optimal point: 8 8 8 8 8 
+++++++++++++++++++++++++++++++++++++++++++++++++++++++++++
INVADE: client 39615
 + TIMESTAMP: 0.439993
RESSOURCE DISTRIBUTION CHANGED
++++++++++++++++++++++++++++++++++++++++++++++++
INVADE (39615)
  + pid: 39615
  + min_cores: 1
  + max_cores: 512
  + scalability graph: 
1, 1.39494, 1.5699, 1.6742, 1.74538, 1.79792, 1.83875, 1.87167, 1.89893, 1.922, 1.94184, 1.95915, 1.97442, 1.98802, 2.00024, 2.0113, 2.02136, 2.03058, 2.03906, 2.04689, 2.05415, 2.06092, 2.06724, 2.07316, 2.07872, 2.08396, 2.0889, 2.09358, 2.09801, 2.10222, 2.10622, 2.11003, 2.11367, 2.11715, 2.12048, 2.12367, 2.12672, 2.12966, 2.13248, 2.1352, 
Number of clients: 6

+++++++++++++++++++++++++++++++++++++++++++++++++++++++++++
+ Client Mapping:
  > Client 39611 (8):	32 33 34 35 36 37 38 39 
  > Client 39612 (0):	
  > Client 39610 (0):	
  > Client 39614 (0):	
  > Client 39609 (0):	
  > Client 39615 (7):	0 1 2 3 4 5 6 

+ Core Mapping:	39615 39615 39615 39615 39615 39615 39615 0 0 0 0 0 0 0 0 0 0 0 0 0 0 0 0 0 0 0 0 0 0 0 0 0 39611 39611 39611 39611 39611 39611 39611 39611 
+ Optimal point: 7 7 7 6 6 7 
+++++++++++++++++++++++++++++++++++++++++++++++++++++++++++
CLIENT SETUP: adding client 39613
 + TIMESTAMP: 0.452442
+++++++++++++++++++++++++++++++++++++++++++++++++++++++++++
+ Client Mapping:
  > Client 39611 (8):	32 33 34 35 36 37 38 39 
  > Client 39612 (0):	
  > Client 39610 (0):	
  > Client 39614 (0):	
  > Client 39609 (0):	
  > Client 39615 (7):	0 1 2 3 4 5 6 
  > Client 39613 (0):	

+ Core Mapping:	39615 39615 39615 39615 39615 39615 39615 0 0 0 0 0 0 0 0 0 0 0 0 0 0 0 0 0 0 0 0 0 0 0 0 0 39611 39611 39611 39611 39611 39611 39611 39611 
+ Optimal point: 7 7 7 6 6 7 
+++++++++++++++++++++++++++++++++++++++++++++++++++++++++++
INVADE: client 39613
 + TIMESTAMP: 0.45259
RESSOURCE DISTRIBUTION CHANGED
++++++++++++++++++++++++++++++++++++++++++++++++
INVADE (39613)
  + pid: 39613
  + min_cores: 1
  + max_cores: 512
  + scalability graph: 
1, 1.39494, 1.5699, 1.6742, 1.74538, 1.79792, 1.83875, 1.87167, 1.89893, 1.922, 1.94184, 1.95915, 1.97442, 1.98802, 2.00024, 2.0113, 2.02136, 2.03058, 2.03906, 2.04689, 2.05415, 2.06092, 2.06724, 2.07316, 2.07872, 2.08396, 2.0889, 2.09358, 2.09801, 2.10222, 2.10622, 2.11003, 2.11367, 2.11715, 2.12048, 2.12367, 2.12672, 2.12966, 2.13248, 2.1352, 
Number of clients: 7

+++++++++++++++++++++++++++++++++++++++++++++++++++++++++++
+ Client Mapping:
  > Client 39611 (8):	32 33 34 35 36 37 38 39 
  > Client 39612 (0):	
  > Client 39610 (0):	
  > Client 39614 (0):	
  > Client 39609 (0):	
  > Client 39615 (7):	0 1 2 3 4 5 6 
  > Client 39613 (5):	7 8 9 10 11 

+ Core Mapping:	39615 39615 39615 39615 39615 39615 39615 39613 39613 39613 39613 39613 0 0 0 0 0 0 0 0 0 0 0 0 0 0 0 0 0 0 0 0 39611 39611 39611 39611 39611 39611 39611 39611 
+ Optimal point: 6 6 6 6 6 5 5 
+++++++++++++++++++++++++++++++++++++++++++++++++++++++++++
++++++++++++++++++++++++++++++++++++++++++++++++
 + TIMESTAMP: 0.526749
REINVADE (39611)
  + pid: 39611
  + min_cores: 1
  + max_cores: 512
  + scalability graph: 
1, 1.39494, 1.5699, 1.6742, 1.74538, 1.79792, 1.83875, 1.87167, 1.89893, 1.922, 1.94184, 1.95915, 1.97442, 1.98802, 2.00024, 2.0113, 2.02136, 2.03058, 2.03906, 2.04689, 2.05415, 2.06092, 2.06724, 2.07316, 2.07872, 2.08396, 2.0889, 2.09358, 2.09801, 2.10222, 2.10622, 2.11003, 2.11367, 2.11715, 2.12048, 2.12367, 2.12672, 2.12966, 2.13248, 2.1352, 
Number of clients: 7

+++++++++++++++++++++++++++++++++++++++++++++++++++++++++++
+ Client Mapping:
  > Client 39611 (6):	34 35 36 37 38 39 
  > Client 39612 (0):	
  > Client 39610 (0):	
  > Client 39614 (0):	
  > Client 39609 (0):	
  > Client 39615 (7):	0 1 2 3 4 5 6 
  > Client 39613 (5):	7 8 9 10 11 

+ Core Mapping:	39615 39615 39615 39615 39615 39615 39615 39613 39613 39613 39613 39613 0 0 0 0 0 0 0 0 0 0 0 0 0 0 0 0 0 0 0 0 0 0 39611 39611 39611 39611 39611 39611 
+ Optimal point: 6 6 6 6 6 5 5 
+++++++++++++++++++++++++++++++++++++++++++++++++++++++++++
++++++++++++++++++++++++++++++++++++++++++++++++
 + TIMESTAMP: 0.629026
REINVADE (39615)
  + pid: 39615
  + min_cores: 1
  + max_cores: 512
  + scalability graph: 
1, 1.39494, 1.5699, 1.6742, 1.74538, 1.79792, 1.83875, 1.87167, 1.89893, 1.922, 1.94184, 1.95915, 1.97442, 1.98802, 2.00024, 2.0113, 2.02136, 2.03058, 2.03906, 2.04689, 2.05415, 2.06092, 2.06724, 2.07316, 2.07872, 2.08396, 2.0889, 2.09358, 2.09801, 2.10222, 2.10622, 2.11003, 2.11367, 2.11715, 2.12048, 2.12367, 2.12672, 2.12966, 2.13248, 2.1352, 
Number of clients: 7

+++++++++++++++++++++++++++++++++++++++++++++++++++++++++++
+ Client Mapping:
  > Client 39611 (6):	34 35 36 37 38 39 
  > Client 39612 (0):	
  > Client 39610 (0):	
  > Client 39614 (0):	
  > Client 39609 (0):	
  > Client 39615 (5):	2 3 4 5 6 
  > Client 39613 (5):	7 8 9 10 11 

+ Core Mapping:	0 0 39615 39615 39615 39615 39615 39613 39613 39613 39613 39613 0 0 0 0 0 0 0 0 0 0 0 0 0 0 0 0 0 0 0 0 0 0 39611 39611 39611 39611 39611 39611 
+ Optimal point: 6 6 6 6 6 5 5 
+++++++++++++++++++++++++++++++++++++++++++++++++++++++++++
++++++++++++++++++++++++++++++++++++++++++++++++
 + TIMESTAMP: 0.838926
REINVADE (39612)
  + pid: 39612
  + min_cores: 1
  + max_cores: 512
  + scalability graph: 
1, 1.39494, 1.5699, 1.6742, 1.74538, 1.79792, 1.83875, 1.87167, 1.89893, 1.922, 1.94184, 1.95915, 1.97442, 1.98802, 2.00024, 2.0113, 2.02136, 2.03058, 2.03906, 2.04689, 2.05415, 2.06092, 2.06724, 2.07316, 2.07872, 2.08396, 2.0889, 2.09358, 2.09801, 2.10222, 2.10622, 2.11003, 2.11367, 2.11715, 2.12048, 2.12367, 2.12672, 2.12966, 2.13248, 2.1352, 
Number of clients: 7

+++++++++++++++++++++++++++++++++++++++++++++++++++++++++++
+ Client Mapping:
  > Client 39611 (6):	34 35 36 37 38 39 
  > Client 39612 (6):	0 1 12 13 14 15 
  > Client 39610 (0):	
  > Client 39614 (0):	
  > Client 39609 (0):	
  > Client 39615 (5):	2 3 4 5 6 
  > Client 39613 (5):	7 8 9 10 11 

+ Core Mapping:	39612 39612 39615 39615 39615 39615 39615 39613 39613 39613 39613 39613 39612 39612 39612 39612 0 0 0 0 0 0 0 0 0 0 0 0 0 0 0 0 0 0 39611 39611 39611 39611 39611 39611 
+ Optimal point: 6 6 6 6 6 5 5 
+++++++++++++++++++++++++++++++++++++++++++++++++++++++++++
++++++++++++++++++++++++++++++++++++++++++++++++
 + TIMESTAMP: 0.926722
REINVADE (39614)
  + pid: 39614
  + min_cores: 1
  + max_cores: 512
  + scalability graph: 
1, 1.39494, 1.5699, 1.6742, 1.74538, 1.79792, 1.83875, 1.87167, 1.89893, 1.922, 1.94184, 1.95915, 1.97442, 1.98802, 2.00024, 2.0113, 2.02136, 2.03058, 2.03906, 2.04689, 2.05415, 2.06092, 2.06724, 2.07316, 2.07872, 2.08396, 2.0889, 2.09358, 2.09801, 2.10222, 2.10622, 2.11003, 2.11367, 2.11715, 2.12048, 2.12367, 2.12672, 2.12966, 2.13248, 2.1352, 
Number of clients: 7

+++++++++++++++++++++++++++++++++++++++++++++++++++++++++++
+ Client Mapping:
  > Client 39611 (6):	34 35 36 37 38 39 
  > Client 39612 (6):	0 1 12 13 14 15 
  > Client 39610 (0):	
  > Client 39614 (6):	16 17 18 19 20 21 
  > Client 39609 (0):	
  > Client 39615 (5):	2 3 4 5 6 
  > Client 39613 (5):	7 8 9 10 11 

+ Core Mapping:	39612 39612 39615 39615 39615 39615 39615 39613 39613 39613 39613 39613 39612 39612 39612 39612 39614 39614 39614 39614 39614 39614 0 0 0 0 0 0 0 0 0 0 0 0 39611 39611 39611 39611 39611 39611 
+ Optimal point: 6 6 6 6 6 5 5 
+++++++++++++++++++++++++++++++++++++++++++++++++++++++++++
++++++++++++++++++++++++++++++++++++++++++++++++
 + TIMESTAMP: 0.981786
REINVADE (39610)
  + pid: 39610
  + min_cores: 1
  + max_cores: 512
  + scalability graph: 
1, 1.39494, 1.5699, 1.6742, 1.74538, 1.79792, 1.83875, 1.87167, 1.89893, 1.922, 1.94184, 1.95915, 1.97442, 1.98802, 2.00024, 2.0113, 2.02136, 2.03058, 2.03906, 2.04689, 2.05415, 2.06092, 2.06724, 2.07316, 2.07872, 2.08396, 2.0889, 2.09358, 2.09801, 2.10222, 2.10622, 2.11003, 2.11367, 2.11715, 2.12048, 2.12367, 2.12672, 2.12966, 2.13248, 2.1352, 
Number of clients: 7

+++++++++++++++++++++++++++++++++++++++++++++++++++++++++++
+ Client Mapping:
  > Client 39611 (6):	34 35 36 37 38 39 
  > Client 39612 (6):	0 1 12 13 14 15 
  > Client 39610 (6):	22 23 24 25 26 27 
  > Client 39614 (6):	16 17 18 19 20 21 
  > Client 39609 (0):	
  > Client 39615 (5):	2 3 4 5 6 
  > Client 39613 (5):	7 8 9 10 11 

+ Core Mapping:	39612 39612 39615 39615 39615 39615 39615 39613 39613 39613 39613 39613 39612 39612 39612 39612 39614 39614 39614 39614 39614 39614 39610 39610 39610 39610 39610 39610 0 0 0 0 0 0 39611 39611 39611 39611 39611 39611 
+ Optimal point: 6 6 6 6 6 5 5 
+++++++++++++++++++++++++++++++++++++++++++++++++++++++++++
++++++++++++++++++++++++++++++++++++++++++++++++
 + TIMESTAMP: 0.991174
REINVADE (39609)
  + pid: 39609
  + min_cores: 1
  + max_cores: 512
  + scalability graph: 
1, 1.39494, 1.5699, 1.6742, 1.74538, 1.79792, 1.83875, 1.87167, 1.89893, 1.922, 1.94184, 1.95915, 1.97442, 1.98802, 2.00024, 2.0113, 2.02136, 2.03058, 2.03906, 2.04689, 2.05415, 2.06092, 2.06724, 2.07316, 2.07872, 2.08396, 2.0889, 2.09358, 2.09801, 2.10222, 2.10622, 2.11003, 2.11367, 2.11715, 2.12048, 2.12367, 2.12672, 2.12966, 2.13248, 2.1352, 
Number of clients: 7

+++++++++++++++++++++++++++++++++++++++++++++++++++++++++++
+ Client Mapping:
  > Client 39611 (6):	34 35 36 37 38 39 
  > Client 39612 (6):	0 1 12 13 14 15 
  > Client 39610 (6):	22 23 24 25 26 27 
  > Client 39614 (6):	16 17 18 19 20 21 
  > Client 39609 (6):	28 29 30 31 32 33 
  > Client 39615 (5):	2 3 4 5 6 
  > Client 39613 (5):	7 8 9 10 11 

+ Core Mapping:	39612 39612 39615 39615 39615 39615 39615 39613 39613 39613 39613 39613 39612 39612 39612 39612 39614 39614 39614 39614 39614 39614 39610 39610 39610 39610 39610 39610 39609 39609 39609 39609 39609 39609 39611 39611 39611 39611 39611 39611 
+ Optimal point: 6 6 6 6 6 5 5 
+++++++++++++++++++++++++++++++++++++++++++++++++++++++++++
CLIENT SHUTDOWN: client 39614
 + TIMESTAMP: 1175.35
+++++++++++++++++++++++++++++++++++++++++++++++++++++++++++
+ Client Mapping:
  > Client 39611 (6):	34 35 36 37 38 39 
  > Client 39612 (6):	0 1 12 13 14 15 
  > Client 39610 (6):	22 23 24 25 26 27 
  > Client 39614 (0):	
  > Client 39609 (6):	28 29 30 31 32 33 
  > Client 39615 (5):	2 3 4 5 6 
  > Client 39613 (5):	7 8 9 10 11 

+ Core Mapping:	39612 39612 39615 39615 39615 39615 39615 39613 39613 39613 39613 39613 39612 39612 39612 39612 0 0 0 0 0 0 39610 39610 39610 39610 39610 39610 39609 39609 39609 39609 39609 39609 39611 39611 39611 39611 39611 39611 
+ Optimal point: 6 6 6 6 6 5 5 
+++++++++++++++++++++++++++++++++++++++++++++++++++++++++++
client (39614) shutdown hint: 20954.2
sum_client_shutdown_hint: 20954.2
sum_client_shutdown_hint_div_time: 0
++++++++++++++++++++++++++++++++++++++++++++++++
 + TIMESTAMP: 1175.36
REINVADE (39612)
  + pid: 39612
  + min_cores: 1
  + max_cores: 512
  + scalability graph: 
1, 1.39494, 1.5699, 1.6742, 1.74538, 1.79792, 1.83875, 1.87167, 1.89893, 1.922, 1.94184, 1.95915, 1.97442, 1.98802, 2.00024, 2.0113, 2.02136, 2.03058, 2.03906, 2.04689, 2.05415, 2.06092, 2.06724, 2.07316, 2.07872, 2.08396, 2.0889, 2.09358, 2.09801, 2.10222, 2.10622, 2.11003, 2.11367, 2.11715, 2.12048, 2.12367, 2.12672, 2.12966, 2.13248, 2.1352, 
Number of clients: 6

+++++++++++++++++++++++++++++++++++++++++++++++++++++++++++
+ Client Mapping:
  > Client 39611 (6):	34 35 36 37 38 39 
  > Client 39612 (7):	0 1 12 13 14 15 16 
  > Client 39610 (6):	22 23 24 25 26 27 
  > Client 39609 (6):	28 29 30 31 32 33 
  > Client 39615 (5):	2 3 4 5 6 
  > Client 39613 (5):	7 8 9 10 11 

+ Core Mapping:	39612 39612 39615 39615 39615 39615 39615 39613 39613 39613 39613 39613 39612 39612 39612 39612 39612 0 0 0 0 0 39610 39610 39610 39610 39610 39610 39609 39609 39609 39609 39609 39609 39611 39611 39611 39611 39611 39611 
+ Optimal point: 7 7 7 6 6 7 
+++++++++++++++++++++++++++++++++++++++++++++++++++++++++++
++++++++++++++++++++++++++++++++++++++++++++++++
 + TIMESTAMP: 1175.36
REINVADE (39615)
  + pid: 39615
  + min_cores: 1
  + max_cores: 512
  + scalability graph: 
1, 1.39494, 1.5699, 1.6742, 1.74538, 1.79792, 1.83875, 1.87167, 1.89893, 1.922, 1.94184, 1.95915, 1.97442, 1.98802, 2.00024, 2.0113, 2.02136, 2.03058, 2.03906, 2.04689, 2.05415, 2.06092, 2.06724, 2.07316, 2.07872, 2.08396, 2.0889, 2.09358, 2.09801, 2.10222, 2.10622, 2.11003, 2.11367, 2.11715, 2.12048, 2.12367, 2.12672, 2.12966, 2.13248, 2.1352, 
Number of clients: 6

+++++++++++++++++++++++++++++++++++++++++++++++++++++++++++
+ Client Mapping:
  > Client 39611 (6):	34 35 36 37 38 39 
  > Client 39612 (7):	0 1 12 13 14 15 16 
  > Client 39610 (6):	22 23 24 25 26 27 
  > Client 39609 (6):	28 29 30 31 32 33 
  > Client 39615 (6):	2 3 4 5 6 17 
  > Client 39613 (5):	7 8 9 10 11 

+ Core Mapping:	39612 39612 39615 39615 39615 39615 39615 39613 39613 39613 39613 39613 39612 39612 39612 39612 39612 39615 0 0 0 0 39610 39610 39610 39610 39610 39610 39609 39609 39609 39609 39609 39609 39611 39611 39611 39611 39611 39611 
+ Optimal point: 7 7 7 6 6 7 
+++++++++++++++++++++++++++++++++++++++++++++++++++++++++++
++++++++++++++++++++++++++++++++++++++++++++++++
 + TIMESTAMP: 1175.37
REINVADE (39611)
  + pid: 39611
  + min_cores: 1
  + max_cores: 512
  + scalability graph: 
1, 1.39494, 1.5699, 1.6742, 1.74538, 1.79792, 1.83875, 1.87167, 1.89893, 1.922, 1.94184, 1.95915, 1.97442, 1.98802, 2.00024, 2.0113, 2.02136, 2.03058, 2.03906, 2.04689, 2.05415, 2.06092, 2.06724, 2.07316, 2.07872, 2.08396, 2.0889, 2.09358, 2.09801, 2.10222, 2.10622, 2.11003, 2.11367, 2.11715, 2.12048, 2.12367, 2.12672, 2.12966, 2.13248, 2.1352, 
Number of clients: 6

+++++++++++++++++++++++++++++++++++++++++++++++++++++++++++
+ Client Mapping:
  > Client 39611 (7):	34 35 36 37 38 39 18 
  > Client 39612 (7):	0 1 12 13 14 15 16 
  > Client 39610 (6):	22 23 24 25 26 27 
  > Client 39609 (6):	28 29 30 31 32 33 
  > Client 39615 (6):	2 3 4 5 6 17 
  > Client 39613 (5):	7 8 9 10 11 

+ Core Mapping:	39612 39612 39615 39615 39615 39615 39615 39613 39613 39613 39613 39613 39612 39612 39612 39612 39612 39615 39611 0 0 0 39610 39610 39610 39610 39610 39610 39609 39609 39609 39609 39609 39609 39611 39611 39611 39611 39611 39611 
+ Optimal point: 7 7 7 6 6 7 
+++++++++++++++++++++++++++++++++++++++++++++++++++++++++++
++++++++++++++++++++++++++++++++++++++++++++++++
 + TIMESTAMP: 1175.37
REINVADE (39613)
  + pid: 39613
  + min_cores: 1
  + max_cores: 512
  + scalability graph: 
1, 1.39494, 1.5699, 1.6742, 1.74538, 1.79792, 1.83875, 1.87167, 1.89893, 1.922, 1.94184, 1.95915, 1.97442, 1.98802, 2.00024, 2.0113, 2.02136, 2.03058, 2.03906, 2.04689, 2.05415, 2.06092, 2.06724, 2.07316, 2.07872, 2.08396, 2.0889, 2.09358, 2.09801, 2.10222, 2.10622, 2.11003, 2.11367, 2.11715, 2.12048, 2.12367, 2.12672, 2.12966, 2.13248, 2.1352, 
Number of clients: 6

+++++++++++++++++++++++++++++++++++++++++++++++++++++++++++
+ Client Mapping:
  > Client 39611 (7):	34 35 36 37 38 39 18 
  > Client 39612 (7):	0 1 12 13 14 15 16 
  > Client 39610 (6):	22 23 24 25 26 27 
  > Client 39609 (6):	28 29 30 31 32 33 
  > Client 39615 (6):	2 3 4 5 6 17 
  > Client 39613 (7):	7 8 9 10 11 19 20 

+ Core Mapping:	39612 39612 39615 39615 39615 39615 39615 39613 39613 39613 39613 39613 39612 39612 39612 39612 39612 39615 39611 39613 39613 0 39610 39610 39610 39610 39610 39610 39609 39609 39609 39609 39609 39609 39611 39611 39611 39611 39611 39611 
+ Optimal point: 7 7 7 6 6 7 
+++++++++++++++++++++++++++++++++++++++++++++++++++++++++++
++++++++++++++++++++++++++++++++++++++++++++++++
 + TIMESTAMP: 1175.38
REINVADE (39610)
  + pid: 39610
  + min_cores: 1
  + max_cores: 512
  + scalability graph: 
1, 1.39494, 1.5699, 1.6742, 1.74538, 1.79792, 1.83875, 1.87167, 1.89893, 1.922, 1.94184, 1.95915, 1.97442, 1.98802, 2.00024, 2.0113, 2.02136, 2.03058, 2.03906, 2.04689, 2.05415, 2.06092, 2.06724, 2.07316, 2.07872, 2.08396, 2.0889, 2.09358, 2.09801, 2.10222, 2.10622, 2.11003, 2.11367, 2.11715, 2.12048, 2.12367, 2.12672, 2.12966, 2.13248, 2.1352, 
Number of clients: 6

+++++++++++++++++++++++++++++++++++++++++++++++++++++++++++
+ Client Mapping:
  > Client 39611 (7):	34 35 36 37 38 39 18 
  > Client 39612 (7):	0 1 12 13 14 15 16 
  > Client 39610 (7):	22 23 24 25 26 27 21 
  > Client 39609 (6):	28 29 30 31 32 33 
  > Client 39615 (6):	2 3 4 5 6 17 
  > Client 39613 (7):	7 8 9 10 11 19 20 

+ Core Mapping:	39612 39612 39615 39615 39615 39615 39615 39613 39613 39613 39613 39613 39612 39612 39612 39612 39612 39615 39611 39613 39613 39610 39610 39610 39610 39610 39610 39610 39609 39609 39609 39609 39609 39609 39611 39611 39611 39611 39611 39611 
+ Optimal point: 7 7 7 6 6 7 
+++++++++++++++++++++++++++++++++++++++++++++++++++++++++++
CLIENT SHUTDOWN: client 39609
 + TIMESTAMP: 1176.53
+++++++++++++++++++++++++++++++++++++++++++++++++++++++++++
+ Client Mapping:
  > Client 39611 (7):	34 35 36 37 38 39 18 
  > Client 39612 (7):	0 1 12 13 14 15 16 
  > Client 39610 (7):	22 23 24 25 26 27 21 
  > Client 39609 (0):	
  > Client 39615 (6):	2 3 4 5 6 17 
  > Client 39613 (7):	7 8 9 10 11 19 20 

+ Core Mapping:	39612 39612 39615 39615 39615 39615 39615 39613 39613 39613 39613 39613 39612 39612 39612 39612 39612 39615 39611 39613 39613 39610 39610 39610 39610 39610 39610 39610 0 0 0 0 0 0 39611 39611 39611 39611 39611 39611 
+ Optimal point: 7 7 7 6 6 7 
+++++++++++++++++++++++++++++++++++++++++++++++++++++++++++
client (39609) shutdown hint: 20954.2
sum_client_shutdown_hint: 41908.4
sum_client_shutdown_hint_div_time: 0
++++++++++++++++++++++++++++++++++++++++++++++++
 + TIMESTAMP: 1176.53
REINVADE (39615)
  + pid: 39615
  + min_cores: 1
  + max_cores: 512
  + scalability graph: 
1, 1.39494, 1.5699, 1.6742, 1.74538, 1.79792, 1.83875, 1.87167, 1.89893, 1.922, 1.94184, 1.95915, 1.97442, 1.98802, 2.00024, 2.0113, 2.02136, 2.03058, 2.03906, 2.04689, 2.05415, 2.06092, 2.06724, 2.07316, 2.07872, 2.08396, 2.0889, 2.09358, 2.09801, 2.10222, 2.10622, 2.11003, 2.11367, 2.11715, 2.12048, 2.12367, 2.12672, 2.12966, 2.13248, 2.1352, 
Number of clients: 5

+++++++++++++++++++++++++++++++++++++++++++++++++++++++++++
+ Client Mapping:
  > Client 39611 (7):	34 35 36 37 38 39 18 
  > Client 39612 (7):	0 1 12 13 14 15 16 
  > Client 39610 (7):	22 23 24 25 26 27 21 
  > Client 39615 (8):	2 3 4 5 6 17 28 29 
  > Client 39613 (7):	7 8 9 10 11 19 20 

+ Core Mapping:	39612 39612 39615 39615 39615 39615 39615 39613 39613 39613 39613 39613 39612 39612 39612 39612 39612 39615 39611 39613 39613 39610 39610 39610 39610 39610 39610 39610 39615 39615 0 0 0 0 39611 39611 39611 39611 39611 39611 
+ Optimal point: 8 8 8 8 8 
+++++++++++++++++++++++++++++++++++++++++++++++++++++++++++
++++++++++++++++++++++++++++++++++++++++++++++++
 + TIMESTAMP: 1176.53
REINVADE (39613)
  + pid: 39613
  + min_cores: 1
  + max_cores: 512
  + scalability graph: 
1, 1.39494, 1.5699, 1.6742, 1.74538, 1.79792, 1.83875, 1.87167, 1.89893, 1.922, 1.94184, 1.95915, 1.97442, 1.98802, 2.00024, 2.0113, 2.02136, 2.03058, 2.03906, 2.04689, 2.05415, 2.06092, 2.06724, 2.07316, 2.07872, 2.08396, 2.0889, 2.09358, 2.09801, 2.10222, 2.10622, 2.11003, 2.11367, 2.11715, 2.12048, 2.12367, 2.12672, 2.12966, 2.13248, 2.1352, 
Number of clients: 5

+++++++++++++++++++++++++++++++++++++++++++++++++++++++++++
+ Client Mapping:
  > Client 39611 (7):	34 35 36 37 38 39 18 
  > Client 39612 (7):	0 1 12 13 14 15 16 
  > Client 39610 (7):	22 23 24 25 26 27 21 
  > Client 39615 (8):	2 3 4 5 6 17 28 29 
  > Client 39613 (8):	7 8 9 10 11 19 20 30 

+ Core Mapping:	39612 39612 39615 39615 39615 39615 39615 39613 39613 39613 39613 39613 39612 39612 39612 39612 39612 39615 39611 39613 39613 39610 39610 39610 39610 39610 39610 39610 39615 39615 39613 0 0 0 39611 39611 39611 39611 39611 39611 
+ Optimal point: 8 8 8 8 8 
+++++++++++++++++++++++++++++++++++++++++++++++++++++++++++
++++++++++++++++++++++++++++++++++++++++++++++++
 + TIMESTAMP: 1176.53
REINVADE (39611)
  + pid: 39611
  + min_cores: 1
  + max_cores: 512
  + scalability graph: 
1, 1.39494, 1.5699, 1.6742, 1.74538, 1.79792, 1.83875, 1.87167, 1.89893, 1.922, 1.94184, 1.95915, 1.97442, 1.98802, 2.00024, 2.0113, 2.02136, 2.03058, 2.03906, 2.04689, 2.05415, 2.06092, 2.06724, 2.07316, 2.07872, 2.08396, 2.0889, 2.09358, 2.09801, 2.10222, 2.10622, 2.11003, 2.11367, 2.11715, 2.12048, 2.12367, 2.12672, 2.12966, 2.13248, 2.1352, 
Number of clients: 5

+++++++++++++++++++++++++++++++++++++++++++++++++++++++++++
+ Client Mapping:
  > Client 39611 (8):	34 35 36 37 38 39 18 31 
  > Client 39612 (7):	0 1 12 13 14 15 16 
  > Client 39610 (7):	22 23 24 25 26 27 21 
  > Client 39615 (8):	2 3 4 5 6 17 28 29 
  > Client 39613 (8):	7 8 9 10 11 19 20 30 

+ Core Mapping:	39612 39612 39615 39615 39615 39615 39615 39613 39613 39613 39613 39613 39612 39612 39612 39612 39612 39615 39611 39613 39613 39610 39610 39610 39610 39610 39610 39610 39615 39615 39613 39611 0 0 39611 39611 39611 39611 39611 39611 
+ Optimal point: 8 8 8 8 8 
+++++++++++++++++++++++++++++++++++++++++++++++++++++++++++
++++++++++++++++++++++++++++++++++++++++++++++++
 + TIMESTAMP: 1176.54
REINVADE (39610)
  + pid: 39610
  + min_cores: 1
  + max_cores: 512
  + scalability graph: 
1, 1.39494, 1.5699, 1.6742, 1.74538, 1.79792, 1.83875, 1.87167, 1.89893, 1.922, 1.94184, 1.95915, 1.97442, 1.98802, 2.00024, 2.0113, 2.02136, 2.03058, 2.03906, 2.04689, 2.05415, 2.06092, 2.06724, 2.07316, 2.07872, 2.08396, 2.0889, 2.09358, 2.09801, 2.10222, 2.10622, 2.11003, 2.11367, 2.11715, 2.12048, 2.12367, 2.12672, 2.12966, 2.13248, 2.1352, 
Number of clients: 5

+++++++++++++++++++++++++++++++++++++++++++++++++++++++++++
+ Client Mapping:
  > Client 39611 (8):	34 35 36 37 38 39 18 31 
  > Client 39612 (7):	0 1 12 13 14 15 16 
  > Client 39610 (8):	22 23 24 25 26 27 21 32 
  > Client 39615 (8):	2 3 4 5 6 17 28 29 
  > Client 39613 (8):	7 8 9 10 11 19 20 30 

+ Core Mapping:	39612 39612 39615 39615 39615 39615 39615 39613 39613 39613 39613 39613 39612 39612 39612 39612 39612 39615 39611 39613 39613 39610 39610 39610 39610 39610 39610 39610 39615 39615 39613 39611 39610 0 39611 39611 39611 39611 39611 39611 
+ Optimal point: 8 8 8 8 8 
+++++++++++++++++++++++++++++++++++++++++++++++++++++++++++
++++++++++++++++++++++++++++++++++++++++++++++++
 + TIMESTAMP: 1176.55
REINVADE (39612)
  + pid: 39612
  + min_cores: 1
  + max_cores: 512
  + scalability graph: 
1, 1.39494, 1.5699, 1.6742, 1.74538, 1.79792, 1.83875, 1.87167, 1.89893, 1.922, 1.94184, 1.95915, 1.97442, 1.98802, 2.00024, 2.0113, 2.02136, 2.03058, 2.03906, 2.04689, 2.05415, 2.06092, 2.06724, 2.07316, 2.07872, 2.08396, 2.0889, 2.09358, 2.09801, 2.10222, 2.10622, 2.11003, 2.11367, 2.11715, 2.12048, 2.12367, 2.12672, 2.12966, 2.13248, 2.1352, 
Number of clients: 5

+++++++++++++++++++++++++++++++++++++++++++++++++++++++++++
+ Client Mapping:
  > Client 39611 (8):	34 35 36 37 38 39 18 31 
  > Client 39612 (8):	0 1 12 13 14 15 16 33 
  > Client 39610 (8):	22 23 24 25 26 27 21 32 
  > Client 39615 (8):	2 3 4 5 6 17 28 29 
  > Client 39613 (8):	7 8 9 10 11 19 20 30 

+ Core Mapping:	39612 39612 39615 39615 39615 39615 39615 39613 39613 39613 39613 39613 39612 39612 39612 39612 39612 39615 39611 39613 39613 39610 39610 39610 39610 39610 39610 39610 39615 39615 39613 39611 39610 39612 39611 39611 39611 39611 39611 39611 
+ Optimal point: 8 8 8 8 8 
+++++++++++++++++++++++++++++++++++++++++++++++++++++++++++
CLIENT SHUTDOWN: client 39611
 + TIMESTAMP: 1188.29
+++++++++++++++++++++++++++++++++++++++++++++++++++++++++++
+ Client Mapping:
  > Client 39611 (0):	
  > Client 39612 (8):	0 1 12 13 14 15 16 33 
  > Client 39610 (8):	22 23 24 25 26 27 21 32 
  > Client 39615 (8):	2 3 4 5 6 17 28 29 
  > Client 39613 (8):	7 8 9 10 11 19 20 30 

+ Core Mapping:	39612 39612 39615 39615 39615 39615 39615 39613 39613 39613 39613 39613 39612 39612 39612 39612 39612 39615 0 39613 39613 39610 39610 39610 39610 39610 39610 39610 39615 39615 39613 0 39610 39612 0 0 0 0 0 0 
+ Optimal point: 8 8 8 8 8 
+++++++++++++++++++++++++++++++++++++++++++++++++++++++++++
client (39611) shutdown hint: 20954.2
sum_client_shutdown_hint: 62862.6
sum_client_shutdown_hint_div_time: 0
++++++++++++++++++++++++++++++++++++++++++++++++
 + TIMESTAMP: 1188.3
REINVADE (39615)
  + pid: 39615
  + min_cores: 1
  + max_cores: 512
  + scalability graph: 
1, 1.39494, 1.5699, 1.6742, 1.74538, 1.79792, 1.83875, 1.87167, 1.89893, 1.922, 1.94184, 1.95915, 1.97442, 1.98802, 2.00024, 2.0113, 2.02136, 2.03058, 2.03906, 2.04689, 2.05415, 2.06092, 2.06724, 2.07316, 2.07872, 2.08396, 2.0889, 2.09358, 2.09801, 2.10222, 2.10622, 2.11003, 2.11367, 2.11715, 2.12048, 2.12367, 2.12672, 2.12966, 2.13248, 2.1352, 
Number of clients: 4

+++++++++++++++++++++++++++++++++++++++++++++++++++++++++++
+ Client Mapping:
  > Client 39612 (8):	0 1 12 13 14 15 16 33 
  > Client 39610 (8):	22 23 24 25 26 27 21 32 
  > Client 39615 (10):	2 3 4 5 6 17 28 29 18 31 
  > Client 39613 (8):	7 8 9 10 11 19 20 30 

+ Core Mapping:	39612 39612 39615 39615 39615 39615 39615 39613 39613 39613 39613 39613 39612 39612 39612 39612 39612 39615 39615 39613 39613 39610 39610 39610 39610 39610 39610 39610 39615 39615 39613 39615 39610 39612 0 0 0 0 0 0 
+ Optimal point: 10 10 10 10 
+++++++++++++++++++++++++++++++++++++++++++++++++++++++++++
++++++++++++++++++++++++++++++++++++++++++++++++
 + TIMESTAMP: 1188.31
REINVADE (39612)
  + pid: 39612
  + min_cores: 1
  + max_cores: 512
  + scalability graph: 
1, 1.39494, 1.5699, 1.6742, 1.74538, 1.79792, 1.83875, 1.87167, 1.89893, 1.922, 1.94184, 1.95915, 1.97442, 1.98802, 2.00024, 2.0113, 2.02136, 2.03058, 2.03906, 2.04689, 2.05415, 2.06092, 2.06724, 2.07316, 2.07872, 2.08396, 2.0889, 2.09358, 2.09801, 2.10222, 2.10622, 2.11003, 2.11367, 2.11715, 2.12048, 2.12367, 2.12672, 2.12966, 2.13248, 2.1352, 
Number of clients: 4

+++++++++++++++++++++++++++++++++++++++++++++++++++++++++++
+ Client Mapping:
  > Client 39612 (10):	0 1 12 13 14 15 16 33 34 35 
  > Client 39610 (8):	22 23 24 25 26 27 21 32 
  > Client 39615 (10):	2 3 4 5 6 17 28 29 18 31 
  > Client 39613 (8):	7 8 9 10 11 19 20 30 

+ Core Mapping:	39612 39612 39615 39615 39615 39615 39615 39613 39613 39613 39613 39613 39612 39612 39612 39612 39612 39615 39615 39613 39613 39610 39610 39610 39610 39610 39610 39610 39615 39615 39613 39615 39610 39612 39612 39612 0 0 0 0 
+ Optimal point: 10 10 10 10 
+++++++++++++++++++++++++++++++++++++++++++++++++++++++++++
++++++++++++++++++++++++++++++++++++++++++++++++
 + TIMESTAMP: 1188.31
REINVADE (39613)
  + pid: 39613
  + min_cores: 1
  + max_cores: 512
  + scalability graph: 
1, 1.39494, 1.5699, 1.6742, 1.74538, 1.79792, 1.83875, 1.87167, 1.89893, 1.922, 1.94184, 1.95915, 1.97442, 1.98802, 2.00024, 2.0113, 2.02136, 2.03058, 2.03906, 2.04689, 2.05415, 2.06092, 2.06724, 2.07316, 2.07872, 2.08396, 2.0889, 2.09358, 2.09801, 2.10222, 2.10622, 2.11003, 2.11367, 2.11715, 2.12048, 2.12367, 2.12672, 2.12966, 2.13248, 2.1352, 
Number of clients: 4

+++++++++++++++++++++++++++++++++++++++++++++++++++++++++++
+ Client Mapping:
  > Client 39612 (10):	0 1 12 13 14 15 16 33 34 35 
  > Client 39610 (8):	22 23 24 25 26 27 21 32 
  > Client 39615 (10):	2 3 4 5 6 17 28 29 18 31 
  > Client 39613 (10):	7 8 9 10 11 19 20 30 36 37 

+ Core Mapping:	39612 39612 39615 39615 39615 39615 39615 39613 39613 39613 39613 39613 39612 39612 39612 39612 39612 39615 39615 39613 39613 39610 39610 39610 39610 39610 39610 39610 39615 39615 39613 39615 39610 39612 39612 39612 39613 39613 0 0 
+ Optimal point: 10 10 10 10 
+++++++++++++++++++++++++++++++++++++++++++++++++++++++++++
++++++++++++++++++++++++++++++++++++++++++++++++
 + TIMESTAMP: 1188.31
REINVADE (39610)
  + pid: 39610
  + min_cores: 1
  + max_cores: 512
  + scalability graph: 
1, 1.39494, 1.5699, 1.6742, 1.74538, 1.79792, 1.83875, 1.87167, 1.89893, 1.922, 1.94184, 1.95915, 1.97442, 1.98802, 2.00024, 2.0113, 2.02136, 2.03058, 2.03906, 2.04689, 2.05415, 2.06092, 2.06724, 2.07316, 2.07872, 2.08396, 2.0889, 2.09358, 2.09801, 2.10222, 2.10622, 2.11003, 2.11367, 2.11715, 2.12048, 2.12367, 2.12672, 2.12966, 2.13248, 2.1352, 
Number of clients: 4

+++++++++++++++++++++++++++++++++++++++++++++++++++++++++++
+ Client Mapping:
  > Client 39612 (10):	0 1 12 13 14 15 16 33 34 35 
  > Client 39610 (10):	22 23 24 25 26 27 21 32 38 39 
  > Client 39615 (10):	2 3 4 5 6 17 28 29 18 31 
  > Client 39613 (10):	7 8 9 10 11 19 20 30 36 37 

+ Core Mapping:	39612 39612 39615 39615 39615 39615 39615 39613 39613 39613 39613 39613 39612 39612 39612 39612 39612 39615 39615 39613 39613 39610 39610 39610 39610 39610 39610 39610 39615 39615 39613 39615 39610 39612 39612 39612 39613 39613 39610 39610 
+ Optimal point: 10 10 10 10 
+++++++++++++++++++++++++++++++++++++++++++++++++++++++++++
CLIENT SHUTDOWN: client 39612
 + TIMESTAMP: 1198.63
+++++++++++++++++++++++++++++++++++++++++++++++++++++++++++
+ Client Mapping:
  > Client 39612 (0):	
  > Client 39610 (10):	22 23 24 25 26 27 21 32 38 39 
  > Client 39615 (10):	2 3 4 5 6 17 28 29 18 31 
  > Client 39613 (10):	7 8 9 10 11 19 20 30 36 37 

+ Core Mapping:	0 0 39615 39615 39615 39615 39615 39613 39613 39613 39613 39613 0 0 0 0 0 39615 39615 39613 39613 39610 39610 39610 39610 39610 39610 39610 39615 39615 39613 39615 39610 0 0 0 39613 39613 39610 39610 
+ Optimal point: 10 10 10 10 
+++++++++++++++++++++++++++++++++++++++++++++++++++++++++++
client (39612) shutdown hint: 20954.2
sum_client_shutdown_hint: 83816.8
sum_client_shutdown_hint_div_time: 0
++++++++++++++++++++++++++++++++++++++++++++++++
 + TIMESTAMP: 1198.63
REINVADE (39615)
  + pid: 39615
  + min_cores: 1
  + max_cores: 512
  + scalability graph: 
1, 1.39494, 1.5699, 1.6742, 1.74538, 1.79792, 1.83875, 1.87167, 1.89893, 1.922, 1.94184, 1.95915, 1.97442, 1.98802, 2.00024, 2.0113, 2.02136, 2.03058, 2.03906, 2.04689, 2.05415, 2.06092, 2.06724, 2.07316, 2.07872, 2.08396, 2.0889, 2.09358, 2.09801, 2.10222, 2.10622, 2.11003, 2.11367, 2.11715, 2.12048, 2.12367, 2.12672, 2.12966, 2.13248, 2.1352, 
Number of clients: 3

+++++++++++++++++++++++++++++++++++++++++++++++++++++++++++
+ Client Mapping:
  > Client 39610 (10):	22 23 24 25 26 27 21 32 38 39 
  > Client 39615 (13):	2 3 4 5 6 17 28 29 18 31 0 1 12 
  > Client 39613 (10):	7 8 9 10 11 19 20 30 36 37 

+ Core Mapping:	39615 39615 39615 39615 39615 39615 39615 39613 39613 39613 39613 39613 39615 0 0 0 0 39615 39615 39613 39613 39610 39610 39610 39610 39610 39610 39610 39615 39615 39613 39615 39610 0 0 0 39613 39613 39610 39610 
+ Optimal point: 14 13 13 
+++++++++++++++++++++++++++++++++++++++++++++++++++++++++++
++++++++++++++++++++++++++++++++++++++++++++++++
 + TIMESTAMP: 1198.65
REINVADE (39610)
  + pid: 39610
  + min_cores: 1
  + max_cores: 512
  + scalability graph: 
1, 1.39494, 1.5699, 1.6742, 1.74538, 1.79792, 1.83875, 1.87167, 1.89893, 1.922, 1.94184, 1.95915, 1.97442, 1.98802, 2.00024, 2.0113, 2.02136, 2.03058, 2.03906, 2.04689, 2.05415, 2.06092, 2.06724, 2.07316, 2.07872, 2.08396, 2.0889, 2.09358, 2.09801, 2.10222, 2.10622, 2.11003, 2.11367, 2.11715, 2.12048, 2.12367, 2.12672, 2.12966, 2.13248, 2.1352, 
Number of clients: 3

+++++++++++++++++++++++++++++++++++++++++++++++++++++++++++
+ Client Mapping:
  > Client 39610 (14):	22 23 24 25 26 27 21 32 38 39 13 14 15 16 
  > Client 39615 (13):	2 3 4 5 6 17 28 29 18 31 0 1 12 
  > Client 39613 (10):	7 8 9 10 11 19 20 30 36 37 

+ Core Mapping:	39615 39615 39615 39615 39615 39615 39615 39613 39613 39613 39613 39613 39615 39610 39610 39610 39610 39615 39615 39613 39613 39610 39610 39610 39610 39610 39610 39610 39615 39615 39613 39615 39610 0 0 0 39613 39613 39610 39610 
+ Optimal point: 14 13 13 
+++++++++++++++++++++++++++++++++++++++++++++++++++++++++++
++++++++++++++++++++++++++++++++++++++++++++++++
 + TIMESTAMP: 1198.65
REINVADE (39613)
  + pid: 39613
  + min_cores: 1
  + max_cores: 512
  + scalability graph: 
1, 1.39494, 1.5699, 1.6742, 1.74538, 1.79792, 1.83875, 1.87167, 1.89893, 1.922, 1.94184, 1.95915, 1.97442, 1.98802, 2.00024, 2.0113, 2.02136, 2.03058, 2.03906, 2.04689, 2.05415, 2.06092, 2.06724, 2.07316, 2.07872, 2.08396, 2.0889, 2.09358, 2.09801, 2.10222, 2.10622, 2.11003, 2.11367, 2.11715, 2.12048, 2.12367, 2.12672, 2.12966, 2.13248, 2.1352, 
Number of clients: 3

+++++++++++++++++++++++++++++++++++++++++++++++++++++++++++
+ Client Mapping:
  > Client 39610 (14):	22 23 24 25 26 27 21 32 38 39 13 14 15 16 
  > Client 39615 (13):	2 3 4 5 6 17 28 29 18 31 0 1 12 
  > Client 39613 (13):	7 8 9 10 11 19 20 30 36 37 33 34 35 

+ Core Mapping:	39615 39615 39615 39615 39615 39615 39615 39613 39613 39613 39613 39613 39615 39610 39610 39610 39610 39615 39615 39613 39613 39610 39610 39610 39610 39610 39610 39610 39615 39615 39613 39615 39610 39613 39613 39613 39613 39613 39610 39610 
+ Optimal point: 14 13 13 
+++++++++++++++++++++++++++++++++++++++++++++++++++++++++++
CLIENT SHUTDOWN: client 39610
 + TIMESTAMP: 1205.25
+++++++++++++++++++++++++++++++++++++++++++++++++++++++++++
+ Client Mapping:
  > Client 39610 (0):	
  > Client 39615 (13):	2 3 4 5 6 17 28 29 18 31 0 1 12 
  > Client 39613 (13):	7 8 9 10 11 19 20 30 36 37 33 34 35 

+ Core Mapping:	39615 39615 39615 39615 39615 39615 39615 39613 39613 39613 39613 39613 39615 0 0 0 0 39615 39615 39613 39613 0 0 0 0 0 0 0 39615 39615 39613 39615 0 39613 39613 39613 39613 39613 0 0 
+ Optimal point: 14 13 13 
+++++++++++++++++++++++++++++++++++++++++++++++++++++++++++
client (39610) shutdown hint: 20954.2
sum_client_shutdown_hint: 104771
sum_client_shutdown_hint_div_time: 0
++++++++++++++++++++++++++++++++++++++++++++++++
 + TIMESTAMP: 1205.25
REINVADE (39615)
  + pid: 39615
  + min_cores: 1
  + max_cores: 512
  + scalability graph: 
1, 1.39494, 1.5699, 1.6742, 1.74538, 1.79792, 1.83875, 1.87167, 1.89893, 1.922, 1.94184, 1.95915, 1.97442, 1.98802, 2.00024, 2.0113, 2.02136, 2.03058, 2.03906, 2.04689, 2.05415, 2.06092, 2.06724, 2.07316, 2.07872, 2.08396, 2.0889, 2.09358, 2.09801, 2.10222, 2.10622, 2.11003, 2.11367, 2.11715, 2.12048, 2.12367, 2.12672, 2.12966, 2.13248, 2.1352, 
Number of clients: 2

+++++++++++++++++++++++++++++++++++++++++++++++++++++++++++
+ Client Mapping:
  > Client 39615 (20):	2 3 4 5 6 17 28 29 18 31 0 1 12 13 14 15 16 21 22 23 
  > Client 39613 (13):	7 8 9 10 11 19 20 30 36 37 33 34 35 

+ Core Mapping:	39615 39615 39615 39615 39615 39615 39615 39613 39613 39613 39613 39613 39615 39615 39615 39615 39615 39615 39615 39613 39613 39615 39615 39615 0 0 0 0 39615 39615 39613 39615 0 39613 39613 39613 39613 39613 0 0 
+ Optimal point: 20 20 
+++++++++++++++++++++++++++++++++++++++++++++++++++++++++++
++++++++++++++++++++++++++++++++++++++++++++++++
 + TIMESTAMP: 1205.26
REINVADE (39613)
  + pid: 39613
  + min_cores: 1
  + max_cores: 512
  + scalability graph: 
1, 1.39494, 1.5699, 1.6742, 1.74538, 1.79792, 1.83875, 1.87167, 1.89893, 1.922, 1.94184, 1.95915, 1.97442, 1.98802, 2.00024, 2.0113, 2.02136, 2.03058, 2.03906, 2.04689, 2.05415, 2.06092, 2.06724, 2.07316, 2.07872, 2.08396, 2.0889, 2.09358, 2.09801, 2.10222, 2.10622, 2.11003, 2.11367, 2.11715, 2.12048, 2.12367, 2.12672, 2.12966, 2.13248, 2.1352, 
Number of clients: 2

+++++++++++++++++++++++++++++++++++++++++++++++++++++++++++
+ Client Mapping:
  > Client 39615 (20):	2 3 4 5 6 17 28 29 18 31 0 1 12 13 14 15 16 21 22 23 
  > Client 39613 (20):	7 8 9 10 11 19 20 30 36 37 33 34 35 24 25 26 27 32 38 39 

+ Core Mapping:	39615 39615 39615 39615 39615 39615 39615 39613 39613 39613 39613 39613 39615 39615 39615 39615 39615 39615 39615 39613 39613 39615 39615 39615 39613 39613 39613 39613 39615 39615 39613 39615 39613 39613 39613 39613 39613 39613 39613 39613 
+ Optimal point: 20 20 
+++++++++++++++++++++++++++++++++++++++++++++++++++++++++++
CLIENT SHUTDOWN: client 39613
 + TIMESTAMP: 1249.23
+++++++++++++++++++++++++++++++++++++++++++++++++++++++++++
+ Client Mapping:
  > Client 39615 (20):	2 3 4 5 6 17 28 29 18 31 0 1 12 13 14 15 16 21 22 23 
  > Client 39613 (0):	

+ Core Mapping:	39615 39615 39615 39615 39615 39615 39615 0 0 0 0 0 39615 39615 39615 39615 39615 39615 39615 0 0 39615 39615 39615 0 0 0 0 39615 39615 0 39615 0 0 0 0 0 0 0 0 
+ Optimal point: 20 20 
+++++++++++++++++++++++++++++++++++++++++++++++++++++++++++
client (39613) shutdown hint: 20954.2
sum_client_shutdown_hint: 125725
sum_client_shutdown_hint_div_time: 0
++++++++++++++++++++++++++++++++++++++++++++++++
 + TIMESTAMP: 1249.24
REINVADE (39615)
  + pid: 39615
  + min_cores: 1
  + max_cores: 512
  + scalability graph: 
1, 1.39494, 1.5699, 1.6742, 1.74538, 1.79792, 1.83875, 1.87167, 1.89893, 1.922, 1.94184, 1.95915, 1.97442, 1.98802, 2.00024, 2.0113, 2.02136, 2.03058, 2.03906, 2.04689, 2.05415, 2.06092, 2.06724, 2.07316, 2.07872, 2.08396, 2.0889, 2.09358, 2.09801, 2.10222, 2.10622, 2.11003, 2.11367, 2.11715, 2.12048, 2.12367, 2.12672, 2.12966, 2.13248, 2.1352, 
Number of clients: 1

+++++++++++++++++++++++++++++++++++++++++++++++++++++++++++
+ Client Mapping:
  > Client 39615 (40):	2 3 4 5 6 17 28 29 18 31 0 1 12 13 14 15 16 21 22 23 7 8 9 10 11 19 20 24 25 26 27 30 32 33 34 35 36 37 38 39 

+ Core Mapping:	39615 39615 39615 39615 39615 39615 39615 39615 39615 39615 39615 39615 39615 39615 39615 39615 39615 39615 39615 39615 39615 39615 39615 39615 39615 39615 39615 39615 39615 39615 39615 39615 39615 39615 39615 39615 39615 39615 39615 39615 
+ Optimal point: 40 
+++++++++++++++++++++++++++++++++++++++++++++++++++++++++++
CLIENT SHUTDOWN: client 39615
 + TIMESTAMP: 1276.63
+++++++++++++++++++++++++++++++++++++++++++++++++++++++++++
+ Client Mapping:
  > Client 39615 (0):	

+ Core Mapping:	0 0 0 0 0 0 0 0 0 0 0 0 0 0 0 0 0 0 0 0 0 0 0 0 0 0 0 0 0 0 0 0 0 0 0 0 0 0 0 0 
+ Optimal point: 40 
+++++++++++++++++++++++++++++++++++++++++++++++++++++++++++
client (39615) shutdown hint: 20954.2
sum_client_shutdown_hint: 146679
sum_client_shutdown_hint_div_time: 0
END TIMESTAMP: 1276.63
OVERALL TIME: 1276.31
 + sum_client_shutdown_hint: 146679
 + sum_client_shutdown_hint/time: 114.925
sum_client_shutdown_hint: 146679
sum_client_shutdown_hint_div_time: 114.925
