Executable + params: ../../build/sierpi_intel_tbb_scan_tsunami_parallel_release -o 32768 -k 10 -A 1 -d 20 -a 8 -t 100
Problem size with different number of CPUs using function optimization
THREADS	MTPS	TIMESTEPS	TIMESTEP_SIZE	SECONDS_FOR_SIMULATION	AVERAGE_TRIANGLES	AVERAGE_PARTITIONS
80	65.7441	100	0.000491318		1.9047e+07	1762.6
64	55.0267	100	0.000491318		1.9047e+07	1438.5
60	51.5703	100	0.000491318		1.9047e+07	1364.2
40	46.1934	100	0.000491318		1.9047e+07	955.9
32	39.9182	100	0.000491318		1.9047e+07	593.1
30	34.331	100	0.000491318		1.9047e+07	753.1
20	26.6612	100	0.000491318		1.9047e+07	533.8
16	20.9434	100	0.000491318		1.9047e+07	345.9
10	15.0611	100	0.000491318		1.9047e+07	289.9
8	12.405	100	0.000491318		1.9047e+07	238.6
4	8.52532	100	0.000491318		1.9047e+07	111.9
2	4.57301	100	0.000491318		1.9047e+07	71.2
1	2.3949	100	0.000491318		1.9047e+07	48
