%%MatrixMarket matrix array complex general
20 20
1 0
0 0
0 0
0 0
0 0
0 0
0 0
0 0
0 0
0 0
0 0
0 0
0 0
0 0
0 0
0 0
0 0
0 0
0 0
0 0
0 0
1 0
0 0
0 0
0 0
0 0
0 0
0 0
0 0
0 0
0 0
0 0
0 0
0 0
0 0
0 0
0 0
0 0
0 0
0 0
0 0
0 0
1 0
0 0
0 0
0 0
0 0
0 0
0 0
0 0
0 0
0 0
0 0
0 0
0 0
0 0
0 0
0 0
0 0
0 0
0 0
0 0
0 0
1 0
0 0
0 0
0 0
0 0
0 0
0 0
0 0
0 0
0 0
0 0
0 0
0 0
0 0
0 0
0 0
0 0
0 0
0 0
0 0
0 0
-0.5 0
0 0
0 0
0 0
0 0
0 0
-0.866025404 0
0 0
0 0
0 0
0 0
0 0
0 0
0 0
0 0
0 0
0 0
0 0
0 0
0 0
0 0
-0.5 0
0 0
0 0
0 0
0 0
0 0
-0.866025404 0
0 0
0 0
0 0
0 0
0 0
0 0
0 0
0 0
0 0
0 0
0 0
0 0
0 0
0 0
-0.5 0
0 0
0 0
0 0
0 0
0 0
-0.866025404 0
0 0
0 0
0 0
0 0
0 0
0 0
0 0
0 0
0 0
0 0
0 0
0 0
0 0
0 0
0.333333333 0
0 0
0 0
0 0
0 0
0 0
0.577350269 0
0 0
0 0
0.745355993 0
0 0
0 0
0 0
0 0
0 0
0 0
0 0
0 0
0 0
0 0
0 0
0.333333333 0
0 0
0 0
0 0
0 0
0 0
0.577350269 0
0 0
0 0
0.745355992 0
0 0
0 0
0 0
0 0
0 0
0 0
0 0
0 0
0 0
0 0
0 0
-0.25 0
0 0
0 0
0 0
0 0
0 0
-0.433012702 0
0 0
0 0
-0.559016994 0
-0.661437828 0
-1.63299316 0
0 0
0 0
0 0
1.44337567 0
0 0
0 0
0 0
0 0
0 0
-1.5 0
0 0
0 0
0 0
0 0
0 0
0 0
0 0
0 0
0 0
0 0
-1.63299316 0
0 0
0 0
0 0
1.44337567 0
0 0
0 0
0 0
0 0
0 0
-1.5 0
0 0
0 0
0 0
0 0
0 0
0 0
0 0
0 0
0 0
0 0
-1.63299316 0
0 0
0 0
0 0
1.44337567 0
0 0
0 0
0 0
0 0
0 0
-1.5 0
0 0
0 0
0 0
0 0
0 0
0 0
0 0
-0.5 0
0 0
0 0
0 0
0.707106781 0
0 0
0 0
-0.866025404 0
0 0
0 0
1.22474487 0
0 0
0 0
-0.5 0
0 0
0 0
1.93649167 0
0 0
0 0
0 0
0 0
-0.5 0
0 0
0 0
0 0
0.707106782 0
0 0
0 0
-0.866025404 0
0 0
0 0
1.22474487 0
0 0
0 0
-0.5 0
0 0
0 0
1.93649167 0
0 0
0 0
-0.230940108 0
0 0
0 0
0 0
0.326598632 0
0 0
0 0
-0.4 0
0 0
0.606217783 0
0.565685425 0
0 0
0 0
-0.692820323 0
0 0
0.65 0
-0.894427191 0
0 0
-0.193649167 0
-2.06215906 0
5.80947502 0
0 0
0 0
0 0
-4.92950302 0
0 0
0 0
2.31060358 0
0 0
0 0
6.64078309 0
0 0
0 0
-2.96928723 0
0 0
0 0
2.16666667 0
0 0
0 0
0 0
0 0
5.80947502 0
0 0
0 0
0 0
-4.92950302 0
0 0
0 0
2.31060358 0
0 0
0 0
6.64078309 0
0 0
0 0
-2.96928723 0
0 0
0 0
2.16666667 0
0 0
0 0
2.68328157 0
0 0
0 0
0 0
-3.16227766 0
0 0
0 0
2.5819889 0
0 0
-1.45344418 0
-2.5560386 0
0 0
0 0
0.894427191 0
0 0
0.0645497224 0
-8.08290377 0
0 0
2.75 0
-3.84545186 0
-23.2826115 0
0 0
0 0
0 0
21.7016128 0
0 0
0 0
-12.3947762 0
0 0
3.94972874 0
-31.5396047 0
0 0
0 0
17.8399231 0
0 0
-5.55364531 0
-16.0047612 0
0 0
4.77512154 0
-3.15 0
