%%MatrixMarket matrix array complex general
16 20
1.41421356 0
1.41421356 0
1.41421356 0
1.41421356 0
1.41421356 0
1.41421356 0
1.41421356 0
1.41421356 0
1.41421356 0
1.41421356 0
1.41421356 0
1.41421356 0
1.41421356 0
1.41421356 0
1.41421356 0
1.41421356 0
-0.832780079 0
-0.832780079 0
-0.832780079 0
-0.832780079 0
0.832780079 0
0.832780079 0
0.832780079 0
0.832780079 0
-2.10934456 0
-2.10934456 0
-2.10934456 0
-2.10934456 0
2.10934456 0
2.10934456 0
2.10934456 0
2.10934456 0
-1.03286103 0
-1.03286103 0
-1.03286103 0
-1.03286103 0
-1.03286103 0
-1.03286103 0
-1.03286103 0
-1.03286103 0
1.93636893 0
1.93636893 0
1.93636893 0
1.93636893 0
1.93636893 0
1.93636893 0
1.93636893 0
1.93636893 0
1.54054512 0
1.54054512 0
1.54054512 0
1.54054512 0
-1.54054511 0
-1.54054511 0
-1.54054511 0
-1.54054511 0
-1.1402588 0
-1.1402588 0
-1.1402588 0
-1.1402588 0
1.14025879 0
1.14025879 0
1.14025879 0
1.14025879 0
-0.019943131 0
2.01994313 0
-1.58340893 0
3.58340893 0
-0.019943131 0
2.01994313 0
-1.58340893 0
3.58340893 0
-0.019943131 0
2.01994313 0
-1.58340893 0
3.58340893 0
-0.019943131 0
2.01994313 0
-1.58340893 0
3.58340893 0
0.0117438008 0
-1.18947268 0
0.932413218 0
-2.1101421 0
-0.0117438008 0
1.18947268 0
-0.932413218 0
2.1101421 0
0.0297458152 0
-3.0128095 0
2.36170485 0
-5.34476854 0
-0.0297458152 0
3.0128095 0
-2.36170485 0
5.34476854 0
0.014565327 0
-1.4752514 0
1.15643169 0
-2.61711776 0
0.014565327 0
-1.4752514 0
1.15643169 0
-2.61711776 0
-0.0273065261 0
2.76574572 0
-2.16803455 0
4.90647374 0
-0.0273065262 0
2.76574573 0
-2.16803455 0
4.90647376 0
-1.34970135 0
0.31585881 0
1.20699356 0
5.42568268 0
-1.34970135 0
0.31585881 0
1.20699356 0
5.42568268 0
-1.34970135 0
0.31585881 0
1.20699356 0
5.42568268 0
-1.34970135 0
0.31585881 0
1.20699356 0
5.42568268 0
0.794791132 0
-0.185998021 0
-0.710755586 0
-3.1949916 0
-0.794791132 0
0.185998021 0
0.710755586 0
3.1949916 0
2.01312254 0
-0.471113472 0
-1.80026932 0
-8.09257849 0
-2.01312254 0
0.471113472 0
1.80026932 0
8.09257849 0
0.869073973 0
-1.76440786 0
-0.463133532 0
6.20719964 0
0.869073973 0
-1.76440786 0
-0.463133532 0
6.20719964 0
0.869073973 0
-1.76440786 0
-0.463133532 0
6.20719964 0
0.869073973 0
-1.76440786 0
-0.463133532 0
6.20719964 0
2.32091525 0
1.14318637 0
3.22358265 0
0.240518964 0
2.32091525 0
1.14318637 0
3.22358265 0
0.240518964 0
2.32091525 0
1.14318637 0
3.22358265 0
0.240518964 0
2.32091525 0
1.14318637 0
3.22358265 0
0.240518964 0
-1.36670446 0
-0.673181801 0
-1.8982532 0
-0.141633065 0
1.36670446 0
0.673181801 0
1.8982532 0
0.141633065 0
-3.461719 0
-1.70509887 0
-4.80807617 0
-0.358741693 0
3.461719 0
1.70509887 0
4.80807617 0
0.358741693 0
-1.69506429 0
-0.834918202 0
-2.35432114 0
-0.17566135 0
-1.69506429 0
-0.834918201 0
-2.35432114 0
-0.17566135 0
3.17784265 0
1.56527318 0
4.41379255 0
0.329323279 0
3.17784266 0
1.56527318 0
4.41379256 0
0.32932328 0
1.84777859 0
3.290196 0
-2.57745869 0
1.07603326 0
1.84777859 0
3.290196 0
-2.57745869 0
1.07603326 0
1.84777859 0
3.290196 0
-2.57745869 0
1.07603326 0
1.84777859 0
3.290196 0
-2.57745869 0
1.07603326 0
-1.08809111 0
-1.93747943 0
1.51777377 0
-0.633637725 0
1.08809111 0
1.93747943 0
-1.51777377 0
0.633637725 0
-2.75602061 0
-4.9074321 0
3.84436171 0
-1.60493787 0
2.75602061 0
4.9074321 0
-3.84436171 0
1.60493787 0
-2.20923795 0
3.85867698 0
1.222015 0
2.72737966 0
-2.20923795 0
3.85867698 0
1.222015 0
2.72737966 0
-2.20923795 0
3.85867698 0
1.222015 0
2.72737966 0
-2.20923795 0
3.85867698 0
1.222015 0
2.72737966 0
2.458657 0
0.596504123 0
4.74304234 0
0.026404504 0
2.458657 0
0.596504123 0
4.74304234 0
0.026404504 0
2.458657 0
0.596504123 0
4.74304234 0
0.026404504 0
2.458657 0
0.596504123 0
4.74304234 0
0.026404504 0
-1.44781568 0
-0.351260067 0
-2.79300898 0
-0.0155486735 0
1.44781568 0
0.351260067 0
2.79300898 0
0.0155486735 0
-3.66716521 0
-0.889704894 0
-7.07439868 0
-0.0393831586 0
3.66716521 0
0.889704894 0
7.07439868 0
0.0393831586 0
3.71929482 0
2.5415659 0
-2.81494641 0
0.168117274 0
3.71929482 0
2.5415659 0
-2.81494641 0
0.168117274 0
3.71929482 0
2.5415659 0
-2.81494641 0
0.168117274 0
3.71929482 0
2.5415659 0
-2.81494641 0
0.168117274 0
2.25060866 0
0.268951059 0
6.03029517 0
0.00250478145 0
2.25060866 0
0.268951059 0
6.03029517 0
0.00250478145 0
2.25060866 0
0.268951059 0
6.03029517 0
0.00250478145 0
2.25060866 0
0.268951059 0
6.03029517 0
0.00250478145 0
