%%MatrixMarket matrix array complex general
20 16
0.212646651 0
-0.125220052 0
-0.155305001 0
0.231642356 0
-0.00299872674 0
0.00176584356 0
0.00219009922 0
-0.202946344 0
0.119507886 0
0.130677343 0
0.348981843 0
-0.205502998 0
-0.254876459 0
0.277839175 0
-0.163609611 0
-0.332189611 0
0.369693229 0
-0.217699197 0
0.559247634 0
0.338410271 0
0.212646651 0
-0.125220052 0
-0.155305001 0
0.231642356 0
0.303726505 0
-0.178853739 0
-0.221824538 0
0.047493759 0
-0.0279673859 0
-0.265303228 0
0.171893948 0
-0.101222234 0
-0.125541548 0
0.494726667 0
-0.291326942 0
0.580205678 0
0.0896926798 0
-0.0528168298 0
0.382159734 0
0.0404405272 0
0.113425926 0
-0.0667924947 0
-0.0828398353 0
0.123558253 0
-0.126996113 0
0.0747834949 0
0.0927507265 0
0.0968060028 0
-0.0570056127 0
-0.0371452737 0
0.258545002 0
-0.152247958 0
-0.188826542 0
-0.20672312 0
0.121731894 0
0.098010786 0
0.380412113 0
-0.224011167 0
-0.225770642 0
0.48365525 0
0.113425926 0
-0.0667924947 0
-0.0828398353 0
0.123558253 0
0.287404596 0
-0.169242347 0
-0.209903945 0
0.435162765 0
-0.256251878 0
0.49784374 0
0.0192906411 0
-0.0113595726 0
-0.0140887854 0
0.0863024317 0
-0.0508204332 0
0.218747417 0
0.00211775322 0
-0.00124706957 0
0.0134837185 0
0.000200894096 0
0.212646651 0
0.125220052 0
-0.155305001 0
-0.231642355 0
-0.00299872674 0
-0.00176584357 0
0.00219009921 0
-0.202946344 0
-0.119507886 0
0.130677343 0
0.348981844 0
0.205502998 0
-0.254876459 0
0.277839176 0
0.163609611 0
-0.332189611 0
0.369693229 0
0.217699197 0
0.559247634 0
0.338410271 0
0.212646651 0
0.125220052 0
-0.155305001 0
-0.231642355 0
0.303726505 0
0.178853739 0
-0.221824538 0
0.047493759 0
0.0279673859 0
-0.265303228 0
0.171893948 0
0.101222234 0
-0.125541548 0
0.494726667 0
0.291326942 0
0.580205678 0
0.0896926798 0
0.0528168298 0
0.382159734 0
0.0404405272 0
0.113425926 0
0.0667924947 0
-0.0828398352 0
-0.123558252 0
-0.126996113 0
-0.0747834949 0
0.0927507264 0
0.0968060028 0
0.0570056127 0
-0.0371452737 0
0.258545002 0
0.152247958 0
-0.188826541 0
-0.20672312 0
-0.121731894 0
0.098010786 0
0.380412113 0
0.224011167 0
-0.225770642 0
0.48365525 0
0.113425926 0
0.0667924947 0
-0.0828398352 0
-0.123558252 0
0.287404596 0
0.169242347 0
-0.209903945 0
0.435162765 0
0.256251878 0
0.49784374 0
0.0192906411 0
0.0113595726 0
-0.0140887854 0
0.0863024317 0
0.0508204332 0
0.218747417 0
0.00211775322 0
0.00124706957 0
0.0134837185 0
0.000200894096 0
0.113425926 0
-0.169178381 0
0.155305001 0
-0.0914535923 0
-0.0015995237 0
0.00238574055 0
-0.00219009922 0
-0.108251773 0
0.161460967 0
0.0697034189 0
0.186147247 0
-0.277644547 0
0.254876459 0
0.14819968 0
-0.221044543 0
-0.177190254 0
0.19719472 0
-0.294122204 0
0.29830322 0
0.180508361 0
0.113425926 0
-0.169178381 0
0.155305001 0
-0.0914535923 0
0.162008007 0
-0.241640101 0
0.221824538 0
0.0253332163 0
-0.0377852987 0
-0.141512994 0
0.0916883955 0
-0.136756162 0
0.125541548 0
0.263887675 0
-0.39359687 0
0.309482261 0
0.0478421608 0
-0.0713581063 0
0.203844366 0
0.0215710157 0
0.060501497 0
-0.0902399093 0
0.0828398354 0
-0.0487814332 0
-0.0677398473 0
0.101036139 0
-0.0927507265 0
0.051636414 0
-0.0770173557 0
-0.0198133243 0
0.13790815 0
-0.205694397 0
0.188826542 0
-0.110266309 0
0.164465711 0
0.0522790465 0
0.202912183 0
-0.302649983 0
-0.120426275 0
0.257982171 0
0.060501497 0
-0.0902399093 0
0.0828398354 0
-0.0487814332 0
0.153301885 0
-0.228654643 0
0.209903945 0
0.232116233 0
-0.346208752 0
0.265550324 0
0.0102896463 0
-0.0153473351 0
0.0140887854 0
0.0460337992 0
-0.0686608773 0
0.11668008 0
0.00112961158 0
-0.00168485165 0
0.00719222827 0
0.000107157102 0
0.113425926 0
0.169178381 0
0.155305002 0
0.0914535914 0
-0.0015995237 0
-0.00238574055 0
-0.00219009922 0
-0.108251773 0
-0.161460967 0
0.0697034189 0
0.186147247 0
0.277644547 0
0.25487646 0
0.14819968 0
0.221044543 0
-0.177190254 0
0.19719472 0
0.294122204 0
0.29830322 0
0.180508361 0
0.113425926 0
0.169178381 0
0.155305002 0
0.0914535914 0
0.162008007 0
0.241640101 0
0.221824539 0
0.0253332163 0
0.0377852987 0
-0.141512994 0
0.0916883955 0
0.136756162 0
0.125541548 0
0.263887675 0
0.39359687 0
0.309482261 0
0.0478421608 0
0.0713581063 0
0.203844366 0
0.0215710157 0
0.060501497 0
0.0902399093 0
0.0828398357 0
0.0487814326 0
-0.0677398473 0
-0.101036139 0
-0.0927507268 0
0.051636414 0
0.0770173558 0
-0.0198133243 0
0.13790815 0
0.205694397 0
0.188826542 0
-0.110266309 0
-0.164465711 0
0.0522790465 0
0.202912183 0
0.302649983 0
-0.120426275 0
0.257982171 0
0.060501497 0
0.0902399093 0
0.0828398357 0
0.0487814326 0
0.153301885 0
0.228654643 0
0.209903946 0
0.232116233 0
0.346208752 0
0.265550324 0
0.0102896463 0
0.0153473351 0
0.0140887854 0
0.0460337991 0
0.0686608773 0
0.11668008 0
0.00112961158 0
0.00168485165 0
0.00719222827 0
0.000107157102 0
