%%MatrixMarket matrix array complex general
20 13
-0.211523985 0
0.36637029 0
-0.47298201 0
0.559639862 0
0 0
0 0
0 0
0.20353905 0
-0.352539976 0
-0.125347547 0
0 0
0 0
0 0
0 0
0 0
0 0
0.182050861 0
-0.31532134 0
0.280285636 0
0 0
0.248357479 0
-0.430167772 0
0.555344205 0
-0.657092125 0
-0.0769061716 0
0.133205397 0
-0.171967428 0
-0.174203971 0
0.301730128 0
0.234800854 0
0.133205397 0
-0.230718515 0
0.297856322 0
0.049224997 0
-0.0852601958 0
-0.132011881 0
-0.193942287 0
0.335917895 0
-0.184177458 0
-0.20165148 0
0.248357479 0
-0.430167772 0
0.555344205 0
-0.657092125 0
-0.0769061716 0
0.133205397 0
-0.171967428 0
-0.174203971 0
0.301730128 0
0.234800854 0
-0.133205397 0
0.230718515 0
-0.297856322 0
-0.049224997 0
0.0852601958 0
0.132011881 0
-0.193942287 0
0.335917895 0
-0.184177458 0
0.20165148 0
0.248357479 0
-0.430167772 0
0.555344205 0
-0.657092125 0
0.153812343 0
-0.266410794 0
0.343934855 0
-0.231044101 0
0.400180121 0
-0.146284625 0
0 0
0 0
0 0
0 0
0 0
0 0
-0.130393089 0
0.225847456 0
-0.354604065 0
-1.05134740e-09 0
0.0754443841 0
-0.130673506 0
0.168698771 0
-0.199607078 0
-0.0858474056 0
0.148692068 0
-0.191960634 0
0.0681303541 0
-0.118005235 0
-0.0308213867 0
0.148692068 0
-0.257542216 0
0.332485572 0
-0.122805682 0
0.212705681 0
0.0646658781 0
0.156062514 0
-0.270308204 0
-0.0980478638 0
0.0987787639 0
0.0754443841 0
-0.130673506 0
0.168698771 0
-0.199607078 0
-0.0858474056 0
0.148692068 0
-0.191960634 0
0.0681303541 0
-0.118005235 0
-0.0308213867 0
-0.148692068 0
0.257542217 0
-0.332485572 0
0.122805682 0
-0.212705681 0
-0.0646658781 0
0.156062514 0
-0.270308203 0
-0.0980478636 0
-0.0987787605 0
0.0754443841 0
-0.130673506 0
0.168698771 0
-0.199607078 0
0.171694811 0
-0.297384136 0
0.383921269 0
0.209934141 0
-0.363616599 0
0.155852924 0
0 0
0 0
0 0
0 0
0 0
0 0
-0.00247894022 0
0.00429365042 0
-0.0145645733 0
0 0
0.109055326 0
-0.188889366 0
0.243855123 0
-0.288533273 0
-0.00947011148 0
0.0164027142 0
-0.021175813 0
-0.0989923424 0
0.171459766 0
0.0785270292 0
-0.157540895 0
0.272868835 0
-0.352272151 0
-0.108885522 0
0.188595256 0
0.155691235 0
0.120644572 0
-0.208962528 0
0.165785084 0
-0.0548925149 0
0.109055326 0
-0.188889366 0
0.243855123 0
-0.288533273 0
0.141169473 0
-0.2445127 0
0.315664539 0
-0.00593937849 0
0.0102873053 0
-0.143416734 0
0.0705690906 0
-0.12222925 0
0.157797284 0
0.189471752 0
-0.328174702 0
0.18946989 0
0.0166081952 0
-0.0287662378 0
0.0665288158 0
-0.00329476722 0
0.109055326 0
-0.188889366 0
0.243855123 0
-0.288533273 0
-0.131699362 0
0.228109986 0
-0.294488725 0
0.119790792 0
-0.207483738 0
-0.0812001404 0
0.0869718048 0
-0.150639585 0
0.194474868 0
-0.0805862305 0
0.139579446 0
0.0572552 0
-0.123962409 0
0.214709191 0
0.0943529221 0
-0.205256042 0
0.109055326 0
-0.188889366 0
0.243855123 0
-0.288533273 0
-0.131699362 0
0.228109986 0
-0.294488725 0
0.119790792 0
-0.207483738 0
-0.0812001404 0
-0.0869718048 0
0.150639585 0
-0.194474868 0
0.0805862306 0
-0.139579446 0
-0.0572552 0
-0.123962409 0
0.214709191 0
0.0943529223 0
0.20525604 0
0.109055326 0
-0.188889366 0
0.243855123 0
-0.288533273 0
-0.00947011148 0
0.0164027142 0
-0.021175813 0
-0.0989923424 0
0.171459766 0
0.0785270292 0
0.157540895 0
-0.272868835 0
0.352272151 0
0.108885522 0
-0.188595256 0
-0.155691235 0
0.120644572 0
-0.208962528 0
0.165785084 0
0.0548925117 0
0.109055326 0
-0.188889366 0
0.243855123 0
-0.288533273 0
0.141169473 0
-0.2445127 0
0.315664539 0
-0.00593937849 0
0.0102873053 0
-0.143416734 0
-0.0705690905 0
0.12222925 0
-0.157797284 0
-0.189471752 0
0.328174702 0
-0.18946989 0
0.0166081953 0
-0.0287662381 0
0.0665288165 0
0.0032947677 0
