%%MatrixMarket matrix array complex general
20 16
0.150363889 0
-0.0885439476 0
-0.10981722 0
0.16379588 0
-0.212646651 0
0.125220052 0
0.155305001 0
0.260437896 0
-0.153362616 0
-0.300727778 0
-0.125220052 0
0.0737376356 0
0.0914535927 0
0.153362616 0
-0.0903097912 0
-0.177087895 0
-0.190209004 0
0.112007319 0
0.219634439 0
0.327591761 0
0.150363889 0
-0.0885439476 0
-0.10981722 0
0.16379588 0
-0.212646651 0
0.125220052 0
0.155305001 0
0.260437896 0
-0.153362616 0
-0.300727778 0
0.125220052 0
-0.0737376356 0
-0.0914535927 0
-0.153362616 0
0.0903097912 0
0.177087895 0
-0.190209004 0
0.112007319 0
0.219634439 0
-0.32759176 0
0.0802042416 0
-0.0472294259 0
-0.0585766093 0
0.0873688785 0
-0.113425926 0
0.0667924947 0
0.0828398354 0
0.138917822 0
-0.0818037653 0
-0.160408483 0
-0.169178381 0
0.0996231328 0
0.123558252 0
0.207200354 0
-0.122012921 0
-0.239254361 0
0.190209004 0
-0.112007319 0
-0.219634439 0
-0.129334911 0
0.0802042416 0
-0.0472294259 0
-0.0585766093 0
0.0873688785 0
-0.113425926 0
0.0667924947 0
0.0828398354 0
0.138917822 0
-0.0818037653 0
-0.160408483 0
0.169178381 0
-0.0996231328 0
-0.123558252 0
-0.207200354 0
0.122012921 0
0.239254361 0
0.190209004 0
-0.112007319 0
-0.21963444 0
0.129334909 0
0.150363889 0
0.0885439476 0
-0.109817219 0
-0.16379588 0
-0.212646651 0
-0.125220052 0
0.155305001 0
0.260437896 0
0.153362616 0
-0.300727778 0
-0.125220052 0
-0.0737376356 0
0.0914535926 0
0.153362616 0
0.0903097912 0
-0.177087895 0
-0.190209004 0
-0.112007319 0
0.219634439 0
0.327591761 0
0.150363889 0
0.0885439476 0
-0.109817219 0
-0.16379588 0
-0.212646651 0
-0.125220052 0
0.155305001 0
0.260437896 0
0.153362616 0
-0.300727778 0
0.125220052 0
0.0737376356 0
-0.0914535926 0
-0.153362616 0
-0.0903097912 0
0.177087895 0
-0.190209004 0
-0.112007318 0
0.219634439 0
-0.32759176 0
0.0802042416 0
0.0472294259 0
-0.0585766092 0
-0.0873688782 0
-0.113425926 0
-0.0667924947 0
0.0828398353 0
0.138917822 0
0.0818037653 0
-0.160408483 0
-0.169178381 0
-0.0996231328 0
0.123558252 0
0.207200354 0
0.122012921 0
-0.239254361 0
0.190209004 0
0.112007319 0
-0.219634439 0
-0.129334911 0
0.0802042416 0
0.0472294259 0
-0.0585766092 0
-0.0873688782 0
-0.113425926 0
-0.0667924947 0
0.0828398353 0
0.138917822 0
0.0818037653 0
-0.160408483 0
0.169178381 0
0.0996231328 0
-0.123558252 0
-0.207200354 0
-0.122012921 0
0.239254361 0
0.190209004 0
0.112007319 0
-0.21963444 0
0.129334909 0
0.0802042416 0
-0.11962718 0
0.10981722 0
-0.0646674554 0
-0.113425926 0
0.169178381 0
-0.155305001 0
0.138917822 0
-0.207200354 0
-0.160408483 0
-0.0667924947 0
0.0996231328 0
-0.0914535928 0
0.0818037653 0
-0.122012921 0
-0.0944588518 0
-0.101457664 0
0.151327336 0
0.117153219 0
0.174737757 0
0.0802042416 0
-0.11962718 0
0.10981722 0
-0.0646674554 0
-0.113425926 0
0.169178381 0
-0.155305001 0
0.138917822 0
-0.207200354 0
-0.160408483 0
0.0667924947 0
-0.0996231328 0
0.0914535928 0
-0.0818037653 0
0.122012921 0
0.0944588518 0
-0.101457663 0
0.151327336 0
0.117153218 0
-0.174737756 0
0.0427810188 0
-0.0638092518 0
0.0585766094 0
-0.0344936822 0
-0.060501497 0
0.0902399093 0
-0.0828398354 0
0.0740988981 0
-0.110520866 0
-0.0855620375 0
-0.0902399093 0
0.134595698 0
-0.123558252 0
0.110520866 0
-0.164845391 0
-0.127618504 0
0.101457664 0
-0.151327336 0
-0.117153219 0
-0.0689873644 0
0.0427810188 0
-0.0638092518 0
0.0585766094 0
-0.0344936822 0
-0.060501497 0
0.0902399093 0
-0.0828398354 0
0.0740988981 0
-0.110520866 0
-0.0855620375 0
0.0902399093 0
-0.134595698 0
0.123558252 0
-0.110520866 0
0.164845391 0
0.127618504 0
0.101457664 0
-0.151327336 0
-0.117153219 0
0.0689873637 0
0.0802042416 0
0.11962718 0
0.10981722 0
0.0646674546 0
-0.113425926 0
-0.169178381 0
-0.155305002 0
0.138917822 0
0.207200354 0
-0.160408483 0
-0.0667924947 0
-0.0996231328 0
-0.0914535931 0
0.0818037653 0
0.122012921 0
-0.0944588518 0
-0.101457664 0
-0.151327336 0
0.117153219 0
0.174737757 0
0.0802042416 0
0.11962718 0
0.10981722 0
0.0646674546 0
-0.113425926 0
-0.169178381 0
-0.155305002 0
0.138917822 0
0.207200354 0
-0.160408483 0
0.0667924947 0
0.0996231328 0
0.0914535931 0
-0.0818037653 0
-0.122012921 0
0.0944588518 0
-0.101457663 0
-0.151327336 0
0.117153218 0
-0.174737756 0
0.0427810188 0
0.0638092518 0
0.0585766096 0
0.0344936818 0
-0.060501497 0
-0.0902399093 0
-0.0828398357 0
0.0740988981 0
0.110520866 0
-0.0855620375 0
-0.0902399093 0
-0.134595698 0
-0.123558253 0
0.110520866 0
0.164845391 0
-0.127618504 0
0.101457664 0
0.151327336 0
-0.117153219 0
-0.0689873644 0
0.0427810188 0
0.0638092518 0
0.0585766095 0
0.0344936818 0
-0.060501497 0
-0.0902399093 0
-0.0828398356 0
0.0740988981 0
0.110520866 0
-0.0855620375 0
0.0902399093 0
0.134595698 0
0.123558253 0
-0.110520866 0
-0.164845391 0
0.127618504 0
0.101457664 0
0.151327336 0
-0.117153219 0
0.0689873636 0
