0	0
11.5249	0
23.0496	0
34.5741	0
46.0986	0
57.623	0
69.1474	0
80.6717	0
92.1959	0
103.72	0
115.244	0
126.769	0
138.293	0
149.817	0
161.341	0
172.865	0
184.389	0
195.913	0
207.162	0
218.41	0
229.658	9.09495e-13
240.906	1.81899e-12
252.154	2.72848e-12
263.402	3.63798e-12
274.65	5.45697e-12
285.898	7.27596e-12
297.146	1.00044e-11
308.394	1.36424e-11
319.641	1.90994e-11
330.889	2.63753e-11
342.137	3.63798e-11
353.385	4.91127e-11
364.632	6.63931e-11
375.88	8.8221e-11
387.127	1.16415e-10
398.375	1.52795e-10
409.096	1.9736e-10
420.344	2.56478e-10
431.591	3.31056e-10
442.313	4.21096e-10
453.56	5.37511e-10
464.807	6.83031e-10
476.055	8.6311e-10
487.302	1.08503e-09
498.549	1.35697e-09
509.797	1.68802e-09
520.518	2.07092e-09
531.199	2.52658e-09
541.879	3.06864e-09
552.56	3.71074e-09
563.241	4.46653e-09
573.921	5.35329e-09
584.602	6.3892e-09
595.282	7.59428e-09
605.963	8.99036e-09
616.644	1.0602e-08
627.324	1.24564e-08
638.005	1.45837e-08
648.685	1.70157e-08
659.378	1.97924e-08
670.07	2.29511e-08
680.763	2.65354e-08
691.455	3.05936e-08
702.148	3.51783e-08
712.84	4.03488e-08
723.532	4.61578e-08
734.225	5.26543e-08
744.917	5.98857e-08
755.549	6.78538e-08
766.181	7.66422e-08
776.812	8.6301e-08
787.444	9.68803e-08
798.076	1.08436e-07
808.707	1.21028e-07
819.339	1.34722e-07
829.971	1.49586e-07
840.602	1.657e-07
851.234	1.83129e-07
861.866	2.01931e-07
872.558	2.22277e-07
883.25	2.44118e-07
893.942	2.67505e-07
904.634	2.92488e-07
915.326	3.19119e-07
926.018	3.47453e-07
936.711	3.77552e-07
947.403	4.09481e-07
958.052	4.43178e-07
968.744	4.78989e-07
979.436	5.16879e-07
990.128	5.5695e-07
1000.82	5.9932e-07
1011.51	6.44119e-07
1022.2	6.91492e-07
1032.9	7.41606e-07
1043.59	7.94641e-07
1054.28	8.50801e-07
1064.97	9.10314e-07
1075.66	9.7343e-07
1086.36	1.04043e-06
1097.05	1.11161e-06
1107.74	1.18732e-06
1118.43	1.26792e-06
1129.12	1.35381e-06
1139.81	1.44542e-06
1150.51	1.54322e-06
1161.2	1.6477e-06
1171.89	1.75941e-06
1182.58	1.87892e-06
1193.27	2.00683e-06
1203.97	2.14381e-06
1214.66	2.29054e-06
1225.35	2.44776e-06
1236.04	2.61624e-06
1246.73	2.79681e-06
1257.42	2.99034e-06
1268.12	3.19774e-06
1278.81	3.42001e-06
1289.5	3.65817e-06
1300.16	3.91248e-06
1310.81	4.18481e-06
1321.47	4.47638e-06
1332.13	4.78847e-06
1342.78	5.12243e-06
1353.44	5.4797e-06
1364.1	5.86181e-06
1374.75	6.27036e-06
1385.41	6.70705e-06
1396.07	7.1753e-06
1406.72	7.67808e-06
1417.38	8.21781e-06
1428.04	8.79645e-06
1438.69	9.41571e-06
1449.35	1.00771e-05
1460.01	1.07821e-05
1470.66	1.15321e-05
1481.32	1.23282e-05
1491.98	1.3172e-05
1502.63	1.40647e-05
1513.29	1.50078e-05
1523.95	1.60029e-05
1534.6	1.70516e-05
1545.26	1.81557e-05
1555.91	1.93171e-05
1566.57	2.05381e-05
1577.23	2.18208e-05
1587.88	2.3168e-05
1598.54	2.45823e-05
1609.2	2.60669e-05
1619.85	2.76251e-05
1630.51	2.92604e-05
1641.17	3.0977e-05
1651.82	3.27789e-05
1662.48	3.46709e-05
1673.14	3.66578e-05
1683.79	3.8745e-05
1694.45	4.09382e-05
1705.1	4.32433e-05
1715.76	4.56668e-05
1726.42	4.82155e-05
1737.07	5.08967e-05
1747.73	5.37179e-05
1758.17	5.66261e-05
1768.61	5.96814e-05
1779.05	6.28888e-05
1789.49	6.6253e-05
1799.93	6.97785e-05
1810.37	7.34695e-05
1820.81	7.73301e-05
1831.26	8.13648e-05
1841.7	8.55779e-05
1852.14	8.9974e-05
1862.58	9.45582e-05
1873.02	9.93358e-05
1883.46	0.000104312
1893.9	0.000109494
1904.34	0.000114887
1914.78	0.000120499
1925.22	0.000126337
1935.66	0.000132411
1946.1	0.000138728
1956.54	0.000145299
1966.98	0.000152134
1977.42	0.000159245
1987.86	0.000166643
1998.31	0.000174342
2008.75	0.000182355
2019.19	0.000190696
2029.63	0.00019938
2040.07	0.000208423
2050.51	0.00021784
2060.95	0.00022765
2071.39	0.00023787
2081.83	0.000235646
2092.27	0.00023404
2102.71	0.000233005
2113.15	0.000232501
2123.59	0.000232495
2134.03	0.000232958
2144.47	0.000233867
2154.91	0.000235201
2165.35	0.000236941
2175.79	0.000239074
2186.23	0.000241587
2196.67	0.000244472
2207.11	0.000247721
2217.56	0.000251332
2228	0.000255302
2238.44	0.000259632
2248.88	0.000264323
2259.32	0.000269381
2269.76	0.000274812
2280.2	0.000280622
2290.64	0.000286821
2301.08	0.00029342
2311.52	0.000300431
2321.96	0.000307869
2332.4	0.000315745
2342.83	0.000324078
2353.27	0.000332885
2363.71	0.000342184
2374.14	0.000351995
2384.58	0.000362338
2395.02	0.000373234
2405.46	0.000384705
2415.89	0.000396774
2426.33	0.000409465
2436.77	0.000422802
2447.2	0.000436841
2457.64	0.000451516
2468.08	0.000466785
2478.52	0.000482609
2488.96	0.000498963
2499.4	0.000515832
2509.84	0.000533208
2520.28	0.000551088
2530.72	0.000569479
2541.16	0.00058839
2551.6	0.000607835
2562.04	0.000627833
2572.48	0.000648408
2582.92	0.000669586
2593.36	0.000691398
2603.8	0.000713878
2614.24	0.000737066
2624.68	0.000761004
2635.12	0.000785741
2645.56	0.000811328
2656	0.00083782
2666.44	0.000865275
2676.88	0.00089375
2687.32	0.000923302
2697.76	0.000953989
2708.2	0.000985867
2718.64	0.00101899
2729.08	0.00105342
2739.52	0.00108922
2749.96	0.00112643
2760.4	0.00116513
2770.85	0.00120537
2781.29	0.00124723
2791.73	0.00134033
2802.17	0.0014336
2812.61	0.001527
2823.05	0.00161992
2833.49	0.00171207
2843.93	0.00180341
2854.37	0.00189401
2864.81	0.00198407
2875.25	0.00207387
2885.69	0.00216374
2896.13	0.00225407
2906.57	0.00234527
2917.01	0.0024378
2927.45	0.00253211
2937.89	0.00262869
2948.33	0.002728
2958.77	0.00283056
2969.21	0.00293686
2979.65	0.0030474
2990.09	0.0031627
3000.53	0.00328252
3010.97	0.00340607
3021.41	0.00353294
3031.85	0.00366296
3042.29	0.00379617
3052.73	0.00393274
3063.18	0.00407299
3073.62	0.00421734
3084.06	0.00436636
3094.5	0.00452073
3104.94	0.00468126
3115.38	0.00484886
3125.82	0.00502451
3136.26	0.00520918
3146.7	0.00540376
3157.14	0.0058525
3167.58	0.00628834
3178.02	0.00670505
3188.46	0.0071034
3198.9	0.00748771
3209.34	0.00786457
3219.78	0.00824165
3230.23	0.00862681
3240.67	0.00902753
3251.11	0.00945056
3261.55	0.00990185
3271.99	0.0103865
3282.43	0.0109092
3292.87	0.0114542
3303.31	0.0120186
3313.75	0.0126068
3324.19	0.0132259
3334.66	0.0145773
3345.13	0.0158894
3355.6	0.017201
3366.07	0.0185447
3376.54	0.019936
3387.01	0.0213816
3397.48	0.0228836
3407.95	0.0244426
3418.42	0.0260581
3428.89	0.0277298
3439.36	0.0294526
3449.83	0.0312951
3460.3	0.0332481
3470.77	0.0352962
3481.24	0.0374215
3491.7	0.0396069
3502.17	0.0418393
3512.64	0.0441105
3523.11	0.0464174
3533.58	0.0487561
3544.05	0.0511256
3554.52	0.0535292
3564.99	0.0559735
3575.46	0.0584665
3585.93	0.0610169
3596.4	0.0636322
3606.87	0.0663189
3617.34	0.069082
3627.81	0.0719252
3638.28	0.0748507
3648.75	0.07786
3659.22	0.0809539
3669.69	0.0841327
3680.16	0.0873966
3690.63	0.090746
3701.1	0.0941813
3711.56	0.0977027
3722.03	0.10131
3732.5	0.105003
3742.97	0.108781
3753.44	0.11264
3763.91	0.116579
3774.38	0.120593
3784.85	0.124679
3795.32	0.128832
3805.79	0.133047
3816.26	0.13732
3826.73	0.141645
3837.2	0.146019
3847.67	0.150437
3858.14	0.154895
3868.61	0.159389
3879.08	0.163915
3889.55	0.168471
3900.02	0.173051
3910.49	0.177653
3920.96	0.182272
3931.43	0.186904
3941.9	0.191544
3952.37	0.196188
3962.84	0.20083
3973.31	0.205465
3983.78	0.210087
3994.25	0.21469
4004.72	0.219266
4015.19	0.223809
4025.66	0.228311
4036.13	0.232764
4046.6	0.237159
4057.06	0.241489
4067.53	0.245742
4078	0.249911
4088.47	0.253985
4098.94	0.257953
4109.41	0.261805
4119.88	0.26553
4130.35	0.269118
4140.82	0.272558
4151.29	0.275838
4161.76	0.278947
4172.23	0.281875
4182.7	0.284611
4193.17	0.287144
4203.64	0.289465
4214.11	0.291563
4224.58	0.293428
4235.05	0.295051
4245.52	0.296423
4255.99	0.297537
4266.46	0.298383
4276.93	0.298954
4287.4	0.299244
4297.87	0.299244
4308.45	0.298948
4319.04	0.298344
4329.62	0.297429
4340.2	0.296197
4350.78	0.294644
4361.36	0.292767
4371.94	0.290562
4382.52	0.288026
4393.1	0.285159
4403.68	0.281957
4414.27	0.278421
4424.85	0.27455
4435.43	0.270344
4446.01	0.265805
4456.59	0.260934
4467.17	0.255734
4477.75	0.250207
4488.33	0.244358
4498.91	0.238189
4509.5	0.231706
4520.08	0.224915
4530.66	0.217824
4541.24	0.210441
4551.82	0.202775
4562.4	0.194834
4572.98	0.186625
4583.56	0.178153
4594.15	0.169424
4604.73	0.160447
4615.31	0.151237
4625.89	0.141812
4636.47	0.132204
4647.05	0.122444
4657.63	0.112553
4668.21	0.102545
4678.79	0.0924447
4689.38	0.0822837
4699.96	0.0711076
4710.54	0.0598761
4721.12	0.0487668
4731.7	0.0379439
4742.28	0.0275093
4752.86	0.0175122
4763.44	0.0079684
4774.03	0.000624341
4784.61	-0.00806887
4795.19	-0.0195848
4805.77	-0.0293406
4816.35	-0.0380557
4826.93	-0.0458881
4837.51	-0.0529929
4848.1	-0.0594903
4858.68	-0.0654876
4869.26	-0.0698758
4879.84	-0.0734997
4890.42	-0.0772212
4901	-0.0810091
4911.58	-0.0848397
4922.17	-0.0886841
4932.75	-0.0925057
4943.33	-0.0962686
4953.91	-0.0999399
4964.49	-0.0908231
4975.07	-0.0938996
4985.65	-0.0967566
4996.78	-0.100108
5007.9	-0.102897
5019.03	-0.106521
5030.16	-0.10968
5041.28	-0.112473
5052.41	-0.114978
5063.53	-0.117255
5074.66	-0.11934
5085.78	-0.121283
5096.91	-0.123094
5108.03	-0.124784
5119.16	-0.126365
5130.28	-0.127851
5141.41	-0.129256
5152.54	-0.130592
5163.66	-0.131736
5174.38	-0.132869
5185.51	-0.134045
5196.63	-0.135117
5207.76	-0.136136
5218.47	-0.137068
5229.15	-0.13795
5239.83	-0.138789
5250.51	-0.139585
5261.19	-0.140339
5271.87	-0.141051
5282.55	-0.141721
5293.23	-0.142349
5303.91	-0.142933
5314.59	-0.143475
5325.28	-0.143974
5335.96	-0.144433
5346.59	-0.13926
5357.22	-0.138647
5367.85	-0.139225
5378.48	-0.139754
5389.11	-0.140227
5399.75	-0.140647
5410.38	-0.141015
5421.01	-0.141333
5431.64	-0.141593
5442.27	-0.141798
5452.9	-0.141952
5463.54	-0.142059
5474.17	-0.142122
5484.8	-0.142145
5495.43	-0.14213
5506.06	-0.142081
5516.69	-0.141999
5527.33	-0.141888
5537.96	-0.141749
5548.59	-0.141585
5559.22	-0.141395
5569.85	-0.141183
5580.48	-0.140949
5591.12	-0.140694
5601.75	-0.14042
5612.38	-0.140129
5623.01	-0.13982
5633.64	-0.139495
5644.27	-0.139155
5654.91	-0.1388
5665.54	-0.138431
5676.17	-0.138048
5686.8	-0.137652
5697.43	-0.137243
5708.06	-0.13683
5718.7	-0.136414
5729.33	-0.135995
5739.96	-0.135572
5750.59	-0.135153
5761.22	-0.134735
5771.85	-0.134317
5782.49	-0.133898
5793.12	-0.133458
5803.75	-0.13301
5814.38	-0.132554
5825.01	-0.13209
5835.64	-0.131617
5846.28	-0.131137
5856.91	-0.130649
5867.54	-0.130153
5878.17	-0.129648
5888.8	-0.129134
5899.43	-0.128613
5910.13	-0.128079
5920.82	-0.127536
5931.51	-0.126984
5942.2	-0.126422
5952.9	-0.12585
5963.59	-0.125269
5974.28	-0.124677
5984.97	-0.124075
5995.67	-0.123463
6006.36	-0.12284
6017.05	-0.122206
6027.74	-0.121562
6038.44	-0.120907
6049.13	-0.120241
6059.82	-0.119564
6070.51	-0.118876
6081.21	-0.118177
6091.9	-0.117468
6102.59	-0.119211
6113.28	-0.118828
6123.98	-0.11843
6134.67	-0.118018
6145.36	-0.11759
6156.02	-0.11715
6166.67	-0.116585
6177.33	-0.116015
6187.99	-0.115441
6198.64	-0.114864
6209.3	-0.114283
6219.96	-0.113699
6230.61	-0.113111
6241.27	-0.11252
6251.93	-0.111924
6262.58	-0.111324
6273.24	-0.110719
6283.9	-0.110109
6294.56	-0.109495
6305.21	-0.108875
6315.87	-0.108251
6326.53	-0.10762
6337.18	-0.106984
6347.84	-0.106342
6358.5	-0.105693
6369.15	-0.105037
6379.81	-0.104373
6390.47	-0.103701
6401.12	-0.103022
6411.78	-0.102333
6422.44	-0.101636
6433.09	-0.10093
6443.75	-0.100214
6454.41	-0.0994878
6465.06	-0.098752
6475.72	-0.098006
6486.38	-0.0972498
6497.03	-0.0964832
6507.69	-0.0957061
6518.35	-0.0949185
6528.79	-0.0934251
6539.23	-0.0919415
6549.67	-0.0904747
6560.11	-0.0890284
6570.55	-0.0876047
6580.99	-0.0862045
6591.43	-0.0848271
6601.87	-0.0834717
6612.31	-0.0821363
6622.75	-0.0808189
6633.19	-0.0795171
6643.64	-0.0782284
6654.08	-0.0769502
6664.52	-0.07568
6674.96	-0.0744153
6685.4	-0.0731536
6695.84	-0.0718928
6706.28	-0.0706308
6716.72	-0.0693655
6727.16	-0.0680953
6737.6	-0.0668185
6748.04	-0.0655336
6758.48	-0.0642394
6768.92	-0.0629347
6779.36	-0.0616187
6789.81	-0.060294
6800.25	-0.058966
6810.69	-0.0576382
6821.13	-0.0563127
6831.57	-0.0549902
6842.01	-0.053671
6852.45	-0.0523542
6862.89	-0.0510388
6873.33	-0.0497232
6883.77	-0.0484054
6894.21	-0.0470831
6904.65	-0.0457543
6915.09	-0.0444166
6925.53	-0.0430679
6935.98	-0.0417067
6946.42	-0.0403314
6956.86	-0.038941
6967.3	-0.0361158
6977.74	-0.0334856
6988.18	-0.0310401
6998.62	-0.0287512
7009.06	-0.0265946
7019.5	-0.0245433
7029.94	-0.0225695
7040.38	-0.020647
7050.82	-0.0187525
7061.26	-0.0168668
7071.71	-0.0149747
7082.15	-0.0130653
7092.59	-0.0111315
7103.03	-0.0091692
7113.47	-0.0071939
7123.91	-0.00521111
7134.35	-0.00322056
7144.79	-0.00123735
7155.23	0.00073793
7165.67	0.00259901
7176.11	0.00441916
7186.55	0.00767701
7196.99	0.0106709
7207.43	0.0135778
7217.88	0.0164578
7228.32	0.0193226
7238.76	0.0221634
7249.2	0.0249576
7259.64	0.0276783
7270.08	0.0303
7280.52	0.0328023
7290.96	0.0351632
7301.4	0.0375387
7311.84	0.0398904
7322.28	0.0421555
7332.72	0.044276
7343.16	0.0462106
7353.6	0.047937
7364.05	0.0494496
7374.49	0.0507555
7384.93	0.0518702
7395.37	0.0528026
7405.81	0.0535675
7416.25	0.0541838
7426.69	0.0546721
7437.13	0.0550532
7447.57	0.0553465
7458.01	0.0555683
7468.45	0.055732
7478.89	0.0558478
7489.33	0.0559228
7499.77	0.0559619
7510.22	0.0559682
7520.66	0.0559434
7531.1	0.0558883
7541.54	0.055803
7551.98	0.0556876
7562.42	0.0555425
7572.86	0.0553691
7583.3	0.0551693
7593.74	0.0549452
7604.18	0.0546985
7614.62	0.05443
7625.06	0.0541395
7635.5	0.0538255
7645.94	0.0534858
7656.39	0.0531172
7666.83	0.0527161
7677.27	0.0522789
7687.71	0.0518024
7698.15	0.0512838
7708.59	0.0507212
7719.03	0.0501138
7729.47	0.0494617
7739.91	0.048766
7750.35	0.0480288
7760.79	0.047253
7771.23	0.046442
7781.67	0.0455997
7792.11	0.0447299
7802.56	0.0438368
7813	0.0429243
7823.44	0.041996
7833.87	0.0410557
7844.31	0.040106
7854.75	0.0391494
7865.19	0.0381881
7875.62	0.0372237
7886.06	0.0362575
7896.5	0.0352905
7906.93	0.0343231
7917.37	0.0333556
7927.81	0.0323877
7938.24	0.0314191
7948.68	0.030449
7959.12	0.0294766
7969.56	0.0285007
7980	0.0275192
7990.44	0.0265303
8000.88	0.0255314
8011.32	0.0245189
8021.76	0.0234894
8032.2	0.0224392
8042.64	0.0213653
8053.08	0.0202638
8063.52	0.0191311
8073.96	0.0178127
8084.4	0.0164463
8094.84	0.0150897
8105.29	0.013764
8115.73	0.0124469
8126.17	0.0111439
8136.61	0.00986594
8147.05	0.00923579
8157.49	0.00799816
8167.93	0.00626583
8178.37	0.00479087
8188.81	0.00343726
8199.25	0.00219107
8209.69	0.00104099
8220.13	-6.31092e-07
8230.57	-0.000787686
8241.01	-0.00155717
8251.46	-0.00230502
8261.9	-0.0030237
8272.34	-0.00372663
8282.78	-0.00442085
8293.22	-0.00510844
8303.66	-0.00578832
8314.1	-0.00633266
8324.54	-0.00680827
8334.98	-0.00551532
8345.42	-0.0059632
8355.86	-0.00674805
8366.3	-0.00734844
8376.74	-0.00802824
8387.18	-0.00864196
8397.63	-0.00920614
8408.07	-0.00973339
8418.51	-0.0102292
8428.95	-0.0107037
8439.39	-0.0111598
8449.83	-0.0115985
8460.27	-0.0120215
8470.71	-0.012431
8481.15	-0.0128292
8491.59	-0.0132184
8502.03	-0.0136002
8512.47	-0.0139763
8522.91	-0.0143477
8533.35	-0.0146801
8543.8	-0.0150196
8554.24	-0.0153617
8564.68	-0.0157468
8575.12	-0.0161113
8585.56	-0.016458
8596	-0.0167891
8606.44	-0.0171066
8616.88	-0.0174121
8627.32	-0.0177068
8637.76	-0.0179916
8648.2	-0.0182672
8658.64	-0.0185342
8669.08	-0.0187877
8679.52	-0.0164772
8689.97	-0.0157167
8700.41	-0.0160348
8710.85	-0.016332
8721.29	-0.01662
8731.73	-0.0168991
8742.17	-0.0171695
8752.61	-0.0174314
8763.05	-0.0176851
8773.49	-0.017931
8783.93	-0.0181622
8794.37	-0.0183804
8804.81	-0.0185872
8815.25	-0.018784
8825.69	-0.0189722
8836.14	-0.0191528
8846.58	-0.0193269
8857.02	-0.0194951
8867.46	-0.019658
8877.9	-0.0198163
8888.34	-0.0199702
8898.78	-0.0201202
8909.22	-0.0202666
8919.66	-0.0204092
8930.1	-0.0205518
8940.54	-0.0206938
8950.98	-0.0208347
8961.42	-0.0210255
8971.86	-0.0212073
8982.31	-0.0213804
8992.75	-0.021545
9003.19	-0.0217013
9013.63	-0.0218492
9024.07	-0.0219889
9034.51	-0.0221206
9044.95	-0.022244
9055.39	-0.0223592
9065.83	-0.0224664
9076.27	-0.0225657
9086.71	-0.0226571
9097.15	-0.0227407
9107.59	-0.0228619
9118.04	-0.0229697
9128.48	-0.0230648
9138.92	-0.0231479
9149.36	-0.0232195
9159.8	-0.0232803
9170.24	-0.0233306
9180.68	-0.0233709
9191.12	-0.0234016
9201.56	-0.0234232
9212	-0.0234359
9222.44	-0.0234402
9232.88	-0.0234363
9243.32	-0.0234246
9253.76	-0.0234052
9264.21	-0.0233778
9274.65	-0.0233426
9285.09	-0.0232999
9295.53	-0.0232501
9305.97	-0.0231933
9316.41	-0.0231299
9326.85	-0.0230601
9337.29	-0.0229842
9347.73	-0.0229025
9358.17	-0.0211259
9368.61	-0.0206367
9379.05	-0.0205103
9389.49	-0.0203819
9399.93	-0.0202516
9410.38	-0.0201192
9420.82	-0.0199847
9431.26	-0.0198479
9441.7	-0.0197615
9452.14	-0.0196746
9462.58	-0.019587
9473.02	-0.0194983
9483.46	-0.0194083
9493.9	-0.0193167
9504.34	-0.0192232
9514.78	-0.0191278
9525.22	-0.0190301
9535.66	-0.01893
9546.11	-0.0188274
9556.55	-0.018722
9566.99	-0.0186139
9577.43	-0.0185029
9587.87	-0.0183889
9598.31	-0.0182711
9608.75	-0.0181497
9619.19	-0.0180246
9629.63	-0.0178959
9640.07	-0.0177638
9650.51	-0.0176283
9660.95	-0.0174895
9671.39	-0.0173475
9681.84	-0.0172024
9692.31	-0.0170539
9702.78	-0.0169012
9713.25	-0.0167447
9723.72	-0.0165845
9734.19	-0.0164208
9744.66	-0.0162537
9755.13	-0.0160833
9765.6	-0.0159099
9776.07	-0.0157337
9786.54	-0.0155549
9797.01	-0.0153735
9807.48	-0.0151898
9817.94	-0.015004
9828.41	-0.014816
9838.88	-0.0146261
9849.35	-0.0144342
9859.82	-0.0142406
9870.29	-0.0140453
9880.76	-0.0138482
9891.23	-0.0136496
9901.7	-0.0134495
9912.17	-0.0132478
9922.64	-0.0130458
9933.11	-0.0128434
9943.58	-0.0126405
9954.05	-0.0124371
9964.52	-0.0122331
9974.99	-0.0120284
9985.46	-0.011823
9995.93	-0.0116169
10006.4	-0.0114099
10016.9	-0.0112021
10027.3	-0.0109935
10037.8	-0.0107839
10048.3	-0.0105734
10058.8	-0.0103619
10069.2	-0.0101495
10079.7	-0.00993605
10090.2	-0.00972164
10100.6	-0.00950623
10111.1	-0.00928982
10121.6	-0.00907242
10132	-0.00885403
10142.5	-0.00863466
10153	-0.00841431
10163.5	-0.008193
10173.9	-0.00797075
10184.4	-0.00774756
10194.9	-0.00752346
10205.3	-0.00729846
10215.8	-0.0070024
10226.3	-0.00671272
10236.7	-0.00642903
10247.2	-0.00615363
10257.7	-0.00588578
10268.2	-0.00562477
10278.6	-0.00536998
10289.1	-0.00512081
10299.6	-0.00487671
10310	-0.00463718
10320.5	-0.00440175
10331	-0.00417
10341.4	-0.00394152
10351.9	-0.00371595
10362.4	-0.00349295
10372.9	-0.00327222
10383.3	-0.00305346
10393.8	-0.00283639
10404.3	-0.00262077
10414.7	-0.00240634
10425.2	-0.00219289
10435.7	-0.00198022
10446.1	-0.00176815
10456.6	-0.00155649
10467.1	-0.0013451
10477.6	-0.00113384
10488	-0.000922578
10498.5	-0.000711212
10509	-0.000499646
10519.4	-0.000287804
10529.9	-7.56375e-05
10540.4	0.000136879
10550.8	0.000349756
10561.3	0.000562989
10571.8	0.000776567
10582.3	0.000990472
10592.7	0.00120468
10603.2	0.00141917
10613.7	0.00163391
10624.1	0.00184887
10634.6	0.00206401
10645.1	0.00227929
10655.5	0.00249466
10666	0.00271007
10676.5	0.00292547
10687	0.00314081
10697.4	0.00335604
10707.9	0.0035711
10718.4	0.00378596
10728.8	0.00400057
10739.6	0.00422182
10750.5	0.0045228
10761.3	0.00480471
10772.1	0.00507038
10782.9	0.00532226
10793.7	0.0055625
10804.5	0.00579294
10815.3	0.00601516
10826.1	0.00623052
10836.9	0.00644017
10847.7	0.00664509
10858.6	0.00684608
10869.4	0.0070438
10880.2	0.00723882
10891	0.00743158
10901.8	0.00762244
10912.6	0.00781169
10923.4	0.00799954
10934.2	0.00818615
10945	0.00837165
10956.2	0.00856149
10967.3	0.00875025
10978.4	0.00893794
10989.5	0.00912452
11000.7	0.00930993
11011.8	0.00949409
11022.9	0.00967693
11034	0.00985833
11045.2	0.0100382
11056.3	0.0102164
11067.4	0.0103861
11078.5	0.0105488
11089.7	0.0107054
11100.8	0.0108567
11111.9	0.0110034
11123	0.0111461
11134.2	0.0112852
11145.3	0.0114212
11156.4	0.0115545
11167.5	0.0116855
11178.7	0.0118144
11189.8	0.0119416
11200.9	0.0120672
11212	0.0121911
11223.2	0.0123135
11234.3	0.0124342
11245.4	0.0125533
11256.5	0.0126705
11267.7	0.0127859
11278.8	0.0128993
11289.9	0.0130105
11301	0.0131196
11312.2	0.0132263
11323.3	0.0133307
11334.4	0.0134325
11345.5	0.0135317
11356.7	0.0136274
11367.8	0.0137193
11378.9	0.0138072
11390	0.0138908
11401.2	0.0139703
11412.3	0.0140454
11423.4	0.0141163
11434.5	0.0141827
11445.7	0.0142448
11456.8	0.0143023
11467.9	0.0143552
11479.1	0.0144035
11490.2	0.0144469
11501.3	0.0144854
11512.4	0.0145189
11523.6	0.0145472
11534.7	0.0145703
11545.8	0.0145879
11556.9	0.0146001
11568.1	0.0146067
11579.2	0.0146076
11590.3	0.0146027
11601.4	0.014592
11612.6	0.0145753
11623.7	0.0145526
11634.8	0.0145239
11645.9	0.0144891
11657.1	0.0144481
11668.2	0.0144009
11679.3	0.0143474
11690.4	0.0142878
11701.6	0.0142218
11712.7	0.0141495
11723.8	0.0140708
11734.9	0.0139854
11746.1	0.0138932
11757.2	0.0137941
11768.3	0.0136882
11779.4	0.0135753
11790.6	0.0134556
11801.7	0.0133292
11812.8	0.013196
11823.9	0.0130564
11835.1	0.0129102
11846.2	0.0127578
11857.3	0.0125992
11868.4	0.0124346
11879.6	0.0122642
11890.7	0.0120881
11901.8	0.0119067
11912.9	0.01172
11924.1	0.0115284
11935.2	0.0113321
11946.3	0.0111312
11957.4	0.0109261
11968.6	0.0107168
11979.7	0.0104982
11990.8	0.0102726
