0	0
14.5815	0
21.8721	0
36.4532	0
43.7437	0
51.0341	0
65.6149	0
72.9052	0
80.1954	0
94.7145	0
102.005	0
116.453	0
123.612	0
130.902	0
145.344	-9.09495e-13
152.495	-1.81899e-12
166.798	-3.63798e-12
173.95	-4.54747e-12
181.101	-5.45697e-12
195.405	-9.09495e-12
202.556	-1.09139e-11
216.859	-1.54614e-11
224.011	-1.81899e-11
231.162	-2.09184e-11
245.465	-2.81943e-11
252.616	-3.18323e-11
266.919	-4.09273e-11
274.07	-4.54747e-11
281.221	-5.00222e-11
295.498	-6.00267e-11
302.623	-6.54836e-11
316.873	-7.63976e-11
323.998	-8.18545e-11
331.123	-8.73115e-11
345.372	-9.73159e-11
352.497	-1.01863e-10
366.556	-1.0823e-10
373.612	-1.10958e-10
380.667	-1.11868e-10
394.777	-1.10049e-10
401.832	-1.06411e-10
415.891	-9.27685e-11
422.852	-8.18545e-11
436.774	-4.91127e-11
443.735	-2.54659e-11
450.696	3.63798e-12
464.547	8.0945e-11
471.437	1.30967e-10
485.107	2.59206e-10
491.9	3.40151e-10
505.486	5.43878e-10
512.28	6.70298e-10
525.866	9.82254e-10
532.646	1.17234e-09
546.201	1.63618e-09
552.976	1.9154e-09
566.525	2.58478e-09
573.299	2.97769e-09
580.074	3.41242e-09
593.623	4.41105e-09
600.398	4.97676e-09
613.947	6.24641e-09
620.721	6.95218e-09
634.271	8.51196e-09
641.045	9.3687e-09
654.584	1.12386e-08
661.349	1.22518e-08
674.879	1.44282e-08
681.644	1.55887e-08
695.174	1.80435e-08
701.939	1.93322e-08
715.478	2.20207e-08
722.252	2.34149e-08
735.8	2.62862e-08
742.574	2.77578e-08
756.122	3.07582e-08
762.896	3.22816e-08
776.443	3.53639e-08
783.217	3.69182e-08
796.765	4.00469e-08
803.529	4.16167e-08
810.292	4.31901e-08
823.82	4.63515e-08
830.583	4.79404e-08
844.111	5.11445e-08
850.874	5.27643e-08
864.402	5.60576e-08
871.165	5.77411e-08
884.692	6.12145e-08
891.456	6.30198e-08
904.983	6.68151e-08
911.747	6.88269e-08
925.274	7.31479e-08
932.037	7.54872e-08
945.564	8.06131e-08
952.328	8.34407e-08
965.855	8.97408e-08
972.618	9.3265e-08
986.145	1.01205e-07
992.909	1.05684e-07
1006.44	1.15833e-07
1013.2	1.21578e-07
1026.73	1.34608e-07
1033.49	1.41981e-07
1040.25	1.49988e-07
1053.78	1.68106e-07
1060.54	1.78325e-07
1074.07	2.01368e-07
1080.83	2.14316e-07
1094.36	2.43398e-07
1101.12	2.59664e-07
1114.64	2.96041e-07
1121.4	3.16311e-07
1134.92	3.61447e-07
1141.68	3.86493e-07
1155.19	4.42029e-07
1161.95	4.72723e-07
1175.47	5.40505e-07
1182.23	5.77825e-07
1195.75	6.59926e-07
1202.51	7.04965e-07
1216.03	8.03697e-07
1222.79	8.57676e-07
1236.31	9.75617e-07
1243.07	1.0399e-06
1256.59	1.17991e-06
1263.34	1.256e-06
1270.1	1.3364e-06
1283.58	1.51029e-06
1290.3	1.60413e-06
1303.73	1.80756e-06
1310.44	1.91807e-06
1323.87	2.15795e-06
1330.59	2.28771e-06
1344.02	2.56758e-06
1350.74	2.71794e-06
1364.17	3.03998e-06
1370.89	3.21186e-06
1384.32	3.57774e-06
1390.97	3.77003e-06
1404.27	4.17711e-06
1410.92	4.39212e-06
1424.22	4.84565e-06
1430.87	5.08443e-06
1444.17	5.58681e-06
1450.88	5.85336e-06
1464.31	6.41349e-06
1471.03	6.70752e-06
1484.46	7.3248e-06
1491.18	7.64863e-06
1504.61	8.32824e-06
1511.28	8.68268e-06
1524.64	9.42644e-06
1531.31	9.81658e-06
1544.67	1.06357e-05
1551.34	1.10655e-05
1564.65	1.19654e-05
1571.28	1.24364e-05
1584.54	1.3426e-05
1591.17	1.39459e-05
1604.44	1.50394e-05
1611.07	1.56142e-05
1624.33	1.68238e-05
1630.96	1.74601e-05
1644.22	1.87996e-05
1650.85	1.95045e-05
1664.11	2.09889e-05
1670.74	2.17701e-05
1684	2.34139e-05
1690.63	2.42778e-05
1703.9	2.60923e-05
1710.53	2.7044e-05
1723.79	2.90384e-05
1730.42	3.00821e-05
1743.68	3.22647e-05
1750.31	3.34046e-05
1763.57	3.57838e-05
1770.2	3.70241e-05
1783.46	3.96088e-05
1790.09	4.09543e-05
1803.35	4.37545e-05
1816.61	4.67046e-05
1823.24	4.82376e-05
1836.51	5.14234e-05
1843.14	5.30779e-05
1856.4	5.65142e-05
1863.03	5.82981e-05
1876.29	6.20024e-05
1882.92	6.39251e-05
1896.18	6.79174e-05
1902.81	6.99896e-05
1916.07	7.42928e-05
1922.7	7.65265e-05
1935.96	8.11658e-05
1942.59	8.35744e-05
1955.85	8.85776e-05
1962.48	9.11756e-05
1975.74	9.65731e-05
1982.37	9.93763e-05
1995.63	0.000105202
2002.26	0.000108227
2015.52	0.000110048
2022.15	0.000108924
2035.41	0.000107125
2042.05	0.000106436
2055.31	0.000105446
2061.94	0.000105133
2075.2	0.000104848
2081.83	0.000104866
2095.09	0.000105203
2101.72	0.000105514
2114.98	0.000106408
2121.61	0.000106985
2134.87	0.000108387
2141.5	0.000109209
2154.76	0.000111088
2161.39	0.000112142
2174.65	0.000114475
2181.28	0.000115754
2194.54	0.000118533
2201.17	0.000120034
2214.43	0.00012326
2221.06	0.000124986
2234.32	0.000128667
2240.95	0.000130624
2254.21	0.000134777
2260.84	0.000136976
2274.1	0.000141625
2280.73	0.000144079
2293.99	0.000149255
2300.62	0.00015198
2313.88	0.000157715
2320.51	0.00016073
2333.77	0.000167065
2340.4	0.00017039
2353.66	0.000177367
2360.29	0.000181025
2373.55	0.000188692
2380.18	0.000192707
2393.44	0.000201121
2400.04	0.000205485
2413.24	0.000214533
2426.43	0.000223982
2433.03	0.000228849
2446.23	0.000238859
2452.83	0.000244001
2466.07	0.000254592
2472.7	0.000260032
2485.96	0.000271194
2492.59	0.000276919
2505.85	0.00028867
2512.47	0.000294685
2525.71	0.000307057
2532.34	0.000313421
2545.6	0.000326511
2552.23	0.000333246
2565.49	0.00034712
2572.12	0.00035427
2585.38	0.000369025
2592.01	0.000376644
2605.27	0.000392394
2611.9	0.000400539
2625.16	0.000417405
2631.79	0.000426138
2645.05	0.000444238
2651.68	0.000453619
2664.94	0.000473072
2671.57	0.000483157
2684.84	0.000504079
2691.47	0.000514929
2704.73	0.000537439
2711.36	0.000549115
2724.62	0.000573344
2731.25	0.000585914
2744.5	0.000611995
2751.13	0.000643292
2764.38	0.000705936
2770.99	0.000737092
2784.22	0.000798935
2790.84	0.000829587
2804.07	0.000890353
2810.69	0.000920493
2823.92	0.00098041
2830.54	0.00101029
2843.78	0.00106996
2850.4	0.0010999
2863.65	0.00116017
2870.25	0.0011905
2883.45	0.00125203
2890.05	0.00128334
2903.25	0.00134732
2916.45	0.00141349
2923.05	0.00144753
2936.25	0.0015178
2942.85	0.00155413
2956.05	0.0016293
2962.65	0.00166792
2975.85	0.00174689
2982.45	0.00178718
2995.65	0.00186929
3002.25	0.00191113
3015.45	0.00199652
3022.05	0.00204014
3035.25	0.00212953
3041.85	0.00217544
3055.05	0.00227009
3061.65	0.00231902
3074.85	0.00242061
3081.45	0.00247345
3094.65	0.00258369
3101.25	0.00264126
3114.45	0.00276173
3121.05	0.00282481
3134.25	0.00311169
3140.85	0.00324991
3154.05	0.0035147
3160.65	0.00364147
3173.85	0.00388651
3180.45	0.00400637
3193.65	0.00424523
3200.25	0.00436605
3213.45	0.00461481
3220.05	0.00474441
3233.25	0.00501791
3246.45	0.00530751
3253.05	0.00545672
3266.25	0.0057641
3272.85	0.00592317
3286.05	0.00625606
3292.65	0.0064321
3305.85	0.00680877
3312.45	0.00721356
3325.65	0.00799693
3332.25	0.00836804
3345.45	0.00910215
3352.05	0.00948303
3365.25	0.0103102
3371.85	0.0107698
3385.05	0.011732
3391.65	0.0122365
3404.84	0.0139157
3411.44	0.0149573
3424.64	0.0166905
3431.24	0.0176971
3444.44	0.0203615
3451.04	0.023472
3464.24	0.0282904
3470.84	0.0307939
3484.04	0.0358418
3490.64	0.0382888
3503.84	0.0430389
3510.44	0.0453734
3523.64	0.0499793
3530.24	0.0522331
3543.44	0.0567409
3550.04	0.0590499
3563.24	0.0638154
3576.44	0.06873
3583.04	0.071225
3596.23	0.0762697
3602.83	0.0788162
3616.03	0.0839805
3622.63	0.0866173
3635.83	0.0920324
3642.43	0.0948105
3655.63	0.100482
3662.23	0.103361
3675.43	0.109171
3682.03	0.11209
3695.23	0.117942
3701.83	0.12088
3715.03	0.126806
3721.63	0.129806
3734.83	0.135897
3741.43	0.138993
3754.62	0.145285
3761.22	0.14848
3774.42	0.15497
3781.02	0.158267
3794.22	0.164976
3800.82	0.168393
3814.02	0.175357
3820.62	0.178904
3833.82	0.186123
3840.42	0.189792
3853.62	0.197242
3860.22	0.201024
3873.42	0.208716
3880.02	0.212632
3893.22	0.220631
3906.42	0.228888
3913.02	0.233125
3926.22	0.241842
3932.82	0.24633
3946.02	0.25559
3952.62	0.260371
3965.82	0.270261
3972.42	0.275381
3985.62	0.285994
3992.21	0.291497
4005.41	0.302917
4012.01	0.308841
4025.21	0.321135
4031.81	0.327512
4045.01	0.340744
4051.61	0.347607
4064.81	0.361845
4071.41	0.369226
4084.62	0.384526
4091.22	0.392448
4104.42	0.40884
4111.02	0.417309
4124.22	0.434783
4130.87	0.443861
4144.19	0.462525
4150.85	0.472099
4164.16	0.491693
4170.82	0.501693
4184.13	0.522044
4190.8	0.532386
4204.14	0.553296
4210.81	0.563832
4224.21	0.585085
4230.95	0.595763
4244.42	0.617002
4251.16	0.627518
4264.63	0.648211
4271.37	0.658335
4284.84	0.677993
4291.58	0.687464
4305.06	0.705533
4311.79	0.714062
4325.27	0.729935
4332	0.737208
4345.48	0.750238
4352.21	0.755922
4365.69	0.765439
4372.42	0.769198
4385.9	0.774534
4392.64	0.77604
4406.11	0.776558
4412.85	0.775506
4426.32	0.770626
4433.06	0.766744
4446.53	0.755968
4453.27	0.74903
4460.01	0.741034
4473.48	0.721801
4480.22	0.710538
4493.69	0.684676
4500.43	0.670067
4513.9	0.63749
4520.64	0.61953
4534.11	0.580305
4540.85	0.559065
4554.33	0.513405
4561.06	0.489023
4574.54	0.437258
4581.28	0.409921
4594.75	0.352453
4601.49	0.322368
4614.96	0.259627
4621.7	0.226959
4635.17	0.158756
4641.91	0.123253
4655.39	0.0546633
4662.12	0.00884368
4675.6	-0.0466967
4682.34	-0.0726732
4695.81	-0.115891
4702.55	-0.112861
4716.02	-0.134959
4722.76	-0.151192
4736.24	-0.178034
4742.97	-0.190709
4756.45	-0.214136
4763.19	-0.223268
4776.66	-0.238882
4783.4	-0.245952
4790.14	-0.252787
4803.64	-0.246537
4810.4	-0.252868
4823.93	-0.263769
4830.69	-0.270931
4844.22	-0.282488
4850.98	-0.287417
4864.51	-0.295997
4871.27	-0.299813
4884.8	-0.306752
4891.56	-0.309942
4905.08	-0.315467
4911.84	-0.318069
4925.36	-0.322997
4932.12	-0.325248
4945.63	-0.329565
4952.39	-0.331614
4965.91	-0.335468
4972.67	-0.337268
4986.19	-0.340612
4992.95	-0.342156
5006.47	-0.332014
5013.23	-0.333522
5026.75	-0.336337
5033.51	-0.337829
5040.27	-0.339304
5053.79	-0.342596
5060.54	-0.343979
5074.06	-0.346263
5080.78	-0.347189
5094.21	-0.348692
5100.93	-0.34929
5114.36	-0.350219
5121.07	-0.350559
5134.51	-0.351021
5141.22	-0.351157
5154.65	-0.351269
5161.37	-0.351254
5174.8	-0.351105
5181.52	-0.350977
5194.95	-0.350632
5201.66	-0.350363
5215.1	-0.349794
5221.81	-0.349508
5235.24	-0.348922
5241.96	-0.348519
5255.26	-0.347696
5261.91	-0.347272
5275.21	-0.346396
5281.86	-0.345942
5295.16	-0.345001
5301.81	-0.344514
5315.17	-0.343497
5321.89	-0.342967
5335.32	-0.341871
5342.04	-0.341304
5355.47	-0.340135
5362.18	-0.339534
5375.62	-0.338293
5382.29	-0.337652
5395.65	-0.331279
5402.32	-0.330998
5415.68	-0.330402
5422.35	-0.330087
5435.61	-0.329429
5442.24	-0.329084
5455.51	-0.32836
5462.14	-0.327978
5475.4	-0.327175
5482.03	-0.326754
5495.29	-0.325875
5501.92	-0.325418
5515.18	-0.324471
5521.81	-0.323982
5535.07	-0.322973
5541.7	-0.322454
5554.96	-0.321386
5561.6	-0.320838
5574.86	-0.319715
5581.49	-0.31914
5594.75	-0.31797
5601.38	-0.317376
5614.64	-0.31617
5621.27	-0.315559
5634.53	-0.314319
5641.16	-0.313689
5654.42	-0.312412
5661.05	-0.311764
5674.32	-0.310446
5680.95	-0.309775
5694.21	-0.30841
5700.84	-0.307715
5714.1	-0.306296
5720.73	-0.305572
5733.99	-0.304092
5740.62	-0.303335
5753.88	-0.301832
5760.51	-0.30108
5773.77	-0.299518
5780.4	-0.29871
5793.67	-0.297044
5800.3	-0.296185
5813.56	-0.294413
5820.19	-0.2935
5833.45	-0.291488
5840.08	-0.290455
5853.34	-0.288335
5866.6	-0.286147
5873.23	-0.285028
5886.49	-0.282741
5893.12	-0.281574
5906.38	-0.279195
5913.01	-0.277983
5926.28	-0.275516
5932.91	-0.274261
5946.17	-0.271711
5952.8	-0.270417
5966.06	-0.268535
5972.69	-0.267539
5985.95	-0.265456
5992.58	-0.264377
6005.84	-0.262155
6012.47	-0.261016
6025.73	-0.258689
6032.36	-0.257501
6045.63	-0.255083
6052.26	-0.253852
6065.52	-0.251348
6072.15	-0.250074
6085.41	-0.247483
6092.04	-0.246166
6105.3	-0.243486
6111.93	-0.242123
6125.19	-0.239351
6131.82	-0.237941
6145.08	-0.235058
6151.71	-0.233587
6164.98	-0.230588
6171.61	-0.229061
6184.87	-0.225956
6191.5	-0.224379
6204.76	-0.221192
6211.39	-0.219587
6224.65	-0.216367
6231.28	-0.214755
6244.54	-0.21153
6251.17	-0.209919
6264.43	-0.206699
6271.06	-0.205089
6284.33	-0.201869
6290.96	-0.200256
6304.22	-0.197022
6310.85	-0.195398
6324.11	-0.192131
6330.74	-0.190485
6343.97	-0.187172
6350.57	-0.185504
6363.77	-0.182131
6370.37	-0.180425
6383.56	-0.174097
6390.16	-0.171055
6403.36	-0.165237
6416.56	-0.159749
6423.19	-0.157094
6436.45	-0.151933
6443.08	-0.149405
6456.34	-0.144399
6462.98	-0.141902
6476.24	-0.136877
6482.87	-0.134336
6496.09	-0.129179
6502.72	-0.126564
6515.98	-0.121324
6522.62	-0.118706
6535.88	-0.113467
6542.51	-0.110835
6555.77	-0.105509
6562.4	-0.102798
6575.66	-0.0949184
6582.29	-0.0899663
6595.55	-0.080372
6602.18	-0.0757942
6615.44	-0.0669497
6622.07	-0.0625617
6635.34	-0.0536244
6641.97	-0.0490194
6655.23	-0.0397744
6661.86	-0.035233
6675.12	-0.0261707
6681.75	-0.0178597
6695.01	-0.00400554
6701.64	0.00202876
6714.9	0.0152609
6721.53	0.0226937
6734.79	0.0447383
6741.43	0.0545878
6754.69	0.0728503
6761.32	0.0803357
6774.58	0.0918962
6781.21	0.0962764
6794.47	0.102934
6801.1	0.105298
6814.36	0.10852
6820.98	0.109705
6834.23	0.111679
6840.85	0.112475
6854.1	0.113639
6860.72	0.114029
6873.95	0.114559
6880.56	0.114751
6893.8	0.115173
6900.41	0.1155
6913.64	0.116529
6920.26	0.1172
6933.49	0.118624
6940.11	0.119272
6953.35	0.120251
6966.59	0.120678
6973.21	0.120667
6986.41	0.120225
6993.01	0.119829
7006.21	0.118803
7012.81	0.118218
7026.01	0.116999
7032.61	0.116393
7045.81	0.11525
7052.41	0.114741
7065.61	0.113921
7072.21	0.113635
7085.41	0.113339
7092.01	0.113317
7105.21	0.113427
7111.81	0.113504
7125.01	0.113544
7131.61	0.113452
7144.81	0.112955
7151.41	0.112537
7164.61	0.111392
7171.21	0.110691
7184.41	0.10912
7191.01	0.108284
7204.21	0.106579
7210.81	0.105731
7224.01	0.104083
7230.61	0.103299
7243.81	0.101852
7250.41	0.101209
7263.61	0.100132
7270.21	0.0997139
7283.41	0.0991379
7290.01	0.0989781
7303.21	0.0988871
7316.41	0.0990398
7323.01	0.0991826
7336.21	0.0995591
7342.81	0.0997814
7356.01	0.100281
7362.62	0.100559
7375.82	0.101177
7382.42	0.101522
7395.62	0.102293
7402.22	0.102719
7415.42	0.103655
7422.02	0.10416
7435.22	0.10523
7441.82	0.105787
7455.02	0.106917
7461.62	0.107479
7474.82	0.108562
7481.42	0.10907
7494.62	0.109992
7501.22	0.110395
7514.42	0.111071
7521.02	0.11134
7534.22	0.111738
7540.82	0.111869
7554.02	0.112006
7560.62	0.112017
7573.82	0.111941
7580.42	0.11186
7593.62	0.111632
7600.22	0.111491
7613.42	0.111168
7620.02	0.110991
7633.22	0.11061
7646.42	0.1102
7653.02	0.109984
7666.22	0.109526
7672.82	0.109285
7686.02	0.108779
7692.62	0.108516
7705.82	0.107976
7712.42	0.107703
7725.62	0.107167
7732.22	0.106908
7745.42	0.10642
7752.02	0.106195
7765.22	0.105787
7771.82	0.105603
7785.02	0.105269
7791.62	0.105113
7804.82	0.104805
7811.42	0.104643
7824.62	0.104276
7831.22	0.104059
7844.42	0.103532
7851.02	0.103211
7864.22	0.102433
7870.82	0.101969
7884.02	0.100881
7890.62	0.100255
7903.82	0.0988437
7910.42	0.0980603
7923.62	0.0963507
7930.22	0.0954305
7943.42	0.0934768
7950.02	0.0924507
7963.22	0.0903186
7976.42	0.0881027
7983.02	0.0869712
7996.22	0.0846745
8002.82	0.0835139
8016.02	0.0811776
8022.62	0.0800052
8035.82	0.0776594
8042.42	0.0764888
8055.62	0.0741591
8062.22	0.0730029
8075.42	0.0707159
8082.02	0.0695882
8095.22	0.0673724
8101.82	0.0662872
8115.02	0.0641685
8121.62	0.0631367
8134.82	0.0611304
8141.42	0.0601556
8154.63	0.0582589
8161.23	0.0573342
8174.43	0.0555218
8181.03	0.0546288
8194.23	0.0528527
8200.83	0.0519624
8214.03	0.0501567
8220.63	0.0492328
8233.83	0.0473206
8240.43	0.0463233
8253.63	0.0442236
8260.23	0.0431125
8273.43	0.0407454
8280.03	0.0394805
8293.23	0.0367616
8306.43	0.0337424
8313.03	0.0320925
8326.23	0.0284308
8332.83	0.0263821
8346.03	0.0217786
8352.63	0.0192329
8365.83	0.013414
8372.43	0.00796899
8385.63	0.00226824
8392.23	0.0019515
8405.43	-0.00178637
8412.03	-0.00436371
8425.23	-0.00908769
8431.83	-0.0114182
8445.03	-0.0158484
8451.63	-0.0176895
8464.83	-0.0182403
8471.43	-0.0196278
8484.63	-0.0218994
8491.23	-0.0237344
8504.43	-0.026814
8511.03	-0.0281099
8524.23	-0.0303982
8530.83	-0.0314382
8544.03	-0.0333824
8550.63	-0.0342864
8563.83	-0.0359731
8570.43	-0.0367816
8583.63	-0.0384896
8590.23	-0.03926
8603.43	-0.0406801
8610.03	-0.0412585
8623.23	-0.0422059
8636.43	-0.0402907
8643.03	-0.0407768
8656.23	-0.0417367
8662.83	-0.0421
8676.03	-0.0435443
8682.63	-0.0442802
8695.83	-0.0456487
8702.43	-0.0462878
8715.64	-0.0474898
8722.24	-0.0480576
8735.44	-0.049134
8742.04	-0.0496424
8755.24	-0.0506035
8761.84	-0.0510588
8775.04	-0.051925
8781.64	-0.0523381
8794.84	-0.0531297
8801.44	-0.0534127
8814.64	-0.0539957
8821.24	-0.0542984
8834.44	-0.0549173
8841.04	-0.055317
8854.24	-0.056081
8860.84	-0.0564469
8874.04	-0.0571497
8880.64	-0.0574877
8893.84	-0.0581385
8900.44	-0.0584519
8913.64	-0.0590552
8920.24	-0.0593455
8933.44	-0.0599038
8940.04	-0.060172
8953.24	-0.0606819
8966.44	-0.0611486
8973.04	-0.0613682
8986.24	-0.0574537
8992.84	-0.0540262
9006.04	-0.0545204
9012.64	-0.0547359
9025.84	-0.0551497
9032.44	-0.0553482
9045.64	-0.0557294
9052.24	-0.0559124
9065.44	-0.0562638
9072.04	-0.0564294
9085.24	-0.0567397
9091.84	-0.0568854
9105.04	-0.0571597
9111.64	-0.0572891
9124.84	-0.0575342
9131.44	-0.0576504
9144.64	-0.0578714
9151.24	-0.0579768
9164.44	-0.0581781
9171.04	-0.0582745
9184.24	-0.0584592
9190.84	-0.0585476
9204.04	-0.058717
9210.64	-0.0587978
9223.84	-0.0589525
9230.45	-0.0590346
9243.65	-0.0591855
9250.25	-0.0592543
9263.45	-0.0593782
9270.05	-0.0594332
9283.25	-0.0595293
9296.45	-0.0596066
9303.05	-0.0596382
9316.25	-0.0596853
9322.85	-0.0596992
9336.05	-0.0597087
9342.65	-0.0597048
9355.85	-0.0596809
9362.45	-0.0596614
9375.65	-0.0596079
9382.25	-0.0595744
9395.45	-0.059554
9402.05	-0.0595651
9415.25	-0.0595694
9421.85	-0.059563
9435.05	-0.0595341
9441.65	-0.0595119
9454.85	-0.059453
9461.45	-0.0594165
9474.65	-0.0593302
9481.25	-0.0592806
9494.45	-0.0591692
9501.04	-0.0591076
9514.24	-0.058973
9520.84	-0.0589001
9534.05	-0.0587438
9540.65	-0.0586606
9553.85	-0.0584845
9560.45	-0.0583918
9573.65	-0.0581974
9580.25	-0.0580959
9593.45	-0.0578844
9600.05	-0.0577745
9613.25	-0.057547
9626.45	-0.0568487
9633.05	-0.0567363
9646.25	-0.0565075
9652.85	-0.0563909
9666.05	-0.0561532
9672.65	-0.0560318
9685.85	-0.055784
9692.45	-0.0556574
9705.65	-0.0553985
9712.25	-0.055266
9725.45	-0.0549951
9732.05	-0.0548564
9745.25	-0.0545726
9751.85	-0.0544273
9765.05	-0.0541299
9771.65	-0.0539776
9784.85	-0.053666
9791.45	-0.0535065
9804.65	-0.05318
9811.25	-0.053013
9824.45	-0.0526714
9831.05	-0.0524967
9844.25	-0.0521395
9850.85	-0.051957
9864.05	-0.0515825
9870.65	-0.0513905
9883.85	-0.0509973
9890.45	-0.050796
9903.65	-0.0503845
9910.25	-0.0501743
9923.45	-0.049745
9930.05	-0.049526
9943.25	-0.0490793
9956.45	-0.0486209
9963.05	-0.0483874
9976.25	-0.0479119
9982.85	-0.0476698
9996.05	-0.0471162
10002.7	-0.0468072
10015.9	-0.0461877
10022.5	-0.0458771
10035.7	-0.0452542
10042.3	-0.0449416
10055.5	-0.0443143
10062.1	-0.0439994
10075.3	-0.0433671
10081.9	-0.0430496
10095.1	-0.042412
10101.7	-0.0420918
10114.9	-0.0414487
10121.5	-0.0411257
10134.7	-0.0404817
10141.3	-0.0401604
10154.5	-0.0395185
10161.1	-0.0391976
10174.3	-0.0385558
10180.9	-0.0382346
10194.1	-0.0375912
10200.7	-0.0372689
10213.9	-0.0366227
10220.5	-0.0362988
10233.7	-0.035649
10240.3	-0.035323
10253.5	-0.0346689
10260.1	-0.0343407
10273.3	-0.0336818
10286.5	-0.0330195
10293.1	-0.032687
10306.3	-0.0320195
10312.9	-0.0316846
10326.1	-0.0310126
10332.7	-0.0306757
10345.9	-0.03
10352.5	-0.0296613
10365.7	-0.0289825
10372.3	-0.0286425
10385.5	-0.0279614
10392.1	-0.0276219
10405.3	-0.0269466
10411.9	-0.0266107
10425.1	-0.0259421
10431.7	-0.0256092
10444.9	-0.0249463
10451.5	-0.0246162
10464.7	-0.0239582
10471.3	-0.0236303
10484.5	-0.0229177
10491.1	-0.0225362
10504.3	-0.0217837
10510.9	-0.0214125
10524.1	-0.0206797
10530.7	-0.0203177
10543.9	-0.0196025
10550.5	-0.019249
10563.7	-0.0185499
10570.3	-0.0182042
10583.5	-0.0175199
10590.1	-0.0171812
10603.3	-0.0165102
10616.5	-0.0158475
10623.1	-0.0155191
10636.3	-0.0148678
10642.9	-0.0145447
10656.1	-0.013809
10662.7	-0.013461
10675.9	-0.0127984
10682.5	-0.0124815
10695.7	-0.0118716
10702.3	-0.0115769
10715.5	-0.0110042
10722.1	-0.0107249
10735.3	-0.0101776
10741.9	-0.00990865
10755.1	-0.00937789
10761.7	-0.00911538
10774.9	-0.00859436
10781.5	-0.00833802
10794.7	-0.007835
10801.3	-0.00758767
10814.5	-0.00709972
10821.1	-0.00685844
10834.3	-0.00637972
10840.9	-0.00614169
10854.1	-0.00566692
10860.7	-0.00542967
10873.9	-0.00495469
10880.5	-0.00471687
10893.7	-0.00424016
10900.3	-0.00400108
10913.5	-0.00352579
10920.1	-0.00329348
10933.3	-0.00283586
10946.5	-0.00238336
10953.1	-0.00215767
10966.3	-0.00170513
10972.9	-0.00147753
10986.1	-0.00101803
10992.7	-0.000785572
11005.9	-0.000314935
11012.5	-7.66884e-05
11025.7	0.000472762
11032.3	0.000800665
11045.5	0.00149393
11052.1	0.0018525
11065.3	0.00258207
11071.9	0.00295009
11085.1	0.00368794
11091.7	0.00405676
11104.9	0.00479207
11111.5	0.00516071
11124.7	0.00589964
11131.3	0.00626978
11144.5	0.00701092
11151.1	0.00738156
11164.3	0.00812042
11170.9	0.00848772
11184.1	0.00921648
11190.7	0.00957776
11203.9	0.010811
11210.5	0.0116818
11223.7	0.0133149
11230.3	0.0140606
11243.5	0.0153988
11250.1	0.0159949
11263.3	0.0172955
11276.5	0.0184103
11283.1	0.0189154
11296.3	0.0197428
11302.9	0.0201213
11316.1	0.0208453
11322.7	0.0214704
11335.9	0.0227836
11342.5	0.0234245
11355.7	0.0246891
11362.3	0.025316
11375.5	0.0266302
11382.2	0.027308
11395.5	0.028674
11402.2	0.0293598
11415.5	0.0307322
11422.1	0.0314243
11435.5	0.0328479
11442.1	0.0335878
11455.5	0.0351376
11462.1	0.0359517
11475.5	0.0376653
11482.3	0.0385586
11495.8	0.0403777
11502.5	0.0412893
11516	0.0430929
11522.7	0.0439833
11536.2	0.0457514
11542.9	0.046636
11556.4	0.0484221
11563.1	0.0493273
11576.6	0.0511632
11583.3	0.0520911
11590.1	0.0530226
11603.6	0.0548851
11610.3	0.0558107
11623.8	0.0576399
11630.5	0.0585406
11644	0.060311
11650.7	0.06118
11664.2	0.0628841
11670.9	0.0637176
11684.4	0.0653396
11691.1	0.0661234
11704.6	0.0676218
11711.4	0.0683303
11724.8	0.0696526
11731.6	0.0702623
11745	0.0713744
11751.8	0.0718767
11765.3	0.0727785
11772	0.0731812
11785.5	0.0738996
11792.2	0.0742195
11805.7	0.0747905
11812.4	0.0750448
11825.9	0.075497
11832.6	0.0756963
11846.1	0.0760425
11852.8	0.0761891
11866.3	0.076428
11873.1	0.0765196
11886.5	0.0766463
11893.3	0.0766817
11900	0.076699
11913.5	0.076682
11920.4	0.0766492
11934	0.0765401
11940.8	0.0764659
11954.4	0.0762824
11961.2	0.0761739
11974.9	0.0759256
11981.7	0.0757857
11995.4	0.0754735
