
Simulation on single triangle.

Serial: simply the serial version
Parallel1: parallel version without any splits
Parallel2: parallel version with any splits and joins
Parallel3: parallel version with any splits and joins running on 2 threads

INITIAL_DEPTH	MTPS_SERIAL	MTPS_PARALLEL1	MTPS_PARALLEL2	MTPS_PARALLEL3	TIMESTEPS	AVERAGE_TRIANGLES_SERIAL	AVERAGE_TRIANGLES_PARALLEL1	AVERAGE_TRIANGLES_PARALLEL2	AVERAGE_TRIANGLES_PARALLEL3	AVERAGE_PARTITIONS_PARALLEL2
10	4.46084	4.48814	4.29554	3.98976	65536	1584.86	1584.01	1584.36	1584.36	5.03456
11	4.36161	4.35587	4.17563	3.93231	32768	4989.06	4989.73	4986.84	4986.84	11.7126
12	4.47239	4.48122	4.2981	4.11845	16384	19349.2	19337.2	19317.9	19317.9	22.8742
13	4.40996	4.40928	4.24685	4.12088	8192	74922.6	74778.7	74713	74713	52.2657
14	4.54565	4.50156	4.19215	4.09783	4096	137848	138329	137874	137874	65.6145
15	4.42234	4.41764	4.08861	4.09576	2048	197901	197984	198044	198044	69.4062
16	4.60009	4.57476	4.22349	4.13917	1024	300884	301057	301573	301573	96.29
17	4.47595	4.4831	4.21037	4.11168	512	538152	538852	540973	540973	183.295
18	4.54371	4.54574	4.34563	4.24699	256	1.02646e+06	1.02928e+06	1.03794e+06	1.03794e+06	310.203
19	4.37021	4.347	4.17526	4.07248	128	1.99668e+06	2.00802e+06	2.04314e+06	2.04314e+06	915.641
20	4.57058	4.55645	4.20873	4.02817	64	3.87256e+06	3.91811e+06	4.06002e+06	4.06002e+06	2918.33
21	4.52234	4.5106	3.88811	3.64665	32	7.34396e+06	7.52663e+06	8.09824e+06	8.09824e+06	11114.3
22	4.77964	4.74359	3.50589	3.13792	16	1.31463e+07	1.38785e+07	1.61764e+07	1.61764e+07	43377.2
23	5.00593	4.91254	3.4228	3.20471	8	2.01785e+07	2.31111e+07	3.23344e+07	3.23344e+07	126171
24	5.06081	5.43088	3.54547	3.29365	4	2.19376e+07	2.76626e+07	6.46486e+07	6.46486e+07	252335
25	4.95329	5.30356	3.37246	3.11538	4	4.37441e+07	5.51759e+07	1.29275e+08	1.29275e+08	504652
26	5.07501	5.42715	0.0487229	0.0331522	4	8.73017e+07	1.10141e+08	2.58523e+08	2.58523e+08	1.00944e+06
