0	0
11.0308	0
22.0616	0
33.0924	0
40.4463	0
51.4771	0
62.5079	0
73.5387	0
80.8926	0
91.9234	0
102.954	0
110.308	0
121.339	0
132.37	0
143.401	0
150.754	0
161.785	0
172.816	0
180.17	0
191.201	0
202.231	0
213.262	0
220.616	0
231.647	0
242.678	0
250.032	0
261.062	0
272.093	0
283.124	0
290.478	0
301.509	0
312.54	0
323.57	0
330.924	0
341.955	0
352.986	0
360.34	0
371.371	0
382.401	0
393.432	0
400.786	0
411.817	0
422.848	0
430.202	0
441.232	0
452.263	0
463.294	0
470.648	0
481.679	0
492.709	0
500.063	0
511.094	0
522.125	0
533.156	0
540.51	0
551.54	0
562.571	0
573.602	0
580.956	0
591.987	0
603.018	0
610.371	0
621.402	0
632.433	0
643.464	0
650.818	0
661.849	0
672.879	0
680.233	0
691.264	0
702.295	0
713.326	0
720.68	0
731.71	0
742.741	0
750.095	0
761.126	0
772.157	0
783.187	0
790.541	0
801.572	0
812.603	0
823.634	0
830.988	0
842.018	0
853.049	0
860.403	0
871.434	0
882.465	0
893.496	0
900.849	0
911.88	0
922.911	0
930.265	0
941.296	0
952.327	0
963.357	0
970.711	0
981.742	0
992.773	0
1000.13	0
1011.16	0
1022.19	0
1033.22	0
1040.57	0
1051.6	0
1062.63	0
1073.67	0
1081.02	0
1092.05	0
1103.08	0
1110.43	0
1121.47	0
1132.5	0
1143.53	0
1150.88	0
1161.91	0
1172.94	0
1180.3	0
1191.33	0
1202.36	0
1213.39	0
1220.74	0
1231.77	0
1242.8	0
1250.16	0
1261.19	0
1272.22	0
1283.25	0
1290.6	0
1301.64	0
1312.67	0
1320.02	0
1331.05	0
1342.08	0
1353.11	0
1360.47	0
1371.5	0
1382.53	0
1393.56	0
1400.91	0
1411.94	0
1422.97	0
1430.33	0
1441.36	0
1452.39	0
1463.42	0
1470.77	0
1481.81	0
1492.84	0
1500.19	0
1511.22	0
1522.25	0
1533.28	0
1540.64	0
1551.67	0
1562.7	0
1570.05	0
1581.08	0
1592.11	0
1603.14	0
1610.5	0
1621.53	0
1632.56	0
1643.59	0
1650.94	0
1661.98	0
1673.01	0
1680.36	0
1691.39	0
1702.42	0
1713.45	0
1720.81	0
1731.84	0
1742.87	0
1750.22	0
1761.25	0
1772.28	0
1783.31	0
1790.67	0
1801.7	0
1812.73	0
1820.08	0
1831.11	0
1842.15	0
1853.18	0
1860.53	0
1871.56	0
1882.59	0
1893.62	0
1900.98	0
1912.01	0
1923.04	0
1930.39	0
1941.42	0
1952.45	0
1963.48	0
1970.84	0
1981.87	0
1992.9	0
2000.25	0
2011.28	0
2022.31	0
2033.35	0
2040.7	0
2051.73	0
2062.76	0
2070.12	0
2081.15	0
2092.18	0
2103.21	0
2110.56	0
2121.59	0
2132.62	0
2143.65	0
2151.01	0
2162.04	0
2173.07	-9.09495e-13
2180.42	-2.72848e-12
2191.45	-4.54747e-12
2202.48	-8.18545e-12
2213.52	-1.81899e-11
2220.87	-3.00133e-11
2231.9	-6.27551e-11
2242.93	-1.27329e-10
2250.28	-2.01908e-10
2261.32	-3.97449e-10
2272.35	-7.69433e-10
2283.38	-1.4652e-09
2290.73	-2.22917e-09
2301.76	-4.12365e-09
2312.79	-7.50151e-09
2320.15	-1.10776e-08
2331.18	-1.96133e-08
2342.21	-3.41834e-08
2353.24	-5.8657e-08
2360.59	-8.33643e-08
2371.62	-1.39481e-07
2382.65	-2.29948e-07
2390.01	-3.18316e-07
2401.04	-5.12296e-07
2412.07	-8.12947e-07
2423.1	-1.27231e-06
2430.45	-1.70215e-06
2441.49	-2.6047e-06
2452.52	-3.93363e-06
2463.55	-5.86425e-06
2470.9	-7.59898e-06
2481.93	-1.10928e-05
2492.96	-1.59949e-05
2500.32	-2.02779e-05
2511.35	-2.86603e-05
2522.38	-4.00366e-05
2533.41	-5.52909e-05
2540.76	-6.81394e-05
2551.79	-9.23652e-05
2562.82	-0.00012385
2570.18	-0.000149707
2581.21	-0.000197228
2592.24	-0.000257175
2603.27	-0.000331982
2610.62	-0.000391431
2621.66	-0.000497123
2632.69	-0.000625394
2640.04	-0.000725058
2651.07	-0.000898277
2662.1	-0.00110302
2673.13	-0.00134274
2680.49	-0.00152366
2691.52	-0.00182908
2702.55	-0.00217808
2713.58	-0.00257339
2720.93	-0.00286384
2731.96	-0.00334133
2742.99	-0.00387033
2750.35	-0.00425209
2761.38	-0.00486869
2772.41	-0.0055379
2783.44	-0.00625894
2790.79	-0.00676774
2801.83	-0.00757165
2812.86	-0.00842218
2820.21	-0.0090136
2831.24	-0.00993479
2842.27	-0.0108934
2853.3	-0.0118851
2860.66	-0.0125624
2871.69	-0.013599
2882.72	-0.0146561
2890.07	-0.0153696
2901.1	-0.0164492
2912.13	-0.0175355
2923.16	-0.018623
2930.52	-0.0193462
2941.55	-0.0204241
2952.58	-0.0214892
2963.61	-0.0225359
2970.96	-0.0232208
2981.99	-0.0242245
2993.02	-0.0251944
3000.38	-0.0258189
3011.41	-0.0267175
3022.44	-0.0275632
3033.47	-0.0283471
3040.82	-0.0288306
3051.86	-0.0294886
3062.89	-0.0300543
3070.24	-0.0303728
3081.27	-0.0307501
3092.3	-0.0309894
3103.33	-0.0310683
3110.69	-0.0310193
3121.72	-0.0307723
3132.75	-0.0302885
3140.1	-0.0298172
3151.13	-0.0288583
3162.16	-0.0275597
3173.19	-0.0258759
3180.55	-0.0245155
3191.58	-0.0220804
3202.61	-0.0191246
3213.64	-0.0155936
3220.99	-0.0128929
3232.02	-0.00828101
3243.05	-0.00294843
3250.41	0.00103252
3261.44	0.00767867
3272.47	0.0151736
3283.5	0.0235559
3290.85	0.0296528
3301.88	0.0395795
3312.91	0.0504581
3320.27	0.0582431
3331.3	0.0707183
3342.33	0.0841402
3353.36	0.0984866
3360.71	0.108549
3371.74	0.124357
3382.77	0.140977
3390.13	0.152478
3401.16	0.170312
3412.19	0.188776
3423.22	0.207787
3430.57	0.220723
3441.6	0.24045
3452.63	0.26048
3463.66	0.280717
3471.02	0.294274
3482.05	0.314635
3493.08	0.334939
3500.43	0.348395
3511.46	0.368388
3522.49	0.388069
3533.52	0.407344
3540.88	0.419924
3551.91	0.438326
3562.94	0.456088
3570.29	0.467533
3581.32	0.484045
3592.35	0.499699
3603.38	0.514417
3610.73	0.52367
3621.77	0.536657
3632.8	0.548508
3640.15	0.55574
3651.18	0.565538
3662.21	0.574013
3673.24	0.581102
3680.59	0.585029
3691.62	0.589678
3702.65	0.592794
3710.01	0.593997
3721.04	0.594462
3732.07	0.593292
3743.1	0.590463
3750.45	0.587648
3761.48	0.582029
3772.51	0.574739
3783.54	0.56579
3790.9	0.558915
3801.93	0.547266
3812.96	0.53405
3820.31	0.524396
3831.34	0.508696
3842.37	0.491595
3853.4	0.473173
3860.76	0.460199
3871.79	0.439769
3882.82	0.418261
3890.17	0.403373
3901.2	0.380292
3912.23	0.356408
3923.26	0.331824
3930.61	0.315099
3941.64	0.289584
3952.68	0.263648
3960.03	0.246173
3971.06	0.219755
3982.09	0.193173
3993.12	0.166518
4000.47	0.148749
4011.5	0.122156
4022.53	0.0957042
4033.57	0.0694666
4040.92	0.0521276
4051.95	0.0263964
4062.98	0.00105301
4070.33	-0.0155978
4081.36	-0.0401647
4092.39	-0.0641915
4103.43	-0.0876246
4110.78	-0.102891
4121.81	-0.125219
4132.84	-0.146815
4140.19	-0.160781
4151.22	-0.181046
4162.26	-0.200444
4173.29	-0.218925
4180.64	-0.230711
4191.67	-0.247553
4202.7	-0.263346
4210.05	-0.273268
4221.09	-0.287208
4232.12	-0.299976
4243.15	-0.311533
4250.5	-0.318544
4261.53	-0.327998
4272.56	-0.336149
4283.59	-0.342974
4290.95	-0.346778
4301.98	-0.351357
4313.01	-0.354578
4320.36	-0.355972
4331.39	-0.35694
4342.42	-0.356576
4353.45	-0.354906
4360.81	-0.353084
4371.84	-0.349317
4382.87	-0.344356
4390.22	-0.340413
4401.25	-0.333591
4412.29	-0.325743
4423.32	-0.316946
4430.67	-0.310595
4441.7	-0.3004
4452.73	-0.289485
4460.09	-0.281854
4471.12	-0.269943
4482.15	-0.257561
4493.18	-0.244802
4500.53	-0.236133
4511.56	-0.222951
4522.59	-0.209635
4533.62	-0.19627
4540.98	-0.187373
4552.01	-0.174102
4563.04	-0.160983
4570.39	-0.152354
4581.42	-0.13963
4592.45	-0.127216
4603.48	-0.11516
4610.84	-0.10734
4621.87	-0.0959638
4632.9	-0.085036
4640.25	-0.0780113
4651.28	-0.0678784
4662.31	-0.0582414
4673.35	-0.0491085
4680.7	-0.0433018
4691.73	-0.0350148
4702.76	-0.0272327
4710.11	-0.0223224
4721.14	-0.0153677
4732.18	-0.00889726
4743.21	-0.00289978
4750.56	0.000841888
4761.59	0.00607915
4772.62	0.0108782
4783.65	0.0152528
4791.01	0.0179401
4802.04	0.0216376
4813.07	0.0249465
4820.42	0.0269429
4831.45	0.0296323
4842.48	0.0319659
4853.51	0.0339549
4860.87	0.0350948
4871.9	0.0365331
4882.93	0.0376545
4890.28	0.0382309
4901.31	0.0388457
4912.34	0.0391693
4923.37	0.0392116
4930.73	0.0390883
4941.76	0.0386837
4952.79	0.0380252
4960.14	0.0374507
4971.17	0.0363943
4982.21	0.0351156
4993.24	0.0336279
5000.59	0.032527
5011.62	0.0307229
5022.65	0.0287496
5030.01	0.0273482
5041.04	0.0251297
5052.07	0.0227873
5063.1	0.0203393
5070.45	0.0186576
5081.48	0.0160746
5092.51	0.0134355
5103.54	0.0107589
5110.9	0.00896273
5121.93	0.00626392
5132.96	0.0035748
5140.31	0.00179548
5151.34	-0.000842095
5162.37	-0.00342948
5173.41	-0.00595396
5180.76	-0.00759643
5191.79	-0.00999215
5202.82	-0.0122991
5210.17	-0.0137844
5221.21	-0.0159297
5232.24	-0.017973
5243.27	-0.0199125
5250.62	-0.0211478
5261.65	-0.0229149
5272.68	-0.0245816
5280.04	-0.0256386
5291.07	-0.0271468
5302.1	-0.028567
5313.13	-0.0299057
5320.48	-0.0307563
5331.51	-0.031975
5342.54	-0.0331318
5353.57	-0.0342343
5360.93	-0.034943
5371.96	-0.0359721
5382.99	-0.0369666
5390.34	-0.0376138
5401.37	-0.0385654
5412.4	-0.0394989
5423.44	-0.0404193
5430.79	-0.0410277
5441.82	-0.0419352
5452.85	-0.0428392
5460.2	-0.043441
5471.24	-0.0443436
5482.27	-0.0452471
5493.3	-0.0461519
5500.65	-0.0467558
5511.68	-0.0476625
5522.71	-0.0485693
5530.07	-0.0491735
5541.1	-0.0500781
5552.13	-0.0509795
5563.16	-0.0518761
5570.51	-0.0524704
5581.54	-0.0533556
5592.57	-0.0542319
5603.6	-0.055098
5610.96	-0.0556692
5621.99	-0.0565157
5633.02	-0.0573495
5640.37	-0.0578978
5651.4	-0.058709
5662.43	-0.0595063
5673.47	-0.0602899
5680.82	-0.0608049
5691.85	-0.0615666
5702.88	-0.0623159
5710.23	-0.0628091
5721.27	-0.0635399
5732.3	-0.064261
5743.33	-0.0649735
5750.68	-0.0654443
5761.71	-0.066145
5772.74	-0.0668401
5780.1	-0.0673009
5791.13	-0.0679889
5802.16	-0.0686735
5813.19	-0.0693554
5820.54	-0.0698086
5831.57	-0.0704864
5842.6	-0.0711616
5853.63	-0.0718335
5860.99	-0.0722793
5872.02	-0.0729437
5883.05	-0.0736016
5890.4	-0.0740357
5901.43	-0.0746785
5912.46	-0.0753087
5923.5	-0.0759236
5930.85	-0.0763234
5941.88	-0.0769051
5952.91	-0.0774618
5960.26	-0.0778171
5971.3	-0.0783228
5982.33	-0.0787918
5993.36	-0.0792194
6000.71	-0.079479
6011.74	-0.0798265
6022.77	-0.0801192
6030.13	-0.0802814
6041.16	-0.0804716
6052.19	-0.0805934
6063.22	-0.0806421
6070.57	-0.0806316
6081.6	-0.080548
6092.63	-0.0803792
6103.66	-0.0801211
6111.02	-0.0798976
6122.05	-0.0794827
6133.08	-0.0789694
6140.43	-0.0785713
6151.46	-0.0778885
6162.5	-0.0771015
6173.53	-0.0762087
6180.88	-0.0755543
6191.91	-0.0744836
6202.94	-0.073306
6210.3	-0.0724617
6221.33	-0.0711072
6232.36	-0.0696483
6243.39	-0.0680869
6250.74	-0.06699
6261.77	-0.065263
6272.8	-0.0634407
6280.16	-0.0621746
6291.19	-0.0602015
6302.22	-0.0581435
6313.25	-0.056005
6320.6	-0.0545371
6331.63	-0.0522755
6342.66	-0.0499471
6350.02	-0.0483604
6361.05	-0.0459328
6372.08	-0.0434533
6383.11	-0.0409279
6390.46	-0.0392216
6401.5	-0.0366326
6412.53	-0.0340134
6423.56	-0.0313699
6430.91	-0.0295969
6441.94	-0.0269256
6452.97	-0.0242453
6460.33	-0.022456
6471.36	-0.0197725
6482.39	-0.0170941
6493.42	-0.0144256
6500.77	-0.0126545
6511.8	-0.0100131
6522.83	-0.00739392
6530.19	-0.00566214
6541.22	-0.00308895
6552.25	-0.000548499
6563.28	0.00195565
6570.63	0.00360324
6581.66	0.00603949
6592.7	0.00843085
6600.05	0.00999874
6611.08	0.012309
6622.11	0.014567
6633.14	0.0167702
6640.5	0.0182074
6651.53	0.0203142
6662.56	0.0223602
6673.59	0.0243432
6680.94	0.0256292
6691.97	0.027503
6703	0.0293087
6710.36	0.0304738
6721.39	0.0321623
6732.42	0.0337784
6743.45	0.0353205
6750.8	0.0363069
6761.83	0.0377229
6772.86	0.0390617
6780.22	0.0399109
6791.25	0.041119
6802.28	0.0422477
6813.31	0.0432965
6820.66	0.0439511
6831.7	0.0448661
6842.73	0.0457007
6850.08	0.0462126
6861.11	0.0469139
6872.14	0.0475358
6883.17	0.0480792
6890.53	0.0483982
6901.56	0.0488129
6912.59	0.0491519
6923.62	0.0494169
6930.97	0.0495531
6942	0.0496983
6953.03	0.0497741
6960.39	0.049787
6971.42	0.0497517
6982.45	0.0496527
6993.48	0.0494923
7000.83	0.0493524
7011.86	0.0490951
7022.9	0.0487829
7030.25	0.0485455
7041.28	0.0481475
7052.31	0.0477014
7063.34	0.0472099
7070.7	0.0468582
7081.73	0.0462967
7092.76	0.0456965
7100.11	0.0452761
7111.14	0.0446172
7122.17	0.0439262
7133.2	0.0432056
7140.56	0.0427099
7151.59	0.0419452
7162.62	0.0411571
7173.65	0.0403477
7181	0.0397973
7192.03	0.038957
7203.06	0.038101
7210.42	0.0375224
7221.45	0.0366442
7232.48	0.035755
7243.51	0.0348566
7250.86	0.0342533
7261.89	0.033343
7272.93	0.0324275
7280.28	0.0318151
7291.31	0.0308942
7302.34	0.0299718
7313.37	0.0290492
7320.73	0.0284346
7331.76	0.0275144
7342.79	0.0265972
7350.14	0.025988
7361.17	0.0250787
7372.2	0.0241756
7383.23	0.0232802
7390.59	0.0226882
7401.62	0.0218086
7412.65	0.0209403
7420	0.0203686
7431.03	0.0195228
7442.06	0.0186928
7453.09	0.0178804
7460.45	0.0173495
7471.48	0.0165707
7482.51	0.0158149
7493.54	0.0150842
7500.89	0.0146121
7511.92	0.0139282
7522.95	0.0132757
7530.31	0.0128591
7541.34	0.0122639
7552.37	0.0117063
7563.4	0.0111886
7570.75	0.0108667
7581.79	0.0104204
7592.82	0.0100198
7600.17	0.00977903
7611.2	0.00945858
7622.23	0.00918839
7633.26	0.00896979
7640.62	0.00885323
7651.65	0.00872278
7662.68	0.00864605
7670.03	0.00862487
7681.06	0.008638
7692.09	0.00870467
7703.12	0.00882418
7710.48	0.00893268
7721.51	0.00913765
7732.54	0.00939176
7743.57	0.00969297
7750.92	0.00991879
7761.95	0.0102931
7772.98	0.0107074
7780.34	0.0110043
7791.37	0.0114781
7802.4	0.011983
7813.43	0.012515
7820.78	0.0128827
7831.81	0.013451
7842.84	0.0140354
7850.2	0.0144319
7861.23	0.0150337
7872.26	0.01564
7883.29	0.0162466
7890.64	0.0166488
7901.67	0.017246
7912.71	0.0178319
7920.06	0.0182141
7931.09	0.018772
7942.12	0.0193079
7953.15	0.019818
7960.51	0.0201419
7971.54	0.0206011
7982.57	0.0210253
7993.6	0.0214114
8000.95	0.0216463
8011.98	0.0219626
8023.01	0.0222337
8030.37	0.022388
8041.4	0.0225784
8052.43	0.0227176
8063.46	0.0228037
8070.81	0.0228309
8081.84	0.0228252
8092.87	0.0227625
8100.23	0.0226884
8111.26	0.0225282
8122.29	0.0223084
8133.32	0.0220281
8140.67	0.0218074
8151.7	0.0214254
8162.74	0.0209819
8170.09	0.0206521
8181.12	0.0201062
8192.15	0.019499
8203.18	0.0188309
8210.54	0.018352
8221.57	0.0175839
8232.6	0.0167569
8243.63	0.0158719
8250.98	0.0152504
8262.01	0.0142719
8273.04	0.0132392
8280.4	0.0125216
8291.43	0.0114027
8302.46	0.0102347
8313.49	0.00901985
8320.84	0.00818508
8331.87	0.0068975
8342.9	0.00556973
8350.26	0.0046636
8361.29	0.00327509
8372.32	0.00185405
8383.35	0.000403525
8390.7	-0.000578325
8401.74	-0.00207099
8412.77	-0.00358467
8420.12	-0.00460387
8431.15	-0.00614535
8442.18	-0.00769919
8453.21	-0.00926216
8460.57	-0.0103076
8471.6	-0.0118788
8482.63	-0.0134508
8493.66	-0.0150205
8501.01	-0.0160644
8512.04	-0.0176242
8523.07	-0.0191743
8530.43	-0.0202012
8541.46	-0.0217296
8552.49	-0.0232419
8563.52	-0.0247358
8570.87	-0.0257205
8581.9	-0.0271792
8592.94	-0.0286143
8600.29	-0.029557
8611.32	-0.0309491
8622.35	-0.0323132
8633.38	-0.0336482
8640.74	-0.0345212
8651.77	-0.0358046
8662.8	-0.0370556
8670.15	-0.0378711
8681.18	-0.0390659
8692.21	-0.0402258
8703.24	-0.0413499
8710.6	-0.0420791
8721.63	-0.0431421
8732.66	-0.0441674
8740.01	-0.0448298
8751.04	-0.0457911
8762.07	-0.0467134
8773.11	-0.0475961
8780.46	-0.0481624
8791.49	-0.0489782
8802.52	-0.0497536
8813.55	-0.0504882
8820.91	-0.0509552
8831.94	-0.0516215
8842.97	-0.0522467
8850.32	-0.0526407
8861.35	-0.0531975
8872.38	-0.0537136
8883.41	-0.0541892
8890.77	-0.054484
8901.8	-0.0548931
8912.83	-0.055263
8920.18	-0.0554882
8931.21	-0.0557944
8942.24	-0.0560635
8953.27	-0.0562964
8960.63	-0.0564322
8971.66	-0.0566073
8982.69	-0.0567494
8990.04	-0.0568263
9001.07	-0.0569161
9012.11	-0.0569763
9023.14	-0.0570084
9030.49	-0.0570149
9041.52	-0.0570033
9052.55	-0.0569674
9063.58	-0.0569087
9070.94	-0.0568576
9081.97	-0.0567638
9093	-0.0566509
9100.35	-0.0565656
9111.38	-0.0564233
9122.41	-0.056265
9133.44	-0.0560917
9140.8	-0.0559682
9151.83	-0.0557718
9162.86	-0.0555626
9170.21	-0.0554163
9181.24	-0.0551872
9192.27	-0.0549468
9203.31	-0.0546955
9210.66	-0.0545221
9221.69	-0.0542533
9232.72	-0.0539743
9240.07	-0.0537827
9251.11	-0.0534869
9262.14	-0.0531811
9273.17	-0.0528653
9280.52	-0.0526492
9291.55	-0.0523169
9302.58	-0.0519745
9313.61	-0.0516223
9320.97	-0.051382
9332	-0.0510134
9343.03	-0.0506352
9350.38	-0.0503778
9361.41	-0.0499839
9372.44	-0.0495809
9383.47	-0.0491693
9390.83	-0.0488903
9401.86	-0.0484651
9412.89	-0.0480325
9420.24	-0.0477402
9431.27	-0.0472963
9442.31	-0.0468466
9453.34	-0.0463917
9460.69	-0.0460859
9471.72	-0.0456238
9482.75	-0.0451585
9490.11	-0.0448469
9501.14	-0.0443777
9512.17	-0.0439072
9523.2	-0.043436
9530.55	-0.0431218
9541.58	-0.0426508
9552.61	-0.0421808
9563.64	-0.0417123
9571	-0.041401
9582.03	-0.0409358
9593.06	-0.0404731
9600.41	-0.0401661
9611.44	-0.039708
9622.48	-0.0392528
9633.51	-0.0388006
9640.86	-0.0385007
9651.89	-0.0380533
9662.92	-0.0376085
9670.28	-0.0373134
9681.31	-0.0368725
9692.34	-0.0364335
9703.37	-0.035996
9710.72	-0.0357049
9721.75	-0.035269
9732.78	-0.0348333
9740.14	-0.0345427
9751.17	-0.0341063
9762.2	-0.0336689
9773.23	-0.0332299
9780.58	-0.0329361
9791.61	-0.0324933
9802.64	-0.0320478
9813.68	-0.031599
9821.03	-0.0312978
9832.06	-0.0308428
9843.09	-0.0303837
9850.44	-0.0300753
9861.48	-0.029609
9872.51	-0.0291382
9883.54	-0.028663
9890.89	-0.0283437
9901.92	-0.0278611
9912.95	-0.0273744
9920.31	-0.0270478
9931.34	-0.0265549
9942.37	-0.0260588
9953.4	-0.02556
9960.75	-0.0252263
9971.78	-0.0247243
9982.81	-0.0242212
9990.17	-0.0238857
10001.2	-0.0233827
10012.2	-0.0228808
10023.3	-0.0223809
10030.6	-0.0220492
10041.6	-0.0215547
10052.7	-0.0210648
10060	-0.0207411
10071.1	-0.0202608
10082.1	-0.0197877
10093.1	-0.0193226
10100.5	-0.0190175
10111.5	-0.0185679
10122.5	-0.0181288
10133.6	-0.017701
10140.9	-0.0174224
10152	-0.017015
10163	-0.0166207
10170.3	-0.0163654
10181.4	-0.0159941
10192.4	-0.0156372
10203.4	-0.015295
10210.8	-0.0150751
10221.8	-0.0147577
10232.8	-0.0144553
10240.2	-0.014262
10251.2	-0.0139845
10262.3	-0.0137216
10273.3	-0.0134732
10280.6	-0.0133153
10291.7	-0.01309
10302.7	-0.0128779
10310.1	-0.0127437
10321.1	-0.0125526
10332.1	-0.0123735
10343.2	-0.0122055
10350.5	-0.0120996
10361.5	-0.0119491
10372.6	-0.0118085
10383.6	-0.011677
10391	-0.0115942
10402	-0.011477
10413	-0.0113679
10420.4	-0.0112994
10431.4	-0.011203
10442.4	-0.0111139
10453.5	-0.0110321
10460.8	-0.0109815
10471.8	-0.0109118
10482.9	-0.0108494
10490.2	-0.010812
10501.3	-0.0107625
10512.3	-0.0107211
10523.3	-0.0106884
10530.7	-0.0106715
10541.7	-0.0106541
10552.7	-0.0106466
10560.1	-0.0106474
10571.1	-0.0106578
10582.2	-0.0106796
10593.2	-0.0107134
10600.5	-0.0107428
10611.6	-0.0107977
10622.6	-0.0108657
10633.6	-0.0109473
10641	-0.0110092
10652	-0.0111137
10663	-0.0112318
10670.4	-0.0113182
10681.4	-0.0114589
10692.5	-0.0116125
10703.5	-0.0117786
10710.8	-0.0118959
10721.9	-0.0120809
10732.9	-0.012276
10740.3	-0.012411
10751.3	-0.01262
10762.3	-0.0128355
10773.4	-0.0130558
10780.7	-0.0132045
10791.7	-0.0134289
10802.8	-0.0136533
10810.1	-0.0138018
10821.2	-0.0140215
10832.2	-0.0142355
10843.2	-0.0144418
10850.6	-0.0145741
10861.6	-0.0147628
10872.6	-0.0149381
10883.7	-0.0150981
10891	-0.0151953
10902	-0.0153256
10913.1	-0.0154357
10920.4	-0.0154971
10931.5	-0.0155703
10942.5	-0.0156198
10953.5	-0.0156444
10960.9	-0.0156467
10971.9	-0.0156283
10982.9	-0.0155837
10990.3	-0.0155392
11001.3	-0.0154505
11012.4	-0.0153356
11023.4	-0.0151952
11030.7	-0.0150877
11041.8	-0.0149065
11052.8	-0.0147023
11060.2	-0.0145541
11071.2	-0.0143148
11082.2	-0.0140568
11093.2	-0.0137817
11100.6	-0.01359
11111.6	-0.0132913
11122.7	-0.0129813
11130	-0.0127696
11141	-0.012446
11152.1	-0.0121175
11163.1	-0.0117863
11170.5	-0.0115652
11181.5	-0.011235
11192.5	-0.0109084
11203.6	-0.0105878
11210.9	-0.0103783
11221.9	-0.0100721
11233	-0.00977729
11240.3	-0.00958788
11251.4	-0.00931575
11262.4	-0.00905929
11273.4	-0.00881982
11280.8	-0.00867017
11291.8	-0.00846138
11302.8	-0.0082721
11310.2	-0.00815703
11321.2	-0.0080014
11332.2	-0.00786631
11343.3	-0.00775177
11350.6	-0.00768673
11361.7	-0.00760587
11372.7	-0.00754457
11380	-0.00751423
11391.1	-0.00748383
11402.1	-0.00747068
11413.1	-0.00747357
11420.5	-0.00748377
11431.5	-0.00751039
11442.6	-0.00754919
11453.6	-0.00759851
11460.9	-0.00763635
11472	-0.00769916
11483	-0.00776751
11490.4	-0.00781517
11501.4	-0.00788826
11512.4	-0.00796142
11523.4	-0.00803252
11530.8	-0.00807771
11541.8	-0.00814057
11552.9	-0.00819562
11560.2	-0.00822691
11571.2	-0.00826415
11582.3	-0.00828791
11593.3	-0.00829612
11600.7	-0.00829197
11611.7	-0.00826988
11622.7	-0.00822708
11630.1	-0.00818615
11641.1	-0.00810493
11652.1	-0.00799847
11663.2	-0.00786528
11670.5	-0.00776096
11681.6	-0.00758026
11692.6	-0.00736951
11703.6	-0.00712773
11711	-0.00694889
11722	-0.00665367
11733	-0.00632563
11740.4	-0.00608851
11751.4	-0.00570507
11762.4	-0.00528828
11773.5	-0.00483828
11780.8	-0.00451999
11791.9	-0.00401547
11802.9	-0.00347906
11810.2	-0.00310414
11821.3	-0.00251652
11832.3	-0.00189964
11843.3	-0.00125481
11850.7	-0.000810129
11861.7	-0.0001221
11872.8	0.000589579
11880.1	0.00107625
11891.1	0.00182311
11902.2	0.00258834
11913.2	0.00336976
11920.6	0.00389858
11931.6	0.00470191
11942.6	0.00551525
11953.6	0.00633617
11961	0.00688647
11972	0.00771464
11983.1	0.00854393
11990.4	0.00909623
12001.4	0.0099221
12012.5	0.0107428
12023.5	0.0115562
12030.9	0.0120934
12041.9	0.0128899
12052.9	0.0136737
12060.3	0.0141883
12071.3	0.0149471
12082.3	0.0156888
12093.4	0.0164121
12100.7	0.0168834
12111.8	0.0175735
12122.8	0.0182425
12130.1	0.0186765
12141.2	0.019309
12152.2	0.0199191
12163.2	0.0205066
12170.6	0.0208859
12181.6	0.0214361
12192.6	0.0219642
12203.7	0.0224709
12211	0.022797
12222.1	0.0232693
12233.1	0.023722
12240.4	0.0240135
12251.5	0.0244359
12262.5	0.0248415
12273.5	0.0252316
12280.9	0.0254836
12291.9	0.0258504
12302.9	0.0262049
12310.3	0.0264349
12321.3	0.0267716
12332.4	0.0270991
12343.4	0.0274185
12350.7	0.0276275
12361.8	0.0279358
12372.8	0.0282386
12380.2	0.0284378
12391.2	0.0287331
12402.2	0.0290246
12413.3	0.0293128
12420.6	0.0295033
12431.6	0.0297865
12442.7	0.0300669
12450	0.0302522
12461.1	0.0305276
12472.1	0.0307997
12483.1	0.0310679
12490.5	0.0312444
12501.5	0.0315051
12512.5	0.0317604
12523.6	0.0320095
12530.9	0.0321717
12541.9	0.0324086
12553	0.0326369
12560.3	0.0327839
12571.4	0.0329959
12582.4	0.0331968
12593.4	0.0333858
12600.8	0.0335047
12611.8	0.0336718
12622.8	0.0338248
12630.2	0.0339186
12641.2	0.0340465
12652.3	0.0341587
12663.3	0.0342548
12670.6	0.0343097
12681.7	0.0343784
12692.7	0.0344305
12700.1	0.0344561
12711.1	0.0344809
12722.1	0.0344899
12733.2	0.0344834
12740.5	0.0344709
12751.5	0.0344403
12762.6	0.0343964
12773.6	0.0343403
12781	0.0342967
12792	0.0342228
12803	0.0341402
12810.4	0.0340809
12821.4	0.0339869
12832.4	0.0338882
12843.5	0.0337867
12850.8	0.0337183
12861.8	0.0336159
12872.9	0.0335154
12880.2	0.0334504
12891.3	0.0333573
12902.3	0.0332711
12913.3	0.0331937
12920.7	0.0331479
12931.7	0.033089
12942.7	0.0330437
12950.1	0.0330218
12961.1	0.0330025
12972.2	0.0330009
12983.2	0.0330183
12990.5	0.0330411
13001.6	0.0330929
13012.6	0.0331668
13023.6	0.0332637
13031	0.0333414
13042	0.0334781
13053	0.0336393
13060.4	0.0337606
13071.4	0.0339632
13082.5	0.0341906
13093.5	0.0344426
13100.8	0.034624
13111.9	0.034916
13122.9	0.035231
13130.3	0.0354533
13141.3	0.0358045
13152.3	0.0361759
13163.4	0.0365659
13170.7	0.0368354
13181.7	0.0372528
13192.8	0.0376841
13200.1	0.0379783
13211.2	0.038428
13222.2	0.0388857
13233.2	0.0393488
13240.6	0.0396592
13251.6	0.0401254
13262.6	0.0405896
13273.7	0.0410489
13281	0.0413509
13292	0.0417951
13303.1	0.042226
13310.4	0.0425042
13321.5	0.0429056
13332.5	0.0432848
13343.5	0.0436385
13350.9	0.0438584
13361.9	0.044162
13372.9	0.0444311
13380.3	0.0445897
13391.3	0.0447938
13402.4	0.0449547
13413.4	0.0450692
13420.7	0.0451181
13431.8	0.0451484
13442.8	0.0451243
13450.2	0.0450766
13461.2	0.0449557
13472.2	0.0447734
13483.2	0.0445273
13490.6	0.0443268
13501.6	0.0439696
13512.7	0.0435433
13520	0.0432198
13531	0.0426747
13542.1	0.0420564
13553.1	0.0413639
13560.5	0.0408605
13571.5	0.0400426
13582.5	0.0391488
13593.6	0.0381788
13600.9	0.0374899
13611.9	0.0363932
13623	0.0352211
13630.3	0.0343981
13641.4	0.0331019
13652.4	0.0317326
13663.4	0.0302916
13670.8	0.0292919
13681.8	0.027735
13692.8	0.0261113
13700.2	0.0249927
13711.2	0.0232625
13722.2	0.0214718
13733.3	0.0196234
13740.6	0.0183606
13751.7	0.0164228
13762.7	0.0144359
13770	0.0130856
13781.1	0.0110245
13792.1	0.00892388
13803.1	0.00678777
13810.5	0.00534599
13821.5	0.00315987
13832.6	0.000949458
13843.6	-0.00128082
13850.9	-0.00277647
13862	-0.00502975
13873	-0.00729062
13880.4	-0.00879975
13891.4	-0.0110627
13902.4	-0.0133206
13913.4	-0.0155685
13920.8	-0.0170591
13931.8	-0.0192796
13942.9	-0.0214772
13950.2	-0.0229272
13961.2	-0.0250759
13972.3	-0.0271891
13983.3	-0.0292619
13990.7	-0.0306192
14001.7	-0.0326148
14012.7	-0.0345582
14020.1	-0.0358227
14031.1	-0.0376696
14042.1	-0.0394533
14053.2	-0.0411699
14060.5	-0.0422752
14071.6	-0.043872
14082.6	-0.0453923
14093.6	-0.0468332
14101	-0.0477482
14112	-0.0490504
14123	-0.050266
14130.4	-0.0510273
14141.4	-0.052094
14152.4	-0.0530691
14163.5	-0.053951
14170.8	-0.0544867
14181.9	-0.0552111
14192.9	-0.0558402
14200.2	-0.0562063
14211.3	-0.0566758
14222.3	-0.0570497
14233.3	-0.0573286
14240.7	-0.0574622
14251.7	-0.0575846
14262.8	-0.0576149
14270.1	-0.0575847
14281.1	-0.057465
14292.2	-0.0572581
14303.2	-0.0569662
14310.6	-0.0567257
14321.6	-0.0562981
14332.6	-0.055793
14343.6	-0.0552136
14351	-0.0547877
14362	-0.0540921
14373.1	-0.0533317
14380.4	-0.0527906
14391.4	-0.0519308
14402.5	-0.0510167
14413.5	-0.0500526
14420.9	-0.049384
14431.9	-0.0483458
14442.9	-0.047269
14450.3	-0.0465318
14461.3	-0.0454003
14472.3	-0.0442417
14483.4	-0.0430605
14490.7	-0.0422626
14501.8	-0.041053
14512.8	-0.0398321
14520.1	-0.0390138
14531.2	-0.0377828
14542.2	-0.0365508
14553.2	-0.0353218
14560.6	-0.0345057
14571.6	-0.0332891
14582.6	-0.0320845
14590	-0.0312895
14601	-0.0301114
14612.1	-0.028953
14623.1	-0.0278166
14630.4	-0.0270725
14641.5	-0.025978
14652.5	-0.0249112
14663.5	-0.0238737
14670.9	-0.0231992
14681.9	-0.0222137
14693	-0.021261
14700.3	-0.0206444
14711.3	-0.0197478
14722.4	-0.0188855
14733.4	-0.0180578
14740.8	-0.0175251
14751.8	-0.0167548
14762.8	-0.0160186
14770.2	-0.0155465
14781.2	-0.0148659
14792.2	-0.0142175
14803.3	-0.0136005
14810.6	-0.013206
14821.6	-0.0126387
14832.7	-0.0120994
14840	-0.0117547
14851.1	-0.0112589
14862.1	-0.0107872
14873.1	-0.0103377
14880.5	-0.0100497
14891.5	-0.00963371
14902.5	-0.0092354
14913.6	-0.00885299
14920.9	-0.008606
14932	-0.0082461
14943	-0.00789734
14950.3	-0.00767017
14961.4	-0.00733616
14972.4	-0.00700879
14983.4	-0.00668647
14990.8	-0.00647365
15001.8	-0.00615645
15012.8	-0.00584051
15020.2	-0.00562996
15031.2	-0.0053134
15042.3	-0.00499503
15053.3	-0.00467393
15060.6	-0.00445793
15071.7	-0.00413056
15082.7	-0.00379864
15090.1	-0.00357461
15101.1	-0.00323421
15112.1	-0.00288845
15123.2	-0.00253729
15130.5	-0.00230023
15141.5	-0.00194039
15152.6	-0.00157578
15163.6	-0.00120691
15171	-0.000958941
15182	-0.00058448
15193	-0.000207807
15200.4	4.40395e-05
15211.4	0.000422066
15222.4	0.000799289
15233.5	0.00117435
15240.8	0.00142245
15251.8	0.00179055
15262.9	0.00215227
15270.2	0.00238901
15281.3	0.00273613
15292.3	0.00307194
15303.3	0.00339443
15310.7	0.00360098
15321.7	0.00389656
15332.7	0.00417306
15340.1	0.00434567
15351.1	0.00458529
15362.2	0.00479964
15373.2	0.00498633
15380.5	0.00509422
15391.6	0.00522937
15402.6	0.0053303
15413.6	0.00539452
15421	0.0054157
15432	0.00541319
15443	0.00536731
15450.4	0.00531142
15461.4	0.00518779
15472.5	0.00501427
15483.5	0.00478846
15490.8	0.00460772
15501.9	0.00428958
15512.9	0.00391305
15520.3	0.00362851
15531.3	0.00314985
15542.3	0.00260718
15553.4	0.00199858
15560.7	0.0015553
15571.7	0.000832783
15582.8	3.97229e-05
15590.1	-0.000528918
15601.2	-0.0014428
15612.2	-0.00243087
15623.2	-0.00349422
15630.6	-0.0042454
15641.6	-0.00543615
15652.6	-0.00670418
15663.7	-0.00804991
15671	-0.00899034
15682	-0.0104659
15693.1	-0.0120191
15700.4	-0.0130976
15711.5	-0.0147794
15722.5	-0.0165372
15733.5	-0.0183701
15740.9	-0.0196331
15751.9	-0.0215879
15762.9	-0.0236136
15770.3	-0.0250025
15781.3	-0.0271417
15792.4	-0.0293457
15803.4	-0.0316117
15810.7	-0.0331554
15821.8	-0.0355178
15832.8	-0.0379335
15840.2	-0.0395716
15851.2	-0.0420674
15862.2	-0.0446056
15873.2	-0.0471817
15880.6	-0.0489178
15891.6	-0.0515463
15902.7	-0.0541993
15910	-0.055979
15921	-0.0586608
15932.1	-0.0613523
15943.1	-0.0640473
15950.5	-0.0658429
15961.5	-0.0685301
15972.5	-0.0712041
15983.6	-0.0738582
15990.9	-0.0756133
16001.9	-0.0782194
16013	-0.0807876
16020.3	-0.0824753
16031.4	-0.0849649
16042.4	-0.0873981
16053.4	-0.0897679
16060.8	-0.091309
16071.8	-0.0935576
16082.8	-0.0957244
16090.2	-0.0971201
16101.2	-0.0991355
16112.2	-0.101051
16123.3	-0.102861
16130.6	-0.104005
16141.7	-0.105625
16152.7	-0.107122
16160	-0.108049
16171.1	-0.10933
16182.1	-0.110474
16193.1	-0.111477
16200.5	-0.112065
16211.5	-0.112822
16222.6	-0.113427
16233.6	-0.113875
16240.9	-0.114085
16252	-0.114265
16263	-0.114282
16270.4	-0.114201
16281.4	-0.113941
16292.4	-0.113512
16303.4	-0.112914
16310.8	-0.112421
16321.8	-0.11154
16332.9	-0.110491
16340.2	-0.109698
16351.3	-0.108369
16362.3	-0.106875
16373.3	-0.105218
16380.7	-0.104024
16391.7	-0.102102
16402.7	-0.100024
16410.1	-0.098555
16421.1	-0.0962285
16432.1	-0.0937587
16443.2	-0.0911507
16450.5	-0.089338
16461.6	-0.0865123
16472.6	-0.083564
16483.6	-0.0804997
16491	-0.0783957
16502	-0.0751535
16513	-0.0718142
16520.4	-0.0695378
16531.4	-0.0660539
16542.5	-0.0624938
16553.5	-0.0588659
16560.8	-0.0564136
16571.9	-0.0526912
16582.9	-0.0489235
16590.3	-0.0463909
16601.3	-0.0425671
16612.3	-0.0387214
16623.3	-0.0348624
16630.7	-0.0322867
16641.7	-0.028425
16652.8	-0.0245732
16660.1	-0.022015
16671.1	-0.0181985
16682.2	-0.0144141
16693.2	-0.0106698
16700.6	-0.00819984
16711.6	-0.00453979
16722.6	-0.000940163
16733.7	0.00259197
16741	0.00490587
16752	0.00831065
16763.1	0.0116307
16770.4	0.013794
16781.5	0.0169601
16792.5	0.0200268
16803.5	0.0229894
16810.9	0.0249045
16821.9	0.0276842
16832.9	0.0303494
16840.3	0.032061
16851.3	0.0345285
16862.3	0.0368743
16873.4	0.0390963
16880.7	0.0405082
16891.8	0.0425211
16902.8	0.0444076
16910.1	0.0455949
16921.2	0.0472705
16932.2	0.04882
16943.2	0.0502446
16950.6	0.0511254
16961.6	0.0523449
16972.7	0.0534438
16980	0.0541106
16991	0.0550142
17002.1	0.0558045
17013.1	0.0564846
17020.5	0.0568787
17031.5	0.0573835
17042.5	0.0577884
17053.5	0.0580974
17060.9	0.0582525
17071.9	0.0584119
17083	0.0584876
17090.3	0.0584941
17101.3	0.0584413
17112.4	0.0583179
17123.4	0.0581291
17130.8	0.0579692
17141.8	0.0576824
17152.8	0.0573434
17160.2	0.057091
17171.2	0.0566764
17182.2	0.0562228
17193.3	0.0557352
17200.6	0.0553934
17211.7	0.0548591
17222.7	0.0543028
17230	0.0539218
17241.1	0.053338
17252.1	0.052743
17263.1	0.0521406
17270.5	0.0517364
17281.5	0.051129
17292.5	0.0505227
17303.6	0.0499204
17310.9	0.0495224
17322	0.0489324
17333	0.0483527
17340.3	0.0479728
17351.4	0.0474143
17362.4	0.0468705
17373.4	0.0463426
17380.8	0.046
17391.8	0.0455007
17402.9	0.0450193
17410.2	0.0447086
17421.2	0.0442578
17432.3	0.0438255
17443.3	0.0434115
17450.7	0.0431454
17461.7	0.0427608
17472.7	0.0423931
17480.1	0.0421569
17491.1	0.0418155
17502.1	0.0414887
17513.2	0.0411753
17520.5	0.0409732
17531.5	0.0406796
17542.6	0.0403961
17553.6	0.0401216
17561	0.0399428
17572	0.03968
17583	0.0394226
17590.4	0.0392532
17601.4	0.0390016
17612.4	0.0387518
17623.5	0.0385025
17630.8	0.0383361
17641.9	0.0380852
17652.9	0.0378318
17660.2	0.037661
17671.3	0.0374015
17682.3	0.037137
17693.3	0.036867
17700.7	0.0366836
17711.7	0.036403
17722.7	0.0361154
17730.1	0.0359196
17741.1	0.0356197
17752.2	0.0353122
17763.2	0.0349972
17770.5	0.034783
17781.6	0.0344556
17792.6	0.0341211
17803.6	0.0337799
17811	0.033549
17822	0.0331978
17833.1	0.0328415
17840.4	0.0326014
17851.4	0.0322382
17862.5	0.0318719
17873.5	0.0315035
17880.9	0.0312571
17891.9	0.0308873
17902.9	0.0305181
17910.3	0.0302728
17921.3	0.029907
17932.3	0.0295446
17943.4	0.0291869
17950.7	0.0289515
17961.7	0.0286039
17972.8	0.0282638
17980.1	0.0280419
17991.2	0.0277168
18002.2	0.027402
18013.2	0.0270984
18020.6	0.0269028
18031.6	0.02662
18042.6	0.0263507
18053.7	0.0260957
18061	0.0259339
18072.1	0.0257041
18083.1	0.02549
18090.4	0.0253563
18101.5	0.0251695
18112.5	0.0249995
18123.5	0.0248464
18130.9	0.0247538
18141.9	0.0246292
18152.9	0.0245216
18160.3	0.0244592
18171.3	0.0243797
18182.4	0.0243166
18193.4	0.0242696
18200.7	0.024247
18211.8	0.0242258
18222.8	0.0242195
18230.2	0.0242231
18241.2	0.0242399
18252.2	0.0242695
18263.3	0.0243113
18270.6	0.0243454
18281.6	0.0244054
18292.7	0.0244751
18300	0.0245264
18311.1	0.0246099
18322.1	0.0247003
18333.1	0.0247966
18340.5	0.0248634
18351.5	0.0249669
18362.5	0.0250731
18373.6	0.0251808
18380.9	0.0252529
18391.9	0.0253604
18403	0.0254663
18410.3	0.0255353
18421.4	0.0256354
18432.4	0.0257304
18443.4	0.025819
18450.8	0.0258739
18461.8	0.0259489
18472.8	0.026014
18480.2	0.0260513
18491.2	0.0260971
18502.3	0.0261296
18513.3	0.0261474
18520.6	0.0261505
18531.7	0.0261409
18542.7	0.0261133
18550.1	0.0260842
18561.1	0.0260235
18572.1	0.0259413
18583.1	0.0258363
18590.5	0.025753
18601.5	0.0256073
18612.6	0.0254356
18623.6	0.0252366
18630.9	0.0250883
18642	0.0248415
18653	0.0245644
18660.4	0.0243624
18671.4	0.0240327
18682.4	0.0236701
18693.5	0.0232737
18700.8	0.0229902
18711.8	0.0225355
18722.9	0.0220448
18730.2	0.0216974
18741.3	0.0211452
18752.3	0.0205555
18763.3	0.0199276
18770.7	0.0194877
18781.7	0.0187956
18792.7	0.0180646
18800.1	0.0175557
18811.1	0.0167598
18822.1	0.015925
18833.2	0.0150515
18840.5	0.0144479
18851.6	0.0135107
18862.6	0.0125359
18873.6	0.0115242
18881	0.0108296
18892	0.00975802
18903	0.00865185
18910.4	0.0078957
18921.4	0.0067343
18932.5	0.00554145
18943.5	0.00431856
18950.8	0.00348736
18961.9	0.00221785
18972.9	0.000922617
18980.3	4.57264e-05
18991.3	-0.00128831
19002.3	-0.00264303
19013.3	-0.00401639
19020.7	-0.00494126
19031.7	-0.00634088
19042.8	-0.0077533
19050.1	-0.00870087
19061.1	-0.0101294
19072.2	-0.0115645
19083.2	-0.0130037
19090.6	-0.0139642
19101.6	-0.0154047
19112.6	-0.0168428
19123.7	-0.0182759
19131	-0.0192272
19142	-0.0206465
19153.1	-0.0220542
19160.4	-0.022985
19171.5	-0.0243681
19182.5	-0.0257331
19193.5	-0.0270778
19200.9	-0.0279619
19211.9	-0.0292677
19222.9	-0.0305472
19230.3	-0.0313846
19241.3	-0.0326157
19252.3	-0.033815
19263.4	-0.0349807
19270.7	-0.0357381
19281.8	-0.0368436
19292.8	-0.0379106
19300.1	-0.0385999
19311.2	-0.0395994
19322.2	-0.0405564
19333.2	-0.0414696
19340.6	-0.0420534
19351.6	-0.0428907
19362.7	-0.0436809
19370	-0.0441811
19381	-0.0448908
19392.1	-0.0455509
19403.1	-0.0461606
19410.5	-0.0465388
19421.5	-0.0470633
19432.5	-0.0475358
19443.5	-0.047956
19450.9	-0.0482068
19461.9	-0.048539
19473	-0.0488181
19480.3	-0.0489747
19491.3	-0.0491652
19502.4	-0.0493025
19513.4	-0.0493869
19520.8	-0.0494138
19531.8	-0.0494104
19542.8	-0.0493548
19550.2	-0.0492889
19561.2	-0.0491474
19572.2	-0.0489551
19583.3	-0.0487128
19590.6	-0.0485238
19601.7	-0.0481999
19612.7	-0.0478282
19620	-0.0475544
19631.1	-0.0471055
19642.1	-0.0466119
19653.1	-0.0460748
19660.5	-0.0456932
19671.5	-0.0450868
19682.5	-0.0444408
19693.6	-0.0437569
19700.9	-0.0432807
19712	-0.0425373
19723	-0.0417608
19730.3	-0.0412257
19741.4	-0.0403984
19752.4	-0.0395433
19763.4	-0.0386626
19770.8	-0.0380624
19781.8	-0.0371442
19792.9	-0.0362065
19800.2	-0.0355719
19811.2	-0.0346074
19822.3	-0.0336303
19833.3	-0.032643
19840.7	-0.0319804
19851.7	-0.0309821
19862.7	-0.0299809
19870.1	-0.029313
19881.1	-0.0283128
19892.1	-0.0273169
19903.2	-0.0263281
19910.5	-0.0256741
19921.5	-0.0247032
19932.6	-0.0237467
19943.6	-0.0228072
19951	-0.0221916
19962	-0.0212864
19973	-0.0204052
19980.4	-0.0198323
19991.4	-0.0189967
