MODE: ipmo_prog0
PARCOUNT: 8
PROBLEMS: 1
Running on INWEST
Using iPMO

Programs:
 + ../../build/sierpi_intel_ipmo_tsunami_parallel_release  -u 10 -U 10 -T 1000 -n 4 -d 14
 + ../../build/sierpi_intel_ipmo_tsunami_parallel_release  -u 10 -U 10 -T 1000 -n 4 -d 14
 + ../../build/sierpi_intel_ipmo_tsunami_parallel_release  -u 10 -U 10 -T 1000 -n 4 -d 12
 + ../../build/sierpi_intel_ipmo_tsunami_parallel_release  -u 10 -U 10 -T 1000 -n 4 -d 12
 + ../../build/sierpi_intel_ipmo_tsunami_parallel_release  -u 10 -U 10 -T 1000 -n 4 -d 12
 + ../../build/sierpi_intel_ipmo_tsunami_parallel_release  -u 10 -U 10 -T 1000 -n 4 -d 12
 + ../../build/sierpi_intel_ipmo_tsunami_parallel_release  -u 10 -U 10 -T 1000 -n 4 -d 12
 + ../../build/sierpi_intel_ipmo_tsunami_parallel_release  -u 10 -U 10 -T 1000 -n 4 -d 12
 + ../../build/sierpi_intel_ipmo_tsunami_parallel_release  -u 10 -U 10 -T 1000 -n 4 -d 12
 + ../../build/sierpi_intel_ipmo_tsunami_parallel_release  -u 10 -U 10 -T 1000 -n 4 -d 12

Sun Apr  1 19:11:34 CEST 2012
iPMO: Prog0 parallel execution with ipmo (8 times)
Waiting for job 40200
40200: CHANGING RESSOURCES
40200: CHANGING RESSOURCES
40202: CHANGING RESSOURCES
40200: CHANGING RESSOURCES
40205: CHANGING RESSOURCES
40204: CHANGING RESSOURCES
40207: CHANGING RESSOURCES
40203: CHANGING RESSOURCES
40206: CHANGING RESSOURCES
40201: CHANGING RESSOURCES

 + Terminating after 1000 timesteps with equal number of triangles -> EXIT
 + Final timestep: 59579

59580 TS (Timesteps)
3022.12 ST (SIMULATION_TIME)
0.0500175 TSS (Timestep size)
1391.44 SFS (Overall seconds for Simulation)
20954211547 TP (Triangles processed)
0.0233541 ASPT (Averaged Seconds per Timestep)
351699 TPST (Triangles Processed in Average per Simulation Timestep)
95.0841 PPST (Partitions Processed in Average per Simulation Timestep)
15.0594 MTPS (Million Triangles per Second)
-15.0594 MTPSPT (Million Triangles per Second per Thread)
10.733 EDMBPT (ElementData Megabyte per Timestep (RW))
459.577 EDMBPS (ElementData Megabyte per Second (RW))
SUM CLIENT SHUTDOWN HINT: 20954.2
SUM CLIENT SHUTDOWN HINT DIV TIME: 0
40206: CHANGING RESSOURCES
40204: CHANGING RESSOURCES
40205: CHANGING RESSOURCES
40201: CHANGING RESSOURCES
40207: CHANGING RESSOURCES
Waiting for job 40201

 + Terminating after 1000 timesteps with equal number of triangles -> EXIT
 + Final timestep: 59579

59580 TS (Timesteps)
3022.12 ST (SIMULATION_TIME)
0.0500175 TSS (Timestep size)
1404.02 SFS (Overall seconds for Simulation)
20954211547 TP (Triangles processed)
0.0235652 ASPT (Averaged Seconds per Timestep)
351699 TPST (Triangles Processed in Average per Simulation Timestep)
95.0841 PPST (Partitions Processed in Average per Simulation Timestep)
14.9245 MTPS (Million Triangles per Second)
-14.9245 MTPSPT (Million Triangles per Second per Thread)
10.733 EDMBPT (ElementData Megabyte per Timestep (RW))
455.459 EDMBPS (ElementData Megabyte per Second (RW))
SUM CLIENT SHUTDOWN HINT: 41908.4
SUM CLIENT SHUTDOWN HINT DIV TIME: 0
40207: CHANGING RESSOURCES
40202: CHANGING RESSOURCES
40204: CHANGING RESSOURCES
40203: CHANGING RESSOURCES

 + Terminating after 1000 timesteps with equal number of triangles -> EXIT
 + Final timestep: 59579

59580 TS (Timesteps)
3022.12 ST (SIMULATION_TIME)
0.0500175 TSS (Timestep size)
1404.95 SFS (Overall seconds for Simulation)
20954211547 TP (Triangles processed)
0.023581 ASPT (Averaged Seconds per Timestep)
351699 TPST (Triangles Processed in Average per Simulation Timestep)
95.0841 PPST (Partitions Processed in Average per Simulation Timestep)
14.9145 MTPS (Million Triangles per Second)
-14.9145 MTPSPT (Million Triangles per Second per Thread)
10.733 EDMBPT (ElementData Megabyte per Timestep (RW))
455.155 EDMBPS (ElementData Megabyte per Second (RW))
SUM CLIENT SHUTDOWN HINT: 62862.6
SUM CLIENT SHUTDOWN HINT DIV TIME: 0
40203: CHANGING RESSOURCES
40204: CHANGING RESSOURCES
40201: CHANGING RESSOURCES
40202: CHANGING RESSOURCES
40207: CHANGING RESSOURCES

 + Terminating after 1000 timesteps with equal number of triangles -> EXIT
 + Final timestep: 59579

59580 TS (Timesteps)
3022.12 ST (SIMULATION_TIME)
0.0500175 TSS (Timestep size)
1422.13 SFS (Overall seconds for Simulation)
20954211547 TP (Triangles processed)
0.0238693 ASPT (Averaged Seconds per Timestep)
351699 TPST (Triangles Processed in Average per Simulation Timestep)
95.0841 PPST (Partitions Processed in Average per Simulation Timestep)
14.7344 MTPS (Million Triangles per Second)
-14.7344 MTPSPT (Million Triangles per Second per Thread)
10.733 EDMBPT (ElementData Megabyte per Timestep (RW))
449.657 EDMBPS (ElementData Megabyte per Second (RW))
SUM CLIENT SHUTDOWN HINT: 83816.8
SUM CLIENT SHUTDOWN HINT DIV TIME: 0
40201: CHANGING RESSOURCES
40203: CHANGING RESSOURCES
40202: CHANGING RESSOURCES
40204: CHANGING RESSOURCES

 + Terminating after 1000 timesteps with equal number of triangles -> EXIT
 + Final timestep: 59579

59580 TS (Timesteps)
3022.12 ST (SIMULATION_TIME)
0.0500175 TSS (Timestep size)
1428.33 SFS (Overall seconds for Simulation)
20954211547 TP (Triangles processed)
0.0239733 ASPT (Averaged Seconds per Timestep)
351699 TPST (Triangles Processed in Average per Simulation Timestep)
95.0841 PPST (Partitions Processed in Average per Simulation Timestep)
14.6704 MTPS (Million Triangles per Second)
-14.6704 MTPSPT (Million Triangles per Second per Thread)
10.733 EDMBPT (ElementData Megabyte per Timestep (RW))
447.706 EDMBPS (ElementData Megabyte per Second (RW))
SUM CLIENT SHUTDOWN HINT: 104771
SUM CLIENT SHUTDOWN HINT DIV TIME: 0
40203: CHANGING RESSOURCES
40204: CHANGING RESSOURCES
40202: CHANGING RESSOURCES
Waiting for job 40202

 + Terminating after 1000 timesteps with equal number of triangles -> EXIT
 + Final timestep: 59579

59580 TS (Timesteps)
3022.12 ST (SIMULATION_TIME)
0.0500175 TSS (Timestep size)
1446.52 SFS (Overall seconds for Simulation)
20954211547 TP (Triangles processed)
0.0242785 ASPT (Averaged Seconds per Timestep)
351699 TPST (Triangles Processed in Average per Simulation Timestep)
95.0841 PPST (Partitions Processed in Average per Simulation Timestep)
14.486 MTPS (Million Triangles per Second)
-14.486 MTPSPT (Million Triangles per Second per Thread)
10.733 EDMBPT (ElementData Megabyte per Timestep (RW))
442.077 EDMBPS (ElementData Megabyte per Second (RW))
SUM CLIENT SHUTDOWN HINT: 125725
SUM CLIENT SHUTDOWN HINT DIV TIME: 0
40202: CHANGING RESSOURCES
40203: CHANGING RESSOURCES

 + Terminating after 1000 timesteps with equal number of triangles -> EXIT
 + Final timestep: 59579

59580 TS (Timesteps)
3022.12 ST (SIMULATION_TIME)
0.0500175 TSS (Timestep size)
1446.72 SFS (Overall seconds for Simulation)
20954211547 TP (Triangles processed)
0.024282 ASPT (Averaged Seconds per Timestep)
351699 TPST (Triangles Processed in Average per Simulation Timestep)
95.0841 PPST (Partitions Processed in Average per Simulation Timestep)
14.4839 MTPS (Million Triangles per Second)
-14.4839 MTPSPT (Million Triangles per Second per Thread)
10.733 EDMBPT (ElementData Megabyte per Timestep (RW))
442.015 EDMBPS (ElementData Megabyte per Second (RW))
SUM CLIENT SHUTDOWN HINT: 146679
SUM CLIENT SHUTDOWN HINT DIV TIME: 0
40202: CHANGING RESSOURCES

 + Terminating after 1000 timesteps with equal number of triangles -> EXIT
 + Final timestep: 59579

59580 TS (Timesteps)
3022.12 ST (SIMULATION_TIME)
0.0500175 TSS (Timestep size)
1447.76 SFS (Overall seconds for Simulation)
20954211547 TP (Triangles processed)
0.0242995 ASPT (Averaged Seconds per Timestep)
351699 TPST (Triangles Processed in Average per Simulation Timestep)
95.0841 PPST (Partitions Processed in Average per Simulation Timestep)
14.4735 MTPS (Million Triangles per Second)
-14.4735 MTPSPT (Million Triangles per Second per Thread)
10.733 EDMBPT (ElementData Megabyte per Timestep (RW))
441.697 EDMBPS (ElementData Megabyte per Second (RW))
SUM CLIENT SHUTDOWN HINT: 167634
SUM CLIENT SHUTDOWN HINT DIV TIME: 115.805
Waiting for job 40203
Waiting for job 40204
Waiting for job 40205
Waiting for job 40206
Waiting for job 40207
Sun Apr  1 19:35:42 CEST 2012
Seconds: 1448
