THREADS	MTPS	TIMESTEPS	TIMESTEP_SIZE	SECONDS_FOR_SIMULATION	AVERAGE_TRIANGLES	AVERAGE_PARTITIONS
64	69.2402	100	0.000491318	27.5084	1.90469e+07	1158.74
63	68.5579	100	0.000491318	27.7822	1.90469e+07	1158.74
62	68.2567	100	0.000491318	27.9048	1.90469e+07	1158.74
61	68.0649	100	0.000491318	27.9835	1.90469e+07	1158.74
60	68.1535	100	0.000491318	27.9471	1.90469e+07	1158.74
59	66.4947	100	0.000491318	28.6443	1.90469e+07	1158.74
58	66.2721	100	0.000491318	28.7405	1.90469e+07	1158.74
57	65.7892	100	0.000491318	28.9514	1.90469e+07	1158.74
56	65.8333	100	0.000491318	28.932	1.90469e+07	1158.74
55	65.1074	100	0.000491318	29.2546	1.90469e+07	1158.74
54	63.7969	100	0.000491318	29.8556	1.90469e+07	1158.74
53	64.1103	100	0.000491318	29.7096	1.90469e+07	1158.74
52	63.5146	100	0.000491318	29.9883	1.90469e+07	1158.74
51	62.488	100	0.000491318	30.4809	1.90469e+07	1158.74
50	61.3144	100	0.000491318	31.0643	1.90469e+07	1158.74
49	60.3419	100	0.000491318	31.565	1.90469e+07	1158.74
48	59.9942	100	0.000491318	31.7479	1.90469e+07	1158.74
47	59.2269	100	0.000491318	32.1593	1.90469e+07	1158.74
46	57.3785	100	0.000491318	33.1952	1.90469e+07	1158.74
45	57.1098	100	0.000491318	33.3514	1.90469e+07	1158.74
44	56.492	100	0.000491318	33.7161	1.90469e+07	1158.74
43	55.1642	100	0.000491318	34.5277	1.90469e+07	1158.74
42	53.6384	100	0.000491318	35.5098	1.90469e+07	1158.74
41	52.7103	100	0.000491318	36.1351	1.90469e+07	1158.74
40	51.0305	100	0.000491318	37.3246	1.90469e+07	1158.74
39	50.1288	100	0.000491318	37.996	1.90469e+07	1158.74
38	49.9586	100	0.000491318	38.1254	1.90469e+07	1158.74
37	49.2512	100	0.000491318	38.673	1.90469e+07	1158.74
36	48.4276	100	0.000491318	39.3307	1.90469e+07	1158.74
35	46.1827	100	0.000491318	41.2425	1.90469e+07	1158.74
34	45.4773	100	0.000491318	41.8823	1.90469e+07	1158.74
33	43.7552	100	0.000491318	43.5306	1.90469e+07	1158.74
32	42.5034	100	0.000491318	44.8127	1.90469e+07	1158.74
31	42.2383	100	0.000491318	45.0939	1.90469e+07	1158.74
30	41.5797	100	0.000491318	45.8082	1.90469e+07	1158.74
29	40.7634	100	0.000491318	46.7256	1.90469e+07	1158.74
28	40.6045	100	0.000491318	46.9084	1.90469e+07	1158.74
27	39.8206	100	0.000491318	47.8318	1.90469e+07	1158.74
26	39.0323	100	0.000491318	48.7978	1.90469e+07	1158.74
25	38.1979	100	0.000491318	49.8638	1.90469e+07	1158.74
24	37.817	100	0.000491318	50.366	1.90469e+07	1158.74
23	36.8803	100	0.000491318	51.6453	1.90469e+07	1158.74
22	35.9944	100	0.000491318	52.9163	1.90469e+07	1158.74
21	35.1223	100	0.000491318	54.2303	1.90469e+07	1158.74
20	34.2212	100	0.000491318	55.6582	1.90469e+07	1158.74
19	32.9405	100	0.000491318	57.8222	1.90469e+07	1158.74
18	31.553	100	0.000491318	60.3649	1.90469e+07	1158.74
17	30.4519	100	0.000491318	62.5476	1.90469e+07	1158.74
16	29.2106	100	0.000491318	65.2055	1.90469e+07	1158.74
15	27.9883	100	0.000491318	68.0531	1.90469e+07	1158.74
14	26.7556	100	0.000491318	71.1885	1.90469e+07	1158.74
13	25.5901	100	0.000491318	74.4307	1.90469e+07	1158.74
12	24.5766	100	0.000491318	77.5001	1.90469e+07	1158.74
11	22.6525	100	0.000491318	84.083	1.90469e+07	1158.74
10	20.865	100	0.000491318	91.2865	1.90469e+07	1158.74
9	18.909	100	0.000491318	100.73	1.90469e+07	1158.74
8	17.0017	100	0.000491318	112.03	1.90469e+07	1158.74
7	15.6629	100	0.000491318	121.606	1.90469e+07	1158.74
6	14.3621	100	0.000491318	132.62	1.90469e+07	1158.74
5	13.1822	100	0.000491318	144.49	1.90469e+07	1158.74
4	12.151	100	0.000491318	156.752	1.90469e+07	1158.74
3	9.3142	100	0.000491318	204.493	1.90469e+07	1158.74
2	6.45972	100	0.000491318	294.856	1.90469e+07	1158.74
1	3.32781	100	0.000491318	572.355	1.90469e+07	1158.74
