%%MatrixMarket matrix array real general
10 10
1.
0.
0.
0.
0.
0.
0.
0.
0.
0.
.7071067810
-.7500000000
0.
0.
.4330127020
0.
0.
0.
0.
0.
-.1443375673
-.4082482906
.5833333333
0.
.7071067810
-.4330127020
0.
.1863389981
0.
0.
-.1250000000
.2651650429
.2165063510
-.4687500000
.2551551816
-.6250000000
.4149705060
.4841229182
-.2096313728
.8267972847e-1
-.4082482906
-.7216878367
0.
0.
-.2500000000
0.
0.
0.
0.
0.
-.1250000000
-.3535533905
.7938566203
0.
-.6123724358
-.1250000000
0.
-.1613743061
0.
0.
.2453738645
.5103103630e-1
.3750000000
-.7252962758
-.4065863991
-.4330127020e-1
.3187500000
-.5031152948
.2420614591e-1
-.8592329430e-1
.1613743061
.4564354646
.4658474951
0.
.1581138830
.2904737510
0.
.4166666667e-1
0.
0.
-.5590169942e-1
.1185854122
.9682458365e-1
-.6568449682
.2966830521
.6149186937
-.1371681602
.2165063510
.1562500000
.3697549864e-1
-.6614378278e-1
-.2338535867
-.4091585443
-.3047338563
-.8100925875e-1
-.2551260193
-.2495867120
-.3659625275e-1
-.6866878320e-1
-.6250000000e-2
