%%MatrixMarket matrix array real general
10 10
1.414213562
0.
0.
0.
0.
0.
0.
0.
0.
0.
-2.
0.
0.
0.
6.
0.
0.
0.
0.
0.
2.449489743
0.
0.
0.
-19.59591794
0.
0.
24.49489743
0.
0.
-2.828427124
0.
0.
0.
42.42640686
0.
0.
-127.2792206
0.
98.99494934
-3.464101616
6.928203232
0.
0.
3.464101616
0.
0.
0.
0.
0.
4.242640686
-8.485281372
0.
0.
-25.45584412
42.42640686
0.
21.21320343
0.
0.
-4.898979486
9.797958972
0.
0.
63.68673332
-117.5755077
0.
-161.6663230
205.7571384
102.8785692
5.477225575
-32.86335345
32.86335345
0.
-10.95445115
32.86335345
0.
5.477225575
0.
0.
-6.324555320
37.94733192
-37.94733192
0.
56.92099788
-303.5786554
265.6313234
-94.86832980
265.6313234
44.27188724
-7.483314774
89.79977729
-224.4994432
149.6662955
22.44994432
-179.5995546
224.4994432
-22.44994432
89.79977729
7.483314774
