%%MatrixMarket matrix array real general
4 10
1.414213562
1.414213562
1.414213562
1.414213562
-2.
-.341640786
2.341640786
4.
2.449489743
-1.095445115
1.095445115
7.348469229
-2.828427124
1.264911064
-1.264911064
11.31370850
3.464101616
2.506647478
.9574541388
0.
-4.242640686
1.172637045
3.070003641
0.
4.898979486
-2.525628468
4.485220266
0.
5.477225575
2.867912544
.4184228013
0.
-6.324555320
3.095507552
1.964136704
0.
7.483314774
2.835318997
.1580069126
0.
