%%MatrixMarket matrix array real general
4 10
1.414213562
1.414213562
1.414213562
1.414213562
4.
2.341640786
-.341640786
-2.
7.348469229
1.095445115
-1.095445115
2.449489743
11.31370850
-1.264911064
1.264911064
-2.828427124
0.
-.9574541388
-2.506647478
-3.464101616
0.
-3.070003641
-1.172637045
4.242640686
0.
-4.485220266
2.525628468
-4.898979486
0.
.4184228013
2.867912544
5.477225575
0.
1.964136704
3.095507552
-6.324555320
0.
-.1580069126
-2.835318997
-7.483314774
