CPUS: 0 1 2 3 4 5 6 7 8 9 10 11
SPLIT SIZES:  2 4 8 16 32 64 128 256 512 1024 2048 4096 8192
Split Size: 2
Threads	MTPS	SPEEDUP	SPEEDUP_PER	KML_SPEEDUP	KML_SPEEDUP_TO_NONAFFINITY
1	1.77574	1.0000	1.0000	1.0000	-.0012
2	3.15327	1.7757	.8878	1.8238	.0257
3	4.26404	2.4012	.8004	2.6726	.1115
4	5.45477	3.0718	.7679	3.5175	.1436
5	6.66463	3.7531	.7506	4.3075	.1462
6	7.73177	4.3541	.7256	5.0780	.1647
7	8.85395	4.9860	.7122	5.4638	.0944
8	9.84575	5.5445	.6930	5.8630	.0560
9	10.8797	6.1268	.6807	6.2927	.0257
10	11.8102	6.6508	.6650	6.7416	.0123
11	12.7094	7.1572	.6506	7.1640	-.0003
12	13.5229	7.6153	.6346	7.6012	-.0031
Split Size: 4
Threads	MTPS	SPEEDUP	SPEEDUP_PER	KML_SPEEDUP	KML_SPEEDUP_TO_NONAFFINITY
1	1.792	1.0000	1.0000	1.0000	-.0034
2	3.17792	1.7733	.8866	1.8239	.0249
3	4.29779	2.3983	.7994	2.6763	.1121
4	5.50048	3.0694	.7673	3.5099	.1396
5	6.68198	3.7287	.7457	4.3064	.1509
6	7.76907	4.3354	.7225	5.0887	.1697
7	8.92507	4.9805	.7115	5.4639	.0933
8	9.95379	5.5545	.6943	5.8804	.0550
9	10.9761	6.1250	.6805	6.2973	.0246
10	11.899	6.6400	.6640	6.7484	.0128
11	12.8327	7.1611	.6510	7.1915	.0008
12	13.6554	7.6202	.6350	7.6292	-.0022
Split Size: 8
Threads	MTPS	SPEEDUP	SPEEDUP_PER	KML_SPEEDUP	KML_SPEEDUP_TO_NONAFFINITY
1	1.77946	1.0000	1.0000	1.0000	.0051
2	3.19952	1.7980	.8990	1.8290	.0224
3	4.32365	2.4297	.8099	2.6865	.1113
4	5.5098	3.0963	.7740	3.5227	.1435
5	6.74016	3.7877	.7575	4.3226	.1470
6	7.81586	4.3922	.7320	5.1153	.1705
7	8.97971	5.0463	.7209	5.4867	.0928
8	10.0151	5.6281	.7035	5.8998	.0536
9	11.0207	6.1932	.6881	6.3335	.0278
10	11.6079	6.5232	.6523	6.7756	.0439
11	12.844	7.2179	.6561	7.2044	.0032
12	13.7165	7.7082	.6423	7.6655	-.0004
Split Size: 16
Threads	MTPS	SPEEDUP	SPEEDUP_PER	KML_SPEEDUP	KML_SPEEDUP_TO_NONAFFINITY
1	1.78283	1.0000	1.0000	1.0000	.0040
2	3.21165	1.8014	.9007	1.8334	.0218
3	4.34475	2.4369	.8123	2.6946	.1101
4	5.54823	3.1120	.7780	3.5264	.1377
5	6.79387	3.8107	.7621	4.3336	.1418
6	7.86779	4.4130	.7355	5.1205	.1649
7	9.01337	5.0556	.7222	5.4981	.0919
8	10.0351	5.6287	.7035	5.9145	.0550
9	11.0666	6.2073	.6897	6.3489	.0269
10	12.0043	6.7332	.6733	6.7925	.0128
11	12.9923	7.2874	.6624	7.2520	-.0008
12	13.8194	7.7513	.6459	7.6952	-.0032
Split Size: 32
Threads	MTPS	SPEEDUP	SPEEDUP_PER	KML_SPEEDUP	KML_SPEEDUP_TO_NONAFFINITY
1	1.78843	1.0000	1.0000	1.0000	.0031
2	3.22562	1.8036	.9018	1.8322	.0191
3	4.34164	2.4276	.8092	2.6906	.1118
4	5.56445	3.1113	.7778	3.5306	.1383
5	6.79772	3.8009	.7601	4.3332	.1436
6	7.89051	4.4119	.7353	5.1167	.1634
7	9.08564	5.0802	.7257	5.5067	.0874
8	10.0482	5.6184	.7023	5.9099	.0552
9	11.0709	6.1902	.6878	6.3554	.0299
10	12.0791	6.7540	.6754	6.8010	.0101
11	13.0119	7.2755	.6614	7.2422	-.0014
12	13.8557	7.7474	.6456	7.6975	-.0032
Split Size: 64
Threads	MTPS	SPEEDUP	SPEEDUP_PER	KML_SPEEDUP	KML_SPEEDUP_TO_NONAFFINITY
1	1.80715	1.0000	1.0000	1.0000	-.0049
2	3.2273	1.7858	.8929	1.8328	.0212
3	4.37731	2.4222	.8074	2.6937	.1065
4	5.59734	3.0973	.7743	3.5400	.1372
5	6.79416	3.7595	.7519	4.3450	.1499
6	7.9331	4.3898	.7316	5.1396	.1649
7	9.10567	5.0386	.7198	5.5127	.0886
8	10.1405	5.6113	.7014	5.9377	.0529
9	11.2083	6.2021	.6891	6.3748	.0227
10	12.1444	6.7201	.6720	6.8385	.0125
11	13.0494	7.2209	.6564	7.3002	.0059
12	13.9402	7.7139	.6428	7.7092	-.0055
Split Size: 128
Threads	MTPS	SPEEDUP	SPEEDUP_PER	KML_SPEEDUP	KML_SPEEDUP_TO_NONAFFINITY
1	1.88663	1.0000	1.0000	1.0000	.0034
2	3.54138	1.8770	.9385	1.9030	.0172
3	4.90103	2.5977	.8659	2.7939	.0792
4	6.34996	3.3657	.8414	3.6868	.0991
5	7.77399	4.1205	.8241	4.5218	.1011
6	9.06877	4.8068	.8011	5.3589	.1186
7	10.3957	5.5101	.7871	5.8640	.0678
8	11.6005	6.1487	.7685	6.3613	.0381
9	12.8005	6.7848	.7538	6.9020	.0207
10	13.9331	7.3851	.7385	7.4326	.0098
11	15.0505	7.9774	.7252	7.9503	0
12	16.0836	8.5250	.7104	8.4547	-.0048
Split Size: 256
Threads	MTPS	SPEEDUP	SPEEDUP_PER	KML_SPEEDUP	KML_SPEEDUP_TO_NONAFFINITY
1	1.94665	1.0000	1.0000	1.0000	-.0016
2	3.71036	1.9060	.9530	1.9313	.0116
3	5.25579	2.6999	.8999	2.8426	.0511
4	6.81873	3.5028	.8757	3.7587	.0713
5	8.33098	4.2796	.8559	4.6048	.0742
6	9.72242	4.9944	.8324	5.4323	.0859
7	11.1482	5.7268	.8181	6.0064	.0471
8	12.6452	6.4958	.8119	6.6440	.0211
9	13.7385	7.0575	.7841	7.1668	.0138
10	15.0534	7.7329	.7732	7.7798	.0044
11	16.2458	8.3455	.7586	8.3660	.0008
12	17.3328	8.9039	.7419	8.8659	-.0058
Split Size: 512
Threads	MTPS	SPEEDUP	SPEEDUP_PER	KML_SPEEDUP	KML_SPEEDUP_TO_NONAFFINITY
1	1.96942	1.0000	1.0000	1.0000	.0020
2	3.80492	1.9320	.9660	1.9481	.0104
3	5.39623	2.7400	.9133	2.8404	.0388
4	7.06879	3.5892	.8973	3.7824	.0560
5	8.63505	4.3845	.8769	4.6168	.0551
6	10.0551	5.1056	.8509	5.4165	.0631
7	11.3115	5.7435	.8205	5.9351	.0355
8	13.0113	6.6066	.8258	6.7180	.0189
9	13.8852	7.0504	.7833	7.1057	.0099
10	15.1824	7.7090	.7709	7.7271	.0044
11	16.7503	8.5051	.7731	8.4601	-.0032
12	17.3738	8.8217	.7351	8.7844	-.0021
Split Size: 1024
Threads	MTPS	SPEEDUP	SPEEDUP_PER	KML_SPEEDUP	KML_SPEEDUP_TO_NONAFFINITY
1	1.99018	1.0000	1.0000	1.0000	-.0002
2	3.86703	1.9430	.9715	1.9534	.0050
3	5.47557	2.7512	.9170	2.8261	.0269
4	7.19187	3.6136	.9034	3.7698	.0429
5	8.51157	4.2767	.8553	4.4333	.0363
6	9.81285	4.9306	.8217	5.1529	.0448
7	11.3115	5.6836	.8119	5.8415	.0275
8	13.1873	6.6261	.8282	6.7019	.0111
9	13.7421	6.9049	.7672	6.9640	.0082
10	14.4565	7.2639	.7263	7.2764	.0014
11	16.8474	8.4652	.7695	8.4448	-.0026
12	17.2118	8.6483	.7206	8.6222	-.0032
Split Size: 2048
Threads	MTPS	SPEEDUP	SPEEDUP_PER	KML_SPEEDUP	KML_SPEEDUP_TO_NONAFFINITY
1	1.99504	1.0000	1.0000	1.0000	.0017
2	3.86913	1.9393	.9696	1.9434	.0038
3	5.27257	2.6428	.8809	2.6855	.0178
4	7.1392	3.5784	.8946	3.6938	.0340
5	7.80204	3.9107	.7821	4.0002	.0246
6	9.47987	4.7517	.7919	4.9023	.0334
7	10.1804	5.1028	.7289	5.1942	.0196
8	13.1414	6.5870	.8233	6.6576	.0124
9	13.4299	6.7316	.7479	6.7426	.0033
10	13.6749	6.8544	.6854	6.8524	.0014
11	13.7983	6.9163	.6287	6.9053	.0001
12	13.8901	6.9623	.5801	6.9386	-.0016
Split Size: 4096
Threads	MTPS	SPEEDUP	SPEEDUP_PER	KML_SPEEDUP	KML_SPEEDUP_TO_NONAFFINITY
1	2.00667	1.0000	1.0000	1.0000	-.0005
2	3.82192	1.9046	.9523	1.9087	.0015
3	5.13793	2.5604	.8534	2.5881	.0102
4	6.98684	3.4818	.8704	3.5539	.0201
5	7.26811	3.6219	.7243	3.6934	.0191
6	7.71173	3.8430	.6405	3.9281	.0215
7	7.89492	3.9343	.5620	3.9933	.0144
8	12.2018	6.0806	.7600	6.1260	.0069
9	12.1752	6.0673	.6741	6.0922	.0035
10	12.1584	6.0589	.6058	6.0770	.0024
11	12.165	6.0622	.5511	6.0630	-.0004
12	12.078	6.0189	.5015	6.0367	.0023
Split Size: 8192
Threads	MTPS	SPEEDUP	SPEEDUP_PER	KML_SPEEDUP	KML_SPEEDUP_TO_NONAFFINITY
1	2.00602	1.0000	1.0000	1.0000	-.0004
2	3.70653	1.8477	.9238	1.8543	.0031
3	4.09492	2.0413	.6804	2.0706	.0139
4	6.59152	3.2858	.8214	3.3449	.0175
5	6.57196	3.2761	.6552	3.3391	.0188
6	6.58983	3.2850	.5475	3.3455	.0180
7	6.59128	3.2857	.4693	3.3108	.0072
8	6.57988	3.2800	.4100	3.3039	.0068
9	6.57383	3.2770	.3641	3.2824	.0012
10	6.57576	3.2780	.3278	3.2838	.0013
11	6.56383	3.2720	.2974	3.2784	.0015
12	6.55186	3.2660	.2721	3.2691	.0005
