0	0	345164
10.9729	0	367956
20.9351	0	382288
30.897	0	395486
40.859	0	407876
50.798	0	417982
60.6335	0	425780
70.4425	0	432102
80.2486	0	438134
90.9572	0	443848
100.598	0	448154
110.21	0	452106
120.783	0	456328
130.4	0	459668
140.05	0	463170
150.695	0	466648
160.279	0	469786
170.746	0	473046
180.283	0	475860
190.919	0	479164
200.769	0	481778
210.726	0	484688
220.776	0	487668
230.942	0	490562
240.092	0	493330
250.274	0	496656
260.463	0	499734
270.651	0	502658
280.84	0	505650
290.012	0	508526
300.209	0	511440
310.406	0	514562
320.603	0	517516
330.795	0	520760
340.972	0	524288
350.069	0	527516
360.062	0	531528
370.055	0	535404
380.047	0	539514
390.04	0	543612
400.033	0	547446
410.033	0	551494
420.036	0	555376
430.04	0	559520
440.137	0	563716
450.233	0	567836
460.329	0	572362
470.426	0	576158
480.522	0	580226
490.61	0	584590
500.633	0	588256
510.607	0	592496
520.571	0	596550
530.535	0	600822
540.499	0	604858
550.463	0	608576
560.427	0	612976
570.396	0	616786
580.374	0	620920
590.359	-9.09495e-13	625290
600.323	-1.00044e-11	629490
610.285	-1.90994e-11	634088
620.247	-2.81943e-11	638160
630.209	-3.72893e-11	642626
640.171	-4.63842e-11	646814
650.138	-5.54792e-11	651018
660.129	-7.27596e-11	655988
670.158	-9.09495e-11	660226
680.187	-1.17325e-10	664572
690.209	-1.47338e-10	668806
700.22	-1.84627e-10	673300
710.182	-2.31012e-10	677370
720.107	-2.8831e-10	682044
730.015	-3.57431e-10	686702
740.914	-4.52019e-10	691638
750.823	-5.5752e-10	696566
760.758	-6.8485e-10	701270
770.79	-8.41283e-10	706304
780.865	-1.03137e-09	711086
790.916	-1.25965e-09	716426
800.966	-1.53341e-09	721500
810.014	-1.82536e-09	725990
820.074	-2.21007e-09	731592
830.133	-2.66664e-09	736798
840.308	-3.21688e-09	742462
850.508	-3.86899e-09	747660
860.719	-4.64115e-09	753132
870.93	-5.55337e-09	758244
880.12	-6.51198e-09	762442
890.331	-7.75162e-09	767944
900.543	-9.20318e-09	772994
910.754	-1.09003e-08	778634
920.965	-1.28757e-08	784472
930.156	-1.49284e-08	789188
940.367	-1.75542e-08	795040
950.569	-2.05946e-08	800292
960.758	-2.40989e-08	806166
970.947	-2.8137e-08	811886
980.117	-3.2288e-08	817306
990.306	-3.75467e-08	823508
1000.5	-4.35684e-08	829196
1010.68	-5.04515e-08	835230
1020.87	-5.83068e-08	841060
1030.04	-6.63049e-08	846494
1040.23	-7.63466e-08	852206
1050.42	-8.77417e-08	857910
1060.61	-1.00652e-07	863752
1070.8	-1.15251e-07	869460
1080.99	-1.31734e-07	875664
1090.16	-1.48352e-07	881132
1100.35	-1.69009e-07	887214
1110.54	-1.92215e-07	893226
1120.73	-2.18244e-07	899396
1130.91	-2.47395e-07	905302
1140.08	-2.76556e-07	910466
1150.26	-3.12502e-07	915980
1160.43	-3.52558e-07	921770
1170.6	-3.97114e-07	927824
1180.77	-4.46626e-07	934400
1190.94	-5.01571e-07	940360
1200.09	-5.5609e-07	945726
1210.25	-6.22802e-07	951704
1220.42	-6.96544e-07	957672
1230.59	-7.77945e-07	963782
1240.75	-8.67693e-07	969890
1250.92	-9.66508e-07	975668
1260.07	-1.06384e-06	980992
1270.24	-1.18216e-06	986208
1280.44	-1.31231e-06	991728
1290.67	-1.45543e-06	997162
1300.91	-1.61239e-06	1002758
1310.13	-1.76623e-06	1008014
1320.37	-1.95222e-06	1013764
1330.6	-2.15507e-06	1019532
1340.82	-2.37577e-06	1025746
1350	-2.59106e-06	1031152
1360.15	-2.84859e-06	1037038
1370.22	-3.12605e-06	1043192
1380.22	-3.42451e-06	1049122
1390.18	-3.74657e-06	1054542
1400.14	-4.09476e-06	1060088
1410.11	-4.47084e-06	1066382
1420.07	-4.87665e-06	1072274
1430.04	-5.31411e-06	1078460
1441	-5.8343e-06	1085246
1450.96	-6.34495e-06	1091024
1460.92	-6.89387e-06	1096766
1470.89	-7.48339e-06	1101920
1480.85	-8.11591e-06	1107454
1490.81	-8.79399e-06	1112702
1500.78	-9.52035e-06	1118556
1510.74	-1.02978e-05	1124436
1520.7	-1.11293e-05	1130044
1530.66	-1.20178e-05	1135264
1540.62	-1.29666e-05	1139678
1550.59	-1.3979e-05	1143514
1560.55	-1.50584e-05	1147830
1570.51	-1.62083e-05	1152240
1580.47	-1.74324e-05	1156422
1590.44	-1.87345e-05	1160388
1600.39	-2.01175e-05	1165276
1610.33	-2.1584e-05	1169558
1620.21	-2.313e-05	1173536
1630.09	-2.47674e-05	1178006
1640.95	-2.66803e-05	1182652
1650.82	-2.85259e-05	1186828
1660.7	-3.04777e-05	1191362
1670.57	-3.25406e-05	1195792
1680.44	-3.47198e-05	1199826
1690.32	-3.70205e-05	1204258
1700.19	-3.94482e-05	1208640
1710.06	-4.20081e-05	1212882
1720.92	-4.49834e-05	1217374
1730.8	-4.78388e-05	1221558
1740.67	-5.08436e-05	1225860
1750.55	-5.40031e-05	1230200
1760.42	-5.73234e-05	1234196
1770.29	-6.08104e-05	1238072
1780.17	-6.44707e-05	1242110
1790.04	-6.83108e-05	1246088
1800.9	-7.27502e-05	1250373
1810.78	-7.69885e-05	1254731
1820.65	-8.14266e-05	1258837
1830.52	-8.60715e-05	1263299
1840.4	-9.09308e-05	1267407
1850.27	-9.60129e-05	1271515
1860.15	-0.000101327	1275365
1870.02	-0.000106883	1279325
1880.88	-0.000113285	1283827
1890.76	-0.00011938	1287641
1900.63	-0.000125747	1291619
1910.5	-0.000132399	1295455
1920.38	-0.000139346	1299257
1930.25	-0.000146603	1303385
1940.13	-0.000154184	1307123
1950	-0.000162103	1311193
1960.93	-0.000171287	1315463
1970.9	-0.000180056	1319731
1980.86	-0.000189227	1323573
1990.83	-0.000198822	1326447
2000.8	-0.000208752	1330505
2010.82	-0.000218778	1333961
2021.01	-0.000229083	1337543
2030.22	-0.000238556	1340857
2040.46	-0.000249347	1343871
2050.74	-0.000260549	1347437
2060.04	-0.000271057	1350657
2070.21	-0.00028305	1353987
2080.54	-0.00029585	1357841
2090.9	-0.000309383	1361545
2100.29	-0.000322264	1365129
2110.73	-0.000337273	1369023
2120.12	-0.000351403	1371891
2130.54	-0.000367813	1375403
2140.97	-0.000385051	1379035
2150.33	-0.00040131	1382013
2160.69	-0.000420067	1385089
2171	-0.000439	1388687
2180.29	-0.000456392	1391773
2190.62	-0.000476268	1394647
2200.93	-0.000496864	1397799
2210.2	-0.000516242	1400358
2220.5	-0.000538917	1403471
2230.81	-0.000563018	1406217
2240.08	-0.000586096	1408569
2250.39	-0.00061345	1411229
2260.7	-0.000669989	1413935
2271	-0.000728981	1417063
2280.29	-0.000783794	1419807
2290.62	-0.00084629	1422017
2300.92	-0.000909491	1424739
2310.21	-0.000967291	1426483
2320.54	-0.00103313	1429075
2330.89	-0.00110161	1431635
2340.22	-0.00116721	1434223
2350.53	-0.00124525	1436655
2360.84	-0.00132941	1439291
2370.18	-0.00141124	1441533
2380.5	-0.00150836	1444236
2390.83	-0.00160029	1446702
2400.16	-0.00160136	1448394
2410.54	-0.00163721	1450840
2421.01	-0.00169876	1452638
2430.38	-0.00176741	1454932
2440.7	-0.00185953	1458106
2451.01	-0.00196971	1461297
2460.29	-0.00208411	1463691
2470.61	-0.00222787	1466289
2480.96	-0.00238861	1469127
2490.23	-0.00254605	1472001
2500.54	-0.00273432	1475301
2510.84	-0.00293442	1478435
2520.13	-0.00295804	1480863
2530.54	-0.00301893	1483691
2540.85	-0.00315225	1487345
2550.13	-0.00331888	1490373
2560.46	-0.00354352	1494113
2570.8	-0.00380026	1498213
2580.09	-0.00405485	1501465
2590.41	-0.00435934	1505561
2600.72	-0.00467006	1509182
2611.02	-0.00501032	1513054
2620.29	-0.00524917	1515834
2630.62	-0.00532867	1519391
2640.95	-0.00562247	1523357
2650.25	-0.00599948	1526575
2660.61	-0.00649925	1530037
2670.93	-0.00704066	1533937
2680.22	-0.00752434	1536761
2690.55	-0.00810578	1540199
2700.88	-0.00874122	1543689
2710.17	-0.00935954	1546639
2720.52	-0.0100987	1549780
2730.89	-0.0108905	1553054
2740.21	-0.0120276	1556054
2750.56	-0.0139389	1558836
2760.97	-0.0153447	1562052
2770.29	-0.0163742	1565046
2780.63	-0.0174313	1567824
2790.98	-0.0184816	1570104
2800.3	-0.0194386	1572866
2810.64	-0.0205198	1575384
2821.01	-0.0216387	1578538
2830.3	-0.022676	1581936
2840.62	-0.023863	1585264
2850.97	-0.025074	1588661
2860.29	-0.0261641	1590905
2870.66	-0.0273562	1594279
2880.97	-0.0285095	1598117
2890.26	-0.0295169	1601235
2900.58	-0.0305987	1605415
2910.89	-0.0316359	1609029
2920.16	-0.0325292	1612505
2930.48	-0.0334725	1616671
2940.82	-0.0343578	1621002
2950.11	-0.035095	1625522
2960.41	-0.0358402	1629429
2970.72	-0.0364992	1633737
2981.02	-0.0370678	1637121
2990.32	-0.0374981	1640875
3000.65	-0.0378866	1644777
3010.97	-0.0380748	1649477
3020.25	-0.0382436	1652580
3030.59	-0.0383146	1656366
3040.96	-0.0382653	1660178
3050.29	-0.0380075	1664392
3060.6	-0.0378729	1668758
3070.9	-0.0376444	1672252
3080.2	-0.0373523	1675500
3090.73	-0.03693	1679426
3100.22	-0.0364593	1683396
3110.76	-0.035818	1687844
3120.25	-0.0351201	1691191
3130.8	-0.0336998	1695059
3140.36	-0.0320891	1698679
3151.05	-0.0304293	1702433
3160.7	-0.0288628	1706231
3170.38	-0.0270558	1709735
3180.06	-0.0248876	1713251
3190.77	-0.0220603	1717204
3200.36	-0.0203002	1721140
3211.02	-0.0165144	1724746
3220.61	-0.0121547	1728351
3230.19	-0.00771978	1731423
3240.82	-0.00221157	1735303
3250.39	0.00319479	1738489
3261.01	0.0120975	1741994
3270.57	0.0214861	1745034
3280.12	0.0311134	1747843
3290.7	0.0429351	1751073
3300.21	0.0578222	1754046
3310.8	0.0773559	1757081
3320.37	0.0955521	1760237
3331.01	0.117503	1763534
3340.58	0.138504	1766114
3350.16	0.169499	1769320
3360.82	0.214776	1772734
3370.43	0.254298	1775562
3380.06	0.300623	1778796
3390.57	0.374761	1782118
3400.23	0.437674	1785640
3410.96	0.504829	1789296
3420.61	0.562684	1792449
3430.13	0.61724	1795728
3440.65	0.673332	1799120
3450.06	0.72017	1801939
3460.42	0.766662	1805231
3470.76	0.80779	1808264
3480.05	0.840054	1811155
3490.37	0.870462	1814471
3500.69	0.895254	1817991
3511.01	0.914452	1821794
3520.3	0.927839	1825116
3530.62	0.940271	1828775
3540.94	0.945798	1832430
3550.23	0.949285	1835488
3560.55	0.94975	1838874
3570.88	0.951728	1842618
3580.17	0.951993	1845928
3590.54	0.951329	1849848
3600.98	0.94975	1853490
3610.41	0.947681	1856948
3620.9	0.944424	1860483
3630.34	0.940728	1863547
3640.82	0.935574	1866853
3650.21	0.929884	1870077
3660.6	0.922284	1873457
3670.98	0.913258	1876713
3680.33	0.903794	1879987
3690.7	0.891708	1883709
3700.03	0.879402	1887095
3710.39	0.864167	1890456
3720.76	0.847325	1894027
3730.04	0.830902	1897369
3740.3	0.811337	1901187
3750.52	0.790401	1904637
3760.71	0.76811	1908928
3770.8	0.745126	1912386
3780.85	0.710637	1916452
3790.89	0.665946	1919981
3800.93	0.625418	1923997
3810.97	0.581957	1927961
3820.01	0.543773	1931325
3830.07	0.499966	1935405
3840.16	0.452825	1939150
3850.25	0.383981	1943240
3860.36	0.315522	1947201
3870.42	0.247773	1951288
3880.4	0.179476	1955117
3890.38	0.11203	1959017
3900.35	0.0450268	1962703
3910.3	-0.0206232	1966235
3920.23	-0.0843952	1969637
3930.06	-0.145591	1973129
3940.87	-0.209527	1976348
3950.7	-0.264415	1979497
3960.52	-0.315521	1982666
3970.35	-0.362681	1985882
3980.19	-0.40566	1989220
3990.04	-0.444407	1992213
4000.89	-0.482171	1995269
4010.69	-0.51203	1998603
4020.43	-0.538147	2001836
4030.16	-0.561114	2005077
4040.87	-0.583437	2008519
4050.6	-0.60169	2011501
4060.34	-0.618573	2014652
4070.07	-0.634616	2017962
4080.82	-0.651807	2020872
4090.6	-0.667351	2024214
4100.35	-0.682956	2027268
4110.09	-0.698827	2030440
4120.81	-0.716627	2033833
4130.56	-0.733048	2036471
4140.3	-0.749563	2039959
4150.05	-0.765959	2043145
4160.83	-0.783663	2046962
4170.67	-0.799137	2050622
4180.52	-0.813664	2054366
4190.39	-0.827046	2058272
4200.28	-0.839042	2062487
4210.37	-0.849603	2066325
4220.48	-0.85812	2070443
4230.59	-0.863404	2074667
4240.7	-0.865112	2078576
4250.81	-0.864626	2082657
4260.89	-0.861548	2086244
4270.95	-0.855846	2090687
4280.01	-0.848164	2094196
4290.07	-0.836515	2098168
4300.13	-0.821342	2102532
4310.19	-0.80247	2106687
4320.22	-0.779834	2110559
4330.19	-0.753457	2114021
4340.16	-0.723106	2117976
4350.13	-0.688678	2122496
4360.1	-0.649903	2126597
4370.07	-0.611625	2130444
4380.04	-0.540882	2134639
4390.01	-0.472638	2138287
4400.98	-0.400413	2142379
4410.95	-0.336008	2145900
4420.92	-0.272647	2149489
4430.89	-0.21077	2152678
4440.86	-0.151126	2156438
4450.84	-0.0941138	2159533
4460.81	-0.0400866	2162998
4470.78	0.0107938	2166804
4480.79	0.0585895	2169922
4490.81	0.102981	2173443
4500.8	0.143638	2177109
4510.72	0.180113	2180558
4520.61	0.212139	2184350
4530.47	0.239207	2187539
4540.31	0.261037	2191293
4550.15	0.277689	2194237
4560.98	0.293211	2197341
4570.82	0.298615	2200302
4580.66	0.302393	2203046
4590.5	0.302864	2205786
4600.34	0.30101	2208205
4610.18	0.297772	2210334
4620.04	0.293044	2212811
4630.9	0.286004	2215777
4640.78	0.278423	2218286
4650.66	0.269953	2221686
4660.56	0.260828	2224064
4670.45	0.251501	2226497
4680.36	0.242235	2229251
4690.35	0.233217	2232103
4700.34	0.224727	2235053
4710.33	0.216862	2237401
4720.26	0.209619	2239743
4730.19	0.202919	2242267
4740.12	0.196745	2244471
4750.06	0.191078	2247538
4760.98	0.185349	2250788
4770.91	0.180442	2253318
4780.85	0.175658	2255665
4790.78	0.170881	2257850
4800.71	0.166049	2260498
4810.64	0.161132	2263804
4820.61	0.156073	2266585
4830.6	0.150847	2269154
4840.59	0.145445	2272263
4850.58	0.139849	2274629
4860.56	0.134041	2277595
4870.55	0.128014	2279847
4880.54	0.121766	2281749
4890.53	0.115303	2284850
4900.52	0.108631	2287371
4910.51	0.101753	2289592
4920.5	0.094669	2292177
4930.51	0.0873547	2294746
4940.55	0.0797853	2297594
4950.59	0.0719573	2300797
4960.63	0.0638381	2304168
4970.67	0.0553921	2307384
4980.7	0.0465974	2310689
4990.74	0.0374661	2314134
5000.81	0.0280193	2317266
5010.94	0.0182864	2320188
5020.06	0.00939379	2323255
5030.19	-0.000564583	2326613
5040.33	-0.0105248	2330233
5050.47	-0.0204003	2333116
5060.63	-0.0300948	2336655
5070.79	-0.0394812	2339529
5080	-0.0476196	2342196
5090.28	-0.0561675	2345595
5100.65	-0.0640944	2348226
5111.03	-0.0712263	2351878
5120.39	-0.0768966	2354962
5130.8	-0.0823487	2358532
5140.2	-0.0854131	2361737
5150.71	-0.0873215	2365104
5160.2	-0.0876384	2368448
5170.74	-0.0882735	2371835
5180.25	-0.0886388	2374702
5190.87	-0.088484	2378262
5200.46	-0.0877846	2381226
5210.1	-0.0867665	2384662
5220.65	-0.0852768	2388107
5230.07	-0.0836362	2390469
5240.44	-0.0815705	2393029
5250.86	-0.0792781	2395761
5260.26	-0.0770852	2398149
5270.56	-0.0746287	2400302
5280.87	-0.0722002	2403202
5290.14	-0.070104	2405534
5300.47	-0.0679296	2408051
5310.84	-0.0659601	2410531
5320.21	-0.0643972	2412361
5330.59	-0.0629392	2414430
5340.1	-0.0618742	2416547
5350.75	-0.0609952	2419071
5360.37	-0.0604776	2421153
5370.89	-0.0601931	2423357
5380.36	-0.0601648	2425542
5390.9	-0.060358	2428028
5400.57	-0.0607147	2430787
5410.05	-0.0612021	2432658
5420.84	-0.0618932	2435347
5430.97	-0.0626547	2437567
5440.33	-0.0634374	2439984
5450.69	-0.0643718	2442815
5460.25	-0.0652747	2445184
5470.95	-0.0663101	2448211
5480.37	-0.0672286	2450914
5490.8	-0.0682352	2454398
5500.18	-0.0691166	2457785
5510.61	-0.0700523	2460193
5520.24	-0.0708659	2462194
5530.23	-0.0716495	2464451
5540.06	-0.0723576	2466670
5550.52	-0.0730407	2468548
5560.97	-0.0736501	2470620
5570.37	-0.0741394	2471930
5580.05	-0.0745874	2473696
5590.4	-0.0750082	2475248
5600.01	-0.0753521	2476653
5610.13	-0.0756742	2478591
5620.9	-0.0759844	2481094
5631.02	-0.0762583	2483463
5641.11	-0.0765282	2485349
5650.13	-0.0767771	2487325
5660.27	-0.0770775	2489335
5670.35	-0.0774089	2491640
5680.36	-0.0777802	2493837
5690.9	-0.0782283	2497055
5700.39	-0.07869	2499589
5710.36	-0.0792426	2501878
5720.5	-0.0798841	2504633
5730.68	-0.0806167	2507555
5740.28	-0.0813952	2510477
5750.77	-0.0823505	2512715
5760.22	-0.0833076	2515095
5770.74	-0.0844865	2517590
5780.12	-0.0856391	2520278
5790.54	-0.0870358	2523753
5800.99	-0.0885566	2526111
5810.41	-0.0900293	2528047
5820.89	-0.0917799	2529879
5830.32	-0.0934502	2531945
5840.7	-0.0953876	2535405
5850.08	-0.09722	2537755
5860.52	-0.099343	2540715
5870.97	-0.101541	2543658
5880.36	-0.103566	2546791
5890.79	-0.105861	2549714
5900.18	-0.107953	2553306
5910.61	-0.110282	2556685
5920.97	-0.112585	2560441
5930.29	-0.11463	2563468
5940.75	-0.116867	2566511
5950.18	-0.118815	2568982
5960.72	-0.120886	2572059
5970.14	-0.122623	2575019
5980.62	-0.124402	2578351
5990.05	-0.125847	2581334
6000.59	-0.12727	2584463
6010.11	-0.128376	2587913
6020.7	-0.129379	2591627
6030.19	-0.130033	2595630
6040.72	-0.129981	2599411
6050.22	-0.129975	2602412
6061.07	-0.129623	2606128
6070.58	-0.129055	2609553
6081	-0.128149	2613089
6090.55	-0.127054	2616849
6100.12	-0.125721	2620765
6110.56	-0.123986	2625188
6121.01	-0.121809	2629339
6130.49	-0.119653	2633888
6140.2	-0.117379	2637850
6150.08	-0.114975	2641794
6160.72	-0.112227	2646051
6170.29	-0.109486	2650634
6180.91	-0.10801	2655695
6190.38	-0.104539	2660265
6200.96	-0.0997898	2665111
6210.42	-0.0953643	2670455
6220.8	-0.0897288	2674419
6230.52	-0.0841958	2678153
6240.23	-0.0788092	2682020
6250.81	-0.0730377	2686232
6260.38	-0.0677833	2690069
6270.95	-0.0617968	2693955
6280.44	-0.0562391	2697539
6290.94	-0.0499754	2701714
6300.38	-0.0443392	2705286
6310.92	-0.0380882	2708252
6320.38	-0.0324915	2710717
6330.84	-0.0262715	2713648
6340.25	-0.0206431	2716314
6350.72	-0.0143625	2718897
6360.1	-0.00876628	2722363
6370.53	-0.00260395	2724670
6380.98	0.00349918	2728191
6390.39	0.00893792	2730887
6401.02	0.0150158	2734871
6410.53	0.0203756	2738790
6420.26	0.0257611	2743020
6430.78	0.0314435	2747865
6440.23	0.0364195	2752663
6450.82	0.0418451	2758114
6460.3	0.0465673	2763332
6470.75	0.0516165	2767674
6480.14	0.0560167	2771758
6490.56	0.0607303	2775425
6500.91	0.0652374	2779701
6510.32	0.0691786	2783330
6520.94	0.0734526	2787978
6530.52	0.0771504	2792225
6540.95	0.0809936	2797038
6550.28	0.0842728	2800708
6560.6	0.0877234	2804502
6571.05	0.0910209	2809443
6580.51	0.0938436	2812848
6590.96	0.0967787	2817310
6600.3	0.0992436	2820799
6610.73	0.101815	2824899
6620.26	0.104002	2829079
6630.84	0.106247	2833511
6640.37	0.108108	2837649
6651.01	0.110032	2842433
6660.69	0.111502	2846566
6670.14	0.112982	2850248
6680.62	0.114466	2854696
6690.04	0.115592	2858407
6700.46	0.116482	2862477
6710.89	0.117425	2866586
6720.32	0.118216	2870393
6730.84	0.118935	2874704
6740.25	0.119422	2877389
6750.76	0.119805	2881566
6760.31	0.12002	2885455
6770.97	0.120129	2889521
6780.48	0.120111	2892905
6790.95	0.119954	2896643
6800.33	0.11968	2900087
6810.75	0.119215	2903313
6820.15	0.118645	2906897
6830.71	0.117835	2910788
6840.13	0.116963	2914381
6850.63	0.115828	2918708
6860.1	0.114649	2922828
6870.57	0.113161	2927951
6881.04	0.111467	2932704
6890.47	0.109758	2937298
6900.94	0.107653	2942881
6910.4	0.105565	2946877
6920.9	0.10304	2951475
6930.38	0.100572	2955407
6941.04	0.0975833	2959597
6950.52	0.0947354	2963905
6961.02	0.0913782	2968606
6970.5	0.0881797	2973006
6980.03	0.0848054	2976179
6990.62	0.0808821	2980318
7000.23	0.0771714	2985262
7010.71	0.0729677	2990370
7020.14	0.0690491	2995087
7030.64	0.064541	3000854
7040.11	0.0603479	3004681
7050.64	0.0555494	3008978
7060.17	0.0510781	3013243
7070.77	0.0459837	3017624
7080.37	0.0412586	3021420
7091.03	0.0359049	3025424
7100.78	0.0309287	3029886
7110.41	0.0259572	3034208
7120.42	0.0207558	3038285
7130.43	0.0155524	3042651
7140.41	0.0103975	3046968
7150.11	0.00545536	3050720
7160.64	0.000195436	3055128
7170.12	-0.00441079	3058616
7180.71	-0.00937423	3062708
7190.47	-0.013764	3066581
7200.21	-0.0179335	3070819
7211.07	-0.0223134	3075765
7220.78	-0.0259741	3079729
7230.43	-0.02936	3083742
7240.09	-0.0324766	3087778
7250.59	-0.0355407	3091886
7261.01	-0.0382222	3095935
7270.8	-0.0403985	3099433
7280.38	-0.0421849	3103174
7290.69	-0.0437315	3106698
7300.08	-0.0448129	3110241
7310.61	-0.0456894	3114857
7320.09	-0.0462079	3118370
7330.62	-0.0465209	3122492
7340.98	-0.0465895	3127441
7350.25	-0.0464675	3131033
7360.55	-0.0461377	3135522
7370.86	-0.0456038	3139487
7380.14	-0.044944	3142846
7390.45	-0.043999	3146133
7400.86	-0.0427985	3148950
7410.35	-0.0414629	3152290
7420.7	-0.0397225	3155388
7431.01	-0.0376918	3159105
7440.28	-0.0356198	3162218
7450.72	-0.0330442	3165607
7460.03	-0.0305574	3169436
7470.36	-0.0276077	3173084
7480.69	-0.0244765	3177400
7491.01	-0.0211782	3181311
7500.42	-0.0180218	3184322
7510.31	-0.0145326	3188198
7520.95	-0.0105701	3192416
7530.3	-0.0069002	3196808
7540.61	-0.00272144	3201259
7550.92	0.00172309	3204811
7560.66	0.00649696	3208872
7570.52	0.0139909	3212644
7580.22	0.0194455	3215431
7591.01	0.0246255	3218989
7600.79	0.0290922	3221594
7610.45	0.0336592	3224503
7620.08	0.037753	3227633
7630.77	0.0415975	3230576
7640.38	0.0447309	3234002
7650.71	0.0479338	3236893
7660.05	0.0507479	3239534
7670.86	0.0536653	3242736
7680.62	0.0558234	3244591
7690.57	0.0576267	3247624
7700.65	0.0600767	3250286
7710.76	0.0613672	3252861
7720.87	0.0623232	3255650
7730.98	0.0626154	3257857
7741.1	0.0622666	3260326
7750.09	0.0615493	3262318
7760.2	0.0613814	3264854
7770.33	0.0608826	3268228
7780.45	0.0599243	3270893
7790.56	0.0588324	3273907
7800.68	0.0575961	3276624
7810.79	0.0561996	3279737
7820.91	0.0546583	3282257
7831.02	0.0529846	3285779
7841.04	0.0512114	3288699
7850.97	0.0493476	3291954
7860.88	0.047381	3295644
7870.78	0.0453225	3298973
7880.68	0.0431945	3302252
7890.58	0.0410189	3306011
7900.49	0.0388102	3309416
7910.39	0.0365797	3313532
7920.29	0.0343409	3317461
7930.2	0.03211	3321848
7940.1	0.0299048	3325959
7950.01	0.0277423	3329865
7961.01	0.025409	3334491
7970.91	0.0233874	3338073
7980.82	0.0214541	3341534
7990.72	0.0196211	3344902
8000.52	0.0179162	3349406
8010.4	0.0163157	3353484
8021.06	0.0147294	3356868
8030.68	0.0134267	3360457
8040.27	0.0122607	3363519
8051.03	0.0111251	3367316
8060.7	0.010247	3370343
8070.19	0.00948769	3373512
8080.64	0.00876177	3377235
8090.03	0.0082245	3379892
8100.44	0.00776876	3383452
8110.89	0.007452	3387279
8120.44	0.00727364	3390216
8130.95	0.00719374	3395187
8140.22	0.00722279	3398610
8150.52	0.00735936	3402961
8160.82	0.00759908	3407271
8170.13	0.00790228	3411099
8180.65	0.00833817	3415041
8190.26	0.00880977	3418365
8200.76	0.00938943	3422043
8210.23	0.00995515	3424803
8220.76	0.0106175	3427841
8230.29	0.0112364	3431017
8240.88	0.0119296	3434428
8250.39	0.0125458	3437152
8260.06	0.0131525	3440851
8270.57	0.0137755	3444804
8280.03	0.0142907	3448678
8290.63	0.0148037	3452981
8300.22	0.0152015	3456942
8310.67	0.0155568	3461814
8320.16	0.0157935	3465895
8330.79	0.0159482	3470277
8340.31	0.0159878	3474818
8350.84	0.0159167	3478710
8360.22	0.0157408	3482357
8370.64	0.0154122	3485389
8380.03	0.0149963	3487664
8390.45	0.0144054	3489972
8400.87	0.0136847	3492417
8410.49	0.0129107	3494578
8420.99	0.0119498	3497224
8430.46	0.0109845	3499395
8440.99	0.0098034	3501715
8450.41	0.00864467	3504238
8460.87	0.0072377	3506574
8470.28	0.00585318	3509296
8480.74	0.00417172	3511362
8490.21	0.00251397	3513110
8500.84	0.000503836	3515215
8510.44	-0.00144821	3517409
8520.87	-0.00374357	3519908
8530.51	-0.00608895	3522066
8540.51	-0.00878205	3524152
8550.5	-0.0117455	3526796
8560	-0.0147928	3529452
8570.48	-0.018374	3531207
8580.99	-0.0221733	3533200
8590.77	-0.025874	3534937
8600.31	-0.029608	3536645
8610.81	-0.0338252	3538812
8620.25	-0.0377227	3541122
8630.75	-0.0421892	3544077
8640.21	-0.0463337	3546934
8650.75	-0.0510688	3549781
8660.26	-0.0554348	3552711
8670.87	-0.0604188	3553977
8680.39	-0.0649798	3556457
8690.86	-0.0700682	3558085
8700.28	-0.0746724	3560013
8710.79	-0.0797902	3562577
8720.25	-0.0843536	3564259
8730.77	-0.0893473	3566336
8740.25	-0.0937499	3567946
8750.81	-0.0985149	3570829
8760.34	-0.10267	3573555
8770.95	-0.107117	3575686
8780.45	-0.110925	3578134
8790.92	-0.114929	3580783
8800.45	-0.118386	3582254
8810.11	-0.121707	3583630
8820.79	-0.125151	3584946
8830.34	-0.128017	3586678
8840.7	-0.130884	3588267
8850.01	-0.133231	3590056
8860.54	-0.135611	3591523
8870.03	-0.137491	3592983
8880.53	-0.139265	3594177
8890.88	-0.14069	3595752
8900.17	-0.141694	3598158
8910.48	-0.142509	3599615
8920.83	-0.143014	3601913
8930.34	-0.143203	3604406
8940.9	-0.143125	3606275
8950.2	-0.142827	3609224
8960.5	-0.142244	3610709
8970.82	-0.141403	3611985
8980.2	-0.140439	3613155
8990.7	-0.13915	3614594
9000.14	-0.137802	3615616
9010.61	-0.136101	3617724
9020.98	-0.134207	3620264
9030.27	-0.132346	3621253
9040.59	-0.130109	3623403
9050.93	-0.1277	3624910
9060.43	-0.125349	3627515
9070.89	-0.122612	3630812
9080.27	-0.120033	3633208
9090.62	-0.117058	3636612
9100.01	-0.114254	3639554
9110.42	-0.111038	3642235
9120.73	-0.107752	3644716
9131.03	-0.104377	3648880
9140.4	-0.101242	3651905
9150.92	-0.0976619	3656454
9160.38	-0.0944063	3659706
9170.83	-0.0907658	3664113
9180.18	-0.0874904	3667932
9190.57	-0.0838134	3672696
9200.96	-0.0800322	3677631
9210.31	-0.0765214	3681127
9220.71	-0.0725269	3685624
9230.01	-0.0689334	3688540
9240.35	-0.0649697	3691453
9250.7	-0.0610576	3694662
9260.14	-0.0575444	3697489
9270.59	-0.0537182	3701858
9281.02	-0.0499715	3705828
9290.4	-0.0466582	3709061
9300.86	-0.043032	3711912
9310.23	-0.0398425	3714188
9320.67	-0.0363498	3718225
9331.03	-0.0329563	3720277
9340.44	-0.0299509	3723096
9350.84	-0.026731	3725814
9360.23	-0.0239247	3728084
9370.74	-0.0209016	3731988
9380.13	-0.0183091	3734785
9390.54	-0.0155527	3736956
9400.88	-0.0129401	3740233
9410.17	-0.0107135	3742945
9420.54	-0.00837219	3745726
9430.88	-0.00621249	3749418
9440.16	-0.00444533	3752293
9450.5	-0.00268179	3756232
9460.83	-0.00119188	3759244
9470.18	3.71779e-05	3761850
9480.58	0.00133852	3763259
9490.96	0.00229314	3765540
9500.28	0.00287828	3767771
9510.7	0.00351748	3769228
9520.1	0.00374807	3771248
9530.4	0.00386121	3773888
9540.81	0.00388822	3777094
9550.1	0.0037921	3778705
9560.43	0.00358863	3780173
9570.85	0.00328445	3782196
9580.22	0.00291636	3784134
9590.57	0.00240725	3785076
9600.93	0.00179669	3785839
9610.38	0.00115512	3785597
9620.85	0.000352972	3786431
9630.28	-0.000446235	3787214
9640.74	-0.00140504	3787301
9650.17	-0.00232649	3787842
9660.6	-0.00341107	3788502
9671.03	-0.00454074	3789902
9680.47	-0.00555876	3791067
9691.03	-0.00676623	3790346
9700.55	-0.00796271	3790437
9710.88	-0.00940502	3790384
9720.17	-0.0108051	3791307
9730.53	-0.0125119	3792188
9740.94	-0.0142796	3792597
9750.33	-0.0158035	3793486
9760.84	-0.0173531	3793118
9770.32	-0.0186558	3793709
9780.77	-0.0200217	3794049
9790.13	-0.0211784	3794496
9800.46	-0.0223521	3795471
9810.78	-0.0234612	3796264
9820.07	-0.0244505	3796154
9830.4	-0.0255152	3796666
9840.75	-0.0264755	3796153
9850.13	-0.0272083	3795106
9860.59	-0.0278563	3793676
9870.98	-0.0283319	3793487
9880.33	-0.028629	3792866
9890.65	-0.0288292	3793090
9900.95	-0.0289124	3793287
9910.23	-0.0288961	3794470
9920.55	-0.0287729	3794749
9931.01	-0.0285228	3795754
9940.4	-0.0281705	3796929
9950.91	-0.0276354	3798114
9960.34	-0.0270354	3799406
9970.78	-0.0262478	3802008
9980.08	-0.0254452	3803954
9990.41	-0.0245015	3807362
10000.7	-0.0234156	3810200
10010.1	-0.0223422	3812621
10020.4	-0.0210709	3814682
10030.9	-0.0197178	3817170
10040.3	-0.0184375	3819620
10050.7	-0.0169612	3822488
10060	-0.0155984	3824737
10070.4	-0.0140401	3827688
10080.9	-0.0124601	3829520
10090.2	-0.0110287	3831730
10100.6	-0.00944854	3833959
10110.9	-0.00786839	3836328
10120.1	-0.0064496	3837454
10130.4	-0.00488397	3838425
10140.8	-0.00333919	3839935
10150	-0.00197564	3842239
10160.4	-0.000496064	3845056
10170.7	0.000942975	3846675
10180.1	0.00219798	3848395
10190.5	0.00354887	3850223
10201	0.00484134	3852998
10210.4	0.00595473	3856205
10220.8	0.00712534	3860827
10230.2	0.00812032	3864467
10240.7	0.00916153	3869242
10250.1	0.0100378	3872189
10260.7	0.0109434	3875707
10270.1	0.0116903	3878986
10280.6	0.0124487	3881769
10290.1	0.0130657	3884352
10300.6	0.0136752	3886468
10310.1	0.0141591	3888071
10320.6	0.0146262	3889784
10330.1	0.0149824	3891510
10340.6	0.0153107	3893965
10350.1	0.015548	3896183
10360.6	0.0157505	3898369
10370.1	0.0158795	3901098
10380.7	0.0159657	3904599
10390.1	0.0159934	3907283
10400.6	0.0159713	3911378
10411	0.0158945	3913917
10420.4	0.0157788	3916486
10430.9	0.0155969	3919915
10440.4	0.0153835	3922192
10450.9	0.0150911	3924851
10460.4	0.0147774	3927200
10470.8	0.0143761	3931198
10480.2	0.0139661	3933529
10490.5	0.013453	3936240
10500.8	0.0128796	3939652
10510.1	0.0123101	3942218
10520.5	0.0116174	3946336
10530.9	0.0108548	3948630
10540.3	0.0101055	3952107
10550.7	0.00921323	3955889
10560.1	0.00834937	3959573
10570.4	0.00732971	3963785
10580.7	0.00624358	3966989
10590	0.00520535	3969979
10600.3	0.00398317	3973124
10610.7	0.00267578	3976081
10620.1	0.00143832	3978172
10630.6	-7.7776e-06	3981179
10640.1	-0.00137411	3983286
10650.4	-0.00292863	3986222
10660.7	-0.00454147	3989920
10670	-0.00604182	3991715
10680.3	-0.00775918	3994628
10690.8	-0.00954998	3998387
10700.1	-0.0111728	4001056
10710.4	-0.0130109	4004203
10720.7	-0.0148793	4007773
10731	-0.0167725	4011087
10740.3	-0.0184943	4013500
10750.7	-0.0204135	4017129
10761	-0.0223293	4019999
10770.5	-0.0240619	4022396
10781	-0.0259758	4025065
10790.4	-0.0276642	4028568
10801	-0.0295006	4031350
10810.5	-0.0311075	4033592
10820.9	-0.032815	4036689
10830.2	-0.0342746	4038543
10840.7	-0.0358304	4041815
10851	-0.0372805	4044096
10860.3	-0.0385005	4045452
10870.7	-0.0397591	4047124
10880.2	-0.040807	4049179
10890.8	-0.0418532	4051262
10900.2	-0.0426792	4054094
10910.6	-0.0434704	4056482
10920.9	-0.0441285	4059604
10930.2	-0.0446118	4062013
10940.5	-0.0450294	4065142
10951	-0.045324	4068085
10960.4	-0.0454829	4070311
10970.8	-0.0455449	4072256
10980.3	-0.0455016	4074880
10990.8	-0.0453487	4078463
11000.2	-0.0451207	4081135
11010.8	-0.0447744	4084092
11020.2	-0.0443889	4086543
11030.5	-0.0438889	4089405
11040.9	-0.0433182	4091965
11050.2	-0.042751	4092155
11060.5	-0.0420686	4094159
11070.9	-0.0413348	4096175
11080.3	-0.0406341	4098210
11090.8	-0.0398292	4099963
11100.1	-0.0390903	4101815
11110.5	-0.0382545	4102706
11120.9	-0.0374097	4104552
11130.3	-0.0366441	4105988
11140.7	-0.0357957	4107816
11150.2	-0.035036	4108257
11160.7	-0.0342027	4109936
11170.1	-0.0334706	4110626
11180.5	-0.0326787	4112230
11190.9	-0.0319108	4113868
11200.3	-0.0312388	4115723
11211	-0.0305056	4117946
11220.4	-0.0298765	4119416
11230.8	-0.0292046	4120471
11240.4	-0.0286119	4121586
11250.1	-0.028032	4121689
11260.7	-0.0274142	4122906
11270.2	-0.0268811	4123162
11280.7	-0.0263031	4124259
11290.1	-0.0257941	4124641
11300.6	-0.0252357	4123494
11310.1	-0.0247336	4122997
11320.6	-0.0241745	4123583
11330.1	-0.0236677	4124262
11340.5	-0.0231023	4125331
11350.7	-0.0225281	4126137
11360.9	-0.0219392	4127792
11371	-0.0213302	4128967
11380.1	-0.020758	4130231
11390.2	-0.0200909	4131417
11400.3	-0.0193863	4132415
11410.4	-0.0186401	4133646
11420.5	-0.0178483	4135052
11430.6	-0.0170073	4136419
11440.7	-0.016114	4137677
11450.8	-0.0151658	4139117
11460.9	-0.0141608	4141063
11471	-0.0130976	4143320
11480.1	-0.0120905	4145362
11490.2	-0.0109156	4148709
11500.3	-0.00968188	4151964
11510.4	-0.00839011	4155275
11520.5	-0.00704104	4158038
11530.5	-0.0056357	4161815
11540.6	-0.00417528	4164947
11550.7	-0.0026612	4168154
11560.8	-0.00109522	4170912
11570.9	0.000520327	4173751
11580	0.00201414	4176521
11590.1	0.00371506	4179713
11600.3	0.00545995	4182523
11610.5	0.0072526	4184400
11620.9	0.00912043	4186058
11630.4	0.010867	4187097
11640.9	0.0128585	4188376
11650.4	0.0146938	4189339
11661	0.0167787	4189937
11670.5	0.018695	4190153
11681	0.0208678	4191350
11690.5	0.022861	4191841
11700	0.0248861	4193640
11710.5	0.0271683	4195879
11720.2	0.0292897	4198080
11731	0.0316808	4200025
11740.7	0.0338577	4201516
11750.4	0.0360577	4204590
11760.1	0.0382793	4207308
11770.8	0.0407694	4210731
11780.5	0.0430242	4214289
11790.2	0.0452851	4217239
11801	0.0477965	4220441
11810.7	0.0500499	4223606
11820.3	0.0522746	4226167
11830.9	0.0547081	4228670
11840.5	0.0568915	4231372
11850.1	0.0590532	4233271
11860.8	0.0614507	4234819
11870.5	0.0635715	4234942
11880.2	0.0656348	4236994
11890.7	0.0678361	4238346
11900.2	0.0697552	4238856
11910.8	0.0718486	4240100
11920.5	0.0736701	4241092
11930.2	0.0754182	4241952
11941	0.0772654	4243353
11950.5	0.0788161	4244359
11961	0.0804098	4245825
11970.4	0.0817584	4246403
11980.9	0.0831542	4248259
11990.3	0.0843094	4249466
12000.6	0.0854647	4249952
12011	0.0864969	4250614
12020.3	0.0873185	4249899
12030.6	0.0881109	4250351
12040.1	0.0887215	4250935
12050.5	0.0892758	4251754
12061	0.089701	4252819
12070.4	0.089972	4253269
12081	0.0901451	4254357
12090.5	0.0901852	4256263
12101	0.0901081	4259457
12110.4	0.089935	4262141
12120.9	0.0896303	4263164
12130.4	0.0892561	4264682
12140.9	0.0887378	4266141
12150.4	0.0881835	4268619
12160.8	0.0874804	4270505
12170.2	0.0867708	4271198
12180.7	0.0858975	4272801
12190.1	0.0850484	4274192
12200.5	0.0840424	4274806
12211	0.0829739	4275046
12220.4	0.0819582	4275344
12230.9	0.080783	4276254
12240.4	0.079691	4275364
12250.9	0.0784437	4274159
12260.4	0.0772941	4274041
12270.1	0.0761016	4273587
12280.6	0.074786	4273189
12290.1	0.0735918	4272951
12300.7	0.0722606	4272513
12310.2	0.0710581	4273074
12320.9	0.0697094	4272251
12330.5	0.068484	4271984
12340.2	0.067262	4271835
12351	0.0659154	4271237
12360.6	0.0647097	4271115
12370.3	0.063514	4270653
12381	0.0621956	4271540
12390.7	0.0610237	4272016
12400.3	0.0598874	4273223
12410.8	0.0586496	4273776
12420.3	0.0575517	4274902
12430.8	0.0563498	4275747
12440.2	0.055281	4276850
12450.8	0.0540988	4278804
12460.3	0.0530499	4281395
12470.9	0.0518901	4283473
12480.4	0.0508513	4285225
12491	0.0497021	4286580
12500.4	0.0486737	4287734
12511	0.0475302	4288925
12520.5	0.0464988	4290570
12531	0.0453476	4292811
12540.5	0.0443042	4293973
12550	0.0432515	4295936
12560.6	0.0420683	4297727
12570.1	0.0409889	4300494
12580.6	0.0397711	4302753
12590.1	0.0386568	4304353
12600.7	0.0373963	4306555
12610.2	0.0362406	4307899
12620.7	0.0349315	4310702
12630.2	0.0337301	4311870
12640.8	0.0323702	4313788
12650.3	0.0311224	4315045
12660.8	0.0297109	4316575
12670.3	0.0284169	4318597
12680.8	0.0269523	4319756
12690.3	0.0256133	4320850
12700.9	0.0241045	4321400
12710.4	0.0227298	4321755
12720.9	0.0211869	4322177
12730.4	0.0197874	4323302
12741	0.018224	4323494
12750.4	0.0168241	4324781
12760.7	0.0152926	4324980
12771	0.0137655	4325400
12780.3	0.0123985	4325816
12790.6	0.0108924	4325835
12801	0.00939394	4326115
12810.4	0.00805719	4326552
12820.9	0.00659226	4327392
12830.4	0.00530102	4328380
12840.9	0.00389879	4329634
12850.4	0.00267083	4331240
12860.9	0.00135093	4332989
12870.4	0.000201415	4334696
12880.9	-0.00101027	4337454
12890.2	-0.00204743	4339576
12900.6	-0.00314037	4342238
12910	-0.00407473	4345101
12920.6	-0.00505084	4347409
12930.1	-0.00586366	4349567
12940.6	-0.00669065	4351247
12950.1	-0.00736387	4352531
12960.7	-0.00803018	4354831
12970.2	-0.00855401	4356286
12980.7	-0.00904782	4358256
12990.2	-0.00941245	4359245
13000.6	-0.00972331	4360556
13010.1	-0.00991965	4361271
13020.6	-0.0100422	4362359
13030.1	-0.0100647	4363179
13040.6	-0.00999479	4364976
13050.1	-0.00984939	4366680
13060.7	-0.00959822	4367581
13070.2	-0.00928386	4368230
13080.6	-0.0088283	4368060
13090.1	-0.00835802	4367945
13100.7	-0.00776474	4367706
13110.2	-0.00716512	4367595
13120.7	-0.00641496	4367528
13130.2	-0.00566055	4367875
13140.8	-0.00473364	4368778
13150.2	-0.00383254	4369840
13160.6	-0.00275862	4371061
13170.1	-0.00172759	4371650
13180.6	-0.000524894	4373867
13190	0.000603878	4375523
13200.6	0.00190927	4377596
13210.1	0.00312312	4379113
13220.6	0.00450942	4381914
13230.1	0.00578969	4384452
13240.5	0.00722894	4386776
13250.9	0.0086845	4389173
13260.3	0.0100134	4390690
13270.8	0.0115142	4391256
13280.3	0.0128735	4392647
13290.8	0.0143831	4394179
13300.3	0.0157352	4395057
13310.8	0.0172184	4397568
13320.2	0.0185276	4400365
13330.7	0.0199578	4401949
13340	0.0212186	4403562
13350.5	0.022588	4405799
13360	0.0237913	4407170
13370.6	0.0250803	4408208
13380	0.0261915	4408794
13390.6	0.0273675	4410470
13400.2	0.0283804	4410908
13410.8	0.0294269	4411992
13420.2	0.0302936	4413349
13430.7	0.0311724	4413878
13440.1	0.0318822	4414204
13450.6	0.0325802	4414762
13461	0.0331763	4415486
13470.3	0.0336196	4415844
13480.6	0.0340108	4415790
13490.9	0.0342978	4416617
13500.2	0.0345379	4417345
13510.5	0.0344844	4417865
13520.9	0.0344548	4418430
13530.4	0.0342633	4419082
13540.7	0.0338969	4418326
13550.1	0.0334421	4418415
13560.5	0.0328141	4417824
13571	0.0320643	4417235
13580.4	0.0312896	4415903
13590.9	0.030319	4415982
13600.3	0.0293469	4416369
13610.8	0.0281551	4417579
13620.2	0.0269866	4418018
13630.5	0.0255866	4418096
13640.9	0.0240535	4419227
13650.3	0.0225732	4420188
13660.7	0.020826	4421455
13670.1	0.0191636	4422910
13680.4	0.0172222	4424806
13690.9	0.0151595	4425070
13700.3	0.0132237	4425914
13710.6	0.0110218	4425696
13720.9	0.00874423	4425371
13730.2	0.00663697	4425663
13740.5	0.00424014	4425422
13750.8	0.00178406	4424727
13760.3	-0.000501589	4424359
13770.8	-0.00307465	4424199
13780.3	-0.00538912	4424193
13790.6	-0.00794856	4425276
13801	-0.0104982	4426543
13810.3	-0.0127833	4427083
13820.7	-0.0153272	4427768
13830.1	-0.0175796	4428301
13840.5	-0.0200721	4429776
13851	-0.0226333	4431044
13860.3	-0.0248635	4432533
13870.6	-0.0276572	4434080
13881	-0.0305778	4435977
13890.4	-0.0332124	4437949
13900.8	-0.0359396	4440325
13910.2	-0.038229	4441794
13920.6	-0.0406644	4443515
13931	-0.0430005	4445621
13940.3	-0.0450299	4447795
13950.6	-0.0472547	4448544
13960.9	-0.0494502	4449767
13970.3	-0.0513964	4450541
13980.7	-0.0534942	4451893
13990.1	-0.0553046	4454002
14000.5	-0.0572406	4456043
14010.9	-0.0590892	4457312
14020.3	-0.0606759	4458351
14030.8	-0.0623563	4459303
14040.1	-0.0637669	4460444
14050.4	-0.0652377	4460370
14060.7	-0.066609	4459617
14071	-0.06788	4459449
14080.2	-0.0689379	4459577
14090.7	-0.0700276	4459246
14100.1	-0.0709208	4459339
14110.5	-0.0718027	4458283
14120.8	-0.0725769	4459033
14130.1	-0.0731746	4459986
14140.5	-0.0737335	4461174
14150.8	-0.0741815	4461898
14160.1	-0.0744906	4462148
14170.6	-0.0747342	4464079
14180.1	-0.0748585	4465181
14190.4	-0.0748929	4466440
14200.7	-0.0748242	4466534
14210	-0.0746757	4466558
14220.5	-0.0744124	4466060
14230	-0.0740875	4465732
14240.4	-0.0736387	4466203
14250.8	-0.0730969	4463767
14260.2	-0.0725333	4463468
14270.5	-0.071825	4462822
14281	-0.0710311	4461783
14290.4	-0.0702379	4460392
14301	-0.0692829	4458217
14310.5	-0.0683606	4457952
14321	-0.0672701	4457916
14330.5	-0.0662332	4457374
14340	-0.065147	4456965
14350.4	-0.0639106	4457030
14360.7	-0.0626269	4456797
14370	-0.0614324	4456038
14380.3	-0.0600661	4455843
14390.7	-0.0586626	4454819
14401	-0.0572288	4453553
14410.5	-0.0558989	4452181
14420.8	-0.0544191	4450386
14430.2	-0.0530722	4448026
14440.8	-0.0515496	4445515
14450.3	-0.0501781	4443538
14460.7	-0.048673	4440800
14470.2	-0.0473123	4438243
14480.8	-0.0458132	4434732
14490.3	-0.0444788	4431595
14500.8	-0.0430164	4429384
14510.3	-0.0417222	4426890
14520.8	-0.040311	4423965
14530.3	-0.0390651	4421138
14540.9	-0.0377167	4417471
14550.4	-0.0365383	4413944
14560.7	-0.0352902	4411728
14570	-0.0342067	4408148
14580.4	-0.0330412	4404685
14590.8	-0.0319088	4401186
14600.2	-0.0309183	4398498
14610.6	-0.0298561	4394928
14620	-0.028935	4391581
14630.5	-0.0279463	4387305
14640.9	-0.0270036	4384189
14650.3	-0.0261906	4381575
14660.7	-0.0253247	4379443
14670.2	-0.024572	4376729
14680.7	-0.0237713	4374347
14690.2	-0.0230822	4371744
14700.7	-0.0223496	4367817
14710.1	-0.0217193	4364599
14720.7	-0.0210476	4358895
14730.2	-0.020467	4354551
14740.7	-0.0198487	4349502
14750.1	-0.0193193	4344930
14760.6	-0.0187553	4339657
14771	-0.0182135	4334009
14780.4	-0.0177443	4329232
14790.8	-0.0172376	4323421
14800.3	-0.0167918	4318017
14810.8	-0.0163081	4311254
14820.2	-0.0158824	4305995
14830.6	-0.0154161	4298904
14840.1	-0.0149975	4292855
14850.6	-0.0145317	4285392
14860	-0.0141127	4278329
14870.5	-0.0136422	4270930
14881	-0.0131601	4264113
14890.5	-0.0127174	4258204
14901	-0.0122115	4251237
14910.4	-0.0117446	4245193
14920.9	-0.0112099	4237921
14930.4	-0.0107092	4232991
14940.8	-0.0101383	4228621
14950.2	-0.00960705	4224413
14960.6	-0.00899401	4218266
14971	-0.00835633	4211977
14980.4	-0.00776168	4206402
14990.8	-0.00707782	4200256
15000.2	-0.00644164	4194941
15010.6	-0.00571146	4187720
15021	-0.00496165	4181659
15030.4	-0.00426528	4174869
15040.9	-0.00346785	4167527
15050.3	-0.00273038	4162044
15060.7	-0.00190416	4154747
15070	-0.0011463	4148978
15080.4	-0.000268726	4142609
15091	0.000621251	4136110
15100.3	0.0013968	4130322
15110.6	0.00225774	4123675
15120.9	0.00312374	4117141
15130.1	0.00390266	4111124
15140.3	0.00476867	4104744
15150.4	0.00563241	4097970
15160.6	0.00649231	4092107
15170.8	0.0073456	4085193
15181	0.00819051	4078048
15190.1	0.00894245	4072242
15200.3	0.00976463	4065450
15210.5	0.010566	4058667
15220.7	0.0113399	4051617
15230.9	0.0120823	4044462
15240	0.0127224	4037433
15250.2	0.0134022	4029717
15260.4	0.0140493	4022209
15270.5	0.0146629	4014613
15280.7	0.0152417	4006944
15290.9	0.0157837	3999950
15300.1	0.0162382	3993472
15310.2	0.0167038	3985586
15320.4	0.0171255	3977882
15330.6	0.0175009	3970980
15340.8	0.0178273	3962959
15351	0.0181023	3955513
15360.1	0.0183037	3949199
15370.3	0.0184739	3941520
15380.5	0.0185855	3934413
15390.7	0.0186365	3926761
15400.9	0.018625	3919844
15410.2	0.0185598	3913834
15420.5	0.0184243	3906702
15430.9	0.0182192	3899254
15440.3	0.0179703	3893184
15450.9	0.0176184	3886447
15460.3	0.0172332	3879214
15470.8	0.0167264	3871561
15480.3	0.0161986	3865024
15490.8	0.0155312	3858561
15500.3	0.0148607	3852127
15510.7	0.0140527	3844552
15520	0.013271	3837958
15530.3	0.0123456	3832153
15540.5	0.0113649	3825431
15550.6	0.0103329	3818737
15560.8	0.00925304	3811564
15571	0.00813872	3805017
15580.1	0.00709937	3798786
15590.3	0.00586043	3791787
15600.5	0.00457219	3784310
15610.7	0.00311612	3777582
15620.9	0.00137593	3770277
15630	-0.000397852	3763444
15640.2	-0.00251122	3756319
15650.4	-0.00471757	3749212
15660.6	-0.00699327	3743255
15670.7	-0.00933347	3736720
15680.9	-0.0117412	3730053
15690.1	-0.0139692	3724364
15700.3	-0.016514	3718255
15710.4	-0.0191325	3712397
15720.6	-0.0218278	3706387
15730.8	-0.024604	3701351
15741	-0.0274609	3694549
15750.1	-0.0300955	3688292
15760.3	-0.0330828	3681813
15770.6	-0.0361679	3674947
15780.1	-0.0390467	3668658
15790.7	-0.0422924	3660633
15800.2	-0.0452605	3654562
15810.7	-0.0486214	3647020
15820.2	-0.051715	3640505
15830.8	-0.0552358	3633457
15840.2	-0.0584635	3627213
15850.5	-0.0620992	3620849
15860.9	-0.06587	3613249
15870.4	-0.0695091	3607007
15880.9	-0.0737443	3600017
15890.3	-0.0774642	3593702
15900.7	-0.0843045	3586439
15910.1	-0.0885807	3579343
15920.4	-0.0928915	3571216
15930.9	-0.097315	3562972
15940.3	-0.101251	3555293
15950.7	-0.10574	3547480
15960.1	-0.109828	3540285
15970.5	-0.114205	3532495
15980.9	-0.118338	3525245
15990.4	-0.122004	3517658
16000.9	-0.126007	3509684
16010.4	-0.129588	3503224
16020.9	-0.133507	3496195
16030.4	-0.136925	3489871
16040.8	-0.140531	3483745
16050.2	-0.143614	3478022
16060.6	-0.146889	3471320
16070.1	-0.149721	3464687
16080.7	-0.152721	3456901
16090.2	-0.155275	3449986
16100.7	-0.157914	3442584
16110.2	-0.160081	3435441
16120.8	-0.162236	3427873
16130.3	-0.16394	3420246
16140.8	-0.165557	3412930
16150	-0.166757	3405845
16160.3	-0.167824	3398096
16170.9	-0.168659	3390553
16180.4	-0.169177	3384840
16190.9	-0.16925	3377985
16200.2	-0.169001	3372602
16210.5	-0.168454	3366159
16220.8	-0.167614	3359673
16230.1	-0.166607	3354136
16240.4	-0.165204	3347717
16250.7	-0.163496	3340706
16260	-0.161687	3333885
16270.3	-0.159376	3327090
16280.6	-0.156762	3319264
16290	-0.154125	3312459
16300.6	-0.15088	3304616
16310	-0.147718	3298025
16320.6	-0.143895	3290194
16330	-0.140203	3283777
16340.4	-0.135876	3276508
16350.8	-0.131274	3270612
16360.2	-0.126887	3264122
16370.8	-0.121725	3257843
16380.3	-0.116859	3251828
16390.8	-0.111231	3244713
16400.3	-0.105983	3238544
16410.8	-0.0999598	3232191
16420.3	-0.0943735	3225537
16430.9	-0.0879874	3217985
16440.4	-0.0820812	3211936
16450.9	-0.0753538	3204916
16460.4	-0.0690658	3198066
16470.9	-0.0632512	3190498
16480.4	-0.0574636	3183302
16490.9	-0.0484566	3175913
16500.4	-0.0397457	3169391
16511	-0.0301651	3162584
16520.5	-0.0224356	3155775
16531	-0.0143199	3149325
16540.3	-0.00712548	3143204
16550.6	0.000705303	3136418
16561	0.00827637	3129985
16570.3	0.0149388	3124343
16580.7	0.0222264	3118715
16590.1	0.0287177	3113248
16600.6	0.0357184	3108174
16610	0.0418617	3103330
16620.5	0.0484444	3097757
16630.9	0.0547683	3091760
16640.3	0.0602542	3086300
16650.8	0.0660945	3080221
16660.2	0.0711165	3074064
16670.7	0.0764162	3068507
16680.2	0.0808979	3063797
16690.7	0.0855142	3059519
16700.1	0.0893611	3054433
16710.7	0.0933021	3049076
16720.1	0.0965231	3044660
16730.6	0.0993573	3038818
16740	0.101701	3033177
16750.5	0.103964	3027417
16760.9	0.106517	3021315
16770.3	0.107723	3015527
16780.8	0.108232	3009202
16790.3	0.108772	3003865
16800.9	0.109004	2998669
16810.4	0.109067	2993092
16820.9	0.108869	2986996
16830.3	0.10853	2981224
16840.8	0.108002	2974687
16850.3	0.107366	2969534
16860.8	0.106472	2963305
16870.3	0.105496	2956378
16880.9	0.104224	2949994
16890.3	0.10292	2943829
16900.9	0.101311	2937141
16910.2	0.0997604	2930681
16920.5	0.0979042	2923343
16930.9	0.0958904	2916257
16940.4	0.09393	2909297
16950.9	0.0916156	2902799
16960.4	0.0894249	2896634
16970.9	0.0868945	2888930
16980.3	0.0842763	2882223
16990.9	0.0782457	2874965
17000.3	0.0742741	2868967
17010.8	0.0702603	2861792
17020.3	0.0665563	2855616
17030.9	0.0623958	2848929
17040.3	0.058473	2842789
17050.9	0.053991	2836631
17060.3	0.050088	2831283
17070.6	0.046022	2824624
17080.9	0.0421416	2818899
17090.3	0.0386824	2812933
17100.9	0.0347804	2807440
17110.4	0.0312676	2801375
17120.9	0.0274415	2795470
17130.4	0.0241354	2790754
17141	0.0206449	2784547
17150.5	0.0176519	2778924
17161	0.0144581	2773113
17170.5	0.0116923	2767987
17180	0.00904563	2763133
17190.6	0.00627976	2756478
17200.1	0.00397351	2750948
17210.6	0.00162403	2744340
17220.1	-0.000304176	2738561
17230.7	-0.0022475	2732410
17240.1	-0.00380671	2727347
17250.5	-0.00531958	2722426
17260.9	-0.00660266	2717081
17270.3	-0.00758951	2712447
17280.8	-0.00868011	2706803
17290.3	-0.0093931	2702528
17300.9	-0.00965358	2697285
17310.4	-0.00971979	2692980
17320.9	-0.00937091	2687552
17330.4	-0.00929982	2682985
17341	-0.00904896	2677931
17350.5	-0.00870361	2672937
17361	-0.00815225	2666919
17370.5	-0.00751272	2661711
17381.1	-0.00670563	2655394
17390.6	-0.00592348	2650112
17400	-0.00507825	2645044
17410.6	-0.00404592	2639282
17420.1	-0.00302703	2634772
17430.6	-0.0018047	2629490
17440.1	-0.000641702	2624788
17450.7	0.000700161	2619689
17460.2	0.0019429	2615364
17470.7	0.00335978	2610357
17480.2	0.00466677	2606386
17490.8	0.00615029	2601297
17500.3	0.00750595	2596443
17510.8	0.00902352	2591642
17520.3	0.0103899	2587364
17530.8	0.0118896	2583273
17540.3	0.0132365	2579205
17550.9	0.014714	2574452
17560.4	0.0160218	2569961
17570.9	0.0174445	2565240
17580.4	0.0186919	2560787
17591	0.0200352	2555505
17600.5	0.0212017	2550729
17611	0.0224468	2545681
17620.5	0.0235192	2541910
17631.1	0.0246546	2537766
17640.6	0.0256231	2533943
17650	0.0265384	2530096
17660.6	0.0274897	2525703
17670.1	0.0282845	2521666
17680.6	0.0290978	2517002
17690.1	0.0297674	2513364
17700.7	0.0304447	2509279
17710.2	0.0309966	2506393
17720.5	0.0315429	2501793
17730.8	0.0320377	2497366
17740.1	0.0324446	2493388
17750.6	0.0328644	2488774
17760.1	0.0332131	2484758
17770.6	0.0335696	2480225
17780.1	0.0338657	2475499
17790.7	0.0341705	2470422
17800.2	0.0344258	2465807
17810.7	0.0346913	2461112
17820.2	0.0349164	2455700
17830.8	0.0351542	2450223
17840.3	0.0353597	2445944
17850.8	0.0355814	2441439
17860.3	0.0357773	2437133
17870.9	0.0359933	2432778
17880.3	0.0361879	2428295
17890.7	0.0364071	2423966
17900.1	0.0366101	2419733
17910.5	0.0368445	2414480
17921	0.0370911	2409540
17930.4	0.0373241	2404833
17940.9	0.0375966	2399400
17950.4	0.0378544	2394756
17960.9	0.0381542	2389862
17970.3	0.0384375	2386616
17980.8	0.0387649	2382011
17990.2	0.0390731	2377341
18000.7	0.0394294	2372034
18010.1	0.0397639	2368265
18020.7	0.0401491	2363879
18030.2	0.0405066	2360366
18040.7	0.0409152	2355831
18050.2	0.0412925	2352543
18060.7	0.0417185	2349261
18070.1	0.0421091	2345922
18080.7	0.0425544	2341860
18090.1	0.0429623	2338907
18100.6	0.0434196	2335131
18111	0.0438812	2331475
18120.3	0.0442931	2328341
18130.6	0.0447421	2324890
18140.9	0.0450345	2321914
18150.2	0.0453646	2318208
18160.7	0.0457373	2315243
18170.1	0.046044	2312218
18180.6	0.0463831	2308167
18190	0.0466846	2304568
18200.6	0.0469981	2300118
18210.1	0.0472401	2297295
18220.5	0.0474605	2294263
18231	0.0476415	2289752
18240.5	0.0477816	2286666
18251	0.0479215	2282794
18260.5	0.0480353	2279952
18270	0.0481376	2276990
18280.6	0.0482355	2273509
18290.1	0.0483072	2270792
18300.6	0.0483662	2267530
18310.1	0.048399	2263916
18320.7	0.0484118	2260623
18330.1	0.048402	2257334
18340.7	0.0483685	2253818
18350.1	0.0483198	2250780
18360.4	0.0482456	2246894
18370.7	0.0481473	2243353
18381	0.048023	2239519
18390.3	0.0478893	2236191
18400.7	0.047718	2232729
18410.2	0.0475456	2229466
18420.8	0.0473352	2225697
18430.2	0.0471271	2222495
18440.7	0.0468707	2218194
18450.2	0.0466097	2214753
18460.7	0.0462862	2210460
18470.2	0.0459627	2207112
18480.7	0.045568	2202972
18490.2	0.0451851	2200107
18500.6	0.0447334	2196064
18510.1	0.0442956	2192535
18520.6	0.043785	2188951
18530	0.0432975	2185212
18540.6	0.0427233	2180546
18550.1	0.0421765	2176605
18560.6	0.0415326	2172221
18570.1	0.0409178	2168652
18580.7	0.0401925	2164860
18590.2	0.0395002	2161824
18600.7	0.0386857	2158321
18610.2	0.0379114	2155092
18620.8	0.0370054	2151475
18630.3	0.0361492	2148193
18640.8	0.0351526	2144542
18650.3	0.0342153	2141360
18660.9	0.0331286	2138181
18670.4	0.0321095	2135345
18680.9	0.030931	2131742
18690.4	0.0298284	2127714
18701	0.0285565	2124303
18710.5	0.0273698	2120987
18721	0.0260055	2117521
18730.5	0.0247374	2114132
18740	0.0234328	2111462
18750.6	0.0219422	2107864
18760.1	0.0205656	2104973
18770.6	0.0189994	2101925
18780.1	0.0175586	2099078
18790.7	0.0159249	2096186
18800.2	0.0144265	2093352
18810.7	0.0127317	2090834
18820.2	0.0111807	2088394
18830.8	0.00942981	2085839
18840.3	0.00783012	2083984
18850.8	0.00602717	2081860
18860.3	0.00438254	2079837
18870.9	0.00253198	2077443
18880.3	0.000846863	2075288
18890.9	-0.00104569	2072850
18900.4	-0.00276561	2070331
18910.9	-0.00469316	2068127
18920.4	-0.00644102	2065469
18931	-0.00839542	2062839
18940.5	-0.0101635	2060833
18951	-0.0121358	2058164
18960.5	-0.0139159	2055885
18970	-0.0156986	2053946
18980.6	-0.0176801	2050959
18990.1	-0.0194617	2049153
19000.6	-0.0214367	2047296
19010.1	-0.0232077	2045324
19020.7	-0.0251652	2042946
19030.2	-0.026915	2040957
19040.7	-0.0288428	2038953
19050.2	-0.0305601	2037003
19060.8	-0.032445	2034775
19070.3	-0.0341176	2032849
19080.8	-0.0359459	2030422
19090.3	-0.0375612	2028539
19100.9	-0.0393188	2026166
19110.4	-0.0408644	2023556
19120.9	-0.0425379	2021249
19130.4	-0.0440021	2018814
19141	-0.0455794	2016089
19150.5	-0.0469521	2014096
19161	-0.0484228	2011146
19170.5	-0.0496956	2008573
19180	-0.0509187	2006280
19190.6	-0.0522182	2003548
19200.1	-0.053333	2000963
19210.6	-0.05451	1997887
19220.1	-0.0555132	1995300
19230.7	-0.0565651	1992415
19240.2	-0.0574552	1990129
19250.7	-0.0583812	1987259
19260.2	-0.0591581	1984648
19270.8	-0.0599588	1981679
19280.3	-0.0606238	1978935
19290.8	-0.0613013	1975899
19300.3	-0.0618567	1973379
19310.9	-0.0624142	1970390
19320.4	-0.0628633	1967278
19330.9	-0.063305	1964154
19340.4	-0.0636518	1961394
19351	-0.0639822	1958459
19360.5	-0.0642312	1955684
19371	-0.0644554	1952564
19380.5	-0.0646116	1949843
19391.1	-0.0647363	1946677
19400.6	-0.0648055	1944051
19410	-0.0648348	1941274
19420.6	-0.064821	1938097
19430.1	-0.0647677	1935952
19440.6	-0.0646638	1932746
19450.1	-0.0645312	1930585
19460.7	-0.0643416	1928348
19470.2	-0.0641338	1926380
19480.7	-0.0638627	1923740
19490.2	-0.063583	1921875
19500.8	-0.0632331	1919277
19510.3	-0.0628831	1916792
19520.8	-0.0624553	1914336
19530.3	-0.0620354	1912198
19540.9	-0.0615302	1909719
19550.4	-0.0610407	1907892
19560.9	-0.0604615	1905216
19570.3	-0.0599091	1903016
19580.7	-0.059258	1900148
19590.1	-0.0586376	1897325
19600.7	-0.0579033	1893909
19610.2	-0.0572079	1891233
19620.7	-0.0564009	1888350
19630.1	-0.0556369	1886859
19640.6	-0.0547491	1884709
19651	-0.0538073	1882306
19660.5	-0.0529016	1879697
19670.9	-0.0519005	1877148
19680.3	-0.0509101	1874859
19690.8	-0.0496129	1872791
19700.3	-0.0492849	1869886
19710.9	-0.047988	1867334
19720.4	-0.0464154	1865221
19730.9	-0.0446734	1862398
19740.4	-0.0433068	1860247
19750.8	-0.0415949	1857696
19760.3	-0.0399407	1855578
19770.7	-0.0380509	1853246
19780.2	-0.0363517	1850640
19790.7	-0.0343198	1847840
19800.2	-0.0325032	1845206
19810.8	-0.0305476	1842399
19820.3	-0.0288006	1840028
19830.8	-0.0268322	1837855
19840.3	-0.025013	1835709
19850.9	-0.0229222	1833562
19860.4	-0.0209864	1831237
19870.9	-0.0188073	1828491
19880.4	-0.0168492	1826231
19891	-0.0146978	1824143
19900.4	-0.0127919	1822127
19911	-0.0107147	1820289
19920.5	-0.00888844	1818434
19931	-0.00691752	1816811
19940.5	-0.00520614	1814406
19951	-0.00338518	1812074
19960.5	-0.0018296	1809435
19970	-0.000360995	1806652
19980.6	0.00116141	1804500
19990.1	0.00242733	1801916
