0	0	345164
10.9729	0	367956
20.9351	0	382288
30.897	0	395486
40.859	0	407876
50.798	0	417982
60.6335	0	425780
70.4425	0	432102
80.2486	0	438134
90.9572	0	443848
100.598	0	448154
110.21	0	452106
120.783	0	456328
130.4	0	459668
140.05	0	463170
150.695	0	466648
160.279	0	469786
170.746	0	473046
180.283	0	475860
190.919	0	479164
200.769	0	481778
210.726	0	484688
220.776	0	487668
230.942	0	490562
240.092	0	493330
250.274	0	496656
260.463	0	499734
270.651	0	502658
280.84	0	505650
290.012	0	508526
300.209	0	511440
310.406	0	514562
320.603	0	517516
330.795	0	520760
340.972	0	524288
350.069	0	527516
360.062	0	531528
370.055	0	535404
380.047	0	539514
390.04	0	543612
400.033	0	547446
410.033	0	551494
420.036	0	555376
430.04	0	559520
440.137	0	563716
450.233	0	567836
460.329	0	572362
470.426	0	576158
480.522	0	580226
490.61	0	584590
500.633	0	588256
510.607	0	592496
520.571	0	596550
530.535	0	600822
540.499	0	604858
550.463	0	608576
560.427	0	612976
570.396	0	616786
580.374	0	620920
590.359	0	625290
600.323	0	629490
610.285	0	634088
620.247	0	638160
630.209	0	642626
640.171	0	646814
650.138	0	651018
660.129	0	655988
670.158	0	660226
680.187	0	664572
690.209	0	668806
700.22	0	673300
710.182	0	677370
720.107	0	682044
730.015	0	686702
740.914	0	691638
750.823	0	696566
760.758	0	701270
770.79	0	706304
780.865	0	711086
790.916	0	716426
800.966	0	721500
810.014	0	725990
820.074	0	731592
830.133	0	736798
840.308	0	742462
850.508	0	747660
860.719	0	753132
870.93	0	758244
880.12	0	762442
890.331	0	767944
900.543	0	772994
910.754	0	778634
920.965	0	784472
930.156	0	789188
940.367	0	795040
950.569	0	800292
960.758	0	806166
970.947	0	811886
980.117	0	817306
990.306	0	823508
1000.5	0	829196
1010.68	0	835230
1020.87	0	841060
1030.04	0	846494
1040.23	0	852206
1050.42	0	857910
1060.61	0	863752
1070.8	0	869460
1080.99	0	875664
1090.16	0	881132
1100.35	0	887214
1110.54	0	893226
1120.73	0	899396
1130.91	0	905302
1140.08	0	910466
1150.26	0	915980
1160.43	0	921770
1170.6	0	927824
1180.77	0	934400
1190.94	0	940360
1200.09	0	945726
1210.25	0	951704
1220.42	-9.09495e-13	957672
1230.59	-1.00044e-11	963782
1240.75	-1.90994e-11	969890
1250.92	-2.81943e-11	975668
1260.07	-3.63798e-11	980992
1270.24	-4.54747e-11	986208
1280.44	-5.45697e-11	991728
1290.67	-6.36646e-11	997162
1300.91	-7.27596e-11	1002758
1310.13	-8.0945e-11	1008014
1320.37	-9.004e-11	1013764
1330.6	-1.06411e-10	1019532
1340.82	-1.24601e-10	1025746
1350	-1.40972e-10	1031152
1360.15	-1.64619e-10	1037038
1370.22	-1.91903e-10	1043192
1380.22	-2.21007e-10	1049122
1390.18	-2.57387e-10	1054542
1400.14	-2.98314e-10	1060088
1410.11	-3.43789e-10	1066382
1420.07	-3.98359e-10	1072274
1430.04	-4.61114e-10	1078460
1441	-5.3933e-10	1085246
1450.96	-6.23004e-10	1091024
1460.92	-7.18501e-10	1096766
1470.89	-8.2764e-10	1101920
1480.85	-9.51331e-10	1107454
1490.81	-1.09321e-09	1112702
1500.78	-1.2551e-09	1118556
1510.74	-1.43882e-09	1124436
1520.7	-1.64709e-09	1130044
1530.66	-1.88538e-09	1135264
1540.62	-2.15368e-09	1139678
1550.59	-2.45745e-09	1143514
1560.55	-2.80124e-09	1147830
1570.51	-3.18778e-09	1152240
1580.47	-3.62616e-09	1156422
1590.44	-4.12001e-09	1160388
1600.39	-4.6748e-09	1165276
1610.33	-5.2969e-09	1169558
1620.21	-5.99175e-09	1173536
1630.09	-6.76937e-09	1178006
1640.95	-7.73343e-09	1182652
1650.82	-8.71933e-09	1186828
1660.7	-9.81981e-09	1191362
1670.57	-1.10485e-08	1195792
1680.44	-1.24173e-08	1199826
1690.32	-1.39426e-08	1204258
1700.19	-1.56397e-08	1208640
1710.06	-1.7526e-08	1212882
1720.92	-1.98424e-08	1217374
1730.8	-2.21889e-08	1221558
1740.67	-2.47883e-08	1225860
1750.55	-2.76677e-08	1230200
1760.42	-3.08528e-08	1234196
1770.29	-3.43725e-08	1238072
1780.17	-3.82579e-08	1242110
1790.04	-4.25434e-08	1246088
1800.9	-4.77667e-08	1250373
1810.78	-5.30199e-08	1254731
1820.65	-5.8797e-08	1258837
1830.52	-6.5148e-08	1263299
1840.4	-7.21238e-08	1267407
1850.27	-7.97791e-08	1271515
1860.15	-8.81728e-08	1275365
1870.02	-9.73696e-08	1279325
1880.88	-1.08496e-07	1283827
1890.76	-1.19608e-07	1287641
1900.63	-1.31753e-07	1291619
1910.5	-1.45014e-07	1295455
1920.38	-1.59487e-07	1299257
1930.25	-1.75266e-07	1303385
1940.13	-1.92459e-07	1307123
1950	-2.11176e-07	1311193
1960.93	-2.3383e-07	1315463
1970.9	-2.5638e-07	1319731
1980.86	-2.80894e-07	1323573
1990.83	-3.07528e-07	1326447
2000.8	-3.36466e-07	1330505
2010.82	-3.68006e-07	1333961
2021.01	-4.02809e-07	1337543
2030.22	-4.36802e-07	1340857
2040.46	-4.77636e-07	1343871
2050.74	-5.22122e-07	1347437
2060.04	-5.6553e-07	1350657
2070.21	-6.16751e-07	1353987
2080.54	-6.73067e-07	1357841
2090.9	-7.34161e-07	1361545
2100.29	-7.93803e-07	1365129
2110.73	-8.65251e-07	1369023
2120.12	-9.34447e-07	1371891
2130.54	-1.01706e-06	1375403
2140.97	-1.10623e-06	1379035
2150.33	-1.19228e-06	1382013
2160.69	-1.29443e-06	1385089
2171	-1.40393e-06	1388687
2180.29	-1.50973e-06	1391773
2190.62	-1.63571e-06	1394647
2200.93	-1.77068e-06	1397799
2210.2	-1.90065e-06	1400358
2220.5	-2.0551e-06	1403471
2230.81	-2.22076e-06	1406217
2240.08	-2.38e-06	1408569
2250.39	-2.56891e-06	1411229
2260.7	-2.77125e-06	1413935
2271	-2.98774e-06	1417063
2280.29	-3.19569e-06	1419807
2290.62	-3.4421e-06	1422017
2300.92	-3.70482e-06	1424739
2310.21	-3.95682e-06	1426483
2320.54	-4.25507e-06	1429075
2330.89	-4.5737e-06	1431635
2340.22	-4.87938e-06	1434223
2350.53	-5.23795e-06	1436655
2360.84	-5.61986e-06	1439291
2370.18	-5.98739e-06	1441533
2380.5	-6.41821e-06	1444236
2390.83	-6.87641e-06	1446702
2400.16	-7.31534e-06	1448394
2410.54	-7.83326e-06	1450840
2421.01	-8.38754e-06	1452638
2430.38	-8.91381e-06	1454932
2440.7	-9.52649e-06	1458106
2451.01	-1.01757e-05	1461297
2460.29	-1.07929e-05	1463691
2470.61	-1.15186e-05	1466289
2480.96	-1.22886e-05	1469127
2490.23	-1.30171e-05	1472001
2500.54	-1.38713e-05	1475301
2510.84	-1.47747e-05	1478435
2520.13	-1.56327e-05	1480863
2530.54	-1.66458e-05	1483691
2540.85	-1.77064e-05	1487345
2550.13	-1.87104e-05	1490373
2560.46	-1.98876e-05	1494113
2570.8	-2.11303e-05	1498213
2580.09	-2.23035e-05	1501465
2590.41	-2.3673e-05	1505561
2600.72	-2.51148e-05	1509182
2611.02	-2.66313e-05	1513054
2620.29	-2.80639e-05	1515834
2630.62	-2.97375e-05	1519391
2640.95	-3.14975e-05	1523357
2650.25	-3.31591e-05	1526575
2660.61	-3.50988e-05	1530037
2670.93	-3.71277e-05	1533937
2680.22	-3.90403e-05	1536761
2690.55	-4.12652e-05	1540199
2700.88	-4.35987e-05	1543689
2710.17	-4.57934e-05	1546639
2720.52	-4.83476e-05	1549780
2730.89	-5.10297e-05	1553054
2740.21	-5.35467e-05	1556054
2750.56	-5.64666e-05	1558836
2760.97	-5.95383e-05	1562052
2770.29	-6.24095e-05	1565046
2780.63	-6.57286e-05	1567824
2790.98	-6.92031e-05	1570104
2800.3	-7.24601e-05	1572866
2810.64	-7.623e-05	1575384
2821.01	-8.01724e-05	1578538
2830.3	-8.38494e-05	1581936
2840.62	-8.81011e-05	1585264
2850.97	-9.25466e-05	1588661
2860.29	-9.67127e-05	1590905
2870.66	-0.000101526	1594279
2880.97	-0.000106506	1598117
2890.26	-0.000111166	1601235
2900.58	-0.000116542	1605415
2910.89	-0.000122119	1609029
2920.16	-0.000127322	1612505
2930.48	-0.000133322	1616671
2940.82	-0.000139567	1621002
2950.11	-0.00014538	1625522
2960.41	-0.000152065	1629429
2970.72	-0.000159003	1633737
2981.02	-0.000166199	1637121
2990.32	-0.000172919	1640875
3000.65	-0.000180651	1644777
3010.97	-0.000188654	1649477
3020.25	-0.000196098	1652580
3030.59	-0.000204661	1656366
3040.96	-0.000213544	1660178
3050.29	-0.000221804	1664392
3060.6	-0.00023122	1668758
3070.9	-0.000240954	1672252
3080.2	-0.000250027	1675500
3090.73	-0.000260643	1679426
3100.22	-0.000270521	1683396
3110.76	-0.000281845	1687844
3120.25	-0.000292364	1691191
3130.8	-0.000304441	1695059
3140.36	-0.000315754	1698679
3151.05	-0.000328801	1702433
3160.7	-0.000340978	1706231
3170.38	-0.000353584	1709735
3180.06	-0.000366589	1713251
3190.77	-0.000381477	1717204
3200.36	-0.000395266	1721140
3211.02	-0.000411099	1724746
3220.61	-0.00042583	1728351
3230.19	-0.000441034	1731423
3240.82	-0.000458541	1735303
3250.39	-0.000475006	1738489
3261.01	-0.00049413	1741994
3270.57	-0.000512145	1745034
3280.12	-0.000530938	1747843
3290.7	-0.000552676	1751073
3300.21	-0.000556042	1754046
3310.8	-0.00055975	1757081
3320.37	-0.000565292	1760237
3331.01	-0.000573872	1763534
3340.58	-0.000583736	1766114
3350.16	-0.000595586	1769320
3360.82	-0.000611048	1772734
3370.43	-0.000626996	1775562
3380.06	-0.000644819	1778796
3390.57	-0.000666351	1782118
3400.23	-0.000687981	1785640
3410.96	-0.0007141	1789296
3420.61	-0.000738415	1792449
3430.13	-0.000762811	1795728
3440.65	-0.000790558	1799120
3450.06	-0.000816341	1801939
3460.42	-0.000845981	1805231
3470.76	-0.000877031	1808264
3480.05	-0.000906367	1811155
3490.37	-0.00094072	1814471
3500.69	-0.000976937	1817991
3511.01	-0.00101355	1821794
3520.3	-0.00104716	1825116
3530.62	-0.00108572	1828775
3540.94	-0.00112599	1832430
3550.23	-0.00116405	1835488
3560.55	-0.00120869	1838874
3570.88	-0.0012559	1842618
3580.17	-0.00130079	1845928
3590.54	-0.00135362	1849848
3600.98	-0.0014098	1853490
3610.41	-0.0014932	1856948
3620.9	-0.00159243	1860483
3630.34	-0.00168046	1863547
3640.82	-0.00177856	1866853
3650.21	-0.00186802	1870077
3660.6	-0.00196981	1873457
3670.98	-0.00207061	1876713
3680.33	-0.00214652	1879987
3690.7	-0.00223616	1883709
3700.03	-0.00232482	1887095
3710.39	-0.00243386	1890456
3720.76	-0.00255449	1894027
3730.04	-0.00267231	1897369
3740.3	-0.0028073	1901187
3750.52	-0.00294362	1904637
3760.71	-0.00303517	1908928
3770.8	-0.00316754	1912386
3780.85	-0.00332398	1916452
3790.89	-0.00349769	1919981
3800.93	-0.00367469	1923997
3810.97	-0.00384283	1927961
3820.01	-0.00400089	1931325
3830.07	-0.00419197	1935405
3840.16	-0.00440201	1939150
3850.25	-0.00463045	1943240
3860.36	-0.00487553	1947201
3870.42	-0.00513316	1951288
3880.4	-0.00540023	1955117
3890.38	-0.00567657	1959017
3900.35	-0.00596143	1962703
3910.3	-0.00625355	1966235
3920.23	-0.00655294	1969637
3930.06	-0.00685502	1973129
3940.87	-0.0071922	1976348
3950.7	-0.00750247	1979497
3960.52	-0.00781608	1982666
3970.35	-0.00813481	1985882
3980.19	-0.00846212	1989220
3990.04	-0.00880252	1992213
4000.89	-0.00919457	1995269
4010.69	-0.00956715	1998603
4020.43	-0.00996065	2001836
4030.16	-0.0103725	2005077
4040.87	-0.0112527	2008519
4050.6	-0.0119793	2011501
4060.34	-0.0125837	2014652
4070.07	-0.0131072	2017962
4080.82	-0.0136307	2020872
4090.6	-0.014082	2024214
4100.35	-0.0145206	2027268
4110.09	-0.0149537	2030440
4120.81	-0.0154234	2033833
4130.56	-0.0158395	2036471
4140.3	-0.0162462	2039959
4150.05	-0.0166439	2043145
4160.83	-0.0170723	2046962
4170.67	-0.0174504	2050622
4180.52	-0.0178135	2054366
4190.39	-0.0181601	2058272
4200.28	-0.0184872	2062487
4210.37	-0.0187967	2066325
4220.48	-0.0190785	2070443
4230.59	-0.0193279	2074667
4240.7	-0.0195413	2078576
4250.81	-0.0197154	2082657
4260.89	-0.0198489	2086244
4270.95	-0.0199397	2090687
4280.01	-0.0199885	2094196
4290.07	-0.0200067	2098168
4300.13	-0.019972	2102532
4310.19	-0.0198823	2106687
4320.22	-0.0197399	2110559
4330.19	-0.0195485	2114021
4340.16	-0.0193091	2117976
4350.13	-0.0190225	2122496
4360.1	-0.0186893	2126597
4370.07	-0.0183097	2130444
4380.04	-0.017883	2134639
4390.01	-0.0174097	2138287
4400.98	-0.0168295	2142379
4410.95	-0.0162408	2145900
4420.92	-0.0155894	2149489
4430.89	-0.0150134	2152678
4440.86	-0.014718	2156438
4450.84	-0.0140211	2159533
4460.81	-0.0130558	2162998
4470.78	-0.0119513	2166804
4480.79	-0.0107865	2169922
4490.81	-0.00976657	2173443
4500.8	-0.00828715	2177109
4510.72	-0.00612961	2180558
4520.61	-0.00364509	2184350
4530.47	-0.00103796	2187539
4540.31	0.00174202	2191293
4550.15	0.006401	2194237
4560.98	0.0116245	2197341
4570.82	0.0159004	2200302
4580.66	0.0203883	2203046
4590.5	0.0254221	2205786
4600.34	0.0308917	2208205
4610.18	0.036814	2210334
4620.04	0.0407213	2212811
4630.9	0.0496373	2215777
4640.78	0.0588782	2218286
4650.66	0.0691883	2221686
4660.56	0.0798143	2224064
4670.45	0.0904116	2226497
4680.36	0.102476	2229251
4690.35	0.117297	2232103
4700.34	0.136226	2235053
4710.33	0.154275	2237401
4720.26	0.173785	2239743
4730.19	0.194472	2242267
4740.12	0.215997	2244471
4750.06	0.238726	2247538
4760.98	0.280272	2250788
4770.91	0.317954	2253318
4780.85	0.358639	2255665
4790.78	0.39665	2257850
4800.71	0.434706	2260498
4810.64	0.472009	2263804
4820.61	0.507071	2266585
4830.6	0.540521	2269154
4840.59	0.570354	2272263
4850.58	0.596896	2274629
4860.56	0.619819	2277595
4870.55	0.639283	2279847
4880.54	0.655866	2281749
4890.53	0.669592	2284850
4900.52	0.68097	2287371
4910.51	0.690677	2289592
4920.5	0.696527	2292177
4930.51	0.7019	2294746
4940.55	0.704524	2297594
4950.59	0.706942	2300797
4960.63	0.70773	2304168
4970.67	0.707742	2307384
4980.7	0.707274	2310689
4990.74	0.705846	2314134
5000.81	0.703541	2317266
5010.94	0.700341	2320188
5020.06	0.696588	2323255
5030.19	0.691443	2326613
5040.33	0.68525	2330233
5050.47	0.677945	2333116
5060.63	0.669519	2336655
5070.79	0.659987	2339529
5080	0.650396	2342196
5090.28	0.638699	2345595
5100.65	0.625692	2348226
5111.03	0.61261	2351878
5120.39	0.597821	2354962
5130.8	0.58137	2358532
5140.2	0.56576	2361737
5150.71	0.547025	2365104
5160.2	0.529332	2368448
5170.74	0.508655	2371835
5180.25	0.48919	2374702
5190.87	0.466533	2378262
5200.46	0.445354	2381226
5210.1	0.423301	2384662
5220.65	0.397744	2388107
5230.07	0.350456	2390469
5240.44	0.31164	2393029
5250.86	0.271266	2395761
5260.26	0.238289	2398149
5270.56	0.199529	2400302
5280.87	0.159889	2403202
5290.14	0.123521	2405534
5300.47	0.0808097	2408051
5310.84	0.0379949	2410531
5320.21	-0.00164557	2412361
5330.59	-0.0450689	2414430
5340.1	-0.0840629	2416547
5350.75	-0.126397	2419071
5360.37	-0.162657	2421153
5370.89	-0.200215	2423357
5380.36	-0.231582	2425542
5390.9	-0.263774	2428028
5400.57	-0.290585	2430787
5410.05	-0.314198	2432658
5420.84	-0.338007	2435347
5430.97	-0.357389	2437567
5440.33	-0.372886	2439984
5450.69	-0.387673	2442815
5460.25	-0.399386	2445184
5470.95	-0.41097	2448211
5480.37	-0.419909	2450914
5490.8	-0.427229	2454398
5500.18	-0.433814	2457785
5510.61	-0.441361	2460193
5520.24	-0.448337	2462194
5530.23	-0.456208	2464451
5540.06	-0.46449	2466670
5550.52	-0.474134	2468548
5560.97	-0.484707	2470620
5570.37	-0.494998	2471930
5580.05	-0.506461	2473696
5590.4	-0.519549	2475248
5600.01	-0.532394	2476653
5610.13	-0.546426	2478591
5620.9	-0.561627	2481094
5631.02	-0.575808	2483463
5641.11	-0.589446	2485349
5650.13	-0.600852	2487325
5660.27	-0.612359	2489335
5670.35	-0.62191	2491640
5680.36	-0.628873	2493837
5690.9	-0.631976	2497055
5700.39	-0.632592	2499589
5710.36	-0.630083	2501878
5720.5	-0.626517	2504633
5730.68	-0.621037	2507555
5740.28	-0.613983	2510477
5750.77	-0.604518	2512715
5760.22	-0.593053	2515095
5770.74	-0.576298	2517590
5780.12	-0.557989	2520278
5790.54	-0.535776	2523753
5800.99	-0.511554	2526111
5810.41	-0.460117	2528047
5820.89	-0.397179	2529879
5830.32	-0.331646	2531945
5840.7	-0.263408	2535405
5850.08	-0.200825	2537755
5860.52	-0.134335	2540715
5870.97	-0.0696034	2543658
5880.36	-0.0139571	2546791
5890.79	0.0437385	2549714
5900.18	0.0933868	2553306
5910.61	0.142768	2556685
5920.97	0.187073	2560441
5930.29	0.222462	2563468
5940.75	0.256315	2566511
5950.18	0.281827	2568982
5960.72	0.302689	2572059
5970.14	0.313283	2575019
5980.62	0.321841	2578351
5990.05	0.321321	2581334
6000.59	0.318489	2584463
6010.11	0.313164	2587913
6020.7	0.305668	2591627
6030.19	0.297376	2595630
6040.72	0.286797	2599411
6050.22	0.276224	2602412
6061.07	0.263646	2606128
6070.58	0.250837	2609553
6081	0.23181	2613089
6090.55	0.216119	2616849
6100.12	0.201503	2620765
6110.56	0.184547	2625188
6121.01	0.167778	2629339
6130.49	0.153258	2633888
6140.2	0.138175	2637850
6150.08	0.122875	2641794
6160.72	0.107048	2646051
6170.29	0.093048	2650634
6180.91	0.0775705	2655695
6190.38	0.0641184	2660265
6200.96	0.0494916	2665111
6210.42	0.036497	2670455
6220.8	0.0223823	2674419
6230.52	0.00940112	2678153
6240.23	-0.00346361	2682020
6250.81	-0.0174559	2686232
6260.38	-0.0299651	2690069
6270.95	-0.0435827	2693955
6280.44	-0.0556436	2697539
6290.94	-0.0687573	2701714
6300.38	-0.0802566	2705286
6310.92	-0.092746	2708252
6320.38	-0.103613	2710717
6330.84	-0.115151	2713648
6340.25	-0.124992	2716314
6350.72	-0.135255	2718897
6360.1	-0.143702	2722363
6370.53	-0.15209	2724670
6380.98	-0.15918	2728191
6390.39	-0.164121	2730887
6401.02	-0.168186	2734871
6410.53	-0.170728	2738790
6420.26	-0.171351	2743020
6430.78	-0.170124	2747865
6440.23	-0.168682	2752663
6450.82	-0.165994	2758114
6460.3	-0.163063	2763332
6470.75	-0.159236	2767674
6480.14	-0.155212	2771758
6490.56	-0.150195	2775425
6500.91	-0.144742	2779701
6510.32	-0.139478	2783330
6520.94	-0.133268	2787978
6530.52	-0.127488	2792225
6540.95	-0.121106	2797038
6550.28	-0.11539	2800708
6560.6	-0.109141	2804502
6571.05	-0.10299	2809443
6580.51	-0.0976288	2812848
6590.96	-0.0920075	2817310
6600.3	-0.0872898	2820799
6610.73	-0.0824117	2824899
6620.26	-0.0783333	2829079
6630.84	-0.0742469	2833511
6640.37	-0.0709711	2837649
6651.01	-0.0677589	2842433
6660.69	-0.065236	2846566
6670.14	-0.0631224	2850248
6680.62	-0.0611597	2854696
6690.04	-0.0597086	2858407
6700.46	-0.0584147	2862477
6710.89	-0.0574059	2866586
6720.32	-0.0567022	2870393
6730.84	-0.0561092	2874704
6740.25	-0.0557144	2877389
6750.76	-0.0553841	2881566
6760.31	-0.0551512	2885455
6770.97	-0.0549291	2889521
6780.48	-0.0547347	2892905
6790.95	-0.054494	2896643
6800.33	-0.0542313	2900087
6810.75	-0.0538632	2903313
6820.15	-0.0534435	2906897
6830.71	-0.0528547	2910788
6840.13	-0.0522102	2914381
6850.63	-0.0513463	2918708
6860.1	-0.0504283	2922828
6870.57	-0.0492586	2927951
6881.04	-0.0479276	2932704
6890.47	-0.0465927	2937298
6900.94	-0.0449585	2942881
6910.4	-0.0433484	2946877
6920.9	-0.0414178	2951475
6930.38	-0.0395498	2955407
6941.04	-0.0373155	2959597
6950.52	-0.0352174	2963905
6961.02	-0.032784	2968606
6970.5	-0.0305071	2973006
6980.03	-0.0281515	2976179
6990.62	-0.0254783	2980318
7000.23	-0.0230221	2985262
7010.71	-0.0203343	2990370
7020.14	-0.017928	2995087
7030.64	-0.0152875	3000854
7040.11	-0.0129616	3004681
7050.64	-0.0104605	3008978
7060.17	-0.00828841	3013243
7070.77	-0.00600199	3017624
7080.37	-0.00406007	3021420
7091.03	-0.00206461	3025424
7100.78	-0.000400164	3029886
7110.41	0.00108484	3034208
7120.42	0.00245523	3038285
7130.43	0.00364482	3042651
7140.41	0.0046496	3046968
7150.11	0.00545158	3050720
7160.64	0.00611409	3055128
7170.12	0.00646199	3058616
7180.71	0.0065942	3062708
7190.47	0.00688743	3066581
7200.21	0.00692531	3070819
7211.07	0.0069125	3075765
7220.78	0.00682418	3079729
7230.43	0.00670244	3083742
7240.09	0.00656596	3087778
7250.59	0.00639932	3091886
7261.01	0.00621719	3095935
7270.8	0.00603732	3099433
7280.38	0.00586085	3103174
7290.69	0.00567686	3106698
7300.08	0.00551837	3110241
7310.61	0.00534988	3114857
7320.09	0.00520315	3118370
7330.62	0.00503982	3122492
7340.98	0.00487217	3127441
7350.25	0.00471147	3131033
7360.55	0.00451802	3135522
7370.86	0.00430652	3139487
7380.14	0.00409946	3142846
7390.45	0.00385065	3146133
7400.86	0.00358219	3148950
7410.35	0.0033264	3152290
7420.7	0.00304098	3155388
7431.01	0.00275764	3159105
7440.28	0.00251135	3162218
7450.72	0.00225584	3165607
7460.03	0.00205958	3169436
7470.36	0.00189195	3173084
7480.69	0.00179335	3177400
7491.01	0.00177972	3181311
7500.42	0.00185341	3184322
7510.31	0.0020295	3188198
7520.95	0.00234016	3192416
7530.3	0.00272043	3196808
7540.61	0.00325829	3201259
7550.92	0.00391306	3204811
7560.66	0.00462516	3208872
7570.52	0.00545059	3212644
7580.22	0.00638917	3215431
7591.01	0.007602	3218989
7600.79	0.00884894	3221594
7610.45	0.0101961	3224503
7620.08	0.0115916	3227633
7630.77	0.0131257	3230576
7640.38	0.0146117	3234002
7650.71	0.0162785	3236893
7660.05	0.0177806	3239534
7670.86	0.0194628	3242736
7680.62	0.0209016	3244591
7690.57	0.0222733	3247624
7700.65	0.0235517	3250286
7710.76	0.0247077	3252861
7720.87	0.0257244	3255650
7730.98	0.0265878	3257857
7741.1	0.0272857	3260326
7750.09	0.0277592	3262318
7760.2	0.0281201	3264854
7770.33	0.0282955	3268228
7780.45	0.0282837	3270893
7790.56	0.0280857	3273907
7800.68	0.0277035	3276624
7810.79	0.0271404	3279737
7820.91	0.0264021	3282257
7831.02	0.0254978	3285779
7841.04	0.0244511	3288699
7850.97	0.0232824	3291954
7860.88	0.0220034	3295644
7870.78	0.0206338	3298973
7880.68	0.0191947	3302252
7890.58	0.0177078	3306011
7900.49	0.0161944	3309416
7910.39	0.0146744	3313532
7920.29	0.0131658	3317461
7930.2	0.0116841	3321848
7940.1	0.0102423	3325959
7950.01	0.00885025	3329865
7961.01	0.00737035	3334491
7970.91	0.00610285	3338073
7980.82	0.00489749	3341534
7990.72	0.00375279	3344902
8000.52	0.00267624	3349406
8010.4	0.00164227	3353484
8021.06	0.000576316	3356868
8030.68	-0.000350702	3360457
8040.27	-0.00124784	3363519
8051.03	-0.00223614	3367316
8060.7	-0.00311668	3370343
8070.19	-0.00399132	3373512
8080.64	-0.00497572	3377235
8090.03	-0.00587726	3379892
8100.44	-0.00648701	3383452
8110.89	-0.0067074	3387279
8120.44	-0.0076914	3390216
8130.95	-0.00897388	3395187
8140.22	-0.0101307	3398610
8150.52	-0.0114257	3402961
8160.82	-0.012749	3407271
8170.13	-0.0139825	3411099
8180.65	-0.0154282	3415041
8190.26	-0.0167936	3418365
8200.76	-0.0183343	3422043
8210.23	-0.019763	3424803
8220.76	-0.0213937	3427841
8230.29	-0.022912	3431017
8240.88	-0.0246441	3434428
8250.39	-0.0262458	3437152
8260.06	-0.0279177	3440851
8270.57	-0.029788	3444804
8280.03	-0.0315175	3448678
8290.63	-0.0335058	3452981
8300.22	-0.0353455	3456942
8310.67	-0.0373936	3461814
8320.16	-0.0392874	3465895
8330.79	-0.0414521	3470277
8340.31	-0.0434307	3474818
8350.84	-0.0456634	3478710
8360.22	-0.0476879	3482357
8370.64	-0.0499712	3485389
8380.03	-0.0520496	3487664
8390.45	-0.0543748	3489972
8400.87	-0.0567101	3492417
8410.49	-0.0588677	3494578
8420.99	-0.0612223	3497224
8430.46	-0.0633337	3499395
8440.99	-0.0656556	3501715
8450.41	-0.0677082	3504238
8460.87	-0.0699549	3506574
8470.28	-0.0719415	3509296
8480.74	-0.0740971	3511362
8490.21	-0.0759913	3513110
8500.84	-0.0780438	3515215
8510.44	-0.0798299	3517409
8520.87	-0.0816877	3519908
8530.51	-0.083323	3522066
8540.51	-0.0849188	3524152
8550.5	-0.0863984	3526796
8560	-0.0876828	3529452
8570.48	-0.0889465	3531207
8580.99	-0.0900415	3533200
8590.77	-0.0908972	3534937
8600.31	-0.0915732	3536645
8610.81	-0.0921257	3538812
8620.25	-0.0924448	3541122
8630.75	-0.0925963	3544077
8640.21	-0.0925468	3546934
8650.75	-0.0922813	3549781
8660.26	-0.0918503	3552711
8670.87	-0.0911549	3553977
8680.39	-0.0903395	3556457
8690.86	-0.0892324	3558085
8700.28	-0.0880469	3560013
8710.79	-0.0865143	3562577
8720.25	-0.0849462	3564259
8730.77	-0.0829968	3566336
8740.25	-0.0810562	3567946
8750.81	-0.0786912	3570829
8760.34	-0.0763926	3573555
8770.95	-0.07367	3575686
8780.45	-0.0710619	3578134
8790.92	-0.0664461	3580783
8800.45	-0.0617589	3582254
8810.11	-0.057748	3583630
8820.79	-0.0533231	3584946
8830.34	-0.0490259	3586678
8840.7	-0.0439733	3588267
8850.01	-0.0391736	3590056
8860.54	-0.0336541	3591523
8870.03	-0.0286657	3592983
8880.53	-0.0231063	3594177
8890.88	-0.0175138	3595752
8900.17	-0.0123754	3598158
8910.48	-0.00657573	3599615
8920.83	-0.000706718	3601913
8930.34	0.00468624	3604406
8940.9	0.0106506	3606275
8950.2	0.0158637	3609224
8960.5	0.021587	3610709
8970.82	0.0272365	3611985
8980.2	0.0322751	3613155
8990.7	0.0377811	3614594
9000.14	0.0425902	3615616
9010.61	0.0477454	3617724
9020.98	0.0526535	3620264
9030.27	0.0568597	3621253
9040.59	0.0613046	3623403
9050.93	0.0655012	3624910
9060.43	0.069119	3627515
9070.89	0.0728333	3630812
9080.27	0.0759157	3633208
9090.62	0.07904	3636612
9100.01	0.0816148	3639554
9110.42	0.0841754	3642235
9120.73	0.0864068	3644716
9131.03	0.0884229	3648880
9140.4	0.0899147	3651905
9150.92	0.0913844	3656454
9160.38	0.0923532	3659706
9170.83	0.0932844	3664113
9180.18	0.0935038	3667932
9190.57	0.093918	3672696
9200.96	0.0941403	3677631
9210.31	0.0941733	3681127
9220.71	0.0942903	3685624
9230.01	0.0940585	3688540
9240.35	0.0937002	3691453
9250.7	0.0932344	3694662
9260.14	0.092723	3697489
9270.59	0.0920729	3701858
9281.02	0.0913493	3705828
9290.4	0.0906464	3709061
9300.86	0.0898232	3711912
9310.23	0.089064	3714188
9320.67	0.0882072	3718225
9331.03	0.0873588	3720277
9340.44	0.0865991	3723096
9350.84	0.0857791	3725814
9360.23	0.0850612	3728084
9370.74	0.0842887	3731988
9380.13	0.0836327	3734785
9390.54	0.0829474	3736956
9400.88	0.0823137	3740233
9410.17	0.0817927	3742945
9420.54	0.0812727	3745726
9430.88	0.0807333	3749418
9440.16	0.080357	3752293
9450.5	0.0800642	3756232
9460.83	0.0798269	3759244
9470.18	0.0796352	3761850
9480.58	0.0794185	3763259
9490.96	0.0792329	3765540
9500.28	0.0790979	3767771
9510.7	0.0789727	3769228
9520.1	0.0788687	3771248
9530.4	0.0787521	3773888
9540.81	0.0786207	3777094
9550.1	0.0784924	3778705
9560.43	0.0783413	3780173
9570.85	0.0781796	3782196
9580.22	0.0780207	3784134
9590.57	0.0778225	3785076
9600.93	0.0775924	3785839
9610.38	0.0773501	3785597
9620.85	0.0770421	3786431
9630.28	0.0767272	3787214
9640.74	0.0763346	3787301
9650.17	0.07594	3787842
9660.6	0.0754579	3788502
9671.03	0.0749283	3789902
9680.47	0.0744085	3791067
9691.03	0.073783	3790346
9700.55	0.0731799	3790437
9710.88	0.0724846	3790384
9720.17	0.0718243	3791307
9730.53	0.071048	3792188
9740.94	0.0702096	3792597
9750.33	0.069392	3793486
9760.84	0.0684259	3793118
9770.32	0.0675195	3793709
9780.77	0.0664875	3794049
9790.13	0.0655303	3794496
9800.46	0.0644352	3795471
9810.78	0.0632952	3796264
9820.07	0.0622325	3796154
9830.4	0.0610133	3796666
9840.75	0.0597356	3796153
9850.13	0.0585235	3795106
9860.59	0.0571824	3793676
9870.98	0.0557886	3793487
9880.33	0.054308	3792866
9890.65	0.052396	3793090
9900.95	0.0507812	3793287
9910.23	0.0488691	3794470
9920.55	0.04655	3794749
9931.01	0.0439626	3795754
9940.4	0.0416341	3796929
9950.91	0.0391129	3798114
9960.34	0.0368954	3799406
9970.78	0.034406	3802008
9980.08	0.0321008	3803954
9990.41	0.0282673	3807362
10000.7	0.0237945	3810200
10010.1	0.0206607	3812621
10020.4	0.0170495	3814682
10030.9	0.0133108	3817170
10040.3	0.00995162	3819620
10050.7	0.00628975	3822488
10060	0.00310946	3824737
10070.4	-0.000409163	3827688
10080.9	-0.0039492	3829520
10090.2	-0.00716003	3831730
10100.6	-0.0106904	3833959
10110.9	-0.0141807	3836328
10120.1	-0.0172695	3837454
10130.4	-0.0206284	3838425
10140.8	-0.0239026	3839935
10150	-0.0267737	3842239
10160.4	-0.0298823	3845056
10170.7	-0.0329083	3846675
10180.1	-0.0355555	3848395
10190.5	-0.0384187	3850223
10201	-0.0411727	3852998
10210.4	-0.0435538	3856205
10220.8	-0.0460617	3860827
10230.2	-0.0481956	3864467
10240.7	-0.0504325	3869242
10250.1	-0.0523174	3872189
10260.7	-0.0542888	3875707
10270.1	-0.0560372	3878986
10280.6	-0.0576442	3881769
10290.1	-0.0590532	3884352
10300.6	-0.0603492	3886468
10310.1	-0.0614349	3888071
10320.6	-0.0628628	3889784
10330.1	-0.0634606	3891510
10340.6	-0.0643182	3893965
10350.1	-0.0649302	3896183
10360.6	-0.0656036	3898369
10370.1	-0.0661061	3901098
10380.7	-0.0662909	3904599
10390.1	-0.0664747	3907283
10400.6	-0.0666462	3911378
10411	-0.0667571	3913917
10420.4	-0.0667779	3916486
10430.9	-0.0667185	3919915
10440.4	-0.0666266	3922192
10450.9	-0.0664775	3924851
10460.4	-0.0662809	3927200
10470.8	-0.0659813	3931198
10480.2	-0.0656382	3933529
10490.5	-0.0651803	3936240
10500.8	-0.0646493	3939652
10510.1	-0.0641104	3942218
10520.5	-0.0634448	3946336
10530.9	-0.0627049	3948630
10540.3	-0.0619747	3952107
10550.7	-0.0611052	3955889
10560.1	-0.0602672	3959573
10570.4	-0.0592869	3963785
10580.7	-0.0582568	3966989
10590	-0.0572882	3969979
10600.3	-0.0561695	3973124
10610.7	-0.0549992	3976081
10620.1	-0.0539161	3978172
10630.6	-0.0526791	3981179
10640.1	-0.051537	3983286
10650.4	-0.0502665	3986222
10660.7	-0.0489782	3989920
10670	-0.0478039	3991715
10680.3	-0.0464523	3994628
10690.8	-0.0450325	3998387
10700.1	-0.0437882	4001056
10710.4	-0.04245	4004203
10720.7	-0.0411523	4007773
10731	-0.0398772	4011087
10740.3	-0.0387377	4013500
10750.7	-0.0374811	4017129
10761	-0.0362368	4019999
10770.5	-0.0351188	4022396
10781	-0.0338922	4025065
10790.4	-0.0328188	4028568
10801	-0.0316622	4031350
10810.5	-0.0306608	4033592
10820.9	-0.0296084	4036689
10830.2	-0.0287191	4038543
10840.7	-0.0277823	4041815
10851	-0.026921	4044096
10860.3	-0.0262068	4045452
10870.7	-0.0254827	4047124
10880.2	-0.0248927	4049179
10890.8	-0.02432	4051262
10900.2	-0.0238847	4054094
10910.6	-0.0234898	4056482
10920.9	-0.0231853	4059604
10930.2	-0.0229741	4062013
10940.5	-0.0228352	4065142
10951	-0.0228098	4068085
10960.4	-0.0228803	4070311
10970.8	-0.0230542	4072256
10980.3	-0.0232956	4074880
10990.8	-0.0236554	4078463
11000.2	-0.0240649	4081135
11010.8	-0.024613	4084092
11020.2	-0.0251852	4086543
11030.5	-0.0259056	4089405
11040.9	-0.0267186	4091965
11050.2	-0.0275271	4092155
11060.5	-0.0285076	4094159
11070.9	-0.0295763	4096175
11080.3	-0.030615	4098210
11090.8	-0.0318339	4099963
11100.1	-0.0329801	4101815
11110.5	-0.0343112	4102706
11120.9	-0.0356967	4104552
11130.3	-0.0369892	4105988
11140.7	-0.038466	4107816
11150.2	-0.0398307	4108257
11160.7	-0.0413777	4109936
11170.1	-0.0427828	4110626
11180.5	-0.0443552	4112230
11190.9	-0.0459361	4113868
11200.3	-0.0473674	4115723
11211	-0.0489824	4117946
11220.4	-0.0504129	4119416
11230.8	-0.0519845	4120471
11240.4	-0.0534051	4121586
11250.1	-0.0548208	4121689
11260.7	-0.0563484	4122906
11270.2	-0.0576731	4123162
11280.7	-0.0591036	4124259
11290.1	-0.0603459	4124641
11300.6	-0.0616749	4123494
11310.1	-0.062827	4122997
11320.6	-0.0640482	4123583
11330.1	-0.0650893	4124262
11340.5	-0.0661684	4125331
11350.7	-0.0671711	4126137
11360.9	-0.0681015	4127792
11371	-0.0689638	4128967
11380.1	-0.0696892	4130231
11390.2	-0.0704406	4131417
11400.3	-0.0711311	4132415
11410.4	-0.0717554	4133646
11420.5	-0.072312	4135052
11430.6	-0.0728039	4136419
11440.7	-0.0732321	4137677
11450.8	-0.0735942	4139117
11460.9	-0.0738837	4141063
11471	-0.0741144	4143320
11480.1	-0.0742792	4145362
11490.2	-0.0744243	4148709
11500.3	-0.0745373	4151964
11510.4	-0.0746229	4155275
11520.5	-0.074685	4158038
11530.5	-0.0747271	4161815
11540.6	-0.074754	4164947
11550.7	-0.0747727	4168154
11560.8	-0.0747838	4170912
11570.9	-0.0747836	4173751
11580	-0.0747727	4176521
11590.1	-0.0747512	4179713
11600.3	-0.0747242	4182523
11610.5	-0.074697	4184400
11620.9	-0.0746743	4186058
11630.4	-0.0746616	4187097
11640.9	-0.0746596	4188376
11650.4	-0.0746704	4189339
11661	-0.0746972	4189937
11670.5	-0.0747352	4190153
11681	-0.0747928	4191350
11690.5	-0.0748586	4191841
11700	-0.0749372	4193640
11710.5	-0.0750391	4195879
11720.2	-0.0751454	4198080
11731	-0.0752766	4200025
11740.7	-0.0754045	4201516
11750.4	-0.0755395	4204590
11760.1	-0.0756791	4207308
11770.8	-0.0758362	4210731
11780.5	-0.0759758	4214289
11790.2	-0.0761103	4217239
11801	-0.0762496	4220441
11810.7	-0.0763622	4223606
11820.3	-0.0764592	4226167
11830.9	-0.0765454	4228670
11840.5	-0.0765993	4231372
11850.1	-0.0766253	4233271
11860.8	-0.0766285	4234819
11870.5	-0.076589	4234942
11880.2	-0.0764943	4236994
11890.7	-0.0763253	4238346
11900.2	-0.0761187	4238856
11910.8	-0.075827	4240100
11920.5	-0.0755108	4241092
11930.2	-0.0751442	4241952
11941	-0.0746765	4243353
11950.5	-0.0742067	4244359
11961	-0.0736335	4245825
11970.4	-0.0730608	4246403
11980.9	-0.0723626	4248259
11990.3	-0.0716814	4249466
12000.6	-0.070876	4249952
12011	-0.0700121	4250614
12020.3	-0.0691862	4249899
12030.6	-0.0682432	4250351
12040.1	-0.0673523	4250935
12050.5	-0.0662939	4251754
12061	-0.0651613	4252819
12070.4	-0.0640866	4253269
12081	-0.0628287	4254357
12090.5	-0.0616388	4256263
12101	-0.0602659	4259457
12110.4	-0.0589762	4262141
12120.9	-0.0574891	4263164
12130.4	-0.056112	4264682
12140.9	-0.0545695	4266141
12150.4	-0.0531728	4268619
12160.8	-0.0516192	4270505
12170.2	-0.0502095	4271198
12180.7	-0.0486216	4272801
12190.1	-0.0471902	4274192
12200.5	-0.0456011	4274806
12211	-0.044011	4275046
12220.4	-0.0425735	4275344
12230.9	-0.0409842	4276254
12240.4	-0.039568	4275364
12250.9	-0.0380122	4274159
12260.4	-0.03663	4274041
12270.1	-0.0352426	4273587
12280.6	-0.0337605	4273189
12290.1	-0.0324537	4272951
12300.7	-0.0310345	4272513
12310.2	-0.0297824	4273074
12320.9	-0.0284087	4272251
12330.5	-0.0271861	4271984
12340.2	-0.0259891	4271835
12351	-0.0246929	4271237
12360.6	-0.0235493	4271115
12370.3	-0.0224275	4270653
12381	-0.0212003	4271540
12390.7	-0.0201143	4272016
12400.3	-0.0190621	4273223
12410.8	-0.017914	4273776
12420.3	-0.0168915	4274902
12430.8	-0.0157656	4275747
12440.2	-0.0147572	4276850
12450.8	-0.013632	4278804
12460.3	-0.0126239	4281395
12470.9	-0.0114972	4283473
12480.4	-0.0104761	4285225
12491	-0.00933265	4286580
12500.4	-0.00829654	4287734
12511	-0.00713007	4288925
12520.5	-0.00606544	4290570
12531	-0.00486369	4292811
12540.5	-0.00376322	4293973
12550	-0.00264306	4295936
12560.6	-0.00137336	4297727
12570.1	-0.00020639	4300494
12580.6	0.00111899	4302753
12590.1	0.00233916	4304353
12600.7	0.00372677	4306555
12610.2	0.00500547	4307899
12620.7	0.00646059	4310702
12630.2	0.00780195	4311870
12640.8	0.00932699	4313788
12650.3	0.0107326	4315045
12660.8	0.01233	4316575
12670.3	0.0138016	4318597
12680.8	0.0154765	4319756
12690.3	0.0170172	4320850
12700.9	0.0187661	4321400
12710.4	0.0203732	4321755
12720.9	0.0221952	4322177
12730.4	0.0238671	4323302
12741	0.0257578	4323494
12750.4	0.0274753	4324781
12760.7	0.0293887	4324980
12771	0.0313425	4325400
12780.3	0.0331376	4325816
12790.6	0.0351013	4325835
12801	0.037114	4326115
12810.4	0.0390391	4326552
12820.9	0.0412603	4327392
12830.4	0.0432957	4328380
12840.9	0.0455821	4329634
12850.4	0.0476544	4331240
12860.9	0.0499695	4332989
12870.4	0.0520854	4334696
12880.9	0.0544178	4337454
12890.2	0.0564976	4339576
12900.6	0.0587906	4342238
12910	0.0608529	4345101
12920.6	0.0631482	4347409
12930.1	0.0652141	4349567
12940.6	0.0675087	4351247
12950.1	0.0695646	4352531
12960.7	0.0718298	4354831
12970.2	0.0738469	4356286
12980.7	0.0760559	4358256
12990.2	0.0780219	4359245
13000.6	0.0801602	4360556
13010.1	0.0820628	4361271
13020.6	0.0841558	4362359
13030.1	0.0860015	4363179
13040.6	0.0880059	4364976
13050.1	0.0897684	4366680
13060.7	0.0916791	4367581
13070.2	0.0933513	4368230
13080.6	0.0951378	4368060
13090.1	0.0967092	4367945
13100.7	0.0983962	4367706
13110.2	0.0998588	4367595
13120.7	0.10142	4367528
13130.2	0.102766	4367875
13140.8	0.104196	4368778
13150.2	0.105407	4369840
13160.6	0.10668	4371061
13170.1	0.107769	4371650
13180.6	0.108907	4373867
13190	0.109868	4375523
13200.6	0.110866	4377596
13210.1	0.1117	4379113
13220.6	0.112552	4381914
13230.1	0.113254	4384452
13240.5	0.113957	4386776
13250.9	0.114582	4389173
13260.3	0.115085	4390690
13270.8	0.11558	4391256
13280.3	0.115967	4392647
13290.8	0.11633	4394179
13300.3	0.116599	4395057
13310.8	0.116833	4397568
13320.2	0.11699	4400365
13330.7	0.117107	4401949
13340	0.117164	4403562
13350.5	0.117177	4405799
13360	0.117145	4407170
13370.6	0.117063	4408208
13380	0.116951	4408794
13390.6	0.116787	4410470
13400.2	0.116604	4410908
13410.8	0.116368	4411992
13420.2	0.11613	4413349
13430.7	0.115838	4413878
13440.1	0.115555	4414204
13450.6	0.115218	4414762
13461	0.114861	4415486
13470.3	0.114526	4415844
13480.6	0.11414	4415790
13490.9	0.11374	4416617
13500.2	0.11337	4417345
13510.5	0.112949	4417865
13520.9	0.112514	4418430
13530.4	0.112113	4419082
13540.7	0.111668	4418326
13550.1	0.11126	4418415
13560.5	0.110804	4417824
13571	0.110343	4417235
13580.4	0.109924	4415903
13590.9	0.109456	4415982
13600.3	0.109034	4416369
13610.8	0.108563	4417579
13620.2	0.108138	4418018
13630.5	0.107668	4418096
13640.9	0.107189	4419227
13650.3	0.106753	4420188
13660.7	0.106266	4421455
13670.1	0.105823	4422910
13680.4	0.105325	4424806
13690.9	0.104812	4425070
13700.3	0.104342	4425914
13710.6	0.103817	4425696
13720.9	0.103279	4425371
13730.2	0.102784	4425663
13740.5	0.10222	4425422
13750.8	0.101639	4424727
13760.3	0.10109	4424359
13770.8	0.10046	4424199
13780.3	0.0998783	4424193
13790.6	0.0992117	4425276
13801	0.0985169	4426543
13810.3	0.0978628	4427083
13820.7	0.0970961	4427768
13830.1	0.0963705	4428301
13840.5	0.0955224	4429776
13851	0.0946279	4431044
13860.3	0.0937878	4432533
13870.6	0.0928129	4434080
13881	0.09178	4435977
13890.4	0.0908039	4437949
13900.8	0.0896697	4440325
13910.2	0.0886041	4441794
13920.6	0.0873714	4443515
13931	0.0860895	4445621
13940.3	0.0848984	4447795
13950.6	0.0835267	4448544
13960.9	0.0821008	4449767
13970.3	0.0807613	4450541
13980.7	0.0792201	4451893
13990.1	0.0777955	4454002
14000.5	0.0761614	4456043
14010.9	0.0744791	4457312
14020.3	0.0729245	4458351
14030.8	0.0711456	4459303
14040.1	0.0695258	4460444
14050.4	0.0676865	4460370
14060.7	0.0658015	4459617
14071	0.0638705	4459449
14080.2	0.0620929	4459577
14090.7	0.0600528	4459246
14100.1	0.0581719	4459339
14110.5	0.0560593	4458283
14120.8	0.0539028	4459033
14130.1	0.0519438	4459986
14140.5	0.0497353	4461174
14150.8	0.0474967	4461898
14160.1	0.0454579	4462148
14170.6	0.0431276	4464079
14180.1	0.04101	4465181
14190.4	0.0386877	4466440
14200.7	0.0363588	4466534
14210	0.0342524	4466558
14220.5	0.0318767	4466060
14230	0.0297234	4465732
14240.4	0.0273608	4466203
14250.8	0.0250053	4463767
14260.2	0.0228951	4463468
14270.5	0.0205594	4462822
14281	0.0182264	4461783
14290.4	0.0161096	4460392
14301	0.013771	4458217
14310.5	0.0116789	4457952
14321	0.00936963	4457916
14330.5	0.00730641	4457374
14340	0.00525822	4456965
14350.4	0.00304323	4457030
14360.7	0.000852747	4456797
14370	-0.00110197	4456038
14380.3	-0.00325524	4455843
14390.7	-0.00539084	4454819
14401	-0.00750673	4453553
14410.5	-0.00942098	4452181
14420.8	-0.0115069	4450386
14430.2	-0.0133739	4448026
14440.8	-0.015457	4445515
14450.3	-0.0173156	4443538
14460.7	-0.0193434	4440800
14470.2	-0.0211716	4438243
14480.8	-0.023187	4434732
14490.3	-0.0249872	4431595
14500.8	-0.026973	4429384
14510.3	-0.0287471	4426890
14520.8	-0.0307038	4423965
14530.3	-0.0324559	4421138
14540.9	-0.0343916	4417471
14550.4	-0.036124	4413944
14560.7	-0.0380066	4411728
14570	-0.0396855	4408148
14580.4	-0.0415428	4404685
14590.8	-0.0434035	4401186
14600.2	-0.0450814	4398498
14610.6	-0.0469395	4394928
14620	-0.0486065	4391581
14630.5	-0.0504603	4387305
14640.9	-0.0522983	4384189
14650.3	-0.0539458	4381575
14660.7	-0.055771	4379443
14670.2	-0.0574227	4376729
14680.7	-0.0592531	4374347
14690.2	-0.0608938	4371744
14700.7	-0.0627097	4367817
14710.1	-0.0643346	4364599
14720.7	-0.0661328	4358895
14730.2	-0.0677447	4354551
14740.7	-0.0695206	4349502
14750.1	-0.0710902	4344930
14760.6	-0.0728098	4339657
14771	-0.0745048	4334009
14780.4	-0.0760031	4329232
14790.8	-0.0776464	4323421
14800.3	-0.0791073	4318017
14810.8	-0.0806991	4311254
14820.2	-0.0820966	4305995
14830.6	-0.0836123	4298904
14840.1	-0.0849491	4292855
14850.6	-0.0863981	4285392
14860	-0.0876572	4278329
14870.5	-0.0890116	4270930
14881	-0.0903261	4264113
14890.5	-0.0914629	4258204
14901	-0.0926765	4251237
14910.4	-0.0937159	4245193
14920.9	-0.0948127	4237921
14930.4	-0.0957531	4232991
14940.8	-0.096729	4228621
14950.2	-0.0975512	4224413
14960.6	-0.0984053	4218266
14971	-0.0991959	4211977
14980.4	-0.0998516	4206402
14990.8	-0.100518	4200256
15000.2	-0.101063	4194941
15010.6	-0.101609	4187720
15021	-0.102091	4181659
15030.4	-0.102473	4174869
15040.9	-0.102835	4167527
15050.3	-0.103102	4162044
15060.7	-0.103329	4154747
15070	-0.103473	4148978
15080.4	-0.103567	4142609
15091	-0.103593	4136110
15100.3	-0.103557	4130322
15110.6	-0.103454	4123675
15120.9	-0.103284	4117141
15130.1	-0.103075	4111124
15140.3	-0.102782	4104744
15150.4	-0.102424	4097970
15160.6	-0.102001	4092107
15170.8	-0.101512	4085193
15181	-0.100957	4078048
15190.1	-0.1004	4072242
15200.3	-0.0997168	4065450
15210.5	-0.098965	4058667
15220.7	-0.0981432	4051617
15230.9	-0.0972499	4044462
15240	-0.0963834	4037433
15250.2	-0.095349	4029717
15260.4	-0.0942372	4022209
15270.5	-0.0930456	4014613
15280.7	-0.0917717	4006944
15290.9	-0.0904132	3999950
15300.1	-0.0891166	3993472
15310.2	-0.0875918	3985586
15320.4	-0.0859771	3977882
15330.6	-0.0842711	3970980
15340.8	-0.082473	3962959
15351	-0.0805823	3955513
15360.1	-0.0788014	3949199
15370.3	-0.0767352	3941520
15380.5	-0.0745781	3934413
15390.7	-0.0723324	3926761
15400.9	-0.0688309	3919844
15410.2	-0.0661797	3913834
15420.5	-0.0635519	3906702
15430.9	-0.0608764	3899254
15440.3	-0.0583324	3893184
15450.9	-0.055415	3886447
15460.3	-0.0527092	3879214
15470.8	-0.0496058	3871561
15480.3	-0.0467279	3865024
15490.8	-0.0434428	3858561
15500.3	-0.0404451	3852127
15510.7	-0.0371509	3844552
15520	-0.0342285	3837958
15530.3	-0.0310044	3832153
15540.5	-0.0277093	3825431
15550.6	-0.0254966	3818737
15560.8	-0.0224583	3811564
15571	-0.0186531	3805017
15580.1	-0.0151414	3798786
15590.3	-0.0112382	3791787
15600.5	-0.00710693	3784310
15610.7	-0.00295841	3777582
15620.9	0.00106537	3770277
15630	0.00446438	3763444
15640.2	0.00807536	3756319
15650.4	0.0116005	3749212
15660.6	0.0150726	3743255
15670.7	0.0184581	3736720
15680.9	0.021705	3730053
15690.1	0.0244857	3724364
15700.3	0.0274205	3718255
15710.4	0.0302094	3712397
15720.6	0.0328617	3706387
15730.8	0.0353682	3701351
15741	0.037708	3694549
15750.1	0.0396555	3688292
15760.3	0.0416345	3681813
15770.6	0.0434409	3674947
15780.1	0.0449229	3668658
15790.7	0.0463708	3660633
15800.2	0.047498	3654562
15810.7	0.0485549	3647020
15820.2	0.049378	3640505
15830.8	0.0501026	3633457
15840.2	0.0508009	3627213
15850.5	0.0508051	3620849
15860.9	0.0505683	3613249
15870.4	0.0501282	3607007
15880.9	0.0494203	3600017
15890.3	0.0485968	3593702
15900.7	0.0475035	3586439
15910.1	0.0463603	3579343
15920.4	0.0449025	3571216
15930.9	0.0432101	3562972
15940.3	0.0415201	3555293
15950.7	0.0394737	3547480
15960.1	0.0374898	3540285
15970.5	0.0351307	3532495
15980.9	0.0326252	3525245
15990.4	0.030182	3517658
16000.9	0.0273163	3509684
16010.4	0.0246166	3503224
16020.9	0.0215156	3496195
16030.4	0.0186483	3489871
16040.8	0.0154036	3483745
16050.2	0.0124327	3478022
16060.6	0.00910459	3471320
16070.1	0.00604961	3464687
16080.7	0.00287863	3456901
16090.2	0.00088828	3449986
16100.7	-0.00328213	3442584
16110.2	-0.00720853	3435441
16120.8	-0.0115775	3427873
16130.3	-0.0157014	3420246
16140.8	-0.0205786	3412930
16150	-0.0246869	3405845
16160.3	-0.0290347	3398096
16170.9	-0.03333	3390553
16180.4	-0.0371724	3384840
16190.9	-0.0414909	3377985
16200.2	-0.0453651	3372602
16210.5	-0.0496236	3366159
16220.8	-0.0537447	3359673
16230.1	-0.0573055	3354136
16240.4	-0.0611178	3347717
16250.7	-0.0648053	3340706
16260	-0.0680126	3333885
16270.3	-0.0714119	3327090
16280.6	-0.0745894	3319264
16290	-0.0772673	3312459
16300.6	-0.0800194	3304616
16310	-0.0822592	3298025
16320.6	-0.084518	3290194
16330	-0.0863172	3283777
16340.4	-0.0880269	3276508
16350.8	-0.0894541	3270612
16360.2	-0.0905207	3264122
16370.8	-0.0913781	3257843
16380.3	-0.0921011	3251828
16390.8	-0.0920226	3244713
16400.3	-0.0916271	3238544
16410.8	-0.0912666	3232191
16420.3	-0.090772	3225537
16430.9	-0.0900529	3217985
16440.4	-0.0892301	3211936
16450.9	-0.0881009	3204916
16460.4	-0.0869382	3198066
16470.9	-0.085526	3190498
16480.4	-0.0841565	3183302
16490.9	-0.0825167	3175913
16500.4	-0.080934	3169391
16511	-0.0784247	3162584
16520.5	-0.0756514	3155775
16531	-0.0728962	3149325
16540.3	-0.0705558	3143204
16550.6	-0.0679608	3136418
16561	-0.0652777	3129985
16570.3	-0.0628003	3124343
16580.7	-0.0599707	3118715
16590.1	-0.0573436	3113248
16600.6	-0.0544388	3108174
16610	-0.0518462	3103330
16620.5	-0.0490244	3097757
16630.9	-0.0462814	3091760
16640.3	-0.0438789	3086300
16650.8	-0.0412785	3080221
16660.2	-0.0389826	3074064
16670.7	-0.0364768	3068507
16680.2	-0.0342813	3063797
16690.7	-0.0319467	3059519
16700.1	-0.0299464	3054433
16710.7	-0.0278483	3049076
16720.1	-0.0260879	3044660
16730.6	-0.0242712	3038818
16740	-0.0227652	3033177
16750.5	-0.0212235	3027417
16760.9	-0.0198145	3021315
16770.3	-0.0186531	3015527
16780.8	-0.0174767	3009202
16790.3	-0.0164742	3003865
16800.9	-0.0154902	2998669
16810.4	-0.0146938	2993092
16820.9	-0.0139856	2986996
16830.3	-0.0133363	2981224
16840.8	-0.0127885	2974687
16850.3	-0.0125789	2969534
16860.8	-0.0121325	2963305
16870.3	-0.0117415	2956378
16880.9	-0.011332	2949994
16890.3	-0.0110125	2943829
16900.9	-0.0106714	2937141
16910.2	-0.0103208	2930681
16920.5	-0.0100238	2923343
16930.9	-0.00978028	2916257
16940.4	-0.00956362	2909297
16950.9	-0.00932499	2902799
16960.4	-0.00911286	2896634
16970.9	-0.00887851	2888930
16980.3	-0.0086684	2882223
16990.9	-0.00843398	2874965
17000.3	-0.00822054	2868967
17010.8	-0.00797679	2861792
17020.3	-0.0077463	2855616
17030.9	-0.0074741	2848929
17040.3	-0.00721355	2842789
17050.9	-0.00690589	2836631
17060.3	-0.00661525	2831283
17070.6	-0.00627791	2824624
17080.9	-0.0059203	2818899
17090.3	-0.00557742	2812933
17100.9	-0.00517037	2807440
17110.4	-0.00478448	2801375
17120.9	-0.00433394	2795470
17130.4	-0.00390915	2790754
17141	-0.00341636	2784547
17150.5	-0.00295497	2778924
17161	-0.00242374	2773113
17170.5	-0.00193027	2767987
17180	-0.00142371	2763133
17190.6	-0.000847389	2756478
17200.1	-0.000318391	2750948
17210.6	0.000278655	2744340
17220.1	0.000822335	2738561
17230.7	0.00143102	2732410
17240.1	0.0019773	2727347
17250.5	0.00257861	2722426
17260.9	0.00317668	2717081
17270.3	0.00371056	2712447
17280.8	0.00430264	2706803
17290.3	0.00482456	2702528
17300.9	0.00538917	2697285
17310.4	0.00588102	2692980
17320.9	0.00640678	2687552
17330.4	0.00685935	2682985
17341	0.00733741	2677931
17350.5	0.00774394	2672937
17361	0.00816795	2666919
17370.5	0.0085236	2661711
17381.1	0.00888886	2655394
17390.6	0.00918987	2650112
17400	0.00946396	2645044
17410.6	0.00973632	2639282
17420.1	0.00995211	2634772
17430.6	0.010159	2629490
17440.1	0.0103155	2624788
17450.7	0.0104564	2619689
17460.2	0.0105536	2615364
17470.7	0.0106288	2610357
17480.2	0.0106672	2606386
17490.8	0.0106778	2601297
17500.3	0.010659	2596443
17510.8	0.0106079	2591642
17520.3	0.0105364	2587364
17530.8	0.0104321	2583273
17540.3	0.0103169	2579205
17550.9	0.0101683	2574452
17560.4	0.0100227	2569961
17570.9	0.00986208	2565240
17580.4	0.00971985	2560787
17591	0.00955022	2555505
17600.5	0.0093712	2550729
17611	0.00912991	2545681
17620.5	0.00872929	2541910
17631.1	0.00745436	2537766
17640.6	0.00667636	2533943
17650	0.00614155	2530096
17660.6	0.00570888	2525703
17670.1	0.00537142	2521666
17680.6	0.0049978	2517002
17690.1	0.00464633	2513364
17700.7	0.00423938	2509279
17710.2	0.00386601	2506393
17720.5	0.00345919	2501793
17730.8	0.00305993	2497366
17740.1	0.00271172	2493388
17750.6	0.00233633	2488774
17760.1	0.00201505	2484758
17770.6	0.00168155	2480225
17780.1	0.00140439	2475499
17790.7	0.00112372	2470422
17800.2	0.000896926	2465807
17810.7	0.000674812	2461112
17820.2	0.000502644	2455700
17830.8	0.000343018	2450223
17840.3	0.000228282	2445944
17850.8	0.000133331	2441439
17860.3	7.73512e-05	2437133
17870.9	4.78716e-05	2432778
17880.3	5.03307e-05	2428295
17890.7	8.4222e-05	2423966
17900.1	0.000142044	2419733
17910.5	0.000235741	2414480
17921	0.000359906	2409540
17930.4	0.000496475	2404833
17940.9	0.000675047	2399400
17950.4	0.000872163	2394756
17960.9	0.00108953	2389862
17970.3	0.00130137	2386616
17980.8	0.00155584	2382011
17990.2	0.00180242	2377341
18000.7	0.00209415	2372034
18010.1	0.00240836	2368265
18020.7	0.00276106	2363879
18030.2	0.00305981	2360366
18040.7	0.00337719	2355831
18050.2	0.00365745	2352543
18060.7	0.00396624	2349261
18070.1	0.00424451	2345922
18080.7	0.00455539	2341860
18090.1	0.00483211	2338907
18100.6	0.00513081	2335131
18111	0.00541833	2331475
18120.3	0.00566272	2328341
18130.6	0.00591676	2324890
18140.9	0.00615121	2321914
18150.2	0.00634419	2318208
18160.7	0.0065398	2315243
18170.1	0.00669438	2312218
18180.6	0.00684201	2308167
18190	0.00695275	2304568
18200.6	0.00705068	2300118
18210.1	0.00711483	2297295
18220.5	0.00715891	2294263
18231	0.00717441	2289752
18240.5	0.00716378	2286666
18251	0.00712441	2282794
18260.5	0.00706427	2279952
18270	0.00698083	2276990
18280.6	0.00686092	2273509
18290.1	0.00672895	2270792
18300.6	0.00655647	2267530
18310.1	0.00637908	2263916
18320.7	0.0061588	2260623
18330.1	0.00594098	2257334
18340.7	0.00567858	2253818
18350.1	0.00542793	2250780
18360.4	0.00513594	2246894
18370.7	0.0048272	2243353
18381	0.00450295	2239519
18390.3	0.00419862	2236191
18400.7	0.00384439	2232729
18410.2	0.00351251	2229466
18420.8	0.00313417	2225697
18430.2	0.00278811	2222495
18440.7	0.00239947	2218194
18450.2	0.00204208	2214753
18460.7	0.00164304	2210460
18470.2	0.00128171	2207112
18480.7	0.000879364	2202972
18490.2	0.000519903	2200107
18500.6	0.00012619	2196064
18510.1	-0.000229728	2192535
18520.6	-0.000617334	2188951
18530	-0.000962618	2185212
18540.6	-0.00134087	2180546
18550.1	-0.00167435	2176605
18560.6	-0.00203619	2172221
18570.1	-0.00235319	2168652
18580.7	-0.00269475	2164860
18590.2	-0.00299165	2161824
18600.7	-0.00330877	2158321
18610.2	-0.00358179	2155092
18620.8	-0.00387042	2151475
18630.3	-0.00411624	2148193
18640.8	-0.00437325	2144542
18650.3	-0.00458966	2141360
18660.9	-0.00481326	2138181
18670.4	-0.00499921	2135345
18680.9	-0.00518879	2131742
18690.4	-0.00534413	2127714
18701	-0.00549982	2124303
18710.5	-0.00562484	2120987
18721	-0.0057471	2117521
18730.5	-0.0058422	2114132
18740	-0.00592317	2111462
18750.6	-0.00599646	2107864
18760.1	-0.00604723	2104973
18770.6	-0.00608644	2101925
18780.1	-0.00610584	2099078
18790.7	-0.0061092	2096186
18800.2	-0.00609525	2093352
18810.7	-0.00606011	2090834
18820.2	-0.00601002	2088394
18830.8	-0.00593282	2085839
18840.3	-0.00584294	2083984
18850.8	-0.00571911	2081860
18860.3	-0.00558491	2079837
18870.9	-0.00540905	2077443
18880.3	-0.0052254	2075288
18890.9	-0.00499162	2072850
18900.4	-0.00475314	2070331
18910.9	-0.00445549	2068127
18920.4	-0.00415765	2065469
18931	-0.00379726	2062839
18940.5	-0.00344977	2060833
18951	-0.00303502	2058164
18960.5	-0.00262852	2055885
18970	-0.00218313	2053946
18980.6	-0.00163765	2050959
18990.1	-0.0011013	2049153
19000.6	-0.000458436	2047296
19010.1	0.000159297	2045324
19020.7	0.000887939	2042946
19030.2	0.00158286	2040957
19040.7	0.00240111	2038953
19050.2	0.00318135	2037003
19060.8	0.00409871	2034775
19070.3	0.00497016	2032849
19080.8	0.00598882	2030422
19090.3	0.00694987	2028539
19100.9	0.00806533	2026166
19110.4	0.00911068	2023556
19120.9	0.0103166	2021249
19130.4	0.0114408	2018814
19141	0.0127315	2016089
19150.5	0.0139298	2014096
19161	0.0153004	2011146
19170.5	0.016568	2008573
19180	0.0178667	2006280
19190.6	0.0193441	2003548
19200.1	0.0207029	2000963
19210.6	0.0222427	1997887
19220.1	0.0236533	1995300
19230.7	0.0252454	1992415
19240.2	0.0266984	1990129
19250.7	0.028332	1987259
19260.2	0.0298172	1984648
19270.8	0.031481	1981679
19280.3	0.0329879	1978935
19290.8	0.0346694	1975899
19300.3	0.036186	1973379
19310.9	0.037871	1970390
19320.4	0.0393834	1967278
19330.9	0.0410548	1964154
19340.4	0.0425466	1961394
19351	0.044185	1958459
19360.5	0.0456378	1955684
19371	0.0472222	1952564
19380.5	0.0486167	1949843
19391.1	0.0501259	1946677
19400.6	0.0514433	1944051
19410	0.0527179	1941274
19420.6	0.0540793	1938097
19430.1	0.055251	1935952
19440.6	0.0564891	1932746
19450.1	0.0575422	1930585
19460.7	0.05864	1928348
19470.2	0.0595596	1926380
19480.7	0.0605015	1923740
19490.2	0.061274	1921875
19500.8	0.0620453	1919277
19510.3	0.0626581	1916792
19520.8	0.0632452	1914336
19530.3	0.0636865	1912198
19540.9	0.0640767	1909719
19550.4	0.0643354	1907892
19560.9	0.0645166	1905216
19570.3	0.0645834	1903016
19580.7	0.0645501	1900148
19590.1	0.0644217	1897325
19600.7	0.0641659	1893909
19610.2	0.0638341	1891233
19620.7	0.0633562	1888350
19630.1	0.0628271	1886859
19640.6	0.062131	1884709
19651	0.0613239	1882306
19660.5	0.0605042	1879697
19670.9	0.0594939	1877148
19680.3	0.0584963	1874859
19690.8	0.057283	1872791
19700.3	0.0561045	1869886
19710.9	0.0547064	1867334
19720.4	0.0533721	1865221
19730.9	0.0518102	1862398
19740.4	0.0503441	1860247
19750.8	0.048653	1857696
19760.3	0.0470755	1855578
19770.7	0.0452677	1853246
19780.2	0.043594	1850640
19790.7	0.0416853	1847840
19800.2	0.0399357	1845206
19810.8	0.0379652	1842399
19820.3	0.0361734	1840028
19830.8	0.0341689	1837855
19840.3	0.0323586	1835709
19850.9	0.0303677	1833562
19860.4	0.0285946	1831237
19870.9	0.0266235	1828491
19880.4	0.0248495	1826231
19891	0.0228909	1824143
19900.4	0.0211507	1822127
19911	0.0192528	1820289
19920.5	0.0175827	1818434
19931	0.0157724	1816811
19940.5	0.0141844	1814406
19951	0.0124648	1812074
19960.5	0.0109589	1809435
19970	0.00949397	1806652
19980.6	0.00791562	1804500
19990.1	0.00654124	1801916
