0	0	8584140
10.1915	0	8595204
20.373	0	8602496
30.5545	0	8606478
40.736	0	8609350
50.9166	0	8611872
60.0761	0	8613762
70.2436	0	8615752
80.4112	0	8617656
90.5786	0	8619066
100.746	0	8620300
110.913	0	8621566
120.066	0	8622934
130.256	0	8624460
140.46	0	8626062
150.663	0	8627792
160.867	0	8629300
170.051	0	8630550
180.254	0	8631972
190.459	0	8633314
200.665	0	8634728
210.875	0	8636318
220.065	0	8637752
230.275	0	8639536
240.507	0	8641254
250.731	0	8642954
260.943	0	8644814
270.135	0	8646594
280.408	0	8648678
290.707	0	8650788
301.006	0	8652910
310.275	0	8655014
320.573	0	8657290
330.831	0	8659706
340.027	0	8661994
350.245	0	8664432
360.477	0	8666904
370.711	0	8669382
380.945	0	8671728
390.138	0	8673712
400.352	0	8676012
410.618	0	8678470
420.918	0	8680764
430.189	0	8682714
440.49	0	8684954
450.791	0	8687158
460.062	0	8689046
470.364	0	8691066
480.665	0	8692926
490.967	0	8694802
500.239	0	8696436
510.541	0	8698144
520.843	0	8699854
530.115	0	8701394
540.417	0	8703068
550.72	0	8704608
561.023	0	8706230
570.295	0	8707840
580.598	0	8709778
590.901	0	8711730
600.174	0	8713668
610.478	0	8715850
620.781	0	8718084
630.054	0	8720078
640.358	0	8722306
650.661	0	8724648
660.964	0	8727030
670.237	0	8729096
680.54	0	8731524
690.844	0	8733860
700.117	0	8735870
710.42	0	8738174
720.723	0	8740362
731.026	0	8742552
740.299	0	8744670
750.602	0	8747180
760.905	0	8749708
770.178	0	8752092
780.481	0	8754496
790.784	0	8757150
800.056	0	8759488
810.359	0	8762304
820.622	0	8764792
830.867	0	8767484
840.083	0	8769740
850.321	0	8772446
860.536	0	8775182
870.75	0	8777874
880.96	0	8780452
890.143	0	8782930
900.346	0	8785810
910.55	0	8788706
920.754	0	8791502
930.956	0	8794354
940.138	0	8796950
950.34	0	8799684
960.54	0	8802398
970.737	0	8805052
980.934	1.81899e-12	8807626
990.111	9.09495e-12	8809976
1000.31	2.54659e-11	8812606
1010.51	7.63976e-11	8815306
1020.7	2.41926e-10	8817988
1030.88	7.36691e-10	8820898
1040.04	1.94268e-09	8823458
1050.22	5.48425e-09	8826522
1060.4	1.48566e-08	8829390
1070.58	3.86299e-08	8832454
1080.75	9.65174e-08	8835464
1090.93	2.31915e-07	8838284
1100.09	4.94078e-07	8840748
1110.27	1.10495e-06	8843196
1120.45	2.38238e-06	8845652
1130.63	4.95637e-06	8848020
1140.8	9.95733e-06	8850372
1150.98	1.93326e-05	8852520
1160.14	3.41363e-05	8854276
1170.32	6.22418e-05	8856034
1180.5	0.000109921	8857878
1190.67	0.000188101	8859846
1200.84	0.000312196	8862050
1211.01	0.00050299	8864272
1220.17	0.000753717	8866434
1230.34	0.00115001	8868630
1240.51	0.00170697	8870792
1250.68	0.00246672	8872734
1260.85	0.00347318	8874824
1270	0.00462513	8876380
1280.17	0.00621296	8877900
1290.34	0.0081524	8879276
1300.51	0.0104594	8880714
1310.69	0.0131346	8882024
1320.86	0.0161623	8883104
1330.01	0.0191632	8884426
1340.18	0.0227656	8885938
1350.35	0.0266027	8887282
1360.52	0.0306254	8888698
1370.69	0.0347912	8890240
1380.86	0.0390719	8891906
1390.01	0.0430153	8893566
1400.18	0.0475115	8895288
1410.35	0.0521674	8897044
1420.52	0.0570502	8898820
1430.7	0.0622527	8900682
1440.87	0.0678917	8902526
1450.02	0.0734543	8904102
1460.19	0.0803216	8905846
1470.36	0.0880836	8907468
1480.53	0.0969385	8909412
1490.71	0.107119	8911060
1500.93	0.118907	8912770
1510.19	0.131183	8914152
1520.54	0.14702	8915854
1531.03	0.165732	8917600
1540.61	0.185479	8918932
1550.27	0.209638	8920420
1561.04	0.259317	8921918
1570.74	0.327254	8923408
1580.44	0.420365	8924648
1590.13	0.522513	8925648
1600.91	0.642684	8926716
1610.61	0.759913	8927888
1620.31	0.88412	8928934
1630.01	1.0119	8930044
1640.78	1.15533	8931200
1650.48	1.28134	8931838
1660.18	1.4017	8932462
1670.96	1.52621	8933248
1680.66	1.62811	8933608
1690.35	1.71951	8934192
1700.05	1.79972	8934706
1710.83	1.87537	8935506
1720.56	1.93143	8936194
1730.37	1.97623	8936794
1740.46	2.01043	8937538
1750.57	2.03308	8938192
1760.73	2.04484	8938822
1770.9	2.04631	8939302
1781.06	2.03819	8939790
1790.11	2.0234	8940168
1800.3	1.99862	8940408
1810.49	1.96552	8940756
1820.7	1.92438	8941148
1830.91	1.87561	8941506
1840.02	1.82613	8941692
1850.34	1.76392	8942090
1860.68	1.69571	8942522
1871.02	1.62211	8942962
1880.21	1.55225	8943586
1890.54	1.46831	8944008
1900.88	1.37776	8944586
1910.07	1.29064	8945170
1920.41	1.18383	8945928
1930.75	1.06656	8946514
1941.1	0.938272	8946978
1950.29	0.815174	8947550
1960.63	0.667461	8948174
1970.98	0.511666	8948640
1980.17	0.368241	8948994
1990.51	0.203691	8949314
2000.86	0.0382906	8949692
2010.05	-0.107393	8950070
2020.39	-0.267615	8950528
2030.74	-0.421824	8950810
2041.08	-0.568026	8951240
2050.28	-0.689968	8951698
2060.62	-0.81719	8952288
2070.96	-0.933492	8952816
2080.16	-1.02791	8953420
2090.5	-1.12473	8954162
2100.84	-1.2125	8954956
2110.03	-1.28344	8955654
2120.35	-1.35558	8956438
2130.67	-1.41925	8956994
2140.98	-1.47348	8957538
2150.14	-1.51258	8958020
2160.45	-1.5448	8958644
2170.76	-1.56036	8959232
2181.06	-1.5554	8960016
2190.23	-1.54373	8960510
2200.53	-1.52317	8961140
2210.84	-1.49363	8961558
2220	-1.46086	8962102
2230.31	-1.41744	8962584
2240.62	-1.37012	8963118
2250.92	-1.31984	8963514
2260.08	-1.26145	8964062
2270.37	-1.18755	8964528
2280.66	-1.1233	8965100
2290.94	-1.06618	8965658
2300.08	-1.01632	8966156
2310.37	-0.962027	8966826
2320.65	-0.910176	8967464
2330.93	-0.860189	8967762
2340.07	-0.817815	8968356
2350.36	-0.771846	8968790
2360.64	-0.72806	8969520
2370.91	-0.685904	8970028
2380.01	-0.650006	8970730
2390.25	-0.611341	8971384
2400.48	-0.573458	8972192
2410.71	-0.536193	8972736
2420.94	-0.499027	8973540
2430.03	-0.465913	8974056
2440.25	-0.428347	8974848
2450.48	-0.390456	8975596
2460.71	-0.352597	8976220
2470.93	-0.315211	8976568
2480.02	-0.282785	8976964
2490.25	-0.24761	8977618
2500.47	-0.214173	8977880
2510.7	-0.182708	8978214
2520.93	-0.153367	8978426
2530.02	-0.129055	8978758
2540.24	-0.103644	8978894
2550.47	-0.0802851	8979006
2560.69	-0.058985	8979178
2570.92	-0.0397281	8979438
2580.01	-0.0242043	8979686
2590.23	-0.00819944	8980354
2600.46	0.00681598	8980962
2610.68	0.0207717	8981508
2620.91	0.0288258	8982320
2631.13	0.0362059	8983034
2640.22	0.0397526	8983866
2650.46	0.0430691	8984690
2660.69	0.045865	8985580
2670.93	0.0478007	8986672
2680.02	0.0489247	8987540
2690.26	0.0492351	8988618
2700.49	0.0486602	8989730
2710.72	0.0472451	8990940
2720.96	0.0449372	8992156
2730.05	0.0421655	8993190
2740.29	0.038292	8994328
2750.52	0.0337086	8995366
2760.75	0.0285097	8996714
2770.99	0.0227141	8997870
2780.08	0.0170871	8998892
2790.32	0.0103039	8999898
2800.55	0.00312568	9000962
2810.79	-0.00438415	9002166
2821.04	-0.0121665	9003164
2830.15	-0.0192598	9004234
2840.39	-0.0273867	9005356
2850.64	-0.0356149	9006222
2860.89	-0.0438999	9006846
2870	-0.0512884	9007330
2880.25	-0.059602	9008042
2890.5	-0.0678825	9008842
2900.75	-0.0760894	9009682
2910.98	-0.0841759	9010488
2920.08	-0.0912305	9010994
2930.32	-0.0989741	9011818
2940.55	-0.106464	9012476
2950.78	-0.113647	9013256
2961.02	-0.120474	9013910
2970.12	-0.126205	9014344
2980.35	-0.132236	9014912
2990.59	-0.137791	9015476
3000.82	-0.142844	9015990
3011.06	-0.147375	9016558
3020.15	-0.150957	9017050
3030.39	-0.154488	9017510
3040.62	-0.157504	9017982
3050.86	-0.160029	9018552
3061.1	-0.162095	9019082
3070.19	-0.163578	9019654
3080.43	-0.164889	9020102
3090.67	-0.165873	9020600
3100.9	-0.166586	9021068
3111.14	-0.16709	9021568
3120.24	-0.167408	9022052
3130.47	-0.167668	9022472
3140.71	-0.167869	9022900
3150.94	-0.168049	9023350
3160.04	-0.168212	9023774
3170.28	-0.168415	9024336
3180.51	-0.168647	9024826
3190.75	-0.168906	9025414
3200.99	-0.169186	9025908
3210.08	-0.16944	9026378
3220.32	-0.169714	9026922
3230.56	-0.169953	9027366
3240.79	-0.170132	9027942
3251.03	-0.170225	9028708
3260.13	-0.170216	9029516
3270.36	-0.170083	9030304
3280.6	-0.169801	9031274
3290.83	-0.169354	9032302
3301.07	-0.168733	9033476
3310.17	-0.168029	9034586
3320.4	-0.167064	9035674
3330.66	-0.165912	9036692
3340.93	-0.164573	9037970
3350.07	-0.163224	9039048
3360.36	-0.161527	9040256
3370.64	-0.159637	9041262
3380.92	-0.15754	9042216
3390.05	-0.155488	9043044
3400.33	-0.152946	9044114
3410.57	-0.150141	9044870
3420.79	-0.147042	9045438
3431	-0.143624	9046126
3440.07	-0.140303	9046838
3450.28	-0.136247	9047460
3460.49	-0.131861	9047970
3470.71	-0.127168	9048320
3480.92	-0.122203	9048792
3491.13	-0.117008	9049562
3500.2	-0.112238	9050122
3510.41	-0.106747	9050688
3520.63	-0.101171	9051354
3530.84	-0.0955608	9052078
3541.05	-0.0899574	9052770
3550.12	-0.0850121	9053164
3560.34	-0.0795144	9053970
3570.55	-0.0741065	9054724
3580.76	-0.0688013	9055430
3590.97	-0.0636052	9056114
3600.05	-0.0590783	9056728
3610.26	-0.054086	9057608
3620.47	-0.0491943	9058602
3630.68	-0.0443964	9059390
3640.89	-0.0396862	9060206
3651.1	-0.035059	9061054
3660.18	-0.0310135	9061600
3670.39	-0.0265385	9062278
3680.6	-0.0221464	9062630
3690.81	-0.0178415	9063434
3701.02	-0.01363	9063966
3710.1	-0.00997092	9064560
3720.31	-0.00595737	9065084
3730.52	-0.00206266	9065622
3740.74	0.00170282	9066372
3750.96	0.0053279	9067240
3760.05	0.00841608	9067878
3770.28	0.0117235	9068804
3780.51	0.0148361	9069528
3790.73	0.0177336	9070242
3800.96	0.0203953	9071072
3810.05	0.0225464	9072034
3820.27	0.0247067	9073002
3830.5	0.0265744	9073846
3840.73	0.028134	9074900
3850.94	0.0293723	9075992
3861.11	0.0302803	9076718
3870.14	0.0308129	9077692
3880.29	0.0311067	9078514
3890.44	0.0310846	9079608
3900.59	0.030759	9080512
3910.75	0.0301462	9081324
3920.9	0.0292662	9082072
3931.05	0.0281415	9082924
3940.07	0.0269558	9083748
3950.23	0.025435	9084930
3960.38	0.0237402	9085858
3970.53	0.0218954	9086846
3980.68	0.0199231	9088080
3990.83	0.0178439	9089310
4000.99	0.0156764	9090338
4010.01	0.0136886	9091154
4020.16	0.0113964	9092080
4030.31	0.00905663	9093020
4040.47	0.00667994	9093964
4050.62	0.0042761	9094684
4060.77	0.00185453	9095610
4070.92	-0.00057508	9096604
4081.07	-0.00300246	9097538
4090.1	-0.00514931	9098356
4100.25	-0.00754155	9098930
4110.4	-0.00989746	9099766
4120.55	-0.0122043	9100466
4130.71	-0.0144497	9101246
4140.86	-0.0166221	9101818
4151.03	-0.0187105	9102352
4160.07	-0.0204901	9103244
4170.29	-0.0224027	9103972
4180.52	-0.0242084	9104776
4190.75	-0.0259029	9105629
4201	-0.0274859	9106623
4210.11	-0.028798	9107440
4220.35	-0.0301694	9108318
4230.6	-0.0314335	9108929
4240.85	-0.032595	9109705
4251.09	-0.0336585	9110183
4260.21	-0.0345256	9110751
4270.47	-0.0354165	9111363
4280.72	-0.0362191	9111857
4290.97	-0.0369349	9112325
4300.05	-0.0374975	9112789
4310.27	-0.0380482	9113263
4320.49	-0.0385093	9113564
4330.7	-0.0388768	9113803
4340.79	-0.0391427	9114457
4350.87	-0.0393065	9114919
4360.96	-0.0393619	9115559
4371.05	-0.0393013	9116032
4380.02	-0.0391435	9116556
4390.11	-0.0388413	9117212
4400.2	-0.0383981	9117806
4410.29	-0.0378044	9118513
4420.38	-0.0370496	9119241
4430.47	-0.0361232	9120015
4440.56	-0.0350144	9120731
4450.65	-0.0337122	9121631
4460.74	-0.0322062	9122327
4470.82	-0.0304865	9123349
4480.91	-0.0285444	9124099
4491	-0.0263723	9124813
4501.08	-0.0239642	9125857
4510.08	-0.0216137	9126618
4520.33	-0.0186999	9127566
4530.49	-0.0155636	9128531
4540.57	-0.0122024	9129407
4550.66	-0.00859624	9130201
4560.75	-0.00474534	9131323
4570.84	-0.000649904	9132273
4580.93	0.00369048	9133061
4591.02	0.00827707	9133789
4601.1	0.013112	9134391
4610.07	0.0176203	9134970
4620.16	0.0229319	9135381
4630.26	0.0284995	9135593
4640.35	0.0343242	9135563
4650.44	0.0404047	9135937
4660.53	0.0467364	9136207
4670.62	0.0533098	9136451
4680.72	0.0601107	9136864
4690.81	0.0671193	9137174
4700.9	0.07431	9137644
4710.99	0.0816516	9138036
4721.08	0.0891081	9138244
4730.06	0.0958	9138496
4740.15	0.103361	9138950
4750.24	0.110914	9139199
4760.33	0.118413	9139167
4770.42	0.125814	9139313
4780.51	0.133073	9139621
4790.68	0.140203	9139781
4800.96	0.147187	9139769
4810.11	0.153184	9140265
4820.41	0.159656	9140653
4830.7	0.165812	9141391
4840.99	0.171629	9141667
4850.14	0.1765	9142033
4860.44	0.181627	9142532
4870.73	0.186367	9143138
4881.02	0.190708	9143892
4890.18	0.194222	9144296
4900.48	0.197781	9144812
4910.55	0.200842	9145138
4920.62	0.203477	9145874
4930.68	0.205679	9146480
4940.74	0.207437	9146830
4950.8	0.208739	9147470
4960.86	0.209574	9147788
4970.92	0.20993	9148476
4980.98	0.209796	9149075
4991.04	0.209163	9149501
5001.1	0.208024	9149979
5010.05	0.206581	9150509
5020.11	0.20447	9151057
5030.17	0.201844	9151717
5040.23	0.198705	9152339
5050.29	0.19506	9152989
5060.35	0.190918	9153511
5070.41	0.186294	9154533
5080.47	0.181204	9155167
5090.53	0.175667	9155775
5100.6	0.169705	9156579
5110.66	0.163344	9157090
5120.72	0.156607	9157682
5130.78	0.149522	9158222
5140.84	0.142115	9158448
5150.9	0.134415	9158574
5160.96	0.126448	9158866
5171.02	0.118241	9159028
5181.09	0.109821	9159170
5190.03	0.102179	9159414
5200.09	0.093429	9159676
5210.15	0.0845428	9159672
5220.22	0.0755419	9159642
5230.49	0.0662709	9159892
5240.79	0.0569185	9160150
5251.11	0.0475269	9160165
5260.28	0.0391816	9160339
5270.59	0.0298253	9160535
5280.91	0.0205346	9160719
5290.08	0.0123582	9161048
5300.39	0.0032828	9161240
5310.71	-0.00562914	9161132
5321.02	-0.0143429	9161347
5330.19	-0.0218939	9161445
5340.51	-0.0301428	9161189
5350.85	-0.0381087	9161097
5360.05	-0.0449078	9160719
5370.39	-0.0522078	9160358
5380.74	-0.0591039	9159977
5391.08	-0.0655615	9159529
5400.28	-0.0709058	9159121
5410.62	-0.0764428	9158881
5420.96	-0.0814459	9158751
5430.16	-0.0854205	9158481
5440.5	-0.0893353	9158251
5450.85	-0.0926365	9157921
5460.04	-0.0950383	9157793
5470.39	-0.097125	9157261
5480.73	-0.0985474	9157034
5491.07	-0.099297	9156577
5500.27	-0.0993958	9156015
5510.61	-0.0988709	9155847
5520.96	-0.0976801	9155709
5530.15	-0.0960739	9155673
5540.5	-0.0936683	9155997
5550.84	-0.0906525	9156167
5560.04	-0.0874831	9156479
5570.38	-0.0834065	9156845
5580.69	-0.07883	9157062
5591.01	-0.0737891	9157170
5600.18	-0.0689553	9157455
5610.49	-0.0631638	9157319
5620.81	-0.057046	9157625
5631.12	-0.0506532	9158041
5640.29	-0.0447818	9158503
5650.61	-0.0380115	9159011
5660.92	-0.0311168	9159454
5670.09	-0.0249254	9159837
5680.41	-0.0179357	9160067
5690.72	-0.0109681	9160389
5701.04	-0.00407104	9160801
5710.21	0.00196264	9161143
5720.53	0.00860033	9161725
5730.84	0.0150375	9162259
5740.01	0.0205578	9162563
5750.33	0.0265064	9162843
5760.64	0.0321431	9162836
5770.96	0.037435	9163029
5780.13	0.0418255	9163227
5790.45	0.0463885	9163381
5800.76	0.0505318	9163535
5811.08	0.0542375	9164111
5820.25	0.0571536	9164653
5830.56	0.0600014	9165427
5840.94	0.0623995	9165863
5850.18	0.0641447	9166233
5860.59	0.0656719	9166787
5870.99	0.0667484	9167155
5880.23	0.0673401	9167486
5890.64	0.0676134	9167966
5901.04	0.0674949	9168240
5910.29	0.0670829	9168490
5920.69	0.066302	9168792
5931.09	0.0652161	9169086
5940.34	0.064022	9169378
5950.74	0.0624524	9169828
5961.15	0.0606744	9170328
5970.41	0.0589471	9170686
5980.83	0.0568692	9170964
5990.09	0.0549268	9171415
6000.5	0.0526615	9171679
6010.92	0.0503378	9172177
6020.18	0.0482439	9172175
6030.61	0.0458745	9172563
6041.03	0.0435143	9172445
6050.29	0.0414386	9172463
6060.72	0.0391428	9171899
6071.14	0.0369023	9171571
6080.41	0.034967	9171271
6090.83	0.0328626	9171139
6100.09	0.0310633	9170967
6110.52	0.0291263	9171361
6120.94	0.0272873	9171571
6130.2	0.025739	9171625
6140.63	0.0240983	9171753
6151.05	0.0225677	9171923
6160.31	0.0213026	9172347
6170.7	0.0199912	9172737
6181.08	0.0187988	9172851
6190.28	0.0178397	9173093
6200.63	0.0168747	9173363
6210.97	0.0160311	9173567
6220.15	0.0153844	9174025
6230.47	0.0147745	9174595
6240.77	0.0142899	9175227
6251.06	0.0139322	9175913
6260.19	0.0137209	9176289
6270.46	0.0136037	9176889
6280.73	0.0136149	9177333
6291	0.0137552	9177717
6300.11	0.0139882	9178345
6310.34	0.0143708	9178779
6320.56	0.0148813	9178888
6330.77	0.0155189	9179178
6340.98	0.0162824	9179464
6350.05	0.0170653	9179538
6360.24	0.0180612	9179720
6370.43	0.0191774	9179976
6380.59	0.0204104	9180154
6390.75	0.021757	9180680
6400.9	0.0232155	9181006
6411.05	0.0247831	9180974
6420.07	0.0262651	9180989
6430.22	0.0280282	9180933
6440.37	0.0298887	9180939
6450.52	0.0318415	9181161
6460.66	0.0338815	9181307
6470.81	0.0360026	9181810
6480.95	0.0381973	9182052
6491.08	0.0404595	9182400
6500.09	0.0425225	9183005
6510.23	0.0448956	9183183
6520.36	0.0473165	9183498
6530.49	0.0497775	9183754
6540.63	0.05227	9184128
6550.76	0.0547854	9184274
6560.89	0.0573143	9184535
6571.02	0.0598472	9185049
6580.03	0.0620936	9185139
6590.16	0.0646058	9185561
6600.3	0.0670912	9185797
6610.43	0.0695385	9186041
6620.56	0.071936	9186471
6630.74	0.074282	9187119
6640.93	0.0765551	9187435
6651.11	0.0787393	9187837
6660.15	0.0805953	9188306
6670.31	0.0825741	9188909
6680.46	0.0844294	9188999
6690.62	0.0861491	9189383
6700.77	0.087721	9189577
6710.93	0.0891334	9189845
6721.08	0.090375	9190213
6730.11	0.0913264	9190375
6740.27	0.092216	9190697
6750.42	0.0929043	9191001
6760.56	0.0933822	9191277
6770.69	0.0936416	9191595
6780.82	0.0936751	9191945
6790.96	0.0934758	9192209
6801.09	0.0930374	9192355
6810.1	0.0924427	9192487
6820.23	0.0915394	9192485
6830.37	0.0903846	9192541
6840.5	0.0889762	9192281
6850.63	0.0873131	9192145
6860.77	0.0853952	9191727
6870.9	0.0832235	9191335
6881.04	0.0808001	9190899
6890.04	0.078437	9190565
6900.18	0.0755468	9190393
6910.31	0.0724158	9190371
6920.45	0.0690492	9190363
6930.58	0.0654532	9190719
6940.72	0.0616343	9190735
6950.85	0.0575997	9191103
6960.99	0.0533573	9191457
6971.12	0.0489153	9191933
6980.13	0.0448067	9192563
6990.26	0.0400131	9193123
7000.4	0.0350478	9193701
7010.53	0.0299221	9194205
7020.67	0.0246482	9194803
7030.8	0.0192391	9194981
7040.96	0.0136956	9195157
7050.02	0.00866136	9195283
7060.23	0.00290457	9195437
7070.44	-0.00293168	9195632
7080.66	-0.00882285	9195892
7090.88	-0.014749	9196456
7101.12	-0.0206988	9196596
7110.27	-0.0260036	9197022
7120.63	-0.0319886	9197314
7131.02	-0.0379312	9197754
7140.26	-0.043148	9198208
7150.65	-0.0489222	9198311
7161.03	-0.0545709	9198455
7170.26	-0.059469	9198613
7180.61	-0.0648158	9199023
7190.96	-0.0699845	9199287
7200.16	-0.0744184	9199643
7210.51	-0.079214	9199997
7220.86	-0.0837957	9200595
7230.06	-0.087682	9200969
7240.4	-0.0918395	9201597
7250.75	-0.0957662	9202464
7261.1	-0.0994608	9203533
7270.3	-0.10255	9204300
7280.65	-0.105808	9205015
7290.99	-0.10884	9205733
7300.19	-0.111349	9206217
7310.53	-0.113969	9206809
7320.87	-0.116379	9207457
7330.07	-0.118349	9207851
7340.41	-0.12038	9208369
7350.75	-0.12222	9208767
7361.09	-0.123876	9208983
7370.29	-0.125197	9208991
7380.63	-0.126521	9208959
7390.97	-0.127677	9208995
7400.18	-0.12857	9208736
7410.58	-0.12943	9208303
7420.98	-0.130137	9207951
7430.22	-0.130641	9207645
7440.62	-0.131074	9207497
7451	-0.13137	9207081
7460.19	-0.131523	9206321
7470.49	-0.13158	9205779
7480.76	-0.131522	9205279
7491.02	-0.131357	9204729
7500.15	-0.131126	9204445
7510.42	-0.13078	9204007
7520.69	-0.13035	9203495
7530.96	-0.129846	9203116
7540.09	-0.129343	9202784
7550.35	-0.128724	9202524
7560.62	-0.128059	9202400
7570.89	-0.127357	9202280
7580.02	-0.126711	9202048
7590.29	-0.125968	9201957
7600.56	-0.125217	9201777
7610.83	-0.124467	9201766
7621.06	-0.12373	9201718
7630.13	-0.123092	9201534
7640.3	-0.1224	9201736
7650.44	-0.121742	9201658
7660.56	-0.121123	9201844
7670.68	-0.120547	9201820
7680.8	-0.12002	9201904
7690.92	-0.119545	9201858
7701.04	-0.119127	9202156
7710.03	-0.118806	9202190
7720.15	-0.118502	9202250
7730.27	-0.118262	9202050
7740.38	-0.118087	9201740
7750.5	-0.117979	9201280
7760.62	-0.117936	9200586
7770.74	-0.11796	9199856
7780.85	-0.11805	9199548
7790.97	-0.118205	9198884
7801.09	-0.118423	9198355
7810.08	-0.118668	9197765
7820.2	-0.119	9197090
7830.35	-0.119389	9196809
7840.5	-0.119833	9196450
7850.63	-0.120326	9196034
7860.75	-0.120865	9195848
7870.86	-0.121446	9195630
7880.98	-0.122067	9195266
7891.1	-0.122722	9194810
7900.09	-0.12333	9194580
7910.21	-0.124039	9194514
7920.33	-0.124772	9194314
7930.44	-0.125525	9194324
7940.56	-0.126293	9194360
7950.68	-0.127075	9194468
7960.8	-0.127866	9194492
7970.92	-0.128665	9194599
7981.02	-0.129466	9194701
7990.96	-0.130257	9194569
8000.87	-0.131045	9194621
8010.78	-0.131831	9194577
8020.69	-0.132614	9194524
8030.6	-0.13339	9194470
8040.51	-0.134157	9194205
8050.41	-0.134913	9193919
8060.31	-0.135657	9193997
8070.22	-0.136384	9193827
8080.12	-0.137092	9193851
8090.03	-0.137777	9194060
8101.03	-0.138506	9193963
8110.93	-0.13913	9194043
8120.84	-0.139717	9194252
8130.74	-0.140263	9194297
8140.65	-0.140762	9194453
8150.55	-0.14121	9194670
8160.45	-0.1416	9194749
8170.36	-0.141926	9194805
8180.26	-0.142184	9194696
8190.17	-0.142367	9194912
8200.07	-0.14247	9195152
8211.1	-0.142485	9195547
8220.04	-0.142415	9195813
8230.11	-0.142245	9196170
8240.2	-0.141975	9196400
8250.32	-0.1416	9196750
8260.44	-0.141121	9197040
8270.56	-0.140535	9197445
8280.68	-0.139843	9197993
8290.79	-0.139046	9198363
8300.91	-0.138148	9198653
8311.03	-0.137151	9198881
8320.03	-0.136185	9199121
8330.15	-0.135014	9199549
8340.27	-0.133758	9199767
8350.39	-0.132424	9200035
8360.51	-0.131019	9200285
8370.63	-0.129549	9200629
8380.75	-0.128021	9200898
8390.87	-0.126444	9200650
8400.99	-0.124823	9200614
8411.11	-0.123165	9200353
8420.1	-0.121665	9200164
8430.22	-0.119953	9199876
8440.34	-0.118221	9199430
8450.46	-0.116473	9199150
8460.58	-0.114713	9198741
8470.73	-0.112938	9198351
8480.95	-0.111146	9197793
8490.06	-0.109543	9197370
8500.32	-0.107734	9196870
8510.58	-0.10592	9196467
8520.85	-0.104102	9195967
8531.11	-0.102278	9195666
8540.24	-0.10065	9195514
8550.5	-0.0988068	9195408
8560.76	-0.0969483	9195409
8571.03	-0.0950691	9195179
8580.15	-0.0933766	9194907
8590.41	-0.0914414	9194509
8600.68	-0.0894661	9194326
8610.94	-0.0874424	9193670
8620.06	-0.0855958	9193378
8630.33	-0.0834564	9192906
8640.59	-0.0812421	9192703
8650.85	-0.0789435	9192258
8661.09	-0.0765571	9191704
8670.19	-0.0743508	9191366
8680.42	-0.0717647	9190946
8690.66	-0.0690608	9190330
8700.89	-0.0662328	9189814
8711.12	-0.0632749	9189194
8720.22	-0.0605328	9188650
8730.45	-0.0573185	9187934
8740.68	-0.0539658	9187221
8750.91	-0.0504751	9186555
8760.01	-0.0472579	9186126
8770.24	-0.0435132	9185438
8780.47	-0.0396411	9184671
8790.7	-0.0356486	9183879
8800.93	-0.0315441	9183269
8810.04	-0.0278062	9182703
8820.26	-0.0235221	9182316
8830.47	-0.0191636	9181734
8840.68	-0.0147396	9181276
8850.89	-0.0102634	9180934
8861.1	-0.00574991	9180854
8870.17	-0.00171825	9181066
8880.38	0.00282596	9181146
8890.59	0.00736506	9181320
8900.8	0.0118846	9181417
8911.01	0.0163706	9181308
8920.08	0.0203192	9181226
8930.29	0.0247059	9180840
8940.5	0.0290228	9180532
8950.71	0.0332581	9179975
8960.91	0.0374027	9179659
8971.11	0.0414467	9179190
8980.17	0.044949	9178527
8990.36	0.0487827	9177836
9000.54	0.0524912	9177457
9010.66	0.0560635	9177303
9020.77	0.0595076	9177217
9030.88	0.0628262	9177149
9040.99	0.0660189	9176655
9051.1	0.0690855	9176321
9060.09	0.071706	9175965
9070.2	0.0745365	9175558
9080.3	0.0772445	9175283
9090.41	0.0798324	9174747
9100.52	0.0823029	9174543
9110.63	0.0846592	9174405
9120.74	0.0869049	9173989
9130.85	0.0890433	9173838
9140.95	0.0910782	9173390
9151.06	0.0930133	9172913
9160.05	0.0946535	9172561
9170.19	0.0964131	9171815
9180.33	0.0980843	9171304
9190.49	0.0996679	9171220
9200.65	0.101167	9171042
9210.82	0.102583	9171004
9220.94	0.103912	9170923
9231.05	0.105159	9170841
9240.04	0.106202	9170835
9250.14	0.107302	9171063
9260.25	0.108327	9171245
9270.36	0.109276	9171381
9280.47	0.11015	9171471
9290.58	0.11095	9171413
9300.69	0.111676	9171305
9310.8	0.11233	9171093
9320.91	0.112911	9171247
9331.02	0.113422	9171065
9340	0.113817	9170993
9350.11	0.114196	9171305
9360.22	0.114509	9171853
9370.33	0.114755	9172301
9380.44	0.114937	9173097
9390.55	0.115057	9173591
9400.66	0.115115	9174073
9410.77	0.115115	9174481
9420.88	0.115057	9175437
9430.99	0.114943	9175891
9441.1	0.114774	9176626
9450.09	0.11458	9177202
9460.2	0.114311	9177552
9470.31	0.11399	9177852
9480.42	0.113617	9177932
9490.53	0.113193	9178238
9500.64	0.112717	9178668
9510.75	0.11219	9178998
9520.86	0.11161	9179170
9531	0.110975	9179290
9540.05	0.110363	9179394
9550.24	0.109622	9179574
9560.44	0.108824	9179522
9570.63	0.107969	9179558
9580.82	0.107055	9180082
9591.01	0.106082	9180124
9600.07	0.105166	9180154
9610.26	0.104078	9180102
9620.45	0.102928	9180426
9630.64	0.101714	9180234
9640.84	0.100436	9180174
9651.03	0.0990932	9180024
9660.09	0.0978436	9179990
9670.28	0.0963741	9180284
9680.47	0.0948362	9180500
9690.66	0.0932287	9180488
9700.85	0.0915503	9180350
9711.04	0.0897997	9180332
9720.1	0.0881822	9180452
9730.29	0.0862925	9180378
9740.48	0.0843277	9180140
9750.68	0.0822871	9179929
9760.87	0.0801703	9179799
9771.06	0.0779773	9179641
9780.12	0.0759644	9179353
9790.31	0.0736292	9179294
9800.5	0.0712206	9179288
9810.69	0.0687408	9179010
9820.88	0.0661926	9178976
9831.08	0.06358	9178973
9840.14	0.0612072	9179086
9850.33	0.0584861	9179170
9860.52	0.0557161	9179366
9870.71	0.0529044	9179240
9880.9	0.0500589	9179301
9891.1	0.047188	9179419
9900.16	0.0446224	9179373
9910.35	0.0417293	9179517
9920.54	0.0388389	9179832
9930.73	0.0359614	9179986
9940.92	0.0331074	9179938
9951.11	0.0302878	9180194
9960.15	0.0278231	9180340
9970.3	0.0251069	9180038
9980.43	0.0224548	9179649
9990.57	0.0198731	9179059
10000.7	0.0173697	9178503
10010.8	0.0149517	9178034
10021	0.0126252	9177276
10031.1	0.0103955	9176895
10040.1	0.0084981	9176591
10050.3	0.00646144	9176292
10060.4	0.00453052	9175576
10070.5	0.00270649	9175587
10080.7	0.000989588	9175609
10090.8	-0.000620811	9175514
10100.9	-0.00212604	9175098
10111.1	-0.00352802	9175134
10120.1	-0.00468949	9175405
10130.2	-0.00590326	9175424
10140.4	-0.00702147	9175666
10150.5	-0.00804701	9175736
10160.6	-0.00898272	9175765
10170.8	-0.00983119	9176104
10180.9	-0.0105947	9176666
10191.1	-0.0112751	9176766
10200.1	-0.0118127	9177064
10210.3	-0.0123412	9177450
10220.5	-0.0127884	9177799
10230.6	-0.0131538	9177975
10240.8	-0.0134365	9178121
10251	-0.0136352	9178211
10260	-0.0137399	9178697
10270.2	-0.0137748	9179086
10280.4	-0.0137199	9179335
10290.6	-0.0135726	9179448
10300.7	-0.0133306	9179859
10310.9	-0.0129914	9180352
10321.1	-0.012553	9181033
10330.1	-0.0120787	9181648
10340.3	-0.0114489	9182468
10350.4	-0.0107171	9182966
10360.6	-0.00988361	9183620
10370.8	-0.00894996	9184114
10380.9	-0.00791862	9184685
10391.1	-0.00679317	9185135
10400.1	-0.00571761	9185547
10410.3	-0.00442839	9185955
10420.5	-0.00306205	9186302
10430.6	-0.00162674	9186641
10440.8	-0.000131132	9186830
10451	0.00142006	9187128
10460.1	0.0028318	9187593
10470.3	0.00444615	9187511
10480.5	0.00607613	9187703
10490.7	0.00770878	9187628
10500.9	0.00933094	9187716
10510	0.0107531	9187795
10520.2	0.0123184	9187964
10530.4	0.0138356	9188140
10540.6	0.0152928	9187974
10550.8	0.016679	9187553
10561	0.0179839	9187153
10570.1	0.0190683	9186659
10580.3	0.0201963	9186347
10590.5	0.0212212	9185897
10600.7	0.0221384	9185442
10610.9	0.0229452	9185264
10621.1	0.0236408	9185018
10630.1	0.0241664	9184582
10640.3	0.024656	9184356
10650.5	0.0250423	9184378
10660.7	0.0253315	9184330
10670.9	0.0255316	9184113
10681.1	0.0256518	9183673
10690.2	0.0257004	9183475
10700.4	0.0257002	9182863
10710.6	0.0256541	9182195
10720.8	0.0255752	9181781
10731	0.0254772	9181290
10740.1	0.0253853	9180695
10750.3	0.0252888	9180075
10760.5	0.0252123	9179443
10770.7	0.0251683	9178364
10780.9	0.025168	9177348
10791.1	0.0252217	9176544
10800.2	0.0253216	9175540
10810.4	0.0254995	9174402
10820.6	0.0257519	9173035
10830.8	0.0260824	9172075
10841	0.0264929	9170955
10850.1	0.0269247	9170141
10860.3	0.027484	9169041
10870.5	0.0281174	9167829
10880.7	0.0288193	9166805
10890.9	0.0295824	9165999
10901.1	0.0303981	9164894
10910.1	0.0311592	9163960
10920.3	0.0320459	9162912
10930.5	0.0329537	9161553
10940.7	0.03387	9160199
10950.9	0.0347821	9159067
10961.1	0.0356771	9157886
10970.2	0.036448	9156704
10980.4	0.0372763	9155652
10990.6	0.0380519	9154844
11000.8	0.0387637	9153802
11011	0.0394015	9152974
11020.1	0.0398988	9152562
11030.3	0.0403729	9151772
11040.5	0.0407499	9151033
11050.7	0.0410242	9150287
11061	0.0411908	9149850
11070.2	0.0412448	9149242
11080.5	0.0411976	9149322
11090.8	0.0410356	9149313
11101.1	0.0407592	9149208
11110.2	0.0404188	9149151
11120.5	0.0399315	9148661
11130.8	0.0393371	9148057
11141.1	0.0386395	9147765
11150.3	0.0379367	9147343
11160.6	0.0370576	9146921
11170.9	0.0360902	9146429
11180	0.0351611	9145965
11190.3	0.0340436	9145435
11200.6	0.0328572	9144823
11210.9	0.0316089	9144379
11221.1	0.0303015	9143981
11230.2	0.0290942	9143857
11240.5	0.0276901	9144031
11250.7	0.0262422	9143991
11260.9	0.0247635	9143877
11271	0.0232581	9143814
11280	0.0218983	9143920
11290.1	0.0203472	9144366
11300.2	0.0187741	9144873
11310.3	0.0171816	9144947
11320.4	0.0155728	9145229
11330.5	0.0139508	9145445
11340.6	0.0123184	9145563
11350.7	0.0106786	9145599
11360.7	0.00903404	9145818
11370.8	0.00738773	9145642
11380.9	0.0057426	9145395
11391	0.00410167	9144993
11401.1	0.00246809	9144699
11410.1	0.00102482	9144448
11420.2	-0.000586189	9143954
11430.3	-0.00218307	9143658
11440.4	-0.00376291	9143196
11450.6	-0.00532628	9143074
11460.8	-0.00686586	9143299
11471	-0.00837311	9143457
11480.1	-0.00968283	9143359
11490.3	-0.0111193	9143281
11500.5	-0.0125135	9143343
11510.8	-0.0138624	9143375
11521	-0.0151635	9143339
11530.1	-0.0162781	9143005
11540.3	-0.0174837	9142203
11550.5	-0.0186379	9141643
11560.8	-0.0197393	9141545
11571	-0.0207865	9141525
11580.1	-0.0216721	9141609
11590.4	-0.0226183	9141577
11600.6	-0.023513	9141734
11610.9	-0.0243582	9141826
11621.1	-0.0251565	9141482
11630.2	-0.0258292	9141226
11640.5	-0.0265475	9140644
11650.7	-0.027229	9139766
11661	-0.0278778	9139082
11670.1	-0.0284305	9138414
11680.3	-0.0290296	9137636
11690.6	-0.0296091	9136774
11700.8	-0.0301737	9136143
11711.1	-0.0307264	9135703
11720.1	-0.0312115	9135327
11730.3	-0.0317518	9135079
11740.3	-0.0322915	9135225
11750.4	-0.0328341	9135387
11760.4	-0.0333826	9135319
11770.4	-0.0339413	9135405
11780.4	-0.0345121	9135337
11790.5	-0.0350966	9135211
11800.5	-0.0356954	9135045
11810.5	-0.036309	9135359
11820.5	-0.0369369	9135361
11830.5	-0.0375782	9135321
11840.5	-0.0382314	9134911
11850.6	-0.0388946	9134473
11860.6	-0.039565	9133979
11870.6	-0.0402396	9133291
11880.6	-0.0409149	9132499
11890.6	-0.0415872	9131907
11900.7	-0.0422527	9131299
11910.7	-0.0429075	9130318
11920.8	-0.0435448	9129745
11930.8	-0.0441594	9128859
11940.9	-0.0447459	9127817
11951	-0.0452995	9126531
11961.1	-0.0458145	9125699
11970.1	-0.0462356	9124645
11980.2	-0.0466615	9124001
11990.4	-0.0470315	9123251
12000.6	-0.0473385	9122659
12010.8	-0.0475768	9122191
12021	-0.0477409	9121839
12031.1	-0.0478256	9121347
12040.1	-0.0478306	9120881
12050.3	-0.0477533	9120555
12060.5	-0.0475842	9120265
12070.6	-0.0473197	9120117
12080.8	-0.0469567	9120053
12090.9	-0.0464928	9120149
12101.1	-0.0459262	9120211
12110.1	-0.0453353	9120191
12120.3	-0.0445722	9120313
12130.4	-0.0437051	9120767
12140.6	-0.0427353	9121159
12150.7	-0.0416655	9121595
12160.8	-0.0405015	9121694
12170.9	-0.0392453	9121803
12181	-0.0379004	9121605
12190	-0.0366346	9121193
12200.1	-0.0351369	9120717
12210.2	-0.0335677	9120247
12220.3	-0.0319342	9120200
12230.4	-0.0302445	9120404
12240.5	-0.0285068	9120285
12250.7	-0.02673	9120299
12260.8	-0.0249229	9120369
12270.9	-0.0230947	9120334
12281	-0.0212545	9119870
12291.1	-0.0194112	9119350
12300.1	-0.017777	9118800
12310.2	-0.015951	9118534
12320.3	-0.0141455	9117984
12330.4	-0.0123678	9117620
12340.5	-0.0106243	9117082
12350.6	-0.00892046	9116312
12360.7	-0.00726114	9116005
12370.8	-0.00565023	9115217
12380.9	-0.00408995	9114611
12391	-0.00257988	9114261
12400.1	-0.00128206	9113897
12410.2	0.000125135	9113287
12420.3	0.00147642	9112541
12430.5	0.00277238	9111707
12440.6	0.00401415	9110545
12450.8	0.00520371	9109455
12461	0.00634461	9108576
12470.1	0.00731957	9107402
12480.3	0.00837243	9106270
12490.5	0.00937793	9105498
12500.7	0.0103369	9104982
12511	0.0112498	9104258
12520.1	0.0120227	9103738
12530.3	0.012845	9103259
12540.3	0.0136125	9103087
12550.4	0.0143268	9102845
12560.4	0.0149904	9102878
12570.4	0.0156011	9102732
12580.3	0.0161542	9102583
12590.2	0.0166435	9102419
12600.1	0.0170658	9102464
12611	0.0174535	9102261
12620.8	0.0177246	9102036
12630.6	0.0179165	9102106
12640.4	0.0180237	9102312
12650.2	0.0180408	9102377
12660.1	0.0179627	9102471
12671	0.0177579	9102575
12680.8	0.0174624	9102487
12690.6	0.0170572	9102280
12700.4	0.0165387	9101788
12710.2	0.0159038	9100764
12720	0.0151502	9099777
12730.9	0.0141717	9098494
12740.8	0.013163	9097614
12750.6	0.0120329	9097004
12760.4	0.0107821	9096288
12770.2	0.00941224	9095610
12780	0.00792553	9094865
12790.9	0.00613709	9093777
12800.8	0.00440434	9092809
12810.7	0.0025568	9091619
12820.6	0.000605506	9090460
12830.6	-0.00144183	9089392
12840.5	-0.00358114	9088062
12850.5	-0.00581174	9087140
12860.5	-0.00813527	9086219
12870.6	-0.010535	9085507
12880.7	-0.0129949	9084685
12890.8	-0.0155059	9084411
12900.8	-0.0180587	9083925
12910.9	-0.0206441	9083507
12921	-0.0232552	9083069
12930	-0.0255951	9082925
12940.2	-0.0282424	9082854
12950.4	-0.0308892	9082850
12960.5	-0.0335113	9082876
12970.6	-0.0360818	9083015
12980.5	-0.0386056	9083152
12990.5	-0.0410859	9083473
13000.5	-0.0435178	9083795
13010.5	-0.0458935	9083857
13020.4	-0.0482059	9083876
13030.4	-0.0504484	9083957
13040.4	-0.0526147	9084011
13050.3	-0.0546994	9083699
13060.3	-0.0566975	9083517
13070.3	-0.0586042	9083136
13080.2	-0.0604012	9082758
13090	-0.0620938	9082546
13100.9	-0.0638535	9082338
13110.7	-0.0653299	9082484
13120.4	-0.0667076	9082438
13130.2	-0.0679862	9082516
13141	-0.0692911	9082378
13150.8	-0.0703621	9082308
13160.6	-0.0713366	9081899
13170.4	-0.0722166	9081660
13180.1	-0.0730043	9081288
13191	-0.0737749	9080810
13200.7	-0.0743778	9080418
13210.5	-0.0748986	9079914
13220.3	-0.0753412	9079569
13230.1	-0.0757098	9079023
13240.9	-0.0760381	9078173
13250.7	-0.0762662	9077417
13260.5	-0.0764342	9076622
13270.3	-0.0765463	9075861
13281	-0.0766127	9074834
13290.7	-0.0766261	9074014
13300.3	-0.0766009	9073057
13311	-0.0765333	9072167
13320.7	-0.0764418	9071311
13330.3	-0.076326	9070226
13341.1	-0.0761742	9069004
13350.7	-0.0760214	9068086
13360.3	-0.0758579	9067090
13371.1	-0.0756685	9066004
13380.7	-0.0754956	9065154
13390.3	-0.0753244	9064335
13401.1	-0.0751411	9063579
13410.7	-0.0749865	9063033
13420.4	-0.0748455	9062311
13431.1	-0.0747092	9061437
13440.7	-0.0746089	9060853
13450.4	-0.0745334	9060200
13460	-0.0744859	9059422
13470.7	-0.07447	9058574
13480.5	-0.0744928	9057801
13490.3	-0.0745547	9057088
13500.2	-0.0746594	9056304
13510.1	-0.0748093	9055556
13521	-0.0750317	9054463
13530.9	-0.075284	9053749
13540.8	-0.0755869	9053049
13550.6	-0.0759412	9052023
13560.4	-0.0763482	9051409
13570.2	-0.076808	9050791
13580.1	-0.0773203	9050146
13591	-0.07795	9049470
13600.8	-0.0785693	9049204
13610.7	-0.0792364	9048730
13620.5	-0.0799484	9048041
13630.3	-0.080702	9047788
13640.1	-0.0814933	9047089
13651.1	-0.0824113	9046609
13660.9	-0.0832668	9046432
13670.7	-0.0841442	9045984
13680.5	-0.0850351	9045727
13690.3	-0.0859331	9045325
13700.1	-0.086834	9045000
13710.9	-0.0878308	9044276
13720.7	-0.0887166	9043903
13730.4	-0.0895845	9043624
13740.2	-0.0904279	9043546
13751	-0.0913239	9043272
13760.7	-0.0920877	9043076
13770.3	-0.0928029	9043086
13781	-0.0935387	9043388
13790.6	-0.094143	9043342
13800.2	-0.0946875	9043468
13810.9	-0.0952169	9043411
13820.5	-0.0956213	9043301
13830.2	-0.0959541	9043191
13840.8	-0.0962364	9043155
13850.5	-0.0964095	9042977
13860.1	-0.0965043	9042753
13870.8	-0.0965166	9042621
13880.4	-0.0964434	9042339
13890	-0.0962905	9042137
13900.7	-0.0960276	9042209
13910.3	-0.0957083	9041823
13921	-0.0952624	9041243
13930.7	-0.0947797	9040590
13940.4	-0.0942203	9039806
13950.1	-0.0935874	9039154
13960.9	-0.0928013	9038284
13970.7	-0.0920206	9037358
13980.4	-0.091172	9036544
13990.2	-0.0902601	9035940
14001	-0.0891756	9035085
14010.8	-0.0881365	9034343
14020.6	-0.0870406	9033693
14030.4	-0.0858902	9032633
14040.3	-0.0846863	9031687
14050.1	-0.0834292	9030660
14060	-0.0821211	9029769
14071	-0.080615	9028657
14080.9	-0.0792146	9027687
14090.8	-0.0777737	9026573
14100.7	-0.0762918	9025663
14110.7	-0.0747732	9024639
14120.7	-0.0732144	9023625
14130.7	-0.0716187	9022697
14140.8	-0.0699837	9021944
14150.9	-0.0683135	9021036
14161.1	-0.0666128	9019991
14170.1	-0.0650902	9019013
14180.1	-0.0633653	9018000
14190.2	-0.0616264	9016900
14200.2	-0.0598725	9015611
14210.3	-0.0581053	9014649
14220.3	-0.0563267	9013497
14230.4	-0.0545385	9012505
14240.4	-0.0527423	9011220
14250.5	-0.0509395	9010025
14260.5	-0.049131	9008677
14270.6	-0.0473177	9007391
14280.6	-0.0455002	9006377
14290.7	-0.0436787	9005161
14300.7	-0.0418532	9003701
14310.8	-0.0400232	9002431
14320.8	-0.0381883	9000681
14330.9	-0.0363449	8999470
14341	-0.0344887	8998370
14350	-0.0328232	8997486
14360.2	-0.0309272	8996742
14370.5	-0.0290101	8996184
14380.8	-0.0270803	8995704
14391.1	-0.0251362	8995418
14400.2	-0.0233949	8995168
14410.5	-0.0214201	8994664
14420.7	-0.0194275	8994378
14431	-0.0174163	8994127
14440.2	-0.0156129	8993814
14450.4	-0.0135663	8993706
14460.7	-0.0115015	8993466
14471	-0.00941969	8993218
14480.1	-0.00755609	8993256
14490.4	-0.00544992	8993344
14500.6	-0.00333802	8993641
14510.8	-0.00121993	8993845
14521.1	0.000901858	8993909
14530.1	0.00278748	8994114
14540.4	0.00490395	8994274
14550.6	0.00701018	8994392
14560.8	0.0091005	8994456
14571.1	0.0111689	8994290
14580.1	0.0129839	8994348
14590.4	0.0149934	8994322
14600.6	0.0169623	8994376
14610.8	0.0188839	8994286
14621.1	0.0207558	8994224
14630.2	0.0223745	8994260
14640.6	0.0241419	8994243
14650.9	0.0258362	8994257
14660.1	0.0272751	8993983
14670.4	0.0288088	8993531
14680.7	0.0302546	8993125
14691	0.0316086	8992605
14700.2	0.0327324	8991804
14710.5	0.0339045	8991234
14720.8	0.0349771	8990714
14731.1	0.0359491	8989733
14740.2	0.0367281	8988851
14750.5	0.0375091	8988060
14760.8	0.0381887	8987178
14771	0.0387681	8986301
14780.1	0.039202	8985090
14790.2	0.0396015	8983966
14800.4	0.0399128	8983184
14810.5	0.0401401	8982286
14820.6	0.040288	8981528
14830.7	0.0403608	8980520
14840.8	0.0403631	8978885
14850.9	0.0402996	8977233
14861	0.0401753	8975547
14870	0.0400177	8973713
14880.1	0.0397917	8971555
14890.2	0.0395186	8969215
14900.4	0.0392029	8966765
14910.5	0.0388489	8964331
14920.7	0.0384618	8961637
14930.8	0.0380463	8959317
14940.9	0.0376064	8956780
14950.9	0.037146	8954591
14961	0.0366668	8952392
14971.1	0.0361721	8950306
14981.1	0.0356645	8948022
14991.1	0.035148	8945803
15001.1	0.0346218	8943670
15011.1	0.0340873	8941778
15021.1	0.0335455	8939970
15031	0.0329971	8938313
15041	0.0324427	8936441
15051	0.0318807	8934352
15061.1	0.0313119	8932356
15070	0.0307984	8930821
15080.2	0.0302101	8929104
15090.5	0.0296087	8927201
15100.8	0.0289954	8925124
15111.1	0.0283703	8923129
15120.4	0.0278059	8921267
15130.7	0.0271605	8919308
15141.1	0.0265026	8917573
15150.2	0.0259068	8916147
15160.6	0.0252254	8914461
15170.8	0.0245324	8912826
15181	0.0238262	8911073
15190.1	0.0231859	8909978
15200.3	0.0224504	8908608
15210.4	0.0216978	8907866
15220.6	0.0209281	8906794
15230.8	0.0201414	8905654
15241	0.0193382	8904662
15250	0.0186108	8903764
15260.2	0.0177783	8902801
15270.4	0.0169319	8901765
15280.6	0.016073	8900680
15290.8	0.0152043	8899862
15300.9	0.014329	8898846
15311	0.0134483	8897892
15320	0.0126642	8896986
15330.1	0.0117816	8896152
15340.2	0.0109001	8895402
15350.3	0.0100223	8894618
15360.4	0.00915134	8893848
15370.5	0.00829027	8893122
15380.5	0.00744236	8892386
15390.6	0.00660945	8891615
15400.9	0.00578695	8890623
15411.1	0.00498714	8889748
15420.3	0.00429503	8888820
15430.6	0.00354123	8887995
15441	0.00281978	8887242
15450.2	0.00221285	8886655
15460.5	0.00157392	8885889
15470.6	0.000983306	8884861
15480.7	0.000437122	8883973
15490.9	-6.31371e-05	8883068
15501	-0.000515612	8882453
15511.1	-0.000918756	8881847
15520.1	-0.0012347	8881225
15530.3	-0.00154162	8880414
15540.4	-0.00179668	8879607
15550.5	-0.00199964	8879151
15560.8	-0.00215208	8878569
15570.1	-0.00224443	8877994
15580.5	-0.00229766	8877351
15591.1	-0.00229753	8876626
15600.5	-0.00225315	8875946
15611.1	-0.00215506	8874895
15620.5	-0.00202676	8874192
15631.1	-0.00183841	8873582
15640.6	-0.00163398	8873021
15651.1	-0.00136598	8872347
15660.5	-0.0010966	8871807
15670.9	-0.000762386	8871090
15680.2	-0.00044013	8870240
15690.6	-5.17677e-05	8869333
15701.1	0.000360615	8868360
15710.3	0.0007448	8867469
15720.7	0.00119354	8866575
15731.1	0.00165624	8865374
15740.4	0.00207627	8864118
15750.8	0.00255635	8862811
15760.2	0.00298867	8861853
15770.7	0.00347719	8860552
15780.1	0.00390826	8859170
15790.6	0.00438554	8857847
15801.1	0.00485164	8856540
15810.4	0.00525418	8855114
15820.9	0.00569136	8853827
15830.2	0.0060639	8852673
15840.7	0.00646236	8851584
15850	0.00679598	8850501
15860.5	0.00714631	8849522
15870.9	0.0074686	8848496
15880.2	0.00773045	8847640
15890.6	0.00799676	8846788
15901	0.00823245	8845783
15910.3	0.00841596	8844906
15920.7	0.00859322	8843648
15931.1	0.00874049	8842371
15940.8	0.00885025	8841447
15951	0.0089398	8840637
15960	0.00899728	8840043
15970.3	0.00904038	8839237
15980.6	0.00906156	8838510
15990.9	0.0090635	8837714
16001.1	0.00904917	8836860
16010.1	0.00902585	8836154
16020.4	0.00898998	8835382
16030.7	0.00894778	8834663
16041	0.00890304	8833749
16051.3	0.00885966	8832767
16060.3	0.00882589	8832078
16070.6	0.00879557	8831344
16080.9	0.00877786	8830555
16091.2	0.00877663	8829688
16100.2	0.00879201	8828880
16110.6	0.00883156	8827883
16120.9	0.0088977	8826787
16131.2	0.00899347	8825992
16140.3	0.00910377	8825260
16150.6	0.00926236	8824563
16161	0.00945776	8824069
16170	0.00966043	8823429
16180.3	0.00992972	8822638
16190.7	0.0102404	8821826
16201	0.0105936	8820978
16210.1	0.0109381	8820069
16220.4	0.0113726	8819145
16230.7	0.0118516	8818180
16241.1	0.0123748	8817236
16250.1	0.0128668	8816311
16260.4	0.0134679	8815286
16270.7	0.0141114	8814180
16281	0.0147964	8813255
16291.3	0.0155221	8812260
16300.3	0.0161897	8811469
16310.6	0.0169889	8810394
16320.9	0.0178256	8809124
16331.2	0.0186984	8808196
16340.2	0.0194906	8807366
16350.5	0.020427	8806402
16360.7	0.0213952	8805687
16371	0.0223933	8804791
16380	0.0232898	8804033
16390.3	0.024339	8803396
16400.6	0.0254127	8802766
16410.9	0.0265087	8802189
16421.2	0.0276247	8801616
16430.2	0.0286158	8801113
16440.5	0.0297631	8800467
16450.8	0.0309234	8799875
16461.1	0.0320946	8799175
16470.1	0.0331263	8798661
16480.4	0.0343099	8798017
16490.8	0.0355039	8797511
16501.3	0.0367155	8796802
16510.6	0.0377768	8796175
16521.1	0.0389821	8795461
16530.6	0.0400479	8794812
16540.1	0.0411139	8794112
16551.1	0.0423173	8793286
16560.7	0.0433509	8792562
16570.3	0.0443632	8791808
16581.2	0.0454906	8790837
16590.8	0.046448	8790011
16600.4	0.0473754	8789265
16611.3	0.0483952	8788445
16620.9	0.0492496	8787665
16630.5	0.0500661	8786896
16640.1	0.0508425	8785888
16651	0.051678	8784804
16660.6	0.0523619	8783906
16670.2	0.053	8783027
16681.1	0.0536718	8781977
16690.7	0.054208	8780895
16700.3	0.0546955	8779929
16711.3	0.0551925	8779005
16720.9	0.0555751	8778203
16730.5	0.0559094	8777499
16740.1	0.0561947	8776856
16751	0.0564619	8776008
16760.6	0.0566451	8775262
16770	0.0567831	8774580
16780.8	0.0568888	8773942
16790.1	0.056939	8773365
16800.8	0.0569513	8772681
16810.1	0.0569251	8772127
16820.7	0.0568559	8771467
16830	0.0567636	8770911
16840.7	0.056625	8770320
16850	0.0564775	8769780
16860.6	0.0562823	8769292
16871.3	0.056062	8768820
16880.6	0.0558516	8768494
16891.3	0.0555941	8768020
16900.6	0.0553566	8767773
16911.2	0.055074	8767413
16920.6	0.0548182	8767163
16931.3	0.05452	8766961
16940.7	0.0542567	8766781
16950.1	0.0539935	8766525
16961.3	0.0536829	8766521
16970.7	0.0534266	8766381
16980.1	0.0531761	8766351
16991	0.0528936	8766378
17000.4	0.0526614	8766354
17011.3	0.0524043	8766316
17021	0.0521915	8766240
17030.6	0.0519932	8766266
17040.3	0.0518109	8766335
17051.6	0.0516197	8766267
17061.4	0.0514732	8766291
17071.2	0.0513465	8766275
17081	0.0512405	8766271
17090.8	0.0511559	8766261
17100.6	0.0510932	8766241
17110.4	0.0510528	8766215
17120.3	0.0510352	8766195
17130.1	0.0510406	8766179
17141.5	0.0510759	8766221
17151.3	0.0511311	8766181
17161.2	0.0512092	8766131
17171	0.0513101	8766073
17180.8	0.0514334	8766053
17190.6	0.0515787	8765993
17200.6	0.0517482	8766009
17210.6	0.0519406	8765943
17220.6	0.0521545	8765821
17230.6	0.052389	8765787
17240.6	0.0526434	8765629
17250.6	0.0529166	8765567
17260.6	0.0532076	8765521
17270.7	0.053515	8765456
17280.7	0.0538374	8765374
17291	0.0541853	8765291
17301.6	0.0545517	8765221
17310.4	0.0548654	8765109
17321	0.0552486	8765143
17331.7	0.0556378	8765174
17340.8	0.0559698	8765180
17351.7	0.0563636	8765157
17360.8	0.0566842	8765189
17370.8	0.057022	8765323
17380.6	0.0573398	8765235
17390.5	0.0576348	8765129
17400.7	0.0579088	8765047
17411.3	0.0581532	8765065
17420.1	0.0583219	8765005
17430.8	0.0584726	8764883
17441.4	0.0585588	8764800
17450.3	0.0585747	8764802
17460.9	0.0585186	8764768
17471.5	0.0583717	8764732
17480.4	0.0581731	8764696
17491.1	0.0578346	8764770
17501.6	0.0573831	8764796
17510.3	0.0569174	8764754
17520.7	0.0562456	8764684
17531	0.0554429	8764572
17541.5	0.0544917	8764496
17551.5	0.0534308	8764413
17561.5	0.0522313	8764311
17571.5	0.050883	8764269
17581.6	0.0493813	8764275
17591.6	0.047722	8764197
17601.7	0.0458771	8764207
17610.4	0.0441648	8764165
17620.7	0.0419587	8764182
17631.4	0.0394995	8764184
17640.3	0.0373028	8764191
17650.9	0.034489	8764149
17661.6	0.0314806	8764017
17670.5	0.0288008	8763952
17681.4	0.025353	8763844
17690.6	0.0223176	8763772
17701.5	0.0184907	8763732
17710.6	0.0151498	8763704
17721.4	0.0110254	8763687
17731.6	0.00692137	8763693
17740.6	0.00320673	8763590
17751.5	-0.00148581	8763579
17760.6	-0.00553726	8763569
17771.4	-0.0104616	8763569
17780.3	-0.0146864	8763460
17791.3	-0.0199825	8763372
17800.4	-0.0245079	8763190
17811.3	-0.03006	8763119
17820.4	-0.0347799	8763009
17831.4	-0.0405441	8762869
17840.5	-0.0454215	8762909
17851.4	-0.0513234	8762847
17860.4	-0.0562711	8762783
17871.2	-0.0622547	8762789
17880.3	-0.067269	8762941
17891.1	-0.0733133	8763085
17900.2	-0.0783826	8763247
17911.2	-0.0844604	8763338
17920.3	-0.0894995	8763384
17931.2	-0.0954865	8763493
17940.1	-0.10033	8763541
17951	-0.10616	8763521
17960.1	-0.110952	8763469
17971.1	-0.116583	8763479
17980.2	-0.121161	8763509
17991.1	-0.126501	8763711
18000.2	-0.130808	8763863
18010.8	-0.135645	8763945
18021.4	-0.140264	8763952
18030.4	-0.143969	8763960
18041.2	-0.148249	8763942
18050.2	-0.151594	8764046
18061	-0.155357	8764076
18070.1	-0.158302	8764096
18081	-0.161524	8764162
18090	-0.163963	8764254
18100.9	-0.166605	8764338
18110.1	-0.168543	8764286
18121	-0.170545	8764440
18130.1	-0.171939	8764486
18141.1	-0.173278	8764508
18150.2	-0.174114	8764554
18161.1	-0.174779	8764596
18170.2	-0.175051	8764617
18181.2	-0.175041	8764585
18190.3	-0.174754	8764391
18201.1	-0.174085	8764200
18211.7	-0.173095	8764088
18220.6	-0.172023	8763980
18231.1	-0.170445	8763874
18241.7	-0.16856	8763800
18250.6	-0.166761	8763737
18261.2	-0.164341	8763636
18271.7	-0.161647	8763574
18280.6	-0.159202	8763420
18291.2	-0.156043	8763347
18301.4	-0.152763	8763349
18311.6	-0.149299	8763197
18320.3	-0.146215	8763058
18330.6	-0.14235	8762847
18341	-0.138323	8762803
18351.4	-0.134151	8762737
18360.1	-0.130576	8762705
18370.4	-0.126183	8762593
18380.9	-0.121653	8762516
18391.6	-0.116959	8762404
18400.5	-0.112998	8762226
18411.1	-0.1082	8762078
18420	-0.104177	8762062
18430.7	-0.0993549	8761982
18441.1	-0.0946307	8761934
18451.4	-0.0899707	8761956
18461.4	-0.0854434	8761964
18471.3	-0.0810493	8761952
18480.9	-0.0767835	8761908
18490.5	-0.0726293	8761840
18501.5	-0.0679117	8761772
18510.8	-0.063978	8761750
18520.1	-0.0601301	8761790
18531	-0.055724	8761824
18540.7	-0.0518805	8761770
18550.5	-0.0480919	8761710
18560.4	-0.0443818	8761618
18570.2	-0.0407669	8761504
18580	-0.0372487	8761332
18591.5	-0.033263	8761206
18601.3	-0.0299456	8760974
18611.2	-0.0267142	8760834
18621.1	-0.0235222	8760756
18631.1	-0.0204227	8760720
18641	-0.0174119	8760736
18651.1	-0.01443	8760721
18661.5	-0.0114288	8760710
18670.2	-0.00897913	8760656
18680.8	-0.00607279	8760698
18691.4	-0.00323351	8760686
18700.2	-0.000915348	8760717
18710.7	0.00181256	8760763
18721.3	0.00448513	8760807
18730	0.00666483	8760869
18740.4	0.00919987	8760875
18750.8	0.0116955	8760941
18761.4	0.0141805	8760929
18770.2	0.0162158	8760920
18780.7	0.0186154	8760960
18791.3	0.0209678	8760945
18800.1	0.0228911	8761004
18810.5	0.0251278	8761040
18820.9	0.0273013	8760974
18831.1	0.02938	8760963
18841.4	0.03144	8760841
18850.1	0.0331247	8760775
18860.7	0.0351179	8760754
18871.2	0.0370463	8760722
18880	0.0386018	8760627
18890.6	0.0404044	8760509
18901.1	0.0421353	8760529
18911.7	0.0437918	8760547
18920.5	0.0451128	8760459
18931	0.0466309	8760417
18941.6	0.0480728	8760421
18950.4	0.0492158	8760413
18960.9	0.0505175	8760413
18971.5	0.051744	8760447
18980.3	0.0527098	8760383
18990.8	0.0538029	8760377
19001.4	0.0548269	8760281
19010.2	0.0556295	8760207
19020.8	0.056535	8760075
19031.2	0.057373	8759951
19041.5	0.0581473	8759898
19050	0.0587508	8759878
19060.5	0.0594495	8759782
19070.9	0.0601111	8759698
19081.4	0.0607352	8759564
19091.7	0.0613248	8759556
19100.3	0.0617988	8759531
19110.6	0.0623518	8759463
19120.9	0.0628927	8759437
19131.2	0.0634271	8759383
19141.5	0.0639606	8759337
19150.1	0.0644082	8759379
19160.4	0.0649534	8759280
19170.7	0.0655119	8759256
19181	0.0660884	8759235
19191.3	0.0666868	8759063
19201.6	0.0673109	8759075
19210.2	0.0678529	8758967
19220.5	0.0685318	8758987
19230.9	0.0692439	8758919
19241.2	0.0699907	8758955
19251.5	0.0707732	8758893
19260.1	0.0714527	8758854
19270.4	0.0723008	8758879
19280.7	0.0731836	8758936
19291.1	0.074107	8758970
19301.5	0.0750694	8759068
19310.3	0.0758939	8759087
19320.5	0.0768869	8759166
19330.7	0.0778952	8759241
19341.1	0.0789321	8759291
19351.4	0.0799838	8759394
19361.6	0.0810375	8759460
19370.1	0.081903	8759510
19380	0.0829257	8759520
19391.6	0.084107	8759602
19401.6	0.0851088	8759569
19411.7	0.0861061	8759588
19420.1	0.0869191	8759474
19430.1	0.0878624	8759430
19440.2	0.0887775	8759394
19450.2	0.0896478	8759176
19460.3	0.0904819	8759102
19470.4	0.0912691	8759017
19480.5	0.0920035	8758930
19490.7	0.0926814	8758872
19500.8	0.0932988	8758857
19510.9	0.0938526	8758755
19521.2	0.0943502	8758597
19531.6	0.0947773	8758459
19540.3	0.0950759	8758341
19550.6	0.0953641	8758197
19561	0.0955743	8758116
19571.4	0.0957059	8758080
19580.1	0.095755	8757981
19590.5	0.0957415	8757967
19600.8	0.0956503	8758032
19610.8	0.0954882	8757960
19620.8	0.0952549	8757884
19630.8	0.0949521	8757900
19640.9	0.0945787	8757890
19650.8	0.0941464	8757839
19661	0.0936374	8757919
19671.2	0.0930656	8757957
19681.5	0.0924281	8757977
19690.2	0.0918474	8758034
19700.6	0.0910996	8757994
19711	0.0902995	8758056
19721.3	0.0894507	8757994
19731.6	0.0885693	8757992
19740	0.0878133	8757970
19750.1	0.0868724	8757888
19760.4	0.0858817	8757676
19770.8	0.0848485	8757619
19781.2	0.0837856	8757462
19791.6	0.0826959	8757364
19800.1	0.0817787	8757358
19810.5	0.0806512	8757396
19820.9	0.0794984	8757462
19831.3	0.078327	8757438
19841.6	0.0771385	8757467
19850.3	0.0761361	8757543
19860.6	0.0749273	8757575
19870.6	0.0737408	8757593
19880.6	0.0725415	8757683
19890.8	0.0713089	8757701
19901.1	0.0700528	8757741
19911.4	0.0687835	8757657
19921.5	0.0675119	8757671
19931.7	0.0662316	8757656
19940.2	0.0651446	8757747
19950.5	0.0638174	8757701
19960.8	0.0624726	8757729
19971.1	0.0611109	8757783
19981.4	0.0597316	8757895
19991.7	0.0583337	8757949
