0	0	438848
10.9754	0	461570
20.9384	0	476872
30.9003	0	489736
40.8626	0	499982
50.8141	0	506802
60.6735	0	512982
70.4826	0	518356
80.2916	0	523052
90.0689	0	526698
100.74	0	530862
110.372	0	534056
120.97	0	537466
130.701	0	539762
140.575	0	542536
150.543	0	545964
160.597	0	548638
170.752	0	551392
180.918	0	553896
190.068	0	556110
200.234	0	558684
210.4	0	560874
220.566	0	563470
230.732	0	566212
240.898	0	569152
250.056	0	571982
260.259	0	574830
270.461	0	577984
280.645	0	580676
290.815	0	583614
300.99	0	586470
310.164	0	589234
320.361	0	592082
330.56	0	595176
340.739	0	598514
350.913	0	601880
360.063	0	605042
370.229	0	608502
380.394	0	612014
390.559	0	615456
400.725	0	618904
410.893	0	621894
420.063	0	624942
430.27	0	628576
440.472	0	631606
450.674	0	634926
460.876	0	638072
470.056	0	641014
480.253	0	644490
490.449	0	647694
500.646	0	650756
510.844	0	653768
520.031	0	656772
530.245	0	659942
540.424	0	663666
550.604	0	667098
560.816	0	670592
570.054	0	673710
580.319	0	677330
590.598	0	681060
600.901	0	684520
610.174	0	688162
620.477	0	691762
630.78	0	695614
640.053	0	698772
650.356	0	702578
660.659	0	706094
670.962	0	709988
680.234	0	713548
690.537	0	717104
700.84	0	720802
710.093	0	724418
720.345	0	728216
730.586	0	732090
740.826	0	736080
750.042	0	739734
760.282	0	743804
770.522	0	747956
780.762	0	752068
791.003	0	756218
800.214	0	760164
810.422	0	764526
820.626	0	768726
830.83	0	772764
840.013	0	776582
850.216	0	781062
860.418	0	785516
870.62	0	790206
880.823	0	794578
890.004	0	798566
900.201	0	802830
910.398	0	807424
920.595	0	811822
930.792	0	816128
940.989	0	820640
950.161	0	824708
960.34	0	828748
970.518	0	833122
980.684	0	837520
990.851	0	841712
1000	0	845628
1010.17	0	850032
1020.33	0	854262
1030.5	0	859008
1040.67	0	863634
1050.83	0	868440
1061	0	873448
1070.15	0	877886
1080.32	0	883024
1090.49	0	887798
1100.65	0	892472
1110.82	0	897004
1120.99	0	901580
1130.14	0	905842
1140.31	0	910510
1150.48	0	914974
1160.64	0	919624
1170.81	0	924112
1180.98	0	928840
1190.13	0	933012
1200.3	0	937852
1210.47	0	942680
1220.64	0	947722
1230.8	0	952488
1240.97	0	957212
1250.12	0	961444
1260.29	0	965778
1270.46	0	970350
1280.63	0	974740
1290.8	0	978956
1300.97	0	983694
1310.12	0	987676
1320.29	0	992544
1330.46	0	997172
1340.63	0	1002322
1350.8	0	1006766
1360.96	0	1011400
1370.12	0	1015660
1380.29	0	1020116
1390.45	0	1024584
1400.57	0	1028928
1410.68	0	1033292
1420.77	0	1037226
1430.87	0	1041550
1440.97	0	1045996
1450.05	0	1049784
1460.15	0	1054520
1470.25	0	1059034
1480.34	0	1063400
1490.44	0	1068276
1500.54	0	1072846
1510.63	0	1077078
1520.73	0	1081754
1530.82	0	1086006
1540.92	0	1090096
1550.01	0	1093586
1560.1	0	1097460
1570.2	0	1101260
1580.3	0	1104478
1590.39	0	1107460
1600.49	0	1110408
1610.59	0	1113212
1620.68	0	1116520
1630.78	0	1119538
1640.88	0	1122190
1650.98	0	1125212
1660.06	0	1127378
1670.16	0	1130560
1680.26	0	1133586
1690.35	0	1136288
1700.45	0	1139618
1710.55	0	1142304
1720.64	0	1145546
1730.74	0	1148416
1740.84	0	1151656
1750.93	0	1154720
1760.02	0	1157000
1770.12	0	1159936
1780.22	0	1162548
1790.34	0	1165438
1800.6	0	1168100
1810.87	0	1170718
1820.12	0	1173244
1830.47	0	1176006
1840.9	0	1178872
1850.32	0	1181396
1860.8	0	1184708
1870.18	0	1187350
1880.7	0	1190178
1890.13	0	1192928
1900.6	0	1195956
1910.02	0	1198704
1920.46	4.54747e-12	1201462
1930.89	9.09495e-12	1204102
1940.28	1.36424e-11	1206456
1950.72	2.18279e-11	1208966
1960.1	2.91038e-11	1211544
1970.45	3.81988e-11	1214044
1980.79	4.72937e-11	1217280
1990.07	5.54792e-11	1219646
2000.41	6.45741e-11	1222656
2010.71	7.36691e-11	1225164
2021.01	8.36735e-11	1228084
2030.33	1.00044e-10	1230818
2040.65	1.18234e-10	1233572
2050.97	1.40062e-10	1236690
2060.24	1.65528e-10	1238824
2070.57	2.01908e-10	1241996
2080.99	2.48292e-10	1244796
2090.39	3.01043e-10	1247304
2100.85	3.72893e-10	1250626
2110.13	4.53838e-10	1253072
2120.44	5.63887e-10	1256520
2130.76	7.0213e-10	1259584
2140.18	8.58563e-10	1262034
2150.57	1.07229e-09	1265460
2160.89	1.33332e-09	1268488
2170.19	1.62072e-09	1271432
2180.52	2.00907e-09	1273918
2190.94	2.49292e-09	1277110
2200.27	3.0177e-09	1280022
2210.59	3.72165e-09	1283022
2220.94	4.58203e-09	1285982
2230.24	5.51154e-09	1288796
2240.55	6.75118e-09	1292122
2250.9	8.25457e-09	1295290
2260.24	9.87984e-09	1298076
2270.63	1.20353e-08	1300806
2280.95	1.46092e-08	1304570
2290.24	1.73613e-08	1307004
2300.58	2.09875e-08	1309874
2310.89	2.53012e-08	1311934
2320.2	2.98933e-08	1314328
2330.57	3.59196e-08	1316212
2340.89	4.30264e-08	1318538
2350.21	5.05452e-08	1320686
2360.56	6.03195e-08	1323366
2370.9	7.18046e-08	1325972
2380.24	8.38872e-08	1328420
2390.62	9.95142e-08	1330612
2401	1.17803e-07	1332714
2410.39	1.36967e-07	1335242
2420.83	1.61625e-07	1337644
2430.23	1.87272e-07	1340102
2440.64	2.19974e-07	1342118
2450.99	2.57663e-07	1344138
2460.34	2.96655e-07	1345902
2470.8	3.46657e-07	1347622
2480.3	3.98688e-07	1349678
2490.95	4.65299e-07	1351646
2500.54	5.33932e-07	1353702
2510.32	6.13163e-07	1355922
2520.91	7.10975e-07	1358776
2530.24	8.08717e-07	1360952
2540.66	9.32157e-07	1363748
2550.26	1.06063e-06	1366588
2560.77	1.21946e-06	1369222
2570.05	1.37714e-06	1371594
2580.55	1.57763e-06	1374478
2590.06	1.78129e-06	1376986
2600.38	2.02884e-06	1379862
2610.75	2.30817e-06	1383020
2620.14	2.59035e-06	1385924
2630.51	2.93711e-06	1389082
2640.82	3.32255e-06	1391768
2650.15	3.70929e-06	1394494
2660.6	4.18882e-06	1397499
2671.02	4.72174e-06	1400503
2680.38	5.2496e-06	1403433
2690.68	5.8907e-06	1406721
2700.98	6.5998e-06	1409599
2710.4	7.31222e-06	1412219
2720.74	8.17033e-06	1415327
2730.07	9.01948e-06	1417557
2740.44	1.00526e-05	1420851
2750.87	1.11934e-05	1422871
2760.27	1.23158e-05	1425355
2770.74	1.368e-05	1427703
2780.17	1.50167e-05	1429509
2790.59	1.66246e-05	1431073
2800.02	1.82029e-05	1432791
2810.48	2.01038e-05	1435585
2820.86	2.21544e-05	1437869
2830.22	2.41541e-05	1439363
2840.73	2.65789e-05	1441701
2850.16	2.89253e-05	1443667
2860.68	3.17503e-05	1445917
2870.2	3.44995e-05	1447819
2880.84	3.7808e-05	1449379
2890.48	4.103e-05	1450974
2901	4.48042e-05	1453370
2910.42	4.84227e-05	1454876
2920.77	5.26788e-05	1456462
2930.15	5.6796e-05	1457952
2940.82	6.1795e-05	1459832
2950.22	6.64981e-05	1461868
2960.67	7.20606e-05	1463476
2970.11	7.74083e-05	1465450
2980.61	8.37352e-05	1467192
2990	8.97393e-05	1468570
3000.54	9.68914e-05	1471330
3011.02	0.000104443	1472886
3020.3	0.000111529	1474203
3030.61	0.000119847	1476555
3041.04	0.000128755	1478967
3050.45	0.000137235	1481241
3060.82	0.000147091	1482899
3070.09	0.000156375	1484927
3080.41	0.000167249	1487185
3090.73	0.000178716	1489021
3100.03	0.000189565	1490733
3110.93	0.000202933	1492859
3120.46	0.000215224	1494671
3130.08	0.000228226	1497065
3140.7	0.000243283	1499357
3150.27	0.000257491	1501715
3160.87	0.000274012	1503897
3170.71	0.000290062	1506615
3180.72	0.000307133	1509238
3190.62	0.0003248	1511470
3200.78	0.000343729	1514576
3210.93	0.000363514	1517260
3221.09	0.000384184	1520148
3230.11	0.000403326	1522922
3240.27	0.000425752	1525676
3250.42	0.000449154	1528264
3260.58	0.000473566	1530838
3270.73	0.000499028	1533404
3280.89	0.000525589	1536096
3291.07	0.000553319	1538678
3300.13	0.000578959	1540938
3310.31	0.000608953	1543584
3320.53	0.000640271	1545962
3330.74	0.00067289	1548676
3340.9	0.000706676	1551272
3350.58	0.000740163	1553478
3360.58	0.00077615	1556091
3370.06	0.000811575	1558055
3380.6	0.000852537	1560442
3390.31	0.000891793	1562492
3400.37	0.000934101	1564430
3410.37	0.000977806	1566642
3420.37	0.00102324	1568594
3430.36	0.00107049	1571360
3440.36	0.00111961	1573672
3450.36	0.00117069	1576220
3460.36	0.00122382	1578860
3470.37	0.0012791	1581104
3480.37	0.00133655	1583428
3490.36	0.00139625	1586162
3500.35	0.00145835	1588054
3510.34	0.00152294	1590304
3520.34	0.00159013	1592206
3530.34	0.00166009	1594454
3540.38	0.00173316	1596770
3550.43	0.00180932	1598551
3560.48	0.00188855	1601175
3570.51	0.00197094	1603784
3580.53	0.00205656	1605887
3590.56	0.00214578	1608805
3600.59	0.00223867	1610806
3610.61	0.00233539	1613303
3620.64	0.0024361	1615993
3630.73	0.00254165	1618254
3640.83	0.00265169	1620842
3650.93	0.00276632	1623602
3661.04	0.00288579	1626174
3670.04	0.0029964	1628754
3680.18	0.00312588	1631246
3690.4	0.00326174	1634200
3700.62	0.00340347	1637028
3710.85	0.00355129	1639800
3721.09	0.00370533	1642292
3730.16	0.00384733	1644742
3740.36	0.00401328	1647008
3750.54	0.0041858	1649292
3760.48	0.0043612	1651936
3770	0.00453586	1654776
3780.58	0.004738	1657792
3790.15	0.00492821	1660342
3800.64	0.00514546	1663636
3810.11	0.00534948	1665824
3820.66	0.00558605	1669308
3830.12	0.00580681	1672234
3840.58	0.00606062	1675123
3851.03	0.00632526	1678763
3860.54	0.00657544	1681422
3870.06	0.00683589	1683908
3880.98	0.00714601	1686961
3890	0.00741183	1689177
3900.15	0.00772151	1692460
3910.31	0.00804369	1695352
3920.46	0.00838057	1698318
3930.61	0.00873486	1701305
3940.76	0.00909736	1704467
3950.91	0.00945866	1707570
3961.07	0.00982995	1710441
3970.09	0.0101814	1712798
3980.23	0.0106121	1715763
3990.36	0.0110903	1718354
4000.49	0.0116186	1721056
4010.61	0.0122011	1723376
4020.74	0.0129409	1725584
4030.87	0.0140094	1728079
4040.99	0.0150325	1730428
4050.02	0.0159741	1732836
4060.19	0.0170744	1735483
4070.37	0.018201	1738069
4080.59	0.0194115	1741167
4090.62	0.0206975	1744120
4100.29	0.0220127	1746354
4110.01	0.023379	1749362
4120.17	0.0248592	1751737
4130.86	0.0264282	1755116
4140.35	0.0278951	1758329
4150.9	0.0298447	1760719
4160.34	0.0319643	1763593
4170.82	0.0346459	1766079
4180.21	0.0374108	1768340
4190.69	0.040577	1770820
4200.13	0.0431032	1773379
4210.68	0.0464522	1776422
4220.47	0.0512178	1778953
4230.06	0.0560843	1781171
4240.9	0.0621057	1783738
4250.7	0.0679065	1785984
4260.2	0.073605	1788301
4270.97	0.0806884	1791005
4280.39	0.0959146	1792770
4290.87	0.106992	1795055
4300.36	0.118255	1796933
4310.34	0.134573	1799373
4320.07	0.153824	1802105
4330.69	0.177373	1804693
4340.25	0.199939	1806864
4350.9	0.225837	1809474
4360.24	0.245919	1811594
4370.6	0.293506	1814343
4380.08	0.343352	1817099
4390.66	0.407254	1820033
4400.26	0.484557	1823226
4410.98	0.566495	1826538
4420.3	0.633552	1829300
4430.96	0.707037	1832732
4440.45	0.770243	1835758
4450.85	0.837826	1838828
4460.18	0.895706	1841428
4470.61	0.956726	1844443
4480.14	1.00805	1847214
4490.57	1.06057	1849738
4500.08	1.10434	1852162
4510.96	1.14943	1854912
4520.56	1.18459	1857498
4531.01	1.21819	1859899
4541.01	1.24535	1862149
4551.1	1.2666	1864550
4560.93	1.28011	1866672
4570.77	1.28783	1868914
4580.37	1.28431	1871824
4590.01	1.27564	1873674
4600.33	1.26217	1876502
4610.67	1.24361	1878913
4620.24	1.22288	1881497
4630.08	1.19876	1884101
4640.93	1.16893	1887352
4650.28	1.13604	1889850
4660.99	1.07481	1892417
4670.45	1.00659	1894287
4680.9	0.929126	1896643
4690.31	0.855186	1899019
4700.74	0.776452	1901042
4710.13	0.703745	1903243
4720.6	0.625702	1905641
4730	0.556104	1908155
4740.45	0.482014	1910438
4750.89	0.410635	1912364
4760.32	0.34873	1914594
4770.76	0.283151	1916889
4780.19	0.226006	1918976
4790.63	0.166121	1921260
4800.02	0.11415	1922969
4810.59	0.0590955	1925682
4821.02	0.00773289	1928501
4830.3	-0.0350455	1930348
4840.63	-0.0795448	1932804
4850.03	-0.117372	1934610
4860.74	-0.157704	1937126
4870.34	-0.192215	1939681
4880.93	-0.228839	1942468
4890.36	-0.260816	1944924
4900.67	-0.295375	1946752
4910.09	-0.326976	1948250
4920.8	-0.363014	1949817
4930.41	-0.395499	1951843
4940.03	-0.428048	1953931
4950.33	-0.462609	1956228
4960.63	-0.496492	1958927
4970.95	-0.529295	1960516
4980.45	-0.558118	1962698
4990.83	-0.587727	1965387
5000.17	-0.612398	1967221
5010.89	-0.638051	1969586
5020.71	-0.658792	1971622
5030.32	-0.676346	1973801
5040.05	-0.691305	1976079
5051.02	-0.704126	1979318
5060.4	-0.712933	1982388
5070.99	-0.712104	1984224
5081.01	-0.710326	1986295
5090.69	-0.708818	1988100
5100.03	-0.707071	1990072
5110.41	-0.704745	1992099
5120.84	-0.701708	1994041
5130.18	-0.698269	1996008
5140.74	-0.693589	1998204
5150.1	-0.688746	2000476
5160.15	-0.682951	2002634
5170.39	-0.676395	2004638
5180.67	-0.663938	2007140
5190.96	-0.653774	2009649
5200.46	-0.643075	2012251
5210.35	-0.626109	2014374
5220.64	-0.606301	2017157
5230.93	-0.585176	2020243
5240.07	-0.564718	2022412
5250.36	-0.542551	2024524
5260.65	-0.518615	2026989
5270.95	-0.494136	2029163
5280.14	-0.471826	2031079
5290.34	-0.446658	2033262
5300.37	-0.421415	2035195
5310.5	-0.39541	2037014
5320.97	-0.368433	2038806
5330.25	-0.344786	2040234
5340.56	-0.318997	2041948
5350.88	-0.293806	2044721
5360.26	-0.271656	2046613
5370.68	-0.24815	2048743
5380.1	-0.228048	2049995
5390.64	-0.206763	2052133
5400.23	-0.188488	2053570
5410.84	-0.169518	2055598
5420.42	-0.153626	2057367
5430.98	-0.137439	2059679
5440.43	-0.124115	2061482
5450.86	-0.110661	2063365
5460.3	-0.0996889	2065111
5471.02	-0.0886544	2067107
5480.53	-0.0801006	2069111
5490.58	-0.072242	2070708
5500.89	-0.0653093	2072621
5510.56	-0.0598105	2074621
5520.05	-0.0554694	2076404
5530.66	-0.0509931	2078633
5540.35	-0.0479675	2080258
5550.66	-0.0440362	2082118
5560.36	-0.0432908	2084303
5570.91	-0.0423483	2086280
5580.3	-0.040974	2088344
5590.75	-0.0398053	2089861
5600.67	-0.0387009	2091424
5610.98	-0.0377231	2093146
5620.15	-0.0369809	2093861
5630.47	-0.0362319	2095196
5640.78	-0.0355566	2096055
5651.1	-0.034978	2097376
5660.27	-0.0345613	2098798
5670.59	-0.0342051	2099905
5680.9	-0.0339692	2101177
5690.07	-0.0338655	2102217
5700.39	-0.0338728	2103702
5710.7	-0.0340099	2104609
5721.02	-0.034272	2106146
5730.19	-0.0346083	2107161
5740.5	-0.0351063	2108621
5750.82	-0.0357359	2110143
5761.14	-0.0365026	2111785
5771.08	-0.0373832	2112750
5780.19	-0.0383294	2114003
5790.58	-0.0396	2115182
5800.98	-0.0410961	2116086
5810.2	-0.0426132	2117513
5820.54	-0.0445261	2118855
5830.94	-0.0466658	2120797
5840.89	-0.0489139	2122099
5850.27	-0.0512172	2123321
5860.7	-0.0539868	2124924
5870.12	-0.0566844	2126673
5880.57	-0.0598896	2128328
5890.99	-0.0633156	2129596
5900.36	-0.0665842	2130471
5910.93	-0.0704773	2132006
5921.08	-0.0744022	2132918
5930.25	-0.0780937	2133692
5940.82	-0.0825113	2135779
5950.21	-0.0865718	2136693
5960.64	-0.0912291	2138018
5970.2	-0.097486	2138925
5980.09	-0.10272	2141021
5990.93	-0.107532	2142499
6000.74	-0.112209	2143867
6010.37	-0.117141	2145386
6020.79	-0.122398	2147921
6030.19	-0.126897	2149829
6040.98	-0.131724	2152243
6050.59	-0.135777	2154380
6060.22	-0.139692	2156425
6070.28	-0.143605	2158795
6080.33	-0.147192	2161582
6090.57	-0.150373	2163760
6100.2	-0.152878	2165940
6110.93	-0.15512	2168374
6120.8	-0.156681	2170802
6131.07	-0.157768	2173470
6140.67	-0.158247	2175752
6150.14	-0.158186	2178204
6160.65	-0.157496	2180770
6170.17	-0.156337	2183055
6180.59	-0.154532	2185901
6190.01	-0.152457	2188271
6201.05	-0.149522	2191080
6211.02	-0.146441	2193607
6220.43	-0.143183	2195693
6230.89	-0.139202	2197988
6240.4	-0.135279	2200173
6250.15	-0.130975	2202351
6260.7	-0.126012	2204545
6270.08	-0.121358	2206605
6280.52	-0.115943	2208454
6290.1	-0.110791	2210752
6300.58	-0.104986	2213257
6310.02	-0.099639	2214763
6320.48	-0.0936045	2217486
6330.92	-0.0875	2219711
6340.32	-0.0819678	2221457
6350.75	-0.0758058	2223475
6360.14	-0.0702712	2224787
6370.59	-0.0641406	2226832
6380.04	-0.0586378	2228234
6390.48	-0.0526389	2229354
6400.93	-0.0467405	2231302
6410.34	-0.0415372	2233355
6420.79	-0.0358969	2235752
6430.32	-0.0309103	2237510
6440.22	-0.0258938	2239669
6450.94	-0.0206804	2241887
6460.38	-0.01629	2244368
6470.86	-0.0116469	2247182
6480.51	-0.0075987	2250084
6490.99	-0.00345868	2253164
6500.41	3.89766e-05	2256148
6510.87	0.0036653	2259391
6520.27	0.00670044	2261948
6530.31	0.00971493	2264873
6540.01	0.0124061	2268029
6550.71	0.0150883	2271564
6560.24	0.0172351	2274454
6570.83	0.0195787	2277313
6580.34	0.0214889	2280053
6590.8	0.0233568	2283163
6600.18	0.0248771	2286667
6610.69	0.0264592	2289491
6620.07	0.0277484	2292431
6630.73	0.0291104	2294989
6640.87	0.0302962	2298405
6650.74	0.0313523	2301568
6660.13	0.0322822	2304199
6670.83	0.0333061	2307033
6680.96	0.0342812	2309712
6691.09	0.0352104	2312882
6700.09	0.0359949	2315549
6711.04	0.0363914	2318710
6720.88	0.0373329	2321809
6730.53	0.0380959	2324618
6740	0.0388224	2327272
6750.58	0.039581	2329265
6760.08	0.040219	2332313
6770.52	0.0408879	2334431
6780.96	0.0417224	2336577
6790.39	0.0420303	2338145
6800.85	0.0422334	2340203
6810.26	0.0423445	2341810
6820.81	0.0424087	2343494
6830.37	0.0423006	2344874
6840.01	0.0420542	2346773
6850.63	0.0416519	2349092
6860.04	0.0411524	2351294
6870.52	0.0404224	2353466
6881.01	0.0394974	2356220
6890.5	0.0384903	2358663
6900.05	0.0373124	2360412
6910.61	0.0358528	2362909
6920.08	0.0344919	2365595
6930.58	0.0327065	2368092
6940.06	0.0309621	2370569
6950.6	0.028704	2373337
6960.09	0.0255281	2375257
6970.66	0.021729	2377826
6980.17	0.0186099	2379604
6990.69	0.015358	2381873
7000.17	0.012517	2383879
7010.71	0.00936736	2386531
7020.26	0.00649802	2388648
7030.97	0.00326095	2391694
7040.41	0.000361198	2394046
7050.94	-0.00293047	2396248
7060.46	-0.00592091	2398495
7070.17	-0.00893469	2400627
7080.04	-0.0119183	2403129
7090.6	-0.0149901	2405103
7100.02	-0.0176212	2407147
7110.54	-0.0204378	2409838
7120.36	-0.022967	2411871
7130.99	-0.0256024	2414884
7140.5	-0.0278712	2417201
7150.02	-0.0300594	2419430
7160.59	-0.0323869	2422866
7170.13	-0.0343926	2425744
7181.01	-0.0365833	2428395
7190.98	-0.0385131	2431342
7200.96	-0.040384	2433982
7210.14	-0.0420638	2436222
7220.46	-0.0439127	2438647
7230.79	-0.0457211	2441476
7241.12	-0.0474879	2443933
7250.29	-0.0490213	2446894
7260.62	-0.0507024	2450224
7270.94	-0.0523327	2453452
7280.09	-0.0537359	2455356
7290.34	-0.0552507	2458212
7300.53	-0.0566911	2460513
7310.69	-0.0580472	2462722
7320.83	-0.0593046	2464463
7330.97	-0.0604463	2465662
7341.11	-0.0614487	2467536
7350.13	-0.0622082	2468437
7360.27	-0.0628896	2470395
7370.41	-0.0633934	2472596
7380.55	-0.0636869	2473758
7390.69	-0.0635844	2476165
7400.83	-0.0635582	2477450
7410.97	-0.0632925	2479482
7421.11	-0.0628048	2481214
7430.12	-0.0621648	2483070
7440.26	-0.0611886	2486042
7450.4	-0.0599876	2487763
7460.54	-0.0586448	2490375
7470.68	-0.0571713	2492361
7480.83	-0.0555483	2494631
7490.97	-0.0537525	2496107
7501.11	-0.0517709	2497777
7510	-0.0498763	2499698
7520.77	-0.0473824	2501675
7530.43	-0.0449568	2503369
7540.84	-0.0421372	2505366
7550.5	-0.0393355	2507056
7560.08	-0.0363876	2508128
7570.43	-0.0330365	2510270
7580.78	-0.0295298	2511767
7590.38	-0.0261522	2512936
7600.1	-0.0226259	2514510
7611.06	-0.0185272	2516460
7620.97	-0.0147222	2518678
7630.88	-0.01083	2520938
7640.79	-0.00685665	2522599
7650.7	-0.00280765	2524765
7660.61	0.00131211	2526099
7670.52	0.00549783	2528166
7680.43	0.00974505	2529405
7690.35	0.0140498	2530765
7700.26	0.0184082	2531890
7710.17	0.0228156	2533061
7720.13	0.0272888	2534243
7730.22	0.0318538	2535161
7740.33	0.0364486	2536401
7750.45	0.0410547	2537544
7760.56	0.0456558	2538991
7770.68	0.0502387	2540442
7780.8	0.0547923	2541328
7790.93	0.0593101	2542539
7801.07	0.0637817	2543566
7810.07	0.0676961	2544294
7820.18	0.0720308	2545707
7830.3	0.0762868	2546545
7840.42	0.0804548	2547751
7850.53	0.084525	2548303
7860.65	0.0884866	2549711
7870.77	0.092328	2551173
7880.89	0.0960373	2552977
7891	0.099602	2555005
7900.99	0.102965	2556453
7910.91	0.106145	2558375
7920.82	0.10915	2559779
7930.73	0.111975	2562069
7940.64	0.114611	2564629
7950.54	0.117048	2566424
7960.44	0.119284	2569482
7970.35	0.121313	2572106
7980.25	0.123134	2574658
7990.15	0.124746	2577258
8000.06	0.12615	2580040
8011.06	0.127473	2582189
8020.97	0.128455	2584881
8030.87	0.129248	2587426
8040.78	0.129862	2589718
8050.68	0.130308	2592152
8060.58	0.130596	2593932
8070.49	0.130741	2596753
8080.39	0.130755	2598866
8090.3	0.130654	2600465
8100.2	0.13045	2601787
8110.1	0.13016	2603683
8120.01	0.129796	2605744
8130.59	0.129341	2607492
8140.1	0.128885	2609195
8151	0.128322	2611553
8160.77	0.127789	2613383
8170.2	0.127255	2615755
8180.59	0.126652	2618171
8190.12	0.126086	2619654
8200.87	0.125437	2621228
8210.74	0.124828	2623412
8220.31	0.124227	2625459
8230.04	0.123601	2627577
8240.71	0.122893	2629574
8250.13	0.122244	2631492
8260.85	0.12147	2633291
8270.72	0.120717	2635276
8280.45	0.119928	2637207
8290.08	0.119095	2639373
8300.73	0.118102	2641794
8310.3	0.117137	2643665
8320.93	0.115974	2645901
8330.53	0.114834	2647546
8340.23	0.113586	2649258
8350.05	0.112216	2650716
8360.12	0.110695	2652387
8370.19	0.10905	2654250
8381.05	0.107133	2655331
8390	0.105438	2657192
8400.73	0.103271	2659022
8410.12	0.101258	2660577
8420.57	0.0988917	2661716
8430.37	0.0965564	2663848
8440.03	0.0941559	2665024
8450.59	0.0914292	2665935
8460.42	0.0888078	2667330
8470.03	0.0861772	2667998
8480.1	0.0833635	2669414
8490.95	0.0802812	2670814
8500.58	0.077514	2672133
8510.61	0.07462	2673259
8520.31	0.0718206	2674935
8530.81	0.0688071	2677389
8540.25	0.0661285	2678483
8550.8	0.0631797	2680042
8560.61	0.0604979	2681123
8570.13	0.0579591	2682540
8580.67	0.0552386	2684247
8590.16	0.0528802	2685629
8600.63	0.0503863	2687060
8610.76	0.0480883	2688345
8620.63	0.0459623	2689419
8630.23	0.0440052	2691280
8640.8	0.0419791	2692788
8650.23	0.0402878	2693285
8660.71	0.0385342	2694621
8670.25	0.0370553	2695766
8680.81	0.0355407	2697280
8690.31	0.034283	2698465
8701.01	0.0329771	2700040
8710.71	0.0318839	2701590
8720.25	0.0308846	2702799
8731.06	0.0298305	2703940
8740.59	0.0289612	2705334
8750.07	0.0281409	2706858
8760.64	0.027268	2708360
8770.42	0.0264842	2709447
8780.14	0.0257169	2711135
8790.66	0.0248847	2712667
8800.13	0.024122	2714123
8810.65	0.023246	2715861
8820.16	0.0224189	2717326
8830.98	0.0214251	2718979
8840.59	0.0204858	2720169
8850.22	0.0194841	2721243
8861.02	0.0182783	2722394
8870.1	0.017193	2722851
8880.3	0.0158867	2724524
8890.51	0.0144851	2725399
8900.71	0.0129844	2727171
8910.89	0.0113865	2728704
8920.93	0.00971123	2729584
8931.01	0.00792937	2730664
8940.94	0.00607907	2732282
8950.63	0.00418884	2733929
8960.61	0.00215902	2735152
8970.58	5.24705e-05	2736465
8980.18	-0.00204155	2737794
8990.71	-0.00440281	2738500
9000.03	-0.00654216	2740083
9010.43	-0.0089686	2740436
9020.92	-0.0114492	2741288
9030.47	-0.0137214	2741989
9040.23	-0.0160497	2742404
9050.08	-0.0183911	2743044
9060.55	-0.0208616	2743608
9070.87	-0.0232641	2744323
9080.16	-0.02539	2744365
9090.48	-0.0277037	2744235
9100.08	-0.0298016	2744961
9110.65	-0.0320439	2745523
9120.09	-0.0339814	2746358
9130.76	-0.0360928	2747263
9140.35	-0.0379184	2748607
9150.91	-0.0398491	2750835
9160.41	-0.0415117	2751692
9170.97	-0.0432798	2753318
9180.53	-0.0448088	2754837
9190.38	-0.0463167	2756254
9201.05	-0.0478725	2757945
9210.67	-0.0492127	2759563
9220.18	-0.0504827	2761336
9230.91	-0.0518567	2762596
9240.59	-0.0530499	2765030
9250.32	-0.0542085	2766473
9260.03	-0.0553299	2768694
9270.35	-0.0564875	2770844
9280.67	-0.057614	2772867
9290.99	-0.058713	2774303
9300.5	-0.0597035	2775166
9310.1	-0.0606843	2776938
9321.09	-0.0617837	2778669
9330.64	-0.0627192	2780186
9340.05	-0.0636241	2781532
9350.5	-0.0646051	2783155
9360.99	-0.0655635	2785497
9370.58	-0.0664131	2786870
9380.16	-0.0672335	2788139
9390.81	-0.0681069	2789560
9400.49	-0.0688606	2791804
9411.04	-0.0696319	2793489
9420.53	-0.0702758	2795580
9430.96	-0.0709224	2797466
9440.34	-0.071445	2799494
9450.8	-0.0719559	2801217
9460.18	-0.0723458	2802722
9470.61	-0.0726988	2805202
9481.03	-0.0729641	2807420
9490.48	-0.0731266	2808994
9500.03	-0.0732142	2809590
9510.59	-0.0732206	2810342
9520.06	-0.0731457	2811089
9530.57	-0.0729746	2812218
9540.07	-0.0727421	2813501
9550.64	-0.0724002	2814719
9560.12	-0.0720222	2815408
9570.63	-0.07153	2816120
9580.16	-0.071024	2816244
9590.79	-0.0703993	2816490
9600.43	-0.0697856	2816839
9610.86	-0.0690819	2817545
9620.34	-0.0684148	2817554
9630.9	-0.0676512	2818151
9640.44	-0.0669531	2818203
9650.22	-0.0662397	2817618
9660.14	-0.065527	2817515
9671.05	-0.0647679	2817657
9680.72	-0.0641259	2817613
9690.19	-0.063532	2818059
9700.71	-0.0629956	2818244
9710.21	-0.0625595	2818059
9720.83	-0.0619912	2817660
9730.45	-0.061584	2818143
9740.01	-0.0612453	2818673
9750.8	-0.0609087	2818718
9760.65	-0.0606386	2818935
9770.42	-0.0604084	2819210
9780.94	-0.0602056	2818666
9790.68	-0.0600573	2819199
9800.51	-0.0599396	2819470
9810.83	-0.059841	2820070
9820.13	-0.0597653	2820930
9830.5	-0.0596853	2821217
9840.99	-0.0595976	2821599
9850.55	-0.0595011	2821698
9860.46	-0.0593731	2821528
9870.25	-0.059208	2822044
9880.73	-0.0589762	2822097
9890.33	-0.0587044	2820846
9901.04	-0.0583236	2820736
9910.77	-0.0578991	2820508
9920.05	-0.0574183	2820837
9930.44	-0.0567884	2819598
9940.01	-0.0561181	2819742
9950.89	-0.0552489	2819250
9960.17	-0.0544153	2819584
9970.01	-0.053373	2820662
9980.02	-0.0521662	2821504
9990.02	-0.0521231	2823065
10000.8	-0.050759	2824198
10010.5	-0.049534	2825668
10020.1	-0.0482865	2827671
10030.4	-0.046754	2829420
10040.7	-0.0450892	2831271
10050	-0.0435503	2832926
10060.3	-0.0418035	2834300
10070.7	-0.0399852	2836577
10080.1	-0.0383353	2838128
10090.5	-0.0365298	2840665
10100.9	-0.0347499	2842558
10110.2	-0.033181	2844035
10120.6	-0.0314434	2845631
10130.2	-0.0298291	2846562
10140.1	-0.0282113	2848252
10150.6	-0.0265266	2849770
10160	-0.025066	2850424
10170.6	-0.0235107	2852014
10180.9	-0.0220671	2852962
10190.3	-0.0208465	2854888
10200.7	-0.0195844	2856007
10210	-0.018544	2857623
10220.4	-0.0174936	2859468
10230.7	-0.0165604	2861901
10241	-0.0157479	2864554
10250.3	-0.0151206	2866819
10260.7	-0.0145426	2870125
10270.2	-0.0141298	2873361
10280.6	-0.0137988	2876012
10291	-0.0135991	2879343
10300.4	-0.013531	2881553
10310.9	-0.0135787	2883970
10320.3	-0.0143207	2886197
10330.7	-0.0145957	2887836
10340.1	-0.0149498	2890201
10350.6	-0.0154595	2892149
10360.2	-0.0160264	2893768
10370.9	-0.0167805	2894904
10380.6	-0.0175639	2895400
10390.4	-0.0184628	2896136
10400.6	-0.0195001	2897584
10410	-0.0205588	2898735
10420.5	-0.021838	2899896
10431	-0.0232227	2901541
10440.5	-0.0245581	2903199
10450.9	-0.0261224	2904155
10460.3	-0.0276111	2905282
10470.7	-0.0293515	2906532
10480.1	-0.0309986	2906583
10490.8	-0.0329574	2907075
10500.7	-0.0348216	2908325
10511	-0.036857	2908971
10520.3	-0.038737	2909884
10530.6	-0.0408946	2910481
10540.5	-0.0429904	2910120
10550.4	-0.0451706	2910457
10560.3	-0.0473739	2910413
10570.9	-0.0497689	2911481
10580.2	-0.0519173	2913074
10590.5	-0.0543333	2913609
10600.9	-0.0567749	2914270
10610.2	-0.0589798	2914883
10620.5	-0.0614508	2915284
10630	-0.0637249	2916319
10640.5	-0.0662154	2918245
10650.9	-0.0687057	2919108
10660.4	-0.0709608	2919112
10671	-0.0734833	2919706
10680	-0.075607	2920555
10691	-0.0781669	2921141
10700.5	-0.0803637	2922200
10710.9	-0.0827001	2923020
10720.3	-0.084768	2923610
10730.1	-0.0868722	2923911
10741	-0.0891433	2924194
10750.8	-0.0911311	2924420
10760.5	-0.0930547	2925429
10770.9	-0.0950346	2925797
10780.2	-0.0967546	2925711
10790.9	-0.0986676	2925889
10800.8	-0.100341	2925741
10810.6	-0.101908	2926677
10820.9	-0.103471	2927515
10830.4	-0.104823	2928079
10840.3	-0.106137	2928120
10850.9	-0.10745	2929337
10860.3	-0.108522	2929456
10870.8	-0.109614	2929701
10880.2	-0.110505	2929975
10890.8	-0.111387	2929642
10900.2	-0.112078	2929133
10910.8	-0.112735	2928809
10920.2	-0.113225	2928879
10930.7	-0.113655	2929006
10940.6	-0.113948	2928670
10950.8	-0.114139	2929304
10961	-0.114215	2930160
10970	-0.114187	2931179
10980.9	-0.114036	2932755
10990.6	-0.113794	2933927
11000.6	-0.113436	2935040
11010.1	-0.113	2935407
11020.7	-0.112397	2936244
11030.4	-0.11174	2936544
11041	-0.110906	2938246
11050.4	-0.110065	2938214
11060	-0.109101	2938439
11070.9	-0.107899	2938440
11080.3	-0.106747	2939046
11090.9	-0.105349	2939858
11100.4	-0.103989	2940145
11110	-0.102519	2940530
11120.6	-0.100782	2941177
11130.1	-0.0991169	2941797
11140.6	-0.0971832	2942621
11150	-0.0953454	2943311
11160.5	-0.0931867	2943236
11170.6	-0.0910105	2944270
11180	-0.0888702	2944753
11190.5	-0.0864113	2945574
11200.9	-0.0838483	2946382
11210.3	-0.0814559	2946878
11220.7	-0.0787021	2947917
11230.2	-0.0761177	2948606
11240.7	-0.0731655	2949484
11250.3	-0.0704292	2950014
11261	-0.0672798	2951203
11270.4	-0.0644626	2951747
11280.9	-0.061267	2952184
11290.9	-0.0581691	2952443
11300.8	-0.0550758	2952634
11310.3	-0.0520837	2952859
11320.8	-0.04873	2952982
11330.3	-0.0456918	2953496
11340.8	-0.0423013	2953741
11350.3	-0.0392196	2953650
11360.3	-0.0359616	2953761
11370.4	-0.0326857	2954657
11380.6	-0.0294023	2955127
11390.3	-0.0262519	2956157
11400.9	-0.0228645	2957740
11410.4	-0.0198356	2958544
11421	-0.0164935	2959086
11430.5	-0.0135074	2960150
11440.3	-0.0104556	2961067
11450.5	-0.00732076	2961378
11460.7	-0.00422866	2962015
11471	-0.0011772	2962356
11480.1	0.00149794	2963011
11490.3	0.00446282	2963460
11500.5	0.00738312	2963980
11510.8	0.0102511	2964913
11520.9	0.0130273	2965630
11531	0.0157553	2966580
11540.1	0.0181601	2967008
11550.3	0.0208061	2968273
11560.5	0.0233869	2970214
11570.7	0.0259096	2971616
11580.9	0.0283748	2973455
11591.1	0.0307788	2974290
11600.1	0.0328551	2974943
11610.2	0.0351329	2975286
11620.1	0.0373278	2975588
11630.1	0.0394666	2975072
11641.1	0.0417794	2973901
11651	0.0438078	2972921
11660.9	0.0457884	2972267
11670.8	0.0477224	2971697
11680.7	0.0496109	2970535
11690.6	0.051455	2969297
11700.5	0.0532562	2968385
11710.3	0.0550156	2967964
11720.2	0.0567346	2967674
11730.1	0.0584144	2967933
11740	0.0600563	2968229
11751	0.0618376	2968659
11760.9	0.0634035	2969461
11770.8	0.0649353	2969552
11780.8	0.0664384	2970289
11790.7	0.0679094	2970676
11800.6	0.0693533	2971603
11810.6	0.070773	2973124
11820.6	0.072165	2973969
11830.6	0.0735281	2974839
11840.7	0.0748632	2975765
11850.7	0.0761749	2977544
11860.8	0.0774614	2978479
11870.8	0.0787207	2979613
11880.9	0.0799532	2979276
11891	0.0811597	2979475
11901	0.0823417	2979330
11910	0.083372	2979103
11920.1	0.0845093	2978154
11930.3	0.0856221	2977893
11940.5	0.086708	2977377
11950.6	0.0877667	2977137
11960.8	0.0887982	2977180
11970.9	0.0898022	2976755
11981.1	0.0907786	2976121
11990.1	0.0916233	2976018
12000.2	0.0925473	2975758
12010.4	0.0934435	2975668
12020.6	0.094312	2974780
12030.7	0.0951528	2974435
12040.9	0.0959661	2973754
12051	0.0967507	2973489
12060.9	0.0974886	2973130
12070.2	0.0981657	2972387
12080.8	0.0989041	2972602
12090.2	0.0995363	2972547
12100.6	0.100214	2973127
12111	0.100867	2973201
12121	0.101468	2974025
12131.1	0.102056	2974232
12140.1	0.102562	2975392
12150.2	0.103113	2976541
12160.3	0.103645	2977003
12170.4	0.10416	2978705
12180.5	0.10466	2979469
12190.6	0.105146	2980583
12200.7	0.10562	2980741
12210.8	0.106082	2980906
12220.9	0.106535	2981542
12230.7	0.106967	2981264
12240.2	0.107376	2981858
12251	0.10784	2981330
12261.1	0.108269	2981520
12270.1	0.108646	2981312
12280.2	0.109069	2980963
12290.3	0.109489	2981428
12300.1	0.109893	2981580
12310.5	0.110321	2981654
12320.9	0.110746	2981507
12330.4	0.111129	2981484
12340.6	0.111533	2980989
12350.7	0.111931	2980211
12360.9	0.112323	2980033
12370.9	0.112701	2979249
12380.3	0.113045	2979331
12390.7	0.113419	2978285
12400.2	0.113752	2977183
12410.2	0.11409	2976633
12420.4	0.114405	2976261
12430.5	0.114694	2976494
12440.5	0.11494	2976236
12450.5	0.115154	2975992
12460.4	0.115334	2975988
12470.9	0.115532	2976245
12480.3	0.115715	2976113
12490.8	0.115906	2976600
12500.5	0.116062	2977112
12511.1	0.1162	2977673
12520.6	0.116287	2978257
12530.4	0.116334	2978691
12540.2	0.116334	2979911
12550	0.116287	2980917
12560.9	0.116182	2982573
12570.7	0.116043	2983805
12580.5	0.11586	2984783
12590.3	0.115632	2986027
12600.1	0.115356	2987260
12611	0.114982	2988891
12620.8	0.114579	2990825
12630.3	0.114119	2992004
12640.2	0.113575	2993059
12651.1	0.112881	2992818
12660.9	0.112174	2993740
12670.7	0.111388	2995112
12680.5	0.110522	2995472
12690.3	0.109573	2996299
12700.1	0.108537	2996690
12711	0.10728	2997417
12720.8	0.10605	2998016
12730.7	0.104723	2998489
12740.5	0.103378	2998939
12750.4	0.101941	2998841
12760.3	0.100308	2999325
12770.3	0.0985114	2999928
12780.2	0.0965887	3000732
12790.1	0.0945592	3000878
12800.1	0.092427	3001609
12810.2	0.0901764	3002146
12820.3	0.0878179	3002933
12830.3	0.0853732	3003509
12840.4	0.0828563	3004358
12850.5	0.0802785	3004810
12860.5	0.0776481	3005166
12870.4	0.0749636	3005894
12880.4	0.0722203	3006330
12890.4	0.0694241	3007357
12900.4	0.0665807	3007924
12910.3	0.0636953	3008610
12920.3	0.0607725	3009029
12930.3	0.0578164	3009726
12940.2	0.0548383	3010504
12950.1	0.0518551	3011373
12961	0.0485383	3012412
12970.8	0.0455513	3013061
12980.5	0.0425529	3013631
12990.3	0.0395472	3014252
13000.1	0.036538	3014778
13010.9	0.033195	3015722
13020.7	0.0301912	3016841
13030.5	0.0271961	3017831
13040.2	0.0242142	3018927
13050	0.0212498	3019525
13060.9	0.0179819	3021386
13070.6	0.0150689	3022431
13080.4	0.012187	3022797
13090.2	0.00934009	3023854
13101	0.00622253	3024140
13110.8	0.00346165	3024215
13120.6	0.000746635	3023924
13130.3	-0.0019196	3023775
13140.1	-0.0045344	3023191
13150.9	-0.00737175	3022539
13160.6	-0.00984908	3021948
13170.3	-0.0122604	3020927
13181	-0.0148695	3020796
13190.6	-0.0171538	3020457
13200.2	-0.0193558	3020777
13210.7	-0.0217119	3020533
13220.2	-0.0237666	3019684
13230.7	-0.0259637	3019141
13240.1	-0.0278661	3018864
13250.5	-0.0299046	3018750
13261	-0.0318634	3018593
13270.4	-0.0335696	3018238
13281	-0.0353944	3018544
13290.4	-0.0369641	3018448
13301	-0.0386286	3018796
13310.6	-0.0400784	3018346
13320.2	-0.0414633	3018557
13331	-0.0429194	3018668
13340.6	-0.044156	3018815
13350.2	-0.045327	3018551
13360.7	-0.0465274	3018755
13370.1	-0.0475339	3019117
13380.6	-0.0485717	3019636
13391	-0.0495292	3019793
13400.5	-0.0503214	3021157
13410.9	-0.0511239	3021670
13420.3	-0.0517778	3023048
13430.9	-0.0524219	3023613
13440.3	-0.0529231	3023734
13450.7	-0.053438	3023935
13460.1	-0.0538546	3024215
13470.6	-0.0542799	3024336
13480.4	-0.054423	3024496
13490.2	-0.0545565	3023697
13500	-0.0547345	3023498
13510.9	-0.0550609	3023075
13520.4	-0.0552295	3022813
13530.8	-0.0553133	3022790
13540.3	-0.0553143	3022764
13550.8	-0.0552559	3022544
13560.3	-0.0551618	3021931
13571	-0.0550222	3021783
13580.7	-0.0548676	3021044
13590.2	-0.0546833	3019911
13600.9	-0.054446	3019355
13610.6	-0.0542195	3019080
13620.2	-0.0539788	3018952
13630.9	-0.053692	3018643
13640.5	-0.0534169	3019037
13651	-0.0531011	3018643
13660.5	-0.0528037	3018261
13671	-0.0524677	3017869
13680.6	-0.0521581	3017331
13690.2	-0.0518463	3016795
13700.8	-0.0515012	3016083
13710.4	-0.0511947	3015350
13721	-0.0508663	3014896
13730.5	-0.050581	3013248
13740.1	-0.0503034	3012966
13750.6	-0.0499462	3012443
13760	-0.0496857	3012114
13770.5	-0.0494047	3011474
13781	-0.0491547	3009910
13790.5	-0.0489581	3009591
13800.1	-0.0487682	3008419
13810.7	-0.0485156	3008843
13820.2	-0.048364	3008800
13830.7	-0.0483002	3007449
13840.2	-0.0482737	3007660
13850.8	-0.048227	3005943
13860.3	-0.0481871	3005001
13871	-0.0481558	3004279
13880.6	-0.0481428	3003226
13890.4	-0.0481521	3002133
13900.9	-0.0481919	3001816
13910.4	-0.0482486	3000925
13921	-0.048329	2999988
13930.8	-0.0484141	2999202
13940.3	-0.0485073	2998424
13950.8	-0.0486195	2997171
13960.5	-0.0487322	2996061
13970.3	-0.0488546	2995637
13980.2	-0.0489838	2995090
13990.8	-0.0491279	2995526
14000.2	-0.0492573	2995473
14010.8	-0.0493982	2994365
14020.2	-0.04952	2994464
14030.7	-0.0496478	2994329
14040.2	-0.0497538	2994037
14050.8	-0.0498592	2993463
14060.3	-0.0499416	2993156
14070.2	-0.0500111	2992727
14080.9	-0.0500665	2991609
14090.5	-0.0500966	2991784
14100.2	-0.0501058	2990861
14111	-0.0500892	2989289
14120.9	-0.0500474	2989027
14130.4	-0.0499815	2988158
14141	-0.0498779	2986993
14150.9	-0.0497516	2986191
14160.6	-0.0496004	2986342
14170	-0.0494266	2985875
14180.5	-0.0492027	2984554
14190.1	-0.0489708	2983790
14200.9	-0.0486783	2983317
14210.7	-0.0483868	2982180
14220.3	-0.0480747	2980756
14230.9	-0.0477058	2979836
14240.4	-0.0473518	2978703
14251	-0.046933	2977131
14260.5	-0.046536	2976261
14270.2	-0.0461133	2975064
14280.3	-0.0456604	2973473
14290.9	-0.04516	2972389
14301	-0.0446744	2970400
14310.1	-0.044224	2969225
14320.4	-0.0437082	2968047
14330.3	-0.0432058	2966660
14340.6	-0.0426779	2965683
14350.8	-0.0421489	2965058
14361	-0.0416198	2964280
14370.9	-0.0411107	2963872
14380.5	-0.0406192	2962738
14390	-0.0401333	2962159
14400.6	-0.0396037	2960946
14411	-0.0390839	2959862
14420.7	-0.0386115	2959160
14430.7	-0.038138	2957485
14440.8	-0.0376662	2956515
14450.6	-0.0372242	2954363
14460.7	-0.0367903	2952792
14470.8	-0.0363784	2951113
14481	-0.0359858	2949053
14490.1	-0.0356566	2947678
14500.3	-0.0353063	2944697
14510.5	-0.0349748	2941963
14520.7	-0.03466	2939350
14531	-0.0343604	2936251
14540.1	-0.0341059	2933659
14550.3	-0.0338323	2930449
14560.5	-0.0335718	2927797
14570.7	-0.0333242	2924419
14580.9	-0.0330895	2921150
14590	-0.0328914	2918429
14600.2	-0.0326808	2915419
14610.4	-0.0324832	2912226
14620.5	-0.0322982	2909106
14630.7	-0.0321249	2906099
14640.1	-0.0319736	2902890
14650.2	-0.0318211	2899235
14660.3	-0.0316783	2896337
14670.4	-0.0315444	2893237
14680.2	-0.0314221	2890934
14690.9	-0.0312953	2888271
14700.9	-0.0311832	2885376
14711	-0.0310749	2882656
14721.1	-0.0309711	2879436
14730.1	-0.0308808	2876297
14740.6	-0.0307774	2873002
14750.7	-0.0306795	2869487
14760.8	-0.0305822	2865702
14770.4	-0.0304892	2861888
14780.4	-0.0303911	2857865
14790.4	-0.0302906	2854158
14800.3	-0.0301866	2849402
14810.1	-0.030078	2845628
14821	-0.0299506	2840364
14830.8	-0.0298273	2835096
14840.5	-0.0296944	2829694
14850.1	-0.0295527	2824113
14860.9	-0.0293787	2817146
14870.8	-0.0292039	2810132
14880.7	-0.0290128	2803284
14890.6	-0.0288038	2797551
14900.4	-0.0285751	2791636
14911	-0.0283076	2786650
14920.4	-0.0280478	2780950
14930.8	-0.0277333	2774363
14940.2	-0.0274253	2768411
14950.8	-0.0270454	2762079
14960.5	-0.0266723	2756631
14970	-0.0262719	2750784
14980.6	-0.0257916	2744813
14990.2	-0.025327	2738887
15000.7	-0.0247732	2733556
15010.3	-0.0242327	2728657
15021.1	-0.0235791	2722990
15030.9	-0.022942	2718140
15040.7	-0.0222701	2712681
15050.3	-0.0215631	2707653
15061.1	-0.0207268	2701600
15070.9	-0.0199143	2696721
15080.7	-0.0190623	2691543
15090.5	-0.0181713	2686656
15100.2	-0.017243	2681857
15110.9	-0.0161661	2676306
15120.5	-0.0151557	2671507
15130.2	-0.0141059	2667124
15140.5	-0.0129378	2661494
15150.9	-0.0117143	2656868
15160.5	-0.0105452	2652484
15170.1	-0.00934082	2648072
15180.7	-0.00798215	2643443
15190	-0.00675098	2638707
15200.4	-0.0053469	2634174
15210.8	-0.00389769	2629697
15220.4	-0.00253355	2625659
15231	-0.00099006	2621556
15240.4	0.000416029	2617510
15250.9	0.00200643	2612438
15260.1	0.00344322	2608295
15270.4	0.00506277	2603064
15280.7	0.00671169	2597767
15291	0.00838241	2592395
15300.2	0.00989472	2587475
15310.5	0.0115747	2582861
15320.8	0.0132456	2577743
15330.1	0.0147346	2573239
15340.4	0.0163712	2568740
15350.7	0.0179882	2563246
15361	0.0195783	2558810
15370.2	0.0209785	2554489
15380.6	0.0225094	2549657
15390	0.023851	2545500
15400.6	0.0253094	2540722
15410.2	0.0265752	2536440
15420.9	0.0279348	2531675
15430.5	0.0291061	2527170
15440.1	0.0302267	2522734
15450.8	0.0314102	2517949
15460.4	0.0324168	2513912
15470	0.0333645	2509592
15480.5	0.0343264	2505174
15491	0.0352127	2499958
15500.6	0.0359533	2495309
15510.3	0.0366243	2491258
15521	0.0372868	2485795
15530.6	0.0378102	2481523
15540.4	0.0382714	2476709
15550.1	0.0386621	2472374
15560.7	0.0390077	2467719
15570.2	0.0392476	2462275
15580.9	0.0394435	2456881
15590.7	0.039556	2451936
15600.9	0.0396051	2445686
15611.1	0.0395858	2439499
15620.9	0.0395032	2434301
15630.3	0.0393647	2429577
15640.7	0.0391479	2423835
15650.2	0.0388981	2419396
15660.7	0.0385657	2413105
15670.2	0.0382203	2407852
15680.7	0.0377883	2402254
15690.2	0.0373629	2396931
15700.6	0.0368507	2391338
15710.3	0.0363406	2386372
15720.4	0.035774	2381273
15730.6	0.0351747	2376045
15740.9	0.0345459	2371446
15751.1	0.033894	2367480
15760.2	0.0332981	2363070
15770.5	0.0326125	2358538
15780.7	0.0319185	2354642
15790.3	0.0312538	2351015
15801	0.0305077	2346803
15810.7	0.0298327	2343119
15820.3	0.0291548	2338654
15830.9	0.0283958	2333771
15840.6	0.0277052	2329032
15850.6	0.0269948	2324229
15860.5	0.0262942	2319577
15871	0.0255729	2314215
15880.5	0.0249387	2309823
15890.1	0.0243152	2305201
15900.4	0.0236696	2300665
15910.7	0.0230389	2296098
15920.7	0.0224447	2292158
15930.2	0.0218884	2288439
15940.9	0.0212819	2284041
15950.7	0.0207403	2279953
15961	0.0201759	2275574
15970.3	0.019687	2271035
15980.8	0.0191667	2265596
15990.5	0.0186963	2261545
16000	0.0182418	2257160
16010.5	0.0177415	2252626
16020.4	0.0172611	2248358
16031	0.016745	2243471
16040.5	0.0162803	2239552
16051.2	0.0157583	2235311
16060.4	0.0153071	2231588
16070.8	0.0148131	2228544
16080	0.0143764	2225346
16090.3	0.0138998	2221441
16100.6	0.0134306	2217268
16111	0.0129649	2212964
16120.4	0.0125445	2208566
16130.6	0.0120825	2204133
16141	0.0116074	2198969
16151.1	0.0111737	2194182
16160.4	0.0108314	2189462
16170.8	0.0104567	2184218
16180.2	0.0100412	2179578
16190.7	0.00863706	2174344
16200.7	0.00783055	2169422
16210.4	0.0072001	2165197
16220	0.00663169	2160183
16230.8	0.00601373	2155017
16240.4	0.00543761	2150301
16250.9	0.00477301	2145385
16260.2	0.00415405	2141359
16270.6	0.00343541	2136038
16281	0.00268506	2130991
16290.6	0.00196269	2126098
16300.1	0.00123488	2121343
16311.1	0.000370963	2116069
16321	-0.000405563	2111354
16330.8	-0.00118902	2106612
16340.3	-0.00195156	2102401
16350.6	-0.00279816	2097781
16360.9	-0.00366132	2093097
16370.2	-0.00445666	2088485
16380.5	-0.00536871	2083657
16390.9	-0.00630207	2078923
16400.8	-0.00720526	2074808
16410.6	-0.00812412	2071062
16420.4	-0.00905607	2066682
16430.2	-0.00999883	2062333
16440.1	-0.0109508	2058063
16450.2	-0.0119404	2053742
16460.8	-0.0129882	2049088
16470.9	-0.0139877	2045023
16480.3	-0.0149359	2041085
16490.8	-0.0160005	2036318
16500.2	-0.01697	2031824
16510.7	-0.0180608	2026914
16520.9	-0.0191326	2022374
16530	-0.0201056	2018464
16540.5	-0.0212305	2013528
16550.1	-0.0222842	2009521
16560.5	-0.02343	2004577
16570.9	-0.0245849	1999554
16580.3	-0.0256362	1995660
16590.4	-0.0267758	1990987
16600.8	-0.0279617	1986873
16611.3	-0.0291576	1982257
16620.4	-0.030213	1978471
16630.7	-0.0314206	1974447
16641.1	-0.0326409	1969708
16650.2	-0.0337282	1966091
16660.6	-0.034984	1961971
16671.1	-0.0362605	1957464
16680.4	-0.0373987	1954165
16690.9	-0.0387149	1950215
16700.2	-0.0398825	1947272
16710.9	-0.0412255	1943887
16720.1	-0.0424086	1941145
16730.7	-0.043769	1938039
16741.2	-0.0451339	1934603
16750.4	-0.046331	1931738
16760.7	-0.047697	1928659
16770	-0.0489265	1925594
16780.5	-0.0503133	1922155
16790	-0.0515933	1918469
16800.1	-0.0529338	1915214
16810.9	-0.0543844	1912386
16820	-0.0556023	1909408
16830.2	-0.0569722	1905859
16840.9	-0.0583884	1902375
16850.1	-0.0596159	1899326
16860.6	-0.0610137	1895714
16870.1	-0.0622645	1892090
16880.6	-0.0636372	1888706
16890	-0.0648545	1885104
16900.4	-0.0661944	1881864
16910.9	-0.067521	1878119
16920.8	-0.0687617	1873988
16930.8	-0.0700044	1870301
16940.9	-0.0712269	1866338
16950.4	-0.0723525	1862838
16960.6	-0.0735334	1858982
16970.6	-0.0746558	1855586
16980.2	-0.0757061	1852078
16990.1	-0.0767461	1848198
17000.3	-0.0777741	1844465
17010.5	-0.0787544	1840922
17020.7	-0.0796853	1837415
17031	-0.0805645	1833761
17041.2	-0.0813823	1830639
17050.1	-0.0820386	1828272
17060.6	-0.0827603	1824650
17071	-0.0834054	1821860
17080.1	-0.0839056	1818883
17090.2	-0.0844022	1815756
17100.4	-0.0848276	1812465
17110.8	-0.0851874	1808738
17120.7	-0.0854565	1805528
17130.6	-0.0856507	1802446
17140.8	-0.0857726	1798795
17150.1	-0.085812	1795620
17161.2	-0.0857681	1791458
17171.1	-0.0856421	1788345
17181.1	-0.0854325	1784540
17191	-0.0851419	1780903
17201.1	-0.0847596	1777614
17210.4	-0.0843263	1774662
17220.2	-0.0837949	1771563
17231.1	-0.0831033	1767925
17240	-0.0824579	1764845
17251.2	-0.0815633	1760867
17261.2	-0.0806622	1757389
17270.1	-0.0798037	1754341
17280.1	-0.0787435	1751094
17290.2	-0.0776008	1747842
17300.3	-0.0763777	1744902
17310.4	-0.075075	1742141
17320.6	-0.0736962	1739090
17330.7	-0.0722426	1736076
17340.9	-0.0707177	1733255
17351.1	-0.0691129	1730329
17360.1	-0.0676564	1727978
17370.3	-0.0659358	1725287
17380.6	-0.0641591	1722344
17390.8	-0.0623305	1719436
17401.1	-0.0604537	1716864
17410.2	-0.0587509	1714487
17420.7	-0.0567421	1711983
17431.2	-0.054695	1709337
17440.5	-0.0528667	1706859
17451.2	-0.0507111	1704045
17460.8	-0.048781	1701648
17470.6	-0.0467748	1698617
17480.4	-0.0447547	1695979
17490.2	-0.0427248	1693168
17500	-0.0406891	1690424
17511.5	-0.0383122	1687412
17521.3	-0.0362778	1684611
17531.1	-0.03425	1682202
17540.9	-0.0322326	1679729
17550.7	-0.0302292	1677282
17560.6	-0.0282429	1674825
17570.4	-0.026277	1671883
17580.2	-0.0243344	1669343
17590	-0.022418	1666944
17601.5	-0.0202184	1664404
17611.3	-0.0183668	1662471
17621.1	-0.0165487	1660138
17630.9	-0.0147659	1657633
17640.7	-0.0130202	1655294
17650.6	-0.0113136	1653262
17660.4	-0.00964635	1651115
17670.3	-0.00801554	1648977
17680.1	-0.00642903	1647160
17691.6	-0.00463371	1645080
17701.5	-0.00314202	1643111
17711.4	-0.00169329	1641168
17721.3	-0.000286773	1639526
17731.1	0.00107766	1637750
17741	0.0024004	1636021
17750.9	0.00368172	1634375
17760.8	0.00492166	1632468
17770.7	0.00611996	1630653
17780.5	0.00727613	1628764
17790.4	0.00839032	1626850
17800.3	0.00946131	1624913
17810.2	0.0104891	1622858
17820.1	0.0114744	1621090
17830	0.0124203	1618903
17841.6	0.0134733	1616328
17851.5	0.0143311	1614376
17861.4	0.0151495	1611873
17871.2	0.0159312	1609742
17881.1	0.0166875	1607516
17890.9	0.0174173	1605303
17900.8	0.0181098	1603382
17910.7	0.0187627	1601301
17920.5	0.0194784	1599196
17931	0.0200579	1597064
17941.4	0.0206308	1594846
17950.1	0.021093	1593218
17961.1	0.0216576	1590575
17971.6	0.0221696	1588252
17980.2	0.0225783	1586047
17990.2	0.0230285	1583699
18001.1	0.0235085	1581408
18010.5	0.023912	1578859
18020.8	0.0243296	1576276
18030.5	0.0247001	1573880
18040.4	0.0250434	1571143
18050.3	0.0253631	1568144
18060.9	0.025681	1565493
18070.2	0.0259395	1563545
18080.1	0.026198	1561812
18090.7	0.0264594	1559239
18100.3	0.026681	1557612
18110.8	0.0269099	1555050
18120.3	0.0271024	1553117
18130.8	0.0273004	1550988
18140.3	0.0274629	1549223
18150.7	0.0276244	1546483
18160.1	0.0277527	1544080
18170.6	0.0278757	1540962
18180	0.0279687	1538942
18190.6	0.0280512	1536303
18200.1	0.0281053	1534469
18210.6	0.0281426	1531482
18220.1	0.028155	1528836
18230.8	0.0281438	1526355
18240.9	0.0281079	1523583
18250.8	0.0280471	1521040
18260.5	0.0279625	1518503
18270.1	0.0278523	1516259
18280.7	0.0276991	1513988
18291.1	0.0275137	1512051
18300.3	0.0273224	1510532
18310.9	0.0270677	1508510
18321	0.0267888	1507077
18330.5	0.0264949	1505085
18341	0.026132	1503519
18350.5	0.0257719	1502121
18361	0.0253349	1499703
18370.4	0.0249091	1498022
18380.9	0.0243984	1495889
18390.3	0.0239026	1494097
18400.3	0.0233472	1492156
18410.9	0.0227182	1490011
18420.5	0.0221132	1488446
18430.1	0.0214756	1486721
18440.4	0.0207546	1484700
18450.5	0.0200136	1483179
18461.2	0.0191874	1481490
18470.7	0.0184336	1480037
18480.2	0.0176375	1478863
18490.8	0.0167241	1477496
18500.5	0.0158587	1476260
18510.3	0.0149599	1474295
18520.1	0.014035	1472235
18530.8	0.0129968	1470303
18540.8	0.0119964	1468267
18551.4	0.010913	1466368
18560.7	0.00994528	1464677
18570.7	0.00889122	1462903
18580	0.00788854	1461192
18590.4	0.00675637	1459139
18601	0.00558738	1456913
18610.3	0.00454311	1455102
18621.1	0.00333699	1452639
18630.8	0.00223482	1451219
18640.5	0.00112657	1449058
18650.1	3.34283e-05	1446987
18660.1	-0.00111933	1444966
18670.7	-0.00233868	1442692
18681.1	-0.00352574	1440794
18691.3	-0.00470242	1438866
18700.1	-0.00570363	1437004
18710.3	-0.00687011	1435294
18721.7	-0.00816615	1433154
18730.1	-0.00912399	1431966
18741.2	-0.010358	1429978
18750.4	-0.0113899	1428383
18760.7	-0.0125164	1426538
18770.9	-0.0136247	1425016
18781	-0.0147179	1423249
18791.2	-0.0157958	1421544
18801.4	-0.0168692	1420012
18811.6	-0.0179423	1418507
18820.2	-0.0188383	1417218
18830.5	-0.0198913	1415618
18840.5	-0.02089	1414129
18850.5	-0.0218708	1412647
18860.8	-0.0228631	1411082
18871	-0.0238379	1409612
18881.3	-0.0248047	1408009
18891.5	-0.025768	1406979
18900.1	-0.0265753	1405750
18910.6	-0.0275603	1404272
18921.1	-0.0285615	1402948
18931.6	-0.0295779	1401396
18940.4	-0.0304467	1400204
18950.9	-0.031491	1399110
18961.5	-0.0324982	1397531
18970.3	-0.0333713	1396372
18980.8	-0.0345517	1395257
18991.3	-0.034622	1393582
19000.1	-0.0349841	1392282
19010.5	-0.0361616	1390978
19020.7	-0.0375749	1389680
19031.1	-0.039063	1388099
19041.5	-0.0403645	1386873
19050.2	-0.0414133	1385645
19060.6	-0.0428258	1384610
19070.8	-0.0442113	1383422
19081	-0.0454602	1382045
19091.4	-0.0465417	1380735
19100.1	-0.0473422	1379505
19110.5	-0.048233	1378533
19120.9	-0.0490638	1377620
19131.3	-0.0498531	1376247
19141.7	-0.0506409	1375199
19150.4	-0.051309	1373982
19160.8	-0.0521009	1372735
19171.3	-0.0528392	1371081
19180.1	-0.0533829	1369686
19190.6	-0.0539278	1368102
19201	-0.0543502	1366477
19211.2	-0.0546621	1364891
19221.2	-0.0548846	1363394
19231.1	-0.0550388	1361690
19241.1	-0.055131	1360411
19251	-0.0551548	1358997
19260.9	-0.0550961	1357786
19270.9	-0.0549401	1356342
19280.8	-0.0546773	1354768
19290.7	-0.0543029	1353218
19300.6	-0.0538193	1351979
19310.3	-0.0532495	1350692
19320	-0.05261	1349200
19330.1	-0.0518405	1347710
19340.3	-0.0510075	1345991
19350.5	-0.0501117	1344684
19360.5	-0.0491239	1343165
19370.3	-0.0480731	1341554
19381.6	-0.0467728	1339868
19391.2	-0.0455944	1338294
19400.9	-0.0443142	1336869
19410.8	-0.04295	1335295
19421	-0.0414887	1333876
19431.3	-0.0399746	1332517
19441.4	-0.0384449	1330802
19451.3	-0.0368927	1329384
19461.4	-0.0352744	1327755
19471.5	-0.0335941	1326356
19480	-0.0321531	1325037
19490.2	-0.0303862	1323563
19500.1	-0.0286126	1322854
19510.1	-0.0268049	1321508
19520.1	-0.0249641	1320208
19530.1	-0.0230903	1319041
19540	-0.0211837	1317842
19550	-0.0192454	1317011
19560	-0.0172776	1316002
19571.6	-0.014949	1314338
19580	-0.0132571	1313767
19590.2	-0.0111733	1312742
19600.3	-0.00911883	1311554
19610.3	-0.00705613	1310270
19620.3	-0.00498968	1308970
19630.4	-0.0029053	1307758
19640.7	-0.000788576	1306738
19650.9	0.00132073	1305714
19661.2	0.00341996	1304354
19670.6	0.0053261	1303332
19680.1	0.00723258	1302099
19690.4	0.00929685	1300594
19700.7	0.0113534	1299363
19711.2	0.013411	1297803
19720.7	0.0152629	1296715
19730.6	0.0171717	1295462
19740.8	0.0191071	1294311
19751.1	0.0210342	1293110
19761.4	0.0229324	1291799
19771	0.0246875	1291070
19780.3	0.0263523	1290011
19790.1	0.0280657	1289048
19800.9	0.0299307	1287618
19810.7	0.0315723	1286353
19820.5	0.0331811	1285212
19830.6	0.0348024	1283930
19840.1	0.0362862	1282644
19850.6	0.0378754	1280973
19860	0.0392671	1279515
19870.4	0.0407454	1278304
19881.3	0.042236	1276835
19890.4	0.0434491	1275807
19901	0.0447884	1274707
19910.7	0.045964	1273416
19920	0.047055	1272155
19931.7	0.0483537	1270689
19940.2	0.0492621	1269661
19951.2	0.0503622	1268228
19960.6	0.0512466	1266971
19971.5	0.0522064	1265579
19981.3	0.052998	1264365
19990.5	0.053679	1263033
