time,surface_elevation,reference_data,number_of_local_cells,number_of_global_cells
0,9.13605e-05,-2,262144,262144
1.0002,0.000108896,-2,262144,262144
2.00042,0.000131216,-2,262144,262144
3.00064,0.000159706,-2,262144,262144
4.00088,0.000196168,-2,262144,262144
5.00112,0.00024297,-2,262144,262144
6.00136,0.000303237,-2,262144,262144
7.00161,0.000381115,-2,262144,262144
8.00187,0.000482114,-2,262144,262144
9.00212,0.000613591,-2,262144,262144
10.0024,0.000785379,-2,262144,262144
11.0027,0.00101064,-2,262144,262144
12.0002,0.00129172,-2,262144,262144
13.0005,0.00162935,-2,262144,262144
14.0008,0.00210801,-2,262144,262144
15.0013,0.00275683,-2,262144,262144
16.0018,0.00336439,-2,262144,262144
17.0024,0.00414136,-2,262144,262144
18.0003,0.00510673,-2,262144,262144
19.0013,0.00629152,-2,262144,262144
20.0004,0.00771379,-2,262144,262144
21.0011,0.0093927,-2,262144,262144
22.001,0.0113208,-2,262144,262144
23.0004,0.013464,-2,262144,262144
24.0024,0.0157527,-2,262144,262144
25.0012,0.0180472,-2,262144,262144
26.0025,0.0201898,-2,262144,262144
27.0002,0.0219791,-2,262144,262144
28.0029,0.0232595,-2,262144,262144
29.0014,0.0239107,-2,262144,262144
30.0015,0.0239125,-2,262144,262144
31.0029,0.023314,-2,262144,262144
32.0023,0.022225,-2,262144,262144
33.0021,0.0207785,-2,262144,262144
34.0016,0.0191117,-2,262144,262144
35.0011,0.0173478,-2,262144,262144
36.0004,0.015588,-2,262144,262144
37.0025,0.0139039,-2,262144,262144
38.0016,0.0123577,-2,262144,262144
39.0006,0.0109746,-2,262144,262144
40.0023,0.00976482,-2,262144,262144
41.0011,0.00873617,-2,262144,262144
42.0026,0.00787516,-2,262144,262144
43.0011,0.0071718,-2,262144,262144
44.0025,0.00661502,-2,262144,262144
45.0008,0.00616137,-2,262144,262144
46.0019,0.00582123,-2,262144,262144
47,0.00557121,-2,262144,262144
48.0009,0.0053972,-2,262144,262144
49.0017,0.00533278,-2,262144,262144
50.0024,0.00536026,-2,262144,262144
51.0001,0.00540754,-2,262144,262144
52.0006,0.0054717,-2,262144,262144
53.0009,0.00555275,-2,262144,262144
54.0011,0.00565194,-2,262144,262144
55.0012,0.00577083,-2,262144,262144
56.0011,0.00591631,-2,262144,262144
57.0009,0.00610425,-2,262144,262144
58.0006,0.00634995,-2,262144,262144
59.0001,0.0066208,-2,262144,262144
60.0023,0.00679847,-2,262144,262144
61.0015,0.00698603,-2,262144,262144
62.0005,0.00728855,-2,262144,262144
63.0022,0.00761818,-2,262144,262144
64.0009,0.00795734,-2,262144,262144
65.0018,0.00832685,-2,262144,262144
66.0007,0.00870308,-2,262144,262144
67.0028,0.00909084,-2,262144,262144
68.0012,0.00948222,-2,262144,262144
69.0003,0.0098693,-2,262144,262144
70.0027,0.0102436,-2,262144,262144
71.0021,0.0105944,-2,262144,262144
72.0012,0.0109145,-2,262144,262144
73.0001,0.0111971,-2,262144,262144
74.0013,0.0114377,-2,262144,262144
75.002,0.011631,-2,262144,262144
76.0023,0.0117733,-2,262144,262144
77.002,0.0118622,-2,262144,262144
78.0012,0.0118974,-2,262144,262144
79.0027,0.0118816,-2,262144,262144
80.0008,0.011823,-2,262144,262144
81.0011,0.0117406,-2,262144,262144
82.001,0.0116852,-2,262144,262144
83.0003,0.0116244,-2,262144,262144
84.002,0.00932033,-2,262144,262144
85.0004,0.00517935,-2,262144,262144
86.0013,0.00139269,-2,262144,262144
87.0019,0.00207101,-2,262144,262144
88.0022,-0.000805595,-2,262144,262144
89.0024,-0.00532153,-2,262144,262144
90.0024,-0.00569335,-2,262144,262144
91.0024,-0.00745413,-2,262144,262144
92.0024,-0.00900301,-2,262144,262144
93.0024,-0.0105486,-2,262144,262144
94.0024,-0.0110061,-2,262144,262144
95.0024,-0.00856145,-2,262144,262144
96.0024,-0.00893982,-2,262144,262144
97.0024,-0.0089957,-2,262144,262144
98.0024,-0.00743264,-2,262144,262144
99.0024,-0.00712287,-2,262144,262144
100.002,-0.00668531,-2,262144,262144
101.002,-0.00597503,-2,262144,262144
102.002,-0.00536676,-2,262144,262144
103.002,-0.00494432,-2,262144,262144
104.002,-0.00442941,-2,262144,262144
105.002,-0.0038533,-2,262144,262144
106.002,-0.00335173,-2,262144,262144
107.002,-0.00290495,-2,262144,262144
108.002,-0.00251724,-2,262144,262144
109.002,-0.00218809,-2,262144,262144
110.002,-0.00189308,-2,262144,262144
111.002,-0.0015992,-2,262144,262144
112.002,-0.00135495,-2,262144,262144
113.003,-0.00114275,-2,262144,262144
114.003,-0.000973018,-2,262144,262144
115.003,-0.000839949,-2,262144,262144
116,-0.000730302,-2,262144,262144
117,-0.000635947,-2,262144,262144
118.001,-0.000553757,-2,262144,262144
119.001,-0.000474786,-2,262144,262144
