time,surface_elevation,reference_data,number_of_local_cells,number_of_global_cells
0,9.11078e-05,-2,65536,65536
1.00128,0.000108586,-2,65536,65536
2.00256,0.000130875,-2,65536,65536
3.00386,0.000159337,-2,65536,65536
4.00518,0.00019578,-2,65536,65536
5.0065,0.000242579,-2,65536,65536
6.00782,0.000302873,-2,65536,65536
7.00121,0.000380122,-2,65536,65536
8.00254,0.000481065,-2,65536,65536
9.00388,0.000612545,-2,65536,65536
10.0052,0.000784351,-2,65536,65536
11.0066,0.00101004,-2,65536,65536
12,0.00128925,-2,65536,65536
13.0015,0.00162727,-2,65536,65536
14.0029,0.00205047,-2,65536,65536
15.0044,0.00258249,-2,65536,65536
16.006,0.00326961,-2,65536,65536
17.0077,0.00409539,-2,65536,65536
18.0016,0.0050687,-2,65536,65536
19.0037,0.00626195,-2,65536,65536
20.0068,0.00769561,-2,65536,65536
21.0034,0.00937069,-2,65536,65536
22.0021,0.0112958,-2,65536,65536
23.0031,0.0134389,-2,65536,65536
24.0067,0.0157251,-2,65536,65536
25.0047,0.0180102,-2,65536,65536
26.0052,0.0201434,-2,65536,65536
27.0078,0.021933,-2,65536,65536
28.0044,0.0232061,-2,65536,65536
29.0026,0.0238645,-2,65536,65536
30.0024,0.0238834,-2,65536,65536
31.0034,0.0233073,-2,65536,65536
32.0055,0.0222375,-2,65536,65536
33.0079,0.0208073,-2,65536,65536
34.0019,0.0191671,-2,65536,65536
35.004,0.0174131,-2,65536,65536
36.0058,0.0156593,-2,65536,65536
37.0076,0.0139831,-2,65536,65536
38.001,0.0124491,-2,65536,65536
39.0025,0.0110638,-2,65536,65536
40.0038,0.00985491,-2,65536,65536
41.005,0.00882383,-2,65536,65536
42.0061,0.00796243,-2,65536,65536
43.0071,0.00725727,-2,65536,65536
44.008,0.0066917,-2,65536,65536
45.0007,0.00625128,-2,65536,65536
46.0014,0.00591214,-2,65536,65536
47.002,0.00566271,-2,65536,65536
48.0025,0.00548979,-2,65536,65536
49.0029,0.00538254,-2,65536,65536
50.0031,0.00533322,-2,65536,65536
51.0033,0.00534022,-2,65536,65536
52.0034,0.00539474,-2,65536,65536
53.0033,0.00547114,-2,65536,65536
54.0031,0.00556219,-2,65536,65536
55.0028,0.00568347,-2,65536,65536
56.0024,0.00584172,-2,65536,65536
57.0018,0.00603487,-2,65536,65536
58.0011,0.0062583,-2,65536,65536
59.0002,0.00650991,-2,65536,65536
60.0072,0.00678636,-2,65536,65536
61.006,0.00708035,-2,65536,65536
62.0046,0.0073937,-2,65536,65536
63.003,0.00772952,-2,65536,65536
64.0011,0.00808649,-2,65536,65536
65.0071,0.00846458,-2,65536,65536
66.004,0.00885267,-2,65536,65536
67.0012,0.00924114,-2,65536,65536
68.0048,0.0096174,-2,65536,65536
69.0017,0.00997427,-2,65536,65536
70.0063,0.0103135,-2,65536,65536
71.0025,0.0106209,-2,65536,65536
72.0064,0.0108936,-2,65536,65536
73.0018,0.0111242,-2,65536,65536
74.0048,0.0113151,-2,65536,65536
75.0074,0.011462,-2,65536,65536
76.0013,0.0115641,-2,65536,65536
77.0028,0.0116274,-2,65536,65536
78.0038,0.0116455,-2,65536,65536
79.0042,0.0116094,-2,65536,65536
80.004,0.0115262,-2,65536,65536
81.0034,0.0114089,-2,65536,65536
82.0022,0.0112669,-2,65536,65536
83.0006,0.0110428,-2,65536,65536
84.0067,0.0105696,-2,65536,65536
85.0043,0.00940509,-2,65536,65536
86.0017,0.00749828,-2,65536,65536
87.0068,0.00419734,-2,65536,65536
88.0037,-0.000452592,-2,65536,65536
89.0005,-0.00504991,-2,65536,65536
90.0052,-0.00872771,-2,65536,65536
91.0018,-0.0111805,-2,65536,65536
92.0065,-0.0124809,-2,65536,65536
93.0032,-0.0127822,-2,65536,65536
94.0079,-0.0123652,-2,65536,65536
95.0045,-0.011572,-2,65536,65536
96.0012,-0.0106872,-2,65536,65536
97.0058,-0.0098083,-2,65536,65536
98.0025,-0.00897049,-2,65536,65536
99.0072,-0.00816218,-2,65536,65536
100.004,-0.0073947,-2,65536,65536
101,-0.00665479,-2,65536,65536
102.005,-0.00594401,-2,65536,65536
103.002,-0.00528404,-2,65536,65536
104.007,-0.00466106,-2,65536,65536
105.003,-0.00408505,-2,65536,65536
106.008,-0.00354106,-2,65536,65536
107.005,-0.00303473,-2,65536,65536
108.001,-0.00256835,-2,65536,65536
109.006,-0.00214178,-2,65536,65536
110.003,-0.00175852,-2,65536,65536
111.008,-0.00141984,-2,65536,65536
112.004,-0.00113848,-2,65536,65536
113.001,-0.000913152,-2,65536,65536
114.006,-0.000734708,-2,65536,65536
115.003,-0.000591182,-2,65536,65536
116.008,-0.000469808,-2,65536,65536
117.005,-0.000370206,-2,65536,65536
118.002,-0.000291467,-2,65536,65536
119.007,-0.000222218,-2,65536,65536
