time,surface_elevation,reference_data,number_of_local_cells,number_of_global_cells
0,9.27368e-05,-2,8192,8192
1.03392,0.000111487,-2,8192,8192
2.02291,0.000134402,-2,8192,8192
3.01192,0.000163612,-2,8192,8192
4.00095,0.000200951,-2,8192,8192
5.03496,0.000251299,-2,8192,8192
6.02404,0.000313591,-2,8192,8192
7.01312,0.000394004,-2,8192,8192
8.00223,0.00049818,-2,8192,8192
9.0363,0.000640685,-2,8192,8192
10.0254,0.000819472,-2,8192,8192
11.0146,0.00104997,-2,8192,8192
12.0038,0.00133448,-2,8192,8192
13.038,0.0017007,-2,8192,8192
14.0273,0.0021395,-2,8192,8192
15.0167,0.00268634,-2,8192,8192
16.0061,0.00336207,-2,8192,8192
17.0406,0.00423296,-2,8192,8192
18.0303,0.00525165,-2,8192,8192
19.0203,0.006478,-2,8192,8192
20.0113,0.00793281,-2,8192,8192
21.0037,0.00962785,-2,8192,8192
22.0434,0.0116487,-2,8192,8192
23.0403,0.0137785,-2,8192,8192
24.0397,0.0160165,-2,8192,8192
25.0415,0.0182322,-2,8192,8192
26,0.0201731,-2,8192,8192
27.0063,0.0218532,-2,8192,8192
28.0146,0.0230217,-2,8192,8192
29.0246,0.0235849,-2,8192,8192
30.0361,0.0235248,-2,8192,8192
31.0029,0.0229337,-2,8192,8192
32.0167,0.0218542,-2,8192,8192
33.031,0.0204305,-2,8192,8192
34.0451,0.0187948,-2,8192,8192
35.0129,0.0171453,-2,8192,8192
36.0266,0.0154198,-2,8192,8192
37.0402,0.0137706,-2,8192,8192
38.0076,0.0123152,-2,8192,8192
39.0209,0.0109456,-2,8192,8192
40.0341,0.00974922,-2,8192,8192
41.0011,0.00877036,-2,8192,8192
42.014,0.00790909,-2,8192,8192
43.0268,0.00720342,-2,8192,8192
44.0395,0.00663738,-2,8192,8192
45.0061,0.00621067,-2,8192,8192
46.0187,0.00586613,-2,8192,8192
47.0311,0.0056117,-2,8192,8192
48.0434,0.00543498,-2,8192,8192
49.0096,0.00532834,-2,8192,8192
50.0217,0.00527177,-2,8192,8192
51.0337,0.00526281,-2,8192,8192
52.0456,0.00529463,-2,8192,8192
53.0114,0.00535882,-2,8192,8192
54.023,0.00545817,-2,8192,8192
55.0345,0.00558677,-2,8192,8192
56.0459,0.00574095,-2,8192,8192
57.0112,0.0059102,-2,8192,8192
58.0224,0.00611137,-2,8192,8192
59.0333,0.00633895,-2,8192,8192
60.0441,0.0065941,-2,8192,8192
61.0088,0.00686334,-2,8192,8192
62.0193,0.00717241,-2,8192,8192
63.0296,0.00750965,-2,8192,8192
64.0396,0.00787339,-2,8192,8192
65.0347,0.00825069,-2,8192,8192
66.0406,0.00863946,-2,8192,8192
67.0203,0.00901572,-2,8192,8192
68.0059,0.00938853,-2,8192,8192
69.0373,0.00977119,-2,8192,8192
70.0458,0.0101318,-2,8192,8192
71.008,0.0104548,-2,8192,8192
72.0158,0.0107629,-2,8192,8192
73.0231,0.011033,-2,8192,8192
74.03,0.0112586,-2,8192,8192
75.0364,0.0114353,-2,8192,8192
76.0423,0.0115592,-2,8192,8192
77.0019,0.0116254,-2,8192,8192
78.0068,0.0116407,-2,8192,8192
79.0111,0.0116046,-2,8192,8192
80.0149,0.011516,-2,8192,8192
81.0181,0.011356,-2,8192,8192
82.0209,0.0111303,-2,8192,8192
83.0231,0.0109722,-2,8192,8192
84.0249,0.0107838,-2,8192,8192
85.0264,0.00967753,-2,8192,8192
86.0275,0.00696116,-2,8192,8192
87.0283,0.00309882,-2,8192,8192
88.0288,-0.000980483,-2,8192,8192
89.0293,-0.00460521,-2,8192,8192
90.0297,-0.00743917,-2,8192,8192
91.03,-0.00940705,-2,8192,8192
92.0304,-0.0105601,-2,8192,8192
93.0307,-0.0110266,-2,8192,8192
94.0311,-0.0109819,-2,8192,8192
95.0314,-0.0106125,-2,8192,8192
96.0317,-0.0100707,-2,8192,8192
97.0321,-0.00944771,-2,8192,8192
98.0325,-0.00878198,-2,8192,8192
99.0328,-0.00808742,-2,8192,8192
100.033,-0.0073771,-2,8192,8192
101.034,-0.006671,-2,8192,8192
102.034,-0.00599027,-2,8192,8192
103.034,-0.00534831,-2,8192,8192
104.035,-0.00474769,-2,8192,8192
105.035,-0.00418412,-2,8192,8192
106.035,-0.00365302,-2,8192,8192
107.036,-0.00315448,-2,8192,8192
108.036,-0.00269417,-2,8192,8192
109.037,-0.00227992,-2,8192,8192
110.037,-0.00191723,-2,8192,8192
111.038,-0.00160716,-2,8192,8192
112.038,-0.0013467,-2,8192,8192
113.039,-0.00112966,-2,8192,8192
114.039,-0.000947685,-2,8192,8192
115.04,-0.000792245,-2,8192,8192
116.04,-0.000656614,-2,8192,8192
117.041,-0.000536696,-2,8192,8192
118.041,-0.000430358,-2,8192,8192
119.042,-0.000336062,-2,8192,8192
