time,surface_elevation,reference_data,number_of_local_cells,number_of_global_cells
0,8.90844e-06,-2,8192,8192
1.03392,8.95644e-06,-2,8192,8192
2.02291,8.99207e-06,-2,8192,8192
3.01192,9.02985e-06,-2,8192,8192
4.00095,9.06822e-06,-2,8192,8192
5.03496,9.10817e-06,-2,8192,8192
6.02404,9.14589e-06,-2,8192,8192
7.01312,9.183e-06,-2,8192,8192
8.00223,9.21948e-06,-2,8192,8192
9.0363,9.25695e-06,-2,8192,8192
10.0254,9.29221e-06,-2,8192,8192
11.0146,9.32695e-06,-2,8192,8192
12.0038,9.36123e-06,-2,8192,8192
13.038,9.39667e-06,-2,8192,8192
14.0273,9.43023e-06,-2,8192,8192
15.0167,9.46355e-06,-2,8192,8192
16.0061,9.4967e-06,-2,8192,8192
17.0406,9.53124e-06,-2,8192,8192
18.0303,9.56465e-06,-2,8192,8192
19.0203,9.60551e-06,-2,8192,8192
20.0113,9.72852e-06,-2,8192,8192
21.0037,1.04109e-05,-2,8192,8192
22.0434,1.41407e-05,-2,8192,8192
23.0403,2.60979e-05,-2,8192,8192
24.0397,5.27424e-05,-2,8192,8192
25.0415,0.000155659,-2,8192,8192
26,0.000276331,-2,8192,8192
27.0063,0.000429482,-2,8192,8192
28.0146,0.0006064,-2,8192,8192
29.0246,0.000785922,-2,8192,8192
30.0361,0.000992734,-2,8192,8192
31.0029,0.00128634,-2,8192,8192
32.0167,0.00170867,-2,8192,8192
33.031,0.00223279,-2,8192,8192
34.0451,0.00285702,-2,8192,8192
35.0129,0.00354184,-2,8192,8192
36.0266,0.00454058,-2,8192,8192
37.0402,0.00591844,-2,8192,8192
38.0076,0.00757075,-2,8192,8192
39.0209,0.00976171,-2,8192,8192
40.0341,0.0125499,-2,8192,8192
41.0011,0.0159026,-2,8192,8192
42.014,0.0201711,-2,8192,8192
43.0268,0.0251141,-2,8192,8192
44.0395,0.0303828,-2,8192,8192
45.0061,0.03522,-2,8192,8192
46.0187,0.0395918,-2,8192,8192
47.0311,0.0429976,-2,8192,8192
48.0434,0.0454328,-2,8192,8192
49.0096,0.0469236,-2,8192,8192
50.0217,0.0476063,-2,8192,8192
51.0337,0.0475092,-2,8192,8192
52.0456,0.0468924,-2,8192,8192
53.0114,0.0458935,-2,8192,8192
54.023,0.0444182,-2,8192,8192
55.0345,0.0426497,-2,8192,8192
56.0459,0.0406657,-2,8192,8192
57.0112,0.0385244,-2,8192,8192
58.0224,0.0360561,-2,8192,8192
59.0333,0.0334243,-2,8192,8192
60.0441,0.0305958,-2,8192,8192
61.0088,0.0276506,-2,8192,8192
62.0193,0.0242655,-2,8192,8192
63.0296,0.0189632,-2,8192,8192
64.0396,0.0122907,-2,8192,8192
65.0347,0.0153721,-2,8192,8192
66.0406,-0.00888334,-2,8192,8192
67.0203,-0.00888334,-2,8192,8192
68.0059,-0.00888334,-2,8192,8192
69.0373,-0.00888334,-2,8192,8192
70.0458,-0.00888334,-2,8192,8192
71.008,-0.00888334,-2,8192,8192
72.0158,-0.00888334,-2,8192,8192
73.0231,-0.00888334,-2,8192,8192
74.03,-0.00888334,-2,8192,8192
75.0364,-0.00888334,-2,8192,8192
76.0423,-0.00888334,-2,8192,8192
77.0019,-0.00888334,-2,8192,8192
78.0068,-0.00888334,-2,8192,8192
79.0111,-0.00888334,-2,8192,8192
80.0149,-0.00888334,-2,8192,8192
81.0181,-0.00888334,-2,8192,8192
82.0209,-0.00888334,-2,8192,8192
83.0231,-0.00888334,-2,8192,8192
84.0249,-0.00888334,-2,8192,8192
85.0264,-0.00888334,-2,8192,8192
86.0275,-0.00857462,-2,8192,8192
87.0283,-0.0082686,-2,8192,8192
88.0288,-0.00790434,-2,8192,8192
89.0293,-0.00738007,-2,8192,8192
90.0297,-0.0067759,-2,8192,8192
91.03,-0.00614569,-2,8192,8192
92.0304,-0.00554017,-2,8192,8192
93.0307,-0.00498628,-2,8192,8192
94.0311,-0.00451334,-2,8192,8192
95.0314,-0.00414331,-2,8192,8192
96.0317,-0.00379856,-2,8192,8192
97.0321,-0.00345837,-2,8192,8192
98.0325,-0.00312621,-2,8192,8192
99.0328,-0.00280792,-2,8192,8192
100.033,-0.0025052,-2,8192,8192
101.034,-0.00222154,-2,8192,8192
102.034,-0.00195819,-2,8192,8192
103.034,-0.0017125,-2,8192,8192
104.035,-0.00149953,-2,8192,8192
105.035,-0.00136262,-2,8192,8192
106.035,-0.00126586,-2,8192,8192
107.036,-0.000987652,-2,8192,8192
108.036,-0.000698908,-2,8192,8192
109.037,-0.000462247,-2,8192,8192
110.037,-0.000254954,-2,8192,8192
111.038,-5.51225e-05,-2,8192,8192
112.038,0.000144534,-2,8192,8192
113.039,0.000347076,-2,8192,8192
114.039,0.000552719,-2,8192,8192
115.04,0.000760444,-2,8192,8192
116.04,0.000970469,-2,8192,8192
117.041,0.00118229,-2,8192,8192
118.041,0.00139516,-2,8192,8192
119.042,0.00160818,-2,8192,8192
