time,surface_elevation,reference_data,number_of_local_cells,number_of_global_cells
0,9.14111e-05,-2,262144,262144
1.00128,0.000108967,-2,262144,262144
2.00057,0.000131279,-2,262144,262144
3.00187,0.000159815,-2,262144,262144
4.00119,0.000196266,-2,262144,262144
5.00052,0.000243044,-2,262144,262144
6.00184,0.000303407,-2,262144,262144
7.00117,0.000381259,-2,262144,262144
8.0005,0.000482213,-2,262144,262144
9.00183,0.000613918,-2,262144,262144
10.0012,0.000785703,-2,262144,262144
11.0005,0.00101098,-2,262144,262144
12.0019,0.00129357,-2,262144,262144
13.0013,0.00163168,-2,262144,262144
14.0008,0.00205555,-2,262144,262144
15.0003,0.0025897,-2,262144,262144
16.0018,0.00341862,-2,262144,262144
17.0015,0.00418019,-2,262144,262144
18.0013,0.00513696,-2,262144,262144
19.0015,0.00631371,-2,262144,262144
20.0005,0.00773057,-2,262144,262144
21.001,0.00940512,-2,262144,262144
22.0017,0.0113309,-2,262144,262144
23.0007,0.0134699,-2,262144,262144
24.0002,0.0157497,-2,262144,262144
25.0003,0.0180444,-2,262144,262144
26.0007,0.0201837,-2,262144,262144
27.0013,0.0219774,-2,262144,262144
28.002,0.0232564,-2,262144,262144
29.0003,0.0239194,-2,262144,262144
30.0001,0.0238431,-2,262144,262144
31.0011,0.0233218,-2,262144,262144
32.0012,0.0222351,-2,262144,262144
33.0018,0.0207888,-2,262144,262144
34.0002,0.0191251,-2,262144,262144
35.0005,0.0173605,-2,262144,262144
36.0008,0.0155998,-2,262144,262144
37.0009,0.0139195,-2,262144,262144
38.0009,0.0123717,-2,262144,262144
39.0008,0.010988,-2,262144,262144
40.0005,0.00978197,-2,262144,262144
41.0001,0.00875377,-2,262144,262144
42.0016,0.0078929,-2,262144,262144
43.0009,0.00719666,-2,262144,262144
44,0.0066346,-2,262144,262144
45.0011,0.00633363,-2,262144,262144
46,0.0063508,-2,262144,262144
47.0008,0.00636328,-2,262144,262144
48.0015,0.0063683,-2,262144,262144
49.002,0.0063724,-2,262144,262144
50.0004,0.00637766,-2,262144,262144
51.0006,0.00638711,-2,262144,262144
52.0008,0.00640377,-2,262144,262144
53.0008,0.00643044,-2,262144,262144
54.0006,0.00647011,-2,262144,262144
55.0003,0.0065264,-2,262144,262144
56.0019,0.00660656,-2,262144,262144
57.0013,0.00672187,-2,262144,262144
58.0006,0.00692052,-2,262144,262144
59.0017,0.0071831,-2,262144,262144
60.0007,0.00737799,-2,262144,262144
61.0014,0.00748968,-2,262144,262144
62,0.00770669,-2,262144,262144
63.0004,0.00802726,-2,262144,262144
64.0006,0.00838064,-2,262144,262144
65.0002,0.00873882,-2,262144,262144
66.002,0.00911347,-2,262144,262144
67.0016,0.00951398,-2,262144,262144
68.0006,0.0100417,-2,262144,262144
69.0015,0.0106018,-2,262144,262144
70,0.0109794,-2,262144,262144
71.0001,0.0112962,-2,262144,262144
72.0018,0.0115808,-2,262144,262144
73.0012,0.011821,-2,262144,262144
74.0003,0.0120116,-2,262144,262144
75.0008,0.0121576,-2,262144,262144
76.0008,0.0122575,-2,262144,262144
77.0003,0.0122977,-2,262144,262144
78.0011,0.0122707,-2,262144,262144
79.0014,0.0121851,-2,262144,262144
80.0009,0.0120594,-2,262144,262144
81.0017,0.0119487,-2,262144,262144
82.0018,0.0119992,-2,262144,262144
83.0015,0.0114398,-2,262144,262144
84.0008,0.0104886,-2,262144,262144
85.0016,0.00936962,-2,262144,262144
86.0002,0.00691994,-2,262144,262144
87.0004,0.0014474,-2,262144,262144
88.0005,-0.00415212,-2,262144,262144
89.0005,-0.00828324,-2,262144,262144
90.0004,-0.0108752,-2,262144,262144
91.0003,-0.0121479,-2,262144,262144
92.0002,-0.0123226,-2,262144,262144
93.0002,-0.0117534,-2,262144,262144
94.0001,-0.010815,-2,262144,262144
95.002,-0.00987635,-2,262144,262144
96.0019,-0.00578845,-2,262144,262144
97.0018,-0.00435918,-2,262144,262144
98.0018,-0.00520687,-2,262144,262144
99.0017,-0.00627941,-2,262144,262144
100.002,-0.0064483,-2,262144,262144
101.002,-0.00605139,-2,262144,262144
102.001,-0.00544606,-2,262144,262144
103.001,-0.00482615,-2,262144,262144
104.001,-0.00423768,-2,262144,262144
105.001,-0.00367688,-2,262144,262144
106.001,-0.0031533,-2,262144,262144
107.001,-0.00274608,-2,262144,262144
108.001,-0.00239439,-2,262144,262144
109.001,-0.00206657,-2,262144,262144
110.001,-0.00177095,-2,262144,262144
111.001,-0.00152126,-2,262144,262144
112.001,-0.00133759,-2,262144,262144
113.001,-0.00119583,-2,262144,262144
114.001,-0.00107366,-2,262144,262144
115.001,-0.000963311,-2,262144,262144
116.001,-0.000871611,-2,262144,262144
117.001,-0.00079438,-2,262144,262144
118.001,-0.000714797,-2,262144,262144
119.001,-0.000634884,-2,262144,262144
