time,surface_elevation,reference_data,number_of_local_cells,number_of_global_cells
0,9.13099e-05,-2,131072,131072
1.00128,0.00010884,-2,131072,131072
2.00256,0.000131177,-2,131072,131072
3.00386,0.000159698,-2,131072,131072
4.00119,0.000196049,-2,131072,131072
5.00251,0.000242889,-2,131072,131072
6.00383,0.000303229,-2,131072,131072
7.00118,0.00038088,-2,131072,131072
8.00251,0.000481982,-2,131072,131072
9.00384,0.000613658,-2,131072,131072
10.0012,0.000785026,-2,131072,131072
11.0026,0.00101066,-2,131072,131072
12.0039,0.00129304,-2,131072,131072
13.0014,0.00163011,-2,131072,131072
14.0028,0.00205257,-2,131072,131072
15.0003,0.00258345,-2,131072,131072
16.0019,0.00331678,-2,131072,131072
17.0036,0.0041251,-2,131072,131072
18.0014,0.00509413,-2,131072,131072
19.0035,0.00628404,-2,131072,131072
20.0025,0.00770873,-2,131072,131072
21.0031,0.00938893,-2,131072,131072
22.0018,0.0113145,-2,131072,131072
23.0028,0.0134598,-2,131072,131072
24.0023,0.0157403,-2,131072,131072
25.0003,0.01803,-2,131072,131072
26.0008,0.0201688,-2,131072,131072
27.0034,0.021966,-2,131072,131072
28.004,0.0232453,-2,131072,131072
29.0023,0.023907,-2,131072,131072
30.002,0.023902,-2,131072,131072
31.0031,0.0233212,-2,131072,131072
32.0011,0.0222423,-2,131072,131072
33.0034,0.0207994,-2,131072,131072
34.0015,0.0191409,-2,131072,131072
35.0035,0.0173771,-2,131072,131072
36.0013,0.0156235,-2,131072,131072
37.003,0.0139424,-2,131072,131072
38.0006,0.0123994,-2,131072,131072
39.002,0.0110134,-2,131072,131072
40.0034,0.00980495,-2,131072,131072
41.0006,0.0087785,-2,131072,131072
42.0017,0.00791754,-2,131072,131072
43.0028,0.00721281,-2,131072,131072
44.0037,0.00664867,-2,131072,131072
45.0005,0.0062066,-2,131072,131072
46.0012,0.00586822,-2,131072,131072
47.0019,0.0056191,-2,131072,131072
48.0024,0.00544577,-2,131072,131072
49.0029,0.00533767,-2,131072,131072
50.0032,0.00528094,-2,131072,131072
51.0034,0.00530422,-2,131072,131072
52.0035,0.00537628,-2,131072,131072
53.0035,0.00546895,-2,131072,131072
54.0033,0.0055973,-2,131072,131072
55.0031,0.00578497,-2,131072,131072
56.0027,0.00598108,-2,131072,131072
57.0021,0.00614317,-2,131072,131072
58.0014,0.0062847,-2,131072,131072
59.0006,0.00653155,-2,131072,131072
60.0036,0.00683295,-2,131072,131072
61.0024,0.00714111,-2,131072,131072
62.0011,0.00745868,-2,131072,131072
63.0036,0.00779812,-2,131072,131072
64.0008,0.00816086,-2,131072,131072
65.0038,0.00854725,-2,131072,131072
66.0025,0.00894404,-2,131072,131072
67.002,0.00934777,-2,131072,131072
68.0019,0.00975139,-2,131072,131072
69.002,0.0101175,-2,131072,131072
70.0027,0.0104416,-2,131072,131072
71.003,0.0107322,-2,131072,131072
72.0028,0.010978,-2,131072,131072
73.0022,0.0111956,-2,131072,131072
74.0012,0.0114023,-2,131072,131072
75.0037,0.0115862,-2,131072,131072
76.0016,0.011723,-2,131072,131072
77.003,0.0117999,-2,131072,131072
78.0039,0.0118209,-2,131072,131072
79.0001,0.0117828,-2,131072,131072
80.0039,0.011696,-2,131072,131072
81.0031,0.0115776,-2,131072,131072
82.0018,0.01145,-2,131072,131072
83.0001,0.0112184,-2,131072,131072
84.002,0.0107516,-2,131072,131072
85.0036,0.00984017,-2,131072,131072
86.0008,0.00783078,-2,131072,131072
87.0017,0.00383847,-2,131072,131072
88.0024,-0.00166486,-2,131072,131072
89.003,-0.006548,-2,131072,131072
90.0034,-0.0100803,-2,131072,131072
91.0038,-0.0122457,-2,131072,131072
92.0003,-0.0131693,-2,131072,131072
93.0007,-0.0130988,-2,131072,131072
94.0011,-0.0124039,-2,131072,131072
95.0016,-0.0114684,-2,131072,131072
96.002,-0.0105435,-2,131072,131072
97.0024,-0.00964852,-2,131072,131072
98.0029,-0.00876902,-2,131072,131072
99.0033,-0.00758262,-2,131072,131072
100.004,-0.00665679,-2,131072,131072
101,-0.00537546,-2,131072,131072
102.001,-0.00477463,-2,131072,131072
103.001,-0.00489192,-2,131072,131072
104.001,-0.00457338,-2,131072,131072
105.002,-0.00402123,-2,131072,131072
106.002,-0.00346464,-2,131072,131072
107.003,-0.00293672,-2,131072,131072
108.003,-0.00244218,-2,131072,131072
109.004,-0.0019908,-2,131072,131072
110,-0.00159283,-2,131072,131072
111.001,-0.0012673,-2,131072,131072
112.001,-0.00102883,-2,131072,131072
113.002,-0.000848204,-2,131072,131072
114.003,-0.000703459,-2,131072,131072
115.003,-0.000590842,-2,131072,131072
116.004,-0.000497293,-2,131072,131072
117.001,-0.000420387,-2,131072,131072
118.001,-0.000355643,-2,131072,131072
119.002,-0.000297437,-2,131072,131072
