time,surface_elevation,reference_data,number_of_local_cells,number_of_global_cells
0,9.08823e-06,-2,65536,65536
1.0002,9.09961e-06,-2,65536,65536
2.00042,9.0908e-06,-2,65536,65536
3.00065,8.91722e-06,-2,65536,65536
4.00089,8.35445e-06,-2,65536,65536
5.00114,7.3764e-06,-2,65536,65536
6.0014,6.09707e-06,-2,65536,65536
7.00167,4.63915e-06,-2,65536,65536
8.00194,3.09017e-06,-2,65536,65536
9.00221,1.50384e-06,-2,65536,65536
10.0025,-8.91412e-08,-2,65536,65536
11.0028,-1.67235e-06,-2,65536,65536
12.0031,-3.23757e-06,-2,65536,65536
13.0035,-4.78142e-06,-2,65536,65536
14.0039,-6.30304e-06,-2,65536,65536
15.0043,-7.80207e-06,-2,65536,65536
16.0049,-9.27865e-06,-2,65536,65536
17.0055,-1.07336e-05,-2,65536,65536
18.0063,-1.21678e-05,-2,65536,65536
19.0074,-1.35824e-05,-2,65536,65536
20.0093,-1.4979e-05,-2,65536,65536
21.0016,-1.63436e-05,-2,65536,65536
22.0073,-1.77085e-05,-2,65536,65536
23.004,-1.90441e-05,-2,65536,65536
24.0032,-2.02701e-05,-2,65536,65536
25.0049,5.25003e-06,-2,65536,65536
26.009,0.00034422,-2,65536,65536
27.0039,0.000433554,-2,65536,65536
28.0007,0.00066143,-2,65536,65536
29.0108,0.000721786,-2,65536,65536
30.0109,0.00100546,-2,65536,65536
31.0007,0.00117837,-2,65536,65536
32.0031,0.00157738,-2,65536,65536
33.0057,0.00206467,-2,65536,65536
34.0083,0.00256825,-2,65536,65536
35.0106,0.00337666,-2,65536,65536
36.0013,0.00436929,-2,65536,65536
37.0034,0.00565238,-2,65536,65536
38.0053,0.00742567,-2,65536,65536
39.0071,0.00965471,-2,65536,65536
40.0087,0.0124074,-2,65536,65536
41.0103,0.0159113,-2,65536,65536
42.0002,0.0202568,-2,65536,65536
43.0015,0.0253919,-2,65536,65536
44.0027,0.0308913,-2,65536,65536
45.0038,0.0361701,-2,65536,65536
46.0048,0.0406299,-2,65536,65536
47.0058,0.0439709,-2,65536,65536
48.0066,0.0461569,-2,65536,65536
49.0073,0.0473136,-2,65536,65536
50.0079,0.0476228,-2,65536,65536
51.0085,0.0472609,-2,65536,65536
52.0089,0.0463719,-2,65536,65536
53.0092,0.0450707,-2,65536,65536
54.0093,0.0434425,-2,65536,65536
55.0094,0.0415562,-2,65536,65536
56.0093,0.0394498,-2,65536,65536
57.0091,0.0371555,-2,65536,65536
58.0087,0.0346883,-2,65536,65536
59.0082,0.0320498,-2,65536,65536
60.0075,0.0292292,-2,65536,65536
61.0067,0.0262042,-2,65536,65536
62.0057,0.0229359,-2,65536,65536
63.0044,0.0187036,-2,65536,65536
64.003,0.00856937,-2,65536,65536
65.0075,0.00691189,-2,65536,65536
66.0111,0.00473403,-2,65536,65536
67.005,-0.013215,-2,65536,65536
68.0028,-0.0132135,-2,65536,65536
69.0078,-0.0132127,-2,65536,65536
70.0049,-0.0132127,-2,65536,65536
71.0017,-0.0132127,-2,65536,65536
72.0095,-0.0132127,-2,65536,65536
73.0054,-0.0132127,-2,65536,65536
74.0009,-0.0132127,-2,65536,65536
75.0074,-0.0132127,-2,65536,65536
76.0019,-0.0132127,-2,65536,65536
77.0074,-0.0132127,-2,65536,65536
78.0009,-0.0132127,-2,65536,65536
79.0053,-0.0132127,-2,65536,65536
80.0091,-0.0132127,-2,65536,65536
81.001,-0.0132127,-2,65536,65536
82.0037,-0.0132088,-2,65536,65536
83.006,-0.0130677,-2,65536,65536
84.0078,-0.0118662,-2,65536,65536
85.0091,-0.0103612,-2,65536,65536
86.0101,-0.0093228,-2,65536,65536
87.0108,-0.00841732,-2,65536,65536
88.0112,-0.0076687,-2,65536,65536
89.0001,-0.00713278,-2,65536,65536
90.0003,-0.00663253,-2,65536,65536
91.0004,-0.00618615,-2,65536,65536
92.0005,-0.00571827,-2,65536,65536
93.0006,-0.00520459,-2,65536,65536
94.0008,-0.00470602,-2,65536,65536
95.0009,-0.00426679,-2,65536,65536
96.001,-0.00389079,-2,65536,65536
97.0011,-0.00354895,-2,65536,65536
98.0012,-0.00322725,-2,65536,65536
99.0013,-0.00293149,-2,65536,65536
100.001,-0.00265926,-2,65536,65536
101.002,-0.00240106,-2,65536,65536
102.002,-0.00215392,-2,65536,65536
103.002,-0.00191893,-2,65536,65536
104.002,-0.00169665,-2,65536,65536
105.002,-0.00147986,-2,65536,65536
106.002,-0.0012653,-2,65536,65536
107.002,-0.00107859,-2,65536,65536
108.002,-0.000917804,-2,65536,65536
109.003,-0.00073133,-2,65536,65536
110.003,-0.000524071,-2,65536,65536
111.003,-0.000318918,-2,65536,65536
112.003,-0.000109106,-2,65536,65536
113.003,0.000118444,-2,65536,65536
114.004,0.000360064,-2,65536,65536
115.004,0.000600115,-2,65536,65536
116.004,0.00083098,-2,65536,65536
117.005,0.00105574,-2,65536,65536
118.005,0.00127872,-2,65536,65536
119.005,0.00150064,-2,65536,65536
