time,surface_elevation,reference_data,number_of_local_cells,number_of_global_cells
0,9.19187e-05,-2,4096,4096
1.01718,0.000109893,-2,4096,4096
2.03438,0.000133185,-2,4096,4096
3.0516,0.00016388,-2,4096,4096
4.00528,0.000199974,-2,4096,4096
5.02257,0.000249269,-2,4096,4096
6.03988,0.000313177,-2,4096,4096
7.05721,0.000396321,-2,4096,4096
8.01098,0.000497246,-2,4096,4096
9.02835,0.00063724,-2,4096,4096
10.0458,0.00082101,-2,4096,4096
11.0632,0.00105815,-2,4096,4096
12.0171,0.00133346,-2,4096,4096
13.0346,0.00169377,-2,4096,4096
14.0522,0.00214368,-2,4096,4096
15.0062,0.00266757,-2,4096,4096
16.024,0.00335635,-2,4096,4096
17.0418,0.00421262,-2,4096,4096
18.0599,0.0052603,-2,4096,4096
19.0145,0.00644072,-2,4096,4096
20.0337,0.00793358,-2,4096,4096
21.0545,0.00967841,-2,4096,4096
22.0135,0.0115326,-2,4096,4096
23.0386,0.0136997,-2,4096,4096
24.0021,0.0158305,-2,4096,4096
25.0323,0.0180797,-2,4096,4096
26.0004,0.020015,-2,4096,4096
27.0352,0.0217197,-2,4096,4096
28.0073,0.0228425,-2,4096,4096
29.046,0.023439,-2,4096,4096
30.0213,0.0234154,-2,4096,4096
31.0629,0.0228171,-2,4096,4096
32.0405,0.0218098,-2,4096,4096
33.0185,0.0204828,-2,4096,4096
34.0614,0.0188442,-2,4096,4096
35.0391,0.0172094,-2,4096,4096
36.0166,0.0155688,-2,4096,4096
37.059,0.0138883,-2,4096,4096
38.0362,0.0124282,-2,4096,4096
39.0133,0.0111102,-2,4096,4096
40.0553,0.00987717,-2,4096,4096
41.0321,0.00888628,-2,4096,4096
42.0088,0.00805078,-2,4096,4096
43.0505,0.00731788,-2,4096,4096
44.027,0.00676426,-2,4096,4096
45.0033,0.00632442,-2,4096,4096
46.0447,0.00596376,-2,4096,4096
47.0209,0.00571301,-2,4096,4096
48.062,0.00552565,-2,4096,4096
49.038,0.00541573,-2,4096,4096
50.0139,0.00536236,-2,4096,4096
51.0547,0.00536085,-2,4096,4096
52.0303,0.00540476,-2,4096,4096
53.0058,0.00548596,-2,4096,4096
54.0463,0.00560715,-2,4096,4096
55.0216,0.00574862,-2,4096,4096
56.0618,0.00592608,-2,4096,4096
57.0368,0.00611574,-2,4096,4096
58.0117,0.00632721,-2,4096,4096
59.0514,0.00657668,-2,4096,4096
60.026,0.00683335,-2,4096,4096
61.0004,0.00711266,-2,4096,4096
62.0396,0.00743582,-2,4096,4096
63.0136,0.00776148,-2,4096,4096
64.0524,0.00812921,-2,4096,4096
65.0259,0.00848597,-2,4096,4096
66.0641,0.00886904,-2,4096,4096
67.0372,0.00922202,-2,4096,4096
68.0031,0.00956159,-2,4096,4096
69.0404,0.00991071,-2,4096,4096
70.0125,0.010219,-2,4096,4096
71.0491,0.010521,-2,4096,4096
72.0205,0.010773,-2,4096,4096
73.0562,0.0110034,-2,4096,4096
74.0267,0.0111794,-2,4096,4096
75.0615,0.0113213,-2,4096,4096
76.0311,0.0114098,-2,4096,4096
77.0002,0.0114552,-2,4096,4096
78.0334,0.0114563,-2,4096,4096
79.0016,0.0114098,-2,4096,4096
80.0337,0.0112981,-2,4096,4096
81.0009,0.0111112,-2,4096,4096
82.0321,0.0107808,-2,4096,4096
83.0629,0.0101949,-2,4096,4096
84.0288,0.00919648,-2,4096,4096
85.0588,0.00742928,-2,4096,4096
86.0242,0.00509714,-2,4096,4096
87.0536,0.00211899,-2,4096,4096
88.0186,-0.000818361,-2,4096,4096
89.0477,-0.00378724,-2,4096,4096
90.0125,-0.00618896,-2,4096,4096
91.0416,-0.0081959,-2,4096,4096
92.0063,-0.00951503,-2,4096,4096
93.0354,-0.0103437,-2,4096,4096
94.0002,-0.0106465,-2,4096,4096
95.0293,-0.0105698,-2,4096,4096
96.0584,-0.0101986,-2,4096,4096
97.0231,-0.00968091,-2,4096,4096
98.0522,-0.00902813,-2,4096,4096
99.017,-0.00837102,-2,4096,4096
100.046,-0.007653,-2,4096,4096
101.011,-0.00698043,-2,4096,4096
102.04,-0.00627762,-2,4096,4096
103.005,-0.00564443,-2,4096,4096
104.034,-0.0050065,-2,4096,4096
105.063,-0.00441129,-2,4096,4096
106.028,-0.00389061,-2,4096,4096
107.057,-0.00337185,-2,4096,4096
108.022,-0.00291903,-2,4096,4096
109.051,-0.00247428,-2,4096,4096
110.016,-0.00209727,-2,4096,4096
111.046,-0.00174147,-2,4096,4096
112.011,-0.00145269,-2,4096,4096
113.04,-0.00119047,-2,4096,4096
114.005,-0.000985408,-2,4096,4096
115.035,-0.000802493,-2,4096,4096
116,-0.000658886,-2,4096,4096
117.03,-0.000528076,-2,4096,4096
118.059,-0.000413641,-2,4096,4096
119.025,-0.000316432,-2,4096,4096
