../../build/sierpi_icc_omp_tsunami_parallel_release -o 4096 -n 4 -d 12 -t 16000 -a 6 -v 5 
 + Flux solver: lax friedrich
 + Order of basis functions: 1
 + Number of threads to use: 4
 + Initial recursion depth: 12
 + Verbose: 5
 + Timesteps: 1
 + Timestep size: 0.617632
 + Output .vtk files each #nth timestep: -1
 + Output simulation data filename: frame_%08i.vtk
 + InitialDepth: 12
 + MinDepth: 12
 + MaxDepth: 18
 + WorldSceneId: 3
 + Partition size when to request split: 4096
 + Partition size when to request join (both childs have to request a join): 2048
 + ADAPTIVE_SUBPARTITION_STACKS enabled
[ SETUP ]
 + initial number of triangles: 0
 + refined to 9946 triangles
 + pre splitting partitions
[ START ]
=========================================
   + 0	TIMESTEP
   + 9946	TRIANGLES
   + 0.986465	ElementData Megabyte per Timestep (RW)
   + 0	PARTITIONS
[ END ]


Timings for simulation phases:
 + EdgeCommTime: 0.00133
 + AdaptiveTime: 0.000852
 + SplitJoinTime: 0.000422

1 TS (Timesteps)
0.617632 TSS (Timestep size)
0.00263 SFS (Overall seconds for Simulation)
9970 TP (Triangles processed)
0.00263 ASPT (Averaged Seconds per Timestep)
9970 TPST (Triangles Processed in Average per Simulation Timestep)
4 PPST (Partitions Processed in Average per Simulation Timestep)
3.79087 MTPS (Million Triangles per Second)
0.947719 MTPSPT (Million Triangles per Second per Thread)
0.988846 EDMBPT (ElementData Megabyte per Timestep (RW))
375.987 EDMBPS (ElementData Megabyte per Second (RW))
   + 9946	TRIANGLES
   + 22186	TRIANGLES
   + 30219	TRIANGLES
   + 37992	TRIANGLES
   + 44755	TRIANGLES
   + 50752	TRIANGLES
   + 56043	TRIANGLES
   + 60318	TRIANGLES
   + 64137	TRIANGLES
   + 67945	TRIANGLES
   + 71708	TRIANGLES
   + 75306	TRIANGLES
   + 78717	TRIANGLES
   + 81571	TRIANGLES
   + 84035	TRIANGLES
   + 85820	TRIANGLES
   + 87538	TRIANGLES
   + 89239	TRIANGLES
   + 90914	TRIANGLES
   + 92346	TRIANGLES
   + 93591	TRIANGLES
   + 95025	TRIANGLES
   + 96035	TRIANGLES
   + 97493	TRIANGLES
   + 98484	TRIANGLES
   + 99552	TRIANGLES
   + 100725	TRIANGLES
   + 101679	TRIANGLES
   + 102637	TRIANGLES
   + 103658	TRIANGLES
   + 104531	TRIANGLES
   + 105413	TRIANGLES
   + 106220	TRIANGLES
   + 107010	TRIANGLES
   + 107737	TRIANGLES
   + 108467	TRIANGLES
   + 109097	TRIANGLES
   + 109757	TRIANGLES
   + 110409	TRIANGLES
   + 111143	TRIANGLES
   + 111513	TRIANGLES
   + 112098	TRIANGLES
   + 112650	TRIANGLES
   + 113070	TRIANGLES
   + 113496	TRIANGLES
   + 113852	TRIANGLES
   + 114153	TRIANGLES
   + 114520	TRIANGLES
   + 114936	TRIANGLES
   + 115280	TRIANGLES
   + 115587	TRIANGLES
   + 115776	TRIANGLES
   + 116010	TRIANGLES
   + 116226	TRIANGLES
   + 116307	TRIANGLES
   + 116486	TRIANGLES
   + 116616	TRIANGLES
   + 116600	TRIANGLES
   + 116720	TRIANGLES
   + 116730	TRIANGLES
   + 116782	TRIANGLES
   + 116730	TRIANGLES
   + 116740	TRIANGLES
   + 116668	TRIANGLES
   + 116542	TRIANGLES
   + 116524	TRIANGLES
   + 116390	TRIANGLES
   + 116268	TRIANGLES
   + 116178	TRIANGLES
   + 116084	TRIANGLES
   + 116032	TRIANGLES
   + 115914	TRIANGLES
   + 115720	TRIANGLES
   + 115546	TRIANGLES
   + 115384	TRIANGLES
   + 115244	TRIANGLES
   + 115070	TRIANGLES
   + 114882	TRIANGLES
   + 114701	TRIANGLES
   + 114525	TRIANGLES
   + 114298	TRIANGLES
   + 114003	TRIANGLES
   + 113790	TRIANGLES
   + 113531	TRIANGLES
   + 113357	TRIANGLES
   + 113016	TRIANGLES
   + 112627	TRIANGLES
   + 112332	TRIANGLES
   + 112027	TRIANGLES
   + 111719	TRIANGLES
   + 111376	TRIANGLES
   + 110966	TRIANGLES
   + 110613	TRIANGLES
   + 110328	TRIANGLES
   + 110103	TRIANGLES
   + 109636	TRIANGLES
   + 109153	TRIANGLES
   + 108694	TRIANGLES
   + 108276	TRIANGLES
   + 107874	TRIANGLES
   + 107219	TRIANGLES
   + 106678	TRIANGLES
   + 106073	TRIANGLES
   + 105369	TRIANGLES
   + 104584	TRIANGLES
   + 103799	TRIANGLES
   + 102935	TRIANGLES
   + 101983	TRIANGLES
   + 101108	TRIANGLES
   + 100318	TRIANGLES
   + 99403	TRIANGLES
   + 97960	TRIANGLES
   + 96718	TRIANGLES
   + 95381	TRIANGLES
   + 93989	TRIANGLES
   + 92228	TRIANGLES
   + 90447	TRIANGLES
   + 88694	TRIANGLES
   + 87019	TRIANGLES
   + 85473	TRIANGLES
   + 83279	TRIANGLES
   + 80945	TRIANGLES
   + 78685	TRIANGLES
   + 75760	TRIANGLES
   + 72864	TRIANGLES
   + 70022	TRIANGLES
   + 67182	TRIANGLES
   + 63843	TRIANGLES
   + 60393	TRIANGLES
   + 56983	TRIANGLES
   + 53941	TRIANGLES
   + 50711	TRIANGLES
   + 47619	TRIANGLES
   + 45049	TRIANGLES
   + 42884	TRIANGLES
   + 40591	TRIANGLES
   + 38490	TRIANGLES
   + 36383	TRIANGLES
   + 34458	TRIANGLES
   + 32459	TRIANGLES
   + 30441	TRIANGLES
   + 28744	TRIANGLES
   + 27048	TRIANGLES
   + 25273	TRIANGLES
   + 23481	TRIANGLES
   + 21775	TRIANGLES
   + 20040	TRIANGLES
   + 18324	TRIANGLES
   + 16684	TRIANGLES
   + 14898	TRIANGLES
   + 13010	TRIANGLES
   + 11110	TRIANGLES
   + 10234	TRIANGLES
   + 9570	TRIANGLES
   + 9050	TRIANGLES
   + 8664	TRIANGLES
   + 8320	TRIANGLES
   + 8264	TRIANGLES
   + 8192	TRIANGLES
   + 8192	TRIANGLES
