STARTING WORLD SCHEDULER SERVER
CLIENT SETUP: adding client 41131
 + TIMESTAMP: 0.178263
START TIMESTAMP: 0.178288
+++++++++++++++++++++++++++++++++++++++++++++++++++++++++++
+ Client Mapping:
  > Client 41131 (0):	

+ Core Mapping:	0 0 0 0 0 0 0 0 0 0 0 0 0 0 0 0 0 0 0 0 0 0 0 0 0 0 0 0 0 0 0 0 0 0 0 0 0 0 0 0 
+ Optimal point: 
+++++++++++++++++++++++++++++++++++++++++++++++++++++++++++
INVADE: client 41131
 + TIMESTAMP: 0.182319
RESSOURCE DISTRIBUTION CHANGED
++++++++++++++++++++++++++++++++++++++++++++++++
INVADE (41131)
  + pid: 41131
  + min_cores: 1
  + max_cores: 512
  + scalability graph: 
1, 1.36329, 1.52423, 1.62017, 1.68565, 1.73398, 1.77154, 1.80182, 1.8269, 1.84812, 1.86637, 1.88229, 1.89634, 1.90885, 1.92009, 1.93026, 1.93952, 1.94799, 1.95579, 1.963, 1.96968, 1.9759, 1.98172, 1.98716, 1.99228, 1.9971, 2.00164, 2.00594, 2.01002, 2.01389, 2.01757, 2.02108, 2.02443, 2.02763, 2.03069, 2.03362, 2.03644, 2.03914, 2.04173, 2.04423, 
Number of clients: 1

+++++++++++++++++++++++++++++++++++++++++++++++++++++++++++
+ Client Mapping:
  > Client 41131 (40):	0 1 2 3 4 5 6 7 8 9 10 11 12 13 14 15 16 17 18 19 20 21 22 23 24 25 26 27 28 29 30 31 32 33 34 35 36 37 38 39 

+ Core Mapping:	41131 41131 41131 41131 41131 41131 41131 41131 41131 41131 41131 41131 41131 41131 41131 41131 41131 41131 41131 41131 41131 41131 41131 41131 41131 41131 41131 41131 41131 41131 41131 41131 41131 41131 41131 41131 41131 41131 41131 41131 
+ Optimal point: 40 
+++++++++++++++++++++++++++++++++++++++++++++++++++++++++++
CLIENT SETUP: adding client 41130
 + TIMESTAMP: 0.182599
+++++++++++++++++++++++++++++++++++++++++++++++++++++++++++
+ Client Mapping:
  > Client 41131 (40):	0 1 2 3 4 5 6 7 8 9 10 11 12 13 14 15 16 17 18 19 20 21 22 23 24 25 26 27 28 29 30 31 32 33 34 35 36 37 38 39 
  > Client 41130 (0):	

+ Core Mapping:	41131 41131 41131 41131 41131 41131 41131 41131 41131 41131 41131 41131 41131 41131 41131 41131 41131 41131 41131 41131 41131 41131 41131 41131 41131 41131 41131 41131 41131 41131 41131 41131 41131 41131 41131 41131 41131 41131 41131 41131 
+ Optimal point: 40 
+++++++++++++++++++++++++++++++++++++++++++++++++++++++++++
INVADE: client 41130
 + TIMESTAMP: 0.182687
CLIENT SETUP: adding client 41132
 + TIMESTAMP: 0.194315
+++++++++++++++++++++++++++++++++++++++++++++++++++++++++++
+ Client Mapping:
  > Client 41131 (40):	0 1 2 3 4 5 6 7 8 9 10 11 12 13 14 15 16 17 18 19 20 21 22 23 24 25 26 27 28 29 30 31 32 33 34 35 36 37 38 39 
  > Client 41130 (0):	
  > Client 41132 (0):	

+ Core Mapping:	41131 41131 41131 41131 41131 41131 41131 41131 41131 41131 41131 41131 41131 41131 41131 41131 41131 41131 41131 41131 41131 41131 41131 41131 41131 41131 41131 41131 41131 41131 41131 41131 41131 41131 41131 41131 41131 41131 41131 41131 
+ Optimal point: 20 20 
+++++++++++++++++++++++++++++++++++++++++++++++++++++++++++
INVADE: client 41132
 + TIMESTAMP: 0.194403
++++++++++++++++++++++++++++++++++++++++++++++++
 + TIMESTAMP: 0.290306
REINVADE (41131)
  + pid: 41131
  + min_cores: 1
  + max_cores: 512
  + scalability graph: 
1, 1.36329, 1.52423, 1.62017, 1.68565, 1.73398, 1.77154, 1.80182, 1.8269, 1.84812, 1.86637, 1.88229, 1.89634, 1.90885, 1.92009, 1.93026, 1.93952, 1.94799, 1.95579, 1.963, 1.96968, 1.9759, 1.98172, 1.98716, 1.99228, 1.9971, 2.00164, 2.00594, 2.01002, 2.01389, 2.01757, 2.02108, 2.02443, 2.02763, 2.03069, 2.03362, 2.03644, 2.03914, 2.04173, 2.04423, 
Number of clients: 3

+++++++++++++++++++++++++++++++++++++++++++++++++++++++++++
+ Client Mapping:
  > Client 41131 (14):	26 27 28 29 30 31 32 33 34 35 36 37 38 39 
  > Client 41130 (0):	
  > Client 41132 (0):	

+ Core Mapping:	0 0 0 0 0 0 0 0 0 0 0 0 0 0 0 0 0 0 0 0 0 0 0 0 0 0 41131 41131 41131 41131 41131 41131 41131 41131 41131 41131 41131 41131 41131 41131 
+ Optimal point: 14 13 13 
+++++++++++++++++++++++++++++++++++++++++++++++++++++++++++
++++++++++++++++++++++++++++++++++++++++++++++++
 + TIMESTAMP: 0.302458
REINVADE (41130)
  + pid: 41130
  + min_cores: 1
  + max_cores: 512
  + scalability graph: 
1, 1.36329, 1.52423, 1.62017, 1.68565, 1.73398, 1.77154, 1.80182, 1.8269, 1.84812, 1.86637, 1.88229, 1.89634, 1.90885, 1.92009, 1.93026, 1.93952, 1.94799, 1.95579, 1.963, 1.96968, 1.9759, 1.98172, 1.98716, 1.99228, 1.9971, 2.00164, 2.00594, 2.01002, 2.01389, 2.01757, 2.02108, 2.02443, 2.02763, 2.03069, 2.03362, 2.03644, 2.03914, 2.04173, 2.04423, 
Number of clients: 3

+++++++++++++++++++++++++++++++++++++++++++++++++++++++++++
+ Client Mapping:
  > Client 41131 (14):	26 27 28 29 30 31 32 33 34 35 36 37 38 39 
  > Client 41130 (13):	0 1 2 3 4 5 6 7 8 9 10 11 12 
  > Client 41132 (0):	

+ Core Mapping:	41130 41130 41130 41130 41130 41130 41130 41130 41130 41130 41130 41130 41130 0 0 0 0 0 0 0 0 0 0 0 0 0 41131 41131 41131 41131 41131 41131 41131 41131 41131 41131 41131 41131 41131 41131 
+ Optimal point: 14 13 13 
+++++++++++++++++++++++++++++++++++++++++++++++++++++++++++
++++++++++++++++++++++++++++++++++++++++++++++++
 + TIMESTAMP: 0.321836
REINVADE (41132)
  + pid: 41132
  + min_cores: 1
  + max_cores: 512
  + scalability graph: 
1, 1.36329, 1.52423, 1.62017, 1.68565, 1.73398, 1.77154, 1.80182, 1.8269, 1.84812, 1.86637, 1.88229, 1.89634, 1.90885, 1.92009, 1.93026, 1.93952, 1.94799, 1.95579, 1.963, 1.96968, 1.9759, 1.98172, 1.98716, 1.99228, 1.9971, 2.00164, 2.00594, 2.01002, 2.01389, 2.01757, 2.02108, 2.02443, 2.02763, 2.03069, 2.03362, 2.03644, 2.03914, 2.04173, 2.04423, 
Number of clients: 3

+++++++++++++++++++++++++++++++++++++++++++++++++++++++++++
+ Client Mapping:
  > Client 41131 (14):	26 27 28 29 30 31 32 33 34 35 36 37 38 39 
  > Client 41130 (13):	0 1 2 3 4 5 6 7 8 9 10 11 12 
  > Client 41132 (13):	13 14 15 16 17 18 19 20 21 22 23 24 25 

+ Core Mapping:	41130 41130 41130 41130 41130 41130 41130 41130 41130 41130 41130 41130 41130 41132 41132 41132 41132 41132 41132 41132 41132 41132 41132 41132 41132 41132 41131 41131 41131 41131 41131 41131 41131 41131 41131 41131 41131 41131 41131 41131 
+ Optimal point: 14 13 13 
+++++++++++++++++++++++++++++++++++++++++++++++++++++++++++
CLIENT SHUTDOWN: client 41131
 + TIMESTAMP: 21.1702
+++++++++++++++++++++++++++++++++++++++++++++++++++++++++++
+ Client Mapping:
  > Client 41131 (0):	
  > Client 41130 (13):	0 1 2 3 4 5 6 7 8 9 10 11 12 
  > Client 41132 (13):	13 14 15 16 17 18 19 20 21 22 23 24 25 

+ Core Mapping:	41130 41130 41130 41130 41130 41130 41130 41130 41130 41130 41130 41130 41130 41132 41132 41132 41132 41132 41132 41132 41132 41132 41132 41132 41132 41132 0 0 0 0 0 0 0 0 0 0 0 0 0 0 
+ Optimal point: 14 13 13 
+++++++++++++++++++++++++++++++++++++++++++++++++++++++++++
client (41131) shutdown hint: 437.984
sum_client_shutdown_hint: 437.984
++++++++++++++++++++++++++++++++++++++++++++++++
 + TIMESTAMP: 21.1708
REINVADE (41130)
  + pid: 41130
  + min_cores: 1
  + max_cores: 512
  + scalability graph: 
1, 1.36329, 1.52423, 1.62017, 1.68565, 1.73398, 1.77154, 1.80182, 1.8269, 1.84812, 1.86637, 1.88229, 1.89634, 1.90885, 1.92009, 1.93026, 1.93952, 1.94799, 1.95579, 1.963, 1.96968, 1.9759, 1.98172, 1.98716, 1.99228, 1.9971, 2.00164, 2.00594, 2.01002, 2.01389, 2.01757, 2.02108, 2.02443, 2.02763, 2.03069, 2.03362, 2.03644, 2.03914, 2.04173, 2.04423, 
Number of clients: 2

+++++++++++++++++++++++++++++++++++++++++++++++++++++++++++
+ Client Mapping:
  > Client 41130 (20):	0 1 2 3 4 5 6 7 8 9 10 11 12 26 27 28 29 30 31 32 
  > Client 41132 (13):	13 14 15 16 17 18 19 20 21 22 23 24 25 

+ Core Mapping:	41130 41130 41130 41130 41130 41130 41130 41130 41130 41130 41130 41130 41130 41132 41132 41132 41132 41132 41132 41132 41132 41132 41132 41132 41132 41132 41130 41130 41130 41130 41130 41130 41130 0 0 0 0 0 0 0 
+ Optimal point: 20 20 
+++++++++++++++++++++++++++++++++++++++++++++++++++++++++++
++++++++++++++++++++++++++++++++++++++++++++++++
 + TIMESTAMP: 21.1715
REINVADE (41132)
  + pid: 41132
  + min_cores: 1
  + max_cores: 512
  + scalability graph: 
1, 1.36329, 1.52423, 1.62017, 1.68565, 1.73398, 1.77154, 1.80182, 1.8269, 1.84812, 1.86637, 1.88229, 1.89634, 1.90885, 1.92009, 1.93026, 1.93952, 1.94799, 1.95579, 1.963, 1.96968, 1.9759, 1.98172, 1.98716, 1.99228, 1.9971, 2.00164, 2.00594, 2.01002, 2.01389, 2.01757, 2.02108, 2.02443, 2.02763, 2.03069, 2.03362, 2.03644, 2.03914, 2.04173, 2.04423, 
Number of clients: 2

+++++++++++++++++++++++++++++++++++++++++++++++++++++++++++
+ Client Mapping:
  > Client 41130 (20):	0 1 2 3 4 5 6 7 8 9 10 11 12 26 27 28 29 30 31 32 
  > Client 41132 (20):	13 14 15 16 17 18 19 20 21 22 23 24 25 33 34 35 36 37 38 39 

+ Core Mapping:	41130 41130 41130 41130 41130 41130 41130 41130 41130 41130 41130 41130 41130 41132 41132 41132 41132 41132 41132 41132 41132 41132 41132 41132 41132 41132 41130 41130 41130 41130 41130 41130 41130 41132 41132 41132 41132 41132 41132 41132 
+ Optimal point: 20 20 
+++++++++++++++++++++++++++++++++++++++++++++++++++++++++++
CLIENT SHUTDOWN: client 41132
 + TIMESTAMP: 23.8182
+++++++++++++++++++++++++++++++++++++++++++++++++++++++++++
+ Client Mapping:
  > Client 41130 (20):	0 1 2 3 4 5 6 7 8 9 10 11 12 26 27 28 29 30 31 32 
  > Client 41132 (0):	

+ Core Mapping:	41130 41130 41130 41130 41130 41130 41130 41130 41130 41130 41130 41130 41130 0 0 0 0 0 0 0 0 0 0 0 0 0 41130 41130 41130 41130 41130 41130 41130 0 0 0 0 0 0 0 
+ Optimal point: 20 20 
+++++++++++++++++++++++++++++++++++++++++++++++++++++++++++
client (41132) shutdown hint: 437.984
sum_client_shutdown_hint: 875.968
++++++++++++++++++++++++++++++++++++++++++++++++
 + TIMESTAMP: 23.8196
REINVADE (41130)
  + pid: 41130
  + min_cores: 1
  + max_cores: 512
  + scalability graph: 
1, 1.36329, 1.52423, 1.62017, 1.68565, 1.73398, 1.77154, 1.80182, 1.8269, 1.84812, 1.86637, 1.88229, 1.89634, 1.90885, 1.92009, 1.93026, 1.93952, 1.94799, 1.95579, 1.963, 1.96968, 1.9759, 1.98172, 1.98716, 1.99228, 1.9971, 2.00164, 2.00594, 2.01002, 2.01389, 2.01757, 2.02108, 2.02443, 2.02763, 2.03069, 2.03362, 2.03644, 2.03914, 2.04173, 2.04423, 
Number of clients: 1

+++++++++++++++++++++++++++++++++++++++++++++++++++++++++++
+ Client Mapping:
  > Client 41130 (40):	0 1 2 3 4 5 6 7 8 9 10 11 12 26 27 28 29 30 31 32 13 14 15 16 17 18 19 20 21 22 23 24 25 33 34 35 36 37 38 39 

+ Core Mapping:	41130 41130 41130 41130 41130 41130 41130 41130 41130 41130 41130 41130 41130 41130 41130 41130 41130 41130 41130 41130 41130 41130 41130 41130 41130 41130 41130 41130 41130 41130 41130 41130 41130 41130 41130 41130 41130 41130 41130 41130 
+ Optimal point: 40 
+++++++++++++++++++++++++++++++++++++++++++++++++++++++++++
CLIENT SHUTDOWN: client 41130
 + TIMESTAMP: 24.3182
+++++++++++++++++++++++++++++++++++++++++++++++++++++++++++
+ Client Mapping:
  > Client 41130 (0):	

+ Core Mapping:	0 0 0 0 0 0 0 0 0 0 0 0 0 0 0 0 0 0 0 0 0 0 0 0 0 0 0 0 0 0 0 0 0 0 0 0 0 0 0 0 
+ Optimal point: 40 
+++++++++++++++++++++++++++++++++++++++++++++++++++++++++++
client (41130) shutdown hint: 437.984
sum_client_shutdown_hint: 1313.95
END TIMESTAMP: 24.3183
OVERALL TIME: 24.14
 + sum_client_shutdown_hint: 1313.95
 + sum_client_shutdown_hint/time: 54.4305
sum_client_shutdown_hint: 1313.95
