CPUS: 0 1 2 3 4 5 6 7 8 9 10 11
SPLIT SIZES:  2 4 8 16 32 64 128 256 512 1024 2048 4096 8192
Split Size: 2
Threads	MTPS	SPEEDUP	SPEEDUP_PER	KML_SPEEDUP	KML_SPEEDUP_TO_NONAFFINITY
1	2.72433	1.0000	1.0000	1.0000	-.0101
2	4.6001	1.6885	.8442	1.7670	.0359
3	5.96041	2.1878	.7292	2.5676	.1617
4	7.62845	2.8001	.7000	3.3657	.1898
5	9.22691	3.3868	.6773	4.1029	.1991
6	10.5095	3.8576	.6429	4.8248	.2380
7	12.0455	4.4214	.6316	5.0402	.1284
8	13.2964	4.8806	.6100	5.2973	.0744
9	14.6347	5.3718	.5968	5.6063	.0330
10	15.8592	5.8213	.5821	5.9301	.0083
11	16.8973	6.2023	.5638	6.2674	.0002
12	17.9028	6.5714	.5476	6.6989	.0090
Split Size: 4
Threads	MTPS	SPEEDUP	SPEEDUP_PER	KML_SPEEDUP	KML_SPEEDUP_TO_NONAFFINITY
1	2.70008	1.0000	1.0000	1.0000	.0046
2	4.66068	1.7261	.8630	1.7656	.0276
3	6.04069	2.2372	.7457	2.5781	.1578
4	7.59065	2.8112	.7028	3.3652	.2026
5	9.15578	3.3909	.6781	4.1163	.2196
6	10.6037	3.9271	.6545	4.8441	.2393
7	12.0875	4.4767	.6395	5.0414	.1314
8	13.3604	4.9481	.6185	5.2983	.0757
9	14.6505	5.4259	.6028	5.5956	.0361
10	15.7963	5.8503	.5850	5.9427	.0205
11	17.0969	6.3319	.5756	6.2899	-.0019
12	18.0732	6.6935	.5577	6.6500	-.0018
Split Size: 8
Threads	MTPS	SPEEDUP	SPEEDUP_PER	KML_SPEEDUP	KML_SPEEDUP_TO_NONAFFINITY
1	2.70442	1.0000	1.0000	1.0000	.0068
2	4.68777	1.7333	.8666	1.7667	.0262
3	6.02895	2.2292	.7430	2.5746	.1628
4	7.67936	2.8395	.7098	3.3615	.1919
5	9.28545	3.4334	.6866	4.1034	.2033
6	10.6425	3.9352	.6558	4.8267	.2349
7	12.2055	4.5131	.6447	5.0289	.1219
8	13.4291	4.9656	.6207	5.3119	.0770
9	14.7227	5.4439	.6048	5.6196	.0393
10	15.9012	5.8797	.5879	5.9496	.0188
11	17.063	6.3093	.5735	6.2936	.0043
12	18.1469	6.7100	.5591	6.6064	-.0087
Split Size: 16
Threads	MTPS	SPEEDUP	SPEEDUP_PER	KML_SPEEDUP	KML_SPEEDUP_TO_NONAFFINITY
1	2.70794	1.0000	1.0000	1.0000	.0081
2	4.70876	1.7388	.8694	1.7754	.0293
3	6.05554	2.2362	.7454	2.5812	.1637
4	7.77714	2.8719	.7179	3.3751	.1847
5	9.27627	3.4255	.6851	4.1197	.2124
6	10.6576	3.9356	.6559	4.8399	.2398
7	12.1734	4.4954	.6422	5.0370	.1296
8	13.4297	4.9593	.6199	5.3151	.0804
9	14.839	5.4798	.6088	5.5976	.0298
10	16.098	5.9447	.5944	5.9572	.0102
11	17.2004	6.3518	.5774	6.2839	-.0026
12	18.2113	6.7251	.5604	6.6524	-.0027
Split Size: 32
Threads	MTPS	SPEEDUP	SPEEDUP_PER	KML_SPEEDUP	KML_SPEEDUP_TO_NONAFFINITY
1	2.70954	1.0000	1.0000	1.0000	.0084
2	4.73208	1.7464	.8732	1.7799	.0278
3	6.10211	2.2520	.7506	2.5945	.1618
4	7.69879	2.8413	.7103	3.3730	.1971
5	9.26827	3.4206	.6841	4.1086	.2113
6	10.7484	3.9668	.6611	4.8491	.2327
7	12.1849	4.4970	.6424	5.0426	.1308
8	13.5973	5.0183	.6272	5.3107	.0672
9	14.9057	5.5011	.6112	5.6257	.0313
10	16.0197	5.9123	.5912	5.9603	.0166
11	17.1623	6.3340	.5758	6.2946	.0022
12	18.2077	6.7198	.5599	6.6586	-.0007
Split Size: 64
Threads	MTPS	SPEEDUP	SPEEDUP_PER	KML_SPEEDUP	KML_SPEEDUP_TO_NONAFFINITY
1	2.75392	1.0000	1.0000	1.0000	-.0071
2	4.75159	1.7253	.8626	1.7860	.0277
3	6.13255	2.2268	.7422	2.5847	.1524
4	7.75428	2.8157	.7039	3.3799	.1918
5	9.31978	3.3841	.6768	4.1500	.2175
6	10.795	3.9198	.6533	4.8601	.2310
7	12.3371	4.4798	.6399	5.0491	.1190
8	13.5489	4.9198	.6149	5.3284	.0753
9	14.9531	5.4297	.6033	5.6452	.0322
10	16.2798	5.9115	.5911	6.0186	.0108
11	17.3227	6.2901	.5718	6.3199	-.0024
12	18.3331	6.6570	.5547	6.6077	-.0144
Split Size: 128
Threads	MTPS	SPEEDUP	SPEEDUP_PER	KML_SPEEDUP	KML_SPEEDUP_TO_NONAFFINITY
1	2.98387	1.0000	1.0000	1.0000	-.0022
2	5.42267	1.8173	.9086	1.8595	.0209
3	7.18755	2.4088	.8029	2.7065	.1210
4	9.2432	3.0977	.7744	3.5581	.1460
5	11.1762	3.7455	.7491	4.3615	.1618
6	12.9785	4.3495	.7249	5.1437	.1798
7	14.8516	4.9772	.7110	5.4682	.0961
8	16.4214	5.5033	.6879	5.8243	.0559
9	18.0879	6.0618	.6735	6.2251	.0245
10	19.5416	6.5490	.6549	6.6394	.0114
11	20.9738	7.0290	.6390	7.0345	-.0014
12	22.2357	7.4519	.6209	7.4620	-.0009
Split Size: 256
Threads	MTPS	SPEEDUP	SPEEDUP_PER	KML_SPEEDUP	KML_SPEEDUP_TO_NONAFFINITY
1	3.08666	1.0000	1.0000	1.0000	.0002
2	5.81557	1.8840	.9420	1.9111	.0145
3	7.98907	2.5882	.8627	2.7913	.0787
4	10.2857	3.3323	.8330	3.6888	.1072
5	12.4577	4.0359	.8071	4.4895	.1126
6	14.4913	4.6948	.7824	5.2762	.1240
7	16.5278	5.3545	.7649	5.7282	.0700
8	18.3801	5.9546	.7443	6.1757	.0373
9	20.1409	6.5251	.7250	6.6717	.0227
10	21.9058	7.0969	.7096	7.1471	.0072
11	23.4123	7.5849	.6895	7.5634	-.0026
12	24.9429	8.0808	.6734	8.0191	-.0074
Split Size: 512
Threads	MTPS	SPEEDUP	SPEEDUP_PER	KML_SPEEDUP	KML_SPEEDUP_TO_NONAFFINITY
1	3.15517	1.0000	1.0000	1.0000	.0018
2	6.05543	1.9192	.9596	1.9380	.0117
3	8.38397	2.6572	.8857	2.8013	.0562
4	10.9033	3.4556	.8639	3.7335	.0824
5	13.1863	4.1792	.8358	4.5465	.0899
6	15.3072	4.8514	.8085	5.3354	.1018
7	17.1679	5.4411	.7773	5.7240	.0539
8	19.5307	6.1900	.7737	6.3919	.0345
9	20.8679	6.6138	.7348	6.7089	.0162
10	22.7861	7.2218	.7221	7.2137	.0007
11	24.8332	7.8706	.7155	7.8480	-.0010
12	25.7703	8.1676	.6806	8.1377	-.0017
Split Size: 1024
Threads	MTPS	SPEEDUP	SPEEDUP_PER	KML_SPEEDUP	KML_SPEEDUP_TO_NONAFFINITY
1	3.20063	1.0000	1.0000	1.0000	-.0016
2	6.17822	1.9303	.9651	1.9539	.0105
3	8.5518	2.6719	.8906	2.8087	.0494
4	11.1983	3.4987	.8746	3.7572	.0720
5	13.1672	4.1139	.8227	4.3765	.0620
6	15.1378	4.7296	.7882	5.0783	.0719
7	17.4649	5.4567	.7795	5.7301	.0483
8	20.1573	6.2979	.7872	6.4425	.0212
9	20.7518	6.4836	.7204	6.6681	.0267
10	21.9719	6.8648	.6864	6.8682	-.0011
11	25.6253	8.0063	.7278	8.0032	-.0020
12	26.0947	8.1529	.6794	8.1205	-.0056
Split Size: 2048
Threads	MTPS	SPEEDUP	SPEEDUP_PER	KML_SPEEDUP	KML_SPEEDUP_TO_NONAFFINITY
1	3.20316	1.0000	1.0000	1.0000	.0016
2	6.22929	1.9447	.9723	1.9568	.0079
3	8.28096	2.5852	.8617	2.6545	.0285
4	11.3321	3.5377	.8844	3.7375	.0582
5	12.2149	3.8133	.7626	3.9501	.0376
6	14.9759	4.6753	.7792	4.9463	.0597
7	15.7679	4.9226	.7032	5.0681	.0313
8	20.6488	6.4463	.8057	6.5180	.0128
9	21.1142	6.5916	.7324	6.6337	.0080
10	21.3637	6.6695	.6669	6.6808	.0033
11	21.5924	6.7409	.6128	6.7196	-.0014
12	21.6996	6.7744	.5645	6.7506	-.0018
Split Size: 4096
Threads	MTPS	SPEEDUP	SPEEDUP_PER	KML_SPEEDUP	KML_SPEEDUP_TO_NONAFFINITY
1	3.22562	1.0000	1.0000	1.0000	.0013
2	6.22799	1.9307	.9653	1.9349	.0034
3	8.23036	2.5515	.8505	2.5964	.0189
4	11.3639	3.5230	.8807	3.6606	.0404
5	11.7194	3.6332	.7266	3.7620	.0368
6	12.1759	3.7747	.6291	3.8974	.0338
7	12.4531	3.8606	.5515	3.9065	.0132
8	20.2127	6.2662	.7832	6.3205	.0099
9	20.1652	6.2515	.6946	6.2909	.0076
10	20.1625	6.2507	.6250	6.2451	.0004
11	20.0715	6.2225	.5656	6.2165	.0003
12	20.1051	6.2329	.5194	6.1647	-.0096
Split Size: 8192
Threads	MTPS	SPEEDUP	SPEEDUP_PER	KML_SPEEDUP	KML_SPEEDUP_TO_NONAFFINITY
1	3.2414	1.0000	1.0000	1.0000	-.0019
2	6.13121	1.8915	.9457	1.9036	.0044
3	6.48918	2.0019	.6673	2.0297	.0118
4	11.1172	3.4297	.8574	3.5428	.0309
5	10.9876	3.3897	.6779	3.5266	.0383
6	11.0785	3.4178	.5696	3.5345	.0321
7	11.0719	3.4157	.4879	3.4795	.0166
8	11.0606	3.4122	.4265	3.4535	.0100
9	10.9948	3.3919	.3768	3.4163	.0051
10	11.0541	3.4102	.3410	3.4153	-.0004
11	10.9698	3.3842	.3076	3.4008	.0029
12	10.9666	3.3832	.2819	3.4008	.0032
