%%MatrixMarket matrix array real general
6 6
1.
0.
0.
0.
0.
0.
.5000000000
-.5000000000
0.
-.5000000000
0.
0.
.2500000000
-.5000000000
.2500000000
-.5000000000
.5000000000
.2500000000
.5000000000
.5000000000
0.
-.5000000000
0.
0.
.2500000000
0.
-.2500000000
-.5000000000
0.
.2500000000
.2500000000
.5000000000
.2500000000
-.5000000000
-.5000000000
.2500000000
