%%MatrixMarket matrix array real general
6 6
72.
-240.
180.
-240.
360.
180.
-240.
1200.
-1080.
600.
-1440.
-360.
180.
-1080.
1080.
-360.
1080.
180.
-240.
600.
-360.
1200.
-1440.
-1080.
360.
-1440.
1080.
-1440.
2880.
1080.
180.
-360.
180.
-1080.
1080.
1080.
