0	0
108.254	0
216.508	0
324.762	0
433.016	0
541.27	0
649.524	0
757.778	0
866.033	0
974.287	0
1082.54	0
1190.79	0
1299.05	0
1407.3	0
1515.56	0
1623.81	0
1732.07	-7.38964e-09
1840.32	-3.13794e-08
1948.57	-1.90839e-08
2056.83	6.47803e-07
2165.08	4.65124e-06
2273.34	1.99513e-05
2381.59	6.52231e-05
2489.84	0.000177108
2598.1	0.000417356
2706.35	0.000876508
2814.6	0.00167025
2922.86	0.00292572
3031.11	0.00475753
3139.36	0.00723693
3247.62	0.01036
3355.87	0.0140226
3464.12	0.0180087
3572.38	0.0219972
3680.63	0.0255866
3788.88	0.0283364
3897.14	0.029817
4005.39	0.0296629
4113.64	0.0276187
4221.9	0.0235724
4330.15	0.0175715
4438.41	0.00981958
4546.66	0.000654977
4654.91	-0.00948481
4763.17	-0.0201075
4871.42	-0.0307132
4979.68	-0.0408374
5087.93	-0.0500867
5196.18	-0.0581618
5304.44	-0.0648678
5412.69	-0.0701125
5520.94	-0.073894
5629.2	-0.0762813
5737.45	-0.0773917
5845.7	-0.0773687
5953.96	-0.0763622
6062.21	-0.0745143
6170.47	-0.0719506
6278.72	-0.0687767
6386.97	-0.0650802
6495.23	-0.0609343
6603.48	-0.0564041
6711.73	-0.0515517
6819.99	-0.046441
6928.24	-0.0411392
7036.5	-0.0357177
7144.75	-0.0302499
7253	-0.0248084
7361.26	-0.0194617
7469.51	-0.0142702
7577.77	-0.00928446
7686.02	-0.00454293
7794.27	-7.20689e-05
7902.53	0.004113
8010.78	0.0080068
8119.03	0.0116114
8227.29	0.0149339
8335.54	0.0179849
8443.79	0.020776
8552.05	0.0233193
8660.3	0.0256262
8768.55	0.0277074
8876.81	0.029573
8985.06	0.0312322
9093.31	0.0326941
9201.57	0.0339674
9309.82	0.0350604
9418.07	0.0359813
9526.33	0.0367374
9634.58	0.0373356
9742.83	0.0377814
9851.09	0.0380796
9959.34	0.0382338
10067.6	0.0382467
10175.8	0.0381202
10284.1	0.0378558
10392.4	0.037455
10500.6	0.0369193
10608.9	0.0362509
10717.1	0.0354524
10825.4	0.0345273
10933.6	0.03348
11041.9	0.0323157
11150.1	0.0310407
11258.4	0.0296619
11366.6	0.0281872
11474.9	0.0266253
11583.1	0.0249855
11691.4	0.0232779
11799.7	0.0215132
11907.9	0.0197027
