STARTING WORLD SCHEDULER SERVER
CLIENT SETUP: adding client 30650
 + TIMESTAMP: 0.135249
START TIMESTAMP: 0.135269
+++++++++++++++++++++++++++++++++++++++++++++++++++++++++++
+ Client Mapping:
  > Client 30650 (0):	

+ Core Mapping:	0 
+ Optimal point: 
+++++++++++++++++++++++++++++++++++++++++++++++++++++++++++
INVADE: client 30650
 + TIMESTAMP: 0.135325
RESSOURCE DISTRIBUTION CHANGED
++++++++++++++++++++++++++++++++++++++++++++++++
INVADE (30650)
  + pid: 30650
  + min_cores: 1
  + max_cores: 512
  + scalability graph: 
1, 1.36329, 1.52423, 1.62017, 1.68565, 1.73398, 1.77154, 1.80182, 1.8269, 1.84812, 1.86637, 1.88229, 1.89634, 1.90885, 1.92009, 1.93026, 1.93952, 1.94799, 1.95579, 1.963, 1.96968, 1.9759, 1.98172, 1.98716, 1.99228, 1.9971, 2.00164, 2.00594, 2.01002, 2.01389, 2.01757, 2.02108, 2.02443, 2.02763, 2.03069, 2.03362, 2.03644, 2.03914, 2.04173, 2.04423, 
Number of clients: 1

+++++++++++++++++++++++++++++++++++++++++++++++++++++++++++
+ Client Mapping:
  > Client 30650 (1):	0 

+ Core Mapping:	30650 
+ Optimal point: 1 
+++++++++++++++++++++++++++++++++++++++++++++++++++++++++++
CLIENT SHUTDOWN: client 30650
 + TIMESTAMP: 126.413
+++++++++++++++++++++++++++++++++++++++++++++++++++++++++++
+ Client Mapping:
  > Client 30650 (0):	

+ Core Mapping:	0 
+ Optimal point: 1 
+++++++++++++++++++++++++++++++++++++++++++++++++++++++++++
client (30650) shutdown hint: 437.984
sum_client_shutdown_hint: 437.984
sum_client_shutdown_hint_div_time: 0
END TIMESTAMP: 126.413
OVERALL TIME: 126.278
 + sum_client_shutdown_hint: 437.984
 + sum_client_shutdown_hint/time: 3.46841
sum_client_shutdown_hint: 437.984
sum_client_shutdown_hint_div_time: 3.46841
