Problem size with different number of CPUs using function optimization
THREADS	MTPS	TIMESTEPS	TIMESTEP_SIZE	SECONDS_FOR_SIMULATION	AVERAGE_TRIANGLES	AVERAGE_PARTITIONS
80	58.4551	100	0.000491318	32.5838	1.90469e+07	1158.74
79	52.5847	100	0.000491318	36.2214	1.90469e+07	1158.74
78	54.578	100	0.000491318	34.8985	1.90469e+07	1158.74
77	52.3102	100	0.000491318	36.4115	1.90469e+07	1158.74
76	54.8354	100	0.000491318	34.7347	1.90469e+07	1158.74
75	53.9221	100	0.000491318	35.323	1.90469e+07	1158.74
74	56.341	100	0.000491318	33.8065	1.90469e+07	1158.74
73	53.8759	100	0.000491318	35.3533	1.90469e+07	1158.74
72	53.5704	100	0.000491318	35.5549	1.90469e+07	1158.74
71	51.5389	100	0.000491318	36.9564	1.90469e+07	1158.74
70	53.2188	100	0.000491318	35.7898	1.90469e+07	1158.74
69	52.7791	100	0.000491318	36.088	1.90469e+07	1158.74
68	50.6744	100	0.000491318	37.5868	1.90469e+07	1158.74
67	51.726	100	0.000491318	36.8227	1.90469e+07	1158.74
66	51.7807	100	0.000491318	36.7838	1.90469e+07	1158.74
65	50.3973	100	0.000491318	37.7935	1.90469e+07	1158.74
64	50.8364	100	0.000491318	37.4671	1.90469e+07	1158.74
63	50.3681	100	0.000491318	37.8154	1.90469e+07	1158.74
62	48.9063	100	0.000491318	38.9457	1.90469e+07	1158.74
61	50.2344	100	0.000491318	37.916	1.90469e+07	1158.74
60	46.381	100	0.000491318	41.0662	1.90469e+07	1158.74
59	49.5853	100	0.000491318	38.4124	1.90469e+07	1158.74
58	48.956	100	0.000491318	38.9062	1.90469e+07	1158.74
57	50.0212	100	0.000491318	38.0777	1.90469e+07	1158.74
56	49.0866	100	0.000491318	38.8027	1.90469e+07	1158.74
55	49.6485	100	0.000491318	38.3636	1.90469e+07	1158.74
54	52.2702	100	0.000491318	36.4394	1.90469e+07	1158.74
53	48.3389	100	0.000491318	39.4029	1.90469e+07	1158.74
52	47.2587	100	0.000491318	40.3035	1.90469e+07	1158.74
51	45.6813	100	0.000491318	41.6952	1.90469e+07	1158.74
50	48.1207	100	0.000491318	39.5815	1.90469e+07	1158.74
49	48.8242	100	0.000491318	39.0112	1.90469e+07	1158.74
48	49.2226	100	0.000491318	38.6955	1.90469e+07	1158.74
47	51.6944	100	0.000491318	36.8452	1.90469e+07	1158.74
46	52.3988	100	0.000491318	36.3499	1.90469e+07	1158.74
45	54.2017	100	0.000491318	35.1408	1.90469e+07	1158.74
44	54.9103	100	0.000491318	34.6873	1.90469e+07	1158.74
43	54.8139	100	0.000491318	34.7483	1.90469e+07	1158.74
42	55.8375	100	0.000491318	34.1113	1.90469e+07	1158.74
41	55.6545	100	0.000491318	34.2235	1.90469e+07	1158.74
40	56.8115	100	0.000491318	33.5265	1.90469e+07	1158.74
39	55.7764	100	0.000491318	34.1487	1.90469e+07	1158.74
38	55.454	100	0.000491318	34.3473	1.90469e+07	1158.74
37	54.7304	100	0.000491318	34.8013	1.90469e+07	1158.74
36	52.7706	100	0.000491318	36.0938	1.90469e+07	1158.74
35	51.5588	100	0.000491318	36.9421	1.90469e+07	1158.74
34	51.9203	100	0.000491318	36.6849	1.90469e+07	1158.74
33	49.6042	100	0.000491318	38.3978	1.90469e+07	1158.74
32	48.2482	100	0.000491318	39.4769	1.90469e+07	1158.74
31	46.9474	100	0.000491318	40.5707	1.90469e+07	1158.74
30	45.7086	100	0.000491318	41.6703	1.90469e+07	1158.74
29	45.348	100	0.000491318	42.0016	1.90469e+07	1158.74
28	44.5229	100	0.000491318	42.7801	1.90469e+07	1158.74
27	43.5415	100	0.000491318	43.7443	1.90469e+07	1158.74
26	42.1076	100	0.000491318	45.2339	1.90469e+07	1158.74
25	40.0201	100	0.000491318	47.5934	1.90469e+07	1158.74
24	39.1293	100	0.000491318	48.6768	1.90469e+07	1158.74
23	37.6165	100	0.000491318	50.6345	1.90469e+07	1158.74
22	35.9958	100	0.000491318	52.9142	1.90469e+07	1158.74
21	33.9751	100	0.000491318	56.0614	1.90469e+07	1158.74
20	32.495	100	0.000491318	58.615	1.90469e+07	1158.74
19	31.165	100	0.000491318	61.1163	1.90469e+07	1158.74
18	30.6655	100	0.000491318	62.1118	1.90469e+07	1158.74
17	30.2866	100	0.000491318	62.8889	1.90469e+07	1158.74
16	28.7799	100	0.000491318	66.1813	1.90469e+07	1158.74
15	26.9165	100	0.000491318	70.763	1.90469e+07	1158.74
14	26.0296	100	0.000491318	73.1741	1.90469e+07	1158.74
13	23.6351	100	0.000491318	80.5873	1.90469e+07	1158.74
12	21.8313	100	0.000491318	87.2459	1.90469e+07	1158.74
11	19.5533	100	0.000491318	97.4101	1.90469e+07	1158.74
10	17.7043	100	0.000491318	107.584	1.90469e+07	1158.74
9	17.5141	100	0.000491318	108.752	1.90469e+07	1158.74
8	16.7067	100	0.000491318	114.008	1.90469e+07	1158.74
7	15.4566	100	0.000491318	123.228	1.90469e+07	1158.74
6	14.3548	100	0.000491318	132.687	1.90469e+07	1158.74
5	12.7145	100	0.000491318	149.804	1.90469e+07	1158.74
4	11.0678	100	0.000491318	172.094	1.90469e+07	1158.74
3	8.73776	100	0.000491318	217.984	1.90469e+07	1158.74
2	5.96772	100	0.000491318	319.165	1.90469e+07	1158.74
1	3.11499	100	0.000491318	611.461	1.90469e+07	1158.74
