0	0
84.4269	0
168.854	0
253.281	0
337.708	0
422.134	0
506.561	0
590.988	0
675.415	0
759.842	0
844.269	0
928.696	0
1013.12	0
1097.55	0
1181.98	0
1266.4	0
1350.83	0
1435.26	0
1519.68	0
1604.11	0
1688.54	0
1772.96	0
1857.39	-2.88674e-09
1941.81	-3.44025e-08
2026.24	-2.17851e-07
2110.66	-9.51253e-07
2195.09	-3.20336e-06
2279.51	-8.82384e-06
2363.93	-2.05677e-05
2448.36	-4.12995e-05
2532.78	-7.17296e-05
2617.21	-0.00010619
2701.63	-0.000126462
2786.06	-9.43915e-05
2870.49	5.52278e-05
2954.91	0.000419594
3039.34	0.00112875
3123.76	0.00234086
3208.19	0.00423136
3292.62	0.00697626
3377.05	0.0107313
3461.47	0.0156089
3545.9	0.0216568
3630.33	0.0288406
3714.75	0.0370328
3799.18	0.0460118
3883.61	0.0554692
3968.03	0.0650266
4052.46	0.0742594
4136.89	0.0827253
4221.31	0.0899951
4305.74	0.0956815
4390.17	0.0994655
4474.59	0.101116
4559.02	0.100503
4643.45	0.0976036
4727.87	0.0925005
4812.3	0.0853734
4896.73	0.0764853
4981.15	0.0661647
5065.58	0.0547847
5150.01	0.0427413
5234.43	0.0304317
5318.86	0.0182344
5403.29	0.00649252
5487.71	-0.0045002
5572.14	-0.0145081
5656.57	-0.0233586
5740.99	-0.030943
5825.42	-0.0372128
5909.85	-0.0421743
5994.27	-0.0458795
6078.7	-0.0484171
6163.13	-0.049902
6247.55	-0.0504662
6331.98	-0.0502494
6416.41	-0.0493921
6500.83	-0.0480291
6585.26	-0.0462852
6669.69	-0.0442717
6754.11	-0.0420847
6838.54	-0.0398039
6922.97	-0.0374924
7007.39	-0.035198
7091.82	-0.0329535
7176.25	-0.0307789
7260.67	-0.0286832
7345.1	-0.0266666
7429.53	-0.0247222
7513.95	-0.0228391
7598.38	-0.0210034
7682.8	-0.0192004
7767.23	-0.0174163
7851.66	-0.0156387
7936.08	-0.0138578
8020.51	-0.0120669
8104.94	-0.0102624
8189.36	-0.00844407
8273.79	-0.00661503
8358.22	-0.00478127
8442.64	-0.00295158
8527.07	-0.0011372
8611.5	0.000648607
8695.92	0.00239093
8780.35	0.00407369
8864.78	0.00568008
8949.2	0.00719311
9033.63	0.00859608
9118.06	0.00987304
9202.48	0.0110092
9286.91	0.0119916
9371.34	0.0128087
9455.77	0.0134517
9540.19	0.0139137
9624.62	0.0141906
9709.05	0.0142809
9793.47	0.0141856
9877.9	0.0139083
9962.33	0.0134555
10046.8	0.0128357
10131.2	0.0120602
10215.6	0.0111421
10300	0.0100967
10384.5	0.00894066
10468.9	0.0076921
10553.3	0.00637004
10637.7	0.00499414
10722.2	0.00358425
10806.6	0.00216014
10891	0.000741108
10975.4	-0.000654313
11059.9	-0.00200865
11144.3	-0.00330575
11228.7	-0.00453098
11313.2	-0.00567148
11397.6	-0.00671625
11482	-0.00765631
11566.4	-0.00848478
11650.9	-0.00919693
11735.3	-0.0097902
11819.7	-0.0102641
11904.1	-0.0106204
11988.6	-0.0108624
12073	-0.0109957
12157.4	-0.0110271
12241.9	-0.0109652
12326.3	-0.0108195
12410.7	-0.0106006
12495.1	-0.0103199
12579.6	-0.00998912
12664	-0.00962015
12748.4	-0.00922489
12832.8	-0.00881484
12917.3	-0.00840095
13001.7	-0.00799334
13086.1	-0.00760112
13170.5	-0.00723217
13255	-0.00689306
13339.4	-0.00658891
13423.8	-0.0063233
13508.3	-0.00609831
13592.7	-0.0059145
13677.1	-0.00577099
13761.5	-0.00566557
13846	-0.00559484
13930.4	-0.00555437
14014.8	-0.0055389
14099.2	-0.00554256
14183.7	-0.00555907
14268.1	-0.00558197
14352.5	-0.00560483
14436.9	-0.00562145
14521.4	-0.00562605
14605.8	-0.00561341
14690.2	-0.00557902
14774.7	-0.00551918
14859.1	-0.00543108
14943.5	-0.0053128
15027.9	-0.00516338
15112.4	-0.00498275
15196.8	-0.00477172
15281.2	-0.0045319
15365.6	-0.00426561
15450.1	-0.00397579
15534.5	-0.00366588
15618.9	-0.00333974
15703.4	-0.0030015
15787.8	-0.00265546
15872.2	-0.00230599
15956.6	-0.00195744
16041.1	-0.00161399
16125.5	-0.00127967
16209.9	-0.000958181
16294.3	-0.000652933
16378.8	-0.000366941
16463.2	-0.000102813
16547.6	0.000137276
16632	0.00035159
16716.5	0.000538843
16800.9	0.000698184
16885.3	0.000829189
16969.8	0.000931835
17054.2	0.00100648
17138.6	0.00105383
17223	0.00107491
17307.5	0.00107101
17391.9	0.00104368
17476.3	0.000994673
17560.7	0.000925898
17645.2	0.000839401
17729.6	0.000737319
17814	0.000621846
17898.5	0.000495202
17982.9	0.000359597
18067.3	0.000217207
18151.7	7.01467e-05
18236.2	-7.9555e-05
18320.6	-0.000229974
18405	-0.000379308
18489.4	-0.000525893
18573.9	-0.000668211
18658.3	-0.000804904
18742.7	-0.000934776
18827.1	-0.0010568
18911.6	-0.00117011
18996	-0.00127402
19080.4	-0.001368
19164.9	-0.00145168
19249.3	-0.00152485
19333.7	-0.00158744
19418.1	-0.00163952
19502.6	-0.00168129
19587	-0.00171305
19671.4	-0.00173521
19755.8	-0.00174828
19840.3	-0.00175283
19924.7	-0.00174948
