0	0
20.8604	0
41.7207	0
62.5811	0
83.4414	0
104.302	0
125.162	0
146.023	0
166.883	0
187.743	0
208.604	0
229.464	0
250.324	0
271.185	0
292.045	0
312.905	0
333.766	0
354.626	0
375.486	0
396.347	0
417.207	0
438.068	0
458.928	0
479.788	0
500.649	0
521.509	0
542.369	0
563.23	9.09495e-13
584.09	9.09495e-12
604.95	9.004e-11
625.811	6.1209e-10
646.671	3.28509e-09
667.531	1.46847e-08
688.392	5.65733e-08
709.252	1.92137e-07
730.113	5.85087e-07
750.973	1.61883e-06
771.833	4.11412e-06
792.694	9.6925e-06
813.554	2.13369e-05
834.414	4.41988e-05
855.275	8.66968e-05
876.135	0.000161952
896.995	0.000289626
917.856	0.000498261
938.716	0.000828315
959.576	0.00133614
980.437	0.00209928
1001.3	0.00322336
1022.16	0.00485096
1043.02	0.0071723
1063.88	0.0104373
1084.74	0.0149682
1105.6	0.0211702
1126.46	0.0295389
1147.32	0.0406609
1168.18	0.0552047
1189.04	0.0739001
1209.9	0.0975047
1230.76	0.126757
1251.62	0.162319
1272.48	0.204711
1293.34	0.254245
1314.2	0.310964
1335.06	0.374588
1355.92	0.444481
1376.78	0.519638
1397.64	0.598699
1418.5	0.67998
1439.36	0.761538
1460.23	0.841242
1481.09	0.916864
1501.95	0.986173
1522.81	1.04703
1543.67	1.09747
1564.53	1.13578
1585.39	1.16056
1606.25	1.17079
1627.11	1.16579
1647.97	1.14532
1668.83	1.10951
1689.69	1.05889
1710.55	0.994332
1731.41	0.917029
1752.27	0.828457
1773.13	0.73032
1793.99	0.624496
1814.85	0.512984
1835.71	0.397842
1856.57	0.281127
1877.43	0.16485
1898.29	0.0509088
1919.15	-0.0589439
1940.01	-0.163145
1960.87	-0.260345
1981.73	-0.349431
2002.59	-0.429529
2023.45	-0.500015
2044.31	-0.560498
2065.18	-0.610815
2086.04	-0.651007
2106.9	-0.681304
2127.76	-0.702098
2148.62	-0.713918
2169.48	-0.717409
2190.34	-0.713303
2211.2	-0.7024
2232.06	-0.68554
2252.92	-0.663586
2273.78	-0.637403
2294.64	-0.60784
2315.5	-0.575712
2336.36	-0.541792
2357.22	-0.506794
2378.08	-0.47137
2398.94	-0.436099
2419.8	-0.401487
2440.66	-0.367968
2461.52	-0.335897
2482.38	-0.305561
2503.24	-0.277178
2524.1	-0.250903
2544.96	-0.226835
2565.82	-0.205021
2586.68	-0.185462
2607.54	-0.168122
2628.4	-0.152934
2649.26	-0.139801
2670.13	-0.12861
2690.99	-0.119231
2711.85	-0.111523
2732.71	-0.10534
2753.57	-0.100534
2774.43	-0.0969565
2795.29	-0.0944628
2816.15	-0.092913
2837.01	-0.0921735
2857.87	-0.0921177
2878.73	-0.092627
2899.59	-0.0935905
2920.45	-0.0949055
2941.31	-0.096477
2962.17	-0.098218
2983.03	-0.100049
3003.89	-0.101897
3024.75	-0.103698
3045.61	-0.105392
3066.47	-0.106929
3087.33	-0.108263
3108.19	-0.109356
3129.05	-0.110175
3149.91	-0.110695
3170.77	-0.110895
3191.63	-0.11076
3212.49	-0.110282
3233.35	-0.109458
3254.21	-0.108289
3275.07	-0.106782
3295.93	-0.104948
3316.79	-0.102803
3337.64	-0.100365
3358.5	-0.0976561
3379.36	-0.0947004
3400.22	-0.0915243
3421.08	-0.0881555
3441.94	-0.0846221
3462.8	-0.0809526
3483.66	-0.077175
3504.52	-0.0733164
3525.38	-0.0694026
3546.24	-0.0654574
3567.1	-0.0615027
3587.96	-0.057558
3608.82	-0.0536401
3629.68	-0.0497632
3650.54	-0.0459389
3671.4	-0.0421759
3692.26	-0.0384804
3713.12	-0.0348562
3733.98	-0.0313045
3754.84	-0.0278248
3775.7	-0.0244147
3796.56	-0.0210703
3817.42	-0.0177866
3838.28	-0.0145576
3859.14	-0.011377
3880	-0.00823798
3900.86	-0.00513398
3921.72	-0.00205863
3942.58	0.000993919
3963.44	0.0040288
3984.3	0.00705028
4005.16	0.0100617
4026.02	0.0130652
4046.88	0.016062
4067.74	0.019052
4088.6	0.0220343
4109.46	0.0250066
4130.32	0.0279658
4151.18	0.0309078
4172.04	0.0338279
4192.9	0.0367204
4213.76	0.0395794
4234.62	0.0423983
4255.48	0.0451703
4276.34	0.0478882
4297.2	0.050545
4318.06	0.0531335
4338.92	0.0556466
4359.78	0.0580774
4380.64	0.0604193
4401.5	0.0626658
4422.36	0.0648109
4443.22	0.0668488
4464.08	0.0687742
4484.94	0.0705821
4505.81	0.0722679
4526.67	0.0738274
4547.53	0.0752569
4568.39	0.0765529
4589.25	0.0777124
4610.11	0.0787328
4630.97	0.0796119
4651.83	0.0803478
4672.69	0.080939
4693.55	0.0813845
4714.41	0.0816835
4735.27	0.0818357
4756.13	0.0818414
4776.99	0.081701
4797.85	0.0814155
4818.71	0.0809864
4839.57	0.0804155
4860.43	0.0797052
4881.29	0.0788584
4902.15	0.0778784
4923.01	0.076769
4943.87	0.0755344
4964.73	0.0741794
4985.59	0.0727093
5006.45	0.0711296
5027.31	0.0694465
5048.17	0.0676665
5069.03	0.0657964
5089.89	0.0638435
5110.75	0.0618153
5131.61	0.0597196
5152.47	0.0575644
5173.33	0.0553579
5194.19	0.0531084
5215.06	0.0508244
5235.92	0.0485143
5256.78	0.0461865
5277.64	0.0438495
5298.5	0.0415114
5319.36	0.0391803
5340.22	0.0368641
5361.08	0.0345703
5381.94	0.0323062
5402.8	0.0300786
5423.66	0.027894
5444.52	0.0257585
5465.38	0.0236776
5486.24	0.0216563
5507.1	0.019699
5527.96	0.0178097
5548.82	0.0159917
5569.68	0.0142477
5590.54	0.0125798
5611.4	0.0109894
5632.26	0.00947742
5653.12	0.00804403
5673.98	0.00668888
5694.84	0.005411
5715.7	0.00420884
5736.56	0.00308033
5757.42	0.00202287
5778.28	0.00103339
5799.14	0.00010838
5820	-0.000756062
5840.87	-0.00156419
5861.73	-0.00232054
5882.59	-0.00302993
5903.45	-0.00369733
5924.31	-0.00432789
5945.17	-0.00492681
5966.03	-0.00549933
5986.89	-0.00605068
6007.75	-0.00658601
6028.61	-0.00711032
6049.47	-0.00762847
6070.33	-0.00814508
6091.19	-0.00866451
6112.05	-0.00919084
6132.91	-0.00972781
6153.77	-0.0102788
6174.63	-0.0108468
6195.49	-0.0114345
6216.35	-0.0120441
6237.21	-0.0126773
6258.07	-0.0133356
6278.93	-0.0140198
6299.79	-0.0147307
6320.65	-0.0154683
6341.51	-0.0162324
6362.37	-0.0170226
6383.23	-0.017838
6404.09	-0.0186773
6424.95	-0.0195391
6445.82	-0.0204218
6466.68	-0.0213234
6487.54	-0.0222418
6508.4	-0.023175
6529.26	-0.0241204
6550.12	-0.0250758
6570.98	-0.0260386
6591.84	-0.0270063
6612.7	-0.0279766
6633.56	-0.0289468
6654.42	-0.0299148
6675.28	-0.030878
6696.14	-0.0318342
6717	-0.0327814
6737.86	-0.0337174
6758.72	-0.0346403
6779.58	-0.0355482
6800.44	-0.0364395
6821.3	-0.0373126
6842.16	-0.038166
6863.02	-0.0389983
6883.88	-0.0398082
6904.74	-0.0405946
6925.6	-0.0413563
6946.46	-0.0420924
6967.32	-0.0428018
6988.18	-0.0434836
7009.04	-0.0441371
7029.9	-0.0447612
7050.76	-0.0453552
7071.62	-0.0459184
7092.49	-0.0464499
7113.35	-0.0469489
7134.21	-0.0474146
7155.07	-0.0478463
7175.93	-0.0482431
7196.79	-0.0486043
7217.65	-0.048929
7238.51	-0.0492165
7259.37	-0.049466
7280.23	-0.0496766
7301.09	-0.0498477
7321.95	-0.0499785
7342.81	-0.0500683
7363.67	-0.0501164
7384.53	-0.0501224
7405.39	-0.0500856
7426.25	-0.0500057
7447.11	-0.0498823
7467.97	-0.0497152
7488.83	-0.0495042
7509.69	-0.0492494
7530.55	-0.0489508
7551.41	-0.0486086
7572.27	-0.0482234
7593.13	-0.0477955
7613.99	-0.0473257
7634.85	-0.0468149
7655.71	-0.0462639
7676.57	-0.0456738
7697.43	-0.0450461
7718.29	-0.0443819
7739.15	-0.043683
7760.01	-0.0429508
7780.87	-0.0421872
7801.73	-0.0413941
7822.59	-0.0405734
7843.46	-0.0397271
7864.32	-0.0388573
7885.18	-0.0379663
7906.04	-0.0370561
7926.9	-0.036129
7947.76	-0.0351872
7968.62	-0.0342329
7989.48	-0.0332682
8010.34	-0.0322954
8031.2	-0.0313165
8052.06	-0.0303335
8072.92	-0.0293484
8093.78	-0.0283631
8114.64	-0.0273792
8135.5	-0.0263985
8156.36	-0.0254225
8177.22	-0.0244527
8198.08	-0.0234902
8218.94	-0.0225364
8239.8	-0.0215923
8260.66	-0.0206589
8281.52	-0.0197368
8302.38	-0.0188269
8323.24	-0.0179298
8344.1	-0.0170459
8364.96	-0.0161756
8385.82	-0.0153193
8406.68	-0.014477
8427.54	-0.0136491
8448.4	-0.0128355
8469.26	-0.0120364
8490.12	-0.0112516
8510.98	-0.0104811
8531.84	-0.00972489
8552.7	-0.00898286
8573.57	-0.0082549
8594.43	-0.00754094
8615.29	-0.00684088
8636.15	-0.00615465
8657.01	-0.00548223
8677.87	-0.00482358
8698.73	-0.00417872
8719.59	-0.00354769
8740.45	-0.00293056
8761.31	-0.00232746
8782.17	-0.00173851
8803.03	-0.00116391
8823.89	-0.000603853
8844.75	-5.85842e-05
8865.61	0.000471639
8886.47	0.000986537
8907.33	0.00148582
8928.19	0.00196917
8949.05	0.0024363
8969.91	0.00288689
8990.77	0.00332065
9011.63	0.0037373
9032.49	0.00413658
9053.35	0.00451826
9074.21	0.00488214
9095.07	0.00522806
9115.93	0.00555591
9136.79	0.00586562
9157.65	0.00615717
9178.51	0.00643062
9199.37	0.00668606
9220.24	0.00692366
9241.1	0.00714366
9261.96	0.00734635
9282.82	0.0075321
9303.68	0.00770132
9324.54	0.00785453
9345.4	0.00799226
9366.26	0.00811515
9387.12	0.00822386
9407.98	0.00831913
9428.84	0.00840174
9449.7	0.00847251
9470.56	0.00853231
9491.42	0.00858203
9512.28	0.00862261
9533.14	0.008655
9554	0.00868017
9574.86	0.00869907
9595.72	0.0087127
9616.58	0.00872202
9637.44	0.00872798
9658.3	0.00873151
9679.16	0.00873352
9700.02	0.00873486
9720.88	0.00873636
9741.74	0.0087388
9762.6	0.00874287
9783.46	0.00874923
9804.32	0.00875845
9825.18	0.00877103
9846.05	0.00878739
9866.91	0.00880786
9887.77	0.00883267
9908.63	0.00886197
9929.49	0.00889582
9950.35	0.00893414
9971.21	0.0089768
9992.07	0.00902353
10012.9	0.00907398
10033.8	0.00912768
10054.6	0.00918407
10075.5	0.00924249
10096.4	0.00930219
10117.2	0.00936231
10138.1	0.00942191
10159	0.00947999
10179.8	0.00953543
10200.7	0.00958707
10221.5	0.00963368
10242.4	0.00967396
10263.3	0.00970657
10284.1	0.00973014
10305	0.00974324
10325.8	0.00974445
10346.7	0.0097323
10367.6	0.00970535
10388.4	0.00966214
10409.3	0.00960123
10430.1	0.00952121
10451	0.00942071
10471.9	0.00929839
10492.7	0.00915297
10513.6	0.00898322
10534.4	0.008788
10555.3	0.00856624
10576.2	0.00831696
10597	0.00803926
10617.9	0.00773235
10638.7	0.00739556
10659.6	0.00702831
10680.5	0.00663015
10701.3	0.00620076
10722.2	0.00573993
10743	0.00524758
10763.9	0.00472377
10784.8	0.00416868
10805.6	0.00358264
10826.5	0.00296609
10847.3	0.00231961
10868.2	0.00164392
10889.1	0.00093984
10909.9	0.000208344
10930.8	-0.000549492
10951.6	-0.00133247
10972.5	-0.00213929
10993.4	-0.00296853
11014.2	-0.00381869
11035.1	-0.00468816
11055.9	-0.00557525
11076.8	-0.00647819
11097.7	-0.00739514
11118.5	-0.0083242
11139.4	-0.00926341
11160.2	-0.0102108
11181.1	-0.0111642
11202	-0.0121217
11222.8	-0.0130811
11243.7	-0.0140403
11264.5	-0.0149972
11285.4	-0.0159497
11306.3	-0.0168956
11327.1	-0.017833
11348	-0.0187597
11368.8	-0.0196738
11389.7	-0.0205732
11410.6	-0.021456
11431.4	-0.0223204
11452.3	-0.0231646
11473.2	-0.0239869
11494	-0.0247855
11514.9	-0.0255589
11535.7	-0.0263057
11556.6	-0.0270244
11577.5	-0.0277137
11598.3	-0.0283726
11619.2	-0.0289998
11640	-0.0295944
11660.9	-0.0301555
11681.8	-0.0306824
11702.6	-0.0311744
11723.5	-0.031631
11744.3	-0.0320518
11765.2	-0.0324364
11786.1	-0.0327848
11806.9	-0.0330967
11827.8	-0.0333723
11848.6	-0.0336118
11869.5	-0.0338152
11890.4	-0.0339831
11911.2	-0.0341158
11932.1	-0.034214
11952.9	-0.0342782
11973.8	-0.0343093
11994.7	-0.0343079
12015.5	-0.0342751
12036.4	-0.0342117
12057.2	-0.0341188
12078.1	-0.0339974
12099	-0.0338488
12119.8	-0.033674
12140.7	-0.0334744
12161.5	-0.0332511
12182.4	-0.0330055
12203.3	-0.0327387
12224.1	-0.0324523
12245	-0.0321474
12265.8	-0.0318254
12286.7	-0.0314877
12307.6	-0.0311354
12328.4	-0.0307699
12349.3	-0.0303926
12370.1	-0.0300045
12391	-0.029607
12411.9	-0.0292012
12432.7	-0.0287882
12453.6	-0.0283692
12474.4	-0.0279452
12495.3	-0.0275172
12516.2	-0.0270861
12537	-0.026653
12557.9	-0.0262186
12578.7	-0.0257838
12599.6	-0.0253493
12620.5	-0.0249157
12641.3	-0.0244839
12662.2	-0.0240542
12683	-0.0236273
12703.9	-0.0232037
12724.8	-0.0227838
12745.6	-0.022368
12766.5	-0.0219565
12787.4	-0.0215498
12808.2	-0.021148
12829.1	-0.0207514
12849.9	-0.0203601
12870.8	-0.0199742
12891.7	-0.0195938
12912.5	-0.019219
12933.4	-0.0188497
12954.2	-0.0184861
12975.1	-0.0181279
12996	-0.0177753
13016.8	-0.017428
13037.7	-0.0170859
13058.5	-0.0167491
13079.4	-0.0164172
13100.3	-0.0160901
13121.1	-0.0157677
13142	-0.0154498
13162.8	-0.0151362
13183.7	-0.0148267
13204.6	-0.0145211
13225.4	-0.0142192
13246.3	-0.0139209
13267.1	-0.0136258
13288	-0.0133339
13308.9	-0.013045
13329.7	-0.0127587
13350.6	-0.0124751
13371.4	-0.0121939
13392.3	-0.011915
13413.2	-0.0116383
13434	-0.0113636
13454.9	-0.0110908
13475.7	-0.0108199
13496.6	-0.0105507
13517.5	-0.0102833
13538.3	-0.0100176
13559.2	-0.00975355
13580	-0.00949124
13600.9	-0.00923068
13621.8	-0.00897192
13642.6	-0.00871504
13663.5	-0.00846015
13684.3	-0.00820737
13705.2	-0.00795684
13726.1	-0.00770873
13746.9	-0.00746322
13767.8	-0.00722052
13788.6	-0.00698085
13809.5	-0.00674446
13830.4	-0.00651158
13851.2	-0.00628251
13872.1	-0.00605751
13893	-0.00583687
13913.8	-0.00562091
13934.7	-0.00540993
13955.5	-0.00520424
13976.4	-0.00500415
13997.3	-0.00480999
14018.1	-0.00462207
14039	-0.0044407
14059.8	-0.00426618
14080.7	-0.00409882
14101.6	-0.00393889
14122.4	-0.00378667
14143.3	-0.00364241
14164.1	-0.00350637
14185	-0.00337875
14205.9	-0.00325976
14226.7	-0.00314958
14247.6	-0.00304836
14268.4	-0.00295623
14289.3	-0.00287329
14310.2	-0.00279962
14331	-0.00273526
14351.9	-0.00268022
14372.7	-0.00263448
14393.6	-0.002598
14414.5	-0.00257071
14435.3	-0.00255249
14456.2	-0.00254319
14477	-0.00254266
14497.9	-0.00255068
14518.8	-0.00256703
14539.6	-0.00259145
14560.5	-0.00262364
14581.3	-0.0026633
14602.2	-0.00271008
14623.1	-0.00276362
14643.9	-0.00282354
14664.8	-0.00288942
14685.6	-0.00296083
14706.5	-0.00303735
14727.4	-0.00311849
14748.2	-0.0032038
14769.1	-0.00329278
14789.9	-0.00338493
14810.8	-0.00347976
14831.7	-0.00357676
14852.5	-0.0036754
14873.4	-0.00377516
14894.2	-0.00387554
14915.1	-0.00397601
14936	-0.00407606
14956.8	-0.00417517
14977.7	-0.00427284
14998.5	-0.00436857
15019.4	-0.00446186
15040.3	-0.00455224
15061.1	-0.00463923
15082	-0.00472238
15102.9	-0.00480123
15123.7	-0.00487536
15144.6	-0.00494433
15165.4	-0.00500775
15186.3	-0.00506522
15207.2	-0.00511638
15228	-0.00516084
15248.9	-0.00519829
15269.7	-0.00522837
15290.6	-0.00525079
15311.5	-0.00526523
15332.3	-0.00527143
15353.2	-0.00526912
15374	-0.00525805
15394.9	-0.00523797
15415.8	-0.00520868
15436.6	-0.00516997
15457.5	-0.00512164
15478.3	-0.00506352
15499.2	-0.00499545
15520.1	-0.00491728
15540.9	-0.00482888
15561.8	-0.00473011
15582.6	-0.00462088
15603.5	-0.00450108
15624.4	-0.00437064
15645.2	-0.00422948
15666.1	-0.00407754
15686.9	-0.00391479
15707.8	-0.00374118
15728.7	-0.00355671
15749.5	-0.00336137
15770.4	-0.00315516
15791.2	-0.00293811
15812.1	-0.00271026
15833	-0.00247167
15853.8	-0.0022224
15874.7	-0.00196255
15895.5	-0.00169222
15916.4	-0.00141154
15937.3	-0.00112065
15958.1	-0.000819714
15979	-0.00050892
15999.8	-0.000188478
16020.7	0.000141381
16041.6	0.000480398
16062.4	0.000828293
16083.3	0.00118475
16104.1	0.00154945
16125	0.001922
16145.9	0.00230203
16166.7	0.00268911
16187.6	0.00308277
16208.4	0.00348254
16229.3	0.0038879
16250.2	0.00429828
16271	0.00471312
16291.9	0.00513178
16312.8	0.00555362
16333.6	0.00597796
16354.5	0.00640409
16375.3	0.00683124
16396.2	0.00725866
16417.1	0.00768552
16437.9	0.008111
16458.8	0.00853423
16479.6	0.00895433
16500.5	0.00937037
16521.4	0.00978144
16542.2	0.0101866
16563.1	0.0105848
16583.9	0.0109752
16604.8	0.0113567
16625.7	0.0117283
16646.5	0.0120891
16667.4	0.012438
16688.2	0.0127742
16709.1	0.0130964
16730	0.013404
16750.8	0.0136957
16771.7	0.0139709
16792.5	0.0142285
16813.4	0.0144677
16834.3	0.0146877
16855.1	0.0148877
16876	0.0150671
16896.8	0.015225
16917.7	0.0153609
16938.6	0.0154742
16959.4	0.0155645
16980.3	0.0156314
17001.1	0.0156744
17022	0.0156934
17042.9	0.0156882
17063.7	0.0156586
17084.6	0.0156047
17105.4	0.0155266
17126.3	0.0154244
17147.2	0.0152984
17168	0.015149
17188.9	0.0149767
17209.7	0.014782
17230.6	0.0145655
17251.5	0.0143281
17272.3	0.0140705
17293.2	0.0137937
17314	0.0134988
17334.9	0.0131867
17355.8	0.0128588
17376.6	0.0125163
17397.5	0.0121605
17418.3	0.0117927
17439.2	0.0114146
17460.1	0.0110275
17480.9	0.0106331
17501.8	0.0102329
17522.7	0.00982864
17543.5	0.00942188
17564.4	0.00901434
17585.2	0.00860769
17606.1	0.00820363
17627	0.00780384
17647.8	0.00740998
17668.7	0.00702368
17689.5	0.00664657
17710.4	0.0062802
17731.3	0.0059261
17752.1	0.00558573
17773	0.00526049
17793.8	0.0049517
17814.7	0.00466063
17835.6	0.00438844
17856.4	0.0041362
17877.3	0.00390491
17898.1	0.00369543
17919	0.00350855
17939.9	0.00334494
17960.7	0.00320516
17981.6	0.00308964
18002.4	0.00299872
18023.3	0.0029326
18044.2	0.00289137
18065	0.00287501
18085.9	0.00288336
18106.7	0.00291616
18127.6	0.00297305
18148.5	0.00305351
18169.3	0.00315697
18190.2	0.00328271
18211	0.00342992
18231.9	0.00359771
18252.8	0.00378507
18273.6	0.00399094
18294.5	0.00421414
18315.3	0.00445345
18336.2	0.00470757
18357.1	0.00497512
18377.9	0.00525472
18398.8	0.00554488
18419.6	0.00584412
18440.5	0.0061509
18461.4	0.00646369
18482.2	0.00678091
18503.1	0.00710099
18523.9	0.00742236
18544.8	0.00774345
18565.7	0.0080627
18586.5	0.0083786
18607.4	0.00868963
18628.2	0.00899433
18649.1	0.00929127
18670	0.00957907
18690.8	0.00985639
18711.7	0.010122
18732.6	0.0103746
18753.4	0.0106131
18774.3	0.0108364
18795.1	0.0110436
18816	0.0112336
18836.9	0.0114056
18857.7	0.0115589
18878.6	0.0116928
18899.4	0.0118067
18920.3	0.0119
18941.2	0.0119724
18962	0.0120234
18982.9	0.0120528
19003.7	0.0120604
19024.6	0.0120461
19045.5	0.01201
19066.3	0.0119519
19087.2	0.0118722
19108	0.011771
19128.9	0.0116486
19149.8	0.0115052
19170.6	0.0113415
19191.5	0.0111578
19212.3	0.0109546
19233.2	0.0107326
19254.1	0.0104925
19274.9	0.0102348
19295.8	0.00996042
19316.6	0.00967005
19337.5	0.00936455
19358.4	0.00904475
19379.2	0.00871154
19400.1	0.00836583
19420.9	0.00800854
19441.8	0.00764062
19462.7	0.00726302
19483.5	0.00687673
19504.4	0.00648271
19525.2	0.00608194
19546.1	0.00567541
19567	0.00526409
19587.8	0.00484896
19608.7	0.00443096
19629.5	0.00401106
19650.4	0.00359019
19671.3	0.00316926
19692.1	0.00274918
19713	0.00233083
19733.8	0.00191506
19754.7	0.0015027
19775.6	0.00109456
19796.4	0.000691413
19817.3	0.000294004
19838.1	-9.69486e-05
19859	-0.000480759
19879.9	-0.000856773
19900.7	-0.00122437
19921.6	-0.00158297
19942.5	-0.00193201
19963.3	-0.00227097
19984.2	-0.00259937
