0	0
10.3657	0
20.7315	0
31.0972	0
41.4629	0
51.8287	0
62.1944	0
72.5601	0
82.9259	0
93.2916	0
103.657	0
114.023	0
124.389	0
134.755	0
145.12	0
155.486	0
165.852	0
176.217	0
186.583	0
196.949	0
207.315	0
217.68	0
228.046	0
238.412	0
248.778	0
259.143	0
269.509	0
279.875	0
290.241	0
300.606	0
310.972	0
321.338	0
331.703	0
342.069	0
352.435	0
362.801	0
373.166	0
383.532	0
393.898	0
404.264	0
414.629	0
424.995	0
435.361	0
445.727	0
456.092	0
466.458	0
476.824	0
487.189	0
497.555	0
507.921	0
518.287	0
528.652	0
539.018	0
549.384	0
559.75	0
570.115	0
580.481	0
590.847	0
601.213	0
611.578	0
621.944	0
632.31	0
642.676	0
653.041	0
663.407	0
673.773	0
684.138	0
694.504	0
704.87	0
715.236	9.09495e-13
725.601	3.63798e-12
735.967	1.09139e-11
746.333	3.18323e-11
756.699	8.91305e-11
767.064	2.37378e-10
777.43	6.02085e-10
787.796	1.46156e-09
798.162	3.41151e-09
808.527	7.66977e-09
818.893	1.66438e-08
829.259	3.49219e-08
839.624	7.09597e-08
849.99	1.39845e-07
860.356	2.67671e-07
870.722	4.98238e-07
881.087	9.02992e-07
891.453	1.59529e-06
901.819	2.75027e-06
912.185	4.63162e-06
922.55	7.62662e-06
932.916	1.22905e-05
943.282	1.94011e-05
953.648	3.00233e-05
964.013	4.55839e-05
974.379	6.79535e-05
984.745	9.95351e-05
995.11	0.000143353
1005.48	0.000203143
1015.84	0.000283427
1026.21	0.000389589
1036.57	0.000527924
1046.94	0.000705677
1057.3	0.000931062
1067.67	0.00121327
1078.04	0.00156248
1088.4	0.00198985
1098.77	0.0025076
1109.13	0.00312903
1119.5	0.00386872
1129.86	0.00474278
1140.23	0.00576916
1150.6	0.00696822
1160.96	0.00836334
1171.33	0.00998179
1181.69	0.0118557
1192.06	0.0140231
1202.43	0.0165296
1212.79	0.0194291
1223.16	0.0227856
1233.52	0.0266745
1243.89	0.0311837
1254.25	0.0364147
1264.62	0.0424829
1274.99	0.0495182
1285.35	0.0576645
1295.72	0.0670788
1306.08	0.0779299
1316.45	0.0903954
1326.81	0.10466
1337.18	0.120909
1347.55	0.139329
1357.91	0.160097
1368.28	0.18338
1378.64	0.209325
1389.01	0.238059
1399.37	0.269676
1409.74	0.304238
1420.11	0.341766
1430.47	0.38224
1440.84	0.425592
1451.2	0.471703
1461.57	0.520406
1471.93	0.571479
1482.3	0.624655
1492.67	0.679616
1503.03	0.736001
1513.4	0.79341
1523.76	0.851404
1534.13	0.909519
1544.49	0.967266
1554.86	1.02414
1565.23	1.07962
1575.59	1.1332
1585.96	1.18437
1596.32	1.23261
1606.69	1.27746
1617.05	1.31845
1627.42	1.35515
1637.79	1.38716
1648.15	1.41413
1658.52	1.43574
1668.88	1.4517
1679.25	1.4618
1689.61	1.46585
1699.98	1.46372
1710.35	1.45533
1720.71	1.44063
1731.08	1.41966
1741.44	1.39245
1751.81	1.35914
1762.17	1.31987
1772.54	1.27483
1782.91	1.22426
1793.27	1.16845
1803.64	1.1077
1814	1.04236
1824.37	0.972813
1834.73	0.899459
1845.1	0.822729
1855.47	0.74307
1865.83	0.660948
1876.2	0.576842
1886.56	0.491238
1896.93	0.404627
1907.3	0.317503
1917.66	0.230354
1928.03	0.143662
1938.39	0.0578961
1948.76	-0.0264854
1959.12	-0.109046
1969.49	-0.189371
1979.86	-0.267071
1990.22	-0.341784
2000.59	-0.413179
2010.95	-0.480959
2021.32	-0.544858
2031.68	-0.60465
2042.05	-0.660143
2052.42	-0.711183
2062.78	-0.757654
2073.15	-0.799475
2083.51	-0.836605
2093.88	-0.869035
2104.24	-0.896792
2114.61	-0.919934
2124.98	-0.93855
2135.34	-0.952756
2145.71	-0.962694
2156.07	-0.968527
2166.44	-0.97044
2176.8	-0.968634
2187.17	-0.963324
2197.54	-0.954739
2207.9	-0.943112
2218.27	-0.928687
2228.63	-0.91171
2239	-0.892426
2249.36	-0.871082
2259.73	-0.847921
2270.1	-0.82318
2280.46	-0.797092
2290.83	-0.76988
2301.19	-0.741758
2311.56	-0.712933
2321.92	-0.683597
2332.29	-0.653933
2342.66	-0.624111
2353.02	-0.594292
2363.39	-0.56462
2373.75	-0.535231
2384.12	-0.506246
2394.48	-0.477777
2404.85	-0.449922
2415.22	-0.422769
2425.58	-0.396396
2435.95	-0.370868
2446.31	-0.346244
2456.68	-0.322571
2467.04	-0.29989
2477.41	-0.278231
2487.78	-0.257618
2498.14	-0.238068
2508.51	-0.219592
2518.87	-0.202194
2529.24	-0.185873
2539.6	-0.170622
2549.97	-0.156432
2560.34	-0.143288
2570.7	-0.13117
2581.07	-0.120058
2591.43	-0.109926
2601.8	-0.100747
2612.16	-0.0924909
2622.53	-0.0851261
2632.9	-0.078619
2643.26	-0.0729342
2653.63	-0.0680356
2663.99	-0.0638858
2674.36	-0.0604466
2684.73	-0.0576794
2695.09	-0.0555453
2705.46	-0.0540051
2715.82	-0.0530197
2726.19	-0.0525503
2736.55	-0.0525584
2746.92	-0.0530058
2757.29	-0.0538554
2767.65	-0.0550704
2778.02	-0.0566153
2788.38	-0.0584554
2798.75	-0.060557
2809.11	-0.0628878
2819.48	-0.0654165
2829.85	-0.0681133
2840.21	-0.0709499
2850.58	-0.073899
2860.94	-0.076935
2871.31	-0.080034
2881.67	-0.0831732
2892.04	-0.0863314
2902.41	-0.0894891
2912.77	-0.0926279
2923.14	-0.0957314
2933.5	-0.0987841
2943.87	-0.101772
2954.23	-0.104683
2964.6	-0.107506
2974.97	-0.11023
2985.33	-0.112847
2995.7	-0.115349
3006.06	-0.11773
3016.43	-0.119983
3026.79	-0.122105
3037.16	-0.124092
3047.53	-0.12594
3057.89	-0.127647
3068.26	-0.129212
3078.62	-0.130632
3088.99	-0.131909
3099.35	-0.13304
3109.72	-0.134028
3120.09	-0.134872
3130.45	-0.135572
3140.82	-0.136131
3151.18	-0.13655
3161.55	-0.136829
3171.91	-0.136971
3182.28	-0.136977
3192.64	-0.13685
3203.01	-0.136591
3213.38	-0.136202
3223.74	-0.135686
3234.11	-0.135045
3244.47	-0.134281
3254.84	-0.133397
3265.2	-0.132396
3275.57	-0.13128
3285.94	-0.130052
3296.3	-0.128716
3306.67	-0.127274
3317.03	-0.125731
3327.4	-0.124089
3337.76	-0.122352
3348.13	-0.120526
3358.49	-0.118612
3368.86	-0.116617
3379.23	-0.114545
3389.59	-0.1124
3399.96	-0.110188
3410.32	-0.107913
3420.69	-0.105581
3431.05	-0.103197
3441.42	-0.100768
3451.78	-0.0982978
3462.15	-0.0957931
3472.52	-0.0932595
3482.88	-0.0907028
3493.25	-0.0881288
3503.61	-0.0855434
3513.98	-0.0829521
3524.34	-0.0803606
3534.71	-0.0777744
3545.07	-0.0751988
3555.44	-0.0726391
3565.8	-0.0701
3576.17	-0.0675865
3586.54	-0.0651029
3596.9	-0.0626533
3607.27	-0.0602418
3617.63	-0.0578718
3628	-0.0555466
3638.36	-0.0532691
3648.73	-0.0510418
3659.09	-0.0488668
3669.46	-0.046746
3679.82	-0.0446807
3690.19	-0.042672
3700.55	-0.0407206
3710.92	-0.0388267
3721.29	-0.0369903
3731.65	-0.035211
3742.02	-0.0334879
3752.38	-0.0318201
3762.75	-0.030206
3773.11	-0.028644
3783.48	-0.0271321
3793.84	-0.0256681
3804.21	-0.0242495
3814.57	-0.0228736
3824.94	-0.0215375
3835.3	-0.0202383
3845.67	-0.0189727
3856.03	-0.0177375
3866.4	-0.0165293
3876.77	-0.0153448
3887.13	-0.0141804
3897.5	-0.0130328
3907.86	-0.0118984
3918.23	-0.010774
3928.59	-0.00965626
3938.96	-0.00854194
3949.32	-0.00742797
3959.69	-0.00631139
3970.05	-0.00518943
3980.42	-0.00405947
3990.78	-0.00291908
4001.15	-0.00176604
4011.51	-0.000598362
4021.88	0.000585739
4032.24	0.0017878
4042.61	0.00300912
4052.98	0.00425076
4063.34	0.00551352
4073.71	0.00679798
4084.07	0.00810446
4094.44	0.00943305
4104.8	0.0107836
4115.17	0.0121558
4125.53	0.013549
4135.9	0.0149625
4146.26	0.0163953
4156.63	0.0178462
4166.99	0.0193141
4177.36	0.0207975
4187.73	0.0222948
4198.09	0.0238044
4208.46	0.0253246
4218.82	0.0268536
4229.19	0.0283894
4239.55	0.0299303
4249.92	0.0314743
4260.28	0.0330195
4270.65	0.034564
4281.01	0.036106
4291.38	0.0376435
4301.75	0.0391749
4312.11	0.0406983
4322.48	0.0422122
4332.84	0.0437149
4343.21	0.045205
4353.57	0.046681
4363.94	0.0481415
4374.3	0.0495854
4384.67	0.0510115
4395.04	0.0524186
4405.4	0.0538058
4415.77	0.0551722
4426.13	0.0565168
4436.5	0.0578389
4446.86	0.0591378
4457.23	0.0604126
4467.59	0.0616629
4477.96	0.0628878
4488.33	0.0640869
4498.69	0.0652596
4509.06	0.0664051
4519.42	0.067523
4529.79	0.0686126
4540.15	0.0696734
4550.52	0.0707045
4560.89	0.0717054
4571.25	0.0726753
4581.62	0.0736135
4591.98	0.0745191
4602.35	0.0753913
4612.72	0.0762291
4623.08	0.0770317
4633.45	0.077798
4643.81	0.078527
4654.18	0.0792176
4664.54	0.0798687
4674.91	0.0804792
4685.27	0.0810478
4695.64	0.0815735
4706.01	0.0820549
4716.37	0.082491
4726.74	0.0828805
4737.1	0.0832222
4747.47	0.083515
4757.83	0.0837577
4768.2	0.0839494
4778.57	0.0840889
4788.93	0.0841753
4799.3	0.0842077
4809.66	0.0841853
4820.03	0.0841073
4830.39	0.0839732
4840.76	0.0837823
4851.13	0.0835343
4861.49	0.0832289
4871.86	0.0828658
4882.22	0.0824451
4892.59	0.0819667
4902.95	0.0814309
4913.32	0.0808379
4923.69	0.0801884
4934.05	0.0794828
4944.42	0.078722
4954.78	0.0779068
4965.15	0.0770381
4975.51	0.0761173
4985.88	0.0751455
4996.25	0.0741242
5006.61	0.0730549
5016.98	0.0719392
5027.34	0.0707789
5037.71	0.069576
5048.07	0.0683323
5058.44	0.06705
5068.81	0.0657311
5079.17	0.0643781
5089.54	0.0629931
5099.9	0.0615786
5110.27	0.060137
5120.63	0.0586709
5131	0.0571827
5141.37	0.0556751
5151.73	0.0541507
5162.1	0.0526122
5172.46	0.051062
5182.83	0.049503
5193.19	0.0479378
5203.56	0.046369
5213.93	0.0447993
5224.29	0.0432312
5234.66	0.0416674
5245.02	0.0401103
5255.39	0.0385626
5265.75	0.0370266
5276.12	0.0355047
5286.48	0.0339993
5296.85	0.0325127
5307.22	0.0310472
5317.58	0.0296047
5327.95	0.0281875
5338.31	0.0267976
5348.68	0.0254368
5359.04	0.024107
5369.41	0.0228101
5379.78	0.0215475
5390.14	0.020321
5400.51	0.0191321
5410.87	0.0179822
5421.24	0.0168726
5431.6	0.0158046
5441.97	0.0147793
5452.34	0.0137979
5462.7	0.0128613
5473.07	0.0119704
5483.43	0.011126
5493.8	0.010329
5504.16	0.00957992
5514.53	0.00887938
5524.9	0.00822787
5535.26	0.00762583
5545.63	0.00707358
5555.99	0.00657141
5566.36	0.00611951
5576.72	0.00571798
5587.09	0.00536688
5597.46	0.00506618
5607.82	0.00481577
5618.19	0.00461547
5628.55	0.00446506
5638.92	0.0043642
5649.28	0.00431252
5659.65	0.00430955
5670.02	0.00435477
5680.38	0.00444757
5690.75	0.00458729
5701.11	0.00477319
5711.48	0.00500446
5721.84	0.00528022
5732.21	0.00559951
5742.58	0.00596131
5752.94	0.00636453
5763.31	0.00680801
5773.67	0.0072905
5784.04	0.00781071
5794.4	0.00836726
5804.77	0.00895871
5815.14	0.00958356
5825.5	0.0102402
5835.87	0.010927
5846.23	0.0116424
5856.6	0.0123844
5866.96	0.0131513
5877.33	0.0139412
5887.7	0.0147522
5898.06	0.0155823
5908.43	0.0164294
5918.79	0.0172916
5929.16	0.0181666
5939.52	0.0190524
5949.89	0.0199467
5960.26	0.0208474
5970.62	0.0217523
5980.99	0.022659
5991.35	0.0235654
6001.72	0.0244692
6012.09	0.0253682
6022.45	0.0262601
6032.82	0.0271426
6043.18	0.0280136
6053.55	0.0288709
6063.91	0.0297122
6074.28	0.0305356
6084.65	0.0313389
6095.01	0.03212
6105.38	0.0328769
6115.74	0.0336078
6126.11	0.0343108
6136.47	0.034984
6146.84	0.0356257
6157.21	0.0362343
6167.57	0.0368082
6177.94	0.0373459
6188.3	0.037846
6198.67	0.0383071
6209.03	0.038728
6219.4	0.0391076
6229.77	0.0394449
6240.13	0.0397389
6250.5	0.0399887
6260.86	0.0401936
6271.23	0.040353
6281.59	0.0404662
6291.96	0.040533
6302.33	0.0405528
6312.69	0.0405254
6323.06	0.0404508
6333.42	0.0403287
6343.79	0.0401593
6354.15	0.0399426
6364.52	0.0396789
6374.89	0.0393683
6385.25	0.0390114
6395.62	0.0386084
6405.98	0.03816
6416.35	0.0376667
6426.71	0.0371291
6437.08	0.036548
6447.45	0.0359241
6457.81	0.0352583
6468.18	0.0345513
6478.54	0.0338041
6488.91	0.0330177
6499.27	0.032193
6509.64	0.031331
6520.01	0.0304327
6530.37	0.0294993
6540.74	0.0285317
6551.1	0.0275311
6561.47	0.0264986
6571.83	0.0254352
6582.2	0.024342
6592.57	0.0232202
6602.93	0.0220708
6613.3	0.0208949
6623.66	0.0196935
6634.03	0.0184678
6644.39	0.0172187
6654.76	0.0159472
6665.13	0.0146543
6675.49	0.0133411
6685.86	0.0120083
6696.22	0.010657
6706.59	0.00928802
6716.95	0.00790216
6727.32	0.00650026
6737.69	0.00508312
6748.05	0.0036515
6758.42	0.00220611
6768.78	0.000747656
6779.15	-0.000723196
6789.52	-0.00220581
6799.88	-0.00369957
6810.25	-0.00520389
6820.61	-0.00671821
6830.98	-0.008242
6841.34	-0.00977474
6851.71	-0.0113159
6862.08	-0.0128651
6872.44	-0.0144218
6882.81	-0.0159855
6893.17	-0.0175559
6903.54	-0.0191324
6913.9	-0.0207148
6924.27	-0.0223025
6934.64	-0.0238951
6945	-0.0254922
6955.37	-0.0270935
6965.73	-0.0286984
6976.1	-0.0303065
6986.46	-0.0319175
6996.83	-0.0335308
7007.2	-0.035146
7017.56	-0.0367626
7027.93	-0.0383802
7038.29	-0.0399981
7048.66	-0.0416159
7059.02	-0.0432331
7069.39	-0.0448489
7079.76	-0.046463
7090.12	-0.0480745
7100.49	-0.049683
7110.85	-0.0512877
7121.22	-0.0528879
7131.58	-0.054483
7141.95	-0.0560721
7152.32	-0.0576546
7162.68	-0.0592296
7173.05	-0.0607963
7183.41	-0.062354
7193.78	-0.0639017
7204.14	-0.0654386
7214.51	-0.0669638
7224.88	-0.0684764
7235.24	-0.0699755
7245.61	-0.0714601
7255.97	-0.0729294
7266.34	-0.0743823
7276.7	-0.0758179
7287.07	-0.0772352
7297.44	-0.0786333
7307.8	-0.0800111
7318.17	-0.0813677
7328.53	-0.0827022
7338.9	-0.0840135
7349.26	-0.0853007
7359.63	-0.0865627
7370	-0.0877988
7380.36	-0.089008
7390.73	-0.0901892
7401.09	-0.0913417
7411.46	-0.0924645
7421.82	-0.0935568
7432.19	-0.0946178
7442.56	-0.0956465
7452.92	-0.0966424
7463.29	-0.0976045
7473.65	-0.0985321
7484.02	-0.0994246
7494.38	-0.100281
7504.75	-0.101102
7515.12	-0.101885
7525.48	-0.10263
7535.85	-0.103338
7546.21	-0.104007
7556.58	-0.104636
7566.94	-0.105227
7577.31	-0.105777
7587.68	-0.106287
7598.04	-0.106757
7608.41	-0.107186
7618.77	-0.107574
7629.14	-0.107921
7639.5	-0.108227
7649.87	-0.108491
7660.23	-0.108714
7670.6	-0.108896
7680.97	-0.109036
7691.33	-0.109136
7701.7	-0.109193
7712.06	-0.10921
7722.43	-0.109187
7732.79	-0.109122
7743.16	-0.109017
7753.53	-0.108872
7763.89	-0.108688
7774.26	-0.108464
7784.62	-0.108201
7794.99	-0.107899
7805.35	-0.10756
7815.72	-0.107183
7826.09	-0.106768
7836.45	-0.106317
7846.82	-0.10583
7857.18	-0.105308
7867.55	-0.104751
7877.91	-0.104159
7888.28	-0.103534
7898.64	-0.102876
7909.01	-0.102186
7919.38	-0.101464
7929.74	-0.100712
7940.11	-0.0999294
7950.47	-0.0991175
7960.84	-0.0982771
7971.2	-0.0974088
7981.57	-0.0965135
7991.94	-0.095592
8002.3	-0.094645
8012.67	-0.0936734
8023.03	-0.0926779
8033.4	-0.0916593
8043.76	-0.0906185
8054.13	-0.0895562
8064.5	-0.0884732
8074.86	-0.0873703
8085.23	-0.0862484
8095.59	-0.0851082
8105.96	-0.0839504
8116.32	-0.082776
8126.69	-0.0815855
8137.06	-0.0803799
8147.42	-0.0791597
8157.79	-0.0779258
8168.15	-0.0766789
8178.52	-0.0754197
8188.88	-0.0741488
8199.25	-0.0728669
8209.62	-0.0715748
8219.98	-0.0702729
8230.35	-0.0689621
8240.71	-0.0676427
8251.08	-0.0663155
8261.44	-0.064981
8271.81	-0.0636397
8282.17	-0.0622922
8292.54	-0.0609389
8302.91	-0.0595804
8313.27	-0.0582171
8323.64	-0.0568494
8334	-0.0554779
8344.37	-0.0541027
8354.73	-0.0527245
8365.1	-0.0513435
8375.47	-0.04996
8385.83	-0.0485745
8396.2	-0.0471872
8406.56	-0.0457984
8416.93	-0.0444085
8427.29	-0.0430176
8437.66	-0.0416262
8448.03	-0.0402343
8458.39	-0.0388423
8468.76	-0.0374504
8479.12	-0.0360589
8489.49	-0.0346679
8499.85	-0.0332777
8510.22	-0.0318885
8520.59	-0.0305006
8530.95	-0.0291141
8541.32	-0.0277292
8551.68	-0.0263463
8562.05	-0.0249655
8572.41	-0.023587
8582.78	-0.0222112
8593.15	-0.0208383
8603.51	-0.0194685
8613.88	-0.018102
8624.24	-0.0167393
8634.61	-0.0153806
8644.97	-0.0140261
8655.34	-0.0126763
8665.71	-0.0113314
8676.07	-0.00999186
8686.44	-0.00865798
8696.8	-0.00733017
8707.17	-0.00600881
8717.53	-0.00469433
8727.9	-0.00338716
8738.27	-0.00208774
8748.63	-0.000796522
8759	0.000486013
8769.36	0.00175938
8779.73	0.00302308
8790.09	0.0042766
8800.46	0.00551943
8810.83	0.00675102
8821.19	0.00797083
8831.56	0.00917833
8841.92	0.0103729
8852.29	0.0115541
8862.65	0.0127213
8873.02	0.0138739
8883.39	0.0150113
8893.75	0.016133
8904.12	0.0172385
8914.48	0.0183271
8924.85	0.0193982
8935.21	0.0204514
8945.58	0.0214861
8955.95	0.0225018
8966.31	0.0234978
8976.68	0.0244738
8987.04	0.0254291
8997.41	0.0263634
9007.77	0.0272761
9018.14	0.0281667
9028.51	0.0290349
9038.87	0.0298802
9049.24	0.0307023
9059.6	0.0315006
9069.97	0.032275
9080.33	0.0330249
9090.7	0.0337502
9101.07	0.0344506
9111.43	0.0351257
9121.8	0.0357753
9132.16	0.0363993
9142.53	0.0369974
9152.89	0.0375695
9163.26	0.0381154
9173.63	0.0386351
9183.99	0.0391284
9194.36	0.0395953
9204.72	0.0400358
9215.09	0.0404498
9225.45	0.0408374
9235.82	0.0411986
9246.19	0.0415335
9256.55	0.0418422
9266.92	0.0421248
9277.28	0.0423815
9287.65	0.0426124
9298.01	0.0428178
9308.38	0.0429978
9318.75	0.0431527
9329.11	0.0432828
9339.48	0.0433882
9349.84	0.0434695
9360.21	0.0435268
9370.57	0.0435605
9380.94	0.043571
9391.31	0.0435587
9401.67	0.0435239
9412.04	0.0434671
9422.4	0.0433888
9432.77	0.0432893
9443.13	0.0431692
9453.5	0.043029
9463.87	0.0428691
9474.23	0.0426901
9484.6	0.0424924
9494.96	0.0422768
9505.33	0.0420436
9515.69	0.0417935
9526.06	0.0415271
9536.43	0.041245
9546.79	0.0409477
9557.16	0.0406359
9567.52	0.0403103
9577.89	0.0399714
9588.25	0.0396199
9598.62	0.0392565
9608.99	0.0388819
9619.35	0.0384966
9629.72	0.0381015
9640.08	0.0376971
9650.45	0.0372841
9660.81	0.0368634
9671.18	0.0364355
9681.55	0.0360011
9691.91	0.035561
9702.28	0.0351159
9712.64	0.0346664
9723.01	0.0342133
9733.37	0.0337573
9743.74	0.0332991
9754.11	0.0328393
9764.47	0.0323787
9774.84	0.031918
9785.2	0.0314578
9795.57	0.0309987
9805.93	0.0305416
9816.3	0.030087
9826.67	0.0296355
9837.03	0.0291879
9847.4	0.0287447
9857.76	0.0283065
9868.13	0.0278739
9878.49	0.0274475
9888.86	0.0270278
9899.23	0.0266155
9909.59	0.0262109
9919.96	0.0258146
9930.32	0.0254271
9940.69	0.0250488
9951.05	0.0246802
9961.42	0.0243216
9971.79	0.0239735
9982.15	0.0236362
9992.52	0.02331
10002.9	0.0229953
10013.2	0.0226922
10023.6	0.0224011
10034	0.0221222
10044.3	0.0218556
10054.7	0.0216015
10065.1	0.0213601
10075.4	0.0211314
10085.8	0.0209155
10096.2	0.0207125
10106.5	0.0205222
10116.9	0.0203449
10127.3	0.0201802
10137.6	0.0200283
10148	0.0198889
10158.4	0.019762
10168.7	0.0196473
10179.1	0.0195447
10189.5	0.019454
10199.8	0.0193748
10210.2	0.0193069
10220.6	0.01925
10230.9	0.0192039
10241.3	0.019168
10251.7	0.0191421
10262	0.0191258
10272.4	0.0191186
10282.8	0.0191201
10293.1	0.0191299
10303.5	0.0191475
10313.9	0.0191724
10324.2	0.0192042
10334.6	0.0192422
10345	0.0192861
10355.3	0.0193351
10365.7	0.019389
10376	0.0194469
10386.4	0.0195085
10396.8	0.0195732
10407.1	0.0196403
10417.5	0.0197093
10427.9	0.0197797
10438.2	0.0198509
10448.6	0.0199223
10459	0.0199933
10469.3	0.0200634
10479.7	0.020132
10490.1	0.0201986
10500.4	0.0202626
10510.8	0.0203235
10521.2	0.0203807
10531.5	0.0204337
10541.9	0.0204821
10552.3	0.0205252
10562.6	0.0205627
10573	0.020594
10583.4	0.0206187
10593.7	0.0206363
10604.1	0.0206463
10614.5	0.0206485
10624.8	0.0206423
10635.2	0.0206273
10645.6	0.0206032
10655.9	0.0205697
10666.3	0.0205264
10676.7	0.0204729
10687	0.020409
10697.4	0.0203344
10707.8	0.0202488
10718.1	0.020152
10728.5	0.0200438
10738.8	0.0199238
10749.2	0.019792
10759.6	0.0196482
10769.9	0.0194923
10780.3	0.019324
10790.7	0.0191433
10801	0.0189501
10811.4	0.0187444
10821.8	0.018526
10832.1	0.018295
10842.5	0.0180513
10852.9	0.0177949
10863.2	0.0175259
10873.6	0.0172443
10884	0.0169502
10894.3	0.0166436
10904.7	0.0163247
10915.1	0.0159936
10925.4	0.0156503
10935.8	0.0152951
10946.2	0.0149282
10956.5	0.0145496
10966.9	0.0141597
10977.3	0.0137585
10987.6	0.0133465
10998	0.0129237
11008.4	0.0124904
11018.7	0.012047
11029.1	0.0115937
11039.5	0.0111308
11049.8	0.0106585
11060.2	0.0101773
11070.6	0.00968744
11080.9	0.00918922
11091.3	0.00868302
11101.7	0.00816916
11112	0.00764802
11122.4	0.00711994
11132.7	0.0065853
11143.1	0.00604446
11153.5	0.00549779
11163.8	0.00494568
11174.2	0.00438848
11184.6	0.00382659
11194.9	0.00326038
11205.3	0.00269023
11215.7	0.00211651
11226	0.0015396
11236.4	0.000959861
11246.8	0.000377674
11257.1	-0.000206601
11267.5	-0.000792605
11277.9	-0.00137998
11288.2	-0.00196838
11298.6	-0.00255746
11309	-0.00314688
11319.3	-0.00373631
11329.7	-0.00432543
11340.1	-0.00491392
11350.4	-0.00550147
11360.8	-0.00608779
11371.2	-0.00667258
11381.5	-0.00725556
11391.9	-0.00783644
11402.3	-0.00841497
11412.6	-0.00899089
11423	-0.00956394
11433.4	-0.0101339
11443.7	-0.0107005
11454.1	-0.0112635
11464.5	-0.0118228
11474.8	-0.012378
11485.2	-0.0129291
11495.5	-0.0134758
11505.9	-0.0140179
11516.3	-0.0145552
11526.6	-0.0150876
11537	-0.0156149
11547.4	-0.0161369
11557.7	-0.0166535
11568.1	-0.0171645
11578.5	-0.0176698
11588.8	-0.0181692
11599.2	-0.0186626
11609.6	-0.0191499
11619.9	-0.0196309
11630.3	-0.0201054
11640.7	-0.0205735
11651	-0.0210348
11661.4	-0.0214894
11671.8	-0.0219371
11682.1	-0.0223778
11692.5	-0.0228114
11702.9	-0.0232377
11713.2	-0.0236567
11723.6	-0.0240682
11734	-0.0244721
11744.3	-0.0248684
11754.7	-0.025257
11765.1	-0.0256377
11775.4	-0.0260104
11785.8	-0.0263752
11796.2	-0.0267318
11806.5	-0.0270802
11816.9	-0.0274203
11827.3	-0.027752
11837.6	-0.0280753
11848	-0.0283902
11858.3	-0.0286965
11868.7	-0.0289942
11879.1	-0.0292833
11889.4	-0.0295636
11899.8	-0.0298353
11910.2	-0.0300983
11920.5	-0.0303525
11930.9	-0.0305979
11941.3	-0.0308347
11951.6	-0.0310627
11962	-0.031282
11972.4	-0.0314926
11982.7	-0.0316947
11993.1	-0.0318881
12003.5	-0.0320731
12013.8	-0.0322498
12024.2	-0.0324181
12034.6	-0.0325782
12044.9	-0.0327302
12055.3	-0.0328743
12065.7	-0.0330106
12076	-0.0331393
12086.4	-0.0332605
12096.8	-0.0333745
12107.1	-0.0334813
12117.5	-0.0335813
12127.9	-0.0336747
12138.2	-0.0337616
12148.6	-0.0338423
12159	-0.0339171
12169.3	-0.0339862
12179.7	-0.0340499
12190.1	-0.0341085
12200.4	-0.0341623
12210.8	-0.0342116
12221.1	-0.0342566
12231.5	-0.0342977
12241.9	-0.0343351
12252.2	-0.0343693
12262.6	-0.0344006
12273	-0.0344291
12283.3	-0.0344554
12293.7	-0.0344796
12304.1	-0.0345021
12314.4	-0.0345233
12324.8	-0.0345435
12335.2	-0.0345629
12345.5	-0.0345819
12355.9	-0.0346008
12366.3	-0.0346198
12376.6	-0.0346394
12387	-0.0346597
12397.4	-0.034681
12407.7	-0.0347036
12418.1	-0.0347278
12428.5	-0.0347537
12438.8	-0.0347817
12449.2	-0.0348118
12459.6	-0.0348444
12469.9	-0.0348796
12480.3	-0.0349176
12490.7	-0.0349585
12501	-0.0350024
12511.4	-0.0350496
12521.8	-0.0351
12532.1	-0.0351538
12542.5	-0.0352111
12552.9	-0.0352718
12563.2	-0.0353361
12573.6	-0.035404
12583.9	-0.0354754
12594.3	-0.0355504
12604.7	-0.0356289
12615	-0.0357108
12625.4	-0.0357962
12635.8	-0.0358848
12646.1	-0.0359767
12656.5	-0.0360717
12666.9	-0.0361697
12677.2	-0.0362706
12687.6	-0.0363741
12698	-0.0364802
12708.3	-0.0365886
12718.7	-0.0366992
12729.1	-0.0368118
12739.4	-0.0369261
12749.8	-0.037042
12760.2	-0.0371592
12770.5	-0.0372774
12780.9	-0.0373966
12791.3	-0.0375163
12801.6	-0.0376365
12812	-0.0377567
12822.4	-0.0378768
12832.7	-0.0379965
12843.1	-0.0381156
12853.5	-0.0382338
12863.8	-0.0383508
12874.2	-0.0384664
12884.6	-0.0385804
12894.9	-0.0386924
12905.3	-0.0388023
12915.7	-0.0389099
12926	-0.0390147
12936.4	-0.0391168
12946.7	-0.0392157
12957.1	-0.0393114
12967.5	-0.0394035
12977.8	-0.039492
12988.2	-0.0395765
12998.6	-0.039657
13008.9	-0.0397332
13019.3	-0.0398049
13029.7	-0.0398721
13040	-0.0399345
13050.4	-0.0399919
13060.8	-0.0400444
13071.1	-0.0400917
13081.5	-0.0401337
13091.9	-0.0401703
13102.2	-0.0402015
13112.6	-0.0402271
13123	-0.040247
13133.3	-0.0402611
13143.7	-0.0402695
13154.1	-0.040272
13164.4	-0.0402685
13174.8	-0.0402591
13185.2	-0.0402437
13195.5	-0.0402223
13205.9	-0.0401948
13216.3	-0.0401611
13226.6	-0.0401214
13237	-0.0400755
13247.4	-0.0400235
13257.7	-0.0399653
13268.1	-0.039901
13278.5	-0.0398305
13288.8	-0.0397539
13299.2	-0.039671
13309.5	-0.0395821
13319.9	-0.0394869
13330.3	-0.0393856
13340.6	-0.0392782
13351	-0.0391646
13361.4	-0.0390449
13371.7	-0.038919
13382.1	-0.038787
13392.5	-0.0386488
13402.8	-0.0385045
13413.2	-0.038354
13423.6	-0.0381974
13433.9	-0.0380347
13444.3	-0.0378657
13454.7	-0.0376906
13465	-0.0375093
13475.4	-0.0373218
13485.8	-0.037128
13496.1	-0.036928
13506.5	-0.0367218
13516.9	-0.0365092
13527.2	-0.0362904
13537.6	-0.0360652
13548	-0.0358336
13558.3	-0.0355957
13568.7	-0.0353513
13579.1	-0.0351005
13589.4	-0.0348432
13599.8	-0.0345794
13610.2	-0.034309
13620.5	-0.0340321
13630.9	-0.0337487
13641.3	-0.0334586
13651.6	-0.0331619
13662	-0.0328585
13672.3	-0.0325485
13682.7	-0.0322317
13693.1	-0.0319083
13703.4	-0.0315782
13713.8	-0.0312414
13724.2	-0.0308979
13734.5	-0.0305476
13744.9	-0.0301907
13755.3	-0.0298271
13765.6	-0.0294569
13776	-0.0290801
13786.4	-0.0286967
13796.7	-0.0283067
13807.1	-0.0279103
13817.5	-0.0275074
13827.8	-0.0270981
13838.2	-0.0266826
13848.6	-0.0262608
13858.9	-0.0258329
13869.3	-0.0253989
13879.7	-0.024959
13890	-0.0245133
13900.4	-0.0240619
13910.8	-0.0236049
13921.1	-0.0231424
13931.5	-0.0226746
13941.9	-0.0222017
13952.2	-0.0217237
13962.6	-0.021241
13973	-0.0207535
13983.3	-0.0202616
13993.7	-0.0197655
14004.1	-0.0192652
14014.4	-0.018761
14024.8	-0.0182532
14035.1	-0.0177418
14045.5	-0.0172273
14055.9	-0.0167097
14066.2	-0.0161894
14076.6	-0.0156665
14087	-0.0151414
14097.3	-0.0146142
14107.7	-0.0140852
14118.1	-0.0135546
14128.4	-0.0130228
14138.8	-0.01249
14149.2	-0.0119564
14159.5	-0.0114224
14169.9	-0.0108881
14180.3	-0.0103539
14190.6	-0.00981999
14201	-0.00928671
14211.4	-0.0087543
14221.7	-0.00822303
14232.1	-0.00769318
14242.5	-0.00716501
14252.8	-0.00663879
14263.2	-0.00611477
14273.6	-0.00559324
14283.9	-0.00507444
14294.3	-0.00455863
14304.7	-0.00404606
14315	-0.00353698
14325.4	-0.00303163
14335.8	-0.00253026
14346.1	-0.00203309
14356.5	-0.00154035
14366.9	-0.00105226
14377.2	-0.000569045
14387.6	-9.09053e-05
14398	0.000381954
14408.3	0.000849338
14418.7	0.00131106
14429	0.00176694
14439.4	0.0022168
14449.8	0.00266048
14460.1	0.00309782
14470.5	0.00352867
14480.9	0.0039529
14491.2	0.00437036
14501.6	0.00478094
14512	0.00518452
14522.3	0.005581
14532.7	0.00597027
14543.1	0.00635225
14553.4	0.00672686
14563.8	0.00709401
14574.2	0.00745366
14584.5	0.00780575
14594.9	0.00815022
14605.3	0.00848705
14615.6	0.0088162
14626	0.00913764
14636.4	0.00945137
14646.7	0.00975738
14657.1	0.0100557
14667.5	0.0103463
14677.8	0.0106291
14688.2	0.0109044
14698.6	0.0111719
14708.9	0.0114319
14719.3	0.0116843
14729.7	0.0119292
14740	0.0121667
14750.4	0.0123968
14760.8	0.0126195
14771.1	0.012835
14781.5	0.0130433
14791.8	0.0132445
14802.2	0.0134386
14812.6	0.0136259
14822.9	0.0138063
14833.3	0.01398
14843.7	0.014147
14854	0.0143075
14864.4	0.0144616
14874.8	0.0146093
14885.1	0.0147508
14895.5	0.0148862
14905.9	0.0150156
14916.2	0.0151391
14926.6	0.0152568
14937	0.0153688
14947.3	0.0154752
14957.7	0.0155762
14968.1	0.0156719
14978.4	0.0157623
14988.8	0.0158476
14999.2	0.0159279
15009.5	0.0160033
15019.9	0.0160739
15030.3	0.0161398
15040.6	0.0162011
15051	0.0162579
15061.4	0.0163102
15071.7	0.0163583
15082.1	0.0164022
15092.5	0.0164419
15102.8	0.0164776
15113.2	0.0165094
15123.6	0.0165372
15133.9	0.0165613
15144.3	0.0165817
15154.6	0.0165984
15165	0.0166115
15175.4	0.0166211
15185.7	0.0166273
15196.1	0.0166301
15206.5	0.0166296
15216.8	0.0166257
15227.2	0.0166187
15237.6	0.0166085
15247.9	0.0165951
15258.3	0.0165787
15268.7	0.0165592
15279	0.0165367
15289.4	0.0165112
15299.8	0.0164828
15310.1	0.0164515
15320.5	0.0164173
15330.9	0.0163803
15341.2	0.0163404
15351.6	0.0162978
15362	0.0162524
15372.3	0.0162042
15382.7	0.0161533
15393.1	0.0160997
15403.4	0.0160435
15413.8	0.0159845
15424.2	0.015923
15434.5	0.0158588
15444.9	0.015792
15455.3	0.0157227
15465.6	0.0156508
15476	0.0155763
15486.4	0.0154994
15496.7	0.01542
15507.1	0.0153381
15517.4	0.0152539
15527.8	0.0151672
15538.2	0.0150782
15548.5	0.0149869
15558.9	0.0148932
15569.3	0.0147974
15579.6	0.0146993
15590	0.0145991
15600.4	0.0144968
15610.7	0.0143924
15621.1	0.014286
15631.5	0.0141777
15641.8	0.0140674
15652.2	0.0139553
15662.6	0.0138415
15672.9	0.0137259
15683.3	0.0136087
15693.7	0.01349
15704	0.0133698
15714.4	0.0132481
15724.8	0.0131252
15735.1	0.013001
15745.5	0.0128756
15755.9	0.0127492
15766.2	0.0126218
15776.6	0.0124935
15787	0.0123644
15797.3	0.0122347
15807.7	0.0121043
15818.1	0.0119735
15828.4	0.0118423
15838.8	0.0117108
15849.2	0.0115792
15859.5	0.0114475
15869.9	0.0113158
15880.3	0.0111843
15890.6	0.0110531
15901	0.0109222
15911.3	0.0107919
15921.7	0.0106621
15932.1	0.010533
15942.4	0.0104047
15952.8	0.0102774
15963.2	0.0101511
15973.5	0.0100259
15983.9	0.00990195
15994.3	0.00977935
16004.6	0.00965819
16015	0.00953857
16025.4	0.00942059
16035.7	0.00930434
16046.1	0.00918992
16056.5	0.00907741
16066.8	0.00896691
16077.2	0.00885849
16087.6	0.00875224
16097.9	0.00864824
16108.3	0.00854655
16118.7	0.00844726
16129	0.00835042
16139.4	0.0082561
16149.8	0.00816437
16160.1	0.00807527
16170.5	0.00798886
16180.9	0.00790519
16191.2	0.00782431
16201.6	0.00774624
16212	0.00767104
16222.3	0.00759873
16232.7	0.00752934
16243.1	0.0074629
16253.4	0.00739943
16263.8	0.00733894
16274.1	0.00728144
16284.5	0.00722695
16294.9	0.00717547
16305.2	0.007127
16315.6	0.00708154
16326	0.00703908
16336.3	0.00699962
16346.7	0.00696312
16357.1	0.00692959
16367.4	0.00689899
16377.8	0.0068713
16388.2	0.0068465
16398.5	0.00682454
16408.9	0.0068054
16419.3	0.00678902
16429.6	0.00677538
16440	0.00676441
16450.4	0.00675608
16460.7	0.00675032
16471.1	0.00674708
16481.5	0.00674629
16491.8	0.00674789
16502.2	0.00675181
16512.6	0.00675797
16522.9	0.0067663
16533.3	0.00677671
16543.7	0.00678912
16554	0.00680344
16564.4	0.00681957
16574.8	0.00683742
16585.1	0.00685687
16595.5	0.00687783
16605.9	0.00690016
16616.2	0.00692377
16626.6	0.00694851
16636.9	0.00697427
16647.3	0.0070009
16657.7	0.00702827
16668	0.00705621
16678.4	0.00708459
16688.8	0.00711325
16699.1	0.007142
16709.5	0.00717068
16719.9	0.00719911
16730.2	0.0072271
16740.6	0.00725446
16751	0.00728098
16761.3	0.00730645
16771.7	0.00733066
16782.1	0.00735337
16792.4	0.00737436
16802.8	0.00739339
16813.2	0.0074102
16823.5	0.00742455
16833.9	0.00743616
16844.3	0.00744476
16854.6	0.00745008
16865	0.00745182
16875.4	0.00744969
16885.7	0.00744339
16896.1	0.00743261
16906.5	0.00741704
16916.8	0.00739634
16927.2	0.0073702
16937.6	0.00733827
16947.9	0.00730022
16958.3	0.0072557
16968.7	0.00720436
16979	0.00714584
16989.4	0.0070798
16999.7	0.00700587
17010.1	0.00692369
17020.5	0.00683289
17030.8	0.00673311
17041.2	0.00662399
17051.6	0.00650516
17061.9	0.00637626
17072.3	0.00623694
17082.7	0.00608683
17093	0.00592558
17103.4	0.00575286
17113.8	0.00556831
17124.1	0.00537161
17134.5	0.00516244
17144.9	0.00494048
17155.2	0.00470542
17165.6	0.00445699
17176	0.00419489
17186.3	0.00391887
17196.7	0.00362868
17207.1	0.00332408
17217.4	0.00300487
17227.8	0.00267084
17238.2	0.00232182
17248.5	0.00195765
17258.9	0.0015782
17269.3	0.00118337
17279.6	0.000773056
17290	0.00034721
17300.4	-9.42055e-05
17310.7	-0.000551198
17321.1	-0.00102375
17331.5	-0.00151181
17341.8	-0.00201529
17352.2	-0.0025341
17362.5	-0.00306808
17372.9	-0.00361707
17383.3	-0.00418086
17393.6	-0.00475921
17404	-0.00535186
17414.4	-0.0059585
17424.7	-0.00657879
17435.1	-0.00721236
17445.5	-0.00785881
17455.8	-0.00851769
17466.2	-0.00918852
17476.6	-0.00987081
17486.9	-0.010564
17497.3	-0.0112675
17507.7	-0.0119808
17518	-0.0127031
17528.4	-0.0134339
17538.8	-0.0141724
17549.1	-0.0149178
17559.5	-0.0156695
17569.9	-0.0164265
17580.2	-0.0171882
17590.6	-0.0179536
17601	-0.0187219
17611.3	-0.0194922
17621.7	-0.0202636
17632.1	-0.0210351
17642.4	-0.0218057
17652.8	-0.0225746
17663.2	-0.0233407
17673.5	-0.024103
17683.9	-0.0248604
17694.3	-0.0256121
17704.6	-0.0263568
17715	-0.0270936
17725.4	-0.0278215
17735.7	-0.0285393
17746.1	-0.029246
17756.4	-0.0299406
17766.8	-0.0306221
17777.2	-0.0312893
17787.5	-0.0319412
17797.9	-0.0325769
17808.3	-0.0331953
17818.6	-0.0337955
17829	-0.0343763
17839.4	-0.0349369
17849.7	-0.0354764
17860.1	-0.0359938
17870.5	-0.0364882
17880.8	-0.0369587
17891.2	-0.0374046
17901.6	-0.0378249
17911.9	-0.038219
17922.3	-0.0385861
17932.7	-0.0389254
17943	-0.0392363
17953.4	-0.0395182
17963.8	-0.0397705
17974.1	-0.0399926
17984.5	-0.040184
17994.9	-0.0403442
18005.2	-0.0404729
18015.6	-0.0405696
18026	-0.040634
18036.3	-0.0406659
18046.7	-0.040665
18057.1	-0.0406311
18067.4	-0.0405641
18077.8	-0.0404639
18088.2	-0.0403304
18098.5	-0.0401637
18108.9	-0.0399638
18119.2	-0.0397309
18129.6	-0.039465
18140	-0.0391665
18150.3	-0.0388355
18160.7	-0.0384723
18171.1	-0.0380774
18181.4	-0.037651
18191.8	-0.0371937
18202.2	-0.0367059
18212.5	-0.0361881
18222.9	-0.0356409
18233.3	-0.035065
18243.6	-0.0344609
18254	-0.0338293
18264.4	-0.033171
18274.7	-0.0324868
18285.1	-0.0317773
18295.5	-0.0310435
18305.8	-0.0302862
18316.2	-0.0295062
18326.6	-0.0287045
18336.9	-0.027882
18347.3	-0.0270396
18357.7	-0.0261783
18368	-0.0252992
18378.4	-0.0244031
18388.8	-0.0234912
18399.1	-0.0225644
18409.5	-0.0216238
18419.9	-0.0206705
18430.2	-0.0197055
18440.6	-0.0187299
18451	-0.0177447
18461.3	-0.016751
18471.7	-0.0157498
18482	-0.0147423
18492.4	-0.0137294
18502.8	-0.0127123
18513.1	-0.0116919
18523.5	-0.0106694
18533.9	-0.00964561
18544.2	-0.00862165
18554.6	-0.0075985
18565	-0.00657711
18575.3	-0.00555845
18585.7	-0.00454344
18596.1	-0.003533
18606.4	-0.00252802
18616.8	-0.00152937
18627.2	-0.000537888
18637.5	0.000445603
18647.9	0.00142031
18658.3	0.00238547
18668.6	0.00334035
18679	0.00428423
18689.4	0.00521644
18699.7	0.00613632
18710.1	0.00704325
18720.5	0.00793664
18730.8	0.00881593
18741.2	0.00968059
18751.6	0.0105301
18761.9	0.0113641
18772.3	0.012182
18782.7	0.0129834
18793	0.0137681
18803.4	0.0145356
18813.8	0.0152856
18824.1	0.0160179
18834.5	0.0167321
18844.8	0.0174281
18855.2	0.0181057
18865.6	0.0187647
18875.9	0.0194049
18886.3	0.0200263
18896.7	0.0206287
18907	0.0212121
18917.4	0.0217765
18927.8	0.0223218
18938.1	0.0228481
18948.5	0.0233554
18958.9	0.0238436
18969.2	0.024313
18979.6	0.0247636
18990	0.0251956
19000.3	0.0256089
19010.7	0.0260039
19021.1	0.0263807
19031.4	0.0267393
19041.8	0.0270801
19052.2	0.0274033
19062.5	0.027709
19072.9	0.0279975
19083.3	0.0282691
19093.6	0.0285239
19104	0.0287623
19114.4	0.0289845
19124.7	0.0291907
19135.1	0.0293814
19145.5	0.0295567
19155.8	0.029717
19166.2	0.0298625
19176.6	0.0299935
19186.9	0.0301104
19197.3	0.0302135
19207.6	0.030303
19218	0.0303793
19228.4	0.0304426
19238.7	0.0304934
19249.1	0.0305318
19259.5	0.0305582
19269.8	0.0305728
19280.2	0.0305761
19290.6	0.0305682
19300.9	0.0305495
19311.3	0.0305203
19321.7	0.0304808
19332	0.0304314
19342.4	0.0303722
19352.8	0.0303037
19363.1	0.030226
19373.5	0.0301394
19383.9	0.0300441
19394.2	0.0299405
19404.6	0.0298288
19415	0.0297092
19425.3	0.029582
19435.7	0.0294473
19446.1	0.0293055
19456.4	0.0291567
19466.8	0.0290011
19477.2	0.0288391
19487.5	0.0286707
19497.9	0.0284962
19508.3	0.0283158
19518.6	0.0281297
19529	0.027938
19539.4	0.027741
19549.7	0.0275388
19560.1	0.0273316
19570.5	0.0271197
19580.8	0.026903
19591.2	0.0266819
19601.5	0.0264565
19611.9	0.0262269
19622.3	0.0259933
19632.6	0.0257558
19643	0.0255147
19653.4	0.02527
19663.7	0.0250219
19674.1	0.0247705
19684.5	0.024516
19694.8	0.0242585
19705.2	0.0239982
19715.6	0.0237352
19725.9	0.0234696
19736.3	0.0232016
19746.7	0.0229312
19757	0.0226587
19767.4	0.0223842
19777.8	0.0221077
19788.1	0.0218294
19798.5	0.0215495
19808.9	0.0212681
19819.2	0.0209853
19829.6	0.0207011
19840	0.0204159
19850.3	0.0201296
19860.7	0.0198424
19871.1	0.0195544
19881.4	0.0192658
19891.8	0.0189766
19902.2	0.0186871
19912.5	0.0183972
19922.9	0.0181072
19933.3	0.0178171
19943.6	0.0175272
19954	0.0172374
19964.3	0.0169479
19974.7	0.0166588
19985.1	0.0163703
19995.4	0.0160824
