0	0
84.4269	0
168.854	0
253.281	0
337.708	0
422.134	0
506.561	0.00015817
590.988	0.000946642
675.415	0.00338399
759.842	0.0114963
844.269	0.0312689
928.696	0.0734849
1013.12	0.144706
1097.55	0.241864
1181.98	0.350849
1266.4	0.451916
1350.83	0.526051
1435.26	0.559789
1519.68	0.547025
1604.11	0.488984
1688.54	0.39314
1772.96	0.271559
1857.39	0.138699
1941.81	0.0089585
2026.24	-0.105587
2110.66	-0.196742
2195.09	-0.2608
2279.51	-0.298222
2363.93	-0.312657
2448.36	-0.309625
2532.78	-0.29519
2617.21	-0.274839
2701.63	-0.252737
2786.06	-0.231403
2870.49	-0.211783
2954.91	-0.193622
3039.34	-0.176006
3123.76	-0.157895
3208.19	-0.138551
3292.62	-0.117775
3377.05	-0.0959377
3461.47	-0.0738494
3545.9	-0.0525311
3630.33	-0.0329646
3714.75	-0.0158863
3799.18	-0.00166674
3883.61	0.00970961
3968.03	0.0185759
4052.46	0.0254569
4136.89	0.0309235
4221.31	0.0354642
4305.74	0.0394011
4390.17	0.0428598
4474.59	0.0457924
4559.02	0.0480374
4643.45	0.0493965
4727.87	0.0497065
4812.3	0.0488917
4896.73	0.0469873
4981.15	0.0441327
5065.58	0.040543
5150.01	0.0364673
5234.43	0.0321468
5318.86	0.0277815
5403.29	0.0235113
5487.71	0.0194134
5572.14	0.0155133
5656.57	0.0118038
5740.99	0.0082662
5825.42	0.00488811
5909.85	0.00167431
5994.27	-0.00135065
6078.7	-0.00414715
6163.13	-0.00666988
6247.55	-0.00887865
6331.98	-0.0107476
6416.41	-0.0122706
6500.83	-0.0134621
6585.26	-0.0143535
6669.69	-0.0149872
6754.11	-0.015409
6838.54	-0.0156612
6922.97	-0.0157786
7007.39	-0.015786
7091.82	-0.015699
7176.25	-0.0155266
7260.67	-0.0152744
7345.1	-0.014948
7429.53	-0.0145553
7513.95	-0.0141076
7598.38	-0.0136192
7682.8	-0.013106
7767.23	-0.012584
7851.66	-0.0120673
7936.08	-0.011567
8020.51	-0.0110907
8104.94	-0.0106428
8189.36	-0.0102252
8273.79	-0.00983852
8358.22	-0.00948321
8442.64	-0.00916013
8527.07	-0.00887095
8611.5	-0.00861802
8695.92	-0.00840387
8780.35	-0.0082306
8864.78	-0.00809939
8949.2	-0.0080101
9033.63	-0.0079613
9118.06	-0.0079505
9202.48	-0.00797463
9286.91	-0.00803062
9371.34	-0.00811587
9455.77	-0.00822859
9540.19	-0.00836793
9624.62	-0.00853378
9709.05	-0.00872648
9793.47	-0.00894628
9877.9	-0.00919294
9962.33	-0.00946527
10046.8	-0.00976087
10131.2	-0.010076
10215.6	-0.0104056
10300	-0.0107435
10384.5	-0.0110827
10468.9	-0.0114155
10553.3	-0.0117337
10637.7	-0.0120292
10722.2	-0.0122938
10806.6	-0.0125195
10891	-0.0126988
10975.4	-0.0128248
11059.9	-0.0128912
11144.3	-0.0128928
11228.7	-0.0128257
11313.2	-0.0126871
11397.6	-0.0124759
11482	-0.0121927
11566.4	-0.0118396
11650.9	-0.0114202
11735.3	-0.0109395
11819.7	-0.0104037
11904.1	-0.0098199
11988.6	-0.0091959
12073	-0.0085399
12157.4	-0.00786028
12241.9	-0.00716544
12326.3	-0.00646362
12410.7	-0.00576279
12495.1	-0.00507052
12579.6	-0.00439391
12664	-0.0037395
12748.4	-0.00311322
12832.8	-0.00252035
12917.3	-0.00196545
13001.7	-0.00145234
13086.1	-0.000984092
13170.5	-0.000563042
13255	-0.000190792
13339.4	0.000131746
13423.8	0.00040431
13508.3	0.00062724
13592.7	0.00080143
13677.1	0.000928282
13761.5	0.00100966
13846	0.00104786
13930.4	0.00104555
14014.8	0.00100575
14099.2	0.000931807
14183.7	0.000827302
14268.1	0.00069605
14352.5	0.000542018
14436.9	0.000369278
14521.4	0.00018194
14605.8	-1.59037e-05
14690.2	-0.000220237
14774.7	-0.000427178
14859.1	-0.00063302
14943.5	-0.000834277
15027.9	-0.00102772
15112.4	-0.00121039
15196.8	-0.00137964
15281.2	-0.00153312
15365.6	-0.00166881
15450.1	-0.00178499
15534.5	-0.00188026
15618.9	-0.00195353
15703.4	-0.00200397
15787.8	-0.00203103
15872.2	-0.00203442
15956.6	-0.00201404
16041.1	-0.00197003
16125.5	-0.00190266
16209.9	-0.00181241
16294.3	-0.00169987
16378.8	-0.00156578
16463.2	-0.00141099
16547.6	-0.00123648
16632	-0.00104334
16716.5	-0.000832804
16800.9	-0.000606198
16885.3	-0.000364994
16969.8	-0.000110793
17054.2	0.000154672
17138.6	0.000429534
17223	0.000711798
17307.5	0.000999343
17391.9	0.00128994
17476.3	0.00158127
17560.7	0.00187092
17645.2	0.00215645
17729.6	0.00243539
17814	0.00270529
17898.5	0.00296373
17982.9	0.00320841
18067.3	0.00343712
18151.7	0.00364783
18236.2	0.00383872
18320.6	0.00400819
18405	0.00415489
18489.4	0.00427779
18573.9	0.00437615
18658.3	0.00444954
18742.7	0.00449787
18827.1	0.00452136
18911.6	0.00452056
18996	0.0044963
19080.4	0.0044497
19164.9	0.00438212
19249.3	0.00429515
19333.7	0.00419056
19418.1	0.00407026
19502.6	0.00393626
19587	0.00379064
19671.4	0.0036355
19755.8	0.00347292
19840.3	0.00330494
19924.7	0.0031335
