0	0
16.252	0
32.504	0
48.756	0
65.008	0
81.2599	0
97.5119	0
113.764	0
130.016	0
146.268	0
162.52	0
178.772	0
195.024	0
211.276	0
227.528	0
243.78	0
260.032	0
276.284	0
292.536	0
308.788	0
325.04	0
341.292	0
357.544	0
373.796	0
390.048	0
406.3	0
422.552	0
438.804	0
455.056	0
471.308	0
487.56	0
503.812	0
520.064	0
536.316	0
552.568	0
568.82	0
585.072	0
601.324	0
617.576	0
633.828	0
650.08	0
666.332	0
682.584	0
698.836	0
715.088	0
731.34	0
747.591	0
763.843	0
780.095	0
796.347	0
812.599	0
828.851	0
845.103	0
861.355	0
877.607	0
893.859	0
910.111	0
926.363	0
942.615	0
958.867	0
975.119	0
991.371	0
1007.62	0
1023.88	0
1040.13	0
1056.38	0
1072.63	0
1088.88	0
1105.14	0
1121.39	0
1137.64	0
1153.89	0
1170.14	0
1186.4	0
1202.65	0
1218.9	0
1235.15	0
1251.4	0
1267.66	0
1283.91	-9.09495e-13
1300.16	-9.09495e-13
1316.41	-2.72848e-12
1332.66	-5.45697e-12
1348.92	-1.00044e-11
1365.17	-1.81899e-11
1381.42	-3.18323e-11
1397.67	-5.63887e-11
1413.92	-9.82254e-11
1430.18	-1.68257e-10
1446.43	-2.83762e-10
1462.68	-4.72937e-10
1478.93	-7.79437e-10
1495.18	-1.26875e-09
1511.43	-2.04091e-09
1527.69	-3.24326e-09
1543.94	-5.0959e-09
1560.19	-7.91897e-09
1576.44	-1.21736e-08
1592.69	-1.85191e-08
1608.95	-2.78869e-08
1625.2	-4.15776e-08
1641.45	-6.13936e-08
1657.7	-8.98026e-08
1673.95	-1.30156e-07
1690.21	-1.86959e-07
1706.46	-2.66215e-07
1722.71	-3.75848e-07
1738.96	-5.26232e-07
1755.21	-7.30823e-07
1771.47	-1.00693e-06
1787.72	-1.37664e-06
1803.97	-1.86789e-06
1820.22	-2.51574e-06
1836.47	-3.36385e-06
1852.73	-4.46616e-06
1868.98	-5.88875e-06
1885.23	-7.71205e-06
1901.48	-1.00331e-05
1917.73	-1.29683e-05
1933.99	-1.66558e-05
1950.24	-2.1259e-05
1966.49	-2.69692e-05
1982.74	-3.40087e-05
1998.99	-4.26345e-05
2015.25	-5.31407e-05
2031.5	-6.58618e-05
2047.75	-8.11754e-05
2064	-9.95038e-05
2080.25	-0.000121316
2096.51	-0.000147129
2112.76	-0.000177506
2129.01	-0.000213056
2145.26	-0.000254432
2161.51	-0.000302325
2177.77	-0.000357458
2194.02	-0.000420577
2210.27	-0.000492444
2226.52	-0.000573816
2242.77	-0.000665437
2259.03	-0.000768014
2275.28	-0.000882194
2291.53	-0.00100854
2307.78	-0.0011475
2324.03	-0.00129937
2340.29	-0.00146428
2356.54	-0.00164211
2372.79	-0.00183249
2389.04	-0.00203472
2405.29	-0.00224774
2421.55	-0.00247009
2437.8	-0.00269981
2454.05	-0.00293443
2470.3	-0.00317088
2486.55	-0.00340546
2502.81	-0.00363376
2519.06	-0.00385065
2535.31	-0.00405015
2551.56	-0.00422548
2567.81	-0.00436895
2584.07	-0.00447193
2600.32	-0.00452489
2616.57	-0.0045173
2632.82	-0.00443768
2649.07	-0.0042736
2665.33	-0.00401168
2681.58	-0.00363765
2697.83	-0.00313639
2714.08	-0.00249202
2730.33	-0.00168794
2746.59	-0.000707005
2762.84	0.000468427
2779.09	0.0018563
2795.34	0.00347473
2811.59	0.00534182
2827.85	0.00747547
2844.1	0.00989319
2860.35	0.0126118
2876.6	0.0156475
2892.85	0.019015
2909.11	0.0227281
2925.36	0.0267988
2941.61	0.0312372
2957.86	0.0360517
2974.11	0.0412481
2990.36	0.0468298
3006.62	0.0527974
3022.87	0.0591488
3039.12	0.0658786
3055.37	0.0729783
3071.62	0.080436
3087.88	0.0882363
3104.13	0.0963605
3120.38	0.104786
3136.63	0.113488
3152.88	0.122435
3169.14	0.131597
3185.39	0.140936
3201.64	0.150415
3217.89	0.15999
3234.14	0.169618
3250.39	0.179252
3266.65	0.188843
3282.9	0.198339
3299.15	0.20769
3315.4	0.216843
3331.65	0.225743
3347.9	0.234337
3364.16	0.242571
3380.41	0.250393
3396.66	0.257751
3412.91	0.264596
3429.16	0.270878
3445.41	0.276553
3461.66	0.281578
3477.92	0.285912
3494.17	0.289521
3510.42	0.292371
3526.67	0.294435
3542.92	0.295689
3559.17	0.296113
3575.43	0.295695
3591.68	0.294424
3607.93	0.292296
3624.18	0.289313
3640.43	0.28548
3656.68	0.280809
3672.93	0.275315
3689.19	0.26902
3705.44	0.261949
3721.69	0.254133
3737.94	0.245606
3754.19	0.236408
3770.44	0.226579
3786.69	0.216167
3802.94	0.20522
3819.2	0.193789
3835.45	0.181929
3851.7	0.169695
3867.95	0.157145
3884.2	0.144337
3900.45	0.131329
3916.7	0.118181
3932.96	0.104953
3949.21	0.0917025
3965.46	0.0784874
3981.71	0.0653641
3997.96	0.0523872
4014.21	0.0396093
4030.46	0.0270808
4046.71	0.0148496
4062.97	0.00296042
4079.22	-0.00854475
4095.47	-0.0196273
4111.72	-0.0302521
4127.97	-0.0403874
4144.22	-0.0500054
4160.48	-0.0590817
4176.73	-0.0675959
4192.98	-0.0755314
4209.23	-0.0828751
4225.48	-0.0896179
4241.73	-0.0957543
4257.98	-0.101282
4274.24	-0.106203
4290.49	-0.110522
4306.74	-0.114246
4322.99	-0.117387
4339.24	-0.119958
4355.49	-0.121975
4371.75	-0.123457
4388	-0.124424
4404.25	-0.124898
4420.5	-0.124906
4436.75	-0.12447
4453.01	-0.12362
4469.26	-0.122382
4485.51	-0.120785
4501.76	-0.118858
4518.01	-0.116631
4534.27	-0.114133
4550.52	-0.111395
4566.77	-0.108444
4583.02	-0.105311
4599.27	-0.102023
4615.53	-0.0986074
4631.78	-0.0950918
4648.03	-0.0915016
4664.28	-0.0878614
4680.53	-0.0841946
4696.79	-0.0805236
4713.04	-0.0768691
4729.29	-0.0732509
4745.54	-0.0696868
4761.79	-0.0661938
4778.04	-0.062787
4794.3	-0.0594801
4810.55	-0.0562857
4826.8	-0.0532145
4843.05	-0.050276
4859.3	-0.0474784
4875.56	-0.0448285
4891.81	-0.0423316
4908.06	-0.0399921
4924.31	-0.0378129
4940.56	-0.0357959
4956.82	-0.033942
4973.07	-0.032251
4989.32	-0.0307216
5005.57	-0.029352
5021.82	-0.0281392
5038.08	-0.0270798
5054.33	-0.0261694
5070.58	-0.0254034
5086.83	-0.0247762
5103.08	-0.0242822
5119.34	-0.023915
5135.59	-0.0236681
5151.84	-0.0235347
5168.09	-0.0235076
5184.34	-0.0235796
5200.6	-0.0237434
5216.85	-0.0239914
5233.1	-0.0243162
5249.35	-0.0247104
5265.6	-0.0251665
5281.85	-0.0256772
5298.11	-0.0262353
5314.36	-0.0268338
5330.61	-0.0274658
5346.86	-0.0281248
5363.11	-0.0288041
5379.37	-0.0294977
5395.62	-0.0301996
5411.87	-0.0309043
5428.12	-0.0316062
5444.37	-0.0323005
5460.63	-0.0329823
5476.88	-0.0336471
5493.13	-0.0342909
5509.38	-0.0349098
5525.63	-0.0355003
5541.89	-0.0360593
5558.14	-0.0365838
5574.39	-0.0370713
5590.64	-0.0375194
5606.89	-0.0379262
5623.15	-0.0382901
5639.4	-0.0386095
5655.65	-0.0388833
5671.9	-0.0391107
5688.15	-0.0392909
5704.41	-0.0394236
5720.66	-0.0395085
5736.91	-0.0395457
5753.16	-0.0395354
5769.41	-0.0394781
5785.67	-0.0393742
5801.92	-0.0392245
5818.17	-0.03903
5834.42	-0.0387917
5850.67	-0.0385106
5866.93	-0.0381881
5883.18	-0.0378256
5899.43	-0.0374244
5915.68	-0.0369862
5931.93	-0.0365125
5948.18	-0.0360049
5964.44	-0.0354651
5980.69	-0.0348949
5996.94	-0.0342959
6013.19	-0.0336699
6029.44	-0.0330187
6045.7	-0.032344
6061.95	-0.0316475
6078.2	-0.030931
6094.45	-0.0301961
6110.7	-0.0294445
6126.96	-0.0286778
6143.21	-0.0278976
6159.46	-0.0271053
6175.71	-0.0263025
6191.96	-0.0254906
6208.22	-0.0246709
6224.47	-0.0238448
6240.72	-0.0230135
6256.97	-0.0221782
6273.22	-0.0213399
6289.48	-0.0204999
6305.73	-0.019659
6321.98	-0.0188182
6338.23	-0.0179785
6354.48	-0.0171406
6370.74	-0.0163053
6386.99	-0.0154733
6403.24	-0.0146454
6419.49	-0.0138221
6435.74	-0.013004
6452	-0.0121916
6468.25	-0.0113855
6484.5	-0.0105862
6500.75	-0.00979402
6517	-0.00900942
6533.26	-0.00823278
6549.51	-0.00746447
6565.76	-0.00670483
6582.01	-0.00595419
6598.26	-0.00521287
6614.52	-0.00448117
6630.77	-0.00375941
6647.02	-0.00304788
6663.27	-0.00234687
6679.52	-0.00165669
6695.78	-0.00097763
6712.03	-0.000309998
6728.28	0.000345896
6744.53	0.000989736
6760.78	0.0016212
6777.04	0.00223995
6793.29	0.00284565
6809.54	0.00343794
6825.79	0.00401647
6842.04	0.00458086
6858.3	0.00513074
6874.55	0.00566572
6890.8	0.00618541
6907.05	0.0066894
6923.3	0.00717729
6939.56	0.00764868
6955.81	0.00810314
6972.06	0.00854027
6988.31	0.00895964
7004.56	0.00936086
7020.82	0.00974351
7037.07	0.0101072
7053.32	0.0104515
7069.57	0.0107761
7085.82	0.0110805
7102.08	0.0113645
7118.33	0.0116276
7134.58	0.0118696
7150.83	0.0120901
7167.08	0.0122888
7183.34	0.0124654
7199.59	0.0126198
7215.84	0.0127516
7232.09	0.0128607
7248.34	0.0129469
7264.6	0.01301
7280.85	0.0130499
7297.1	0.0130665
7313.35	0.0130598
7329.6	0.0130296
7345.86	0.0129759
7362.11	0.0128989
7378.36	0.0127985
7394.61	0.0126747
7410.86	0.0125277
7427.12	0.0123576
7443.37	0.0121646
7459.62	0.0119488
7475.87	0.0117104
7492.12	0.0114497
7508.38	0.0111669
7524.63	0.0108623
7540.88	0.0105362
7557.13	0.0101888
7573.38	0.00982069
7589.64	0.00943205
7605.89	0.00902332
7622.14	0.00859489
7638.39	0.0081472
7654.64	0.00768067
7670.89	0.00719578
7687.15	0.00669297
7703.4	0.00617275
7719.65	0.00563561
7735.9	0.00508206
7752.15	0.00451262
7768.41	0.00392785
7784.66	0.00332828
7800.91	0.00271447
7817.16	0.002087
7833.41	0.00144644
7849.67	0.000793392
7865.92	0.000128441
7882.17	-0.0005478
7898.42	-0.00123472
7914.67	-0.00193169
7930.93	-0.00263808
7947.18	-0.00335326
7963.43	-0.00407657
7979.68	-0.00480738
7995.93	-0.00554502
8012.18	-0.00628882
8028.44	-0.00703812
8044.69	-0.00779224
8060.94	-0.0085505
8077.19	-0.00931222
8093.44	-0.0100767
8109.7	-0.0108432
8125.95	-0.0116112
8142.2	-0.0123798
8158.45	-0.0131483
8174.7	-0.0139162
8190.96	-0.0146825
8207.21	-0.0154467
8223.46	-0.0162081
8239.71	-0.0169659
8255.96	-0.0177194
8272.21	-0.0184678
8288.47	-0.0192106
8304.72	-0.019947
8320.97	-0.0206763
8337.22	-0.0213977
8353.47	-0.0221107
8369.73	-0.0228145
8385.98	-0.0235084
8402.23	-0.0241919
8418.48	-0.0248641
8434.73	-0.0255245
8450.99	-0.0261724
8467.24	-0.0268073
8483.49	-0.0274284
8499.74	-0.0280352
8515.99	-0.0286271
8532.25	-0.0292035
8548.5	-0.0297638
8564.75	-0.0303077
8581	-0.0308344
8597.25	-0.0313435
8613.5	-0.0318345
8629.76	-0.032307
8646.01	-0.0327605
8662.26	-0.0331946
8678.51	-0.0336088
8694.76	-0.0340029
8711.02	-0.0343764
8727.27	-0.0347291
8743.52	-0.0350605
8759.77	-0.0353705
8776.02	-0.0356588
8792.28	-0.035925
8808.53	-0.0361691
8824.78	-0.0363909
8841.03	-0.0365901
8857.28	-0.0367667
8873.54	-0.0369205
8889.79	-0.0370514
8906.04	-0.0371595
8922.29	-0.0372446
8938.54	-0.0373067
8954.8	-0.037346
8971.05	-0.0373623
8987.3	-0.0373558
9003.55	-0.0373266
9019.8	-0.0372747
9036.05	-0.0372004
9052.31	-0.0371037
9068.56	-0.036985
9084.81	-0.0368443
9101.06	-0.0366819
9117.31	-0.0364981
9133.57	-0.0362931
9149.82	-0.0360672
9166.07	-0.0358208
9182.32	-0.0355542
9198.57	-0.0352678
9214.83	-0.0349618
9231.08	-0.0346368
9247.33	-0.0342931
9263.58	-0.0339312
9279.83	-0.0335516
9296.09	-0.0331545
9312.34	-0.0327407
9328.59	-0.0323105
9344.84	-0.0318646
9361.09	-0.0314033
9377.35	-0.0309273
9393.6	-0.030437
9409.85	-0.0299332
9426.1	-0.0294163
9442.35	-0.028887
9458.61	-0.0283459
9474.86	-0.0277935
9491.11	-0.0272306
9507.36	-0.0266576
9523.61	-0.0260754
9539.87	-0.0254845
9556.12	-0.0248855
9572.37	-0.0242792
9588.62	-0.0236663
9604.87	-0.0230473
9621.12	-0.022423
9637.38	-0.0217941
9653.63	-0.0211612
9669.88	-0.0205251
9686.13	-0.0198863
9702.38	-0.0192457
9718.64	-0.0186038
9734.89	-0.0179615
9751.14	-0.0173193
9767.39	-0.0166779
9783.64	-0.0160381
9799.9	-0.0154004
9816.15	-0.0147656
9832.4	-0.0141343
9848.65	-0.0135073
9864.9	-0.012885
9881.16	-0.0122681
9897.41	-0.0116574
9913.66	-0.0110534
9929.91	-0.0104566
9946.16	-0.00986777
9962.42	-0.00928739
9978.67	-0.00871605
9994.92	-0.00815431
10011.2	-0.00760269
10027.4	-0.00706171
10043.7	-0.00653189
10059.9	-0.0060137
10076.2	-0.00550761
10092.4	-0.00501407
10108.7	-0.00453351
10124.9	-0.00406635
10141.2	-0.00361295
10157.4	-0.00317371
10173.7	-0.00274895
10189.9	-0.00233901
10206.2	-0.00194418
10222.4	-0.00156475
10238.7	-0.00120096
10255	-0.000853053
10271.2	-0.000521231
10287.5	-0.000205677
10303.7	9.34518e-05
10320	0.000376021
10336.2	0.000641923
10352.5	0.000891075
10368.7	0.00112342
10385	0.00133892
10401.2	0.00153757
10417.5	0.00171939
10433.7	0.00188442
10450	0.00203273
10466.2	0.00216441
10482.5	0.00227958
10498.7	0.00237838
10515	0.00246097
10531.2	0.00252755
10547.5	0.00257832
10563.7	0.00261353
10580	0.00263344
10596.2	0.00263831
10612.5	0.00262847
10628.7	0.00260423
10645	0.00256594
10661.3	0.00251397
10677.5	0.00244869
10693.8	0.00237053
10710	0.00227989
10726.3	0.00217722
10742.5	0.00206298
10758.8	0.00193764
10775	0.0018017
10791.3	0.00165565
10807.5	0.00150002
10823.8	0.00133533
10840	0.00116213
10856.3	0.000980974
10872.5	0.000792426
10888.8	0.000597061
10905	0.000395461
10921.3	0.000188214
10937.5	-2.40815e-05
10953.8	-0.000240825
10970	-0.000461411
10986.3	-0.000685229
11002.5	-0.000911669
11018.8	-0.00114012
11035	-0.00136996
11051.3	-0.00160059
11067.6	-0.00183139
11083.8	-0.00206176
11100.1	-0.00229109
11116.3	-0.00251879
11132.6	-0.00274427
11148.8	-0.00296694
11165.1	-0.00318622
11181.3	-0.00340156
11197.6	-0.00361239
11213.8	-0.00381817
11230.1	-0.00401837
11246.3	-0.00421247
11262.6	-0.00439997
11278.8	-0.00458038
11295.1	-0.00475323
11311.3	-0.00491806
11327.6	-0.00507443
11343.8	-0.00522192
11360.1	-0.00536014
11376.3	-0.00548871
11392.6	-0.00560727
11408.8	-0.00571547
11425.1	-0.00581301
11441.3	-0.00589958
11457.6	-0.00597493
11473.9	-0.00603881
11490.1	-0.00609098
11506.4	-0.00613126
11522.6	-0.00615946
11538.9	-0.00617544
11555.1	-0.00617907
11571.4	-0.00617025
11587.6	-0.0061489
11603.9	-0.00611498
11620.1	-0.00606846
11636.4	-0.00600933
11652.6	-0.00593761
11668.9	-0.00585337
11685.1	-0.00575665
11701.4	-0.00564757
11717.6	-0.00552624
11733.9	-0.00539279
11750.1	-0.0052474
11766.4	-0.00509024
11782.6	-0.00492152
11798.9	-0.00474148
11815.1	-0.00455035
11831.4	-0.0043484
11847.6	-0.00413592
11863.9	-0.00391322
11880.2	-0.0036806
11896.4	-0.00343842
11912.7	-0.00318702
11928.9	-0.00292677
11945.2	-0.00265805
11961.4	-0.00238125
11977.7	-0.0020968
11993.9	-0.00180509
12010.2	-0.00150657
12026.4	-0.00120168
12042.7	-0.000890857
12058.9	-0.000574565
12075.2	-0.000253269
12091.4	7.25612e-05
12107.7	0.000402448
12123.9	0.000735909
12140.2	0.00107246
12156.4	0.00141161
12172.7	0.00175286
12188.9	0.00209573
12205.2	0.00243972
12221.4	0.00278433
12237.7	0.00312906
12253.9	0.00347342
12270.2	0.00381692
12286.4	0.00415907
12302.7	0.00449937
12319	0.00483734
12335.2	0.0051725
12351.5	0.00550437
12367.7	0.00583248
12384	0.00615635
12400.2	0.00647553
12416.5	0.00678955
12432.7	0.00709797
12449	0.00740034
12465.2	0.00769623
12481.5	0.00798521
12497.7	0.00826685
12514	0.00854074
12530.2	0.00880648
12546.5	0.00906367
12562.7	0.00931192
12579	0.00955087
12595.2	0.00978014
12611.5	0.00999937
12627.7	0.0102082
12644	0.0104064
12660.2	0.0105934
12676.5	0.0107692
12692.7	0.0109333
12709	0.0110854
12725.3	0.0112253
12741.5	0.0113528
12757.8	0.0114675
12774	0.0115692
12790.3	0.0116577
12806.5	0.0117329
12822.8	0.0117944
12839	0.0118422
12855.3	0.0118761
12871.5	0.0118958
12887.8	0.0119014
12904	0.0118926
12920.3	0.0118695
12936.5	0.0118318
12952.8	0.0117795
12969	0.0117127
12985.3	0.0116312
13001.5	0.0115351
13017.8	0.0114244
13034	0.011299
13050.3	0.0111592
13066.5	0.0110049
13082.8	0.0108362
13099	0.0106533
13115.3	0.0104563
13131.6	0.0102453
13147.8	0.0100206
13164.1	0.00978224
13180.3	0.00953055
13196.6	0.00926575
13212.8	0.0089881
13229.1	0.00869788
13245.3	0.0083954
13261.6	0.00808099
13277.8	0.00775499
13294.1	0.00741777
13310.3	0.00706973
13326.6	0.00671126
13342.8	0.00634279
13359.1	0.00596477
13375.3	0.00557767
13391.6	0.00518196
13407.8	0.00477813
13424.1	0.00436672
13440.3	0.00394823
13456.6	0.00352322
13472.8	0.00309223
13489.1	0.00265585
13505.3	0.00221465
13521.6	0.00176922
13537.9	0.00132016
13554.1	0.000868074
13570.4	0.000413582
13586.6	-4.26969e-05
13602.9	-0.000500139
13619.1	-0.000958116
13635.4	-0.001416
13651.6	-0.00187316
13667.9	-0.00232896
13684.1	-0.00278279
13700.4	-0.00323401
13716.6	-0.00368202
13732.9	-0.00412619
13749.1	-0.00456593
13765.4	-0.00500064
13781.6	-0.00542975
13797.9	-0.00585267
13814.1	-0.00626886
13830.4	-0.00667778
13846.6	-0.00707889
13862.9	-0.00747168
13879.1	-0.00785568
13895.4	-0.00823041
13911.6	-0.00859541
13927.9	-0.00895028
13944.2	-0.0092946
13960.4	-0.00962799
13976.7	-0.00995011
13992.9	-0.0102606
14009.2	-0.0105592
14025.4	-0.0108456
14041.7	-0.0111197
14057.9	-0.011381
14074.2	-0.0116296
14090.4	-0.0118651
14106.7	-0.0120876
14122.9	-0.0122969
14139.2	-0.0124929
14155.4	-0.0126756
14171.7	-0.0128451
14187.9	-0.0130012
14204.2	-0.0131442
14220.4	-0.013274
14236.7	-0.0133909
14252.9	-0.0134949
14269.2	-0.0135863
14285.4	-0.0136652
14301.7	-0.0137319
14317.9	-0.0137867
14334.2	-0.0138298
14350.5	-0.0138616
14366.7	-0.0138824
14383	-0.0138926
14399.2	-0.0138926
14415.5	-0.0138828
14431.7	-0.0138636
14448	-0.0138355
14464.2	-0.0137989
14480.5	-0.0137544
14496.7	-0.0137025
14513	-0.0136437
14529.2	-0.0135784
14545.5	-0.0135074
14561.7	-0.013431
14578	-0.01335
14594.2	-0.0132648
14610.5	-0.0131761
14626.7	-0.0130843
14643	-0.0129902
14659.2	-0.0128942
14675.5	-0.012797
14691.7	-0.0126992
14708	-0.0126013
14724.2	-0.0125038
14740.5	-0.0124074
14756.8	-0.0123126
14773	-0.0122199
14789.3	-0.0121298
14805.5	-0.0120429
14821.8	-0.0119597
14838	-0.0118806
14854.3	-0.0118062
14870.5	-0.0117367
14886.8	-0.0116727
14903	-0.0116146
14919.3	-0.0115626
14935.5	-0.0115173
14951.8	-0.0114788
14968	-0.0114475
14984.3	-0.0114236
15000.5	-0.0114074
15016.8	-0.0113991
15033	-0.0113989
15049.3	-0.0114069
15065.5	-0.0114231
15081.8	-0.0114478
15098	-0.0114809
15114.3	-0.0115224
15130.5	-0.0115724
15146.8	-0.0116308
15163.1	-0.0116974
15179.3	-0.0117723
15195.6	-0.0118551
15211.8	-0.0119458
15228.1	-0.012044
15244.3	-0.0121497
15260.6	-0.0122624
15276.8	-0.0123819
15293.1	-0.0125078
15309.3	-0.0126397
15325.6	-0.0127773
15341.8	-0.0129201
15358.1	-0.0130676
15374.3	-0.0132195
15390.6	-0.013375
15406.8	-0.0135338
15423.1	-0.0136953
15439.3	-0.0138589
15455.6	-0.014024
15471.8	-0.0141901
15488.1	-0.0143564
15504.3	-0.0145223
15520.6	-0.0146873
15536.8	-0.0148506
15553.1	-0.0150116
15569.4	-0.0151696
15585.6	-0.0153239
15601.9	-0.0154738
15618.1	-0.0156187
15634.4	-0.0157578
15650.6	-0.0158906
15666.9	-0.0160163
15683.1	-0.0161342
15699.4	-0.0162437
15715.6	-0.0163441
15731.9	-0.0164349
15748.1	-0.0165153
15764.4	-0.0165849
15780.6	-0.0166429
15796.9	-0.0166888
15813.1	-0.0167221
15829.4	-0.0167423
15845.6	-0.0167488
15861.9	-0.0167412
15878.1	-0.016719
15894.4	-0.0166818
15910.6	-0.0166293
15926.9	-0.016561
15943.1	-0.0164767
15959.4	-0.0163761
15975.6	-0.0162588
15991.9	-0.0161248
16008.2	-0.0159737
16024.4	-0.0158055
16040.7	-0.01562
16056.9	-0.0154172
16073.2	-0.015197
16089.4	-0.0149595
16105.7	-0.0147046
16121.9	-0.0144325
16138.2	-0.0141433
16154.4	-0.013837
16170.7	-0.013514
16186.9	-0.0131745
16203.2	-0.0128186
16219.4	-0.0124468
16235.7	-0.0120593
16251.9	-0.0116565
16268.2	-0.0112388
16284.4	-0.0108067
16300.7	-0.0103607
16316.9	-0.00990115
16333.2	-0.00942867
16349.4	-0.00894381
16365.7	-0.00844714
16381.9	-0.00793928
16398.2	-0.00742085
16414.5	-0.00689251
16430.7	-0.00635493
16447	-0.00580881
16463.2	-0.00525485
16479.5	-0.00469379
16495.7	-0.00412635
16512	-0.00355329
16528.2	-0.00297537
16544.5	-0.00239337
16560.7	-0.00180805
16577	-0.00122019
16593.2	-0.000630594
16609.5	-4.00325e-05
16625.7	0.000550705
16642	0.00114084
16658.2	0.00172958
16674.5	0.00231616
16690.7	0.00289982
16707	0.00347979
16723.2	0.00405532
16739.5	0.00462569
16755.7	0.00519016
16772	0.00574802
16788.2	0.00629859
16804.5	0.00684118
16820.8	0.00737515
16837	0.00789984
16853.3	0.00841465
16869.5	0.00891897
16885.8	0.00941224
16902	0.0098939
16918.3	0.0103634
16934.5	0.0108203
16950.8	0.0112641
16967	0.0116943
16983.3	0.0121105
16999.5	0.0125124
17015.8	0.0128994
17032	0.0132714
17048.3	0.013628
17064.5	0.0139689
17080.8	0.0142938
17097	0.0146025
17113.3	0.0148948
17129.5	0.0151705
17145.8	0.0154295
17162	0.0156717
17178.3	0.0158969
17194.5	0.0161051
17210.8	0.0162963
17227.1	0.0164703
17243.3	0.0166273
17259.6	0.0167672
17275.8	0.0168902
17292.1	0.0169962
17308.3	0.0170854
17324.6	0.0171579
17340.8	0.0172138
17357.1	0.0172533
17373.3	0.0172766
17389.6	0.0172838
17405.8	0.0172752
17422.1	0.017251
17438.3	0.0172115
17454.6	0.0171569
17470.8	0.0170874
17487.1	0.0170034
17503.3	0.0169051
17519.6	0.0167929
17535.8	0.0166671
17552.1	0.016528
17568.3	0.0163759
17584.6	0.0162112
17600.8	0.0160342
17617.1	0.0158454
17633.4	0.0156449
17649.6	0.0154333
17665.9	0.0152108
17682.1	0.0149779
17698.4	0.014735
17714.6	0.0144823
17730.9	0.0142203
17747.1	0.0139493
17763.4	0.0136698
17779.6	0.0133821
17795.9	0.0130865
17812.1	0.0127835
17828.4	0.0124734
17844.6	0.0121566
17860.9	0.0118335
17877.1	0.0115043
17893.4	0.0111696
17909.6	0.0108295
17925.9	0.0104846
17942.1	0.010135
17958.4	0.00978125
17974.6	0.00942356
17990.9	0.0090623
18007.1	0.00869779
18023.4	0.00833036
18039.7	0.00796031
18055.9	0.00758797
18072.2	0.00721362
18088.4	0.00683758
18104.7	0.00646013
18120.9	0.00608156
18137.2	0.00570215
18153.4	0.00532218
18169.7	0.00494193
18185.9	0.00456164
18202.2	0.0041816
18218.4	0.00380205
18234.7	0.00342324
18250.9	0.00304541
18267.2	0.00266881
18283.4	0.00229367
18299.7	0.00192022
18315.9	0.00154869
18332.2	0.00117929
18348.4	0.000812238
18364.7	0.000447753
18380.9	8.6037e-05
18397.2	-0.000272707
18413.4	-0.000628281
18429.7	-0.000980491
18446	-0.00132915
18462.2	-0.00167406
18478.5	-0.00201506
18494.7	-0.00235195
18511	-0.00268458
18527.2	-0.00301276
18543.5	-0.00333633
18559.7	-0.00365513
18576	-0.003969
18592.2	-0.00427779
18608.5	-0.00458134
18624.7	-0.00487952
18641	-0.00517218
18657.2	-0.00545917
18673.5	-0.00574038
18689.7	-0.00601566
18706	-0.00628489
18722.2	-0.00654795
18738.5	-0.00680472
18754.7	-0.0070551
18771	-0.00729896
18787.2	-0.00753622
18803.5	-0.00776677
18819.7	-0.00799051
18836	-0.00820736
18852.3	-0.00841724
18868.5	-0.00862006
18884.8	-0.00881575
18901	-0.00900425
18917.3	-0.00918549
18933.5	-0.00935942
18949.8	-0.00952598
18966	-0.00968512
18982.3	-0.00983682
18998.5	-0.00998103
19014.8	-0.0101177
19031	-0.0102469
19047.3	-0.0103685
19063.5	-0.0104825
19079.8	-0.010589
19096	-0.0106879
19112.3	-0.0107793
19128.5	-0.0108631
19144.8	-0.0109394
19161	-0.0110083
19177.3	-0.0110696
19193.5	-0.0111236
19209.8	-0.0111702
19226	-0.0112095
19242.3	-0.0112415
19258.6	-0.0112663
19274.8	-0.011284
19291.1	-0.0112947
19307.3	-0.0112984
19323.6	-0.0112953
19339.8	-0.0112854
19356.1	-0.0112688
19372.3	-0.0112456
19388.6	-0.0112159
19404.8	-0.01118
19421.1	-0.0111378
19437.3	-0.0110894
19453.6	-0.0110352
19469.8	-0.010975
19486.1	-0.0109092
19502.3	-0.0108378
19518.6	-0.010761
19534.8	-0.0106789
19551.1	-0.0105917
19567.3	-0.0104996
19583.6	-0.0104026
19599.8	-0.0103009
19616.1	-0.0101948
19632.3	-0.0100843
19648.6	-0.00996972
19664.8	-0.00985109
19681.1	-0.00972863
19697.4	-0.0096025
19713.6	-0.00947287
19729.9	-0.00933991
19746.1	-0.00920379
19762.4	-0.00906467
19778.6	-0.00892272
19794.9	-0.00877812
19811.1	-0.00863102
19827.4	-0.00848159
19843.6	-0.00833
19859.9	-0.00817641
19876.1	-0.00802097
19892.4	-0.00786386
19908.6	-0.00770523
19924.9	-0.00754522
19941.1	-0.007384
19957.4	-0.00722171
19973.6	-0.0070585
19989.9	-0.00689452
