0	0
22.1618	0
44.3236	0
66.4854	0
88.6472	0
110.809	0
132.971	0
155.133	0
177.294	0
199.456	0
221.618	0
243.78	0
265.942	0
288.103	0
310.265	0
332.427	0
354.589	0
376.751	0
398.912	0
421.074	0
443.236	0
465.398	0
487.56	0
509.721	0
531.883	0
554.045	0
576.207	0
598.369	0
620.53	0
641.297	0
654.751	0
661.328	0
662.069	0
663.234	0
664.322	0
665.385	0
665.624	0
666.12	0
666.621	0
667.126	0
667.633	0
668.127	0
668.193	0
668.725	0
669.459	0
670.187	0
670.943	0
671.223	0
671.235	0
671.25	0
671.263	0
671.275	0
671.287	0
671.299	0
671.311	0
671.324	0
671.336	0
671.348	0
671.36	0
671.373	0
671.385	0
671.397	0
671.409	0
671.422	0
671.434	0
671.446	0
671.459	0
671.471	0
680.056	0
690.116	0
700.138	0
710.114	0
720	0
730.001	-nan
740.014	-nan
750.01	-nan
760.015	-nan
770.009	-nan
780.025	-nan
790.068	-nan
800.012	-nan
810.11	-nan
820.147	-nan
830.133	-nan
840.077	-nan
850.093	-nan
860.212	-nan
870.028	-nan
880.339	-nan
890.291	-nan
900.475	-nan
910.075	-nan
920.522	-nan
930.227	-nan
940.586	-nan
950.345	-nan
960.004	-nan
970.243	-nan
980.271	-nan
990.831	-nan
1000.01	-nan
1010.49	-nan
1020.37	-nan
1030.61	-nan
1040.14	-nan
1051.08	-nan
1060.12	-nan
1070.6	-nan
1080.19	-nan
1090.07	-nan
1100.23	-nan
1110.69	-nan
1120.09	-nan
1131.13	-nan
1141.06	-nan
1151.26	-nan
1160.22	-nan
1170.95	-nan
1180.39	-nan
1190.02	-nan
1201.47	-nan
1211.47	-nan
1221.66	-nan
1230.29	-nan
1240.82	-nan
1251.55	-nan
1260.64	-nan
1271.74	-nan
1281.15	-nan
1290.7	-nan
1300.41	-nan
1310.27	-nan
1320.29	-nan
1330.46	-nan
1340.8	-nan
1351.31	-nan
1361.98	-nan
1370.64	-nan
1381.63	-nan
1390.54	-nan
1401.85	-nan
1411.02	-nan
1420.32	-nan
1432.1	-nan
1441.67	-nan
1451.37	-nan
1461.19	-nan
1471.14	-nan
1481.22	-nan
1491.43	-nan
1501.78	-nan
1512.26	-nan
1520.22	-nan
1530.95	-nan
1541.82	-nan
1550.07	-nan
1561.2	-nan
1572.47	-nan
1581.03	-nan
1592.57	-nan
1601.33	-nan
1610.18	-nan
1622.11	-nan
1631.17	-nan
1640.31	-nan
1652.66	-nan
1662.02	-nan
1671.48	-nan
1681.04	-nan
1690.69	-nan
1700.45	-nan
1710.3	-nan
1720.65	-nan
1730.71	-nan
1740.87	-nan
1751.13	-nan
1761.5	-nan
1771.98	-nan
1780.01	-nan
1790.78	-nan
1801.42	-nan
1810.9	-nan
1820.12	-nan
1830.15	-nan
1840.03	-nan
1850	-nan
1860	-nan
1870.01	-nan
1880.05	-nan
1890.04	-nan
1900.06	-nan
1910.1	-nan
1920.19	-nan
1930.27	-nan
1940.38	-nan
1950.35	-nan
1960.26	-nan
1970.13	-nan
1980.5	-nan
1990.6	-nan
2000.49	-nan
2010.09	-nan
2020.14	-nan
2030.65	-nan
2040.11	-nan
2050.13	-nan
2060.88	-nan
2070.5	-nan
2080.78	-nan
2090.54	-nan
2100.78	-nan
2110.29	-nan
2120.2	-nan
2130.51	-nan
2141.23	-nan
2150.95	-nan
2161.01	-nan
2171.41	-nan
2180.6	-nan
2191.57	-nan
2201.16	-nan
2210.9	-nan
2220.77	-nan
2230.77	-nan
2240.9	-nan
2251.2	-nan
2261.69	-nan
2270.59	-nan
2281.51	-nan
2290.84	-nan
2300.38	-nan
2310.16	-nan
2320.3	-nan
2330.73	-nan
2341.46	-nan
2350.25	-nan
2361.51	-nan
2370.73	-nan
2380.16	-nan
2392.24	-nan
2402.15	-nan
2412.29	-nan
2420.04	-nan
2430.59	-nan
2441.37	-nan
2452.5	-nan
2461.08	-nan
2472.78	-nan
2481.75	-nan
2490.88	-nan
2500.17	-nan
2512.82	-nan
2522.51	-nan
2532.37	-nan
2542.42	-nan
2552.64	-nan
2563.04	-nan
2570.06	-nan
2580.73	-nan
2591.56	-nan
2602.56	-nan
2613.35	-nan
2620.89	-nan
2632.35	-nan
2640.09	-nan
2651.85	-nan
2660.05	-nan
2670.12	-nan
2680.28	-nan
2690.52	-nan
2700.61	-nan
2710.34	-nan
2721.7	-nan
2730.27	-nan
2741.58	-nan
2751.12	-nan
2761.23	-nan
2772.01	-nan
2780.54	-nan
2792.83	-nan
2802.32	-nan
2810.97	-nan
2820.98	-nan
2831.33	-nan
2842.14	-nan
2852.99	-nan
2860.6	-nan
2871.48	-nan
2883.13	-nan
2891.11	-nan
2903.48	-nan
2911.75	-nan
2920.62	-nan
2930	-nan
2940.17	-nan
2950.07	-nan
2960.09	-nan
2970.24	-nan
2980.34	-nan
2990.68	-nan
3000.17	-nan
3010.51	-nan
3021.32	-nan
3031.77	-nan
3041.13	-nan
3050.94	-nan
3061.15	-nan
3071.09	-nan
3082.1	-nan
3091.26	-nan
3100.81	-nan
3110.79	-nan
3121.27	-nan
3132.31	-nan
3140.96	-nan
3150.57	-nan
3160.6	-nan
3171.04	-nan
3181.87	-nan
3193.07	-nan
3200.74	-nan
3212.51	-nan
3221.73	-nan
3230.1	-nan
3243.2	-nan
3252.12	-nan
3261.22	-nan
3270.47	-nan
3284.67	-nan
3290.04	-nan
3300.17	-nan
3310.29	-nan
3320.06	-nan
3330.14	-nan
3340.01	-nan
3350.15	-nan
3360.21	-nan
3370.12	-nan
3380.44	-nan
3390.38	-nan
3400.91	-nan
3411.44	-nan
3421.37	-nan
3431.95	-nan
3441.75	-nan
3452.21	-nan
3460.5	-nan
3472.22	-nan
3481.52	-nan
3491.31	-nan
3501.65	-nan
3512.58	-nan
3520.22	-nan
3532.32	-nan
3540.8	-nan
3554.25	-nan
3562.75	-nan
3572.62	-nan
3582.96	-nan
3593.8	-nan
3605.14	-nan
3611.02	-nan
3623.18	-nan
3631.02	-nan
3644.14	-nan
3650.94	-nan
3665.02	-nan
3672.3	-nan
3682.62	-nan
3695.76	-nan
3701.93	-nan
3710.13	-nan
3726.68	-nan
3731.03	-nan
3740.4	-nan
3750.16	-nan
3760.38	-nan
3771.17	-nan
3781.54	-nan
3790.22	-nan
3800.4	-nan
3810.4	-nan
3822.94	-nan
3830.12	-nan
3840.05	-nan
3850	-nan
3860.05	-nan
3870.35	-nan
3880.25	-nan
3890.11	-nan
3900.04	-nan
3910.47	-nan
3920.29	-nan
3930.42	-nan
3940.55	-nan
3950.16	-nan
3960.38	-nan
3970.73	-nan
3980.67	-nan
3990.12	-nan
4000.19	-nan
4010.97	-nan
4021.02	-nan
4030.1	-nan
4040.02	-nan
4050.06	-nan
4060.19	-nan
4070.1	-nan
4080.07	-nan
4090	-nan
4100.01	-nan
4110.19	-nan
4120.11	-nan
4130.27	-nan
4140.48	-nan
4150.25	-nan
4160.04	-nan
4170.11	-nan
4180.37	-nan
4190.28	-nan
4200.89	-nan
4210.27	-nan
4220.6	-nan
4230.23	-nan
4240.52	-nan
4251.57	-nan
4261.5	-nan
4272.05	-nan
4280.95	-nan
4290.28	-nan
4300.06	-nan
4310.3	-nan
4321.02	-nan
4332.26	-nan
4341.05	-nan
4350.16	-nan
4362.83	-nan
4372.75	-nan
4383.05	-nan
4390.13	-nan
4401.09	-nan
4412.48	-nan
4420.31	-nan
4432.46	-nan
4440.82	-nan
4453.8	-nan
4462.74	-nan
4471.94	-nan
4480.98	-nan
4494.58	-nan
4503.66	-nan
4514.04	-nan
4524.72	-nan
4530.18	-nan
4545.23	-nan
4551	-nan
4562.82	-nan
4575.01	-nan
4581.25	-nan
4591.05	-nan
4604.18	-nan
4616.45	-nan
4622.81	-nan
4635.76	-nan
4642.22	-nan
4655.03	-nan
4661.37	-nan
4676.92	-nan
4680.04	-nan
4690.52	-nan
4700.34	-nan
4710.11	-nan
4720.81	-nan
4734.31	-nan
4743.78	-nan
4753.21	-nan
4762.84	-nan
4772.12	-nan
4781.11	-nan
4794.16	-nan
4802.8	-nan
4810.57	-nan
4822.6	-nan
4830.79	-nan
4843.24	-nan
4851.57	-nan
4864.02	-nan
4872.28	-nan
4880.83	-nan
4890.61	-nan
4900.22	-nan
4910.35	-nan
4920.47	-nan
4930.5	-nan
4940.48	-nan
4950.95	-nan
4960.27	-nan
4970.01	-nan
4981.26	-nan
4990.31	-nan
5000.33	-nan
5011.44	-nan
5021.34	-nan
5032.51	-nan
5042.14	-nan
5050.39	-nan
5063.11	-nan
5073.88	-nan
5085.9	-nan
5091.92	-nan
5104.88	-nan
5111.79	-nan
5120.94	-nan
5131.26	-nan
5145.14	-nan
5151.58	-nan
5164.17	-nan
5170.32	-nan
5182.7	-nan
5196.3	-nan
5202.54	-nan
5215.32	-nan
5222.76	-nan
5236.08	-nan
5242	-nan
5250.61	-nan
5260.05	-nan
5270	-nan
5280.36	-nan
5292.11	-nan
5300.11	-nan
5310.38	-nan
5320.53	-nan
5333.66	-nan
5347.85	-nan
5354.1	-nan
5363.77	-nan
5373.15	-nan
5382.22	-nan
5393.54	-nan
5401.42	-nan
5413.04	-nan
5427.13	-nan
5441.37	-nan
5453.06	-nan
5464.48	-nan
5476.19	-nan
5481.06	-nan
5492.8	-nan
5504.55	-nan
5507.66	-nan
5511.4	-nan
5521.96	-nan
5532.06	-nan
5543.15	-nan
5551.95	-nan
5565.38	-nan
5577.31	-nan
5589.28	-nan
5595.79	-nan
5607.82	-nan
5619.88	-nan
5631.98	-nan
5644.12	-nan
5649.51	-nan
5661.67	-nan
5672.67	-nan
5684.84	-nan
5697.03	-nan
5697.88	-nan
5700.82	-nan
5711.43	-nan
5721.92	-nan
5730.93	-nan
5744.51	-nan
5751.47	-nan
5765.28	-nan
5770.22	-nan
5781.79	-nan
5791.46	-nan
5803.3	-nan
5813.72	-nan
5825.05	-nan
5831.53	-nan
5845.93	-nan
5850.06	-nan
5860.06	-nan
5870.24	-nan
5880.16	-nan
5890.2	-nan
5900.27	-nan
5910.43	-nan
5920.06	-nan
5930.48	-nan
5940.53	-nan
5950.54	-nan
5960.78	-nan
5970.61	-nan
5981.53	-nan
5991.55	-nan
6000.23	-nan
6011.94	-nan
6022.03	-nan
6030.04	-nan
6041.33	-nan
6050.04	-nan
6061.64	-nan
6070.18	-nan
6081.74	-nan
6090.6	-nan
6102.65	-nan
6110.16	-nan
6120.23	-nan
6130.26	-nan
6140.36	-nan
6150.35	-nan
6160.7	-nan
6170.63	-nan
6180.77	-nan
6190.59	-nan
6202.06	-nan
6210.72	-nan
6220.33	-nan
6231.1	-nan
6243.12	-nan
6251.85	-nan
6260.99	-nan
6270.55	-nan
6280.36	-nan
6290.42	-nan
6300.77	-nan
6311.43	-nan
6322.44	-nan
6333.81	-nan
6345.41	-nan
6351.28	-nan
6363.18	-nan
6372.92	-nan
6380.1	-nan
6390.03	-nan
6400.53	-nan
6410.62	-nan
6422	-nan
6432.5	-nan
6442.99	-nan
6452.16	-nan
6462.86	-nan
6474.28	-nan
6480.96	-nan
6495.21	-nan
6502.51	-nan
6510.01	-nan
6525.81	-nan
6534.05	-nan
6541.24	-nan
6554.13	-nan
6560.13	-nan
6576.83	-nan
6586.5	-nan
6596.33	-nan
6604.14	-nan
6614.3	-nan
6625.22	-nan
6634.22	-nan
6645.8	-nan
6651.57	-nan
6668.84	-nan
6670	-nan
6680.14	-nan
6690.22	-nan
6700.16	-nan
6710.53	-nan
6720.19	-nan
6731.05	-nan
6740.14	-nan
6751.33	-nan
6761.57	-nan
6773.9	-nan
6783.04	-nan
6792.76	-nan
6803	-nan
6813.65	-nan
6824.6	-nan
6830.16	-nan
6841.41	-nan
6852.78	-nan
6868.51	-nan
6876.38	-nan
6885.39	-nan
6894.67	-nan
6902.84	-nan
6912.62	-nan
6922.09	-nan
6935.03	-nan
6945.91	-nan
6952.91	-nan
6965.86	-nan
6971.2	-nan
6982.38	-nan
6995.32	-nan
7003.23	-nan
7010.01	-nan
7021.21	-nan
7030.36	-nan
7040.41	-nan
7051.74	-nan
7061.54	-nan
7073.17	-nan
7080.94	-nan
7092.67	-nan
7100.34	-nan
7118.65	-nan
7127.54	-nan
7135.93	-nan
7147.47	-nan
7158.3	-nan
7171.25	-nan
7181.21	-nan
7194.15	-nan
7202.38	-nan
7214.13	-nan
7221.42	-nan
7226.74	-nan
7237.34	-nan
7245.81	-nan
7253.93	-nan
7265.11	-nan
7273.3	-nan
7280.77	-nan
7292.9	-nan
7304.7	-nan
7310.77	-nan
7324.04	-nan
7334.89	-nan
7345.49	-nan
7355.81	-nan
7365.89	-nan
7371.36	-nan
7383.54	-nan
7392.96	-nan
7402.22	-nan
7411.85	-nan
7420.95	-nan
7438.19	-nan
7447.33	-nan
7457.15	-nan
7466.05	-nan
7473.89	-nan
7480.58	-nan
7498.85	-nan
7507.78	-nan
7515.4	-nan
7524.05	-nan
7532.59	-nan
7541.01	-nan
7557.5	-nan
7565.13	-nan
7573.1	-nan
7580.98	-nan
7596.46	-nan
7604.06	-nan
7611.58	-nan
7624.52	-nan
7637.47	-nan
7650.41	-nan
7663.36	-nan
7676.3	-nan
7689.25	-nan
7702.19	-nan
7715.14	-nan
7727.67	-nan
7740.62	-nan
7753.56	-nan
7766.51	-nan
7779.45	-nan
7785.54	-nan
7791.33	-nan
7792.23	-nan
7793.2	-nan
7794.23	-nan
7802.25	-nan
7810.63	-nan
7828.48	-nan
7839.32	-nan
7850.43	-nan
7859.82	-nan
7872.77	-nan
7885.71	-nan
7890.07	-nan
7903.02	-nan
7910.68	-nan
7923.62	-nan
7936.57	-nan
7949.51	-nan
7959.57	-nan
7960.83	-nan
7961.98	-nan
7970.01	-nan
7980.03	-nan
7990.75	-nan
8001.74	-nan
8010.53	-nan
8021.95	-nan
8031.45	-nan
8041.54	-nan
8052.72	-nan
8063.15	-nan
8071.51	-nan
8081.43	-nan
8093.62	-nan
8100.34	-nan
8114.99	-nan
8122.71	-nan
8130.7	-nan
8148.04	-nan
8157.91	-nan
8162.87	-nan
8170.97	-nan
8180.27	-nan
8190.46	-nan
8200.73	-nan
8210.04	-nan
8221.11	-nan
8230.03	-nan
8242.21	-nan
8252.06	-nan
8260.64	-nan
8270.45	-nan
8281.7	-nan
8290.19	-nan
8305.1	-nan
8310.74	-nan
8323.16	-nan
8330.02	-nan
8346.16	-nan
8354.98	-nan
8364.34	-nan
8370.05	-nan
8380.11	-nan
8390.58	-nan
8400.28	-nan
8410.79	-nan
8420.96	-nan
8430.61	-nan
8443.55	-nan
8454.71	-nan
8461.24	-nan
8476.64	-nan
8485.64	-nan
8495.39	-nan
8505.82	-nan
8516.93	-nan
8528.69	-nan
8541.02	-nan
8553.85	-nan
8566.8	-nan
8579.74	-nan
8582.83	-nan
8586.14	-nan
8591.76	-nan
8602.11	-nan
8612.97	-nan
8629.59	-nan
8642.54	-nan
8654.93	-nan
8667.88	-nan
8678.91	-nan
8691.85	-nan
8703.72	-nan
8716.66	-nan
8729.61	-nan
8742.56	-nan
8743.56	-nan
8744.5	-nan
8745.44	-nan
8750.17	-nan
8760.76	-nan
8776.33	-nan
8780.22	-nan
8791.07	-nan
8804.07	-nan
8813.97	-nan
8825.4	-nan
8835.12	-nan
8848.07	-nan
8861.01	-nan
8873.96	-nan
8886.9	-nan
8899.85	-nan
8910.81	-nan
8910.86	-nan
8910.9	-nan
8923.47	-nan
8935.29	-nan
8948.23	-nan
8961.18	-nan
8974.12	-nan
8987.07	-nan
8997.9	-nan
9000.82	-nan
9003.97	-nan
9010.29	-nan
9026.42	-nan
9039.36	-nan
9052.31	-nan
9065.25	-nan
9078.2	-nan
9086.1	-nan
9096.11	-nan
9105.95	-nan
9117.82	-nan
9129.61	-nan
9142.27	-nan
9148.39	-nan
9155.1	-nan
9162.02	-nan
9174.96	-nan
9187.91	-nan
9198.47	-nan
9211.25	-nan
9223.93	-nan
9233.97	-nan
9246.92	-nan
9259.86	-nan
9271.63	-nan
9284.58	-nan
9297.52	-nan
9310.47	-nan
9323.42	-nan
9336.36	-nan
9349.31	-nan
9362.25	-nan
9368.74	-nan
9376.75	-nan
9384.64	-nan
9393.73	-nan
9402.77	-nan
9414.92	-nan
9427.31	-nan
9438.05	-nan
9438.79	-nan
9439.53	-nan
9440.28	-nan
9441.03	-nan
9441.78	-nan
9450.01	-nan
9469.7	-nan
9482.64	-nan
9495.59	-nan
9508.54	-nan
9521.48	-nan
9534.43	-nan
9547.37	-nan
9560.32	-nan
9573.26	-nan
9586.21	-nan
9586.29	-nan
9586.36	-nan
9586.41	-nan
9590.04	-nan
9600.21	-nan
9610.5	-nan
9620.4	-nan
9630.05	-nan
9640.33	-nan
9651.59	-nan
9660.58	-nan
9670.73	-nan
9681.75	-nan
9691.55	-nan
9702.93	-nan
9712.37	-nan
9722.55	-nan
9733.59	-nan
9741.5	-nan
9754.32	-nan
9763.59	-nan
9773.53	-nan
9784.22	-nan
9790.78	-nan
9801.01	-nan
9810.19	-nan
9826.47	-nan
9833.49	-nan
9840.75	-nan
9855.97	-nan
9863.94	-nan
9872.17	-nan
9880.66	-nan
9898.49	-nan
9907.86	-nan
9917.53	-nan
9927.51	-nan
9937.79	-nan
9941.93	-nan
9950.85	-nan
9960.24	-nan
9973.04	-nan
9984.55	-nan
9996.36	-nan
10008.5	-nan
10019.7	-nan
10032.4	-nan
10045.3	-nan
10045.7	-nan
10050.1	-nan
10067.9	-nan
10080.9	-nan
10088.3	-nan
10098.4	-nan
10109	-nan
10119.1	-nan
10120.1	-nan
10141	-nan
10153.9	-nan
10166.9	-nan
10179.8	-nan
10192.8	-nan
10205.7	-nan
10218.7	-nan
10231.6	-nan
10244.6	-nan
10257.5	-nan
10270.5	-nan
10281.7	-nan
10294.7	-nan
10300.1	-nan
10308.4	-nan
10309	-nan
10309.2	-nan
10309.5	-nan
10310.1	-nan
10320.3	-nan
10330.3	-nan
10347.1	-nan
10360.1	-nan
10373	-nan
10386	-nan
10398.9	-nan
10410.7	-nan
10423.6	-nan
10432.9	-nan
10445.2	-nan
10457.2	-nan
10470.1	-nan
10483.1	-nan
10496	-nan
10509	-nan
10521.9	-nan
10534.9	-nan
10547.8	-nan
10560.8	-nan
10560.9	-nan
10561	-nan
10561.1	-nan
10561.2	-nan
10561.3	-nan
10570	-nan
10580.1	-nan
10590.4	-nan
10600.2	-nan
10610.1	-nan
10620.9	-nan
10630.9	-nan
10640.7	-nan
10651.5	-nan
10662	-nan
10671.3	-nan
10681.2	-nan
10691.6	-nan
10702.5	-nan
10711	-nan
10722.8	-nan
10732.1	-nan
10741.8	-nan
10752.1	-nan
10762.9	-nan
10770.6	-nan
10782.3	-nan
10790.2	-nan
10801.9	-nan
10813.6	-nan
10821.2	-nan
10832.8	-nan
10840.5	-nan
10852.3	-nan
10860.3	-nan
10872.5	-nan
10880.8	-nan
10893.7	-nan
10902.5	-nan
10911.6	-nan
10921	-nan
10930.6	-nan
10940.6	-nan
10950.9	-nan
10961.5	-nan
10972.6	-nan
10984	-nan
10995.9	-nan
11002	-nan
11014.4	-nan
11020.9	-nan
11034	-nan
11040.8	-nan
11054.5	-nan
11061.6	-nan
11076	-nan
11083.4	-nan
11090.9	-nan
11106.4	-nan
11114.3	-nan
11122.4	-nan
11130.7	-nan
11147.7	-nan
11156.5	-nan
11165.4	-nan
11174.6	-nan
11184	-nan
11193.5	-nan
11203.3	-nan
11213.4	-nan
11223.6	-nan
11234.2	-nan
11250.9	-nan
11262.1	-nan
11273.6	-nan
11285.2	-nan
11297.2	-nan
11309.4	-nan
11321.8	-nan
11334.5	-nan
11347.5	-nan
11360.4	-nan
11373.4	-nan
11386.3	-nan
11399.2	-nan
11412.2	-nan
11425.1	-nan
11431	-nan
11435.9	-nan
11437.9	-nan
11443	-nan
11443.1	-nan
11443.1	-nan
11450.2	-nan
11460.3	-nan
11471	-nan
11481.3	-nan
11490.4	-nan
11502.2	-nan
11511.2	-nan
11522.1	-nan
11530.5	-nan
11544.7	-nan
11555.4	-nan
11561.1	-nan
11573.1	-nan
11586.3	-nan
11593.5	-nan
11601.2	-nan
11618	-nan
11627.3	-nan
11637.2	-nan
11648	-nan
11659.7	-nan
11672.6	-nan
11685.6	-nan
11698.5	-nan
11711.5	-nan
11724.4	-nan
11737.4	-nan
11750.3	-nan
11763.3	-nan
11776.2	-nan
11789.1	-nan
11802.1	-nan
11815	-nan
11828	-nan
11840.9	-nan
11853.9	-nan
11866.8	-nan
11878	-nan
11890.9	-nan
11903.9	-nan
11916.8	-nan
11929.8	-nan
11941.1	-nan
11946.3	-nan
11959.2	-nan
11972.2	-nan
11985.1	-nan
11998	-nan
12011	-nan
12023.9	-nan
12036.9	-nan
12049.8	-nan
12062.8	-nan
12075.7	-nan
12088.7	-nan
12101.6	-nan
12114.6	-nan
12127.5	-nan
12140.5	-nan
12153.4	-nan
12166.3	-nan
12179.3	-nan
12192.2	-nan
12205.2	-nan
12218.1	-nan
12231.1	-nan
12244	-nan
12257	-nan
12257.8	-nan
12260.6	-nan
12263.3	-nan
12266.2	-nan
12269.2	-nan
12272.3	-nan
12275.5	-nan
12278.9	-nan
12282.6	-nan
12286.2	-nan
12289.9	-nan
12293.6	-nan
12297.3	-nan
12300.9	-nan
12304.6	-nan
12308.3	-nan
12311.9	-nan
12315.6	-nan
12319.3	-nan
12323.2	-nan
12332.5	-nan
12343.5	-nan
12350	-nan
12360	-nan
12370.2	-nan
12380.3	-nan
12391	-nan
12400.3	-nan
12411.1	-nan
12421.4	-nan
12430.5	-nan
12441.3	-nan
12452	-nan
12461.4	-nan
12471.5	-nan
12480.2	-nan
12490.8	-nan
12502.8	-nan
12511.5	-nan
12521.8	-nan
12533.7	-nan
12540.2	-nan
12554.3	-nan
12562	-nan
12578.5	-nan
12587.2	-nan
12596	-nan
12604.8	-nan
12613.8	-nan
12623	-nan
12632.2	-nan
12641.7	-nan
12651.4	-nan
12661.4	-nan
12671.8	-nan
12682.4	-nan
12693.4	-nan
12704.8	-nan
12716.6	-nan
12728.8	-nan
12741.5	-nan
12754.4	-nan
12767.4	-nan
12779.2	-nan
12788	-nan
12801	-nan
12813.9	-nan
12826.9	-nan
12839.8	-nan
12852.7	-nan
12865.7	-nan
12878.6	-nan
12891.6	-nan
12904.5	-nan
12917.5	-nan
12930.4	-nan
12943.4	-nan
12956.3	-nan
12969.3	-nan
12982.2	-nan
12995.1	-nan
13008.1	-nan
13021	-nan
13034	-nan
13046.9	-nan
13059.9	-nan
13072.8	-nan
13085.8	-nan
13098.7	-nan
13111.7	-nan
13124.6	-nan
13137.5	-nan
13150.5	-nan
13163.4	-nan
13176.4	-nan
13189.3	-nan
13202.3	-nan
13215.2	-nan
13228.2	-nan
13241.1	-nan
13254.1	-nan
13267	-nan
13279.9	-nan
13292.9	-nan
13305.8	-nan
13318.8	-nan
13331.7	-nan
13344.7	-nan
13357.6	-nan
13370.6	-nan
13383.5	-nan
13396.5	-nan
13409.4	-nan
13422.4	-nan
13435.3	-nan
13448.2	-nan
13461.2	-nan
13474.1	-nan
13483.1	-nan
13496	-nan
13508.9	-nan
13521.9	-nan
13534.8	-nan
13547.8	-nan
13560.7	-nan
13573.7	-nan
13586.6	-nan
13599.6	-nan
13612.5	-nan
13625.5	-nan
13638.4	-nan
13651.3	-nan
13664.3	-nan
13677.2	-nan
13688.8	-nan
13701.8	-nan
13714.7	-nan
13727.7	-nan
13740.6	-nan
13753.6	-nan
13766.5	-nan
13779.5	-nan
13792.4	-nan
13805.4	-nan
13818.3	-nan
13831.2	-nan
13844.2	-nan
13857.1	-nan
13870.1	-nan
13883	-nan
13896	-nan
13908.9	-nan
13921.9	-nan
13934.8	-nan
13947.8	-nan
13960.7	-nan
13973.7	-nan
13986.6	-nan
13999.5	-nan
14012.5	-nan
14025.4	-nan
14038.4	-nan
14051.3	-nan
14064.3	-nan
14077.2	-nan
14090.2	-nan
14103.1	-nan
14116.1	-nan
14129	-nan
14141.9	-nan
14154.9	-nan
14167.8	-nan
14180.8	-nan
14193.7	-nan
14206.7	-nan
14219.6	-nan
14231.7	-nan
14244.5	-nan
14257.5	-nan
14270.4	-nan
14283.4	-nan
14296.3	-nan
14309.3	-nan
14322.2	-nan
14335.1	-nan
14348.1	-nan
14361	-nan
14374	-nan
14386.9	-nan
14399.9	-nan
14412.8	-nan
14425.8	-nan
14438.7	-nan
14451.7	-nan
14464.6	-nan
14477.5	-nan
14490.5	-nan
14503.4	-nan
14516.4	-nan
14529.3	-nan
14542.3	-nan
14555.2	-nan
14565.8	-nan
14578.8	-nan
14591.7	-nan
14604.7	-nan
14617.6	-nan
14630.6	-nan
14643.5	-nan
14656.5	-nan
14669.4	-nan
14682.4	-nan
14695.3	-nan
14708.2	-nan
14721.2	-nan
14734.1	-nan
14747.1	-nan
14760	-nan
14773	-nan
14785.9	-nan
14798.9	-nan
14811.8	-nan
14824.8	-nan
14837.7	-nan
14850.7	-nan
14863.6	-nan
14876.5	-nan
14889.5	-nan
14902.4	-nan
14915.4	-nan
14928.3	-nan
14941.3	-nan
14954.2	-nan
14967.2	-nan
14980.1	-nan
14993.1	-nan
15006	-nan
15018.9	-nan
15031.9	-nan
15044.8	-nan
15045.7	-nan
15047.7	-nan
15049.8	-nan
15051.8	-nan
15053.9	-nan
15056.1	-nan
15058.3	-nan
15060.4	-nan
15062.5	-nan
15064.6	-nan
15066.7	-nan
15069	-nan
15071.3	-nan
15073.7	-nan
15086.7	-nan
15099.6	-nan
15112.6	-nan
15125.5	-nan
15138.5	-nan
15151.4	-nan
15164.3	-nan
15177.3	-nan
15190.2	-nan
15203.2	-nan
15216.1	-nan
15217.4	-nan
15219.6	-nan
15221.6	-nan
15223.8	-nan
15226	-nan
15228.3	-nan
15230.6	-nan
15232.8	-nan
15235.1	-nan
15237.4	-nan
15239.8	-nan
15242.1	-nan
15244.4	-nan
15257.3	-nan
15270.2	-nan
15283.2	-nan
15296.1	-nan
15309.1	-nan
15322	-nan
15335	-nan
15347.9	-nan
15360.9	-nan
15373.8	-nan
15386.8	-nan
15399.7	-nan
15412.7	-nan
15425.6	-nan
15438.5	-nan
15451.5	-nan
15464.4	-nan
15477.4	-nan
15490.3	-nan
15503.3	-nan
15516.2	-nan
15529.2	-nan
15542.1	-nan
15555.1	-nan
15568	-nan
15580.9	-nan
15593.9	-nan
15606.8	-nan
15619.8	-nan
15632.7	-nan
15645.7	-nan
15658.6	-nan
15671.6	-nan
15684.5	-nan
15697.5	-nan
15697.5	-nan
15697.6	-nan
15697.6	-nan
15697.6	-nan
15697.7	-nan
15697.7	-nan
15697.8	-nan
15697.8	-nan
15697.9	-nan
15697.9	-nan
15698	-nan
15698	-nan
15698	-nan
15698.1	-nan
15698.1	-nan
15698.2	-nan
15698.2	-nan
15698.3	-nan
15698.3	-nan
15698.4	-nan
15698.4	-nan
15698.4	-nan
15698.5	-nan
15698.5	-nan
15698.6	-nan
15698.6	-nan
15698.7	-nan
15698.9	-nan
15699.1	-nan
15699.3	-nan
15699.6	-nan
15700	-nan
15700.4	-nan
15700.8	-nan
15701.3	-nan
15701.8	-nan
15702.4	-nan
15702.9	-nan
15703.5	-nan
15704.1	-nan
15704.6	-nan
15705.2	-nan
15705.8	-nan
15706.4	-nan
15707	-nan
15710.3	-nan
15722.2	-nan
15732.2	-nan
15741.7	-nan
15753.6	-nan
15763.5	-nan
15775.4	-nan
15783.1	-nan
15791.9	-nan
15801.8	-nan
15813.6	-nan
15826.5	-nan
15839.5	-nan
15852.4	-nan
15865.4	-nan
15878.3	-nan
15891.3	-nan
15904.2	-nan
15904.2	-nan
15904.2	-nan
15910	-nan
15920.1	-nan
15930.3	-nan
15940.4	-nan
15950.3	-nan
15960.3	-nan
15970.2	-nan
15980.3	-nan
15990.4	-nan
16000.4	-nan
16011	-nan
16020.8	-nan
16030.6	-nan
16040.2	-nan
16050.7	-nan
16061.7	-nan
16070.3	-nan
16082.2	-nan
16091.3	-nan
16100.5	-nan
16112.8	-nan
16123.4	-nan
16134.3	-nan
16145.1	-nan
16150.6	-nan
16163.1	-nan
16176.2	-nan
16183	-nan
16190	-nan
16205	-nan
16213	-nan
16221.3	-nan
16230.1	-nan
16248.6	-nan
16258.8	-nan
16269.6	-nan
16280.9	-nan
16292.7	-nan
16305	-nan
16317.8	-nan
16330.7	-nan
16343.7	-nan
16356.6	-nan
16369.5	-nan
16382.5	-nan
16395.4	-nan
16408.4	-nan
16421.3	-nan
16434.3	-nan
16447.2	-nan
16460.2	-nan
16473.1	-nan
16486.1	-nan
16499	-nan
16511.9	-nan
16524.9	-nan
16537.8	-nan
16550.8	-nan
16563.7	-nan
16576.7	-nan
16589.6	-nan
16602.6	-nan
16615.5	-nan
16628.5	-nan
16641.4	-nan
16654.3	-nan
16667.3	-nan
16680.2	-nan
16693.2	-nan
16706.1	-nan
16719.1	-nan
16732	-nan
16745	-nan
16757.9	-nan
16770.9	-nan
16783.8	-nan
16796.8	-nan
16809.7	-nan
16822.6	-nan
16835.6	-nan
16848.5	-nan
16861.5	-nan
16874.4	-nan
16887.4	-nan
16900.3	-nan
16913.3	-nan
16926.2	-nan
16939.2	-nan
16952.1	-nan
16965	-nan
16978	-nan
16990.9	-nan
17003.9	-nan
17016.8	-nan
17029.8	-nan
17042.7	-nan
17055.7	-nan
17068.6	-nan
17081.6	-nan
17094.5	-nan
17107.4	-nan
17120.4	-nan
17133.3	-nan
17146.3	-nan
17159.2	-nan
17172.2	-nan
17185.1	-nan
17198.1	-nan
17211	-nan
17224	-nan
17236.9	-nan
17249.8	-nan
17262.8	-nan
17275.7	-nan
17288.7	-nan
17301.6	-nan
17314.6	-nan
17327.5	-nan
17340.5	-nan
17353.4	-nan
17366.4	-nan
17379.3	-nan
17392.2	-nan
17405.2	-nan
17418.1	-nan
17431.1	-nan
17444	-nan
17457	-nan
17469.9	-nan
17482.9	-nan
17495.8	-nan
17508.8	-nan
17521.7	-nan
17534.6	-nan
17547.6	-nan
17560.5	-nan
17573.5	-nan
17586.4	-nan
17599.4	-nan
17612.3	-nan
17625.3	-nan
17638.2	-nan
17651.2	-nan
17664.1	-nan
17677	-nan
17690	-nan
17702.9	-nan
17715.9	-nan
17728.8	-nan
17741.8	-nan
17754.7	-nan
17767.7	-nan
17780.6	-nan
17793.6	-nan
17806.5	-nan
17819.5	-nan
17832.4	-nan
17845.3	-nan
17858.3	-nan
17871.2	-nan
17884.2	-nan
17897.1	-nan
17910.1	-nan
17923	-nan
17936	-nan
17948.9	-nan
17961.9	-nan
17974.8	-nan
17987.7	-nan
18000.7	-nan
18013.6	-nan
18026.6	-nan
18039.5	-nan
18052.5	-nan
18065.4	-nan
18078.4	-nan
18091.3	-nan
18104.3	-nan
18117.2	-nan
18130.1	-nan
18143.1	-nan
18156	-nan
18169	-nan
18181.9	-nan
18194.9	-nan
18207.8	-nan
18220.8	-nan
18233.7	-nan
18246.7	-nan
18259.6	-nan
18272.5	-nan
18285.5	-nan
18298.4	-nan
18311.4	-nan
18324.3	-nan
18337.3	-nan
18350.2	-nan
18363.2	-nan
18376.1	-nan
18389.1	-nan
18402	-nan
18414.9	-nan
18427.9	-nan
18440.8	-nan
18453.8	-nan
18466.7	-nan
18479.7	-nan
18492.6	-nan
18505.6	-nan
18518.5	-nan
18531.5	-nan
18544.4	-nan
18557.3	-nan
18570.3	-nan
18583.2	-nan
18596.2	-nan
18609.1	-nan
18622.1	-nan
18635	-nan
18648	-nan
18660.9	-nan
18673.9	-nan
18686.8	-nan
18699.7	-nan
18712.7	-nan
18725.6	-nan
18738.6	-nan
18751.5	-nan
18764.5	-nan
18777.4	-nan
18790.4	-nan
18803.3	-nan
18816.3	-nan
18829.2	-nan
18842.1	-nan
18855.1	-nan
18868	-nan
18881	-nan
18893.9	-nan
18906.9	-nan
18919.8	-nan
18932.8	-nan
18945.7	-nan
18958.7	-nan
18971.6	-nan
18984.6	-nan
18997.5	-nan
19010.4	-nan
19023.4	-nan
19036.3	-nan
19049.3	-nan
19062.2	-nan
19075.2	-nan
19088.1	-nan
19101.1	-nan
19114	-nan
19127	-nan
19139.9	-nan
19152.8	-nan
19165.8	-nan
19178.7	-nan
19191.7	-nan
19204.6	-nan
19217.6	-nan
19230.5	-nan
19243.5	-nan
19256.4	-nan
19269.4	-nan
19282.3	-nan
19295.2	-nan
19308.2	-nan
19321.1	-nan
19334.1	-nan
19347	-nan
19360	-nan
19372.9	-nan
19385.9	-nan
19398.8	-nan
19411.8	-nan
19424.7	-nan
19437.6	-nan
19450.6	-nan
19463.5	-nan
19476.5	-nan
19489.4	-nan
19502.4	-nan
19515.3	-nan
19528.3	-nan
19541.2	-nan
19554.2	-nan
19567.1	-nan
19580	-nan
19593	-nan
19605.9	-nan
19618.9	-nan
19631.8	-nan
19644.8	-nan
19657.7	-nan
19670.7	-nan
19683.6	-nan
19696.6	-nan
19709.5	-nan
19722.4	-nan
19735.4	-nan
19748.3	-nan
19761.3	-nan
19774.2	-nan
19787.2	-nan
19800.1	-nan
19813.1	-nan
19826	-nan
19839	-nan
19851.9	-nan
19864.8	-nan
19877.8	-nan
19890.7	-nan
19903.7	-nan
19916.6	-nan
19929.6	-nan
19942.5	-nan
19955.5	-nan
19968.4	-nan
19981.4	-nan
19994.3	-nan
