0	0
14.7745	0
29.5491	0
44.3236	0
59.0981	0
73.8727	0
88.6472	0
103.422	0
118.196	0
132.971	0
147.745	0
162.52	0
177.294	0
192.069	0
206.843	0
221.618	0
236.393	0
251.167	0
265.942	0
280.716	0
295.491	0
310.265	0
325.04	0
339.814	0
354.589	0
369.363	9.09495e-13
384.138	3.63798e-12
398.912	1.27329e-11
413.687	3.72893e-11
428.462	1.04592e-10
443.236	2.73758e-10
458.011	6.83031e-10
472.785	1.62618e-09
487.56	3.7071e-09
502.334	8.11906e-09
517.109	1.71294e-08
531.883	3.49019e-08
546.658	6.88287e-08
561.432	1.31642e-07
576.207	2.44647e-07
590.981	4.42553e-07
605.756	7.80506e-07
620.53	1.34409e-06
635.305	2.26324e-06
650.08	3.7313e-06
664.854	6.03043e-06
679.629	9.5653e-06
694.403	1.49067e-05
709.178	2.28474e-05
723.952	3.44732e-05
738.727	5.12508e-05
753.501	7.51374e-05
768.276	0.000108715
783.05	0.000155349
797.825	0.000219389
812.599	0.000306387
827.374	0.000423378
842.149	0.000579183
856.923	0.000784769
871.698	0.00105364
886.472	0.00140231
901.247	0.00185075
916.021	0.00242293
930.796	0.00314738
945.57	0.00405769
960.345	0.00519315
975.119	0.00659919
989.894	0.00832789
1004.67	0.0104384
1019.44	0.0129971
1034.22	0.0160779
1048.99	0.019762
1063.77	0.0241379
1078.54	0.0293006
1093.32	0.0353508
1108.09	0.0423943
1122.86	0.0505399
1137.64	0.0598983
1152.41	0.0705798
1167.19	0.082692
1181.96	0.0963375
1196.74	0.111611
1211.51	0.128595
1226.29	0.147361
1241.06	0.16796
1255.84	0.190425
1270.61	0.214765
1285.38	0.240965
1300.16	0.26898
1314.93	0.298736
1329.71	0.330126
1344.48	0.363014
1359.26	0.397226
1374.03	0.432559
1388.81	0.468776
1403.58	0.505612
1418.36	0.542772
1433.13	0.579937
1447.9	0.616767
1462.68	0.652902
1477.45	0.687974
1492.23	0.721603
1507	0.753408
1521.78	0.783012
1536.55	0.810047
1551.33	0.834157
1566.1	0.855008
1580.88	0.872293
1595.65	0.88573
1610.42	0.895077
1625.2	0.900128
1639.97	0.900719
1654.75	0.896731
1669.52	0.888093
1684.3	0.874781
1699.07	0.856819
1713.85	0.83428
1728.62	0.807286
1743.4	0.776001
1758.17	0.740637
1772.94	0.701442
1787.72	0.658705
1802.49	0.612745
1817.27	0.563911
1832.04	0.512576
1846.82	0.459131
1861.59	0.403984
1876.37	0.347548
1891.14	0.290242
1905.92	0.232485
1920.69	0.174688
1935.46	0.117254
1950.24	0.0605692
1965.01	0.00500323
1979.79	-0.0490972
1994.56	-0.10141
2009.34	-0.15164
2024.11	-0.199521
2038.89	-0.244821
2053.66	-0.287336
2068.43	-0.326898
2083.21	-0.36337
2097.98	-0.396649
2112.76	-0.426666
2127.53	-0.45338
2142.31	-0.476782
2157.08	-0.496892
2171.86	-0.513756
2186.63	-0.527444
2201.41	-0.53805
2216.18	-0.545687
2230.95	-0.550488
2245.73	-0.552597
2260.5	-0.552175
2275.28	-0.549393
2290.05	-0.544427
2304.83	-0.537463
2319.6	-0.528688
2334.38	-0.518291
2349.15	-0.506462
2363.93	-0.493386
2378.7	-0.479248
2393.47	-0.464225
2408.25	-0.448488
2423.02	-0.432202
2437.8	-0.415522
2452.57	-0.398594
2467.35	-0.381556
2482.12	-0.364532
2496.9	-0.347638
2511.67	-0.330981
2526.45	-0.314652
2541.22	-0.298736
2555.99	-0.283306
2570.77	-0.268424
2585.54	-0.254143
2600.32	-0.240505
2615.09	-0.227545
2629.87	-0.215288
2644.64	-0.203752
2659.42	-0.192947
2674.19	-0.182876
2688.97	-0.173536
2703.74	-0.164918
2718.51	-0.157009
2733.29	-0.149791
2748.06	-0.143241
2762.84	-0.137335
2777.61	-0.132043
2792.39	-0.127337
2807.16	-0.123183
2821.94	-0.119548
2836.71	-0.116397
2851.49	-0.113695
2866.26	-0.111407
2881.03	-0.109498
2895.81	-0.107932
2910.58	-0.106674
2925.36	-0.105692
2940.13	-0.104953
2954.91	-0.104425
2969.68	-0.104079
2984.46	-0.103885
2999.23	-0.103816
3014	-0.103847
3028.78	-0.103954
3043.55	-0.104114
3058.33	-0.104307
3073.1	-0.104514
3087.88	-0.104717
3102.65	-0.104902
3117.42	-0.105052
3132.2	-0.105157
3146.97	-0.105205
3161.75	-0.105186
3176.52	-0.105092
3191.3	-0.104916
3206.07	-0.104653
3220.85	-0.104297
3235.62	-0.103845
3250.39	-0.103295
3265.17	-0.102645
3279.94	-0.101894
3294.72	-0.101043
3309.49	-0.100092
3324.27	-0.0990428
3339.04	-0.0978971
3353.81	-0.0966573
3368.59	-0.0953265
3383.36	-0.0939079
3398.14	-0.0924051
3412.91	-0.0908218
3427.68	-0.0891622
3442.46	-0.0874304
3457.23	-0.0856306
3472.01	-0.0837673
3486.78	-0.0818448
3501.56	-0.0798675
3516.33	-0.0778397
3531.1	-0.0757657
3545.88	-0.0736495
3560.65	-0.0714953
3575.43	-0.0693069
3590.2	-0.067088
3604.97	-0.0648422
3619.75	-0.062573
3634.52	-0.0602834
3649.3	-0.0579764
3664.07	-0.055655
3678.84	-0.0533216
3693.62	-0.0509788
3708.39	-0.0486286
3723.17	-0.0462731
3737.94	-0.0439143
3752.71	-0.0415537
3767.49	-0.0391928
3782.26	-0.036833
3797.04	-0.0344756
3811.81	-0.0321215
3826.58	-0.0297717
3841.36	-0.027427
3856.13	-0.0250883
3870.91	-0.0227561
3885.68	-0.0204311
3900.45	-0.0181137
3915.23	-0.0158044
3930	-0.0135037
3944.77	-0.0112119
3959.55	-0.00892949
3974.32	-0.00665684
3989.1	-0.00439434
4003.87	-0.00214238
4018.64	9.85948e-05
4033.42	0.00232814
4048.19	0.00454576
4062.97	0.00675093
4077.74	0.00894306
4092.51	0.0111215
4107.29	0.0132857
4122.06	0.0154347
4136.84	0.0175679
4151.61	0.0196843
4166.39	0.0217831
4181.16	0.0238633
4195.93	0.0259237
4210.71	0.0279634
4225.48	0.0299812
4240.26	0.0319758
4255.03	0.033946
4269.8	0.0358903
4284.58	0.0378076
4299.35	0.0396963
4314.13	0.0415549
4328.9	0.043382
4343.68	0.0451761
4358.45	0.0469354
4373.22	0.0486586
4388	0.0503438
4402.77	0.0519896
4417.55	0.0535943
4432.32	0.0551562
4447.1	0.0566736
4461.87	0.0581451
4476.64	0.0595688
4491.42	0.0609434
4506.19	0.062267
4520.97	0.0635383
4535.74	0.0647558
4550.52	0.0659179
4565.29	0.0670232
4580.07	0.0680705
4594.84	0.0690584
4609.62	0.0699857
4624.39	0.0708513
4639.16	0.0716541
4653.94	0.0723931
4668.71	0.0730675
4683.49	0.0736765
4698.26	0.0742194
4713.04	0.0746956
4727.81	0.0751046
4742.59	0.0754462
4757.36	0.0757201
4772.14	0.0759262
4786.91	0.0760645
4801.68	0.0761351
4816.46	0.0761384
4831.23	0.0760747
4846.01	0.0759445
4860.78	0.0757485
4875.56	0.0754876
4890.33	0.0751626
4905.11	0.0747746
4919.88	0.0743248
4934.65	0.0738144
4949.43	0.0732449
4964.2	0.0726178
4978.98	0.0719348
4993.75	0.0711976
5008.53	0.0704082
5023.3	0.0695683
5038.08	0.0686803
5052.85	0.067746
5067.62	0.0667679
5082.4	0.0657481
5097.17	0.0646891
5111.95	0.0635932
5126.72	0.062463
5141.5	0.0613009
5156.27	0.0601095
5171.05	0.0588913
5185.82	0.0576491
5200.6	0.0563853
5215.37	0.0551027
5230.14	0.0538037
5244.92	0.0524911
5259.69	0.0511673
5274.47	0.0498349
5289.24	0.0484965
5304.02	0.0471544
5318.79	0.0458111
5333.57	0.044469
5348.34	0.0431303
5363.11	0.0417973
5377.89	0.040472
5392.66	0.0391566
5407.44	0.037853
5422.21	0.036563
5436.99	0.0352885
5451.76	0.0340311
5466.54	0.0327924
5481.31	0.0315737
5496.09	0.0303765
5510.86	0.029202
5525.63	0.0280512
5540.41	0.0269251
5555.18	0.0258246
5569.96	0.0247505
5584.73	0.0237033
5599.51	0.0226835
5614.28	0.0216915
5629.06	0.0207275
5643.83	0.0197918
5658.6	0.0188841
5673.38	0.0180046
5688.15	0.0171529
5702.93	0.0163288
5717.7	0.0155317
5732.48	0.0147612
5747.25	0.0140167
5762.03	0.0132974
5776.8	0.0126024
5791.58	0.011931
5806.35	0.0112821
5821.12	0.0106547
5835.9	0.0100477
5850.67	0.00945991
5865.45	0.00889007
5880.22	0.00833693
5895	0.00779917
5909.77	0.00727543
5924.55	0.00676433
5939.32	0.00626446
5954.09	0.00577438
5968.87	0.00529267
5983.64	0.00481787
5998.42	0.00434855
6013.19	0.00388326
6027.97	0.0034206
6042.74	0.00295914
6057.52	0.00249751
6072.29	0.00203436
6087.07	0.00156837
6101.84	0.00109826
6116.61	0.000622799
6131.39	0.00014079
6146.16	-0.000348902
6160.94	-0.000847359
6175.71	-0.00135561
6190.49	-0.00187461
6205.26	-0.00240527
6220.04	-0.00294842
6234.81	-0.00350482
6249.59	-0.00407519
6264.36	-0.00466013
6279.13	-0.00526021
6293.91	-0.00587591
6308.68	-0.00650764
6323.46	-0.00715573
6338.23	-0.00782045
6353.01	-0.008502
6367.78	-0.00920048
6382.56	-0.00991596
6397.33	-0.0106484
6412.11	-0.0113977
6426.88	-0.0121638
6441.65	-0.0129464
6456.43	-0.0137452
6471.2	-0.0145599
6485.98	-0.0153902
6500.75	-0.0162354
6515.53	-0.0170952
6530.3	-0.017969
6545.08	-0.0188562
6559.85	-0.0197561
6574.63	-0.020668
6589.4	-0.0215913
6604.17	-0.0225251
6618.95	-0.0234686
6633.72	-0.0244211
6648.5	-0.0253816
6663.27	-0.0263493
6678.05	-0.0273233
6692.82	-0.0283026
6707.6	-0.0292864
6722.37	-0.0302735
6737.15	-0.0312631
6751.92	-0.0322542
6766.69	-0.0332458
6781.47	-0.0342369
6796.24	-0.0352265
6811.02	-0.0362136
6825.79	-0.0371971
6840.57	-0.0381762
6855.34	-0.0391497
6870.12	-0.0401167
6884.89	-0.0410761
6899.67	-0.0420271
6914.44	-0.0429687
6929.21	-0.0438998
6943.99	-0.0448196
6958.76	-0.045727
6973.54	-0.0466212
6988.31	-0.0475012
7003.09	-0.0483662
7017.86	-0.0492153
7032.64	-0.0500476
7047.41	-0.0508622
7062.19	-0.0516584
7076.96	-0.0524354
7091.73	-0.0531923
7106.51	-0.0539284
7121.28	-0.054643
7136.06	-0.0553353
7150.83	-0.0560046
7165.61	-0.0566503
7180.38	-0.0572717
7195.16	-0.0578682
7209.93	-0.0584392
7224.71	-0.0589842
7239.48	-0.0595025
7254.25	-0.0599937
7269.03	-0.0604573
7283.8	-0.0608928
7298.58	-0.0612997
7313.35	-0.0616778
7328.13	-0.0620265
7342.9	-0.0623456
7357.68	-0.0626348
7372.45	-0.0628937
7387.23	-0.0631221
7402	-0.0633198
7416.77	-0.0634866
7431.55	-0.0636224
7446.32	-0.0637269
7461.1	-0.0638002
7475.87	-0.0638421
7490.65	-0.0638527
7505.42	-0.0638319
7520.2	-0.0637797
7534.97	-0.0636962
7549.74	-0.0635816
7564.52	-0.0634359
7579.29	-0.0632593
7594.07	-0.063052
7608.84	-0.0628142
7623.62	-0.0625462
7638.39	-0.0622482
7653.17	-0.0619206
7667.94	-0.0615636
7682.71	-0.0611777
7697.49	-0.0607632
7712.26	-0.0603206
7727.04	-0.0598502
7741.81	-0.0593526
7756.59	-0.0588282
7771.36	-0.0582776
7786.14	-0.0577012
7800.91	-0.0570997
7815.68	-0.0564736
7830.46	-0.0558234
7845.23	-0.0551498
7860.01	-0.0544534
7874.78	-0.0537349
7889.56	-0.0529949
7904.33	-0.052234
7919.11	-0.0514529
7933.88	-0.0506524
7948.65	-0.0498331
7963.43	-0.0489957
7978.2	-0.0481409
7992.98	-0.0472694
8007.75	-0.0463821
8022.53	-0.0454795
8037.3	-0.0445625
8052.08	-0.0436317
8066.85	-0.0426879
8081.62	-0.0417319
8096.4	-0.0407644
8111.17	-0.039786
8125.95	-0.0387976
8140.72	-0.0378
8155.5	-0.0367937
8170.27	-0.0357796
8185.05	-0.0347583
8199.82	-0.0337307
8214.59	-0.0326974
8229.37	-0.0316591
8244.14	-0.0306166
8258.92	-0.0295705
8273.69	-0.0285215
8288.47	-0.0274704
8303.24	-0.0264178
8318.02	-0.0253643
8332.79	-0.0243108
8347.56	-0.0232577
8362.34	-0.0222059
8377.11	-0.0211558
8391.89	-0.0201082
8406.66	-0.0190638
8421.44	-0.018023
8436.21	-0.0169866
8450.99	-0.0159551
8465.76	-0.0149292
8480.53	-0.0139095
8495.31	-0.0128964
8510.08	-0.0118907
8524.86	-0.0108929
8539.63	-0.00990344
8554.41	-0.00892301
8569.18	-0.00795211
8583.96	-0.00699127
8598.73	-0.00604101
8613.5	-0.00510186
8628.28	-0.00417431
8643.05	-0.00325887
8657.83	-0.00235601
8672.6	-0.00146622
8687.38	-0.000589956
8702.15	0.000272326
8716.93	0.00112018
8731.7	0.00195318
8746.48	0.0027709
8761.25	0.00357294
8776.02	0.00435891
8790.8	0.00512841
8805.57	0.00588109
8820.35	0.00661659
8835.12	0.00733458
8849.9	0.00803472
8864.67	0.00871671
8879.45	0.00938026
8894.22	0.0100251
8908.99	0.010651
8923.77	0.0112576
8938.54	0.0118448
8953.32	0.0124123
8968.09	0.0129601
8982.87	0.0134878
8997.64	0.0139953
9012.42	0.0144826
9027.19	0.0149495
9041.96	0.015396
9056.74	0.0158219
9071.51	0.0162272
9086.29	0.016612
9101.06	0.0169761
9115.84	0.0173196
9130.61	0.0176427
9145.39	0.0179452
9160.16	0.0182274
9174.94	0.0184893
9189.71	0.0187311
9204.48	0.0189528
9219.26	0.0191548
9234.03	0.0193372
9248.81	0.0195002
9263.58	0.019644
9278.36	0.019769
9293.13	0.0198754
9307.91	0.0199634
9322.68	0.0200335
9337.45	0.020086
9352.23	0.0201212
9367	0.0201395
9381.78	0.0201413
9396.55	0.020127
9411.33	0.020097
9426.1	0.0200518
9440.88	0.0199919
9455.65	0.0199176
9470.43	0.0198295
9485.2	0.019728
9499.97	0.0196137
9514.75	0.019487
9529.52	0.0193485
9544.3	0.0191987
9559.07	0.0190381
9573.85	0.0188672
9588.62	0.0186866
9603.4	0.0184968
9618.17	0.0182984
9632.94	0.0180918
9647.72	0.0178775
9662.49	0.0176562
9677.27	0.0174284
9692.04	0.0171944
9706.82	0.016955
9721.59	0.0167105
9736.37	0.0164614
9751.14	0.0162083
9765.92	0.0159516
9780.69	0.0156917
9795.46	0.0154292
9810.24	0.0151644
9825.01	0.0148977
9839.79	0.0146297
9854.56	0.0143605
9869.34	0.0140907
9884.11	0.0138206
9898.89	0.0135504
9913.66	0.0132806
9928.44	0.0130114
9943.21	0.0127431
9957.98	0.0124759
9972.76	0.0122101
9987.53	0.0119458
10002.3	0.0116834
10017.1	0.0114229
10031.9	0.0111646
10046.6	0.0109084
10061.4	0.0106547
10076.2	0.0104033
10091	0.0101545
10105.7	0.00990831
10120.5	0.00966467
10135.3	0.00942365
10150.1	0.00918524
10164.8	0.0089494
10179.6	0.0087161
10194.4	0.00848529
10209.2	0.00825688
10223.9	0.00803078
10238.7	0.00780689
10253.5	0.00758509
10268.2	0.00736524
10283	0.00714721
10297.8	0.00693082
10312.6	0.00671593
10327.3	0.00650234
10342.1	0.00628987
10356.9	0.00607833
10371.7	0.00586753
10386.4	0.00565724
10401.2	0.00544727
10416	0.00523739
10430.8	0.0050274
10445.5	0.00481706
10460.3	0.00460617
10475.1	0.00439449
10489.9	0.00418182
10504.6	0.00396792
10519.4	0.0037526
10534.2	0.00353563
10549	0.00331681
10563.7	0.00309594
10578.5	0.00287283
10593.3	0.00264728
10608.1	0.00241911
10622.8	0.00218816
10637.6	0.00195426
10652.4	0.00171725
10667.2	0.00147699
10681.9	0.00123335
10696.7	0.0009862
10711.5	0.000735437
10726.3	0.000480959
10741	0.000222679
10755.8	-3.94778e-05
10770.6	-0.000305572
10785.4	-0.000575652
10800.1	-0.000849754
10814.9	-0.0011279
10829.7	-0.0014101
10844.5	-0.00169634
10859.2	-0.00198662
10874	-0.00228089
10888.8	-0.00257911
10903.6	-0.00288123
10918.3	-0.00318717
10933.1	-0.00349685
10947.9	-0.00381018
10962.7	-0.00412704
10977.4	-0.00444732
10992.2	-0.00477087
11007	-0.00509757
11021.8	-0.00542725
11036.5	-0.00575975
11051.3	-0.0060949
11066.1	-0.00643251
11080.8	-0.00677238
11095.6	-0.00711432
11110.4	-0.00745812
11125.2	-0.00780355
11139.9	-0.0081504
11154.7	-0.00849842
11169.5	-0.0088474
11184.3	-0.00919708
11199	-0.00954721
11213.8	-0.00989756
11228.6	-0.0102479
11243.4	-0.0105978
11258.1	-0.0109473
11272.9	-0.0112959
11287.7	-0.0116434
11302.5	-0.0119896
11317.2	-0.0123342
11332	-0.0126769
11346.8	-0.0130174
11361.6	-0.0133556
11376.3	-0.0136912
11391.1	-0.0140238
11405.9	-0.0143533
11420.7	-0.0146795
11435.4	-0.015002
11450.2	-0.0153206
11465	-0.0156352
11479.8	-0.0159455
11494.5	-0.0162512
11509.3	-0.0165522
11524.1	-0.0168482
11538.9	-0.0171392
11553.6	-0.0174248
11568.4	-0.0177049
11583.2	-0.0179794
11598	-0.018248
11612.7	-0.0185107
11627.5	-0.0187673
11642.3	-0.0190176
11657.1	-0.0192616
11671.8	-0.0194991
11686.6	-0.01973
11701.4	-0.0199543
11716.2	-0.0201718
11730.9	-0.0203825
11745.7	-0.0205863
11760.5	-0.0207833
11775.3	-0.0209732
11790	-0.0211562
11804.8	-0.0213323
11819.6	-0.0215013
11834.3	-0.0216633
11849.1	-0.0218183
11863.9	-0.0219664
11878.7	-0.0221076
11893.4	-0.0222419
11908.2	-0.0223694
11923	-0.0224902
11937.8	-0.0226042
11952.5	-0.0227117
11967.3	-0.0228127
11982.1	-0.0229072
11996.9	-0.0229955
12011.6	-0.0230775
12026.4	-0.0231535
12041.2	-0.0232236
12056	-0.0232878
12070.7	-0.0233463
12085.5	-0.0233994
12100.3	-0.023447
12115.1	-0.0234894
12129.8	-0.0235267
12144.6	-0.0235591
12159.4	-0.0235867
12174.2	-0.0236098
12188.9	-0.0236284
12203.7	-0.0236428
12218.5	-0.0236531
12233.3	-0.0236594
12248	-0.023662
12262.8	-0.0236611
12277.6	-0.0236567
12292.4	-0.0236491
12307.1	-0.0236384
12321.9	-0.0236248
12336.7	-0.0236084
12351.5	-0.0235895
12366.2	-0.0235681
12381	-0.0235445
12395.8	-0.0235187
12410.6	-0.0234909
12425.3	-0.0234612
12440.1	-0.0234299
12454.9	-0.0233969
12469.7	-0.0233625
12484.4	-0.0233267
12499.2	-0.0232896
12514	-0.0232515
12528.8	-0.0232123
12543.5	-0.0231721
12558.3	-0.0231311
12573.1	-0.0230893
12587.9	-0.0230468
12602.6	-0.0230036
12617.4	-0.0229598
12632.2	-0.0229155
12646.9	-0.0228706
12661.7	-0.0228253
12676.5	-0.0227796
12691.3	-0.0227334
12706	-0.0226868
12720.8	-0.0226398
12735.6	-0.0225924
12750.4	-0.0225446
12765.1	-0.0224963
12779.9	-0.0224476
12794.7	-0.0223984
12809.5	-0.0223487
12824.2	-0.0222984
12839	-0.0222475
12853.8	-0.022196
12868.6	-0.0221437
12883.3	-0.0220907
12898.1	-0.0220368
12912.9	-0.0219821
12927.7	-0.0219263
12942.4	-0.0218695
12957.2	-0.0218115
12972	-0.0217522
12986.8	-0.0216917
13001.5	-0.0216297
13016.3	-0.0215662
13031.1	-0.0215011
13045.9	-0.0214342
13060.6	-0.0213656
13075.4	-0.021295
13090.2	-0.0212224
13105	-0.0211477
13119.7	-0.0210708
13134.5	-0.0209915
13149.3	-0.0209099
13164.1	-0.0208256
13178.8	-0.0207388
13193.6	-0.0206492
13208.4	-0.0205567
13223.2	-0.0204614
13237.9	-0.020363
13252.7	-0.0202615
13267.5	-0.0201568
13282.3	-0.0200488
13297	-0.0199375
13311.8	-0.0198227
13326.6	-0.0197043
13341.4	-0.0195824
13356.1	-0.0194569
13370.9	-0.0193276
13385.7	-0.0191945
13400.4	-0.0190576
13415.2	-0.0189168
13430	-0.0187721
13444.8	-0.0186234
13459.5	-0.0184707
13474.3	-0.018314
13489.1	-0.0181533
13503.9	-0.0179885
13518.6	-0.0178197
13533.4	-0.0176468
13548.2	-0.0174698
13563	-0.0172887
13577.7	-0.0171036
13592.5	-0.0169145
13607.3	-0.0167213
13622.1	-0.0165242
13636.8	-0.0163231
13651.6	-0.0161182
13666.4	-0.0159094
13681.2	-0.0156968
13695.9	-0.0154805
13710.7	-0.0152606
13725.5	-0.015037
13740.3	-0.0148099
13755	-0.0145794
13769.8	-0.0143455
13784.6	-0.0141084
13799.4	-0.0138681
13814.1	-0.0136248
13828.9	-0.0133785
13843.7	-0.0131293
13858.5	-0.0128775
13873.2	-0.012623
13888	-0.0123661
13902.8	-0.0121068
13917.6	-0.0118452
13932.3	-0.0115816
13947.1	-0.011316
13961.9	-0.0110486
13976.7	-0.0107796
13991.4	-0.010509
14006.2	-0.010237
14021	-0.00996375
14035.8	-0.00968943
14050.5	-0.00941418
14065.3	-0.00913815
14080.1	-0.00886148
14094.9	-0.00858434
14109.6	-0.00830688
14124.4	-0.00802925
14139.2	-0.0077516
14154	-0.0074741
14168.7	-0.0071969
14183.5	-0.00692014
14198.3	-0.00664399
14213	-0.00636859
14227.8	-0.00609409
14242.6	-0.00582064
14257.4	-0.00554839
14272.1	-0.00527749
14286.9	-0.00500806
14301.7	-0.00474026
14316.5	-0.00447422
14331.2	-0.00421007
14346	-0.00394794
14360.8	-0.00368797
14375.6	-0.00343028
14390.3	-0.00317498
14405.1	-0.00292221
14419.9	-0.00267206
14434.7	-0.00242465
14449.4	-0.00218009
14464.2	-0.00193847
14479	-0.0016999
14493.8	-0.00146447
14508.5	-0.00123227
14523.3	-0.00100337
14538.1	-0.00077787
14552.9	-0.000555833
14567.6	-0.000337334
14582.4	-0.000122437
14597.2	8.87976e-05
14612	0.000296312
14626.7	0.000500057
14641.5	0.000699983
14656.3	0.000896051
14671.1	0.00108822
14685.8	0.00127647
14700.6	0.00146075
14715.4	0.00164106
14730.2	0.00181738
14744.9	0.00198968
14759.7	0.00215797
14774.5	0.00232223
14789.3	0.00248248
14804	0.0026387
14818.8	0.00279092
14833.6	0.00293914
14848.4	0.00308339
14863.1	0.00322368
14877.9	0.00336004
14892.7	0.00349251
14907.5	0.0036211
14922.2	0.00374587
14937	0.00386685
14951.8	0.00398408
14966.5	0.00409762
14981.3	0.00420751
14996.1	0.00431381
15010.9	0.00441658
15025.6	0.00451587
15040.4	0.00461175
15055.2	0.00470428
15070	0.00479353
15084.7	0.00487957
15099.5	0.00496247
15114.3	0.00504231
15129.1	0.00511917
15143.8	0.00519312
15158.6	0.00526423
15173.4	0.00533261
15188.2	0.00539831
15202.9	0.00546144
15217.7	0.00552207
15232.5	0.00558029
15247.3	0.00563619
15262	0.00568986
15276.8	0.00574139
15291.6	0.00579085
15306.4	0.00583835
15321.1	0.00588397
15335.9	0.0059278
15350.7	0.00596994
15365.5	0.00601046
15380.2	0.00604947
15395	0.00608704
15409.8	0.00612326
15424.6	0.00615823
15439.3	0.00619202
15454.1	0.00622473
15468.9	0.00625643
15483.7	0.00628721
15498.4	0.00631715
15513.2	0.00634633
15528	0.00637483
15542.8	0.00640272
15557.5	0.00643007
15572.3	0.00645696
15587.1	0.00648346
15601.9	0.00650964
15616.6	0.00653556
15631.4	0.00656127
15646.2	0.00658685
15661	0.00661234
15675.7	0.00663781
15690.5	0.0066633
15705.3	0.00668885
15720.1	0.00671452
15734.8	0.00674034
15749.6	0.00676634
15764.4	0.00679257
15779.1	0.00681906
15793.9	0.00684581
15808.7	0.00687287
15823.5	0.00690024
15838.2	0.00692794
15853	0.00695597
15867.8	0.00698434
15882.6	0.00701306
15897.3	0.00704211
15912.1	0.00707149
15926.9	0.00710117
15941.7	0.00713116
15956.4	0.00716141
15971.2	0.0071919
15986	0.00722259
16000.8	0.00725346
16015.5	0.00728445
16030.3	0.00731552
16045.1	0.00734662
16059.9	0.00737768
16074.6	0.00740864
16089.4	0.00743943
16104.2	0.00746998
16119	0.00750022
16133.7	0.00753006
16148.5	0.00755941
16163.3	0.00758818
16178.1	0.00761627
16192.8	0.00764358
16207.6	0.00767
16222.4	0.00769543
16237.2	0.00771975
16251.9	0.00774284
16266.7	0.00776458
16281.5	0.00778484
16296.3	0.00780349
16311	0.0078204
16325.8	0.00783544
16340.6	0.00784845
16355.4	0.00785932
16370.1	0.00786787
16384.9	0.00787398
16399.7	0.0078775
16414.5	0.00787826
16429.2	0.00787613
16444	0.00787094
16458.8	0.00786255
16473.6	0.0078508
16488.3	0.00783554
16503.1	0.00781662
16517.9	0.00779387
16532.6	0.00776716
16547.4	0.00773632
16562.2	0.00770122
16577	0.00766169
16591.7	0.00761761
16606.5	0.00756883
16621.3	0.0075152
16636.1	0.0074566
16650.8	0.0073929
16665.6	0.00732396
16680.4	0.00724967
16695.2	0.00716992
16709.9	0.00708459
16724.7	0.00699357
16739.5	0.00689678
16754.3	0.00679411
16769	0.00668549
16783.8	0.00657085
16798.6	0.0064501
16813.4	0.0063232
16828.1	0.00619009
16842.9	0.00605074
16857.7	0.0059051
16872.5	0.00575315
16887.2	0.00559489
16902	0.00543031
16916.8	0.00525941
16931.6	0.00508223
16946.3	0.00489877
16961.1	0.0047091
16975.9	0.00451325
16990.7	0.00431129
17005.4	0.0041033
17020.2	0.00388936
17035	0.00366958
17049.8	0.00344405
17064.5	0.00321292
17079.3	0.0029763
17094.1	0.00273434
17108.9	0.00248721
17123.6	0.00223507
17138.4	0.00197811
17153.2	0.00171651
17168	0.00145049
17182.7	0.00118026
17197.5	0.000906037
17212.3	0.000628071
17227.1	0.000346606
17241.8	6.19014e-05
17256.6	-0.000225775
17271.4	-0.000516146
17286.2	-0.000808923
17300.9	-0.00110381
17315.7	-0.0014005
17330.5	-0.00169869
17345.2	-0.00199806
17360	-0.00229827
17374.8	-0.00259899
17389.6	-0.00289989
17404.3	-0.00320062
17419.1	-0.00350084
17433.9	-0.00380018
17448.7	-0.00409829
17463.4	-0.00439482
17478.2	-0.0046894
17493	-0.00498166
17507.8	-0.00527124
17522.5	-0.00555778
17537.3	-0.00584091
17552.1	-0.00612027
17566.9	-0.0063955
17581.6	-0.00666623
17596.4	-0.00693211
17611.2	-0.00719279
17626	-0.00744792
17640.7	-0.00769715
17655.5	-0.00794015
17670.3	-0.00817658
17685.1	-0.00840613
17699.8	-0.00862847
17714.6	-0.0088433
17729.4	-0.00905032
17744.2	-0.00924924
17758.9	-0.00943978
17773.7	-0.00962167
17788.5	-0.00979466
17803.3	-0.0099585
17818	-0.0101129
17832.8	-0.0102578
17847.6	-0.0103928
17862.4	-0.0105179
17877.1	-0.0106327
17891.9	-0.0107372
17906.7	-0.0108312
17921.5	-0.0109145
17936.2	-0.0109871
17951	-0.0110488
17965.8	-0.0110996
17980.6	-0.0111393
17995.3	-0.011168
18010.1	-0.0111855
18024.9	-0.0111919
18039.7	-0.0111871
18054.4	-0.0111712
18069.2	-0.0111441
18084	-0.0111059
18098.8	-0.0110567
18113.5	-0.0109965
18128.3	-0.0109255
18143.1	-0.0108437
18157.8	-0.0107512
18172.6	-0.0106482
18187.4	-0.0105348
18202.2	-0.0104112
18216.9	-0.0102775
18231.7	-0.010134
18246.5	-0.00998091
18261.3	-0.00981835
18276	-0.00964659
18290.8	-0.00946587
18305.6	-0.00927645
18320.4	-0.00907859
18335.1	-0.00887257
18349.9	-0.00865868
18364.7	-0.00843719
18379.5	-0.00820843
18394.2	-0.0079727
18409	-0.00773032
18423.8	-0.00748162
18438.6	-0.00722693
18453.3	-0.0069666
18468.1	-0.00670096
18482.9	-0.00643037
18497.7	-0.00615518
18512.4	-0.00587575
18527.2	-0.00559243
18542	-0.0053056
18556.8	-0.00501562
18571.5	-0.00472284
18586.3	-0.00442764
18601.1	-0.00413038
18615.9	-0.00383142
18630.6	-0.00353113
18645.4	-0.00322987
18660.2	-0.002928
18675	-0.00262587
18689.7	-0.00232383
18704.5	-0.00202224
18719.3	-0.00172142
18734.1	-0.00142173
18748.8	-0.00112349
18763.6	-0.000827032
18778.4	-0.000532668
18793.2	-0.000240714
18807.9	4.85275e-05
18822.7	0.000334758
18837.5	0.00061769
18852.3	0.000897043
18867	0.00117255
18881.8	0.00144394
18896.6	0.00171096
18911.3	0.00197338
18926.1	0.00223095
18940.9	0.00248346
18955.7	0.0027307
18970.4	0.00297245
18985.2	0.00320853
19000	0.00343876
19014.8	0.00366296
19029.5	0.00388099
19044.3	0.00409268
19059.1	0.0042979
19073.9	0.00449653
19088.6	0.00468844
19103.4	0.00487354
19118.2	0.00505173
19133	0.00522293
19147.7	0.00538707
19162.5	0.00554408
19177.3	0.00569392
19192.1	0.00583654
19206.8	0.00597191
19221.6	0.00610003
19236.4	0.00622086
19251.2	0.00633443
19265.9	0.00644073
19280.7	0.00653979
19295.5	0.00663163
19310.3	0.00671629
19325	0.00679383
19339.8	0.00686428
19354.6	0.00692773
19369.4	0.00698423
19384.1	0.00703388
19398.9	0.00707675
19413.7	0.00711293
19428.5	0.00714254
19443.2	0.00716567
19458	0.00718245
19472.8	0.00719298
19487.6	0.00719741
19502.3	0.00719585
19517.1	0.00718844
19531.9	0.00717533
19546.7	0.00715666
19561.4	0.00713258
19576.2	0.00710325
19591	0.00706882
19605.8	0.00702946
19620.5	0.00698532
19635.3	0.00693658
19650.1	0.00688341
19664.9	0.00682597
19679.6	0.00676445
19694.4	0.00669901
19709.2	0.00662984
19723.9	0.00655711
19738.7	0.006481
19753.5	0.00640169
19768.3	0.00631937
19783	0.00623421
19797.8	0.00614639
19812.6	0.0060561
19827.4	0.00596351
19842.1	0.0058688
19856.9	0.00577215
19871.7	0.00567375
19886.5	0.00557376
19901.2	0.00547235
19916	0.00536971
19930.8	0.005266
19945.6	0.00516138
19960.3	0.00505604
19975.1	0.00495013
19989.9	0.00484381
