0	0
11.5399	0
20.7718	0
30.0037	0
41.5436	0
50.7755	0
60.0074	0
71.5473	0
80.7792	0
90.0111	0
101.551	0
110.783	0
120.015	0
131.555	0
140.787	0
150.018	0
161.558	0
170.79	0
180.022	0
191.562	0
200.794	0
210.026	0
221.566	0
230.798	0
240.03	0
251.569	0
260.801	0
270.033	0
281.573	0
290.805	0
300.037	0
311.577	0
320.809	0
330.041	0
341.581	0
350.812	0
360.044	0
371.584	0
380.816	0
390.048	0
401.588	0
410.82	0
420.052	0
431.592	0
440.824	0
450.055	0
461.595	0
470.827	0
480.059	0
491.599	0
500.831	0
510.063	0
521.603	0
530.835	0
540.067	0
551.606	0
560.838	0
570.07	0
581.61	0
590.842	0
600.074	0
611.614	0
620.846	0
630.078	0
641.618	0
650.849	0
660.081	0
671.621	0
680.853	0
690.085	0
701.625	0
710.857	0
720.089	0
731.629	0
740.861	0
750.092	0
761.632	0
770.864	0
780.096	0
791.636	0
800.868	0
810.1	0
821.64	0
830.872	0
840.104	0
851.643	0
860.875	0
870.107	0
881.647	0
890.879	0
900.111	0
911.651	0
920.883	0
930.115	0
941.654	0
950.886	0
960.118	0
971.658	0
980.89	0
990.122	2.72848e-12
1001.66	1.90994e-11
1010.89	6.45741e-11
1020.13	2.04636e-10
1031.67	8.1036e-10
1040.9	2.3083e-09
1050.13	6.29279e-09
1061.67	2.07392e-08
1070.9	5.13946e-08
1080.13	1.22344e-07
1091.67	3.42504e-07
1100.9	7.48048e-07
1110.14	1.57526e-06
1121.68	3.8025e-06
1130.91	7.40524e-06
1140.14	1.39521e-05
1151.68	2.94417e-05
1160.91	5.16761e-05
1170.14	8.80258e-05
1181.68	0.000164469
1190.92	0.000262787
1200.15	0.000408702
1211.69	0.000684332
1220.92	0.00100486
1230.15	0.00144037
1241.69	0.00218665
1250.92	0.00297831
1260.16	0.00397124
1271.7	0.00553011
1280.93	0.00705271
1290.16	0.00883175
1301.7	0.0114197
1310.93	0.0137748
1320.16	0.0163696
1331.7	0.0199244
1340.93	0.0229955
1350.17	0.0262528
1361.71	0.0305777
1370.94	0.0342502
1380.17	0.0381418
1391.71	0.0433969
1400.94	0.0480166
1410.17	0.0531356
1421.71	0.0604834
1430.95	0.0673711
1440.18	0.075428
1451.72	0.0876008
1460.95	0.0994411
1470.18	0.113568
1481.72	0.135083
1490.95	0.155917
1500.18	0.180454
1511.72	0.21699
1520.96	0.251388
1530.19	0.290742
1541.73	0.347269
1550.96	0.398516
1560.19	0.455122
1571.73	0.533189
1580.96	0.601127
1590.2	0.673453
1601.74	0.769119
1610.97	0.848978
1620.2	0.930895
1631.74	1.0348
1640.97	1.11797
1650.2	1.20013
1661.74	1.29996
1670.98	1.3764
1680.21	1.44889
1691.75	1.53279
1700.98	1.59373
1710.21	1.64859
1721.75	1.70794
1730.98	1.74763
1740.21	1.78015
1751.75	1.81049
1760.99	1.82645
1770.22	1.83504
1781.76	1.83548
1790.99	1.82772
1800.22	1.8129
1811.76	1.78464
1820.99	1.75444
1830.23	1.71765
1841.77	1.66262
1851	1.61154
1860.23	1.55433
1871.77	1.47443
1881	1.40398
1890.23	1.32791
1901.77	1.22522
1911	1.13728
1920.24	1.04451
1931.78	0.922273
1941.01	0.819957
1950.24	0.714123
1961.78	0.577695
1971.01	0.465963
1980.24	0.352625
1991.78	0.20973
2001.02	0.0953022
2010.25	-0.0184379
2021.79	-0.158544
2031.02	-0.268102
2040.25	-0.37467
2051.79	-0.502684
2061.02	-0.600198
2070.26	-0.692757
2081.79	-0.800738
2091.03	-0.880423
2100.26	-0.953753
2111.8	-1.03603
2121.03	-1.09408
2130.26	-1.14505
2141.8	-1.19867
2151.03	-1.23351
2160.27	-1.26124
2171.81	-1.28613
2181.04	-1.29848
2190.27	-1.30439
2201.81	-1.30324
2211.04	-1.29595
2220.27	-1.28347
2231.81	-1.26124
2241.05	-1.23874
2250.28	-1.21259
2261.82	-1.1755
2271.05	-1.14289
2280.28	-1.10817
2291.82	-1.06243
2301.05	-1.02446
2310.28	-0.985641
2321.82	-0.936402
2331.06	-0.896763
2340.29	-0.857147
2351.83	-0.807943
2361.06	-0.769011
2370.29	-0.730591
2381.83	-0.683417
2391.06	-0.646443
2400.3	-0.610202
2411.84	-0.565989
2421.07	-0.531527
2430.3	-0.497898
2441.84	-0.457071
2451.07	-0.425405
2460.3	-0.394653
2471.84	-0.357541
2481.07	-0.32895
2490.31	-0.301372
2501.85	-0.268372
2511.08	-0.243192
2520.31	-0.219131
2531.85	-0.190672
2541.08	-0.169231
2550.31	-0.148992
2561.85	-0.12541
2571.09	-0.107931
2580.32	-0.091689
2591.86	-0.073126
2601.09	-0.0596581
2610.32	-0.0474055
2621.86	-0.0337703
2631.09	-0.024178
2640.33	-0.0157249
2651.87	-0.00671115
2661.1	-0.000698289
2670.33	0.00429191
2681.87	0.00915527
2691.1	0.012
2700.33	0.0139643
2711.87	0.0152531
2721.1	0.0154088
2730.34	0.0148386
2741.88	0.0131783
2751.11	0.0111504
2760.34	0.00855219
2771.88	0.00457358
2781.11	0.000862012
2790.34	-0.00327078
2801.88	-0.00896231
2811.12	-0.0138839
2820.35	-0.0190879
2831.89	-0.0259287
2841.12	-0.0316222
2850.35	-0.0374711
2861.89	-0.0449448
2871.12	-0.0510107
2880.35	-0.0571171
2891.89	-0.0647568
2901.13	-0.0708359
2910.36	-0.0768536
2921.9	-0.0842465
2931.13	-0.0900254
2940.36	-0.0956575
2951.9	-0.102457
2961.13	-0.107681
2970.36	-0.112693
2981.9	-0.118638
2991.14	-0.123124
3000.37	-0.127359
3011.91	-0.132291
3021.14	-0.135943
3030.37	-0.139331
3041.91	-0.143201
3051.14	-0.14601
3060.37	-0.148569
3071.91	-0.151432
3081.15	-0.153465
3090.38	-0.155282
3101.92	-0.157268
3111.15	-0.158646
3120.38	-0.15985
3131.92	-0.161131
3141.15	-0.161992
3150.38	-0.162721
3161.92	-0.163463
3171.16	-0.163933
3180.39	-0.164303
3191.93	-0.164634
3201.16	-0.164802
3210.39	-0.164887
3221.93	-0.164879
3231.16	-0.164784
3240.39	-0.164607
3251.93	-0.16427
3261.16	-0.163902
3270.4	-0.163443
3281.94	-0.162731
3291.17	-0.162044
3300.4	-0.161246
3311.94	-0.16008
3321.17	-0.159004
3330.4	-0.157794
3341.94	-0.15608
3351.17	-0.154542
3360.4	-0.152848
3371.94	-0.150504
3381.18	-0.148444
3390.41	-0.146216
3401.95	-0.143194
3411.18	-0.140587
3420.41	-0.137814
3431.95	-0.134119
3441.18	-0.130986
3450.41	-0.127703
3461.95	-0.123401
3471.18	-0.119812
3480.41	-0.116103
3491.95	-0.111316
3501.19	-0.107381
3510.42	-0.103367
3521.96	-0.0982562
3531.19	-0.0941107
3540.42	-0.0899289
3551.96	-0.0846705
3561.19	-0.0804545
3570.42	-0.0762433
3581.96	-0.0710037
3591.19	-0.0668447
3600.42	-0.0627257
3611.96	-0.0576473
3621.19	-0.0536511
3630.43	-0.0497225
3641.96	-0.0449177
3651.2	-0.0411665
3660.43	-0.0375042
3671.97	-0.0330594
3681.2	-0.0296166
3690.43	-0.0262792
3701.97	-0.022263
3711.2	-0.0191797
3720.43	-0.0162162
3731.97	-0.0126865
3741.2	-0.0100073
3750.43	-0.00746067
3761.97	-0.00446922
3771.2	-0.00223372
3780.44	-0.000141782
3791.97	0.00226685
3801.21	0.00402562
3810.44	0.00563257
3821.98	0.00742512
3831.21	0.00868468
3840.44	0.00978833
3851.98	0.0109483
3861.21	0.0117012
3870.44	0.0122994
3881.98	0.0128321
3891.21	0.0130891
3900.44	0.0131988
3911.98	0.0131343
3921.21	0.0129264
3930.45	0.0125849
3941.99	0.0119784
3951.22	0.0113569
3960.45	0.0106214
3971.99	0.00955253
3981.22	0.00858731
3990.45	0.00753296
4001.99	0.00610275
4011.22	0.00487967
4020.45	0.00359646
4031.99	0.0019224
4041.22	0.00053893
4050.46	-0.000873237
4062	-0.00266382
4071.23	-0.00410468
4080.46	-0.00554258
4092	-0.0073215
4101.23	-0.00871884
4110.46	-0.0100839
4122	-0.0117324
4131.23	-0.0129958
4140.46	-0.0142024
4152	-0.0156213
4161.24	-0.0166783
4170.47	-0.0176608
4182.01	-0.018778
4191.24	-0.0195792
4200.47	-0.0202955
4212.01	-0.0210689
4221.24	-0.0215886
4230.47	-0.0220198
4242.01	-0.0224345
4251.25	-0.0226671
4260.48	-0.0228126
4272.02	-0.0228732
4281.25	-0.022826
4290.48	-0.022695
4302.02	-0.0224149
4311.25	-0.0220989
4320.49	-0.0217018
4332.03	-0.0210922
4341.26	-0.0205138
4350.49	-0.0198546
4362.03	-0.0189159
4371.26	-0.0180717
4380.49	-0.0171432
4390.53	-0.0160357
4402.07	-0.0146331
4411.3	-0.0134083
4420.53	-0.0120892
4432.07	-0.0103033
4441.3	-0.00876118
4450.53	-0.00711492
4462.07	-0.00490577
4471.3	-0.00301355
4480.54	-0.001007
4492.08	0.00166639
4501.31	0.00394054
4510.54	0.0063377
4522.08	0.00951027
4531.31	0.0121912
4540.54	0.0150006
4552.08	0.0186936
4561.31	0.0217933
4570.55	0.0250213
4582.09	0.0292345
4591.32	0.0327449
4600.55	0.0363763
4612.09	0.0410791
4621.32	0.044966
4630.55	0.0489569
4642.09	0.0540807
4651.33	0.0582776
4660.56	0.0625511
4672.1	0.0679845
4681.33	0.0723902
4690.56	0.0768347
4702.1	0.0824243
4711.33	0.0869057
4720.56	0.0913795
4732.1	0.0969377
4741.34	0.101338
4750.57	0.105679
4762.11	0.110998
4771.34	0.115148
4780.57	0.119188
4792.11	0.12406
4801.34	0.127797
4810.57	0.131376
4822.11	0.135608
4831.35	0.138785
4840.58	0.141764
4852.12	0.145196
4861.35	0.147695
4870.58	0.149966
4882.12	0.152475
4891.35	0.15421
4900.59	0.155697
4912.13	0.157203
4921.36	0.15812
4930.59	0.15878
4942.13	0.15924
4951.36	0.159315
4960.59	0.159131
4972.13	0.158537
4981.36	0.157773
4990.6	0.156754
5002.14	0.155126
5011.37	0.153546
5020.6	0.151722
5032.14	0.149108
5041.37	0.146756
5050.6	0.144178
5062.14	0.140649
5071.38	0.13759
5080.61	0.134328
5092.15	0.129979
5101.38	0.126294
5110.61	0.122436
5122.15	0.117387
5131.38	0.113178
5140.61	0.10883
5152.15	0.103219
5161.39	0.0986037
5170.62	0.0938889
5182.16	0.0878753
5191.39	0.0829846
5200.62	0.0780374
5212.16	0.071795
5221.39	0.0667714
5230.63	0.0617366
5242.17	0.055449
5251.4	0.0504411
5260.63	0.0454682
5272.17	0.0393229
5281.4	0.0344803
5290.63	0.0297181
5302.17	0.023899
5311.4	0.0193664
5320.64	0.0149566
5332.18	0.00963549
5341.41	0.00554549
5350.64	0.00161558
5362.18	-0.00305638
5371.41	-0.00659034
5380.64	-0.00993423
5392.18	-0.0138355
5401.42	-0.0167259
5410.65	-0.0194055
5422.19	-0.0224518
5431.42	-0.0246427
5440.65	-0.0266123
5452.19	-0.0287621
5461.42	-0.0302324
5470.65	-0.0314825
5482.19	-0.0327392
5491.43	-0.0335042
5500.66	-0.0340606
5512.2	-0.0344715
5521.43	-0.0345805
5530.66	-0.0345023
5542.2	-0.0341536
5551.43	-0.033685
5560.66	-0.0330579
5572.2	-0.0320665
5581.44	-0.0311202
5590.67	-0.0300491
5602.21	-0.0285517
5611.44	-0.0272403
5620.67	-0.0258399
5632.21	-0.0239811
5641.44	-0.0224204
5650.68	-0.0208056
5662.22	-0.0187266
5671.45	-0.0170268
5680.68	-0.0153045
5692.22	-0.0131335
5701.45	-0.011392
5710.68	-0.00965464
5722.22	-0.00749935
5731.45	-0.00579592
5740.69	-0.00411711
5752.23	-0.00206081
5761.46	-0.000454776
5770.69	0.00111259
5782.23	0.00301285
5791.46	0.00448299
5800.69	0.00590664
5812.23	0.007619
5821.46	0.00893426
5830.7	0.0102008
5842.24	0.0117157
5851.47	0.0128739
5860.7	0.0139856
5872.24	0.0153117
5881.47	0.0163239
5890.7	0.0172948
5902.24	0.0184536
5911.48	0.0193394
5920.71	0.0201912
5932.25	0.0212117
5941.48	0.0219956
5950.71	0.0227532
5962.25	0.0236668
5971.48	0.0243736
5980.71	0.0250613
5992.25	0.0258973
6001.49	0.0265494
6010.72	0.0271885
6022.26	0.0279716
6031.49	0.028587
6040.72	0.0291941
6052.26	0.0299427
6061.49	0.0305345
6070.73	0.0311211
6082.26	0.0318478
6091.5	0.0324247
6100.73	0.0329981
6112.27	0.0337108
6121.5	0.034278
6130.73	0.0348429
6142.27	0.0355462
6151.5	0.0361069
6160.74	0.0366661
6172.28	0.0373633
6181.51	0.0379196
6190.74	0.038475
6202.28	0.0391679
6211.51	0.0397213
6220.74	0.0402739
6232.28	0.0409633
6241.51	0.0415138
6250.75	0.0420632
6262.29	0.0427478
6271.52	0.0432935
6280.75	0.0438369
6292.29	0.044512
6301.52	0.0450479
6310.75	0.0455793
6322.29	0.0462358
6331.53	0.0467534
6340.76	0.047263
6352.3	0.0478869
6361.53	0.0483739
6370.76	0.0488484
6382.3	0.0494217
6391.53	0.0498626
6400.76	0.0502857
6412.3	0.0507874
6421.54	0.0511647
6430.77	0.0515188
6440	0.0518481
6451.54	0.0522222
6460.77	0.0524895
6470	0.0527268
6481.54	0.0529788
6490.78	0.053143
6500.01	0.0532727
6511.55	0.0533842
6520.78	0.0534316
6530.01	0.0534408
6541.55	0.0533972
6550.78	0.0533174
6560.01	0.0531968
6571.55	0.0529878
6580.79	0.0527736
6590.02	0.0525172
6601.56	0.0521368
6610.79	0.0517845
6620.02	0.0513893
6631.56	0.0508351
6640.79	0.0503436
6650.03	0.0498094
6661.57	0.0490819
6670.8	0.0484523
6680.03	0.0477807
6691.57	0.0468826
6700.8	0.0461177
6710.03	0.0453118
6721.57	0.0442474
6730.8	0.0433508
6740.04	0.0424145
6751.58	0.0411889
6760.81	0.0401649
6770.04	0.0391025
6781.58	0.0377212
6790.81	0.0365742
6800.04	0.0353901
6811.58	0.0338586
6820.81	0.0325927
6830.05	0.0312911
6841.59	0.0296143
6850.82	0.0282334
6860.05	0.0268178
6871.59	0.025
6880.82	0.0235073
6890.05	0.0219809
6901.59	0.0200256
6910.83	0.018424
6920.06	0.0167894
6931.6	0.0147001
6940.83	0.0129923
6950.06	0.0112525
6961.6	0.00903321
6970.83	0.00722277
6980.06	0.00538171
6991.6	0.00303823
7000.84	0.00113052
7010.07	-0.000805635
7021.61	-0.00326451
7030.84	-0.00526136
7040.07	-0.00728349
7051.61	-0.00984484
7060.84	-0.0119193
7070.08	-0.0140147
7081.62	-0.016661
7090.85	-0.0187979
7100.08	-0.0209503
7111.62	-0.0236602
7120.85	-0.0258412
7130.08	-0.0280318
7141.62	-0.0307806
7150.85	-0.0329857
7160.09	-0.035194
7171.63	-0.037956
7180.86	-0.0401646
7190.09	-0.0423702
7201.63	-0.0451203
7210.86	-0.0473127
7220.09	-0.0494965
7231.63	-0.0522117
7240.86	-0.0543703
7250.1	-0.0565155
7261.64	-0.0591758
7270.87	-0.0612856
7280.1	-0.0633777
7291.64	-0.0659663
7300.87	-0.0680146
7310.1	-0.0700417
7321.64	-0.0725442
7330.87	-0.0745201
7340.11	-0.0764718
7351.65	-0.0788759
7360.88	-0.0807699
7370.11	-0.0826368
7381.65	-0.0849311
7390.88	-0.0867342
7400.11	-0.0885077
7411.65	-0.0906818
7420.88	-0.0923859
7430.12	-0.0940579
7441.66	-0.096102
7450.89	-0.0976997
7460.12	-0.0992633
7471.66	-0.101169
7480.89	-0.102654
7490.12	-0.104104
7501.66	-0.105865
7510.89	-0.107234
7520.13	-0.108565
7531.67	-0.110179
7540.9	-0.111428
7550.13	-0.11264
7561.67	-0.114105
7570.9	-0.115235
7580.13	-0.116329
7591.67	-0.117645
7600.9	-0.118658
7610.14	-0.119635
7621.67	-0.120807
7630.91	-0.121705
7640.14	-0.122569
7651.68	-0.1236
7660.91	-0.124388
7670.14	-0.125141
7681.68	-0.126036
7690.91	-0.126715
7700.14	-0.127362
7711.68	-0.128124
7720.92	-0.128698
7730.15	-0.12924
7741.69	-0.129872
7750.92	-0.130342
7760.15	-0.13078
7771.69	-0.131284
7780.92	-0.131652
7790.15	-0.131989
7801.69	-0.132366
7810.93	-0.132633
7820.16	-0.132869
7831.7	-0.13312
7840.93	-0.133287
7850.16	-0.133424
7861.7	-0.133553
7870.93	-0.133623
7880.16	-0.133663
7891.7	-0.133673
7900.94	-0.133649
7910.17	-0.133596
7921.71	-0.133491
7930.94	-0.133377
7940.17	-0.133236
7951.71	-0.133022
7960.94	-0.132822
7970.17	-0.132596
7981.71	-0.13228
7990.95	-0.131998
8000.18	-0.131693
8011.72	-0.131278
8020.95	-0.130919
8030.18	-0.130538
8041.72	-0.130028
8050.95	-0.129594
8060.18	-0.129137
8071.72	-0.128533
8080.96	-0.128024
8090.19	-0.127492
8101.73	-0.126794
8110.96	-0.126209
8120.19	-0.1256
8131.73	-0.124805
8140.96	-0.124142
8150.19	-0.123454
8161.73	-0.12256
8170.97	-0.121816
8180.2	-0.121048
8191.74	-0.120053
8200.97	-0.119228
8210.2	-0.11838
8221.74	-0.117285
8230.97	-0.116382
8240.2	-0.115455
8251.74	-0.114265
8260.98	-0.113289
8270.21	-0.112291
8281.75	-0.111016
8290.98	-0.109975
8300.21	-0.108916
8311.75	-0.107569
8320.98	-0.106475
8330.21	-0.105368
8341.75	-0.103966
8350.99	-0.102833
8360.22	-0.101691
8371.76	-0.100252
8380.99	-0.0990933
8390.22	-0.0979296
8401.76	-0.096469
8410.99	-0.095297
8420.23	-0.0941225
8431.77	-0.0926517
8441	-0.0914736
8450.23	-0.0902941
8461.77	-0.0888179
8471	-0.0876352
8480.23	-0.0864502
8491.77	-0.0849648
8501	-0.0837718
8510.24	-0.0825735
8521.78	-0.0810656
8531.01	-0.0798494
8540.24	-0.0786223
8551.78	-0.07707
8561.01	-0.0758106
8570.24	-0.0745331
8581.78	-0.0729068
8591.02	-0.0715791
8600.25	-0.0702248
8611.79	-0.0684904
8621.02	-0.0670664
8630.25	-0.065607
8641.79	-0.0637292
8651.02	-0.062181
8660.25	-0.0605894
8671.79	-0.0585355
8681.03	-0.0568385
8690.26	-0.0550916
8701.8	-0.0528357
8711.03	-0.0509715
8720.26	-0.0490534
8731.8	-0.0465792
8741.03	-0.044538
8750.27	-0.042442
8761.81	-0.0397452
8771.04	-0.0375273
8780.27	-0.0352567
8791.81	-0.0323462
8801.04	-0.0299621
8810.27	-0.0275306
8821.81	-0.0244278
8831.04	-0.0218978
8840.28	-0.0193283
8851.82	-0.0160654
8861.05	-0.0134179
8870.28	-0.0107409
8881.82	-0.00735835
8891.05	-0.00462754
8900.28	-0.00187857
8911.82	0.00157765
8921.06	0.00435418
8930.29	0.007137
8941.83	0.0106188
8951.06	0.0134025
8960.29	0.0161808
8971.83	0.0196407
8981.06	0.0223941
8990.29	0.0251312
9001.83	0.0285245
9011.07	0.0312131
9020.3	0.0338753
9031.84	0.0371618
9041.07	0.0397547
9050.3	0.0423126
9061.84	0.0454572
9071.07	0.0479279
9080.31	0.0503564
9091.85	0.0533297
9101.08	0.0556563
9110.31	0.0579347
9121.85	0.0607128
9131.08	0.0628776
9140.31	0.0649897
9151.85	0.0675539
9161.08	0.0695433
9170.32	0.0714766
9181.86	0.0738129
9191.09	0.075617
9200.32	0.0773625
9211.86	0.0794612
9221.09	0.0810732
9230.32	0.0826251
9241.86	0.0844803
9251.1	0.0858963
9260.33	0.0872517
9271.87	0.0888606
9281.1	0.0900793
9290.33	0.0912374
9301.87	0.0926
9311.1	0.0936222
9320.33	0.0945842
9331.87	0.0957028
9341.11	0.0965307
9350.34	0.0972995
9361.88	0.0981779
9371.11	0.098815
9380.34	0.0993943
9391.88	0.100038
9401.11	0.100488
9410.35	0.100882
9421.88	0.101296
9431.12	0.101564
9440.35	0.101777
9451.89	0.101965
9461.12	0.102055
9470.35	0.102091
9481.89	0.10206
9491.12	0.101975
9500.36	0.101836
9511.9	0.101588
9521.13	0.101331
9530.36	0.10102
9541.9	0.100558
9551.13	0.10013
9560.36	0.0996485
9571.9	0.0989737
9581.13	0.098375
9590.37	0.0977241
9601.91	0.0968372
9611.14	0.0960691
9620.37	0.095249
9631.91	0.0941511
9641.14	0.0932147
9650.37	0.0922268
9661.91	0.0909201
9671.15	0.0898176
9680.38	0.0886648
9691.92	0.0871537
9701.15	0.0858897
9710.38	0.0845772
9721.92	0.0828699
9731.15	0.0814518
9740.39	0.0799885
9751.92	0.0780975
9761.16	0.0765369
9770.39	0.0749354
9781.93	0.0728787
9791.16	0.0711915
9800.39	0.0694693
9811.93	0.0672704
9821.16	0.065477
9830.4	0.0636559
9841.94	0.061344
9851.17	0.0594693
9860.4	0.057575
9871.94	0.055184
9881.17	0.0532561
9890.4	0.0513179
9901.94	0.0488851
9911.18	0.0469346
9920.41	0.0449834
9931.95	0.042548
9941.18	0.0406063
9950.41	0.0386737
9961.95	0.0362751
9971.18	0.0343734
9980.41	0.03249
9991.95	0.0301657
10001.2	0.0283334
10010.4	0.0265279
10022	0.0243126
10031.2	0.0225763
10040.4	0.0208746
10052	0.018799
10061.2	0.0171824
10070.4	0.0156068
10082	0.0136977
10091.2	0.0122208
10100.4	0.0107905
10112	0.0090703
10121.2	0.00775006
10130.4	0.00648096
10142	0.00496837
10151.2	0.00381875
10160.4	0.00272402
10172	0.00143432
10181.2	0.000466628
10190.4	-0.000443211
10202	-0.00149803
10211.2	-0.00227511
10220.4	-0.00299223
10232	-0.00380363
10241.2	-0.00438433
10250.4	-0.00490398
10262	-0.00546753
10271.2	-0.00584961
10280.5	-0.00617078
10292	-0.00648711
10301.2	-0.00667268
10310.5	-0.00679901
10322	-0.00687491
10331.2	-0.00687131
10340.5	-0.00681186
10352	-0.00666121
10361.2	-0.00648159
10370.5	-0.0062514
10382	-0.0058956
10391.2	-0.00555916
10400.5	-0.0051792
10412	-0.00464688
10421.2	-0.00417834
10430.5	-0.00367484
10442	-0.00300067
10451.2	-0.00242908
10460.5	-0.00183208
10472	-0.0010547
10481.2	-0.000411606
10490.5	0.000247062
10502	0.00108777
10511.2	0.00177071
10520.5	0.00245984
10532	0.00332589
10541.3	0.00401937
10550.5	0.00471087
10562	0.00556917
10571.3	0.00624857
10580.5	0.00691965
10592	0.0077445
10601.3	0.00839164
10610.5	0.00902633
10622	0.00980101
10631.3	0.0104051
10640.5	0.010995
10652	0.0117122
10661.3	0.0122699
10670.5	0.0128136
10682	0.0134745
10691.3	0.0139888
10700.5	0.0144912
10712	0.0151036
10721.3	0.0155822
10730.5	0.0160517
10742	0.0166273
10751.3	0.01708
10760.5	0.0175267
10772	0.0180779
10781.3	0.0185142
10790.5	0.0189471
10802.1	0.0194841
10811.3	0.0199109
10820.5	0.0203356
10832.1	0.0208635
10841.3	0.0212834
10850.5	0.0217007
10862.1	0.0222182
10871.3	0.022628
10880.5	0.0230332
10892.1	0.0235317
10901.3	0.0239226
10910.5	0.0243052
10922.1	0.0247695
10931.3	0.0251278
10940.5	0.0254728
10952.1	0.0258823
10961.3	0.0261906
10970.5	0.0264795
10982.1	0.0268107
10991.3	0.0270495
11000.5	0.0272629
11012.1	0.0274914
11021.3	0.0276415
11030.5	0.0277607
11042.1	0.027864
11051.3	0.0279084
11060.5	0.0279172
11072.1	0.0278768
11081.3	0.027802
11090.5	0.0276887
11102.1	0.0274918
11111.3	0.0272895
11120.6	0.0270472
11132.1	0.026688
11141.3	0.0263555
11150.6	0.0259834
11162.1	0.0254631
11171.3	0.0250035
11180.6	0.0245063
11192.1	0.0238334
11201.3	0.0232553
11210.6	0.0226432
11222.1	0.0218324
11231.3	0.0211491
11240.6	0.0204367
11252.1	0.019508
11261.3	0.0187366
11270.6	0.0179421
11282.1	0.0169192
11291.3	0.0160797
11300.6	0.0152234
11312.1	0.0141327
11321.3	0.0132462
11330.6	0.0123498
11342.1	0.0112181
11351.3	0.0103065
11360.6	0.00939126
11372.1	0.00824522
11381.4	0.00732902
11390.6	0.00641533
11402.1	0.00527935
11411.4	0.00437745
11420.6	0.00348331
11432.1	0.00237871
11441.4	0.00150707
11450.6	0.0006474
11462.1	-0.000408746
11471.4	-0.0012378
11480.6	-0.00205191
11492.1	-0.00304758
11501.4	-0.00382595
11510.6	-0.0045878
11522.1	-0.00551661
11531.4	-0.00624081
11540.6	-0.00694836
11552.1	-0.00780981
11561.4	-0.00848106
11570.6	-0.00913697
11582.1	-0.00993632
11591.4	-0.0105603
11600.6	-0.0111716
11612.1	-0.0119193
11621.4	-0.0125058
11630.6	-0.0130831
11642.2	-0.0137938
11651.4	-0.0143553
11660.6	-0.0149119
11672.2	-0.0156031
11681.4	-0.016154
11690.6	-0.0167046
11702.2	-0.0173945
11711.4	-0.0179493
11720.6	-0.0185081
11732.2	-0.0192139
11741.4	-0.0197857
11750.6	-0.0203648
11762.2	-0.0211003
11771.4	-0.0216988
11780.6	-0.0223068
11792.2	-0.0230806
11801.4	-0.0237108
11810.6	-0.0243509
11822.2	-0.0251645
11831.4	-0.0258255
11840.6	-0.0264948
11852.2	-0.0273417
11861.4	-0.028026
11870.6	-0.028715
11882.2	-0.0295803
11891.4	-0.0302739
11900.6	-0.0309664
11912.2	-0.0318277
11921.4	-0.0325104
11930.6	-0.033185
11942.2	-0.0340131
11951.4	-0.0346604
11960.6	-0.0352914
11972.2	-0.0360532
11981.4	-0.0366378
11990.7	-0.0371976
12002.2	-0.0378583
12011.4	-0.0383525
12020.7	-0.0388136
12032.2	-0.0393397
12041.4	-0.0397177
12050.7	-0.0400553
12062.2	-0.0404177
12071.4	-0.0406577
12080.7	-0.0408519
12092.2	-0.041028
12101.4	-0.0411144
12110.7	-0.0411514
12122.2	-0.0411275
12131.4	-0.0410518
12140.7	-0.0409257
12152.2	-0.0406976
12161.4	-0.0404593
12170.7	-0.0401721
12182.2	-0.0397457
12191.4	-0.0393521
12200.7	-0.0389133
12212.2	-0.0383037
12221.4	-0.0377692
12230.7	-0.0371953
12242.2	-0.0364256
12251.4	-0.0357706
12260.7	-0.0350833
12272.2	-0.0341825
12281.5	-0.0334316
12290.7	-0.0326566
12302.2	-0.0316579
12311.5	-0.0308382
12320.7	-0.0300031
12332.2	-0.0289414
12341.5	-0.0280812
12350.7	-0.0272141
12362.2	-0.0261246
12371.5	-0.0252515
12380.7	-0.02438
12392.2	-0.0232963
12401.5	-0.0224369
12410.7	-0.0215868
12422.2	-0.0205404
12431.5	-0.0197191
12440.7	-0.018914
12452.2	-0.0179335
12461.5	-0.0171723
12470.7	-0.0164336
12482.2	-0.0155446
12491.5	-0.0148631
12500.7	-0.0142097
12512.2	-0.0134348
12521.5	-0.0128503
12530.7	-0.0122987
12542.3	-0.0116575
12551.5	-0.0111848
12560.7	-0.0107492
12572.3	-0.0102584
12581.5	-0.00991008
12590.7	-0.00960217
12602.3	-0.00927542
12611.5	-0.00906148
12620.7	-0.00889048
12632.3	-0.00873802
12641.5	-0.00866569
12650.7	-0.0086379
12662.3	-0.00866624
12671.5	-0.00873958
12680.7	-0.00885803
12692.3	-0.00906942
12701.5	-0.00928898
12710.7	-0.00955306
12722.3	-0.00994508
12731.5	-0.0103076
12740.7	-0.0107127
12752.3	-0.0112779
12761.5	-0.0117759
12770.7	-0.0123135
12782.3	-0.0130394
12791.5	-0.0136615
12800.7	-0.0143189
12812.3	-0.0151879
12821.5	-0.0159188
12830.7	-0.0166796
12842.3	-0.0176697
12851.5	-0.0184906
12860.8	-0.019335
12872.3	-0.0204203
12881.5	-0.0213097
12890.8	-0.0222155
12902.3	-0.0233672
12911.5	-0.0243014
12920.8	-0.0252445
12932.3	-0.0264321
12941.5	-0.0273864
12950.8	-0.0283419
12962.3	-0.0295343
12971.5	-0.0304839
12980.8	-0.0314273
12992.3	-0.0325942
13001.5	-0.0335153
13010.8	-0.0344232
13020	-0.0353158
13031.5	-0.0364073
13040.8	-0.0372588
13050	-0.0380893
13061.5	-0.0390954
13070.8	-0.039873
13080	-0.0406249
13091.6	-0.041527
13100.8	-0.0422172
13110	-0.0428785
13121.6	-0.0436634
13130.8	-0.0442575
13140	-0.044821
13151.6	-0.0454822
13160.8	-0.0459765
13170	-0.0464403
13181.6	-0.0469775
13190.8	-0.0473738
13200	-0.0477412
13211.6	-0.0481608
13220.8	-0.0484659
13230	-0.0487451
13241.6	-0.0490595
13250.8	-0.0492849
13260	-0.0494887
13271.6	-0.0497155
13280.8	-0.0498765
13290	-0.0500213
13301.6	-0.0501822
13310.8	-0.0502971
13320	-0.0504018
13331.6	-0.0505212
13340.8	-0.0506099
13350	-0.0506947
13361.6	-0.0507981
13370.8	-0.050881
13380	-0.050966
13391.6	-0.0510781
13400.8	-0.0511745
13410.1	-0.0512786
13421.6	-0.0514218
13430.8	-0.0515486
13440.1	-0.0516876
13451.6	-0.0518803
13460.8	-0.0520509
13470.1	-0.0522369
13481.6	-0.0524922
13490.8	-0.0527153
13500.1	-0.0529556
13511.6	-0.0532802
13520.8	-0.0535593
13530.1	-0.0538555
13541.6	-0.0542492
13550.8	-0.0545823
13560.1	-0.0549307
13571.6	-0.0553864
13580.8	-0.0557657
13590.1	-0.056157
13601.6	-0.0566608
13610.8	-0.0570738
13620.1	-0.0574939
13631.6	-0.0580264
13640.8	-0.058456
13650.1	-0.0588868
13661.6	-0.059424
13670.9	-0.0598502
13680.1	-0.060271
13691.6	-0.0607861
13700.9	-0.061187
13710.1	-0.0615756
13721.6	-0.0620409
13730.9	-0.0623943
13740.1	-0.0627287
13751.6	-0.0631172
13760.9	-0.063402
13770.1	-0.0636619
13781.6	-0.0639492
13790.9	-0.064147
13800.1	-0.0643148
13811.6	-0.0644806
13820.9	-0.0645765
13830.1	-0.0646387
13841.6	-0.0646679
13850.9	-0.0646516
13860.1	-0.0645994
13871.6	-0.0644833
13880.9	-0.0643493
13890.1	-0.0641789
13901.6	-0.0639149
13910.9	-0.0636631
13920.1	-0.0633758
13931.7	-0.0629676
13940.9	-0.0626026
13950.1	-0.0622043
13961.7	-0.0616611
13970.9	-0.0611916
13980.1	-0.0606922
13991.7	-0.0600278
14000.9	-0.0594659
14010.1	-0.0588782
14021.7	-0.0581097
14030.9	-0.0574695
14040.1	-0.0568083
14051.7	-0.0559545
14060.9	-0.0552513
14070.1	-0.0545319
14081.7	-0.053612
14090.9	-0.0528611
14100.1	-0.0520984
14111.7	-0.0511305
14120.9	-0.050346
14130.1	-0.0495537
14141.7	-0.048554
14150.9	-0.047748
14160.1	-0.0469375
14171.7	-0.0459193
14180.9	-0.0451015
14190.1	-0.0442818
14201.7	-0.043255
14210.9	-0.0424327
14220.1	-0.0416098
14231.7	-0.0405813
14240.9	-0.0397587
14250.2	-0.0389366
14261.7	-0.0379098
14270.9	-0.0370892
14280.2	-0.0362693
14291.7	-0.0352456
14300.9	-0.0344274
14310.2	-0.03361
14321.7	-0.032589
14330.9	-0.0317728
14340.2	-0.030957
14351.7	-0.0299378
14360.9	-0.0291227
14370.2	-0.0283079
14381.7	-0.0272897
14390.9	-0.0264755
14400.2	-0.0256616
14411.7	-0.0246449
14420.9	-0.0238323
14430.2	-0.0230204
14441.7	-0.0220072
14450.9	-0.0211982
14460.2	-0.0203911
14471.7	-0.0193854
14481	-0.0185839
14490.2	-0.0177857
14501.7	-0.0167935
14511	-0.0160049
14520.2	-0.0152215
14531.7	-0.0142505
14541	-0.0134813
14550.2	-0.0127196
14561.7	-0.011779
14571	-0.0110367
14580.2	-0.0103043
14591.7	-0.00940369
14601	-0.00869608
14610.2	-0.00800067
14621.7	-0.0071496
14631	-0.00648411
14640.2	-0.00583296
14651.7	-0.00504007
14661	-0.00442326
14670.2	-0.00382255
14681.7	-0.00309497
14691	-0.00253202
14700.2	-0.00198642
14711.7	-0.00132923
14721	-0.000823568
14730.2	-0.000335928
14741.8	0.000248166
14751	0.000695056
14760.2	0.00112388
14771.8	0.00163466
14781	0.0020233
14790.2	0.00239441
14801.8	0.00283407
14811	0.00316683
14820.2	0.00348312
14831.8	0.00385598
14841	0.00413681
14850.2	0.00440265
14861.8	0.00471467
14871	0.0049487
14880.2	0.00516949
14891.8	0.00542771
14901	0.00562078
14910.2	0.00580245
14921.8	0.00601438
14931	0.00617248
14940.2	0.006321
14951.8	0.00649396
14961	0.0066228
14970.2	0.00674367
14981.8	0.00688423
14991	0.00698876
15000.2	0.00708664
15011.8	0.00720016
15021	0.00728427
15030.2	0.00736269
15041.8	0.00745305
15051	0.0075194
15060.3	0.00758064
15071.8	0.00765012
15081	0.00770013
15090.3	0.00774523
15101.8	0.00779467
15111	0.00782865
15120.3	0.00785762
15131.8	0.0078867
15141	0.00790416
15150.3	0.00791635
15161.8	0.00792407
15171	0.0079241
15180.3	0.0079186
15191.8	0.00790384
15201	0.00788566
15210.3	0.00786178
15221.8	0.00782393
15231	0.00778729
15240.3	0.00774508
15251.8	0.00768463
15261	0.00763031
15270.3	0.00757091
15281.8	0.00748988
15291	0.00742
15300.3	0.00734598
15311.8	0.00724823
15321.1	0.00716639
15330.3	0.00708184
15341.8	0.00697312
15351.1	0.00688442
15360.3	0.00679483
15371.8	0.00668257
15381.1	0.00659334
15390.3	0.00650536
15401.8	0.00639821
15411.1	0.00631561
15420.3	0.00623653
15431.8	0.00614372
15441.1	0.00607513
15450.3	0.0060123
15461.8	0.00594283
15471.1	0.00589524
15480.3	0.00585537
15491.8	0.00581719
15501.1	0.00579652
15510.3	0.00578509
15521.8	0.00578433
15531.1	0.00579489
15540.3	0.00581561
15551.9	0.00585603
15561.1	0.00590008
15570.3	0.00595456
15581.9	0.00603723
15591.1	0.00611486
15600.3	0.00620252
15611.9	0.00632578
15621.1	0.00643496
15630.3	0.00655314
15641.9	0.00671289
15651.1	0.00684973
15660.3	0.00699408
15671.9	0.00718424
15681.1	0.00734348
15690.3	0.0075084
15701.9	0.00772165
15711.1	0.00789719
15720.3	0.00807647
15731.9	0.00830492
15741.1	0.00849045
15750.3	0.00867783
15761.9	0.0089138
15771.1	0.00910336
15780.3	0.00929307
15791.9	0.00952974
15801.1	0.0097182
15810.3	0.00990547
15821.9	0.0101374
15831.1	0.0103208
15840.3	0.0105022
15851.9	0.0107257
15861.1	0.0109017
15870.4	0.0110752
15881.9	0.0112885
15891.1	0.0114563
15900.4	0.0116217
15911.9	0.0118253
15921.1	0.0119858
15930.4	0.0121445
15941.9	0.0123408
15951.1	0.0124966
15960.4	0.0126516
15971.9	0.012845
15981.1	0.0129999
15990.4	0.0131557
16001.9	0.0133523
16011.1	0.0135118
16020.4	0.0136739
16031.9	0.0138811
16041.1	0.0140514
16050.4	0.0142264
16061.9	0.0144527
16071.1	0.0146407
16080.4	0.0148356
16091.9	0.0150899
16101.1	0.0153027
