0	0
53.5566	0
107.113	0
160.67	0
214.226	0
267.783	0
321.339	0
374.896	0
428.453	0
482.009	0
535.566	0
589.122	0
642.679	0
696.235	0
749.792	0
803.349	0
856.905	0
910.462	0
964.018	0
1017.57	0
1071.13	0
1124.69	-1.36424e-11
1178.24	-2.35559e-10
1231.8	-2.44108e-09
1285.36	-1.66401e-08
1338.91	-8.23711e-08
1392.47	-3.20148e-07
1446.03	-1.03182e-06
1499.58	-2.86482e-06
1553.14	-7.04009e-06
1606.7	-1.56142e-05
1660.25	-3.17011e-05
1713.81	-5.95197e-05
1767.36	-0.000104071
1820.92	-0.000170199
1874.47	-0.000260774
1928.03	-0.000373805
1981.58	-0.000498411
2035.14	-0.000609811
2088.69	-0.000663751
2142.25	-0.000591072
2195.8	-0.000293308
2249.36	0.000359683
2302.91	0.00152911
2356.47	0.00340298
2410.02	0.00618767
2463.57	0.0100957
2517.13	0.0153297
2570.68	0.0220648
2624.24	0.0304288
2677.79	0.0404841
2731.35	0.0522114
2784.9	0.0654977
2838.46	0.080129
2892.01	0.0957905
2945.57	0.112073
2999.12	0.128484
3052.68	0.144474
3106.23	0.159452
3159.79	0.172823
3213.34	0.184014
3266.9	0.192508
3320.46	0.197872
3374.01	0.19978
3427.57	0.198036
3481.13	0.192585
3534.68	0.183516
3588.24	0.171059
3641.8	0.155574
3695.35	0.137533
3748.91	0.117493
3802.47	0.0960696
3856.02	0.0739049
3909.58	0.0516386
3963.14	0.0298776
4016.69	0.00917144
4070.25	-0.0100085
4123.8	-0.0272838
4177.36	-0.0423772
4230.92	-0.0551156
4284.47	-0.0654261
4338.03	-0.0733282
4391.59	-0.078922
4445.14	-0.0823733
4498.7	-0.0838978
4552.26	-0.083745
4605.81	-0.0821825
4659.37	-0.0794829
4712.92	-0.075911
4766.48	-0.0717153
4820.04	-0.0671208
4873.59	-0.0623245
4927.15	-0.0574933
4980.71	-0.0527633
5034.26	-0.0482409
5087.82	-0.0440049
5141.38	-0.0401092
5194.93	-0.0365858
5248.49	-0.0334484
5302.05	-0.0306958
5355.6	-0.0283147
5409.16	-0.026283
5462.72	-0.0245721
5516.27	-0.0231493
5569.83	-0.0219796
5623.39	-0.0210278
5676.94	-0.0202588
5730.5	-0.0196397
5784.06	-0.0191394
5837.61	-0.0187302
5891.17	-0.018387
5944.73	-0.0180881
5998.28	-0.017815
6051.84	-0.0175522
6105.39	-0.017287
6158.95	-0.0170095
6212.51	-0.016712
6266.06	-0.0163892
6319.62	-0.0160377
6373.18	-0.015656
6426.73	-0.0152442
6480.29	-0.0148037
6533.85	-0.0143376
6587.4	-0.0138496
6640.96	-0.0133447
6694.52	-0.0128287
6748.07	-0.0123075
6801.63	-0.011788
6855.18	-0.0112766
6908.74	-0.0107802
6962.3	-0.0103052
7015.85	-0.00985747
7069.41	-0.00944259
7122.97	-0.00906532
7176.52	-0.00872968
7230.08	-0.00843881
7283.63	-0.00819499
7337.19	-0.00799956
7390.75	-0.00785296
7444.3	-0.00775472
7497.86	-0.0077035
7551.41	-0.00769715
7604.97	-0.00773277
7658.53	-0.00780676
7712.08	-0.00791493
7765.64	-0.00805255
7819.2	-0.00821446
7872.75	-0.00839515
7926.31	-0.00858887
7979.86	-0.00878971
8033.42	-0.00899169
8086.98	-0.00918883
8140.53	-0.00937528
8194.09	-0.00954537
8247.65	-0.00969367
8301.2	-0.0098151
8354.76	-0.00990498
8408.31	-0.00995906
8461.87	-0.00997361
8515.43	-0.00994549
8568.98	-0.00987213
8622.54	-0.00975162
8676.1	-0.00958272
8729.65	-0.00936492
8783.21	-0.00909841
8836.77	-0.00878413
8890.32	-0.00842373
8943.88	-0.00801963
8997.43	-0.00757493
9050.99	-0.00709344
9104.55	-0.00657962
9158.1	-0.00603853
9211.66	-0.00547576
9265.22	-0.00489743
9318.77	-0.00431003
9372.33	-0.00372039
9425.89	-0.00313558
9479.44	-0.00256283
9533	-0.00200939
9586.56	-0.00148248
9640.11	-0.000989129
9693.67	-0.000536131
9747.23	-0.000129904
9800.78	0.000223598
9854.34	0.000518974
9907.9	0.000751464
9961.45	0.000917025
10015	0.0010124
10068.6	0.00103515
10122.1	0.000983754
10175.7	0.000857555
10229.2	0.000656834
10282.8	0.000382786
10336.3	3.75007e-05
10389.9	-0.000376061
10443.5	-0.000854117
10497	-0.00139212
10550.6	-0.00198484
10604.1	-0.00262642
10657.7	-0.0033105
10711.2	-0.00403026
10764.8	-0.00477861
10818.4	-0.00554819
10871.9	-0.00633157
10925.5	-0.00712131
10979	-0.00791005
11032.6	-0.00869067
11086.1	-0.0094563
11139.7	-0.0102005
11193.3	-0.0109173
11246.8	-0.0116011
11300.4	-0.0122472
11353.9	-0.0128512
11407.5	-0.0134096
11461	-0.0139195
11514.6	-0.0143787
11568.1	-0.0147857
11621.7	-0.0151396
11675.3	-0.0154404
11728.8	-0.0156885
11782.4	-0.015885
11835.9	-0.0160314
11889.5	-0.0161301
11943	-0.0161833
11996.6	-0.0161941
12050.2	-0.0161657
12103.7	-0.0161014
12157.3	-0.0160049
12210.8	-0.0158798
12264.4	-0.0157298
12317.9	-0.0155587
12371.5	-0.0153699
12425.1	-0.0151669
12478.6	-0.0149528
12532.2	-0.0147308
12585.7	-0.0145035
12639.3	-0.0142733
12692.8	-0.0140423
12746.4	-0.0138122
12799.9	-0.0135844
12853.5	-0.01336
12907.1	-0.0131396
12960.6	-0.0129236
13014.2	-0.0127121
13067.7	-0.0125048
13121.3	-0.0123014
13174.8	-0.012101
13228.4	-0.0119028
13282	-0.0117057
13335.5	-0.0115087
13389.1	-0.0113103
13442.6	-0.0111095
13496.2	-0.0109048
13549.7	-0.0106952
13603.3	-0.0104793
13656.9	-0.0102562
13710.4	-0.0100249
13764	-0.00978453
13817.5	-0.00953449
13871.1	-0.00927427
13924.6	-0.00900356
13978.2	-0.0087222
14031.8	-0.0084302
14085.3	-0.00812774
14138.9	-0.00781514
14192.4	-0.00749286
14246	-0.00716146
14299.5	-0.00682161
14353.1	-0.00647403
14406.6	-0.0061195
14460.2	-0.00575882
14513.8	-0.0053928
14567.3	-0.00502224
14620.9	-0.00464787
14674.4	-0.00427038
14728	-0.00389041
14781.5	-0.0035085
14835.1	-0.00312509
14888.7	-0.00274055
14942.2	-0.00235514
14995.8	-0.00196903
15049.3	-0.0015823
15102.9	-0.00119498
15156.4	-0.000806988
15210	-0.000418235
15263.6	-2.85796e-05
15317.1	0.000362133
15370.7	0.00075405
15424.2	0.0011473
15477.8	0.00154195
15531.3	0.00193803
15584.9	0.00233547
15638.4	0.0027341
15692	0.00313365
15745.6	0.00353372
15799.1	0.00393377
15852.7	0.00433312
15906.2	0.00473095
15959.8	0.00512631
16013.3	0.00551808
16066.9	0.00590502
16120.5	0.00628577
16174	0.00665885
16227.6	0.0070227
16281.1	0.00737565
16334.7	0.007716
16388.2	0.00804199
16441.8	0.00835186
16495.4	0.00864383
16548.9	0.00891619
16602.5	0.00916725
16656	0.00939541
16709.6	0.00959916
16763.1	0.00977712
16816.7	0.00992804
16870.2	0.0100508
16923.8	0.0101446
16977.4	0.0102085
17030.9	0.0102421
17084.5	0.010245
17138	0.010217
17191.6	0.0101583
17245.1	0.0100692
17298.7	0.00994997
17352.3	0.00980144
17405.8	0.00962445
17459.4	0.00942003
17512.9	0.00918941
17566.5	0.00893395
17620	0.00865516
17673.6	0.00835468
17727.2	0.00803423
17780.7	0.00769564
17834.3	0.0073408
17887.8	0.00697165
17941.4	0.00659016
17994.9	0.0061983
18048.5	0.00579807
18102	0.00539141
18155.6	0.00498024
18209.2	0.00456644
18262.7	0.00415179
18316.3	0.00373801
18369.8	0.00332675
18423.4	0.00291952
18476.9	0.00251776
18530.5	0.00212277
18584.1	0.00173575
18637.6	0.00135777
18691.2	0.000989776
18744.7	0.000632599
18798.3	0.000286937
18851.8	-4.6628e-05
18905.4	-0.000367633
18959	-0.000675728
19012.5	-0.000970672
19066.1	-0.00125233
19119.6	-0.00152065
19173.2	-0.00177569
19226.7	-0.00201757
19280.3	-0.00224649
19333.8	-0.00246273
19387.4	-0.0026666
19441	-0.00285847
19494.5	-0.00303877
19548.1	-0.00320795
19601.6	-0.00336646
19655.2	-0.00351481
19708.7	-0.00365349
19762.3	-0.00378301
19815.9	-0.00390387
19869.4	-0.00401656
19923	-0.00412157
19976.5	-0.00421936
