Executable + params: ../../build/sierpi_intel_tbb_forced_scan_tsunami_parallel_release -o 32768 -A 1 -d 20 -a 8 -t 100
Problem size with different number of CPUs using function optimization
THREADS	MTPS	TIMESTEPS	TIMESTEP_SIZE	SECONDS_FOR_SIMULATION	AVERAGE_TRIANGLES	AVERAGE_PARTITIONS
40	60.8778	100	0.000491318		1.9047e+07	963.71
32	50.4136	100	0.000491318		1.9047e+07	773.72
30	39.0958	100	0.000491318		1.9047e+07	756.66
20	26.233	100	0.000491318		1.9047e+07	533.26
16	20.7118	100	0.000491318		1.9047e+07	433.08
10	13.3665	100	0.000491318		1.9047e+07	289.05
8	12.5587	100	0.000491318		1.9047e+07	236.11
4	8.65547	100	0.000491318		1.9047e+07	133.26
2	4.58205	100	0.000491318		1.9047e+07	75.89
1	2.39221	100	0.000491318		1.9047e+07	48
