Executable + params: ../../build/sierpi_intel_tbb_taskaffinities_scan_sacsp_tsunami_parallel_release -o 32768 -k 10 -A 1 -d 20 -a 8 -t 100
Problem size with different number of CPUs using function optimization
THREADS	MTPS	TIMESTEPS	TIMESTEP_SIZE	SECONDS_FOR_SIMULATION	AVERAGE_TRIANGLES	AVERAGE_PARTITIONS
80	69.5178	100	0.000491318		1.9047e+07	1762.6
64	58.839	100	0.000491318		1.9047e+07	1438.5
60	56.7191	100	0.000491318		1.9047e+07	1364.2
40	48.3107	100	0.000491318		1.9047e+07	955.9
32	40.4301	100	0.000491318		1.9047e+07	593.1
30	38.825	100	0.000491318		1.9047e+07	753.1
20	23.8272	100	0.000491318		1.9047e+07	533.8
16	21.6804	100	0.000491318		1.9047e+07	345.9
10	15.9521	100	0.000491318		1.9047e+07	289.9
8	12.8571	100	0.000491318		1.9047e+07	238.6
4	9.04424	100	0.000491318		1.9047e+07	111.9
2	4.70822	100	0.000491318		1.9047e+07	71.2
1	2.44695	100	0.000491318		1.9047e+07	48
