%%MatrixMarket matrix array complex general
6 6
1 0
0 0
0 0
0 0
0 0
0 0
0 0
-0.5 0
0 0
-0.866025404 0
0 0
0 0
0 0
0 0
0.333333333 0
0 0
0.577350269 0
0.745355993 0
-1.63299316 0
1.44337567 0
0 0
-1.5 0
0 0
0 0
-0.5 0
0.707106781 0
-0.866025404 0
1.22474487 0
-0.5 0
1.93649167 0
5.80947502 0
-4.92950302 0
2.31060358 0
6.64078309 0
-2.96928723 0
2.16666667 0
