%%MatrixMarket matrix array complex general
3 6
1.41421356 0
1.41421356 0
1.41421356 0
1 0
-1.32379001 0
3.32379001 0
-1.22474487 0
0.552123147 0
4.34685634 0
1.73205081 0
3.07369159 0
0.390410021 0
3.18198051 0
-1.64316767 0
1.64316767 0
1.36930639 0
4.31221058 0
0.0695698837 0
