%%MatrixMarket matrix array complex general
6 3
0.279350827 0
0.197530864 0
-0.241924913 0
-0.342133493 0
-0.628539361 0
0.270480275 0
0.174594267 0
0.410344445 0
0.536648931 0
-0.048198768 0
-0.202860206 0
0.00858887488 0
0.174594267 0
-0.163430865 0
0.0681633514 0
-0.379468098 0
0.202860206 0
0.532371676 0
