%%MatrixMarket matrix array complex general
6 6
0 0
4.24264069 0
-2.30940108 0
2.44948974 0
2 0
2.5819889 0
0 0
0 0
8.16496581 0
0 0
3.5355339 0
-0.912870929 0
0 0
0 0
0 0
0 0
0 0
0 0
0 0
0 0
0 0
0 0
6.12372436 0
4.74341649 0
0 0
0 0
0 0
0 0
0 0
0 0
0 0
0 0
0 0
0 0
0 0
0 0
