%%MatrixMarket matrix array complex general
6 6
1.41421356 0
1.41421356 0
1.41421356 0
1.41421356 0
1.41421356 0
1.41421356 0
0.675690945 0
0.675690945 0
-1.35138189 0
-1.45054272 0
-1.45054272 0
2.90108544 0
-1.41797866 0
-1.41797866 0
0.617365671 0
0.860388957 0
0.860388957 0
2.78658605 0
-1.17033105 0
1.17033105 0
0 0
2.51241369 0
-2.51241369 0
0 0
-1.76265989 0
1.76265989 0
0 0
-1.66813561 0
1.66813561 0
0 0
0.0970718158 0
0.0970718172 0
-2.17851232 0
2.06168757 0
2.06168757 0
-0.0918662501 0
