%%MatrixMarket matrix array real general
10 10
1.
0.
0.
0.
0.
0.
0.
0.
0.
0.
0.
1.
0.
0.
0.
0.
0.
0.
0.
0.
0.
0.
1.
0.
0.
0.
0.
0.
0.
0.
-.7071067810
0.
0.
-.2500000000
0.
0.
-.4330127020
0.
0.
0.
0.
-.7071067810
0.
0.
-.2500000000
0.
0.
-.4330127020
0.
0.
.1443375673
0.
0.
.4082482906
0.
.8333333333e-1
.7071067810
0.
.1443375673
.1863389981
.4082482906
0.
0.
.7216878367
0.
0.
-.7500000000
0.
0.
0.
0.
.4082482906
0.
0.
.7216878367
0.
0.
-.7500000000
0.
0.
.1250000000
0.
0.
-.7071067810
0.
-.2165063510
0.
0.
-.1250000000
.4841229182
-.1613743061
0.
0.
.3651483717
0.
.5776508940
-.3162277660
0.
-.7423218081
.5416666667
