%%MatrixMarket matrix array real general
10 10
.5000000000
0.
0.
0.
0.
0.
0.
0.
0.
0.
0.
.5000000000
0.
0.
0.
0.
0.
0.
0.
0.
0.
0.
.5000000000
0.
0.
0.
0.
0.
0.
0.
-.7071067810
0.
0.
-.7500000000
0.
0.
.4330127020
0.
0.
0.
0.
-.7071067810
0.
0.
-.7500000000
0.
0.
.4330127020
0.
0.
2.309401077
0.
0.
2.857738034
0.
1.166666667
-.7071067810
0.
-.8660254040
.3726779962
-.4082482906
0.
0.
-.7216878367
0.
0.
-.2500000000
0.
0.
0.
0.
-.4082482906
0.
0.
-.7216878367
0.
0.
-.2500000000
0.
0.
1.750000000
0.
0.
2.828427124
0.
1.587713241
0.
0.
-.2500000000
-.3227486122
.3227486122
0.
0.
.9128709293
0.
.9316949905
.3162277660
0.
.5809475019
.8333333333e-1
