%%MatrixMarket matrix array real general
10 10
.7071067810
0.
0.
0.
0.
0.
0.
0.
0.
0.
.2357022604
0.
0.
-.8333333333e-1
0.
0.
.1443375673
0.
0.
0.
.1178511302
0.
0.
-.6666666667e-1
0.
.1360827635e-1
.1154700539
0.
-.2357022604e-1
.3042903097e-1
.2357022604
0.
0.
.1666666667
0.
0.
0.
0.
0.
0.
.5892556509e-1
0.
0.
.1666666667e-1
0.
-.2041241452e-1
.2886751347e-1
0.
.2357022604e-1
0.
.1178511302
0.
0.
.1333333333
0.
.4082482906e-1
0.
0.
0.
0.
.3535533905
.2041241452
0.
0.
0.
0.
0.
0.
0.
0.
.1178511302
.6804138176e-1
0.
-.4166666667e-1
-.2405626122e-1
0.
.7216878367e-1
.4166666667e-1
0.
0.
.1178511302
.6804138176e-1
0.
.8333333333e-1
.4811252245e-1
0.
0.
0.
0.
0.
.2357022604
.2041241452
.5270462768e-1
0.
0.
0.
0.
0.
0.
0.
