%%MatrixMarket matrix array real general
10 10
1.414213562
0.
0.
0.
0.
0.
0.
0.
0.
0.
-2.449489743
0.
0.
0.
0.
0.
4.898979486
0.
0.
0.
3.162277660
0.
0.
0.
0.
0.
-18.97366596
0.
0.
18.97366596
-2.
0.
0.
6.
0.
0.
0.
0.
0.
0.
3.464101616
0.
0.
-10.39230485
0.
0.
-6.928203232
0.
20.78460970
0.
2.449489743
0.
0.
-19.59591794
0.
24.49489743
0.
0.
0.
0.
-3.464101616
6.928203232
0.
3.464101616
0.
0.
0.
0.
0.
0.
6.
-12.
0.
-6.
0.
0.
-12.
24.
12.
0.
4.242640686
-8.485281372
0.
-25.45584412
42.42640686
21.21320343
0.
0.
0.
0.
5.477225575
-32.86335345
32.86335345
-10.95445115
32.86335345
5.477225575
0.
0.
0.
0.
