%%MatrixMarket matrix array real general
9 10
1.414213562
1.414213562
1.414213562
1.414213562
1.414213562
1.414213562
1.414213562
1.414213562
1.414213562
-2.449489743
0.
2.449489743
-2.449489743
0.
2.449489743
-2.449489743
0.
2.449489743
3.162277660
-1.581138830
3.162277660
3.162277660
-1.581138830
3.162277660
3.162277660
-1.581138830
3.162277660
-2.
-2.
-2.
1.
1.
1.
4.
4.
4.
3.464101616
0.
-3.464101616
-1.732050808
0.
1.732050808
-6.928203232
0.
6.928203232
2.449489743
2.449489743
2.449489743
-1.224744872
-1.224744872
-1.224744872
7.348469229
7.348469229
7.348469229
3.464101616
3.464101616
3.464101616
1.732050808
1.732050808
1.732050808
0.
0.
0.
-6.
0.
6.
-3.
0.
3.
0.
0.
0.
-4.242640686
-4.242640686
-4.242640686
3.181980514
3.181980514
3.181980514
0.
0.
0.
5.477225575
5.477225575
5.477225575
1.369306394
1.369306394
1.369306394
0.
0.
0.
