250,0,0,8192,8192
250.003,0,0,8192,8192
250.053,0,0,8192,8192
250.103,0,0,8192,8192
250.152,0,0,8192,8192
250.202,0,0,8192,8192
250.252,2.77556e-17,0,8192,8192
250.302,0,0,8192,8192
250.352,0,0,8192,8192
250.401,0,0,8192,8192
250.451,0,0,8192,8192
250.501,0,0,8192,8192
250.551,0,0,8192,8192
250.6,0,0,8192,8192
250.65,2.77556e-17,0,8192,8192
250.7,0,0,8192,8192
250.753,0,0,8192,8192
250.803,0,0,8192,8192
250.852,0,0,8192,8192
250.902,2.77556e-17,0,8192,8192
250.952,0,0,8192,8192
251.002,2.77556e-17,0,8192,8192
251.052,2.77556e-17,0,8192,8192
251.101,2.77556e-17,0,8192,8192
251.151,2.77556e-17,0,8192,8192
251.201,2.77556e-17,0,8192,8192
251.251,2.77556e-17,0,8192,8192
251.301,2.77556e-17,0,8192,8192
251.35,2.77556e-17,0,8192,8192
251.4,0,0,8192,8192
251.453,-2.77556e-17,0,8192,8192
251.503,-2.77556e-17,0,8192,8192
251.553,2.77556e-17,0,8192,8192
251.602,2.77556e-17,0,8192,8192
251.652,2.77556e-17,0,8192,8192
251.702,5.55112e-17,0,8192,8192
251.752,5.55112e-17,0,8192,8192
251.801,5.55112e-17,0,8192,8192
251.851,5.55112e-17,0,8192,8192
251.901,5.55112e-17,0,8192,8192
251.951,5.55112e-17,0,8192,8192
252.001,2.77556e-17,0,8192,8192
252.05,2.77556e-17,0,8192,8192
252.1,2.77556e-17,0,8192,8192
252.15,-2.77556e-17,0,8192,8192
252.203,-2.77556e-17,0,8192,8192
252.253,-5.55112e-17,0,8192,8192
252.302,-2.77556e-17,0,8192,8192
252.352,-5.55112e-17,0,8192,8192
252.402,0,0,8192,8192
252.452,-2.77556e-17,0,8192,8192
252.502,-2.77556e-17,0,8192,8192
252.551,2.77556e-17,0,8192,8192
252.601,2.77556e-17,0,8192,8192
252.651,5.55112e-17,0,8192,8192
252.701,2.77556e-17,0,8192,8192
252.751,2.77556e-17,0,8192,8192
252.8,0,0,8192,8192
252.85,-2.77556e-17,0,8192,8192
252.903,-5.55112e-17,0,8192,8192
252.953,-5.55112e-17,0,8192,8192
253.002,-2.77556e-17,0,8192,8192
253.052,-2.77556e-17,0,8192,8192
253.102,-5.55112e-17,0,8192,8192
253.152,-5.55112e-17,0,8192,8192
253.202,-2.77556e-17,0,8192,8192
253.251,-2.77556e-17,0,8192,8192
253.301,0,0,8192,8192
253.351,2.77556e-17,0,8192,8192
253.401,0,0,8192,8192
253.451,2.77556e-17,0,8192,8192
253.5,5.55112e-17,0,8192,8192
253.55,5.55112e-17,0,8192,8192
253.6,5.55112e-17,0,8192,8192
253.653,2.77556e-17,0,8192,8192
253.703,2.77556e-17,0,8192,8192
253.752,2.77556e-17,0,8192,8192
253.802,2.77556e-17,0,8192,8192
253.852,2.77556e-17,0,8192,8192
253.902,-5.55112e-17,0,8192,8192
253.952,-2.77556e-17,0,8192,8192
254.001,0,0,8192,8192
254.051,-2.77556e-17,0,8192,8192
254.101,-2.77556e-17,0,8192,8192
254.151,-2.77556e-17,0,8192,8192
254.201,-2.77556e-17,0,8192,8192
254.25,-2.77556e-17,0,8192,8192
254.3,-2.77556e-17,0,8192,8192
254.353,-2.77556e-17,0,8192,8192
254.403,-5.55112e-17,0,8192,8192
254.452,-2.77556e-17,0,8192,8192
254.502,2.77556e-17,0,8192,8192
254.552,8.32667e-17,0,8192,8192
254.602,5.55112e-17,0,8192,8192
254.652,2.77556e-17,0,8192,8192
254.701,2.77556e-17,0,8192,8192
254.751,2.77556e-17,0,8192,8192
254.801,0,0,8192,8192
254.851,2.77556e-17,0,8192,8192
254.901,5.55112e-17,0,8192,8192
254.95,5.55112e-17,0,8192,8192
255,8.32667e-17,0,8192,8192
255.05,2.77556e-17,0,8192,8192
255.103,5.55112e-17,0,8192,8192
255.153,5.55112e-17,0,8192,8192
255.202,5.55112e-17,0,8192,8192
255.252,8.32667e-17,0,8192,8192
255.302,8.32667e-17,0,8192,8192
255.352,8.32667e-17,0,8192,8192
255.402,8.32667e-17,0,8192,8192
255.451,8.32667e-17,0,8192,8192
255.501,8.32667e-17,0,8192,8192
255.551,5.55112e-17,0,8192,8192
255.601,5.55112e-17,0,8192,8192
255.651,5.55112e-17,0,8192,8192
255.7,5.55112e-17,0,8192,8192
255.75,5.55112e-17,0,8192,8192
255.803,2.77556e-17,0,8192,8192
255.853,-2.77556e-17,0,8192,8192
255.902,0,0,8192,8192
255.952,-2.77556e-17,0,8192,8192
256.002,-2.77556e-17,0,8192,8192
256.052,-2.77556e-17,0,8192,8192
256.102,-2.77556e-17,0,8192,8192
256.151,-5.55112e-17,0,8192,8192
256.201,-5.55112e-17,0,8192,8192
256.251,-8.32667e-17,0,8192,8192
256.301,-8.32667e-17,0,8192,8192
256.351,-5.55112e-17,0,8192,8192
256.4,-2.77556e-17,0,8192,8192
256.45,-2.77556e-17,0,8192,8192
256.5,-5.55112e-17,0,8192,8192
256.553,-5.55112e-17,0,8192,8192
256.603,-2.77556e-17,0,8192,8192
256.652,-5.55112e-17,0,8192,8192
256.702,-5.55112e-17,0,8192,8192
256.752,0,0,8192,8192
256.802,-2.77556e-17,0,8192,8192
256.852,-2.77556e-17,0,8192,8192
256.901,-2.77556e-17,0,8192,8192
256.951,-2.77556e-17,0,8192,8192
257.001,-2.77556e-17,0,8192,8192
257.051,0,0,8192,8192
257.101,0,0,8192,8192
257.15,0,0,8192,8192
257.2,5.55112e-17,0,8192,8192
257.253,0,0,8192,8192
257.303,-2.77556e-17,0,8192,8192
257.352,-2.77556e-17,0,8192,8192
257.402,2.77556e-17,0,8192,8192
257.452,5.55112e-17,0,8192,8192
257.502,5.55112e-17,0,8192,8192
257.552,8.32667e-17,0,8192,8192
257.601,5.55112e-17,0,8192,8192
257.651,5.55112e-17,0,8192,8192
257.701,2.77556e-17,0,8192,8192
257.751,0,0,8192,8192
257.801,-2.77556e-17,0,8192,8192
257.85,-2.77556e-17,0,8192,8192
257.9,-2.77556e-17,0,8192,8192
257.95,-2.77556e-17,0,8192,8192
258.003,-2.77556e-17,0,8192,8192
258.053,0,0,8192,8192
258.102,0,0,8192,8192
258.152,-2.77556e-17,0,8192,8192
258.202,-5.55112e-17,0,8192,8192
258.252,-2.77556e-17,0,8192,8192
258.302,2.77556e-17,0,8192,8192
258.351,2.77556e-17,0,8192,8192
258.401,2.77556e-17,0,8192,8192
258.451,2.77556e-17,0,8192,8192
258.501,2.77556e-17,0,8192,8192
258.551,2.77556e-17,0,8192,8192
258.6,2.77556e-17,0,8192,8192
258.65,2.77556e-17,0,8192,8192
258.703,0,0,8192,8192
258.753,5.55112e-17,0,8192,8192
258.802,2.77556e-17,0,8192,8192
258.852,0,0,8192,8192
258.902,2.77556e-17,0,8192,8192
258.952,2.77556e-17,0,8192,8192
259.002,0,0,8192,8192
259.051,0,0,8192,8192
259.101,0,0,8192,8192
259.151,2.77556e-17,0,8192,8192
259.201,0,0,8192,8192
259.251,-2.77556e-17,0,8192,8192
259.3,-2.77556e-17,0,8192,8192
259.35,-2.77556e-17,0,8192,8192
259.403,-5.55112e-17,0,8192,8192
259.453,0,0,8192,8192
259.503,0,0,8192,8192
259.552,0,0,8192,8192
259.602,0,0,8192,8192
259.652,-2.77556e-17,0,8192,8192
259.702,-2.77556e-17,0,8192,8192
259.751,-2.77556e-17,0,8192,8192
259.801,-2.77556e-17,0,8192,8192
259.851,-2.77556e-17,0,8192,8192
259.901,-2.77556e-17,0,8192,8192
259.951,0,0,8192,8192
260,5.55112e-17,0,8192,8192
260.05,-2.77556e-17,0,8192,8192
260.1,-2.77556e-17,0,8192,8192
260.153,-2.77556e-17,0,8192,8192
260.203,5.55112e-17,0,8192,8192
260.252,0,0,8192,8192
260.302,-2.77556e-17,0,8192,8192
260.352,-2.77556e-17,0,8192,8192
260.402,-2.77556e-17,0,8192,8192
260.452,-5.55112e-17,0,8192,8192
260.501,-5.55112e-17,0,8192,8192
260.551,-5.55112e-17,0,8192,8192
260.601,-2.77556e-17,0,8192,8192
260.651,-8.32667e-17,0,8192,8192
260.701,-2.77556e-17,0,8192,8192
260.75,-2.77556e-17,0,8192,8192
260.8,0,0,8192,8192
260.853,0,0,8192,8192
260.903,2.77556e-17,0,8192,8192
260.952,0,0,8192,8192
261.002,0,0,8192,8192
261.052,0,0,8192,8192
261.102,0,0,8192,8192
261.152,-2.77556e-17,0,8192,8192
261.201,-2.77556e-17,0,8192,8192
261.251,-2.77556e-17,0,8192,8192
261.301,-2.77556e-17,0,8192,8192
261.351,-5.55112e-17,0,8192,8192
261.401,-2.77556e-17,0,8192,8192
261.45,-2.77556e-17,0,8192,8192
261.5,-5.55112e-17,0,8192,8192
261.55,-2.77556e-17,0,8192,8192
261.603,-2.77556e-17,0,8192,8192
261.653,-5.55112e-17,0,8192,8192
261.702,-2.77556e-17,0,8192,8192
261.752,0,0,8192,8192
261.802,0,0,8192,8192
261.852,-5.55112e-17,0,8192,8192
261.902,-5.55112e-17,0,8192,8192
261.951,-2.77556e-17,0,8192,8192
262.001,0,0,8192,8192
262.051,-2.77556e-17,0,8192,8192
262.101,-2.77556e-17,0,8192,8192
262.151,-2.77556e-17,0,8192,8192
262.2,-2.77556e-17,0,8192,8192
262.25,-2.77556e-17,0,8192,8192
262.303,5.55112e-17,0,8192,8192
262.353,5.55112e-17,0,8192,8192
262.402,2.77556e-17,0,8192,8192
262.452,5.55112e-17,0,8192,8192
262.502,5.55112e-17,0,8192,8192
262.552,0,0,8192,8192
262.602,0,0,8192,8192
262.651,2.77556e-17,0,8192,8192
262.701,2.77556e-17,0,8192,8192
262.751,0,0,8192,8192
262.801,2.77556e-17,0,8192,8192
262.851,0,0,8192,8192
262.9,5.55112e-17,0,8192,8192
262.95,5.55112e-17,0,8192,8192
263,5.55112e-17,0,8192,8192
263.053,8.32667e-17,0,8192,8192
263.103,8.32667e-17,0,8192,8192
263.152,8.32667e-17,0,8192,8192
263.202,5.55112e-17,0,8192,8192
263.252,1.11022e-16,0,8192,8192
263.302,1.11022e-16,0,8192,8192
263.352,8.32667e-17,0,8192,8192
263.401,5.55112e-17,0,8192,8192
263.451,2.77556e-17,0,8192,8192
263.501,0,0,8192,8192
263.551,0,0,8192,8192
263.601,0,0,8192,8192
263.65,0,0,8192,8192
263.7,0,0,8192,8192
263.753,2.77556e-17,0,8192,8192
263.803,5.55112e-17,0,8192,8192
263.852,2.77556e-17,0,8192,8192
263.902,2.77556e-17,0,8192,8192
263.952,0,0,8192,8192
264.002,0,0,8192,8192
264.052,-2.77556e-17,0,8192,8192
264.101,-5.55112e-17,0,8192,8192
264.151,-2.77556e-17,0,8192,8192
264.201,-2.77556e-17,0,8192,8192
264.251,-2.77556e-17,0,8192,8192
264.301,0,0,8192,8192
264.35,0,0,8192,8192
264.4,5.55112e-17,0,8192,8192
264.45,1.11022e-16,0,8192,8192
264.503,1.11022e-16,0,8192,8192
264.553,1.11022e-16,0,8192,8192
264.602,1.11022e-16,0,8192,8192
264.652,8.32667e-17,0,8192,8192
264.702,8.32667e-17,0,8192,8192
264.752,1.11022e-16,0,8192,8192
264.802,1.38778e-16,0,8192,8192
264.851,1.66533e-16,0,8192,8192
264.901,1.11022e-16,0,8192,8192
264.951,1.38778e-16,0,8192,8192
265.001,1.38778e-16,0,8192,8192
265.051,1.11022e-16,0,8192,8192
265.1,8.32667e-17,0,8192,8192
265.15,1.11022e-16,0,8192,8192
265.203,8.32667e-17,0,8192,8192
265.253,1.11022e-16,0,8192,8192
265.302,1.11022e-16,0,8192,8192
265.352,8.32667e-17,0,8192,8192
265.402,5.55112e-17,0,8192,8192
265.452,5.55112e-17,0,8192,8192
265.502,5.55112e-17,0,8192,8192
265.551,8.32667e-17,0,8192,8192
265.601,8.32667e-17,0,8192,8192
265.651,5.55112e-17,0,8192,8192
265.701,5.55112e-17,0,8192,8192
265.751,5.55112e-17,0,8192,8192
265.8,2.77556e-17,0,8192,8192
265.85,2.77556e-17,0,8192,8192
265.9,2.77556e-17,0,8192,8192
265.953,2.77556e-17,0,8192,8192
266.003,0,0,8192,8192
266.052,0,0,8192,8192
266.102,0,0,8192,8192
266.152,-5.55112e-17,0,8192,8192
266.202,-5.55112e-17,0,8192,8192
266.252,-5.55112e-17,0,8192,8192
266.301,-5.55112e-17,0,8192,8192
266.351,-8.32667e-17,0,8192,8192
266.401,-8.32667e-17,0,8192,8192
266.451,-8.32667e-17,0,8192,8192
266.501,-8.32667e-17,0,8192,8192
266.55,-1.11022e-16,0,8192,8192
266.6,-1.11022e-16,0,8192,8192
266.653,-1.11022e-16,0,8192,8192
266.703,-1.11022e-16,0,8192,8192
266.752,-1.38778e-16,0,8192,8192
266.802,-1.38778e-16,0,8192,8192
266.852,-1.38778e-16,0,8192,8192
266.902,-1.11022e-16,0,8192,8192
266.952,-1.38778e-16,0,8192,8192
267.001,-1.38778e-16,0,8192,8192
267.051,-8.32667e-17,0,8192,8192
267.101,-1.11022e-16,0,8192,8192
267.151,-5.55112e-17,0,8192,8192
267.201,-5.55112e-17,0,8192,8192
267.25,-8.32667e-17,0,8192,8192
267.3,-5.55112e-17,0,8192,8192
267.353,-5.55112e-17,0,8192,8192
267.403,-2.77556e-17,0,8192,8192
267.453,-5.55112e-17,0,8192,8192
267.502,-8.32667e-17,0,8192,8192
267.552,-1.11022e-16,0,8192,8192
267.602,-1.11022e-16,0,8192,8192
267.652,-8.32667e-17,0,8192,8192
267.702,-1.11022e-16,0,8192,8192
267.751,-8.32667e-17,0,8192,8192
267.801,-1.11022e-16,0,8192,8192
267.851,-1.11022e-16,0,8192,8192
267.901,-1.38778e-16,0,8192,8192
267.95,-1.38778e-16,0,8192,8192
268,-1.38778e-16,0,8192,8192
268.05,-1.11022e-16,0,8192,8192
268.1,-1.11022e-16,0,8388,8388
268.15,-1.11022e-16,0,8556,8556
268.2,-1.11022e-16,0,8676,8676
268.251,-1.11022e-16,0,8796,8796
268.301,-1.11022e-16,0,8964,8964
268.351,-1.11022e-16,0,9132,9132
268.401,-1.11022e-16,0,9300,9300
268.451,-1.11022e-16,0,9468,9468
268.5,-1.11022e-16,0,9660,9660
268.55,-1.11022e-16,0,9828,9828
268.601,-1.11022e-16,0,9996,9996
268.651,-1.11022e-16,0,10164,10164
268.701,-1.11022e-16,0,10332,10332
268.751,-1.11022e-16,0,10524,10524
268.801,-1.11022e-16,0,10692,10692
268.85,-1.11022e-16,0,10860,10860
268.9,-1.11022e-16,0,11028,11028
268.951,-1.11022e-16,0,11196,11196
269.001,-1.11022e-16,0,11364,11364
269.051,-1.11022e-16,0,11556,11556
269.101,-1.11022e-16,0,11692,11692
269.151,-1.11022e-16,0,11796,11796
269.2,-1.11022e-16,0,11964,11964
269.25,-1.11022e-16,0,12148,12148
269.3,-1.11022e-16,0,12332,12332
269.351,-1.11022e-16,0,12492,12492
269.401,-1.11022e-16,0,12628,12628
269.451,-1.11022e-16,0,12780,12780
269.501,-1.11022e-16,0,12964,12964
269.55,-1.11022e-16,0,13060,13060
269.6,-1.11022e-16,0,13244,13244
269.65,-1.11022e-16,0,13404,13404
269.701,-1.11022e-16,0,13532,13532
269.751,-1.11022e-16,0,13644,13644
269.801,-1.11022e-16,0,13716,13716
269.851,-1.11022e-16,0,13860,13860
269.901,-1.11022e-16,0,14028,14028
269.95,-1.11022e-16,0,14196,14196
270,-1.11022e-16,0,14364,14364
270.051,-1.11022e-16,0,14524,14524
270.101,-1.11022e-16,0,14692,14692
270.151,-1.11022e-16,0,14860,14860
270.201,-1.11022e-16,0,15028,15028
270.251,-1.11022e-16,0,15196,15196
270.3,-1.11022e-16,0,15364,15364
270.35,-1.11022e-16,0,15500,15500
270.401,-1.11022e-16,0,15676,15676
270.451,-1.11022e-16,0,15844,15844
270.501,-1.11022e-16,0,16012,16012
270.551,-1.11022e-16,0,16172,16172
270.601,-1.11022e-16,0,16316,16316
270.65,-1.11022e-16,0,16476,16476
270.7,0,0,16628,16628
270.75,6.93889e-16,0,16788,16788
270.801,1.60982e-15,0,16924,16924
270.851,3.58047e-15,0,17076,17076
270.901,1.41553e-14,0,17252,17252
270.951,3.8386e-14,0,17372,17372
271,-5.14311e-14,0,17532,17532
271.05,-1.08152e-12,0,17676,17676
271.1,-5.79106e-12,0,17820,17820
271.151,-2.03255e-11,0,17964,17964
271.201,-5.03544e-11,0,18124,18124
271.251,-1.16042e-10,0,18268,18268
271.301,-3.32434e-10,0,18444,18444
271.35,-4.60475e-10,0,18572,18572
271.4,-3.36155e-10,0,18620,18620
271.45,-3.67472e-11,0,18732,18732
271.501,2.44167e-10,0,18860,18860
271.551,3.26966e-10,0,19004,19004
271.601,1.94322e-10,0,19132,19132
271.651,-2.49335e-11,0,19284,19284
271.701,-1.3726e-10,0,19380,19380
271.75,-4.72065e-11,0,19540,19540
271.8,1.56769e-10,0,19676,19676
271.851,2.87932e-10,0,19844,19844
271.901,2.28576e-10,0,19956,19956
271.951,4.43912e-11,0,20132,20132
272.001,-5.17363e-11,0,20276,20276
272.051,-8.67054e-12,0,20420,20420
272.1,7.42622e-11,0,20564,20564
272.15,2.34549e-10,0,20724,20724
272.201,2.42324e-10,0,20908,20908
272.251,1.34249e-10,0,21020,21020
272.301,2.35959e-11,0,21236,21236
272.351,1.30337e-11,0,21484,21484
272.401,4.10932e-11,0,21732,21732
272.45,9.38959e-11,0,21932,21932
272.5,2.52455e-10,0,22036,22036
272.55,3.11271e-10,0,22140,22140
272.601,1.55307e-10,0,22308,22308
272.651,-1.21503e-10,0,22452,22452
272.701,-2.59629e-10,0,22556,22556
272.751,-1.71868e-11,0,22692,22692
272.8,5.07921e-10,0,22812,22812
272.85,7.94206e-10,0,22916,22916
272.9,3.24462e-10,0,22980,22980
272.951,-7.49077e-10,0,23084,23084
273.001,-1.20305e-09,0,23252,23252
273.051,3.37443e-10,0,23364,23364
273.101,4.45081e-09,0,23572,23572
273.151,1.04391e-08,0,23852,23852
273.2,1.687e-08,0,24100,24100
273.25,2.2456e-08,0,24260,24260
273.301,2.66326e-08,0,24396,24396
273.351,2.92173e-08,0,24508,24508
273.401,3.11577e-08,0,24612,24612
273.451,3.38771e-08,0,24748,24748
273.501,3.88266e-08,0,24884,24884
273.55,4.66902e-08,0,25004,25004
273.6,5.71481e-08,0,25148,25148
273.651,6.99197e-08,0,25268,25268
273.701,8.42233e-08,0,25412,25412
273.751,1.01343e-07,0,25556,25556
273.801,1.22765e-07,0,25676,25676
273.851,1.49858e-07,0,25820,25820
273.9,1.83476e-07,0,25964,25964
273.95,2.23675e-07,0,26108,26108
274.001,2.70758e-07,0,26236,26236
274.051,3.19839e-07,0,26396,26396
274.101,3.70175e-07,0,26572,26572
274.151,4.21327e-07,0,26836,26836
274.201,4.74657e-07,0,27068,27068
274.25,5.3169e-07,0,27228,27228
274.3,5.91935e-07,0,27348,27348
274.35,6.5229e-07,0,27492,27492
274.401,7.10019e-07,0,27612,27612
274.451,7.58127e-07,0,27732,27732
274.501,7.96255e-07,0,27876,27876
274.551,8.23816e-07,0,27996,27996
274.6,8.4171e-07,0,28140,28140
274.65,8.52051e-07,0,28260,28260
274.7,8.57246e-07,0,28364,28364
274.751,8.58971e-07,0,28428,28428
274.801,8.57696e-07,0,28484,28484
274.851,8.53235e-07,0,28556,28556
274.901,8.44822e-07,0,28716,28716
274.951,8.31408e-07,0,28820,28820
275,8.11864e-07,0,28940,28940
275.05,7.85196e-07,0,29036,29036
275.101,7.4963e-07,0,29172,29172
275.151,7.07346e-07,0,29292,29292
275.201,6.5891e-07,0,29404,29404
275.251,6.07009e-07,0,29564,29564
275.301,5.54653e-07,0,29636,29636
275.35,5.04167e-07,0,29756,29756
275.4,4.56863e-07,0,29876,29876
275.451,4.12021e-07,0,30020,30020
275.501,3.72129e-07,0,30140,30140
275.551,3.35368e-07,0,30284,30284
275.601,3.01082e-07,0,30388,30388
275.651,2.68651e-07,0,30492,30492
275.7,2.3769e-07,0,30644,30644
275.75,2.08347e-07,0,30796,30796
275.8,1.8162e-07,0,30956,30956
275.851,1.58496e-07,0,31188,31188
275.901,1.41281e-07,0,31284,31284
275.951,1.28376e-07,0,31404,31404
276.001,1.17272e-07,0,31524,31524
276.05,1.0553e-07,0,31620,31620
276.1,9.25114e-08,0,31740,31740
276.15,7.95039e-08,0,31852,31852
276.201,6.80762e-08,0,31948,31948
276.251,5.99307e-08,0,32092,32092
276.301,5.45476e-08,0,32204,32204
276.351,5.09907e-08,0,32284,32284
276.401,4.7941e-08,0,32380,32380
276.45,4.40763e-08,0,32476,32476
276.5,3.87021e-08,0,32684,32684
276.551,3.21439e-08,0,32704,32704
276.601,2.63235e-08,0,32656,32656
276.651,2.24768e-08,0,32688,32688
276.701,2.09395e-08,0,32768,32768
276.751,2.09646e-08,0,32768,32768
276.8,2.15024e-08,0,32768,32768
276.85,2.19123e-08,0,32584,32584
276.901,2.2089e-08,0,32632,32632
276.951,2.21632e-08,0,32680,32680
277.001,2.22495e-08,0,32576,32576
277.051,2.23533e-08,0,32400,32400
277.101,2.24076e-08,0,32600,32600
277.15,2.22723e-08,0,32560,32560
277.2,2.18653e-08,0,32280,32280
277.25,2.13947e-08,0,32320,32320
277.301,2.11029e-08,0,32384,32384
277.351,2.09853e-08,0,32088,32088
277.401,2.09143e-08,0,32360,32360
277.451,2.08344e-08,0,32456,32456
277.5,2.07312e-08,0,32328,32328
277.55,2.06005e-08,0,32552,32552
277.6,2.04396e-08,0,32704,32704
277.651,2.02406e-08,0,32768,32768
277.701,2.00134e-08,0,32768,32768
277.751,1.97515e-08,0,32768,32768
277.801,1.94533e-08,0,32768,32768
277.851,1.91179e-08,0,32768,32768
277.9,1.87456e-08,0,32768,32768
277.95,1.83383e-08,0,32768,32768
278.001,1.78867e-08,0,32768,32768
278.051,1.74219e-08,0,32768,32768
278.101,1.69372e-08,0,32768,32768
278.151,1.64383e-08,0,32768,32768
278.201,1.59299e-08,0,32768,32768
278.25,1.54161e-08,0,32768,32768
278.3,1.48997e-08,0,32768,32768
278.351,1.43681e-08,0,32768,32768
278.401,1.3854e-08,0,32768,32768
278.451,1.33451e-08,0,32768,32768
278.501,1.28444e-08,0,32768,32768
278.551,1.23558e-08,0,32768,32768
278.6,1.18834e-08,0,32768,32768
278.65,1.14318e-08,0,32768,32768
278.701,1.09931e-08,0,32768,32768
278.751,1.05961e-08,0,32768,32768
278.801,1.02301e-08,0,32768,32768
278.851,9.89609e-09,0,32768,32768
278.901,9.59375e-09,0,32768,32768
278.95,9.32164e-09,0,32768,32768
279,9.07789e-09,0,32768,32768
279.05,8.8605e-09,0,32768,32768
279.101,8.66224e-09,0,32768,32768
279.151,8.49276e-09,0,32768,32768
279.201,8.34462e-09,0,32768,32768
279.251,8.21653e-09,0,32768,32768
279.3,8.10707e-09,0,32768,32768
279.35,8.01446e-09,0,32768,32768
279.4,7.93646e-09,0,32768,32768
279.451,7.86887e-09,0,32768,32768
279.501,7.81339e-09,0,32768,32768
279.551,7.76656e-09,0,32768,32768
279.601,7.7278e-09,0,32768,32768
279.651,7.69693e-09,0,32768,32768
279.7,7.67365e-09,0,32768,32768
279.75,7.65715e-09,0,32768,32768
279.801,7.64599e-09,0,32768,32768
279.851,7.63946e-09,0,32768,32768
279.901,7.63614e-09,0,32768,32768
279.951,7.63553e-09,0,32768,32768
280.001,7.63763e-09,0,32768,32768
280.05,7.64273e-09,0,32768,32768
280.1,7.65106e-09,0,32768,32768
280.151,7.66285e-09,0,32768,32768
280.201,7.67689e-09,0,32768,32768
280.251,7.69265e-09,0,32768,32768
280.301,7.70936e-09,0,32768,32768
280.351,7.72643e-09,0,32768,32768
280.4,7.74352e-09,0,32768,32768
280.45,7.7605e-09,0,32768,32768
280.5,7.77735e-09,0,32768,32768
280.551,7.79458e-09,0,32768,32768
280.601,7.81126e-09,0,32768,32768
280.651,7.8279e-09,0,32768,32768
280.701,7.84455e-09,0,32768,32768
280.75,7.86123e-09,0,32768,32768
280.8,7.87791e-09,0,32768,32768
280.85,7.89456e-09,0,32768,32768
280.901,7.91161e-09,0,32768,32768
280.951,7.92802e-09,0,32768,32768
281.001,7.94419e-09,0,32768,32768
281.051,7.96008e-09,0,32768,32768
281.101,7.97561e-09,0,32768,32768
281.15,7.99078e-09,0,32768,32768
281.2,8.00559e-09,0,32768,32768
281.251,8.02047e-09,0,32768,32768
281.301,8.03456e-09,0,32768,32768
281.351,8.04822e-09,0,32768,32768
281.401,8.06143e-09,0,32768,32768
281.451,8.07413e-09,0,32768,32768
281.5,8.08633e-09,0,32768,32768
281.55,8.09799e-09,0,32768,32768
281.601,8.10933e-09,0,32768,32768
281.651,8.1196e-09,0,32768,32768
281.701,8.12916e-09,0,32768,32768
281.751,8.13861e-09,0,32768,32768
281.801,8.14933e-09,0,32768,32768
281.85,8.16353e-09,0,32768,32768
281.9,8.18381e-09,0,32768,32768
281.95,8.21281e-09,0,32768,32768
282.001,8.25472e-09,0,32768,32768
282.051,8.3111e-09,0,32768,32768
282.101,8.38837e-09,0,32768,32768
282.151,8.49305e-09,0,32768,32768
282.2,8.63121e-09,0,32768,32768
282.25,8.80672e-09,0,32768,32768
282.3,9.02006e-09,0,32768,32768
282.351,9.27668e-09,0,32768,32768
282.401,9.55981e-09,0,32768,32768
282.451,9.87908e-09,0,32768,32768
282.501,1.0245e-08,0,32768,32768
282.55,1.06748e-08,0,32768,32768
282.6,1.11892e-08,0,32768,32768
282.65,1.18085e-08,0,32768,32768
282.701,1.2576e-08,0,32768,32768
282.751,1.34673e-08,0,32768,32768
282.801,1.45218e-08,0,32768,32768
282.851,1.57587e-08,0,32768,32768
282.901,1.71954e-08,0,32768,32768
282.95,1.88458e-08,0,32768,32768
283,2.07195e-08,0,32768,32768
283.051,2.28884e-08,0,32768,32768
283.101,2.52326e-08,0,32768,32768
283.151,2.78108e-08,0,32768,32768
283.201,3.06175e-08,0,32768,32768
283.251,3.36386e-08,0,32768,32768
283.3,3.68517e-08,0,32768,32768
283.35,4.02285e-08,0,32768,32768
283.401,4.3845e-08,0,32768,32768
283.451,4.74684e-08,0,32768,32768
283.501,5.11795e-08,0,32768,32768
283.551,5.49621e-08,0,32768,32768
283.601,5.88062e-08,0,32768,32768
283.65,6.27176e-08,0,32768,32768
283.7,6.67336e-08,0,32768,32768
283.75,7.09373e-08,0,32768,32768
283.801,7.55944e-08,0,32768,32768
283.851,8.0582e-08,0,32768,32768
283.901,8.61277e-08,0,32768,32768
283.951,9.224e-08,0,32768,32768
284,9.88132e-08,0,32768,32768
284.05,1.05655e-07,0,32768,32768
284.1,1.12558e-07,0,32768,32768
284.151,1.19589e-07,0,32768,32768
284.201,1.2636e-07,0,32768,32768
284.251,1.33263e-07,0,32768,32768
284.301,1.40625e-07,0,32768,32768
284.351,1.4886e-07,0,32768,32768
284.4,1.584e-07,0,32768,32768
284.45,1.69671e-07,0,32768,32768
284.501,1.83514e-07,0,32768,32768
284.551,1.99568e-07,0,32768,32768
284.601,2.18623e-07,0,32768,32768
284.651,2.41086e-07,0,32768,32768
284.701,2.67273e-07,0,32768,32768
284.75,2.97333e-07,0,32768,32768
284.8,3.31192e-07,0,32768,32768
284.851,3.697e-07,0,32768,32768
284.901,4.10171e-07,0,32768,32768
284.951,4.53076e-07,0,32768,32768
285.001,4.97767e-07,0,32768,32768
285.051,5.4351e-07,0,32768,32768
285.1,5.89413e-07,0,32768,32768
285.15,6.34364e-07,0,32768,32768
285.2,6.77026e-07,0,32768,32768
285.251,7.17009e-07,0,32768,32768
285.301,7.50591e-07,0,32768,32768
285.351,7.77856e-07,0,32768,32768
285.401,7.98127e-07,0,32768,32768
285.45,8.11234e-07,0,32768,32768
285.5,8.17449e-07,0,32768,32768
285.55,8.17331e-07,0,32768,32768
285.601,8.11271e-07,0,32768,32768
285.651,8.00171e-07,0,32768,32768
285.701,7.84263e-07,0,32768,32768
285.751,7.6363e-07,0,32768,32768
285.801,7.38177e-07,0,32768,32768
285.85,7.07751e-07,0,32768,32768
285.9,6.72291e-07,0,32768,32768
285.951,6.30717e-07,0,32768,32768
286.001,5.85929e-07,0,32768,32768
286.051,5.37676e-07,0,32768,32768
286.101,4.87116e-07,0,32768,32768
286.151,4.35556e-07,0,32768,32768
286.2,3.84294e-07,0,32768,32768
286.25,3.34457e-07,0,32768,32768
286.301,2.85543e-07,0,32768,32768
286.351,2.40901e-07,0,32768,32768
286.401,1.99365e-07,0,32768,32768
286.451,1.61016e-07,0,32768,32768
286.501,1.25851e-07,0,32768,32768
286.55,9.38672e-08,0,32768,32768
286.6,6.50912e-08,0,32768,32768
286.651,3.88623e-08,0,32768,32768
286.701,1.66686e-08,0,32768,32768
286.751,-2.4143e-09,0,32768,32768
286.801,-1.86518e-08,0,32768,32768
286.851,-3.24093e-08,0,32768,32768
286.9,-4.40658e-08,0,32768,32768
286.95,-5.39235e-08,0,32768,32768
287,-6.2162e-08,0,32768,32768
287.051,-6.90314e-08,0,32768,32768
287.101,-7.41844e-08,0,32768,32768
287.151,-7.79309e-08,0,32768,32768
287.201,-8.04472e-08,0,32768,32768
287.25,-8.19752e-08,0,32768,32768
287.3,-8.27572e-08,0,32768,32768
287.35,-8.29635e-08,0,32768,32768
287.401,-8.26354e-08,0,32768,32768
287.451,-8.17484e-08,0,32768,32768
287.501,-8.02157e-08,0,32768,32768
287.551,-7.79805e-08,0,32768,32768
287.601,-7.50625e-08,0,32768,32768
287.65,-7.15675e-08,0,32768,32768
287.7,-6.76618e-08,0,32768,32768
287.751,-6.34072e-08,0,32768,32768
287.801,-5.92179e-08,0,32768,32768
287.851,-5.51037e-08,0,32768,32768
287.901,-5.11521e-08,0,32768,32768
287.951,-4.74158e-08,0,32768,32768
288,-4.39203e-08,0,32768,32768
288.05,-4.06706e-08,0,32768,32768
288.101,-3.7573e-08,0,32768,32768
288.151,-3.47877e-08,0,32768,32768
288.201,-3.22055e-08,0,32768,32768
288.251,-2.98118e-08,0,32768,32768
288.301,-2.75973e-08,0,32768,32768
288.35,-2.5556e-08,0,32768,32768
288.4,-2.3684e-08,0,32768,32768
288.45,-2.19766e-08,0,32768,32768
288.501,-2.03847e-08,0,32768,32768
288.551,-1.89913e-08,0,32768,32768
288.601,-1.77398e-08,0,32768,32768
288.651,-1.66201e-08,0,32768,32768
288.7,-1.56216e-08,0,32768,32768
288.75,-1.47337e-08,0,32768,32768
288.8,-1.39455e-08,0,32768,32768
288.851,-1.32279e-08,0,32768,32768
288.901,-1.2613e-08,0,32768,32768
288.951,-1.20716e-08,0,32768,32768
289.001,-1.1598e-08,0,32768,32768
289.051,-1.11874e-08,0,32768,32768
289.1,-1.08361e-08,0,32768,32768
289.15,-1.05404e-08,0,32768,32768
289.201,-1.02905e-08,0,32768,32768
289.251,-1.00968e-08,0,32768,32768
289.301,-9.94762e-09,0,32768,32768
289.351,-9.83923e-09,0,32768,32768
289.401,-9.76767e-09,0,32768,32768
289.45,-9.72886e-09,0,32768,32768
289.5,-9.71856e-09,0,32768,32768
289.551,-9.73299e-09,0,32768,32768
289.601,-9.76659e-09,0,32768,32768
289.651,-9.81481e-09,0,32768,32768
289.701,-9.87328e-09,0,32768,32768
289.751,-9.93805e-09,0,32768,32768
289.8,-1.00057e-08,0,32768,32768
289.85,-1.00737e-08,0,32768,32768
289.901,-1.01416e-08,0,32768,32768
289.951,-1.02043e-08,0,32768,32768
290.001,-1.02629e-08,0,32768,32768
290.051,-1.0317e-08,0,32768,32768
290.101,-1.03664e-08,0,32768,32768
290.15,-1.04113e-08,0,32768,32768
290.2,-1.04519e-08,0,32768,32768
290.25,-1.04885e-08,0,32768,32768
290.301,-1.05227e-08,0,32768,32768
290.351,-1.05532e-08,0,32768,32768
290.401,-1.05819e-08,0,32768,32768
290.451,-1.06095e-08,0,32768,32768
290.5,-1.06366e-08,0,32768,32768
290.55,-1.06635e-08,0,32768,32768
290.6,-1.06902e-08,0,32768,32768
290.651,-1.07173e-08,0,32768,32768
290.701,-1.07429e-08,0,32768,32768
290.751,-1.07678e-08,0,32768,32768
290.801,-1.07918e-08,0,32768,32768
290.851,-1.08151e-08,0,32768,32768
290.9,-1.08379e-08,0,32768,32768
290.95,-1.08605e-08,0,32768,32768
291.001,-1.0884e-08,0,32768,32768
291.051,-1.09078e-08,0,32768,32768
291.101,-1.09335e-08,0,32768,32768
291.151,-1.09623e-08,0,32768,32768
291.201,-1.09955e-08,0,32768,32768
291.25,-1.10343e-08,0,32768,32768
291.3,-1.108e-08,0,32768,32768
291.351,-1.11351e-08,0,32768,32768
291.401,-1.11974e-08,0,32768,32768
291.451,-1.12691e-08,0,32768,32768
291.501,-1.13512e-08,0,32768,32768
291.551,-1.14445e-08,0,32768,32768
291.6,-1.155e-08,0,32768,32768
291.65,-1.16679e-08,0,32768,32768
291.7,-1.17983e-08,0,32768,32768
291.751,-1.19448e-08,0,32768,32768
291.801,-1.20984e-08,0,32768,32768
291.851,-1.22622e-08,0,32768,32768
291.901,-1.24359e-08,0,32768,32768
291.95,-1.26201e-08,0,32768,32768
292,-1.2816e-08,0,32768,32768
292.05,-1.30256e-08,0,32768,32768
292.101,-1.32584e-08,0,32768,32768
292.151,-1.35034e-08,0,32768,32768
292.201,-1.37692e-08,0,32768,32768
292.251,-1.4057e-08,0,32768,32768
292.301,-1.43672e-08,0,32768,32768
292.35,-1.46994e-08,0,32768,32768
292.4,-1.50523e-08,0,32768,32768
292.451,-1.54351e-08,0,32768,32768
292.501,-1.58239e-08,0,32768,32768
292.551,-1.62267e-08,0,32768,32768
292.601,-1.66413e-08,0,32768,32768
292.651,-1.70652e-08,0,32768,32768
292.7,-1.74958e-08,0,32768,32768
292.75,-1.79303e-08,0,32768,32768
292.801,-1.83784e-08,0,32768,32768
292.851,-1.88111e-08,0,32768,32768
292.901,-1.92379e-08,0,32768,32768
292.951,-1.96551e-08,0,32768,32768
293.001,-2.00594e-08,0,32768,32768
293.05,-2.04477e-08,0,32768,32768
293.1,-2.08173e-08,0,32768,32768
293.15,-2.11657e-08,0,32768,32768
293.201,-2.14996e-08,0,32768,32768
293.251,-2.17977e-08,0,32768,32768
293.301,-2.20676e-08,0,32768,32768
293.351,-2.23072e-08,0,32768,32768
293.4,-2.25148e-08,0,32768,32768
293.45,-2.26893e-08,0,32768,32768
293.5,-2.28304e-08,0,32768,32768
293.551,-2.29413e-08,0,32768,32768
293.601,-2.30169e-08,0,32768,32768
293.651,-2.30622e-08,0,32768,32768
293.701,-2.30792e-08,0,32768,32768
293.75,-2.30697e-08,0,32768,32768
293.8,-2.30356e-08,0,32768,32768
293.85,-2.29791e-08,0,32768,32768
293.901,-2.28999e-08,0,32768,32768
293.951,-2.28051e-08,0,32768,32768
294.001,-2.26954e-08,0,32768,32768
294.051,-2.25731e-08,0,32768,32768
294.101,-2.24406e-08,0,32768,32768
294.15,-2.23001e-08,0,32768,32768
294.2,-2.21532e-08,0,32768,32768
294.251,-2.19971e-08,0,32768,32768
294.301,-2.1842e-08,0,32768,32768
294.351,-2.16847e-08,0,32768,32768
294.401,-2.15263e-08,0,32768,32768
294.451,-2.13677e-08,0,32768,32768
294.5,-2.12098e-08,0,32768,32768
294.55,-2.10535e-08,0,32768,32768
294.601,-2.08949e-08,0,32768,32768
294.651,-2.07437e-08,0,32768,32768
294.701,-2.05959e-08,0,32768,32768
294.751,-2.04519e-08,0,32768,32768
294.801,-2.03121e-08,0,32768,32768
294.85,-2.01768e-08,0,32768,32768
294.9,-2.00463e-08,0,32768,32768
294.95,-1.99208e-08,0,32768,32768
295.001,-1.97971e-08,0,32768,32768
295.051,-1.96822e-08,0,32768,32768
295.101,-1.95726e-08,0,32768,32768
295.151,-1.94681e-08,0,32768,32768
295.2,-1.93686e-08,0,32768,32768
295.25,-1.92739e-08,0,32768,32768
295.3,-1.91837e-08,0,32768,32768
295.351,-1.90951e-08,0,32768,32768
295.401,-1.90129e-08,0,32768,32768
295.451,-1.89342e-08,0,32768,32768
295.501,-1.88586e-08,0,32768,32768
295.551,-1.87858e-08,0,32768,32768
295.6,-1.87155e-08,0,32768,32768
295.65,-1.86473e-08,0,32768,32768
295.701,-1.85791e-08,0,32768,32768
295.751,-1.85143e-08,0,32768,32768
295.801,-1.84509e-08,0,32768,32768
295.851,-1.83885e-08,0,32768,32768
295.901,-1.83269e-08,0,32768,32768
295.95,-1.8266e-08,0,32768,32768
296,-1.82053e-08,0,32768,32768
296.051,-1.81431e-08,0,32768,32768
296.101,-1.80827e-08,0,32768,32768
296.151,-1.80222e-08,0,32768,32768
296.201,-1.79613e-08,0,32768,32768
296.251,-1.79001e-08,0,32768,32768
296.3,-1.78383e-08,0,32768,32768
296.35,-1.77759e-08,0,32768,32768
296.4,-1.77126e-08,0,32768,32768
296.451,-1.76466e-08,0,32768,32768
296.501,-1.75814e-08,0,32768,32768
296.551,-1.7515e-08,0,32768,32768
296.601,-1.74472e-08,0,32768,32768
296.65,-1.7378e-08,0,32768,32768
296.7,-1.73071e-08,0,32768,32768
296.75,-1.72343e-08,0,32768,32768
296.801,-1.71571e-08,0,32768,32768
296.851,-1.70797e-08,0,32768,32768
296.901,-1.69997e-08,0,32768,32768
296.951,-1.69169e-08,0,32768,32768
297.001,-1.68309e-08,0,32768,32768
297.05,-1.67415e-08,0,32768,32768
297.1,-1.66484e-08,0,32768,32768
297.151,-1.65484e-08,0,32768,32768
297.201,-1.6447e-08,0,32768,32768
297.251,-1.63412e-08,0,32768,32768
297.301,-1.62308e-08,0,32768,32768
297.351,-1.61156e-08,0,32768,32768
297.4,-1.59955e-08,0,32768,32768
297.45,-1.58703e-08,0,32768,32768
297.501,-1.5736e-08,0,32768,32768
297.551,-1.56003e-08,0,32768,32768
297.601,-1.54594e-08,0,32768,32768
297.651,-1.53132e-08,0,32768,32768
297.701,-1.51616e-08,0,32768,32768
297.75,-1.50045e-08,0,32768,32768
297.8,-1.4842e-08,0,32768,32768
297.851,-1.46687e-08,0,32768,32768
297.901,-1.44946e-08,0,32768,32768
297.951,-1.43147e-08,0,32768,32768
298.001,-1.41289e-08,0,32768,32768
298.051,-1.39371e-08,0,32768,32768
298.1,-1.37394e-08,0,32768,32768
298.15,-1.35356e-08,0,32768,32768
298.2,-1.33258e-08,0,32768,32768
298.251,-1.31033e-08,0,32768,32768
298.301,-1.28804e-08,0,32768,32768
298.351,-1.26504e-08,0,32768,32768
298.401,-1.24126e-08,0,32768,32768
298.45,-1.2166e-08,0,32768,32768
298.5,-1.19094e-08,0,32768,32768
298.55,-1.16411e-08,0,32768,32768
298.601,-1.13511e-08,0,32768,32768
298.651,-1.1054e-08,0,32768,32768
298.701,-1.07396e-08,0,32768,32768
298.751,-1.04059e-08,0,32768,32768
298.801,-1.00509e-08,0,32768,32768
298.85,-9.67272e-09,0,32768,32768
298.9,-9.26984e-09,0,32768,32768
298.951,-8.82804e-09,0,32768,32768
299.001,-8.37182e-09,0,32768,32768
299.051,-7.88879e-09,0,32768,32768
299.101,-7.37946e-09,0,32768,32768
299.151,-6.84503e-09,0,32768,32768
299.2,-6.28744e-09,0,32768,32768
299.25,-5.70934e-09,0,32768,32768
299.301,-5.09633e-09,0,32768,32768
299.351,-4.48742e-09,0,32768,32768
299.401,-3.86964e-09,0,32768,32768
299.451,-3.24754e-09,0,32768,32768
299.501,-2.62579e-09,0,32768,32768
299.55,-2.00899e-09,0,32768,32768
299.6,-1.4016e-09,0,32768,32768
299.65,-8.07863e-10,0,32768,32768
299.701,-2.15173e-10,0,32768,32768
299.751,3.38712e-10,0,32768,32768
299.801,8.67442e-10,0,32768,32768
299.851,1.36773e-09,0,32768,32768
299.9,1.83658e-09,0,32768,32768
299.95,2.27137e-09,0,32768,32768
300,2.66982e-09,0,32768,32768
300.051,3.0402e-09,0,32768,32768
300.101,3.36013e-09,0,32768,32768
300.151,3.64026e-09,0,32768,32768
300.201,3.88078e-09,0,32768,32768
300.251,4.08246e-09,0,32768,32768
300.3,4.24669e-09,0,32768,32768
300.35,4.37529e-09,0,32768,32768
300.401,4.47279e-09,0,32768,32768
300.451,4.53617e-09,0,32768,32768
300.501,4.57133e-09,0,32768,32768
300.551,4.58103e-09,0,32768,32768
300.601,4.56805e-09,0,32768,32768
300.65,4.53513e-09,0,32768,32768
300.7,4.48497e-09,0,32768,32768
300.751,4.41806e-09,0,32768,32768
300.801,4.34075e-09,0,32768,32768
300.851,4.2536e-09,0,32768,32768
300.901,4.15873e-09,0,32768,32768
300.951,4.05806e-09,0,32768,32768
301,3.95329e-09,0,32768,32768
301.05,3.84593e-09,0,32768,32768
301.1,3.7373e-09,0,32768,32768
301.151,3.62535e-09,0,32768,32768
301.201,3.51749e-09,0,32768,32768
301.251,3.41143e-09,0,32768,32768
301.301,3.30796e-09,0,32768,32768
301.35,3.20789e-09,0,32768,32768
301.4,3.11197e-09,0,32768,32768
301.45,3.02097e-09,0,32768,32768
301.501,2.9332e-09,0,32768,32768
301.551,2.85437e-09,0,32768,32768
301.601,2.78245e-09,0,32768,32768
301.651,2.71787e-09,0,32768,32768
301.701,2.6609e-09,0,32768,32768
301.75,2.61159e-09,0,32768,32768
301.8,2.56981e-09,0,32768,32768
301.851,2.53431e-09,0,32768,32768
301.901,2.50655e-09,0,32768,32768
301.951,2.48469e-09,0,32768,32768
302.001,2.46785e-09,0,32768,32768
302.051,2.45505e-09,0,32768,32768
302.1,2.44525e-09,0,32768,32768
302.15,2.43738e-09,0,32768,32768
302.201,2.43018e-09,0,32768,32768
302.251,2.42303e-09,0,32768,32768
302.301,2.41478e-09,0,32768,32768
302.351,2.40464e-09,0,32768,32768
302.401,2.39199e-09,0,32768,32768
302.45,2.37644e-09,0,32768,32768
302.5,2.35789e-09,0,32768,32768
302.551,2.33589e-09,0,32768,32768
302.601,2.31218e-09,0,32768,32768
302.651,2.28688e-09,0,32768,32768
302.701,2.26077e-09,0,32768,32768
302.751,2.23464e-09,0,32768,32768
302.8,2.2091e-09,0,32768,32768
302.85,2.18463e-09,0,32768,32768
302.9,2.16143e-09,0,32768,32768
302.951,2.13897e-09,0,32768,32768
303.001,2.11852e-09,0,32768,32768
303.051,2.09941e-09,0,32768,32768
303.101,2.08176e-09,0,32768,32768
303.15,2.06581e-09,0,32768,32768
303.2,2.05196e-09,0,32768,32768
303.25,2.04071e-09,0,32768,32768
303.301,2.03237e-09,0,32768,32768
303.351,2.02783e-09,0,32768,32768
303.401,2.02704e-09,0,32768,32768
303.451,2.02999e-09,0,32768,32768
303.501,2.03644e-09,0,32768,32768
303.55,2.04595e-09,0,32768,32768
303.6,2.05793e-09,0,32768,32768
303.651,2.07218e-09,0,32768,32768
303.701,2.08723e-09,0,32768,32768
303.751,2.1029e-09,0,32768,32768
303.801,2.11871e-09,0,32768,32768
303.851,2.13426e-09,0,32768,32768
303.9,2.14924e-09,0,32768,32768
303.95,2.16337e-09,0,32768,32768
304.001,2.17681e-09,0,32768,32768
304.051,2.18863e-09,0,32768,32768
304.101,2.19912e-09,0,32768,32768
304.151,2.20825e-09,0,32768,32768
304.201,2.21603e-09,0,32768,32768
304.25,2.2225e-09,0,32768,32768
304.3,2.22773e-09,0,32768,32768
304.35,2.23181e-09,0,32768,32768
304.401,2.23488e-09,0,32768,32768
304.451,2.23681e-09,0,32768,32768
304.501,2.23779e-09,0,32768,32768
304.551,2.23788e-09,0,32768,32768
304.6,2.23717e-09,0,32768,32768
304.65,2.23575e-09,0,32768,32768
304.7,2.23369e-09,0,32768,32768
304.751,2.23095e-09,0,32768,32768
304.801,2.22771e-09,0,32768,32768
304.851,2.22387e-09,0,32768,32768
304.901,2.21939e-09,0,32768,32768
304.951,2.21422e-09,0,32768,32768
