250,0,0,32768,32768
250.001,0,0,32768,32768
250.051,2.77556e-17,0,32768,32768
250.101,0,0,32768,32768
250.151,2.77556e-17,0,32768,32768
250.201,0,0,32768,32768
250.25,0,0,32768,32768
250.3,-2.77556e-17,0,32768,32768
250.35,-2.77556e-17,0,32768,32768
250.401,0,0,32768,32768
250.451,0,0,32768,32768
250.501,0,0,32768,32768
250.551,-2.77556e-17,0,32768,32768
250.6,-2.77556e-17,0,32768,32768
250.65,-2.77556e-17,0,32768,32768
250.7,0,0,32768,32768
250.751,2.77556e-17,0,32768,32768
250.801,-2.77556e-17,0,32768,32768
250.851,-2.77556e-17,0,32768,32768
250.901,-2.77556e-17,0,32768,32768
250.951,-2.77556e-17,0,32768,32768
251,-8.32667e-17,0,32768,32768
251.05,5.55112e-17,0,32768,32768
251.101,-2.77556e-17,0,32768,32768
251.151,-2.77556e-17,0,32768,32768
251.201,0,0,32768,32768
251.251,0,0,32768,32768
251.301,0,0,32768,32768
251.35,-2.77556e-17,0,32768,32768
251.4,-5.55112e-17,0,32768,32768
251.451,-2.77556e-17,0,32768,32768
251.501,-5.55112e-17,0,32768,32768
251.551,-1.11022e-16,0,32768,32768
251.601,-5.55112e-17,0,32768,32768
251.651,2.77556e-17,0,32768,32768
251.7,2.77556e-17,0,32768,32768
251.75,0,0,32768,32768
251.8,0,0,32768,32768
251.851,5.55112e-17,0,32768,32768
251.901,5.55112e-17,0,32768,32768
251.951,8.32667e-17,0,32768,32768
252.001,2.77556e-17,0,32768,32768
252.05,5.55112e-17,0,32768,32768
252.1,5.55112e-17,0,32768,32768
252.15,5.55112e-17,0,32768,32768
252.201,2.77556e-17,0,32768,32768
252.251,2.77556e-17,0,32768,32768
252.301,1.11022e-16,0,32768,32768
252.351,1.11022e-16,0,32768,32768
252.401,8.32667e-17,0,32768,32768
252.45,2.77556e-17,0,32768,32768
252.5,2.77556e-17,0,32768,32768
252.551,2.77556e-17,0,32768,32768
252.601,-2.77556e-17,0,32768,32768
252.651,0,0,32768,32768
252.701,2.77556e-17,0,32768,32768
252.751,5.55112e-17,0,32768,32768
252.8,5.55112e-17,0,32768,32768
252.85,5.55112e-17,0,32768,32768
252.901,5.55112e-17,0,32768,32768
252.951,5.55112e-17,0,32768,32768
253.001,8.32667e-17,0,32768,32768
253.051,1.11022e-16,0,32768,32768
253.101,2.77556e-17,0,32768,32768
253.15,0,0,32768,32768
253.2,-2.77556e-17,0,32768,32768
253.25,0,0,32768,32768
253.301,2.77556e-17,0,32768,32768
253.351,2.77556e-17,0,32768,32768
253.401,0,0,32768,32768
253.451,0,0,32768,32768
253.5,0,0,32768,32768
253.55,2.77556e-17,0,32768,32768
253.6,2.77556e-17,0,32768,32768
253.651,2.77556e-17,0,32768,32768
253.701,2.77556e-17,0,32768,32768
253.751,0,0,32768,32768
253.801,2.77556e-17,0,32768,32768
253.851,2.77556e-17,0,32768,32768
253.9,2.77556e-17,0,32768,32768
253.95,0,0,32768,32768
254.001,2.77556e-17,0,32768,32768
254.051,0,0,32768,32768
254.101,2.77556e-17,0,32768,32768
254.151,0,0,32768,32768
254.201,5.55112e-17,0,32768,32768
254.25,2.77556e-17,0,32768,32768
254.3,5.55112e-17,0,32768,32768
254.351,5.55112e-17,0,32768,32768
254.401,5.55112e-17,0,32768,32768
254.451,2.77556e-17,0,32768,32768
254.501,2.77556e-17,0,32768,32768
254.551,2.77556e-17,0,32768,32768
254.6,2.77556e-17,0,32768,32768
254.65,5.55112e-17,0,32768,32768
254.701,5.55112e-17,0,32768,32768
254.751,5.55112e-17,0,32768,32768
254.801,0,0,32768,32768
254.851,0,0,32768,32768
254.901,0,0,32768,32768
254.95,0,0,32768,32768
255,5.55112e-17,0,32768,32768
255.05,8.32667e-17,0,32768,32768
255.101,8.32667e-17,0,32768,32768
255.151,8.32667e-17,0,32768,32768
255.201,5.55112e-17,0,32768,32768
255.251,2.77556e-17,0,32768,32768
255.3,5.55112e-17,0,32768,32768
255.35,2.77556e-17,0,32768,32768
255.4,-2.77556e-17,0,32768,32768
255.451,2.77556e-17,0,32768,32768
255.501,2.77556e-17,0,32768,32768
255.551,2.77556e-17,0,32768,32768
255.601,2.77556e-17,0,32768,32768
255.651,0,0,32768,32768
255.7,0,0,32768,32768
255.75,-2.77556e-17,0,32768,32768
255.801,-5.55112e-17,0,32768,32768
255.851,-5.55112e-17,0,32768,32768
255.901,-2.77556e-17,0,32768,32768
255.951,-2.77556e-17,0,32768,32768
256.001,-5.55112e-17,0,32768,32768
256.05,-5.55112e-17,0,32768,32768
256.1,-2.77556e-17,0,32768,32768
256.151,-8.32667e-17,0,32768,32768
256.201,-5.55112e-17,0,32768,32768
256.251,-5.55112e-17,0,32768,32768
256.301,-5.55112e-17,0,32768,32768
256.351,0,0,32768,32768
256.4,2.77556e-17,0,32768,32768
256.45,5.55112e-17,0,32768,32768
256.5,2.77556e-17,0,32768,32768
256.551,0,0,32768,32768
256.601,0,0,32768,32768
256.651,5.55112e-17,0,32768,32768
256.701,5.55112e-17,0,32768,32768
256.75,8.32667e-17,0,32768,32768
256.8,2.77556e-17,0,32768,32768
256.85,0,0,32768,32768
256.901,2.77556e-17,0,32768,32768
256.951,2.77556e-17,0,32768,32768
257.001,0,0,32768,32768
257.051,0,0,32768,32768
257.101,-2.77556e-17,0,32768,32768
257.15,-2.77556e-17,0,32768,32768
257.2,-2.77556e-17,0,32768,32768
257.251,0,0,32768,32768
257.301,-2.77556e-17,0,32768,32768
257.351,0,0,32768,32768
257.401,0,0,32768,32768
257.451,0,0,32768,32768
257.5,-2.77556e-17,0,32768,32768
257.55,-2.77556e-17,0,32768,32768
257.601,2.77556e-17,0,32768,32768
257.651,8.32667e-17,0,32768,32768
257.701,5.55112e-17,0,32768,32768
257.751,2.77556e-17,0,32768,32768
257.801,0,0,32768,32768
257.85,2.77556e-17,0,32768,32768
257.9,2.77556e-17,0,32768,32768
257.95,2.77556e-17,0,32768,32768
258.001,0,0,32768,32768
258.051,0,0,32768,32768
258.101,0,0,32768,32768
258.151,2.77556e-17,0,32768,32768
258.2,0,0,32768,32768
258.25,2.77556e-17,0,32768,32768
258.3,5.55112e-17,0,32768,32768
258.351,2.77556e-17,0,32768,32768
258.401,2.77556e-17,0,32768,32768
258.451,2.77556e-17,0,32768,32768
258.501,0,0,32768,32768
258.551,0,0,32768,32768
258.6,0,0,32768,32768
258.65,2.77556e-17,0,32768,32768
258.701,2.77556e-17,0,32768,32768
258.751,2.77556e-17,0,32768,32768
258.801,0,0,32768,32768
258.851,-2.77556e-17,0,32768,32768
258.901,-2.77556e-17,0,32768,32768
258.95,0,0,32768,32768
259,0,0,32768,32768
259.051,5.55112e-17,0,32768,32768
259.101,8.32667e-17,0,32768,32768
259.151,1.38778e-16,0,32768,32768
259.201,1.38778e-16,0,32768,32768
259.251,8.32667e-17,0,32768,32768
259.3,8.32667e-17,0,32768,32768
259.35,8.32667e-17,0,32768,32768
259.401,8.32667e-17,0,32768,32768
259.451,5.55112e-17,0,32768,32768
259.501,5.55112e-17,0,32768,32768
259.551,1.11022e-16,0,32768,32768
259.601,8.32667e-17,0,32768,32768
259.65,5.55112e-17,0,32768,32768
259.7,0,0,32768,32768
259.75,-5.55112e-17,0,32768,32768
259.801,-2.77556e-17,0,32768,32768
259.851,-5.55112e-17,0,32768,32768
259.901,-2.77556e-17,0,32768,32768
259.951,-5.55112e-17,0,32768,32768
260,-8.32667e-17,0,32768,32768
260.05,-5.55112e-17,0,32768,32768
260.1,0,0,32768,32768
260.151,5.55112e-17,0,32768,32768
260.201,2.77556e-17,0,32768,32768
260.251,-5.55112e-17,0,32768,32768
260.301,-5.55112e-17,0,32768,32768
260.351,-5.55112e-17,0,32768,32768
260.4,0,0,32768,32768
260.45,0,0,32768,32768
260.501,-2.77556e-17,0,32768,32768
260.551,-2.77556e-17,0,32768,32768
260.601,-2.77556e-17,0,32768,32768
260.651,-5.55112e-17,0,32768,32768
260.701,0,0,32768,32768
260.75,-5.55112e-17,0,32768,32768
260.8,-5.55112e-17,0,32768,32768
260.851,-8.32667e-17,0,32768,32768
260.901,0,0,32768,32768
260.951,0,0,32768,32768
261.001,0,0,32768,32768
261.051,2.77556e-17,0,32768,32768
261.1,2.77556e-17,0,32768,32768
261.15,2.77556e-17,0,32768,32768
261.2,5.55112e-17,0,32768,32768
261.251,2.77556e-17,0,32768,32768
261.301,2.77556e-17,0,32768,32768
261.351,5.55112e-17,0,32768,32768
261.401,2.77556e-17,0,32768,32768
261.45,2.77556e-17,0,32768,32768
261.5,2.77556e-17,0,32768,32768
261.55,0,0,32768,32768
261.601,-2.77556e-17,0,32768,32768
261.651,-1.11022e-16,0,32768,32768
261.701,-8.32667e-17,0,32768,32768
261.751,-1.11022e-16,0,32768,32768
261.801,-8.32667e-17,0,32768,32768
261.85,-8.32667e-17,0,32768,32768
261.9,-5.55112e-17,0,32768,32768
261.951,-5.55112e-17,0,32768,32768
262.001,-8.32667e-17,0,32768,32768
262.051,-2.77556e-17,0,32768,32768
262.101,-5.55112e-17,0,32768,32768
262.151,-2.77556e-17,0,32768,32768
262.2,0,0,32768,32768
262.25,-2.77556e-17,0,32768,32768
262.301,-2.77556e-17,0,32768,32768
262.351,-8.32667e-17,0,32768,32768
262.401,-8.32667e-17,0,32768,32768
262.451,-8.32667e-17,0,32768,32768
262.501,-8.32667e-17,0,32768,32768
262.55,-1.11022e-16,0,32768,32768
262.6,-8.32667e-17,0,32768,32768
262.651,-1.11022e-16,0,32768,32768
262.701,-8.32667e-17,0,32768,32768
262.751,-2.77556e-17,0,32768,32768
262.801,2.77556e-17,0,32768,32768
262.851,5.55112e-17,0,32768,32768
262.9,2.77556e-17,0,32768,32768
262.95,2.77556e-17,0,32768,32768
263,0,0,32768,32768
263.051,-2.77556e-17,0,32768,32768
263.101,-5.55112e-17,0,32768,32768
263.151,0,0,32768,32768
263.201,5.55112e-17,0,32768,32768
263.25,5.55112e-17,0,32768,32768
263.3,1.66533e-16,0,32768,32768
263.35,1.66533e-16,0,32768,32768
263.401,1.66533e-16,0,32768,32768
263.451,1.38778e-16,0,32768,32768
263.501,1.11022e-16,0,32768,32768
263.551,5.55112e-17,0,32768,32768
263.601,8.32667e-17,0,32768,32768
263.65,1.38778e-16,0,32768,32768
263.7,1.11022e-16,0,32768,32768
263.751,5.55112e-17,0,32768,32768
263.801,5.55112e-17,0,32768,32768
263.851,1.38778e-16,0,32768,32768
263.901,5.55112e-17,0,32768,32768
263.951,8.32667e-17,0,32768,32768
264,2.77556e-17,0,32768,32768
264.05,5.55112e-17,0,32768,32768
264.101,5.55112e-17,0,32768,32768
264.151,5.55112e-17,0,32768,32768
264.201,5.55112e-17,0,32768,32768
264.251,2.77556e-17,0,32768,32768
264.301,2.77556e-17,0,32768,32768
264.35,5.55112e-17,0,32768,32768
264.4,8.32667e-17,0,32768,32768
264.45,8.32667e-17,0,32768,32768
264.501,2.77556e-17,0,32768,32768
264.551,2.77556e-17,0,32768,32768
264.601,2.77556e-17,0,32768,32768
264.651,8.32667e-17,0,32768,32768
264.7,2.77556e-17,0,32768,32768
264.75,2.77556e-17,0,32768,32768
264.8,5.55112e-17,0,32768,32768
264.851,5.55112e-17,0,32768,32768
264.901,0,0,32768,32768
264.951,0,0,32768,32768
265.001,1.94289e-16,0,32768,32768
265.051,1.94289e-16,0,32768,32768
265.1,1.94289e-16,0,32768,32768
265.15,1.38778e-16,0,32768,32768
265.201,8.32667e-17,0,32768,32768
265.251,1.11022e-16,0,32768,32768
265.301,8.32667e-17,0,32768,32768
265.351,1.11022e-16,0,32768,32768
265.401,1.38778e-16,0,32768,32768
265.45,1.11022e-16,0,32768,32768
265.5,1.11022e-16,0,32768,32768
265.551,1.11022e-16,0,32768,32768
265.601,8.32667e-17,0,32768,32768
265.651,8.32667e-17,0,32768,32768
265.701,8.32667e-17,0,32768,32768
265.751,8.32667e-17,0,32768,32768
265.8,5.55112e-17,0,32768,32768
265.85,5.55112e-17,0,32768,32768
265.9,5.55112e-17,0,32768,32768
265.951,2.77556e-17,0,32768,32768
266.001,1.11022e-16,0,32768,32768
266.051,8.32667e-17,0,32768,32768
266.101,8.32667e-17,0,32768,32768
266.15,1.66533e-16,0,32768,32768
266.2,1.38778e-16,0,32768,32768
266.25,1.38778e-16,0,32768,32768
266.301,8.32667e-17,0,32768,32768
266.351,8.32667e-17,0,32768,32768
266.401,8.32667e-17,0,32768,32768
266.451,1.11022e-16,0,32768,32768
266.501,1.11022e-16,0,32768,32768
266.55,5.55112e-17,0,32768,32768
266.6,5.55112e-17,0,32768,32768
266.651,5.55112e-17,0,32768,32768
266.701,1.11022e-16,0,32768,32768
266.751,1.11022e-16,0,32768,32768
266.801,1.11022e-16,0,32768,32768
266.851,5.55112e-17,0,32768,32768
266.9,5.55112e-17,0,32768,32768
266.95,5.55112e-17,0,32768,32768
267.001,2.77556e-17,0,32768,32768
267.051,2.77556e-17,0,32768,32768
267.101,2.77556e-17,0,32768,32768
267.151,5.55112e-17,0,32768,32768
267.201,2.77556e-17,0,32768,32768
267.25,8.32667e-17,0,32768,32768
267.3,5.55112e-17,0,32768,32768
267.351,1.11022e-16,0,32768,32768
267.401,5.55112e-17,0,32768,32768
267.451,2.77556e-17,0,32768,32768
267.501,2.77556e-17,0,32768,32768
267.551,2.77556e-17,0,32768,32768
267.6,2.77556e-17,0,32768,32768
267.65,2.77556e-17,0,32768,32768
267.7,5.55112e-17,0,32768,32768
267.751,5.55112e-17,0,32768,32768
267.801,5.55112e-17,0,32768,32768
267.851,1.11022e-16,0,32768,32768
267.901,8.32667e-17,0,32768,32768
267.95,5.55112e-17,0,32768,32768
268,2.77556e-17,0,32768,32768
268.05,5.55112e-17,0,32768,32768
268.101,-8.32667e-17,0,32768,32768
268.151,-5.55112e-17,0,32768,32768
268.201,-5.55112e-17,0,32768,32768
268.251,-8.32667e-17,0,32768,32768
268.301,-5.55112e-17,0,32768,32768
268.35,-5.55112e-17,0,32768,32768
268.4,-8.32667e-17,0,32768,32768
268.451,-5.55112e-17,0,32768,32768
268.501,2.77556e-17,0,32768,32768
268.551,-8.32667e-17,0,32768,32768
268.601,-5.55112e-17,0,32768,32768
268.651,-5.55112e-17,0,32768,32768
268.7,-5.55112e-17,0,32768,32768
268.75,-2.77556e-17,0,32768,32768
268.801,-2.77556e-17,0,32768,32768
268.851,0,0,32768,32768
268.901,0,0,32768,32768
268.951,-5.55112e-17,0,32768,32768
269.001,-2.77556e-17,0,32768,32768
269.05,-2.77556e-17,0,32768,32768
269.1,-5.55112e-17,0,32768,32768
269.15,-5.55112e-17,0,32768,32768
269.201,0,0,32768,32768
269.251,0,0,32768,32768
269.301,8.32667e-17,0,32768,32768
269.351,2.77556e-17,0,32768,32768
269.4,2.77556e-17,0,32768,32768
269.45,0,0,32768,32768
269.5,-5.55112e-17,0,32768,32768
269.551,-2.77556e-17,0,32768,32768
269.601,2.77556e-17,0,32768,32768
269.651,5.55112e-17,0,32768,32768
269.701,5.55112e-17,0,32768,32768
269.751,2.77556e-17,0,32768,32768
269.8,2.77556e-17,0,32768,32768
269.85,0,0,32768,32768
269.901,0,0,32768,32768
269.95,0,0,32824,32824
270.001,0,0,33496,33496
270.05,0,0,34168,34168
270.1,0,0,34792,34792
270.151,0,0,35464,35464
270.2,0,0,36136,36136
270.25,0,0,36808,36808
270.3,0,0,37480,37480
270.351,0,0,38152,38152
270.4,0,0,38824,38824
270.45,0,0,39496,39496
270.501,0,0,40168,40168
270.551,0,0,40840,40840
270.6,2.77556e-17,0,41512,41512
270.65,2.77556e-17,0,42184,42184
270.701,2.77556e-17,0,42856,42856
270.75,2.77556e-17,0,43528,43528
270.8,2.77556e-17,0,44200,44200
270.85,2.77556e-17,0,44872,44872
270.901,1.94289e-16,0,45544,45544
270.95,1.7486e-15,0,46216,46216
271,4.91274e-15,0,46888,46888
271.051,5.60385e-14,0,47608,47608
271.1,1.00336e-13,0,48280,48280
271.15,-4.60484e-12,0,48952,48952
271.2,-4.17273e-11,0,49624,49624
271.251,-1.61348e-10,0,50296,50296
271.3,-3.35071e-10,0,50968,50968
271.35,-4.19406e-10,0,51640,51640
271.401,-3.00514e-10,0,52312,52312
271.451,-4.01638e-11,0,52984,52984
271.5,1.98182e-10,0,53656,53656
271.55,2.77677e-10,0,54328,54328
271.601,1.74773e-10,0,55000,55000
271.65,1.83431e-12,0,55672,55672
271.7,-8.70333e-11,0,56344,56344
271.75,-1.90651e-11,0,57016,57016
271.801,1.38902e-10,0,57688,57688
271.85,2.38126e-10,0,58360,58360
271.9,1.99346e-10,0,59032,59032
271.951,6.95345e-11,0,59704,59704
272,-2.29895e-11,0,60376,60376
272.05,-1.06412e-12,0,61000,61000
272.1,1.0629e-10,0,61672,61672
272.151,2.03258e-10,0,62344,62344
272.2,2.12411e-10,0,62968,62968
272.25,1.38531e-10,0,63640,63640
272.3,4.38672e-11,0,64264,64264
272.351,-2.56239e-12,0,64936,64936
272.4,3.54625e-11,0,65560,65560
272.45,1.39426e-10,0,66232,66232
272.501,2.42336e-10,0,66856,66856
272.55,2.4984e-10,0,67480,67480
272.6,1.21485e-10,0,68152,68152
272.65,-6.35603e-11,0,68776,68776
272.701,-1.21298e-10,0,69400,69400
272.75,7.74257e-11,0,70024,70024
272.8,4.06521e-10,0,70648,70648
272.851,5.07188e-10,0,71272,71272
272.9,1.21481e-10,0,71896,71896
272.95,-4.69228e-10,0,72520,72520
273,-4.21238e-10,0,73144,73144
273.051,1.15599e-09,0,73768,73768
273.1,4.32456e-09,0,74392,74392
273.15,8.26671e-09,0,75016,75016
273.2,1.55706e-08,0,75592,75592
273.251,2.28356e-08,0,76216,76216
273.3,2.70643e-08,0,76840,76840
273.35,2.9464e-08,0,77416,77416
273.401,3.08866e-08,0,78040,78040
273.45,3.29271e-08,0,78240,78240
273.5,3.74538e-08,0,78144,78144
273.55,4.53665e-08,0,78048,78048
273.601,5.62767e-08,0,78000,78000
273.65,6.87278e-08,0,77952,77952
273.7,8.25746e-08,0,77872,77872
273.751,9.91956e-08,0,77920,77920
273.801,1.19906e-07,0,78000,78000
273.85,1.46445e-07,0,78240,78240
273.9,1.79732e-07,0,78768,78768
273.951,2.20683e-07,0,79344,79344
274,2.6711e-07,0,79920,79920
274.05,3.17014e-07,0,80496,80496
274.1,3.67627e-07,0,81072,81072
274.151,4.18883e-07,0,81648,81648
274.2,4.7127e-07,0,82224,82224
274.25,5.28141e-07,0,82800,82800
274.301,5.90433e-07,0,83376,83376
274.35,6.52584e-07,0,83904,83904
274.4,7.10312e-07,0,84480,84480
274.45,7.59649e-07,0,85056,85056
274.501,7.99058e-07,0,85584,85584
274.55,8.26715e-07,0,86160,86160
274.6,8.44106e-07,0,86976,86976
274.651,8.53783e-07,0,88224,88224
274.701,8.58393e-07,0,89424,89424
274.75,8.59988e-07,0,90672,90672
274.8,8.58971e-07,0,91824,91824
274.851,8.54868e-07,0,93024,93024
274.9,8.46996e-07,0,94272,94272
274.95,8.342e-07,0,95472,95472
275,8.15265e-07,0,96232,96232
275.051,7.88697e-07,0,96760,96760
275.1,7.54479e-07,0,97288,97288
275.15,7.12102e-07,0,97816,97816
275.201,6.62137e-07,0,98344,98344
275.25,6.09107e-07,0,98872,98872
275.3,5.55812e-07,0,99448,99448
275.35,5.04759e-07,0,99928,99928
275.401,4.56474e-07,0,100504,100504
275.45,4.12797e-07,0,101032,101032
275.5,3.72913e-07,0,101560,101560
275.55,3.36264e-07,0,102040,102040
275.601,3.0162e-07,0,102616,102616
275.65,2.69305e-07,0,103096,103096
275.7,2.38311e-07,0,103624,103624
275.751,2.08144e-07,0,104152,104152
275.8,1.80677e-07,0,104680,104680
275.85,1.57488e-07,0,105208,105208
275.9,1.40221e-07,0,105736,105736
275.951,1.28028e-07,0,106264,106264
276,1.1803e-07,0,106792,106792
276.05,1.06678e-07,0,107320,107320
276.101,9.2914e-08,0,107800,107800
276.151,7.90542e-08,0,108328,108328
276.2,6.74165e-08,0,108856,108856
276.25,5.91931e-08,0,109384,109384
276.301,5.39813e-08,0,109912,109912
276.35,5.08638e-08,0,110392,110392
276.4,4.83549e-08,0,110920,110920
276.45,4.48992e-08,0,111448,111448
276.501,3.93421e-08,0,111928,111928
276.55,3.23317e-08,0,112456,112456
276.6,2.57522e-08,0,112984,112984
276.651,2.16258e-08,0,113464,113464
276.7,2.0426e-08,0,113992,113992
276.75,2.08133e-08,0,114520,114520
276.8,2.1546e-08,0,115000,115000
276.851,2.19866e-08,0,115528,115528
276.9,2.21117e-08,0,116008,116008
276.95,2.21525e-08,0,116536,116536
277.001,2.22392e-08,0,117016,117016
277.051,2.23588e-08,0,117544,117544
277.1,2.24512e-08,0,118024,118024
277.15,2.23798e-08,0,118552,118552
277.201,2.19134e-08,0,119032,119032
277.25,2.13359e-08,0,119560,119560
277.3,2.1065e-08,0,120040,120040
277.35,2.09849e-08,0,120568,120568
277.401,2.09265e-08,0,121048,121048
277.45,2.08507e-08,0,121528,121528
277.5,2.07493e-08,0,122056,122056
277.551,2.06168e-08,0,122536,122536
277.6,2.04549e-08,0,123064,123064
277.65,2.02606e-08,0,123544,123544
277.7,2.00331e-08,0,124024,124024
277.751,1.9767e-08,0,124504,124504
277.8,1.94679e-08,0,124984,124984
277.85,1.91303e-08,0,125464,125464
277.9,1.8754e-08,0,125896,125896
277.951,1.83347e-08,0,126328,126328
278,1.78892e-08,0,126760,126760
278.05,1.74177e-08,0,127192,127192
278.101,1.69194e-08,0,127624,127624
278.15,1.64148e-08,0,128008,128008
278.2,1.5902e-08,0,128440,128440
278.25,1.53851e-08,0,128824,128824
278.301,1.48589e-08,0,129208,129208
278.35,1.43406e-08,0,129544,129544
278.4,1.38245e-08,0,129928,129928
278.451,1.33057e-08,0,130360,130360
278.5,1.28024e-08,0,131072,131072
278.55,1.23107e-08,0,131072,131072
278.6,1.18353e-08,0,131072,131072
278.651,1.13746e-08,0,131072,131072
278.7,1.09466e-08,0,131072,131072
278.75,1.05488e-08,0,131072,131072
278.8,1.01835e-08,0,131072,131072
278.851,9.84688e-09,0,131072,131072
278.9,9.54783e-09,0,131072,131072
278.95,9.27939e-09,0,131072,131072
279.001,9.03596e-09,0,131072,131072
279.05,8.82233e-09,0,131072,131072
279.1,8.63272e-09,0,131072,131072
279.15,8.46548e-09,0,131072,131072
279.201,8.31733e-09,0,131072,131072
279.25,8.19153e-09,0,131072,131072
279.3,8.08467e-09,0,131072,131072
279.351,7.99392e-09,0,131072,131072
279.401,7.91939e-09,0,131072,131072
279.45,7.85661e-09,0,131072,131072
279.5,7.80286e-09,0,131072,131072
279.551,7.75609e-09,0,131072,131072
279.6,7.71763e-09,0,131072,131072
279.65,7.68731e-09,0,131072,131072
279.7,7.6652e-09,0,131072,131072
279.751,7.65021e-09,0,131072,131072
279.8,7.6411e-09,0,131072,131072
279.85,7.63584e-09,0,131072,131072
279.901,7.63311e-09,0,131072,131072
279.95,7.63251e-09,0,131072,131072
280,7.63427e-09,0,131072,131072
280.05,7.63919e-09,0,131072,131072
280.101,7.64802e-09,0,131072,131072
280.15,7.66043e-09,0,131072,131072
280.2,7.67558e-09,0,131072,131072
280.251,7.69246e-09,0,131072,131072
280.301,7.70963e-09,0,131072,131072
280.35,7.72676e-09,0,131072,131072
280.4,7.74376e-09,0,131072,131072
280.451,7.76095e-09,0,131072,131072
280.5,7.77782e-09,0,131072,131072
280.55,7.79456e-09,0,131072,131072
280.6,7.81119e-09,0,131072,131072
280.651,7.82803e-09,0,131072,131072
280.7,7.84466e-09,0,131072,131072
280.75,7.86139e-09,0,131072,131072
280.801,7.87841e-09,0,131072,131072
280.85,7.89514e-09,0,131072,131072
280.9,7.91177e-09,0,131072,131072
280.95,7.92823e-09,0,131072,131072
281.001,7.94469e-09,0,131072,131072
281.05,7.96061e-09,0,131072,131072
281.1,7.97618e-09,0,131072,131072
281.15,7.99137e-09,0,131072,131072
281.201,8.0064e-09,0,131072,131072
281.25,8.02088e-09,0,131072,131072
281.3,8.03501e-09,0,131072,131072
281.351,8.04892e-09,0,131072,131072
281.4,8.06215e-09,0,130848,130848
281.45,8.07493e-09,0,131072,131072
281.5,8.08732e-09,0,131072,131072
281.551,8.09953e-09,0,131072,131072
281.6,8.11121e-09,0,131072,131072
281.65,8.12259e-09,0,131072,131072
281.701,8.13398e-09,0,131072,131072
281.751,8.1453e-09,0,131072,131072
281.8,8.1572e-09,0,131072,131072
281.85,8.17025e-09,0,131072,131072
281.901,8.18562e-09,0,131072,131072
281.95,8.20551e-09,0,131072,131072
282,8.23583e-09,0,131040,131040
282.05,8.28434e-09,0,130912,130912
282.101,8.35913e-09,0,130912,130912
282.15,8.46286e-09,0,130912,130912
282.2,8.59954e-09,0,130912,130912
282.251,8.77323e-09,0,130848,130848
282.3,8.97801e-09,0,130832,130832
282.35,9.21417e-09,0,130768,130768
282.4,9.48124e-09,0,130736,130736
282.451,9.78781e-09,0,130752,130752
282.5,1.0135e-08,0,130736,130736
282.55,1.05426e-08,0,130736,130736
282.601,1.10378e-08,0,130720,130720
282.651,1.16276e-08,0,130720,130720
282.7,1.23409e-08,0,130720,130720
282.75,1.32005e-08,0,130688,130688
282.801,1.42455e-08,0,130688,130688
282.85,1.54662e-08,0,130672,130672
282.9,1.68925e-08,0,130672,130672
282.95,1.85358e-08,0,130640,130640
283.001,2.04344e-08,0,130688,130688
283.05,2.25422e-08,0,130560,130560
283.1,2.48937e-08,0,130608,130608
283.151,2.75343e-08,0,130560,130560
283.2,3.03837e-08,0,130560,130560
283.25,3.34623e-08,0,130560,130560
283.3,3.6742e-08,0,130560,130560
283.351,4.02392e-08,0,130528,130528
283.4,4.38165e-08,0,130560,130560
283.45,4.74935e-08,0,130512,130512
283.5,5.12484e-08,0,130528,130528
283.551,5.51236e-08,0,130560,130560
283.6,5.90003e-08,0,130512,130512
283.65,6.29401e-08,0,130512,130512
283.701,6.70305e-08,0,130512,130512
283.75,7.12079e-08,0,130512,130512
283.8,7.56044e-08,0,130496,130496
283.85,8.02946e-08,0,130512,130512
283.901,8.54423e-08,0,130512,130512
283.95,9.10663e-08,0,130544,130544
284,9.74813e-08,0,130576,130576
284.051,1.04846e-07,0,130576,130576
284.101,1.12503e-07,0,130640,130640
284.15,1.19838e-07,0,130656,130656
284.2,1.26431e-07,0,130720,130720
284.251,1.32562e-07,0,130752,130752
284.3,1.38732e-07,0,130784,130784
284.35,1.45823e-07,0,130784,130784
284.4,1.54462e-07,0,130816,130816
284.451,1.65177e-07,0,130816,130816
284.5,1.77855e-07,0,130848,130848
284.55,1.92887e-07,0,130816,130816
284.601,2.1103e-07,0,130848,130848
284.65,2.32448e-07,0,130816,130816
284.7,2.58088e-07,0,130848,130848
284.75,2.88403e-07,0,130848,130848
284.801,3.23919e-07,0,130848,130848
284.85,3.63039e-07,0,130816,130816
284.9,4.0532e-07,0,130816,130816
284.951,4.50497e-07,0,130816,130816
285.001,4.96616e-07,0,130816,130816
285.05,5.43998e-07,0,130816,130816
285.1,5.92306e-07,0,130816,130816
285.151,6.41411e-07,0,130752,130752
285.2,6.8826e-07,0,130720,130720
285.25,7.31343e-07,0,130688,130688
285.3,7.6834e-07,0,130736,130736
285.351,7.97797e-07,0,130688,130688
285.4,8.1795e-07,0,130656,130656
285.45,8.2941e-07,0,130656,130656
285.501,8.33113e-07,0,130640,130640
285.55,8.30307e-07,0,130592,130592
285.6,8.22385e-07,0,130576,130576
285.65,8.10238e-07,0,130576,130576
285.701,7.93947e-07,0,130560,130560
285.75,7.73818e-07,0,130560,130560
285.8,7.49131e-07,0,130512,130512
285.85,7.19243e-07,0,130512,130512
285.901,6.83049e-07,0,130512,130512
285.95,6.41415e-07,0,130512,130512
286,5.94248e-07,0,130512,130512
286.051,5.41818e-07,0,130512,130512
286.1,4.87302e-07,0,130512,130512
286.15,4.31907e-07,0,130480,130480
286.2,3.7749e-07,0,130464,130464
286.251,3.24774e-07,0,130464,130464
286.3,2.76204e-07,0,130464,130464
286.35,2.3135e-07,0,130416,130416
286.401,1.89566e-07,0,130464,130464
286.451,1.51758e-07,0,130416,130416
286.5,1.16958e-07,0,130416,130416
286.55,8.49768e-08,0,130384,130384
286.601,5.54075e-08,0,130416,130416
286.65,2.86412e-08,0,130368,130368
286.7,2.32571e-09,0,130416,130416
286.75,-7.05709e-09,0,130368,130368
286.801,-2.38414e-08,0,130368,130368
286.85,-3.68849e-08,0,130336,130336
286.9,-4.79953e-08,0,130368,130368
286.951,-5.77435e-08,0,130368,130368
287,-6.61505e-08,0,130320,130320
287.05,-7.31299e-08,0,130320,130320
287.1,-7.82815e-08,0,130368,130368
287.151,-8.15135e-08,0,130368,130368
287.2,-8.30293e-08,0,130320,130320
287.25,-8.34947e-08,0,130320,130320
287.301,-8.3557e-08,0,130320,130320
287.351,-8.36174e-08,0,130336,130336
287.4,-8.36649e-08,0,130320,130320
287.45,-8.33381e-08,0,130368,130368
287.501,-8.21494e-08,0,130368,130368
287.55,-7.98481e-08,0,130384,130384
287.6,-7.64678e-08,0,130464,130464
287.65,-7.23138e-08,0,130464,130464
287.701,-6.77105e-08,0,130512,130512
287.75,-6.31107e-08,0,130512,130512
287.8,-5.86327e-08,0,130560,130560
287.851,-5.42931e-08,0,130512,130512
287.9,-5.02518e-08,0,130560,130560
287.95,-4.6472e-08,0,130560,130560
288,-4.29796e-08,0,130512,130512
288.051,-3.97341e-08,0,130464,130464
288.1,-3.68025e-08,0,130464,130464
288.15,-3.40917e-08,0,130464,130464
288.201,-3.15294e-08,0,130416,130416
288.251,-2.91722e-08,0,130416,130416
288.3,-2.69845e-08,0,130368,130368
288.35,-2.497e-08,0,130368,130368
288.401,-2.31059e-08,0,130320,130320
288.45,-2.14389e-08,0,130320,130320
288.5,-1.9932e-08,0,130320,130320
288.55,-1.85758e-08,0,130320,130320
288.601,-1.73447e-08,0,130272,130272
288.65,-1.62656e-08,0,130272,130272
288.7,-1.531e-08,0,130272,130272
288.751,-1.44533e-08,0,130240,130240
288.8,-1.37076e-08,0,130224,130224
288.85,-1.30452e-08,0,130224,130224
288.9,-1.24534e-08,0,130224,130224
288.951,-1.19208e-08,0,130192,130192
289,-1.14614e-08,0,130176,130176
289.05,-1.10643e-08,0,130176,130176
289.1,-1.07242e-08,0,130176,130176
289.151,-1.04345e-08,0,130176,130176
289.2,-1.02029e-08,0,130144,130144
289.25,-1.00212e-08,0,130128,130128
289.301,-9.88093e-09,0,130176,130176
289.35,-9.78102e-09,0,130176,130176
289.4,-9.71758e-09,0,130144,130144
289.45,-9.68914e-09,0,130128,130128
289.501,-9.6918e-09,0,130128,130128
289.55,-9.71978e-09,0,130128,130128
289.6,-9.76662e-09,0,130096,130096
289.651,-9.82806e-09,0,130080,130080
289.7,-9.89696e-09,0,130128,130128
289.75,-9.96963e-09,0,130128,130128
289.8,-1.0044e-08,0,130128,130128
289.851,-1.0118e-08,0,130096,130096
289.9,-1.0186e-08,0,130080,130080
289.95,-1.0247e-08,0,130080,130080
290,-1.03023e-08,0,130360,130360
290.051,-1.03546e-08,0,131032,131032
290.1,-1.04019e-08,0,131072,131072
290.15,-1.04448e-08,0,131072,131072
290.201,-1.04839e-08,0,131072,131072
290.25,-1.05188e-08,0,131072,131072
290.3,-1.05502e-08,0,131072,131072
290.35,-1.05787e-08,0,131072,131072
290.401,-1.06047e-08,0,131072,131072
290.45,-1.06289e-08,0,131072,131072
290.5,-1.06531e-08,0,131072,131072
290.551,-1.06789e-08,0,131072,131072
290.601,-1.07057e-08,0,131072,131072
290.65,-1.07334e-08,0,131072,131072
290.7,-1.07612e-08,0,131072,131072
290.751,-1.0789e-08,0,131072,131072
290.8,-1.08162e-08,0,131072,131072
290.85,-1.08438e-08,0,131072,131072
290.9,-1.0872e-08,0,131072,131072
290.951,-1.09016e-08,0,131072,131072
291,-1.09317e-08,0,131072,131072
291.05,-1.0963e-08,0,131072,131072
291.101,-1.09964e-08,0,131072,131072
291.15,-1.10318e-08,0,131072,131072
291.2,-1.10715e-08,0,131072,131072
291.25,-1.11166e-08,0,131072,131072
291.301,-1.11691e-08,0,131072,131072
291.35,-1.12278e-08,0,131072,131072
291.4,-1.12934e-08,0,131072,131072
291.451,-1.13667e-08,0,131072,131072
291.501,-1.1446e-08,0,131072,131072
291.55,-1.15332e-08,0,131072,131072
291.6,-1.16297e-08,0,131072,131072
291.651,-1.17384e-08,0,131072,131072
291.7,-1.18564e-08,0,131072,131072
291.75,-1.19846e-08,0,131072,131072
291.8,-1.2122e-08,0,131072,131072
291.851,-1.22701e-08,0,131072,131072
291.9,-1.24243e-08,0,131072,131072
291.95,-1.25869e-08,0,131072,131072
292.001,-1.27618e-08,0,131072,131072
292.05,-1.29477e-08,0,131072,131072
292.1,-1.31513e-08,0,131072,131072
292.15,-1.3376e-08,0,131072,131072
292.201,-1.36279e-08,0,131072,131072
292.25,-1.39015e-08,0,131072,131072
292.3,-1.42008e-08,0,131072,131072
292.35,-1.45251e-08,0,131072,131072
292.401,-1.48786e-08,0,131072,131072
292.45,-1.52499e-08,0,131072,131072
292.5,-1.56421e-08,0,131072,131072
292.551,-1.60592e-08,0,131072,131072
292.6,-1.64866e-08,0,131072,131072
292.65,-1.69274e-08,0,131072,131072
292.7,-1.73782e-08,0,131072,131072
292.751,-1.78417e-08,0,131072,131072
292.8,-1.83003e-08,0,131072,131072
292.85,-1.87564e-08,0,131072,131072
292.901,-1.92123e-08,0,131072,131072
292.951,-1.9651e-08,0,131072,131072
293,-2.0076e-08,0,131072,131072
293.05,-2.04832e-08,0,131072,131072
293.101,-2.08733e-08,0,131072,131072
293.15,-2.12365e-08,0,131072,131072
293.2,-2.15786e-08,0,131072,131072
293.25,-2.18952e-08,0,131072,131072
293.301,-2.21825e-08,0,131072,131072
293.35,-2.24285e-08,0,131072,131072
293.4,-2.26413e-08,0,131072,131072
293.451,-2.28208e-08,0,131072,131072
293.5,-2.29602e-08,0,131072,131072
293.55,-2.30634e-08,0,131072,131072
293.6,-2.31325e-08,0,131072,131072
293.651,-2.31707e-08,0,131072,131072
293.7,-2.31793e-08,0,131072,131072
293.75,-2.31613e-08,0,131072,131072
293.801,-2.31177e-08,0,131072,131072
293.851,-2.30518e-08,0,131072,131072
293.9,-2.29652e-08,0,131072,131072
293.95,-2.28607e-08,0,131072,131072
294.001,-2.27396e-08,0,131072,131072
294.05,-2.26082e-08,0,131072,131072
294.1,-2.24676e-08,0,131072,131072
294.15,-2.232e-08,0,131072,131072
294.201,-2.21645e-08,0,131072,131072
294.25,-2.2007e-08,0,131072,131072
294.3,-2.18465e-08,0,131072,131072
294.351,-2.16816e-08,0,131072,131072
294.4,-2.15187e-08,0,129464,129464
294.45,-2.13563e-08,0,128488,128488
294.5,-2.11953e-08,0,127784,127784
294.551,-2.10338e-08,0,127240,127240
294.6,-2.08772e-08,0,126760,126760
294.65,-2.07238e-08,0,126280,126280
294.7,-2.05738e-08,0,125864,125864
294.751,-2.04253e-08,0,125416,125416
294.8,-2.02831e-08,0,125016,125016
294.85,-2.01461e-08,0,124696,124696
294.901,-2.00129e-08,0,124280,124280
294.95,-1.98874e-08,0,123864,123864
295,-1.97672e-08,0,123496,123496
295.05,-1.96521e-08,0,123032,123032
295.101,-1.95407e-08,0,122568,122568
295.15,-1.94366e-08,0,122120,122120
295.2,-1.93382e-08,0,121608,121608
295.251,-1.92441e-08,0,121128,121128
295.301,-1.91561e-08,0,120648,120648
295.35,-1.90724e-08,0,120120,120120
295.4,-1.89922e-08,0,119640,119640
295.451,-1.89142e-08,0,119176,119176
295.5,-1.88403e-08,0,118648,118648
295.55,-1.8769e-08,0,118136,118136
295.6,-1.87e-08,0,117656,117656
295.651,-1.86321e-08,0,117176,117176
295.7,-1.85671e-08,0,116632,116632
295.75,-1.85036e-08,0,116152,116152
295.801,-1.84405e-08,0,115656,115656
295.85,-1.83792e-08,0,115176,115176
295.9,-1.83188e-08,0,114696,114696
295.95,-1.82588e-08,0,114232,114232
296.001,-1.81982e-08,0,113720,113720
296.05,-1.81386e-08,0,113192,113192
296.1,-1.8079e-08,0,112664,112664
296.151,-1.80183e-08,0,112120,112120
296.201,-1.79581e-08,0,111592,111592
296.25,-1.78974e-08,0,111064,111064
296.3,-1.78362e-08,0,110536,110536
296.351,-1.77734e-08,0,109976,109976
296.4,-1.77107e-08,0,109416,109416
296.45,-1.7647e-08,0,108888,108888
296.5,-1.75824e-08,0,108424,108424
296.551,-1.75156e-08,0,107864,107864
296.6,-1.74485e-08,0,107336,107336
296.65,-1.738e-08,0,106840,106840
296.701,-1.73088e-08,0,106280,106280
296.75,-1.72368e-08,0,105752,105752
296.8,-1.71627e-08,0,105224,105224
296.85,-1.70862e-08,0,104744,104744
296.901,-1.70061e-08,0,104184,104184
296.95,-1.69242e-08,0,103688,103688
297,-1.68391e-08,0,103160,103160
297.05,-1.67506e-08,0,102664,102664
297.101,-1.6657e-08,0,102088,102088
297.15,-1.65606e-08,0,101560,101560
297.2,-1.646e-08,0,101064,101064
297.251,-1.63533e-08,0,100568,100568
297.3,-1.62432e-08,0,100072,100072
297.35,-1.61282e-08,0,99544,99544
297.4,-1.60082e-08,0,99016,99016
297.451,-1.5881e-08,0,98488,98488
297.5,-1.57503e-08,0,97976,97976
297.55,-1.56144e-08,0,97480,97480
297.601,-1.5471e-08,0,96952,96952
297.651,-1.53244e-08,0,96472,96472
297.7,-1.51725e-08,0,95992,95992
297.75,-1.50152e-08,0,95432,95432
297.801,-1.48501e-08,0,94888,94888
297.85,-1.46819e-08,0,94392,94392
297.9,-1.4508e-08,0,93912,93912
297.95,-1.43284e-08,0,93384,93384
298.001,-1.414e-08,0,92904,92904
298.05,-1.39483e-08,0,92424,92424
298.1,-1.37504e-08,0,91912,91912
298.151,-1.35436e-08,0,91400,91400
298.2,-1.33339e-08,0,90904,90904
298.25,-1.31187e-08,0,90424,90424
298.3,-1.28978e-08,0,89896,89896
298.351,-1.26676e-08,0,89336,89336
298.4,-1.24342e-08,0,88840,88840
298.45,-1.21933e-08,0,88312,88312
298.501,-1.194e-08,0,87736,87736
298.551,-1.16799e-08,0,87192,87192
298.6,-1.14076e-08,0,86664,86664
298.65,-1.11208e-08,0,86120,86120
298.701,-1.08126e-08,0,85560,85560
298.75,-1.0489e-08,0,85032,85032
298.8,-1.01433e-08,0,84488,84488
298.85,-9.77303e-09,0,83928,83928
298.901,-9.36999e-09,0,83352,83352
298.95,-8.94427e-09,0,82792,82792
299,-8.48909e-09,0,82248,82248
299.051,-7.99654e-09,0,81672,81672
299.1,-7.48098e-09,0,81144,81144
299.15,-6.93637e-09,0,80616,80616
299.2,-6.36449e-09,0,80040,80040
299.251,-5.75903e-09,0,79464,79464
299.3,-5.13943e-09,0,78920,78920
299.35,-4.49204e-09,0,78360,78360
299.4,-3.79153e-09,0,77800,77800
299.451,-3.00092e-09,0,77224,77224
299.5,-2.26951e-09,0,76648,76648
299.55,-1.67685e-09,0,76072,76072
299.601,-1.08937e-09,0,75496,75496
299.65,-6.98085e-10,0,74856,74856
299.7,-1.35603e-10,0,74280,74280
299.75,4.16637e-10,0,73624,73624
299.801,9.58401e-10,0,73048,73048
299.85,1.46294e-09,0,72472,72472
299.9,1.93747e-09,0,71880,71880
299.951,2.38234e-09,0,71304,71304
300,2.78352e-09,0,70728,70728
300.05,3.14525e-09,0,70184,70184
300.1,3.46569e-09,0,69496,69496
300.151,3.74783e-09,0,68872,68872
300.2,3.98366e-09,0,68280,68280
300.25,4.17946e-09,0,67752,67752
300.3,4.33544e-09,0,67144,67144
300.351,4.45737e-09,0,66392,66392
300.4,4.54228e-09,0,65832,65832
300.45,4.59683e-09,0,65240,65240
300.501,4.62292e-09,0,64536,64536
300.55,4.62284e-09,0,64008,64008
300.6,4.60108e-09,0,63240,63240
300.65,4.55906e-09,0,62728,62728
300.701,4.50021e-09,0,61960,61960
300.75,4.42763e-09,0,61416,61416
300.8,4.34376e-09,0,60696,60696
300.851,4.2499e-09,0,60136,60136
300.901,4.14948e-09,0,59432,59432
300.95,4.04436e-09,0,58824,58824
301,3.93534e-09,0,58088,58088
301.051,3.82209e-09,0,57480,57480
301.1,3.71024e-09,0,56760,56760
301.15,3.5985e-09,0,56136,56136
301.2,3.48763e-09,0,55400,55400
301.251,3.37809e-09,0,54760,54760
301.3,3.27296e-09,0,54104,54104
301.35,3.17086e-09,0,53368,53368
301.401,3.07201e-09,0,52776,52776
301.45,2.97971e-09,0,51944,51944
301.5,2.89228e-09,0,51336,51336
301.55,2.81085e-09,0,50728,50728
301.601,2.73554e-09,0,49880,49880
301.65,2.66796e-09,0,49256,49256
301.7,2.60717e-09,0,48648,48648
301.751,2.55325e-09,0,47880,47880
301.801,2.50762e-09,0,47176,47176
301.85,2.46845e-09,0,46536,46536
301.9,2.4356e-09,0,45912,45912
301.951,2.4087e-09,0,45176,45176
302,2.38756e-09,0,44440,44440
302.05,2.37048e-09,0,43768,43768
302.1,2.35697e-09,0,43128,43128
302.151,2.34652e-09,0,42504,42504
302.2,2.33831e-09,0,41800,41800
302.25,2.33117e-09,0,41000,41000
302.301,2.3246e-09,0,40360,40360
302.35,2.31845e-09,0,39688,39688
302.4,2.31174e-09,0,39048,39048
302.45,2.30374e-09,0,38360,38360
302.501,2.2943e-09,0,37592,37592
302.55,2.28396e-09,0,36936,36936
302.6,2.2726e-09,0,36264,36264
302.65,2.26045e-09,0,35640,35640
302.701,2.24803e-09,0,34968,34968
302.75,2.2364e-09,0,34232,34232
302.8,2.22553e-09,0,33496,33496
302.851,2.2153e-09,0,32808,32808
302.901,2.2061e-09,0,32768,32768
302.951,2.1979e-09,0,32768,32768
303.001,2.19013e-09,0,32768,32768
303.05,2.18261e-09,0,32768,32768
303.1,2.17543e-09,0,32768,32768
303.151,2.16841e-09,0,32768,32768
303.201,2.1621e-09,0,32768,32768
303.251,2.15687e-09,0,32768,32768
303.301,2.15318e-09,0,32768,32768
303.351,2.15122e-09,0,32768,32768
303.4,2.15132e-09,0,32768,32768
303.45,2.15356e-09,0,32768,32768
303.5,2.1576e-09,0,32768,32768
303.551,2.16335e-09,0,32768,32768
303.601,2.17002e-09,0,32768,32768
303.651,2.17723e-09,0,32768,32768
303.701,2.18466e-09,0,32768,32768
303.75,2.19197e-09,0,32768,32768
303.8,2.19888e-09,0,32768,32768
303.85,2.20541e-09,0,32768,32768
303.901,2.21154e-09,0,32768,32768
303.951,2.21683e-09,0,32768,32768
304.001,2.22148e-09,0,32768,32768
304.051,2.22537e-09,0,32768,32768
304.101,2.22856e-09,0,32768,32768
304.15,2.23109e-09,0,32768,32768
304.2,2.23298e-09,0,32768,32768
304.251,2.23434e-09,0,32768,32768
304.301,2.23506e-09,0,32768,32768
304.351,2.23517e-09,0,32768,32768
304.401,2.23463e-09,0,32768,32768
304.451,2.23338e-09,0,32768,32768
304.5,2.23149e-09,0,32768,32768
304.55,2.22898e-09,0,32768,32768
304.601,2.22584e-09,0,32768,32768
304.651,2.22236e-09,0,32768,32768
304.701,2.21852e-09,0,32768,32768
304.751,2.21443e-09,0,32768,32768
304.801,2.21005e-09,0,32768,32768
304.85,2.20538e-09,0,32768,32768
304.9,2.20033e-09,0,32768,32768
304.95,2.19482e-09,0,32768,32768
