250,0,0,512,512
250.012,0,0,512,512
250.059,0,0,512,512
250.105,0,0,512,512
250.152,0,0,512,512
250.211,0,0,512,512
250.258,0,0,512,512
250.305,0,0,512,512
250.352,0,0,512,512
250.41,0,0,512,512
250.457,0,0,512,512
250.504,0,0,512,512
250.551,0,0,512,512
250.609,0,0,512,512
250.656,0,0,512,512
250.703,0,0,512,512
250.762,0,0,512,512
250.808,0,0,512,512
250.855,0,0,512,512
250.902,0,0,512,512
250.961,2.77556e-17,0,512,512
251.008,2.77556e-17,0,512,512
251.055,2.77556e-17,0,512,512
251.101,0,0,512,512
251.16,0,0,512,512
251.207,0,0,512,512
251.254,0,0,512,512
251.301,0,0,512,512
251.359,0,0,512,512
251.406,0,0,512,512
251.453,0,0,512,512
251.511,0,0,512,512
251.558,0,0,512,512
251.605,0,0,512,512
251.652,0,0,512,512
251.711,0,0,512,512
251.758,0,0,512,512
251.804,0,0,512,512
251.851,0,0,512,512
251.91,0,0,512,512
251.957,0,0,512,512
252.004,0,0,512,512
252.05,0,0,512,512
252.109,0,0,512,512
252.156,0,0,512,512
252.203,0,0,512,512
252.261,0,0,512,512
252.308,0,0,512,512
252.355,0,0,512,512
252.402,0,0,512,512
252.461,0,0,512,512
252.507,-2.77556e-17,0,512,512
252.554,-2.77556e-17,0,512,512
252.601,-2.77556e-17,0,512,512
252.66,-2.77556e-17,0,512,512
252.707,-2.77556e-17,0,512,512
252.754,-2.77556e-17,0,512,512
252.8,0,0,512,512
252.859,0,0,512,512
252.906,-2.77556e-17,0,512,512
252.953,-2.77556e-17,0,512,512
253.011,-2.77556e-17,0,512,512
253.058,-2.77556e-17,0,512,512
253.105,-2.77556e-17,0,512,512
253.152,-2.77556e-17,0,512,512
253.21,-2.77556e-17,0,512,512
253.257,-2.77556e-17,0,512,512
253.304,-2.77556e-17,0,512,512
253.351,0,0,512,512
253.41,0,0,512,512
253.457,0,0,512,512
253.503,0,0,512,512
253.55,0,0,512,512
253.609,0,0,512,512
253.656,0,0,512,512
253.703,0,0,512,512
253.761,0,0,512,512
253.808,0,0,512,512
253.855,0,0,512,512
253.902,-2.77556e-17,0,512,512
253.96,-2.77556e-17,0,512,512
254.007,-2.77556e-17,0,512,512
254.054,0,0,512,512
254.101,-2.77556e-17,0,512,512
254.16,0,0,512,512
254.206,0,0,512,512
254.253,0,0,512,512
254.3,0,0,512,512
254.359,0,0,512,512
254.406,0,0,512,512
254.452,0,0,512,512
254.511,0,0,512,512
254.558,0,0,512,512
254.605,0,0,512,512
254.652,-2.77556e-17,0,512,512
254.71,-2.77556e-17,0,512,512
254.757,-2.77556e-17,0,512,512
254.804,-2.77556e-17,0,512,512
254.851,-2.77556e-17,0,512,512
254.909,-2.77556e-17,0,512,512
254.956,0,0,512,512
255.003,0,0,512,512
255.05,0,0,512,512
255.109,0,0,512,512
255.155,0,0,512,512
255.202,0,0,512,512
255.261,0,0,512,512
255.308,0,0,512,512
255.355,0,0,512,512
255.402,0,0,512,512
255.46,0,0,512,512
255.507,0,0,512,512
255.554,0,0,512,512
255.601,0,0,512,512
255.659,0,0,512,512
255.706,0,0,512,512
255.753,0,0,512,512
255.812,0,0,512,512
255.859,0,0,512,512
255.905,0,0,512,512
255.952,-2.77556e-17,0,512,512
256.011,-2.77556e-17,0,512,512
256.058,-2.77556e-17,0,512,512
256.105,-2.77556e-17,0,512,512
256.151,-2.77556e-17,0,512,512
256.21,-2.77556e-17,0,512,512
256.257,-2.77556e-17,0,512,512
256.304,-2.77556e-17,0,512,512
256.351,-2.77556e-17,0,512,512
256.409,-2.77556e-17,0,512,512
256.456,-2.77556e-17,0,512,512
256.503,0,0,512,512
256.562,0,0,512,512
256.608,0,0,512,512
256.655,-2.77556e-17,0,512,512
256.702,-2.77556e-17,0,512,512
256.761,-2.77556e-17,0,512,512
256.808,-5.55112e-17,0,512,512
256.854,-5.55112e-17,0,512,512
256.901,-5.55112e-17,0,512,512
256.96,-5.55112e-17,0,512,512
257.007,-5.55112e-17,0,512,512
257.054,-5.55112e-17,0,512,512
257.101,-5.55112e-17,0,512,512
257.159,-5.55112e-17,0,512,512
257.206,-5.55112e-17,0,512,512
257.253,-5.55112e-17,0,512,512
257.311,-2.77556e-17,0,512,512
257.358,-2.77556e-17,0,512,512
257.405,-2.77556e-17,0,512,512
257.452,-2.77556e-17,0,512,512
257.511,-2.77556e-17,0,512,512
257.557,0,0,512,512
257.604,-2.77556e-17,0,512,512
257.651,0,0,512,512
257.71,0,0,512,512
257.757,0,0,512,512
257.804,0,0,512,512
257.85,-2.77556e-17,0,512,512
257.909,-2.77556e-17,0,512,512
257.956,0,0,512,512
258.003,0,0,512,512
258.061,0,0,512,512
258.108,0,0,512,512
258.155,0,0,512,512
258.202,0,0,512,512
258.261,2.77556e-17,0,512,512
258.307,0,0,512,512
258.354,0,0,512,512
258.401,0,0,512,512
258.46,0,0,512,512
258.507,0,0,512,512
258.553,0,0,512,512
258.6,-2.77556e-17,0,512,512
258.659,2.77556e-17,0,512,512
258.706,5.55112e-17,0,512,512
258.753,2.77556e-17,0,512,512
258.811,2.77556e-17,0,512,512
258.858,5.55112e-17,0,512,512
258.905,2.77556e-17,0,512,512
258.952,2.77556e-17,0,512,512
259.01,2.77556e-17,0,512,512
259.057,2.77556e-17,0,512,512
259.104,2.77556e-17,0,512,512
259.151,2.77556e-17,0,512,512
259.21,0,0,512,512
259.256,0,0,512,512
259.303,0,0,512,512
259.35,0,0,512,512
259.409,0,0,512,512
259.456,0,0,512,512
259.503,0,0,512,512
259.561,0,0,512,512
259.608,0,0,512,512
259.655,0,0,512,512
259.702,0,0,512,512
259.76,0,0,512,512
259.807,0,0,512,512
259.854,0,0,512,512
259.901,2.77556e-17,0,512,512
259.959,0,0,512,512
260.006,2.77556e-17,0,512,512
260.053,2.77556e-17,0,512,512
260.1,2.77556e-17,0,512,512
260.159,2.77556e-17,0,512,512
260.206,2.77556e-17,0,512,512
260.252,2.77556e-17,0,512,512
260.311,2.77556e-17,0,512,512
260.358,2.77556e-17,0,512,512
260.405,2.77556e-17,0,512,512
260.452,2.77556e-17,0,512,512
260.51,2.77556e-17,0,512,512
260.557,5.55112e-17,0,512,512
260.604,5.55112e-17,0,512,512
260.651,5.55112e-17,0,512,512
260.709,2.77556e-17,0,512,512
260.756,0,0,512,512
260.803,0,0,512,512
260.862,0,0,512,512
260.909,0,0,512,512
260.955,0,0,512,512
261.002,0,0,512,512
261.061,2.77556e-17,0,512,512
261.108,2.77556e-17,0,512,512
261.155,0,0,512,512
261.201,2.77556e-17,0,512,512
261.26,-2.77556e-17,0,512,512
261.307,0,0,512,512
261.354,0,0,512,512
261.401,0,0,512,512
261.459,0,0,512,512
261.506,2.77556e-17,0,512,512
261.553,2.77556e-17,0,512,512
261.612,0,0,512,512
261.658,-2.77556e-17,0,512,512
261.705,0,0,512,512
261.752,2.77556e-17,0,512,512
261.811,2.77556e-17,0,512,512
261.858,0,0,512,512
261.905,2.77556e-17,0,512,512
261.951,2.77556e-17,0,512,512
262.01,-5.55112e-17,0,512,512
262.057,-2.77556e-17,0,512,512
262.104,0,0,512,512
262.151,0,0,512,512
262.209,-2.77556e-17,0,512,512
262.256,-2.77556e-17,0,512,512
262.303,-2.77556e-17,0,512,512
262.361,-2.77556e-17,0,512,512
262.408,0,0,512,512
262.455,0,0,512,512
262.502,0,0,512,512
262.561,0,0,512,512
262.608,0,0,512,512
262.654,2.77556e-17,0,512,512
262.701,2.77556e-17,0,512,512
262.76,0,0,512,512
262.807,0,0,512,512
262.854,0,0,512,512
262.9,0,0,512,512
262.959,0,0,512,512
263.006,0,0,512,512
263.053,0,0,512,512
263.111,0,0,512,512
263.158,-2.77556e-17,0,512,512
263.205,0,0,512,512
263.252,0,0,512,512
263.311,0,0,512,512
263.357,0,0,512,512
263.404,0,0,512,512
263.451,2.77556e-17,0,512,512
263.51,2.77556e-17,0,512,512
263.557,0,0,512,512
263.603,-2.77556e-17,0,512,512
263.65,-2.77556e-17,0,512,512
263.709,-2.77556e-17,0,512,512
263.756,0,0,512,512
263.803,0,0,512,512
263.861,0,0,512,512
263.908,0,0,512,512
263.955,-2.77556e-17,0,512,512
264.002,-2.77556e-17,0,512,512
264.06,-2.77556e-17,0,512,512
264.107,-2.77556e-17,0,512,512
264.154,0,0,512,512
264.201,-2.77556e-17,0,512,512
264.26,0,0,512,512
264.306,0,0,512,512
264.353,-5.55112e-17,0,512,512
264.4,-2.77556e-17,0,512,512
264.459,-2.77556e-17,0,512,512
264.506,-2.77556e-17,0,512,512
264.553,-2.77556e-17,0,512,512
264.611,-2.77556e-17,0,512,512
264.658,-2.77556e-17,0,512,512
264.705,0,0,512,512
264.752,0,0,512,512
264.81,-2.77556e-17,0,512,512
264.857,-2.77556e-17,0,512,512
264.904,0,0,512,512
264.951,0,0,512,512
265.01,0,0,512,512
265.056,0,0,512,512
265.103,0,0,512,512
265.15,0,0,512,512
265.209,0,0,512,512
265.256,0,0,512,512
265.302,0,0,512,512
265.361,0,0,512,512
265.408,0,0,512,512
265.455,0,0,512,512
265.502,0,0,512,512
265.56,0,0,512,512
265.607,0,0,512,512
265.654,0,0,512,512
265.701,0,0,512,512
265.759,0,0,512,512
265.806,0,0,512,512
265.853,0,0,512,512
265.9,0,0,512,512
265.959,0,0,512,512
266.005,0,0,512,512
266.052,2.77556e-17,0,512,512
266.111,2.77556e-17,0,512,512
266.158,2.77556e-17,0,512,512
266.205,0,0,512,512
266.252,0,0,512,512
266.31,2.77556e-17,0,512,512
266.357,2.77556e-17,0,512,512
266.404,2.77556e-17,0,512,512
266.451,2.77556e-17,0,512,512
266.509,2.77556e-17,0,512,512
266.556,2.77556e-17,0,512,512
266.603,2.77556e-17,0,512,512
266.662,2.77556e-17,0,512,512
266.708,2.77556e-17,0,512,512
266.755,2.77556e-17,0,512,512
266.802,2.77556e-17,0,512,512
266.861,2.77556e-17,0,512,512
266.908,2.77556e-17,0,512,512
266.955,2.77556e-17,0,512,512
267.001,2.77556e-17,0,512,512
267.06,2.77556e-17,0,512,512
267.107,2.77556e-17,0,512,512
267.154,2.77556e-17,0,512,512
267.201,2.77556e-17,0,512,512
267.259,2.77556e-17,0,512,512
267.306,2.77556e-17,0,512,512
267.353,2.77556e-17,0,512,512
267.412,2.77556e-17,0,512,512
267.458,2.77556e-17,0,512,512
267.505,2.77556e-17,0,512,512
267.552,2.77556e-17,0,512,512
267.611,2.77556e-17,0,512,512
267.658,2.77556e-17,0,512,512
267.704,2.77556e-17,0,512,512
267.751,5.55112e-17,0,512,512
267.81,5.55112e-17,0,512,512
267.857,5.55112e-17,0,512,512
267.904,8.32667e-17,0,512,512
267.95,8.32667e-17,0,512,512
268.009,5.55112e-17,0,512,512
268.056,5.55112e-17,0,512,512
268.103,5.55112e-17,0,512,512
268.161,2.77556e-17,0,512,512
268.208,2.77556e-17,0,512,512
268.255,2.77556e-17,0,512,512
268.302,0,0,512,512
268.361,2.77556e-17,0,512,512
268.407,0,0,512,512
268.454,0,0,512,512
268.501,0,0,512,512
268.56,0,0,512,512
268.607,0,0,512,512
268.654,0,0,512,512
268.7,0,0,512,512
268.759,2.77556e-17,0,512,512
268.806,0,0,512,512
268.853,0,0,512,512
268.911,-2.77556e-17,0,512,512
268.958,0,0,512,512
269.005,0,0,512,512
269.052,2.77556e-17,0,512,512
269.11,0,0,512,512
269.157,2.77556e-17,0,512,512
269.204,0,0,512,512
269.251,2.77556e-17,0,512,512
269.31,4.44089e-16,0,512,512
269.357,4.55191e-15,0,512,512
269.403,-9.35363e-15,0,512,512
269.45,-4.55219e-13,0,512,512
269.509,-5.61912e-12,0,512,512
269.556,-2.24128e-11,0,512,512
269.603,-6.09579e-11,0,512,512
269.661,-1.38834e-10,0,512,512
269.708,-2.00483e-10,0,512,512
269.755,-2.27584e-10,0,512,512
269.802,-1.99253e-10,0,512,512
269.86,-9.75159e-11,0,512,512
269.907,-3.79732e-12,0,512,512
269.954,6.01119e-11,0,512,512
270.001,7.76087e-11,0,512,512
270.06,5.5767e-11,0,512,512
270.106,4.04664e-11,0,512,512
270.153,4.99784e-11,0,512,512
270.2,8.01122e-11,0,512,512
270.259,1.13033e-10,0,512,512
270.306,1.13453e-10,0,512,512
270.352,9.2986e-11,0,512,512
270.411,6.76643e-11,0,512,512
270.458,6.88754e-11,0,512,512
270.505,9.01387e-11,0,512,512
270.552,1.16197e-10,0,512,512
270.61,1.28643e-10,0,512,512
270.657,1.14714e-10,0,512,512
270.701,9.14247e-11,0,515,515
270.756,7.27398e-11,0,521,521
270.803,8.12766e-11,0,529,529
270.855,1.12047e-10,0,537,537
270.902,1.35954e-10,0,543,543
270.955,1.3275e-10,0,551,551
271.002,1.02607e-10,0,555,555
271.054,7.0162e-11,0,561,561
271.101,7.52866e-11,0,569,569
271.15,1.16714e-10,0,585,585
271.2,1.53252e-10,0,599,599
271.254,1.43987e-10,0,615,615
271.304,1.48638e-10,0,631,631
271.353,3.64023e-10,0,647,647
271.403,1.07781e-09,0,653,653
271.453,2.55284e-09,0,652,652
271.502,4.9049e-09,0,652,652
271.552,8.04547e-09,0,654,654
271.602,1.17203e-08,0,652,652
271.652,1.56234e-08,0,658,658
271.701,1.95333e-08,0,658,658
271.751,2.34128e-08,0,650,650
271.801,2.74355e-08,0,652,652
271.85,3.19381e-08,0,654,654
271.9,3.7332e-08,0,661,661
271.954,4.4648e-08,0,669,669
272.004,5.31298e-08,0,671,671
272.053,6.35524e-08,0,679,679
272.103,7.61179e-08,0,691,691
272.153,9.09539e-08,0,693,693
272.203,1.08104e-07,0,701,701
272.252,1.27538e-07,0,709,709
272.302,1.49106e-07,0,713,713
272.352,1.72443e-07,0,715,715
272.401,2.02357e-07,0,719,719
272.451,2.52179e-07,0,731,731
272.501,3.02475e-07,0,733,733
272.551,3.50678e-07,0,731,731
272.6,3.9998e-07,0,733,733
272.65,4.5054e-07,0,729,729
272.703,5.04091e-07,0,733,733
272.756,5.5994e-07,0,731,731
272.803,6.10048e-07,0,739,739
272.855,6.65156e-07,0,741,741
272.902,7.07002e-07,0,743,743
272.955,7.45113e-07,0,747,747
273.002,7.70156e-07,0,745,745
273.055,7.89706e-07,0,749,749
273.101,8.0208e-07,0,750,750
273.154,8.06492e-07,0,754,754
273.201,8.05434e-07,0,754,754
273.254,8.01591e-07,0,754,754
273.301,7.95002e-07,0,752,752
273.353,7.84433e-07,0,748,748
273.4,7.7178e-07,0,754,754
273.453,7.54098e-07,0,748,748
273.506,7.32683e-07,0,748,748
273.552,7.10716e-07,0,752,752
273.605,6.79481e-07,0,758,758
273.652,6.27936e-07,0,752,752
273.705,5.73135e-07,0,746,746
273.752,5.28145e-07,0,748,748
273.804,4.79067e-07,0,752,752
273.851,4.37068e-07,0,756,756
273.904,3.94217e-07,0,758,758
273.951,3.5721e-07,0,756,756
274.004,3.20331e-07,0,762,762
274.05,2.88526e-07,0,762,762
274.103,2.55727e-07,0,772,772
274.15,2.27947e-07,0,774,774
274.203,1.99425e-07,0,772,772
274.255,1.74307e-07,0,778,778
274.302,1.54707e-07,0,782,782
274.355,1.36645e-07,0,784,784
274.402,1.22473e-07,0,788,788
274.455,1.08746e-07,0,796,796
274.502,9.7214e-08,0,800,800
274.554,8.46498e-08,0,806,806
274.601,7.35364e-08,0,808,808
274.654,6.56653e-08,0,810,810
274.702,5.7852e-08,0,812,812
274.755,5.07998e-08,0,816,816
274.803,4.68603e-08,0,828,828
274.85,4.27382e-08,0,820,820
274.904,3.84146e-08,0,828,828
274.952,3.43885e-08,0,832,832
275.006,3.039e-08,0,838,838
275.054,2.72554e-08,0,834,834
275.101,2.48327e-08,0,830,830
275.151,2.2889e-08,0,832,832
275.201,2.14894e-08,0,832,832
275.251,2.06561e-08,0,830,830
275.301,2.02647e-08,0,826,826
275.35,2.01562e-08,0,824,824
275.4,2.01431e-08,0,820,820
275.45,2.01226e-08,0,824,824
275.5,2.00927e-08,0,830,830
275.55,2.00566e-08,0,818,818
275.6,1.99576e-08,0,808,808
275.652,1.97617e-08,0,810,810
275.703,1.95498e-08,0,808,808
275.753,1.9397e-08,0,792,792
275.804,1.93258e-08,0,796,796
275.855,1.92987e-08,0,802,802
275.905,1.92732e-08,0,800,800
275.95,1.92424e-08,0,794,794
276.001,1.92136e-08,0,796,796
276.053,1.92162e-08,0,794,794
276.104,1.9259e-08,0,796,796
276.154,1.93279e-08,0,794,794
276.203,1.94075e-08,0,798,798
276.252,1.9492e-08,0,796,796
276.301,1.95773e-08,0,806,806
276.355,1.96662e-08,0,808,808
276.404,1.97366e-08,0,808,808
276.453,1.97932e-08,0,812,812
276.501,1.98356e-08,0,812,812
276.55,1.98657e-08,0,824,824
276.604,1.98869e-08,0,826,826
276.653,1.98949e-08,0,830,830
276.703,1.98919e-08,0,818,818
276.75,1.98808e-08,0,820,820
276.804,1.98658e-08,0,816,816
276.852,1.98586e-08,0,810,810
276.905,1.98662e-08,0,804,804
276.953,1.9891e-08,0,804,804
277.001,1.9932e-08,0,806,806
277.055,1.99927e-08,0,796,796
277.103,2.00571e-08,0,798,798
277.152,2.01263e-08,0,802,802
277.2,2.01956e-08,0,796,796
277.254,2.02663e-08,0,802,802
277.303,2.03203e-08,0,796,796
277.351,2.03642e-08,0,784,784
277.4,2.04003e-08,0,788,788
277.454,2.04351e-08,0,792,792
277.503,2.04633e-08,0,770,770
277.552,2.04883e-08,0,774,774
277.601,2.05083e-08,0,774,774
277.65,2.05215e-08,0,762,762
277.705,2.05277e-08,0,766,766
277.754,2.05271e-08,0,772,772
277.803,2.05229e-08,0,768,768
277.853,2.05175e-08,0,764,764
277.902,2.05131e-08,0,766,766
277.952,2.05115e-08,0,768,768
278.001,2.05141e-08,0,764,764
278.051,2.05223e-08,0,764,764
278.101,2.05367e-08,0,760,760
278.151,2.05574e-08,0,762,762
278.2,2.05836e-08,0,760,760
278.25,2.06143e-08,0,758,758
278.3,2.06481e-08,0,758,758
278.351,2.06832e-08,0,756,756
278.401,2.07174e-08,0,752,752
278.451,2.07481e-08,0,764,764
278.501,2.07727e-08,0,754,754
278.552,2.07891e-08,0,744,744
278.602,2.0796e-08,0,758,758
278.653,2.07925e-08,0,752,752
278.703,2.0778e-08,0,746,746
278.754,2.0752e-08,0,750,750
278.805,2.07134e-08,0,750,750
278.85,2.06678e-08,0,748,748
278.901,2.06024e-08,0,746,746
278.952,2.05205e-08,0,755,755
279.005,2.04166e-08,0,745,745
279.052,2.03064e-08,0,745,745
279.105,2.01606e-08,0,739,739
279.153,2.0007e-08,0,735,735
279.201,1.983e-08,0,733,733
279.252,1.96211e-08,0,725,725
279.306,1.93707e-08,0,719,719
279.352,1.91327e-08,0,721,721
279.406,1.88282e-08,0,715,715
279.451,1.85578e-08,0,709,709
279.501,1.82257e-08,0,711,711
279.552,1.78706e-08,0,713,713
279.603,1.74935e-08,0,713,713
279.653,1.7096e-08,0,707,707
279.704,1.66803e-08,0,701,701
279.755,1.6249e-08,0,699,699
279.804,1.5819e-08,0,711,711
279.853,1.53847e-08,0,697,697
279.902,1.49401e-08,0,721,721
279.95,1.45051e-08,0,701,701
280.001,1.40443e-08,0,711,711
280.056,1.35568e-08,0,683,683
280.103,1.31385e-08,0,653,653
280.153,1.27118e-08,0,620,620
280.201,1.23131e-08,0,578,578
280.257,1.18685e-08,0,533,533
280.303,1.15284e-08,0,535,535
280.358,1.11387e-08,0,543,543
280.403,1.08424e-08,0,543,543
280.45,1.0559e-08,0,587,587
280.5,1.02831e-08,0,589,589
280.552,1.00219e-08,0,625,625
280.602,9.79032e-09,0,637,637
280.655,9.56869e-09,0,647,647
280.7,9.39553e-09,0,647,647
280.751,9.2166e-09,0,653,653
280.803,9.0529e-09,0,657,657
280.854,8.90325e-09,0,657,657
280.905,8.76698e-09,0,663,663
280.95,8.6562e-09,0,661,661
281.005,8.5366e-09,0,657,657
281.053,8.444e-09,0,657,657
281.101,8.36243e-09,0,663,663
281.155,8.2822e-09,0,663,663
281.203,8.22273e-09,0,669,669
281.251,8.17252e-09,0,671,671
281.306,8.12543e-09,0,673,673
281.354,8.09227e-09,0,679,679
281.402,8.06571e-09,0,685,685
281.457,8.04234e-09,0,683,683
281.504,8.02705e-09,0,693,693
281.552,8.0157e-09,0,697,697
281.6,8.00751e-09,0,699,699
281.655,8.00113e-09,0,705,705
281.703,7.99749e-09,0,705,705
281.751,7.9952e-09,0,705,705
281.806,7.99388e-09,0,691,691
281.854,7.99367e-09,0,688,688
281.901,7.99423e-09,0,686,686
281.955,7.99575e-09,0,682,682
282.001,7.99771e-09,0,674,674
282.054,8.00067e-09,0,668,668
282.101,8.00367e-09,0,678,678
282.154,8.00762e-09,0,674,674
282.208,8.01196e-09,0,670,670
282.253,8.01598e-09,0,678,678
282.307,8.02103e-09,0,680,680
282.352,8.0257e-09,0,676,676
282.406,8.03157e-09,0,684,684
282.451,8.03698e-09,0,674,674
282.504,8.04372e-09,0,678,678
282.557,8.05091e-09,0,684,684
282.603,8.05747e-09,0,674,674
282.656,8.06567e-09,0,676,676
282.701,8.07331e-09,0,686,686
282.753,8.08322e-09,0,676,676
282.806,8.09461e-09,0,676,676
282.851,8.10599e-09,0,682,682
282.904,8.12172e-09,0,676,676
282.956,8.14082e-09,0,676,676
283.001,8.16053e-09,0,680,680
283.053,8.18827e-09,0,676,676
283.105,8.22215e-09,0,674,674
283.15,8.25704e-09,0,678,678
283.202,8.30577e-09,0,680,680
283.254,8.36467e-09,0,678,678
283.306,8.4355e-09,0,676,676
283.35,8.5071e-09,0,680,680
283.401,8.60522e-09,0,678,678
283.453,8.72143e-09,0,676,676
283.504,8.85819e-09,0,682,682
283.555,9.01812e-09,0,678,678
283.605,9.20442e-09,0,676,676
283.656,9.4203e-09,0,684,684
283.706,9.66864e-09,0,678,678
283.756,9.95366e-09,0,674,674
283.806,1.02795e-08,0,676,676
283.855,1.06502e-08,0,680,680
283.905,1.1071e-08,0,674,674
283.954,1.15479e-08,0,676,676
284.003,1.2087e-08,0,678,678
284.052,1.26948e-08,0,674,674
284.101,1.33801e-08,0,680,680
284.157,1.42686e-08,0,674,674
284.205,1.51475e-08,0,678,678
284.253,1.61312e-08,0,680,680
284.301,1.72298e-08,0,680,680
284.356,1.86374e-08,0,680,680
284.404,2.00101e-08,0,680,680
284.452,2.15255e-08,0,680,680
284.506,2.34414e-08,0,682,682
284.553,2.5286e-08,0,680,680
284.6,2.72921e-08,0,680,680
284.654,2.97921e-08,0,682,682
284.7,3.2166e-08,0,680,680
284.754,3.50945e-08,0,676,676
284.8,3.78494e-08,0,682,682
284.853,4.12254e-08,0,676,676
284.906,4.48487e-08,0,676,676
284.952,4.82265e-08,0,676,676
285.004,5.23282e-08,0,682,682
285.056,5.66992e-08,0,676,676
285.102,6.07538e-08,0,682,682
285.153,6.56607e-08,0,680,680
285.205,7.0867e-08,0,676,676
285.25,7.56845e-08,0,682,682
285.301,8.15069e-08,0,678,678
285.352,8.76848e-08,0,682,682
285.403,9.42364e-08,0,678,678
285.454,1.01185e-07,0,680,680
285.505,1.08561e-07,0,682,682
285.555,1.16393e-07,0,680,680
285.605,1.24716e-07,0,680,680
285.656,1.33561e-07,0,678,678
285.706,1.42967e-07,0,680,680
285.755,1.52979e-07,0,682,682
285.805,1.6364e-07,0,680,680
285.854,1.74991e-07,0,680,680
285.904,1.87063e-07,0,678,678
285.953,1.99887e-07,0,680,680
286.002,2.13494e-07,0,680,680
286.051,2.27902e-07,0,680,680
286.105,2.45076e-07,0,682,682
286.154,2.61204e-07,0,686,686
286.202,2.78121e-07,0,678,678
286.251,2.9583e-07,0,682,682
286.305,3.16678e-07,0,678,678
286.353,3.36004e-07,0,680,680
286.4,3.56045e-07,0,688,688
286.454,3.79385e-07,0,680,680
286.501,4.00763e-07,0,678,678
286.555,4.25444e-07,0,684,684
286.602,4.47836e-07,0,686,686
286.655,4.73388e-07,0,684,684
286.702,5.15332e-07,0,678,678
286.754,5.57064e-07,0,676,676
286.801,5.84088e-07,0,680,680
286.854,6.10891e-07,0,680,680
286.901,6.27519e-07,0,684,684
286.954,6.42592e-07,0,680,680
287,6.51791e-07,0,676,676
287.053,6.53546e-07,0,686,686
287.1,6.52443e-07,0,682,682
287.153,6.49025e-07,0,682,682
287.205,6.42912e-07,0,678,678
287.252,6.35492e-07,0,676,676
287.305,6.24868e-07,0,680,680
287.352,6.13461e-07,0,680,680
287.405,5.98688e-07,0,680,680
287.452,5.83795e-07,0,678,678
287.504,5.65112e-07,0,676,676
287.551,5.46819e-07,0,672,672
287.604,5.24498e-07,0,682,682
287.651,5.03255e-07,0,680,680
287.703,4.77742e-07,0,682,682
287.75,4.32975e-07,0,674,674
287.803,3.83952e-07,0,674,674
287.856,3.41964e-07,0,676,676
287.903,3.04987e-07,0,670,670
287.955,2.67722e-07,0,676,676
288.002,2.348e-07,0,680,680
288.055,2.00991e-07,0,682,682
288.102,1.72135e-07,0,674,674
288.155,1.42173e-07,0,674,674
288.201,1.17547e-07,0,678,678
288.254,9.19784e-08,0,668,668
288.301,7.15649e-08,0,674,674
288.354,5.05805e-08,0,676,676
288.401,3.4107e-08,0,673,673
288.453,1.7416e-08,0,665,665
288.5,4.3583e-09,0,657,657
288.553,-8.72857e-09,0,649,649
288.606,-2.08726e-08,0,635,635
288.653,-2.7805e-08,0,636,636
288.705,-3.14749e-08,0,638,638
288.752,-3.40539e-08,0,636,636
288.805,-3.67459e-08,0,636,636
288.852,-3.85554e-08,0,638,638
288.904,-4.01265e-08,0,634,634
288.951,-4.08915e-08,0,632,632
289.004,-4.14756e-08,0,638,638
289.051,-4.16053e-08,0,638,638
289.104,-4.1384e-08,0,636,636
289.15,-4.08646e-08,0,636,636
289.203,-4.00273e-08,0,638,638
289.25,-3.90803e-08,0,632,632
289.303,-3.78016e-08,0,630,630
289.356,-3.63284e-08,0,636,636
289.402,-3.49032e-08,0,631,631
289.455,-3.32195e-08,0,627,627
289.502,-3.16734e-08,0,621,621
289.555,-2.98842e-08,0,615,615
289.602,-2.82653e-08,0,605,605
289.654,-2.64541e-08,0,599,599
289.701,-2.4877e-08,0,591,591
289.754,-2.31529e-08,0,583,583
289.801,-2.16779e-08,0,581,581
289.853,-2.01065e-08,0,571,571
289.9,-1.88053e-08,0,561,561
289.953,-1.74558e-08,0,557,557
290.006,-1.6225e-08,0,549,549
290.053,-1.52326e-08,0,541,541
290.105,-1.4239e-08,0,535,535
290.152,-1.34677e-08,0,527,527
290.202,-1.27635e-08,0,519,519
290.251,-1.2154e-08,0,515,515
290.304,-1.1607e-08,0,512,512
290.351,-1.12051e-08,0,512,512
290.41,-1.07984e-08,0,512,512
290.457,-1.054e-08,0,512,512
290.504,-1.03361e-08,0,512,512
290.55,-1.01838e-08,0,512,512
290.609,-1.00593e-08,0,512,512
290.656,-1.00059e-08,0,512,512
290.703,-9.98848e-09,0,512,512
290.761,-1.00121e-08,0,512,512
290.808,-1.00609e-08,0,512,512
290.855,-1.01285e-08,0,512,512
290.902,-1.0208e-08,0,512,512
290.961,-1.03162e-08,0,512,512
291.007,-1.04065e-08,0,512,512
291.054,-1.04986e-08,0,512,512
291.101,-1.05906e-08,0,512,512
291.16,-1.06976e-08,0,512,512
291.207,-1.07709e-08,0,512,512
291.254,-1.08323e-08,0,512,512
291.3,-1.08832e-08,0,512,512
291.359,-1.09352e-08,0,512,512
291.406,-1.09708e-08,0,512,512
291.453,-1.10025e-08,0,512,512
291.511,-1.10357e-08,0,512,512
291.558,-1.10558e-08,0,512,512
291.605,-1.10714e-08,0,512,512
291.652,-1.10864e-08,0,512,512
291.71,-1.11094e-08,0,512,512
291.757,-1.11299e-08,0,512,512
291.804,-1.11464e-08,0,512,512
291.851,-1.11538e-08,0,512,512
291.91,-1.11479e-08,0,512,512
291.957,-1.11349e-08,0,512,512
292.003,-1.11202e-08,0,512,512
292.05,-1.1108e-08,0,512,512
292.109,-1.10991e-08,0,512,512
292.156,-1.10974e-08,0,512,512
292.203,-1.10997e-08,0,512,512
292.261,-1.11071e-08,0,512,512
292.308,-1.1116e-08,0,512,512
292.355,-1.11277e-08,0,512,512
292.402,-1.11423e-08,0,512,512
292.46,-1.11651e-08,0,512,512
292.507,-1.11874e-08,0,512,512
292.554,-1.12139e-08,0,512,512
292.601,-1.12449e-08,0,512,512
292.66,-1.12906e-08,0,512,512
292.706,-1.13329e-08,0,512,512
292.753,-1.13809e-08,0,512,512
292.8,-1.14347e-08,0,512,512
292.859,-1.15106e-08,0,512,512
292.906,-1.15785e-08,0,512,512
292.952,-1.16531e-08,0,512,512
293.011,-1.17561e-08,0,512,512
293.058,-1.18466e-08,0,512,512
293.105,-1.19445e-08,0,512,512
293.152,-1.205e-08,0,512,512
293.21,-1.21929e-08,0,512,512
293.257,-1.23163e-08,0,512,512
293.304,-1.2448e-08,0,512,512
293.351,-1.25882e-08,0,512,512
293.409,-1.27756e-08,0,512,512
293.456,-1.29355e-08,0,512,512
293.503,-1.31043e-08,0,512,512
293.55,-1.32823e-08,0,512,512
293.609,-1.35176e-08,0,512,512
293.656,-1.37161e-08,0,512,512
293.702,-1.39238e-08,0,512,512
293.761,-1.41961e-08,0,512,512
293.808,-1.44237e-08,0,512,512
293.855,-1.46599e-08,0,512,512
293.902,-1.49042e-08,0,512,512
293.96,-1.52203e-08,0,512,512
294.007,-1.54811e-08,0,512,512
294.054,-1.57481e-08,0,512,512
294.101,-1.60206e-08,0,512,512
294.159,-1.63677e-08,0,512,512
294.206,-1.66493e-08,0,512,512
294.253,-1.69333e-08,0,512,512
294.312,-1.72899e-08,0,512,512
294.359,-1.75751e-08,0,512,512
294.405,-1.78589e-08,0,512,512
294.452,-1.814e-08,0,512,512
294.511,-1.84856e-08,0,512,512
294.558,-1.8756e-08,0,512,512
294.605,-1.90197e-08,0,512,512
294.651,-1.92753e-08,0,512,512
294.71,-1.95819e-08,0,512,512
294.757,-1.98154e-08,0,512,512
294.804,-2.00374e-08,0,512,512
294.851,-2.0247e-08,0,512,512
294.909,-2.04903e-08,0,512,512
294.956,-2.06691e-08,0,512,512
295.003,-2.08333e-08,0,512,512
295.062,-2.10172e-08,0,512,512
295.108,-2.1147e-08,0,512,512
295.155,-2.12612e-08,0,512,512
295.202,-2.13597e-08,0,512,512
295.261,-2.1461e-08,0,512,512
295.308,-2.15248e-08,0,512,512
295.354,-2.15738e-08,0,512,512
295.401,-2.16082e-08,0,512,512
295.46,-2.16318e-08,0,512,512
295.507,-2.16358e-08,0,512,512
295.554,-2.16274e-08,0,512,512
295.601,-2.16073e-08,0,512,512
295.659,-2.1567e-08,0,512,512
295.706,-2.15237e-08,0,512,512
295.753,-2.14714e-08,0,512,512
295.811,-2.13947e-08,0,512,512
295.858,-2.13253e-08,0,512,512
295.905,-2.12498e-08,0,512,512
295.952,-2.11689e-08,0,512,512
296.011,-2.10614e-08,0,512,512
296.057,-2.09712e-08,0,512,512
296.104,-2.08781e-08,0,512,512
296.151,-2.07828e-08,0,512,512
296.21,-2.06613e-08,0,512,512
296.257,-2.0563e-08,0,512,512
296.304,-2.04641e-08,0,512,512
296.35,-2.03653e-08,0,512,512
296.409,-2.02422e-08,0,512,512
296.456,-2.01446e-08,0,512,512
296.503,-2.0048e-08,0,512,512
296.561,-1.99292e-08,0,512,512
296.608,-1.98358e-08,0,512,512
296.655,-1.9744e-08,0,512,512
296.702,-1.9654e-08,0,512,512
296.761,-1.95442e-08,0,512,512
296.807,-1.94584e-08,0,512,512
296.854,-1.93745e-08,0,512,512
296.901,-1.92924e-08,0,512,512
296.96,-1.91925e-08,0,512,512
297.007,-1.91144e-08,0,512,512
297.053,-1.90381e-08,0,512,512
297.1,-1.89634e-08,0,512,512
297.159,-1.8872e-08,0,512,512
297.206,-1.88003e-08,0,512,512
297.253,-1.87299e-08,0,512,512
297.311,-1.86434e-08,0,512,512
297.358,-1.85751e-08,0,512,512
297.405,-1.85077e-08,0,512,512
297.452,-1.84408e-08,0,512,512
297.51,-1.83579e-08,0,512,512
297.557,-1.82919e-08,0,512,512
297.604,-1.8226e-08,0,512,512
297.651,-1.81602e-08,0,512,512
297.71,-1.80777e-08,0,512,512
297.756,-1.80113e-08,0,512,512
297.803,-1.79445e-08,0,512,512
297.85,-1.78772e-08,0,512,512
297.909,-1.7792e-08,0,512,512
297.956,-1.77228e-08,0,512,512
298.003,-1.76527e-08,0,512,512
298.061,-1.75634e-08,0,512,512
298.108,-1.74905e-08,0,512,512
298.155,-1.74162e-08,0,512,512
298.202,-1.73403e-08,0,512,512
298.26,-1.72429e-08,0,512,512
298.307,-1.7163e-08,0,512,512
298.354,-1.70809e-08,0,512,512
298.401,-1.69967e-08,0,512,512
298.459,-1.68882e-08,0,512,512
298.506,-1.67986e-08,0,512,512
298.553,-1.67062e-08,0,512,512
298.6,-1.66111e-08,0,512,512
298.659,-1.6488e-08,0,512,512
298.706,-1.6386e-08,0,512,512
298.752,-1.62806e-08,0,512,512
298.811,-1.6144e-08,0,512,512
298.858,-1.60307e-08,0,512,512
298.905,-1.59134e-08,0,512,512
298.952,-1.57922e-08,0,512,512
299.01,-1.56348e-08,0,512,512
299.057,-1.5504e-08,0,512,512
299.104,-1.53686e-08,0,512,512
299.151,-1.52285e-08,0,512,512
299.209,-1.50465e-08,0,512,512
299.256,-1.48951e-08,0,512,512
299.303,-1.47384e-08,0,512,512
299.362,-1.45347e-08,0,512,512
299.409,-1.43653e-08,0,512,512
299.455,-1.41899e-08,0,512,512
299.502,-1.40083e-08,0,512,512
299.561,-1.37723e-08,0,512,512
299.608,-1.3576e-08,0,512,512
299.655,-1.33727e-08,0,512,512
299.701,-1.31623e-08,0,512,512
299.76,-1.28888e-08,0,512,512
299.807,-1.26614e-08,0,512,512
299.854,-1.2426e-08,0,512,512
299.901,-1.21824e-08,0,512,512
299.959,-1.1866e-08,0,512,512
300.006,-1.16031e-08,0,512,512
300.053,-1.13313e-08,0,512,512
300.112,-1.09786e-08,0,512,512
300.158,-1.0686e-08,0,512,512
300.205,-1.0384e-08,0,512,512
300.252,-1.00724e-08,0,512,512
300.311,-9.66954e-09,0,512,512
300.358,-9.33654e-09,0,512,512
300.405,-8.99416e-09,0,512,512
300.451,-8.6426e-09,0,512,512
300.51,-8.19065e-09,0,512,512
300.557,-7.81957e-09,0,512,512
300.604,-7.44054e-09,0,512,512
300.651,-7.05414e-09,0,512,512
300.709,-6.56181e-09,0,512,512
300.756,-6.16145e-09,0,512,512
300.803,-5.75626e-09,0,512,512
300.861,-5.24449e-09,0,512,512
300.908,-4.83213e-09,0,512,512
300.955,-4.41839e-09,0,512,512
301.002,-4.00448e-09,0,512,512
301.061,-3.48875e-09,0,512,512
301.108,-3.07907e-09,0,512,512
301.154,-2.67339e-09,0,512,512
301.201,-2.27303e-09,0,512,512
301.26,-1.78207e-09,0,512,512
301.307,-1.39847e-09,0,512,512
301.354,-1.02436e-09,0,512,512
301.4,-6.60946e-10,0,512,512
301.459,-2.23446e-10,0,512,512
301.506,1.11867e-10,0,512,512
301.553,4.33095e-10,0,512,512
301.611,8.13547e-10,0,512,512
301.658,1.10017e-09,0,512,512
301.705,1.37038e-09,0,512,512
301.752,1.62371e-09,0,512,512
301.811,1.91618e-09,0,512,512
301.857,2.13056e-09,0,512,512
301.904,2.3275e-09,0,512,512
301.951,2.50708e-09,0,512,512
302.01,2.70752e-09,0,512,512
302.057,2.84909e-09,0,512,512
302.103,2.97447e-09,0,512,512
302.15,3.08426e-09,0,512,512
302.209,3.20061e-09,0,512,512
302.256,3.27793e-09,0,512,512
302.303,3.34214e-09,0,512,512
302.361,3.40533e-09,0,512,512
302.408,3.44336e-09,0,512,512
302.455,3.47131e-09,0,512,512
302.502,3.49012e-09,0,512,512
302.56,3.50226e-09,0,512,512
302.607,3.50402e-09,0,512,512
302.654,3.49969e-09,0,512,512
302.701,3.49015e-09,0,512,512
302.76,3.47214e-09,0,512,512
302.807,3.45378e-09,0,512,512
302.853,3.43265e-09,0,512,512
302.9,3.40937e-09,0,512,512
302.959,3.37805e-09,0,512,512
303.006,3.35178e-09,0,512,512
303.053,3.32481e-09,0,512,512
303.111,3.29055e-09,0,512,512
303.158,3.26292e-09,0,512,512
303.205,3.23522e-09,0,512,512
303.252,3.20746e-09,0,512,512
303.31,3.17262e-09,0,512,512
303.357,3.14448e-09,0,512,512
303.404,3.11592e-09,0,512,512
303.451,3.08672e-09,0,512,512
303.51,3.04892e-09,0,512,512
303.556,3.01731e-09,0,512,512
303.603,2.98416e-09,0,512,512
303.65,2.94921e-09,0,512,512
303.709,2.90257e-09,0,512,512
303.756,2.86263e-09,0,512,512
303.802,2.82017e-09,0,512,512
303.861,2.76337e-09,0,512,512
303.908,2.7149e-09,0,512,512
303.955,2.66377e-09,0,512,512
304.002,2.61007e-09,0,512,512
304.06,2.53962e-09,0,512,512
304.107,2.48092e-09,0,512,512
304.154,2.4205e-09,0,512,512
304.201,2.35874e-09,0,512,512
304.259,2.28035e-09,0,512,512
304.306,2.21729e-09,0,512,512
304.353,2.15449e-09,0,512,512
304.4,2.09249e-09,0,512,512
304.459,2.01696e-09,0,512,512
304.505,1.95878e-09,0,512,512
304.552,1.90317e-09,0,512,512
304.611,1.83804e-09,0,512,512
304.658,1.78999e-09,0,512,512
304.705,1.746e-09,0,512,512
304.752,1.7064e-09,0,512,512
304.81,1.66355e-09,0,512,512
304.857,1.63483e-09,0,512,512
304.904,1.61123e-09,0,512,512
304.951,1.59282e-09,0,512,512
