250,0,0,8192,8192
250.003,0,0,8192,8192
250.053,0,0,8192,8192
250.103,0,0,8192,8192
250.152,0,0,8192,8192
250.202,2.77556e-17,0,8192,8192
250.252,0,0,8192,8192
250.302,0,0,8192,8192
250.352,-2.77556e-17,0,8192,8192
250.401,-2.77556e-17,0,8192,8192
250.451,-2.77556e-17,0,8192,8192
250.501,-2.77556e-17,0,8192,8192
250.551,-2.77556e-17,0,8192,8192
250.6,-2.77556e-17,0,8192,8192
250.65,-2.77556e-17,0,8192,8192
250.7,-2.77556e-17,0,8192,8192
250.753,-2.77556e-17,0,8192,8192
250.803,-2.77556e-17,0,8192,8192
250.852,-2.77556e-17,0,8192,8192
250.902,-2.77556e-17,0,8192,8192
250.952,-2.77556e-17,0,8192,8192
251.002,-2.77556e-17,0,8192,8192
251.052,-2.77556e-17,0,8192,8192
251.101,-2.77556e-17,0,8192,8192
251.151,-2.77556e-17,0,8192,8192
251.201,-2.77556e-17,0,8192,8192
251.251,-2.77556e-17,0,8192,8192
251.301,-2.77556e-17,0,8192,8192
251.35,-2.77556e-17,0,8192,8192
251.4,-2.77556e-17,0,8192,8192
251.453,-2.77556e-17,0,8192,8192
251.503,-2.77556e-17,0,8192,8192
251.553,0,0,8192,8192
251.602,2.77556e-17,0,8192,8192
251.652,2.77556e-17,0,8192,8192
251.702,5.55112e-17,0,8192,8192
251.752,5.55112e-17,0,8192,8192
251.801,0,0,8192,8192
251.851,0,0,8192,8192
251.901,0,0,8192,8192
251.951,0,0,8192,8192
252.001,0,0,8192,8192
252.05,0,0,8192,8192
252.1,0,0,8192,8192
252.15,2.77556e-17,0,8192,8192
252.203,2.77556e-17,0,8192,8192
252.253,-2.77556e-17,0,8192,8192
252.302,-2.77556e-17,0,8192,8192
252.352,-2.77556e-17,0,8192,8192
252.402,-2.77556e-17,0,8192,8192
252.452,-2.77556e-17,0,8192,8192
252.502,-2.77556e-17,0,8192,8192
252.551,-2.77556e-17,0,8192,8192
252.601,-2.77556e-17,0,8192,8192
252.651,-2.77556e-17,0,8192,8192
252.701,-2.77556e-17,0,8192,8192
252.751,-2.77556e-17,0,8192,8192
252.8,-2.77556e-17,0,8192,8192
252.85,-2.77556e-17,0,8192,8192
252.903,-2.77556e-17,0,8192,8192
252.953,-2.77556e-17,0,8192,8192
253.002,-2.77556e-17,0,8192,8192
253.052,2.77556e-17,0,8192,8192
253.102,0,0,8192,8192
253.152,2.77556e-17,0,8192,8192
253.202,2.77556e-17,0,8192,8192
253.251,2.77556e-17,0,8192,8192
253.301,2.77556e-17,0,8192,8192
253.351,2.77556e-17,0,8192,8192
253.401,2.77556e-17,0,8192,8192
253.451,2.77556e-17,0,8192,8192
253.5,2.77556e-17,0,8192,8192
253.55,2.77556e-17,0,8192,8192
253.6,2.77556e-17,0,8192,8192
253.653,2.77556e-17,0,8192,8192
253.703,2.77556e-17,0,8192,8192
253.752,5.55112e-17,0,8192,8192
253.802,5.55112e-17,0,8192,8192
253.852,5.55112e-17,0,8192,8192
253.902,5.55112e-17,0,8192,8192
253.952,2.77556e-17,0,8192,8192
254.001,2.77556e-17,0,8192,8192
254.051,5.55112e-17,0,8192,8192
254.101,5.55112e-17,0,8192,8192
254.151,5.55112e-17,0,8192,8192
254.201,5.55112e-17,0,8192,8192
254.25,2.77556e-17,0,8192,8192
254.3,2.77556e-17,0,8192,8192
254.353,2.77556e-17,0,8192,8192
254.403,2.77556e-17,0,8192,8192
254.452,2.77556e-17,0,8192,8192
254.502,2.77556e-17,0,8192,8192
254.552,2.77556e-17,0,8192,8192
254.602,2.77556e-17,0,8192,8192
254.652,0,0,8192,8192
254.701,2.77556e-17,0,8192,8192
254.751,0,0,8192,8192
254.801,0,0,8192,8192
254.851,0,0,8192,8192
254.901,0,0,8192,8192
254.95,0,0,8192,8192
255,0,0,8192,8192
255.05,0,0,8192,8192
255.103,0,0,8192,8192
255.153,2.77556e-17,0,8192,8192
255.202,2.77556e-17,0,8192,8192
255.252,2.77556e-17,0,8192,8192
255.302,2.77556e-17,0,8192,8192
255.352,2.77556e-17,0,8192,8192
255.402,2.77556e-17,0,8192,8192
255.451,2.77556e-17,0,8192,8192
255.501,2.77556e-17,0,8192,8192
255.551,2.77556e-17,0,8192,8192
255.601,0,0,8192,8192
255.651,2.77556e-17,0,8192,8192
255.7,0,0,8192,8192
255.75,2.77556e-17,0,8192,8192
255.803,0,0,8192,8192
255.853,0,0,8192,8192
255.902,2.77556e-17,0,8192,8192
255.952,2.77556e-17,0,8192,8192
256.002,0,0,8192,8192
256.052,0,0,8192,8192
256.102,0,0,8192,8192
256.151,0,0,8192,8192
256.201,0,0,8192,8192
256.251,0,0,8192,8192
256.301,2.77556e-17,0,8192,8192
256.351,0,0,8192,8192
256.4,5.55112e-17,0,8192,8192
256.45,5.55112e-17,0,8192,8192
256.5,5.55112e-17,0,8192,8192
256.553,2.77556e-17,0,8192,8192
256.603,2.77556e-17,0,8192,8192
256.652,2.77556e-17,0,8192,8192
256.702,2.77556e-17,0,8192,8192
256.752,2.77556e-17,0,8192,8192
256.802,2.77556e-17,0,8192,8192
256.852,-2.77556e-17,0,8192,8192
256.901,-2.77556e-17,0,8192,8192
256.951,-2.77556e-17,0,8192,8192
257.001,-5.55112e-17,0,8192,8192
257.051,-5.55112e-17,0,8192,8192
257.101,-5.55112e-17,0,8192,8192
257.15,-2.77556e-17,0,8192,8192
257.2,-2.77556e-17,0,8192,8192
257.253,-2.77556e-17,0,8192,8192
257.303,-2.77556e-17,0,8192,8192
257.352,-2.77556e-17,0,8192,8192
257.402,-2.77556e-17,0,8192,8192
257.452,-2.77556e-17,0,8192,8192
257.502,-2.77556e-17,0,8192,8192
257.552,-2.77556e-17,0,8192,8192
257.601,-2.77556e-17,0,8192,8192
257.651,-2.77556e-17,0,8192,8192
257.701,-2.77556e-17,0,8192,8192
257.751,-2.77556e-17,0,8192,8192
257.801,-2.77556e-17,0,8192,8192
257.85,-2.77556e-17,0,8192,8192
257.9,-2.77556e-17,0,8192,8192
257.95,-2.77556e-17,0,8192,8192
258.003,-2.77556e-17,0,8192,8192
258.053,-2.77556e-17,0,8192,8192
258.102,-2.77556e-17,0,8192,8192
258.152,-2.77556e-17,0,8192,8192
258.202,-2.77556e-17,0,8192,8192
258.252,-2.77556e-17,0,8192,8192
258.302,-2.77556e-17,0,8192,8192
258.351,-2.77556e-17,0,8192,8192
258.401,-2.77556e-17,0,8192,8192
258.451,-2.77556e-17,0,8192,8192
258.501,-2.77556e-17,0,8192,8192
258.551,-2.77556e-17,0,8192,8192
258.6,-2.77556e-17,0,8192,8192
258.65,-2.77556e-17,0,8192,8192
258.703,-2.77556e-17,0,8192,8192
258.753,-2.77556e-17,0,8192,8192
258.802,-2.77556e-17,0,8192,8192
258.852,-2.77556e-17,0,8192,8192
258.902,-2.77556e-17,0,8192,8192
258.952,-2.77556e-17,0,8192,8192
259.002,-2.77556e-17,0,8192,8192
259.051,-2.77556e-17,0,8192,8192
259.101,-2.77556e-17,0,8192,8192
259.151,-2.77556e-17,0,8192,8192
259.201,-2.77556e-17,0,8192,8192
259.251,2.77556e-17,0,8192,8192
259.3,5.55112e-17,0,8192,8192
259.35,5.55112e-17,0,8192,8192
259.403,5.55112e-17,0,8192,8192
259.453,5.55112e-17,0,8192,8192
259.503,5.55112e-17,0,8192,8192
259.552,5.55112e-17,0,8192,8192
259.602,5.55112e-17,0,8192,8192
259.652,5.55112e-17,0,8192,8192
259.702,5.55112e-17,0,8192,8192
259.751,5.55112e-17,0,8192,8192
259.801,5.55112e-17,0,8192,8192
259.851,5.55112e-17,0,8192,8192
259.901,5.55112e-17,0,8192,8192
259.951,5.55112e-17,0,8192,8192
260,2.77556e-17,0,8192,8192
260.05,2.77556e-17,0,8192,8192
260.1,2.77556e-17,0,8192,8192
260.153,2.77556e-17,0,8192,8192
260.203,2.77556e-17,0,8192,8192
260.252,5.55112e-17,0,8192,8192
260.302,5.55112e-17,0,8192,8192
260.352,2.77556e-17,0,8192,8192
260.402,5.55112e-17,0,8192,8192
260.452,5.55112e-17,0,8192,8192
260.501,5.55112e-17,0,8192,8192
260.551,5.55112e-17,0,8192,8192
260.601,5.55112e-17,0,8192,8192
260.651,5.55112e-17,0,8192,8192
260.701,5.55112e-17,0,8192,8192
260.75,5.55112e-17,0,8192,8192
260.8,5.55112e-17,0,8192,8192
260.853,2.77556e-17,0,8192,8192
260.903,2.77556e-17,0,8192,8192
260.952,5.55112e-17,0,8192,8192
261.002,5.55112e-17,0,8192,8192
261.052,5.55112e-17,0,8192,8192
261.102,2.77556e-17,0,8192,8192
261.152,2.77556e-17,0,8192,8192
261.201,2.77556e-17,0,8192,8192
261.251,2.77556e-17,0,8192,8192
261.301,2.77556e-17,0,8192,8192
261.351,2.77556e-17,0,8192,8192
261.401,2.77556e-17,0,8192,8192
261.45,2.77556e-17,0,8192,8192
261.5,2.77556e-17,0,8192,8192
261.55,2.77556e-17,0,8192,8192
261.603,2.77556e-17,0,8192,8192
261.653,2.77556e-17,0,8192,8192
261.702,2.77556e-17,0,8192,8192
261.752,2.77556e-17,0,8192,8192
261.802,2.77556e-17,0,8192,8192
261.852,2.77556e-17,0,8192,8192
261.902,2.77556e-17,0,8192,8192
261.951,2.77556e-17,0,8192,8192
262.001,2.77556e-17,0,8192,8192
262.051,2.77556e-17,0,8192,8192
262.101,2.77556e-17,0,8192,8192
262.151,0,0,8192,8192
262.2,0,0,8192,8192
262.25,0,0,8192,8192
262.303,-2.77556e-17,0,8192,8192
262.353,-2.77556e-17,0,8192,8192
262.402,-2.77556e-17,0,8192,8192
262.452,-2.77556e-17,0,8192,8192
262.502,-2.77556e-17,0,8192,8192
262.552,-2.77556e-17,0,8192,8192
262.602,2.77556e-17,0,8192,8192
262.651,2.77556e-17,0,8192,8192
262.701,2.77556e-17,0,8192,8192
262.751,2.77556e-17,0,8192,8192
262.801,2.77556e-17,0,8192,8192
262.851,2.77556e-17,0,8192,8192
262.9,2.77556e-17,0,8192,8192
262.95,0,0,8192,8192
263,0,0,8192,8192
263.053,0,0,8192,8192
263.103,2.77556e-17,0,8192,8192
263.152,2.77556e-17,0,8192,8192
263.202,2.77556e-17,0,8192,8192
263.252,0,0,8192,8192
263.302,0,0,8192,8192
263.352,2.77556e-17,0,8192,8192
263.401,2.77556e-17,0,8192,8192
263.451,0,0,8192,8192
263.501,0,0,8192,8192
263.551,2.77556e-17,0,8192,8192
263.601,2.77556e-17,0,8192,8192
263.65,0,0,8192,8192
263.7,0,0,8192,8192
263.753,2.77556e-17,0,8192,8192
263.803,0,0,8192,8192
263.852,0,0,8192,8192
263.902,0,0,8192,8192
263.952,0,0,8192,8192
264.002,-2.77556e-17,0,8192,8192
264.052,-2.77556e-17,0,8192,8192
264.101,-8.32667e-17,0,8192,8192
264.151,-8.32667e-17,0,8192,8192
264.201,-8.32667e-17,0,8192,8192
264.251,-8.32667e-17,0,8192,8192
264.301,-8.32667e-17,0,8192,8192
264.35,-8.32667e-17,0,8192,8192
264.4,-8.32667e-17,0,8192,8192
264.45,-5.55112e-17,0,8192,8192
264.503,-2.77556e-17,0,8192,8192
264.553,-2.77556e-17,0,8192,8192
264.602,-2.77556e-17,0,8192,8192
264.652,-2.77556e-17,0,8192,8192
264.702,-2.77556e-17,0,8192,8192
264.752,-2.77556e-17,0,8192,8192
264.802,-2.77556e-17,0,8192,8192
264.851,-2.77556e-17,0,8192,8192
264.901,-2.77556e-17,0,8192,8192
264.951,-5.55112e-17,0,8192,8192
265.001,-2.77556e-17,0,8192,8192
265.051,-5.55112e-17,0,8192,8192
265.1,-5.55112e-17,0,8192,8192
265.15,-5.55112e-17,0,8192,8192
265.203,-5.55112e-17,0,8192,8192
265.253,-5.55112e-17,0,8192,8192
265.302,-2.77556e-17,0,8192,8192
265.352,-5.55112e-17,0,8192,8192
265.402,-2.77556e-17,0,8192,8192
265.452,-5.55112e-17,0,8192,8192
265.502,-5.55112e-17,0,8192,8192
265.551,-2.77556e-17,0,8192,8192
265.601,0,0,8192,8192
265.651,0,0,8192,8192
265.701,0,0,8192,8192
265.751,0,0,8192,8192
265.8,0,0,8192,8192
265.85,0,0,8192,8192
265.9,0,0,8192,8192
265.953,0,0,8192,8192
266.003,0,0,8192,8192
266.052,0,0,8192,8192
266.102,0,0,8192,8192
266.152,2.77556e-17,0,8192,8192
266.202,0,0,8192,8192
266.252,0,0,8192,8192
266.301,0,0,8192,8192
266.351,0,0,8192,8192
266.401,-2.77556e-17,0,8192,8192
266.451,-2.77556e-17,0,8192,8192
266.501,0,0,8192,8192
266.55,0,0,8192,8192
266.6,0,0,8192,8192
266.653,0,0,8192,8192
266.703,0,0,8192,8192
266.752,0,0,8192,8192
266.802,0,0,8192,8192
266.852,0,0,8192,8192
266.902,0,0,8192,8192
266.952,0,0,8192,8192
267.001,0,0,8192,8192
267.051,0,0,8192,8192
267.101,-2.77556e-17,0,8192,8192
267.151,-2.77556e-17,0,8192,8192
267.201,0,0,8192,8192
267.25,0,0,8192,8192
267.3,0,0,8192,8192
267.353,0,0,8192,8192
267.403,0,0,8192,8192
267.453,0,0,8192,8192
267.502,2.77556e-17,0,8192,8192
267.552,2.77556e-17,0,8192,8192
267.602,0,0,8192,8192
267.652,0,0,8192,8192
267.702,0,0,8192,8192
267.751,0,0,8192,8192
267.801,0,0,8192,8192
267.851,0,0,8192,8192
267.901,0,0,8192,8192
267.95,2.77556e-17,0,8192,8192
268,0,0,8192,8192
268.05,0,0,8192,8192
268.1,0,0,8460,8460
268.15,0,0,8652,8652
268.2,0,0,8844,8844
268.251,0,0,9036,9036
268.301,0,0,9228,9228
268.351,0,0,9420,9420
268.401,0,0,9612,9612
268.451,0,0,9780,9780
268.5,0,0,9972,9972
268.55,0,0,10140,10140
268.601,0,0,10332,10332
268.651,0,0,10524,10524
268.701,0,0,10692,10692
268.751,0,0,10884,10884
268.801,0,0,11052,11052
268.85,0,0,11244,11244
268.9,0,0,11412,11412
268.951,0,0,11604,11604
269.001,0,0,11772,11772
269.051,0,0,11964,11964
269.101,0,0,12132,12132
269.151,0,0,12300,12300
269.2,0,0,12492,12492
269.25,0,0,12660,12660
269.3,0,0,12828,12828
269.351,0,0,13020,13020
269.401,0,0,13188,13188
269.451,0,0,13380,13380
269.501,0,0,13548,13548
269.55,0,0,13716,13716
269.6,0,0,13908,13908
269.65,0,0,14076,14076
269.701,0,0,14244,14244
269.751,0,0,14436,14436
269.801,0,0,14604,14604
269.851,0,0,14772,14772
269.901,0,0,14940,14940
269.95,0,0,15108,15108
270,0,0,15276,15276
270.051,0,0,15468,15468
270.101,0,0,15636,15636
270.151,0,0,15804,15804
270.201,0,0,15972,15972
270.251,0,0,16140,16140
270.3,0,0,16308,16308
270.35,0,0,16476,16476
270.401,0,0,16644,16644
270.451,0,0,16812,16812
270.501,0,0,16956,16956
270.551,0,0,17124,17124
270.601,0,0,17292,17292
270.65,0,0,17460,17460
270.7,0,0,17604,17604
270.75,0,0,17772,17772
270.801,0,0,17940,17940
270.851,0,0,18108,18108
270.901,0,0,18252,18252
270.951,0,0,18420,18420
271,0,0,18564,18564
271.05,0,0,18732,18732
271.1,0,0,18900,18900
271.151,0,0,19044,19044
271.201,0,0,19212,19212
271.251,0,0,19356,19356
271.301,0,0,19524,19524
271.35,0,0,19668,19668
271.4,0,0,19812,19812
271.45,0,0,19980,19980
271.501,0,0,20124,20124
271.551,0,0,20268,20268
271.601,0,0,20412,20412
271.651,0,0,20580,20580
271.701,0,0,20724,20724
271.75,0,0,20868,20868
271.8,0,0,21012,21012
271.851,0,0,21156,21156
271.901,0,0,21300,21300
271.951,0,0,21444,21444
272.001,0,0,21588,21588
272.051,0,0,21708,21708
272.1,0,0,21780,21780
272.15,0,0,21924,21924
272.201,0,0,22068,22068
272.251,0,0,22236,22236
272.301,3.05311e-16,0,22380,22380
272.351,1.22125e-15,0,22524,22524
272.401,2.08167e-15,0,22668,22668
272.45,2.96985e-15,0,22812,22812
272.5,3.88578e-15,0,22956,22956
272.55,4.77396e-15,0,23100,23100
272.601,6.30052e-15,0,23244,23244
272.651,1.06304e-14,0,23388,23388
272.701,2.12885e-14,0,23532,23532
272.751,2.9643e-14,0,23676,23676
272.8,-2.45359e-14,0,23820,23820
272.85,-8.12045e-13,0,23964,23964
272.9,-9.25895e-12,0,24084,24084
272.951,-4.94199e-11,0,24228,24228
273.001,-1.4879e-10,0,24372,24372
273.051,-2.91269e-10,0,24516,24516
273.101,-3.82747e-10,0,24660,24660
273.151,-3.2501e-10,0,24804,24804
273.2,-1.22937e-10,0,24924,24924
273.25,1.08603e-10,0,25068,25068
273.301,2.3689e-10,0,25212,25212
273.351,1.99218e-10,0,25356,25356
273.401,6.41356e-11,0,25500,25500
273.451,-3.99208e-11,0,25620,25620
273.501,-2.24161e-11,0,25764,25764
273.55,9.53018e-11,0,25908,25908
273.6,2.04324e-10,0,26028,26028
273.651,2.08828e-10,0,26172,26172
273.701,1.14773e-10,0,26316,26316
273.751,1.72202e-11,0,26436,26436
273.801,4.16062e-12,0,26580,26580
273.851,8.17102e-11,0,26724,26724
273.9,1.78458e-10,0,26844,26844
273.95,2.15086e-10,0,26988,26988
274.001,1.66249e-10,0,27132,27132
274.051,7.79454e-11,0,27252,27252
274.101,1.72658e-11,0,27396,27396
274.151,3.05362e-11,0,27516,27516
274.201,1.16598e-10,0,27660,27660
274.25,2.21326e-10,0,27804,27804
274.3,2.58579e-10,0,27924,27924
274.35,1.68991e-10,0,28068,28068
274.401,-1.03953e-11,0,28188,28188
274.451,-1.08373e-10,0,28332,28332
274.501,2.07857e-11,0,28452,28452
274.551,3.2844e-10,0,28596,28596
274.6,5.12396e-10,0,28716,28716
274.65,2.62868e-10,0,28860,28860
274.7,-3.11225e-10,0,28980,28980
274.751,-4.65468e-10,0,29124,29124
274.801,8.61802e-10,0,29244,29244
274.851,4.28111e-09,0,29388,29388
274.901,9.55222e-09,0,29508,29508
274.951,1.56978e-08,0,29652,29652
275,2.15566e-08,0,29772,29772
275.05,2.63222e-08,0,29892,29892
275.101,2.99211e-08,0,30036,30036
275.151,3.272e-08,0,30156,30156
275.201,3.59593e-08,0,30300,30300
275.251,4.08818e-08,0,30420,30420
275.301,4.83093e-08,0,30540,30540
275.35,5.83818e-08,0,30684,30684
275.4,7.08428e-08,0,30804,30804
275.451,8.61272e-08,0,30948,30948
275.501,1.03982e-07,0,31068,31068
275.551,1.25976e-07,0,31188,31188
275.601,1.53394e-07,0,31308,31308
275.651,1.87161e-07,0,31428,31428
275.7,2.27465e-07,0,31524,31524
275.75,2.73523e-07,0,31644,31644
275.8,3.2374e-07,0,31764,31764
275.851,3.78019e-07,0,31860,31860
275.901,4.32456e-07,0,31980,31980
275.951,4.88997e-07,0,32076,32076
276.001,5.48411e-07,0,32172,32172
276.05,6.10395e-07,0,32268,32268
276.1,6.728e-07,0,32364,32364
276.15,7.32135e-07,0,32460,32460
276.201,7.86229e-07,0,32556,32556
276.251,8.29334e-07,0,32652,32652
276.301,8.61988e-07,0,32768,32768
276.351,8.84561e-07,0,32768,32768
276.401,8.98602e-07,0,32768,32768
276.45,9.06176e-07,0,32768,32768
276.5,9.09067e-07,0,32768,32768
276.551,9.0818e-07,0,32768,32768
276.601,9.03682e-07,0,32768,32768
276.651,8.95059e-07,0,32768,32768
276.701,8.81381e-07,0,32768,32768
276.751,8.6157e-07,0,32768,32768
276.8,8.34625e-07,0,32768,32768
276.85,7.99909e-07,0,32768,32768
276.901,7.56144e-07,0,32768,32768
276.951,7.0701e-07,0,32768,32768
277.001,6.53567e-07,0,32768,32768
277.051,5.98527e-07,0,32768,32768
277.101,5.44362e-07,0,32768,32768
277.15,4.92804e-07,0,32768,32768
277.2,4.44749e-07,0,32768,32768
277.25,4.00403e-07,0,32768,32768
277.301,3.58332e-07,0,32768,32768
277.351,3.2038e-07,0,32768,32768
277.401,2.84719e-07,0,32768,32768
277.451,2.50977e-07,0,32768,32768
277.5,2.19249e-07,0,32768,32768
277.55,1.90259e-07,0,32768,32768
277.6,1.65125e-07,0,32768,32768
277.651,1.44083e-07,0,32768,32768
277.701,1.27931e-07,0,32768,32768
277.751,1.14355e-07,0,32768,32768
277.801,1.01419e-07,0,32768,32768
277.851,8.8109e-08,0,32768,32768
277.9,7.48189e-08,0,32768,32768
277.95,6.27852e-08,0,32768,32768
278.001,5.28429e-08,0,32768,32768
278.051,4.58361e-08,0,32768,32768
278.101,4.08634e-08,0,32768,32768
278.151,3.6825e-08,0,32768,32768
278.201,3.2552e-08,0,32768,32768
278.25,2.73317e-08,0,32768,32768
278.3,2.13155e-08,0,32768,32768
278.351,1.53014e-08,0,32768,32768
278.401,1.08026e-08,0,32768,32768
278.451,8.2213e-09,0,32768,32768
278.501,7.32231e-09,0,32768,32768
278.551,7.38145e-09,0,32768,32768
278.6,7.71691e-09,0,32768,32768
278.65,7.98519e-09,0,32768,32768
278.701,8.14378e-09,0,32768,32768
278.751,8.24861e-09,0,32768,32768
278.801,8.33796e-09,0,32768,32768
278.851,8.37259e-09,0,32768,32768
278.901,8.26983e-09,0,32768,32768
278.95,7.99389e-09,0,32768,32768
279,7.63448e-09,0,32768,32768
279.05,7.34128e-09,0,32768,32768
279.101,7.18265e-09,0,32768,32768
279.151,7.13517e-09,0,32768,32768
279.201,7.13539e-09,0,32768,32768
279.251,7.15008e-09,0,32768,32768
279.3,7.16781e-09,0,32768,32768
279.35,7.18596e-09,0,32768,32768
279.4,7.20414e-09,0,32768,32768
279.451,7.22288e-09,0,32768,32768
279.501,7.24115e-09,0,32768,32768
279.551,7.25947e-09,0,32768,32768
279.601,7.27775e-09,0,32768,32768
279.651,7.29593e-09,0,32768,32768
279.7,7.31402e-09,0,32768,32768
279.75,7.33212e-09,0,32768,32768
279.801,7.35087e-09,0,32768,32768
279.851,7.36922e-09,0,32768,32768
279.901,7.38765e-09,0,32768,32768
279.951,7.40627e-09,0,32768,32768
280.001,7.42572e-09,0,32768,32768
280.05,7.44736e-09,0,32768,32768
280.1,7.47296e-09,0,32768,32768
280.151,7.50519e-09,0,32768,32768
280.201,7.54373e-09,0,32768,32768
280.251,7.59182e-09,0,32768,32768
280.301,7.65475e-09,0,32768,32768
280.351,7.74181e-09,0,32768,32768
280.4,7.86472e-09,0,32768,32768
280.45,8.0332e-09,0,32768,32768
280.5,8.25009e-09,0,32768,32768
280.551,8.51822e-09,0,32768,32768
280.601,8.81271e-09,0,32768,32768
280.651,9.1355e-09,0,32768,32768
280.701,9.49221e-09,0,32768,32768
280.75,9.90017e-09,0,32768,32768
280.8,1.03835e-08,0,32768,32768
280.85,1.09664e-08,0,32768,32768
280.901,1.16921e-08,0,32768,32768
280.951,1.25377e-08,0,32768,32768
281.001,1.35411e-08,0,32768,32768
281.051,1.47248e-08,0,32768,32768
281.101,1.61115e-08,0,32768,32768
281.15,1.77205e-08,0,32768,32768
281.2,1.95646e-08,0,32768,32768
281.251,2.17158e-08,0,32768,32768
281.301,2.4056e-08,0,32768,32768
281.351,2.66473e-08,0,32768,32768
281.401,2.94915e-08,0,32768,32768
281.451,3.2583e-08,0,32768,32768
281.5,3.59043e-08,0,32768,32768
281.55,3.94254e-08,0,32768,32768
281.601,4.32206e-08,0,32768,32768
281.651,4.70384e-08,0,32768,32768
281.701,5.09598e-08,0,32768,32768
281.751,5.49669e-08,0,32768,32768
281.801,5.90445e-08,0,32768,32768
281.85,6.31788e-08,0,32768,32768
281.9,6.73715e-08,0,32768,32768
281.95,7.16656e-08,0,32768,32768
282.001,7.63062e-08,0,32768,32768
282.051,8.12004e-08,0,32768,32768
282.101,8.66574e-08,0,32768,32768
282.151,9.27918e-08,0,32768,32768
282.2,9.95841e-08,0,32768,32768
282.25,1.06862e-07,0,32768,32768
282.3,1.14351e-07,0,32768,32768
282.351,1.22004e-07,0,32768,32768
282.401,1.29241e-07,0,32768,32768
282.451,1.36354e-07,0,32768,32768
282.501,1.43623e-07,0,32768,32768
282.55,1.5148e-07,0,32768,32768
282.6,1.60414e-07,0,32768,32768
282.65,1.70901e-07,0,32768,32768
282.701,1.8378e-07,0,32768,32768
282.751,1.98751e-07,0,32768,32768
282.801,2.166e-07,0,32768,32768
282.851,2.37807e-07,0,32768,32768
282.901,2.62836e-07,0,32768,32768
282.95,2.92028e-07,0,32768,32768
283,3.25501e-07,0,32768,32768
283.051,3.64251e-07,0,32768,32768
283.101,4.05627e-07,0,32768,32768
283.151,4.50079e-07,0,32768,32768
283.201,4.96943e-07,0,32768,32768
283.251,5.45528e-07,0,32768,32768
283.3,5.95062e-07,0,32768,32768
283.35,6.4457e-07,0,32768,32768
283.401,6.94161e-07,0,32768,32768
283.451,7.39397e-07,0,32768,32768
283.501,7.80023e-07,0,32768,32768
283.551,8.14479e-07,0,32768,32768
283.601,8.41606e-07,0,32768,32768
283.65,8.60833e-07,0,32768,32768
283.7,8.72198e-07,0,32768,32768
283.75,8.76224e-07,0,32768,32768
283.801,8.73521e-07,0,32768,32768
283.851,8.65037e-07,0,32768,32768
283.901,8.51355e-07,0,32768,32768
283.951,8.32739e-07,0,32768,32768
284,8.09159e-07,0,32768,32768
284.05,7.80393e-07,0,32768,32768
284.1,7.46195e-07,0,32768,32768
284.151,7.05232e-07,0,32768,32768
284.201,6.60096e-07,0,32768,32768
284.251,6.1037e-07,0,32768,32768
284.301,5.57141e-07,0,32768,32768
284.351,5.01806e-07,0,32768,32768
284.4,4.45884e-07,0,32768,32768
284.45,3.90812e-07,0,32768,32768
284.501,3.36243e-07,0,32768,32768
284.551,2.86128e-07,0,32768,32768
284.601,2.39315e-07,0,32768,32768
284.651,1.95956e-07,0,32768,32768
284.701,1.56035e-07,0,32768,32768
284.75,1.19493e-07,0,32768,32768
284.8,8.63218e-08,0,32768,32768
284.851,5.57636e-08,0,32768,32768
284.901,2.96475e-08,0,32768,32768
284.951,7.04611e-09,0,32768,32768
285.001,-1.2215e-08,0,32768,32768
285.051,-2.84968e-08,0,32768,32768
285.1,-4.22695e-08,0,32768,32768
285.15,-5.39798e-08,0,32768,32768
285.2,-6.39324e-08,0,32768,32768
285.251,-7.24729e-08,0,32768,32768
285.301,-7.91196e-08,0,32768,32768
285.351,-8.41463e-08,0,32768,32768
285.401,-8.76614e-08,0,32768,32768
285.45,-8.99055e-08,0,32768,32768
285.5,-9.11959e-08,0,32768,32768
285.55,-9.18219e-08,0,32768,32768
285.601,-9.19456e-08,0,32768,32768
285.651,-9.15647e-08,0,32768,32768
285.701,-9.05778e-08,0,32768,32768
285.751,-8.88512e-08,0,32768,32768
285.801,-8.6322e-08,0,32768,32768
285.85,-8.30456e-08,0,32768,32768
285.9,-7.91847e-08,0,32768,32768
285.951,-7.48312e-08,0,32768,32768
286.001,-7.0457e-08,0,32768,32768
286.051,-6.61189e-08,0,32768,32768
286.101,-6.19416e-08,0,32768,32768
286.151,-5.80041e-08,0,32768,32768
286.2,-5.43509e-08,0,32768,32768
286.25,-5.10012e-08,0,32768,32768
286.301,-4.78691e-08,0,32768,32768
286.351,-4.51186e-08,0,32768,32768
286.401,-4.26349e-08,0,32768,32768
286.451,-4.03986e-08,0,32768,32768
286.501,-3.83954e-08,0,32768,32768
286.55,-3.66167e-08,0,32768,32768
286.6,-3.50568e-08,0,32768,32768
286.651,-3.36725e-08,0,32768,32768
286.701,-3.25332e-08,0,32768,32768
286.751,-3.15839e-08,0,32768,32768
286.801,-3.08097e-08,0,32768,32768
286.851,-3.01945e-08,0,32768,32768
286.9,-2.97216e-08,0,32768,32768
286.95,-2.93741e-08,0,32768,32768
287,-2.91355e-08,0,32768,32768
287.051,-2.89867e-08,0,32768,32768
287.101,-2.89215e-08,0,32768,32768
287.151,-2.89211e-08,0,32768,32768
287.201,-2.89743e-08,0,32768,32768
287.25,-2.90712e-08,0,32768,32768
287.3,-2.92034e-08,0,32768,32768
287.35,-2.93631e-08,0,32768,32768
287.401,-2.95486e-08,0,32768,32768
287.451,-2.97427e-08,0,32768,32768
287.501,-2.99445e-08,0,32768,32768
287.551,-3.01492e-08,0,32768,32768
287.601,-3.0353e-08,0,32768,32768
287.65,-3.05528e-08,0,32768,32768
287.7,-3.0746e-08,0,32768,32768
287.751,-3.09356e-08,0,32768,32768
287.801,-3.1108e-08,0,32768,32768
287.851,-3.12663e-08,0,32768,32768
287.901,-3.14078e-08,0,32768,32768
287.951,-3.15304e-08,0,32768,32768
288,-3.16324e-08,0,32768,32768
288.05,-3.1713e-08,0,32768,32768
288.101,-3.17734e-08,0,32768,32768
288.151,-3.18107e-08,0,32768,32768
288.201,-3.18277e-08,0,32768,32768
288.251,-3.1826e-08,0,32768,32768
288.301,-3.18069e-08,0,32768,32768
288.35,-3.17721e-08,0,32768,32768
288.4,-3.17231e-08,0,32768,32768
288.45,-3.16616e-08,0,32768,32768
288.501,-3.15868e-08,0,32768,32768
288.551,-3.15043e-08,0,32768,32768
288.601,-3.14136e-08,0,32768,32768
288.651,-3.13158e-08,0,32768,32768
288.7,-3.1212e-08,0,32768,32768
288.75,-3.11031e-08,0,32768,32768
288.8,-3.09898e-08,0,32768,32768
288.851,-3.08694e-08,0,32768,32768
288.901,-3.07492e-08,0,32768,32768
288.951,-3.06266e-08,0,32768,32768
289.001,-3.0502e-08,0,32768,32768
289.051,-3.03759e-08,0,32768,32768
289.1,-3.02489e-08,0,32768,32768
289.15,-3.0121e-08,0,32768,32768
289.201,-2.99884e-08,0,32768,32768
289.251,-2.98585e-08,0,32768,32768
289.301,-2.97267e-08,0,32768,32768
289.351,-2.9592e-08,0,32768,32768
289.401,-2.94528e-08,0,32768,32768
289.45,-2.93076e-08,0,32768,32768
289.5,-2.9154e-08,0,32768,32768
289.551,-2.89847e-08,0,32768,32768
289.601,-2.88063e-08,0,32768,32768
289.651,-2.86112e-08,0,32768,32768
289.701,-2.83963e-08,0,32768,32768
289.751,-2.81586e-08,0,32768,32768
289.8,-2.78955e-08,0,32768,32768
289.85,-2.76049e-08,0,32768,32768
289.901,-2.72756e-08,0,32768,32768
289.951,-2.69256e-08,0,32768,32768
290.001,-2.65465e-08,0,32768,32768
290.051,-2.61396e-08,0,32768,32768
290.101,-2.57078e-08,0,32768,32768
290.15,-2.52551e-08,0,32768,32768
290.2,-2.47867e-08,0,32768,32768
290.25,-2.4309e-08,0,32768,32768
290.301,-2.3815e-08,0,32768,32768
290.351,-2.33406e-08,0,32768,32768
290.401,-2.2879e-08,0,32768,32768
290.451,-2.24373e-08,0,32768,32768
290.5,-2.20218e-08,0,32768,32768
290.55,-2.1638e-08,0,32768,32768
290.6,-2.12908e-08,0,32768,32768
290.651,-2.09757e-08,0,32768,32768
290.701,-2.07143e-08,0,32768,32768
290.751,-2.04994e-08,0,32768,32768
290.801,-2.03329e-08,0,32768,32768
290.851,-2.02157e-08,0,32768,32768
290.9,-2.01478e-08,0,32768,32768
290.95,-2.0128e-08,0,32768,32768
291.001,-2.01556e-08,0,32768,32768
291.051,-2.02259e-08,0,32768,32768
291.101,-2.03348e-08,0,32768,32768
291.151,-2.04776e-08,0,32768,32768
291.201,-2.06492e-08,0,32768,32768
291.25,-2.0844e-08,0,32768,32768
291.3,-2.10564e-08,0,32768,32768
291.351,-2.12875e-08,0,32768,32768
291.401,-2.15184e-08,0,32768,32768
291.451,-2.17498e-08,0,32768,32768
291.501,-2.19767e-08,0,32768,32768
291.551,-2.21938e-08,0,32768,32768
291.6,-2.23967e-08,0,32768,32768
291.65,-2.25813e-08,0,32768,32768
291.7,-2.27446e-08,0,32768,32768
291.751,-2.2888e-08,0,32768,32768
291.801,-2.30018e-08,0,32768,32768
291.851,-2.30902e-08,0,32768,32768
291.901,-2.3153e-08,0,32768,32768
291.95,-2.31912e-08,0,32768,32768
292,-2.32058e-08,0,32768,32768
292.05,-2.31983e-08,0,32768,32768
292.101,-2.31695e-08,0,32768,32768
292.151,-2.3123e-08,0,32768,32768
292.201,-2.30603e-08,0,32768,32768
292.251,-2.29831e-08,0,32768,32768
292.301,-2.28932e-08,0,32768,32768
292.35,-2.27918e-08,0,32768,32768
292.4,-2.268e-08,0,32768,32768
292.451,-2.25547e-08,0,32768,32768
292.501,-2.2424e-08,0,32768,32768
292.551,-2.22852e-08,0,32768,32768
292.601,-2.21392e-08,0,32768,32768
292.651,-2.19867e-08,0,32768,32768
292.7,-2.1829e-08,0,32768,32768
292.75,-2.16671e-08,0,32768,32768
292.801,-2.14973e-08,0,32768,32768
292.851,-2.13308e-08,0,32768,32768
292.901,-2.11643e-08,0,32768,32768
292.951,-2.09993e-08,0,32768,32768
293.001,-2.08374e-08,0,32768,32768
293.05,-2.06801e-08,0,32768,32768
293.1,-2.05286e-08,0,32768,32768
293.15,-2.03843e-08,0,32768,32768
293.201,-2.02443e-08,0,32768,32768
293.251,-2.01179e-08,0,32768,32768
293.301,-2.00018e-08,0,32768,32768
293.351,-1.98968e-08,0,32768,32768
293.4,-1.98031e-08,0,32768,32768
293.45,-1.972e-08,0,32768,32768
293.5,-1.96465e-08,0,32768,32768
293.551,-1.95788e-08,0,32768,32768
293.601,-1.95186e-08,0,32768,32768
293.651,-1.9462e-08,0,32768,32768
293.701,-1.94073e-08,0,32768,32768
293.75,-1.93536e-08,0,32768,32768
293.8,-1.93005e-08,0,32768,32768
293.85,-1.92482e-08,0,32768,32768
293.901,-1.91954e-08,0,32768,32768
293.951,-1.91453e-08,0,32768,32768
294.001,-1.90962e-08,0,32768,32768
294.051,-1.90475e-08,0,32768,32768
294.101,-1.8998e-08,0,32768,32768
294.15,-1.89463e-08,0,32768,32768
294.2,-1.88909e-08,0,32768,32768
294.251,-1.88286e-08,0,32768,32768
294.301,-1.87622e-08,0,32768,32768
294.351,-1.86898e-08,0,32768,32768
294.401,-1.86115e-08,0,32768,32768
294.451,-1.85283e-08,0,32768,32768
294.5,-1.8441e-08,0,32768,32768
294.55,-1.83507e-08,0,32768,32768
294.601,-1.82553e-08,0,32768,32768
294.651,-1.81608e-08,0,32768,32768
294.701,-1.80649e-08,0,32768,32768
294.751,-1.79676e-08,0,32768,32768
294.801,-1.7869e-08,0,32768,32768
294.85,-1.77691e-08,0,32768,32768
294.9,-1.76683e-08,0,32768,32768
294.95,-1.75667e-08,0,32768,32768
295.001,-1.74613e-08,0,32768,32768
295.051,-1.73581e-08,0,32768,32768
295.101,-1.72535e-08,0,32768,32768
295.151,-1.71472e-08,0,32768,32768
295.2,-1.70387e-08,0,32768,32768
295.25,-1.69275e-08,0,32768,32768
295.3,-1.68134e-08,0,32768,32768
295.351,-1.66926e-08,0,32768,32768
295.401,-1.6572e-08,0,32768,32768
295.451,-1.64477e-08,0,32768,32768
295.501,-1.63194e-08,0,32768,32768
295.551,-1.61866e-08,0,32768,32768
295.6,-1.60489e-08,0,32768,32768
295.65,-1.5906e-08,0,32768,32768
295.701,-1.57535e-08,0,32768,32768
295.751,-1.56e-08,0,32768,32768
295.801,-1.54416e-08,0,32768,32768
295.851,-1.52782e-08,0,32768,32768
295.901,-1.51101e-08,0,32768,32768
295.95,-1.49372e-08,0,32768,32768
296,-1.47593e-08,0,32768,32768
296.051,-1.45706e-08,0,32768,32768
296.101,-1.43818e-08,0,32768,32768
296.151,-1.41872e-08,0,32768,32768
296.201,-1.39866e-08,0,32768,32768
296.251,-1.37799e-08,0,32768,32768
296.3,-1.3567e-08,0,32768,32768
296.35,-1.33478e-08,0,32768,32768
296.4,-1.31223e-08,0,32768,32768
296.451,-1.28836e-08,0,32768,32768
296.501,-1.2645e-08,0,32768,32768
296.551,-1.23994e-08,0,32768,32768
296.601,-1.21463e-08,0,32768,32768
296.65,-1.18848e-08,0,32768,32768
296.7,-1.16138e-08,0,32768,32768
296.75,-1.13319e-08,0,32768,32768
296.801,-1.10284e-08,0,32768,32768
296.851,-1.07187e-08,0,32768,32768
296.901,-1.03923e-08,0,32768,32768
296.951,-1.00469e-08,0,32768,32768
297.001,-9.68038e-09,0,32768,32768
297.05,-9.29052e-09,0,32768,32768
297.1,-8.87543e-09,0,32768,32768
297.151,-8.42008e-09,0,32768,32768
297.201,-7.94932e-09,0,32768,32768
297.251,-7.44993e-09,0,32768,32768
297.301,-6.92194e-09,0,32768,32768
297.351,-6.36612e-09,0,32768,32768
297.4,-5.784e-09,0,32768,32768
297.45,-5.17793e-09,0,32768,32768
297.501,-4.53233e-09,0,32768,32768
297.551,-3.88803e-09,0,32768,32768
297.601,-3.23128e-09,0,32768,32768
297.651,-2.5669e-09,0,32768,32768
297.701,-1.89991e-09,0,32768,32768
297.75,-1.23536e-09,0,32768,32768
297.8,-5.78185e-10,0,32768,32768
297.851,8.56248e-11,0,32768,32768
297.901,7.13569e-10,0,32768,32768
297.951,1.32063e-09,0,32768,32768
298.001,1.90286e-09,0,32768,32768
298.051,2.45658e-09,0,32768,32768
298.1,2.97834e-09,0,32768,32768
298.15,3.46502e-09,0,32768,32768
298.2,3.91386e-09,0,32768,32768
298.251,4.33397e-09,0,32768,32768
298.301,4.69962e-09,0,32768,32768
298.351,5.02241e-09,0,32768,32768
298.401,5.30206e-09,0,32768,32768
298.45,5.53902e-09,0,32768,32768
298.5,5.7344e-09,0,32768,32768
298.55,5.88992e-09,0,32768,32768
298.601,6.01067e-09,0,32768,32768
298.651,6.09237e-09,0,32768,32768
298.701,6.1418e-09,0,32768,32768
298.751,6.16189e-09,0,32768,32768
298.801,6.15563e-09,0,32768,32768
298.85,6.12605e-09,0,32768,32768
298.9,6.07609e-09,0,32768,32768
298.951,6.00641e-09,0,32768,32768
299.001,5.92382e-09,0,32768,32768
299.051,5.82915e-09,0,32768,32768
299.101,5.72481e-09,0,32768,32768
299.151,5.61299e-09,0,32768,32768
299.2,5.49568e-09,0,32768,32768
299.25,5.37462e-09,0,32768,32768
299.301,5.24771e-09,0,32768,32768
299.351,5.12356e-09,0,32768,32768
299.401,4.99972e-09,0,32768,32768
299.451,4.87717e-09,0,32768,32768
299.501,4.75681e-09,0,32768,32768
299.55,4.63947e-09,0,32768,32768
299.6,4.52596e-09,0,32768,32768
299.65,4.4171e-09,0,32768,32768
299.701,4.31074e-09,0,32768,32768
299.751,4.21376e-09,0,32768,32768
299.801,4.12374e-09,0,32768,32768
299.851,4.04125e-09,0,32768,32768
299.9,3.96669e-09,0,32768,32768
299.95,3.90029e-09,0,32768,32768
300,3.84203e-09,0,32768,32768
300.051,3.79031e-09,0,32768,32768
300.101,3.7476e-09,0,32768,32768
300.151,3.71164e-09,0,32768,32768
300.201,3.68155e-09,0,32768,32768
300.251,3.65631e-09,0,32768,32768
300.3,3.63479e-09,0,32768,32768
300.35,3.61582e-09,0,32768,32768
300.401,3.59771e-09,0,32768,32768
300.451,3.5803e-09,0,32768,32768
300.501,3.56197e-09,0,32768,32768
300.551,3.54171e-09,0,32768,32768
300.601,3.51868e-09,0,32768,32768
300.65,3.49223e-09,0,32768,32768
300.7,3.46201e-09,0,32768,32768
300.751,3.42694e-09,0,32768,32768
300.801,3.38937e-09,0,32768,32768
300.851,3.34901e-09,0,32768,32768
300.901,3.30671e-09,0,32768,32768
300.951,3.26342e-09,0,32768,32768
301,3.21998e-09,0,32768,32768
301.05,3.17708e-09,0,32768,32768
301.1,3.13512e-09,0,32768,32768
301.151,3.09309e-09,0,32768,32768
301.201,3.0534e-09,0,32768,32768
301.251,3.01477e-09,0,32768,32768
301.301,2.9772e-09,0,32768,32768
301.35,2.94087e-09,0,32768,32768
301.4,2.90613e-09,0,32768,32768
301.45,2.87352e-09,0,32768,32768
301.501,2.84285e-09,0,32768,32768
301.551,2.81648e-09,0,32768,32768
301.601,2.79395e-09,0,32768,32768
301.651,2.7755e-09,0,32768,32768
301.701,2.76107e-09,0,32768,32768
301.75,2.75033e-09,0,32768,32768
301.8,2.74272e-09,0,32768,32768
301.851,2.73747e-09,0,32768,32768
301.901,2.73414e-09,0,32768,32768
301.951,2.73189e-09,0,32768,32768
302.001,2.73016e-09,0,32768,32768
302.051,2.72849e-09,0,32768,32768
302.1,2.72651e-09,0,32768,32768
302.15,2.72393e-09,0,32768,32768
302.201,2.72037e-09,0,32768,32768
302.251,2.71584e-09,0,32768,32768
302.301,2.7101e-09,0,32768,32768
302.351,2.70307e-09,0,32768,32768
302.401,2.69474e-09,0,32768,32768
302.45,2.68515e-09,0,32768,32768
302.5,2.67439e-09,0,32768,32768
302.551,2.66218e-09,0,32768,32768
302.601,2.64932e-09,0,32768,32768
302.651,2.63554e-09,0,32768,32768
302.701,2.6209e-09,0,32768,32768
302.751,2.60547e-09,0,32768,32768
302.8,2.58934e-09,0,32768,32768
302.85,2.57262e-09,0,32768,32768
302.9,2.55539e-09,0,32768,32768
302.951,2.53723e-09,0,32768,32768
303.001,2.5192e-09,0,32768,32768
303.051,2.50079e-09,0,32768,32768
303.101,2.48196e-09,0,32768,32768
303.15,2.46265e-09,0,32768,32768
303.2,2.44279e-09,0,32768,32768
303.25,2.42235e-09,0,32768,32768
303.301,2.40073e-09,0,32768,32768
303.351,2.37919e-09,0,32768,32768
303.401,2.35722e-09,0,32768,32768
303.451,2.33491e-09,0,32768,32768
303.501,2.31237e-09,0,32768,32768
303.55,2.28972e-09,0,32768,32768
303.6,2.26703e-09,0,32768,32768
303.651,2.24372e-09,0,32768,32768
303.701,2.2212e-09,0,32768,32768
303.751,2.19883e-09,0,32768,32768
303.801,2.17666e-09,0,32768,32768
303.851,2.15472e-09,0,32768,32768
303.9,2.13304e-09,0,32768,32768
303.95,2.11163e-09,0,32768,32768
304.001,2.08989e-09,0,32768,32768
304.051,2.06909e-09,0,32768,32768
304.101,2.04861e-09,0,32768,32768
304.151,2.02844e-09,0,32768,32768
304.201,2.00859e-09,0,32768,32768
304.25,1.98904e-09,0,32768,32768
304.3,1.96976e-09,0,32768,32768
304.35,1.95074e-09,0,32768,32768
304.401,1.93139e-09,0,32768,32768
304.451,1.91278e-09,0,32768,32768
304.501,1.89429e-09,0,32768,32768
304.551,1.87589e-09,0,32768,32768
304.6,1.85751e-09,0,32768,32768
304.65,1.83912e-09,0,32768,32768
304.7,1.82064e-09,0,32768,32768
304.751,1.80148e-09,0,32768,32768
304.801,1.78268e-09,0,32768,32768
304.851,1.76365e-09,0,32768,32768
304.901,1.74432e-09,0,32768,32768
304.951,1.72468e-09,0,32768,32768
