250,0,0,512,512
250.012,0,0,512,512
250.059,0,0,512,512
250.105,0,0,512,512
250.152,0,0,512,512
250.211,0,0,512,512
250.258,0,0,512,512
250.305,0,0,512,512
250.352,0,0,512,512
250.41,0,0,512,512
250.457,0,0,512,512
250.504,0,0,512,512
250.551,0,0,512,512
250.609,0,0,512,512
250.656,0,0,512,512
250.703,0,0,512,512
250.762,0,0,512,512
250.808,0,0,512,512
250.855,0,0,512,512
250.902,0,0,512,512
250.961,0,0,512,512
251.008,0,0,512,512
251.055,0,0,512,512
251.101,0,0,512,512
251.16,0,0,512,512
251.207,0,0,512,512
251.254,0,0,512,512
251.301,0,0,512,512
251.359,0,0,512,512
251.406,0,0,512,512
251.453,0,0,512,512
251.511,0,0,512,512
251.558,0,0,512,512
251.605,0,0,512,512
251.652,0,0,512,512
251.711,0,0,512,512
251.758,0,0,512,512
251.804,0,0,512,512
251.851,0,0,512,512
251.91,0,0,512,512
251.957,0,0,512,512
252.004,0,0,512,512
252.05,0,0,512,512
252.109,0,0,512,512
252.156,0,0,512,512
252.203,0,0,512,512
252.261,0,0,512,512
252.308,0,0,512,512
252.355,0,0,512,512
252.402,0,0,512,512
252.461,0,0,512,512
252.507,0,0,512,512
252.554,0,0,512,512
252.601,0,0,512,512
252.66,0,0,512,512
252.707,0,0,512,512
252.754,0,0,512,512
252.8,0,0,512,512
252.859,0,0,512,512
252.906,0,0,512,512
252.953,0,0,512,512
253.011,0,0,512,512
253.058,0,0,512,512
253.105,0,0,512,512
253.152,0,0,512,512
253.21,0,0,512,512
253.257,0,0,512,512
253.304,0,0,512,512
253.351,0,0,512,512
253.41,0,0,512,512
253.457,0,0,512,512
253.503,0,0,512,512
253.55,0,0,512,512
253.609,0,0,512,512
253.656,0,0,512,512
253.703,0,0,512,512
253.761,0,0,512,512
253.808,0,0,512,512
253.855,0,0,512,512
253.902,0,0,512,512
253.96,0,0,512,512
254.007,0,0,512,512
254.054,0,0,512,512
254.101,0,0,512,512
254.16,0,0,512,512
254.206,0,0,512,512
254.253,0,0,512,512
254.3,0,0,512,512
254.359,0,0,512,512
254.406,0,0,512,512
254.452,0,0,512,512
254.511,0,0,512,512
254.558,-1.38778e-17,0,512,512
254.605,-2.77556e-17,0,512,512
254.652,-2.77556e-17,0,512,512
254.71,-2.77556e-17,0,512,512
254.757,-2.77556e-17,0,512,512
254.804,-2.77556e-17,0,512,512
254.851,-2.77556e-17,0,512,512
254.909,-2.77556e-17,0,512,512
254.956,0,0,512,512
255.003,0,0,512,512
255.05,0,0,512,512
255.109,0,0,512,512
255.155,0,0,512,512
255.202,0,0,512,512
255.261,0,0,512,512
255.308,0,0,512,512
255.355,0,0,512,512
255.402,0,0,512,512
255.46,0,0,512,512
255.507,0,0,512,512
255.554,0,0,512,512
255.601,0,0,512,512
255.659,0,0,512,512
255.706,0,0,512,512
255.753,0,0,512,512
255.812,0,0,512,512
255.859,0,0,512,512
255.905,0,0,512,512
255.952,0,0,512,512
256.011,0,0,512,512
256.058,0,0,512,512
256.105,0,0,512,512
256.151,0,0,512,512
256.21,0,0,512,512
256.257,0,0,512,512
256.304,0,0,512,512
256.351,0,0,512,512
256.409,0,0,512,512
256.456,0,0,512,512
256.503,0,0,512,512
256.562,0,0,512,512
256.608,0,0,512,512
256.655,0,0,512,512
256.702,0,0,512,512
256.761,0,0,512,512
256.808,0,0,512,512
256.854,0,0,512,512
256.901,0,0,512,512
256.96,0,0,512,512
257.007,0,0,512,512
257.054,0,0,512,512
257.101,0,0,512,512
257.159,0,0,512,512
257.206,0,0,512,512
257.253,0,0,512,512
257.311,0,0,512,512
257.358,0,0,512,512
257.405,0,0,512,512
257.452,0,0,512,512
257.511,0,0,512,512
257.557,0,0,512,512
257.604,0,0,512,512
257.651,0,0,512,512
257.71,0,0,512,512
257.757,0,0,512,512
257.804,0,0,512,512
257.85,0,0,512,512
257.909,0,0,512,512
257.956,0,0,512,512
258.003,0,0,512,512
258.061,0,0,512,512
258.108,0,0,512,512
258.155,0,0,512,512
258.202,0,0,512,512
258.261,0,0,512,512
258.307,0,0,512,512
258.354,0,0,512,512
258.401,0,0,512,512
258.46,0,0,512,512
258.507,0,0,512,512
258.553,0,0,512,512
258.6,0,0,512,512
258.659,0,0,512,512
258.706,0,0,512,512
258.753,0,0,512,512
258.811,0,0,512,512
258.858,0,0,512,512
258.905,0,0,512,512
258.952,0,0,512,512
259.01,0,0,512,512
259.057,0,0,512,512
259.104,0,0,512,512
259.151,0,0,512,512
259.21,0,0,512,512
259.256,0,0,512,512
259.303,0,0,512,512
259.35,0,0,512,512
259.409,0,0,512,512
259.456,0,0,512,512
259.503,0,0,512,512
259.561,0,0,512,512
259.608,0,0,512,512
259.655,0,0,512,512
259.702,0,0,512,512
259.76,0,0,512,512
259.807,0,0,512,512
259.854,0,0,512,512
259.901,0,0,512,512
259.959,0,0,512,512
260.006,0,0,512,512
260.053,0,0,512,512
260.1,0,0,512,512
260.159,0,0,512,512
260.206,0,0,512,512
260.252,0,0,512,512
260.311,0,0,512,512
260.358,0,0,512,512
260.405,0,0,512,512
260.452,0,0,512,512
260.51,0,0,512,512
260.557,0,0,512,512
260.604,0,0,512,512
260.651,0,0,512,512
260.709,0,0,512,512
260.756,0,0,512,512
260.803,0,0,512,512
260.862,0,0,512,512
260.909,0,0,512,512
260.955,0,0,512,512
261.002,0,0,512,512
261.061,0,0,512,512
261.108,0,0,512,512
261.155,0,0,512,512
261.201,0,0,512,512
261.26,0,0,512,512
261.307,0,0,512,512
261.354,0,0,512,512
261.401,0,0,512,512
261.459,0,0,512,512
261.506,0,0,512,512
261.553,0,0,512,512
261.612,0,0,512,512
261.658,0,0,512,512
261.705,0,0,512,512
261.752,0,0,512,512
261.811,0,0,512,512
261.858,0,0,512,512
261.905,0,0,512,512
261.951,0,0,512,512
262.01,0,0,512,512
262.057,0,0,512,512
262.104,0,0,512,512
262.151,0,0,512,512
262.209,0,0,512,512
262.256,0,0,512,512
262.303,0,0,512,512
262.361,0,0,512,512
262.408,0,0,512,512
262.455,0,0,512,512
262.502,0,0,512,512
262.561,0,0,512,512
262.608,0,0,512,512
262.654,0,0,512,512
262.701,0,0,512,512
262.76,0,0,512,512
262.807,0,0,512,512
262.854,0,0,512,512
262.9,0,0,512,512
262.959,0,0,512,512
263.006,0,0,512,512
263.053,0,0,512,512
263.111,0,0,512,512
263.158,0,0,512,512
263.205,0,0,512,512
263.252,0,0,512,512
263.311,0,0,512,512
263.357,0,0,512,512
263.404,0,0,512,512
263.451,0,0,512,512
263.51,0,0,512,512
263.557,0,0,512,512
263.603,0,0,512,512
263.65,0,0,512,512
263.709,-1.38778e-17,0,512,512
263.756,-1.38778e-17,0,512,512
263.803,-2.77556e-17,0,512,512
263.861,-2.77556e-17,0,512,512
263.908,-2.77556e-17,0,512,512
263.955,-2.77556e-17,0,512,512
264.002,-2.77556e-17,0,512,512
264.06,-2.77556e-17,0,512,512
264.107,-1.38778e-17,0,512,512
264.154,-1.38778e-17,0,512,512
264.201,-1.38778e-17,0,512,512
264.26,-1.38778e-17,0,512,512
264.306,-1.38778e-17,0,512,512
264.353,-1.38778e-17,0,512,512
264.4,-1.38778e-17,0,512,512
264.459,-1.38778e-17,0,512,512
264.506,-1.38778e-17,0,512,512
264.553,-1.38778e-17,0,512,512
264.611,-1.38778e-17,0,512,512
264.658,-1.38778e-17,0,512,512
264.705,-1.38778e-17,0,512,512
264.752,-1.38778e-17,0,512,512
264.81,-1.38778e-17,0,512,512
264.857,-1.38778e-17,0,512,512
264.904,-1.38778e-17,0,512,512
264.951,-1.38778e-17,0,512,512
265.01,-1.38778e-17,0,512,512
265.056,-1.38778e-17,0,512,512
265.103,-1.38778e-17,0,512,512
265.15,-1.38778e-17,0,512,512
265.209,-1.38778e-17,0,512,512
265.256,-1.38778e-17,0,512,512
265.302,-1.38778e-17,0,512,512
265.361,-1.38778e-17,0,512,512
265.408,-1.38778e-17,0,512,512
265.455,0,0,512,512
265.502,0,0,512,512
265.56,0,0,512,512
265.607,0,0,512,512
265.654,0,0,512,512
265.701,0,0,512,512
265.759,0,0,512,512
265.806,0,0,512,512
265.853,0,0,512,512
265.9,0,0,512,512
265.959,0,0,512,512
266.005,0,0,512,512
266.052,0,0,512,512
266.111,0,0,512,512
266.158,0,0,512,512
266.205,0,0,512,512
266.252,0,0,512,512
266.31,0,0,512,512
266.357,0,0,512,512
266.404,0,0,512,512
266.451,0,0,512,512
266.509,0,0,512,512
266.556,0,0,512,512
266.603,0,0,512,512
266.662,0,0,512,512
266.708,0,0,512,512
266.755,0,0,512,512
266.802,0,0,512,512
266.861,0,0,512,512
266.908,0,0,512,512
266.955,0,0,512,512
267.001,0,0,512,512
267.06,0,0,512,512
267.107,0,0,512,512
267.154,0,0,512,512
267.201,0,0,512,512
267.259,0,0,512,512
267.306,0,0,512,512
267.353,0,0,512,512
267.412,0,0,512,512
267.458,0,0,512,512
267.505,0,0,512,512
267.552,0,0,512,512
267.611,0,0,512,512
267.658,0,0,512,512
267.704,0,0,512,512
267.751,0,0,512,512
267.81,0,0,512,512
267.857,0,0,512,512
267.904,0,0,512,512
267.95,0,0,512,512
268.009,0,0,512,512
268.056,1.38778e-17,0,512,512
268.103,1.38778e-17,0,512,512
268.161,1.38778e-17,0,512,512
268.208,1.38778e-17,0,512,512
268.255,0,0,512,512
268.302,0,0,512,512
268.361,1.38778e-17,0,512,512
268.407,1.38778e-17,0,512,512
268.454,1.38778e-17,0,512,512
268.501,1.38778e-17,0,512,512
268.56,1.38778e-17,0,512,512
268.607,1.38778e-17,0,512,512
268.654,1.38778e-17,0,512,512
268.7,1.38778e-17,0,512,512
268.759,1.38778e-17,0,512,512
268.806,1.38778e-17,0,512,512
268.853,1.38778e-17,0,512,512
268.911,1.38778e-17,0,512,512
268.958,1.38778e-17,0,512,512
269.005,1.38778e-17,0,512,512
269.052,1.38778e-17,0,512,512
269.11,1.38778e-17,0,512,512
269.157,1.38778e-17,0,512,512
269.204,1.38778e-17,0,512,512
269.251,1.38778e-17,0,512,512
269.31,1.38778e-17,0,512,512
269.357,1.38778e-17,0,512,512
269.403,1.38778e-17,0,512,512
269.45,1.38778e-17,0,512,512
269.509,1.38778e-17,0,512,512
269.556,1.38778e-17,0,512,512
269.603,1.38778e-17,0,512,512
269.652,1.38778e-17,0,519,519
269.705,1.38778e-17,0,531,531
269.751,1.38778e-17,0,537,537
269.804,1.38778e-17,0,549,549
269.851,1.38778e-17,0,555,555
269.904,1.38778e-17,0,567,567
269.951,1.38778e-17,0,579,579
270.003,1.38778e-17,0,579,579
270.05,1.38778e-17,0,579,579
270.103,1.38778e-17,0,585,585
270.156,1.38778e-17,0,597,597
270.203,1.38778e-17,0,609,609
270.255,1.38778e-17,0,621,621
270.302,1.38778e-17,0,627,627
270.355,1.38778e-17,0,639,639
270.402,1.38778e-17,0,645,645
270.455,1.38778e-17,0,657,657
270.501,1.38778e-17,0,669,669
270.554,1.38778e-17,0,675,675
270.601,1.38778e-17,0,687,687
270.654,1.38778e-17,0,687,687
270.701,1.38778e-17,0,693,693
270.753,1.38778e-17,0,705,705
270.8,1.38778e-17,0,711,711
270.853,1.38778e-17,0,723,723
270.906,1.38778e-17,0,735,735
270.952,1.38778e-17,0,747,747
271.005,1.38778e-17,0,759,759
271.052,1.38778e-17,0,771,771
271.105,1.38778e-17,0,777,777
271.152,1.38778e-17,0,789,789
271.204,1.38778e-17,0,801,801
271.251,1.38778e-17,0,813,813
271.304,1.38778e-17,0,825,825
271.351,1.38778e-17,0,831,831
271.404,1.38778e-17,0,843,843
271.45,1.38778e-17,0,855,855
271.503,1.38778e-17,0,867,867
271.55,1.38778e-17,0,879,879
271.603,1.38778e-17,0,891,891
271.655,1.38778e-17,0,903,903
271.702,1.38778e-17,0,909,909
271.755,1.38778e-17,0,921,921
271.802,1.38778e-17,0,933,933
271.855,1.38778e-17,0,945,945
271.902,1.38778e-17,0,951,951
271.954,1.38778e-17,0,963,963
272.001,1.38778e-17,0,975,975
272.054,1.38778e-17,0,987,987
272.101,1.38778e-17,0,999,999
272.153,1.38778e-17,0,1005,1005
272.2,1.38778e-17,0,1017,1017
272.253,1.38778e-17,0,1029,1029
272.306,1.38778e-17,0,1041,1041
272.353,1.38778e-17,0,1047,1047
272.405,1.38778e-17,0,1059,1059
272.452,1.38778e-17,0,1071,1071
272.505,1.38778e-17,0,1083,1083
272.552,1.38778e-17,0,1089,1089
272.605,1.38778e-17,0,1101,1101
272.651,1.38778e-17,0,1113,1113
272.704,1.38778e-17,0,1119,1119
272.751,1.38778e-17,0,1131,1131
272.804,1.38778e-17,0,1143,1143
272.851,1.38778e-17,0,1149,1149
272.903,1.38778e-17,0,1161,1161
272.95,1.38778e-17,0,1173,1173
273.003,1.38778e-17,0,1179,1179
273.056,1.38778e-17,0,1191,1191
273.103,1.38778e-17,0,1203,1203
273.155,1.38778e-17,0,1215,1215
273.202,1.38778e-17,0,1221,1221
273.255,1.38778e-17,0,1233,1233
273.302,1.38778e-17,0,1239,1239
273.354,1.38778e-17,0,1251,1251
273.401,1.38778e-17,0,1263,1263
273.454,1.38778e-17,0,1269,1269
273.501,1.38778e-17,0,1281,1281
273.554,1.38778e-17,0,1287,1287
273.601,1.38778e-17,0,1299,1299
273.653,1.38778e-17,0,1311,1311
273.7,1.38778e-17,0,1317,1317
273.753,1.38778e-17,0,1325,1325
273.806,1.38778e-17,0,1335,1335
273.852,1.38778e-17,0,1347,1347
273.905,1.38778e-17,0,1353,1353
273.952,1.38778e-17,0,1365,1365
274.005,1.38778e-17,0,1371,1371
274.052,1.38778e-17,0,1383,1383
274.104,1.38778e-17,0,1395,1395
274.151,1.38778e-17,0,1401,1401
274.204,1.38778e-17,0,1413,1413
274.251,1.38778e-17,0,1419,1419
274.304,1.38778e-17,0,1431,1431
274.35,1.38778e-17,0,1437,1437
274.403,1.38778e-17,0,1449,1449
274.456,-6.93889e-17,0,1455,1455
274.503,-1.52656e-16,0,1467,1467
274.555,-2.77556e-16,0,1473,1473
274.602,-4.85723e-16,0,1479,1479
274.655,-9.99201e-16,0,1491,1491
274.702,-1.98452e-15,0,1497,1497
274.755,-4.38538e-15,0,1509,1509
274.802,-8.70137e-15,0,1515,1515
274.854,-1.8277e-14,0,1527,1527
274.901,-3.43336e-14,0,1533,1533
274.954,-6.75293e-14,0,1545,1545
275.001,-1.19516e-13,0,1551,1551
275.053,-2.19602e-13,0,1563,1563
275.1,-3.66054e-13,0,1569,1569
275.153,-6.29399e-13,0,1575,1575
275.206,-1.04587e-12,0,1587,1587
275.253,-1.59701e-12,0,1593,1593
275.305,-2.49264e-12,0,1605,1605
275.352,-3.60396e-12,0,1611,1611
275.405,-5.29593e-12,0,1623,1623
275.452,-7.26426e-12,0,1629,1629
275.505,-1.00705e-11,0,1635,1635
275.551,-1.31267e-11,0,1647,1647
275.604,-1.71965e-11,0,1653,1653
275.651,-2.13285e-11,0,1659,1659
275.704,-2.64356e-11,0,1671,1671
275.751,-3.12216e-11,0,1677,1677
275.803,-3.66284e-11,0,1689,1689
275.85,-4.11902e-11,0,1695,1695
275.903,-4.57038e-11,0,1707,1707
275.956,-4.91886e-11,0,1713,1713
276.003,-5.11277e-11,0,1719,1719
276.055,-5.17277e-11,0,1731,1731
276.102,-5.06852e-11,0,1737,1737
276.155,-4.76409e-11,0,1749,1749
276.202,-4.32819e-11,0,1755,1755
276.254,-3.66432e-11,0,1761,1761
276.301,-2.9395e-11,0,1773,1773
276.354,-2.00368e-11,0,1779,1779
276.401,-1.09643e-11,0,1785,1785
276.454,-3.06519e-13,0,1797,1797
276.5,9.2323e-12,0,1803,1803
276.553,1.96791e-11,0,1815,1815
276.6,2.8459e-11,0,1821,1821
276.653,3.7554e-11,0,1827,1827
276.706,4.57026e-11,0,1839,1839
276.752,5.21487e-11,0,1845,1845
276.805,5.86197e-11,0,1851,1851
276.852,6.38786e-11,0,1863,1863
276.905,6.96019e-11,0,1869,1869
276.952,7.49457e-11,0,1875,1875
277.004,8.19062e-11,0,1887,1887
277.051,8.96645e-11,0,1893,1893
277.104,1.01246e-10,0,1899,1899
277.151,1.15246e-10,0,1911,1911
277.203,1.36871e-10,0,1917,1917
277.25,1.63097e-10,0,1923,1923
277.303,2.02978e-10,0,1935,1935
277.356,2.56932e-10,0,1941,1941
277.403,3.19615e-10,0,1947,1947
277.455,4.10212e-10,0,1959,1959
277.502,5.11492e-10,0,1965,1965
277.555,6.51258e-10,0,1971,1971
277.602,7.9727e-10,0,1983,1983
277.655,1.01798e-09,0,1989,1989
277.701,1.62162e-09,0,1995,1995
277.754,2.66509e-09,0,2001,2001
277.801,3.99782e-09,0,2007,2007
277.854,6.02026e-09,0,2019,2019
277.901,8.34069e-09,0,2025,2025
277.953,1.15429e-08,0,2031,2031
278,1.49117e-08,0,2048,2048
278.053,1.9303e-08,0,2048,2048
278.106,2.43508e-08,0,2048,2048
278.153,2.94419e-08,0,2048,2048
278.205,3.59893e-08,0,2048,2048
278.252,4.27317e-08,0,2048,2048
278.305,5.16572e-08,0,2048,2048
278.352,6.11081e-08,0,2048,2048
278.404,7.38965e-08,0,2048,2048
278.451,8.76026e-08,0,2048,2048
278.504,1.06167e-07,0,2048,2048
278.551,1.25904e-07,0,2048,2048
278.604,1.5223e-07,0,2048,2048
278.651,1.79665e-07,0,2048,2048
278.703,2.15405e-07,0,2048,2048
278.75,2.5169e-07,0,2048,2048
278.803,2.97648e-07,0,2048,2048
278.856,3.48907e-07,0,2048,2048
278.902,3.98632e-07,0,2048,2048
278.955,4.58718e-07,0,2048,2048
279.002,5.15178e-07,0,2048,2048
279.055,5.81185e-07,0,2048,2048
279.102,6.41119e-07,0,2048,2048
279.154,7.08731e-07,0,2048,2048
279.201,7.67899e-07,0,2048,2048
279.254,8.32182e-07,0,2048,2048
279.301,8.86361e-07,0,2048,2048
279.354,9.4312e-07,0,2048,2048
279.4,9.89356e-07,0,2048,2048
279.453,1.03636e-06,0,2048,2048
279.5,1.07369e-06,0,2048,2048
279.553,1.1109e-06,0,2048,2048
279.605,1.14343e-06,0,2048,2048
279.652,1.16877e-06,0,2048,2048
279.705,1.19363e-06,0,2048,2048
279.752,1.21274e-06,0,2048,2048
279.805,1.23109e-06,0,2048,2048
279.852,1.24475e-06,0,2048,2048
279.904,1.25725e-06,0,2048,2048
279.951,1.26591e-06,0,2048,2048
280.004,1.27307e-06,0,2048,2048
280.051,1.27725e-06,0,2048,2048
280.103,1.27968e-06,0,2048,2048
280.15,1.27992e-06,0,2048,2048
280.203,1.27806e-06,0,2048,2048
280.256,1.27387e-06,0,2048,2048
280.303,1.26802e-06,0,2048,2048
280.355,1.25877e-06,0,2048,2048
280.402,1.24789e-06,0,2048,2048
280.455,1.23233e-06,0,2048,2048
280.502,1.21532e-06,0,2048,2048
280.555,1.19238e-06,0,2048,2048
280.601,1.16853e-06,0,2048,2048
280.654,1.13775e-06,0,2048,2048
280.701,1.10689e-06,0,2048,2048
280.754,1.06826e-06,0,2048,2048
280.801,1.03049e-06,0,2048,2048
280.853,9.84212e-07,0,2048,2048
280.9,9.3982e-07,0,2048,2048
280.953,8.8641e-07,0,2048,2048
281.006,8.29646e-07,0,2048,2048
281.053,7.76745e-07,0,2048,2048
281.105,7.15025e-07,0,2048,2048
281.152,6.58758e-07,0,2048,2048
281.205,5.94617e-07,0,2048,2048
281.252,5.37537e-07,0,2048,2048
281.304,4.74066e-07,0,2048,2048
281.351,4.18995e-07,0,2048,2048
281.404,3.59306e-07,0,2048,2048
281.451,3.08831e-07,0,2048,2048
281.504,2.55497e-07,0,2048,2048
281.551,2.11512e-07,0,2048,2048
281.603,1.66155e-07,0,2048,2048
281.65,1.29621e-07,0,2048,2048
281.703,9.27867e-08,0,2048,2048
281.756,6.03649e-08,0,2048,2048
281.802,3.5087e-08,0,2048,2048
281.855,1.03885e-08,0,2048,2048
281.902,-8.48253e-09,0,2048,2048
281.955,-2.6542e-08,0,2048,2048
282.002,-4.00331e-08,0,2048,2048
282.054,-5.26192e-08,0,2048,2048
282.101,-6.17388e-08,0,2048,2048
282.154,-6.99295e-08,0,2048,2048
282.201,-7.55752e-08,0,2048,2048
282.254,-8.03073e-08,0,2048,2048
282.3,-8.32454e-08,0,2048,2048
282.353,-8.53032e-08,0,2048,2048
282.406,-8.62062e-08,0,2048,2048
282.453,-8.61594e-08,0,2048,2048
282.505,-8.52655e-08,0,2048,2048
282.552,-8.38082e-08,0,2048,2048
282.605,-8.15131e-08,0,2048,2048
282.652,-7.89642e-08,0,2048,2048
282.705,-7.56129e-08,0,2048,2048
282.752,-7.22837e-08,0,2048,2048
282.804,-6.82429e-08,0,2048,2048
282.851,-6.44753e-08,0,2048,2048
282.904,-6.01394e-08,0,2048,2048
282.951,-5.62799e-08,0,2048,2048
283.003,-5.20169e-08,0,2048,2048
283.05,-4.83589e-08,0,2048,2048
283.103,-4.44481e-08,0,2048,2048
283.156,-4.07971e-08,0,2048,2048
283.203,-3.77935e-08,0,2048,2048
283.255,-3.47009e-08,0,2048,2048
283.302,-3.22105e-08,0,2048,2048
283.355,-2.96971e-08,0,2048,2048
283.402,-2.77126e-08,0,2048,2048
283.455,-2.57497e-08,0,2048,2048
283.501,-2.42328e-08,0,2048,2048
283.554,-2.27675e-08,0,2048,2048
283.601,-2.16656e-08,0,2048,2048
283.654,-2.06344e-08,0,2048,2048
283.701,-1.9888e-08,0,2048,2048
283.753,-1.9222e-08,0,2048,2048
283.8,-1.87691e-08,0,2048,2048
283.853,-1.83983e-08,0,2048,2048
283.906,-1.81564e-08,0,2048,2048
283.953,-1.8035e-08,0,2048,2048
284.005,-1.79885e-08,0,2048,2048
284.052,-1.80151e-08,0,2048,2048
284.105,-1.81082e-08,0,2048,2048
284.152,-1.82372e-08,0,2048,2048
284.204,-1.84236e-08,0,2048,2048
284.251,-1.86181e-08,0,2048,2048
284.304,-1.88608e-08,0,2048,2048
284.351,-1.90917e-08,0,2048,2048
284.404,-1.93621e-08,0,2048,2048
284.45,-1.96073e-08,0,2048,2048
284.503,-1.9884e-08,0,2048,2048
284.55,-2.01272e-08,0,2048,2048
284.603,-2.03943e-08,0,2048,2048
284.656,-2.06517e-08,0,2048,2048
284.702,-2.08702e-08,0,2048,2048
284.755,-2.11027e-08,0,2048,2048
284.802,-2.12964e-08,0,2048,2048
284.855,-2.14988e-08,0,2048,2048
284.902,-2.16645e-08,0,2048,2048
284.954,-2.18349e-08,0,2048,2048
285.001,-2.19723e-08,0,2048,2048
285.054,-2.21118e-08,0,2048,2048
285.101,-2.22231e-08,0,2048,2048
285.154,-2.23353e-08,0,2048,2048
285.2,-2.24247e-08,0,2048,2048
285.253,-2.25152e-08,0,2048,2048
285.306,-2.2597e-08,0,2048,2048
285.353,-2.26639e-08,0,2048,2048
285.405,-2.27347e-08,0,2048,2048
285.452,-2.27954e-08,0,2048,2048
285.505,-2.2863e-08,0,2048,2048
285.552,-2.29245e-08,0,2048,2048
285.605,-2.29972e-08,0,2048,2048
285.651,-2.30671e-08,0,2048,2048
285.704,-2.31536e-08,0,2048,2048
285.751,-2.32397e-08,0,2048,2048
285.804,-2.33493e-08,0,2048,2048
285.851,-2.346e-08,0,2048,2048
285.903,-2.36022e-08,0,2048,2048
285.95,-2.37463e-08,0,2048,2048
286.003,-2.39308e-08,0,2048,2048
286.056,-2.41415e-08,0,2048,2048
286.103,-2.43529e-08,0,2048,2048
286.155,-2.46199e-08,0,2048,2048
286.202,-2.48848e-08,0,2048,2048
286.255,-2.52153e-08,0,2048,2048
286.302,-2.55389e-08,0,2048,2048
286.354,-2.59375e-08,0,2048,2048
286.401,-2.63228e-08,0,2048,2048
286.454,-2.67909e-08,0,2048,2048
286.501,-2.72374e-08,0,2048,2048
286.554,-2.77729e-08,0,2048,2048
286.601,-2.82772e-08,0,2048,2048
286.653,-2.88744e-08,0,2048,2048
286.7,-2.94302e-08,0,2048,2048
286.753,-3.00809e-08,0,2048,2048
286.806,-3.07558e-08,0,2048,2048
286.852,-3.13736e-08,0,2048,2048
286.905,-3.20859e-08,0,2048,2048
286.952,-3.2732e-08,0,2048,2048
287.005,-3.34706e-08,0,2048,2048
287.052,-3.41352e-08,0,2048,2048
287.104,-3.48893e-08,0,2048,2048
287.151,-3.55632e-08,0,2048,2048
287.204,-3.6323e-08,0,2048,2048
287.251,-3.69979e-08,0,2048,2048
287.304,-3.77544e-08,0,2048,2048
287.35,-3.84228e-08,0,2048,2048
287.403,-3.91681e-08,0,2048,2048
287.45,-3.98231e-08,0,2048,2048
287.503,-4.05497e-08,0,2048,2048
287.555,-4.12637e-08,0,2048,2048
287.602,-4.18862e-08,0,2048,2048
287.655,-4.25709e-08,0,2048,2048
287.702,-4.31643e-08,0,2048,2048
287.755,-4.38128e-08,0,2048,2048
287.802,-4.43709e-08,0,2048,2048
287.854,-4.49761e-08,0,2048,2048
287.901,-4.54926e-08,0,2048,2048
287.954,-4.60474e-08,0,2048,2048
288.001,-4.65157e-08,0,2048,2048
288.053,-4.7013e-08,0,2048,2048
288.1,-4.74273e-08,0,2048,2048
288.153,-4.78605e-08,0,2048,2048
288.206,-4.82574e-08,0,2048,2048
288.253,-4.85787e-08,0,2048,2048
288.305,-4.89034e-08,0,2048,2048
288.352,-4.91589e-08,0,2048,2048
288.405,-4.94083e-08,0,2048,2048
288.452,-4.95961e-08,0,2048,2048
288.505,-4.97692e-08,0,2048,2048
288.551,-4.98894e-08,0,2048,2048
288.604,-4.99876e-08,0,2048,2048
288.651,-5.00428e-08,0,2048,2048
288.704,-5.00701e-08,0,2048,2048
288.751,-5.00648e-08,0,2048,2048
288.803,-5.00275e-08,0,2048,2048
288.85,-4.99683e-08,0,2048,2048
288.903,-4.98745e-08,0,2048,2048
288.956,-4.97546e-08,0,2048,2048
289.003,-4.96282e-08,0,2048,2048
289.055,-4.94664e-08,0,2048,2048
289.102,-4.93071e-08,0,2048,2048
289.155,-4.91131e-08,0,2048,2048
289.202,-4.89294e-08,0,2048,2048
289.254,-4.87124e-08,0,2048,2048
289.301,-4.85121e-08,0,2048,2048
289.354,-4.82804e-08,0,2048,2048
289.401,-4.80704e-08,0,2048,2048
289.454,-4.78312e-08,0,2048,2048
289.501,-4.76172e-08,0,2048,2048
289.553,-4.73762e-08,0,2048,2048
289.6,-4.71628e-08,0,2048,2048
289.653,-4.69247e-08,0,2048,2048
289.706,-4.66895e-08,0,2048,2048
289.752,-4.64837e-08,0,2048,2048
289.805,-4.62562e-08,0,2048,2048
289.852,-4.60581e-08,0,2048,2048
289.905,-4.58404e-08,0,2048,2048
289.952,-4.56515e-08,0,2048,2048
290.004,-4.54446e-08,0,2048,2048
290.051,-4.52657e-08,0,2048,2048
290.104,-4.50701e-08,0,2048,2048
290.151,-4.49013e-08,0,2048,2048
290.204,-4.47169e-08,0,2048,2048
290.25,-4.45579e-08,0,2048,2048
290.303,-4.43841e-08,0,2048,2048
290.356,-4.42156e-08,0,2048,2048
290.403,-4.40699e-08,0,2048,2048
290.455,-4.39102e-08,0,2048,2048
290.502,-4.37717e-08,0,2048,2048
290.555,-4.36193e-08,0,2048,2048
290.602,-4.34866e-08,0,2048,2048
290.655,-4.33397e-08,0,2048,2048
290.701,-4.32111e-08,0,2048,2048
290.754,-4.30679e-08,0,2048,2048
290.801,-4.29417e-08,0,2048,2048
290.854,-4.28004e-08,0,2048,2048
290.901,-4.2675e-08,0,2048,2048
290.953,-4.25336e-08,0,2048,2048
291,-4.24073e-08,0,2048,2048
291.053,-4.22641e-08,0,2048,2048
291.106,-4.21193e-08,0,2048,2048
291.153,-4.19888e-08,0,2048,2048
291.205,-4.18397e-08,0,2048,2048
291.252,-4.17048e-08,0,2048,2048
291.305,-4.15499e-08,0,2048,2048
291.352,-4.14092e-08,0,2048,2048
291.405,-4.12472e-08,0,2048,2048
291.451,-4.10996e-08,0,2048,2048
291.504,-4.09292e-08,0,2048,2048
291.551,-4.07735e-08,0,2048,2048
291.604,-4.05934e-08,0,2048,2048
291.651,-4.04285e-08,0,2048,2048
291.703,-4.02372e-08,0,2048,2048
291.75,-4.00618e-08,0,2048,2048
291.803,-3.98579e-08,0,2048,2048
291.856,-3.96465e-08,0,2048,2048
291.902,-3.9452e-08,0,2048,2048
291.955,-3.9225e-08,0,2048,2048
292.002,-3.90155e-08,0,2048,2048
292.055,-3.87705e-08,0,2048,2048
292.102,-3.85436e-08,0,2048,2048
292.154,-3.82772e-08,0,2048,2048
292.201,-3.80296e-08,0,2048,2048
292.254,-3.77378e-08,0,2048,2048
292.301,-3.74655e-08,0,2048,2048
292.354,-3.71433e-08,0,2048,2048
292.4,-3.68413e-08,0,2048,2048
292.453,-3.64824e-08,0,2048,2048
292.5,-3.61448e-08,0,2048,2048
292.553,-3.57422e-08,0,2048,2048
292.606,-3.53133e-08,0,2048,2048
292.652,-3.49083e-08,0,2048,2048
292.705,-3.4424e-08,0,2048,2048
292.752,-3.39664e-08,0,2048,2048
292.805,-3.34193e-08,0,2048,2048
292.852,-3.2903e-08,0,2048,2048
292.904,-3.22872e-08,0,2048,2048
292.951,-3.17077e-08,0,2048,2048
293.004,-3.10192e-08,0,2048,2048
293.051,-3.03742e-08,0,2048,2048
293.103,-2.96118e-08,0,2048,2048
293.15,-2.89017e-08,0,2048,2048
293.203,-2.80674e-08,0,2048,2048
293.256,-2.71968e-08,0,2048,2048
293.303,-2.63941e-08,0,2048,2048
293.355,-2.54605e-08,0,2048,2048
293.402,-2.46054e-08,0,2048,2048
293.455,-2.36177e-08,0,2048,2048
293.502,-2.27191e-08,0,2048,2048
293.555,-2.16879e-08,0,2048,2048
293.601,-2.07556e-08,0,2048,2048
293.654,-1.96922e-08,0,2048,2048
293.701,-1.87364e-08,0,2048,2048
293.754,-1.76523e-08,0,2048,2048
293.801,-1.66832e-08,0,2048,2048
293.853,-1.55895e-08,0,2048,2048
293.9,-1.46167e-08,0,2048,2048
293.953,-1.35239e-08,0,2048,2048
294.006,-1.24357e-08,0,2048,2048
294.053,-1.14743e-08,0,2048,2048
294.105,-1.04018e-08,0,2048,2048
294.152,-9.45838e-09,0,2048,2048
294.205,-8.41051e-09,0,2048,2048
294.252,-7.49293e-09,0,2048,2048
294.304,-6.47844e-09,0,2048,2048
294.351,-5.59433e-09,0,2048,2048
294.404,-4.62175e-09,0,2048,2048
294.451,-3.77867e-09,0,2048,2048
294.504,-2.85645e-09,0,2040,2040
294.551,-2.06182e-09,0,2048,2048
294.603,-1.19819e-09,0,2048,2048
294.65,-4.59189e-10,0,2048,2048
294.703,3.38045e-10,0,2048,2048
294.756,1.09819e-09,0,2048,2048
294.802,1.74468e-09,0,2048,2048
294.855,2.43328e-09,0,2048,2048
294.902,3.00065e-09,0,2048,2048
294.955,3.59043e-09,0,2048,2048
295.002,4.07504e-09,0,2048,2048
295.054,4.58199e-09,0,2048,2048
295.101,5.00291e-09,0,2048,2048
295.154,5.43936e-09,0,2048,2048
295.201,5.79023e-09,0,2048,2048
295.254,6.14255e-09,0,2048,2048
295.3,6.41944e-09,0,2048,2048
295.353,6.69202e-09,0,2048,2048
295.4,6.9013e-09,0,2048,2048
295.453,7.10176e-09,0,2048,2048
295.505,7.26777e-09,0,2048,2048
295.552,7.38874e-09,0,2048,2048
295.605,7.49749e-09,0,2048,2048
295.652,7.57201e-09,0,2048,2048
295.705,7.6333e-09,0,2048,2048
295.752,7.66964e-09,0,2048,2048
295.804,7.69212e-09,0,2048,2048
295.851,7.69724e-09,0,2048,2048
295.904,7.68782e-09,0,2048,2048
295.951,7.66704e-09,0,2048,2048
296.003,7.63077e-09,0,2048,2048
296.05,7.58782e-09,0,2048,2048
296.103,7.52815e-09,0,2048,2048
296.156,7.45711e-09,0,2048,2048
296.203,7.3849e-09,0,2048,2048
296.255,7.29401e-09,0,2048,2048
296.302,7.20518e-09,0,2048,2048
296.355,7.09688e-09,0,2048,2048
296.402,6.9939e-09,0,2048,2048
296.455,6.87148e-09,0,2048,2048
296.501,6.7578e-09,0,2048,2048
296.554,6.62569e-09,0,2048,2048
296.601,6.50568e-09,0,2048,2048
296.654,6.36919e-09,0,2048,2048
296.701,6.24778e-09,0,2048,2048
296.753,6.11251e-09,0,2048,2048
296.8,5.99456e-09,0,2048,2048
296.853,5.86562e-09,0,2048,2048
296.906,5.74172e-09,0,2048,2048
296.953,5.63652e-09,0,2048,2048
297.005,5.52433e-09,0,2048,2048
297.052,5.43037e-09,0,2048,2048
297.105,5.3313e-09,0,2048,2048
297.152,5.2491e-09,0,2048,2048
297.204,5.16298e-09,0,2048,2048
297.251,5.09175e-09,0,2048,2048
297.304,5.0171e-09,0,2048,2048
297.351,4.95512e-09,0,2048,2048
297.404,4.88968e-09,0,2048,2048
297.451,4.83477e-09,0,2048,2048
297.503,4.77603e-09,0,2048,2048
297.55,4.72605e-09,0,2048,2048
297.603,4.67184e-09,0,2048,2048
297.656,4.61938e-09,0,2048,2048
297.702,4.57398e-09,0,2048,2048
297.755,4.5242e-09,0,2048,2048
297.802,4.48111e-09,0,2048,2048
297.855,4.43411e-09,0,2048,2048
297.902,4.3939e-09,0,2048,2048
297.954,4.35082e-09,0,2048,2048
298.001,4.31491e-09,0,2048,2048
298.054,4.27776e-09,0,2048,2048
298.101,4.24819e-09,0,2048,2048
298.154,4.21948e-09,0,2048,2048
298.2,4.19859e-09,0,2048,2048
298.253,4.18094e-09,0,2048,2048
298.306,4.17007e-09,0,2048,2048
298.353,4.16651e-09,0,2048,2048
298.405,4.16971e-09,0,2048,2048
298.452,4.17911e-09,0,2048,2048
298.505,4.19709e-09,0,2048,2048
298.552,4.21951e-09,0,2048,2048
298.605,4.25163e-09,0,2048,2048
298.652,4.28588e-09,0,2048,2048
298.704,4.33018e-09,0,2048,2048
298.751,4.37398e-09,0,2048,2048
298.804,4.42736e-09,0,2048,2048
298.851,4.47761e-09,0,2048,2048
298.903,4.53628e-09,0,2048,2048
298.95,4.58946e-09,0,2048,2048
299.003,4.64945e-09,0,2048,2048
299.056,4.70863e-09,0,2048,2048
299.103,4.75979e-09,0,2048,2048
299.155,4.81496e-09,0,2048,2048
299.202,4.86133e-09,0,2048,2048
299.255,4.90997e-09,0,2048,2048
299.302,4.94971e-09,0,2048,2048
299.355,4.99019e-09,0,2048,2048
299.401,5.02226e-09,0,2048,2048
299.454,5.05383e-09,0,2048,2048
299.501,5.07787e-09,0,2048,2048
299.554,5.10044e-09,0,2048,2048
299.601,5.11662e-09,0,2048,2048
299.653,5.13057e-09,0,2048,2048
299.7,5.13935e-09,0,2048,2048
299.753,5.14534e-09,0,2048,2048
299.806,5.14741e-09,0,2048,2048
299.852,5.14613e-09,0,2048,2048
299.905,5.14138e-09,0,2048,2048
299.952,5.13437e-09,0,2048,2048
300.005,5.12353e-09,0,2048,2048
300.052,5.11142e-09,0,2048,2048
300.104,5.09519e-09,0,2048,2048
300.151,5.07858e-09,0,2048,2048
300.204,5.05759e-09,0,2048,2048
300.251,5.03704e-09,0,2048,2048
300.304,5.01194e-09,0,2048,2048
300.35,4.98799e-09,0,2048,2048
300.403,4.95936e-09,0,2048,2048
300.45,4.93255e-09,0,2048,2048
300.503,4.90097e-09,0,2048,2048
300.556,4.86804e-09,0,2048,2048
300.602,4.83775e-09,0,2044,2044
300.655,4.80263e-09,0,2044,2044
300.702,4.77058e-09,0,2048,2048
300.755,4.73367e-09,0,2048,2048
300.802,4.70017e-09,0,2044,2044
300.854,4.66176e-09,0,2040,2040
300.901,4.62704e-09,0,2040,2040
300.954,4.58734e-09,0,2044,2044
301.001,4.55153e-09,0,2036,2036
301.053,4.51067e-09,0,2032,2032
301.1,4.47386e-09,0,2036,2036
301.153,4.43188e-09,0,2032,2032
301.206,4.38931e-09,0,2032,2032
301.253,4.35098e-09,0,2040,2040
301.305,4.30729e-09,0,2044,2044
301.352,4.26793e-09,0,2048,2048
301.405,4.22307e-09,0,2048,2048
301.452,4.18266e-09,0,2044,2044
301.505,4.13659e-09,0,2040,2040
301.551,4.0951e-09,0,2040,2040
301.604,4.04779e-09,0,2044,2044
301.651,4.0052e-09,0,2040,2040
301.704,3.95666e-09,0,2040,2040
301.751,3.91297e-09,0,2044,2044
301.803,3.86321e-09,0,2040,2040
301.85,3.81847e-09,0,2040,2040
301.903,3.76755e-09,0,2040,2040
301.956,3.71606e-09,0,2044,2044
302.003,3.66982e-09,0,2040,2040
302.055,3.6173e-09,0,2040,2040
302.102,3.57021e-09,0,2044,2044
302.155,3.5168e-09,0,2040,2040
302.202,3.46898e-09,0,2040,2040
302.254,3.41482e-09,0,2044,2044
302.301,3.36641e-09,0,2044,2044
302.354,3.31167e-09,0,2044,2044
302.401,3.26281e-09,0,2044,2044
302.454,3.20766e-09,0,2040,2040
302.501,3.15852e-09,0,2032,2032
302.553,3.10314e-09,0,2024,2024
302.6,3.05387e-09,0,2028,2028
302.653,2.99843e-09,0,2028,2028
302.706,2.94303e-09,0,2022,2022
302.752,2.89385e-09,0,2018,2018
302.805,2.83864e-09,0,2020,2020
302.852,2.78971e-09,0,2020,2020
302.905,2.73484e-09,0,2024,2024
302.952,2.68626e-09,0,2028,2028
303.004,2.63186e-09,0,2032,2032
303.051,2.58375e-09,0,2031,2031
303.104,2.52993e-09,0,2039,2039
303.151,2.48238e-09,0,2039,2039
303.204,2.42923e-09,0,2048,2048
303.25,2.3823e-09,0,2048,2048
303.303,2.32989e-09,0,2048,2048
303.35,2.28364e-09,0,2048,2048
303.403,2.23203e-09,0,2048,2048
303.455,2.18085e-09,0,2048,2048
303.502,2.13574e-09,0,2048,2048
303.555,2.08542e-09,0,2048,2048
303.602,2.04108e-09,0,2048,2048
303.655,1.99164e-09,0,2048,2048
303.702,1.94809e-09,0,2048,2048
303.754,1.89954e-09,0,2048,2048
303.801,1.85679e-09,0,2048,2048
303.854,1.80914e-09,0,2048,2048
303.901,1.76718e-09,0,2048,2048
303.953,1.72042e-09,0,2048,2048
304,1.67925e-09,0,2048,2048
304.053,1.63335e-09,0,2048,2048
304.106,1.58791e-09,0,2048,2048
304.153,1.54789e-09,0,2048,2048
304.205,1.50327e-09,0,2048,2048
304.252,1.46396e-09,0,2048,2048
304.305,1.42013e-09,0,2048,2048
304.352,1.3815e-09,0,2048,2048
304.405,1.33842e-09,0,2048,2048
304.451,1.30044e-09,0,2048,2048
304.504,1.25806e-09,0,2048,2048
304.551,1.22069e-09,0,2048,2048
304.604,1.17898e-09,0,2048,2048
304.651,1.14219e-09,0,2048,2048
304.703,1.10111e-09,0,2048,2048
304.75,1.06487e-09,0,2048,2048
304.803,1.02441e-09,0,2048,2048
304.856,9.84257e-10,0,2048,2048
304.903,9.48829e-10,0,2048,2048
304.955,9.09264e-10,0,2048,2048
