250,0,0,512,512
250.012,0,0,512,512
250.059,0,0,512,512
250.105,0,0,512,512
250.152,0,0,512,512
250.211,0,0,512,512
250.258,0,0,512,512
250.305,0,0,512,512
250.352,0,0,512,512
250.41,0,0,512,512
250.457,0,0,512,512
250.504,0,0,512,512
250.551,0,0,512,512
250.609,0,0,512,512
250.656,0,0,512,512
250.703,0,0,512,512
250.762,0,0,512,512
250.808,0,0,512,512
250.855,0,0,512,512
250.902,0,0,512,512
250.961,0,0,512,512
251.008,0,0,512,512
251.055,0,0,512,512
251.101,0,0,512,512
251.16,0,0,512,512
251.207,0,0,512,512
251.254,0,0,512,512
251.301,0,0,512,512
251.359,0,0,512,512
251.406,0,0,512,512
251.453,0,0,512,512
251.511,0,0,512,512
251.558,0,0,512,512
251.605,0,0,512,512
251.652,0,0,512,512
251.711,0,0,512,512
251.758,0,0,512,512
251.804,0,0,512,512
251.851,0,0,512,512
251.91,0,0,512,512
251.957,0,0,512,512
252.004,0,0,512,512
252.05,0,0,512,512
252.109,0,0,512,512
252.156,0,0,512,512
252.203,0,0,512,512
252.261,0,0,512,512
252.308,0,0,512,512
252.355,0,0,512,512
252.402,0,0,512,512
252.461,0,0,512,512
252.507,0,0,512,512
252.554,0,0,512,512
252.601,0,0,512,512
252.66,0,0,512,512
252.707,0,0,512,512
252.754,0,0,512,512
252.8,0,0,512,512
252.859,0,0,512,512
252.906,0,0,512,512
252.953,0,0,512,512
253.011,0,0,512,512
253.058,0,0,512,512
253.105,0,0,512,512
253.152,0,0,512,512
253.21,0,0,512,512
253.257,0,0,512,512
253.304,0,0,512,512
253.351,0,0,512,512
253.41,0,0,512,512
253.457,0,0,512,512
253.503,0,0,512,512
253.55,0,0,512,512
253.609,0,0,512,512
253.656,0,0,512,512
253.703,0,0,512,512
253.761,0,0,512,512
253.808,0,0,512,512
253.855,0,0,512,512
253.902,0,0,512,512
253.96,0,0,512,512
254.007,0,0,512,512
254.054,0,0,512,512
254.101,0,0,512,512
254.16,0,0,512,512
254.206,0,0,512,512
254.253,0,0,512,512
254.3,0,0,512,512
254.359,0,0,512,512
254.406,0,0,512,512
254.452,0,0,512,512
254.511,0,0,512,512
254.558,0,0,512,512
254.605,0,0,512,512
254.652,0,0,512,512
254.71,0,0,512,512
254.757,0,0,512,512
254.804,0,0,512,512
254.851,0,0,512,512
254.909,0,0,512,512
254.956,0,0,512,512
255.003,0,0,512,512
255.05,0,0,512,512
255.109,0,0,512,512
255.155,0,0,512,512
255.202,0,0,512,512
255.261,0,0,512,512
255.308,0,0,512,512
255.355,0,0,512,512
255.402,0,0,512,512
255.46,0,0,512,512
255.507,0,0,512,512
255.554,0,0,512,512
255.601,0,0,512,512
255.659,0,0,512,512
255.706,0,0,512,512
255.753,0,0,512,512
255.812,0,0,512,512
255.859,0,0,512,512
255.905,0,0,512,512
255.952,0,0,512,512
256.011,0,0,512,512
256.058,0,0,512,512
256.105,0,0,512,512
256.151,0,0,512,512
256.21,0,0,512,512
256.257,0,0,512,512
256.304,0,0,512,512
256.351,0,0,512,512
256.409,0,0,512,512
256.456,0,0,512,512
256.503,0,0,512,512
256.562,0,0,512,512
256.608,0,0,512,512
256.655,0,0,512,512
256.702,0,0,512,512
256.761,0,0,512,512
256.808,0,0,512,512
256.854,0,0,512,512
256.901,0,0,512,512
256.96,0,0,512,512
257.007,0,0,512,512
257.054,0,0,512,512
257.101,0,0,512,512
257.159,0,0,512,512
257.206,0,0,512,512
257.253,0,0,512,512
257.311,0,0,512,512
257.358,0,0,512,512
257.405,0,0,512,512
257.452,0,0,512,512
257.511,0,0,512,512
257.557,0,0,512,512
257.604,0,0,512,512
257.651,0,0,512,512
257.71,0,0,512,512
257.757,0,0,512,512
257.804,0,0,512,512
257.85,0,0,512,512
257.909,0,0,512,512
257.956,0,0,512,512
258.003,0,0,512,512
258.061,0,0,512,512
258.108,0,0,512,512
258.155,0,0,512,512
258.202,0,0,512,512
258.261,0,0,512,512
258.307,0,0,512,512
258.354,0,0,512,512
258.401,0,0,512,512
258.46,0,0,512,512
258.507,0,0,512,512
258.553,0,0,512,512
258.6,0,0,512,512
258.659,0,0,512,512
258.706,0,0,512,512
258.753,0,0,512,512
258.811,0,0,512,512
258.858,0,0,512,512
258.905,0,0,512,512
258.952,0,0,512,512
259.01,0,0,512,512
259.057,0,0,512,512
259.104,0,0,512,512
259.151,0,0,512,512
259.21,0,0,512,512
259.256,0,0,512,512
259.303,0,0,512,512
259.35,0,0,512,512
259.409,0,0,512,512
259.456,0,0,512,512
259.503,0,0,512,512
259.561,0,0,512,512
259.608,0,0,512,512
259.655,0,0,512,512
259.702,0,0,512,512
259.76,0,0,512,512
259.807,0,0,512,512
259.854,0,0,512,512
259.901,0,0,512,512
259.959,0,0,512,512
260.006,0,0,512,512
260.053,0,0,512,512
260.1,0,0,512,512
260.159,0,0,512,512
260.206,0,0,512,512
260.252,-5.55112e-17,0,512,512
260.311,-5.55112e-17,0,512,512
260.358,-5.55112e-17,0,512,512
260.405,-5.55112e-17,0,512,512
260.452,-5.55112e-17,0,512,512
260.51,-2.77556e-17,0,512,512
260.557,-2.77556e-17,0,512,512
260.604,-2.77556e-17,0,512,512
260.651,-2.77556e-17,0,512,512
260.709,-2.77556e-17,0,512,512
260.756,-2.77556e-17,0,512,512
260.803,-2.77556e-17,0,512,512
260.862,-2.77556e-17,0,512,512
260.909,-2.77556e-17,0,512,512
260.955,-2.77556e-17,0,512,512
261.002,-2.77556e-17,0,512,512
261.061,-2.77556e-17,0,512,512
261.108,-2.77556e-17,0,512,512
261.155,-2.77556e-17,0,512,512
261.201,-2.77556e-17,0,512,512
261.26,0,0,512,512
261.307,0,0,512,512
261.354,0,0,512,512
261.401,0,0,512,512
261.459,0,0,512,512
261.506,0,0,512,512
261.553,0,0,512,512
261.612,2.77556e-17,0,512,512
261.658,2.77556e-17,0,512,512
261.705,2.77556e-17,0,512,512
261.752,2.77556e-17,0,512,512
261.811,2.77556e-17,0,512,512
261.858,2.77556e-17,0,512,512
261.905,2.77556e-17,0,512,512
261.951,2.77556e-17,0,512,512
262.01,5.55112e-17,0,512,512
262.057,5.55112e-17,0,512,512
262.104,5.55112e-17,0,512,512
262.151,5.55112e-17,0,512,512
262.209,5.55112e-17,0,512,512
262.256,2.77556e-17,0,512,512
262.303,2.77556e-17,0,512,512
262.361,2.77556e-17,0,512,512
262.408,2.77556e-17,0,512,512
262.455,5.55112e-17,0,512,512
262.502,5.55112e-17,0,512,512
262.561,5.55112e-17,0,512,512
262.608,5.55112e-17,0,512,512
262.654,5.55112e-17,0,512,512
262.701,5.55112e-17,0,512,512
262.76,5.55112e-17,0,512,512
262.807,5.55112e-17,0,512,512
262.854,5.55112e-17,0,512,512
262.9,5.55112e-17,0,512,512
262.959,5.55112e-17,0,512,512
263.006,5.55112e-17,0,512,512
263.053,5.55112e-17,0,512,512
263.111,5.55112e-17,0,512,512
263.158,2.77556e-17,0,512,512
263.205,2.77556e-17,0,512,512
263.252,5.55112e-17,0,512,512
263.311,2.77556e-17,0,512,512
263.357,0,0,512,512
263.404,0,0,512,512
263.451,0,0,512,512
263.51,0,0,512,512
263.557,0,0,512,512
263.603,0,0,512,512
263.65,0,0,512,512
263.709,0,0,512,512
263.756,0,0,512,512
263.803,0,0,512,512
263.861,0,0,512,512
263.908,0,0,512,512
263.955,0,0,512,512
264.002,0,0,512,512
264.06,0,0,512,512
264.107,0,0,512,512
264.154,0,0,512,512
264.201,0,0,512,512
264.26,0,0,512,512
264.306,0,0,512,512
264.353,0,0,512,512
264.4,2.77556e-17,0,512,512
264.459,2.77556e-17,0,512,512
264.506,2.77556e-17,0,512,512
264.553,0,0,512,512
264.611,0,0,512,512
264.658,0,0,512,512
264.705,0,0,512,512
264.752,0,0,512,512
264.81,0,0,512,512
264.857,0,0,512,512
264.904,0,0,512,512
264.951,0,0,512,512
265.01,0,0,512,512
265.056,0,0,512,512
265.103,0,0,512,512
265.15,0,0,512,512
265.209,0,0,512,512
265.256,0,0,512,512
265.302,0,0,512,512
265.361,0,0,512,512
265.408,0,0,512,512
265.455,0,0,512,512
265.502,0,0,512,512
265.56,0,0,512,512
265.607,0,0,512,512
265.654,0,0,512,512
265.701,0,0,512,512
265.759,0,0,512,512
265.806,0,0,512,512
265.853,0,0,512,512
265.9,0,0,512,512
265.959,0,0,512,512
266.005,0,0,512,512
266.052,0,0,512,512
266.111,0,0,512,512
266.158,0,0,512,512
266.205,0,0,512,512
266.252,0,0,512,512
266.31,0,0,512,512
266.357,0,0,512,512
266.404,0,0,512,512
266.451,0,0,512,512
266.509,0,0,512,512
266.556,0,0,512,512
266.603,0,0,512,512
266.662,0,0,512,512
266.708,0,0,512,512
266.755,0,0,512,512
266.802,0,0,512,512
266.861,0,0,512,512
266.908,0,0,512,512
266.955,0,0,512,512
267.001,0,0,512,512
267.06,0,0,512,512
267.107,0,0,512,512
267.154,0,0,512,512
267.201,0,0,512,512
267.259,0,0,512,512
267.306,0,0,512,512
267.353,0,0,512,512
267.412,0,0,512,512
267.458,0,0,512,512
267.505,0,0,512,512
267.552,0,0,512,512
267.611,0,0,512,512
267.658,0,0,512,512
267.704,0,0,512,512
267.751,0,0,512,512
267.81,0,0,512,512
267.857,0,0,512,512
267.904,0,0,512,512
267.95,0,0,512,512
268.009,0,0,512,512
268.056,0,0,512,512
268.1,0,0,2489,2489
268.151,0,0,3407,3407
268.2,0,0,4325,4325
268.25,0,0,5297,5297
268.301,0,0,6227,6227
268.35,0,0,7127,7127
268.4,0,0,8099,8099
268.45,0,0,9035,9035
268.501,0,0,9935,9935
268.55,0,0,10907,10907
268.6,0,0,11795,11795
268.65,0,0,12737,12737
268.701,0,0,13709,13709
268.75,0,0,14597,14597
268.8,0,0,15545,15545
268.851,0,0,16517,16517
268.9,0,0,17399,17399
268.95,0,0,18315,18315
269,0,0,19235,19235
269.051,0,0,20207,20207
269.1,0,0,21107,21107
269.15,0,0,22037,22037
269.201,0,0,22937,22937
269.251,0,0,23909,23909
269.3,0,0,24797,24797
269.35,0,0,25745,25745
269.401,0,0,26627,26627
269.45,0,0,27599,27599
269.5,0,0,28499,28499
269.55,0,0,29435,29435
269.601,0,0,30335,30335
269.65,0,0,31307,31307
269.7,0,0,32189,32189
269.751,0,0,33109,33109
269.8,0,0,34025,34025
269.85,0,0,34925,34925
269.9,0,0,35807,35807
269.951,0,0,36707,36707
270,0,0,37671,37671
270.05,0,0,38567,38567
270.101,0,0,39467,39467
270.151,0,0,40349,40349
270.2,0,0,41233,41233
270.25,0,0,42065,42065
270.301,0,0,42947,42947
270.35,0,0,43847,43847
270.4,0,0,44735,44735
270.45,0,0,45587,45587
270.501,0,0,46469,46469
270.55,0,0,47369,47369
270.6,0,0,48185,48185
270.651,0,0,49067,49067
270.7,0,0,49919,49919
270.75,0,0,50807,50807
270.8,0,0,51617,51617
270.851,0,0,52469,52469
270.9,0,0,53341,53341
270.95,0,0,54167,54167
271,0,0,55019,55019
271.051,0,0,55835,55835
271.1,0,0,56669,56669
271.15,0,0,57485,57485
271.201,0,0,58337,58337
271.25,0,0,59147,59147
271.3,0,0,59987,59987
271.35,0,0,60797,60797
271.401,0,0,61649,61649
271.45,0,0,62417,62417
271.5,0,0,63227,63227
271.551,0,0,64067,64067
271.6,8.04912e-16,0,64829,64829
271.65,2.47025e-15,0,65645,65645
271.7,4.35763e-15,0,66407,66407
271.751,6.27276e-15,0,67259,67259
271.8,8.13238e-15,0,68027,68027
271.85,1.00198e-14,0,68789,68789
271.9,1.19071e-14,0,69605,69605
271.951,1.38223e-14,0,70367,70367
272,1.57097e-14,0,71135,71135
272.05,1.7597e-14,0,71897,71897
272.101,1.95122e-14,0,72737,72737
272.15,2.13995e-14,0,73499,73499
272.2,2.32869e-14,0,74267,74267
272.25,2.51743e-14,0,75029,75029
272.301,2.70894e-14,0,75797,75797
272.35,2.89768e-14,0,76547,76547
272.4,3.08642e-14,0,77255,77255
272.451,3.27793e-14,0,78017,78017
272.501,3.46667e-14,0,78785,78785
272.55,3.65541e-14,0,79547,79547
272.6,3.98848e-14,0,80267,80267
272.651,4.37705e-14,0,81029,81029
272.7,4.91551e-14,0,81757,81757
272.75,5.51226e-14,0,82475,82475
272.8,6.2117e-14,0,83189,83189
272.851,1.01946e-13,0,83957,83957
272.9,7.83651e-13,0,84647,84647
272.95,-5.97342e-12,0,85379,85379
273.001,-7.91346e-11,0,86129,86129
273.05,-2.8763e-10,0,86807,86807
273.1,-4.98968e-10,0,87527,87527
273.15,-4.63583e-10,0,88289,88289
273.201,-1.64218e-10,0,88985,88985
273.25,1.82746e-10,0,89699,89699
273.3,3.69445e-10,0,90407,90407
273.351,2.97699e-10,0,91145,91145
273.401,5.39001e-11,0,91859,91859
273.45,-1.45632e-10,0,92555,92555
273.5,-1.26965e-10,0,93269,93269
273.551,8.94289e-11,0,93947,93947
273.6,2.95136e-10,0,94667,94667
273.65,3.09133e-10,0,95357,95357
273.7,1.35103e-10,0,96077,96077
273.751,-5.50491e-11,0,96755,96755
273.8,-8.46936e-11,0,97469,97469
273.85,5.41038e-11,0,98165,98165
273.901,2.28406e-10,0,98879,98879
273.95,2.89382e-10,0,99557,99557
274,2.08805e-10,0,100277,100277
274.05,6.4829e-11,0,100967,100967
274.101,-3.82814e-11,0,101687,101687
274.15,-3.3118e-11,0,102317,102317
274.2,8.28607e-11,0,103007,103007
274.251,2.5615e-10,0,103727,103727
274.301,3.61948e-10,0,104405,104405
274.35,2.73476e-10,0,105047,105047
274.4,-1.66824e-11,0,105767,105767
274.451,-2.9116e-10,0,106437,106437
274.5,-2.056e-10,0,107087,107087
274.55,3.23079e-10,0,107799,107799
274.6,8.64883e-10,0,108437,108437
274.651,7.06247e-10,0,109079,109079
274.7,-3.54358e-10,0,109337,109337
274.75,-1.40678e-09,0,110015,110015
274.801,-7.86895e-10,0,110729,110729
274.85,2.64917e-09,0,111377,111377
274.9,8.60923e-09,0,112055,112055
274.95,1.56381e-08,0,112769,112769
275.001,2.22222e-08,0,113465,113465
275.05,2.71802e-08,0,114179,114179
275.1,3.04062e-08,0,114809,114809
275.15,3.24562e-08,0,115505,115505
275.201,3.472e-08,0,116219,116219
275.25,3.88741e-08,0,116897,116897
275.3,4.61164e-08,0,117545,117545
275.351,5.66009e-08,0,118259,118259
275.4,6.92066e-08,0,118937,118937
275.45,8.3599e-08,0,119585,119585
275.5,1.00423e-07,0,120299,120299
275.551,1.21546e-07,0,120929,120929
275.6,1.48003e-07,0,121621,121621
275.65,1.81229e-07,0,122255,122255
275.701,2.22308e-07,0,122897,122897
275.751,2.69354e-07,0,123479,123479
275.8,3.20861e-07,0,124127,124127
275.85,3.74267e-07,0,124685,124685
275.901,4.2903e-07,0,125267,125267
275.95,4.84503e-07,0,125825,125825
276,5.43549e-07,0,126419,126419
276.05,6.06788e-07,0,127716,127716
276.101,6.72719e-07,0,128382,128382
276.15,7.34786e-07,0,128892,128892
276.2,7.89499e-07,0,129402,129402
276.251,8.34568e-07,0,129910,129910
276.3,8.67497e-07,0,130412,130412
276.35,8.8942e-07,0,130836,130836
276.4,9.0227e-07,0,130584,130584
276.451,9.08827e-07,0,131070,131070
276.5,9.11163e-07,0,131072,131072
276.55,9.10406e-07,0,131072,131072
276.601,9.06406e-07,0,131072,131072
276.651,8.98593e-07,0,131072,131072
276.7,8.8588e-07,0,131072,131072
276.75,8.67048e-07,0,131072,131072
276.801,8.40504e-07,0,131072,131072
276.85,8.06137e-07,0,131072,131072
276.9,7.63345e-07,0,131072,131072
276.95,7.13097e-07,0,131072,131072
277.001,6.57086e-07,0,131072,131072
277.05,6.00319e-07,0,131072,131072
277.1,5.44917e-07,0,131072,131072
277.151,4.91916e-07,0,131072,131072
277.2,4.43642e-07,0,131072,131072
277.25,3.994e-07,0,131072,131072
277.3,3.58782e-07,0,131072,131072
277.351,3.20564e-07,0,131072,131072
277.4,2.85134e-07,0,131072,131072
277.45,2.51365e-07,0,131072,131072
277.5,2.19121e-07,0,131072,131072
277.551,1.88693e-07,0,131072,131072
277.6,1.62615e-07,0,131072,131072
277.65,1.42016e-07,0,131072,131072
277.701,1.26655e-07,0,131072,131072
277.75,1.14656e-07,0,131072,131072
277.8,1.02656e-07,0,131072,131072
277.85,8.90423e-08,0,131072,131072
277.901,7.44421e-08,0,131072,131072
277.95,6.14458e-08,0,131072,131072
278,5.14512e-08,0,131072,131072
278.051,4.46242e-08,0,131072,131072
278.101,4.03463e-08,0,131072,131072
278.15,3.71626e-08,0,131072,131072
278.2,3.35578e-08,0,131072,131072
278.251,2.82958e-08,0,131072,131072
278.3,2.15612e-08,0,131072,131072
278.35,1.47065e-08,0,131072,131072
278.4,9.56885e-09,0,131072,131072
278.451,7.04486e-09,0,131072,131072
278.5,6.70285e-09,0,131072,131072
278.55,7.27622e-09,0,131072,131072
278.601,7.83316e-09,0,131072,131072
278.65,8.07925e-09,0,131072,131072
278.7,8.15775e-09,0,131072,131072
278.75,8.23265e-09,0,131072,131072
278.801,8.34822e-09,0,131072,131072
278.85,8.4535e-09,0,131072,131072
278.9,8.43086e-09,0,131072,131072
278.951,8.10247e-09,0,131072,131072
279.001,7.57813e-09,0,131072,131072
279.05,7.22181e-09,0,131072,131072
279.1,7.11615e-09,0,131072,131072
279.151,7.11404e-09,0,131072,131072
279.2,7.13061e-09,0,131072,131072
279.25,7.14889e-09,0,131072,131072
279.3,7.16715e-09,0,131072,131072
279.351,7.18544e-09,0,131072,131072
279.4,7.20329e-09,0,131072,131072
279.45,7.22119e-09,0,131072,131072
279.501,7.23961e-09,0,131072,131072
279.55,7.25807e-09,0,131072,131072
279.6,7.2766e-09,0,131072,131072
279.65,7.29486e-09,0,131072,131072
279.701,7.31291e-09,0,131072,131072
279.75,7.33047e-09,0,131072,131072
279.8,7.34845e-09,0,131072,131072
279.85,7.36723e-09,0,131072,131072
279.901,7.38667e-09,0,131072,131072
279.95,7.40511e-09,0,131072,131072
280,7.42234e-09,0,131072,131072
280.051,7.44051e-09,0,131072,131072
280.1,7.46381e-09,0,131072,131072
280.15,7.49757e-09,0,131072,131072
280.2,7.54271e-09,0,131072,131072
280.251,7.59362e-09,0,131072,131072
280.3,7.63992e-09,0,131072,131072
280.35,7.68606e-09,0,131072,131072
280.401,7.76204e-09,0,131072,131072
280.451,7.90971e-09,0,131072,131072
280.5,8.15559e-09,0,131072,131072
280.55,8.48118e-09,0,131072,131072
280.601,8.83771e-09,0,131072,131072
280.65,9.16612e-09,0,131072,131072
280.7,9.46928e-09,0,131072,131072
280.75,9.7973e-09,0,131072,131072
280.801,1.02284e-08,0,131072,131072
280.85,1.07982e-08,0,131072,131072
280.9,1.15158e-08,0,131072,131072
280.951,1.23743e-08,0,131072,131072
281,1.33449e-08,0,131072,131072
281.05,1.4474e-08,0,131072,131072
281.1,1.58195e-08,0,131072,131072
281.151,1.74508e-08,0,131072,131072
281.2,1.93273e-08,0,131072,131072
281.25,2.1449e-08,0,131072,131072
281.301,2.38328e-08,0,131072,131072
281.351,2.64151e-08,0,131072,131072
281.4,2.92554e-08,0,131072,131072
281.45,3.23771e-08,0,131072,131072
281.501,3.5827e-08,0,131072,131072
281.55,3.94585e-08,0,131072,131072
281.6,4.32438e-08,0,131072,131072
281.65,4.71096e-08,0,131072,131072
281.701,5.10813e-08,0,131072,131072
281.75,5.50685e-08,0,131072,131072
281.8,5.91751e-08,0,131072,131072
281.851,6.34608e-08,0,131072,131072
281.9,6.77054e-08,0,131072,131072
281.95,7.18441e-08,0,131072,131072
282,7.58793e-08,0,131072,131072
282.051,8.0144e-08,0,131072,131072
282.1,8.50175e-08,0,131072,131072
282.15,9.1036e-08,0,131072,131072
282.2,9.83449e-08,0,131072,131072
282.251,1.06735e-07,0,131072,131072
282.3,1.15264e-07,0,131072,131072
282.35,1.23317e-07,0,131072,131072
282.401,1.30558e-07,0,131072,131072
282.45,1.36837e-07,0,131072,131072
282.5,1.42814e-07,0,131072,131072
282.55,1.49324e-07,0,131072,131072
282.601,1.57315e-07,0,131072,131072
282.65,1.67112e-07,0,131072,131072
282.7,1.7906e-07,0,131072,131072
282.751,1.93509e-07,0,131072,131072
282.801,2.10334e-07,0,131072,131072
282.85,2.30336e-07,0,131072,131072
282.9,2.54351e-07,0,131072,131072
282.951,2.83632e-07,0,131072,131072
283,3.17737e-07,0,131072,131072
283.05,3.56835e-07,0,131072,131072
283.1,4.00097e-07,0,131072,131072
283.151,4.47067e-07,0,131072,131072
283.2,4.95364e-07,0,131072,131072
283.25,5.45119e-07,0,131072,131072
283.301,5.96934e-07,0,131072,131072
283.35,6.48977e-07,0,131072,131072
283.4,7.00892e-07,0,131072,131072
283.45,7.50617e-07,0,131072,131072
283.501,7.961e-07,0,131072,131072
283.55,8.33447e-07,0,131072,131072
283.6,8.61609e-07,0,131072,131072
283.651,8.8018e-07,0,131072,131072
283.701,8.89162e-07,0,131072,131072
283.75,8.90223e-07,0,131072,131072
283.8,8.84962e-07,0,131072,131072
283.851,8.74554e-07,0,131072,131072
283.9,8.60104e-07,0,131072,131072
283.95,8.41645e-07,0,131072,131072
284,8.18806e-07,0,131072,131072
284.051,7.90451e-07,0,131072,131072
284.1,7.56645e-07,0,131072,131072
284.15,7.16466e-07,0,131072,131072
284.201,6.69104e-07,0,131072,131072
284.25,6.16563e-07,0,131072,131072
284.3,5.59602e-07,0,131072,131072
284.35,5.00214e-07,0,131072,131072
284.401,4.39732e-07,0,131072,131072
284.45,3.81894e-07,0,131072,131072
284.5,3.27228e-07,0,131072,131072
284.551,2.75769e-07,0,131072,131072
284.601,2.29181e-07,0,131072,131072
284.65,1.86455e-07,0,131072,131072
284.7,1.47174e-07,0,131072,131072
284.751,1.10446e-07,0,131072,131072
284.8,7.71998e-08,0,131072,131072
284.85,4.70998e-08,0,131072,131072
284.9,2.06464e-08,0,131072,131072
284.951,-1.98085e-09,0,131072,131072
285,-2.00846e-08,0,131072,131072
285.05,-3.46478e-08,0,131072,131072
285.101,-4.69366e-08,0,131072,131072
285.15,-5.76566e-08,0,131072,131072
285.2,-6.74855e-08,0,131072,131072
285.25,-7.62194e-08,0,131072,131072
285.301,-8.33641e-08,0,131072,131072
285.35,-8.82372e-08,0,131072,131072
285.4,-9.09504e-08,0,131072,131072
285.45,-9.20045e-08,0,131072,131072
285.501,-9.21865e-08,0,131072,131072
285.55,-9.22189e-08,0,131072,131072
285.6,-9.24354e-08,0,131072,131072
285.651,-9.26501e-08,0,131072,131072
285.7,-9.23054e-08,0,131072,131072
285.75,-9.08596e-08,0,131072,131072
285.8,-8.80881e-08,0,131072,131072
285.851,-8.41145e-08,0,131072,131072
285.9,-7.95052e-08,0,131072,131072
285.95,-7.4666e-08,0,131072,131072
286.001,-6.98332e-08,0,131072,131072
286.051,-6.52849e-08,0,131072,131072
286.1,-6.09919e-08,0,131072,131072
286.15,-5.69798e-08,0,131072,131072
286.201,-5.32367e-08,0,131072,131072
286.25,-4.99077e-08,0,131072,131072
286.3,-4.69354e-08,0,131072,131072
286.35,-4.42747e-08,0,131072,131072
286.401,-4.18326e-08,0,131072,131072
286.45,-3.96429e-08,0,131072,131072
286.5,-3.7665e-08,0,131072,131072
286.551,-3.58865e-08,0,131072,131072
286.6,-3.43656e-08,0,131072,131072
286.65,-3.30689e-08,0,131072,131072
286.7,-3.19823e-08,0,131072,131072
286.751,-3.10763e-08,0,131072,131072
286.8,-3.03593e-08,0,131072,131072
286.85,-2.98001e-08,0,131072,131072
286.901,-2.93773e-08,0,131072,131072
286.951,-2.9086e-08,0,131072,131072
287,-2.89012e-08,0,131072,131072
287.05,-2.88049e-08,0,131072,131072
287.101,-2.87802e-08,0,131072,131072
287.15,-2.88134e-08,0,131072,131072
287.2,-2.88935e-08,0,131072,131072
287.25,-2.90131e-08,0,131072,131072
287.301,-2.91688e-08,0,131072,131072
287.35,-2.93497e-08,0,131072,131072
287.4,-2.95501e-08,0,131072,131072
287.451,-2.97651e-08,0,131072,131072
287.5,-2.99808e-08,0,131072,131072
287.55,-3.01946e-08,0,131072,131072
287.6,-3.04036e-08,0,131072,131072
287.651,-3.06096e-08,0,131072,131072
287.7,-3.08064e-08,0,131072,131072
287.75,-3.09957e-08,0,131072,131072
287.8,-3.11751e-08,0,131072,131072
287.851,-3.13428e-08,0,131072,131072
287.9,-3.14898e-08,0,131072,131072
287.95,-3.16153e-08,0,131072,131072
288.001,-3.17186e-08,0,131072,131072
288.05,-3.17962e-08,0,131072,131072
288.1,-3.18504e-08,0,131072,131072
288.15,-3.18824e-08,0,131072,131072
288.201,-3.18936e-08,0,131072,131072
288.25,-3.18853e-08,0,131072,131072
288.3,-3.18596e-08,0,131072,131072
288.351,-3.18176e-08,0,131072,131072
288.4,-3.17624e-08,0,131072,131072
288.45,-3.16951e-08,0,131072,131072
288.5,-3.16172e-08,0,131072,131072
288.551,-3.15287e-08,0,131072,131072
288.6,-3.14335e-08,0,131072,131072
288.65,-3.13319e-08,0,131072,131072
288.7,-3.1225e-08,0,131072,131072
288.751,-3.11121e-08,0,131072,131072
288.8,-3.09972e-08,0,131072,131072
288.85,-3.08791e-08,0,131072,131072
288.901,-3.07561e-08,0,131072,131072
288.95,-3.06322e-08,0,131072,131072
289,-3.05062e-08,0,131072,131072
289.05,-3.03789e-08,0,131072,131072
289.101,-3.02492e-08,0,131072,131072
289.15,-3.01216e-08,0,131072,131072
289.2,-2.99945e-08,0,131072,131072
289.251,-2.98657e-08,0,131072,131072
289.301,-2.9738e-08,0,131072,131072
289.35,-2.96083e-08,0,131072,131072
289.4,-2.94752e-08,0,131072,131072
289.451,-2.93349e-08,0,131072,131072
289.5,-2.91897e-08,0,131072,131072
289.55,-2.90351e-08,0,131072,131072
289.6,-2.88682e-08,0,131072,131072
289.651,-2.86827e-08,0,131072,131072
289.7,-2.84797e-08,0,131072,131072
289.75,-2.82529e-08,0,131072,131072
289.801,-2.79948e-08,0,131072,131072
289.85,-2.77104e-08,0,131072,131072
289.9,-2.73944e-08,0,131072,131072
289.95,-2.7046e-08,0,131072,131072
290.001,-2.66591e-08,0,131072,131072
290.05,-2.62459e-08,0,131072,131072
290.1,-2.5803e-08,0,131072,131072
290.151,-2.53272e-08,0,131072,131072
290.201,-2.4838e-08,0,131072,131072
290.25,-2.43363e-08,0,131072,131072
290.3,-2.38311e-08,0,131072,131072
290.351,-2.33245e-08,0,131072,131072
290.4,-2.28402e-08,0,131072,131072
290.45,-2.23789e-08,0,131072,131072
290.5,-2.19471e-08,0,131072,131072
290.551,-2.15444e-08,0,131072,131072
290.6,-2.1187e-08,0,131072,131072
290.65,-2.08721e-08,0,131072,131072
290.701,-2.05997e-08,0,131072,131072
290.75,-2.03805e-08,0,131072,131072
290.8,-2.02128e-08,0,131072,131072
290.85,-2.00979e-08,0,131072,131072
290.901,-2.00355e-08,0,131072,131072
290.95,-2.00262e-08,0,131072,131072
291,-2.00661e-08,0,131072,131072
291.05,-2.01512e-08,0,131072,131072
291.101,-2.02788e-08,0,131072,131072
291.15,-2.04395e-08,0,131072,131072
291.2,-2.06291e-08,0,131072,131072
291.251,-2.08451e-08,0,131072,131072
291.3,-2.10754e-08,0,131072,131072
291.35,-2.13172e-08,0,131072,131072
291.4,-2.15649e-08,0,131072,131072
291.451,-2.18166e-08,0,131072,131072
291.5,-2.20592e-08,0,131072,131072
291.55,-2.22908e-08,0,131072,131072
291.601,-2.25087e-08,0,131072,131072
291.651,-2.27016e-08,0,131072,131072
291.7,-2.2869e-08,0,131072,131072
291.75,-2.30087e-08,0,131072,131072
291.801,-2.31214e-08,0,131072,131072
291.85,-2.32044e-08,0,131072,131072
291.9,-2.32609e-08,0,131072,131072
291.95,-2.32924e-08,0,131072,131072
292.001,-2.33e-08,0,131072,131072
292.05,-2.32848e-08,0,131072,131072
292.1,-2.32488e-08,0,131072,131072
292.151,-2.3193e-08,0,131072,131072
292.2,-2.31216e-08,0,131072,131072
292.25,-2.30365e-08,0,131072,131072
292.3,-2.29399e-08,0,131072,131072
292.351,-2.28319e-08,0,131072,131072
292.4,-2.27166e-08,0,131072,131072
292.45,-2.2593e-08,0,131072,131072
292.501,-2.24595e-08,0,131072,131072
292.551,-2.23206e-08,0,131072,131072
292.6,-2.21753e-08,0,131072,131072
292.65,-2.20249e-08,0,131072,131072
292.701,-2.18682e-08,0,131072,131072
292.75,-2.17106e-08,0,131072,131072
292.8,-2.1551e-08,0,131072,131072
292.85,-2.13901e-08,0,131072,131072
292.901,-2.1227e-08,0,131072,131072
292.95,-2.10677e-08,0,131072,131072
293,-2.09113e-08,0,131072,131072
293.051,-2.0757e-08,0,131072,131072
293.1,-2.06101e-08,0,131072,131072
293.15,-2.04687e-08,0,131072,131072
293.2,-2.03331e-08,0,131072,131072
293.251,-2.02023e-08,0,131072,131072
293.3,-2.0081e-08,0,131072,131072
293.35,-1.99687e-08,0,131072,131072
293.4,-1.98663e-08,0,131072,131072
293.451,-1.97727e-08,0,131072,131072
293.5,-1.96894e-08,0,131072,131072
293.55,-1.96131e-08,0,131072,131072
293.601,-1.95401e-08,0,131072,131072
293.65,-1.94705e-08,0,131072,131072
293.7,-1.94016e-08,0,131072,131072
293.75,-1.93327e-08,0,131072,131072
293.801,-1.92632e-08,0,131072,131072
293.85,-1.91957e-08,0,131072,131072
293.9,-1.913e-08,0,131072,131072
293.951,-1.90658e-08,0,131072,131072
294,-1.9005e-08,0,131072,131072
294.05,-1.89463e-08,0,131072,131072
294.1,-1.88886e-08,0,131072,131072
294.151,-1.88295e-08,0,131072,131072
294.2,-1.87692e-08,0,131072,131072
294.25,-1.87052e-08,0,131072,131072
294.3,-1.86366e-08,0,131072,131072
294.351,-1.85622e-08,0,131072,131072
294.4,-1.84845e-08,0,131072,131072
294.45,-1.84035e-08,0,131072,131072
294.501,-1.83191e-08,0,131072,131072
294.55,-1.82346e-08,0,131072,131072
294.6,-1.81494e-08,0,131072,131072
294.65,-1.80637e-08,0,131072,131072
294.701,-1.79759e-08,0,131072,131072
294.75,-1.7888e-08,0,131072,131072
294.8,-1.77982e-08,0,131072,131072
294.851,-1.77051e-08,0,131072,131072
294.901,-1.76115e-08,0,131072,131072
294.95,-1.75169e-08,0,131072,131072
295,-1.74217e-08,0,131072,131072
295.051,-1.73244e-08,0,131072,131072
295.1,-1.72274e-08,0,131072,131072
295.15,-1.7128e-08,0,131072,131072
295.2,-1.70253e-08,0,131072,131072
295.251,-1.69171e-08,0,131072,131072
295.3,-1.68066e-08,0,131072,131072
295.35,-1.66925e-08,0,131072,131072
295.401,-1.65734e-08,0,131072,131072
295.45,-1.64526e-08,0,131072,131072
295.5,-1.63279e-08,0,131072,131072
295.55,-1.61982e-08,0,131072,131072
295.601,-1.60609e-08,0,131072,131072
295.65,-1.59195e-08,0,131072,131072
295.7,-1.5772e-08,0,131072,131072
295.751,-1.56168e-08,0,131072,131072
295.801,-1.54586e-08,0,131072,131072
295.85,-1.52958e-08,0,131072,131072
295.9,-1.51282e-08,0,131072,131072
295.951,-1.49533e-08,0,131072,131072
296,-1.47758e-08,0,131072,131072
296.05,-1.45929e-08,0,131072,131072
296.1,-1.44045e-08,0,131072,131072
296.151,-1.42072e-08,0,131072,131072
296.2,-1.40064e-08,0,131072,131072
296.25,-1.3799e-08,0,131072,131072
296.301,-1.35817e-08,0,131072,131072
296.35,-1.3361e-08,0,131072,131072
296.4,-1.31341e-08,0,131072,131072
296.45,-1.29014e-08,0,131072,131072
296.501,-1.26596e-08,0,131072,131072
296.55,-1.24155e-08,0,131072,131072
296.6,-1.21653e-08,0,131072,131072
296.65,-1.19082e-08,0,131072,131072
296.701,-1.1639e-08,0,131072,131072
296.75,-1.1364e-08,0,131072,131072
296.8,-1.10776e-08,0,131072,131072
296.851,-1.07732e-08,0,131072,131072
296.9,-1.04569e-08,0,131072,131072
296.95,-1.0122e-08,0,131072,131072
297,-9.76538e-09,0,131072,131072
297.051,-9.3786e-09,0,131072,131072
297.1,-8.9703e-09,0,131072,131072
297.15,-8.53298e-09,0,131072,131072
297.201,-8.05797e-09,0,131072,131072
297.251,-7.55802e-09,0,131072,131072
297.3,-7.02612e-09,0,131072,131072
297.35,-6.46257e-09,0,131072,131072
297.401,-5.85962e-09,0,131072,131072
297.45,-5.23705e-09,0,131072,131072
297.5,-4.58981e-09,0,131072,131072
297.55,-3.92255e-09,0,131072,131072
297.601,-3.23075e-09,0,131072,131072
297.65,-2.54072e-09,0,131072,131072
297.7,-1.84882e-09,0,131072,131072
297.751,-1.151e-09,0,131072,131072
297.8,-4.72988e-10,0,131072,131072
297.85,1.90644e-10,0,131072,131072
297.9,8.35767e-10,0,131072,131072
297.951,1.46765e-09,0,131072,131072
298,2.06443e-09,0,131072,131072
298.05,2.63191e-09,0,131072,131072
298.101,3.17405e-09,0,131072,131072
298.151,3.67143e-09,0,131072,131072
298.2,4.12864e-09,0,131072,131072
298.25,4.54258e-09,0,131072,131072
298.301,4.91592e-09,0,131072,131072
298.35,5.23645e-09,0,131072,131072
298.4,5.50965e-09,0,131072,131072
298.45,5.73639e-09,0,131072,131072
298.501,5.92089e-09,0,131072,131072
298.55,6.06043e-09,0,131072,131072
298.6,6.1611e-09,0,131072,131072
298.651,6.22686e-09,0,131072,131072
298.7,6.25914e-09,0,131072,131072
298.75,6.26234e-09,0,131072,131072
298.8,6.23959e-09,0,131072,131072
298.851,6.19319e-09,0,131072,131072
298.9,6.12762e-09,0,131072,131072
298.95,6.04549e-09,0,131072,131072
299,5.94979e-09,0,131072,131072
299.051,5.84166e-09,0,131072,131072
299.1,5.72668e-09,0,131072,131072
299.15,5.60544e-09,0,131072,131072
299.201,5.47785e-09,0,131072,131072
299.25,5.34928e-09,0,131072,131072
299.3,5.21941e-09,0,131072,131072
299.35,5.08964e-09,0,131072,131072
299.401,4.95928e-09,0,131072,131072
299.45,4.83301e-09,0,131072,131072
299.5,4.70957e-09,0,131072,131072
299.551,4.5877e-09,0,131072,131072
299.601,4.47141e-09,0,131072,131072
299.65,4.35955e-09,0,131072,131072
299.7,4.25292e-09,0,131072,131072
299.751,4.15098e-09,0,131072,131072
299.8,4.05755e-09,0,131072,131072
299.85,3.97172e-09,0,131072,131072
299.9,3.89388e-09,0,131072,131072
299.951,3.82317e-09,0,131072,131072
300,3.76157e-09,0,131072,131072
300.05,3.70782e-09,0,131072,131072
300.101,3.66097e-09,0,131072,131072
300.15,3.62187e-09,0,131072,131072
300.2,3.58904e-09,0,131072,131072
300.25,3.5615e-09,0,131072,131072
300.301,3.53782e-09,0,131072,131072
300.35,3.51757e-09,0,131072,131072
300.4,3.49946e-09,0,131072,131072
300.451,3.4825e-09,0,131072,131072
300.501,3.46659e-09,0,131072,131072
300.55,3.45083e-09,0,131072,131072
300.6,3.43442e-09,0,131072,131072
300.651,3.41617e-09,0,131072,131072
300.7,3.39572e-09,0,131072,131072
300.75,3.37229e-09,0,131072,131072
300.8,3.3459e-09,0,131072,131072
300.851,3.31673e-09,0,131072,131072
300.9,3.28672e-09,0,131072,131072
300.95,3.25665e-09,0,131072,131072
301.001,3.22714e-09,0,131072,131072
301.05,3.19962e-09,0,131072,131072
301.1,3.17367e-09,0,131072,131072
301.15,3.14887e-09,0,131072,131072
301.201,3.12415e-09,0,131072,131072
301.25,3.09953e-09,0,131072,131072
301.3,3.07413e-09,0,131072,131072
301.35,3.04785e-09,0,131072,131072
301.401,3.02058e-09,0,131072,131072
301.45,2.99381e-09,0,131072,131072
301.5,2.96807e-09,0,131072,131072
301.551,2.94397e-09,0,131072,131072
301.6,2.92296e-09,0,131072,131072
301.65,2.90501e-09,0,131072,131072
301.7,2.89e-09,0,131072,131072
301.751,2.87724e-09,0,131072,131072
301.8,2.86633e-09,0,131072,131072
301.85,2.85622e-09,0,131072,131072
301.901,2.84607e-09,0,131072,131072
301.951,2.83573e-09,0,131072,131072
302,2.8249e-09,0,131072,131072
302.05,2.81365e-09,0,131072,131072
302.101,2.80194e-09,0,131072,131072
302.15,2.7902e-09,0,131072,131072
302.2,2.77813e-09,0,131072,131072
302.25,2.76549e-09,0,131072,131072
302.301,2.75174e-09,0,131072,131072
302.35,2.73707e-09,0,131072,131072
302.4,2.72132e-09,0,131072,131072
302.451,2.7045e-09,0,131072,131072
302.5,2.68746e-09,0,131072,131072
302.55,2.67025e-09,0,131072,131072
302.6,2.65294e-09,0,131072,131072
302.651,2.63515e-09,0,131072,131072
302.7,2.61717e-09,0,131072,131072
302.75,2.59857e-09,0,131072,131072
302.801,2.57909e-09,0,131072,131072
302.851,2.5595e-09,0,131072,131072
302.9,2.53981e-09,0,131072,131072
302.95,2.52027e-09,0,131072,131072
303.001,2.50071e-09,0,131072,131072
303.05,2.48157e-09,0,131072,131072
303.1,2.46237e-09,0,131072,131072
303.15,2.44286e-09,0,131072,131072
303.201,2.4226e-09,0,131072,131072
303.25,2.40215e-09,0,131072,131072
303.3,2.38127e-09,0,131072,131072
303.351,2.35975e-09,0,131072,131072
303.4,2.33834e-09,0,131072,131072
303.45,2.31682e-09,0,131072,131072
303.5,2.29526e-09,0,131072,131072
303.551,2.2734e-09,0,131072,131072
303.6,2.25193e-09,0,131072,131072
303.65,2.23055e-09,0,131072,131072
303.7,2.20929e-09,0,131072,131072
303.751,2.18786e-09,0,131072,131072
303.8,2.16688e-09,0,131072,131072
303.85,2.14606e-09,0,131072,131072
303.901,2.12512e-09,0,131072,131072
303.95,2.10468e-09,0,131072,131072
304,2.08447e-09,0,131072,131072
304.05,2.06449e-09,0,131072,131072
304.101,2.04448e-09,0,131072,131072
304.15,2.02502e-09,0,131072,131072
304.2,2.00582e-09,0,131072,131072
304.251,1.9866e-09,0,131072,131072
304.301,1.9679e-09,0,131072,131072
304.35,1.94941e-09,0,131072,131072
304.4,1.9311e-09,0,131072,131072
304.451,1.91266e-09,0,131072,131072
304.5,1.89459e-09,0,131072,131072
304.55,1.87656e-09,0,131072,131072
304.6,1.85852e-09,0,131072,131072
304.651,1.84015e-09,0,131072,131072
304.7,1.82193e-09,0,131072,131072
304.75,1.80354e-09,0,131072,131072
304.801,1.78465e-09,0,131072,131072
304.85,1.76574e-09,0,131072,131072
304.9,1.74651e-09,0,131072,131072
304.95,1.72689e-09,0,131072,131072
