250,0,0,8192,8192
250.003,0,0,8192,8192
250.053,0,0,8192,8192
250.103,2.77556e-17,0,8192,8192
250.152,2.77556e-17,0,8192,8192
250.202,0,0,8192,8192
250.252,0,0,8192,8192
250.302,-2.77556e-17,0,8192,8192
250.352,0,0,8192,8192
250.401,0,0,8192,8192
250.451,2.77556e-17,0,8192,8192
250.501,2.77556e-17,0,8192,8192
250.551,2.77556e-17,0,8192,8192
250.6,0,0,8192,8192
250.65,2.77556e-17,0,8192,8192
250.7,-2.77556e-17,0,8192,8192
250.753,0,0,8192,8192
250.803,-2.77556e-17,0,8192,8192
250.852,0,0,8192,8192
250.902,0,0,8192,8192
250.952,0,0,8192,8192
251.002,0,0,8192,8192
251.052,0,0,8192,8192
251.101,0,0,8192,8192
251.151,0,0,8192,8192
251.201,2.77556e-17,0,8192,8192
251.251,2.77556e-17,0,8192,8192
251.301,2.77556e-17,0,8192,8192
251.35,0,0,8192,8192
251.4,5.55112e-17,0,8192,8192
251.453,0,0,8192,8192
251.503,0,0,8192,8192
251.553,-2.77556e-17,0,8192,8192
251.602,0,0,8192,8192
251.652,0,0,8192,8192
251.702,0,0,8192,8192
251.752,0,0,8192,8192
251.801,5.55112e-17,0,8192,8192
251.851,0,0,8192,8192
251.901,2.77556e-17,0,8192,8192
251.951,2.77556e-17,0,8192,8192
252.001,2.77556e-17,0,8192,8192
252.05,0,0,8192,8192
252.1,0,0,8192,8192
252.15,0,0,8192,8192
252.203,-5.55112e-17,0,8192,8192
252.253,-2.77556e-17,0,8192,8192
252.302,0,0,8192,8192
252.352,2.77556e-17,0,8192,8192
252.402,2.77556e-17,0,8192,8192
252.452,2.77556e-17,0,8192,8192
252.502,0,0,8192,8192
252.551,2.77556e-17,0,8192,8192
252.601,0,0,8192,8192
252.651,0,0,8192,8192
252.701,-2.77556e-17,0,8192,8192
252.751,0,0,8192,8192
252.8,2.77556e-17,0,8192,8192
252.85,2.77556e-17,0,8192,8192
252.903,2.77556e-17,0,8192,8192
252.953,2.77556e-17,0,8192,8192
253.002,0,0,8192,8192
253.052,2.77556e-17,0,8192,8192
253.102,0,0,8192,8192
253.152,2.77556e-17,0,8192,8192
253.202,0,0,8192,8192
253.251,2.77556e-17,0,8192,8192
253.301,2.77556e-17,0,8192,8192
253.351,0,0,8192,8192
253.401,2.77556e-17,0,8192,8192
253.451,2.77556e-17,0,8192,8192
253.5,2.77556e-17,0,8192,8192
253.55,2.77556e-17,0,8192,8192
253.6,0,0,8192,8192
253.653,2.77556e-17,0,8192,8192
253.703,2.77556e-17,0,8192,8192
253.752,0,0,8192,8192
253.802,0,0,8192,8192
253.852,0,0,8192,8192
253.902,-2.77556e-17,0,8192,8192
253.952,-5.55112e-17,0,8192,8192
254.001,-8.32667e-17,0,8192,8192
254.051,-2.77556e-17,0,8192,8192
254.101,2.77556e-17,0,8192,8192
254.151,0,0,8192,8192
254.201,-2.77556e-17,0,8192,8192
254.25,-5.55112e-17,0,8192,8192
254.3,-5.55112e-17,0,8192,8192
254.353,-5.55112e-17,0,8192,8192
254.403,-2.77556e-17,0,8192,8192
254.452,-2.77556e-17,0,8192,8192
254.502,0,0,8192,8192
254.552,-2.77556e-17,0,8192,8192
254.602,-2.77556e-17,0,8192,8192
254.652,-2.77556e-17,0,8192,8192
254.701,2.77556e-17,0,8192,8192
254.751,2.77556e-17,0,8192,8192
254.801,5.55112e-17,0,8192,8192
254.851,5.55112e-17,0,8192,8192
254.901,5.55112e-17,0,8192,8192
254.95,8.32667e-17,0,8192,8192
255,5.55112e-17,0,8192,8192
255.05,2.77556e-17,0,8192,8192
255.103,5.55112e-17,0,8192,8192
255.153,2.77556e-17,0,8192,8192
255.202,2.77556e-17,0,8192,8192
255.252,0,0,8192,8192
255.302,0,0,8192,8192
255.352,2.77556e-17,0,8192,8192
255.402,2.77556e-17,0,8192,8192
255.451,2.77556e-17,0,8192,8192
255.501,5.55112e-17,0,8192,8192
255.551,2.77556e-17,0,8192,8192
255.601,8.32667e-17,0,8192,8192
255.651,5.55112e-17,0,8192,8192
255.7,8.32667e-17,0,8192,8192
255.75,5.55112e-17,0,8192,8192
255.803,2.77556e-17,0,8192,8192
255.853,2.77556e-17,0,8192,8192
255.902,0,0,8192,8192
255.952,-2.77556e-17,0,8192,8192
256.002,0,0,8192,8192
256.052,0,0,8192,8192
256.102,0,0,8192,8192
256.151,2.77556e-17,0,8192,8192
256.201,2.77556e-17,0,8192,8192
256.251,2.77556e-17,0,8192,8192
256.301,0,0,8192,8192
256.351,-2.77556e-17,0,8192,8192
256.4,0,0,8192,8192
256.45,2.77556e-17,0,8192,8192
256.5,2.77556e-17,0,8192,8192
256.553,-2.77556e-17,0,8192,8192
256.603,2.77556e-17,0,8192,8192
256.652,2.77556e-17,0,8192,8192
256.702,5.55112e-17,0,8192,8192
256.752,5.55112e-17,0,8192,8192
256.802,5.55112e-17,0,8192,8192
256.852,2.77556e-17,0,8192,8192
256.901,2.77556e-17,0,8192,8192
256.951,2.77556e-17,0,8192,8192
257.001,5.55112e-17,0,8192,8192
257.051,8.32667e-17,0,8192,8192
257.101,1.11022e-16,0,8192,8192
257.15,8.32667e-17,0,8192,8192
257.2,8.32667e-17,0,8192,8192
257.253,1.11022e-16,0,8192,8192
257.303,2.77556e-17,0,8192,8192
257.352,2.77556e-17,0,8192,8192
257.402,2.77556e-17,0,8192,8192
257.452,2.77556e-17,0,8192,8192
257.502,0,0,8192,8192
257.552,2.77556e-17,0,8192,8192
257.601,0,0,8192,8192
257.651,-2.77556e-17,0,8192,8192
257.701,0,0,8192,8192
257.751,2.77556e-17,0,8192,8192
257.801,0,0,8192,8192
257.85,0,0,8192,8192
257.9,0,0,8192,8192
257.95,-2.77556e-17,0,8192,8192
258.003,-2.77556e-17,0,8192,8192
258.053,2.77556e-17,0,8192,8192
258.102,0,0,8192,8192
258.152,0,0,8192,8192
258.202,0,0,8192,8192
258.252,0,0,8192,8192
258.302,-2.77556e-17,0,8192,8192
258.351,-2.77556e-17,0,8192,8192
258.401,-2.77556e-17,0,8192,8192
258.451,-2.77556e-17,0,8192,8192
258.501,-2.77556e-17,0,8192,8192
258.551,-2.77556e-17,0,8192,8192
258.6,2.77556e-17,0,8192,8192
258.65,2.77556e-17,0,8192,8192
258.703,-5.55112e-17,0,8192,8192
258.753,-2.77556e-17,0,8192,8192
258.802,0,0,8192,8192
258.852,-2.77556e-17,0,8192,8192
258.902,-2.77556e-17,0,8192,8192
258.952,0,0,8192,8192
259.002,0,0,8192,8192
259.051,0,0,8192,8192
259.101,0,0,8192,8192
259.151,-2.77556e-17,0,8192,8192
259.201,2.77556e-17,0,8192,8192
259.251,0,0,8192,8192
259.3,0,0,8192,8192
259.35,5.55112e-17,0,8192,8192
259.403,0,0,8192,8192
259.453,2.77556e-17,0,8192,8192
259.503,0,0,8192,8192
259.552,0,0,8192,8192
259.602,0,0,8192,8192
259.652,-2.77556e-17,0,8192,8192
259.702,-2.77556e-17,0,8192,8192
259.751,-2.77556e-17,0,8192,8192
259.801,-2.77556e-17,0,8192,8192
259.851,-2.77556e-17,0,8192,8192
259.901,-2.77556e-17,0,8192,8192
259.951,0,0,8192,8192
260,-2.77556e-17,0,8192,8192
260.05,-5.55112e-17,0,8192,8192
260.1,-8.32667e-17,0,8192,8192
260.153,-5.55112e-17,0,8192,8192
260.203,-2.77556e-17,0,8192,8192
260.252,0,0,8192,8192
260.302,0,0,8192,8192
260.352,0,0,8192,8192
260.402,0,0,8192,8192
260.452,2.77556e-17,0,8192,8192
260.501,2.77556e-17,0,8192,8192
260.551,0,0,8192,8192
260.601,-2.77556e-17,0,8192,8192
260.651,-2.77556e-17,0,8192,8192
260.701,-2.77556e-17,0,8192,8192
260.75,-2.77556e-17,0,8192,8192
260.8,-2.77556e-17,0,8192,8192
260.853,-5.55112e-17,0,8192,8192
260.903,-5.55112e-17,0,8192,8192
260.952,-2.77556e-17,0,8192,8192
261.002,-2.77556e-17,0,8192,8192
261.052,-2.77556e-17,0,8192,8192
261.102,-8.32667e-17,0,8192,8192
261.152,-5.55112e-17,0,8192,8192
261.201,-5.55112e-17,0,8192,8192
261.251,-2.77556e-17,0,8192,8192
261.301,-2.77556e-17,0,8192,8192
261.351,-2.77556e-17,0,8192,8192
261.401,-2.77556e-17,0,8192,8192
261.45,2.77556e-17,0,8192,8192
261.5,0,0,8192,8192
261.55,2.77556e-17,0,8192,8192
261.603,5.55112e-17,0,8192,8192
261.653,5.55112e-17,0,8192,8192
261.702,5.55112e-17,0,8192,8192
261.752,8.32667e-17,0,8192,8192
261.802,5.55112e-17,0,8192,8192
261.852,5.55112e-17,0,8192,8192
261.902,8.32667e-17,0,8192,8192
261.951,5.55112e-17,0,8192,8192
262.001,2.77556e-17,0,8192,8192
262.051,2.77556e-17,0,8192,8192
262.101,2.77556e-17,0,8192,8192
262.151,2.77556e-17,0,8192,8192
262.2,2.77556e-17,0,8192,8192
262.25,2.77556e-17,0,8192,8192
262.303,0,0,8192,8192
262.353,0,0,8192,8192
262.402,0,0,8192,8192
262.452,0,0,8192,8192
262.502,2.77556e-17,0,8192,8192
262.552,2.77556e-17,0,8192,8192
262.602,2.77556e-17,0,8192,8192
262.651,2.77556e-17,0,8192,8192
262.701,2.77556e-17,0,8192,8192
262.751,2.77556e-17,0,8192,8192
262.801,2.77556e-17,0,8192,8192
262.851,2.77556e-17,0,8192,8192
262.9,5.55112e-17,0,8192,8192
262.95,5.55112e-17,0,8192,8192
263,5.55112e-17,0,8192,8192
263.053,5.55112e-17,0,8192,8192
263.103,0,0,8192,8192
263.152,2.77556e-17,0,8192,8192
263.202,0,0,8192,8192
263.252,2.77556e-17,0,8192,8192
263.302,-5.55112e-17,0,8192,8192
263.352,-2.77556e-17,0,8192,8192
263.401,-1.11022e-16,0,8192,8192
263.451,-1.11022e-16,0,8192,8192
263.501,-8.32667e-17,0,8192,8192
263.551,-8.32667e-17,0,8192,8192
263.601,-5.55112e-17,0,8192,8192
263.65,-8.32667e-17,0,8192,8192
263.7,0,0,8192,8192
263.753,-5.55112e-17,0,8192,8192
263.803,-8.32667e-17,0,8192,8192
263.852,-5.55112e-17,0,8192,8192
263.902,-2.77556e-17,0,8192,8192
263.952,0,0,8192,8192
264.002,2.77556e-17,0,8192,8192
264.052,0,0,8192,8192
264.101,0,0,8192,8192
264.151,2.77556e-17,0,8192,8192
264.201,2.77556e-17,0,8192,8192
264.251,2.77556e-17,0,8192,8192
264.301,0,0,8192,8192
264.35,0,0,8192,8192
264.4,0,0,8192,8192
264.45,0,0,8192,8192
264.503,0,0,8192,8192
264.553,2.77556e-17,0,8192,8192
264.602,-2.77556e-17,0,8192,8192
264.652,-2.77556e-17,0,8192,8192
264.702,0,0,8192,8192
264.752,0,0,8192,8192
264.802,0,0,8192,8192
264.851,0,0,8192,8192
264.901,0,0,8192,8192
264.951,0,0,8192,8192
265.001,0,0,8192,8192
265.051,2.77556e-17,0,8192,8192
265.1,2.77556e-17,0,8192,8192
265.15,5.55112e-17,0,8192,8192
265.203,5.55112e-17,0,8192,8192
265.253,2.77556e-17,0,8192,8192
265.302,2.77556e-17,0,8192,8192
265.352,2.77556e-17,0,8192,8192
265.402,2.77556e-17,0,8192,8192
265.452,2.77556e-17,0,8192,8192
265.502,2.77556e-17,0,8192,8192
265.551,0,0,8192,8192
265.601,-2.77556e-17,0,8192,8192
265.651,-2.77556e-17,0,8192,8192
265.701,-2.77556e-17,0,8192,8192
265.751,-2.77556e-17,0,8192,8192
265.8,-5.55112e-17,0,8192,8192
265.85,-8.32667e-17,0,8192,8192
265.9,-8.32667e-17,0,8192,8192
265.953,-8.32667e-17,0,8192,8192
266.003,-1.11022e-16,0,8192,8192
266.052,-1.38778e-16,0,8192,8192
266.102,-8.32667e-17,0,8192,8192
266.152,-8.32667e-17,0,8192,8192
266.202,-5.55112e-17,0,8192,8192
266.252,-5.55112e-17,0,8192,8192
266.301,-2.77556e-17,0,8192,8192
266.351,-2.77556e-17,0,8192,8192
266.401,-2.77556e-17,0,8192,8192
266.451,-2.77556e-17,0,8192,8192
266.501,5.55112e-17,0,8192,8192
266.55,5.55112e-17,0,8192,8192
266.6,8.32667e-17,0,8192,8192
266.653,8.32667e-17,0,8192,8192
266.703,8.32667e-17,0,8192,8192
266.752,1.11022e-16,0,8192,8192
266.802,5.55112e-17,0,8192,8192
266.852,2.77556e-17,0,8192,8192
266.902,2.77556e-17,0,8192,8192
266.952,2.77556e-17,0,8192,8192
267.001,2.77556e-17,0,8192,8192
267.051,2.77556e-17,0,8192,8192
267.101,2.77556e-17,0,8192,8192
267.151,5.55112e-17,0,8192,8192
267.201,5.55112e-17,0,8192,8192
267.25,5.55112e-17,0,8192,8192
267.3,5.55112e-17,0,8192,8192
267.353,0,0,8192,8192
267.403,2.77556e-17,0,8192,8192
267.453,-2.77556e-17,0,8192,8192
267.502,2.77556e-17,0,8192,8192
267.552,0,0,8192,8192
267.602,0,0,8192,8192
267.652,0,0,8192,8192
267.702,2.77556e-17,0,8192,8192
267.751,2.77556e-17,0,8192,8192
267.801,5.55112e-17,0,8192,8192
267.851,5.55112e-17,0,8192,8192
267.901,-2.77556e-17,0,8192,8192
267.95,-2.77556e-17,0,8192,8192
268,0,0,8192,8192
268.05,0,0,8192,8192
268.103,2.77556e-17,0,8192,8192
268.153,2.77556e-17,0,8192,8192
268.202,2.77556e-17,0,8192,8192
268.252,2.77556e-17,0,8192,8192
268.302,2.77556e-17,0,8192,8192
268.352,2.77556e-17,0,8192,8192
268.402,2.77556e-17,0,8192,8192
268.451,2.77556e-17,0,8192,8192
268.501,2.77556e-17,0,8192,8192
268.551,2.77556e-17,0,8192,8192
268.601,2.77556e-17,0,8192,8192
268.651,2.77556e-17,0,8192,8192
268.7,2.77556e-17,0,8192,8192
268.75,2.77556e-17,0,8192,8192
268.803,2.77556e-17,0,8192,8192
268.853,2.77556e-17,0,8192,8192
268.902,5.55112e-17,0,8192,8192
268.952,2.77556e-17,0,8192,8192
269.002,5.55112e-17,0,8192,8192
269.052,8.32667e-17,0,8192,8192
269.102,5.55112e-17,0,8192,8192
269.151,2.77556e-17,0,8192,8192
269.201,5.55112e-17,0,8192,8192
269.251,5.55112e-17,0,8192,8192
269.301,5.55112e-17,0,8192,8192
269.351,8.32667e-17,0,8192,8192
269.4,8.32667e-17,0,8192,8192
269.45,1.38778e-16,0,8192,8192
269.5,1.53488e-14,0,8192,8192
269.553,4.87971e-13,0,8192,8192
269.603,7.72854e-13,0,8192,8192
269.652,-3.04046e-11,0,8192,8192
269.702,-1.70971e-10,0,8192,8192
269.752,-3.79152e-10,0,8192,8192
269.802,-4.46141e-10,0,8192,8192
269.852,-2.72323e-10,0,8192,8192
269.901,2.84537e-11,0,8192,8192
269.951,2.66152e-10,0,8192,8192
270.001,3.05541e-10,0,8192,8192
270.051,1.48157e-10,0,8192,8192
270.101,-5.93518e-11,0,8192,8192
270.15,-1.34046e-10,0,8192,8192
270.2,-1.42651e-11,0,8192,8192
270.253,1.94771e-10,0,8192,8192
270.303,2.80785e-10,0,8192,8192
270.352,1.87531e-10,0,8192,8192
270.402,1.51109e-11,0,8192,8192
270.452,-7.43067e-11,0,8192,8192
270.502,-9.13239e-12,0,8192,8192
270.552,1.39708e-10,0,8192,8192
270.601,2.41056e-10,0,8192,8192
270.651,2.22481e-10,0,8192,8192
270.701,1.14278e-10,0,8192,8192
270.751,2.76579e-12,0,8192,8192
270.801,-3.79211e-11,0,8192,8192
270.85,2.0936e-11,0,8192,8192
270.9,1.56268e-10,0,8192,8192
270.95,2.87563e-10,0,8192,8192
271.003,2.90907e-10,0,8192,8192
271.053,9.85128e-11,0,8192,8192
271.102,-1.71797e-10,0,8192,8192
271.152,-2.45898e-10,0,8192,8192
271.202,7.23658e-11,0,8192,8192
271.252,5.95358e-10,0,8192,8192
271.302,7.58197e-10,0,8192,8192
271.351,1.32951e-10,0,8192,8192
271.401,-9.10614e-10,0,8192,8192
271.451,-1.14085e-09,0,8192,8192
271.501,7.32789e-10,0,8192,8192
271.551,5.0456e-09,0,8192,8192
271.6,1.09327e-08,0,8192,8192
271.65,1.69898e-08,0,8192,8192
271.703,2.23365e-08,0,8192,8192
271.753,2.58574e-08,0,8192,8192
271.802,2.80747e-08,0,8192,8192
271.852,2.98971e-08,0,8192,8192
271.902,3.27663e-08,0,8192,8192
271.952,3.79878e-08,0,8192,8192
272.002,4.59981e-08,0,8192,8192
272.051,5.63233e-08,0,8192,8192
272.101,6.83582e-08,0,8192,8192
272.151,8.22362e-08,0,8192,8192
272.201,9.90036e-08,0,8192,8192
272.251,1.20099e-07,0,8192,8192
272.3,1.46762e-07,0,8192,8192
272.35,1.79721e-07,0,8192,8192
272.4,2.18878e-07,0,8192,8192
272.453,2.65661e-07,0,8192,8192
272.503,3.12596e-07,0,8192,8192
272.552,3.60425e-07,0,8192,8192
272.602,4.09161e-07,0,8192,8192
272.652,4.60364e-07,0,8192,8192
272.702,5.15278e-07,0,8192,8192
272.752,5.72886e-07,0,8192,8192
272.801,6.29812e-07,0,8192,8192
272.851,6.81969e-07,0,8192,8192
272.901,7.26178e-07,0,8192,8192
272.951,7.60701e-07,0,8192,8192
273.001,7.85207e-07,0,8192,8192
273.05,8.00788e-07,0,8192,8192
273.1,8.09601e-07,0,8192,8192
273.153,8.14033e-07,0,8192,8192
273.203,8.1503e-07,0,8192,8192
273.252,8.1327e-07,0,8192,8192
273.302,8.0838e-07,0,8192,8192
273.352,7.99564e-07,0,8192,8192
273.402,7.85794e-07,0,8192,8192
273.452,7.66008e-07,0,8192,8192
273.501,7.39299e-07,0,8192,8192
273.551,7.05133e-07,0,8192,8192
273.601,6.63819e-07,0,8192,8192
273.651,6.16999e-07,0,8192,8192
273.701,5.67386e-07,0,8192,8192
273.75,5.17793e-07,0,8192,8192
273.8,4.70263e-07,0,8192,8192
273.853,4.23386e-07,0,8192,8192
273.903,3.8275e-07,0,8192,8192
273.953,3.45479e-07,0,8192,8192
274.002,3.11067e-07,0,8192,8192
274.052,2.78887e-07,0,8192,8192
274.102,2.48372e-07,0,8192,8192
274.152,2.19202e-07,0,8192,8192
274.202,1.91656e-07,0,8192,8192
274.251,1.66867e-07,0,8192,8192
274.301,1.46375e-07,0,8192,8192
274.351,1.30866e-07,0,8192,8192
274.401,1.19148e-07,0,8192,8192
274.45,1.08648e-07,0,8192,8192
274.5,9.72319e-08,0,8192,8192
274.55,8.46807e-08,0,8192,8192
274.603,7.17972e-08,0,8192,8192
274.653,6.17882e-08,0,8192,8192
274.702,5.46196e-08,0,8192,8192
274.752,4.99512e-08,0,8192,8192
274.802,4.67972e-08,0,8192,8192
274.852,4.3859e-08,0,8192,8192
274.902,3.99181e-08,0,8192,8192
274.951,3.45057e-08,0,8192,8192
275.001,2.83722e-08,0,8192,8192
275.051,2.30634e-08,0,8192,8192
275.101,1.98033e-08,0,8192,8192
275.151,1.86872e-08,0,8192,8192
275.2,1.88743e-08,0,8192,8192
275.25,1.93957e-08,0,8192,8192
275.303,1.97594e-08,0,8192,8192
275.353,1.98992e-08,0,8192,8192
275.403,1.99827e-08,0,8192,8192
275.452,2.00891e-08,0,8192,8192
275.502,2.02087e-08,0,8192,8192
275.552,2.02661e-08,0,8192,8192
275.602,2.01068e-08,0,8192,8192
275.651,1.9708e-08,0,8192,8192
275.701,1.93391e-08,0,8192,8192
275.751,1.91776e-08,0,8192,8192
275.801,1.91562e-08,0,8192,8192
275.851,1.91795e-08,0,8192,8192
275.9,1.92112e-08,0,8192,8192
275.95,1.9244e-08,0,8192,8192
276,1.92769e-08,0,8192,8192
276.053,1.93119e-08,0,8192,8192
276.103,1.93451e-08,0,8192,8192
276.152,1.93783e-08,0,8192,8192
276.202,1.94116e-08,0,8192,8192
276.252,1.94449e-08,0,8192,8192
276.302,1.94783e-08,0,8192,8192
276.352,1.95117e-08,0,8192,8192
276.401,1.95452e-08,0,8192,8192
276.451,1.95788e-08,0,8192,8192
276.501,1.96124e-08,0,8192,8192
276.551,1.96461e-08,0,8192,8192
276.601,1.96798e-08,0,8192,8192
276.65,1.97135e-08,0,8192,8192
276.7,1.97473e-08,0,8192,8192
276.753,1.97831e-08,0,8192,8192
276.803,1.9817e-08,0,8192,8192
276.852,1.9851e-08,0,8192,8192
276.902,1.98849e-08,0,8192,8192
276.952,1.9919e-08,0,8192,8192
277.002,1.99532e-08,0,8192,8192
277.052,1.99874e-08,0,8192,8192
277.101,2.00218e-08,0,8192,8192
277.151,2.00563e-08,0,8192,8192
277.201,2.00909e-08,0,8192,8192
277.251,2.01257e-08,0,8192,8192
277.301,2.01606e-08,0,8192,8192
277.35,2.01956e-08,0,8192,8192
277.4,2.02308e-08,0,8192,8192
277.45,2.0266e-08,0,8192,8192
277.503,2.03035e-08,0,8192,8192
277.553,2.03391e-08,0,8192,8192
277.602,2.03748e-08,0,8192,8192
277.652,2.04106e-08,0,8192,8192
277.702,2.04466e-08,0,8192,8192
277.752,2.04827e-08,0,8192,8192
277.802,2.05189e-08,0,8192,8192
277.851,2.05553e-08,0,8192,8192
277.901,2.05917e-08,0,8192,8192
277.951,2.06282e-08,0,8192,8192
278.001,2.06646e-08,0,8192,8192
278.051,2.07008e-08,0,8192,8192
278.1,2.07364e-08,0,8192,8192
278.15,2.0771e-08,0,8192,8192
278.203,2.08059e-08,0,8192,8192
278.253,2.08368e-08,0,8192,8192
278.302,2.08655e-08,0,8192,8192
278.352,2.08917e-08,0,8192,8192
278.402,2.09155e-08,0,8192,8192
278.452,2.09367e-08,0,8192,8192
278.502,2.09553e-08,0,8192,8192
278.551,2.09708e-08,0,8192,8192
278.601,2.09826e-08,0,8192,8192
278.651,2.09896e-08,0,8192,8192
278.701,2.09907e-08,0,8192,8192
278.751,2.09844e-08,0,8192,8192
278.8,2.09689e-08,0,8192,8192
278.85,2.09421e-08,0,8192,8192
278.9,2.09016e-08,0,8192,8192
278.953,2.08409e-08,0,8192,8192
279.003,2.07637e-08,0,8192,8192
279.052,2.06644e-08,0,8192,8192
279.102,2.05403e-08,0,8192,8192
279.152,2.03891e-08,0,8192,8192
279.202,2.02086e-08,0,8192,8192
279.252,1.99972e-08,0,8192,8192
279.301,1.97536e-08,0,8192,8192
279.351,1.9477e-08,0,8192,8192
279.401,1.91672e-08,0,8192,8192
279.451,1.8825e-08,0,8192,8192
279.501,1.84522e-08,0,8192,8192
279.55,1.80514e-08,0,8192,8192
279.6,1.76263e-08,0,8192,8192
279.653,1.71542e-08,0,8192,8192
279.703,1.6692e-08,0,8192,8192
279.752,1.62181e-08,0,8192,8192
279.802,1.57364e-08,0,8192,8192
279.852,1.52502e-08,0,8192,8192
279.902,1.47626e-08,0,8192,8192
279.952,1.42765e-08,0,8192,8192
280.001,1.3795e-08,0,8192,8192
280.051,1.33211e-08,0,8192,8192
280.101,1.28582e-08,0,8192,8192
280.151,1.24098e-08,0,8192,8192
280.201,1.19794e-08,0,8192,8192
280.25,1.15703e-08,0,8192,8192
280.3,1.11852e-08,0,8192,8192
280.35,1.08261e-08,0,8192,8192
280.403,1.04757e-08,0,8192,8192
280.453,1.01732e-08,0,8192,8192
280.502,9.89788e-09,0,8192,8192
280.552,9.64888e-09,0,8192,8192
280.602,9.42487e-09,0,8192,8192
280.652,9.22439e-09,0,8192,8192
280.702,9.04595e-09,0,8192,8192
280.751,8.88803e-09,0,8192,8192
280.801,8.74911e-09,0,8192,8192
280.851,8.62763e-09,0,8192,8192
280.901,8.5219e-09,0,8192,8192
280.951,8.43021e-09,0,8192,8192
281,8.3509e-09,0,8192,8192
281.05,8.28242e-09,0,8192,8192
281.103,8.2203e-09,0,8192,8192
281.153,8.17037e-09,0,8192,8192
281.202,8.12805e-09,0,8192,8192
281.252,8.0926e-09,0,8192,8192
281.302,8.06323e-09,0,8192,8192
281.352,8.03917e-09,0,8192,8192
281.402,8.01965e-09,0,8192,8192
281.451,8.00403e-09,0,8192,8192
281.501,7.99181e-09,0,8192,8192
281.551,7.98268e-09,0,8192,8192
281.601,7.97644e-09,0,8192,8192
281.651,7.97288e-09,0,8192,8192
281.7,7.97178e-09,0,8192,8192
281.75,7.97276e-09,0,8192,8192
281.8,7.97541e-09,0,8192,8192
281.853,7.97953e-09,0,8192,8192
281.903,7.98421e-09,0,8192,8192
281.952,7.98934e-09,0,8192,8192
282.002,7.9947e-09,0,8192,8192
282.052,8.00017e-09,0,8192,8192
282.102,8.00567e-09,0,8192,8192
282.152,8.0112e-09,0,8192,8192
282.201,8.01677e-09,0,8192,8192
282.251,8.0224e-09,0,8192,8192
282.301,8.02811e-09,0,8192,8192
282.351,8.03391e-09,0,8192,8192
282.401,8.0398e-09,0,8192,8192
282.45,8.04577e-09,0,8192,8192
282.5,8.05181e-09,0,8192,8192
282.553,8.05824e-09,0,8192,8192
282.603,8.06435e-09,0,8192,8192
282.652,8.07048e-09,0,8192,8192
282.702,8.07663e-09,0,8192,8192
282.752,8.08281e-09,0,8192,8192
282.802,8.08902e-09,0,8192,8192
282.852,8.09526e-09,0,8192,8192
282.901,8.10156e-09,0,8192,8192
282.951,8.1079e-09,0,8192,8192
283.001,8.11431e-09,0,8192,8192
283.051,8.12082e-09,0,8192,8192
283.101,8.12751e-09,0,8192,8192
283.15,8.13456e-09,0,8192,8192
283.2,8.14228e-09,0,8192,8192
283.253,8.15177e-09,0,8192,8192
283.303,8.16288e-09,0,8192,8192
283.353,8.17736e-09,0,8192,8192
283.402,8.19695e-09,0,8192,8192
283.452,8.22388e-09,0,8192,8192
283.502,8.26091e-09,0,8192,8192
283.552,8.31116e-09,0,8192,8192
283.601,8.37804e-09,0,8192,8192
283.651,8.46501e-09,0,8192,8192
283.701,8.57542e-09,0,8192,8192
283.751,8.71248e-09,0,8192,8192
283.801,8.87935e-09,0,8192,8192
283.85,9.07943e-09,0,8192,8192
283.9,9.31689e-09,0,8192,8192
283.95,9.59712e-09,0,8192,8192
284.003,9.94845e-09,0,8192,8192
284.053,1.03416e-08,0,8192,8192
284.102,1.0806e-08,0,8192,8192
284.152,1.1355e-08,0,8192,8192
284.202,1.20037e-08,0,8192,8192
284.252,1.2768e-08,0,8192,8192
284.302,1.36643e-08,0,8192,8192
284.351,1.47087e-08,0,8192,8192
284.401,1.59163e-08,0,8192,8192
284.451,1.73007e-08,0,8192,8192
284.501,1.88737e-08,0,8192,8192
284.551,2.0644e-08,0,8192,8192
284.6,2.26175e-08,0,8192,8192
284.65,2.47963e-08,0,8192,8192
284.703,2.73246e-08,0,8192,8192
284.753,2.99152e-08,0,8192,8192
284.802,3.26925e-08,0,8192,8192
284.852,3.56433e-08,0,8192,8192
284.902,3.87533e-08,0,8192,8192
284.952,4.20082e-08,0,8192,8192
285.002,4.53971e-08,0,8192,8192
285.051,4.89145e-08,0,8192,8192
285.101,5.25633e-08,0,8192,8192
285.151,5.63563e-08,0,8192,8192
285.201,6.03167e-08,0,8192,8192
285.251,6.44759e-08,0,8192,8192
285.3,6.88694e-08,0,8192,8192
285.35,7.35306e-08,0,8192,8192
285.4,7.84847e-08,0,8192,8192
285.453,8.40626e-08,0,8192,8192
285.503,8.96433e-08,0,8192,8192
285.552,9.55182e-08,0,8192,8192
285.602,1.01681e-07,0,8192,8192
285.652,1.08143e-07,0,8192,8192
285.702,1.14949e-07,0,8192,8192
285.752,1.22188e-07,0,8192,8192
285.801,1.30006e-07,0,8192,8192
285.851,1.38599e-07,0,8192,8192
285.901,1.48217e-07,0,8192,8192
285.951,1.59148e-07,0,8192,8192
286.001,1.71705e-07,0,8192,8192
286.05,1.86207e-07,0,8192,8192
286.1,2.0296e-07,0,8192,8192
286.153,2.2345e-07,0,8192,8192
286.203,2.45622e-07,0,8192,8192
286.252,2.70663e-07,0,8192,8192
286.302,2.98599e-07,0,8192,8192
286.352,3.29341e-07,0,8192,8192
286.402,3.62678e-07,0,8192,8192
286.452,3.98269e-07,0,8192,8192
286.501,4.35643e-07,0,8192,8192
286.551,4.74207e-07,0,8192,8192
286.601,5.1325e-07,0,8192,8192
286.651,5.51971e-07,0,8192,8192
286.701,5.89499e-07,0,8192,8192
286.75,6.24942e-07,0,8192,8192
286.8,6.57431e-07,0,8192,8192
286.85,6.86177e-07,0,8192,8192
286.903,7.11796e-07,0,8192,8192
286.953,7.30918e-07,0,8192,8192
287.002,7.4478e-07,0,8192,8192
287.052,7.53224e-07,0,8192,8192
287.102,7.56228e-07,0,8192,8192
287.152,7.5387e-07,0,8192,8192
287.202,7.46288e-07,0,8192,8192
287.251,7.3365e-07,0,8192,8192
287.301,7.16143e-07,0,8192,8192
287.351,6.93974e-07,0,8192,8192
287.401,6.67391e-07,0,8192,8192
287.451,6.3671e-07,0,8192,8192
287.5,6.02334e-07,0,8192,8192
287.55,5.64776e-07,0,8192,8192
287.603,5.22225e-07,0,8192,8192
287.653,4.80145e-07,0,8192,8192
287.702,4.36995e-07,0,8192,8192
287.752,3.93533e-07,0,8192,8192
287.802,3.5048e-07,0,8192,8192
287.852,3.08483e-07,0,8192,8192
287.902,2.68089e-07,0,8192,8192
287.951,2.29733e-07,0,8192,8192
288.001,1.93741e-07,0,8192,8192
288.051,1.60339e-07,0,8192,8192
288.101,1.29663e-07,0,8192,8192
288.151,1.01775e-07,0,8192,8192
288.2,7.66699e-08,0,8192,8192
288.25,5.42893e-08,0,8192,8192
288.3,3.45271e-08,0,8192,8192
288.353,1.62978e-08,0,8192,8192
288.403,1.45089e-09,0,8192,8192
288.452,-1.12785e-08,0,8192,8192
288.502,-2.20738e-08,0,8192,8192
288.552,-3.11136e-08,0,8192,8192
288.602,-3.85677e-08,0,8192,8192
288.652,-4.45966e-08,0,8192,8192
288.701,-4.93508e-08,0,8192,8192
288.751,-5.29707e-08,0,8192,8192
288.801,-5.55843e-08,0,8192,8192
288.851,-5.7305e-08,0,8192,8192
288.901,-5.82289e-08,0,8192,8192
288.95,-5.84354e-08,0,8192,8192
289,-5.79901e-08,0,8192,8192
289.053,-5.68727e-08,0,8192,8192
289.103,-5.52676e-08,0,8192,8192
289.152,-5.31931e-08,0,8192,8192
289.202,-5.07221e-08,0,8192,8192
289.252,-4.79372e-08,0,8192,8192
289.302,-4.49276e-08,0,8192,8192
289.352,-4.17836e-08,0,8192,8192
289.401,-3.85911e-08,0,8192,8192
289.451,-3.54264e-08,0,8192,8192
289.501,-3.23525e-08,0,8192,8192
289.551,-2.94182e-08,0,8192,8192
289.601,-2.66579e-08,0,8192,8192
289.65,-2.40935e-08,0,8192,8192
289.7,-2.1737e-08,0,8192,8192
289.753,-1.94733e-08,0,8192,8192
289.803,-1.75532e-08,0,8192,8192
289.853,-1.58404e-08,0,8192,8192
289.902,-1.43287e-08,0,8192,8192
289.952,-1.30105e-08,0,8192,8192
290.002,-1.18767e-08,0,8192,8192
290.052,-1.09172e-08,0,8192,8192
290.102,-1.01207e-08,0,8192,8192
290.151,-9.4748e-09,0,8192,8192
290.201,-8.96614e-09,0,8192,8192
290.251,-8.58094e-09,0,8192,8192
290.301,-8.3053e-09,0,8192,8192
290.35,-8.12559e-09,0,8192,8192
290.4,-8.02885e-09,0,8192,8192
290.45,-8.00299e-09,0,8192,8192
290.503,-8.04054e-09,0,8192,8192
290.553,-8.12676e-09,0,8192,8192
290.602,-8.25295e-09,0,8192,8192
290.652,-8.41073e-09,0,8192,8192
290.702,-8.59242e-09,0,8192,8192
290.752,-8.79096e-09,0,8192,8192
290.802,-8.99987e-09,0,8192,8192
290.851,-9.21335e-09,0,8192,8192
290.901,-9.4263e-09,0,8192,8192
290.951,-9.6344e-09,0,8192,8192
291.001,-9.83414e-09,0,8192,8192
291.051,-1.00228e-08,0,8192,8192
291.1,-1.01983e-08,0,8192,8192
291.15,-1.03593e-08,0,8192,8192
291.203,-1.05131e-08,0,8192,8192
291.253,-1.06421e-08,0,8192,8192
291.302,-1.07552e-08,0,8192,8192
291.352,-1.08526e-08,0,8192,8192
291.402,-1.09349e-08,0,8192,8192
291.452,-1.10027e-08,0,8192,8192
291.502,-1.10569e-08,0,8192,8192
291.551,-1.10986e-08,0,8192,8192
291.601,-1.1129e-08,0,8192,8192
291.651,-1.11493e-08,0,8192,8192
291.701,-1.11609e-08,0,8192,8192
291.751,-1.1165e-08,0,8192,8192
291.8,-1.11629e-08,0,8192,8192
291.85,-1.11557e-08,0,8192,8192
291.9,-1.11446e-08,0,8192,8192
291.953,-1.11299e-08,0,8192,8192
292.003,-1.11141e-08,0,8192,8192
292.052,-1.10975e-08,0,8192,8192
292.102,-1.1081e-08,0,8192,8192
292.152,-1.10653e-08,0,8192,8192
292.202,-1.10512e-08,0,8192,8192
292.252,-1.10393e-08,0,8192,8192
292.301,-1.10303e-08,0,8192,8192
292.351,-1.10246e-08,0,8192,8192
292.401,-1.1023e-08,0,8192,8192
292.451,-1.10259e-08,0,8192,8192
292.501,-1.10338e-08,0,8192,8192
292.55,-1.10472e-08,0,8192,8192
292.6,-1.10664e-08,0,8192,8192
292.653,-1.10933e-08,0,8192,8192
292.703,-1.11252e-08,0,8192,8192
292.752,-1.11633e-08,0,8192,8192
292.802,-1.12079e-08,0,8192,8192
292.852,-1.12588e-08,0,8192,8192
292.902,-1.13162e-08,0,8192,8192
292.952,-1.138e-08,0,8192,8192
293.001,-1.14503e-08,0,8192,8192
293.051,-1.15272e-08,0,8192,8192
293.101,-1.1611e-08,0,8192,8192
293.151,-1.17019e-08,0,8192,8192
293.201,-1.18002e-08,0,8192,8192
293.25,-1.19066e-08,0,8192,8192
293.3,-1.20216e-08,0,8192,8192
293.35,-1.2146e-08,0,8192,8192
293.403,-1.22889e-08,0,8192,8192
293.453,-1.24355e-08,0,8192,8192
293.502,-1.25944e-08,0,8192,8192
293.552,-1.27669e-08,0,8192,8192
293.602,-1.29541e-08,0,8192,8192
293.652,-1.31571e-08,0,8192,8192
293.702,-1.33769e-08,0,8192,8192
293.751,-1.36145e-08,0,8192,8192
293.801,-1.38703e-08,0,8192,8192
293.851,-1.41449e-08,0,8192,8192
293.901,-1.44384e-08,0,8192,8192
293.951,-1.47504e-08,0,8192,8192
294,-1.50802e-08,0,8192,8192
294.05,-1.54268e-08,0,8192,8192
294.103,-1.58104e-08,0,8192,8192
294.153,-1.61864e-08,0,8192,8192
294.202,-1.65733e-08,0,8192,8192
294.252,-1.69686e-08,0,8192,8192
294.302,-1.73695e-08,0,8192,8192
294.352,-1.77729e-08,0,8192,8192
294.402,-1.81759e-08,0,8192,8192
294.451,-1.85752e-08,0,8192,8192
294.501,-1.89676e-08,0,8192,8192
294.551,-1.93502e-08,0,8192,8192
294.601,-1.97199e-08,0,8192,8192
294.651,-2.00739e-08,0,8192,8192
294.7,-2.04097e-08,0,8192,8192
294.75,-2.07249e-08,0,8192,8192
294.8,-2.10173e-08,0,8192,8192
294.853,-2.13003e-08,0,8192,8192
294.903,-2.15407e-08,0,8192,8192
294.952,-2.1754e-08,0,8192,8192
295.002,-2.19395e-08,0,8192,8192
295.052,-2.20969e-08,0,8192,8192
295.102,-2.22263e-08,0,8192,8192
295.152,-2.23282e-08,0,8192,8192
295.201,-2.24032e-08,0,8192,8192
295.251,-2.24526e-08,0,8192,8192
295.301,-2.24776e-08,0,8192,8192
295.351,-2.24799e-08,0,8192,8192
295.401,-2.2461e-08,0,8192,8192
295.45,-2.24229e-08,0,8192,8192
295.5,-2.23674e-08,0,8192,8192
295.553,-2.22918e-08,0,8192,8192
295.603,-2.22065e-08,0,8192,8192
295.652,-2.21095e-08,0,8192,8192
295.702,-2.20026e-08,0,8192,8192
295.752,-2.18875e-08,0,8192,8192
295.802,-2.17657e-08,0,8192,8192
295.852,-2.16386e-08,0,8192,8192
295.901,-2.15076e-08,0,8192,8192
295.951,-2.13739e-08,0,8192,8192
296.001,-2.12385e-08,0,8192,8192
296.051,-2.11026e-08,0,8192,8192
296.101,-2.09668e-08,0,8192,8192
296.15,-2.08321e-08,0,8192,8192
296.2,-2.0699e-08,0,8192,8192
296.25,-2.05681e-08,0,8192,8192
296.303,-2.04326e-08,0,8192,8192
296.353,-2.03079e-08,0,8192,8192
296.402,-2.01868e-08,0,8192,8192
296.452,-2.00695e-08,0,8192,8192
296.502,-1.99562e-08,0,8192,8192
296.552,-1.98471e-08,0,8192,8192
296.602,-1.97422e-08,0,8192,8192
296.651,-1.96416e-08,0,8192,8192
296.701,-1.95452e-08,0,8192,8192
296.751,-1.9453e-08,0,8192,8192
296.801,-1.93647e-08,0,8192,8192
296.851,-1.92802e-08,0,8192,8192
296.9,-1.91993e-08,0,8192,8192
296.95,-1.91217e-08,0,8192,8192
297.003,-1.90428e-08,0,8192,8192
297.053,-1.89712e-08,0,8192,8192
297.102,-1.8902e-08,0,8192,8192
297.152,-1.8835e-08,0,8192,8192
297.202,-1.87698e-08,0,8192,8192
297.252,-1.87062e-08,0,8192,8192
297.302,-1.8644e-08,0,8192,8192
297.351,-1.85828e-08,0,8192,8192
297.401,-1.85224e-08,0,8192,8192
297.451,-1.84626e-08,0,8192,8192
297.501,-1.84031e-08,0,8192,8192
297.551,-1.83438e-08,0,8192,8192
297.6,-1.82845e-08,0,8192,8192
297.65,-1.82249e-08,0,8192,8192
297.703,-1.81615e-08,0,8192,8192
297.753,-1.8101e-08,0,8192,8192
297.803,-1.80399e-08,0,8192,8192
297.852,-1.7978e-08,0,8192,8192
297.902,-1.79153e-08,0,8192,8192
297.952,-1.78515e-08,0,8192,8192
298.002,-1.77865e-08,0,8192,8192
298.052,-1.77203e-08,0,8192,8192
298.101,-1.76526e-08,0,8192,8192
298.151,-1.75834e-08,0,8192,8192
298.201,-1.75125e-08,0,8192,8192
298.251,-1.74398e-08,0,8192,8192
298.3,-1.73651e-08,0,8192,8192
298.35,-1.72882e-08,0,8192,8192
298.4,-1.72089e-08,0,8192,8192
298.453,-1.71221e-08,0,8192,8192
298.503,-1.70373e-08,0,8192,8192
298.552,-1.69495e-08,0,8192,8192
298.602,-1.68586e-08,0,8192,8192
298.652,-1.67642e-08,0,8192,8192
298.702,-1.66662e-08,0,8192,8192
298.752,-1.65644e-08,0,8192,8192
298.801,-1.64587e-08,0,8192,8192
298.851,-1.63488e-08,0,8192,8192
298.901,-1.62345e-08,0,8192,8192
298.951,-1.61158e-08,0,8192,8192
299.001,-1.59926e-08,0,8192,8192
299.05,-1.58646e-08,0,8192,8192
299.1,-1.57317e-08,0,8192,8192
299.153,-1.55857e-08,0,8192,8192
299.203,-1.54426e-08,0,8192,8192
299.253,-1.52943e-08,0,8192,8192
299.302,-1.51409e-08,0,8192,8192
299.352,-1.49821e-08,0,8192,8192
299.402,-1.48179e-08,0,8192,8192
299.452,-1.46482e-08,0,8192,8192
299.501,-1.44729e-08,0,8192,8192
299.551,-1.42919e-08,0,8192,8192
299.601,-1.41049e-08,0,8192,8192
299.651,-1.39118e-08,0,8192,8192
299.701,-1.37122e-08,0,8192,8192
299.75,-1.35059e-08,0,8192,8192
299.8,-1.32924e-08,0,8192,8192
299.85,-1.30711e-08,0,8192,8192
299.903,-1.28276e-08,0,8192,8192
299.953,-1.25882e-08,0,8192,8192
300.002,-1.23385e-08,0,8192,8192
300.052,-1.20776e-08,0,8192,8192
300.102,-1.18043e-08,0,8192,8192
300.152,-1.15173e-08,0,8192,8192
300.202,-1.12154e-08,0,8192,8192
300.251,-1.08973e-08,0,8192,8192
300.301,-1.05617e-08,0,8192,8192
300.351,-1.02076e-08,0,8192,8192
300.401,-9.8339e-09,0,8192,8192
300.451,-9.43992e-09,0,8192,8192
300.5,-9.02519e-09,0,8192,8192
300.55,-8.58961e-09,0,8192,8192
300.603,-8.10599e-09,0,8192,8192
300.653,-7.62877e-09,0,8192,8192
300.702,-7.13285e-09,0,8192,8192
300.752,-6.6198e-09,0,8192,8192
300.802,-6.0916e-09,0,8192,8192
300.852,-5.55066e-09,0,8192,8192
300.902,-4.9997e-09,0,8192,8192
300.951,-4.44175e-09,0,8192,8192
301.001,-3.88006e-09,0,8192,8192
301.051,-3.31806e-09,0,8192,8192
301.101,-2.75924e-09,0,8192,8192
301.151,-2.20716e-09,0,8192,8192
301.2,-1.6653e-09,0,8192,8192
301.25,-1.13708e-09,0,8192,8192
301.3,-6.25752e-10,0,8192,8192
301.353,-1.06126e-10,0,8192,8192
301.403,3.61132e-10,0,8192,8192
301.452,8.03026e-10,0,8192,8192
301.502,1.21741e-09,0,8192,8192
301.552,1.60249e-09,0,8192,8192
301.602,1.95689e-09,0,8192,8192
301.652,2.27962e-09,0,8192,8192
301.701,2.57011e-09,0,8192,8192
301.751,2.82822e-09,0,8192,8192
301.801,3.05419e-09,0,8192,8192
301.851,3.24865e-09,0,8192,8192
301.901,3.41258e-09,0,8192,8192
301.95,3.54726e-09,0,8192,8192
302,3.65425e-09,0,8192,8192
302.053,3.7393e-09,0,8192,8192
302.103,3.79499e-09,0,8192,8192
302.152,3.82883e-09,0,8192,8192
302.202,3.84294e-09,0,8192,8192
302.252,3.83944e-09,0,8192,8192
302.302,3.82045e-09,0,8192,8192
302.352,3.78803e-09,0,8192,8192
302.401,3.74417e-09,0,8192,8192
302.451,3.69078e-09,0,8192,8192
302.501,3.62961e-09,0,8192,8192
302.551,3.56234e-09,0,8192,8192
302.601,3.49049e-09,0,8192,8192
302.65,3.4155e-09,0,8192,8192
302.7,3.33867e-09,0,8192,8192
302.75,3.2612e-09,0,8192,8192
302.803,3.17971e-09,0,8192,8192
302.853,3.10433e-09,0,8192,8192
302.902,3.03143e-09,0,8192,8192
302.952,2.96188e-09,0,8192,8192
303.002,2.89643e-09,0,8192,8192
303.052,2.83576e-09,0,8192,8192
303.102,2.7804e-09,0,8192,8192
303.151,2.7308e-09,0,8192,8192
303.201,2.68721e-09,0,8192,8192
303.251,2.64977e-09,0,8192,8192
303.301,2.61841e-09,0,8192,8192
303.351,2.5929e-09,0,8192,8192
303.4,2.57282e-09,0,8192,8192
303.45,2.55759e-09,0,8192,8192
303.503,2.54591e-09,0,8192,8192
303.553,2.53817e-09,0,8192,8192
303.602,2.53263e-09,0,8192,8192
303.652,2.52828e-09,0,8192,8192
303.702,2.52405e-09,0,8192,8192
303.752,2.51896e-09,0,8192,8192
303.802,2.51206e-09,0,8192,8192
303.851,2.50256e-09,0,8192,8192
303.901,2.48982e-09,0,8192,8192
303.951,2.47337e-09,0,8192,8192
304.001,2.45297e-09,0,8192,8192
304.051,2.42858e-09,0,8192,8192
304.1,2.40035e-09,0,8192,8192
304.15,2.36861e-09,0,8192,8192
304.2,2.33385e-09,0,8192,8192
304.253,2.29442e-09,0,8192,8192
304.303,2.25539e-09,0,8192,8192
304.352,2.21536e-09,0,8192,8192
304.402,2.17505e-09,0,8192,8192
304.452,2.13517e-09,0,8192,8192
304.502,2.09639e-09,0,8192,8192
304.552,2.05938e-09,0,8192,8192
304.601,2.02475e-09,0,8192,8192
304.651,1.99306e-09,0,8192,8192
304.701,1.96483e-09,0,8192,8192
304.751,1.94053e-09,0,8192,8192
304.801,1.92053e-09,0,8192,8192
304.85,1.90514e-09,0,8192,8192
304.9,1.89454e-09,0,8192,8192
304.953,1.88863e-09,0,8192,8192
