250,0,0,8192,8192
250.003,0,0,8192,8192
250.053,0,0,8192,8192
250.103,0,0,8192,8192
250.152,0,0,8192,8192
250.202,0,0,8192,8192
250.252,2.77556e-17,0,8192,8192
250.302,0,0,8192,8192
250.352,0,0,8192,8192
250.401,0,0,8192,8192
250.451,0,0,8192,8192
250.501,0,0,8192,8192
250.551,0,0,8192,8192
250.6,0,0,8192,8192
250.65,2.77556e-17,0,8192,8192
250.7,0,0,8192,8192
250.753,0,0,8192,8192
250.803,0,0,8192,8192
250.852,0,0,8192,8192
250.902,2.77556e-17,0,8192,8192
250.952,0,0,8192,8192
251.002,2.77556e-17,0,8192,8192
251.052,2.77556e-17,0,8192,8192
251.101,2.77556e-17,0,8192,8192
251.151,2.77556e-17,0,8192,8192
251.201,2.77556e-17,0,8192,8192
251.251,2.77556e-17,0,8192,8192
251.301,2.77556e-17,0,8192,8192
251.35,2.77556e-17,0,8192,8192
251.4,0,0,8192,8192
251.453,-2.77556e-17,0,8192,8192
251.503,-2.77556e-17,0,8192,8192
251.553,2.77556e-17,0,8192,8192
251.602,2.77556e-17,0,8192,8192
251.652,2.77556e-17,0,8192,8192
251.702,5.55112e-17,0,8192,8192
251.752,5.55112e-17,0,8192,8192
251.801,5.55112e-17,0,8192,8192
251.851,5.55112e-17,0,8192,8192
251.901,5.55112e-17,0,8192,8192
251.951,5.55112e-17,0,8192,8192
252.001,2.77556e-17,0,8192,8192
252.05,2.77556e-17,0,8192,8192
252.1,2.77556e-17,0,8192,8192
252.15,-2.77556e-17,0,8192,8192
252.203,-2.77556e-17,0,8192,8192
252.253,-5.55112e-17,0,8192,8192
252.302,-2.77556e-17,0,8192,8192
252.352,-5.55112e-17,0,8192,8192
252.402,0,0,8192,8192
252.452,-2.77556e-17,0,8192,8192
252.502,-2.77556e-17,0,8192,8192
252.551,2.77556e-17,0,8192,8192
252.601,2.77556e-17,0,8192,8192
252.651,5.55112e-17,0,8192,8192
252.701,2.77556e-17,0,8192,8192
252.751,2.77556e-17,0,8192,8192
252.8,0,0,8192,8192
252.85,-2.77556e-17,0,8192,8192
252.903,-5.55112e-17,0,8192,8192
252.953,-5.55112e-17,0,8192,8192
253.002,-2.77556e-17,0,8192,8192
253.052,-2.77556e-17,0,8192,8192
253.102,-5.55112e-17,0,8192,8192
253.152,-5.55112e-17,0,8192,8192
253.202,-2.77556e-17,0,8192,8192
253.251,-2.77556e-17,0,8192,8192
253.301,0,0,8192,8192
253.351,2.77556e-17,0,8192,8192
253.401,0,0,8192,8192
253.451,2.77556e-17,0,8192,8192
253.5,5.55112e-17,0,8192,8192
253.55,5.55112e-17,0,8192,8192
253.6,5.55112e-17,0,8192,8192
253.653,2.77556e-17,0,8192,8192
253.703,2.77556e-17,0,8192,8192
253.752,2.77556e-17,0,8192,8192
253.802,2.77556e-17,0,8192,8192
253.852,2.77556e-17,0,8192,8192
253.902,-5.55112e-17,0,8192,8192
253.952,-2.77556e-17,0,8192,8192
254.001,0,0,8192,8192
254.051,-2.77556e-17,0,8192,8192
254.101,-2.77556e-17,0,8192,8192
254.151,-2.77556e-17,0,8192,8192
254.201,-2.77556e-17,0,8192,8192
254.25,-2.77556e-17,0,8192,8192
254.3,-2.77556e-17,0,8192,8192
254.353,-2.77556e-17,0,8192,8192
254.403,-5.55112e-17,0,8192,8192
254.452,-2.77556e-17,0,8192,8192
254.502,2.77556e-17,0,8192,8192
254.552,8.32667e-17,0,8192,8192
254.602,5.55112e-17,0,8192,8192
254.652,2.77556e-17,0,8192,8192
254.701,2.77556e-17,0,8192,8192
254.751,2.77556e-17,0,8192,8192
254.801,0,0,8192,8192
254.851,2.77556e-17,0,8192,8192
254.901,5.55112e-17,0,8192,8192
254.95,5.55112e-17,0,8192,8192
255,8.32667e-17,0,8192,8192
255.05,2.77556e-17,0,8192,8192
255.103,5.55112e-17,0,8192,8192
255.153,5.55112e-17,0,8192,8192
255.202,5.55112e-17,0,8192,8192
255.252,8.32667e-17,0,8192,8192
255.302,8.32667e-17,0,8192,8192
255.352,8.32667e-17,0,8192,8192
255.402,8.32667e-17,0,8192,8192
255.451,8.32667e-17,0,8192,8192
255.501,8.32667e-17,0,8192,8192
255.551,5.55112e-17,0,8192,8192
255.601,5.55112e-17,0,8192,8192
255.651,5.55112e-17,0,8192,8192
255.7,5.55112e-17,0,8192,8192
255.75,5.55112e-17,0,8192,8192
255.803,2.77556e-17,0,8192,8192
255.853,-2.77556e-17,0,8192,8192
255.902,0,0,8192,8192
255.952,-2.77556e-17,0,8192,8192
256.002,-2.77556e-17,0,8192,8192
256.052,-2.77556e-17,0,8192,8192
256.102,-2.77556e-17,0,8192,8192
256.151,-5.55112e-17,0,8192,8192
256.201,-5.55112e-17,0,8192,8192
256.251,-8.32667e-17,0,8192,8192
256.301,-8.32667e-17,0,8192,8192
256.351,-5.55112e-17,0,8192,8192
256.4,-2.77556e-17,0,8192,8192
256.45,-2.77556e-17,0,8192,8192
256.5,-5.55112e-17,0,8192,8192
256.553,-5.55112e-17,0,8192,8192
256.603,-2.77556e-17,0,8192,8192
256.652,-5.55112e-17,0,8192,8192
256.702,-5.55112e-17,0,8192,8192
256.752,0,0,8192,8192
256.802,-2.77556e-17,0,8192,8192
256.852,-2.77556e-17,0,8192,8192
256.901,-2.77556e-17,0,8192,8192
256.951,-2.77556e-17,0,8192,8192
257.001,-2.77556e-17,0,8192,8192
257.051,0,0,8192,8192
257.101,0,0,8192,8192
257.15,0,0,8192,8192
257.2,5.55112e-17,0,8192,8192
257.253,0,0,8192,8192
257.303,-2.77556e-17,0,8192,8192
257.352,-2.77556e-17,0,8192,8192
257.402,2.77556e-17,0,8192,8192
257.452,5.55112e-17,0,8192,8192
257.502,5.55112e-17,0,8192,8192
257.552,8.32667e-17,0,8192,8192
257.601,5.55112e-17,0,8192,8192
257.651,5.55112e-17,0,8192,8192
257.701,2.77556e-17,0,8192,8192
257.751,0,0,8192,8192
257.801,-2.77556e-17,0,8192,8192
257.85,-2.77556e-17,0,8192,8192
257.9,-2.77556e-17,0,8192,8192
257.95,-2.77556e-17,0,8192,8192
258.003,-2.77556e-17,0,8192,8192
258.053,0,0,8192,8192
258.102,0,0,8192,8192
258.152,-2.77556e-17,0,8192,8192
258.202,-5.55112e-17,0,8192,8192
258.252,-2.77556e-17,0,8192,8192
258.302,2.77556e-17,0,8192,8192
258.351,2.77556e-17,0,8192,8192
258.401,2.77556e-17,0,8192,8192
258.451,2.77556e-17,0,8192,8192
258.501,2.77556e-17,0,8192,8192
258.551,2.77556e-17,0,8192,8192
258.6,2.77556e-17,0,8192,8192
258.65,2.77556e-17,0,8192,8192
258.703,0,0,8192,8192
258.753,5.55112e-17,0,8192,8192
258.802,2.77556e-17,0,8192,8192
258.852,0,0,8192,8192
258.902,2.77556e-17,0,8192,8192
258.952,2.77556e-17,0,8192,8192
259.002,0,0,8192,8192
259.051,0,0,8192,8192
259.101,0,0,8192,8192
259.151,2.77556e-17,0,8192,8192
259.201,0,0,8192,8192
259.251,-2.77556e-17,0,8192,8192
259.3,-2.77556e-17,0,8192,8192
259.35,-2.77556e-17,0,8192,8192
259.403,-5.55112e-17,0,8192,8192
259.453,0,0,8192,8192
259.503,0,0,8192,8192
259.552,0,0,8192,8192
259.602,0,0,8192,8192
259.652,-2.77556e-17,0,8192,8192
259.702,-2.77556e-17,0,8192,8192
259.751,-2.77556e-17,0,8192,8192
259.801,-2.77556e-17,0,8192,8192
259.851,-2.77556e-17,0,8192,8192
259.901,-2.77556e-17,0,8192,8192
259.951,0,0,8192,8192
260,5.55112e-17,0,8192,8192
260.05,-2.77556e-17,0,8192,8192
260.1,-2.77556e-17,0,8192,8192
260.153,-2.77556e-17,0,8192,8192
260.203,5.55112e-17,0,8192,8192
260.252,0,0,8192,8192
260.302,-2.77556e-17,0,8192,8192
260.352,-2.77556e-17,0,8192,8192
260.402,-2.77556e-17,0,8192,8192
260.452,-5.55112e-17,0,8192,8192
260.501,-5.55112e-17,0,8192,8192
260.551,-5.55112e-17,0,8192,8192
260.601,-2.77556e-17,0,8192,8192
260.651,-8.32667e-17,0,8192,8192
260.701,-2.77556e-17,0,8192,8192
260.75,-2.77556e-17,0,8192,8192
260.8,0,0,8192,8192
260.853,0,0,8192,8192
260.903,2.77556e-17,0,8192,8192
260.952,0,0,8192,8192
261.002,0,0,8192,8192
261.052,0,0,8192,8192
261.102,0,0,8192,8192
261.152,-2.77556e-17,0,8192,8192
261.201,-2.77556e-17,0,8192,8192
261.251,-2.77556e-17,0,8192,8192
261.301,-2.77556e-17,0,8192,8192
261.351,-5.55112e-17,0,8192,8192
261.401,-2.77556e-17,0,8192,8192
261.45,-2.77556e-17,0,8192,8192
261.5,-5.55112e-17,0,8192,8192
261.55,-2.77556e-17,0,8192,8192
261.603,-2.77556e-17,0,8192,8192
261.653,-5.55112e-17,0,8192,8192
261.702,-2.77556e-17,0,8192,8192
261.752,0,0,8192,8192
261.802,0,0,8192,8192
261.852,-5.55112e-17,0,8192,8192
261.902,-5.55112e-17,0,8192,8192
261.951,-2.77556e-17,0,8192,8192
262.001,0,0,8192,8192
262.051,-2.77556e-17,0,8192,8192
262.101,-2.77556e-17,0,8192,8192
262.151,-2.77556e-17,0,8192,8192
262.2,-2.77556e-17,0,8192,8192
262.25,-2.77556e-17,0,8192,8192
262.303,5.55112e-17,0,8192,8192
262.353,5.55112e-17,0,8192,8192
262.402,2.77556e-17,0,8192,8192
262.452,5.55112e-17,0,8192,8192
262.502,5.55112e-17,0,8192,8192
262.552,0,0,8192,8192
262.602,0,0,8192,8192
262.651,2.77556e-17,0,8192,8192
262.701,2.77556e-17,0,8192,8192
262.751,0,0,8192,8192
262.801,2.77556e-17,0,8192,8192
262.851,0,0,8192,8192
262.9,5.55112e-17,0,8192,8192
262.95,5.55112e-17,0,8192,8192
263,5.55112e-17,0,8192,8192
263.053,8.32667e-17,0,8192,8192
263.103,8.32667e-17,0,8192,8192
263.152,8.32667e-17,0,8192,8192
263.202,5.55112e-17,0,8192,8192
263.252,1.11022e-16,0,8192,8192
263.302,1.11022e-16,0,8192,8192
263.352,8.32667e-17,0,8192,8192
263.401,5.55112e-17,0,8192,8192
263.451,2.77556e-17,0,8192,8192
263.501,0,0,8192,8192
263.551,0,0,8192,8192
263.601,0,0,8192,8192
263.65,0,0,8192,8192
263.7,0,0,8192,8192
263.753,2.77556e-17,0,8192,8192
263.803,5.55112e-17,0,8192,8192
263.852,2.77556e-17,0,8192,8192
263.902,2.77556e-17,0,8192,8192
263.952,0,0,8192,8192
264.002,0,0,8192,8192
264.052,-2.77556e-17,0,8192,8192
264.101,-5.55112e-17,0,8192,8192
264.151,-2.77556e-17,0,8192,8192
264.201,-2.77556e-17,0,8192,8192
264.251,-2.77556e-17,0,8192,8192
264.301,0,0,8192,8192
264.35,0,0,8192,8192
264.4,5.55112e-17,0,8192,8192
264.45,1.11022e-16,0,8192,8192
264.503,1.11022e-16,0,8192,8192
264.553,1.11022e-16,0,8192,8192
264.602,1.11022e-16,0,8192,8192
264.652,8.32667e-17,0,8192,8192
264.702,8.32667e-17,0,8192,8192
264.752,1.11022e-16,0,8192,8192
264.802,1.38778e-16,0,8192,8192
264.851,1.66533e-16,0,8192,8192
264.901,1.11022e-16,0,8192,8192
264.951,1.38778e-16,0,8192,8192
265.001,1.38778e-16,0,8192,8192
265.051,1.11022e-16,0,8192,8192
265.1,8.32667e-17,0,8192,8192
265.15,1.11022e-16,0,8192,8192
265.203,8.32667e-17,0,8192,8192
265.253,1.11022e-16,0,8192,8192
265.302,1.11022e-16,0,8192,8192
265.352,8.32667e-17,0,8192,8192
265.402,5.55112e-17,0,8192,8192
265.452,5.55112e-17,0,8192,8192
265.502,5.55112e-17,0,8192,8192
265.551,8.32667e-17,0,8192,8192
265.601,8.32667e-17,0,8192,8192
265.651,5.55112e-17,0,8192,8192
265.701,5.55112e-17,0,8192,8192
265.751,5.55112e-17,0,8192,8192
265.8,2.77556e-17,0,8192,8192
265.85,2.77556e-17,0,8192,8192
265.9,2.77556e-17,0,8192,8192
265.953,2.77556e-17,0,8192,8192
266.003,0,0,8192,8192
266.052,0,0,8192,8192
266.102,0,0,8192,8192
266.152,-5.55112e-17,0,8192,8192
266.202,-5.55112e-17,0,8192,8192
266.252,-5.55112e-17,0,8192,8192
266.301,-5.55112e-17,0,8192,8192
266.351,-8.32667e-17,0,8192,8192
266.401,-8.32667e-17,0,8192,8192
266.451,-8.32667e-17,0,8192,8192
266.501,-8.32667e-17,0,8192,8192
266.55,-1.11022e-16,0,8192,8192
266.6,-1.11022e-16,0,8192,8192
266.653,-1.11022e-16,0,8192,8192
266.703,-1.11022e-16,0,8192,8192
266.752,-1.38778e-16,0,8192,8192
266.802,-1.38778e-16,0,8192,8192
266.852,-1.38778e-16,0,8192,8192
266.902,-1.11022e-16,0,8192,8192
266.952,-1.38778e-16,0,8192,8192
267.001,-1.38778e-16,0,8192,8192
267.051,-8.32667e-17,0,8192,8192
267.101,-1.11022e-16,0,8192,8192
267.151,-5.55112e-17,0,8192,8192
267.201,-5.55112e-17,0,8192,8192
267.25,-8.32667e-17,0,8192,8192
267.3,-5.55112e-17,0,8192,8192
267.353,-5.55112e-17,0,8192,8192
267.403,-2.77556e-17,0,8192,8192
267.453,-5.55112e-17,0,8192,8192
267.502,-8.32667e-17,0,8192,8192
267.552,-1.11022e-16,0,8192,8192
267.602,-1.11022e-16,0,8192,8192
267.652,-8.32667e-17,0,8192,8192
267.702,-1.11022e-16,0,8192,8192
267.751,-8.32667e-17,0,8192,8192
267.801,-1.11022e-16,0,8192,8192
267.851,-1.11022e-16,0,8192,8192
267.901,-1.38778e-16,0,8192,8192
267.95,-1.38778e-16,0,8192,8192
268,-1.38778e-16,0,8192,8192
268.05,-1.11022e-16,0,8192,8192
268.1,-1.11022e-16,0,8192,8192
268.15,-1.11022e-16,0,8192,8192
268.203,-1.11022e-16,0,8192,8192
268.253,-1.11022e-16,0,8192,8192
268.302,-1.11022e-16,0,8192,8192
268.352,-1.11022e-16,0,8192,8192
268.402,-1.11022e-16,0,8192,8192
268.452,-1.11022e-16,0,8192,8192
268.502,-8.32667e-17,0,8192,8192
268.551,-8.32667e-17,0,8192,8192
268.601,-2.77556e-17,0,8192,8192
268.651,-5.55112e-17,0,8192,8192
268.701,-2.77556e-17,0,8192,8192
268.751,0,0,8192,8192
268.8,-2.77556e-17,0,8192,8192
268.85,-2.77556e-17,0,8192,8192
268.903,-2.77556e-17,0,8192,8192
268.953,-2.77556e-17,0,8192,8192
269.002,-2.77556e-17,0,8192,8192
269.052,-2.77556e-17,0,8192,8192
269.102,-2.77556e-17,0,8192,8192
269.152,2.77556e-17,0,8192,8192
269.202,0,0,8192,8192
269.251,0,0,8192,8192
269.301,-5.55112e-17,0,8192,8192
269.351,-5.55112e-17,0,8192,8192
269.401,-2.77556e-17,0,8192,8192
269.451,-2.77556e-17,0,8192,8192
269.5,0,0,8192,8192
269.55,-2.77556e-17,0,8192,8192
269.6,-8.32667e-17,0,8192,8192
269.653,-2.77556e-17,0,8192,8192
269.703,-2.77556e-17,0,8192,8192
269.752,2.77556e-17,0,8192,8192
269.802,2.77556e-17,0,8192,8192
269.852,0,0,8192,8192
269.9,0,0,8260,8260
269.951,0,0,8356,8356
270.001,0,0,8476,8476
270.051,0,0,8572,8572
270.101,0,0,8676,8676
270.15,0,0,8760,8760
270.2,0,0,8768,8768
270.25,0,0,8744,8744
270.301,0,0,8804,8804
270.351,0,0,8892,8892
270.401,0,0,9084,9084
270.451,0,0,9236,9236
270.501,0,0,9412,9412
270.55,0,0,9556,9556
270.6,0,0,9708,9708
270.651,0,0,9908,9908
270.701,0,0,10052,10052
270.751,0,0,10244,10244
270.801,0,0,10372,10372
270.851,7.49401e-16,0,10588,10588
270.9,1.9984e-15,0,10764,10764
270.95,6.07847e-15,0,10940,10940
271.001,-6.72795e-14,0,11116,11116
271.051,-1.10931e-12,0,11300,11300
271.101,-7.53742e-12,0,11492,11492
271.151,-3.11935e-11,0,11684,11684
271.201,-8.77208e-11,0,11892,11892
271.25,-1.76733e-10,0,12044,12044
271.3,-2.61689e-10,0,12220,12220
271.351,-2.82646e-10,0,12380,12380
271.401,-2.04698e-10,0,12556,12556
271.451,-5.91196e-11,0,12708,12708
271.501,7.89913e-11,0,12844,12844
271.551,1.42587e-10,0,12880,12880
271.6,1.19546e-10,0,12904,12904
271.65,5.69836e-11,0,12948,12948
271.7,2.07734e-11,0,13060,13060
271.751,4.4503e-11,0,13212,13212
271.801,1.02663e-10,0,13372,13372
271.851,1.43096e-10,0,13524,13524
271.901,1.34442e-10,0,13684,13684
271.95,9.12592e-11,0,13852,13852
272,5.65733e-11,0,14020,14020
272.05,6.16886e-11,0,14188,14188
272.101,1.02209e-10,0,14348,14348
272.151,1.41054e-10,0,14524,14524
272.201,1.48268e-10,0,14724,14724
272.251,1.20433e-10,0,14956,14956
272.301,8.16616e-11,0,15164,15164
272.35,6.41306e-11,0,15348,15348
272.4,8.43368e-11,0,15484,15484
272.451,1.30987e-10,0,15644,15644
272.501,1.64253e-10,0,15828,15828
272.551,1.51866e-10,0,15956,15956
272.601,9.59473e-11,0,16140,16140
272.651,4.4333e-11,0,16284,16284
272.7,5.59844e-11,0,16444,16444
272.75,1.3745e-10,0,16596,16596
272.801,2.12835e-10,0,16756,16756
272.851,1.76514e-10,0,16900,16900
272.901,4.8052e-11,0,17052,17052
272.951,5.83467e-11,0,17212,17212
273.001,6.07582e-10,0,17372,17372
273.05,2.08055e-09,0,17524,17524
273.1,4.64991e-09,0,17644,17644
273.15,8.20501e-09,0,17788,17788
273.201,1.61197e-08,0,17884,17884
273.251,2.19884e-08,0,17940,17940
273.301,2.62066e-08,0,18100,18100
273.351,2.92252e-08,0,18244,18244
273.4,3.16806e-08,0,18420,18420
273.45,3.45594e-08,0,18532,18532
273.5,3.88903e-08,0,18664,18664
273.551,4.5502e-08,0,18680,18680
273.601,5.64924e-08,0,18560,18560
273.651,6.96245e-08,0,18480,18480
273.701,8.40514e-08,0,18272,18272
273.751,1.01149e-07,0,18144,18144
273.8,1.22526e-07,0,18000,18000
273.85,1.49554e-07,0,17896,17896
273.901,1.84191e-07,0,17848,17848
273.951,2.2451e-07,0,17824,17824
274.001,2.70275e-07,0,17812,17812
274.051,3.19336e-07,0,17792,17792
274.101,3.69662e-07,0,17784,17784
274.15,4.20799e-07,0,17792,17792
274.2,4.74103e-07,0,17800,17800
274.251,5.3283e-07,0,17864,17864
274.301,5.93109e-07,0,17976,17976
274.351,6.5343e-07,0,18048,18048
274.401,7.095e-07,0,18120,18120
274.451,7.57701e-07,0,18240,18240
274.5,7.95926e-07,0,18216,18216
274.55,8.23584e-07,0,18192,18192
274.601,8.41955e-07,0,18168,18168
274.651,8.52023e-07,0,18160,18160
274.701,8.56317e-07,0,18120,18120
274.751,8.57168e-07,0,18096,18096
274.801,8.56229e-07,0,18040,18040
274.85,8.53812e-07,0,18008,18008
274.9,8.49773e-07,0,18000,18000
274.95,8.32658e-07,0,17952,17952
275.001,8.11534e-07,0,17928,17928
275.051,7.84611e-07,0,17896,17896
275.101,7.50025e-07,0,17840,17840
275.151,7.07755e-07,0,17824,17824
275.201,6.59141e-07,0,17776,17776
275.251,6.06852e-07,0,17784,17784
275.301,5.53948e-07,0,17728,17728
275.35,5.04286e-07,0,17712,17712
275.401,4.56188e-07,0,17680,17680
275.45,4.13025e-07,0,17624,17624
275.501,3.7215e-07,0,17576,17576
275.551,3.35505e-07,0,17560,17560
275.601,3.01209e-07,0,17536,17536
275.651,2.68672e-07,0,17496,17496
275.701,2.37519e-07,0,17480,17480
275.751,2.07906e-07,0,17456,17456
275.801,1.80894e-07,0,17408,17408
275.851,1.58771e-07,0,17360,17360
275.901,1.41186e-07,0,17352,17352
275.951,1.284e-07,0,17312,17312
276,1.17362e-07,0,17312,17312
276.05,1.05653e-07,0,17288,17288
276.101,9.21842e-08,0,17232,17232
276.152,7.91146e-08,0,17232,17232
276.2,6.82563e-08,0,17176,17176
276.251,5.99549e-08,0,17152,17152
276.301,5.44482e-08,0,17128,17128
276.35,5.08427e-08,0,17080,17080
276.401,4.7626e-08,0,17088,17088
276.451,4.37686e-08,0,17064,17064
276.5,3.85117e-08,0,17040,17040
276.55,3.23342e-08,0,17016,17016
276.6,2.66492e-08,0,17000,17000
276.651,2.28623e-08,0,16992,16992
276.701,2.12754e-08,0,16944,16944
276.751,2.12395e-08,0,16920,16920
276.801,2.14334e-08,0,16912,16912
276.851,2.1696e-08,0,16872,16872
276.901,2.19237e-08,0,16832,16832
276.95,2.2092e-08,0,16840,16840
277,2.22007e-08,0,16816,16816
277.05,2.22418e-08,0,16800,16800
277.1,2.21959e-08,0,16784,16784
277.151,2.20472e-08,0,16776,16776
277.201,2.18126e-08,0,16736,16736
277.25,2.15529e-08,0,16728,16728
277.301,2.13058e-08,0,16736,16736
277.35,2.11161e-08,0,16672,16672
277.401,2.09665e-08,0,16680,16680
277.451,2.08457e-08,0,16688,16688
277.501,2.07245e-08,0,16632,16632
277.551,2.0585e-08,0,16632,16632
277.601,2.04179e-08,0,16608,16608
277.651,2.02185e-08,0,16584,16584
277.7,1.99925e-08,0,16584,16584
277.751,1.97228e-08,0,16544,16544
277.8,1.94249e-08,0,16536,16536
277.852,1.90766e-08,0,16488,16488
277.901,1.87023e-08,0,16472,16472
277.951,1.82928e-08,0,16448,16448
278.001,1.78514e-08,0,16440,16440
278.051,1.73827e-08,0,16400,16400
278.102,1.68926e-08,0,16344,16344
278.15,1.6405e-08,0,16344,16344
278.201,1.58879e-08,0,16304,16304
278.25,1.5382e-08,0,16288,16288
278.302,1.48531e-08,0,16264,16264
278.351,1.4341e-08,0,16224,16224
278.401,1.38285e-08,0,16192,16192
278.451,1.33185e-08,0,16292,16292
278.501,1.28151e-08,0,16188,16188
278.551,1.23241e-08,0,16092,16092
278.601,1.18501e-08,0,16084,16084
278.652,1.13975e-08,0,16100,16100
278.7,1.09857e-08,0,16076,16076
278.751,1.05862e-08,0,15948,15948
278.801,1.02176e-08,0,15828,15828
278.85,9.89264e-09,0,15700,15700
278.901,9.58605e-09,0,15628,15628
278.952,9.31007e-09,0,15508,15508
279.001,9.07192e-09,0,15452,15452
279.051,8.85137e-09,0,15316,15316
279.101,8.66285e-09,0,15228,15228
279.152,8.48999e-09,0,15108,15108
279.201,8.34428e-09,0,14908,14908
279.25,8.21791e-09,0,14876,14876
279.302,8.1057e-09,0,14780,14780
279.351,8.014e-09,0,14684,14684
279.4,7.9362e-09,0,14564,14564
279.45,7.87029e-09,0,14460,14460
279.502,7.81254e-09,0,14324,14324
279.551,7.76596e-09,0,14140,14140
279.601,7.72763e-09,0,14020,14020
279.651,7.69714e-09,0,13908,13908
279.701,7.67388e-09,0,13748,13748
279.751,7.65707e-09,0,13508,13508
279.801,7.64578e-09,0,13204,13204
279.852,7.63892e-09,0,12772,12772
279.9,7.63564e-09,0,12452,12452
279.951,7.63522e-09,0,12252,12252
280,7.6377e-09,0,12028,12028
280.051,7.6434e-09,0,11868,11868
280.1,7.65193e-09,0,11684,11684
280.152,7.66372e-09,0,11356,11356
280.201,7.67731e-09,0,11276,11276
280.25,7.69241e-09,0,11036,11036
280.301,7.70886e-09,0,11260,11260
280.352,7.72575e-09,0,11708,11708
280.4,7.74215e-09,0,12132,12132
280.45,7.75926e-09,0,12468,12468
280.501,7.7763e-09,0,12804,12804
280.551,7.79325e-09,0,12892,12892
280.601,7.81013e-09,0,12932,12932
280.651,7.82699e-09,0,13116,13116
280.702,7.84383e-09,0,13188,13188
280.752,7.86066e-09,0,13324,13324
280.801,7.87747e-09,0,13452,13452
280.851,7.89419e-09,0,13540,13540
280.901,7.91069e-09,0,13628,13628
280.951,7.92688e-09,0,13764,13764
281,7.94278e-09,0,13900,13900
281.05,7.95844e-09,0,14012,14012
281.101,7.97445e-09,0,14156,14156
281.151,7.98956e-09,0,14204,14204
281.2,8.00428e-09,0,14324,14324
281.251,8.01911e-09,0,14452,14452
281.301,8.03296e-09,0,14588,14588
281.352,8.0469e-09,0,14716,14716
281.401,8.05995e-09,0,14868,14868
281.452,8.07309e-09,0,14980,14980
281.501,8.08535e-09,0,15084,15084
281.551,8.09777e-09,0,15236,15236
281.6,8.1096e-09,0,15332,15332
281.651,8.12212e-09,0,15460,15460
281.701,8.13544e-09,0,15580,15580
281.75,8.14991e-09,0,15748,15748
281.8,8.16803e-09,0,15844,15844
281.851,8.19127e-09,0,15940,15940
281.901,8.22216e-09,0,15912,15912
281.951,8.26373e-09,0,15776,15776
282.001,8.31937e-09,0,15848,15848
282.051,8.39235e-09,0,15904,15904
282.101,8.48552e-09,0,16244,16244
282.151,8.60116e-09,0,16284,16284
282.2,8.74113e-09,0,16348,16348
282.251,8.91405e-09,0,16460,16460
282.3,9.11035e-09,0,16476,16476
282.351,9.34898e-09,0,16540,16540
282.401,9.62966e-09,0,16604,16604
282.452,9.96088e-09,0,16668,16668
282.5,1.03381e-08,0,16652,16652
282.55,1.08015e-08,0,16700,16700
282.602,1.13745e-08,0,16748,16748
282.651,1.20342e-08,0,16820,16820
282.7,1.28156e-08,0,16892,16892
282.751,1.37714e-08,0,16956,16956
282.8,1.48524e-08,0,17036,17036
282.851,1.6152e-08,0,17124,17124
282.901,1.76489e-08,0,17172,17172
282.952,1.93552e-08,0,17236,17236
283.002,2.12798e-08,0,17340,17340
283.051,2.34272e-08,0,17436,17436
283.101,2.57964e-08,0,17508,17508
283.15,2.83796e-08,0,17396,17396
283.201,3.12626e-08,0,17412,17412
283.251,3.42354e-08,0,17448,17448
283.301,3.74818e-08,0,17480,17480
283.35,4.07648e-08,0,17520,17520
283.4,4.429e-08,0,17560,17560
283.45,4.79223e-08,0,17608,17608
283.5,5.16319e-08,0,17648,17648
283.55,5.53846e-08,0,17656,17656
283.601,5.92753e-08,0,17696,17696
283.651,6.30408e-08,0,17712,17712
283.702,6.6951e-08,0,17752,17752
283.751,7.07946e-08,0,17760,17760
283.801,7.47051e-08,0,17824,17824
283.852,8.16418e-08,0,17856,17856
283.9,8.73147e-08,0,17896,17896
283.95,9.29847e-08,0,17896,17896
284.002,9.90708e-08,0,17936,17936
284.051,1.05262e-07,0,17920,17920
284.101,1.117e-07,0,17928,17928
284.15,1.18338e-07,0,17984,17984
284.201,1.25328e-07,0,18024,18024
284.251,1.32425e-07,0,18008,18008
284.3,1.39409e-07,0,18032,18032
284.351,1.46768e-07,0,18040,18040
284.401,1.54961e-07,0,18088,18088
284.451,1.67055e-07,0,18120,18120
284.5,1.80698e-07,0,18136,18136
284.551,1.97255e-07,0,18152,18152
284.601,2.16259e-07,0,18152,18152
284.65,2.38549e-07,0,18184,18184
284.701,2.6522e-07,0,18184,18184
284.751,2.95778e-07,0,18184,18184
284.8,3.29097e-07,0,18168,18168
284.85,3.66976e-07,0,18168,18168
284.9,4.0787e-07,0,18184,18184
284.95,4.51102e-07,0,18152,18152
285.001,4.97402e-07,0,18088,18088
285.051,5.43361e-07,0,18104,18104
285.1,5.89497e-07,0,18136,18136
285.151,6.36083e-07,0,18144,18144
285.201,6.80246e-07,0,18136,18136
285.25,7.19239e-07,0,18160,18160
285.3,7.53861e-07,0,18232,18232
285.351,7.81577e-07,0,18240,18240
285.4,8.01617e-07,0,18320,18320
285.45,8.1383e-07,0,18312,18312
285.5,8.18709e-07,0,18376,18376
285.551,8.1782e-07,0,18392,18392
285.601,8.14262e-07,0,18448,18448
285.651,8.02879e-07,0,18480,18480
285.701,7.87216e-07,0,18488,18488
285.751,7.67239e-07,0,18552,18552
285.8,7.42408e-07,0,18584,18584
285.85,7.12164e-07,0,18600,18600
285.901,6.75269e-07,0,18616,18616
285.951,6.34171e-07,0,18696,18696
286.001,5.88568e-07,0,18720,18720
286.051,5.39455e-07,0,18736,18736
286.101,4.88043e-07,0,18720,18720
286.15,4.35704e-07,0,18776,18776
286.2,3.83788e-07,0,18808,18808
286.251,3.32012e-07,0,18800,18800
286.301,2.84212e-07,0,18848,18848
286.351,2.3939e-07,0,18824,18824
286.401,1.97769e-07,0,18824,18824
286.451,1.59376e-07,0,18848,18848
286.5,1.24169e-07,0,18872,18872
286.55,9.21357e-08,0,18864,18864
286.6,6.33227e-08,0,18768,18768
286.651,3.71067e-08,0,18680,18680
286.701,1.49992e-08,0,18656,18656
286.751,-3.92475e-09,0,18584,18584
286.801,-1.99592e-08,0,18520,18520
286.85,-3.35252e-08,0,18440,18440
286.9,-4.50641e-08,0,18376,18376
286.95,-5.49215e-08,0,18360,18360
287.001,-6.35032e-08,0,18336,18336
287.051,-7.03324e-08,0,18272,18272
287.101,-7.56032e-08,0,18228,18228
287.151,-7.93232e-08,0,18116,18116
287.201,-8.17016e-08,0,18036,18036
287.25,-8.24755e-08,0,17940,17940
287.3,-8.2407e-08,0,17844,17844
287.351,-8.19791e-08,0,17724,17724
287.401,-8.11824e-08,0,17628,17628
287.451,-7.99731e-08,0,17524,17524
287.501,-7.8323e-08,0,17412,17412
287.551,-7.62197e-08,0,17324,17324
287.6,-7.36725e-08,0,17188,17188
287.65,-7.07157e-08,0,17076,17076
287.701,-6.73052e-08,0,16892,16892
287.751,-6.37151e-08,0,16724,16724
287.801,-5.99388e-08,0,16564,16564
287.851,-5.6051e-08,0,16412,16412
287.901,-5.21188e-08,0,16236,16236
287.95,-4.82294e-08,0,16084,16084
288,-4.45014e-08,0,15932,15932
288.051,-4.09367e-08,0,15748,15748
288.101,-3.77725e-08,0,15596,15596
288.151,-3.48775e-08,0,15436,15436
288.201,-3.22165e-08,0,15276,15276
288.251,-2.97708e-08,0,15092,15092
288.3,-2.75366e-08,0,14964,14964
288.35,-2.55087e-08,0,14772,14772
288.4,-2.36772e-08,0,14620,14620
288.451,-2.19869e-08,0,14476,14476
288.501,-2.05231e-08,0,14300,14300
288.551,-1.92138e-08,0,14140,14140
288.601,-1.80303e-08,0,13956,13956
288.65,-1.695e-08,0,13820,13820
288.7,-1.59627e-08,0,13660,13660
288.75,-1.50645e-08,0,13584,13584
288.801,-1.42304e-08,0,13560,13560
288.851,-1.35044e-08,0,13524,13524
288.901,-1.28571e-08,0,13356,13356
288.951,-1.22837e-08,0,13188,13188
289.001,-1.17794e-08,0,13004,13004
289.05,-1.13403e-08,0,12844,12844
289.1,-1.09628e-08,0,12684,12684
289.151,-1.06345e-08,0,12500,12500
289.201,-1.03705e-08,0,12316,12316
289.251,-1.0157e-08,0,12164,12164
289.301,-9.99014e-09,0,11996,11996
289.351,-9.86576e-09,0,11828,11828
289.4,-9.77937e-09,0,11676,11676
289.45,-9.72643e-09,0,11492,11492
289.501,-9.70207e-09,0,11324,11324
289.551,-9.70304e-09,0,11156,11156
289.601,-9.72393e-09,0,10972,10972
289.651,-9.76068e-09,0,10820,10820
289.701,-9.80951e-09,0,10652,10652
289.75,-9.86694e-09,0,10484,10484
289.8,-9.92975e-09,0,10292,10292
289.85,-9.99518e-09,0,10148,10148
289.901,-1.00628e-08,0,9956,9956
289.951,-1.01271e-08,0,9804,9804
290.001,-1.01887e-08,0,9620,9620
290.051,-1.02469e-08,0,9468,9468
290.1,-1.03013e-08,0,9268,9268
290.15,-1.03518e-08,0,9116,9116
290.2,-1.03988e-08,0,8948,8948
290.251,-1.04437e-08,0,8764,8764
290.301,-1.04845e-08,0,8612,8612
290.351,-1.05226e-08,0,8444,8444
290.401,-1.05582e-08,0,8276,8276
290.451,-1.05917e-08,0,8192,8192
290.501,-1.06224e-08,0,8192,8192
290.551,-1.06517e-08,0,8192,8192
290.601,-1.06802e-08,0,8192,8192
290.651,-1.07085e-08,0,8192,8192
290.7,-1.07365e-08,0,8192,8192
290.75,-1.07638e-08,0,8192,8192
290.8,-1.07905e-08,0,8192,8192
290.853,-1.08181e-08,0,8192,8192
290.903,-1.08441e-08,0,8192,8192
290.952,-1.08703e-08,0,8192,8192
291.002,-1.0897e-08,0,8192,8192
291.052,-1.09246e-08,0,8192,8192
291.102,-1.09539e-08,0,8192,8192
291.152,-1.0986e-08,0,8192,8192
291.201,-1.1022e-08,0,8192,8192
291.251,-1.10632e-08,0,8192,8192
291.301,-1.11105e-08,0,8192,8192
291.351,-1.11651e-08,0,8192,8192
291.401,-1.12279e-08,0,8192,8192
291.45,-1.13e-08,0,8192,8192
291.5,-1.13823e-08,0,8192,8192
291.553,-1.14821e-08,0,8192,8192
291.603,-1.15892e-08,0,8192,8192
291.652,-1.17095e-08,0,8192,8192
291.702,-1.18432e-08,0,8192,8192
291.752,-1.19899e-08,0,8192,8192
291.802,-1.21485e-08,0,8192,8192
291.852,-1.23182e-08,0,8192,8192
291.901,-1.24982e-08,0,8192,8192
291.951,-1.26893e-08,0,8192,8192
292.001,-1.28931e-08,0,8192,8192
292.051,-1.31115e-08,0,8192,8192
292.101,-1.33462e-08,0,8192,8192
292.15,-1.35987e-08,0,8192,8192
292.2,-1.38708e-08,0,8192,8192
292.25,-1.41638e-08,0,8192,8192
292.303,-1.44968e-08,0,8192,8192
292.353,-1.48317e-08,0,8192,8192
292.402,-1.51846e-08,0,8192,8192
292.452,-1.55535e-08,0,8192,8192
292.502,-1.59361e-08,0,8192,8192
292.552,-1.63303e-08,0,8192,8192
292.602,-1.67337e-08,0,8192,8192
292.651,-1.71444e-08,0,8192,8192
292.701,-1.756e-08,0,8192,8192
292.751,-1.79785e-08,0,8192,8192
292.801,-1.83972e-08,0,8192,8192
292.851,-1.88133e-08,0,8192,8192
292.9,-1.92239e-08,0,8192,8192
292.95,-1.96255e-08,0,8192,8192
293.003,-2.00374e-08,0,8192,8192
293.053,-2.04106e-08,0,8192,8192
293.102,-2.07657e-08,0,8192,8192
293.152,-2.11003e-08,0,8192,8192
293.202,-2.14122e-08,0,8192,8192
293.252,-2.16992e-08,0,8192,8192
293.302,-2.19594e-08,0,8192,8192
293.351,-2.21911e-08,0,8192,8192
293.401,-2.23929e-08,0,8192,8192
293.451,-2.25638e-08,0,8192,8192
293.501,-2.27035e-08,0,8192,8192
293.551,-2.28124e-08,0,8192,8192
293.6,-2.2891e-08,0,8192,8192
293.65,-2.29407e-08,0,8192,8192
293.7,-2.29631e-08,0,8192,8192
293.753,-2.29591e-08,0,8192,8192
293.803,-2.29309e-08,0,8192,8192
293.852,-2.2881e-08,0,8192,8192
293.902,-2.28114e-08,0,8192,8192
293.952,-2.27242e-08,0,8192,8192
294.002,-2.26219e-08,0,8192,8192
294.052,-2.25067e-08,0,8192,8192
294.101,-2.23807e-08,0,8192,8192
294.151,-2.22461e-08,0,8192,8192
294.201,-2.21046e-08,0,8192,8192
294.251,-2.1958e-08,0,8192,8192
294.301,-2.18077e-08,0,8192,8192
294.35,-2.16552e-08,0,8192,8192
294.4,-2.15015e-08,0,8192,8192
294.453,-2.13387e-08,0,8192,8192
294.503,-2.11856e-08,0,8192,8192
294.552,-2.1034e-08,0,8192,8192
294.602,-2.08844e-08,0,8192,8192
294.652,-2.07374e-08,0,8192,8192
294.702,-2.05936e-08,0,8192,8192
294.752,-2.04532e-08,0,8192,8192
294.801,-2.03168e-08,0,8192,8192
294.851,-2.01845e-08,0,8192,8192
294.901,-2.00565e-08,0,8192,8192
294.951,-1.99331e-08,0,8192,8192
295.001,-1.98143e-08,0,8192,8192
295.05,-1.97002e-08,0,8192,8192
295.1,-1.95908e-08,0,8192,8192
295.153,-1.94801e-08,0,8192,8192
295.203,-1.93803e-08,0,8192,8192
295.253,-1.92848e-08,0,8192,8192
295.302,-1.91937e-08,0,8192,8192
295.352,-1.91065e-08,0,8192,8192
295.402,-1.9023e-08,0,8192,8192
295.452,-1.8943e-08,0,8192,8192
295.502,-1.88662e-08,0,8192,8192
295.551,-1.87921e-08,0,8192,8192
295.601,-1.87207e-08,0,8192,8192
295.651,-1.86515e-08,0,8192,8192
295.701,-1.85843e-08,0,8192,8192
295.75,-1.85188e-08,0,8192,8192
295.8,-1.84547e-08,0,8192,8192
295.85,-1.83917e-08,0,8192,8192
295.903,-1.8326e-08,0,8192,8192
295.953,-1.82644e-08,0,8192,8192
296.002,-1.82031e-08,0,8192,8192
296.052,-1.81417e-08,0,8192,8192
296.102,-1.80802e-08,0,8192,8192
296.152,-1.80182e-08,0,8192,8192
296.202,-1.79558e-08,0,8192,8192
296.251,-1.78928e-08,0,8192,8192
296.301,-1.78291e-08,0,8192,8192
296.351,-1.77647e-08,0,8192,8192
296.401,-1.76995e-08,0,8192,8192
296.451,-1.76334e-08,0,8192,8192
296.5,-1.75664e-08,0,8192,8192
296.55,-1.74982e-08,0,8192,8192
296.603,-1.74247e-08,0,8192,8192
296.653,-1.73538e-08,0,8192,8192
296.702,-1.72813e-08,0,8192,8192
296.752,-1.72068e-08,0,8192,8192
296.802,-1.71302e-08,0,8192,8192
296.852,-1.70513e-08,0,8192,8192
296.902,-1.69697e-08,0,8192,8192
296.951,-1.68852e-08,0,8192,8192
297.001,-1.67976e-08,0,8192,8192
297.051,-1.67067e-08,0,8192,8192
297.101,-1.6612e-08,0,8192,8192
297.151,-1.65135e-08,0,8192,8192
297.2,-1.64109e-08,0,8192,8192
297.25,-1.6304e-08,0,8192,8192
297.3,-1.61926e-08,0,8192,8192
297.353,-1.60696e-08,0,8192,8192
297.403,-1.59485e-08,0,8192,8192
297.452,-1.58224e-08,0,8192,8192
297.502,-1.56913e-08,0,8192,8192
297.552,-1.5555e-08,0,8192,8192
297.602,-1.54136e-08,0,8192,8192
297.652,-1.52668e-08,0,8192,8192
297.701,-1.51146e-08,0,8192,8192
297.751,-1.4957e-08,0,8192,8192
297.801,-1.47938e-08,0,8192,8192
297.851,-1.46249e-08,0,8192,8192
297.901,-1.44504e-08,0,8192,8192
297.95,-1.42701e-08,0,8192,8192
298,-1.4084e-08,0,8192,8192
298.053,-1.38805e-08,0,8192,8192
298.103,-1.36821e-08,0,8192,8192
298.152,-1.34775e-08,0,8192,8192
298.202,-1.32664e-08,0,8192,8192
298.252,-1.30484e-08,0,8192,8192
298.302,-1.2823e-08,0,8192,8192
298.352,-1.25896e-08,0,8192,8192
298.401,-1.23473e-08,0,8192,8192
298.451,-1.2095e-08,0,8192,8192
298.501,-1.18314e-08,0,8192,8192
298.551,-1.15552e-08,0,8192,8192
298.601,-1.12647e-08,0,8192,8192
298.65,-1.09584e-08,0,8192,8192
298.7,-1.06346e-08,0,8192,8192
298.75,-1.02915e-08,0,8192,8192
298.803,-9.9056e-09,0,8192,8192
298.853,-9.51827e-09,0,8192,8192
298.902,-9.10764e-09,0,8192,8192
298.952,-8.67299e-09,0,8192,8192
299.002,-8.21403e-09,0,8192,8192
299.052,-7.73098e-09,0,8192,8192
299.102,-7.22461e-09,0,8192,8192
299.151,-6.69626e-09,0,8192,8192
299.201,-6.14787e-09,0,8192,8192
299.251,-5.5819e-09,0,8192,8192
299.301,-5.00134e-09,0,8192,8192
299.351,-4.40958e-09,0,8192,8192
299.4,-3.81036e-09,0,8192,8192
299.45,-3.20763e-09,0,8192,8192
299.503,-2.57018e-09,0,8192,8192
299.553,-1.97318e-09,0,8192,8192
299.602,-1.38528e-09,0,8192,8192
299.652,-8.10471e-10,0,8192,8192
299.702,-2.52619e-10,0,8192,8192
299.752,2.84616e-10,0,8192,8192
299.802,7.97819e-10,0,8192,8192
299.851,1.28386e-09,0,8192,8192
299.901,1.73994e-09,0,8192,8192
299.951,2.16366e-09,0,8192,8192
300.001,2.55305e-09,0,8192,8192
300.051,2.90663e-09,0,8192,8192
300.1,3.22343e-09,0,8192,8192
300.15,3.50301e-09,0,8192,8192
300.2,3.74549e-09,0,8192,8192
300.253,3.96245e-09,0,8192,8192
300.303,4.13094e-09,0,8192,8192
300.352,4.26559e-09,0,8192,8192
300.402,4.36824e-09,0,8192,8192
300.452,4.44101e-09,0,8192,8192
300.502,4.48623e-09,0,8192,8192
300.552,4.50634e-09,0,8192,8192
300.601,4.50387e-09,0,8192,8192
300.651,4.48133e-09,0,8192,8192
300.701,4.44123e-09,0,8192,8192
300.751,4.38597e-09,0,8192,8192
300.801,4.31787e-09,0,8192,8192
300.85,4.23908e-09,0,8192,8192
300.9,4.15166e-09,0,8192,8192
300.953,4.05176e-09,0,8192,8192
301.003,3.95229e-09,0,8192,8192
301.052,3.84945e-09,0,8192,8192
301.102,3.7447e-09,0,8192,8192
301.152,3.63934e-09,0,8192,8192
301.202,3.53456e-09,0,8192,8192
301.252,3.43143e-09,0,8192,8192
301.301,3.33092e-09,0,8192,8192
301.351,3.2339e-09,0,8192,8192
301.401,3.14112e-09,0,8192,8192
301.451,3.05325e-09,0,8192,8192
301.501,2.97086e-09,0,8192,8192
301.55,2.89441e-09,0,8192,8192
301.6,2.82427e-09,0,8192,8192
301.65,2.7607e-09,0,8192,8192
301.703,2.70067e-09,0,8192,8192
301.753,2.65085e-09,0,8192,8192
301.802,2.60754e-09,0,8192,8192
301.852,2.57045e-09,0,8192,8192
301.902,2.53913e-09,0,8192,8192
301.952,2.513e-09,0,8192,8192
302.002,2.49136e-09,0,8192,8192
302.051,2.47344e-09,0,8192,8192
302.101,2.45838e-09,0,8192,8192
302.151,2.44529e-09,0,8192,8192
302.201,2.43328e-09,0,8192,8192
302.251,2.42152e-09,0,8192,8192
302.3,2.40927e-09,0,8192,8192
302.35,2.39591e-09,0,8192,8192
302.403,2.38005e-09,0,8192,8192
302.453,2.36318e-09,0,8192,8192
302.502,2.34442e-09,0,8192,8192
302.552,2.32388e-09,0,8192,8192
302.602,2.30186e-09,0,8192,8192
302.652,2.27873e-09,0,8192,8192
302.702,2.25496e-09,0,8192,8192
302.751,2.231e-09,0,8192,8192
302.801,2.20726e-09,0,8192,8192
302.851,2.18411e-09,0,8192,8192
302.901,2.16185e-09,0,8192,8192
302.951,2.14073e-09,0,8192,8192
303,2.12095e-09,0,8192,8192
303.05,2.10274e-09,0,8192,8192
303.103,2.08542e-09,0,8192,8192
303.153,2.07119e-09,0,8192,8192
303.203,2.05931e-09,0,8192,8192
303.252,2.05005e-09,0,8192,8192
303.302,2.04365e-09,0,8192,8192
303.352,2.04026e-09,0,8192,8192
303.402,2.03993e-09,0,8192,8192
303.452,2.04261e-09,0,8192,8192
303.501,2.0481e-09,0,8192,8192
303.551,2.05612e-09,0,8192,8192
303.601,2.06628e-09,0,8192,8192
303.651,2.07814e-09,0,8192,8192
303.7,2.09126e-09,0,8192,8192
303.75,2.10517e-09,0,8192,8192
303.8,2.11945e-09,0,8192,8192
303.853,2.13454e-09,0,8192,8192
303.903,2.14843e-09,0,8192,8192
303.952,2.16168e-09,0,8192,8192
304.002,2.17409e-09,0,8192,8192
304.052,2.18549e-09,0,8192,8192
304.102,2.19579e-09,0,8192,8192
304.152,2.20494e-09,0,8192,8192
304.201,2.21292e-09,0,8192,8192
304.251,2.21977e-09,0,8192,8192
304.301,2.22553e-09,0,8192,8192
304.351,2.23024e-09,0,8192,8192
304.401,2.23398e-09,0,8192,8192
304.45,2.2368e-09,0,8192,8192
304.5,2.23877e-09,0,8192,8192
304.553,2.23998e-09,0,8192,8192
304.603,2.24034e-09,0,8192,8192
304.653,2.23998e-09,0,8192,8192
304.702,2.23893e-09,0,8192,8192
304.752,2.2372e-09,0,8192,8192
304.802,2.2348e-09,0,8192,8192
304.852,2.23172e-09,0,8192,8192
304.901,2.22795e-09,0,8192,8192
304.951,2.22347e-09,0,8192,8192
