250,0,0,32768,32768
250.001,0,0,32768,32768
250.051,0,0,32768,32768
250.101,0,0,32768,32768
250.151,0,0,32768,32768
250.201,0,0,32768,32768
250.25,0,0,32768,32768
250.3,0,0,32768,32768
250.35,0,0,32768,32768
250.401,0,0,32768,32768
250.451,0,0,32768,32768
250.501,0,0,32768,32768
250.551,0,0,32768,32768
250.6,0,0,32768,32768
250.65,0,0,32768,32768
250.7,0,0,32768,32768
250.751,0,0,32768,32768
250.801,0,0,32768,32768
250.851,0,0,32768,32768
250.901,0,0,32768,32768
250.951,0,0,32768,32768
251,0,0,32768,32768
251.05,0,0,32768,32768
251.101,0,0,32768,32768
251.151,0,0,32768,32768
251.201,0,0,32768,32768
251.251,0,0,32768,32768
251.301,0,0,32768,32768
251.35,0,0,32768,32768
251.4,0,0,32768,32768
251.451,0,0,32768,32768
251.501,0,0,32768,32768
251.551,0,0,32768,32768
251.601,0,0,32768,32768
251.651,2.77556e-17,0,32768,32768
251.7,2.77556e-17,0,32768,32768
251.75,2.77556e-17,0,32768,32768
251.8,2.77556e-17,0,32768,32768
251.851,2.77556e-17,0,32768,32768
251.901,2.77556e-17,0,32768,32768
251.951,5.55112e-17,0,32768,32768
252.001,2.77556e-17,0,32768,32768
252.05,2.77556e-17,0,32768,32768
252.1,0,0,32768,32768
252.15,0,0,32768,32768
252.201,0,0,32768,32768
252.251,0,0,32768,32768
252.301,0,0,32768,32768
252.351,0,0,32768,32768
252.401,0,0,32768,32768
252.45,0,0,32768,32768
252.5,0,0,32768,32768
252.551,0,0,32768,32768
252.601,0,0,32768,32768
252.651,0,0,32768,32768
252.701,0,0,32768,32768
252.751,0,0,32768,32768
252.8,0,0,32768,32768
252.85,0,0,32768,32768
252.901,0,0,32768,32768
252.951,0,0,32768,32768
253.001,0,0,32768,32768
253.051,0,0,32768,32768
253.101,0,0,32768,32768
253.15,0,0,32768,32768
253.2,0,0,32768,32768
253.25,0,0,32768,32768
253.301,2.77556e-17,0,32768,32768
253.351,2.77556e-17,0,32768,32768
253.401,2.77556e-17,0,32768,32768
253.451,2.77556e-17,0,32768,32768
253.5,-2.77556e-17,0,32768,32768
253.55,-2.77556e-17,0,32768,32768
253.6,0,0,32768,32768
253.651,-2.77556e-17,0,32768,32768
253.701,0,0,32768,32768
253.751,0,0,32768,32768
253.801,0,0,32768,32768
253.851,0,0,32768,32768
253.9,0,0,32768,32768
253.95,0,0,32768,32768
254.001,-2.77556e-17,0,32768,32768
254.051,-2.77556e-17,0,32768,32768
254.101,-2.77556e-17,0,32768,32768
254.151,-2.77556e-17,0,32768,32768
254.201,-2.77556e-17,0,32768,32768
254.25,-2.77556e-17,0,32768,32768
254.3,0,0,32768,32768
254.351,0,0,32768,32768
254.401,0,0,32768,32768
254.451,0,0,32768,32768
254.501,0,0,32768,32768
254.551,0,0,32768,32768
254.6,0,0,32768,32768
254.65,2.77556e-17,0,32768,32768
254.701,2.77556e-17,0,32768,32768
254.751,5.55112e-17,0,32768,32768
254.801,2.77556e-17,0,32768,32768
254.851,0,0,32768,32768
254.901,-2.77556e-17,0,32768,32768
254.95,-2.77556e-17,0,32768,32768
255,-2.77556e-17,0,32768,32768
255.05,-2.77556e-17,0,32768,32768
255.101,-2.77556e-17,0,32768,32768
255.151,-2.77556e-17,0,32768,32768
255.201,-5.55112e-17,0,32768,32768
255.251,-2.77556e-17,0,32768,32768
255.3,-2.77556e-17,0,32768,32768
255.35,-2.77556e-17,0,32768,32768
255.4,-2.77556e-17,0,32768,32768
255.451,-2.77556e-17,0,32768,32768
255.501,-2.77556e-17,0,32768,32768
255.551,-2.77556e-17,0,32768,32768
255.601,-2.77556e-17,0,32768,32768
255.651,-2.77556e-17,0,32768,32768
255.7,-2.77556e-17,0,32768,32768
255.75,-2.77556e-17,0,32768,32768
255.801,-2.77556e-17,0,32768,32768
255.851,-2.77556e-17,0,32768,32768
255.901,-2.77556e-17,0,32768,32768
255.951,-2.77556e-17,0,32768,32768
256.001,-2.77556e-17,0,32768,32768
256.05,-2.77556e-17,0,32768,32768
256.1,-2.77556e-17,0,32768,32768
256.151,-2.77556e-17,0,32768,32768
256.201,-2.77556e-17,0,32768,32768
256.251,-2.77556e-17,0,32768,32768
256.301,-2.77556e-17,0,32768,32768
256.351,-2.77556e-17,0,32768,32768
256.4,-2.77556e-17,0,32768,32768
256.45,-2.77556e-17,0,32768,32768
256.5,-2.77556e-17,0,32768,32768
256.551,-2.77556e-17,0,32768,32768
256.601,-2.77556e-17,0,32768,32768
256.651,-2.77556e-17,0,32768,32768
256.701,-2.77556e-17,0,32768,32768
256.75,-2.77556e-17,0,32768,32768
256.8,-2.77556e-17,0,32768,32768
256.85,-2.77556e-17,0,32768,32768
256.901,-2.77556e-17,0,32768,32768
256.951,-2.77556e-17,0,32768,32768
257.001,-2.77556e-17,0,32768,32768
257.051,-2.77556e-17,0,32768,32768
257.101,-2.77556e-17,0,32768,32768
257.15,-2.77556e-17,0,32768,32768
257.2,-2.77556e-17,0,32768,32768
257.251,-2.77556e-17,0,32768,32768
257.301,-2.77556e-17,0,32768,32768
257.351,2.77556e-17,0,32768,32768
257.401,2.77556e-17,0,32768,32768
257.451,2.77556e-17,0,32768,32768
257.5,2.77556e-17,0,32768,32768
257.55,2.77556e-17,0,32768,32768
257.601,0,0,32768,32768
257.651,0,0,32768,32768
257.701,0,0,32768,32768
257.751,0,0,32768,32768
257.801,0,0,32768,32768
257.85,0,0,32768,32768
257.9,0,0,32768,32768
257.95,0,0,32768,32768
258.001,0,0,32768,32768
258.051,0,0,32768,32768
258.101,0,0,32768,32768
258.151,0,0,32768,32768
258.2,0,0,32768,32768
258.25,0,0,32768,32768
258.3,0,0,32768,32768
258.351,0,0,32768,32768
258.401,0,0,32768,32768
258.451,0,0,32768,32768
258.501,0,0,32768,32768
258.551,0,0,32768,32768
258.6,0,0,32768,32768
258.65,0,0,32768,32768
258.701,0,0,32768,32768
258.751,0,0,32768,32768
258.801,0,0,32768,32768
258.851,0,0,32768,32768
258.901,0,0,32768,32768
258.95,0,0,32768,32768
259,0,0,32768,32768
259.051,0,0,32768,32768
259.101,0,0,32768,32768
259.151,5.55112e-17,0,32768,32768
259.201,5.55112e-17,0,32768,32768
259.251,2.77556e-17,0,32768,32768
259.3,2.77556e-17,0,32768,32768
259.35,-2.77556e-17,0,32768,32768
259.401,-2.77556e-17,0,32768,32768
259.451,2.77556e-17,0,32768,32768
259.501,2.77556e-17,0,32768,32768
259.551,5.55112e-17,0,32768,32768
259.601,8.32667e-17,0,32768,32768
259.65,5.55112e-17,0,32768,32768
259.7,5.55112e-17,0,32768,32768
259.75,8.32667e-17,0,32768,32768
259.801,1.11022e-16,0,32768,32768
259.851,1.11022e-16,0,32768,32768
259.901,1.11022e-16,0,32768,32768
259.951,1.11022e-16,0,32768,32768
260,8.32667e-17,0,32768,32768
260.05,8.32667e-17,0,32768,32768
260.1,1.11022e-16,0,32768,32768
260.151,1.11022e-16,0,32768,32768
260.201,1.11022e-16,0,32768,32768
260.251,1.11022e-16,0,32768,32768
260.301,8.32667e-17,0,32768,32768
260.351,1.11022e-16,0,32768,32768
260.4,1.11022e-16,0,32768,32768
260.45,1.11022e-16,0,32768,32768
260.501,8.32667e-17,0,32768,32768
260.551,8.32667e-17,0,32768,32768
260.601,1.11022e-16,0,32768,32768
260.651,1.11022e-16,0,32768,32768
260.701,5.55112e-17,0,32768,32768
260.75,8.32667e-17,0,32768,32768
260.8,8.32667e-17,0,32768,32768
260.851,8.32667e-17,0,32768,32768
260.901,8.32667e-17,0,32768,32768
260.951,8.32667e-17,0,32768,32768
261.001,8.32667e-17,0,32768,32768
261.051,8.32667e-17,0,32768,32768
261.1,8.32667e-17,0,32768,32768
261.15,8.32667e-17,0,32768,32768
261.2,8.32667e-17,0,32768,32768
261.251,8.32667e-17,0,32768,32768
261.301,5.55112e-17,0,32768,32768
261.351,5.55112e-17,0,32768,32768
261.401,2.77556e-17,0,32768,32768
261.45,2.77556e-17,0,32768,32768
261.5,2.77556e-17,0,32768,32768
261.55,2.77556e-17,0,32768,32768
261.601,5.55112e-17,0,32768,32768
261.651,5.55112e-17,0,32768,32768
261.701,5.55112e-17,0,32768,32768
261.751,5.55112e-17,0,32768,32768
261.801,5.55112e-17,0,32768,32768
261.85,5.55112e-17,0,32768,32768
261.9,5.55112e-17,0,32768,32768
261.951,0,0,32768,32768
262.001,0,0,32768,32768
262.051,0,0,32768,32768
262.101,0,0,32768,32768
262.151,2.77556e-17,0,32768,32768
262.2,2.77556e-17,0,32768,32768
262.25,2.77556e-17,0,32768,32768
262.301,2.77556e-17,0,32768,32768
262.351,2.77556e-17,0,32768,32768
262.401,0,0,32768,32768
262.451,0,0,32768,32768
262.501,0,0,32768,32768
262.55,0,0,32768,32768
262.6,0,0,32768,32768
262.651,0,0,32768,32768
262.701,0,0,32768,32768
262.751,0,0,32768,32768
262.801,0,0,32768,32768
262.851,0,0,32768,32768
262.9,0,0,32768,32768
262.95,0,0,32768,32768
263,0,0,32768,32768
263.051,0,0,32768,32768
263.101,0,0,32768,32768
263.151,0,0,32768,32768
263.201,0,0,32768,32768
263.25,5.55112e-17,0,32768,32768
263.3,5.55112e-17,0,32768,32768
263.35,2.77556e-17,0,32768,32768
263.401,0,0,32768,32768
263.451,0,0,32768,32768
263.501,0,0,32768,32768
263.551,0,0,32768,32768
263.601,0,0,32768,32768
263.65,0,0,32768,32768
263.7,0,0,32768,32768
263.751,0,0,32768,32768
263.801,0,0,32768,32768
263.851,0,0,32768,32768
263.901,0,0,32768,32768
263.951,0,0,32768,32768
264,0,0,32768,32768
264.05,0,0,32768,32768
264.101,0,0,32768,32768
264.151,0,0,32768,32768
264.201,0,0,32768,32768
264.251,0,0,32768,32768
264.301,0,0,32768,32768
264.35,0,0,32768,32768
264.4,0,0,32768,32768
264.45,0,0,32768,32768
264.501,0,0,32768,32768
264.551,0,0,32768,32768
264.601,0,0,32768,32768
264.651,0,0,32768,32768
264.7,0,0,32768,32768
264.75,0,0,32768,32768
264.8,0,0,32768,32768
264.851,0,0,32768,32768
264.901,0,0,32768,32768
264.951,0,0,32768,32768
265.001,0,0,32768,32768
265.051,0,0,32768,32768
265.1,0,0,32768,32768
265.15,0,0,32768,32768
265.201,0,0,32768,32768
265.251,0,0,32768,32768
265.301,0,0,32768,32768
265.351,0,0,32768,32768
265.401,0,0,32768,32768
265.45,0,0,32768,32768
265.5,0,0,32768,32768
265.551,0,0,32768,32768
265.601,0,0,32768,32768
265.651,0,0,32768,32768
265.701,0,0,32768,32768
265.751,0,0,32768,32768
265.8,0,0,32768,32768
265.85,0,0,32768,32768
265.9,0,0,32768,32768
265.951,0,0,32768,32768
266.001,0,0,32768,32768
266.051,2.77556e-17,0,32768,32768
266.101,2.77556e-17,0,32768,32768
266.15,2.77556e-17,0,32768,32768
266.2,2.77556e-17,0,32768,32768
266.25,0,0,32768,32768
266.301,0,0,32768,32768
266.351,0,0,32768,32768
266.401,0,0,32768,32768
266.451,0,0,32768,32768
266.501,0,0,32768,32768
266.55,0,0,32768,32768
266.6,0,0,32768,32768
266.651,0,0,32768,32768
266.701,0,0,32768,32768
266.751,0,0,32768,32768
266.801,0,0,32768,32768
266.851,0,0,32768,32768
266.9,2.77556e-17,0,32768,32768
266.95,8.32667e-17,0,32768,32768
267.001,8.32667e-17,0,32768,32768
267.051,5.55112e-17,0,32768,32768
267.101,8.32667e-17,0,32768,32768
267.151,8.32667e-17,0,32768,32768
267.201,8.32667e-17,0,32768,32768
267.25,5.55112e-17,0,32768,32768
267.3,2.77556e-17,0,32768,32768
267.351,2.77556e-17,0,32768,32768
267.401,2.77556e-17,0,32768,32768
267.451,2.77556e-17,0,32768,32768
267.501,2.77556e-17,0,32768,32768
267.551,2.77556e-17,0,32768,32768
267.6,2.77556e-17,0,32768,32768
267.65,2.77556e-17,0,32768,32768
267.7,2.77556e-17,0,32768,32768
267.751,2.77556e-17,0,32768,32768
267.801,2.77556e-17,0,32768,32768
267.851,2.77556e-17,0,32768,32768
267.901,2.77556e-17,0,32768,32768
267.95,2.77556e-17,0,32768,32768
268,2.77556e-17,0,32768,32768
268.05,2.77556e-17,0,32768,32768
268.1,2.77556e-17,0,33544,33544
268.151,2.77556e-17,0,34232,34232
268.201,2.77556e-17,0,34520,34520
268.25,2.77556e-17,0,35128,35128
268.3,2.77556e-17,0,35752,35752
268.351,2.77556e-17,0,35984,35984
268.4,2.77556e-17,0,36216,36216
268.45,2.77556e-17,0,36904,36904
268.5,2.77556e-17,0,37456,37456
268.551,2.77556e-17,0,37720,37720
268.6,2.77556e-17,0,38296,38296
268.65,2.77556e-17,0,38832,38832
268.701,2.77556e-17,0,39016,39016
268.75,2.77556e-17,0,39400,39400
268.8,2.77556e-17,0,39808,39808
268.85,2.77556e-17,0,39784,39784
268.901,2.77556e-17,0,40160,40160
268.95,2.77556e-17,0,40520,40520
269,2.77556e-17,0,40704,40704
269.051,2.77556e-17,0,41040,41040
269.101,2.77556e-17,0,41420,41420
269.15,2.77556e-17,0,41608,41608
269.2,2.77556e-17,0,41436,41436
269.251,2.77556e-17,0,41484,41484
269.3,2.77556e-17,0,41880,41880
269.35,2.77556e-17,0,42144,42144
269.4,2.77556e-17,0,42296,42296
269.451,2.77556e-17,0,42824,42824
269.5,2.77556e-17,0,43360,43360
269.55,2.77556e-17,0,43792,43792
269.601,2.77556e-17,0,44260,44260
269.65,2.77556e-17,0,44810,44810
269.7,2.77556e-17,0,45236,45236
269.75,2.77556e-17,0,45860,45860
269.801,2.77556e-17,0,46444,46444
269.85,2.77556e-17,0,47056,47056
269.9,2.77556e-17,0,47540,47540
269.95,2.77556e-17,0,48020,48020
270.001,2.77556e-17,0,48628,48628
270.05,2.77556e-17,0,49176,49176
270.1,2.77556e-17,0,49852,49852
270.151,2.77556e-17,0,50476,50476
270.2,2.77556e-17,0,50980,50980
270.25,2.77556e-17,0,51584,51584
270.3,2.77556e-17,0,52068,52068
270.351,2.77556e-17,0,52668,52668
270.4,2.77556e-17,0,53240,53240
270.45,2.77556e-17,0,53818,53818
270.501,2.77556e-17,0,54368,54368
270.551,2.77556e-17,0,54946,54946
270.6,2.77556e-17,0,55560,55560
270.65,2.77556e-17,0,56106,56106
270.701,2.77556e-17,0,56466,56466
270.75,2.77556e-17,0,57094,57094
270.8,2.77556e-17,0,57620,57620
270.85,2.77556e-17,0,58188,58188
270.901,2.77556e-17,0,58782,58782
270.95,2.77556e-17,0,59410,59410
271,2.77556e-17,0,59952,59952
271.051,2.77556e-17,0,60598,60598
271.1,2.77556e-17,0,61308,61308
271.15,2.77556e-17,0,61738,61738
271.2,2.77556e-17,0,62412,62412
271.251,2.77556e-17,0,62892,62892
271.3,2.77556e-17,0,63460,63460
271.35,2.77556e-17,0,64050,64050
271.401,2.77556e-17,0,64562,64562
271.451,2.77556e-17,0,65196,65196
271.5,2.77556e-17,0,65766,65766
271.55,2.77556e-17,0,66292,66292
271.601,2.77556e-17,0,66806,66806
271.65,2.77556e-17,0,67256,67256
271.7,2.77556e-17,0,67808,67808
271.75,2.77556e-17,0,68420,68420
271.801,2.77556e-17,0,69014,69014
271.85,2.77556e-17,0,69570,69570
271.9,2.77556e-17,0,70036,70036
271.951,2.77556e-17,0,70684,70684
272,2.77556e-17,0,71308,71308
272.05,2.77556e-17,0,71886,71886
272.1,2.77556e-17,0,72446,72446
272.151,2.77556e-17,0,72858,72858
272.2,2.77556e-17,0,73306,73306
272.25,2.77556e-17,0,73730,73730
272.3,2.77556e-17,0,74278,74278
272.351,2.77556e-17,0,74908,74908
272.4,2.77556e-17,0,75408,75408
272.45,2.77556e-17,0,75962,75962
272.501,2.77556e-17,0,76446,76446
272.55,2.77556e-17,0,77038,77038
272.6,2.77556e-17,0,77556,77556
272.65,2.77556e-17,0,78062,78062
272.701,2.77556e-17,0,78640,78640
272.75,2.77556e-17,0,79274,79274
272.8,2.77556e-17,0,79792,79792
272.851,2.77556e-17,0,80262,80262
272.9,2.77556e-17,0,80876,80876
272.95,2.77556e-17,0,81234,81234
273,2.77556e-17,0,81744,81744
273.051,2.77556e-17,0,82246,82246
273.1,2.77556e-17,0,82752,82752
273.15,2.77556e-17,0,83152,83152
273.2,2.77556e-17,0,83414,83414
273.251,2.77556e-17,0,84094,84094
273.3,2.77556e-17,0,84476,84476
273.35,2.77556e-17,0,85130,85130
273.401,2.77556e-17,0,85620,85620
273.45,5.82867e-16,0,86162,86162
273.5,2.10942e-15,0,86564,86564
273.55,3.91354e-15,0,87086,87086
273.601,5.71765e-15,0,87650,87650
273.65,7.57727e-15,0,88282,88282
273.7,9.38138e-15,0,88092,88092
273.751,1.11022e-14,0,88022,88022
273.801,1.29341e-14,0,88186,88186
273.85,1.47105e-14,0,88622,88622
273.9,1.77636e-14,0,89386,89386
273.951,2.32037e-14,0,89826,89826
274,-2.22877e-14,0,90586,90586
274.05,-5.18668e-13,0,91410,91410
274.1,-3.09566e-12,0,92588,92588
274.151,-1.25246e-11,0,93098,93098
274.2,-3.7657e-11,0,93520,93520
274.25,-9.0673e-11,0,93982,93982
274.301,-1.80681e-10,0,94670,94670
274.35,-2.89123e-10,0,95176,95176
274.4,-3.59908e-10,0,95694,95694
274.45,-3.30452e-10,0,96280,96280
274.501,-1.55245e-10,0,96716,96716
274.55,1.69276e-10,0,97278,97278
274.6,2.60293e-10,0,97638,97638
274.651,2.00132e-10,0,98210,98210
274.701,8.40036e-11,0,98470,98470
274.75,-1.04125e-11,0,98802,98802
274.8,-1.74638e-12,0,99080,99080
274.851,8.7265e-11,0,98982,98982
274.9,1.6972e-10,0,98504,98504
274.95,1.79678e-10,0,97970,97970
275,1.25819e-10,0,96988,96988
275.051,6.82494e-11,0,96330,96330
275.1,5.73902e-11,0,95854,95854
275.15,9.25133e-11,0,95626,95626
275.201,1.37291e-10,0,95430,95430
275.25,1.53609e-10,0,95280,95280
275.3,1.34374e-10,0,95058,95058
275.35,1.00844e-10,0,94832,94832
275.401,8.40858e-11,0,94580,94580
275.45,1.03186e-10,0,94178,94178
275.5,1.50588e-10,0,93880,93880
275.55,1.95723e-10,0,93418,93418
275.601,1.9924e-10,0,92688,92688
275.65,1.34078e-10,0,91994,91994
275.7,2.30402e-12,0,91152,91152
275.751,-1.48955e-10,0,90254,90254
275.8,-6.58418e-11,0,89324,89324
275.85,4.26743e-10,0,88414,88414
275.9,7.068e-10,0,87534,87534
275.951,3.62436e-10,0,86670,86670
276,-5.95728e-10,0,86044,86044
276.05,-1.02973e-09,0,85280,85280
276.101,4.63727e-10,0,84672,84672
276.151,4.57801e-09,0,84054,84054
276.2,1.07369e-08,0,83246,83246
276.25,1.75531e-08,0,82810,82810
276.301,2.37407e-08,0,82577,82577
276.35,2.82962e-08,0,82231,82231
276.401,3.1398e-08,0,81913,81913
276.45,3.37166e-08,0,81533,81533
276.5,3.67243e-08,0,81249,81249
276.551,4.19466e-08,0,80881,80881
276.6,5.00851e-08,0,80587,80587
276.651,6.12552e-08,0,80131,80131
276.7,7.45405e-08,0,80000,80000
276.751,9.00177e-08,0,79822,79822
276.801,1.08581e-07,0,79550,79550
276.85,1.31385e-07,0,79662,79662
276.9,1.60194e-07,0,79422,79422
276.95,1.9603e-07,0,79200,79200
277,2.39074e-07,0,78772,78772
277.05,2.88315e-07,0,78582,78582
277.101,3.41654e-07,0,78252,78252
277.151,3.96078e-07,0,77836,77836
277.201,4.51764e-07,0,77462,77462
277.251,5.09839e-07,0,77744,77744
277.3,5.70754e-07,0,77896,77896
277.351,6.36172e-07,0,78428,78428
277.4,7.00974e-07,0,79650,79650
277.45,7.61717e-07,0,80834,80834
277.501,8.15234e-07,0,82206,82206
277.55,8.57312e-07,0,82532,82532
277.6,8.88087e-07,0,82974,82974
277.651,9.08556e-07,0,83156,83156
277.701,9.20339e-07,0,84194,84194
277.751,9.26081e-07,0,84856,84856
277.801,9.27734e-07,0,85620,85620
277.85,9.26169e-07,0,86468,86468
277.9,9.21103e-07,0,87256,87256
277.95,9.11713e-07,0,87782,87782
278,8.96982e-07,0,88344,88344
278.05,8.75751e-07,0,88854,88854
278.101,8.46485e-07,0,89386,89386
278.15,8.09476e-07,0,90066,90066
278.2,7.63748e-07,0,91098,91098
278.25,7.11336e-07,0,91866,91866
278.3,6.55026e-07,0,92558,92558
278.351,5.97131e-07,0,93380,93380
278.4,5.42036e-07,0,93698,93698
278.45,4.89584e-07,0,93752,93752
278.5,4.41286e-07,0,93710,93710
278.551,3.96448e-07,0,93100,93100
278.6,3.55926e-07,0,92674,92674
278.651,3.17744e-07,0,92188,92188
278.701,2.81838e-07,0,91736,91736
278.751,2.4776e-07,0,91340,91340
278.8,2.15623e-07,0,90856,90856
278.851,1.85958e-07,0,90520,90520
278.9,1.61169e-07,0,90066,90066
278.95,1.41506e-07,0,89716,89716
279.001,1.26456e-07,0,89386,89386
279.05,1.14001e-07,0,89244,89244
279.101,1.01156e-07,0,88926,88926
279.15,8.74113e-08,0,88486,88486
279.201,7.32637e-08,0,88028,88028
279.251,6.122e-08,0,87528,87528
279.3,5.22216e-08,0,87112,87112
279.35,4.62327e-08,0,86652,86652
279.401,4.22807e-08,0,86102,86102
279.45,3.91163e-08,0,85650,85650
279.5,3.53229e-08,0,85342,85342
279.55,3.01573e-08,0,85108,85108
279.601,2.39586e-08,0,84744,84744
279.65,1.83921e-08,0,84404,84404
279.7,1.48867e-08,0,84154,84154
279.751,1.39819e-08,0,83616,83616
279.801,1.50658e-08,0,83098,83098
279.85,1.70931e-08,0,83540,83540
279.9,1.93542e-08,0,83322,83322
279.951,2.16647e-08,0,84210,84210
280,2.40783e-08,0,85072,85072
280.05,2.67416e-08,0,85834,85834
280.1,2.96741e-08,0,86580,86580
280.151,3.2873e-08,0,87146,87146
280.2,3.61874e-08,0,87668,87668
280.25,3.95012e-08,0,88172,88172
280.301,4.28639e-08,0,88604,88604
280.35,4.64903e-08,0,89118,89118
280.4,5.04095e-08,0,89594,89594
280.45,5.44946e-08,0,90128,90128
280.501,5.87489e-08,0,90692,90692
280.55,6.30465e-08,0,91308,91308
280.6,6.74135e-08,0,91828,91828
280.65,7.17268e-08,0,92424,92424
280.701,7.59331e-08,0,92964,92964
280.75,8.00565e-08,0,93618,93618
280.8,8.46723e-08,0,94312,94312
280.851,9.05131e-08,0,95024,95024
280.9,9.77528e-08,0,95502,95502
280.95,1.06227e-07,0,95596,95596
281,1.1521e-07,0,95620,95620
281.051,1.23951e-07,0,95616,95616
281.1,1.31575e-07,0,95636,95636
281.15,1.38123e-07,0,95546,95546
281.201,1.44166e-07,0,95468,95468
281.251,1.50424e-07,0,95288,95288
281.3,1.57942e-07,0,95224,95224
281.35,1.67399e-07,0,95140,95140
281.401,1.79257e-07,0,95090,95090
281.45,1.93219e-07,0,94984,94984
281.5,2.09611e-07,0,94904,94904
281.55,2.2897e-07,0,94716,94716
281.601,2.52553e-07,0,94598,94598
281.65,2.8064e-07,0,94516,94516
281.7,3.14168e-07,0,94420,94420
281.751,3.53725e-07,0,94260,94260
281.8,3.97394e-07,0,94102,94102
281.85,4.44454e-07,0,93994,93994
281.9,4.93671e-07,0,94010,94010
281.951,5.45101e-07,0,93898,93898
282,5.97164e-07,0,93874,93874
282.05,6.50573e-07,0,93768,93768
282.101,7.05364e-07,0,93634,93634
282.151,7.57986e-07,0,93552,93552
282.2,8.06416e-07,0,93420,93420
282.25,8.47753e-07,0,93432,93432
282.301,8.80209e-07,0,93344,93344
282.35,9.01874e-07,0,93208,93208
282.4,9.1363e-07,0,93098,93098
282.45,9.16799e-07,0,93006,93006
282.501,9.13044e-07,0,92916,92916
282.55,9.04085e-07,0,92822,92822
282.6,8.90916e-07,0,92422,92422
282.651,8.7354e-07,0,92416,92416
282.7,8.52174e-07,0,92637,92637
282.75,8.25905e-07,0,92786,92786
282.8,7.93438e-07,0,93546,93546
282.85,7.54471e-07,0,94152,94152
282.9,7.0876e-07,0,94760,94760
282.95,6.56765e-07,0,95224,95224
283.001,5.98865e-07,0,96072,96072
283.05,5.38883e-07,0,96744,96744
283.1,4.77357e-07,0,97432,97432
283.15,4.17449e-07,0,98056,98056
283.201,3.59953e-07,0,98760,98760
283.25,3.07508e-07,0,99410,99410
283.3,2.58733e-07,0,100178,100178
283.35,2.14219e-07,0,100742,100742
283.4,1.73461e-07,0,100906,100906
283.45,1.3595e-07,0,100814,100814
283.5,1.00893e-07,0,101654,101654
283.551,6.89803e-08,0,102554,102554
283.6,4.07168e-08,0,103528,103528
283.65,1.67296e-08,0,103958,103958
283.701,-2.98414e-09,0,104510,104510
283.75,-1.8359e-08,0,105150,105150
283.8,-3.10844e-08,0,105674,105674
283.85,-4.22651e-08,0,106336,106336
283.9,-5.26815e-08,0,106694,106694
283.951,-6.23859e-08,0,107138,107138
284,-7.04002e-08,0,107476,107476
284.05,-7.61967e-08,0,108166,108166
284.1,-7.95951e-08,0,108726,108726
284.151,-8.10377e-08,0,109606,109606
284.2,-8.13747e-08,0,110254,110254
284.25,-8.15411e-08,0,110712,110712
284.301,-8.19223e-08,0,111190,111190
284.35,-8.26518e-08,0,111662,111662
284.4,-8.3009e-08,0,112230,112230
284.45,-8.23364e-08,0,112662,112662
284.501,-8.017e-08,0,113168,113168
284.55,-7.67279e-08,0,113510,113510
284.6,-7.24708e-08,0,114024,114024
284.651,-6.78723e-08,0,114500,114500
284.701,-6.34398e-08,0,114494,114494
284.75,-5.92672e-08,0,114406,114406
284.8,-5.53885e-08,0,113974,113974
284.851,-5.17584e-08,0,113940,113940
284.9,-4.85074e-08,0,113936,113936
284.95,-4.56201e-08,0,113716,113716
285,-4.31141e-08,0,113668,113668
285.051,-4.09237e-08,0,114188,114188
285.1,-3.90354e-08,0,115730,115730
285.15,-3.73571e-08,0,118010,118010
285.201,-3.58567e-08,0,118914,118914
285.25,-3.45913e-08,0,119194,119194
285.3,-3.35479e-08,0,119698,119698
285.35,-3.2719e-08,0,120278,120278
285.401,-3.20786e-08,0,120978,120978
285.45,-3.16226e-08,0,121554,121554
285.5,-3.13129e-08,0,122034,122034
285.55,-3.10943e-08,0,122202,122202
285.601,-3.11088e-08,0,122350,122350
285.65,-3.11452e-08,0,122268,122268
285.7,-3.12387e-08,0,122264,122264
285.751,-3.14131e-08,0,122152,122152
285.8,-3.16144e-08,0,122000,122000
285.85,-3.18312e-08,0,121864,121864
285.9,-3.20605e-08,0,121648,121648
285.951,-3.23153e-08,0,121552,121552
286,-3.25872e-08,0,121506,121506
286.05,-3.28609e-08,0,121410,121410
286.101,-3.31369e-08,0,121522,121522
286.151,-3.34037e-08,0,121708,121708
286.2,-3.36595e-08,0,121922,121922
286.25,-3.38997e-08,0,122350,122350
286.301,-3.41253e-08,0,122632,122632
286.35,-3.43319e-08,0,123074,123074
286.4,-3.45247e-08,0,122966,122966
286.45,-3.47042e-08,0,122960,122960
286.501,-3.4871e-08,0,123004,123004
286.55,-3.5018e-08,0,121080,121080
286.6,-3.5145e-08,0,119440,119440
286.651,-3.52505e-08,0,117890,117890
286.7,-3.53316e-08,0,116660,116660
286.75,-3.53878e-08,0,115598,115598
286.8,-3.54197e-08,0,114664,114664
286.851,-3.54267e-08,0,113720,113720
286.9,-3.54203e-08,0,112750,112750
286.95,-3.53967e-08,0,111726,111726
287.001,-3.53565e-08,0,110876,110876
287.051,-3.53041e-08,0,110126,110126
287.1,-3.52424e-08,0,109462,109462
287.15,-3.5174e-08,0,108858,108858
287.201,-3.51002e-08,0,108360,108360
287.25,-3.50241e-08,0,107858,107858
287.3,-3.49464e-08,0,107130,107130
287.35,-3.48681e-08,0,106938,106938
287.401,-3.47892e-08,0,106394,106394
287.45,-3.4713e-08,0,106138,106138
287.5,-3.46393e-08,0,105858,105858
287.551,-3.45684e-08,0,105324,105324
287.6,-3.45029e-08,0,105158,105158
287.65,-3.44423e-08,0,104840,104840
287.7,-3.43873e-08,0,104828,104828
287.751,-3.43376e-08,0,104614,104614
287.8,-3.42951e-08,0,104752,104752
287.85,-3.42593e-08,0,104350,104350
287.901,-3.423e-08,0,103878,103878
287.951,-3.42079e-08,0,103444,103444
288,-3.41924e-08,0,102778,102778
288.05,-3.41838e-08,0,102266,102266
288.101,-3.41819e-08,0,101728,101728
288.15,-3.4187e-08,0,101302,101302
288.2,-3.41995e-08,0,101030,101030
288.25,-3.42193e-08,0,100552,100552
288.301,-3.42473e-08,0,99556,99556
288.35,-3.42823e-08,0,98362,98362
288.4,-3.43247e-08,0,97420,97420
288.451,-3.43747e-08,0,96168,96168
288.5,-3.44306e-08,0,94436,94436
288.55,-3.44927e-08,0,93898,93898
288.6,-3.45606e-08,0,93964,93964
288.651,-3.46357e-08,0,94716,94716
288.7,-3.47163e-08,0,94972,94972
288.75,-3.48044e-08,0,95396,95396
288.8,-3.49012e-08,0,95982,95982
288.851,-3.50095e-08,0,96918,96918
288.9,-3.51278e-08,0,100406,100406
288.95,-3.52597e-08,0,102152,102152
289.001,-3.54101e-08,0,103654,103654
289.05,-3.55738e-08,0,104566,104566
289.1,-3.57381e-08,0,105124,105124
289.15,-3.5927e-08,0,106038,106038
289.201,-3.622e-08,0,107034,107034
289.25,-3.64804e-08,0,106276,106276
289.3,-3.67644e-08,0,102822,102822
289.351,-3.70808e-08,0,101976,101976
289.401,-3.7412e-08,0,101494,101494
289.45,-3.77582e-08,0,100794,100794
289.5,-3.81604e-08,0,101034,101034
289.551,-3.85751e-08,0,102408,102408
289.6,-3.89946e-08,0,102480,102480
289.65,-3.94234e-08,0,102208,102208
289.7,-3.98562e-08,0,102228,102228
289.751,-4.02933e-08,0,102420,102420
289.8,-4.07168e-08,0,102568,102568
289.85,-4.11283e-08,0,102688,102688
289.901,-4.15297e-08,0,102846,102846
289.95,-4.19061e-08,0,102872,102872
290,-4.22605e-08,0,102768,102768
290.05,-4.25896e-08,0,101922,101922
290.101,-4.28943e-08,0,100814,100814
290.15,-4.31617e-08,0,99324,99324
290.2,-4.33924e-08,0,97676,97676
290.251,-4.35852e-08,0,96094,96094
290.301,-4.3732e-08,0,94302,94302
290.35,-4.38352e-08,0,92298,92298
290.4,-4.38984e-08,0,89882,89882
290.451,-4.39212e-08,0,87090,87090
290.5,-4.38756e-08,0,83926,83926
290.55,-4.37638e-08,0,80570,80570
290.6,-4.36268e-08,0,77746,77746
290.651,-4.34623e-08,0,78084,78084
290.7,-4.32685e-08,0,79524,79524
290.75,-4.30268e-08,0,82774,82774
290.801,-4.27406e-08,0,80206,80206
290.85,-4.24214e-08,0,77840,77840
290.9,-4.20683e-08,0,77216,77216
290.95,-4.16804e-08,0,77674,77674
291.001,-4.12266e-08,0,79848,79848
291.05,-4.07292e-08,0,82552,82552
291.1,-4.0209e-08,0,82776,82776
291.15,-3.96389e-08,0,82696,82696
291.201,-3.90056e-08,0,82692,82692
291.25,-3.83452e-08,0,82384,82384
291.3,-3.76521e-08,0,82064,82064
291.351,-3.69019e-08,0,82228,82228
291.4,-3.61215e-08,0,82868,82868
291.45,-3.53104e-08,0,82788,82788
291.5,-3.44615e-08,0,82784,82784
291.551,-3.35559e-08,0,82792,82792
291.6,-3.26658e-08,0,82912,82912
291.65,-3.17707e-08,0,83184,83184
291.701,-3.08612e-08,0,83552,83552
291.751,-2.99698e-08,0,83808,83808
291.8,-2.9089e-08,0,83936,83936
291.85,-2.82228e-08,0,83920,83920
291.901,-2.73628e-08,0,83780,83780
291.95,-2.65386e-08,0,83536,83536
292,-2.57391e-08,0,83496,83496
292.05,-2.49706e-08,0,83912,83912
292.101,-2.42218e-08,0,84248,84248
292.15,-2.35147e-08,0,84568,84568
292.2,-2.28585e-08,0,84746,84746
292.251,-2.22537e-08,0,84952,84952
292.3,-2.17156e-08,0,85070,85070
292.35,-2.12182e-08,0,85340,85340
292.4,-2.07697e-08,0,85390,85390
292.451,-2.03577e-08,0,85192,85192
292.5,-1.99942e-08,0,84942,84942
292.55,-1.96771e-08,0,84834,84834
292.601,-1.93966e-08,0,85154,85154
292.651,-1.9153e-08,0,85154,85154
292.7,-1.89401e-08,0,84334,84334
292.75,-1.87564e-08,0,82398,82398
292.801,-1.85962e-08,0,80748,80748
292.85,-1.84612e-08,0,80758,80758
292.9,-1.83458e-08,0,79766,79766
292.95,-1.82466e-08,0,78666,78666
293.001,-1.81601e-08,0,77060,77060
293.05,-1.80857e-08,0,75630,75630
293.1,-1.80203e-08,0,74314,74314
293.15,-1.79621e-08,0,73610,73610
293.2,-1.7911e-08,0,73050,73050
293.251,-1.78648e-08,0,72530,72530
293.3,-1.78214e-08,0,72398,72398
293.35,-1.77795e-08,0,72260,72260
293.4,-1.77386e-08,0,72028,72028
293.45,-1.76985e-08,0,71942,71942
293.5,-1.76577e-08,0,71876,71876
293.551,-1.76166e-08,0,71702,71702
293.601,-1.75742e-08,0,71276,71276
293.651,-1.75296e-08,0,71286,71286
293.7,-1.74814e-08,0,71346,71346
293.75,-1.7428e-08,0,71390,71390
293.8,-1.73686e-08,0,71448,71448
293.851,-1.73013e-08,0,71502,71502
293.9,-1.72271e-08,0,71568,71568
293.95,-1.71453e-08,0,71548,71548
294.001,-1.70538e-08,0,71626,71626
294.05,-1.69549e-08,0,71648,71648
294.1,-1.68472e-08,0,71682,71682
294.15,-1.6731e-08,0,71734,71734
294.201,-1.66049e-08,0,71752,71752
294.25,-1.64731e-08,0,71780,71780
294.3,-1.63348e-08,0,71822,71822
294.351,-1.61882e-08,0,71836,71836
294.401,-1.60381e-08,0,71876,71876
294.45,-1.58826e-08,0,71906,71906
294.5,-1.5722e-08,0,71902,71902
294.551,-1.55547e-08,0,71918,71918
294.6,-1.53861e-08,0,71926,71926
294.65,-1.5215e-08,0,71950,71950
294.7,-1.50417e-08,0,71978,71978
294.751,-1.48637e-08,0,71984,71984
294.8,-1.4685e-08,0,72006,72006
294.85,-1.45016e-08,0,72024,72024
294.901,-1.43086e-08,0,72378,72378
294.95,-1.41104e-08,0,72946,72946
295,-1.3904e-08,0,73268,73268
295.05,-1.36887e-08,0,73584,73584
295.101,-1.34625e-08,0,73286,73286
295.15,-1.32321e-08,0,72938,72938
295.2,-1.29952e-08,0,73814,73814
295.251,-1.27488e-08,0,73568,73568
295.301,-1.25011e-08,0,73510,73510
295.35,-1.22481e-08,0,73092,73092
295.4,-1.19878e-08,0,72870,72870
295.451,-1.17129e-08,0,72520,72520
295.5,-1.14273e-08,0,72194,72194
295.55,-1.11245e-08,0,71754,71754
295.6,-1.08044e-08,0,71358,71358
295.651,-1.04595e-08,0,70912,70912
295.7,-1.01043e-08,0,70482,70482
295.75,-9.69294e-09,0,69674,69674
295.801,-9.25524e-09,0,68944,68944
295.85,-8.79752e-09,0,68460,68460
295.9,-8.3102e-09,0,67852,67852
295.95,-7.79097e-09,0,67192,67192
296.001,-7.23141e-09,0,66514,66514
296.05,-6.64853e-09,0,65712,65712
296.1,-6.03446e-09,0,64976,64976
296.15,-5.38965e-09,0,64360,64360
296.201,-4.70557e-09,0,63760,63760
296.25,-4.00543e-09,0,63078,63078
296.3,-3.28613e-09,0,62438,62438
296.351,-2.54626e-09,0,61848,61848
296.4,-1.81599e-09,0,61418,61418
296.45,-1.09041e-09,0,60964,60964
296.5,-3.73873e-10,0,60344,60344
296.551,3.39622e-10,0,59720,59720
296.6,1.02512e-09,0,59194,59194
296.65,1.68908e-09,0,58656,58656
296.701,2.33713e-09,0,58068,58068
296.751,2.94743e-09,0,57544,57544
296.8,3.52701e-09,0,56916,56916
296.85,4.07393e-09,0,56852,56852
296.901,4.58851e-09,0,56884,56884
296.95,5.04725e-09,0,56940,56940
297,5.46156e-09,0,56952,56952
297.05,5.8223e-09,0,57012,57012
297.1,6.13226e-09,0,57078,57078
297.151,6.39892e-09,0,57088,57088
297.2,6.6167e-09,0,57144,57144
297.25,6.7988e-09,0,57152,57152
297.3,6.94088e-09,0,57220,57220
297.35,7.03584e-09,0,57286,57286
297.401,7.08121e-09,0,57304,57304
297.45,7.09716e-09,0,57364,57364
297.5,7.09886e-09,0,57412,57412
297.55,7.08058e-09,0,57460,57460
297.6,7.04278e-09,0,57504,57504
297.65,6.9868e-09,0,57568,57568
297.701,6.91599e-09,0,57622,57622
297.751,6.83318e-09,0,57656,57656
297.801,6.74079e-09,0,57744,57744
297.85,6.64105e-09,0,57776,57776
297.9,6.53601e-09,0,57818,57818
297.95,6.42558e-09,0,57884,57884
298,6.31307e-09,0,57918,57918
298.05,6.19991e-09,0,57952,57952
298.101,6.08546e-09,0,58022,58022
298.15,5.97437e-09,0,58094,58094
298.2,5.86383e-09,0,58124,58124
298.25,5.75631e-09,0,58194,58194
298.3,5.65242e-09,0,58250,58250
298.351,5.55119e-09,0,58348,58348
298.4,5.45645e-09,0,58360,58360
298.45,5.36587e-09,0,58474,58474
298.5,5.28165e-09,0,58532,58532
298.55,5.20428e-09,0,58634,58634
298.601,5.13303e-09,0,58712,58712
298.65,5.07013e-09,0,58808,58808
298.7,5.01361e-09,0,58866,58866
298.75,4.96446e-09,0,58950,58950
298.801,4.92168e-09,0,59056,59056
298.85,4.88582e-09,0,59134,59134
298.9,4.85491e-09,0,59210,59210
298.95,4.82862e-09,0,59294,59294
299,4.80596e-09,0,59384,59384
299.05,4.786e-09,0,59490,59490
299.1,4.76754e-09,0,59530,59530
299.151,4.75002e-09,0,59632,59632
299.201,4.73267e-09,0,59720,59720
299.25,4.71476e-09,0,59810,59810
299.3,4.69556e-09,0,59894,59894
299.35,4.67408e-09,0,59978,59978
299.401,4.6501e-09,0,60032,60032
299.451,4.62336e-09,0,60136,60136
299.5,4.59392e-09,0,60202,60202
299.55,4.56212e-09,0,60304,60304
299.601,4.5281e-09,0,60394,60394
299.65,4.49362e-09,0,60436,60436
299.7,4.4589e-09,0,60530,60530
299.75,4.42443e-09,0,60624,60624
299.801,4.38997e-09,0,60682,60682
299.85,4.35649e-09,0,60726,60726
299.9,4.32327e-09,0,60806,60806
299.95,4.29005e-09,0,60886,60886
300.001,4.25614e-09,0,60964,60964
300.05,4.2225e-09,0,61054,61054
300.1,4.18884e-09,0,61106,61106
300.151,4.15509e-09,0,61132,61132
300.2,4.12282e-09,0,61208,61208
300.25,4.09211e-09,0,61288,61288
300.3,4.06346e-09,0,61356,61356
300.351,4.03679e-09,0,61408,61408
300.4,4.0129e-09,0,61434,61434
300.45,3.99119e-09,0,61492,61492
300.501,3.97098e-09,0,61540,61540
300.551,3.95235e-09,0,61602,61602
300.6,3.93449e-09,0,61650,61650
300.65,3.91701e-09,0,61730,61730
300.701,3.89936e-09,0,61752,61752
300.75,3.88188e-09,0,61788,61788
300.8,3.86422e-09,0,61840,61840
300.85,3.8463e-09,0,61884,61884
300.901,3.82774e-09,0,61920,61920
300.95,3.80894e-09,0,61958,61958
301,3.78953e-09,0,62004,62004
301.051,3.76909e-09,0,62038,62038
301.1,3.74822e-09,0,62030,62030
301.15,3.72668e-09,0,62050,62050
301.2,3.70457e-09,0,61694,61694
301.251,3.68167e-09,0,61314,61314
301.3,3.65871e-09,0,60882,60882
301.35,3.63536e-09,0,60472,60472
301.401,3.61127e-09,0,60032,60032
301.451,3.58711e-09,0,59600,59600
301.5,3.56256e-09,0,59188,59188
301.55,3.53768e-09,0,58752,58752
301.601,3.51218e-09,0,58312,58312
301.65,3.48686e-09,0,57888,57888
301.7,3.46139e-09,0,57454,57454
301.75,3.43574e-09,0,57016,57016
301.801,3.40946e-09,0,56570,56570
301.85,3.38324e-09,0,56120,56120
301.9,3.35662e-09,0,55684,55684
301.951,3.32914e-09,0,55220,55220
302,3.30159e-09,0,54776,54776
302.05,3.2736e-09,0,54194,54194
302.1,3.24523e-09,0,53510,53510
302.151,3.2161e-09,0,52840,52840
302.2,3.18714e-09,0,52158,52158
302.25,3.15797e-09,0,51476,51476
302.301,3.12819e-09,0,50804,50804
302.351,3.09871e-09,0,50116,50116
302.4,3.0691e-09,0,49450,49450
302.45,3.03936e-09,0,48772,48772
302.501,3.00905e-09,0,48082,48082
302.55,2.97906e-09,0,47412,47412
302.6,2.94893e-09,0,46730,46730
302.65,2.91868e-09,0,46056,46056
302.701,2.88785e-09,0,45372,45372
302.75,2.85733e-09,0,44698,44698
302.8,2.82666e-09,0,44022,44022
302.851,2.79537e-09,0,43334,43334
302.9,2.76436e-09,0,42664,42664
302.95,2.73314e-09,0,41980,41980
303,2.70169e-09,0,41312,41312
303.051,2.66951e-09,0,40624,40624
303.1,2.6375e-09,0,39954,39954
303.15,2.60516e-09,0,39278,39278
303.2,2.57246e-09,0,38602,38602
303.251,2.53888e-09,0,37918,37918
303.3,2.50535e-09,0,37230,37230
303.35,2.47137e-09,0,36564,36564
303.401,2.43638e-09,0,35870,35870
303.45,2.40137e-09,0,35204,35204
303.5,2.3658e-09,0,34510,34510
303.55,2.32965e-09,0,33848,33848
303.601,2.29237e-09,0,33158,33158
303.651,2.25465e-09,0,32768,32768
303.701,2.21669e-09,0,32768,32768
303.75,2.17813e-09,0,32768,32768
303.8,2.139e-09,0,32768,32768
303.85,2.09931e-09,0,32768,32768
303.901,2.0579e-09,0,32768,32768
303.951,2.01716e-09,0,32768,32768
304.001,1.97597e-09,0,32768,32768
304.051,1.93437e-09,0,32768,32768
304.101,1.89241e-09,0,32768,32768
304.15,1.85014e-09,0,32768,32768
304.2,1.80762e-09,0,32768,32768
304.251,1.76365e-09,0,32768,32768
304.301,1.72082e-09,0,32768,32768
304.351,1.67792e-09,0,32768,32768
304.401,1.63502e-09,0,32768,32768
304.451,1.5922e-09,0,32768,32768
304.5,1.54951e-09,0,32768,32768
304.55,1.50702e-09,0,32768,32768
304.601,1.46356e-09,0,32768,32768
304.651,1.42166e-09,0,32768,32768
304.701,1.38014e-09,0,32768,32768
304.751,1.33904e-09,0,32768,32768
304.801,1.29841e-09,0,32768,32768
304.85,1.2583e-09,0,32768,32768
304.9,1.21873e-09,0,32768,32768
304.951,1.17861e-09,0,32768,32768
