250,0,0,512,512
250.012,0,0,512,512
250.059,0,0,512,512
250.105,0,0,512,512
250.152,0,0,512,512
250.211,0,0,512,512
250.258,0,0,512,512
250.305,0,0,512,512
250.352,0,0,512,512
250.41,0,0,512,512
250.457,0,0,512,512
250.504,0,0,512,512
250.551,0,0,512,512
250.609,0,0,512,512
250.656,0,0,512,512
250.703,0,0,512,512
250.762,0,0,512,512
250.808,0,0,512,512
250.855,0,0,512,512
250.902,0,0,512,512
250.961,0,0,512,512
251.008,0,0,512,512
251.055,0,0,512,512
251.101,0,0,512,512
251.16,0,0,512,512
251.207,0,0,512,512
251.254,0,0,512,512
251.301,0,0,512,512
251.359,0,0,512,512
251.406,0,0,512,512
251.453,0,0,512,512
251.511,0,0,512,512
251.558,0,0,512,512
251.605,0,0,512,512
251.652,0,0,512,512
251.711,0,0,512,512
251.758,0,0,512,512
251.804,0,0,512,512
251.851,0,0,512,512
251.91,0,0,512,512
251.957,0,0,512,512
252.004,0,0,512,512
252.05,0,0,512,512
252.109,0,0,512,512
252.156,0,0,512,512
252.203,0,0,512,512
252.261,0,0,512,512
252.308,0,0,512,512
252.355,0,0,512,512
252.402,0,0,512,512
252.461,0,0,512,512
252.507,0,0,512,512
252.554,0,0,512,512
252.601,0,0,512,512
252.66,0,0,512,512
252.707,0,0,512,512
252.754,0,0,512,512
252.8,0,0,512,512
252.859,0,0,512,512
252.906,0,0,512,512
252.953,0,0,512,512
253.011,0,0,512,512
253.058,0,0,512,512
253.105,0,0,512,512
253.152,0,0,512,512
253.21,0,0,512,512
253.257,0,0,512,512
253.304,0,0,512,512
253.351,0,0,512,512
253.41,0,0,512,512
253.457,0,0,512,512
253.503,0,0,512,512
253.55,0,0,512,512
253.609,0,0,512,512
253.656,0,0,512,512
253.703,0,0,512,512
253.761,0,0,512,512
253.808,0,0,512,512
253.855,0,0,512,512
253.902,0,0,512,512
253.96,0,0,512,512
254.007,0,0,512,512
254.054,0,0,512,512
254.101,0,0,512,512
254.16,0,0,512,512
254.206,0,0,512,512
254.253,0,0,512,512
254.3,0,0,512,512
254.359,0,0,512,512
254.406,0,0,512,512
254.452,0,0,512,512
254.511,0,0,512,512
254.558,0,0,512,512
254.605,0,0,512,512
254.652,0,0,512,512
254.71,0,0,512,512
254.757,0,0,512,512
254.804,0,0,512,512
254.851,0,0,512,512
254.909,0,0,512,512
254.956,0,0,512,512
255.003,0,0,512,512
255.05,0,0,512,512
255.109,0,0,512,512
255.155,0,0,512,512
255.202,0,0,512,512
255.261,0,0,512,512
255.308,0,0,512,512
255.355,0,0,512,512
255.402,0,0,512,512
255.46,0,0,512,512
255.507,0,0,512,512
255.554,0,0,512,512
255.601,0,0,512,512
255.659,0,0,512,512
255.706,0,0,512,512
255.753,0,0,512,512
255.812,0,0,512,512
255.859,0,0,512,512
255.905,0,0,512,512
255.952,0,0,512,512
256.011,0,0,512,512
256.058,0,0,512,512
256.105,0,0,512,512
256.151,0,0,512,512
256.21,0,0,512,512
256.257,0,0,512,512
256.304,0,0,512,512
256.351,0,0,512,512
256.409,0,0,512,512
256.456,0,0,512,512
256.503,0,0,512,512
256.562,0,0,512,512
256.608,0,0,512,512
256.655,0,0,512,512
256.702,0,0,512,512
256.761,0,0,512,512
256.808,0,0,512,512
256.854,0,0,512,512
256.901,0,0,512,512
256.96,0,0,512,512
257.007,0,0,512,512
257.054,0,0,512,512
257.101,0,0,512,512
257.159,0,0,512,512
257.206,0,0,512,512
257.253,0,0,512,512
257.311,0,0,512,512
257.358,0,0,512,512
257.405,0,0,512,512
257.452,0,0,512,512
257.511,0,0,512,512
257.557,0,0,512,512
257.604,0,0,512,512
257.651,0,0,512,512
257.71,0,0,512,512
257.757,0,0,512,512
257.804,0,0,512,512
257.85,2.77556e-17,0,512,512
257.909,2.77556e-17,0,512,512
257.956,2.77556e-17,0,512,512
258.003,2.77556e-17,0,512,512
258.061,2.77556e-17,0,512,512
258.108,2.77556e-17,0,512,512
258.155,2.77556e-17,0,512,512
258.202,2.77556e-17,0,512,512
258.261,2.77556e-17,0,512,512
258.307,2.77556e-17,0,512,512
258.354,2.77556e-17,0,512,512
258.401,2.77556e-17,0,512,512
258.46,2.77556e-17,0,512,512
258.507,2.77556e-17,0,512,512
258.553,2.77556e-17,0,512,512
258.6,2.77556e-17,0,512,512
258.659,2.77556e-17,0,512,512
258.706,2.77556e-17,0,512,512
258.753,2.77556e-17,0,512,512
258.811,2.77556e-17,0,512,512
258.858,2.77556e-17,0,512,512
258.905,2.77556e-17,0,512,512
258.952,0,0,512,512
259.01,0,0,512,512
259.057,0,0,512,512
259.104,0,0,512,512
259.151,2.77556e-17,0,512,512
259.21,2.77556e-17,0,512,512
259.256,2.77556e-17,0,512,512
259.303,2.77556e-17,0,512,512
259.35,2.77556e-17,0,512,512
259.409,2.77556e-17,0,512,512
259.456,2.77556e-17,0,512,512
259.503,2.77556e-17,0,512,512
259.561,2.77556e-17,0,512,512
259.608,2.77556e-17,0,512,512
259.655,2.77556e-17,0,512,512
259.702,2.77556e-17,0,512,512
259.76,2.77556e-17,0,512,512
259.807,2.77556e-17,0,512,512
259.854,2.77556e-17,0,512,512
259.901,2.77556e-17,0,512,512
259.959,2.77556e-17,0,512,512
260.006,2.77556e-17,0,512,512
260.053,2.77556e-17,0,512,512
260.1,2.77556e-17,0,512,512
260.159,2.77556e-17,0,512,512
260.206,0,0,512,512
260.252,0,0,512,512
260.311,0,0,512,512
260.358,0,0,512,512
260.405,0,0,512,512
260.452,0,0,512,512
260.51,0,0,512,512
260.557,0,0,512,512
260.604,0,0,512,512
260.651,0,0,512,512
260.709,0,0,512,512
260.756,0,0,512,512
260.803,0,0,512,512
260.862,0,0,512,512
260.909,0,0,512,512
260.955,0,0,512,512
261.002,0,0,512,512
261.061,0,0,512,512
261.108,0,0,512,512
261.155,0,0,512,512
261.201,0,0,512,512
261.26,0,0,512,512
261.307,0,0,512,512
261.354,0,0,512,512
261.401,0,0,512,512
261.459,0,0,512,512
261.506,0,0,512,512
261.553,0,0,512,512
261.612,0,0,512,512
261.658,0,0,512,512
261.705,0,0,512,512
261.752,0,0,512,512
261.811,0,0,512,512
261.858,0,0,512,512
261.905,0,0,512,512
261.951,0,0,512,512
262.01,0,0,512,512
262.057,0,0,512,512
262.104,0,0,512,512
262.151,0,0,512,512
262.209,0,0,512,512
262.256,0,0,512,512
262.303,0,0,512,512
262.361,0,0,512,512
262.408,0,0,512,512
262.455,0,0,512,512
262.502,0,0,512,512
262.561,0,0,512,512
262.608,0,0,512,512
262.654,0,0,512,512
262.701,0,0,512,512
262.76,0,0,512,512
262.807,0,0,512,512
262.854,0,0,512,512
262.9,0,0,512,512
262.959,0,0,512,512
263.006,0,0,512,512
263.053,0,0,512,512
263.111,-2.77556e-17,0,512,512
263.158,-2.77556e-17,0,512,512
263.205,-2.77556e-17,0,512,512
263.252,-2.77556e-17,0,512,512
263.311,-2.77556e-17,0,512,512
263.357,-2.77556e-17,0,512,512
263.404,-2.77556e-17,0,512,512
263.451,-2.77556e-17,0,512,512
263.51,-2.77556e-17,0,512,512
263.557,-2.77556e-17,0,512,512
263.603,-2.77556e-17,0,512,512
263.65,-2.77556e-17,0,512,512
263.709,-2.77556e-17,0,512,512
263.756,-2.77556e-17,0,512,512
263.803,-2.77556e-17,0,512,512
263.861,-2.77556e-17,0,512,512
263.908,-2.77556e-17,0,512,512
263.955,-2.77556e-17,0,512,512
264.002,-2.77556e-17,0,512,512
264.06,-2.77556e-17,0,512,512
264.107,-2.77556e-17,0,512,512
264.154,-2.77556e-17,0,512,512
264.201,-2.77556e-17,0,512,512
264.26,-2.77556e-17,0,512,512
264.306,-2.77556e-17,0,512,512
264.353,-2.77556e-17,0,512,512
264.4,-2.77556e-17,0,512,512
264.459,0,0,512,512
264.506,0,0,512,512
264.553,0,0,512,512
264.611,0,0,512,512
264.658,0,0,512,512
264.705,0,0,512,512
264.752,0,0,512,512
264.81,0,0,512,512
264.857,0,0,512,512
264.904,0,0,512,512
264.951,0,0,512,512
265.01,0,0,512,512
265.056,0,0,512,512
265.103,0,0,512,512
265.15,0,0,512,512
265.209,0,0,512,512
265.256,0,0,512,512
265.302,0,0,512,512
265.361,0,0,512,512
265.408,0,0,512,512
265.455,0,0,512,512
265.502,0,0,512,512
265.56,0,0,512,512
265.607,0,0,512,512
265.654,0,0,512,512
265.701,0,0,512,512
265.759,0,0,512,512
265.806,0,0,512,512
265.853,0,0,512,512
265.9,0,0,512,512
265.959,0,0,512,512
266.005,0,0,512,512
266.052,0,0,512,512
266.111,0,0,512,512
266.158,0,0,512,512
266.205,0,0,512,512
266.252,0,0,512,512
266.31,0,0,512,512
266.357,0,0,512,512
266.404,0,0,512,512
266.451,0,0,512,512
266.509,0,0,512,512
266.556,0,0,512,512
266.603,0,0,512,512
266.662,0,0,512,512
266.708,0,0,512,512
266.755,0,0,512,512
266.802,0,0,512,512
266.861,0,0,512,512
266.908,0,0,512,512
266.955,0,0,512,512
267.001,0,0,512,512
267.06,0,0,512,512
267.107,0,0,512,512
267.154,0,0,512,512
267.201,0,0,512,512
267.259,0,0,512,512
267.306,0,0,512,512
267.353,0,0,512,512
267.412,0,0,512,512
267.458,0,0,512,512
267.505,0,0,512,512
267.552,2.77556e-17,0,512,512
267.611,2.77556e-17,0,512,512
267.658,2.77556e-17,0,512,512
267.704,2.77556e-17,0,512,512
267.751,2.77556e-17,0,512,512
267.81,2.77556e-17,0,512,512
267.857,2.77556e-17,0,512,512
267.904,2.77556e-17,0,512,512
267.95,2.77556e-17,0,512,512
268.009,2.77556e-17,0,512,512
268.056,2.77556e-17,0,512,512
268.1,2.77556e-17,0,2267,2267
268.151,2.77556e-17,0,3167,3167
268.2,2.77556e-17,0,4123,4123
268.25,2.77556e-17,0,5039,5039
268.301,2.77556e-17,0,5939,5939
268.35,2.77556e-17,0,6875,6875
268.4,2.77556e-17,0,7787,7787
268.45,2.77556e-17,0,8729,8729
268.501,2.77556e-17,0,9629,9629
268.55,2.77556e-17,0,10565,10565
268.6,2.77556e-17,0,11465,11465
268.65,2.77556e-17,0,12437,12437
268.701,2.77556e-17,0,13319,13319
268.75,2.77556e-17,0,14267,14267
268.8,2.77556e-17,0,15155,15155
268.851,2.77556e-17,0,16127,16127
268.9,2.77556e-17,0,17027,17027
268.95,2.77556e-17,0,17957,17957
269,2.77556e-17,0,18857,18857
269.051,2.77556e-17,0,19813,19813
269.1,2.77556e-17,0,20717,20717
269.15,2.77556e-17,0,21617,21617
269.201,2.77556e-17,0,22547,22547
269.251,2.77556e-17,0,23447,23447
269.3,2.77556e-17,0,24335,24335
269.35,2.77556e-17,0,25307,25307
269.401,2.77556e-17,0,26207,26207
269.45,2.77556e-17,0,27137,27137
269.5,2.77556e-17,0,28037,28037
269.55,2.77556e-17,0,28925,28925
269.601,2.77556e-17,0,29897,29897
269.65,2.77556e-17,0,30797,30797
269.7,2.77556e-17,0,31679,31679
269.751,2.77556e-17,0,32627,32627
269.8,2.77556e-17,0,33515,33515
269.85,2.77556e-17,0,34415,34415
269.9,2.77556e-17,0,35297,35297
269.951,2.77556e-17,0,36197,36197
270,2.77556e-17,0,37085,37085
270.05,2.77556e-17,0,37985,37985
270.101,2.77556e-17,0,38867,38867
270.151,2.77556e-17,0,39767,39767
270.2,2.77556e-17,0,40655,40655
270.25,2.77556e-17,0,41507,41507
270.301,2.77556e-17,0,42389,42389
270.35,2.77556e-17,0,43289,43289
270.4,2.77556e-17,0,44105,44105
270.45,2.77556e-17,0,44987,44987
270.501,2.77556e-17,0,45887,45887
270.55,2.77556e-17,0,46727,46727
270.6,2.77556e-17,0,47619,47619
270.651,2.77556e-17,0,48437,48437
270.7,2.77556e-17,0,49277,49277
270.75,2.77556e-17,0,50137,50137
270.8,2.77556e-17,0,50987,50987
270.851,2.77556e-17,0,51827,51827
270.9,2.77556e-17,0,52637,52637
270.95,2.77556e-17,0,53489,53489
271,2.77556e-17,0,54305,54305
271.051,2.77556e-17,0,55139,55139
271.1,2.77556e-17,0,55955,55955
271.15,2.77556e-17,0,56807,56807
271.201,2.77556e-17,0,57617,57617
271.25,2.77556e-17,0,58385,58385
271.3,2.77556e-17,0,59219,59219
271.35,2.77556e-17,0,60035,60035
271.401,2.77556e-17,0,60887,60887
271.45,2.77556e-17,0,61649,61649
271.5,2.77556e-17,0,62417,62417
271.551,2.77556e-17,0,63227,63227
271.6,2.77556e-17,0,63995,63995
271.65,2.77556e-17,0,64771,64771
271.7,2.77556e-17,0,65597,65597
271.751,2.77556e-17,0,66359,66359
271.8,2.77556e-17,0,67127,67127
271.85,2.77556e-17,0,67889,67889
271.9,2.77556e-17,0,68585,68585
271.951,2.77556e-17,0,69299,69299
272,2.77556e-17,0,69781,69781
272.05,2.77556e-17,0,70577,70577
272.101,2.77556e-17,0,71339,71339
272.15,2.77556e-17,0,72107,72107
272.2,2.77556e-17,0,72869,72869
272.25,2.77556e-17,0,73637,73637
272.301,2.77556e-17,0,74399,74399
272.35,2.77556e-17,0,75167,75167
272.4,2.77556e-17,0,75929,75929
272.451,3.33067e-16,0,76697,76697
272.501,1.97065e-15,0,77459,77459
272.55,3.83027e-15,0,78227,78227
272.6,5.71765e-15,0,78989,78989
272.651,7.57727e-15,0,79757,79757
272.7,9.13158e-15,0,80435,80435
272.75,1.05471e-14,0,81197,81197
272.8,1.22402e-14,0,81965,81965
272.851,1.38778e-14,0,82679,82679
272.9,1.56541e-14,0,83447,83447
272.95,1.72362e-14,0,84137,84137
273.001,1.90958e-14,0,84905,84905
273.05,2.09555e-14,0,85619,85619
273.1,2.28151e-14,0,86371,86371
273.15,2.47025e-14,0,87065,87065
273.201,2.65898e-14,0,87779,87779
273.25,2.84495e-14,0,88547,88547
273.3,3.03368e-14,0,89237,89237
273.351,3.2252e-14,0,89957,89957
273.401,3.41394e-14,0,90719,90719
273.45,3.71647e-14,0,91397,91397
273.5,4.21607e-14,0,92117,92117
273.551,4.94882e-14,0,92807,92807
273.6,5.973e-14,0,93539,93539
273.65,7.3358e-14,0,94289,94289
273.7,8.99003e-14,0,94967,94967
273.751,1.07775e-13,0,95687,95687
273.8,1.24373e-13,0,96377,96377
273.85,1.36113e-13,0,97097,97097
273.901,1.36002e-13,0,97819,97819
273.95,1.16795e-13,0,98517,98517
274,7.13873e-14,0,99241,99241
274.05,-6.80012e-15,0,99907,99907
274.101,-1.23568e-13,0,100667,100667
274.15,-3.05339e-13,0,101345,101345
274.2,-2.45617e-12,0,102059,102059
274.251,-3.51526e-11,0,102755,102755
274.301,-1.50674e-10,0,103469,103469
274.35,-3.44795e-10,0,104139,104139
274.4,-4.66424e-10,0,104795,104795
274.451,-3.61037e-10,0,105509,105509
274.5,-7.32242e-11,0,106187,106187
274.55,2.11977e-10,0,106907,106907
274.6,3.25428e-10,0,107597,107597
274.651,2.20045e-10,0,108317,108317
274.7,1.12322e-11,0,108995,108995
274.75,-1.14966e-10,0,109667,109667
274.801,-4.87829e-11,0,110357,110357
274.85,1.41033e-10,0,111035,111035
274.9,2.79011e-10,0,111749,111749
274.95,2.47096e-10,0,112427,112427
275.001,8.64754e-11,0,113075,113075
275.05,-4.28675e-11,0,113789,113789
275.1,-2.96553e-11,0,114485,114485
275.15,1.02541e-10,0,115115,115115
275.201,2.33487e-10,0,115829,115829
275.25,2.56063e-10,0,116525,116525
275.3,1.682e-10,0,117155,117155
275.351,4.4274e-11,0,117869,117869
275.4,-2.33459e-11,0,118525,118525
275.45,1.04539e-11,0,119195,119195
275.5,1.34397e-10,0,119897,119897
275.551,2.77804e-10,0,120557,120557
275.6,3.19806e-10,0,121199,121199
275.65,1.79734e-10,0,121877,121877
275.701,-8.41205e-11,0,122507,122507
275.751,-2.26081e-10,0,123107,123107
275.8,-1.98323e-11,0,123737,123737
275.85,4.61278e-10,0,124295,124295
275.901,7.47861e-10,0,124937,124937
275.95,3.38791e-10,0,125519,125519
276,-6.08514e-10,0,126077,126077
276.05,-1.04278e-09,0,126587,126587
276.101,4.62778e-10,0,127187,127187
276.15,4.56522e-09,0,127697,127697
276.2,1.07182e-08,0,128207,128207
276.251,1.7632e-08,0,128717,128717
276.3,2.37177e-08,0,129227,129227
276.35,2.83015e-08,0,129737,129737
276.4,3.13696e-08,0,130246,130246
276.451,3.37243e-08,0,130748,130748
276.5,3.6724e-08,0,131072,131072
276.55,4.1899e-08,0,131072,131072
276.601,5.02061e-08,0,131072,131072
276.651,6.12372e-08,0,131072,131072
276.7,7.44972e-08,0,131072,131072
276.75,8.9889e-08,0,131072,131072
276.801,1.08561e-07,0,131072,131072
276.85,1.31471e-07,0,131072,131072
276.9,1.60329e-07,0,131072,131072
276.95,1.96092e-07,0,131072,131072
277.001,2.39545e-07,0,131072,131072
277.05,2.8835e-07,0,131072,131072
277.1,3.40991e-07,0,131072,131072
277.151,3.96203e-07,0,131072,131072
277.2,4.51718e-07,0,131072,131072
277.25,5.09415e-07,0,131072,131072
277.3,5.707e-07,0,131072,131072
277.351,6.36188e-07,0,131072,131072
277.4,7.01019e-07,0,131072,131072
277.45,7.61768e-07,0,131072,131072
277.5,8.14494e-07,0,131072,131072
277.551,8.57269e-07,0,131072,131072
277.6,8.8804e-07,0,131072,131072
277.65,9.08295e-07,0,131072,131072
277.701,9.20226e-07,0,131072,131072
277.75,9.25999e-07,0,131072,131072
277.8,9.27705e-07,0,131072,131072
277.85,9.26105e-07,0,131072,131072
277.901,9.20927e-07,0,131072,131072
277.95,9.11558e-07,0,131072,131072
278,8.9686e-07,0,131072,131072
278.051,8.75276e-07,0,131072,131072
278.101,8.4635e-07,0,131072,131072
278.15,8.0914e-07,0,131072,131072
278.2,7.6377e-07,0,131072,131072
278.251,7.10854e-07,0,131072,131072
278.3,6.54643e-07,0,131072,131072
278.35,5.97551e-07,0,131072,131072
278.4,5.42161e-07,0,131072,131072
278.451,4.89305e-07,0,131072,131072
278.5,4.41183e-07,0,131072,131072
278.55,3.96998e-07,0,131072,131072
278.601,3.55716e-07,0,131072,131072
278.65,3.1785e-07,0,131072,131072
278.7,2.8212e-07,0,131072,131072
278.75,2.48109e-07,0,131072,131072
278.801,2.15498e-07,0,131072,131072
278.85,1.8621e-07,0,131072,131072
278.9,1.61281e-07,0,131072,131072
278.951,1.41454e-07,0,131072,131072
279.001,1.26589e-07,0,131072,131072
279.05,1.13994e-07,0,131072,131072
279.1,1.01202e-07,0,131072,131072
279.151,8.71474e-08,0,131072,131072
279.2,7.33364e-08,0,131072,131072
279.25,6.13848e-08,0,131072,131072
279.3,5.2421e-08,0,131072,131072
279.351,4.63267e-08,0,131072,131072
279.4,4.23554e-08,0,131072,131072
279.45,3.90894e-08,0,131072,131072
279.501,3.51765e-08,0,131072,131072
279.55,3.00281e-08,0,131072,131072
279.6,2.40157e-08,0,131072,131072
279.65,1.85307e-08,0,131072,131072
279.701,1.49851e-08,0,131072,131072
279.75,1.40228e-08,0,131072,131072
279.8,1.50363e-08,0,131072,131072
279.85,1.70455e-08,0,131072,131072
279.901,1.93619e-08,0,131072,131072
279.95,2.16825e-08,0,131072,131072
280,2.41069e-08,0,131072,131072
280.051,2.67901e-08,0,131072,131072
280.1,2.97064e-08,0,131072,131072
280.15,3.28635e-08,0,131072,131072
280.2,3.61431e-08,0,131072,131072
280.251,3.94882e-08,0,131072,131072
280.3,4.28885e-08,0,131072,131072
280.35,4.65393e-08,0,131072,131072
280.401,5.04772e-08,0,131072,131072
280.451,5.45032e-08,0,131072,131072
280.5,5.86719e-08,0,131072,131072
280.55,6.29992e-08,0,131072,131072
280.601,6.74694e-08,0,131072,131072
280.65,7.1781e-08,0,131072,131072
280.7,7.59044e-08,0,131072,131072
280.75,8.00273e-08,0,131072,131072
280.801,8.47383e-08,0,131072,131072
280.85,9.05169e-08,0,131072,131072
280.9,9.77435e-08,0,131072,131072
280.951,1.0632e-07,0,131072,131072
281,1.15275e-07,0,131072,131072
281.05,1.2387e-07,0,131072,131072
281.1,1.31498e-07,0,131072,131072
281.151,1.38156e-07,0,131072,131072
281.2,1.44136e-07,0,131072,131072
281.25,1.50418e-07,0,131072,131072
281.301,1.58069e-07,0,131072,131072
281.351,1.67551e-07,0,131072,131072
281.4,1.79241e-07,0,131072,131072
281.45,1.93195e-07,0,131072,131072
281.501,2.09846e-07,0,131072,131072
281.55,2.29257e-07,0,131072,131072
281.6,2.52531e-07,0,131072,131072
281.65,2.80604e-07,0,131072,131072
281.701,3.14627e-07,0,131072,131072
281.75,3.53594e-07,0,131072,131072
281.8,3.97204e-07,0,131072,131072
281.851,4.44921e-07,0,131072,131072
281.9,4.94132e-07,0,131072,131072
281.95,5.44816e-07,0,131072,131072
282,5.96874e-07,0,131072,131072
282.051,6.51049e-07,0,131072,131072
282.1,7.04988e-07,0,131072,131072
282.15,7.57544e-07,0,131072,131072
282.2,8.05926e-07,0,131072,131072
282.251,8.47792e-07,0,131072,131072
282.3,8.79738e-07,0,131072,131072
282.35,9.01478e-07,0,131072,131072
282.401,9.13441e-07,0,131072,131072
282.45,9.16601e-07,0,131072,131072
282.5,9.12941e-07,0,131072,131072
282.55,9.04037e-07,0,131072,131072
282.601,8.90672e-07,0,131072,131072
282.65,8.73532e-07,0,131072,131072
282.7,8.5214e-07,0,131072,131072
282.751,8.25369e-07,0,131072,131072
282.801,7.93152e-07,0,131072,131072
282.85,7.54432e-07,0,131072,131072
282.9,7.08916e-07,0,131072,131072
282.951,6.5619e-07,0,131072,131072
283,5.9904e-07,0,131072,131072
283.05,5.38737e-07,0,131072,131072
283.1,4.77628e-07,0,131072,131072
283.151,4.17047e-07,0,131072,131072
283.2,3.60407e-07,0,131072,131072
283.25,3.0774e-07,0,131072,131072
283.301,2.58642e-07,0,131072,131072
283.35,2.14334e-07,0,131072,131072
283.4,1.73623e-07,0,131072,131072
283.45,1.36042e-07,0,131072,131072
283.501,1.00843e-07,0,131072,131072
283.55,6.91766e-08,0,131072,131072
283.6,4.10286e-08,0,131072,131072
283.651,1.67199e-08,0,131072,131072
283.701,-2.76241e-09,0,131072,131072
283.75,-1.82744e-08,0,131072,131072
283.8,-3.09751e-08,0,131072,131072
283.851,-4.23149e-08,0,131072,131072
283.9,-5.27186e-08,0,131072,131072
283.95,-6.22575e-08,0,131072,131072
284,-7.0262e-08,0,131072,131072
284.051,-7.61386e-08,0,131072,131072
284.1,-7.95379e-08,0,131072,131072
284.15,-8.09969e-08,0,131072,131072
284.201,-8.13623e-08,0,131072,131072
284.25,-8.15111e-08,0,131072,131072
284.3,-8.19653e-08,0,131072,131072
284.35,-8.26487e-08,0,131072,131072
284.401,-8.29878e-08,0,131072,131072
284.45,-8.22775e-08,0,131072,131072
284.5,-8.0153e-08,0,131072,131072
284.551,-7.66771e-08,0,131072,131072
284.601,-7.24336e-08,0,131072,131072
284.65,-6.79148e-08,0,131072,131072
284.7,-6.34885e-08,0,131072,131072
284.751,-5.92545e-08,0,131072,131072
284.8,-5.53699e-08,0,131072,131072
284.85,-5.17808e-08,0,131072,131072
284.9,-4.85216e-08,0,131072,131072
284.951,-4.55983e-08,0,131072,131072
285,-4.31068e-08,0,131072,131072
285.05,-4.09546e-08,0,131072,131072
285.101,-3.90387e-08,0,131072,131072
285.15,-3.73603e-08,0,131072,131072
285.2,-3.58802e-08,0,131072,131072
285.25,-3.46121e-08,0,131072,131072
285.301,-3.35515e-08,0,131072,131072
285.35,-3.27225e-08,0,131072,131072
285.4,-3.20901e-08,0,131072,131072
285.45,-3.16319e-08,0,131072,131072
285.501,-3.13221e-08,0,131072,131072
285.55,-3.11485e-08,0,131072,131072
285.6,-3.10863e-08,0,131072,131072
285.651,-3.11178e-08,0,131072,131072
285.7,-3.12235e-08,0,131072,131072
285.75,-3.13852e-08,0,131072,131072
285.8,-3.15866e-08,0,131072,131072
285.851,-3.1818e-08,0,131072,131072
285.9,-3.2064e-08,0,131072,131072
285.95,-3.23227e-08,0,131072,131072
286.001,-3.25949e-08,0,131072,131072
286.051,-3.28688e-08,0,131072,131072
286.1,-3.31429e-08,0,131072,131072
286.15,-3.34106e-08,0,131072,131072
286.201,-3.36697e-08,0,131072,131072
286.25,-3.39088e-08,0,131072,131072
286.3,-3.41309e-08,0,131072,131072
286.35,-3.43372e-08,0,131072,131072
286.401,-3.45325e-08,0,131072,131072
286.45,-3.47119e-08,0,131072,131072
286.5,-3.48769e-08,0,131072,131072
286.551,-3.50265e-08,0,131072,131072
286.6,-3.5153e-08,0,131072,131072
286.65,-3.52561e-08,0,131072,131072
286.7,-3.5335e-08,0,131072,131072
286.751,-3.53909e-08,0,131072,131072
286.8,-3.54237e-08,0,131072,131072
286.85,-3.54359e-08,0,131072,131072
286.901,-3.54289e-08,0,131072,131072
286.951,-3.54047e-08,0,131072,131072
287,-3.53656e-08,0,131072,131072
287.05,-3.5314e-08,0,131072,131072
287.101,-3.52517e-08,0,131072,131072
287.15,-3.51832e-08,0,131072,131072
287.2,-3.51097e-08,0,131072,131072
287.25,-3.50329e-08,0,131072,131072
287.301,-3.4953e-08,0,131072,131072
287.35,-3.48737e-08,0,131072,131072
287.4,-3.47949e-08,0,131072,131072
287.451,-3.47167e-08,0,131072,131072
287.5,-3.46425e-08,0,131072,131072
287.55,-3.45719e-08,0,131072,131072
287.6,-3.45058e-08,0,131072,131072
287.651,-3.44439e-08,0,131072,131072
287.7,-3.43886e-08,0,131072,131072
287.75,-3.43394e-08,0,131072,131072
287.8,-3.42966e-08,0,131072,131072
287.851,-3.426e-08,0,131072,131072
287.9,-3.42308e-08,0,131072,131072
287.95,-3.42085e-08,0,131072,131072
288.001,-3.41928e-08,0,131072,131072
288.05,-3.41842e-08,0,131072,131072
288.1,-3.41824e-08,0,131072,131072
288.15,-3.41876e-08,0,131072,131072
288.201,-3.42004e-08,0,131072,131072
288.25,-3.42206e-08,0,131072,131072
288.3,-3.42487e-08,0,131072,131072
288.351,-3.42851e-08,0,131072,131072
288.4,-3.43285e-08,0,131072,131072
288.45,-3.43787e-08,0,131072,131072
288.5,-3.44353e-08,0,131072,131072
288.551,-3.44988e-08,0,131072,131072
288.6,-3.45672e-08,0,131072,131072
288.65,-3.46417e-08,0,131072,131072
288.7,-3.47229e-08,0,131072,131072
288.751,-3.48131e-08,0,131072,131072
288.8,-3.49108e-08,0,131072,131072
288.85,-3.50184e-08,0,131072,131072
288.901,-3.51395e-08,0,131072,131072
288.95,-3.52726e-08,0,131072,131072
289,-3.54214e-08,0,131072,131072
289.05,-3.55883e-08,0,131072,131072
289.101,-3.57787e-08,0,131072,131072
289.15,-3.59889e-08,0,131072,131072
289.2,-3.62232e-08,0,131072,131072
289.251,-3.64867e-08,0,131072,131072
289.301,-3.67722e-08,0,131072,131072
289.35,-3.70836e-08,0,131072,131072
289.4,-3.74204e-08,0,131072,131072
289.451,-3.77872e-08,0,131072,131072
289.5,-3.81714e-08,0,131072,131072
289.55,-3.85749e-08,0,131072,131072
289.6,-3.89935e-08,0,131072,131072
289.651,-3.94282e-08,0,131072,131072
289.7,-3.98607e-08,0,131072,131072
289.75,-4.02914e-08,0,131072,131072
289.801,-4.07209e-08,0,131072,131072
289.85,-4.11323e-08,0,131072,131072
289.9,-4.15279e-08,0,131072,131072
289.95,-4.19044e-08,0,131072,131072
290.001,-4.22639e-08,0,131072,131072
290.05,-4.25929e-08,0,131072,131072
290.1,-4.28931e-08,0,131072,131072
290.151,-4.31644e-08,0,131072,131072
290.201,-4.3395e-08,0,131072,131072
290.25,-4.35855e-08,0,131072,131072
290.3,-4.37328e-08,0,131072,131072
290.351,-4.38362e-08,0,131072,131072
290.4,-4.38917e-08,0,131072,131072
290.45,-4.39012e-08,0,131072,131072
290.5,-4.38655e-08,0,131072,131072
290.551,-4.37844e-08,0,131072,131072
290.6,-4.36616e-08,0,131072,131072
290.65,-4.34977e-08,0,131072,131072
290.701,-4.32907e-08,0,131072,131072
290.75,-4.30472e-08,0,131072,131072
290.8,-4.27649e-08,0,131072,131072
290.85,-4.24435e-08,0,131072,131072
290.901,-4.20766e-08,0,131072,131072
290.95,-4.16738e-08,0,131072,131072
291,-4.12291e-08,0,131072,131072
291.05,-4.07418e-08,0,131072,131072
291.101,-4.02033e-08,0,131072,131072
291.15,-3.96291e-08,0,131072,131072
291.2,-3.90117e-08,0,131072,131072
291.251,-3.8341e-08,0,131072,131072
291.3,-3.7637e-08,0,131072,131072
291.35,-3.68917e-08,0,131072,131072
291.4,-3.61075e-08,0,131072,131072
291.451,-3.52762e-08,0,131072,131072
291.5,-3.44275e-08,0,131072,131072
291.55,-3.35562e-08,0,131072,131072
291.601,-3.26564e-08,0,131072,131072
291.651,-3.17614e-08,0,131072,131072
291.7,-3.08651e-08,0,131072,131072
291.75,-2.99735e-08,0,131072,131072
291.801,-2.90789e-08,0,131072,131072
291.85,-2.8212e-08,0,131072,131072
291.9,-2.73638e-08,0,131072,131072
291.95,-2.65383e-08,0,131072,131072
292.001,-2.57279e-08,0,131072,131072
292.05,-2.49604e-08,0,131072,131072
292.1,-2.42282e-08,0,131072,131072
292.151,-2.35257e-08,0,131072,131072
292.2,-2.28775e-08,0,131072,131072
292.25,-2.22762e-08,0,131072,131072
292.3,-2.1724e-08,0,131072,131072
292.351,-2.12146e-08,0,131072,131072
292.4,-2.07622e-08,0,131072,131072
292.45,-2.03571e-08,0,131072,131072
292.501,-1.99916e-08,0,131072,131072
292.551,-1.96731e-08,0,131072,131072
292.6,-1.93927e-08,0,131072,131072
292.65,-1.91472e-08,0,131072,131072
292.701,-1.89305e-08,0,131072,131072
292.75,-1.87462e-08,0,131072,131072
292.8,-1.85879e-08,0,131072,131072
292.85,-1.84526e-08,0,131072,131072
292.901,-1.83356e-08,0,131072,131072
292.95,-1.8237e-08,0,131072,131072
293,-1.8152e-08,0,131072,131072
293.051,-1.80771e-08,0,131072,131072
293.1,-1.80127e-08,0,131072,131072
293.15,-1.7956e-08,0,131072,131072
293.2,-1.79056e-08,0,131072,131072
293.251,-1.78591e-08,0,131072,131072
293.3,-1.78165e-08,0,131072,131072
293.35,-1.77754e-08,0,131072,131072
293.4,-1.77351e-08,0,131072,131072
293.451,-1.76943e-08,0,131072,131072
293.5,-1.76542e-08,0,131072,131072
293.55,-1.76137e-08,0,131072,131072
293.601,-1.75717e-08,0,131072,131072
293.65,-1.75281e-08,0,131072,131072
293.7,-1.74809e-08,0,131072,131072
293.75,-1.74285e-08,0,131072,131072
293.801,-1.73689e-08,0,131072,131072
293.85,-1.73028e-08,0,131072,131072
293.9,-1.72292e-08,0,131072,131072
293.951,-1.71463e-08,0,131072,131072
294,-1.70562e-08,0,131072,131072
294.05,-1.69573e-08,0,131072,131072
294.1,-1.68493e-08,0,131072,131072
294.151,-1.67307e-08,0,131072,131072
294.2,-1.66054e-08,0,131072,131072
294.25,-1.64727e-08,0,131072,131072
294.3,-1.63336e-08,0,131072,131072
294.351,-1.61866e-08,0,131072,131072
294.4,-1.60363e-08,0,131072,131072
294.45,-1.58805e-08,0,131072,131072
294.501,-1.57169e-08,0,131072,131072
294.55,-1.55508e-08,0,131072,131072
294.6,-1.53811e-08,0,131072,131072
294.65,-1.52091e-08,0,131072,131072
294.701,-1.50331e-08,0,131072,131072
294.75,-1.48584e-08,0,131072,131072
294.8,-1.46813e-08,0,131072,131072
294.851,-1.4497e-08,0,131072,131072
294.901,-1.43086e-08,0,131072,131072
294.95,-1.41117e-08,0,131072,131072
295,-1.39052e-08,0,131072,131072
295.051,-1.3686e-08,0,131072,131072
295.1,-1.34615e-08,0,131072,131072
295.15,-1.323e-08,0,131072,131072
295.2,-1.29929e-08,0,131072,131072
295.251,-1.27474e-08,0,131072,131072
295.3,-1.25004e-08,0,131072,131072
295.35,-1.22474e-08,0,131072,131072
295.401,-1.19826e-08,0,131072,131072
295.45,-1.17109e-08,0,131072,131072
295.5,-1.14253e-08,0,131072,131072
295.55,-1.11227e-08,0,131072,131072
295.601,-1.07951e-08,0,131072,131072
295.65,-1.04493e-08,0,131072,131072
295.7,-1.00787e-08,0,131072,131072
295.751,-9.67513e-09,0,131072,131072
295.801,-9.24889e-09,0,131072,131072
295.85,-8.79291e-09,0,131072,131072
295.9,-8.30598e-09,0,131072,131072
295.951,-7.77912e-09,0,131072,131072
296,-7.22674e-09,0,131072,131072
296.05,-6.64111e-09,0,131072,131072
296.1,-6.02284e-09,0,131072,131072
296.151,-5.3642e-09,0,131072,131072
296.2,-4.688e-09,0,131072,131072
296.25,-3.99008e-09,0,131072,131072
296.301,-3.26597e-09,0,131072,131072
296.35,-2.54305e-09,0,131072,131072
296.4,-1.81699e-09,0,131072,131072
296.45,-1.09335e-09,0,131072,131072
296.501,-3.66848e-10,0,131072,131072
296.55,3.36484e-10,0,131072,131072
296.6,1.02255e-09,0,131072,131072
296.65,1.68696e-09,0,131072,131072
296.701,2.33488e-09,0,131072,131072
296.75,2.94387e-09,0,131072,131072
296.8,3.52021e-09,0,131072,131072
296.851,4.06835e-09,0,131072,131072
296.9,4.5691e-09,0,131072,131072
296.95,5.02742e-09,0,131072,131072
297,5.44031e-09,0,131072,131072
297.051,5.81052e-09,0,131072,131072
297.1,6.12622e-09,0,131072,131072
297.15,6.39346e-09,0,131072,131072
297.201,6.61681e-09,0,131072,131072
297.251,6.79247e-09,0,131072,131072
297.3,6.92727e-09,0,131072,131072
297.35,7.02462e-09,0,131072,131072
297.401,7.08866e-09,0,131072,131072
297.45,7.12084e-09,0,131072,131072
297.5,7.12554e-09,0,131072,131072
297.55,7.10592e-09,0,131072,131072
297.601,7.0644e-09,0,131072,131072
297.65,7.00537e-09,0,131072,131072
297.7,6.93146e-09,0,131072,131072
297.751,6.84419e-09,0,131072,131072
297.8,6.74867e-09,0,131072,131072
297.85,6.64588e-09,0,131072,131072
297.9,6.53769e-09,0,131072,131072
297.951,6.42409e-09,0,131072,131072
298,6.30997e-09,0,131072,131072
298.05,6.19517e-09,0,131072,131072
298.101,6.07929e-09,0,131072,131072
298.151,5.9667e-09,0,131072,131072
298.2,5.85636e-09,0,131072,131072
298.25,5.74873e-09,0,131072,131072
298.301,5.64272e-09,0,131072,131072
298.35,5.54194e-09,0,131072,131072
298.4,5.4456e-09,0,131072,131072
298.45,5.35458e-09,0,131072,131072
298.501,5.2686e-09,0,131072,131072
298.55,5.19084e-09,0,131072,131072
298.6,5.12043e-09,0,131072,131072
298.651,5.05664e-09,0,131072,131072
298.7,5.00122e-09,0,131072,131072
298.75,4.95301e-09,0,131072,131072
298.8,4.91171e-09,0,131072,131072
298.851,4.87639e-09,0,131072,131072
298.9,4.84737e-09,0,131072,131072
298.95,4.82312e-09,0,131072,131072
299,4.80249e-09,0,131072,131072
299.051,4.78406e-09,0,131072,131072
299.1,4.76734e-09,0,131072,131072
299.15,4.75129e-09,0,131072,131072
299.201,4.73511e-09,0,131072,131072
299.25,4.71869e-09,0,131072,131072
299.3,4.70107e-09,0,131072,131072
299.35,4.68133e-09,0,131072,131072
299.401,4.65816e-09,0,131072,131072
299.45,4.63155e-09,0,131072,131072
299.5,4.60106e-09,0,131072,131072
299.551,4.56673e-09,0,131072,131072
299.601,4.53071e-09,0,131072,131072
299.65,4.49388e-09,0,131072,131072
299.7,4.45749e-09,0,131072,131072
299.751,4.42186e-09,0,131072,131072
299.8,4.38825e-09,0,131072,131072
299.85,4.3558e-09,0,131072,131072
299.9,4.32384e-09,0,131072,131072
299.951,4.29114e-09,0,131072,131072
300,4.25807e-09,0,131072,131072
300.05,4.22394e-09,0,131072,131072
300.101,4.18846e-09,0,131072,131072
300.15,4.15334e-09,0,131072,131072
300.2,4.11905e-09,0,131072,131072
300.25,4.08664e-09,0,131072,131072
300.301,4.0566e-09,0,131072,131072
300.35,4.0303e-09,0,131072,131072
300.4,4.00732e-09,0,131072,131072
300.451,3.9869e-09,0,131072,131072
300.501,3.96886e-09,0,131072,131072
300.55,3.95197e-09,0,131072,131072
300.6,3.93544e-09,0,131072,131072
300.651,3.91849e-09,0,131072,131072
300.7,3.90139e-09,0,131072,131072
300.75,3.88392e-09,0,131072,131072
300.8,3.86627e-09,0,131072,131072
300.851,3.8483e-09,0,131072,131072
300.9,3.83048e-09,0,131072,131072
300.95,3.81227e-09,0,131072,131072
301.001,3.79301e-09,0,131072,131072
301.05,3.77294e-09,0,131072,131072
301.1,3.75174e-09,0,131072,131072
301.15,3.72962e-09,0,131072,131072
301.201,3.70663e-09,0,131072,131072
301.25,3.6838e-09,0,131072,131072
301.3,3.66094e-09,0,131072,131072
301.35,3.63791e-09,0,131072,131072
301.401,3.6141e-09,0,131072,131072
301.45,3.58994e-09,0,131072,131072
301.5,3.56503e-09,0,131072,131072
301.551,3.53917e-09,0,131072,131072
301.6,3.51342e-09,0,131072,131072
301.65,3.48771e-09,0,131072,131072
301.7,3.46219e-09,0,131072,131072
301.751,3.43642e-09,0,131072,131072
301.8,3.4109e-09,0,131072,131072
301.85,3.38498e-09,0,131072,131072
301.901,3.35809e-09,0,131072,131072
301.951,3.33091e-09,0,131072,131072
302,3.30313e-09,0,131072,131072
302.05,3.27485e-09,0,131072,131072
302.101,3.24576e-09,0,131072,131072
302.15,3.21682e-09,0,131072,131072
302.2,3.18767e-09,0,131072,131072
302.25,3.15837e-09,0,131072,131072
302.301,3.12851e-09,0,131072,131072
302.35,3.09898e-09,0,131072,131072
302.4,3.06935e-09,0,131072,131072
302.451,3.03918e-09,0,131072,131072
302.5,3.00934e-09,0,131072,131072
302.55,2.97938e-09,0,131072,131072
302.6,2.94928e-09,0,131072,131072
302.651,2.91862e-09,0,131072,131072
302.7,2.88827e-09,0,131072,131072
302.75,2.85779e-09,0,131072,131072
302.801,2.8267e-09,0,131072,131072
302.851,2.79591e-09,0,131072,131072
302.9,2.76494e-09,0,131072,131072
302.95,2.73377e-09,0,131072,131072
303.001,2.70191e-09,0,131072,131072
303.05,2.67025e-09,0,131072,131072
303.1,2.63829e-09,0,131072,131072
303.15,2.606e-09,0,131072,131072
303.201,2.57285e-09,0,131072,131072
303.25,2.53978e-09,0,131072,131072
303.3,2.50625e-09,0,131072,131072
303.351,2.47175e-09,0,131072,131072
303.4,2.43724e-09,0,131072,131072
303.45,2.40219e-09,0,131072,131072
303.5,2.36657e-09,0,131072,131072
303.551,2.32983e-09,0,131072,131072
303.6,2.29301e-09,0,131072,131072
303.65,2.25558e-09,0,131072,131072
303.7,2.21753e-09,0,131072,131072
303.751,2.17831e-09,0,131072,131072
303.8,2.13907e-09,0,131072,131072
303.85,2.09926e-09,0,131072,131072
303.901,2.05834e-09,0,131072,131072
303.95,2.0175e-09,0,131072,131072
304,1.97621e-09,0,131072,131072
304.05,1.9345e-09,0,131072,131072
304.101,1.8918e-09,0,131072,131072
304.15,1.84941e-09,0,131072,131072
304.2,1.80676e-09,0,131072,131072
304.251,1.76327e-09,0,131072,131072
304.301,1.72029e-09,0,131072,131072
304.35,1.67724e-09,0,131072,131072
304.4,1.63419e-09,0,131072,131072
304.451,1.59058e-09,0,131072,131072
304.5,1.54775e-09,0,131072,131072
304.55,1.50512e-09,0,131072,131072
304.6,1.46276e-09,0,131072,131072
304.651,1.42011e-09,0,131072,131072
304.7,1.37847e-09,0,131072,131072
304.75,1.33726e-09,0,131072,131072
304.801,1.29593e-09,0,131072,131072
304.85,1.25573e-09,0,131072,131072
304.9,1.2161e-09,0,131072,131072
304.95,1.17708e-09,0,131072,131072
