250,0,0,2048,2048
250.006,0,0,2048,2048
250.053,0,0,2048,2048
250.105,0,0,2048,2048
250.152,0,0,2048,2048
250.205,-2.77556e-17,0,2048,2048
250.252,0,0,2048,2048
250.305,-2.77556e-17,0,2048,2048
250.352,0,0,2048,2048
250.404,-2.77556e-17,0,2048,2048
250.451,0,0,2048,2048
250.504,0,0,2048,2048
250.551,-2.77556e-17,0,2048,2048
250.603,0,0,2048,2048
250.65,0,0,2048,2048
250.703,-2.77556e-17,0,2048,2048
250.756,0,0,2048,2048
250.803,-2.77556e-17,0,2048,2048
250.855,0,0,2048,2048
250.902,-2.77556e-17,0,2048,2048
250.955,-2.77556e-17,0,2048,2048
251.002,0,0,2048,2048
251.055,-2.77556e-17,0,2048,2048
251.101,-2.77556e-17,0,2048,2048
251.154,-2.77556e-17,0,2048,2048
251.201,0,0,2048,2048
251.254,0,0,2048,2048
251.301,-2.77556e-17,0,2048,2048
251.353,0,0,2048,2048
251.4,2.77556e-17,0,2048,2048
251.453,2.77556e-17,0,2048,2048
251.506,2.77556e-17,0,2048,2048
251.553,2.77556e-17,0,2048,2048
251.605,2.77556e-17,0,2048,2048
251.652,2.77556e-17,0,2048,2048
251.705,2.77556e-17,0,2048,2048
251.752,5.55112e-17,0,2048,2048
251.804,5.55112e-17,0,2048,2048
251.851,2.77556e-17,0,2048,2048
251.904,-2.77556e-17,0,2048,2048
251.951,-2.77556e-17,0,2048,2048
252.004,-2.77556e-17,0,2048,2048
252.05,-2.77556e-17,0,2048,2048
252.103,-2.77556e-17,0,2048,2048
252.15,-2.77556e-17,0,2048,2048
252.203,0,0,2048,2048
252.256,0,0,2048,2048
252.302,0,0,2048,2048
252.355,0,0,2048,2048
252.402,0,0,2048,2048
252.455,-2.77556e-17,0,2048,2048
252.502,0,0,2048,2048
252.554,0,0,2048,2048
252.601,0,0,2048,2048
252.654,0,0,2048,2048
252.701,0,0,2048,2048
252.754,0,0,2048,2048
252.8,0,0,2048,2048
252.853,0,0,2048,2048
252.906,-2.77556e-17,0,2048,2048
252.953,-2.77556e-17,0,2048,2048
253.005,-2.77556e-17,0,2048,2048
253.052,0,0,2048,2048
253.105,0,0,2048,2048
253.152,-2.77556e-17,0,2048,2048
253.205,-2.77556e-17,0,2048,2048
253.251,-2.77556e-17,0,2048,2048
253.304,0,0,2048,2048
253.351,0,0,2048,2048
253.404,0,0,2048,2048
253.451,-2.77556e-17,0,2048,2048
253.503,0,0,2048,2048
253.55,0,0,2048,2048
253.603,-2.77556e-17,0,2048,2048
253.656,-2.77556e-17,0,2048,2048
253.703,0,0,2048,2048
253.755,-2.77556e-17,0,2048,2048
253.802,2.77556e-17,0,2048,2048
253.855,2.77556e-17,0,2048,2048
253.902,2.77556e-17,0,2048,2048
253.954,8.32667e-17,0,2048,2048
254.001,5.55112e-17,0,2048,2048
254.054,2.77556e-17,0,2048,2048
254.101,2.77556e-17,0,2048,2048
254.154,5.55112e-17,0,2048,2048
254.201,5.55112e-17,0,2048,2048
254.253,5.55112e-17,0,2048,2048
254.3,2.77556e-17,0,2048,2048
254.353,5.55112e-17,0,2048,2048
254.406,2.77556e-17,0,2048,2048
254.452,2.77556e-17,0,2048,2048
254.505,2.77556e-17,0,2048,2048
254.552,2.77556e-17,0,2048,2048
254.605,2.77556e-17,0,2048,2048
254.652,2.77556e-17,0,2048,2048
254.704,0,0,2048,2048
254.751,0,0,2048,2048
254.804,0,0,2048,2048
254.851,0,0,2048,2048
254.904,2.77556e-17,0,2048,2048
254.95,-2.77556e-17,0,2048,2048
255.003,0,0,2048,2048
255.05,0,0,2048,2048
255.103,0,0,2048,2048
255.155,0,0,2048,2048
255.202,0,0,2048,2048
255.255,0,0,2048,2048
255.302,0,0,2048,2048
255.355,0,0,2048,2048
255.402,0,0,2048,2048
255.454,-5.55112e-17,0,2048,2048
255.501,-5.55112e-17,0,2048,2048
255.554,-2.77556e-17,0,2048,2048
255.601,-2.77556e-17,0,2048,2048
255.653,-2.77556e-17,0,2048,2048
255.7,-5.55112e-17,0,2048,2048
255.753,0,0,2048,2048
255.806,0,0,2048,2048
255.853,0,0,2048,2048
255.905,0,0,2048,2048
255.952,-2.77556e-17,0,2048,2048
256.005,-2.77556e-17,0,2048,2048
256.052,0,0,2048,2048
256.105,0,0,2048,2048
256.151,5.55112e-17,0,2048,2048
256.204,2.77556e-17,0,2048,2048
256.251,0,0,2048,2048
256.304,2.77556e-17,0,2048,2048
256.351,2.77556e-17,0,2048,2048
256.403,2.77556e-17,0,2048,2048
256.45,2.77556e-17,0,2048,2048
256.503,2.77556e-17,0,2048,2048
256.556,2.77556e-17,0,2048,2048
256.603,5.55112e-17,0,2048,2048
256.655,5.55112e-17,0,2048,2048
256.702,5.55112e-17,0,2048,2048
256.755,5.55112e-17,0,2048,2048
256.802,2.77556e-17,0,2048,2048
256.854,2.77556e-17,0,2048,2048
256.901,2.77556e-17,0,2048,2048
256.954,2.77556e-17,0,2048,2048
257.001,2.77556e-17,0,2048,2048
257.054,2.77556e-17,0,2048,2048
257.101,2.77556e-17,0,2048,2048
257.153,2.77556e-17,0,2048,2048
257.2,2.77556e-17,0,2048,2048
257.253,2.77556e-17,0,2048,2048
257.306,5.55112e-17,0,2048,2048
257.352,0,0,2048,2048
257.405,0,0,2048,2048
257.452,0,0,2048,2048
257.505,-2.77556e-17,0,2048,2048
257.552,-2.77556e-17,0,2048,2048
257.604,-2.77556e-17,0,2048,2048
257.651,0,0,2048,2048
257.704,-2.77556e-17,0,2048,2048
257.751,-2.77556e-17,0,2048,2048
257.804,-2.77556e-17,0,2048,2048
257.85,-5.55112e-17,0,2048,2048
257.903,-5.55112e-17,0,2048,2048
257.95,-5.55112e-17,0,2048,2048
258.003,-5.55112e-17,0,2048,2048
258.055,-2.77556e-17,0,2048,2048
258.102,-2.77556e-17,0,2048,2048
258.155,-2.77556e-17,0,2048,2048
258.202,-2.77556e-17,0,2048,2048
258.255,-2.77556e-17,0,2048,2048
258.302,-2.77556e-17,0,2048,2048
258.354,0,0,2048,2048
258.401,-2.77556e-17,0,2048,2048
258.454,0,0,2048,2048
258.501,0,0,2048,2048
258.553,0,0,2048,2048
258.6,0,0,2048,2048
258.653,2.77556e-17,0,2048,2048
258.706,0,0,2048,2048
258.753,0,0,2048,2048
258.805,-2.77556e-17,0,2048,2048
258.852,-2.77556e-17,0,2048,2048
258.905,-2.77556e-17,0,2048,2048
258.952,-2.77556e-17,0,2048,2048
259.005,-2.77556e-17,0,2048,2048
259.051,-2.77556e-17,0,2048,2048
259.104,-2.77556e-17,0,2048,2048
259.151,0,0,2048,2048
259.204,0,0,2048,2048
259.251,0,0,2048,2048
259.303,-5.55112e-17,0,2048,2048
259.35,-5.55112e-17,0,2048,2048
259.403,-2.77556e-17,0,2048,2048
259.456,-5.55112e-17,0,2048,2048
259.503,-2.77556e-17,0,2048,2048
259.555,-2.77556e-17,0,2048,2048
259.602,-2.77556e-17,0,2048,2048
259.655,-2.77556e-17,0,2048,2048
259.702,-5.55112e-17,0,2048,2048
259.754,-2.77556e-17,0,2048,2048
259.801,-5.55112e-17,0,2048,2048
259.854,-2.77556e-17,0,2048,2048
259.901,-2.77556e-17,0,2048,2048
259.954,-2.77556e-17,0,2048,2048
260,-2.77556e-17,0,2048,2048
260.053,-2.77556e-17,0,2048,2048
260.1,-2.77556e-17,0,2048,2048
260.153,-2.77556e-17,0,2048,2048
260.206,-2.77556e-17,0,2048,2048
260.252,0,0,2048,2048
260.305,0,0,2048,2048
260.352,0,0,2048,2048
260.405,0,0,2048,2048
260.452,2.77556e-17,0,2048,2048
260.504,2.77556e-17,0,2048,2048
260.551,2.77556e-17,0,2048,2048
260.604,0,0,2048,2048
260.651,0,0,2048,2048
260.704,0,0,2048,2048
260.75,-2.77556e-17,0,2048,2048
260.803,0,0,2048,2048
260.856,0,0,2048,2048
260.903,-2.77556e-17,0,2048,2048
260.955,0,0,2048,2048
261.002,2.77556e-17,0,2048,2048
261.055,2.77556e-17,0,2048,2048
261.102,2.77556e-17,0,2048,2048
261.155,2.77556e-17,0,2048,2048
261.201,2.77556e-17,0,2048,2048
261.254,2.77556e-17,0,2048,2048
261.301,2.77556e-17,0,2048,2048
261.354,2.77556e-17,0,2048,2048
261.401,0,0,2048,2048
261.453,0,0,2048,2048
261.5,0,0,2048,2048
261.553,2.77556e-17,0,2048,2048
261.606,5.55112e-17,0,2048,2048
261.653,2.77556e-17,0,2048,2048
261.705,5.55112e-17,0,2048,2048
261.752,5.55112e-17,0,2048,2048
261.805,5.55112e-17,0,2048,2048
261.852,5.55112e-17,0,2048,2048
261.905,5.55112e-17,0,2048,2048
261.951,5.55112e-17,0,2048,2048
262.004,2.77556e-17,0,2048,2048
262.051,5.55112e-17,0,2048,2048
262.104,5.55112e-17,0,2048,2048
262.151,0,0,2048,2048
262.203,0,0,2048,2048
262.25,0,0,2048,2048
262.303,2.77556e-17,0,2048,2048
262.356,2.77556e-17,0,2048,2048
262.402,2.77556e-17,0,2048,2048
262.455,0,0,2048,2048
262.502,0,0,2048,2048
262.555,0,0,2048,2048
262.602,0,0,2048,2048
262.654,0,0,2048,2048
262.701,2.77556e-17,0,2048,2048
262.754,0,0,2048,2048
262.801,0,0,2048,2048
262.854,-2.77556e-17,0,2048,2048
262.9,0,0,2048,2048
262.953,2.77556e-17,0,2048,2048
263,2.77556e-17,0,2048,2048
263.053,2.77556e-17,0,2048,2048
263.105,2.77556e-17,0,2048,2048
263.152,2.77556e-17,0,2048,2048
263.205,2.77556e-17,0,2048,2048
263.252,2.77556e-17,0,2048,2048
263.305,0,0,2048,2048
263.352,0,0,2048,2048
263.404,0,0,2048,2048
263.451,0,0,2048,2048
263.504,0,0,2048,2048
263.551,0,0,2048,2048
263.603,0,0,2048,2048
263.65,0,0,2048,2048
263.703,-2.77556e-17,0,2048,2048
263.756,0,0,2048,2048
263.803,-2.77556e-17,0,2048,2048
263.855,0,0,2048,2048
263.902,0,0,2048,2048
263.955,2.77556e-17,0,2048,2048
264.002,2.77556e-17,0,2048,2048
264.055,2.77556e-17,0,2048,2048
264.101,2.77556e-17,0,2048,2048
264.154,2.77556e-17,0,2048,2048
264.201,5.55112e-17,0,2048,2048
264.254,2.77556e-17,0,2048,2048
264.301,0,0,2048,2048
264.353,0,0,2048,2048
264.4,-2.77556e-17,0,2048,2048
264.453,0,0,2048,2048
264.506,2.77556e-17,0,2048,2048
264.553,2.77556e-17,0,2048,2048
264.605,2.77556e-17,0,2048,2048
264.652,8.32667e-17,0,2048,2048
264.705,8.32667e-17,0,2048,2048
264.752,2.77556e-17,0,2048,2048
264.804,5.55112e-17,0,2048,2048
264.851,2.77556e-17,0,2048,2048
264.904,0,0,2048,2048
264.951,0,0,2048,2048
265.004,0,0,2048,2048
265.051,0,0,2048,2048
265.103,-2.77556e-17,0,2048,2048
265.15,0,0,2048,2048
265.203,-2.77556e-17,0,2048,2048
265.256,0,0,2048,2048
265.302,2.77556e-17,0,2048,2048
265.355,0,0,2048,2048
265.402,-2.77556e-17,0,2048,2048
265.455,-2.77556e-17,0,2048,2048
265.502,-2.77556e-17,0,2048,2048
265.554,0,0,2048,2048
265.601,-2.77556e-17,0,2048,2048
265.654,-2.77556e-17,0,2048,2048
265.701,-5.55112e-17,0,2048,2048
265.754,-8.32667e-17,0,2048,2048
265.8,-5.55112e-17,0,2048,2048
265.853,-2.77556e-17,0,2048,2048
265.9,-2.77556e-17,0,2048,2048
265.953,-2.77556e-17,0,2048,2048
266.005,-2.77556e-17,0,2048,2048
266.052,-2.77556e-17,0,2048,2048
266.105,-2.77556e-17,0,2048,2048
266.152,-5.55112e-17,0,2048,2048
266.205,-5.55112e-17,0,2048,2048
266.252,-8.32667e-17,0,2048,2048
266.304,-5.55112e-17,0,2048,2048
266.351,-8.32667e-17,0,2048,2048
266.404,-8.32667e-17,0,2048,2048
266.451,-5.55112e-17,0,2048,2048
266.503,-2.77556e-17,0,2048,2048
266.55,0,0,2048,2048
266.603,0,0,2048,2048
266.656,-2.77556e-17,0,2048,2048
266.703,-2.77556e-17,0,2048,2048
266.755,-5.55112e-17,0,2048,2048
266.802,-5.55112e-17,0,2048,2048
266.855,-2.77556e-17,0,2048,2048
266.902,-5.55112e-17,0,2048,2048
266.955,-5.55112e-17,0,2048,2048
267.001,-5.55112e-17,0,2048,2048
267.054,-5.55112e-17,0,2048,2048
267.101,-8.32667e-17,0,2048,2048
267.154,-5.55112e-17,0,2048,2048
267.201,-5.55112e-17,0,2048,2048
267.253,-2.77556e-17,0,2048,2048
267.3,-2.77556e-17,0,2048,2048
267.353,0,0,2048,2048
267.406,-2.77556e-17,0,2048,2048
267.453,-2.77556e-17,0,2048,2048
267.505,-2.77556e-17,0,2048,2048
267.552,-2.77556e-17,0,2048,2048
267.605,-5.55112e-17,0,2048,2048
267.652,-5.55112e-17,0,2048,2048
267.704,-1.11022e-16,0,2048,2048
267.751,-5.55112e-17,0,2048,2048
267.804,-5.55112e-17,0,2048,2048
267.851,-5.55112e-17,0,2048,2048
267.904,-2.77556e-17,0,2048,2048
267.95,-5.55112e-17,0,2048,2048
268.003,-2.77556e-17,0,2048,2048
268.05,-2.77556e-17,0,2048,2048
268.103,2.77556e-17,0,2048,2048
268.156,0,0,2048,2048
268.202,-2.77556e-17,0,2048,2048
268.255,0,0,2048,2048
268.302,-2.77556e-17,0,2048,2048
268.355,-2.77556e-17,0,2048,2048
268.402,0,0,2048,2048
268.454,0,0,2048,2048
268.501,0,0,2048,2048
268.554,0,0,2048,2048
268.601,5.55112e-17,0,2048,2048
268.654,2.77556e-17,0,2048,2048
268.7,5.55112e-17,0,2048,2048
268.753,5.55112e-17,0,2048,2048
268.806,8.32667e-17,0,2048,2048
268.853,8.32667e-17,0,2048,2048
268.905,5.55112e-17,0,2048,2048
268.952,2.77556e-17,0,2048,2048
269.005,5.55112e-17,0,2048,2048
269.052,2.77556e-17,0,2048,2048
269.105,2.77556e-17,0,2048,2048
269.151,2.77556e-17,0,2048,2048
269.204,2.77556e-17,0,2048,2048
269.251,2.77556e-17,0,2048,2048
269.304,2.77556e-17,0,2048,2048
269.351,0,0,2048,2048
269.403,1.13798e-15,0,2048,2048
269.45,2.82552e-14,0,2048,2048
269.503,2.82968e-13,0,2048,2048
269.556,-4.71928e-13,0,2048,2048
269.603,-1.31362e-11,0,2048,2048
269.655,-7.32195e-11,0,2048,2048
269.702,-1.79608e-10,0,2048,2048
269.755,-3.00436e-10,0,2048,2048
269.802,-3.22009e-10,0,2048,2048
269.855,-2.03849e-10,0,2048,2048
269.901,-2.21801e-11,0,2048,2048
269.954,1.49012e-10,0,2048,2048
270.001,1.91431e-10,0,2048,2048
270.054,1.14706e-10,0,2048,2048
270.101,1.34292e-11,0,2048,2048
270.153,-2.9625e-11,0,2048,2048
270.2,2.65188e-11,0,2048,2048
270.253,1.34181e-10,0,2048,2048
270.306,1.84972e-10,0,2048,2048
270.352,1.4511e-10,0,2048,2048
270.405,5.46785e-11,0,2048,2048
270.452,8.74292e-12,0,2048,2048
270.505,3.98009e-11,0,2048,2048
270.552,1.13256e-10,0,2048,2048
270.604,1.75825e-10,0,2048,2048
270.651,1.7232e-10,0,2048,2048
270.704,1.1012e-10,0,2048,2048
270.751,4.6188e-11,0,2048,2048
270.804,1.91233e-11,0,2048,2048
270.85,5.72387e-11,0,2048,2048
270.903,1.48975e-10,0,2048,2048
270.95,2.16506e-10,0,2048,2048
271.003,1.99087e-10,0,2048,2048
271.056,6.65934e-11,0,2048,2048
271.102,-6.043e-11,0,2048,2048
271.155,-5.04378e-11,0,2048,2048
271.202,1.47493e-10,0,2048,2048
271.255,4.0541e-10,0,2048,2048
271.302,3.85149e-10,0,2048,2048
271.354,-4.80997e-11,0,2048,2048
271.401,-4.59135e-10,0,2048,2048
271.454,-8.41246e-11,0,2048,2048
271.501,1.71019e-09,0,2048,2048
271.553,5.60826e-09,0,2048,2048
271.6,1.02858e-08,0,2048,2048
271.653,1.59195e-08,0,2048,2048
271.706,2.09446e-08,0,2048,2048
271.753,2.44436e-08,0,2048,2048
271.805,2.7428e-08,0,2048,2048
271.852,2.98942e-08,0,2048,2048
271.905,3.35949e-08,0,2048,2048
271.952,3.85733e-08,0,2048,2048
272.005,4.6545e-08,0,2048,2048
272.051,5.56857e-08,0,2048,2048
272.104,6.81327e-08,0,2048,2048
272.151,8.13403e-08,0,2048,2048
272.204,9.94355e-08,0,2048,2048
272.251,1.19394e-07,0,2048,2048
272.303,1.47313e-07,0,2048,2048
272.35,1.77535e-07,0,2048,2048
272.403,2.1744e-07,0,2048,2048
272.456,2.6242e-07,0,2048,2048
272.503,3.05238e-07,0,2048,2048
272.555,3.55401e-07,0,2048,2048
272.602,4.01637e-07,0,2048,2048
272.655,4.5614e-07,0,2048,2048
272.702,5.07052e-07,0,2048,2048
272.754,5.65984e-07,0,2048,2048
272.801,6.1757e-07,0,2048,2048
272.854,6.71354e-07,0,2048,2048
272.901,7.12811e-07,0,2048,2048
272.954,7.50365e-07,0,2048,2048
273.001,7.75187e-07,0,2048,2048
273.053,7.94244e-07,0,2048,2048
273.1,8.04718e-07,0,2048,2048
273.153,8.11065e-07,0,2048,2048
273.206,8.1309e-07,0,2048,2048
273.252,8.11795e-07,0,2048,2048
273.305,8.06729e-07,0,2048,2048
273.352,7.98466e-07,0,2048,2048
273.405,7.84006e-07,0,2048,2048
273.452,7.657e-07,0,2048,2048
273.504,7.3812e-07,0,2048,2048
273.551,7.07071e-07,0,2048,2048
273.604,6.65263e-07,0,2048,2048
273.651,6.23283e-07,0,2048,2048
273.704,5.72942e-07,0,2048,2048
273.75,5.27559e-07,0,2048,2048
273.803,4.77856e-07,0,2048,2048
273.856,4.30999e-07,0,2048,2048
273.903,3.92285e-07,0,2048,2048
273.955,3.52055e-07,0,2048,2048
274.002,3.18941e-07,0,2048,2048
274.055,2.84135e-07,0,2048,2048
274.102,2.54955e-07,0,2048,2048
274.155,2.23918e-07,0,2048,2048
274.202,1.98228e-07,0,2048,2048
274.254,1.72369e-07,0,2048,2048
274.301,1.52932e-07,0,2048,2048
274.354,1.35312e-07,0,2048,2048
274.401,1.22621e-07,0,2048,2048
274.453,1.09958e-07,0,2048,2048
274.5,9.88828e-08,0,2048,2048
274.553,8.62695e-08,0,2048,2048
274.606,7.4282e-08,0,2048,2048
274.653,6.51083e-08,0,2048,2048
274.705,5.70966e-08,0,2048,2048
274.752,5.19422e-08,0,2048,2048
274.805,4.76074e-08,0,2048,2048
274.852,4.41268e-08,0,2048,2048
274.905,3.96811e-08,0,2048,2048
274.951,3.49826e-08,0,2048,2048
275.004,2.93638e-08,0,2048,2048
275.051,2.49385e-08,0,2048,2048
275.104,2.14482e-08,0,2048,2048
275.151,1.98412e-08,0,2048,2048
275.203,1.92962e-08,0,2048,2048
275.25,1.93814e-08,0,2048,2048
275.303,1.96314e-08,0,2048,2048
275.356,1.98346e-08,0,2048,2048
275.403,1.99641e-08,0,2048,2048
275.455,2.00855e-08,0,2048,2048
275.502,2.01681e-08,0,2048,2048
275.555,2.01689e-08,0,2048,2048
275.602,2.00308e-08,0,2048,2048
275.654,1.97503e-08,0,2048,2048
275.701,1.94946e-08,0,2048,2048
275.754,1.92997e-08,0,2048,2048
275.801,1.9222e-08,0,2048,2048
275.854,1.92057e-08,0,2048,2048
275.9,1.92218e-08,0,2048,2048
275.953,1.92522e-08,0,2048,2048
276,1.92827e-08,0,2048,2048
276.053,1.93179e-08,0,2048,2048
276.106,1.93534e-08,0,2048,2048
276.152,1.9385e-08,0,2048,2048
276.205,1.94206e-08,0,2048,2048
276.252,1.94522e-08,0,2048,2048
276.305,1.94878e-08,0,2048,2048
276.352,1.95195e-08,0,2048,2048
276.404,1.95551e-08,0,2048,2048
276.451,1.95868e-08,0,2048,2048
276.504,1.96224e-08,0,2048,2048
276.551,1.96541e-08,0,2048,2048
276.604,1.96898e-08,0,2048,2048
276.65,1.97215e-08,0,2048,2048
276.703,1.97572e-08,0,2048,2048
276.756,1.97928e-08,0,2048,2048
276.803,1.98246e-08,0,2048,2048
276.855,1.98603e-08,0,2048,2048
276.902,1.9892e-08,0,2048,2048
276.955,1.99278e-08,0,2048,2048
277.002,1.99597e-08,0,2048,2048
277.055,1.99956e-08,0,2048,2048
277.101,2.00277e-08,0,2048,2048
277.154,2.00639e-08,0,2048,2048
277.201,2.00962e-08,0,2048,2048
277.254,2.01327e-08,0,2048,2048
277.301,2.01652e-08,0,2048,2048
277.353,2.02021e-08,0,2048,2048
277.4,2.02349e-08,0,2048,2048
277.453,2.0272e-08,0,2048,2048
277.506,2.03093e-08,0,2048,2048
277.553,2.03426e-08,0,2048,2048
277.605,2.03803e-08,0,2048,2048
277.652,2.04139e-08,0,2048,2048
277.705,2.04518e-08,0,2048,2048
277.752,2.04856e-08,0,2048,2048
277.804,2.05238e-08,0,2048,2048
277.851,2.05577e-08,0,2048,2048
277.904,2.05958e-08,0,2048,2048
277.951,2.06295e-08,0,2048,2048
278.004,2.06671e-08,0,2048,2048
278.051,2.06999e-08,0,2048,2048
278.103,2.07359e-08,0,2048,2048
278.15,2.07668e-08,0,2048,2048
278.203,2.08e-08,0,2048,2048
278.256,2.08313e-08,0,2048,2048
278.302,2.08572e-08,0,2048,2048
278.355,2.0884e-08,0,2048,2048
278.402,2.09053e-08,0,2048,2048
278.455,2.09262e-08,0,2048,2048
278.502,2.09416e-08,0,2048,2048
278.554,2.09546e-08,0,2048,2048
278.601,2.09616e-08,0,2048,2048
278.654,2.09633e-08,0,2048,2048
278.701,2.0958e-08,0,2048,2048
278.754,2.09427e-08,0,2048,2048
278.8,2.09193e-08,0,2048,2048
278.853,2.08798e-08,0,2048,2048
278.9,2.08308e-08,0,2048,2048
278.953,2.07576e-08,0,2048,2048
279.005,2.06627e-08,0,2048,2048
279.052,2.05577e-08,0,2048,2048
279.105,2.04142e-08,0,2048,2048
279.152,2.0262e-08,0,2048,2048
279.205,2.00614e-08,0,2048,2048
279.252,1.98557e-08,0,2048,2048
279.304,1.95926e-08,0,2048,2048
279.351,1.93302e-08,0,2048,2048
279.404,1.90035e-08,0,2048,2048
279.451,1.86859e-08,0,2048,2048
279.503,1.82999e-08,0,2048,2048
279.55,1.79334e-08,0,2048,2048
279.603,1.74977e-08,0,2048,2048
279.656,1.7041e-08,0,2048,2048
279.703,1.66205e-08,0,2048,2048
279.755,1.61348e-08,0,2048,2048
279.802,1.56952e-08,0,2048,2048
279.855,1.51953e-08,0,2048,2048
279.902,1.47493e-08,0,2048,2048
279.955,1.42494e-08,0,2048,2048
280.001,1.38096e-08,0,2048,2048
280.054,1.33234e-08,0,2048,2048
280.101,1.29018e-08,0,2048,2048
280.154,1.24427e-08,0,2048,2048
280.201,1.20507e-08,0,2048,2048
280.253,1.16306e-08,0,2048,2048
280.3,1.12775e-08,0,2048,2048
280.353,1.09051e-08,0,2048,2048
280.406,1.056e-08,0,2048,2048
280.453,1.02768e-08,0,2048,2048
280.505,9.9846e-09,0,2048,2048
280.552,9.74801e-09,0,2048,2048
280.605,9.50704e-09,0,2048,2048
280.652,9.31426e-09,0,2048,2048
280.704,9.12015e-09,0,2048,2048
280.751,8.96658e-09,0,2048,2048
280.804,8.81357e-09,0,2048,2048
280.851,8.69373e-09,0,2048,2048
280.904,8.57547e-09,0,2048,2048
280.951,8.48369e-09,0,2048,2048
281.003,8.39391e-09,0,2048,2048
281.05,8.32484e-09,0,2048,2048
281.103,8.2579e-09,0,2048,2048
281.156,8.20108e-09,0,2048,2048
281.202,8.1581e-09,0,2048,2048
281.255,8.11724e-09,0,2048,2048
281.302,8.08682e-09,0,2048,2048
281.355,8.05847e-09,0,2048,2048
281.402,8.03787e-09,0,2048,2048
281.454,8.01927e-09,0,2048,2048
281.501,8.00634e-09,0,2048,2048
281.554,7.9954e-09,0,2048,2048
281.601,7.98851e-09,0,2048,2048
281.654,7.98355e-09,0,2048,2048
281.7,7.9813e-09,0,2048,2048
281.753,7.9808e-09,0,2048,2048
281.8,7.98187e-09,0,2048,2048
281.853,7.98439e-09,0,2048,2048
281.905,7.98799e-09,0,2048,2048
281.952,7.99185e-09,0,2048,2048
282.005,7.99669e-09,0,2048,2048
282.052,8.00131e-09,0,2048,2048
282.105,8.00674e-09,0,2048,2048
282.152,8.0117e-09,0,2048,2048
282.204,8.01739e-09,0,2048,2048
282.251,8.02251e-09,0,2048,2048
282.304,8.02835e-09,0,2048,2048
282.351,8.03359e-09,0,2048,2048
282.403,8.03953e-09,0,2048,2048
282.45,8.04486e-09,0,2048,2048
282.503,8.0509e-09,0,2048,2048
282.556,8.05698e-09,0,2048,2048
282.603,8.06242e-09,0,2048,2048
282.655,8.06857e-09,0,2048,2048
282.702,8.07407e-09,0,2048,2048
282.755,8.08031e-09,0,2048,2048
282.802,8.08592e-09,0,2048,2048
282.855,8.09236e-09,0,2048,2048
282.901,8.09827e-09,0,2048,2048
282.954,8.10526e-09,0,2048,2048
283.001,8.11196e-09,0,2048,2048
283.054,8.12039e-09,0,2048,2048
283.101,8.12908e-09,0,2048,2048
283.153,8.14087e-09,0,2048,2048
283.2,8.1539e-09,0,2048,2048
283.253,8.17255e-09,0,2048,2048
283.306,8.19692e-09,0,2048,2048
283.353,8.22487e-09,0,2048,2048
283.405,8.26535e-09,0,2048,2048
283.452,8.31128e-09,0,2048,2048
283.505,8.37662e-09,0,2048,2048
283.552,8.44922e-09,0,2048,2048
283.604,8.55035e-09,0,2048,2048
283.651,8.66046e-09,0,2048,2048
283.704,8.81102e-09,0,2048,2048
283.751,8.97241e-09,0,2048,2048
283.804,9.19019e-09,0,2048,2048
283.85,9.42113e-09,0,2048,2048
283.903,9.73003e-09,0,2048,2048
283.95,1.00552e-08,0,2048,2048
284.003,1.04872e-08,0,2048,2048
284.056,1.10003e-08,0,2048,2048
284.102,1.15347e-08,0,2048,2048
284.155,1.22363e-08,0,2048,2048
284.202,1.29604e-08,0,2048,2048
284.255,1.3901e-08,0,2048,2048
284.302,1.48605e-08,0,2048,2048
284.354,1.60911e-08,0,2048,2048
284.401,1.73294e-08,0,2048,2048
284.454,1.8895e-08,0,2048,2048
284.501,2.04473e-08,0,2048,2048
284.554,2.23806e-08,0,2048,2048
284.6,2.42688e-08,0,2048,2048
284.653,2.65862e-08,0,2048,2048
284.706,2.91081e-08,0,2048,2048
284.753,3.15203e-08,0,2048,2048
284.805,3.44236e-08,0,2048,2048
284.852,3.7171e-08,0,2048,2048
284.905,4.04478e-08,0,2048,2048
284.952,4.35258e-08,0,2048,2048
285.005,4.71765e-08,0,2048,2048
285.051,5.05926e-08,0,2048,2048
285.104,5.46355e-08,0,2048,2048
285.151,5.84151e-08,0,2048,2048
285.204,6.28889e-08,0,2048,2048
285.251,6.70754e-08,0,2048,2048
285.303,7.2039e-08,0,2048,2048
285.35,7.66946e-08,0,2048,2048
285.403,8.22323e-08,0,2048,2048
285.456,8.81229e-08,0,2048,2048
285.503,9.36937e-08,0,2048,2048
285.555,1.00395e-07,0,2048,2048
285.602,1.06799e-07,0,2048,2048
285.655,1.14602e-07,0,2048,2048
285.702,1.22168e-07,0,2048,2048
285.755,1.31527e-07,0,2048,2048
285.801,1.40733e-07,0,2048,2048
285.854,1.52267e-07,0,2048,2048
285.901,1.63726e-07,0,2048,2048
285.954,1.78169e-07,0,2048,2048
286.001,1.92545e-07,0,2048,2048
286.053,2.10619e-07,0,2048,2048
286.1,2.28493e-07,0,2048,2048
286.153,2.5073e-07,0,2048,2048
286.206,2.75261e-07,0,2048,2048
286.252,2.98964e-07,0,2048,2048
286.305,3.27654e-07,0,2048,2048
286.352,3.54791e-07,0,2048,2048
286.405,3.86877e-07,0,2048,2048
286.452,4.16471e-07,0,2048,2048
286.504,4.50526e-07,0,2048,2048
286.551,4.81038e-07,0,2048,2048
286.604,5.15068e-07,0,2048,2048
286.651,5.4454e-07,0,2048,2048
286.704,5.76205e-07,0,2048,2048
286.75,6.02504e-07,0,2048,2048
286.803,6.29427e-07,0,2048,2048
286.85,6.5053e-07,0,2048,2048
286.903,6.70612e-07,0,2048,2048
286.955,6.86392e-07,0,2048,2048
287.002,6.96524e-07,0,2048,2048
287.055,7.03308e-07,0,2048,2048
287.102,7.05115e-07,0,2048,2048
287.155,7.02338e-07,0,2048,2048
287.202,6.95616e-07,0,2048,2048
287.254,6.83375e-07,0,2048,2048
287.301,6.68492e-07,0,2048,2048
287.354,6.47502e-07,0,2048,2048
287.401,6.25346e-07,0,2048,2048
287.453,5.96873e-07,0,2048,2048
287.5,5.68788e-07,0,2048,2048
287.553,5.34561e-07,0,2048,2048
287.606,4.98103e-07,0,2048,2048
287.653,4.64312e-07,0,2048,2048
287.705,4.25297e-07,0,2048,2048
287.752,3.90198e-07,0,2048,2048
287.805,3.50766e-07,0,2048,2048
287.852,3.16186e-07,0,2048,2048
287.905,2.78257e-07,0,2048,2048
287.951,2.4574e-07,0,2048,2048
288.004,2.10834e-07,0,2048,2048
288.051,1.8152e-07,0,2048,2048
288.104,1.50668e-07,0,2048,2048
288.151,1.25251e-07,0,2048,2048
288.203,9.89925e-08,0,2048,2048
288.25,7.77502e-08,0,2048,2048
288.303,5.61952e-08,0,2048,2048
288.356,3.70601e-08,0,2048,2048
288.403,2.20053e-08,0,2048,2048
288.455,7.15678e-09,0,2048,2048
288.502,-4.29348e-09,0,2048,2048
288.555,-1.53438e-08,0,2048,2048
288.602,-2.36586e-08,0,2048,2048
288.654,-3.14572e-08,0,2048,2048
288.701,-3.71245e-08,0,2048,2048
288.754,-4.22099e-08,0,2048,2048
288.801,-4.56907e-08,0,2048,2048
288.854,-4.85555e-08,0,2048,2048
288.901,-5.02624e-08,0,2048,2048
288.953,-5.13418e-08,0,2048,2048
289,-5.16377e-08,0,2048,2048
289.053,-5.13165e-08,0,2048,2048
289.106,-5.03964e-08,0,2048,2048
289.152,-4.91513e-08,0,2048,2048
289.205,-4.73518e-08,0,2048,2048
289.252,-4.5465e-08,0,2048,2048
289.305,-4.30942e-08,0,2048,2048
289.352,-4.08271e-08,0,2048,2048
289.404,-3.8163e-08,0,2048,2048
289.451,-3.57453e-08,0,2048,2048
289.504,-3.30235e-08,0,2048,2048
289.551,-3.06423e-08,0,2048,2048
289.604,-2.80461e-08,0,2048,2048
289.65,-2.58395e-08,0,2048,2048
289.703,-2.3496e-08,0,2048,2048
289.756,-2.13197e-08,0,2048,2048
289.803,-1.95368e-08,0,2048,2048
289.855,-1.77093e-08,0,2048,2048
289.902,-1.6246e-08,0,2048,2048
289.955,-1.47805e-08,0,2048,2048
290.002,-1.36353e-08,0,2048,2048
290.055,-1.25179e-08,0,2048,2048
290.102,-1.16697e-08,0,2048,2048
290.154,-1.08687e-08,0,2048,2048
290.201,-1.02838e-08,0,2048,2048
290.254,-9.75695e-09,0,2048,2048
290.301,-9.39489e-09,0,2048,2048
290.353,-9.09476e-09,0,2048,2048
290.4,-8.91275e-09,0,2048,2048
290.453,-8.79129e-09,0,2048,2048
290.506,-8.74567e-09,0,2048,2048
290.553,-8.75889e-09,0,2048,2048
290.605,-8.82374e-09,0,2048,2048
290.652,-8.91741e-09,0,2048,2048
290.705,-9.05424e-09,0,2048,2048
290.752,-9.19672e-09,0,2048,2048
290.805,-9.37298e-09,0,2048,2048
290.851,-9.53815e-09,0,2048,2048
290.904,-9.72766e-09,0,2048,2048
290.951,-9.89513e-09,0,2048,2048
291.004,-1.00782e-08,0,2048,2048
291.051,-1.02334e-08,0,2048,2048
291.103,-1.03967e-08,0,2048,2048
291.15,-1.05302e-08,0,2048,2048
291.203,-1.06659e-08,0,2048,2048
291.256,-1.07857e-08,0,2048,2048
291.302,-1.08784e-08,0,2048,2048
291.355,-1.09676e-08,0,2048,2048
291.402,-1.10338e-08,0,2048,2048
291.455,-1.10944e-08,0,2048,2048
291.502,-1.11367e-08,0,2048,2048
291.554,-1.11724e-08,0,2048,2048
291.601,-1.11948e-08,0,2048,2048
291.654,-1.12105e-08,0,2048,2048
291.701,-1.12172e-08,0,2048,2048
291.754,-1.1218e-08,0,2048,2048
291.8,-1.12135e-08,0,2048,2048
291.853,-1.1204e-08,0,2048,2048
291.9,-1.11925e-08,0,2048,2048
291.953,-1.11772e-08,0,2048,2048
292.006,-1.11604e-08,0,2048,2048
292.052,-1.11451e-08,0,2048,2048
292.105,-1.11283e-08,0,2048,2048
292.152,-1.11143e-08,0,2048,2048
292.205,-1.11006e-08,0,2048,2048
292.252,-1.10907e-08,0,2048,2048
292.304,-1.10828e-08,0,2048,2048
292.351,-1.10792e-08,0,2048,2048
292.404,-1.10795e-08,0,2048,2048
292.451,-1.10842e-08,0,2048,2048
292.503,-1.10947e-08,0,2048,2048
292.55,-1.11091e-08,0,2048,2048
292.603,-1.11315e-08,0,2048,2048
292.656,-1.11606e-08,0,2048,2048
292.703,-1.11924e-08,0,2048,2048
292.755,-1.1235e-08,0,2048,2048
292.802,-1.12793e-08,0,2048,2048
292.855,-1.13363e-08,0,2048,2048
292.902,-1.13937e-08,0,2048,2048
292.955,-1.1466e-08,0,2048,2048
293.001,-1.15373e-08,0,2048,2048
293.054,-1.16259e-08,0,2048,2048
293.101,-1.17122e-08,0,2048,2048
293.154,-1.18185e-08,0,2048,2048
293.201,-1.19213e-08,0,2048,2048
293.253,-1.20471e-08,0,2048,2048
293.3,-1.21684e-08,0,2048,2048
293.353,-1.2316e-08,0,2048,2048
293.406,-1.24764e-08,0,2048,2048
293.453,-1.26301e-08,0,2048,2048
293.505,-1.28164e-08,0,2048,2048
293.552,-1.29943e-08,0,2048,2048
293.605,-1.3209e-08,0,2048,2048
293.652,-1.34132e-08,0,2048,2048
293.704,-1.36582e-08,0,2048,2048
293.751,-1.38897e-08,0,2048,2048
293.804,-1.41657e-08,0,2048,2048
293.851,-1.44246e-08,0,2048,2048
293.904,-1.47308e-08,0,2048,2048
293.951,-1.50156e-08,0,2048,2048
294.003,-1.53494e-08,0,2048,2048
294.05,-1.56568e-08,0,2048,2048
294.103,-1.60134e-08,0,2048,2048
294.156,-1.63796e-08,0,2048,2048
294.202,-1.67115e-08,0,2048,2048
294.255,-1.70898e-08,0,2048,2048
294.302,-1.74286e-08,0,2048,2048
294.355,-1.78103e-08,0,2048,2048
294.402,-1.81478e-08,0,2048,2048
294.454,-1.85231e-08,0,2048,2048
294.501,-1.88506e-08,0,2048,2048
294.554,-1.92096e-08,0,2048,2048
294.601,-1.95184e-08,0,2048,2048
294.654,-1.98517e-08,0,2048,2048
294.7,-2.01338e-08,0,2048,2048
294.753,-2.04332e-08,0,2048,2048
294.8,-2.06819e-08,0,2048,2048
294.853,-2.09406e-08,0,2048,2048
294.905,-2.11756e-08,0,2048,2048
294.952,-2.13638e-08,0,2048,2048
295.005,-2.15517e-08,0,2048,2048
295.052,-2.16972e-08,0,2048,2048
295.105,-2.18364e-08,0,2048,2048
295.152,-2.19388e-08,0,2048,2048
295.204,-2.20301e-08,0,2048,2048
295.251,-2.20908e-08,0,2048,2048
295.304,-2.21368e-08,0,2048,2048
295.351,-2.21588e-08,0,2048,2048
295.403,-2.21636e-08,0,2048,2048
295.45,-2.21512e-08,0,2048,2048
295.503,-2.21198e-08,0,2048,2048
295.556,-2.20717e-08,0,2048,2048
295.603,-2.20162e-08,0,2048,2048
295.655,-2.1941e-08,0,2048,2048
295.702,-2.18641e-08,0,2048,2048
295.755,-2.17677e-08,0,2048,2048
295.802,-2.16746e-08,0,2048,2048
295.855,-2.15628e-08,0,2048,2048
295.901,-2.14583e-08,0,2048,2048
295.954,-2.13363e-08,0,2048,2048
296.001,-2.12247e-08,0,2048,2048
296.054,-2.10969e-08,0,2048,2048
296.101,-2.09821e-08,0,2048,2048
296.153,-2.08523e-08,0,2048,2048
296.2,-2.07372e-08,0,2048,2048
296.253,-2.06086e-08,0,2048,2048
296.306,-2.04816e-08,0,2048,2048
296.353,-2.03705e-08,0,2048,2048
296.405,-2.0248e-08,0,2048,2048
296.452,-2.01416e-08,0,2048,2048
296.505,-2.00251e-08,0,2048,2048
296.552,-1.99243e-08,0,2048,2048
296.604,-1.98145e-08,0,2048,2048
296.651,-1.972e-08,0,2048,2048
296.704,-1.96172e-08,0,2048,2048
296.751,-1.9529e-08,0,2048,2048
296.804,-1.94332e-08,0,2048,2048
296.851,-1.9351e-08,0,2048,2048
296.903,-1.92618e-08,0,2048,2048
296.95,-1.91852e-08,0,2048,2048
297.003,-1.91019e-08,0,2048,2048
297.056,-1.90215e-08,0,2048,2048
297.102,-1.89521e-08,0,2048,2048
297.155,-1.88762e-08,0,2048,2048
297.202,-1.88105e-08,0,2048,2048
297.255,-1.87383e-08,0,2048,2048
297.302,-1.86755e-08,0,2048,2048
297.354,-1.8606e-08,0,2048,2048
297.401,-1.85451e-08,0,2048,2048
297.454,-1.84774e-08,0,2048,2048
297.501,-1.84177e-08,0,2048,2048
297.554,-1.83509e-08,0,2048,2048
297.6,-1.82917e-08,0,2048,2048
297.653,-1.8225e-08,0,2048,2048
297.706,-1.8158e-08,0,2048,2048
297.753,-1.80982e-08,0,2048,2048
297.805,-1.80302e-08,0,2048,2048
297.852,-1.79692e-08,0,2048,2048
297.905,-1.78996e-08,0,2048,2048
297.952,-1.78368e-08,0,2048,2048
298.005,-1.77649e-08,0,2048,2048
298.052,-1.76997e-08,0,2048,2048
298.104,-1.76248e-08,0,2048,2048
298.151,-1.75568e-08,0,2048,2048
298.204,-1.74783e-08,0,2048,2048
298.251,-1.74067e-08,0,2048,2048
298.303,-1.7324e-08,0,2048,2048
298.35,-1.72483e-08,0,2048,2048
298.403,-1.71605e-08,0,2048,2048
298.456,-1.70698e-08,0,2048,2048
298.503,-1.69865e-08,0,2048,2048
298.555,-1.68896e-08,0,2048,2048
298.602,-1.68005e-08,0,2048,2048
298.655,-1.66968e-08,0,2048,2048
298.702,-1.66012e-08,0,2048,2048
298.755,-1.64899e-08,0,2048,2048
298.801,-1.63872e-08,0,2048,2048
298.854,-1.62675e-08,0,2048,2048
298.901,-1.61571e-08,0,2048,2048
298.954,-1.60284e-08,0,2048,2048
299.001,-1.59097e-08,0,2048,2048
299.053,-1.57713e-08,0,2048,2048
299.1,-1.56437e-08,0,2048,2048
299.153,-1.5495e-08,0,2048,2048
299.206,-1.53406e-08,0,2048,2048
299.253,-1.51983e-08,0,2048,2048
299.305,-1.50326e-08,0,2048,2048
299.352,-1.48799e-08,0,2048,2048
299.405,-1.4702e-08,0,2048,2048
299.452,-1.45382e-08,0,2048,2048
299.504,-1.43471e-08,0,2048,2048
299.551,-1.41711e-08,0,2048,2048
299.604,-1.39656e-08,0,2048,2048
299.651,-1.3776e-08,0,2048,2048
299.704,-1.35544e-08,0,2048,2048
299.75,-1.33496e-08,0,2048,2048
299.803,-1.31098e-08,0,2048,2048
299.85,-1.28878e-08,0,2048,2048
299.903,-1.26272e-08,0,2048,2048
299.956,-1.23545e-08,0,2048,2048
300.002,-1.21013e-08,0,2048,2048
300.055,-1.18034e-08,0,2048,2048
300.102,-1.15265e-08,0,2048,2048
300.155,-1.12004e-08,0,2048,2048
300.202,-1.08972e-08,0,2048,2048
300.254,-1.05404e-08,0,2048,2048
300.301,-1.02089e-08,0,2048,2048
300.354,-9.81949e-09,0,2048,2048
300.401,-9.45858e-09,0,2048,2048
300.453,-9.03598e-09,0,2048,2048
300.5,-8.64581e-09,0,2048,2048
300.553,-8.191e-09,0,2048,2048
300.606,-7.72018e-09,0,2048,2048
300.653,-7.28913e-09,0,2048,2048
300.705,-6.79135e-09,0,2048,2048
300.752,-6.33876e-09,0,2048,2048
300.805,-5.81998e-09,0,2048,2048
300.852,-5.35199e-09,0,2048,2048
300.905,-4.82e-09,0,2048,2048
300.951,-4.34424e-09,0,2048,2048
301.004,-3.80828e-09,0,2048,2048
301.051,-3.33346e-09,0,2048,2048
301.104,-2.80373e-09,0,2048,2048
301.151,-2.33912e-09,0,2048,2048
301.203,-1.82613e-09,0,2048,2048
301.25,-1.381e-09,0,2048,2048
301.303,-8.94938e-10,0,2048,2048
301.356,-4.2694e-10,0,2048,2048
301.403,-2.8041e-11,0,2048,2048
301.455,3.99527e-10,0,2048,2048
301.502,7.59279e-10,0,2048,2048
301.555,1.13969e-09,0,2048,2048
301.602,1.45521e-09,0,2048,2048
301.654,1.78383e-09,0,2048,2048
301.701,2.05198e-09,0,2048,2048
301.754,2.32639e-09,0,2048,2048
301.801,2.54605e-09,0,2048,2048
301.854,2.76609e-09,0,2048,2048
301.901,2.93805e-09,0,2048,2048
301.953,3.10563e-09,0,2048,2048
302,3.2324e-09,0,2048,2048
302.053,3.35119e-09,0,2048,2048
302.106,3.44612e-09,0,2048,2048
302.152,3.51175e-09,0,2048,2048
302.205,3.56603e-09,0,2048,2048
302.252,3.59829e-09,0,2048,2048
302.305,3.61829e-09,0,2048,2048
302.352,3.62304e-09,0,2048,2048
302.404,3.61545e-09,0,2048,2048
302.451,3.59868e-09,0,2048,2048
302.504,3.57021e-09,0,2048,2048
302.551,3.53778e-09,0,2048,2048
302.604,3.49486e-09,0,2048,2048
302.65,3.45228e-09,0,2048,2048
302.703,3.40083e-09,0,2048,2048
302.75,3.35307e-09,0,2048,2048
302.803,3.29829e-09,0,2048,2048
302.855,3.24358e-09,0,2048,2048
302.902,3.19588e-09,0,2048,2048
302.955,3.14411e-09,0,2048,2048
303.002,3.10037e-09,0,2048,2048
303.055,3.05428e-09,0,2048,2048
303.102,3.01641e-09,0,2048,2048
303.154,2.97754e-09,0,2048,2048
303.201,2.94635e-09,0,2048,2048
303.254,2.91496e-09,0,2048,2048
303.301,2.89014e-09,0,2048,2048
303.353,2.86528e-09,0,2048,2048
303.4,2.84547e-09,0,2048,2048
303.453,2.82513e-09,0,2048,2048
303.506,2.80608e-09,0,2048,2048
303.553,2.78955e-09,0,2048,2048
303.605,2.7706e-09,0,2048,2048
303.652,2.75273e-09,0,2048,2048
303.705,2.73072e-09,0,2048,2048
303.752,2.70884e-09,0,2048,2048
303.805,2.681e-09,0,2048,2048
303.851,2.65295e-09,0,2048,2048
303.904,2.6173e-09,0,2048,2048
303.951,2.58176e-09,0,2048,2048
304.004,2.5374e-09,0,2048,2048
304.051,2.49415e-09,0,2048,2048
304.103,2.44145e-09,0,2048,2048
304.15,2.39136e-09,0,2048,2048
304.203,2.3319e-09,0,2048,2048
304.256,2.26986e-09,0,2048,2048
304.303,2.21324e-09,0,2048,2048
304.355,2.14873e-09,0,2048,2048
304.402,2.09146e-09,0,2048,2048
304.455,2.02803e-09,0,2048,2048
304.502,1.97334e-09,0,2048,2048
304.554,1.91463e-09,0,2048,2048
304.601,1.86569e-09,0,2048,2048
304.654,1.81507e-09,0,2048,2048
304.701,1.77462e-09,0,2048,2048
304.754,1.73483e-09,0,2048,2048
304.801,1.70495e-09,0,2048,2048
304.853,1.67785e-09,0,2048,2048
304.9,1.65974e-09,0,2048,2048
304.953,1.64615e-09,0,2048,2048
