250,0,0,512,512
250.012,0,0,512,512
250.059,0,0,512,512
250.105,0,0,512,512
250.152,0,0,512,512
250.211,0,0,512,512
250.258,0,0,512,512
250.305,0,0,512,512
250.352,0,0,512,512
250.41,2.77556e-17,0,512,512
250.457,2.77556e-17,0,512,512
250.504,0,0,512,512
250.551,0,0,512,512
250.609,0,0,512,512
250.656,0,0,512,512
250.703,0,0,512,512
250.762,0,0,512,512
250.808,0,0,512,512
250.855,0,0,512,512
250.902,2.77556e-17,0,512,512
250.961,2.77556e-17,0,512,512
251.008,2.77556e-17,0,512,512
251.055,2.77556e-17,0,512,512
251.101,0,0,512,512
251.16,0,0,512,512
251.207,2.77556e-17,0,512,512
251.254,0,0,512,512
251.301,0,0,512,512
251.359,0,0,512,512
251.406,0,0,512,512
251.453,0,0,512,512
251.511,0,0,512,512
251.558,0,0,512,512
251.605,2.77556e-17,0,512,512
251.652,2.77556e-17,0,512,512
251.711,0,0,512,512
251.758,0,0,512,512
251.804,0,0,512,512
251.851,0,0,512,512
251.91,0,0,512,512
251.957,0,0,512,512
252.004,-2.77556e-17,0,512,512
252.05,-2.77556e-17,0,512,512
252.109,-2.77556e-17,0,512,512
252.156,0,0,512,512
252.203,0,0,512,512
252.261,0,0,512,512
252.308,0,0,512,512
252.355,2.77556e-17,0,512,512
252.402,2.77556e-17,0,512,512
252.461,0,0,512,512
252.507,0,0,512,512
252.554,0,0,512,512
252.601,0,0,512,512
252.66,0,0,512,512
252.707,0,0,512,512
252.754,0,0,512,512
252.8,0,0,512,512
252.859,2.77556e-17,0,512,512
252.906,0,0,512,512
252.953,0,0,512,512
253.011,0,0,512,512
253.058,0,0,512,512
253.105,0,0,512,512
253.152,0,0,512,512
253.21,0,0,512,512
253.257,0,0,512,512
253.304,2.77556e-17,0,512,512
253.351,2.77556e-17,0,512,512
253.41,0,0,512,512
253.457,0,0,512,512
253.503,0,0,512,512
253.55,2.77556e-17,0,512,512
253.609,2.77556e-17,0,512,512
253.656,2.77556e-17,0,512,512
253.703,2.77556e-17,0,512,512
253.761,0,0,512,512
253.808,0,0,512,512
253.855,0,0,512,512
253.902,-2.77556e-17,0,512,512
253.96,-2.77556e-17,0,512,512
254.007,0,0,512,512
254.054,0,0,512,512
254.101,-2.77556e-17,0,512,512
254.16,0,0,512,512
254.206,-2.77556e-17,0,512,512
254.253,0,0,512,512
254.3,0,0,512,512
254.359,0,0,512,512
254.406,0,0,512,512
254.452,0,0,512,512
254.511,-2.77556e-17,0,512,512
254.558,-2.77556e-17,0,512,512
254.605,-2.77556e-17,0,512,512
254.652,-2.77556e-17,0,512,512
254.71,-2.77556e-17,0,512,512
254.757,0,0,512,512
254.804,0,0,512,512
254.851,-2.77556e-17,0,512,512
254.909,-5.55112e-17,0,512,512
254.956,-2.77556e-17,0,512,512
255.003,-2.77556e-17,0,512,512
255.05,-2.77556e-17,0,512,512
255.109,-2.77556e-17,0,512,512
255.155,-2.77556e-17,0,512,512
255.202,-2.77556e-17,0,512,512
255.261,-2.77556e-17,0,512,512
255.308,-2.77556e-17,0,512,512
255.355,-2.77556e-17,0,512,512
255.402,-2.77556e-17,0,512,512
255.46,-2.77556e-17,0,512,512
255.507,-2.77556e-17,0,512,512
255.554,-2.77556e-17,0,512,512
255.601,0,0,512,512
255.659,0,0,512,512
255.706,0,0,512,512
255.753,0,0,512,512
255.812,0,0,512,512
255.859,0,0,512,512
255.905,2.77556e-17,0,512,512
255.952,0,0,512,512
256.011,0,0,512,512
256.058,0,0,512,512
256.105,0,0,512,512
256.151,0,0,512,512
256.21,0,0,512,512
256.257,2.77556e-17,0,512,512
256.304,2.77556e-17,0,512,512
256.351,0,0,512,512
256.409,0,0,512,512
256.456,0,0,512,512
256.503,0,0,512,512
256.562,0,0,512,512
256.608,0,0,512,512
256.655,-2.77556e-17,0,512,512
256.702,0,0,512,512
256.761,-2.77556e-17,0,512,512
256.808,0,0,512,512
256.854,-2.77556e-17,0,512,512
256.901,-2.77556e-17,0,512,512
256.96,-2.77556e-17,0,512,512
257.007,-2.77556e-17,0,512,512
257.054,0,0,512,512
257.101,-2.77556e-17,0,512,512
257.159,-2.77556e-17,0,512,512
257.206,0,0,512,512
257.253,0,0,512,512
257.311,0,0,512,512
257.358,2.77556e-17,0,512,512
257.405,2.77556e-17,0,512,512
257.452,0,0,512,512
257.511,0,0,512,512
257.557,0,0,512,512
257.604,0,0,512,512
257.651,0,0,512,512
257.71,-2.77556e-17,0,512,512
257.757,0,0,512,512
257.804,0,0,512,512
257.85,0,0,512,512
257.909,-2.77556e-17,0,512,512
257.956,-2.77556e-17,0,512,512
258.003,-2.77556e-17,0,512,512
258.061,0,0,512,512
258.108,0,0,512,512
258.155,0,0,512,512
258.202,0,0,512,512
258.261,0,0,512,512
258.307,-2.77556e-17,0,512,512
258.354,0,0,512,512
258.401,-2.77556e-17,0,512,512
258.46,-2.77556e-17,0,512,512
258.507,-2.77556e-17,0,512,512
258.553,-2.77556e-17,0,512,512
258.6,-2.77556e-17,0,512,512
258.659,-2.77556e-17,0,512,512
258.706,-5.55112e-17,0,512,512
258.753,-5.55112e-17,0,512,512
258.811,-5.55112e-17,0,512,512
258.858,-5.55112e-17,0,512,512
258.905,-2.77556e-17,0,512,512
258.952,0,0,512,512
259.01,0,0,512,512
259.057,-2.77556e-17,0,512,512
259.104,0,0,512,512
259.151,0,0,512,512
259.21,-2.77556e-17,0,512,512
259.256,-2.77556e-17,0,512,512
259.303,0,0,512,512
259.35,0,0,512,512
259.409,2.77556e-17,0,512,512
259.456,2.77556e-17,0,512,512
259.503,0,0,512,512
259.561,0,0,512,512
259.608,0,0,512,512
259.655,-2.77556e-17,0,512,512
259.702,-2.77556e-17,0,512,512
259.76,0,0,512,512
259.807,0,0,512,512
259.854,2.77556e-17,0,512,512
259.901,0,0,512,512
259.959,0,0,512,512
260.006,0,0,512,512
260.053,0,0,512,512
260.1,-2.77556e-17,0,512,512
260.159,-2.77556e-17,0,512,512
260.206,-2.77556e-17,0,512,512
260.252,-2.77556e-17,0,512,512
260.311,-2.77556e-17,0,512,512
260.358,-2.77556e-17,0,512,512
260.405,-2.77556e-17,0,512,512
260.452,-2.77556e-17,0,512,512
260.51,-2.77556e-17,0,512,512
260.557,-2.77556e-17,0,512,512
260.604,0,0,512,512
260.651,0,0,512,512
260.709,0,0,512,512
260.756,0,0,512,512
260.803,0,0,512,512
260.862,0,0,512,512
260.909,2.77556e-17,0,512,512
260.955,2.77556e-17,0,512,512
261.002,2.77556e-17,0,512,512
261.061,2.77556e-17,0,512,512
261.108,2.77556e-17,0,512,512
261.155,2.77556e-17,0,512,512
261.201,2.77556e-17,0,512,512
261.26,0,0,512,512
261.307,0,0,512,512
261.354,0,0,512,512
261.401,0,0,512,512
261.459,0,0,512,512
261.506,0,0,512,512
261.553,0,0,512,512
261.612,0,0,512,512
261.658,0,0,512,512
261.705,0,0,512,512
261.752,2.77556e-17,0,512,512
261.811,2.77556e-17,0,512,512
261.858,-2.77556e-17,0,512,512
261.905,0,0,512,512
261.951,0,0,512,512
262.01,0,0,512,512
262.057,0,0,512,512
262.104,0,0,512,512
262.151,0,0,512,512
262.209,0,0,512,512
262.256,2.77556e-17,0,512,512
262.303,2.77556e-17,0,512,512
262.361,0,0,512,512
262.408,0,0,512,512
262.455,0,0,512,512
262.502,0,0,512,512
262.561,0,0,512,512
262.608,2.77556e-17,0,512,512
262.654,2.77556e-17,0,512,512
262.701,2.77556e-17,0,512,512
262.76,2.77556e-17,0,512,512
262.807,0,0,512,512
262.854,0,0,512,512
262.9,2.77556e-17,0,512,512
262.959,0,0,512,512
263.006,0,0,512,512
263.053,0,0,512,512
263.111,0,0,512,512
263.158,0,0,512,512
263.205,0,0,512,512
263.252,0,0,512,512
263.311,0,0,512,512
263.357,2.77556e-17,0,512,512
263.404,2.77556e-17,0,512,512
263.451,2.77556e-17,0,512,512
263.51,0,0,512,512
263.557,0,0,512,512
263.603,0,0,512,512
263.65,0,0,512,512
263.709,-2.77556e-17,0,512,512
263.756,-2.77556e-17,0,512,512
263.803,-2.77556e-17,0,512,512
263.861,0,0,512,512
263.908,0,0,512,512
263.955,2.77556e-17,0,512,512
264.002,0,0,512,512
264.06,0,0,512,512
264.107,0,0,512,512
264.154,0,0,512,512
264.201,0,0,512,512
264.26,0,0,512,512
264.306,2.77556e-17,0,512,512
264.353,2.77556e-17,0,512,512
264.4,2.77556e-17,0,512,512
264.459,2.77556e-17,0,512,512
264.506,2.77556e-17,0,512,512
264.553,2.77556e-17,0,512,512
264.611,2.77556e-17,0,512,512
264.658,2.77556e-17,0,512,512
264.705,2.77556e-17,0,512,512
264.752,2.77556e-17,0,512,512
264.81,2.77556e-17,0,512,512
264.857,2.77556e-17,0,512,512
264.904,2.77556e-17,0,512,512
264.951,2.77556e-17,0,512,512
265.01,2.77556e-17,0,512,512
265.056,2.77556e-17,0,512,512
265.103,2.77556e-17,0,512,512
265.15,2.77556e-17,0,512,512
265.209,2.77556e-17,0,512,512
265.256,2.77556e-17,0,512,512
265.302,2.77556e-17,0,512,512
265.361,5.55112e-17,0,512,512
265.408,5.55112e-17,0,512,512
265.455,5.55112e-17,0,512,512
265.502,5.55112e-17,0,512,512
265.56,2.77556e-17,0,512,512
265.607,2.77556e-17,0,512,512
265.654,2.77556e-17,0,512,512
265.701,2.77556e-17,0,512,512
265.759,2.77556e-17,0,512,512
265.806,2.77556e-17,0,512,512
265.853,2.77556e-17,0,512,512
265.9,2.77556e-17,0,512,512
265.959,2.77556e-17,0,512,512
266.005,2.77556e-17,0,512,512
266.052,2.77556e-17,0,512,512
266.111,0,0,512,512
266.158,2.77556e-17,0,512,512
266.205,0,0,512,512
266.252,2.77556e-17,0,512,512
266.31,2.77556e-17,0,512,512
266.357,2.77556e-17,0,512,512
266.404,2.77556e-17,0,512,512
266.451,2.77556e-17,0,512,512
266.509,0,0,512,512
266.556,0,0,512,512
266.603,-2.77556e-17,0,512,512
266.662,-2.77556e-17,0,512,512
266.708,-2.77556e-17,0,512,512
266.755,0,0,512,512
266.802,-2.77556e-17,0,512,512
266.861,-2.77556e-17,0,512,512
266.908,-2.77556e-17,0,512,512
266.955,-2.77556e-17,0,512,512
267.001,-2.77556e-17,0,512,512
267.06,-2.77556e-17,0,512,512
267.107,-2.77556e-17,0,512,512
267.154,-2.77556e-17,0,512,512
267.201,-2.77556e-17,0,512,512
267.259,-2.77556e-17,0,512,512
267.306,-2.77556e-17,0,512,512
267.353,-2.77556e-17,0,512,512
267.412,-2.77556e-17,0,512,512
267.458,-2.77556e-17,0,512,512
267.505,-2.77556e-17,0,512,512
267.552,0,0,512,512
267.611,2.77556e-17,0,512,512
267.658,2.77556e-17,0,512,512
267.704,2.77556e-17,0,512,512
267.751,2.77556e-17,0,512,512
267.81,2.77556e-17,0,512,512
267.857,2.77556e-17,0,512,512
267.904,2.77556e-17,0,512,512
267.95,2.77556e-17,0,512,512
268.009,2.77556e-17,0,512,512
268.056,2.77556e-17,0,512,512
268.101,2.77556e-17,0,579,579
268.15,2.77556e-17,0,613,613
268.2,2.77556e-17,0,671,671
268.253,2.77556e-17,0,731,731
268.303,2.77556e-17,0,773,773
268.353,2.77556e-17,0,825,825
268.402,2.77556e-17,0,883,883
268.452,2.77556e-17,0,941,941
268.502,2.77556e-17,0,983,983
268.552,2.77556e-17,0,1043,1043
268.601,2.77556e-17,0,1087,1087
268.651,2.77556e-17,0,1135,1135
268.701,2.77556e-17,0,1171,1171
268.751,2.77556e-17,0,1215,1215
268.801,2.77556e-17,0,1269,1269
268.85,2.77556e-17,0,1289,1289
268.9,2.77556e-17,0,1337,1337
268.95,2.77556e-17,0,1361,1361
269.003,2.77556e-17,0,1393,1393
269.053,2.77556e-17,0,1383,1383
269.102,2.77556e-17,0,1419,1419
269.152,2.77556e-17,0,1429,1429
269.202,2.77556e-17,0,1441,1441
269.252,2.77556e-17,0,1443,1443
269.302,2.77556e-17,0,1495,1495
269.351,2.77556e-17,0,1551,1551
269.401,2.77556e-17,0,1577,1577
269.451,2.77556e-17,0,1605,1605
269.501,2.77556e-17,0,1665,1665
269.551,2.77556e-17,0,1717,1717
269.6,2.77556e-17,0,1735,1735
269.65,2.77556e-17,0,1779,1779
269.703,2.77556e-17,0,1839,1839
269.753,2.77556e-17,0,1871,1871
269.802,2.77556e-17,0,1897,1897
269.852,2.77556e-17,0,1959,1959
269.902,2.77556e-17,0,1981,1981
269.952,2.77556e-17,0,2017,2017
270.002,2.77556e-17,0,2037,2037
270.051,2.77556e-17,0,2037,2037
270.101,2.77556e-17,0,2083,2083
270.151,2.77556e-17,0,2103,2103
270.201,2.77556e-17,0,2113,2113
270.251,5.55112e-17,0,2117,2117
270.3,4.16334e-16,0,2147,2147
270.35,8.60423e-16,0,2203,2203
270.4,1.30451e-15,0,2251,2251
270.453,1.41553e-15,0,2299,2299
270.503,1.02696e-15,0,2329,2329
270.552,-3.2474e-15,0,2329,2329
270.602,-2.21212e-14,0,2347,2347
270.652,-8.31835e-14,0,2379,2379
270.702,-2.48912e-13,0,2399,2399
270.752,-6.4368e-13,0,2451,2451
270.801,-1.489e-12,0,2483,2483
270.851,-3.14015e-12,0,2477,2477
270.901,-6.11219e-12,0,2497,2497
270.951,-1.10802e-11,0,2545,2545
271.001,-1.8843e-11,0,2585,2585
271.05,-3.02604e-11,0,2619,2619
271.1,-4.61616e-11,0,2659,2659
271.153,-6.82512e-11,0,2719,2719
271.203,-9.95102e-11,0,2757,2757
271.252,-1.60904e-10,0,2793,2793
271.302,-2.13337e-10,0,2815,2815
271.352,-2.28066e-10,0,2843,2843
271.402,-1.9348e-10,0,2863,2863
271.452,-1.10333e-10,0,2901,2901
271.501,8.09673e-11,0,2895,2895
271.551,1.52352e-10,0,2921,2921
271.601,1.22807e-10,0,2973,2973
271.651,8.08676e-11,0,3017,3017
271.701,6.13393e-11,0,3061,3061
271.75,7.02898e-11,0,3089,3089
271.8,8.91031e-11,0,3131,3131
271.85,1.03813e-10,0,3167,3167
271.903,1.03895e-10,0,3211,3211
271.953,9.85855e-11,0,3257,3257
272.002,9.44123e-11,0,3297,3297
272.052,9.47903e-11,0,3335,3335
272.102,9.87423e-11,0,3381,3381
272.152,1.03277e-10,0,3415,3415
272.202,1.06538e-10,0,3419,3419
272.251,1.09064e-10,0,3461,3461
272.301,1.12677e-10,0,3487,3487
272.351,1.18217e-10,0,3541,3541
272.401,1.24234e-10,0,3593,3593
272.451,1.27086e-10,0,3623,3623
272.5,1.22345e-10,0,3661,3661
272.55,1.06932e-10,0,3707,3707
272.603,7.66503e-11,0,3755,3755
272.653,3.33247e-11,0,3785,3785
272.702,3.64064e-11,0,3835,3835
272.752,9.94669e-11,0,3887,3887
272.802,3.35903e-10,0,3905,3905
272.852,3.7813e-10,0,3951,3951
272.902,6.90007e-11,0,4001,4001
272.951,-3.43972e-10,0,4055,4055
273.001,-7.78346e-11,0,4087,4087
273.051,1.68004e-09,0,4135,4135
273.101,5.28011e-09,0,4161,4161
273.151,1.03305e-08,0,4201,4201
273.2,1.59199e-08,0,4235,4235
273.25,2.10931e-08,0,4285,4285
273.3,2.52612e-08,0,4319,4319
273.353,2.86017e-08,0,4367,4367
273.403,3.14165e-08,0,4403,4403
273.452,3.49669e-08,0,4441,4441
273.502,4.02714e-08,0,4481,4481
273.552,4.78959e-08,0,4519,4519
273.602,5.78844e-08,0,4563,4563
273.652,7.00971e-08,0,4609,4609
273.701,8.4698e-08,0,4615,4615
273.751,1.02391e-07,0,4613,4613
273.801,1.24261e-07,0,4651,4651
273.851,1.51398e-07,0,4701,4701
273.901,1.84485e-07,0,4783,4783
273.95,2.23471e-07,0,4815,4815
274,2.67447e-07,0,4879,4879
274.053,3.17818e-07,0,4901,4901
274.103,3.67659e-07,0,4935,4935
274.152,4.19317e-07,0,4981,4981
274.202,4.73249e-07,0,5017,5017
274.252,5.29803e-07,0,5057,5057
274.302,5.88151e-07,0,5107,5107
274.352,6.45962e-07,0,5133,5133
274.401,7.00035e-07,0,5175,5175
274.451,7.47345e-07,0,5223,5223
274.501,7.85843e-07,0,5257,5257
274.551,8.148e-07,0,5303,5303
274.601,8.34786e-07,0,5339,5339
274.65,8.47301e-07,0,5385,5385
274.7,8.5414e-07,0,5423,5423
274.753,8.56775e-07,0,5471,5471
274.803,8.55648e-07,0,5513,5513
274.853,8.50973e-07,0,5561,5561
274.902,8.42176e-07,0,5587,5587
274.952,8.2837e-07,0,5615,5615
275.002,8.0858e-07,0,5625,5625
275.052,7.81969e-07,0,5653,5653
275.102,7.48124e-07,0,5651,5651
275.151,7.0739e-07,0,5671,5671
275.201,6.61087e-07,0,5677,5677
275.251,6.11353e-07,0,5697,5697
275.301,5.60611e-07,0,5695,5695
275.35,5.1096e-07,0,5715,5715
275.4,4.63827e-07,0,5731,5731
275.45,4.19914e-07,0,5731,5731
275.503,3.77045e-07,0,5737,5737
275.553,3.3967e-07,0,5725,5725
275.602,3.04813e-07,0,5727,5727
275.652,2.72002e-07,0,5723,5723
275.702,2.41018e-07,0,5701,5701
275.752,2.1212e-07,0,5703,5703
275.802,1.86084e-07,0,5673,5673
275.851,1.63836e-07,0,5647,5647
275.901,1.4575e-07,0,5607,5607
275.951,1.31134e-07,0,5603,5603
276.001,1.18443e-07,0,5577,5577
276.051,1.06176e-07,0,5527,5527
276.1,9.37638e-08,0,5515,5515
276.15,8.17344e-08,0,5497,5497
276.203,7.05613e-08,0,5461,5461
276.253,6.22688e-08,0,5421,5421
276.302,5.62068e-08,0,5417,5417
276.352,5.17298e-08,0,5385,5385
276.402,4.78247e-08,0,5339,5339
276.452,4.35465e-08,0,5327,5327
276.502,3.84773e-08,0,5285,5285
276.551,3.29667e-08,0,5255,5255
276.601,2.7971e-08,0,5251,5251
276.65,2.42552e-08,0,5245,5245
276.703,2.21036e-08,0,5253,5253
276.753,2.14579e-08,0,5255,5255
276.803,2.15267e-08,0,5241,5241
276.853,2.17912e-08,0,5245,5245
276.9,2.1997e-08,0,5253,5253
276.951,2.21391e-08,0,5250,5250
277.001,2.22314e-08,0,5248,5248
277.052,2.22472e-08,0,5260,5260
277.103,2.22203e-08,0,5256,5256
277.151,2.21474e-08,0,5210,5210
277.202,2.18836e-08,0,5168,5168
277.251,2.1499e-08,0,5164,5164
277.302,2.11857e-08,0,5252,5252
277.351,2.09996e-08,0,5352,5352
277.403,2.08866e-08,0,5406,5406
277.451,2.07952e-08,0,5438,5438
277.503,2.06765e-08,0,5468,5468
277.552,2.05437e-08,0,5518,5518
277.6,2.03896e-08,0,5560,5560
277.652,2.01805e-08,0,5630,5630
277.7,1.99643e-08,0,5684,5684
277.752,1.96911e-08,0,5746,5746
277.803,1.93769e-08,0,5836,5836
277.851,1.90505e-08,0,5878,5878
277.901,1.86727e-08,0,5954,5954
277.952,1.82645e-08,0,6024,6024
278.002,1.78251e-08,0,6070,6070
278.053,1.73642e-08,0,6094,6094
278.103,1.68833e-08,0,6128,6128
278.153,1.63895e-08,0,6150,6150
278.203,1.58878e-08,0,6198,6198
278.252,1.53799e-08,0,6240,6240
278.302,1.48718e-08,0,6256,6256
278.351,1.43639e-08,0,6302,6302
278.4,1.38609e-08,0,6334,6334
278.452,1.33344e-08,0,6366,6366
278.501,1.28492e-08,0,6410,6410
278.553,1.23495e-08,0,6414,6414
278.602,1.18964e-08,0,6394,6394
278.653,1.14386e-08,0,6346,6346
278.701,1.10321e-08,0,6274,6274
278.752,1.06294e-08,0,6232,6232
278.8,1.02797e-08,0,6168,6168
278.851,9.93916e-09,0,6112,6112
278.902,9.63134e-09,0,6036,6036
278.952,9.35412e-09,0,5954,5954
279.002,9.10621e-09,0,5926,5926
279.052,8.88462e-09,0,5854,5854
279.102,8.68752e-09,0,5782,5782
279.152,8.51453e-09,0,5750,5750
279.202,8.36455e-09,0,5668,5668
279.252,8.23714e-09,0,5616,5616
279.302,8.12979e-09,0,5568,5568
279.351,8.03751e-09,0,5506,5506
279.401,7.95606e-09,0,5446,5446
279.451,7.886e-09,0,5420,5420
279.501,7.82732e-09,0,5366,5366
279.551,7.7766e-09,0,5326,5326
279.6,7.72895e-09,0,5298,5298
279.65,7.69173e-09,0,5250,5250
279.7,7.68283e-09,0,5210,5210
279.753,7.66774e-09,0,5122,5122
279.803,7.65187e-09,0,5100,5100
279.852,7.64347e-09,0,5160,5160
279.902,7.64536e-09,0,5198,5198
279.952,7.65007e-09,0,5226,5226
280.002,7.65449e-09,0,5274,5274
280.052,7.66141e-09,0,5282,5282
280.101,7.66894e-09,0,5318,5318
280.151,7.67838e-09,0,5360,5360
280.201,7.68956e-09,0,5379,5379
280.251,7.70205e-09,0,5423,5423
280.301,7.71576e-09,0,5481,5481
280.35,7.7304e-09,0,5525,5525
280.4,7.74581e-09,0,5585,5585
280.453,7.76266e-09,0,5609,5609
280.503,7.77885e-09,0,5663,5663
280.552,7.79517e-09,0,5700,5700
280.602,7.81156e-09,0,5724,5724
280.652,7.828e-09,0,5758,5758
280.702,7.84443e-09,0,5806,5806
280.752,7.86082e-09,0,5856,5856
280.801,7.87711e-09,0,5868,5868
280.851,7.89324e-09,0,5866,5866
280.901,7.90916e-09,0,5866,5866
280.951,7.92482e-09,0,5876,5876
281.001,7.94018e-09,0,5876,5876
281.05,7.95519e-09,0,5862,5862
281.1,7.96979e-09,0,5870,5870
281.15,7.98395e-09,0,5856,5856
281.203,7.99841e-09,0,5838,5838
281.253,8.01158e-09,0,5826,5826
281.302,8.0243e-09,0,5818,5818
281.352,8.03664e-09,0,5818,5818
281.402,8.04874e-09,0,5816,5816
281.452,8.0608e-09,0,5796,5796
281.502,8.07308e-09,0,5796,5796
281.551,8.0859e-09,0,5794,5794
281.601,8.09958e-09,0,5778,5778
281.651,8.11446e-09,0,5774,5774
281.701,8.13096e-09,0,5764,5764
281.751,8.14969e-09,0,5764,5764
281.8,8.1714e-09,0,5752,5752
281.85,8.19736e-09,0,5756,5756
281.903,8.24033e-09,0,5734,5734
281.953,8.29507e-09,0,5736,5736
282.002,8.36404e-09,0,5724,5724
282.052,8.44056e-09,0,5738,5738
282.102,8.523e-09,0,5710,5710
282.152,8.61535e-09,0,5714,5714
282.202,8.78758e-09,0,5694,5694
282.251,8.97381e-09,0,5704,5704
282.301,9.15866e-09,0,5698,5698
282.351,9.40218e-09,0,5682,5682
282.401,9.70836e-09,0,5676,5676
282.451,1.00606e-08,0,5672,5672
282.5,1.04731e-08,0,5674,5674
282.55,1.09622e-08,0,5668,5668
282.6,1.15436e-08,0,5666,5666
282.653,1.22783e-08,0,5648,5648
282.703,1.31035e-08,0,5640,5640
282.752,1.40724e-08,0,5650,5650
282.802,1.5203e-08,0,5640,5640
282.852,1.65101e-08,0,5642,5642
282.9,1.79527e-08,0,5632,5632
282.953,1.97481e-08,0,5664,5664
283.002,2.16465e-08,0,5712,5712
283.051,2.37514e-08,0,5756,5756
283.1,2.60615e-08,0,5800,5800
283.152,2.87357e-08,0,5864,5864
283.201,3.14491e-08,0,5891,5891
283.253,3.4525e-08,0,5955,5955
283.301,3.75857e-08,0,6011,6011
283.352,4.09919e-08,0,6047,6047
283.4,4.43252e-08,0,6099,6099
283.451,4.79867e-08,0,6159,6159
283.502,5.17622e-08,0,6167,6167
283.553,5.56549e-08,0,6237,6237
283.6,5.94412e-08,0,6289,6289
283.651,6.36226e-08,0,6353,6353
283.701,6.80066e-08,0,6411,6411
283.751,7.26378e-08,0,6451,6451
283.801,7.75559e-08,0,6503,6503
283.851,8.27942e-08,0,6559,6559
283.9,8.83676e-08,0,6601,6601
283.95,9.42643e-08,0,6645,6645
284.003,1.00835e-07,0,6705,6705
284.053,1.07328e-07,0,6741,6741
284.102,1.14106e-07,0,6781,6781
284.152,1.21214e-07,0,6831,6831
284.202,1.28755e-07,0,6875,6875
284.252,1.36897e-07,0,6915,6915
284.302,1.45868e-07,0,6955,6955
284.351,1.55955e-07,0,7017,7017
284.401,1.67483e-07,0,7065,7065
284.451,1.80802e-07,0,7105,7105
284.501,1.96263e-07,0,7149,7149
284.551,2.142e-07,0,7203,7203
284.6,2.34901e-07,0,7257,7257
284.65,2.58586e-07,0,7319,7319
284.7,2.85383e-07,0,7355,7355
284.753,3.1716e-07,0,7413,7413
284.803,3.50261e-07,0,7437,7437
284.852,3.86103e-07,0,7463,7463
284.902,4.24285e-07,0,7472,7472
284.952,4.6427e-07,0,7504,7504
285.002,5.05389e-07,0,7548,7548
285.052,5.46845e-07,0,7597,7597
285.101,5.87743e-07,0,7652,7652
285.151,6.27115e-07,0,7694,7694
285.201,6.63976e-07,0,7692,7692
285.251,6.97379e-07,0,7744,7744
285.3,7.2648e-07,0,7786,7786
285.35,7.50595e-07,0,7808,7808
285.4,7.69236e-07,0,7840,7840
285.453,7.82694e-07,0,7860,7860
285.503,7.89376e-07,0,7882,7882
285.552,7.90256e-07,0,7878,7878
285.602,7.85479e-07,0,7867,7867
285.652,7.75233e-07,0,7855,7855
285.702,7.59715e-07,0,7875,7875
285.752,7.39123e-07,0,7879,7879
285.801,7.13666e-07,0,7890,7890
285.851,6.83597e-07,0,7888,7888
285.901,6.4925e-07,0,7876,7876
285.951,6.11072e-07,0,7894,7894
286.001,5.69639e-07,0,7886,7886
286.05,5.25649e-07,0,7894,7894
286.1,4.79898e-07,0,7910,7910
286.153,4.30475e-07,0,7932,7932
286.203,3.83747e-07,0,7936,7936
286.253,3.37763e-07,0,7940,7940
286.302,2.93197e-07,0,7960,7960
286.352,2.50599e-07,0,7996,7996
286.402,2.1039e-07,0,8018,8018
286.452,1.72872e-07,0,8008,8008
286.501,1.38238e-07,0,8014,8014
286.551,1.06598e-07,0,7992,7992
286.601,7.79832e-08,0,8070,8070
286.651,5.23641e-08,0,7876,7876
286.701,2.96538e-08,0,7678,7678
286.75,9.71802e-09,0,7562,7562
286.8,-7.61474e-09,0,7622,7622
286.85,-2.25391e-08,0,7486,7486
286.903,-3.59425e-08,0,7374,7374
286.953,-4.6546e-08,0,7408,7408
287.002,-5.53465e-08,0,7340,7340
287.052,-6.25213e-08,0,7336,7336
287.102,-6.82367e-08,0,7358,7358
287.152,-7.26497e-08,0,7250,7250
287.202,-7.59078e-08,0,7194,7194
287.251,-7.8146e-08,0,7204,7204
287.301,-7.94816e-08,0,7128,7128
287.351,-8.00116e-08,0,7048,7048
287.401,-7.98122e-08,0,7036,7036
287.451,-7.89439e-08,0,6970,6970
287.5,-7.74597e-08,0,6984,6984
287.55,-7.54151e-08,0,6958,6958
287.603,-7.27124e-08,0,6876,6876
287.653,-6.97351e-08,0,6946,6946
287.702,-6.64387e-08,0,6830,6830
287.752,-6.29214e-08,0,6808,6808
287.802,-5.92807e-08,0,6718,6718
287.852,-5.56063e-08,0,6784,6784
287.902,-5.19745e-08,0,6652,6652
287.951,-4.84454e-08,0,6672,6672
288.001,-4.50623e-08,0,6666,6666
288.051,-4.18533e-08,0,6706,6706
288.101,-3.88338e-08,0,6668,6668
288.151,-3.60094e-08,0,6666,6666
288.2,-3.33796e-08,0,6652,6652
288.25,-3.09398e-08,0,6660,6660
288.3,-2.86835e-08,0,6818,6818
288.353,-2.64865e-08,0,6744,6744
288.403,-2.45849e-08,0,6602,6602
288.452,-2.28438e-08,0,6510,6510
288.502,-2.12552e-08,0,6462,6462
288.552,-1.98115e-08,0,6298,6298
288.602,-1.8506e-08,0,6336,6336
288.652,-1.73326e-08,0,6508,6508
288.701,-1.6284e-08,0,6640,6640
288.751,-1.53531e-08,0,6920,6920
288.801,-1.45332e-08,0,6876,6876
288.851,-1.38139e-08,0,6934,6934
288.901,-1.31752e-08,0,6974,6974
288.95,-1.25953e-08,0,7030,7030
289,-1.20642e-08,0,7074,7074
289.053,-1.15577e-08,0,7260,7260
289.103,-1.11397e-08,0,7302,7302
289.152,-1.0793e-08,0,7364,7364
289.202,-1.05246e-08,0,7374,7374
289.252,-1.0321e-08,0,7368,7368
289.302,-1.01634e-08,0,7370,7370
289.352,-1.00398e-08,0,7342,7342
289.401,-9.93649e-09,0,7202,7202
289.451,-9.85571e-09,0,7040,7040
289.501,-9.79456e-09,0,7030,7030
289.551,-9.74639e-09,0,7088,7088
289.601,-9.78058e-09,0,7258,7258
289.65,-9.82998e-09,0,7136,7136
289.7,-9.86401e-09,0,7076,7076
289.75,-9.90275e-09,0,7050,7050
289.803,-9.96283e-09,0,7120,7120
289.853,-1.00243e-08,0,7200,7200
289.902,-1.00882e-08,0,7178,7178
289.952,-1.01513e-08,0,7158,7158
290.002,-1.02071e-08,0,7126,7126
290.052,-1.0255e-08,0,7090,7090
290.102,-1.0296e-08,0,7022,7022
290.151,-1.03341e-08,0,6980,6980
290.201,-1.03717e-08,0,6862,6862
290.251,-1.04092e-08,0,6806,6806
290.301,-1.04454e-08,0,6772,6772
290.351,-1.04807e-08,0,6698,6698
290.4,-1.05149e-08,0,6582,6582
290.45,-1.05483e-08,0,6530,6530
290.503,-1.05826e-08,0,6456,6456
290.553,-1.06141e-08,0,6244,6244
290.602,-1.06453e-08,0,6160,6160
290.652,-1.06731e-08,0,6068,6068
290.702,-1.06997e-08,0,6088,6088
290.752,-1.07223e-08,0,6074,6074
290.802,-1.07454e-08,0,6040,6040
290.851,-1.07631e-08,0,5990,5990
290.901,-1.07778e-08,0,6144,6144
290.951,-1.07934e-08,0,6248,6248
291.001,-1.08087e-08,0,6264,6264
291.051,-1.08255e-08,0,6272,6272
291.1,-1.08447e-08,0,6306,6306
291.15,-1.08661e-08,0,6346,6346
291.2,-1.08903e-08,0,6372,6372
291.253,-1.0922e-08,0,6388,6388
291.303,-1.09618e-08,0,6250,6250
291.352,-1.10131e-08,0,6174,6174
291.402,-1.10701e-08,0,6052,6052
291.452,-1.11406e-08,0,5934,5934
291.502,-1.12255e-08,0,5882,5882
291.552,-1.13246e-08,0,5850,5850
291.601,-1.14487e-08,0,5936,5936
291.651,-1.15802e-08,0,5940,5940
291.701,-1.17255e-08,0,5918,5918
291.751,-1.18839e-08,0,5898,5898
291.801,-1.20503e-08,0,5864,5864
291.85,-1.22321e-08,0,5848,5848
291.9,-1.24324e-08,0,5800,5800
291.953,-1.2654e-08,0,5790,5790
292.003,-1.28762e-08,0,5778,5778
292.052,-1.31268e-08,0,5752,5752
292.102,-1.34251e-08,0,5705,5705
292.152,-1.37268e-08,0,5717,5717
292.202,-1.40351e-08,0,5696,5696
292.252,-1.43547e-08,0,5746,5746
292.301,-1.4683e-08,0,5782,5782
292.351,-1.50262e-08,0,5796,5796
292.401,-1.53874e-08,0,5820,5820
292.451,-1.57634e-08,0,5892,5892
292.501,-1.61481e-08,0,5866,5866
292.55,-1.65395e-08,0,5874,5874
292.6,-1.69369e-08,0,5850,5850
292.653,-1.73634e-08,0,5818,5818
292.703,-1.77715e-08,0,5814,5814
292.753,-1.81802e-08,0,5794,5794
292.802,-1.85851e-08,0,5830,5830
292.852,-1.89829e-08,0,5836,5836
292.902,-1.93708e-08,0,5774,5774
292.952,-1.97466e-08,0,5720,5720
293.002,-2.01105e-08,0,5670,5670
293.051,-2.04634e-08,0,5734,5734
293.101,-2.08029e-08,0,5588,5588
293.151,-2.11225e-08,0,5514,5514
293.201,-2.14178e-08,0,5456,5456
293.25,-2.16883e-08,0,5390,5390
293.301,-2.19378e-08,0,5402,5402
293.351,-2.21624e-08,0,5480,5480
293.401,-2.23572e-08,0,5544,5544
293.451,-2.25204e-08,0,5628,5628
293.501,-2.26519e-08,0,5697,5697
293.551,-2.27523e-08,0,5721,5721
293.601,-2.28245e-08,0,5713,5713
293.65,-2.28643e-08,0,5731,5731
293.7,-2.28589e-08,0,5743,5743
293.75,-2.28381e-08,0,5749,5749
293.803,-2.28064e-08,0,5731,5731
293.853,-2.27648e-08,0,5731,5731
293.902,-2.27112e-08,0,5727,5727
293.952,-2.26457e-08,0,5729,5729
294.002,-2.25704e-08,0,5735,5735
294.052,-2.24862e-08,0,5751,5751
294.102,-2.23519e-08,0,5763,5763
294.151,-2.22253e-08,0,5771,5771
294.201,-2.20956e-08,0,5789,5789
294.251,-2.19565e-08,0,5831,5831
294.301,-2.18118e-08,0,5869,5869
294.35,-2.16642e-08,0,5907,5907
294.4,-2.15154e-08,0,5940,5940
294.45,-2.13666e-08,0,5974,5974
294.503,-2.12091e-08,0,6010,6010
294.553,-2.10607e-08,0,6026,6026
294.602,-2.0914e-08,0,6042,6042
294.652,-2.07699e-08,0,6052,6052
294.702,-2.06279e-08,0,6070,6070
294.752,-2.04885e-08,0,6084,6084
294.802,-2.03526e-08,0,6088,6088
294.851,-2.02208e-08,0,6232,6232
294.901,-2.00935e-08,0,6272,6272
294.951,-1.99701e-08,0,6292,6292
295.001,-1.9851e-08,0,6308,6308
295.051,-1.97362e-08,0,6332,6332
295.1,-1.96259e-08,0,6350,6350
295.15,-1.95199e-08,0,6366,6366
295.203,-1.94122e-08,0,6294,6294
295.253,-1.9315e-08,0,6248,6248
295.303,-1.92221e-08,0,6238,6238
295.352,-1.91333e-08,0,6284,6284
295.402,-1.90483e-08,0,6336,6336
295.452,-1.89668e-08,0,6364,6364
295.502,-1.88883e-08,0,6358,6358
295.551,-1.88122e-08,0,6334,6334
295.601,-1.87384e-08,0,6340,6340
295.651,-1.86664e-08,0,6306,6306
295.701,-1.8596e-08,0,6274,6274
295.751,-1.85274e-08,0,6254,6254
295.8,-1.84608e-08,0,6204,6204
295.85,-1.83958e-08,0,6168,6168
295.9,-1.83324e-08,0,6138,6138
295.953,-1.82661e-08,0,6090,6090
296.003,-1.82039e-08,0,6050,6050
296.052,-1.81418e-08,0,6038,6038
296.102,-1.80797e-08,0,5982,5982
296.152,-1.80176e-08,0,5978,5978
296.202,-1.79553e-08,0,5954,5954
296.252,-1.78928e-08,0,5928,5928
296.301,-1.78298e-08,0,5948,5948
296.351,-1.77662e-08,0,5964,5964
296.401,-1.77017e-08,0,5956,5956
296.451,-1.76362e-08,0,5928,5928
296.501,-1.75695e-08,0,5898,5898
296.55,-1.75015e-08,0,5849,5849
296.6,-1.74323e-08,0,5831,5831
296.653,-1.73573e-08,0,5783,5783
296.703,-1.72847e-08,0,5765,5765
296.752,-1.721e-08,0,5729,5729
296.802,-1.7133e-08,0,5701,5701
296.852,-1.70536e-08,0,5649,5649
296.902,-1.69715e-08,0,5648,5648
296.952,-1.68863e-08,0,5655,5655
297.001,-1.67978e-08,0,5681,5681
297.051,-1.67056e-08,0,5719,5719
297.101,-1.66096e-08,0,5720,5720
297.151,-1.65097e-08,0,5748,5748
297.201,-1.64057e-08,0,5750,5750
297.25,-1.62976e-08,0,5694,5694
297.3,-1.6185e-08,0,5638,5638
297.35,-1.60679e-08,0,5614,5614
297.403,-1.59389e-08,0,5602,5602
297.453,-1.58121e-08,0,5596,5596
297.502,-1.56803e-08,0,5584,5584
297.552,-1.55433e-08,0,5546,5546
297.602,-1.54011e-08,0,5530,5530
297.652,-1.52536e-08,0,5510,5510
297.702,-1.51012e-08,0,5496,5496
297.751,-1.49441e-08,0,5466,5466
297.801,-1.4783e-08,0,5432,5432
297.851,-1.4619e-08,0,5406,5406
297.901,-1.44525e-08,0,5384,5384
297.951,-1.4283e-08,0,5306,5306
298,-1.41085e-08,0,5247,5247
298.05,-1.39263e-08,0,5215,5215
298.103,-1.3724e-08,0,5180,5180
298.153,-1.34946e-08,0,5218,5218
298.202,-1.32645e-08,0,5194,5194
298.252,-1.30383e-08,0,5180,5180
298.302,-1.28051e-08,0,5156,5156
298.352,-1.25638e-08,0,5136,5136
298.402,-1.23145e-08,0,5126,5126
298.451,-1.20558e-08,0,5108,5108
298.501,-1.17863e-08,0,5096,5096
298.551,-1.15045e-08,0,5074,5074
298.601,-1.12086e-08,0,5060,5060
298.651,-1.0897e-08,0,5028,5028
298.7,-1.05677e-08,0,5020,5020
298.75,-1.02194e-08,0,4998,4998
298.8,-9.85101e-09,0,4990,4990
298.853,-9.43801e-09,0,4968,4968
298.903,-9.02561e-09,0,4942,4942
298.952,-8.59102e-09,0,4926,4926
299.002,-8.13399e-09,0,4904,4904
299.052,-7.65474e-09,0,4876,4876
299.102,-7.15406e-09,0,4858,4858
299.152,-6.63335e-09,0,4836,4836
299.201,-6.09458e-09,0,4822,4822
299.251,-5.54025e-09,0,4800,4800
299.301,-4.97327e-09,0,4766,4766
299.351,-4.39683e-09,0,4739,4739
299.401,-3.81428e-09,0,4719,4719
299.45,-3.22921e-09,0,4689,4689
299.5,-2.64527e-09,0,4675,4675
299.553,-2.03238e-09,0,4645,4645
299.603,-1.46237e-09,0,4637,4637
299.652,-9.04783e-10,0,4611,4611
299.702,-3.63181e-10,0,4589,4589
299.752,1.59182e-10,0,4575,4575
299.802,6.59076e-10,0,4541,4541
299.852,1.13376e-09,0,4519,4519
299.901,1.58071e-09,0,4491,4491
299.951,1.9976e-09,0,4467,4467
300.001,2.38248e-09,0,4437,4437
300.051,2.73395e-09,0,4401,4401
300.101,3.05108e-09,0,4383,4383
300.15,3.33342e-09,0,4333,4333
300.2,3.58095e-09,0,4309,4309
300.25,3.79404e-09,0,4289,4289
300.303,3.98285e-09,0,4247,4247
300.353,4.12727e-09,0,4215,4215
300.402,4.24011e-09,0,4191,4191
300.452,4.32332e-09,0,4153,4153
300.502,4.37362e-09,0,4119,4119
300.552,4.38087e-09,0,4087,4087
300.602,4.36423e-09,0,4055,4055
300.651,4.34035e-09,0,4029,4029
300.701,4.30851e-09,0,4017,4017
300.751,4.26845e-09,0,3987,3987
300.801,4.21998e-09,0,3975,3975
300.851,4.1632e-09,0,3953,3953
300.9,4.09853e-09,0,3919,3919
300.95,4.02692e-09,0,3894,3894
301.003,3.94428e-09,0,3868,3868
301.053,3.86169e-09,0,3854,3854
301.102,3.7759e-09,0,3806,3806
301.152,3.68793e-09,0,3766,3766
301.202,3.59903e-09,0,3734,3734
301.252,3.51037e-09,0,3700,3700
301.302,3.42297e-09,0,3652,3652
301.351,3.338e-09,0,3618,3618
301.401,3.25608e-09,0,3586,3586
301.451,3.17792e-09,0,3548,3548
301.501,3.10422e-09,0,3500,3500
301.551,3.03548e-09,0,3448,3448
301.6,2.97193e-09,0,3398,3398
301.65,2.91389e-09,0,3352,3352
301.7,2.86154e-09,0,3302,3302
301.753,2.81219e-09,0,3256,3256
301.803,2.77104e-09,0,3206,3206
301.852,2.73476e-09,0,3156,3156
301.902,2.70276e-09,0,3108,3108
301.952,2.6743e-09,0,3050,3050
302.002,2.64856e-09,0,3012,3012
302.052,2.62476e-09,0,2966,2966
302.101,2.60218e-09,0,2922,2922
302.151,2.58012e-09,0,2874,2874
302.201,2.55797e-09,0,2834,2834
302.251,2.53526e-09,0,2796,2796
302.301,2.51158e-09,0,2746,2746
302.35,2.4866e-09,0,2710,2710
302.4,2.46003e-09,0,2648,2648
302.453,2.42992e-09,0,2586,2586
302.503,2.3995e-09,0,2544,2544
302.552,2.36715e-09,0,2492,2492
302.602,2.33297e-09,0,2446,2446
302.652,2.29717e-09,0,2420,2420
302.702,2.26006e-09,0,2362,2362
302.752,2.22207e-09,0,2314,2314
302.801,2.18371e-09,0,2266,2266
302.851,2.14559e-09,0,2226,2226
302.901,2.10837e-09,0,2172,2172
302.951,2.0727e-09,0,2126,2126
303.001,2.03917e-09,0,2070,2070
303.05,2.00837e-09,0,2020,2020
303.1,1.98089e-09,0,1956,1956
303.153,1.95613e-09,0,1898,1898
303.203,1.9379e-09,0,1848,1848
303.253,1.92534e-09,0,1800,1800
303.302,1.91902e-09,0,1738,1738
303.352,1.9146e-09,0,1696,1696
303.402,1.91586e-09,0,1650,1650
303.452,1.91924e-09,0,1604,1604
303.501,1.92555e-09,0,1544,1544
303.551,1.93344e-09,0,1498,1498
303.601,1.94277e-09,0,1442,1442
303.651,1.9537e-09,0,1382,1382
303.701,1.96598e-09,0,1324,1324
303.753,1.97998e-09,0,1280,1280
303.803,1.99425e-09,0,1287,1287
303.853,2.00937e-09,0,1289,1289
303.902,2.02509e-09,0,1287,1287
303.952,2.04118e-09,0,1283,1283
304.002,2.0574e-09,0,1287,1287
304.051,2.07357e-09,0,1288,1288
304.101,2.08948e-09,0,1278,1278
304.151,2.10495e-09,0,1282,1282
304.201,2.11984e-09,0,1270,1270
304.25,2.134e-09,0,1260,1260
304.304,2.14837e-09,0,1240,1240
304.354,2.16058e-09,0,1224,1224
304.404,2.17166e-09,0,1214,1214
304.453,2.18155e-09,0,1198,1198
304.503,2.19019e-09,0,1190,1190
304.553,2.19755e-09,0,1174,1174
304.602,2.20364e-09,0,1160,1160
304.652,2.20847e-09,0,1140,1140
304.702,2.21207e-09,0,1124,1124
304.751,2.21447e-09,0,1114,1114
304.801,2.2157e-09,0,1098,1098
304.851,2.21579e-09,0,1086,1086
304.901,2.2148e-09,0,1066,1066
304.95,2.21277e-09,0,1052,1052
