250,0,0,512,512
250.012,0,0,512,512
250.059,0,0,512,512
250.105,0,0,512,512
250.152,0,0,512,512
250.211,0,0,512,512
250.258,0,0,512,512
250.305,0,0,512,512
250.352,0,0,512,512
250.41,2.77556e-17,0,512,512
250.457,2.77556e-17,0,512,512
250.504,0,0,512,512
250.551,0,0,512,512
250.609,0,0,512,512
250.656,0,0,512,512
250.703,0,0,512,512
250.762,0,0,512,512
250.808,0,0,512,512
250.855,0,0,512,512
250.902,2.77556e-17,0,512,512
250.961,2.77556e-17,0,512,512
251.008,2.77556e-17,0,512,512
251.055,2.77556e-17,0,512,512
251.101,0,0,512,512
251.16,0,0,512,512
251.207,2.77556e-17,0,512,512
251.254,0,0,512,512
251.301,0,0,512,512
251.359,0,0,512,512
251.406,0,0,512,512
251.453,0,0,512,512
251.511,0,0,512,512
251.558,0,0,512,512
251.605,2.77556e-17,0,512,512
251.652,2.77556e-17,0,512,512
251.711,0,0,512,512
251.758,0,0,512,512
251.804,0,0,512,512
251.851,0,0,512,512
251.91,0,0,512,512
251.957,0,0,512,512
252.004,-2.77556e-17,0,512,512
252.05,-2.77556e-17,0,512,512
252.109,-2.77556e-17,0,512,512
252.156,0,0,512,512
252.203,0,0,512,512
252.261,0,0,512,512
252.308,0,0,512,512
252.355,2.77556e-17,0,512,512
252.402,2.77556e-17,0,512,512
252.461,0,0,512,512
252.507,0,0,512,512
252.554,0,0,512,512
252.601,0,0,512,512
252.66,0,0,512,512
252.707,0,0,512,512
252.754,0,0,512,512
252.8,0,0,512,512
252.859,2.77556e-17,0,512,512
252.906,0,0,512,512
252.953,0,0,512,512
253.011,0,0,512,512
253.058,0,0,512,512
253.105,0,0,512,512
253.152,0,0,512,512
253.21,0,0,512,512
253.257,0,0,512,512
253.304,2.77556e-17,0,512,512
253.351,2.77556e-17,0,512,512
253.41,0,0,512,512
253.457,0,0,512,512
253.503,0,0,512,512
253.55,2.77556e-17,0,512,512
253.609,2.77556e-17,0,512,512
253.656,2.77556e-17,0,512,512
253.703,2.77556e-17,0,512,512
253.761,0,0,512,512
253.808,0,0,512,512
253.855,0,0,512,512
253.902,-2.77556e-17,0,512,512
253.96,-2.77556e-17,0,512,512
254.007,0,0,512,512
254.054,0,0,512,512
254.101,-2.77556e-17,0,512,512
254.16,0,0,512,512
254.206,-2.77556e-17,0,512,512
254.253,0,0,512,512
254.3,0,0,512,512
254.359,0,0,512,512
254.406,0,0,512,512
254.452,0,0,512,512
254.511,-2.77556e-17,0,512,512
254.558,-2.77556e-17,0,512,512
254.605,-2.77556e-17,0,512,512
254.652,-2.77556e-17,0,512,512
254.71,-2.77556e-17,0,512,512
254.757,0,0,512,512
254.804,0,0,512,512
254.851,-2.77556e-17,0,512,512
254.909,-5.55112e-17,0,512,512
254.956,-2.77556e-17,0,512,512
255.003,-2.77556e-17,0,512,512
255.05,-2.77556e-17,0,512,512
255.109,-2.77556e-17,0,512,512
255.155,-2.77556e-17,0,512,512
255.202,-2.77556e-17,0,512,512
255.261,-2.77556e-17,0,512,512
255.308,-2.77556e-17,0,512,512
255.355,-2.77556e-17,0,512,512
255.402,-2.77556e-17,0,512,512
255.46,-2.77556e-17,0,512,512
255.507,-2.77556e-17,0,512,512
255.554,-2.77556e-17,0,512,512
255.601,0,0,512,512
255.659,0,0,512,512
255.706,0,0,512,512
255.753,0,0,512,512
255.812,0,0,512,512
255.859,0,0,512,512
255.905,2.77556e-17,0,512,512
255.952,0,0,512,512
256.011,0,0,512,512
256.058,0,0,512,512
256.105,0,0,512,512
256.151,0,0,512,512
256.21,0,0,512,512
256.257,2.77556e-17,0,512,512
256.304,2.77556e-17,0,512,512
256.351,0,0,512,512
256.409,0,0,512,512
256.456,0,0,512,512
256.503,0,0,512,512
256.562,0,0,512,512
256.608,0,0,512,512
256.655,-2.77556e-17,0,512,512
256.702,0,0,512,512
256.761,-2.77556e-17,0,512,512
256.808,0,0,512,512
256.854,-2.77556e-17,0,512,512
256.901,-2.77556e-17,0,512,512
256.96,-2.77556e-17,0,512,512
257.007,-2.77556e-17,0,512,512
257.054,0,0,512,512
257.101,-2.77556e-17,0,512,512
257.159,-2.77556e-17,0,512,512
257.206,0,0,512,512
257.253,0,0,512,512
257.311,0,0,512,512
257.358,2.77556e-17,0,512,512
257.405,2.77556e-17,0,512,512
257.452,0,0,512,512
257.511,0,0,512,512
257.557,0,0,512,512
257.604,0,0,512,512
257.651,0,0,512,512
257.71,-2.77556e-17,0,512,512
257.757,0,0,512,512
257.804,0,0,512,512
257.85,0,0,512,512
257.909,-2.77556e-17,0,512,512
257.956,-2.77556e-17,0,512,512
258.003,-2.77556e-17,0,512,512
258.061,0,0,512,512
258.108,0,0,512,512
258.155,0,0,512,512
258.202,0,0,512,512
258.261,0,0,512,512
258.307,-2.77556e-17,0,512,512
258.354,0,0,512,512
258.401,-2.77556e-17,0,512,512
258.46,-2.77556e-17,0,512,512
258.507,-2.77556e-17,0,512,512
258.553,-2.77556e-17,0,512,512
258.6,-2.77556e-17,0,512,512
258.659,-2.77556e-17,0,512,512
258.706,-5.55112e-17,0,512,512
258.753,-5.55112e-17,0,512,512
258.811,-5.55112e-17,0,512,512
258.858,-5.55112e-17,0,512,512
258.905,-2.77556e-17,0,512,512
258.952,0,0,512,512
259.01,0,0,512,512
259.057,-2.77556e-17,0,512,512
259.104,0,0,512,512
259.151,0,0,512,512
259.21,-2.77556e-17,0,512,512
259.256,-2.77556e-17,0,512,512
259.303,0,0,512,512
259.35,0,0,512,512
259.409,2.77556e-17,0,512,512
259.456,2.77556e-17,0,512,512
259.503,0,0,512,512
259.561,0,0,512,512
259.608,0,0,512,512
259.655,-2.77556e-17,0,512,512
259.702,-2.77556e-17,0,512,512
259.76,0,0,512,512
259.807,0,0,512,512
259.854,2.77556e-17,0,512,512
259.901,0,0,512,512
259.959,0,0,512,512
260.006,0,0,512,512
260.053,0,0,512,512
260.1,-2.77556e-17,0,512,512
260.159,-2.77556e-17,0,512,512
260.206,-2.77556e-17,0,512,512
260.252,-2.77556e-17,0,512,512
260.311,-2.77556e-17,0,512,512
260.358,-2.77556e-17,0,512,512
260.405,-2.77556e-17,0,512,512
260.452,-2.77556e-17,0,512,512
260.51,-2.77556e-17,0,512,512
260.557,-2.77556e-17,0,512,512
260.604,0,0,512,512
260.651,0,0,512,512
260.709,0,0,512,512
260.756,0,0,512,512
260.803,0,0,512,512
260.862,0,0,512,512
260.909,2.77556e-17,0,512,512
260.955,2.77556e-17,0,512,512
261.002,2.77556e-17,0,512,512
261.061,2.77556e-17,0,512,512
261.108,2.77556e-17,0,512,512
261.155,2.77556e-17,0,512,512
261.201,2.77556e-17,0,512,512
261.26,0,0,512,512
261.307,0,0,512,512
261.354,0,0,512,512
261.401,0,0,512,512
261.459,0,0,512,512
261.506,0,0,512,512
261.553,0,0,512,512
261.612,0,0,512,512
261.658,0,0,512,512
261.705,0,0,512,512
261.752,2.77556e-17,0,512,512
261.811,2.77556e-17,0,512,512
261.858,-2.77556e-17,0,512,512
261.905,0,0,512,512
261.951,0,0,512,512
262.01,0,0,512,512
262.057,0,0,512,512
262.104,0,0,512,512
262.151,0,0,512,512
262.209,0,0,512,512
262.256,2.77556e-17,0,512,512
262.303,2.77556e-17,0,512,512
262.361,0,0,512,512
262.408,0,0,512,512
262.455,0,0,512,512
262.502,0,0,512,512
262.561,0,0,512,512
262.608,2.77556e-17,0,512,512
262.654,2.77556e-17,0,512,512
262.701,2.77556e-17,0,512,512
262.76,2.77556e-17,0,512,512
262.807,0,0,512,512
262.854,0,0,512,512
262.9,2.77556e-17,0,512,512
262.959,0,0,512,512
263.006,0,0,512,512
263.053,0,0,512,512
263.111,0,0,512,512
263.158,0,0,512,512
263.205,0,0,512,512
263.252,0,0,512,512
263.311,0,0,512,512
263.357,2.77556e-17,0,512,512
263.404,2.77556e-17,0,512,512
263.451,2.77556e-17,0,512,512
263.51,0,0,512,512
263.557,0,0,512,512
263.603,0,0,512,512
263.65,0,0,512,512
263.709,-2.77556e-17,0,512,512
263.756,-2.77556e-17,0,512,512
263.803,-2.77556e-17,0,512,512
263.861,0,0,512,512
263.908,0,0,512,512
263.955,2.77556e-17,0,512,512
264.002,0,0,512,512
264.06,0,0,512,512
264.107,0,0,512,512
264.154,0,0,512,512
264.201,0,0,512,512
264.26,0,0,512,512
264.306,2.77556e-17,0,512,512
264.353,2.77556e-17,0,512,512
264.4,2.77556e-17,0,512,512
264.459,2.77556e-17,0,512,512
264.506,2.77556e-17,0,512,512
264.553,2.77556e-17,0,512,512
264.611,2.77556e-17,0,512,512
264.658,2.77556e-17,0,512,512
264.705,2.77556e-17,0,512,512
264.752,2.77556e-17,0,512,512
264.81,2.77556e-17,0,512,512
264.857,2.77556e-17,0,512,512
264.904,2.77556e-17,0,512,512
264.951,2.77556e-17,0,512,512
265.01,2.77556e-17,0,512,512
265.056,2.77556e-17,0,512,512
265.103,2.77556e-17,0,512,512
265.15,2.77556e-17,0,512,512
265.209,2.77556e-17,0,512,512
265.256,2.77556e-17,0,512,512
265.302,2.77556e-17,0,512,512
265.361,5.55112e-17,0,512,512
265.408,5.55112e-17,0,512,512
265.455,5.55112e-17,0,512,512
265.502,5.55112e-17,0,512,512
265.56,2.77556e-17,0,512,512
265.607,2.77556e-17,0,512,512
265.654,2.77556e-17,0,512,512
265.701,2.77556e-17,0,512,512
265.759,2.77556e-17,0,512,512
265.806,2.77556e-17,0,512,512
265.853,2.77556e-17,0,512,512
265.9,2.77556e-17,0,512,512
265.959,2.77556e-17,0,512,512
266.005,2.77556e-17,0,512,512
266.052,2.77556e-17,0,512,512
266.111,0,0,512,512
266.158,2.77556e-17,0,512,512
266.205,0,0,512,512
266.252,2.77556e-17,0,512,512
266.31,2.77556e-17,0,512,512
266.357,2.77556e-17,0,512,512
266.404,2.77556e-17,0,512,512
266.451,2.77556e-17,0,512,512
266.509,0,0,512,512
266.556,0,0,512,512
266.603,-2.77556e-17,0,512,512
266.662,-2.77556e-17,0,512,512
266.708,-2.77556e-17,0,512,512
266.755,0,0,512,512
266.802,-2.77556e-17,0,512,512
266.861,-2.77556e-17,0,512,512
266.908,-2.77556e-17,0,512,512
266.955,-2.77556e-17,0,512,512
267.001,-2.77556e-17,0,512,512
267.06,-2.77556e-17,0,512,512
267.107,-2.77556e-17,0,512,512
267.154,-2.77556e-17,0,512,512
267.201,-2.77556e-17,0,512,512
267.259,-2.77556e-17,0,512,512
267.306,-2.77556e-17,0,512,512
267.353,-2.77556e-17,0,512,512
267.412,-2.77556e-17,0,512,512
267.458,-2.77556e-17,0,512,512
267.505,-2.77556e-17,0,512,512
267.552,0,0,512,512
267.611,2.77556e-17,0,512,512
267.658,2.77556e-17,0,512,512
267.704,2.77556e-17,0,512,512
267.751,2.77556e-17,0,512,512
267.81,2.77556e-17,0,512,512
267.857,2.77556e-17,0,512,512
267.904,2.77556e-17,0,512,512
267.95,2.77556e-17,0,512,512
268.009,2.77556e-17,0,512,512
268.056,2.77556e-17,0,512,512
268.101,2.77556e-17,0,641,641
268.15,2.77556e-17,0,701,701
268.2,2.77556e-17,0,761,761
268.253,2.77556e-17,0,821,821
268.303,2.77556e-17,0,881,881
268.353,2.77556e-17,0,941,941
268.402,2.77556e-17,0,1001,1001
268.452,2.77556e-17,0,1061,1061
268.502,2.77556e-17,0,1103,1103
268.552,2.77556e-17,0,1163,1163
268.601,2.77556e-17,0,1223,1223
268.651,2.77556e-17,0,1283,1283
268.701,2.77556e-17,0,1343,1343
268.751,2.77556e-17,0,1403,1403
268.801,2.77556e-17,0,1451,1451
268.85,2.77556e-17,0,1511,1511
268.9,2.77556e-17,0,1571,1571
268.95,2.77556e-17,0,1631,1631
269.003,2.77556e-17,0,1691,1691
269.053,2.77556e-17,0,1733,1733
269.102,2.77556e-17,0,1793,1793
269.152,2.77556e-17,0,1853,1853
269.202,2.77556e-17,0,1913,1913
269.252,2.77556e-17,0,1961,1961
269.302,2.77556e-17,0,2021,2021
269.351,2.77556e-17,0,2081,2081
269.401,2.77556e-17,0,2123,2123
269.451,2.77556e-17,0,2183,2183
269.501,2.77556e-17,0,2243,2243
269.551,2.77556e-17,0,2291,2291
269.6,2.77556e-17,0,2351,2351
269.65,2.77556e-17,0,2411,2411
269.703,2.77556e-17,0,2471,2471
269.753,2.77556e-17,0,2513,2513
269.802,2.77556e-17,0,2573,2573
269.852,2.77556e-17,0,2621,2621
269.902,2.77556e-17,0,2681,2681
269.952,2.77556e-17,0,2723,2723
270.002,2.77556e-17,0,2783,2783
270.051,2.77556e-17,0,2837,2837
270.101,2.77556e-17,0,2891,2891
270.151,2.77556e-17,0,2947,2947
270.201,2.77556e-17,0,2993,2993
270.251,2.77556e-17,0,3041,3041
270.3,2.77556e-17,0,3101,3101
270.35,2.77556e-17,0,3143,3143
270.4,1.11022e-16,0,3191,3191
270.453,4.996e-16,0,3221,3221
270.503,9.4369e-16,0,3263,3263
270.552,1.41553e-15,0,3323,3323
270.602,1.88738e-15,0,3371,3371
270.652,2.60902e-15,0,3431,3431
270.702,4.05231e-15,0,3473,3473
270.752,6.88338e-15,0,3533,3533
270.801,1.17129e-14,0,3581,3581
270.851,1.86795e-14,0,3641,3641
270.901,2.49523e-14,0,3683,3683
270.951,2.21767e-14,0,3743,3743
271.001,-1.77636e-15,0,3791,3791
271.05,-8.64031e-14,0,3833,3833
271.1,-2.41293e-12,0,3893,3893
271.153,-1.93062e-11,0,3941,3941
271.203,-7.3406e-11,0,4001,4001
271.252,-1.78144e-10,0,4043,4043
271.302,-2.93752e-10,0,4091,4091
271.352,-3.33838e-10,0,4151,4151
271.402,-2.41677e-10,0,4193,4193
271.452,-5.27698e-11,0,4241,4241
271.501,1.26492e-10,0,4301,4301
271.551,1.98403e-10,0,4343,4343
271.601,1.442e-10,0,4391,4391
271.651,3.52084e-11,0,4433,4433
271.701,-2.49054e-11,0,4493,4493
271.75,1.54185e-11,0,4541,4541
271.8,1.15721e-10,0,4583,4583
271.85,1.84932e-10,0,4631,4631
271.903,1.62262e-10,0,4691,4691
271.953,7.94541e-11,0,4733,4733
272.002,1.7755e-11,0,4781,4781
272.052,3.13421e-11,0,4823,4823
272.102,1.04492e-10,0,4871,4871
272.152,1.73054e-10,0,4913,4913
272.202,1.83044e-10,0,4961,4961
272.251,1.31222e-10,0,5003,5003
272.301,6.03831e-11,0,5051,5051
272.351,2.46822e-11,0,5111,5111
272.401,5.4477e-11,0,5153,5153
272.451,1.36345e-10,0,5201,5201
272.5,2.1324e-10,0,5243,5243
272.55,2.13563e-10,0,5291,5291
272.603,1.01858e-10,0,5333,5333
272.653,-3.37587e-11,0,5381,5381
272.702,-5.44604e-11,0,5423,5423
272.752,1.16678e-10,0,5471,5471
272.802,3.58494e-10,0,5513,5513
272.852,3.93172e-10,0,5561,5561
272.902,6.43319e-11,0,5591,5591
272.951,-3.43669e-10,0,5633,5633
273.001,-7.91732e-11,0,5681,5681
273.051,1.68039e-09,0,5723,5723
273.101,5.28018e-09,0,5771,5771
273.151,1.03304e-08,0,5813,5813
273.2,1.59203e-08,0,5861,5861
273.25,2.10925e-08,0,5903,5903
273.3,2.52613e-08,0,5951,5951
273.353,2.86019e-08,0,5993,5993
273.403,3.14163e-08,0,6041,6041
273.452,3.49671e-08,0,6083,6083
273.502,4.0271e-08,0,6113,6113
273.552,4.78961e-08,0,6161,6161
273.602,5.78845e-08,0,6203,6203
273.652,7.00971e-08,0,6251,6251
273.701,8.46983e-08,0,6293,6293
273.751,1.02391e-07,0,6341,6341
273.801,1.24262e-07,0,6383,6383
273.851,1.51398e-07,0,6413,6413
273.901,1.84485e-07,0,6461,6461
273.95,2.23471e-07,0,6503,6503
274,2.67447e-07,0,6551,6551
274.053,3.17818e-07,0,6593,6593
274.103,3.67659e-07,0,6641,6641
274.152,4.19317e-07,0,6671,6671
274.202,4.73249e-07,0,6713,6713
274.252,5.29803e-07,0,6761,6761
274.302,5.88151e-07,0,6803,6803
274.352,6.45962e-07,0,6851,6851
274.401,7.00035e-07,0,6881,6881
274.451,7.47345e-07,0,6923,6923
274.501,7.85843e-07,0,6971,6971
274.551,8.148e-07,0,7013,7013
274.601,8.34786e-07,0,7043,7043
274.65,8.47302e-07,0,7091,7091
274.7,8.5414e-07,0,7133,7133
274.753,8.56775e-07,0,7181,7181
274.803,8.55647e-07,0,7223,7223
274.853,8.50973e-07,0,7253,7253
274.902,8.42176e-07,0,7301,7301
274.952,8.2837e-07,0,7343,7343
275.002,8.0858e-07,0,7391,7391
275.052,7.81969e-07,0,7421,7421
275.102,7.48124e-07,0,7463,7463
275.151,7.0739e-07,0,7511,7511
275.201,6.61087e-07,0,7541,7541
275.251,6.11353e-07,0,7583,7583
275.301,5.60611e-07,0,7631,7631
275.35,5.1096e-07,0,7661,7661
275.4,4.63827e-07,0,7703,7703
275.45,4.19914e-07,0,7747,7747
275.503,3.77045e-07,0,7781,7781
275.553,3.3967e-07,0,7823,7823
275.602,3.04813e-07,0,7853,7853
275.652,2.72002e-07,0,7883,7883
275.702,2.41018e-07,0,7931,7931
275.752,2.1212e-07,0,7961,7961
275.802,1.86085e-07,0,7991,7991
275.851,1.63836e-07,0,8021,8021
275.901,1.4575e-07,0,8051,8051
275.951,1.31134e-07,0,8081,8081
276.001,1.18443e-07,0,8111,8111
276.051,1.06176e-07,0,8153,8153
276.1,9.37639e-08,0,8192,8192
276.15,8.17345e-08,0,8192,8192
276.203,7.05614e-08,0,8192,8192
276.253,6.22689e-08,0,8192,8192
276.302,5.62069e-08,0,8192,8192
276.352,5.17299e-08,0,8192,8192
276.402,4.78248e-08,0,8192,8192
276.452,4.35466e-08,0,8192,8192
276.502,3.84774e-08,0,8192,8192
276.551,3.29668e-08,0,8192,8192
276.601,2.79185e-08,0,8192,8192
276.651,2.42085e-08,0,8192,8192
276.701,2.21627e-08,0,8192,8192
276.751,2.14718e-08,0,8192,8192
276.8,2.15186e-08,0,8192,8192
276.85,2.17773e-08,0,8192,8192
276.9,2.19955e-08,0,8192,8192
276.953,2.21434e-08,0,8192,8192
277.003,2.22419e-08,0,8192,8192
277.052,2.23067e-08,0,8192,8192
277.102,2.22883e-08,0,8192,8192
277.152,2.2125e-08,0,8192,8192
277.202,2.18234e-08,0,8192,8192
277.252,2.14811e-08,0,8192,8192
277.301,2.12029e-08,0,8192,8192
277.351,2.10201e-08,0,8192,8192
277.401,2.08996e-08,0,8192,8192
277.451,2.07967e-08,0,8192,8192
277.501,2.06833e-08,0,8192,8192
277.55,2.05467e-08,0,8192,8192
277.6,2.03814e-08,0,8192,8192
277.653,2.01724e-08,0,8192,8192
277.703,1.9941e-08,0,8192,8192
277.752,1.96751e-08,0,8192,8192
277.802,1.93739e-08,0,8192,8192
277.852,1.90374e-08,0,8192,8192
277.902,1.86666e-08,0,8192,8192
277.952,1.82637e-08,0,8192,8192
278.001,1.7832e-08,0,8192,8192
278.051,1.73758e-08,0,8192,8192
278.101,1.68999e-08,0,8192,8192
278.151,1.6409e-08,0,8192,8192
278.201,1.59074e-08,0,8192,8192
278.25,1.53991e-08,0,8192,8192
278.3,1.48875e-08,0,8192,8192
278.35,1.43756e-08,0,8192,8192
278.403,1.38366e-08,0,8192,8192
278.453,1.33336e-08,0,8192,8192
278.502,1.28397e-08,0,8192,8192
278.552,1.23588e-08,0,8192,8192
278.602,1.18947e-08,0,8192,8192
278.652,1.14511e-08,0,8192,8192
278.702,1.10317e-08,0,8192,8192
278.751,1.06393e-08,0,8192,8192
278.801,1.02759e-08,0,8192,8192
278.851,9.94243e-09,0,8192,8192
278.901,9.63895e-09,0,8192,8192
278.951,9.36468e-09,0,8192,8192
279,9.11832e-09,0,8192,8192
279.05,8.89828e-09,0,8192,8192
279.103,8.69214e-09,0,8192,8192
279.153,8.52111e-09,0,8192,8192
279.202,8.37147e-09,0,8192,8192
279.252,8.24162e-09,0,8192,8192
279.302,8.12987e-09,0,8192,8192
279.352,8.03439e-09,0,8192,8192
279.402,7.95328e-09,0,8192,8192
279.451,7.88468e-09,0,8192,8192
279.501,7.82695e-09,0,8192,8192
279.551,7.77881e-09,0,8192,8192
279.601,7.73932e-09,0,8192,8192
279.651,7.7077e-09,0,8192,8192
279.7,7.68322e-09,0,8192,8192
279.75,7.66506e-09,0,8192,8192
279.8,7.65233e-09,0,8192,8192
279.853,7.64381e-09,0,8192,8192
279.903,7.63971e-09,0,8192,8192
279.952,7.63897e-09,0,8192,8192
280.002,7.64135e-09,0,8192,8192
280.052,7.64676e-09,0,8192,8192
280.102,7.65503e-09,0,8192,8192
280.152,7.66589e-09,0,8192,8192
280.201,7.67891e-09,0,8192,8192
280.251,7.69356e-09,0,8192,8192
280.301,7.70929e-09,0,8192,8192
280.351,7.72565e-09,0,8192,8192
280.401,7.74231e-09,0,8192,8192
280.45,7.75909e-09,0,8192,8192
280.5,7.77587e-09,0,8192,8192
280.553,7.79361e-09,0,8192,8192
280.603,7.81032e-09,0,8192,8192
280.652,7.827e-09,0,8192,8192
280.702,7.84367e-09,0,8192,8192
280.752,7.86033e-09,0,8192,8192
280.802,7.87696e-09,0,8192,8192
280.852,7.89354e-09,0,8192,8192
280.901,7.91001e-09,0,8192,8192
280.951,7.92632e-09,0,8192,8192
281.001,7.94241e-09,0,8192,8192
281.051,7.95824e-09,0,8192,8192
281.101,7.97377e-09,0,8192,8192
281.15,7.98897e-09,0,8192,8192
281.2,8.00383e-09,0,8192,8192
281.25,8.01831e-09,0,8192,8192
281.303,8.03323e-09,0,8192,8192
281.353,8.04691e-09,0,8192,8192
281.402,8.06019e-09,0,8192,8192
281.452,8.07308e-09,0,8192,8192
281.502,8.0856e-09,0,8192,8192
281.552,8.09784e-09,0,8192,8192
281.602,8.10996e-09,0,8192,8192
281.651,8.1223e-09,0,8192,8192
281.701,8.13542e-09,0,8192,8192
281.751,8.15027e-09,0,8192,8192
281.801,8.16824e-09,0,8192,8192
281.851,8.19126e-09,0,8192,8192
281.9,8.22185e-09,0,8192,8192
281.95,8.2631e-09,0,8192,8192
282.003,8.32235e-09,0,8192,8192
282.053,8.39699e-09,0,8192,8192
282.102,8.49366e-09,0,8192,8192
282.152,8.61589e-09,0,8192,8192
282.202,8.76693e-09,0,8192,8192
282.252,8.94984e-09,0,8192,8192
282.302,9.16796e-09,0,8192,8192
282.351,9.42549e-09,0,8192,8192
282.401,9.72819e-09,0,8192,8192
282.451,1.00839e-08,0,8192,8192
282.501,1.05031e-08,0,8192,8192
282.551,1.09983e-08,0,8192,8192
282.6,1.15844e-08,0,8192,8192
282.65,1.2278e-08,0,8192,8192
282.703,1.31488e-08,0,8192,8192
282.753,1.41185e-08,0,8192,8192
282.803,1.52489e-08,0,8192,8192
282.852,1.65557e-08,0,8192,8192
282.902,1.80533e-08,0,8192,8192
282.952,1.97532e-08,0,8192,8192
283.002,2.16642e-08,0,8192,8192
283.052,2.37917e-08,0,8192,8192
283.101,2.61366e-08,0,8192,8192
283.151,2.86957e-08,0,8192,8192
283.201,3.14609e-08,0,8192,8192
283.251,3.44199e-08,0,8192,8192
283.3,3.75572e-08,0,8192,8192
283.35,4.08554e-08,0,8192,8192
283.4,4.42982e-08,0,8192,8192
283.453,4.80868e-08,0,8192,8192
283.503,5.17938e-08,0,8192,8192
283.552,5.56303e-08,0,8192,8192
283.602,5.96128e-08,0,8192,8192
283.652,6.377e-08,0,8192,8192
283.702,6.81406e-08,0,8192,8192
283.752,7.27674e-08,0,8192,8192
283.801,7.76892e-08,0,8192,8192
283.851,8.29324e-08,0,8192,8192
283.901,8.85054e-08,0,8192,8192
283.951,9.43988e-08,0,8192,8192
284.001,1.00592e-07,0,8192,8192
284.05,1.07069e-07,0,8192,8192
284.1,1.13834e-07,0,8192,8192
284.153,1.21364e-07,0,8192,8192
284.203,1.2893e-07,0,8192,8192
284.253,1.37106e-07,0,8192,8192
284.302,1.46124e-07,0,8192,8192
284.352,1.56266e-07,0,8192,8192
284.402,1.67856e-07,0,8192,8192
284.452,1.81242e-07,0,8192,8192
284.501,1.96773e-07,0,8192,8192
284.551,2.14778e-07,0,8192,8192
284.601,2.35544e-07,0,8192,8192
284.651,2.59286e-07,0,8192,8192
284.701,2.86127e-07,0,8192,8192
284.75,3.16077e-07,0,8192,8192
284.8,3.49019e-07,0,8192,8192
284.85,3.84699e-07,0,8192,8192
284.903,4.25025e-07,0,8192,8192
284.953,4.64954e-07,0,8192,8192
285.002,5.05992e-07,0,8192,8192
285.052,5.47344e-07,0,8192,8192
285.102,5.88116e-07,0,8192,8192
285.152,6.27348e-07,0,8192,8192
285.202,6.64059e-07,0,8192,8192
285.251,6.97312e-07,0,8192,8192
285.301,7.2627e-07,0,8192,8192
285.351,7.50258e-07,0,8192,8192
285.401,7.68789e-07,0,8192,8192
285.451,7.8158e-07,0,8192,8192
285.5,7.88532e-07,0,8192,8192
285.55,7.89688e-07,0,8192,8192
285.603,7.84747e-07,0,8192,8192
285.653,7.74451e-07,0,8192,8192
285.702,7.58885e-07,0,8192,8192
285.752,7.3825e-07,0,8192,8192
285.802,7.12757e-07,0,8192,8192
285.852,6.82666e-07,0,8192,8192
285.902,6.48315e-07,0,8192,8192
285.951,6.10154e-07,0,8192,8192
286.001,5.68762e-07,0,8192,8192
286.051,5.24834e-07,0,8192,8192
286.101,4.79162e-07,0,8192,8192
286.151,4.32584e-07,0,8192,8192
286.2,3.8593e-07,0,8192,8192
286.25,3.39975e-07,0,8192,8192
286.3,2.95396e-07,0,8192,8192
286.353,2.50309e-07,0,8192,8192
286.403,2.1017e-07,0,8192,8192
286.452,1.72712e-07,0,8192,8192
286.502,1.38131e-07,0,8192,8192
286.552,1.06536e-07,0,8192,8192
286.602,7.79588e-08,0,8192,8192
286.652,5.237e-08,0,8192,8192
286.701,2.96832e-08,0,8192,8192
286.751,9.76443e-09,0,8192,8192
286.801,-7.55647e-09,0,8192,8192
286.851,-2.24727e-08,0,8192,8192
286.901,-3.51867e-08,0,8192,8192
286.95,-4.58979e-08,0,8192,8192
287,-5.47965e-08,0,8192,8192
287.053,-6.24404e-08,0,8192,8192
287.103,-6.81552e-08,0,8192,8192
287.152,-7.25687e-08,0,8192,8192
287.202,-7.58281e-08,0,8192,8192
287.252,-7.80674e-08,0,8192,8192
287.302,-7.94036e-08,0,8192,8192
287.352,-7.99329e-08,0,8192,8192
287.401,-7.97318e-08,0,8192,8192
287.451,-7.88613e-08,0,8192,8192
287.501,-7.73753e-08,0,8192,8192
287.551,-7.53301e-08,0,8192,8192
287.601,-7.27917e-08,0,8192,8192
287.65,-6.9839e-08,0,8192,8192
287.7,-6.65628e-08,0,8192,8192
287.75,-6.30612e-08,0,8192,8192
287.803,-5.9216e-08,0,8192,8192
287.853,-5.55488e-08,0,8192,8192
287.902,-5.1925e-08,0,8192,8192
287.952,-4.84044e-08,0,8192,8192
288.002,-4.50301e-08,0,8192,8192
288.052,-4.18295e-08,0,8192,8192
288.102,-3.88174e-08,0,8192,8192
288.151,-3.59993e-08,0,8192,8192
288.201,-3.33744e-08,0,8192,8192
288.251,-3.09381e-08,0,8192,8192
288.301,-2.86842e-08,0,8192,8192
288.351,-2.66059e-08,0,8192,8192
288.4,-2.4696e-08,0,8192,8192
288.45,-2.29474e-08,0,8192,8192
288.503,-2.12635e-08,0,8192,8192
288.553,-1.98232e-08,0,8192,8192
288.602,-1.85202e-08,0,8192,8192
288.652,-1.73459e-08,0,8192,8192
288.702,-1.62914e-08,0,8192,8192
288.752,-1.53479e-08,0,8192,8192
288.802,-1.45066e-08,0,8192,8192
288.851,-1.37592e-08,0,8192,8192
288.901,-1.30978e-08,0,8192,8192
288.951,-1.25154e-08,0,8192,8192
289.001,-1.20056e-08,0,8192,8192
289.051,-1.15627e-08,0,8192,8192
289.1,-1.11815e-08,0,8192,8192
289.15,-1.08574e-08,0,8192,8192
289.2,-1.0586e-08,0,8192,8192
289.253,-1.03515e-08,0,8192,8192
289.303,-1.01758e-08,0,8192,8192
289.352,-1.00404e-08,0,8192,8192
289.402,-9.94143e-09,0,8192,8192
289.452,-9.87473e-09,0,8192,8192
289.502,-9.83626e-09,0,8192,8192
289.552,-9.82195e-09,0,8192,8192
289.601,-9.8278e-09,0,8192,8192
289.651,-9.84995e-09,0,8192,8192
289.701,-9.88476e-09,0,8192,8192
289.751,-9.92889e-09,0,8192,8192
289.8,-9.97935e-09,0,8192,8192
289.85,-1.00336e-08,0,8192,8192
289.9,-1.00893e-08,0,8192,8192
289.953,-1.01482e-08,0,8192,8192
290.003,-1.02023e-08,0,8192,8192
290.052,-1.02539e-08,0,8192,8192
290.102,-1.03025e-08,0,8192,8192
290.152,-1.03478e-08,0,8192,8192
290.202,-1.03898e-08,0,8192,8192
290.252,-1.04287e-08,0,8192,8192
290.301,-1.04648e-08,0,8192,8192
290.351,-1.04984e-08,0,8192,8192
290.401,-1.05299e-08,0,8192,8192
290.451,-1.05595e-08,0,8192,8192
290.501,-1.05876e-08,0,8192,8192
290.55,-1.06142e-08,0,8192,8192
290.6,-1.06392e-08,0,8192,8192
290.653,-1.0664e-08,0,8192,8192
290.703,-1.06856e-08,0,8192,8192
290.753,-1.07054e-08,0,8192,8192
290.802,-1.07235e-08,0,8192,8192
290.852,-1.07399e-08,0,8192,8192
290.902,-1.0755e-08,0,8192,8192
290.952,-1.07694e-08,0,8192,8192
291.001,-1.07838e-08,0,8192,8192
291.051,-1.07992e-08,0,8192,8192
291.101,-1.08169e-08,0,8192,8192
291.151,-1.08382e-08,0,8192,8192
291.201,-1.08646e-08,0,8192,8192
291.25,-1.08978e-08,0,8192,8192
291.3,-1.09393e-08,0,8192,8192
291.35,-1.09908e-08,0,8192,8192
291.403,-1.10577e-08,0,8192,8192
291.453,-1.11342e-08,0,8192,8192
291.502,-1.12246e-08,0,8192,8192
291.552,-1.13298e-08,0,8192,8192
291.602,-1.14502e-08,0,8192,8192
291.652,-1.15861e-08,0,8192,8192
291.702,-1.17373e-08,0,8192,8192
291.751,-1.19034e-08,0,8192,8192
291.801,-1.2084e-08,0,8192,8192
291.851,-1.22785e-08,0,8192,8192
291.901,-1.24869e-08,0,8192,8192
291.951,-1.27089e-08,0,8192,8192
292,-1.29451e-08,0,8192,8192
292.05,-1.31959e-08,0,8192,8192
292.103,-1.34781e-08,0,8192,8192
292.153,-1.3761e-08,0,8192,8192
292.202,-1.40603e-08,0,8192,8192
292.252,-1.4376e-08,0,8192,8192
292.302,-1.47077e-08,0,8192,8192
292.352,-1.50545e-08,0,8192,8192
292.402,-1.54153e-08,0,8192,8192
292.451,-1.57883e-08,0,8192,8192
292.501,-1.61716e-08,0,8192,8192
292.551,-1.65633e-08,0,8192,8192
292.601,-1.69611e-08,0,8192,8192
292.651,-1.7363e-08,0,8192,8192
292.7,-1.77667e-08,0,8192,8192
292.75,-1.81701e-08,0,8192,8192
292.8,-1.85708e-08,0,8192,8192
292.853,-1.89897e-08,0,8192,8192
292.903,-1.93776e-08,0,8192,8192
292.952,-1.97556e-08,0,8192,8192
293.002,-2.01212e-08,0,8192,8192
293.052,-2.04721e-08,0,8192,8192
293.102,-2.08058e-08,0,8192,8192
293.152,-2.11201e-08,0,8192,8192
293.201,-2.1413e-08,0,8192,8192
293.251,-2.16826e-08,0,8192,8192
293.301,-2.19271e-08,0,8192,8192
293.351,-2.21453e-08,0,8192,8192
293.401,-2.23361e-08,0,8192,8192
293.45,-2.24987e-08,0,8192,8192
293.5,-2.26331e-08,0,8192,8192
293.553,-2.27445e-08,0,8192,8192
293.603,-2.28211e-08,0,8192,8192
293.652,-2.28708e-08,0,8192,8192
293.702,-2.28948e-08,0,8192,8192
293.752,-2.28943e-08,0,8192,8192
293.802,-2.28711e-08,0,8192,8192
293.852,-2.2827e-08,0,8192,8192
293.901,-2.27639e-08,0,8192,8192
293.951,-2.26838e-08,0,8192,8192
294.001,-2.25888e-08,0,8192,8192
294.051,-2.2481e-08,0,8192,8192
294.101,-2.23623e-08,0,8192,8192
294.15,-2.22347e-08,0,8192,8192
294.2,-2.20998e-08,0,8192,8192
294.25,-2.19593e-08,0,8192,8192
294.303,-2.18059e-08,0,8192,8192
294.353,-2.1658e-08,0,8192,8192
294.402,-2.15084e-08,0,8192,8192
294.452,-2.13579e-08,0,8192,8192
294.502,-2.12076e-08,0,8192,8192
294.552,-2.10581e-08,0,8192,8192
294.602,-2.09102e-08,0,8192,8192
294.651,-2.07645e-08,0,8192,8192
294.701,-2.06216e-08,0,8192,8192
294.751,-2.04818e-08,0,8192,8192
294.801,-2.03457e-08,0,8192,8192
294.851,-2.02136e-08,0,8192,8192
294.9,-2.00857e-08,0,8192,8192
294.95,-1.99622e-08,0,8192,8192
295.003,-1.98365e-08,0,8192,8192
295.053,-1.97224e-08,0,8192,8192
295.102,-1.9613e-08,0,8192,8192
295.152,-1.95082e-08,0,8192,8192
295.202,-1.94078e-08,0,8192,8192
295.252,-1.93116e-08,0,8192,8192
295.302,-1.92196e-08,0,8192,8192
295.351,-1.91314e-08,0,8192,8192
295.401,-1.90468e-08,0,8192,8192
295.451,-1.89656e-08,0,8192,8192
295.501,-1.88874e-08,0,8192,8192
295.551,-1.88119e-08,0,8192,8192
295.6,-1.87389e-08,0,8192,8192
295.65,-1.86681e-08,0,8192,8192
295.7,-1.85993e-08,0,8192,8192
295.753,-1.85281e-08,0,8192,8192
295.803,-1.84623e-08,0,8192,8192
295.852,-1.83976e-08,0,8192,8192
295.902,-1.83339e-08,0,8192,8192
295.952,-1.82708e-08,0,8192,8192
296.002,-1.82082e-08,0,8192,8192
296.052,-1.81459e-08,0,8192,8192
296.101,-1.80837e-08,0,8192,8192
296.151,-1.80215e-08,0,8192,8192
296.201,-1.79591e-08,0,8192,8192
296.251,-1.78964e-08,0,8192,8192
296.301,-1.78331e-08,0,8192,8192
296.35,-1.77692e-08,0,8192,8192
296.4,-1.77045e-08,0,8192,8192
296.453,-1.76351e-08,0,8192,8192
296.503,-1.75683e-08,0,8192,8192
296.552,-1.75003e-08,0,8192,8192
296.602,-1.74309e-08,0,8192,8192
296.652,-1.73599e-08,0,8192,8192
296.702,-1.72871e-08,0,8192,8192
296.752,-1.72123e-08,0,8192,8192
296.801,-1.71352e-08,0,8192,8192
296.851,-1.70558e-08,0,8192,8192
296.901,-1.69737e-08,0,8192,8192
296.951,-1.68886e-08,0,8192,8192
297.001,-1.68005e-08,0,8192,8192
297.05,-1.67089e-08,0,8192,8192
297.1,-1.66138e-08,0,8192,8192
297.15,-1.65148e-08,0,8192,8192
297.203,-1.64056e-08,0,8192,8192
297.253,-1.6298e-08,0,8192,8192
297.302,-1.6186e-08,0,8192,8192
297.352,-1.60694e-08,0,8192,8192
297.402,-1.5948e-08,0,8192,8192
297.452,-1.58218e-08,0,8192,8192
297.502,-1.56904e-08,0,8192,8192
297.551,-1.5554e-08,0,8192,8192
297.601,-1.54123e-08,0,8192,8192
297.651,-1.52652e-08,0,8192,8192
297.701,-1.51128e-08,0,8192,8192
297.751,-1.49548e-08,0,8192,8192
297.8,-1.47912e-08,0,8192,8192
297.85,-1.46219e-08,0,8192,8192
297.903,-1.44364e-08,0,8192,8192
297.953,-1.4255e-08,0,8192,8192
298.002,-1.40677e-08,0,8192,8192
298.052,-1.38741e-08,0,8192,8192
298.102,-1.36742e-08,0,8192,8192
298.152,-1.34675e-08,0,8192,8192
298.202,-1.32537e-08,0,8192,8192
298.251,-1.30324e-08,0,8192,8192
298.301,-1.28029e-08,0,8192,8192
298.351,-1.25646e-08,0,8192,8192
298.401,-1.23165e-08,0,8192,8192
298.451,-1.20577e-08,0,8192,8192
298.5,-1.17871e-08,0,8192,8192
298.55,-1.15033e-08,0,8192,8192
298.603,-1.1187e-08,0,8192,8192
298.653,-1.08719e-08,0,8192,8192
298.703,-1.05396e-08,0,8192,8192
298.752,-1.01886e-08,0,8192,8192
298.802,-9.8179e-09,0,8192,8192
298.852,-9.42639e-09,0,8192,8192
298.902,-9.01336e-09,0,8192,8192
298.952,-8.57842e-09,0,8192,8192
299.001,-8.12154e-09,0,8192,8192
299.051,-7.64311e-09,0,8192,8192
299.101,-7.14397e-09,0,8192,8192
299.151,-6.62546e-09,0,8192,8192
299.2,-6.08936e-09,0,8192,8192
299.25,-5.53791e-09,0,8192,8192
299.3,-4.97375e-09,0,8192,8192
299.353,-4.36591e-09,0,8192,8192
299.403,-3.7854e-09,0,8192,8192
299.452,-3.20225e-09,0,8192,8192
299.502,-2.62014e-09,0,8192,8192
299.552,-2.04285e-09,0,8192,8192
299.602,-1.47414e-09,0,8192,8192
299.652,-9.17724e-10,0,8192,8192
299.701,-3.77177e-10,0,8192,8192
299.751,1.44106e-10,0,8192,8192
299.801,6.42963e-10,0,8192,8192
299.851,1.11652e-09,0,8192,8192
299.901,1.56222e-09,0,8192,8192
299.95,1.97789e-09,0,8192,8192
300,2.36174e-09,0,8192,8192
300.053,2.73199e-09,0,8192,8192
300.103,3.04655e-09,0,8192,8192
300.152,3.32654e-09,0,8192,8192
300.202,3.57195e-09,0,8192,8192
300.252,3.78323e-09,0,8192,8192
300.302,3.9612e-09,0,8192,8192
300.352,4.10704e-09,0,8192,8192
300.401,4.22226e-09,0,8192,8192
300.451,4.30863e-09,0,8192,8192
300.501,4.36812e-09,0,8192,8192
300.551,4.40287e-09,0,8192,8192
300.601,4.41512e-09,0,8192,8192
300.65,4.40714e-09,0,8192,8192
300.7,4.38124e-09,0,8192,8192
300.75,4.33969e-09,0,8192,8192
300.803,4.28107e-09,0,8192,8192
300.853,4.2141e-09,0,8192,8192
300.902,4.13788e-09,0,8192,8192
300.952,4.05426e-09,0,8192,8192
301.002,3.96498e-09,0,8192,8192
301.052,3.87163e-09,0,8192,8192
301.102,3.77566e-09,0,8192,8192
301.151,3.67842e-09,0,8192,8192
301.201,3.58115e-09,0,8192,8192
301.251,3.485e-09,0,8192,8192
301.301,3.39101e-09,0,8192,8192
301.351,3.30017e-09,0,8192,8192
301.4,3.21335e-09,0,8192,8192
301.45,3.13135e-09,0,8192,8192
301.503,3.05054e-09,0,8192,8192
301.553,2.9805e-09,0,8192,8192
301.602,2.91698e-09,0,8192,8192
301.652,2.86025e-09,0,8192,8192
301.702,2.8104e-09,0,8192,8192
301.752,2.76732e-09,0,8192,8192
301.802,2.7307e-09,0,8192,8192
301.851,2.70007e-09,0,8192,8192
301.901,2.67474e-09,0,8192,8192
301.951,2.65389e-09,0,8192,8192
302.001,2.63655e-09,0,8192,8192
302.051,2.62167e-09,0,8192,8192
302.1,2.60813e-09,0,8192,8192
302.15,2.59482e-09,0,8192,8192
302.2,2.58068e-09,0,8192,8192
302.253,2.56373e-09,0,8192,8192
302.303,2.545e-09,0,8192,8192
302.352,2.52299e-09,0,8192,8192
302.402,2.49728e-09,0,8192,8192
302.452,2.4677e-09,0,8192,8192
302.502,2.43428e-09,0,8192,8192
302.552,2.39727e-09,0,8192,8192
302.601,2.35712e-09,0,8192,8192
302.651,2.31439e-09,0,8192,8192
302.701,2.26979e-09,0,8192,8192
302.751,2.22405e-09,0,8192,8192
302.801,2.17795e-09,0,8192,8192
302.85,2.13225e-09,0,8192,8192
302.9,2.08769e-09,0,8192,8192
302.953,2.04252e-09,0,8192,8192
303.003,2.00246e-09,0,8192,8192
303.052,1.96555e-09,0,8192,8192
303.102,1.93235e-09,0,8192,8192
303.152,1.90336e-09,0,8192,8192
303.202,1.87903e-09,0,8192,8192
303.252,1.85973e-09,0,8192,8192
303.301,1.8457e-09,0,8192,8192
303.351,1.8371e-09,0,8192,8192
303.401,1.83394e-09,0,8192,8192
303.451,1.83607e-09,0,8192,8192
303.501,1.84323e-09,0,8192,8192
303.55,1.85502e-09,0,8192,8192
303.6,1.8709e-09,0,8192,8192
303.65,1.89029e-09,0,8192,8192
303.703,1.91389e-09,0,8192,8192
303.753,1.93837e-09,0,8192,8192
303.802,1.96428e-09,0,8192,8192
303.852,1.99096e-09,0,8192,8192
303.902,2.01782e-09,0,8192,8192
303.952,2.04432e-09,0,8192,8192
304.002,2.07002e-09,0,8192,8192
304.051,2.09453e-09,0,8192,8192
304.101,2.11758e-09,0,8192,8192
304.151,2.13893e-09,0,8192,8192
304.201,2.15845e-09,0,8192,8192
304.251,2.17605e-09,0,8192,8192
304.3,2.19169e-09,0,8192,8192
304.35,2.2054e-09,0,8192,8192
304.403,2.21785e-09,0,8192,8192
304.453,2.22772e-09,0,8192,8192
304.502,2.23584e-09,0,8192,8192
304.552,2.24231e-09,0,8192,8192
304.602,2.2472e-09,0,8192,8192
304.652,2.25061e-09,0,8192,8192
304.702,2.2526e-09,0,8192,8192
304.751,2.25325e-09,0,8192,8192
304.801,2.25261e-09,0,8192,8192
304.851,2.25074e-09,0,8192,8192
304.901,2.24768e-09,0,8192,8192
304.951,2.24348e-09,0,8192,8192
