250,0,0,512,512
250.012,0,0,512,512
250.059,0,0,512,512
250.105,0,0,512,512
250.152,0,0,512,512
250.211,0,0,512,512
250.258,0,0,512,512
250.305,0,0,512,512
250.352,0,0,512,512
250.41,0,0,512,512
250.457,0,0,512,512
250.504,0,0,512,512
250.551,0,0,512,512
250.609,0,0,512,512
250.656,0,0,512,512
250.703,0,0,512,512
250.762,0,0,512,512
250.808,0,0,512,512
250.855,0,0,512,512
250.902,0,0,512,512
250.961,0,0,512,512
251.008,0,0,512,512
251.055,0,0,512,512
251.101,0,0,512,512
251.16,0,0,512,512
251.207,0,0,512,512
251.254,0,0,512,512
251.301,0,0,512,512
251.359,0,0,512,512
251.406,0,0,512,512
251.453,0,0,512,512
251.511,0,0,512,512
251.558,0,0,512,512
251.605,0,0,512,512
251.652,0,0,512,512
251.711,0,0,512,512
251.758,0,0,512,512
251.804,0,0,512,512
251.851,0,0,512,512
251.91,0,0,512,512
251.957,0,0,512,512
252.004,0,0,512,512
252.05,0,0,512,512
252.109,0,0,512,512
252.156,0,0,512,512
252.203,0,0,512,512
252.261,0,0,512,512
252.308,0,0,512,512
252.355,0,0,512,512
252.402,0,0,512,512
252.461,0,0,512,512
252.507,0,0,512,512
252.554,0,0,512,512
252.601,0,0,512,512
252.66,0,0,512,512
252.707,0,0,512,512
252.754,0,0,512,512
252.8,0,0,512,512
252.859,0,0,512,512
252.906,0,0,512,512
252.953,0,0,512,512
253.011,0,0,512,512
253.058,0,0,512,512
253.105,0,0,512,512
253.152,0,0,512,512
253.21,0,0,512,512
253.257,0,0,512,512
253.304,0,0,512,512
253.351,0,0,512,512
253.41,0,0,512,512
253.457,0,0,512,512
253.503,0,0,512,512
253.55,0,0,512,512
253.609,0,0,512,512
253.656,0,0,512,512
253.703,0,0,512,512
253.761,0,0,512,512
253.808,0,0,512,512
253.855,0,0,512,512
253.902,0,0,512,512
253.96,0,0,512,512
254.007,0,0,512,512
254.054,0,0,512,512
254.101,0,0,512,512
254.16,0,0,512,512
254.206,0,0,512,512
254.253,0,0,512,512
254.3,0,0,512,512
254.359,0,0,512,512
254.406,0,0,512,512
254.452,0,0,512,512
254.511,0,0,512,512
254.558,0,0,512,512
254.605,0,0,512,512
254.652,0,0,512,512
254.71,0,0,512,512
254.757,0,0,512,512
254.804,0,0,512,512
254.851,0,0,512,512
254.909,0,0,512,512
254.956,0,0,512,512
255.003,0,0,512,512
255.05,0,0,512,512
255.109,0,0,512,512
255.155,0,0,512,512
255.202,0,0,512,512
255.261,0,0,512,512
255.308,0,0,512,512
255.355,0,0,512,512
255.402,0,0,512,512
255.46,0,0,512,512
255.507,0,0,512,512
255.554,0,0,512,512
255.601,0,0,512,512
255.659,0,0,512,512
255.706,0,0,512,512
255.753,0,0,512,512
255.812,0,0,512,512
255.859,0,0,512,512
255.905,0,0,512,512
255.952,0,0,512,512
256.011,0,0,512,512
256.058,0,0,512,512
256.105,0,0,512,512
256.151,0,0,512,512
256.21,0,0,512,512
256.257,0,0,512,512
256.304,0,0,512,512
256.351,0,0,512,512
256.409,0,0,512,512
256.456,0,0,512,512
256.503,0,0,512,512
256.562,0,0,512,512
256.608,0,0,512,512
256.655,0,0,512,512
256.702,0,0,512,512
256.761,0,0,512,512
256.808,0,0,512,512
256.854,0,0,512,512
256.901,0,0,512,512
256.96,0,0,512,512
257.007,0,0,512,512
257.054,0,0,512,512
257.101,0,0,512,512
257.159,0,0,512,512
257.206,0,0,512,512
257.253,0,0,512,512
257.311,0,0,512,512
257.358,0,0,512,512
257.405,0,0,512,512
257.452,0,0,512,512
257.511,0,0,512,512
257.557,0,0,512,512
257.604,0,0,512,512
257.651,0,0,512,512
257.71,0,0,512,512
257.757,0,0,512,512
257.804,0,0,512,512
257.85,2.77556e-17,0,512,512
257.909,2.77556e-17,0,512,512
257.956,2.77556e-17,0,512,512
258.003,2.77556e-17,0,512,512
258.061,2.77556e-17,0,512,512
258.108,2.77556e-17,0,512,512
258.155,2.77556e-17,0,512,512
258.202,2.77556e-17,0,512,512
258.261,2.77556e-17,0,512,512
258.307,2.77556e-17,0,512,512
258.354,2.77556e-17,0,512,512
258.401,2.77556e-17,0,512,512
258.46,2.77556e-17,0,512,512
258.507,2.77556e-17,0,512,512
258.553,2.77556e-17,0,512,512
258.6,2.77556e-17,0,512,512
258.659,2.77556e-17,0,512,512
258.706,2.77556e-17,0,512,512
258.753,2.77556e-17,0,512,512
258.811,2.77556e-17,0,512,512
258.858,2.77556e-17,0,512,512
258.905,2.77556e-17,0,512,512
258.952,0,0,512,512
259.01,0,0,512,512
259.057,0,0,512,512
259.104,0,0,512,512
259.151,2.77556e-17,0,512,512
259.21,2.77556e-17,0,512,512
259.256,2.77556e-17,0,512,512
259.303,2.77556e-17,0,512,512
259.35,2.77556e-17,0,512,512
259.409,2.77556e-17,0,512,512
259.456,2.77556e-17,0,512,512
259.503,2.77556e-17,0,512,512
259.561,2.77556e-17,0,512,512
259.608,2.77556e-17,0,512,512
259.655,2.77556e-17,0,512,512
259.702,2.77556e-17,0,512,512
259.76,2.77556e-17,0,512,512
259.807,2.77556e-17,0,512,512
259.854,2.77556e-17,0,512,512
259.901,2.77556e-17,0,512,512
259.959,2.77556e-17,0,512,512
260.006,2.77556e-17,0,512,512
260.053,2.77556e-17,0,512,512
260.1,2.77556e-17,0,512,512
260.159,2.77556e-17,0,512,512
260.206,0,0,512,512
260.252,0,0,512,512
260.311,0,0,512,512
260.358,0,0,512,512
260.405,0,0,512,512
260.452,0,0,512,512
260.51,0,0,512,512
260.557,0,0,512,512
260.604,0,0,512,512
260.651,0,0,512,512
260.709,0,0,512,512
260.756,0,0,512,512
260.803,0,0,512,512
260.862,0,0,512,512
260.909,0,0,512,512
260.955,0,0,512,512
261.002,0,0,512,512
261.061,0,0,512,512
261.108,0,0,512,512
261.155,0,0,512,512
261.201,0,0,512,512
261.26,0,0,512,512
261.307,0,0,512,512
261.354,0,0,512,512
261.401,0,0,512,512
261.459,0,0,512,512
261.506,0,0,512,512
261.553,0,0,512,512
261.612,0,0,512,512
261.658,0,0,512,512
261.705,0,0,512,512
261.752,0,0,512,512
261.811,0,0,512,512
261.858,0,0,512,512
261.905,0,0,512,512
261.951,0,0,512,512
262.01,0,0,512,512
262.057,0,0,512,512
262.104,0,0,512,512
262.151,0,0,512,512
262.209,0,0,512,512
262.256,0,0,512,512
262.303,0,0,512,512
262.361,0,0,512,512
262.408,0,0,512,512
262.455,0,0,512,512
262.502,0,0,512,512
262.561,0,0,512,512
262.608,0,0,512,512
262.654,0,0,512,512
262.701,0,0,512,512
262.76,0,0,512,512
262.807,0,0,512,512
262.854,0,0,512,512
262.9,0,0,512,512
262.959,0,0,512,512
263.006,0,0,512,512
263.053,0,0,512,512
263.111,-2.77556e-17,0,512,512
263.158,-2.77556e-17,0,512,512
263.205,-2.77556e-17,0,512,512
263.252,-2.77556e-17,0,512,512
263.311,-2.77556e-17,0,512,512
263.357,-2.77556e-17,0,512,512
263.404,-2.77556e-17,0,512,512
263.451,-2.77556e-17,0,512,512
263.51,-2.77556e-17,0,512,512
263.557,-2.77556e-17,0,512,512
263.603,-2.77556e-17,0,512,512
263.65,-2.77556e-17,0,512,512
263.709,-2.77556e-17,0,512,512
263.756,-2.77556e-17,0,512,512
263.803,-2.77556e-17,0,512,512
263.861,-2.77556e-17,0,512,512
263.908,-2.77556e-17,0,512,512
263.955,-2.77556e-17,0,512,512
264.002,-2.77556e-17,0,512,512
264.06,-2.77556e-17,0,512,512
264.107,-2.77556e-17,0,512,512
264.154,-2.77556e-17,0,512,512
264.201,-2.77556e-17,0,512,512
264.26,-2.77556e-17,0,512,512
264.306,-2.77556e-17,0,512,512
264.353,-2.77556e-17,0,512,512
264.4,-2.77556e-17,0,512,512
264.459,0,0,512,512
264.506,0,0,512,512
264.553,0,0,512,512
264.611,0,0,512,512
264.658,0,0,512,512
264.705,0,0,512,512
264.752,0,0,512,512
264.81,0,0,512,512
264.857,0,0,512,512
264.904,0,0,512,512
264.951,0,0,512,512
265.01,0,0,512,512
265.056,0,0,512,512
265.103,0,0,512,512
265.15,0,0,512,512
265.209,0,0,512,512
265.256,0,0,512,512
265.302,0,0,512,512
265.361,0,0,512,512
265.408,0,0,512,512
265.455,0,0,512,512
265.502,0,0,512,512
265.56,0,0,512,512
265.607,0,0,512,512
265.654,0,0,512,512
265.701,0,0,512,512
265.759,0,0,512,512
265.806,0,0,512,512
265.853,0,0,512,512
265.9,0,0,512,512
265.959,0,0,512,512
266.005,0,0,512,512
266.052,0,0,512,512
266.111,0,0,512,512
266.158,0,0,512,512
266.205,0,0,512,512
266.252,0,0,512,512
266.31,0,0,512,512
266.357,0,0,512,512
266.404,0,0,512,512
266.451,0,0,512,512
266.509,0,0,512,512
266.556,0,0,512,512
266.603,0,0,512,512
266.662,0,0,512,512
266.708,0,0,512,512
266.755,0,0,512,512
266.802,0,0,512,512
266.861,0,0,512,512
266.908,0,0,512,512
266.955,0,0,512,512
267.001,0,0,512,512
267.06,0,0,512,512
267.107,0,0,512,512
267.154,0,0,512,512
267.201,0,0,512,512
267.259,0,0,512,512
267.306,0,0,512,512
267.353,0,0,512,512
267.412,0,0,512,512
267.458,0,0,512,512
267.505,0,0,512,512
267.552,2.77556e-17,0,512,512
267.611,2.77556e-17,0,512,512
267.658,2.77556e-17,0,512,512
267.704,2.77556e-17,0,512,512
267.751,2.77556e-17,0,512,512
267.81,2.77556e-17,0,512,512
267.857,2.77556e-17,0,512,512
267.904,2.77556e-17,0,512,512
267.95,2.77556e-17,0,512,512
268.009,2.77556e-17,0,512,512
268.056,2.77556e-17,0,512,512
268.1,2.77556e-17,0,2121,2121
268.151,2.77556e-17,0,3003,3003
268.2,2.77556e-17,0,3939,3939
268.25,2.77556e-17,0,4827,4827
268.301,2.77556e-17,0,5811,5811
268.35,2.77556e-17,0,6667,6667
268.4,2.77556e-17,0,7607,7607
268.45,2.77556e-17,0,8507,8507
268.501,2.77556e-17,0,9427,9427
268.55,2.77556e-17,0,10351,10351
268.6,2.77556e-17,0,11223,11223
268.65,2.77556e-17,0,12165,12165
268.701,2.77556e-17,0,13091,13091
268.75,2.77556e-17,0,13981,13981
268.8,2.77556e-17,0,14897,14897
268.851,2.77556e-17,0,15785,15785
268.9,2.77556e-17,0,16709,16709
268.95,2.77556e-17,0,17587,17587
269,2.77556e-17,0,18485,18485
269.051,2.77556e-17,0,19345,19345
269.1,2.77556e-17,0,20215,20215
269.15,2.77556e-17,0,21131,21131
269.201,2.77556e-17,0,21919,21919
269.251,2.77556e-17,0,22691,22691
269.3,2.77556e-17,0,23515,23515
269.35,2.77556e-17,0,24367,24367
269.401,2.77556e-17,0,25285,25285
269.45,2.77556e-17,0,26055,26055
269.5,2.77556e-17,0,26957,26957
269.55,2.77556e-17,0,27815,27815
269.601,2.77556e-17,0,28751,28751
269.65,2.77556e-17,0,29661,29661
269.7,2.77556e-17,0,30567,30567
269.751,2.77556e-17,0,31419,31419
269.8,2.77556e-17,0,32335,32335
269.85,2.77556e-17,0,33213,33213
269.9,2.77556e-17,0,34091,34091
269.951,2.77556e-17,0,34901,34901
270,2.77556e-17,0,35801,35801
270.05,2.77556e-17,0,36691,36691
270.101,2.77556e-17,0,37601,37601
270.151,2.77556e-17,0,38425,38425
270.2,2.77556e-17,0,39333,39333
270.25,2.77556e-17,0,40221,40221
270.301,2.77556e-17,0,41087,41087
270.35,2.77556e-17,0,41933,41933
270.4,2.77556e-17,0,42757,42757
270.45,2.77556e-17,0,43589,43589
270.501,2.77556e-17,0,44397,44397
270.55,2.77556e-17,0,45315,45315
270.6,2.77556e-17,0,46131,46131
270.651,2.77556e-17,0,46939,46939
270.7,2.77556e-17,0,47823,47823
270.75,2.77556e-17,0,48697,48697
270.8,2.77556e-17,0,49507,49507
270.851,2.77556e-17,0,50363,50363
270.9,2.77556e-17,0,51225,51225
270.95,2.77556e-17,0,52087,52087
271,2.77556e-17,0,52967,52967
271.051,2.77556e-17,0,53805,53805
271.1,2.77556e-17,0,54573,54573
271.15,2.77556e-17,0,55433,55433
271.201,2.77556e-17,0,56297,56297
271.25,2.77556e-17,0,57097,57097
271.3,2.77556e-17,0,57877,57877
271.35,2.77556e-17,0,58717,58717
271.401,2.77556e-17,0,59561,59561
271.45,2.77556e-17,0,60359,60359
271.5,2.77556e-17,0,61199,61199
271.551,2.77556e-17,0,61973,61973
271.6,2.77556e-17,0,62797,62797
271.65,2.77556e-17,0,63553,63553
271.7,2.77556e-17,0,64443,64443
271.751,2.77556e-17,0,65233,65233
271.8,2.77556e-17,0,66037,66037
271.85,2.77556e-17,0,66803,66803
271.9,2.77556e-17,0,67559,67559
271.951,2.77556e-17,0,68361,68361
272,2.77556e-17,0,69145,69145
272.05,2.77556e-17,0,69929,69929
272.101,2.77556e-17,0,70629,70629
272.15,2.77556e-17,0,71397,71397
272.2,2.77556e-17,0,72225,72225
272.25,2.77556e-17,0,72941,72941
272.301,2.77556e-17,0,73771,73771
272.35,2.77556e-17,0,74473,74473
272.4,2.77556e-17,0,75233,75233
272.451,5.27356e-16,0,76029,76029
272.501,2.35922e-15,0,76767,76767
272.55,4.2466e-15,0,77573,77573
272.6,6.13398e-15,0,78307,78307
272.651,7.82707e-15,0,78993,78993
272.7,9.40914e-15,0,79745,79745
272.75,1.10467e-14,0,80537,80537
272.8,1.27121e-14,0,81183,81183
272.851,1.43774e-14,0,81989,81989
272.9,1.60427e-14,0,82645,82645
272.95,1.77636e-14,0,83455,83455
273.001,1.96787e-14,0,84143,84143
273.05,2.15383e-14,0,84869,84869
273.1,2.3398e-14,0,85581,85581
273.15,2.52576e-14,0,86265,86265
273.201,2.71727e-14,0,86987,86987
273.25,2.90601e-14,0,87725,87725
273.3,3.09475e-14,0,88403,88403
273.351,3.41116e-14,0,89203,89203
273.401,3.93574e-14,0,89887,89887
273.45,4.74343e-14,0,90581,90581
273.5,5.91194e-14,0,91227,91227
273.551,7.53009e-14,0,91979,91979
273.6,9.52016e-14,0,92701,92701
273.65,1.17822e-13,0,93423,93423
273.7,1.40193e-13,0,94073,94073
273.751,1.58179e-13,0,94635,94635
273.8,1.64257e-13,0,95527,95527
273.85,1.48798e-13,0,96327,96327
273.901,9.86988e-14,0,96827,96827
273.95,1.13798e-15,0,97579,97579
274,-1.59206e-13,0,98275,98275
274.05,-4.22218e-13,0,99063,99063
274.101,-9.62452e-13,0,99683,99683
274.15,-1.99743e-12,0,100397,100397
274.2,-6.04436e-12,0,101063,101063
274.251,-3.07619e-11,0,101869,101869
274.301,-1.49107e-10,0,102445,102445
274.35,-3.44576e-10,0,103113,103113
274.4,-4.66426e-10,0,103753,103753
274.451,-3.61021e-10,0,104411,104411
274.5,-7.32438e-11,0,105113,105113
274.55,2.1197e-10,0,105731,105731
274.6,3.25448e-10,0,106507,106507
274.651,2.20037e-10,0,107201,107201
274.7,1.12241e-11,0,107851,107851
274.75,-1.14127e-10,0,108591,108591
274.801,-4.89656e-11,0,109189,109189
274.85,1.4102e-10,0,109901,109901
274.9,2.78395e-10,0,110539,110539
274.95,2.47724e-10,0,111185,111185
275.001,8.68853e-11,0,111889,111889
275.05,-4.15918e-11,0,112411,112411
275.1,-3.13765e-11,0,112985,112985
275.15,1.01621e-10,0,113461,113461
275.201,2.32117e-10,0,114103,114103
275.25,2.56882e-10,0,114619,114619
275.3,1.69472e-10,0,115221,115221
275.351,4.55006e-11,0,115919,115919
275.4,-2.09843e-11,0,116533,116533
275.45,8.23369e-12,0,117195,117195
275.5,1.33311e-10,0,117863,117863
275.551,2.76692e-10,0,118255,118255
275.6,3.19988e-10,0,118717,118717
275.65,1.80578e-10,0,119175,119175
275.701,-8.38514e-11,0,119707,119707
275.751,-2.26027e-10,0,120091,120091
275.8,-1.9822e-11,0,120507,120507
275.85,4.61275e-10,0,120875,120875
275.901,7.47864e-10,0,121327,121327
275.95,3.38799e-10,0,121541,121541
276,-6.08516e-10,0,121935,121935
276.05,-1.04278e-09,0,122251,122251
276.101,4.62783e-10,0,122625,122625
276.15,4.56522e-09,0,122897,122897
276.2,1.07182e-08,0,123235,123235
276.251,1.7632e-08,0,123510,123510
276.3,2.37177e-08,0,123750,123750
276.35,2.83015e-08,0,124054,124054
276.4,3.13696e-08,0,124246,124246
276.451,3.37243e-08,0,124516,124516
276.5,3.6724e-08,0,124768,124768
276.55,4.1899e-08,0,124940,124940
276.601,5.02061e-08,0,124860,124860
276.651,6.12372e-08,0,124770,124770
276.7,7.44972e-08,0,124598,124598
276.75,8.9889e-08,0,124326,124326
276.801,1.08561e-07,0,124174,124174
276.85,1.31471e-07,0,123962,123962
276.9,1.60329e-07,0,123886,123886
276.95,1.96092e-07,0,124462,124462
277.001,2.39545e-07,0,125086,125086
277.05,2.8835e-07,0,125056,125056
277.1,3.40991e-07,0,125252,125252
277.151,3.96203e-07,0,126138,126138
277.2,4.51718e-07,0,126596,126596
277.25,5.09415e-07,0,126832,126832
277.3,5.707e-07,0,126310,126310
277.351,6.36188e-07,0,127266,127266
277.4,7.01019e-07,0,128552,128552
277.45,7.61768e-07,0,127446,127446
277.5,8.14494e-07,0,128020,128020
277.551,8.57269e-07,0,127460,127460
277.6,8.8804e-07,0,127964,127964
277.65,9.08295e-07,0,128638,128638
277.701,9.20226e-07,0,127692,127692
277.75,9.25999e-07,0,128634,128634
277.8,9.27705e-07,0,127498,127498
277.85,9.26105e-07,0,128692,128692
277.901,9.20927e-07,0,128486,128486
277.95,9.11558e-07,0,128026,128026
278,8.9686e-07,0,128352,128352
278.051,8.75276e-07,0,127550,127550
278.101,8.4635e-07,0,129172,129172
278.15,8.0914e-07,0,128240,128240
278.2,7.6377e-07,0,127770,127770
278.251,7.10854e-07,0,128478,128478
278.3,6.54643e-07,0,128026,128026
278.35,5.97551e-07,0,129262,129262
278.4,5.42161e-07,0,128700,128700
278.451,4.89305e-07,0,129770,129770
278.5,4.41183e-07,0,128832,128832
278.55,3.96998e-07,0,130180,130180
278.601,3.55716e-07,0,129334,129334
278.65,3.1785e-07,0,128204,128204
278.7,2.82119e-07,0,128426,128426
278.75,2.48108e-07,0,125554,125554
278.801,2.15496e-07,0,125250,125250
278.85,1.86208e-07,0,123866,123866
278.9,1.61279e-07,0,123134,123134
278.951,1.41455e-07,0,121582,121582
279.001,1.26591e-07,0,121210,121210
279.05,1.13996e-07,0,120186,120186
279.1,1.01204e-07,0,119216,119216
279.151,8.71488e-08,0,117788,117788
279.2,7.33366e-08,0,117556,117556
279.25,6.13844e-08,0,116144,116144
279.3,5.24206e-08,0,115004,115004
279.351,4.63263e-08,0,114600,114600
279.4,4.23553e-08,0,113438,113438
279.45,3.909e-08,0,112514,112514
279.501,3.51775e-08,0,111538,111538
279.55,3.00285e-08,0,110770,110770
279.6,2.40152e-08,0,109784,109784
279.65,1.85297e-08,0,109688,109688
279.701,1.49846e-08,0,109420,109420
279.75,1.40234e-08,0,109630,109630
279.8,1.50373e-08,0,109298,109298
279.85,1.70458e-08,0,109650,109650
279.901,1.93611e-08,0,110894,110894
279.95,2.16816e-08,0,112462,112462
280,2.41066e-08,0,112628,112628
280.051,2.67906e-08,0,114166,114166
280.1,2.97077e-08,0,115408,115408
280.15,3.28643e-08,0,116364,116364
280.2,3.61438e-08,0,116824,116824
280.251,3.94869e-08,0,117040,117040
280.3,4.28864e-08,0,117318,117318
280.35,4.65377e-08,0,118381,118381
280.401,5.04777e-08,0,119166,119166
280.451,5.45052e-08,0,119980,119980
280.5,5.86728e-08,0,120322,120322
280.55,6.29994e-08,0,119974,119974
280.601,6.74695e-08,0,119294,119294
280.65,7.17811e-08,0,118792,118792
280.7,7.59045e-08,0,118352,118352
280.75,8.00274e-08,0,117690,117690
280.801,8.47386e-08,0,116960,116960
280.85,9.05167e-08,0,116980,116980
280.9,9.77435e-08,0,116180,116180
280.951,1.0632e-07,0,115674,115674
281,1.15275e-07,0,115256,115256
281.05,1.2387e-07,0,114952,114952
281.1,1.31498e-07,0,114716,114716
281.151,1.38156e-07,0,114110,114110
281.2,1.44136e-07,0,113468,113468
281.25,1.50418e-07,0,112876,112876
281.301,1.58069e-07,0,112430,112430
281.351,1.67551e-07,0,112210,112210
281.4,1.79241e-07,0,111404,111404
281.45,1.93195e-07,0,111098,111098
281.501,2.09846e-07,0,110886,110886
281.55,2.29257e-07,0,110042,110042
281.6,2.52531e-07,0,109794,109794
281.65,2.80604e-07,0,109862,109862
281.701,3.14627e-07,0,108752,108752
281.75,3.53594e-07,0,108584,108584
281.8,3.97204e-07,0,108074,108074
281.851,4.44921e-07,0,107698,107698
281.9,4.94132e-07,0,107466,107466
281.95,5.44816e-07,0,107004,107004
282,5.96874e-07,0,106532,106532
282.051,6.51049e-07,0,106092,106092
282.1,7.04988e-07,0,105810,105810
282.15,7.57544e-07,0,105584,105584
282.2,8.05926e-07,0,105480,105480
282.251,8.47792e-07,0,105260,105260
282.3,8.79738e-07,0,105102,105102
282.35,9.01478e-07,0,104940,104940
282.401,9.13441e-07,0,104748,104748
282.45,9.16601e-07,0,104652,104652
282.5,9.1294e-07,0,104416,104416
282.55,9.04037e-07,0,104236,104236
282.601,8.90672e-07,0,104276,104276
282.65,8.73532e-07,0,104250,104250
282.7,8.5214e-07,0,104084,104084
282.751,8.25369e-07,0,103894,103894
282.801,7.93152e-07,0,103810,103810
282.85,7.54432e-07,0,103770,103770
282.9,7.08916e-07,0,103628,103628
282.951,6.5619e-07,0,103580,103580
283,5.9904e-07,0,103524,103524
283.05,5.38737e-07,0,103484,103484
283.1,4.77628e-07,0,103310,103310
283.151,4.17047e-07,0,103210,103210
283.2,3.60407e-07,0,103130,103130
283.25,3.0774e-07,0,103731,103731
283.301,2.58642e-07,0,104383,104383
283.35,2.14334e-07,0,105135,105135
283.4,1.73623e-07,0,105809,105809
283.45,1.36042e-07,0,106722,106722
283.501,1.00826e-07,0,107296,107296
283.55,6.91605e-08,0,108012,108012
283.6,4.10145e-08,0,108748,108748
283.65,1.70276e-08,0,109468,109468
283.701,-2.77181e-09,0,110204,110204
283.75,-1.82819e-08,0,110924,110924
283.8,-3.09814e-08,0,111658,111658
283.851,-4.23206e-08,0,112368,112368
283.9,-5.2724e-08,0,113098,113098
283.95,-6.22623e-08,0,113732,113732
284,-7.02657e-08,0,114322,114322
284.051,-7.61411e-08,0,115230,115230
284.1,-7.95392e-08,0,115922,115922
284.15,-8.09973e-08,0,116654,116654
284.201,-8.13618e-08,0,117326,117326
284.251,-8.15114e-08,0,118050,118050
284.3,-8.19658e-08,0,118774,118774
284.35,-8.2649e-08,0,119538,119538
284.401,-8.29877e-08,0,120236,120236
284.45,-8.22768e-08,0,120956,120956
284.5,-8.01516e-08,0,121644,121644
284.55,-7.67328e-08,0,122412,122412
284.601,-7.24313e-08,0,123180,123180
284.65,-6.79124e-08,0,123964,123964
284.7,-6.34861e-08,0,124732,124732
284.751,-5.92522e-08,0,125484,125484
284.8,-5.53678e-08,0,126220,126220
284.85,-5.17791e-08,0,126152,126152
284.9,-4.85203e-08,0,126616,126616
284.951,-4.55972e-08,0,127580,127580
285,-4.31059e-08,0,128702,128702
285.05,-4.09538e-08,0,129226,129226
285.101,-3.9038e-08,0,129580,129580
285.151,-3.73593e-08,0,129924,129924
285.2,-3.5879e-08,0,129848,129848
285.25,-3.4611e-08,0,129840,129840
285.301,-3.35506e-08,0,129726,129726
285.35,-3.27219e-08,0,129698,129698
285.4,-3.20897e-08,0,129632,129632
285.45,-3.16316e-08,0,129632,129632
285.501,-3.13218e-08,0,129872,129872
285.55,-3.11484e-08,0,129736,129736
285.6,-3.10859e-08,0,129510,129510
285.651,-3.11174e-08,0,128817,128817
285.7,-3.12232e-08,0,129402,129402
285.75,-3.13858e-08,0,130148,130148
285.8,-3.15871e-08,0,130506,130506
285.851,-3.18186e-08,0,130976,130976
285.9,-3.20641e-08,0,130928,130928
285.95,-3.23228e-08,0,130880,130880
286,-3.25911e-08,0,131002,131002
286.051,-3.28689e-08,0,130888,130888
286.1,-3.3143e-08,0,130952,130952
286.15,-3.34107e-08,0,130948,130948
286.201,-3.36699e-08,0,130996,130996
286.25,-3.39089e-08,0,131004,131004
286.3,-3.4131e-08,0,130962,130962
286.35,-3.43373e-08,0,130968,130968
286.401,-3.45326e-08,0,130916,130916
286.45,-3.4712e-08,0,130888,130888
286.5,-3.4877e-08,0,130838,130838
286.551,-3.50266e-08,0,130770,130770
286.601,-3.51531e-08,0,130816,130816
286.65,-3.52562e-08,0,129520,129520
286.7,-3.5335e-08,0,129032,129032
286.751,-3.5391e-08,0,129120,129120
286.8,-3.54238e-08,0,129320,129320
286.85,-3.54373e-08,0,129596,129596
286.9,-3.54297e-08,0,129774,129774
286.951,-3.54027e-08,0,129740,129740
287,-3.53657e-08,0,129962,129962
287.05,-3.53145e-08,0,129912,129912
287.101,-3.52521e-08,0,129728,129728
287.15,-3.51826e-08,0,129690,129690
287.2,-3.51086e-08,0,129380,129380
287.25,-3.50319e-08,0,129354,129354
287.301,-3.49522e-08,0,129502,129502
287.35,-3.48731e-08,0,129474,129474
287.4,-3.47947e-08,0,129510,129510
287.451,-3.47167e-08,0,129566,129566
287.501,-3.46425e-08,0,129636,129636
287.55,-3.45721e-08,0,129638,129638
287.6,-3.45059e-08,0,129384,129384
287.651,-3.44441e-08,0,129450,129450
287.7,-3.4389e-08,0,129062,129062
287.75,-3.43397e-08,0,128840,128840
287.8,-3.42965e-08,0,128494,128494
287.851,-3.426e-08,0,128346,128346
287.9,-3.42311e-08,0,128178,128178
287.95,-3.42094e-08,0,128414,128414
288.001,-3.41938e-08,0,128514,128514
288.05,-3.41872e-08,0,128196,128196
288.1,-3.41845e-08,0,128142,128142
288.15,-3.4186e-08,0,127958,127958
288.201,-3.42e-08,0,128084,128084
288.25,-3.42199e-08,0,128200,128200
288.3,-3.42497e-08,0,128840,128840
288.351,-3.42841e-08,0,128770,128770
288.401,-3.43253e-08,0,129166,129166
288.45,-3.4376e-08,0,129236,129236
288.5,-3.44338e-08,0,129430,129430
288.551,-3.44979e-08,0,129450,129450
288.6,-3.45668e-08,0,129530,129530
288.65,-3.46411e-08,0,129524,129524
288.7,-3.4723e-08,0,129770,129770
288.751,-3.48131e-08,0,129818,129818
288.8,-3.49111e-08,0,129930,129930
288.85,-3.50184e-08,0,130052,130052
288.901,-3.51394e-08,0,130196,130196
288.95,-3.52727e-08,0,130338,130338
289,-3.54216e-08,0,130310,130310
289.05,-3.55887e-08,0,130414,130414
289.101,-3.57789e-08,0,130282,130282
289.15,-3.59889e-08,0,130266,130266
289.2,-3.62234e-08,0,130242,130242
289.25,-3.64829e-08,0,130168,130168
289.301,-3.67725e-08,0,129940,129940
289.35,-3.70839e-08,0,130042,130042
289.4,-3.74207e-08,0,130070,130070
289.451,-3.77876e-08,0,130306,130306
289.5,-3.81718e-08,0,130510,130510
289.55,-3.85753e-08,0,130556,130556
289.6,-3.89938e-08,0,130580,130580
289.651,-3.94284e-08,0,130630,130630
289.7,-3.9861e-08,0,130646,130646
289.75,-4.02916e-08,0,130610,130610
289.801,-4.07211e-08,0,130554,130554
289.851,-4.11326e-08,0,130418,130418
289.9,-4.15282e-08,0,130436,130436
289.95,-4.19046e-08,0,130232,130232
290.001,-4.22642e-08,0,130160,130160
290.05,-4.2593e-08,0,129838,129838
290.1,-4.28933e-08,0,129810,129810
290.15,-4.3161e-08,0,129542,129542
290.201,-4.33953e-08,0,129518,129518
290.25,-4.35857e-08,0,129164,129164
290.3,-4.3733e-08,0,128728,128728
290.351,-4.38363e-08,0,127794,127794
290.4,-4.38921e-08,0,127692,127692
290.45,-4.39036e-08,0,128370,128370
290.5,-4.38674e-08,0,128626,128626
290.551,-4.37852e-08,0,129702,129702
290.6,-4.36589e-08,0,129658,129658
290.65,-4.34957e-08,0,128034,128034
290.701,-4.32901e-08,0,126390,126390
290.751,-4.30468e-08,0,126252,126252
290.8,-4.27643e-08,0,124950,124950
290.85,-4.24426e-08,0,124898,124898
290.901,-4.20758e-08,0,124852,124852
290.95,-4.16731e-08,0,125114,125114
291,-4.12286e-08,0,125252,125252
291.05,-4.07415e-08,0,124782,124782
291.101,-4.02031e-08,0,123794,123794
291.15,-3.9629e-08,0,122724,122724
291.2,-3.90114e-08,0,122022,122022
291.251,-3.83408e-08,0,122236,122236
291.3,-3.76368e-08,0,123590,123590
291.35,-3.68914e-08,0,122658,122658
291.4,-3.61072e-08,0,121616,121616
291.451,-3.52758e-08,0,121692,121692
291.5,-3.44271e-08,0,122196,122196
291.55,-3.35557e-08,0,123614,123614
291.6,-3.2669e-08,0,123514,123514
291.651,-3.17609e-08,0,124052,124052
291.7,-3.08646e-08,0,124086,124086
291.75,-2.99729e-08,0,124224,124224
291.801,-2.90784e-08,0,123758,123758
291.85,-2.82115e-08,0,122706,122706
291.9,-2.73633e-08,0,121768,121768
291.95,-2.65378e-08,0,122092,122092
292.001,-2.57274e-08,0,121748,121748
292.05,-2.496e-08,0,120800,120800
292.1,-2.42278e-08,0,122078,122078
292.151,-2.35253e-08,0,121140,121140
292.2,-2.2877e-08,0,120542,120542
292.25,-2.22759e-08,0,120792,120792
292.3,-2.17238e-08,0,121882,121882
292.351,-2.12145e-08,0,121868,121868
292.4,-2.0762e-08,0,121384,121384
292.45,-2.03568e-08,0,120874,120874
292.5,-1.99963e-08,0,120508,120508
292.551,-1.96729e-08,0,120164,120164
292.6,-1.93924e-08,0,119372,119372
292.65,-1.91467e-08,0,118738,118738
292.701,-1.893e-08,0,118144,118144
292.75,-1.87458e-08,0,118154,118154
292.8,-1.85878e-08,0,117956,117956
292.85,-1.84527e-08,0,118014,118014
292.901,-1.83359e-08,0,118332,118332
292.95,-1.82377e-08,0,118270,118270
293,-1.81529e-08,0,118330,118330
293.051,-1.8078e-08,0,118046,118046
293.101,-1.80134e-08,0,118210,118210
293.15,-1.79562e-08,0,118168,118168
293.2,-1.79053e-08,0,118426,118426
293.251,-1.78586e-08,0,118320,118320
293.3,-1.78161e-08,0,118412,118412
293.35,-1.77753e-08,0,118482,118482
293.4,-1.77351e-08,0,118873,118873
293.451,-1.76944e-08,0,119624,119624
293.5,-1.76542e-08,0,120463,120463
293.55,-1.76137e-08,0,120947,120947
293.601,-1.75716e-08,0,121581,121581
293.65,-1.7528e-08,0,122253,122253
293.7,-1.74808e-08,0,122577,122577
293.75,-1.74286e-08,0,123303,123303
293.801,-1.7369e-08,0,124013,124013
293.85,-1.7303e-08,0,124627,124627
293.9,-1.72294e-08,0,125281,125281
293.951,-1.71466e-08,0,125865,125865
294.001,-1.70563e-08,0,126765,126765
294.05,-1.69572e-08,0,127511,127511
294.1,-1.68491e-08,0,128312,128312
294.151,-1.67304e-08,0,129026,129026
294.2,-1.66052e-08,0,129584,129584
294.25,-1.64726e-08,0,130179,130179
294.3,-1.63335e-08,0,130414,130414
294.351,-1.61865e-08,0,130572,130572
294.4,-1.60361e-08,0,130604,130604
294.45,-1.58803e-08,0,130678,130678
294.501,-1.57168e-08,0,130616,130616
294.55,-1.55508e-08,0,130624,130624
294.6,-1.53813e-08,0,130654,130654
294.65,-1.52094e-08,0,130684,130684
294.701,-1.50334e-08,0,130672,130672
294.75,-1.48585e-08,0,130588,130588
294.8,-1.46812e-08,0,130654,130654
294.85,-1.44997e-08,0,130552,130552
294.901,-1.43086e-08,0,130598,130598
294.95,-1.41116e-08,0,130390,130390
295,-1.39051e-08,0,130494,130494
295.051,-1.36859e-08,0,130540,130540
295.1,-1.34614e-08,0,130532,130532
295.15,-1.323e-08,0,130004,130004
295.2,-1.29929e-08,0,130394,130394
295.251,-1.27474e-08,0,130536,130536
295.3,-1.25004e-08,0,130406,130406
295.35,-1.22474e-08,0,130058,130058
295.401,-1.19824e-08,0,129994,129994
295.451,-1.17105e-08,0,129966,129966
295.5,-1.14248e-08,0,129926,129926
295.55,-1.1122e-08,0,129838,129838
295.601,-1.07944e-08,0,129698,129698
295.65,-1.04488e-08,0,129734,129734
295.7,-1.00783e-08,0,129756,129756
295.75,-9.68091e-09,0,129626,129626
295.801,-9.24862e-09,0,129616,129616
295.85,-8.79264e-09,0,129476,129476
295.9,-8.30572e-09,0,129486,129486
295.951,-7.77884e-09,0,129394,129394
296,-7.22642e-09,0,129306,129306
296.05,-6.64076e-09,0,129312,129312
296.1,-6.02248e-09,0,129384,129384
296.151,-5.36383e-09,0,129374,129374
296.2,-4.68767e-09,0,129366,129366
296.25,-3.98983e-09,0,129292,129292
296.301,-3.26574e-09,0,129226,129226
296.351,-2.54275e-09,0,129218,129218
296.4,-1.81659e-09,0,129176,129176
296.45,-1.09291e-09,0,129210,129210
296.501,-3.66433e-10,0,129128,129128
296.55,3.36826e-10,0,129028,129028
296.6,1.02283e-09,0,128748,128748
296.65,1.68721e-09,0,128036,128036
296.701,2.33511e-09,0,127522,127522
296.75,2.94411e-09,0,127338,127338
296.8,3.52049e-09,0,127114,127114
296.851,4.06869e-09,0,127140,127140
296.9,4.56948e-09,0,127146,127146
296.95,5.02777e-09,0,127827,127827
297,5.44056e-09,0,128154,128154
297.051,5.81066e-09,0,126984,126984
297.1,6.12629e-09,0,126540,126540
297.15,6.39351e-09,0,126416,126416
297.2,6.61396e-09,0,126352,126352
297.251,6.79269e-09,0,125568,125568
297.3,6.92818e-09,0,124010,124010
297.35,7.02581e-09,0,123464,123464
297.401,7.08893e-09,0,123472,123472
297.45,7.12051e-09,0,123242,123242
297.5,7.12092e-09,0,122774,122774
297.55,7.10684e-09,0,122344,122344
297.601,7.06566e-09,0,121920,121920
297.65,7.00504e-09,0,121486,121486
297.7,6.93087e-09,0,120722,120722
297.751,6.84349e-09,0,119438,119438
297.801,6.748e-09,0,119044,119044
297.85,6.64538e-09,0,118636,118636
297.9,6.53748e-09,0,118158,118158
297.951,6.42418e-09,0,116798,116798
298,6.31023e-09,0,116312,116312
298.05,6.19544e-09,0,115968,115968
298.1,6.08112e-09,0,116086,116086
298.151,5.96676e-09,0,115896,115896
298.2,5.85637e-09,0,115374,115374
298.25,5.74871e-09,0,114984,114984
298.301,5.64268e-09,0,114824,114824
298.35,5.5419e-09,0,114642,114642
298.4,5.44554e-09,0,114306,114306
298.45,5.35451e-09,0,114180,114180
298.501,5.2685e-09,0,113774,113774
298.55,5.19073e-09,0,113538,113538
298.6,5.12031e-09,0,113304,113304
298.651,5.05646e-09,0,113056,113056
298.701,5.00104e-09,0,112872,112872
298.75,4.95287e-09,0,112876,112876
298.8,4.91157e-09,0,112800,112800
298.851,4.87568e-09,0,112378,112378
298.9,4.84654e-09,0,111926,111926
298.95,4.82404e-09,0,111868,111868
299,4.80507e-09,0,111854,111854
299.051,4.78698e-09,0,111968,111968
299.1,4.76979e-09,0,111540,111540
299.15,4.75294e-09,0,111358,111358
299.201,4.73563e-09,0,111214,111214
299.25,4.718e-09,0,111552,111552
299.3,4.69901e-09,0,111066,111066
299.35,4.6779e-09,0,111486,111486
299.401,4.65399e-09,0,111536,111536
299.45,4.62766e-09,0,111592,111592
299.5,4.59849e-09,0,111798,111798
299.55,4.5665e-09,0,111808,111808
299.601,4.53135e-09,0,112158,112158
299.65,4.49487e-09,0,112844,112844
299.7,4.45834e-09,0,112962,112962
299.751,4.42264e-09,0,113038,113038
299.8,4.38896e-09,0,113440,113440
299.85,4.35627e-09,0,113702,113702
299.9,4.32392e-09,0,113668,113668
299.951,4.29088e-09,0,113700,113700
300,4.25768e-09,0,113656,113656
300.05,4.22373e-09,0,113634,113634
300.101,4.18875e-09,0,113854,113854
300.151,4.15436e-09,0,116370,116370
300.2,4.12099e-09,0,116708,116708
300.25,4.08967e-09,0,117030,117030
300.301,4.06062e-09,0,118110,118110
300.35,4.03476e-09,0,118344,118344
300.4,4.01137e-09,0,118596,118596
300.45,3.99e-09,0,119226,119226
300.501,3.96994e-09,0,119218,119218
300.55,3.95154e-09,0,119232,119232
300.6,3.93438e-09,0,119226,119226
300.651,3.91777e-09,0,119208,119208
300.7,3.90113e-09,0,119194,119194
300.75,3.88379e-09,0,119170,119170
300.8,3.86608e-09,0,119162,119162
300.851,3.84793e-09,0,119162,119162
300.9,3.82975e-09,0,119170,119170
300.95,3.81103e-09,0,119134,119134
301.001,3.79126e-09,0,119108,119108
301.051,3.77105e-09,0,119114,119114
301.1,3.75009e-09,0,120390,120390
301.15,3.72845e-09,0,121412,121412
301.201,3.70588e-09,0,122906,122906
301.25,3.68318e-09,0,125378,125378
301.3,3.66014e-09,0,125422,125422
301.35,3.63679e-09,0,125364,125364
301.401,3.6127e-09,0,125324,125324
301.45,3.58853e-09,0,125286,125286
301.5,3.56392e-09,0,125272,125272
301.551,3.53857e-09,0,125212,125212
301.6,3.51332e-09,0,125176,125176
301.65,3.48789e-09,0,125268,125268
301.7,3.46234e-09,0,125168,125168
301.751,3.43631e-09,0,125144,125144
301.8,3.41047e-09,0,125120,125120
301.85,3.38433e-09,0,125102,125102
301.9,3.35772e-09,0,125040,125040
301.951,3.33016e-09,0,125056,125056
302,3.30246e-09,0,125038,125038
302.05,3.27429e-09,0,125054,125054
302.101,3.24535e-09,0,125048,125048
302.15,3.21655e-09,0,124690,124690
302.2,3.18752e-09,0,123454,123454
302.25,3.15829e-09,0,122818,122818
302.301,3.12845e-09,0,122244,122244
302.35,3.09894e-09,0,121774,121774
302.4,3.06932e-09,0,120518,120518
302.451,3.03916e-09,0,118950,118950
302.5,3.00935e-09,0,117272,117272
302.55,2.97942e-09,0,115722,115722
302.6,2.94935e-09,0,114422,114422
302.651,2.91868e-09,0,113618,113618
302.7,2.88831e-09,0,112478,112478
302.75,2.85782e-09,0,111346,111346
302.8,2.82722e-09,0,110616,110616
302.851,2.79602e-09,0,109128,109128
302.9,2.76509e-09,0,107468,107468
302.95,2.73396e-09,0,105718,105718
303.001,2.70214e-09,0,103778,103778
303.05,2.67055e-09,0,102332,102332
303.1,2.63864e-09,0,100138,100138
303.15,2.60638e-09,0,99196,99196
303.201,2.5733e-09,0,98460,98460
303.25,2.54023e-09,0,97758,97758
303.3,2.50643e-09,0,96268,96268
303.351,2.47185e-09,0,95224,95224
303.401,2.43733e-09,0,94698,94698
303.45,2.40256e-09,0,93734,93734
303.5,2.36686e-09,0,92846,92846
303.551,2.33016e-09,0,91826,91826
303.6,2.29329e-09,0,90928,90928
303.65,2.25574e-09,0,89934,89934
303.7,2.21762e-09,0,89086,89086
303.751,2.17839e-09,0,88571,88571
303.8,2.13915e-09,0,88696,88696
303.85,2.09938e-09,0,88346,88346
303.901,2.05849e-09,0,88100,88100
303.95,2.01768e-09,0,87162,87162
304,1.97638e-09,0,85786,85786
304.05,1.93464e-09,0,84770,84770
304.101,1.8919e-09,0,83838,83838
304.15,1.84946e-09,0,83082,83082
304.2,1.80677e-09,0,82524,82524
304.251,1.76329e-09,0,81356,81356
304.301,1.72032e-09,0,80686,80686
304.35,1.67725e-09,0,80002,80002
304.4,1.63419e-09,0,79062,79062
304.451,1.59057e-09,0,79064,79064
304.5,1.54774e-09,0,78286,78286
304.55,1.50511e-09,0,77316,77316
304.6,1.46276e-09,0,76560,76560
304.651,1.42012e-09,0,75956,75956
304.7,1.37849e-09,0,75430,75430
304.75,1.33729e-09,0,74960,74960
304.801,1.29597e-09,0,74450,74450
304.85,1.25578e-09,0,73486,73486
304.9,1.21615e-09,0,73232,73232
304.95,1.17712e-09,0,72624,72624
