250,0,0,512,512
250.012,0,0,512,512
250.059,0,0,512,512
250.105,0,0,512,512
250.152,0,0,512,512
250.211,0,0,512,512
250.258,0,0,512,512
250.305,0,0,512,512
250.352,0,0,512,512
250.41,0,0,512,512
250.457,0,0,512,512
250.504,0,0,512,512
250.551,0,0,512,512
250.609,0,0,512,512
250.656,0,0,512,512
250.703,0,0,512,512
250.762,0,0,512,512
250.808,0,0,512,512
250.855,0,0,512,512
250.902,0,0,512,512
250.961,0,0,512,512
251.008,0,0,512,512
251.055,0,0,512,512
251.101,0,0,512,512
251.16,0,0,512,512
251.207,0,0,512,512
251.254,0,0,512,512
251.301,0,0,512,512
251.359,0,0,512,512
251.406,0,0,512,512
251.453,0,0,512,512
251.511,0,0,512,512
251.558,0,0,512,512
251.605,0,0,512,512
251.652,0,0,512,512
251.711,0,0,512,512
251.758,0,0,512,512
251.804,0,0,512,512
251.851,0,0,512,512
251.91,0,0,512,512
251.957,0,0,512,512
252.004,0,0,512,512
252.05,0,0,512,512
252.109,0,0,512,512
252.156,0,0,512,512
252.203,0,0,512,512
252.261,0,0,512,512
252.308,0,0,512,512
252.355,0,0,512,512
252.402,0,0,512,512
252.461,0,0,512,512
252.507,0,0,512,512
252.554,0,0,512,512
252.601,0,0,512,512
252.66,0,0,512,512
252.707,0,0,512,512
252.754,0,0,512,512
252.8,0,0,512,512
252.859,0,0,512,512
252.906,0,0,512,512
252.953,0,0,512,512
253.011,0,0,512,512
253.058,0,0,512,512
253.105,0,0,512,512
253.152,0,0,512,512
253.21,0,0,512,512
253.257,-1.38778e-17,0,512,512
253.304,-1.38778e-17,0,512,512
253.351,-1.38778e-17,0,512,512
253.41,-1.38778e-17,0,512,512
253.457,-1.38778e-17,0,512,512
253.503,-1.38778e-17,0,512,512
253.55,-1.38778e-17,0,512,512
253.609,-1.38778e-17,0,512,512
253.656,-1.38778e-17,0,512,512
253.703,-1.38778e-17,0,512,512
253.761,-1.38778e-17,0,512,512
253.808,-1.38778e-17,0,512,512
253.855,-1.38778e-17,0,512,512
253.902,-1.38778e-17,0,512,512
253.96,-1.38778e-17,0,512,512
254.007,-1.38778e-17,0,512,512
254.054,-1.38778e-17,0,512,512
254.101,-1.38778e-17,0,512,512
254.16,-1.38778e-17,0,512,512
254.206,-1.38778e-17,0,512,512
254.253,0,0,512,512
254.3,1.38778e-17,0,512,512
254.359,1.38778e-17,0,512,512
254.406,1.38778e-17,0,512,512
254.452,2.77556e-17,0,512,512
254.511,2.77556e-17,0,512,512
254.558,1.38778e-17,0,512,512
254.605,0,0,512,512
254.652,0,0,512,512
254.71,0,0,512,512
254.757,0,0,512,512
254.804,0,0,512,512
254.851,0,0,512,512
254.909,0,0,512,512
254.956,0,0,512,512
255.003,0,0,512,512
255.05,-1.38778e-17,0,512,512
255.109,-1.38778e-17,0,512,512
255.155,-1.38778e-17,0,512,512
255.202,-2.77556e-17,0,512,512
255.261,-2.77556e-17,0,512,512
255.308,-2.77556e-17,0,512,512
255.355,-2.77556e-17,0,512,512
255.402,-2.77556e-17,0,512,512
255.46,-1.38778e-17,0,512,512
255.507,-1.38778e-17,0,512,512
255.554,-1.38778e-17,0,512,512
255.601,-1.38778e-17,0,512,512
255.659,-1.38778e-17,0,512,512
255.706,-1.38778e-17,0,512,512
255.753,-1.38778e-17,0,512,512
255.812,-1.38778e-17,0,512,512
255.859,-1.38778e-17,0,512,512
255.905,-1.38778e-17,0,512,512
255.952,-1.38778e-17,0,512,512
256.011,0,0,512,512
256.058,1.38778e-17,0,512,512
256.105,1.38778e-17,0,512,512
256.151,1.38778e-17,0,512,512
256.21,1.38778e-17,0,512,512
256.257,1.38778e-17,0,512,512
256.304,1.38778e-17,0,512,512
256.351,1.38778e-17,0,512,512
256.409,1.38778e-17,0,512,512
256.456,1.38778e-17,0,512,512
256.503,1.38778e-17,0,512,512
256.562,1.38778e-17,0,512,512
256.608,1.38778e-17,0,512,512
256.655,1.38778e-17,0,512,512
256.702,1.38778e-17,0,512,512
256.761,0,0,512,512
256.808,0,0,512,512
256.854,0,0,512,512
256.901,0,0,512,512
256.96,0,0,512,512
257.007,0,0,512,512
257.054,0,0,512,512
257.101,0,0,512,512
257.159,0,0,512,512
257.206,0,0,512,512
257.253,0,0,512,512
257.311,0,0,512,512
257.358,1.38778e-17,0,512,512
257.405,0,0,512,512
257.452,0,0,512,512
257.511,1.38778e-17,0,512,512
257.557,0,0,512,512
257.604,0,0,512,512
257.651,0,0,512,512
257.71,1.38778e-17,0,512,512
257.757,0,0,512,512
257.804,0,0,512,512
257.85,1.38778e-17,0,512,512
257.909,0,0,512,512
257.956,0,0,512,512
258.003,0,0,512,512
258.061,0,0,512,512
258.108,0,0,512,512
258.155,0,0,512,512
258.202,0,0,512,512
258.261,0,0,512,512
258.307,0,0,512,512
258.354,0,0,512,512
258.401,0,0,512,512
258.46,0,0,512,512
258.507,-1.38778e-17,0,512,512
258.553,-1.38778e-17,0,512,512
258.6,-1.38778e-17,0,512,512
258.659,-1.38778e-17,0,512,512
258.706,-1.38778e-17,0,512,512
258.753,-1.38778e-17,0,512,512
258.811,-1.38778e-17,0,512,512
258.858,-1.38778e-17,0,512,512
258.905,-1.38778e-17,0,512,512
258.952,-1.38778e-17,0,512,512
259.01,-1.38778e-17,0,512,512
259.057,-1.38778e-17,0,512,512
259.104,-1.38778e-17,0,512,512
259.151,-1.38778e-17,0,512,512
259.21,1.38778e-17,0,512,512
259.256,1.38778e-17,0,512,512
259.303,1.38778e-17,0,512,512
259.35,2.77556e-17,0,512,512
259.409,2.77556e-17,0,512,512
259.456,2.77556e-17,0,512,512
259.503,2.77556e-17,0,512,512
259.561,2.77556e-17,0,512,512
259.608,2.77556e-17,0,512,512
259.655,2.77556e-17,0,512,512
259.702,2.77556e-17,0,512,512
259.76,2.77556e-17,0,512,512
259.807,2.77556e-17,0,512,512
259.854,2.77556e-17,0,512,512
259.901,2.77556e-17,0,512,512
259.959,2.77556e-17,0,512,512
260.006,2.77556e-17,0,512,512
260.053,2.77556e-17,0,512,512
260.1,2.77556e-17,0,512,512
260.159,2.77556e-17,0,512,512
260.206,2.77556e-17,0,512,512
260.252,2.77556e-17,0,512,512
260.311,1.38778e-17,0,512,512
260.358,1.38778e-17,0,512,512
260.405,0,0,512,512
260.452,0,0,512,512
260.51,0,0,512,512
260.557,0,0,512,512
260.604,0,0,512,512
260.651,-1.38778e-17,0,512,512
260.709,-1.38778e-17,0,512,512
260.756,-1.38778e-17,0,512,512
260.803,-1.38778e-17,0,512,512
260.862,0,0,512,512
260.909,0,0,512,512
260.955,0,0,512,512
261.002,1.38778e-17,0,512,512
261.061,0,0,512,512
261.108,0,0,512,512
261.155,1.38778e-17,0,512,512
261.201,1.38778e-17,0,512,512
261.26,1.38778e-17,0,512,512
261.307,1.38778e-17,0,512,512
261.354,1.38778e-17,0,512,512
261.401,1.38778e-17,0,512,512
261.459,2.77556e-17,0,512,512
261.506,2.77556e-17,0,512,512
261.553,1.38778e-17,0,512,512
261.612,1.38778e-17,0,512,512
261.658,1.38778e-17,0,512,512
261.705,1.38778e-17,0,512,512
261.752,1.38778e-17,0,512,512
261.811,1.38778e-17,0,512,512
261.858,0,0,512,512
261.905,0,0,512,512
261.951,0,0,512,512
262.01,0,0,512,512
262.057,0,0,512,512
262.104,0,0,512,512
262.151,-1.38778e-17,0,512,512
262.209,0,0,512,512
262.256,-1.38778e-17,0,512,512
262.303,-1.38778e-17,0,512,512
262.361,-1.38778e-17,0,512,512
262.408,-1.38778e-17,0,512,512
262.455,-1.38778e-17,0,512,512
262.502,-1.38778e-17,0,512,512
262.561,-1.38778e-17,0,512,512
262.608,-1.38778e-17,0,512,512
262.654,-1.38778e-17,0,512,512
262.701,-1.38778e-17,0,512,512
262.76,-1.38778e-17,0,512,512
262.807,-1.38778e-17,0,512,512
262.854,-1.38778e-17,0,512,512
262.9,-1.38778e-17,0,512,512
262.959,-1.38778e-17,0,512,512
263.006,-1.38778e-17,0,512,512
263.053,-1.38778e-17,0,512,512
263.111,-1.38778e-17,0,512,512
263.158,-1.38778e-17,0,512,512
263.205,-1.38778e-17,0,512,512
263.252,-1.38778e-17,0,512,512
263.311,-1.38778e-17,0,512,512
263.357,-1.38778e-17,0,512,512
263.404,-2.77556e-17,0,512,512
263.451,-1.38778e-17,0,512,512
263.51,-2.77556e-17,0,512,512
263.557,-1.38778e-17,0,512,512
263.603,-2.77556e-17,0,512,512
263.65,-2.77556e-17,0,512,512
263.709,-2.77556e-17,0,512,512
263.756,-2.77556e-17,0,512,512
263.803,-2.77556e-17,0,512,512
263.861,-1.38778e-17,0,512,512
263.908,-2.77556e-17,0,512,512
263.955,-2.77556e-17,0,512,512
264.002,-1.38778e-17,0,512,512
264.06,-1.38778e-17,0,512,512
264.107,-1.38778e-17,0,512,512
264.154,-2.77556e-17,0,512,512
264.201,-1.38778e-17,0,512,512
264.26,-1.38778e-17,0,512,512
264.306,-1.38778e-17,0,512,512
264.353,-2.77556e-17,0,512,512
264.4,-1.38778e-17,0,512,512
264.459,-1.38778e-17,0,512,512
264.506,-1.38778e-17,0,512,512
264.553,-2.77556e-17,0,512,512
264.611,-1.38778e-17,0,512,512
264.658,0,0,512,512
264.705,0,0,512,512
264.752,0,0,512,512
264.81,0,0,512,512
264.857,0,0,512,512
264.904,0,0,512,512
264.951,0,0,512,512
265.01,0,0,512,512
265.056,0,0,512,512
265.103,-1.38778e-17,0,512,512
265.15,-1.38778e-17,0,512,512
265.209,-1.38778e-17,0,512,512
265.256,-1.38778e-17,0,512,512
265.302,-1.38778e-17,0,512,512
265.361,-1.38778e-17,0,512,512
265.408,-1.38778e-17,0,512,512
265.455,-1.38778e-17,0,512,512
265.502,-1.38778e-17,0,512,512
265.56,-1.38778e-17,0,512,512
265.607,-1.38778e-17,0,512,512
265.654,-1.38778e-17,0,512,512
265.701,-1.38778e-17,0,512,512
265.759,-1.38778e-17,0,512,512
265.806,-1.38778e-17,0,512,512
265.853,-1.38778e-17,0,512,512
265.9,-1.38778e-17,0,512,512
265.959,-1.38778e-17,0,512,512
266.005,-1.38778e-17,0,512,512
266.052,-1.38778e-17,0,512,512
266.111,-1.38778e-17,0,512,512
266.158,-1.38778e-17,0,512,512
266.205,-1.38778e-17,0,512,512
266.252,0,0,512,512
266.31,1.38778e-17,0,512,512
266.357,2.77556e-17,0,512,512
266.404,4.16334e-17,0,512,512
266.451,2.77556e-17,0,512,512
266.509,1.38778e-17,0,512,512
266.556,2.77556e-17,0,512,512
266.603,2.77556e-17,0,512,512
266.662,2.77556e-17,0,512,512
266.708,1.38778e-17,0,512,512
266.755,2.77556e-17,0,512,512
266.802,1.38778e-17,0,512,512
266.861,1.38778e-17,0,512,512
266.908,1.38778e-17,0,512,512
266.955,2.77556e-17,0,512,512
267.001,2.77556e-17,0,512,512
267.06,1.38778e-17,0,512,512
267.107,1.38778e-17,0,512,512
267.154,1.38778e-17,0,512,512
267.201,1.38778e-17,0,512,512
267.259,1.38778e-17,0,512,512
267.306,1.38778e-17,0,512,512
267.353,1.38778e-17,0,512,512
267.412,1.38778e-17,0,512,512
267.458,1.38778e-17,0,512,512
267.505,1.38778e-17,0,512,512
267.552,1.38778e-17,0,512,512
267.611,1.38778e-17,0,512,512
267.658,1.38778e-17,0,512,512
267.704,1.38778e-17,0,512,512
267.751,1.38778e-17,0,512,512
267.81,1.38778e-17,0,512,512
267.857,1.38778e-17,0,512,512
267.904,1.38778e-17,0,512,512
267.95,1.38778e-17,0,512,512
268.009,1.38778e-17,0,512,512
268.056,1.38778e-17,0,512,512
268.105,1.38778e-17,0,537,537
268.152,1.38778e-17,0,549,549
268.205,1.38778e-17,0,567,567
268.252,1.38778e-17,0,573,573
268.304,1.38778e-17,0,591,591
268.351,1.38778e-17,0,603,603
268.404,1.38778e-17,0,615,615
268.451,1.38778e-17,0,621,621
268.504,1.38778e-17,0,639,639
268.55,1.38778e-17,0,645,645
268.603,1.38778e-17,0,657,657
268.65,1.38778e-17,0,669,669
268.703,1.38778e-17,0,681,681
268.756,1.38778e-17,0,693,693
268.802,1.38778e-17,0,705,705
268.855,1.38778e-17,0,717,717
268.902,1.38778e-17,0,729,729
268.955,1.38778e-17,0,735,735
269.002,1.38778e-17,0,747,747
269.054,1.38778e-17,0,759,759
269.101,1.38778e-17,0,765,765
269.154,1.38778e-17,0,777,777
269.201,1.38778e-17,0,789,789
269.254,1.38778e-17,0,801,801
269.3,1.38778e-17,0,813,813
269.353,1.38778e-17,0,825,825
269.406,1.38778e-17,0,837,837
269.453,1.38778e-17,0,849,849
269.505,1.38778e-17,0,861,861
269.552,1.38778e-17,0,873,873
269.605,1.38778e-17,0,885,885
269.652,1.38778e-17,0,891,891
269.705,1.38778e-17,0,903,903
269.751,1.38778e-17,0,915,915
269.804,1.38778e-17,0,927,927
269.851,1.38778e-17,0,939,939
269.904,1.38778e-17,0,951,951
269.951,1.38778e-17,0,963,963
270.003,1.38778e-17,0,975,975
270.05,1.38778e-17,0,981,981
270.103,1.38778e-17,0,993,993
270.156,1.38778e-17,0,1005,1005
270.203,1.38778e-17,0,1017,1017
270.255,1.38778e-17,0,1029,1029
270.302,1.38778e-17,0,1035,1035
270.355,1.38778e-17,0,1047,1047
270.402,1.38778e-17,0,1059,1059
270.455,1.38778e-17,0,1071,1071
270.501,1.38778e-17,0,1079,1079
270.554,1.38778e-17,0,1089,1089
270.601,1.38778e-17,0,1101,1101
270.654,1.38778e-17,0,1113,1113
270.701,1.38778e-17,0,1121,1121
270.753,1.38778e-17,0,1133,1133
270.8,1.38778e-17,0,1143,1143
270.853,1.38778e-17,0,1155,1155
270.906,1.38778e-17,0,1167,1167
270.952,1.38778e-17,0,1173,1173
271.005,1.38778e-17,0,1185,1185
271.052,1.38778e-17,0,1197,1197
271.105,1.38778e-17,0,1203,1203
271.152,1.38778e-17,0,1215,1215
271.204,1.38778e-17,0,1227,1227
271.251,1.38778e-17,0,1233,1233
271.304,1.38778e-17,0,1245,1245
271.351,1.38778e-17,0,1257,1257
271.404,1.38778e-17,0,1263,1263
271.45,1.38778e-17,0,1275,1275
271.503,1.38778e-17,0,1287,1287
271.55,1.38778e-17,0,1293,1293
271.603,1.38778e-17,0,1305,1305
271.655,1.38778e-17,0,1317,1317
271.702,1.38778e-17,0,1323,1323
271.755,1.38778e-17,0,1335,1335
271.802,1.38778e-17,0,1341,1341
271.855,1.38778e-17,0,1353,1353
271.902,1.38778e-17,0,1359,1359
271.954,1.38778e-17,0,1371,1371
272.001,1.38778e-17,0,1383,1383
272.054,1.38778e-17,0,1389,1389
272.101,1.38778e-17,0,1401,1401
272.153,1.38778e-17,0,1407,1407
272.2,1.38778e-17,0,1419,1419
272.253,1.38778e-17,0,1425,1425
272.306,1.38778e-17,0,1437,1437
272.353,1.38778e-17,0,1443,1443
272.405,1.38778e-17,0,1455,1455
272.452,1.38778e-17,0,1461,1461
272.505,1.38778e-17,0,1473,1473
272.552,1.38778e-17,0,1479,1479
272.605,1.38778e-17,0,1491,1491
272.651,1.38778e-17,0,1497,1497
272.704,1.38778e-17,0,1509,1509
272.751,1.38778e-17,0,1515,1515
272.804,1.38778e-17,0,1527,1527
272.851,1.38778e-17,0,1533,1533
272.903,1.38778e-17,0,1545,1545
272.95,1.38778e-17,0,1551,1551
273.003,1.38778e-17,0,1563,1563
273.056,1.38778e-17,0,1569,1569
273.103,1.38778e-17,0,1581,1581
273.155,1.38778e-17,0,1587,1587
273.202,1.38778e-17,0,1599,1599
273.255,1.38778e-17,0,1605,1605
273.302,1.38778e-17,0,1613,1613
273.354,1.38778e-17,0,1623,1623
273.401,1.38778e-17,0,1629,1629
273.454,1.38778e-17,0,1641,1641
273.501,1.38778e-17,0,1647,1647
273.554,1.38778e-17,0,1659,1659
273.601,1.38778e-17,0,1665,1665
273.653,1.38778e-17,0,1677,1677
273.7,1.38778e-17,0,1683,1683
273.753,1.38778e-17,0,1685,1685
273.806,1.38778e-17,0,1701,1701
273.852,1.38778e-17,0,1707,1707
273.905,1.38778e-17,0,1719,1719
273.952,1.38778e-17,0,1725,1725
274.005,1.38778e-17,0,1737,1737
274.052,1.38778e-17,0,1743,1743
274.104,1.38778e-17,0,1749,1749
274.151,1.38778e-17,0,1761,1761
274.204,1.38778e-17,0,1767,1767
274.251,0,0,1775,1775
274.304,-9.71445e-17,0,1785,1785
274.35,-2.08167e-16,0,1791,1791
274.403,-3.46945e-16,0,1803,1803
274.456,-6.10623e-16,0,1809,1809
274.503,-1.08247e-15,0,1821,1821
274.555,-2.17881e-15,0,1827,1827
274.602,-4.08007e-15,0,1833,1833
274.655,-8.09075e-15,0,1845,1845
274.702,-1.45162e-14,0,1851,1851
274.755,-2.70894e-14,0,1855,1855
274.802,-4.57689e-14,0,1861,1861
274.854,-7.98389e-14,0,1871,1871
274.901,-1.27259e-13,0,1881,1881
274.954,-2.08639e-13,0,1893,1893
275.001,-3.1565e-13,0,1899,1899
275.053,-4.89622e-13,0,1911,1911
275.1,-7.12166e-13,0,1917,1917
275.153,-1.31754e-12,0,1923,1923
275.206,-3.27835e-12,0,1935,1935
275.253,-6.45206e-12,0,1937,1937
275.305,-1.2491e-11,0,1947,1947
275.352,-2.07531e-11,0,1955,1955
275.405,-3.38408e-11,0,1965,1965
275.452,-4.86456e-11,0,1971,1971
275.505,-6.75626e-11,0,1977,1977
275.551,-8.43456e-11,0,1983,1983
275.604,-9.9994e-11,0,1995,1995
275.651,-1.08204e-10,0,2001,2001
275.704,-1.08559e-10,0,2007,2007
275.751,-1.00196e-10,0,2013,2013
275.803,-8.19072e-11,0,2019,2019
275.85,-5.98261e-11,0,2025,2025
275.903,-3.16558e-11,0,2031,2031
275.956,-3.27866e-12,0,2039,2039
276.003,1.99822e-11,0,2044,2044
276.055,4.25424e-11,0,2048,2048
276.102,5.89674e-11,0,2048,2048
276.155,7.35181e-11,0,2048,2048
276.202,8.34114e-11,0,2048,2048
276.254,9.18186e-11,0,2048,2048
276.301,9.7503e-11,0,2048,2048
276.354,1.02544e-10,0,2048,2048
276.401,1.06232e-10,0,2048,2048
276.454,1.09754e-10,0,2048,2048
276.5,1.12423e-10,0,2048,2048
276.553,1.14963e-10,0,2048,2048
276.6,1.16888e-10,0,2048,2048
276.653,1.18815e-10,0,2048,2048
276.706,1.20633e-10,0,2048,2048
276.752,1.22242e-10,0,2048,2048
276.805,1.24209e-10,0,2048,2048
276.852,1.26585e-10,0,2048,2048
276.905,1.31641e-10,0,2048,2048
276.952,1.4171e-10,0,2048,2048
277.004,1.67995e-10,0,2048,2048
277.051,2.19028e-10,0,2048,2048
277.104,3.37222e-10,0,2048,2048
277.151,5.36564e-10,0,2048,2048
277.203,9.33989e-10,0,2048,2048
277.25,1.51398e-09,0,2048,2048
277.303,2.51661e-09,0,2048,2048
277.356,3.9864e-09,0,2048,2048
277.403,5.74886e-09,0,2048,2048
277.455,8.2845e-09,0,2048,2048
277.502,1.10355e-08,0,2048,2048
277.555,1.46736e-08,0,2048,2048
277.602,1.83756e-08,0,2048,2048
277.655,2.3077e-08,0,2048,2048
277.701,2.77882e-08,0,2048,2048
277.754,3.38263e-08,0,2048,2048
277.801,4.00405e-08,0,2048,2048
277.854,4.82905e-08,0,2048,2048
277.901,5.70665e-08,0,2048,2048
277.953,6.89981e-08,0,2048,2048
278,8.18393e-08,0,2048,2048
278.053,9.92904e-08,0,2048,2048
278.106,1.20429e-07,0,2048,2048
278.153,1.42701e-07,0,2048,2048
278.205,1.72023e-07,0,2048,2048
278.252,2.02084e-07,0,2048,2048
278.305,2.40493e-07,0,2048,2048
278.352,2.78661e-07,0,2048,2048
278.404,3.25897e-07,0,2048,2048
278.451,3.71354e-07,0,2048,2048
278.504,4.25811e-07,0,2048,2048
278.551,4.7651e-07,0,2048,2048
278.604,5.35179e-07,0,2048,2048
278.651,5.87832e-07,0,2048,2048
278.703,6.46399e-07,0,2048,2048
278.75,6.96759e-07,0,2048,2048
278.803,7.50238e-07,0,2048,2048
278.856,7.99147e-07,0,2048,2048
278.902,8.37953e-07,0,2048,2048
278.955,8.75686e-07,0,2048,2048
279.002,9.03616e-07,0,2048,2048
279.055,9.28556e-07,0,2048,2048
279.102,9.44972e-07,0,2048,2048
279.154,9.57077e-07,0,2048,2048
279.201,9.62306e-07,0,2048,2048
279.254,9.62101e-07,0,2048,2048
279.301,9.5661e-07,0,2048,2048
279.354,9.44584e-07,0,2048,2048
279.4,9.28848e-07,0,2048,2048
279.453,9.05758e-07,0,2048,2048
279.5,8.80833e-07,0,2048,2048
279.553,8.48488e-07,0,2048,2048
279.605,8.12481e-07,0,2048,2048
279.652,7.78296e-07,0,2048,2048
279.705,7.38498e-07,0,2048,2048
279.752,7.02914e-07,0,2048,2048
279.805,6.6377e-07,0,2048,2048
279.852,6.30658e-07,0,2048,2048
279.904,5.96238e-07,0,2048,2048
279.951,5.68865e-07,0,2048,2048
280.004,5.42408e-07,0,2048,2048
280.051,5.23263e-07,0,2048,2048
280.103,5.07139e-07,0,2048,2048
280.15,4.9794e-07,0,2048,2048
280.203,4.93606e-07,0,2048,2048
280.256,4.95722e-07,0,2048,2048
280.303,5.02933e-07,0,2048,2048
280.355,5.16774e-07,0,2048,2048
280.402,5.33798e-07,0,2048,2048
280.455,5.57677e-07,0,2048,2048
280.502,5.82489e-07,0,2048,2048
280.555,6.13593e-07,0,2048,2048
280.601,6.43259e-07,0,2048,2048
280.654,6.77855e-07,0,2048,2048
280.701,7.08742e-07,0,2048,2048
280.754,7.42511e-07,0,2048,2048
280.801,7.70721e-07,0,2048,2048
280.853,7.9942e-07,0,2048,2048
280.9,8.21495e-07,0,2048,2048
280.953,8.4177e-07,0,2048,2048
281.006,8.56676e-07,0,2048,2048
281.053,8.6511e-07,0,2048,2048
281.105,8.68969e-07,0,2048,2048
281.152,8.67305e-07,0,2048,2048
281.205,8.59672e-07,0,2048,2048
281.252,8.47793e-07,0,2048,2048
281.304,8.28787e-07,0,2048,2048
281.351,8.07012e-07,0,2048,2048
281.404,7.77262e-07,0,2048,2048
281.451,7.46438e-07,0,2048,2048
281.504,7.07283e-07,0,2048,2048
281.551,6.68984e-07,0,2048,2048
281.603,6.22641e-07,0,2048,2048
281.65,5.79202e-07,0,2048,2048
281.703,5.28628e-07,0,2048,2048
281.756,4.77134e-07,0,2048,2048
281.802,4.31316e-07,0,2048,2048
281.855,3.80482e-07,0,2048,2048
281.902,3.3651e-07,0,2048,2048
281.955,2.88987e-07,0,2048,2048
282.002,2.48877e-07,0,2048,2048
282.054,2.06513e-07,0,2048,2048
282.101,1.71529e-07,0,2048,2048
282.154,1.35336e-07,0,2048,2048
282.201,1.06039e-07,0,2048,2048
282.254,7.63068e-08,0,2048,2048
282.3,5.26886e-08,0,2048,2048
282.353,2.91598e-08,0,2048,2048
282.406,8.68323e-09,0,2048,2048
282.453,-7.11985e-09,0,2048,2048
282.505,-2.24005e-08,0,2048,2048
282.552,-3.39398e-08,0,2048,2048
282.605,-4.48288e-08,0,2048,2048
282.652,-5.28194e-08,0,2048,2048
282.705,-6.01007e-08,0,2048,2048
282.752,-6.52077e-08,0,2048,2048
282.804,-6.9581e-08,0,2048,2048
282.851,-7.23747e-08,0,2048,2048
282.904,-7.44178e-08,0,2048,2048
282.951,-7.53545e-08,0,2048,2048
283.003,-7.55217e-08,0,2048,2048
283.05,-7.49628e-08,0,2048,2048
283.103,-7.36288e-08,0,2048,2048
283.156,-7.16446e-08,0,2048,2048
283.203,-6.94187e-08,0,2048,2048
283.255,-6.6493e-08,0,2048,2048
283.302,-6.36033e-08,0,2048,2048
283.355,-6.01273e-08,0,2048,2048
283.402,-5.69194e-08,0,2048,2048
283.455,-5.32661e-08,0,2048,2048
283.501,-5.00453e-08,0,2048,2048
283.554,-4.65167e-08,0,2048,2048
283.601,-4.35083e-08,0,2048,2048
283.654,-4.03062e-08,0,2048,2048
283.701,-3.76445e-08,0,2048,2048
283.753,-3.48744e-08,0,2048,2048
283.8,-3.26184e-08,0,2048,2048
283.853,-3.03149e-08,0,2048,2048
283.906,-2.82569e-08,0,2048,2048
283.953,-2.66285e-08,0,2048,2048
284.005,-2.50145e-08,0,2048,2048
284.052,-2.37649e-08,0,2048,2048
284.105,-2.2556e-08,0,2048,2048
284.152,-2.16458e-08,0,2048,2048
284.204,-2.07936e-08,0,2048,2048
284.251,-2.01771e-08,0,2048,2048
284.304,-1.96281e-08,0,2048,2048
284.351,-1.92566e-08,0,2048,2048
284.404,-1.89558e-08,0,2048,2048
284.45,-1.87809e-08,0,2048,2048
284.503,-1.86753e-08,0,2048,2048
284.55,-1.8652e-08,0,2048,2048
284.603,-1.8694e-08,0,2048,2048
284.656,-1.87969e-08,0,2048,2048
284.702,-1.89311e-08,0,2048,2048
284.755,-1.91217e-08,0,2048,2048
284.802,-1.93197e-08,0,2048,2048
284.855,-1.95678e-08,0,2048,2048
284.902,-1.9806e-08,0,2048,2048
284.954,-2.00884e-08,0,2048,2048
285.001,-2.03486e-08,0,2048,2048
285.054,-2.06479e-08,0,2048,2048
285.101,-2.09172e-08,0,2048,2048
285.154,-2.12214e-08,0,2048,2048
285.2,-2.14914e-08,0,2048,2048
285.253,-2.17935e-08,0,2048,2048
285.306,-2.20934e-08,0,2048,2048
285.353,-2.2358e-08,0,2048,2048
285.405,-2.26542e-08,0,2048,2048
285.452,-2.29171e-08,0,2048,2048
285.505,-2.32139e-08,0,2048,2048
285.552,-2.34802e-08,0,2048,2048
285.605,-2.37848e-08,0,2048,2048
285.651,-2.4062e-08,0,2048,2048
285.704,-2.43835e-08,0,2048,2048
285.751,-2.46797e-08,0,2048,2048
285.804,-2.50269e-08,0,2048,2048
285.851,-2.53497e-08,0,2048,2048
285.903,-2.57301e-08,0,2048,2048
285.95,-2.60847e-08,0,2048,2048
286.003,-2.65029e-08,0,2048,2048
286.056,-2.69415e-08,0,2048,2048
286.103,-2.73484e-08,0,2048,2048
286.155,-2.78244e-08,0,2048,2048
286.202,-2.82625e-08,0,2048,2048
286.255,-2.87707e-08,0,2048,2048
286.302,-2.9234e-08,0,2048,2048
286.354,-2.9766e-08,0,2048,2048
286.401,-3.0246e-08,0,2048,2048
286.454,-3.07911e-08,0,2048,2048
286.501,-3.12776e-08,0,2048,2048
286.554,-3.1824e-08,0,2048,2048
286.601,-3.23061e-08,0,2048,2048
286.653,-3.28416e-08,0,2048,2048
286.7,-3.33089e-08,0,2048,2048
286.753,-3.38222e-08,0,2048,2048
286.806,-3.43197e-08,0,2048,2048
286.852,-3.47468e-08,0,2048,2048
286.905,-3.52086e-08,0,2048,2048
286.952,-3.56011e-08,0,2048,2048
287.005,-3.60218e-08,0,2048,2048
287.052,-3.63768e-08,0,2048,2048
287.104,-3.67547e-08,0,2048,2048
287.151,-3.7072e-08,0,2048,2048
287.204,-3.7409e-08,0,2048,2048
287.251,-3.76919e-08,0,2048,2048
287.304,-3.79933e-08,0,2048,2048
287.35,-3.82481e-08,0,2048,2048
287.403,-3.85221e-08,0,2048,2048
287.45,-3.87569e-08,0,2048,2048
287.503,-3.90138e-08,0,2048,2048
287.555,-3.92661e-08,0,2048,2048
287.602,-3.94891e-08,0,2048,2048
287.655,-3.97412e-08,0,2048,2048
287.702,-3.99686e-08,0,2048,2048
287.755,-4.02307e-08,0,2048,2048
287.802,-4.04708e-08,0,2048,2048
287.854,-4.07509e-08,0,2048,2048
287.901,-4.10098e-08,0,2048,2048
287.954,-4.13131e-08,0,2048,2048
288.001,-4.15938e-08,0,2048,2048
288.053,-4.1922e-08,0,2048,2048
288.1,-4.22243e-08,0,2048,2048
288.153,-4.25753e-08,0,2048,2048
288.206,-4.29363e-08,0,2048,2048
288.253,-4.3264e-08,0,2048,2048
288.305,-4.36382e-08,0,2048,2048
288.352,-4.39735e-08,0,2048,2048
288.405,-4.43511e-08,0,2048,2048
288.452,-4.46847e-08,0,2048,2048
288.505,-4.50546e-08,0,2048,2048
288.551,-4.5376e-08,0,2048,2048
288.604,-4.57263e-08,0,2048,2048
288.651,-4.60251e-08,0,2048,2048
288.704,-4.63443e-08,0,2048,2048
288.751,-4.66108e-08,0,2048,2048
288.803,-4.68886e-08,0,2048,2048
288.85,-4.71143e-08,0,2048,2048
288.903,-4.73425e-08,0,2048,2048
288.956,-4.75418e-08,0,2048,2048
289.003,-4.76937e-08,0,2048,2048
289.055,-4.78356e-08,0,2048,2048
289.102,-4.79356e-08,0,2048,2048
289.155,-4.80186e-08,0,2048,2048
289.202,-4.80666e-08,0,2048,2048
289.254,-4.80922e-08,0,2048,2048
289.301,-4.80906e-08,0,2048,2048
289.354,-4.80625e-08,0,2048,2048
289.401,-4.80155e-08,0,2048,2048
289.454,-4.79395e-08,0,2048,2048
289.501,-4.78529e-08,0,2048,2048
289.553,-4.77358e-08,0,2048,2048
289.6,-4.76159e-08,0,2048,2048
289.653,-4.74652e-08,0,2048,2048
289.706,-4.72997e-08,0,2048,2048
289.752,-4.71418e-08,0,2048,2048
289.805,-4.6954e-08,0,2048,2048
289.852,-4.67793e-08,0,2048,2048
289.905,-4.65758e-08,0,2048,2048
289.952,-4.63898e-08,0,2048,2048
290.004,-4.61764e-08,0,2048,2048
290.051,-4.59839e-08,0,2048,2048
290.104,-4.57654e-08,0,2048,2048
290.151,-4.55702e-08,0,2048,2048
290.204,-4.53505e-08,0,2048,2048
290.25,-4.51556e-08,0,2048,2048
290.303,-4.49376e-08,0,2048,2048
290.356,-4.47213e-08,0,2048,2048
290.403,-4.45309e-08,0,2048,2048
290.455,-4.4319e-08,0,2048,2048
290.502,-4.41329e-08,0,2048,2048
290.555,-4.39261e-08,0,2048,2048
290.602,-4.37447e-08,0,2048,2048
290.655,-4.35433e-08,0,2048,2048
290.701,-4.33664e-08,0,2048,2048
290.754,-4.31697e-08,0,2048,2048
290.801,-4.29967e-08,0,2048,2048
290.854,-4.28038e-08,0,2048,2048
290.901,-4.26336e-08,0,2048,2048
290.953,-4.24431e-08,0,2048,2048
291,-4.22744e-08,0,2048,2048
291.053,-4.20847e-08,0,2048,2048
291.106,-4.18946e-08,0,2048,2048
291.153,-4.17249e-08,0,2048,2048
291.205,-4.15326e-08,0,2048,2048
291.252,-4.13601e-08,0,2048,2048
291.305,-4.11635e-08,0,2048,2048
291.352,-4.0986e-08,0,2048,2048
291.405,-4.07827e-08,0,2048,2048
291.451,-4.05983e-08,0,2048,2048
291.504,-4.03859e-08,0,2048,2048
291.551,-4.01921e-08,0,2048,2048
291.604,-3.99676e-08,0,2048,2048
291.651,-3.97617e-08,0,2048,2048
291.703,-3.95218e-08,0,2048,2048
291.75,-3.93004e-08,0,2048,2048
291.803,-3.9041e-08,0,2048,2048
291.856,-3.87693e-08,0,2048,2048
291.902,-3.85163e-08,0,2048,2048
291.955,-3.82172e-08,0,2048,2048
292.002,-3.7937e-08,0,2048,2048
292.055,-3.7604e-08,0,2048,2048
292.102,-3.72907e-08,0,2048,2048
292.154,-3.69169e-08,0,2048,2048
292.201,-3.65642e-08,0,2048,2048
292.254,-3.61426e-08,0,2048,2048
292.301,-3.57443e-08,0,2048,2048
292.354,-3.52684e-08,0,2048,2048
292.4,-3.48193e-08,0,2048,2048
292.453,-3.42838e-08,0,2048,2048
292.5,-3.37804e-08,0,2048,2048
292.553,-3.31827e-08,0,2048,2048
292.606,-3.2552e-08,0,2048,2048
292.652,-3.19639e-08,0,2048,2048
292.705,-3.12726e-08,0,2048,2048
292.752,-3.06328e-08,0,2048,2048
292.805,-2.98864e-08,0,2048,2048
292.852,-2.92012e-08,0,2048,2048
292.904,-2.84086e-08,0,2048,2048
292.951,-2.76871e-08,0,2048,2048
293.004,-2.68598e-08,0,2048,2048
293.051,-2.61135e-08,0,2048,2048
293.103,-2.52652e-08,0,2048,2048
293.15,-2.45067e-08,0,2048,2048
293.203,-2.36521e-08,0,2048,2048
293.256,-2.28e-08,0,2048,2048
293.303,-2.2048e-08,0,2048,2048
293.355,-2.12115e-08,0,2048,2048
293.402,-2.04791e-08,0,2048,2048
293.455,-1.96705e-08,0,2048,2048
293.502,-1.89676e-08,0,2048,2048
293.555,-1.81967e-08,0,2048,2048
293.601,-1.75307e-08,0,2048,2048
293.654,-1.68041e-08,0,2048,2048
293.701,-1.61791e-08,0,2048,2048
293.754,-1.54996e-08,0,2048,2048
293.801,-1.49164e-08,0,2048,2048
293.853,-1.42829e-08,0,2048,2048
293.9,-1.37389e-08,0,2048,2048
293.953,-1.31465e-08,0,2048,2048
294.006,-1.2573e-08,0,2048,2048
294.053,-1.20767e-08,0,2048,2048
294.105,-1.15312e-08,0,2048,2048
294.152,-1.10552e-08,0,2048,2048
294.205,-1.05268e-08,0,2048,2048
294.252,-1.00608e-08,0,2048,2048
294.304,-9.53786e-09,0,2048,2048
294.351,-9.07184e-09,0,2048,2048
294.404,-8.54359e-09,0,2048,2048
294.451,-8.06853e-09,0,2048,2048
294.504,-7.52586e-09,0,2048,2048
294.551,-7.03476e-09,0,2048,2048
294.603,-6.47122e-09,0,2048,2048
294.65,-5.95977e-09,0,2048,2048
294.703,-5.37217e-09,0,2048,2048
294.756,-4.77173e-09,0,2048,2048
294.802,-4.22771e-09,0,2048,2048
294.855,-3.6051e-09,0,2048,2048
294.902,-3.04345e-09,0,2048,2048
294.955,-2.40417e-09,0,2048,2048
295.002,-1.83117e-09,0,2048,2048
295.054,-1.18373e-09,0,2048,2048
295.101,-6.08124e-10,0,2048,2048
295.154,3.64468e-11,0,2048,2048
295.201,6.03905e-10,0,2048,2048
295.254,1.2326e-09,0,2048,2048
295.3,1.77972e-09,0,2048,2048
295.353,2.3783e-09,0,2048,2048
295.4,2.89213e-09,0,2048,2048
295.453,3.44596e-09,0,2048,2048
295.505,3.97037e-09,0,2048,2048
295.552,4.4088e-09,0,2048,2048
295.605,4.86778e-09,0,2048,2048
295.652,5.24297e-09,0,2048,2048
295.705,5.62586e-09,0,2048,2048
295.752,5.92979e-09,0,2048,2048
295.804,6.22946e-09,0,2048,2048
295.851,6.45768e-09,0,2048,2048
295.904,6.6714e-09,0,2048,2048
295.951,6.82355e-09,0,2048,2048
296.003,6.95325e-09,0,2048,2048
296.05,7.03309e-09,0,2048,2048
296.103,7.08521e-09,0,2048,2048
296.156,7.10018e-09,0,2048,2048
296.203,7.08498e-09,0,2048,2048
296.255,7.03913e-09,0,2048,2048
296.302,6.97588e-09,0,2048,2048
296.355,6.88309e-09,0,2048,2048
296.402,6.78463e-09,0,2048,2048
296.455,6.65968e-09,0,2048,2048
296.501,6.53919e-09,0,2048,2048
296.554,6.39669e-09,0,2048,2048
296.601,6.26681e-09,0,2048,2048
296.654,6.12037e-09,0,2048,2048
296.701,5.99251e-09,0,2048,2048
296.753,5.85402e-09,0,2048,2048
296.8,5.73779e-09,0,2048,2048
296.853,5.61687e-09,0,2048,2048
296.906,5.50822e-09,0,2048,2048
296.953,5.42316e-09,0,2048,2048
297.005,5.34138e-09,0,2048,2048
297.052,5.28153e-09,0,2048,2048
297.105,5.22883e-09,0,2048,2048
297.152,5.19478e-09,0,2048,2048
297.204,5.17029e-09,0,2048,2048
297.251,5.16001e-09,0,2048,2048
297.304,5.1601e-09,0,2048,2048
297.351,5.16928e-09,0,2048,2048
297.404,5.18809e-09,0,2048,2048
297.451,5.21074e-09,0,2048,2048
297.503,5.24089e-09,0,2048,2048
297.55,5.27006e-09,0,2048,2048
297.603,5.30352e-09,0,2048,2048
297.656,5.33553e-09,0,2048,2048
297.702,5.36111e-09,0,2048,2048
297.755,5.38496e-09,0,2048,2048
297.802,5.40052e-09,0,2048,2048
297.855,5.41045e-09,0,2048,2048
297.902,5.41174e-09,0,2048,2048
297.954,5.40406e-09,0,2048,2048
298.001,5.38884e-09,0,2048,2048
298.054,5.36222e-09,0,2048,2048
298.101,5.33033e-09,0,2048,2048
298.154,5.28578e-09,0,2048,2048
298.2,5.23907e-09,0,2048,2048
298.253,5.1794e-09,0,2048,2048
298.306,5.11364e-09,0,2048,2048
298.353,5.05115e-09,0,2048,2048
298.405,4.97767e-09,0,2048,2048
298.452,4.91078e-09,0,2048,2048
298.505,4.83521e-09,0,2048,2048
298.552,4.76899e-09,0,2048,2048
298.605,4.69698e-09,0,2048,2048
298.652,4.63629e-09,0,2048,2048
298.704,4.57294e-09,0,2048,2048
298.751,4.52193e-09,0,2048,2048
298.804,4.47138e-09,0,2048,2048
298.851,4.43315e-09,0,2048,2048
298.903,4.3982e-09,0,2048,2048
298.95,4.37457e-09,0,2048,2048
299.003,4.35646e-09,0,2048,2048
299.056,4.34721e-09,0,2048,2048
299.103,4.34618e-09,0,2048,2048
299.155,4.35263e-09,0,2048,2048
299.202,4.3646e-09,0,2048,2048
299.255,4.38431e-09,0,2048,2048
299.302,4.40665e-09,0,2048,2048
299.355,4.4363e-09,0,2048,2048
299.401,4.46583e-09,0,2048,2048
299.454,4.50165e-09,0,2048,2048
299.501,4.53499e-09,0,2048,2048
299.554,4.57326e-09,0,2048,2048
299.601,4.60723e-09,0,2048,2048
299.653,4.64461e-09,0,2048,2048
299.7,4.67651e-09,0,2048,2048
299.753,4.71029e-09,0,2048,2048
299.806,4.7413e-09,0,2048,2048
299.852,4.76619e-09,0,2048,2048
299.905,4.79085e-09,0,2048,2048
299.952,4.8096e-09,0,2048,2048
300.005,4.82696e-09,0,2048,2048
300.052,4.83897e-09,0,2048,2048
300.104,4.8486e-09,0,2048,2048
300.151,4.8537e-09,0,2048,2048
300.204,4.85556e-09,0,2048,2048
300.251,4.85385e-09,0,2048,2048
300.304,4.8482e-09,0,2048,2048
300.35,4.83996e-09,0,2048,2048
300.403,4.8272e-09,0,2048,2048
300.45,4.81288e-09,0,2048,2048
300.503,4.79355e-09,0,2048,2048
300.556,4.77098e-09,0,2048,2048
300.602,4.74836e-09,0,2048,2048
300.655,4.7202e-09,0,2048,2048
300.702,4.69293e-09,0,2048,2048
300.755,4.65992e-09,0,2048,2048
300.802,4.62868e-09,0,2048,2048
300.854,4.59159e-09,0,2048,2048
300.901,4.55709e-09,0,2048,2048
300.954,4.51673e-09,0,2048,2048
301.001,4.47967e-09,0,2048,2048
301.053,4.43683e-09,0,2048,2048
301.1,4.39788e-09,0,2048,2048
301.153,4.35325e-09,0,2048,2048
301.206,4.30795e-09,0,2048,2048
301.253,4.26723e-09,0,2048,2048
301.305,4.22104e-09,0,2048,2048
301.352,4.17975e-09,0,2048,2048
301.405,4.13311e-09,0,2048,2048
301.452,4.09156e-09,0,2048,2048
301.505,4.04478e-09,0,2048,2048
301.551,4.00319e-09,0,2048,2048
301.604,3.95644e-09,0,2048,2048
301.651,3.91493e-09,0,2048,2048
301.704,3.8683e-09,0,2048,2048
301.751,3.82689e-09,0,2048,2048
301.803,3.78036e-09,0,2048,2048
301.85,3.73903e-09,0,2048,2048
301.903,3.69253e-09,0,2048,2048
301.956,3.64602e-09,0,2048,2048
302.003,3.60462e-09,0,2048,2048
302.055,3.55797e-09,0,2048,2048
302.102,3.51639e-09,0,2048,2048
302.155,3.46946e-09,0,2048,2048
302.202,3.42758e-09,0,2048,2048
302.254,3.38025e-09,0,2048,2048
302.301,3.33795e-09,0,2048,2048
302.354,3.29011e-09,0,2048,2048
302.401,3.24732e-09,0,2048,2048
302.454,3.19887e-09,0,2048,2048
302.501,3.15553e-09,0,2048,2048
302.553,3.10644e-09,0,2048,2048
302.6,3.06251e-09,0,2048,2048
302.653,3.01277e-09,0,2048,2048
302.706,2.96269e-09,0,2048,2048
302.752,2.91791e-09,0,2048,2048
302.805,2.86724e-09,0,2048,2048
302.852,2.82198e-09,0,2048,2048
302.905,2.77082e-09,0,2048,2048
302.952,2.72517e-09,0,2048,2048
303.004,2.67365e-09,0,2048,2048
303.051,2.62774e-09,0,2048,2048
303.104,2.576e-09,0,2048,2048
303.151,2.52998e-09,0,2048,2048
303.204,2.4782e-09,0,2048,2048
303.25,2.43223e-09,0,2048,2048
303.303,2.38059e-09,0,2048,2048
303.35,2.33482e-09,0,2048,2048
303.403,2.2835e-09,0,2048,2048
303.455,2.23242e-09,0,2048,2048
303.502,2.18725e-09,0,2048,2048
303.555,2.13673e-09,0,2048,2048
303.602,2.09212e-09,0,2048,2048
303.655,2.04229e-09,0,2048,2048
303.702,1.99834e-09,0,2048,2048
303.754,1.9493e-09,0,2048,2048
303.801,1.90609e-09,0,2048,2048
303.854,1.85791e-09,0,2048,2048
303.901,1.81547e-09,0,2048,2048
303.953,1.76818e-09,0,2048,2048
304,1.72655e-09,0,2048,2048
304.053,1.68016e-09,0,2048,2048
304.106,1.63423e-09,0,2048,2048
304.153,1.5938e-09,0,2048,2048
304.205,1.54873e-09,0,2048,2048
304.252,1.50904e-09,0,2048,2048
304.305,1.46478e-09,0,2048,2048
304.352,1.42578e-09,0,2048,2048
304.405,1.38227e-09,0,2048,2048
304.451,1.34391e-09,0,2048,2048
304.504,1.30109e-09,0,2048,2048
304.551,1.26331e-09,0,2048,2048
304.604,1.22112e-09,0,2048,2048
304.651,1.18387e-09,0,2048,2048
304.703,1.14226e-09,0,2048,2048
304.75,1.10551e-09,0,2048,2048
304.803,1.06444e-09,0,2048,2048
304.856,1.02364e-09,0,2048,2048
304.903,9.87612e-10,0,2048,2048
304.955,9.47339e-10,0,2048,2048
