250,0,0,2048,2048
250.006,0,0,2048,2048
250.053,0,0,2048,2048
250.105,0,0,2048,2048
250.152,0,0,2048,2048
250.205,0,0,2048,2048
250.252,0,0,2048,2048
250.305,0,0,2048,2048
250.352,0,0,2048,2048
250.404,0,0,2048,2048
250.451,0,0,2048,2048
250.504,0,0,2048,2048
250.551,0,0,2048,2048
250.603,0,0,2048,2048
250.65,0,0,2048,2048
250.703,0,0,2048,2048
250.756,0,0,2048,2048
250.803,0,0,2048,2048
250.855,0,0,2048,2048
250.902,0,0,2048,2048
250.955,0,0,2048,2048
251.002,0,0,2048,2048
251.055,0,0,2048,2048
251.101,0,0,2048,2048
251.154,0,0,2048,2048
251.201,0,0,2048,2048
251.254,0,0,2048,2048
251.301,0,0,2048,2048
251.353,0,0,2048,2048
251.4,0,0,2048,2048
251.453,0,0,2048,2048
251.506,0,0,2048,2048
251.553,0,0,2048,2048
251.605,0,0,2048,2048
251.652,0,0,2048,2048
251.705,0,0,2048,2048
251.752,0,0,2048,2048
251.804,0,0,2048,2048
251.851,0,0,2048,2048
251.904,0,0,2048,2048
251.951,0,0,2048,2048
252.004,0,0,2048,2048
252.05,0,0,2048,2048
252.103,0,0,2048,2048
252.15,0,0,2048,2048
252.203,0,0,2048,2048
252.256,0,0,2048,2048
252.302,0,0,2048,2048
252.355,0,0,2048,2048
252.402,0,0,2048,2048
252.455,0,0,2048,2048
252.502,0,0,2048,2048
252.554,0,0,2048,2048
252.601,0,0,2048,2048
252.654,0,0,2048,2048
252.701,0,0,2048,2048
252.754,0,0,2048,2048
252.8,0,0,2048,2048
252.853,0,0,2048,2048
252.906,0,0,2048,2048
252.953,0,0,2048,2048
253.005,0,0,2048,2048
253.052,0,0,2048,2048
253.105,0,0,2048,2048
253.152,0,0,2048,2048
253.205,0,0,2048,2048
253.251,0,0,2048,2048
253.304,0,0,2048,2048
253.351,0,0,2048,2048
253.404,0,0,2048,2048
253.451,0,0,2048,2048
253.503,0,0,2048,2048
253.55,0,0,2048,2048
253.603,0,0,2048,2048
253.656,0,0,2048,2048
253.703,0,0,2048,2048
253.755,0,0,2048,2048
253.802,0,0,2048,2048
253.855,0,0,2048,2048
253.902,0,0,2048,2048
253.954,0,0,2048,2048
254.001,0,0,2048,2048
254.054,0,0,2048,2048
254.101,0,0,2048,2048
254.154,0,0,2048,2048
254.201,0,0,2048,2048
254.253,0,0,2048,2048
254.3,0,0,2048,2048
254.353,0,0,2048,2048
254.406,0,0,2048,2048
254.452,0,0,2048,2048
254.505,0,0,2048,2048
254.552,0,0,2048,2048
254.605,0,0,2048,2048
254.652,0,0,2048,2048
254.704,0,0,2048,2048
254.751,0,0,2048,2048
254.804,0,0,2048,2048
254.851,0,0,2048,2048
254.904,0,0,2048,2048
254.95,0,0,2048,2048
255.003,0,0,2048,2048
255.05,0,0,2048,2048
255.103,0,0,2048,2048
255.155,0,0,2048,2048
255.202,0,0,2048,2048
255.255,0,0,2048,2048
255.302,0,0,2048,2048
255.355,0,0,2048,2048
255.402,0,0,2048,2048
255.454,0,0,2048,2048
255.501,0,0,2048,2048
255.554,0,0,2048,2048
255.601,0,0,2048,2048
255.653,0,0,2048,2048
255.7,0,0,2048,2048
255.753,0,0,2048,2048
255.806,0,0,2048,2048
255.853,0,0,2048,2048
255.905,0,0,2048,2048
255.952,0,0,2048,2048
256.005,0,0,2048,2048
256.052,0,0,2048,2048
256.105,0,0,2048,2048
256.151,0,0,2048,2048
256.204,0,0,2048,2048
256.251,0,0,2048,2048
256.304,0,0,2048,2048
256.351,0,0,2048,2048
256.403,0,0,2048,2048
256.45,0,0,2048,2048
256.503,0,0,2048,2048
256.556,0,0,2048,2048
256.603,0,0,2048,2048
256.655,0,0,2048,2048
256.702,0,0,2048,2048
256.755,0,0,2048,2048
256.802,0,0,2048,2048
256.854,0,0,2048,2048
256.901,0,0,2048,2048
256.954,0,0,2048,2048
257.001,0,0,2048,2048
257.054,0,0,2048,2048
257.101,0,0,2048,2048
257.153,0,0,2048,2048
257.2,0,0,2048,2048
257.253,0,0,2048,2048
257.306,0,0,2048,2048
257.352,0,0,2048,2048
257.405,0,0,2048,2048
257.452,0,0,2048,2048
257.505,0,0,2048,2048
257.552,0,0,2048,2048
257.604,0,0,2048,2048
257.651,0,0,2048,2048
257.704,0,0,2048,2048
257.751,0,0,2048,2048
257.804,0,0,2048,2048
257.85,0,0,2048,2048
257.903,0,0,2048,2048
257.95,0,0,2048,2048
258.003,0,0,2048,2048
258.055,0,0,2048,2048
258.102,0,0,2048,2048
258.155,0,0,2048,2048
258.202,0,0,2048,2048
258.255,0,0,2048,2048
258.302,0,0,2048,2048
258.354,0,0,2048,2048
258.401,0,0,2048,2048
258.454,0,0,2048,2048
258.501,0,0,2048,2048
258.553,0,0,2048,2048
258.6,0,0,2048,2048
258.653,0,0,2048,2048
258.706,0,0,2048,2048
258.753,0,0,2048,2048
258.805,0,0,2048,2048
258.852,0,0,2048,2048
258.905,0,0,2048,2048
258.952,0,0,2048,2048
259.005,0,0,2048,2048
259.051,0,0,2048,2048
259.104,0,0,2048,2048
259.151,0,0,2048,2048
259.204,0,0,2048,2048
259.251,0,0,2048,2048
259.303,0,0,2048,2048
259.35,0,0,2048,2048
259.403,0,0,2048,2048
259.456,0,0,2048,2048
259.503,0,0,2048,2048
259.555,0,0,2048,2048
259.602,0,0,2048,2048
259.655,0,0,2048,2048
259.702,0,0,2048,2048
259.754,0,0,2048,2048
259.801,0,0,2048,2048
259.854,0,0,2048,2048
259.901,0,0,2048,2048
259.954,0,0,2048,2048
260,0,0,2048,2048
260.053,0,0,2048,2048
260.1,0,0,2048,2048
260.153,0,0,2048,2048
260.206,0,0,2048,2048
260.252,0,0,2048,2048
260.305,-2.77556e-17,0,2048,2048
260.352,-5.55112e-17,0,2048,2048
260.405,-5.55112e-17,0,2048,2048
260.452,-5.55112e-17,0,2048,2048
260.504,-5.55112e-17,0,2048,2048
260.551,-5.55112e-17,0,2048,2048
260.604,-5.55112e-17,0,2048,2048
260.651,-5.55112e-17,0,2048,2048
260.704,-5.55112e-17,0,2048,2048
260.75,-5.55112e-17,0,2048,2048
260.803,-2.77556e-17,0,2048,2048
260.856,-2.77556e-17,0,2048,2048
260.903,-2.77556e-17,0,2048,2048
260.955,-2.77556e-17,0,2048,2048
261.002,-2.77556e-17,0,2048,2048
261.055,-2.77556e-17,0,2048,2048
261.102,-2.77556e-17,0,2048,2048
261.155,-2.77556e-17,0,2048,2048
261.201,-2.77556e-17,0,2048,2048
261.254,-2.77556e-17,0,2048,2048
261.301,-2.77556e-17,0,2048,2048
261.354,-2.77556e-17,0,2048,2048
261.401,0,0,2048,2048
261.453,0,0,2048,2048
261.5,0,0,2048,2048
261.553,0,0,2048,2048
261.606,0,0,2048,2048
261.653,0,0,2048,2048
261.705,0,0,2048,2048
261.752,0,0,2048,2048
261.805,0,0,2048,2048
261.852,0,0,2048,2048
261.905,0,0,2048,2048
261.951,0,0,2048,2048
262.004,0,0,2048,2048
262.051,0,0,2048,2048
262.104,0,0,2048,2048
262.151,0,0,2048,2048
262.203,0,0,2048,2048
262.25,0,0,2048,2048
262.303,0,0,2048,2048
262.356,0,0,2048,2048
262.402,0,0,2048,2048
262.455,0,0,2048,2048
262.502,0,0,2048,2048
262.555,0,0,2048,2048
262.602,0,0,2048,2048
262.654,0,0,2048,2048
262.701,0,0,2048,2048
262.754,0,0,2048,2048
262.801,0,0,2048,2048
262.854,0,0,2048,2048
262.9,0,0,2048,2048
262.953,0,0,2048,2048
263,0,0,2048,2048
263.053,0,0,2048,2048
263.105,0,0,2048,2048
263.152,0,0,2048,2048
263.205,0,0,2048,2048
263.252,0,0,2048,2048
263.305,0,0,2048,2048
263.352,0,0,2048,2048
263.404,0,0,2048,2048
263.451,0,0,2048,2048
263.504,0,0,2048,2048
263.551,0,0,2048,2048
263.603,0,0,2048,2048
263.65,0,0,2048,2048
263.703,0,0,2048,2048
263.756,0,0,2048,2048
263.803,0,0,2048,2048
263.855,0,0,2048,2048
263.902,0,0,2048,2048
263.955,0,0,2048,2048
264.002,0,0,2048,2048
264.055,0,0,2048,2048
264.101,0,0,2048,2048
264.154,0,0,2048,2048
264.201,0,0,2048,2048
264.254,0,0,2048,2048
264.301,0,0,2048,2048
264.353,0,0,2048,2048
264.4,0,0,2048,2048
264.453,0,0,2048,2048
264.506,0,0,2048,2048
264.553,0,0,2048,2048
264.605,0,0,2048,2048
264.652,0,0,2048,2048
264.705,0,0,2048,2048
264.752,0,0,2048,2048
264.804,0,0,2048,2048
264.851,0,0,2048,2048
264.904,0,0,2048,2048
264.951,0,0,2048,2048
265.004,-2.77556e-17,0,2048,2048
265.051,-5.55112e-17,0,2048,2048
265.103,-5.55112e-17,0,2048,2048
265.15,-5.55112e-17,0,2048,2048
265.203,-5.55112e-17,0,2048,2048
265.256,-5.55112e-17,0,2048,2048
265.302,-5.55112e-17,0,2048,2048
265.355,-5.55112e-17,0,2048,2048
265.402,-5.55112e-17,0,2048,2048
265.455,-5.55112e-17,0,2048,2048
265.502,-5.55112e-17,0,2048,2048
265.554,-2.77556e-17,0,2048,2048
265.601,-2.77556e-17,0,2048,2048
265.654,-2.77556e-17,0,2048,2048
265.701,-2.77556e-17,0,2048,2048
265.754,-2.77556e-17,0,2048,2048
265.8,-2.77556e-17,0,2048,2048
265.853,-2.77556e-17,0,2048,2048
265.9,-2.77556e-17,0,2048,2048
265.953,-2.77556e-17,0,2048,2048
266.005,-2.77556e-17,0,2048,2048
266.052,-2.77556e-17,0,2048,2048
266.105,-5.55112e-17,0,2048,2048
266.152,-5.55112e-17,0,2048,2048
266.205,-5.55112e-17,0,2048,2048
266.252,-5.55112e-17,0,2048,2048
266.304,-5.55112e-17,0,2048,2048
266.351,-5.55112e-17,0,2048,2048
266.404,-5.55112e-17,0,2048,2048
266.451,-5.55112e-17,0,2048,2048
266.503,-5.55112e-17,0,2048,2048
266.55,-5.55112e-17,0,2048,2048
266.603,-5.55112e-17,0,2048,2048
266.656,-5.55112e-17,0,2048,2048
266.703,-5.55112e-17,0,2048,2048
266.755,-5.55112e-17,0,2048,2048
266.802,-5.55112e-17,0,2048,2048
266.855,-2.77556e-17,0,2048,2048
266.902,-2.77556e-17,0,2048,2048
266.955,-2.77556e-17,0,2048,2048
267.001,-2.77556e-17,0,2048,2048
267.054,-2.77556e-17,0,2048,2048
267.101,-2.77556e-17,0,2048,2048
267.154,-2.77556e-17,0,2048,2048
267.201,-2.77556e-17,0,2048,2048
267.253,-2.77556e-17,0,2048,2048
267.3,-2.77556e-17,0,2048,2048
267.353,-2.77556e-17,0,2048,2048
267.406,-2.77556e-17,0,2048,2048
267.453,-2.77556e-17,0,2048,2048
267.505,-2.77556e-17,0,2048,2048
267.552,-2.77556e-17,0,2048,2048
267.605,-2.77556e-17,0,2048,2048
267.652,-2.77556e-17,0,2048,2048
267.704,-2.77556e-17,0,2048,2048
267.751,-2.77556e-17,0,2048,2048
267.804,-2.77556e-17,0,2048,2048
267.851,-2.77556e-17,0,2048,2048
267.904,-2.77556e-17,0,2048,2048
267.95,-2.77556e-17,0,2048,2048
268.003,-2.77556e-17,0,2048,2048
268.05,-2.77556e-17,0,2048,2048
268.101,-2.77556e-17,0,2134,2134
268.151,-2.77556e-17,0,2182,2182
268.201,-2.77556e-17,0,2230,2230
268.25,-2.77556e-17,0,2278,2278
268.3,-2.77556e-17,0,2326,2326
268.35,-2.77556e-17,0,2374,2374
268.403,-2.77556e-17,0,2422,2422
268.453,-2.77556e-17,0,2470,2470
268.502,-2.77556e-17,0,2518,2518
268.552,-2.77556e-17,0,2566,2566
268.602,-2.77556e-17,0,2614,2614
268.652,-2.77556e-17,0,2662,2662
268.702,-2.77556e-17,0,2710,2710
268.751,-2.77556e-17,0,2758,2758
268.801,-2.77556e-17,0,2794,2794
268.851,-2.77556e-17,0,2842,2842
268.901,-2.77556e-17,0,2890,2890
268.951,-2.77556e-17,0,2938,2938
269,-2.77556e-17,0,2986,2986
269.05,-2.77556e-17,0,3022,3022
269.103,-2.77556e-17,0,3070,3070
269.153,-2.77556e-17,0,3118,3118
269.202,-2.77556e-17,0,3166,3166
269.252,-2.77556e-17,0,3214,3214
269.302,-2.77556e-17,0,3250,3250
269.352,-2.77556e-17,0,3298,3298
269.402,-2.77556e-17,0,3346,3346
269.451,-2.77556e-17,0,3382,3382
269.501,-2.77556e-17,0,3430,3430
269.551,-2.77556e-17,0,3478,3478
269.601,-2.77556e-17,0,3526,3526
269.651,-2.77556e-17,0,3562,3562
269.7,-2.77556e-17,0,3610,3610
269.75,-2.77556e-17,0,3646,3646
269.8,-2.77556e-17,0,3694,3694
269.853,-2.77556e-17,0,3742,3742
269.903,-2.77556e-17,0,3790,3790
269.952,-2.77556e-17,0,3826,3826
270.002,-2.77556e-17,0,3874,3874
270.052,-2.77556e-17,0,3910,3910
270.102,-2.77556e-17,0,3958,3958
270.152,-2.77556e-17,0,3994,3994
270.201,-2.77556e-17,0,4042,4042
270.251,-2.77556e-17,0,4078,4078
270.301,-2.77556e-17,0,4126,4126
270.351,-2.77556e-17,0,4162,4162
270.401,-2.77556e-17,0,4210,4210
270.45,-2.77556e-17,0,4246,4246
270.5,-2.77556e-17,0,4282,4282
270.553,-2.77556e-17,0,4330,4330
270.603,-2.77556e-17,0,4366,4366
270.652,-2.77556e-17,0,4414,4414
270.702,-2.77556e-17,0,4450,4450
270.752,-2.77556e-17,0,4486,4486
270.802,-2.77556e-17,0,4522,4522
270.852,-2.77556e-17,0,4570,4570
270.901,-2.77556e-17,0,4606,4606
270.951,-2.77556e-17,0,4618,4618
271.001,-2.77556e-17,0,4654,4654
271.051,-2.77556e-17,0,4702,4702
271.101,-2.77556e-17,0,4738,4738
271.15,-2.77556e-17,0,4774,4774
271.2,-2.77556e-17,0,4822,4822
271.25,0,0,4858,4858
271.303,0,0,4906,4906
271.353,0,0,4942,4942
271.402,0,0,4978,4978
271.452,0,0,5026,5026
271.502,0,0,5062,5062
271.552,0,0,5098,5098
271.602,0,0,5146,5146
271.651,0,0,5182,5182
271.701,0,0,5218,5218
271.751,0,0,5254,5254
271.801,0,0,5302,5302
271.851,0,0,5338,5338
271.9,0,0,5374,5374
271.95,0,0,5410,5410
272.003,0,0,5446,5446
272.053,0,0,5494,5494
272.102,0,0,5530,5530
272.152,0,0,5566,5566
272.202,0,0,5602,5602
272.252,0,0,5638,5638
272.302,0,0,5674,5674
272.351,0,0,5710,5710
272.401,0,0,5746,5746
272.451,0,0,5782,5782
272.501,0,0,5818,5818
272.551,0,0,5854,5854
272.6,0,0,5890,5890
272.65,0,0,5926,5926
272.7,0,0,5962,5962
272.753,0,0,5998,5998
272.803,0,0,6034,6034
272.852,0,0,6070,6070
272.902,0,0,6106,6106
272.952,0,0,6142,6142
273.002,0,0,6178,6178
273.052,0,0,6214,6214
273.101,0,0,6250,6250
273.151,0,0,6286,6286
273.201,0,0,6322,6322
273.251,5.55112e-17,0,6358,6358
273.301,4.44089e-16,0,6394,6394
273.35,8.32667e-16,0,6418,6418
273.4,1.249e-15,0,6454,6454
273.453,1.63758e-15,0,6490,6490
273.503,1.97065e-15,0,6526,6526
273.552,2.08167e-15,0,6562,6562
273.602,2.10942e-15,0,6598,6598
273.652,2.10942e-15,0,6634,6634
273.702,1.72085e-15,0,6670,6670
273.752,-8.32667e-16,0,6706,6706
273.801,-9.02056e-15,0,6730,6730
273.851,-2.88103e-14,0,6766,6766
273.901,-6.99718e-14,0,6802,6802
273.951,-2.30871e-13,0,6838,6838
274.001,-1.17006e-12,0,6874,6874
274.05,-4.43898e-12,0,6910,6910
274.1,-1.34284e-11,0,6934,6934
274.153,-3.48842e-11,0,6970,6970
274.203,-7.09536e-11,0,7006,7006
274.253,-1.20668e-10,0,7042,7042
274.302,-1.71827e-10,0,7078,7078
274.352,-2.03553e-10,0,7114,7114
274.402,-1.96392e-10,0,7138,7138
274.452,-1.45531e-10,0,7174,7174
274.502,-6.68919e-11,0,7210,7210
274.551,1.03642e-11,0,7246,7246
274.601,6.09846e-11,0,7270,7270
274.651,7.82486e-11,0,7306,7306
274.701,7.5294e-11,0,7342,7342
274.75,7.26297e-11,0,7378,7378
274.8,8.21025e-11,0,7402,7402
274.85,9.99081e-11,0,7438,7438
274.903,1.13565e-10,0,7474,7474
274.953,1.1274e-10,0,7510,7510
275.002,1.02542e-10,0,7546,7546
275.052,9.50499e-11,0,7570,7570
275.102,9.9264e-11,0,7606,7606
275.152,1.13341e-10,0,7642,7642
275.202,1.2656e-10,0,7666,7666
275.251,1.28734e-10,0,7702,7702
275.301,1.18894e-10,0,7738,7738
275.351,1.06295e-10,0,7762,7762
275.401,1.03016e-10,0,7798,7798
275.451,1.13776e-10,0,7822,7822
275.5,1.30885e-10,0,7858,7858
275.55,1.39324e-10,0,7882,7882
275.603,1.28663e-10,0,7918,7918
275.653,1.08098e-10,0,7942,7942
275.703,9.85322e-11,0,7978,7978
275.752,1.14548e-10,0,8002,8002
275.802,1.47289e-10,0,8026,8026
275.852,1.75997e-10,0,8050,8050
275.902,2.19271e-10,0,8074,8074
275.951,4.00535e-10,0,8098,8098
276.001,9.73244e-10,0,8122,8122
276.051,2.26239e-09,0,8146,8146
276.101,4.53229e-09,0,8182,8182
276.151,7.84912e-09,0,8192,8192
276.2,1.20225e-08,0,8192,8192
276.25,1.66706e-08,0,8192,8192
276.3,2.13841e-08,0,8192,8192
276.353,2.6175e-08,0,8192,8192
276.403,3.05627e-08,0,8192,8192
276.452,3.51775e-08,0,8192,8192
276.502,4.05722e-08,0,8192,8192
276.552,4.73419e-08,0,8192,8192
276.602,5.60054e-08,0,8192,8192
276.652,6.69832e-08,0,8192,8192
276.701,8.06704e-08,0,8192,8192
276.751,9.75392e-08,0,8192,8192
276.801,1.18185e-07,0,8192,8192
276.851,1.43266e-07,0,8192,8192
276.901,1.73346e-07,0,8192,8192
276.95,2.08712e-07,0,8192,8192
277,2.49258e-07,0,8192,8192
277.053,2.97305e-07,0,8192,8192
277.103,3.46801e-07,0,8192,8192
277.152,3.99607e-07,0,8192,8192
277.202,4.55148e-07,0,8192,8192
277.252,5.12851e-07,0,8192,8192
277.302,5.71905e-07,0,8192,8192
277.352,6.3103e-07,0,8192,8192
277.401,6.88426e-07,0,8192,8192
277.451,7.4199e-07,0,8192,8192
277.501,7.89698e-07,0,8192,8192
277.551,8.30013e-07,0,8192,8192
277.601,8.62152e-07,0,8192,8192
277.65,8.86132e-07,0,8192,8192
277.7,9.02589e-07,0,8192,8192
277.75,9.12462e-07,0,8192,8192
277.803,9.16742e-07,0,8192,8192
277.853,9.15583e-07,0,8192,8192
277.902,9.09547e-07,0,8192,8192
277.952,8.98405e-07,0,8192,8192
278.002,8.81665e-07,0,8192,8192
278.052,8.58772e-07,0,8192,8192
278.102,8.29347e-07,0,8192,8192
278.151,7.93399e-07,0,8192,8192
278.201,7.51482e-07,0,8192,8192
278.251,7.04713e-07,0,8192,8192
278.301,6.54651e-07,0,8192,8192
278.351,6.03047e-07,0,8192,8192
278.4,5.51565e-07,0,8192,8192
278.45,5.01548e-07,0,8192,8192
278.503,4.51172e-07,0,8192,8192
278.553,4.06492e-07,0,8192,8192
278.602,3.64709e-07,0,8192,8192
278.652,3.25717e-07,0,8192,8192
278.702,2.89399e-07,0,8192,8192
278.752,2.55765e-07,0,8192,8192
278.802,2.24999e-07,0,8192,8192
278.851,1.97372e-07,0,8192,8192
278.901,1.73067e-07,0,8192,8192
278.951,1.52001e-07,0,8192,8192
279.001,1.33759e-07,0,8192,8192
279.051,1.17717e-07,0,8192,8192
279.1,1.03282e-07,0,8192,8192
279.15,9.01106e-08,0,8192,8192
279.2,7.81738e-08,0,8192,8192
279.253,6.70743e-08,0,8192,8192
279.303,5.82104e-08,0,8192,8192
279.352,5.08759e-08,0,8192,8192
279.402,4.47821e-08,0,8192,8192
279.452,3.95014e-08,0,8192,8192
279.502,3.46539e-08,0,8192,8192
279.552,3.00739e-08,0,8192,8192
279.601,2.58666e-08,0,8192,8192
279.651,2.23288e-08,0,8192,8192
279.701,1.9781e-08,0,8192,8192
279.751,1.84113e-08,0,8192,8192
279.801,1.8206e-08,0,8192,8192
279.85,1.89868e-08,0,8192,8192
279.9,2.05062e-08,0,8192,8192
279.953,2.267e-08,0,8192,8192
280.003,2.50719e-08,0,8192,8192
280.052,2.77261e-08,0,8192,8192
280.102,3.05784e-08,0,8192,8192
280.152,3.35956e-08,0,8192,8192
280.202,3.67591e-08,0,8192,8192
280.252,4.00667e-08,0,8192,8192
280.301,4.35287e-08,0,8192,8192
280.351,4.71578e-08,0,8192,8192
280.401,5.09585e-08,0,8192,8192
280.451,5.49252e-08,0,8192,8192
280.501,5.90497e-08,0,8192,8192
280.55,6.33336e-08,0,8192,8192
280.6,6.77992e-08,0,8192,8192
280.65,7.24923e-08,0,8192,8192
280.703,7.77799e-08,0,8192,8192
280.753,8.31435e-08,0,8192,8192
280.802,8.89156e-08,0,8192,8192
280.852,9.51101e-08,0,8192,8192
280.902,1.017e-07,0,8192,8192
280.952,1.08624e-07,0,8192,8192
281.002,1.15815e-07,0,8192,8192
281.051,1.23228e-07,0,8192,8192
281.101,1.30876e-07,0,8192,8192
281.151,1.38858e-07,0,8192,8192
281.201,1.47364e-07,0,8192,8192
281.251,1.56668e-07,0,8192,8192
281.3,1.67117e-07,0,8192,8192
281.35,1.79106e-07,0,8192,8192
281.403,1.93946e-07,0,8192,8192
281.453,2.10438e-07,0,8192,8192
281.502,2.29756e-07,0,8192,8192
281.552,2.52266e-07,0,8192,8192
281.602,2.78256e-07,0,8192,8192
281.652,3.07901e-07,0,8192,8192
281.702,3.41234e-07,0,8192,8192
281.751,3.7813e-07,0,8192,8192
281.801,4.18303e-07,0,8192,8192
281.851,4.61307e-07,0,8192,8192
281.901,5.06547e-07,0,8192,8192
281.951,5.53276e-07,0,8192,8192
282,6.00598e-07,0,8192,8192
282.05,6.47472e-07,0,8192,8192
282.1,6.92743e-07,0,8192,8192
282.153,7.37582e-07,0,8192,8192
282.203,7.75763e-07,0,8192,8192
282.252,8.08825e-07,0,8192,8192
282.302,8.35947e-07,0,8192,8192
282.352,8.56591e-07,0,8192,8192
282.402,8.70519e-07,0,8192,8192
282.452,8.77753e-07,0,8192,8192
282.501,8.78492e-07,0,8192,8192
282.551,8.73027e-07,0,8192,8192
282.601,8.61646e-07,0,8192,8192
282.651,8.44587e-07,0,8192,8192
282.7,8.22025e-07,0,8192,8192
282.75,7.94099e-07,0,8192,8192
282.8,7.60978e-07,0,8192,8192
282.853,7.2055e-07,0,8192,8192
282.903,6.77771e-07,0,8192,8192
282.952,6.31185e-07,0,8192,8192
283.002,5.81634e-07,0,8192,8192
283.052,5.30107e-07,0,8192,8192
283.102,4.77662e-07,0,8192,8192
283.152,4.25336e-07,0,8192,8192
283.201,3.74068e-07,0,8192,8192
283.251,3.24635e-07,0,8192,8192
283.301,2.77635e-07,0,8192,8192
283.351,2.33487e-07,0,8192,8192
283.401,1.92466e-07,0,8192,8192
283.45,1.54733e-07,0,8192,8192
283.5,1.20372e-07,0,8192,8192
283.553,8.76823e-08,0,8192,8192
283.603,6.02527e-08,0,8192,8192
283.653,3.6059e-08,0,8192,8192
283.702,1.49304e-08,0,8192,8192
283.752,-3.35514e-09,0,8192,8192
283.802,-1.90491e-08,0,8192,8192
283.852,-3.2405e-08,0,8192,8192
283.901,-4.36568e-08,0,8192,8192
283.951,-5.30095e-08,0,8192,8192
284.001,-6.06439e-08,0,8192,8192
284.051,-6.67291e-08,0,8192,8192
284.101,-7.14341e-08,0,8192,8192
284.15,-7.49305e-08,0,8192,8192
284.2,-7.73834e-08,0,8192,8192
284.25,-7.89374e-08,0,8192,8192
284.303,-7.97248e-08,0,8192,8192
284.353,-7.9733e-08,0,8192,8192
284.402,-7.90697e-08,0,8192,8192
284.452,-7.77661e-08,0,8192,8192
284.502,-7.58632e-08,0,8192,8192
284.552,-7.34264e-08,0,8192,8192
284.602,-7.05501e-08,0,8192,8192
284.651,-6.73524e-08,0,8192,8192
284.701,-6.39625e-08,0,8192,8192
284.751,-6.05071e-08,0,8192,8192
284.801,-5.70976e-08,0,8192,8192
284.851,-5.38232e-08,0,8192,8192
284.9,-5.07475e-08,0,8192,8192
284.95,-4.79105e-08,0,8192,8192
285.003,-4.51884e-08,0,8192,8192
285.053,-4.28882e-08,0,8192,8192
285.102,-4.08455e-08,0,8192,8192
285.152,-3.90493e-08,0,8192,8192
285.202,-3.74867e-08,0,8192,8192
285.252,-3.61442e-08,0,8192,8192
285.302,-3.50084e-08,0,8192,8192
285.351,-3.40659e-08,0,8192,8192
285.401,-3.33028e-08,0,8192,8192
285.451,-3.27045e-08,0,8192,8192
285.501,-3.22554e-08,0,8192,8192
285.551,-3.19393e-08,0,8192,8192
285.6,-3.17396e-08,0,8192,8192
285.65,-3.16398e-08,0,8192,8192
285.7,-3.16242e-08,0,8192,8192
285.753,-3.16829e-08,0,8192,8192
285.803,-3.17955e-08,0,8192,8192
285.852,-3.19511e-08,0,8192,8192
285.902,-3.21395e-08,0,8192,8192
285.952,-3.23515e-08,0,8192,8192
286.002,-3.25794e-08,0,8192,8192
286.052,-3.28165e-08,0,8192,8192
286.101,-3.30573e-08,0,8192,8192
286.151,-3.32972e-08,0,8192,8192
286.201,-3.35323e-08,0,8192,8192
286.251,-3.37596e-08,0,8192,8192
286.301,-3.39765e-08,0,8192,8192
286.35,-3.4181e-08,0,8192,8192
286.4,-3.43714e-08,0,8192,8192
286.453,-3.45561e-08,0,8192,8192
286.503,-3.47132e-08,0,8192,8192
286.552,-3.48526e-08,0,8192,8192
286.602,-3.49733e-08,0,8192,8192
286.652,-3.50749e-08,0,8192,8192
286.702,-3.5157e-08,0,8192,8192
286.752,-3.52199e-08,0,8192,8192
286.801,-3.5264e-08,0,8192,8192
286.851,-3.52901e-08,0,8192,8192
286.901,-3.52993e-08,0,8192,8192
286.951,-3.52931e-08,0,8192,8192
287.001,-3.5273e-08,0,8192,8192
287.05,-3.52408e-08,0,8192,8192
287.1,-3.51984e-08,0,8192,8192
287.15,-3.51476e-08,0,8192,8192
287.203,-3.50865e-08,0,8192,8192
287.253,-3.50238e-08,0,8192,8192
287.302,-3.49578e-08,0,8192,8192
287.352,-3.48898e-08,0,8192,8192
287.402,-3.48213e-08,0,8192,8192
287.452,-3.47533e-08,0,8192,8192
287.502,-3.4687e-08,0,8192,8192
287.551,-3.46232e-08,0,8192,8192
287.601,-3.45627e-08,0,8192,8192
287.651,-3.45063e-08,0,8192,8192
287.701,-3.44546e-08,0,8192,8192
287.751,-3.4408e-08,0,8192,8192
287.8,-3.43671e-08,0,8192,8192
287.85,-3.43322e-08,0,8192,8192
287.903,-3.4302e-08,0,8192,8192
287.953,-3.42803e-08,0,8192,8192
288.002,-3.42653e-08,0,8192,8192
288.052,-3.42571e-08,0,8192,8192
288.102,-3.42559e-08,0,8192,8192
288.152,-3.42618e-08,0,8192,8192
288.202,-3.42748e-08,0,8192,8192
288.251,-3.42949e-08,0,8192,8192
288.301,-3.43221e-08,0,8192,8192
288.351,-3.43566e-08,0,8192,8192
288.401,-3.43982e-08,0,8192,8192
288.451,-3.44471e-08,0,8192,8192
288.5,-3.45034e-08,0,8192,8192
288.55,-3.45674e-08,0,8192,8192
288.6,-3.46394e-08,0,8192,8192
288.653,-3.47249e-08,0,8192,8192
288.703,-3.48151e-08,0,8192,8192
288.752,-3.49154e-08,0,8192,8192
288.802,-3.50267e-08,0,8192,8192
288.852,-3.51502e-08,0,8192,8192
288.902,-3.52872e-08,0,8192,8192
288.952,-3.54389e-08,0,8192,8192
289.001,-3.56067e-08,0,8192,8192
289.051,-3.57919e-08,0,8192,8192
289.101,-3.59956e-08,0,8192,8192
289.151,-3.62189e-08,0,8192,8192
289.201,-3.64623e-08,0,8192,8192
289.25,-3.67262e-08,0,8192,8192
289.3,-3.70105e-08,0,8192,8192
289.353,-3.73332e-08,0,8192,8192
289.403,-3.76573e-08,0,8192,8192
289.452,-3.79986e-08,0,8192,8192
289.502,-3.83549e-08,0,8192,8192
289.552,-3.87237e-08,0,8192,8192
289.602,-3.91018e-08,0,8192,8192
289.652,-3.94861e-08,0,8192,8192
289.701,-3.98727e-08,0,8192,8192
289.751,-4.02579e-08,0,8192,8192
289.801,-4.06378e-08,0,8192,8192
289.851,-4.10084e-08,0,8192,8192
289.901,-4.13658e-08,0,8192,8192
289.95,-4.17063e-08,0,8192,8192
290,-4.20261e-08,0,8192,8192
290.053,-4.23384e-08,0,8192,8192
290.103,-4.2605e-08,0,8192,8192
290.153,-4.28412e-08,0,8192,8192
290.202,-4.30442e-08,0,8192,8192
290.252,-4.32118e-08,0,8192,8192
290.302,-4.33421e-08,0,8192,8192
290.352,-4.34336e-08,0,8192,8192
290.402,-4.3485e-08,0,8192,8192
290.451,-4.34957e-08,0,8192,8192
290.501,-4.34652e-08,0,8192,8192
290.551,-4.33932e-08,0,8192,8192
290.601,-4.32797e-08,0,8192,8192
290.65,-4.31249e-08,0,8192,8192
290.7,-4.29288e-08,0,8192,8192
290.75,-4.26917e-08,0,8192,8192
290.803,-4.23958e-08,0,8192,8192
290.853,-4.20742e-08,0,8192,8192
290.902,-4.17115e-08,0,8192,8192
290.952,-4.13078e-08,0,8192,8192
291.002,-4.0863e-08,0,8192,8192
291.052,-4.03772e-08,0,8192,8192
291.102,-3.98507e-08,0,8192,8192
291.151,-3.92841e-08,0,8192,8192
291.201,-3.86783e-08,0,8192,8192
291.251,-3.80345e-08,0,8192,8192
291.301,-3.73547e-08,0,8192,8192
291.351,-3.66411e-08,0,8192,8192
291.4,-3.58968e-08,0,8192,8192
291.45,-3.51252e-08,0,8192,8192
291.503,-3.42828e-08,0,8192,8192
291.553,-3.3468e-08,0,8192,8192
291.602,-3.26393e-08,0,8192,8192
291.652,-3.18016e-08,0,8192,8192
291.702,-3.09601e-08,0,8192,8192
291.752,-3.01199e-08,0,8192,8192
291.802,-2.92858e-08,0,8192,8192
291.851,-2.84628e-08,0,8192,8192
291.901,-2.76557e-08,0,8192,8192
291.951,-2.68687e-08,0,8192,8192
292.001,-2.6106e-08,0,8192,8192
292.051,-2.53714e-08,0,8192,8192
292.1,-2.46684e-08,0,8192,8192
292.15,-2.39999e-08,0,8192,8192
292.2,-2.33685e-08,0,8192,8192
292.253,-2.27424e-08,0,8192,8192
292.303,-2.21925e-08,0,8192,8192
292.352,-2.16837e-08,0,8192,8192
292.402,-2.1216e-08,0,8192,8192
292.452,-2.0789e-08,0,8192,8192
292.502,-2.04015e-08,0,8192,8192
292.552,-2.00522e-08,0,8192,8192
292.601,-1.97391e-08,0,8192,8192
292.651,-1.946e-08,0,8192,8192
292.701,-1.92126e-08,0,8192,8192
292.751,-1.89943e-08,0,8192,8192
292.801,-1.88025e-08,0,8192,8192
292.85,-1.86344e-08,0,8192,8192
292.9,-1.84874e-08,0,8192,8192
292.953,-1.8352e-08,0,8192,8192
293.003,-1.82406e-08,0,8192,8192
293.052,-1.81428e-08,0,8192,8192
293.102,-1.80566e-08,0,8192,8192
293.152,-1.79799e-08,0,8192,8192
293.202,-1.79109e-08,0,8192,8192
293.252,-1.78482e-08,0,8192,8192
293.301,-1.77901e-08,0,8192,8192
293.351,-1.77355e-08,0,8192,8192
293.401,-1.76831e-08,0,8192,8192
293.451,-1.76317e-08,0,8192,8192
293.501,-1.75802e-08,0,8192,8192
293.55,-1.75274e-08,0,8192,8192
293.6,-1.74722e-08,0,8192,8192
293.65,-1.74133e-08,0,8192,8192
293.703,-1.73456e-08,0,8192,8192
293.753,-1.72756e-08,0,8192,8192
293.802,-1.71986e-08,0,8192,8192
293.852,-1.71139e-08,0,8192,8192
293.902,-1.70207e-08,0,8192,8192
293.952,-1.69188e-08,0,8192,8192
294.002,-1.68079e-08,0,8192,8192
294.051,-1.66883e-08,0,8192,8192
294.101,-1.65604e-08,0,8192,8192
294.151,-1.64249e-08,0,8192,8192
294.201,-1.62828e-08,0,8192,8192
294.251,-1.61351e-08,0,8192,8192
294.3,-1.59831e-08,0,8192,8192
294.35,-1.58281e-08,0,8192,8192
294.403,-1.56621e-08,0,8192,8192
294.453,-1.55048e-08,0,8192,8192
294.502,-1.53481e-08,0,8192,8192
294.552,-1.51927e-08,0,8192,8192
294.602,-1.5039e-08,0,8192,8192
294.652,-1.48871e-08,0,8192,8192
294.702,-1.47367e-08,0,8192,8192
294.751,-1.45869e-08,0,8192,8192
294.801,-1.44368e-08,0,8192,8192
294.851,-1.42851e-08,0,8192,8192
294.901,-1.41305e-08,0,8192,8192
294.951,-1.39716e-08,0,8192,8192
295,-1.3807e-08,0,8192,8192
295.05,-1.36355e-08,0,8192,8192
295.1,-1.34561e-08,0,8192,8192
295.153,-1.32562e-08,0,8192,8192
295.203,-1.30567e-08,0,8192,8192
295.252,-1.28457e-08,0,8192,8192
295.302,-1.26216e-08,0,8192,8192
295.352,-1.23827e-08,0,8192,8192
295.402,-1.21271e-08,0,8192,8192
295.452,-1.18528e-08,0,8192,8192
295.501,-1.15576e-08,0,8192,8192
295.551,-1.12396e-08,0,8192,8192
295.601,-1.08968e-08,0,8192,8192
295.651,-1.05277e-08,0,8192,8192
295.701,-1.01309e-08,0,8192,8192
295.75,-9.70571e-09,0,8192,8192
295.8,-9.25155e-09,0,8192,8192
295.853,-8.7391e-09,0,8192,8192
295.903,-8.22573e-09,0,8192,8192
295.952,-7.68469e-09,0,8192,8192
296.002,-7.1173e-09,0,8192,8192
296.052,-6.52532e-09,0,8192,8192
296.102,-5.91097e-09,0,8192,8192
296.152,-5.27691e-09,0,8192,8192
296.201,-4.6262e-09,0,8192,8192
296.251,-3.96228e-09,0,8192,8192
296.301,-3.28888e-09,0,8192,8192
296.351,-2.60996e-09,0,8192,8192
296.401,-1.92965e-09,0,8192,8192
296.45,-1.25217e-09,0,8192,8192
296.5,-5.81754e-10,0,8192,8192
296.55,7.74198e-11,0,8192,8192
296.603,7.58598e-10,0,8192,8192
296.653,1.38201e-09,0,8192,8192
296.702,1.98234e-09,0,8192,8192
296.752,2.55619e-09,0,8192,8192
296.802,3.10048e-09,0,8192,8192
296.852,3.6125e-09,0,8192,8192
296.902,4.08989e-09,0,8192,8192
296.951,4.53073e-09,0,8192,8192
297.001,4.93354e-09,0,8192,8192
297.051,5.29733e-09,0,8192,8192
297.101,5.6216e-09,0,8192,8192
297.151,5.90635e-09,0,8192,8192
297.2,6.15212e-09,0,8192,8192
297.25,6.35988e-09,0,8192,8192
297.303,6.54004e-09,0,8192,8192
297.353,6.67448e-09,0,8192,8192
297.402,6.7764e-09,0,8192,8192
297.452,6.8482e-09,0,8192,8192
297.502,6.8924e-09,0,8192,8192
297.552,6.91165e-09,0,8192,8192
297.602,6.9086e-09,0,8192,8192
297.651,6.88592e-09,0,8192,8192
297.701,6.84616e-09,0,8192,8192
297.751,6.7918e-09,0,8192,8192
297.801,6.72519e-09,0,8192,8192
297.851,6.64851e-09,0,8192,8192
297.9,6.56378e-09,0,8192,8192
297.95,6.47286e-09,0,8192,8192
298.003,6.37174e-09,0,8192,8192
298.053,6.27327e-09,0,8192,8192
298.103,6.17334e-09,0,8192,8192
298.152,6.07325e-09,0,8192,8192
298.202,5.97417e-09,0,8192,8192
298.252,5.87721e-09,0,8192,8192
298.302,5.78337e-09,0,8192,8192
298.352,5.6936e-09,0,8192,8192
298.401,5.60872e-09,0,8192,8192
298.451,5.52949e-09,0,8192,8192
298.501,5.4565e-09,0,8192,8192
298.551,5.39021e-09,0,8192,8192
298.6,5.3309e-09,0,8192,8192
298.65,5.27864e-09,0,8192,8192
298.7,5.23328e-09,0,8192,8192
298.753,5.19235e-09,0,8192,8192
298.803,5.15977e-09,0,8192,8192
298.852,5.13224e-09,0,8192,8192
298.902,5.10874e-09,0,8192,8192
298.952,5.08811e-09,0,8192,8192
299.002,5.06905e-09,0,8192,8192
299.052,5.05023e-09,0,8192,8192
299.101,5.03031e-09,0,8192,8192
299.151,5.00801e-09,0,8192,8192
299.201,4.98218e-09,0,8192,8192
299.251,4.95185e-09,0,8192,8192
299.301,4.91629e-09,0,8192,8192
299.35,4.87503e-09,0,8192,8192
299.4,4.8279e-09,0,8192,8192
299.453,4.77173e-09,0,8192,8192
299.503,4.71317e-09,0,8192,8192
299.553,4.64988e-09,0,8192,8192
299.602,4.58266e-09,0,8192,8192
299.652,4.51241e-09,0,8192,8192
299.702,4.4401e-09,0,8192,8192
299.752,4.36668e-09,0,8192,8192
299.801,4.2931e-09,0,8192,8192
299.851,4.22024e-09,0,8192,8192
299.901,4.14893e-09,0,8192,8192
299.951,4.07992e-09,0,8192,8192
300.001,4.01397e-09,0,8192,8192
300.05,3.95174e-09,0,8192,8192
300.1,3.89388e-09,0,8192,8192
300.15,3.84096e-09,0,8192,8192
300.203,3.79089e-09,0,8192,8192
300.253,3.74962e-09,0,8192,8192
300.302,3.71444e-09,0,8192,8192
300.352,3.68544e-09,0,8192,8192
300.402,3.66249e-09,0,8192,8192
300.452,3.64532e-09,0,8192,8192
300.502,3.63345e-09,0,8192,8192
300.551,3.62629e-09,0,8192,8192
300.601,3.62314e-09,0,8192,8192
300.651,3.62323e-09,0,8192,8192
300.701,3.62575e-09,0,8192,8192
300.751,3.62993e-09,0,8192,8192
300.8,3.63503e-09,0,8192,8192
300.85,3.64037e-09,0,8192,8192
300.903,3.64565e-09,0,8192,8192
300.953,3.64976e-09,0,8192,8192
301.002,3.65261e-09,0,8192,8192
301.052,3.65391e-09,0,8192,8192
301.102,3.65343e-09,0,8192,8192
301.152,3.65105e-09,0,8192,8192
301.202,3.64668e-09,0,8192,8192
301.251,3.64032e-09,0,8192,8192
301.301,3.63198e-09,0,8192,8192
301.351,3.62173e-09,0,8192,8192
301.401,3.60965e-09,0,8192,8192
301.451,3.59582e-09,0,8192,8192
301.5,3.58036e-09,0,8192,8192
301.55,3.56335e-09,0,8192,8192
301.6,3.54489e-09,0,8192,8192
301.653,3.52383e-09,0,8192,8192
301.703,3.5026e-09,0,8192,8192
301.752,3.4801e-09,0,8192,8192
301.802,3.45638e-09,0,8192,8192
301.852,3.43148e-09,0,8192,8192
301.902,3.40545e-09,0,8192,8192
301.952,3.37832e-09,0,8192,8192
302.001,3.35017e-09,0,8192,8192
302.051,3.32106e-09,0,8192,8192
302.101,3.29109e-09,0,8192,8192
302.151,3.26036e-09,0,8192,8192
302.201,3.22897e-09,0,8192,8192
302.25,3.19704e-09,0,8192,8192
302.3,3.16467e-09,0,8192,8192
302.353,3.13005e-09,0,8192,8192
302.403,3.09711e-09,0,8192,8192
302.452,3.06403e-09,0,8192,8192
302.502,3.03087e-09,0,8192,8192
302.552,2.99768e-09,0,8192,8192
302.602,2.96451e-09,0,8192,8192
302.652,2.93138e-09,0,8192,8192
302.701,2.8983e-09,0,8192,8192
302.751,2.86528e-09,0,8192,8192
302.801,2.83231e-09,0,8192,8192
302.851,2.79937e-09,0,8192,8192
302.901,2.76645e-09,0,8192,8192
302.95,2.73351e-09,0,8192,8192
303,2.70053e-09,0,8192,8192
303.05,2.66746e-09,0,8192,8192
303.103,2.63231e-09,0,8192,8192
303.153,2.59893e-09,0,8192,8192
303.202,2.56535e-09,0,8192,8192
303.252,2.53151e-09,0,8192,8192
303.302,2.49737e-09,0,8192,8192
303.352,2.46289e-09,0,8192,8192
303.402,2.42805e-09,0,8192,8192
303.451,2.3928e-09,0,8192,8192
303.501,2.35712e-09,0,8192,8192
303.551,2.32099e-09,0,8192,8192
303.601,2.2844e-09,0,8192,8192
303.651,2.24732e-09,0,8192,8192
303.7,2.20977e-09,0,8192,8192
303.75,2.17173e-09,0,8192,8192
303.803,2.13093e-09,0,8192,8192
303.853,2.09192e-09,0,8192,8192
303.902,2.05247e-09,0,8192,8192
303.952,2.0126e-09,0,8192,8192
304.002,1.97234e-09,0,8192,8192
304.052,1.93172e-09,0,8192,8192
304.102,1.89078e-09,0,8192,8192
304.151,1.84956e-09,0,8192,8192
304.201,1.8081e-09,0,8192,8192
304.251,1.76646e-09,0,8192,8192
304.301,1.72468e-09,0,8192,8192
304.351,1.68281e-09,0,8192,8192
304.4,1.64092e-09,0,8192,8192
304.45,1.59906e-09,0,8192,8192
304.5,1.55728e-09,0,8192,8192
304.553,1.51321e-09,0,8192,8192
304.603,1.47178e-09,0,8192,8192
304.652,1.43061e-09,0,8192,8192
304.702,1.38975e-09,0,8192,8192
304.752,1.34925e-09,0,8192,8192
304.802,1.30916e-09,0,8192,8192
304.852,1.26953e-09,0,8192,8192
304.901,1.2304e-09,0,8192,8192
304.951,1.19182e-09,0,8192,8192
