250,0,0,2048,2048
250.006,0,0,2048,2048
250.053,0,0,2048,2048
250.105,0,0,2048,2048
250.152,0,0,2048,2048
250.205,-2.77556e-17,0,2048,2048
250.252,0,0,2048,2048
250.305,-2.77556e-17,0,2048,2048
250.352,0,0,2048,2048
250.404,-2.77556e-17,0,2048,2048
250.451,0,0,2048,2048
250.504,0,0,2048,2048
250.551,-2.77556e-17,0,2048,2048
250.603,0,0,2048,2048
250.65,0,0,2048,2048
250.703,-2.77556e-17,0,2048,2048
250.756,0,0,2048,2048
250.803,-2.77556e-17,0,2048,2048
250.855,0,0,2048,2048
250.902,-2.77556e-17,0,2048,2048
250.955,-2.77556e-17,0,2048,2048
251.002,0,0,2048,2048
251.055,-2.77556e-17,0,2048,2048
251.101,-2.77556e-17,0,2048,2048
251.154,-2.77556e-17,0,2048,2048
251.201,0,0,2048,2048
251.254,0,0,2048,2048
251.301,-2.77556e-17,0,2048,2048
251.353,0,0,2048,2048
251.4,2.77556e-17,0,2048,2048
251.453,2.77556e-17,0,2048,2048
251.506,2.77556e-17,0,2048,2048
251.553,2.77556e-17,0,2048,2048
251.605,2.77556e-17,0,2048,2048
251.652,2.77556e-17,0,2048,2048
251.705,2.77556e-17,0,2048,2048
251.752,5.55112e-17,0,2048,2048
251.804,5.55112e-17,0,2048,2048
251.851,2.77556e-17,0,2048,2048
251.904,-2.77556e-17,0,2048,2048
251.951,-2.77556e-17,0,2048,2048
252.004,-2.77556e-17,0,2048,2048
252.05,-2.77556e-17,0,2048,2048
252.103,-2.77556e-17,0,2048,2048
252.15,-2.77556e-17,0,2048,2048
252.203,0,0,2048,2048
252.256,0,0,2048,2048
252.302,0,0,2048,2048
252.355,0,0,2048,2048
252.402,0,0,2048,2048
252.455,-2.77556e-17,0,2048,2048
252.502,0,0,2048,2048
252.554,0,0,2048,2048
252.601,0,0,2048,2048
252.654,0,0,2048,2048
252.701,0,0,2048,2048
252.754,0,0,2048,2048
252.8,0,0,2048,2048
252.853,0,0,2048,2048
252.906,-2.77556e-17,0,2048,2048
252.953,-2.77556e-17,0,2048,2048
253.005,-2.77556e-17,0,2048,2048
253.052,0,0,2048,2048
253.105,0,0,2048,2048
253.152,-2.77556e-17,0,2048,2048
253.205,-2.77556e-17,0,2048,2048
253.251,-2.77556e-17,0,2048,2048
253.304,0,0,2048,2048
253.351,0,0,2048,2048
253.404,0,0,2048,2048
253.451,-2.77556e-17,0,2048,2048
253.503,0,0,2048,2048
253.55,0,0,2048,2048
253.603,-2.77556e-17,0,2048,2048
253.656,-2.77556e-17,0,2048,2048
253.703,0,0,2048,2048
253.755,-2.77556e-17,0,2048,2048
253.802,2.77556e-17,0,2048,2048
253.855,2.77556e-17,0,2048,2048
253.902,2.77556e-17,0,2048,2048
253.954,8.32667e-17,0,2048,2048
254.001,5.55112e-17,0,2048,2048
254.054,2.77556e-17,0,2048,2048
254.101,2.77556e-17,0,2048,2048
254.154,5.55112e-17,0,2048,2048
254.201,5.55112e-17,0,2048,2048
254.253,5.55112e-17,0,2048,2048
254.3,2.77556e-17,0,2048,2048
254.353,5.55112e-17,0,2048,2048
254.406,2.77556e-17,0,2048,2048
254.452,2.77556e-17,0,2048,2048
254.505,2.77556e-17,0,2048,2048
254.552,2.77556e-17,0,2048,2048
254.605,2.77556e-17,0,2048,2048
254.652,2.77556e-17,0,2048,2048
254.704,0,0,2048,2048
254.751,0,0,2048,2048
254.804,0,0,2048,2048
254.851,0,0,2048,2048
254.904,2.77556e-17,0,2048,2048
254.95,-2.77556e-17,0,2048,2048
255.003,0,0,2048,2048
255.05,0,0,2048,2048
255.103,0,0,2048,2048
255.155,0,0,2048,2048
255.202,0,0,2048,2048
255.255,0,0,2048,2048
255.302,0,0,2048,2048
255.355,0,0,2048,2048
255.402,0,0,2048,2048
255.454,-5.55112e-17,0,2048,2048
255.501,-5.55112e-17,0,2048,2048
255.554,-2.77556e-17,0,2048,2048
255.601,-2.77556e-17,0,2048,2048
255.653,-2.77556e-17,0,2048,2048
255.7,-5.55112e-17,0,2048,2048
255.753,0,0,2048,2048
255.806,0,0,2048,2048
255.853,0,0,2048,2048
255.905,0,0,2048,2048
255.952,-2.77556e-17,0,2048,2048
256.005,-2.77556e-17,0,2048,2048
256.052,0,0,2048,2048
256.105,0,0,2048,2048
256.151,5.55112e-17,0,2048,2048
256.204,2.77556e-17,0,2048,2048
256.251,0,0,2048,2048
256.304,2.77556e-17,0,2048,2048
256.351,2.77556e-17,0,2048,2048
256.403,2.77556e-17,0,2048,2048
256.45,2.77556e-17,0,2048,2048
256.503,2.77556e-17,0,2048,2048
256.556,2.77556e-17,0,2048,2048
256.603,5.55112e-17,0,2048,2048
256.655,5.55112e-17,0,2048,2048
256.702,5.55112e-17,0,2048,2048
256.755,5.55112e-17,0,2048,2048
256.802,2.77556e-17,0,2048,2048
256.854,2.77556e-17,0,2048,2048
256.901,2.77556e-17,0,2048,2048
256.954,2.77556e-17,0,2048,2048
257.001,2.77556e-17,0,2048,2048
257.054,2.77556e-17,0,2048,2048
257.101,2.77556e-17,0,2048,2048
257.153,2.77556e-17,0,2048,2048
257.2,2.77556e-17,0,2048,2048
257.253,2.77556e-17,0,2048,2048
257.306,5.55112e-17,0,2048,2048
257.352,0,0,2048,2048
257.405,0,0,2048,2048
257.452,0,0,2048,2048
257.505,-2.77556e-17,0,2048,2048
257.552,-2.77556e-17,0,2048,2048
257.604,-2.77556e-17,0,2048,2048
257.651,0,0,2048,2048
257.704,-2.77556e-17,0,2048,2048
257.751,-2.77556e-17,0,2048,2048
257.804,-2.77556e-17,0,2048,2048
257.85,-5.55112e-17,0,2048,2048
257.903,-5.55112e-17,0,2048,2048
257.95,-5.55112e-17,0,2048,2048
258.003,-5.55112e-17,0,2048,2048
258.055,-2.77556e-17,0,2048,2048
258.102,-2.77556e-17,0,2048,2048
258.155,-2.77556e-17,0,2048,2048
258.202,-2.77556e-17,0,2048,2048
258.255,-2.77556e-17,0,2048,2048
258.302,-2.77556e-17,0,2048,2048
258.354,0,0,2048,2048
258.401,-2.77556e-17,0,2048,2048
258.454,0,0,2048,2048
258.501,0,0,2048,2048
258.553,0,0,2048,2048
258.6,0,0,2048,2048
258.653,2.77556e-17,0,2048,2048
258.706,0,0,2048,2048
258.753,0,0,2048,2048
258.805,-2.77556e-17,0,2048,2048
258.852,-2.77556e-17,0,2048,2048
258.905,-2.77556e-17,0,2048,2048
258.952,-2.77556e-17,0,2048,2048
259.005,-2.77556e-17,0,2048,2048
259.051,-2.77556e-17,0,2048,2048
259.104,-2.77556e-17,0,2048,2048
259.151,0,0,2048,2048
259.204,0,0,2048,2048
259.251,0,0,2048,2048
259.303,-5.55112e-17,0,2048,2048
259.35,-5.55112e-17,0,2048,2048
259.403,-2.77556e-17,0,2048,2048
259.456,-5.55112e-17,0,2048,2048
259.503,-2.77556e-17,0,2048,2048
259.555,-2.77556e-17,0,2048,2048
259.602,-2.77556e-17,0,2048,2048
259.655,-2.77556e-17,0,2048,2048
259.702,-5.55112e-17,0,2048,2048
259.754,-2.77556e-17,0,2048,2048
259.801,-5.55112e-17,0,2048,2048
259.854,-2.77556e-17,0,2048,2048
259.901,-2.77556e-17,0,2048,2048
259.954,-2.77556e-17,0,2048,2048
260,-2.77556e-17,0,2048,2048
260.053,-2.77556e-17,0,2048,2048
260.1,-2.77556e-17,0,2048,2048
260.153,-2.77556e-17,0,2048,2048
260.206,-2.77556e-17,0,2048,2048
260.252,0,0,2048,2048
260.305,0,0,2048,2048
260.352,0,0,2048,2048
260.405,0,0,2048,2048
260.452,2.77556e-17,0,2048,2048
260.504,2.77556e-17,0,2048,2048
260.551,2.77556e-17,0,2048,2048
260.604,0,0,2048,2048
260.651,0,0,2048,2048
260.704,0,0,2048,2048
260.75,-2.77556e-17,0,2048,2048
260.803,0,0,2048,2048
260.856,0,0,2048,2048
260.903,-2.77556e-17,0,2048,2048
260.955,0,0,2048,2048
261.002,2.77556e-17,0,2048,2048
261.055,2.77556e-17,0,2048,2048
261.102,2.77556e-17,0,2048,2048
261.155,2.77556e-17,0,2048,2048
261.201,2.77556e-17,0,2048,2048
261.254,2.77556e-17,0,2048,2048
261.301,2.77556e-17,0,2048,2048
261.354,2.77556e-17,0,2048,2048
261.401,0,0,2048,2048
261.453,0,0,2048,2048
261.5,0,0,2048,2048
261.553,2.77556e-17,0,2048,2048
261.606,5.55112e-17,0,2048,2048
261.653,2.77556e-17,0,2048,2048
261.705,5.55112e-17,0,2048,2048
261.752,5.55112e-17,0,2048,2048
261.805,5.55112e-17,0,2048,2048
261.852,5.55112e-17,0,2048,2048
261.905,5.55112e-17,0,2048,2048
261.951,5.55112e-17,0,2048,2048
262.004,2.77556e-17,0,2048,2048
262.051,5.55112e-17,0,2048,2048
262.104,5.55112e-17,0,2048,2048
262.151,0,0,2048,2048
262.203,0,0,2048,2048
262.25,0,0,2048,2048
262.303,2.77556e-17,0,2048,2048
262.356,2.77556e-17,0,2048,2048
262.402,2.77556e-17,0,2048,2048
262.455,0,0,2048,2048
262.502,0,0,2048,2048
262.555,0,0,2048,2048
262.602,0,0,2048,2048
262.654,0,0,2048,2048
262.701,2.77556e-17,0,2048,2048
262.754,0,0,2048,2048
262.801,0,0,2048,2048
262.854,-2.77556e-17,0,2048,2048
262.9,0,0,2048,2048
262.953,2.77556e-17,0,2048,2048
263,2.77556e-17,0,2048,2048
263.053,2.77556e-17,0,2048,2048
263.105,2.77556e-17,0,2048,2048
263.152,2.77556e-17,0,2048,2048
263.205,2.77556e-17,0,2048,2048
263.252,2.77556e-17,0,2048,2048
263.305,0,0,2048,2048
263.352,0,0,2048,2048
263.404,0,0,2048,2048
263.451,0,0,2048,2048
263.504,0,0,2048,2048
263.551,0,0,2048,2048
263.603,0,0,2048,2048
263.65,0,0,2048,2048
263.703,-2.77556e-17,0,2048,2048
263.756,0,0,2048,2048
263.803,-2.77556e-17,0,2048,2048
263.855,0,0,2048,2048
263.902,0,0,2048,2048
263.955,2.77556e-17,0,2048,2048
264.002,2.77556e-17,0,2048,2048
264.055,2.77556e-17,0,2048,2048
264.101,2.77556e-17,0,2048,2048
264.154,2.77556e-17,0,2048,2048
264.201,5.55112e-17,0,2048,2048
264.254,2.77556e-17,0,2048,2048
264.301,0,0,2048,2048
264.353,0,0,2048,2048
264.4,-2.77556e-17,0,2048,2048
264.453,0,0,2048,2048
264.506,2.77556e-17,0,2048,2048
264.553,2.77556e-17,0,2048,2048
264.605,2.77556e-17,0,2048,2048
264.652,8.32667e-17,0,2048,2048
264.705,8.32667e-17,0,2048,2048
264.752,2.77556e-17,0,2048,2048
264.804,5.55112e-17,0,2048,2048
264.851,2.77556e-17,0,2048,2048
264.904,0,0,2048,2048
264.951,0,0,2048,2048
265.004,0,0,2048,2048
265.051,0,0,2048,2048
265.103,-2.77556e-17,0,2048,2048
265.15,0,0,2048,2048
265.203,-2.77556e-17,0,2048,2048
265.256,0,0,2048,2048
265.302,2.77556e-17,0,2048,2048
265.355,0,0,2048,2048
265.402,-2.77556e-17,0,2048,2048
265.455,-2.77556e-17,0,2048,2048
265.502,-2.77556e-17,0,2048,2048
265.554,0,0,2048,2048
265.601,-2.77556e-17,0,2048,2048
265.654,-2.77556e-17,0,2048,2048
265.701,-5.55112e-17,0,2048,2048
265.754,-8.32667e-17,0,2048,2048
265.8,-5.55112e-17,0,2048,2048
265.853,-2.77556e-17,0,2048,2048
265.9,-2.77556e-17,0,2048,2048
265.953,-2.77556e-17,0,2048,2048
266.005,-2.77556e-17,0,2048,2048
266.052,-2.77556e-17,0,2048,2048
266.105,-2.77556e-17,0,2048,2048
266.152,-5.55112e-17,0,2048,2048
266.205,-5.55112e-17,0,2048,2048
266.252,-8.32667e-17,0,2048,2048
266.304,-5.55112e-17,0,2048,2048
266.351,-8.32667e-17,0,2048,2048
266.404,-8.32667e-17,0,2048,2048
266.451,-5.55112e-17,0,2048,2048
266.503,-2.77556e-17,0,2048,2048
266.55,0,0,2048,2048
266.603,0,0,2048,2048
266.656,-2.77556e-17,0,2048,2048
266.703,-2.77556e-17,0,2048,2048
266.755,-5.55112e-17,0,2048,2048
266.802,-5.55112e-17,0,2048,2048
266.855,-2.77556e-17,0,2048,2048
266.902,-5.55112e-17,0,2048,2048
266.955,-5.55112e-17,0,2048,2048
267.001,-5.55112e-17,0,2048,2048
267.054,-5.55112e-17,0,2048,2048
267.101,-8.32667e-17,0,2048,2048
267.154,-5.55112e-17,0,2048,2048
267.201,-5.55112e-17,0,2048,2048
267.253,-2.77556e-17,0,2048,2048
267.3,-2.77556e-17,0,2048,2048
267.353,0,0,2048,2048
267.406,-2.77556e-17,0,2048,2048
267.453,-2.77556e-17,0,2048,2048
267.505,-2.77556e-17,0,2048,2048
267.552,-2.77556e-17,0,2048,2048
267.605,-5.55112e-17,0,2048,2048
267.652,-5.55112e-17,0,2048,2048
267.704,-1.11022e-16,0,2048,2048
267.751,-5.55112e-17,0,2048,2048
267.804,-5.55112e-17,0,2048,2048
267.851,-5.55112e-17,0,2048,2048
267.904,-2.77556e-17,0,2048,2048
267.95,-5.55112e-17,0,2048,2048
268.003,-2.77556e-17,0,2048,2048
268.05,-2.77556e-17,0,2048,2048
268.103,2.77556e-17,0,2048,2048
268.156,0,0,2048,2048
268.202,-2.77556e-17,0,2048,2048
268.255,0,0,2048,2048
268.302,-2.77556e-17,0,2048,2048
268.355,-2.77556e-17,0,2048,2048
268.402,0,0,2048,2048
268.454,0,0,2048,2048
268.501,0,0,2048,2048
268.554,0,0,2048,2048
268.601,5.55112e-17,0,2048,2048
268.654,2.77556e-17,0,2048,2048
268.7,5.55112e-17,0,2048,2048
268.753,5.55112e-17,0,2048,2048
268.806,8.32667e-17,0,2048,2048
268.853,8.32667e-17,0,2048,2048
268.905,5.55112e-17,0,2048,2048
268.952,2.77556e-17,0,2048,2048
269.005,5.55112e-17,0,2048,2048
269.052,2.77556e-17,0,2048,2048
269.105,2.77556e-17,0,2048,2048
269.151,2.77556e-17,0,2048,2048
269.204,2.77556e-17,0,2048,2048
269.251,2.77556e-17,0,2048,2048
269.304,2.77556e-17,0,2048,2048
269.351,0,0,2048,2048
269.403,1.13798e-15,0,2048,2048
269.45,2.82552e-14,0,2048,2048
269.503,2.82968e-13,0,2048,2048
269.556,-4.71928e-13,0,2048,2048
269.603,-1.31362e-11,0,2048,2048
269.651,-6.60395e-11,0,2074,2074
269.7,-1.75652e-10,0,2122,2122
269.75,-2.86096e-10,0,2158,2158
269.8,-3.09264e-10,0,2194,2194
269.853,-1.98764e-10,0,2242,2242
269.903,-2.22192e-11,0,2278,2278
269.952,1.22979e-10,0,2314,2314
270.002,1.65282e-10,0,2362,2362
270.052,1.09933e-10,0,2398,2398
270.102,2.86769e-11,0,2434,2434
270.152,-1.02687e-12,0,2482,2482
270.201,4.25191e-11,0,2518,2518
270.251,1.14947e-10,0,2554,2554
270.301,1.5235e-10,0,2566,2566
270.351,1.29044e-10,0,2566,2566
270.401,7.47999e-11,0,2602,2602
270.45,4.17867e-11,0,2638,2638
270.5,5.72278e-11,0,2686,2686
270.553,1.07366e-10,0,2722,2722
270.603,1.44256e-10,0,2770,2770
270.652,1.42761e-10,0,2806,2806
270.702,1.07623e-10,0,2842,2842
270.752,6.84997e-11,0,2890,2890
270.802,5.7168e-11,0,2926,2926
270.852,8.50311e-11,0,2974,2974
270.901,1.33033e-10,0,3010,3010
270.951,1.61553e-10,0,3046,3046
271.001,1.39963e-10,0,3094,3094
271.051,7.90599e-11,0,3130,3130
271.101,3.64305e-11,0,3178,3178
271.15,7.65428e-11,0,3214,3214
271.2,2.02316e-10,0,3250,3250
271.25,3.11065e-10,0,3286,3286
271.303,2.31373e-10,0,3334,3334
271.353,-1.01693e-10,0,3334,3334
271.402,-5.65347e-10,0,3358,3358
271.452,-7.35192e-10,0,3406,3406
271.502,3.44566e-10,0,3442,3442
271.552,5.16326e-09,0,3490,3490
271.602,1.10503e-08,0,3526,3526
271.651,1.71057e-08,0,3574,3574
271.701,2.21916e-08,0,3610,3610
271.751,2.57697e-08,0,3658,3658
271.801,2.80187e-08,0,3694,3694
271.851,2.98284e-08,0,3742,3742
271.9,3.26346e-08,0,3778,3778
271.95,3.77581e-08,0,3826,3826
272.003,4.62191e-08,0,3862,3862
272.053,5.6592e-08,0,3910,3910
272.102,6.86681e-08,0,3946,3946
272.152,8.26037e-08,0,3994,3994
272.202,9.94609e-08,0,4030,4030
272.252,1.2068e-07,0,4078,4078
272.302,1.47494e-07,0,4114,4114
272.351,1.80604e-07,0,4150,4150
272.401,2.19893e-07,0,4198,4198
272.451,2.64069e-07,0,4234,4234
272.501,3.10954e-07,0,4282,4282
272.551,3.58762e-07,0,4318,4318
272.6,4.07435e-07,0,4354,4354
272.65,4.58518e-07,0,4402,4402
272.7,5.13311e-07,0,4438,4438
272.753,5.74291e-07,0,4486,4486
272.803,6.31154e-07,0,4522,4522
272.852,6.83151e-07,0,4558,4558
272.902,7.27141e-07,0,4606,4606
272.952,7.61421e-07,0,4642,4642
273.002,7.85689e-07,0,4678,4678
273.052,8.01075e-07,0,4714,4714
273.101,8.09752e-07,0,4762,4762
273.151,8.13949e-07,0,4798,4798
273.201,8.15041e-07,0,4834,4834
273.251,8.13378e-07,0,4870,4870
273.301,8.08605e-07,0,4906,4906
273.35,7.99942e-07,0,4954,4954
273.4,7.86362e-07,0,4990,4990
273.453,7.65441e-07,0,5026,5026
273.503,7.38556e-07,0,5062,5062
273.552,7.04213e-07,0,5110,5110
273.602,6.62745e-07,0,5146,5146
273.652,6.15815e-07,0,5182,5182
273.702,5.66161e-07,0,5218,5218
273.752,5.16599e-07,0,5222,5222
273.801,4.69138e-07,0,5258,5258
273.851,4.24844e-07,0,5326,5326
273.901,3.8408e-07,0,5362,5362
273.951,3.46701e-07,0,5398,5398
274.001,3.12206e-07,0,5434,5434
274.05,2.79963e-07,0,5470,5470
274.1,2.494e-07,0,5506,5506
274.153,2.18514e-07,0,5554,5554
274.203,1.91024e-07,0,5590,5590
274.253,1.66321e-07,0,5626,5626
274.302,1.45944e-07,0,5662,5662
274.352,1.30545e-07,0,5686,5686
274.402,1.18888e-07,0,5722,5722
274.452,1.08384e-07,0,5758,5758
274.502,9.69324e-08,0,5794,5794
274.551,8.43664e-08,0,5830,5830
274.601,7.21843e-08,0,5866,5866
274.651,6.20851e-08,0,5902,5902
274.701,5.48204e-08,0,5938,5938
274.75,5.008e-08,0,5974,5974
274.8,4.6895e-08,0,6010,6010
274.85,4.3972e-08,0,6046,6046
274.903,3.98038e-08,0,6082,6082
274.953,3.43595e-08,0,6106,6106
275.002,2.82263e-08,0,6142,6142
275.052,2.29581e-08,0,6178,6178
275.102,1.97599e-08,0,6214,6214
275.152,1.86865e-08,0,6250,6250
275.202,1.88815e-08,0,6286,6286
275.251,1.94e-08,0,6310,6310
275.301,1.97487e-08,0,6346,6346
275.351,1.98954e-08,0,6382,6382
275.401,1.99794e-08,0,6418,6418
275.451,2.00848e-08,0,6454,6454
275.5,2.02051e-08,0,6478,6478
275.55,2.02697e-08,0,6514,6514
275.603,2.01093e-08,0,6550,6550
275.653,1.97099e-08,0,6586,6586
275.703,1.93403e-08,0,6622,6622
275.752,1.91784e-08,0,6646,6646
275.802,1.91568e-08,0,6682,6682
275.852,1.91801e-08,0,6718,6718
275.902,1.92118e-08,0,6754,6754
275.951,1.92446e-08,0,6790,6790
276.001,1.92776e-08,0,6814,6814
276.051,1.93107e-08,0,6850,6850
276.101,1.93439e-08,0,6886,6886
276.151,1.93771e-08,0,6910,6910
276.2,1.94104e-08,0,6946,6946
276.25,1.94437e-08,0,6982,6982
276.3,1.94771e-08,0,7018,7018
276.353,1.95124e-08,0,7054,7054
276.403,1.95459e-08,0,7078,7078
276.452,1.95794e-08,0,7114,7114
276.502,1.9613e-08,0,7150,7150
276.552,1.96466e-08,0,7174,7174
276.602,1.96803e-08,0,7210,7210
276.652,1.97141e-08,0,7246,7246
276.701,1.9748e-08,0,7270,7270
276.751,1.97818e-08,0,7306,7306
276.801,1.98157e-08,0,7342,7342
276.851,1.98496e-08,0,7378,7378
276.901,1.98836e-08,0,7402,7402
276.95,1.99177e-08,0,7438,7438
277,1.99518e-08,0,7474,7474
277.053,1.99881e-08,0,7498,7498
277.103,2.00225e-08,0,7534,7534
277.152,2.0057e-08,0,7570,7570
277.202,2.00916e-08,0,7594,7594
277.252,2.01264e-08,0,7630,7630
277.302,2.01613e-08,0,7666,7666
277.352,2.01963e-08,0,7690,7690
277.401,2.02315e-08,0,7726,7726
277.451,2.02668e-08,0,7750,7750
277.501,2.03022e-08,0,7786,7786
277.551,2.03377e-08,0,7810,7810
277.601,2.03734e-08,0,7846,7846
277.65,2.04093e-08,0,7882,7882
277.7,2.04452e-08,0,7906,7906
277.75,2.04813e-08,0,7942,7942
277.803,2.05197e-08,0,7966,7966
277.853,2.0556e-08,0,7990,7990
277.902,2.05924e-08,0,8026,8026
277.952,2.06288e-08,0,8050,8050
278.002,2.06652e-08,0,8074,8074
278.052,2.07014e-08,0,8098,8098
278.102,2.0737e-08,0,8122,8122
278.151,2.07715e-08,0,8146,8146
278.201,2.08046e-08,0,8192,8192
278.251,2.08356e-08,0,8192,8192
278.301,2.08644e-08,0,8192,8192
278.351,2.08907e-08,0,8192,8192
278.4,2.09146e-08,0,8192,8192
278.45,2.09359e-08,0,8192,8192
278.503,2.09556e-08,0,8192,8192
278.553,2.09711e-08,0,8192,8192
278.602,2.09827e-08,0,8192,8192
278.652,2.09897e-08,0,8192,8192
278.702,2.09906e-08,0,8192,8192
278.752,2.09841e-08,0,8192,8192
278.802,2.09683e-08,0,8192,8192
278.851,2.09412e-08,0,8192,8192
278.901,2.09003e-08,0,8192,8192
278.951,2.08431e-08,0,8192,8192
279.001,2.07667e-08,0,8192,8192
279.051,2.06682e-08,0,8192,8192
279.1,2.0545e-08,0,8192,8192
279.15,2.03947e-08,0,8192,8192
279.2,2.02152e-08,0,8192,8192
279.253,1.99916e-08,0,8192,8192
279.303,1.97472e-08,0,8192,8192
279.352,1.94698e-08,0,8192,8192
279.402,1.91592e-08,0,8192,8192
279.452,1.88163e-08,0,8192,8192
279.502,1.84427e-08,0,8192,8192
279.552,1.80413e-08,0,8192,8192
279.601,1.76156e-08,0,8192,8192
279.651,1.71698e-08,0,8192,8192
279.701,1.67081e-08,0,8192,8192
279.751,1.62346e-08,0,8192,8192
279.801,1.57531e-08,0,8192,8192
279.85,1.5267e-08,0,8192,8192
279.9,1.47794e-08,0,8192,8192
279.953,1.42647e-08,0,8192,8192
280.003,1.37833e-08,0,8192,8192
280.052,1.33096e-08,0,8192,8192
280.102,1.28471e-08,0,8192,8192
280.152,1.23991e-08,0,8192,8192
280.202,1.19692e-08,0,8192,8192
280.252,1.15606e-08,0,8192,8192
280.301,1.11761e-08,0,8192,8192
280.351,1.08177e-08,0,8192,8192
280.401,1.04866e-08,0,8192,8192
280.451,1.01831e-08,0,8192,8192
280.501,9.90689e-09,0,8192,8192
280.55,9.657e-09,0,8192,8192
280.6,9.43215e-09,0,8192,8192
280.65,9.23089e-09,0,8192,8192
280.703,9.04183e-09,0,8192,8192
280.753,8.8844e-09,0,8192,8192
280.802,8.74594e-09,0,8192,8192
280.852,8.62485e-09,0,8192,8192
280.902,8.51948e-09,0,8192,8192
280.952,8.4281e-09,0,8192,8192
281.002,8.34904e-09,0,8192,8192
281.051,8.28079e-09,0,8192,8192
281.101,8.22205e-09,0,8192,8192
281.151,8.17181e-09,0,8192,8192
281.201,8.1292e-09,0,8192,8192
281.251,8.09347e-09,0,8192,8192
281.3,8.06386e-09,0,8192,8192
281.35,8.03959e-09,0,8192,8192
281.403,8.01887e-09,0,8192,8192
281.453,8.00334e-09,0,8192,8192
281.502,7.99126e-09,0,8192,8192
281.552,7.9823e-09,0,8192,8192
281.602,7.97626e-09,0,8192,8192
281.652,7.97294e-09,0,8192,8192
281.702,7.97206e-09,0,8192,8192
281.751,7.97325e-09,0,8192,8192
281.801,7.97606e-09,0,8192,8192
281.851,7.98002e-09,0,8192,8192
281.901,7.98472e-09,0,8192,8192
281.951,7.98983e-09,0,8192,8192
282,7.99514e-09,0,8192,8192
282.05,8.00053e-09,0,8192,8192
282.1,8.00596e-09,0,8192,8192
282.153,8.01173e-09,0,8192,8192
282.203,8.01723e-09,0,8192,8192
282.252,8.0228e-09,0,8192,8192
282.302,8.02846e-09,0,8192,8192
282.352,8.03422e-09,0,8192,8192
282.402,8.04008e-09,0,8192,8192
282.452,8.04602e-09,0,8192,8192
282.501,8.05203e-09,0,8192,8192
282.551,8.05808e-09,0,8192,8192
282.601,8.06415e-09,0,8192,8192
282.651,8.07022e-09,0,8192,8192
282.7,8.07626e-09,0,8192,8192
282.75,8.08228e-09,0,8192,8192
282.8,8.08824e-09,0,8192,8192
282.853,8.09448e-09,0,8192,8192
282.903,8.10025e-09,0,8192,8192
282.952,8.1059e-09,0,8192,8192
283.002,8.11139e-09,0,8192,8192
283.052,8.11678e-09,0,8192,8192
283.102,8.12219e-09,0,8192,8192
283.152,8.12794e-09,0,8192,8192
283.201,8.13458e-09,0,8192,8192
283.251,8.14305e-09,0,8192,8192
283.301,8.15466e-09,0,8192,8192
283.351,8.17117e-09,0,8192,8192
283.401,8.19466e-09,0,8192,8192
283.45,8.22741e-09,0,8192,8192
283.5,8.27176e-09,0,8192,8192
283.553,8.33387e-09,0,8192,8192
283.603,8.40906e-09,0,8192,8192
283.653,8.5024e-09,0,8192,8192
283.702,8.61608e-09,0,8192,8192
283.752,8.75263e-09,0,8192,8192
283.802,8.91529e-09,0,8192,8192
283.852,9.10826e-09,0,8192,8192
283.901,9.33702e-09,0,8192,8192
283.951,9.60845e-09,0,8192,8192
284.001,9.93106e-09,0,8192,8192
284.051,1.0315e-08,0,8192,8192
284.101,1.07722e-08,0,8192,8192
284.15,1.13158e-08,0,8192,8192
284.2,1.19605e-08,0,8192,8192
284.25,1.27216e-08,0,8192,8192
284.303,1.36721e-08,0,8192,8192
284.353,1.47226e-08,0,8192,8192
284.402,1.59368e-08,0,8192,8192
284.452,1.73281e-08,0,8192,8192
284.502,1.89079e-08,0,8192,8192
284.552,2.06852e-08,0,8192,8192
284.602,2.26659e-08,0,8192,8192
284.651,2.48521e-08,0,8192,8192
284.701,2.72424e-08,0,8192,8192
284.751,2.98309e-08,0,8192,8192
284.801,3.26082e-08,0,8192,8192
284.851,3.55617e-08,0,8192,8192
284.9,3.86767e-08,0,8192,8192
284.95,4.19383e-08,0,8192,8192
285.003,4.55371e-08,0,8192,8192
285.053,4.90652e-08,0,8192,8192
285.102,5.2719e-08,0,8192,8192
285.152,5.65099e-08,0,8192,8192
285.202,6.04607e-08,0,8192,8192
285.252,6.46045e-08,0,8192,8192
285.302,6.89798e-08,0,8192,8192
285.351,7.36237e-08,0,8192,8192
285.401,7.85644e-08,0,8192,8192
285.451,8.38162e-08,0,8192,8192
285.501,8.93788e-08,0,8192,8192
285.551,9.52425e-08,0,8192,8192
285.6,1.01399e-07,0,8192,8192
285.65,1.07859e-07,0,8192,8192
285.7,1.14661e-07,0,8192,8192
285.753,1.22335e-07,0,8192,8192
285.803,1.30178e-07,0,8192,8192
285.852,1.38801e-07,0,8192,8192
285.902,1.48453e-07,0,8192,8192
285.952,1.59425e-07,0,8192,8192
286.002,1.72028e-07,0,8192,8192
286.052,1.86584e-07,0,8192,8192
286.101,2.03396e-07,0,8192,8192
286.151,2.22734e-07,0,8192,8192
286.201,2.44809e-07,0,8192,8192
286.251,2.6975e-07,0,8192,8192
286.301,2.97586e-07,0,8192,8192
286.35,3.28234e-07,0,8192,8192
286.4,3.61486e-07,0,8192,8192
286.453,3.99156e-07,0,8192,8192
286.503,4.36566e-07,0,8192,8192
286.552,4.7515e-07,0,8192,8192
286.602,5.14196e-07,0,8192,8192
286.652,5.52898e-07,0,8192,8192
286.702,5.90387e-07,0,8192,8192
286.752,6.25769e-07,0,8192,8192
286.801,6.58177e-07,0,8192,8192
286.851,6.86823e-07,0,8192,8192
286.901,7.11046e-07,0,8192,8192
286.951,7.30346e-07,0,8192,8192
287.001,7.44393e-07,0,8192,8192
287.05,7.53025e-07,0,8192,8192
287.1,7.56216e-07,0,8192,8192
287.15,7.54041e-07,0,8192,8192
287.203,7.46042e-07,0,8192,8192
287.253,7.33283e-07,0,8192,8192
287.302,7.1566e-07,0,8192,8192
287.352,6.9338e-07,0,8192,8192
287.402,6.66694e-07,0,8192,8192
287.452,6.35917e-07,0,8192,8192
287.502,6.01457e-07,0,8192,8192
287.551,5.63828e-07,0,8192,8192
287.601,5.23647e-07,0,8192,8192
287.651,4.81617e-07,0,8192,8192
287.701,4.38491e-07,0,8192,8192
287.751,3.95027e-07,0,8192,8192
287.8,3.51948e-07,0,8192,8192
287.85,3.09905e-07,0,8192,8192
287.903,2.67127e-07,0,8192,8192
287.953,2.28825e-07,0,8192,8192
288.002,1.92895e-07,0,8192,8192
288.052,1.59558e-07,0,8192,8192
288.102,1.28951e-07,0,8192,8192
288.152,1.01131e-07,0,8192,8192
288.202,7.6094e-08,0,8192,8192
288.251,5.37789e-08,0,8192,8192
288.301,3.40788e-08,0,8192,8192
288.351,1.68508e-08,0,8192,8192
288.401,1.92721e-09,0,8192,8192
288.451,-1.08725e-08,0,8192,8192
288.5,-2.17319e-08,0,8192,8192
288.55,-3.08295e-08,0,8192,8192
288.6,-3.83357e-08,0,8192,8192
288.653,-4.47273e-08,0,8192,8192
288.703,-4.94521e-08,0,8192,8192
288.752,-5.30458e-08,0,8192,8192
288.802,-5.56362e-08,0,8192,8192
288.852,-5.73362e-08,0,8192,8192
288.902,-5.82416e-08,0,8192,8192
288.952,-5.84313e-08,0,8192,8192
289.001,-5.79709e-08,0,8192,8192
289.051,-5.69181e-08,0,8192,8192
289.101,-5.53304e-08,0,8192,8192
289.151,-5.3271e-08,0,8192,8192
289.201,-5.08123e-08,0,8192,8192
289.25,-4.80367e-08,0,8192,8192
289.3,-4.50331e-08,0,8192,8192
289.353,-4.17048e-08,0,8192,8192
289.403,-3.85117e-08,0,8192,8192
289.452,-3.5348e-08,0,8192,8192
289.502,-3.22767e-08,0,8192,8192
289.552,-2.93459e-08,0,8192,8192
289.602,-2.659e-08,0,8192,8192
289.652,-2.40305e-08,0,8192,8192
289.701,-2.16793e-08,0,8192,8192
289.751,-1.95405e-08,0,8192,8192
289.801,-1.76135e-08,0,8192,8192
289.851,-1.58941e-08,0,8192,8192
289.901,-1.43761e-08,0,8192,8192
289.95,-1.30517e-08,0,8192,8192
290,-1.19121e-08,0,8192,8192
290.053,-1.08955e-08,0,8192,8192
290.103,-1.01031e-08,0,8192,8192
290.153,-9.46079e-09,0,8192,8192
290.202,-8.9554e-09,0,8192,8192
290.252,-8.5731e-09,0,8192,8192
290.302,-8.29998e-09,0,8192,8192
290.352,-8.12247e-09,0,8192,8192
290.402,-8.0276e-09,0,8192,8192
290.451,-8.00332e-09,0,8192,8192
290.501,-8.03856e-09,0,8192,8192
290.551,-8.12324e-09,0,8192,8192
290.601,-8.24819e-09,0,8192,8192
290.65,-8.40501e-09,0,8192,8192
290.7,-8.586e-09,0,8192,8192
290.75,-8.78406e-09,0,8192,8192
290.803,-9.00519e-09,0,8192,8192
290.853,-9.21872e-09,0,8192,8192
290.902,-9.43161e-09,0,8192,8192
290.952,-9.63956e-09,0,8192,8192
291.002,-9.83906e-09,0,8192,8192
291.052,-1.00274e-08,0,8192,8192
291.102,-1.02026e-08,0,8192,8192
291.151,-1.03633e-08,0,8192,8192
291.201,-1.05086e-08,0,8192,8192
291.251,-1.06381e-08,0,8192,8192
291.301,-1.07517e-08,0,8192,8192
291.351,-1.08497e-08,0,8192,8192
291.4,-1.09325e-08,0,8192,8192
291.45,-1.10008e-08,0,8192,8192
291.503,-1.10582e-08,0,8192,8192
291.553,-1.10996e-08,0,8192,8192
291.602,-1.11297e-08,0,8192,8192
291.652,-1.11498e-08,0,8192,8192
291.702,-1.11611e-08,0,8192,8192
291.752,-1.11651e-08,0,8192,8192
291.802,-1.11628e-08,0,8192,8192
291.851,-1.11555e-08,0,8192,8192
291.901,-1.11443e-08,0,8192,8192
291.951,-1.11304e-08,0,8192,8192
292.001,-1.11146e-08,0,8192,8192
292.051,-1.10981e-08,0,8192,8192
292.1,-1.10815e-08,0,8192,8192
292.15,-1.10658e-08,0,8192,8192
292.2,-1.10517e-08,0,8192,8192
292.253,-1.10391e-08,0,8192,8192
292.303,-1.10301e-08,0,8192,8192
292.352,-1.10246e-08,0,8192,8192
292.402,-1.10231e-08,0,8192,8192
292.452,-1.10262e-08,0,8192,8192
292.502,-1.10343e-08,0,8192,8192
292.552,-1.10478e-08,0,8192,8192
292.601,-1.10671e-08,0,8192,8192
292.651,-1.10925e-08,0,8192,8192
292.701,-1.11241e-08,0,8192,8192
292.751,-1.11621e-08,0,8192,8192
292.801,-1.12064e-08,0,8192,8192
292.85,-1.12571e-08,0,8192,8192
292.9,-1.13142e-08,0,8192,8192
292.953,-1.13817e-08,0,8192,8192
293.003,-1.14521e-08,0,8192,8192
293.052,-1.15292e-08,0,8192,8192
293.102,-1.16131e-08,0,8192,8192
293.152,-1.17041e-08,0,8192,8192
293.202,-1.18027e-08,0,8192,8192
293.252,-1.19092e-08,0,8192,8192
293.301,-1.20244e-08,0,8192,8192
293.351,-1.2149e-08,0,8192,8192
293.401,-1.22839e-08,0,8192,8192
293.451,-1.24301e-08,0,8192,8192
293.501,-1.25886e-08,0,8192,8192
293.55,-1.27607e-08,0,8192,8192
293.6,-1.29473e-08,0,8192,8192
293.65,-1.31497e-08,0,8192,8192
293.703,-1.33824e-08,0,8192,8192
293.753,-1.36204e-08,0,8192,8192
293.802,-1.38767e-08,0,8192,8192
293.852,-1.41518e-08,0,8192,8192
293.902,-1.44457e-08,0,8192,8192
293.952,-1.47581e-08,0,8192,8192
294.002,-1.50884e-08,0,8192,8192
294.051,-1.54354e-08,0,8192,8192
294.101,-1.57976e-08,0,8192,8192
294.151,-1.61731e-08,0,8192,8192
294.201,-1.65597e-08,0,8192,8192
294.251,-1.69547e-08,0,8192,8192
294.3,-1.73555e-08,0,8192,8192
294.35,-1.77589e-08,0,8192,8192
294.403,-1.81856e-08,0,8192,8192
294.453,-1.85847e-08,0,8130,8130
294.502,-1.8977e-08,0,8160,8160
294.552,-1.93592e-08,0,8192,8192
294.602,-1.97286e-08,0,8192,8192
294.652,-2.00822e-08,0,8192,8192
294.702,-2.04176e-08,0,8192,8192
294.751,-2.07322e-08,0,8192,8192
294.801,-2.10241e-08,0,8192,8192
294.851,-2.12914e-08,0,8192,8192
294.901,-2.15327e-08,0,8192,8192
294.951,-2.1747e-08,0,8192,8192
295,-2.19335e-08,0,8192,8192
295.05,-2.20919e-08,0,8192,8192
295.1,-2.22223e-08,0,8192,8192
295.153,-2.23302e-08,0,8192,8192
295.203,-2.24046e-08,0,8192,8192
295.252,-2.24534e-08,0,8184,8184
295.302,-2.24779e-08,0,8168,8168
295.352,-2.24796e-08,0,8168,8168
295.402,-2.24602e-08,0,8168,8168
295.452,-2.24217e-08,0,8184,8184
295.501,-2.23658e-08,0,8192,8192
295.551,-2.22945e-08,0,8184,8184
295.601,-2.22096e-08,0,8192,8192
295.651,-2.2113e-08,0,8176,8176
295.701,-2.20064e-08,0,8168,8168
295.75,-2.18915e-08,0,8160,8160
295.8,-2.17699e-08,0,8160,8160
295.853,-2.16354e-08,0,8152,8152
295.903,-2.15043e-08,0,8160,8160
295.952,-2.13705e-08,0,8160,8160
296.002,-2.12352e-08,0,8152,8152
296.052,-2.10992e-08,0,8152,8152
296.102,-2.09634e-08,0,8152,8152
296.152,-2.08287e-08,0,8152,8152
296.201,-2.06957e-08,0,8152,8152
296.251,-2.05649e-08,0,8152,8152
296.301,-2.04369e-08,0,8152,8152
296.351,-2.03121e-08,0,8144,8144
296.401,-2.01908e-08,0,8168,8168
296.45,-2.00734e-08,0,8192,8192
296.5,-1.99599e-08,0,8192,8192
296.55,-1.98507e-08,0,8184,8184
296.603,-1.97396e-08,0,8168,8168
296.653,-1.96391e-08,0,8160,8160
296.702,-1.95428e-08,0,8152,8152
296.752,-1.94507e-08,0,8152,8152
296.802,-1.93625e-08,0,8160,8160
296.852,-1.92781e-08,0,8160,8160
296.902,-1.91973e-08,0,8160,8160
296.951,-1.91197e-08,0,8144,8144
297.001,-1.90453e-08,0,8152,8152
297.051,-1.89735e-08,0,8144,8144
297.101,-1.89043e-08,0,8144,8144
297.151,-1.88372e-08,0,8152,8152
297.2,-1.8772e-08,0,8144,8144
297.25,-1.87084e-08,0,8144,8144
297.303,-1.86424e-08,0,8144,8144
297.353,-1.85813e-08,0,8144,8144
297.402,-1.85209e-08,0,8144,8144
297.452,-1.84611e-08,0,8144,8144
297.502,-1.84016e-08,0,8144,8144
297.552,-1.83423e-08,0,8144,8144
297.602,-1.82829e-08,0,8144,8144
297.651,-1.82233e-08,0,8144,8144
297.701,-1.81634e-08,0,8144,8144
297.751,-1.8103e-08,0,8152,8152
297.801,-1.80419e-08,0,8144,8144
297.851,-1.798e-08,0,8144,8144
297.9,-1.79173e-08,0,8144,8144
297.95,-1.78535e-08,0,8144,8144
298.003,-1.77847e-08,0,8144,8144
298.053,-1.77184e-08,0,8144,8144
298.103,-1.76508e-08,0,8144,8144
298.152,-1.75815e-08,0,8144,8144
298.202,-1.75106e-08,0,8144,8144
298.252,-1.74379e-08,0,8144,8144
298.302,-1.73631e-08,0,8144,8144
298.352,-1.72861e-08,0,8144,8144
298.401,-1.72068e-08,0,8144,8144
298.451,-1.71249e-08,0,8144,8144
298.501,-1.70402e-08,0,8144,8144
298.551,-1.69525e-08,0,8144,8144
298.6,-1.68616e-08,0,8136,8136
298.65,-1.67674e-08,0,8140,8140
298.7,-1.66695e-08,0,8144,8144
298.753,-1.65618e-08,0,8140,8140
298.803,-1.64559e-08,0,8132,8132
298.852,-1.63459e-08,0,8136,8136
298.902,-1.62315e-08,0,8140,8140
298.952,-1.61127e-08,0,8128,8128
299.002,-1.59893e-08,0,8128,8128
299.052,-1.58611e-08,0,8128,8128
299.101,-1.57282e-08,0,8132,8132
299.151,-1.55902e-08,0,8132,8132
299.201,-1.54473e-08,0,8132,8132
299.251,-1.52992e-08,0,8136,8136
299.301,-1.5146e-08,0,8132,8132
299.35,-1.49874e-08,0,8128,8128
299.4,-1.48234e-08,0,8128,8128
299.453,-1.46438e-08,0,8124,8124
299.503,-1.44684e-08,0,8124,8124
299.553,-1.42872e-08,0,8112,8112
299.602,-1.41001e-08,0,8116,8116
299.652,-1.39068e-08,0,8112,8112
299.702,-1.37072e-08,0,8116,8116
299.752,-1.35007e-08,0,8112,8112
299.801,-1.32871e-08,0,8116,8116
299.851,-1.30656e-08,0,8112,8112
299.901,-1.28357e-08,0,8112,8112
299.951,-1.25966e-08,0,8104,8104
300.001,-1.23473e-08,0,8104,8104
300.05,-1.20868e-08,0,8108,8108
300.1,-1.1814e-08,0,8108,8108
300.15,-1.15275e-08,0,8104,8104
300.203,-1.12079e-08,0,8104,8104
300.253,-1.08894e-08,0,8096,8096
300.302,-1.05534e-08,0,8092,8092
300.352,-1.01988e-08,0,8088,8088
300.402,-9.8246e-09,0,8088,8088
300.452,-9.43011e-09,0,8076,8076
300.502,-9.01488e-09,0,8076,8076
300.551,-8.57879e-09,0,8076,8076
300.601,-8.12212e-09,0,8076,8076
300.651,-7.64557e-09,0,8088,8088
300.701,-7.15023e-09,0,8076,8076
300.751,-6.63758e-09,0,8076,8076
300.8,-6.10932e-09,0,8076,8076
300.85,-5.56711e-09,0,8068,8068
300.903,-4.97914e-09,0,8076,8076
300.953,-4.41155e-09,0,8080,8080
301.002,-3.83389e-09,0,8072,8072
301.052,-3.25177e-09,0,8072,8072
301.102,-2.67514e-09,0,8068,8068
301.152,-2.1132e-09,0,8072,8072
301.202,-1.56701e-09,0,8080,8080
301.251,-1.03172e-09,0,8088,8088
301.301,-5.10249e-10,0,8096,8096
301.351,5.67561e-11,0,8088,8088
301.401,2.95878e-10,0,8100,8100
301.451,5.88344e-10,0,8092,8092
301.5,9.13818e-10,0,8104,8104
301.55,1.49044e-09,0,8088,8088
301.6,1.93101e-09,0,8072,8072
301.653,2.28287e-09,0,8060,8060
301.703,2.57451e-09,0,8052,8052
301.752,2.83042e-09,0,8040,8040
301.802,3.05589e-09,0,8052,8052
301.852,3.24815e-09,0,8040,8040
301.902,3.41498e-09,0,8044,8044
301.952,3.54977e-09,0,8040,8040
302.001,3.65664e-09,0,8040,8040
302.051,3.7372e-09,0,8040,8040
302.101,3.79353e-09,0,8040,8040
302.151,3.82812e-09,0,8040,8040
302.201,3.84261e-09,0,8040,8040
302.25,3.83972e-09,0,8032,8032
302.3,3.82123e-09,0,8040,8040
302.353,3.78708e-09,0,8028,8028
302.403,3.74299e-09,0,8040,8040
302.452,3.68931e-09,0,8028,8028
302.502,3.62803e-09,0,8040,8040
302.552,3.56051e-09,0,8028,8028
302.602,3.48864e-09,0,8040,8040
302.652,3.4136e-09,0,8028,8028
302.701,3.33675e-09,0,8040,8040
302.751,3.25925e-09,0,8028,8028
302.801,3.18228e-09,0,8040,8040
302.851,3.1069e-09,0,8028,8028
302.901,3.03391e-09,0,8040,8040
302.95,2.96425e-09,0,8028,8028
303,2.89859e-09,0,8050,8050
303.05,2.83777e-09,0,8086,8086
303.103,2.77913e-09,0,8134,8134
303.153,2.72965e-09,0,8170,8170
303.202,2.68616e-09,0,8192,8192
303.252,2.6488e-09,0,8192,8192
303.302,2.6175e-09,0,8192,8192
303.352,2.59176e-09,0,8192,8192
303.402,2.57146e-09,0,8192,8192
303.451,2.5566e-09,0,8192,8192
303.501,2.546e-09,0,8192,8192
303.551,2.53844e-09,0,8192,8192
303.601,2.53295e-09,0,8192,8192
303.651,2.52858e-09,0,8192,8192
303.7,2.52437e-09,0,8192,8192
303.75,2.51935e-09,0,8192,8192
303.803,2.51202e-09,0,8192,8192
303.853,2.50233e-09,0,8192,8192
303.902,2.48939e-09,0,8192,8192
303.952,2.47271e-09,0,8192,8192
304.002,2.45203e-09,0,8192,8192
304.052,2.42744e-09,0,8192,8192
304.102,2.39913e-09,0,8192,8192
304.151,2.36731e-09,0,8192,8192
304.201,2.33261e-09,0,8192,8192
304.251,2.29561e-09,0,8192,8192
304.301,2.25673e-09,0,8192,8192
304.351,2.21669e-09,0,8192,8192
304.4,2.1764e-09,0,8192,8192
304.45,2.13658e-09,0,8192,8192
304.5,2.09805e-09,0,8192,8192
304.553,2.05937e-09,0,8192,8192
304.603,2.02511e-09,0,8192,8192
304.652,1.9934e-09,0,8192,8192
304.702,1.96511e-09,0,8192,8192
304.752,1.94101e-09,0,8192,8192
304.802,1.92143e-09,0,8192,8192
304.852,1.90633e-09,0,8192,8192
304.901,1.89558e-09,0,8192,8192
304.951,1.88947e-09,0,8192,8192
