250,0,0,8192,8192
250.003,0,0,8192,8192
250.053,0,0,8192,8192
250.103,0,0,8192,8192
250.152,0,0,8192,8192
250.202,0,0,8192,8192
250.252,0,0,8192,8192
250.302,0,0,8192,8192
250.352,0,0,8192,8192
250.401,0,0,8192,8192
250.451,0,0,8192,8192
250.501,0,0,8192,8192
250.551,0,0,8192,8192
250.6,0,0,8192,8192
250.65,0,0,8192,8192
250.7,0,0,8192,8192
250.753,0,0,8192,8192
250.803,0,0,8192,8192
250.852,0,0,8192,8192
250.902,0,0,8192,8192
250.952,0,0,8192,8192
251.002,0,0,8192,8192
251.052,0,0,8192,8192
251.101,0,0,8192,8192
251.151,0,0,8192,8192
251.201,0,0,8192,8192
251.251,0,0,8192,8192
251.301,0,0,8192,8192
251.35,0,0,8192,8192
251.4,0,0,8192,8192
251.453,0,0,8192,8192
251.503,0,0,8192,8192
251.553,0,0,8192,8192
251.602,0,0,8192,8192
251.652,0,0,8192,8192
251.702,0,0,8192,8192
251.752,0,0,8192,8192
251.801,0,0,8192,8192
251.851,0,0,8192,8192
251.901,0,0,8192,8192
251.951,0,0,8192,8192
252.001,0,0,8192,8192
252.05,0,0,8192,8192
252.1,0,0,8192,8192
252.15,0,0,8192,8192
252.203,0,0,8192,8192
252.253,0,0,8192,8192
252.302,0,0,8192,8192
252.352,0,0,8192,8192
252.402,0,0,8192,8192
252.452,0,0,8192,8192
252.502,0,0,8192,8192
252.551,0,0,8192,8192
252.601,0,0,8192,8192
252.651,0,0,8192,8192
252.701,0,0,8192,8192
252.751,0,0,8192,8192
252.8,0,0,8192,8192
252.85,0,0,8192,8192
252.903,0,0,8192,8192
252.953,0,0,8192,8192
253.002,0,0,8192,8192
253.052,0,0,8192,8192
253.102,0,0,8192,8192
253.152,0,0,8192,8192
253.202,0,0,8192,8192
253.251,0,0,8192,8192
253.301,0,0,8192,8192
253.351,0,0,8192,8192
253.401,0,0,8192,8192
253.451,0,0,8192,8192
253.5,0,0,8192,8192
253.55,0,0,8192,8192
253.6,0,0,8192,8192
253.653,0,0,8192,8192
253.703,0,0,8192,8192
253.752,0,0,8192,8192
253.802,0,0,8192,8192
253.852,0,0,8192,8192
253.902,0,0,8192,8192
253.952,0,0,8192,8192
254.001,0,0,8192,8192
254.051,0,0,8192,8192
254.101,0,0,8192,8192
254.151,0,0,8192,8192
254.201,0,0,8192,8192
254.25,0,0,8192,8192
254.3,0,0,8192,8192
254.353,0,0,8192,8192
254.403,0,0,8192,8192
254.452,0,0,8192,8192
254.502,0,0,8192,8192
254.552,0,0,8192,8192
254.602,0,0,8192,8192
254.652,0,0,8192,8192
254.701,0,0,8192,8192
254.751,0,0,8192,8192
254.801,0,0,8192,8192
254.851,0,0,8192,8192
254.901,0,0,8192,8192
254.95,0,0,8192,8192
255,0,0,8192,8192
255.05,0,0,8192,8192
255.103,0,0,8192,8192
255.153,0,0,8192,8192
255.202,0,0,8192,8192
255.252,0,0,8192,8192
255.302,2.77556e-17,0,8192,8192
255.352,2.77556e-17,0,8192,8192
255.402,5.55112e-17,0,8192,8192
255.451,2.77556e-17,0,8192,8192
255.501,2.77556e-17,0,8192,8192
255.551,2.77556e-17,0,8192,8192
255.601,2.77556e-17,0,8192,8192
255.651,2.77556e-17,0,8192,8192
255.7,2.77556e-17,0,8192,8192
255.75,2.77556e-17,0,8192,8192
255.803,2.77556e-17,0,8192,8192
255.853,2.77556e-17,0,8192,8192
255.902,2.77556e-17,0,8192,8192
255.952,2.77556e-17,0,8192,8192
256.002,5.55112e-17,0,8192,8192
256.052,5.55112e-17,0,8192,8192
256.102,5.55112e-17,0,8192,8192
256.151,5.55112e-17,0,8192,8192
256.201,2.77556e-17,0,8192,8192
256.251,2.77556e-17,0,8192,8192
256.301,2.77556e-17,0,8192,8192
256.351,2.77556e-17,0,8192,8192
256.4,2.77556e-17,0,8192,8192
256.45,2.77556e-17,0,8192,8192
256.5,0,0,8192,8192
256.553,0,0,8192,8192
256.603,0,0,8192,8192
256.652,0,0,8192,8192
256.702,0,0,8192,8192
256.752,0,0,8192,8192
256.802,0,0,8192,8192
256.852,0,0,8192,8192
256.901,0,0,8192,8192
256.951,0,0,8192,8192
257.001,0,0,8192,8192
257.051,0,0,8192,8192
257.101,0,0,8192,8192
257.15,0,0,8192,8192
257.2,0,0,8192,8192
257.253,0,0,8192,8192
257.303,2.77556e-17,0,8192,8192
257.352,2.77556e-17,0,8192,8192
257.402,5.55112e-17,0,8192,8192
257.452,5.55112e-17,0,8192,8192
257.502,5.55112e-17,0,8192,8192
257.552,5.55112e-17,0,8192,8192
257.601,5.55112e-17,0,8192,8192
257.651,5.55112e-17,0,8192,8192
257.701,5.55112e-17,0,8192,8192
257.751,5.55112e-17,0,8192,8192
257.801,5.55112e-17,0,8192,8192
257.85,5.55112e-17,0,8192,8192
257.9,5.55112e-17,0,8192,8192
257.95,5.55112e-17,0,8192,8192
258.003,5.55112e-17,0,8192,8192
258.053,5.55112e-17,0,8192,8192
258.102,5.55112e-17,0,8192,8192
258.152,5.55112e-17,0,8192,8192
258.202,5.55112e-17,0,8192,8192
258.252,5.55112e-17,0,8192,8192
258.302,5.55112e-17,0,8192,8192
258.351,5.55112e-17,0,8192,8192
258.401,5.55112e-17,0,8192,8192
258.451,5.55112e-17,0,8192,8192
258.501,5.55112e-17,0,8192,8192
258.551,5.55112e-17,0,8192,8192
258.6,5.55112e-17,0,8192,8192
258.65,2.77556e-17,0,8192,8192
258.703,0,0,8192,8192
258.753,0,0,8192,8192
258.802,0,0,8192,8192
258.852,2.77556e-17,0,8192,8192
258.902,2.77556e-17,0,8192,8192
258.952,5.55112e-17,0,8192,8192
259.002,5.55112e-17,0,8192,8192
259.051,2.77556e-17,0,8192,8192
259.101,2.77556e-17,0,8192,8192
259.151,2.77556e-17,0,8192,8192
259.201,2.77556e-17,0,8192,8192
259.251,2.77556e-17,0,8192,8192
259.3,2.77556e-17,0,8192,8192
259.35,2.77556e-17,0,8192,8192
259.403,2.77556e-17,0,8192,8192
259.453,2.77556e-17,0,8192,8192
259.503,2.77556e-17,0,8192,8192
259.552,2.77556e-17,0,8192,8192
259.602,2.77556e-17,0,8192,8192
259.652,2.77556e-17,0,8192,8192
259.702,2.77556e-17,0,8192,8192
259.751,2.77556e-17,0,8192,8192
259.801,2.77556e-17,0,8192,8192
259.851,2.77556e-17,0,8192,8192
259.901,0,0,8192,8192
259.951,-2.77556e-17,0,8192,8192
260,-2.77556e-17,0,8192,8192
260.05,-2.77556e-17,0,8192,8192
260.1,-2.77556e-17,0,8192,8192
260.153,-2.77556e-17,0,8192,8192
260.203,-2.77556e-17,0,8192,8192
260.252,-2.77556e-17,0,8192,8192
260.302,-2.77556e-17,0,8192,8192
260.352,-2.77556e-17,0,8192,8192
260.402,-2.77556e-17,0,8192,8192
260.452,-2.77556e-17,0,8192,8192
260.501,-2.77556e-17,0,8192,8192
260.551,-2.77556e-17,0,8192,8192
260.601,-2.77556e-17,0,8192,8192
260.651,-2.77556e-17,0,8192,8192
260.701,-2.77556e-17,0,8192,8192
260.75,-2.77556e-17,0,8192,8192
260.8,-2.77556e-17,0,8192,8192
260.853,-2.77556e-17,0,8192,8192
260.903,-2.77556e-17,0,8192,8192
260.952,-2.77556e-17,0,8192,8192
261.002,-8.32667e-17,0,8192,8192
261.052,-8.32667e-17,0,8192,8192
261.102,-8.32667e-17,0,8192,8192
261.152,-5.55112e-17,0,8192,8192
261.201,-2.77556e-17,0,8192,8192
261.251,-2.77556e-17,0,8192,8192
261.301,-2.77556e-17,0,8192,8192
261.351,-2.77556e-17,0,8192,8192
261.401,-2.77556e-17,0,8192,8192
261.45,-2.77556e-17,0,8192,8192
261.5,-2.77556e-17,0,8192,8192
261.55,-2.77556e-17,0,8192,8192
261.603,-2.77556e-17,0,8192,8192
261.653,0,0,8192,8192
261.702,-2.77556e-17,0,8192,8192
261.752,-2.77556e-17,0,8192,8192
261.802,-2.77556e-17,0,8192,8192
261.852,-2.77556e-17,0,8192,8192
261.902,-2.77556e-17,0,8192,8192
261.951,-2.77556e-17,0,8192,8192
262.001,-2.77556e-17,0,8192,8192
262.051,-2.77556e-17,0,8192,8192
262.101,-2.77556e-17,0,8192,8192
262.151,-2.77556e-17,0,8192,8192
262.2,-2.77556e-17,0,8192,8192
262.25,-2.77556e-17,0,8192,8192
262.303,-2.77556e-17,0,8192,8192
262.353,-2.77556e-17,0,8192,8192
262.402,-2.77556e-17,0,8192,8192
262.452,-2.77556e-17,0,8192,8192
262.502,-2.77556e-17,0,8192,8192
262.552,-2.77556e-17,0,8192,8192
262.602,-2.77556e-17,0,8192,8192
262.651,-2.77556e-17,0,8192,8192
262.701,-2.77556e-17,0,8192,8192
262.751,0,0,8192,8192
262.801,0,0,8192,8192
262.851,0,0,8192,8192
262.9,0,0,8192,8192
262.95,-2.77556e-17,0,8192,8192
263,-2.77556e-17,0,8192,8192
263.053,0,0,8192,8192
263.103,0,0,8192,8192
263.152,0,0,8192,8192
263.202,0,0,8192,8192
263.252,0,0,8192,8192
263.302,2.77556e-17,0,8192,8192
263.352,0,0,8192,8192
263.401,0,0,8192,8192
263.451,0,0,8192,8192
263.501,2.77556e-17,0,8192,8192
263.551,5.55112e-17,0,8192,8192
263.601,5.55112e-17,0,8192,8192
263.65,0,0,8192,8192
263.7,0,0,8192,8192
263.753,0,0,8192,8192
263.803,0,0,8192,8192
263.852,0,0,8192,8192
263.902,0,0,8192,8192
263.952,0,0,8192,8192
264.002,0,0,8192,8192
264.052,0,0,8192,8192
264.101,0,0,8192,8192
264.151,0,0,8192,8192
264.201,0,0,8192,8192
264.251,0,0,8192,8192
264.301,2.77556e-17,0,8192,8192
264.35,2.77556e-17,0,8192,8192
264.4,2.77556e-17,0,8192,8192
264.45,2.77556e-17,0,8192,8192
264.503,2.77556e-17,0,8192,8192
264.553,2.77556e-17,0,8192,8192
264.602,2.77556e-17,0,8192,8192
264.652,2.77556e-17,0,8192,8192
264.702,2.77556e-17,0,8192,8192
264.752,2.77556e-17,0,8192,8192
264.802,2.77556e-17,0,8192,8192
264.851,2.77556e-17,0,8192,8192
264.901,2.77556e-17,0,8192,8192
264.951,2.77556e-17,0,8192,8192
265.001,2.77556e-17,0,8192,8192
265.051,2.77556e-17,0,8192,8192
265.1,2.77556e-17,0,8192,8192
265.15,2.77556e-17,0,8192,8192
265.203,2.77556e-17,0,8192,8192
265.253,2.77556e-17,0,8192,8192
265.302,2.77556e-17,0,8192,8192
265.352,2.77556e-17,0,8192,8192
265.402,2.77556e-17,0,8192,8192
265.452,2.77556e-17,0,8192,8192
265.502,2.77556e-17,0,8192,8192
265.551,2.77556e-17,0,8192,8192
265.601,2.77556e-17,0,8192,8192
265.651,2.77556e-17,0,8192,8192
265.701,5.55112e-17,0,8192,8192
265.751,5.55112e-17,0,8192,8192
265.8,2.77556e-17,0,8192,8192
265.85,2.77556e-17,0,8192,8192
265.9,2.77556e-17,0,8192,8192
265.953,2.77556e-17,0,8192,8192
266.003,2.77556e-17,0,8192,8192
266.052,2.77556e-17,0,8192,8192
266.102,2.77556e-17,0,8192,8192
266.152,2.77556e-17,0,8192,8192
266.202,2.77556e-17,0,8192,8192
266.252,2.77556e-17,0,8192,8192
266.301,2.77556e-17,0,8192,8192
266.351,2.77556e-17,0,8192,8192
266.401,2.77556e-17,0,8192,8192
266.451,2.77556e-17,0,8192,8192
266.501,2.77556e-17,0,8192,8192
266.55,2.77556e-17,0,8192,8192
266.6,2.77556e-17,0,8192,8192
266.653,2.77556e-17,0,8192,8192
266.703,2.77556e-17,0,8192,8192
266.752,2.77556e-17,0,8192,8192
266.802,2.77556e-17,0,8192,8192
266.852,2.77556e-17,0,8192,8192
266.902,2.77556e-17,0,8192,8192
266.952,-2.77556e-17,0,8192,8192
267.001,-2.77556e-17,0,8192,8192
267.051,-2.77556e-17,0,8192,8192
267.101,-2.77556e-17,0,8192,8192
267.151,0,0,8192,8192
267.201,0,0,8192,8192
267.25,-2.77556e-17,0,8192,8192
267.3,0,0,8192,8192
267.353,-2.77556e-17,0,8192,8192
267.403,-2.77556e-17,0,8192,8192
267.453,-2.77556e-17,0,8192,8192
267.502,-2.77556e-17,0,8192,8192
267.552,-2.77556e-17,0,8192,8192
267.602,-2.77556e-17,0,8192,8192
267.652,-2.77556e-17,0,8192,8192
267.702,-2.77556e-17,0,8192,8192
267.751,0,0,8192,8192
267.801,0,0,8192,8192
267.851,0,0,8192,8192
267.901,0,0,8192,8192
267.95,0,0,8192,8192
268,0,0,8192,8192
268.05,0,0,8192,8192
268.103,0,0,8192,8192
268.153,0,0,8192,8192
268.202,0,0,8192,8192
268.252,0,0,8192,8192
268.302,0,0,8192,8192
268.352,0,0,8192,8192
268.402,0,0,8192,8192
268.451,0,0,8192,8192
268.501,0,0,8192,8192
268.551,0,0,8192,8192
268.601,0,0,8192,8192
268.651,0,0,8192,8192
268.7,0,0,8192,8192
268.75,0,0,8192,8192
268.803,0,0,8192,8192
268.853,0,0,8192,8192
268.902,0,0,8192,8192
268.952,0,0,8192,8192
269.002,0,0,8192,8192
269.052,0,0,8192,8192
269.102,0,0,8192,8192
269.151,0,0,8192,8192
269.201,0,0,8192,8192
269.251,0,0,8192,8192
269.301,0,0,8192,8192
269.351,0,0,8192,8192
269.4,0,0,8192,8192
269.45,0,0,8192,8192
269.5,0,0,8192,8192
269.553,0,0,8192,8192
269.603,0,0,8192,8192
269.652,2.77556e-17,0,8192,8192
269.702,2.77556e-17,0,8192,8192
269.752,2.77556e-17,0,8192,8192
269.802,0,0,8192,8192
269.852,2.77556e-17,0,8192,8192
269.901,2.77556e-17,0,8192,8192
269.951,2.77556e-17,0,8192,8192
270.001,2.77556e-17,0,8192,8192
270.051,2.77556e-17,0,8192,8192
270.101,2.77556e-17,0,8192,8192
270.15,2.77556e-17,0,8192,8192
270.2,2.77556e-17,0,8192,8192
270.253,2.77556e-17,0,8192,8192
270.303,2.77556e-17,0,8192,8192
270.352,2.77556e-17,0,8192,8192
270.402,2.77556e-17,0,8192,8192
270.452,2.77556e-17,0,8192,8192
270.502,2.77556e-17,0,8192,8192
270.552,2.77556e-17,0,8192,8192
270.601,2.77556e-17,0,8192,8192
270.651,2.77556e-17,0,8192,8192
270.701,2.77556e-17,0,8192,8192
270.751,0,0,8192,8192
270.801,-2.77556e-17,0,8192,8192
270.85,-2.77556e-17,0,8192,8192
270.9,-2.77556e-17,0,8192,8192
270.95,-2.77556e-17,0,8192,8192
271.003,-2.77556e-17,0,8192,8192
271.053,-2.77556e-17,0,8192,8192
271.102,-2.77556e-17,0,8192,8192
271.152,-2.77556e-17,0,8192,8192
271.202,-2.77556e-17,0,8192,8192
271.252,-2.77556e-17,0,8192,8192
271.302,-2.77556e-17,0,8192,8192
271.351,-2.77556e-17,0,8192,8192
271.401,-2.77556e-17,0,8192,8192
271.451,-2.77556e-17,0,8192,8192
271.501,-2.77556e-17,0,8192,8192
271.551,-2.77556e-17,0,8192,8192
271.6,-2.77556e-17,0,8192,8192
271.65,-2.77556e-17,0,8192,8192
271.703,-2.77556e-17,0,8192,8192
271.753,-2.77556e-17,0,8192,8192
271.802,-2.77556e-17,0,8192,8192
271.852,-2.77556e-17,0,8192,8192
271.902,-2.77556e-17,0,8192,8192
271.952,-2.77556e-17,0,8192,8192
272.002,-2.77556e-17,0,8192,8192
272.051,-2.77556e-17,0,8192,8192
272.101,-2.77556e-17,0,8192,8192
272.151,-2.77556e-17,0,8192,8192
272.201,-2.77556e-17,0,8192,8192
272.251,-2.77556e-17,0,8192,8192
272.3,-2.77556e-17,0,8192,8192
272.35,-2.77556e-17,0,8192,8192
272.4,-2.77556e-17,0,8192,8192
272.453,-2.77556e-17,0,8192,8192
272.503,-2.77556e-17,0,8192,8192
272.552,-2.77556e-17,0,8192,8192
272.602,-2.77556e-17,0,8192,8192
272.652,-2.77556e-17,0,8192,8192
272.702,-2.77556e-17,0,8192,8192
272.752,-2.77556e-17,0,8192,8192
272.801,-2.77556e-17,0,8192,8192
272.851,-2.77556e-17,0,8192,8192
272.901,-2.77556e-17,0,8192,8192
272.951,-2.77556e-17,0,8192,8192
273.001,-2.77556e-17,0,8192,8192
273.05,-2.77556e-17,0,8192,8192
273.1,-2.77556e-17,0,8192,8192
273.153,-2.77556e-17,0,8192,8192
273.203,-2.77556e-17,0,8192,8192
273.252,-2.77556e-17,0,8192,8192
273.302,-2.77556e-17,0,8192,8192
273.352,-2.77556e-17,0,8192,8192
273.402,-2.77556e-17,0,8192,8192
273.452,-2.77556e-17,0,8192,8192
273.501,-2.77556e-17,0,8192,8192
273.551,-2.77556e-17,0,8192,8192
273.601,-2.77556e-17,0,8192,8192
273.651,-2.77556e-17,0,8192,8192
273.701,-2.77556e-17,0,8192,8192
273.75,-2.77556e-17,0,8192,8192
273.8,-3.05311e-16,0,8192,8192
273.853,-5.57887e-15,0,8192,8192
273.903,-4.79894e-14,0,8192,8192
273.953,-2.88547e-13,0,8192,8192
274.002,-1.32369e-12,0,8192,8192
274.052,-4.82223e-12,0,8192,8192
274.102,-1.42711e-11,0,8192,8192
274.152,-3.48225e-11,0,8192,8192
274.202,-7.07587e-11,0,8192,8192
274.251,-1.20429e-10,0,8192,8192
274.301,-1.71826e-10,0,8192,8192
274.351,-2.04172e-10,0,8192,8192
274.401,-1.97863e-10,0,8192,8192
274.45,-1.47689e-10,0,8192,8192
274.5,-6.91716e-11,0,8192,8192
274.55,8.62707e-12,0,8192,8192
274.603,6.20911e-11,0,8192,8192
274.653,7.83711e-11,0,8192,8192
274.702,7.50834e-11,0,8192,8192
274.752,7.27047e-11,0,8192,8192
274.802,8.25937e-11,0,8192,8192
274.852,1.00464e-10,0,8192,8192
274.902,1.13362e-10,0,8192,8192
274.951,1.1289e-10,0,8192,8192
275.001,1.02823e-10,0,8192,8192
275.051,9.516e-11,0,8192,8192
275.101,9.90928e-11,0,8192,8192
275.151,1.13052e-10,0,8192,8192
275.2,1.26436e-10,0,8192,8192
275.25,1.2892e-10,0,8192,8192
275.303,1.18481e-10,0,8192,8192
275.353,1.0599e-10,0,8192,8192
275.403,1.03162e-10,0,8192,8192
275.452,1.14327e-10,0,8192,8192
275.502,1.31398e-10,0,8192,8192
275.552,1.39312e-10,0,8192,8192
275.602,1.29139e-10,0,8192,8192
275.651,1.08611e-10,0,8192,8192
275.701,9.85459e-11,0,8192,8192
275.751,1.13936e-10,0,8192,8192
275.801,1.46517e-10,0,8192,8192
275.851,1.75351e-10,0,8192,8192
275.9,2.17257e-10,0,8192,8192
275.95,3.92529e-10,0,8192,8192
276,9.51786e-10,0,8192,8192
276.053,2.32279e-09,0,8192,8192
276.103,4.62904e-09,0,8192,8192
276.152,7.97994e-09,0,8192,8192
276.202,1.21767e-08,0,8192,8192
276.252,1.68335e-08,0,8192,8192
276.302,2.15436e-08,0,8192,8192
276.352,2.60672e-08,0,8192,8192
276.401,3.04552e-08,0,8192,8192
276.451,3.50589e-08,0,8192,8192
276.501,4.0428e-08,0,8192,8192
276.551,4.71583e-08,0,8192,8192
276.601,5.57707e-08,0,8192,8192
276.65,6.66876e-08,0,8192,8192
276.7,8.03033e-08,0,8192,8192
276.753,9.81853e-08,0,8192,8192
276.803,1.18972e-07,0,8192,8192
276.852,1.44217e-07,0,8192,8192
276.902,1.74477e-07,0,8192,8192
276.952,2.10027e-07,0,8192,8192
277.002,2.50746e-07,0,8192,8192
277.052,2.96152e-07,0,8192,8192
277.101,3.45562e-07,0,8192,8192
277.151,3.98297e-07,0,8192,8192
277.201,4.53778e-07,0,8192,8192
277.251,5.11437e-07,0,8192,8192
277.301,5.70471e-07,0,8192,8192
277.35,6.29611e-07,0,8192,8192
277.4,6.8707e-07,0,8192,8192
277.45,7.4075e-07,0,8192,8192
277.503,7.91217e-07,0,8192,8192
277.553,8.31257e-07,0,8192,8192
277.602,8.6311e-07,0,8192,8192
277.652,8.86817e-07,0,8192,8192
277.702,9.03031e-07,0,8192,8192
277.752,9.12695e-07,0,8192,8192
277.802,9.16709e-07,0,8192,8192
277.851,9.15669e-07,0,8192,8192
277.901,9.09754e-07,0,8192,8192
277.951,8.98742e-07,0,8192,8192
278.001,8.82144e-07,0,8192,8192
278.051,8.59406e-07,0,8192,8192
278.1,8.30141e-07,0,8192,8192
278.15,7.94347e-07,0,8192,8192
278.203,7.49941e-07,0,8192,8192
278.253,7.03032e-07,0,8192,8192
278.302,6.52889e-07,0,8192,8192
278.352,6.01265e-07,0,8192,8192
278.402,5.49816e-07,0,8192,8192
278.452,4.99869e-07,0,8192,8192
278.502,4.52304e-07,0,8192,8192
278.551,4.07552e-07,0,8192,8192
278.601,3.65699e-07,0,8192,8192
278.651,3.26638e-07,0,8192,8192
278.701,2.90252e-07,0,8192,8192
278.751,2.56549e-07,0,8192,8192
278.8,2.25707e-07,0,8192,8192
278.85,1.98e-07,0,8192,8192
278.9,1.73614e-07,0,8192,8192
278.953,1.51324e-07,0,8192,8192
279.003,1.33171e-07,0,8192,8192
279.052,1.17195e-07,0,8192,8192
279.102,1.02809e-07,0,8192,8192
279.152,8.96797e-08,0,8192,8192
279.202,7.77881e-08,0,8192,8192
279.252,6.73118e-08,0,8192,8192
279.301,5.84086e-08,0,8192,8192
279.351,5.10388e-08,0,8192,8192
279.401,4.49191e-08,0,8192,8192
279.451,3.96235e-08,0,8192,8192
279.501,3.47684e-08,0,8192,8192
279.55,3.01817e-08,0,8192,8192
279.6,2.59624e-08,0,8192,8192
279.653,2.22229e-08,0,8192,8192
279.703,1.97138e-08,0,8192,8192
279.752,1.83857e-08,0,8192,8192
279.802,1.82181e-08,0,8192,8192
279.852,1.90286e-08,0,8192,8192
279.902,2.05691e-08,0,8192,8192
279.952,2.26154e-08,0,8192,8192
280.001,2.50098e-08,0,8192,8192
280.051,2.76576e-08,0,8192,8192
280.101,3.05043e-08,0,8192,8192
280.151,3.35161e-08,0,8192,8192
280.201,3.66749e-08,0,8192,8192
280.25,3.99783e-08,0,8192,8192
280.3,4.34367e-08,0,8192,8192
280.35,4.70626e-08,0,8192,8192
280.403,5.10893e-08,0,8192,8192
280.453,5.50629e-08,0,8192,8192
280.502,5.91938e-08,0,8192,8192
280.552,6.34841e-08,0,8192,8192
280.602,6.79569e-08,0,8192,8192
280.652,7.2659e-08,0,8192,8192
280.702,7.76542e-08,0,8192,8192
280.751,8.30083e-08,0,8192,8192
280.801,8.87701e-08,0,8192,8192
280.851,9.49544e-08,0,8192,8192
280.901,1.01535e-07,0,8192,8192
280.951,1.08452e-07,0,8192,8192
281,1.15637e-07,0,8192,8192
281.05,1.23045e-07,0,8192,8192
281.103,1.31146e-07,0,8192,8192
281.153,1.39142e-07,0,8192,8192
281.202,1.4767e-07,0,8192,8192
281.252,1.57008e-07,0,8192,8192
281.302,1.67504e-07,0,8192,8192
281.352,1.79553e-07,0,8192,8192
281.402,1.93578e-07,0,8192,8192
281.451,2.10006e-07,0,8192,8192
281.501,2.29251e-07,0,8192,8192
281.551,2.5168e-07,0,8192,8192
281.601,2.77583e-07,0,8192,8192
281.651,3.07138e-07,0,8192,8192
281.7,3.40383e-07,0,8192,8192
281.75,3.77196e-07,0,8192,8192
281.8,4.17294e-07,0,8192,8192
281.853,4.6284e-07,0,8192,8192
281.903,5.08146e-07,0,8192,8192
281.952,5.54911e-07,0,8192,8192
282.002,6.02235e-07,0,8192,8192
282.052,6.49073e-07,0,8192,8192
282.102,6.94266e-07,0,8192,8192
282.152,7.36601e-07,0,8192,8192
282.201,7.74893e-07,0,8192,8192
282.251,8.08089e-07,0,8192,8192
282.301,8.35362e-07,0,8192,8192
282.351,8.56167e-07,0,8192,8192
282.401,8.70259e-07,0,8192,8192
282.45,8.77653e-07,0,8192,8192
282.5,8.78548e-07,0,8192,8192
282.553,8.72731e-07,0,8192,8192
282.603,8.61151e-07,0,8192,8192
282.652,8.439e-07,0,8192,8192
282.702,8.2115e-07,0,8192,8192
282.752,7.93042e-07,0,8192,8192
282.802,7.59746e-07,0,8192,8192
282.852,7.21538e-07,0,8192,8192
282.901,6.78861e-07,0,8192,8192
282.951,6.32359e-07,0,8192,8192
283.001,5.82869e-07,0,8192,8192
283.051,5.31379e-07,0,8192,8192
283.101,4.78944e-07,0,8192,8192
283.15,4.26605e-07,0,8192,8192
283.2,3.75301e-07,0,8192,8192
283.253,3.22975e-07,0,8192,8192
283.303,2.76067e-07,0,8192,8192
283.353,2.32022e-07,0,8192,8192
283.402,1.91111e-07,0,8192,8192
283.452,1.53493e-07,0,8192,8192
283.502,1.19246e-07,0,8192,8192
283.552,8.83897e-08,0,8192,8192
283.601,6.08791e-08,0,8192,8192
283.651,3.66083e-08,0,8192,8192
283.701,1.54079e-08,0,8192,8192
283.751,-2.94343e-09,0,8192,8192
283.801,-1.86968e-08,0,8192,8192
283.85,-3.21061e-08,0,8192,8192
283.9,-4.34061e-08,0,8192,8192
283.95,-5.28025e-08,0,8192,8192
284.003,-6.08779e-08,0,8192,8192
284.053,-6.69128e-08,0,8192,8192
284.102,-7.15735e-08,0,8192,8192
284.152,-7.50314e-08,0,8192,8192
284.202,-7.74513e-08,0,8192,8192
284.252,-7.89767e-08,0,8192,8192
284.302,-7.97163e-08,0,8192,8192
284.351,-7.97414e-08,0,8192,8192
284.401,-7.90941e-08,0,8192,8192
284.451,-7.78057e-08,0,8192,8192
284.501,-7.59168e-08,0,8192,8192
284.551,-7.34921e-08,0,8192,8192
284.6,-7.06254e-08,0,8192,8192
284.65,-6.74342e-08,0,8192,8192
284.703,-6.38454e-08,0,8192,8192
284.753,-6.03903e-08,0,8192,8192
284.802,-5.69848e-08,0,8192,8192
284.852,-5.3717e-08,0,8192,8192
284.902,-5.06496e-08,0,8192,8192
284.952,-4.78217e-08,0,8192,8192
285.002,-4.52522e-08,0,8192,8192
285.051,-4.29455e-08,0,8192,8192
285.101,-4.08962e-08,0,8192,8192
285.151,-3.90936e-08,0,8192,8192
285.201,-3.75248e-08,0,8192,8192
285.251,-3.61764e-08,0,8192,8192
285.3,-3.50351e-08,0,8192,8192
285.35,-3.40875e-08,0,8192,8192
285.4,-3.33198e-08,0,8192,8192
285.453,-3.26868e-08,0,8192,8192
285.503,-3.22424e-08,0,8192,8192
285.552,-3.19305e-08,0,8192,8192
285.602,-3.17344e-08,0,8192,8192
285.652,-3.16378e-08,0,8192,8192
285.702,-3.16248e-08,0,8192,8192
285.752,-3.16807e-08,0,8192,8192
285.801,-3.1792e-08,0,8192,8192
285.851,-3.19468e-08,0,8192,8192
285.901,-3.21345e-08,0,8192,8192
285.951,-3.2346e-08,0,8192,8192
286.001,-3.25736e-08,0,8192,8192
286.05,-3.28105e-08,0,8192,8192
286.1,-3.30513e-08,0,8192,8192
286.153,-3.33053e-08,0,8192,8192
286.203,-3.35402e-08,0,8192,8192
286.252,-3.37672e-08,0,8192,8192
286.302,-3.39837e-08,0,8192,8192
286.352,-3.41877e-08,0,8192,8192
286.402,-3.43776e-08,0,8192,8192
286.452,-3.4552e-08,0,8192,8192
286.501,-3.47095e-08,0,8192,8192
286.551,-3.48493e-08,0,8192,8192
286.601,-3.49705e-08,0,8192,8192
286.651,-3.50726e-08,0,8192,8192
286.701,-3.51552e-08,0,8192,8192
286.75,-3.52186e-08,0,8192,8192
286.8,-3.52631e-08,0,8192,8192
286.85,-3.52896e-08,0,8192,8192
286.903,-3.52993e-08,0,8192,8192
286.953,-3.52926e-08,0,8192,8192
287.002,-3.52721e-08,0,8192,8192
287.052,-3.52396e-08,0,8192,8192
287.102,-3.51969e-08,0,8192,8192
287.152,-3.51458e-08,0,8192,8192
287.202,-3.50881e-08,0,8192,8192
287.251,-3.50255e-08,0,8192,8192
287.301,-3.49595e-08,0,8192,8192
287.351,-3.48916e-08,0,8192,8192
287.401,-3.48231e-08,0,8192,8192
287.451,-3.47551e-08,0,8192,8192
287.5,-3.46887e-08,0,8192,8192
287.55,-3.46248e-08,0,8192,8192
287.603,-3.45608e-08,0,8192,8192
287.653,-3.45045e-08,0,8192,8192
287.702,-3.4453e-08,0,8192,8192
287.752,-3.44066e-08,0,8192,8192
287.802,-3.43659e-08,0,8192,8192
287.852,-3.43312e-08,0,8192,8192
287.902,-3.43027e-08,0,8192,8192
287.951,-3.42808e-08,0,8192,8192
288.001,-3.42656e-08,0,8192,8192
288.051,-3.42573e-08,0,8192,8192
288.101,-3.4256e-08,0,8192,8192
288.151,-3.42616e-08,0,8192,8192
288.2,-3.42744e-08,0,8192,8192
288.25,-3.42944e-08,0,8192,8192
288.3,-3.43215e-08,0,8192,8192
288.353,-3.4358e-08,0,8192,8192
288.403,-3.43999e-08,0,8192,8192
288.452,-3.4449e-08,0,8192,8192
288.502,-3.45056e-08,0,8192,8192
288.552,-3.45698e-08,0,8192,8192
288.602,-3.46421e-08,0,8192,8192
288.652,-3.47229e-08,0,8192,8192
288.701,-3.48129e-08,0,8192,8192
288.751,-3.49129e-08,0,8192,8192
288.801,-3.50239e-08,0,8192,8192
288.851,-3.51471e-08,0,8192,8192
288.901,-3.52838e-08,0,8192,8192
288.95,-3.54351e-08,0,8192,8192
289,-3.56025e-08,0,8192,8192
289.053,-3.57987e-08,0,8192,8192
289.103,-3.60031e-08,0,8192,8192
289.152,-3.6227e-08,0,8192,8192
289.202,-3.64711e-08,0,8192,8192
289.252,-3.67357e-08,0,8192,8192
289.302,-3.70208e-08,0,8192,8192
289.352,-3.73257e-08,0,8192,8192
289.401,-3.76493e-08,0,8192,8192
289.451,-3.79902e-08,0,8192,8192
289.501,-3.83462e-08,0,8192,8192
289.551,-3.87147e-08,0,8192,8192
289.601,-3.90927e-08,0,8192,8192
289.65,-3.94768e-08,0,8192,8192
289.7,-3.98634e-08,0,8192,8192
289.753,-4.02712e-08,0,8192,8192
289.803,-4.06509e-08,0,8192,8192
289.853,-4.10211e-08,0,8192,8192
289.902,-4.1378e-08,0,8192,8192
289.952,-4.17178e-08,0,8192,8192
290.002,-4.20368e-08,0,8192,8192
290.052,-4.23316e-08,0,8192,8192
290.102,-4.2599e-08,0,8192,8192
290.151,-4.28359e-08,0,8192,8192
290.201,-4.30398e-08,0,8192,8192
290.251,-4.32083e-08,0,8192,8192
290.301,-4.33395e-08,0,8192,8192
290.35,-4.34319e-08,0,8192,8192
290.4,-4.34844e-08,0,8192,8192
290.45,-4.34961e-08,0,8192,8192
290.503,-4.34635e-08,0,8192,8192
290.553,-4.33901e-08,0,8192,8192
290.602,-4.32752e-08,0,8192,8192
290.652,-4.3119e-08,0,8192,8192
290.702,-4.29215e-08,0,8192,8192
290.752,-4.26829e-08,0,8192,8192
290.802,-4.24032e-08,0,8192,8192
290.851,-4.20826e-08,0,8192,8192
290.901,-4.17209e-08,0,8192,8192
290.951,-4.13182e-08,0,8192,8192
291.001,-4.08744e-08,0,8192,8192
291.051,-4.03896e-08,0,8192,8192
291.1,-3.98641e-08,0,8192,8192
291.15,-3.92984e-08,0,8192,8192
291.203,-3.86568e-08,0,8192,8192
291.253,-3.80117e-08,0,8192,8192
291.302,-3.73307e-08,0,8192,8192
291.352,-3.6616e-08,0,8192,8192
291.402,-3.58707e-08,0,8192,8192
291.452,-3.50982e-08,0,8192,8192
291.502,-3.43025e-08,0,8192,8192
291.551,-3.34881e-08,0,8192,8192
291.601,-3.26596e-08,0,8192,8192
291.651,-3.18221e-08,0,8192,8192
291.701,-3.09807e-08,0,8192,8192
291.751,-3.01403e-08,0,8192,8192
291.8,-2.9306e-08,0,8192,8192
291.85,-2.84828e-08,0,8192,8192
291.9,-2.76751e-08,0,8192,8192
291.953,-2.6842e-08,0,8192,8192
292.003,-2.60802e-08,0,8192,8192
292.052,-2.53467e-08,0,8192,8192
292.102,-2.46448e-08,0,8192,8192
292.152,-2.39776e-08,0,8192,8192
292.202,-2.33474e-08,0,8192,8192
292.252,-2.27563e-08,0,8192,8192
292.301,-2.22054e-08,0,8192,8192
292.351,-2.16956e-08,0,8192,8192
292.401,-2.1227e-08,0,8192,8192
292.451,-2.07989e-08,0,8192,8192
292.501,-2.04105e-08,0,8192,8192
292.55,-2.00603e-08,0,8192,8192
292.6,-1.97463e-08,0,8192,8192
292.653,-1.9451e-08,0,8192,8192
292.703,-1.92046e-08,0,8192,8192
292.752,-1.89873e-08,0,8192,8192
292.802,-1.87963e-08,0,8192,8192
292.852,-1.8629e-08,0,8192,8192
292.902,-1.84827e-08,0,8192,8192
292.952,-1.83549e-08,0,8192,8192
293.001,-1.82431e-08,0,8192,8192
293.051,-1.8145e-08,0,8192,8192
293.101,-1.80585e-08,0,8192,8192
293.151,-1.79816e-08,0,8192,8192
293.201,-1.79125e-08,0,8192,8192
293.25,-1.78496e-08,0,8192,8192
293.3,-1.77915e-08,0,8192,8192
293.35,-1.77368e-08,0,8192,8192
293.403,-1.76814e-08,0,8192,8192
293.453,-1.763e-08,0,8192,8192
293.502,-1.75784e-08,0,8192,8192
293.552,-1.75256e-08,0,8192,8192
293.602,-1.74702e-08,0,8192,8192
293.652,-1.74111e-08,0,8192,8192
293.702,-1.73472e-08,0,8192,8192
293.751,-1.72774e-08,0,8192,8192
293.801,-1.72006e-08,0,8192,8192
293.851,-1.71161e-08,0,8192,8192
293.901,-1.70231e-08,0,8192,8192
293.951,-1.69214e-08,0,8192,8192
294,-1.68107e-08,0,8192,8192
294.05,-1.66913e-08,0,8192,8192
294.103,-1.65559e-08,0,8192,8192
294.153,-1.64201e-08,0,8192,8192
294.202,-1.62778e-08,0,8192,8192
294.252,-1.61299e-08,0,8192,8192
294.302,-1.59778e-08,0,8192,8192
294.352,-1.58227e-08,0,8192,8192
294.402,-1.56659e-08,0,8192,8192
294.451,-1.55087e-08,0,8192,8192
294.501,-1.5352e-08,0,8192,8192
294.551,-1.51965e-08,0,8192,8192
294.601,-1.50428e-08,0,8192,8192
294.651,-1.48908e-08,0,8192,8192
294.7,-1.47403e-08,0,8192,8192
294.75,-1.45906e-08,0,8192,8192
294.8,-1.44405e-08,0,8192,8192
294.853,-1.42799e-08,0,8192,8192
294.903,-1.41251e-08,0,8192,8192
294.952,-1.3966e-08,0,8192,8192
295.002,-1.38012e-08,0,8192,8192
295.052,-1.36295e-08,0,8192,8192
295.102,-1.34498e-08,0,8192,8192
295.152,-1.32609e-08,0,8192,8192
295.201,-1.30617e-08,0,8192,8192
295.251,-1.2851e-08,0,8192,8192
295.301,-1.26272e-08,0,8192,8192
295.351,-1.23887e-08,0,8192,8192
295.401,-1.21335e-08,0,8192,8192
295.45,-1.18597e-08,0,8192,8192
295.5,-1.15651e-08,0,8192,8192
295.553,-1.12282e-08,0,8192,8192
295.603,-1.08845e-08,0,8192,8192
295.652,-1.05145e-08,0,8192,8192
295.702,-1.01167e-08,0,8192,8192
295.752,-9.69053e-09,0,8192,8192
295.802,-9.23537e-09,0,8192,8192
295.852,-8.75123e-09,0,8192,8192
295.901,-8.23855e-09,0,8192,8192
295.951,-7.69817e-09,0,8192,8192
296.001,-7.13139e-09,0,8192,8192
296.051,-6.53998e-09,0,8192,8192
296.101,-5.92614e-09,0,8192,8192
296.15,-5.29252e-09,0,8192,8192
296.2,-4.64218e-09,0,8192,8192
296.25,-3.97854e-09,0,8192,8192
296.303,-3.2655e-09,0,8192,8192
296.353,-2.58646e-09,0,8192,8192
296.402,-1.90618e-09,0,8192,8192
296.452,-1.22887e-09,0,8192,8192
296.502,-5.58773e-10,0,8192,8192
296.552,9.99397e-11,0,8192,8192
296.602,7.43205e-10,0,8192,8192
296.651,1.36713e-09,0,8192,8192
296.701,1.96806e-09,0,8192,8192
296.751,2.54259e-09,0,8192,8192
296.801,3.08764e-09,0,8192,8192
296.851,3.60047e-09,0,8192,8192
296.9,4.07873e-09,0,8192,8192
296.95,4.52048e-09,0,8192,8192
297.003,4.94677e-09,0,8192,8192
297.053,5.30921e-09,0,8192,8192
297.102,5.63211e-09,0,8192,8192
297.152,5.91551e-09,0,8192,8192
297.202,6.15995e-09,0,8192,8192
297.252,6.36643e-09,0,8192,8192
297.302,6.53638e-09,0,8192,8192
297.351,6.67164e-09,0,8192,8192
297.401,6.77434e-09,0,8192,8192
297.451,6.84684e-09,0,8192,8192
297.501,6.89168e-09,0,8192,8192
297.551,6.9115e-09,0,8192,8192
297.6,6.90897e-09,0,8192,8192
297.65,6.88673e-09,0,8192,8192
297.703,6.84456e-09,0,8192,8192
297.753,6.78975e-09,0,8192,8192
297.803,6.72275e-09,0,8192,8192
297.852,6.64576e-09,0,8192,8192
297.902,6.56078e-09,0,8192,8192
297.952,6.46968e-09,0,8192,8192
298.002,6.37415e-09,0,8192,8192
298.052,6.27573e-09,0,8192,8192
298.101,6.17582e-09,0,8192,8192
298.151,6.07572e-09,0,8192,8192
298.201,5.9766e-09,0,8192,8192
298.251,5.87957e-09,0,8192,8192
298.3,5.78565e-09,0,8192,8192
298.35,5.69577e-09,0,8192,8192
298.4,5.61076e-09,0,8192,8192
298.453,5.5269e-09,0,8192,8192
298.503,5.45414e-09,0,8192,8192
298.552,5.38809e-09,0,8192,8192
298.602,5.32902e-09,0,8192,8192
298.652,5.277e-09,0,8192,8192
298.702,5.23187e-09,0,8192,8192
298.752,5.19325e-09,0,8192,8192
298.801,5.16053e-09,0,8192,8192
298.851,5.13288e-09,0,8192,8192
298.901,5.1093e-09,0,8192,8192
298.951,5.08861e-09,0,8192,8192
299.001,5.06953e-09,0,8192,8192
299.05,5.05071e-09,0,8192,8192
299.1,5.03083e-09,0,8192,8192
299.153,5.00719e-09,0,8192,8192
299.203,4.98122e-09,0,8192,8192
299.253,4.95072e-09,0,8192,8192
299.302,4.91496e-09,0,8192,8192
299.352,4.8735e-09,0,8192,8192
299.402,4.82617e-09,0,8192,8192
299.452,4.77309e-09,0,8192,8192
299.501,4.71465e-09,0,8192,8192
299.551,4.65146e-09,0,8192,8192
299.601,4.58433e-09,0,8192,8192
299.651,4.51414e-09,0,8192,8192
299.701,4.44187e-09,0,8192,8192
299.75,4.36848e-09,0,8192,8192
299.8,4.29489e-09,0,8192,8192
299.85,4.222e-09,0,8192,8192
299.903,4.14651e-09,0,8192,8192
299.953,4.0776e-09,0,8192,8192
300.002,4.01176e-09,0,8192,8192
300.052,3.94967e-09,0,8192,8192
300.102,3.89197e-09,0,8192,8192
300.152,3.83924e-09,0,8192,8192
300.202,3.79198e-09,0,8192,8192
300.251,3.75056e-09,0,8192,8192
300.301,3.71524e-09,0,8192,8192
300.351,3.68608e-09,0,8192,8192
300.401,3.66299e-09,0,8192,8192
300.451,3.64568e-09,0,8192,8192
300.5,3.63369e-09,0,8192,8192
300.55,3.62642e-09,0,8192,8192
300.603,3.6231e-09,0,8192,8192
300.653,3.62328e-09,0,8192,8192
300.702,3.62587e-09,0,8192,8192
300.752,3.6301e-09,0,8192,8192
300.802,3.63522e-09,0,8192,8192
300.852,3.64056e-09,0,8192,8192
300.902,3.64554e-09,0,8192,8192
300.951,3.64968e-09,0,8192,8192
301.001,3.65257e-09,0,8192,8192
301.051,3.6539e-09,0,8192,8192
301.101,3.65347e-09,0,8192,8192
301.151,3.65114e-09,0,8192,8192
301.2,3.64682e-09,0,8192,8192
301.25,3.6405e-09,0,8192,8192
301.3,3.63221e-09,0,8192,8192
301.353,3.62135e-09,0,8192,8192
301.403,3.6092e-09,0,8192,8192
301.452,3.59532e-09,0,8192,8192
301.502,3.5798e-09,0,8192,8192
301.552,3.56274e-09,0,8192,8192
301.602,3.54423e-09,0,8192,8192
301.652,3.52434e-09,0,8192,8192
301.701,3.50313e-09,0,8192,8192
301.751,3.48066e-09,0,8192,8192
301.801,3.45698e-09,0,8192,8192
301.851,3.43211e-09,0,8192,8192
301.901,3.4061e-09,0,8192,8192
301.95,3.379e-09,0,8192,8192
302,3.35087e-09,0,8192,8192
302.053,3.32005e-09,0,8192,8192
302.103,3.29005e-09,0,8192,8192
302.152,3.25929e-09,0,8192,8192
302.202,3.22788e-09,0,8192,8192
302.252,3.19593e-09,0,8192,8192
302.302,3.16355e-09,0,8192,8192
302.352,3.13085e-09,0,8192,8192
302.401,3.09792e-09,0,8192,8192
302.451,3.06484e-09,0,8192,8192
302.501,3.03168e-09,0,8192,8192
302.551,2.9985e-09,0,8192,8192
302.601,2.96533e-09,0,8192,8192
302.65,2.93219e-09,0,8192,8192
302.7,2.89911e-09,0,8192,8192
302.75,2.86609e-09,0,8192,8192
302.803,2.83118e-09,0,8192,8192
302.853,2.79824e-09,0,8192,8192
302.902,2.76532e-09,0,8192,8192
302.952,2.73238e-09,0,8192,8192
303.002,2.69939e-09,0,8192,8192
303.052,2.66632e-09,0,8192,8192
303.102,2.63312e-09,0,8192,8192
303.151,2.59975e-09,0,8192,8192
303.201,2.56617e-09,0,8192,8192
303.251,2.53234e-09,0,8192,8192
303.301,2.49821e-09,0,8192,8192
303.351,2.46374e-09,0,8192,8192
303.4,2.4289e-09,0,8192,8192
303.45,2.39367e-09,0,8192,8192
303.503,2.35589e-09,0,8192,8192
303.553,2.31974e-09,0,8192,8192
303.602,2.28313e-09,0,8192,8192
303.652,2.24604e-09,0,8192,8192
303.702,2.20846e-09,0,8192,8192
303.752,2.17041e-09,0,8192,8192
303.802,2.13187e-09,0,8192,8192
303.851,2.09288e-09,0,8192,8192
303.901,2.05344e-09,0,8192,8192
303.951,2.01358e-09,0,8192,8192
304.001,1.97333e-09,0,8192,8192
304.051,1.93272e-09,0,8192,8192
304.1,1.89178e-09,0,8192,8192
304.15,1.85056e-09,0,8192,8192
304.2,1.80911e-09,0,8192,8192
304.253,1.76502e-09,0,8192,8192
304.303,1.72323e-09,0,8192,8192
304.352,1.68137e-09,0,8192,8192
304.402,1.63948e-09,0,8192,8192
304.452,1.59762e-09,0,8192,8192
304.502,1.55585e-09,0,8192,8192
304.552,1.51422e-09,0,8192,8192
304.601,1.47279e-09,0,8192,8192
304.651,1.43161e-09,0,8192,8192
304.701,1.39074e-09,0,8192,8192
304.751,1.35023e-09,0,8192,8192
304.801,1.31013e-09,0,8192,8192
304.85,1.27049e-09,0,8192,8192
304.9,1.23135e-09,0,8192,8192
304.953,1.1905e-09,0,8192,8192
