250,0,0,32768,32768
250.001,0,0,32768,32768
250.051,0,0,32768,32768
250.101,0,0,32768,32768
250.151,0,0,32768,32768
250.201,0,0,32768,32768
250.25,0,0,32768,32768
250.3,0,0,32768,32768
250.35,0,0,32768,32768
250.401,0,0,32768,32768
250.451,0,0,32768,32768
250.501,0,0,32768,32768
250.551,0,0,32768,32768
250.6,0,0,32768,32768
250.65,0,0,32768,32768
250.7,0,0,32768,32768
250.751,2.77556e-17,0,32768,32768
250.801,2.77556e-17,0,32768,32768
250.851,2.77556e-17,0,32768,32768
250.901,2.77556e-17,0,32768,32768
250.951,2.77556e-17,0,32768,32768
251,2.77556e-17,0,32768,32768
251.05,0,0,32768,32768
251.101,0,0,32768,32768
251.151,0,0,32768,32768
251.201,0,0,32768,32768
251.251,0,0,32768,32768
251.301,0,0,32768,32768
251.35,0,0,32768,32768
251.4,0,0,32768,32768
251.451,0,0,32768,32768
251.501,0,0,32768,32768
251.551,2.77556e-17,0,32768,32768
251.601,0,0,32768,32768
251.651,2.77556e-17,0,32768,32768
251.7,0,0,32768,32768
251.75,2.77556e-17,0,32768,32768
251.8,0,0,32768,32768
251.851,0,0,32768,32768
251.901,0,0,32768,32768
251.951,0,0,32768,32768
252.001,0,0,32768,32768
252.05,0,0,32768,32768
252.1,0,0,32768,32768
252.15,0,0,32768,32768
252.201,0,0,32768,32768
252.251,0,0,32768,32768
252.301,0,0,32768,32768
252.351,0,0,32768,32768
252.401,0,0,32768,32768
252.45,0,0,32768,32768
252.5,0,0,32768,32768
252.551,2.77556e-17,0,32768,32768
252.601,2.77556e-17,0,32768,32768
252.651,2.77556e-17,0,32768,32768
252.701,0,0,32768,32768
252.751,2.77556e-17,0,32768,32768
252.8,0,0,32768,32768
252.85,0,0,32768,32768
252.901,-2.77556e-17,0,32768,32768
252.951,0,0,32768,32768
253.001,0,0,32768,32768
253.051,0,0,32768,32768
253.101,0,0,32768,32768
253.15,0,0,32768,32768
253.2,0,0,32768,32768
253.25,2.77556e-17,0,32768,32768
253.301,2.77556e-17,0,32768,32768
253.351,2.77556e-17,0,32768,32768
253.401,2.77556e-17,0,32768,32768
253.451,2.77556e-17,0,32768,32768
253.5,2.77556e-17,0,32768,32768
253.55,2.77556e-17,0,32768,32768
253.6,2.77556e-17,0,32768,32768
253.651,2.77556e-17,0,32768,32768
253.701,2.77556e-17,0,32768,32768
253.751,2.77556e-17,0,32768,32768
253.801,2.77556e-17,0,32768,32768
253.851,2.77556e-17,0,32768,32768
253.9,2.77556e-17,0,32768,32768
253.95,2.77556e-17,0,32768,32768
254.001,2.77556e-17,0,32768,32768
254.051,5.55112e-17,0,32768,32768
254.101,8.32667e-17,0,32768,32768
254.151,5.55112e-17,0,32768,32768
254.201,-2.77556e-17,0,32768,32768
254.25,-2.77556e-17,0,32768,32768
254.3,-2.77556e-17,0,32768,32768
254.351,-2.77556e-17,0,32768,32768
254.401,-2.77556e-17,0,32768,32768
254.451,0,0,32768,32768
254.501,0,0,32768,32768
254.551,-2.77556e-17,0,32768,32768
254.6,0,0,32768,32768
254.65,-2.77556e-17,0,32768,32768
254.701,-2.77556e-17,0,32768,32768
254.751,-2.77556e-17,0,32768,32768
254.801,-2.77556e-17,0,32768,32768
254.851,-5.55112e-17,0,32768,32768
254.901,-5.55112e-17,0,32768,32768
254.95,-5.55112e-17,0,32768,32768
255,-5.55112e-17,0,32768,32768
255.05,-2.77556e-17,0,32768,32768
255.101,0,0,32768,32768
255.151,0,0,32768,32768
255.201,0,0,32768,32768
255.251,0,0,32768,32768
255.3,0,0,32768,32768
255.35,0,0,32768,32768
255.4,0,0,32768,32768
255.451,0,0,32768,32768
255.501,0,0,32768,32768
255.551,0,0,32768,32768
255.601,0,0,32768,32768
255.651,0,0,32768,32768
255.7,0,0,32768,32768
255.75,0,0,32768,32768
255.801,0,0,32768,32768
255.851,0,0,32768,32768
255.901,0,0,32768,32768
255.951,0,0,32768,32768
256.001,0,0,32768,32768
256.05,-2.77556e-17,0,32768,32768
256.1,0,0,32768,32768
256.151,0,0,32768,32768
256.201,0,0,32768,32768
256.251,0,0,32768,32768
256.301,0,0,32768,32768
256.351,0,0,32768,32768
256.4,2.77556e-17,0,32768,32768
256.45,2.77556e-17,0,32768,32768
256.5,5.55112e-17,0,32768,32768
256.551,5.55112e-17,0,32768,32768
256.601,8.32667e-17,0,32768,32768
256.651,2.77556e-17,0,32768,32768
256.701,1.11022e-16,0,32768,32768
256.75,5.55112e-17,0,32768,32768
256.8,2.77556e-17,0,32768,32768
256.85,2.77556e-17,0,32768,32768
256.901,-2.77556e-17,0,32768,32768
256.951,0,0,32768,32768
257.001,0,0,32768,32768
257.051,2.77556e-17,0,32768,32768
257.101,0,0,32768,32768
257.15,0,0,32768,32768
257.2,0,0,32768,32768
257.251,0,0,32768,32768
257.301,2.77556e-17,0,32768,32768
257.351,5.55112e-17,0,32768,32768
257.401,5.55112e-17,0,32768,32768
257.451,8.32667e-17,0,32768,32768
257.5,8.32667e-17,0,32768,32768
257.55,5.55112e-17,0,32768,32768
257.601,5.55112e-17,0,32768,32768
257.651,5.55112e-17,0,32768,32768
257.701,5.55112e-17,0,32768,32768
257.751,2.77556e-17,0,32768,32768
257.801,5.55112e-17,0,32768,32768
257.85,2.77556e-17,0,32768,32768
257.9,0,0,32768,32768
257.95,2.77556e-17,0,32768,32768
258.001,5.55112e-17,0,32768,32768
258.051,2.77556e-17,0,32768,32768
258.101,2.77556e-17,0,32768,32768
258.151,-5.55112e-17,0,32768,32768
258.2,-5.55112e-17,0,32768,32768
258.25,-2.77556e-17,0,32768,32768
258.3,-2.77556e-17,0,32768,32768
258.351,-5.55112e-17,0,32768,32768
258.401,0,0,32768,32768
258.451,-2.77556e-17,0,32768,32768
258.501,0,0,32768,32768
258.551,0,0,32768,32768
258.6,0,0,32768,32768
258.65,0,0,32768,32768
258.701,0,0,32768,32768
258.751,-2.77556e-17,0,32768,32768
258.801,-2.77556e-17,0,32768,32768
258.851,-2.77556e-17,0,32768,32768
258.901,-2.77556e-17,0,32768,32768
258.95,0,0,32768,32768
259,2.77556e-17,0,32768,32768
259.051,0,0,32768,32768
259.101,0,0,32768,32768
259.151,-2.77556e-17,0,32768,32768
259.201,0,0,32768,32768
259.251,0,0,32768,32768
259.3,0,0,32768,32768
259.35,-5.55112e-17,0,32768,32768
259.401,-2.77556e-17,0,32768,32768
259.451,0,0,32768,32768
259.501,0,0,32768,32768
259.551,-5.55112e-17,0,32768,32768
259.601,-5.55112e-17,0,32768,32768
259.65,-5.55112e-17,0,32768,32768
259.7,0,0,32768,32768
259.75,-2.77556e-17,0,32768,32768
259.801,-5.55112e-17,0,32768,32768
259.851,-8.32667e-17,0,32768,32768
259.901,-8.32667e-17,0,32768,32768
259.951,-8.32667e-17,0,32768,32768
260,-8.32667e-17,0,32768,32768
260.05,-8.32667e-17,0,32768,32768
260.1,-5.55112e-17,0,32768,32768
260.151,-5.55112e-17,0,32768,32768
260.201,-5.55112e-17,0,32768,32768
260.251,0,0,32768,32768
260.301,-2.77556e-17,0,32768,32768
260.351,0,0,32768,32768
260.4,5.55112e-17,0,32768,32768
260.45,8.32667e-17,0,32768,32768
260.501,5.55112e-17,0,32768,32768
260.551,5.55112e-17,0,32768,32768
260.601,2.77556e-17,0,32768,32768
260.651,2.77556e-17,0,32768,32768
260.701,5.55112e-17,0,32768,32768
260.75,5.55112e-17,0,32768,32768
260.8,8.32667e-17,0,32768,32768
260.851,1.11022e-16,0,32768,32768
260.901,8.32667e-17,0,32768,32768
260.951,8.32667e-17,0,32768,32768
261.001,1.11022e-16,0,32768,32768
261.051,1.11022e-16,0,32768,32768
261.1,1.11022e-16,0,32768,32768
261.15,5.55112e-17,0,32768,32768
261.2,5.55112e-17,0,32768,32768
261.251,5.55112e-17,0,32768,32768
261.301,2.77556e-17,0,32768,32768
261.351,2.77556e-17,0,32768,32768
261.401,2.77556e-17,0,32768,32768
261.45,2.77556e-17,0,32768,32768
261.5,2.77556e-17,0,32768,32768
261.55,5.55112e-17,0,32768,32768
261.601,5.55112e-17,0,32768,32768
261.651,8.32667e-17,0,32768,32768
261.701,5.55112e-17,0,32768,32768
261.751,5.55112e-17,0,32768,32768
261.801,2.77556e-17,0,32768,32768
261.85,2.77556e-17,0,32768,32768
261.9,5.55112e-17,0,32768,32768
261.951,2.77556e-17,0,32768,32768
262.001,2.77556e-17,0,32768,32768
262.051,5.55112e-17,0,32768,32768
262.101,5.55112e-17,0,32768,32768
262.151,5.55112e-17,0,32768,32768
262.2,2.77556e-17,0,32768,32768
262.25,2.77556e-17,0,32768,32768
262.301,5.55112e-17,0,32768,32768
262.351,5.55112e-17,0,32768,32768
262.401,2.77556e-17,0,32768,32768
262.451,2.77556e-17,0,32768,32768
262.501,2.77556e-17,0,32768,32768
262.55,2.77556e-17,0,32768,32768
262.6,5.55112e-17,0,32768,32768
262.651,5.55112e-17,0,32768,32768
262.701,8.32667e-17,0,32768,32768
262.751,8.32667e-17,0,32768,32768
262.801,1.11022e-16,0,32768,32768
262.851,8.32667e-17,0,32768,32768
262.9,8.32667e-17,0,32768,32768
262.95,1.11022e-16,0,32768,32768
263,8.32667e-17,0,32768,32768
263.051,8.32667e-17,0,32768,32768
263.101,8.32667e-17,0,32768,32768
263.151,8.32667e-17,0,32768,32768
263.201,2.77556e-17,0,32768,32768
263.25,0,0,32768,32768
263.3,0,0,32768,32768
263.35,0,0,32768,32768
263.401,0,0,32768,32768
263.451,0,0,32768,32768
263.501,0,0,32768,32768
263.551,-2.77556e-17,0,32768,32768
263.601,-2.77556e-17,0,32768,32768
263.65,2.77556e-17,0,32768,32768
263.7,2.77556e-17,0,32768,32768
263.751,5.55112e-17,0,32768,32768
263.801,5.55112e-17,0,32768,32768
263.851,5.55112e-17,0,32768,32768
263.901,8.32667e-17,0,32768,32768
263.951,8.32667e-17,0,32768,32768
264,8.32667e-17,0,32768,32768
264.05,8.32667e-17,0,32768,32768
264.101,8.32667e-17,0,32768,32768
264.151,8.32667e-17,0,32768,32768
264.201,8.32667e-17,0,32768,32768
264.251,8.32667e-17,0,32768,32768
264.301,8.32667e-17,0,32768,32768
264.35,5.55112e-17,0,32768,32768
264.4,5.55112e-17,0,32768,32768
264.45,2.77556e-17,0,32768,32768
264.501,5.55112e-17,0,32768,32768
264.551,5.55112e-17,0,32768,32768
264.601,5.55112e-17,0,32768,32768
264.651,5.55112e-17,0,32768,32768
264.7,5.55112e-17,0,32768,32768
264.75,5.55112e-17,0,32768,32768
264.8,5.55112e-17,0,32768,32768
264.851,5.55112e-17,0,32768,32768
264.901,5.55112e-17,0,32768,32768
264.951,5.55112e-17,0,32768,32768
265.001,5.55112e-17,0,32768,32768
265.051,1.11022e-16,0,32768,32768
265.1,8.32667e-17,0,32768,32768
265.15,5.55112e-17,0,32768,32768
265.201,8.32667e-17,0,32768,32768
265.251,2.77556e-17,0,32768,32768
265.301,2.77556e-17,0,32768,32768
265.351,2.77556e-17,0,32768,32768
265.401,0,0,32768,32768
265.45,2.77556e-17,0,32768,32768
265.5,2.77556e-17,0,32768,32768
265.551,2.77556e-17,0,32768,32768
265.601,2.77556e-17,0,32768,32768
265.651,2.77556e-17,0,32768,32768
265.701,0,0,32768,32768
265.751,5.55112e-17,0,32768,32768
265.8,2.77556e-17,0,32768,32768
265.85,2.77556e-17,0,32768,32768
265.9,2.77556e-17,0,32768,32768
265.951,2.77556e-17,0,32768,32768
266.001,0,0,32768,32768
266.051,2.77556e-17,0,32768,32768
266.101,5.55112e-17,0,32768,32768
266.15,2.77556e-17,0,32768,32768
266.2,2.77556e-17,0,32768,32768
266.25,2.77556e-17,0,32768,32768
266.301,2.77556e-17,0,32768,32768
266.351,0,0,32768,32768
266.401,0,0,32768,32768
266.451,-2.77556e-17,0,32768,32768
266.501,0,0,32768,32768
266.55,0,0,32768,32768
266.6,0,0,32768,32768
266.651,0,0,32768,32768
266.701,5.55112e-17,0,32768,32768
266.751,5.55112e-17,0,32768,32768
266.801,2.77556e-17,0,32768,32768
266.851,5.55112e-17,0,32768,32768
266.9,2.77556e-17,0,32768,32768
266.95,2.77556e-17,0,32768,32768
267.001,0,0,32768,32768
267.051,5.55112e-17,0,32768,32768
267.101,8.32667e-17,0,32768,32768
267.151,5.55112e-17,0,32768,32768
267.201,5.55112e-17,0,32768,32768
267.25,5.55112e-17,0,32768,32768
267.3,2.77556e-17,0,32768,32768
267.351,2.77556e-17,0,32768,32768
267.401,2.77556e-17,0,32768,32768
267.451,2.77556e-17,0,32768,32768
267.501,5.55112e-17,0,32768,32768
267.551,5.55112e-17,0,32768,32768
267.6,5.55112e-17,0,32768,32768
267.65,2.77556e-17,0,32768,32768
267.7,5.55112e-17,0,32768,32768
267.751,5.55112e-17,0,32768,32768
267.801,2.77556e-17,0,32768,32768
267.851,5.55112e-17,0,32768,32768
267.901,5.55112e-17,0,32768,32768
267.95,5.55112e-17,0,32768,32768
268,5.55112e-17,0,32768,32768
268.05,5.55112e-17,0,32768,32768
268.1,5.55112e-17,0,33688,33688
268.151,5.55112e-17,0,34456,34456
268.201,2.77556e-17,0,35224,35224
268.25,2.77556e-17,0,35944,35944
268.3,2.77556e-17,0,36712,36712
268.351,2.77556e-17,0,37432,37432
268.4,2.77556e-17,0,38152,38152
268.45,2.77556e-17,0,38872,38872
268.5,2.77556e-17,0,39592,39592
268.551,2.77556e-17,0,40312,40312
268.6,2.77556e-17,0,41032,41032
268.65,2.77556e-17,0,41704,41704
268.701,2.77556e-17,0,42424,42424
268.75,2.77556e-17,0,43144,43144
268.8,2.77556e-17,0,43864,43864
268.85,2.77556e-17,0,44584,44584
268.901,2.77556e-17,0,45256,45256
268.95,2.77556e-17,0,45976,45976
269,2.77556e-17,0,46696,46696
269.051,2.77556e-17,0,47416,47416
269.101,2.77556e-17,0,48088,48088
269.15,2.77556e-17,0,48808,48808
269.2,2.77556e-17,0,49480,49480
269.251,2.77556e-17,0,50200,50200
269.3,2.77556e-17,0,50920,50920
269.35,2.77556e-17,0,51592,51592
269.4,2.77556e-17,0,52312,52312
269.451,2.77556e-17,0,52984,52984
269.5,2.77556e-17,0,53704,53704
269.55,2.77556e-17,0,54376,54376
269.601,2.77556e-17,0,55096,55096
269.65,2.77556e-17,0,55816,55816
269.7,2.77556e-17,0,56488,56488
269.75,2.77556e-17,0,57160,57160
269.801,2.77556e-17,0,57880,57880
269.85,2.77556e-17,0,58552,58552
269.9,2.77556e-17,0,59224,59224
269.95,2.77556e-17,0,59944,59944
270.001,2.77556e-17,0,60616,60616
270.05,2.77556e-17,0,61288,61288
270.1,2.77556e-17,0,61960,61960
270.151,2.77556e-17,0,62632,62632
270.2,2.77556e-17,0,63304,63304
270.25,2.77556e-17,0,63976,63976
270.3,2.77556e-17,0,64648,64648
270.351,2.77556e-17,0,65320,65320
270.4,2.77556e-17,0,65992,65992
270.45,2.77556e-17,0,66616,66616
270.501,2.77556e-17,0,67288,67288
270.551,2.77556e-17,0,67960,67960
270.6,2.77556e-17,0,68584,68584
270.65,2.77556e-17,0,69256,69256
270.701,2.77556e-17,0,69880,69880
270.75,2.77556e-17,0,70552,70552
270.8,2.77556e-17,0,71176,71176
270.85,2.77556e-17,0,71800,71800
270.901,2.77556e-17,0,72472,72472
270.95,2.77556e-17,0,73096,73096
271,2.77556e-17,0,73720,73720
271.051,2.77556e-17,0,74344,74344
271.1,2.77556e-17,0,74968,74968
271.15,2.77556e-17,0,75592,75592
271.2,2.77556e-17,0,76216,76216
271.251,2.77556e-17,0,76840,76840
271.3,2.77556e-17,0,77464,77464
271.35,2.77556e-17,0,78088,78088
271.401,2.77556e-17,0,78712,78712
271.451,2.77556e-17,0,79336,79336
271.5,2.77556e-17,0,79912,79912
271.55,2.77556e-17,0,80536,80536
271.601,2.77556e-17,0,81160,81160
271.65,2.77556e-17,0,81736,81736
271.7,2.77556e-17,0,82360,82360
271.75,2.77556e-17,0,82936,82936
271.801,2.77556e-17,0,83560,83560
271.85,2.77556e-17,0,84136,84136
271.9,2.77556e-17,0,84712,84712
271.951,2.77556e-17,0,85336,85336
272,2.77556e-17,0,85912,85912
272.05,2.77556e-17,0,86488,86488
272.1,2.77556e-17,0,87064,87064
272.151,2.77556e-17,0,87640,87640
272.2,2.77556e-17,0,88216,88216
272.25,2.77556e-17,0,88792,88792
272.3,2.77556e-17,0,89368,89368
272.351,2.77556e-17,0,89944,89944
272.4,1.38778e-15,0,90520,90520
272.45,2.91434e-15,0,91048,91048
272.501,4.7462e-15,0,91624,91624
272.55,6.57807e-15,0,92200,92200
272.6,8.43769e-15,0,92776,92776
272.65,1.02418e-14,0,93304,93304
272.701,1.21569e-14,0,93880,93880
272.75,1.62648e-14,0,94408,94408
272.8,3.5083e-14,0,94984,94984
272.851,9.49518e-14,0,95512,95512
272.9,5.46702e-13,0,96040,96040
272.95,-6.91214e-12,0,96616,96616
273,-8.06164e-11,0,97144,97144
273.051,-2.95295e-10,0,97672,97672
273.1,-5.05671e-10,0,98248,98248
273.15,-4.65492e-10,0,98776,98776
273.2,-1.68868e-10,0,99304,99304
273.251,1.83614e-10,0,99832,99832
273.3,3.69629e-10,0,100408,100408
273.35,2.99872e-10,0,100936,100936
273.401,5.30897e-11,0,101464,101464
273.45,-1.45991e-10,0,101992,101992
273.5,-1.26575e-10,0,102520,102520
273.55,8.65084e-11,0,103048,103048
273.601,2.95538e-10,0,103576,103576
273.65,3.08861e-10,0,104104,104104
273.7,1.34467e-10,0,104632,104632
273.751,-5.5442e-11,0,105160,105160
273.801,-8.45265e-11,0,105688,105688
273.85,5.46052e-11,0,106216,106216
273.9,2.26793e-10,0,106744,106744
273.951,2.89293e-10,0,107272,107272
274,2.0838e-10,0,107800,107800
274.05,6.43884e-11,0,108280,108280
274.1,-3.76592e-11,0,108808,108808
274.151,-3.29229e-11,0,109336,109336
274.2,8.33421e-11,0,109816,109816
274.25,2.54246e-10,0,110296,110296
274.301,3.62015e-10,0,110680,110680
274.35,2.72867e-10,0,111064,111064
274.4,-1.76689e-11,0,111544,111544
274.45,-2.89496e-10,0,112072,112072
274.501,-2.0465e-10,0,112648,112648
274.55,3.24988e-10,0,113128,113128
274.6,8.65773e-10,0,113656,113656
274.651,7.04258e-10,0,114232,114232
274.701,-3.58131e-10,0,114712,114712
274.75,-1.40803e-09,0,115240,115240
274.8,-8.09187e-10,0,115768,115768
274.851,2.66379e-09,0,116296,116296
274.9,8.62873e-09,0,116824,116824
274.95,1.56578e-08,0,117352,117352
275,2.21533e-08,0,117880,117880
275.051,2.71924e-08,0,118408,118408
275.1,3.04138e-08,0,118888,118888
275.15,3.24618e-08,0,119416,119416
275.201,3.4729e-08,0,119944,119944
275.25,3.88912e-08,0,120472,120472
275.3,4.61429e-08,0,120952,120952
275.35,5.64641e-08,0,121480,121480
275.401,6.9246e-08,0,122008,122008
275.45,8.3644e-08,0,122488,122488
275.5,1.00477e-07,0,123016,123016
275.55,1.21271e-07,0,123496,123496
275.601,1.48093e-07,0,124024,124024
275.65,1.81342e-07,0,124504,124504
275.7,2.21796e-07,0,124984,124984
275.751,2.69503e-07,0,125464,125464
275.8,3.21018e-07,0,125896,125896
275.85,3.74429e-07,0,126328,126328
275.9,4.28392e-07,0,126808,126808
275.951,4.84663e-07,0,127240,127240
276,5.43718e-07,0,127624,127624
276.05,6.06974e-07,0,128056,128056
276.101,6.72911e-07,0,128440,128440
276.151,7.34961e-07,0,128824,128824
276.2,7.89647e-07,0,129208,129208
276.25,8.34116e-07,0,129592,129592
276.301,8.6758e-07,0,129976,129976
276.35,8.89471e-07,0,130312,130312
276.4,9.02297e-07,0,130648,130648
276.45,9.08778e-07,0,131072,131072
276.501,9.11166e-07,0,131072,131072
276.55,9.104e-07,0,131072,131072
276.6,9.06474e-07,0,131072,131072
276.651,8.98562e-07,0,131072,131072
276.7,8.85833e-07,0,131072,131072
276.75,8.66981e-07,0,131072,131072
276.8,8.40858e-07,0,131072,131072
276.851,8.06019e-07,0,131072,131072
276.9,7.63203e-07,0,131072,131072
276.95,7.1294e-07,0,131072,131072
277.001,6.56921e-07,0,131072,131072
277.051,6.00155e-07,0,131072,131072
277.1,5.44762e-07,0,131072,131072
277.15,4.92515e-07,0,131072,131072
277.201,4.4351e-07,0,131072,131072
277.25,3.99274e-07,0,131072,131072
277.3,3.58664e-07,0,131072,131072
277.35,3.20992e-07,0,131072,131072
277.401,2.8503e-07,0,131072,131072
277.45,2.51264e-07,0,131072,131072
277.5,2.19025e-07,0,131072,131072
277.551,1.88608e-07,0,131072,131072
277.6,1.62547e-07,0,131072,131072
277.65,1.41966e-07,0,131072,131072
277.7,1.26809e-07,0,131072,131072
277.751,1.14622e-07,0,131072,131072
277.8,1.02619e-07,0,131072,131072
277.85,8.8999e-08,0,131072,131072
277.9,7.46059e-08,0,131072,131072
277.951,6.14106e-08,0,131072,131072
278,5.14266e-08,0,131072,131072
278.05,4.46865e-08,0,131072,131072
278.101,4.03359e-08,0,131072,131072
278.15,3.71537e-08,0,131072,131072
278.2,3.35457e-08,0,131072,131072
278.25,2.83673e-08,0,131072,131072
278.301,2.15397e-08,0,131072,131072
278.35,1.46879e-08,0,131072,131072
278.4,9.55762e-09,0,131072,131072
278.451,7.04128e-09,0,131072,131072
278.5,6.70378e-09,0,131072,131072
278.55,7.27812e-09,0,131072,131072
278.6,7.82841e-09,0,131072,131072
278.651,8.07951e-09,0,131072,131072
278.7,8.15781e-09,0,131072,131072
278.75,8.23281e-09,0,131072,131072
278.8,8.34666e-09,0,131072,131072
278.851,8.45373e-09,0,131072,131072
278.9,8.43106e-09,0,131072,131072
278.95,8.10969e-09,0,131072,131072
279.001,7.57819e-09,0,131072,131072
279.05,7.22178e-09,0,131072,131072
279.1,7.11609e-09,0,131072,131072
279.15,7.11377e-09,0,131072,131072
279.201,7.13054e-09,0,131072,131072
279.25,7.14882e-09,0,131072,131072
279.3,7.16707e-09,0,131072,131072
279.351,7.18536e-09,0,131072,131072
279.401,7.20321e-09,0,131072,131072
279.45,7.22111e-09,0,131072,131072
279.5,7.23926e-09,0,131072,131072
279.551,7.25799e-09,0,131072,131072
279.6,7.27652e-09,0,131072,131072
279.65,7.29477e-09,0,131072,131072
279.7,7.31256e-09,0,131072,131072
279.751,7.33039e-09,0,131072,131072
279.8,7.34836e-09,0,131072,131072
279.85,7.36715e-09,0,131072,131072
279.901,7.38659e-09,0,131072,131072
279.95,7.40503e-09,0,131072,131072
280,7.42226e-09,0,131072,131072
280.05,7.44015e-09,0,131072,131072
280.101,7.4637e-09,0,131072,131072
280.15,7.49733e-09,0,131072,131072
280.2,7.54213e-09,0,131072,131072
280.251,7.59231e-09,0,131072,131072
280.301,7.63758e-09,0,131072,131072
280.35,7.68277e-09,0,131072,131072
280.4,7.75697e-09,0,131072,131072
280.451,7.9069e-09,0,131072,131072
280.5,8.15411e-09,0,131072,131072
280.55,8.48098e-09,0,131072,131072
280.6,8.83322e-09,0,131072,131072
280.651,9.16701e-09,0,131072,131072
280.7,9.47031e-09,0,131072,131072
280.75,9.79855e-09,0,131072,131072
280.801,1.023e-08,0,131072,131072
280.85,1.08003e-08,0,131072,131072
280.9,1.15183e-08,0,131072,131072
280.95,1.23639e-08,0,131072,131072
281.001,1.33482e-08,0,131072,131072
281.05,1.44779e-08,0,131072,131072
281.1,1.5824e-08,0,131072,131072
281.15,1.74305e-08,0,131072,131072
281.201,1.93334e-08,0,131072,131072
281.25,2.14558e-08,0,131072,131072
281.3,2.3804e-08,0,131072,131072
281.351,2.64233e-08,0,131072,131072
281.4,2.92643e-08,0,131072,131072
281.45,3.23869e-08,0,131072,131072
281.5,3.57857e-08,0,131072,131072
281.551,3.94696e-08,0,131072,131072
281.6,4.32553e-08,0,131072,131072
281.65,4.71212e-08,0,131072,131072
281.701,5.10931e-08,0,131072,131072
281.751,5.50806e-08,0,131072,131072
281.8,5.91875e-08,0,131072,131072
281.85,6.34109e-08,0,131072,131072
281.901,6.7718e-08,0,131072,131072
281.95,7.18563e-08,0,131072,131072
282,7.58915e-08,0,131072,131072
282.05,8.0092e-08,0,131072,131072
282.101,8.50336e-08,0,131072,131072
282.15,9.10558e-08,0,131072,131072
282.2,9.83681e-08,0,131072,131072
282.251,1.0676e-07,0,131072,131072
282.3,1.15289e-07,0,131072,131072
282.35,1.23339e-07,0,131072,131072
282.4,1.3048e-07,0,131072,131072
282.451,1.36855e-07,0,131072,131072
282.5,1.42832e-07,0,131072,131072
282.55,1.49345e-07,0,131072,131072
282.601,1.57341e-07,0,131072,131072
282.651,1.67144e-07,0,131072,131072
282.7,1.79098e-07,0,131072,131072
282.75,1.93327e-07,0,131072,131072
282.801,2.10388e-07,0,131072,131072
282.85,2.30401e-07,0,131072,131072
282.9,2.5443e-07,0,131072,131072
282.95,2.83265e-07,0,131072,131072
283.001,3.17848e-07,0,131072,131072
283.05,3.5696e-07,0,131072,131072
283.1,4.00232e-07,0,131072,131072
283.151,4.47208e-07,0,131072,131072
283.2,4.95508e-07,0,131072,131072
283.25,5.45265e-07,0,131072,131072
283.3,5.96323e-07,0,131072,131072
283.351,6.49127e-07,0,131072,131072
283.4,7.01041e-07,0,131072,131072
283.45,7.50756e-07,0,131072,131072
283.5,7.95612e-07,0,131072,131072
283.551,8.33546e-07,0,131072,131072
283.6,8.61679e-07,0,131072,131072
283.65,8.80023e-07,0,131072,131072
283.701,8.89177e-07,0,131072,131072
283.75,8.90217e-07,0,131072,131072
283.8,8.84939e-07,0,131072,131072
283.85,8.747e-07,0,131072,131072
283.901,8.60055e-07,0,131072,131072
283.95,8.41584e-07,0,131072,131072
284,8.18731e-07,0,131072,131072
284.051,7.90359e-07,0,131072,131072
284.101,7.56534e-07,0,131072,131072
284.15,7.16336e-07,0,131072,131072
284.2,6.69687e-07,0,131072,131072
284.251,6.164e-07,0,131072,131072
284.3,5.5943e-07,0,131072,131072
284.35,5.00039e-07,0,131072,131072
284.4,4.40428e-07,0,131072,131072
284.451,3.81731e-07,0,131072,131072
284.5,3.27075e-07,0,131072,131072
284.55,2.76342e-07,0,131072,131072
284.601,2.2905e-07,0,131072,131072
284.65,1.86334e-07,0,131072,131072
284.7,1.47061e-07,0,131072,131072
284.75,1.10853e-07,0,131072,131072
284.801,7.71039e-08,0,131072,131072
284.85,4.70143e-08,0,131072,131072
284.9,2.05734e-08,0,131072,131072
284.951,-2.04025e-09,0,131072,131072
285.001,-2.01319e-08,0,131072,131072
285.05,-3.46861e-08,0,131072,131072
285.1,-4.6804e-08,0,131072,131072
285.151,-5.76872e-08,0,131072,131072
285.2,-6.75137e-08,0,131072,131072
285.25,-7.62436e-08,0,131072,131072
285.3,-8.32939e-08,0,131072,131072
285.351,-8.82485e-08,0,131072,131072
285.4,-9.09556e-08,0,131072,131072
285.45,-9.20057e-08,0,131072,131072
285.501,-9.21864e-08,0,131072,131072
285.55,-9.2219e-08,0,131072,131072
285.6,-9.24361e-08,0,131072,131072
285.65,-9.26495e-08,0,131072,131072
285.701,-9.23029e-08,0,131072,131072
285.75,-9.08532e-08,0,131072,131072
285.8,-8.80779e-08,0,131072,131072
285.85,-8.41655e-08,0,131072,131072
285.901,-7.94909e-08,0,131072,131072
285.95,-7.46516e-08,0,131072,131072
286,-6.98879e-08,0,131072,131072
286.051,-6.52717e-08,0,131072,131072
286.1,-6.09795e-08,0,131072,131072
286.15,-5.69681e-08,0,131072,131072
286.2,-5.32773e-08,0,131072,131072
286.251,-4.98975e-08,0,131072,131072
286.3,-4.69261e-08,0,131072,131072
286.35,-4.42664e-08,0,131072,131072
286.401,-4.18252e-08,0,131072,131072
286.451,-3.96363e-08,0,131072,131072
286.5,-3.76593e-08,0,131072,131072
286.55,-3.59057e-08,0,131072,131072
286.601,-3.43614e-08,0,131072,131072
286.65,-3.30654e-08,0,131072,131072
286.7,-3.19794e-08,0,131072,131072
286.75,-3.10857e-08,0,131072,131072
286.801,-3.03574e-08,0,131072,131072
286.85,-2.97987e-08,0,131072,131072
286.9,-2.93814e-08,0,131072,131072
286.951,-2.90853e-08,0,131072,131072
287,-2.89009e-08,0,131072,131072
287.05,-2.88048e-08,0,131072,131072
287.1,-2.87801e-08,0,131072,131072
287.151,-2.88136e-08,0,131072,131072
287.2,-2.88938e-08,0,131072,131072
287.25,-2.90135e-08,0,131072,131072
287.301,-2.91693e-08,0,131072,131072
287.351,-2.93502e-08,0,131072,131072
287.4,-2.95508e-08,0,131072,131072
287.45,-2.97626e-08,0,131072,131072
287.501,-2.99815e-08,0,131072,131072
287.55,-3.01953e-08,0,131072,131072
287.6,-3.04042e-08,0,131072,131072
287.65,-3.06073e-08,0,131072,131072
287.701,-3.08069e-08,0,131072,131072
287.75,-3.09963e-08,0,131072,131072
287.8,-3.11756e-08,0,131072,131072
287.851,-3.13433e-08,0,131072,131072
287.9,-3.14902e-08,0,131072,131072
287.95,-3.16156e-08,0,131072,131072
288,-3.17175e-08,0,131072,131072
288.051,-3.17964e-08,0,131072,131072
288.1,-3.18505e-08,0,131072,131072
288.15,-3.18825e-08,0,131072,131072
288.201,-3.18936e-08,0,131072,131072
288.251,-3.18852e-08,0,131072,131072
288.3,-3.18594e-08,0,131072,131072
288.35,-3.18181e-08,0,131072,131072
288.401,-3.17622e-08,0,131072,131072
288.45,-3.16948e-08,0,131072,131072
288.5,-3.16169e-08,0,131072,131072
288.55,-3.15297e-08,0,131072,131072
288.601,-3.14332e-08,0,131072,131072
288.65,-3.13316e-08,0,131072,131072
288.7,-3.12246e-08,0,131072,131072
288.751,-3.11117e-08,0,131072,131072
288.8,-3.09968e-08,0,131072,131072
288.85,-3.08787e-08,0,131072,131072
288.9,-3.07575e-08,0,131072,131072
288.951,-3.06319e-08,0,131072,131072
289,-3.05058e-08,0,131072,131072
289.05,-3.03785e-08,0,131072,131072
289.1,-3.02507e-08,0,131072,131072
289.151,-3.01213e-08,0,131072,131072
289.2,-2.99941e-08,0,131072,131072
289.25,-2.98672e-08,0,131072,131072
289.301,-2.97376e-08,0,131072,131072
289.35,-2.96079e-08,0,131072,131072
289.4,-2.94748e-08,0,131072,131072
289.45,-2.93366e-08,0,131072,131072
289.501,-2.91892e-08,0,131072,131072
289.55,-2.90346e-08,0,131072,131072
289.6,-2.88677e-08,0,131072,131072
289.651,-2.86821e-08,0,131072,131072
289.7,-2.8479e-08,0,131072,131072
289.75,-2.82521e-08,0,131072,131072
289.8,-2.7998e-08,0,131072,131072
289.851,-2.77095e-08,0,131072,131072
289.9,-2.73934e-08,0,131072,131072
289.95,-2.70449e-08,0,131072,131072
290,-2.66638e-08,0,131072,131072
290.051,-2.62446e-08,0,131072,131072
290.1,-2.58017e-08,0,131072,131072
290.15,-2.53328e-08,0,131072,131072
290.201,-2.48365e-08,0,131072,131072
290.25,-2.43348e-08,0,131072,131072
290.3,-2.38296e-08,0,131072,131072
290.35,-2.33303e-08,0,131072,131072
290.401,-2.28388e-08,0,131072,131072
290.45,-2.23776e-08,0,131072,131072
290.5,-2.19458e-08,0,131072,131072
290.551,-2.15433e-08,0,131072,131072
290.601,-2.1186e-08,0,131072,131072
290.65,-2.08713e-08,0,131072,131072
290.7,-2.06026e-08,0,131072,131072
290.751,-2.038e-08,0,131072,131072
290.8,-2.02123e-08,0,131072,131072
290.85,-2.00976e-08,0,131072,131072
290.9,-2.00359e-08,0,131072,131072
290.951,-2.00263e-08,0,131072,131072
291,-2.00663e-08,0,131072,131072
291.05,-2.01515e-08,0,131072,131072
291.101,-2.02792e-08,0,131072,131072
291.15,-2.044e-08,0,131072,131072
291.2,-2.06297e-08,0,131072,131072
291.25,-2.08425e-08,0,131072,131072
291.301,-2.10761e-08,0,131072,131072
291.35,-2.13179e-08,0,131072,131072
291.4,-2.15656e-08,0,131072,131072
291.451,-2.18173e-08,0,131072,131072
291.501,-2.20599e-08,0,131072,131072
291.55,-2.22914e-08,0,131072,131072
291.6,-2.25062e-08,0,131072,131072
291.651,-2.27021e-08,0,131072,131072
291.7,-2.28695e-08,0,131072,131072
291.75,-2.30091e-08,0,131072,131072
291.8,-2.31202e-08,0,131072,131072
291.851,-2.32046e-08,0,131072,131072
291.9,-2.3261e-08,0,131072,131072
291.95,-2.32924e-08,0,131072,131072
292.001,-2.32999e-08,0,131072,131072
292.05,-2.32847e-08,0,131072,131072
292.1,-2.32486e-08,0,131072,131072
292.15,-2.31937e-08,0,131072,131072
292.201,-2.31213e-08,0,131072,131072
292.25,-2.30362e-08,0,131072,131072
292.3,-2.29396e-08,0,131072,131072
292.35,-2.28332e-08,0,131072,131072
292.401,-2.27163e-08,0,131072,131072
292.45,-2.25926e-08,0,131072,131072
292.5,-2.24611e-08,0,131072,131072
292.551,-2.23202e-08,0,131072,131072
292.6,-2.21749e-08,0,131072,131072
292.65,-2.20245e-08,0,131072,131072
292.7,-2.187e-08,0,131072,131072
292.751,-2.17101e-08,0,131072,131072
292.8,-2.15505e-08,0,131072,131072
292.85,-2.13897e-08,0,131072,131072
292.901,-2.12265e-08,0,131072,131072
292.951,-2.10672e-08,0,131072,131072
293,-2.09109e-08,0,131072,131072
293.05,-2.07588e-08,0,131072,131072
293.101,-2.06097e-08,0,131072,131072
293.15,-2.04683e-08,0,131072,131072
293.2,-2.03327e-08,0,131072,131072
293.25,-2.02037e-08,0,131072,131072
293.301,-2.00806e-08,0,131072,131072
293.35,-1.99683e-08,0,131072,131072
293.4,-1.9866e-08,0,131072,131072
293.451,-1.97724e-08,0,131072,131072
293.5,-1.96892e-08,0,131072,131072
293.55,-1.96128e-08,0,131072,131072
293.6,-1.9541e-08,0,131072,131072
293.651,-1.94703e-08,0,131072,131072
293.7,-1.94014e-08,0,131072,131072
293.75,-1.93325e-08,0,131072,131072
293.801,-1.9263e-08,0,131072,131072
293.851,-1.91955e-08,0,131072,131072
293.9,-1.91298e-08,0,131072,131072
293.95,-1.90665e-08,0,131072,131072
294.001,-1.90049e-08,0,131072,131072
294.05,-1.89461e-08,0,131072,131072
294.1,-1.88884e-08,0,131072,131072
294.15,-1.88302e-08,0,131072,131072
294.201,-1.8769e-08,0,131072,131072
294.25,-1.8705e-08,0,131072,131072
294.3,-1.86364e-08,0,131072,131072
294.351,-1.8562e-08,0,131072,131072
294.4,-1.84843e-08,0,131072,131072
294.45,-1.84033e-08,0,131072,131072
294.5,-1.83201e-08,0,131072,131072
294.551,-1.82343e-08,0,131072,131072
294.6,-1.81492e-08,0,131072,131072
294.65,-1.80635e-08,0,131072,131072
294.7,-1.79769e-08,0,131072,131072
294.751,-1.78877e-08,0,131072,131072
294.8,-1.7798e-08,0,131072,131072
294.85,-1.77062e-08,0,131072,131072
294.901,-1.76113e-08,0,131072,131072
294.95,-1.75166e-08,0,131072,131072
295,-1.74214e-08,0,131072,131072
295.05,-1.73256e-08,0,131072,131072
295.101,-1.72271e-08,0,131072,131072
295.15,-1.71277e-08,0,131072,131072
295.2,-1.7025e-08,0,131072,131072
295.251,-1.69168e-08,0,131072,131072
295.301,-1.68063e-08,0,131072,131072
295.35,-1.66922e-08,0,131072,131072
295.4,-1.65749e-08,0,131072,131072
295.451,-1.64523e-08,0,131072,131072
295.5,-1.63275e-08,0,131072,131072
295.55,-1.61978e-08,0,131072,131072
295.6,-1.60625e-08,0,131072,131072
295.651,-1.5919e-08,0,131072,131072
295.7,-1.57716e-08,0,131072,131072
295.75,-1.56186e-08,0,131072,131072
295.801,-1.54582e-08,0,131072,131072
295.85,-1.52953e-08,0,131072,131072
295.9,-1.51277e-08,0,131072,131072
295.95,-1.49553e-08,0,131072,131072
296.001,-1.47752e-08,0,131072,131072
296.05,-1.45924e-08,0,131072,131072
296.1,-1.44039e-08,0,131072,131072
296.151,-1.42066e-08,0,131072,131072
296.201,-1.40058e-08,0,131072,131072
296.25,-1.37983e-08,0,131072,131072
296.3,-1.35842e-08,0,131072,131072
296.351,-1.33603e-08,0,131072,131072
296.4,-1.31334e-08,0,131072,131072
296.45,-1.29007e-08,0,131072,131072
296.5,-1.26624e-08,0,131072,131072
296.551,-1.24148e-08,0,131072,131072
296.6,-1.21646e-08,0,131072,131072
296.65,-1.19074e-08,0,131072,131072
296.701,-1.16382e-08,0,131072,131072
296.75,-1.13632e-08,0,131072,131072
296.8,-1.10768e-08,0,131072,131072
296.85,-1.07768e-08,0,131072,131072
296.901,-1.0456e-08,0,131072,131072
296.95,-1.0121e-08,0,131072,131072
297,-9.7643e-09,0,131072,131072
297.05,-9.38323e-09,0,131072,131072
297.101,-8.96905e-09,0,131072,131072
297.15,-8.53164e-09,0,131072,131072
297.2,-8.06365e-09,0,131072,131072
297.251,-7.5565e-09,0,131072,131072
297.3,-7.0245e-09,0,131072,131072
297.35,-6.46086e-09,0,131072,131072
297.4,-5.86678e-09,0,131072,131072
297.451,-5.23518e-09,0,131072,131072
297.5,-4.58788e-09,0,131072,131072
297.55,-3.92056e-09,0,131072,131072
297.601,-3.22873e-09,0,131072,131072
297.651,-2.53868e-09,0,131072,131072
297.7,-1.84678e-09,0,131072,131072
297.75,-1.15904e-09,0,131072,131072
297.801,-4.71008e-10,0,131072,131072
297.85,1.92575e-10,0,131072,131072
297.9,8.37638e-10,0,131072,131072
297.95,1.46048e-09,0,131072,131072
298.001,2.06615e-09,0,131072,131072
298.05,2.63353e-09,0,131072,131072
298.1,3.16797e-09,0,131072,131072
298.151,3.67284e-09,0,131072,131072
298.2,4.12992e-09,0,131072,131072
298.25,4.54372e-09,0,131072,131072
298.3,4.91187e-09,0,131072,131072
298.351,5.23732e-09,0,131072,131072
298.4,5.51038e-09,0,131072,131072
298.45,5.73699e-09,0,131072,131072
298.501,5.92136e-09,0,131072,131072
298.551,6.06079e-09,0,131072,131072
298.6,6.16134e-09,0,131072,131072
298.65,6.2263e-09,0,131072,131072
298.701,6.25919e-09,0,131072,131072
298.75,6.26231e-09,0,131072,131072
298.8,6.23949e-09,0,131072,131072
298.85,6.19384e-09,0,131072,131072
298.901,6.12739e-09,0,131072,131072
298.95,6.04522e-09,0,131072,131072
299,5.94948e-09,0,131072,131072
299.051,5.84132e-09,0,131072,131072
299.1,5.72633e-09,0,131072,131072
299.15,5.60507e-09,0,131072,131072
299.2,5.47935e-09,0,131072,131072
299.251,5.34889e-09,0,131072,131072
299.3,5.21902e-09,0,131072,131072
299.35,5.08926e-09,0,131072,131072
299.4,4.96077e-09,0,131072,131072
299.451,4.83264e-09,0,131072,131072
299.5,4.70921e-09,0,131072,131072
299.55,4.58908e-09,0,131072,131072
299.601,4.47107e-09,0,131072,131072
299.65,4.35922e-09,0,131072,131072
299.7,4.25261e-09,0,131072,131072
299.75,4.15212e-09,0,131072,131072
299.801,4.05728e-09,0,131072,131072
299.85,3.97148e-09,0,131072,131072
299.9,3.89366e-09,0,131072,131072
299.951,3.82297e-09,0,131072,131072
300,3.7614e-09,0,131072,131072
300.05,3.70767e-09,0,131072,131072
300.1,3.66147e-09,0,131072,131072
300.151,3.62176e-09,0,131072,131072
300.2,3.58895e-09,0,131072,131072
300.25,3.56143e-09,0,131072,131072
300.3,3.53807e-09,0,131072,131072
300.351,3.51752e-09,0,131072,131072
300.4,3.4994e-09,0,131072,131072
300.45,3.48269e-09,0,131072,131072
300.501,3.46654e-09,0,131072,131072
300.55,3.45078e-09,0,131072,131072
300.6,3.43437e-09,0,131072,131072
300.65,3.41639e-09,0,131072,131072
300.701,3.39565e-09,0,131072,131072
300.75,3.37222e-09,0,131072,131072
300.8,3.34582e-09,0,131072,131072
300.851,3.31665e-09,0,131072,131072
300.901,3.28663e-09,0,131072,131072
300.95,3.25657e-09,0,131072,131072
301,3.22748e-09,0,131072,131072
301.051,3.19954e-09,0,131072,131072
301.1,3.1736e-09,0,131072,131072
301.15,3.14879e-09,0,131072,131072
301.2,3.12444e-09,0,131072,131072
301.251,3.09945e-09,0,131072,131072
301.3,3.07406e-09,0,131072,131072
301.35,3.04777e-09,0,131072,131072
301.401,3.0205e-09,0,131072,131072
301.45,2.99373e-09,0,131072,131072
301.5,2.968e-09,0,131072,131072
301.55,2.94424e-09,0,131072,131072
301.601,2.9229e-09,0,131072,131072
301.65,2.90496e-09,0,131072,131072
301.7,2.88996e-09,0,131072,131072
301.751,2.87721e-09,0,131072,131072
301.801,2.86629e-09,0,131072,131072
301.85,2.85618e-09,0,131072,131072
301.9,2.84618e-09,0,131072,131072
301.951,2.83569e-09,0,131072,131072
302,2.82487e-09,0,131072,131072
302.05,2.81361e-09,0,131072,131072
302.1,2.80208e-09,0,131072,131072
302.151,2.79016e-09,0,131072,131072
302.2,2.7781e-09,0,131072,131072
302.25,2.76545e-09,0,131072,131072
302.301,2.7517e-09,0,131072,131072
302.35,2.73703e-09,0,131072,131072
302.4,2.72127e-09,0,131072,131072
302.45,2.7047e-09,0,131072,131072
302.501,2.68741e-09,0,131072,131072
302.55,2.67019e-09,0,131072,131072
302.6,2.65289e-09,0,131072,131072
302.65,2.63536e-09,0,131072,131072
302.701,2.61712e-09,0,131072,131072
302.75,2.59852e-09,0,131072,131072
302.8,2.57932e-09,0,131072,131072
302.851,2.55944e-09,0,131072,131072
302.9,2.53975e-09,0,131072,131072
302.95,2.52022e-09,0,131072,131072
303,2.50093e-09,0,131072,131072
303.051,2.48151e-09,0,131072,131072
303.1,2.46231e-09,0,131072,131072
303.15,2.4428e-09,0,131072,131072
303.201,2.42254e-09,0,131072,131072
303.251,2.40209e-09,0,131072,131072
303.3,2.38121e-09,0,131072,131072
303.35,2.36e-09,0,131072,131072
303.401,2.33828e-09,0,131072,131072
303.45,2.31676e-09,0,131072,131072
303.5,2.2952e-09,0,131072,131072
303.55,2.27366e-09,0,131072,131072
303.601,2.25186e-09,0,131072,131072
303.65,2.23049e-09,0,131072,131072
303.7,2.20923e-09,0,131072,131072
303.751,2.18779e-09,0,131072,131072
303.8,2.16682e-09,0,131072,131072
303.85,2.146e-09,0,131072,131072
303.9,2.12536e-09,0,131072,131072
303.951,2.10462e-09,0,131072,131072
304,2.08441e-09,0,131072,131072
304.05,2.06444e-09,0,131072,131072
304.101,2.04443e-09,0,131072,131072
304.151,2.02497e-09,0,131072,131072
304.2,2.00577e-09,0,131072,131072
304.25,1.98682e-09,0,131072,131072
304.301,1.96784e-09,0,131072,131072
304.35,1.94935e-09,0,131072,131072
304.4,1.93104e-09,0,131072,131072
304.45,1.91288e-09,0,131072,131072
304.501,1.89454e-09,0,131072,131072
304.55,1.8765e-09,0,131072,131072
304.6,1.85846e-09,0,131072,131072
304.651,1.8401e-09,0,131072,131072
304.7,1.82188e-09,0,131072,131072
304.75,1.80349e-09,0,131072,131072
304.8,1.78487e-09,0,131072,131072
304.851,1.76569e-09,0,131072,131072
304.9,1.74645e-09,0,131072,131072
304.95,1.72683e-09,0,131072,131072
