250,0,0,2048,2048
250.006,0,0,2048,2048
250.053,0,0,2048,2048
250.105,0,0,2048,2048
250.152,0,0,2048,2048
250.205,0,0,2048,2048
250.252,0,0,2048,2048
250.305,0,0,2048,2048
250.352,0,0,2048,2048
250.404,0,0,2048,2048
250.451,0,0,2048,2048
250.504,0,0,2048,2048
250.551,0,0,2048,2048
250.603,0,0,2048,2048
250.65,0,0,2048,2048
250.703,0,0,2048,2048
250.756,0,0,2048,2048
250.803,0,0,2048,2048
250.855,0,0,2048,2048
250.902,0,0,2048,2048
250.955,0,0,2048,2048
251.002,0,0,2048,2048
251.055,0,0,2048,2048
251.101,0,0,2048,2048
251.154,0,0,2048,2048
251.201,0,0,2048,2048
251.254,0,0,2048,2048
251.301,0,0,2048,2048
251.353,0,0,2048,2048
251.4,0,0,2048,2048
251.453,0,0,2048,2048
251.506,0,0,2048,2048
251.553,0,0,2048,2048
251.605,0,0,2048,2048
251.652,0,0,2048,2048
251.705,0,0,2048,2048
251.752,0,0,2048,2048
251.804,0,0,2048,2048
251.851,0,0,2048,2048
251.904,0,0,2048,2048
251.951,0,0,2048,2048
252.004,0,0,2048,2048
252.05,0,0,2048,2048
252.103,0,0,2048,2048
252.15,0,0,2048,2048
252.203,0,0,2048,2048
252.256,0,0,2048,2048
252.302,0,0,2048,2048
252.355,0,0,2048,2048
252.402,0,0,2048,2048
252.455,0,0,2048,2048
252.502,0,0,2048,2048
252.554,0,0,2048,2048
252.601,0,0,2048,2048
252.654,0,0,2048,2048
252.701,0,0,2048,2048
252.754,0,0,2048,2048
252.8,0,0,2048,2048
252.853,0,0,2048,2048
252.906,0,0,2048,2048
252.953,0,0,2048,2048
253.005,0,0,2048,2048
253.052,0,0,2048,2048
253.105,0,0,2048,2048
253.152,0,0,2048,2048
253.205,0,0,2048,2048
253.251,0,0,2048,2048
253.304,0,0,2048,2048
253.351,0,0,2048,2048
253.404,0,0,2048,2048
253.451,0,0,2048,2048
253.503,0,0,2048,2048
253.55,0,0,2048,2048
253.603,0,0,2048,2048
253.656,0,0,2048,2048
253.703,0,0,2048,2048
253.755,0,0,2048,2048
253.802,0,0,2048,2048
253.855,0,0,2048,2048
253.902,0,0,2048,2048
253.954,0,0,2048,2048
254.001,0,0,2048,2048
254.054,0,0,2048,2048
254.101,0,0,2048,2048
254.154,0,0,2048,2048
254.201,0,0,2048,2048
254.253,0,0,2048,2048
254.3,0,0,2048,2048
254.353,0,0,2048,2048
254.406,0,0,2048,2048
254.452,0,0,2048,2048
254.505,0,0,2048,2048
254.552,0,0,2048,2048
254.605,0,0,2048,2048
254.652,0,0,2048,2048
254.704,0,0,2048,2048
254.751,0,0,2048,2048
254.804,0,0,2048,2048
254.851,0,0,2048,2048
254.904,0,0,2048,2048
254.95,0,0,2048,2048
255.003,0,0,2048,2048
255.05,0,0,2048,2048
255.103,0,0,2048,2048
255.155,0,0,2048,2048
255.202,0,0,2048,2048
255.255,0,0,2048,2048
255.302,0,0,2048,2048
255.355,0,0,2048,2048
255.402,0,0,2048,2048
255.454,0,0,2048,2048
255.501,0,0,2048,2048
255.554,0,0,2048,2048
255.601,0,0,2048,2048
255.653,0,0,2048,2048
255.7,0,0,2048,2048
255.753,0,0,2048,2048
255.806,0,0,2048,2048
255.853,0,0,2048,2048
255.905,0,0,2048,2048
255.952,0,0,2048,2048
256.005,0,0,2048,2048
256.052,0,0,2048,2048
256.105,0,0,2048,2048
256.151,0,0,2048,2048
256.204,0,0,2048,2048
256.251,0,0,2048,2048
256.304,0,0,2048,2048
256.351,0,0,2048,2048
256.403,0,0,2048,2048
256.45,0,0,2048,2048
256.503,0,0,2048,2048
256.556,0,0,2048,2048
256.603,0,0,2048,2048
256.655,0,0,2048,2048
256.702,0,0,2048,2048
256.755,0,0,2048,2048
256.802,0,0,2048,2048
256.854,0,0,2048,2048
256.901,0,0,2048,2048
256.954,0,0,2048,2048
257.001,0,0,2048,2048
257.054,0,0,2048,2048
257.101,0,0,2048,2048
257.153,0,0,2048,2048
257.2,0,0,2048,2048
257.253,0,0,2048,2048
257.306,0,0,2048,2048
257.352,0,0,2048,2048
257.405,0,0,2048,2048
257.452,0,0,2048,2048
257.505,0,0,2048,2048
257.552,0,0,2048,2048
257.604,0,0,2048,2048
257.651,0,0,2048,2048
257.704,0,0,2048,2048
257.751,0,0,2048,2048
257.804,0,0,2048,2048
257.85,0,0,2048,2048
257.903,0,0,2048,2048
257.95,0,0,2048,2048
258.003,0,0,2048,2048
258.055,0,0,2048,2048
258.102,0,0,2048,2048
258.155,0,0,2048,2048
258.202,0,0,2048,2048
258.255,0,0,2048,2048
258.302,0,0,2048,2048
258.354,0,0,2048,2048
258.401,0,0,2048,2048
258.454,0,0,2048,2048
258.501,0,0,2048,2048
258.553,0,0,2048,2048
258.6,0,0,2048,2048
258.653,0,0,2048,2048
258.706,0,0,2048,2048
258.753,0,0,2048,2048
258.805,0,0,2048,2048
258.852,0,0,2048,2048
258.905,0,0,2048,2048
258.952,0,0,2048,2048
259.005,0,0,2048,2048
259.051,0,0,2048,2048
259.104,0,0,2048,2048
259.151,0,0,2048,2048
259.204,0,0,2048,2048
259.251,0,0,2048,2048
259.303,0,0,2048,2048
259.35,0,0,2048,2048
259.403,0,0,2048,2048
259.456,0,0,2048,2048
259.503,0,0,2048,2048
259.555,0,0,2048,2048
259.602,0,0,2048,2048
259.655,0,0,2048,2048
259.702,0,0,2048,2048
259.754,0,0,2048,2048
259.801,0,0,2048,2048
259.854,0,0,2048,2048
259.901,0,0,2048,2048
259.954,0,0,2048,2048
260,0,0,2048,2048
260.053,0,0,2048,2048
260.1,0,0,2048,2048
260.153,0,0,2048,2048
260.206,0,0,2048,2048
260.252,0,0,2048,2048
260.305,-2.77556e-17,0,2048,2048
260.352,-5.55112e-17,0,2048,2048
260.405,-5.55112e-17,0,2048,2048
260.452,-5.55112e-17,0,2048,2048
260.504,-5.55112e-17,0,2048,2048
260.551,-5.55112e-17,0,2048,2048
260.604,-5.55112e-17,0,2048,2048
260.651,-5.55112e-17,0,2048,2048
260.704,-5.55112e-17,0,2048,2048
260.75,-5.55112e-17,0,2048,2048
260.803,-2.77556e-17,0,2048,2048
260.856,-2.77556e-17,0,2048,2048
260.903,-2.77556e-17,0,2048,2048
260.955,-2.77556e-17,0,2048,2048
261.002,-2.77556e-17,0,2048,2048
261.055,-2.77556e-17,0,2048,2048
261.102,-2.77556e-17,0,2048,2048
261.155,-2.77556e-17,0,2048,2048
261.201,-2.77556e-17,0,2048,2048
261.254,-2.77556e-17,0,2048,2048
261.301,-2.77556e-17,0,2048,2048
261.354,-2.77556e-17,0,2048,2048
261.401,0,0,2048,2048
261.453,0,0,2048,2048
261.5,0,0,2048,2048
261.553,0,0,2048,2048
261.606,0,0,2048,2048
261.653,0,0,2048,2048
261.705,0,0,2048,2048
261.752,0,0,2048,2048
261.805,0,0,2048,2048
261.852,0,0,2048,2048
261.905,0,0,2048,2048
261.951,0,0,2048,2048
262.004,0,0,2048,2048
262.051,0,0,2048,2048
262.104,0,0,2048,2048
262.151,0,0,2048,2048
262.203,0,0,2048,2048
262.25,0,0,2048,2048
262.303,0,0,2048,2048
262.356,0,0,2048,2048
262.402,0,0,2048,2048
262.455,0,0,2048,2048
262.502,0,0,2048,2048
262.555,0,0,2048,2048
262.602,0,0,2048,2048
262.654,0,0,2048,2048
262.701,0,0,2048,2048
262.754,0,0,2048,2048
262.801,0,0,2048,2048
262.854,0,0,2048,2048
262.9,0,0,2048,2048
262.953,0,0,2048,2048
263,0,0,2048,2048
263.053,0,0,2048,2048
263.105,0,0,2048,2048
263.152,0,0,2048,2048
263.205,0,0,2048,2048
263.252,0,0,2048,2048
263.305,0,0,2048,2048
263.352,0,0,2048,2048
263.404,0,0,2048,2048
263.451,0,0,2048,2048
263.504,0,0,2048,2048
263.551,0,0,2048,2048
263.603,0,0,2048,2048
263.65,0,0,2048,2048
263.703,0,0,2048,2048
263.756,0,0,2048,2048
263.803,0,0,2048,2048
263.855,0,0,2048,2048
263.902,0,0,2048,2048
263.955,0,0,2048,2048
264.002,0,0,2048,2048
264.055,0,0,2048,2048
264.101,0,0,2048,2048
264.154,0,0,2048,2048
264.201,0,0,2048,2048
264.254,0,0,2048,2048
264.301,0,0,2048,2048
264.353,0,0,2048,2048
264.4,0,0,2048,2048
264.453,0,0,2048,2048
264.506,0,0,2048,2048
264.553,0,0,2048,2048
264.605,0,0,2048,2048
264.652,0,0,2048,2048
264.705,0,0,2048,2048
264.752,0,0,2048,2048
264.804,0,0,2048,2048
264.851,0,0,2048,2048
264.904,0,0,2048,2048
264.951,0,0,2048,2048
265.004,-2.77556e-17,0,2048,2048
265.051,-5.55112e-17,0,2048,2048
265.103,-5.55112e-17,0,2048,2048
265.15,-5.55112e-17,0,2048,2048
265.203,-5.55112e-17,0,2048,2048
265.256,-5.55112e-17,0,2048,2048
265.302,-5.55112e-17,0,2048,2048
265.355,-5.55112e-17,0,2048,2048
265.402,-5.55112e-17,0,2048,2048
265.455,-5.55112e-17,0,2048,2048
265.502,-5.55112e-17,0,2048,2048
265.554,-2.77556e-17,0,2048,2048
265.601,-2.77556e-17,0,2048,2048
265.654,-2.77556e-17,0,2048,2048
265.701,-2.77556e-17,0,2048,2048
265.754,-2.77556e-17,0,2048,2048
265.8,-2.77556e-17,0,2048,2048
265.853,-2.77556e-17,0,2048,2048
265.9,-2.77556e-17,0,2048,2048
265.953,-2.77556e-17,0,2048,2048
266.005,-2.77556e-17,0,2048,2048
266.052,-2.77556e-17,0,2048,2048
266.105,-5.55112e-17,0,2048,2048
266.152,-5.55112e-17,0,2048,2048
266.205,-5.55112e-17,0,2048,2048
266.252,-5.55112e-17,0,2048,2048
266.304,-5.55112e-17,0,2048,2048
266.351,-5.55112e-17,0,2048,2048
266.404,-5.55112e-17,0,2048,2048
266.451,-5.55112e-17,0,2048,2048
266.503,-5.55112e-17,0,2048,2048
266.55,-5.55112e-17,0,2048,2048
266.603,-5.55112e-17,0,2048,2048
266.656,-5.55112e-17,0,2048,2048
266.703,-5.55112e-17,0,2048,2048
266.755,-5.55112e-17,0,2048,2048
266.802,-5.55112e-17,0,2048,2048
266.855,-2.77556e-17,0,2048,2048
266.902,-2.77556e-17,0,2048,2048
266.955,-2.77556e-17,0,2048,2048
267.001,-2.77556e-17,0,2048,2048
267.054,-2.77556e-17,0,2048,2048
267.101,-2.77556e-17,0,2048,2048
267.154,-2.77556e-17,0,2048,2048
267.201,-2.77556e-17,0,2048,2048
267.253,-2.77556e-17,0,2048,2048
267.3,-2.77556e-17,0,2048,2048
267.353,-2.77556e-17,0,2048,2048
267.406,-2.77556e-17,0,2048,2048
267.453,-2.77556e-17,0,2048,2048
267.505,-2.77556e-17,0,2048,2048
267.552,-2.77556e-17,0,2048,2048
267.605,-2.77556e-17,0,2048,2048
267.652,-2.77556e-17,0,2048,2048
267.704,-2.77556e-17,0,2048,2048
267.751,-2.77556e-17,0,2048,2048
267.804,-2.77556e-17,0,2048,2048
267.851,-2.77556e-17,0,2048,2048
267.904,-2.77556e-17,0,2048,2048
267.95,-2.77556e-17,0,2048,2048
268.003,-2.77556e-17,0,2048,2048
268.05,-2.77556e-17,0,2048,2048
268.1,-2.77556e-17,0,2390,2390
268.15,-2.77556e-17,0,2630,2630
268.201,-2.77556e-17,0,2870,2870
268.251,-2.77556e-17,0,3110,3110
268.301,-2.77556e-17,0,3326,3326
268.351,-2.77556e-17,0,3566,3566
268.4,-2.77556e-17,0,3770,3770
268.45,-2.77556e-17,0,4010,4010
268.5,-2.77556e-17,0,4226,4226
268.551,-2.77556e-17,0,4466,4466
268.601,-2.77556e-17,0,4670,4670
268.651,-2.77556e-17,0,4910,4910
268.701,-2.77556e-17,0,5126,5126
268.751,-2.77556e-17,0,5366,5366
268.8,-2.77556e-17,0,5570,5570
268.85,-2.77556e-17,0,5786,5786
268.901,-2.77556e-17,0,6026,6026
268.951,-2.77556e-17,0,6230,6230
269.001,-2.77556e-17,0,6446,6446
269.051,-2.77556e-17,0,6686,6686
269.101,-2.77556e-17,0,6890,6890
269.15,-2.77556e-17,0,7106,7106
269.2,-2.77556e-17,0,7338,7338
269.251,-2.77556e-17,0,7550,7550
269.301,-2.77556e-17,0,7766,7766
269.351,-2.77556e-17,0,7998,7998
269.401,-2.77556e-17,0,8210,8210
269.451,-2.77556e-17,0,8426,8426
269.5,-2.77556e-17,0,8630,8630
269.55,-2.77556e-17,0,8846,8846
269.6,-2.77556e-17,0,9086,9086
269.651,-2.77556e-17,0,9290,9290
269.701,-2.77556e-17,0,9506,9506
269.751,-2.77556e-17,0,9710,9710
269.801,-2.77556e-17,0,9926,9926
269.85,-2.77556e-17,0,10166,10166
269.9,-2.77556e-17,0,10370,10370
269.95,-2.77556e-17,0,10586,10586
270.001,-2.77556e-17,0,10790,10790
270.051,-2.77556e-17,0,11006,11006
270.101,-2.77556e-17,0,11210,11210
270.151,-2.77556e-17,0,11426,11426
270.201,-2.77556e-17,0,11630,11630
270.25,-2.77556e-17,0,11810,11810
270.3,-2.77556e-17,0,12026,12026
270.351,-2.77556e-17,0,12230,12230
270.401,-2.77556e-17,0,12446,12446
270.451,-2.77556e-17,0,12650,12650
270.501,-2.77556e-17,0,12830,12830
270.551,-2.77556e-17,0,13046,13046
270.6,-2.77556e-17,0,13250,13250
270.65,-2.77556e-17,0,13430,13430
270.701,-2.77556e-17,0,13646,13646
270.751,-2.77556e-17,0,13826,13826
270.801,-2.77556e-17,0,14030,14030
270.851,-2.77556e-17,0,14210,14210
270.901,-2.77556e-17,0,14358,14358
270.95,-2.77556e-17,0,14486,14486
271,-2.77556e-17,0,14690,14690
271.051,-2.77556e-17,0,14870,14870
271.101,-2.77556e-17,0,15086,15086
271.151,-2.77556e-17,0,15290,15290
271.201,-2.77556e-17,0,15470,15470
271.251,-2.77556e-17,0,15686,15686
271.3,-2.77556e-17,0,15866,15866
271.35,-2.77556e-17,0,16070,16070
271.4,-2.77556e-17,0,16278,16278
271.451,-2.77556e-17,0,16466,16466
271.501,-2.77556e-17,0,16670,16670
271.551,-2.77556e-17,0,16850,16850
271.601,-2.77556e-17,0,17030,17030
271.65,-2.77556e-17,0,17246,17246
271.7,-2.77556e-17,0,17426,17426
271.75,-2.77556e-17,0,17618,17618
271.801,-2.77556e-17,0,17810,17810
271.851,-2.77556e-17,0,17990,17990
271.901,-2.77556e-17,0,18206,18206
271.951,-2.77556e-17,0,18386,18386
272.001,-2.77556e-17,0,18566,18566
272.05,-2.77556e-17,0,18746,18746
272.1,-2.77556e-17,0,18926,18926
272.151,-2.77556e-17,0,19130,19130
272.201,-2.77556e-17,0,19310,19310
272.251,-2.77556e-17,0,19490,19490
272.301,-2.77556e-17,0,19670,19670
272.351,-2.77556e-17,0,19850,19850
272.4,-2.77556e-17,0,20030,20030
272.45,-2.77556e-17,0,20210,20210
272.501,-2.77556e-17,0,20390,20390
272.551,-2.77556e-17,0,20570,20570
272.601,-2.77556e-17,0,20750,20750
272.651,-2.77556e-17,0,20930,20930
272.701,-2.77556e-17,0,21110,21110
272.75,-2.77556e-17,0,21266,21266
272.8,-2.77556e-17,0,21446,21446
272.85,-2.77556e-17,0,21626,21626
272.901,5.55112e-16,0,21806,21806
272.951,1.47105e-15,0,21986,21986
273.001,2.41474e-15,0,22158,22158
273.051,3.16414e-15,0,22310,22310
273.1,3.91354e-15,0,22490,22490
273.15,4.80171e-15,0,22670,22670
273.2,5.63438e-15,0,22826,22826
273.251,6.43929e-15,0,23006,23006
273.301,7.24421e-15,0,23186,23186
273.351,8.10463e-15,0,23366,23366
273.401,9.02056e-15,0,23510,23510
273.451,9.96425e-15,0,23690,23690
273.5,1.09079e-14,0,23870,23870
273.55,1.19349e-14,0,24026,24026
273.601,1.41553e-14,0,24206,24206
273.651,1.80689e-14,0,24386,24386
273.701,2.43416e-14,0,24530,24530
273.751,3.19189e-14,0,24710,24710
273.801,3.83582e-14,0,24866,24866
273.85,3.55271e-14,0,25046,25046
273.9,9.74221e-15,0,25226,25226
273.951,-6.19782e-14,0,25370,25370
274.001,-2.01172e-13,0,25550,25550
274.051,-4.34319e-13,0,25706,25706
274.101,-7.51565e-13,0,25886,25886
274.151,-6.86465e-12,0,26030,26030
274.2,-3.08587e-11,0,26210,26210
274.25,-9.11477e-11,0,26366,26366
274.301,-1.94529e-10,0,26546,26546
274.351,-2.94859e-10,0,26726,26726
274.401,-3.23039e-10,0,26870,26870
274.451,-2.34357e-10,0,27050,27050
274.501,-6.02038e-11,0,27206,27206
274.55,1.06962e-10,0,27378,27378
274.6,1.80808e-10,0,27530,27530
274.65,1.43313e-10,0,27686,27686
274.701,5.20751e-11,0,27866,27866
274.751,2.44468e-12,0,28010,28010
274.801,3.5608e-11,0,28190,28190
274.851,1.18604e-10,0,28346,28346
274.9,1.76668e-10,0,28526,28526
274.95,1.62452e-10,0,28670,28670
275,9.62017e-11,0,28826,28826
275.051,4.17413e-11,0,29006,29006
275.101,5.08791e-11,0,29150,29150
275.151,1.11476e-10,0,29330,29330
275.201,1.70784e-10,0,29486,29486
275.251,1.81311e-10,0,29630,29630
275.3,1.3772e-10,0,29810,29810
275.35,7.64188e-11,0,29966,29966
275.401,4.60399e-11,0,30110,30110
275.451,7.54909e-11,0,30290,30290
275.501,1.47545e-10,0,30446,30446
275.551,2.08695e-10,0,30590,30590
275.601,1.99738e-10,0,30746,30746
275.65,1.07903e-10,0,30890,30890
275.7,1.28658e-12,0,31046,31046
275.751,-3.97948e-12,0,31190,31190
275.801,1.41556e-10,0,31338,31338
275.851,3.21828e-10,0,31466,31466
275.901,3.21647e-10,0,31610,31610
275.951,6.42637e-11,0,31730,31730
276,-1.39529e-10,0,31850,31850
276.05,4.05165e-10,0,31998,31998
276.1,2.43099e-09,0,32126,32126
276.151,6.3772e-09,0,32246,32246
276.201,1.16397e-08,0,32366,32366
276.251,1.74427e-08,0,32486,32486
276.301,2.28713e-08,0,32606,32606
276.35,2.73721e-08,0,32768,32768
276.4,3.09844e-08,0,32768,32768
276.45,3.43461e-08,0,32768,32768
276.501,3.86139e-08,0,32768,32768
276.551,4.45578e-08,0,32768,32768
276.601,5.2883e-08,0,32768,32768
276.651,6.37382e-08,0,32768,32768
276.701,7.71111e-08,0,32768,32768
276.75,9.32445e-08,0,32768,32768
276.8,1.12855e-07,0,32768,32768
276.851,1.378e-07,0,32768,32768
276.901,1.6773e-07,0,32768,32768
276.951,2.03902e-07,0,32768,32768
277.001,2.46192e-07,0,32768,32768
277.051,2.93684e-07,0,32768,32768
277.1,3.44995e-07,0,32768,32768
277.15,3.98934e-07,0,32768,32768
277.201,4.56723e-07,0,32768,32768
277.251,5.15267e-07,0,32768,32768
277.301,5.76247e-07,0,32768,32768
277.351,6.38671e-07,0,32768,32768
277.401,7.0019e-07,0,32768,32768
277.45,7.57628e-07,0,32768,32768
277.5,8.07932e-07,0,32768,32768
277.55,8.48985e-07,0,32768,32768
277.601,8.80769e-07,0,32768,32768
277.651,9.02026e-07,0,32768,32768
277.701,9.15289e-07,0,32768,32768
277.751,9.22327e-07,0,32768,32768
277.8,9.24582e-07,0,32768,32768
277.85,9.22809e-07,0,32768,32768
277.9,9.1703e-07,0,32768,32768
277.951,9.06308e-07,0,32768,32768
278.001,8.90339e-07,0,32768,32768
278.051,8.67899e-07,0,32768,32768
278.101,8.38176e-07,0,32768,32768
278.151,8.00838e-07,0,32768,32768
278.2,7.56338e-07,0,32768,32768
278.25,7.06073e-07,0,32768,32768
278.301,6.50599e-07,0,32768,32768
278.351,5.95607e-07,0,32768,32768
278.401,5.41716e-07,0,32768,32768
278.451,4.90439e-07,0,32768,32768
278.501,4.42549e-07,0,32768,32768
278.55,3.98201e-07,0,32768,32768
278.6,3.57117e-07,0,32768,32768
278.651,3.17727e-07,0,32768,32768
278.701,2.81825e-07,0,32768,32768
278.751,2.48079e-07,0,32768,32768
278.801,2.16782e-07,0,32768,32768
278.851,1.88661e-07,0,32768,32768
278.9,1.64508e-07,0,32768,32768
278.95,1.44581e-07,0,32768,32768
279.001,1.27758e-07,0,32768,32768
279.051,1.13558e-07,0,32768,32768
279.101,1.00102e-07,0,32768,32768
279.151,8.68571e-08,0,32768,32768
279.201,7.42526e-08,0,32768,32768
279.25,6.31899e-08,0,32768,32768
279.3,5.43506e-08,0,32768,32768
279.35,4.77783e-08,0,32768,32768
279.401,4.27448e-08,0,32768,32768
279.451,3.85618e-08,0,32768,32768
279.501,3.42022e-08,0,32768,32768
279.551,2.9309e-08,0,32768,32768
279.6,2.42188e-08,0,32768,32768
279.65,1.97605e-08,0,32768,32768
279.7,1.6756e-08,0,32768,32768
279.751,1.55531e-08,0,32768,32768
279.801,1.59929e-08,0,32768,32768
279.851,1.74735e-08,0,32768,32768
279.901,1.94909e-08,0,32768,32768
279.951,2.17667e-08,0,32768,32768
280,2.42296e-08,0,32768,32768
280.05,2.68981e-08,0,32768,32768
280.101,2.98688e-08,0,32768,32768
280.151,3.29331e-08,0,32768,32768
280.201,3.61173e-08,0,32768,32768
280.251,3.94047e-08,0,32768,32768
280.301,4.28374e-08,0,32768,32768
280.35,4.64697e-08,0,32768,32768
280.4,5.03135e-08,0,32768,32768
280.451,5.44551e-08,0,32768,32768
280.501,5.86063e-08,0,32768,32768
280.551,6.28374e-08,0,32768,32768
280.601,6.71185e-08,0,32768,32768
280.651,7.14597e-08,0,32768,32768
280.7,7.59462e-08,0,32768,32768
280.75,8.07522e-08,0,32768,32768
280.8,8.61036e-08,0,32768,32768
280.851,9.23786e-08,0,32768,32768
280.901,9.92631e-08,0,32768,32768
280.951,1.06771e-07,0,32768,32768
281.001,1.14591e-07,0,32768,32768
281.05,1.22373e-07,0,32768,32768
281.1,1.29883e-07,0,32768,32768
281.15,1.37115e-07,0,32768,32768
281.201,1.44539e-07,0,32768,32768
281.251,1.52199e-07,0,32768,32768
281.301,1.60844e-07,0,32768,32768
281.351,1.70987e-07,0,32768,32768
281.401,1.83075e-07,0,32768,32768
281.45,1.97515e-07,0,32768,32768
281.5,2.14741e-07,0,32768,32768
281.551,2.3591e-07,0,32768,32768
281.601,2.60359e-07,0,32768,32768
281.651,2.89095e-07,0,32768,32768
281.701,3.22346e-07,0,32768,32768
281.751,3.60021e-07,0,32768,32768
281.8,4.01707e-07,0,32768,32768
281.85,4.46771e-07,0,32768,32768
281.901,4.95948e-07,0,32768,32768
281.951,5.45731e-07,0,32768,32768
282.001,5.96796e-07,0,32768,32768
282.051,6.48281e-07,0,32768,32768
282.101,6.98991e-07,0,32768,32768
282.15,7.47341e-07,0,32768,32768
282.2,7.91489e-07,0,32768,32768
282.251,8.30638e-07,0,32768,32768
282.301,8.6109e-07,0,32768,32768
282.351,8.83279e-07,0,32768,32768
282.401,8.97138e-07,0,32768,32768
282.451,9.03198e-07,0,32768,32768
282.5,9.02338e-07,0,32768,32768
282.55,8.95479e-07,0,32768,32768
282.6,8.83335e-07,0,32768,32768
282.651,8.65695e-07,0,32768,32768
282.701,8.43564e-07,0,32768,32768
282.751,8.16237e-07,0,32768,32768
282.801,7.83358e-07,0,32768,32768
282.85,7.44691e-07,0,32768,32768
282.9,7.00322e-07,0,32768,32768
282.95,6.50791e-07,0,32768,32768
283.001,5.95504e-07,0,32768,32768
283.051,5.39095e-07,0,32768,32768
283.101,4.81679e-07,0,32768,32768
283.151,4.24856e-07,0,32768,32768
283.201,3.69965e-07,0,32768,32768
283.25,3.1795e-07,0,32768,32768
283.3,2.69332e-07,0,32768,32768
283.351,2.23011e-07,0,32768,32768
283.401,1.81582e-07,0,32768,32768
283.451,1.43556e-07,0,32768,32768
283.501,1.08885e-07,0,32768,32768
283.551,7.76358e-08,0,32768,32768
283.6,4.99495e-08,0,32768,32768
283.65,2.59159e-08,0,32768,32768
283.701,4.88922e-09,0,32768,32768
283.751,-1.22822e-08,0,32768,32768
283.801,-2.67802e-08,0,32768,32768
283.851,-3.91516e-08,0,32768,32768
283.901,-4.97858e-08,0,32768,32768
283.95,-5.88341e-08,0,32768,32768
284,-6.62625e-08,0,32768,32768
284.05,-7.20005e-08,0,32768,32768
284.101,-7.61898e-08,0,32768,32768
284.151,-7.88276e-08,0,32768,32768
284.201,-8.04255e-08,0,32768,32768
284.251,-8.13564e-08,0,32768,32768
284.3,-8.18598e-08,0,32768,32768
284.35,-8.19723e-08,0,32768,32768
284.4,-8.15597e-08,0,32768,32768
284.451,-8.03834e-08,0,32768,32768
284.501,-7.83846e-08,0,32768,32768
284.551,-7.55666e-08,0,32768,32768
284.601,-7.20971e-08,0,32768,32768
284.651,-6.82235e-08,0,32768,32768
284.7,-6.41957e-08,0,32768,32768
284.75,-6.0214e-08,0,32768,32768
284.801,-5.6306e-08,0,32768,32768
284.851,-5.27783e-08,0,32768,32768
284.901,-4.95597e-08,0,32768,32768
284.951,-4.66682e-08,0,32768,32768
285.001,-4.41006e-08,0,32768,32768
285.05,-4.18368e-08,0,32768,32768
285.1,-3.98479e-08,0,32768,32768
285.151,-3.80588e-08,0,32768,32768
285.201,-3.65513e-08,0,32768,32768
285.251,-3.52591e-08,0,32768,32768
285.301,-3.41749e-08,0,32768,32768
285.351,-3.32902e-08,0,32768,32768
285.4,-3.25933e-08,0,32768,32768
285.45,-3.20684e-08,0,32768,32768
285.5,-3.16974e-08,0,32768,32768
285.551,-3.14555e-08,0,32768,32768
285.601,-3.13367e-08,0,32768,32768
285.651,-3.13135e-08,0,32768,32768
285.701,-3.13682e-08,0,32768,32768
285.75,-3.14846e-08,0,32768,32768
285.8,-3.16485e-08,0,32768,32768
285.85,-3.18477e-08,0,32768,32768
285.901,-3.20793e-08,0,32768,32768
285.951,-3.23219e-08,0,32768,32768
286.001,-3.25756e-08,0,32768,32768
286.051,-3.28346e-08,0,32768,32768
286.101,-3.30938e-08,0,32768,32768
286.15,-3.33487e-08,0,32768,32768
286.2,-3.35954e-08,0,32768,32768
286.251,-3.38377e-08,0,32768,32768
286.301,-3.40598e-08,0,32768,32768
286.351,-3.42679e-08,0,32768,32768
286.401,-3.44613e-08,0,32768,32768
286.451,-3.46392e-08,0,32768,32768
286.5,-3.48007e-08,0,32768,32768
286.55,-3.49442e-08,0,32768,32768
286.601,-3.50716e-08,0,32768,32768
286.651,-3.51744e-08,0,32768,32768
286.701,-3.52556e-08,0,32768,32768
286.751,-3.53152e-08,0,32768,32768
286.801,-3.53538e-08,0,32768,32768
286.85,-3.53725e-08,0,32768,32768
286.9,-3.53727e-08,0,32768,32768
286.951,-3.53556e-08,0,32768,32768
287.001,-3.53242e-08,0,32768,32768
287.051,-3.52805e-08,0,32768,32768
287.101,-3.52268e-08,0,32768,32768
287.151,-3.51652e-08,0,32768,32768
287.2,-3.50976e-08,0,32768,32768
287.25,-3.5026e-08,0,32768,32768
287.3,-3.49519e-08,0,32768,32768
287.351,-3.48744e-08,0,32768,32768
287.401,-3.47993e-08,0,32768,32768
287.451,-3.47254e-08,0,32768,32768
287.501,-3.46539e-08,0,32768,32768
287.55,-3.45856e-08,0,32768,32768
287.6,-3.45212e-08,0,32768,32768
287.65,-3.44616e-08,0,32768,32768
287.701,-3.44056e-08,0,32768,32768
287.751,-3.43571e-08,0,32768,32768
287.801,-3.43146e-08,0,32768,32768
287.851,-3.42786e-08,0,32768,32768
287.901,-3.42491e-08,0,32768,32768
287.95,-3.42263e-08,0,32768,32768
288,-3.42103e-08,0,32768,32768
288.051,-3.42011e-08,0,32768,32768
288.101,-3.41994e-08,0,32768,32768
288.151,-3.42047e-08,0,32768,32768
288.201,-3.42174e-08,0,32768,32768
288.251,-3.42373e-08,0,32768,32768
288.3,-3.42646e-08,0,32768,32768
288.35,-3.42991e-08,0,32768,32768
288.401,-3.4342e-08,0,32768,32768
288.451,-3.43908e-08,0,32768,32768
288.501,-3.44462e-08,0,32768,32768
288.551,-3.45083e-08,0,32768,32768
288.601,-3.45772e-08,0,32768,32768
288.65,-3.46532e-08,0,32768,32768
288.7,-3.47368e-08,0,32768,32768
288.75,-3.48288e-08,0,32768,32768
288.801,-3.49335e-08,0,32768,32768
288.851,-3.50461e-08,0,32768,32768
288.901,-3.51712e-08,0,32768,32768
288.951,-3.53104e-08,0,32768,32768
289,-3.54655e-08,0,32768,32768
289.05,-3.56385e-08,0,32768,32768
289.1,-3.5831e-08,0,32768,32768
289.151,-3.60514e-08,0,32768,32768
289.201,-3.62883e-08,0,32768,32768
289.251,-3.65487e-08,0,32768,32768
289.301,-3.6833e-08,0,32768,32768
289.351,-3.71411e-08,0,32768,32768
289.4,-3.74723e-08,0,32768,32768
289.45,-3.78252e-08,0,32768,32768
289.501,-3.82086e-08,0,32768,32768
289.551,-3.85978e-08,0,32768,32768
289.601,-3.89997e-08,0,32768,32768
289.651,-3.94101e-08,0,32768,32768
289.701,-3.98245e-08,0,32768,32768
289.75,-4.0238e-08,0,32768,32768
289.8,-4.06462e-08,0,32768,32768
289.851,-4.1056e-08,0,32768,32768
289.901,-4.14397e-08,0,32768,32768
289.951,-4.18055e-08,0,32768,32768
290.001,-4.21494e-08,0,32768,32768
290.051,-4.24681e-08,0,32768,32768
290.1,-4.27579e-08,0,32768,32768
290.15,-4.30156e-08,0,32768,32768
290.201,-4.3244e-08,0,32768,32768
290.251,-4.34271e-08,0,32768,32768
290.301,-4.35698e-08,0,32768,32768
290.351,-4.36702e-08,0,32768,32768
290.401,-4.37274e-08,0,32768,32768
290.45,-4.37408e-08,0,32768,32768
290.5,-4.37106e-08,0,32768,32768
290.55,-4.36372e-08,0,32768,32768
290.601,-4.35171e-08,0,32768,32768
290.651,-4.33581e-08,0,32768,32768
290.701,-4.3158e-08,0,32768,32768
290.751,-4.29173e-08,0,32768,32768
290.8,-4.26361e-08,0,32768,32768
290.85,-4.23143e-08,0,32768,32768
290.9,-4.19518e-08,0,32768,32768
290.951,-4.15354e-08,0,32768,32768
291.001,-4.10885e-08,0,32768,32768
291.051,-4.05993e-08,0,32768,32768
291.101,-4.00675e-08,0,32768,32768
291.151,-3.94931e-08,0,32768,32768
291.2,-3.88764e-08,0,32768,32768
291.25,-3.82181e-08,0,32768,32768
291.301,-3.74984e-08,0,32768,32768
291.351,-3.67607e-08,0,32768,32768
291.401,-3.59879e-08,0,32768,32768
291.451,-3.51841e-08,0,32768,32768
291.501,-3.4354e-08,0,32768,32768
291.55,-3.35032e-08,0,32768,32768
291.6,-3.26374e-08,0,32768,32768
291.651,-3.1737e-08,0,32768,32768
291.701,-3.08595e-08,0,32768,32768
291.751,-2.99851e-08,0,32768,32768
291.801,-2.9119e-08,0,32768,32768
291.851,-2.82663e-08,0,32768,32768
291.9,-2.74317e-08,0,32768,32768
291.95,-2.66195e-08,0,32768,32768
292,-2.58341e-08,0,32768,32768
292.051,-2.50577e-08,0,32768,32768
292.101,-2.43389e-08,0,32768,32768
292.151,-2.36584e-08,0,32768,32768
292.201,-2.30194e-08,0,32768,32768
292.25,-2.24243e-08,0,32768,32768
292.3,-2.18745e-08,0,32768,32768
292.35,-2.13709e-08,0,32768,32768
292.401,-2.09003e-08,0,32768,32768
292.451,-2.04885e-08,0,32768,32768
292.501,-2.01196e-08,0,32768,32768
292.551,-1.97911e-08,0,32768,32768
292.601,-1.95004e-08,0,32768,32768
292.65,-1.92447e-08,0,32768,32768
292.7,-1.9021e-08,0,32768,32768
292.751,-1.8821e-08,0,32768,32768
292.801,-1.8653e-08,0,32768,32768
292.851,-1.8508e-08,0,32768,32768
292.901,-1.8383e-08,0,32768,32768
292.951,-1.82753e-08,0,32768,32768
293,-1.81823e-08,0,32768,32768
293.05,-1.81015e-08,0,32768,32768
293.101,-1.80289e-08,0,32768,32768
293.151,-1.79665e-08,0,32768,32768
293.201,-1.79105e-08,0,32768,32768
293.251,-1.78593e-08,0,32768,32768
293.301,-1.78117e-08,0,32768,32768
293.35,-1.77665e-08,0,32768,32768
293.4,-1.77229e-08,0,32768,32768
293.451,-1.76789e-08,0,32768,32768
293.501,-1.76362e-08,0,32768,32768
293.551,-1.75927e-08,0,32768,32768
293.601,-1.75475e-08,0,32768,32768
293.651,-1.74993e-08,0,32768,32768
293.7,-1.74469e-08,0,32768,32768
293.75,-1.73892e-08,0,32768,32768
293.8,-1.73248e-08,0,32768,32768
293.851,-1.72508e-08,0,32768,32768
293.901,-1.71706e-08,0,32768,32768
293.951,-1.70816e-08,0,32768,32768
294.001,-1.69835e-08,0,32768,32768
294.05,-1.68763e-08,0,32768,32768
294.1,-1.67601e-08,0,32768,32768
294.15,-1.66355e-08,0,32768,32768
294.201,-1.64991e-08,0,32768,32768
294.251,-1.63596e-08,0,32768,32768
294.301,-1.62141e-08,0,32768,32768
294.351,-1.60636e-08,0,32768,32768
294.401,-1.59089e-08,0,32768,32768
294.45,-1.57509e-08,0,32768,32768
294.5,-1.55905e-08,0,32768,32768
294.551,-1.54238e-08,0,32768,32768
294.601,-1.52611e-08,0,32768,32768
294.651,-1.50983e-08,0,32768,32768
294.701,-1.49352e-08,0,32768,32768
294.751,-1.47713e-08,0,32768,32768
294.8,-1.46054e-08,0,32768,32768
294.85,-1.4436e-08,0,32768,32768
294.901,-1.4256e-08,0,32768,32768
294.951,-1.40743e-08,0,32768,32768
295.001,-1.38846e-08,0,32768,32768
295.051,-1.36867e-08,0,32768,32768
295.101,-1.34805e-08,0,32768,32768
295.15,-1.32664e-08,0,32768,32768
295.2,-1.30448e-08,0,32768,32768
295.25,-1.28158e-08,0,32768,32768
295.301,-1.25716e-08,0,32768,32768
295.351,-1.23249e-08,0,32768,32768
295.401,-1.20669e-08,0,32768,32768
295.451,-1.17951e-08,0,32768,32768
295.5,-1.15066e-08,0,32768,32768
295.55,-1.11985e-08,0,32768,32768
295.6,-1.08684e-08,0,32768,32768
295.651,-1.05031e-08,0,32768,32768
295.701,-1.01215e-08,0,32768,32768
295.751,-9.71236e-09,0,32768,32768
295.801,-9.27446e-09,0,32768,32768
295.851,-8.80703e-09,0,32768,32768
295.9,-8.30948e-09,0,32768,32768
295.95,-7.78153e-09,0,32768,32768
296.001,-7.20642e-09,0,32768,32768
296.051,-6.61782e-09,0,32768,32768
296.101,-6.00128e-09,0,32768,32768
296.151,-5.35925e-09,0,32768,32768
296.201,-4.69507e-09,0,32768,32768
296.25,-4.01279e-09,0,32768,32768
296.3,-3.31701e-09,0,32768,32768
296.351,-2.59185e-09,0,32768,32768
296.401,-1.8839e-09,0,32768,32768
296.451,-1.17758e-09,0,32768,32768
296.501,-4.77819e-10,0,32768,32768
296.551,2.10553e-10,0,32768,32768
296.6,8.82895e-10,0,32768,32768
296.65,1.5348e-09,0,32768,32768
296.7,2.16217e-09,0,32768,32768
296.751,2.77836e-09,0,32768,32768
296.801,3.34465e-09,0,32768,32768
296.851,3.87594e-09,0,32768,32768
296.901,4.36943e-09,0,32768,32768
296.95,4.82263e-09,0,32768,32768
297,5.23353e-09,0,32768,32768
297.05,5.60065e-09,0,32768,32768
297.101,5.93206e-09,0,32768,32768
297.151,6.20888e-09,0,32768,32768
297.201,6.4421e-09,0,32768,32768
297.251,6.63331e-09,0,32768,32768
297.301,6.78472e-09,0,32768,32768
297.35,6.89896e-09,0,32768,32768
297.4,6.97897e-09,0,32768,32768
297.451,7.0288e-09,0,32768,32768
297.501,7.04882e-09,0,32768,32768
297.551,7.04404e-09,0,32768,32768
297.601,7.0175e-09,0,32768,32768
297.651,6.97218e-09,0,32768,32768
297.7,6.91091e-09,0,32768,32768
297.75,6.83637e-09,0,32768,32768
297.801,6.74839e-09,0,32768,32768
297.851,6.65433e-09,0,32768,32768
297.901,6.55389e-09,0,32768,32768
297.951,6.44888e-09,0,32768,32768
298.001,6.34092e-09,0,32768,32768
298.05,6.2314e-09,0,32768,32768
298.1,6.1215e-09,0,32768,32768
298.151,6.00903e-09,0,32768,32768
298.201,5.90133e-09,0,32768,32768
298.251,5.79598e-09,0,32768,32768
298.301,5.69378e-09,0,32768,32768
298.351,5.59552e-09,0,32768,32768
298.4,5.50201e-09,0,32768,32768
298.45,5.41404e-09,0,32768,32768
298.5,5.33234e-09,0,32768,32768
298.551,5.25543e-09,0,32768,32768
298.601,5.18816e-09,0,32768,32768
298.651,5.12848e-09,0,32768,32768
298.701,5.07642e-09,0,32768,32768
298.75,5.03177e-09,0,32768,32768
298.8,4.99409e-09,0,32768,32768
298.85,4.96272e-09,0,32768,32768
298.901,4.93609e-09,0,32768,32768
298.951,4.91468e-09,0,32768,32768
299.001,4.8965e-09,0,32768,32768
299.051,4.88034e-09,0,32768,32768
299.101,4.86499e-09,0,32768,32768
299.15,4.84925e-09,0,32768,32768
299.2,4.832e-09,0,32768,32768
299.251,4.81155e-09,0,32768,32768
299.301,4.78814e-09,0,32768,32768
299.351,4.7605e-09,0,32768,32768
299.401,4.7282e-09,0,32768,32768
299.451,4.69114e-09,0,32768,32768
299.5,4.64964e-09,0,32768,32768
299.55,4.60436e-09,0,32768,32768
299.601,4.5548e-09,0,32768,32768
299.651,4.5049e-09,0,32768,32768
299.701,4.45431e-09,0,32768,32768
299.751,4.40385e-09,0,32768,32768
299.801,4.35409e-09,0,32768,32768
299.85,4.30527e-09,0,32768,32768
299.9,4.25743e-09,0,32768,32768
299.95,4.2105e-09,0,32768,32768
300.001,4.16311e-09,0,32768,32768
300.051,4.1181e-09,0,32768,32768
300.101,4.07446e-09,0,32768,32768
300.151,4.03278e-09,0,32768,32768
300.2,3.99375e-09,0,32768,32768
300.25,3.95811e-09,0,32768,32768
300.3,3.92645e-09,0,32768,32768
300.351,3.89841e-09,0,32768,32768
300.401,3.87561e-09,0,32768,32768
300.451,3.85691e-09,0,32768,32768
300.501,3.84178e-09,0,32768,32768
300.551,3.82951e-09,0,32768,32768
300.6,3.81934e-09,0,32768,32768
300.65,3.81055e-09,0,32768,32768
300.701,3.8023e-09,0,32768,32768
300.751,3.79456e-09,0,32768,32768
300.801,3.78669e-09,0,32768,32768
300.851,3.77837e-09,0,32768,32768
300.901,3.76934e-09,0,32768,32768
300.95,3.75936e-09,0,32768,32768
301,3.74825e-09,0,32768,32768
301.051,3.73551e-09,0,32768,32768
301.101,3.72181e-09,0,32768,32768
301.151,3.70684e-09,0,32768,32768
301.201,3.69068e-09,0,32768,32768
301.251,3.67341e-09,0,32768,32768
301.3,3.65512e-09,0,32768,32768
301.35,3.63586e-09,0,32768,32768
301.4,3.61567e-09,0,32768,32768
301.451,3.59397e-09,0,32768,32768
301.501,3.57207e-09,0,32768,32768
301.551,3.54945e-09,0,32768,32768
301.601,3.52622e-09,0,32768,32768
301.65,3.50247e-09,0,32768,32768
301.7,3.47824e-09,0,32768,32768
301.75,3.45355e-09,0,32768,32768
301.801,3.42759e-09,0,32768,32768
301.851,3.40177e-09,0,32768,32768
301.901,3.37527e-09,0,32768,32768
301.951,3.34804e-09,0,32768,32768
302.001,3.32009e-09,0,32768,32768
302.05,3.29144e-09,0,32768,32768
302.1,3.26217e-09,0,32768,32768
302.151,3.2315e-09,0,32768,32768
302.201,3.2013e-09,0,32768,32768
302.251,3.17079e-09,0,32768,32768
302.301,3.14006e-09,0,32768,32768
302.351,3.10919e-09,0,32768,32768
302.4,3.07821e-09,0,32768,32768
302.45,3.04716e-09,0,32768,32768
302.501,3.01515e-09,0,32768,32768
302.551,2.98401e-09,0,32768,32768
302.601,2.95283e-09,0,32768,32768
302.651,2.92161e-09,0,32768,32768
302.701,2.89035e-09,0,32768,32768
302.75,2.85904e-09,0,32768,32768
302.8,2.82767e-09,0,32768,32768
302.851,2.79529e-09,0,32768,32768
302.901,2.76373e-09,0,32768,32768
302.951,2.73204e-09,0,32768,32768
303.001,2.70019e-09,0,32768,32768
303.051,2.66814e-09,0,32768,32768
303.1,2.63585e-09,0,32768,32768
303.15,2.60329e-09,0,32768,32768
303.2,2.57041e-09,0,32768,32768
303.251,2.53618e-09,0,32768,32768
303.301,2.50253e-09,0,32768,32768
303.351,2.46845e-09,0,32768,32768
303.401,2.4339e-09,0,32768,32768
303.45,2.39885e-09,0,32768,32768
303.5,2.36328e-09,0,32768,32768
303.55,2.32717e-09,0,32768,32768
303.601,2.28942e-09,0,32768,32768
303.651,2.25217e-09,0,32768,32768
303.701,2.21435e-09,0,32768,32768
303.751,2.17598e-09,0,32768,32768
303.801,2.13706e-09,0,32768,32768
303.85,2.09761e-09,0,32768,32768
303.9,2.05766e-09,0,32768,32768
303.951,2.01604e-09,0,32768,32768
304.001,1.97517e-09,0,32768,32768
304.051,1.9339e-09,0,32768,32768
304.101,1.89227e-09,0,32768,32768
304.151,1.85034e-09,0,32768,32768
304.2,1.80815e-09,0,32768,32768
304.25,1.76577e-09,0,32768,32768
304.301,1.722e-09,0,32768,32768
304.351,1.6794e-09,0,32768,32768
304.401,1.63678e-09,0,32768,32768
304.451,1.59422e-09,0,32768,32768
304.501,1.55177e-09,0,32768,32768
304.55,1.5095e-09,0,32768,32768
304.6,1.46746e-09,0,32768,32768
304.65,1.42572e-09,0,32768,32768
304.701,1.38312e-09,0,32768,32768
304.751,1.34214e-09,0,32768,32768
304.801,1.30162e-09,0,32768,32768
304.851,1.2616e-09,0,32768,32768
304.9,1.22213e-09,0,32768,32768
304.95,1.18324e-09,0,32768,32768
