250,0,0,2048,2048
250.006,0,0,2048,2048
250.053,0,0,2048,2048
250.105,0,0,2048,2048
250.152,0,0,2048,2048
250.205,0,0,2048,2048
250.252,0,0,2048,2048
250.305,0,0,2048,2048
250.352,0,0,2048,2048
250.404,0,0,2048,2048
250.451,0,0,2048,2048
250.504,0,0,2048,2048
250.551,0,0,2048,2048
250.603,0,0,2048,2048
250.65,0,0,2048,2048
250.703,0,0,2048,2048
250.756,0,0,2048,2048
250.803,0,0,2048,2048
250.855,0,0,2048,2048
250.902,0,0,2048,2048
250.955,0,0,2048,2048
251.002,0,0,2048,2048
251.055,0,0,2048,2048
251.101,0,0,2048,2048
251.154,0,0,2048,2048
251.201,0,0,2048,2048
251.254,0,0,2048,2048
251.301,0,0,2048,2048
251.353,0,0,2048,2048
251.4,0,0,2048,2048
251.453,0,0,2048,2048
251.506,0,0,2048,2048
251.553,0,0,2048,2048
251.605,0,0,2048,2048
251.652,0,0,2048,2048
251.705,0,0,2048,2048
251.752,0,0,2048,2048
251.804,0,0,2048,2048
251.851,0,0,2048,2048
251.904,0,0,2048,2048
251.951,0,0,2048,2048
252.004,0,0,2048,2048
252.05,0,0,2048,2048
252.103,0,0,2048,2048
252.15,0,0,2048,2048
252.203,0,0,2048,2048
252.256,0,0,2048,2048
252.302,0,0,2048,2048
252.355,0,0,2048,2048
252.402,0,0,2048,2048
252.455,0,0,2048,2048
252.502,0,0,2048,2048
252.554,0,0,2048,2048
252.601,0,0,2048,2048
252.654,0,0,2048,2048
252.701,0,0,2048,2048
252.754,0,0,2048,2048
252.8,0,0,2048,2048
252.853,0,0,2048,2048
252.906,0,0,2048,2048
252.953,0,0,2048,2048
253.005,0,0,2048,2048
253.052,0,0,2048,2048
253.105,0,0,2048,2048
253.152,0,0,2048,2048
253.205,0,0,2048,2048
253.251,0,0,2048,2048
253.304,0,0,2048,2048
253.351,0,0,2048,2048
253.404,0,0,2048,2048
253.451,0,0,2048,2048
253.503,0,0,2048,2048
253.55,0,0,2048,2048
253.603,0,0,2048,2048
253.656,0,0,2048,2048
253.703,0,0,2048,2048
253.755,0,0,2048,2048
253.802,0,0,2048,2048
253.855,0,0,2048,2048
253.902,0,0,2048,2048
253.954,0,0,2048,2048
254.001,0,0,2048,2048
254.054,0,0,2048,2048
254.101,0,0,2048,2048
254.154,0,0,2048,2048
254.201,0,0,2048,2048
254.253,0,0,2048,2048
254.3,0,0,2048,2048
254.353,0,0,2048,2048
254.406,0,0,2048,2048
254.452,0,0,2048,2048
254.505,0,0,2048,2048
254.552,0,0,2048,2048
254.605,0,0,2048,2048
254.652,0,0,2048,2048
254.704,0,0,2048,2048
254.751,0,0,2048,2048
254.804,0,0,2048,2048
254.851,0,0,2048,2048
254.904,0,0,2048,2048
254.95,0,0,2048,2048
255.003,0,0,2048,2048
255.05,0,0,2048,2048
255.103,0,0,2048,2048
255.155,0,0,2048,2048
255.202,0,0,2048,2048
255.255,0,0,2048,2048
255.302,0,0,2048,2048
255.355,0,0,2048,2048
255.402,0,0,2048,2048
255.454,0,0,2048,2048
255.501,0,0,2048,2048
255.554,0,0,2048,2048
255.601,0,0,2048,2048
255.653,0,0,2048,2048
255.7,0,0,2048,2048
255.753,0,0,2048,2048
255.806,0,0,2048,2048
255.853,0,0,2048,2048
255.905,0,0,2048,2048
255.952,0,0,2048,2048
256.005,2.77556e-17,0,2048,2048
256.052,2.77556e-17,0,2048,2048
256.105,2.77556e-17,0,2048,2048
256.151,2.77556e-17,0,2048,2048
256.204,0,0,2048,2048
256.251,0,0,2048,2048
256.304,0,0,2048,2048
256.351,2.77556e-17,0,2048,2048
256.403,2.77556e-17,0,2048,2048
256.45,2.77556e-17,0,2048,2048
256.503,2.77556e-17,0,2048,2048
256.556,2.77556e-17,0,2048,2048
256.603,2.77556e-17,0,2048,2048
256.655,2.77556e-17,0,2048,2048
256.702,2.77556e-17,0,2048,2048
256.755,2.77556e-17,0,2048,2048
256.802,2.77556e-17,0,2048,2048
256.854,2.77556e-17,0,2048,2048
256.901,2.77556e-17,0,2048,2048
256.954,2.77556e-17,0,2048,2048
257.001,2.77556e-17,0,2048,2048
257.054,2.77556e-17,0,2048,2048
257.101,0,0,2048,2048
257.153,0,0,2048,2048
257.2,0,0,2048,2048
257.253,0,0,2048,2048
257.306,0,0,2048,2048
257.352,0,0,2048,2048
257.405,0,0,2048,2048
257.452,0,0,2048,2048
257.505,0,0,2048,2048
257.552,0,0,2048,2048
257.604,0,0,2048,2048
257.651,-2.77556e-17,0,2048,2048
257.704,-2.77556e-17,0,2048,2048
257.751,-2.77556e-17,0,2048,2048
257.804,-2.77556e-17,0,2048,2048
257.85,-2.77556e-17,0,2048,2048
257.903,-2.77556e-17,0,2048,2048
257.95,-2.77556e-17,0,2048,2048
258.003,-2.77556e-17,0,2048,2048
258.055,-2.77556e-17,0,2048,2048
258.102,-2.77556e-17,0,2048,2048
258.155,0,0,2048,2048
258.202,0,0,2048,2048
258.255,0,0,2048,2048
258.302,0,0,2048,2048
258.354,0,0,2048,2048
258.401,2.77556e-17,0,2048,2048
258.454,2.77556e-17,0,2048,2048
258.501,2.77556e-17,0,2048,2048
258.553,2.77556e-17,0,2048,2048
258.6,2.77556e-17,0,2048,2048
258.653,2.77556e-17,0,2048,2048
258.706,2.77556e-17,0,2048,2048
258.753,2.77556e-17,0,2048,2048
258.805,2.77556e-17,0,2048,2048
258.852,2.77556e-17,0,2048,2048
258.905,2.77556e-17,0,2048,2048
258.952,2.77556e-17,0,2048,2048
259.005,2.77556e-17,0,2048,2048
259.051,2.77556e-17,0,2048,2048
259.104,2.77556e-17,0,2048,2048
259.151,0,0,2048,2048
259.204,0,0,2048,2048
259.251,0,0,2048,2048
259.303,0,0,2048,2048
259.35,2.77556e-17,0,2048,2048
259.403,2.77556e-17,0,2048,2048
259.456,2.77556e-17,0,2048,2048
259.503,2.77556e-17,0,2048,2048
259.555,0,0,2048,2048
259.602,0,0,2048,2048
259.655,0,0,2048,2048
259.702,0,0,2048,2048
259.754,0,0,2048,2048
259.801,0,0,2048,2048
259.854,-2.77556e-17,0,2048,2048
259.901,-2.77556e-17,0,2048,2048
259.954,-5.55112e-17,0,2048,2048
260,-5.55112e-17,0,2048,2048
260.053,-5.55112e-17,0,2048,2048
260.1,-5.55112e-17,0,2048,2048
260.153,-5.55112e-17,0,2048,2048
260.206,-2.77556e-17,0,2048,2048
260.252,-2.77556e-17,0,2048,2048
260.305,-2.77556e-17,0,2048,2048
260.352,-2.77556e-17,0,2048,2048
260.405,-2.77556e-17,0,2048,2048
260.452,-2.77556e-17,0,2048,2048
260.504,-2.77556e-17,0,2048,2048
260.551,-2.77556e-17,0,2048,2048
260.604,-2.77556e-17,0,2048,2048
260.651,-2.77556e-17,0,2048,2048
260.704,-2.77556e-17,0,2048,2048
260.75,-2.77556e-17,0,2048,2048
260.803,-2.77556e-17,0,2048,2048
260.856,-2.77556e-17,0,2048,2048
260.903,-2.77556e-17,0,2048,2048
260.955,-2.77556e-17,0,2048,2048
261.002,-2.77556e-17,0,2048,2048
261.055,-2.77556e-17,0,2048,2048
261.102,0,0,2048,2048
261.155,0,0,2048,2048
261.201,0,0,2048,2048
261.254,2.77556e-17,0,2048,2048
261.301,2.77556e-17,0,2048,2048
261.354,0,0,2048,2048
261.401,0,0,2048,2048
261.453,0,0,2048,2048
261.5,2.77556e-17,0,2048,2048
261.553,2.77556e-17,0,2048,2048
261.606,2.77556e-17,0,2048,2048
261.653,2.77556e-17,0,2048,2048
261.705,0,0,2048,2048
261.752,0,0,2048,2048
261.805,0,0,2048,2048
261.852,2.77556e-17,0,2048,2048
261.905,2.77556e-17,0,2048,2048
261.951,0,0,2048,2048
262.004,0,0,2048,2048
262.051,-5.55112e-17,0,2048,2048
262.104,-5.55112e-17,0,2048,2048
262.151,-1.11022e-16,0,2048,2048
262.203,-8.32667e-17,0,2048,2048
262.25,-8.32667e-17,0,2048,2048
262.303,-8.32667e-17,0,2048,2048
262.356,-8.32667e-17,0,2048,2048
262.402,-8.32667e-17,0,2048,2048
262.455,-8.32667e-17,0,2048,2048
262.502,-5.55112e-17,0,2048,2048
262.555,-5.55112e-17,0,2048,2048
262.602,-5.55112e-17,0,2048,2048
262.654,-5.55112e-17,0,2048,2048
262.701,-5.55112e-17,0,2048,2048
262.754,-8.32667e-17,0,2048,2048
262.801,-8.32667e-17,0,2048,2048
262.854,-8.32667e-17,0,2048,2048
262.9,-8.32667e-17,0,2048,2048
262.953,-8.32667e-17,0,2048,2048
263,-8.32667e-17,0,2048,2048
263.053,-8.32667e-17,0,2048,2048
263.105,-8.32667e-17,0,2048,2048
263.152,-8.32667e-17,0,2048,2048
263.205,-8.32667e-17,0,2048,2048
263.252,-8.32667e-17,0,2048,2048
263.305,-8.32667e-17,0,2048,2048
263.352,-8.32667e-17,0,2048,2048
263.404,-8.32667e-17,0,2048,2048
263.451,-8.32667e-17,0,2048,2048
263.504,-8.32667e-17,0,2048,2048
263.551,-8.32667e-17,0,2048,2048
263.603,-8.32667e-17,0,2048,2048
263.65,-8.32667e-17,0,2048,2048
263.703,-8.32667e-17,0,2048,2048
263.756,-5.55112e-17,0,2048,2048
263.803,-5.55112e-17,0,2048,2048
263.855,-5.55112e-17,0,2048,2048
263.902,-5.55112e-17,0,2048,2048
263.955,-5.55112e-17,0,2048,2048
264.002,-5.55112e-17,0,2048,2048
264.055,-5.55112e-17,0,2048,2048
264.101,-5.55112e-17,0,2048,2048
264.154,-5.55112e-17,0,2048,2048
264.201,-5.55112e-17,0,2048,2048
264.254,-5.55112e-17,0,2048,2048
264.301,-5.55112e-17,0,2048,2048
264.353,-5.55112e-17,0,2048,2048
264.4,-5.55112e-17,0,2048,2048
264.453,-5.55112e-17,0,2048,2048
264.506,-5.55112e-17,0,2048,2048
264.553,-5.55112e-17,0,2048,2048
264.605,-5.55112e-17,0,2048,2048
264.652,-5.55112e-17,0,2048,2048
264.705,-5.55112e-17,0,2048,2048
264.752,-5.55112e-17,0,2048,2048
264.804,-5.55112e-17,0,2048,2048
264.851,-5.55112e-17,0,2048,2048
264.904,-5.55112e-17,0,2048,2048
264.951,-5.55112e-17,0,2048,2048
265.004,0,0,2048,2048
265.051,0,0,2048,2048
265.103,0,0,2048,2048
265.15,0,0,2048,2048
265.203,0,0,2048,2048
265.256,0,0,2048,2048
265.302,0,0,2048,2048
265.355,0,0,2048,2048
265.402,2.77556e-17,0,2048,2048
265.455,2.77556e-17,0,2048,2048
265.502,2.77556e-17,0,2048,2048
265.554,2.77556e-17,0,2048,2048
265.601,2.77556e-17,0,2048,2048
265.654,2.77556e-17,0,2048,2048
265.701,0,0,2048,2048
265.754,0,0,2048,2048
265.8,0,0,2048,2048
265.853,2.77556e-17,0,2048,2048
265.9,2.77556e-17,0,2048,2048
265.953,2.77556e-17,0,2048,2048
266.005,2.77556e-17,0,2048,2048
266.052,5.55112e-17,0,2048,2048
266.105,2.77556e-17,0,2048,2048
266.152,2.77556e-17,0,2048,2048
266.205,5.55112e-17,0,2048,2048
266.252,5.55112e-17,0,2048,2048
266.304,5.55112e-17,0,2048,2048
266.351,5.55112e-17,0,2048,2048
266.404,5.55112e-17,0,2048,2048
266.451,5.55112e-17,0,2048,2048
266.503,5.55112e-17,0,2048,2048
266.55,5.55112e-17,0,2048,2048
266.603,5.55112e-17,0,2048,2048
266.656,5.55112e-17,0,2048,2048
266.703,5.55112e-17,0,2048,2048
266.755,5.55112e-17,0,2048,2048
266.802,5.55112e-17,0,2048,2048
266.855,5.55112e-17,0,2048,2048
266.902,5.55112e-17,0,2048,2048
266.955,5.55112e-17,0,2048,2048
267.001,5.55112e-17,0,2048,2048
267.054,5.55112e-17,0,2048,2048
267.101,5.55112e-17,0,2048,2048
267.154,5.55112e-17,0,2048,2048
267.201,5.55112e-17,0,2048,2048
267.253,5.55112e-17,0,2048,2048
267.3,5.55112e-17,0,2048,2048
267.353,5.55112e-17,0,2048,2048
267.406,5.55112e-17,0,2048,2048
267.453,5.55112e-17,0,2048,2048
267.505,5.55112e-17,0,2048,2048
267.552,5.55112e-17,0,2048,2048
267.605,5.55112e-17,0,2048,2048
267.652,2.77556e-17,0,2048,2048
267.704,2.77556e-17,0,2048,2048
267.751,2.77556e-17,0,2048,2048
267.804,2.77556e-17,0,2048,2048
267.851,5.55112e-17,0,2048,2048
267.904,2.77556e-17,0,2048,2048
267.95,2.77556e-17,0,2048,2048
268.003,5.55112e-17,0,2048,2048
268.05,2.77556e-17,0,2048,2048
268.102,2.77556e-17,0,2054,2054
268.153,2.77556e-17,0,2048,2048
268.206,5.55112e-17,0,2048,2048
268.253,2.77556e-17,0,2048,2048
268.305,2.77556e-17,0,2048,2048
268.352,2.77556e-17,0,2048,2048
268.405,2.77556e-17,0,2048,2048
268.452,2.77556e-17,0,2048,2048
268.504,2.77556e-17,0,2048,2048
268.551,2.77556e-17,0,2048,2048
268.604,2.77556e-17,0,2048,2048
268.651,2.77556e-17,0,2048,2048
268.704,2.77556e-17,0,2048,2048
268.751,2.77556e-17,0,2048,2048
268.803,2.77556e-17,0,2048,2048
268.85,2.77556e-17,0,2048,2048
268.903,2.77556e-17,0,2048,2048
268.956,2.77556e-17,0,2048,2048
269.002,2.77556e-17,0,2048,2048
269.055,2.77556e-17,0,2048,2048
269.102,2.77556e-17,0,2048,2048
269.155,2.77556e-17,0,2048,2048
269.202,0,0,2048,2048
269.254,0,0,2048,2048
269.301,0,0,2048,2048
269.354,2.77556e-17,0,2048,2048
269.401,2.77556e-17,0,2048,2048
269.454,2.77556e-17,0,2048,2048
269.5,2.77556e-17,0,2048,2048
269.553,0,0,2048,2048
269.604,0,0,2050,2050
269.654,0,0,2050,2050
269.703,0,0,2050,2050
269.751,0,0,2086,2086
269.801,0,0,2114,2114
269.85,0,0,2146,2146
269.9,0,0,2182,2182
269.953,0,0,2218,2218
270.003,0,0,2258,2258
270.052,0,0,2310,2310
270.102,0,0,2338,2338
270.152,0,0,2370,2370
270.202,0,0,2422,2422
270.252,0,0,2442,2442
270.301,0,0,2478,2478
270.351,0,0,2522,2522
270.401,0,0,2554,2554
270.451,0,0,2598,2598
270.501,0,0,2638,2638
270.55,0,0,2670,2670
270.6,0,0,2718,2718
270.65,0,0,2738,2738
270.703,0,0,2774,2774
270.753,0,0,2818,2818
270.802,0,0,2854,2854
270.852,0,0,2902,2902
270.902,0,0,2938,2938
270.952,0,0,2986,2986
271.002,0,0,3022,3022
271.051,0,0,3070,3070
271.101,0,0,3106,3106
271.151,0,0,3154,3154
271.201,0,0,3190,3190
271.25,0,0,3238,3238
271.3,0,0,3274,3274
271.35,0,0,3322,3322
271.403,0,0,3362,3362
271.453,0,0,3406,3406
271.502,0,0,3442,3442
271.552,0,0,3472,3472
271.602,0,0,3494,3494
271.652,0,0,3550,3550
271.702,0,0,3578,3578
271.751,0,0,3626,3626
271.801,0,0,3654,3654
271.851,0,0,3702,3702
271.901,0,0,3746,3746
271.951,0,0,3786,3786
272,0,0,3830,3830
272.05,0,0,3862,3862
272.103,0,0,3906,3906
272.153,0,0,3946,3946
272.203,-1.11022e-16,0,3990,3990
272.252,-5.27356e-16,0,4026,4026
272.302,-1.30451e-15,0,4074,4074
272.352,-5.21805e-15,0,4110,4110
272.402,-2.24265e-14,0,4146,4146
272.451,-8.5626e-14,0,4194,4194
272.501,-2.86743e-13,0,4230,4230
272.551,-8.46517e-13,0,4266,4266
272.601,-2.21789e-12,0,4314,4314
272.651,-5.1894e-12,0,4350,4350
272.7,-1.08998e-11,0,4386,4386
272.75,-2.06393e-11,0,4426,4426
272.8,-3.53527e-11,0,4470,4470
272.853,-5.61894e-11,0,4514,4514
272.903,-7.88405e-11,0,4550,4550
272.952,-1.00528e-10,0,4582,4582
273.002,-1.1634e-10,0,4626,4626
273.052,-1.21747e-10,0,4662,4662
273.102,-1.1425e-10,0,4698,4698
273.152,-9.44063e-11,0,4734,4734
273.201,-6.56544e-11,0,4778,4778
273.251,-3.30115e-11,0,4818,4818
273.301,-1.30335e-12,0,4858,4858
273.351,2.62038e-11,0,4890,4890
273.401,4.82255e-11,0,4930,4930
273.45,6.49939e-11,0,4962,4962
273.5,7.74232e-11,0,4980,4980
273.553,8.69115e-11,0,5006,5006
273.603,9.32283e-11,0,5002,5002
273.652,9.76978e-11,0,5008,5008
273.702,1.01028e-10,0,5008,5008
273.752,1.03829e-10,0,5008,5008
273.802,1.06429e-10,0,5000,5000
273.852,1.08819e-10,0,5004,5004
273.901,1.10808e-10,0,4996,4996
273.951,1.12288e-10,0,5000,5000
274.001,1.13397e-10,0,5020,5020
274.051,1.14453e-10,0,5044,5044
274.101,1.1573e-10,0,5044,5044
274.15,1.17292e-10,0,5040,5040
274.2,1.18994e-10,0,5044,5044
274.25,1.20574e-10,0,5040,5040
274.303,1.21702e-10,0,5036,5036
274.353,1.21746e-10,0,5028,5028
274.402,1.20738e-10,0,5012,5012
274.452,1.20949e-10,0,5004,5004
274.502,1.30612e-10,0,4996,4996
274.552,1.68583e-10,0,4992,4992
274.602,2.68037e-10,0,4972,4972
274.651,4.76743e-10,0,4976,4976
274.701,8.51891e-10,0,4964,4964
274.751,1.45038e-09,0,4944,4944
274.801,2.33209e-09,0,4920,4920
274.851,5.85908e-09,0,4860,4860
274.9,1.05884e-08,0,4860,4860
274.95,1.57863e-08,0,4840,4840
275.003,2.11329e-08,0,4820,4820
275.053,2.56446e-08,0,4812,4812
275.102,2.965e-08,0,4796,4796
275.152,3.35761e-08,0,4780,4780
275.202,3.81693e-08,0,4788,4788
275.252,4.42138e-08,0,4776,4776
275.302,5.22874e-08,0,4784,4784
275.353,6.27472e-08,0,4780,4780
275.4,7.50192e-08,0,4760,4760
275.451,9.10065e-08,0,4772,4772
275.502,1.10701e-07,0,4736,4736
275.553,1.35014e-07,0,4728,4728
275.601,1.62895e-07,0,4732,4732
275.652,1.98391e-07,0,4716,4716
275.701,2.37284e-07,0,4704,4704
275.752,2.8388e-07,0,4696,4696
275.801,3.31783e-07,0,4680,4680
275.853,3.86144e-07,0,4692,4692
275.902,4.40035e-07,0,4672,4672
275.951,4.9635e-07,0,4672,4672
276.001,5.54731e-07,0,4660,4660
276.05,6.14147e-07,0,4656,4656
276.103,6.7632e-07,0,4648,4648
276.153,7.31344e-07,0,4648,4648
276.203,7.80367e-07,0,4628,4628
276.253,8.21429e-07,0,4624,4624
276.3,8.51792e-07,0,4628,4628
276.351,8.75541e-07,0,4616,4616
276.401,8.91208e-07,0,4604,4604
276.452,9.00068e-07,0,4620,4620
276.5,9.03268e-07,0,4596,4596
276.551,9.03209e-07,0,4612,4612
276.603,8.98507e-07,0,4596,4596
276.651,8.88584e-07,0,4580,4580
276.703,8.72398e-07,0,4576,4576
276.752,8.51269e-07,0,4572,4572
276.8,8.23633e-07,0,4576,4576
276.853,7.86664e-07,0,4572,4572
276.902,7.45307e-07,0,4560,4560
276.951,6.98537e-07,0,4564,4564
277.001,6.48028e-07,0,4556,4556
277.05,5.95774e-07,0,4560,4560
277.1,5.43672e-07,0,4548,4548
277.15,4.93268e-07,0,4540,4540
277.2,4.45491e-07,0,4548,4548
277.251,4.00798e-07,0,4556,4556
277.301,3.5912e-07,0,4544,4544
277.352,3.20194e-07,0,4552,4552
277.402,2.83738e-07,0,4564,4564
277.453,2.49634e-07,0,4572,4572
277.501,2.20189e-07,0,4596,4596
277.552,1.91686e-07,0,4592,4592
277.603,1.66825e-07,0,4600,4600
277.651,1.47088e-07,0,4588,4588
277.703,1.29116e-07,0,4596,4596
277.752,1.14422e-07,0,4600,4600
277.8,1.00855e-07,0,4600,4600
277.853,8.69958e-08,0,4580,4580
277.902,7.48441e-08,0,4568,4568
277.951,6.3953e-08,0,4552,4552
278.001,5.47857e-08,0,4544,4544
278.051,4.74504e-08,0,4528,4528
278.101,4.15885e-08,0,4516,4516
278.151,3.6502e-08,0,4504,4504
278.201,3.14993e-08,0,4500,4500
278.252,2.62293e-08,0,4484,4484
278.303,2.08439e-08,0,4458,4458
278.35,1.62406e-08,0,4414,4414
278.401,1.22995e-08,0,4390,4390
278.453,9.72363e-09,0,4350,4350
278.501,8.49443e-09,0,4302,4302
278.553,7.95306e-09,0,4282,4282
278.601,7.7639e-09,0,4234,4234
278.653,7.82335e-09,0,4206,4206
278.701,7.88676e-09,0,4182,4182
278.753,7.93342e-09,0,4142,4142
278.802,7.95611e-09,0,4102,4102
278.851,7.93955e-09,0,4074,4074
278.903,7.87714e-09,0,4046,4046
278.952,7.79306e-09,0,4002,4002
279.001,7.68996e-09,0,3986,3986
279.053,7.57292e-09,0,3958,3958
279.102,7.47155e-09,0,3918,3918
279.151,7.38745e-09,0,3890,3890
279.2,7.3234e-09,0,3866,3866
279.253,7.27622e-09,0,3830,3830
279.303,7.25023e-09,0,3794,3794
279.352,7.23872e-09,0,3758,3758
279.401,7.2383e-09,0,3722,3722
279.451,7.24504e-09,0,3686,3686
279.5,7.25658e-09,0,3650,3650
279.554,7.27231e-09,0,3606,3606
279.603,7.288e-09,0,3578,3578
279.653,7.30383e-09,0,3538,3538
279.703,7.32013e-09,0,3486,3486
279.753,7.33721e-09,0,3438,3438
279.803,7.35481e-09,0,3394,3394
279.853,7.37262e-09,0,3390,3390
279.903,7.39087e-09,0,3442,3442
279.953,7.41092e-09,0,3486,3486
280.003,7.43478e-09,0,3502,3502
280.053,7.46471e-09,0,3514,3514
280.102,7.50326e-09,0,3498,3498
280.152,7.55336e-09,0,3550,3550
280.201,7.61797e-09,0,3638,3638
280.251,7.69972e-09,0,3666,3666
280.3,7.80082e-09,0,3694,3694
280.353,7.93349e-09,0,3750,3750
280.403,8.08087e-09,0,3778,3778
280.452,8.25413e-09,0,3806,3806
280.501,8.45693e-09,0,3846,3846
280.554,8.71422e-09,0,3874,3874
280.603,8.99623e-09,0,3902,3902
280.652,9.32795e-09,0,3942,3942
280.7,9.71908e-09,0,3970,3970
280.753,1.02196e-08,0,4006,4006
280.802,1.07707e-08,0,4038,4038
280.85,1.14156e-08,0,4066,4066
280.903,1.22183e-08,0,4110,4110
280.951,1.3054e-08,0,4138,4138
281.003,1.40274e-08,0,4162,4162
281.052,1.4974e-08,0,4206,4206
281.104,1.60735e-08,0,4234,4234
281.152,1.80846e-08,0,4262,4262
281.203,2.00581e-08,0,4302,4302
281.251,2.19345e-08,0,4330,4330
281.303,2.40474e-08,0,4378,4378
281.354,2.68489e-08,0,4402,4402
281.401,2.96272e-08,0,4426,4426
281.452,3.27457e-08,0,4470,4470
281.502,3.6044e-08,0,4498,4498
281.552,3.95283e-08,0,4538,4538
281.602,4.31884e-08,0,4570,4570
281.652,4.69869e-08,0,4598,4598
281.702,5.09018e-08,0,4638,4638
281.752,5.49283e-08,0,4666,4666
281.801,5.9058e-08,0,4706,4706
281.85,6.32809e-08,0,4738,4738
281.903,6.79243e-08,0,4774,4774
281.951,7.23886e-08,0,4786,4786
282,7.70165e-08,0,4764,4764
282.052,8.22485e-08,0,4874,4874
282.1,8.75029e-08,0,4902,4902
282.152,9.35971e-08,0,4954,4954
282.203,1.00167e-07,0,4982,4982
282.251,1.06654e-07,0,5002,5002
282.302,1.13896e-07,0,5022,5022
282.353,1.21366e-07,0,5054,5054
282.403,1.29064e-07,0,5082,5082
282.45,1.36513e-07,0,5102,5102
282.501,1.44956e-07,0,5138,5138
282.551,1.54148e-07,0,5174,5174
282.601,1.64457e-07,0,5202,5202
282.65,1.76268e-07,0,5238,5238
282.703,1.90972e-07,0,5266,5266
282.753,2.07127e-07,0,5298,5298
282.802,2.25947e-07,0,5334,5334
282.851,2.47744e-07,0,5362,5362
282.903,2.74539e-07,0,5398,5398
282.952,3.0311e-07,0,5434,5434
283,3.34993e-07,0,5470,5470
283.052,3.72494e-07,0,5502,5502
283.103,4.13218e-07,0,5550,5550
283.151,4.53868e-07,0,5574,5574
283.202,4.99227e-07,0,5614,5614
283.253,5.45848e-07,0,5650,5650
283.301,5.89842e-07,0,5690,5690
283.351,6.36019e-07,0,5714,5714
283.402,6.80287e-07,0,5708,5708
283.452,7.21422e-07,0,5700,5700
283.502,7.58284e-07,0,5708,5708
283.552,7.89905e-07,0,5736,5736
283.601,8.15538e-07,0,5748,5748
283.651,8.34759e-07,0,5760,5760
283.7,8.47433e-07,0,5796,5796
283.753,8.53846e-07,0,5808,5808
283.802,8.53533e-07,0,5816,5816
283.851,8.47398e-07,0,5836,5836
283.902,8.34845e-07,0,5856,5856
283.951,8.1761e-07,0,5864,5864
284.002,7.93747e-07,0,5876,5876
284.051,7.66245e-07,0,5896,5896
284.102,7.31907e-07,0,5908,5908
284.153,6.92652e-07,0,5920,5920
284.201,6.51706e-07,0,5924,5924
284.251,6.04654e-07,0,5936,5936
284.302,5.54851e-07,0,5956,5956
284.352,5.03326e-07,0,5980,5980
284.402,4.51182e-07,0,5996,5996
284.452,3.99439e-07,0,5996,5996
284.502,3.49003e-07,0,6020,6020
284.552,3.00538e-07,0,6036,6036
284.602,2.54536e-07,0,6036,6036
284.651,2.11391e-07,0,6040,6040
284.701,1.71358e-07,0,6068,6068
284.751,1.34588e-07,0,6056,6056
284.801,1.01156e-07,0,6064,6064
284.851,7.10754e-08,0,6052,6052
284.9,4.42982e-08,0,6060,6060
284.95,2.07145e-08,0,6068,6068
285.003,-9.68735e-10,0,6060,6060
285.053,-1.85771e-08,0,6044,6044
285.102,-3.36529e-08,0,6044,6044
285.152,-4.64463e-08,0,6036,6036
285.202,-5.71864e-08,0,6044,6044
285.252,-6.60733e-08,0,6060,6060
285.302,-7.32798e-08,0,6080,6080
285.351,-7.89606e-08,0,6096,6096
285.401,-8.32623e-08,0,6108,6108
285.451,-8.63272e-08,0,6120,6120
285.501,-8.82954e-08,0,6116,6116
285.551,-8.92763e-08,0,6144,6144
285.6,-8.9141e-08,0,6164,6164
285.65,-8.86997e-08,0,6168,6168
285.7,-8.79939e-08,0,6188,6188
285.753,-8.70324e-08,0,6192,6192
285.803,-8.5543e-08,0,6224,6224
285.852,-8.2218e-08,0,6220,6220
285.902,-7.86316e-08,0,6256,6256
285.952,-7.49341e-08,0,6268,6268
286.002,-7.11315e-08,0,6272,6272
286.052,-6.72564e-08,0,6280,6280
286.101,-6.34107e-08,0,6300,6300
286.151,-5.96771e-08,0,6324,6324
286.201,-5.61036e-08,0,6294,6294
286.251,-5.27355e-08,0,6258,6258
286.301,-4.96078e-08,0,6226,6226
286.35,-4.67331e-08,0,6186,6186
286.4,-4.41133e-08,0,6154,6154
286.453,-4.16184e-08,0,6114,6114
286.503,-3.9521e-08,0,6098,6098
286.552,-3.76658e-08,0,6042,6042
286.602,-3.6039e-08,0,6022,6022
286.652,-3.46199e-08,0,5978,5978
286.702,-3.33787e-08,0,5954,5954
286.752,-3.22951e-08,0,5918,5918
286.801,-3.13864e-08,0,5890,5890
286.851,-3.06889e-08,0,5846,5846
286.901,-3.01914e-08,0,5818,5818
286.951,-2.97966e-08,0,5782,5782
287.001,-2.96446e-08,0,5754,5754
287.05,-2.95267e-08,0,5714,5714
287.1,-2.94406e-08,0,5678,5678
287.15,-2.93915e-08,0,5634,5634
287.203,-2.93858e-08,0,5606,5606
287.253,-2.94185e-08,0,5578,5578
287.302,-2.94838e-08,0,5542,5542
287.352,-2.95795e-08,0,5510,5510
287.402,-2.96993e-08,0,5466,5466
287.452,-2.98379e-08,0,5438,5438
287.502,-2.99906e-08,0,5394,5394
287.551,-3.01523e-08,0,5354,5354
287.601,-3.03182e-08,0,5330,5330
287.651,-3.04847e-08,0,5310,5310
287.701,-3.06488e-08,0,5278,5278
287.751,-3.08069e-08,0,5254,5254
287.8,-3.09566e-08,0,5234,5234
287.85,-3.10957e-08,0,5206,5206
287.903,-3.12291e-08,0,5162,5162
287.953,-3.13401e-08,0,5118,5118
288.002,-3.14354e-08,0,5106,5106
288.052,-3.15142e-08,0,5058,5058
288.102,-3.15764e-08,0,5034,5034
288.152,-3.16215e-08,0,4998,4998
288.202,-3.16499e-08,0,4958,4958
288.251,-3.16619e-08,0,4922,4922
288.301,-3.16584e-08,0,4890,4890
288.351,-3.16402e-08,0,4854,4854
288.401,-3.16082e-08,0,4838,4838
288.451,-3.15636e-08,0,4826,4826
288.5,-3.15075e-08,0,4810,4810
288.55,-3.14411e-08,0,4802,4802
288.6,-3.13656e-08,0,4818,4818
288.653,-3.12768e-08,0,4810,4810
288.703,-3.11856e-08,0,4818,4818
288.752,-3.10882e-08,0,4810,4810
288.802,-3.09857e-08,0,4806,4806
288.852,-3.08786e-08,0,4806,4806
288.902,-3.07675e-08,0,4810,4810
288.952,-3.0653e-08,0,4806,4806
289.001,-3.05355e-08,0,4806,4806
289.051,-3.04152e-08,0,4502,4502
289.101,-3.02925e-08,0,4430,4430
289.151,-3.01672e-08,0,4406,4406
289.201,-3.00391e-08,0,4310,4310
289.25,-2.99077e-08,0,4202,4202
289.3,-2.97724e-08,0,4138,4138
289.353,-2.96236e-08,0,4070,4070
289.403,-2.94766e-08,0,4030,4030
289.452,-2.93216e-08,0,3966,3966
289.502,-2.91569e-08,0,3906,3906
289.552,-2.89804e-08,0,3870,3870
289.602,-2.87901e-08,0,3830,3830
289.652,-2.85839e-08,0,3770,3770
289.701,-2.83595e-08,0,3718,3718
289.751,-2.81151e-08,0,3694,3694
289.801,-2.78493e-08,0,3634,3634
289.851,-2.7561e-08,0,3606,3606
289.901,-2.72501e-08,0,3542,3542
289.95,-2.69169e-08,0,3502,3502
290,-2.65622e-08,0,3438,3438
290.053,-2.61651e-08,0,3386,3386
290.103,-2.57723e-08,0,3342,3342
290.153,-2.53655e-08,0,3290,3290
290.202,-2.49484e-08,0,3254,3254
290.252,-2.45256e-08,0,3202,3202
290.302,-2.41014e-08,0,3162,3162
290.352,-2.36807e-08,0,3130,3130
290.401,-2.32685e-08,0,3082,3082
290.451,-2.28702e-08,0,3046,3046
290.501,-2.24913e-08,0,3002,3002
290.551,-2.21368e-08,0,2988,2988
290.601,-2.1811e-08,0,2980,2980
290.65,-2.15174e-08,0,2984,2984
290.7,-2.12585e-08,0,2980,2980
290.75,-2.10363e-08,0,2992,2992
290.803,-2.08426e-08,0,2982,2982
290.853,-2.06992e-08,0,2942,2942
290.902,-2.05944e-08,0,2902,2902
290.952,-2.05284e-08,0,2858,2858
291.002,-2.05018e-08,0,2814,2814
291.052,-2.05144e-08,0,2766,2766
291.102,-2.0564e-08,0,2718,2718
291.151,-2.06467e-08,0,2686,2686
291.201,-2.07573e-08,0,2642,2642
291.251,-2.08907e-08,0,2594,2594
291.301,-2.10418e-08,0,2558,2558
291.351,-2.12053e-08,0,2518,2518
291.4,-2.13765e-08,0,2474,2474
291.45,-2.15512e-08,0,2426,2426
291.503,-2.17356e-08,0,2390,2390
291.553,-2.19054e-08,0,2334,2334
291.602,-2.20677e-08,0,2298,2298
291.652,-2.22197e-08,0,2250,2250
291.702,-2.23587e-08,0,2202,2202
291.752,-2.24826e-08,0,2166,2166
291.802,-2.25899e-08,0,2130,2130
291.851,-2.26792e-08,0,2082,2082
291.901,-2.27492e-08,0,2050,2050
291.95,-2.2801e-08,0,2048,2048
292.003,-2.28359e-08,0,2048,2048
292.056,-2.28498e-08,0,2048,2048
292.102,-2.28451e-08,0,2048,2048
292.155,-2.28215e-08,0,2048,2048
292.202,-2.27852e-08,0,2048,2048
292.255,-2.27278e-08,0,2048,2048
292.302,-2.26632e-08,0,2048,2048
292.354,-2.25762e-08,0,2048,2048
292.401,-2.24869e-08,0,2048,2048
292.454,-2.23739e-08,0,2048,2048
292.501,-2.22632e-08,0,2048,2048
292.553,-2.2128e-08,0,2048,2048
292.6,-2.19993e-08,0,2048,2048
292.653,-2.1846e-08,0,2048,2048
292.706,-2.16852e-08,0,2048,2048
292.753,-2.15373e-08,0,2048,2048
292.805,-2.13668e-08,0,2048,2048
292.852,-2.12133e-08,0,2048,2048
292.905,-2.10401e-08,0,2048,2048
292.952,-2.08876e-08,0,2048,2048
293.005,-2.07195e-08,0,2048,2048
293.051,-2.05749e-08,0,2048,2048
293.104,-2.04195e-08,0,2048,2048
293.151,-2.02892e-08,0,2048,2048
293.204,-2.01528e-08,0,2048,2048
293.251,-2.00416e-08,0,2048,2048
293.303,-1.99285e-08,0,2048,2048
293.35,-1.98387e-08,0,2048,2048
293.403,-1.97498e-08,0,2048,2048
293.456,-1.96728e-08,0,2048,2048
293.503,-1.96137e-08,0,2048,2048
293.555,-1.95562e-08,0,2048,2048
293.602,-1.9512e-08,0,2048,2048
293.655,-1.94686e-08,0,2086,2086
293.702,-1.94344e-08,0,2098,2098
293.754,-1.93994e-08,0,2106,2106
293.801,-1.93703e-08,0,2114,2114
293.854,-1.93388e-08,0,2126,2126
293.901,-1.93109e-08,0,2130,2130
293.954,-1.92785e-08,0,2130,2130
294.001,-1.92478e-08,0,2130,2130
294.053,-1.92103e-08,0,2130,2130
294.1,-1.91732e-08,0,2130,2130
294.153,-1.91263e-08,0,2130,2130
294.206,-1.9073e-08,0,2130,2130
294.252,-1.90195e-08,0,2130,2130
294.305,-1.89521e-08,0,2130,2130
294.352,-1.88854e-08,0,2130,2130
294.405,-1.88031e-08,0,2130,2130
294.452,-1.87235e-08,0,2130,2130
294.504,-1.86274e-08,0,2130,2130
294.551,-1.85368e-08,0,2130,2130
294.604,-1.84298e-08,0,2130,2130
294.651,-1.83308e-08,0,2130,2130
294.704,-1.8216e-08,0,2130,2130
294.75,-1.81115e-08,0,2130,2130
294.803,-1.79917e-08,0,2130,2130
294.85,-1.78838e-08,0,2130,2130
294.903,-1.77611e-08,0,2130,2130
294.955,-1.76373e-08,0,2130,2130
295.002,-1.75264e-08,0,2130,2130
295.055,-1.74007e-08,0,2124,2124
295.102,-1.72881e-08,0,2100,2100
295.155,-1.71601e-08,0,2084,2084
295.202,-1.7045e-08,0,2076,2076
295.254,-1.69137e-08,0,2068,2068
295.301,-1.67951e-08,0,2056,2056
295.354,-1.66592e-08,0,2048,2048
295.401,-1.65359e-08,0,2048,2048
295.453,-1.63942e-08,0,2048,2048
295.5,-1.62653e-08,0,2048,2048
295.553,-1.61166e-08,0,2048,2048
295.606,-1.59636e-08,0,2048,2048
295.653,-1.58238e-08,0,2048,2048
295.705,-1.5662e-08,0,2048,2048
295.752,-1.5514e-08,0,2048,2048
295.805,-1.53426e-08,0,2048,2048
295.852,-1.51859e-08,0,2048,2048
295.905,-1.50047e-08,0,2048,2048
295.951,-1.48391e-08,0,2048,2048
296.004,-1.46475e-08,0,2048,2048
296.051,-1.44722e-08,0,2048,2048
296.104,-1.42693e-08,0,2048,2048
296.151,-1.40834e-08,0,2048,2048
296.203,-1.3868e-08,0,2048,2048
296.25,-1.36705e-08,0,2048,2048
296.303,-1.34412e-08,0,2048,2048
296.356,-1.32038e-08,0,2048,2048
296.403,-1.29856e-08,0,2048,2048
296.455,-1.27313e-08,0,2048,2048
296.502,-1.2497e-08,0,2048,2048
296.555,-1.22231e-08,0,2048,2048
296.602,-1.19699e-08,0,2048,2048
296.654,-1.16729e-08,0,2048,2048
296.701,-1.13975e-08,0,2048,2048
296.754,-1.10737e-08,0,2048,2048
296.801,-1.07725e-08,0,2048,2048
296.854,-1.04173e-08,0,2048,2048
296.901,-1.0086e-08,0,2048,2048
296.953,-9.69458e-09,0,2048,2048
297,-9.32914e-09,0,2048,2048
297.053,-8.89759e-09,0,2048,2048
297.106,-8.44398e-09,0,2048,2048
297.152,-8.02211e-09,0,2048,2048
297.205,-7.5265e-09,0,2048,2048
297.252,-7.06737e-09,0,2048,2048
297.305,-6.53026e-09,0,2048,2048
297.352,-6.03502e-09,0,2048,2048
297.404,-5.45893e-09,0,2048,2048
297.451,-4.93141e-09,0,2048,2048
297.504,-4.32285e-09,0,2048,2048
297.551,-3.77091e-09,0,2048,2048
297.604,-3.14092e-09,0,2048,2048
297.65,-2.57598e-09,0,2048,2048
297.703,-1.93872e-09,0,2048,2048
297.75,-1.37416e-09,0,2048,2048
297.803,-7.45173e-10,0,2048,2048
297.855,-1.26928e-10,0,2048,2048
297.902,4.10109e-10,0,2048,2048
297.955,9.96376e-10,0,2048,2048
298.002,1.49846e-09,0,2048,2048
298.055,2.03847e-09,0,2048,2048
298.102,2.49373e-09,0,2048,2048
298.154,2.97535e-09,0,2048,2048
298.201,3.37437e-09,0,2048,2048
298.254,3.78872e-09,0,2048,2048
298.301,4.12506e-09,0,2048,2048
298.353,4.46632e-09,0,2048,2048
298.4,4.73597e-09,0,2048,2048
298.453,5.00107e-09,0,2048,2048
298.506,5.22597e-09,0,2048,2048
298.553,5.39301e-09,0,2048,2048
298.605,5.54562e-09,0,2048,2048
298.652,5.65169e-09,0,2048,2048
298.705,5.74014e-09,0,2048,2048
298.752,5.79344e-09,0,2048,2048
298.805,5.8274e-09,0,2048,2048
298.851,5.83657e-09,0,2048,2048
298.904,5.82566e-09,0,2048,2048
298.951,5.79913e-09,0,2048,2048
299.004,5.75264e-09,0,2048,2048
299.051,5.69848e-09,0,2048,2048
299.103,5.62527e-09,0,2048,2048
299.15,5.55106e-09,0,2048,2048
299.203,5.45927e-09,0,2048,2048
299.256,5.36067e-09,0,2048,2048
299.303,5.26885e-09,0,2048,2048
299.355,5.16246e-09,0,2048,2048
299.402,5.06642e-09,0,2048,2048
299.455,4.95808e-09,0,2048,2048
299.502,4.86255e-09,0,2048,2048
299.554,4.75708e-09,0,2048,2048
299.601,4.66596e-09,0,2048,2048
299.654,4.56729e-09,0,2048,2048
299.701,4.48365e-09,0,2048,2048
299.754,4.39476e-09,0,2048,2048
299.8,4.3208e-09,0,2048,2048
299.853,4.24361e-09,0,2048,2048
299.9,4.18051e-09,0,2048,2048
299.953,4.11569e-09,0,2048,2048
300.006,4.05722e-09,0,2048,2048
300.052,4.01024e-09,0,2048,2048
300.105,3.96247e-09,0,2048,2048
300.152,3.92395e-09,0,2048,2048
300.205,3.88424e-09,0,2048,2048
300.252,3.85139e-09,0,2048,2048
300.304,3.81625e-09,0,2048,2048
300.351,3.78579e-09,0,2048,2048
300.404,3.75146e-09,0,2048,2048
300.451,3.72014e-09,0,2048,2048
300.504,3.68322e-09,0,2048,2048
300.55,3.64834e-09,0,2048,2048
300.603,3.60628e-09,0,2048,2048
300.656,3.5609e-09,0,2048,2048
300.703,3.51766e-09,0,2048,2048
300.755,3.46576e-09,0,2048,2048
300.802,3.41692e-09,0,2048,2048
300.855,3.35927e-09,0,2048,2048
300.902,3.30603e-09,0,2048,2048
300.955,3.24446e-09,0,2048,2048
301.001,3.18881e-09,0,2048,2048
301.054,3.12584e-09,0,2048,2048
301.101,3.07019e-09,0,2048,2048
301.154,3.00866e-09,0,2048,2048
301.201,2.95555e-09,0,2048,2048
301.253,2.89825e-09,0,2048,2048
301.3,2.85006e-09,0,2048,2048
301.353,2.79949e-09,0,2048,2048
301.406,2.75332e-09,0,2048,2048
301.453,2.71633e-09,0,2048,2048
301.505,2.67958e-09,0,2048,2048
301.552,2.6514e-09,0,2048,2048
301.605,2.62481e-09,0,2048,2048
301.652,2.60569e-09,0,2048,2048
301.704,2.5891e-09,0,2048,2048
301.751,2.57847e-09,0,2048,2048
301.804,2.5708e-09,0,2048,2048
301.851,2.56738e-09,0,2048,2048
301.904,2.56683e-09,0,2048,2048
301.951,2.56881e-09,0,2048,2048
302.003,2.57319e-09,0,2048,2048
302.05,2.57852e-09,0,2048,2048
302.103,2.58554e-09,0,2048,2048
302.156,2.59307e-09,0,2048,2048
302.202,2.59977e-09,0,2048,2048
302.255,2.60687e-09,0,2048,2048
302.302,2.61247e-09,0,2048,2048
302.355,2.61768e-09,0,2048,2048
302.402,2.62113e-09,0,2048,2048
302.454,2.6235e-09,0,2048,2048
302.501,2.62415e-09,0,2048,2048
302.554,2.62316e-09,0,2048,2048
302.601,2.62073e-09,0,2048,2048
302.654,2.61625e-09,0,2048,2048
302.7,2.61072e-09,0,2048,2048
302.753,2.60281e-09,0,2048,2048
302.8,2.59433e-09,0,2048,2048
302.853,2.58323e-09,0,2048,2048
302.905,2.57054e-09,0,2048,2048
302.952,2.55801e-09,0,2048,2048
303.005,2.54258e-09,0,2048,2048
303.052,2.52774e-09,0,2048,2048
303.105,2.50986e-09,0,2048,2048
303.152,2.49299e-09,0,2048,2048
303.204,2.47298e-09,0,2048,2048
303.251,2.45435e-09,0,2048,2048
303.304,2.43254e-09,0,2048,2048
303.351,2.41248e-09,0,2048,2048
303.403,2.38924e-09,0,2048,2048
303.45,2.36808e-09,0,2048,2048
303.503,2.34381e-09,0,2048,2048
303.556,2.31915e-09,0,2048,2048
303.603,2.297e-09,0,2048,2048
303.655,2.27191e-09,0,2048,2048
303.702,2.24954e-09,0,2048,2048
303.755,2.22438e-09,0,2048,2048
303.802,2.20208e-09,0,2048,2048
303.855,2.17714e-09,0,2048,2048
303.901,2.15514e-09,0,2048,2048
303.954,2.13063e-09,0,2048,2048
304.001,2.10909e-09,0,2048,2048
304.054,2.08515e-09,0,2048,2048
304.101,2.06416e-09,0,2048,2048
304.153,2.04086e-09,0,2048,2048
304.2,2.02044e-09,0,2048,2048
304.253,1.99778e-09,0,2048,2048
304.306,1.97545e-09,0,2048,2048
304.353,1.95584e-09,0,2048,2048
304.405,1.93404e-09,0,2048,2048
304.452,1.91486e-09,0,2048,2048
304.505,1.89348e-09,0,2048,2048
304.552,1.87461e-09,0,2048,2048
304.604,1.8535e-09,0,2048,2048
304.651,1.8348e-09,0,2048,2048
304.704,1.8138e-09,0,2048,2048
304.751,1.79513e-09,0,2048,2048
304.804,1.77408e-09,0,2048,2048
304.851,1.75529e-09,0,2048,2048
304.903,1.73402e-09,0,2048,2048
304.95,1.71497e-09,0,2048,2048
