250,0,0,2048,2048
250.006,0,0,2048,2048
250.053,0,0,2048,2048
250.105,0,0,2048,2048
250.152,0,0,2048,2048
250.205,-2.77556e-17,0,2048,2048
250.252,0,0,2048,2048
250.305,-2.77556e-17,0,2048,2048
250.352,0,0,2048,2048
250.404,-2.77556e-17,0,2048,2048
250.451,0,0,2048,2048
250.504,0,0,2048,2048
250.551,-2.77556e-17,0,2048,2048
250.603,0,0,2048,2048
250.65,0,0,2048,2048
250.703,-2.77556e-17,0,2048,2048
250.756,0,0,2048,2048
250.803,-2.77556e-17,0,2048,2048
250.855,0,0,2048,2048
250.902,-2.77556e-17,0,2048,2048
250.955,-2.77556e-17,0,2048,2048
251.002,0,0,2048,2048
251.055,-2.77556e-17,0,2048,2048
251.101,-2.77556e-17,0,2048,2048
251.154,-2.77556e-17,0,2048,2048
251.201,0,0,2048,2048
251.254,0,0,2048,2048
251.301,-2.77556e-17,0,2048,2048
251.353,0,0,2048,2048
251.4,2.77556e-17,0,2048,2048
251.453,2.77556e-17,0,2048,2048
251.506,2.77556e-17,0,2048,2048
251.553,2.77556e-17,0,2048,2048
251.605,2.77556e-17,0,2048,2048
251.652,2.77556e-17,0,2048,2048
251.705,2.77556e-17,0,2048,2048
251.752,5.55112e-17,0,2048,2048
251.804,5.55112e-17,0,2048,2048
251.851,2.77556e-17,0,2048,2048
251.904,-2.77556e-17,0,2048,2048
251.951,-2.77556e-17,0,2048,2048
252.004,-2.77556e-17,0,2048,2048
252.05,-2.77556e-17,0,2048,2048
252.103,-2.77556e-17,0,2048,2048
252.15,-2.77556e-17,0,2048,2048
252.203,0,0,2048,2048
252.256,0,0,2048,2048
252.302,0,0,2048,2048
252.355,0,0,2048,2048
252.402,0,0,2048,2048
252.455,-2.77556e-17,0,2048,2048
252.502,0,0,2048,2048
252.554,0,0,2048,2048
252.601,0,0,2048,2048
252.654,0,0,2048,2048
252.701,0,0,2048,2048
252.754,0,0,2048,2048
252.8,0,0,2048,2048
252.853,0,0,2048,2048
252.906,-2.77556e-17,0,2048,2048
252.953,-2.77556e-17,0,2048,2048
253.005,-2.77556e-17,0,2048,2048
253.052,0,0,2048,2048
253.105,0,0,2048,2048
253.152,-2.77556e-17,0,2048,2048
253.205,-2.77556e-17,0,2048,2048
253.251,-2.77556e-17,0,2048,2048
253.304,0,0,2048,2048
253.351,0,0,2048,2048
253.404,0,0,2048,2048
253.451,-2.77556e-17,0,2048,2048
253.503,0,0,2048,2048
253.55,0,0,2048,2048
253.603,-2.77556e-17,0,2048,2048
253.656,-2.77556e-17,0,2048,2048
253.703,0,0,2048,2048
253.755,-2.77556e-17,0,2048,2048
253.802,2.77556e-17,0,2048,2048
253.855,2.77556e-17,0,2048,2048
253.902,2.77556e-17,0,2048,2048
253.954,8.32667e-17,0,2048,2048
254.001,5.55112e-17,0,2048,2048
254.054,2.77556e-17,0,2048,2048
254.101,2.77556e-17,0,2048,2048
254.154,5.55112e-17,0,2048,2048
254.201,5.55112e-17,0,2048,2048
254.253,5.55112e-17,0,2048,2048
254.3,2.77556e-17,0,2048,2048
254.353,5.55112e-17,0,2048,2048
254.406,2.77556e-17,0,2048,2048
254.452,2.77556e-17,0,2048,2048
254.505,2.77556e-17,0,2048,2048
254.552,2.77556e-17,0,2048,2048
254.605,2.77556e-17,0,2048,2048
254.652,2.77556e-17,0,2048,2048
254.704,0,0,2048,2048
254.751,0,0,2048,2048
254.804,0,0,2048,2048
254.851,0,0,2048,2048
254.904,2.77556e-17,0,2048,2048
254.95,-2.77556e-17,0,2048,2048
255.003,0,0,2048,2048
255.05,0,0,2048,2048
255.103,0,0,2048,2048
255.155,0,0,2048,2048
255.202,0,0,2048,2048
255.255,0,0,2048,2048
255.302,0,0,2048,2048
255.355,0,0,2048,2048
255.402,0,0,2048,2048
255.454,-5.55112e-17,0,2048,2048
255.501,-5.55112e-17,0,2048,2048
255.554,-2.77556e-17,0,2048,2048
255.601,-2.77556e-17,0,2048,2048
255.653,-2.77556e-17,0,2048,2048
255.7,-5.55112e-17,0,2048,2048
255.753,0,0,2048,2048
255.806,0,0,2048,2048
255.853,0,0,2048,2048
255.905,0,0,2048,2048
255.952,-2.77556e-17,0,2048,2048
256.005,-2.77556e-17,0,2048,2048
256.052,0,0,2048,2048
256.105,0,0,2048,2048
256.151,5.55112e-17,0,2048,2048
256.204,2.77556e-17,0,2048,2048
256.251,0,0,2048,2048
256.304,2.77556e-17,0,2048,2048
256.351,2.77556e-17,0,2048,2048
256.403,2.77556e-17,0,2048,2048
256.45,2.77556e-17,0,2048,2048
256.503,2.77556e-17,0,2048,2048
256.556,2.77556e-17,0,2048,2048
256.603,5.55112e-17,0,2048,2048
256.655,5.55112e-17,0,2048,2048
256.702,5.55112e-17,0,2048,2048
256.755,5.55112e-17,0,2048,2048
256.802,2.77556e-17,0,2048,2048
256.854,2.77556e-17,0,2048,2048
256.901,2.77556e-17,0,2048,2048
256.954,2.77556e-17,0,2048,2048
257.001,2.77556e-17,0,2048,2048
257.054,2.77556e-17,0,2048,2048
257.101,2.77556e-17,0,2048,2048
257.153,2.77556e-17,0,2048,2048
257.2,2.77556e-17,0,2048,2048
257.253,2.77556e-17,0,2048,2048
257.306,5.55112e-17,0,2048,2048
257.352,0,0,2048,2048
257.405,0,0,2048,2048
257.452,0,0,2048,2048
257.505,-2.77556e-17,0,2048,2048
257.552,-2.77556e-17,0,2048,2048
257.604,-2.77556e-17,0,2048,2048
257.651,0,0,2048,2048
257.704,-2.77556e-17,0,2048,2048
257.751,-2.77556e-17,0,2048,2048
257.804,-2.77556e-17,0,2048,2048
257.85,-5.55112e-17,0,2048,2048
257.903,-5.55112e-17,0,2048,2048
257.95,-5.55112e-17,0,2048,2048
258.003,-5.55112e-17,0,2048,2048
258.055,-2.77556e-17,0,2048,2048
258.102,-2.77556e-17,0,2048,2048
258.155,-2.77556e-17,0,2048,2048
258.202,-2.77556e-17,0,2048,2048
258.255,-2.77556e-17,0,2048,2048
258.302,-2.77556e-17,0,2048,2048
258.354,0,0,2048,2048
258.401,-2.77556e-17,0,2048,2048
258.454,0,0,2048,2048
258.501,0,0,2048,2048
258.553,0,0,2048,2048
258.6,0,0,2048,2048
258.653,2.77556e-17,0,2048,2048
258.706,0,0,2048,2048
258.753,0,0,2048,2048
258.805,-2.77556e-17,0,2048,2048
258.852,-2.77556e-17,0,2048,2048
258.905,-2.77556e-17,0,2048,2048
258.952,-2.77556e-17,0,2048,2048
259.005,-2.77556e-17,0,2048,2048
259.051,-2.77556e-17,0,2048,2048
259.104,-2.77556e-17,0,2048,2048
259.151,0,0,2048,2048
259.204,0,0,2048,2048
259.251,0,0,2048,2048
259.303,-5.55112e-17,0,2048,2048
259.35,-5.55112e-17,0,2048,2048
259.403,-2.77556e-17,0,2048,2048
259.456,-5.55112e-17,0,2048,2048
259.503,-2.77556e-17,0,2048,2048
259.555,-2.77556e-17,0,2048,2048
259.602,-2.77556e-17,0,2048,2048
259.655,-2.77556e-17,0,2048,2048
259.702,-5.55112e-17,0,2048,2048
259.754,-2.77556e-17,0,2048,2048
259.801,-5.55112e-17,0,2048,2048
259.854,-2.77556e-17,0,2048,2048
259.901,-2.77556e-17,0,2048,2048
259.954,-2.77556e-17,0,2048,2048
260,-2.77556e-17,0,2048,2048
260.053,-2.77556e-17,0,2048,2048
260.1,-2.77556e-17,0,2048,2048
260.153,-2.77556e-17,0,2048,2048
260.206,-2.77556e-17,0,2048,2048
260.252,0,0,2048,2048
260.305,0,0,2048,2048
260.352,0,0,2048,2048
260.405,0,0,2048,2048
260.452,2.77556e-17,0,2048,2048
260.504,2.77556e-17,0,2048,2048
260.551,2.77556e-17,0,2048,2048
260.604,0,0,2048,2048
260.651,0,0,2048,2048
260.704,0,0,2048,2048
260.75,-2.77556e-17,0,2048,2048
260.803,0,0,2048,2048
260.856,0,0,2048,2048
260.903,-2.77556e-17,0,2048,2048
260.955,0,0,2048,2048
261.002,2.77556e-17,0,2048,2048
261.055,2.77556e-17,0,2048,2048
261.102,2.77556e-17,0,2048,2048
261.155,2.77556e-17,0,2048,2048
261.201,2.77556e-17,0,2048,2048
261.254,2.77556e-17,0,2048,2048
261.301,2.77556e-17,0,2048,2048
261.354,2.77556e-17,0,2048,2048
261.401,0,0,2048,2048
261.453,0,0,2048,2048
261.5,0,0,2048,2048
261.553,2.77556e-17,0,2048,2048
261.606,5.55112e-17,0,2048,2048
261.653,2.77556e-17,0,2048,2048
261.705,5.55112e-17,0,2048,2048
261.752,5.55112e-17,0,2048,2048
261.805,5.55112e-17,0,2048,2048
261.852,5.55112e-17,0,2048,2048
261.905,5.55112e-17,0,2048,2048
261.951,5.55112e-17,0,2048,2048
262.004,2.77556e-17,0,2048,2048
262.051,5.55112e-17,0,2048,2048
262.104,5.55112e-17,0,2048,2048
262.151,0,0,2048,2048
262.203,0,0,2048,2048
262.25,0,0,2048,2048
262.303,2.77556e-17,0,2048,2048
262.356,2.77556e-17,0,2048,2048
262.402,2.77556e-17,0,2048,2048
262.455,0,0,2048,2048
262.502,0,0,2048,2048
262.555,0,0,2048,2048
262.602,0,0,2048,2048
262.654,0,0,2048,2048
262.701,2.77556e-17,0,2048,2048
262.754,0,0,2048,2048
262.801,0,0,2048,2048
262.854,-2.77556e-17,0,2048,2048
262.9,0,0,2048,2048
262.953,2.77556e-17,0,2048,2048
263,2.77556e-17,0,2048,2048
263.053,2.77556e-17,0,2048,2048
263.105,2.77556e-17,0,2048,2048
263.152,2.77556e-17,0,2048,2048
263.205,2.77556e-17,0,2048,2048
263.252,2.77556e-17,0,2048,2048
263.305,0,0,2048,2048
263.352,0,0,2048,2048
263.404,0,0,2048,2048
263.451,0,0,2048,2048
263.504,0,0,2048,2048
263.551,0,0,2048,2048
263.603,0,0,2048,2048
263.65,0,0,2048,2048
263.703,-2.77556e-17,0,2048,2048
263.756,0,0,2048,2048
263.803,-2.77556e-17,0,2048,2048
263.855,0,0,2048,2048
263.902,0,0,2048,2048
263.955,2.77556e-17,0,2048,2048
264.002,2.77556e-17,0,2048,2048
264.055,2.77556e-17,0,2048,2048
264.101,2.77556e-17,0,2048,2048
264.154,2.77556e-17,0,2048,2048
264.201,5.55112e-17,0,2048,2048
264.254,2.77556e-17,0,2048,2048
264.301,0,0,2048,2048
264.353,0,0,2048,2048
264.4,-2.77556e-17,0,2048,2048
264.453,0,0,2048,2048
264.506,2.77556e-17,0,2048,2048
264.553,2.77556e-17,0,2048,2048
264.605,2.77556e-17,0,2048,2048
264.652,8.32667e-17,0,2048,2048
264.705,8.32667e-17,0,2048,2048
264.752,2.77556e-17,0,2048,2048
264.804,5.55112e-17,0,2048,2048
264.851,2.77556e-17,0,2048,2048
264.904,0,0,2048,2048
264.951,0,0,2048,2048
265.004,0,0,2048,2048
265.051,0,0,2048,2048
265.103,-2.77556e-17,0,2048,2048
265.15,0,0,2048,2048
265.203,-2.77556e-17,0,2048,2048
265.256,0,0,2048,2048
265.302,2.77556e-17,0,2048,2048
265.355,0,0,2048,2048
265.402,-2.77556e-17,0,2048,2048
265.455,-2.77556e-17,0,2048,2048
265.502,-2.77556e-17,0,2048,2048
265.554,0,0,2048,2048
265.601,-2.77556e-17,0,2048,2048
265.654,-2.77556e-17,0,2048,2048
265.701,-5.55112e-17,0,2048,2048
265.754,-8.32667e-17,0,2048,2048
265.8,-5.55112e-17,0,2048,2048
265.853,-2.77556e-17,0,2048,2048
265.9,-2.77556e-17,0,2048,2048
265.953,-2.77556e-17,0,2048,2048
266.005,-2.77556e-17,0,2048,2048
266.052,-2.77556e-17,0,2048,2048
266.105,-2.77556e-17,0,2048,2048
266.152,-5.55112e-17,0,2048,2048
266.205,-5.55112e-17,0,2048,2048
266.252,-8.32667e-17,0,2048,2048
266.304,-5.55112e-17,0,2048,2048
266.351,-8.32667e-17,0,2048,2048
266.404,-8.32667e-17,0,2048,2048
266.451,-5.55112e-17,0,2048,2048
266.503,-2.77556e-17,0,2048,2048
266.55,0,0,2048,2048
266.603,0,0,2048,2048
266.656,-2.77556e-17,0,2048,2048
266.703,-2.77556e-17,0,2048,2048
266.755,-5.55112e-17,0,2048,2048
266.802,-5.55112e-17,0,2048,2048
266.855,-2.77556e-17,0,2048,2048
266.902,-5.55112e-17,0,2048,2048
266.955,-5.55112e-17,0,2048,2048
267.001,-5.55112e-17,0,2048,2048
267.054,-5.55112e-17,0,2048,2048
267.101,-8.32667e-17,0,2048,2048
267.154,-5.55112e-17,0,2048,2048
267.201,-5.55112e-17,0,2048,2048
267.253,-2.77556e-17,0,2048,2048
267.3,-2.77556e-17,0,2048,2048
267.353,0,0,2048,2048
267.406,-2.77556e-17,0,2048,2048
267.453,-2.77556e-17,0,2048,2048
267.505,-2.77556e-17,0,2048,2048
267.552,-2.77556e-17,0,2048,2048
267.605,-5.55112e-17,0,2048,2048
267.652,-5.55112e-17,0,2048,2048
267.704,-1.11022e-16,0,2048,2048
267.751,-5.55112e-17,0,2048,2048
267.804,-5.55112e-17,0,2048,2048
267.851,-5.55112e-17,0,2048,2048
267.904,-2.77556e-17,0,2048,2048
267.95,-5.55112e-17,0,2048,2048
268.003,-2.77556e-17,0,2048,2048
268.05,-2.77556e-17,0,2048,2048
268.103,2.77556e-17,0,2048,2048
268.156,0,0,2048,2048
268.202,-2.77556e-17,0,2048,2048
268.255,0,0,2048,2048
268.302,-2.77556e-17,0,2048,2048
268.355,-2.77556e-17,0,2048,2048
268.402,0,0,2048,2048
268.454,0,0,2048,2048
268.501,0,0,2048,2048
268.554,0,0,2048,2048
268.601,5.55112e-17,0,2048,2048
268.654,2.77556e-17,0,2048,2048
268.7,5.55112e-17,0,2048,2048
268.753,5.55112e-17,0,2048,2048
268.806,8.32667e-17,0,2048,2048
268.853,8.32667e-17,0,2048,2048
268.905,5.55112e-17,0,2048,2048
268.952,2.77556e-17,0,2048,2048
269.005,5.55112e-17,0,2048,2048
269.052,2.77556e-17,0,2048,2048
269.105,2.77556e-17,0,2048,2048
269.151,2.77556e-17,0,2048,2048
269.204,2.77556e-17,0,2048,2048
269.251,2.77556e-17,0,2048,2048
269.304,2.77556e-17,0,2048,2048
269.351,0,0,2048,2048
269.403,1.13798e-15,0,2048,2048
269.45,2.82552e-14,0,2048,2048
269.503,2.82968e-13,0,2048,2048
269.556,-4.71928e-13,0,2048,2048
269.603,-1.31362e-11,0,2048,2048
269.655,-7.32195e-11,0,2048,2048
269.702,-1.79608e-10,0,2048,2048
269.755,-3.00436e-10,0,2048,2048
269.802,-3.22009e-10,0,2048,2048
269.855,-2.03849e-10,0,2048,2048
269.901,-2.21801e-11,0,2048,2048
269.954,1.49012e-10,0,2050,2050
270.002,1.87523e-10,0,2098,2098
270.052,1.16422e-10,0,2134,2134
270.102,1.7206e-11,0,2170,2170
270.152,-1.81681e-11,0,2218,2218
270.201,3.51939e-11,0,2254,2254
270.251,1.2259e-10,0,2302,2302
270.301,1.6648e-10,0,2338,2338
270.351,1.36654e-10,0,2386,2386
270.401,7.02818e-11,0,2422,2422
270.45,3.06451e-11,0,2458,2458
270.5,4.96318e-11,0,2506,2506
270.553,1.09526e-10,0,2554,2554
270.603,1.52828e-10,0,2590,2590
270.652,1.50532e-10,0,2638,2638
270.702,1.08945e-10,0,2674,2674
270.752,6.26798e-11,0,2722,2722
270.802,4.83678e-11,0,2758,2758
270.852,7.98401e-11,0,2794,2794
270.901,1.36477e-10,0,2842,2842
270.951,1.7263e-10,0,2878,2878
271.001,1.50213e-10,0,2926,2926
271.051,7.79107e-11,0,2962,2962
271.101,1.96811e-11,0,3010,3010
271.15,4.54545e-11,0,3046,3046
271.2,1.51736e-10,0,3094,3094
271.25,2.35151e-10,0,3130,3130
271.303,1.76206e-10,0,3178,3178
271.353,3.58723e-11,0,3226,3226
271.402,1.17977e-10,0,3262,3262
271.452,8.44647e-10,0,3310,3310
271.502,2.49204e-09,0,3346,3346
271.552,4.99666e-09,0,3394,3394
271.602,7.99557e-09,0,3430,3430
271.651,1.49343e-08,0,3478,3478
271.701,2.17747e-08,0,3514,3514
271.751,2.57454e-08,0,3562,3562
271.801,2.80353e-08,0,3598,3598
271.851,2.98337e-08,0,3646,3646
271.9,3.26331e-08,0,3682,3682
271.95,3.77573e-08,0,3730,3730
272.003,4.62156e-08,0,3766,3766
272.053,5.65855e-08,0,3814,3814
272.102,6.86642e-08,0,3850,3850
272.152,8.26032e-08,0,3886,3886
272.202,9.94624e-08,0,3934,3934
272.252,1.20682e-07,0,3970,3970
272.302,1.47494e-07,0,4018,4018
272.351,1.80604e-07,0,4054,4054
272.401,2.19892e-07,0,4090,4090
272.451,2.64068e-07,0,4138,4138
272.501,3.10953e-07,0,4174,4174
272.551,3.58762e-07,0,4210,4210
272.6,4.07435e-07,0,4258,4258
272.65,4.58518e-07,0,4294,4294
272.7,5.1331e-07,0,4330,4330
272.753,5.7429e-07,0,4378,4378
272.803,6.31153e-07,0,4414,4414
272.852,6.83151e-07,0,4450,4450
272.902,7.27141e-07,0,4498,4498
272.952,7.6142e-07,0,4534,4534
273.002,7.85688e-07,0,4570,4570
273.052,8.01075e-07,0,4606,4606
273.101,8.09752e-07,0,4642,4642
273.151,8.13949e-07,0,4690,4690
273.201,8.15041e-07,0,4726,4726
273.251,8.13377e-07,0,4762,4762
273.301,8.08604e-07,0,4798,4798
273.35,7.99941e-07,0,4834,4834
273.4,7.86361e-07,0,4870,4870
273.453,7.65441e-07,0,4896,4896
273.503,7.38556e-07,0,4888,4888
273.552,7.04211e-07,0,4884,4884
273.602,6.62744e-07,0,4884,4884
273.652,6.15814e-07,0,4872,4872
273.702,5.66161e-07,0,4872,4872
273.752,5.16598e-07,0,4876,4876
273.801,4.69138e-07,0,4896,4896
273.851,4.24844e-07,0,4920,4920
273.901,3.8408e-07,0,4968,4968
273.951,3.467e-07,0,5004,5004
274.001,3.12205e-07,0,5040,5040
274.05,2.79962e-07,0,5076,5076
274.1,2.494e-07,0,5112,5112
274.153,2.18514e-07,0,5148,5148
274.203,1.91023e-07,0,5184,5184
274.253,1.66321e-07,0,5220,5220
274.302,1.45943e-07,0,5256,5256
274.352,1.30545e-07,0,5280,5280
274.402,1.18888e-07,0,5316,5316
274.452,1.08384e-07,0,5352,5352
274.502,9.6932e-08,0,5388,5388
274.551,8.43659e-08,0,5424,5424
274.601,7.21838e-08,0,5460,5460
274.651,6.20848e-08,0,5520,5520
274.701,5.48198e-08,0,5592,5592
274.75,5.00793e-08,0,5676,5676
274.8,4.68945e-08,0,5736,5736
274.85,4.39716e-08,0,5808,5808
274.903,3.98023e-08,0,5892,5892
274.953,3.43459e-08,0,5964,5964
275.002,2.81653e-08,0,6022,6022
275.052,2.2891e-08,0,6058,6058
275.102,1.98238e-08,0,6082,6082
275.152,1.88344e-08,0,6118,6118
275.202,1.89462e-08,0,6154,6154
275.251,1.93547e-08,0,6190,6190
275.301,1.96803e-08,0,6226,6226
275.351,1.98624e-08,0,6250,6250
275.401,1.9976e-08,0,6286,6286
275.451,2.0084e-08,0,6322,6322
275.5,2.0184e-08,0,6358,6358
275.55,2.02025e-08,0,6382,6382
275.603,2.00248e-08,0,6418,6418
275.653,1.96996e-08,0,6454,6454
275.703,1.93938e-08,0,6490,6490
275.752,1.92236e-08,0,6514,6514
275.802,1.91733e-08,0,6550,6550
275.852,1.9182e-08,0,6586,6586
275.902,1.92114e-08,0,6622,6622
275.951,1.92462e-08,0,6646,6646
276.001,1.92809e-08,0,6682,6682
276.051,1.93148e-08,0,6718,6718
276.101,1.93484e-08,0,6742,6742
276.151,1.93819e-08,0,6778,6778
276.2,1.94154e-08,0,6814,6814
276.25,1.9449e-08,0,6850,6850
276.3,1.94827e-08,0,6874,6874
276.353,1.95183e-08,0,6910,6910
276.403,1.95518e-08,0,6946,6946
276.452,1.95853e-08,0,6970,6970
276.502,1.96187e-08,0,7006,7006
276.552,1.96514e-08,0,7042,7042
276.602,1.96833e-08,0,7066,7066
276.652,1.97154e-08,0,7102,7102
276.701,1.97481e-08,0,7138,7138
276.751,1.97815e-08,0,7162,7162
276.801,1.98152e-08,0,7198,7198
276.851,1.98491e-08,0,7234,7234
276.901,1.98831e-08,0,7258,7258
276.95,1.99171e-08,0,7294,7294
277,1.99512e-08,0,7330,7330
277.053,1.99875e-08,0,7354,7354
277.103,2.00219e-08,0,7390,7390
277.152,2.00565e-08,0,7426,7426
277.202,2.00911e-08,0,7450,7450
277.252,2.01259e-08,0,7486,7486
277.302,2.01607e-08,0,7522,7522
277.352,2.01957e-08,0,7546,7546
277.401,2.02308e-08,0,7582,7582
277.451,2.02662e-08,0,7606,7606
277.501,2.03017e-08,0,7642,7642
277.551,2.03372e-08,0,7678,7678
277.601,2.03729e-08,0,7702,7702
277.65,2.04087e-08,0,7738,7738
277.7,2.04446e-08,0,7762,7762
277.75,2.04806e-08,0,7798,7798
277.803,2.05188e-08,0,7834,7834
277.853,2.05549e-08,0,7858,7858
277.902,2.0591e-08,0,7894,7894
277.952,2.0627e-08,0,7918,7918
278.002,2.06628e-08,0,7942,7942
278.052,2.06981e-08,0,7966,7966
278.102,2.0733e-08,0,8002,8002
278.151,2.07671e-08,0,8026,8026
278.201,2.08001e-08,0,8050,8050
278.251,2.08316e-08,0,8074,8074
278.301,2.08613e-08,0,8110,8110
278.351,2.08885e-08,0,8158,8158
278.4,2.09131e-08,0,8192,8192
278.45,2.0935e-08,0,8192,8192
278.503,2.0955e-08,0,8192,8192
278.553,2.09706e-08,0,8192,8192
278.602,2.09824e-08,0,8192,8192
278.652,2.09894e-08,0,8192,8192
278.702,2.09904e-08,0,8192,8192
278.752,2.09838e-08,0,8192,8192
278.802,2.0968e-08,0,8192,8192
278.851,2.09409e-08,0,8192,8192
278.901,2.09001e-08,0,8192,8192
278.951,2.08429e-08,0,8192,8192
279.001,2.07665e-08,0,8192,8192
279.051,2.0668e-08,0,8192,8192
279.1,2.05447e-08,0,8192,8192
279.15,2.03945e-08,0,8192,8192
279.2,2.0215e-08,0,8192,8192
279.253,1.99914e-08,0,8192,8192
279.303,1.9747e-08,0,8192,8192
279.352,1.94696e-08,0,8192,8192
279.402,1.9159e-08,0,8192,8192
279.452,1.88161e-08,0,8192,8192
279.502,1.84425e-08,0,8192,8192
279.552,1.8041e-08,0,8192,8192
279.601,1.76153e-08,0,8192,8192
279.651,1.71695e-08,0,8192,8192
279.701,1.67078e-08,0,8192,8192
279.751,1.62344e-08,0,8192,8192
279.801,1.57529e-08,0,8192,8192
279.85,1.52668e-08,0,8192,8192
279.9,1.47792e-08,0,8192,8192
279.953,1.42645e-08,0,8192,8192
280.003,1.37831e-08,0,8192,8192
280.052,1.33094e-08,0,8192,8192
280.102,1.28468e-08,0,8192,8192
280.152,1.23988e-08,0,8192,8192
280.202,1.19689e-08,0,8192,8192
280.252,1.15603e-08,0,8192,8192
280.301,1.11759e-08,0,8192,8192
280.351,1.08175e-08,0,8192,8192
280.401,1.04864e-08,0,8192,8192
280.451,1.01829e-08,0,8192,8192
280.501,9.9067e-09,0,8192,8192
280.55,9.65679e-09,0,8192,8192
280.6,9.43191e-09,0,8192,8192
280.65,9.23061e-09,0,8192,8192
280.703,9.04152e-09,0,8192,8192
280.753,8.88408e-09,0,8192,8192
280.802,8.74561e-09,0,8192,8192
280.852,8.62454e-09,0,8192,8192
280.902,8.5192e-09,0,8192,8192
280.952,8.42788e-09,0,8192,8192
281.002,8.34888e-09,0,8192,8192
281.051,8.28066e-09,0,8192,8192
281.101,8.22192e-09,0,8192,8192
281.151,8.17164e-09,0,8192,8192
281.201,8.12898e-09,0,8192,8192
281.251,8.09319e-09,0,8192,8192
281.3,8.06356e-09,0,8192,8192
281.35,8.0393e-09,0,8192,8192
281.403,8.01862e-09,0,8192,8192
281.453,8.00312e-09,0,8192,8192
281.502,7.99102e-09,0,8192,8192
281.552,7.98204e-09,0,8192,8192
281.602,7.976e-09,0,8192,8192
281.652,7.97272e-09,0,8192,8192
281.702,7.97188e-09,0,8192,8192
281.751,7.97309e-09,0,8192,8192
281.801,7.97588e-09,0,8192,8192
281.851,7.97978e-09,0,8192,8192
281.901,7.98442e-09,0,8192,8192
281.951,7.98952e-09,0,8192,8192
282,7.99486e-09,0,8192,8192
282.05,8.00033e-09,0,8192,8192
282.1,8.00582e-09,0,8192,8192
282.153,8.01164e-09,0,8192,8192
282.203,8.01714e-09,0,8192,8192
282.252,8.02268e-09,0,8192,8192
282.302,8.0283e-09,0,8192,8192
282.352,8.03403e-09,0,8192,8192
282.402,8.03986e-09,0,8192,8192
282.452,8.04578e-09,0,8192,8192
282.501,8.05177e-09,0,8192,8192
282.551,8.0578e-09,0,8192,8192
282.601,8.06387e-09,0,8192,8192
282.651,8.06997e-09,0,8192,8192
282.7,8.07609e-09,0,8192,8192
282.75,8.08225e-09,0,8192,8192
282.8,8.08844e-09,0,8192,8192
282.853,8.09505e-09,0,8192,8192
282.903,8.10141e-09,0,8192,8192
282.952,8.10793e-09,0,8192,8192
283.002,8.11476e-09,0,8192,8192
283.052,8.12205e-09,0,8192,8192
283.102,8.13005e-09,0,8192,8192
283.152,8.13912e-09,0,8192,8192
283.201,8.14971e-09,0,8192,8192
283.251,8.16246e-09,0,8192,8192
283.301,8.17819e-09,0,8192,8192
283.351,8.19805e-09,0,8192,8192
283.401,8.22352e-09,0,8192,8192
283.45,8.2565e-09,0,8192,8192
283.5,8.29926e-09,0,8192,8192
283.553,8.35804e-09,0,8192,8192
283.603,8.4291e-09,0,8192,8192
283.653,8.51804e-09,0,8192,8192
283.702,8.62759e-09,0,8192,8192
283.752,8.76065e-09,0,8192,8192
283.802,8.92064e-09,0,8192,8192
283.852,9.11173e-09,0,8192,8192
283.901,9.33926e-09,0,8192,8192
283.951,9.60996e-09,0,8192,8192
284.001,9.93219e-09,0,8192,8192
284.051,1.0316e-08,0,8192,8192
284.101,1.0773e-08,0,8192,8192
284.15,1.13166e-08,0,8192,8192
284.2,1.19613e-08,0,8192,8192
284.25,1.27225e-08,0,8192,8192
284.303,1.36731e-08,0,8192,8192
284.353,1.47239e-08,0,8192,8192
284.402,1.59386e-08,0,8192,8192
284.452,1.73308e-08,0,8192,8192
284.502,1.89123e-08,0,8192,8192
284.552,2.06925e-08,0,8192,8192
284.602,2.26781e-08,0,8192,8192
284.651,2.48723e-08,0,8192,8192
284.701,2.72753e-08,0,8192,8192
284.751,2.98836e-08,0,8192,8192
284.801,3.26908e-08,0,8192,8192
284.851,3.56877e-08,0,8192,8192
284.9,3.88639e-08,0,8192,8192
284.95,4.22081e-08,0,8192,8192
285.003,4.59198e-08,0,8192,8192
285.053,4.95753e-08,0,8192,8192
285.102,5.33672e-08,0,8192,8192
285.152,5.72878e-08,0,8192,8192
285.202,6.13328e-08,0,8192,8192
285.252,6.55041e-08,0,8192,8192
285.302,6.98127e-08,0,8192,8192
285.351,7.42824e-08,0,8192,8192
285.401,7.89497e-08,0,8192,8192
285.451,8.38608e-08,0,8192,8192
285.501,8.9065e-08,0,8192,8192
285.551,9.46069e-08,0,8192,8192
285.6,1.00524e-07,0,8192,8192
285.65,1.0685e-07,0,8192,8192
285.7,1.13629e-07,0,8192,8192
285.753,1.21377e-07,0,8192,8192
285.803,1.29352e-07,0,8192,8192
285.852,1.38135e-07,0,8192,8192
285.902,1.47948e-07,0,8192,8192
285.952,1.59064e-07,0,8192,8192
286.002,1.71784e-07,0,8192,8192
286.052,1.86429e-07,0,8192,8192
286.101,2.03304e-07,0,8192,8192
286.151,2.22685e-07,0,8192,8192
286.201,2.44787e-07,0,8192,8192
286.251,2.69744e-07,0,8192,8192
286.301,2.97589e-07,0,8192,8192
286.35,3.28242e-07,0,8192,8192
286.4,3.61497e-07,0,8192,8192
286.453,3.99168e-07,0,8192,8192
286.503,4.36579e-07,0,8192,8192
286.552,4.75163e-07,0,8192,8192
286.602,5.14208e-07,0,8192,8192
286.652,5.5291e-07,0,8192,8192
286.702,5.90399e-07,0,8192,8192
286.752,6.25781e-07,0,8192,8192
286.801,6.58189e-07,0,8192,8192
286.851,6.86835e-07,0,8192,8192
286.901,7.11059e-07,0,8192,8192
286.951,7.30359e-07,0,8192,8192
287.001,7.44407e-07,0,8192,8192
287.05,7.5304e-07,0,8192,8192
287.1,7.56232e-07,0,8192,8192
287.15,7.54059e-07,0,8192,8192
287.203,7.46062e-07,0,8192,8192
287.253,7.33306e-07,0,8192,8192
287.302,7.15684e-07,0,8192,8192
287.352,6.93407e-07,0,8192,8192
287.402,6.66722e-07,0,8192,8192
287.452,6.35946e-07,0,8192,8192
287.502,6.01486e-07,0,8192,8192
287.551,5.63856e-07,0,8192,8192
287.601,5.23674e-07,0,8192,8192
287.651,4.81641e-07,0,8192,8192
287.701,4.38511e-07,0,8192,8192
287.751,3.95043e-07,0,8192,8192
287.8,3.51961e-07,0,8192,8192
287.85,3.09914e-07,0,8192,8192
287.903,2.67133e-07,0,8192,8192
287.953,2.28828e-07,0,8192,8192
288.002,1.92896e-07,0,8192,8192
288.052,1.59558e-07,0,8192,8192
288.102,1.28951e-07,0,8192,8192
288.152,1.01134e-07,0,8192,8192
288.202,7.61017e-08,0,8192,8192
288.251,5.37948e-08,0,8192,8192
288.301,3.41054e-08,0,8192,8192
288.351,1.68884e-08,0,8192,8192
288.401,1.9732e-09,0,8192,8192
288.451,-1.08232e-08,0,8192,8192
288.5,-2.16852e-08,0,8192,8192
288.55,-3.07908e-08,0,8192,8192
288.6,-3.83079e-08,0,8192,8192
288.653,-4.47113e-08,0,8192,8192
288.703,-4.94456e-08,0,8192,8192
288.752,-5.30461e-08,0,8192,8192
288.802,-5.56403e-08,0,8192,8192
288.852,-5.73416e-08,0,8192,8192
288.902,-5.82466e-08,0,8192,8192
288.952,-5.84349e-08,0,8192,8192
289.001,-5.79729e-08,0,8192,8192
289.051,-5.6919e-08,0,8192,8192
289.101,-5.5331e-08,0,8192,8192
289.151,-5.32723e-08,0,8192,8192
289.201,-5.08153e-08,0,8192,8192
289.25,-4.80421e-08,0,8192,8192
289.3,-4.50413e-08,0,8192,8192
289.353,-4.17156e-08,0,8192,8192
289.403,-3.85245e-08,0,8192,8192
289.452,-3.53617e-08,0,8192,8192
289.502,-3.22901e-08,0,8192,8192
289.552,-2.9358e-08,0,8192,8192
289.602,-2.65998e-08,0,8192,8192
289.652,-2.40376e-08,0,8192,8192
289.701,-2.16834e-08,0,8192,8192
289.751,-1.95419e-08,0,8192,8192
289.801,-1.76125e-08,0,8192,8192
289.851,-1.58913e-08,0,8192,8192
289.901,-1.4372e-08,0,8192,8192
289.95,-1.30469e-08,0,8192,8192
290,-1.19069e-08,0,8192,8192
290.053,-1.08902e-08,0,8192,8192
290.103,-1.00978e-08,0,8192,8192
290.153,-9.45555e-09,0,8192,8192
290.202,-8.95026e-09,0,8192,8192
290.252,-8.56809e-09,0,8192,8192
290.302,-8.29512e-09,0,8192,8192
290.352,-8.11779e-09,0,8192,8192
290.402,-8.02316e-09,0,8192,8192
290.451,-7.99917e-09,0,8192,8192
290.501,-8.03476e-09,0,8192,8192
290.551,-8.11985e-09,0,8192,8192
290.601,-8.24524e-09,0,8192,8192
290.65,-8.40254e-09,0,8192,8192
290.7,-8.58401e-09,0,8192,8192
290.75,-8.78253e-09,0,8192,8192
290.803,-9.00411e-09,0,8192,8192
290.853,-9.21801e-09,0,8192,8192
290.902,-9.43121e-09,0,8192,8192
290.952,-9.63939e-09,0,8192,8192
291.002,-9.83908e-09,0,8192,8192
291.052,-1.00276e-08,0,8192,8192
291.102,-1.02028e-08,0,8192,8192
291.151,-1.03636e-08,0,8192,8192
291.201,-1.05089e-08,0,8192,8192
291.251,-1.06385e-08,0,8192,8192
291.301,-1.07522e-08,0,8192,8192
291.351,-1.08502e-08,0,8192,8192
291.4,-1.0933e-08,0,8192,8192
291.45,-1.10012e-08,0,8192,8192
291.503,-1.10587e-08,0,8192,8192
291.553,-1.11001e-08,0,8192,8192
291.602,-1.11302e-08,0,8192,8192
291.652,-1.11504e-08,0,8192,8192
291.702,-1.11618e-08,0,8192,8192
291.752,-1.11658e-08,0,8192,8192
291.802,-1.11636e-08,0,8192,8192
291.851,-1.11563e-08,0,8192,8192
291.901,-1.11452e-08,0,8192,8192
291.951,-1.11312e-08,0,8192,8192
292.001,-1.11155e-08,0,8192,8192
292.051,-1.10989e-08,0,8192,8192
292.1,-1.10824e-08,0,8192,8192
292.15,-1.10668e-08,0,8192,8192
292.2,-1.10527e-08,0,8192,8192
292.253,-1.10403e-08,0,8192,8192
292.303,-1.10315e-08,0,8192,8192
292.352,-1.10262e-08,0,8192,8192
292.402,-1.1025e-08,0,8192,8192
292.452,-1.10283e-08,0,8192,8192
292.502,-1.10367e-08,0,8192,8192
292.552,-1.10505e-08,0,8192,8192
292.601,-1.10701e-08,0,8192,8192
292.651,-1.10958e-08,0,8192,8192
292.701,-1.11275e-08,0,8192,8192
292.751,-1.11655e-08,0,8192,8192
292.801,-1.12097e-08,0,8192,8192
292.85,-1.12603e-08,0,8192,8192
292.9,-1.13171e-08,0,8192,8192
292.953,-1.13842e-08,0,8192,8192
293.003,-1.14543e-08,0,8192,8192
293.052,-1.15309e-08,0,8192,8192
293.102,-1.16144e-08,0,8192,8192
293.152,-1.1705e-08,0,8192,8192
293.202,-1.18031e-08,0,8192,8192
293.252,-1.19093e-08,0,8192,8192
293.301,-1.20242e-08,0,8192,8192
293.351,-1.21486e-08,0,8192,8192
293.401,-1.22833e-08,0,8192,8192
293.451,-1.24294e-08,0,8192,8192
293.501,-1.25878e-08,0,8192,8192
293.55,-1.27598e-08,0,8192,8192
293.6,-1.29464e-08,0,8192,8192
293.65,-1.31489e-08,0,8192,8192
293.703,-1.33815e-08,0,8192,8192
293.753,-1.36195e-08,0,8192,8192
293.802,-1.38758e-08,0,8192,8192
293.852,-1.41509e-08,0,8192,8192
293.902,-1.44449e-08,0,8192,8192
293.952,-1.47573e-08,0,8192,8192
294.002,-1.50876e-08,0,8192,8192
294.051,-1.54346e-08,0,8192,8192
294.101,-1.57969e-08,0,8192,8192
294.151,-1.61724e-08,0,8192,8192
294.201,-1.6559e-08,0,8192,8192
294.251,-1.69541e-08,0,8192,8192
294.3,-1.73549e-08,0,8192,8192
294.35,-1.77583e-08,0,8192,8192
294.403,-1.8185e-08,0,8184,8184
294.453,-1.85842e-08,0,8066,8066
294.502,-1.89765e-08,0,8014,8014
294.552,-1.93588e-08,0,7970,7970
294.602,-1.97282e-08,0,7934,7934
294.652,-2.00818e-08,0,7906,7906
294.702,-2.04172e-08,0,7874,7874
294.751,-2.07319e-08,0,7846,7846
294.801,-2.10238e-08,0,7822,7822
294.851,-2.12911e-08,0,7798,7798
294.901,-2.15325e-08,0,7774,7774
294.951,-2.17468e-08,0,7738,7738
295,-2.19333e-08,0,7714,7714
295.05,-2.20917e-08,0,7690,7690
295.1,-2.22221e-08,0,7654,7654
295.153,-2.23301e-08,0,7630,7630
295.203,-2.24046e-08,0,7594,7594
295.252,-2.24533e-08,0,7562,7562
295.302,-2.24778e-08,0,7534,7534
295.352,-2.24795e-08,0,7498,7498
295.402,-2.24602e-08,0,7462,7462
295.452,-2.24216e-08,0,7438,7438
295.501,-2.23657e-08,0,7402,7402
295.551,-2.22944e-08,0,7378,7378
295.601,-2.22095e-08,0,7342,7342
295.651,-2.21129e-08,0,7318,7318
295.701,-2.20064e-08,0,7294,7294
295.75,-2.18915e-08,0,7258,7258
295.8,-2.17699e-08,0,7234,7234
295.853,-2.16354e-08,0,7210,7210
295.903,-2.15043e-08,0,7178,7178
295.952,-2.13706e-08,0,7150,7150
296.002,-2.12352e-08,0,7126,7126
296.052,-2.10992e-08,0,7090,7090
296.102,-2.09635e-08,0,7054,7054
296.152,-2.08288e-08,0,7022,7022
296.201,-2.06957e-08,0,6994,6994
296.251,-2.0565e-08,0,6958,6958
296.301,-2.04369e-08,0,6922,6922
296.351,-2.03121e-08,0,6886,6886
296.401,-2.01909e-08,0,6850,6850
296.45,-2.00734e-08,0,6814,6814
296.5,-1.996e-08,0,6778,6778
296.55,-1.98507e-08,0,6754,6754
296.603,-1.97396e-08,0,6718,6718
296.653,-1.96391e-08,0,6682,6682
296.702,-1.95428e-08,0,6646,6646
296.752,-1.94507e-08,0,6610,6610
296.802,-1.93625e-08,0,6578,6578
296.852,-1.92781e-08,0,6550,6550
296.902,-1.91972e-08,0,6514,6514
296.951,-1.91197e-08,0,6478,6478
297.001,-1.90452e-08,0,6446,6446
297.051,-1.89734e-08,0,6418,6418
297.101,-1.89041e-08,0,6382,6382
297.151,-1.8837e-08,0,6346,6346
297.2,-1.87718e-08,0,6322,6322
297.25,-1.87081e-08,0,6286,6286
297.303,-1.86422e-08,0,6250,6250
297.353,-1.8581e-08,0,6218,6218
297.402,-1.85206e-08,0,6190,6190
297.452,-1.84607e-08,0,6154,6154
297.502,-1.84012e-08,0,6118,6118
297.552,-1.83419e-08,0,6086,6086
297.602,-1.82825e-08,0,6058,6058
297.651,-1.82229e-08,0,6022,6022
297.701,-1.8163e-08,0,5990,5990
297.751,-1.81025e-08,0,5962,5962
297.801,-1.80414e-08,0,5926,5926
297.851,-1.79796e-08,0,5894,5894
297.9,-1.79168e-08,0,5866,5866
297.95,-1.7853e-08,0,5830,5830
298.003,-1.77842e-08,0,5794,5794
298.053,-1.7718e-08,0,5762,5762
298.103,-1.76503e-08,0,5734,5734
298.152,-1.75811e-08,0,5698,5698
298.202,-1.75102e-08,0,5666,5666
298.252,-1.74374e-08,0,5638,5638
298.302,-1.73626e-08,0,5602,5602
298.352,-1.72856e-08,0,5566,5566
298.401,-1.72063e-08,0,5534,5534
298.451,-1.71244e-08,0,5506,5506
298.501,-1.70397e-08,0,5470,5470
298.551,-1.6952e-08,0,5434,5434
298.6,-1.68611e-08,0,5402,5402
298.65,-1.67668e-08,0,5374,5374
298.7,-1.66688e-08,0,5338,5338
298.753,-1.6561e-08,0,5302,5302
298.803,-1.6455e-08,0,5266,5266
298.852,-1.63448e-08,0,5230,5230
298.902,-1.62303e-08,0,5194,5194
298.952,-1.61112e-08,0,5162,5162
299.002,-1.59875e-08,0,5134,5134
299.052,-1.58591e-08,0,5098,5098
299.101,-1.57258e-08,0,5062,5062
299.151,-1.55876e-08,0,5026,5026
299.201,-1.54443e-08,0,4990,4990
299.251,-1.5296e-08,0,4954,4954
299.301,-1.51425e-08,0,4918,4918
299.35,-1.49837e-08,0,4882,4882
299.4,-1.48197e-08,0,4846,4846
299.453,-1.46401e-08,0,4810,4810
299.503,-1.44648e-08,0,4774,4774
299.553,-1.42839e-08,0,4738,4738
299.602,-1.40971e-08,0,4702,4702
299.652,-1.39042e-08,0,4666,4666
299.702,-1.37049e-08,0,4630,4630
299.752,-1.34989e-08,0,4594,4594
299.801,-1.32857e-08,0,4558,4558
299.851,-1.30647e-08,0,4522,4522
299.901,-1.28352e-08,0,4486,4486
299.951,-1.25964e-08,0,4450,4450
300.001,-1.23474e-08,0,4414,4414
300.05,-1.20872e-08,0,4378,4378
300.1,-1.18145e-08,0,4342,4342
300.15,-1.15282e-08,0,4298,4298
300.203,-1.12087e-08,0,4258,4258
300.253,-1.08903e-08,0,4222,4222
300.302,-1.05543e-08,0,4186,4186
300.352,-1.01997e-08,0,4150,4150
300.402,-9.82554e-09,0,4106,4106
300.452,-9.43105e-09,0,4066,4066
300.502,-9.01579e-09,0,4030,4030
300.551,-8.57961e-09,0,3994,3994
300.601,-8.12262e-09,0,3950,3950
300.651,-7.64501e-09,0,3910,3910
300.701,-7.14662e-09,0,3874,3874
300.751,-6.62616e-09,0,3838,3838
300.8,-6.08026e-09,0,3794,3794
300.85,-5.50302e-09,0,3754,3754
300.903,-4.85094e-09,0,3710,3710
300.953,-4.19732e-09,0,3670,3670
301.002,-3.52329e-09,0,3634,3634
301.052,-2.85949e-09,0,3586,3586
301.102,-2.23694e-09,0,3550,3550
301.152,-1.67103e-09,0,3506,3506
301.202,-1.15768e-09,0,3466,3466
301.251,-5.84198e-10,0,3422,3422
301.301,-3.49192e-10,0,3382,3382
301.351,-3.69293e-11,0,3338,3338
301.401,3.14913e-10,0,3298,3298
301.451,6.80199e-10,0,3250,3250
301.5,1.04337e-09,0,3214,3214
301.55,1.39338e-09,0,3166,3166
301.6,1.72304e-09,0,3130,3130
301.653,2.04599e-09,0,3082,3082
301.703,2.32484e-09,0,3038,3038
301.752,2.57663e-09,0,2998,2998
301.802,2.8004e-09,0,2954,2954
301.852,2.99664e-09,0,2914,2914
301.902,3.16586e-09,0,2870,2870
301.952,3.30853e-09,0,2830,2830
302.001,3.42605e-09,0,2786,2786
302.051,3.51955e-09,0,2746,2746
302.101,3.59044e-09,0,2698,2698
302.151,3.64077e-09,0,2662,2662
302.201,3.67222e-09,0,2614,2614
302.25,3.68629e-09,0,2578,2578
302.3,3.68493e-09,0,2530,2530
302.353,3.66874e-09,0,2486,2486
302.403,3.64125e-09,0,2446,2446
302.452,3.60373e-09,0,2402,2402
302.502,3.55791e-09,0,2362,2362
302.552,3.50532e-09,0,2314,2314
302.602,3.44744e-09,0,2270,2270
302.652,3.38562e-09,0,2230,2230
302.701,3.32112e-09,0,2182,2182
302.751,3.25529e-09,0,2138,2138
302.801,3.1893e-09,0,2098,2098
302.852,3.12244e-09,0,2048,2048
302.905,3.05493e-09,0,2048,2048
302.952,2.9971e-09,0,2048,2048
303.004,2.93532e-09,0,2048,2048
303.051,2.88381e-09,0,2048,2048
303.104,2.8301e-09,0,2048,2048
303.151,2.78636e-09,0,2048,2048
303.204,2.74189e-09,0,2048,2048
303.25,2.70668e-09,0,2048,2048
303.303,2.67181e-09,0,2048,2048
303.35,2.64473e-09,0,2048,2048
303.403,2.6183e-09,0,2048,2048
303.455,2.59563e-09,0,2048,2048
303.502,2.57816e-09,0,2048,2048
303.555,2.56099e-09,0,2048,2048
303.602,2.54738e-09,0,2048,2048
303.655,2.5331e-09,0,2048,2048
303.702,2.52079e-09,0,2048,2048
303.754,2.50685e-09,0,2048,2048
303.801,2.4937e-09,0,2048,2048
303.854,2.47708e-09,0,2048,2048
303.901,2.46022e-09,0,2048,2048
303.953,2.43893e-09,0,2048,2048
304,2.41804e-09,0,2048,2048
304.053,2.39231e-09,0,2048,2048
304.106,2.3642e-09,0,2048,2048
304.153,2.33727e-09,0,2048,2048
304.205,2.30504e-09,0,2048,2048
304.252,2.27496e-09,0,2048,2048
304.305,2.23995e-09,0,2048,2048
304.352,2.2083e-09,0,2048,2048
304.405,2.17278e-09,0,2048,2048
304.451,2.14174e-09,0,2048,2048
304.504,2.10778e-09,0,2048,2048
304.551,2.07884e-09,0,2048,2048
304.604,2.04838e-09,0,2048,2048
304.651,2.02377e-09,0,2048,2048
304.703,1.99931e-09,0,2048,2048
304.75,1.98063e-09,0,2048,2048
304.803,1.96322e-09,0,2048,2048
304.856,1.94977e-09,0,2048,2048
304.903,1.94122e-09,0,2048,2048
304.955,1.93548e-09,0,2048,2048
