250,0,0,512,512
250.012,0,0,512,512
250.059,0,0,512,512
250.105,0,0,512,512
250.152,0,0,512,512
250.211,0,0,512,512
250.258,0,0,512,512
250.305,0,0,512,512
250.352,0,0,512,512
250.41,0,0,512,512
250.457,0,0,512,512
250.504,0,0,512,512
250.551,0,0,512,512
250.609,0,0,512,512
250.656,0,0,512,512
250.703,0,0,512,512
250.762,0,0,512,512
250.808,0,0,512,512
250.855,0,0,512,512
250.902,0,0,512,512
250.961,0,0,512,512
251.008,0,0,512,512
251.055,0,0,512,512
251.101,0,0,512,512
251.16,0,0,512,512
251.207,0,0,512,512
251.254,0,0,512,512
251.301,0,0,512,512
251.359,0,0,512,512
251.406,0,0,512,512
251.453,0,0,512,512
251.511,0,0,512,512
251.558,0,0,512,512
251.605,0,0,512,512
251.652,0,0,512,512
251.711,0,0,512,512
251.758,0,0,512,512
251.804,0,0,512,512
251.851,0,0,512,512
251.91,0,0,512,512
251.957,0,0,512,512
252.004,0,0,512,512
252.05,0,0,512,512
252.109,0,0,512,512
252.156,0,0,512,512
252.203,0,0,512,512
252.261,0,0,512,512
252.308,0,0,512,512
252.355,0,0,512,512
252.402,0,0,512,512
252.461,0,0,512,512
252.507,0,0,512,512
252.554,0,0,512,512
252.601,0,0,512,512
252.66,0,0,512,512
252.707,0,0,512,512
252.754,0,0,512,512
252.8,0,0,512,512
252.859,0,0,512,512
252.906,0,0,512,512
252.953,0,0,512,512
253.011,0,0,512,512
253.058,0,0,512,512
253.105,0,0,512,512
253.152,0,0,512,512
253.21,0,0,512,512
253.257,0,0,512,512
253.304,0,0,512,512
253.351,0,0,512,512
253.41,0,0,512,512
253.457,0,0,512,512
253.503,0,0,512,512
253.55,0,0,512,512
253.609,0,0,512,512
253.656,0,0,512,512
253.703,0,0,512,512
253.761,0,0,512,512
253.808,0,0,512,512
253.855,0,0,512,512
253.902,0,0,512,512
253.96,0,0,512,512
254.007,0,0,512,512
254.054,0,0,512,512
254.101,0,0,512,512
254.16,0,0,512,512
254.206,0,0,512,512
254.253,0,0,512,512
254.3,0,0,512,512
254.359,0,0,512,512
254.406,0,0,512,512
254.452,0,0,512,512
254.511,0,0,512,512
254.558,-1.38778e-17,0,512,512
254.605,-2.77556e-17,0,512,512
254.652,-2.77556e-17,0,512,512
254.71,-2.77556e-17,0,512,512
254.757,-2.77556e-17,0,512,512
254.804,-2.77556e-17,0,512,512
254.851,-2.77556e-17,0,512,512
254.909,-2.77556e-17,0,512,512
254.956,0,0,512,512
255.003,0,0,512,512
255.05,0,0,512,512
255.109,0,0,512,512
255.155,0,0,512,512
255.202,0,0,512,512
255.261,0,0,512,512
255.308,0,0,512,512
255.355,0,0,512,512
255.402,0,0,512,512
255.46,0,0,512,512
255.507,0,0,512,512
255.554,0,0,512,512
255.601,0,0,512,512
255.659,0,0,512,512
255.706,0,0,512,512
255.753,0,0,512,512
255.812,0,0,512,512
255.859,0,0,512,512
255.905,0,0,512,512
255.952,0,0,512,512
256.011,0,0,512,512
256.058,0,0,512,512
256.105,0,0,512,512
256.151,0,0,512,512
256.21,0,0,512,512
256.257,0,0,512,512
256.304,0,0,512,512
256.351,0,0,512,512
256.409,0,0,512,512
256.456,0,0,512,512
256.503,0,0,512,512
256.562,0,0,512,512
256.608,0,0,512,512
256.655,0,0,512,512
256.702,0,0,512,512
256.761,0,0,512,512
256.808,0,0,512,512
256.854,0,0,512,512
256.901,0,0,512,512
256.96,0,0,512,512
257.007,0,0,512,512
257.054,0,0,512,512
257.101,0,0,512,512
257.159,0,0,512,512
257.206,0,0,512,512
257.253,0,0,512,512
257.311,0,0,512,512
257.358,0,0,512,512
257.405,0,0,512,512
257.452,0,0,512,512
257.511,0,0,512,512
257.557,0,0,512,512
257.604,0,0,512,512
257.651,0,0,512,512
257.71,0,0,512,512
257.757,0,0,512,512
257.804,0,0,512,512
257.85,0,0,512,512
257.909,0,0,512,512
257.956,0,0,512,512
258.003,0,0,512,512
258.061,0,0,512,512
258.108,0,0,512,512
258.155,0,0,512,512
258.202,0,0,512,512
258.261,0,0,512,512
258.307,0,0,512,512
258.354,0,0,512,512
258.401,0,0,512,512
258.46,0,0,512,512
258.507,0,0,512,512
258.553,0,0,512,512
258.6,0,0,512,512
258.659,0,0,512,512
258.706,0,0,512,512
258.753,0,0,512,512
258.811,0,0,512,512
258.858,0,0,512,512
258.905,0,0,512,512
258.952,0,0,512,512
259.01,0,0,512,512
259.057,0,0,512,512
259.104,0,0,512,512
259.151,0,0,512,512
259.21,0,0,512,512
259.256,0,0,512,512
259.303,0,0,512,512
259.35,0,0,512,512
259.409,0,0,512,512
259.456,0,0,512,512
259.503,0,0,512,512
259.561,0,0,512,512
259.608,0,0,512,512
259.655,0,0,512,512
259.702,0,0,512,512
259.76,0,0,512,512
259.807,0,0,512,512
259.854,0,0,512,512
259.901,0,0,512,512
259.959,0,0,512,512
260.006,0,0,512,512
260.053,0,0,512,512
260.1,0,0,512,512
260.159,0,0,512,512
260.206,0,0,512,512
260.252,0,0,512,512
260.311,0,0,512,512
260.358,0,0,512,512
260.405,0,0,512,512
260.452,0,0,512,512
260.51,0,0,512,512
260.557,0,0,512,512
260.604,0,0,512,512
260.651,0,0,512,512
260.709,0,0,512,512
260.756,0,0,512,512
260.803,0,0,512,512
260.862,0,0,512,512
260.909,0,0,512,512
260.955,0,0,512,512
261.002,0,0,512,512
261.061,0,0,512,512
261.108,0,0,512,512
261.155,0,0,512,512
261.201,0,0,512,512
261.26,0,0,512,512
261.307,0,0,512,512
261.354,0,0,512,512
261.401,0,0,512,512
261.459,0,0,512,512
261.506,0,0,512,512
261.553,0,0,512,512
261.612,0,0,512,512
261.658,0,0,512,512
261.705,0,0,512,512
261.752,0,0,512,512
261.811,0,0,512,512
261.858,0,0,512,512
261.905,0,0,512,512
261.951,0,0,512,512
262.01,0,0,512,512
262.057,0,0,512,512
262.104,0,0,512,512
262.151,0,0,512,512
262.209,0,0,512,512
262.256,0,0,512,512
262.303,0,0,512,512
262.361,0,0,512,512
262.408,0,0,512,512
262.455,0,0,512,512
262.502,0,0,512,512
262.561,0,0,512,512
262.608,0,0,512,512
262.654,0,0,512,512
262.701,0,0,512,512
262.76,0,0,512,512
262.807,0,0,512,512
262.854,0,0,512,512
262.9,0,0,512,512
262.959,0,0,512,512
263.006,0,0,512,512
263.053,0,0,512,512
263.111,0,0,512,512
263.158,0,0,512,512
263.205,0,0,512,512
263.252,0,0,512,512
263.311,0,0,512,512
263.357,0,0,512,512
263.404,0,0,512,512
263.451,0,0,512,512
263.51,0,0,512,512
263.557,0,0,512,512
263.603,0,0,512,512
263.65,0,0,512,512
263.709,-1.38778e-17,0,512,512
263.756,-1.38778e-17,0,512,512
263.803,-2.77556e-17,0,512,512
263.861,-2.77556e-17,0,512,512
263.908,-2.77556e-17,0,512,512
263.955,-2.77556e-17,0,512,512
264.002,-2.77556e-17,0,512,512
264.06,-2.77556e-17,0,512,512
264.107,-1.38778e-17,0,512,512
264.154,-1.38778e-17,0,512,512
264.201,-1.38778e-17,0,512,512
264.26,-1.38778e-17,0,512,512
264.306,-1.38778e-17,0,512,512
264.353,-1.38778e-17,0,512,512
264.4,-1.38778e-17,0,512,512
264.459,-1.38778e-17,0,512,512
264.506,-1.38778e-17,0,512,512
264.553,-1.38778e-17,0,512,512
264.611,-1.38778e-17,0,512,512
264.658,-1.38778e-17,0,512,512
264.705,-1.38778e-17,0,512,512
264.752,-1.38778e-17,0,512,512
264.81,-1.38778e-17,0,512,512
264.857,-1.38778e-17,0,512,512
264.904,-1.38778e-17,0,512,512
264.951,-1.38778e-17,0,512,512
265.01,-1.38778e-17,0,512,512
265.056,-1.38778e-17,0,512,512
265.103,-1.38778e-17,0,512,512
265.15,-1.38778e-17,0,512,512
265.209,-1.38778e-17,0,512,512
265.256,-1.38778e-17,0,512,512
265.302,-1.38778e-17,0,512,512
265.361,-1.38778e-17,0,512,512
265.408,-1.38778e-17,0,512,512
265.455,0,0,512,512
265.502,0,0,512,512
265.56,0,0,512,512
265.607,0,0,512,512
265.654,0,0,512,512
265.701,0,0,512,512
265.759,0,0,512,512
265.806,0,0,512,512
265.853,0,0,512,512
265.9,0,0,512,512
265.959,0,0,512,512
266.005,0,0,512,512
266.052,0,0,512,512
266.111,0,0,512,512
266.158,0,0,512,512
266.205,0,0,512,512
266.252,0,0,512,512
266.31,0,0,512,512
266.357,0,0,512,512
266.404,0,0,512,512
266.451,0,0,512,512
266.509,0,0,512,512
266.556,0,0,512,512
266.603,0,0,512,512
266.662,0,0,512,512
266.708,0,0,512,512
266.755,0,0,512,512
266.802,0,0,512,512
266.861,0,0,512,512
266.908,0,0,512,512
266.955,0,0,512,512
267.001,0,0,512,512
267.06,0,0,512,512
267.107,0,0,512,512
267.154,0,0,512,512
267.201,0,0,512,512
267.259,0,0,512,512
267.306,0,0,512,512
267.353,0,0,512,512
267.412,0,0,512,512
267.458,0,0,512,512
267.505,0,0,512,512
267.552,0,0,512,512
267.611,0,0,512,512
267.658,0,0,512,512
267.704,0,0,512,512
267.751,0,0,512,512
267.81,0,0,512,512
267.857,0,0,512,512
267.904,0,0,512,512
267.95,0,0,512,512
268.009,0,0,512,512
268.056,1.38778e-17,0,512,512
268.105,1.38778e-17,0,519,519
268.152,1.38778e-17,0,531,531
268.205,1.38778e-17,0,529,529
268.252,1.38778e-17,0,541,541
268.304,1.38778e-17,0,549,549
268.351,1.38778e-17,0,550,550
268.404,1.38778e-17,0,551,551
268.451,1.38778e-17,0,543,543
268.504,1.38778e-17,0,539,539
268.55,1.38778e-17,0,540,540
268.603,1.38778e-17,0,545,545
268.65,1.38778e-17,0,543,543
268.703,1.38778e-17,0,544,544
268.756,1.38778e-17,0,547,547
268.807,1.38778e-17,0,543,543
268.857,1.38778e-17,0,540,540
268.907,1.38778e-17,0,539,539
268.956,1.38778e-17,0,533,533
269.006,1.38778e-17,0,528,528
269.056,1.38778e-17,0,526,526
269.106,1.38778e-17,0,524,524
269.155,1.38778e-17,0,522,522
269.205,1.38778e-17,0,516,516
269.255,1.38778e-17,0,514,514
269.304,1.38778e-17,0,514,514
269.36,0,0,512,512
269.406,0,0,512,512
269.452,1.38778e-17,0,521,521
269.505,1.38778e-17,0,527,527
269.552,1.38778e-17,0,531,531
269.605,1.38778e-17,0,541,541
269.651,1.38778e-17,0,553,553
269.704,1.38778e-17,0,565,565
269.751,1.38778e-17,0,571,571
269.804,1.38778e-17,0,579,579
269.851,1.38778e-17,0,589,589
269.903,1.38778e-17,0,589,589
269.95,1.38778e-17,0,597,597
270.003,1.38778e-17,0,609,609
270.056,1.38778e-17,0,621,621
270.103,1.38778e-17,0,627,627
270.155,1.38778e-17,0,639,639
270.202,1.38778e-17,0,645,645
270.255,1.38778e-17,0,657,657
270.302,1.38778e-17,0,669,669
270.354,1.38778e-17,0,675,675
270.401,1.38778e-17,0,687,687
270.454,1.38778e-17,0,699,699
270.501,1.38778e-17,0,705,705
270.554,1.38778e-17,0,713,713
270.601,1.38778e-17,0,721,721
270.653,1.38778e-17,0,731,731
270.7,1.38778e-17,0,737,737
270.753,1.38778e-17,0,741,741
270.806,1.38778e-17,0,753,753
270.852,1.38778e-17,0,759,759
270.905,1.38778e-17,0,771,771
270.952,1.38778e-17,0,783,783
271.005,1.38778e-17,0,789,789
271.052,1.38778e-17,0,801,801
271.104,1.38778e-17,0,813,813
271.151,1.38778e-17,0,819,819
271.204,1.38778e-17,0,831,831
271.251,1.38778e-17,0,839,839
271.304,1.38778e-17,0,849,849
271.35,1.38778e-17,0,857,857
271.403,1.38778e-17,0,865,865
271.45,1.38778e-17,0,875,875
271.503,1.38778e-17,0,881,881
271.555,1.38778e-17,0,891,891
271.602,1.38778e-17,0,897,897
271.655,1.38778e-17,0,909,909
271.702,1.38778e-17,0,921,921
271.755,1.38778e-17,0,927,927
271.802,1.38778e-17,0,939,939
271.854,1.38778e-17,0,951,951
271.901,1.38778e-17,0,959,959
271.954,1.38778e-17,0,969,969
272.001,1.38778e-17,0,981,981
272.053,1.38778e-17,0,993,993
272.1,1.38778e-17,0,999,999
272.153,1.38778e-17,0,1011,1011
272.206,1.38778e-17,0,1023,1023
272.253,1.38778e-17,0,1035,1035
272.305,1.38778e-17,0,1047,1047
272.352,1.38778e-17,0,1053,1053
272.405,1.38778e-17,0,1065,1065
272.452,1.38778e-17,0,1077,1077
272.505,1.38778e-17,0,1083,1083
272.551,1.38778e-17,0,1095,1095
272.604,1.38778e-17,0,1107,1107
272.651,1.38778e-17,0,1113,1113
272.704,1.38778e-17,0,1125,1125
272.751,1.38778e-17,0,1137,1137
272.803,1.38778e-17,0,1149,1149
272.85,1.38778e-17,0,1155,1155
272.903,1.38778e-17,0,1167,1167
272.956,1.38778e-17,0,1179,1179
273.002,1.38778e-17,0,1185,1185
273.055,1.38778e-17,0,1197,1197
273.102,1.38778e-17,0,1203,1203
273.155,1.38778e-17,0,1215,1215
273.202,1.38778e-17,0,1227,1227
273.254,1.38778e-17,0,1233,1233
273.301,1.38778e-17,0,1245,1245
273.354,1.38778e-17,0,1251,1251
273.401,1.38778e-17,0,1263,1263
273.454,1.38778e-17,0,1275,1275
273.5,1.38778e-17,0,1281,1281
273.553,1.38778e-17,0,1293,1293
273.6,1.38778e-17,0,1299,1299
273.653,1.38778e-17,0,1311,1311
273.706,1.38778e-17,0,1308,1308
273.752,1.38778e-17,0,1312,1312
273.805,1.38778e-17,0,1320,1320
273.852,1.38778e-17,0,1318,1318
273.905,1.38778e-17,0,1330,1330
273.952,1.38778e-17,0,1336,1336
274.004,1.38778e-17,0,1349,1349
274.051,1.38778e-17,0,1367,1367
274.104,1.38778e-17,0,1382,1382
274.151,1.38778e-17,0,1393,1393
274.203,1.38778e-17,0,1405,1405
274.25,1.38778e-17,0,1411,1411
274.303,1.38778e-17,0,1423,1423
274.356,0,0,1415,1415
274.403,-8.32667e-17,0,1431,1431
274.455,-2.08167e-16,0,1433,1433
274.502,-3.19189e-16,0,1435,1435
274.555,-5.68989e-16,0,1453,1453
274.602,-9.85323e-16,0,1457,1457
274.655,-1.94289e-15,0,1463,1463
274.701,-3.71925e-15,0,1465,1465
274.754,-7.78544e-15,0,1459,1459
274.801,-1.4766e-14,0,1455,1455
274.854,-2.96013e-14,0,1457,1457
274.901,-5.34572e-14,0,1451,1451
274.953,-1.00767e-13,0,1447,1447
275,-1.72154e-13,0,1445,1445
275.053,-3.0477e-13,0,1441,1441
275.106,-5.22263e-13,0,1441,1441
275.153,-8.20496e-13,0,1443,1443
275.205,-1.32368e-12,0,1431,1431
275.252,-1.97264e-12,0,1413,1413
275.305,-3.0019e-12,0,1395,1395
275.352,-4.25095e-12,0,1391,1391
275.404,-6.11326e-12,0,1381,1381
275.451,-8.23844e-12,0,1375,1375
275.504,-1.12139e-11,0,1371,1371
275.551,-1.44004e-11,0,1359,1359
275.604,-1.85764e-11,0,1351,1351
275.651,-2.27522e-11,0,1341,1341
275.703,-2.78372e-11,0,1337,1337
275.75,-3.25317e-11,0,1321,1321
275.803,-3.77521e-11,0,1311,1311
275.856,-4.25849e-11,0,1297,1297
275.902,-4.62607e-11,0,1285,1285
275.955,-4.93662e-11,0,1277,1277
276.002,-5.09506e-11,0,1261,1261
276.055,-5.11568e-11,0,1247,1247
276.105,-4.96733e-11,0,1245,1245
276.154,-4.64882e-11,0,1235,1235
276.204,-4.16159e-11,0,1233,1233
276.254,-3.51732e-11,0,1229,1229
276.304,-2.73649e-11,0,1223,1223
276.355,-1.84734e-11,0,1215,1215
276.405,-8.83739e-12,0,1211,1211
276.456,1.18536e-12,0,1208,1208
276.5,9.98371e-12,0,1202,1202
276.551,1.97812e-11,0,1202,1202
276.602,2.90342e-11,0,1196,1196
276.654,3.75458e-11,0,1200,1200
276.705,4.52109e-11,0,1194,1194
276.75,5.12204e-11,0,1192,1192
276.802,5.73881e-11,0,1192,1192
276.854,6.30155e-11,0,1192,1192
276.906,6.84449e-11,0,1186,1186
276.952,7.34033e-11,0,1192,1192
277.005,7.9875e-11,0,1188,1188
277.051,8.68659e-11,0,1186,1186
277.104,9.73512e-11,0,1192,1192
277.157,1.119e-10,0,1190,1190
277.203,1.29471e-10,0,1196,1196
277.256,1.57296e-10,0,1208,1208
277.303,1.90811e-10,0,1214,1214
277.356,2.43154e-10,0,1220,1220
277.402,3.04835e-10,0,1230,1230
277.455,3.98486e-10,0,1242,1242
277.502,5.05365e-10,0,1250,1250
277.555,6.6149e-10,0,1258,1258
277.602,8.31381e-10,0,1266,1266
277.655,1.06284e-09,0,1276,1276
277.701,1.33751e-09,0,1288,1288
277.753,2.4115e-09,0,1298,1298
277.805,3.93855e-09,0,1310,1310
277.851,5.7252e-09,0,1322,1322
277.902,8.28525e-09,0,1332,1332
277.954,1.14705e-08,0,1344,1344
278.006,1.52368e-08,0,1358,1358
278.051,1.89892e-08,0,1372,1372
278.102,2.38185e-08,0,1381,1381
278.153,2.92969e-08,0,1393,1393
278.203,3.55355e-08,0,1403,1403
278.254,4.27366e-08,0,1407,1407
278.305,5.11968e-08,0,1403,1403
278.355,6.12802e-08,0,1397,1397
278.405,7.34005e-08,0,1397,1397
278.455,8.8011e-08,0,1397,1397
278.505,1.05584e-07,0,1387,1387
278.555,1.26562e-07,0,1351,1351
278.604,1.51349e-07,0,1339,1339
278.654,1.80306e-07,0,1311,1311
278.703,2.13704e-07,0,1299,1299
278.752,2.51712e-07,0,1277,1277
278.801,2.94339e-07,0,1265,1265
278.856,3.47644e-07,0,1247,1247
278.904,3.99428e-07,0,1231,1231
278.953,4.54848e-07,0,1227,1227
279.001,5.13236e-07,0,1215,1215
279.055,5.8142e-07,0,1203,1203
279.103,6.43178e-07,0,1201,1201
279.151,7.04917e-07,0,1199,1199
279.205,7.73049e-07,0,1195,1195
279.252,8.31298e-07,0,1191,1191
279.306,8.93092e-07,0,1191,1191
279.353,9.43966e-07,0,1185,1185
279.4,9.90565e-07,0,1173,1173
279.453,1.03769e-06,0,1159,1159
279.506,1.07936e-06,0,1149,1149
279.552,1.1121e-06,0,1139,1139
279.605,1.14452e-06,0,1133,1133
279.652,1.16977e-06,0,1125,1125
279.705,1.19454e-06,0,1115,1115
279.752,1.2136e-06,0,1103,1103
279.804,1.23193e-06,0,1115,1115
279.851,1.24557e-06,0,1123,1123
279.904,1.25804e-06,0,1143,1143
279.951,1.26669e-06,0,1153,1153
280.004,1.2738e-06,0,1161,1161
280.05,1.27796e-06,0,1169,1169
280.103,1.28036e-06,0,1181,1181
280.15,1.28059e-06,0,1193,1193
280.203,1.27876e-06,0,1197,1197
280.256,1.27464e-06,0,1209,1209
280.302,1.26888e-06,0,1219,1219
280.355,1.25975e-06,0,1227,1227
280.402,1.24898e-06,0,1237,1237
280.455,1.23354e-06,0,1243,1243
280.502,1.2166e-06,0,1251,1251
280.554,1.19372e-06,0,1259,1259
280.601,1.1699e-06,0,1273,1273
280.654,1.13914e-06,0,1281,1281
280.701,1.10829e-06,0,1285,1285
280.753,1.06967e-06,0,1299,1299
280.8,1.0319e-06,0,1305,1305
280.853,9.85601e-07,0,1307,1307
280.906,9.35402e-07,0,1319,1319
280.953,8.87685e-07,0,1331,1331
281.005,8.3082e-07,0,1343,1343
281.052,7.77786e-07,0,1345,1345
281.105,7.15863e-07,0,1357,1357
281.152,6.59383e-07,0,1364,1364
281.205,5.94988e-07,0,1356,1356
281.251,5.37677e-07,0,1362,1362
281.304,4.73946e-07,0,1370,1370
281.351,4.18649e-07,0,1360,1360
281.404,3.58722e-07,0,1366,1366
281.451,3.08061e-07,0,1370,1370
281.503,2.54558e-07,0,1374,1374
281.55,2.10461e-07,0,1368,1368
281.603,1.65018e-07,0,1372,1372
281.656,1.24123e-07,0,1376,1376
281.703,9.15902e-08,0,1384,1384
281.755,5.91807e-08,0,1376,1376
281.802,3.39343e-08,0,1382,1382
281.855,9.29175e-09,0,1382,1382
281.902,-9.51334e-09,0,1388,1388
281.954,-2.74829e-08,0,1388,1388
282.001,-4.08828e-08,0,1388,1388
282.054,-5.33583e-08,0,1392,1392
282.101,-6.23772e-08,0,1400,1400
282.154,-7.04578e-08,0,1396,1396
282.201,-7.60129e-08,0,1398,1398
282.253,-8.06551e-08,0,1402,1402
282.3,-8.35267e-08,0,1404,1404
282.353,-8.55272e-08,0,1402,1402
282.406,-8.63906e-08,0,1408,1408
282.452,-8.63188e-08,0,1414,1414
282.505,-8.5407e-08,0,1410,1410
282.552,-8.3944e-08,0,1416,1416
282.602,-8.17949e-08,0,1418,1418
282.653,-7.90066e-08,0,1426,1426
282.705,-7.57371e-08,0,1434,1434
282.756,-7.20841e-08,0,1441,1441
282.8,-6.86579e-08,0,1445,1445
282.851,-6.45665e-08,0,1457,1457
282.902,-6.03847e-08,0,1469,1469
282.952,-5.62054e-08,0,1481,1481
283.003,-5.21123e-08,0,1487,1487
283.053,-4.81738e-08,0,1493,1493
283.103,-4.44391e-08,0,1505,1505
283.153,-4.09468e-08,0,1517,1517
283.202,-3.77206e-08,0,1527,1527
283.252,-3.47745e-08,0,1535,1535
283.301,-3.21129e-08,0,1545,1545
283.35,-2.97328e-08,0,1553,1553
283.405,-2.73797e-08,0,1565,1565
283.454,-2.5564e-08,0,1577,1577
283.503,-2.39923e-08,0,1585,1585
283.551,-2.26488e-08,0,1578,1578
283.606,-2.1388e-08,0,1582,1582
283.654,-2.04704e-08,0,1590,1590
283.702,-1.97257e-08,0,1599,1599
283.756,-1.90722e-08,0,1613,1613
283.804,-1.8636e-08,0,1619,1619
283.851,-1.83136e-08,0,1623,1623
283.905,-1.80595e-08,0,1629,1629
283.952,-1.79372e-08,0,1641,1641
284.005,-1.78946e-08,0,1649,1649
284.052,-1.79913e-08,0,1653,1653
284.105,-1.81195e-08,0,1659,1659
284.152,-1.82656e-08,0,1665,1665
284.204,-1.84546e-08,0,1671,1671
284.251,-1.86462e-08,0,1673,1673
284.304,-1.88761e-08,0,1677,1677
284.351,-1.90958e-08,0,1679,1679
284.403,-1.93558e-08,0,1685,1685
284.45,-1.95924e-08,0,1683,1683
284.503,-1.98627e-08,0,1685,1685
284.556,-2.01335e-08,0,1691,1691
284.603,-2.03699e-08,0,1695,1695
284.655,-2.06273e-08,0,1697,1697
284.702,-2.08463e-08,0,1697,1697
284.755,-2.10794e-08,0,1697,1697
284.802,-2.12735e-08,0,1697,1697
284.855,-2.14767e-08,0,1694,1694
284.901,-2.16433e-08,0,1694,1694
284.954,-2.18149e-08,0,1688,1688
285.001,-2.19539e-08,0,1690,1690
285.054,-2.20958e-08,0,1692,1692
285.101,-2.22102e-08,0,1698,1698
285.153,-2.23272e-08,0,1718,1718
285.2,-2.24224e-08,0,1736,1736
285.253,-2.25189e-08,0,1746,1746
285.306,-2.26028e-08,0,1752,1752
285.353,-2.26678e-08,0,1758,1758
285.405,-2.27345e-08,0,1762,1762
285.452,-2.27931e-08,0,1778,1778
285.505,-2.28604e-08,0,1792,1792
285.552,-2.29229e-08,0,1808,1808
285.604,-2.29979e-08,0,1824,1824
285.651,-2.30702e-08,0,1828,1828
285.704,-2.31596e-08,0,1841,1841
285.751,-2.32482e-08,0,1851,1851
285.804,-2.33604e-08,0,1851,1851
285.85,-2.34734e-08,0,1845,1845
285.903,-2.3618e-08,0,1849,1849
285.95,-2.37637e-08,0,1843,1843
286.003,-2.39488e-08,0,1847,1847
286.056,-2.41585e-08,0,1843,1843
286.102,-2.43668e-08,0,1843,1843
286.155,-2.46237e-08,0,1847,1847
286.202,-2.48676e-08,0,1841,1841
286.255,-2.51543e-08,0,1833,1833
286.302,-2.54656e-08,0,1835,1835
286.354,-2.59029e-08,0,1831,1831
286.401,-2.62943e-08,0,1837,1837
286.454,-2.67458e-08,0,1828,1828
286.501,-2.71882e-08,0,1824,1824
286.553,-2.77284e-08,0,1810,1810
286.6,-2.82359e-08,0,1790,1790
286.653,-2.88361e-08,0,1774,1774
286.706,-2.95184e-08,0,1764,1764
286.753,-3.01125e-08,0,1746,1746
286.805,-3.08044e-08,0,1746,1746
286.852,-3.14166e-08,0,1722,1722
286.905,-3.21318e-08,0,1710,1710
286.952,-3.27696e-08,0,1696,1696
287.005,-3.34963e-08,0,1684,1684
287.051,-3.41545e-08,0,1672,1672
287.104,-3.48972e-08,0,1656,1656
287.151,-3.5557e-08,0,1648,1648
287.204,-3.62994e-08,0,1630,1630
287.251,-3.69612e-08,0,1620,1620
287.303,-3.77079e-08,0,1614,1614
287.35,-3.83716e-08,0,1602,1602
287.403,-3.91146e-08,0,1596,1596
287.456,-3.98506e-08,0,1588,1588
287.503,-4.04966e-08,0,1578,1578
287.555,-4.12114e-08,0,1568,1568
287.602,-4.18347e-08,0,1564,1564
287.655,-4.25203e-08,0,1554,1554
287.702,-4.31146e-08,0,1548,1548
287.754,-4.37649e-08,0,1540,1540
287.801,-4.43253e-08,0,1530,1530
287.854,-4.49337e-08,0,1520,1520
287.901,-4.54522e-08,0,1518,1518
287.954,-4.60076e-08,0,1508,1508
288.001,-4.64747e-08,0,1504,1504
288.053,-4.69692e-08,0,1494,1494
288.1,-4.73806e-08,0,1488,1488
288.153,-4.78114e-08,0,1482,1482
288.206,-4.82072e-08,0,1476,1476
288.252,-4.85284e-08,0,1472,1472
288.305,-4.88538e-08,0,1472,1472
288.352,-4.91103e-08,0,1454,1454
288.405,-4.93611e-08,0,1441,1441
288.452,-4.95504e-08,0,1437,1437
288.504,-4.97255e-08,0,1431,1431
288.551,-4.9847e-08,0,1433,1433
288.604,-4.99731e-08,0,1431,1431
288.651,-5.01339e-08,0,1429,1429
288.704,-5.01016e-08,0,1429,1429
288.75,-5.00881e-08,0,1431,1431
288.803,-5.00351e-08,0,1425,1425
288.85,-4.99528e-08,0,1427,1427
288.903,-4.98416e-08,0,1421,1421
288.955,-4.97162e-08,0,1423,1423
289.002,-4.95826e-08,0,1434,1434
289.055,-4.94115e-08,0,1432,1432
289.102,-4.92489e-08,0,1454,1454
289.155,-4.90541e-08,0,1472,1472
289.202,-4.88708e-08,0,1474,1474
289.254,-4.86574e-08,0,1484,1484
289.301,-4.84625e-08,0,1492,1492
289.354,-4.82376e-08,0,1498,1498
289.401,-4.80352e-08,0,1468,1468
289.453,-4.78068e-08,0,1440,1440
289.5,-4.76033e-08,0,1430,1430
289.553,-4.73737e-08,0,1422,1422
289.606,-4.71437e-08,0,1410,1410
289.653,-4.69396e-08,0,1404,1404
289.705,-4.67113e-08,0,1394,1394
289.752,-4.65102e-08,0,1380,1380
289.805,-4.6287e-08,0,1368,1368
289.852,-4.6092e-08,0,1356,1356
289.905,-4.58768e-08,0,1352,1352
289.951,-4.56898e-08,0,1346,1346
290.004,-4.54844e-08,0,1338,1338
290.051,-4.53066e-08,0,1326,1326
290.104,-4.51119e-08,0,1312,1312
290.151,-4.49436e-08,0,1296,1296
290.203,-4.47596e-08,0,1274,1274
290.25,-4.46006e-08,0,1244,1244
290.303,-4.44266e-08,0,1210,1210
290.356,-4.42576e-08,0,1178,1178
290.403,-4.41112e-08,0,1120,1120
290.455,-4.39504e-08,0,1094,1094
290.502,-4.38106e-08,0,1054,1054
290.555,-4.36565e-08,0,1014,1014
290.602,-4.3522e-08,0,996,996
290.654,-4.33728e-08,0,972,972
290.701,-4.32419e-08,0,948,948
290.754,-4.3096e-08,0,914,914
290.801,-4.29671e-08,0,918,918
290.854,-4.28226e-08,0,964,964
290.901,-4.26942e-08,0,982,982
290.953,-4.25494e-08,0,994,994
291,-4.242e-08,0,978,978
291.053,-4.22734e-08,0,962,962
291.106,-4.21251e-08,0,962,962
291.152,-4.19916e-08,0,952,952
291.205,-4.18392e-08,0,976,976
291.252,-4.17013e-08,0,980,980
291.305,-4.15433e-08,0,988,988
291.352,-4.13999e-08,0,992,992
291.404,-4.1235e-08,0,992,992
291.451,-4.10848e-08,0,992,992
291.504,-4.09115e-08,0,996,996
291.551,-4.07533e-08,0,992,992
291.604,-4.05703e-08,0,994,994
291.65,-4.04027e-08,0,1000,1000
291.703,-4.02084e-08,0,994,994
291.756,-4.00073e-08,0,998,998
291.803,-3.98225e-08,0,1006,1006
291.855,-3.96075e-08,0,1010,1010
291.902,-3.94098e-08,0,1010,1010
291.955,-3.91796e-08,0,1026,1026
292.002,-3.89679e-08,0,1036,1036
292.055,-3.87212e-08,0,1026,1026
292.101,-3.84936e-08,0,1020,1020
292.156,-3.82183e-08,0,1016,1016
292.203,-3.79707e-08,0,1015,1015
292.257,-3.7677e-08,0,1019,1019
292.304,-3.74133e-08,0,1021,1021
292.351,-3.71533e-08,0,1025,1025
292.405,-3.68166e-08,0,1029,1029
292.452,-3.64682e-08,0,1039,1039
292.505,-3.60477e-08,0,1041,1041
292.552,-3.56763e-08,0,1051,1051
292.603,-3.52544e-08,0,1051,1051
292.655,-3.4817e-08,0,1065,1065
292.706,-3.43577e-08,0,1071,1071
292.751,-3.39368e-08,0,1059,1059
292.802,-3.34332e-08,0,1051,1051
292.853,-3.29066e-08,0,1047,1047
292.904,-3.23595e-08,0,1027,1027
292.954,-3.17971e-08,0,1025,1025
293.005,-3.12429e-08,0,1025,1025
293.055,-3.05619e-08,0,1009,1009
293.105,-2.98192e-08,0,1037,1037
293.155,-2.89953e-08,0,1033,1033
293.205,-2.81656e-08,0,1027,1027
293.255,-2.73204e-08,0,1023,1023
293.304,-2.64672e-08,0,1023,1023
293.353,-2.55981e-08,0,1015,1015
293.403,-2.47072e-08,0,1019,1019
293.452,-2.37922e-08,0,1021,1021
293.5,-2.28522e-08,0,1023,1023
293.555,-2.17648e-08,0,1023,1023
293.604,-2.07761e-08,0,1013,1013
293.652,-1.9775e-08,0,1003,1003
293.7,-1.87691e-08,0,1005,1005
293.754,-1.76385e-08,0,1001,1001
293.802,-1.66382e-08,0,1001,1001
293.85,-1.5645e-08,0,1003,1003
293.904,-1.45412e-08,0,993,993
293.951,-1.35747e-08,0,993,993
294.005,-1.25045e-08,0,993,993
294.052,-1.15652e-08,0,999,999
294.105,-1.05154e-08,0,995,995
294.152,-9.58428e-09,0,995,995
294.204,-8.53851e-09,0,995,995
294.251,-7.61419e-09,0,985,985
294.304,-6.58847e-09,0,985,985
294.351,-5.69581e-09,0,991,991
294.404,-4.71826e-09,0,991,991
294.45,-3.87527e-09,0,987,987
294.503,-2.95666e-09,0,987,987
294.55,-2.16629e-09,0,987,987
294.603,-1.3062e-09,0,989,989
294.655,-4.77111e-10,0,981,981
294.702,2.33003e-10,0,987,987
294.755,1.00018e-09,0,987,987
294.802,1.65244e-09,0,987,987
294.855,2.35106e-09,0,987,987
294.902,2.93923e-09,0,987,987
294.954,3.56203e-09,0,989,989
295.001,4.07928e-09,0,983,983
295.054,4.61828e-09,0,987,987
295.101,5.05772e-09,0,987,987
295.153,5.50621e-09,0,989,989
295.2,5.86365e-09,0,979,979
295.253,6.21977e-09,0,968,968
295.306,6.52858e-09,0,956,956
295.353,6.76519e-09,0,954,954
295.405,6.99125e-09,0,936,936
295.452,7.15756e-09,0,940,940
295.505,7.3118e-09,0,934,934
295.552,7.43807e-09,0,930,930
295.605,7.55684e-09,0,936,936
295.651,7.63555e-09,0,930,930
295.704,7.63707e-09,0,930,930
295.751,7.64881e-09,0,924,924
295.804,7.64328e-09,0,931,931
295.851,7.62994e-09,0,915,915
295.903,7.60569e-09,0,907,907
295.95,7.57455e-09,0,905,905
296.003,7.52875e-09,0,891,891
296.056,7.4729e-09,0,895,895
296.103,7.41509e-09,0,881,881
296.155,7.34129e-09,0,873,873
296.202,7.26888e-09,0,871,871
296.255,7.17977e-09,0,873,873
296.302,7.09399e-09,0,869,869
296.354,6.99127e-09,0,865,865
296.401,6.89524e-09,0,861,861
296.454,6.78265e-09,0,857,857
296.501,6.67921e-09,0,853,853
296.554,6.55995e-09,0,849,849
296.601,6.45225e-09,0,837,837
296.653,6.33037e-09,0,833,833
296.7,6.22239e-09,0,835,835
296.753,6.10207e-09,0,827,827
296.804,5.98612e-09,0,823,823
296.856,5.87273e-09,0,818,818
296.907,5.76247e-09,0,822,822
296.95,5.67074e-09,0,820,820
297.001,5.56759e-09,0,816,816
297.052,5.46875e-09,0,810,810
297.102,5.37442e-09,0,812,812
297.152,5.28484e-09,0,814,814
297.202,5.1999e-09,0,814,814
297.252,5.11956e-09,0,814,814
297.302,5.04382e-09,0,814,814
297.352,4.97232e-09,0,812,812
297.401,4.90478e-09,0,810,810
297.45,4.84096e-09,0,806,806
297.506,4.77209e-09,0,814,814
297.555,4.71515e-09,0,812,812
297.604,4.66122e-09,0,806,806
297.652,4.61023e-09,0,814,814
297.7,4.56207e-09,0,814,814
297.755,4.51054e-09,0,814,814
297.803,4.46863e-09,0,814,814
297.851,4.42965e-09,0,810,810
297.906,4.38885e-09,0,814,814
297.953,4.3566e-09,0,810,810
298,4.32776e-09,0,814,814
298.054,4.29919e-09,0,814,814
298.101,4.27828e-09,0,814,814
298.155,4.25937e-09,0,810,810
298.202,4.24736e-09,0,816,816
298.255,4.23903e-09,0,814,814
298.301,4.23657e-09,0,816,816
298.354,4.23933e-09,0,810,810
298.406,4.24796e-09,0,816,816
298.452,4.2602e-09,0,816,816
298.505,4.27932e-09,0,820,820
298.55,4.30026e-09,0,816,816
298.602,4.32868e-09,0,818,818
298.654,4.36145e-09,0,820,820
298.705,4.39804e-09,0,816,816
298.75,4.43272e-09,0,820,820
298.802,4.47488e-09,0,822,822
298.853,4.51913e-09,0,816,816
298.904,4.56479e-09,0,822,822
298.954,4.61123e-09,0,824,824
299.005,4.65775e-09,0,822,822
299.055,4.70381e-09,0,824,824
299.105,4.74884e-09,0,826,826
299.155,4.79236e-09,0,828,828
299.205,4.83391e-09,0,830,830
299.255,4.87308e-09,0,828,828
299.305,4.90959e-09,0,824,824
299.354,4.94318e-09,0,828,828
299.403,4.97366e-09,0,830,830
299.452,5.00088e-09,0,834,834
299.501,5.02475e-09,0,826,826
299.556,5.04756e-09,0,834,834
299.605,5.06425e-09,0,836,836
299.653,5.07761e-09,0,834,834
299.701,5.08771e-09,0,832,832
299.756,5.09529e-09,0,836,836
299.804,5.0988e-09,0,832,832
299.852,5.09941e-09,0,840,840
299.905,5.0968e-09,0,842,842
299.953,5.0917e-09,0,838,838
300,5.08416e-09,0,842,842
300.053,5.07292e-09,0,842,842
300.101,5.06065e-09,0,842,842
300.153,5.04445e-09,0,842,842
300.2,5.02806e-09,0,844,844
300.253,5.00751e-09,0,842,842
300.306,4.98486e-09,0,846,846
300.353,4.96309e-09,0,848,848
300.405,4.93689e-09,0,844,844
300.452,4.91217e-09,0,842,842
300.505,4.88288e-09,0,848,848
300.552,4.85561e-09,0,850,850
300.604,4.82365e-09,0,846,846
300.651,4.79417e-09,0,848,848
300.704,4.75989e-09,0,854,854
300.751,4.72848e-09,0,846,846
300.804,4.69218e-09,0,844,844
300.851,4.65911e-09,0,850,850
300.903,4.62104e-09,0,854,854
300.95,4.58648e-09,0,854,854
301.003,4.54683e-09,0,854,854
301.056,4.50642e-09,0,854,854
301.102,4.46986e-09,0,852,852
301.155,4.42807e-09,0,850,850
301.202,4.39033e-09,0,850,850
301.255,4.34722e-09,0,852,852
301.302,4.30835e-09,0,854,854
301.354,4.26399e-09,0,854,854
301.401,4.22401e-09,0,856,856
301.454,4.17843e-09,0,852,852
301.501,4.13738e-09,0,854,854
301.554,4.09059e-09,0,856,856
301.6,4.04849e-09,0,856,856
301.653,4.00053e-09,0,854,854
301.7,3.95738e-09,0,856,856
301.753,3.90827e-09,0,856,856
301.805,3.85857e-09,0,852,852
301.852,3.8139e-09,0,853,853
301.905,3.76313e-09,0,847,847
301.952,3.71754e-09,0,843,843
302.005,3.66578e-09,0,835,835
302.052,3.61936e-09,0,829,829
302.104,3.56672e-09,0,817,817
302.151,3.51958e-09,0,813,813
302.204,3.46619e-09,0,797,797
302.251,3.41844e-09,0,799,799
302.303,3.36443e-09,0,791,791
302.35,3.3162e-09,0,787,787
302.403,3.26172e-09,0,771,771
302.456,3.20705e-09,0,765,765
302.503,3.15833e-09,0,757,757
302.555,3.10342e-09,0,753,753
302.602,3.05455e-09,0,745,745
302.655,2.99956e-09,0,741,741
302.702,2.9507e-09,0,731,731
302.755,2.89579e-09,0,719,719
302.801,2.84706e-09,0,711,711
302.854,2.79237e-09,0,695,695
302.901,2.74391e-09,0,689,689
302.954,2.68957e-09,0,677,677
303.001,2.64147e-09,0,669,669
303.053,2.58761e-09,0,649,649
303.1,2.53997e-09,0,647,647
303.153,2.48668e-09,0,635,635
303.206,2.43372e-09,0,623,623
303.253,2.38694e-09,0,611,611
303.305,2.33466e-09,0,599,599
303.352,2.28852e-09,0,593,593
303.405,2.237e-09,0,581,581
303.452,2.19155e-09,0,571,571
303.504,2.14083e-09,0,561,561
303.551,2.0961e-09,0,547,547
303.604,2.04621e-09,0,535,535
303.651,2.00224e-09,0,525,525
303.704,1.9532e-09,0,517,517
303.76,1.90108e-09,0,512,512
303.807,1.85828e-09,0,512,512
303.854,1.81585e-09,0,512,512
303.901,1.77378e-09,0,512,512
303.959,1.72169e-09,0,512,512
304.006,1.68041e-09,0,512,512
304.053,1.63949e-09,0,512,512
304.1,1.59892e-09,0,512,512
304.159,1.54868e-09,0,512,512
304.205,1.50887e-09,0,512,512
304.252,1.4694e-09,0,512,512
304.311,1.42052e-09,0,512,512
304.358,1.38178e-09,0,512,512
304.405,1.34337e-09,0,512,512
304.452,1.30527e-09,0,512,512
304.51,1.25808e-09,0,512,512
304.557,1.22068e-09,0,512,512
304.604,1.18358e-09,0,512,512
304.651,1.14678e-09,0,512,512
304.709,1.10119e-09,0,512,512
304.756,1.06505e-09,0,512,512
304.803,1.02919e-09,0,512,512
304.862,9.84757e-10,0,512,512
304.908,9.49522e-10,0,512,512
304.955,9.14558e-10,0,512,512
