250,0,0,512,512
250.012,0,0,512,512
250.059,0,0,512,512
250.105,0,0,512,512
250.152,0,0,512,512
250.211,0,0,512,512
250.258,0,0,512,512
250.305,0,0,512,512
250.352,0,0,512,512
250.41,2.77556e-17,0,512,512
250.457,2.77556e-17,0,512,512
250.504,0,0,512,512
250.551,0,0,512,512
250.609,0,0,512,512
250.656,0,0,512,512
250.703,0,0,512,512
250.762,0,0,512,512
250.808,0,0,512,512
250.855,0,0,512,512
250.902,2.77556e-17,0,512,512
250.961,2.77556e-17,0,512,512
251.008,2.77556e-17,0,512,512
251.055,2.77556e-17,0,512,512
251.101,0,0,512,512
251.16,0,0,512,512
251.207,2.77556e-17,0,512,512
251.254,0,0,512,512
251.301,0,0,512,512
251.359,0,0,512,512
251.406,0,0,512,512
251.453,0,0,512,512
251.511,0,0,512,512
251.558,0,0,512,512
251.605,2.77556e-17,0,512,512
251.652,2.77556e-17,0,512,512
251.711,0,0,512,512
251.758,0,0,512,512
251.804,0,0,512,512
251.851,0,0,512,512
251.91,0,0,512,512
251.957,0,0,512,512
252.004,-2.77556e-17,0,512,512
252.05,-2.77556e-17,0,512,512
252.109,-2.77556e-17,0,512,512
252.156,0,0,512,512
252.203,0,0,512,512
252.261,0,0,512,512
252.308,0,0,512,512
252.355,2.77556e-17,0,512,512
252.402,2.77556e-17,0,512,512
252.461,0,0,512,512
252.507,0,0,512,512
252.554,0,0,512,512
252.601,0,0,512,512
252.66,0,0,512,512
252.707,0,0,512,512
252.754,0,0,512,512
252.8,0,0,512,512
252.859,2.77556e-17,0,512,512
252.906,0,0,512,512
252.953,0,0,512,512
253.011,0,0,512,512
253.058,0,0,512,512
253.105,0,0,512,512
253.152,0,0,512,512
253.21,0,0,512,512
253.257,0,0,512,512
253.304,2.77556e-17,0,512,512
253.351,2.77556e-17,0,512,512
253.41,0,0,512,512
253.457,0,0,512,512
253.503,0,0,512,512
253.55,2.77556e-17,0,512,512
253.609,2.77556e-17,0,512,512
253.656,2.77556e-17,0,512,512
253.703,2.77556e-17,0,512,512
253.761,0,0,512,512
253.808,0,0,512,512
253.855,0,0,512,512
253.902,-2.77556e-17,0,512,512
253.96,-2.77556e-17,0,512,512
254.007,0,0,512,512
254.054,0,0,512,512
254.101,-2.77556e-17,0,512,512
254.16,0,0,512,512
254.206,-2.77556e-17,0,512,512
254.253,0,0,512,512
254.3,0,0,512,512
254.359,0,0,512,512
254.406,0,0,512,512
254.452,0,0,512,512
254.511,-2.77556e-17,0,512,512
254.558,-2.77556e-17,0,512,512
254.605,-2.77556e-17,0,512,512
254.652,-2.77556e-17,0,512,512
254.71,-2.77556e-17,0,512,512
254.757,0,0,512,512
254.804,0,0,512,512
254.851,-2.77556e-17,0,512,512
254.909,-5.55112e-17,0,512,512
254.956,-2.77556e-17,0,512,512
255.003,-2.77556e-17,0,512,512
255.05,-2.77556e-17,0,512,512
255.109,-2.77556e-17,0,512,512
255.155,-2.77556e-17,0,512,512
255.202,-2.77556e-17,0,512,512
255.261,-2.77556e-17,0,512,512
255.308,-2.77556e-17,0,512,512
255.355,-2.77556e-17,0,512,512
255.402,-2.77556e-17,0,512,512
255.46,-2.77556e-17,0,512,512
255.507,-2.77556e-17,0,512,512
255.554,-2.77556e-17,0,512,512
255.601,0,0,512,512
255.659,0,0,512,512
255.706,0,0,512,512
255.753,0,0,512,512
255.812,0,0,512,512
255.859,0,0,512,512
255.905,2.77556e-17,0,512,512
255.952,0,0,512,512
256.011,0,0,512,512
256.058,0,0,512,512
256.105,0,0,512,512
256.151,0,0,512,512
256.21,0,0,512,512
256.257,2.77556e-17,0,512,512
256.304,2.77556e-17,0,512,512
256.351,0,0,512,512
256.409,0,0,512,512
256.456,0,0,512,512
256.503,0,0,512,512
256.562,0,0,512,512
256.608,0,0,512,512
256.655,-2.77556e-17,0,512,512
256.702,0,0,512,512
256.761,-2.77556e-17,0,512,512
256.808,0,0,512,512
256.854,-2.77556e-17,0,512,512
256.901,-2.77556e-17,0,512,512
256.96,-2.77556e-17,0,512,512
257.007,-2.77556e-17,0,512,512
257.054,0,0,512,512
257.101,-2.77556e-17,0,512,512
257.159,-2.77556e-17,0,512,512
257.206,0,0,512,512
257.253,0,0,512,512
257.311,0,0,512,512
257.358,2.77556e-17,0,512,512
257.405,2.77556e-17,0,512,512
257.452,0,0,512,512
257.511,0,0,512,512
257.557,0,0,512,512
257.604,0,0,512,512
257.651,0,0,512,512
257.71,-2.77556e-17,0,512,512
257.757,0,0,512,512
257.804,0,0,512,512
257.85,0,0,512,512
257.909,-2.77556e-17,0,512,512
257.956,-2.77556e-17,0,512,512
258.003,-2.77556e-17,0,512,512
258.061,0,0,512,512
258.108,0,0,512,512
258.155,0,0,512,512
258.202,0,0,512,512
258.261,0,0,512,512
258.307,-2.77556e-17,0,512,512
258.354,0,0,512,512
258.401,-2.77556e-17,0,512,512
258.46,-2.77556e-17,0,512,512
258.507,-2.77556e-17,0,512,512
258.553,-2.77556e-17,0,512,512
258.6,-2.77556e-17,0,512,512
258.659,-2.77556e-17,0,512,512
258.706,-5.55112e-17,0,512,512
258.753,-5.55112e-17,0,512,512
258.811,-5.55112e-17,0,512,512
258.858,-5.55112e-17,0,512,512
258.905,-2.77556e-17,0,512,512
258.952,0,0,512,512
259.01,0,0,512,512
259.057,-2.77556e-17,0,512,512
259.104,0,0,512,512
259.151,0,0,512,512
259.21,-2.77556e-17,0,512,512
259.256,-2.77556e-17,0,512,512
259.303,0,0,512,512
259.35,0,0,512,512
259.409,2.77556e-17,0,512,512
259.456,2.77556e-17,0,512,512
259.503,0,0,512,512
259.561,0,0,512,512
259.608,0,0,512,512
259.655,-2.77556e-17,0,512,512
259.702,-2.77556e-17,0,512,512
259.76,0,0,512,512
259.807,0,0,512,512
259.854,2.77556e-17,0,512,512
259.901,0,0,512,512
259.959,0,0,512,512
260.006,0,0,512,512
260.053,0,0,512,512
260.1,-2.77556e-17,0,512,512
260.159,-2.77556e-17,0,512,512
260.206,-2.77556e-17,0,512,512
260.252,-2.77556e-17,0,512,512
260.311,-2.77556e-17,0,512,512
260.358,-2.77556e-17,0,512,512
260.405,-2.77556e-17,0,512,512
260.452,-2.77556e-17,0,512,512
260.51,-2.77556e-17,0,512,512
260.557,-2.77556e-17,0,512,512
260.604,0,0,512,512
260.651,0,0,512,512
260.709,0,0,512,512
260.756,0,0,512,512
260.803,0,0,512,512
260.862,0,0,512,512
260.909,2.77556e-17,0,512,512
260.955,2.77556e-17,0,512,512
261.002,2.77556e-17,0,512,512
261.061,2.77556e-17,0,512,512
261.108,2.77556e-17,0,512,512
261.155,2.77556e-17,0,512,512
261.201,2.77556e-17,0,512,512
261.26,0,0,512,512
261.307,0,0,512,512
261.354,0,0,512,512
261.401,0,0,512,512
261.459,0,0,512,512
261.506,0,0,512,512
261.553,0,0,512,512
261.612,0,0,512,512
261.658,0,0,512,512
261.705,0,0,512,512
261.752,2.77556e-17,0,512,512
261.811,2.77556e-17,0,512,512
261.858,-2.77556e-17,0,512,512
261.905,0,0,512,512
261.951,0,0,512,512
262.01,0,0,512,512
262.057,0,0,512,512
262.104,0,0,512,512
262.151,0,0,512,512
262.209,0,0,512,512
262.256,2.77556e-17,0,512,512
262.303,2.77556e-17,0,512,512
262.361,0,0,512,512
262.408,0,0,512,512
262.455,0,0,512,512
262.502,0,0,512,512
262.561,0,0,512,512
262.608,2.77556e-17,0,512,512
262.654,2.77556e-17,0,512,512
262.701,2.77556e-17,0,512,512
262.76,2.77556e-17,0,512,512
262.807,0,0,512,512
262.854,0,0,512,512
262.9,2.77556e-17,0,512,512
262.959,0,0,512,512
263.006,0,0,512,512
263.053,0,0,512,512
263.111,0,0,512,512
263.158,0,0,512,512
263.205,0,0,512,512
263.252,0,0,512,512
263.311,0,0,512,512
263.357,2.77556e-17,0,512,512
263.404,2.77556e-17,0,512,512
263.451,2.77556e-17,0,512,512
263.51,0,0,512,512
263.557,0,0,512,512
263.603,0,0,512,512
263.65,0,0,512,512
263.709,-2.77556e-17,0,512,512
263.756,-2.77556e-17,0,512,512
263.803,-2.77556e-17,0,512,512
263.861,0,0,512,512
263.908,0,0,512,512
263.955,2.77556e-17,0,512,512
264.002,0,0,512,512
264.06,0,0,512,512
264.107,0,0,512,512
264.154,0,0,512,512
264.201,0,0,512,512
264.26,0,0,512,512
264.306,2.77556e-17,0,512,512
264.353,2.77556e-17,0,512,512
264.4,2.77556e-17,0,512,512
264.459,2.77556e-17,0,512,512
264.506,2.77556e-17,0,512,512
264.553,2.77556e-17,0,512,512
264.611,2.77556e-17,0,512,512
264.658,2.77556e-17,0,512,512
264.705,2.77556e-17,0,512,512
264.752,2.77556e-17,0,512,512
264.81,2.77556e-17,0,512,512
264.857,2.77556e-17,0,512,512
264.904,2.77556e-17,0,512,512
264.951,2.77556e-17,0,512,512
265.01,2.77556e-17,0,512,512
265.056,2.77556e-17,0,512,512
265.103,2.77556e-17,0,512,512
265.15,2.77556e-17,0,512,512
265.209,2.77556e-17,0,512,512
265.256,2.77556e-17,0,512,512
265.302,2.77556e-17,0,512,512
265.361,5.55112e-17,0,512,512
265.408,5.55112e-17,0,512,512
265.455,5.55112e-17,0,512,512
265.502,5.55112e-17,0,512,512
265.56,2.77556e-17,0,512,512
265.607,2.77556e-17,0,512,512
265.654,2.77556e-17,0,512,512
265.701,2.77556e-17,0,512,512
265.759,2.77556e-17,0,512,512
265.806,2.77556e-17,0,512,512
265.853,2.77556e-17,0,512,512
265.9,2.77556e-17,0,512,512
265.959,2.77556e-17,0,512,512
266.005,2.77556e-17,0,512,512
266.052,2.77556e-17,0,512,512
266.111,0,0,512,512
266.158,2.77556e-17,0,512,512
266.205,0,0,512,512
266.252,2.77556e-17,0,512,512
266.31,2.77556e-17,0,512,512
266.357,2.77556e-17,0,512,512
266.404,2.77556e-17,0,512,512
266.451,2.77556e-17,0,512,512
266.509,0,0,512,512
266.556,0,0,512,512
266.603,-2.77556e-17,0,512,512
266.662,-2.77556e-17,0,512,512
266.708,-2.77556e-17,0,512,512
266.755,0,0,512,512
266.802,-2.77556e-17,0,512,512
266.861,-2.77556e-17,0,512,512
266.908,-2.77556e-17,0,512,512
266.955,-2.77556e-17,0,512,512
267.001,-2.77556e-17,0,512,512
267.06,-2.77556e-17,0,512,512
267.107,-2.77556e-17,0,512,512
267.154,-2.77556e-17,0,512,512
267.201,-2.77556e-17,0,512,512
267.259,-2.77556e-17,0,512,512
267.306,-2.77556e-17,0,512,512
267.353,-2.77556e-17,0,512,512
267.412,-2.77556e-17,0,512,512
267.458,-2.77556e-17,0,512,512
267.505,-2.77556e-17,0,512,512
267.552,0,0,512,512
267.611,2.77556e-17,0,512,512
267.658,2.77556e-17,0,512,512
267.704,2.77556e-17,0,512,512
267.751,2.77556e-17,0,512,512
267.81,2.77556e-17,0,512,512
267.857,2.77556e-17,0,512,512
267.904,2.77556e-17,0,512,512
267.95,2.77556e-17,0,512,512
268.009,2.77556e-17,0,512,512
268.056,2.77556e-17,0,512,512
268.103,2.77556e-17,0,512,512
268.161,2.77556e-17,0,512,512
268.208,2.77556e-17,0,512,512
268.255,0,0,512,512
268.302,0,0,512,512
268.361,0,0,512,512
268.407,0,0,512,512
268.454,0,0,512,512
268.501,0,0,512,512
268.56,0,0,512,512
268.607,0,0,512,512
268.654,-2.77556e-17,0,512,512
268.7,-2.77556e-17,0,512,512
268.759,-2.77556e-17,0,512,512
268.806,-2.77556e-17,0,512,512
268.853,0,0,512,512
268.911,0,0,512,512
268.958,2.77556e-17,0,512,512
269.005,2.77556e-17,0,512,512
269.052,2.77556e-17,0,512,512
269.11,0,0,512,512
269.157,0,0,512,512
269.204,0,0,512,512
269.251,2.77556e-17,0,512,512
269.31,2.77556e-17,0,512,512
269.357,0,0,512,512
269.403,2.77556e-17,0,512,512
269.45,2.77556e-17,0,512,512
269.509,2.77556e-17,0,512,512
269.556,2.77556e-17,0,512,512
269.603,2.77556e-17,0,512,512
269.661,2.77556e-17,0,512,512
269.708,2.77556e-17,0,512,512
269.755,2.77556e-17,0,512,512
269.802,2.77556e-17,0,512,512
269.86,2.77556e-17,0,512,512
269.903,2.77556e-17,0,523,523
269.953,2.77556e-17,0,539,539
270.002,2.77556e-17,0,549,549
270.052,2.77556e-17,0,557,557
270.102,2.77556e-17,0,573,573
270.151,2.77556e-17,0,579,579
270.201,2.77556e-17,0,586,586
270.251,2.77556e-17,0,594,594
270.3,2.77556e-17,0,595,595
270.35,2.77556e-17,0,611,611
270.404,2.77556e-17,0,639,639
270.452,2.77556e-17,0,679,679
270.501,-5.55112e-17,0,705,705
270.551,-6.66134e-16,0,741,741
270.601,-4.55191e-15,0,777,777
270.652,-2.7478e-14,0,833,833
270.702,-1.25899e-13,0,883,883
270.751,-4.67154e-13,0,963,963
270.8,-1.41992e-12,0,1067,1067
270.85,-3.74725e-12,0,1219,1219
270.901,-8.70976e-12,0,1377,1377
270.951,-1.72506e-11,0,1529,1529
271.001,-3.02441e-11,0,1693,1693
271.051,-4.73861e-11,0,1845,1845
271.1,-6.68499e-11,0,2003,2003
271.15,-8.54031e-11,0,2159,2159
271.2,-9.91859e-11,0,2323,2323
271.251,-1.04915e-10,0,2475,2475
271.301,-1.00568e-10,0,2621,2621
271.351,-8.69048e-11,0,2793,2793
271.401,-6.61683e-11,0,2869,2869
271.45,-4.15155e-11,0,2947,2947
271.5,-1.60505e-11,0,2961,2961
271.55,7.85638e-12,0,2964,2964
271.601,2.9368e-11,0,2978,2978
271.651,4.67007e-11,0,2967,2967
271.701,6.05599e-11,0,2999,2999
271.751,7.13147e-11,0,3003,3003
271.801,7.94966e-11,0,3029,3029
271.85,8.56916e-11,0,3073,3073
271.9,9.04508e-11,0,3145,3145
271.951,9.43143e-11,0,3245,3245
272.001,9.73617e-11,0,3367,3367
272.051,9.988e-11,0,3523,3523
272.101,1.01964e-10,0,3687,3687
272.151,1.03692e-10,0,3827,3827
272.2,1.0515e-10,0,4005,4005
272.25,1.06425e-10,0,4139,4139
272.301,1.07647e-10,0,4301,4301
272.351,1.08932e-10,0,4481,4481
272.401,1.1082e-10,0,4615,4615
272.451,1.14611e-10,0,4763,4763
272.501,1.23253e-10,0,4933,4933
272.55,1.42693e-10,0,5089,5089
272.6,1.8373e-10,0,5211,5211
272.65,2.64166e-10,0,5385,5385
272.701,4.16363e-10,0,5509,5509
272.751,6.69157e-10,0,5603,5603
272.801,1.0713e-09,0,5641,5641
272.851,1.67373e-09,0,5715,5715
272.9,2.5271e-09,0,5731,5731
272.95,3.6746e-09,0,5769,5769
273,5.14471e-09,0,5827,5827
273.051,7.00371e-09,0,5853,5853
273.101,9.14012e-09,0,5909,5909
273.151,1.17599e-08,0,5871,5871
273.201,1.55245e-08,0,5901,5901
273.251,1.97624e-08,0,5907,5907
273.3,2.43491e-08,0,5889,5889
273.35,2.87972e-08,0,5921,5921
273.401,3.36763e-08,0,5907,5907
273.451,3.8642e-08,0,5895,5895
273.501,4.48778e-08,0,5892,5892
273.551,5.24729e-08,0,5906,5906
273.601,6.08374e-08,0,5882,5882
273.65,7.00534e-08,0,5832,5832
273.7,8.18469e-08,0,5836,5836
273.751,1.01935e-07,0,5790,5790
273.801,1.23212e-07,0,5840,5840
273.851,1.52527e-07,0,5806,5806
273.901,1.85503e-07,0,5798,5798
273.951,2.21785e-07,0,5810,5810
274,2.60353e-07,0,5744,5744
274.05,3.00276e-07,0,5778,5778
274.101,3.50932e-07,0,5772,5772
274.151,4.18061e-07,0,5770,5770
274.201,4.75771e-07,0,5774,5774
274.251,5.33049e-07,0,5770,5770
274.301,5.92347e-07,0,5766,5766
274.35,6.51391e-07,0,5780,5780
274.4,7.06492e-07,0,5776,5776
274.451,7.54391e-07,0,5828,5828
274.501,7.93002e-07,0,5902,5902
274.551,8.21887e-07,0,5946,5946
274.601,8.40747e-07,0,5926,5926
274.651,8.4669e-07,0,5954,5954
274.701,8.47532e-07,0,5912,5912
274.75,8.47134e-07,0,5934,5934
274.8,8.4569e-07,0,5894,5894
274.85,8.43404e-07,0,5920,5920
274.9,8.38445e-07,0,5906,5906
274.951,8.29056e-07,0,5886,5886
275.001,8.127e-07,0,5860,5860
275.05,7.83632e-07,0,5842,5842
275.101,7.49769e-07,0,5844,5844
275.15,7.13636e-07,0,5810,5810
275.201,6.73996e-07,0,5778,5778
275.251,6.34334e-07,0,5764,5764
275.301,5.6158e-07,0,5736,5736
275.351,5.05702e-07,0,5712,5712
275.401,4.57455e-07,0,5718,5718
275.451,4.13208e-07,0,5698,5698
275.5,3.73733e-07,0,5686,5686
275.551,3.3613e-07,0,5666,5666
275.601,3.01975e-07,0,5664,5664
275.652,2.68541e-07,0,5670,5670
275.701,2.37796e-07,0,5606,5606
275.751,2.08675e-07,0,5604,5604
275.801,1.82132e-07,0,5578,5578
275.851,1.58995e-07,0,5580,5580
275.902,1.39735e-07,0,5570,5570
275.95,1.27574e-07,0,5528,5528
276.001,1.1552e-07,0,5526,5526
276.05,1.04182e-07,0,5518,5518
276.101,9.23456e-08,0,5492,5492
276.151,8.07533e-08,0,5458,5458
276.201,6.9497e-08,0,5494,5494
276.251,6.19999e-08,0,5440,5440
276.301,5.60029e-08,0,5460,5460
276.351,5.05456e-08,0,5414,5414
276.401,4.54785e-08,0,5418,5418
276.45,4.07877e-08,0,5378,5378
276.501,3.7275e-08,0,5372,5372
276.55,3.36673e-08,0,5406,5406
276.602,3.0062e-08,0,5350,5350
276.651,2.69466e-08,0,5368,5368
276.701,2.49212e-08,0,5342,5342
276.751,2.36874e-08,0,5338,5338
276.801,2.2525e-08,0,5324,5324
276.852,2.23528e-08,0,5290,5290
276.9,2.21384e-08,0,5294,5294
276.951,2.2061e-08,0,5288,5288
277,2.1959e-08,0,5286,5286
277.052,2.18699e-08,0,5266,5266
277.101,2.18007e-08,0,5254,5254
277.151,2.17075e-08,0,5268,5268
277.201,2.16121e-08,0,5278,5278
277.251,2.15035e-08,0,5248,5248
277.301,2.13836e-08,0,5256,5256
277.352,2.12529e-08,0,5226,5226
277.401,2.11146e-08,0,5222,5222
277.452,2.09625e-08,0,5242,5242
277.501,2.08061e-08,0,5198,5198
277.55,2.06361e-08,0,5196,5196
277.6,2.04489e-08,0,5202,5202
277.652,2.02303e-08,0,5168,5168
277.702,1.99908e-08,0,5172,5172
277.75,1.97313e-08,0,5190,5190
277.8,1.94303e-08,0,5138,5138
277.851,1.90974e-08,0,5128,5128
277.901,1.8734e-08,0,5124,5124
277.951,1.83422e-08,0,5120,5120
278,1.7939e-08,0,5092,5092
278.051,1.74948e-08,0,5116,5116
278.101,1.70278e-08,0,5088,5088
278.15,1.65612e-08,0,5060,5060
278.201,1.60648e-08,0,5082,5082
278.25,1.55796e-08,0,5028,5028
278.301,1.50712e-08,0,5037,5037
278.35,1.45791e-08,0,5025,5025
278.401,1.40673e-08,0,5009,5009
278.451,1.35768e-08,0,5039,5039
278.502,1.30745e-08,0,4997,4997
278.551,1.26021e-08,0,4975,4975
278.601,1.21445e-08,0,4991,4991
278.65,1.17047e-08,0,4933,4933
278.702,1.12694e-08,0,4923,4923
278.751,1.08733e-08,0,4947,4947
278.801,1.05021e-08,0,4865,4865
278.851,1.01575e-08,0,4845,4845
278.901,9.84056e-09,0,4809,4809
278.951,9.5518e-09,0,4849,4849
279.001,9.29089e-09,0,4987,4987
279.051,9.05686e-09,0,5003,5003
279.101,8.84833e-09,0,4963,4963
279.152,8.6636e-09,0,4999,4999
279.2,8.50682e-09,0,4855,4855
279.251,8.36364e-09,0,4765,4765
279.301,8.23904e-09,0,4749,4749
279.352,8.13131e-09,0,4641,4641
279.401,8.04212e-09,0,4631,4631
279.451,7.96294e-09,0,4641,4641
279.5,7.89858e-09,0,4559,4559
279.551,7.84269e-09,0,4409,4409
279.6,7.79843e-09,0,4331,4331
279.651,7.76118e-09,0,4071,4071
279.701,7.73283e-09,0,3995,3995
279.752,7.71018e-09,0,3913,3913
279.801,7.69414e-09,0,3841,3841
279.851,7.68298e-09,0,3741,3741
279.9,7.67602e-09,0,3601,3601
279.95,7.67264e-09,0,3503,3503
280.002,7.67241e-09,0,3385,3385
280.052,7.67495e-09,0,3189,3189
280.102,7.67993e-09,0,2935,2935
280.152,7.68715e-09,0,2353,2353
280.201,7.69626e-09,0,1575,1575
280.251,7.70731e-09,0,1559,1559
280.301,7.71978e-09,0,1737,1737
280.351,7.73371e-09,0,2163,2163
280.401,7.74825e-09,0,2249,2249
280.452,7.76373e-09,0,2243,2243
280.501,7.77902e-09,0,2313,2313
280.551,7.79468e-09,0,2757,2757
280.6,7.81031e-09,0,2917,2917
280.651,7.8264e-09,0,3059,3059
280.701,7.8423e-09,0,3233,3233
280.751,7.85825e-09,0,3301,3301
280.801,7.87426e-09,0,3387,3387
280.851,7.89035e-09,0,3439,3439
280.901,7.90652e-09,0,3489,3489
280.95,7.92277e-09,0,3483,3483
281.002,7.93978e-09,0,3519,3519
281.051,7.95626e-09,0,3589,3589
281.101,7.97292e-09,0,3669,3669
281.15,7.98985e-09,0,3729,3729
281.202,8.00788e-09,0,3857,3857
281.251,8.02581e-09,0,3955,3955
281.302,8.04529e-09,0,4045,4045
281.351,8.06514e-09,0,4153,4153
281.4,8.08644e-09,0,4243,4243
281.451,8.11058e-09,0,4377,4377
281.502,8.13729e-09,0,4485,4485
281.551,8.16601e-09,0,4569,4569
281.601,8.19972e-09,0,4559,4559
281.65,8.23658e-09,0,4517,4517
281.701,8.28047e-09,0,4523,4523
281.751,8.33106e-09,0,4529,4529
281.801,8.38961e-09,0,4489,4489
281.852,8.45757e-09,0,4473,4473
281.9,8.53336e-09,0,4514,4514
281.95,8.62497e-09,0,4550,4550
282,8.73193e-09,0,4571,4571
282.05,8.85698e-09,0,4595,4595
282.1,9.0034e-09,0,4627,4627
282.15,9.17502e-09,0,4655,4655
282.2,9.37637e-09,0,4721,4721
282.252,9.62265e-09,0,4759,4759
282.302,9.90196e-09,0,4761,4761
282.351,1.02298e-08,0,4803,4803
282.401,1.06141e-08,0,4823,4823
282.45,1.10636e-08,0,4845,4845
282.501,1.16098e-08,0,4819,4819
282.551,1.22223e-08,0,4857,4857
282.6,1.293e-08,0,4857,4857
282.651,1.3776e-08,0,4869,4869
282.7,1.47066e-08,0,4887,4887
282.751,1.58009e-08,0,4879,4879
282.8,1.69829e-08,0,4889,4889
282.851,1.83462e-08,0,4911,4911
282.902,1.98479e-08,0,4913,4913
282.95,2.14224e-08,0,4901,4901
283.001,2.3187e-08,0,4939,4939
283.052,2.50795e-08,0,4921,4921
283.1,2.70188e-08,0,4943,4943
283.15,2.9151e-08,0,4945,4945
283.201,3.14025e-08,0,4949,4949
283.251,3.3792e-08,0,4941,4941
283.301,3.69947e-08,0,4950,4950
283.351,4.1404e-08,0,4932,4932
283.401,4.55086e-08,0,4920,4920
283.451,4.96584e-08,0,4964,4964
283.5,5.38786e-08,0,4930,4930
283.551,5.82088e-08,0,4986,4986
283.6,6.25205e-08,0,4954,4954
283.651,6.70193e-08,0,4970,4970
283.702,7.16228e-08,0,4978,4978
283.75,7.61503e-08,0,4982,4982
283.8,8.09374e-08,0,4976,4976
283.85,8.58561e-08,0,5010,5010
283.902,9.10854e-08,0,5006,5006
283.951,9.75297e-08,0,5036,5036
284.001,1.03765e-07,0,5028,5028
284.052,1.10562e-07,0,5036,5036
284.101,1.17273e-07,0,5006,5006
284.151,1.24372e-07,0,5022,5022
284.202,1.31766e-07,0,5060,5060
284.25,1.39137e-07,0,5044,5044
284.3,1.47078e-07,0,5042,5042
284.352,1.55635e-07,0,5052,5052
284.401,1.64261e-07,0,5066,5066
284.451,1.73317e-07,0,5082,5082
284.5,1.86271e-07,0,5056,5056
284.551,2.05108e-07,0,5078,5078
284.602,2.24691e-07,0,5094,5094
284.65,2.45023e-07,0,5110,5110
284.701,2.72706e-07,0,5104,5104
284.751,3.01804e-07,0,5090,5090
284.801,3.32327e-07,0,5098,5098
284.85,3.64498e-07,0,5112,5112
284.9,3.98088e-07,0,5142,5142
284.951,4.34181e-07,0,5102,5102
285,4.70265e-07,0,5112,5112
285.051,5.08867e-07,0,5094,5094
285.102,5.497e-07,0,5108,5108
285.15,6.13496e-07,0,5140,5140
285.2,6.66498e-07,0,5154,5154
285.25,7.07959e-07,0,5166,5166
285.3,7.41415e-07,0,5198,5198
285.35,7.67085e-07,0,5180,5180
285.401,7.84686e-07,0,5180,5180
285.45,7.87318e-07,0,5204,5204
285.501,7.86508e-07,0,5218,5218
285.55,7.84006e-07,0,5240,5240
285.601,7.79602e-07,0,5214,5214
285.651,7.72257e-07,0,5244,5244
285.701,7.63028e-07,0,5266,5266
285.751,7.43442e-07,0,5286,5286
285.801,7.21461e-07,0,5296,5296
285.85,6.93596e-07,0,5282,5282
285.901,6.62873e-07,0,5286,5286
285.951,6.31232e-07,0,5306,5306
286.001,5.96743e-07,0,5322,5322
286.05,5.61566e-07,0,5316,5316
286.101,5.2346e-07,0,5334,5334
286.151,4.67162e-07,0,5346,5346
286.201,4.05908e-07,0,5344,5344
286.251,3.51457e-07,0,5372,5372
286.3,3.00328e-07,0,5356,5356
286.351,2.5079e-07,0,5358,5358
286.401,2.06569e-07,0,5388,5388
286.451,1.65472e-07,0,5390,5390
286.501,1.2974e-07,0,5366,5366
286.551,9.67771e-08,0,5403,5403
286.601,6.73178e-08,0,5395,5395
286.651,4.10879e-08,0,5381,5381
286.701,1.78712e-08,0,5389,5389
286.751,-2.70305e-09,0,5369,5369
286.801,-2.13431e-08,0,5395,5395
286.851,-3.42707e-08,0,5377,5377
286.9,-4.58817e-08,0,5407,5407
286.95,-5.70173e-08,0,5383,5383
287,-6.3068e-08,0,5391,5391
287.051,-6.83683e-08,0,5377,5377
287.101,-7.25381e-08,0,5373,5373
287.151,-7.42518e-08,0,5359,5359
287.201,-7.48776e-08,0,5367,5367
287.25,-7.48388e-08,0,5341,5341
287.3,-7.45862e-08,0,5301,5301
287.35,-7.40519e-08,0,5321,5321
287.401,-7.32286e-08,0,5297,5297
287.451,-7.21894e-08,0,5289,5289
287.501,-7.09129e-08,0,5309,5309
287.551,-6.9421e-08,0,5259,5259
287.601,-6.77285e-08,0,5237,5237
287.65,-6.58584e-08,0,5237,5237
287.7,-6.38256e-08,0,5209,5209
287.751,-6.15794e-08,0,5173,5173
287.801,-5.92667e-08,0,5123,5123
287.851,-5.68432e-08,0,5097,5097
287.901,-5.43309e-08,0,5033,5033
287.951,-5.17969e-08,0,4983,4983
288,-4.85382e-08,0,4897,4897
288.05,-4.47859e-08,0,4867,4867
288.101,-4.14928e-08,0,4779,4779
288.151,-3.85109e-08,0,4703,4703
288.201,-3.57633e-08,0,4645,4645
288.251,-3.32198e-08,0,4547,4547
288.301,-3.08419e-08,0,4507,4507
288.35,-2.86318e-08,0,4409,4409
288.4,-2.65735e-08,0,4373,4373
288.451,-2.46179e-08,0,4211,4211
288.501,-2.28755e-08,0,4027,4027
288.551,-2.12979e-08,0,3857,3857
288.601,-1.98938e-08,0,3737,3737
288.651,-1.86753e-08,0,3711,3711
288.7,-1.75756e-08,0,3690,3690
288.75,-1.6595e-08,0,3668,3668
288.8,-1.57403e-08,0,3673,3673
288.851,-1.49231e-08,0,3693,3693
288.901,-1.41874e-08,0,3657,3657
288.951,-1.35124e-08,0,3633,3633
289.001,-1.28945e-08,0,3591,3591
289.05,-1.23432e-08,0,3521,3521
289.1,-1.18289e-08,0,3433,3433
289.15,-1.13715e-08,0,3375,3375
289.201,-1.09537e-08,0,3295,3295
289.251,-1.06025e-08,0,3207,3207
289.301,-1.03053e-08,0,3133,3133
289.351,-1.00608e-08,0,3083,3083
289.401,-9.8659e-09,0,2987,2987
289.45,-9.71638e-09,0,2805,2805
289.5,-9.60748e-09,0,2645,2645
289.551,-9.53274e-09,0,2463,2463
289.601,-9.49177e-09,0,2303,2303
289.651,-9.47791e-09,0,2143,2143
289.701,-9.48776e-09,0,1977,1977
289.751,-9.5181e-09,0,1809,1809
289.8,-9.56525e-09,0,1641,1641
289.85,-9.62479e-09,0,1469,1469
289.901,-9.6942e-09,0,1289,1289
289.951,-9.76551e-09,0,1143,1143
290.002,-9.83909e-09,0,999,999
290.052,-9.91074e-09,0,895,895
290.101,-9.98071e-09,0,779,779
290.152,-1.00494e-08,0,673,673
290.202,-1.0114e-08,0,627,627
290.251,-1.01752e-08,0,565,565
290.301,-1.02332e-08,0,529,529
290.354,-1.02904e-08,0,515,515
290.41,-1.03481e-08,0,512,512
290.457,-1.0393e-08,0,512,512
290.504,-1.04356e-08,0,512,512
290.551,-1.04766e-08,0,512,512
290.61,-1.05258e-08,0,512,512
290.657,-1.0564e-08,0,512,512
290.703,-1.06013e-08,0,512,512
290.75,-1.06376e-08,0,512,512
290.809,-1.06818e-08,0,512,512
290.856,-1.07163e-08,0,512,512
290.903,-1.075e-08,0,512,512
290.961,-1.07918e-08,0,512,512
291.008,-1.08255e-08,0,512,512
291.055,-1.08603e-08,0,512,512
291.102,-1.08968e-08,0,512,512
291.16,-1.09463e-08,0,512,512
291.207,-1.09903e-08,0,512,512
291.254,-1.10394e-08,0,512,512
291.301,-1.1095e-08,0,512,512
291.36,-1.11762e-08,0,512,512
291.406,-1.12528e-08,0,512,512
291.453,-1.13417e-08,0,512,512
291.5,-1.14443e-08,0,512,512
291.559,-1.15933e-08,0,512,512
291.606,-1.17293e-08,0,512,512
291.652,-1.18795e-08,0,512,512
291.711,-1.20857e-08,0,512,512
291.758,-1.22638e-08,0,512,512
291.805,-1.24523e-08,0,512,512
291.852,-1.26505e-08,0,512,512
291.91,-1.29111e-08,0,512,512
291.957,-1.31298e-08,0,512,512
292.004,-1.33577e-08,0,512,512
292.051,-1.3595e-08,0,512,512
292.109,-1.3905e-08,0,512,512
292.156,-1.41636e-08,0,512,512
292.203,-1.44315e-08,0,512,512
292.25,-1.47082e-08,0,512,512
292.309,-1.50651e-08,0,512,512
292.355,-1.53582e-08,0,512,512
292.402,-1.56563e-08,0,512,512
292.461,-1.60337e-08,0,512,512
292.508,-1.63377e-08,0,512,512
292.555,-1.66422e-08,0,512,512
292.602,-1.69464e-08,0,512,512
292.66,-1.7326e-08,0,512,512
292.707,-1.7629e-08,0,512,512
292.754,-1.79314e-08,0,512,512
292.801,-1.82329e-08,0,512,512
292.859,-1.86075e-08,0,512,512
292.906,-1.89042e-08,0,512,512
292.953,-1.91968e-08,0,512,512
293.012,-1.95546e-08,0,512,512
293.058,-1.98322e-08,0,512,512
293.105,-2.01005e-08,0,512,512
293.152,-2.03577e-08,0,512,512
293.211,-2.06614e-08,0,512,512
293.258,-2.08885e-08,0,512,512
293.305,-2.11002e-08,0,512,512
293.351,-2.12955e-08,0,512,512
293.41,-2.15149e-08,0,512,512
293.457,-2.16698e-08,0,512,512
293.504,-2.18057e-08,0,512,512
293.551,-2.19223e-08,0,512,512
293.609,-2.20411e-08,0,512,512
293.656,-2.21149e-08,0,512,512
293.703,-2.21705e-08,0,512,512
293.762,-2.2215e-08,0,512,512
293.808,-2.22317e-08,0,512,512
293.855,-2.22323e-08,0,512,512
293.902,-2.22177e-08,0,512,512
293.961,-2.21795e-08,0,512,512
294.008,-2.21341e-08,0,512,512
294.054,-2.20766e-08,0,512,512
294.101,-2.20083e-08,0,512,512
294.16,-2.19092e-08,0,512,512
294.207,-2.18205e-08,0,512,512
294.254,-2.17246e-08,0,512,512
294.3,-2.16227e-08,0,512,512
294.359,-2.14886e-08,0,512,512
294.406,-2.13772e-08,0,512,512
294.453,-2.12632e-08,0,512,512
294.511,-2.11184e-08,0,512,512
294.558,-2.10016e-08,0,512,512
294.605,-2.08846e-08,0,512,512
294.652,-2.07679e-08,0,512,512
294.711,-2.06233e-08,0,512,512
294.757,-2.05089e-08,0,512,512
294.804,-2.03961e-08,0,512,512
294.851,-2.02849e-08,0,512,512
294.91,-2.01487e-08,0,512,512
294.957,-2.00419e-08,0,512,512
295.004,-1.99374e-08,0,512,512
295.05,-1.9835e-08,0,512,512
295.109,-1.97102e-08,0,512,512
295.156,-1.9613e-08,0,512,512
295.203,-1.95181e-08,0,512,512
295.261,-1.94028e-08,0,512,512
295.308,-1.93131e-08,0,512,512
295.355,-1.92258e-08,0,512,512
295.402,-1.91406e-08,0,512,512
295.46,-1.90373e-08,0,512,512
295.507,-1.8957e-08,0,512,512
295.554,-1.88787e-08,0,512,512
295.601,-1.88023e-08,0,512,512
295.66,-1.87093e-08,0,512,512
295.707,-1.86367e-08,0,512,512
295.753,-1.85655e-08,0,512,512
295.8,-1.84957e-08,0,512,512
295.859,-1.841e-08,0,512,512
295.906,-1.83425e-08,0,512,512
295.953,-1.82758e-08,0,512,512
296.011,-1.81933e-08,0,512,512
296.058,-1.81278e-08,0,512,512
296.105,-1.80626e-08,0,512,512
296.152,-1.79975e-08,0,512,512
296.21,-1.79161e-08,0,512,512
296.257,-1.78508e-08,0,512,512
296.304,-1.77851e-08,0,512,512
296.351,-1.7719e-08,0,512,512
296.41,-1.76353e-08,0,512,512
296.456,-1.75675e-08,0,512,512
296.503,-1.74988e-08,0,512,512
296.55,-1.74289e-08,0,512,512
296.609,-1.73398e-08,0,512,512
296.656,-1.72668e-08,0,512,512
296.702,-1.71923e-08,0,512,512
296.761,-1.70967e-08,0,512,512
296.808,-1.7018e-08,0,512,512
296.855,-1.69371e-08,0,512,512
296.902,-1.6854e-08,0,512,512
296.96,-1.67467e-08,0,512,512
297.007,-1.66578e-08,0,512,512
297.054,-1.65661e-08,0,512,512
297.101,-1.64714e-08,0,512,512
297.159,-1.63486e-08,0,512,512
297.206,-1.62465e-08,0,512,512
297.253,-1.61409e-08,0,512,512
297.3,-1.60316e-08,0,512,512
297.359,-1.58896e-08,0,512,512
297.406,-1.57714e-08,0,512,512
297.452,-1.56491e-08,0,512,512
297.511,-1.54901e-08,0,512,512
297.558,-1.53579e-08,0,512,512
297.605,-1.5221e-08,0,512,512
297.652,-1.50793e-08,0,512,512
297.71,-1.48952e-08,0,512,512
297.757,-1.47422e-08,0,512,512
297.804,-1.45839e-08,0,512,512
297.851,-1.44201e-08,0,512,512
297.909,-1.42073e-08,0,512,512
297.956,-1.40305e-08,0,512,512
298.003,-1.38474e-08,0,512,512
298.062,-1.36094e-08,0,512,512
298.109,-1.34112e-08,0,512,512
298.155,-1.32059e-08,0,512,512
298.202,-1.2993e-08,0,512,512
298.261,-1.27155e-08,0,512,512
298.308,-1.24838e-08,0,512,512
298.355,-1.22432e-08,0,512,512
298.401,-1.1993e-08,0,512,512
298.46,-1.1666e-08,0,512,512
298.507,-1.13925e-08,0,512,512
298.554,-1.11078e-08,0,512,512
298.601,-1.08114e-08,0,512,512
298.659,-1.04239e-08,0,512,512
298.706,-1.00998e-08,0,512,512
298.753,-9.76284e-09,0,512,512
298.812,-9.32337e-09,0,512,512
298.858,-8.95707e-09,0,512,512
298.905,-8.57776e-09,0,512,512
298.952,-8.18567e-09,0,512,512
299.011,-7.67817e-09,0,512,512
299.058,-7.25894e-09,0,512,512
299.104,-6.82877e-09,0,512,512
299.151,-6.38858e-09,0,512,512
299.21,-5.82591e-09,0,512,512
299.257,-5.36739e-09,0,512,512
299.304,-4.90298e-09,0,512,512
299.351,-4.43424e-09,0,512,512
299.409,-3.84484e-09,0,512,512
299.456,-3.37273e-09,0,512,512
299.503,-2.90216e-09,0,512,512
299.561,-2.31907e-09,0,512,512
299.608,-1.85909e-09,0,512,512
299.655,-1.40702e-09,0,512,512
299.702,-9.64781e-10,0,512,512
299.761,-4.28672e-10,0,512,512
299.808,-1.53066e-11,0,512,512
299.854,3.82452e-10,0,512,512
299.901,7.63073e-10,0,512,512
299.96,1.21266e-09,0,512,512
300.007,1.54992e-09,0,512,512
300.054,1.86618e-09,0,512,512
300.1,2.16065e-09,0,512,512
300.159,2.49721e-09,0,512,512
300.206,2.74078e-09,0,512,512
300.253,2.96139e-09,0,512,512
300.311,3.20497e-09,0,512,512
300.358,3.37445e-09,0,512,512
300.405,3.52189e-09,0,512,512
300.452,3.64795e-09,0,512,512
300.511,3.77672e-09,0,512,512
300.557,3.85787e-09,0,512,512
300.604,3.92076e-09,0,512,512
300.651,3.96657e-09,0,512,512
300.71,4.00173e-09,0,512,512
300.757,4.01375e-09,0,512,512
300.803,4.01291e-09,0,512,512
300.85,4.00054e-09,0,512,512
300.909,3.97086e-09,0,512,512
300.956,3.93733e-09,0,512,512
301.003,3.89644e-09,0,512,512
301.061,3.83679e-09,0,512,512
301.108,3.78359e-09,0,512,512
301.155,3.72666e-09,0,512,512
301.202,3.66695e-09,0,512,512
301.26,3.58973e-09,0,512,512
301.307,3.52684e-09,0,512,512
301.354,3.46371e-09,0,512,512
301.401,3.40096e-09,0,512,512
301.46,3.32383e-09,0,512,512
301.506,3.26368e-09,0,512,512
301.553,3.20529e-09,0,512,512
301.6,3.14892e-09,0,512,512
301.659,3.08156e-09,0,512,512
301.706,3.03027e-09,0,512,512
301.753,2.98132e-09,0,512,512
301.811,2.92336e-09,0,512,512
301.858,2.87945e-09,0,512,512
301.905,2.83757e-09,0,512,512
301.952,2.79753e-09,0,512,512
302.01,2.74974e-09,0,512,512
302.057,2.71303e-09,0,512,512
302.104,2.67741e-09,0,512,512
302.151,2.64264e-09,0,512,512
302.209,2.60006e-09,0,512,512
302.256,2.56645e-09,0,512,512
302.303,2.53309e-09,0,512,512
302.35,2.49983e-09,0,512,512
302.409,2.45832e-09,0,512,512
302.456,2.42513e-09,0,512,512
302.502,2.39196e-09,0,512,512
302.561,2.35067e-09,0,512,512
302.608,2.3179e-09,0,512,512
302.655,2.28554e-09,0,512,512
302.702,2.25378e-09,0,512,512
302.76,2.21524e-09,0,512,512
302.807,2.18561e-09,0,512,512
302.854,2.15732e-09,0,512,512
302.901,2.1306e-09,0,512,512
302.959,2.09976e-09,0,512,512
303.006,2.07739e-09,0,512,512
303.053,2.05726e-09,0,512,512
303.112,2.0355e-09,0,512,512
303.159,2.02095e-09,0,512,512
303.205,2.00902e-09,0,512,512
303.252,1.99974e-09,0,512,512
303.311,1.99186e-09,0,512,512
303.358,1.98846e-09,0,512,512
303.405,1.98753e-09,0,512,512
303.451,1.98896e-09,0,512,512
303.51,1.99378e-09,0,512,512
303.557,1.99985e-09,0,512,512
303.604,2.00764e-09,0,512,512
303.651,2.01693e-09,0,512,512
303.709,2.0303e-09,0,512,512
303.756,2.04212e-09,0,512,512
303.803,2.05469e-09,0,512,512
303.862,2.07113e-09,0,512,512
303.908,2.08461e-09,0,512,512
303.955,2.09819e-09,0,512,512
304.002,2.11171e-09,0,512,512
304.061,2.12829e-09,0,512,512
304.108,2.14115e-09,0,512,512
304.155,2.15355e-09,0,512,512
304.201,2.16539e-09,0,512,512
304.26,2.17931e-09,0,512,512
304.307,2.18967e-09,0,512,512
304.354,2.1993e-09,0,512,512
304.401,2.20816e-09,0,512,512
304.459,2.21813e-09,0,512,512
304.506,2.22519e-09,0,512,512
304.553,2.23142e-09,0,512,512
304.611,2.23802e-09,0,512,512
304.658,2.24235e-09,0,512,512
304.705,2.24582e-09,0,512,512
304.752,2.24843e-09,0,512,512
304.811,2.25046e-09,0,512,512
304.858,2.2511e-09,0,512,512
304.904,2.25085e-09,0,512,512
304.951,2.24972e-09,0,512,512
