250,0,0,512,512
250.012,0,0,512,512
250.059,0,0,512,512
250.105,0,0,512,512
250.152,0,0,512,512
250.211,0,0,512,512
250.258,0,0,512,512
250.305,0,0,512,512
250.352,0,0,512,512
250.41,0,0,512,512
250.457,0,0,512,512
250.504,0,0,512,512
250.551,0,0,512,512
250.609,0,0,512,512
250.656,0,0,512,512
250.703,0,0,512,512
250.762,0,0,512,512
250.808,0,0,512,512
250.855,0,0,512,512
250.902,0,0,512,512
250.961,0,0,512,512
251.008,0,0,512,512
251.055,0,0,512,512
251.101,0,0,512,512
251.16,0,0,512,512
251.207,0,0,512,512
251.254,0,0,512,512
251.301,0,0,512,512
251.359,0,0,512,512
251.406,0,0,512,512
251.453,0,0,512,512
251.511,0,0,512,512
251.558,0,0,512,512
251.605,0,0,512,512
251.652,0,0,512,512
251.711,0,0,512,512
251.758,0,0,512,512
251.804,0,0,512,512
251.851,0,0,512,512
251.91,0,0,512,512
251.957,0,0,512,512
252.004,0,0,512,512
252.05,0,0,512,512
252.109,0,0,512,512
252.156,0,0,512,512
252.203,0,0,512,512
252.261,0,0,512,512
252.308,0,0,512,512
252.355,0,0,512,512
252.402,0,0,512,512
252.461,0,0,512,512
252.507,0,0,512,512
252.554,0,0,512,512
252.601,0,0,512,512
252.66,0,0,512,512
252.707,0,0,512,512
252.754,0,0,512,512
252.8,0,0,512,512
252.859,0,0,512,512
252.906,0,0,512,512
252.953,0,0,512,512
253.011,0,0,512,512
253.058,0,0,512,512
253.105,0,0,512,512
253.152,0,0,512,512
253.21,0,0,512,512
253.257,0,0,512,512
253.304,0,0,512,512
253.351,0,0,512,512
253.41,0,0,512,512
253.457,0,0,512,512
253.503,0,0,512,512
253.55,0,0,512,512
253.609,0,0,512,512
253.656,0,0,512,512
253.703,0,0,512,512
253.761,0,0,512,512
253.808,0,0,512,512
253.855,0,0,512,512
253.902,0,0,512,512
253.96,0,0,512,512
254.007,0,0,512,512
254.054,0,0,512,512
254.101,0,0,512,512
254.16,0,0,512,512
254.206,0,0,512,512
254.253,0,0,512,512
254.3,0,0,512,512
254.359,0,0,512,512
254.406,0,0,512,512
254.452,0,0,512,512
254.511,0,0,512,512
254.558,-1.38778e-17,0,512,512
254.605,-2.77556e-17,0,512,512
254.652,-2.77556e-17,0,512,512
254.71,-2.77556e-17,0,512,512
254.757,-2.77556e-17,0,512,512
254.804,-2.77556e-17,0,512,512
254.851,-2.77556e-17,0,512,512
254.909,-2.77556e-17,0,512,512
254.956,0,0,512,512
255.003,0,0,512,512
255.05,0,0,512,512
255.109,0,0,512,512
255.155,0,0,512,512
255.202,0,0,512,512
255.261,0,0,512,512
255.308,0,0,512,512
255.355,0,0,512,512
255.402,0,0,512,512
255.46,0,0,512,512
255.507,0,0,512,512
255.554,0,0,512,512
255.601,0,0,512,512
255.659,0,0,512,512
255.706,0,0,512,512
255.753,0,0,512,512
255.812,0,0,512,512
255.859,0,0,512,512
255.905,0,0,512,512
255.952,0,0,512,512
256.011,0,0,512,512
256.058,0,0,512,512
256.105,0,0,512,512
256.151,0,0,512,512
256.21,0,0,512,512
256.257,0,0,512,512
256.304,0,0,512,512
256.351,0,0,512,512
256.409,0,0,512,512
256.456,0,0,512,512
256.503,0,0,512,512
256.562,0,0,512,512
256.608,0,0,512,512
256.655,0,0,512,512
256.702,0,0,512,512
256.761,0,0,512,512
256.808,0,0,512,512
256.854,0,0,512,512
256.901,0,0,512,512
256.96,0,0,512,512
257.007,0,0,512,512
257.054,0,0,512,512
257.101,0,0,512,512
257.159,0,0,512,512
257.206,0,0,512,512
257.253,0,0,512,512
257.311,0,0,512,512
257.358,0,0,512,512
257.405,0,0,512,512
257.452,0,0,512,512
257.511,0,0,512,512
257.557,0,0,512,512
257.604,0,0,512,512
257.651,0,0,512,512
257.71,0,0,512,512
257.757,0,0,512,512
257.804,0,0,512,512
257.85,0,0,512,512
257.909,0,0,512,512
257.956,0,0,512,512
258.003,0,0,512,512
258.061,0,0,512,512
258.108,0,0,512,512
258.155,0,0,512,512
258.202,0,0,512,512
258.261,0,0,512,512
258.307,0,0,512,512
258.354,0,0,512,512
258.401,0,0,512,512
258.46,0,0,512,512
258.507,0,0,512,512
258.553,0,0,512,512
258.6,0,0,512,512
258.659,0,0,512,512
258.706,0,0,512,512
258.753,0,0,512,512
258.811,0,0,512,512
258.858,0,0,512,512
258.905,0,0,512,512
258.952,0,0,512,512
259.01,0,0,512,512
259.057,0,0,512,512
259.104,0,0,512,512
259.151,0,0,512,512
259.21,0,0,512,512
259.256,0,0,512,512
259.303,0,0,512,512
259.35,0,0,512,512
259.409,0,0,512,512
259.456,0,0,512,512
259.503,0,0,512,512
259.561,0,0,512,512
259.608,0,0,512,512
259.655,0,0,512,512
259.702,0,0,512,512
259.76,0,0,512,512
259.807,0,0,512,512
259.854,0,0,512,512
259.901,0,0,512,512
259.959,0,0,512,512
260.006,0,0,512,512
260.053,0,0,512,512
260.1,0,0,512,512
260.159,0,0,512,512
260.206,0,0,512,512
260.252,0,0,512,512
260.311,0,0,512,512
260.358,0,0,512,512
260.405,0,0,512,512
260.452,0,0,512,512
260.51,0,0,512,512
260.557,0,0,512,512
260.604,0,0,512,512
260.651,0,0,512,512
260.709,0,0,512,512
260.756,0,0,512,512
260.803,0,0,512,512
260.862,0,0,512,512
260.909,0,0,512,512
260.955,0,0,512,512
261.002,0,0,512,512
261.061,0,0,512,512
261.108,0,0,512,512
261.155,0,0,512,512
261.201,0,0,512,512
261.26,0,0,512,512
261.307,0,0,512,512
261.354,0,0,512,512
261.401,0,0,512,512
261.459,0,0,512,512
261.506,0,0,512,512
261.553,0,0,512,512
261.612,0,0,512,512
261.658,0,0,512,512
261.705,0,0,512,512
261.752,0,0,512,512
261.811,0,0,512,512
261.858,0,0,512,512
261.905,0,0,512,512
261.951,0,0,512,512
262.01,0,0,512,512
262.057,0,0,512,512
262.104,0,0,512,512
262.151,0,0,512,512
262.209,0,0,512,512
262.256,0,0,512,512
262.303,0,0,512,512
262.361,0,0,512,512
262.408,0,0,512,512
262.455,0,0,512,512
262.502,0,0,512,512
262.561,0,0,512,512
262.608,0,0,512,512
262.654,0,0,512,512
262.701,0,0,512,512
262.76,0,0,512,512
262.807,0,0,512,512
262.854,0,0,512,512
262.9,0,0,512,512
262.959,0,0,512,512
263.006,0,0,512,512
263.053,0,0,512,512
263.111,0,0,512,512
263.158,0,0,512,512
263.205,0,0,512,512
263.252,0,0,512,512
263.311,0,0,512,512
263.357,0,0,512,512
263.404,0,0,512,512
263.451,0,0,512,512
263.51,0,0,512,512
263.557,0,0,512,512
263.603,0,0,512,512
263.65,0,0,512,512
263.709,-1.38778e-17,0,512,512
263.756,-1.38778e-17,0,512,512
263.803,-2.77556e-17,0,512,512
263.861,-2.77556e-17,0,512,512
263.908,-2.77556e-17,0,512,512
263.955,-2.77556e-17,0,512,512
264.002,-2.77556e-17,0,512,512
264.06,-2.77556e-17,0,512,512
264.107,-1.38778e-17,0,512,512
264.154,-1.38778e-17,0,512,512
264.201,-1.38778e-17,0,512,512
264.26,-1.38778e-17,0,512,512
264.306,-1.38778e-17,0,512,512
264.353,-1.38778e-17,0,512,512
264.4,-1.38778e-17,0,512,512
264.459,-1.38778e-17,0,512,512
264.506,-1.38778e-17,0,512,512
264.553,-1.38778e-17,0,512,512
264.611,-1.38778e-17,0,512,512
264.658,-1.38778e-17,0,512,512
264.705,-1.38778e-17,0,512,512
264.752,-1.38778e-17,0,512,512
264.81,-1.38778e-17,0,512,512
264.857,-1.38778e-17,0,512,512
264.904,-1.38778e-17,0,512,512
264.951,-1.38778e-17,0,512,512
265.01,-1.38778e-17,0,512,512
265.056,-1.38778e-17,0,512,512
265.103,-1.38778e-17,0,512,512
265.15,-1.38778e-17,0,512,512
265.209,-1.38778e-17,0,512,512
265.256,-1.38778e-17,0,512,512
265.302,-1.38778e-17,0,512,512
265.361,-1.38778e-17,0,512,512
265.408,-1.38778e-17,0,512,512
265.455,0,0,512,512
265.502,0,0,512,512
265.56,0,0,512,512
265.607,0,0,512,512
265.654,0,0,512,512
265.701,0,0,512,512
265.759,0,0,512,512
265.806,0,0,512,512
265.853,0,0,512,512
265.9,0,0,512,512
265.959,0,0,512,512
266.005,0,0,512,512
266.052,0,0,512,512
266.111,0,0,512,512
266.158,0,0,512,512
266.205,0,0,512,512
266.252,0,0,512,512
266.31,0,0,512,512
266.357,0,0,512,512
266.404,0,0,512,512
266.451,0,0,512,512
266.509,0,0,512,512
266.556,0,0,512,512
266.603,0,0,512,512
266.662,0,0,512,512
266.708,0,0,512,512
266.755,0,0,512,512
266.802,0,0,512,512
266.861,0,0,512,512
266.908,0,0,512,512
266.955,0,0,512,512
267.001,0,0,512,512
267.06,0,0,512,512
267.107,0,0,512,512
267.154,0,0,512,512
267.201,0,0,512,512
267.259,0,0,512,512
267.306,0,0,512,512
267.353,0,0,512,512
267.412,0,0,512,512
267.458,0,0,512,512
267.505,0,0,512,512
267.552,0,0,512,512
267.611,0,0,512,512
267.658,0,0,512,512
267.704,0,0,512,512
267.751,0,0,512,512
267.81,0,0,512,512
267.857,0,0,512,512
267.904,0,0,512,512
267.95,0,0,512,512
268.009,0,0,512,512
268.056,1.38778e-17,0,512,512
268.101,1.38778e-17,0,977,977
268.151,1.38778e-17,0,1191,1191
268.201,1.38778e-17,0,1419,1419
268.251,1.38778e-17,0,1643,1643
268.3,1.38778e-17,0,1887,1887
268.35,1.38778e-17,0,2115,2115
268.401,1.38778e-17,0,2347,2347
268.451,1.38778e-17,0,2587,2587
268.501,1.38778e-17,0,2807,2807
268.551,1.38778e-17,0,3043,3043
268.601,1.38778e-17,0,3275,3275
268.65,1.38778e-17,0,3501,3501
268.7,1.38778e-17,0,3733,3733
268.75,1.38778e-17,0,3949,3949
268.801,1.38778e-17,0,4181,4181
268.851,1.38778e-17,0,4417,4417
268.901,1.38778e-17,0,4649,4649
268.951,1.38778e-17,0,4873,4873
269,1.38778e-17,0,5091,5091
269.05,1.38778e-17,0,5315,5315
269.1,1.38778e-17,0,5539,5539
269.151,1.38778e-17,0,5775,5775
269.201,1.38778e-17,0,5989,5989
269.251,1.38778e-17,0,6215,6215
269.301,1.38778e-17,0,6431,6431
269.351,1.38778e-17,0,6653,6653
269.4,1.38778e-17,0,6881,6881
269.45,1.38778e-17,0,7087,7087
269.501,1.38778e-17,0,7285,7285
269.551,1.38778e-17,0,7497,7497
269.601,1.38778e-17,0,7725,7725
269.651,1.38778e-17,0,7947,7947
269.701,1.38778e-17,0,8139,8139
269.75,1.38778e-17,0,8375,8375
269.8,1.38778e-17,0,8595,8595
269.851,1.38778e-17,0,8811,8811
269.901,1.38778e-17,0,9027,9027
269.951,1.38778e-17,0,9257,9257
270.001,1.38778e-17,0,9481,9481
270.051,1.38778e-17,0,9713,9713
270.1,1.38778e-17,0,9935,9935
270.15,1.38778e-17,0,10147,10147
270.2,1.38778e-17,0,10367,10367
270.251,1.38778e-17,0,10581,10581
270.301,1.38778e-17,0,10809,10809
270.351,1.38778e-17,0,11019,11019
270.401,1.38778e-17,0,11247,11247
270.45,1.38778e-17,0,11463,11463
270.5,1.38778e-17,0,11671,11671
270.55,1.38778e-17,0,11881,11881
270.601,1.38778e-17,0,12113,12113
270.651,1.38778e-17,0,12323,12323
270.701,1.38778e-17,0,12541,12541
270.751,1.38778e-17,0,12743,12743
270.801,1.38778e-17,0,12953,12953
270.85,1.38778e-17,0,13175,13175
270.9,1.38778e-17,0,13383,13383
270.951,1.38778e-17,0,13597,13597
271.001,1.38778e-17,0,13817,13817
271.051,1.38778e-17,0,14009,14009
271.101,1.38778e-17,0,14223,14223
271.151,1.38778e-17,0,14435,14435
271.2,1.38778e-17,0,14635,14635
271.25,1.38778e-17,0,14841,14841
271.301,1.38778e-17,0,15037,15037
271.351,1.38778e-17,0,15261,15261
271.401,1.38778e-17,0,15455,15455
271.451,1.38778e-17,0,15651,15651
271.501,1.38778e-17,0,15863,15863
271.55,1.38778e-17,0,16049,16049
271.6,1.38778e-17,0,16261,16261
271.651,1.38778e-17,0,16469,16469
271.701,1.38778e-17,0,16655,16655
271.751,1.38778e-17,0,16851,16851
271.801,1.38778e-17,0,17053,17053
271.851,1.38778e-17,0,17253,17253
271.9,1.38778e-17,0,17447,17447
271.95,1.38778e-17,0,17635,17635
272,1.38778e-17,0,17827,17827
272.051,1.38778e-17,0,18025,18025
272.101,1.38778e-17,0,18227,18227
272.151,1.38778e-17,0,18415,18415
272.201,1.38778e-17,0,18613,18613
272.25,1.38778e-17,0,18793,18793
272.3,1.38778e-17,0,18995,18995
272.35,1.38778e-17,0,19171,19171
272.401,1.38778e-17,0,19379,19379
272.451,1.38778e-17,0,19551,19551
272.501,1.38778e-17,0,19735,19735
272.551,1.38778e-17,0,19919,19919
272.601,1.38778e-17,0,20099,20099
272.65,1.38778e-17,0,20279,20279
272.7,1.38778e-17,0,20477,20477
272.751,1.38778e-17,0,20659,20659
272.801,1.38778e-17,0,20839,20839
272.851,1.38778e-17,0,21017,21017
272.901,1.38778e-17,0,21193,21193
272.951,1.38778e-17,0,21399,21399
273,1.38778e-17,0,21551,21551
273.05,1.38778e-17,0,21739,21739
273.101,1.38778e-17,0,21925,21925
273.151,1.38778e-17,0,22099,22099
273.201,1.38778e-17,0,22279,22279
273.251,1.38778e-17,0,22453,22453
273.301,1.38778e-17,0,22627,22627
273.35,1.38778e-17,0,22803,22803
273.4,1.38778e-17,0,22981,22981
273.45,1.38778e-17,0,23169,23169
273.501,1.38778e-17,0,23335,23335
273.551,1.38778e-17,0,23531,23531
273.601,1.38778e-17,0,23689,23689
273.651,1.38778e-17,0,23883,23883
273.7,1.38778e-17,0,24043,24043
273.75,1.38778e-17,0,24217,24217
273.8,1.38778e-17,0,24401,24401
273.851,1.38778e-17,0,24567,24567
273.901,6.93889e-17,0,24747,24747
273.951,4.30211e-16,0,24933,24933
274.001,9.02056e-16,0,25087,25087
274.051,1.3739e-15,0,25279,25279
274.1,1.84575e-15,0,25437,25437
274.15,2.31759e-15,0,25611,25611
274.201,2.80331e-15,0,25803,25803
274.251,3.27516e-15,0,25957,25957
274.301,3.747e-15,0,26137,26137
274.351,4.21885e-15,0,26311,26311
274.401,4.69069e-15,0,26465,26465
274.45,5.53724e-15,0,26657,26657
274.5,6.41154e-15,0,26815,26815
274.551,7.38298e-15,0,26997,26997
274.601,8.31279e-15,0,27177,27177
274.651,9.25648e-15,0,27327,27327
274.701,1.02002e-14,0,27511,27511
274.751,1.11439e-14,0,27681,27681
274.8,1.20876e-14,0,27835,27835
274.85,1.30312e-14,0,28015,28015
274.901,1.40027e-14,0,28193,28193
274.951,1.52101e-14,0,28355,28355
275.001,1.66256e-14,0,28527,28527
275.051,1.80689e-14,0,28697,28697
275.101,1.9415e-14,0,28843,28843
275.15,2.04142e-14,0,29031,29031
275.2,2.05114e-14,0,29197,29197
275.25,1.87905e-14,0,29347,29347
275.301,1.35308e-14,0,29539,29539
275.351,3.08087e-15,0,29697,29697
275.401,-1.54321e-14,0,29851,29851
275.451,-4.5533e-14,0,30035,30035
275.5,-9.16212e-14,0,30201,30201
275.55,-1.58998e-13,0,30355,30355
275.6,-2.5363e-13,0,30495,30495
275.651,-3.86025e-13,0,30681,30681
275.701,-5.54209e-13,0,30823,30823
275.751,-7.60919e-13,0,30981,30981
275.801,-1.15949e-12,0,31119,31119
275.851,-2.00533e-12,0,31257,31257
275.9,-3.26697e-12,0,31411,31411
275.95,-8.58429e-12,0,31549,31549
276.001,-3.18708e-11,0,31689,31689
276.051,-8.01236e-11,0,31831,31831
276.101,-1.55315e-10,0,31965,31965
276.151,-2.38641e-10,0,32087,32087
276.201,-2.89756e-10,0,32210,32210
276.25,-2.69087e-10,0,32334,32334
276.3,-1.69951e-10,0,32450,32450
276.351,-2.77992e-11,0,32548,32548
276.401,8.44514e-11,0,32660,32660
276.451,1.2704e-10,0,32752,32752
276.501,1.04957e-10,0,32768,32768
276.551,6.37183e-11,0,32768,32768
276.6,5.15252e-11,0,32768,32768
276.65,8.21374e-11,0,32768,32768
276.7,1.28732e-10,0,32768,32768
276.751,1.51878e-10,0,32768,32768
276.801,1.34546e-10,0,32768,32768
276.851,9.87651e-11,0,32768,32768
276.901,8.0022e-11,0,32736,32736
276.95,9.59543e-11,0,32768,32768
277,1.30684e-10,0,32768,32768
277.05,1.45336e-10,0,32752,32752
277.101,1.13194e-10,0,32768,32768
277.151,3.44405e-11,0,32752,32752
277.201,-5.66818e-11,0,32768,32768
277.251,-1.12481e-10,0,32720,32720
277.301,-9.93047e-11,0,32632,32632
277.35,-2.08112e-11,0,32768,32768
277.4,8.10479e-11,0,32624,32624
277.451,1.54996e-10,0,32704,32704
277.501,1.7776e-10,0,32748,32748
277.551,1.86146e-10,0,32756,32756
277.601,2.29666e-10,0,32712,32712
277.651,3.08487e-10,0,32744,32744
277.7,3.55543e-10,0,32736,32736
277.75,3.24778e-10,0,32720,32720
277.801,3.52919e-10,0,32644,32644
277.851,8.50376e-10,0,32744,32744
277.901,2.37963e-09,0,32664,32664
277.951,5.38165e-09,0,32736,32736
278.001,9.89839e-09,0,32664,32664
278.05,1.54953e-08,0,32768,32768
278.1,2.14446e-08,0,32720,32720
278.15,2.70663e-08,0,32656,32656
278.201,3.2188e-08,0,32752,32752
278.251,3.67497e-08,0,32624,32624
278.301,4.16064e-08,0,32720,32720
278.351,4.76671e-08,0,32668,32668
278.4,5.57433e-08,0,32744,32744
278.45,6.63615e-08,0,32648,32648
278.5,7.98125e-08,0,32768,32768
278.551,9.6932e-08,0,32640,32640
278.601,1.17309e-07,0,32768,32768
278.651,1.42254e-07,0,32680,32680
278.701,1.72761e-07,0,32768,32768
278.75,2.09618e-07,0,32592,32592
278.8,2.53115e-07,0,32496,32496
278.85,3.02953e-07,0,32484,32484
278.901,3.60137e-07,0,32496,32496
278.951,4.20635e-07,0,32504,32504
279.001,4.85542e-07,0,32432,32432
279.051,5.54659e-07,0,32434,32434
279.101,6.27635e-07,0,32450,32450
279.15,7.03375e-07,0,32404,32404
279.2,7.79724e-07,0,32458,32458
279.251,8.5579e-07,0,32394,32394
279.301,9.24026e-07,0,32528,32528
279.351,9.84241e-07,0,32450,32450
279.401,1.03528e-06,0,32394,32394
279.451,1.07735e-06,0,32410,32410
279.5,1.1117e-06,0,32376,32376
279.55,1.14015e-06,0,32424,32424
279.601,1.16521e-06,0,32486,32486
279.651,1.18702e-06,0,32426,32426
279.701,1.20738e-06,0,32360,32360
279.751,1.22683e-06,0,32440,32440
279.801,1.24542e-06,0,32376,32376
279.85,1.26272e-06,0,32348,32348
279.9,1.27787e-06,0,32306,32306
279.95,1.28985e-06,0,32284,32284
280.001,1.29803e-06,0,32408,32408
280.051,1.30186e-06,0,32358,32358
280.101,1.30247e-06,0,32296,32296
280.151,1.30143e-06,0,32394,32394
280.2,1.30035e-06,0,32412,32412
280.25,1.30018e-06,0,32406,32406
280.3,1.30064e-06,0,32492,32492
280.351,1.30021e-06,0,32602,32602
280.401,1.29662e-06,0,32596,32596
280.451,1.28764e-06,0,32584,32584
280.501,1.27171e-06,0,32672,32672
280.551,1.24832e-06,0,32632,32632
280.6,1.21821e-06,0,32530,32530
280.65,1.18299e-06,0,32674,32674
280.701,1.14345e-06,0,32646,32646
280.751,1.10336e-06,0,32460,32460
280.801,1.06209e-06,0,32582,32582
280.851,1.01893e-06,0,32464,32464
280.901,9.72452e-07,0,32576,32576
280.95,9.2123e-07,0,32456,32456
281,8.64517e-07,0,32428,32428
281.051,8.00591e-07,0,32564,32564
281.101,7.34092e-07,0,32366,32366
281.151,6.64675e-07,0,32484,32484
281.201,5.93859e-07,0,32390,32390
281.251,5.23069e-07,0,32446,32446
281.3,4.53579e-07,0,32322,32322
281.35,3.8654e-07,0,32468,32468
281.4,3.2304e-07,0,32592,32592
281.451,2.62417e-07,0,32414,32414
281.501,2.089e-07,0,32310,32310
281.551,1.60996e-07,0,32500,32500
281.601,1.18542e-07,0,32294,32294
281.65,8.10885e-08,0,32332,32332
281.7,4.82024e-08,0,32122,32122
281.75,1.96793e-08,0,32198,32198
281.801,-5.13748e-09,0,31998,31998
281.851,-2.49005e-08,0,31916,31916
281.901,-4.07705e-08,0,31852,31852
281.951,-5.34986e-08,0,31786,31786
282.001,-6.39784e-08,0,31726,31726
282.05,-7.28989e-08,0,31678,31678
282.1,-8.05067e-08,0,31612,31612
282.151,-8.67938e-08,0,31542,31542
282.201,-9.10888e-08,0,31482,31482
282.251,-9.34665e-08,0,31424,31424
282.301,-9.41429e-08,0,31334,31334
282.351,-9.36306e-08,0,31288,31288
282.4,-9.25304e-08,0,31222,31222
282.45,-9.12797e-08,0,31162,31162
282.501,-8.99495e-08,0,31118,31118
282.551,-8.83966e-08,0,31032,31032
282.601,-8.62153e-08,0,31014,31014
282.651,-8.31122e-08,0,30948,30948
282.701,-7.90262e-08,0,30918,30918
282.75,-7.41424e-08,0,30878,30878
282.8,-6.87898e-08,0,30824,30824
282.851,-6.3144e-08,0,30776,30776
282.901,-5.77853e-08,0,30736,30736
282.951,-5.27027e-08,0,30708,30708
283.001,-4.79754e-08,0,30666,30666
283.051,-4.36473e-08,0,30632,30632
283.1,-3.97418e-08,0,30588,30588
283.15,-3.62596e-08,0,30520,30520
283.2,-3.31738e-08,0,30488,30488
283.251,-3.0364e-08,0,30508,30508
283.301,-2.79445e-08,0,30612,30612
283.351,-2.58007e-08,0,30768,30768
283.401,-2.39205e-08,0,30930,30930
283.45,-2.2301e-08,0,31078,31078
283.5,-2.09383e-08,0,31138,31138
283.55,-1.98216e-08,0,31202,31202
283.601,-1.891e-08,0,31250,31250
283.651,-1.82327e-08,0,31314,31314
283.701,-1.77367e-08,0,31362,31362
283.751,-1.73984e-08,0,31426,31426
283.801,-1.71956e-08,0,31474,31474
283.85,-1.71075e-08,0,31538,31538
283.9,-1.71144e-08,0,31586,31586
283.951,-1.72019e-08,0,31650,31650
284.001,-1.73489e-08,0,31698,31698
284.051,-1.75441e-08,0,31762,31762
284.101,-1.77772e-08,0,31826,31826
284.151,-1.80399e-08,0,31874,31874
284.2,-1.83252e-08,0,31938,31938
284.25,-1.86259e-08,0,31986,31986
284.301,-1.89446e-08,0,32050,32050
284.351,-1.92563e-08,0,32098,32098
284.401,-1.95649e-08,0,32162,32162
284.451,-1.98667e-08,0,32210,32210
284.501,-2.01593e-08,0,32274,32274
284.55,-2.04418e-08,0,32322,32322
284.6,-2.0713e-08,0,32386,32386
284.65,-2.09718e-08,0,32434,32434
284.701,-2.1223e-08,0,32498,32498
284.751,-2.145e-08,0,32546,32546
284.801,-2.16577e-08,0,32610,32610
284.851,-2.18445e-08,0,32674,32674
284.9,-2.20095e-08,0,32678,32678
284.95,-2.21529e-08,0,32736,32736
285,-2.22758e-08,0,32768,32768
285.051,-2.23826e-08,0,32752,32752
285.101,-2.24691e-08,0,32752,32752
285.151,-2.25411e-08,0,32736,32736
285.201,-2.2601e-08,0,32720,32720
285.251,-2.26514e-08,0,32704,32704
285.3,-2.26946e-08,0,32720,32720
285.35,-2.2732e-08,0,32720,32720
285.401,-2.27676e-08,0,32720,32720
285.451,-2.28012e-08,0,32712,32712
285.501,-2.28349e-08,0,32752,32752
285.551,-2.28702e-08,0,32696,32696
285.601,-2.29086e-08,0,32728,32728
285.65,-2.29511e-08,0,32476,32476
285.7,-2.3e-08,0,32768,32768
285.751,-2.30586e-08,0,32768,32768
285.801,-2.31259e-08,0,32768,32768
285.851,-2.32057e-08,0,32768,32768
285.901,-2.33001e-08,0,32768,32768
285.951,-2.34124e-08,0,32768,32768
286,-2.35452e-08,0,32768,32768
286.05,-2.37016e-08,0,32768,32768
286.1,-2.3885e-08,0,32768,32768
286.151,-2.41053e-08,0,32768,32768
286.201,-2.4353e-08,0,32768,32768
286.251,-2.46368e-08,0,32768,32768
286.301,-2.49594e-08,0,32768,32768
286.35,-2.53228e-08,0,32768,32768
286.4,-2.57282e-08,0,32768,32768
286.45,-2.61767e-08,0,32768,32768
286.501,-2.66836e-08,0,32768,32768
286.551,-2.72188e-08,0,32768,32768
286.601,-2.77935e-08,0,32768,32768
286.651,-2.84043e-08,0,32768,32768
286.701,-2.90472e-08,0,32704,32704
286.75,-2.97173e-08,0,32724,32724
286.8,-3.04099e-08,0,32732,32732
286.851,-3.11412e-08,0,32740,32740
286.901,-3.18653e-08,0,32764,32764
286.951,-3.25994e-08,0,32764,32764
287.001,-3.33406e-08,0,32760,32760
287.051,-3.40867e-08,0,32748,32748
287.1,-3.48359e-08,0,32752,32752
287.15,-3.55866e-08,0,32744,32744
287.201,-3.63593e-08,0,32768,32768
287.251,-3.71081e-08,0,32760,32760
287.301,-3.78533e-08,0,32768,32768
287.351,-3.85932e-08,0,32768,32768
287.401,-3.93261e-08,0,32760,32760
287.45,-4.00504e-08,0,32764,32764
287.5,-4.07651e-08,0,32768,32768
287.551,-4.14897e-08,0,32768,32768
287.601,-4.2182e-08,0,32768,32768
287.651,-4.2862e-08,0,32768,32768
287.701,-4.35284e-08,0,32768,32768
287.751,-4.41794e-08,0,32760,32760
287.8,-4.48128e-08,0,32764,32764
287.85,-4.54257e-08,0,32768,32768
287.9,-4.60151e-08,0,32752,32752
287.951,-4.65944e-08,0,32768,32768
288.001,-4.71281e-08,0,32768,32768
288.051,-4.76309e-08,0,32768,32768
288.101,-4.8101e-08,0,32760,32760
288.15,-4.85368e-08,0,32760,32760
288.2,-4.8937e-08,0,32760,32760
288.25,-4.93002e-08,0,32768,32768
288.301,-4.96336e-08,0,32768,32768
288.351,-4.99165e-08,0,32736,32736
288.401,-5.01573e-08,0,32768,32768
288.451,-5.03549e-08,0,32768,32768
288.501,-5.05085e-08,0,32764,32764
288.55,-5.0618e-08,0,32768,32768
288.6,-5.06841e-08,0,32768,32768
288.651,-5.07081e-08,0,32768,32768
288.701,-5.06907e-08,0,32768,32768
288.751,-5.0636e-08,0,32764,32764
288.801,-5.0547e-08,0,32768,32768
288.851,-5.04268e-08,0,32764,32764
288.9,-5.02794e-08,0,32768,32768
288.95,-5.01082e-08,0,32768,32768
289.001,-4.99109e-08,0,32768,32768
289.051,-4.97022e-08,0,32768,32768
289.101,-4.94799e-08,0,32768,32768
289.151,-4.9247e-08,0,32764,32764
289.201,-4.90062e-08,0,32768,32768
289.25,-4.87597e-08,0,32768,32768
289.3,-4.85098e-08,0,32768,32768
289.35,-4.82581e-08,0,32768,32768
289.401,-4.79987e-08,0,32768,32768
289.451,-4.77479e-08,0,32768,32768
289.501,-4.74992e-08,0,32768,32768
289.551,-4.72535e-08,0,32768,32768
289.6,-4.70119e-08,0,32768,32768
289.65,-4.67749e-08,0,32768,32768
289.7,-4.65432e-08,0,32768,32768
289.751,-4.63105e-08,0,32768,32768
289.801,-4.60905e-08,0,32768,32768
289.851,-4.58767e-08,0,32768,32768
289.901,-4.56691e-08,0,32768,32768
289.95,-4.5468e-08,0,32768,32768
290,-4.52734e-08,0,32768,32768
290.05,-4.50855e-08,0,32760,32760
290.101,-4.48991e-08,0,32728,32728
290.151,-4.47249e-08,0,32768,32768
290.201,-4.45572e-08,0,32732,32732
290.251,-4.43959e-08,0,32744,32744
290.301,-4.42405e-08,0,32740,32740
290.35,-4.40907e-08,0,32720,32720
290.4,-4.39459e-08,0,32694,32694
290.451,-4.38016e-08,0,32704,32704
290.501,-4.36655e-08,0,32744,32744
290.551,-4.35327e-08,0,32768,32768
290.601,-4.34029e-08,0,32768,32768
290.651,-4.32754e-08,0,32670,32670
290.7,-4.31498e-08,0,32656,32656
290.75,-4.30254e-08,0,32712,32712
290.801,-4.28982e-08,0,32708,32708
290.851,-4.2775e-08,0,32666,32666
290.901,-4.26515e-08,0,32616,32616
290.951,-4.25274e-08,0,32566,32566
291.001,-4.24021e-08,0,32632,32632
291.05,-4.22753e-08,0,32732,32732
291.1,-4.21465e-08,0,32596,32596
291.15,-4.20153e-08,0,32690,32690
291.201,-4.18774e-08,0,32768,32768
291.251,-4.17403e-08,0,32768,32768
291.301,-4.15998e-08,0,32768,32768
291.351,-4.14557e-08,0,32768,32768
291.4,-4.13077e-08,0,32768,32768
291.45,-4.11556e-08,0,32530,32530
291.5,-4.09993e-08,0,32702,32702
291.551,-4.08338e-08,0,32706,32706
291.601,-4.06684e-08,0,32718,32718
291.651,-4.04983e-08,0,32682,32682
291.701,-4.03234e-08,0,32678,32678
291.751,-4.01432e-08,0,32648,32648
291.8,-3.99576e-08,0,32534,32534
291.85,-3.97662e-08,0,32654,32654
291.901,-3.95625e-08,0,32586,32586
291.951,-3.93576e-08,0,32518,32518
292.001,-3.91454e-08,0,32458,32458
292.051,-3.89254e-08,0,32478,32478
292.101,-3.86972e-08,0,32422,32422
292.15,-3.84604e-08,0,32404,32404
292.2,-3.82147e-08,0,32348,32348
292.251,-3.7952e-08,0,32124,32124
292.301,-3.76868e-08,0,32310,32310
292.351,-3.74108e-08,0,32156,32156
292.401,-3.7123e-08,0,32228,32228
292.451,-3.68218e-08,0,32166,32166
292.5,-3.65055e-08,0,32076,32076
292.55,-3.61719e-08,0,31988,31988
292.6,-3.58184e-08,0,32032,32032
292.651,-3.54307e-08,0,32058,32058
292.701,-3.50276e-08,0,32068,32068
292.751,-3.4595e-08,0,32036,32036
292.801,-3.41295e-08,0,32046,32046
292.85,-3.36276e-08,0,32012,32012
292.9,-3.30861e-08,0,32016,32016
292.95,-3.25019e-08,0,32010,32010
293.001,-3.18535e-08,0,32026,32026
293.051,-3.1176e-08,0,31986,31986
293.101,-3.04505e-08,0,32000,32000
293.151,-2.9677e-08,0,31986,31986
293.201,-2.88564e-08,0,31976,31976
293.25,-2.79911e-08,0,31964,31964
293.3,-2.70841e-08,0,31974,31974
293.351,-2.61113e-08,0,31964,31964
293.401,-2.51331e-08,0,31966,31966
293.451,-2.41274e-08,0,32080,32080
293.501,-2.30991e-08,0,32248,32248
293.551,-2.20531e-08,0,32354,32354
293.6,-2.09936e-08,0,32352,32352
293.65,-1.9924e-08,0,32376,32376
293.701,-1.88157e-08,0,32326,32326
293.751,-1.77346e-08,0,32340,32340
293.801,-1.66513e-08,0,32354,32354
293.851,-1.55678e-08,0,32332,32332
293.901,-1.4486e-08,0,32330,32330
293.95,-1.34079e-08,0,32344,32344
294,-1.23353e-08,0,32480,32480
294.051,-1.12389e-08,0,32676,32676
294.101,-1.01831e-08,0,32768,32768
294.151,-9.13793e-09,0,32752,32752
294.201,-8.10467e-09,0,32768,32768
294.251,-7.08467e-09,0,32768,32768
294.3,-6.07934e-09,0,32764,32764
294.35,-5.09038e-09,0,32768,32768
294.4,-4.11985e-09,0,32752,32752
294.451,-3.1427e-09,0,32752,32752
294.501,-2.2177e-09,0,32764,32764
294.551,-1.31973e-09,0,32768,32768
294.601,-4.51911e-10,0,32750,32750
294.65,3.82765e-10,0,32768,32768
294.7,1.1816e-09,0,32768,32768
294.75,1.94219e-09,0,32764,32764
294.801,2.68299e-09,0,32768,32768
294.851,3.35971e-09,0,32760,32760
294.901,3.99229e-09,0,32768,32768
294.951,4.57894e-09,0,32754,32754
295.001,5.11787e-09,0,32768,32768
295.05,5.60744e-09,0,32768,32768
295.1,6.04628e-09,0,32764,32764
295.151,6.44399e-09,0,32764,32764
295.201,6.77742e-09,0,32744,32744
295.251,7.05899e-09,0,32766,32766
295.301,7.28978e-09,0,32766,32766
295.351,7.47179e-09,0,32720,32720
295.4,7.60785e-09,0,32730,32730
295.45,7.70153e-09,0,32718,32718
295.501,7.75808e-09,0,32716,32716
295.551,7.77886e-09,0,32710,32710
295.601,7.77053e-09,0,32708,32708
295.651,7.73747e-09,0,32712,32712
295.701,7.68407e-09,0,32710,32710
295.75,7.61434e-09,0,32704,32704
295.8,7.53184e-09,0,32704,32704
295.85,7.43969e-09,0,32704,32704
295.901,7.33758e-09,0,32704,32704
295.951,7.23361e-09,0,32702,32702
296.001,7.12665e-09,0,32686,32686
296.051,7.01795e-09,0,32704,32704
296.1,6.90833e-09,0,32682,32682
296.15,6.7983e-09,0,32704,32704
296.2,6.68815e-09,0,32704,32704
296.251,6.57469e-09,0,32694,32694
296.301,6.46428e-09,0,32700,32700
296.351,6.35343e-09,0,32696,32696
296.401,6.24188e-09,0,32698,32698
296.451,6.12955e-09,0,32696,32696
296.5,6.01672e-09,0,32696,32696
296.55,5.90426e-09,0,32696,32696
296.601,5.79039e-09,0,32656,32656
296.651,5.68365e-09,0,32598,32598
296.701,5.58291e-09,0,32596,32596
296.751,5.49018e-09,0,32620,32620
296.801,5.40708e-09,0,32600,32600
296.85,5.33451e-09,0,32574,32574
296.9,5.27264e-09,0,32510,32510
296.951,5.21952e-09,0,32682,32682
297.001,5.17702e-09,0,32696,32696
297.051,5.14231e-09,0,32706,32706
297.101,5.11435e-09,0,32702,32702
297.151,5.09141e-09,0,32696,32696
297.2,5.07302e-09,0,32712,32712
297.25,5.05873e-09,0,32720,32720
297.3,5.04836e-09,0,32372,32372
297.351,5.04152e-09,0,32608,32608
297.401,5.03778e-09,0,32624,32624
297.451,5.03707e-09,0,32608,32608
297.501,5.03662e-09,0,32608,32608
297.55,5.0367e-09,0,32568,32568
297.6,5.03575e-09,0,32568,32568
297.65,5.03251e-09,0,32552,32552
297.701,5.02746e-09,0,32510,32510
297.751,5.01975e-09,0,32452,32452
297.801,5.01068e-09,0,32276,32276
297.851,5.00111e-09,0,32170,32170
297.901,4.99175e-09,0,32116,32116
297.95,4.98326e-09,0,32048,32048
298,4.97513e-09,0,31806,31806
298.051,4.96791e-09,0,31962,31962
298.101,4.96056e-09,0,31964,31964
298.151,4.95222e-09,0,31956,31956
298.201,4.94295e-09,0,31920,31920
298.251,4.93454e-09,0,32232,32232
298.3,4.92644e-09,0,32208,32208
298.35,4.92008e-09,0,32244,32244
298.401,4.91609e-09,0,32348,32348
298.451,4.9148e-09,0,32408,32408
298.501,4.91978e-09,0,32476,32476
298.551,4.92619e-09,0,32546,32546
298.601,4.93724e-09,0,32600,32600
298.65,4.95184e-09,0,32592,32592
298.7,4.96909e-09,0,32572,32572
298.751,4.98865e-09,0,32608,32608
298.801,5.00864e-09,0,32640,32640
298.851,5.02898e-09,0,32612,32612
298.901,5.04882e-09,0,32640,32640
298.951,5.06739e-09,0,32628,32628
299,5.08425e-09,0,32616,32616
299.05,5.09908e-09,0,32620,32620
299.1,5.11178e-09,0,32624,32624
299.151,5.12251e-09,0,32612,32612
299.201,5.13026e-09,0,32544,32544
299.251,5.13547e-09,0,32134,32134
299.301,5.13858e-09,0,31674,31674
299.35,5.14248e-09,0,31644,31644
299.4,5.14154e-09,0,31840,31840
299.45,5.13915e-09,0,31984,31984
299.501,5.1338e-09,0,32024,32024
299.551,5.12914e-09,0,32002,32002
299.601,5.12296e-09,0,32086,32086
299.651,5.11573e-09,0,32076,32076
299.701,5.10739e-09,0,32056,32056
299.75,5.09741e-09,0,31786,31786
299.8,5.08724e-09,0,32016,32016
299.851,5.07621e-09,0,32034,32034
299.901,5.06445e-09,0,32094,32094
299.951,5.05224e-09,0,32172,32172
300.001,5.03914e-09,0,32300,32300
300.051,5.0251e-09,0,32500,32500
300.1,5.01002e-09,0,32662,32662
300.15,4.99316e-09,0,32756,32756
300.201,4.97505e-09,0,32756,32756
300.251,4.95617e-09,0,32764,32764
300.301,4.93599e-09,0,32764,32764
300.351,4.91489e-09,0,32764,32764
300.401,4.89285e-09,0,32764,32764
300.45,4.86949e-09,0,32744,32744
300.5,4.84536e-09,0,32768,32768
300.55,4.82058e-09,0,32752,32752
300.601,4.7943e-09,0,32768,32768
300.651,4.76781e-09,0,32768,32768
300.701,4.74025e-09,0,32768,32768
300.751,4.71176e-09,0,32768,32768
300.8,4.6824e-09,0,32768,32768
300.85,4.65205e-09,0,32758,32758
300.9,4.6207e-09,0,32750,32750
300.951,4.58739e-09,0,32756,32756
301.001,4.55401e-09,0,32762,32762
301.051,4.51967e-09,0,32754,32754
301.101,4.48441e-09,0,32756,32756
301.151,4.44813e-09,0,32746,32746
301.2,4.41074e-09,0,32756,32756
301.25,4.37234e-09,0,32754,32754
301.301,4.33187e-09,0,32756,32756
301.351,4.29159e-09,0,32758,32758
301.401,4.25032e-09,0,32760,32760
301.451,4.20809e-09,0,32762,32762
301.501,4.16486e-09,0,32748,32748
301.55,4.12064e-09,0,32750,32750
301.6,4.07554e-09,0,32738,32738
301.651,4.0283e-09,0,32738,32738
301.701,3.9816e-09,0,32736,32736
301.751,3.93406e-09,0,32732,32732
301.801,3.88568e-09,0,32732,32732
301.851,3.83653e-09,0,32736,32736
301.9,3.78669e-09,0,32738,32738
301.95,3.73619e-09,0,32638,32638
302.001,3.68355e-09,0,32528,32528
302.051,3.63183e-09,0,32392,32392
302.101,3.5796e-09,0,32258,32258
302.151,3.5269e-09,0,32196,32196
302.201,3.47379e-09,0,32040,32040
302.25,3.4203e-09,0,32008,32008
302.3,3.3665e-09,0,31998,31998
302.35,3.31249e-09,0,31970,31970
302.401,3.25674e-09,0,31964,31964
302.451,3.20251e-09,0,31940,31940
302.501,3.14825e-09,0,31648,31648
302.551,3.09402e-09,0,31344,31344
302.6,3.03988e-09,0,30940,30940
302.65,2.98589e-09,0,30806,30806
302.7,2.93209e-09,0,30746,30746
302.751,2.87699e-09,0,30484,30484
302.801,2.82377e-09,0,30482,30482
302.851,2.7709e-09,0,30446,30446
302.901,2.71841e-09,0,30306,30306
302.951,2.66634e-09,0,30614,30614
303,2.61471e-09,0,30394,30394
303.05,2.56353e-09,0,30254,30254
303.101,2.51134e-09,0,30404,30404
303.151,2.46114e-09,0,30514,30514
303.201,2.41141e-09,0,30718,30718
303.251,2.36218e-09,0,30746,30746
303.301,2.31343e-09,0,30604,30604
303.35,2.26515e-09,0,30560,30560
303.4,2.21736e-09,0,30542,30542
303.451,2.16865e-09,0,30716,30716
303.501,2.1218e-09,0,30716,30716
303.551,2.0754e-09,0,30594,30594
303.601,2.02944e-09,0,30956,30956
303.651,1.98392e-09,0,30466,30466
303.7,1.93881e-09,0,30500,30500
303.75,1.89413e-09,0,30248,30248
303.8,1.84985e-09,0,30232,30232
303.851,1.80468e-09,0,30124,30124
303.901,1.7612e-09,0,30164,30164
303.951,1.7181e-09,0,29926,29926
304.001,1.67536e-09,0,29810,29810
304.05,1.63297e-09,0,29656,29656
304.1,1.59092e-09,0,29936,29936
304.15,1.54919e-09,0,29482,29482
304.201,1.50656e-09,0,29386,29386
304.251,1.46543e-09,0,29788,29788
304.301,1.42457e-09,0,29264,29264
304.351,1.38396e-09,0,29068,29068
304.401,1.3436e-09,0,29526,29526
304.45,1.30348e-09,0,28952,28952
304.5,1.26358e-09,0,28984,28984
304.551,1.22273e-09,0,29042,29042
304.601,1.18326e-09,0,28810,28810
304.651,1.144e-09,0,28810,28810
304.701,1.10493e-09,0,28682,28682
304.751,1.06606e-09,0,28652,28652
304.8,1.02739e-09,0,29162,29162
304.85,9.88893e-10,0,28802,28802
304.901,9.49449e-10,0,28848,28848
304.951,9.11318e-10,0,29018,29018
