250,0,0,2048,2048
250.006,0,0,2048,2048
250.053,0,0,2048,2048
250.105,0,0,2048,2048
250.152,0,0,2048,2048
250.205,0,0,2048,2048
250.252,0,0,2048,2048
250.305,0,0,2048,2048
250.352,0,0,2048,2048
250.404,2.77556e-17,0,2048,2048
250.451,0,0,2048,2048
250.504,0,0,2048,2048
250.551,0,0,2048,2048
250.603,0,0,2048,2048
250.65,2.77556e-17,0,2048,2048
250.703,0,0,2048,2048
250.756,0,0,2048,2048
250.803,0,0,2048,2048
250.855,-2.77556e-17,0,2048,2048
250.902,-2.77556e-17,0,2048,2048
250.955,0,0,2048,2048
251.002,0,0,2048,2048
251.055,0,0,2048,2048
251.101,0,0,2048,2048
251.154,0,0,2048,2048
251.201,0,0,2048,2048
251.254,2.77556e-17,0,2048,2048
251.301,5.55112e-17,0,2048,2048
251.353,5.55112e-17,0,2048,2048
251.4,0,0,2048,2048
251.453,0,0,2048,2048
251.506,0,0,2048,2048
251.553,0,0,2048,2048
251.605,0,0,2048,2048
251.652,0,0,2048,2048
251.705,0,0,2048,2048
251.752,0,0,2048,2048
251.804,0,0,2048,2048
251.851,2.77556e-17,0,2048,2048
251.904,2.77556e-17,0,2048,2048
251.951,2.77556e-17,0,2048,2048
252.004,2.77556e-17,0,2048,2048
252.05,5.55112e-17,0,2048,2048
252.103,5.55112e-17,0,2048,2048
252.15,5.55112e-17,0,2048,2048
252.203,5.55112e-17,0,2048,2048
252.256,5.55112e-17,0,2048,2048
252.302,5.55112e-17,0,2048,2048
252.355,5.55112e-17,0,2048,2048
252.402,5.55112e-17,0,2048,2048
252.455,5.55112e-17,0,2048,2048
252.502,5.55112e-17,0,2048,2048
252.554,0,0,2048,2048
252.601,0,0,2048,2048
252.654,-2.77556e-17,0,2048,2048
252.701,-2.77556e-17,0,2048,2048
252.754,-2.77556e-17,0,2048,2048
252.8,-2.77556e-17,0,2048,2048
252.853,-2.77556e-17,0,2048,2048
252.906,-2.77556e-17,0,2048,2048
252.953,-2.77556e-17,0,2048,2048
253.005,-2.77556e-17,0,2048,2048
253.052,-2.77556e-17,0,2048,2048
253.105,-2.77556e-17,0,2048,2048
253.152,-2.77556e-17,0,2048,2048
253.205,-2.77556e-17,0,2048,2048
253.251,-2.77556e-17,0,2048,2048
253.304,-2.77556e-17,0,2048,2048
253.351,2.77556e-17,0,2048,2048
253.404,5.55112e-17,0,2048,2048
253.451,2.77556e-17,0,2048,2048
253.503,2.77556e-17,0,2048,2048
253.55,2.77556e-17,0,2048,2048
253.603,0,0,2048,2048
253.656,-2.77556e-17,0,2048,2048
253.703,-2.77556e-17,0,2048,2048
253.755,-2.77556e-17,0,2048,2048
253.802,-2.77556e-17,0,2048,2048
253.855,-2.77556e-17,0,2048,2048
253.902,-2.77556e-17,0,2048,2048
253.954,-2.77556e-17,0,2048,2048
254.001,-2.77556e-17,0,2048,2048
254.054,-2.77556e-17,0,2048,2048
254.101,-2.77556e-17,0,2048,2048
254.154,0,0,2048,2048
254.201,2.77556e-17,0,2048,2048
254.253,2.77556e-17,0,2048,2048
254.3,0,0,2048,2048
254.353,2.77556e-17,0,2048,2048
254.406,0,0,2048,2048
254.452,2.77556e-17,0,2048,2048
254.505,0,0,2048,2048
254.552,-2.77556e-17,0,2048,2048
254.605,-2.77556e-17,0,2048,2048
254.652,-2.77556e-17,0,2048,2048
254.704,-2.77556e-17,0,2048,2048
254.751,-2.77556e-17,0,2048,2048
254.804,-2.77556e-17,0,2048,2048
254.851,-2.77556e-17,0,2048,2048
254.904,-2.77556e-17,0,2048,2048
254.95,-2.77556e-17,0,2048,2048
255.003,-2.77556e-17,0,2048,2048
255.05,-2.77556e-17,0,2048,2048
255.103,-2.77556e-17,0,2048,2048
255.155,-2.77556e-17,0,2048,2048
255.202,-2.77556e-17,0,2048,2048
255.255,0,0,2048,2048
255.302,0,0,2048,2048
255.355,0,0,2048,2048
255.402,0,0,2048,2048
255.454,0,0,2048,2048
255.501,-2.77556e-17,0,2048,2048
255.554,-2.77556e-17,0,2048,2048
255.601,-2.77556e-17,0,2048,2048
255.653,-2.77556e-17,0,2048,2048
255.7,0,0,2048,2048
255.753,2.77556e-17,0,2048,2048
255.806,5.55112e-17,0,2048,2048
255.853,2.77556e-17,0,2048,2048
255.905,0,0,2048,2048
255.952,0,0,2048,2048
256.005,2.77556e-17,0,2048,2048
256.052,2.77556e-17,0,2048,2048
256.105,2.77556e-17,0,2048,2048
256.151,2.77556e-17,0,2048,2048
256.204,2.77556e-17,0,2048,2048
256.251,2.77556e-17,0,2048,2048
256.304,2.77556e-17,0,2048,2048
256.351,2.77556e-17,0,2048,2048
256.403,8.32667e-17,0,2048,2048
256.45,8.32667e-17,0,2048,2048
256.503,5.55112e-17,0,2048,2048
256.556,8.32667e-17,0,2048,2048
256.603,5.55112e-17,0,2048,2048
256.655,8.32667e-17,0,2048,2048
256.702,5.55112e-17,0,2048,2048
256.755,5.55112e-17,0,2048,2048
256.802,5.55112e-17,0,2048,2048
256.854,2.77556e-17,0,2048,2048
256.901,2.77556e-17,0,2048,2048
256.954,2.77556e-17,0,2048,2048
257.001,2.77556e-17,0,2048,2048
257.054,2.77556e-17,0,2048,2048
257.101,2.77556e-17,0,2048,2048
257.153,0,0,2048,2048
257.2,0,0,2048,2048
257.253,-2.77556e-17,0,2048,2048
257.306,-2.77556e-17,0,2048,2048
257.352,-2.77556e-17,0,2048,2048
257.405,2.77556e-17,0,2048,2048
257.452,2.77556e-17,0,2048,2048
257.505,0,0,2048,2048
257.552,2.77556e-17,0,2048,2048
257.604,0,0,2048,2048
257.651,0,0,2048,2048
257.704,0,0,2048,2048
257.751,0,0,2048,2048
257.804,0,0,2048,2048
257.85,0,0,2048,2048
257.903,2.77556e-17,0,2048,2048
257.95,0,0,2048,2048
258.003,2.77556e-17,0,2048,2048
258.055,2.77556e-17,0,2048,2048
258.102,0,0,2048,2048
258.155,2.77556e-17,0,2048,2048
258.202,-2.77556e-17,0,2048,2048
258.255,-2.77556e-17,0,2048,2048
258.302,-2.77556e-17,0,2048,2048
258.354,0,0,2048,2048
258.401,5.55112e-17,0,2048,2048
258.454,5.55112e-17,0,2048,2048
258.501,5.55112e-17,0,2048,2048
258.553,5.55112e-17,0,2048,2048
258.6,5.55112e-17,0,2048,2048
258.653,5.55112e-17,0,2048,2048
258.706,5.55112e-17,0,2048,2048
258.753,5.55112e-17,0,2048,2048
258.805,5.55112e-17,0,2048,2048
258.852,5.55112e-17,0,2048,2048
258.905,5.55112e-17,0,2048,2048
258.952,5.55112e-17,0,2048,2048
259.005,5.55112e-17,0,2048,2048
259.051,5.55112e-17,0,2048,2048
259.104,2.77556e-17,0,2048,2048
259.151,2.77556e-17,0,2048,2048
259.204,2.77556e-17,0,2048,2048
259.251,2.77556e-17,0,2048,2048
259.303,2.77556e-17,0,2048,2048
259.35,2.77556e-17,0,2048,2048
259.403,0,0,2048,2048
259.456,2.77556e-17,0,2048,2048
259.503,0,0,2048,2048
259.555,0,0,2048,2048
259.602,0,0,2048,2048
259.655,0,0,2048,2048
259.702,-2.77556e-17,0,2048,2048
259.754,0,0,2048,2048
259.801,0,0,2048,2048
259.854,-5.55112e-17,0,2048,2048
259.901,-5.55112e-17,0,2048,2048
259.954,-5.55112e-17,0,2048,2048
260,-5.55112e-17,0,2048,2048
260.053,-2.77556e-17,0,2048,2048
260.1,-5.55112e-17,0,2048,2048
260.153,-5.55112e-17,0,2048,2048
260.206,-5.55112e-17,0,2048,2048
260.252,-5.55112e-17,0,2048,2048
260.305,-5.55112e-17,0,2048,2048
260.352,-5.55112e-17,0,2048,2048
260.405,-5.55112e-17,0,2048,2048
260.452,-5.55112e-17,0,2048,2048
260.504,-5.55112e-17,0,2048,2048
260.551,-5.55112e-17,0,2048,2048
260.604,-2.77556e-17,0,2048,2048
260.651,-2.77556e-17,0,2048,2048
260.704,-2.77556e-17,0,2048,2048
260.75,-2.77556e-17,0,2048,2048
260.803,-2.77556e-17,0,2048,2048
260.856,-2.77556e-17,0,2048,2048
260.903,-2.77556e-17,0,2048,2048
260.955,-2.77556e-17,0,2048,2048
261.002,-2.77556e-17,0,2048,2048
261.055,-5.55112e-17,0,2048,2048
261.102,-5.55112e-17,0,2048,2048
261.155,-5.55112e-17,0,2048,2048
261.201,-5.55112e-17,0,2048,2048
261.254,-5.55112e-17,0,2048,2048
261.301,-5.55112e-17,0,2048,2048
261.354,-5.55112e-17,0,2048,2048
261.401,-5.55112e-17,0,2048,2048
261.453,-5.55112e-17,0,2048,2048
261.5,-5.55112e-17,0,2048,2048
261.553,-5.55112e-17,0,2048,2048
261.606,-5.55112e-17,0,2048,2048
261.653,-5.55112e-17,0,2048,2048
261.705,-5.55112e-17,0,2048,2048
261.752,-5.55112e-17,0,2048,2048
261.805,-2.77556e-17,0,2048,2048
261.852,-2.77556e-17,0,2048,2048
261.905,-2.77556e-17,0,2048,2048
261.951,-2.77556e-17,0,2048,2048
262.004,-2.77556e-17,0,2048,2048
262.051,-2.77556e-17,0,2048,2048
262.104,-2.77556e-17,0,2048,2048
262.151,-2.77556e-17,0,2048,2048
262.203,-2.77556e-17,0,2048,2048
262.25,-2.77556e-17,0,2048,2048
262.303,-2.77556e-17,0,2048,2048
262.356,-5.55112e-17,0,2048,2048
262.402,-2.77556e-17,0,2048,2048
262.455,0,0,2048,2048
262.502,0,0,2048,2048
262.555,0,0,2048,2048
262.602,0,0,2048,2048
262.654,0,0,2048,2048
262.701,2.77556e-17,0,2048,2048
262.754,5.55112e-17,0,2048,2048
262.801,5.55112e-17,0,2048,2048
262.854,5.55112e-17,0,2048,2048
262.9,5.55112e-17,0,2048,2048
262.953,5.55112e-17,0,2048,2048
263,5.55112e-17,0,2048,2048
263.053,5.55112e-17,0,2048,2048
263.105,5.55112e-17,0,2048,2048
263.152,5.55112e-17,0,2048,2048
263.205,5.55112e-17,0,2048,2048
263.252,0,0,2048,2048
263.305,0,0,2048,2048
263.352,2.77556e-17,0,2048,2048
263.404,5.55112e-17,0,2048,2048
263.451,5.55112e-17,0,2048,2048
263.504,5.55112e-17,0,2048,2048
263.551,2.77556e-17,0,2048,2048
263.603,0,0,2048,2048
263.65,0,0,2048,2048
263.703,0,0,2048,2048
263.756,0,0,2048,2048
263.803,2.77556e-17,0,2048,2048
263.855,0,0,2048,2048
263.902,2.77556e-17,0,2048,2048
263.955,-2.77556e-17,0,2048,2048
264.002,-2.77556e-17,0,2048,2048
264.055,-2.77556e-17,0,2048,2048
264.101,-2.77556e-17,0,2048,2048
264.154,-2.77556e-17,0,2048,2048
264.201,-2.77556e-17,0,2048,2048
264.254,-2.77556e-17,0,2048,2048
264.301,0,0,2048,2048
264.353,2.77556e-17,0,2048,2048
264.4,2.77556e-17,0,2048,2048
264.453,0,0,2048,2048
264.506,0,0,2048,2048
264.553,0,0,2048,2048
264.605,2.77556e-17,0,2048,2048
264.652,2.77556e-17,0,2048,2048
264.705,-2.77556e-17,0,2048,2048
264.752,-2.77556e-17,0,2048,2048
264.804,-2.77556e-17,0,2048,2048
264.851,-2.77556e-17,0,2048,2048
264.904,-2.77556e-17,0,2048,2048
264.951,-2.77556e-17,0,2048,2048
265.004,-2.77556e-17,0,2048,2048
265.051,-2.77556e-17,0,2048,2048
265.103,-2.77556e-17,0,2048,2048
265.15,-2.77556e-17,0,2048,2048
265.203,-2.77556e-17,0,2048,2048
265.256,-2.77556e-17,0,2048,2048
265.302,0,0,2048,2048
265.355,2.77556e-17,0,2048,2048
265.402,2.77556e-17,0,2048,2048
265.455,2.77556e-17,0,2048,2048
265.502,2.77556e-17,0,2048,2048
265.554,2.77556e-17,0,2048,2048
265.601,2.77556e-17,0,2048,2048
265.654,0,0,2048,2048
265.701,-2.77556e-17,0,2048,2048
265.754,-5.55112e-17,0,2048,2048
265.8,-5.55112e-17,0,2048,2048
265.853,-5.55112e-17,0,2048,2048
265.9,-2.77556e-17,0,2048,2048
265.953,-2.77556e-17,0,2048,2048
266.005,-2.77556e-17,0,2048,2048
266.052,-2.77556e-17,0,2048,2048
266.105,-2.77556e-17,0,2048,2048
266.152,0,0,2048,2048
266.205,0,0,2048,2048
266.252,0,0,2048,2048
266.304,-2.77556e-17,0,2048,2048
266.351,-8.32667e-17,0,2048,2048
266.404,-8.32667e-17,0,2048,2048
266.451,-5.55112e-17,0,2048,2048
266.503,-8.32667e-17,0,2048,2048
266.55,-5.55112e-17,0,2048,2048
266.603,-5.55112e-17,0,2048,2048
266.656,-5.55112e-17,0,2048,2048
266.703,-5.55112e-17,0,2048,2048
266.755,-5.55112e-17,0,2048,2048
266.802,-2.77556e-17,0,2048,2048
266.855,-5.55112e-17,0,2048,2048
266.902,-5.55112e-17,0,2048,2048
266.955,-2.77556e-17,0,2048,2048
267.001,-2.77556e-17,0,2048,2048
267.054,-2.77556e-17,0,2048,2048
267.101,-2.77556e-17,0,2048,2048
267.154,-2.77556e-17,0,2048,2048
267.201,-2.77556e-17,0,2048,2048
267.253,-2.77556e-17,0,2048,2048
267.3,-2.77556e-17,0,2048,2048
267.353,-5.55112e-17,0,2048,2048
267.406,-5.55112e-17,0,2048,2048
267.453,-5.55112e-17,0,2048,2048
267.505,-1.11022e-16,0,2048,2048
267.552,-5.55112e-17,0,2048,2048
267.605,-8.32667e-17,0,2048,2048
267.652,-8.32667e-17,0,2048,2048
267.704,-5.55112e-17,0,2048,2048
267.751,-5.55112e-17,0,2048,2048
267.804,-2.77556e-17,0,2048,2048
267.851,-5.55112e-17,0,2048,2048
267.904,-8.32667e-17,0,2048,2048
267.95,-5.55112e-17,0,2048,2048
268.003,-5.55112e-17,0,2048,2048
268.05,-5.55112e-17,0,2048,2048
268.102,-5.55112e-17,0,2054,2054
268.153,-5.55112e-17,0,2048,2048
268.206,-2.77556e-17,0,2048,2048
268.253,-2.77556e-17,0,2048,2048
268.305,-2.77556e-17,0,2048,2048
268.352,-2.77556e-17,0,2048,2048
268.405,-2.77556e-17,0,2048,2048
268.452,0,0,2048,2048
268.504,0,0,2048,2048
268.551,0,0,2048,2048
268.604,0,0,2048,2048
268.651,0,0,2048,2048
268.704,2.77556e-17,0,2048,2048
268.751,5.55112e-17,0,2048,2048
268.803,5.55112e-17,0,2048,2048
268.85,5.55112e-17,0,2048,2048
268.903,5.55112e-17,0,2048,2048
268.956,5.55112e-17,0,2048,2048
269.002,2.77556e-17,0,2048,2048
269.055,2.77556e-17,0,2048,2048
269.102,2.77556e-17,0,2048,2048
269.155,2.77556e-17,0,2048,2048
269.202,5.55112e-17,0,2048,2048
269.254,2.77556e-17,0,2048,2048
269.301,2.77556e-17,0,2048,2048
269.354,2.77556e-17,0,2048,2048
269.401,2.77556e-17,0,2048,2048
269.454,2.77556e-17,0,2048,2048
269.5,2.77556e-17,0,2048,2048
269.553,2.77556e-17,0,2048,2048
269.604,5.55112e-17,0,2050,2050
269.654,5.55112e-17,0,2050,2050
269.703,5.55112e-17,0,2050,2050
269.752,5.55112e-17,0,2094,2094
269.802,5.55112e-17,0,2134,2134
269.851,5.55112e-17,0,2166,2166
269.901,8.32667e-17,0,2258,2258
269.951,8.32667e-17,0,2402,2402
270.001,8.32667e-17,0,2534,2534
270.051,8.32667e-17,0,2682,2682
270.1,8.32667e-17,0,2826,2826
270.15,8.32667e-17,0,2938,2938
270.201,8.32667e-17,0,2966,2966
270.251,8.32667e-17,0,3042,3042
270.301,8.32667e-17,0,3090,3090
270.351,8.32667e-17,0,3226,3226
270.401,8.32667e-17,0,3486,3486
270.45,8.32667e-17,0,3734,3734
270.501,8.32667e-17,0,4002,4002
270.551,8.32667e-17,0,4326,4326
270.6,8.32667e-17,0,4782,4782
270.65,8.32667e-17,0,5438,5438
270.701,-1.38778e-16,0,6110,6110
270.75,-2.38698e-15,0,6950,6950
270.8,-2.27041e-14,0,7822,7822
270.85,-1.57735e-13,0,8722,8722
270.901,-7.97168e-13,0,9618,9618
270.95,-3.00468e-12,0,10518,10518
271,-9.03175e-12,0,11402,11402
271.051,-2.25012e-11,0,12338,12338
271.101,-4.6105e-11,0,13290,13290
271.15,-7.98706e-11,0,14222,14222
271.2,-1.17949e-10,0,15126,15126
271.251,-1.4929e-10,0,15994,15994
271.3,-1.60266e-10,0,16914,16914
271.35,-1.44349e-10,0,17782,17782
271.4,-1.045e-10,0,18686,18686
271.451,-5.19259e-11,0,19298,19298
271.5,-3.06885e-12,0,19498,19498
271.55,3.27479e-11,0,19552,19552
271.601,5.41182e-11,0,19542,19542
271.65,6.54614e-11,0,19658,19658
271.7,7.35203e-11,0,19858,19858
271.75,8.15648e-11,0,20114,20114
271.801,8.91191e-11,0,20654,20654
271.85,9.39276e-11,0,21398,21398
271.9,9.55355e-11,0,22058,22058
271.951,9.56331e-11,0,22962,22962
272.001,9.66962e-11,0,23762,23762
272.05,9.98067e-11,0,24534,24534
272.1,1.03905e-10,0,25366,25366
272.151,1.06946e-10,0,26170,26170
272.2,1.07647e-10,0,27058,27058
272.25,1.06788e-10,0,27986,27986
272.3,1.06285e-10,0,28926,28926
272.351,1.07585e-10,0,29854,29854
272.4,1.10383e-10,0,30898,30898
272.45,1.1315e-10,0,31698,31698
272.501,1.14675e-10,0,32602,32602
272.55,1.15077e-10,0,33374,33374
272.6,1.1515e-10,0,34270,34270
272.65,1.14284e-10,0,35106,35106
272.701,1.10125e-10,0,35962,35962
272.75,1.03428e-10,0,36766,36766
272.8,1.07345e-10,0,37658,37658
272.85,1.57879e-10,0,38480,38480
272.901,3.21361e-10,0,39394,39394
272.95,6.75721e-10,0,40214,40214
273,1.30353e-09,0,41036,41036
273.051,2.28882e-09,0,41688,41688
273.1,4.87543e-09,0,42332,42332
273.15,9.32512e-09,0,42304,42304
273.2,1.58145e-08,0,42460,42460
273.251,2.14138e-08,0,42372,42372
273.3,2.56729e-08,0,42464,42464
273.35,2.89363e-08,0,42596,42596
273.401,3.18707e-08,0,42694,42694
273.45,3.53007e-08,0,42700,42700
273.5,4.01416e-08,0,42714,42714
273.55,4.69e-08,0,42838,42838
273.601,5.72994e-08,0,42962,42962
273.65,7.00626e-08,0,43008,43008
273.7,8.41331e-08,0,42912,42912
273.75,9.93882e-08,0,42624,42624
273.801,1.15617e-07,0,42304,42304
273.85,1.42694e-07,0,42250,42250
273.9,1.7851e-07,0,41982,41982
273.951,2.19514e-07,0,41786,41786
274,2.66941e-07,0,41840,41840
274.05,3.17042e-07,0,41674,41674
274.1,3.67652e-07,0,41522,41522
274.151,4.18918e-07,0,41670,41670
274.2,4.71322e-07,0,41570,41570
274.25,5.282e-07,0,41514,41514
274.301,5.90479e-07,0,41666,41666
274.351,6.52621e-07,0,41558,41558
274.4,7.10356e-07,0,41592,41592
274.45,7.59687e-07,0,41528,41528
274.501,7.99081e-07,0,41474,41474
274.55,8.2674e-07,0,41364,41364
274.6,8.4429e-07,0,41194,41194
274.65,8.54133e-07,0,41108,41108
274.701,8.55807e-07,0,40958,40958
274.75,8.558e-07,0,40782,40782
274.8,8.55494e-07,0,40600,40600
274.851,8.54684e-07,0,40436,40436
274.9,8.45769e-07,0,40360,40360
274.95,8.32871e-07,0,40186,40186
275,8.18026e-07,0,40110,40110
275.05,7.94684e-07,0,40038,40038
275.1,7.56112e-07,0,39844,39844
275.15,7.1296e-07,0,39728,39728
275.201,6.62211e-07,0,39540,39540
275.251,6.08892e-07,0,39500,39500
275.3,5.5605e-07,0,39274,39274
275.35,5.04469e-07,0,39184,39184
275.4,4.56922e-07,0,39094,39094
275.451,4.12463e-07,0,38958,38958
275.5,3.73021e-07,0,38766,38766
275.55,3.36098e-07,0,38704,38704
275.601,3.01545e-07,0,38568,38568
275.65,2.69231e-07,0,38450,38450
275.7,2.38142e-07,0,38298,38298
275.75,2.0825e-07,0,38188,38188
275.801,1.80505e-07,0,38052,38052
275.85,1.57371e-07,0,38002,38002
275.9,1.40113e-07,0,37812,37812
275.95,1.28082e-07,0,37706,37706
276,1.18046e-07,0,37574,37574
276.051,1.06551e-07,0,37496,37496
276.1,9.29799e-08,0,37362,37362
276.15,7.90542e-08,0,37318,37318
276.2,6.71691e-08,0,37208,37208
276.251,5.79785e-08,0,37086,37086
276.3,5.30601e-08,0,36930,36930
276.35,5.04943e-08,0,36822,36822
276.401,4.72575e-08,0,36742,36742
276.45,4.32729e-08,0,36574,36574
276.5,3.81587e-08,0,36482,36482
276.55,3.25824e-08,0,36440,36440
276.601,2.73978e-08,0,36290,36290
276.651,2.37963e-08,0,36234,36234
276.7,2.1887e-08,0,36110,36110
276.75,2.15541e-08,0,36130,36130
276.8,2.16086e-08,0,35954,35954
276.851,2.17097e-08,0,35856,35856
276.901,2.18277e-08,0,35830,35830
276.95,2.19288e-08,0,35708,35708
277.001,2.19841e-08,0,35624,35624
277.05,2.19849e-08,0,35562,35562
277.1,2.19343e-08,0,35486,35486
277.15,2.18397e-08,0,35408,35408
277.201,2.17071e-08,0,35436,35436
277.25,2.1556e-08,0,35284,35284
277.3,2.13983e-08,0,35202,35202
277.35,2.12449e-08,0,35218,35218
277.4,2.1099e-08,0,35134,35134
277.451,2.0957e-08,0,35042,35042
277.5,2.08121e-08,0,35018,35018
277.55,2.06536e-08,0,34994,34994
277.6,2.04754e-08,0,34896,34896
277.651,2.02719e-08,0,34834,34834
277.7,2.0043e-08,0,34756,34756
277.751,1.97763e-08,0,34804,34804
277.801,1.94785e-08,0,34574,34574
277.851,1.91436e-08,0,34574,34574
277.9,1.87782e-08,0,34518,34518
277.951,1.83699e-08,0,34456,34456
278.001,1.79363e-08,0,34426,34426
278.051,1.74747e-08,0,34274,34274
278.101,1.69913e-08,0,34180,34180
278.151,1.64922e-08,0,34108,34108
278.2,1.59919e-08,0,34070,34070
278.251,1.5476e-08,0,33970,33970
278.3,1.4967e-08,0,33780,33780
278.351,1.4447e-08,0,33684,33684
278.4,1.39367e-08,0,33506,33506
278.451,1.34188e-08,0,33462,33462
278.501,1.29168e-08,0,33374,33374
278.55,1.24265e-08,0,33120,33120
278.6,1.19534e-08,0,33024,33024
278.65,1.15013e-08,0,32846,32846
278.7,1.10732e-08,0,32826,32826
278.751,1.06714e-08,0,33158,33158
278.801,1.02985e-08,0,33286,33286
278.85,9.96238e-09,0,33116,33116
278.9,9.64998e-09,0,32732,32732
278.951,9.36658e-09,0,32604,32604
279,9.11678e-09,0,32288,32288
279.05,8.8963e-09,0,31910,31910
279.101,8.70035e-09,0,31542,31542
279.15,8.53236e-09,0,31146,31146
279.2,8.38493e-09,0,30992,30992
279.25,8.25601e-09,0,30384,30384
279.3,8.14413e-09,0,29854,29854
279.35,8.04782e-09,0,29518,29518
279.4,7.96548e-09,0,29104,29104
279.451,7.89556e-09,0,28820,28820
279.501,7.83667e-09,0,28332,28332
279.55,7.78849e-09,0,27444,27444
279.601,7.74822e-09,0,26654,26654
279.65,7.71656e-09,0,26134,26134
279.701,7.69145e-09,0,25286,25286
279.751,7.67302e-09,0,24516,24516
279.8,7.65994e-09,0,24096,24096
279.85,7.65148e-09,0,23538,23538
279.9,7.64703e-09,0,22850,22850
279.95,7.64617e-09,0,21544,21544
280.001,7.6486e-09,0,20538,20538
280.051,7.65401e-09,0,18888,18888
280.101,7.66192e-09,0,17328,17328
280.15,7.67205e-09,0,15084,15084
280.2,7.68401e-09,0,12286,12286
280.25,7.69748e-09,0,11962,11962
280.3,7.71211e-09,0,11958,11958
280.351,7.72786e-09,0,14316,14316
280.4,7.74387e-09,0,15280,15280
280.451,7.76039e-09,0,16378,16378
280.5,7.77677e-09,0,17904,17904
280.551,7.79354e-09,0,18962,18962
280.6,7.80998e-09,0,19632,19632
280.651,7.8268e-09,0,20304,20304
280.7,7.84336e-09,0,20976,20976
280.751,7.86027e-09,0,21342,21342
280.801,7.87713e-09,0,21928,21928
280.85,7.89352e-09,0,22320,22320
280.9,7.90998e-09,0,22690,22690
280.951,7.92612e-09,0,23102,23102
281.001,7.94189e-09,0,23524,23524
281.051,7.95728e-09,0,23968,23968
281.101,7.9723e-09,0,24448,24448
281.15,7.98697e-09,0,24966,24966
281.2,8.00133e-09,0,25366,25366
281.251,8.01567e-09,0,25818,25818
281.301,8.02945e-09,0,26378,26378
281.35,8.04296e-09,0,27010,27010
281.401,8.05648e-09,0,27654,27654
281.451,8.06984e-09,0,28414,28414
281.5,8.08298e-09,0,29118,29118
281.55,8.09674e-09,0,29776,29776
281.601,8.1114e-09,0,30482,30482
281.651,8.1277e-09,0,31270,31270
281.701,8.14664e-09,0,31928,31928
281.751,8.16948e-09,0,32128,32128
281.801,8.19774e-09,0,32346,32346
281.85,8.23321e-09,0,32416,32416
281.9,8.27786e-09,0,32394,32394
281.951,8.33501e-09,0,32510,32510
282,8.40472e-09,0,32756,32756
282.051,8.492e-09,0,33122,33122
282.1,8.59592e-09,0,33508,33508
282.15,8.72306e-09,0,33780,33780
282.201,8.87456e-09,0,33982,33982
282.251,9.05386e-09,0,34244,34244
282.3,9.26083e-09,0,34468,34468
282.35,9.50833e-09,0,34616,34616
282.4,9.79852e-09,0,34866,34866
282.451,1.01448e-08,0,34964,34964
282.501,1.05413e-08,0,35146,35146
282.55,1.10004e-08,0,35260,35260
282.6,1.15275e-08,0,35394,35394
282.651,1.21387e-08,0,35436,35436
282.7,1.28146e-08,0,35536,35536
282.751,1.35835e-08,0,35608,35608
282.8,1.44199e-08,0,35714,35714
282.85,1.53662e-08,0,35802,35802
282.9,1.72217e-08,0,35982,35982
282.951,1.90381e-08,0,36070,36070
283.001,2.09279e-08,0,36262,36262
283.05,2.29223e-08,0,36394,36394
283.101,2.54204e-08,0,36356,36356
283.15,2.81494e-08,0,36440,36440
283.2,3.10765e-08,0,36526,36526
283.25,3.41637e-08,0,36572,36572
283.301,3.74697e-08,0,36686,36686
283.35,4.08682e-08,0,36660,36660
283.4,4.44678e-08,0,36782,36782
283.45,4.81868e-08,0,36784,36784
283.5,5.19967e-08,0,36884,36884
283.551,5.59309e-08,0,36910,36910
283.6,5.98094e-08,0,36990,36990
283.65,6.37313e-08,0,37042,37042
283.7,6.76078e-08,0,37112,37112
283.751,7.15229e-08,0,37206,37206
283.8,7.52209e-08,0,37246,37246
283.851,8.18063e-08,0,37352,37352
283.901,8.76894e-08,0,37476,37476
283.951,9.34493e-08,0,37546,37546
284,9.93602e-08,0,37656,37656
284.051,1.05638e-07,0,37758,37758
284.101,1.1219e-07,0,37806,37806
284.151,1.18985e-07,0,37852,37852
284.201,1.25979e-07,0,37922,37922
284.25,1.33137e-07,0,38056,38056
284.301,1.40586e-07,0,38114,38114
284.351,1.48293e-07,0,38184,38184
284.401,1.56626e-07,0,38272,38272
284.45,1.67698e-07,0,38376,38376
284.501,1.79675e-07,0,38394,38394
284.55,1.92354e-07,0,38578,38578
284.6,2.06083e-07,0,38644,38644
284.65,2.20493e-07,0,38768,38768
284.701,2.35906e-07,0,38770,38770
284.75,2.76836e-07,0,38754,38754
284.8,3.17552e-07,0,38778,38778
284.85,3.59852e-07,0,38784,38784
284.9,4.03659e-07,0,38742,38742
284.951,4.49428e-07,0,38750,38750
285,4.95494e-07,0,38734,38734
285.05,5.43354e-07,0,38722,38722
285.1,5.92157e-07,0,38772,38772
285.151,6.41941e-07,0,38860,38860
285.2,6.89479e-07,0,38948,38948
285.25,7.33767e-07,0,38996,38996
285.301,7.71318e-07,0,39148,39148
285.35,8.0027e-07,0,39284,39284
285.4,8.19574e-07,0,39388,39388
285.45,8.27697e-07,0,39446,39446
285.501,8.26384e-07,0,39586,39586
285.551,8.23124e-07,0,39646,39646
285.6,8.16327e-07,0,39730,39730
285.65,8.0492e-07,0,39948,39948
285.7,7.91668e-07,0,39958,39958
285.75,7.7724e-07,0,40030,40030
285.8,7.56222e-07,0,40178,40178
285.85,7.27968e-07,0,40264,40264
285.901,6.98117e-07,0,40382,40382
285.951,6.5091e-07,0,40492,40492
286,6.00736e-07,0,40590,40590
286.051,5.45273e-07,0,40646,40646
286.1,4.88781e-07,0,40772,40772
286.151,4.3149e-07,0,40848,40848
286.2,3.76662e-07,0,40912,40912
286.25,3.23993e-07,0,40978,40978
286.301,2.74441e-07,0,41050,41050
286.35,2.29624e-07,0,41044,41044
286.4,1.88677e-07,0,41114,41114
286.45,1.51188e-07,0,41178,41178
286.501,1.16174e-07,0,41238,41238
286.55,8.43281e-08,0,41298,41298
286.6,5.51836e-08,0,41280,41280
286.651,2.8847e-08,0,41322,41322
286.7,6.63365e-09,0,41362,41362
286.75,-1.16184e-08,0,41316,41316
286.8,-2.62518e-08,0,41398,41398
286.851,-3.83328e-08,0,41384,41384
286.9,-4.86643e-08,0,41432,41432
286.95,-5.82697e-08,0,41516,41516
287.001,-6.74675e-08,0,41576,41576
287.051,-7.56794e-08,0,41590,41590
287.1,-8.19668e-08,0,41608,41608
287.15,-8.32417e-08,0,41538,41538
287.201,-8.321e-08,0,41432,41432
287.25,-8.29925e-08,0,41250,41250
287.3,-8.25849e-08,0,41068,41068
287.35,-8.19897e-08,0,40912,40912
287.401,-8.12017e-08,0,40812,40812
287.45,-8.01575e-08,0,40726,40726
287.5,-7.84034e-08,0,40704,40704
287.551,-7.60195e-08,0,40596,40596
287.6,-7.31387e-08,0,40260,40260
287.65,-6.99733e-08,0,40202,40202
287.7,-6.65692e-08,0,40032,40032
287.751,-6.29224e-08,0,39568,39568
287.8,-5.91984e-08,0,39392,39392
287.85,-5.54152e-08,0,39296,39296
287.9,-5.16485e-08,0,39092,39092
287.951,-4.79185e-08,0,38680,38680
288,-4.43952e-08,0,37806,37806
288.05,-4.10653e-08,0,37032,37032
288.101,-3.7904e-08,0,36148,36148
288.15,-3.50109e-08,0,35370,35370
288.2,-3.23384e-08,0,34538,34538
288.25,-2.98774e-08,0,33862,33862
288.301,-2.75875e-08,0,32948,32948
288.35,-2.5528e-08,0,32196,32196
288.4,-2.36555e-08,0,31366,31366
288.451,-2.19409e-08,0,30490,30490
288.501,-2.04282e-08,0,29644,29644
288.55,-1.90801e-08,0,28824,28824
288.6,-1.78845e-08,0,27946,27946
288.651,-1.68204e-08,0,27192,27192
288.7,-1.5908e-08,0,27148,27148
288.75,-1.51036e-08,0,27190,27190
288.8,-1.43716e-08,0,27140,27140
288.851,-1.3683e-08,0,27000,27000
288.9,-1.30537e-08,0,26754,26754
288.95,-1.24757e-08,0,26538,26538
289.001,-1.19428e-08,0,26290,26290
289.05,-1.1439e-08,0,25578,25578
289.1,-1.10288e-08,0,24664,24664
289.15,-1.06733e-08,0,23792,23792
289.201,-1.03702e-08,0,22800,22800
289.25,-1.01204e-08,0,21886,21886
289.3,-9.85568e-09,0,20978,20978
289.351,-9.73046e-09,0,20076,20076
289.401,-9.64055e-09,0,19160,19160
289.45,-9.58271e-09,0,18300,18300
289.5,-9.55285e-09,0,17410,17410
289.551,-9.54719e-09,0,16514,16514
289.6,-9.56311e-09,0,15624,15624
289.65,-9.59727e-09,0,14724,14724
289.7,-9.64586e-09,0,13880,13880
289.751,-9.70601e-09,0,12980,12980
289.8,-9.77273e-09,0,12102,12102
289.85,-9.844e-09,0,11186,11186
289.901,-9.91845e-09,0,10300,10300
289.95,-9.99198e-09,0,9394,9394
290,-1.00643e-08,0,8504,8504
290.05,-1.01345e-08,0,7638,7638
290.101,-1.02036e-08,0,6752,6752
290.15,-1.02694e-08,0,5846,5846
290.2,-1.03322e-08,0,4952,4952
290.251,-1.0392e-08,0,4038,4038
290.301,-1.04469e-08,0,3356,3356
290.351,-1.04984e-08,0,3260,3260
290.401,-1.05446e-08,0,3228,3228
290.451,-1.05868e-08,0,3232,3232
290.5,-1.06256e-08,0,3232,3232
290.55,-1.06618e-08,0,3244,3244
290.602,-1.06975e-08,0,3236,3236
290.652,-1.07305e-08,0,3228,3228
290.701,-1.07627e-08,0,3230,3230
290.751,-1.07945e-08,0,3214,3214
290.801,-1.08262e-08,0,3170,3170
290.85,-1.08583e-08,0,3106,3106
290.9,-1.08913e-08,0,3054,3054
290.952,-1.09272e-08,0,2990,2990
291.002,-1.09635e-08,0,2954,2954
291.051,-1.10022e-08,0,2898,2898
291.101,-1.10438e-08,0,2850,2850
291.151,-1.10891e-08,0,2790,2790
291.201,-1.11388e-08,0,2742,2742
291.25,-1.11932e-08,0,2690,2690
291.302,-1.12552e-08,0,2626,2626
291.352,-1.13202e-08,0,2574,2574
291.401,-1.13912e-08,0,2522,2522
291.451,-1.14689e-08,0,2458,2458
291.501,-1.15544e-08,0,2402,2402
291.551,-1.1649e-08,0,2342,2342
291.6,-1.17537e-08,0,2294,2294
291.652,-1.18745e-08,0,2234,2234
291.702,-1.20034e-08,0,2194,2194
291.752,-1.21432e-08,0,2142,2142
291.802,-1.2295e-08,0,2102,2102
291.852,-1.24587e-08,0,2066,2066
291.902,-1.26368e-08,0,2048,2048
291.955,-1.28361e-08,0,2048,2048
292.002,-1.30252e-08,0,2048,2048
292.054,-1.32521e-08,0,2048,2048
292.101,-1.34671e-08,0,2048,2048
292.154,-1.37252e-08,0,2048,2048
292.201,-1.397e-08,0,2048,2048
292.254,-1.42637e-08,0,2048,2048
292.301,-1.45413e-08,0,2048,2048
292.353,-1.48717e-08,0,2048,2048
292.4,-1.51803e-08,0,2048,2048
292.453,-1.55425e-08,0,2048,2048
292.506,-1.59185e-08,0,2048,2048
292.552,-1.62625e-08,0,2048,2048
292.605,-1.66587e-08,0,2048,2048
292.652,-1.70175e-08,0,2048,2048
292.705,-1.74269e-08,0,2048,2048
292.752,-1.77942e-08,0,2048,2048
292.804,-1.82087e-08,0,2048,2048
292.851,-1.85761e-08,0,2048,2048
292.904,-1.89855e-08,0,2048,2048
292.951,-1.93431e-08,0,2048,2048
293.004,-1.97352e-08,0,2048,2048
293.05,-2.0072e-08,0,2048,2048
293.103,-2.04349e-08,0,2048,2048
293.156,-2.07781e-08,0,2048,2048
293.203,-2.10647e-08,0,2048,2048
293.255,-2.13641e-08,0,2048,2048
293.302,-2.16081e-08,0,2048,2048
293.355,-2.1856e-08,0,2048,2048
293.402,-2.20512e-08,0,2048,2048
293.455,-2.22413e-08,0,2048,2048
293.501,-2.23835e-08,0,2048,2048
293.554,-2.25133e-08,0,2048,2048
293.601,-2.26024e-08,0,2048,2048
293.654,-2.26739e-08,0,2094,2094
293.701,-2.27131e-08,0,2106,2106
293.753,-2.27312e-08,0,2114,2114
293.8,-2.27254e-08,0,2126,2126
293.853,-2.26961e-08,0,2130,2130
293.906,-2.26447e-08,0,2130,2130
293.953,-2.25823e-08,0,2130,2130
294.005,-2.24955e-08,0,2130,2130
294.052,-2.24055e-08,0,2130,2130
294.105,-2.2292e-08,0,2130,2130
294.152,-2.21818e-08,0,2130,2130
294.205,-2.20494e-08,0,2130,2130
294.251,-2.19256e-08,0,2130,2130
294.304,-2.17809e-08,0,2130,2130
294.351,-2.16488e-08,0,2130,2130
294.404,-2.14976e-08,0,2130,2130
294.451,-2.13618e-08,0,2130,2130
294.503,-2.12085e-08,0,2130,2130
294.55,-2.10725e-08,0,2130,2130
294.603,-2.09208e-08,0,2130,2130
294.656,-2.07709e-08,0,2130,2130
294.702,-2.06399e-08,0,2130,2130
294.755,-2.04955e-08,0,2130,2130
294.802,-2.03701e-08,0,2130,2130
294.855,-2.02326e-08,0,2130,2130
294.902,-2.01139e-08,0,2130,2130
294.954,-1.99843e-08,0,2130,2130
295.001,-1.9873e-08,0,2130,2130
295.054,-1.97521e-08,0,2108,2108
295.101,-1.96486e-08,0,2092,2092
295.154,-1.95365e-08,0,2080,2080
295.2,-1.94407e-08,0,2072,2072
295.253,-1.93372e-08,0,2060,2060
295.3,-1.92488e-08,0,2052,2052
295.353,-1.91532e-08,0,2048,2048
295.406,-1.90615e-08,0,2048,2048
295.452,-1.89831e-08,0,2048,2048
295.505,-1.88981e-08,0,2048,2048
295.552,-1.88251e-08,0,2048,2048
295.605,-1.87456e-08,0,2048,2048
295.652,-1.86771e-08,0,2048,2048
295.704,-1.86021e-08,0,2048,2048
295.751,-1.8537e-08,0,2048,2048
295.804,-1.84653e-08,0,2048,2048
295.851,-1.84027e-08,0,2048,2048
295.903,-1.83334e-08,0,2048,2048
295.95,-1.82725e-08,0,2048,2048
296.003,-1.82046e-08,0,2048,2048
296.056,-1.8137e-08,0,2048,2048
296.103,-1.80772e-08,0,2048,2048
296.155,-1.80099e-08,0,2048,2048
296.202,-1.79499e-08,0,2048,2048
296.255,-1.78821e-08,0,2048,2048
296.302,-1.78215e-08,0,2048,2048
296.355,-1.77526e-08,0,2048,2048
296.401,-1.76906e-08,0,2048,2048
296.454,-1.762e-08,0,2048,2048
296.501,-1.75562e-08,0,2048,2048
296.554,-1.74831e-08,0,2048,2048
296.601,-1.74169e-08,0,2048,2048
296.653,-1.73407e-08,0,2048,2048
296.7,-1.72713e-08,0,2048,2048
296.753,-1.71912e-08,0,2048,2048
296.806,-1.71086e-08,0,2048,2048
296.853,-1.7033e-08,0,2048,2048
296.905,-1.69452e-08,0,2048,2048
296.952,-1.68644e-08,0,2048,2048
297.005,-1.67703e-08,0,2048,2048
297.052,-1.66836e-08,0,2048,2048
297.104,-1.65822e-08,0,2048,2048
297.151,-1.64886e-08,0,2048,2048
297.204,-1.6379e-08,0,2048,2048
297.251,-1.62777e-08,0,2048,2048
297.304,-1.6159e-08,0,2048,2048
297.351,-1.60493e-08,0,2048,2048
297.403,-1.59208e-08,0,2048,2048
297.45,-1.5802e-08,0,2048,2048
297.503,-1.5663e-08,0,2048,2048
297.556,-1.55182e-08,0,2048,2048
297.602,-1.53847e-08,0,2048,2048
297.655,-1.52287e-08,0,2048,2048
297.702,-1.5085e-08,0,2048,2048
297.755,-1.49174e-08,0,2048,2048
297.802,-1.47632e-08,0,2048,2048
297.854,-1.45837e-08,0,2048,2048
297.901,-1.44187e-08,0,2048,2048
297.954,-1.42267e-08,0,2048,2048
298.001,-1.40504e-08,0,2048,2048
298.054,-1.38454e-08,0,2048,2048
298.1,-1.36571e-08,0,2048,2048
298.153,-1.3438e-08,0,2048,2048
298.2,-1.32366e-08,0,2048,2048
298.253,-1.30019e-08,0,2048,2048
298.305,-1.27581e-08,0,2048,2048
298.352,-1.2533e-08,0,2048,2048
298.405,-1.22696e-08,0,2048,2048
298.452,-1.20255e-08,0,2048,2048
298.505,-1.17386e-08,0,2048,2048
298.552,-1.14717e-08,0,2048,2048
298.604,-1.11567e-08,0,2048,2048
298.651,-1.08625e-08,0,2048,2048
298.704,-1.05142e-08,0,2048,2048
298.751,-1.01883e-08,0,2048,2048
298.803,-9.80218e-09,0,2048,2048
298.85,-9.44091e-09,0,2048,2048
298.903,-9.01349e-09,0,2048,2048
298.956,-8.56334e-09,0,2048,2048
299.003,-8.14392e-09,0,2048,2048
299.055,-7.65049e-09,0,2048,2048
299.102,-7.1931e-09,0,2048,2048
299.155,-6.65836e-09,0,2048,2048
299.202,-6.16635e-09,0,2048,2048
299.255,-5.59605e-09,0,2048,2048
299.301,-5.07635e-09,0,2048,2048
299.354,-4.48031e-09,0,2048,2048
299.401,-3.94327e-09,0,2048,2048
299.454,-3.33463e-09,0,2048,2048
299.501,-2.79296e-09,0,2048,2048
299.553,-2.18683e-09,0,2048,2048
299.6,-1.6544e-09,0,2048,2048
299.653,-1.06657e-09,0,2048,2048
299.706,-4.9471e-10,0,2048,2048
299.753,-3.16205e-12,0,2048,2048
299.805,5.27409e-10,0,2048,2048
299.852,9.76304e-10,0,2048,2048
299.905,1.45281e-09,0,2048,2048
299.952,1.84885e-09,0,2048,2048
300.004,2.26126e-09,0,2048,2048
300.051,2.59687e-09,0,2048,2048
300.104,2.93828e-09,0,2048,2048
300.151,3.20889e-09,0,2048,2048
300.204,3.47605e-09,0,2048,2048
300.251,3.68065e-09,0,2048,2048
300.303,3.87469e-09,0,2048,2048
300.35,4.01625e-09,0,2048,2048
300.403,4.14257e-09,0,2048,2048
300.456,4.23631e-09,0,2048,2048
300.502,4.29437e-09,0,2048,2048
300.555,4.33375e-09,0,2048,2048
300.602,4.34781e-09,0,2048,2048
300.655,4.34255e-09,0,2048,2048
300.702,4.32121e-09,0,2048,2048
300.754,4.28079e-09,0,2048,2048
300.801,4.23223e-09,0,2048,2048
300.854,4.16555e-09,0,2048,2048
300.901,4.09733e-09,0,2048,2048
300.954,4.0125e-09,0,2048,2048
301,3.93144e-09,0,2048,2048
301.053,3.83561e-09,0,2048,2048
301.106,3.73651e-09,0,2048,2048
301.153,3.64693e-09,0,2048,2048
301.205,3.54575e-09,0,2048,2048
301.252,3.45642e-09,0,2048,2048
301.305,3.3576e-09,0,2048,2048
301.352,3.27199e-09,0,2048,2048
301.405,3.17894e-09,0,2048,2048
301.452,3.09965e-09,0,2048,2048
301.504,3.01481e-09,0,2048,2048
301.551,2.94361e-09,0,2048,2048
301.604,2.86855e-09,0,2048,2048
301.651,2.80647e-09,0,2048,2048
301.703,2.74195e-09,0,2048,2048
301.75,2.68933e-09,0,2048,2048
301.803,2.63538e-09,0,2048,2048
301.856,2.58681e-09,0,2048,2048
301.903,2.54795e-09,0,2048,2048
301.955,2.5088e-09,0,2048,2048
302.002,2.47776e-09,0,2048,2048
302.055,2.44668e-09,0,2048,2048
302.102,2.42212e-09,0,2048,2048
302.155,2.39751e-09,0,2048,2048
302.201,2.37795e-09,0,2048,2048
302.254,2.35812e-09,0,2048,2048
302.301,2.34208e-09,0,2048,2048
302.354,2.32547e-09,0,2048,2048
302.401,2.3117e-09,0,2048,2048
302.453,2.29707e-09,0,2048,2048
302.5,2.28466e-09,0,2048,2048
302.553,2.27123e-09,0,2048,2048
302.606,2.2583e-09,0,2048,2048
302.652,2.2472e-09,0,2048,2048
302.705,2.23518e-09,0,2048,2048
302.752,2.22497e-09,0,2048,2048
302.805,2.21409e-09,0,2048,2048
302.852,2.20505e-09,0,2048,2048
302.904,2.19569e-09,0,2048,2048
302.951,2.18817e-09,0,2048,2048
303.004,2.1807e-09,0,2048,2048
303.051,2.175e-09,0,2048,2048
303.104,2.1697e-09,0,2048,2048
303.15,2.16602e-09,0,2048,2048
303.203,2.16306e-09,0,2048,2048
303.25,2.16148e-09,0,2048,2048
303.303,2.16086e-09,0,2048,2048
303.356,2.16143e-09,0,2048,2048
303.402,2.16287e-09,0,2048,2048
303.455,2.16547e-09,0,2048,2048
303.502,2.16854e-09,0,2048,2048
303.555,2.17274e-09,0,2048,2048
303.602,2.17701e-09,0,2048,2048
303.654,2.18227e-09,0,2048,2048
303.701,2.18721e-09,0,2048,2048
303.754,2.19292e-09,0,2048,2048
303.801,2.198e-09,0,2048,2048
303.853,2.2036e-09,0,2048,2048
303.9,2.20837e-09,0,2048,2048
303.953,2.21341e-09,0,2048,2048
304.006,2.21802e-09,0,2048,2048
304.053,2.22171e-09,0,2048,2048
304.105,2.22536e-09,0,2048,2048
304.152,2.22816e-09,0,2048,2048
304.205,2.23079e-09,0,2048,2048
304.252,2.23268e-09,0,2048,2048
304.305,2.23431e-09,0,2048,2048
304.351,2.23534e-09,0,2048,2048
304.404,2.23603e-09,0,2048,2048
304.451,2.23624e-09,0,2048,2048
304.504,2.23604e-09,0,2048,2048
304.551,2.23546e-09,0,2048,2048
304.603,2.23435e-09,0,2048,2048
304.65,2.23295e-09,0,2048,2048
304.703,2.23089e-09,0,2048,2048
304.756,2.22828e-09,0,2048,2048
304.803,2.22549e-09,0,2048,2048
304.855,2.22178e-09,0,2048,2048
304.902,2.21797e-09,0,2048,2048
304.955,2.21308e-09,0,2048,2048
