250,0,0,512,512
250.012,0,0,512,512
250.059,0,0,512,512
250.105,0,0,512,512
250.152,0,0,512,512
250.211,0,0,512,512
250.258,0,0,512,512
250.305,0,0,512,512
250.352,0,0,512,512
250.41,0,0,512,512
250.457,0,0,512,512
250.504,0,0,512,512
250.551,0,0,512,512
250.609,0,0,512,512
250.656,0,0,512,512
250.703,0,0,512,512
250.762,0,0,512,512
250.808,0,0,512,512
250.855,0,0,512,512
250.902,0,0,512,512
250.961,2.77556e-17,0,512,512
251.008,2.77556e-17,0,512,512
251.055,2.77556e-17,0,512,512
251.101,0,0,512,512
251.16,0,0,512,512
251.207,0,0,512,512
251.254,0,0,512,512
251.301,0,0,512,512
251.359,0,0,512,512
251.406,0,0,512,512
251.453,0,0,512,512
251.511,0,0,512,512
251.558,0,0,512,512
251.605,0,0,512,512
251.652,0,0,512,512
251.711,0,0,512,512
251.758,0,0,512,512
251.804,0,0,512,512
251.851,0,0,512,512
251.91,0,0,512,512
251.957,0,0,512,512
252.004,0,0,512,512
252.05,0,0,512,512
252.109,0,0,512,512
252.156,0,0,512,512
252.203,0,0,512,512
252.261,0,0,512,512
252.308,0,0,512,512
252.355,0,0,512,512
252.402,0,0,512,512
252.461,0,0,512,512
252.507,-2.77556e-17,0,512,512
252.554,-2.77556e-17,0,512,512
252.601,-2.77556e-17,0,512,512
252.66,-2.77556e-17,0,512,512
252.707,-2.77556e-17,0,512,512
252.754,-2.77556e-17,0,512,512
252.8,0,0,512,512
252.859,0,0,512,512
252.906,-2.77556e-17,0,512,512
252.953,-2.77556e-17,0,512,512
253.011,-2.77556e-17,0,512,512
253.058,-2.77556e-17,0,512,512
253.105,-2.77556e-17,0,512,512
253.152,-2.77556e-17,0,512,512
253.21,-2.77556e-17,0,512,512
253.257,-2.77556e-17,0,512,512
253.304,-2.77556e-17,0,512,512
253.351,0,0,512,512
253.41,0,0,512,512
253.457,0,0,512,512
253.503,0,0,512,512
253.55,0,0,512,512
253.609,0,0,512,512
253.656,0,0,512,512
253.703,0,0,512,512
253.761,0,0,512,512
253.808,0,0,512,512
253.855,0,0,512,512
253.902,-2.77556e-17,0,512,512
253.96,-2.77556e-17,0,512,512
254.007,-2.77556e-17,0,512,512
254.054,0,0,512,512
254.101,-2.77556e-17,0,512,512
254.16,0,0,512,512
254.206,0,0,512,512
254.253,0,0,512,512
254.3,0,0,512,512
254.359,0,0,512,512
254.406,0,0,512,512
254.452,0,0,512,512
254.511,0,0,512,512
254.558,0,0,512,512
254.605,0,0,512,512
254.652,-2.77556e-17,0,512,512
254.71,-2.77556e-17,0,512,512
254.757,-2.77556e-17,0,512,512
254.804,-2.77556e-17,0,512,512
254.851,-2.77556e-17,0,512,512
254.909,-2.77556e-17,0,512,512
254.956,0,0,512,512
255.003,0,0,512,512
255.05,0,0,512,512
255.109,0,0,512,512
255.155,0,0,512,512
255.202,0,0,512,512
255.261,0,0,512,512
255.308,0,0,512,512
255.355,0,0,512,512
255.402,0,0,512,512
255.46,0,0,512,512
255.507,0,0,512,512
255.554,0,0,512,512
255.601,0,0,512,512
255.659,0,0,512,512
255.706,0,0,512,512
255.753,0,0,512,512
255.812,0,0,512,512
255.859,0,0,512,512
255.905,0,0,512,512
255.952,-2.77556e-17,0,512,512
256.011,-2.77556e-17,0,512,512
256.058,-2.77556e-17,0,512,512
256.105,-2.77556e-17,0,512,512
256.151,-2.77556e-17,0,512,512
256.21,-2.77556e-17,0,512,512
256.257,-2.77556e-17,0,512,512
256.304,-2.77556e-17,0,512,512
256.351,-2.77556e-17,0,512,512
256.409,-2.77556e-17,0,512,512
256.456,-2.77556e-17,0,512,512
256.503,0,0,512,512
256.562,0,0,512,512
256.608,0,0,512,512
256.655,-2.77556e-17,0,512,512
256.702,-2.77556e-17,0,512,512
256.761,-2.77556e-17,0,512,512
256.808,-5.55112e-17,0,512,512
256.854,-5.55112e-17,0,512,512
256.901,-5.55112e-17,0,512,512
256.96,-5.55112e-17,0,512,512
257.007,-5.55112e-17,0,512,512
257.054,-5.55112e-17,0,512,512
257.101,-5.55112e-17,0,512,512
257.159,-5.55112e-17,0,512,512
257.206,-5.55112e-17,0,512,512
257.253,-5.55112e-17,0,512,512
257.311,-2.77556e-17,0,512,512
257.358,-2.77556e-17,0,512,512
257.405,-2.77556e-17,0,512,512
257.452,-2.77556e-17,0,512,512
257.511,-2.77556e-17,0,512,512
257.557,0,0,512,512
257.604,-2.77556e-17,0,512,512
257.651,0,0,512,512
257.71,0,0,512,512
257.757,0,0,512,512
257.804,0,0,512,512
257.85,-2.77556e-17,0,512,512
257.909,-2.77556e-17,0,512,512
257.956,0,0,512,512
258.003,0,0,512,512
258.061,0,0,512,512
258.108,0,0,512,512
258.155,0,0,512,512
258.202,0,0,512,512
258.261,2.77556e-17,0,512,512
258.307,0,0,512,512
258.354,0,0,512,512
258.401,0,0,512,512
258.46,0,0,512,512
258.507,0,0,512,512
258.553,0,0,512,512
258.6,-2.77556e-17,0,512,512
258.659,2.77556e-17,0,512,512
258.706,5.55112e-17,0,512,512
258.753,2.77556e-17,0,512,512
258.811,2.77556e-17,0,512,512
258.858,5.55112e-17,0,512,512
258.905,2.77556e-17,0,512,512
258.952,2.77556e-17,0,512,512
259.01,2.77556e-17,0,512,512
259.057,2.77556e-17,0,512,512
259.104,2.77556e-17,0,512,512
259.151,2.77556e-17,0,512,512
259.21,0,0,512,512
259.256,0,0,512,512
259.303,0,0,512,512
259.35,0,0,512,512
259.409,0,0,512,512
259.456,0,0,512,512
259.503,0,0,512,512
259.561,0,0,512,512
259.608,0,0,512,512
259.655,0,0,512,512
259.702,0,0,512,512
259.76,0,0,512,512
259.807,0,0,512,512
259.854,0,0,512,512
259.901,2.77556e-17,0,512,512
259.959,0,0,512,512
260.006,2.77556e-17,0,512,512
260.053,2.77556e-17,0,512,512
260.1,2.77556e-17,0,512,512
260.159,2.77556e-17,0,512,512
260.206,2.77556e-17,0,512,512
260.252,2.77556e-17,0,512,512
260.311,2.77556e-17,0,512,512
260.358,2.77556e-17,0,512,512
260.405,2.77556e-17,0,512,512
260.452,2.77556e-17,0,512,512
260.51,2.77556e-17,0,512,512
260.557,5.55112e-17,0,512,512
260.604,5.55112e-17,0,512,512
260.651,5.55112e-17,0,512,512
260.709,2.77556e-17,0,512,512
260.756,0,0,512,512
260.803,0,0,512,512
260.862,0,0,512,512
260.909,0,0,512,512
260.955,0,0,512,512
261.002,0,0,512,512
261.061,2.77556e-17,0,512,512
261.108,2.77556e-17,0,512,512
261.155,0,0,512,512
261.201,2.77556e-17,0,512,512
261.26,-2.77556e-17,0,512,512
261.307,0,0,512,512
261.354,0,0,512,512
261.401,0,0,512,512
261.459,0,0,512,512
261.506,2.77556e-17,0,512,512
261.553,2.77556e-17,0,512,512
261.612,0,0,512,512
261.658,-2.77556e-17,0,512,512
261.705,0,0,512,512
261.752,2.77556e-17,0,512,512
261.811,2.77556e-17,0,512,512
261.858,0,0,512,512
261.905,2.77556e-17,0,512,512
261.951,2.77556e-17,0,512,512
262.01,-5.55112e-17,0,512,512
262.057,-2.77556e-17,0,512,512
262.104,0,0,512,512
262.151,0,0,512,512
262.209,-2.77556e-17,0,512,512
262.256,-2.77556e-17,0,512,512
262.303,-2.77556e-17,0,512,512
262.361,-2.77556e-17,0,512,512
262.408,0,0,512,512
262.455,0,0,512,512
262.502,0,0,512,512
262.561,0,0,512,512
262.608,0,0,512,512
262.654,2.77556e-17,0,512,512
262.701,2.77556e-17,0,512,512
262.76,0,0,512,512
262.807,0,0,512,512
262.854,0,0,512,512
262.9,0,0,512,512
262.959,0,0,512,512
263.006,0,0,512,512
263.053,0,0,512,512
263.111,0,0,512,512
263.158,-2.77556e-17,0,512,512
263.205,0,0,512,512
263.252,0,0,512,512
263.311,0,0,512,512
263.357,0,0,512,512
263.404,0,0,512,512
263.451,2.77556e-17,0,512,512
263.51,2.77556e-17,0,512,512
263.557,0,0,512,512
263.603,-2.77556e-17,0,512,512
263.65,-2.77556e-17,0,512,512
263.709,-2.77556e-17,0,512,512
263.756,0,0,512,512
263.803,0,0,512,512
263.861,0,0,512,512
263.908,0,0,512,512
263.955,-2.77556e-17,0,512,512
264.002,-2.77556e-17,0,512,512
264.06,-2.77556e-17,0,512,512
264.107,-2.77556e-17,0,512,512
264.154,0,0,512,512
264.201,-2.77556e-17,0,512,512
264.26,0,0,512,512
264.306,0,0,512,512
264.353,-5.55112e-17,0,512,512
264.4,-2.77556e-17,0,512,512
264.459,-2.77556e-17,0,512,512
264.506,-2.77556e-17,0,512,512
264.553,-2.77556e-17,0,512,512
264.611,-2.77556e-17,0,512,512
264.658,-2.77556e-17,0,512,512
264.705,0,0,512,512
264.752,0,0,512,512
264.81,-2.77556e-17,0,512,512
264.857,-2.77556e-17,0,512,512
264.904,0,0,512,512
264.951,0,0,512,512
265.01,0,0,512,512
265.056,0,0,512,512
265.103,0,0,512,512
265.15,0,0,512,512
265.209,0,0,512,512
265.256,0,0,512,512
265.302,0,0,512,512
265.361,0,0,512,512
265.408,0,0,512,512
265.455,0,0,512,512
265.502,0,0,512,512
265.56,0,0,512,512
265.607,0,0,512,512
265.654,0,0,512,512
265.701,0,0,512,512
265.759,0,0,512,512
265.806,0,0,512,512
265.853,0,0,512,512
265.9,0,0,512,512
265.959,0,0,512,512
266.005,0,0,512,512
266.052,2.77556e-17,0,512,512
266.111,2.77556e-17,0,512,512
266.158,2.77556e-17,0,512,512
266.205,0,0,512,512
266.252,0,0,512,512
266.31,2.77556e-17,0,512,512
266.357,2.77556e-17,0,512,512
266.404,2.77556e-17,0,512,512
266.451,2.77556e-17,0,512,512
266.509,2.77556e-17,0,512,512
266.556,2.77556e-17,0,512,512
266.603,2.77556e-17,0,512,512
266.662,2.77556e-17,0,512,512
266.708,2.77556e-17,0,512,512
266.755,2.77556e-17,0,512,512
266.802,2.77556e-17,0,512,512
266.861,2.77556e-17,0,512,512
266.908,2.77556e-17,0,512,512
266.955,2.77556e-17,0,512,512
267.001,2.77556e-17,0,512,512
267.06,2.77556e-17,0,512,512
267.107,2.77556e-17,0,512,512
267.154,2.77556e-17,0,512,512
267.201,2.77556e-17,0,512,512
267.259,2.77556e-17,0,512,512
267.306,2.77556e-17,0,512,512
267.353,2.77556e-17,0,512,512
267.412,2.77556e-17,0,512,512
267.458,2.77556e-17,0,512,512
267.505,2.77556e-17,0,512,512
267.552,2.77556e-17,0,512,512
267.611,2.77556e-17,0,512,512
267.658,2.77556e-17,0,512,512
267.704,2.77556e-17,0,512,512
267.751,5.55112e-17,0,512,512
267.81,5.55112e-17,0,512,512
267.857,5.55112e-17,0,512,512
267.904,8.32667e-17,0,512,512
267.95,8.32667e-17,0,512,512
268.009,5.55112e-17,0,512,512
268.056,5.55112e-17,0,512,512
268.101,5.55112e-17,0,611,611
268.15,5.55112e-17,0,671,671
268.2,5.55112e-17,0,731,731
268.253,5.55112e-17,0,783,783
268.303,5.55112e-17,0,833,833
268.353,5.55112e-17,0,893,893
268.402,5.55112e-17,0,947,947
268.452,5.55112e-17,0,1001,1001
268.502,5.55112e-17,0,1049,1049
268.552,5.55112e-17,0,1095,1095
268.601,5.55112e-17,0,1143,1143
268.651,5.55112e-17,0,1189,1189
268.701,5.55112e-17,0,1241,1241
268.751,5.55112e-17,0,1301,1301
268.801,5.55112e-17,0,1361,1361
268.85,5.55112e-17,0,1403,1403
268.9,5.55112e-17,0,1463,1463
268.95,5.55112e-17,0,1523,1523
269.003,5.55112e-17,0,1573,1573
269.053,5.55112e-17,0,1631,1631
269.102,1.66533e-16,0,1691,1691
269.152,7.77156e-16,0,1751,1751
269.202,3.52496e-15,0,1793,1793
269.252,1.51823e-14,0,1853,1853
269.302,5.25135e-14,0,1907,1907
269.351,1.45689e-13,0,1963,1963
269.401,3.16386e-13,0,2021,2021
269.451,5.06706e-13,0,2065,2065
269.501,4.7537e-13,0,2123,2123
269.551,-2.42001e-13,0,2183,2183
269.6,-2.31368e-12,0,2233,2233
269.65,-2.78563e-11,0,2291,2291
269.703,-1.75263e-10,0,2351,2351
269.753,-3.80984e-10,0,2395,2395
269.802,-4.44157e-10,0,2455,2455
269.852,-2.68156e-10,0,2503,2503
269.902,3.28168e-11,0,2561,2561
269.952,2.68334e-10,0,2621,2621
270.002,3.04518e-10,0,2673,2673
270.051,1.45113e-10,0,2725,2725
270.101,-6.17507e-11,0,2773,2773
270.151,-1.33596e-10,0,2831,2831
270.201,-1.1602e-11,0,2883,2883
270.251,1.87184e-10,0,2935,2935
270.3,2.80842e-10,0,2981,2981
270.35,1.94555e-10,0,3041,3041
270.4,2.20591e-11,0,3093,3093
270.453,-7.44921e-11,0,3149,3149
270.503,-7.35423e-12,0,3191,3191
270.552,1.41695e-10,0,3243,3243
270.602,2.41669e-10,0,3299,3299
270.652,2.21363e-10,0,3343,3343
270.702,1.12499e-10,0,3401,3401
270.752,1.54118e-12,0,3449,3449
270.801,-3.77983e-11,0,3497,3497
270.851,2.24118e-11,0,3551,3551
270.901,1.58367e-10,0,3603,3603
270.951,2.88806e-10,0,3643,3643
271.001,2.95048e-10,0,3693,3693
271.05,1.10343e-10,0,3749,3749
271.1,-1.61665e-10,0,3797,3797
271.153,-2.44169e-10,0,3843,3843
271.203,7.94876e-11,0,3903,3903
271.252,6.01792e-10,0,3943,3943
271.302,7.55131e-10,0,3989,3989
271.352,1.18818e-10,0,4039,4039
271.402,-9.23374e-10,0,4085,4085
271.452,-1.13193e-09,0,4143,4143
271.501,7.76824e-10,0,4183,4183
271.551,5.12095e-09,0,4229,4229
271.601,1.10212e-08,0,4277,4277
271.651,1.70715e-08,0,4325,4325
271.701,2.21438e-08,0,4373,4373
271.75,2.57318e-08,0,4415,4415
271.8,2.79932e-08,0,4469,4469
271.85,2.98051e-08,0,4517,4517
271.903,3.28217e-08,0,4563,4563
271.953,3.80809e-08,0,4607,4607
272.002,4.61265e-08,0,4651,4651
272.052,5.64783e-08,0,4697,4697
272.102,6.85374e-08,0,4749,4749
272.152,8.24503e-08,0,4791,4791
272.202,9.92713e-08,0,4831,4831
272.251,1.20439e-07,0,4877,4877
272.301,1.47186e-07,0,4929,4929
272.351,1.8023e-07,0,4971,4971
272.401,2.19469e-07,0,5011,5011
272.451,2.63611e-07,0,5057,5057
272.5,3.10479e-07,0,5109,5109
272.55,3.58282e-07,0,5151,5151
272.603,4.09866e-07,0,5191,5191
272.653,4.61117e-07,0,5237,5237
272.702,5.16081e-07,0,5285,5285
272.752,5.73707e-07,0,5319,5319
272.802,6.30598e-07,0,5359,5359
272.852,6.82664e-07,0,5409,5409
272.902,7.26743e-07,0,5451,5451
272.951,7.6112e-07,0,5491,5491
273.001,7.85486e-07,0,5537,5537
273.051,8.00956e-07,0,5581,5581
273.101,8.09691e-07,0,5611,5611
273.151,8.13924e-07,0,5657,5657
273.2,8.15044e-07,0,5709,5709
273.25,8.13409e-07,0,5751,5751
273.3,8.08673e-07,0,5791,5791
273.353,7.99406e-07,0,5829,5829
273.403,7.85556e-07,0,5877,5877
273.452,7.65676e-07,0,5911,5911
273.502,7.38863e-07,0,5957,5957
273.552,7.04593e-07,0,6005,6005
273.602,6.63185e-07,0,6043,6043
273.652,6.16294e-07,0,6063,6063
273.701,5.66656e-07,0,6113,6113
273.751,5.17086e-07,0,6143,6143
273.801,4.69601e-07,0,6155,6155
273.851,4.25277e-07,0,6185,6185
273.901,3.84489e-07,0,6213,6213
273.95,3.47082e-07,0,6235,6235
274,3.12553e-07,0,6249,6249
274.053,2.78442e-07,0,6297,6297
274.103,2.47946e-07,0,6307,6307
274.152,2.18797e-07,0,6335,6335
274.202,1.91279e-07,0,6373,6373
274.252,1.66536e-07,0,6395,6395
274.302,1.46113e-07,0,6391,6391
274.352,1.30674e-07,0,6429,6429
274.401,1.18994e-07,0,6461,6461
274.451,1.08494e-07,0,6495,6495
274.501,9.70592e-08,0,6533,6533
274.551,8.4502e-08,0,6551,6551
274.601,7.23053e-08,0,6591,6591
274.65,6.21758e-08,0,6625,6625
274.7,5.48804e-08,0,6609,6609
274.753,4.98982e-08,0,6603,6603
274.803,4.67566e-08,0,6645,6645
274.853,4.38111e-08,0,6697,6697
274.902,3.98495e-08,0,6721,6721
274.952,3.4419e-08,0,6751,6751
275.002,2.82861e-08,0,6785,6785
275.052,2.30002e-08,0,6815,6815
275.102,1.97732e-08,0,6845,6845
275.151,1.86829e-08,0,6877,6877
275.201,1.88809e-08,0,6903,6903
275.251,1.94021e-08,0,6905,6905
275.301,1.97494e-08,0,6897,6897
275.35,1.98951e-08,0,6919,6919
275.4,1.99786e-08,0,6969,6969
275.45,2.00837e-08,0,7029,7029
275.503,2.02104e-08,0,7035,7035
275.553,2.02676e-08,0,7069,7069
275.602,2.01083e-08,0,7101,7101
275.652,1.97092e-08,0,7111,7111
275.702,1.93399e-08,0,7143,7143
275.752,1.91781e-08,0,7175,7175
275.802,1.91566e-08,0,7257,7257
275.851,1.91799e-08,0,7283,7283
275.901,1.92116e-08,0,7341,7341
275.951,1.92444e-08,0,7331,7331
276.001,1.92773e-08,0,7355,7355
276.051,1.93104e-08,0,7377,7377
276.1,1.93435e-08,0,7393,7393
276.15,1.93767e-08,0,7435,7435
276.203,1.9412e-08,0,7468,7468
276.253,1.94453e-08,0,7492,7492
276.302,1.94787e-08,0,7522,7522
276.352,1.95121e-08,0,7556,7556
276.402,1.95456e-08,0,7592,7592
276.452,1.95792e-08,0,7614,7614
276.502,1.96128e-08,0,7632,7632
276.551,1.96465e-08,0,7648,7648
276.601,1.96802e-08,0,7646,7646
276.651,1.97139e-08,0,7670,7670
276.701,1.97477e-08,0,7666,7666
276.751,1.97816e-08,0,7648,7648
276.8,1.98154e-08,0,7556,7556
276.85,1.98494e-08,0,7580,7580
276.9,1.98834e-08,0,7624,7624
276.953,1.99194e-08,0,7688,7688
277.003,1.99536e-08,0,7766,7766
277.052,1.99878e-08,0,7828,7828
277.102,2.00222e-08,0,7890,7890
277.152,2.00567e-08,0,7926,7926
277.202,2.00913e-08,0,7972,7972
277.252,2.01261e-08,0,8032,8032
277.301,2.0161e-08,0,8080,8080
277.351,2.0196e-08,0,8076,8076
277.401,2.02312e-08,0,8066,8066
277.451,2.02665e-08,0,8134,8134
277.501,2.03019e-08,0,8070,8070
277.55,2.03374e-08,0,8058,8058
277.6,2.03731e-08,0,8048,8048
277.653,2.04111e-08,0,7973,7973
277.703,2.0447e-08,0,7967,7967
277.752,2.04832e-08,0,7963,7963
277.802,2.05194e-08,0,7983,7983
277.852,2.05557e-08,0,7979,7979
277.902,2.05921e-08,0,8095,8095
277.952,2.06286e-08,0,8063,8063
278.001,2.06651e-08,0,8108,8108
278.051,2.07013e-08,0,8130,8130
278.101,2.07369e-08,0,8108,8108
278.151,2.07714e-08,0,8164,8164
278.201,2.08044e-08,0,8136,8136
278.25,2.08355e-08,0,8168,8168
278.3,2.08643e-08,0,8148,8148
278.35,2.08906e-08,0,8112,8112
278.403,2.09158e-08,0,8148,8148
278.453,2.0937e-08,0,8148,8148
278.502,2.09555e-08,0,8146,8146
278.552,2.09711e-08,0,8154,8154
278.602,2.09833e-08,0,8110,8110
278.652,2.09916e-08,0,8138,8138
278.702,2.09903e-08,0,8150,8150
278.751,2.09818e-08,0,8084,8084
278.801,2.09675e-08,0,7950,7950
278.851,2.09412e-08,0,7986,7986
278.901,2.09007e-08,0,7900,7900
278.951,2.08438e-08,0,7872,7872
279,2.07676e-08,0,7840,7840
279.05,2.06693e-08,0,7814,7814
279.103,2.05383e-08,0,7782,7782
279.153,2.03866e-08,0,7750,7750
279.202,2.02058e-08,0,7736,7736
279.252,1.9994e-08,0,7680,7680
279.302,1.97499e-08,0,7654,7654
279.352,1.94728e-08,0,7614,7614
279.402,1.91625e-08,0,7574,7574
279.451,1.88199e-08,0,7562,7562
279.501,1.84466e-08,0,7522,7522
279.551,1.80455e-08,0,7472,7472
279.601,1.762e-08,0,7424,7424
279.651,1.71744e-08,0,7392,7392
279.7,1.67128e-08,0,7478,7478
279.75,1.62394e-08,0,7552,7552
279.8,1.57579e-08,0,7540,7540
279.853,1.52432e-08,0,7520,7520
279.903,1.47556e-08,0,7524,7524
279.952,1.42696e-08,0,7644,7644
280.002,1.37881e-08,0,7700,7700
280.052,1.33144e-08,0,7674,7674
280.102,1.28516e-08,0,7648,7648
280.152,1.24035e-08,0,7624,7624
280.201,1.19734e-08,0,7612,7612
280.251,1.15646e-08,0,7588,7588
280.301,1.11798e-08,0,7604,7604
280.351,1.08212e-08,0,7630,7630
280.401,1.04898e-08,0,7596,7596
280.45,1.0186e-08,0,7580,7580
280.5,9.90955e-09,0,7700,7700
280.553,9.64549e-09,0,7812,7812
280.603,9.42182e-09,0,7890,7890
280.652,9.22167e-09,0,7980,7980
280.702,9.04353e-09,0,7936,7936
280.752,8.88589e-09,0,7880,7880
280.802,8.74724e-09,0,7848,7848
280.852,8.62599e-09,0,7922,7922
280.901,8.52049e-09,0,7956,7956
280.951,8.42897e-09,0,7980,7980
281.001,8.3498e-09,0,7896,7896
281.051,8.28146e-09,0,7850,7850
281.101,8.22266e-09,0,7808,7808
281.15,8.17235e-09,0,7746,7746
281.2,8.12969e-09,0,7898,7898
281.25,8.09392e-09,0,7786,7786
281.303,8.06265e-09,0,7690,7690
281.353,8.03835e-09,0,7640,7640
281.402,8.01765e-09,0,7708,7708
281.452,7.99933e-09,0,7662,7662
281.502,7.98519e-09,0,7548,7548
281.552,7.98227e-09,0,7494,7494
281.602,7.97864e-09,0,7440,7440
281.651,7.97677e-09,0,7530,7530
281.701,7.97652e-09,0,7480,7480
281.751,7.97608e-09,0,7376,7376
281.801,7.97725e-09,0,7334,7334
281.851,7.97969e-09,0,7284,7284
281.9,7.98405e-09,0,7236,7236
281.95,7.98926e-09,0,7188,7188
282.003,7.99486e-09,0,7156,7156
282.053,8.00034e-09,0,7106,7106
282.102,8.00573e-09,0,7064,7064
282.152,8.01131e-09,0,7010,7010
282.202,8.01685e-09,0,6998,6998
282.252,8.0225e-09,0,6946,6946
282.302,8.02656e-09,0,6964,6964
282.351,8.03376e-09,0,6906,6906
282.401,8.03981e-09,0,6906,6906
282.451,8.04579e-09,0,6854,6854
282.501,8.05172e-09,0,6822,6822
282.551,8.05772e-09,0,6820,6820
282.6,8.06375e-09,0,6816,6816
282.65,8.06984e-09,0,6800,6800
282.703,8.07621e-09,0,6794,6794
282.753,8.08225e-09,0,6824,6824
282.803,8.08825e-09,0,6800,6800
282.852,8.09421e-09,0,6786,6786
282.902,8.10017e-09,0,6824,6824
282.952,8.10612e-09,0,6786,6786
283.002,8.11213e-09,0,6798,6798
283.052,8.11825e-09,0,6786,6786
283.101,8.12468e-09,0,6750,6750
283.151,8.13166e-09,0,6762,6762
283.201,8.13946e-09,0,6732,6732
283.251,8.14813e-09,0,6796,6796
283.3,8.15717e-09,0,6802,6802
283.35,8.17358e-09,0,6802,6802
283.4,8.19488e-09,0,6876,6876
283.453,8.22609e-09,0,6910,6910
283.503,8.26477e-09,0,6944,6944
283.552,8.31604e-09,0,6988,6988
283.602,8.38354e-09,0,7032,7032
283.652,8.47051e-09,0,7076,7076
283.702,8.58084e-09,0,7108,7108
283.752,8.71748e-09,0,7152,7152
283.801,8.88412e-09,0,7196,7196
283.851,9.08411e-09,0,7232,7232
283.901,9.32165e-09,0,7268,7268
283.951,9.60229e-09,0,7316,7316
284.001,9.93302e-09,0,7360,7360
284.05,1.03231e-08,0,7400,7400
284.1,1.07839e-08,0,7436,7436
284.153,1.13638e-08,0,7484,7484
284.203,1.20139e-08,0,7528,7528
284.253,1.27799e-08,0,7576,7576
284.302,1.36782e-08,0,7620,7620
284.352,1.47247e-08,0,7656,7656
284.402,1.59346e-08,0,7704,7704
284.452,1.73216e-08,0,7740,7740
284.501,1.88971e-08,0,7788,7788
284.551,2.06702e-08,0,7824,7824
284.601,2.26465e-08,0,7864,7864
284.651,2.48282e-08,0,7908,7908
284.701,2.72131e-08,0,7956,7956
284.75,2.97951e-08,0,7982,7982
284.8,3.25644e-08,0,8026,8026
284.85,3.55079e-08,0,8070,8070
284.903,3.87983e-08,0,8106,8106
284.953,4.20553e-08,0,8112,8112
285.002,4.54461e-08,0,8152,8152
285.052,4.89653e-08,0,8156,8156
285.102,5.26159e-08,0,8168,8168
285.152,5.64109e-08,0,8156,8156
285.202,6.03737e-08,0,8152,8152
285.251,6.45359e-08,0,8148,8148
285.301,6.8933e-08,0,8148,8148
285.351,7.35983e-08,0,8148,8148
285.401,7.85567e-08,0,8148,8148
285.451,8.38202e-08,0,8148,8148
285.5,8.93876e-08,0,8144,8144
285.55,9.52496e-08,0,8140,8140
285.603,1.0177e-07,0,8096,8096
285.653,1.08237e-07,0,8078,8078
285.702,1.15048e-07,0,8160,8160
285.752,1.22294e-07,0,8184,8184
285.802,1.30121e-07,0,8192,8192
285.852,1.38727e-07,0,8192,8192
285.902,1.48362e-07,0,8192,8192
285.951,1.59314e-07,0,8192,8192
286.001,1.71896e-07,0,8192,8192
286.051,1.86427e-07,0,8192,8192
286.101,2.03214e-07,0,8192,8192
286.151,2.22525e-07,0,8192,8192
286.2,2.44572e-07,0,8192,8192
286.25,2.69483e-07,0,8192,8192
286.3,2.97291e-07,0,8192,8192
286.353,3.29797e-07,0,8192,8192
286.403,3.63169e-07,0,8192,8192
286.452,3.98789e-07,0,8192,8192
286.502,4.36185e-07,0,8192,8192
286.552,4.74761e-07,0,8192,8192
286.602,5.13806e-07,0,8192,8192
286.652,5.52516e-07,0,8192,8192
286.701,5.90021e-07,0,8192,8192
286.751,6.25428e-07,0,8104,8104
286.801,6.57869e-07,0,8128,8128
286.851,6.86556e-07,0,8152,8152
286.901,7.10826e-07,0,8148,8148
286.95,7.30176e-07,0,8152,8152
287,7.44277e-07,0,8164,8164
287.053,7.53305e-07,0,8176,8176
287.103,7.56231e-07,0,8168,8168
287.152,7.53798e-07,0,8156,8156
287.202,7.46142e-07,0,8148,8148
287.252,7.33433e-07,0,8160,8160
287.302,7.15857e-07,0,8144,8144
287.352,6.93623e-07,0,8144,8144
287.401,6.66979e-07,0,8136,8136
287.451,6.36241e-07,0,8180,8180
287.501,6.01816e-07,0,8172,8172
287.551,5.64216e-07,0,8156,8156
287.601,5.24059e-07,0,8172,8172
287.65,4.82044e-07,0,8168,8168
287.7,4.38926e-07,0,8144,8144
287.75,3.95462e-07,0,8132,8132
287.803,3.49869e-07,0,8128,8128
287.853,3.07892e-07,0,8108,8108
287.902,2.67524e-07,0,8100,8100
287.952,2.292e-07,0,8092,8092
288.002,1.93244e-07,0,8084,8084
288.052,1.5988e-07,0,8136,8136
288.102,1.29244e-07,0,8136,8136
288.151,1.01396e-07,0,8096,8096
288.201,7.63306e-08,0,8072,8072
288.251,5.39883e-08,0,8092,8092
288.301,3.42626e-08,0,8136,8136
288.351,1.70108e-08,0,8168,8168
288.4,2.06538e-09,0,8136,8136
288.45,-1.07543e-08,0,8156,8156
288.503,-2.22149e-08,0,8172,8172
288.553,-3.12307e-08,0,8164,8164
288.602,-3.86632e-08,0,8164,8164
288.652,-4.46728e-08,0,8180,8180
288.702,-4.94098e-08,0,8184,8184
288.752,-5.30145e-08,0,8168,8168
288.802,-5.56147e-08,0,8176,8176
288.851,-5.73235e-08,0,8184,8184
288.901,-5.82367e-08,0,8192,8192
288.951,-5.84334e-08,0,8188,8188
289.001,-5.79793e-08,0,8180,8180
289.051,-5.69321e-08,0,8180,8180
289.1,-5.53494e-08,0,8184,8184
289.15,-5.32942e-08,0,8176,8176
289.2,-5.0839e-08,0,8180,8180
289.253,-4.78949e-08,0,8180,8180
289.303,-4.48825e-08,0,8188,8188
289.352,-4.1737e-08,0,8188,8188
289.402,-3.85441e-08,0,8184,8184
289.452,-3.538e-08,0,8192,8192
289.502,-3.23077e-08,0,8192,8192
289.552,-2.93755e-08,0,8184,8184
289.601,-2.66177e-08,0,8192,8192
289.651,-2.40563e-08,0,8192,8192
289.701,-2.17028e-08,0,8192,8192
289.751,-1.95618e-08,0,8176,8176
289.801,-1.76324e-08,0,8192,8192
289.85,-1.59107e-08,0,8184,8184
289.9,-1.43905e-08,0,8180,8180
289.953,-1.29919e-08,0,8176,8176
290.003,-1.18609e-08,0,8176,8176
290.052,-1.0904e-08,0,8168,8168
290.102,-1.011e-08,0,8160,8160
290.152,-9.4663e-09,0,8148,8148
290.202,-8.95965e-09,0,8136,8136
290.252,-8.57625e-09,0,8124,8124
290.301,-8.30216e-09,0,8092,8092
290.351,-8.1238e-09,0,8176,8176
290.401,-8.02821e-09,0,8098,8098
290.451,-8.00337e-09,0,8088,8088
290.501,-8.03821e-09,0,8158,8158
290.55,-8.12245e-09,0,8156,8156
290.6,-8.24692e-09,0,8164,8164
290.653,-8.4134e-09,0,8068,8068
290.703,-8.59534e-09,0,7952,7952
290.753,-8.79406e-09,0,8008,8008
290.802,-9.00309e-09,0,8076,8076
290.852,-9.21659e-09,0,8080,8080
290.902,-9.42949e-09,0,8072,8072
290.952,-9.63757e-09,0,8056,8056
291.001,-9.83723e-09,0,8020,8020
291.051,-1.00257e-08,0,8044,8044
291.101,-1.02009e-08,0,8046,8046
291.151,-1.03616e-08,0,8150,8150
291.201,-1.0507e-08,0,8192,8192
291.25,-1.06367e-08,0,8192,8192
291.3,-1.07507e-08,0,8192,8192
291.35,-1.08491e-08,0,8192,8192
291.403,-1.0937e-08,0,8192,8192
291.453,-1.10052e-08,0,8140,8140
291.502,-1.10596e-08,0,8016,8016
291.552,-1.1101e-08,0,8042,8042
291.602,-1.11307e-08,0,8058,8058
291.652,-1.11498e-08,0,8076,8076
291.702,-1.11632e-08,0,8062,8062
291.751,-1.11632e-08,0,8054,8054
291.801,-1.11612e-08,0,8034,8034
291.851,-1.11518e-08,0,8046,8046
291.901,-1.11419e-08,0,8028,8028
291.951,-1.11289e-08,0,7972,7972
292,-1.11137e-08,0,7916,7916
292.05,-1.10976e-08,0,7844,7844
292.103,-1.10803e-08,0,7898,7898
292.153,-1.1065e-08,0,7772,7772
292.202,-1.10512e-08,0,7792,7792
292.252,-1.104e-08,0,7702,7702
292.302,-1.10318e-08,0,7734,7734
292.352,-1.10283e-08,0,7684,7684
292.402,-1.10265e-08,0,7684,7684
292.451,-1.10273e-08,0,7702,7702
292.501,-1.10386e-08,0,7638,7638
292.551,-1.10512e-08,0,7612,7612
292.601,-1.1072e-08,0,7620,7620
292.651,-1.10949e-08,0,7608,7608
292.7,-1.11231e-08,0,7618,7618
292.75,-1.11604e-08,0,7624,7624
292.8,-1.12051e-08,0,7620,7620
292.853,-1.12583e-08,0,7596,7596
292.903,-1.13147e-08,0,7598,7598
292.952,-1.13779e-08,0,7602,7602
293.002,-1.14483e-08,0,7604,7604
293.052,-1.15256e-08,0,7570,7570
293.102,-1.16098e-08,0,7588,7588
293.152,-1.17013e-08,0,7580,7580
293.201,-1.18003e-08,0,7572,7572
293.251,-1.19072e-08,0,7576,7576
293.301,-1.20226e-08,0,7572,7572
293.351,-1.21474e-08,0,7558,7558
293.401,-1.22823e-08,0,7556,7556
293.45,-1.24285e-08,0,7566,7566
293.5,-1.25869e-08,0,7564,7564
293.553,-1.27694e-08,0,7604,7604
293.603,-1.29568e-08,0,7626,7626
293.652,-1.316e-08,0,7670,7670
293.702,-1.33801e-08,0,7720,7720
293.752,-1.36178e-08,0,7776,7776
293.802,-1.3874e-08,0,7826,7826
293.852,-1.41488e-08,0,7870,7870
293.901,-1.44426e-08,0,7930,7930
293.951,-1.4755e-08,0,7978,7978
294.001,-1.50851e-08,0,8042,8042
294.051,-1.54319e-08,0,8086,8086
294.101,-1.57939e-08,0,8098,8098
294.15,-1.61693e-08,0,8138,8138
294.2,-1.65558e-08,0,8184,8184
294.25,-1.69508e-08,0,8184,8184
294.303,-1.73752e-08,0,8176,8176
294.353,-1.77787e-08,0,8176,8176
294.402,-1.81816e-08,0,8180,8180
294.452,-1.85809e-08,0,8192,8192
294.502,-1.89732e-08,0,8192,8192
294.552,-1.93556e-08,0,8184,8184
294.602,-1.97252e-08,0,8184,8184
294.651,-2.0079e-08,0,8176,8176
294.701,-2.04145e-08,0,8176,8176
294.751,-2.07293e-08,0,8192,8192
294.801,-2.10214e-08,0,8176,8176
294.851,-2.12889e-08,0,8176,8176
294.9,-2.15305e-08,0,8180,8180
294.95,-2.17451e-08,0,8188,8188
295.003,-2.1942e-08,0,8192,8192
295.053,-2.20991e-08,0,8168,8168
295.102,-2.22281e-08,0,8180,8180
295.152,-2.23296e-08,0,8176,8176
295.202,-2.24043e-08,0,8188,8188
295.252,-2.24532e-08,0,8172,8172
295.302,-2.2477e-08,0,8192,8192
295.351,-2.24787e-08,0,8172,8172
295.401,-2.2459e-08,0,8172,8172
295.451,-2.24214e-08,0,8152,8152
295.501,-2.23662e-08,0,8160,8160
295.551,-2.22951e-08,0,8156,8156
295.6,-2.22103e-08,0,8152,8152
295.65,-2.21139e-08,0,8152,8152
295.7,-2.20075e-08,0,8152,8152
295.753,-2.18858e-08,0,8152,8152
295.803,-2.1764e-08,0,8144,8144
295.852,-2.16369e-08,0,8144,8144
295.902,-2.1506e-08,0,8124,8124
295.952,-2.13722e-08,0,8120,8120
296.002,-2.12369e-08,0,8120,8120
296.052,-2.11009e-08,0,8116,8116
296.101,-2.09651e-08,0,8128,8128
296.151,-2.08303e-08,0,8128,8128
296.201,-2.06971e-08,0,8144,8144
296.251,-2.05662e-08,0,8136,8136
296.301,-2.04381e-08,0,8152,8152
296.35,-2.03132e-08,0,8144,8144
296.4,-2.01918e-08,0,8152,8152
296.453,-2.00675e-08,0,8128,8128
296.503,-1.99542e-08,0,8110,8110
296.552,-1.98452e-08,0,8074,8074
296.602,-1.97404e-08,0,8076,8076
296.652,-1.96399e-08,0,8068,8068
296.702,-1.95436e-08,0,8064,8064
296.752,-1.94514e-08,0,8060,8060
296.801,-1.93632e-08,0,8042,8042
296.851,-1.92788e-08,0,8040,8040
296.901,-1.9198e-08,0,8088,8088
296.951,-1.91205e-08,0,8092,8092
297.001,-1.9046e-08,0,8094,8094
297.05,-1.89743e-08,0,8140,8140
297.1,-1.8905e-08,0,8156,8156
297.15,-1.88379e-08,0,8160,8160
297.203,-1.87689e-08,0,8144,8144
297.253,-1.87053e-08,0,8136,8136
297.302,-1.8643e-08,0,8008,8008
297.352,-1.85818e-08,0,8036,8036
297.402,-1.85213e-08,0,8044,8044
297.452,-1.84615e-08,0,8048,8048
297.502,-1.8402e-08,0,8076,8076
297.551,-1.83427e-08,0,8072,8072
297.601,-1.82834e-08,0,8052,8052
297.651,-1.8224e-08,0,8036,8036
297.701,-1.81642e-08,0,8016,8016
297.751,-1.81039e-08,0,7944,7944
297.8,-1.80429e-08,0,7928,7928
297.85,-1.79812e-08,0,7876,7876
297.903,-1.79147e-08,0,7838,7838
297.953,-1.78509e-08,0,7812,7812
298.002,-1.77858e-08,0,7766,7766
298.052,-1.77195e-08,0,7844,7844
298.102,-1.76518e-08,0,7884,7884
298.152,-1.75826e-08,0,7928,7928
298.202,-1.75116e-08,0,7982,7982
298.251,-1.74389e-08,0,8016,8016
298.301,-1.73641e-08,0,8046,8046
298.351,-1.72871e-08,0,8062,8062
298.401,-1.72078e-08,0,8082,8082
298.451,-1.71258e-08,0,8084,8084
298.5,-1.70412e-08,0,8112,8112
298.55,-1.69535e-08,0,8120,8120
298.603,-1.68572e-08,0,8120,8120
298.653,-1.67628e-08,0,8108,8108
298.703,-1.66647e-08,0,8096,8096
298.752,-1.65629e-08,0,8096,8096
298.802,-1.6457e-08,0,8104,8104
298.852,-1.6347e-08,0,8092,8092
298.902,-1.62327e-08,0,8108,8108
298.952,-1.6114e-08,0,8088,8088
299.001,-1.59906e-08,0,8086,8086
299.051,-1.58625e-08,0,8072,8072
299.101,-1.57296e-08,0,8084,8084
299.151,-1.55918e-08,0,8072,8072
299.2,-1.5449e-08,0,8080,8080
299.25,-1.5301e-08,0,8074,8074
299.3,-1.51478e-08,0,8072,8072
299.353,-1.49798e-08,0,8062,8062
299.403,-1.48156e-08,0,7944,7944
299.452,-1.46458e-08,0,7895,7895
299.502,-1.44704e-08,0,7850,7850
299.552,-1.42892e-08,0,7862,7862
299.602,-1.41021e-08,0,7876,7876
299.652,-1.39089e-08,0,7880,7880
299.701,-1.37092e-08,0,7876,7876
299.751,-1.35028e-08,0,7830,7830
299.801,-1.32892e-08,0,7846,7846
299.851,-1.30678e-08,0,7824,7824
299.901,-1.28379e-08,0,7812,7812
299.95,-1.25989e-08,0,7768,7768
300,-1.23497e-08,0,7754,7754
300.053,-1.20737e-08,0,7760,7760
300.103,-1.18002e-08,0,7730,7730
300.152,-1.1513e-08,0,7660,7660
300.202,-1.12109e-08,0,7592,7592
300.252,-1.08926e-08,0,7644,7644
300.302,-1.05568e-08,0,7680,7680
300.352,-1.02024e-08,0,7700,7700
300.401,-9.82841e-09,0,7726,7726
300.451,-9.43415e-09,0,7720,7720
300.501,-9.01914e-09,0,7772,7772
300.551,-8.58327e-09,0,7814,7814
300.601,-8.12682e-09,0,7818,7818
300.65,-7.65047e-09,0,7842,7842
300.7,-7.15535e-09,0,7764,7764
300.75,-6.64302e-09,0,7728,7728
300.803,-6.08399e-09,0,7746,7746
300.853,-5.54288e-09,0,7748,7748
300.902,-4.99179e-09,0,7690,7690
300.952,-4.43376e-09,0,7686,7686
301.002,-3.87204e-09,0,7670,7670
301.052,-3.31005e-09,0,7820,7820
301.102,-2.75131e-09,0,7804,7804
301.151,-2.19934e-09,0,7694,7694
301.201,-1.65766e-09,0,7622,7622
301.251,-1.12966e-09,0,7568,7568
301.301,-6.18582e-10,0,7622,7622
301.351,-1.2748e-10,0,7692,7692
301.4,3.40859e-10,0,7648,7648
301.45,7.83937e-10,0,7728,7728
301.503,1.22315e-09,0,7696,7696
301.553,1.60781e-09,0,7680,7680
301.602,1.96176e-09,0,7746,7746
301.652,2.28403e-09,0,7624,7624
301.702,2.57406e-09,0,7600,7600
301.752,2.83171e-09,0,7676,7676
301.802,3.05723e-09,0,7662,7662
301.851,3.25127e-09,0,7654,7654
301.901,3.4148e-09,0,7732,7732
301.951,3.54911e-09,0,7674,7674
302.001,3.65578e-09,0,7638,7638
302.051,3.73664e-09,0,7620,7620
302.1,3.79354e-09,0,7716,7716
302.15,3.82822e-09,0,7626,7626
302.2,3.83958e-09,0,7590,7590
302.253,3.83518e-09,0,7518,7518
302.303,3.82189e-09,0,7508,7508
302.352,3.78775e-09,0,7604,7604
302.402,3.74404e-09,0,7560,7560
302.452,3.69064e-09,0,7576,7576
302.502,3.62917e-09,0,7502,7502
302.552,3.56159e-09,0,7460,7460
302.601,3.48949e-09,0,7632,7632
302.651,3.41455e-09,0,7584,7584
302.701,3.3376e-09,0,7486,7486
302.751,3.26007e-09,0,7434,7434
302.801,3.18321e-09,0,7428,7428
302.85,3.10777e-09,0,7348,7348
302.9,3.03467e-09,0,7246,7246
302.953,2.9609e-09,0,7274,7274
303.003,2.89556e-09,0,7260,7260
303.052,2.835e-09,0,7286,7286
303.102,2.7796e-09,0,7294,7294
303.152,2.72993e-09,0,7282,7282
303.202,2.68625e-09,0,7358,7358
303.252,2.64874e-09,0,7300,7300
303.301,2.61753e-09,0,7278,7278
303.351,2.59225e-09,0,7264,7264
303.401,2.57242e-09,0,7260,7260
303.451,2.55746e-09,0,7306,7306
303.501,2.54649e-09,0,7278,7278
303.55,2.53856e-09,0,7270,7270
303.6,2.53244e-09,0,7272,7272
303.65,2.52719e-09,0,7324,7324
303.703,2.52208e-09,0,7356,7356
303.753,2.51661e-09,0,7376,7376
303.802,2.50921e-09,0,7368,7368
303.852,2.49955e-09,0,7380,7380
303.902,2.48716e-09,0,7384,7384
303.952,2.47215e-09,0,7396,7396
304.002,2.4555e-09,0,7374,7374
304.051,2.43161e-09,0,7358,7358
304.101,2.40204e-09,0,7300,7300
304.151,2.37012e-09,0,7296,7296
304.201,2.3352e-09,0,7270,7270
304.251,2.29766e-09,0,7224,7224
304.3,2.25828e-09,0,7192,7192
304.35,2.21787e-09,0,7158,7158
304.403,2.17483e-09,0,7112,7112
304.453,2.13469e-09,0,7094,7094
304.502,2.09572e-09,0,7064,7064
304.552,2.05855e-09,0,7062,7062
304.602,2.0238e-09,0,7032,7032
304.652,1.99209e-09,0,7012,7012
304.702,1.96403e-09,0,6990,6990
304.751,1.94022e-09,0,6982,6982
304.801,1.92139e-09,0,6960,6960
304.851,1.90851e-09,0,6968,6968
304.901,1.90212e-09,0,6960,6960
304.951,1.90344e-09,0,6910,6910
