250,0,0,2048,2048
250.006,0,0,2048,2048
250.053,0,0,2048,2048
250.105,0,0,2048,2048
250.152,0,0,2048,2048
250.205,0,0,2048,2048
250.252,0,0,2048,2048
250.305,0,0,2048,2048
250.352,0,0,2048,2048
250.404,2.77556e-17,0,2048,2048
250.451,0,0,2048,2048
250.504,0,0,2048,2048
250.551,0,0,2048,2048
250.603,0,0,2048,2048
250.65,2.77556e-17,0,2048,2048
250.703,0,0,2048,2048
250.756,0,0,2048,2048
250.803,0,0,2048,2048
250.855,-2.77556e-17,0,2048,2048
250.902,-2.77556e-17,0,2048,2048
250.955,0,0,2048,2048
251.002,0,0,2048,2048
251.055,0,0,2048,2048
251.101,0,0,2048,2048
251.154,0,0,2048,2048
251.201,0,0,2048,2048
251.254,2.77556e-17,0,2048,2048
251.301,5.55112e-17,0,2048,2048
251.353,5.55112e-17,0,2048,2048
251.4,0,0,2048,2048
251.453,0,0,2048,2048
251.506,0,0,2048,2048
251.553,0,0,2048,2048
251.605,0,0,2048,2048
251.652,0,0,2048,2048
251.705,0,0,2048,2048
251.752,0,0,2048,2048
251.804,0,0,2048,2048
251.851,2.77556e-17,0,2048,2048
251.904,2.77556e-17,0,2048,2048
251.951,2.77556e-17,0,2048,2048
252.004,2.77556e-17,0,2048,2048
252.05,5.55112e-17,0,2048,2048
252.103,5.55112e-17,0,2048,2048
252.15,5.55112e-17,0,2048,2048
252.203,5.55112e-17,0,2048,2048
252.256,5.55112e-17,0,2048,2048
252.302,5.55112e-17,0,2048,2048
252.355,5.55112e-17,0,2048,2048
252.402,5.55112e-17,0,2048,2048
252.455,5.55112e-17,0,2048,2048
252.502,5.55112e-17,0,2048,2048
252.554,0,0,2048,2048
252.601,0,0,2048,2048
252.654,-2.77556e-17,0,2048,2048
252.701,-2.77556e-17,0,2048,2048
252.754,-2.77556e-17,0,2048,2048
252.8,-2.77556e-17,0,2048,2048
252.853,-2.77556e-17,0,2048,2048
252.906,-2.77556e-17,0,2048,2048
252.953,-2.77556e-17,0,2048,2048
253.005,-2.77556e-17,0,2048,2048
253.052,-2.77556e-17,0,2048,2048
253.105,-2.77556e-17,0,2048,2048
253.152,-2.77556e-17,0,2048,2048
253.205,-2.77556e-17,0,2048,2048
253.251,-2.77556e-17,0,2048,2048
253.304,-2.77556e-17,0,2048,2048
253.351,2.77556e-17,0,2048,2048
253.404,5.55112e-17,0,2048,2048
253.451,2.77556e-17,0,2048,2048
253.503,2.77556e-17,0,2048,2048
253.55,2.77556e-17,0,2048,2048
253.603,0,0,2048,2048
253.656,-2.77556e-17,0,2048,2048
253.703,-2.77556e-17,0,2048,2048
253.755,-2.77556e-17,0,2048,2048
253.802,-2.77556e-17,0,2048,2048
253.855,-2.77556e-17,0,2048,2048
253.902,-2.77556e-17,0,2048,2048
253.954,-2.77556e-17,0,2048,2048
254.001,-2.77556e-17,0,2048,2048
254.054,-2.77556e-17,0,2048,2048
254.101,-2.77556e-17,0,2048,2048
254.154,0,0,2048,2048
254.201,2.77556e-17,0,2048,2048
254.253,2.77556e-17,0,2048,2048
254.3,0,0,2048,2048
254.353,2.77556e-17,0,2048,2048
254.406,0,0,2048,2048
254.452,2.77556e-17,0,2048,2048
254.505,0,0,2048,2048
254.552,-2.77556e-17,0,2048,2048
254.605,-2.77556e-17,0,2048,2048
254.652,-2.77556e-17,0,2048,2048
254.704,-2.77556e-17,0,2048,2048
254.751,-2.77556e-17,0,2048,2048
254.804,-2.77556e-17,0,2048,2048
254.851,-2.77556e-17,0,2048,2048
254.904,-2.77556e-17,0,2048,2048
254.95,-2.77556e-17,0,2048,2048
255.003,-2.77556e-17,0,2048,2048
255.05,-2.77556e-17,0,2048,2048
255.103,-2.77556e-17,0,2048,2048
255.155,-2.77556e-17,0,2048,2048
255.202,-2.77556e-17,0,2048,2048
255.255,0,0,2048,2048
255.302,0,0,2048,2048
255.355,0,0,2048,2048
255.402,0,0,2048,2048
255.454,0,0,2048,2048
255.501,-2.77556e-17,0,2048,2048
255.554,-2.77556e-17,0,2048,2048
255.601,-2.77556e-17,0,2048,2048
255.653,-2.77556e-17,0,2048,2048
255.7,0,0,2048,2048
255.753,2.77556e-17,0,2048,2048
255.806,5.55112e-17,0,2048,2048
255.853,2.77556e-17,0,2048,2048
255.905,0,0,2048,2048
255.952,0,0,2048,2048
256.005,2.77556e-17,0,2048,2048
256.052,2.77556e-17,0,2048,2048
256.105,2.77556e-17,0,2048,2048
256.151,2.77556e-17,0,2048,2048
256.204,2.77556e-17,0,2048,2048
256.251,2.77556e-17,0,2048,2048
256.304,2.77556e-17,0,2048,2048
256.351,2.77556e-17,0,2048,2048
256.403,8.32667e-17,0,2048,2048
256.45,8.32667e-17,0,2048,2048
256.503,5.55112e-17,0,2048,2048
256.556,8.32667e-17,0,2048,2048
256.603,5.55112e-17,0,2048,2048
256.655,8.32667e-17,0,2048,2048
256.702,5.55112e-17,0,2048,2048
256.755,5.55112e-17,0,2048,2048
256.802,5.55112e-17,0,2048,2048
256.854,2.77556e-17,0,2048,2048
256.901,2.77556e-17,0,2048,2048
256.954,2.77556e-17,0,2048,2048
257.001,2.77556e-17,0,2048,2048
257.054,2.77556e-17,0,2048,2048
257.101,2.77556e-17,0,2048,2048
257.153,0,0,2048,2048
257.2,0,0,2048,2048
257.253,-2.77556e-17,0,2048,2048
257.306,-2.77556e-17,0,2048,2048
257.352,-2.77556e-17,0,2048,2048
257.405,2.77556e-17,0,2048,2048
257.452,2.77556e-17,0,2048,2048
257.505,0,0,2048,2048
257.552,2.77556e-17,0,2048,2048
257.604,0,0,2048,2048
257.651,0,0,2048,2048
257.704,0,0,2048,2048
257.751,0,0,2048,2048
257.804,0,0,2048,2048
257.85,0,0,2048,2048
257.903,2.77556e-17,0,2048,2048
257.95,0,0,2048,2048
258.003,2.77556e-17,0,2048,2048
258.055,2.77556e-17,0,2048,2048
258.102,0,0,2048,2048
258.155,2.77556e-17,0,2048,2048
258.202,-2.77556e-17,0,2048,2048
258.255,-2.77556e-17,0,2048,2048
258.302,-2.77556e-17,0,2048,2048
258.354,0,0,2048,2048
258.401,5.55112e-17,0,2048,2048
258.454,5.55112e-17,0,2048,2048
258.501,5.55112e-17,0,2048,2048
258.553,5.55112e-17,0,2048,2048
258.6,5.55112e-17,0,2048,2048
258.653,5.55112e-17,0,2048,2048
258.706,5.55112e-17,0,2048,2048
258.753,5.55112e-17,0,2048,2048
258.805,5.55112e-17,0,2048,2048
258.852,5.55112e-17,0,2048,2048
258.905,5.55112e-17,0,2048,2048
258.952,5.55112e-17,0,2048,2048
259.005,5.55112e-17,0,2048,2048
259.051,5.55112e-17,0,2048,2048
259.104,2.77556e-17,0,2048,2048
259.151,2.77556e-17,0,2048,2048
259.204,2.77556e-17,0,2048,2048
259.251,2.77556e-17,0,2048,2048
259.303,2.77556e-17,0,2048,2048
259.35,2.77556e-17,0,2048,2048
259.403,0,0,2048,2048
259.456,2.77556e-17,0,2048,2048
259.503,0,0,2048,2048
259.555,0,0,2048,2048
259.602,0,0,2048,2048
259.655,0,0,2048,2048
259.702,-2.77556e-17,0,2048,2048
259.754,0,0,2048,2048
259.801,0,0,2048,2048
259.854,-5.55112e-17,0,2048,2048
259.901,-5.55112e-17,0,2048,2048
259.954,-5.55112e-17,0,2048,2048
260,-5.55112e-17,0,2048,2048
260.053,-2.77556e-17,0,2048,2048
260.1,-5.55112e-17,0,2048,2048
260.153,-5.55112e-17,0,2048,2048
260.206,-5.55112e-17,0,2048,2048
260.252,-5.55112e-17,0,2048,2048
260.305,-5.55112e-17,0,2048,2048
260.352,-5.55112e-17,0,2048,2048
260.405,-5.55112e-17,0,2048,2048
260.452,-5.55112e-17,0,2048,2048
260.504,-5.55112e-17,0,2048,2048
260.551,-5.55112e-17,0,2048,2048
260.604,-2.77556e-17,0,2048,2048
260.651,-2.77556e-17,0,2048,2048
260.704,-2.77556e-17,0,2048,2048
260.75,-2.77556e-17,0,2048,2048
260.803,-2.77556e-17,0,2048,2048
260.856,-2.77556e-17,0,2048,2048
260.903,-2.77556e-17,0,2048,2048
260.955,-2.77556e-17,0,2048,2048
261.002,-2.77556e-17,0,2048,2048
261.055,-5.55112e-17,0,2048,2048
261.102,-5.55112e-17,0,2048,2048
261.155,-5.55112e-17,0,2048,2048
261.201,-5.55112e-17,0,2048,2048
261.254,-5.55112e-17,0,2048,2048
261.301,-5.55112e-17,0,2048,2048
261.354,-5.55112e-17,0,2048,2048
261.401,-5.55112e-17,0,2048,2048
261.453,-5.55112e-17,0,2048,2048
261.5,-5.55112e-17,0,2048,2048
261.553,-5.55112e-17,0,2048,2048
261.606,-5.55112e-17,0,2048,2048
261.653,-5.55112e-17,0,2048,2048
261.705,-5.55112e-17,0,2048,2048
261.752,-5.55112e-17,0,2048,2048
261.805,-2.77556e-17,0,2048,2048
261.852,-2.77556e-17,0,2048,2048
261.905,-2.77556e-17,0,2048,2048
261.951,-2.77556e-17,0,2048,2048
262.004,-2.77556e-17,0,2048,2048
262.051,-2.77556e-17,0,2048,2048
262.104,-2.77556e-17,0,2048,2048
262.151,-2.77556e-17,0,2048,2048
262.203,-2.77556e-17,0,2048,2048
262.25,-2.77556e-17,0,2048,2048
262.303,-2.77556e-17,0,2048,2048
262.356,-5.55112e-17,0,2048,2048
262.402,-2.77556e-17,0,2048,2048
262.455,0,0,2048,2048
262.502,0,0,2048,2048
262.555,0,0,2048,2048
262.602,0,0,2048,2048
262.654,0,0,2048,2048
262.701,2.77556e-17,0,2048,2048
262.754,5.55112e-17,0,2048,2048
262.801,5.55112e-17,0,2048,2048
262.854,5.55112e-17,0,2048,2048
262.9,5.55112e-17,0,2048,2048
262.953,5.55112e-17,0,2048,2048
263,5.55112e-17,0,2048,2048
263.053,5.55112e-17,0,2048,2048
263.105,5.55112e-17,0,2048,2048
263.152,5.55112e-17,0,2048,2048
263.205,5.55112e-17,0,2048,2048
263.252,0,0,2048,2048
263.305,0,0,2048,2048
263.352,2.77556e-17,0,2048,2048
263.404,5.55112e-17,0,2048,2048
263.451,5.55112e-17,0,2048,2048
263.504,5.55112e-17,0,2048,2048
263.551,2.77556e-17,0,2048,2048
263.603,0,0,2048,2048
263.65,0,0,2048,2048
263.703,0,0,2048,2048
263.756,0,0,2048,2048
263.803,2.77556e-17,0,2048,2048
263.855,0,0,2048,2048
263.902,2.77556e-17,0,2048,2048
263.955,-2.77556e-17,0,2048,2048
264.002,-2.77556e-17,0,2048,2048
264.055,-2.77556e-17,0,2048,2048
264.101,-2.77556e-17,0,2048,2048
264.154,-2.77556e-17,0,2048,2048
264.201,-2.77556e-17,0,2048,2048
264.254,-2.77556e-17,0,2048,2048
264.301,0,0,2048,2048
264.353,2.77556e-17,0,2048,2048
264.4,2.77556e-17,0,2048,2048
264.453,0,0,2048,2048
264.506,0,0,2048,2048
264.553,0,0,2048,2048
264.605,2.77556e-17,0,2048,2048
264.652,2.77556e-17,0,2048,2048
264.705,-2.77556e-17,0,2048,2048
264.752,-2.77556e-17,0,2048,2048
264.804,-2.77556e-17,0,2048,2048
264.851,-2.77556e-17,0,2048,2048
264.904,-2.77556e-17,0,2048,2048
264.951,-2.77556e-17,0,2048,2048
265.004,-2.77556e-17,0,2048,2048
265.051,-2.77556e-17,0,2048,2048
265.103,-2.77556e-17,0,2048,2048
265.15,-2.77556e-17,0,2048,2048
265.203,-2.77556e-17,0,2048,2048
265.256,-2.77556e-17,0,2048,2048
265.302,0,0,2048,2048
265.355,2.77556e-17,0,2048,2048
265.402,2.77556e-17,0,2048,2048
265.455,2.77556e-17,0,2048,2048
265.502,2.77556e-17,0,2048,2048
265.554,2.77556e-17,0,2048,2048
265.601,2.77556e-17,0,2048,2048
265.654,0,0,2048,2048
265.701,-2.77556e-17,0,2048,2048
265.754,-5.55112e-17,0,2048,2048
265.8,-5.55112e-17,0,2048,2048
265.853,-5.55112e-17,0,2048,2048
265.9,-2.77556e-17,0,2048,2048
265.953,-2.77556e-17,0,2048,2048
266.005,-2.77556e-17,0,2048,2048
266.052,-2.77556e-17,0,2048,2048
266.105,-2.77556e-17,0,2048,2048
266.152,0,0,2048,2048
266.205,0,0,2048,2048
266.252,0,0,2048,2048
266.304,-2.77556e-17,0,2048,2048
266.351,-8.32667e-17,0,2048,2048
266.404,-8.32667e-17,0,2048,2048
266.451,-5.55112e-17,0,2048,2048
266.503,-8.32667e-17,0,2048,2048
266.55,-5.55112e-17,0,2048,2048
266.603,-5.55112e-17,0,2048,2048
266.656,-5.55112e-17,0,2048,2048
266.703,-5.55112e-17,0,2048,2048
266.755,-5.55112e-17,0,2048,2048
266.802,-2.77556e-17,0,2048,2048
266.855,-5.55112e-17,0,2048,2048
266.902,-5.55112e-17,0,2048,2048
266.955,-2.77556e-17,0,2048,2048
267.001,-2.77556e-17,0,2048,2048
267.054,-2.77556e-17,0,2048,2048
267.101,-2.77556e-17,0,2048,2048
267.154,-2.77556e-17,0,2048,2048
267.201,-2.77556e-17,0,2048,2048
267.253,-2.77556e-17,0,2048,2048
267.3,-2.77556e-17,0,2048,2048
267.353,-5.55112e-17,0,2048,2048
267.406,-5.55112e-17,0,2048,2048
267.453,-5.55112e-17,0,2048,2048
267.505,-1.11022e-16,0,2048,2048
267.552,-5.55112e-17,0,2048,2048
267.605,-8.32667e-17,0,2048,2048
267.652,-8.32667e-17,0,2048,2048
267.704,-5.55112e-17,0,2048,2048
267.751,-5.55112e-17,0,2048,2048
267.804,-2.77556e-17,0,2048,2048
267.851,-5.55112e-17,0,2048,2048
267.904,-8.32667e-17,0,2048,2048
267.95,-5.55112e-17,0,2048,2048
268.003,-5.55112e-17,0,2048,2048
268.05,-5.55112e-17,0,2048,2048
268.103,-5.55112e-17,0,2048,2048
268.156,-5.55112e-17,0,2048,2048
268.202,-2.77556e-17,0,2048,2048
268.255,-2.77556e-17,0,2048,2048
268.302,-2.77556e-17,0,2048,2048
268.355,-2.77556e-17,0,2048,2048
268.402,-2.77556e-17,0,2048,2048
268.454,-2.77556e-17,0,2048,2048
268.501,-2.77556e-17,0,2048,2048
268.554,-2.77556e-17,0,2048,2048
268.601,-2.77556e-17,0,2048,2048
268.654,-2.77556e-17,0,2048,2048
268.7,-2.77556e-17,0,2048,2048
268.753,-2.77556e-17,0,2048,2048
268.806,-2.77556e-17,0,2048,2048
268.853,-2.77556e-17,0,2048,2048
268.905,-2.77556e-17,0,2048,2048
268.952,2.77556e-17,0,2048,2048
269.005,2.77556e-17,0,2048,2048
269.052,2.77556e-17,0,2048,2048
269.105,2.77556e-17,0,2048,2048
269.151,2.77556e-17,0,2048,2048
269.204,0,0,2048,2048
269.251,2.77556e-17,0,2048,2048
269.304,2.77556e-17,0,2048,2048
269.351,2.77556e-17,0,2048,2048
269.403,5.55112e-17,0,2048,2048
269.45,5.55112e-17,0,2048,2048
269.503,8.32667e-17,0,2048,2048
269.556,8.32667e-17,0,2048,2048
269.603,8.32667e-17,0,2048,2048
269.655,1.11022e-16,0,2048,2048
269.702,1.66533e-16,0,2048,2048
269.755,1.38778e-16,0,2048,2048
269.802,1.38778e-16,0,2048,2048
269.855,1.38778e-16,0,2048,2048
269.901,1.38778e-16,0,2048,2048
269.954,1.38778e-16,0,2048,2048
270.001,1.38778e-16,0,2048,2048
270.054,1.11022e-16,0,2048,2048
270.101,1.11022e-16,0,2048,2048
270.153,1.11022e-16,0,2048,2048
270.2,1.38778e-16,0,2048,2048
270.253,1.38778e-16,0,2048,2048
270.306,1.38778e-16,0,2048,2048
270.352,1.38778e-16,0,2048,2048
270.405,1.38778e-16,0,2048,2048
270.452,1.38778e-16,0,2048,2048
270.505,1.11022e-16,0,2048,2048
270.552,1.11022e-16,0,2048,2048
270.604,1.11022e-16,0,2048,2048
270.651,1.11022e-16,0,2048,2048
270.704,1.11022e-16,0,2048,2048
270.751,1.66533e-16,0,2048,2048
270.804,8.32667e-16,0,2048,2048
270.85,3.85803e-15,0,2048,2048
270.903,-1.88738e-15,0,2048,2048
270.95,-1.73001e-13,0,2048,2048
271.003,-1.63655e-12,0,2048,2048
271.056,-8.38385e-12,0,2048,2048
271.102,-2.55269e-11,0,2048,2048
271.155,-6.5722e-11,0,2048,2048
271.202,-1.19932e-10,0,2048,2048
271.255,-1.84022e-10,0,2048,2048
271.302,-2.16337e-10,0,2048,2048
271.354,-1.97605e-10,0,2048,2048
271.401,-1.30997e-10,0,2048,2048
271.454,-3.03587e-11,0,2048,2048
271.501,4.3943e-11,0,2048,2048
271.553,8.12136e-11,0,2048,2048
271.6,7.63056e-11,0,2048,2048
271.653,5.7746e-11,0,2048,2048
271.706,5.7023e-11,0,2048,2048
271.753,7.74426e-11,0,2048,2048
271.805,1.05806e-10,0,2048,2048
271.852,1.15929e-10,0,2048,2048
271.905,1.03884e-10,0,2048,2048
271.952,8.51774e-11,0,2048,2048
272.005,7.68858e-11,0,2048,2048
272.051,8.88009e-11,0,2048,2048
272.104,1.13547e-10,0,2048,2048
272.151,1.28286e-10,0,2048,2048
272.204,1.2372e-10,0,2048,2048
272.251,1.04765e-10,0,2048,2048
272.303,8.52758e-11,0,2048,2048
272.35,8.54662e-11,0,2048,2048
272.403,1.08616e-10,0,2048,2048
272.456,1.37176e-10,0,2048,2048
272.503,1.43235e-10,0,2048,2048
272.555,1.1661e-10,0,2048,2048
272.602,8.09275e-11,0,2048,2048
272.655,6.96531e-11,0,2048,2048
272.702,1.05797e-10,0,2048,2048
272.754,1.66781e-10,0,2048,2048
272.801,1.79452e-10,0,2048,2048
272.854,1.30931e-10,0,2048,2048
272.901,1.58447e-10,0,2048,2048
272.954,6.14046e-10,0,2048,2048
273.001,1.76874e-09,0,2048,2048
273.053,4.22694e-09,0,2048,2048
273.1,7.45569e-09,0,2048,2048
273.153,1.1938e-08,0,2048,2048
273.206,1.67555e-08,0,2048,2048
273.252,2.0877e-08,0,2048,2048
273.305,2.51096e-08,0,2048,2048
273.352,2.86529e-08,0,2048,2048
273.405,3.29022e-08,0,2048,2048
273.452,3.74943e-08,0,2048,2048
273.504,4.42117e-08,0,2048,2048
273.551,5.19562e-08,0,2048,2048
273.604,6.29844e-08,0,2048,2048
273.651,7.51261e-08,0,2048,2048
273.704,9.19085e-08,0,2048,2048
273.75,1.10196e-07,0,2048,2048
273.803,1.35343e-07,0,2048,2048
273.856,1.65999e-07,0,2048,2048
273.903,1.98086e-07,0,2048,2048
273.955,2.39341e-07,0,2048,2048
274.002,2.79996e-07,0,2048,2048
274.055,3.29382e-07,0,2048,2048
274.102,3.75956e-07,0,2048,2048
274.155,4.30954e-07,0,2048,2048
274.202,4.81832e-07,0,2048,2048
274.254,5.40555e-07,0,2048,2048
274.301,5.92852e-07,0,2048,2048
274.354,6.49708e-07,0,2048,2048
274.401,6.96442e-07,0,2048,2048
274.453,7.42562e-07,0,2048,2048
274.5,7.76548e-07,0,2048,2048
274.553,8.06338e-07,0,2048,2048
274.606,8.27566e-07,0,2048,2048
274.653,8.40093e-07,0,2048,2048
274.705,8.48196e-07,0,2048,2048
274.752,8.50883e-07,0,2048,2048
274.805,8.4934e-07,0,2048,2048
274.852,8.43925e-07,0,2048,2048
274.905,8.3288e-07,0,2048,2048
274.951,8.18099e-07,0,2048,2048
275.004,7.95206e-07,0,2048,2048
275.051,7.68906e-07,0,2048,2048
275.104,7.32667e-07,0,2048,2048
275.151,6.95133e-07,0,2048,2048
275.203,6.4826e-07,0,2048,2048
275.25,6.03996e-07,0,2048,2048
275.303,5.53188e-07,0,2048,2048
275.356,5.03112e-07,0,2048,2048
275.403,4.60336e-07,0,2048,2048
275.455,4.14889e-07,0,2048,2048
275.502,3.77083e-07,0,2048,2048
275.555,3.37381e-07,0,2048,2048
275.602,3.04408e-07,0,2048,2048
275.654,2.69751e-07,0,2048,2048
275.701,2.41155e-07,0,2048,2048
275.754,2.11778e-07,0,2048,2048
275.801,1.88508e-07,0,2048,2048
275.854,1.65779e-07,0,2048,2048
275.9,1.48497e-07,0,2048,2048
275.953,1.31721e-07,0,2048,2048
276,1.18465e-07,0,2048,2048
276.053,1.04744e-07,0,2048,2048
276.106,9.204e-08,0,2048,2048
276.152,8.17584e-08,0,2048,2048
276.205,7.1676e-08,0,2048,2048
276.252,6.42064e-08,0,2048,2048
276.305,5.73511e-08,0,2048,2048
276.352,5.22467e-08,0,2048,2048
276.404,4.70351e-08,0,2048,2048
276.451,4.24908e-08,0,2048,2048
276.504,3.73627e-08,0,2048,2048
276.551,3.29949e-08,0,2048,2048
276.604,2.87187e-08,0,2048,2048
276.65,2.57947e-08,0,2048,2048
276.703,2.3616e-08,0,2048,2048
276.756,2.24626e-08,0,2048,2048
276.803,2.20391e-08,0,2048,2048
276.855,2.19393e-08,0,2048,2048
276.902,2.1997e-08,0,2048,2048
276.955,2.20994e-08,0,2048,2048
277.002,2.21669e-08,0,2048,2048
277.055,2.21766e-08,0,2048,2048
277.101,2.21052e-08,0,2048,2048
277.154,2.19332e-08,0,2048,2048
277.201,2.17227e-08,0,2048,2048
277.254,2.14665e-08,0,2048,2048
277.301,2.12562e-08,0,2048,2048
277.353,2.10583e-08,0,2048,2048
277.4,2.09139e-08,0,2048,2048
277.453,2.07707e-08,0,2048,2048
277.506,2.06281e-08,0,2048,2048
277.553,2.0489e-08,0,2048,2048
277.605,2.03089e-08,0,2048,2048
277.652,2.01231e-08,0,2048,2048
277.705,1.98818e-08,0,2048,2048
277.752,1.96372e-08,0,2048,2048
277.804,1.93276e-08,0,2048,2048
277.851,1.90218e-08,0,2048,2048
277.904,1.86448e-08,0,2048,2048
277.951,1.8282e-08,0,2048,2048
278.004,1.78454e-08,0,2048,2048
278.051,1.7435e-08,0,2048,2048
278.103,1.6952e-08,0,2048,2048
278.15,1.65073e-08,0,2048,2048
278.203,1.59938e-08,0,2048,2048
278.256,1.54707e-08,0,2048,2048
278.302,1.5001e-08,0,2048,2048
278.355,1.44711e-08,0,2048,2048
278.402,1.4002e-08,0,2048,2048
278.455,1.348e-08,0,2048,2048
278.502,1.30243e-08,0,2048,2048
278.554,1.25247e-08,0,2048,2048
278.601,1.20953e-08,0,2048,2048
278.654,1.16321e-08,0,2048,2048
278.701,1.12407e-08,0,2048,2048
278.754,1.08258e-08,0,2048,2048
278.8,1.04813e-08,0,2048,2048
278.853,1.01223e-08,0,2048,2048
278.9,9.82899e-09,0,2048,2048
278.953,9.52798e-09,0,2048,2048
279.005,9.257e-09,0,2048,2048
279.052,9.04042e-09,0,2048,2048
279.105,8.82276e-09,0,2048,2048
279.152,8.65108e-09,0,2048,2048
279.205,8.48082e-09,0,2048,2048
279.252,8.34831e-09,0,2048,2048
279.304,8.21863e-09,0,2048,2048
279.351,8.11905e-09,0,2048,2048
279.404,8.02289e-09,0,2048,2048
279.451,7.95008e-09,0,2048,2048
279.503,7.88084e-09,0,2048,2048
279.55,7.82934e-09,0,2048,2048
279.603,7.78145e-09,0,2048,2048
279.656,7.74298e-09,0,2048,2048
279.703,7.71578e-09,0,2048,2048
279.755,7.69212e-09,0,2048,2048
279.802,7.67655e-09,0,2048,2048
279.855,7.66441e-09,0,2048,2048
279.902,7.65785e-09,0,2048,2048
279.955,7.65469e-09,0,2048,2048
280.001,7.65524e-09,0,2048,2048
280.054,7.65921e-09,0,2048,2048
280.101,7.66539e-09,0,2048,2048
280.154,7.67493e-09,0,2048,2048
280.201,7.68534e-09,0,2048,2048
280.253,7.69884e-09,0,2048,2048
280.3,7.71205e-09,0,2048,2048
280.353,7.72792e-09,0,2048,2048
280.406,7.74453e-09,0,2048,2048
280.453,7.75969e-09,0,2048,2048
280.505,7.777e-09,0,2048,2048
280.552,7.79251e-09,0,2048,2048
280.605,7.81003e-09,0,2048,2048
280.652,7.82562e-09,0,2048,2048
280.704,7.84315e-09,0,2048,2048
280.751,7.85869e-09,0,2048,2048
280.804,7.87611e-09,0,2048,2048
280.851,7.89151e-09,0,2048,2048
280.904,7.90871e-09,0,2048,2048
280.951,7.92384e-09,0,2048,2048
281.003,7.94065e-09,0,2048,2048
281.05,7.95536e-09,0,2048,2048
281.103,7.97162e-09,0,2048,2048
281.156,7.98754e-09,0,2048,2048
281.202,8.00137e-09,0,2048,2048
281.255,8.01656e-09,0,2048,2048
281.302,8.02974e-09,0,2048,2048
281.355,8.04424e-09,0,2048,2048
281.402,8.05691e-09,0,2048,2048
281.454,8.07111e-09,0,2048,2048
281.501,8.0839e-09,0,2048,2048
281.554,8.09894e-09,0,2048,2048
281.601,8.11342e-09,0,2048,2048
281.654,8.13185e-09,0,2048,2048
281.7,8.15112e-09,0,2048,2048
281.753,8.17751e-09,0,2048,2048
281.8,8.20666e-09,0,2048,2048
281.853,8.24791e-09,0,2048,2048
281.905,8.30063e-09,0,2048,2048
281.952,8.35945e-09,0,2048,2048
282.005,8.44198e-09,0,2048,2048
282.052,8.5326e-09,0,2048,2048
282.105,8.65747e-09,0,2048,2048
282.152,8.79222e-09,0,2048,2048
282.204,8.97505e-09,0,2048,2048
282.251,9.16978e-09,0,2048,2048
282.304,9.43123e-09,0,2048,2048
282.351,9.70743e-09,0,2048,2048
282.403,1.00758e-08,0,2048,2048
282.45,1.04628e-08,0,2048,2048
282.503,1.09761e-08,0,2048,2048
282.556,1.1585e-08,0,2048,2048
282.603,1.22181e-08,0,2048,2048
282.655,1.30479e-08,0,2048,2048
282.702,1.39023e-08,0,2048,2048
282.755,1.50093e-08,0,2048,2048
282.802,1.61347e-08,0,2048,2048
282.855,1.75726e-08,0,2048,2048
282.901,1.90132e-08,0,2048,2048
282.954,2.08258e-08,0,2048,2048
283.001,2.26135e-08,0,2048,2048
283.054,2.48276e-08,0,2048,2048
283.101,2.69776e-08,0,2048,2048
283.153,2.96004e-08,0,2048,2048
283.2,3.2111e-08,0,2048,2048
283.253,3.51335e-08,0,2048,2048
283.306,3.83617e-08,0,2048,2048
283.353,4.14009e-08,0,2048,2048
283.405,4.50097e-08,0,2048,2048
283.452,4.83872e-08,0,2048,2048
283.505,5.23818e-08,0,2048,2048
283.552,5.61125e-08,0,2048,2048
283.604,6.05223e-08,0,2048,2048
283.651,6.46426e-08,0,2048,2048
283.704,6.9519e-08,0,2048,2048
283.751,7.40829e-08,0,2048,2048
283.804,7.94953e-08,0,2048,2048
283.85,8.45738e-08,0,2048,2048
283.903,9.06182e-08,0,2048,2048
283.95,9.63185e-08,0,2048,2048
284.003,1.03153e-07,0,2048,2048
284.056,1.10507e-07,0,2048,2048
284.102,1.17564e-07,0,2048,2048
284.155,1.26204e-07,0,2048,2048
284.202,1.34633e-07,0,2048,2048
284.255,1.45126e-07,0,2048,2048
284.302,1.55517e-07,0,2048,2048
284.354,1.68614e-07,0,2048,2048
284.401,1.81691e-07,0,2048,2048
284.454,1.98234e-07,0,2048,2048
284.501,2.14734e-07,0,2048,2048
284.554,2.35484e-07,0,2048,2048
284.6,2.55977e-07,0,2048,2048
284.653,2.81394e-07,0,2048,2048
284.706,3.09297e-07,0,2048,2048
284.753,3.36097e-07,0,2048,2048
284.805,3.68294e-07,0,2048,2048
284.852,3.98483e-07,0,2048,2048
284.905,4.33818e-07,0,2048,2048
284.952,4.66038e-07,0,2048,2048
285.005,5.02636e-07,0,2048,2048
285.051,5.34948e-07,0,2048,2048
285.104,5.70386e-07,0,2048,2048
285.151,6.00493e-07,0,2048,2048
285.204,6.32118e-07,0,2048,2048
285.251,6.5768e-07,0,2048,2048
285.303,6.82977e-07,0,2048,2048
285.35,7.01939e-07,0,2048,2048
285.403,7.18869e-07,0,2048,2048
285.456,7.30773e-07,0,2048,2048
285.503,7.36916e-07,0,2048,2048
285.555,7.38686e-07,0,2048,2048
285.602,7.35642e-07,0,2048,2048
285.655,7.2706e-07,0,2048,2048
285.702,7.14948e-07,0,2048,2048
285.755,6.96478e-07,0,2048,2048
285.801,6.75991e-07,0,2048,2048
285.854,6.48717e-07,0,2048,2048
285.901,6.21075e-07,0,2048,2048
285.954,5.86633e-07,0,2048,2048
286.001,5.53503e-07,0,2048,2048
286.053,5.13977e-07,0,2048,2048
286.1,4.77352e-07,0,2048,2048
286.153,4.35085e-07,0,2048,2048
286.206,3.92331e-07,0,2048,2048
286.252,3.54436e-07,0,2048,2048
286.305,3.12462e-07,0,2048,2048
286.352,2.76153e-07,0,2048,2048
286.405,2.36851e-07,0,2048,2048
286.452,2.0359e-07,0,2048,2048
286.504,1.68335e-07,0,2048,2048
286.551,1.39094e-07,0,2048,2048
286.604,1.08695e-07,0,2048,2048
286.651,8.39552e-08,0,2048,2048
286.704,5.87064e-08,0,2048,2048
286.75,3.8532e-08,0,2048,2048
286.803,1.83163e-08,0,2048,2048
286.85,2.46308e-09,0,2048,2048
286.903,-1.31178e-08,0,2048,2048
286.955,-2.64637e-08,0,2048,2048
287.002,-3.6586e-08,0,2048,2048
287.055,-4.61713e-08,0,2048,2048
287.102,-5.32218e-08,0,2048,2048
287.155,-5.96507e-08,0,2048,2048
287.202,-6.41516e-08,0,2048,2048
287.254,-6.79845e-08,0,2048,2048
287.301,-7.0405e-08,0,2048,2048
287.354,-7.21349e-08,0,2048,2048
287.401,-7.28824e-08,0,2048,2048
287.453,-7.2936e-08,0,2048,2048
287.5,-7.23659e-08,0,2048,2048
287.553,-7.11214e-08,0,2048,2048
287.606,-6.93315e-08,0,2048,2048
287.653,-6.73585e-08,0,2048,2048
287.705,-6.47915e-08,0,2048,2048
287.752,-6.22682e-08,0,2048,2048
287.805,-5.92321e-08,0,2048,2048
287.852,-5.64169e-08,0,2048,2048
287.905,-5.3181e-08,0,2048,2048
287.951,-5.02908e-08,0,2048,2048
288.004,-4.7071e-08,0,2048,2048
288.051,-4.42707e-08,0,2048,2048
288.104,-4.12212e-08,0,2048,2048
288.151,-3.86208e-08,0,2048,2048
288.203,-3.58369e-08,0,2048,2048
288.25,-3.34982e-08,0,2048,2048
288.303,-3.10269e-08,0,2048,2048
288.356,-2.8728e-08,0,2048,2048
288.403,-2.68292e-08,0,2048,2048
288.455,-2.48531e-08,0,2048,2048
288.502,-2.32353e-08,0,2048,2048
288.555,-2.15658e-08,0,2048,2048
288.602,-2.02101e-08,0,2048,2048
288.654,-1.88222e-08,0,2048,2048
288.701,-1.7704e-08,0,2048,2048
288.754,-1.65685e-08,0,2048,2048
288.801,-1.56613e-08,0,2048,2048
288.854,-1.4748e-08,0,2048,2048
288.901,-1.4025e-08,0,2048,2048
288.953,-1.33045e-08,0,2048,2048
289,-1.27406e-08,0,2048,2048
289.053,-1.21855e-08,0,2048,2048
289.106,-1.17078e-08,0,2048,2048
289.152,-1.13427e-08,0,2048,2048
289.205,-1.09932e-08,0,2048,2048
289.252,-1.07324e-08,0,2048,2048
289.305,-1.04897e-08,0,2048,2048
289.352,-1.03149e-08,0,2048,2048
289.404,-1.01594e-08,0,2048,2048
289.451,-1.00539e-08,0,2048,2048
289.504,-9.96743e-09,0,2048,2048
289.551,-9.91573e-09,0,2048,2048
289.604,-9.88181e-09,0,2048,2048
289.65,-9.86994e-09,0,2048,2048
289.703,-9.87363e-09,0,2048,2048
289.756,-9.89188e-09,0,2048,2048
289.803,-9.91768e-09,0,2048,2048
289.855,-9.95481e-09,0,2048,2048
289.902,-9.99301e-09,0,2048,2048
289.955,-1.00398e-08,0,2048,2048
290.002,-1.00833e-08,0,2048,2048
290.055,-1.01329e-08,0,2048,2048
290.102,-1.01767e-08,0,2048,2048
290.154,-1.02247e-08,0,2048,2048
290.201,-1.02657e-08,0,2048,2048
290.254,-1.03092e-08,0,2048,2048
290.301,-1.03454e-08,0,2048,2048
290.353,-1.0383e-08,0,2048,2048
290.4,-1.04134e-08,0,2048,2048
290.453,-1.04441e-08,0,2048,2048
290.506,-1.04709e-08,0,2048,2048
290.553,-1.04916e-08,0,2048,2048
290.605,-1.05111e-08,0,2048,2048
290.652,-1.05252e-08,0,2048,2048
290.705,-1.05377e-08,0,2048,2048
290.752,-1.05461e-08,0,2048,2048
290.805,-1.05529e-08,0,2048,2048
290.851,-1.05573e-08,0,2048,2048
290.904,-1.05612e-08,0,2048,2048
290.951,-1.05647e-08,0,2048,2048
291.004,-1.05702e-08,0,2048,2048
291.051,-1.05776e-08,0,2048,2048
291.103,-1.05906e-08,0,2048,2048
291.15,-1.0608e-08,0,2048,2048
291.203,-1.0636e-08,0,2048,2048
291.256,-1.0675e-08,0,2048,2048
291.302,-1.07207e-08,0,2048,2048
291.355,-1.07863e-08,0,2048,2048
291.402,-1.08586e-08,0,2048,2048
291.455,-1.09571e-08,0,2048,2048
291.502,-1.10608e-08,0,2048,2048
291.554,-1.11965e-08,0,2048,2048
291.601,-1.13344e-08,0,2048,2048
291.654,-1.15093e-08,0,2048,2048
291.701,-1.16822e-08,0,2048,2048
291.754,-1.18961e-08,0,2048,2048
291.8,-1.2103e-08,0,2048,2048
291.853,-1.23539e-08,0,2048,2048
291.9,-1.25924e-08,0,2048,2048
291.953,-1.28774e-08,0,2048,2048
292.006,-1.31789e-08,0,2048,2048
292.052,-1.346e-08,0,2048,2048
292.105,-1.37898e-08,0,2048,2048
292.152,-1.40941e-08,0,2048,2048
292.205,-1.44477e-08,0,2048,2048
292.252,-1.47709e-08,0,2048,2048
292.304,-1.51433e-08,0,2048,2048
292.351,-1.54807e-08,0,2048,2048
292.404,-1.58659e-08,0,2048,2048
292.451,-1.62121e-08,0,2048,2048
292.503,-1.66041e-08,0,2048,2048
292.55,-1.69534e-08,0,2048,2048
292.603,-1.73457e-08,0,2048,2048
292.656,-1.77356e-08,0,2048,2048
292.703,-1.80786e-08,0,2048,2048
292.755,-1.84591e-08,0,2048,2048
292.802,-1.8791e-08,0,2048,2048
292.855,-1.91559e-08,0,2048,2048
292.902,-1.94713e-08,0,2048,2048
292.955,-1.98145e-08,0,2048,2048
293.001,-2.01079e-08,0,2048,2048
293.054,-2.04235e-08,0,2048,2048
293.101,-2.06897e-08,0,2048,2048
293.154,-2.09719e-08,0,2048,2048
293.201,-2.12062e-08,0,2048,2048
293.253,-2.14498e-08,0,2048,2048
293.3,-2.16478e-08,0,2048,2048
293.353,-2.18486e-08,0,2048,2048
293.406,-2.20256e-08,0,2048,2048
293.453,-2.21623e-08,0,2048,2048
293.505,-2.22927e-08,0,2048,2048
293.552,-2.23878e-08,0,2048,2048
293.605,-2.24714e-08,0,2048,2048
293.652,-2.25253e-08,0,2048,2048
293.704,-2.25638e-08,0,2048,2048
293.751,-2.25788e-08,0,2048,2048
293.804,-2.25754e-08,0,2048,2048
293.851,-2.25552e-08,0,2048,2048
293.904,-2.25146e-08,0,2048,2048
293.951,-2.24638e-08,0,2048,2048
294.003,-2.23917e-08,0,2048,2048
294.05,-2.23156e-08,0,2048,2048
294.103,-2.22182e-08,0,2048,2048
294.156,-2.21098e-08,0,2048,2048
294.202,-2.20056e-08,0,2048,2048
294.255,-2.18811e-08,0,2048,2048
294.302,-2.1765e-08,0,2048,2048
294.355,-2.16296e-08,0,2048,2048
294.402,-2.15061e-08,0,2048,2048
294.454,-2.13647e-08,0,2048,2048
294.501,-2.12375e-08,0,2048,2048
294.554,-2.10939e-08,0,2048,2048
294.601,-2.09662e-08,0,2048,2048
294.654,-2.08235e-08,0,2048,2048
294.7,-2.06979e-08,0,2048,2048
294.753,-2.05587e-08,0,2048,2048
294.8,-2.04371e-08,0,2048,2048
294.853,-2.03031e-08,0,2048,2048
294.905,-2.01725e-08,0,2048,2048
294.952,-2.00595e-08,0,2048,2048
295.005,-1.99359e-08,0,2048,2048
295.052,-1.98295e-08,0,2048,2048
295.105,-1.97135e-08,0,2048,2048
295.152,-1.96139e-08,0,2048,2048
295.204,-1.95056e-08,0,2048,2048
295.251,-1.94127e-08,0,2048,2048
295.304,-1.93119e-08,0,2048,2048
295.351,-1.92254e-08,0,2048,2048
295.403,-1.91315e-08,0,2048,2048
295.45,-1.90508e-08,0,2048,2048
295.503,-1.8963e-08,0,2048,2048
295.556,-1.88782e-08,0,2048,2048
295.603,-1.8805e-08,0,2048,2048
295.655,-1.8725e-08,0,2048,2048
295.702,-1.86557e-08,0,2048,2048
295.755,-1.85795e-08,0,2048,2048
295.802,-1.85133e-08,0,2048,2048
295.855,-1.84401e-08,0,2048,2048
295.901,-1.83761e-08,0,2048,2048
295.954,-1.8305e-08,0,2048,2048
296.001,-1.82424e-08,0,2048,2048
296.054,-1.81725e-08,0,2048,2048
296.101,-1.81107e-08,0,2048,2048
296.153,-1.80413e-08,0,2048,2048
296.2,-1.79796e-08,0,2048,2048
296.253,-1.79098e-08,0,2048,2048
296.306,-1.78397e-08,0,2048,2048
296.353,-1.77768e-08,0,2048,2048
296.405,-1.77052e-08,0,2048,2048
296.452,-1.76408e-08,0,2048,2048
296.505,-1.75671e-08,0,2048,2048
296.552,-1.75004e-08,0,2048,2048
296.604,-1.74239e-08,0,2048,2048
296.651,-1.73543e-08,0,2048,2048
296.704,-1.72741e-08,0,2048,2048
296.751,-1.72009e-08,0,2048,2048
296.804,-1.71161e-08,0,2048,2048
296.851,-1.70385e-08,0,2048,2048
296.903,-1.69485e-08,0,2048,2048
296.95,-1.68657e-08,0,2048,2048
297.003,-1.67694e-08,0,2048,2048
297.056,-1.66695e-08,0,2048,2048
297.102,-1.65774e-08,0,2048,2048
297.155,-1.64699e-08,0,2048,2048
297.202,-1.63707e-08,0,2048,2048
297.255,-1.62548e-08,0,2048,2048
297.302,-1.61478e-08,0,2048,2048
297.354,-1.60228e-08,0,2048,2048
297.401,-1.59074e-08,0,2048,2048
297.454,-1.57725e-08,0,2048,2048
297.501,-1.5648e-08,0,2048,2048
297.554,-1.55026e-08,0,2048,2048
297.6,-1.53685e-08,0,2048,2048
297.653,-1.5212e-08,0,2048,2048
297.706,-1.50492e-08,0,2048,2048
297.753,-1.48992e-08,0,2048,2048
297.805,-1.47243e-08,0,2048,2048
297.852,-1.45631e-08,0,2048,2048
297.905,-1.4375e-08,0,2048,2048
297.952,-1.42017e-08,0,2048,2048
298.005,-1.39994e-08,0,2048,2048
298.052,-1.38128e-08,0,2048,2048
298.104,-1.35948e-08,0,2048,2048
298.151,-1.33935e-08,0,2048,2048
298.204,-1.31579e-08,0,2048,2048
298.251,-1.29399e-08,0,2048,2048
298.303,-1.26843e-08,0,2048,2048
298.35,-1.24473e-08,0,2048,2048
298.403,-1.21688e-08,0,2048,2048
298.456,-1.18769e-08,0,2048,2048
298.503,-1.16056e-08,0,2048,2048
298.555,-1.12859e-08,0,2048,2048
298.602,-1.09885e-08,0,2048,2048
298.655,-1.0638e-08,0,2048,2048
298.702,-1.03119e-08,0,2048,2048
298.755,-9.92812e-09,0,2048,2048
298.801,-9.57155e-09,0,2048,2048
298.854,-9.15288e-09,0,2048,2048
298.901,-8.76514e-09,0,2048,2048
298.954,-8.31163e-09,0,2048,2048
299.001,-7.89356e-09,0,2048,2048
299.053,-7.40717e-09,0,2048,2048
299.1,-6.96144e-09,0,2048,2048
299.153,-6.44625e-09,0,2048,2048
299.206,-5.91822e-09,0,2048,2048
299.253,-5.43976e-09,0,2048,2048
299.305,-4.89338e-09,0,2048,2048
299.352,-4.40251e-09,0,2048,2048
299.405,-3.84697e-09,0,2048,2048
299.452,-3.35253e-09,0,2048,2048
299.504,-2.79838e-09,0,2048,2048
299.551,-2.31012e-09,0,2048,2048
299.604,-1.76859e-09,0,2048,2048
299.651,-1.29658e-09,0,2048,2048
299.704,-7.78896e-10,0,2048,2048
299.75,-3.32881e-10,0,2048,2048
299.803,1.50438e-10,0,2048,2048
299.85,5.61656e-10,0,2048,2048
299.903,1.00147e-09,0,2048,2048
299.956,1.41517e-09,0,2048,2048
300.002,1.7596e-09,0,2048,2048
300.055,2.1196e-09,0,2048,2048
300.102,2.41437e-09,0,2048,2048
300.155,2.71696e-09,0,2048,2048
300.202,2.95986e-09,0,2048,2048
300.254,3.20379e-09,0,2048,2048
300.301,3.39478e-09,0,2048,2048
300.354,3.58115e-09,0,2048,2048
300.401,3.72217e-09,0,2048,2048
300.453,3.85416e-09,0,2048,2048
300.5,3.94886e-09,0,2048,2048
300.553,4.03136e-09,0,2048,2048
300.606,4.09008e-09,0,2048,2048
300.653,4.12382e-09,0,2048,2048
300.705,4.14278e-09,0,2048,2048
300.752,4.14432e-09,0,2048,2048
300.805,4.13068e-09,0,2048,2048
300.852,4.10648e-09,0,2048,2048
300.905,4.06753e-09,0,2048,2048
300.951,4.02404e-09,0,2048,2048
301.004,3.9669e-09,0,2048,2048
301.051,3.91027e-09,0,2048,2048
301.104,3.84161e-09,0,2048,2048
301.151,3.77748e-09,0,2048,2048
301.203,3.7033e-09,0,2048,2048
301.25,3.63668e-09,0,2048,2048
301.303,3.56216e-09,0,2048,2048
301.356,3.48922e-09,0,2048,2048
301.403,3.42652e-09,0,2048,2048
301.455,3.35917e-09,0,2048,2048
301.502,3.30263e-09,0,2048,2048
301.555,3.24321e-09,0,2048,2048
301.602,3.19433e-09,0,2048,2048
301.654,3.14385e-09,0,2048,2048
301.701,3.10292e-09,0,2048,2048
301.754,3.06105e-09,0,2048,2048
301.801,3.02717e-09,0,2048,2048
301.854,2.99226e-09,0,2048,2048
301.901,2.9635e-09,0,2048,2048
301.953,2.93291e-09,0,2048,2048
302,2.90658e-09,0,2048,2048
302.053,2.87702e-09,0,2048,2048
302.106,2.84661e-09,0,2048,2048
302.152,2.81811e-09,0,2048,2048
302.205,2.78359e-09,0,2048,2048
302.252,2.75016e-09,0,2048,2048
302.305,2.70889e-09,0,2048,2048
302.352,2.66861e-09,0,2048,2048
302.404,2.61899e-09,0,2048,2048
302.451,2.571e-09,0,2048,2048
302.504,2.51276e-09,0,2048,2048
302.551,2.45744e-09,0,2048,2048
302.604,2.39168e-09,0,2048,2048
302.65,2.3306e-09,0,2048,2048
302.703,2.25966e-09,0,2048,2048
302.75,2.19535e-09,0,2048,2048
302.803,2.12252e-09,0,2048,2048
302.855,2.05023e-09,0,2048,2048
302.902,1.98733e-09,0,2048,2048
302.955,1.91909e-09,0,2048,2048
303.002,1.86153e-09,0,2048,2048
303.055,1.80117e-09,0,2048,2048
303.102,1.75214e-09,0,2048,2048
303.154,1.70294e-09,0,2048,2048
303.201,1.66503e-09,0,2048,2048
303.254,1.62943e-09,0,2048,2048
303.301,1.60433e-09,0,2048,2048
303.353,1.58367e-09,0,2048,2048
303.4,1.57207e-09,0,2048,2048
303.453,1.56654e-09,0,2048,2048
303.506,1.56869e-09,0,2048,2048
303.553,1.57672e-09,0,2048,2048
303.605,1.59216e-09,0,2048,2048
303.652,1.61105e-09,0,2048,2048
303.705,1.63746e-09,0,2048,2048
303.752,1.6649e-09,0,2048,2048
303.805,1.69946e-09,0,2048,2048
303.851,1.7328e-09,0,2048,2048
303.904,1.77249e-09,0,2048,2048
303.951,1.80906e-09,0,2048,2048
304.004,1.85095e-09,0,2048,2048
304.051,1.88829e-09,0,2048,2048
304.103,1.9298e-09,0,2048,2048
304.15,1.96582e-09,0,2048,2048
304.203,2.00487e-09,0,2048,2048
304.256,2.04197e-09,0,2048,2048
304.303,2.07301e-09,0,2048,2048
304.355,2.10552e-09,0,2048,2048
304.402,2.13212e-09,0,2048,2048
304.455,2.15931e-09,0,2048,2048
304.502,2.181e-09,0,2048,2048
304.554,2.20257e-09,0,2048,2048
304.601,2.21923e-09,0,2048,2048
304.654,2.23519e-09,0,2048,2048
304.701,2.24694e-09,0,2048,2048
304.754,2.25752e-09,0,2048,2048
304.801,2.26465e-09,0,2048,2048
304.853,2.27023e-09,0,2048,2048
304.9,2.27313e-09,0,2048,2048
304.953,2.27419e-09,0,2048,2048
