250,0,0,2048,2048
250.006,0,0,2048,2048
250.053,0,0,2048,2048
250.105,0,0,2048,2048
250.152,0,0,2048,2048
250.205,0,0,2048,2048
250.252,0,0,2048,2048
250.305,0,0,2048,2048
250.352,0,0,2048,2048
250.404,0,0,2048,2048
250.451,0,0,2048,2048
250.504,0,0,2048,2048
250.551,0,0,2048,2048
250.603,0,0,2048,2048
250.65,0,0,2048,2048
250.703,0,0,2048,2048
250.756,0,0,2048,2048
250.803,0,0,2048,2048
250.855,0,0,2048,2048
250.902,0,0,2048,2048
250.955,0,0,2048,2048
251.002,0,0,2048,2048
251.055,0,0,2048,2048
251.101,0,0,2048,2048
251.154,0,0,2048,2048
251.201,0,0,2048,2048
251.254,0,0,2048,2048
251.301,0,0,2048,2048
251.353,0,0,2048,2048
251.4,0,0,2048,2048
251.453,0,0,2048,2048
251.506,0,0,2048,2048
251.553,0,0,2048,2048
251.605,0,0,2048,2048
251.652,0,0,2048,2048
251.705,0,0,2048,2048
251.752,0,0,2048,2048
251.804,0,0,2048,2048
251.851,0,0,2048,2048
251.904,0,0,2048,2048
251.951,0,0,2048,2048
252.004,0,0,2048,2048
252.05,0,0,2048,2048
252.103,0,0,2048,2048
252.15,0,0,2048,2048
252.203,0,0,2048,2048
252.256,0,0,2048,2048
252.302,0,0,2048,2048
252.355,0,0,2048,2048
252.402,0,0,2048,2048
252.455,0,0,2048,2048
252.502,0,0,2048,2048
252.554,0,0,2048,2048
252.601,0,0,2048,2048
252.654,0,0,2048,2048
252.701,0,0,2048,2048
252.754,0,0,2048,2048
252.8,0,0,2048,2048
252.853,0,0,2048,2048
252.906,0,0,2048,2048
252.953,0,0,2048,2048
253.005,0,0,2048,2048
253.052,0,0,2048,2048
253.105,0,0,2048,2048
253.152,0,0,2048,2048
253.205,0,0,2048,2048
253.251,0,0,2048,2048
253.304,0,0,2048,2048
253.351,0,0,2048,2048
253.404,0,0,2048,2048
253.451,0,0,2048,2048
253.503,0,0,2048,2048
253.55,0,0,2048,2048
253.603,0,0,2048,2048
253.656,0,0,2048,2048
253.703,0,0,2048,2048
253.755,0,0,2048,2048
253.802,0,0,2048,2048
253.855,0,0,2048,2048
253.902,0,0,2048,2048
253.954,0,0,2048,2048
254.001,0,0,2048,2048
254.054,0,0,2048,2048
254.101,0,0,2048,2048
254.154,0,0,2048,2048
254.201,0,0,2048,2048
254.253,0,0,2048,2048
254.3,0,0,2048,2048
254.353,0,0,2048,2048
254.406,0,0,2048,2048
254.452,0,0,2048,2048
254.505,0,0,2048,2048
254.552,0,0,2048,2048
254.605,0,0,2048,2048
254.652,0,0,2048,2048
254.704,0,0,2048,2048
254.751,0,0,2048,2048
254.804,0,0,2048,2048
254.851,0,0,2048,2048
254.904,0,0,2048,2048
254.95,0,0,2048,2048
255.003,0,0,2048,2048
255.05,0,0,2048,2048
255.103,0,0,2048,2048
255.155,0,0,2048,2048
255.202,0,0,2048,2048
255.255,0,0,2048,2048
255.302,0,0,2048,2048
255.355,0,0,2048,2048
255.402,0,0,2048,2048
255.454,0,0,2048,2048
255.501,0,0,2048,2048
255.554,0,0,2048,2048
255.601,0,0,2048,2048
255.653,0,0,2048,2048
255.7,0,0,2048,2048
255.753,0,0,2048,2048
255.806,0,0,2048,2048
255.853,0,0,2048,2048
255.905,0,0,2048,2048
255.952,0,0,2048,2048
256.005,0,0,2048,2048
256.052,0,0,2048,2048
256.105,0,0,2048,2048
256.151,0,0,2048,2048
256.204,0,0,2048,2048
256.251,0,0,2048,2048
256.304,0,0,2048,2048
256.351,0,0,2048,2048
256.403,0,0,2048,2048
256.45,0,0,2048,2048
256.503,0,0,2048,2048
256.556,0,0,2048,2048
256.603,0,0,2048,2048
256.655,0,0,2048,2048
256.702,0,0,2048,2048
256.755,0,0,2048,2048
256.802,0,0,2048,2048
256.854,-1.38778e-17,0,2048,2048
256.901,-1.38778e-17,0,2048,2048
256.954,-1.38778e-17,0,2048,2048
257.001,0,0,2048,2048
257.054,0,0,2048,2048
257.101,0,0,2048,2048
257.153,0,0,2048,2048
257.2,0,0,2048,2048
257.253,0,0,2048,2048
257.306,0,0,2048,2048
257.352,0,0,2048,2048
257.405,0,0,2048,2048
257.452,0,0,2048,2048
257.505,0,0,2048,2048
257.552,0,0,2048,2048
257.604,0,0,2048,2048
257.651,0,0,2048,2048
257.704,0,0,2048,2048
257.751,0,0,2048,2048
257.804,0,0,2048,2048
257.85,0,0,2048,2048
257.903,0,0,2048,2048
257.95,0,0,2048,2048
258.003,0,0,2048,2048
258.055,0,0,2048,2048
258.102,0,0,2048,2048
258.155,-1.38778e-17,0,2048,2048
258.202,-1.38778e-17,0,2048,2048
258.255,-1.38778e-17,0,2048,2048
258.302,-1.38778e-17,0,2048,2048
258.354,-1.38778e-17,0,2048,2048
258.401,-1.38778e-17,0,2048,2048
258.454,-1.38778e-17,0,2048,2048
258.501,-1.38778e-17,0,2048,2048
258.553,-1.38778e-17,0,2048,2048
258.6,-1.38778e-17,0,2048,2048
258.653,-1.38778e-17,0,2048,2048
258.706,-1.38778e-17,0,2048,2048
258.753,-1.38778e-17,0,2048,2048
258.805,-1.38778e-17,0,2048,2048
258.852,-1.38778e-17,0,2048,2048
258.905,-1.38778e-17,0,2048,2048
258.952,-1.38778e-17,0,2048,2048
259.005,-1.38778e-17,0,2048,2048
259.051,-2.77556e-17,0,2048,2048
259.104,-2.77556e-17,0,2048,2048
259.151,-2.77556e-17,0,2048,2048
259.204,-2.77556e-17,0,2048,2048
259.251,-2.77556e-17,0,2048,2048
259.303,-2.77556e-17,0,2048,2048
259.35,-2.77556e-17,0,2048,2048
259.403,-2.77556e-17,0,2048,2048
259.456,-2.77556e-17,0,2048,2048
259.503,-2.77556e-17,0,2048,2048
259.555,-2.77556e-17,0,2048,2048
259.602,-2.77556e-17,0,2048,2048
259.655,-2.77556e-17,0,2048,2048
259.702,-1.38778e-17,0,2048,2048
259.754,-1.38778e-17,0,2048,2048
259.801,-1.38778e-17,0,2048,2048
259.854,-1.38778e-17,0,2048,2048
259.901,-1.38778e-17,0,2048,2048
259.954,-1.38778e-17,0,2048,2048
260,-1.38778e-17,0,2048,2048
260.053,-1.38778e-17,0,2048,2048
260.1,-1.38778e-17,0,2048,2048
260.153,-1.38778e-17,0,2048,2048
260.206,-1.38778e-17,0,2048,2048
260.252,-1.38778e-17,0,2048,2048
260.305,-1.38778e-17,0,2048,2048
260.352,-1.38778e-17,0,2048,2048
260.405,-1.38778e-17,0,2048,2048
260.452,-1.38778e-17,0,2048,2048
260.504,-1.38778e-17,0,2048,2048
260.551,-1.38778e-17,0,2048,2048
260.604,-1.38778e-17,0,2048,2048
260.651,-1.38778e-17,0,2048,2048
260.704,-1.38778e-17,0,2048,2048
260.75,-1.38778e-17,0,2048,2048
260.803,-1.38778e-17,0,2048,2048
260.856,-1.38778e-17,0,2048,2048
260.903,-1.38778e-17,0,2048,2048
260.955,-1.38778e-17,0,2048,2048
261.002,-1.38778e-17,0,2048,2048
261.055,-1.38778e-17,0,2048,2048
261.102,-1.38778e-17,0,2048,2048
261.155,-1.38778e-17,0,2048,2048
261.201,-1.38778e-17,0,2048,2048
261.254,-1.38778e-17,0,2048,2048
261.301,-1.38778e-17,0,2048,2048
261.354,-1.38778e-17,0,2048,2048
261.401,-1.38778e-17,0,2048,2048
261.453,0,0,2048,2048
261.5,0,0,2048,2048
261.553,0,0,2048,2048
261.606,0,0,2048,2048
261.653,0,0,2048,2048
261.705,0,0,2048,2048
261.752,0,0,2048,2048
261.805,0,0,2048,2048
261.852,0,0,2048,2048
261.905,0,0,2048,2048
261.951,0,0,2048,2048
262.004,0,0,2048,2048
262.051,0,0,2048,2048
262.104,0,0,2048,2048
262.151,-1.38778e-17,0,2048,2048
262.203,-1.38778e-17,0,2048,2048
262.25,-1.38778e-17,0,2048,2048
262.303,-1.38778e-17,0,2048,2048
262.356,-1.38778e-17,0,2048,2048
262.402,-1.38778e-17,0,2048,2048
262.455,-1.38778e-17,0,2048,2048
262.502,-1.38778e-17,0,2048,2048
262.555,-1.38778e-17,0,2048,2048
262.602,-1.38778e-17,0,2048,2048
262.654,-1.38778e-17,0,2048,2048
262.701,-1.38778e-17,0,2048,2048
262.754,-1.38778e-17,0,2048,2048
262.801,-1.38778e-17,0,2048,2048
262.854,-1.38778e-17,0,2048,2048
262.9,-1.38778e-17,0,2048,2048
262.953,-1.38778e-17,0,2048,2048
263,-1.38778e-17,0,2048,2048
263.053,-1.38778e-17,0,2048,2048
263.105,-2.77556e-17,0,2048,2048
263.152,-2.77556e-17,0,2048,2048
263.205,-2.77556e-17,0,2048,2048
263.252,-2.77556e-17,0,2048,2048
263.305,-2.77556e-17,0,2048,2048
263.352,-2.77556e-17,0,2048,2048
263.404,-2.77556e-17,0,2048,2048
263.451,-2.77556e-17,0,2048,2048
263.504,-2.77556e-17,0,2048,2048
263.551,-2.77556e-17,0,2048,2048
263.603,-2.77556e-17,0,2048,2048
263.65,-2.77556e-17,0,2048,2048
263.703,-2.77556e-17,0,2048,2048
263.756,-2.77556e-17,0,2048,2048
263.803,-2.77556e-17,0,2048,2048
263.855,-2.77556e-17,0,2048,2048
263.902,-2.77556e-17,0,2048,2048
263.955,-2.77556e-17,0,2048,2048
264.002,-2.77556e-17,0,2048,2048
264.055,-2.77556e-17,0,2048,2048
264.101,-2.77556e-17,0,2048,2048
264.154,-2.77556e-17,0,2048,2048
264.201,-2.77556e-17,0,2048,2048
264.254,-2.77556e-17,0,2048,2048
264.301,-2.77556e-17,0,2048,2048
264.353,-2.77556e-17,0,2048,2048
264.4,-2.77556e-17,0,2048,2048
264.453,-2.77556e-17,0,2048,2048
264.506,-2.77556e-17,0,2048,2048
264.553,-2.77556e-17,0,2048,2048
264.605,-2.77556e-17,0,2048,2048
264.652,-2.77556e-17,0,2048,2048
264.705,-2.77556e-17,0,2048,2048
264.752,-2.77556e-17,0,2048,2048
264.804,-2.77556e-17,0,2048,2048
264.851,-2.77556e-17,0,2048,2048
264.904,-2.77556e-17,0,2048,2048
264.951,-2.77556e-17,0,2048,2048
265.004,-2.77556e-17,0,2048,2048
265.051,-2.77556e-17,0,2048,2048
265.103,-2.77556e-17,0,2048,2048
265.15,-2.77556e-17,0,2048,2048
265.203,-2.77556e-17,0,2048,2048
265.256,-2.77556e-17,0,2048,2048
265.302,-2.77556e-17,0,2048,2048
265.355,-2.77556e-17,0,2048,2048
265.402,-2.77556e-17,0,2048,2048
265.455,-2.77556e-17,0,2048,2048
265.502,-2.77556e-17,0,2048,2048
265.554,-2.77556e-17,0,2048,2048
265.601,-2.77556e-17,0,2048,2048
265.654,-2.77556e-17,0,2048,2048
265.701,-2.77556e-17,0,2048,2048
265.754,-2.77556e-17,0,2048,2048
265.8,-2.77556e-17,0,2048,2048
265.853,-2.77556e-17,0,2048,2048
265.9,-2.77556e-17,0,2048,2048
265.953,-2.77556e-17,0,2048,2048
266.005,-2.77556e-17,0,2048,2048
266.052,-2.77556e-17,0,2048,2048
266.105,-2.77556e-17,0,2048,2048
266.152,-2.77556e-17,0,2048,2048
266.205,-2.77556e-17,0,2048,2048
266.252,-2.77556e-17,0,2048,2048
266.304,-2.77556e-17,0,2048,2048
266.351,-2.77556e-17,0,2048,2048
266.404,-2.77556e-17,0,2048,2048
266.451,-2.77556e-17,0,2048,2048
266.503,-2.77556e-17,0,2048,2048
266.55,-2.77556e-17,0,2048,2048
266.603,-2.77556e-17,0,2048,2048
266.656,-2.77556e-17,0,2048,2048
266.703,-2.77556e-17,0,2048,2048
266.755,-2.77556e-17,0,2048,2048
266.802,-2.77556e-17,0,2048,2048
266.855,-2.77556e-17,0,2048,2048
266.902,-2.77556e-17,0,2048,2048
266.955,-2.77556e-17,0,2048,2048
267.001,-2.77556e-17,0,2048,2048
267.054,-2.77556e-17,0,2048,2048
267.101,-2.77556e-17,0,2048,2048
267.154,-2.77556e-17,0,2048,2048
267.201,-1.38778e-17,0,2048,2048
267.253,-1.38778e-17,0,2048,2048
267.3,-1.38778e-17,0,2048,2048
267.353,-1.38778e-17,0,2048,2048
267.406,-1.38778e-17,0,2048,2048
267.453,-1.38778e-17,0,2048,2048
267.505,-1.38778e-17,0,2048,2048
267.552,-1.38778e-17,0,2048,2048
267.605,-1.38778e-17,0,2048,2048
267.652,-1.38778e-17,0,2048,2048
267.704,-1.38778e-17,0,2048,2048
267.751,-1.38778e-17,0,2048,2048
267.804,-1.38778e-17,0,2048,2048
267.851,-1.38778e-17,0,2048,2048
267.904,-1.38778e-17,0,2048,2048
267.95,-1.38778e-17,0,2048,2048
268.003,-2.77556e-17,0,2048,2048
268.05,-2.77556e-17,0,2048,2048
268.103,-2.77556e-17,0,2048,2048
268.156,-2.77556e-17,0,2048,2048
268.202,-2.77556e-17,0,2048,2048
268.255,-2.77556e-17,0,2048,2048
268.302,-2.77556e-17,0,2048,2048
268.355,-2.77556e-17,0,2048,2048
268.402,-2.77556e-17,0,2048,2048
268.454,-2.77556e-17,0,2048,2048
268.501,-2.77556e-17,0,2048,2048
268.554,-2.77556e-17,0,2048,2048
268.601,-2.77556e-17,0,2048,2048
268.654,-2.77556e-17,0,2048,2048
268.7,-2.77556e-17,0,2048,2048
268.753,-2.77556e-17,0,2048,2048
268.806,-2.77556e-17,0,2048,2048
268.853,-2.77556e-17,0,2048,2048
268.905,-2.77556e-17,0,2048,2048
268.952,-2.77556e-17,0,2048,2048
269.005,-2.77556e-17,0,2048,2048
269.052,-2.77556e-17,0,2048,2048
269.105,-2.77556e-17,0,2048,2048
269.151,-2.77556e-17,0,2048,2048
269.204,-2.77556e-17,0,2048,2048
269.251,-2.77556e-17,0,2048,2048
269.304,-2.77556e-17,0,2048,2048
269.351,-2.77556e-17,0,2048,2048
269.403,-1.38778e-17,0,2048,2048
269.45,-1.38778e-17,0,2048,2048
269.503,-1.38778e-17,0,2048,2048
269.556,-1.38778e-17,0,2048,2048
269.603,-1.38778e-17,0,2048,2048
269.651,-1.38778e-17,0,2210,2210
269.701,-1.38778e-17,0,2390,2390
269.751,-1.38778e-17,0,2606,2606
269.801,-1.38778e-17,0,2786,2786
269.85,-1.38778e-17,0,2990,2990
269.9,-1.38778e-17,0,3206,3206
269.95,-1.38778e-17,0,3386,3386
270.001,-1.38778e-17,0,3590,3590
270.051,-1.38778e-17,0,3806,3806
270.101,-1.38778e-17,0,4010,4010
270.151,-1.38778e-17,0,4190,4190
270.201,-1.38778e-17,0,4398,4398
270.25,-1.38778e-17,0,4594,4594
270.3,-1.38778e-17,0,4774,4774
270.351,-1.38778e-17,0,4982,4982
270.401,-1.38778e-17,0,5138,5138
270.451,-1.38778e-17,0,5334,5334
270.501,-1.38778e-17,0,5478,5478
270.551,-1.38778e-17,0,5498,5498
270.6,-1.38778e-17,0,5666,5666
270.65,-1.38778e-17,0,5858,5858
270.701,-1.38778e-17,0,6050,6050
270.751,-1.38778e-17,0,6266,6266
270.801,-1.38778e-17,0,6470,6470
270.851,-1.38778e-17,0,6686,6686
270.901,-1.38778e-17,0,6890,6890
270.95,-1.38778e-17,0,7070,7070
271,-1.38778e-17,0,7286,7286
271.051,-1.38778e-17,0,7490,7490
271.101,-1.38778e-17,0,7706,7706
271.151,-1.38778e-17,0,7910,7910
271.201,-1.38778e-17,0,8126,8126
271.251,-1.38778e-17,0,8330,8330
271.3,-1.38778e-17,0,8510,8510
271.35,-1.38778e-17,0,8726,8726
271.4,-1.38778e-17,0,8930,8930
271.451,-1.38778e-17,0,9146,9146
271.501,-1.38778e-17,0,9350,9350
271.551,-1.38778e-17,0,9566,9566
271.601,-1.38778e-17,0,9770,9770
271.65,-1.38778e-17,0,9950,9950
271.7,-1.38778e-17,0,10166,10166
271.75,-1.38778e-17,0,10370,10370
271.801,-1.38778e-17,0,10586,10586
271.851,-1.38778e-17,0,10766,10766
271.901,-1.38778e-17,0,10970,10970
271.951,-1.38778e-17,0,11150,11150
272.001,-1.38778e-17,0,11366,11366
272.05,-1.38778e-17,0,11546,11546
272.1,-1.38778e-17,0,11726,11726
272.151,-1.38778e-17,0,11846,11846
272.201,-1.38778e-17,0,11906,11906
272.251,-1.38778e-17,0,12110,12110
272.301,-1.38778e-17,0,12290,12290
272.351,-1.38778e-17,0,12506,12506
272.4,-1.38778e-17,0,12686,12686
272.45,-1.38778e-17,0,12890,12890
272.501,-1.38778e-17,0,13106,13106
272.551,-1.38778e-17,0,13286,13286
272.601,-1.38778e-17,0,13490,13490
272.651,-1.38778e-17,0,13670,13670
272.701,-1.38778e-17,0,13886,13886
272.75,-1.38778e-17,0,14090,14090
272.8,-1.38778e-17,0,14270,14270
272.85,-1.38778e-17,0,14486,14486
272.901,-1.38778e-17,0,14666,14666
272.951,-1.38778e-17,0,14870,14870
273.001,-1.38778e-17,0,15050,15050
273.051,-1.38778e-17,0,15266,15266
273.1,-1.38778e-17,0,15446,15446
273.15,-1.38778e-17,0,15638,15638
273.2,-1.38778e-17,0,15830,15830
273.251,-1.38778e-17,0,16010,16010
273.301,-1.38778e-17,0,16226,16226
273.351,-1.38778e-17,0,16406,16406
273.401,-1.38778e-17,0,16586,16586
273.451,-1.38778e-17,0,16790,16790
273.5,-1.38778e-17,0,16970,16970
273.55,-1.38778e-17,0,17130,17130
273.601,-1.38778e-17,0,17230,17230
273.651,-1.38778e-17,0,17418,17418
273.701,-1.38778e-17,0,17598,17598
273.751,-1.38778e-17,0,17666,17666
273.801,-1.38778e-17,0,17882,17882
273.85,-1.38778e-17,0,18266,18266
273.9,-1.38778e-17,0,18446,18446
273.951,-1.38778e-17,0,18638,18638
274.001,-1.38778e-17,0,18830,18830
274.051,-1.38778e-17,0,19010,19010
274.101,-1.38778e-17,0,19190,19190
274.151,-1.38778e-17,0,19358,19358
274.2,-1.38778e-17,0,19526,19526
274.25,-1.38778e-17,0,19706,19706
274.301,-1.38778e-17,0,19886,19886
274.351,-1.38778e-17,0,20066,20066
274.401,-1.38778e-17,0,20246,20246
274.451,-1.38778e-17,0,20426,20426
274.501,-1.52656e-16,0,20606,20606
274.55,-5.96745e-16,0,20786,20786
274.6,-1.05471e-15,0,20930,20930
274.65,-1.51268e-15,0,21110,21110
274.701,-1.97065e-15,0,21290,21290
274.751,-2.44249e-15,0,21470,21470
274.801,-2.91434e-15,0,21626,21626
274.851,-3.38618e-15,0,21806,21806
274.9,-3.85803e-15,0,21986,21986
274.95,-4.66294e-15,0,22130,22130
275,-5.7454e-15,0,22310,22310
275.051,-8.13238e-15,0,22490,22490
275.101,-1.3628e-14,0,22646,22646
275.151,-2.6576e-14,0,22826,22826
275.201,-5.54695e-14,0,23006,23006
275.251,-1.16768e-13,0,23150,23150
275.3,-2.40086e-13,0,23330,23330
275.35,-4.75592e-13,0,23486,23486
275.401,-9.19709e-13,0,23666,23666
275.451,-1.66892e-12,0,23846,23846
275.501,-2.89699e-12,0,23990,23990
275.551,-4.81175e-12,0,24170,24170
275.601,-7.65091e-12,0,24326,24326
275.65,-1.16518e-11,0,24506,24506
275.7,-1.70042e-11,0,24650,24650
275.751,-2.401e-11,0,24830,24830
275.801,-3.21716e-11,0,24986,24986
275.851,-4.13443e-11,0,25166,25166
275.901,-5.09569e-11,0,25310,25310
275.951,-6.02138e-11,0,25490,25490
276,-6.81679e-11,0,25646,25646
276.05,-7.38376e-11,0,25826,25826
276.1,-7.63469e-11,0,25970,25970
276.151,-7.49636e-11,0,26150,26150
276.201,-6.948e-11,0,26306,26306
276.251,-6.00383e-11,0,26486,26486
276.301,-4.71429e-11,0,26630,26630
276.35,-3.16053e-11,0,26798,26798
276.4,-1.44296e-11,0,26966,26966
276.45,3.31588e-12,0,27110,27110
276.501,2.11094e-11,0,27290,27290
276.551,3.70458e-11,0,27446,27446
276.601,5.09812e-11,0,27626,27626
276.651,6.24736e-11,0,27770,27770
276.701,7.12994e-11,0,27926,27926
276.75,7.74372e-11,0,28106,28106
276.8,8.1048e-11,0,28250,28250
276.851,8.24692e-11,0,28406,28406
276.901,8.21035e-11,0,28586,28586
276.951,8.06179e-11,0,28730,28730
277.001,7.8692e-11,0,28886,28886
277.051,7.7034e-11,0,29066,29066
277.1,7.63083e-11,0,29210,29210
277.15,7.70594e-11,0,29366,29366
277.201,7.97658e-11,0,29546,29546
277.251,8.44777e-11,0,29690,29690
277.301,9.13744e-11,0,29846,29846
277.351,1.00738e-10,0,29990,29990
277.401,1.13329e-10,0,30170,30170
277.45,1.30775e-10,0,30326,30326
277.5,1.55911e-10,0,30470,30470
277.55,1.92951e-10,0,30626,30626
277.601,2.49282e-10,0,30770,30770
277.651,3.28029e-10,0,30926,30926
277.701,4.36569e-10,0,31070,31070
277.751,5.79454e-10,0,31226,31226
277.8,7.51945e-10,0,31370,31370
277.85,8.9839e-10,0,31526,31526
277.9,2.05675e-09,0,31646,31646
277.951,5.08969e-09,0,31790,31790
278.001,9.66629e-09,0,31910,31910
278.051,1.53447e-08,0,32030,32030
278.101,2.13763e-08,0,32150,32150
278.151,2.70434e-08,0,32270,32270
278.2,3.20641e-08,0,32390,32390
278.25,3.66568e-08,0,32546,32546
278.301,4.16784e-08,0,32768,32768
278.351,4.7753e-08,0,32768,32768
278.401,5.58374e-08,0,32768,32768
278.451,6.64632e-08,0,32768,32768
278.501,7.99492e-08,0,32768,32768
278.55,9.65947e-08,0,32768,32768
278.6,1.16942e-07,0,32768,32768
278.651,1.42638e-07,0,32768,32768
278.701,1.73224e-07,0,32768,32768
278.751,2.10168e-07,0,32768,32768
278.801,2.53779e-07,0,32768,32768
278.851,3.03714e-07,0,32768,32768
278.9,3.59172e-07,0,32768,32768
278.95,4.19406e-07,0,32768,32768
279.001,4.86026e-07,0,32768,32768
279.051,5.55103e-07,0,32768,32768
279.101,6.28123e-07,0,32768,32768
279.151,7.03945e-07,0,32768,32768
279.201,7.80361e-07,0,32768,32768
279.25,8.54342e-07,0,32768,32768
279.3,9.2275e-07,0,32768,32768
279.35,9.83155e-07,0,32768,32768
279.401,1.03575e-06,0,32768,32768
279.451,1.07773e-06,0,32768,32768
279.501,1.11201e-06,0,32768,32768
279.551,1.14041e-06,0,32768,32768
279.6,1.16477e-06,0,32768,32768
279.65,1.18662e-06,0,32768,32768
279.7,1.207e-06,0,32768,32768
279.751,1.22703e-06,0,32768,32768
279.801,1.24561e-06,0,32768,32768
279.851,1.26289e-06,0,32768,32768
279.901,1.27801e-06,0,32768,32768
279.951,1.28996e-06,0,32768,32768
280,1.29793e-06,0,32768,32768
280.05,1.30183e-06,0,32768,32768
280.101,1.30247e-06,0,32768,32768
280.151,1.30142e-06,0,32768,32768
280.201,1.30035e-06,0,32768,32768
280.251,1.30018e-06,0,32768,32768
280.301,1.30065e-06,0,32768,32768
280.35,1.30024e-06,0,32768,32768
280.4,1.29674e-06,0,32768,32768
280.451,1.28752e-06,0,32768,32768
280.501,1.27151e-06,0,32768,32768
280.551,1.24806e-06,0,32768,32768
280.601,1.21788e-06,0,32768,32768
280.651,1.18262e-06,0,32768,32768
280.7,1.14421e-06,0,32768,32768
280.75,1.10415e-06,0,32768,32768
280.8,1.0629e-06,0,32768,32768
280.851,1.01848e-06,0,32768,32768
280.901,9.71961e-07,0,32768,32768
280.951,9.20686e-07,0,32768,32768
281.001,8.63919e-07,0,32768,32768
281.05,8.01841e-07,0,32768,32768
281.1,7.35416e-07,0,32768,32768
281.15,6.66042e-07,0,32768,32768
281.201,5.9315e-07,0,32768,32768
281.251,5.22366e-07,0,32768,32768
281.301,4.52893e-07,0,32768,32768
281.351,3.85882e-07,0,32768,32768
281.401,3.22423e-07,0,32768,32768
281.45,2.63509e-07,0,32768,32768
281.5,2.09888e-07,0,32768,32768
281.551,1.60548e-07,0,32768,32768
281.601,1.18145e-07,0,32768,32768
281.651,8.07359e-08,0,32768,32768
281.701,4.78908e-08,0,32768,32768
281.751,1.94096e-08,0,32768,32768
281.8,-4.71828e-09,0,32768,32768
281.85,-2.45607e-08,0,32768,32768
281.901,-4.09152e-08,0,32768,32768
281.951,-5.36146e-08,0,32768,32768
282.001,-6.40744e-08,0,32768,32768
282.051,-7.29799e-08,0,32768,32768
282.101,-8.05734e-08,0,32768,32768
282.15,-8.66893e-08,0,32768,32768
282.2,-9.10216e-08,0,32768,32768
282.251,-9.34795e-08,0,32768,32768
282.301,-9.41415e-08,0,32768,32768
282.351,-9.36209e-08,0,32768,32768
282.401,-9.25175e-08,0,32768,32768
282.451,-9.1266e-08,0,32768,32768
282.5,-8.99741e-08,0,32768,32768
282.55,-8.84285e-08,0,32768,32768
282.6,-8.6262e-08,0,32768,32768
282.651,-8.30729e-08,0,32768,32768
282.701,-7.89793e-08,0,32768,32768
282.751,-7.40914e-08,0,32768,32768
282.801,-6.87378e-08,0,32768,32768
282.85,-6.32532e-08,0,32768,32768
282.9,-5.78899e-08,0,32768,32768
282.95,-5.27997e-08,0,32768,32768
283.001,-4.79301e-08,0,32768,32768
283.051,-4.36047e-08,0,32768,32768
283.101,-3.97024e-08,0,32768,32768
283.151,-3.62236e-08,0,32768,32768
283.201,-3.31415e-08,0,32768,32768
283.25,-3.04109e-08,0,32768,32768
283.3,-2.79866e-08,0,32768,32768
283.351,-2.57792e-08,0,32768,32768
283.401,-2.39023e-08,0,32768,32768
283.451,-2.22858e-08,0,32768,32768
283.501,-2.09259e-08,0,32768,32768
283.551,-1.98117e-08,0,32768,32768
283.6,-1.89253e-08,0,32768,32768
283.65,-1.82444e-08,0,32768,32768
283.701,-1.77328e-08,0,32768,32768
283.751,-1.7396e-08,0,32768,32768
283.801,-1.71945e-08,0,32768,32768
283.851,-1.71075e-08,0,32768,32768
283.901,-1.71152e-08,0,32768,32768
283.95,-1.71999e-08,0,32768,32768
284,-1.73458e-08,0,32768,32768
284.05,-1.75401e-08,0,32768,32768
284.101,-1.77799e-08,0,32768,32768
284.151,-1.80429e-08,0,32768,32768
284.201,-1.83282e-08,0,32768,32768
284.251,-1.86291e-08,0,32768,32768
284.3,-1.89386e-08,0,32768,32768
284.35,-1.92503e-08,0,32768,32768
284.4,-1.9559e-08,0,32768,32768
284.451,-1.98697e-08,0,32768,32768
284.501,-2.01623e-08,0,32768,32768
284.551,-2.04446e-08,0,32768,32768
284.601,-2.07158e-08,0,32768,32768
284.651,-2.09745e-08,0,32768,32768
284.7,-2.12187e-08,0,32768,32768
284.75,-2.1446e-08,0,32768,32768
284.801,-2.166e-08,0,32768,32768
284.851,-2.18466e-08,0,32768,32768
284.901,-2.20115e-08,0,32768,32768
284.951,-2.21547e-08,0,32768,32768
285.001,-2.22775e-08,0,32768,32768
285.05,-2.23813e-08,0,32768,32768
285.1,-2.24682e-08,0,32768,32768
285.151,-2.25424e-08,0,32768,32768
285.201,-2.26021e-08,0,32768,32768
285.251,-2.26522e-08,0,32768,32768
285.301,-2.26951e-08,0,32768,32768
285.351,-2.27328e-08,0,32768,32768
285.4,-2.27675e-08,0,32768,32768
285.45,-2.28009e-08,0,32768,32768
285.5,-2.28344e-08,0,32768,32768
285.551,-2.28706e-08,0,32768,32768
285.601,-2.29088e-08,0,32768,32768
285.651,-2.29515e-08,0,32768,32768
285.701,-2.30004e-08,0,32768,32768
285.75,-2.30574e-08,0,32768,32768
285.8,-2.31244e-08,0,32768,32768
285.85,-2.32039e-08,0,32768,32768
285.901,-2.33012e-08,0,32768,32768
285.951,-2.34137e-08,0,32768,32768
286.001,-2.35467e-08,0,32768,32768
286.051,-2.37034e-08,0,32768,32768
286.101,-2.38871e-08,0,32768,32768
286.15,-2.41009e-08,0,32768,32768
286.2,-2.43479e-08,0,32768,32768
286.251,-2.464e-08,0,32768,32768
286.301,-2.49629e-08,0,32768,32768
286.351,-2.53267e-08,0,32768,32768
286.401,-2.57327e-08,0,32768,32768
286.451,-2.61819e-08,0,32768,32768
286.5,-2.66741e-08,0,32768,32768
286.55,-2.72082e-08,0,32768,32768
286.601,-2.77994e-08,0,32768,32768
286.651,-2.84105e-08,0,32768,32768
286.701,-2.90536e-08,0,32768,32768
286.751,-2.9724e-08,0,32768,32768
286.801,-3.04167e-08,0,32768,32768
286.85,-3.11271e-08,0,32768,32768
286.9,-3.1851e-08,0,32768,32768
286.951,-3.26066e-08,0,32768,32768
287.001,-3.33479e-08,0,32768,32768
287.051,-3.40941e-08,0,32768,32768
287.101,-3.48433e-08,0,32768,32768
287.151,-3.5594e-08,0,32768,32768
287.2,-3.63446e-08,0,32768,32768
287.25,-3.70935e-08,0,32768,32768
287.3,-3.78388e-08,0,32768,32768
287.351,-3.86005e-08,0,32768,32768
287.401,-3.93333e-08,0,32768,32768
287.451,-4.00576e-08,0,32768,32768
287.501,-4.07721e-08,0,32768,32768
287.55,-4.1476e-08,0,32768,32768
287.6,-4.21686e-08,0,32768,32768
287.65,-4.28488e-08,0,32768,32768
287.701,-4.35349e-08,0,32768,32768
287.751,-4.41858e-08,0,32768,32768
287.801,-4.4819e-08,0,32768,32768
287.851,-4.54316e-08,0,32768,32768
287.901,-4.60209e-08,0,32768,32768
287.95,-4.65839e-08,0,32768,32768
288,-4.71181e-08,0,32768,32768
288.051,-4.76357e-08,0,32768,32768
288.101,-4.81054e-08,0,32768,32768
288.151,-4.85408e-08,0,32768,32768
288.201,-4.89407e-08,0,32768,32768
288.251,-4.93036e-08,0,32768,32768
288.3,-4.96276e-08,0,32768,32768
288.35,-4.99113e-08,0,32768,32768
288.401,-5.01594e-08,0,32768,32768
288.451,-5.03566e-08,0,32768,32768
288.501,-5.05097e-08,0,32768,32768
288.551,-5.06188e-08,0,32768,32768
288.601,-5.06844e-08,0,32768,32768
288.65,-5.07079e-08,0,32768,32768
288.7,-5.06914e-08,0,32768,32768
288.75,-5.06373e-08,0,32768,32768
288.801,-5.05458e-08,0,32768,32768
288.851,-5.04255e-08,0,32768,32768
288.901,-5.02778e-08,0,32768,32768
288.951,-5.01064e-08,0,32768,32768
289,-4.99148e-08,0,32768,32768
289.05,-4.97064e-08,0,32768,32768
289.1,-4.94843e-08,0,32768,32768
289.151,-4.92445e-08,0,32768,32768
289.201,-4.90036e-08,0,32768,32768
289.251,-4.87571e-08,0,32768,32768
289.301,-4.85071e-08,0,32768,32768
289.351,-4.82554e-08,0,32768,32768
289.4,-4.80035e-08,0,32768,32768
289.45,-4.77527e-08,0,32768,32768
289.501,-4.74966e-08,0,32768,32768
289.551,-4.72511e-08,0,32768,32768
289.601,-4.70094e-08,0,32768,32768
289.651,-4.67725e-08,0,32768,32768
289.701,-4.65408e-08,0,32768,32768
289.75,-4.63148e-08,0,32768,32768
289.8,-4.60948e-08,0,32768,32768
289.851,-4.58746e-08,0,32768,32768
289.901,-4.56671e-08,0,32768,32768
289.951,-4.54661e-08,0,32768,32768
290.001,-4.52715e-08,0,32768,32768
290.051,-4.50837e-08,0,32768,32768
290.1,-4.49025e-08,0,32768,32768
290.15,-4.47281e-08,0,32768,32768
290.201,-4.45554e-08,0,32768,32768
290.251,-4.43941e-08,0,32768,32768
290.301,-4.42387e-08,0,32768,32768
290.351,-4.40889e-08,0,32768,32768
290.401,-4.39442e-08,0,32768,32768
290.45,-4.3804e-08,0,32768,32768
290.5,-4.36678e-08,0,32768,32768
290.55,-4.3535e-08,0,32768,32768
290.601,-4.34014e-08,0,32768,32768
290.651,-4.32739e-08,0,32768,32768
290.701,-4.31483e-08,0,32768,32768
290.751,-4.3024e-08,0,32768,32768
290.8,-4.29005e-08,0,32768,32768
290.85,-4.27773e-08,0,32768,32768
290.9,-4.26539e-08,0,32768,32768
290.951,-4.25261e-08,0,32768,32768
291.001,-4.24009e-08,0,32768,32768
291.051,-4.2274e-08,0,32768,32768
291.101,-4.21452e-08,0,32768,32768
291.151,-4.20139e-08,0,32768,32768
291.2,-4.18799e-08,0,32768,32768
291.25,-4.17428e-08,0,32768,32768
291.301,-4.15981e-08,0,32768,32768
291.351,-4.14539e-08,0,32768,32768
291.401,-4.13058e-08,0,32768,32768
291.451,-4.11537e-08,0,32768,32768
291.501,-4.09973e-08,0,32768,32768
291.55,-4.08365e-08,0,32768,32768
291.6,-4.06711e-08,0,32768,32768
291.651,-4.0496e-08,0,32768,32768
291.701,-4.03209e-08,0,32768,32768
291.751,-4.01407e-08,0,32768,32768
291.801,-3.99551e-08,0,32768,32768
291.851,-3.97636e-08,0,32768,32768
291.9,-3.95657e-08,0,32768,32768
291.95,-3.93611e-08,0,32768,32768
292,-3.91492e-08,0,32768,32768
292.051,-3.89228e-08,0,32768,32768
292.101,-3.86946e-08,0,32768,32768
292.151,-3.84579e-08,0,32768,32768
292.201,-3.82121e-08,0,32768,32768
292.25,-3.7957e-08,0,32768,32768
292.3,-3.7692e-08,0,32768,32768
292.35,-3.74163e-08,0,32768,32768
292.401,-3.712e-08,0,32768,32768
292.451,-3.68187e-08,0,32768,32768
292.501,-3.65023e-08,0,32768,32768
292.551,-3.61685e-08,0,32768,32768
292.601,-3.58147e-08,0,32768,32768
292.65,-3.54381e-08,0,32768,32768
292.7,-3.50355e-08,0,32768,32768
292.751,-3.45903e-08,0,32768,32768
292.801,-3.41244e-08,0,32768,32768
292.851,-3.3622e-08,0,32768,32768
292.901,-3.308e-08,0,32768,32768
292.951,-3.24954e-08,0,32768,32768
293,-3.18657e-08,0,32768,32768
293.05,-3.11892e-08,0,32768,32768
293.101,-3.04426e-08,0,32768,32768
293.151,-2.96687e-08,0,32768,32768
293.201,-2.88478e-08,0,32768,32768
293.251,-2.79821e-08,0,32768,32768
293.301,-2.70747e-08,0,32768,32768
293.35,-2.61299e-08,0,32768,32768
293.4,-2.51524e-08,0,32768,32768
293.451,-2.41173e-08,0,32768,32768
293.501,-2.30889e-08,0,32768,32768
293.551,-2.20428e-08,0,32768,32768
293.601,-2.09831e-08,0,32768,32768
293.651,-1.99135e-08,0,32768,32768
293.7,-1.88369e-08,0,32768,32768
293.75,-1.77558e-08,0,32768,32768
293.8,-1.66725e-08,0,32768,32768
293.851,-1.55571e-08,0,32768,32768
293.901,-1.44753e-08,0,32768,32768
293.951,-1.33972e-08,0,32768,32768
294.001,-1.23247e-08,0,32768,32768
294.05,-1.12595e-08,0,32768,32768
294.1,-1.02035e-08,0,32768,32768
294.15,-9.15805e-09,0,32768,32768
294.201,-8.09432e-09,0,32768,32768
294.251,-7.07445e-09,0,32768,32768
294.301,-6.06927e-09,0,32768,32768
294.351,-5.08047e-09,0,32768,32768
294.401,-4.11014e-09,0,32768,32768
294.45,-3.16079e-09,0,32346,32346
294.5,-2.23532e-09,0,32632,32632
294.551,-1.31084e-09,0,32656,32656
294.601,-4.43327e-10,0,32672,32672
294.651,4.3841e-10,0,32672,32672
294.701,1.16293e-09,0,32672,32672
294.751,1.95041e-09,0,32672,32672
294.8,2.66485e-09,0,32672,32672
294.85,3.34475e-09,0,32672,32672
294.901,4.00637e-09,0,32656,32656
294.951,4.58754e-09,0,32624,32624
295.001,5.11026e-09,0,32592,32592
295.051,5.59804e-09,0,32584,32584
295.101,6.0422e-09,0,32584,32584
295.15,6.42768e-09,0,32560,32560
295.2,6.76813e-09,0,32560,32560
295.25,7.05297e-09,0,32536,32536
295.301,7.29086e-09,0,32536,32536
295.351,7.47356e-09,0,32536,32536
295.401,7.60948e-09,0,32512,32512
295.451,7.7026e-09,0,32512,32512
295.5,7.75735e-09,0,32536,32536
295.55,7.77895e-09,0,32520,32520
295.6,7.77136e-09,0,32520,32520
295.651,7.73778e-09,0,32520,32520
295.701,7.68434e-09,0,32536,32536
295.751,7.61412e-09,0,32512,32512
295.801,7.53129e-09,0,32512,32512
295.851,7.43899e-09,0,32512,32512
295.9,7.33985e-09,0,32520,32520
295.95,7.23593e-09,0,32536,32536
296.001,7.12571e-09,0,32520,32520
296.051,7.01688e-09,0,32512,32512
296.101,6.90713e-09,0,32512,32512
296.151,6.79641e-09,0,32496,32496
296.201,6.68513e-09,0,32488,32488
296.25,6.5746e-09,0,32464,32464
296.3,6.46532e-09,0,32472,32472
296.351,6.35252e-09,0,32488,32488
296.401,6.24131e-09,0,32464,32464
296.451,6.12878e-09,0,32472,32472
296.501,6.01586e-09,0,32464,32464
296.551,5.90344e-09,0,32480,32480
296.6,5.79292e-09,0,32480,32480
296.65,5.68625e-09,0,32480,32480
296.7,5.58553e-09,0,32464,32464
296.751,5.49019e-09,0,32448,32448
296.801,5.40719e-09,0,32464,32464
296.851,5.33449e-09,0,32448,32448
296.901,5.27249e-09,0,32464,32464
296.95,5.22079e-09,0,32464,32464
297,5.17818e-09,0,32440,32440
297.05,5.14328e-09,0,32464,32464
297.101,5.11406e-09,0,32440,32440
297.151,5.09113e-09,0,32440,32440
297.201,5.0728e-09,0,32448,32448
297.251,5.05863e-09,0,32440,32440
297.301,5.04837e-09,0,32440,32440
297.35,5.04174e-09,0,32440,32440
297.4,5.03829e-09,0,32440,32440
297.451,5.03718e-09,0,32424,32424
297.501,5.03731e-09,0,32440,32440
297.551,5.03734e-09,0,32440,32440
297.601,5.03613e-09,0,32416,32416
297.651,5.0329e-09,0,32440,32440
297.7,5.02732e-09,0,32440,32440
297.75,5.01967e-09,0,32424,32424
297.801,5.01036e-09,0,32440,32440
297.851,5.00087e-09,0,32424,32424
297.901,4.99167e-09,0,32400,32400
297.951,4.98319e-09,0,32384,32384
298.001,4.97543e-09,0,32368,32368
298.05,4.96801e-09,0,32392,32392
298.1,4.96042e-09,0,32400,32400
298.151,4.95212e-09,0,32368,32368
298.201,4.94356e-09,0,32380,32380
298.251,4.93481e-09,0,32400,32400
298.301,4.92657e-09,0,32392,32392
298.351,4.91992e-09,0,32376,32376
298.4,4.91598e-09,0,32400,32400
298.45,4.91547e-09,0,32392,32392
298.5,4.91882e-09,0,32376,32376
298.551,4.92647e-09,0,32400,32400
298.601,4.93766e-09,0,32368,32368
298.651,4.95207e-09,0,32392,32392
298.701,4.96921e-09,0,32384,32384
298.75,4.98829e-09,0,32400,32400
298.8,5.00842e-09,0,32376,32376
298.85,5.02872e-09,0,32392,32392
298.901,5.04903e-09,0,32368,32368
298.951,5.06757e-09,0,32384,32384
299.001,5.08445e-09,0,32392,32392
299.051,5.09935e-09,0,32368,32368
299.101,5.11199e-09,0,32376,32376
299.15,5.12221e-09,0,32368,32368
299.2,5.12998e-09,0,32368,32368
299.251,5.13551e-09,0,32368,32368
299.301,5.13864e-09,0,32376,32376
299.351,5.13977e-09,0,32352,32352
299.401,5.13917e-09,0,32368,32368
299.451,5.13707e-09,0,32368,32368
299.5,5.13364e-09,0,32368,32368
299.55,5.12894e-09,0,32368,32368
299.601,5.12279e-09,0,32368,32368
299.651,5.11555e-09,0,32344,32344
299.701,5.10714e-09,0,32344,32344
299.751,5.09772e-09,0,32344,32344
299.801,5.08749e-09,0,32344,32344
299.85,5.07659e-09,0,32344,32344
299.9,5.06504e-09,0,32344,32344
299.95,5.05277e-09,0,32344,32344
300.001,5.03924e-09,0,32320,32320
300.051,5.02507e-09,0,32312,32312
300.101,5.00975e-09,0,32312,32312
300.151,4.99321e-09,0,32312,32312
300.2,4.97544e-09,0,32308,32308
300.25,4.95648e-09,0,32312,32312
300.3,4.93638e-09,0,32320,32320
300.351,4.91458e-09,0,32320,32320
300.401,4.89241e-09,0,32304,32304
300.451,4.86933e-09,0,32328,32328
300.501,4.84536e-09,0,32320,32320
300.551,4.82051e-09,0,32320,32320
300.6,4.79478e-09,0,32348,32348
300.65,4.76816e-09,0,32328,32328
300.701,4.7398e-09,0,32280,32280
300.751,4.71129e-09,0,32252,32252
300.801,4.68174e-09,0,32212,32212
300.851,4.65102e-09,0,32220,32220
300.901,4.61914e-09,0,32192,32192
300.95,4.5864e-09,0,32168,32168
301,4.5531e-09,0,32168,32168
301.051,4.5182e-09,0,32168,32168
301.101,4.48334e-09,0,32132,32132
301.151,4.44733e-09,0,32144,32144
301.201,4.41015e-09,0,32108,32108
301.251,4.3719e-09,0,32108,32108
301.3,4.33264e-09,0,32092,32092
301.35,4.29239e-09,0,32060,32060
301.4,4.25114e-09,0,32048,32048
301.451,4.20765e-09,0,32048,32048
301.501,4.16444e-09,0,32032,32032
301.551,4.12031e-09,0,32024,32024
301.601,4.07528e-09,0,32016,32016
301.65,4.02937e-09,0,32024,32024
301.7,3.98261e-09,0,31988,31988
301.75,3.935e-09,0,31988,31988
301.801,3.88513e-09,0,31964,31964
301.851,3.83587e-09,0,31956,31956
301.901,3.78581e-09,0,31964,31964
301.951,3.73498e-09,0,31952,31952
302.001,3.6835e-09,0,31948,31948
302.05,3.6316e-09,0,31928,31928
302.1,3.57942e-09,0,31940,31940
302.151,3.52545e-09,0,31928,31928
302.201,3.47268e-09,0,31928,31928
302.251,3.41951e-09,0,31928,31928
302.301,3.36595e-09,0,31928,31928
302.351,3.31207e-09,0,31928,31928
302.4,3.25798e-09,0,31936,31936
302.45,3.20377e-09,0,31944,31944
302.501,3.14792e-09,0,31944,31944
302.551,3.09368e-09,0,31952,31952
302.601,3.03953e-09,0,31960,31960
302.651,2.98553e-09,0,31960,31960
302.701,2.93174e-09,0,31960,31960
302.75,2.87822e-09,0,31952,31952
302.8,2.825e-09,0,31952,31952
302.851,2.77057e-09,0,31944,31944
302.901,2.71808e-09,0,31952,31952
302.951,2.666e-09,0,31958,31958
303.001,2.61435e-09,0,32158,32158
303.051,2.56317e-09,0,32350,32350
303.1,2.51247e-09,0,32550,32550
303.15,2.46224e-09,0,32748,32748
303.2,2.4125e-09,0,32768,32768
303.251,2.36181e-09,0,32768,32768
303.301,2.31306e-09,0,32768,32768
303.351,2.26481e-09,0,32768,32768
303.401,2.21702e-09,0,32768,32768
303.45,2.16969e-09,0,32768,32768
303.5,2.12282e-09,0,32768,32768
303.55,2.07641e-09,0,32768,32768
303.601,2.02909e-09,0,32768,32768
303.651,1.98357e-09,0,32768,32768
303.701,1.93847e-09,0,32768,32768
303.751,1.89379e-09,0,32768,32768
303.801,1.84951e-09,0,32768,32768
303.85,1.80563e-09,0,32768,32768
303.9,1.76214e-09,0,32768,32768
303.951,1.71776e-09,0,32768,32768
304.001,1.67502e-09,0,32768,32768
304.051,1.63262e-09,0,32768,32768
304.101,1.59056e-09,0,32768,32768
304.151,1.54883e-09,0,32768,32768
304.2,1.50741e-09,0,32768,32768
304.25,1.46627e-09,0,32768,32768
304.301,1.42421e-09,0,32768,32768
304.351,1.38361e-09,0,32768,32768
304.401,1.34326e-09,0,32768,32768
304.451,1.30314e-09,0,32768,32768
304.501,1.26323e-09,0,32768,32768
304.55,1.22354e-09,0,32768,32768
304.6,1.18407e-09,0,32768,32768
304.65,1.1448e-09,0,32768,32768
304.701,1.1046e-09,0,32768,32768
304.751,1.06573e-09,0,32768,32768
304.801,1.02705e-09,0,32768,32768
304.851,9.88563e-10,0,32768,32768
304.9,9.5028e-10,0,32768,32768
304.95,9.12204e-10,0,32768,32768
