250,0,0,512,512
250.012,0,0,512,512
250.059,0,0,512,512
250.105,0,0,512,512
250.152,0,0,512,512
250.211,0,0,512,512
250.258,0,0,512,512
250.305,0,0,512,512
250.352,0,0,512,512
250.41,2.77556e-17,0,512,512
250.457,2.77556e-17,0,512,512
250.504,0,0,512,512
250.551,0,0,512,512
250.609,0,0,512,512
250.656,0,0,512,512
250.703,0,0,512,512
250.762,0,0,512,512
250.808,0,0,512,512
250.855,0,0,512,512
250.902,2.77556e-17,0,512,512
250.961,2.77556e-17,0,512,512
251.008,2.77556e-17,0,512,512
251.055,2.77556e-17,0,512,512
251.101,0,0,512,512
251.16,0,0,512,512
251.207,2.77556e-17,0,512,512
251.254,0,0,512,512
251.301,0,0,512,512
251.359,0,0,512,512
251.406,0,0,512,512
251.453,0,0,512,512
251.511,0,0,512,512
251.558,0,0,512,512
251.605,2.77556e-17,0,512,512
251.652,2.77556e-17,0,512,512
251.711,0,0,512,512
251.758,0,0,512,512
251.804,0,0,512,512
251.851,0,0,512,512
251.91,0,0,512,512
251.957,0,0,512,512
252.004,-2.77556e-17,0,512,512
252.05,-2.77556e-17,0,512,512
252.109,-2.77556e-17,0,512,512
252.156,0,0,512,512
252.203,0,0,512,512
252.261,0,0,512,512
252.308,0,0,512,512
252.355,2.77556e-17,0,512,512
252.402,2.77556e-17,0,512,512
252.461,0,0,512,512
252.507,0,0,512,512
252.554,0,0,512,512
252.601,0,0,512,512
252.66,0,0,512,512
252.707,0,0,512,512
252.754,0,0,512,512
252.8,0,0,512,512
252.859,2.77556e-17,0,512,512
252.906,0,0,512,512
252.953,0,0,512,512
253.011,0,0,512,512
253.058,0,0,512,512
253.105,0,0,512,512
253.152,0,0,512,512
253.21,0,0,512,512
253.257,0,0,512,512
253.304,2.77556e-17,0,512,512
253.351,2.77556e-17,0,512,512
253.41,0,0,512,512
253.457,0,0,512,512
253.503,0,0,512,512
253.55,2.77556e-17,0,512,512
253.609,2.77556e-17,0,512,512
253.656,2.77556e-17,0,512,512
253.703,2.77556e-17,0,512,512
253.761,0,0,512,512
253.808,0,0,512,512
253.855,0,0,512,512
253.902,-2.77556e-17,0,512,512
253.96,-2.77556e-17,0,512,512
254.007,0,0,512,512
254.054,0,0,512,512
254.101,-2.77556e-17,0,512,512
254.16,0,0,512,512
254.206,-2.77556e-17,0,512,512
254.253,0,0,512,512
254.3,0,0,512,512
254.359,0,0,512,512
254.406,0,0,512,512
254.452,0,0,512,512
254.511,-2.77556e-17,0,512,512
254.558,-2.77556e-17,0,512,512
254.605,-2.77556e-17,0,512,512
254.652,-2.77556e-17,0,512,512
254.71,-2.77556e-17,0,512,512
254.757,0,0,512,512
254.804,0,0,512,512
254.851,-2.77556e-17,0,512,512
254.909,-5.55112e-17,0,512,512
254.956,-2.77556e-17,0,512,512
255.003,-2.77556e-17,0,512,512
255.05,-2.77556e-17,0,512,512
255.109,-2.77556e-17,0,512,512
255.155,-2.77556e-17,0,512,512
255.202,-2.77556e-17,0,512,512
255.261,-2.77556e-17,0,512,512
255.308,-2.77556e-17,0,512,512
255.355,-2.77556e-17,0,512,512
255.402,-2.77556e-17,0,512,512
255.46,-2.77556e-17,0,512,512
255.507,-2.77556e-17,0,512,512
255.554,-2.77556e-17,0,512,512
255.601,0,0,512,512
255.659,0,0,512,512
255.706,0,0,512,512
255.753,0,0,512,512
255.812,0,0,512,512
255.859,0,0,512,512
255.905,2.77556e-17,0,512,512
255.952,0,0,512,512
256.011,0,0,512,512
256.058,0,0,512,512
256.105,0,0,512,512
256.151,0,0,512,512
256.21,0,0,512,512
256.257,2.77556e-17,0,512,512
256.304,2.77556e-17,0,512,512
256.351,0,0,512,512
256.409,0,0,512,512
256.456,0,0,512,512
256.503,0,0,512,512
256.562,0,0,512,512
256.608,0,0,512,512
256.655,-2.77556e-17,0,512,512
256.702,0,0,512,512
256.761,-2.77556e-17,0,512,512
256.808,0,0,512,512
256.854,-2.77556e-17,0,512,512
256.901,-2.77556e-17,0,512,512
256.96,-2.77556e-17,0,512,512
257.007,-2.77556e-17,0,512,512
257.054,0,0,512,512
257.101,-2.77556e-17,0,512,512
257.159,-2.77556e-17,0,512,512
257.206,0,0,512,512
257.253,0,0,512,512
257.311,0,0,512,512
257.358,2.77556e-17,0,512,512
257.405,2.77556e-17,0,512,512
257.452,0,0,512,512
257.511,0,0,512,512
257.557,0,0,512,512
257.604,0,0,512,512
257.651,0,0,512,512
257.71,-2.77556e-17,0,512,512
257.757,0,0,512,512
257.804,0,0,512,512
257.85,0,0,512,512
257.909,-2.77556e-17,0,512,512
257.956,-2.77556e-17,0,512,512
258.003,-2.77556e-17,0,512,512
258.061,0,0,512,512
258.108,0,0,512,512
258.155,0,0,512,512
258.202,0,0,512,512
258.261,0,0,512,512
258.307,-2.77556e-17,0,512,512
258.354,0,0,512,512
258.401,-2.77556e-17,0,512,512
258.46,-2.77556e-17,0,512,512
258.507,-2.77556e-17,0,512,512
258.553,-2.77556e-17,0,512,512
258.6,-2.77556e-17,0,512,512
258.659,-2.77556e-17,0,512,512
258.706,-5.55112e-17,0,512,512
258.753,-5.55112e-17,0,512,512
258.811,-5.55112e-17,0,512,512
258.858,-5.55112e-17,0,512,512
258.905,-2.77556e-17,0,512,512
258.952,0,0,512,512
259.01,0,0,512,512
259.057,-2.77556e-17,0,512,512
259.104,0,0,512,512
259.151,0,0,512,512
259.21,-2.77556e-17,0,512,512
259.256,-2.77556e-17,0,512,512
259.303,0,0,512,512
259.35,0,0,512,512
259.409,2.77556e-17,0,512,512
259.456,2.77556e-17,0,512,512
259.503,0,0,512,512
259.561,0,0,512,512
259.608,0,0,512,512
259.655,-2.77556e-17,0,512,512
259.702,-2.77556e-17,0,512,512
259.76,0,0,512,512
259.807,0,0,512,512
259.854,2.77556e-17,0,512,512
259.901,0,0,512,512
259.959,0,0,512,512
260.006,0,0,512,512
260.053,0,0,512,512
260.1,-2.77556e-17,0,512,512
260.159,-2.77556e-17,0,512,512
260.206,-2.77556e-17,0,512,512
260.252,-2.77556e-17,0,512,512
260.311,-2.77556e-17,0,512,512
260.358,-2.77556e-17,0,512,512
260.405,-2.77556e-17,0,512,512
260.452,-2.77556e-17,0,512,512
260.51,-2.77556e-17,0,512,512
260.557,-2.77556e-17,0,512,512
260.604,0,0,512,512
260.651,0,0,512,512
260.709,0,0,512,512
260.756,0,0,512,512
260.803,0,0,512,512
260.862,0,0,512,512
260.909,2.77556e-17,0,512,512
260.955,2.77556e-17,0,512,512
261.002,2.77556e-17,0,512,512
261.061,2.77556e-17,0,512,512
261.108,2.77556e-17,0,512,512
261.155,2.77556e-17,0,512,512
261.201,2.77556e-17,0,512,512
261.26,0,0,512,512
261.307,0,0,512,512
261.354,0,0,512,512
261.401,0,0,512,512
261.459,0,0,512,512
261.506,0,0,512,512
261.553,0,0,512,512
261.612,0,0,512,512
261.658,0,0,512,512
261.705,0,0,512,512
261.752,2.77556e-17,0,512,512
261.811,2.77556e-17,0,512,512
261.858,-2.77556e-17,0,512,512
261.905,0,0,512,512
261.951,0,0,512,512
262.01,0,0,512,512
262.057,0,0,512,512
262.104,0,0,512,512
262.151,0,0,512,512
262.209,0,0,512,512
262.256,2.77556e-17,0,512,512
262.303,2.77556e-17,0,512,512
262.361,0,0,512,512
262.408,0,0,512,512
262.455,0,0,512,512
262.502,0,0,512,512
262.561,0,0,512,512
262.608,2.77556e-17,0,512,512
262.654,2.77556e-17,0,512,512
262.701,2.77556e-17,0,512,512
262.76,2.77556e-17,0,512,512
262.807,0,0,512,512
262.854,0,0,512,512
262.9,2.77556e-17,0,512,512
262.959,0,0,512,512
263.006,0,0,512,512
263.053,0,0,512,512
263.111,0,0,512,512
263.158,0,0,512,512
263.205,0,0,512,512
263.252,0,0,512,512
263.311,0,0,512,512
263.357,2.77556e-17,0,512,512
263.404,2.77556e-17,0,512,512
263.451,2.77556e-17,0,512,512
263.51,0,0,512,512
263.557,0,0,512,512
263.603,0,0,512,512
263.65,0,0,512,512
263.709,-2.77556e-17,0,512,512
263.756,-2.77556e-17,0,512,512
263.803,-2.77556e-17,0,512,512
263.861,0,0,512,512
263.908,0,0,512,512
263.955,2.77556e-17,0,512,512
264.002,0,0,512,512
264.06,0,0,512,512
264.107,0,0,512,512
264.154,0,0,512,512
264.201,0,0,512,512
264.26,0,0,512,512
264.306,2.77556e-17,0,512,512
264.353,2.77556e-17,0,512,512
264.4,2.77556e-17,0,512,512
264.459,2.77556e-17,0,512,512
264.506,2.77556e-17,0,512,512
264.553,2.77556e-17,0,512,512
264.611,2.77556e-17,0,512,512
264.658,2.77556e-17,0,512,512
264.705,2.77556e-17,0,512,512
264.752,2.77556e-17,0,512,512
264.81,2.77556e-17,0,512,512
264.857,2.77556e-17,0,512,512
264.904,2.77556e-17,0,512,512
264.951,2.77556e-17,0,512,512
265.01,2.77556e-17,0,512,512
265.056,2.77556e-17,0,512,512
265.103,2.77556e-17,0,512,512
265.15,2.77556e-17,0,512,512
265.209,2.77556e-17,0,512,512
265.256,2.77556e-17,0,512,512
265.302,2.77556e-17,0,512,512
265.361,5.55112e-17,0,512,512
265.408,5.55112e-17,0,512,512
265.455,5.55112e-17,0,512,512
265.502,5.55112e-17,0,512,512
265.56,2.77556e-17,0,512,512
265.607,2.77556e-17,0,512,512
265.654,2.77556e-17,0,512,512
265.701,2.77556e-17,0,512,512
265.759,2.77556e-17,0,512,512
265.806,2.77556e-17,0,512,512
265.853,2.77556e-17,0,512,512
265.9,2.77556e-17,0,512,512
265.959,2.77556e-17,0,512,512
266.005,2.77556e-17,0,512,512
266.052,2.77556e-17,0,512,512
266.111,0,0,512,512
266.158,2.77556e-17,0,512,512
266.205,0,0,512,512
266.252,2.77556e-17,0,512,512
266.31,2.77556e-17,0,512,512
266.357,2.77556e-17,0,512,512
266.404,2.77556e-17,0,512,512
266.451,2.77556e-17,0,512,512
266.509,0,0,512,512
266.556,0,0,512,512
266.603,-2.77556e-17,0,512,512
266.662,-2.77556e-17,0,512,512
266.708,-2.77556e-17,0,512,512
266.755,0,0,512,512
266.802,-2.77556e-17,0,512,512
266.861,-2.77556e-17,0,512,512
266.908,-2.77556e-17,0,512,512
266.955,-2.77556e-17,0,512,512
267.001,-2.77556e-17,0,512,512
267.06,-2.77556e-17,0,512,512
267.107,-2.77556e-17,0,512,512
267.154,-2.77556e-17,0,512,512
267.201,-2.77556e-17,0,512,512
267.259,-2.77556e-17,0,512,512
267.306,-2.77556e-17,0,512,512
267.353,-2.77556e-17,0,512,512
267.412,-2.77556e-17,0,512,512
267.458,-2.77556e-17,0,512,512
267.505,-2.77556e-17,0,512,512
267.552,0,0,512,512
267.611,2.77556e-17,0,512,512
267.658,2.77556e-17,0,512,512
267.704,2.77556e-17,0,512,512
267.751,2.77556e-17,0,512,512
267.81,2.77556e-17,0,512,512
267.857,2.77556e-17,0,512,512
267.904,2.77556e-17,0,512,512
267.95,2.77556e-17,0,512,512
268.009,2.77556e-17,0,512,512
268.056,2.77556e-17,0,512,512
268.103,2.77556e-17,0,512,512
268.161,2.77556e-17,0,512,512
268.208,2.77556e-17,0,512,512
268.255,0,0,512,512
268.302,0,0,512,512
268.361,0,0,512,512
268.407,0,0,512,512
268.454,0,0,512,512
268.501,0,0,512,512
268.56,0,0,512,512
268.607,0,0,512,512
268.654,-2.77556e-17,0,512,512
268.7,-2.77556e-17,0,512,512
268.759,-2.77556e-17,0,512,512
268.806,-2.77556e-17,0,512,512
268.853,0,0,512,512
268.911,0,0,512,512
268.958,2.77556e-17,0,512,512
269.005,2.77556e-17,0,512,512
269.052,2.77556e-17,0,512,512
269.11,0,0,512,512
269.157,0,0,512,512
269.204,0,0,512,512
269.251,2.77556e-17,0,512,512
269.31,2.77556e-17,0,512,512
269.357,0,0,512,512
269.403,2.77556e-17,0,512,512
269.45,2.77556e-17,0,512,512
269.509,2.77556e-17,0,512,512
269.556,2.77556e-17,0,512,512
269.603,2.77556e-17,0,512,512
269.661,2.77556e-17,0,512,512
269.708,2.77556e-17,0,512,512
269.755,2.77556e-17,0,512,512
269.802,2.77556e-17,0,512,512
269.86,2.77556e-17,0,512,512
269.903,2.77556e-17,0,523,523
269.953,2.77556e-17,0,539,539
270.002,2.77556e-17,0,549,549
270.052,2.77556e-17,0,557,557
270.102,2.77556e-17,0,573,573
270.151,2.77556e-17,0,579,579
270.201,2.77556e-17,0,586,586
270.251,2.77556e-17,0,594,594
270.3,2.77556e-17,0,595,595
270.35,2.77556e-17,0,611,611
270.404,2.77556e-17,0,639,639
270.452,2.77556e-17,0,679,679
270.501,-5.55112e-17,0,705,705
270.551,-6.66134e-16,0,741,741
270.601,-4.55191e-15,0,777,777
270.651,-2.634e-14,0,821,821
270.701,-1.1996e-13,0,859,859
270.75,-4.4531e-13,0,915,915
270.8,-1.37937e-12,0,967,967
270.85,-3.63734e-12,0,1013,1013
270.903,-8.67389e-12,0,1073,1073
270.953,-1.72179e-11,0,1133,1133
271.002,-3.02987e-11,0,1165,1165
271.052,-4.76726e-11,0,1219,1219
271.102,-6.75268e-11,0,1275,1275
271.152,-8.65541e-11,0,1331,1331
271.202,-1.00736e-10,0,1391,1391
271.251,-1.06585e-10,0,1433,1433
271.301,-1.02306e-10,0,1493,1493
271.351,-8.83269e-11,0,1541,1541
271.401,-6.70008e-11,0,1591,1591
271.451,-4.16772e-11,0,1635,1635
271.5,-1.56386e-11,0,1649,1649
271.55,8.6485e-12,0,1654,1654
271.603,3.09092e-11,0,1644,1644
271.653,4.81627e-11,0,1651,1651
271.702,6.18556e-11,0,1661,1661
271.752,7.23994e-11,0,1695,1695
271.802,8.03533e-11,0,1729,1729
271.852,8.63316e-11,0,1775,1775
271.902,9.09146e-11,0,1831,1831
271.951,9.45609e-11,0,1889,1889
272.001,9.75602e-11,0,1925,1925
272.051,1.00055e-10,0,1981,1981
272.101,1.02115e-10,0,2031,2031
272.151,1.0381e-10,0,2099,2099
272.2,1.05231e-10,0,2127,2127
272.25,1.06474e-10,0,2181,2181
272.303,1.07673e-10,0,2241,2241
272.353,1.08788e-10,0,2309,2309
272.403,1.10183e-10,0,2339,2339
272.452,1.12745e-10,0,2391,2391
272.502,1.1871e-10,0,2451,2451
272.552,1.32928e-10,0,2505,2505
272.602,1.64755e-10,0,2549,2549
272.651,2.30413e-10,0,2603,2603
272.701,3.55297e-10,0,2655,2655
272.751,5.75372e-10,0,2699,2699
272.801,9.36656e-10,0,2749,2749
272.851,1.49206e-09,0,2813,2813
272.9,2.29555e-09,0,2843,2843
272.95,3.39434e-09,0,2899,2899
273,4.82089e-09,0,2961,2961
273.053,6.70099e-09,0,2993,2993
273.103,8.82025e-09,0,3041,3041
273.152,1.14167e-08,0,3049,3049
273.202,1.52997e-08,0,3065,3065
273.252,1.96403e-08,0,3067,3067
273.302,2.42822e-08,0,3071,3071
273.352,2.86711e-08,0,3081,3081
273.401,3.32984e-08,0,3097,3097
273.451,3.81729e-08,0,3109,3109
273.501,4.40325e-08,0,3102,3102
273.551,5.15795e-08,0,3098,3098
273.601,5.99764e-08,0,3092,3092
273.65,6.91617e-08,0,3100,3100
273.7,7.83611e-08,0,3104,3104
273.753,9.78991e-08,0,3094,3094
273.803,1.17435e-07,0,3088,3088
273.852,1.484e-07,0,3066,3066
273.902,1.83931e-07,0,3074,3074
273.952,2.24403e-07,0,3078,3078
274.002,2.68974e-07,0,3064,3064
274.052,3.16644e-07,0,3068,3068
274.101,3.6647e-07,0,3066,3066
274.151,4.18055e-07,0,3056,3056
274.201,4.71964e-07,0,3054,3054
274.251,5.28449e-07,0,3050,3050
274.301,5.86746e-07,0,3044,3044
274.35,6.4463e-07,0,3044,3044
274.4,6.98815e-07,0,3042,3042
274.45,7.46334e-07,0,3030,3030
274.503,7.87024e-07,0,3024,3024
274.553,8.15525e-07,0,3024,3024
274.602,8.34774e-07,0,3018,3018
274.652,8.45546e-07,0,3014,3014
274.702,8.49762e-07,0,3002,3002
274.752,8.49513e-07,0,3016,3016
274.802,8.47654e-07,0,3012,3012
274.851,8.44479e-07,0,3016,3016
274.901,8.40067e-07,0,3008,3008
274.952,8.32472e-07,0,3008,3008
275.002,8.22139e-07,0,3020,3020
275.053,7.87816e-07,0,3008,3008
275.1,7.51347e-07,0,3008,3008
275.151,7.08278e-07,0,2992,2992
275.202,6.6046e-07,0,3006,3006
275.25,6.12296e-07,0,2986,2986
275.301,5.59977e-07,0,3014,3014
275.353,5.08722e-07,0,3004,3004
275.401,4.62861e-07,0,3010,3010
275.453,4.17387e-07,0,2990,2990
275.502,3.77743e-07,0,2974,2974
275.551,3.40859e-07,0,2984,2984
275.6,3.06358e-07,0,2974,2974
275.652,2.71796e-07,0,2962,2962
275.702,2.41007e-07,0,2954,2954
275.752,2.12174e-07,0,2948,2948
275.801,1.86094e-07,0,2934,2934
275.851,1.63736e-07,0,2932,2932
275.902,1.45554e-07,0,2926,2926
275.952,1.30868e-07,0,2904,2904
276.002,1.18069e-07,0,2914,2914
276.053,1.05613e-07,0,2898,2898
276.1,9.37325e-08,0,2918,2918
276.151,8.13943e-08,0,2896,2896
276.202,7.04407e-08,0,2890,2890
276.251,6.20657e-08,0,2894,2894
276.302,5.50619e-08,0,2896,2896
276.35,4.97432e-08,0,2872,2872
276.402,4.47443e-08,0,2880,2880
276.451,4.01214e-08,0,2858,2858
276.503,3.67697e-08,0,2856,2856
276.552,3.32939e-08,0,2858,2858
276.601,2.97682e-08,0,2860,2860
276.651,2.6695e-08,0,2868,2868
276.7,2.45955e-08,0,2848,2848
276.753,2.3328e-08,0,2840,2840
276.803,2.22102e-08,0,2848,2848
276.853,2.21171e-08,0,2834,2834
276.903,2.206e-08,0,2828,2828
276.95,2.19778e-08,0,2826,2826
277.001,2.19196e-08,0,2826,2826
277.051,2.18748e-08,0,2806,2806
277.102,2.1802e-08,0,2824,2824
277.153,2.17081e-08,0,2822,2822
277.201,2.16151e-08,0,2812,2812
277.252,2.1506e-08,0,2826,2826
277.301,2.13977e-08,0,2830,2830
277.352,2.12722e-08,0,2812,2812
277.401,2.11448e-08,0,2834,2834
277.453,2.09968e-08,0,2820,2820
277.501,2.08421e-08,0,2806,2806
277.55,2.0668e-08,0,2828,2828
277.603,2.0459e-08,0,2812,2812
277.652,2.02419e-08,0,2796,2796
277.702,2.0002e-08,0,2806,2806
277.751,1.97356e-08,0,2786,2786
277.801,1.9439e-08,0,2764,2764
277.852,1.91103e-08,0,2784,2784
277.902,1.87494e-08,0,2772,2772
277.952,1.83558e-08,0,2748,2748
278.003,1.79302e-08,0,2754,2754
278.05,1.75093e-08,0,2740,2740
278.101,1.70348e-08,0,2724,2724
278.153,1.65436e-08,0,2726,2726
278.201,1.60777e-08,0,2738,2738
278.252,1.55667e-08,0,2702,2702
278.301,1.50846e-08,0,2725,2725
278.353,1.45608e-08,0,2707,2707
278.401,1.40738e-08,0,2687,2687
278.453,1.35527e-08,0,2683,2683
278.502,1.30758e-08,0,2669,2669
278.55,1.26091e-08,0,2657,2657
278.603,1.21229e-08,0,2655,2655
278.651,1.169e-08,0,2647,2647
278.704,1.12472e-08,0,2651,2651
278.753,1.086e-08,0,2675,2675
278.802,1.04978e-08,0,2649,2649
278.85,1.01619e-08,0,2623,2623
278.903,9.83e-09,0,2617,2617
278.952,9.54953e-09,0,2599,2599
279.002,9.29536e-09,0,2579,2579
279.051,9.06672e-09,0,2561,2561
279.1,8.86228e-09,0,2541,2541
279.153,8.66734e-09,0,2503,2503
279.203,8.50793e-09,0,2471,2471
279.252,8.36746e-09,0,2443,2443
279.302,8.2443e-09,0,2401,2401
279.352,8.13716e-09,0,2353,2353
279.401,8.04467e-09,0,2317,2317
279.451,7.96559e-09,0,2313,2313
279.501,7.8986e-09,0,2263,2263
279.551,7.84245e-09,0,2227,2227
279.601,7.79595e-09,0,2175,2175
279.652,7.758e-09,0,2107,2107
279.702,7.72767e-09,0,2027,2027
279.753,7.70421e-09,0,1983,1983
279.804,7.68687e-09,0,1929,1929
279.85,7.67566e-09,0,1881,1881
279.901,7.66811e-09,0,1811,1811
279.952,7.66469e-09,0,1749,1749
280.003,7.6648e-09,0,1691,1691
280.051,7.66757e-09,0,1669,1669
280.102,7.67308e-09,0,1631,1631
280.153,7.68081e-09,0,1547,1547
280.2,7.68987e-09,0,1415,1415
280.252,7.70154e-09,0,1241,1241
280.3,7.71396e-09,0,1285,1285
280.352,7.72852e-09,0,1485,1485
280.403,7.74411e-09,0,1513,1513
280.451,7.75911e-09,0,1595,1595
280.502,7.77574e-09,0,1631,1631
280.554,7.79257e-09,0,1655,1655
280.601,7.80815e-09,0,1709,1709
280.652,7.82495e-09,0,1749,1749
280.704,7.84164e-09,0,1783,1783
280.751,7.85693e-09,0,1817,1817
280.802,7.87335e-09,0,1851,1851
280.853,7.88965e-09,0,1893,1893
280.9,7.90459e-09,0,1913,1913
280.951,7.9207e-09,0,1935,1935
281.002,7.93678e-09,0,1971,1971
281.053,7.9529e-09,0,1999,1999
281.103,7.96917e-09,0,2029,2029
281.154,7.98571e-09,0,2067,2067
281.2,8.00134e-09,0,2099,2099
281.251,8.01885e-09,0,2133,2133
281.301,8.03715e-09,0,2159,2159
281.352,8.05649e-09,0,2191,2191
281.402,8.07717e-09,0,2247,2247
281.452,8.0996e-09,0,2281,2281
281.502,8.12423e-09,0,2313,2313
281.552,8.15165e-09,0,2351,2351
281.602,8.18251e-09,0,2387,2387
281.652,8.21758e-09,0,2437,2437
281.702,8.2577e-09,0,2477,2477
281.751,8.30386e-09,0,2503,2503
281.801,8.35717e-09,0,2539,2539
281.851,8.41889e-09,0,2543,2543
281.9,8.49051e-09,0,2523,2523
281.953,8.58071e-09,0,2547,2547
282.003,8.67873e-09,0,2551,2551
282.052,8.79296e-09,0,2565,2565
282.101,8.92628e-09,0,2591,2591
282.151,9.08205e-09,0,2599,2599
282.203,9.27968e-09,0,2623,2623
282.252,9.49626e-09,0,2649,2649
282.301,9.75071e-09,0,2647,2647
282.35,1.00502e-08,0,2651,2651
282.403,1.04323e-08,0,2689,2689
282.452,1.08524e-08,0,2693,2693
282.5,1.13455e-08,0,2699,2699
282.553,1.19705e-08,0,2723,2723
282.601,1.26496e-08,0,2715,2715
282.653,1.34991e-08,0,2721,2721
282.702,1.44071e-08,0,2727,2727
282.75,1.54376e-08,0,2737,2737
282.802,1.66897e-08,0,2749,2749
282.85,1.7983e-08,0,2747,2747
282.902,1.95149e-08,0,2761,2761
282.953,2.11853e-08,0,2757,2757
283.001,2.28535e-08,0,2769,2769
283.052,2.47691e-08,0,2783,2783
283.102,2.67994e-08,0,2795,2795
283.153,2.89385e-08,0,2805,2805
283.204,3.11817e-08,0,2807,2807
283.25,3.33516e-08,0,2817,2817
283.3,3.59298e-08,0,2805,2805
283.35,4.04276e-08,0,2800,2800
283.403,4.51213e-08,0,2806,2806
283.453,4.92502e-08,0,2820,2820
283.502,5.35304e-08,0,2804,2804
283.551,5.76839e-08,0,2830,2830
283.6,6.19633e-08,0,2836,2836
283.652,6.66006e-08,0,2846,2846
283.701,7.09809e-08,0,2834,2834
283.753,7.57885e-08,0,2854,2854
283.801,8.03229e-08,0,2870,2870
283.853,8.52953e-08,0,2854,2854
283.9,9.00288e-08,0,2876,2876
283.952,9.52278e-08,0,2864,2864
284.002,1.02048e-07,0,2886,2886
284.053,1.0882e-07,0,2878,2878
284.1,1.15151e-07,0,2892,2892
284.151,1.22049e-07,0,2894,2894
284.201,1.2918e-07,0,2886,2886
284.251,1.36629e-07,0,2908,2908
284.301,1.44349e-07,0,2904,2904
284.35,1.52425e-07,0,2910,2910
284.403,1.61384e-07,0,2918,2918
284.453,1.70132e-07,0,2926,2926
284.502,1.79221e-07,0,2936,2936
284.551,1.88624e-07,0,2938,2938
284.603,2.10934e-07,0,2956,2956
284.651,2.40815e-07,0,2936,2936
284.703,2.72813e-07,0,2960,2960
284.751,3.04816e-07,0,2952,2952
284.803,3.41579e-07,0,2964,2964
284.851,3.78232e-07,0,2968,2968
284.902,4.19245e-07,0,2958,2958
284.952,4.61711e-07,0,2962,2962
285.003,5.05036e-07,0,2964,2964
285.05,5.45816e-07,0,2992,2992
285.101,5.88484e-07,0,2982,2982
285.151,6.2937e-07,0,2986,2986
285.201,6.67308e-07,0,3004,3004
285.251,7.01281e-07,0,3000,3000
285.3,7.30415e-07,0,3006,3006
285.353,7.55037e-07,0,3030,3030
285.402,7.71636e-07,0,3032,3032
285.451,7.81451e-07,0,3032,3032
285.5,7.85375e-07,0,3064,3064
285.552,7.83684e-07,0,3058,3058
285.601,7.80246e-07,0,3066,3066
285.652,7.74654e-07,0,3064,3064
285.701,7.67684e-07,0,3076,3076
285.752,7.58371e-07,0,3096,3096
285.803,7.29133e-07,0,3092,3092
285.851,6.97954e-07,0,3104,3104
285.901,6.61479e-07,0,3118,3118
285.952,6.2129e-07,0,3124,3124
286.002,5.77637e-07,0,3118,3118
286.052,5.31196e-07,0,3128,3128
286.103,4.82899e-07,0,3154,3154
286.152,4.33876e-07,0,3152,3152
286.202,3.85164e-07,0,3164,3164
286.252,3.37576e-07,0,3170,3170
286.302,2.91779e-07,0,3174,3174
286.352,2.48331e-07,0,3184,3184
286.401,2.0758e-07,0,3176,3176
286.451,1.69791e-07,0,3190,3190
286.501,1.35099e-07,0,3202,3202
286.551,1.03518e-07,0,3201,3201
286.601,7.50343e-08,0,3197,3197
286.65,4.95394e-08,0,3195,3195
286.7,2.69313e-08,0,3199,3199
286.753,5.96538e-09,0,3197,3197
286.803,-1.12258e-08,0,3193,3193
286.853,-2.6085e-08,0,3201,3201
286.902,-3.88395e-08,0,3183,3183
286.952,-4.96689e-08,0,3195,3195
287.002,-5.87211e-08,0,3169,3169
287.052,-6.60968e-08,0,3163,3163
287.102,-7.18737e-08,0,3159,3159
287.151,-7.62484e-08,0,3177,3177
287.201,-7.70418e-08,0,3181,3181
287.251,-7.68759e-08,0,3149,3149
287.301,-7.65142e-08,0,3137,3137
287.35,-7.59194e-08,0,3127,3127
287.4,-7.50651e-08,0,3115,3115
287.45,-7.39667e-08,0,3111,3111
287.503,-7.25527e-08,0,3093,3093
287.553,-7.09925e-08,0,3085,3085
287.602,-6.92328e-08,0,3067,3067
287.652,-6.72928e-08,0,3057,3057
287.702,-6.51969e-08,0,3053,3053
287.752,-6.29578e-08,0,3029,3029
287.802,-6.05884e-08,0,3031,3031
287.851,-5.81233e-08,0,2973,2973
287.901,-5.55866e-08,0,2929,2929
287.951,-5.16404e-08,0,2881,2881
288.001,-4.78292e-08,0,2839,2839
288.051,-4.45238e-08,0,2793,2793
288.1,-4.13384e-08,0,2733,2733
288.15,-3.84539e-08,0,2687,2687
288.203,-3.55776e-08,0,2623,2623
288.253,-3.30387e-08,0,2589,2589
288.302,-3.06666e-08,0,2523,2523
288.352,-2.84504e-08,0,2479,2479
288.402,-2.63918e-08,0,2419,2419
288.452,-2.44843e-08,0,2371,2371
288.502,-2.27325e-08,0,2315,2315
288.551,-2.11429e-08,0,2259,2259
288.601,-1.97322e-08,0,2193,2193
288.651,-1.85165e-08,0,2157,2157
288.701,-1.73941e-08,0,2087,2087
288.751,-1.6441e-08,0,2090,2090
288.8,-1.55922e-08,0,2080,2080
288.85,-1.47812e-08,0,2093,2093
288.9,-1.40454e-08,0,2085,2085
288.953,-1.33356e-08,0,2067,2067
289.003,-1.27232e-08,0,2041,2041
289.052,-1.21686e-08,0,1977,1977
289.102,-1.16868e-08,0,1913,1913
289.152,-1.12551e-08,0,1873,1873
289.202,-1.08732e-08,0,1817,1817
289.252,-1.05477e-08,0,1757,1757
289.301,-1.02775e-08,0,1705,1705
289.351,-1.00584e-08,0,1663,1663
289.401,-9.8839e-09,0,1607,1607
289.451,-9.7474e-09,0,1547,1547
289.501,-9.64402e-09,0,1495,1495
289.55,-9.57119e-09,0,1439,1439
289.6,-9.52691e-09,0,1385,1385
289.653,-9.508e-09,0,1317,1317
289.703,-9.51284e-09,0,1257,1257
289.752,-9.53587e-09,0,1197,1197
289.802,-9.57352e-09,0,1143,1143
289.852,-9.62264e-09,0,1079,1079
289.902,-9.68054e-09,0,1015,1015
289.952,-9.74486e-09,0,957,957
290.001,-9.81345e-09,0,903,903
290.051,-9.88431e-09,0,845,845
290.101,-9.95575e-09,0,789,789
290.151,-1.00263e-08,0,737,737
290.201,-1.00949e-08,0,681,681
290.25,-1.01604e-08,0,625,625
290.3,-1.02222e-08,0,575,575
290.351,-1.02809e-08,0,525,525
290.408,-1.03429e-08,0,512,512
290.455,-1.03905e-08,0,512,512
290.502,-1.04355e-08,0,512,512
290.56,-1.0489e-08,0,512,512
290.607,-1.05299e-08,0,512,512
290.654,-1.05693e-08,0,512,512
290.701,-1.06072e-08,0,512,512
290.76,-1.06522e-08,0,512,512
290.806,-1.06865e-08,0,512,512
290.853,-1.07196e-08,0,512,512
290.9,-1.07522e-08,0,512,512
290.959,-1.07936e-08,0,512,512
291.006,-1.0828e-08,0,512,512
291.052,-1.08642e-08,0,512,512
291.111,-1.09121e-08,0,512,512
291.158,-1.09531e-08,0,512,512
291.205,-1.09973e-08,0,512,512
291.252,-1.10461e-08,0,512,512
291.31,-1.11156e-08,0,512,512
291.357,-1.11801e-08,0,512,512
291.404,-1.12542e-08,0,512,512
291.451,-1.1339e-08,0,512,512
291.509,-1.14619e-08,0,512,512
291.556,-1.15745e-08,0,512,512
291.603,-1.17005e-08,0,512,512
291.65,-1.184e-08,0,512,512
291.709,-1.20332e-08,0,512,512
291.755,-1.22025e-08,0,512,512
291.802,-1.23844e-08,0,512,512
291.861,-1.26289e-08,0,512,512
291.908,-1.2838e-08,0,512,512
291.955,-1.3059e-08,0,512,512
292.002,-1.32919e-08,0,512,512
292.06,-1.35995e-08,0,512,512
292.107,-1.38583e-08,0,512,512
292.154,-1.41278e-08,0,512,512
292.201,-1.44069e-08,0,512,512
292.259,-1.47679e-08,0,512,512
292.306,-1.5065e-08,0,512,512
292.353,-1.53682e-08,0,512,512
292.412,-1.57542e-08,0,512,512
292.459,-1.60673e-08,0,512,512
292.505,-1.6383e-08,0,512,512
292.552,-1.67005e-08,0,512,512
292.611,-1.7098e-08,0,512,512
292.658,-1.74154e-08,0,512,512
292.705,-1.77311e-08,0,512,512
292.751,-1.80443e-08,0,512,512
292.81,-1.84306e-08,0,512,512
292.857,-1.87343e-08,0,512,512
292.904,-1.90323e-08,0,512,512
292.951,-1.93235e-08,0,512,512
293.009,-1.96762e-08,0,512,512
293.056,-1.99479e-08,0,512,512
293.103,-2.02092e-08,0,512,512
293.162,-2.05193e-08,0,512,512
293.208,-2.07529e-08,0,512,512
293.255,-2.09724e-08,0,512,512
293.302,-2.11768e-08,0,512,512
293.361,-2.14095e-08,0,512,512
293.408,-2.15763e-08,0,512,512
293.454,-2.17252e-08,0,512,512
293.501,-2.18556e-08,0,512,512
293.56,-2.19922e-08,0,512,512
293.607,-2.20804e-08,0,512,512
293.654,-2.21504e-08,0,512,512
293.701,-2.22026e-08,0,512,512
293.759,-2.22439e-08,0,512,512
293.806,-2.22586e-08,0,512,512
293.853,-2.22577e-08,0,512,512
293.911,-2.22359e-08,0,512,512
293.958,-2.22028e-08,0,512,512
294.005,-2.2157e-08,0,512,512
294.052,-2.20992e-08,0,512,512
294.111,-2.2012e-08,0,512,512
294.157,-2.19315e-08,0,512,512
294.204,-2.18427e-08,0,512,512
294.251,-2.17468e-08,0,512,512
294.31,-2.16186e-08,0,512,512
294.357,-2.15109e-08,0,512,512
294.404,-2.13997e-08,0,512,512
294.45,-2.1286e-08,0,512,512
294.509,-2.11416e-08,0,512,512
294.556,-2.10251e-08,0,512,512
294.603,-2.09085e-08,0,512,512
294.661,-2.07633e-08,0,512,512
294.708,-2.0648e-08,0,512,512
294.755,-2.05339e-08,0,512,512
294.802,-2.04212e-08,0,512,512
294.861,-2.02826e-08,0,512,512
294.907,-2.01738e-08,0,512,512
294.954,-2.00671e-08,0,512,512
295.001,-1.99623e-08,0,512,512
295.06,-1.98345e-08,0,512,512
295.107,-1.97348e-08,0,512,512
295.153,-1.96373e-08,0,512,512
295.2,-1.95421e-08,0,512,512
295.259,-1.94265e-08,0,512,512
295.306,-1.93366e-08,0,512,512
295.353,-1.9249e-08,0,512,512
295.411,-1.91427e-08,0,512,512
295.458,-1.90601e-08,0,512,512
295.505,-1.89797e-08,0,512,512
295.552,-1.89013e-08,0,512,512
295.61,-1.8806e-08,0,512,512
295.657,-1.87318e-08,0,512,512
295.704,-1.86591e-08,0,512,512
295.751,-1.8588e-08,0,512,512
295.81,-1.85009e-08,0,512,512
295.856,-1.84325e-08,0,512,512
295.903,-1.8365e-08,0,512,512
295.95,-1.82984e-08,0,512,512
296.009,-1.8216e-08,0,512,512
296.056,-1.81506e-08,0,512,512
296.103,-1.80855e-08,0,512,512
296.161,-1.80044e-08,0,512,512
296.208,-1.79395e-08,0,512,512
296.255,-1.78744e-08,0,512,512
296.302,-1.7809e-08,0,512,512
296.36,-1.77265e-08,0,512,512
296.407,-1.76599e-08,0,512,512
296.454,-1.75925e-08,0,512,512
296.501,-1.75241e-08,0,512,512
296.559,-1.74371e-08,0,512,512
296.606,-1.73661e-08,0,512,512
296.653,-1.72937e-08,0,512,512
296.7,-1.72198e-08,0,512,512
296.759,-1.71249e-08,0,512,512
296.806,-1.70468e-08,0,512,512
296.852,-1.69666e-08,0,512,512
296.911,-1.68631e-08,0,512,512
296.958,-1.67776e-08,0,512,512
297.005,-1.66895e-08,0,512,512
297.052,-1.65985e-08,0,512,512
297.11,-1.64805e-08,0,512,512
297.157,-1.63826e-08,0,512,512
297.204,-1.62813e-08,0,512,512
297.251,-1.61765e-08,0,512,512
297.309,-1.60404e-08,0,512,512
297.356,-1.59271e-08,0,512,512
297.403,-1.58098e-08,0,512,512
297.462,-1.56574e-08,0,512,512
297.509,-1.55305e-08,0,512,512
297.555,-1.53993e-08,0,512,512
297.602,-1.52635e-08,0,512,512
297.661,-1.5087e-08,0,512,512
297.708,-1.49403e-08,0,512,512
297.755,-1.47886e-08,0,512,512
297.801,-1.46317e-08,0,512,512
297.86,-1.4428e-08,0,512,512
297.907,-1.42587e-08,0,512,512
297.954,-1.40835e-08,0,512,512
298.001,-1.39023e-08,0,512,512
298.059,-1.36666e-08,0,512,512
298.106,-1.34705e-08,0,512,512
298.153,-1.32671e-08,0,512,512
298.212,-1.30022e-08,0,512,512
298.258,-1.2781e-08,0,512,512
298.305,-1.25512e-08,0,512,512
298.352,-1.23122e-08,0,512,512
298.411,-1.19997e-08,0,512,512
298.458,-1.1738e-08,0,512,512
298.505,-1.14653e-08,0,512,512
298.551,-1.1181e-08,0,512,512
298.61,-1.08086e-08,0,512,512
298.657,-1.04965e-08,0,512,512
298.704,-1.01714e-08,0,512,512
298.751,-9.83297e-09,0,512,512
298.809,-9.39091e-09,0,512,512
298.856,-9.02198e-09,0,512,512
298.903,-8.63958e-09,0,512,512
298.961,-8.14302e-09,0,512,512
299.008,-7.73148e-09,0,512,512
299.055,-7.30791e-09,0,512,512
299.102,-6.87312e-09,0,512,512
299.161,-6.3154e-09,0,512,512
299.208,-5.85927e-09,0,512,512
299.254,-5.39579e-09,0,512,512
299.301,-4.92647e-09,0,512,512
299.36,-4.33416e-09,0,512,512
299.407,-3.85797e-09,0,512,512
299.454,-3.38174e-09,0,512,512
299.5,-2.90745e-09,0,512,512
299.559,-2.32036e-09,0,512,512
299.606,-1.85776e-09,0,512,512
299.653,-1.40361e-09,0,512,512
299.711,-8.50775e-10,0,512,512
299.758,-4.22652e-10,0,512,512
299.805,-9.00074e-12,0,512,512
299.852,3.88562e-10,0,512,512
299.911,8.60666e-10,0,512,512
299.957,1.21691e-09,0,512,512
300.004,1.5529e-09,0,512,512
300.051,1.86776e-09,0,512,512
300.11,2.23056e-09,0,512,512
300.157,2.49562e-09,0,512,512
300.203,2.738e-09,0,512,512
300.25,2.95766e-09,0,512,512
300.309,3.20049e-09,0,512,512
300.356,3.36976e-09,0,512,512
300.403,3.51736e-09,0,512,512
300.461,3.6724e-09,0,512,512
300.508,3.77386e-09,0,512,512
300.555,3.85627e-09,0,512,512
300.602,3.92066e-09,0,512,512
300.66,3.97751e-09,0,512,512
300.707,4.00553e-09,0,512,512
300.754,4.01936e-09,0,512,512
300.801,4.02026e-09,0,512,512
300.86,4.00514e-09,0,512,512
300.906,3.98157e-09,0,512,512
300.953,3.94916e-09,0,512,512
301,3.90912e-09,0,512,512
301.059,3.85008e-09,0,512,512
301.106,3.79703e-09,0,512,512
301.153,3.73992e-09,0,512,512
301.211,3.66429e-09,0,512,512
301.258,3.60149e-09,0,512,512
301.305,3.53752e-09,0,512,512
301.352,3.47309e-09,0,512,512
301.41,3.39288e-09,0,512,512
301.457,3.32966e-09,0,512,512
301.504,3.26776e-09,0,512,512
301.551,3.20756e-09,0,512,512
301.61,3.13516e-09,0,512,512
301.656,3.07976e-09,0,512,512
301.703,3.02675e-09,0,512,512
301.75,2.97618e-09,0,512,512
301.809,2.9164e-09,0,512,512
301.856,2.87122e-09,0,512,512
301.902,2.82826e-09,0,512,512
301.961,2.77743e-09,0,512,512
302.008,2.7388e-09,0,512,512
302.055,2.70174e-09,0,512,512
302.102,2.666e-09,0,512,512
302.16,2.6228e-09,0,512,512
302.207,2.58913e-09,0,512,512
302.254,2.55601e-09,0,512,512
302.301,2.52324e-09,0,512,512
302.359,2.48252e-09,0,512,512
302.406,2.44998e-09,0,512,512
302.453,2.41738e-09,0,512,512
302.5,2.38469e-09,0,512,512
302.559,2.34371e-09,0,512,512
302.605,2.3109e-09,0,512,512
302.652,2.2782e-09,0,512,512
302.711,2.23767e-09,0,512,512
302.758,2.20576e-09,0,512,512
302.805,2.17453e-09,0,512,512
302.852,2.14422e-09,0,512,512
302.91,2.108e-09,0,512,512
302.957,2.08065e-09,0,512,512
303.004,2.05502e-09,0,512,512
303.051,2.03136e-09,0,512,512
303.109,2.00485e-09,0,512,512
303.156,1.98633e-09,0,512,512
303.203,1.97037e-09,0,512,512
303.262,1.95418e-09,0,512,512
303.308,1.94434e-09,0,512,512
303.355,1.93729e-09,0,512,512
303.402,1.93301e-09,0,512,512
303.461,1.93147e-09,0,512,512
303.508,1.93316e-09,0,512,512
303.555,1.93731e-09,0,512,512
303.601,1.94375e-09,0,512,512
303.66,1.95471e-09,0,512,512
303.707,1.96555e-09,0,512,512
303.754,1.97797e-09,0,512,512
303.801,1.99174e-09,0,512,512
303.859,2.01046e-09,0,512,512
303.906,2.02635e-09,0,512,512
303.953,2.0428e-09,0,512,512
304.012,2.06381e-09,0,512,512
304.058,2.08072e-09,0,512,512
304.105,2.0975e-09,0,512,512
304.152,2.114e-09,0,512,512
304.211,2.13398e-09,0,512,512
304.258,2.14929e-09,0,512,512
304.304,2.16387e-09,0,512,512
304.351,2.17763e-09,0,512,512
304.41,2.19355e-09,0,512,512
304.457,2.20518e-09,0,512,512
304.504,2.21579e-09,0,512,512
304.55,2.22533e-09,0,512,512
304.609,2.23571e-09,0,512,512
304.656,2.24276e-09,0,512,512
304.703,2.24868e-09,0,512,512
304.761,2.25448e-09,0,512,512
304.808,2.25784e-09,0,512,512
304.855,2.26007e-09,0,512,512
304.902,2.26118e-09,0,512,512
304.961,2.261e-09,0,512,512
