250,0,0,8192,8192
250.003,0,0,8192,8192
250.053,0,0,8192,8192
250.103,0,0,8192,8192
250.152,0,0,8192,8192
250.202,0,0,8192,8192
250.252,2.77556e-17,0,8192,8192
250.302,0,0,8192,8192
250.352,0,0,8192,8192
250.401,0,0,8192,8192
250.451,0,0,8192,8192
250.501,0,0,8192,8192
250.551,0,0,8192,8192
250.6,0,0,8192,8192
250.65,2.77556e-17,0,8192,8192
250.7,0,0,8192,8192
250.753,0,0,8192,8192
250.803,0,0,8192,8192
250.852,0,0,8192,8192
250.902,2.77556e-17,0,8192,8192
250.952,0,0,8192,8192
251.002,2.77556e-17,0,8192,8192
251.052,2.77556e-17,0,8192,8192
251.101,2.77556e-17,0,8192,8192
251.151,2.77556e-17,0,8192,8192
251.201,2.77556e-17,0,8192,8192
251.251,2.77556e-17,0,8192,8192
251.301,2.77556e-17,0,8192,8192
251.35,2.77556e-17,0,8192,8192
251.4,0,0,8192,8192
251.453,-2.77556e-17,0,8192,8192
251.503,-2.77556e-17,0,8192,8192
251.553,2.77556e-17,0,8192,8192
251.602,2.77556e-17,0,8192,8192
251.652,2.77556e-17,0,8192,8192
251.702,5.55112e-17,0,8192,8192
251.752,5.55112e-17,0,8192,8192
251.801,5.55112e-17,0,8192,8192
251.851,5.55112e-17,0,8192,8192
251.901,5.55112e-17,0,8192,8192
251.951,5.55112e-17,0,8192,8192
252.001,2.77556e-17,0,8192,8192
252.05,2.77556e-17,0,8192,8192
252.1,2.77556e-17,0,8192,8192
252.15,-2.77556e-17,0,8192,8192
252.203,-2.77556e-17,0,8192,8192
252.253,-5.55112e-17,0,8192,8192
252.302,-2.77556e-17,0,8192,8192
252.352,-5.55112e-17,0,8192,8192
252.402,0,0,8192,8192
252.452,-2.77556e-17,0,8192,8192
252.502,-2.77556e-17,0,8192,8192
252.551,2.77556e-17,0,8192,8192
252.601,2.77556e-17,0,8192,8192
252.651,5.55112e-17,0,8192,8192
252.701,2.77556e-17,0,8192,8192
252.751,2.77556e-17,0,8192,8192
252.8,0,0,8192,8192
252.85,-2.77556e-17,0,8192,8192
252.903,-5.55112e-17,0,8192,8192
252.953,-5.55112e-17,0,8192,8192
253.002,-2.77556e-17,0,8192,8192
253.052,-2.77556e-17,0,8192,8192
253.102,-5.55112e-17,0,8192,8192
253.152,-5.55112e-17,0,8192,8192
253.202,-2.77556e-17,0,8192,8192
253.251,-2.77556e-17,0,8192,8192
253.301,0,0,8192,8192
253.351,2.77556e-17,0,8192,8192
253.401,0,0,8192,8192
253.451,2.77556e-17,0,8192,8192
253.5,5.55112e-17,0,8192,8192
253.55,5.55112e-17,0,8192,8192
253.6,5.55112e-17,0,8192,8192
253.653,2.77556e-17,0,8192,8192
253.703,2.77556e-17,0,8192,8192
253.752,2.77556e-17,0,8192,8192
253.802,2.77556e-17,0,8192,8192
253.852,2.77556e-17,0,8192,8192
253.902,-5.55112e-17,0,8192,8192
253.952,-2.77556e-17,0,8192,8192
254.001,0,0,8192,8192
254.051,-2.77556e-17,0,8192,8192
254.101,-2.77556e-17,0,8192,8192
254.151,-2.77556e-17,0,8192,8192
254.201,-2.77556e-17,0,8192,8192
254.25,-2.77556e-17,0,8192,8192
254.3,-2.77556e-17,0,8192,8192
254.353,-2.77556e-17,0,8192,8192
254.403,-5.55112e-17,0,8192,8192
254.452,-2.77556e-17,0,8192,8192
254.502,2.77556e-17,0,8192,8192
254.552,8.32667e-17,0,8192,8192
254.602,5.55112e-17,0,8192,8192
254.652,2.77556e-17,0,8192,8192
254.701,2.77556e-17,0,8192,8192
254.751,2.77556e-17,0,8192,8192
254.801,0,0,8192,8192
254.851,2.77556e-17,0,8192,8192
254.901,5.55112e-17,0,8192,8192
254.95,5.55112e-17,0,8192,8192
255,8.32667e-17,0,8192,8192
255.05,2.77556e-17,0,8192,8192
255.103,5.55112e-17,0,8192,8192
255.153,5.55112e-17,0,8192,8192
255.202,5.55112e-17,0,8192,8192
255.252,8.32667e-17,0,8192,8192
255.302,8.32667e-17,0,8192,8192
255.352,8.32667e-17,0,8192,8192
255.402,8.32667e-17,0,8192,8192
255.451,8.32667e-17,0,8192,8192
255.501,8.32667e-17,0,8192,8192
255.551,5.55112e-17,0,8192,8192
255.601,5.55112e-17,0,8192,8192
255.651,5.55112e-17,0,8192,8192
255.7,5.55112e-17,0,8192,8192
255.75,5.55112e-17,0,8192,8192
255.803,2.77556e-17,0,8192,8192
255.853,-2.77556e-17,0,8192,8192
255.902,0,0,8192,8192
255.952,-2.77556e-17,0,8192,8192
256.002,-2.77556e-17,0,8192,8192
256.052,-2.77556e-17,0,8192,8192
256.102,-2.77556e-17,0,8192,8192
256.151,-5.55112e-17,0,8192,8192
256.201,-5.55112e-17,0,8192,8192
256.251,-8.32667e-17,0,8192,8192
256.301,-8.32667e-17,0,8192,8192
256.351,-5.55112e-17,0,8192,8192
256.4,-2.77556e-17,0,8192,8192
256.45,-2.77556e-17,0,8192,8192
256.5,-5.55112e-17,0,8192,8192
256.553,-5.55112e-17,0,8192,8192
256.603,-2.77556e-17,0,8192,8192
256.652,-5.55112e-17,0,8192,8192
256.702,-5.55112e-17,0,8192,8192
256.752,0,0,8192,8192
256.802,-2.77556e-17,0,8192,8192
256.852,-2.77556e-17,0,8192,8192
256.901,-2.77556e-17,0,8192,8192
256.951,-2.77556e-17,0,8192,8192
257.001,-2.77556e-17,0,8192,8192
257.051,0,0,8192,8192
257.101,0,0,8192,8192
257.15,0,0,8192,8192
257.2,5.55112e-17,0,8192,8192
257.253,0,0,8192,8192
257.303,-2.77556e-17,0,8192,8192
257.352,-2.77556e-17,0,8192,8192
257.402,2.77556e-17,0,8192,8192
257.452,5.55112e-17,0,8192,8192
257.502,5.55112e-17,0,8192,8192
257.552,8.32667e-17,0,8192,8192
257.601,5.55112e-17,0,8192,8192
257.651,5.55112e-17,0,8192,8192
257.701,2.77556e-17,0,8192,8192
257.751,0,0,8192,8192
257.801,-2.77556e-17,0,8192,8192
257.85,-2.77556e-17,0,8192,8192
257.9,-2.77556e-17,0,8192,8192
257.95,-2.77556e-17,0,8192,8192
258.003,-2.77556e-17,0,8192,8192
258.053,0,0,8192,8192
258.102,0,0,8192,8192
258.152,-2.77556e-17,0,8192,8192
258.202,-5.55112e-17,0,8192,8192
258.252,-2.77556e-17,0,8192,8192
258.302,2.77556e-17,0,8192,8192
258.351,2.77556e-17,0,8192,8192
258.401,2.77556e-17,0,8192,8192
258.451,2.77556e-17,0,8192,8192
258.501,2.77556e-17,0,8192,8192
258.551,2.77556e-17,0,8192,8192
258.6,2.77556e-17,0,8192,8192
258.65,2.77556e-17,0,8192,8192
258.703,0,0,8192,8192
258.753,5.55112e-17,0,8192,8192
258.802,2.77556e-17,0,8192,8192
258.852,0,0,8192,8192
258.902,2.77556e-17,0,8192,8192
258.952,2.77556e-17,0,8192,8192
259.002,0,0,8192,8192
259.051,0,0,8192,8192
259.101,0,0,8192,8192
259.151,2.77556e-17,0,8192,8192
259.201,0,0,8192,8192
259.251,-2.77556e-17,0,8192,8192
259.3,-2.77556e-17,0,8192,8192
259.35,-2.77556e-17,0,8192,8192
259.403,-5.55112e-17,0,8192,8192
259.453,0,0,8192,8192
259.503,0,0,8192,8192
259.552,0,0,8192,8192
259.602,0,0,8192,8192
259.652,-2.77556e-17,0,8192,8192
259.702,-2.77556e-17,0,8192,8192
259.751,-2.77556e-17,0,8192,8192
259.801,-2.77556e-17,0,8192,8192
259.851,-2.77556e-17,0,8192,8192
259.901,-2.77556e-17,0,8192,8192
259.951,0,0,8192,8192
260,5.55112e-17,0,8192,8192
260.05,-2.77556e-17,0,8192,8192
260.1,-2.77556e-17,0,8192,8192
260.153,-2.77556e-17,0,8192,8192
260.203,5.55112e-17,0,8192,8192
260.252,0,0,8192,8192
260.302,-2.77556e-17,0,8192,8192
260.352,-2.77556e-17,0,8192,8192
260.402,-2.77556e-17,0,8192,8192
260.452,-5.55112e-17,0,8192,8192
260.501,-5.55112e-17,0,8192,8192
260.551,-5.55112e-17,0,8192,8192
260.601,-2.77556e-17,0,8192,8192
260.651,-8.32667e-17,0,8192,8192
260.701,-2.77556e-17,0,8192,8192
260.75,-2.77556e-17,0,8192,8192
260.8,0,0,8192,8192
260.853,0,0,8192,8192
260.903,2.77556e-17,0,8192,8192
260.952,0,0,8192,8192
261.002,0,0,8192,8192
261.052,0,0,8192,8192
261.102,0,0,8192,8192
261.152,-2.77556e-17,0,8192,8192
261.201,-2.77556e-17,0,8192,8192
261.251,-2.77556e-17,0,8192,8192
261.301,-2.77556e-17,0,8192,8192
261.351,-5.55112e-17,0,8192,8192
261.401,-2.77556e-17,0,8192,8192
261.45,-2.77556e-17,0,8192,8192
261.5,-5.55112e-17,0,8192,8192
261.55,-2.77556e-17,0,8192,8192
261.603,-2.77556e-17,0,8192,8192
261.653,-5.55112e-17,0,8192,8192
261.702,-2.77556e-17,0,8192,8192
261.752,0,0,8192,8192
261.802,0,0,8192,8192
261.852,-5.55112e-17,0,8192,8192
261.902,-5.55112e-17,0,8192,8192
261.951,-2.77556e-17,0,8192,8192
262.001,0,0,8192,8192
262.051,-2.77556e-17,0,8192,8192
262.101,-2.77556e-17,0,8192,8192
262.151,-2.77556e-17,0,8192,8192
262.2,-2.77556e-17,0,8192,8192
262.25,-2.77556e-17,0,8192,8192
262.303,5.55112e-17,0,8192,8192
262.353,5.55112e-17,0,8192,8192
262.402,2.77556e-17,0,8192,8192
262.452,5.55112e-17,0,8192,8192
262.502,5.55112e-17,0,8192,8192
262.552,0,0,8192,8192
262.602,0,0,8192,8192
262.651,2.77556e-17,0,8192,8192
262.701,2.77556e-17,0,8192,8192
262.751,0,0,8192,8192
262.801,2.77556e-17,0,8192,8192
262.851,0,0,8192,8192
262.9,5.55112e-17,0,8192,8192
262.95,5.55112e-17,0,8192,8192
263,5.55112e-17,0,8192,8192
263.053,8.32667e-17,0,8192,8192
263.103,8.32667e-17,0,8192,8192
263.152,8.32667e-17,0,8192,8192
263.202,5.55112e-17,0,8192,8192
263.252,1.11022e-16,0,8192,8192
263.302,1.11022e-16,0,8192,8192
263.352,8.32667e-17,0,8192,8192
263.401,5.55112e-17,0,8192,8192
263.451,2.77556e-17,0,8192,8192
263.501,0,0,8192,8192
263.551,0,0,8192,8192
263.601,0,0,8192,8192
263.65,0,0,8192,8192
263.7,0,0,8192,8192
263.753,2.77556e-17,0,8192,8192
263.803,5.55112e-17,0,8192,8192
263.852,2.77556e-17,0,8192,8192
263.902,2.77556e-17,0,8192,8192
263.952,0,0,8192,8192
264.002,0,0,8192,8192
264.052,-2.77556e-17,0,8192,8192
264.101,-5.55112e-17,0,8192,8192
264.151,-2.77556e-17,0,8192,8192
264.201,-2.77556e-17,0,8192,8192
264.251,-2.77556e-17,0,8192,8192
264.301,0,0,8192,8192
264.35,0,0,8192,8192
264.4,5.55112e-17,0,8192,8192
264.45,1.11022e-16,0,8192,8192
264.503,1.11022e-16,0,8192,8192
264.553,1.11022e-16,0,8192,8192
264.602,1.11022e-16,0,8192,8192
264.652,8.32667e-17,0,8192,8192
264.702,8.32667e-17,0,8192,8192
264.752,1.11022e-16,0,8192,8192
264.802,1.38778e-16,0,8192,8192
264.851,1.66533e-16,0,8192,8192
264.901,1.11022e-16,0,8192,8192
264.951,1.38778e-16,0,8192,8192
265.001,1.38778e-16,0,8192,8192
265.051,1.11022e-16,0,8192,8192
265.1,8.32667e-17,0,8192,8192
265.15,1.11022e-16,0,8192,8192
265.203,8.32667e-17,0,8192,8192
265.253,1.11022e-16,0,8192,8192
265.302,1.11022e-16,0,8192,8192
265.352,8.32667e-17,0,8192,8192
265.402,5.55112e-17,0,8192,8192
265.452,5.55112e-17,0,8192,8192
265.502,5.55112e-17,0,8192,8192
265.551,8.32667e-17,0,8192,8192
265.601,8.32667e-17,0,8192,8192
265.651,5.55112e-17,0,8192,8192
265.701,5.55112e-17,0,8192,8192
265.751,5.55112e-17,0,8192,8192
265.8,2.77556e-17,0,8192,8192
265.85,2.77556e-17,0,8192,8192
265.9,2.77556e-17,0,8192,8192
265.953,2.77556e-17,0,8192,8192
266.003,0,0,8192,8192
266.052,0,0,8192,8192
266.102,0,0,8192,8192
266.152,-5.55112e-17,0,8192,8192
266.202,-5.55112e-17,0,8192,8192
266.252,-5.55112e-17,0,8192,8192
266.301,-5.55112e-17,0,8192,8192
266.351,-8.32667e-17,0,8192,8192
266.401,-8.32667e-17,0,8192,8192
266.451,-8.32667e-17,0,8192,8192
266.501,-8.32667e-17,0,8192,8192
266.55,-1.11022e-16,0,8192,8192
266.6,-1.11022e-16,0,8192,8192
266.653,-1.11022e-16,0,8192,8192
266.703,-1.11022e-16,0,8192,8192
266.752,-1.38778e-16,0,8192,8192
266.802,-1.38778e-16,0,8192,8192
266.852,-1.38778e-16,0,8192,8192
266.902,-1.11022e-16,0,8192,8192
266.952,-1.38778e-16,0,8192,8192
267.001,-1.38778e-16,0,8192,8192
267.051,-8.32667e-17,0,8192,8192
267.101,-1.11022e-16,0,8192,8192
267.151,-5.55112e-17,0,8192,8192
267.201,-5.55112e-17,0,8192,8192
267.25,-8.32667e-17,0,8192,8192
267.3,-5.55112e-17,0,8192,8192
267.353,-5.55112e-17,0,8192,8192
267.403,-2.77556e-17,0,8192,8192
267.453,-5.55112e-17,0,8192,8192
267.502,-8.32667e-17,0,8192,8192
267.552,-1.11022e-16,0,8192,8192
267.602,-1.11022e-16,0,8192,8192
267.652,-8.32667e-17,0,8192,8192
267.702,-1.11022e-16,0,8192,8192
267.751,-8.32667e-17,0,8192,8192
267.801,-1.11022e-16,0,8192,8192
267.851,-1.11022e-16,0,8192,8192
267.901,-1.38778e-16,0,8192,8192
267.95,-1.38778e-16,0,8192,8192
268,-1.38778e-16,0,8192,8192
268.05,-1.11022e-16,0,8192,8192
268.1,-1.11022e-16,0,8364,8364
268.15,-1.11022e-16,0,8400,8400
268.2,-1.11022e-16,0,8396,8396
268.251,-1.11022e-16,0,8444,8444
268.301,-1.11022e-16,0,8540,8540
268.351,-1.11022e-16,0,8536,8536
268.401,-1.11022e-16,0,8480,8480
268.451,-1.11022e-16,0,8456,8456
268.5,-1.11022e-16,0,8416,8416
268.55,-1.11022e-16,0,8424,8424
268.601,-1.11022e-16,0,8360,8360
268.651,-1.11022e-16,0,8312,8312
268.701,-1.11022e-16,0,8248,8248
268.751,-1.11022e-16,0,8192,8192
268.8,-1.11022e-16,0,8192,8192
268.85,-1.11022e-16,0,8192,8192
268.9,-1.11022e-16,0,8192,8192
268.953,-1.11022e-16,0,8192,8192
269.003,-1.11022e-16,0,8192,8192
269.052,-8.32667e-17,0,8192,8192
269.102,-2.77556e-17,0,8192,8192
269.152,5.55112e-17,0,8192,8192
269.202,5.55112e-17,0,8192,8192
269.252,5.55112e-17,0,8192,8192
269.301,5.55112e-17,0,8192,8192
269.351,2.77556e-17,0,8192,8192
269.401,5.55112e-17,0,8192,8192
269.451,2.77556e-17,0,8284,8284
269.501,2.77556e-17,0,8380,8380
269.551,2.77556e-17,0,8396,8396
269.6,2.77556e-17,0,8524,8524
269.65,0,0,8676,8676
269.7,0,0,8772,8772
269.751,0,0,8908,8908
269.801,0,0,9076,9076
269.851,0,0,9204,9204
269.901,0,0,9356,9356
269.951,0,0,9476,9476
270,0,0,9628,9628
270.05,0,0,9796,9796
270.101,0,0,9884,9884
270.151,0,0,10044,10044
270.201,0,0,10204,10204
270.251,0,0,10372,10372
270.301,0,0,10556,10556
270.35,0,0,10692,10692
270.4,0,0,10884,10884
270.451,-2.77556e-17,0,11012,11012
270.501,-2.77556e-17,0,11188,11188
270.551,-5.55112e-17,0,11348,11348
270.601,-5.55112e-17,0,11508,11508
270.651,-5.55112e-17,0,11660,11660
270.7,-5.55112e-17,0,11836,11836
270.75,5.55112e-17,0,11988,11988
270.8,8.04912e-16,0,12172,12172
270.851,1.83187e-15,0,12324,12324
270.901,6.91114e-15,0,12500,12500
270.951,1.36835e-14,0,12660,12660
271.001,-1.62065e-13,0,12828,12828
271.05,-1.82365e-12,0,12980,12980
271.1,-9.88359e-12,0,13148,13148
271.15,-3.52183e-11,0,13284,13284
271.201,-9.20609e-11,0,13468,13468
271.251,-1.73732e-10,0,13636,13636
271.301,-2.48035e-10,0,13812,13812
271.351,-2.6493e-10,0,13940,13940
271.401,-1.9676e-10,0,14100,14100
271.45,-6.76022e-11,0,14268,14268
271.5,5.84049e-11,0,14436,14436
271.551,1.22752e-10,0,14564,14564
271.601,1.09476e-10,0,14684,14684
271.651,6.12243e-11,0,14852,14852
271.701,3.36541e-11,0,15004,15004
271.751,5.38887e-11,0,15108,15108
271.8,1.02735e-10,0,15276,15276
271.85,1.36847e-10,0,15428,15428
271.901,1.28461e-10,0,15612,15612
271.951,9.07177e-11,0,15764,15764
272.001,6.11104e-11,0,15908,15908
272.051,6.64844e-11,0,16044,16044
272.101,1.01531e-10,0,16228,16228
272.15,1.36429e-10,0,16308,16308
272.2,1.43596e-10,0,16452,16452
272.251,1.18339e-10,0,16620,16620
272.301,8.41102e-11,0,16772,16772
272.351,6.95723e-11,0,16948,16948
272.401,8.92415e-11,0,17084,17084
272.451,1.30844e-10,0,17244,17244
272.5,1.60222e-10,0,17412,17412
272.55,1.43757e-10,0,17572,17572
272.6,7.78721e-11,0,17716,17716
272.651,3.48846e-12,0,17884,17884
272.701,-5.26801e-14,0,18028,18028
272.751,1.23156e-10,0,18164,18164
272.801,3.47088e-10,0,18356,18356
272.85,4.99798e-10,0,18452,18452
272.9,3.71073e-10,0,18636,18636
272.95,-6.02847e-10,0,18796,18796
273.001,-1.10857e-09,0,18940,18940
273.051,2.87521e-10,0,19092,19092
273.101,4.44916e-09,0,19220,19220
273.151,1.04618e-08,0,19372,19372
273.201,1.68958e-08,0,19532,19532
273.25,2.2477e-08,0,19668,19668
273.3,2.6551e-08,0,19860,19860
273.351,2.92265e-08,0,20028,20028
273.401,3.11666e-08,0,20132,20132
273.451,3.3892e-08,0,20332,20332
273.501,3.88523e-08,0,20428,20428
273.551,4.67283e-08,0,20452,20452
273.6,5.71966e-08,0,20628,20628
273.65,6.95859e-08,0,20752,20752
273.701,8.42894e-08,0,20736,20736
273.751,1.01424e-07,0,20640,20640
273.801,1.22868e-07,0,20728,20728
273.851,1.49989e-07,0,20704,20704
273.901,1.83636e-07,0,20744,20744
273.95,2.23858e-07,0,20864,20864
274,2.69551e-07,0,21064,21064
274.05,3.18579e-07,0,21264,21264
274.101,3.70384e-07,0,21520,21520
274.151,4.21539e-07,0,21680,21680
274.201,4.74886e-07,0,21784,21784
274.251,5.31939e-07,0,21864,21864
274.3,5.92195e-07,0,21768,21768
274.35,6.52545e-07,0,21888,21888
274.4,7.08703e-07,0,21848,21848
274.451,7.5832e-07,0,21900,21900
274.501,7.96399e-07,0,21916,21916
274.551,8.23911e-07,0,21996,21996
274.601,8.41765e-07,0,21964,21964
274.651,8.5207e-07,0,21860,21860
274.7,8.57194e-07,0,21924,21924
274.75,8.5876e-07,0,21764,21764
274.801,8.57881e-07,0,21628,21628
274.851,8.53255e-07,0,21444,21444
274.901,8.44784e-07,0,21228,21228
274.951,8.31339e-07,0,21044,21044
275.001,8.11774e-07,0,20948,20948
275.05,7.85069e-07,0,20820,20820
275.1,7.50604e-07,0,20820,20820
275.151,7.07159e-07,0,20724,20724
275.201,6.58702e-07,0,20748,20748
275.251,6.06789e-07,0,20676,20676
275.301,5.54442e-07,0,20660,20660
275.351,5.03967e-07,0,20556,20556
275.4,4.56674e-07,0,20436,20436
275.45,4.13067e-07,0,20364,20364
275.501,3.71961e-07,0,20188,20188
275.551,3.35214e-07,0,20012,20012
275.601,3.00938e-07,0,19908,19908
275.651,2.68518e-07,0,19796,19796
275.701,2.37563e-07,0,19796,19796
275.75,2.08231e-07,0,19700,19700
275.801,1.81121e-07,0,19460,19460
275.851,1.5858e-07,0,19460,19460
275.901,1.41218e-07,0,19324,19324
275.95,1.2855e-07,0,19260,19260
276.001,1.17279e-07,0,19108,19108
276.051,1.0532e-07,0,19052,19052
276.101,9.2373e-08,0,19012,19012
276.15,7.94477e-08,0,18916,18916
276.201,6.80276e-08,0,18912,18912
276.251,5.9873e-08,0,18832,18832
276.301,5.44942e-08,0,18856,18856
276.351,5.09389e-08,0,18800,18800
276.4,4.79711e-08,0,18776,18776
276.451,4.40626e-08,0,18712,18712
276.501,3.85692e-08,0,18696,18696
276.551,3.22241e-08,0,18688,18688
276.6,2.63987e-08,0,18688,18688
276.651,2.24461e-08,0,18640,18640
276.701,2.10071e-08,0,18616,18616
276.751,2.09856e-08,0,18608,18608
276.801,2.14334e-08,0,18552,18552
276.851,2.18539e-08,0,18488,18488
276.9,2.20738e-08,0,18472,18472
276.951,2.21739e-08,0,18448,18448
277.002,2.22441e-08,0,18416,18416
277.051,2.22734e-08,0,18312,18312
277.101,2.22354e-08,0,18296,18296
277.151,2.20909e-08,0,18224,18224
277.201,2.18367e-08,0,18200,18200
277.25,2.15482e-08,0,18208,18208
277.301,2.12745e-08,0,18192,18192
277.351,2.10758e-08,0,18208,18208
277.401,2.09452e-08,0,18224,18224
277.452,2.08343e-08,0,18392,18392
277.501,2.07209e-08,0,18552,18552
277.551,2.05845e-08,0,18864,18864
277.601,2.04196e-08,0,19056,19056
277.651,2.02226e-08,0,19184,19184
277.702,1.99907e-08,0,19240,19240
277.75,1.97332e-08,0,19144,19144
277.8,1.94315e-08,0,19072,19072
277.851,1.90928e-08,0,19008,19008
277.902,1.87091e-08,0,19072,19072
277.951,1.83055e-08,0,19120,19120
278.001,1.78662e-08,0,19152,19152
278.05,1.74853e-08,0,19232,19232
278.101,1.6941e-08,0,19312,19312
278.151,1.64347e-08,0,19352,19352
278.201,1.59204e-08,0,19408,19408
278.251,1.54037e-08,0,19432,19432
278.3,1.48895e-08,0,19448,19448
278.351,1.43613e-08,0,19372,19372
278.401,1.38521e-08,0,19396,19396
278.45,1.33492e-08,0,19348,19348
278.501,1.28401e-08,0,19268,19268
278.551,1.23437e-08,0,19172,19172
278.601,1.18648e-08,0,19028,19028
278.652,1.14101e-08,0,18908,18908
278.701,1.09829e-08,0,18756,18756
278.751,1.05856e-08,0,18660,18660
278.801,1.02224e-08,0,18580,18580
278.85,9.89262e-09,0,18516,18516
278.901,9.58506e-09,0,18428,18428
278.95,9.31798e-09,0,18324,18324
279.001,9.07294e-09,0,18212,18212
279.051,8.85465e-09,0,18108,18108
279.101,8.65824e-09,0,17956,17956
279.151,8.48802e-09,0,17836,17836
279.201,8.3447e-09,0,17732,17732
279.251,8.21795e-09,0,17604,17604
279.301,8.10625e-09,0,17460,17460
279.35,8.00063e-09,0,17348,17348
279.401,7.92799e-09,0,17204,17204
279.451,7.86812e-09,0,17076,17076
279.5,7.81486e-09,0,16980,16980
279.551,7.76806e-09,0,16844,16844
279.601,7.72953e-09,0,16756,16756
279.651,7.69885e-09,0,16660,16660
279.701,7.67561e-09,0,16612,16612
279.75,7.65881e-09,0,16548,16548
279.8,7.64737e-09,0,16732,16732
279.85,7.64041e-09,0,16852,16852
279.901,7.63686e-09,0,16868,16868
279.951,7.63637e-09,0,16996,16996
280.001,7.63887e-09,0,17252,17252
280.051,7.64448e-09,0,17380,17380
280.101,7.65314e-09,0,17540,17540
280.15,7.66456e-09,0,17644,17644
280.2,7.67808e-09,0,17796,17796
280.251,7.69362e-09,0,17940,17940
280.301,7.70972e-09,0,18084,18084
280.351,7.7263e-09,0,18212,18212
280.401,7.7431e-09,0,18324,18324
280.451,7.76e-09,0,18452,18452
280.5,7.77686e-09,0,18596,18596
280.55,7.79367e-09,0,18732,18732
280.601,7.81095e-09,0,18876,18876
280.651,7.82774e-09,0,18980,18980
280.701,7.84452e-09,0,19124,19124
280.751,7.86127e-09,0,19260,19260
280.801,7.87794e-09,0,19396,19396
280.85,7.89453e-09,0,19508,19508
280.9,7.91094e-09,0,19668,19668
280.95,7.92714e-09,0,19788,19788
281.001,7.9436e-09,0,19932,19932
281.051,7.95938e-09,0,20068,20068
281.101,7.97492e-09,0,20188,20188
281.151,7.99018e-09,0,20316,20316
281.2,8.0051e-09,0,20460,20460
281.25,8.01964e-09,0,20596,20596
281.3,8.03375e-09,0,20724,20724
281.351,8.04777e-09,0,20892,20892
281.401,8.06087e-09,0,20920,20920
281.451,8.0734e-09,0,20920,20920
281.501,8.08527e-09,0,20960,20960
281.551,8.0964e-09,0,21000,21000
281.6,8.10673e-09,0,21024,21024
281.65,8.11638e-09,0,21064,21064
281.701,8.12615e-09,0,21104,21104
281.751,8.13662e-09,0,21128,21128
281.801,8.15004e-09,0,21144,21144
281.851,8.16915e-09,0,21176,21176
281.901,8.19728e-09,0,21192,21192
281.95,8.23794e-09,0,21184,21184
282,8.29439e-09,0,21208,21208
282.051,8.37193e-09,0,21296,21296
282.101,8.46839e-09,0,21320,21320
282.151,8.58757e-09,0,21360,21360
282.201,8.73141e-09,0,21392,21392
282.251,8.90228e-09,0,21416,21416
282.3,9.10312e-09,0,21456,21456
282.351,9.34108e-09,0,21488,21488
282.401,9.60847e-09,0,21544,21544
282.45,9.90737e-09,0,21576,21576
282.501,1.02448e-08,0,21648,21648
282.552,1.06077e-08,0,21712,21712
282.6,1.09741e-08,0,21756,21756
282.651,1.17321e-08,0,21948,21948
282.701,1.24829e-08,0,22060,22060
282.751,1.3258e-08,0,22244,22244
282.801,1.44505e-08,0,22396,22396
282.851,1.57182e-08,0,22532,22532
282.9,1.71532e-08,0,22652,22652
282.951,1.88393e-08,0,22836,22836
283,2.06871e-08,0,22972,22972
283.051,2.28236e-08,0,23108,23108
283.101,2.51956e-08,0,23252,23252
283.151,2.77994e-08,0,23444,23444
283.201,3.06257e-08,0,23572,23572
283.251,3.36579e-08,0,23732,23732
283.301,3.68714e-08,0,23884,23884
283.351,4.02389e-08,0,24100,24100
283.4,4.37314e-08,0,24088,24088
283.451,4.74346e-08,0,24088,24088
283.501,5.12156e-08,0,24200,24200
283.55,5.49371e-08,0,24272,24272
283.601,5.88215e-08,0,24376,24376
283.651,6.27594e-08,0,24484,24484
283.701,6.67844e-08,0,24596,24596
283.751,7.09731e-08,0,24724,24724
283.8,7.54499e-08,0,24764,24764
283.851,8.05191e-08,0,24836,24836
283.901,8.59969e-08,0,24964,24964
283.951,9.22281e-08,0,25020,25020
284,9.87323e-08,0,25116,25116
284.051,1.0569e-07,0,25180,25180
284.101,1.12675e-07,0,25196,25196
284.151,1.19543e-07,0,25308,25308
284.201,1.26306e-07,0,25316,25316
284.251,1.33165e-07,0,25364,25364
284.3,1.4047e-07,0,25428,25428
284.35,1.48642e-07,0,25460,25460
284.4,1.58119e-07,0,25532,25532
284.451,1.69685e-07,0,25580,25580
284.501,1.83099e-07,0,25740,25740
284.551,1.99081e-07,0,25716,25716
284.601,2.18063e-07,0,25828,25828
284.651,2.40462e-07,0,25812,25812
284.7,2.66609e-07,0,25816,25816
284.75,2.96658e-07,0,25776,25776
284.801,3.31589e-07,0,25736,25736
284.851,3.6909e-07,0,25712,25712
284.901,4.0962e-07,0,25736,25736
284.951,4.52597e-07,0,25720,25720
285.001,4.97377e-07,0,25632,25632
285.05,5.43235e-07,0,25624,25624
285.1,5.89289e-07,0,25520,25520
285.151,6.35727e-07,0,25472,25472
285.201,6.78511e-07,0,25528,25528
285.251,7.17497e-07,0,25936,25936
285.301,7.51257e-07,0,26360,26360
285.351,7.78644e-07,0,26656,26656
285.4,7.9897e-07,0,26808,26808
285.45,8.12071e-07,0,26880,26880
285.501,8.18325e-07,0,26960,26960
285.551,8.17979e-07,0,26992,26992
285.601,8.11981e-07,0,27040,27040
285.651,8.00882e-07,0,27112,27112
285.701,7.85003e-07,0,27152,27152
285.75,7.64418e-07,0,27280,27280
285.8,7.39012e-07,0,27376,27376
285.85,7.08616e-07,0,27512,27512
285.901,6.72035e-07,0,27580,27580
285.951,6.31531e-07,0,27572,27572
286.001,5.86648e-07,0,27564,27564
286.051,5.38257e-07,0,27524,27524
286.1,4.8753e-07,0,27468,27468
286.15,4.35797e-07,0,27428,27428
286.2,3.84377e-07,0,27380,27380
286.251,3.32977e-07,0,27324,27324
286.301,2.85412e-07,0,27244,27244
286.351,2.40721e-07,0,27180,27180
286.401,1.9916e-07,0,27084,27084
286.451,1.60796e-07,0,26836,26836
286.5,1.25615e-07,0,26772,26772
286.55,9.36084e-08,0,26564,26564
286.601,6.40099e-08,0,26372,26372
286.651,3.85611e-08,0,26244,26244
286.701,1.6367e-08,0,26152,26152
286.751,-2.69556e-09,0,25968,25968
286.801,-1.8897e-08,0,25784,25784
286.85,-3.26151e-08,0,25616,25616
286.9,-4.42418e-08,0,25464,25464
286.951,-5.43515e-08,0,25296,25296
287.001,-6.25465e-08,0,25120,25120
287.051,-6.92053e-08,0,25184,25184
287.101,-7.43603e-08,0,25176,25176
287.151,-7.8094e-08,0,25056,25056
287.2,-8.05807e-08,0,24888,24888
287.25,-8.20663e-08,0,24752,24752
287.3,-8.28062e-08,0,24600,24600
287.351,-8.284e-08,0,24448,24448
287.401,-8.25305e-08,0,24248,24248
287.451,-8.19504e-08,0,24104,24104
287.501,-8.03918e-08,0,23968,23968
287.55,-7.81061e-08,0,23848,23848
287.6,-7.51443e-08,0,23696,23696
287.65,-7.16298e-08,0,23568,23568
287.701,-6.76051e-08,0,23416,23416
287.751,-6.34809e-08,0,23304,23304
287.801,-5.93074e-08,0,23192,23192
287.851,-5.52065e-08,0,23128,23128
287.901,-5.1259e-08,0,23016,23016
287.95,-4.75125e-08,0,22880,22880
288,-4.39909e-08,0,22776,22776
288.051,-4.06101e-08,0,22664,22664
288.101,-3.75621e-08,0,22504,22504
288.151,-3.47397e-08,0,22344,22344
288.201,-3.21326e-08,0,22232,22232
288.251,-2.9729e-08,0,21880,21880
288.3,-2.75157e-08,0,21596,21596
288.35,-2.54845e-08,0,21316,21316
288.401,-2.35735e-08,0,21124,21124
288.451,-2.18794e-08,0,21004,21004
288.501,-2.03329e-08,0,20948,20948
288.551,-1.89242e-08,0,20868,20868
288.601,-1.76608e-08,0,20828,20828
288.65,-1.6556e-08,0,20716,20716
288.7,-1.55967e-08,0,20652,20652
288.751,-1.47349e-08,0,20588,20588
288.801,-1.39996e-08,0,20516,20516
288.851,-1.33393e-08,0,20436,20436
288.901,-1.27385e-08,0,20396,20396
288.951,-1.21926e-08,0,20292,20292
289,-1.17016e-08,0,20276,20276
289.05,-1.12691e-08,0,20228,20228
289.1,-1.08963e-08,0,20516,20516
289.151,-1.05729e-08,0,20652,20652
289.201,-1.03133e-08,0,20220,20220
289.251,-1.01039e-08,0,19980,19980
289.301,-9.94632e-09,0,19396,19396
289.35,-9.8334e-09,0,19092,19092
289.4,-9.77028e-09,0,18804,18804
289.45,-9.73251e-09,0,18612,18612
289.501,-9.71544e-09,0,18380,18380
289.551,-9.72218e-09,0,18196,18196
289.601,-9.74802e-09,0,18092,18092
289.651,-9.78688e-09,0,17924,17924
289.701,-9.83603e-09,0,17852,17852
289.75,-9.89498e-09,0,17780,17780
289.8,-9.95994e-09,0,17652,17652
289.851,-1.00293e-08,0,17484,17484
289.901,-1.00961e-08,0,17324,17324
289.951,-1.01609e-08,0,17180,17180
290.001,-1.02226e-08,0,16980,16980
290.051,-1.02796e-08,0,16780,16780
290.1,-1.03325e-08,0,16572,16572
290.15,-1.03809e-08,0,16364,16364
290.201,-1.04258e-08,0,16196,16196
290.251,-1.04656e-08,0,15940,15940
290.301,-1.05027e-08,0,15660,15660
290.351,-1.05371e-08,0,15356,15356
290.401,-1.05692e-08,0,15028,15028
290.45,-1.06e-08,0,14716,14716
290.5,-1.06302e-08,0,14404,14404
290.55,-1.066e-08,0,14176,14176
290.601,-1.06904e-08,0,13992,13992
290.651,-1.07193e-08,0,13840,13840
290.701,-1.07477e-08,0,13516,13516
290.751,-1.07752e-08,0,13028,13028
290.8,-1.08017e-08,0,12572,12572
290.85,-1.08273e-08,0,12164,12164
290.9,-1.08522e-08,0,11900,11900
290.951,-1.08776e-08,0,12228,12228
291.001,-1.09026e-08,0,12572,12572
291.051,-1.09285e-08,0,12636,12636
291.101,-1.09564e-08,0,12644,12644
291.151,-1.09873e-08,0,12636,12636
291.2,-1.10224e-08,0,12508,12508
291.25,-1.10629e-08,0,12364,12364
291.301,-1.11114e-08,0,12252,12252
291.351,-1.11663e-08,0,12116,12116
291.401,-1.12295e-08,0,12380,12380
291.451,-1.1302e-08,0,12500,12500
291.501,-1.1385e-08,0,12524,12524
291.55,-1.14794e-08,0,12460,12460
291.6,-1.15858e-08,0,12404,12404
291.651,-1.17087e-08,0,12388,12388
291.701,-1.1841e-08,0,12356,12356
291.751,-1.19857e-08,0,12316,12316
291.801,-1.21422e-08,0,12300,12300
291.851,-1.23098e-08,0,12292,12292
291.9,-1.24883e-08,0,12260,12260
291.951,-1.26797e-08,0,12244,12244
292,-1.28805e-08,0,12336,12336
292.051,-1.31016e-08,0,12440,12440
292.101,-1.33302e-08,0,12472,12472
292.151,-1.3584e-08,0,12512,12512
292.2,-1.38474e-08,0,12560,12560
292.251,-1.41393e-08,0,12496,12496
292.301,-1.44508e-08,0,12488,12488
292.351,-1.47817e-08,0,12528,12528
292.401,-1.51311e-08,0,12504,12504
292.451,-1.54971e-08,0,12560,12560
292.5,-1.58757e-08,0,12560,12560
292.551,-1.62719e-08,0,12632,12632
292.601,-1.66515e-08,0,12648,12648
292.651,-1.70346e-08,0,12592,12592
292.7,-1.74062e-08,0,12416,12416
292.751,-1.79222e-08,0,12336,12336
292.801,-1.83702e-08,0,12264,12264
292.851,-1.87962e-08,0,12264,12264
292.901,-1.92182e-08,0,12224,12224
292.951,-1.96278e-08,0,12208,12208
293,-2.00247e-08,0,12192,12192
293.051,-2.04173e-08,0,12252,12252
293.1,-2.07772e-08,0,12180,12180
293.151,-2.11237e-08,0,12132,12132
293.2,-2.14324e-08,0,12100,12100
293.25,-2.17238e-08,0,12332,12332
293.301,-2.19893e-08,0,12564,12564
293.351,-2.22289e-08,0,12644,12644
293.401,-2.24411e-08,0,12724,12724
293.45,-2.26307e-08,0,12876,12876
293.501,-2.27667e-08,0,13148,13148
293.551,-2.28813e-08,0,13140,13140
293.601,-2.29437e-08,0,13124,13124
293.651,-2.29763e-08,0,13060,13060
293.701,-2.2988e-08,0,13044,13044
293.751,-2.2978e-08,0,13044,13044
293.801,-2.29464e-08,0,13006,13006
293.851,-2.28941e-08,0,12996,12996
293.901,-2.28233e-08,0,12994,12994
293.951,-2.27358e-08,0,13010,13010
294,-2.2634e-08,0,12974,12974
294.051,-2.25167e-08,0,12966,12966
294.1,-2.23929e-08,0,12986,12986
294.151,-2.22574e-08,0,12966,12966
294.201,-2.21156e-08,0,12974,12974
294.25,-2.19731e-08,0,12988,12988
294.3,-2.18229e-08,0,12966,12966
294.35,-2.16705e-08,0,12968,12968
294.401,-2.15121e-08,0,12980,12980
294.451,-2.13577e-08,0,12970,12970
294.501,-2.12037e-08,0,12988,12988
294.551,-2.10509e-08,0,12984,12984
294.601,-2.08998e-08,0,12968,12968
294.65,-2.07513e-08,0,12972,12972
294.7,-2.06057e-08,0,12980,12980
294.751,-2.04596e-08,0,12988,12988
294.801,-2.03215e-08,0,12976,12976
294.851,-2.01875e-08,0,12984,12984
294.901,-2.00576e-08,0,12976,12976
294.951,-1.99323e-08,0,12964,12964
295,-1.98123e-08,0,12976,12976
295.05,-1.96978e-08,0,12780,12780
295.1,-1.95887e-08,0,12648,12648
295.151,-1.94816e-08,0,12444,12444
295.201,-1.93823e-08,0,12312,12312
295.251,-1.92874e-08,0,12200,12200
295.301,-1.91965e-08,0,12116,12116
295.35,-1.91095e-08,0,12028,12028
295.4,-1.90261e-08,0,11904,11904
295.45,-1.89462e-08,0,11820,11820
295.501,-1.88671e-08,0,11796,11796
295.551,-1.87931e-08,0,11780,11780
295.601,-1.87215e-08,0,11760,11760
295.651,-1.8652e-08,0,11736,11736
295.701,-1.85845e-08,0,11724,11724
295.75,-1.85185e-08,0,11720,11720
295.8,-1.84538e-08,0,11680,11680
295.851,-1.83883e-08,0,11628,11628
295.901,-1.83256e-08,0,11612,11612
295.951,-1.82634e-08,0,11648,11648
296.001,-1.82017e-08,0,11608,11608
296.051,-1.81402e-08,0,11624,11624
296.1,-1.80788e-08,0,11516,11516
296.15,-1.80174e-08,0,11412,11412
296.201,-1.79538e-08,0,11300,11300
296.251,-1.78917e-08,0,11184,11184
296.301,-1.7829e-08,0,11080,11080
296.351,-1.77658e-08,0,10988,10988
296.401,-1.77017e-08,0,10868,10868
296.45,-1.76367e-08,0,10788,10788
296.5,-1.75707e-08,0,10744,10744
296.551,-1.75015e-08,0,10668,10668
296.601,-1.7433e-08,0,10612,10612
296.651,-1.73628e-08,0,10544,10544
296.701,-1.72906e-08,0,10516,10516
296.75,-1.72181e-08,0,10508,10508
296.801,-1.71406e-08,0,10544,10544
296.852,-1.70608e-08,0,10536,10536
296.9,-1.69815e-08,0,10536,10536
296.951,-1.68963e-08,0,10544,10544
297.001,-1.6808e-08,0,10520,10520
297.052,-1.67163e-08,0,10544,10544
297.1,-1.66246e-08,0,10544,10544
297.151,-1.65256e-08,0,10520,10520
297.201,-1.64226e-08,0,10544,10544
297.251,-1.63153e-08,0,10536,10536
297.301,-1.62037e-08,0,10520,10520
297.351,-1.60877e-08,0,10520,10520
297.4,-1.59673e-08,0,10536,10536
297.452,-1.58377e-08,0,10552,10552
297.501,-1.57081e-08,0,10520,10520
297.55,-1.55738e-08,0,10536,10536
297.601,-1.54297e-08,0,10536,10536
297.651,-1.52806e-08,0,10536,10536
297.702,-1.51264e-08,0,10560,10560
297.752,-1.49671e-08,0,10536,10536
297.802,-1.48028e-08,0,10544,10544
297.851,-1.46335e-08,0,10544,10544
297.901,-1.44591e-08,0,10544,10544
297.95,-1.42797e-08,0,10560,10560
298.001,-1.40886e-08,0,10544,10544
298.05,-1.38988e-08,0,10544,10544
298.101,-1.36968e-08,0,10544,10544
298.151,-1.34891e-08,0,10568,10568
298.201,-1.32756e-08,0,10552,10552
298.251,-1.30561e-08,0,10552,10552
298.301,-1.28302e-08,0,10568,10568
298.351,-1.25976e-08,0,10576,10576
298.4,-1.23577e-08,0,10576,10576
298.451,-1.21011e-08,0,10584,10584
298.5,-1.18442e-08,0,10592,10592
298.551,-1.15682e-08,0,10600,10600
298.602,-1.12806e-08,0,10608,10608
298.65,-1.09905e-08,0,10608,10608
298.7,-1.06768e-08,0,10624,10624
298.75,-1.03493e-08,0,10632,10632
298.802,-9.99764e-09,0,10616,10616
298.851,-9.64705e-09,0,10632,10632
298.901,-9.28893e-09,0,10632,10632
298.952,-8.91172e-09,0,10640,10640
299.001,-8.53821e-09,0,10664,10664
299.051,-8.15361e-09,0,10664,10664
299.101,-7.45692e-09,0,10664,10664
299.152,-6.86356e-09,0,10664,10664
299.2,-6.3144e-09,0,10688,10688
299.251,-5.71668e-09,0,10696,10696
299.301,-5.12091e-09,0,10680,10680
299.351,-4.5139e-09,0,10704,10704
299.402,-3.88044e-09,0,10720,10720
299.451,-3.26514e-09,0,10720,10720
299.501,-2.63343e-09,0,10712,10712
299.55,-2.02906e-09,0,10712,10712
299.6,-1.41726e-09,0,10736,10736
299.65,-8.21338e-10,0,10752,10752
299.7,-2.44823e-10,0,10760,10760
299.75,3.08967e-10,0,10744,10744
299.801,8.5283e-10,0,10776,10776
299.851,1.35049e-09,0,10776,10776
299.901,1.83003e-09,0,10768,10768
299.951,2.2597e-09,0,10760,10760
300.001,2.66409e-09,0,10792,10792
300.051,3.02801e-09,0,10792,10792
300.102,3.35132e-09,0,10816,10816
300.151,3.63485e-09,0,10816,10816
300.201,3.88065e-09,0,10808,10808
300.251,4.09289e-09,0,10840,10840
300.3,4.27504e-09,0,10832,10832
300.351,4.40148e-09,0,10832,10832
300.401,4.45041e-09,0,10848,10848
300.451,4.48221e-09,0,10856,10856
300.501,4.49831e-09,0,10856,10856
300.55,4.49838e-09,0,10864,10864
300.6,4.48293e-09,0,10864,10864
300.65,4.45202e-09,0,10872,10872
300.701,4.40557e-09,0,10872,10872
300.751,4.34726e-09,0,10896,10896
300.801,4.27775e-09,0,10896,10896
300.851,4.19879e-09,0,10904,10904
300.901,4.11226e-09,0,10904,10904
300.95,4.01977e-09,0,10896,10896
301,3.92283e-09,0,10904,10904
301.051,3.81993e-09,0,10912,10912
301.101,3.71821e-09,0,10920,10920
301.151,3.61596e-09,0,10928,10928
301.201,3.51415e-09,0,10928,10928
301.251,3.4138e-09,0,10944,10944
301.3,3.3158e-09,0,10952,10952
301.35,3.22101e-09,0,10952,10952
301.401,3.1276e-09,0,10952,10952
301.451,3.04155e-09,0,10952,10952
301.501,2.96077e-09,0,10936,10936
301.551,2.88577e-09,0,10960,10960
301.601,2.81693e-09,0,10944,10944
301.65,2.75451e-09,0,10960,10960
301.7,2.69861e-09,0,10944,10944
301.75,2.64921e-09,0,10960,10960
301.801,2.60498e-09,0,10960,10960
301.851,2.56812e-09,0,10976,10976
301.901,2.53678e-09,0,10960,10960
301.951,2.5104e-09,0,10976,10976
302,2.48827e-09,0,10960,10960
302.05,2.46964e-09,0,10960,10960
302.1,2.45367e-09,0,10960,10960
302.151,2.43916e-09,0,10976,10976
302.201,2.42617e-09,0,10960,10960
302.251,2.41353e-09,0,10960,10960
302.301,2.40063e-09,0,10952,10952
302.351,2.38695e-09,0,10868,10868
302.4,2.37209e-09,0,10756,10756
302.45,2.3558e-09,0,10636,10636
302.501,2.33744e-09,0,10516,10516
302.551,2.31814e-09,0,10412,10412
302.601,2.29759e-09,0,10292,10292
302.651,2.27608e-09,0,10172,10172
302.701,2.25393e-09,0,10068,10068
302.75,2.23151e-09,0,9948,9948
302.8,2.20919e-09,0,9844,9844
302.851,2.18667e-09,0,9732,9732
302.901,2.16555e-09,0,9620,9620
302.951,2.14547e-09,0,9500,9500
303.001,2.12668e-09,0,9396,9396
303.051,2.10944e-09,0,9284,9284
303.1,2.094e-09,0,9172,9172
303.15,2.0806e-09,0,9060,9060
303.2,2.06947e-09,0,8940,8940
303.251,2.06057e-09,0,8836,8836
303.301,2.05459e-09,0,8716,8716
303.351,2.05132e-09,0,8596,8596
303.401,2.05077e-09,0,8492,8492
303.45,2.05287e-09,0,8388,8388
303.501,2.0576e-09,0,8268,8268
303.551,2.06445e-09,0,8212,8212
303.601,2.0732e-09,0,8192,8192
303.651,2.08356e-09,0,8192,8192
303.7,2.09515e-09,0,8192,8192
303.75,2.10758e-09,0,8192,8192
303.8,2.12049e-09,0,8192,8192
303.853,2.1343e-09,0,8192,8192
303.903,2.14714e-09,0,8192,8192
303.952,2.15953e-09,0,8192,8192
304.002,2.17123e-09,0,8192,8192
304.052,2.18209e-09,0,8192,8192
304.102,2.19199e-09,0,8192,8192
304.152,2.20083e-09,0,8192,8192
304.201,2.20858e-09,0,8192,8192
304.251,2.21522e-09,0,8192,8192
304.301,2.22074e-09,0,8192,8192
304.351,2.22518e-09,0,8192,8192
304.401,2.22858e-09,0,8192,8192
304.45,2.23098e-09,0,8192,8192
304.5,2.23245e-09,0,8192,8192
304.553,2.23303e-09,0,8192,8192
304.603,2.23271e-09,0,8192,8192
304.652,2.23162e-09,0,8192,8192
304.702,2.22978e-09,0,8192,8192
304.752,2.22722e-09,0,8192,8192
304.802,2.22397e-09,0,8192,8192
304.852,2.22004e-09,0,8192,8192
304.901,2.21547e-09,0,8192,8192
304.951,2.21025e-09,0,8192,8192
