250,0,0,512,512
250.012,0,0,512,512
250.059,0,0,512,512
250.105,0,0,512,512
250.152,0,0,512,512
250.211,0,0,512,512
250.258,0,0,512,512
250.305,0,0,512,512
250.352,0,0,512,512
250.41,0,0,512,512
250.457,0,0,512,512
250.504,0,0,512,512
250.551,0,0,512,512
250.609,0,0,512,512
250.656,0,0,512,512
250.703,0,0,512,512
250.762,0,0,512,512
250.808,0,0,512,512
250.855,0,0,512,512
250.902,0,0,512,512
250.961,0,0,512,512
251.008,0,0,512,512
251.055,0,0,512,512
251.101,0,0,512,512
251.16,0,0,512,512
251.207,0,0,512,512
251.254,0,0,512,512
251.301,0,0,512,512
251.359,0,0,512,512
251.406,0,0,512,512
251.453,0,0,512,512
251.511,0,0,512,512
251.558,0,0,512,512
251.605,0,0,512,512
251.652,0,0,512,512
251.711,0,0,512,512
251.758,0,0,512,512
251.804,0,0,512,512
251.851,0,0,512,512
251.91,0,0,512,512
251.957,0,0,512,512
252.004,0,0,512,512
252.05,0,0,512,512
252.109,0,0,512,512
252.156,0,0,512,512
252.203,0,0,512,512
252.261,0,0,512,512
252.308,0,0,512,512
252.355,0,0,512,512
252.402,0,0,512,512
252.461,0,0,512,512
252.507,0,0,512,512
252.554,0,0,512,512
252.601,0,0,512,512
252.66,0,0,512,512
252.707,0,0,512,512
252.754,0,0,512,512
252.8,0,0,512,512
252.859,0,0,512,512
252.906,0,0,512,512
252.953,0,0,512,512
253.011,0,0,512,512
253.058,0,0,512,512
253.105,0,0,512,512
253.152,0,0,512,512
253.21,0,0,512,512
253.257,0,0,512,512
253.304,0,0,512,512
253.351,0,0,512,512
253.41,0,0,512,512
253.457,0,0,512,512
253.503,0,0,512,512
253.55,0,0,512,512
253.609,0,0,512,512
253.656,0,0,512,512
253.703,0,0,512,512
253.761,0,0,512,512
253.808,0,0,512,512
253.855,0,0,512,512
253.902,0,0,512,512
253.96,0,0,512,512
254.007,0,0,512,512
254.054,0,0,512,512
254.101,0,0,512,512
254.16,0,0,512,512
254.206,0,0,512,512
254.253,0,0,512,512
254.3,0,0,512,512
254.359,0,0,512,512
254.406,0,0,512,512
254.452,0,0,512,512
254.511,0,0,512,512
254.558,0,0,512,512
254.605,0,0,512,512
254.652,0,0,512,512
254.71,0,0,512,512
254.757,0,0,512,512
254.804,0,0,512,512
254.851,0,0,512,512
254.909,0,0,512,512
254.956,0,0,512,512
255.003,0,0,512,512
255.05,0,0,512,512
255.109,0,0,512,512
255.155,0,0,512,512
255.202,0,0,512,512
255.261,0,0,512,512
255.308,0,0,512,512
255.355,0,0,512,512
255.402,0,0,512,512
255.46,0,0,512,512
255.507,0,0,512,512
255.554,0,0,512,512
255.601,0,0,512,512
255.659,0,0,512,512
255.706,0,0,512,512
255.753,0,0,512,512
255.812,0,0,512,512
255.859,0,0,512,512
255.905,0,0,512,512
255.952,0,0,512,512
256.011,0,0,512,512
256.058,0,0,512,512
256.105,0,0,512,512
256.151,0,0,512,512
256.21,0,0,512,512
256.257,0,0,512,512
256.304,0,0,512,512
256.351,0,0,512,512
256.409,0,0,512,512
256.456,0,0,512,512
256.503,0,0,512,512
256.562,0,0,512,512
256.608,0,0,512,512
256.655,0,0,512,512
256.702,0,0,512,512
256.761,0,0,512,512
256.808,0,0,512,512
256.854,0,0,512,512
256.901,0,0,512,512
256.96,0,0,512,512
257.007,0,0,512,512
257.054,0,0,512,512
257.101,0,0,512,512
257.159,0,0,512,512
257.206,0,0,512,512
257.253,0,0,512,512
257.311,0,0,512,512
257.358,0,0,512,512
257.405,0,0,512,512
257.452,0,0,512,512
257.511,0,0,512,512
257.557,0,0,512,512
257.604,0,0,512,512
257.651,0,0,512,512
257.71,0,0,512,512
257.757,0,0,512,512
257.804,0,0,512,512
257.85,2.77556e-17,0,512,512
257.909,2.77556e-17,0,512,512
257.956,2.77556e-17,0,512,512
258.003,2.77556e-17,0,512,512
258.061,2.77556e-17,0,512,512
258.108,2.77556e-17,0,512,512
258.155,2.77556e-17,0,512,512
258.202,2.77556e-17,0,512,512
258.261,2.77556e-17,0,512,512
258.307,2.77556e-17,0,512,512
258.354,2.77556e-17,0,512,512
258.401,2.77556e-17,0,512,512
258.46,2.77556e-17,0,512,512
258.507,2.77556e-17,0,512,512
258.553,2.77556e-17,0,512,512
258.6,2.77556e-17,0,512,512
258.659,2.77556e-17,0,512,512
258.706,2.77556e-17,0,512,512
258.753,2.77556e-17,0,512,512
258.811,2.77556e-17,0,512,512
258.858,2.77556e-17,0,512,512
258.905,2.77556e-17,0,512,512
258.952,0,0,512,512
259.01,0,0,512,512
259.057,0,0,512,512
259.104,0,0,512,512
259.151,2.77556e-17,0,512,512
259.21,2.77556e-17,0,512,512
259.256,2.77556e-17,0,512,512
259.303,2.77556e-17,0,512,512
259.35,2.77556e-17,0,512,512
259.409,2.77556e-17,0,512,512
259.456,2.77556e-17,0,512,512
259.503,2.77556e-17,0,512,512
259.561,2.77556e-17,0,512,512
259.608,2.77556e-17,0,512,512
259.655,2.77556e-17,0,512,512
259.702,2.77556e-17,0,512,512
259.76,2.77556e-17,0,512,512
259.807,2.77556e-17,0,512,512
259.854,2.77556e-17,0,512,512
259.901,2.77556e-17,0,512,512
259.959,2.77556e-17,0,512,512
260.006,2.77556e-17,0,512,512
260.053,2.77556e-17,0,512,512
260.1,2.77556e-17,0,512,512
260.159,2.77556e-17,0,512,512
260.206,0,0,512,512
260.252,0,0,512,512
260.311,0,0,512,512
260.358,0,0,512,512
260.405,0,0,512,512
260.452,0,0,512,512
260.51,0,0,512,512
260.557,0,0,512,512
260.604,0,0,512,512
260.651,0,0,512,512
260.709,0,0,512,512
260.756,0,0,512,512
260.803,0,0,512,512
260.862,0,0,512,512
260.909,0,0,512,512
260.955,0,0,512,512
261.002,0,0,512,512
261.061,0,0,512,512
261.108,0,0,512,512
261.155,0,0,512,512
261.201,0,0,512,512
261.26,0,0,512,512
261.307,0,0,512,512
261.354,0,0,512,512
261.401,0,0,512,512
261.459,0,0,512,512
261.506,0,0,512,512
261.553,0,0,512,512
261.612,0,0,512,512
261.658,0,0,512,512
261.705,0,0,512,512
261.752,0,0,512,512
261.811,0,0,512,512
261.858,0,0,512,512
261.905,0,0,512,512
261.951,0,0,512,512
262.01,0,0,512,512
262.057,0,0,512,512
262.104,0,0,512,512
262.151,0,0,512,512
262.209,0,0,512,512
262.256,0,0,512,512
262.303,0,0,512,512
262.361,0,0,512,512
262.408,0,0,512,512
262.455,0,0,512,512
262.502,0,0,512,512
262.561,0,0,512,512
262.608,0,0,512,512
262.654,0,0,512,512
262.701,0,0,512,512
262.76,0,0,512,512
262.807,0,0,512,512
262.854,0,0,512,512
262.9,0,0,512,512
262.959,0,0,512,512
263.006,0,0,512,512
263.053,0,0,512,512
263.111,-2.77556e-17,0,512,512
263.158,-2.77556e-17,0,512,512
263.205,-2.77556e-17,0,512,512
263.252,-2.77556e-17,0,512,512
263.311,-2.77556e-17,0,512,512
263.357,-2.77556e-17,0,512,512
263.404,-2.77556e-17,0,512,512
263.451,-2.77556e-17,0,512,512
263.51,-2.77556e-17,0,512,512
263.557,-2.77556e-17,0,512,512
263.603,-2.77556e-17,0,512,512
263.65,-2.77556e-17,0,512,512
263.709,-2.77556e-17,0,512,512
263.756,-2.77556e-17,0,512,512
263.803,-2.77556e-17,0,512,512
263.861,-2.77556e-17,0,512,512
263.908,-2.77556e-17,0,512,512
263.955,-2.77556e-17,0,512,512
264.002,-2.77556e-17,0,512,512
264.06,-2.77556e-17,0,512,512
264.107,-2.77556e-17,0,512,512
264.154,-2.77556e-17,0,512,512
264.201,-2.77556e-17,0,512,512
264.26,-2.77556e-17,0,512,512
264.306,-2.77556e-17,0,512,512
264.353,-2.77556e-17,0,512,512
264.4,-2.77556e-17,0,512,512
264.459,0,0,512,512
264.506,0,0,512,512
264.553,0,0,512,512
264.611,0,0,512,512
264.658,0,0,512,512
264.705,0,0,512,512
264.752,0,0,512,512
264.81,0,0,512,512
264.857,0,0,512,512
264.904,0,0,512,512
264.951,0,0,512,512
265.01,0,0,512,512
265.056,0,0,512,512
265.103,0,0,512,512
265.15,0,0,512,512
265.209,0,0,512,512
265.256,0,0,512,512
265.302,0,0,512,512
265.361,0,0,512,512
265.408,0,0,512,512
265.455,0,0,512,512
265.502,0,0,512,512
265.56,0,0,512,512
265.607,0,0,512,512
265.654,0,0,512,512
265.701,0,0,512,512
265.759,0,0,512,512
265.806,0,0,512,512
265.853,0,0,512,512
265.9,0,0,512,512
265.959,0,0,512,512
266.005,0,0,512,512
266.052,0,0,512,512
266.111,0,0,512,512
266.158,0,0,512,512
266.205,0,0,512,512
266.252,0,0,512,512
266.31,0,0,512,512
266.357,0,0,512,512
266.404,0,0,512,512
266.451,0,0,512,512
266.509,0,0,512,512
266.556,0,0,512,512
266.603,0,0,512,512
266.662,0,0,512,512
266.708,0,0,512,512
266.755,0,0,512,512
266.802,0,0,512,512
266.861,0,0,512,512
266.908,0,0,512,512
266.955,0,0,512,512
267.001,0,0,512,512
267.06,0,0,512,512
267.107,0,0,512,512
267.154,0,0,512,512
267.201,0,0,512,512
267.259,0,0,512,512
267.306,0,0,512,512
267.353,0,0,512,512
267.412,0,0,512,512
267.458,0,0,512,512
267.505,0,0,512,512
267.552,2.77556e-17,0,512,512
267.611,2.77556e-17,0,512,512
267.658,2.77556e-17,0,512,512
267.704,2.77556e-17,0,512,512
267.751,2.77556e-17,0,512,512
267.81,2.77556e-17,0,512,512
267.857,2.77556e-17,0,512,512
267.904,2.77556e-17,0,512,512
267.95,2.77556e-17,0,512,512
268.009,2.77556e-17,0,512,512
268.056,2.77556e-17,0,512,512
268.101,2.77556e-17,0,611,611
268.15,2.77556e-17,0,671,671
268.2,2.77556e-17,0,731,731
268.253,2.77556e-17,0,783,783
268.303,2.77556e-17,0,833,833
268.353,2.77556e-17,0,893,893
268.402,2.77556e-17,0,947,947
268.452,2.77556e-17,0,1001,1001
268.502,2.77556e-17,0,1049,1049
268.552,2.77556e-17,0,1095,1095
268.601,2.77556e-17,0,1143,1143
268.651,2.77556e-17,0,1189,1189
268.701,2.77556e-17,0,1241,1241
268.751,2.77556e-17,0,1301,1301
268.801,2.77556e-17,0,1361,1361
268.85,2.77556e-17,0,1403,1403
268.9,2.77556e-17,0,1463,1463
268.95,2.77556e-17,0,1523,1523
269.003,2.77556e-17,0,1573,1573
269.053,2.77556e-17,0,1631,1631
269.102,2.77556e-17,0,1691,1691
269.152,2.77556e-17,0,1751,1751
269.202,2.77556e-17,0,1793,1793
269.252,2.77556e-17,0,1853,1853
269.302,2.77556e-17,0,1907,1907
269.351,2.77556e-17,0,1963,1963
269.401,2.77556e-17,0,2021,2021
269.451,2.77556e-17,0,2065,2065
269.501,2.77556e-17,0,2123,2123
269.551,2.77556e-17,0,2183,2183
269.6,2.77556e-17,0,2233,2233
269.65,2.77556e-17,0,2291,2291
269.703,2.77556e-17,0,2351,2351
269.753,2.77556e-17,0,2395,2395
269.802,2.77556e-17,0,2455,2455
269.852,2.77556e-17,0,2503,2503
269.902,2.77556e-17,0,2561,2561
269.952,2.77556e-17,0,2621,2621
270.002,2.77556e-17,0,2673,2673
270.051,2.77556e-17,0,2725,2725
270.101,2.77556e-17,0,2773,2773
270.151,2.77556e-17,0,2831,2831
270.201,2.77556e-17,0,2883,2883
270.251,2.77556e-17,0,2935,2935
270.3,2.77556e-17,0,2981,2981
270.35,2.77556e-17,0,3041,3041
270.4,2.77556e-17,0,3093,3093
270.453,2.77556e-17,0,3149,3149
270.503,2.77556e-17,0,3191,3191
270.552,2.77556e-17,0,3243,3243
270.602,2.77556e-17,0,3299,3299
270.652,2.77556e-17,0,3343,3343
270.702,2.77556e-17,0,3401,3401
270.752,2.77556e-17,0,3449,3449
270.801,2.77556e-17,0,3497,3497
270.851,2.77556e-17,0,3551,3551
270.901,2.77556e-17,0,3603,3603
270.951,2.77556e-17,0,3643,3643
271.001,2.77556e-17,0,3693,3693
271.05,2.77556e-17,0,3749,3749
271.1,2.77556e-17,0,3797,3797
271.153,2.77556e-17,0,3843,3843
271.203,2.77556e-17,0,3903,3903
271.252,2.77556e-17,0,3943,3943
271.302,2.77556e-17,0,3989,3989
271.352,2.77556e-17,0,4039,4039
271.402,2.77556e-17,0,4085,4085
271.452,2.77556e-17,0,4143,4143
271.501,2.77556e-17,0,4183,4183
271.551,2.77556e-17,0,4229,4229
271.601,2.77556e-17,0,4277,4277
271.651,2.77556e-17,0,4325,4325
271.701,2.77556e-17,0,4373,4373
271.75,2.77556e-17,0,4415,4415
271.8,2.77556e-17,0,4469,4469
271.85,2.77556e-17,0,4517,4517
271.903,2.77556e-17,0,4563,4563
271.953,2.77556e-17,0,4607,4607
272.002,2.77556e-17,0,4651,4651
272.052,2.77556e-17,0,4697,4697
272.102,2.77556e-17,0,4749,4749
272.152,2.77556e-17,0,4791,4791
272.202,2.77556e-17,0,4831,4831
272.251,2.77556e-17,0,4877,4877
272.301,2.77556e-17,0,4929,4929
272.351,2.77556e-17,0,4971,4971
272.401,2.77556e-17,0,5011,5011
272.451,2.77556e-17,0,5057,5057
272.5,2.77556e-17,0,5109,5109
272.55,2.77556e-17,0,5151,5151
272.603,2.77556e-17,0,5191,5191
272.653,2.77556e-17,0,5237,5237
272.702,1.94289e-16,0,5285,5285
272.752,3.88578e-16,0,5319,5319
272.802,4.71845e-16,0,5359,5359
272.852,6.66134e-16,0,5409,5409
272.902,8.32667e-16,0,5451,5451
272.951,8.32667e-16,0,5491,5491
273.001,9.4369e-16,0,5537,5537
273.051,1.05471e-15,0,5581,5581
273.101,1.05471e-15,0,5611,5611
273.151,1.08247e-15,0,5657,5657
273.2,1.08247e-15,0,5709,5709
273.25,5.27356e-16,0,5751,5751
273.3,-1.4988e-15,0,5791,5791
273.353,-7.13318e-15,0,5829,5829
273.403,-1.89015e-14,0,5877,5877
273.452,-4.19664e-14,0,5911,5911
273.502,-8.44602e-14,0,5957,5957
273.552,-1.5854e-13,0,6005,6005
273.602,-2.81664e-13,0,6043,6043
273.652,-4.78062e-13,0,6063,6063
273.701,-7.79571e-13,0,6113,6113
273.751,-1.22657e-12,0,6143,6143
273.801,-1.86784e-12,0,6155,6155
273.851,-2.7594e-12,0,6185,6185
273.901,-3.96252e-12,0,6213,6213
273.95,-5.54021e-12,0,6235,6235
274,-7.54005e-12,0,6249,6249
274.053,-1.05056e-11,0,6297,6297
274.103,-1.72881e-11,0,6307,6307
274.152,-2.78512e-11,0,6335,6335
274.202,-6.46898e-11,0,6373,6373
274.252,-1.16402e-10,0,6395,6395
274.302,-1.69448e-10,0,6391,6391
274.352,-2.02875e-10,0,6429,6429
274.401,-1.96434e-10,0,6461,6461
274.451,-1.46103e-10,0,6495,6495
274.501,-6.77215e-11,0,6533,6533
274.551,9.85528e-12,0,6551,6551
274.601,6.0764e-11,0,6591,6591
274.65,7.76331e-11,0,6625,6625
274.7,7.61499e-11,0,6609,6609
274.753,7.76786e-11,0,6603,6603
274.803,8.3994e-11,0,6645,6645
274.853,9.73243e-11,0,6697,6697
274.902,1.1013e-10,0,6721,6721
274.952,1.09557e-10,0,6751,6751
275.002,1.03734e-10,0,6785,6785
275.052,1.00695e-10,0,6815,6815
275.102,1.03962e-10,0,6845,6845
275.151,1.12013e-10,0,6877,6877
275.201,1.21195e-10,0,6903,6903
275.251,1.23627e-10,0,6905,6905
275.301,1.17708e-10,0,6897,6897
275.35,1.10784e-10,0,6919,6919
275.4,1.09402e-10,0,6969,6969
275.45,1.15222e-10,0,7029,7029
275.503,1.27625e-10,0,7035,7035
275.553,1.35234e-10,0,7069,7069
275.602,1.27574e-10,0,7101,7101
275.652,1.10536e-10,0,7111,7111
275.702,1.00326e-10,0,7143,7143
275.752,1.11892e-10,0,7175,7175
275.802,1.47014e-10,0,7257,7257
275.851,1.75883e-10,0,7283,7283
275.901,2.18153e-10,0,7341,7341
275.951,3.9672e-10,0,7331,7331
276.001,9.63676e-10,0,7355,7355
276.051,2.24386e-09,0,7377,7377
276.1,4.50307e-09,0,7393,7393
276.15,7.80986e-09,0,7435,7435
276.203,1.22406e-08,0,7468,7468
276.253,1.69009e-08,0,7492,7492
276.302,2.16094e-08,0,7522,7522
276.352,2.613e-08,0,7556,7556
276.402,3.05176e-08,0,7592,7592
276.452,3.51276e-08,0,7614,7614
276.502,4.05115e-08,0,7632,7632
276.551,4.72645e-08,0,7648,7648
276.601,5.59065e-08,0,7646,7646
276.651,6.68587e-08,0,7670,7670
276.701,8.05161e-08,0,7666,7666
276.751,9.73495e-08,0,7648,7648
276.8,1.17953e-07,0,7556,7556
276.85,1.42986e-07,0,7580,7580
276.9,1.73014e-07,0,7624,7624
276.953,2.10568e-07,0,7688,7688
277.003,2.51358e-07,0,7766,7766
277.052,2.96827e-07,0,7828,7828
277.102,3.46289e-07,0,7890,7890
277.152,3.99067e-07,0,7926,7926
277.202,4.54584e-07,0,7972,7972
277.252,5.12269e-07,0,8032,8032
277.301,5.71315e-07,0,8080,8080
277.351,6.30444e-07,0,8076,8076
277.401,6.87866e-07,0,8066,8066
277.451,7.41477e-07,0,8134,8134
277.501,7.89251e-07,0,8070,8070
277.55,8.29644e-07,0,8058,8058
277.6,8.61867e-07,0,8048,8048
277.653,8.871e-07,0,7973,7973
277.703,9.03213e-07,0,7967,7967
277.752,9.12791e-07,0,7963,7963
277.802,9.16729e-07,0,7983,7983
277.852,9.15619e-07,0,7979,7979
277.902,9.09633e-07,0,8095,8095
277.952,8.98545e-07,0,8063,8063
278.001,8.81863e-07,0,8108,8108
278.051,8.59034e-07,0,8130,8130
278.101,8.29673e-07,0,8108,8108
278.151,7.93787e-07,0,8164,8164
278.201,7.51924e-07,0,8136,8136
278.25,7.05196e-07,0,8168,8168
278.3,6.55159e-07,0,8148,8148
278.35,6.03564e-07,0,8112,8112
278.403,5.49082e-07,0,8148,8148
278.453,4.99166e-07,0,8148,8148
278.502,4.5164e-07,0,8146,8146
278.552,4.06931e-07,0,8154,8154
278.602,3.65118e-07,0,8110,8110
278.652,3.26096e-07,0,8138,8138
278.702,2.89748e-07,0,8150,8150
278.751,2.56086e-07,0,8084,8084
278.801,2.25289e-07,0,7950,7950
278.851,1.9763e-07,0,7986,7986
278.901,1.73294e-07,0,7900,7900
278.951,1.52199e-07,0,7872,7872
279,1.33933e-07,0,7840,7840
279.05,1.17874e-07,0,7814,7814
279.103,1.02618e-07,0,7782,7782
279.153,8.95041e-08,0,7750,7750
279.202,7.76305e-08,0,7736,7736
279.252,6.71753e-08,0,7680,7680
279.302,5.82944e-08,0,7654,7654
279.352,5.09447e-08,0,7614,7614
279.402,4.48396e-08,0,7574,7574
279.451,3.95521e-08,0,7562,7562
279.501,3.47008e-08,0,7522,7522
279.551,3.01176e-08,0,7472,7472
279.601,2.59052e-08,0,7424,7424
279.651,2.23591e-08,0,7392,7392
279.7,1.98006e-08,0,7478,7478
279.75,1.84191e-08,0,7552,7552
279.8,1.82029e-08,0,7540,7540
279.853,1.90457e-08,0,7520,7520
279.903,2.05945e-08,0,7524,7524
279.952,2.26466e-08,0,7644,7644
280.002,2.50453e-08,0,7700,7700
280.052,2.76969e-08,0,7674,7674
280.102,3.05471e-08,0,7648,7648
280.152,3.35621e-08,0,7624,7624
280.201,3.67237e-08,0,7612,7612
280.251,4.00295e-08,0,7588,7588
280.301,4.34902e-08,0,7604,7604
280.351,4.71184e-08,0,7630,7630
280.401,5.09181e-08,0,7596,7596
280.45,5.48836e-08,0,7580,7580
280.5,5.90071e-08,0,7700,7700
280.553,6.35472e-08,0,7812,7812
280.603,6.80227e-08,0,7890,7890
280.652,7.27279e-08,0,7980,7980
280.702,7.77271e-08,0,7936,7936
280.752,8.30864e-08,0,7880,7880
280.802,8.88542e-08,0,7848,7848
280.852,9.50445e-08,0,7922,7922
280.901,1.0163e-07,0,7956,7956
280.951,1.08552e-07,0,7980,7980
281.001,1.15741e-07,0,7896,7896
281.051,1.23151e-07,0,7850,7850
281.101,1.30797e-07,0,7808,7808
281.15,1.38775e-07,0,7746,7746
281.2,1.47274e-07,0,7898,7898
281.25,1.56568e-07,0,7786,7786
281.303,1.67662e-07,0,7690,7690
281.353,1.79736e-07,0,7640,7640
281.402,1.93791e-07,0,7708,7708
281.452,2.10257e-07,0,7662,7662
281.502,2.29545e-07,0,7548,7548
281.552,2.52021e-07,0,7494,7494
281.602,2.77975e-07,0,7440,7440
281.651,3.07583e-07,0,7530,7530
281.701,3.4088e-07,0,7480,7480
281.751,3.77742e-07,0,7376,7376
281.801,4.17885e-07,0,7334,7334
281.851,4.60865e-07,0,7284,7284
281.9,5.06087e-07,0,7236,7236
281.95,5.52806e-07,0,7188,7188
282.003,6.02907e-07,0,7156,7156
282.053,6.4973e-07,0,7106,7106
282.102,6.94891e-07,0,7064,7064
282.152,7.37177e-07,0,7010,7010
282.202,7.75404e-07,0,6998,6998
282.252,8.08521e-07,0,6946,6946
282.302,8.35705e-07,0,6964,6964
282.351,8.56415e-07,0,6906,6906
282.401,8.70411e-07,0,6906,6906
282.451,8.77711e-07,0,6854,6854
282.501,8.78516e-07,0,6822,6822
282.551,8.73111e-07,0,6820,6820
282.6,8.61789e-07,0,6816,6816
282.65,8.44786e-07,0,6800,6800
282.703,8.20786e-07,0,6794,6794
282.753,7.92602e-07,0,6824,6824
282.803,7.59233e-07,0,6800,6800
282.852,7.20957e-07,0,6786,6786
282.902,6.7822e-07,0,6824,6824
282.952,6.31668e-07,0,6786,6786
283.002,5.82142e-07,0,6798,6798
283.052,5.30631e-07,0,6786,6786
283.101,4.7819e-07,0,6750,6750
283.151,4.2586e-07,0,6762,6762
283.201,3.74578e-07,0,6732,6732
283.251,3.25124e-07,0,6796,6796
283.3,2.78097e-07,0,6802,6802
283.35,2.33918e-07,0,6802,6802
283.4,1.92864e-07,0,6876,6876
283.453,1.52979e-07,0,6910,6910
283.503,1.18781e-07,0,6944,6944
283.552,8.79727e-08,0,6988,6988
283.602,6.0509e-08,0,7032,7032
283.652,3.62833e-08,0,7076,7076
283.702,1.51252e-08,0,7108,7108
283.752,-3.18696e-09,0,7152,7152
283.801,-1.89047e-08,0,7196,7196
283.851,-3.22819e-08,0,7232,7232
283.901,-4.35529e-08,0,7268,7268
283.951,-5.29232e-08,0,7316,7316
284.001,-6.05738e-08,0,7360,7360
284.05,-6.66738e-08,0,7400,7400
284.1,-7.13922e-08,0,7436,7436
284.153,-7.50725e-08,0,7484,7484
284.203,-7.74788e-08,0,7528,7528
284.253,-7.89924e-08,0,7576,7576
284.302,-7.97215e-08,0,7620,7620
284.352,-7.97367e-08,0,7656,7656
284.402,-7.90801e-08,0,7704,7704
284.452,-7.77827e-08,0,7740,7740
284.501,-7.58855e-08,0,7788,7788
284.551,-7.34537e-08,0,7824,7824
284.601,-7.05813e-08,0,7864,7864
284.651,-6.73862e-08,0,7908,7908
284.701,-6.39978e-08,0,7956,7956
284.75,-6.05427e-08,0,7982,7982
284.8,-5.71326e-08,0,8026,8026
284.85,-5.38567e-08,0,8070,8070
284.903,-5.06051e-08,0,8106,8106
284.953,-4.77805e-08,0,8112,8112
285.002,-4.52146e-08,0,8152,8152
285.052,-4.29117e-08,0,8156,8156
285.102,-4.08661e-08,0,8168,8168
285.152,-3.90672e-08,0,8156,8156
285.202,-3.7502e-08,0,8152,8152
285.251,-3.61569e-08,0,8148,8148
285.301,-3.50188e-08,0,8148,8148
285.351,-3.40742e-08,0,8148,8148
285.401,-3.33092e-08,0,8148,8148
285.451,-3.27093e-08,0,8148,8148
285.5,-3.22588e-08,0,8144,8144
285.55,-3.19415e-08,0,8140,8140
285.603,-3.17323e-08,0,8096,8096
285.653,-3.16372e-08,0,8078,8078
285.702,-3.16254e-08,0,8160,8160
285.752,-3.16822e-08,0,8184,8184
285.802,-3.17943e-08,0,8192,8192
285.852,-3.19496e-08,0,8192,8192
285.902,-3.21376e-08,0,8192,8192
285.951,-3.23494e-08,0,8192,8192
286.001,-3.25771e-08,0,8192,8192
286.051,-3.28141e-08,0,8192,8192
286.101,-3.3055e-08,0,8192,8192
286.151,-3.32949e-08,0,8192,8192
286.2,-3.35302e-08,0,8192,8192
286.25,-3.37576e-08,0,8192,8192
286.3,-3.39746e-08,0,8192,8192
286.353,-3.41908e-08,0,8192,8192
286.403,-3.43804e-08,0,8192,8192
286.452,-3.45545e-08,0,8192,8192
286.502,-3.47118e-08,0,8192,8192
286.552,-3.48513e-08,0,8192,8192
286.602,-3.49722e-08,0,8192,8192
286.652,-3.50739e-08,0,8192,8192
286.701,-3.51562e-08,0,8192,8192
286.751,-3.52193e-08,0,8104,8104
286.801,-3.52636e-08,0,8128,8128
286.851,-3.52898e-08,0,8152,8152
286.901,-3.53009e-08,0,8148,8148
286.95,-3.5293e-08,0,8152,8152
287,-3.52736e-08,0,8164,8164
287.053,-3.52383e-08,0,8176,8176
287.103,-3.51954e-08,0,8168,8168
287.152,-3.51447e-08,0,8156,8156
287.202,-3.50879e-08,0,8148,8148
287.252,-3.50228e-08,0,8160,8160
287.302,-3.49568e-08,0,8144,8144
287.352,-3.48893e-08,0,8144,8144
287.401,-3.48213e-08,0,8136,8136
287.451,-3.47533e-08,0,8180,8180
287.501,-3.46866e-08,0,8172,8172
287.551,-3.46236e-08,0,8156,8156
287.601,-3.45633e-08,0,8172,8172
287.65,-3.45065e-08,0,8168,8168
287.7,-3.4455e-08,0,8144,8144
287.75,-3.44091e-08,0,8132,8132
287.803,-3.43661e-08,0,8128,8128
287.853,-3.43316e-08,0,8108,8108
287.902,-3.43032e-08,0,8100,8100
287.952,-3.4282e-08,0,8092,8092
288.002,-3.42672e-08,0,8084,8084
288.052,-3.42561e-08,0,8136,8136
288.102,-3.42578e-08,0,8136,8136
288.151,-3.42567e-08,0,8096,8096
288.201,-3.42652e-08,0,8072,8072
288.251,-3.42844e-08,0,8092,8092
288.301,-3.43204e-08,0,8136,8136
288.351,-3.43512e-08,0,8168,8168
288.4,-3.43936e-08,0,8136,8136
288.45,-3.44462e-08,0,8156,8156
288.503,-3.45069e-08,0,8172,8172
288.553,-3.45694e-08,0,8164,8164
288.602,-3.46431e-08,0,8164,8164
288.652,-3.47234e-08,0,8180,8180
288.702,-3.48144e-08,0,8184,8184
288.752,-3.4915e-08,0,8168,8168
288.802,-3.50259e-08,0,8176,8176
288.851,-3.51487e-08,0,8184,8184
288.901,-3.52856e-08,0,8192,8192
288.951,-3.54373e-08,0,8188,8188
289.001,-3.5605e-08,0,8180,8180
289.051,-3.57898e-08,0,8180,8180
289.1,-3.59935e-08,0,8184,8184
289.15,-3.62166e-08,0,8176,8176
289.2,-3.64598e-08,0,8180,8180
289.253,-3.67397e-08,0,8180,8180
289.303,-3.70249e-08,0,8188,8188
289.352,-3.73298e-08,0,8188,8188
289.402,-3.7654e-08,0,8184,8184
289.452,-3.79956e-08,0,8192,8192
289.502,-3.83518e-08,0,8192,8192
289.552,-3.872e-08,0,8184,8184
289.601,-3.90975e-08,0,8192,8192
289.651,-3.94814e-08,0,8192,8192
289.701,-3.98683e-08,0,8192,8192
289.751,-4.02542e-08,0,8176,8176
289.801,-4.06344e-08,0,8192,8192
289.85,-4.10049e-08,0,8184,8184
289.9,-4.13624e-08,0,8180,8180
289.953,-4.17227e-08,0,8176,8176
290.003,-4.20412e-08,0,8176,8176
290.052,-4.23356e-08,0,8168,8168
290.102,-4.26028e-08,0,8160,8160
290.152,-4.28394e-08,0,8148,8148
290.202,-4.30426e-08,0,8136,8136
290.252,-4.32104e-08,0,8124,8124
290.301,-4.3341e-08,0,8092,8092
290.351,-4.34329e-08,0,8176,8176
290.401,-4.34848e-08,0,8098,8098
290.451,-4.34973e-08,0,8088,8088
290.501,-4.34653e-08,0,8158,8158
290.55,-4.33943e-08,0,8156,8156
290.6,-4.32812e-08,0,8164,8164
290.653,-4.31153e-08,0,8068,8068
290.703,-4.29174e-08,0,7952,7952
290.753,-4.26785e-08,0,8008,8008
290.802,-4.23981e-08,0,8076,8076
290.852,-4.20768e-08,0,8080,8080
290.902,-4.17145e-08,0,8072,8072
290.952,-4.13111e-08,0,8056,8056
291.001,-4.08671e-08,0,8020,8020
291.051,-4.0382e-08,0,8044,8044
291.101,-3.98562e-08,0,8046,8046
291.151,-3.92902e-08,0,8150,8150
291.201,-3.8685e-08,0,8192,8192
291.25,-3.80417e-08,0,8192,8192
291.3,-3.73621e-08,0,8192,8192
291.35,-3.66489e-08,0,8192,8192
291.403,-3.58602e-08,0,8192,8192
291.453,-3.50873e-08,0,8140,8140
291.502,-3.42913e-08,0,8016,8016
291.552,-3.34765e-08,0,8042,8042
291.602,-3.26478e-08,0,8058,8058
291.652,-3.181e-08,0,8076,8076
291.702,-3.09684e-08,0,8062,8062
291.751,-3.0128e-08,0,8054,8054
291.801,-2.92937e-08,0,8034,8034
291.851,-2.84706e-08,0,8046,8046
291.901,-2.76632e-08,0,8028,8028
291.951,-2.6876e-08,0,7972,7972
292,-2.61131e-08,0,7916,7916
292.05,-2.53783e-08,0,7844,7844
292.103,-2.46347e-08,0,7898,7898
292.153,-2.3968e-08,0,7772,7772
292.202,-2.33384e-08,0,7792,7792
292.252,-2.27478e-08,0,7702,7702
292.302,-2.21976e-08,0,7734,7734
292.352,-2.16885e-08,0,7684,7684
292.402,-2.12205e-08,0,7684,7684
292.451,-2.07931e-08,0,7702,7702
292.501,-2.04053e-08,0,7638,7638
292.551,-2.00556e-08,0,7612,7612
292.601,-1.97422e-08,0,7620,7620
292.651,-1.94627e-08,0,7608,7608
292.7,-1.92149e-08,0,7618,7618
292.75,-1.8996e-08,0,7624,7624
292.8,-1.88037e-08,0,7620,7620
292.853,-1.86261e-08,0,7596,7596
292.903,-1.84803e-08,0,7598,7598
292.952,-1.83532e-08,0,7602,7602
293.002,-1.82421e-08,0,7604,7604
293.052,-1.81446e-08,0,7570,7570
293.102,-1.80584e-08,0,7588,7588
293.152,-1.79814e-08,0,7580,7580
293.201,-1.79122e-08,0,7572,7572
293.251,-1.78492e-08,0,7576,7576
293.301,-1.7791e-08,0,7572,7572
293.351,-1.77363e-08,0,7558,7558
293.401,-1.76839e-08,0,7556,7556
293.45,-1.76326e-08,0,7566,7566
293.5,-1.75809e-08,0,7564,7564
293.553,-1.75247e-08,0,7604,7604
293.603,-1.74692e-08,0,7626,7626
293.652,-1.74102e-08,0,7670,7670
293.702,-1.73463e-08,0,7720,7720
293.752,-1.72765e-08,0,7776,7776
293.802,-1.71996e-08,0,7826,7826
293.852,-1.71149e-08,0,7870,7870
293.901,-1.70217e-08,0,7930,7930
293.951,-1.69195e-08,0,7978,7978
294.001,-1.68085e-08,0,8042,8042
294.051,-1.66888e-08,0,8086,8086
294.101,-1.65611e-08,0,8098,8098
294.15,-1.6426e-08,0,8138,8138
294.2,-1.62842e-08,0,8184,8184
294.25,-1.61368e-08,0,8184,8184
294.303,-1.59759e-08,0,8176,8176
294.353,-1.58208e-08,0,8176,8176
294.402,-1.56641e-08,0,8180,8180
294.452,-1.55068e-08,0,8192,8192
294.502,-1.53499e-08,0,8192,8192
294.552,-1.51943e-08,0,8184,8184
294.602,-1.50404e-08,0,8184,8184
294.651,-1.48884e-08,0,8176,8176
294.701,-1.4738e-08,0,8176,8176
294.751,-1.45884e-08,0,8192,8192
294.801,-1.44384e-08,0,8176,8176
294.851,-1.42867e-08,0,8176,8176
294.9,-1.41322e-08,0,8180,8180
294.95,-1.39733e-08,0,8188,8188
295.003,-1.37989e-08,0,8192,8192
295.053,-1.3627e-08,0,8168,8168
295.102,-1.3447e-08,0,8180,8180
295.152,-1.3258e-08,0,8176,8176
295.202,-1.30587e-08,0,8188,8188
295.252,-1.28478e-08,0,8172,8172
295.302,-1.26237e-08,0,8192,8192
295.351,-1.23849e-08,0,8172,8172
295.401,-1.21295e-08,0,8172,8172
295.451,-1.18554e-08,0,8152,8152
295.501,-1.15604e-08,0,8160,8160
295.551,-1.12425e-08,0,8156,8156
295.6,-1.08998e-08,0,8152,8152
295.65,-1.05308e-08,0,8152,8152
295.7,-1.01343e-08,0,8152,8152
295.753,-9.6836e-09,0,8152,8152
295.803,-9.22818e-09,0,8144,8144
295.852,-8.74379e-09,0,8144,8144
295.902,-8.23084e-09,0,8124,8124
295.952,-7.69022e-09,0,8120,8120
296.002,-7.12321e-09,0,8120,8120
296.052,-6.53154e-09,0,8116,8116
296.101,-5.9174e-09,0,8128,8128
296.151,-5.28347e-09,0,8128,8128
296.201,-4.63286e-09,0,8144,8144
296.251,-3.96901e-09,0,8136,8136
296.301,-3.29564e-09,0,8152,8152
296.35,-2.61675e-09,0,8144,8144
296.4,-1.93646e-09,0,8152,8152
296.453,-1.2193e-09,0,8128,8128
296.503,-5.49393e-10,0,8110,8110
296.552,1.09077e-10,0,8074,8074
296.602,7.52068e-10,0,8076,8076
296.652,1.37571e-09,0,8068,8068
296.702,1.97632e-09,0,8064,8064
296.752,2.55048e-09,0,8060,8060
296.801,3.09511e-09,0,8042,8042
296.851,3.60746e-09,0,8040,8040
296.901,4.08521e-09,0,8088,8088
296.951,4.52641e-09,0,8092,8092
297.001,4.92958e-09,0,8094,8094
297.05,5.29373e-09,0,8140,8140
297.1,5.61834e-09,0,8156,8156
297.15,5.90343e-09,0,8160,8160
297.203,6.16282e-09,0,8144,8144
297.253,6.36875e-09,0,8136,8136
297.302,6.53825e-09,0,8008,8008
297.352,6.67319e-09,0,8036,8036
297.402,6.7757e-09,0,8044,8044
297.452,6.84789e-09,0,8048,8048
297.502,6.89188e-09,0,8076,8076
297.551,6.90889e-09,0,8072,8072
297.601,6.90148e-09,0,8052,8052
297.651,6.88334e-09,0,8036,8036
297.701,6.8507e-09,0,8016,8016
297.751,6.79679e-09,0,7944,7944
297.8,6.72772e-09,0,7928,7928
297.85,6.6495e-09,0,7876,7876
297.903,6.55937e-09,0,7838,7838
297.953,6.46826e-09,0,7812,7812
298.002,6.37276e-09,0,7766,7766
298.052,6.27437e-09,0,7844,7844
298.102,6.17445e-09,0,7884,7884
298.152,6.0744e-09,0,7928,7928
298.202,5.97536e-09,0,7982,7982
298.251,5.87838e-09,0,8016,8016
298.301,5.78448e-09,0,8046,8046
298.351,5.6947e-09,0,8062,8062
298.401,5.6098e-09,0,8082,8082
298.451,5.5304e-09,0,8084,8084
298.5,5.45731e-09,0,8112,8112
298.55,5.39094e-09,0,8120,8120
298.603,5.32797e-09,0,8120,8120
298.653,5.27536e-09,0,8108,8108
298.703,5.22975e-09,0,8096,8096
298.752,5.19149e-09,0,8096,8096
298.802,5.15988e-09,0,8104,8104
298.852,5.13339e-09,0,8092,8092
298.902,5.11046e-09,0,8108,8108
298.952,5.08967e-09,0,8088,8088
299.001,5.06987e-09,0,8086,8086
299.051,5.04985e-09,0,8072,8072
299.101,5.02864e-09,0,8084,8084
299.151,5.00537e-09,0,8072,8072
299.2,4.97891e-09,0,8080,8080
299.25,4.94843e-09,0,8074,8074
299.3,4.91363e-09,0,8072,8072
299.353,4.87151e-09,0,8062,8062
299.403,4.82616e-09,0,7944,7944
299.452,4.77527e-09,0,7895,7895
299.502,4.71818e-09,0,7850,7850
299.552,4.6546e-09,0,7862,7862
299.602,4.58595e-09,0,7876,7876
299.652,4.51436e-09,0,7880,7880
299.701,4.4413e-09,0,7876,7876
299.751,4.36759e-09,0,7830,7830
299.801,4.29393e-09,0,7846,7846
299.851,4.22103e-09,0,7824,7824
299.901,4.14962e-09,0,7812,7812
299.95,4.08038e-09,0,7768,7768
300,4.01397e-09,0,7754,7754
300.053,3.94765e-09,0,7760,7760
300.103,3.88977e-09,0,7730,7730
300.152,3.83743e-09,0,7660,7660
300.202,3.79122e-09,0,7592,7592
300.252,3.75142e-09,0,7644,7644
300.302,3.71813e-09,0,7680,7680
300.352,3.69106e-09,0,7700,7700
300.401,3.66928e-09,0,7726,7726
300.451,3.65171e-09,0,7720,7720
300.501,3.63791e-09,0,7772,7772
300.551,3.63359e-09,0,7814,7814
300.601,3.62724e-09,0,7818,7818
300.65,3.62502e-09,0,7842,7842
300.7,3.61698e-09,0,7764,7764
300.75,3.61877e-09,0,7728,7728
300.803,3.62363e-09,0,7746,7746
300.853,3.64698e-09,0,7748,7748
300.902,3.63711e-09,0,7690,7690
300.952,3.63992e-09,0,7686,7686
301.002,3.64269e-09,0,7670,7670
301.052,3.64407e-09,0,7820,7820
301.102,3.64314e-09,0,7804,7804
301.151,3.63649e-09,0,7694,7694
301.201,3.63374e-09,0,7622,7622
301.251,3.62976e-09,0,7568,7568
301.301,3.62309e-09,0,7622,7622
301.351,3.61425e-09,0,7692,7692
301.4,3.60806e-09,0,7648,7648
301.45,3.59335e-09,0,7728,7728
301.503,3.57645e-09,0,7696,7696
301.553,3.55876e-09,0,7680,7680
301.602,3.53964e-09,0,7746,7746
301.652,3.51972e-09,0,7624,7624
301.702,3.49891e-09,0,7600,7600
301.752,3.47774e-09,0,7676,7676
301.802,3.45444e-09,0,7662,7662
301.851,3.43e-09,0,7654,7654
301.901,3.40345e-09,0,7732,7732
301.951,3.37574e-09,0,7674,7674
302.001,3.34745e-09,0,7638,7638
302.051,3.31954e-09,0,7620,7620
302.1,3.29157e-09,0,7716,7716
302.15,3.26202e-09,0,7626,7626
302.2,3.23015e-09,0,7590,7590
302.253,3.19548e-09,0,7518,7518
302.303,3.16314e-09,0,7508,7508
302.352,3.13125e-09,0,7604,7604
302.402,3.099e-09,0,7560,7560
302.452,3.06584e-09,0,7576,7576
302.502,3.03179e-09,0,7502,7502
302.552,2.99751e-09,0,7460,7460
302.601,2.96384e-09,0,7632,7632
302.651,2.93077e-09,0,7584,7584
302.701,2.89814e-09,0,7486,7486
302.751,2.86585e-09,0,7434,7434
302.801,2.83349e-09,0,7428,7428
302.85,2.80058e-09,0,7348,7348
302.9,2.7671e-09,0,7246,7246
302.953,2.73168e-09,0,7274,7274
303.003,2.69883e-09,0,7260,7260
303.052,2.66632e-09,0,7286,7286
303.102,2.63337e-09,0,7294,7294
303.152,2.59966e-09,0,7282,7282
303.202,2.56551e-09,0,7358,7358
303.252,2.5313e-09,0,7300,7300
303.301,2.49709e-09,0,7278,7278
303.351,2.46279e-09,0,7264,7264
303.401,2.42833e-09,0,7260,7260
303.451,2.39342e-09,0,7306,7306
303.501,2.35776e-09,0,7278,7278
303.55,2.32132e-09,0,7270,7270
303.6,2.28425e-09,0,7272,7272
303.65,2.24681e-09,0,7324,7324
303.703,2.20691e-09,0,7356,7356
303.753,2.16897e-09,0,7376,7376
303.802,2.13073e-09,0,7368,7368
303.852,2.09219e-09,0,7380,7380
303.902,2.0533e-09,0,7384,7384
303.952,2.01388e-09,0,7396,7396
304.002,1.97364e-09,0,7374,7374
304.051,1.9325e-09,0,7358,7358
304.101,1.89087e-09,0,7300,7300
304.151,1.84928e-09,0,7296,7296
304.201,1.80781e-09,0,7270,7270
304.251,1.76624e-09,0,7224,7224
304.3,1.72443e-09,0,7192,7192
304.35,1.68244e-09,0,7158,7158
304.403,1.63802e-09,0,7112,7112
304.453,1.59634e-09,0,7094,7094
304.502,1.55497e-09,0,7064,7064
304.552,1.51378e-09,0,7062,7062
304.602,1.47267e-09,0,7032,7032
304.652,1.4316e-09,0,7012,7012
304.702,1.39057e-09,0,6990,6990
304.751,1.34975e-09,0,6982,6982
304.801,1.30942e-09,0,6960,6960
304.851,1.26979e-09,0,6968,6968
304.901,1.23081e-09,0,6960,6960
304.951,1.19232e-09,0,6910,6910
