250,0,0,512,512
250.012,0,0,512,512
250.059,0,0,512,512
250.105,0,0,512,512
250.152,0,0,512,512
250.211,0,0,512,512
250.258,0,0,512,512
250.305,0,0,512,512
250.352,0,0,512,512
250.41,0,0,512,512
250.457,0,0,512,512
250.504,0,0,512,512
250.551,0,0,512,512
250.609,0,0,512,512
250.656,0,0,512,512
250.703,0,0,512,512
250.762,0,0,512,512
250.808,0,0,512,512
250.855,0,0,512,512
250.902,0,0,512,512
250.961,0,0,512,512
251.008,0,0,512,512
251.055,0,0,512,512
251.101,0,0,512,512
251.16,0,0,512,512
251.207,0,0,512,512
251.254,0,0,512,512
251.301,0,0,512,512
251.359,0,0,512,512
251.406,0,0,512,512
251.453,0,0,512,512
251.511,0,0,512,512
251.558,0,0,512,512
251.605,0,0,512,512
251.652,0,0,512,512
251.711,0,0,512,512
251.758,0,0,512,512
251.804,0,0,512,512
251.851,0,0,512,512
251.91,0,0,512,512
251.957,0,0,512,512
252.004,0,0,512,512
252.05,0,0,512,512
252.109,0,0,512,512
252.156,0,0,512,512
252.203,0,0,512,512
252.261,0,0,512,512
252.308,0,0,512,512
252.355,0,0,512,512
252.402,0,0,512,512
252.461,0,0,512,512
252.507,0,0,512,512
252.554,0,0,512,512
252.601,0,0,512,512
252.66,0,0,512,512
252.707,0,0,512,512
252.754,0,0,512,512
252.8,0,0,512,512
252.859,0,0,512,512
252.906,0,0,512,512
252.953,0,0,512,512
253.011,0,0,512,512
253.058,0,0,512,512
253.105,0,0,512,512
253.152,0,0,512,512
253.21,0,0,512,512
253.257,0,0,512,512
253.304,0,0,512,512
253.351,0,0,512,512
253.41,0,0,512,512
253.457,0,0,512,512
253.503,0,0,512,512
253.55,0,0,512,512
253.609,0,0,512,512
253.656,0,0,512,512
253.703,0,0,512,512
253.761,0,0,512,512
253.808,0,0,512,512
253.855,0,0,512,512
253.902,0,0,512,512
253.96,0,0,512,512
254.007,0,0,512,512
254.054,0,0,512,512
254.101,0,0,512,512
254.16,0,0,512,512
254.206,0,0,512,512
254.253,0,0,512,512
254.3,0,0,512,512
254.359,0,0,512,512
254.406,0,0,512,512
254.452,0,0,512,512
254.511,0,0,512,512
254.558,0,0,512,512
254.605,0,0,512,512
254.652,0,0,512,512
254.71,0,0,512,512
254.757,0,0,512,512
254.804,0,0,512,512
254.851,0,0,512,512
254.909,0,0,512,512
254.956,0,0,512,512
255.003,0,0,512,512
255.05,0,0,512,512
255.109,0,0,512,512
255.155,0,0,512,512
255.202,0,0,512,512
255.261,0,0,512,512
255.308,0,0,512,512
255.355,0,0,512,512
255.402,0,0,512,512
255.46,0,0,512,512
255.507,0,0,512,512
255.554,0,0,512,512
255.601,0,0,512,512
255.659,0,0,512,512
255.706,0,0,512,512
255.753,0,0,512,512
255.812,0,0,512,512
255.859,0,0,512,512
255.905,0,0,512,512
255.952,0,0,512,512
256.011,0,0,512,512
256.058,0,0,512,512
256.105,0,0,512,512
256.151,0,0,512,512
256.21,0,0,512,512
256.257,0,0,512,512
256.304,0,0,512,512
256.351,0,0,512,512
256.409,0,0,512,512
256.456,0,0,512,512
256.503,0,0,512,512
256.562,0,0,512,512
256.608,0,0,512,512
256.655,0,0,512,512
256.702,0,0,512,512
256.761,0,0,512,512
256.808,0,0,512,512
256.854,0,0,512,512
256.901,0,0,512,512
256.96,0,0,512,512
257.007,0,0,512,512
257.054,0,0,512,512
257.101,0,0,512,512
257.159,0,0,512,512
257.206,0,0,512,512
257.253,0,0,512,512
257.311,0,0,512,512
257.358,0,0,512,512
257.405,0,0,512,512
257.452,0,0,512,512
257.511,0,0,512,512
257.557,0,0,512,512
257.604,0,0,512,512
257.651,0,0,512,512
257.71,0,0,512,512
257.757,0,0,512,512
257.804,0,0,512,512
257.85,2.77556e-17,0,512,512
257.909,2.77556e-17,0,512,512
257.956,2.77556e-17,0,512,512
258.003,2.77556e-17,0,512,512
258.061,2.77556e-17,0,512,512
258.108,2.77556e-17,0,512,512
258.155,2.77556e-17,0,512,512
258.202,2.77556e-17,0,512,512
258.261,2.77556e-17,0,512,512
258.307,2.77556e-17,0,512,512
258.354,2.77556e-17,0,512,512
258.401,2.77556e-17,0,512,512
258.46,2.77556e-17,0,512,512
258.507,2.77556e-17,0,512,512
258.553,2.77556e-17,0,512,512
258.6,2.77556e-17,0,512,512
258.659,2.77556e-17,0,512,512
258.706,2.77556e-17,0,512,512
258.753,2.77556e-17,0,512,512
258.811,2.77556e-17,0,512,512
258.858,2.77556e-17,0,512,512
258.905,2.77556e-17,0,512,512
258.952,0,0,512,512
259.01,0,0,512,512
259.057,0,0,512,512
259.104,0,0,512,512
259.151,2.77556e-17,0,512,512
259.21,2.77556e-17,0,512,512
259.256,2.77556e-17,0,512,512
259.303,2.77556e-17,0,512,512
259.35,2.77556e-17,0,512,512
259.409,2.77556e-17,0,512,512
259.456,2.77556e-17,0,512,512
259.503,2.77556e-17,0,512,512
259.561,2.77556e-17,0,512,512
259.608,2.77556e-17,0,512,512
259.655,2.77556e-17,0,512,512
259.702,2.77556e-17,0,512,512
259.76,2.77556e-17,0,512,512
259.807,2.77556e-17,0,512,512
259.854,2.77556e-17,0,512,512
259.901,2.77556e-17,0,512,512
259.959,2.77556e-17,0,512,512
260.006,2.77556e-17,0,512,512
260.053,2.77556e-17,0,512,512
260.1,2.77556e-17,0,512,512
260.159,2.77556e-17,0,512,512
260.206,0,0,512,512
260.252,0,0,512,512
260.311,0,0,512,512
260.358,0,0,512,512
260.405,0,0,512,512
260.452,0,0,512,512
260.51,0,0,512,512
260.557,0,0,512,512
260.604,0,0,512,512
260.651,0,0,512,512
260.709,0,0,512,512
260.756,0,0,512,512
260.803,0,0,512,512
260.862,0,0,512,512
260.909,0,0,512,512
260.955,0,0,512,512
261.002,0,0,512,512
261.061,0,0,512,512
261.108,0,0,512,512
261.155,0,0,512,512
261.201,0,0,512,512
261.26,0,0,512,512
261.307,0,0,512,512
261.354,0,0,512,512
261.401,0,0,512,512
261.459,0,0,512,512
261.506,0,0,512,512
261.553,0,0,512,512
261.612,0,0,512,512
261.658,0,0,512,512
261.705,0,0,512,512
261.752,0,0,512,512
261.811,0,0,512,512
261.858,0,0,512,512
261.905,0,0,512,512
261.951,0,0,512,512
262.01,0,0,512,512
262.057,0,0,512,512
262.104,0,0,512,512
262.151,0,0,512,512
262.209,0,0,512,512
262.256,0,0,512,512
262.303,0,0,512,512
262.361,0,0,512,512
262.408,0,0,512,512
262.455,0,0,512,512
262.502,0,0,512,512
262.561,0,0,512,512
262.608,0,0,512,512
262.654,0,0,512,512
262.701,0,0,512,512
262.76,0,0,512,512
262.807,0,0,512,512
262.854,0,0,512,512
262.9,0,0,512,512
262.959,0,0,512,512
263.006,0,0,512,512
263.053,0,0,512,512
263.111,-2.77556e-17,0,512,512
263.158,-2.77556e-17,0,512,512
263.205,-2.77556e-17,0,512,512
263.252,-2.77556e-17,0,512,512
263.311,-2.77556e-17,0,512,512
263.357,-2.77556e-17,0,512,512
263.404,-2.77556e-17,0,512,512
263.451,-2.77556e-17,0,512,512
263.51,-2.77556e-17,0,512,512
263.557,-2.77556e-17,0,512,512
263.603,-2.77556e-17,0,512,512
263.65,-2.77556e-17,0,512,512
263.709,-2.77556e-17,0,512,512
263.756,-2.77556e-17,0,512,512
263.803,-2.77556e-17,0,512,512
263.861,-2.77556e-17,0,512,512
263.908,-2.77556e-17,0,512,512
263.955,-2.77556e-17,0,512,512
264.002,-2.77556e-17,0,512,512
264.06,-2.77556e-17,0,512,512
264.107,-2.77556e-17,0,512,512
264.154,-2.77556e-17,0,512,512
264.201,-2.77556e-17,0,512,512
264.26,-2.77556e-17,0,512,512
264.306,-2.77556e-17,0,512,512
264.353,-2.77556e-17,0,512,512
264.4,-2.77556e-17,0,512,512
264.459,0,0,512,512
264.506,0,0,512,512
264.553,0,0,512,512
264.611,0,0,512,512
264.658,0,0,512,512
264.705,0,0,512,512
264.752,0,0,512,512
264.81,0,0,512,512
264.857,0,0,512,512
264.904,0,0,512,512
264.951,0,0,512,512
265.01,0,0,512,512
265.056,0,0,512,512
265.103,0,0,512,512
265.15,0,0,512,512
265.209,0,0,512,512
265.256,0,0,512,512
265.302,0,0,512,512
265.361,0,0,512,512
265.408,0,0,512,512
265.455,0,0,512,512
265.502,0,0,512,512
265.56,0,0,512,512
265.607,0,0,512,512
265.654,0,0,512,512
265.701,0,0,512,512
265.759,0,0,512,512
265.806,0,0,512,512
265.853,0,0,512,512
265.9,0,0,512,512
265.959,0,0,512,512
266.005,0,0,512,512
266.052,0,0,512,512
266.111,0,0,512,512
266.158,0,0,512,512
266.205,0,0,512,512
266.252,0,0,512,512
266.31,0,0,512,512
266.357,0,0,512,512
266.404,0,0,512,512
266.451,0,0,512,512
266.509,0,0,512,512
266.556,0,0,512,512
266.603,0,0,512,512
266.662,0,0,512,512
266.708,0,0,512,512
266.755,0,0,512,512
266.802,0,0,512,512
266.861,0,0,512,512
266.908,0,0,512,512
266.955,0,0,512,512
267.001,0,0,512,512
267.06,0,0,512,512
267.107,0,0,512,512
267.154,0,0,512,512
267.201,0,0,512,512
267.259,0,0,512,512
267.306,0,0,512,512
267.353,0,0,512,512
267.412,0,0,512,512
267.458,0,0,512,512
267.505,0,0,512,512
267.552,2.77556e-17,0,512,512
267.611,2.77556e-17,0,512,512
267.658,2.77556e-17,0,512,512
267.704,2.77556e-17,0,512,512
267.751,2.77556e-17,0,512,512
267.81,2.77556e-17,0,512,512
267.857,2.77556e-17,0,512,512
267.904,2.77556e-17,0,512,512
267.95,2.77556e-17,0,512,512
268.009,2.77556e-17,0,512,512
268.056,2.77556e-17,0,512,512
268.103,2.77556e-17,0,512,512
268.161,2.77556e-17,0,512,512
268.208,2.77556e-17,0,512,512
268.255,2.77556e-17,0,512,512
268.302,2.77556e-17,0,512,512
268.361,2.77556e-17,0,512,512
268.407,2.77556e-17,0,512,512
268.454,2.77556e-17,0,512,512
268.501,2.77556e-17,0,512,512
268.56,2.77556e-17,0,512,512
268.607,2.77556e-17,0,512,512
268.654,2.77556e-17,0,512,512
268.7,2.77556e-17,0,512,512
268.759,2.77556e-17,0,512,512
268.806,2.77556e-17,0,512,512
268.853,2.77556e-17,0,512,512
268.911,2.77556e-17,0,512,512
268.958,2.77556e-17,0,512,512
269.005,0,0,512,512
269.052,0,0,512,512
269.11,0,0,512,512
269.157,0,0,512,512
269.204,0,0,512,512
269.251,2.77556e-17,0,512,512
269.31,2.77556e-17,0,512,512
269.357,2.77556e-17,0,512,512
269.403,2.77556e-17,0,512,512
269.45,2.77556e-17,0,512,512
269.509,2.77556e-17,0,512,512
269.556,2.77556e-17,0,512,512
269.603,2.77556e-17,0,512,512
269.661,2.77556e-17,0,512,512
269.708,2.77556e-17,0,512,512
269.755,2.77556e-17,0,512,512
269.802,2.77556e-17,0,512,512
269.86,2.77556e-17,0,512,512
269.903,2.77556e-17,0,523,523
269.953,2.77556e-17,0,539,539
270.002,2.77556e-17,0,549,549
270.052,2.77556e-17,0,557,557
270.102,2.77556e-17,0,573,573
270.151,2.77556e-17,0,579,579
270.201,2.77556e-17,0,586,586
270.251,2.77556e-17,0,594,594
270.3,2.77556e-17,0,595,595
270.35,2.77556e-17,0,611,611
270.404,2.77556e-17,0,639,639
270.452,2.77556e-17,0,679,679
270.501,2.77556e-17,0,705,705
270.551,2.77556e-17,0,741,741
270.601,2.77556e-17,0,777,777
270.651,2.77556e-17,0,821,821
270.701,2.77556e-17,0,859,859
270.75,2.77556e-17,0,915,915
270.8,2.77556e-17,0,967,967
270.85,2.77556e-17,0,1013,1013
270.903,2.77556e-17,0,1073,1073
270.953,2.77556e-17,0,1133,1133
271.002,2.77556e-17,0,1165,1165
271.052,2.77556e-17,0,1219,1219
271.102,2.77556e-17,0,1275,1275
271.152,2.77556e-17,0,1331,1331
271.202,2.77556e-17,0,1391,1391
271.251,2.77556e-17,0,1433,1433
271.301,2.77556e-17,0,1493,1493
271.351,2.77556e-17,0,1541,1541
271.401,2.77556e-17,0,1591,1591
271.451,2.77556e-17,0,1635,1635
271.5,2.77556e-17,0,1649,1649
271.55,2.77556e-17,0,1654,1654
271.603,2.77556e-17,0,1644,1644
271.653,2.77556e-17,0,1651,1651
271.702,2.77556e-17,0,1661,1661
271.752,2.77556e-17,0,1695,1695
271.802,2.77556e-17,0,1729,1729
271.852,2.77556e-17,0,1775,1775
271.902,2.77556e-17,0,1831,1831
271.951,2.77556e-17,0,1889,1889
272.001,2.77556e-17,0,1925,1925
272.051,2.77556e-17,0,1981,1981
272.101,2.77556e-17,0,2031,2031
272.151,2.77556e-17,0,2099,2099
272.2,2.77556e-17,0,2127,2127
272.25,2.77556e-17,0,2181,2181
272.303,2.77556e-17,0,2241,2241
272.353,2.77556e-17,0,2309,2309
272.403,2.77556e-17,0,2339,2339
272.452,2.77556e-17,0,2391,2391
272.502,2.77556e-17,0,2451,2451
272.552,2.77556e-17,0,2505,2505
272.602,2.77556e-17,0,2549,2549
272.651,2.77556e-17,0,2603,2603
272.701,2.77556e-17,0,2655,2655
272.751,2.77556e-17,0,2699,2699
272.801,2.77556e-17,0,2749,2749
272.851,-3.33067e-16,0,2813,2813
272.9,-7.77156e-16,0,2843,2843
272.95,-1.249e-15,0,2899,2899
273,-1.72085e-15,0,2961,2961
273.053,-2.85882e-15,0,2993,2993
273.103,-5.52336e-15,0,3041,3041
273.152,-1.17961e-14,0,3049,3049
273.202,-2.55351e-14,0,3065,3065
273.252,-5.40679e-14,0,3067,3067
273.302,-1.10412e-13,0,3071,3071
273.352,-2.16271e-13,0,3081,3081
273.401,-4.05953e-13,0,3097,3097
273.451,-7.30499e-13,0,3109,3109
273.501,-1.26113e-12,0,3102,3102
273.551,-2.09111e-12,0,3098,3098
273.601,-3.33347e-12,0,3092,3092
273.65,-5.11385e-12,0,3100,3100
273.7,-7.55671e-12,0,3104,3104
273.753,-1.0979e-11,0,3094,3094
273.803,-1.50582e-11,0,3088,3088
273.852,-1.99399e-11,0,3066,3066
273.902,-2.55066e-11,0,3074,3074
273.952,-3.15312e-11,0,3078,3078
274.002,-3.76779e-11,0,3064,3064
274.052,-4.35195e-11,0,3068,3068
274.101,-4.85721e-11,0,3066,3066
274.151,-5.23409e-11,0,3056,3056
274.201,-5.43741e-11,0,3054,3054
274.251,-5.43131e-11,0,3050,3050
274.301,-5.19343e-11,0,3044,3044
274.35,-4.71747e-11,0,3044,3044
274.4,-4.01364e-11,0,3042,3042
274.45,-3.10726e-11,0,3030,3030
274.503,-1.96855e-11,0,3024,3024
274.553,-7.71752e-12,0,3024,3024
274.602,4.93258e-12,0,3018,3018
274.652,1.77903e-11,0,3014,3014
274.702,3.04299e-11,0,3002,3002
274.752,4.25009e-11,0,3016,3016
274.802,5.37449e-11,0,3012,3012
274.851,6.40156e-11,0,3016,3016
274.901,7.32545e-11,0,3008,3008
274.952,8.14955e-11,0,3008,3008
275.002,8.8894e-11,0,3020,3020
275.053,9.57488e-11,0,3008,3008
275.1,1.02171e-10,0,3008,3008
275.151,1.09774e-10,0,2992,2992
275.202,1.19503e-10,0,3006,3006
275.25,1.32456e-10,0,2986,2986
275.301,1.5322e-10,0,3014,3014
275.353,1.85715e-10,0,3004,3004
275.401,2.32825e-10,0,3010,3010
275.453,3.08941e-10,0,2990,2990
275.502,4.15407e-10,0,2974,2974
275.551,5.68423e-10,0,2984,2984
275.6,7.83035e-10,0,2974,2974
275.652,1.09867e-09,0,2962,2962
275.702,1.49941e-09,0,2954,2954
275.752,2.023e-09,0,2948,2948
275.801,2.69187e-09,0,2934,2934
275.851,3.5281e-09,0,2932,2932
275.902,4.55136e-09,0,2926,2926
275.952,5.77856e-09,0,2904,2904
276.002,7.22356e-09,0,2914,2914
276.053,8.89521e-09,0,2898,2898
276.1,1.0671e-08,0,2918,2918
276.151,1.27857e-08,0,2896,2896
276.202,1.51155e-08,0,2890,2890
276.251,1.7926e-08,0,2894,2894
276.302,2.21176e-08,0,2896,2896
276.35,2.65855e-08,0,2872,2872
276.402,3.19471e-08,0,2880,2880
276.451,3.71906e-08,0,2858,2858
276.503,4.43539e-08,0,2856,2856
276.552,5.1848e-08,0,2858,2858
276.601,5.98525e-08,0,2860,2860
276.651,6.84115e-08,0,2868,2868
276.7,7.76397e-08,0,2848,2848
276.753,8.78982e-08,0,2840,2840
276.803,1.00777e-07,0,2848,2848
276.853,1.3311e-07,0,2834,2834
276.903,1.6789e-07,0,2828,2828
276.95,2.03811e-07,0,2826,2826
277.001,2.46961e-07,0,2826,2826
277.051,2.94474e-07,0,2806,2806
277.102,3.45585e-07,0,2824,2824
277.153,3.99967e-07,0,2822,2822
277.201,4.53488e-07,0,2812,2812
277.252,5.13078e-07,0,2826,2826
277.301,5.70191e-07,0,2830,2830
277.352,6.31904e-07,0,2812,2812
277.401,6.8804e-07,0,2834,2834
277.453,7.44224e-07,0,2820,2820
277.501,7.90956e-07,0,2806,2806
277.55,8.30503e-07,0,2828,2828
277.603,8.63564e-07,0,2812,2812
277.652,8.85412e-07,0,2796,2796
277.702,8.98739e-07,0,2806,2806
277.751,9.04656e-07,0,2786,2786
277.801,9.05298e-07,0,2764,2764
277.852,9.03665e-07,0,2784,2784
277.902,9.00664e-07,0,2772,2772
277.952,8.96349e-07,0,2748,2748
278.003,8.89128e-07,0,2754,2754
278.05,8.79844e-07,0,2740,2740
278.101,8.44138e-07,0,2724,2724
278.153,8.00932e-07,0,2726,2726
278.201,7.57064e-07,0,2738,2738
278.252,7.05705e-07,0,2702,2702
278.301,6.55915e-07,0,2725,2725
278.353,6.01199e-07,0,2707,2707
278.401,5.50575e-07,0,2687,2687
278.453,4.97979e-07,0,2683,2683
278.502,4.51623e-07,0,2669,2669
278.55,4.07836e-07,0,2657,2657
278.603,3.63857e-07,0,2655,2655
278.651,3.25783e-07,0,2647,2647
278.704,2.87493e-07,0,2651,2651
278.753,2.54507e-07,0,2675,2675
278.802,2.24219e-07,0,2649,2649
278.85,1.96935e-07,0,2623,2623
278.903,1.71225e-07,0,2617,2617
278.952,1.50723e-07,0,2599,2599
279.002,1.33018e-07,0,2579,2579
279.051,1.17422e-07,0,2561,2561
279.1,1.03256e-07,0,2541,2541
279.153,8.91595e-08,0,2503,2503
279.203,7.71423e-08,0,2471,2471
279.252,6.63855e-08,0,2443,2443
279.302,5.70828e-08,0,2401,2401
279.352,4.92571e-08,0,2353,2353
279.401,4.27165e-08,0,2317,2317
279.451,3.71773e-08,0,2313,2313
279.501,3.24163e-08,0,2263,2263
279.551,2.78001e-08,0,2227,2227
279.601,2.36412e-08,0,2175,2175
279.652,2.12857e-08,0,2107,2107
279.702,1.99566e-08,0,2027,2027
279.753,1.97838e-08,0,1983,1983
279.804,1.97648e-08,0,1929,1929
279.85,2.03219e-08,0,1881,1881
279.901,2.13925e-08,0,1811,1811
279.952,2.30265e-08,0,1749,1749
280.003,2.50569e-08,0,1691,1691
280.051,2.72594e-08,0,1669,1669
280.102,2.99672e-08,0,1631,1631
280.153,3.25559e-08,0,1547,1547
280.2,3.58921e-08,0,1415,1415
280.252,4.02338e-08,0,1241,1241
280.3,4.39745e-08,0,1285,1285
280.352,4.79529e-08,0,1485,1485
280.403,5.23342e-08,0,1513,1513
280.451,5.64128e-08,0,1595,1595
280.502,6.10049e-08,0,1631,1631
280.554,6.58808e-08,0,1655,1655
280.601,7.04763e-08,0,1709,1709
280.652,7.56244e-08,0,1749,1749
280.704,8.09835e-08,0,1783,1783
280.751,8.6028e-08,0,1817,1817
280.802,9.14941e-08,0,1851,1851
280.853,9.84593e-08,0,1893,1893
280.9,1.0416e-07,0,1913,1913
280.951,1.10568e-07,0,1935,1935
281.002,1.16971e-07,0,1971,1971
281.053,1.2358e-07,0,1999,1999
281.103,1.30809e-07,0,2029,2029
281.154,1.38663e-07,0,2067,2067
281.2,1.46243e-07,0,2099,2099
281.251,1.54826e-07,0,2133,2133
281.301,1.63918e-07,0,2159,2159
281.352,1.7356e-07,0,2191,2191
281.402,1.83632e-07,0,2247,2247
281.452,1.93762e-07,0,2281,2281
281.502,2.14178e-07,0,2313,2313
281.552,2.34338e-07,0,2351,2351
281.602,2.61079e-07,0,2387,2387
281.652,2.94104e-07,0,2437,2437
281.702,3.31022e-07,0,2477,2477
281.751,3.70621e-07,0,2503,2503
281.801,4.12651e-07,0,2539,2539
281.851,4.57069e-07,0,2543,2543
281.9,5.03263e-07,0,2523,2523
281.953,5.54652e-07,0,2547,2547
282.003,6.03094e-07,0,2551,2551
282.052,6.50764e-07,0,2565,2565
282.101,6.96537e-07,0,2591,2591
282.151,7.39381e-07,0,2599,2599
282.203,7.80506e-07,0,2623,2623
282.252,8.13063e-07,0,2649,2649
282.301,8.39654e-07,0,2647,2647
282.35,8.59165e-07,0,2651,2651
282.403,8.70984e-07,0,2689,2689
282.452,8.74401e-07,0,2693,2693
282.5,8.72721e-07,0,2699,2699
282.553,8.68005e-07,0,2723,2723
282.601,8.61281e-07,0,2715,2715
282.653,8.52004e-07,0,2721,2721
282.702,8.31272e-07,0,2727,2727
282.75,8.07344e-07,0,2737,2737
282.802,7.7333e-07,0,2749,2749
282.85,7.36711e-07,0,2747,2747
282.902,6.91421e-07,0,2761,2761
282.953,6.41295e-07,0,2757,2757
283.001,5.9136e-07,0,2769,2769
283.052,5.355e-07,0,2783,2783
283.102,4.79333e-07,0,2795,2795
283.153,4.23916e-07,0,2805,2805
283.204,3.70292e-07,0,2807,2807
283.25,3.22888e-07,0,2817,2817
283.3,2.74827e-07,0,2805,2805
283.35,2.30132e-07,0,2800,2800
283.403,1.86241e-07,0,2806,2806
283.453,1.4906e-07,0,2820,2820
283.502,1.15435e-07,0,2804,2804
283.551,8.52523e-08,0,2830,2830
283.6,5.83713e-08,0,2836,2836
283.652,3.30025e-08,0,2846,2846
283.701,1.23811e-08,0,2834,2834
283.753,-6.66113e-09,0,2854,2854
283.801,-2.1882e-08,0,2870,2870
283.853,-3.5795e-08,0,2854,2854
283.9,-4.68485e-08,0,2876,2876
283.952,-5.69407e-08,0,2864,2864
284.002,-6.53211e-08,0,2886,2886
284.053,-7.18186e-08,0,2878,2878
284.1,-7.63215e-08,0,2892,2892
284.151,-7.86259e-08,0,2894,2894
284.201,-7.82974e-08,0,2886,2886
284.251,-7.82713e-08,0,2908,2908
284.301,-7.79744e-08,0,2904,2904
284.35,-7.73264e-08,0,2910,2910
284.403,-7.63374e-08,0,2918,2918
284.453,-7.51438e-08,0,2926,2926
284.502,-7.37076e-08,0,2936,2936
284.551,-7.20568e-08,0,2938,2938
284.603,-7.00656e-08,0,2956,2956
284.651,-6.79778e-08,0,2936,2936
284.703,-6.55184e-08,0,2960,2960
284.751,-6.17564e-08,0,2952,2952
284.803,-5.79842e-08,0,2964,2964
284.851,-5.52038e-08,0,2968,2968
284.902,-5.24003e-08,0,2958,2958
284.952,-4.95175e-08,0,2962,2962
285.003,-4.70249e-08,0,2964,2964
285.05,-4.49216e-08,0,2992,2992
285.101,-4.27266e-08,0,2982,2982
285.151,-4.08139e-08,0,2986,2986
285.201,-3.91752e-08,0,3004,3004
285.251,-3.76743e-08,0,3000,3000
285.3,-3.63637e-08,0,3006,3006
285.353,-3.51246e-08,0,3030,3030
285.402,-3.4249e-08,0,3032,3032
285.451,-3.34623e-08,0,3032,3032
285.5,-3.28888e-08,0,3064,3064
285.552,-3.27371e-08,0,3058,3058
285.601,-3.26333e-08,0,3066,3066
285.652,-3.24925e-08,0,3064,3064
285.701,-3.24475e-08,0,3076,3076
285.752,-3.2468e-08,0,3096,3096
285.803,-3.24979e-08,0,3092,3092
285.851,-3.25595e-08,0,3104,3104
285.901,-3.26625e-08,0,3118,3118
285.952,-3.27786e-08,0,3124,3124
286.002,-3.29087e-08,0,3118,3118
286.052,-3.30547e-08,0,3128,3128
286.103,-3.32081e-08,0,3154,3154
286.152,-3.33663e-08,0,3152,3152
286.202,-3.35278e-08,0,3164,3164
286.252,-3.36888e-08,0,3170,3170
286.302,-3.38468e-08,0,3174,3174
286.352,-3.39997e-08,0,3184,3184
286.401,-3.41452e-08,0,3176,3176
286.451,-3.42816e-08,0,3190,3190
286.501,-3.44075e-08,0,3202,3202
286.551,-3.45216e-08,0,3201,3201
286.601,-3.46233e-08,0,3197,3197
286.65,-3.47122e-08,0,3195,3195
286.7,-3.47882e-08,0,3199,3199
286.753,-3.48547e-08,0,3197,3197
286.803,-3.49043e-08,0,3193,3193
286.853,-3.49416e-08,0,3201,3201
286.902,-3.4967e-08,0,3183,3183
286.952,-3.49809e-08,0,3195,3195
287.002,-3.49842e-08,0,3169,3169
287.052,-3.49776e-08,0,3163,3163
287.102,-3.49621e-08,0,3159,3159
287.151,-3.49387e-08,0,3177,3177
287.201,-3.49085e-08,0,3181,3181
287.251,-3.48726e-08,0,3149,3149
287.301,-3.48323e-08,0,3137,3137
287.35,-3.47886e-08,0,3127,3127
287.4,-3.47428e-08,0,3115,3115
287.45,-3.46958e-08,0,3111,3111
287.503,-3.46459e-08,0,3093,3093
287.553,-3.45995e-08,0,3085,3085
287.602,-3.45548e-08,0,3067,3067
287.652,-3.45123e-08,0,3057,3057
287.702,-3.44728e-08,0,3053,3053
287.752,-3.44369e-08,0,3029,3029
287.802,-3.44051e-08,0,3031,3031
287.851,-3.43779e-08,0,2973,2973
287.901,-3.43557e-08,0,2929,2929
287.951,-3.43388e-08,0,2881,2881
288.001,-3.43277e-08,0,2839,2839
288.051,-3.43225e-08,0,2793,2793
288.1,-3.43234e-08,0,2733,2733
288.15,-3.43307e-08,0,2687,2687
288.203,-3.43457e-08,0,2623,2623
288.253,-3.43667e-08,0,2589,2589
288.302,-3.43947e-08,0,2523,2523
288.352,-3.44298e-08,0,2479,2479
288.402,-3.44725e-08,0,2419,2419
288.452,-3.45229e-08,0,2371,2371
288.502,-3.45815e-08,0,2315,2315
288.551,-3.46488e-08,0,2259,2259
288.601,-3.47253e-08,0,2193,2193
288.651,-3.48116e-08,0,2157,2157
288.701,-3.49084e-08,0,2087,2087
288.751,-3.50164e-08,0,2090,2090
288.8,-3.51363e-08,0,2080,2080
288.85,-3.52689e-08,0,2093,2093
288.9,-3.54148e-08,0,2085,2085
288.953,-3.55846e-08,0,2067,2067
289.003,-3.57599e-08,0,2041,2041
289.052,-3.59502e-08,0,1977,1977
289.102,-3.61556e-08,0,1913,1913
289.152,-3.63762e-08,0,1873,1873
289.202,-3.66119e-08,0,1817,1817
289.252,-3.6862e-08,0,1757,1757
289.301,-3.7126e-08,0,1705,1705
289.351,-3.74029e-08,0,1663,1663
289.401,-3.76914e-08,0,1607,1607
289.451,-3.799e-08,0,1547,1547
289.501,-3.82969e-08,0,1495,1495
289.55,-3.86102e-08,0,1439,1439
289.6,-3.89278e-08,0,1385,1385
289.653,-3.9266e-08,0,1317,1317
289.703,-3.95846e-08,0,1257,1257
289.752,-3.98998e-08,0,1197,1197
289.802,-4.0209e-08,0,1143,1143
289.852,-4.05094e-08,0,1079,1079
289.902,-4.07982e-08,0,1015,1015
289.952,-4.10728e-08,0,957,957
290.001,-4.13306e-08,0,903,903
290.051,-4.15691e-08,0,845,845
290.101,-4.17857e-08,0,789,789
290.151,-4.19785e-08,0,737,737
290.201,-4.21452e-08,0,681,681
290.25,-4.2284e-08,0,625,625
290.3,-4.23933e-08,0,575,575
290.351,-4.24725e-08,0,525,525
290.408,-4.25234e-08,0,512,512
290.455,-4.25336e-08,0,512,512
290.502,-4.25131e-08,0,512,512
290.56,-4.24432e-08,0,512,512
290.607,-4.23508e-08,0,512,512
290.654,-4.22253e-08,0,512,512
290.701,-4.20659e-08,0,512,512
290.76,-4.18181e-08,0,512,512
290.806,-4.15803e-08,0,512,512
290.853,-4.13068e-08,0,512,512
290.9,-4.09972e-08,0,512,512
290.959,-4.05591e-08,0,512,512
291.006,-4.01676e-08,0,512,512
291.052,-3.974e-08,0,512,512
291.111,-3.91552e-08,0,512,512
291.158,-3.86481e-08,0,512,512
291.205,-3.81073e-08,0,512,512
291.252,-3.75342e-08,0,512,512
291.31,-3.67751e-08,0,512,512
291.357,-3.61363e-08,0,512,512
291.404,-3.54722e-08,0,512,512
291.451,-3.47855e-08,0,512,512
291.509,-3.39003e-08,0,512,512
291.556,-3.31746e-08,0,512,512
291.603,-3.24373e-08,0,512,512
291.65,-3.16921e-08,0,512,512
291.709,-3.07553e-08,0,512,512
291.755,-3.00061e-08,0,512,512
291.802,-2.92615e-08,0,512,512
291.861,-2.83428e-08,0,512,512
291.908,-2.76218e-08,0,512,512
291.955,-2.6917e-08,0,512,512
292.002,-2.62317e-08,0,512,512
292.06,-2.54066e-08,0,512,512
292.107,-2.4775e-08,0,512,512
292.154,-2.41711e-08,0,512,512
292.201,-2.35964e-08,0,512,512
292.259,-2.29213e-08,0,512,512
292.306,-2.24166e-08,0,512,512
292.353,-2.1944e-08,0,512,512
292.412,-2.13981e-08,0,512,512
292.459,-2.0997e-08,0,512,512
292.505,-2.06269e-08,0,512,512
292.552,-2.02868e-08,0,512,512
292.611,-1.99025e-08,0,512,512
292.658,-1.96261e-08,0,512,512
292.705,-1.93757e-08,0,512,512
292.751,-1.91499e-08,0,512,512
292.81,-1.88995e-08,0,512,512
292.857,-1.87226e-08,0,512,512
292.904,-1.85645e-08,0,512,512
292.951,-1.84233e-08,0,512,512
293.009,-1.82678e-08,0,512,512
293.056,-1.81579e-08,0,512,512
293.103,-1.80589e-08,0,512,512
293.162,-1.79481e-08,0,512,512
293.208,-1.78677e-08,0,512,512
293.255,-1.77931e-08,0,512,512
293.302,-1.77229e-08,0,512,512
293.361,-1.76396e-08,0,512,512
293.408,-1.75752e-08,0,512,512
293.454,-1.75116e-08,0,512,512
293.501,-1.74482e-08,0,512,512
293.56,-1.73677e-08,0,512,512
293.607,-1.73016e-08,0,512,512
293.654,-1.72333e-08,0,512,512
293.701,-1.71621e-08,0,512,512
293.759,-1.70684e-08,0,512,512
293.806,-1.6989e-08,0,512,512
293.853,-1.69053e-08,0,512,512
293.911,-1.67941e-08,0,512,512
293.958,-1.66997e-08,0,512,512
294.005,-1.66002e-08,0,512,512
294.052,-1.64956e-08,0,512,512
294.111,-1.63579e-08,0,512,512
294.157,-1.62424e-08,0,512,512
294.204,-1.61223e-08,0,512,512
294.251,-1.59982e-08,0,512,512
294.31,-1.58381e-08,0,512,512
294.357,-1.57066e-08,0,512,512
294.404,-1.55727e-08,0,512,512
294.45,-1.54368e-08,0,512,512
294.509,-1.52646e-08,0,512,512
294.556,-1.51255e-08,0,512,512
294.603,-1.49851e-08,0,512,512
294.661,-1.48079e-08,0,512,512
294.708,-1.46644e-08,0,512,512
294.755,-1.45189e-08,0,512,512
294.802,-1.4371e-08,0,512,512
294.861,-1.41817e-08,0,512,512
294.907,-1.40258e-08,0,512,512
294.954,-1.3865e-08,0,512,512
295.001,-1.36985e-08,0,512,512
295.06,-1.34808e-08,0,512,512
295.107,-1.32977e-08,0,512,512
295.153,-1.31054e-08,0,512,512
295.2,-1.29027e-08,0,512,512
295.259,-1.26329e-08,0,512,512
295.306,-1.24024e-08,0,512,512
295.353,-1.21575e-08,0,512,512
295.411,-1.18294e-08,0,512,512
295.458,-1.15481e-08,0,512,512
295.505,-1.12488e-08,0,512,512
295.552,-1.09307e-08,0,512,512
295.61,-1.05059e-08,0,512,512
295.657,-1.01435e-08,0,512,512
295.704,-9.76095e-09,0,512,512
295.751,-9.35811e-09,0,512,512
295.81,-8.8264e-09,0,512,512
295.856,-8.37904e-09,0,512,512
295.903,-7.91287e-09,0,512,512
295.95,-7.42882e-09,0,512,512
296.009,-6.80034e-09,0,512,512
296.056,-6.28048e-09,0,512,512
296.103,-5.74712e-09,0,512,512
296.161,-5.06412e-09,0,512,512
296.208,-4.50699e-09,0,512,512
296.255,-3.94256e-09,0,512,512
296.302,-3.37301e-09,0,512,512
296.36,-2.65736e-09,0,512,512
296.407,-2.08476e-09,0,512,512
296.454,-1.51474e-09,0,512,512
296.501,-9.49783e-10,0,512,512
296.559,-2.5449e-10,0,512,512
296.606,2.9001e-10,0,512,512
296.653,8.21471e-10,0,512,512
296.7,1.33759e-09,0,512,512
296.759,1.95785e-09,0,512,512
296.806,2.43173e-09,0,512,512
296.852,2.88383e-09,0,512,512
296.911,3.41598e-09,0,512,512
296.958,3.81376e-09,0,512,512
297.005,4.18558e-09,0,512,512
297.052,4.53067e-09,0,512,512
297.11,4.92367e-09,0,512,512
297.157,5.20706e-09,0,512,512
297.204,5.46287e-09,0,512,512
297.251,5.69129e-09,0,512,512
297.309,5.93899e-09,0,512,512
297.356,6.10766e-09,0,512,512
297.403,6.251e-09,0,512,512
297.462,6.39614e-09,0,512,512
297.509,6.48644e-09,0,512,512
297.555,6.55523e-09,0,512,512
297.602,6.60393e-09,0,512,512
297.661,6.63887e-09,0,512,512
297.708,6.64801e-09,0,512,512
297.755,6.64217e-09,0,512,512
297.801,6.623e-09,0,512,512
297.86,6.58272e-09,0,512,512
297.907,6.53938e-09,0,512,512
297.954,6.48779e-09,0,512,512
298.001,6.42939e-09,0,512,512
298.059,6.34888e-09,0,512,512
298.106,6.27998e-09,0,512,512
298.153,6.20831e-09,0,512,512
298.212,6.11637e-09,0,512,512
298.258,6.04205e-09,0,512,512
298.305,5.96788e-09,0,512,512
298.352,5.89454e-09,0,512,512
298.411,5.80488e-09,0,512,512
298.458,5.7353e-09,0,512,512
298.505,5.668e-09,0,512,512
298.551,5.60325e-09,0,512,512
298.61,5.52609e-09,0,512,512
298.657,5.46746e-09,0,512,512
298.704,5.41156e-09,0,512,512
298.751,5.35828e-09,0,512,512
298.809,5.29509e-09,0,512,512
298.856,5.24697e-09,0,512,512
298.903,5.20068e-09,0,512,512
298.961,5.14489e-09,0,512,512
299.008,5.10146e-09,0,512,512
299.055,5.05868e-09,0,512,512
299.102,5.01617e-09,0,512,512
299.161,4.96284e-09,0,512,512
299.208,4.91961e-09,0,512,512
299.254,4.87556e-09,0,512,512
299.301,4.83043e-09,0,512,512
299.36,4.77224e-09,0,512,512
299.407,4.72412e-09,0,512,512
299.454,4.67457e-09,0,512,512
299.5,4.6236e-09,0,512,512
299.559,4.55808e-09,0,512,512
299.606,4.50441e-09,0,512,512
299.653,4.4499e-09,0,512,512
299.711,4.381e-09,0,512,512
299.758,4.32569e-09,0,512,512
299.805,4.2706e-09,0,512,512
299.852,4.21613e-09,0,512,512
299.911,4.14951e-09,0,512,512
299.957,4.09787e-09,0,512,512
300.004,4.0481e-09,0,512,512
300.051,4.00055e-09,0,512,512
300.11,3.94472e-09,0,512,512
300.157,3.90324e-09,0,512,512
300.203,3.86482e-09,0,512,512
300.25,3.82962e-09,0,512,512
300.309,3.79024e-09,0,512,512
300.356,3.76246e-09,0,512,512
300.403,3.73795e-09,0,512,512
300.461,3.71173e-09,0,512,512
300.508,3.69409e-09,0,512,512
300.555,3.6792e-09,0,512,512
300.602,3.6668e-09,0,512,512
300.66,3.65439e-09,0,512,512
300.707,3.64657e-09,0,512,512
300.754,3.64029e-09,0,512,512
300.801,3.63526e-09,0,512,512
300.86,3.63024e-09,0,512,512
300.906,3.62691e-09,0,512,512
300.953,3.62389e-09,0,512,512
301,3.62093e-09,0,512,512
301.059,3.61699e-09,0,512,512
301.106,3.61341e-09,0,512,512
301.153,3.60928e-09,0,512,512
301.211,3.60311e-09,0,512,512
301.258,3.59725e-09,0,512,512
301.305,3.59046e-09,0,512,512
301.352,3.58267e-09,0,512,512
301.41,3.57145e-09,0,512,512
301.457,3.56125e-09,0,512,512
301.504,3.54992e-09,0,512,512
301.551,3.53746e-09,0,512,512
301.61,3.52027e-09,0,512,512
301.656,3.50523e-09,0,512,512
301.703,3.48905e-09,0,512,512
301.75,3.47173e-09,0,512,512
301.809,3.44851e-09,0,512,512
301.856,3.42868e-09,0,512,512
301.902,3.40776e-09,0,512,512
301.961,3.38009e-09,0,512,512
302.008,3.35677e-09,0,512,512
302.055,3.33242e-09,0,512,512
302.102,3.30707e-09,0,512,512
302.16,3.27403e-09,0,512,512
302.207,3.24657e-09,0,512,512
302.254,3.21822e-09,0,512,512
302.301,3.18906e-09,0,512,512
302.359,3.15153e-09,0,512,512
302.406,3.12072e-09,0,512,512
302.453,3.0893e-09,0,512,512
302.5,3.05731e-09,0,512,512
302.559,3.01666e-09,0,512,512
302.605,2.98369e-09,0,512,512
302.652,2.9504e-09,0,512,512
302.711,2.90842e-09,0,512,512
302.758,2.87462e-09,0,512,512
302.805,2.84069e-09,0,512,512
302.852,2.80667e-09,0,512,512
302.91,2.76409e-09,0,512,512
302.957,2.73001e-09,0,512,512
303.004,2.69594e-09,0,512,512
303.051,2.66189e-09,0,512,512
303.109,2.61936e-09,0,512,512
303.156,2.58536e-09,0,512,512
303.203,2.55138e-09,0,512,512
303.262,2.5089e-09,0,512,512
303.308,2.4749e-09,0,512,512
303.355,2.44085e-09,0,512,512
303.402,2.40673e-09,0,512,512
303.461,2.36396e-09,0,512,512
303.508,2.32963e-09,0,512,512
303.555,2.29515e-09,0,512,512
303.601,2.26053e-09,0,512,512
303.66,2.21702e-09,0,512,512
303.707,2.182e-09,0,512,512
303.754,2.1468e-09,0,512,512
303.801,2.11139e-09,0,512,512
303.859,2.06686e-09,0,512,512
303.906,2.03101e-09,0,512,512
303.953,1.99497e-09,0,512,512
304.012,1.94966e-09,0,512,512
304.058,1.91321e-09,0,512,512
304.105,1.87661e-09,0,512,512
304.152,1.83988e-09,0,512,512
304.211,1.79379e-09,0,512,512
304.258,1.75681e-09,0,512,512
304.304,1.71977e-09,0,512,512
304.351,1.68268e-09,0,512,512
304.41,1.63631e-09,0,512,512
304.457,1.59924e-09,0,512,512
304.504,1.56221e-09,0,512,512
304.55,1.52528e-09,0,512,512
304.609,1.47927e-09,0,512,512
304.656,1.44264e-09,0,512,512
304.703,1.4062e-09,0,512,512
304.761,1.36097e-09,0,512,512
304.808,1.32507e-09,0,512,512
304.855,1.28948e-09,0,512,512
304.902,1.2542e-09,0,512,512
304.961,1.21061e-09,0,512,512
