250,0,0,512,512
250.012,0,0,512,512
250.059,0,0,512,512
250.105,0,0,512,512
250.152,0,0,512,512
250.211,0,0,512,512
250.258,0,0,512,512
250.305,0,0,512,512
250.352,0,0,512,512
250.41,2.77556e-17,0,512,512
250.457,2.77556e-17,0,512,512
250.504,0,0,512,512
250.551,0,0,512,512
250.609,0,0,512,512
250.656,0,0,512,512
250.703,0,0,512,512
250.762,0,0,512,512
250.808,0,0,512,512
250.855,0,0,512,512
250.902,2.77556e-17,0,512,512
250.961,2.77556e-17,0,512,512
251.008,2.77556e-17,0,512,512
251.055,2.77556e-17,0,512,512
251.101,0,0,512,512
251.16,0,0,512,512
251.207,2.77556e-17,0,512,512
251.254,0,0,512,512
251.301,0,0,512,512
251.359,0,0,512,512
251.406,0,0,512,512
251.453,0,0,512,512
251.511,0,0,512,512
251.558,0,0,512,512
251.605,2.77556e-17,0,512,512
251.652,2.77556e-17,0,512,512
251.711,0,0,512,512
251.758,0,0,512,512
251.804,0,0,512,512
251.851,0,0,512,512
251.91,0,0,512,512
251.957,0,0,512,512
252.004,-2.77556e-17,0,512,512
252.05,-2.77556e-17,0,512,512
252.109,-2.77556e-17,0,512,512
252.156,0,0,512,512
252.203,0,0,512,512
252.261,0,0,512,512
252.308,0,0,512,512
252.355,2.77556e-17,0,512,512
252.402,2.77556e-17,0,512,512
252.461,0,0,512,512
252.507,0,0,512,512
252.554,0,0,512,512
252.601,0,0,512,512
252.66,0,0,512,512
252.707,0,0,512,512
252.754,0,0,512,512
252.8,0,0,512,512
252.859,2.77556e-17,0,512,512
252.906,0,0,512,512
252.953,0,0,512,512
253.011,0,0,512,512
253.058,0,0,512,512
253.105,0,0,512,512
253.152,0,0,512,512
253.21,0,0,512,512
253.257,0,0,512,512
253.304,2.77556e-17,0,512,512
253.351,2.77556e-17,0,512,512
253.41,0,0,512,512
253.457,0,0,512,512
253.503,0,0,512,512
253.55,2.77556e-17,0,512,512
253.609,2.77556e-17,0,512,512
253.656,2.77556e-17,0,512,512
253.703,2.77556e-17,0,512,512
253.761,0,0,512,512
253.808,0,0,512,512
253.855,0,0,512,512
253.902,-2.77556e-17,0,512,512
253.96,-2.77556e-17,0,512,512
254.007,0,0,512,512
254.054,0,0,512,512
254.101,-2.77556e-17,0,512,512
254.16,0,0,512,512
254.206,-2.77556e-17,0,512,512
254.253,0,0,512,512
254.3,0,0,512,512
254.359,0,0,512,512
254.406,0,0,512,512
254.452,0,0,512,512
254.511,-2.77556e-17,0,512,512
254.558,-2.77556e-17,0,512,512
254.605,-2.77556e-17,0,512,512
254.652,-2.77556e-17,0,512,512
254.71,-2.77556e-17,0,512,512
254.757,0,0,512,512
254.804,0,0,512,512
254.851,-2.77556e-17,0,512,512
254.909,-5.55112e-17,0,512,512
254.956,-2.77556e-17,0,512,512
255.003,-2.77556e-17,0,512,512
255.05,-2.77556e-17,0,512,512
255.109,-2.77556e-17,0,512,512
255.155,-2.77556e-17,0,512,512
255.202,-2.77556e-17,0,512,512
255.261,-2.77556e-17,0,512,512
255.308,-2.77556e-17,0,512,512
255.355,-2.77556e-17,0,512,512
255.402,-2.77556e-17,0,512,512
255.46,-2.77556e-17,0,512,512
255.507,-2.77556e-17,0,512,512
255.554,-2.77556e-17,0,512,512
255.601,0,0,512,512
255.659,0,0,512,512
255.706,0,0,512,512
255.753,0,0,512,512
255.812,0,0,512,512
255.859,0,0,512,512
255.905,2.77556e-17,0,512,512
255.952,0,0,512,512
256.011,0,0,512,512
256.058,0,0,512,512
256.105,0,0,512,512
256.151,0,0,512,512
256.21,0,0,512,512
256.257,2.77556e-17,0,512,512
256.304,2.77556e-17,0,512,512
256.351,0,0,512,512
256.409,0,0,512,512
256.456,0,0,512,512
256.503,0,0,512,512
256.562,0,0,512,512
256.608,0,0,512,512
256.655,-2.77556e-17,0,512,512
256.702,0,0,512,512
256.761,-2.77556e-17,0,512,512
256.808,0,0,512,512
256.854,-2.77556e-17,0,512,512
256.901,-2.77556e-17,0,512,512
256.96,-2.77556e-17,0,512,512
257.007,-2.77556e-17,0,512,512
257.054,0,0,512,512
257.101,-2.77556e-17,0,512,512
257.159,-2.77556e-17,0,512,512
257.206,0,0,512,512
257.253,0,0,512,512
257.311,0,0,512,512
257.358,2.77556e-17,0,512,512
257.405,2.77556e-17,0,512,512
257.452,0,0,512,512
257.511,0,0,512,512
257.557,0,0,512,512
257.604,0,0,512,512
257.651,0,0,512,512
257.71,-2.77556e-17,0,512,512
257.757,0,0,512,512
257.804,0,0,512,512
257.85,0,0,512,512
257.909,-2.77556e-17,0,512,512
257.956,-2.77556e-17,0,512,512
258.003,-2.77556e-17,0,512,512
258.061,0,0,512,512
258.108,0,0,512,512
258.155,0,0,512,512
258.202,0,0,512,512
258.261,0,0,512,512
258.307,-2.77556e-17,0,512,512
258.354,0,0,512,512
258.401,-2.77556e-17,0,512,512
258.46,-2.77556e-17,0,512,512
258.507,-2.77556e-17,0,512,512
258.553,-2.77556e-17,0,512,512
258.6,-2.77556e-17,0,512,512
258.659,-2.77556e-17,0,512,512
258.706,-5.55112e-17,0,512,512
258.753,-5.55112e-17,0,512,512
258.811,-5.55112e-17,0,512,512
258.858,-5.55112e-17,0,512,512
258.905,-2.77556e-17,0,512,512
258.952,0,0,512,512
259.01,0,0,512,512
259.057,-2.77556e-17,0,512,512
259.104,0,0,512,512
259.151,0,0,512,512
259.21,-2.77556e-17,0,512,512
259.256,-2.77556e-17,0,512,512
259.303,0,0,512,512
259.35,0,0,512,512
259.409,2.77556e-17,0,512,512
259.456,2.77556e-17,0,512,512
259.503,0,0,512,512
259.561,0,0,512,512
259.608,0,0,512,512
259.655,-2.77556e-17,0,512,512
259.702,-2.77556e-17,0,512,512
259.76,0,0,512,512
259.807,0,0,512,512
259.854,2.77556e-17,0,512,512
259.901,0,0,512,512
259.959,0,0,512,512
260.006,0,0,512,512
260.053,0,0,512,512
260.1,-2.77556e-17,0,512,512
260.159,-2.77556e-17,0,512,512
260.206,-2.77556e-17,0,512,512
260.252,-2.77556e-17,0,512,512
260.311,-2.77556e-17,0,512,512
260.358,-2.77556e-17,0,512,512
260.405,-2.77556e-17,0,512,512
260.452,-2.77556e-17,0,512,512
260.51,-2.77556e-17,0,512,512
260.557,-2.77556e-17,0,512,512
260.604,0,0,512,512
260.651,0,0,512,512
260.709,0,0,512,512
260.756,0,0,512,512
260.803,0,0,512,512
260.862,0,0,512,512
260.909,2.77556e-17,0,512,512
260.955,2.77556e-17,0,512,512
261.002,2.77556e-17,0,512,512
261.061,2.77556e-17,0,512,512
261.108,2.77556e-17,0,512,512
261.155,2.77556e-17,0,512,512
261.201,2.77556e-17,0,512,512
261.26,0,0,512,512
261.307,0,0,512,512
261.354,0,0,512,512
261.401,0,0,512,512
261.459,0,0,512,512
261.506,0,0,512,512
261.553,0,0,512,512
261.612,0,0,512,512
261.658,0,0,512,512
261.705,0,0,512,512
261.752,2.77556e-17,0,512,512
261.811,2.77556e-17,0,512,512
261.858,-2.77556e-17,0,512,512
261.905,0,0,512,512
261.951,0,0,512,512
262.01,0,0,512,512
262.057,0,0,512,512
262.104,0,0,512,512
262.151,0,0,512,512
262.209,0,0,512,512
262.256,2.77556e-17,0,512,512
262.303,2.77556e-17,0,512,512
262.361,0,0,512,512
262.408,0,0,512,512
262.455,0,0,512,512
262.502,0,0,512,512
262.561,0,0,512,512
262.608,2.77556e-17,0,512,512
262.654,2.77556e-17,0,512,512
262.701,2.77556e-17,0,512,512
262.76,2.77556e-17,0,512,512
262.807,0,0,512,512
262.854,0,0,512,512
262.9,2.77556e-17,0,512,512
262.959,0,0,512,512
263.006,0,0,512,512
263.053,0,0,512,512
263.111,0,0,512,512
263.158,0,0,512,512
263.205,0,0,512,512
263.252,0,0,512,512
263.311,0,0,512,512
263.357,2.77556e-17,0,512,512
263.404,2.77556e-17,0,512,512
263.451,2.77556e-17,0,512,512
263.51,0,0,512,512
263.557,0,0,512,512
263.603,0,0,512,512
263.65,0,0,512,512
263.709,-2.77556e-17,0,512,512
263.756,-2.77556e-17,0,512,512
263.803,-2.77556e-17,0,512,512
263.861,0,0,512,512
263.908,0,0,512,512
263.955,2.77556e-17,0,512,512
264.002,0,0,512,512
264.06,0,0,512,512
264.107,0,0,512,512
264.154,0,0,512,512
264.201,0,0,512,512
264.26,0,0,512,512
264.306,2.77556e-17,0,512,512
264.353,2.77556e-17,0,512,512
264.4,2.77556e-17,0,512,512
264.459,2.77556e-17,0,512,512
264.506,2.77556e-17,0,512,512
264.553,2.77556e-17,0,512,512
264.611,2.77556e-17,0,512,512
264.658,2.77556e-17,0,512,512
264.705,2.77556e-17,0,512,512
264.752,2.77556e-17,0,512,512
264.81,2.77556e-17,0,512,512
264.857,2.77556e-17,0,512,512
264.904,2.77556e-17,0,512,512
264.951,2.77556e-17,0,512,512
265.01,2.77556e-17,0,512,512
265.056,2.77556e-17,0,512,512
265.103,2.77556e-17,0,512,512
265.15,2.77556e-17,0,512,512
265.209,2.77556e-17,0,512,512
265.256,2.77556e-17,0,512,512
265.302,2.77556e-17,0,512,512
265.361,5.55112e-17,0,512,512
265.408,5.55112e-17,0,512,512
265.455,5.55112e-17,0,512,512
265.502,5.55112e-17,0,512,512
265.56,2.77556e-17,0,512,512
265.607,2.77556e-17,0,512,512
265.654,2.77556e-17,0,512,512
265.701,2.77556e-17,0,512,512
265.759,2.77556e-17,0,512,512
265.806,2.77556e-17,0,512,512
265.853,2.77556e-17,0,512,512
265.9,2.77556e-17,0,512,512
265.959,2.77556e-17,0,512,512
266.005,2.77556e-17,0,512,512
266.052,2.77556e-17,0,512,512
266.111,0,0,512,512
266.158,2.77556e-17,0,512,512
266.205,0,0,512,512
266.252,2.77556e-17,0,512,512
266.31,2.77556e-17,0,512,512
266.357,2.77556e-17,0,512,512
266.404,2.77556e-17,0,512,512
266.451,2.77556e-17,0,512,512
266.509,0,0,512,512
266.556,0,0,512,512
266.603,-2.77556e-17,0,512,512
266.662,-2.77556e-17,0,512,512
266.708,-2.77556e-17,0,512,512
266.755,0,0,512,512
266.802,-2.77556e-17,0,512,512
266.861,-2.77556e-17,0,512,512
266.908,-2.77556e-17,0,512,512
266.955,-2.77556e-17,0,512,512
267.001,-2.77556e-17,0,512,512
267.06,-2.77556e-17,0,512,512
267.107,-2.77556e-17,0,512,512
267.154,-2.77556e-17,0,512,512
267.201,-2.77556e-17,0,512,512
267.259,-2.77556e-17,0,512,512
267.306,-2.77556e-17,0,512,512
267.353,-2.77556e-17,0,512,512
267.412,-2.77556e-17,0,512,512
267.458,-2.77556e-17,0,512,512
267.505,-2.77556e-17,0,512,512
267.552,0,0,512,512
267.611,2.77556e-17,0,512,512
267.658,2.77556e-17,0,512,512
267.704,2.77556e-17,0,512,512
267.751,2.77556e-17,0,512,512
267.81,2.77556e-17,0,512,512
267.857,2.77556e-17,0,512,512
267.904,2.77556e-17,0,512,512
267.95,2.77556e-17,0,512,512
268.009,2.77556e-17,0,512,512
268.056,2.77556e-17,0,512,512
268.105,2.77556e-17,0,531,531
268.152,2.77556e-17,0,543,543
268.205,2.77556e-17,0,549,549
268.252,2.77556e-17,0,561,561
268.304,2.77556e-17,0,573,573
268.351,2.77556e-17,0,579,579
268.404,2.77556e-17,0,591,591
268.451,2.77556e-17,0,603,603
268.504,2.77556e-17,0,615,615
268.55,2.77556e-17,0,627,627
268.603,2.77556e-17,0,639,639
268.65,2.77556e-17,0,645,645
268.703,2.77556e-17,0,657,657
268.756,2.77556e-17,0,669,669
268.802,2.77556e-17,0,681,681
268.855,2.77556e-17,0,693,693
268.902,2.77556e-17,0,705,705
268.955,2.77556e-17,0,711,711
269.002,2.77556e-17,0,723,723
269.054,2.77556e-17,0,735,735
269.101,2.77556e-17,0,747,747
269.154,2.77556e-17,0,759,759
269.201,2.77556e-17,0,765,765
269.254,2.77556e-17,0,777,777
269.3,2.77556e-17,0,789,789
269.353,2.77556e-17,0,801,801
269.406,2.77556e-17,0,813,813
269.453,2.77556e-17,0,819,819
269.505,2.77556e-17,0,833,833
269.552,2.77556e-17,0,843,843
269.605,2.77556e-17,0,855,855
269.652,2.77556e-17,0,867,867
269.705,2.77556e-17,0,875,875
269.751,2.77556e-17,0,885,885
269.804,2.77556e-17,0,897,897
269.851,2.77556e-17,0,909,909
269.904,2.77556e-17,0,917,917
269.951,2.77556e-17,0,927,927
270.003,2.77556e-17,0,939,939
270.05,2.77556e-17,0,951,951
270.103,2.77556e-17,0,959,959
270.156,2.77556e-17,0,969,969
270.203,2.77556e-17,0,981,981
270.255,2.77556e-17,0,993,993
270.302,2.77556e-17,0,999,999
270.355,2.77556e-17,0,1011,1011
270.402,1.11022e-16,0,1023,1023
270.455,3.33067e-16,0,1031,1031
270.501,3.88578e-16,0,1041,1041
270.554,-3.33067e-16,0,1053,1053
270.601,-5.19029e-15,0,1059,1059
270.654,-2.99205e-14,0,1071,1071
270.701,-1.04111e-13,0,1079,1079
270.753,-3.45279e-13,0,1091,1091
270.8,-8.748e-13,0,1101,1101
270.853,-2.19649e-12,0,1109,1109
270.906,-4.92059e-12,0,1119,1119
270.952,-9.26151e-12,0,1131,1131
271.005,-1.73229e-11,0,1131,1131
271.052,-2.81865e-11,0,1129,1129
271.105,-4.53081e-11,0,1133,1133
271.152,-6.5176e-11,0,1135,1135
271.204,-9.67945e-11,0,1139,1139
271.251,-1.68232e-10,0,1141,1141
271.304,-2.12161e-10,0,1145,1145
271.351,-2.00367e-10,0,1139,1139
271.404,-1.25805e-10,0,1127,1127
271.45,-3.75208e-11,0,1119,1119
271.503,4.7004e-11,0,1121,1121
271.55,8.08488e-11,0,1131,1131
271.603,7.26208e-11,0,1125,1125
271.655,6.41935e-11,0,1129,1129
271.702,6.73815e-11,0,1117,1117
271.755,8.22169e-11,0,1113,1113
271.802,9.52987e-11,0,1117,1117
271.855,1.00115e-10,0,1117,1117
271.902,9.65591e-11,0,1115,1115
271.954,9.07548e-11,0,1129,1129
272.001,9.12903e-11,0,1137,1137
272.054,9.94353e-11,0,1141,1141
272.101,1.08514e-10,0,1139,1139
272.153,1.13469e-10,0,1143,1143
272.2,1.10714e-10,0,1153,1153
272.253,1.03695e-10,0,1163,1163
272.306,1.00381e-10,0,1171,1171
272.353,1.04716e-10,0,1175,1175
272.405,1.15663e-10,0,1175,1175
272.452,1.23623e-10,0,1181,1181
272.505,1.22002e-10,0,1193,1193
272.552,1.08981e-10,0,1197,1197
272.605,8.7253e-11,0,1197,1197
272.651,8.23897e-11,0,1207,1207
272.704,1.08326e-10,0,1215,1215
272.751,1.63358e-10,0,1225,1225
272.804,1.77192e-10,0,1233,1233
272.851,1.33878e-10,0,1245,1245
272.903,1.66013e-10,0,1245,1245
272.95,5.61364e-10,0,1253,1253
273.003,1.8542e-09,0,1261,1261
273.056,4.37032e-09,0,1261,1261
273.103,7.64592e-09,0,1255,1255
273.155,1.21579e-08,0,1267,1267
273.202,1.64421e-08,0,1267,1267
273.255,2.10815e-08,0,1281,1281
273.302,2.4845e-08,0,1287,1287
273.354,2.88365e-08,0,1297,1297
273.401,3.2603e-08,0,1309,1309
273.454,3.77631e-08,0,1323,1323
273.501,4.37142e-08,0,1331,1331
273.554,5.24081e-08,0,1335,1335
273.601,6.21862e-08,0,1345,1345
273.653,7.58215e-08,0,1357,1357
273.7,9.0701e-08,0,1359,1359
273.753,1.11237e-07,0,1371,1371
273.806,1.36618e-07,0,1383,1383
273.852,1.63811e-07,0,1393,1393
273.905,1.99846e-07,0,1403,1403
273.952,2.36478e-07,0,1405,1405
274.005,2.82168e-07,0,1421,1421
274.052,3.26048e-07,0,1429,1429
274.104,3.78419e-07,0,1435,1435
274.151,4.27292e-07,0,1451,1451
274.204,4.84507e-07,0,1451,1451
274.251,5.36712e-07,0,1465,1465
274.304,5.95537e-07,0,1469,1469
274.35,6.46127e-07,0,1481,1481
274.403,6.98738e-07,0,1489,1489
274.456,7.44504e-07,0,1499,1499
274.503,7.78128e-07,0,1501,1501
274.555,8.07508e-07,0,1509,1509
274.602,8.26435e-07,0,1509,1509
274.655,8.40603e-07,0,1517,1517
274.702,8.47845e-07,0,1521,1521
274.755,8.50919e-07,0,1533,1533
274.802,8.49586e-07,0,1539,1539
274.854,8.43536e-07,0,1551,1551
274.901,8.33771e-07,0,1557,1557
274.954,8.17195e-07,0,1569,1569
275.001,7.96908e-07,0,1575,1575
275.053,7.67388e-07,0,1581,1581
275.1,7.35224e-07,0,1593,1593
275.153,6.93061e-07,0,1599,1599
275.206,6.46e-07,0,1611,1611
275.253,6.01651e-07,0,1617,1617
275.305,5.5084e-07,0,1629,1629
275.352,5.06308e-07,0,1635,1635
275.405,4.58171e-07,0,1643,1643
275.452,4.17748e-07,0,1649,1649
275.505,3.75188e-07,0,1651,1651
275.551,3.39877e-07,0,1659,1659
275.604,3.02758e-07,0,1657,1657
275.651,2.71932e-07,0,1661,1661
275.704,2.3974e-07,0,1659,1659
275.751,2.13597e-07,0,1661,1661
275.803,1.87386e-07,0,1665,1665
275.85,1.67151e-07,0,1663,1663
275.903,1.4767e-07,0,1671,1671
275.956,1.31002e-07,0,1669,1669
276.003,1.17809e-07,0,1673,1673
276.055,1.04137e-07,0,1675,1675
276.102,9.28329e-08,0,1673,1673
276.155,8.12567e-08,0,1677,1677
276.202,7.22783e-08,0,1679,1679
276.254,6.38569e-08,0,1683,1683
276.301,5.77552e-08,0,1685,1685
276.354,5.19985e-08,0,1683,1683
276.401,4.73675e-08,0,1691,1691
276.454,4.2254e-08,0,1689,1689
276.5,3.7693e-08,0,1695,1695
276.553,3.27793e-08,0,1703,1703
276.6,2.89675e-08,0,1705,1705
276.653,2.56684e-08,0,1709,1709
276.706,2.35421e-08,0,1715,1715
276.752,2.25121e-08,0,1713,1713
276.805,2.20275e-08,0,1725,1725
276.852,2.19385e-08,0,1723,1723
276.905,2.20017e-08,0,1724,1724
276.952,2.2094e-08,0,1732,1732
277.004,2.21719e-08,0,1732,1732
277.051,2.21842e-08,0,1734,1734
277.104,2.21085e-08,0,1742,1742
277.151,2.19589e-08,0,1724,1724
277.203,2.1724e-08,0,1738,1738
277.25,2.14935e-08,0,1750,1750
277.303,2.12525e-08,0,1750,1750
277.356,2.10509e-08,0,1760,1760
277.403,2.09054e-08,0,1762,1762
277.455,2.07612e-08,0,1766,1766
277.502,2.06359e-08,0,1780,1780
277.555,2.0482e-08,0,1786,1786
277.602,2.03229e-08,0,1794,1794
277.655,2.01144e-08,0,1806,1806
277.701,1.98999e-08,0,1820,1820
277.754,1.96238e-08,0,1824,1824
277.801,1.93502e-08,0,1842,1842
277.854,1.90045e-08,0,1844,1844
277.901,1.86711e-08,0,1850,1850
277.953,1.82625e-08,0,1862,1862
278,1.78747e-08,0,1866,1866
278.053,1.74137e-08,0,1874,1874
278.106,1.69291e-08,0,1878,1878
278.153,1.64845e-08,0,1878,1878
278.205,1.597e-08,0,1888,1888
278.252,1.55052e-08,0,1896,1896
278.305,1.49766e-08,0,1902,1902
278.352,1.45055e-08,0,1908,1908
278.404,1.39781e-08,0,1912,1912
278.451,1.35137e-08,0,1920,1920
278.504,1.30012e-08,0,1928,1928
278.551,1.25568e-08,0,1936,1936
278.604,1.20736e-08,0,1944,1944
278.651,1.16618e-08,0,1950,1950
278.703,1.12212e-08,0,1956,1956
278.75,1.08523e-08,0,1958,1958
278.803,1.04644e-08,0,1940,1940
278.856,1.01069e-08,0,1928,1928
278.902,9.81484e-09,0,1912,1912
278.955,9.51525e-09,0,1900,1900
279.002,9.27417e-09,0,1894,1894
279.055,9.03019e-09,0,1870,1870
279.102,8.83652e-09,0,1856,1856
279.154,8.64308e-09,0,1836,1836
279.201,8.49157e-09,0,1828,1828
279.254,8.34226e-09,0,1814,1814
279.301,8.22679e-09,0,1800,1800
279.354,8.11456e-09,0,1778,1778
279.4,8.02893e-09,0,1768,1768
279.453,7.94686e-09,0,1748,1748
279.5,7.88518e-09,0,1732,1732
279.553,7.82708e-09,0,1704,1704
279.605,7.77959e-09,0,1688,1688
279.652,7.74526e-09,0,1678,1678
279.705,7.71441e-09,0,1650,1650
279.752,7.69261e-09,0,1652,1652
279.805,7.67214e-09,0,1664,1664
279.852,7.65535e-09,0,1660,1660
279.904,7.65167e-09,0,1656,1656
279.951,7.65295e-09,0,1650,1650
280.004,7.65913e-09,0,1652,1652
280.051,7.66467e-09,0,1648,1648
280.103,7.67305e-09,0,1636,1636
280.15,7.681e-09,0,1634,1634
280.203,7.69223e-09,0,1639,1639
280.256,7.70485e-09,0,1647,1647
280.303,7.71715e-09,0,1653,1653
280.355,7.73205e-09,0,1655,1655
280.402,7.74598e-09,0,1665,1665
280.455,7.76238e-09,0,1681,1681
280.502,7.77732e-09,0,1685,1685
280.555,7.79442e-09,0,1700,1700
280.601,7.80972e-09,0,1704,1704
280.654,7.827e-09,0,1694,1694
280.701,7.84238e-09,0,1698,1698
280.754,7.85964e-09,0,1698,1698
280.801,7.87488e-09,0,1692,1692
280.853,7.89189e-09,0,1692,1692
280.9,7.90685e-09,0,1698,1698
280.953,7.92344e-09,0,1694,1694
281.006,7.93972e-09,0,1686,1686
281.053,7.95388e-09,0,1692,1692
281.105,7.96944e-09,0,1692,1692
281.152,7.9829e-09,0,1682,1682
281.205,7.99765e-09,0,1682,1682
281.252,8.01044e-09,0,1686,1686
281.304,8.02457e-09,0,1684,1684
281.351,8.03702e-09,0,1676,1676
281.404,8.05113e-09,0,1680,1680
281.451,8.06398e-09,0,1680,1680
281.504,8.07912e-09,0,1670,1670
281.551,8.09344e-09,0,1674,1674
281.603,8.11075e-09,0,1676,1676
281.65,8.12739e-09,0,1672,1672
281.703,8.14782e-09,0,1666,1666
281.756,8.17073e-09,0,1670,1670
281.802,8.19469e-09,0,1672,1672
281.855,8.2329e-09,0,1664,1664
281.902,8.29681e-09,0,1668,1668
281.955,8.37092e-09,0,1664,1664
282.002,8.45052e-09,0,1670,1670
282.054,8.55542e-09,0,1658,1658
282.101,8.66772e-09,0,1662,1662
282.154,8.81924e-09,0,1660,1660
282.201,8.97874e-09,0,1660,1660
282.254,9.19529e-09,0,1658,1658
282.3,9.42434e-09,0,1656,1656
282.353,9.73106e-09,0,1656,1656
282.406,1.00994e-08,0,1654,1654
282.453,1.04858e-08,0,1654,1654
282.505,1.09997e-08,0,1646,1646
282.552,1.15373e-08,0,1646,1646
282.605,1.2246e-08,0,1650,1650
282.652,1.29809e-08,0,1656,1656
282.705,1.39395e-08,0,1652,1652
282.752,1.49219e-08,0,1648,1648
282.804,1.61869e-08,0,1648,1648
282.851,1.74642e-08,0,1646,1646
282.904,1.90846e-08,0,1646,1646
282.951,2.06955e-08,0,1652,1652
283.003,2.27067e-08,0,1652,1652
283.05,2.46746e-08,0,1648,1648
283.103,2.70931e-08,0,1648,1648
283.156,2.97271e-08,0,1644,1644
283.203,3.22683e-08,0,1649,1649
283.251,3.49961e-08,0,1661,1661
283.304,3.82531e-08,0,1673,1673
283.351,4.13111e-08,0,1681,1681
283.404,4.49341e-08,0,1691,1691
283.451,4.83128e-08,0,1701,1701
283.504,5.23021e-08,0,1709,1709
283.551,5.60278e-08,0,1721,1721
283.603,6.04321e-08,0,1731,1731
283.65,6.45476e-08,0,1743,1743
283.703,6.94187e-08,0,1755,1755
283.756,7.45638e-08,0,1767,1767
283.803,7.93849e-08,0,1773,1773
283.855,8.51116e-08,0,1785,1785
283.902,9.04967e-08,0,1797,1797
283.955,9.69263e-08,0,1809,1809
284.002,1.03017e-07,0,1815,1815
284.055,1.10361e-07,0,1827,1827
284.101,1.17407e-07,0,1839,1839
284.154,1.26033e-07,0,1851,1851
284.201,1.34445e-07,0,1859,1859
284.254,1.44916e-07,0,1869,1869
284.301,1.55284e-07,0,1881,1881
284.353,1.6835e-07,0,1893,1893
284.4,1.81397e-07,0,1899,1899
284.453,1.97901e-07,0,1911,1911
284.506,2.16547e-07,0,1923,1923
284.553,2.35069e-07,0,1935,1935
284.605,2.58215e-07,0,1947,1947
284.652,2.8089e-07,0,1953,1953
284.705,3.08748e-07,0,1965,1965
284.752,3.35511e-07,0,1977,1977
284.804,3.67671e-07,0,1989,1989
284.851,3.97834e-07,0,1995,1995
284.904,4.33149e-07,0,2007,2007
284.951,4.6536e-07,0,2019,2019
285.004,5.0196e-07,0,2026,2026
285.051,5.34284e-07,0,2028,2028
285.103,5.6975e-07,0,2031,2031
285.15,5.99893e-07,0,2025,2025
285.203,6.31571e-07,0,2019,2019
285.256,6.602e-07,0,2013,2013
285.302,6.82562e-07,0,2013,2013
285.355,7.03727e-07,0,2013,2013
285.402,7.18619e-07,0,2013,2013
285.455,7.30619e-07,0,2013,2013
285.502,7.3685e-07,0,2013,2013
285.554,7.38721e-07,0,2013,2013
285.601,7.35767e-07,0,2013,2013
285.654,7.27283e-07,0,2013,2013
285.701,7.15255e-07,0,2019,2019
285.754,6.96875e-07,0,2032,2032
285.8,6.76464e-07,0,2036,2036
285.853,6.49266e-07,0,2040,2040
285.906,6.18029e-07,0,2048,2048
285.953,5.873e-07,0,2048,2048
286.005,5.49932e-07,0,2048,2048
286.052,5.14722e-07,0,2048,2048
286.105,4.7347e-07,0,2048,2048
286.152,4.35866e-07,0,2048,2048
286.205,3.93114e-07,0,2048,2048
286.252,3.55211e-07,0,2048,2048
286.304,3.13219e-07,0,2048,2048
286.351,2.76886e-07,0,2048,2048
286.404,2.3755e-07,0,2048,2048
286.451,2.04254e-07,0,2048,2048
286.503,1.68955e-07,0,2044,2044
286.55,1.39672e-07,0,2036,2036
286.603,1.09224e-07,0,2036,2036
286.656,8.14935e-08,0,2044,2044
286.703,5.91408e-08,0,2040,2040
286.755,3.65434e-08,0,2034,2034
286.802,1.86602e-08,0,1998,1998
286.855,9.15623e-10,0,1982,1982
286.902,-1.28561e-08,0,1978,1978
286.955,-2.62414e-08,0,1984,1984
287.001,-3.6396e-08,0,1976,1976
287.054,-4.60146e-08,0,1984,1984
287.101,-5.30922e-08,0,1988,1988
287.154,-5.95487e-08,0,1984,1984
287.201,-6.40718e-08,0,1990,1990
287.253,-6.79272e-08,0,2006,2006
287.3,-7.03656e-08,0,1998,1998
287.353,-7.21134e-08,0,1998,1998
287.406,-7.2922e-08,0,1988,1988
287.452,-7.29427e-08,0,1988,1988
287.505,-7.22763e-08,0,1984,1984
287.552,-7.11493e-08,0,1976,1976
287.605,-6.93681e-08,0,1970,1970
287.652,-6.74014e-08,0,1966,1966
287.704,-6.48399e-08,0,1968,1968
287.751,-6.23201e-08,0,1962,1962
287.804,-5.92866e-08,0,1964,1964
287.851,-5.64725e-08,0,1944,1944
287.904,-5.3237e-08,0,1924,1924
287.95,-5.03462e-08,0,1910,1910
288.003,-4.71251e-08,0,1898,1898
288.05,-4.4323e-08,0,1900,1900
288.103,-4.12712e-08,0,1888,1888
288.156,-3.83512e-08,0,1888,1888
288.202,-3.58818e-08,0,1904,1904
288.255,-3.32571e-08,0,1890,1890
288.302,-3.10663e-08,0,1890,1890
288.355,-2.87644e-08,0,1888,1888
288.402,-2.6863e-08,0,1884,1884
288.454,-2.48842e-08,0,1891,1891
288.501,-2.32641e-08,0,1888,1888
288.554,-2.15921e-08,0,1906,1906
288.601,-2.02343e-08,0,1940,1940
288.653,-1.88441e-08,0,1956,1956
288.7,-1.77242e-08,0,1972,1972
288.753,-1.65869e-08,0,1972,1972
288.806,-1.55718e-08,0,1984,1984
288.853,-1.47658e-08,0,1996,1996
288.905,-1.39603e-08,0,1996,1996
288.952,-1.33271e-08,0,2008,2008
289.005,-1.26978e-08,0,2012,2012
289.052,-1.22045e-08,0,2012,2012
289.105,-1.17185e-08,0,2012,2012
289.151,-1.13465e-08,0,2016,2016
289.204,-1.09929e-08,0,2020,2020
289.251,-1.07311e-08,0,2020,2020
289.304,-1.04872e-08,0,2016,2016
289.351,-1.03105e-08,0,2016,2016
289.403,-1.01545e-08,0,2016,2016
289.45,-1.00505e-08,0,2016,2016
289.503,-9.9666e-09,0,2008,2008
289.556,-9.91195e-09,0,2012,2012
289.603,-9.88316e-09,0,2016,2016
289.655,-9.8629e-09,0,2024,2024
289.702,-9.87435e-09,0,2032,2032
289.755,-9.90346e-09,0,2036,2036
289.802,-9.92289e-09,0,2032,2032
289.854,-9.96076e-09,0,2040,2040
289.901,-9.99867e-09,0,2028,2028
289.954,-1.00481e-08,0,2024,2024
290.001,-1.00929e-08,0,2020,2020
290.054,-1.01442e-08,0,2012,2012
290.101,-1.01856e-08,0,2008,2008
290.153,-1.02305e-08,0,2002,2002
290.2,-1.02687e-08,0,2002,2002
290.253,-1.03082e-08,0,1996,1996
290.306,-1.03458e-08,0,2002,2002
290.352,-1.03767e-08,0,1998,1998
290.405,-1.04083e-08,0,1980,1980
290.452,-1.0435e-08,0,1974,1974
290.505,-1.04631e-08,0,1952,1952
290.552,-1.0485e-08,0,1946,1946
290.604,-1.05067e-08,0,1962,1962
290.651,-1.05236e-08,0,1950,1950
290.704,-1.05433e-08,0,1912,1912
290.751,-1.0546e-08,0,1908,1908
290.804,-1.05581e-08,0,1912,1912
290.85,-1.05647e-08,0,1924,1924
290.903,-1.05716e-08,0,1928,1928
290.95,-1.05782e-08,0,1928,1928
291.003,-1.0587e-08,0,1920,1920
291.055,-1.05979e-08,0,1938,1938
291.102,-1.06102e-08,0,1934,1934
291.155,-1.06284e-08,0,1952,1952
291.202,-1.06493e-08,0,1976,1976
291.255,-1.06847e-08,0,1998,1998
291.302,-1.07209e-08,0,2006,2006
291.354,-1.07796e-08,0,2028,2028
291.401,-1.08368e-08,0,2028,2028
291.454,-1.09239e-08,0,2026,2026
291.501,-1.10255e-08,0,2004,2004
291.553,-1.11639e-08,0,1954,1954
291.6,-1.13068e-08,0,1936,1936
291.653,-1.14871e-08,0,1920,1920
291.706,-1.16864e-08,0,1912,1912
291.753,-1.18794e-08,0,1918,1918
291.805,-1.21149e-08,0,1920,1920
291.852,-1.234e-08,0,1924,1924
291.905,-1.26102e-08,0,1908,1908
291.952,-1.28652e-08,0,1898,1898
292.005,-1.31685e-08,0,1880,1880
292.051,-1.34516e-08,0,1872,1872
292.104,-1.37835e-08,0,1860,1860
292.151,-1.40888e-08,0,1854,1854
292.204,-1.44426e-08,0,1816,1816
292.251,-1.47653e-08,0,1788,1788
292.303,-1.51365e-08,0,1795,1795
292.35,-1.54728e-08,0,1816,1816
292.403,-1.5857e-08,0,1828,1828
292.456,-1.62459e-08,0,1860,1860
292.503,-1.6594e-08,0,1892,1892
292.555,-1.69862e-08,0,1900,1900
292.602,-1.73337e-08,0,1900,1900
292.655,-1.77219e-08,0,1928,1928
292.702,-1.80636e-08,0,1938,1938
292.754,-1.8443e-08,0,1938,1938
292.801,-1.87751e-08,0,1944,1944
292.854,-1.9142e-08,0,1940,1940
292.901,-1.94601e-08,0,1948,1948
292.954,-1.9806e-08,0,1942,1942
293,-2.0101e-08,0,1938,1938
293.053,-2.04185e-08,0,1920,1920
293.1,-2.06871e-08,0,1906,1906
293.153,-2.0971e-08,0,1886,1886
293.206,-2.12335e-08,0,1874,1874
293.252,-2.14485e-08,0,1880,1880
293.305,-2.16704e-08,0,1912,1912
293.352,-2.18488e-08,0,1924,1924
293.405,-2.20267e-08,0,1928,1928
293.452,-2.21637e-08,0,1928,1928
293.504,-2.22942e-08,0,1932,1932
293.551,-2.23893e-08,0,1924,1924
293.604,-2.24727e-08,0,1916,1916
293.651,-2.25267e-08,0,1888,1888
293.704,-2.25673e-08,0,1882,1882
293.75,-2.2582e-08,0,1868,1868
293.803,-2.25678e-08,0,1856,1856
293.856,-2.25386e-08,0,1862,1862
293.903,-2.24961e-08,0,1874,1874
293.955,-2.24446e-08,0,1856,1856
294.002,-2.2384e-08,0,1854,1854
294.055,-2.2296e-08,0,1846,1846
294.102,-2.2212e-08,0,1862,1862
294.155,-2.21089e-08,0,1866,1866
294.201,-2.20122e-08,0,1870,1870
294.254,-2.18897e-08,0,1896,1896
294.301,-2.17733e-08,0,1898,1898
294.354,-2.16376e-08,0,1912,1912
294.401,-2.15136e-08,0,1922,1922
294.453,-2.13722e-08,0,1956,1956
294.5,-2.12445e-08,0,1976,1976
294.553,-2.10997e-08,0,1998,1998
294.606,-2.09557e-08,0,2002,2002
294.653,-2.08285e-08,0,2010,2010
294.705,-2.0687e-08,0,2016,2016
294.752,-2.05629e-08,0,2028,2028
294.805,-2.04261e-08,0,2022,2022
294.852,-2.03067e-08,0,2024,2024
294.905,-2.01755e-08,0,2026,2026
294.951,-2.0062e-08,0,2020,2020
295.004,-1.99383e-08,0,2022,2022
295.051,-1.98313e-08,0,2024,2024
295.104,-1.97147e-08,0,2024,2024
295.151,-1.96144e-08,0,2026,2026
295.203,-1.95048e-08,0,2022,2022
295.25,-1.94105e-08,0,2022,2022
295.303,-1.93078e-08,0,2026,2026
295.356,-1.92087e-08,0,2013,2013
295.402,-1.91246e-08,0,2006,2006
295.455,-1.90337e-08,0,2016,2016
295.502,-1.89554e-08,0,2016,2016
295.555,-1.88708e-08,0,2018,2018
295.602,-1.87988e-08,0,2018,2018
295.654,-1.8721e-08,0,2016,2016
295.701,-1.86543e-08,0,2016,2016
295.754,-1.85804e-08,0,2016,2016
295.801,-1.85143e-08,0,2018,2018
295.854,-1.84392e-08,0,2010,2010
295.9,-1.83726e-08,0,2004,2004
295.953,-1.82993e-08,0,1992,1992
296,-1.82362e-08,0,1986,1986
296.053,-1.81674e-08,0,1980,1980
296.106,-1.80995e-08,0,1974,1974
296.152,-1.80391e-08,0,1990,1990
296.205,-1.79702e-08,0,2004,2004
296.252,-1.79084e-08,0,2006,2006
296.305,-1.78387e-08,0,2006,2006
296.352,-1.77768e-08,0,2010,2010
296.404,-1.77071e-08,0,2012,2012
296.451,-1.76445e-08,0,2010,2010
296.504,-1.75729e-08,0,2006,2006
296.551,-1.75076e-08,0,2008,2008
296.603,-1.74324e-08,0,2002,2002
296.65,-1.73638e-08,0,1998,1998
296.703,-1.72845e-08,0,1998,1998
296.756,-1.72024e-08,0,1994,1994
296.803,-1.7127e-08,0,1994,1994
296.855,-1.7039e-08,0,1996,1996
296.902,-1.69579e-08,0,1996,1996
296.955,-1.68637e-08,0,1982,1982
297.002,-1.67772e-08,0,1982,1982
297.055,-1.66768e-08,0,1979,1979
297.101,-1.65846e-08,0,1973,1973
297.154,-1.64771e-08,0,1967,1967
297.201,-1.63778e-08,0,1967,1967
297.254,-1.62615e-08,0,1930,1930
297.301,-1.6154e-08,0,1920,1920
297.353,-1.60283e-08,0,1920,1920
297.4,-1.59123e-08,0,1918,1918
297.453,-1.57769e-08,0,1908,1908
297.506,-1.56361e-08,0,1910,1910
297.553,-1.55062e-08,0,1924,1924
297.605,-1.53548e-08,0,1932,1932
297.652,-1.52152e-08,0,1922,1922
297.705,-1.50525e-08,0,1910,1910
297.752,-1.49027e-08,0,1912,1912
297.804,-1.47279e-08,0,1898,1898
297.851,-1.4567e-08,0,1894,1894
297.904,-1.43793e-08,0,1882,1882
297.951,-1.42063e-08,0,1892,1892
298.004,-1.40044e-08,0,1894,1894
298.051,-1.38181e-08,0,1891,1891
298.103,-1.36005e-08,0,1909,1909
298.15,-1.33995e-08,0,1934,1934
298.203,-1.31642e-08,0,1954,1954
298.256,-1.29187e-08,0,1966,1966
298.302,-1.26911e-08,0,1968,1968
298.355,-1.2424e-08,0,1972,1972
298.402,-1.2176e-08,0,1970,1970
298.455,-1.18844e-08,0,1974,1974
298.502,-1.16133e-08,0,1980,1980
298.554,-1.12938e-08,0,1984,1984
298.601,-1.09965e-08,0,1984,1984
298.654,-1.06462e-08,0,1986,1986
298.701,-1.03203e-08,0,1980,1980
298.754,-9.93681e-09,0,1978,1978
298.8,-9.58057e-09,0,1968,1968
298.853,-9.16225e-09,0,1968,1968
298.9,-8.77474e-09,0,1964,1964
298.953,-8.32142e-09,0,1962,1962
299.005,-7.85025e-09,0,1970,1970
299.052,-7.4172e-09,0,1966,1966
299.105,-6.91506e-09,0,1956,1956
299.152,-6.45654e-09,0,1956,1956
299.205,-5.92859e-09,0,1950,1950
299.252,-5.45012e-09,0,1950,1950
299.304,-4.90365e-09,0,1942,1942
299.351,-4.41268e-09,0,1934,1934
299.404,-3.85706e-09,0,1930,1930
299.451,-3.36256e-09,0,1928,1928
299.503,-2.80833e-09,0,1904,1904
299.55,-2.31993e-09,0,1893,1893
299.603,-1.77814e-09,0,1867,1867
299.656,-1.24752e-09,0,1861,1861
299.703,-7.87766e-10,0,1855,1855
299.755,-2.86649e-10,0,1857,1857
299.802,1.42313e-10,0,1845,1845
299.855,6.04069e-10,0,1841,1841
299.902,9.94246e-10,0,1837,1837
299.955,1.40856e-09,0,1827,1827
300.001,1.75358e-09,0,1817,1817
300.054,2.11426e-09,0,1809,1809
300.101,2.40962e-09,0,1808,1808
300.154,2.71287e-09,0,1796,1796
300.201,2.95638e-09,0,1786,1786
300.253,3.20104e-09,0,1786,1786
300.3,3.39272e-09,0,1768,1768
300.353,3.57984e-09,0,1758,1758
300.406,3.73754e-09,0,1724,1724
300.453,3.85391e-09,0,1710,1710
300.505,3.95932e-09,0,1700,1700
300.552,4.03161e-09,0,1692,1692
300.605,4.09022e-09,0,1676,1676
300.652,4.12334e-09,0,1672,1672
300.704,4.13034e-09,0,1664,1664
300.751,4.12297e-09,0,1666,1666
300.804,4.1052e-09,0,1658,1658
300.851,4.0825e-09,0,1660,1660
300.904,4.05023e-09,0,1664,1664
300.951,4.01632e-09,0,1666,1666
301.003,3.97265e-09,0,1662,1662
301.05,3.92427e-09,0,1660,1660
301.103,3.85318e-09,0,1660,1660
301.156,3.77957e-09,0,1656,1656
301.202,3.71247e-09,0,1640,1640
301.255,3.63641e-09,0,1632,1632
301.302,3.56896e-09,0,1620,1620
301.355,3.49397e-09,0,1612,1612
301.402,3.42939e-09,0,1610,1610
301.454,3.36022e-09,0,1608,1608
301.501,3.30237e-09,0,1592,1592
301.554,3.24203e-09,0,1592,1592
301.601,3.19288e-09,0,1584,1584
301.654,3.14257e-09,0,1572,1572
301.7,3.10207e-09,0,1572,1572
301.753,3.06084e-09,0,1558,1558
301.806,3.02337e-09,0,1558,1558
301.853,2.99242e-09,0,1544,1544
301.905,2.95958e-09,0,1540,1540
301.952,2.93163e-09,0,1536,1536
302.005,2.90084e-09,0,1522,1522
302.052,2.87335e-09,0,1522,1522
302.105,2.84138e-09,0,1508,1508
302.151,2.81171e-09,0,1500,1500
302.204,2.77642e-09,0,1492,1492
302.251,2.74275e-09,0,1480,1480
302.304,2.70172e-09,0,1478,1478
302.351,2.66205e-09,0,1468,1468
302.403,2.61361e-09,0,1458,1458
302.45,2.567e-09,0,1446,1446
302.503,2.51037e-09,0,1442,1442
302.556,2.44929e-09,0,1432,1432
302.603,2.39149e-09,0,1436,1436
302.655,2.3234e-09,0,1424,1424
302.702,2.26094e-09,0,1408,1408
302.755,2.18941e-09,0,1406,1406
302.802,2.12562e-09,0,1390,1390
302.855,2.0546e-09,0,1386,1386
302.901,1.99296e-09,0,1382,1382
302.954,1.92625e-09,0,1372,1372
303.001,1.87003e-09,0,1368,1368
303.054,1.81117e-09,0,1356,1356
303.101,1.76347e-09,0,1344,1344
303.153,1.71596e-09,0,1338,1338
303.2,1.68001e-09,0,1330,1330
303.253,1.64789e-09,0,1318,1318
303.306,1.62698e-09,0,1316,1316
303.352,1.61753e-09,0,1330,1330
303.405,1.61447e-09,0,1330,1330
303.452,1.61809e-09,0,1330,1330
303.505,1.62506e-09,0,1324,1324
303.552,1.63434e-09,0,1316,1316
303.604,1.64795e-09,0,1328,1328
303.651,1.66308e-09,0,1324,1324
303.704,1.68321e-09,0,1316,1316
303.751,1.70373e-09,0,1324,1324
303.804,1.7296e-09,0,1308,1308
303.85,1.75422e-09,0,1308,1308
303.903,1.78238e-09,0,1296,1296
303.95,1.80708e-09,0,1280,1280
304.003,1.83645e-09,0,1285,1285
304.056,1.87839e-09,0,1283,1283
304.102,1.91288e-09,0,1279,1279
304.155,1.95022e-09,0,1285,1285
304.202,1.98383e-09,0,1281,1281
304.255,2.018e-09,0,1285,1285
304.302,2.04759e-09,0,1286,1286
304.354,2.0789e-09,0,1282,1282
304.401,2.10413e-09,0,1274,1274
304.454,2.13068e-09,0,1266,1266
304.501,2.15146e-09,0,1258,1258
304.553,2.17236e-09,0,1244,1244
304.6,2.18873e-09,0,1232,1232
304.653,2.20441e-09,0,1226,1226
304.706,2.21769e-09,0,1222,1222
304.753,2.22769e-09,0,1196,1196
304.805,2.23701e-09,0,1190,1190
304.852,2.24078e-09,0,1182,1182
304.905,2.24334e-09,0,1172,1172
304.952,2.24511e-09,0,1168,1168
