250,0,0,32768,32768
250.001,0,0,32768,32768
250.051,0,0,32768,32768
250.101,0,0,32768,32768
250.151,-2.77556e-17,0,32768,32768
250.201,-2.77556e-17,0,32768,32768
250.25,-2.77556e-17,0,32768,32768
250.3,0,0,32768,32768
250.35,0,0,32768,32768
250.401,-2.77556e-17,0,32768,32768
250.451,-2.77556e-17,0,32768,32768
250.501,-2.77556e-17,0,32768,32768
250.551,-2.77556e-17,0,32768,32768
250.6,-2.77556e-17,0,32768,32768
250.65,-2.77556e-17,0,32768,32768
250.7,-2.77556e-17,0,32768,32768
250.751,0,0,32768,32768
250.801,0,0,32768,32768
250.851,0,0,32768,32768
250.901,0,0,32768,32768
250.951,-2.77556e-17,0,32768,32768
251,2.77556e-17,0,32768,32768
251.05,2.77556e-17,0,32768,32768
251.101,2.77556e-17,0,32768,32768
251.151,0,0,32768,32768
251.201,0,0,32768,32768
251.251,0,0,32768,32768
251.301,0,0,32768,32768
251.35,-2.77556e-17,0,32768,32768
251.4,0,0,32768,32768
251.451,2.77556e-17,0,32768,32768
251.501,0,0,32768,32768
251.551,0,0,32768,32768
251.601,2.77556e-17,0,32768,32768
251.651,2.77556e-17,0,32768,32768
251.7,2.77556e-17,0,32768,32768
251.75,2.77556e-17,0,32768,32768
251.8,2.77556e-17,0,32768,32768
251.851,0,0,32768,32768
251.901,0,0,32768,32768
251.951,2.77556e-17,0,32768,32768
252.001,5.55112e-17,0,32768,32768
252.05,2.77556e-17,0,32768,32768
252.1,2.77556e-17,0,32768,32768
252.15,0,0,32768,32768
252.201,-2.77556e-17,0,32768,32768
252.251,-5.55112e-17,0,32768,32768
252.301,-2.77556e-17,0,32768,32768
252.351,0,0,32768,32768
252.401,0,0,32768,32768
252.45,0,0,32768,32768
252.5,0,0,32768,32768
252.551,0,0,32768,32768
252.601,-2.77556e-17,0,32768,32768
252.651,-2.77556e-17,0,32768,32768
252.701,0,0,32768,32768
252.751,0,0,32768,32768
252.8,0,0,32768,32768
252.85,-2.77556e-17,0,32768,32768
252.901,2.77556e-17,0,32768,32768
252.951,0,0,32768,32768
253.001,0,0,32768,32768
253.051,2.77556e-17,0,32768,32768
253.101,2.77556e-17,0,32768,32768
253.15,0,0,32768,32768
253.2,2.77556e-17,0,32768,32768
253.25,2.77556e-17,0,32768,32768
253.301,-2.77556e-17,0,32768,32768
253.351,2.77556e-17,0,32768,32768
253.401,-2.77556e-17,0,32768,32768
253.451,2.77556e-17,0,32768,32768
253.5,0,0,32768,32768
253.55,2.77556e-17,0,32768,32768
253.6,0,0,32768,32768
253.651,0,0,32768,32768
253.701,0,0,32768,32768
253.751,2.77556e-17,0,32768,32768
253.801,5.55112e-17,0,32768,32768
253.851,1.11022e-16,0,32768,32768
253.9,8.32667e-17,0,32768,32768
253.95,8.32667e-17,0,32768,32768
254.001,5.55112e-17,0,32768,32768
254.051,5.55112e-17,0,32768,32768
254.101,5.55112e-17,0,32768,32768
254.151,8.32667e-17,0,32768,32768
254.201,1.11022e-16,0,32768,32768
254.25,5.55112e-17,0,32768,32768
254.3,2.77556e-17,0,32768,32768
254.351,2.77556e-17,0,32768,32768
254.401,2.77556e-17,0,32768,32768
254.451,2.77556e-17,0,32768,32768
254.501,2.77556e-17,0,32768,32768
254.551,2.77556e-17,0,32768,32768
254.6,8.32667e-17,0,32768,32768
254.65,2.77556e-17,0,32768,32768
254.701,8.32667e-17,0,32768,32768
254.751,8.32667e-17,0,32768,32768
254.801,8.32667e-17,0,32768,32768
254.851,8.32667e-17,0,32768,32768
254.901,5.55112e-17,0,32768,32768
254.95,2.77556e-17,0,32768,32768
255,-2.77556e-17,0,32768,32768
255.05,-2.77556e-17,0,32768,32768
255.101,-2.77556e-17,0,32768,32768
255.151,-2.77556e-17,0,32768,32768
255.201,-2.77556e-17,0,32768,32768
255.251,-5.55112e-17,0,32768,32768
255.3,0,0,32768,32768
255.35,-2.77556e-17,0,32768,32768
255.4,0,0,32768,32768
255.451,5.55112e-17,0,32768,32768
255.501,5.55112e-17,0,32768,32768
255.551,1.11022e-16,0,32768,32768
255.601,8.32667e-17,0,32768,32768
255.651,5.55112e-17,0,32768,32768
255.7,5.55112e-17,0,32768,32768
255.75,5.55112e-17,0,32768,32768
255.801,5.55112e-17,0,32768,32768
255.851,5.55112e-17,0,32768,32768
255.901,5.55112e-17,0,32768,32768
255.951,5.55112e-17,0,32768,32768
256.001,5.55112e-17,0,32768,32768
256.05,5.55112e-17,0,32768,32768
256.1,5.55112e-17,0,32768,32768
256.151,5.55112e-17,0,32768,32768
256.201,1.11022e-16,0,32768,32768
256.251,8.32667e-17,0,32768,32768
256.301,5.55112e-17,0,32768,32768
256.351,5.55112e-17,0,32768,32768
256.4,0,0,32768,32768
256.45,5.55112e-17,0,32768,32768
256.5,5.55112e-17,0,32768,32768
256.551,2.77556e-17,0,32768,32768
256.601,2.77556e-17,0,32768,32768
256.651,5.55112e-17,0,32768,32768
256.701,0,0,32768,32768
256.75,2.77556e-17,0,32768,32768
256.8,2.77556e-17,0,32768,32768
256.85,5.55112e-17,0,32768,32768
256.901,8.32667e-17,0,32768,32768
256.951,5.55112e-17,0,32768,32768
257.001,5.55112e-17,0,32768,32768
257.051,2.77556e-17,0,32768,32768
257.101,2.77556e-17,0,32768,32768
257.15,5.55112e-17,0,32768,32768
257.2,5.55112e-17,0,32768,32768
257.251,8.32667e-17,0,32768,32768
257.301,2.77556e-17,0,32768,32768
257.351,0,0,32768,32768
257.401,2.77556e-17,0,32768,32768
257.451,2.77556e-17,0,32768,32768
257.5,0,0,32768,32768
257.55,-2.77556e-17,0,32768,32768
257.601,-5.55112e-17,0,32768,32768
257.651,-2.77556e-17,0,32768,32768
257.701,-2.77556e-17,0,32768,32768
257.751,-5.55112e-17,0,32768,32768
257.801,-2.77556e-17,0,32768,32768
257.85,-2.77556e-17,0,32768,32768
257.9,-2.77556e-17,0,32768,32768
257.95,-5.55112e-17,0,32768,32768
258.001,-5.55112e-17,0,32768,32768
258.051,-5.55112e-17,0,32768,32768
258.101,-8.32667e-17,0,32768,32768
258.151,-5.55112e-17,0,32768,32768
258.2,2.77556e-17,0,32768,32768
258.25,0,0,32768,32768
258.3,2.77556e-17,0,32768,32768
258.351,2.77556e-17,0,32768,32768
258.401,2.77556e-17,0,32768,32768
258.451,2.77556e-17,0,32768,32768
258.501,5.55112e-17,0,32768,32768
258.551,5.55112e-17,0,32768,32768
258.6,5.55112e-17,0,32768,32768
258.65,2.77556e-17,0,32768,32768
258.701,2.77556e-17,0,32768,32768
258.751,0,0,32768,32768
258.801,-2.77556e-17,0,32768,32768
258.851,-2.77556e-17,0,32768,32768
258.901,0,0,32768,32768
258.95,0,0,32768,32768
259,0,0,32768,32768
259.051,2.77556e-17,0,32768,32768
259.101,2.77556e-17,0,32768,32768
259.151,5.55112e-17,0,32768,32768
259.201,8.32667e-17,0,32768,32768
259.251,2.77556e-17,0,32768,32768
259.3,2.77556e-17,0,32768,32768
259.35,2.77556e-17,0,32768,32768
259.401,5.55112e-17,0,32768,32768
259.451,2.77556e-17,0,32768,32768
259.501,5.55112e-17,0,32768,32768
259.551,5.55112e-17,0,32768,32768
259.601,5.55112e-17,0,32768,32768
259.65,2.77556e-17,0,32768,32768
259.7,0,0,32768,32768
259.75,-5.55112e-17,0,32768,32768
259.801,-2.77556e-17,0,32768,32768
259.851,-2.77556e-17,0,32768,32768
259.901,-5.55112e-17,0,32768,32768
259.951,0,0,32768,32768
260,2.77556e-17,0,32768,32768
260.05,0,0,32768,32768
260.1,-2.77556e-17,0,32768,32768
260.151,-2.77556e-17,0,32768,32768
260.201,-2.77556e-17,0,32768,32768
260.251,-2.77556e-17,0,32768,32768
260.301,-2.77556e-17,0,32768,32768
260.351,-2.77556e-17,0,32768,32768
260.4,0,0,32768,32768
260.45,2.77556e-17,0,32768,32768
260.501,5.55112e-17,0,32768,32768
260.551,2.77556e-17,0,32768,32768
260.601,0,0,32768,32768
260.651,2.77556e-17,0,32768,32768
260.701,2.77556e-17,0,32768,32768
260.75,2.77556e-17,0,32768,32768
260.8,5.55112e-17,0,32768,32768
260.851,5.55112e-17,0,32768,32768
260.901,8.32667e-17,0,32768,32768
260.951,5.55112e-17,0,32768,32768
261.001,5.55112e-17,0,32768,32768
261.051,5.55112e-17,0,32768,32768
261.1,5.55112e-17,0,32768,32768
261.15,5.55112e-17,0,32768,32768
261.2,8.32667e-17,0,32768,32768
261.251,1.11022e-16,0,32768,32768
261.301,8.32667e-17,0,32768,32768
261.351,8.32667e-17,0,32768,32768
261.401,8.32667e-17,0,32768,32768
261.45,2.77556e-17,0,32768,32768
261.5,2.77556e-17,0,32768,32768
261.55,2.77556e-17,0,32768,32768
261.601,2.77556e-17,0,32768,32768
261.651,-2.77556e-17,0,32768,32768
261.701,-2.77556e-17,0,32768,32768
261.751,-2.77556e-17,0,32768,32768
261.801,0,0,32768,32768
261.85,5.55112e-17,0,32768,32768
261.9,5.55112e-17,0,32768,32768
261.951,5.55112e-17,0,32768,32768
262.001,2.77556e-17,0,32768,32768
262.051,0,0,32768,32768
262.101,0,0,32768,32768
262.151,-5.55112e-17,0,32768,32768
262.2,-2.77556e-17,0,32768,32768
262.25,-2.77556e-17,0,32768,32768
262.301,2.77556e-17,0,32768,32768
262.351,-2.77556e-17,0,32768,32768
262.401,-5.55112e-17,0,32768,32768
262.451,-5.55112e-17,0,32768,32768
262.501,-5.55112e-17,0,32768,32768
262.55,-8.32667e-17,0,32768,32768
262.6,-5.55112e-17,0,32768,32768
262.651,-2.77556e-17,0,32768,32768
262.701,-5.55112e-17,0,32768,32768
262.751,0,0,32768,32768
262.801,0,0,32768,32768
262.851,0,0,32768,32768
262.9,0,0,32768,32768
262.95,2.77556e-17,0,32768,32768
263,5.55112e-17,0,32768,32768
263.051,5.55112e-17,0,32768,32768
263.101,2.77556e-17,0,32768,32768
263.151,5.55112e-17,0,32768,32768
263.201,2.77556e-17,0,32768,32768
263.25,5.55112e-17,0,32768,32768
263.3,2.77556e-17,0,32768,32768
263.35,2.77556e-17,0,32768,32768
263.401,2.77556e-17,0,32768,32768
263.451,-2.77556e-17,0,32768,32768
263.501,-5.55112e-17,0,32768,32768
263.551,-2.77556e-17,0,32768,32768
263.601,-5.55112e-17,0,32768,32768
263.65,-5.55112e-17,0,32768,32768
263.7,-5.55112e-17,0,32768,32768
263.751,-5.55112e-17,0,32768,32768
263.801,-2.77556e-17,0,32768,32768
263.851,-5.55112e-17,0,32768,32768
263.901,-5.55112e-17,0,32768,32768
263.951,-5.55112e-17,0,32768,32768
264,-2.77556e-17,0,32768,32768
264.05,-5.55112e-17,0,32768,32768
264.101,-5.55112e-17,0,32768,32768
264.151,-2.77556e-17,0,32768,32768
264.201,-5.55112e-17,0,32768,32768
264.251,-8.32667e-17,0,32768,32768
264.301,-5.55112e-17,0,32768,32768
264.35,-5.55112e-17,0,32768,32768
264.4,-5.55112e-17,0,32768,32768
264.45,-2.77556e-17,0,32768,32768
264.501,-5.55112e-17,0,32768,32768
264.551,-5.55112e-17,0,32768,32768
264.601,2.77556e-17,0,32768,32768
264.651,2.77556e-17,0,32768,32768
264.7,2.77556e-17,0,32768,32768
264.75,5.55112e-17,0,32768,32768
264.8,2.77556e-17,0,32768,32768
264.851,0,0,32768,32768
264.901,2.77556e-17,0,32768,32768
264.951,2.77556e-17,0,32768,32768
265.001,5.55112e-17,0,32768,32768
265.051,1.11022e-16,0,32768,32768
265.1,1.66533e-16,0,32768,32768
265.15,1.94289e-16,0,32768,32768
265.201,1.66533e-16,0,32768,32768
265.251,1.94289e-16,0,32768,32768
265.301,1.66533e-16,0,32768,32768
265.351,1.38778e-16,0,32768,32768
265.401,1.11022e-16,0,32768,32768
265.45,1.11022e-16,0,32768,32768
265.5,1.11022e-16,0,32768,32768
265.551,8.32667e-17,0,32768,32768
265.601,8.32667e-17,0,32768,32768
265.651,8.32667e-17,0,32768,32768
265.701,8.32667e-17,0,32768,32768
265.751,8.32667e-17,0,32768,32768
265.8,8.32667e-17,0,32768,32768
265.85,5.55112e-17,0,32768,32768
265.9,2.77556e-17,0,32768,32768
265.951,2.77556e-17,0,32768,32768
266.001,2.77556e-17,0,32768,32768
266.051,5.55112e-17,0,32768,32768
266.101,0,0,32768,32768
266.15,2.77556e-17,0,32768,32768
266.2,5.55112e-17,0,32768,32768
266.25,5.55112e-17,0,32768,32768
266.301,5.55112e-17,0,32768,32768
266.351,8.32667e-17,0,32768,32768
266.401,5.55112e-17,0,32768,32768
266.451,5.55112e-17,0,32768,32768
266.501,5.55112e-17,0,32768,32768
266.55,5.55112e-17,0,32768,32768
266.6,2.77556e-17,0,32768,32768
266.651,8.32667e-17,0,32768,32768
266.701,8.32667e-17,0,32768,32768
266.751,8.32667e-17,0,32768,32768
266.801,1.38778e-16,0,32768,32768
266.851,1.38778e-16,0,32768,32768
266.9,1.38778e-16,0,32768,32768
266.95,1.66533e-16,0,32768,32768
267.001,1.66533e-16,0,32768,32768
267.051,1.38778e-16,0,32768,32768
267.101,8.32667e-17,0,32768,32768
267.151,8.32667e-17,0,32768,32768
267.201,1.11022e-16,0,32768,32768
267.25,8.32667e-17,0,32768,32768
267.3,5.55112e-17,0,32768,32768
267.351,8.32667e-17,0,32768,32768
267.401,1.11022e-16,0,32768,32768
267.451,8.32667e-17,0,32768,32768
267.501,8.32667e-17,0,32768,32768
267.551,2.77556e-17,0,32768,32768
267.6,5.55112e-17,0,32768,32768
267.65,5.55112e-17,0,32768,32768
267.7,5.55112e-17,0,32768,32768
267.751,2.77556e-17,0,32768,32768
267.801,5.55112e-17,0,32768,32768
267.851,1.11022e-16,0,32768,32768
267.901,1.11022e-16,0,32768,32768
267.95,1.11022e-16,0,32768,32768
268,1.11022e-16,0,32768,32768
268.05,8.32667e-17,0,32768,32768
268.1,8.32667e-17,0,33592,33592
268.151,8.32667e-17,0,34360,34360
268.201,8.32667e-17,0,35032,35032
268.25,8.32667e-17,0,35752,35752
268.3,8.32667e-17,0,36472,36472
268.351,1.11022e-16,0,37192,37192
268.4,1.11022e-16,0,37864,37864
268.45,1.11022e-16,0,38584,38584
268.5,5.55112e-17,0,39256,39256
268.551,8.32667e-17,0,39976,39976
268.6,8.32667e-17,0,40648,40648
268.65,8.32667e-17,0,41320,41320
268.701,8.32667e-17,0,42040,42040
268.75,8.32667e-17,0,42712,42712
268.8,8.32667e-17,0,43432,43432
268.85,8.32667e-17,0,44104,44104
268.901,8.32667e-17,0,44776,44776
268.95,8.32667e-17,0,45496,45496
269,1.11022e-16,0,46168,46168
269.051,8.32667e-17,0,46840,46840
269.101,8.32667e-17,0,47560,47560
269.15,8.32667e-17,0,48232,48232
269.2,8.32667e-17,0,48904,48904
269.251,8.32667e-17,0,49576,49576
269.3,8.32667e-17,0,50296,50296
269.35,8.32667e-17,0,50968,50968
269.4,8.32667e-17,0,51640,51640
269.451,6.66134e-16,0,52312,52312
269.5,4.52416e-15,0,52984,52984
269.55,1.40665e-13,0,53656,53656
269.601,1.89898e-12,0,54376,54376
269.65,8.84051e-12,0,55048,55048
269.7,-7.36522e-11,0,55720,55720
269.75,-5.12504e-10,0,56344,56344
269.801,-6.19629e-10,0,57016,57016
269.85,-3.12713e-10,0,57688,57688
269.9,1.05827e-10,0,58312,58312
269.95,4.10192e-10,0,58696,58696
270.001,4.29313e-10,0,59368,59368
270.05,1.55174e-10,0,60040,60040
270.1,-1.75544e-10,0,60712,60712
270.151,-2.70818e-10,0,61384,61384
270.2,-4.01682e-11,0,62056,62056
270.25,2.88561e-10,0,62680,62680
270.3,4.13941e-10,0,63352,63352
270.351,2.28994e-10,0,64024,64024
270.4,-6.23668e-11,0,64696,64696
270.45,-1.89684e-10,0,65368,65368
270.501,-5.08825e-11,0,65992,65992
270.551,1.94937e-10,0,66664,66664
270.6,3.32287e-10,0,67336,67336
270.65,2.70764e-10,0,67960,67960
270.701,9.4259e-11,0,68632,68632
270.75,-5.52617e-11,0,69256,69256
270.8,-9.55091e-11,0,69928,69928
270.85,-1.41125e-11,0,70552,70552
270.901,1.71372e-10,0,71176,71176
270.95,3.68861e-10,0,71800,71800
271,4.1496e-10,0,72472,72472
271.051,1.5635e-10,0,73096,73096
271.1,-2.94252e-10,0,73720,73720
271.15,-5.14164e-10,0,74344,74344
271.2,-8.68864e-11,0,74968,74968
271.251,8.31917e-10,0,75592,75592
271.3,1.3022e-09,0,76216,76216
271.35,4.43503e-10,0,76840,76840
271.401,-1.41933e-09,0,77464,77464
271.451,-2.34921e-09,0,78088,78088
271.5,-3.84692e-10,0,78664,78664
271.55,4.83286e-09,0,79288,79288
271.601,1.18366e-08,0,79912,79912
271.65,1.84448e-08,0,80488,80488
271.7,2.35605e-08,0,81112,81112
271.75,2.6894e-08,0,81688,81688
271.801,2.8584e-08,0,82312,82312
271.85,2.95642e-08,0,82888,82888
271.9,3.1753e-08,0,83512,83512
271.951,3.70845e-08,0,84088,84088
272,4.58151e-08,0,84664,84664
272.05,5.68771e-08,0,85288,85288
272.1,6.90622e-08,0,85864,85864
272.151,8.27302e-08,0,86440,86440
272.2,9.90932e-08,0,87016,87016
272.25,1.20165e-07,0,87592,87592
272.3,1.47225e-07,0,88168,88168
272.351,1.8149e-07,0,88744,88744
272.4,2.22131e-07,0,89320,89320
272.45,2.68113e-07,0,89896,89896
272.501,3.17142e-07,0,90472,90472
272.55,3.65052e-07,0,91000,91000
272.6,4.12729e-07,0,91576,91576
272.65,4.63099e-07,0,92152,92152
272.701,5.19689e-07,0,92728,92728
272.75,5.79589e-07,0,93256,93256
272.8,6.38668e-07,0,93832,93832
272.851,6.92473e-07,0,94360,94360
272.9,7.36305e-07,0,94936,94936
272.95,7.69745e-07,0,95464,95464
273,7.92392e-07,0,95992,95992
273.051,8.05767e-07,0,96568,96568
273.1,8.1244e-07,0,97096,97096
273.15,8.15494e-07,0,97624,97624
273.2,8.16197e-07,0,98200,98200
273.251,8.1438e-07,0,98728,98728
273.3,8.09577e-07,0,99256,99256
273.35,8.00902e-07,0,99784,99784
273.401,7.86929e-07,0,100360,100360
273.45,7.66887e-07,0,100888,100888
273.5,7.39692e-07,0,101416,101416
273.55,7.04664e-07,0,101944,101944
273.601,6.61056e-07,0,102472,102472
273.65,6.12095e-07,0,103000,103000
273.7,5.60687e-07,0,103576,103576
273.751,5.09493e-07,0,104104,104104
273.801,4.61901e-07,0,104632,104632
273.85,4.17859e-07,0,105160,105160
273.9,3.77624e-07,0,105688,105688
273.951,3.40427e-07,0,106216,106216
274,3.06637e-07,0,106744,106744
274.05,2.74959e-07,0,107272,107272
274.1,2.44798e-07,0,107800,107800
274.151,2.15302e-07,0,108328,108328
274.2,1.87353e-07,0,108856,108856
274.25,1.61929e-07,0,109384,109384
274.301,1.411e-07,0,109912,109912
274.35,1.26911e-07,0,110440,110440
274.4,1.1725e-07,0,110920,110920
274.45,1.0819e-07,0,111448,111448
274.501,9.64226e-08,0,111976,111976
274.55,8.26734e-08,0,112504,112504
274.6,6.9519e-08,0,113032,113032
274.651,5.92559e-08,0,113560,113560
274.701,5.26601e-08,0,114040,114040
274.75,4.87432e-08,0,114568,114568
274.8,4.63856e-08,0,115096,115096
274.851,4.41162e-08,0,115624,115624
274.9,4.04058e-08,0,116104,116104
274.95,3.43785e-08,0,116632,116632
275,2.72019e-08,0,117160,117160
275.051,2.11721e-08,0,117640,117640
275.1,1.82346e-08,0,118168,118168
275.15,1.79823e-08,0,118696,118696
275.201,1.89073e-08,0,119176,119176
275.25,1.96512e-08,0,119704,119704
275.3,1.98972e-08,0,120184,120184
275.35,1.99091e-08,0,120712,120712
275.401,1.99534e-08,0,121240,121240
275.45,2.00834e-08,0,121720,121720
275.5,2.02309e-08,0,122248,122248
275.55,2.03435e-08,0,122728,122728
275.601,2.03391e-08,0,123256,123256
275.65,1.96158e-08,0,123736,123736
275.7,1.91171e-08,0,124216,124216
275.751,1.91105e-08,0,124696,124696
275.8,1.91424e-08,0,125176,125176
275.85,1.91747e-08,0,125608,125608
275.9,1.92071e-08,0,126040,126040
275.951,1.92401e-08,0,126520,126520
276,1.92728e-08,0,126952,126952
276.05,1.93055e-08,0,127336,127336
276.101,1.93388e-08,0,127768,127768
276.151,1.93717e-08,0,128152,128152
276.2,1.94047e-08,0,128584,128584
276.25,1.94378e-08,0,128968,128968
276.301,1.94714e-08,0,129352,129352
276.35,1.95047e-08,0,129688,129688
276.4,1.95382e-08,0,130072,130072
276.45,1.95718e-08,0,130408,130408
276.501,1.96061e-08,0,130840,130840
276.55,1.96398e-08,0,131072,131072
276.6,1.96734e-08,0,130864,130864
276.651,1.97076e-08,0,130704,130704
276.7,1.97414e-08,0,131072,131072
276.75,1.97753e-08,0,131072,131072
276.8,1.98094e-08,0,131072,131072
276.851,1.98441e-08,0,131072,131072
276.9,1.98784e-08,0,131072,131072
276.95,1.99126e-08,0,131072,131072
277.001,1.99474e-08,0,131072,131072
277.051,1.99819e-08,0,131072,131072
277.1,2.00166e-08,0,131072,131072
277.15,2.00514e-08,0,131072,131072
277.201,2.00869e-08,0,130992,130992
277.25,2.01218e-08,0,131072,131072
277.3,2.01568e-08,0,131040,131040
277.35,2.0192e-08,0,131072,131072
277.401,2.02279e-08,0,131072,131072
277.45,2.02634e-08,0,131072,131072
277.5,2.0299e-08,0,131072,131072
277.551,2.03352e-08,0,131072,131072
277.6,2.0371e-08,0,131072,131072
277.65,2.04068e-08,0,131072,131072
277.7,2.04428e-08,0,131072,131072
277.751,2.04795e-08,0,131072,131072
277.8,2.0516e-08,0,131072,131072
277.85,2.05525e-08,0,131072,131072
277.9,2.05889e-08,0,131072,131072
277.951,2.06258e-08,0,131072,131072
278,2.06624e-08,0,131072,131072
278.05,2.06995e-08,0,131072,131072
278.101,2.07375e-08,0,131072,131072
278.15,2.07746e-08,0,131072,131072
278.2,2.08101e-08,0,131072,131072
278.25,2.08427e-08,0,131072,131072
278.301,2.08723e-08,0,131072,131072
278.35,2.0898e-08,0,131072,131072
278.4,2.0921e-08,0,131072,131072
278.451,2.09422e-08,0,131072,131072
278.5,2.09616e-08,0,131072,131072
278.55,2.09795e-08,0,131072,131072
278.6,2.09949e-08,0,131072,131072
278.651,2.10065e-08,0,131072,131072
278.7,2.10125e-08,0,131072,131072
278.75,2.10116e-08,0,131072,131072
278.8,2.10024e-08,0,131072,131072
278.851,2.09831e-08,0,131072,131072
278.9,2.0952e-08,0,131072,131072
278.95,2.09058e-08,0,131072,131072
279.001,2.08397e-08,0,131072,131072
279.05,2.07518e-08,0,131072,131072
279.1,2.06376e-08,0,131072,131072
279.15,2.04946e-08,0,131072,131072
279.201,2.03184e-08,0,131072,131072
279.25,2.0113e-08,0,131072,131072
279.3,1.98751e-08,0,131072,131072
279.351,1.95986e-08,0,131072,131072
279.401,1.92898e-08,0,131072,131072
279.45,1.89442e-08,0,131072,131072
279.5,1.85631e-08,0,131072,131072
279.551,1.81436e-08,0,131072,131072
279.6,1.77031e-08,0,131072,131072
279.65,1.72419e-08,0,131072,131072
279.7,1.67658e-08,0,131072,131072
279.751,1.62727e-08,0,131072,131072
279.8,1.5781e-08,0,131072,131072
279.85,1.52862e-08,0,131072,131072
279.901,1.47832e-08,0,131072,131072
279.95,1.42886e-08,0,131072,131072
280,1.37973e-08,0,131072,131072
280.05,1.33121e-08,0,131072,131072
280.101,1.28296e-08,0,131072,131072
280.15,1.23678e-08,0,131072,131072
280.2,1.19242e-08,0,131072,131072
280.251,1.14973e-08,0,131072,131072
280.301,1.11035e-08,0,131072,131072
280.35,1.07394e-08,0,131072,131072
280.4,1.04063e-08,0,131072,131072
280.451,1.00997e-08,0,131072,131072
280.5,9.82703e-09,0,131072,131072
280.55,9.58174e-09,0,131072,131072
280.6,9.3617e-09,0,131072,131072
280.651,9.1622e-09,0,131072,131072
280.7,8.98733e-09,0,131072,131072
280.75,8.83273e-09,0,131072,131072
280.801,8.69547e-09,0,131072,131072
280.85,8.57851e-09,0,131072,131072
280.9,8.47831e-09,0,131072,131072
280.95,8.39281e-09,0,131072,131072
281.001,8.31835e-09,0,131072,131072
281.05,8.25445e-09,0,131072,131072
281.1,8.19822e-09,0,131072,131072
281.15,8.14916e-09,0,131072,131072
281.201,8.10703e-09,0,131072,131072
281.25,8.07323e-09,0,131072,131072
281.3,8.04654e-09,0,131072,131072
281.351,8.02537e-09,0,131072,131072
281.4,8.00876e-09,0,131072,131072
281.45,7.99503e-09,0,131072,131072
281.5,7.9835e-09,0,131072,131072
281.551,7.97402e-09,0,131072,131072
281.6,7.96733e-09,0,131072,131072
281.65,7.96378e-09,0,131072,131072
281.701,7.96349e-09,0,131072,131072
281.751,7.96603e-09,0,131072,131072
281.8,7.97054e-09,0,131072,131072
281.85,7.97616e-09,0,131072,131072
281.901,7.98232e-09,0,131072,131072
281.95,7.9884e-09,0,131072,131072
282,7.99425e-09,0,131072,131072
282.05,7.99981e-09,0,131072,131072
282.101,8.00529e-09,0,131072,131072
282.15,8.01071e-09,0,131072,131072
282.2,8.01631e-09,0,131072,131072
282.251,8.02217e-09,0,131072,131072
282.3,8.02806e-09,0,131072,131072
282.35,8.03402e-09,0,131072,131072
282.4,8.04006e-09,0,131072,131072
282.451,8.04632e-09,0,131072,131072
282.5,8.05268e-09,0,131072,131072
282.55,8.0592e-09,0,131072,131072
282.601,8.06584e-09,0,131072,131072
282.651,8.07228e-09,0,131072,131072
282.7,8.07856e-09,0,131072,131072
282.75,8.08479e-09,0,131072,131072
282.801,8.09121e-09,0,131072,131072
282.85,8.09774e-09,0,131072,131072
282.9,8.10442e-09,0,131072,131072
282.95,8.11108e-09,0,131072,131072
283.001,8.11761e-09,0,131072,131072
283.05,8.12384e-09,0,131072,131072
283.1,8.13012e-09,0,131072,131072
283.151,8.13688e-09,0,131072,131072
283.2,8.14391e-09,0,131072,131072
283.25,8.15086e-09,0,131072,131072
283.3,8.15731e-09,0,131072,131072
283.351,8.16395e-09,0,131072,131072
283.4,8.17302e-09,0,131072,131072
283.45,8.18811e-09,0,131072,131072
283.5,8.21154e-09,0,131072,131072
283.551,8.24225e-09,0,131072,131072
283.6,8.2749e-09,0,131072,131072
283.65,8.30957e-09,0,131072,131072
283.701,8.35967e-09,0,131072,131072
283.75,8.44983e-09,0,131072,131072
283.8,8.60567e-09,0,131072,131072
283.85,8.83209e-09,0,131072,131072
283.901,9.1108e-09,0,131072,131072
283.95,9.39815e-09,0,131072,131072
284,9.67763e-09,0,131072,131072
284.051,9.96663e-09,0,131072,131072
284.101,1.02988e-08,0,131072,131072
284.15,1.07238e-08,0,131072,131072
284.2,1.12681e-08,0,131072,131072
284.251,1.19453e-08,0,131072,131072
284.3,1.27322e-08,0,131072,131072
284.35,1.36497e-08,0,131072,131072
284.4,1.473e-08,0,131072,131072
284.451,1.60319e-08,0,131072,131072
284.5,1.75417e-08,0,131072,131072
284.55,1.92779e-08,0,131072,131072
284.601,2.12601e-08,0,131072,131072
284.65,2.34256e-08,0,131072,131072
284.7,2.58105e-08,0,131072,131072
284.75,2.8431e-08,0,131072,131072
284.801,3.13369e-08,0,131072,131072
284.85,3.44254e-08,0,131072,131072
284.9,3.76916e-08,0,131072,131072
284.951,4.11293e-08,0,131072,131072
285.001,4.45946e-08,0,131072,131072
285.05,4.81258e-08,0,131072,131072
285.1,5.17388e-08,0,131072,131072
285.151,5.54982e-08,0,131072,131072
285.2,5.92612e-08,0,131072,131072
285.25,6.30132e-08,0,131072,131072
285.3,6.67239e-08,0,131072,131072
285.351,7.05567e-08,0,131072,131072
285.4,7.46849e-08,0,131072,131072
285.45,7.95244e-08,0,131072,131072
285.501,8.54167e-08,0,131072,131072
285.55,9.21509e-08,0,131072,131072
285.6,9.9445e-08,0,131072,131072
285.65,1.06763e-07,0,131072,131072
285.701,1.13727e-07,0,131072,131072
285.75,1.19942e-07,0,131072,131072
285.8,1.25699e-07,0,131072,131072
285.85,1.3151e-07,0,131072,131072
285.901,1.38133e-07,0,131072,131072
285.95,1.45976e-07,0,131072,131072
286,1.55528e-07,0,131072,131072
286.051,1.67213e-07,0,131072,131072
286.1,1.80926e-07,0,131072,131072
286.15,1.97203e-07,0,131072,131072
286.2,2.16616e-07,0,131072,131072
286.251,2.40187e-07,0,131072,131072
286.3,2.67734e-07,0,131072,131072
286.35,2.99693e-07,0,131072,131072
286.401,3.36266e-07,0,131072,131072
286.451,3.75647e-07,0,131072,131072
286.5,4.17479e-07,0,131072,131072
286.55,4.61072e-07,0,131072,131072
286.601,5.06674e-07,0,131072,131072
286.65,5.52616e-07,0,131072,131072
286.7,5.98887e-07,0,131072,131072
286.75,6.44205e-07,0,131072,131072
286.801,6.87276e-07,0,131072,131072
286.85,7.24691e-07,0,131072,131072
286.9,7.55247e-07,0,131072,131072
286.951,7.78081e-07,0,131072,131072
287,7.92312e-07,0,131072,131072
287.05,7.98934e-07,0,131072,131072
287.1,7.99057e-07,0,131072,131072
287.151,7.93777e-07,0,131072,131072
287.2,7.84212e-07,0,131072,131072
287.25,7.70812e-07,0,131072,131072
287.301,7.53303e-07,0,131072,131072
287.351,7.3182e-07,0,131072,131072
287.4,7.05581e-07,0,131072,131072
287.45,6.74056e-07,0,131072,131072
287.501,6.36388e-07,0,131072,131072
287.55,5.93867e-07,0,131072,131072
287.6,5.46779e-07,0,131072,131072
287.65,4.96478e-07,0,131072,131072
287.701,4.43915e-07,0,131072,131072
287.75,3.924e-07,0,131072,131072
287.8,3.42672e-07,0,131072,131072
287.851,2.95099e-07,0,131072,131072
287.9,2.51583e-07,0,131072,131072
287.95,2.11494e-07,0,131072,131072
288,1.74636e-07,0,131072,131072
288.051,1.40239e-07,0,131072,131072
288.1,1.09088e-07,0,131072,131072
288.15,8.06719e-08,0,131072,131072
288.201,5.48831e-08,0,131072,131072
288.251,3.2817e-08,0,131072,131072
288.3,1.42672e-08,0,131072,131072
288.35,-9.62101e-10,0,131072,131072
288.401,-1.3657e-08,0,131072,131072
288.45,-2.42742e-08,0,131072,131072
288.5,-3.36605e-08,0,131072,131072
288.55,-4.20316e-08,0,131072,131072
288.601,-4.92829e-08,0,131072,131072
288.65,-5.48409e-08,0,131072,131072
288.7,-5.86202e-08,0,131072,131072
288.751,-6.07846e-08,0,131072,131072
288.8,-6.17379e-08,0,131072,131072
288.85,-6.21032e-08,0,131072,131072
288.9,-6.23228e-08,0,131072,131072
288.951,-6.25188e-08,0,131072,131072
289,-6.24646e-08,0,131072,131072
289.05,-6.17734e-08,0,131072,131072
289.1,-6.01295e-08,0,131072,131072
289.151,-5.74202e-08,0,131072,131072
289.2,-5.39238e-08,0,131072,131072
289.25,-4.99461e-08,0,131072,131072
289.301,-4.57505e-08,0,131072,131072
289.35,-4.16804e-08,0,131072,131072
289.4,-3.77864e-08,0,131072,131072
289.45,-3.41186e-08,0,131072,131072
289.501,-3.0661e-08,0,131072,131072
289.55,-2.75436e-08,0,131072,131072
289.6,-2.47294e-08,0,131072,131072
289.651,-2.21715e-08,0,131072,131072
289.7,-1.9909e-08,0,131072,131072
289.75,-1.78658e-08,0,131072,131072
289.8,-1.60203e-08,0,131072,131072
289.851,-1.43462e-08,0,131072,131072
289.9,-1.28962e-08,0,131072,131072
289.95,-1.16461e-08,0,131072,131072
290,-1.05907e-08,0,131072,131072
290.051,-9.70744e-09,0,131072,131072
290.1,-9.00793e-09,0,131072,131072
290.15,-8.46258e-09,0,131072,131072
290.201,-8.05011e-09,0,131072,131072
290.25,-7.76539e-09,0,131072,131072
290.3,-7.58423e-09,0,131072,131072
290.35,-7.48962e-09,0,131072,131072
290.401,-7.46594e-09,0,131072,131072
290.45,-7.50041e-09,0,131072,131072
290.5,-7.58205e-09,0,131072,131072
290.551,-7.70565e-09,0,131072,131072
290.601,-7.86209e-09,0,131072,131072
290.65,-8.04767e-09,0,131072,131072
290.7,-8.25634e-09,0,131072,131072
290.751,-8.48428e-09,0,131072,131072
290.8,-8.71708e-09,0,131072,131072
290.85,-8.95083e-09,0,131072,131072
290.9,-9.18014e-09,0,131072,131072
290.951,-9.40503e-09,0,131072,131072
291,-9.61768e-09,0,131072,131072
291.05,-9.82108e-09,0,131072,131072
291.101,-1.00175e-08,0,131072,131072
291.15,-1.02001e-08,0,131072,131072
291.2,-1.03697e-08,0,131072,131072
291.25,-1.05241e-08,0,131072,131072
291.301,-1.06632e-08,0,131072,131072
291.35,-1.07818e-08,0,131072,131072
291.4,-1.08815e-08,0,131072,131072
291.451,-1.09637e-08,0,131072,131072
291.501,-1.10268e-08,0,131072,131072
291.55,-1.10739e-08,0,131072,131072
291.6,-1.11073e-08,0,131072,131072
291.651,-1.113e-08,0,131072,131072
291.7,-1.11435e-08,0,131072,131072
291.75,-1.11495e-08,0,131072,131072
291.8,-1.11488e-08,0,131072,131072
291.851,-1.11415e-08,0,131072,131072
291.9,-1.11286e-08,0,131072,131072
291.95,-1.11115e-08,0,131072,131072
292.001,-1.10917e-08,0,131072,131072
292.05,-1.10717e-08,0,131072,131072
292.1,-1.10527e-08,0,131072,131072
292.15,-1.10355e-08,0,131072,131072
292.201,-1.10203e-08,0,131072,131072
292.25,-1.10075e-08,0,131072,131072
292.3,-1.0997e-08,0,131072,131072
292.35,-1.09895e-08,0,131072,131072
292.401,-1.09858e-08,0,131072,131072
292.45,-1.09871e-08,0,131072,131072
292.5,-1.0994e-08,0,131072,131072
292.551,-1.1007e-08,0,131072,131072
292.6,-1.10257e-08,0,131072,131072
292.65,-1.10502e-08,0,131072,131072
292.7,-1.10804e-08,0,131072,131072
292.751,-1.11169e-08,0,131072,131072
292.8,-1.11591e-08,0,131072,131072
292.85,-1.12077e-08,0,131072,131072
292.901,-1.12637e-08,0,131072,131072
292.951,-1.13255e-08,0,131072,131072
293,-1.13938e-08,0,131072,131072
293.05,-1.14684e-08,0,131072,131072
293.101,-1.15503e-08,0,131072,131072
293.15,-1.16367e-08,0,131072,131072
293.2,-1.17288e-08,0,131072,131072
293.25,-1.18268e-08,0,131072,131072
293.301,-1.19326e-08,0,131072,131072
293.35,-1.2044e-08,0,131072,131072
293.4,-1.21634e-08,0,131072,131072
293.451,-1.22939e-08,0,131072,131072
293.5,-1.24332e-08,0,131072,131072
293.55,-1.25847e-08,0,131072,131072
293.6,-1.27505e-08,0,131072,131072
293.651,-1.29354e-08,0,131072,131072
293.7,-1.3136e-08,0,131072,131072
293.75,-1.3357e-08,0,131072,131072
293.801,-1.36038e-08,0,131072,131072
293.851,-1.38703e-08,0,131072,131072
293.9,-1.4161e-08,0,131072,131072
293.95,-1.44761e-08,0,131072,131072
294.001,-1.48208e-08,0,131072,131072
294.05,-1.51846e-08,0,131072,131072
294.1,-1.55708e-08,0,131072,131072
294.15,-1.59773e-08,0,131072,131072
294.201,-1.64072e-08,0,131072,131072
294.25,-1.6844e-08,0,131072,131072
294.3,-1.72891e-08,0,131072,131072
294.351,-1.77445e-08,0,131072,131072
294.4,-1.81921e-08,0,131072,131072
294.45,-1.86343e-08,0,131072,131072
294.5,-1.90676e-08,0,131072,131072
294.551,-1.94948e-08,0,131072,131072
294.6,-1.99007e-08,0,131072,131072
294.65,-2.0289e-08,0,131072,131072
294.7,-2.06573e-08,0,131072,131072
294.751,-2.10076e-08,0,131072,131072
294.8,-2.13271e-08,0,131072,131072
294.85,-2.16183e-08,0,131072,131072
294.901,-2.18821e-08,0,131072,131072
294.95,-2.21089e-08,0,131072,131072
295,-2.23014e-08,0,131072,131072
295.05,-2.24589e-08,0,131072,131072
295.101,-2.25836e-08,0,131072,131072
295.15,-2.26729e-08,0,131072,131072
295.2,-2.27308e-08,0,131072,131072
295.251,-2.27597e-08,0,131072,131072
295.301,-2.27612e-08,0,131072,131072
295.35,-2.27385e-08,0,131072,131072
295.4,-2.26939e-08,0,131072,131072
295.451,-2.26286e-08,0,131072,131072
295.5,-2.25469e-08,0,131072,131072
295.55,-2.24502e-08,0,131072,131072
295.6,-2.23408e-08,0,131072,131072
295.651,-2.22191e-08,0,131072,131072
295.7,-2.20908e-08,0,131072,131072
295.75,-2.19561e-08,0,131072,131072
295.801,-2.18145e-08,0,131072,131072
295.85,-2.16713e-08,0,131072,131072
295.9,-2.15257e-08,0,131072,131072
295.95,-2.13788e-08,0,131072,131072
296.001,-2.12293e-08,0,131072,131072
296.05,-2.10826e-08,0,131072,131072
296.1,-2.09376e-08,0,131072,131072
296.151,-2.07928e-08,0,131072,131072
296.201,-2.06531e-08,0,131072,131072
296.25,-2.05167e-08,0,131072,131072
296.3,-2.03838e-08,0,131072,131072
296.351,-2.02528e-08,0,131072,131072
296.4,-2.01279e-08,0,131072,131072
296.45,-2.00074e-08,0,131072,131072
296.5,-1.98917e-08,0,131072,131072
296.551,-1.97795e-08,0,131072,131072
296.6,-1.96742e-08,0,131072,131072
296.65,-1.95742e-08,0,131072,131072
296.701,-1.9478e-08,0,131072,131072
296.75,-1.93882e-08,0,131072,131072
296.8,-1.9303e-08,0,131072,131072
296.85,-1.92222e-08,0,131072,131072
296.901,-1.91441e-08,0,131072,131072
296.95,-1.90708e-08,0,131072,131072
297,-1.90006e-08,0,131072,131072
297.05,-1.89331e-08,0,131072,131072
297.101,-1.88672e-08,0,131072,131072
297.15,-1.88043e-08,0,131072,131072
297.2,-1.87432e-08,0,131072,131072
297.251,-1.86826e-08,0,131072,131072
297.3,-1.86241e-08,0,131072,131072
297.35,-1.85665e-08,0,131072,131072
297.4,-1.85094e-08,0,131072,131072
297.451,-1.84519e-08,0,131072,131072
297.5,-1.83954e-08,0,131072,131072
297.55,-1.83389e-08,0,131072,131072
297.601,-1.82812e-08,0,131072,131072
297.651,-1.8224e-08,0,131072,131072
297.7,-1.81663e-08,0,131072,131072
297.75,-1.8108e-08,0,131072,131072
297.801,-1.8048e-08,0,131072,131072
297.85,-1.79879e-08,0,131072,131072
297.9,-1.7927e-08,0,131072,131072
297.95,-1.78649e-08,0,131072,131072
298.001,-1.78008e-08,0,131072,131072
298.05,-1.77364e-08,0,131072,131072
298.1,-1.76708e-08,0,131072,131072
298.151,-1.76027e-08,0,131072,131072
298.2,-1.75341e-08,0,131072,131072
298.25,-1.74638e-08,0,131072,131072
298.3,-1.73917e-08,0,131072,131072
298.351,-1.73166e-08,0,131072,131072
298.4,-1.72403e-08,0,131072,131072
298.45,-1.71615e-08,0,131072,131072
298.501,-1.70789e-08,0,131072,131072
298.551,-1.69945e-08,0,131072,131072
298.6,-1.69069e-08,0,131072,131072
298.65,-1.68158e-08,0,131072,131072
298.701,-1.67196e-08,0,131072,131072
298.75,-1.66208e-08,0,131072,131072
298.8,-1.65177e-08,0,131072,131072
298.85,-1.64102e-08,0,131072,131072
298.901,-1.62963e-08,0,131072,131072
298.95,-1.61793e-08,0,131072,131072
299,-1.60575e-08,0,131072,131072
299.051,-1.59288e-08,0,131072,131072
299.1,-1.57969e-08,0,131072,131072
299.15,-1.56601e-08,0,131072,131072
299.2,-1.55182e-08,0,131072,131072
299.251,-1.53693e-08,0,131072,131072
299.3,-1.52174e-08,0,131072,131072
299.35,-1.50606e-08,0,131072,131072
299.4,-1.48985e-08,0,131072,131072
299.451,-1.47286e-08,0,131072,131072
299.5,-1.45555e-08,0,131072,131072
299.55,-1.43765e-08,0,131072,131072
299.601,-1.41887e-08,0,131072,131072
299.65,-1.39977e-08,0,131072,131072
299.7,-1.38008e-08,0,131072,131072
299.75,-1.35984e-08,0,131072,131072
299.801,-1.33874e-08,0,131072,131072
299.85,-1.31742e-08,0,131072,131072
299.9,-1.29554e-08,0,131072,131072
299.951,-1.27272e-08,0,131072,131072
300,-1.24953e-08,0,131072,131072
300.05,-1.22555e-08,0,131072,131072
300.1,-1.20061e-08,0,131072,131072
300.151,-1.17417e-08,0,131072,131072
300.2,-1.14677e-08,0,131072,131072
300.25,-1.11783e-08,0,131072,131072
300.3,-1.08709e-08,0,131072,131072
300.351,-1.05382e-08,0,131072,131072
300.4,-1.01873e-08,0,131072,131072
300.45,-9.81145e-09,0,131072,131072
300.501,-9.4029e-09,0,131072,131072
300.55,-8.9722e-09,0,131072,131072
300.6,-8.51291e-09,0,131072,131072
300.65,-8.02491e-09,0,131072,131072
300.701,-7.50096e-09,0,131072,131072
300.75,-6.95767e-09,0,131072,131072
300.8,-6.39003e-09,0,131072,131072
300.851,-5.79264e-09,0,131072,131072
300.901,-5.18716e-09,0,131072,131072
300.95,-4.57011e-09,0,131072,131072
301,-3.94688e-09,0,131072,131072
301.051,-3.31368e-09,0,131072,131072
301.1,-2.69404e-09,0,131072,131072
301.15,-2.08336e-09,0,131072,131072
301.2,-1.48571e-09,0,131072,131072
301.251,-8.96311e-10,0,131072,131072
301.3,-3.35599e-10,0,131072,131072
301.35,2.01891e-10,0,131072,131072
301.401,7.20248e-10,0,131072,131072
301.45,1.20116e-09,0,131072,131072
301.5,1.64914e-09,0,131072,131072
301.55,2.06123e-09,0,131072,131072
301.601,2.4401e-09,0,131072,131072
301.65,2.77297e-09,0,131072,131072
301.7,3.06469e-09,0,131072,131072
301.751,3.31869e-09,0,131072,131072
301.801,3.52859e-09,0,131072,131072
301.85,3.70013e-09,0,131072,131072
301.9,3.83563e-09,0,131072,131072
301.951,3.93902e-09,0,131072,131072
302,4.01015e-09,0,131072,131072
302.05,4.0536e-09,0,131072,131072
302.1,4.07214e-09,0,131072,131072
302.151,4.06832e-09,0,131072,131072
302.2,4.04502e-09,0,131072,131072
302.25,4.00507e-09,0,131072,131072
302.301,3.95026e-09,0,131072,131072
302.35,3.88474e-09,0,131072,131072
302.4,3.81012e-09,0,131072,131072
302.45,3.72845e-09,0,131072,131072
302.501,3.64018e-09,0,131072,131072
302.55,3.54945e-09,0,131072,131072
302.6,3.45643e-09,0,131072,131072
302.65,3.36244e-09,0,131072,131072
302.701,3.26724e-09,0,131072,131072
302.75,3.17455e-09,0,131072,131072
302.8,3.08373e-09,0,131072,131072
302.851,2.99404e-09,0,131072,131072
302.9,2.90857e-09,0,131072,131072
302.95,2.82651e-09,0,131072,131072
303,2.74847e-09,0,131072,131072
303.051,2.67414e-09,0,131072,131072
303.1,2.60643e-09,0,131072,131072
303.15,2.54487e-09,0,131072,131072
303.201,2.48921e-09,0,131072,131072
303.251,2.44131e-09,0,131072,131072
303.3,2.40039e-09,0,131072,131072
303.35,2.3664e-09,0,131072,131072
303.401,2.33876e-09,0,131072,131072
303.45,2.31794e-09,0,131072,131072
303.5,2.30296e-09,0,131072,131072
303.55,2.2931e-09,0,131072,131072
303.601,2.28745e-09,0,131072,131072
303.65,2.28522e-09,0,131072,131072
303.7,2.2854e-09,0,131072,131072
303.751,2.28728e-09,0,131072,131072
303.8,2.29015e-09,0,131072,131072
303.85,2.29345e-09,0,131072,131072
303.9,2.29654e-09,0,131072,131072
303.951,2.2987e-09,0,131072,131072
304,2.29913e-09,0,131072,131072
304.05,2.29727e-09,0,131072,131072
304.101,2.29277e-09,0,131072,131072
304.151,2.28596e-09,0,131072,131072
304.2,2.27743e-09,0,131072,131072
304.25,2.26807e-09,0,131072,131072
304.301,2.25869e-09,0,131072,131072
304.35,2.25026e-09,0,131072,131072
304.4,2.24298e-09,0,131072,131072
304.45,2.23676e-09,0,131072,131072
304.501,2.23112e-09,0,131072,131072
304.55,2.22566e-09,0,131072,131072
304.6,2.21981e-09,0,131072,131072
304.651,2.21316e-09,0,131072,131072
304.7,2.20594e-09,0,131072,131072
304.75,2.19844e-09,0,131072,131072
304.8,2.19128e-09,0,131072,131072
304.851,2.18514e-09,0,131072,131072
304.9,2.18094e-09,0,131072,131072
304.95,2.17907e-09,0,131072,131072
