250,0,0,8192,8192
250.003,0,0,8192,8192
250.053,0,0,8192,8192
250.103,0,0,8192,8192
250.152,0,0,8192,8192
250.202,0,0,8192,8192
250.252,0,0,8192,8192
250.302,0,0,8192,8192
250.352,0,0,8192,8192
250.401,0,0,8192,8192
250.451,0,0,8192,8192
250.501,0,0,8192,8192
250.551,0,0,8192,8192
250.6,0,0,8192,8192
250.65,0,0,8192,8192
250.7,0,0,8192,8192
250.753,0,0,8192,8192
250.803,0,0,8192,8192
250.852,0,0,8192,8192
250.902,0,0,8192,8192
250.952,0,0,8192,8192
251.002,0,0,8192,8192
251.052,0,0,8192,8192
251.101,0,0,8192,8192
251.151,0,0,8192,8192
251.201,0,0,8192,8192
251.251,0,0,8192,8192
251.301,0,0,8192,8192
251.35,0,0,8192,8192
251.4,0,0,8192,8192
251.453,0,0,8192,8192
251.503,0,0,8192,8192
251.553,0,0,8192,8192
251.602,0,0,8192,8192
251.652,0,0,8192,8192
251.702,0,0,8192,8192
251.752,0,0,8192,8192
251.801,0,0,8192,8192
251.851,0,0,8192,8192
251.901,0,0,8192,8192
251.951,0,0,8192,8192
252.001,0,0,8192,8192
252.05,0,0,8192,8192
252.1,0,0,8192,8192
252.15,0,0,8192,8192
252.203,0,0,8192,8192
252.253,0,0,8192,8192
252.302,0,0,8192,8192
252.352,0,0,8192,8192
252.402,0,0,8192,8192
252.452,0,0,8192,8192
252.502,0,0,8192,8192
252.551,0,0,8192,8192
252.601,0,0,8192,8192
252.651,0,0,8192,8192
252.701,0,0,8192,8192
252.751,0,0,8192,8192
252.8,0,0,8192,8192
252.85,0,0,8192,8192
252.903,0,0,8192,8192
252.953,0,0,8192,8192
253.002,0,0,8192,8192
253.052,0,0,8192,8192
253.102,0,0,8192,8192
253.152,0,0,8192,8192
253.202,0,0,8192,8192
253.251,0,0,8192,8192
253.301,0,0,8192,8192
253.351,0,0,8192,8192
253.401,0,0,8192,8192
253.451,0,0,8192,8192
253.5,0,0,8192,8192
253.55,0,0,8192,8192
253.6,0,0,8192,8192
253.653,0,0,8192,8192
253.703,0,0,8192,8192
253.752,0,0,8192,8192
253.802,0,0,8192,8192
253.852,0,0,8192,8192
253.902,0,0,8192,8192
253.952,0,0,8192,8192
254.001,0,0,8192,8192
254.051,0,0,8192,8192
254.101,0,0,8192,8192
254.151,0,0,8192,8192
254.201,0,0,8192,8192
254.25,0,0,8192,8192
254.3,0,0,8192,8192
254.353,0,0,8192,8192
254.403,0,0,8192,8192
254.452,0,0,8192,8192
254.502,0,0,8192,8192
254.552,0,0,8192,8192
254.602,0,0,8192,8192
254.652,0,0,8192,8192
254.701,0,0,8192,8192
254.751,0,0,8192,8192
254.801,0,0,8192,8192
254.851,0,0,8192,8192
254.901,0,0,8192,8192
254.95,0,0,8192,8192
255,0,0,8192,8192
255.05,0,0,8192,8192
255.103,0,0,8192,8192
255.153,0,0,8192,8192
255.202,0,0,8192,8192
255.252,0,0,8192,8192
255.302,0,0,8192,8192
255.352,0,0,8192,8192
255.402,1.38778e-17,0,8192,8192
255.451,1.38778e-17,0,8192,8192
255.501,1.38778e-17,0,8192,8192
255.551,1.38778e-17,0,8192,8192
255.601,1.38778e-17,0,8192,8192
255.651,1.38778e-17,0,8192,8192
255.7,1.38778e-17,0,8192,8192
255.75,1.38778e-17,0,8192,8192
255.803,1.38778e-17,0,8192,8192
255.853,1.38778e-17,0,8192,8192
255.902,1.38778e-17,0,8192,8192
255.952,1.38778e-17,0,8192,8192
256.002,1.38778e-17,0,8192,8192
256.052,1.38778e-17,0,8192,8192
256.102,1.38778e-17,0,8192,8192
256.151,0,0,8192,8192
256.201,0,0,8192,8192
256.251,0,0,8192,8192
256.301,0,0,8192,8192
256.351,0,0,8192,8192
256.4,0,0,8192,8192
256.45,0,0,8192,8192
256.5,0,0,8192,8192
256.553,1.38778e-17,0,8192,8192
256.603,1.38778e-17,0,8192,8192
256.652,1.38778e-17,0,8192,8192
256.702,1.38778e-17,0,8192,8192
256.752,1.38778e-17,0,8192,8192
256.802,1.38778e-17,0,8192,8192
256.852,1.38778e-17,0,8192,8192
256.901,1.38778e-17,0,8192,8192
256.951,1.38778e-17,0,8192,8192
257.001,1.38778e-17,0,8192,8192
257.051,1.38778e-17,0,8192,8192
257.101,1.38778e-17,0,8192,8192
257.15,1.38778e-17,0,8192,8192
257.2,1.38778e-17,0,8192,8192
257.253,1.38778e-17,0,8192,8192
257.303,1.38778e-17,0,8192,8192
257.352,1.38778e-17,0,8192,8192
257.402,1.38778e-17,0,8192,8192
257.452,0,0,8192,8192
257.502,0,0,8192,8192
257.552,0,0,8192,8192
257.601,0,0,8192,8192
257.651,0,0,8192,8192
257.701,0,0,8192,8192
257.751,0,0,8192,8192
257.801,0,0,8192,8192
257.85,0,0,8192,8192
257.9,0,0,8192,8192
257.95,0,0,8192,8192
258.003,0,0,8192,8192
258.053,0,0,8192,8192
258.102,0,0,8192,8192
258.152,0,0,8192,8192
258.202,0,0,8192,8192
258.252,0,0,8192,8192
258.302,0,0,8192,8192
258.351,0,0,8192,8192
258.401,0,0,8192,8192
258.451,0,0,8192,8192
258.501,0,0,8192,8192
258.551,0,0,8192,8192
258.6,0,0,8192,8192
258.65,0,0,8192,8192
258.703,0,0,8192,8192
258.753,0,0,8192,8192
258.802,0,0,8192,8192
258.852,1.38778e-17,0,8192,8192
258.902,2.77556e-17,0,8192,8192
258.952,2.77556e-17,0,8192,8192
259.002,2.77556e-17,0,8192,8192
259.051,2.77556e-17,0,8192,8192
259.101,2.77556e-17,0,8192,8192
259.151,2.77556e-17,0,8192,8192
259.201,2.77556e-17,0,8192,8192
259.251,2.77556e-17,0,8192,8192
259.3,2.77556e-17,0,8192,8192
259.35,2.77556e-17,0,8192,8192
259.403,2.77556e-17,0,8192,8192
259.453,2.77556e-17,0,8192,8192
259.503,2.77556e-17,0,8192,8192
259.552,2.77556e-17,0,8192,8192
259.602,2.77556e-17,0,8192,8192
259.652,2.77556e-17,0,8192,8192
259.702,2.77556e-17,0,8192,8192
259.751,2.77556e-17,0,8192,8192
259.801,2.77556e-17,0,8192,8192
259.851,2.77556e-17,0,8192,8192
259.901,2.77556e-17,0,8192,8192
259.951,2.77556e-17,0,8192,8192
260,2.77556e-17,0,8192,8192
260.05,2.77556e-17,0,8192,8192
260.1,2.77556e-17,0,8192,8192
260.153,2.77556e-17,0,8192,8192
260.203,2.77556e-17,0,8192,8192
260.252,2.77556e-17,0,8192,8192
260.302,2.77556e-17,0,8192,8192
260.352,2.77556e-17,0,8192,8192
260.402,2.77556e-17,0,8192,8192
260.452,2.77556e-17,0,8192,8192
260.501,2.77556e-17,0,8192,8192
260.551,2.77556e-17,0,8192,8192
260.601,2.77556e-17,0,8192,8192
260.651,2.77556e-17,0,8192,8192
260.701,2.77556e-17,0,8192,8192
260.75,2.77556e-17,0,8192,8192
260.8,1.38778e-17,0,8192,8192
260.853,1.38778e-17,0,8192,8192
260.903,1.38778e-17,0,8192,8192
260.952,1.38778e-17,0,8192,8192
261.002,1.38778e-17,0,8192,8192
261.052,1.38778e-17,0,8192,8192
261.102,1.38778e-17,0,8192,8192
261.152,1.38778e-17,0,8192,8192
261.201,1.38778e-17,0,8192,8192
261.251,2.77556e-17,0,8192,8192
261.301,2.77556e-17,0,8192,8192
261.351,2.77556e-17,0,8192,8192
261.401,2.77556e-17,0,8192,8192
261.45,2.77556e-17,0,8192,8192
261.5,2.77556e-17,0,8192,8192
261.55,2.77556e-17,0,8192,8192
261.603,2.77556e-17,0,8192,8192
261.653,2.77556e-17,0,8192,8192
261.702,2.77556e-17,0,8192,8192
261.752,2.77556e-17,0,8192,8192
261.802,2.77556e-17,0,8192,8192
261.852,2.77556e-17,0,8192,8192
261.902,2.77556e-17,0,8192,8192
261.951,2.77556e-17,0,8192,8192
262.001,2.77556e-17,0,8192,8192
262.051,2.77556e-17,0,8192,8192
262.101,2.77556e-17,0,8192,8192
262.151,2.77556e-17,0,8192,8192
262.2,2.77556e-17,0,8192,8192
262.25,2.77556e-17,0,8192,8192
262.303,2.77556e-17,0,8192,8192
262.353,2.77556e-17,0,8192,8192
262.402,2.77556e-17,0,8192,8192
262.452,2.77556e-17,0,8192,8192
262.502,2.77556e-17,0,8192,8192
262.552,2.77556e-17,0,8192,8192
262.602,2.77556e-17,0,8192,8192
262.651,2.77556e-17,0,8192,8192
262.701,2.77556e-17,0,8192,8192
262.751,2.77556e-17,0,8192,8192
262.801,2.77556e-17,0,8192,8192
262.851,2.77556e-17,0,8192,8192
262.9,1.38778e-17,0,8192,8192
262.95,1.38778e-17,0,8192,8192
263,1.38778e-17,0,8192,8192
263.053,1.38778e-17,0,8192,8192
263.103,1.38778e-17,0,8192,8192
263.152,1.38778e-17,0,8192,8192
263.202,1.38778e-17,0,8192,8192
263.252,1.38778e-17,0,8192,8192
263.302,1.38778e-17,0,8192,8192
263.352,1.38778e-17,0,8192,8192
263.401,1.38778e-17,0,8192,8192
263.451,0,0,8192,8192
263.501,0,0,8192,8192
263.551,0,0,8192,8192
263.601,0,0,8192,8192
263.65,0,0,8192,8192
263.7,0,0,8192,8192
263.753,0,0,8192,8192
263.803,0,0,8192,8192
263.852,0,0,8192,8192
263.902,0,0,8192,8192
263.952,0,0,8192,8192
264.002,0,0,8192,8192
264.052,0,0,8192,8192
264.101,-1.38778e-17,0,8192,8192
264.151,-1.38778e-17,0,8192,8192
264.201,-1.38778e-17,0,8192,8192
264.251,-1.38778e-17,0,8192,8192
264.301,-1.38778e-17,0,8192,8192
264.35,-1.38778e-17,0,8192,8192
264.4,-1.38778e-17,0,8192,8192
264.45,-1.38778e-17,0,8192,8192
264.503,-1.38778e-17,0,8192,8192
264.553,-1.38778e-17,0,8192,8192
264.602,-1.38778e-17,0,8192,8192
264.652,-1.38778e-17,0,8192,8192
264.702,-1.38778e-17,0,8192,8192
264.752,-1.38778e-17,0,8192,8192
264.802,-1.38778e-17,0,8192,8192
264.851,-1.38778e-17,0,8192,8192
264.901,-1.38778e-17,0,8192,8192
264.951,-1.38778e-17,0,8192,8192
265.001,-1.38778e-17,0,8192,8192
265.051,-1.38778e-17,0,8192,8192
265.1,-1.38778e-17,0,8192,8192
265.15,-1.38778e-17,0,8192,8192
265.203,-1.38778e-17,0,8192,8192
265.253,-1.38778e-17,0,8192,8192
265.302,-1.38778e-17,0,8192,8192
265.352,-1.38778e-17,0,8192,8192
265.402,-1.38778e-17,0,8192,8192
265.452,-1.38778e-17,0,8192,8192
265.502,-1.38778e-17,0,8192,8192
265.551,-1.38778e-17,0,8192,8192
265.601,-1.38778e-17,0,8192,8192
265.651,-1.38778e-17,0,8192,8192
265.701,-1.38778e-17,0,8192,8192
265.751,-1.38778e-17,0,8192,8192
265.8,-1.38778e-17,0,8192,8192
265.85,-1.38778e-17,0,8192,8192
265.9,-1.38778e-17,0,8192,8192
265.953,0,0,8192,8192
266.003,0,0,8192,8192
266.052,0,0,8192,8192
266.102,0,0,8192,8192
266.152,0,0,8192,8192
266.202,0,0,8192,8192
266.252,1.38778e-17,0,8192,8192
266.301,1.38778e-17,0,8192,8192
266.351,1.38778e-17,0,8192,8192
266.401,1.38778e-17,0,8192,8192
266.451,1.38778e-17,0,8192,8192
266.501,1.38778e-17,0,8192,8192
266.55,1.38778e-17,0,8192,8192
266.6,1.38778e-17,0,8192,8192
266.653,1.38778e-17,0,8192,8192
266.703,1.38778e-17,0,8192,8192
266.752,1.38778e-17,0,8192,8192
266.802,1.38778e-17,0,8192,8192
266.852,1.38778e-17,0,8192,8192
266.902,1.38778e-17,0,8192,8192
266.952,1.38778e-17,0,8192,8192
267.001,1.38778e-17,0,8192,8192
267.051,1.38778e-17,0,8192,8192
267.101,1.38778e-17,0,8192,8192
267.151,1.38778e-17,0,8192,8192
267.201,1.38778e-17,0,8192,8192
267.25,1.38778e-17,0,8192,8192
267.3,1.38778e-17,0,8192,8192
267.353,1.38778e-17,0,8192,8192
267.403,1.38778e-17,0,8192,8192
267.453,1.38778e-17,0,8192,8192
267.502,1.38778e-17,0,8192,8192
267.552,1.38778e-17,0,8192,8192
267.602,1.38778e-17,0,8192,8192
267.652,1.38778e-17,0,8192,8192
267.702,1.38778e-17,0,8192,8192
267.751,1.38778e-17,0,8192,8192
267.801,1.38778e-17,0,8192,8192
267.851,1.38778e-17,0,8192,8192
267.901,1.38778e-17,0,8192,8192
267.95,1.38778e-17,0,8192,8192
268,1.38778e-17,0,8192,8192
268.05,1.38778e-17,0,8192,8192
268.1,1.38778e-17,0,8388,8388
268.15,1.38778e-17,0,8556,8556
268.2,1.38778e-17,0,8676,8676
268.251,1.38778e-17,0,8796,8796
268.301,1.38778e-17,0,8964,8964
268.351,1.38778e-17,0,9132,9132
268.401,1.38778e-17,0,9300,9300
268.451,1.38778e-17,0,9468,9468
268.5,1.38778e-17,0,9660,9660
268.55,1.38778e-17,0,9828,9828
268.601,1.38778e-17,0,9996,9996
268.651,1.38778e-17,0,10164,10164
268.701,1.38778e-17,0,10332,10332
268.751,1.38778e-17,0,10524,10524
268.801,1.38778e-17,0,10692,10692
268.85,1.38778e-17,0,10860,10860
268.9,1.38778e-17,0,11028,11028
268.951,1.38778e-17,0,11196,11196
269.001,1.38778e-17,0,11364,11364
269.051,1.38778e-17,0,11556,11556
269.101,1.38778e-17,0,11692,11692
269.151,1.38778e-17,0,11796,11796
269.2,1.38778e-17,0,11964,11964
269.25,1.38778e-17,0,12148,12148
269.3,1.38778e-17,0,12332,12332
269.351,1.38778e-17,0,12492,12492
269.401,1.38778e-17,0,12628,12628
269.451,1.38778e-17,0,12780,12780
269.501,1.38778e-17,0,12964,12964
269.55,1.38778e-17,0,13060,13060
269.6,1.38778e-17,0,13244,13244
269.65,1.38778e-17,0,13404,13404
269.701,1.38778e-17,0,13532,13532
269.751,1.38778e-17,0,13644,13644
269.801,1.38778e-17,0,13716,13716
269.851,1.38778e-17,0,13860,13860
269.901,1.38778e-17,0,14028,14028
269.95,1.38778e-17,0,14196,14196
270,1.38778e-17,0,14364,14364
270.051,1.38778e-17,0,14524,14524
270.101,1.38778e-17,0,14692,14692
270.151,1.38778e-17,0,14860,14860
270.201,1.38778e-17,0,15028,15028
270.251,1.38778e-17,0,15196,15196
270.3,1.38778e-17,0,15364,15364
270.35,1.38778e-17,0,15500,15500
270.401,1.38778e-17,0,15676,15676
270.451,1.38778e-17,0,15844,15844
270.501,1.38778e-17,0,16012,16012
270.551,1.38778e-17,0,16172,16172
270.601,1.38778e-17,0,16316,16316
270.65,1.38778e-17,0,16476,16476
270.7,1.38778e-17,0,16628,16628
270.75,1.38778e-17,0,16788,16788
270.801,1.38778e-17,0,16924,16924
270.851,1.38778e-17,0,17076,17076
270.901,1.38778e-17,0,17252,17252
270.951,1.38778e-17,0,17372,17372
271,1.38778e-17,0,17532,17532
271.05,1.38778e-17,0,17676,17676
271.1,1.38778e-17,0,17820,17820
271.151,1.38778e-17,0,17964,17964
271.201,1.38778e-17,0,18124,18124
271.251,1.38778e-17,0,18268,18268
271.301,1.38778e-17,0,18444,18444
271.35,1.38778e-17,0,18572,18572
271.4,1.38778e-17,0,18620,18620
271.45,1.38778e-17,0,18732,18732
271.501,1.38778e-17,0,18860,18860
271.551,1.38778e-17,0,19004,19004
271.601,1.38778e-17,0,19132,19132
271.651,1.38778e-17,0,19284,19284
271.701,1.38778e-17,0,19380,19380
271.75,1.38778e-17,0,19540,19540
271.8,1.38778e-17,0,19676,19676
271.851,1.38778e-17,0,19844,19844
271.901,1.38778e-17,0,19956,19956
271.951,1.38778e-17,0,20132,20132
272.001,1.38778e-17,0,20276,20276
272.051,1.38778e-17,0,20420,20420
272.1,1.38778e-17,0,20564,20564
272.15,1.38778e-17,0,20724,20724
272.201,1.38778e-17,0,20908,20908
272.251,1.38778e-17,0,21020,21020
272.301,1.38778e-17,0,21236,21236
272.351,1.38778e-17,0,21484,21484
272.401,1.38778e-17,0,21732,21732
272.45,1.38778e-17,0,21932,21932
272.5,1.38778e-17,0,22036,22036
272.55,1.38778e-17,0,22140,22140
272.601,1.38778e-17,0,22308,22308
272.651,1.38778e-17,0,22452,22452
272.701,1.38778e-17,0,22556,22556
272.751,1.38778e-17,0,22692,22692
272.8,1.38778e-17,0,22812,22812
272.85,1.38778e-17,0,22916,22916
272.9,1.38778e-17,0,22980,22980
272.951,1.38778e-17,0,23084,23084
273.001,1.38778e-17,0,23252,23252
273.051,1.38778e-17,0,23364,23364
273.101,1.38778e-17,0,23572,23572
273.151,1.38778e-17,0,23852,23852
273.2,1.38778e-17,0,24100,24100
273.25,1.38778e-17,0,24260,24260
273.301,1.38778e-17,0,24396,24396
273.351,1.38778e-17,0,24508,24508
273.401,1.38778e-17,0,24612,24612
273.451,1.38778e-17,0,24748,24748
273.501,1.38778e-17,0,24884,24884
273.55,1.38778e-17,0,25004,25004
273.6,1.38778e-17,0,25148,25148
273.651,1.38778e-17,0,25268,25268
273.701,1.38778e-17,0,25412,25412
273.751,1.38778e-17,0,25556,25556
273.801,1.38778e-17,0,25676,25676
273.851,1.38778e-17,0,25820,25820
273.9,1.38778e-17,0,25964,25964
273.95,1.38778e-17,0,26108,26108
274.001,1.38778e-17,0,26236,26236
274.051,1.38778e-17,0,26396,26396
274.101,1.38778e-17,0,26572,26572
274.151,1.38778e-17,0,26836,26836
274.201,1.38778e-17,0,27068,27068
274.25,1.38778e-17,0,27228,27228
274.3,1.38778e-17,0,27348,27348
274.35,1.38778e-17,0,27492,27492
274.401,1.38778e-17,0,27612,27612
274.451,1.38778e-17,0,27732,27732
274.501,1.38778e-17,0,27876,27876
274.551,1.38778e-17,0,27996,27996
274.6,1.38778e-17,0,28140,28140
274.65,1.38778e-17,0,28260,28260
274.7,1.38778e-17,0,28364,28364
274.751,1.38778e-17,0,28428,28428
274.801,1.38778e-17,0,28484,28484
274.851,1.38778e-17,0,28556,28556
274.901,1.38778e-17,0,28716,28716
274.951,1.38778e-17,0,28820,28820
275,1.38778e-17,0,28940,28940
275.05,1.38778e-17,0,29036,29036
275.101,1.38778e-17,0,29172,29172
275.151,1.38778e-17,0,29292,29292
275.201,-1.249e-16,0,29404,29404
275.251,-5.82867e-16,0,29564,29564
275.301,-1.04083e-15,0,29636,29636
275.35,-1.51268e-15,0,29756,29756
275.4,-2.13718e-15,0,29876,29876
275.451,-4.996e-15,0,30020,30020
275.501,-1.64452e-14,0,30140,30140
275.551,-5.5303e-14,0,30284,30284
275.601,-1.70419e-13,0,30388,30388
275.651,-4.75356e-13,0,30492,30492
275.7,-1.20462e-12,0,30644,30644
275.75,-2.78869e-12,0,30796,30796
275.8,-5.9263e-12,0,30956,30956
275.851,-1.18272e-11,0,31188,31188
275.901,-2.13888e-11,0,31284,31284
275.951,-3.59077e-11,0,31404,31404
276.001,-5.60549e-11,0,31524,31524
276.05,-8.09494e-11,0,31620,31620
276.1,-1.30931e-10,0,31740,31740
276.15,-2.15243e-10,0,31852,31852
276.201,-2.73261e-10,0,31948,31948
276.251,-2.57347e-10,0,32092,32092
276.301,-1.59961e-10,0,32204,32204
276.351,-1.63701e-11,0,32284,32284
276.401,7.6409e-11,0,32380,32380
276.45,1.24418e-10,0,32476,32476
276.5,1.09993e-10,0,32684,32684
276.551,7.35626e-11,0,32704,32704
276.601,6.17113e-11,0,32656,32656
276.651,8.36135e-11,0,32688,32688
276.701,1.2116e-10,0,32768,32768
276.751,1.42955e-10,0,32768,32768
276.8,1.31846e-10,0,32768,32768
276.85,1.01087e-10,0,32584,32584
276.901,7.93312e-11,0,32632,32632
276.951,8.41572e-11,0,32680,32680
277.001,1.0488e-10,0,32576,32576
277.051,1.16012e-10,0,32400,32400
277.101,9.56669e-11,0,32600,32600
277.15,3.81356e-11,0,32560,32560
277.2,-3.49932e-11,0,32280,32280
277.25,-7.91047e-11,0,32320,32320
277.301,-7.31362e-11,0,32384,32384
277.351,-2.63291e-12,0,32088,32088
277.401,8.75478e-11,0,32360,32360
277.451,1.35107e-10,0,32456,32456
277.5,1.77972e-10,0,32328,32328
277.55,1.99387e-10,0,32552,32552
277.6,2.40035e-10,0,32704,32704
277.651,3.06408e-10,0,32768,32768
277.701,3.48156e-10,0,32768,32768
277.751,3.21329e-10,0,32768,32768
277.801,3.52298e-10,0,32768,32768
277.851,8.28326e-10,0,32768,32768
277.9,2.34527e-09,0,32768,32768
277.95,5.32991e-09,0,32768,32768
278.001,9.97986e-09,0,32768,32768
278.051,1.55843e-08,0,32768,32768
278.101,2.15287e-08,0,32768,32768
278.151,2.71405e-08,0,32768,32768
278.201,3.21183e-08,0,32768,32768
278.25,3.66877e-08,0,32768,32768
278.3,4.15383e-08,0,32768,32768
278.351,4.77793e-08,0,32768,32768
278.401,5.58846e-08,0,32768,32768
278.451,6.65364e-08,0,32768,32768
278.501,8.00284e-08,0,32768,32768
278.551,9.66615e-08,0,32768,32768
278.6,1.16987e-07,0,32768,32768
278.65,1.41864e-07,0,32768,32768
278.701,1.73271e-07,0,32768,32768
278.751,2.10223e-07,0,32768,32768
278.801,2.53819e-07,0,32768,32768
278.851,3.03753e-07,0,32768,32768
278.901,3.59309e-07,0,32768,32768
278.95,4.1974e-07,0,32768,32768
279,4.84583e-07,0,32768,32768
279.05,5.5364e-07,0,32768,32768
279.101,6.28758e-07,0,32768,32768
279.151,7.04526e-07,0,32768,32768
279.201,7.80862e-07,0,32768,32768
279.251,8.54762e-07,0,32768,32768
279.3,9.23098e-07,0,32768,32768
279.35,9.83442e-07,0,32768,32768
279.4,1.03462e-06,0,32768,32768
279.451,1.07792e-06,0,32768,32768
279.501,1.11217e-06,0,32768,32768
279.551,1.14054e-06,0,32768,32768
279.601,1.16488e-06,0,32768,32768
279.651,1.18672e-06,0,32768,32768
279.7,1.20709e-06,0,32768,32768
279.75,1.22656e-06,0,32768,32768
279.801,1.24569e-06,0,32768,32768
279.851,1.26296e-06,0,32768,32768
279.901,1.27807e-06,0,32768,32768
279.951,1.29e-06,0,32768,32768
280.001,1.29795e-06,0,32768,32768
280.05,1.30183e-06,0,32768,32768
280.1,1.30248e-06,0,32768,32768
280.151,1.30141e-06,0,32768,32768
280.201,1.30034e-06,0,32768,32768
280.251,1.30019e-06,0,32768,32768
280.301,1.30065e-06,0,32768,32768
280.351,1.30023e-06,0,32768,32768
280.4,1.2967e-06,0,32768,32768
280.45,1.28782e-06,0,32768,32768
280.5,1.27199e-06,0,32768,32768
280.551,1.24792e-06,0,32768,32768
280.601,1.21771e-06,0,32768,32768
280.651,1.18243e-06,0,32768,32768
280.701,1.14401e-06,0,32768,32768
280.75,1.10394e-06,0,32768,32768
280.8,1.06269e-06,0,32768,32768
280.85,1.01957e-06,0,32768,32768
280.901,9.71713e-07,0,32768,32768
280.951,9.2041e-07,0,32768,32768
281.001,8.63613e-07,0,32768,32768
281.051,8.01509e-07,0,32768,32768
281.101,7.35064e-07,0,32768,32768
281.15,6.65681e-07,0,32768,32768
281.2,5.94876e-07,0,32768,32768
281.251,5.2201e-07,0,32768,32768
281.301,4.52549e-07,0,32768,32768
281.351,3.85555e-07,0,32768,32768
281.401,3.22116e-07,0,32768,32768
281.451,2.63225e-07,0,32768,32768
281.5,2.09628e-07,0,32768,32768
281.55,1.61643e-07,0,32768,32768
281.601,1.17941e-07,0,32768,32768
281.651,8.05586e-08,0,32768,32768
281.701,4.77387e-08,0,32768,32768
281.751,1.92809e-08,0,32768,32768
281.801,-4.82498e-09,0,32768,32768
281.85,-2.4647e-08,0,32768,32768
281.9,-4.05671e-08,0,32768,32768
281.95,-5.33322e-08,0,32768,32768
282.001,-6.41196e-08,0,32768,32768
282.051,-7.30183e-08,0,32768,32768
282.101,-8.06055e-08,0,32768,32768
282.151,-8.67139e-08,0,32768,32768
282.2,-9.10375e-08,0,32768,32768
282.25,-9.34433e-08,0,32768,32768
282.3,-9.41418e-08,0,32768,32768
282.351,-9.36164e-08,0,32768,32768
282.401,-9.25116e-08,0,32768,32768
282.451,-9.12606e-08,0,32768,32768
282.501,-8.99691e-08,0,32768,32768
282.55,-8.84224e-08,0,32768,32768
282.6,-8.62525e-08,0,32768,32768
282.65,-8.31636e-08,0,32768,32768
282.701,-7.89574e-08,0,32768,32768
282.751,-7.40639e-08,0,32768,32768
282.801,-6.87069e-08,0,32768,32768
282.851,-6.32217e-08,0,32768,32768
282.901,-5.78598e-08,0,32768,32768
282.95,-5.27721e-08,0,32768,32768
283,-4.80386e-08,0,32768,32768
283.051,-4.35824e-08,0,32768,32768
283.101,-3.96823e-08,0,32768,32768
283.151,-3.62056e-08,0,32768,32768
283.201,-3.31255e-08,0,32768,32768
283.251,-3.03968e-08,0,32768,32768
283.3,-2.79743e-08,0,32768,32768
283.35,-2.58278e-08,0,32768,32768
283.401,-2.38933e-08,0,32768,32768
283.451,-2.22783e-08,0,32768,32768
283.501,-2.09198e-08,0,32768,32768
283.551,-1.98068e-08,0,32768,32768
283.601,-1.89214e-08,0,32768,32768
283.65,-1.82414e-08,0,32768,32768
283.7,-1.77429e-08,0,32768,32768
283.75,-1.74025e-08,0,32768,32768
283.801,-1.71938e-08,0,32768,32768
283.851,-1.71073e-08,0,32768,32768
283.901,-1.71155e-08,0,32768,32768
283.951,-1.72005e-08,0,32768,32768
284,-1.73467e-08,0,32768,32768
284.05,-1.75413e-08,0,32768,32768
284.1,-1.77739e-08,0,32768,32768
284.151,-1.80443e-08,0,32768,32768
284.201,-1.83298e-08,0,32768,32768
284.251,-1.86307e-08,0,32768,32768
284.301,-1.89402e-08,0,32768,32768
284.351,-1.9252e-08,0,32768,32768
284.4,-1.95606e-08,0,32768,32768
284.45,-1.98625e-08,0,32768,32768
284.501,-2.01638e-08,0,32768,32768
284.551,-2.0446e-08,0,32768,32768
284.601,-2.07171e-08,0,32768,32768
284.651,-2.09757e-08,0,32768,32768
284.701,-2.12198e-08,0,32768,32768
284.75,-2.1447e-08,0,32768,32768
284.8,-2.1655e-08,0,32768,32768
284.851,-2.18472e-08,0,32768,32768
284.901,-2.20119e-08,0,32768,32768
284.951,-2.2155e-08,0,32768,32768
285.001,-2.22776e-08,0,32768,32768
285.051,-2.23813e-08,0,32768,32768
285.1,-2.2468e-08,0,32768,32768
285.15,-2.25402e-08,0,32768,32768
285.2,-2.26002e-08,0,32768,32768
285.251,-2.2652e-08,0,32768,32768
285.301,-2.26949e-08,0,32768,32768
285.351,-2.27327e-08,0,32768,32768
285.401,-2.27675e-08,0,32768,32768
285.45,-2.28009e-08,0,32768,32768
285.5,-2.28345e-08,0,32768,32768
285.55,-2.28697e-08,0,32768,32768
285.601,-2.2909e-08,0,32768,32768
285.651,-2.29518e-08,0,32768,32768
285.701,-2.30007e-08,0,32768,32768
285.751,-2.30577e-08,0,32768,32768
285.801,-2.31249e-08,0,32768,32768
285.85,-2.32044e-08,0,32768,32768
285.9,-2.32987e-08,0,32768,32768
285.951,-2.34142e-08,0,32768,32768
286.001,-2.35473e-08,0,32768,32768
286.051,-2.37041e-08,0,32768,32768
286.101,-2.38878e-08,0,32768,32768
286.151,-2.41017e-08,0,32768,32768
286.2,-2.43489e-08,0,32768,32768
286.25,-2.46322e-08,0,32768,32768
286.301,-2.49643e-08,0,32768,32768
286.351,-2.53283e-08,0,32768,32768
286.401,-2.57346e-08,0,32768,32768
286.451,-2.61841e-08,0,32768,32768
286.501,-2.66766e-08,0,32768,32768
286.55,-2.7211e-08,0,32768,32768
286.6,-2.7785e-08,0,32768,32768
286.651,-2.84138e-08,0,32768,32768
286.701,-2.90571e-08,0,32768,32768
286.751,-2.97276e-08,0,32768,32768
286.801,-3.04204e-08,0,32768,32768
286.851,-3.11309e-08,0,32768,32768
286.9,-3.18548e-08,0,32768,32768
286.95,-3.25888e-08,0,32768,32768
287,-3.33299e-08,0,32768,32768
287.051,-3.4098e-08,0,32768,32768
287.101,-3.48472e-08,0,32768,32768
287.151,-3.55979e-08,0,32768,32768
287.201,-3.63485e-08,0,32768,32768
287.25,-3.70973e-08,0,32768,32768
287.3,-3.78426e-08,0,32768,32768
287.35,-3.85826e-08,0,32768,32768
287.401,-3.93371e-08,0,32768,32768
287.451,-4.00613e-08,0,32768,32768
287.501,-4.07758e-08,0,32768,32768
287.551,-4.14796e-08,0,32768,32768
287.601,-4.21721e-08,0,32768,32768
287.65,-4.28523e-08,0,32768,32768
287.7,-4.35189e-08,0,32768,32768
287.751,-4.41891e-08,0,32768,32768
287.801,-4.48222e-08,0,32768,32768
287.851,-4.54347e-08,0,32768,32768
287.901,-4.60239e-08,0,32768,32768
287.951,-4.65867e-08,0,32768,32768
288,-4.71208e-08,0,32768,32768
288.05,-4.76239e-08,0,32768,32768
288.101,-4.81077e-08,0,32768,32768
288.151,-4.8543e-08,0,32768,32768
288.201,-4.89427e-08,0,32768,32768
288.251,-4.93053e-08,0,32768,32768
288.301,-4.96292e-08,0,32768,32768
288.35,-4.99126e-08,0,32768,32768
288.4,-5.01541e-08,0,32768,32768
288.45,-5.03523e-08,0,32768,32768
288.501,-5.05104e-08,0,32768,32768
288.551,-5.06193e-08,0,32768,32768
288.601,-5.06847e-08,0,32768,32768
288.651,-5.0708e-08,0,32768,32768
288.7,-5.06912e-08,0,32768,32768
288.75,-5.0637e-08,0,32768,32768
288.8,-5.05484e-08,0,32768,32768
288.851,-5.04248e-08,0,32768,32768
288.901,-5.0277e-08,0,32768,32768
288.951,-5.01055e-08,0,32768,32768
289.001,-4.99138e-08,0,32768,32768
289.051,-4.97053e-08,0,32768,32768
289.1,-4.94831e-08,0,32768,32768
289.15,-4.92503e-08,0,32768,32768
289.201,-4.90024e-08,0,32768,32768
289.251,-4.87559e-08,0,32768,32768
289.301,-4.85059e-08,0,32768,32768
289.351,-4.82542e-08,0,32768,32768
289.401,-4.80023e-08,0,32768,32768
289.45,-4.77514e-08,0,32768,32768
289.5,-4.75027e-08,0,32768,32768
289.551,-4.72498e-08,0,32768,32768
289.601,-4.70083e-08,0,32768,32768
289.651,-4.67713e-08,0,32768,32768
289.701,-4.65397e-08,0,32768,32768
289.751,-4.63137e-08,0,32768,32768
289.8,-4.60936e-08,0,32768,32768
289.85,-4.58797e-08,0,32768,32768
289.901,-4.56661e-08,0,32768,32768
289.951,-4.5465e-08,0,32768,32768
290.001,-4.52706e-08,0,32768,32768
290.051,-4.50828e-08,0,32768,32768
290.101,-4.49017e-08,0,32768,32768
290.15,-4.47274e-08,0,32768,32768
290.2,-4.45596e-08,0,32768,32768
290.25,-4.43982e-08,0,32768,32768
290.301,-4.42382e-08,0,32768,32768
290.351,-4.40885e-08,0,32768,32768
290.401,-4.39438e-08,0,32768,32768
290.451,-4.38036e-08,0,32768,32768
290.5,-4.36674e-08,0,32768,32768
290.55,-4.35346e-08,0,32768,32768
290.6,-4.34047e-08,0,32768,32768
290.651,-4.32735e-08,0,32768,32768
290.701,-4.31479e-08,0,32768,32768
290.751,-4.30235e-08,0,32768,32768
290.801,-4.29e-08,0,32768,32768
290.851,-4.27768e-08,0,32768,32768
290.9,-4.26533e-08,0,32768,32768
290.95,-4.25292e-08,0,32768,32768
291.001,-4.24003e-08,0,32768,32768
291.051,-4.22734e-08,0,32768,32768
291.101,-4.21446e-08,0,32768,32768
291.151,-4.20133e-08,0,32768,32768
291.201,-4.18793e-08,0,32768,32768
291.25,-4.17423e-08,0,32768,32768
291.3,-4.16019e-08,0,32768,32768
291.351,-4.14535e-08,0,32768,32768
291.401,-4.13054e-08,0,32768,32768
291.451,-4.11533e-08,0,32768,32768
291.501,-4.09969e-08,0,32768,32768
291.551,-4.08362e-08,0,32768,32768
291.6,-4.06708e-08,0,32768,32768
291.65,-4.05008e-08,0,32768,32768
291.7,-4.03259e-08,0,32768,32768
291.751,-4.01405e-08,0,32768,32768
291.801,-3.99548e-08,0,32768,32768
291.851,-3.97633e-08,0,32768,32768
291.901,-3.95654e-08,0,32768,32768
291.95,-3.93606e-08,0,32768,32768
292,-3.91485e-08,0,32768,32768
292.05,-3.89287e-08,0,32768,32768
292.101,-3.86937e-08,0,32768,32768
292.151,-3.84568e-08,0,32768,32768
292.201,-3.8211e-08,0,32768,32768
292.251,-3.79558e-08,0,32768,32768
292.301,-3.76907e-08,0,32768,32768
292.35,-3.74149e-08,0,32768,32768
292.4,-3.71272e-08,0,32768,32768
292.451,-3.68172e-08,0,32768,32768
292.501,-3.65007e-08,0,32768,32768
292.551,-3.61668e-08,0,32768,32768
292.601,-3.5813e-08,0,32768,32768
292.651,-3.54363e-08,0,32768,32768
292.7,-3.50336e-08,0,32768,32768
292.75,-3.46015e-08,0,32768,32768
292.801,-3.41223e-08,0,32768,32768
292.851,-3.36198e-08,0,32768,32768
292.901,-3.30776e-08,0,32768,32768
292.951,-3.24928e-08,0,32768,32768
293.001,-3.18629e-08,0,32768,32768
293.05,-3.1186e-08,0,32768,32768
293.1,-3.04612e-08,0,32768,32768
293.15,-2.96884e-08,0,32768,32768
293.201,-2.88437e-08,0,32768,32768
293.251,-2.79777e-08,0,32768,32768
293.301,-2.70701e-08,0,32768,32768
293.351,-2.61251e-08,0,32768,32768
293.4,-2.51473e-08,0,32768,32768
293.45,-2.4142e-08,0,32768,32768
293.5,-2.3114e-08,0,32768,32768
293.551,-2.20373e-08,0,32768,32768
293.601,-2.09775e-08,0,32768,32768
293.651,-1.99079e-08,0,32768,32768
293.701,-1.88312e-08,0,32768,32768
293.75,-1.77502e-08,0,32768,32768
293.8,-1.66669e-08,0,32768,32768
293.85,-1.55834e-08,0,32768,32768
293.901,-1.44698e-08,0,32768,32768
293.951,-1.33917e-08,0,32768,32768
294.001,-1.23192e-08,0,32768,32768
294.051,-1.12542e-08,0,32768,32768
294.101,-1.01982e-08,0,32768,32768
294.15,-9.15282e-09,0,32768,32768
294.2,-8.11937e-09,0,32768,32768
294.251,-7.06938e-09,0,32768,32768
294.301,-6.06429e-09,0,32768,32768
294.351,-5.07558e-09,0,32768,32768
294.401,-4.10535e-09,0,32768,32768
294.451,-3.15611e-09,0,32768,32768
294.5,-2.23075e-09,0,32768,32768
294.55,-1.33238e-09,0,32768,32768
294.601,-4.39075e-10,0,32768,32768
294.651,3.95067e-10,0,32768,32768
294.701,1.19334e-09,0,32768,32768
294.751,1.95335e-09,0,32768,32768
294.801,2.673e-09,0,32768,32768
294.85,3.35042e-09,0,32768,32768
294.9,3.98402e-09,0,32768,32768
294.95,4.57103e-09,0,32768,32768
295.001,5.12512e-09,0,32768,32768
295.051,5.61403e-09,0,32768,32768
295.101,6.05233e-09,0,32768,32768
295.151,6.43874e-09,0,32768,32768
295.2,6.77295e-09,0,32768,32768
295.25,7.05526e-09,0,32768,32768
295.3,7.28678e-09,0,32768,32768
295.351,7.47414e-09,0,32768,32768
295.401,7.60954e-09,0,32768,32768
295.451,7.70262e-09,0,32768,32768
295.501,7.75752e-09,0,32768,32768
295.551,7.77872e-09,0,32768,32768
295.6,7.77076e-09,0,32768,32768
295.65,7.73812e-09,0,32768,32768
295.701,7.68323e-09,0,32768,32768
295.751,7.61326e-09,0,32768,32768
295.801,7.53053e-09,0,32768,32768
295.851,7.43819e-09,0,32768,32768
295.901,7.33897e-09,0,32768,32768
295.95,7.23505e-09,0,32768,32768
296,7.12814e-09,0,32768,32768
296.051,7.01624e-09,0,32768,32768
296.101,6.90661e-09,0,32768,32768
296.151,6.79659e-09,0,32768,32768
296.201,6.68646e-09,0,32768,32768
296.251,6.57627e-09,0,32768,32768
296.3,6.46589e-09,0,32768,32768
296.35,6.35507e-09,0,32768,32768
296.4,6.24352e-09,0,32768,32768
296.451,6.12784e-09,0,32768,32768
296.501,6.01497e-09,0,32768,32768
296.551,5.9025e-09,0,32768,32768
296.601,5.7919e-09,0,32768,32768
296.65,5.6851e-09,0,32768,32768
296.7,5.58428e-09,0,32768,32768
296.75,5.49145e-09,0,32768,32768
296.801,5.40592e-09,0,32768,32768
296.851,5.33352e-09,0,32768,32768
296.901,5.27178e-09,0,32768,32768
296.951,5.22017e-09,0,32768,32768
297.001,5.17762e-09,0,32768,32768
297.05,5.14283e-09,0,32768,32768
297.1,5.11448e-09,0,32768,32768
297.151,5.0909e-09,0,32768,32768
297.201,5.07263e-09,0,32768,32768
297.251,5.05851e-09,0,32768,32768
297.301,5.04828e-09,0,32768,32768
297.351,5.04168e-09,0,32768,32768
297.4,5.03825e-09,0,32768,32768
297.45,5.03717e-09,0,32768,32768
297.501,5.03734e-09,0,32768,32768
297.551,5.03743e-09,0,32768,32768
297.601,5.03626e-09,0,32768,32768
297.651,5.03299e-09,0,32768,32768
297.701,5.02736e-09,0,32768,32768
297.75,5.01965e-09,0,32768,32768
297.8,5.0106e-09,0,32768,32768
297.851,5.0008e-09,0,32768,32768
297.901,4.9916e-09,0,32768,32768
297.951,4.98312e-09,0,32768,32768
298.001,4.97535e-09,0,32768,32768
298.051,4.96793e-09,0,32768,32768
298.1,4.96038e-09,0,32768,32768
298.15,4.95234e-09,0,32768,32768
298.2,4.94378e-09,0,32768,32768
298.251,4.93481e-09,0,32768,32768
298.301,4.92669e-09,0,32768,32768
298.351,4.92014e-09,0,32768,32768
298.401,4.91612e-09,0,32768,32768
298.45,4.91544e-09,0,32768,32768
298.5,4.91863e-09,0,32768,32768
298.55,4.92586e-09,0,32768,32768
298.601,4.93734e-09,0,32768,32768
298.651,4.95194e-09,0,32768,32768
298.701,4.96923e-09,0,32768,32768
298.751,4.9884e-09,0,32768,32768
298.801,5.00855e-09,0,32768,32768
298.85,5.02887e-09,0,32768,32768
298.9,5.04862e-09,0,32768,32768
298.951,5.06773e-09,0,32768,32768
299.001,5.08461e-09,0,32768,32768
299.051,5.09948e-09,0,32768,32768
299.101,5.1121e-09,0,32768,32768
299.151,5.12231e-09,0,32768,32768
299.2,5.13008e-09,0,32768,32768
299.25,5.13548e-09,0,32768,32768
299.301,5.13875e-09,0,32768,32768
299.351,5.13993e-09,0,32768,32768
299.401,5.13938e-09,0,32768,32768
299.451,5.1373e-09,0,32768,32768
299.501,5.1338e-09,0,32768,32768
299.55,5.12897e-09,0,32768,32768
299.6,5.12286e-09,0,32768,32768
299.65,5.11554e-09,0,32768,32768
299.701,5.10688e-09,0,32768,32768
299.751,5.09751e-09,0,32768,32768
299.801,5.08736e-09,0,32768,32768
299.851,5.07652e-09,0,32768,32768
299.9,5.065e-09,0,32768,32768
299.95,5.05274e-09,0,32768,32768
300,5.03961e-09,0,32768,32768
300.051,5.02503e-09,0,32768,32768
300.101,5.0097e-09,0,32768,32768
300.151,4.99315e-09,0,32768,32768
300.201,4.97537e-09,0,32768,32768
300.251,4.95639e-09,0,32768,32768
300.3,4.93628e-09,0,32768,32768
300.35,4.91512e-09,0,32768,32768
300.401,4.89231e-09,0,32768,32768
300.451,4.86923e-09,0,32768,32768
300.501,4.84525e-09,0,32768,32768
300.551,4.8204e-09,0,32768,32768
300.601,4.79468e-09,0,32768,32768
300.65,4.76806e-09,0,32768,32768
300.7,4.74053e-09,0,32768,32768
300.751,4.71121e-09,0,32768,32768
300.801,4.68177e-09,0,32768,32768
300.851,4.65136e-09,0,32768,32768
300.901,4.61999e-09,0,32768,32768
300.951,4.58764e-09,0,32768,32768
301,4.5543e-09,0,32768,32768
301.05,4.51999e-09,0,32768,32768
301.1,4.48469e-09,0,32768,32768
301.151,4.44732e-09,0,32768,32768
301.201,4.41002e-09,0,32768,32768
301.251,4.37172e-09,0,32768,32768
301.301,4.33243e-09,0,32768,32768
301.35,4.29215e-09,0,32768,32768
301.4,4.2509e-09,0,32768,32768
301.45,4.20868e-09,0,32768,32768
301.501,4.16423e-09,0,32768,32768
301.551,4.1201e-09,0,32768,32768
301.601,4.07506e-09,0,32768,32768
301.651,4.02914e-09,0,32768,32768
301.701,3.98235e-09,0,32768,32768
301.75,3.93474e-09,0,32768,32768
301.8,3.88634e-09,0,32768,32768
301.851,3.83573e-09,0,32768,32768
301.901,3.78584e-09,0,32768,32768
301.951,3.73529e-09,0,32768,32768
302.001,3.68412e-09,0,32768,32768
302.051,3.63239e-09,0,32768,32768
302.1,3.58015e-09,0,32768,32768
302.15,3.52745e-09,0,32768,32768
302.201,3.47279e-09,0,32768,32768
302.251,3.41933e-09,0,32768,32768
302.301,3.3656e-09,0,32768,32768
302.351,3.31164e-09,0,32768,32768
302.401,3.25752e-09,0,32768,32768
302.45,3.2033e-09,0,32768,32768
302.5,3.14904e-09,0,32768,32768
302.551,3.09322e-09,0,32768,32768
302.601,3.03908e-09,0,32768,32768
302.651,2.98509e-09,0,32768,32768
302.701,2.9313e-09,0,32768,32768
302.751,2.87777e-09,0,32768,32768
302.8,2.82455e-09,0,32768,32768
302.85,2.77167e-09,0,32768,32768
302.9,2.71918e-09,0,32768,32768
302.951,2.66558e-09,0,32768,32768
303.001,2.61395e-09,0,32768,32768
303.051,2.56278e-09,0,32768,32768
303.101,2.51208e-09,0,32768,32768
303.15,2.46186e-09,0,32768,32768
303.2,2.41213e-09,0,32768,32768
303.25,2.36289e-09,0,32768,32768
303.301,2.3127e-09,0,32768,32768
303.351,2.26444e-09,0,32768,32768
303.401,2.21665e-09,0,32768,32768
303.451,2.16933e-09,0,32768,32768
303.501,2.12248e-09,0,32768,32768
303.55,2.07607e-09,0,32768,32768
303.6,2.0301e-09,0,32768,32768
303.651,1.98324e-09,0,32768,32768
303.701,1.93814e-09,0,32768,32768
303.751,1.89346e-09,0,32768,32768
303.801,1.84919e-09,0,32768,32768
303.851,1.80532e-09,0,32768,32768
303.9,1.76183e-09,0,32768,32768
303.95,1.71872e-09,0,32768,32768
304.001,1.67473e-09,0,32768,32768
304.051,1.63234e-09,0,32768,32768
304.101,1.5903e-09,0,32768,32768
304.151,1.54857e-09,0,32768,32768
304.201,1.50715e-09,0,32768,32768
304.25,1.46601e-09,0,32768,32768
304.3,1.42515e-09,0,32768,32768
304.35,1.38454e-09,0,32768,32768
304.401,1.343e-09,0,32768,32768
304.451,1.30288e-09,0,32768,32768
304.501,1.26298e-09,0,32768,32768
304.551,1.2233e-09,0,32768,32768
304.6,1.18383e-09,0,32768,32768
304.65,1.14456e-09,0,32768,32768
304.7,1.10549e-09,0,32768,32768
304.751,1.06548e-09,0,32768,32768
304.801,1.02681e-09,0,32768,32768
304.851,9.88333e-10,0,32768,32768
304.901,9.50057e-10,0,32768,32768
304.951,9.11983e-10,0,32768,32768
