250,0,0,2048,2048
250.006,0,0,2048,2048
250.053,0,0,2048,2048
250.105,0,0,2048,2048
250.152,0,0,2048,2048
250.205,0,0,2048,2048
250.252,0,0,2048,2048
250.305,0,0,2048,2048
250.352,0,0,2048,2048
250.404,0,0,2048,2048
250.451,1.38778e-17,0,2048,2048
250.504,0,0,2048,2048
250.551,0,0,2048,2048
250.603,0,0,2048,2048
250.65,0,0,2048,2048
250.703,0,0,2048,2048
250.756,0,0,2048,2048
250.803,0,0,2048,2048
250.855,0,0,2048,2048
250.902,-1.38778e-17,0,2048,2048
250.955,-1.38778e-17,0,2048,2048
251.002,-1.38778e-17,0,2048,2048
251.055,-1.38778e-17,0,2048,2048
251.101,-1.38778e-17,0,2048,2048
251.154,0,0,2048,2048
251.201,0,0,2048,2048
251.254,0,0,2048,2048
251.301,0,0,2048,2048
251.353,0,0,2048,2048
251.4,0,0,2048,2048
251.453,0,0,2048,2048
251.506,0,0,2048,2048
251.553,0,0,2048,2048
251.605,1.38778e-17,0,2048,2048
251.652,0,0,2048,2048
251.705,0,0,2048,2048
251.752,-1.38778e-17,0,2048,2048
251.804,-1.38778e-17,0,2048,2048
251.851,-1.38778e-17,0,2048,2048
251.904,-1.38778e-17,0,2048,2048
251.951,0,0,2048,2048
252.004,0,0,2048,2048
252.05,0,0,2048,2048
252.103,0,0,2048,2048
252.15,0,0,2048,2048
252.203,0,0,2048,2048
252.256,0,0,2048,2048
252.302,0,0,2048,2048
252.355,1.38778e-17,0,2048,2048
252.402,1.38778e-17,0,2048,2048
252.455,0,0,2048,2048
252.502,0,0,2048,2048
252.554,-1.38778e-17,0,2048,2048
252.601,-1.38778e-17,0,2048,2048
252.654,-1.38778e-17,0,2048,2048
252.701,0,0,2048,2048
252.754,0,0,2048,2048
252.8,0,0,2048,2048
252.853,0,0,2048,2048
252.906,0,0,2048,2048
252.953,0,0,2048,2048
253.005,0,0,2048,2048
253.052,0,0,2048,2048
253.105,0,0,2048,2048
253.152,0,0,2048,2048
253.205,0,0,2048,2048
253.251,0,0,2048,2048
253.304,0,0,2048,2048
253.351,0,0,2048,2048
253.404,0,0,2048,2048
253.451,0,0,2048,2048
253.503,0,0,2048,2048
253.55,0,0,2048,2048
253.603,0,0,2048,2048
253.656,0,0,2048,2048
253.703,0,0,2048,2048
253.755,0,0,2048,2048
253.802,0,0,2048,2048
253.855,0,0,2048,2048
253.902,0,0,2048,2048
253.954,0,0,2048,2048
254.001,0,0,2048,2048
254.054,0,0,2048,2048
254.101,0,0,2048,2048
254.154,-1.38778e-17,0,2048,2048
254.201,0,0,2048,2048
254.253,0,0,2048,2048
254.3,-1.38778e-17,0,2048,2048
254.353,-1.38778e-17,0,2048,2048
254.406,-1.38778e-17,0,2048,2048
254.452,-1.38778e-17,0,2048,2048
254.505,0,0,2048,2048
254.552,0,0,2048,2048
254.605,0,0,2048,2048
254.652,0,0,2048,2048
254.704,0,0,2048,2048
254.751,1.38778e-17,0,2048,2048
254.804,2.77556e-17,0,2048,2048
254.851,2.77556e-17,0,2048,2048
254.904,2.77556e-17,0,2048,2048
254.95,2.77556e-17,0,2048,2048
255.003,1.38778e-17,0,2048,2048
255.05,1.38778e-17,0,2048,2048
255.103,0,0,2048,2048
255.155,0,0,2048,2048
255.202,1.38778e-17,0,2048,2048
255.255,1.38778e-17,0,2048,2048
255.302,1.38778e-17,0,2048,2048
255.355,1.38778e-17,0,2048,2048
255.402,1.38778e-17,0,2048,2048
255.454,1.38778e-17,0,2048,2048
255.501,1.38778e-17,0,2048,2048
255.554,2.77556e-17,0,2048,2048
255.601,2.77556e-17,0,2048,2048
255.653,2.77556e-17,0,2048,2048
255.7,1.38778e-17,0,2048,2048
255.753,1.38778e-17,0,2048,2048
255.806,1.38778e-17,0,2048,2048
255.853,1.38778e-17,0,2048,2048
255.905,1.38778e-17,0,2048,2048
255.952,1.38778e-17,0,2048,2048
256.005,1.38778e-17,0,2048,2048
256.052,1.38778e-17,0,2048,2048
256.105,1.38778e-17,0,2048,2048
256.151,1.38778e-17,0,2048,2048
256.204,1.38778e-17,0,2048,2048
256.251,1.38778e-17,0,2048,2048
256.304,1.38778e-17,0,2048,2048
256.351,2.77556e-17,0,2048,2048
256.403,1.38778e-17,0,2048,2048
256.45,1.38778e-17,0,2048,2048
256.503,1.38778e-17,0,2048,2048
256.556,1.38778e-17,0,2048,2048
256.603,1.38778e-17,0,2048,2048
256.655,1.38778e-17,0,2048,2048
256.702,1.38778e-17,0,2048,2048
256.755,0,0,2048,2048
256.802,0,0,2048,2048
256.854,0,0,2048,2048
256.901,0,0,2048,2048
256.954,0,0,2048,2048
257.001,0,0,2048,2048
257.054,-1.38778e-17,0,2048,2048
257.101,0,0,2048,2048
257.153,0,0,2048,2048
257.2,0,0,2048,2048
257.253,0,0,2048,2048
257.306,0,0,2048,2048
257.352,0,0,2048,2048
257.405,0,0,2048,2048
257.452,-1.38778e-17,0,2048,2048
257.505,-1.38778e-17,0,2048,2048
257.552,-2.77556e-17,0,2048,2048
257.604,-2.77556e-17,0,2048,2048
257.651,-2.77556e-17,0,2048,2048
257.704,-2.77556e-17,0,2048,2048
257.751,-2.77556e-17,0,2048,2048
257.804,-2.77556e-17,0,2048,2048
257.85,-2.77556e-17,0,2048,2048
257.903,-2.77556e-17,0,2048,2048
257.95,-2.77556e-17,0,2048,2048
258.003,-2.77556e-17,0,2048,2048
258.055,-2.77556e-17,0,2048,2048
258.102,-2.77556e-17,0,2048,2048
258.155,-2.77556e-17,0,2048,2048
258.202,-2.77556e-17,0,2048,2048
258.255,-2.77556e-17,0,2048,2048
258.302,-2.77556e-17,0,2048,2048
258.354,-1.38778e-17,0,2048,2048
258.401,-1.38778e-17,0,2048,2048
258.454,-1.38778e-17,0,2048,2048
258.501,-1.38778e-17,0,2048,2048
258.553,-1.38778e-17,0,2048,2048
258.6,-1.38778e-17,0,2048,2048
258.653,-1.38778e-17,0,2048,2048
258.706,-1.38778e-17,0,2048,2048
258.753,-1.38778e-17,0,2048,2048
258.805,-1.38778e-17,0,2048,2048
258.852,-1.38778e-17,0,2048,2048
258.905,-2.77556e-17,0,2048,2048
258.952,-4.16334e-17,0,2048,2048
259.005,-4.16334e-17,0,2048,2048
259.051,-2.77556e-17,0,2048,2048
259.104,-2.77556e-17,0,2048,2048
259.151,-1.38778e-17,0,2048,2048
259.204,-1.38778e-17,0,2048,2048
259.251,-1.38778e-17,0,2048,2048
259.303,-1.38778e-17,0,2048,2048
259.35,-1.38778e-17,0,2048,2048
259.403,-1.38778e-17,0,2048,2048
259.456,-1.38778e-17,0,2048,2048
259.503,-1.38778e-17,0,2048,2048
259.555,-1.38778e-17,0,2048,2048
259.602,-1.38778e-17,0,2048,2048
259.655,-1.38778e-17,0,2048,2048
259.702,0,0,2048,2048
259.754,0,0,2048,2048
259.801,0,0,2048,2048
259.854,1.38778e-17,0,2048,2048
259.901,1.38778e-17,0,2048,2048
259.954,1.38778e-17,0,2048,2048
260,1.38778e-17,0,2048,2048
260.053,1.38778e-17,0,2048,2048
260.1,1.38778e-17,0,2048,2048
260.153,1.38778e-17,0,2048,2048
260.206,1.38778e-17,0,2048,2048
260.252,1.38778e-17,0,2048,2048
260.305,0,0,2048,2048
260.352,0,0,2048,2048
260.405,-1.38778e-17,0,2048,2048
260.452,-1.38778e-17,0,2048,2048
260.504,0,0,2048,2048
260.551,0,0,2048,2048
260.604,0,0,2048,2048
260.651,0,0,2048,2048
260.704,0,0,2048,2048
260.75,1.38778e-17,0,2048,2048
260.803,1.38778e-17,0,2048,2048
260.856,1.38778e-17,0,2048,2048
260.903,1.38778e-17,0,2048,2048
260.955,1.38778e-17,0,2048,2048
261.002,0,0,2048,2048
261.055,0,0,2048,2048
261.102,0,0,2048,2048
261.155,1.38778e-17,0,2048,2048
261.201,0,0,2048,2048
261.254,-1.38778e-17,0,2048,2048
261.301,-1.38778e-17,0,2048,2048
261.354,-1.38778e-17,0,2048,2048
261.401,-1.38778e-17,0,2048,2048
261.453,0,0,2048,2048
261.5,0,0,2048,2048
261.553,0,0,2048,2048
261.606,0,0,2048,2048
261.653,0,0,2048,2048
261.705,0,0,2048,2048
261.752,0,0,2048,2048
261.805,-1.38778e-17,0,2048,2048
261.852,0,0,2048,2048
261.905,-1.38778e-17,0,2048,2048
261.951,-1.38778e-17,0,2048,2048
262.004,-1.38778e-17,0,2048,2048
262.051,-1.38778e-17,0,2048,2048
262.104,-1.38778e-17,0,2048,2048
262.151,-1.38778e-17,0,2048,2048
262.203,-1.38778e-17,0,2048,2048
262.25,-1.38778e-17,0,2048,2048
262.303,-1.38778e-17,0,2048,2048
262.356,-1.38778e-17,0,2048,2048
262.402,-1.38778e-17,0,2048,2048
262.455,-1.38778e-17,0,2048,2048
262.502,-1.38778e-17,0,2048,2048
262.555,-1.38778e-17,0,2048,2048
262.602,-2.77556e-17,0,2048,2048
262.654,-2.77556e-17,0,2048,2048
262.701,-2.77556e-17,0,2048,2048
262.754,-2.77556e-17,0,2048,2048
262.801,-4.16334e-17,0,2048,2048
262.854,-2.77556e-17,0,2048,2048
262.9,-2.77556e-17,0,2048,2048
262.953,-2.77556e-17,0,2048,2048
263,-2.77556e-17,0,2048,2048
263.053,-5.55112e-17,0,2048,2048
263.105,-4.16334e-17,0,2048,2048
263.152,-4.16334e-17,0,2048,2048
263.205,-4.16334e-17,0,2048,2048
263.252,-2.77556e-17,0,2048,2048
263.305,-2.77556e-17,0,2048,2048
263.352,-2.77556e-17,0,2048,2048
263.404,-2.77556e-17,0,2048,2048
263.451,-2.77556e-17,0,2048,2048
263.504,-2.77556e-17,0,2048,2048
263.551,-2.77556e-17,0,2048,2048
263.603,-2.77556e-17,0,2048,2048
263.65,-2.77556e-17,0,2048,2048
263.703,-2.77556e-17,0,2048,2048
263.756,-2.77556e-17,0,2048,2048
263.803,-2.77556e-17,0,2048,2048
263.855,-2.77556e-17,0,2048,2048
263.902,-1.38778e-17,0,2048,2048
263.955,-1.38778e-17,0,2048,2048
264.002,-1.38778e-17,0,2048,2048
264.055,-1.38778e-17,0,2048,2048
264.101,-1.38778e-17,0,2048,2048
264.154,-1.38778e-17,0,2048,2048
264.201,-1.38778e-17,0,2048,2048
264.254,-1.38778e-17,0,2048,2048
264.301,-1.38778e-17,0,2048,2048
264.353,-1.38778e-17,0,2048,2048
264.4,-1.38778e-17,0,2048,2048
264.453,-1.38778e-17,0,2048,2048
264.506,-1.38778e-17,0,2048,2048
264.553,-1.38778e-17,0,2048,2048
264.605,-1.38778e-17,0,2048,2048
264.652,-1.38778e-17,0,2048,2048
264.705,-1.38778e-17,0,2048,2048
264.752,-1.38778e-17,0,2048,2048
264.804,-1.38778e-17,0,2048,2048
264.851,-1.38778e-17,0,2048,2048
264.904,-2.77556e-17,0,2048,2048
264.951,-2.77556e-17,0,2048,2048
265.004,-2.77556e-17,0,2048,2048
265.051,-4.16334e-17,0,2048,2048
265.103,-2.77556e-17,0,2048,2048
265.15,-2.77556e-17,0,2048,2048
265.203,-2.77556e-17,0,2048,2048
265.256,-2.77556e-17,0,2048,2048
265.302,-2.77556e-17,0,2048,2048
265.355,-2.77556e-17,0,2048,2048
265.402,-2.77556e-17,0,2048,2048
265.455,-2.77556e-17,0,2048,2048
265.502,-2.77556e-17,0,2048,2048
265.554,-2.77556e-17,0,2048,2048
265.601,-2.77556e-17,0,2048,2048
265.654,-2.77556e-17,0,2048,2048
265.701,-2.77556e-17,0,2048,2048
265.754,-2.77556e-17,0,2048,2048
265.8,-2.77556e-17,0,2048,2048
265.853,-2.77556e-17,0,2048,2048
265.9,-2.77556e-17,0,2048,2048
265.953,-2.77556e-17,0,2048,2048
266.005,-2.77556e-17,0,2048,2048
266.052,-2.77556e-17,0,2048,2048
266.105,-2.77556e-17,0,2048,2048
266.152,-2.77556e-17,0,2048,2048
266.205,-4.16334e-17,0,2048,2048
266.252,-4.16334e-17,0,2048,2048
266.304,-4.16334e-17,0,2048,2048
266.351,-4.16334e-17,0,2048,2048
266.404,-5.55112e-17,0,2048,2048
266.451,-2.77556e-17,0,2048,2048
266.503,-2.77556e-17,0,2048,2048
266.55,-2.77556e-17,0,2048,2048
266.603,-4.16334e-17,0,2048,2048
266.656,-2.77556e-17,0,2048,2048
266.703,-2.77556e-17,0,2048,2048
266.755,-2.77556e-17,0,2048,2048
266.802,-1.38778e-17,0,2048,2048
266.855,-1.38778e-17,0,2048,2048
266.902,-1.38778e-17,0,2048,2048
266.955,-2.77556e-17,0,2048,2048
267.001,-5.55112e-17,0,2048,2048
267.054,-5.55112e-17,0,2048,2048
267.101,-4.16334e-17,0,2048,2048
267.154,-4.16334e-17,0,2048,2048
267.201,-2.77556e-17,0,2048,2048
267.253,-2.77556e-17,0,2048,2048
267.3,-2.77556e-17,0,2048,2048
267.353,-4.16334e-17,0,2048,2048
267.406,-4.16334e-17,0,2048,2048
267.453,-2.77556e-17,0,2048,2048
267.505,-2.77556e-17,0,2048,2048
267.552,-1.38778e-17,0,2048,2048
267.605,-1.38778e-17,0,2048,2048
267.652,-1.38778e-17,0,2048,2048
267.704,-2.77556e-17,0,2048,2048
267.751,-2.77556e-17,0,2048,2048
267.804,-5.55112e-17,0,2048,2048
267.851,-4.16334e-17,0,2048,2048
267.904,-5.55112e-17,0,2048,2048
267.95,-5.55112e-17,0,2048,2048
268.003,-4.16334e-17,0,2048,2048
268.05,-4.16334e-17,0,2048,2048
268.103,-4.16334e-17,0,2048,2048
268.156,-1.38778e-17,0,2048,2048
268.202,-1.38778e-17,0,2048,2048
268.255,-1.38778e-17,0,2048,2048
268.302,-1.38778e-17,0,2048,2048
268.355,-2.77556e-17,0,2048,2048
268.402,-2.77556e-17,0,2048,2048
268.454,-2.77556e-17,0,2048,2048
268.501,-1.38778e-17,0,2048,2048
268.554,-1.38778e-17,0,2048,2048
268.601,-1.38778e-17,0,2048,2048
268.654,-1.38778e-17,0,2048,2048
268.7,-1.38778e-17,0,2048,2048
268.753,0,0,2048,2048
268.806,0,0,2048,2048
268.853,0,0,2048,2048
268.905,0,0,2048,2048
268.952,0,0,2048,2048
269.005,0,0,2048,2048
269.052,-1.38778e-17,0,2048,2048
269.105,0,0,2048,2048
269.151,0,0,2048,2048
269.204,0,0,2048,2048
269.251,0,0,2048,2048
269.304,1.38778e-17,0,2048,2048
269.351,1.38778e-17,0,2048,2048
269.403,1.38778e-17,0,2048,2048
269.45,1.38778e-17,0,2048,2048
269.503,1.38778e-17,0,2048,2048
269.556,1.38778e-17,0,2048,2048
269.603,0,0,2048,2048
269.655,0,0,2048,2048
269.702,1.38778e-17,0,2048,2048
269.755,1.38778e-17,0,2048,2048
269.802,0,0,2048,2048
269.855,-1.38778e-17,0,2048,2048
269.901,-1.38778e-17,0,2048,2048
269.954,-1.38778e-17,0,2048,2048
270.001,-1.38778e-17,0,2048,2048
270.054,-1.38778e-17,0,2048,2048
270.101,-1.38778e-17,0,2048,2048
270.153,-1.38778e-17,0,2048,2048
270.2,-1.38778e-17,0,2048,2048
270.253,-1.38778e-17,0,2048,2048
270.306,-1.38778e-17,0,2048,2048
270.352,-1.38778e-17,0,2048,2048
270.402,0,0,2050,2050
270.452,0,0,2070,2070
270.502,0,0,2098,2098
270.551,0,0,2126,2126
270.601,0,0,2146,2146
270.651,0,0,2182,2182
270.701,0,0,2218,2218
270.751,0,0,2262,2262
270.8,0,0,2302,2302
270.85,0,0,2338,2338
270.903,0,0,2382,2382
270.953,0,0,2430,2430
271.002,0,0,2458,2458
271.052,0,0,2506,2506
271.102,0,0,2550,2550
271.152,0,0,2590,2590
271.202,0,0,2634,2634
271.251,0,0,2670,2670
271.301,0,0,2718,2718
271.351,0,0,2754,2754
271.401,0,0,2802,2802
271.451,0,0,2830,2830
271.5,0,0,2836,2836
271.55,0,0,2848,2848
271.6,0,0,2852,2852
271.653,0,0,2864,2864
271.703,0,0,2844,2844
271.752,0,0,2874,2874
271.802,0,0,2902,2902
271.852,0,0,2930,2930
271.902,0,0,2974,2974
271.952,0,0,3018,3018
272.001,0,0,3062,3062
272.051,0,0,3094,3094
272.101,0,0,3138,3138
272.151,0,0,3186,3186
272.201,0,0,3222,3222
272.25,0,0,3262,3262
272.3,0,0,3302,3302
272.353,0,0,3338,3338
272.403,0,0,3382,3382
272.452,0,0,3430,3430
272.502,0,0,3462,3462
272.552,0,0,3518,3518
272.602,0,0,3554,3554
272.652,0,0,3602,3602
272.701,0,0,3630,3630
272.751,0,0,3674,3674
272.801,0,0,3730,3730
272.851,0,0,3758,3758
272.901,0,0,3786,3786
272.95,0,0,3842,3842
273,0,0,3890,3890
273.05,0,0,3914,3914
273.103,0,0,3942,3942
273.153,0,0,3956,3956
273.202,0,0,3952,3952
273.252,0,0,3952,3952
273.302,0,0,3936,3936
273.352,0,0,3940,3940
273.402,0,0,3932,3932
273.451,0,0,3948,3948
273.501,0,0,3924,3924
273.551,0,0,3944,3944
273.601,0,0,3916,3916
273.651,0,0,3936,3936
273.7,0,0,3928,3928
273.75,0,0,3912,3912
273.803,0,0,3924,3924
273.853,0,0,3904,3904
273.902,0,0,3924,3924
273.952,0,0,3900,3900
274.002,0,0,3904,3904
274.052,0,0,3912,3912
274.102,0,0,3896,3896
274.151,0,0,3908,3908
274.201,0,0,3900,3900
274.251,0,0,3892,3892
274.301,1.38778e-17,0,3892,3892
274.351,1.38778e-17,0,3900,3900
274.4,1.38778e-17,0,3876,3876
274.45,-1.38778e-16,0,3888,3888
274.503,-3.88578e-16,0,3888,3888
274.553,-5.96745e-16,0,3876,3876
274.603,-8.18789e-16,0,3872,3872
274.652,-1.19349e-15,0,3888,3888
274.702,-2.34535e-15,0,3884,3884
274.752,-5.96745e-15,0,3888,3888
274.802,-1.60566e-14,0,3884,3884
274.852,-4.24799e-14,0,3888,3888
274.902,-1.07067e-13,0,3900,3900
274.952,-2.54269e-13,0,3880,3880
275.002,-5.67893e-13,0,3880,3880
275.053,-1.19198e-12,0,3880,3880
275.1,-2.26567e-12,0,3872,3872
275.151,-4.22749e-12,0,3868,3868
275.202,-7.43249e-12,0,3868,3868
275.25,-1.19846e-11,0,3864,3864
275.302,-1.88115e-11,0,3880,3880
275.35,-2.72604e-11,0,3876,3876
275.402,-3.82228e-11,0,3876,3876
275.451,-4.98366e-11,0,3880,3880
275.502,-6.24051e-11,0,3892,3892
275.552,-7.30331e-11,0,3868,3868
275.601,-8.09457e-11,0,3876,3876
275.65,-8.47389e-11,0,3856,3856
275.703,-8.31248e-11,0,3864,3864
275.752,-7.5895e-11,0,3848,3848
275.802,-6.34569e-11,0,3816,3816
275.852,-4.67684e-11,0,3840,3840
275.902,-2.72754e-11,0,3836,3836
275.953,-6.53058e-12,0,3832,3832
276,1.27659e-11,0,3836,3836
276.051,3.20427e-11,0,3808,3808
276.102,4.9196e-11,0,3840,3840
276.153,6.38341e-11,0,3820,3820
276.201,7.52505e-11,0,3796,3796
276.252,8.51619e-11,0,3816,3816
276.3,9.26077e-11,0,3796,3796
276.352,9.89625e-11,0,3800,3800
276.4,1.03752e-10,0,3780,3780
276.452,1.0792e-10,0,3796,3796
276.501,1.1117e-10,0,3792,3792
276.55,1.13984e-10,0,3780,3780
276.603,1.16742e-10,0,3788,3788
276.652,1.19423e-10,0,3776,3776
276.702,1.2279e-10,0,3776,3776
276.752,1.27994e-10,0,3744,3744
276.802,1.37296e-10,0,3764,3764
276.852,1.54869e-10,0,3764,3764
276.902,1.88136e-10,0,3756,3756
276.952,2.49282e-10,0,3768,3768
277.003,3.57519e-10,0,3756,3756
277.05,5.25511e-10,0,3756,3756
277.101,8.12748e-10,0,3768,3768
277.152,1.25811e-09,0,3752,3752
277.203,1.91913e-09,0,3760,3760
277.251,2.78587e-09,0,3768,3768
277.303,4.04343e-09,0,3756,3756
277.351,5.57699e-09,0,3748,3748
277.403,7.65337e-09,0,3756,3756
277.452,1.00305e-08,0,3756,3756
277.5,1.28591e-08,0,3736,3736
277.553,1.64159e-08,0,3740,3740
277.602,2.02397e-08,0,3736,3736
277.651,2.45707e-08,0,3740,3740
277.701,2.94312e-08,0,3736,3736
277.751,3.48588e-08,0,3720,3720
277.801,4.09066e-08,0,3704,3704
277.851,4.76117e-08,0,3696,3696
277.901,5.50107e-08,0,3704,3704
277.952,6.31002e-08,0,3708,3708
278.003,7.18796e-08,0,3708,3708
278.05,8.06539e-08,0,3708,3708
278.101,9.06663e-08,0,3700,3700
278.153,1.09709e-07,0,3696,3696
278.2,1.41545e-07,0,3696,3696
278.252,1.79445e-07,0,3700,3700
278.3,2.18794e-07,0,3696,3696
278.352,2.65048e-07,0,3688,3688
278.401,3.12201e-07,0,3668,3668
278.453,3.67068e-07,0,3668,3668
278.501,4.2106e-07,0,3660,3660
278.55,4.78037e-07,0,3660,3660
278.602,5.4164e-07,0,3660,3660
278.651,6.02023e-07,0,3640,3640
278.704,6.67171e-07,0,3706,3706
278.753,7.25843e-07,0,3698,3698
278.801,7.81042e-07,0,3670,3670
278.85,8.30864e-07,0,3674,3674
278.903,8.76904e-07,0,3658,3658
278.952,9.11668e-07,0,3642,3642
279.002,9.38301e-07,0,3626,3626
279.051,9.56984e-07,0,3626,3626
279.1,9.68329e-07,0,3594,3594
279.153,9.74697e-07,0,3558,3558
279.203,9.78626e-07,0,3554,3554
279.252,9.79781e-07,0,3510,3510
279.302,9.79744e-07,0,3490,3490
279.352,9.77287e-07,0,3434,3434
279.402,9.72899e-07,0,3414,3414
279.452,9.44266e-07,0,3406,3406
279.501,9.062e-07,0,3358,3358
279.552,8.66776e-07,0,3354,3354
279.602,8.23296e-07,0,3294,3294
279.652,7.78211e-07,0,3254,3254
279.703,7.33055e-07,0,3218,3218
279.753,6.87325e-07,0,3170,3170
279.804,6.44261e-07,0,3138,3138
279.851,6.06294e-07,0,3118,3118
279.902,5.68535e-07,0,3066,3066
279.953,5.34238e-07,0,2986,2986
280.004,5.0274e-07,0,2926,2926
280.051,4.77112e-07,0,2906,2906
280.102,4.53254e-07,0,2850,2850
280.154,4.37283e-07,0,2712,2712
280.201,4.34816e-07,0,2614,2614
280.253,4.44555e-07,0,2490,2490
280.301,4.43322e-07,0,2530,2530
280.353,4.61173e-07,0,2542,2542
280.401,4.85339e-07,0,2654,2654
280.453,5.13883e-07,0,2706,2706
280.501,5.44877e-07,0,2726,2726
280.552,5.8169e-07,0,2750,2750
280.604,6.2119e-07,0,2814,2814
280.651,6.59971e-07,0,2838,2838
280.703,7.03806e-07,0,2866,2866
280.754,7.46677e-07,0,2914,2914
280.801,7.83354e-07,0,2930,2930
280.852,8.1803e-07,0,2950,2950
280.903,8.50666e-07,0,2970,2970
280.95,8.76017e-07,0,2986,2986
281.001,8.94215e-07,0,3002,3002
281.052,9.03919e-07,0,3046,3046
281.103,9.0661e-07,0,3070,3070
281.153,9.02687e-07,0,3102,3102
281.204,8.94736e-07,0,3110,3110
281.25,8.84224e-07,0,3146,3146
281.301,8.67432e-07,0,3162,3162
281.351,8.4896e-07,0,3186,3186
281.401,8.25071e-07,0,3238,3238
281.452,7.94561e-07,0,3262,3262
281.502,7.57146e-07,0,3294,3294
281.552,7.11725e-07,0,3322,3322
281.602,6.60674e-07,0,3350,3350
281.652,6.06e-07,0,3390,3390
281.702,5.49279e-07,0,3418,3418
281.751,4.92292e-07,0,3438,3438
281.801,4.35891e-07,0,3486,3486
281.851,3.81143e-07,0,3460,3460
281.9,3.29207e-07,0,3440,3440
281.953,2.76872e-07,0,3436,3436
282.003,2.31771e-07,0,3452,3452
282.052,1.90112e-07,0,3448,3448
282.102,1.51933e-07,0,3476,3476
282.151,1.17241e-07,0,3488,3488
282.204,8.37493e-08,0,3484,3484
282.253,5.62497e-08,0,3500,3500
282.302,3.21959e-08,0,3500,3500
282.351,1.13506e-08,0,3508,3508
282.403,-7.94783e-09,0,3524,3524
282.452,-2.33517e-08,0,3524,3524
282.501,-3.66244e-08,0,3532,3532
282.553,-4.87658e-08,0,3528,3528
282.602,-5.836e-08,0,3536,3536
282.65,-6.66269e-08,0,3532,3532
282.702,-7.37822e-08,0,3532,3532
282.751,-7.80311e-08,0,3540,3540
282.803,-7.94832e-08,0,3556,3556
282.851,-8.04829e-08,0,3544,3544
282.903,-8.08619e-08,0,3560,3560
282.951,-8.0514e-08,0,3568,3568
283.002,-7.94565e-08,0,3568,3568
283.053,-7.76981e-08,0,3576,3576
283.1,-7.55674e-08,0,3560,3560
283.151,-7.28211e-08,0,3576,3576
283.202,-6.97204e-08,0,3572,3572
283.252,-6.63426e-08,0,3568,3568
283.302,-6.27805e-08,0,3580,3580
283.352,-5.91221e-08,0,3576,3576
283.402,-5.54416e-08,0,3580,3580
283.451,-5.18084e-08,0,3588,3588
283.501,-4.8271e-08,0,3592,3592
283.553,-4.46343e-08,0,3600,3600
283.602,-4.14232e-08,0,3592,3592
283.651,-3.84167e-08,0,3612,3612
283.703,-3.54384e-08,0,3596,3596
283.752,-3.28978e-08,0,3608,3608
283.8,-3.05973e-08,0,3608,3608
283.852,-2.83983e-08,0,3624,3624
283.903,-2.64645e-08,0,3616,3616
283.951,-2.48888e-08,0,3608,3608
284.002,-2.34335e-08,0,3632,3632
284.052,-2.22011e-08,0,3624,3624
284.103,-2.11715e-08,0,3636,3636
284.15,-2.03782e-08,0,3636,3636
284.2,-1.9693e-08,0,3636,3636
284.25,-1.91615e-08,0,3652,3652
284.3,-1.87647e-08,0,3644,3644
284.35,-1.84852e-08,0,3664,3664
284.403,-1.82997e-08,0,3664,3664
284.452,-1.82177e-08,0,3644,3644
284.501,-1.82122e-08,0,3668,3668
284.55,-1.82724e-08,0,3664,3664
284.602,-1.83972e-08,0,3672,3672
284.651,-1.85606e-08,0,3676,3676
284.703,-1.87746e-08,0,3680,3680
284.751,-1.90049e-08,0,3696,3696
284.803,-1.92747e-08,0,3696,3696
284.851,-1.95437e-08,0,3696,3696
284.902,-1.98417e-08,0,3700,3700
284.952,-2.01456e-08,0,3708,3708
285.003,-2.04512e-08,0,3712,3712
285.05,-2.07362e-08,0,3716,3716
285.101,-2.10363e-08,0,3716,3716
285.151,-2.13301e-08,0,3736,3736
285.201,-2.16157e-08,0,3732,3732
285.251,-2.18921e-08,0,3720,3720
285.3,-2.21592e-08,0,3744,3744
285.353,-2.24336e-08,0,3744,3744
285.402,-2.26847e-08,0,3744,3744
285.452,-2.29313e-08,0,3748,3748
285.501,-2.31759e-08,0,3760,3760
285.552,-2.34371e-08,0,3760,3760
285.601,-2.36871e-08,0,3772,3772
285.653,-2.39606e-08,0,3780,3780
285.701,-2.42281e-08,0,3776,3776
285.752,-2.45263e-08,0,3800,3800
285.8,-2.48228e-08,0,3784,3784
285.851,-2.51571e-08,0,3804,3804
285.902,-2.55133e-08,0,3804,3804
285.953,-2.58924e-08,0,3812,3812
286.003,-2.62946e-08,0,3812,3812
286.05,-2.66939e-08,0,3828,3828
286.1,-2.71393e-08,0,3828,3828
286.15,-2.76052e-08,0,3828,3828
286.2,-2.809e-08,0,3836,3836
286.253,-2.86221e-08,0,3852,3852
286.303,-2.91397e-08,0,3844,3844
286.352,-2.96686e-08,0,3860,3860
286.402,-3.02058e-08,0,3864,3864
286.452,-3.07483e-08,0,3864,3864
286.502,-3.12935e-08,0,3868,3868
286.552,-3.18385e-08,0,3876,3876
286.601,-3.23804e-08,0,3864,3864
286.651,-3.2916e-08,0,3888,3888
286.701,-3.34417e-08,0,3892,3892
286.751,-3.39542e-08,0,3892,3892
286.801,-3.44503e-08,0,3896,3896
286.85,-3.49271e-08,0,3900,3900
286.9,-3.53821e-08,0,3896,3896
286.953,-3.58381e-08,0,3904,3904
287.003,-3.62431e-08,0,3920,3920
287.052,-3.66223e-08,0,3916,3916
287.102,-3.69758e-08,0,3912,3912
287.152,-3.73041e-08,0,3904,3904
287.202,-3.76083e-08,0,3916,3916
287.252,-3.78902e-08,0,3912,3912
287.301,-3.81519e-08,0,3932,3932
287.351,-3.8396e-08,0,3936,3936
287.401,-3.86256e-08,0,3924,3924
287.451,-3.88439e-08,0,3924,3924
287.501,-3.90545e-08,0,3936,3936
287.55,-3.92607e-08,0,3940,3940
287.6,-3.94662e-08,0,3928,3928
287.65,-3.96743e-08,0,3932,3932
287.703,-3.99011e-08,0,3928,3928
287.753,-4.01244e-08,0,3956,3956
287.802,-4.0359e-08,0,3928,3928
287.852,-4.06071e-08,0,3910,3910
287.902,-4.08703e-08,0,3862,3862
287.952,-4.11494e-08,0,3834,3834
288.002,-4.1445e-08,0,3790,3790
288.051,-4.1757e-08,0,3758,3758
288.101,-4.20845e-08,0,3698,3698
288.151,-4.24263e-08,0,3678,3678
288.201,-4.27807e-08,0,3622,3622
288.251,-4.31454e-08,0,3594,3594
288.3,-4.35178e-08,0,3538,3538
288.35,-4.38951e-08,0,3514,3514
288.403,-4.42965e-08,0,3462,3462
288.453,-4.46743e-08,0,3418,3418
288.502,-4.50474e-08,0,3370,3370
288.552,-4.54127e-08,0,3338,3338
288.602,-4.57669e-08,0,3294,3294
288.652,-4.61071e-08,0,3254,3254
288.702,-4.643e-08,0,3208,3208
288.751,-4.67329e-08,0,3220,3220
288.801,-4.70131e-08,0,3208,3208
288.851,-4.72682e-08,0,3212,3212
288.901,-4.74962e-08,0,3208,3208
288.951,-4.76954e-08,0,3212,3212
289,-4.78645e-08,0,3206,3206
289.05,-4.80027e-08,0,3170,3170
289.1,-4.81098e-08,0,3122,3122
289.153,-4.81893e-08,0,3074,3074
289.203,-4.82331e-08,0,3038,3038
289.252,-4.82475e-08,0,2990,2990
289.302,-4.8234e-08,0,2946,2946
289.352,-4.8194e-08,0,2906,2906
289.402,-4.81294e-08,0,2870,2870
289.452,-4.8042e-08,0,2822,2822
289.501,-4.79338e-08,0,2778,2778
289.551,-4.78069e-08,0,2738,2738
289.601,-4.76633e-08,0,2694,2694
289.651,-4.7505e-08,0,2654,2654
289.701,-4.73341e-08,0,2618,2618
289.75,-4.71523e-08,0,2570,2570
289.8,-4.69616e-08,0,2534,2534
289.853,-4.67517e-08,0,2478,2478
289.903,-4.65475e-08,0,2438,2438
289.952,-4.63391e-08,0,2394,2394
290.002,-4.61276e-08,0,2354,2354
290.052,-4.59144e-08,0,2310,2310
290.102,-4.57005e-08,0,2270,2270
290.152,-4.54867e-08,0,2230,2230
290.201,-4.52739e-08,0,2178,2178
290.251,-4.50628e-08,0,2130,2130
290.301,-4.48537e-08,0,2102,2102
290.352,-4.46421e-08,0,2058,2058
290.404,-4.44304e-08,0,2048,2048
290.451,-4.42412e-08,0,2048,2048
290.503,-4.40315e-08,0,2048,2048
290.55,-4.38479e-08,0,2048,2048
290.603,-4.36445e-08,0,2048,2048
290.656,-4.34441e-08,0,2048,2048
290.703,-4.32685e-08,0,2048,2048
290.755,-4.30733e-08,0,2048,2048
290.802,-4.29016e-08,0,2048,2048
290.855,-4.27103e-08,0,2048,2048
290.902,-4.25413e-08,0,2048,2048
290.954,-4.23522e-08,0,2048,2048
291.001,-4.21846e-08,0,2048,2048
291.054,-4.1996e-08,0,2048,2048
291.101,-4.18279e-08,0,2048,2048
291.154,-4.16379e-08,0,2048,2048
291.201,-4.14676e-08,0,2048,2048
291.253,-4.1274e-08,0,2048,2048
291.3,-4.10996e-08,0,2048,2048
291.353,-4.09003e-08,0,2048,2048
291.406,-4.06972e-08,0,2048,2048
291.452,-4.0513e-08,0,2048,2048
291.505,-4.03012e-08,0,2048,2048
291.552,-4.01084e-08,0,2048,2048
291.605,-3.98859e-08,0,2048,2048
291.652,-3.96827e-08,0,2048,2048
291.704,-3.94476e-08,0,2048,2048
291.751,-3.92321e-08,0,2048,2048
291.804,-3.89817e-08,0,2048,2048
291.851,-3.87513e-08,0,2048,2048
291.904,-3.84821e-08,0,2048,2048
291.95,-3.82329e-08,0,2048,2048
292.003,-3.79395e-08,0,2048,2048
292.056,-3.76301e-08,0,2048,2048
292.103,-3.73397e-08,0,2048,2048
292.155,-3.69928e-08,0,2048,2048
292.202,-3.66641e-08,0,2048,2048
292.255,-3.62688e-08,0,2048,2048
292.302,-3.58922e-08,0,2048,2048
292.355,-3.54377e-08,0,2048,2048
292.401,-3.50044e-08,0,2048,2048
292.454,-3.44821e-08,0,2048,2048
292.501,-3.39858e-08,0,2048,2048
292.554,-3.33907e-08,0,2048,2048
292.601,-3.28288e-08,0,2048,2048
292.653,-3.21602e-08,0,2048,2048
292.7,-3.15344e-08,0,2048,2048
292.753,-3.07966e-08,0,2048,2048
292.806,-3.00256e-08,0,2048,2048
292.853,-2.93148e-08,0,2048,2048
292.905,-2.84898e-08,0,2048,2048
292.952,-2.7737e-08,0,2048,2048
293.005,-2.6872e-08,0,2048,2048
293.052,-2.60904e-08,0,2048,2048
293.105,-2.52011e-08,0,2048,2048
293.151,-2.44051e-08,0,2048,2048
293.204,-2.35079e-08,0,2048,2048
293.251,-2.27124e-08,0,2048,2048
293.304,-2.18242e-08,0,2048,2048
293.351,-2.10443e-08,0,2048,2048
293.403,-2.01818e-08,0,2048,2048
293.45,-1.94316e-08,0,2048,2048
293.503,-1.86097e-08,0,2048,2048
293.556,-1.78145e-08,0,2048,2048
293.602,-1.71321e-08,0,2048,2048
293.655,-1.63937e-08,0,2048,2048
293.702,-1.57644e-08,0,2048,2048
293.755,-1.50872e-08,0,2048,2048
293.802,-1.45124e-08,0,2048,2048
293.854,-1.38953e-08,0,2048,2048
293.901,-1.33715e-08,0,2048,2048
293.954,-1.2808e-08,0,2048,2048
294.001,-1.23275e-08,0,2048,2048
294.054,-1.18066e-08,0,2048,2048
294.1,-1.13579e-08,0,2048,2048
294.153,-1.08652e-08,0,2048,2048
294.2,-1.04345e-08,0,2048,2048
294.253,-9.9539e-09,0,2048,2048
294.306,-9.47322e-09,0,2048,2048
294.352,-9.04238e-09,0,2048,2048
294.405,-8.55014e-09,0,2048,2048
294.452,-8.10319e-09,0,2048,2048
294.505,-7.58718e-09,0,2048,2048
294.552,-7.11502e-09,0,2048,2048
294.604,-6.56724e-09,0,2048,2048
294.651,-6.06488e-09,0,2048,2048
294.704,-5.48224e-09,0,2048,2048
294.751,-4.9492e-09,0,2048,2048
294.803,-4.33363e-09,0,2048,2048
294.85,-3.77373e-09,0,2048,2048
294.903,-3.13167e-09,0,2048,2048
294.956,-2.47941e-09,0,2048,2048
295.003,-1.89359e-09,0,2048,2048
295.055,-1.23084e-09,0,2048,2048
295.102,-6.41176e-10,0,2048,2048
295.155,1.94423e-11,0,2048,2048
295.202,6.01236e-10,0,2048,2048
295.255,1.24601e-09,0,2048,2048
295.301,1.80724e-09,0,2048,2048
295.354,2.42122e-09,0,2048,2048
295.401,2.948e-09,0,2048,2048
295.454,3.51513e-09,0,2048,2048
295.501,3.99314e-09,0,2048,2048
295.553,4.49773e-09,0,2048,2048
295.6,4.9139e-09,0,2048,2048
295.653,5.34283e-09,0,2048,2048
295.706,5.72782e-09,0,2048,2048
295.753,6.03171e-09,0,2048,2048
295.805,6.32952e-09,0,2048,2048
295.852,6.55483e-09,0,2048,2048
295.905,6.76436e-09,0,2048,2048
295.952,6.91245e-09,0,2048,2048
296.004,7.03781e-09,0,2048,2048
296.051,7.11454e-09,0,2048,2048
296.104,7.16461e-09,0,2048,2048
296.151,7.17963e-09,0,2048,2048
296.204,7.1668e-09,0,2048,2048
296.251,7.13198e-09,0,2048,2048
296.303,7.07e-09,0,2048,2048
296.35,6.99753e-09,0,2048,2048
296.403,6.89974e-09,0,2048,2048
296.456,6.78802e-09,0,2048,2048
296.502,6.67973e-09,0,2048,2048
296.555,6.55077e-09,0,2048,2048
296.602,6.43229e-09,0,2048,2048
296.655,6.29748e-09,0,2048,2048
296.702,6.17862e-09,0,2048,2048
296.754,6.04844e-09,0,2048,2048
296.801,5.93777e-09,0,2048,2048
296.854,5.8208e-09,0,2048,2048
296.901,5.72482e-09,0,2048,2048
296.954,5.62702e-09,0,2048,2048
297,5.54985e-09,0,2048,2048
297.053,5.47452e-09,0,2048,2048
297.1,5.41793e-09,0,2048,2048
297.153,5.36586e-09,0,2048,2048
297.205,5.32566e-09,0,2048,2048
297.252,5.29935e-09,0,2048,2048
297.305,5.27947e-09,0,2048,2048
297.352,5.26955e-09,0,2048,2048
297.405,5.26584e-09,0,2048,2048
297.452,5.26801e-09,0,2048,2048
297.504,5.27513e-09,0,2048,2048
297.551,5.28432e-09,0,2048,2048
297.604,5.29637e-09,0,2048,2048
297.651,5.30739e-09,0,2048,2048
297.703,5.3188e-09,0,2048,2048
297.75,5.32707e-09,0,2048,2048
297.803,5.33324e-09,0,2048,2048
297.856,5.33523e-09,0,2048,2048
297.903,5.33292e-09,0,2048,2048
297.955,5.32531e-09,0,2048,2048
298.002,5.31386e-09,0,2048,2048
298.055,5.29566e-09,0,2048,2048
298.102,5.27486e-09,0,2048,2048
298.155,5.2466e-09,0,2048,2048
298.201,5.21755e-09,0,2048,2048
298.254,5.18107e-09,0,2048,2048
298.301,5.14584e-09,0,2048,2048
298.354,5.10381e-09,0,2048,2048
298.401,5.06496e-09,0,2048,2048
298.453,5.02038e-09,0,2048,2048
298.5,4.98063e-09,0,2048,2048
298.553,4.93656e-09,0,2048,2048
298.606,4.89399e-09,0,2048,2048
298.653,4.85811e-09,0,2048,2048
298.705,4.82068e-09,0,2048,2048
298.752,4.79062e-09,0,2048,2048
298.805,4.76102e-09,0,2048,2048
298.852,4.73888e-09,0,2048,2048
298.904,4.71903e-09,0,2048,2048
298.951,4.70606e-09,0,2048,2048
299.004,4.69676e-09,0,2048,2048
299.051,4.69309e-09,0,2048,2048
299.104,4.69383e-09,0,2048,2048
299.151,4.69844e-09,0,2048,2048
299.203,4.70753e-09,0,2048,2048
299.25,4.71854e-09,0,2048,2048
299.303,4.73351e-09,0,2048,2048
299.356,4.75046e-09,0,2048,2048
299.402,4.76656e-09,0,2048,2048
299.455,4.78517e-09,0,2048,2048
299.502,4.8016e-09,0,2048,2048
299.555,4.81943e-09,0,2048,2048
299.602,4.83429e-09,0,2048,2048
299.654,4.84952e-09,0,2048,2048
299.701,4.86147e-09,0,2048,2048
299.754,4.87292e-09,0,2048,2048
299.801,4.88119e-09,0,2048,2048
299.854,4.88823e-09,0,2048,2048
299.9,4.89243e-09,0,2048,2048
299.953,4.8948e-09,0,2048,2048
300.006,4.89464e-09,0,2048,2048
300.053,4.89237e-09,0,2048,2048
300.105,4.88739e-09,0,2048,2048
300.152,4.88081e-09,0,2048,2048
300.205,4.87099e-09,0,2048,2048
300.252,4.86011e-09,0,2048,2048
300.305,4.84547e-09,0,2048,2048
300.352,4.83036e-09,0,2048,2048
300.404,4.81102e-09,0,2048,2048
300.451,4.79182e-09,0,2048,2048
300.504,4.76799e-09,0,2048,2048
300.551,4.7449e-09,0,2048,2048
300.603,4.71686e-09,0,2048,2048
300.65,4.69018e-09,0,2048,2048
300.703,4.65827e-09,0,2048,2048
300.756,4.62448e-09,0,2048,2048
300.803,4.59298e-09,0,2048,2048
300.855,4.556e-09,0,2048,2048
300.902,4.5219e-09,0,2048,2048
300.955,4.48226e-09,0,2048,2048
301.002,4.44603e-09,0,2048,2048
301.055,4.4043e-09,0,2048,2048
301.101,4.36645e-09,0,2048,2048
301.154,4.32316e-09,0,2048,2048
301.201,4.28416e-09,0,2048,2048
301.254,4.23981e-09,0,2048,2048
301.301,4.20007e-09,0,2048,2048
301.353,4.15508e-09,0,2048,2048
301.4,4.11492e-09,0,2048,2048
301.453,4.0696e-09,0,2048,2048
301.506,4.0242e-09,0,2048,2048
301.552,3.9838e-09,0,2048,2048
301.605,3.93833e-09,0,2048,2048
301.652,3.8979e-09,0,2048,2048
301.705,3.85242e-09,0,2048,2048
301.752,3.81198e-09,0,2048,2048
301.804,3.76646e-09,0,2048,2048
301.851,3.72596e-09,0,2048,2048
301.904,3.68032e-09,0,2048,2048
301.951,3.63967e-09,0,2048,2048
302.004,3.5938e-09,0,2048,2048
302.05,3.55289e-09,0,2048,2048
302.103,3.50666e-09,0,2048,2048
302.15,3.46537e-09,0,2048,2048
302.203,3.41867e-09,0,2048,2048
302.256,3.37166e-09,0,2048,2048
302.302,3.32959e-09,0,2048,2048
302.355,3.28194e-09,0,2048,2048
302.402,3.23927e-09,0,2048,2048
302.455,3.1909e-09,0,2048,2048
302.502,3.14757e-09,0,2048,2048
302.554,3.09846e-09,0,2048,2048
302.601,3.05447e-09,0,2048,2048
302.654,3.00461e-09,0,2048,2048
302.701,2.95998e-09,0,2048,2048
302.753,2.90944e-09,0,2048,2048
302.8,2.86423e-09,0,2048,2048
302.853,2.81309e-09,0,2048,2048
302.906,2.76168e-09,0,2048,2048
302.953,2.71579e-09,0,2048,2048
303.005,2.66399e-09,0,2048,2048
303.052,2.61783e-09,0,2048,2048
303.105,2.56582e-09,0,2048,2048
303.152,2.51955e-09,0,2048,2048
303.205,2.46751e-09,0,2048,2048
303.251,2.4213e-09,0,2048,2048
303.304,2.36942e-09,0,2048,2048
303.351,2.32345e-09,0,2048,2048
303.404,2.27192e-09,0,2048,2048
303.451,2.22633e-09,0,2048,2048
303.503,2.17532e-09,0,2048,2048
303.55,2.13027e-09,0,2048,2048
303.603,2.07992e-09,0,2048,2048
303.656,2.02998e-09,0,2048,2048
303.703,1.98595e-09,0,2048,2048
303.755,1.93683e-09,0,2048,2048
303.802,1.89356e-09,0,2048,2048
303.855,1.84534e-09,0,2048,2048
303.902,1.80288e-09,0,2048,2048
303.954,1.75557e-09,0,2048,2048
304.001,1.71394e-09,0,2048,2048
304.054,1.66756e-09,0,2048,2048
304.101,1.62673e-09,0,2048,2048
304.154,1.58125e-09,0,2048,2048
304.201,1.5412e-09,0,2048,2048
304.253,1.49657e-09,0,2048,2048
304.3,1.45726e-09,0,2048,2048
304.353,1.41342e-09,0,2048,2048
304.406,1.36998e-09,0,2048,2048
304.452,1.33168e-09,0,2048,2048
304.505,1.28893e-09,0,2048,2048
304.552,1.25122e-09,0,2048,2048
304.605,1.20911e-09,0,2048,2048
304.652,1.17193e-09,0,2048,2048
304.704,1.1304e-09,0,2048,2048
304.751,1.09372e-09,0,2048,2048
304.804,1.05273e-09,0,2048,2048
304.851,1.01652e-09,0,2048,2048
304.904,9.76055e-10,0,2048,2048
304.95,9.40313e-10,0,2048,2048
