250,0,0,131072,131072
250.001,0,0,131072,131072
250.051,0,0,131072,131072
250.1,0,0,131072,131072
250.15,0,0,131072,131072
250.201,0,0,131072,131072
250.25,0,0,131072,131072
250.3,0,0,131072,131072
250.35,0,0,131072,131072
250.401,0,0,131072,131072
250.45,0,0,131072,131072
250.5,0,0,131072,131072
250.551,0,0,131072,131072
250.6,0,0,131072,131072
250.65,0,0,131072,131072
250.7,0,0,131072,131072
250.751,0,0,131072,131072
250.8,0,0,131072,131072
250.85,0,0,131072,131072
250.9,0,0,131072,131072
250.951,0,0,131072,131072
251,0,0,131072,131072
251.05,0,0,131072,131072
251.101,0,0,131072,131072
251.15,0,0,131072,131072
251.2,0,0,131072,131072
251.25,0,0,131072,131072
251.301,0,0,131072,131072
251.35,0,0,131072,131072
251.4,0,0,131072,131072
251.451,0,0,131072,131072
251.501,0,0,131072,131072
251.55,0,0,131072,131072
251.6,0,0,131072,131072
251.651,0,0,131072,131072
251.7,0,0,131072,131072
251.75,0,0,131072,131072
251.8,0,0,131072,131072
251.851,0,0,131072,131072
251.9,0,0,131072,131072
251.95,0,0,131072,131072
252.001,0,0,131072,131072
252.05,0,0,131072,131072
252.1,0,0,131072,131072
252.15,0,0,131072,131072
252.201,0,0,131072,131072
252.25,0,0,131072,131072
252.3,0,0,131072,131072
252.351,0,0,131072,131072
252.401,0,0,131072,131072
252.45,0,0,131072,131072
252.5,0,0,131072,131072
252.551,0,0,131072,131072
252.6,0,0,131072,131072
252.65,0,0,131072,131072
252.7,0,0,131072,131072
252.751,0,0,131072,131072
252.8,0,0,131072,131072
252.85,0,0,131072,131072
252.901,0,0,131072,131072
252.95,0,0,131072,131072
253,0,0,131072,131072
253.05,0,0,131072,131072
253.101,0,0,131072,131072
253.15,0,0,131072,131072
253.2,0,0,131072,131072
253.25,0,0,131072,131072
253.301,0,0,131072,131072
253.35,0,0,131072,131072
253.4,0,0,131072,131072
253.451,0,0,131072,131072
253.5,0,0,131072,131072
253.55,0,0,131072,131072
253.6,0,0,131072,131072
253.651,0,0,131072,131072
253.7,-2.77556e-17,0,131072,131072
253.75,0,0,131072,131072
253.801,2.77556e-17,0,131072,131072
253.851,2.77556e-17,0,131072,131072
253.9,2.77556e-17,0,131072,131072
253.95,2.77556e-17,0,131072,131072
254.001,-2.77556e-17,0,131072,131072
254.05,0,0,131072,131072
254.1,0,0,131072,131072
254.15,0,0,131072,131072
254.201,0,0,131072,131072
254.25,0,0,131072,131072
254.3,0,0,131072,131072
254.351,0,0,131072,131072
254.4,0,0,131072,131072
254.45,0,0,131072,131072
254.5,0,0,131072,131072
254.551,0,0,131072,131072
254.6,0,0,131072,131072
254.65,0,0,131072,131072
254.701,0,0,131072,131072
254.751,0,0,131072,131072
254.8,0,0,131072,131072
254.85,0,0,131072,131072
254.901,0,0,131072,131072
254.95,0,0,131072,131072
255,0,0,131072,131072
255.05,0,0,131072,131072
255.101,0,0,131072,131072
255.15,0,0,131072,131072
255.2,0,0,131072,131072
255.251,0,0,131072,131072
255.3,0,0,131072,131072
255.35,0,0,131072,131072
255.4,0,0,131072,131072
255.451,0,0,131072,131072
255.5,0,0,131072,131072
255.55,0,0,131072,131072
255.6,2.77556e-17,0,131072,131072
255.651,2.77556e-17,0,131072,131072
255.7,2.77556e-17,0,131072,131072
255.75,2.77556e-17,0,131072,131072
255.801,2.77556e-17,0,131072,131072
255.85,2.77556e-17,0,131072,131072
255.9,2.77556e-17,0,131072,131072
255.95,0,0,131072,131072
256.001,0,0,131072,131072
256.05,0,0,131072,131072
256.1,0,0,131072,131072
256.151,0,0,131072,131072
256.201,0,0,131072,131072
256.25,0,0,131072,131072
256.3,0,0,131072,131072
256.351,0,0,131072,131072
256.4,0,0,131072,131072
256.45,0,0,131072,131072
256.5,0,0,131072,131072
256.551,0,0,131072,131072
256.6,0,0,131072,131072
256.65,0,0,131072,131072
256.701,0,0,131072,131072
256.75,0,0,131072,131072
256.8,-2.77556e-17,0,131072,131072
256.85,0,0,131072,131072
256.901,0,0,131072,131072
256.95,0,0,131072,131072
257,0,0,131072,131072
257.051,2.77556e-17,0,131072,131072
257.101,2.77556e-17,0,131072,131072
257.15,2.77556e-17,0,131072,131072
257.2,2.77556e-17,0,131072,131072
257.251,2.77556e-17,0,131072,131072
257.3,2.77556e-17,0,131072,131072
257.35,2.77556e-17,0,131072,131072
257.4,0,0,131072,131072
257.451,0,0,131072,131072
257.5,0,0,131072,131072
257.55,0,0,131072,131072
257.601,0,0,131072,131072
257.65,0,0,131072,131072
257.7,0,0,131072,131072
257.75,-2.77556e-17,0,131072,131072
257.801,0,0,131072,131072
257.85,0,0,131072,131072
257.9,0,0,131072,131072
257.95,0,0,131072,131072
258.001,0,0,131072,131072
258.05,0,0,131072,131072
258.1,0,0,131072,131072
258.151,2.77556e-17,0,131072,131072
258.2,8.32667e-17,0,131072,131072
258.25,8.32667e-17,0,131072,131072
258.3,5.55112e-17,0,131072,131072
258.351,5.55112e-17,0,131072,131072
258.4,5.55112e-17,0,131072,131072
258.45,5.55112e-17,0,131072,131072
258.501,5.55112e-17,0,131072,131072
258.551,5.55112e-17,0,131072,131072
258.6,5.55112e-17,0,131072,131072
258.65,5.55112e-17,0,131072,131072
258.701,0,0,131072,131072
258.75,0,0,131072,131072
258.8,0,0,131072,131072
258.85,-5.55112e-17,0,131072,131072
258.901,-8.32667e-17,0,131072,131072
258.95,-1.11022e-16,0,131072,131072
259,-5.55112e-17,0,131072,131072
259.051,-2.77556e-17,0,131072,131072
259.1,0,0,131072,131072
259.15,0,0,131072,131072
259.2,0,0,131072,131072
259.251,0,0,131072,131072
259.3,0,0,131072,131072
259.35,0,0,131072,131072
259.401,0,0,131072,131072
259.451,-2.77556e-17,0,131072,131072
259.5,0,0,131072,131072
259.55,0,0,131072,131072
259.601,0,0,131072,131072
259.65,2.77556e-17,0,131072,131072
259.7,2.77556e-17,0,131072,131072
259.75,2.77556e-17,0,131072,131072
259.801,2.77556e-17,0,131072,131072
259.85,2.77556e-17,0,131072,131072
259.9,0,0,131072,131072
259.951,0,0,131072,131072
260,-2.77556e-17,0,131072,131072
260.05,-2.77556e-17,0,131072,131072
260.1,0,0,131072,131072
260.151,-2.77556e-17,0,131072,131072
260.2,-2.77556e-17,0,131072,131072
260.25,-5.55112e-17,0,131072,131072
260.3,-2.77556e-17,0,131072,131072
260.351,-2.77556e-17,0,131072,131072
260.4,-2.77556e-17,0,131072,131072
260.45,-5.55112e-17,0,131072,131072
260.501,-5.55112e-17,0,131072,131072
260.55,-2.77556e-17,0,131072,131072
260.6,-2.77556e-17,0,131072,131072
260.65,-2.77556e-17,0,131072,131072
260.701,-2.77556e-17,0,131072,131072
260.75,-2.77556e-17,0,131072,131072
260.8,-5.55112e-17,0,131072,131072
260.851,-2.77556e-17,0,131072,131072
260.9,-5.55112e-17,0,131072,131072
260.95,-5.55112e-17,0,131072,131072
261,-5.55112e-17,0,131072,131072
261.051,-5.55112e-17,0,131072,131072
261.1,-5.55112e-17,0,131072,131072
261.15,-5.55112e-17,0,131072,131072
261.2,0,0,131072,131072
261.251,-2.77556e-17,0,131072,131072
261.3,-2.77556e-17,0,131072,131072
261.35,-2.77556e-17,0,131072,131072
261.401,-2.77556e-17,0,131072,131072
261.45,0,0,131072,131072
261.5,2.77556e-17,0,131072,131072
261.55,0,0,131072,131072
261.601,0,0,131072,131072
261.65,0,0,131072,131072
261.7,0,0,131072,131072
261.751,0,0,131072,131072
261.801,-5.55112e-17,0,131072,131072
261.85,-5.55112e-17,0,131072,131072
261.9,-2.77556e-17,0,131072,131072
261.951,2.77556e-17,0,131072,131072
262,-2.77556e-17,0,131072,131072
262.05,0,0,131072,131072
262.1,2.77556e-17,0,131072,131072
262.151,2.77556e-17,0,131072,131072
262.2,2.77556e-17,0,131072,131072
262.25,5.55112e-17,0,131072,131072
262.301,5.55112e-17,0,131072,131072
262.35,5.55112e-17,0,131072,131072
262.4,5.55112e-17,0,131072,131072
262.45,2.77556e-17,0,131072,131072
262.501,-5.55112e-17,0,131072,131072
262.55,-5.55112e-17,0,131072,131072
262.6,-2.77556e-17,0,131072,131072
262.651,2.77556e-17,0,131072,131072
262.701,-2.77556e-17,0,131072,131072
262.75,-2.77556e-17,0,131072,131072
262.8,0,0,131072,131072
262.851,0,0,131072,131072
262.9,2.77556e-17,0,131072,131072
262.95,2.77556e-17,0,131072,131072
263,2.77556e-17,0,131072,131072
263.051,-2.77556e-17,0,131072,131072
263.1,-2.77556e-17,0,131072,131072
263.15,2.77556e-17,0,131072,131072
263.201,5.55112e-17,0,131072,131072
263.25,5.55112e-17,0,131072,131072
263.3,5.55112e-17,0,131072,131072
263.35,5.55112e-17,0,131072,131072
263.401,5.55112e-17,0,131072,131072
263.45,2.77556e-17,0,131072,131072
263.5,2.77556e-17,0,131072,131072
263.55,-2.77556e-17,0,131072,131072
263.601,-2.77556e-17,0,131072,131072
263.65,-5.55112e-17,0,131072,131072
263.7,-2.77556e-17,0,131072,131072
263.751,-2.77556e-17,0,131072,131072
263.8,0,0,131072,131072
263.85,0,0,131072,131072
263.9,0,0,131072,131072
263.951,0,0,131072,131072
264,0,0,131072,131072
264.05,2.77556e-17,0,131072,131072
264.101,-2.77556e-17,0,131072,131072
264.151,-2.77556e-17,0,131072,131072
264.2,-2.77556e-17,0,131072,131072
264.25,-5.55112e-17,0,131072,131072
264.301,-2.77556e-17,0,131072,131072
264.35,-2.77556e-17,0,131072,131072
264.4,0,0,131072,131072
264.45,2.77556e-17,0,131072,131072
264.501,2.77556e-17,0,131072,131072
264.55,2.77556e-17,0,131072,131072
264.6,2.77556e-17,0,131072,131072
264.651,2.77556e-17,0,131072,131072
264.7,0,0,131072,131072
264.75,-2.77556e-17,0,131072,131072
264.8,-5.55112e-17,0,131072,131072
264.851,0,0,131072,131072
264.9,0,0,131072,131072
264.95,0,0,131072,131072
265.001,0,0,131072,131072
265.051,0,0,131072,131072
265.1,0,0,131072,131072
265.15,2.77556e-17,0,131072,131072
265.201,5.55112e-17,0,131072,131072
265.25,5.55112e-17,0,131072,131072
265.3,5.55112e-17,0,131072,131072
265.35,5.55112e-17,0,131072,131072
265.401,5.55112e-17,0,131072,131072
265.45,5.55112e-17,0,131072,131072
265.5,5.55112e-17,0,131072,131072
265.551,-5.55112e-17,0,131072,131072
265.6,-2.77556e-17,0,131072,131072
265.65,-2.77556e-17,0,131072,131072
265.7,-2.77556e-17,0,131072,131072
265.751,-2.77556e-17,0,131072,131072
265.8,0,0,131072,131072
265.85,-2.77556e-17,0,131072,131072
265.9,0,0,131072,131072
265.951,0,0,131072,131072
266,-2.77556e-17,0,131072,131072
266.05,-2.77556e-17,0,131072,131072
266.101,-2.77556e-17,0,131072,131072
266.15,-2.77556e-17,0,131072,131072
266.2,0,0,131072,131072
266.25,-2.77556e-17,0,131072,131072
266.301,0,0,131072,131072
266.35,5.55112e-17,0,131072,131072
266.4,5.55112e-17,0,131072,131072
266.451,1.11022e-16,0,131072,131072
266.501,1.11022e-16,0,131072,131072
266.55,1.11022e-16,0,131072,131072
266.6,8.32667e-17,0,131072,131072
266.651,8.32667e-17,0,131072,131072
266.7,8.32667e-17,0,131072,131072
266.75,8.32667e-17,0,131072,131072
266.8,8.32667e-17,0,131072,131072
266.851,8.32667e-17,0,131072,131072
266.9,8.32667e-17,0,131072,131072
266.95,8.32667e-17,0,131072,131072
267.001,8.32667e-17,0,131072,131072
267.05,2.77556e-17,0,131072,131072
267.1,2.77556e-17,0,131072,131072
267.15,2.77556e-17,0,131072,131072
267.201,2.77556e-17,0,131072,131072
267.25,2.77556e-17,0,131072,131072
267.3,2.77556e-17,0,131072,131072
267.351,2.77556e-17,0,131072,131072
267.401,2.77556e-17,0,131072,131072
267.45,2.77556e-17,0,131072,131072
267.5,2.77556e-17,0,131072,131072
267.551,2.77556e-17,0,131072,131072
267.6,2.77556e-17,0,131072,131072
267.65,2.77556e-17,0,131072,131072
267.7,0,0,131072,131072
267.751,0,0,131072,131072
267.8,2.77556e-17,0,131072,131072
267.85,2.77556e-17,0,131072,131072
267.901,2.77556e-17,0,131072,131072
267.95,2.77556e-17,0,131072,131072
268,2.77556e-17,0,131072,131072
268.05,2.77556e-17,0,131072,131072
268.101,0,0,131072,131072
268.15,0,0,131072,131072
268.2,-5.55112e-17,0,131072,131072
268.25,-5.55112e-17,0,131072,131072
268.301,0,0,131072,131072
268.35,-5.55112e-17,0,131072,131072
268.4,-8.32667e-17,0,131072,131072
268.451,-2.77556e-17,0,131072,131072
268.5,-2.77556e-17,0,131072,131072
268.55,-2.77556e-17,0,131072,131072
268.6,0,0,131072,131072
268.651,0,0,131072,131072
268.7,2.77556e-17,0,131072,131072
268.75,2.77556e-17,0,131072,131072
268.801,2.77556e-17,0,131072,131072
268.851,2.77556e-17,0,131072,131072
268.9,2.77556e-17,0,131072,131072
268.95,2.77556e-17,0,131072,131072
269.001,0,0,131072,131072
269.05,0,0,131072,131072
269.1,0,0,131072,131072
269.15,2.77556e-17,0,131072,131072
269.201,2.77556e-17,0,131072,131072
269.25,0,0,131072,131072
269.3,2.77556e-17,0,131072,131072
269.351,2.77556e-17,0,131072,131072
269.4,2.77556e-17,0,131072,131072
269.45,2.77556e-17,0,131072,131072
269.5,0,0,131072,131072
269.551,2.77556e-17,0,131072,131072
269.6,8.32667e-17,0,131072,131072
269.65,5.55112e-17,0,131072,131072
269.701,5.55112e-17,0,131072,131072
269.751,5.55112e-17,0,131072,131072
269.8,5.55112e-17,0,131072,131072
269.85,8.32667e-17,0,131072,131072
269.901,8.32667e-17,0,131072,131072
269.95,8.32667e-17,0,131072,131072
270,8.32667e-17,0,131072,131072
270.05,8.32667e-17,0,131072,131072
270.101,1.11022e-16,0,131072,131072
270.15,1.66533e-16,0,131072,131072
270.2,1.11022e-16,0,131072,131072
270.251,1.11022e-16,0,131072,131072
270.3,1.11022e-16,0,131072,131072
270.35,1.11022e-16,0,131072,131072
270.4,2.77556e-17,0,131072,131072
270.451,2.77556e-17,0,131072,131072
270.5,2.77556e-17,0,131072,131072
270.55,0,0,131072,131072
270.6,0,0,131072,131072
270.651,0,0,131072,131072
270.7,0,0,131072,131072
270.75,0,0,131072,131072
270.801,0,0,131072,131072
270.85,0,0,131072,131072
270.9,0,0,131072,131072
270.95,0,0,131072,131072
271.001,0,0,131072,131072
271.05,0,0,131072,131072
271.1,0,0,131072,131072
271.151,0,0,131072,131072
271.201,0,0,131072,131072
271.25,0,0,131072,131072
271.3,0,0,131072,131072
271.351,0,0,131072,131072
271.4,0,0,131072,131072
271.45,5.55112e-17,0,131072,131072
271.5,5.55112e-17,0,131072,131072
271.551,5.55112e-17,0,131072,131072
271.6,5.55112e-17,0,131072,131072
271.65,5.55112e-17,0,131072,131072
271.701,5.55112e-17,0,131072,131072
271.75,5.55112e-17,0,131072,131072
271.8,5.55112e-17,0,131072,131072
271.85,5.55112e-17,0,131072,131072
271.901,5.55112e-17,0,131072,131072
271.95,1.38778e-16,0,131072,131072
272,1.38778e-16,0,131072,131072
272.051,8.32667e-17,0,131072,131072
272.101,1.11022e-16,0,131072,131072
272.15,1.11022e-16,0,131072,131072
272.2,5.55112e-17,0,131072,131072
272.251,5.55112e-17,0,131072,131072
272.3,5.55112e-17,0,131072,131072
272.35,5.55112e-17,0,131072,131072
272.4,8.32667e-17,0,131072,131072
272.451,5.55112e-17,0,131072,131072
272.5,5.55112e-17,0,131072,131072
272.55,5.55112e-17,0,131072,131072
272.601,8.32667e-17,0,131072,131072
272.65,5.55112e-17,0,131072,131072
272.7,8.32667e-17,0,131072,131072
272.75,8.32667e-17,0,131072,131072
272.801,5.55112e-17,0,131072,131072
272.85,2.77556e-17,0,131072,131072
272.9,2.77556e-17,0,131072,131072
272.951,2.77556e-17,0,131072,131072
273.001,2.77556e-17,0,131072,131072
273.05,8.32667e-17,0,131072,131072
273.1,5.55112e-17,0,131072,131072
273.151,8.32667e-17,0,131072,131072
273.2,5.55112e-17,0,131072,131072
273.25,8.32667e-17,0,131072,131072
273.3,5.55112e-17,0,131072,131072
273.351,5.55112e-17,0,131072,131072
273.4,5.55112e-17,0,131072,131072
273.45,5.55112e-17,0,131072,131072
273.501,5.55112e-17,0,131072,131072
273.55,5.55112e-17,0,131072,131072
273.6,5.55112e-17,0,131072,131072
273.65,2.77556e-17,0,131072,131072
273.701,-5.55112e-17,0,131072,131072
273.75,-5.55112e-17,0,131072,131072
273.8,-8.32667e-17,0,131072,131072
273.851,-1.11022e-16,0,131072,131072
273.901,-1.11022e-16,0,131072,131072
273.95,-5.55112e-17,0,131072,131072
274,-2.77556e-17,0,131072,131072
274.051,3.33067e-15,0,131072,131072
274.1,5.12368e-14,0,131072,131072
274.15,2.04864e-13,0,131072,131072
274.2,-2.88497e-12,0,131072,131072
274.251,-3.50628e-11,0,131072,131072
274.3,-1.51799e-10,0,131072,131072
274.35,-3.48404e-10,0,131072,131072
274.401,-4.70757e-10,0,131072,131072
274.45,-3.6365e-10,0,131072,131072
274.5,-7.47082e-11,0,131072,131072
274.55,2.11221e-10,0,131072,131072
274.601,3.25401e-10,0,131072,131072
274.65,2.20611e-10,0,131072,131072
274.7,1.18243e-11,0,131072,131072
274.75,-1.14871e-10,0,131072,131072
274.801,-4.92864e-11,0,131072,131072
274.85,1.4041e-10,0,131072,131072
274.9,2.78832e-10,0,131072,131072
274.951,2.4576e-10,0,131072,131072
275,8.70243e-11,0,131072,131072
275.05,-4.26453e-11,0,131072,131072
275.1,-2.99347e-11,0,131072,131072
275.151,1.04307e-10,0,131072,131072
275.2,2.33211e-10,0,131072,131072
275.25,2.56174e-10,0,131072,131072
275.301,1.66783e-10,0,131072,131072
275.351,4.46052e-11,0,131072,131072
275.4,-2.32914e-11,0,131072,131072
275.45,1.0181e-11,0,131072,131072
275.501,1.36139e-10,0,131072,131072
275.55,2.77455e-10,0,131072,131072
275.6,3.19935e-10,0,131072,131072
275.65,1.80432e-10,0,131072,131072
275.701,-8.33654e-11,0,131072,131072
275.75,-2.26149e-10,0,131072,131072
275.8,-2.11091e-11,0,131072,131072
275.851,4.66824e-10,0,131072,131072
275.9,7.47887e-10,0,131072,131072
275.95,3.41275e-10,0,131072,131072
276,-6.05475e-10,0,131072,131072
276.051,-1.03873e-09,0,131072,131072
276.1,4.54707e-10,0,131072,131072
276.15,4.54931e-09,0,131072,131072
276.201,1.07967e-08,0,131072,131072
276.251,1.76111e-08,0,131072,131072
276.3,2.37007e-08,0,131072,131072
276.35,2.82897e-08,0,131072,131072
276.401,3.13984e-08,0,131072,131072
276.45,3.37168e-08,0,131072,131072
276.5,3.6712e-08,0,131072,131072
276.55,4.18787e-08,0,131072,131072
276.601,5.01764e-08,0,131072,131072
276.65,6.11998e-08,0,131072,131072
276.7,7.44533e-08,0,131072,131072
276.751,9.00823e-08,0,131072,131072
276.8,1.08496e-07,0,131072,131072
276.85,1.31389e-07,0,131072,131072
276.9,1.60227e-07,0,131072,131072
276.951,1.96547e-07,0,131072,131072
277,2.39397e-07,0,131072,131072
277.05,2.88183e-07,0,131072,131072
277.1,3.40818e-07,0,131072,131072
277.151,3.96032e-07,0,131072,131072
277.2,4.51546e-07,0,131072,131072
277.25,5.09232e-07,0,131072,131072
277.301,5.71432e-07,0,131072,131072
277.35,6.35983e-07,0,131072,131072
277.4,7.00819e-07,0,131072,131072
277.45,7.61586e-07,0,131072,131072
277.501,8.15044e-07,0,131072,131072
277.55,8.57154e-07,0,131072,131072
277.6,8.8796e-07,0,131072,131072
277.651,9.08475e-07,0,131072,131072
277.701,9.202e-07,0,131072,131072
277.75,9.25988e-07,0,131072,131072
277.8,9.27705e-07,0,131072,131072
277.851,9.26068e-07,0,131072,131072
277.9,9.2095e-07,0,131072,131072
277.95,9.11595e-07,0,131072,131072
278,8.96918e-07,0,131072,131072
278.051,8.75357e-07,0,131072,131072
278.1,8.46457e-07,0,131072,131072
278.15,8.0927e-07,0,131072,131072
278.201,7.63199e-07,0,131072,131072
278.25,7.11021e-07,0,131072,131072
278.3,6.54818e-07,0,131072,131072
278.35,5.97725e-07,0,131072,131072
278.401,5.41536e-07,0,131072,131072
278.45,4.89463e-07,0,131072,131072
278.5,4.41329e-07,0,131072,131072
278.551,3.96509e-07,0,131072,131072
278.601,3.55839e-07,0,131072,131072
278.65,3.17966e-07,0,131072,131072
278.7,2.8223e-07,0,131072,131072
278.751,2.47725e-07,0,131072,131072
278.8,2.15593e-07,0,131072,131072
278.85,1.86295e-07,0,131072,131072
278.9,1.61351e-07,0,131072,131072
278.951,1.41507e-07,0,131072,131072
279,1.2663e-07,0,131072,131072
279.05,1.14032e-07,0,131072,131072
279.101,1.01046e-07,0,131072,131072
279.15,8.71898e-08,0,131072,131072
279.2,7.33758e-08,0,131072,131072
279.25,6.14169e-08,0,131072,131072
279.301,5.23354e-08,0,131072,131072
279.35,4.63416e-08,0,131072,131072
279.4,4.2366e-08,0,131072,131072
279.45,3.91e-08,0,131072,131072
279.501,3.51906e-08,0,131072,131072
279.55,3.00462e-08,0,131072,131072
279.6,2.40348e-08,0,131072,131072
279.651,1.8477e-08,0,131072,131072
279.7,1.49924e-08,0,131072,131072
279.75,1.40225e-08,0,131072,131072
279.8,1.50311e-08,0,131072,131072
279.851,1.70714e-08,0,131072,131072
279.9,1.93547e-08,0,131072,131072
279.95,2.16752e-08,0,131072,131072
280.001,2.41361e-08,0,131072,131072
280.051,2.67814e-08,0,131072,131072
280.1,2.96969e-08,0,131072,131072
280.15,3.2853e-08,0,131072,131072
280.201,3.61801e-08,0,131072,131072
280.25,3.94762e-08,0,131072,131072
280.3,4.28761e-08,0,131072,131072
280.35,4.65268e-08,0,131072,131072
280.401,5.04646e-08,0,131072,131072
280.45,5.44904e-08,0,131072,131072
280.5,5.86585e-08,0,131072,131072
280.551,6.305e-08,0,131072,131072
280.6,6.74557e-08,0,131072,131072
280.65,7.17678e-08,0,131072,131072
280.7,7.58918e-08,0,131072,131072
280.751,8.0077e-08,0,131072,131072
280.8,8.47226e-08,0,131072,131072
280.85,9.04971e-08,0,131072,131072
280.901,9.78357e-08,0,131072,131072
280.951,1.06292e-07,0,131072,131072
281,1.15248e-07,0,131072,131072
281.05,1.23845e-07,0,131072,131072
281.101,1.31579e-07,0,131072,131072
281.15,1.38137e-07,0,131072,131072
281.2,1.44118e-07,0,131072,131072
281.25,1.50397e-07,0,131072,131072
281.301,1.58043e-07,0,131072,131072
281.35,1.67518e-07,0,131072,131072
281.4,1.79201e-07,0,131072,131072
281.451,1.9337e-07,0,131072,131072
281.5,2.0979e-07,0,131072,131072
281.55,2.2919e-07,0,131072,131072
281.6,2.5245e-07,0,131072,131072
281.651,2.80959e-07,0,131072,131072
281.7,3.14512e-07,0,131072,131072
281.75,3.53461e-07,0,131072,131072
281.8,3.97058e-07,0,131072,131072
281.851,4.44768e-07,0,131072,131072
281.9,4.93974e-07,0,131072,131072
281.95,5.44657e-07,0,131072,131072
282.001,5.97486e-07,0,131072,131072
282.05,6.50881e-07,0,131072,131072
282.1,7.0482e-07,0,131072,131072
282.15,7.57383e-07,0,131072,131072
282.201,8.06449e-07,0,131072,131072
282.25,8.47675e-07,0,131072,131072
282.3,8.79653e-07,0,131072,131072
282.351,9.01669e-07,0,131072,131072
282.401,9.13418e-07,0,131072,131072
282.45,9.16603e-07,0,131072,131072
282.5,9.12961e-07,0,131072,131072
282.551,9.03908e-07,0,131072,131072
282.6,8.9072e-07,0,131072,131072
282.65,8.73593e-07,0,131072,131072
282.7,8.52215e-07,0,131072,131072
282.751,8.25462e-07,0,131072,131072
282.8,7.93265e-07,0,131072,131072
282.85,7.54566e-07,0,131072,131072
282.901,7.08351e-07,0,131072,131072
282.95,6.5636e-07,0,131072,131072
283,5.99222e-07,0,131072,131072
283.05,5.38926e-07,0,131072,131072
283.101,4.76923e-07,0,131072,131072
283.15,4.17229e-07,0,131072,131072
283.2,3.60579e-07,0,131072,131072
283.251,3.07157e-07,0,131072,131072
283.301,2.58788e-07,0,131072,131072
283.35,2.14468e-07,0,131072,131072
283.4,1.73746e-07,0,131072,131072
283.451,1.35624e-07,0,131072,131072
283.5,1.00948e-07,0,131072,131072
283.55,6.92704e-08,0,131072,131072
283.6,4.11105e-08,0,131072,131072
283.651,1.67883e-08,0,131072,131072
283.7,-2.70722e-09,0,131072,131072
283.75,-1.82298e-08,0,131072,131072
283.801,-3.11099e-08,0,131072,131072
283.85,-4.22802e-08,0,131072,131072
283.9,-5.26863e-08,0,131072,131072
283.95,-6.22291e-08,0,131072,131072
284.001,-7.03424e-08,0,131072,131072
284.05,-7.61242e-08,0,131072,131072
284.1,-7.95307e-08,0,131072,131072
284.151,-8.10056e-08,0,131072,131072
284.201,-8.1362e-08,0,131072,131072
284.25,-8.15103e-08,0,131072,131072
284.3,-8.19634e-08,0,131072,131072
284.351,-8.2656e-08,0,131072,131072
284.4,-8.2988e-08,0,131072,131072
284.45,-8.22818e-08,0,131072,131072
284.5,-8.01618e-08,0,131072,131072
284.551,-7.66894e-08,0,131072,131072
284.6,-7.24476e-08,0,131072,131072
284.65,-6.79291e-08,0,131072,131072
284.701,-6.34387e-08,0,131072,131072
284.75,-5.92673e-08,0,131072,131072
284.8,-5.53817e-08,0,131072,131072
284.85,-5.17918e-08,0,131072,131072
284.901,-4.84866e-08,0,131072,131072
284.95,-4.56076e-08,0,131072,131072
285,-4.31151e-08,0,131072,131072
285.05,-4.09619e-08,0,131072,131072
285.101,-3.90451e-08,0,131072,131072
285.15,-3.73657e-08,0,131072,131072
285.2,-3.58847e-08,0,131072,131072
285.251,-3.45988e-08,0,131072,131072
285.3,-3.35544e-08,0,131072,131072
285.35,-3.27247e-08,0,131072,131072
285.4,-3.20917e-08,0,131072,131072
285.451,-3.16275e-08,0,131072,131072
285.5,-3.13228e-08,0,131072,131072
285.55,-3.11488e-08,0,131072,131072
285.601,-3.10861e-08,0,131072,131072
285.651,-3.11175e-08,0,131072,131072
285.7,-3.1223e-08,0,131072,131072
285.75,-3.13846e-08,0,131072,131072
285.801,-3.15891e-08,0,131072,131072
285.85,-3.18172e-08,0,131072,131072
285.9,-3.20632e-08,0,131072,131072
285.95,-3.23218e-08,0,131072,131072
286.001,-3.2594e-08,0,131072,131072
286.05,-3.28679e-08,0,131072,131072
286.1,-3.3142e-08,0,131072,131072
286.151,-3.34136e-08,0,131072,131072
286.2,-3.36689e-08,0,131072,131072
286.25,-3.3908e-08,0,131072,131072
286.3,-3.41301e-08,0,131072,131072
286.351,-3.43395e-08,0,131072,131072
286.4,-3.45319e-08,0,131072,131072
286.45,-3.47113e-08,0,131072,131072
286.501,-3.48786e-08,0,131072,131072
286.551,-3.5026e-08,0,131072,131072
286.6,-3.51525e-08,0,131072,131072
286.65,-3.52557e-08,0,131072,131072
286.701,-3.53357e-08,0,131072,131072
286.75,-3.53907e-08,0,131072,131072
286.8,-3.54236e-08,0,131072,131072
286.85,-3.54358e-08,0,131072,131072
286.901,-3.54289e-08,0,131072,131072
286.95,-3.54048e-08,0,131072,131072
287,-3.53657e-08,0,131072,131072
287.051,-3.53133e-08,0,131072,131072
287.1,-3.52519e-08,0,131072,131072
287.15,-3.51834e-08,0,131072,131072
287.2,-3.51099e-08,0,131072,131072
287.251,-3.5032e-08,0,131072,131072
287.3,-3.49532e-08,0,131072,131072
287.35,-3.48739e-08,0,131072,131072
287.4,-3.47951e-08,0,131072,131072
287.451,-3.47169e-08,0,131072,131072
287.5,-3.46427e-08,0,131072,131072
287.55,-3.45721e-08,0,131072,131072
287.601,-3.4505e-08,0,131072,131072
287.65,-3.4444e-08,0,131072,131072
287.7,-3.43887e-08,0,131072,131072
287.75,-3.43395e-08,0,131072,131072
287.801,-3.42961e-08,0,131072,131072
287.85,-3.42601e-08,0,131072,131072
287.9,-3.42309e-08,0,131072,131072
287.951,-3.42082e-08,0,131072,131072
288,-3.41928e-08,0,131072,131072
288.05,-3.41842e-08,0,131072,131072
288.1,-3.41824e-08,0,131072,131072
288.151,-3.41877e-08,0,131072,131072
288.2,-3.42003e-08,0,131072,131072
288.25,-3.42205e-08,0,131072,131072
288.3,-3.42485e-08,0,131072,131072
288.351,-3.42849e-08,0,131072,131072
288.4,-3.43283e-08,0,131072,131072
288.45,-3.43786e-08,0,131072,131072
288.501,-3.4436e-08,0,131072,131072
288.55,-3.44986e-08,0,131072,131072
288.6,-3.4567e-08,0,131072,131072
288.65,-3.46414e-08,0,131072,131072
288.701,-3.47239e-08,0,131072,131072
288.75,-3.48128e-08,0,131072,131072
288.8,-3.49104e-08,0,131072,131072
288.851,-3.50197e-08,0,131072,131072
288.901,-3.51391e-08,0,131072,131072
288.95,-3.52721e-08,0,131072,131072
289,-3.54208e-08,0,131072,131072
289.051,-3.55903e-08,0,131072,131072
289.1,-3.5778e-08,0,131072,131072
289.15,-3.59882e-08,0,131072,131072
289.2,-3.62224e-08,0,131072,131072
289.251,-3.64858e-08,0,131072,131072
289.3,-3.67713e-08,0,131072,131072
289.35,-3.70825e-08,0,131072,131072
289.401,-3.74244e-08,0,131072,131072
289.45,-3.7786e-08,0,131072,131072
289.5,-3.81701e-08,0,131072,131072
289.55,-3.85736e-08,0,131072,131072
289.601,-3.89984e-08,0,131072,131072
289.65,-3.94269e-08,0,131072,131072
289.7,-3.98593e-08,0,131072,131072
289.751,-4.02963e-08,0,131072,131072
289.801,-4.07196e-08,0,131072,131072
289.85,-4.1131e-08,0,131072,131072
289.9,-4.15266e-08,0,131072,131072
289.951,-4.19086e-08,0,131072,131072
290,-4.22629e-08,0,131072,131072
290.05,-4.25919e-08,0,131072,131072
290.1,-4.28922e-08,0,131072,131072
290.151,-4.31636e-08,0,131072,131072
290.2,-4.33944e-08,0,131072,131072
290.25,-4.3585e-08,0,131072,131072
290.301,-4.37343e-08,0,131072,131072
290.35,-4.3836e-08,0,131072,131072
290.4,-4.38916e-08,0,131072,131072
290.45,-4.39012e-08,0,131072,131072
290.501,-4.38648e-08,0,131072,131072
290.55,-4.37847e-08,0,131072,131072
290.6,-4.3662e-08,0,131072,131072
290.65,-4.34983e-08,0,131072,131072
290.701,-4.32913e-08,0,131072,131072
290.75,-4.3048e-08,0,131072,131072
290.8,-4.27659e-08,0,131072,131072
290.851,-4.24395e-08,0,131072,131072
290.9,-4.20778e-08,0,131072,131072
290.95,-4.16751e-08,0,131072,131072
291,-4.12306e-08,0,131072,131072
291.051,-4.07359e-08,0,131072,131072
291.1,-4.02051e-08,0,131072,131072
291.15,-3.9631e-08,0,131072,131072
291.201,-3.90042e-08,0,131072,131072
291.251,-3.83431e-08,0,131072,131072
291.3,-3.76393e-08,0,131072,131072
291.35,-3.68941e-08,0,131072,131072
291.401,-3.60982e-08,0,131072,131072
291.45,-3.52788e-08,0,131072,131072
291.5,-3.44302e-08,0,131072,131072
291.55,-3.3559e-08,0,131072,131072
291.601,-3.26592e-08,0,131072,131072
291.65,-3.17642e-08,0,131072,131072
291.7,-3.08679e-08,0,131072,131072
291.751,-2.99632e-08,0,131072,131072
291.8,-2.90816e-08,0,131072,131072
291.85,-2.82147e-08,0,131072,131072
291.9,-2.73664e-08,0,131072,131072
291.951,-2.65289e-08,0,131072,131072
292,-2.57304e-08,0,131072,131072
292.05,-2.49628e-08,0,131072,131072
292.101,-2.42199e-08,0,131072,131072
292.151,-2.35278e-08,0,131072,131072
292.2,-2.28794e-08,0,131072,131072
292.25,-2.2278e-08,0,131072,131072
292.301,-2.17179e-08,0,131072,131072
292.35,-2.12161e-08,0,131072,131072
292.4,-2.07635e-08,0,131072,131072
292.45,-2.03583e-08,0,131072,131072
292.501,-1.99926e-08,0,131072,131072
292.55,-1.96741e-08,0,131072,131072
292.6,-1.93936e-08,0,131072,131072
292.651,-1.91445e-08,0,131072,131072
292.7,-1.89312e-08,0,131072,131072
292.75,-1.87467e-08,0,131072,131072
292.8,-1.85883e-08,0,131072,131072
292.851,-1.84511e-08,0,131072,131072
292.9,-1.83359e-08,0,131072,131072
292.95,-1.82373e-08,0,131072,131072
293,-1.81522e-08,0,131072,131072
293.051,-1.80774e-08,0,131072,131072
293.1,-1.80129e-08,0,131072,131072
293.15,-1.79562e-08,0,131072,131072
293.201,-1.7905e-08,0,131072,131072
293.25,-1.78593e-08,0,131072,131072
293.3,-1.78166e-08,0,131072,131072
293.35,-1.77756e-08,0,131072,131072
293.401,-1.77346e-08,0,131072,131072
293.45,-1.76945e-08,0,131072,131072
293.5,-1.76543e-08,0,131072,131072
293.551,-1.76132e-08,0,131072,131072
293.601,-1.75718e-08,0,131072,131072
293.65,-1.75282e-08,0,131072,131072
293.7,-1.7481e-08,0,131072,131072
293.751,-1.74279e-08,0,131072,131072
293.8,-1.73691e-08,0,131072,131072
293.85,-1.73031e-08,0,131072,131072
293.9,-1.72294e-08,0,131072,131072
293.951,-1.71466e-08,0,131072,131072
294,-1.70564e-08,0,131072,131072
294.05,-1.69576e-08,0,131072,131072
294.101,-1.6848e-08,0,131072,131072
294.15,-1.67311e-08,0,131072,131072
294.2,-1.66058e-08,0,131072,131072
294.25,-1.64731e-08,0,131072,131072
294.301,-1.6332e-08,0,131072,131072
294.35,-1.61871e-08,0,131072,131072
294.4,-1.60367e-08,0,131072,131072
294.451,-1.58786e-08,0,131072,131072
294.501,-1.57174e-08,0,131072,131072
294.55,-1.55513e-08,0,131072,131072
294.6,-1.53816e-08,0,131072,131072
294.651,-1.52071e-08,0,131072,131072
294.7,-1.50337e-08,0,131072,131072
294.75,-1.4859e-08,0,131072,131072
294.8,-1.46819e-08,0,131072,131072
294.851,-1.44976e-08,0,131072,131072
294.9,-1.43092e-08,0,131072,131072
294.95,-1.41123e-08,0,131072,131072
295.001,-1.39028e-08,0,131072,131072
295.05,-1.36867e-08,0,131072,131072
295.1,-1.34622e-08,0,131072,131072
295.15,-1.32308e-08,0,131072,131072
295.201,-1.29901e-08,0,131072,131072
295.25,-1.27481e-08,0,131072,131072
295.3,-1.25012e-08,0,131072,131072
295.351,-1.22445e-08,0,131072,131072
295.401,-1.19835e-08,0,131072,131072
295.45,-1.17118e-08,0,131072,131072
295.5,-1.14262e-08,0,131072,131072
295.551,-1.11191e-08,0,131072,131072
295.6,-1.07961e-08,0,131072,131072
295.65,-1.04505e-08,0,131072,131072
295.7,-1.00799e-08,0,131072,131072
295.751,-9.67643e-09,0,131072,131072
295.8,-9.25027e-09,0,131072,131072
295.85,-8.79439e-09,0,131072,131072
295.901,-8.30016e-09,0,131072,131072
295.95,-7.7808e-09,0,131072,131072
296,-7.22853e-09,0,131072,131072
296.05,-6.643e-09,0,131072,131072
296.101,-6.01551e-09,0,131072,131072
296.15,-5.36629e-09,0,131072,131072
296.2,-4.69016e-09,0,131072,131072
296.25,-3.99231e-09,0,131072,131072
296.301,-3.26823e-09,0,131072,131072
296.35,-2.54533e-09,0,131072,131072
296.4,-1.81927e-09,0,131072,131072
296.451,-1.08501e-09,0,131072,131072
296.5,-3.6908e-10,0,131072,131072
296.55,3.34299e-10,0,131072,131072
296.6,1.02043e-09,0,131072,131072
296.651,1.69451e-09,0,131072,131072
296.7,2.33292e-09,0,131072,131072
296.75,2.94201e-09,0,131072,131072
296.801,3.52667e-09,0,131072,131072
296.851,4.06671e-09,0,131072,131072
296.9,4.56759e-09,0,131072,131072
296.95,5.02605e-09,0,131072,131072
297.001,5.44481e-09,0,131072,131072
297.05,5.80945e-09,0,131072,131072
297.1,6.1253e-09,0,131072,131072
297.15,6.39269e-09,0,131072,131072
297.201,6.61618e-09,0,131072,131072
297.25,6.79198e-09,0,131072,131072
297.3,6.9269e-09,0,131072,131072
297.351,7.02554e-09,0,131072,131072
297.4,7.0885e-09,0,131072,131072
297.45,7.12078e-09,0,131072,131072
297.5,7.12557e-09,0,131072,131072
297.551,7.10556e-09,0,131072,131072
297.6,7.06455e-09,0,131072,131072
297.65,7.00558e-09,0,131072,131072
297.701,6.93052e-09,0,131072,131072
297.751,6.84448e-09,0,131072,131072
297.8,6.74898e-09,0,131072,131072
297.85,6.64621e-09,0,131072,131072
297.901,6.53641e-09,0,131072,131072
297.95,6.42445e-09,0,131072,131072
298,6.31033e-09,0,131072,131072
298.05,6.19553e-09,0,131072,131072
298.101,6.07965e-09,0,131072,131072
298.15,5.96705e-09,0,131072,131072
298.2,5.8567e-09,0,131072,131072
298.251,5.74751e-09,0,131072,131072
298.3,5.64304e-09,0,131072,131072
298.35,5.54225e-09,0,131072,131072
298.4,5.44589e-09,0,131072,131072
298.451,5.35357e-09,0,131072,131072
298.5,5.26885e-09,0,131072,131072
298.55,5.19107e-09,0,131072,131072
298.6,5.12064e-09,0,131072,131072
298.651,5.05682e-09,0,131072,131072
298.7,5.00138e-09,0,131072,131072
298.75,4.95315e-09,0,131072,131072
298.801,4.91127e-09,0,131072,131072
298.85,4.87649e-09,0,131072,131072
298.9,4.84745e-09,0,131072,131072
298.95,4.82319e-09,0,131072,131072
299.001,4.80227e-09,0,131072,131072
299.05,4.78411e-09,0,131072,131072
299.1,4.76739e-09,0,131072,131072
299.151,4.75111e-09,0,131072,131072
299.201,4.73516e-09,0,131072,131072
299.25,4.71874e-09,0,131072,131072
299.3,4.70112e-09,0,131072,131072
299.351,4.68108e-09,0,131072,131072
299.4,4.65824e-09,0,131072,131072
299.45,4.63163e-09,0,131072,131072
299.5,4.60116e-09,0,131072,131072
299.551,4.56684e-09,0,131072,131072
299.6,4.53082e-09,0,131072,131072
299.65,4.49399e-09,0,131072,131072
299.701,4.45708e-09,0,131072,131072
299.75,4.42197e-09,0,131072,131072
299.8,4.38835e-09,0,131072,131072
299.85,4.35589e-09,0,131072,131072
299.901,4.32347e-09,0,131072,131072
299.95,4.29124e-09,0,131072,131072
300,4.25817e-09,0,131072,131072
300.051,4.22353e-09,0,131072,131072
300.101,4.18857e-09,0,131072,131072
300.15,4.15345e-09,0,131072,131072
300.2,4.11915e-09,0,131072,131072
300.251,4.08628e-09,0,131072,131072
300.3,4.05668e-09,0,131072,131072
300.35,4.03038e-09,0,131072,131072
300.4,4.00738e-09,0,131072,131072
300.451,3.98696e-09,0,131072,131072
300.5,3.96891e-09,0,131072,131072
300.55,3.95202e-09,0,131072,131072
300.601,3.93525e-09,0,131072,131072
300.65,3.91854e-09,0,131072,131072
300.7,3.90144e-09,0,131072,131072
300.75,3.88397e-09,0,131072,131072
300.801,3.86606e-09,0,131072,131072
300.85,3.84836e-09,0,131072,131072
300.9,3.83053e-09,0,131072,131072
300.95,3.81233e-09,0,131072,131072
301.001,3.79307e-09,0,131072,131072
301.05,3.77301e-09,0,131072,131072
301.1,3.7518e-09,0,131072,131072
301.151,3.72935e-09,0,131072,131072
301.2,3.7067e-09,0,131072,131072
301.25,3.68387e-09,0,131072,131072
301.3,3.66101e-09,0,131072,131072
301.351,3.63764e-09,0,131072,131072
301.4,3.61417e-09,0,131072,131072
301.45,3.59001e-09,0,131072,131072
301.501,3.56474e-09,0,131072,131072
301.551,3.53925e-09,0,131072,131072
301.6,3.5135e-09,0,131072,131072
301.65,3.48779e-09,0,131072,131072
301.701,3.4619e-09,0,131072,131072
301.75,3.4365e-09,0,131072,131072
301.8,3.41098e-09,0,131072,131072
301.85,3.38507e-09,0,131072,131072
301.901,3.35817e-09,0,131072,131072
301.95,3.331e-09,0,131072,131072
302,3.30321e-09,0,131072,131072
302.051,3.27451e-09,0,131072,131072
302.1,3.24585e-09,0,131072,131072
302.15,3.21691e-09,0,131072,131072
302.2,3.18776e-09,0,131072,131072
302.251,3.15803e-09,0,131072,131072
302.3,3.1286e-09,0,131072,131072
302.35,3.09907e-09,0,131072,131072
302.401,3.06901e-09,0,131072,131072
302.451,3.03928e-09,0,131072,131072
302.5,3.00943e-09,0,131072,131072
302.55,2.97947e-09,0,131072,131072
302.601,2.94893e-09,0,131072,131072
302.65,2.91871e-09,0,131072,131072
302.7,2.88836e-09,0,131072,131072
302.75,2.85788e-09,0,131072,131072
302.801,2.8268e-09,0,131072,131072
302.85,2.79601e-09,0,131072,131072
302.9,2.76504e-09,0,131072,131072
302.951,2.73341e-09,0,131072,131072
303,2.70201e-09,0,131072,131072
303.05,2.67034e-09,0,131072,131072
303.1,2.63839e-09,0,131072,131072
303.151,2.60562e-09,0,131072,131072
303.2,2.57295e-09,0,131072,131072
303.25,2.53988e-09,0,131072,131072
303.3,2.50636e-09,0,131072,131072
303.351,2.47186e-09,0,131072,131072
303.4,2.43735e-09,0,131072,131072
303.45,2.4023e-09,0,131072,131072
303.501,2.36616e-09,0,131072,131072
303.55,2.32995e-09,0,131072,131072
303.6,2.29313e-09,0,131072,131072
303.65,2.2557e-09,0,131072,131072
303.701,2.21709e-09,0,131072,131072
303.75,2.17843e-09,0,131072,131072
303.8,2.13919e-09,0,131072,131072
303.851,2.0988e-09,0,131072,131072
303.901,2.05846e-09,0,131072,131072
303.95,2.01763e-09,0,131072,131072
304,1.97634e-09,0,131072,131072
304.051,1.93402e-09,0,131072,131072
304.1,1.89194e-09,0,131072,131072
304.15,1.84954e-09,0,131072,131072
304.2,1.80689e-09,0,131072,131072
304.251,1.76341e-09,0,131072,131072
304.3,1.72042e-09,0,131072,131072
304.35,1.67737e-09,0,131072,131072
304.401,1.63369e-09,0,131072,131072
304.45,1.59072e-09,0,131072,131072
304.5,1.54788e-09,0,131072,131072
304.55,1.50525e-09,0,131072,131072
304.601,1.46227e-09,0,131072,131072
304.65,1.42024e-09,0,131072,131072
304.7,1.3786e-09,0,131072,131072
304.751,1.33678e-09,0,131072,131072
304.801,1.29606e-09,0,131072,131072
304.85,1.25586e-09,0,131072,131072
304.9,1.21622e-09,0,131072,131072
304.951,1.17663e-09,0,131072,131072
