250,0,0,32768,32768
250.001,0,0,32768,32768
250.051,2.77556e-17,0,32768,32768
250.101,0,0,32768,32768
250.151,2.77556e-17,0,32768,32768
250.201,0,0,32768,32768
250.25,0,0,32768,32768
250.3,-2.77556e-17,0,32768,32768
250.35,-2.77556e-17,0,32768,32768
250.401,0,0,32768,32768
250.451,0,0,32768,32768
250.501,0,0,32768,32768
250.551,-2.77556e-17,0,32768,32768
250.6,-2.77556e-17,0,32768,32768
250.65,-2.77556e-17,0,32768,32768
250.7,0,0,32768,32768
250.751,2.77556e-17,0,32768,32768
250.801,-2.77556e-17,0,32768,32768
250.851,-2.77556e-17,0,32768,32768
250.901,-2.77556e-17,0,32768,32768
250.951,-2.77556e-17,0,32768,32768
251,-8.32667e-17,0,32768,32768
251.05,5.55112e-17,0,32768,32768
251.101,-2.77556e-17,0,32768,32768
251.151,-2.77556e-17,0,32768,32768
251.201,0,0,32768,32768
251.251,0,0,32768,32768
251.301,0,0,32768,32768
251.35,-2.77556e-17,0,32768,32768
251.4,-5.55112e-17,0,32768,32768
251.451,-2.77556e-17,0,32768,32768
251.501,-5.55112e-17,0,32768,32768
251.551,-1.11022e-16,0,32768,32768
251.601,-5.55112e-17,0,32768,32768
251.651,2.77556e-17,0,32768,32768
251.7,2.77556e-17,0,32768,32768
251.75,0,0,32768,32768
251.8,0,0,32768,32768
251.851,5.55112e-17,0,32768,32768
251.901,5.55112e-17,0,32768,32768
251.951,8.32667e-17,0,32768,32768
252.001,2.77556e-17,0,32768,32768
252.05,5.55112e-17,0,32768,32768
252.1,5.55112e-17,0,32768,32768
252.15,5.55112e-17,0,32768,32768
252.201,2.77556e-17,0,32768,32768
252.251,2.77556e-17,0,32768,32768
252.301,1.11022e-16,0,32768,32768
252.351,1.11022e-16,0,32768,32768
252.401,8.32667e-17,0,32768,32768
252.45,2.77556e-17,0,32768,32768
252.5,2.77556e-17,0,32768,32768
252.551,2.77556e-17,0,32768,32768
252.601,-2.77556e-17,0,32768,32768
252.651,0,0,32768,32768
252.701,2.77556e-17,0,32768,32768
252.751,5.55112e-17,0,32768,32768
252.8,5.55112e-17,0,32768,32768
252.85,5.55112e-17,0,32768,32768
252.901,5.55112e-17,0,32768,32768
252.951,5.55112e-17,0,32768,32768
253.001,8.32667e-17,0,32768,32768
253.051,1.11022e-16,0,32768,32768
253.101,2.77556e-17,0,32768,32768
253.15,0,0,32768,32768
253.2,-2.77556e-17,0,32768,32768
253.25,0,0,32768,32768
253.301,2.77556e-17,0,32768,32768
253.351,2.77556e-17,0,32768,32768
253.401,0,0,32768,32768
253.451,0,0,32768,32768
253.5,0,0,32768,32768
253.55,2.77556e-17,0,32768,32768
253.6,2.77556e-17,0,32768,32768
253.651,2.77556e-17,0,32768,32768
253.701,2.77556e-17,0,32768,32768
253.751,0,0,32768,32768
253.801,2.77556e-17,0,32768,32768
253.851,2.77556e-17,0,32768,32768
253.9,2.77556e-17,0,32768,32768
253.95,0,0,32768,32768
254.001,2.77556e-17,0,32768,32768
254.051,0,0,32768,32768
254.101,2.77556e-17,0,32768,32768
254.151,0,0,32768,32768
254.201,5.55112e-17,0,32768,32768
254.25,2.77556e-17,0,32768,32768
254.3,5.55112e-17,0,32768,32768
254.351,5.55112e-17,0,32768,32768
254.401,5.55112e-17,0,32768,32768
254.451,2.77556e-17,0,32768,32768
254.501,2.77556e-17,0,32768,32768
254.551,2.77556e-17,0,32768,32768
254.6,2.77556e-17,0,32768,32768
254.65,5.55112e-17,0,32768,32768
254.701,5.55112e-17,0,32768,32768
254.751,5.55112e-17,0,32768,32768
254.801,0,0,32768,32768
254.851,0,0,32768,32768
254.901,0,0,32768,32768
254.95,0,0,32768,32768
255,5.55112e-17,0,32768,32768
255.05,8.32667e-17,0,32768,32768
255.101,8.32667e-17,0,32768,32768
255.151,8.32667e-17,0,32768,32768
255.201,5.55112e-17,0,32768,32768
255.251,2.77556e-17,0,32768,32768
255.3,5.55112e-17,0,32768,32768
255.35,2.77556e-17,0,32768,32768
255.4,-2.77556e-17,0,32768,32768
255.451,2.77556e-17,0,32768,32768
255.501,2.77556e-17,0,32768,32768
255.551,2.77556e-17,0,32768,32768
255.601,2.77556e-17,0,32768,32768
255.651,0,0,32768,32768
255.7,0,0,32768,32768
255.75,-2.77556e-17,0,32768,32768
255.801,-5.55112e-17,0,32768,32768
255.851,-5.55112e-17,0,32768,32768
255.901,-2.77556e-17,0,32768,32768
255.951,-2.77556e-17,0,32768,32768
256.001,-5.55112e-17,0,32768,32768
256.05,-5.55112e-17,0,32768,32768
256.1,-2.77556e-17,0,32768,32768
256.151,-8.32667e-17,0,32768,32768
256.201,-5.55112e-17,0,32768,32768
256.251,-5.55112e-17,0,32768,32768
256.301,-5.55112e-17,0,32768,32768
256.351,0,0,32768,32768
256.4,2.77556e-17,0,32768,32768
256.45,5.55112e-17,0,32768,32768
256.5,2.77556e-17,0,32768,32768
256.551,0,0,32768,32768
256.601,0,0,32768,32768
256.651,5.55112e-17,0,32768,32768
256.701,5.55112e-17,0,32768,32768
256.75,8.32667e-17,0,32768,32768
256.8,2.77556e-17,0,32768,32768
256.85,0,0,32768,32768
256.901,2.77556e-17,0,32768,32768
256.951,2.77556e-17,0,32768,32768
257.001,0,0,32768,32768
257.051,0,0,32768,32768
257.101,-2.77556e-17,0,32768,32768
257.15,-2.77556e-17,0,32768,32768
257.2,-2.77556e-17,0,32768,32768
257.251,0,0,32768,32768
257.301,-2.77556e-17,0,32768,32768
257.351,0,0,32768,32768
257.401,0,0,32768,32768
257.451,0,0,32768,32768
257.5,-2.77556e-17,0,32768,32768
257.55,-2.77556e-17,0,32768,32768
257.601,2.77556e-17,0,32768,32768
257.651,8.32667e-17,0,32768,32768
257.701,5.55112e-17,0,32768,32768
257.751,2.77556e-17,0,32768,32768
257.801,0,0,32768,32768
257.85,2.77556e-17,0,32768,32768
257.9,2.77556e-17,0,32768,32768
257.95,2.77556e-17,0,32768,32768
258.001,0,0,32768,32768
258.051,0,0,32768,32768
258.101,0,0,32768,32768
258.151,2.77556e-17,0,32768,32768
258.2,0,0,32768,32768
258.25,2.77556e-17,0,32768,32768
258.3,5.55112e-17,0,32768,32768
258.351,2.77556e-17,0,32768,32768
258.401,2.77556e-17,0,32768,32768
258.451,2.77556e-17,0,32768,32768
258.501,0,0,32768,32768
258.551,0,0,32768,32768
258.6,0,0,32768,32768
258.65,2.77556e-17,0,32768,32768
258.701,2.77556e-17,0,32768,32768
258.751,2.77556e-17,0,32768,32768
258.801,0,0,32768,32768
258.851,-2.77556e-17,0,32768,32768
258.901,-2.77556e-17,0,32768,32768
258.95,0,0,32768,32768
259,0,0,32768,32768
259.051,5.55112e-17,0,32768,32768
259.101,8.32667e-17,0,32768,32768
259.151,1.38778e-16,0,32768,32768
259.201,1.38778e-16,0,32768,32768
259.251,8.32667e-17,0,32768,32768
259.3,8.32667e-17,0,32768,32768
259.35,8.32667e-17,0,32768,32768
259.401,8.32667e-17,0,32768,32768
259.451,5.55112e-17,0,32768,32768
259.501,5.55112e-17,0,32768,32768
259.551,1.11022e-16,0,32768,32768
259.601,8.32667e-17,0,32768,32768
259.65,5.55112e-17,0,32768,32768
259.7,0,0,32768,32768
259.75,-5.55112e-17,0,32768,32768
259.801,-2.77556e-17,0,32768,32768
259.851,-5.55112e-17,0,32768,32768
259.901,-2.77556e-17,0,32768,32768
259.951,-5.55112e-17,0,32768,32768
260,-8.32667e-17,0,32768,32768
260.05,-5.55112e-17,0,32768,32768
260.1,0,0,32768,32768
260.151,5.55112e-17,0,32768,32768
260.201,2.77556e-17,0,32768,32768
260.251,-5.55112e-17,0,32768,32768
260.301,-5.55112e-17,0,32768,32768
260.351,-5.55112e-17,0,32768,32768
260.4,0,0,32768,32768
260.45,0,0,32768,32768
260.501,-2.77556e-17,0,32768,32768
260.551,-2.77556e-17,0,32768,32768
260.601,-2.77556e-17,0,32768,32768
260.651,-5.55112e-17,0,32768,32768
260.701,0,0,32768,32768
260.75,-5.55112e-17,0,32768,32768
260.8,-5.55112e-17,0,32768,32768
260.851,-8.32667e-17,0,32768,32768
260.901,0,0,32768,32768
260.951,0,0,32768,32768
261.001,0,0,32768,32768
261.051,2.77556e-17,0,32768,32768
261.1,2.77556e-17,0,32768,32768
261.15,2.77556e-17,0,32768,32768
261.2,5.55112e-17,0,32768,32768
261.251,2.77556e-17,0,32768,32768
261.301,2.77556e-17,0,32768,32768
261.351,5.55112e-17,0,32768,32768
261.401,2.77556e-17,0,32768,32768
261.45,2.77556e-17,0,32768,32768
261.5,2.77556e-17,0,32768,32768
261.55,0,0,32768,32768
261.601,-2.77556e-17,0,32768,32768
261.651,-1.11022e-16,0,32768,32768
261.701,-8.32667e-17,0,32768,32768
261.751,-1.11022e-16,0,32768,32768
261.801,-8.32667e-17,0,32768,32768
261.85,-8.32667e-17,0,32768,32768
261.9,-5.55112e-17,0,32768,32768
261.951,-5.55112e-17,0,32768,32768
262.001,-8.32667e-17,0,32768,32768
262.051,-2.77556e-17,0,32768,32768
262.101,-5.55112e-17,0,32768,32768
262.151,-2.77556e-17,0,32768,32768
262.2,0,0,32768,32768
262.25,-2.77556e-17,0,32768,32768
262.301,-2.77556e-17,0,32768,32768
262.351,-8.32667e-17,0,32768,32768
262.401,-8.32667e-17,0,32768,32768
262.451,-8.32667e-17,0,32768,32768
262.501,-8.32667e-17,0,32768,32768
262.55,-1.11022e-16,0,32768,32768
262.6,-8.32667e-17,0,32768,32768
262.651,-1.11022e-16,0,32768,32768
262.701,-8.32667e-17,0,32768,32768
262.751,-2.77556e-17,0,32768,32768
262.801,2.77556e-17,0,32768,32768
262.851,5.55112e-17,0,32768,32768
262.9,2.77556e-17,0,32768,32768
262.95,2.77556e-17,0,32768,32768
263,0,0,32768,32768
263.051,-2.77556e-17,0,32768,32768
263.101,-5.55112e-17,0,32768,32768
263.151,0,0,32768,32768
263.201,5.55112e-17,0,32768,32768
263.25,5.55112e-17,0,32768,32768
263.3,1.66533e-16,0,32768,32768
263.35,1.66533e-16,0,32768,32768
263.401,1.66533e-16,0,32768,32768
263.451,1.38778e-16,0,32768,32768
263.501,1.11022e-16,0,32768,32768
263.551,5.55112e-17,0,32768,32768
263.601,8.32667e-17,0,32768,32768
263.65,1.38778e-16,0,32768,32768
263.7,1.11022e-16,0,32768,32768
263.751,5.55112e-17,0,32768,32768
263.801,5.55112e-17,0,32768,32768
263.851,1.38778e-16,0,32768,32768
263.901,5.55112e-17,0,32768,32768
263.951,8.32667e-17,0,32768,32768
264,2.77556e-17,0,32768,32768
264.05,5.55112e-17,0,32768,32768
264.101,5.55112e-17,0,32768,32768
264.151,5.55112e-17,0,32768,32768
264.201,5.55112e-17,0,32768,32768
264.251,2.77556e-17,0,32768,32768
264.301,2.77556e-17,0,32768,32768
264.35,5.55112e-17,0,32768,32768
264.4,8.32667e-17,0,32768,32768
264.45,8.32667e-17,0,32768,32768
264.501,2.77556e-17,0,32768,32768
264.551,2.77556e-17,0,32768,32768
264.601,2.77556e-17,0,32768,32768
264.651,8.32667e-17,0,32768,32768
264.7,2.77556e-17,0,32768,32768
264.75,2.77556e-17,0,32768,32768
264.8,5.55112e-17,0,32768,32768
264.851,5.55112e-17,0,32768,32768
264.901,0,0,32768,32768
264.951,0,0,32768,32768
265.001,1.94289e-16,0,32768,32768
265.051,1.94289e-16,0,32768,32768
265.1,1.94289e-16,0,32768,32768
265.15,1.38778e-16,0,32768,32768
265.201,8.32667e-17,0,32768,32768
265.251,1.11022e-16,0,32768,32768
265.301,8.32667e-17,0,32768,32768
265.351,1.11022e-16,0,32768,32768
265.401,1.38778e-16,0,32768,32768
265.45,1.11022e-16,0,32768,32768
265.5,1.11022e-16,0,32768,32768
265.551,1.11022e-16,0,32768,32768
265.601,8.32667e-17,0,32768,32768
265.651,8.32667e-17,0,32768,32768
265.701,8.32667e-17,0,32768,32768
265.751,8.32667e-17,0,32768,32768
265.8,5.55112e-17,0,32768,32768
265.85,5.55112e-17,0,32768,32768
265.9,5.55112e-17,0,32768,32768
265.951,2.77556e-17,0,32768,32768
266.001,1.11022e-16,0,32768,32768
266.051,8.32667e-17,0,32768,32768
266.101,8.32667e-17,0,32768,32768
266.15,1.66533e-16,0,32768,32768
266.2,1.38778e-16,0,32768,32768
266.25,1.38778e-16,0,32768,32768
266.301,8.32667e-17,0,32768,32768
266.351,8.32667e-17,0,32768,32768
266.401,8.32667e-17,0,32768,32768
266.451,1.11022e-16,0,32768,32768
266.501,1.11022e-16,0,32768,32768
266.55,5.55112e-17,0,32768,32768
266.6,5.55112e-17,0,32768,32768
266.651,5.55112e-17,0,32768,32768
266.701,1.11022e-16,0,32768,32768
266.751,1.11022e-16,0,32768,32768
266.801,1.11022e-16,0,32768,32768
266.851,5.55112e-17,0,32768,32768
266.9,5.55112e-17,0,32768,32768
266.95,5.55112e-17,0,32768,32768
267.001,2.77556e-17,0,32768,32768
267.051,2.77556e-17,0,32768,32768
267.101,2.77556e-17,0,32768,32768
267.151,5.55112e-17,0,32768,32768
267.201,2.77556e-17,0,32768,32768
267.25,8.32667e-17,0,32768,32768
267.3,5.55112e-17,0,32768,32768
267.351,1.11022e-16,0,32768,32768
267.401,5.55112e-17,0,32768,32768
267.451,2.77556e-17,0,32768,32768
267.501,2.77556e-17,0,32768,32768
267.551,2.77556e-17,0,32768,32768
267.6,2.77556e-17,0,32768,32768
267.65,2.77556e-17,0,32768,32768
267.7,5.55112e-17,0,32768,32768
267.751,5.55112e-17,0,32768,32768
267.801,5.55112e-17,0,32768,32768
267.851,1.11022e-16,0,32768,32768
267.901,8.32667e-17,0,32768,32768
267.95,5.55112e-17,0,32768,32768
268,2.77556e-17,0,32768,32768
268.05,5.55112e-17,0,32768,32768
268.101,-8.32667e-17,0,32768,32768
268.151,-5.55112e-17,0,32768,32768
268.201,-5.55112e-17,0,32768,32768
268.251,-8.32667e-17,0,32768,32768
268.301,-5.55112e-17,0,32768,32768
268.35,-5.55112e-17,0,32768,32768
268.4,-8.32667e-17,0,32768,32768
268.451,-5.55112e-17,0,32768,32768
268.501,2.77556e-17,0,32768,32768
268.551,-8.32667e-17,0,32768,32768
268.601,-5.55112e-17,0,32768,32768
268.651,-5.55112e-17,0,32768,32768
268.7,-5.55112e-17,0,32768,32768
268.75,-2.77556e-17,0,32768,32768
268.801,-2.77556e-17,0,32768,32768
268.851,0,0,32768,32768
268.901,0,0,32768,32768
268.951,-5.55112e-17,0,32768,32768
269.001,-2.77556e-17,0,32768,32768
269.05,-2.77556e-17,0,32768,32768
269.1,-5.55112e-17,0,32768,32768
269.15,-5.55112e-17,0,32768,32768
269.201,0,0,32768,32768
269.251,0,0,32768,32768
269.301,8.32667e-17,0,32768,32768
269.351,2.77556e-17,0,32768,32768
269.4,2.77556e-17,0,32768,32768
269.45,0,0,32768,32768
269.5,-5.55112e-17,0,32768,32768
269.551,-2.77556e-17,0,32768,32768
269.601,2.77556e-17,0,32768,32768
269.65,2.77556e-17,0,33256,33256
269.7,2.77556e-17,0,33928,33928
269.75,2.77556e-17,0,34296,34296
269.801,2.77556e-17,0,34920,34920
269.85,2.77556e-17,0,35608,35608
269.9,2.77556e-17,0,36232,36232
269.95,2.77556e-17,0,36872,36872
270.001,2.77556e-17,0,37528,37528
270.05,2.77556e-17,0,38088,38088
270.1,2.77556e-17,0,38744,38744
270.151,2.77556e-17,0,39416,39416
270.2,2.77556e-17,0,40008,40008
270.25,2.77556e-17,0,40664,40664
270.3,2.77556e-17,0,41336,41336
270.351,2.77556e-17,0,42024,42024
270.4,2.77556e-17,0,42680,42680
270.45,2.77556e-17,0,43352,43352
270.501,2.77556e-17,0,44024,44024
270.551,2.77556e-17,0,44664,44664
270.6,2.77556e-17,0,45320,45320
270.65,2.77556e-17,0,45992,45992
270.701,2.77556e-17,0,46664,46664
270.75,2.77556e-17,0,47304,47304
270.8,2.77556e-17,0,47912,47912
270.85,2.77556e-17,0,48584,48584
270.901,5.82867e-16,0,49256,49256
270.95,2.27596e-15,0,49896,49896
271,6.71685e-15,0,50552,50552
271.051,6.26998e-14,0,51224,51224
271.1,-5.86753e-14,0,51896,51896
271.15,-6.05666e-12,0,52536,52536
271.2,-4.58437e-11,0,53192,53192
271.251,-1.6458e-10,0,53912,53912
271.3,-3.30694e-10,0,54584,54584
271.35,-4.09028e-10,0,55224,55224
271.401,-2.93143e-10,0,55832,55832
271.451,-4.12154e-11,0,56504,56504
271.5,1.9009e-10,0,57176,57176
271.55,2.68396e-10,0,57800,57800
271.601,1.71055e-10,0,58472,58472
271.65,6.12474e-12,0,59144,59144
271.7,-7.88712e-11,0,59768,59768
271.75,-1.44214e-11,0,60344,60344
271.801,1.3601e-10,0,61016,61016
271.85,2.30936e-10,0,61608,61608
271.9,1.94655e-10,0,62072,62072
271.951,7.13553e-11,0,62344,62344
272,-1.7036e-11,0,63016,63016
272.05,3.4022e-12,0,63640,63640
272.1,1.0573e-10,0,64312,64312
272.151,1.9881e-10,0,64936,64936
272.2,2.0812e-10,0,65608,65608
272.25,1.37443e-10,0,66232,66232
272.3,4.63065e-11,0,66856,66856
272.351,1.67175e-12,0,67528,67528
272.4,3.88867e-11,0,68152,68152
272.45,1.39472e-10,0,68776,68776
272.501,2.37665e-10,0,69400,69400
272.55,2.42765e-10,0,70024,70024
272.6,1.18037e-10,0,70648,70648
272.65,-5.87e-11,0,71272,71272
272.701,-1.12166e-10,0,71896,71896
272.75,8.90674e-11,0,72488,72488
272.8,4.65374e-10,0,73048,73048
272.851,6.47427e-10,0,73704,73704
272.9,2.06822e-10,0,74280,74280
272.95,-6.1002e-10,0,74872,74872
273,-1.69832e-09,0,75496,75496
273.051,-7.43825e-10,0,76040,76040
273.1,3.455e-09,0,76632,76632
273.15,1.00199e-08,0,77208,77208
273.2,1.69882e-08,0,77864,77864
273.251,2.29463e-08,0,78408,78408
273.3,2.70689e-08,0,79032,79032
273.35,2.94642e-08,0,79608,79608
273.401,3.08866e-08,0,80184,80184
273.45,3.29275e-08,0,80592,80592
273.5,3.74537e-08,0,81064,81064
273.55,4.53668e-08,0,81440,81440
273.601,5.62765e-08,0,80920,80920
273.65,6.8728e-08,0,81288,81288
273.7,8.25748e-08,0,81832,81832
273.751,9.91956e-08,0,82744,82744
273.801,1.19906e-07,0,84040,84040
273.85,1.46445e-07,0,85416,85416
273.9,1.79732e-07,0,85944,85944
273.951,2.20684e-07,0,86520,86520
274,2.6711e-07,0,87096,87096
274.05,3.17014e-07,0,87672,87672
274.1,3.67627e-07,0,88200,88200
274.151,4.18883e-07,0,88776,88776
274.2,4.7127e-07,0,89304,89304
274.25,5.28141e-07,0,89848,89848
274.301,5.90433e-07,0,90376,90376
274.35,6.52584e-07,0,90936,90936
274.4,7.10312e-07,0,91480,91480
274.45,7.59649e-07,0,92008,92008
274.501,7.99059e-07,0,92568,92568
274.55,8.26715e-07,0,93064,93064
274.6,8.44106e-07,0,93624,93624
274.651,8.53783e-07,0,94120,94120
274.701,8.58394e-07,0,94552,94552
274.75,8.59988e-07,0,94664,94664
274.8,8.58971e-07,0,95176,95176
274.851,8.54868e-07,0,95704,95704
274.9,8.46997e-07,0,96232,96232
274.95,8.342e-07,0,96760,96760
275,8.15265e-07,0,97288,97288
275.051,7.88697e-07,0,97816,97816
275.1,7.54479e-07,0,98392,98392
275.15,7.12102e-07,0,98920,98920
275.201,6.62137e-07,0,99448,99448
275.25,6.09107e-07,0,99976,99976
275.3,5.55812e-07,0,100504,100504
275.35,5.0476e-07,0,101032,101032
275.401,4.56475e-07,0,101560,101560
275.45,4.12797e-07,0,102088,102088
275.5,3.72913e-07,0,102616,102616
275.55,3.36264e-07,0,103144,103144
275.601,3.0162e-07,0,103672,103672
275.65,2.69305e-07,0,104200,104200
275.7,2.38311e-07,0,104728,104728
275.751,2.08144e-07,0,105256,105256
275.8,1.80678e-07,0,105784,105784
275.85,1.57489e-07,0,106312,106312
275.9,1.40221e-07,0,106840,106840
275.951,1.28028e-07,0,107368,107368
276,1.1803e-07,0,107896,107896
276.05,1.06678e-07,0,108376,108376
276.101,9.29141e-08,0,108904,108904
276.151,7.90543e-08,0,109432,109432
276.2,6.74167e-08,0,109960,109960
276.25,5.91932e-08,0,110488,110488
276.301,5.39814e-08,0,111016,111016
276.35,5.08637e-08,0,111496,111496
276.4,4.83533e-08,0,112024,112024
276.45,4.48974e-08,0,112552,112552
276.501,3.93426e-08,0,113080,113080
276.55,3.23433e-08,0,113560,113560
276.6,2.57924e-08,0,114088,114088
276.651,2.16188e-08,0,114616,114616
276.7,2.03731e-08,0,115096,115096
276.75,2.07926e-08,0,115624,115624
276.8,2.15602e-08,0,116152,116152
276.851,2.20115e-08,0,116632,116632
276.9,2.21193e-08,0,117160,117160
276.95,2.21476e-08,0,117688,117688
277.001,2.22365e-08,0,118168,118168
277.051,2.2362e-08,0,118696,118696
277.1,2.24633e-08,0,119176,119176
277.15,2.24248e-08,0,119704,119704
277.201,2.19329e-08,0,120184,120184
277.25,2.12953e-08,0,120712,120712
277.3,2.10469e-08,0,121192,121192
277.35,2.09838e-08,0,121720,121720
277.401,2.09266e-08,0,122200,122200
277.45,2.08501e-08,0,122728,122728
277.5,2.07484e-08,0,123208,123208
277.551,2.06157e-08,0,123688,123688
277.6,2.04537e-08,0,124168,124168
277.65,2.02592e-08,0,124648,124648
277.7,2.00317e-08,0,125128,125128
277.751,1.97655e-08,0,125608,125608
277.8,1.94663e-08,0,126088,126088
277.85,1.91287e-08,0,126520,126520
277.9,1.87523e-08,0,126952,126952
277.951,1.8333e-08,0,127336,127336
278,1.78875e-08,0,127768,127768
278.05,1.7416e-08,0,128152,128152
278.101,1.69179e-08,0,128584,128584
278.15,1.64137e-08,0,128968,128968
278.2,1.59016e-08,0,129304,129304
278.25,1.5385e-08,0,129688,129688
278.301,1.4859e-08,0,130072,130072
278.35,1.43406e-08,0,130360,130360
278.4,1.38246e-08,0,130696,130696
278.451,1.33057e-08,0,131072,131072
278.5,1.28024e-08,0,131072,131072
278.55,1.23108e-08,0,131072,131072
278.6,1.18354e-08,0,131072,131072
278.651,1.13746e-08,0,131072,131072
278.7,1.09467e-08,0,131072,131072
278.75,1.05488e-08,0,131072,131072
278.8,1.01835e-08,0,131072,131072
278.851,9.84692e-09,0,131072,131072
278.9,9.54786e-09,0,131072,131072
278.95,9.27942e-09,0,131072,131072
279.001,9.03601e-09,0,131072,131072
279.05,8.82239e-09,0,131072,131072
279.1,8.63278e-09,0,131072,131072
279.15,8.46553e-09,0,131072,131072
279.201,8.31737e-09,0,131072,131072
279.25,8.19156e-09,0,131072,131072
279.3,8.0847e-09,0,131072,131072
279.351,7.99395e-09,0,131072,131072
279.401,7.91944e-09,0,131072,131072
279.45,7.85667e-09,0,131072,131072
279.5,7.80291e-09,0,131072,131072
279.551,7.75613e-09,0,131072,131072
279.6,7.71766e-09,0,131072,131072
279.65,7.68734e-09,0,131072,131072
279.7,7.66525e-09,0,131072,131072
279.751,7.65027e-09,0,131072,131072
279.8,7.64114e-09,0,131072,131072
279.85,7.63587e-09,0,131072,131072
279.901,7.63315e-09,0,131072,131072
279.95,7.63256e-09,0,131072,131072
280,7.63432e-09,0,131072,131072
280.05,7.63923e-09,0,131072,131072
280.101,7.64806e-09,0,131072,131072
280.15,7.66046e-09,0,131072,131072
280.2,7.67561e-09,0,131072,131072
280.251,7.69252e-09,0,131072,131072
280.301,7.70969e-09,0,131072,131072
280.35,7.72684e-09,0,131072,131072
280.4,7.74385e-09,0,131072,131072
280.451,7.761e-09,0,131072,131072
280.5,7.77784e-09,0,131072,131072
280.55,7.79459e-09,0,131072,131072
280.6,7.81127e-09,0,131072,131072
280.651,7.82811e-09,0,131072,131072
280.7,7.84469e-09,0,131072,131072
280.75,7.86137e-09,0,131072,131072
280.801,7.87838e-09,0,131072,131072
280.85,7.89514e-09,0,131072,131072
280.9,7.9118e-09,0,131072,131072
280.95,7.92827e-09,0,131072,131072
281.001,7.94472e-09,0,131072,131072
281.05,7.96063e-09,0,131072,131072
281.1,7.97621e-09,0,131072,131072
281.15,7.99144e-09,0,131072,131072
281.201,8.0065e-09,0,131072,131072
281.25,8.02096e-09,0,131072,131072
281.3,8.03505e-09,0,131072,131072
281.351,8.04894e-09,0,131072,131072
281.4,8.0622e-09,0,131072,131072
281.45,8.07503e-09,0,131072,131072
281.5,8.08746e-09,0,131072,131072
281.551,8.09966e-09,0,131072,131072
281.6,8.11119e-09,0,131072,131072
281.65,8.12201e-09,0,131072,131072
281.701,8.13193e-09,0,131072,131072
281.751,8.14046e-09,0,131072,131072
281.8,8.14793e-09,0,131072,131072
281.85,8.15582e-09,0,131072,131072
281.901,8.16792e-09,0,131072,131072
281.95,8.18907e-09,0,131072,131072
282,8.22446e-09,0,131072,131072
282.05,8.27855e-09,0,131072,131072
282.101,8.35712e-09,0,131072,131072
282.15,8.46259e-09,0,131072,131072
282.2,8.59981e-09,0,131072,131072
282.251,8.77347e-09,0,131072,131072
282.3,8.978e-09,0,131072,131072
282.35,9.21388e-09,0,131072,131072
282.4,9.48078e-09,0,131072,131072
282.451,9.78734e-09,0,131072,131072
282.5,1.01346e-08,0,131072,131072
282.55,1.05423e-08,0,131072,131072
282.601,1.10375e-08,0,131072,131072
282.651,1.16273e-08,0,131072,131072
282.7,1.23406e-08,0,131072,131072
282.75,1.32001e-08,0,131072,131072
282.801,1.42452e-08,0,131072,131072
282.85,1.54659e-08,0,131072,131072
282.9,1.68922e-08,0,131072,131072
282.95,1.85355e-08,0,131072,131072
283.001,2.0434e-08,0,131072,131072
283.05,2.25418e-08,0,131072,131072
283.1,2.48933e-08,0,131072,131072
283.151,2.75339e-08,0,131072,131072
283.2,3.03833e-08,0,131072,131072
283.25,3.34619e-08,0,131072,131072
283.3,3.67418e-08,0,131072,131072
283.351,4.02397e-08,0,131072,131072
283.4,4.38182e-08,0,131072,131072
283.45,4.74963e-08,0,131072,131072
283.5,5.12494e-08,0,131072,131072
283.551,5.51121e-08,0,131072,131072
283.6,5.89511e-08,0,131072,131072
283.65,6.28051e-08,0,131072,131072
283.701,6.67296e-08,0,131072,131072
283.75,7.06446e-08,0,131072,131072
283.8,7.47156e-08,0,131072,131072
283.85,7.91877e-08,0,131072,131072
283.901,8.45175e-08,0,131072,131072
283.95,9.08425e-08,0,131072,131072
284,9.81526e-08,0,131072,131072
284.051,1.06066e-07,0,131072,131072
284.101,1.13686e-07,0,131072,131072
284.15,1.20642e-07,0,131072,131072
284.2,1.26845e-07,0,131072,131072
284.251,1.32727e-07,0,131072,131072
284.3,1.38783e-07,0,131072,131072
284.35,1.45833e-07,0,131072,131072
284.4,1.54461e-07,0,131072,131072
284.451,1.65173e-07,0,131072,131072
284.5,1.77851e-07,0,131072,131072
284.55,1.92883e-07,0,131072,131072
284.601,2.11026e-07,0,131072,131072
284.65,2.32444e-07,0,131072,131072
284.7,2.58083e-07,0,131072,131072
284.75,2.88399e-07,0,131072,131072
284.801,3.23915e-07,0,131072,131072
284.85,3.63035e-07,0,131072,131072
284.9,4.05316e-07,0,131072,131072
284.951,4.50494e-07,0,131072,131072
285.001,4.96612e-07,0,131072,131072
285.05,5.43994e-07,0,131072,131072
285.1,5.92303e-07,0,131072,131072
285.151,6.41407e-07,0,131072,131072
285.2,6.88256e-07,0,131072,131072
285.25,7.31339e-07,0,131072,131072
285.3,7.68337e-07,0,131072,131072
285.351,7.97794e-07,0,131072,131072
285.4,8.17947e-07,0,131072,131072
285.45,8.29407e-07,0,131072,131072
285.501,8.3311e-07,0,131072,131072
285.55,8.30304e-07,0,131072,131072
285.6,8.22382e-07,0,131072,131072
285.65,8.10235e-07,0,131072,131072
285.701,7.93943e-07,0,131072,131072
285.75,7.73813e-07,0,131072,131072
285.8,7.49125e-07,0,131072,131072
285.85,7.19235e-07,0,131072,131072
285.901,6.83038e-07,0,131072,131072
285.95,6.41401e-07,0,131072,131072
286,5.94232e-07,0,131072,131072
286.051,5.41803e-07,0,131072,131072
286.1,4.8729e-07,0,131072,131072
286.15,4.31898e-07,0,131072,131072
286.2,3.77485e-07,0,131072,131072
286.251,3.24772e-07,0,131072,131072
286.3,2.76204e-07,0,131072,131072
286.35,2.31351e-07,0,131072,131072
286.401,1.89567e-07,0,131072,131072
286.451,1.51759e-07,0,131072,131072
286.5,1.1696e-07,0,131072,131072
286.55,8.49882e-08,0,131072,131072
286.601,5.55347e-08,0,131072,131072
286.65,2.98054e-08,0,131072,131072
286.7,7.74843e-09,0,131072,131072
286.75,-1.05072e-08,0,131072,131072
286.801,-2.55278e-08,0,131072,131072
286.85,-3.77108e-08,0,131072,131072
286.9,-4.82207e-08,0,131072,131072
286.951,-5.77819e-08,0,131072,131072
287,-6.61616e-08,0,131072,131072
287.05,-7.31359e-08,0,131072,131072
287.1,-7.8286e-08,0,131072,131072
287.151,-8.1516e-08,0,131072,131072
287.2,-8.30297e-08,0,131072,131072
287.25,-8.34939e-08,0,131072,131072
287.301,-8.35548e-08,0,131072,131072
287.351,-8.36134e-08,0,131072,131072
287.4,-8.36606e-08,0,131072,131072
287.45,-8.33363e-08,0,131072,131072
287.501,-8.21519e-08,0,131072,131072
287.55,-7.98542e-08,0,131072,131072
287.6,-7.6474e-08,0,131072,131072
287.65,-7.23169e-08,0,131072,131072
287.701,-6.77089e-08,0,131072,131072
287.75,-6.31066e-08,0,131072,131072
287.8,-5.86275e-08,0,131072,131072
287.851,-5.42871e-08,0,131072,131072
287.9,-5.0244e-08,0,131072,131072
287.95,-4.64628e-08,0,131072,131072
288,-4.29711e-08,0,131072,131072
288.051,-3.973e-08,0,131072,131072
288.1,-3.68052e-08,0,131072,131072
288.15,-3.40998e-08,0,131072,131072
288.201,-3.15383e-08,0,131072,131072
288.251,-2.91795e-08,0,131072,131072
288.3,-2.69884e-08,0,131072,131072
288.35,-2.49723e-08,0,131072,131072
288.401,-2.31066e-08,0,131072,131072
288.45,-2.14393e-08,0,131072,131072
288.5,-1.99331e-08,0,131072,131072
288.55,-1.85781e-08,0,131072,131072
288.601,-1.73483e-08,0,131072,131072
288.65,-1.627e-08,0,131072,131072
288.7,-1.53138e-08,0,131072,131072
288.751,-1.44561e-08,0,131072,131072
288.8,-1.37085e-08,0,131072,131072
288.85,-1.3045e-08,0,131072,131072
288.9,-1.24551e-08,0,131072,131072
288.951,-1.19242e-08,0,131072,131072
289,-1.14638e-08,0,131072,131072
289.05,-1.10638e-08,0,131072,131072
289.1,-1.07228e-08,0,131072,131072
289.151,-1.04346e-08,0,131072,131072
289.2,-1.02037e-08,0,131072,131072
289.25,-1.00211e-08,0,131072,131072
289.301,-9.88037e-09,0,131072,131072
289.35,-9.78166e-09,0,131072,131072
289.4,-9.71949e-09,0,131072,131072
289.45,-9.69089e-09,0,131072,131072
289.501,-9.69252e-09,0,131072,131072
289.55,-9.7196e-09,0,131072,131072
289.6,-9.76629e-09,0,131072,131072
289.651,-9.8276e-09,0,131072,131072
289.7,-9.89627e-09,0,131072,131072
289.75,-9.96876e-09,0,131072,131072
289.8,-1.00418e-08,0,131072,131072
289.851,-1.0114e-08,0,131072,131072
289.9,-1.01814e-08,0,131072,131072
289.95,-1.02438e-08,0,131072,131072
290,-1.03007e-08,0,131072,131072
290.051,-1.03529e-08,0,131072,131072
290.1,-1.03996e-08,0,131072,131072
290.15,-1.04423e-08,0,131072,131072
290.201,-1.04818e-08,0,131072,131072
290.25,-1.05171e-08,0,131072,131072
290.3,-1.05486e-08,0,131072,131072
290.35,-1.05767e-08,0,131072,131072
290.401,-1.06028e-08,0,131072,131072
290.45,-1.06276e-08,0,131072,131072
290.5,-1.06527e-08,0,131072,131072
290.551,-1.06791e-08,0,131072,131072
290.601,-1.07062e-08,0,131072,131072
290.65,-1.07338e-08,0,131072,131072
290.7,-1.07613e-08,0,131072,131072
290.751,-1.0789e-08,0,131072,131072
290.8,-1.08161e-08,0,131072,131072
290.85,-1.08435e-08,0,131072,131072
290.9,-1.08717e-08,0,131072,131072
290.951,-1.09013e-08,0,131072,131072
291,-1.09313e-08,0,131072,131072
291.05,-1.09623e-08,0,131072,131072
291.101,-1.09953e-08,0,131072,131072
291.15,-1.10305e-08,0,131072,131072
291.2,-1.10697e-08,0,131072,131072
291.25,-1.11145e-08,0,131072,131072
291.301,-1.11669e-08,0,131072,131072
291.35,-1.12258e-08,0,131072,131072
291.4,-1.12918e-08,0,131072,131072
291.451,-1.13657e-08,0,131072,131072
291.501,-1.14455e-08,0,131072,131072
291.55,-1.15332e-08,0,131072,131072
291.6,-1.16301e-08,0,131072,131072
291.651,-1.17389e-08,0,131072,131072
291.7,-1.18568e-08,0,131072,131072
291.75,-1.19849e-08,0,131072,131072
291.8,-1.21222e-08,0,131072,131072
291.851,-1.22698e-08,0,131072,131072
291.9,-1.24234e-08,0,131072,131072
291.95,-1.25856e-08,0,131072,131072
292.001,-1.27612e-08,0,131072,131072
292.05,-1.2948e-08,0,131072,131072
292.1,-1.31519e-08,0,131072,131072
292.15,-1.33762e-08,0,131072,131072
292.201,-1.36274e-08,0,131072,131072
292.25,-1.39001e-08,0,131072,131072
292.3,-1.41986e-08,0,131072,131072
292.35,-1.45227e-08,0,131072,131072
292.401,-1.48767e-08,0,131072,131072
292.45,-1.52486e-08,0,131072,131072
292.5,-1.56414e-08,0,131072,131072
292.551,-1.60589e-08,0,131072,131072
292.6,-1.64867e-08,0,131072,131072
292.65,-1.69277e-08,0,131072,131072
292.7,-1.73785e-08,0,131072,131072
292.751,-1.78421e-08,0,131072,131072
292.8,-1.83007e-08,0,131072,131072
292.85,-1.87567e-08,0,131072,131072
292.901,-1.92126e-08,0,131072,131072
292.951,-1.96509e-08,0,131072,131072
293,-2.00748e-08,0,131072,131072
293.05,-2.04811e-08,0,131072,131072
293.101,-2.08728e-08,0,131072,131072
293.15,-2.12363e-08,0,131072,131072
293.2,-2.15756e-08,0,131072,131072
293.25,-2.18884e-08,0,131072,131072
293.301,-2.21757e-08,0,131072,131072
293.35,-2.24261e-08,0,131072,131072
293.4,-2.2641e-08,0,131072,131072
293.451,-2.2821e-08,0,131072,131072
293.5,-2.29604e-08,0,131072,131072
293.55,-2.30636e-08,0,131072,131072
293.6,-2.31327e-08,0,131072,131072
293.651,-2.31709e-08,0,131072,131072
293.7,-2.31795e-08,0,131072,131072
293.75,-2.31615e-08,0,131072,131072
293.801,-2.3118e-08,0,131072,131072
293.851,-2.3052e-08,0,131072,131072
293.9,-2.29656e-08,0,131072,131072
293.95,-2.28613e-08,0,131072,131072
294.001,-2.27404e-08,0,131072,131072
294.05,-2.26092e-08,0,131072,131072
294.1,-2.24688e-08,0,131072,131072
294.15,-2.23211e-08,0,131072,131072
294.201,-2.21657e-08,0,131072,131072
294.25,-2.20084e-08,0,131072,131072
294.3,-2.18481e-08,0,131072,131072
294.351,-2.16834e-08,0,131072,131072
294.4,-2.15202e-08,0,131072,131072
294.45,-2.13572e-08,0,129952,129952
294.5,-2.11953e-08,0,130368,130368
294.551,-2.10333e-08,0,130464,130464
294.6,-2.08765e-08,0,130512,130512
294.65,-2.07231e-08,0,130464,130464
294.7,-2.05735e-08,0,130464,130464
294.751,-2.04257e-08,0,130464,130464
294.8,-2.02844e-08,0,130416,130416
294.85,-2.01477e-08,0,130416,130416
294.901,-2.00141e-08,0,130384,130384
294.95,-1.98878e-08,0,130416,130416
295,-1.97671e-08,0,130416,130416
295.05,-1.96521e-08,0,130384,130384
295.101,-1.95414e-08,0,130368,130368
295.15,-1.94379e-08,0,130368,130368
295.2,-1.93396e-08,0,130272,130272
295.251,-1.9245e-08,0,130272,130272
295.301,-1.91564e-08,0,130224,130224
295.35,-1.90721e-08,0,130224,130224
295.4,-1.89915e-08,0,130176,130176
295.451,-1.89134e-08,0,130176,130176
295.5,-1.88394e-08,0,130176,130176
295.55,-1.87682e-08,0,130144,130144
295.6,-1.86994e-08,0,130128,130128
295.651,-1.86317e-08,0,130128,130128
295.7,-1.85668e-08,0,130128,130128
295.75,-1.85034e-08,0,130128,130128
295.801,-1.84403e-08,0,130096,130096
295.85,-1.83791e-08,0,130080,130080
295.9,-1.83186e-08,0,130080,130080
295.95,-1.82586e-08,0,130128,130128
296.001,-1.81981e-08,0,130080,130080
296.05,-1.81385e-08,0,130080,130080
296.1,-1.80789e-08,0,130032,130032
296.151,-1.80182e-08,0,130032,130032
296.201,-1.7958e-08,0,129984,129984
296.25,-1.78974e-08,0,129984,129984
296.3,-1.78362e-08,0,129984,129984
296.351,-1.77734e-08,0,129984,129984
296.4,-1.77106e-08,0,129984,129984
296.45,-1.7647e-08,0,129984,129984
296.5,-1.75824e-08,0,129936,129936
296.551,-1.75156e-08,0,129936,129936
296.6,-1.74485e-08,0,129936,129936
296.65,-1.738e-08,0,129936,129936
296.701,-1.73088e-08,0,129904,129904
296.75,-1.72367e-08,0,129904,129904
296.8,-1.71627e-08,0,129936,129936
296.85,-1.70863e-08,0,129888,129888
296.901,-1.70061e-08,0,129888,129888
296.95,-1.69242e-08,0,129888,129888
297,-1.68392e-08,0,129888,129888
297.05,-1.67507e-08,0,129856,129856
297.101,-1.66571e-08,0,129856,129856
297.15,-1.65607e-08,0,129888,129888
297.2,-1.64601e-08,0,129888,129888
297.251,-1.63533e-08,0,129840,129840
297.3,-1.62433e-08,0,129840,129840
297.35,-1.61283e-08,0,129840,129840
297.4,-1.60082e-08,0,129808,129808
297.451,-1.5881e-08,0,129840,129840
297.5,-1.57504e-08,0,129840,129840
297.55,-1.56145e-08,0,129840,129840
297.601,-1.54712e-08,0,129840,129840
297.651,-1.53248e-08,0,129840,129840
297.7,-1.51731e-08,0,129840,129840
297.75,-1.50162e-08,0,129808,129808
297.801,-1.48515e-08,0,129840,129840
297.85,-1.46837e-08,0,129888,129888
297.9,-1.45101e-08,0,129840,129840
297.95,-1.43306e-08,0,129888,129888
298.001,-1.41421e-08,0,129904,129904
298.05,-1.395e-08,0,129888,129888
298.1,-1.37517e-08,0,129936,129936
298.151,-1.35443e-08,0,129888,129888
298.2,-1.33342e-08,0,129936,129936
298.25,-1.31187e-08,0,129984,129984
298.3,-1.28975e-08,0,129936,129936
298.351,-1.26673e-08,0,129952,129952
298.4,-1.24338e-08,0,129984,129984
298.45,-1.21929e-08,0,129984,129984
298.501,-1.19396e-08,0,129984,129984
298.551,-1.16796e-08,0,130032,130032
298.6,-1.14072e-08,0,130032,130032
298.65,-1.11205e-08,0,130032,130032
298.701,-1.08122e-08,0,130032,130032
298.75,-1.04887e-08,0,130000,130000
298.8,-1.0143e-08,0,129984,129984
298.85,-9.77272e-09,0,129984,129984
298.901,-9.3697e-09,0,130032,130032
298.95,-8.94398e-09,0,129984,129984
299,-8.48879e-09,0,129984,129984
299.051,-7.99622e-09,0,130000,130000
299.1,-7.48064e-09,0,129984,129984
299.15,-6.936e-09,0,129952,129952
299.2,-6.36409e-09,0,129984,129984
299.251,-5.75884e-09,0,129984,129984
299.3,-5.14166e-09,0,129936,129936
299.35,-4.50773e-09,0,129984,129984
299.4,-3.85825e-09,0,129936,129936
299.451,-3.18004e-09,0,129936,129936
299.5,-2.48136e-09,0,129936,129936
299.55,-1.77722e-09,0,129936,129936
299.601,-1.19142e-09,0,129936,129936
299.65,-7.04774e-10,0,129888,129888
299.7,-1.43613e-10,0,129888,129888
299.75,2.8982e-10,0,129888,129888
299.801,8.51397e-10,0,129840,129840
299.85,1.54137e-09,0,129840,129840
299.9,2.02407e-09,0,129840,129840
299.951,2.47565e-09,0,129840,129840
300,2.88065e-09,0,129840,129840
300.05,3.24428e-09,0,129792,129792
300.1,3.56396e-09,0,129792,129792
300.151,3.8442e-09,0,129744,129744
300.2,4.07646e-09,0,129760,129760
300.25,4.2666e-09,0,129744,129744
300.3,4.41683e-09,0,129696,129696
300.351,4.53117e-09,0,129712,129712
300.4,4.60989e-09,0,129744,129744
300.45,4.65707e-09,0,129696,129696
300.501,4.67622e-09,0,129696,129696
300.55,4.66991e-09,0,129696,129696
300.6,4.64114e-09,0,129648,129648
300.65,4.59308e-09,0,129648,129648
300.701,4.52753e-09,0,129648,129648
300.75,4.44917e-09,0,129648,129648
300.8,4.35989e-09,0,129600,129600
300.851,4.26044e-09,0,129600,129600
300.901,4.15587e-09,0,129568,129568
300.95,4.04662e-09,0,129552,129552
301,3.93417e-09,0,129520,129520
301.051,3.81836e-09,0,129552,129552
301.1,3.70383e-09,0,129504,129504
301.15,3.59014e-09,0,129456,129456
301.2,3.47818e-09,0,129456,129456
301.251,3.36709e-09,0,129408,129408
301.3,3.26063e-09,0,129408,129408
301.35,3.15767e-09,0,129376,129376
301.401,3.05728e-09,0,129360,129360
301.45,2.96312e-09,0,129360,129360
301.5,2.8745e-09,0,129360,129360
301.55,2.79222e-09,0,129328,129328
301.601,2.71584e-09,0,129312,129312
301.65,2.64796e-09,0,129312,129312
301.7,2.58766e-09,0,129312,129312
301.751,2.53427e-09,0,129264,129264
301.801,2.48925e-09,0,129264,129264
301.85,2.45152e-09,0,129264,129264
301.9,2.42069e-09,0,129264,129264
301.951,2.39579e-09,0,129232,129232
302,2.37676e-09,0,129216,129216
302.05,2.36219e-09,0,129216,129216
302.1,2.35113e-09,0,129216,129216
302.151,2.34256e-09,0,129184,129184
302.2,2.33602e-09,0,129168,129168
302.25,2.33074e-09,0,129168,129168
302.301,2.32609e-09,0,129168,129168
302.35,2.32152e-09,0,129168,129168
302.4,2.31615e-09,0,129136,129136
302.45,2.30924e-09,0,129120,129120
302.501,2.30006e-09,0,129120,129120
302.55,2.28878e-09,0,129120,129120
302.6,2.27566e-09,0,129088,129088
302.65,2.26155e-09,0,129120,129120
302.701,2.24727e-09,0,129120,129120
302.75,2.23417e-09,0,129088,129088
302.8,2.22264e-09,0,129072,129072
302.851,2.21272e-09,0,129120,129120
302.9,2.20451e-09,0,129120,129120
302.95,2.19722e-09,0,129120,129120
303,2.19023e-09,0,129736,129736
303.051,2.18299e-09,0,130408,130408
303.1,2.17547e-09,0,131072,131072
303.15,2.16765e-09,0,131072,131072
303.201,2.15989e-09,0,131072,131072
303.251,2.15314e-09,0,131072,131072
303.3,2.14809e-09,0,131072,131072
303.35,2.14544e-09,0,131072,131072
303.401,2.14559e-09,0,131072,131072
303.45,2.14855e-09,0,131072,131072
303.5,2.15392e-09,0,131072,131072
303.55,2.16106e-09,0,131072,131072
303.601,2.16932e-09,0,131072,131072
303.65,2.17777e-09,0,131072,131072
303.7,2.18603e-09,0,131072,131072
303.751,2.19393e-09,0,131072,131072
303.8,2.20121e-09,0,131072,131072
303.85,2.20807e-09,0,131072,131072
303.9,2.21454e-09,0,131072,131072
303.951,2.22066e-09,0,131072,131072
304,2.22605e-09,0,131072,131072
304.05,2.23053e-09,0,131072,131072
304.101,2.23392e-09,0,131072,131072
304.151,2.23609e-09,0,131072,131072
304.2,2.23724e-09,0,131072,131072
304.25,2.23765e-09,0,131072,131072
304.301,2.23757e-09,0,131072,131072
304.35,2.23715e-09,0,131072,131072
304.4,2.23632e-09,0,131072,131072
304.45,2.23494e-09,0,131072,131072
304.501,2.23281e-09,0,131072,131072
304.55,2.22995e-09,0,131072,131072
304.6,2.22647e-09,0,131072,131072
304.651,2.22253e-09,0,131072,131072
304.7,2.21848e-09,0,131072,131072
304.75,2.21439e-09,0,131072,131072
304.8,2.21022e-09,0,131072,131072
304.851,2.20578e-09,0,131072,131072
304.9,2.20098e-09,0,131072,131072
304.95,2.19562e-09,0,131072,131072
