250,0,0,512,512
250.012,0,0,512,512
250.059,0,0,512,512
250.105,0,0,512,512
250.152,0,0,512,512
250.211,0,0,512,512
250.258,0,0,512,512
250.305,0,0,512,512
250.352,0,0,512,512
250.41,0,0,512,512
250.457,0,0,512,512
250.504,0,0,512,512
250.551,0,0,512,512
250.609,0,0,512,512
250.656,0,0,512,512
250.703,0,0,512,512
250.762,0,0,512,512
250.808,0,0,512,512
250.855,0,0,512,512
250.902,0,0,512,512
250.961,0,0,512,512
251.008,0,0,512,512
251.055,0,0,512,512
251.101,0,0,512,512
251.16,0,0,512,512
251.207,0,0,512,512
251.254,0,0,512,512
251.301,0,0,512,512
251.359,0,0,512,512
251.406,0,0,512,512
251.453,0,0,512,512
251.511,0,0,512,512
251.558,0,0,512,512
251.605,0,0,512,512
251.652,0,0,512,512
251.711,0,0,512,512
251.758,0,0,512,512
251.804,0,0,512,512
251.851,0,0,512,512
251.91,0,0,512,512
251.957,0,0,512,512
252.004,0,0,512,512
252.05,0,0,512,512
252.109,0,0,512,512
252.156,0,0,512,512
252.203,0,0,512,512
252.261,0,0,512,512
252.308,0,0,512,512
252.355,0,0,512,512
252.402,0,0,512,512
252.461,0,0,512,512
252.507,0,0,512,512
252.554,0,0,512,512
252.601,0,0,512,512
252.66,0,0,512,512
252.707,0,0,512,512
252.754,0,0,512,512
252.8,0,0,512,512
252.859,0,0,512,512
252.906,0,0,512,512
252.953,0,0,512,512
253.011,0,0,512,512
253.058,0,0,512,512
253.105,0,0,512,512
253.152,0,0,512,512
253.21,0,0,512,512
253.257,0,0,512,512
253.304,0,0,512,512
253.351,0,0,512,512
253.41,0,0,512,512
253.457,0,0,512,512
253.503,0,0,512,512
253.55,0,0,512,512
253.609,0,0,512,512
253.656,0,0,512,512
253.703,0,0,512,512
253.761,0,0,512,512
253.808,0,0,512,512
253.855,0,0,512,512
253.902,0,0,512,512
253.96,0,0,512,512
254.007,0,0,512,512
254.054,0,0,512,512
254.101,0,0,512,512
254.16,0,0,512,512
254.206,0,0,512,512
254.253,0,0,512,512
254.3,0,0,512,512
254.359,0,0,512,512
254.406,0,0,512,512
254.452,0,0,512,512
254.511,0,0,512,512
254.558,0,0,512,512
254.605,0,0,512,512
254.652,0,0,512,512
254.71,0,0,512,512
254.757,0,0,512,512
254.804,0,0,512,512
254.851,0,0,512,512
254.909,0,0,512,512
254.956,0,0,512,512
255.003,0,0,512,512
255.05,0,0,512,512
255.109,0,0,512,512
255.155,0,0,512,512
255.202,0,0,512,512
255.261,0,0,512,512
255.308,0,0,512,512
255.355,0,0,512,512
255.402,0,0,512,512
255.46,0,0,512,512
255.507,0,0,512,512
255.554,0,0,512,512
255.601,0,0,512,512
255.659,0,0,512,512
255.706,0,0,512,512
255.753,0,0,512,512
255.812,0,0,512,512
255.859,0,0,512,512
255.905,0,0,512,512
255.952,0,0,512,512
256.011,0,0,512,512
256.058,0,0,512,512
256.105,0,0,512,512
256.151,0,0,512,512
256.21,0,0,512,512
256.257,0,0,512,512
256.304,0,0,512,512
256.351,0,0,512,512
256.409,0,0,512,512
256.456,0,0,512,512
256.503,0,0,512,512
256.562,0,0,512,512
256.608,0,0,512,512
256.655,0,0,512,512
256.702,0,0,512,512
256.761,0,0,512,512
256.808,0,0,512,512
256.854,0,0,512,512
256.901,0,0,512,512
256.96,0,0,512,512
257.007,0,0,512,512
257.054,0,0,512,512
257.101,0,0,512,512
257.159,0,0,512,512
257.206,0,0,512,512
257.253,0,0,512,512
257.311,0,0,512,512
257.358,0,0,512,512
257.405,0,0,512,512
257.452,0,0,512,512
257.511,0,0,512,512
257.557,0,0,512,512
257.604,0,0,512,512
257.651,0,0,512,512
257.71,0,0,512,512
257.757,0,0,512,512
257.804,0,0,512,512
257.85,2.77556e-17,0,512,512
257.909,2.77556e-17,0,512,512
257.956,2.77556e-17,0,512,512
258.003,2.77556e-17,0,512,512
258.061,2.77556e-17,0,512,512
258.108,2.77556e-17,0,512,512
258.155,2.77556e-17,0,512,512
258.202,2.77556e-17,0,512,512
258.261,2.77556e-17,0,512,512
258.307,2.77556e-17,0,512,512
258.354,2.77556e-17,0,512,512
258.401,2.77556e-17,0,512,512
258.46,2.77556e-17,0,512,512
258.507,2.77556e-17,0,512,512
258.553,2.77556e-17,0,512,512
258.6,2.77556e-17,0,512,512
258.659,2.77556e-17,0,512,512
258.706,2.77556e-17,0,512,512
258.753,2.77556e-17,0,512,512
258.811,2.77556e-17,0,512,512
258.858,2.77556e-17,0,512,512
258.905,2.77556e-17,0,512,512
258.952,0,0,512,512
259.01,0,0,512,512
259.057,0,0,512,512
259.104,0,0,512,512
259.151,2.77556e-17,0,512,512
259.21,2.77556e-17,0,512,512
259.256,2.77556e-17,0,512,512
259.303,2.77556e-17,0,512,512
259.35,2.77556e-17,0,512,512
259.409,2.77556e-17,0,512,512
259.456,2.77556e-17,0,512,512
259.503,2.77556e-17,0,512,512
259.561,2.77556e-17,0,512,512
259.608,2.77556e-17,0,512,512
259.655,2.77556e-17,0,512,512
259.702,2.77556e-17,0,512,512
259.76,2.77556e-17,0,512,512
259.807,2.77556e-17,0,512,512
259.854,2.77556e-17,0,512,512
259.901,2.77556e-17,0,512,512
259.959,2.77556e-17,0,512,512
260.006,2.77556e-17,0,512,512
260.053,2.77556e-17,0,512,512
260.1,2.77556e-17,0,512,512
260.159,2.77556e-17,0,512,512
260.206,0,0,512,512
260.252,0,0,512,512
260.311,0,0,512,512
260.358,0,0,512,512
260.405,0,0,512,512
260.452,0,0,512,512
260.51,0,0,512,512
260.557,0,0,512,512
260.604,0,0,512,512
260.651,0,0,512,512
260.709,0,0,512,512
260.756,0,0,512,512
260.803,0,0,512,512
260.862,0,0,512,512
260.909,0,0,512,512
260.955,0,0,512,512
261.002,0,0,512,512
261.061,0,0,512,512
261.108,0,0,512,512
261.155,0,0,512,512
261.201,0,0,512,512
261.26,0,0,512,512
261.307,0,0,512,512
261.354,0,0,512,512
261.401,0,0,512,512
261.459,0,0,512,512
261.506,0,0,512,512
261.553,0,0,512,512
261.612,0,0,512,512
261.658,0,0,512,512
261.705,0,0,512,512
261.752,0,0,512,512
261.811,0,0,512,512
261.858,0,0,512,512
261.905,0,0,512,512
261.951,0,0,512,512
262.01,0,0,512,512
262.057,0,0,512,512
262.104,0,0,512,512
262.151,0,0,512,512
262.209,0,0,512,512
262.256,0,0,512,512
262.303,0,0,512,512
262.361,0,0,512,512
262.408,0,0,512,512
262.455,0,0,512,512
262.502,0,0,512,512
262.561,0,0,512,512
262.608,0,0,512,512
262.654,0,0,512,512
262.701,0,0,512,512
262.76,0,0,512,512
262.807,0,0,512,512
262.854,0,0,512,512
262.9,0,0,512,512
262.959,0,0,512,512
263.006,0,0,512,512
263.053,0,0,512,512
263.111,-2.77556e-17,0,512,512
263.158,-2.77556e-17,0,512,512
263.205,-2.77556e-17,0,512,512
263.252,-2.77556e-17,0,512,512
263.311,-2.77556e-17,0,512,512
263.357,-2.77556e-17,0,512,512
263.404,-2.77556e-17,0,512,512
263.451,-2.77556e-17,0,512,512
263.51,-2.77556e-17,0,512,512
263.557,-2.77556e-17,0,512,512
263.603,-2.77556e-17,0,512,512
263.65,-2.77556e-17,0,512,512
263.709,-2.77556e-17,0,512,512
263.756,-2.77556e-17,0,512,512
263.803,-2.77556e-17,0,512,512
263.861,-2.77556e-17,0,512,512
263.908,-2.77556e-17,0,512,512
263.955,-2.77556e-17,0,512,512
264.002,-2.77556e-17,0,512,512
264.06,-2.77556e-17,0,512,512
264.107,-2.77556e-17,0,512,512
264.154,-2.77556e-17,0,512,512
264.201,-2.77556e-17,0,512,512
264.26,-2.77556e-17,0,512,512
264.306,-2.77556e-17,0,512,512
264.353,-2.77556e-17,0,512,512
264.4,-2.77556e-17,0,512,512
264.459,0,0,512,512
264.506,0,0,512,512
264.553,0,0,512,512
264.611,0,0,512,512
264.658,0,0,512,512
264.705,0,0,512,512
264.752,0,0,512,512
264.81,0,0,512,512
264.857,0,0,512,512
264.904,0,0,512,512
264.951,0,0,512,512
265.01,0,0,512,512
265.056,0,0,512,512
265.103,0,0,512,512
265.15,0,0,512,512
265.209,0,0,512,512
265.256,0,0,512,512
265.302,0,0,512,512
265.361,0,0,512,512
265.408,0,0,512,512
265.455,0,0,512,512
265.502,0,0,512,512
265.56,0,0,512,512
265.607,0,0,512,512
265.654,0,0,512,512
265.701,0,0,512,512
265.759,0,0,512,512
265.806,0,0,512,512
265.853,0,0,512,512
265.9,0,0,512,512
265.959,0,0,512,512
266.005,0,0,512,512
266.052,0,0,512,512
266.111,0,0,512,512
266.158,0,0,512,512
266.205,0,0,512,512
266.252,0,0,512,512
266.31,0,0,512,512
266.357,0,0,512,512
266.404,0,0,512,512
266.451,0,0,512,512
266.509,0,0,512,512
266.556,0,0,512,512
266.603,0,0,512,512
266.662,0,0,512,512
266.708,0,0,512,512
266.755,0,0,512,512
266.802,0,0,512,512
266.861,0,0,512,512
266.908,0,0,512,512
266.955,0,0,512,512
267.001,0,0,512,512
267.06,0,0,512,512
267.107,0,0,512,512
267.154,0,0,512,512
267.201,0,0,512,512
267.259,0,0,512,512
267.306,0,0,512,512
267.353,0,0,512,512
267.412,0,0,512,512
267.458,0,0,512,512
267.505,0,0,512,512
267.552,2.77556e-17,0,512,512
267.611,2.77556e-17,0,512,512
267.658,2.77556e-17,0,512,512
267.704,2.77556e-17,0,512,512
267.751,2.77556e-17,0,512,512
267.81,2.77556e-17,0,512,512
267.857,2.77556e-17,0,512,512
267.904,2.77556e-17,0,512,512
267.95,2.77556e-17,0,512,512
268.009,2.77556e-17,0,512,512
268.056,2.77556e-17,0,512,512
268.105,2.77556e-17,0,531,531
268.152,2.77556e-17,0,543,543
268.205,2.77556e-17,0,549,549
268.252,2.77556e-17,0,561,561
268.304,2.77556e-17,0,573,573
268.351,2.77556e-17,0,579,579
268.404,2.77556e-17,0,591,591
268.451,2.77556e-17,0,603,603
268.504,2.77556e-17,0,615,615
268.55,2.77556e-17,0,627,627
268.603,2.77556e-17,0,639,639
268.65,2.77556e-17,0,645,645
268.703,2.77556e-17,0,657,657
268.756,2.77556e-17,0,669,669
268.802,2.77556e-17,0,681,681
268.855,2.77556e-17,0,693,693
268.902,2.77556e-17,0,705,705
268.955,2.77556e-17,0,711,711
269.002,2.77556e-17,0,723,723
269.054,2.77556e-17,0,735,735
269.101,2.77556e-17,0,747,747
269.154,2.77556e-17,0,759,759
269.201,2.77556e-17,0,765,765
269.254,2.77556e-17,0,777,777
269.3,2.77556e-17,0,789,789
269.353,2.77556e-17,0,801,801
269.406,2.77556e-17,0,813,813
269.453,2.77556e-17,0,819,819
269.505,2.77556e-17,0,833,833
269.552,2.77556e-17,0,843,843
269.605,2.77556e-17,0,855,855
269.652,2.77556e-17,0,867,867
269.705,2.77556e-17,0,875,875
269.751,2.77556e-17,0,885,885
269.804,2.77556e-17,0,897,897
269.851,2.77556e-17,0,909,909
269.904,2.77556e-17,0,917,917
269.951,2.77556e-17,0,927,927
270.003,2.77556e-17,0,939,939
270.05,2.77556e-17,0,951,951
270.103,2.77556e-17,0,959,959
270.156,2.77556e-17,0,969,969
270.203,2.77556e-17,0,981,981
270.255,2.77556e-17,0,993,993
270.302,2.77556e-17,0,999,999
270.355,2.77556e-17,0,1011,1011
270.402,2.77556e-17,0,1023,1023
270.455,2.77556e-17,0,1031,1031
270.501,2.77556e-17,0,1041,1041
270.554,2.77556e-17,0,1053,1053
270.601,2.77556e-17,0,1059,1059
270.654,2.77556e-17,0,1071,1071
270.701,2.77556e-17,0,1079,1079
270.753,2.77556e-17,0,1091,1091
270.8,2.77556e-17,0,1101,1101
270.853,2.77556e-17,0,1109,1109
270.906,2.77556e-17,0,1119,1119
270.952,2.77556e-17,0,1131,1131
271.005,2.77556e-17,0,1131,1131
271.052,2.77556e-17,0,1129,1129
271.105,2.77556e-17,0,1133,1133
271.152,2.77556e-17,0,1135,1135
271.204,2.77556e-17,0,1139,1139
271.251,2.77556e-17,0,1141,1141
271.304,2.77556e-17,0,1145,1145
271.351,2.77556e-17,0,1139,1139
271.404,2.77556e-17,0,1127,1127
271.45,2.77556e-17,0,1119,1119
271.503,2.77556e-17,0,1121,1121
271.55,2.77556e-17,0,1131,1131
271.603,2.77556e-17,0,1125,1125
271.655,2.77556e-17,0,1129,1129
271.702,2.77556e-17,0,1117,1117
271.755,2.77556e-17,0,1113,1113
271.802,2.77556e-17,0,1117,1117
271.855,2.77556e-17,0,1117,1117
271.902,2.77556e-17,0,1115,1115
271.954,2.77556e-17,0,1129,1129
272.001,2.77556e-17,0,1137,1137
272.054,2.77556e-17,0,1141,1141
272.101,2.77556e-17,0,1139,1139
272.153,2.77556e-17,0,1143,1143
272.2,2.77556e-17,0,1153,1153
272.253,2.77556e-17,0,1163,1163
272.306,2.77556e-17,0,1171,1171
272.353,2.77556e-17,0,1175,1175
272.405,2.77556e-17,0,1175,1175
272.452,2.77556e-17,0,1181,1181
272.505,2.77556e-17,0,1193,1193
272.552,2.77556e-17,0,1197,1197
272.605,2.77556e-17,0,1197,1197
272.651,2.77556e-17,0,1207,1207
272.704,2.77556e-17,0,1215,1215
272.751,2.77556e-17,0,1225,1225
272.804,2.77556e-17,0,1233,1233
272.851,2.77556e-17,0,1245,1245
272.903,0,0,1245,1245
272.95,-1.66533e-16,0,1253,1253
273.003,-3.60822e-16,0,1261,1261
273.056,-6.38378e-16,0,1261,1261
273.103,-1.22125e-15,0,1255,1255
273.155,-2.85882e-15,0,1267,1267
273.202,-6.38378e-15,0,1267,1267
273.255,-1.53766e-14,0,1281,1281
273.302,-3.2363e-14,0,1287,1287
273.354,-7.15816e-14,0,1297,1297
273.401,-1.39222e-13,0,1309,1309
273.454,-2.8158e-13,0,1323,1323
273.501,-5.07205e-13,0,1331,1331
273.554,-9.44161e-13,0,1335,1335
273.601,-1.58401e-12,0,1345,1345
273.653,-2.73009e-12,0,1357,1357
273.7,-4.2879e-12,0,1359,1359
273.753,-6.87791e-12,0,1371,1371
273.806,-1.06351e-11,0,1383,1383
273.852,-1.51953e-11,0,1393,1393
273.905,-2.19243e-11,0,1403,1403
273.952,-2.94181e-11,0,1405,1405
274.005,-3.94438e-11,0,1421,1421
274.052,-4.94234e-11,0,1429,1429
274.104,-6.10835e-11,0,1435,1435
274.151,-7.08827e-11,0,1451,1451
274.204,-7.99217e-11,0,1451,1451
274.251,-8.49931e-11,0,1465,1465
274.304,-8.614e-11,0,1469,1469
274.35,-8.23995e-11,0,1481,1481
274.403,-7.25706e-11,0,1489,1489
274.456,-5.71608e-11,0,1499,1499
274.503,-3.95138e-11,0,1501,1501
274.555,-1.62257e-11,0,1509,1509
274.602,7.20957e-12,0,1509,1509
274.655,3.4043e-11,0,1517,1517
274.702,5.46783e-11,0,1521,1521
274.755,7.23287e-11,0,1533,1533
274.802,8.32796e-11,0,1539,1539
274.854,9.12686e-11,0,1551,1551
274.901,9.5873e-11,0,1557,1557
274.954,9.96681e-11,0,1569,1569
275.001,1.02474e-10,0,1575,1575
275.053,1.05274e-10,0,1581,1581
275.1,1.07513e-10,0,1593,1593
275.153,1.09776e-10,0,1599,1599
275.206,1.11787e-10,0,1611,1611
275.253,1.13398e-10,0,1617,1617
275.305,1.151e-10,0,1629,1629
275.352,1.16651e-10,0,1635,1635
275.405,1.18702e-10,0,1643,1643
275.452,1.21132e-10,0,1649,1649
275.505,1.25112e-10,0,1651,1651
275.551,1.30419e-10,0,1659,1659
275.604,1.39414e-10,0,1657,1657
275.651,1.51259e-10,0,1661,1661
275.704,1.70718e-10,0,1659,1659
275.751,1.989e-10,0,1661,1661
275.803,3.1572e-10,0,1665,1665
275.85,5.54083e-10,0,1663,1663
275.903,1.07601e-09,0,1671,1671
275.956,1.99404e-09,0,1669,1669
276.003,3.2572e-09,0,1673,1673
276.055,5.28244e-09,0,1675,1675
276.102,7.64871e-09,0,1673,1673
276.155,1.09176e-08,0,1677,1677
276.202,1.42924e-08,0,1679,1679
276.254,1.85195e-08,0,1683,1683
276.301,2.26142e-08,0,1685,1685
276.354,2.76323e-08,0,1683,1683
276.401,3.25817e-08,0,1691,1691
276.454,3.89603e-08,0,1689,1689
276.5,4.56544e-08,0,1695,1695
276.553,5.47622e-08,0,1703,1703
276.6,6.46646e-08,0,1705,1705
276.653,7.83404e-08,0,1709,1709
276.706,9.52518e-08,0,1715,1715
276.752,1.13458e-07,0,1713,1713
276.805,1.37979e-07,0,1725,1725
276.852,1.63687e-07,0,1723,1723
276.905,1.97245e-07,0,1724,1724
276.952,2.31242e-07,0,1732,1732
277.004,2.74047e-07,0,1732,1732
277.051,3.15882e-07,0,1734,1734
277.104,3.6673e-07,0,1742,1742
277.151,4.1475e-07,0,1724,1724
277.203,4.71143e-07,0,1738,1738
277.25,5.22522e-07,0,1750,1750
277.303,5.80529e-07,0,1750,1750
277.356,6.37286e-07,0,1760,1760
277.403,6.85376e-07,0,1762,1762
277.455,7.35386e-07,0,1766,1766
277.502,7.75133e-07,0,1780,1780
277.555,8.13614e-07,0,1786,1786
277.602,8.41795e-07,0,1794,1794
277.655,8.66518e-07,0,1806,1806
277.701,8.82364e-07,0,1820,1820
277.754,8.93548e-07,0,1824,1824
277.801,8.97829e-07,0,1842,1842
277.854,8.96501e-07,0,1844,1844
277.901,8.89946e-07,0,1850,1850
277.953,8.76521e-07,0,1862,1862
278,8.59172e-07,0,1866,1866
278.053,8.33574e-07,0,1874,1874
278.106,8.01737e-07,0,1878,1878
278.153,7.68586e-07,0,1878,1878
278.205,7.26564e-07,0,1888,1888
278.252,6.85852e-07,0,1896,1896
278.305,6.37433e-07,0,1902,1902
278.352,5.93115e-07,0,1908,1908
278.404,5.42985e-07,0,1912,1912
278.451,4.99052e-07,0,1920,1920
278.504,4.51133e-07,0,1928,1928
278.551,4.10378e-07,0,1936,1936
278.604,3.66992e-07,0,1944,1944
278.651,3.30837e-07,0,1950,1950
278.703,2.93048e-07,0,1956,1956
278.75,2.62122e-07,0,1958,1958
278.803,2.30394e-07,0,1940,1940
278.856,2.01905e-07,0,1928,1928
278.902,1.79217e-07,0,1912,1912
278.955,1.56473e-07,0,1900,1900
279.002,1.38512e-07,0,1894,1894
279.055,1.2057e-07,0,1870,1870
279.102,1.06416e-07,0,1856,1856
279.154,9.23045e-08,0,1836,1836
279.201,8.12353e-08,0,1828,1828
279.254,7.03066e-08,0,1814,1814
279.301,6.18299e-08,0,1800,1800
279.354,5.35313e-08,0,1778,1778
279.4,4.71125e-08,0,1768,1768
279.453,4.08156e-08,0,1748,1748
279.5,3.59465e-08,0,1732,1732
279.553,3.12406e-08,0,1704,1704
279.605,2.73661e-08,0,1688,1688
279.652,2.46626e-08,0,1678,1678
279.705,2.25018e-08,0,1650,1650
279.752,2.13781e-08,0,1652,1652
279.805,2.09803e-08,0,1664,1664
279.852,2.13318e-08,0,1660,1660
279.904,2.24133e-08,0,1656,1656
279.951,2.3882e-08,0,1650,1650
280.004,2.59905e-08,0,1652,1652
280.051,2.81879e-08,0,1648,1648
280.103,3.09505e-08,0,1636,1636
280.15,3.3622e-08,0,1634,1634
280.203,3.68407e-08,0,1639,1639
280.256,4.02707e-08,0,1647,1647
280.303,4.34942e-08,0,1653,1653
280.355,4.73221e-08,0,1655,1655
280.402,5.09105e-08,0,1665,1665
280.455,5.5167e-08,0,1681,1681
280.502,5.91565e-08,0,1685,1685
280.555,6.38904e-08,0,1700,1700
280.601,6.83299e-08,0,1704,1704
280.654,7.36006e-08,0,1694,1694
280.701,7.85453e-08,0,1698,1698
280.754,8.44164e-08,0,1698,1698
280.801,8.99228e-08,0,1692,1692
280.853,9.64581e-08,0,1692,1692
280.9,1.02589e-07,0,1698,1698
280.953,1.09882e-07,0,1694,1694
281.006,1.17649e-07,0,1686,1686
281.053,1.25023e-07,0,1692,1692
281.105,1.33963e-07,0,1692,1692
281.152,1.42614e-07,0,1682,1682
281.205,1.53337e-07,0,1682,1682
281.252,1.63949e-07,0,1686,1686
281.304,1.77371e-07,0,1684,1684
281.351,1.90867e-07,0,1676,1676
281.404,2.08106e-07,0,1680,1680
281.451,2.25501e-07,0,1680,1680
281.504,2.47655e-07,0,1670,1670
281.551,2.69819e-07,0,1674,1674
281.603,2.97665e-07,0,1676,1676
281.65,3.2504e-07,0,1672,1672
281.703,3.58723e-07,0,1666,1666
281.756,3.95263e-07,0,1670,1670
281.802,4.29861e-07,0,1672,1672
281.855,4.70717e-07,0,1664,1664
281.902,5.08263e-07,0,1668,1668
281.955,5.51202e-07,0,1664,1664
282.002,5.89329e-07,0,1670,1670
282.054,6.31336e-07,0,1658,1658
282.101,6.67146e-07,0,1662,1662
282.154,7.04847e-07,0,1660,1660
282.201,7.35363e-07,0,1660,1660
282.254,7.65581e-07,0,1658,1658
282.3,7.88241e-07,0,1656,1656
282.353,8.08495e-07,0,1656,1656
282.406,8.22797e-07,0,1654,1654
282.453,8.30287e-07,0,1654,1654
282.505,8.32705e-07,0,1646,1646
282.552,8.29489e-07,0,1646,1646
282.605,8.19903e-07,0,1650,1650
282.652,8.06203e-07,0,1656,1656
282.705,7.85195e-07,0,1652,1652
282.752,7.6181e-07,0,1648,1648
282.804,7.30592e-07,0,1648,1648
282.851,6.98881e-07,0,1646,1646
282.904,6.59302e-07,0,1646,1646
282.951,6.2119e-07,0,1652,1652
283.003,5.75706e-07,0,1652,1652
283.05,5.33588e-07,0,1648,1648
283.103,4.85057e-07,0,1648,1648
283.156,4.36101e-07,0,1644,1644
283.203,3.92508e-07,0,1649,1649
283.251,3.49431e-07,0,1661,1661
283.304,3.02667e-07,0,1673,1673
283.351,2.63026e-07,0,1681,1681
283.404,2.20946e-07,0,1691,1691
283.451,1.86062e-07,0,1701,1701
283.504,1.49755e-07,0,1709,1709
283.551,1.20132e-07,0,1721,1721
283.603,8.98301e-08,0,1731,1731
283.65,6.55627e-08,0,1743,1743
283.703,4.1187e-08,0,1755,1755
283.756,1.97811e-08,0,1767,1767
283.803,3.11182e-09,0,1773,1773
283.855,-1.31619e-08,0,1785,1785
283.902,-2.55829e-08,0,1797,1797
283.955,-3.74478e-08,0,1809,1809
284.002,-4.62828e-08,0,1815,1815
284.055,-5.44813e-08,0,1827,1827
284.101,-6.03716e-08,0,1839,1839
284.154,-6.55897e-08,0,1851,1851
284.201,-6.91044e-08,0,1859,1859
284.254,-7.19306e-08,0,1869,1869
284.301,-7.35456e-08,0,1881,1881
284.353,-7.44651e-08,0,1893,1893
284.4,-7.45734e-08,0,1899,1899
284.453,-7.39953e-08,0,1911,1911
284.506,-7.2777e-08,0,1923,1923
284.553,-7.12402e-08,0,1935,1935
284.605,-6.90948e-08,0,1947,1947
284.652,-6.68977e-08,0,1953,1953
284.705,-6.41913e-08,0,1965,1965
284.752,-6.16519e-08,0,1977,1977
284.804,-5.8726e-08,0,1989,1989
284.851,-5.61257e-08,0,1995,1995
284.904,-5.32629e-08,0,2007,2007
284.951,-5.08173e-08,0,2019,2019
285.004,-4.82168e-08,0,2026,2026
285.051,-4.60635e-08,0,2028,2028
285.103,-4.38378e-08,0,2031,2031
285.15,-4.2043e-08,0,2025,2025
285.203,-4.02339e-08,0,2019,2019
285.256,-3.86451e-08,0,2013,2013
285.302,-3.74123e-08,0,2013,2013
285.355,-3.62184e-08,0,2013,2013
285.402,-3.53189e-08,0,2013,2013
285.455,-3.44766e-08,0,2013,2013
285.502,-3.38668e-08,0,2013,2013
285.554,-3.33231e-08,0,2013,2013
285.601,-3.29538e-08,0,2013,2013
285.654,-3.26523e-08,0,2013,2013
285.701,-3.24734e-08,0,2019,2019
285.754,-3.23588e-08,0,2032,2032
285.8,-3.23228e-08,0,2036,2036
285.853,-3.23443e-08,0,2040,2040
285.906,-3.24195e-08,0,2048,2048
285.953,-3.25224e-08,0,2048,2048
286.005,-3.26695e-08,0,2048,2048
286.052,-3.28213e-08,0,2048,2048
286.105,-3.30083e-08,0,2048,2048
286.152,-3.31839e-08,0,2048,2048
286.205,-3.33863e-08,0,2048,2048
286.252,-3.35667e-08,0,2048,2048
286.304,-3.37663e-08,0,2048,2048
286.351,-3.39378e-08,0,2048,2048
286.404,-3.41215e-08,0,2048,2048
286.451,-3.42745e-08,0,2048,2048
286.503,-3.44333e-08,0,2044,2044
286.55,-3.45614e-08,0,2036,2036
286.603,-3.46898e-08,0,2036,2036
286.656,-3.48007e-08,0,2044,2044
286.703,-3.48844e-08,0,2040,2040
286.755,-3.49617e-08,0,2034,2034
286.802,-3.50156e-08,0,1998,1998
286.855,-3.50598e-08,0,1982,1982
286.902,-3.50846e-08,0,1978,1978
286.955,-3.51003e-08,0,1984,1984
287.001,-3.51187e-08,0,1976,1976
287.054,-3.51052e-08,0,1984,1984
287.101,-3.50759e-08,0,1988,1988
287.154,-3.50401e-08,0,1984,1984
287.201,-3.50045e-08,0,1990,1990
287.253,-3.49565e-08,0,2006,2006
287.3,-3.49081e-08,0,1998,1998
287.353,-3.48537e-08,0,1998,1998
287.406,-3.47988e-08,0,1988,1988
287.452,-3.47495e-08,0,1988,1988
287.505,-3.46941e-08,0,1984,1984
287.552,-3.4646e-08,0,1976,1976
287.605,-3.45937e-08,0,1970,1970
287.652,-3.45499e-08,0,1966,1966
287.704,-3.4504e-08,0,1968,1968
287.751,-3.44665e-08,0,1962,1962
287.804,-3.44283e-08,0,1964,1964
287.851,-3.43981e-08,0,1944,1944
287.904,-3.43695e-08,0,1924,1924
287.95,-3.43504e-08,0,1910,1910
288.003,-3.43324e-08,0,1898,1898
288.05,-3.43367e-08,0,1900,1900
288.103,-3.43237e-08,0,1888,1888
288.156,-3.43193e-08,0,1888,1888
288.202,-3.43265e-08,0,1904,1904
288.255,-3.43437e-08,0,1890,1890
288.302,-3.43615e-08,0,1890,1890
288.355,-3.43752e-08,0,1888,1888
288.402,-3.44114e-08,0,1884,1884
288.454,-3.44715e-08,0,1891,1891
288.501,-3.45526e-08,0,1888,1888
288.554,-3.46273e-08,0,1906,1906
288.601,-3.47054e-08,0,1940,1940
288.653,-3.48095e-08,0,1956,1956
288.7,-3.48996e-08,0,1972,1972
288.753,-3.50134e-08,0,1972,1972
288.806,-3.51483e-08,0,1984,1984
288.853,-3.52715e-08,0,1996,1996
288.905,-3.54256e-08,0,1996,1996
288.952,-3.5581e-08,0,2008,2008
289.005,-3.57663e-08,0,2012,2012
289.052,-3.59473e-08,0,2012,2012
289.105,-3.61718e-08,0,2012,2012
289.151,-3.63834e-08,0,2016,2016
289.204,-3.66394e-08,0,2020,2020
289.251,-3.68833e-08,0,2020,2020
289.304,-3.71707e-08,0,2016,2016
289.351,-3.74403e-08,0,2016,2016
289.403,-3.776e-08,0,2016,2016
289.45,-3.80538e-08,0,2016,2016
289.503,-3.83947e-08,0,2008,2008
289.556,-3.87459e-08,0,2012,2012
289.603,-3.9064e-08,0,2016,2016
289.655,-3.94246e-08,0,2024,2024
289.702,-3.9745e-08,0,2032,2032
289.755,-4.01021e-08,0,2036,2036
289.802,-4.04139e-08,0,2032,2032
289.854,-4.07558e-08,0,2040,2040
289.901,-4.10489e-08,0,2028,2028
289.954,-4.13633e-08,0,2024,2024
290.001,-4.16264e-08,0,2020,2020
290.054,-4.19013e-08,0,2012,2012
290.101,-4.21237e-08,0,2008,2008
290.153,-4.23452e-08,0,2002,2002
290.2,-4.25156e-08,0,2002,2002
290.253,-4.26765e-08,0,1996,1996
290.306,-4.27988e-08,0,2002,2002
290.352,-4.28704e-08,0,1998,1998
290.405,-4.29116e-08,0,1980,1980
290.452,-4.2928e-08,0,1974,1974
290.505,-4.29081e-08,0,1952,1952
290.552,-4.28256e-08,0,1946,1946
290.604,-4.27002e-08,0,1962,1962
290.651,-4.25585e-08,0,1950,1950
290.704,-4.2347e-08,0,1912,1912
290.751,-4.21308e-08,0,1908,1908
290.804,-4.18399e-08,0,1912,1912
290.85,-4.15415e-08,0,1924,1924
290.903,-4.11634e-08,0,1928,1928
290.95,-4.0792e-08,0,1928,1928
291.003,-4.03346e-08,0,1920,1920
291.055,-3.98334e-08,0,1938,1938
291.102,-3.935e-08,0,1934,1934
291.155,-3.87651e-08,0,1952,1952
291.202,-3.82118e-08,0,1976,1976
291.255,-3.75551e-08,0,1998,1998
291.302,-3.6943e-08,0,2006,2006
291.354,-3.62248e-08,0,2028,2028
291.401,-3.55624e-08,0,2028,2028
291.454,-3.47933e-08,0,2026,2026
291.501,-3.40917e-08,0,2004,2004
291.553,-3.32861e-08,0,1954,1954
291.6,-3.25591e-08,0,1936,1936
291.653,-3.17333e-08,0,1920,1920
291.706,-3.09039e-08,0,1912,1912
291.753,-3.01677e-08,0,1918,1918
291.805,-2.93451e-08,0,1920,1920
291.852,-2.86227e-08,0,1924,1924
291.905,-2.78241e-08,0,1908,1908
291.952,-2.71302e-08,0,1898,1898
292.005,-2.63713e-08,0,1880,1880
292.051,-2.57189e-08,0,1872,1872
292.104,-2.50128e-08,0,1860,1860
292.151,-2.44121e-08,0,1854,1854
292.204,-2.37688e-08,0,1816,1816
292.251,-2.32279e-08,0,1788,1788
292.303,-2.26558e-08,0,1795,1795
292.35,-2.218e-08,0,1816,1816
292.403,-2.16811e-08,0,1828,1828
292.456,-2.12204e-08,0,1860,1860
292.503,-2.08425e-08,0,1892,1892
292.555,-2.04523e-08,0,1900,1900
292.602,-2.01359e-08,0,1900,1900
292.655,-1.9813e-08,0,1928,1928
292.702,-1.95542e-08,0,1938,1938
292.754,-1.92928e-08,0,1938,1938
292.801,-1.90847e-08,0,1944,1944
292.854,-1.88752e-08,0,1940,1940
292.901,-1.87086e-08,0,1948,1948
292.954,-1.85411e-08,0,1942,1942
293,-1.84081e-08,0,1938,1938
293.053,-1.82742e-08,0,1920,1920
293.1,-1.81672e-08,0,1906,1906
293.153,-1.80582e-08,0,1886,1886
293.206,-1.7959e-08,0,1874,1874
293.252,-1.78772e-08,0,1880,1880
293.305,-1.77908e-08,0,1912,1912
293.352,-1.77175e-08,0,1924,1924
293.405,-1.76377e-08,0,1928,1928
293.452,-1.75676e-08,0,1928,1928
293.504,-1.74884e-08,0,1932,1932
293.551,-1.74165e-08,0,1924,1924
293.604,-1.73324e-08,0,1916,1916
293.651,-1.7254e-08,0,1888,1888
293.704,-1.71604e-08,0,1882,1882
293.75,-1.70717e-08,0,1868,1868
293.803,-1.69652e-08,0,1856,1856
293.856,-1.68513e-08,0,1862,1862
293.903,-1.67437e-08,0,1874,1874
293.955,-1.66157e-08,0,1856,1856
294.002,-1.64961e-08,0,1854,1854
294.055,-1.63558e-08,0,1846,1846
294.102,-1.62266e-08,0,1862,1862
294.155,-1.60771e-08,0,1866,1866
294.201,-1.59413e-08,0,1870,1870
294.254,-1.57861e-08,0,1896,1896
294.301,-1.5647e-08,0,1898,1898
294.354,-1.54903e-08,0,1912,1912
294.401,-1.53518e-08,0,1922,1922
294.453,-1.51981e-08,0,1956,1956
294.5,-1.50642e-08,0,1976,1976
294.553,-1.49183e-08,0,1998,1998
294.606,-1.47803e-08,0,2002,2002
294.653,-1.46652e-08,0,2010,2010
294.705,-1.45404e-08,0,2016,2016
294.752,-1.44274e-08,0,2028,2028
294.805,-1.4295e-08,0,2022,2022
294.852,-1.41732e-08,0,2024,2024
294.905,-1.40327e-08,0,2026,2026
294.951,-1.39051e-08,0,2020,2020
295.004,-1.37572e-08,0,2022,2022
295.051,-1.36202e-08,0,2024,2024
295.104,-1.34571e-08,0,2024,2024
295.151,-1.33002e-08,0,2026,2026
295.203,-1.31066e-08,0,2022,2022
295.25,-1.29189e-08,0,2022,2022
295.303,-1.26913e-08,0,2026,2026
295.356,-1.24467e-08,0,2013,2013
295.402,-1.22136e-08,0,2006,2006
295.455,-1.193e-08,0,2016,2016
295.502,-1.16553e-08,0,2016,2016
295.555,-1.13177e-08,0,2018,2018
295.602,-1.09911e-08,0,2018,2018
295.654,-1.05934e-08,0,2016,2016
295.701,-1.02132e-08,0,2016,2016
295.754,-9.75593e-09,0,2016,2016
295.801,-9.324e-09,0,2018,2018
295.854,-8.81046e-09,0,2010,2010
295.9,-8.33051e-09,0,2004,2004
295.953,-7.76566e-09,0,1992,1992
296,-7.24292e-09,0,1986,1986
296.053,-6.63366e-09,0,1980,1980
296.106,-6.00449e-09,0,1974,1974
296.152,-5.4309e-09,0,1990,1990
296.205,-4.77252e-09,0,2004,2004
296.252,-4.17842e-09,0,2006,2006
296.305,-3.50354e-09,0,2006,2006
296.352,-2.90094e-09,0,2010,2010
296.404,-2.22365e-09,0,2012,2012
296.451,-1.62533e-09,0,2010,2010
296.504,-9.59993e-10,0,2006,2006
296.551,-3.78495e-10,0,2008,2008
296.603,2.61161e-10,0,2002,2002
296.65,8.14066e-10,0,1998,1998
296.703,1.41538e-09,0,1998,1998
296.756,1.99177e-09,0,1994,1994
296.803,2.48086e-09,0,1994,1994
296.855,3.0026e-09,0,1996,1996
296.902,3.43932e-09,0,1996,1996
296.955,3.89853e-09,0,1982,1982
297.002,4.27705e-09,0,1982,1982
297.055,4.6686e-09,0,1979,1979
297.101,4.98567e-09,0,1973,1973
297.154,5.30732e-09,0,1967,1967
297.201,5.56219e-09,0,1967,1967
297.254,5.81451e-09,0,1930,1930
297.301,6.00898e-09,0,1920,1920
297.353,6.19554e-09,0,1920,1920
297.4,6.33393e-09,0,1918,1918
297.453,6.45979e-09,0,1908,1908
297.506,6.55494e-09,0,1910,1910
297.553,6.61505e-09,0,1924,1924
297.605,6.65775e-09,0,1932,1932
297.652,6.67443e-09,0,1922,1922
297.705,6.67096e-09,0,1910,1910
297.752,6.65297e-09,0,1912,1912
297.804,6.62486e-09,0,1898,1898
297.851,6.59053e-09,0,1894,1894
297.904,6.54532e-09,0,1882,1882
297.951,6.5007e-09,0,1892,1892
298.004,6.44771e-09,0,1894,1894
298.051,6.38626e-09,0,1891,1891
298.103,6.30582e-09,0,1909,1909
298.15,6.23108e-09,0,1934,1934
298.203,6.14854e-09,0,1954,1954
298.256,6.06726e-09,0,1966,1966
298.302,5.99573e-09,0,1968,1968
298.355,5.91757e-09,0,1972,1972
298.402,5.85133e-09,0,1970,1970
298.455,5.78089e-09,0,1974,1974
298.502,5.72303e-09,0,1980,1980
298.554,5.6646e-09,0,1984,1984
298.601,5.61865e-09,0,1984,1984
298.654,5.57295e-09,0,1986,1986
298.701,5.53652e-09,0,1980,1980
298.754,5.49871e-09,0,1978,1978
298.8,5.46677e-09,0,1968,1968
298.853,5.43169e-09,0,1968,1968
298.9,5.40048e-09,0,1964,1964
298.953,5.36446e-09,0,1962,1962
299.005,5.32666e-09,0,1970,1970
299.052,5.29111e-09,0,1966,1966
299.105,5.2487e-09,0,1956,1956
299.152,5.20844e-09,0,1956,1956
299.205,5.15921e-09,0,1950,1950
299.252,5.11109e-09,0,1950,1950
299.304,5.0516e-09,0,1942,1942
299.351,4.99374e-09,0,1934,1934
299.404,4.92259e-09,0,1930,1930
299.451,4.85352e-09,0,1928,1928
299.503,4.7689e-09,0,1904,1904
299.55,4.68759e-09,0,1893,1893
299.603,4.59005e-09,0,1867,1867
299.656,4.48791e-09,0,1861,1861
299.703,4.39512e-09,0,1855,1855
299.755,4.29034e-09,0,1857,1857
299.802,4.19803e-09,0,1845,1845
299.855,4.09598e-09,0,1841,1841
299.902,4.0074e-09,0,1837,1837
299.955,3.91074e-09,0,1827,1827
300.001,3.82821e-09,0,1817,1817
300.054,3.74033e-09,0,1809,1809
300.101,3.66783e-09,0,1808,1808
300.154,3.59392e-09,0,1796,1796
300.201,3.53601e-09,0,1786,1786
300.253,3.48043e-09,0,1786,1786
300.3,3.43988e-09,0,1768,1768
300.353,3.40411e-09,0,1758,1758
300.406,3.37841e-09,0,1724,1724
300.453,3.36651e-09,0,1710,1710
300.505,3.34796e-09,0,1700,1700
300.552,3.34428e-09,0,1692,1692
300.605,3.33598e-09,0,1676,1676
300.652,3.32998e-09,0,1672,1672
300.704,3.32954e-09,0,1664,1664
300.751,3.33209e-09,0,1666,1666
300.804,3.33988e-09,0,1658,1658
300.851,3.35015e-09,0,1660,1660
300.904,3.36576e-09,0,1664,1664
300.951,3.38296e-09,0,1666,1666
301.003,3.40419e-09,0,1662,1662
301.05,3.42303e-09,0,1660,1660
301.103,3.44343e-09,0,1660,1660
301.156,3.46253e-09,0,1656,1656
301.202,3.47779e-09,0,1640,1640
301.255,3.49225e-09,0,1632,1632
301.302,3.50228e-09,0,1620,1620
301.355,3.51025e-09,0,1612,1612
301.402,3.51447e-09,0,1610,1610
301.454,3.5161e-09,0,1608,1608
301.501,3.51484e-09,0,1592,1592
301.554,3.51047e-09,0,1592,1592
301.601,3.50401e-09,0,1584,1584
301.654,3.49389e-09,0,1572,1572
301.7,3.48236e-09,0,1572,1572
301.753,3.46669e-09,0,1558,1558
301.806,3.44841e-09,0,1558,1558
301.853,3.43027e-09,0,1544,1544
301.905,3.40807e-09,0,1540,1540
301.952,3.38704e-09,0,1536,1536
302.005,3.36195e-09,0,1522,1522
302.052,3.33853e-09,0,1522,1522
302.105,3.31082e-09,0,1508,1508
302.151,3.28449e-09,0,1500,1500
302.204,3.25444e-09,0,1492,1492
302.251,3.2255e-09,0,1480,1480
302.304,3.19431e-09,0,1478,1478
302.351,3.1638e-09,0,1468,1468
302.403,3.12857e-09,0,1458,1458
302.45,3.09717e-09,0,1446,1446
302.503,3.06171e-09,0,1442,1442
302.556,3.02519e-09,0,1432,1432
302.603,2.99251e-09,0,1436,1436
302.655,2.9556e-09,0,1424,1424
302.702,2.92237e-09,0,1408,1408
302.755,2.88492e-09,0,1406,1406
302.802,2.85182e-09,0,1390,1390
302.855,2.81456e-09,0,1386,1386
302.901,2.78132e-09,0,1382,1382
302.954,2.74393e-09,0,1372,1372
303.001,2.71065e-09,0,1368,1368
303.054,2.67321e-09,0,1356,1356
303.101,2.63994e-09,0,1344,1344
303.153,2.60247e-09,0,1338,1338
303.2,2.56911e-09,0,1330,1330
303.253,2.53158e-09,0,1318,1318
303.306,2.49402e-09,0,1316,1316
303.352,2.46052e-09,0,1330,1330
303.405,2.42265e-09,0,1330,1330
303.452,2.38878e-09,0,1330,1330
303.505,2.35046e-09,0,1324,1324
303.552,2.31618e-09,0,1316,1316
303.604,2.27735e-09,0,1328,1328
303.651,2.24258e-09,0,1324,1324
303.704,2.20318e-09,0,1316,1316
303.751,2.16789e-09,0,1324,1324
303.804,2.12788e-09,0,1308,1308
303.85,2.09203e-09,0,1308,1308
303.903,2.05136e-09,0,1296,1296
303.95,2.01493e-09,0,1280,1280
304.003,1.97363e-09,0,1285,1285
304.056,1.93205e-09,0,1283,1283
304.102,1.89488e-09,0,1279,1279
304.155,1.85284e-09,0,1285,1285
304.202,1.81532e-09,0,1281,1281
304.255,1.77295e-09,0,1285,1285
304.302,1.73518e-09,0,1286,1286
304.354,1.69262e-09,0,1282,1282
304.401,1.65476e-09,0,1274,1274
304.454,1.61216e-09,0,1266,1266
304.501,1.57434e-09,0,1258,1258
304.553,1.53191e-09,0,1244,1244
304.6,1.49434e-09,0,1232,1232
304.653,1.45229e-09,0,1226,1226
304.706,1.41052e-09,0,1222,1222
304.753,1.37367e-09,0,1196,1196
304.805,1.33259e-09,0,1190,1190
304.852,1.29643e-09,0,1182,1182
304.905,1.25622e-09,0,1172,1172
304.952,1.22091e-09,0,1168,1168
