250,0,0,2048,2048
250.006,0,0,2048,2048
250.053,0,0,2048,2048
250.105,0,0,2048,2048
250.152,0,0,2048,2048
250.205,0,0,2048,2048
250.252,0,0,2048,2048
250.305,0,0,2048,2048
250.352,0,0,2048,2048
250.404,0,0,2048,2048
250.451,0,0,2048,2048
250.504,0,0,2048,2048
250.551,0,0,2048,2048
250.603,0,0,2048,2048
250.65,0,0,2048,2048
250.703,0,0,2048,2048
250.756,0,0,2048,2048
250.803,0,0,2048,2048
250.855,0,0,2048,2048
250.902,0,0,2048,2048
250.955,0,0,2048,2048
251.002,0,0,2048,2048
251.055,0,0,2048,2048
251.101,0,0,2048,2048
251.154,0,0,2048,2048
251.201,0,0,2048,2048
251.254,0,0,2048,2048
251.301,0,0,2048,2048
251.353,0,0,2048,2048
251.4,0,0,2048,2048
251.453,0,0,2048,2048
251.506,0,0,2048,2048
251.553,0,0,2048,2048
251.605,0,0,2048,2048
251.652,0,0,2048,2048
251.705,0,0,2048,2048
251.752,0,0,2048,2048
251.804,0,0,2048,2048
251.851,0,0,2048,2048
251.904,0,0,2048,2048
251.951,0,0,2048,2048
252.004,0,0,2048,2048
252.05,0,0,2048,2048
252.103,0,0,2048,2048
252.15,0,0,2048,2048
252.203,0,0,2048,2048
252.256,0,0,2048,2048
252.302,0,0,2048,2048
252.355,0,0,2048,2048
252.402,0,0,2048,2048
252.455,0,0,2048,2048
252.502,0,0,2048,2048
252.554,0,0,2048,2048
252.601,0,0,2048,2048
252.654,0,0,2048,2048
252.701,0,0,2048,2048
252.754,0,0,2048,2048
252.8,0,0,2048,2048
252.853,0,0,2048,2048
252.906,0,0,2048,2048
252.953,0,0,2048,2048
253.005,0,0,2048,2048
253.052,0,0,2048,2048
253.105,0,0,2048,2048
253.152,0,0,2048,2048
253.205,0,0,2048,2048
253.251,0,0,2048,2048
253.304,0,0,2048,2048
253.351,0,0,2048,2048
253.404,0,0,2048,2048
253.451,0,0,2048,2048
253.503,0,0,2048,2048
253.55,0,0,2048,2048
253.603,0,0,2048,2048
253.656,0,0,2048,2048
253.703,0,0,2048,2048
253.755,0,0,2048,2048
253.802,0,0,2048,2048
253.855,0,0,2048,2048
253.902,0,0,2048,2048
253.954,0,0,2048,2048
254.001,0,0,2048,2048
254.054,0,0,2048,2048
254.101,0,0,2048,2048
254.154,0,0,2048,2048
254.201,0,0,2048,2048
254.253,0,0,2048,2048
254.3,0,0,2048,2048
254.353,0,0,2048,2048
254.406,0,0,2048,2048
254.452,0,0,2048,2048
254.505,0,0,2048,2048
254.552,0,0,2048,2048
254.605,0,0,2048,2048
254.652,0,0,2048,2048
254.704,0,0,2048,2048
254.751,0,0,2048,2048
254.804,0,0,2048,2048
254.851,0,0,2048,2048
254.904,0,0,2048,2048
254.95,0,0,2048,2048
255.003,0,0,2048,2048
255.05,0,0,2048,2048
255.103,0,0,2048,2048
255.155,0,0,2048,2048
255.202,0,0,2048,2048
255.255,0,0,2048,2048
255.302,0,0,2048,2048
255.355,0,0,2048,2048
255.402,0,0,2048,2048
255.454,0,0,2048,2048
255.501,0,0,2048,2048
255.554,0,0,2048,2048
255.601,0,0,2048,2048
255.653,0,0,2048,2048
255.7,0,0,2048,2048
255.753,0,0,2048,2048
255.806,0,0,2048,2048
255.853,0,0,2048,2048
255.905,0,0,2048,2048
255.952,0,0,2048,2048
256.005,0,0,2048,2048
256.052,0,0,2048,2048
256.105,0,0,2048,2048
256.151,0,0,2048,2048
256.204,0,0,2048,2048
256.251,0,0,2048,2048
256.304,0,0,2048,2048
256.351,0,0,2048,2048
256.403,0,0,2048,2048
256.45,0,0,2048,2048
256.503,0,0,2048,2048
256.556,0,0,2048,2048
256.603,0,0,2048,2048
256.655,0,0,2048,2048
256.702,0,0,2048,2048
256.755,0,0,2048,2048
256.802,0,0,2048,2048
256.854,-1.38778e-17,0,2048,2048
256.901,-1.38778e-17,0,2048,2048
256.954,-1.38778e-17,0,2048,2048
257.001,0,0,2048,2048
257.054,0,0,2048,2048
257.101,0,0,2048,2048
257.153,0,0,2048,2048
257.2,0,0,2048,2048
257.253,0,0,2048,2048
257.306,0,0,2048,2048
257.352,0,0,2048,2048
257.405,0,0,2048,2048
257.452,0,0,2048,2048
257.505,0,0,2048,2048
257.552,0,0,2048,2048
257.604,0,0,2048,2048
257.651,0,0,2048,2048
257.704,0,0,2048,2048
257.751,0,0,2048,2048
257.804,0,0,2048,2048
257.85,0,0,2048,2048
257.903,0,0,2048,2048
257.95,0,0,2048,2048
258.003,0,0,2048,2048
258.055,0,0,2048,2048
258.102,0,0,2048,2048
258.155,-1.38778e-17,0,2048,2048
258.202,-1.38778e-17,0,2048,2048
258.255,-1.38778e-17,0,2048,2048
258.302,-1.38778e-17,0,2048,2048
258.354,-1.38778e-17,0,2048,2048
258.401,-1.38778e-17,0,2048,2048
258.454,-1.38778e-17,0,2048,2048
258.501,-1.38778e-17,0,2048,2048
258.553,-1.38778e-17,0,2048,2048
258.6,-1.38778e-17,0,2048,2048
258.653,-1.38778e-17,0,2048,2048
258.706,-1.38778e-17,0,2048,2048
258.753,-1.38778e-17,0,2048,2048
258.805,-1.38778e-17,0,2048,2048
258.852,-1.38778e-17,0,2048,2048
258.905,-1.38778e-17,0,2048,2048
258.952,-1.38778e-17,0,2048,2048
259.005,-1.38778e-17,0,2048,2048
259.051,-2.77556e-17,0,2048,2048
259.104,-2.77556e-17,0,2048,2048
259.151,-2.77556e-17,0,2048,2048
259.204,-2.77556e-17,0,2048,2048
259.251,-2.77556e-17,0,2048,2048
259.303,-2.77556e-17,0,2048,2048
259.35,-2.77556e-17,0,2048,2048
259.403,-2.77556e-17,0,2048,2048
259.456,-2.77556e-17,0,2048,2048
259.503,-2.77556e-17,0,2048,2048
259.555,-2.77556e-17,0,2048,2048
259.602,-2.77556e-17,0,2048,2048
259.655,-2.77556e-17,0,2048,2048
259.702,-1.38778e-17,0,2048,2048
259.754,-1.38778e-17,0,2048,2048
259.801,-1.38778e-17,0,2048,2048
259.854,-1.38778e-17,0,2048,2048
259.901,-1.38778e-17,0,2048,2048
259.954,-1.38778e-17,0,2048,2048
260,-1.38778e-17,0,2048,2048
260.053,-1.38778e-17,0,2048,2048
260.1,-1.38778e-17,0,2048,2048
260.153,-1.38778e-17,0,2048,2048
260.206,-1.38778e-17,0,2048,2048
260.252,-1.38778e-17,0,2048,2048
260.305,-1.38778e-17,0,2048,2048
260.352,-1.38778e-17,0,2048,2048
260.405,-1.38778e-17,0,2048,2048
260.452,-1.38778e-17,0,2048,2048
260.504,-1.38778e-17,0,2048,2048
260.551,-1.38778e-17,0,2048,2048
260.604,-1.38778e-17,0,2048,2048
260.651,-1.38778e-17,0,2048,2048
260.704,-1.38778e-17,0,2048,2048
260.75,-1.38778e-17,0,2048,2048
260.803,-1.38778e-17,0,2048,2048
260.856,-1.38778e-17,0,2048,2048
260.903,-1.38778e-17,0,2048,2048
260.955,-1.38778e-17,0,2048,2048
261.002,-1.38778e-17,0,2048,2048
261.055,-1.38778e-17,0,2048,2048
261.102,-1.38778e-17,0,2048,2048
261.155,-1.38778e-17,0,2048,2048
261.201,-1.38778e-17,0,2048,2048
261.254,-1.38778e-17,0,2048,2048
261.301,-1.38778e-17,0,2048,2048
261.354,-1.38778e-17,0,2048,2048
261.401,-1.38778e-17,0,2048,2048
261.453,0,0,2048,2048
261.5,0,0,2048,2048
261.553,0,0,2048,2048
261.606,0,0,2048,2048
261.653,0,0,2048,2048
261.705,0,0,2048,2048
261.752,0,0,2048,2048
261.805,0,0,2048,2048
261.852,0,0,2048,2048
261.905,0,0,2048,2048
261.951,0,0,2048,2048
262.004,0,0,2048,2048
262.051,0,0,2048,2048
262.104,0,0,2048,2048
262.151,-1.38778e-17,0,2048,2048
262.203,-1.38778e-17,0,2048,2048
262.25,-1.38778e-17,0,2048,2048
262.303,-1.38778e-17,0,2048,2048
262.356,-1.38778e-17,0,2048,2048
262.402,-1.38778e-17,0,2048,2048
262.455,-1.38778e-17,0,2048,2048
262.502,-1.38778e-17,0,2048,2048
262.555,-1.38778e-17,0,2048,2048
262.602,-1.38778e-17,0,2048,2048
262.654,-1.38778e-17,0,2048,2048
262.701,-1.38778e-17,0,2048,2048
262.754,-1.38778e-17,0,2048,2048
262.801,-1.38778e-17,0,2048,2048
262.854,-1.38778e-17,0,2048,2048
262.9,-1.38778e-17,0,2048,2048
262.953,-1.38778e-17,0,2048,2048
263,-1.38778e-17,0,2048,2048
263.053,-1.38778e-17,0,2048,2048
263.105,-2.77556e-17,0,2048,2048
263.152,-2.77556e-17,0,2048,2048
263.205,-2.77556e-17,0,2048,2048
263.252,-2.77556e-17,0,2048,2048
263.305,-2.77556e-17,0,2048,2048
263.352,-2.77556e-17,0,2048,2048
263.404,-2.77556e-17,0,2048,2048
263.451,-2.77556e-17,0,2048,2048
263.504,-2.77556e-17,0,2048,2048
263.551,-2.77556e-17,0,2048,2048
263.603,-2.77556e-17,0,2048,2048
263.65,-2.77556e-17,0,2048,2048
263.703,-2.77556e-17,0,2048,2048
263.756,-2.77556e-17,0,2048,2048
263.803,-2.77556e-17,0,2048,2048
263.855,-2.77556e-17,0,2048,2048
263.902,-2.77556e-17,0,2048,2048
263.955,-2.77556e-17,0,2048,2048
264.002,-2.77556e-17,0,2048,2048
264.055,-2.77556e-17,0,2048,2048
264.101,-2.77556e-17,0,2048,2048
264.154,-2.77556e-17,0,2048,2048
264.201,-2.77556e-17,0,2048,2048
264.254,-2.77556e-17,0,2048,2048
264.301,-2.77556e-17,0,2048,2048
264.353,-2.77556e-17,0,2048,2048
264.4,-2.77556e-17,0,2048,2048
264.453,-2.77556e-17,0,2048,2048
264.506,-2.77556e-17,0,2048,2048
264.553,-2.77556e-17,0,2048,2048
264.605,-2.77556e-17,0,2048,2048
264.652,-2.77556e-17,0,2048,2048
264.705,-2.77556e-17,0,2048,2048
264.752,-2.77556e-17,0,2048,2048
264.804,-2.77556e-17,0,2048,2048
264.851,-2.77556e-17,0,2048,2048
264.904,-2.77556e-17,0,2048,2048
264.951,-2.77556e-17,0,2048,2048
265.004,-2.77556e-17,0,2048,2048
265.051,-2.77556e-17,0,2048,2048
265.103,-2.77556e-17,0,2048,2048
265.15,-2.77556e-17,0,2048,2048
265.203,-2.77556e-17,0,2048,2048
265.256,-2.77556e-17,0,2048,2048
265.302,-2.77556e-17,0,2048,2048
265.355,-2.77556e-17,0,2048,2048
265.402,-2.77556e-17,0,2048,2048
265.455,-2.77556e-17,0,2048,2048
265.502,-2.77556e-17,0,2048,2048
265.554,-2.77556e-17,0,2048,2048
265.601,-2.77556e-17,0,2048,2048
265.654,-2.77556e-17,0,2048,2048
265.701,-2.77556e-17,0,2048,2048
265.754,-2.77556e-17,0,2048,2048
265.8,-2.77556e-17,0,2048,2048
265.853,-2.77556e-17,0,2048,2048
265.9,-2.77556e-17,0,2048,2048
265.953,-2.77556e-17,0,2048,2048
266.005,-2.77556e-17,0,2048,2048
266.052,-2.77556e-17,0,2048,2048
266.105,-2.77556e-17,0,2048,2048
266.152,-2.77556e-17,0,2048,2048
266.205,-2.77556e-17,0,2048,2048
266.252,-2.77556e-17,0,2048,2048
266.304,-2.77556e-17,0,2048,2048
266.351,-2.77556e-17,0,2048,2048
266.404,-2.77556e-17,0,2048,2048
266.451,-2.77556e-17,0,2048,2048
266.503,-2.77556e-17,0,2048,2048
266.55,-2.77556e-17,0,2048,2048
266.603,-2.77556e-17,0,2048,2048
266.656,-2.77556e-17,0,2048,2048
266.703,-2.77556e-17,0,2048,2048
266.755,-2.77556e-17,0,2048,2048
266.802,-2.77556e-17,0,2048,2048
266.855,-2.77556e-17,0,2048,2048
266.902,-2.77556e-17,0,2048,2048
266.955,-2.77556e-17,0,2048,2048
267.001,-2.77556e-17,0,2048,2048
267.054,-2.77556e-17,0,2048,2048
267.101,-2.77556e-17,0,2048,2048
267.154,-2.77556e-17,0,2048,2048
267.201,-1.38778e-17,0,2048,2048
267.253,-1.38778e-17,0,2048,2048
267.3,-1.38778e-17,0,2048,2048
267.353,-1.38778e-17,0,2048,2048
267.406,-1.38778e-17,0,2048,2048
267.453,-1.38778e-17,0,2048,2048
267.505,-1.38778e-17,0,2048,2048
267.552,-1.38778e-17,0,2048,2048
267.605,-1.38778e-17,0,2048,2048
267.652,-1.38778e-17,0,2048,2048
267.704,-1.38778e-17,0,2048,2048
267.751,-1.38778e-17,0,2048,2048
267.804,-1.38778e-17,0,2048,2048
267.851,-1.38778e-17,0,2048,2048
267.904,-1.38778e-17,0,2048,2048
267.95,-1.38778e-17,0,2048,2048
268.003,-2.77556e-17,0,2048,2048
268.05,-2.77556e-17,0,2048,2048
268.103,-2.77556e-17,0,2048,2048
268.156,-2.77556e-17,0,2048,2048
268.202,-2.77556e-17,0,2048,2048
268.255,-2.77556e-17,0,2048,2048
268.302,-2.77556e-17,0,2048,2048
268.355,-2.77556e-17,0,2048,2048
268.402,-2.77556e-17,0,2048,2048
268.454,-2.77556e-17,0,2048,2048
268.501,-2.77556e-17,0,2048,2048
268.554,-2.77556e-17,0,2048,2048
268.601,-2.77556e-17,0,2048,2048
268.654,-2.77556e-17,0,2048,2048
268.7,-2.77556e-17,0,2048,2048
268.753,-2.77556e-17,0,2048,2048
268.806,-2.77556e-17,0,2048,2048
268.853,-2.77556e-17,0,2048,2048
268.905,-2.77556e-17,0,2048,2048
268.952,-2.77556e-17,0,2048,2048
269.005,-2.77556e-17,0,2048,2048
269.052,-2.77556e-17,0,2048,2048
269.105,-2.77556e-17,0,2048,2048
269.151,-2.77556e-17,0,2048,2048
269.204,-2.77556e-17,0,2048,2048
269.251,-2.77556e-17,0,2048,2048
269.304,-2.77556e-17,0,2048,2048
269.351,-2.77556e-17,0,2048,2048
269.403,-1.38778e-17,0,2048,2048
269.45,-1.38778e-17,0,2048,2048
269.503,-1.38778e-17,0,2048,2048
269.556,-1.38778e-17,0,2048,2048
269.603,-1.38778e-17,0,2048,2048
269.655,-1.38778e-17,0,2048,2048
269.702,-1.38778e-17,0,2048,2048
269.755,-1.38778e-17,0,2048,2048
269.802,-1.38778e-17,0,2048,2048
269.855,-1.38778e-17,0,2048,2048
269.901,-1.38778e-17,0,2048,2048
269.954,-1.38778e-17,0,2048,2048
270.001,-1.38778e-17,0,2048,2048
270.054,-1.38778e-17,0,2048,2048
270.101,-1.38778e-17,0,2048,2048
270.153,-1.38778e-17,0,2048,2048
270.2,-1.38778e-17,0,2048,2048
270.253,-1.38778e-17,0,2048,2048
270.306,-1.38778e-17,0,2048,2048
270.352,-1.38778e-17,0,2048,2048
270.402,-1.38778e-17,0,2050,2050
270.452,-1.38778e-17,0,2070,2070
270.502,-1.38778e-17,0,2098,2098
270.551,-1.38778e-17,0,2126,2126
270.601,-1.38778e-17,0,2146,2146
270.651,-1.38778e-17,0,2190,2190
270.701,-1.38778e-17,0,2242,2242
270.75,-1.38778e-17,0,2310,2310
270.801,-1.38778e-17,0,2402,2402
270.851,-1.38778e-17,0,2546,2546
270.901,-1.38778e-17,0,2686,2686
270.951,-1.38778e-17,0,2834,2834
271,-1.38778e-17,0,2986,2986
271.05,-1.38778e-17,0,3126,3126
271.101,-1.38778e-17,0,3278,3278
271.151,-1.38778e-17,0,3426,3426
271.201,-1.38778e-17,0,3582,3582
271.251,-1.38778e-17,0,3726,3726
271.301,-1.38778e-17,0,3866,3866
271.35,-1.38778e-17,0,4034,4034
271.4,-1.38778e-17,0,4122,4122
271.45,-1.38778e-17,0,4186,4186
271.501,-1.38778e-17,0,4176,4176
271.551,-1.38778e-17,0,4176,4176
271.601,-1.38778e-17,0,4180,4180
271.651,-1.38778e-17,0,4172,4172
271.7,-1.38778e-17,0,4184,4184
271.75,-1.38778e-17,0,4178,4178
271.8,-1.38778e-17,0,4214,4214
271.851,-1.38778e-17,0,4250,4250
271.901,-1.38778e-17,0,4298,4298
271.951,-1.38778e-17,0,4378,4378
272.001,-1.38778e-17,0,4498,4498
272.051,-1.38778e-17,0,4646,4646
272.1,-1.38778e-17,0,4794,4794
272.15,-1.38778e-17,0,4954,4954
272.201,-1.38778e-17,0,5082,5082
272.251,-1.38778e-17,0,5230,5230
272.301,-1.38778e-17,0,5366,5366
272.351,-1.38778e-17,0,5522,5522
272.401,-1.38778e-17,0,5646,5646
272.45,-1.38778e-17,0,5810,5810
272.5,-1.38778e-17,0,5954,5954
272.551,-1.38778e-17,0,6114,6114
272.601,-1.38778e-17,0,6246,6246
272.651,-1.38778e-17,0,6430,6430
272.701,-1.38778e-17,0,6514,6514
272.751,-1.38778e-17,0,6558,6558
272.8,-1.38778e-17,0,6622,6622
272.85,-1.38778e-17,0,6674,6674
272.9,-1.38778e-17,0,6686,6686
272.951,-1.38778e-17,0,6730,6730
273.001,-1.38778e-17,0,6766,6766
273.051,-1.38778e-17,0,6782,6782
273.101,-1.38778e-17,0,6806,6806
273.15,-1.38778e-17,0,6800,6800
273.2,-1.38778e-17,0,6796,6796
273.25,-1.38778e-17,0,6804,6804
273.301,-1.38778e-17,0,6776,6776
273.351,-1.38778e-17,0,6804,6804
273.401,-1.38778e-17,0,6780,6780
273.451,-1.38778e-17,0,6736,6736
273.501,-1.38778e-17,0,6740,6740
273.55,-1.38778e-17,0,6760,6760
273.6,-1.38778e-17,0,6708,6708
273.651,-1.38778e-17,0,6692,6692
273.701,-1.38778e-17,0,6736,6736
273.751,-1.38778e-17,0,6692,6692
273.801,-1.38778e-17,0,6708,6708
273.851,-1.38778e-17,0,6688,6688
273.9,-1.38778e-17,0,6672,6672
273.95,-1.38778e-17,0,6672,6672
274.001,-1.38778e-17,0,6664,6664
274.051,-1.38778e-17,0,6676,6676
274.101,-1.38778e-17,0,6632,6632
274.151,-1.38778e-17,0,6648,6648
274.201,-1.38778e-17,0,6656,6656
274.25,-1.38778e-17,0,6628,6628
274.3,-1.38778e-17,0,6620,6620
274.35,-1.38778e-17,0,6640,6640
274.4,-1.38778e-17,0,6628,6628
274.45,-1.38778e-17,0,6644,6644
274.5,-1.38778e-17,0,6708,6708
274.551,-1.38778e-17,0,6740,6740
274.6,-2.77556e-16,0,6780,6780
274.651,-7.21645e-16,0,6808,6808
274.7,-1.16573e-15,0,6808,6808
274.751,-1.6237e-15,0,6804,6804
274.801,-2.08167e-15,0,6776,6776
274.851,-2.53964e-15,0,6784,6784
274.901,-2.9976e-15,0,6784,6784
274.95,-3.44169e-15,0,6768,6768
275,-4.16334e-15,0,6760,6760
275.051,-5.46785e-15,0,6744,6744
275.1,-8.54872e-15,0,6708,6708
275.151,-1.65007e-14,0,6716,6716
275.201,-3.49859e-14,0,6680,6680
275.25,-7.65776e-14,0,6696,6696
275.3,-1.65423e-13,0,6668,6668
275.35,-3.45182e-13,0,6648,6648
275.401,-6.89865e-13,0,6632,6632
275.451,-1.31656e-12,0,6580,6580
275.502,-2.39739e-12,0,6588,6588
275.551,-4.09545e-12,0,6612,6612
275.6,-6.69427e-12,0,6580,6580
275.651,-1.06156e-11,0,6580,6580
275.701,-1.58708e-11,0,6528,6528
275.751,-2.27136e-11,0,6540,6540
275.801,-3.11142e-11,0,6512,6512
275.851,-4.0791e-11,0,6500,6500
275.901,-5.11629e-11,0,6504,6504
275.952,-6.13535e-11,0,6448,6448
276.001,-7.00057e-11,0,6428,6428
276.051,-7.65471e-11,0,6440,6440
276.101,-7.95329e-11,0,6428,6428
276.15,-7.84747e-11,0,6424,6424
276.2,-7.30038e-11,0,6408,6408
276.25,-6.31981e-11,0,6400,6400
276.3,-4.95811e-11,0,6360,6360
276.35,-3.30393e-11,0,6376,6376
276.401,-1.46975e-11,0,6328,6328
276.452,4.23607e-12,0,6364,6364
276.501,2.20174e-11,0,6304,6304
276.552,3.89288e-11,0,6320,6320
276.601,5.31343e-11,0,6316,6316
276.651,6.47794e-11,0,6304,6304
276.701,7.36284e-11,0,6292,6292
276.751,7.96451e-11,0,6268,6268
276.801,8.29761e-11,0,6280,6280
276.851,8.39448e-11,0,6252,6252
276.9,8.31109e-11,0,6244,6244
276.951,8.1103e-11,0,6256,6256
277,7.89431e-11,0,6208,6208
277.051,7.77225e-11,0,6224,6224
277.101,7.91533e-11,0,6228,6228
277.151,8.54197e-11,0,6192,6192
277.201,9.98349e-11,0,6232,6232
277.251,1.27416e-10,0,6196,6196
277.301,1.75762e-10,0,6164,6164
277.351,2.56257e-10,0,6188,6188
277.4,3.79741e-10,0,6168,6168
277.451,5.77705e-10,0,6160,6160
277.501,8.64164e-10,0,6184,6184
277.55,1.27956e-09,0,6160,6160
277.602,1.89143e-09,0,6148,6148
277.652,2.70562e-09,0,6140,6140
277.702,3.79233e-09,0,6100,6100
277.752,5.20256e-09,0,6116,6116
277.8,6.91246e-09,0,6124,6124
277.85,9.09853e-09,0,6068,6068
277.901,1.17432e-08,0,6084,6084
277.951,1.48828e-08,0,6096,6096
278.002,1.85501e-08,0,6028,6028
278.051,2.26093e-08,0,6060,6060
278.101,2.74036e-08,0,6088,6088
278.15,3.26104e-08,0,6044,6044
278.201,3.86679e-08,0,6056,6056
278.252,4.54291e-08,0,6020,6020
278.301,5.26454e-08,0,6028,6028
278.352,6.09111e-08,0,6024,6024
278.401,6.9629e-08,0,6000,6000
278.45,7.9029e-08,0,6024,6024
278.502,8.92774e-08,0,5984,5984
278.551,1.01284e-07,0,5992,5992
278.601,1.21996e-07,0,5980,5980
278.65,1.47658e-07,0,5932,5932
278.702,1.82441e-07,0,5986,5986
278.751,2.19691e-07,0,5934,5934
278.801,2.60477e-07,0,5902,5902
278.851,3.03955e-07,0,5894,5894
278.901,3.49611e-07,0,5834,5834
278.951,4.01766e-07,0,5978,5978
279.001,4.50926e-07,0,6054,6054
279.051,5.35724e-07,0,6054,6054
279.101,6.2341e-07,0,6018,6018
279.152,7.06192e-07,0,6042,6042
279.2,7.8126e-07,0,5974,5974
279.251,8.55244e-07,0,5894,5894
279.301,9.24042e-07,0,5794,5794
279.352,9.85603e-07,0,5822,5822
279.4,1.03637e-06,0,5862,5862
279.451,1.07935e-06,0,5894,5894
279.5,1.10984e-06,0,5846,5846
279.551,1.13077e-06,0,5686,5686
279.602,1.14693e-06,0,5578,5578
279.651,1.16283e-06,0,5370,5370
279.702,1.18198e-06,0,5278,5278
279.751,1.20308e-06,0,5202,5202
279.801,1.22556e-06,0,5174,5174
279.851,1.24866e-06,0,5086,5086
279.901,1.27021e-06,0,4978,4978
279.951,1.28123e-06,0,4786,4786
280.001,1.28148e-06,0,4946,4946
280.052,1.29067e-06,0,4530,4530
280.101,1.27961e-06,0,4232,4232
280.15,1.30705e-06,0,3474,3474
280.201,1.32196e-06,0,2742,2742
280.251,1.32181e-06,0,2962,2962
280.301,1.3054e-06,0,2922,2922
280.35,1.31972e-06,0,3086,3086
280.4,1.30726e-06,0,3578,3578
280.451,1.28948e-06,0,3638,3638
280.501,1.27187e-06,0,3606,3606
280.55,1.24467e-06,0,3990,3990
280.6,1.21171e-06,0,4134,4134
280.651,1.16907e-06,0,4214,4214
280.701,1.1238e-06,0,4262,4262
280.751,1.07914e-06,0,4358,4358
280.801,1.03543e-06,0,4462,4462
280.851,9.94361e-07,0,4518,4518
280.901,9.50462e-07,0,4550,4550
280.951,9.05669e-07,0,4582,4582
281,8.55578e-07,0,4590,4590
281.052,7.97941e-07,0,4610,4610
281.101,7.38512e-07,0,4706,4706
281.151,6.77748e-07,0,4806,4806
281.2,6.16105e-07,0,4870,4870
281.251,5.5044e-07,0,4978,4978
281.301,4.84302e-07,0,5050,5050
281.352,4.11386e-07,0,5158,5158
281.401,3.40732e-07,0,5282,5282
281.452,2.73397e-07,0,5410,5410
281.501,2.17467e-07,0,5498,5498
281.551,1.67381e-07,0,5554,5554
281.6,1.25118e-07,0,5494,5494
281.651,8.66469e-08,0,5474,5474
281.701,5.24616e-08,0,5478,5478
281.752,2.20775e-08,0,5474,5474
281.8,-3.17137e-09,0,5438,5438
281.851,-2.47508e-08,0,5416,5416
281.901,-4.21473e-08,0,5428,5428
281.951,-5.50724e-08,0,5436,5436
282.001,-6.5987e-08,0,5468,5468
282.051,-7.64706e-08,0,5500,5500
282.101,-8.26689e-08,0,5484,5484
282.151,-8.91434e-08,0,5532,5532
282.201,-9.00038e-08,0,5548,5548
282.251,-9.14496e-08,0,5588,5588
282.301,-9.1773e-08,0,5604,5604
282.35,-9.16916e-08,0,5620,5620
282.402,-9.06002e-08,0,5624,5624
282.451,-8.89532e-08,0,5648,5648
282.501,-8.67369e-08,0,5644,5644
282.552,-8.39756e-08,0,5652,5652
282.601,-8.09291e-08,0,5664,5664
282.65,-7.75558e-08,0,5688,5688
282.701,-7.37627e-08,0,5668,5668
282.75,-6.99068e-08,0,5688,5688
282.801,-6.57718e-08,0,5692,5692
282.85,-6.17166e-08,0,5692,5692
282.901,-5.74897e-08,0,5696,5696
282.952,-5.33202e-08,0,5700,5700
283,-4.94144e-08,0,5736,5736
283.051,-4.55182e-08,0,5684,5684
283.101,-4.18298e-08,0,5704,5704
283.152,-3.83873e-08,0,5728,5728
283.2,-3.53256e-08,0,5688,5688
283.25,-3.24183e-08,0,5700,5700
283.301,-2.97939e-08,0,5716,5716
283.351,-2.74577e-08,0,5724,5724
283.401,-2.5415e-08,0,5736,5736
283.45,-2.36608e-08,0,5724,5724
283.502,-2.21319e-08,0,5696,5696
283.551,-2.09153e-08,0,5752,5752
283.602,-1.98933e-08,0,5740,5740
283.651,-1.9113e-08,0,5724,5724
283.701,-1.84911e-08,0,5744,5744
283.752,-1.80364e-08,0,5752,5752
283.802,-1.77269e-08,0,5740,5740
283.852,-1.75422e-08,0,5760,5760
283.901,-1.74629e-08,0,5728,5728
283.951,-1.74713e-08,0,5736,5736
284,-1.75523e-08,0,5764,5764
284.051,-1.76982e-08,0,5808,5808
284.1,-1.78861e-08,0,5768,5768
284.151,-1.81169e-08,0,5788,5788
284.202,-1.83729e-08,0,5800,5800
284.25,-1.86351e-08,0,5792,5792
284.3,-1.89152e-08,0,5816,5816
284.352,-1.92091e-08,0,5828,5828
284.401,-1.94934e-08,0,5812,5812
284.451,-1.97747e-08,0,5816,5816
284.5,-2.00496e-08,0,5792,5792
284.551,-2.03241e-08,0,5832,5832
284.6,-2.05773e-08,0,5840,5840
284.65,-2.08245e-08,0,5836,5836
284.701,-2.10555e-08,0,5836,5836
284.751,-2.12691e-08,0,5856,5856
284.801,-2.14651e-08,0,5840,5840
284.851,-2.16433e-08,0,5876,5876
284.9,-2.18044e-08,0,5864,5864
284.951,-2.19539e-08,0,5880,5880
285.001,-2.20833e-08,0,5860,5860
285.051,-2.22028e-08,0,5888,5888
285.1,-2.23058e-08,0,5892,5892
285.151,-2.24007e-08,0,5872,5872
285.201,-2.2485e-08,0,5880,5880
285.251,-2.25603e-08,0,5912,5912
285.301,-2.26283e-08,0,5924,5924
285.35,-2.26907e-08,0,5944,5944
285.402,-2.27511e-08,0,5932,5932
285.451,-2.28077e-08,0,5936,5936
285.5,-2.28639e-08,0,5936,5936
285.551,-2.29232e-08,0,5944,5944
285.601,-2.29853e-08,0,5964,5964
285.651,-2.30516e-08,0,5964,5964
285.7,-2.31214e-08,0,5992,5992
285.752,-2.32035e-08,0,5960,5960
285.801,-2.32928e-08,0,6016,6016
285.851,-2.33938e-08,0,5992,5992
285.9,-2.3509e-08,0,6000,6000
285.951,-2.36452e-08,0,6004,6004
286,-2.37967e-08,0,6028,6028
286.051,-2.39754e-08,0,6044,6044
286.101,-2.41793e-08,0,6004,6004
286.151,-2.44106e-08,0,6048,6048
286.201,-2.46717e-08,0,6056,6056
286.251,-2.49644e-08,0,6040,6040
286.301,-2.52907e-08,0,6060,6060
286.351,-2.56523e-08,0,6044,6044
286.4,-2.60502e-08,0,6076,6076
286.451,-2.64988e-08,0,6076,6076
286.501,-2.6986e-08,0,6092,6092
286.55,-2.74946e-08,0,6084,6084
286.601,-2.80529e-08,0,6116,6116
286.651,-2.86426e-08,0,6072,6072
286.701,-2.92597e-08,0,6112,6112
286.75,-2.99002e-08,0,6120,6120
286.8,-3.05616e-08,0,6116,6116
286.85,-3.12405e-08,0,6116,6116
286.901,-3.19542e-08,0,6148,6148
286.951,-3.26589e-08,0,6096,6096
287.001,-3.33725e-08,0,6116,6116
287.051,-3.40926e-08,0,6116,6116
287.101,-3.48174e-08,0,6128,6128
287.15,-3.55449e-08,0,6128,6128
287.2,-3.62734e-08,0,6112,6112
287.251,-3.70226e-08,0,6152,6152
287.301,-3.77478e-08,0,6100,6100
287.351,-3.84688e-08,0,6108,6108
287.401,-3.91836e-08,0,6132,6132
287.451,-3.98905e-08,0,6132,6132
287.5,-4.05877e-08,0,6164,6164
287.55,-4.12734e-08,0,6112,6112
287.601,-4.19653e-08,0,6156,6156
287.651,-4.2622e-08,0,6116,6116
287.701,-4.32618e-08,0,6084,6084
287.751,-4.38829e-08,0,6090,6090
287.801,-4.44834e-08,0,6042,6042
287.85,-4.50617e-08,0,6038,6038
287.9,-4.5616e-08,0,5998,5998
287.951,-4.61599e-08,0,5926,5926
288.001,-4.66608e-08,0,5874,5874
288.051,-4.7133e-08,0,5814,5814
288.101,-4.75754e-08,0,5786,5786
288.151,-4.79866e-08,0,5702,5702
288.2,-4.83657e-08,0,5638,5638
288.25,-4.87115e-08,0,5614,5614
288.3,-4.90232e-08,0,5530,5530
288.351,-4.93076e-08,0,5470,5470
288.401,-4.95476e-08,0,5426,5426
288.451,-4.97512e-08,0,5278,5278
288.501,-4.9918e-08,0,5086,5086
288.55,-5.00477e-08,0,4962,4962
288.6,-5.01405e-08,0,4846,4846
288.65,-5.01968e-08,0,4832,4832
288.701,-5.02176e-08,0,4796,4796
288.751,-5.02031e-08,0,4788,4788
288.801,-5.01561e-08,0,4800,4800
288.851,-5.00789e-08,0,4804,4804
288.901,-4.99739e-08,0,4792,4792
288.95,-4.98438e-08,0,4786,4786
289,-4.96913e-08,0,4750,4750
289.051,-4.95139e-08,0,4718,4718
289.101,-4.93248e-08,0,4646,4646
289.151,-4.91217e-08,0,4606,4606
289.201,-4.89073e-08,0,4550,4550
289.251,-4.86841e-08,0,4502,4502
289.3,-4.84542e-08,0,4426,4426
289.35,-4.82197e-08,0,4374,4374
289.401,-4.79754e-08,0,4302,4302
289.451,-4.77371e-08,0,4166,4166
289.501,-4.74991e-08,0,4006,4006
289.551,-4.72627e-08,0,3850,3850
289.601,-4.70289e-08,0,3686,3686
289.65,-4.67986e-08,0,3546,3546
289.7,-4.65725e-08,0,3382,3382
289.75,-4.6351e-08,0,3230,3230
289.801,-4.61284e-08,0,3050,3050
289.851,-4.59176e-08,0,2914,2914
289.901,-4.57124e-08,0,2762,2762
289.951,-4.5513e-08,0,2602,2602
290.001,-4.53184e-08,0,2474,2474
290.05,-4.51308e-08,0,2374,2374
290.1,-4.49488e-08,0,2270,2270
290.152,-4.4765e-08,0,2182,2182
290.201,-4.45965e-08,0,2130,2130
290.251,-4.44302e-08,0,2098,2098
290.3,-4.42695e-08,0,2054,2054
290.35,-4.41118e-08,0,2048,2048
290.403,-4.39499e-08,0,2048,2048
290.456,-4.37924e-08,0,2048,2048
290.502,-4.36557e-08,0,2048,2048
290.555,-4.35051e-08,0,2048,2048
290.602,-4.33738e-08,0,2048,2048
290.655,-4.32284e-08,0,2048,2048
290.702,-4.31009e-08,0,2048,2048
290.754,-4.29589e-08,0,2048,2048
290.801,-4.28336e-08,0,2048,2048
290.854,-4.26932e-08,0,2048,2048
290.901,-4.25684e-08,0,2048,2048
290.954,-4.24276e-08,0,2048,2048
291,-4.23017e-08,0,2048,2048
291.053,-4.21587e-08,0,2048,2048
291.1,-4.203e-08,0,2048,2048
291.153,-4.18831e-08,0,2048,2048
291.205,-4.17334e-08,0,2048,2048
291.252,-4.15977e-08,0,2048,2048
291.305,-4.14417e-08,0,2048,2048
291.352,-4.12997e-08,0,2048,2048
291.405,-4.11359e-08,0,2048,2048
291.452,-4.09865e-08,0,2048,2048
291.504,-4.08136e-08,0,2048,2048
291.551,-4.06555e-08,0,2048,2048
291.604,-4.04724e-08,0,2048,2048
291.651,-4.03045e-08,0,2048,2048
291.703,-4.01098e-08,0,2048,2048
291.75,-3.9931e-08,0,2048,2048
291.803,-3.97233e-08,0,2048,2048
291.856,-3.95081e-08,0,2048,2048
291.903,-3.93103e-08,0,2048,2048
291.955,-3.90799e-08,0,2048,2048
292.002,-3.88678e-08,0,2048,2048
292.055,-3.86205e-08,0,2048,2048
292.102,-3.83925e-08,0,2048,2048
292.155,-3.81262e-08,0,2048,2048
292.201,-3.78802e-08,0,2048,2048
292.254,-3.75921e-08,0,2048,2048
292.301,-3.73252e-08,0,2048,2048
292.354,-3.70114e-08,0,2048,2048
292.401,-3.67194e-08,0,2048,2048
292.453,-3.63746e-08,0,2048,2048
292.5,-3.60518e-08,0,2048,2048
292.553,-3.56686e-08,0,2048,2048
292.606,-3.52615e-08,0,2048,2048
292.653,-3.48776e-08,0,2048,2048
292.705,-3.44183e-08,0,2048,2048
292.752,-3.39836e-08,0,2048,2048
292.805,-3.34622e-08,0,2048,2048
292.852,-3.2968e-08,0,2048,2048
292.904,-3.23752e-08,0,2048,2048
292.951,-3.18137e-08,0,2048,2048
293.004,-3.11415e-08,0,2048,2048
293.051,-3.05071e-08,0,2048,2048
293.104,-2.97511e-08,0,2048,2048
293.15,-2.90418e-08,0,2048,2048
293.203,-2.82025e-08,0,2048,2048
293.25,-2.74212e-08,0,2048,2048
293.303,-2.65048e-08,0,2048,2048
293.356,-2.5552e-08,0,2048,2048
293.402,-2.46775e-08,0,2048,2048
293.455,-2.36663e-08,0,2048,2048
293.502,-2.27463e-08,0,2048,2048
293.555,-2.16911e-08,0,2048,2048
293.602,-2.07382e-08,0,2048,2048
293.654,-1.96525e-08,0,2048,2048
293.701,-1.86779e-08,0,2048,2048
293.754,-1.75734e-08,0,2048,2048
293.801,-1.65867e-08,0,2048,2048
293.854,-1.54735e-08,0,2048,2048
293.9,-1.44834e-08,0,2048,2048
293.953,-1.33712e-08,0,2048,2048
294.006,-1.22634e-08,0,2048,2048
294.053,-1.12845e-08,0,2048,2048
294.105,-1.01924e-08,0,2048,2048
294.152,-9.23186e-09,0,2048,2048
294.205,-8.16525e-09,0,2048,2048
294.252,-7.23172e-09,0,2048,2048
294.305,-6.2003e-09,0,2048,2048
294.351,-5.30221e-09,0,2048,2048
294.404,-4.31522e-09,0,2048,2048
294.451,-3.46054e-09,0,2048,2048
294.504,-2.52663e-09,0,2048,2048
294.551,-1.72275e-09,0,2048,2048
294.603,-8.49852e-10,0,2048,2048
294.65,-1.03465e-10,0,2048,2048
294.703,7.0133e-10,0,2048,2048
294.756,1.46754e-09,0,2048,2048
294.803,2.11494e-09,0,2048,2048
294.855,2.80405e-09,0,2048,2048
294.902,3.38069e-09,0,2048,2048
294.955,3.98788e-09,0,2048,2048
295.002,4.48977e-09,0,2048,2048
295.055,5.01089e-09,0,2048,2048
295.101,5.43475e-09,0,2048,2048
295.154,5.8667e-09,0,2048,2048
295.201,6.21044e-09,0,2048,2048
295.254,6.55187e-09,0,2048,2048
295.301,6.81543e-09,0,2048,2048
295.353,7.06787e-09,0,2048,2048
295.4,7.25422e-09,0,2048,2048
295.453,7.42296e-09,0,2048,2048
295.506,7.55094e-09,0,2048,2048
295.552,7.63303e-09,0,2048,2048
295.605,7.69299e-09,0,2048,2048
295.652,7.72047e-09,0,2048,2048
295.705,7.72595e-09,0,2048,2048
295.752,7.71125e-09,0,2048,2048
295.804,7.67611e-09,0,2048,2048
295.851,7.63103e-09,0,2048,2048
295.904,7.56757e-09,0,2048,2048
295.951,7.5019e-09,0,2048,2048
296.004,7.41964e-09,0,2048,2048
296.05,7.34045e-09,0,2048,2048
296.103,7.24567e-09,0,2048,2048
296.15,7.157e-09,0,2048,2048
296.203,7.05263e-09,0,2048,2048
296.255,6.94344e-09,0,2048,2048
296.302,6.84226e-09,0,2048,2048
296.355,6.72379e-09,0,2048,2048
296.402,6.61455e-09,0,2048,2048
296.455,6.48787e-09,0,2048,2048
296.502,6.37284e-09,0,2048,2048
296.554,6.24226e-09,0,2048,2048
296.601,6.12679e-09,0,2048,2048
296.654,5.9996e-09,0,2048,2048
296.701,5.89069e-09,0,2048,2048
296.753,5.77457e-09,0,2048,2048
296.8,5.6782e-09,0,2048,2048
296.853,5.57839e-09,0,2048,2048
296.906,5.48816e-09,0,2048,2048
296.953,5.41603e-09,0,2048,2048
297.005,5.34374e-09,0,2048,2048
297.052,5.28702e-09,0,2048,2048
297.105,5.23117e-09,0,2048,2048
297.152,5.18816e-09,0,2048,2048
297.205,5.14665e-09,0,2048,2048
297.251,5.11535e-09,0,2048,2048
297.304,5.08571e-09,0,2048,2048
297.351,5.0636e-09,0,2048,2048
297.404,5.04247e-09,0,2048,2048
297.451,5.02608e-09,0,2048,2048
297.503,5.00912e-09,0,2048,2048
297.55,4.9944e-09,0,2048,2048
297.603,4.97725e-09,0,2048,2048
297.656,4.95873e-09,0,2048,2048
297.703,4.94075e-09,0,2048,2048
297.755,4.91876e-09,0,2048,2048
297.802,4.89786e-09,0,2048,2048
297.855,4.87325e-09,0,2048,2048
297.902,4.85089e-09,0,2048,2048
297.954,4.82584e-09,0,2048,2048
298.001,4.80421e-09,0,2048,2048
298.054,4.78127e-09,0,2048,2048
298.101,4.76268e-09,0,2048,2048
298.154,4.74446e-09,0,2048,2048
298.201,4.73125e-09,0,2048,2048
298.253,4.72044e-09,0,2048,2048
298.3,4.71499e-09,0,2048,2048
298.353,4.71408e-09,0,2048,2048
298.406,4.71913e-09,0,2048,2048
298.452,4.72877e-09,0,2048,2048
298.505,4.74531e-09,0,2048,2048
298.552,4.76471e-09,0,2048,2048
298.605,4.79116e-09,0,2048,2048
298.652,4.81799e-09,0,2048,2048
298.704,4.85084e-09,0,2048,2048
298.751,4.88141e-09,0,2048,2048
298.804,4.9162e-09,0,2048,2048
298.851,4.94657e-09,0,2048,2048
298.904,4.97921e-09,0,2048,2048
298.95,5.00623e-09,0,2048,2048
299.003,5.03386e-09,0,2048,2048
299.05,5.05569e-09,0,2048,2048
299.103,5.07702e-09,0,2048,2048
299.155,5.09492e-09,0,2048,2048
299.202,5.10806e-09,0,2048,2048
299.255,5.11991e-09,0,2048,2048
299.302,5.12803e-09,0,2048,2048
299.355,5.13468e-09,0,2048,2048
299.402,5.1386e-09,0,2048,2048
299.454,5.14097e-09,0,2048,2048
299.501,5.14141e-09,0,2048,2048
299.554,5.14018e-09,0,2048,2048
299.601,5.13763e-09,0,2048,2048
299.653,5.1332e-09,0,2048,2048
299.7,5.12792e-09,0,2048,2048
299.753,5.12049e-09,0,2048,2048
299.806,5.11151e-09,0,2048,2048
299.853,5.10223e-09,0,2048,2048
299.905,5.09034e-09,0,2048,2048
299.952,5.07847e-09,0,2048,2048
300.005,5.06366e-09,0,2048,2048
300.052,5.04921e-09,0,2048,2048
300.105,5.03149e-09,0,2048,2048
300.151,5.01445e-09,0,2048,2048
300.204,4.99384e-09,0,2048,2048
300.251,4.97426e-09,0,2048,2048
300.304,4.95084e-09,0,2048,2048
300.351,4.92881e-09,0,2048,2048
300.403,4.90271e-09,0,2048,2048
300.45,4.87838e-09,0,2048,2048
300.503,4.84979e-09,0,2048,2048
300.556,4.81998e-09,0,2048,2048
300.603,4.7925e-09,0,2048,2048
300.655,4.76055e-09,0,2048,2048
300.702,4.73126e-09,0,2048,2048
300.755,4.69738e-09,0,2048,2048
300.802,4.66647e-09,0,2048,2048
300.854,4.63085e-09,0,2048,2048
300.901,4.59845e-09,0,2048,2048
300.954,4.56121e-09,0,2048,2048
301.001,4.52741e-09,0,2048,2048
301.054,4.48863e-09,0,2048,2048
301.1,4.45348e-09,0,2048,2048
301.153,4.41319e-09,0,2048,2048
301.2,4.3767e-09,0,2048,2048
301.253,4.3349e-09,0,2048,2048
301.306,4.2923e-09,0,2048,2048
301.352,4.25375e-09,0,2048,2048
301.405,4.20963e-09,0,2048,2048
301.452,4.16973e-09,0,2048,2048
301.505,4.1241e-09,0,2048,2048
301.552,4.08286e-09,0,2048,2048
301.604,4.03572e-09,0,2048,2048
301.651,3.99317e-09,0,2048,2048
301.704,3.94458e-09,0,2048,2048
301.751,3.90076e-09,0,2048,2048
301.804,3.85079e-09,0,2048,2048
301.85,3.80579e-09,0,2048,2048
301.903,3.75454e-09,0,2048,2048
301.956,3.70265e-09,0,2048,2048
302.003,3.65603e-09,0,2048,2048
302.055,3.60306e-09,0,2048,2048
302.102,3.55555e-09,0,2048,2048
302.155,3.50165e-09,0,2048,2048
302.202,3.45338e-09,0,2048,2048
302.255,3.39873e-09,0,2048,2048
302.301,3.34987e-09,0,2048,2048
302.354,3.29464e-09,0,2048,2048
302.401,3.24536e-09,0,2048,2048
302.454,3.18976e-09,0,2048,2048
302.501,3.14023e-09,0,2048,2048
302.553,3.08444e-09,0,2048,2048
302.6,3.03483e-09,0,2048,2048
302.653,2.97905e-09,0,2048,2048
302.706,2.92335e-09,0,2048,2048
302.753,2.87394e-09,0,2048,2048
302.805,2.81852e-09,0,2048,2048
302.852,2.76943e-09,0,2048,2048
302.905,2.71445e-09,0,2048,2048
302.952,2.66581e-09,0,2048,2048
303.005,2.61139e-09,0,2048,2048
303.051,2.5633e-09,0,2048,2048
303.104,2.50955e-09,0,2048,2048
303.151,2.4621e-09,0,2048,2048
303.204,2.40911e-09,0,2048,2048
303.251,2.36236e-09,0,2048,2048
303.303,2.31019e-09,0,2048,2048
303.35,2.26418e-09,0,2048,2048
303.403,2.21287e-09,0,2048,2048
303.456,2.16201e-09,0,2048,2048
303.502,2.11721e-09,0,2048,2048
303.555,2.06725e-09,0,2048,2048
303.602,2.02324e-09,0,2048,2048
303.655,1.97418e-09,0,2048,2048
303.702,1.93098e-09,0,2048,2048
303.754,1.88282e-09,0,2048,2048
303.801,1.84042e-09,0,2048,2048
303.854,1.79316e-09,0,2048,2048
303.901,1.75154e-09,0,2048,2048
303.954,1.70515e-09,0,2048,2048
304,1.66429e-09,0,2048,2048
304.053,1.61875e-09,0,2048,2048
304.1,1.57863e-09,0,2048,2048
304.153,1.53389e-09,0,2048,2048
304.206,1.48956e-09,0,2048,2048
304.252,1.45049e-09,0,2048,2048
304.305,1.4069e-09,0,2048,2048
304.352,1.36846e-09,0,2048,2048
304.405,1.32556e-09,0,2048,2048
304.452,1.28772e-09,0,2048,2048
304.504,1.24546e-09,0,2048,2048
304.551,1.20817e-09,0,2048,2048
304.604,1.16652e-09,0,2048,2048
304.651,1.12976e-09,0,2048,2048
304.703,1.08869e-09,0,2048,2048
304.75,1.05243e-09,0,2048,2048
304.803,1.01191e-09,0,2048,2048
304.856,9.71678e-10,0,2048,2048
304.903,9.36158e-10,0,2048,2048
304.955,8.96465e-10,0,2048,2048
