250,0,0,512,512
250.012,0,0,512,512
250.059,0,0,512,512
250.105,0,0,512,512
250.152,0,0,512,512
250.211,0,0,512,512
250.258,0,0,512,512
250.305,0,0,512,512
250.352,0,0,512,512
250.41,0,0,512,512
250.457,0,0,512,512
250.504,0,0,512,512
250.551,0,0,512,512
250.609,0,0,512,512
250.656,0,0,512,512
250.703,0,0,512,512
250.762,0,0,512,512
250.808,0,0,512,512
250.855,0,0,512,512
250.902,0,0,512,512
250.961,2.77556e-17,0,512,512
251.008,2.77556e-17,0,512,512
251.055,2.77556e-17,0,512,512
251.101,0,0,512,512
251.16,0,0,512,512
251.207,0,0,512,512
251.254,0,0,512,512
251.301,0,0,512,512
251.359,0,0,512,512
251.406,0,0,512,512
251.453,0,0,512,512
251.511,0,0,512,512
251.558,0,0,512,512
251.605,0,0,512,512
251.652,0,0,512,512
251.711,0,0,512,512
251.758,0,0,512,512
251.804,0,0,512,512
251.851,0,0,512,512
251.91,0,0,512,512
251.957,0,0,512,512
252.004,0,0,512,512
252.05,0,0,512,512
252.109,0,0,512,512
252.156,0,0,512,512
252.203,0,0,512,512
252.261,0,0,512,512
252.308,0,0,512,512
252.355,0,0,512,512
252.402,0,0,512,512
252.461,0,0,512,512
252.507,-2.77556e-17,0,512,512
252.554,-2.77556e-17,0,512,512
252.601,-2.77556e-17,0,512,512
252.66,-2.77556e-17,0,512,512
252.707,-2.77556e-17,0,512,512
252.754,-2.77556e-17,0,512,512
252.8,0,0,512,512
252.859,0,0,512,512
252.906,-2.77556e-17,0,512,512
252.953,-2.77556e-17,0,512,512
253.011,-2.77556e-17,0,512,512
253.058,-2.77556e-17,0,512,512
253.105,-2.77556e-17,0,512,512
253.152,-2.77556e-17,0,512,512
253.21,-2.77556e-17,0,512,512
253.257,-2.77556e-17,0,512,512
253.304,-2.77556e-17,0,512,512
253.351,0,0,512,512
253.41,0,0,512,512
253.457,0,0,512,512
253.503,0,0,512,512
253.55,0,0,512,512
253.609,0,0,512,512
253.656,0,0,512,512
253.703,0,0,512,512
253.761,0,0,512,512
253.808,0,0,512,512
253.855,0,0,512,512
253.902,-2.77556e-17,0,512,512
253.96,-2.77556e-17,0,512,512
254.007,-2.77556e-17,0,512,512
254.054,0,0,512,512
254.101,-2.77556e-17,0,512,512
254.16,0,0,512,512
254.206,0,0,512,512
254.253,0,0,512,512
254.3,0,0,512,512
254.359,0,0,512,512
254.406,0,0,512,512
254.452,0,0,512,512
254.511,0,0,512,512
254.558,0,0,512,512
254.605,0,0,512,512
254.652,-2.77556e-17,0,512,512
254.71,-2.77556e-17,0,512,512
254.757,-2.77556e-17,0,512,512
254.804,-2.77556e-17,0,512,512
254.851,-2.77556e-17,0,512,512
254.909,-2.77556e-17,0,512,512
254.956,0,0,512,512
255.003,0,0,512,512
255.05,0,0,512,512
255.109,0,0,512,512
255.155,0,0,512,512
255.202,0,0,512,512
255.261,0,0,512,512
255.308,0,0,512,512
255.355,0,0,512,512
255.402,0,0,512,512
255.46,0,0,512,512
255.507,0,0,512,512
255.554,0,0,512,512
255.601,0,0,512,512
255.659,0,0,512,512
255.706,0,0,512,512
255.753,0,0,512,512
255.812,0,0,512,512
255.859,0,0,512,512
255.905,0,0,512,512
255.952,-2.77556e-17,0,512,512
256.011,-2.77556e-17,0,512,512
256.058,-2.77556e-17,0,512,512
256.105,-2.77556e-17,0,512,512
256.151,-2.77556e-17,0,512,512
256.21,-2.77556e-17,0,512,512
256.257,-2.77556e-17,0,512,512
256.304,-2.77556e-17,0,512,512
256.351,-2.77556e-17,0,512,512
256.409,-2.77556e-17,0,512,512
256.456,-2.77556e-17,0,512,512
256.503,0,0,512,512
256.562,0,0,512,512
256.608,0,0,512,512
256.655,-2.77556e-17,0,512,512
256.702,-2.77556e-17,0,512,512
256.761,-2.77556e-17,0,512,512
256.808,-5.55112e-17,0,512,512
256.854,-5.55112e-17,0,512,512
256.901,-5.55112e-17,0,512,512
256.96,-5.55112e-17,0,512,512
257.007,-5.55112e-17,0,512,512
257.054,-5.55112e-17,0,512,512
257.101,-5.55112e-17,0,512,512
257.159,-5.55112e-17,0,512,512
257.206,-5.55112e-17,0,512,512
257.253,-5.55112e-17,0,512,512
257.311,-2.77556e-17,0,512,512
257.358,-2.77556e-17,0,512,512
257.405,-2.77556e-17,0,512,512
257.452,-2.77556e-17,0,512,512
257.511,-2.77556e-17,0,512,512
257.557,0,0,512,512
257.604,-2.77556e-17,0,512,512
257.651,0,0,512,512
257.71,0,0,512,512
257.757,0,0,512,512
257.804,0,0,512,512
257.85,-2.77556e-17,0,512,512
257.909,-2.77556e-17,0,512,512
257.956,0,0,512,512
258.003,0,0,512,512
258.061,0,0,512,512
258.108,0,0,512,512
258.155,0,0,512,512
258.202,0,0,512,512
258.261,2.77556e-17,0,512,512
258.307,0,0,512,512
258.354,0,0,512,512
258.401,0,0,512,512
258.46,0,0,512,512
258.507,0,0,512,512
258.553,0,0,512,512
258.6,-2.77556e-17,0,512,512
258.659,2.77556e-17,0,512,512
258.706,5.55112e-17,0,512,512
258.753,2.77556e-17,0,512,512
258.811,2.77556e-17,0,512,512
258.858,5.55112e-17,0,512,512
258.905,2.77556e-17,0,512,512
258.952,2.77556e-17,0,512,512
259.01,2.77556e-17,0,512,512
259.057,2.77556e-17,0,512,512
259.104,2.77556e-17,0,512,512
259.151,2.77556e-17,0,512,512
259.21,0,0,512,512
259.256,0,0,512,512
259.303,0,0,512,512
259.35,0,0,512,512
259.409,0,0,512,512
259.456,0,0,512,512
259.503,0,0,512,512
259.561,0,0,512,512
259.608,0,0,512,512
259.655,0,0,512,512
259.702,0,0,512,512
259.76,0,0,512,512
259.807,0,0,512,512
259.854,0,0,512,512
259.901,2.77556e-17,0,512,512
259.959,0,0,512,512
260.006,2.77556e-17,0,512,512
260.053,2.77556e-17,0,512,512
260.1,2.77556e-17,0,512,512
260.159,2.77556e-17,0,512,512
260.206,2.77556e-17,0,512,512
260.252,2.77556e-17,0,512,512
260.311,2.77556e-17,0,512,512
260.358,2.77556e-17,0,512,512
260.405,2.77556e-17,0,512,512
260.452,2.77556e-17,0,512,512
260.51,2.77556e-17,0,512,512
260.557,5.55112e-17,0,512,512
260.604,5.55112e-17,0,512,512
260.651,5.55112e-17,0,512,512
260.709,2.77556e-17,0,512,512
260.756,0,0,512,512
260.803,0,0,512,512
260.862,0,0,512,512
260.909,0,0,512,512
260.955,0,0,512,512
261.002,0,0,512,512
261.061,2.77556e-17,0,512,512
261.108,2.77556e-17,0,512,512
261.155,0,0,512,512
261.201,2.77556e-17,0,512,512
261.26,-2.77556e-17,0,512,512
261.307,0,0,512,512
261.354,0,0,512,512
261.401,0,0,512,512
261.459,0,0,512,512
261.506,2.77556e-17,0,512,512
261.553,2.77556e-17,0,512,512
261.612,0,0,512,512
261.658,-2.77556e-17,0,512,512
261.705,0,0,512,512
261.752,2.77556e-17,0,512,512
261.811,2.77556e-17,0,512,512
261.858,0,0,512,512
261.905,2.77556e-17,0,512,512
261.951,2.77556e-17,0,512,512
262.01,-5.55112e-17,0,512,512
262.057,-2.77556e-17,0,512,512
262.104,0,0,512,512
262.151,0,0,512,512
262.209,-2.77556e-17,0,512,512
262.256,-2.77556e-17,0,512,512
262.303,-2.77556e-17,0,512,512
262.361,-2.77556e-17,0,512,512
262.408,0,0,512,512
262.455,0,0,512,512
262.502,0,0,512,512
262.561,0,0,512,512
262.608,0,0,512,512
262.654,2.77556e-17,0,512,512
262.701,2.77556e-17,0,512,512
262.76,0,0,512,512
262.807,0,0,512,512
262.854,0,0,512,512
262.9,0,0,512,512
262.959,0,0,512,512
263.006,0,0,512,512
263.053,0,0,512,512
263.111,0,0,512,512
263.158,-2.77556e-17,0,512,512
263.205,0,0,512,512
263.252,0,0,512,512
263.311,0,0,512,512
263.357,0,0,512,512
263.404,0,0,512,512
263.451,2.77556e-17,0,512,512
263.51,2.77556e-17,0,512,512
263.557,0,0,512,512
263.603,-2.77556e-17,0,512,512
263.65,-2.77556e-17,0,512,512
263.709,-2.77556e-17,0,512,512
263.756,0,0,512,512
263.803,0,0,512,512
263.861,0,0,512,512
263.908,0,0,512,512
263.955,-2.77556e-17,0,512,512
264.002,-2.77556e-17,0,512,512
264.06,-2.77556e-17,0,512,512
264.107,-2.77556e-17,0,512,512
264.154,0,0,512,512
264.201,-2.77556e-17,0,512,512
264.26,0,0,512,512
264.306,0,0,512,512
264.353,-5.55112e-17,0,512,512
264.4,-2.77556e-17,0,512,512
264.459,-2.77556e-17,0,512,512
264.506,-2.77556e-17,0,512,512
264.553,-2.77556e-17,0,512,512
264.611,-2.77556e-17,0,512,512
264.658,-2.77556e-17,0,512,512
264.705,0,0,512,512
264.752,0,0,512,512
264.81,-2.77556e-17,0,512,512
264.857,-2.77556e-17,0,512,512
264.904,0,0,512,512
264.951,0,0,512,512
265.01,0,0,512,512
265.056,0,0,512,512
265.103,0,0,512,512
265.15,0,0,512,512
265.209,0,0,512,512
265.256,0,0,512,512
265.302,0,0,512,512
265.361,0,0,512,512
265.408,0,0,512,512
265.455,0,0,512,512
265.502,0,0,512,512
265.56,0,0,512,512
265.607,0,0,512,512
265.654,0,0,512,512
265.701,0,0,512,512
265.759,0,0,512,512
265.806,0,0,512,512
265.853,0,0,512,512
265.9,0,0,512,512
265.959,0,0,512,512
266.005,0,0,512,512
266.052,2.77556e-17,0,512,512
266.111,2.77556e-17,0,512,512
266.158,2.77556e-17,0,512,512
266.205,0,0,512,512
266.252,0,0,512,512
266.31,2.77556e-17,0,512,512
266.357,2.77556e-17,0,512,512
266.404,2.77556e-17,0,512,512
266.451,2.77556e-17,0,512,512
266.509,2.77556e-17,0,512,512
266.556,2.77556e-17,0,512,512
266.603,2.77556e-17,0,512,512
266.662,2.77556e-17,0,512,512
266.708,2.77556e-17,0,512,512
266.755,2.77556e-17,0,512,512
266.802,2.77556e-17,0,512,512
266.861,2.77556e-17,0,512,512
266.908,2.77556e-17,0,512,512
266.955,2.77556e-17,0,512,512
267.001,2.77556e-17,0,512,512
267.06,2.77556e-17,0,512,512
267.107,2.77556e-17,0,512,512
267.154,2.77556e-17,0,512,512
267.201,2.77556e-17,0,512,512
267.259,2.77556e-17,0,512,512
267.306,2.77556e-17,0,512,512
267.353,2.77556e-17,0,512,512
267.412,2.77556e-17,0,512,512
267.458,2.77556e-17,0,512,512
267.505,2.77556e-17,0,512,512
267.552,2.77556e-17,0,512,512
267.611,2.77556e-17,0,512,512
267.658,2.77556e-17,0,512,512
267.704,2.77556e-17,0,512,512
267.751,5.55112e-17,0,512,512
267.81,5.55112e-17,0,512,512
267.857,5.55112e-17,0,512,512
267.904,8.32667e-17,0,512,512
267.95,8.32667e-17,0,512,512
268.009,5.55112e-17,0,512,512
268.056,5.55112e-17,0,512,512
268.103,5.55112e-17,0,512,512
268.161,2.77556e-17,0,512,512
268.208,2.77556e-17,0,512,512
268.255,2.77556e-17,0,512,512
268.302,0,0,512,512
268.361,2.77556e-17,0,512,512
268.407,0,0,512,512
268.454,0,0,512,512
268.501,0,0,512,512
268.56,0,0,512,512
268.607,0,0,512,512
268.654,0,0,512,512
268.7,0,0,512,512
268.759,2.77556e-17,0,512,512
268.806,0,0,512,512
268.853,0,0,512,512
268.911,-2.77556e-17,0,512,512
268.958,0,0,512,512
269.005,0,0,512,512
269.052,2.77556e-17,0,512,512
269.11,0,0,512,512
269.157,2.77556e-17,0,512,512
269.204,0,0,512,512
269.251,2.77556e-17,0,512,512
269.31,4.44089e-16,0,512,512
269.357,4.55191e-15,0,512,512
269.403,-9.35363e-15,0,512,512
269.45,-4.55219e-13,0,512,512
269.509,-5.61912e-12,0,512,512
269.556,-2.24128e-11,0,512,512
269.603,-6.09579e-11,0,512,512
269.652,-1.25398e-10,0,535,535
269.701,-1.88276e-10,0,855,855
269.75,-2.14239e-10,0,1065,1065
269.8,-1.84488e-10,0,1257,1257
269.851,-1.09768e-10,0,1485,1485
269.901,-2.87265e-11,0,1695,1695
269.951,2.95732e-11,0,1883,1883
270.001,5.48387e-11,0,2115,2115
270.051,5.7901e-11,0,2307,2307
270.1,5.73449e-11,0,2493,2493
270.15,6.45552e-11,0,2725,2725
270.2,7.82883e-11,0,2931,2931
270.251,9.04653e-11,0,3131,3131
270.301,9.4268e-11,0,3317,3317
270.351,9.13729e-11,0,3345,3345
270.401,8.78216e-11,0,3435,3435
270.45,8.86847e-11,0,3651,3651
270.5,9.42633e-11,0,3837,3837
270.55,1.00782e-10,0,4065,4065
270.601,1.04154e-10,0,4281,4281
270.651,1.03114e-10,0,4501,4501
270.701,1.00282e-10,0,4695,4695
270.751,9.91144e-11,0,4911,4911
270.801,1.01027e-10,0,5139,5139
270.85,1.04358e-10,0,5349,5349
270.9,1.06343e-10,0,5541,5541
270.951,1.06785e-10,0,5769,5769
271.001,1.10505e-10,0,5979,5979
271.051,1.25161e-10,0,6207,6207
271.101,1.54106e-10,0,6423,6423
271.151,1.87808e-10,0,6651,6651
271.2,2.01096e-10,0,6861,6861
271.25,1.61359e-10,0,7053,7053
271.301,3.97055e-11,0,7281,7281
271.351,-1.59252e-10,0,7491,7491
271.401,-4.28209e-10,0,7719,7719
271.451,-1.56475e-09,0,7935,7935
271.501,4.03427e-11,0,8163,8163
271.55,4.88653e-09,0,8349,8349
271.6,1.14494e-08,0,8565,8565
271.651,1.80552e-08,0,8793,8793
271.701,2.31537e-08,0,8985,8985
271.751,2.65471e-08,0,9195,9195
271.801,2.83933e-08,0,9423,9423
271.851,2.96951e-08,0,9609,9609
271.9,3.21096e-08,0,9759,9759
271.95,3.73116e-08,0,9801,9801
272,4.56981e-08,0,9987,9987
272.051,5.6794e-08,0,10203,10203
272.101,6.896e-08,0,10431,10431
272.151,8.26138e-08,0,10623,10623
272.201,9.91542e-08,0,10833,10833
272.25,1.20232e-07,0,11061,11061
272.3,1.47164e-07,0,11259,11259
272.35,1.80657e-07,0,11463,11463
272.401,2.21981e-07,0,11691,11691
272.451,2.67375e-07,0,11901,11901
272.501,3.15183e-07,0,12093,12093
272.551,3.63111e-07,0,12321,12321
272.601,4.11235e-07,0,12531,12531
272.65,4.61934e-07,0,12723,12723
272.7,5.17306e-07,0,12951,12951
272.751,5.78018e-07,0,13143,13143
272.801,6.36294e-07,0,13353,13353
272.851,6.89016e-07,0,13581,13581
272.901,7.33011e-07,0,13767,13767
272.951,7.66789e-07,0,13971,13971
273,7.90063e-07,0,14169,14169
273.05,8.04119e-07,0,14361,14361
273.101,8.11704e-07,0,14589,14589
273.151,8.15074e-07,0,14775,14775
273.201,8.1582e-07,0,14991,14991
273.251,8.14037e-07,0,15177,15177
273.301,8.09224e-07,0,15369,15369
273.35,8.00522e-07,0,15597,15597
273.4,7.86822e-07,0,15783,15783
273.45,7.66979e-07,0,15975,15975
273.501,7.39172e-07,0,16185,16185
273.551,7.04311e-07,0,16357,16357
273.601,6.6186e-07,0,16435,16435
273.651,6.13644e-07,0,16627,16627
273.7,5.62859e-07,0,16839,16839
273.75,5.12669e-07,0,16905,16905
273.8,4.65028e-07,0,17157,17157
273.851,4.19585e-07,0,17547,17547
273.901,3.79227e-07,0,17739,17739
273.951,3.4235e-07,0,17925,17925
274.001,3.08328e-07,0,18117,18117
274.051,2.7646e-07,0,18303,18303
274.1,2.46175e-07,0,18495,18495
274.15,2.17052e-07,0,18681,18681
274.201,1.88447e-07,0,18873,18873
274.251,1.63327e-07,0,19059,19059
274.301,1.42882e-07,0,19251,19251
274.351,1.28204e-07,0,19437,19437
274.401,1.17773e-07,0,19629,19629
274.45,1.08187e-07,0,19815,19815
274.5,9.6737e-08,0,20007,20007
274.551,8.30922e-08,0,20157,20157
274.601,7.03215e-08,0,20343,20343
274.651,6.01942e-08,0,20535,20535
274.701,5.33426e-08,0,20721,20721
274.751,4.91533e-08,0,20889,20889
274.8,4.65158e-08,0,21075,21075
274.85,4.40401e-08,0,21267,21267
274.901,4.01304e-08,0,21431,21431
274.951,3.43315e-08,0,21603,21603
275.001,2.75564e-08,0,21795,21795
275.051,2.1856e-08,0,21957,21957
275.101,1.87846e-08,0,22149,22149
275.15,1.82125e-08,0,22335,22335
275.2,1.883e-08,0,22485,22485
275.25,1.95223e-08,0,22677,22677
275.301,1.98477e-08,0,22845,22845
275.351,1.99135e-08,0,23031,23031
275.401,1.99663e-08,0,23217,23217
275.451,2.00829e-08,0,23367,23367
275.5,2.02219e-08,0,23559,23559
275.55,2.03259e-08,0,23721,23721
275.6,2.0227e-08,0,23913,23913
275.651,1.96561e-08,0,24063,24063
275.701,1.92043e-08,0,24249,24249
275.751,1.91211e-08,0,24417,24417
275.801,1.91434e-08,0,24603,24603
275.851,1.91755e-08,0,24775,24775
275.9,1.92085e-08,0,24945,24945
275.95,1.92406e-08,0,25107,25107
276.001,1.92748e-08,0,25299,25299
276.051,1.93074e-08,0,25449,25449
276.101,1.93401e-08,0,25635,25635
276.151,1.93737e-08,0,25803,25803
276.201,1.94063e-08,0,25989,25989
276.25,1.94397e-08,0,26139,26139
276.3,1.94731e-08,0,26325,26325
276.351,1.95069e-08,0,26493,26493
276.401,1.95407e-08,0,26665,26665
276.451,1.9574e-08,0,26835,26835
276.501,1.96074e-08,0,26997,26997
276.551,1.96414e-08,0,27189,27189
276.6,1.96748e-08,0,27339,27339
276.65,1.97088e-08,0,27501,27501
276.7,1.97427e-08,0,27693,27693
276.751,1.97773e-08,0,27843,27843
276.801,1.98116e-08,0,28011,28011
276.851,1.98456e-08,0,28197,28197
276.901,1.98797e-08,0,28347,28347
276.95,1.99142e-08,0,28509,28509
277,1.99483e-08,0,28701,28701
277.05,1.99828e-08,0,28851,28851
277.101,2.00185e-08,0,29013,29013
277.151,2.00529e-08,0,29205,29205
277.201,2.00879e-08,0,29355,29355
277.251,2.01228e-08,0,29517,29517
277.301,2.01577e-08,0,29667,29667
277.35,2.01931e-08,0,29859,29859
277.4,2.02282e-08,0,30021,30021
277.451,2.02646e-08,0,30171,30171
277.501,2.03003e-08,0,30339,30339
277.551,2.03358e-08,0,30503,30503
277.601,2.03716e-08,0,30657,30657
277.651,2.04076e-08,0,30843,30843
277.7,2.04435e-08,0,30969,30969
277.75,2.04798e-08,0,31119,31119
277.801,2.05171e-08,0,31281,31281
277.851,2.05534e-08,0,31431,31431
277.901,2.05901e-08,0,31557,31557
277.951,2.06266e-08,0,31725,31725
278.001,2.06632e-08,0,31851,31851
278.05,2.07001e-08,0,31977,31977
278.1,2.07365e-08,0,32127,32127
278.15,2.07724e-08,0,32253,32253
278.201,2.0808e-08,0,32379,32379
278.251,2.08399e-08,0,32658,32658
278.301,2.08691e-08,0,32768,32768
278.351,2.08954e-08,0,32768,32768
278.4,2.09189e-08,0,32768,32768
278.45,2.09403e-08,0,32768,32768
278.5,2.09596e-08,0,32768,32768
278.551,2.0977e-08,0,32768,32768
278.601,2.0991e-08,0,32768,32768
278.651,2.10009e-08,0,32768,32768
278.701,2.10051e-08,0,32768,32768
278.75,2.10026e-08,0,32768,32768
278.8,2.09915e-08,0,32768,32768
278.85,2.09699e-08,0,32768,32768
278.901,2.09344e-08,0,32768,32768
278.951,2.08839e-08,0,32768,32768
279.001,2.08144e-08,0,32768,32768
279.051,2.07226e-08,0,32768,32768
279.101,2.06052e-08,0,32768,32768
279.15,2.04599e-08,0,32768,32768
279.2,2.02846e-08,0,32768,32768
279.251,2.00713e-08,0,32768,32768
279.301,1.98307e-08,0,32768,32768
279.351,1.95561e-08,0,32768,32768
279.401,1.92463e-08,0,32768,32768
279.451,1.89015e-08,0,32768,32768
279.5,1.85234e-08,0,32768,32768
279.55,1.81148e-08,0,32768,32768
279.601,1.76673e-08,0,32768,32768
279.651,1.72116e-08,0,32768,32768
279.701,1.67404e-08,0,32768,32768
279.751,1.62586e-08,0,32768,32768
279.801,1.57701e-08,0,32768,32768
279.85,1.52777e-08,0,32768,32768
279.9,1.47844e-08,0,32768,32768
279.95,1.42923e-08,0,32768,32768
280.001,1.37898e-08,0,32768,32768
280.051,1.33085e-08,0,32768,32768
280.101,1.28374e-08,0,32768,32768
280.151,1.23805e-08,0,32768,32768
280.2,1.19418e-08,0,32768,32768
280.25,1.15254e-08,0,32768,32768
280.3,1.11346e-08,0,32768,32768
280.351,1.07618e-08,0,32768,32768
280.401,1.04296e-08,0,32768,32768
280.451,1.01268e-08,0,32768,32768
280.501,9.8527e-09,0,32768,32768
280.551,9.60564e-09,0,32768,32768
280.6,9.38388e-09,0,32768,32768
280.65,9.18566e-09,0,32768,32768
280.701,9.00442e-09,0,32768,32768
280.751,8.84913e-09,0,32768,32768
280.801,8.71302e-09,0,32768,32768
280.851,8.59467e-09,0,32768,32768
280.901,8.49252e-09,0,32768,32768
280.95,8.4046e-09,0,32768,32768
281,8.32874e-09,0,32768,32768
281.051,8.26121e-09,0,32768,32768
281.101,8.20442e-09,0,32768,32768
281.151,8.15545e-09,0,32768,32768
281.201,8.11397e-09,0,32768,32768
281.251,8.07961e-09,0,32768,32768
281.3,8.0517e-09,0,32768,32768
281.35,8.0293e-09,0,32768,32768
281.4,8.01131e-09,0,32768,32768
281.451,7.99636e-09,0,32768,32768
281.501,7.98477e-09,0,32768,32768
281.551,7.97592e-09,0,32768,32768
281.601,7.96995e-09,0,32768,32768
281.65,7.96703e-09,0,32768,32768
281.7,7.96705e-09,0,32768,32768
281.75,7.9695e-09,0,32768,32768
281.801,7.9738e-09,0,32768,32768
281.851,7.97894e-09,0,32768,32768
281.901,7.98444e-09,0,32768,32768
281.951,7.99e-09,0,32768,32768
282.001,7.99551e-09,0,32768,32768
282.05,8.00094e-09,0,32768,32768
282.1,8.00632e-09,0,32768,32768
282.151,8.01185e-09,0,32768,32768
282.201,8.01723e-09,0,32768,32768
282.251,8.02268e-09,0,32768,32768
282.301,8.02825e-09,0,32768,32768
282.351,8.03393e-09,0,32768,32768
282.4,8.03973e-09,0,32768,32768
282.45,8.04563e-09,0,32768,32768
282.501,8.0517e-09,0,32768,32768
282.551,8.05757e-09,0,32768,32768
282.601,8.06337e-09,0,32768,32768
282.651,8.06907e-09,0,32768,32768
282.701,8.07466e-09,0,32768,32768
282.75,8.08015e-09,0,32768,32768
282.8,8.08553e-09,0,32768,32768
282.851,8.09096e-09,0,32768,32768
282.901,8.09618e-09,0,32768,32768
282.951,8.10135e-09,0,32768,32768
283.001,8.10651e-09,0,32768,32768
283.051,8.11173e-09,0,32768,32768
283.1,8.11706e-09,0,32768,32768
283.15,8.12261e-09,0,32768,32768
283.2,8.12856e-09,0,32768,32768
283.251,8.13549e-09,0,32768,32768
283.301,8.14382e-09,0,32768,32768
283.351,8.15531e-09,0,32768,32768
283.401,8.17243e-09,0,32768,32768
283.45,8.19842e-09,0,32768,32768
283.5,8.23671e-09,0,32768,32768
283.55,8.29013e-09,0,32768,32768
283.601,8.3628e-09,0,32768,32768
283.651,8.45128e-09,0,32768,32768
283.701,8.55752e-09,0,32768,32768
283.751,8.68191e-09,0,32768,32768
283.801,8.826e-09,0,32768,32768
283.85,8.99296e-09,0,32768,32768
283.9,9.18786e-09,0,32768,32768
283.951,9.42499e-09,0,32768,32768
284.001,9.69961e-09,0,32768,32768
284.051,1.00283e-08,0,32768,32768
284.101,1.04231e-08,0,32768,32768
284.151,1.08984e-08,0,32768,32768
284.2,1.14704e-08,0,32768,32768
284.25,1.2157e-08,0,32768,32768
284.301,1.30034e-08,0,32768,32768
284.351,1.398e-08,0,32768,32768
284.401,1.51262e-08,0,32768,32768
284.451,1.64574e-08,0,32768,32768
284.501,1.79868e-08,0,32768,32768
284.55,1.97257e-08,0,32768,32768
284.6,2.16828e-08,0,32768,32768
284.65,2.38635e-08,0,32768,32768
284.701,2.63429e-08,0,32768,32768
284.751,2.89742e-08,0,32768,32768
284.801,3.18131e-08,0,32768,32768
284.851,3.48421e-08,0,32768,32768
284.9,3.80389e-08,0,32768,32768
284.95,4.13787e-08,0,32768,32768
285,4.48363e-08,0,32768,32768
285.051,4.84938e-08,0,32768,32768
285.101,5.21216e-08,0,32768,32768
285.151,5.58094e-08,0,32768,32768
285.201,5.95568e-08,0,32768,32768
285.251,6.33885e-08,0,32768,32768
285.3,6.7367e-08,0,32768,32768
285.35,7.15979e-08,0,32768,32768
285.401,7.63546e-08,0,32768,32768
285.451,8.14803e-08,0,32768,32768
285.501,8.71461e-08,0,32768,32768
285.551,9.3291e-08,0,32768,32768
285.601,9.97641e-08,0,32768,32768
285.65,1.06381e-07,0,32768,32768
285.7,1.13003e-07,0,32768,32768
285.751,1.19803e-07,0,32768,32768
285.801,1.26522e-07,0,32768,32768
285.851,1.33621e-07,0,32768,32768
285.901,1.41459e-07,0,32768,32768
285.951,1.50437e-07,0,32768,32768
286,1.60959e-07,0,32768,32768
286.05,1.73426e-07,0,32768,32768
286.1,1.88236e-07,0,32768,32768
286.151,2.06354e-07,0,32768,32768
286.201,2.27131e-07,0,32768,32768
286.251,2.51348e-07,0,32768,32768
286.301,2.79173e-07,0,32768,32768
286.35,3.10589e-07,0,32768,32768
286.4,3.45378e-07,0,32768,32768
286.45,3.83151e-07,0,32768,32768
286.501,4.24615e-07,0,32768,32768
286.551,4.66787e-07,0,32768,32768
286.601,5.10129e-07,0,32768,32768
286.651,5.53815e-07,0,32768,32768
286.701,5.96838e-07,0,32768,32768
286.75,6.37998e-07,0,32768,32768
286.8,6.75978e-07,0,32768,32768
286.851,7.10385e-07,0,32768,32768
286.901,7.38133e-07,0,32768,32768
286.951,7.59548e-07,0,32768,32768
287.001,7.74336e-07,0,32768,32768
287.051,7.82611e-07,0,32768,32768
287.1,7.84783e-07,0,32768,32768
287.15,7.81388e-07,0,32768,32768
287.201,7.72607e-07,0,32768,32768
287.251,7.59295e-07,0,32768,32768
287.301,7.41415e-07,0,32768,32768
287.351,7.18943e-07,0,32768,32768
287.401,6.9178e-07,0,32768,32768
287.45,6.59879e-07,0,32768,32768
287.5,6.23374e-07,0,32768,32768
287.551,5.8142e-07,0,32768,32768
287.601,5.37155e-07,0,32768,32768
287.651,4.90436e-07,0,32768,32768
287.701,4.42428e-07,0,32768,32768
287.751,3.94322e-07,0,32768,32768
287.8,3.47199e-07,0,32768,32768
287.85,3.01922e-07,0,32768,32768
287.9,2.59088e-07,0,32768,32768
287.951,2.17908e-07,0,32768,32768
288.001,1.8089e-07,0,32768,32768
288.051,1.46856e-07,0,32768,32768
288.101,1.15818e-07,0,32768,32768
288.15,8.77941e-08,0,32768,32768
288.2,6.281e-08,0,32768,32768
288.25,4.08551e-08,0,32768,32768
288.301,2.13164e-08,0,32768,32768
288.351,5.09612e-09,0,32768,32768
288.401,-8.70864e-09,0,32768,32768
288.451,-2.04299e-08,0,32768,32768
288.501,-3.03568e-08,0,32768,32768
288.55,-3.8688e-08,0,32768,32768
288.6,-4.55338e-08,0,32768,32768
288.651,-5.11003e-08,0,32768,32768
288.701,-5.51578e-08,0,32768,32768
288.751,-5.80311e-08,0,32768,32768
288.801,-5.99203e-08,0,32768,32768
288.851,-6.10373e-08,0,32768,32768
288.9,-6.15481e-08,0,32768,32768
288.95,-6.15343e-08,0,32768,32768
289.001,-6.09666e-08,0,32768,32768
289.051,-5.98224e-08,0,32768,32768
289.101,-5.80462e-08,0,32768,32768
289.151,-5.56436e-08,0,32768,32768
289.201,-5.26912e-08,0,32768,32768
289.25,-4.93239e-08,0,32768,32768
289.3,-4.57051e-08,0,32768,32768
289.35,-4.19939e-08,0,32768,32768
289.401,-3.82167e-08,0,32768,32768
289.451,-3.46893e-08,0,32768,32768
289.501,-3.13658e-08,0,32768,32768
289.551,-2.8282e-08,0,32768,32768
289.6,-2.54524e-08,0,32768,32768
289.65,-2.28769e-08,0,32768,32768
289.7,-2.05458e-08,0,32768,32768
289.751,-1.83876e-08,0,32768,32768
289.801,-1.65126e-08,0,32768,32768
289.851,-1.48459e-08,0,32768,32768
289.901,-1.338e-08,0,32768,32768
289.95,-1.2109e-08,0,32768,32768
290,-1.10257e-08,0,32768,32768
290.05,-1.01215e-08,0,32768,32768
290.101,-9.36555e-09,0,32768,32768
290.151,-8.78709e-09,0,32768,32768
290.201,-8.34661e-09,0,32768,32768
290.251,-8.02776e-09,0,32768,32768
290.301,-7.81416e-09,0,32768,32768
290.35,-7.6902e-09,0,32768,32768
290.4,-7.64177e-09,0,32768,32768
290.451,-7.65782e-09,0,32768,32768
290.501,-7.72679e-09,0,32768,32768
290.551,-7.83954e-09,0,32768,32768
290.601,-7.98843e-09,0,32768,32768
290.651,-8.16647e-09,0,32768,32768
290.7,-8.36688e-09,0,32768,32768
290.75,-8.58293e-09,0,32768,32768
290.801,-8.8148e-09,0,32768,32768
290.851,-9.04306e-09,0,32768,32768
290.901,-9.26907e-09,0,32768,32768
290.951,-9.48875e-09,0,32768,32768
291.001,-9.69914e-09,0,32768,32768
291.05,-9.89824e-09,0,32768,32768
291.1,-1.00847e-08,0,32768,32768
291.15,-1.02576e-08,0,32768,32768
291.201,-1.04206e-08,0,32768,32768
291.251,-1.05634e-08,0,32768,32768
291.301,-1.06901e-08,0,32768,32768
291.351,-1.08002e-08,0,32768,32768
291.4,-1.08934e-08,0,32768,32768
291.45,-1.097e-08,0,32768,32768
291.5,-1.10308e-08,0,32768,32768
291.551,-1.10784e-08,0,32768,32768
291.601,-1.11116e-08,0,32768,32768
291.651,-1.11339e-08,0,32768,32768
291.701,-1.1147e-08,0,32768,32768
291.751,-1.11522e-08,0,32768,32768
291.8,-1.11507e-08,0,32768,32768
291.85,-1.11435e-08,0,32768,32768
291.901,-1.11312e-08,0,32768,32768
291.951,-1.11158e-08,0,32768,32768
292.001,-1.10983e-08,0,32768,32768
292.051,-1.10801e-08,0,32768,32768
292.101,-1.10622e-08,0,32768,32768
292.15,-1.10455e-08,0,32768,32768
292.2,-1.10306e-08,0,32768,32768
292.251,-1.10176e-08,0,32768,32768
292.301,-1.10077e-08,0,32768,32768
292.351,-1.1001e-08,0,32768,32768
292.401,-1.09982e-08,0,32768,32768
292.451,-1.1e-08,0,32768,32768
292.5,-1.1007e-08,0,32768,32768
292.55,-1.10196e-08,0,32768,32768
292.6,-1.10382e-08,0,32768,32768
292.651,-1.10636e-08,0,32768,32768
292.701,-1.10946e-08,0,32768,32768
292.751,-1.11317e-08,0,32768,32768
292.801,-1.11751e-08,0,32768,32768
292.85,-1.12247e-08,0,32768,32768
292.9,-1.12806e-08,0,32768,32768
292.95,-1.13427e-08,0,32768,32768
293.001,-1.14132e-08,0,32768,32768
293.051,-1.14879e-08,0,32768,32768
293.101,-1.15689e-08,0,32768,32768
293.151,-1.16561e-08,0,32768,32768
293.201,-1.17498e-08,0,32768,32768
293.25,-1.18503e-08,0,32768,32768
293.3,-1.1958e-08,0,32768,32768
293.351,-1.20773e-08,0,32768,32768
293.401,-1.22023e-08,0,32768,32768
293.451,-1.23374e-08,0,32768,32768
293.501,-1.24839e-08,0,32768,32768
293.551,-1.26434e-08,0,32768,32768
293.6,-1.28175e-08,0,32768,32768
293.65,-1.30079e-08,0,32768,32768
293.701,-1.32225e-08,0,32768,32768
293.751,-1.34506e-08,0,32768,32768
293.801,-1.36994e-08,0,32768,32768
293.851,-1.39698e-08,0,32768,32768
293.901,-1.42625e-08,0,32768,32768
293.95,-1.45775e-08,0,32768,32768
294,-1.49145e-08,0,32768,32768
294.051,-1.52833e-08,0,32768,32768
294.101,-1.56612e-08,0,32768,32768
294.151,-1.60563e-08,0,32768,32768
294.201,-1.64656e-08,0,32768,32768
294.251,-1.6886e-08,0,32768,32768
294.3,-1.73139e-08,0,32768,32768
294.35,-1.77453e-08,0,32768,32768
294.4,-1.81766e-08,0,32768,32768
294.451,-1.86163e-08,0,32330,32330
294.501,-1.90357e-08,0,32628,32628
294.551,-1.9444e-08,0,32656,32656
294.601,-1.98381e-08,0,32672,32672
294.65,-2.02151e-08,0,32672,32672
294.7,-2.05722e-08,0,32656,32656
294.75,-2.09066e-08,0,32672,32672
294.801,-2.12247e-08,0,32672,32672
294.851,-2.15061e-08,0,32672,32672
294.901,-2.17583e-08,0,32640,32640
294.951,-2.19799e-08,0,32624,32624
295.001,-2.21699e-08,0,32608,32608
295.05,-2.23281e-08,0,32584,32584
295.1,-2.24545e-08,0,32584,32584
295.151,-2.25523e-08,0,32560,32560
295.201,-2.26172e-08,0,32560,32560
295.251,-2.2654e-08,0,32536,32536
295.301,-2.26647e-08,0,32536,32536
295.351,-2.26513e-08,0,32536,32536
295.4,-2.2616e-08,0,32520,32520
295.45,-2.2561e-08,0,32512,32512
295.501,-2.24863e-08,0,32536,32536
295.551,-2.23984e-08,0,32520,32520
295.601,-2.22975e-08,0,32512,32512
295.651,-2.21857e-08,0,32520,32520
295.701,-2.20649e-08,0,32536,32536
295.75,-2.19367e-08,0,32512,32512
295.8,-2.18029e-08,0,32512,32512
295.85,-2.16649e-08,0,32512,32512
295.901,-2.15198e-08,0,32512,32512
295.951,-2.13772e-08,0,32520,32520
296.001,-2.12338e-08,0,32532,32532
296.051,-2.10907e-08,0,32512,32512
296.1,-2.09487e-08,0,32512,32512
296.15,-2.08085e-08,0,32504,32504
296.2,-2.06707e-08,0,32488,32488
296.251,-2.05319e-08,0,32488,32488
296.301,-2.04004e-08,0,32472,32472
296.351,-2.02727e-08,0,32488,32488
296.401,-2.01491e-08,0,32464,32464
296.451,-2.00298e-08,0,32500,32500
296.5,-1.9915e-08,0,32476,32476
296.55,-1.9805e-08,0,32480,32480
296.601,-1.96968e-08,0,32484,32484
296.651,-1.95966e-08,0,32492,32492
296.701,-1.95012e-08,0,32488,32488
296.751,-1.94103e-08,0,32464,32464
296.801,-1.93239e-08,0,32464,32464
296.85,-1.92416e-08,0,32464,32464
296.9,-1.91632e-08,0,32464,32464
296.951,-1.9086e-08,0,32464,32464
297.001,-1.90143e-08,0,32440,32440
297.051,-1.89454e-08,0,32464,32464
297.101,-1.88789e-08,0,32440,32440
297.151,-1.88146e-08,0,32440,32440
297.2,-1.87521e-08,0,32464,32464
297.25,-1.86911e-08,0,32440,32440
297.3,-1.86313e-08,0,32440,32440
297.351,-1.85707e-08,0,32440,32440
297.401,-1.85126e-08,0,32440,32440
297.451,-1.84549e-08,0,32424,32424
297.501,-1.83974e-08,0,32440,32440
297.55,-1.83399e-08,0,32440,32440
297.6,-1.82822e-08,0,32424,32424
297.65,-1.82242e-08,0,32440,32440
297.701,-1.8164e-08,0,32440,32440
297.751,-1.81049e-08,0,32424,32424
297.801,-1.80451e-08,0,32440,32440
297.851,-1.79845e-08,0,32440,32440
297.901,-1.79229e-08,0,32416,32416
297.95,-1.78604e-08,0,32400,32400
298,-1.77967e-08,0,32368,32368
298.051,-1.77299e-08,0,32392,32392
298.101,-1.76636e-08,0,32400,32400
298.151,-1.75959e-08,0,32376,32376
298.201,-1.75265e-08,0,32388,32388
298.251,-1.74555e-08,0,32400,32400
298.3,-1.73825e-08,0,32392,32392
298.35,-1.73075e-08,0,32384,32384
298.401,-1.72279e-08,0,32400,32400
298.451,-1.7148e-08,0,32392,32392
298.501,-1.70654e-08,0,32388,32388
298.551,-1.69798e-08,0,32400,32400
298.601,-1.6891e-08,0,32376,32376
298.65,-1.67988e-08,0,32392,32392
298.7,-1.67029e-08,0,32384,32384
298.751,-1.66001e-08,0,32400,32400
298.801,-1.6496e-08,0,32368,32368
298.851,-1.63876e-08,0,32392,32392
298.901,-1.62747e-08,0,32368,32368
298.951,-1.61571e-08,0,32388,32388
299,-1.60348e-08,0,32368,32368
299.05,-1.59077e-08,0,32368,32368
299.1,-1.57757e-08,0,32376,32376
299.151,-1.56346e-08,0,32392,32392
299.201,-1.54924e-08,0,32368,32368
299.251,-1.53452e-08,0,32368,32368
299.301,-1.51929e-08,0,32376,32376
299.35,-1.50353e-08,0,32352,32352
299.4,-1.48724e-08,0,32368,32368
299.45,-1.47041e-08,0,32368,32368
299.501,-1.45251e-08,0,32368,32368
299.551,-1.43455e-08,0,32368,32368
299.601,-1.41603e-08,0,32356,32356
299.651,-1.39693e-08,0,32344,32344
299.701,-1.37726e-08,0,32344,32344
299.75,-1.35699e-08,0,32344,32344
299.8,-1.33612e-08,0,32344,32344
299.851,-1.31398e-08,0,32344,32344
299.901,-1.29178e-08,0,32328,32328
299.951,-1.26883e-08,0,32328,32328
300.001,-1.24505e-08,0,32320,32320
300.051,-1.22033e-08,0,32312,32312
300.1,-1.19452e-08,0,32312,32312
300.15,-1.16747e-08,0,32312,32312
300.201,-1.13814e-08,0,32312,32312
300.251,-1.10802e-08,0,32312,32312
300.301,-1.07609e-08,0,32312,32312
300.351,-1.04217e-08,0,32296,32296
300.401,-1.00608e-08,0,32284,32284
300.45,-9.67665e-09,0,32312,32312
300.5,-9.26802e-09,0,32306,32306
300.55,-8.83413e-09,0,32308,32308
300.601,-8.36078e-09,0,32306,32306
300.651,-7.87536e-09,0,32304,32304
300.701,-7.36567e-09,0,32292,32292
300.751,-6.83331e-09,0,32312,32312
300.8,-6.28039e-09,0,32304,32304
300.85,-5.70906e-09,0,32320,32320
300.9,-5.12049e-09,0,32296,32296
300.951,-4.49499e-09,0,32276,32276
301.001,-3.86402e-09,0,32226,32226
301.051,-3.21257e-09,0,32194,32194
301.101,-2.56688e-09,0,32152,32152
301.151,-1.96889e-09,0,32152,32152
301.2,-1.43209e-09,0,32132,32132
301.25,-9.26201e-10,0,32108,32108
301.301,-3.59802e-10,0,32108,32108
301.351,1.54159e-10,0,32100,32100
301.401,4.31615e-10,0,32056,32056
301.451,7.38417e-10,0,32060,32060
301.501,1.30986e-09,0,32048,32048
301.55,1.879e-09,0,32048,32048
301.6,2.25034e-09,0,32032,32032
301.651,2.59187e-09,0,32024,32024
301.701,2.88431e-09,0,32016,32016
301.751,3.14076e-09,0,32024,32024
301.801,3.36005e-09,0,32004,32004
301.851,3.54248e-09,0,32000,32000
301.9,3.6888e-09,0,31964,31964
301.95,3.80293e-09,0,31956,31956
302.001,3.88987e-09,0,31960,31960
302.051,3.94652e-09,0,31936,31936
302.101,3.97925e-09,0,31940,31940
302.151,3.98981e-09,0,31928,31928
302.201,3.98074e-09,0,31928,31928
302.25,3.954e-09,0,31928,31928
302.3,3.91213e-09,0,31920,31920
302.35,3.85784e-09,0,31928,31928
302.401,3.79162e-09,0,31912,31912
302.451,3.71892e-09,0,31924,31924
302.501,3.64028e-09,0,31932,31932
302.551,3.55727e-09,0,31948,31948
302.6,3.47104e-09,0,31952,31952
302.65,3.38305e-09,0,31960,31960
302.7,3.29439e-09,0,31960,31960
302.751,3.20365e-09,0,31952,31952
302.801,3.11657e-09,0,31952,31952
302.851,3.03185e-09,0,31944,31944
302.901,2.94972e-09,0,31952,31952
302.951,2.8712e-09,0,31958,31958
303,2.79691e-09,0,32158,32158
303.05,2.72746e-09,0,32350,32350
303.101,2.6617e-09,0,32550,32550
303.151,2.60412e-09,0,32748,32748
303.201,2.55293e-09,0,32768,32768
303.251,2.50813e-09,0,32768,32768
303.301,2.47009e-09,0,32768,32768
303.35,2.44013e-09,0,32768,32768
303.4,2.41678e-09,0,32768,32768
303.451,2.39876e-09,0,32768,32768
303.501,2.38659e-09,0,32768,32768
303.551,2.37887e-09,0,32768,32768
303.601,2.37491e-09,0,32768,32768
303.651,2.37451e-09,0,32768,32768
303.7,2.37648e-09,0,32768,32768
303.75,2.37904e-09,0,32768,32768
303.8,2.38012e-09,0,32768,32768
303.851,2.37864e-09,0,32768,32768
303.901,2.37629e-09,0,32768,32768
303.951,2.37186e-09,0,32768,32768
304.001,2.3642e-09,0,32768,32768
304.05,2.3535e-09,0,32768,32768
304.1,2.3397e-09,0,32768,32768
304.15,2.32305e-09,0,32768,32768
304.201,2.30368e-09,0,32768,32768
304.251,2.28344e-09,0,32768,32768
304.301,2.26244e-09,0,32768,32768
304.351,2.24121e-09,0,32768,32768
304.401,2.22031e-09,0,32768,32768
304.45,2.20003e-09,0,32768,32768
304.5,2.18063e-09,0,32768,32768
304.551,2.16177e-09,0,32768,32768
304.601,2.14459e-09,0,32768,32768
304.651,2.12793e-09,0,32768,32768
304.701,2.11302e-09,0,32768,32768
304.751,2.10016e-09,0,32768,32768
304.8,2.08838e-09,0,32768,32768
304.85,2.0785e-09,0,32768,32768
304.901,2.07133e-09,0,32768,32768
304.951,2.06818e-09,0,32768,32768
