250,0,0,512,512
250.012,0,0,512,512
250.059,0,0,512,512
250.105,0,0,512,512
250.152,0,0,512,512
250.211,0,0,512,512
250.258,0,0,512,512
250.305,0,0,512,512
250.352,0,0,512,512
250.41,2.77556e-17,0,512,512
250.457,2.77556e-17,0,512,512
250.504,0,0,512,512
250.551,0,0,512,512
250.609,0,0,512,512
250.656,0,0,512,512
250.703,0,0,512,512
250.762,0,0,512,512
250.808,0,0,512,512
250.855,0,0,512,512
250.902,2.77556e-17,0,512,512
250.961,2.77556e-17,0,512,512
251.008,2.77556e-17,0,512,512
251.055,2.77556e-17,0,512,512
251.101,0,0,512,512
251.16,0,0,512,512
251.207,2.77556e-17,0,512,512
251.254,0,0,512,512
251.301,0,0,512,512
251.359,0,0,512,512
251.406,0,0,512,512
251.453,0,0,512,512
251.511,0,0,512,512
251.558,0,0,512,512
251.605,2.77556e-17,0,512,512
251.652,2.77556e-17,0,512,512
251.711,0,0,512,512
251.758,0,0,512,512
251.804,0,0,512,512
251.851,0,0,512,512
251.91,0,0,512,512
251.957,0,0,512,512
252.004,-2.77556e-17,0,512,512
252.05,-2.77556e-17,0,512,512
252.109,-2.77556e-17,0,512,512
252.156,0,0,512,512
252.203,0,0,512,512
252.261,0,0,512,512
252.308,0,0,512,512
252.355,2.77556e-17,0,512,512
252.402,2.77556e-17,0,512,512
252.461,0,0,512,512
252.507,0,0,512,512
252.554,0,0,512,512
252.601,0,0,512,512
252.66,0,0,512,512
252.707,0,0,512,512
252.754,0,0,512,512
252.8,0,0,512,512
252.859,2.77556e-17,0,512,512
252.906,0,0,512,512
252.953,0,0,512,512
253.011,0,0,512,512
253.058,0,0,512,512
253.105,0,0,512,512
253.152,0,0,512,512
253.21,0,0,512,512
253.257,0,0,512,512
253.304,2.77556e-17,0,512,512
253.351,2.77556e-17,0,512,512
253.41,0,0,512,512
253.457,0,0,512,512
253.503,0,0,512,512
253.55,2.77556e-17,0,512,512
253.609,2.77556e-17,0,512,512
253.656,2.77556e-17,0,512,512
253.703,2.77556e-17,0,512,512
253.761,0,0,512,512
253.808,0,0,512,512
253.855,0,0,512,512
253.902,-2.77556e-17,0,512,512
253.96,-2.77556e-17,0,512,512
254.007,0,0,512,512
254.054,0,0,512,512
254.101,-2.77556e-17,0,512,512
254.16,0,0,512,512
254.206,-2.77556e-17,0,512,512
254.253,0,0,512,512
254.3,0,0,512,512
254.359,0,0,512,512
254.406,0,0,512,512
254.452,0,0,512,512
254.511,-2.77556e-17,0,512,512
254.558,-2.77556e-17,0,512,512
254.605,-2.77556e-17,0,512,512
254.652,-2.77556e-17,0,512,512
254.71,-2.77556e-17,0,512,512
254.757,0,0,512,512
254.804,0,0,512,512
254.851,-2.77556e-17,0,512,512
254.909,-5.55112e-17,0,512,512
254.956,-2.77556e-17,0,512,512
255.003,-2.77556e-17,0,512,512
255.05,-2.77556e-17,0,512,512
255.109,-2.77556e-17,0,512,512
255.155,-2.77556e-17,0,512,512
255.202,-2.77556e-17,0,512,512
255.261,-2.77556e-17,0,512,512
255.308,-2.77556e-17,0,512,512
255.355,-2.77556e-17,0,512,512
255.402,-2.77556e-17,0,512,512
255.46,-2.77556e-17,0,512,512
255.507,-2.77556e-17,0,512,512
255.554,-2.77556e-17,0,512,512
255.601,0,0,512,512
255.659,0,0,512,512
255.706,0,0,512,512
255.753,0,0,512,512
255.812,0,0,512,512
255.859,0,0,512,512
255.905,2.77556e-17,0,512,512
255.952,0,0,512,512
256.011,0,0,512,512
256.058,0,0,512,512
256.105,0,0,512,512
256.151,0,0,512,512
256.21,0,0,512,512
256.257,2.77556e-17,0,512,512
256.304,2.77556e-17,0,512,512
256.351,0,0,512,512
256.409,0,0,512,512
256.456,0,0,512,512
256.503,0,0,512,512
256.562,0,0,512,512
256.608,0,0,512,512
256.655,-2.77556e-17,0,512,512
256.702,0,0,512,512
256.761,-2.77556e-17,0,512,512
256.808,0,0,512,512
256.854,-2.77556e-17,0,512,512
256.901,-2.77556e-17,0,512,512
256.96,-2.77556e-17,0,512,512
257.007,-2.77556e-17,0,512,512
257.054,0,0,512,512
257.101,-2.77556e-17,0,512,512
257.159,-2.77556e-17,0,512,512
257.206,0,0,512,512
257.253,0,0,512,512
257.311,0,0,512,512
257.358,2.77556e-17,0,512,512
257.405,2.77556e-17,0,512,512
257.452,0,0,512,512
257.511,0,0,512,512
257.557,0,0,512,512
257.604,0,0,512,512
257.651,0,0,512,512
257.71,-2.77556e-17,0,512,512
257.757,0,0,512,512
257.804,0,0,512,512
257.85,0,0,512,512
257.909,-2.77556e-17,0,512,512
257.956,-2.77556e-17,0,512,512
258.003,-2.77556e-17,0,512,512
258.061,0,0,512,512
258.108,0,0,512,512
258.155,0,0,512,512
258.202,0,0,512,512
258.261,0,0,512,512
258.307,-2.77556e-17,0,512,512
258.354,0,0,512,512
258.401,-2.77556e-17,0,512,512
258.46,-2.77556e-17,0,512,512
258.507,-2.77556e-17,0,512,512
258.553,-2.77556e-17,0,512,512
258.6,-2.77556e-17,0,512,512
258.659,-2.77556e-17,0,512,512
258.706,-5.55112e-17,0,512,512
258.753,-5.55112e-17,0,512,512
258.811,-5.55112e-17,0,512,512
258.858,-5.55112e-17,0,512,512
258.905,-2.77556e-17,0,512,512
258.952,0,0,512,512
259.01,0,0,512,512
259.057,-2.77556e-17,0,512,512
259.104,0,0,512,512
259.151,0,0,512,512
259.21,-2.77556e-17,0,512,512
259.256,-2.77556e-17,0,512,512
259.303,0,0,512,512
259.35,0,0,512,512
259.409,2.77556e-17,0,512,512
259.456,2.77556e-17,0,512,512
259.503,0,0,512,512
259.561,0,0,512,512
259.608,0,0,512,512
259.655,-2.77556e-17,0,512,512
259.702,-2.77556e-17,0,512,512
259.76,0,0,512,512
259.807,0,0,512,512
259.854,2.77556e-17,0,512,512
259.901,0,0,512,512
259.959,0,0,512,512
260.006,0,0,512,512
260.053,0,0,512,512
260.1,-2.77556e-17,0,512,512
260.159,-2.77556e-17,0,512,512
260.206,-2.77556e-17,0,512,512
260.252,-2.77556e-17,0,512,512
260.311,-2.77556e-17,0,512,512
260.358,-2.77556e-17,0,512,512
260.405,-2.77556e-17,0,512,512
260.452,-2.77556e-17,0,512,512
260.51,-2.77556e-17,0,512,512
260.557,-2.77556e-17,0,512,512
260.604,0,0,512,512
260.651,0,0,512,512
260.709,0,0,512,512
260.756,0,0,512,512
260.803,0,0,512,512
260.862,0,0,512,512
260.909,2.77556e-17,0,512,512
260.955,2.77556e-17,0,512,512
261.002,2.77556e-17,0,512,512
261.061,2.77556e-17,0,512,512
261.108,2.77556e-17,0,512,512
261.155,2.77556e-17,0,512,512
261.201,2.77556e-17,0,512,512
261.26,0,0,512,512
261.307,0,0,512,512
261.354,0,0,512,512
261.401,0,0,512,512
261.459,0,0,512,512
261.506,0,0,512,512
261.553,0,0,512,512
261.612,0,0,512,512
261.658,0,0,512,512
261.705,0,0,512,512
261.752,2.77556e-17,0,512,512
261.811,2.77556e-17,0,512,512
261.858,-2.77556e-17,0,512,512
261.905,0,0,512,512
261.951,0,0,512,512
262.01,0,0,512,512
262.057,0,0,512,512
262.104,0,0,512,512
262.151,0,0,512,512
262.209,0,0,512,512
262.256,2.77556e-17,0,512,512
262.303,2.77556e-17,0,512,512
262.361,0,0,512,512
262.408,0,0,512,512
262.455,0,0,512,512
262.502,0,0,512,512
262.561,0,0,512,512
262.608,2.77556e-17,0,512,512
262.654,2.77556e-17,0,512,512
262.701,2.77556e-17,0,512,512
262.76,2.77556e-17,0,512,512
262.807,0,0,512,512
262.854,0,0,512,512
262.9,2.77556e-17,0,512,512
262.959,0,0,512,512
263.006,0,0,512,512
263.053,0,0,512,512
263.111,0,0,512,512
263.158,0,0,512,512
263.205,0,0,512,512
263.252,0,0,512,512
263.311,0,0,512,512
263.357,2.77556e-17,0,512,512
263.404,2.77556e-17,0,512,512
263.451,2.77556e-17,0,512,512
263.51,0,0,512,512
263.557,0,0,512,512
263.603,0,0,512,512
263.65,0,0,512,512
263.709,-2.77556e-17,0,512,512
263.756,-2.77556e-17,0,512,512
263.803,-2.77556e-17,0,512,512
263.861,0,0,512,512
263.908,0,0,512,512
263.955,2.77556e-17,0,512,512
264.002,0,0,512,512
264.06,0,0,512,512
264.107,0,0,512,512
264.154,0,0,512,512
264.201,0,0,512,512
264.26,0,0,512,512
264.306,2.77556e-17,0,512,512
264.353,2.77556e-17,0,512,512
264.4,2.77556e-17,0,512,512
264.459,2.77556e-17,0,512,512
264.506,2.77556e-17,0,512,512
264.553,2.77556e-17,0,512,512
264.611,2.77556e-17,0,512,512
264.658,2.77556e-17,0,512,512
264.705,2.77556e-17,0,512,512
264.752,2.77556e-17,0,512,512
264.81,2.77556e-17,0,512,512
264.857,2.77556e-17,0,512,512
264.904,2.77556e-17,0,512,512
264.951,2.77556e-17,0,512,512
265.01,2.77556e-17,0,512,512
265.056,2.77556e-17,0,512,512
265.103,2.77556e-17,0,512,512
265.15,2.77556e-17,0,512,512
265.209,2.77556e-17,0,512,512
265.256,2.77556e-17,0,512,512
265.302,2.77556e-17,0,512,512
265.361,5.55112e-17,0,512,512
265.408,5.55112e-17,0,512,512
265.455,5.55112e-17,0,512,512
265.502,5.55112e-17,0,512,512
265.56,2.77556e-17,0,512,512
265.607,2.77556e-17,0,512,512
265.654,2.77556e-17,0,512,512
265.701,2.77556e-17,0,512,512
265.759,2.77556e-17,0,512,512
265.806,2.77556e-17,0,512,512
265.853,2.77556e-17,0,512,512
265.9,2.77556e-17,0,512,512
265.959,2.77556e-17,0,512,512
266.005,2.77556e-17,0,512,512
266.052,2.77556e-17,0,512,512
266.111,0,0,512,512
266.158,2.77556e-17,0,512,512
266.205,0,0,512,512
266.252,2.77556e-17,0,512,512
266.31,2.77556e-17,0,512,512
266.357,2.77556e-17,0,512,512
266.404,2.77556e-17,0,512,512
266.451,2.77556e-17,0,512,512
266.509,0,0,512,512
266.556,0,0,512,512
266.603,-2.77556e-17,0,512,512
266.662,-2.77556e-17,0,512,512
266.708,-2.77556e-17,0,512,512
266.755,0,0,512,512
266.802,-2.77556e-17,0,512,512
266.861,-2.77556e-17,0,512,512
266.908,-2.77556e-17,0,512,512
266.955,-2.77556e-17,0,512,512
267.001,-2.77556e-17,0,512,512
267.06,-2.77556e-17,0,512,512
267.107,-2.77556e-17,0,512,512
267.154,-2.77556e-17,0,512,512
267.201,-2.77556e-17,0,512,512
267.259,-2.77556e-17,0,512,512
267.306,-2.77556e-17,0,512,512
267.353,-2.77556e-17,0,512,512
267.412,-2.77556e-17,0,512,512
267.458,-2.77556e-17,0,512,512
267.505,-2.77556e-17,0,512,512
267.552,0,0,512,512
267.611,2.77556e-17,0,512,512
267.658,2.77556e-17,0,512,512
267.704,2.77556e-17,0,512,512
267.751,2.77556e-17,0,512,512
267.81,2.77556e-17,0,512,512
267.857,2.77556e-17,0,512,512
267.904,2.77556e-17,0,512,512
267.95,2.77556e-17,0,512,512
268.009,2.77556e-17,0,512,512
268.056,2.77556e-17,0,512,512
268.101,2.77556e-17,0,611,611
268.15,2.77556e-17,0,671,671
268.2,2.77556e-17,0,731,731
268.253,2.77556e-17,0,783,783
268.303,2.77556e-17,0,833,833
268.353,2.77556e-17,0,893,893
268.402,2.77556e-17,0,947,947
268.452,2.77556e-17,0,1001,1001
268.502,2.77556e-17,0,1049,1049
268.552,2.77556e-17,0,1095,1095
268.601,2.77556e-17,0,1143,1143
268.651,2.77556e-17,0,1189,1189
268.701,2.77556e-17,0,1241,1241
268.751,2.77556e-17,0,1301,1301
268.801,2.77556e-17,0,1361,1361
268.85,2.77556e-17,0,1403,1403
268.9,2.77556e-17,0,1463,1463
268.95,2.77556e-17,0,1523,1523
269.003,2.77556e-17,0,1573,1573
269.053,2.77556e-17,0,1631,1631
269.102,2.77556e-17,0,1691,1691
269.152,2.77556e-17,0,1751,1751
269.202,2.77556e-17,0,1793,1793
269.252,2.77556e-17,0,1853,1853
269.302,2.77556e-17,0,1907,1907
269.351,2.77556e-17,0,1963,1963
269.401,2.77556e-17,0,2021,2021
269.451,2.77556e-17,0,2065,2065
269.501,2.77556e-17,0,2123,2123
269.551,2.77556e-17,0,2183,2183
269.6,2.77556e-17,0,2233,2233
269.65,2.77556e-17,0,2291,2291
269.703,2.77556e-17,0,2351,2351
269.753,2.77556e-17,0,2395,2395
269.802,2.77556e-17,0,2455,2455
269.852,2.77556e-17,0,2503,2503
269.902,2.77556e-17,0,2561,2561
269.952,2.77556e-17,0,2621,2621
270.002,2.77556e-17,0,2673,2673
270.051,2.77556e-17,0,2725,2725
270.101,2.77556e-17,0,2773,2773
270.151,2.77556e-17,0,2831,2831
270.201,2.77556e-17,0,2883,2883
270.251,2.77556e-17,0,2935,2935
270.3,1.38778e-16,0,2981,2981
270.35,5.82867e-16,0,3041,3041
270.4,1.02696e-15,0,3093,3093
270.453,1.69309e-15,0,3149,3149
270.503,3.33067e-15,0,3191,3191
270.552,7.04992e-15,0,3243,3243
270.602,1.43219e-14,0,3299,3299
270.652,2.61458e-14,0,3343,3343
270.702,4.03844e-14,0,3401,3401
270.752,4.65739e-14,0,3449,3449
270.801,1.80689e-14,0,3497,3497
270.851,-9.80049e-14,0,3551,3551
270.901,-3.90049e-13,0,3603,3603
270.951,-9.85878e-13,0,3643,3643
271.001,-2.04517e-12,0,3693,3693
271.05,-3.75033e-12,0,3749,3749
271.1,-6.75968e-12,0,3797,3797
271.153,-1.50314e-11,0,3843,3843
271.203,-6.97931e-11,0,3903,3903
271.252,-1.76526e-10,0,3943,3943
271.302,-2.93228e-10,0,3989,3989
271.352,-3.33774e-10,0,4039,4039
271.402,-2.41619e-10,0,4085,4085
271.452,-5.27972e-11,0,4143,4143
271.501,1.26436e-10,0,4183,4183
271.551,1.98447e-10,0,4229,4229
271.601,1.4418e-10,0,4277,4277
271.651,3.52393e-11,0,4325,4325
271.701,-2.49033e-11,0,4373,4373
271.75,1.5396e-11,0,4415,4415
271.8,1.15746e-10,0,4469,4469
271.85,1.84913e-10,0,4517,4517
271.903,1.62281e-10,0,4563,4563
271.953,7.9457e-11,0,4607,4607
272.002,1.77463e-11,0,4651,4651
272.052,3.13586e-11,0,4697,4697
272.102,1.04479e-10,0,4749,4749
272.152,1.73065e-10,0,4791,4791
272.202,1.83049e-10,0,4831,4831
272.251,1.31214e-10,0,4877,4877
272.301,6.03972e-11,0,4929,4929
272.351,2.46746e-11,0,4971,4971
272.401,5.44811e-11,0,5011,5011
272.451,1.36352e-10,0,5057,5057
272.5,2.13235e-10,0,5109,5109
272.55,2.13575e-10,0,5151,5151
272.603,1.01856e-10,0,5191,5191
272.653,-3.37577e-11,0,5237,5237
272.702,-5.44506e-11,0,5285,5285
272.752,1.16677e-10,0,5319,5319
272.802,3.585e-10,0,5359,5359
272.852,3.93177e-10,0,5409,5409
272.902,6.43343e-11,0,5451,5451
272.951,-3.43664e-10,0,5491,5491
273.001,-7.91746e-11,0,5537,5537
273.051,1.68039e-09,0,5581,5581
273.101,5.28019e-09,0,5611,5611
273.151,1.03304e-08,0,5657,5657
273.2,1.59203e-08,0,5709,5709
273.25,2.10925e-08,0,5751,5751
273.3,2.52613e-08,0,5791,5791
273.353,2.86019e-08,0,5829,5829
273.403,3.14163e-08,0,5877,5877
273.452,3.49671e-08,0,5911,5911
273.502,4.0271e-08,0,5957,5957
273.552,4.78961e-08,0,6005,6005
273.602,5.78845e-08,0,6043,6043
273.652,7.00971e-08,0,6063,6063
273.701,8.46983e-08,0,6113,6113
273.751,1.02391e-07,0,6143,6143
273.801,1.24262e-07,0,6155,6155
273.851,1.51398e-07,0,6185,6185
273.901,1.84485e-07,0,6213,6213
273.95,2.23471e-07,0,6235,6235
274,2.67447e-07,0,6249,6249
274.053,3.17818e-07,0,6297,6297
274.103,3.67659e-07,0,6307,6307
274.152,4.19317e-07,0,6335,6335
274.202,4.73249e-07,0,6373,6373
274.252,5.29803e-07,0,6395,6395
274.302,5.88151e-07,0,6391,6391
274.352,6.45962e-07,0,6429,6429
274.401,7.00035e-07,0,6461,6461
274.451,7.47345e-07,0,6495,6495
274.501,7.85843e-07,0,6533,6533
274.551,8.148e-07,0,6551,6551
274.601,8.34786e-07,0,6591,6591
274.65,8.47302e-07,0,6625,6625
274.7,8.5414e-07,0,6609,6609
274.753,8.56775e-07,0,6603,6603
274.803,8.55647e-07,0,6645,6645
274.853,8.50973e-07,0,6697,6697
274.902,8.42176e-07,0,6721,6721
274.952,8.2837e-07,0,6751,6751
275.002,8.0858e-07,0,6785,6785
275.052,7.81969e-07,0,6815,6815
275.102,7.48124e-07,0,6845,6845
275.151,7.0739e-07,0,6877,6877
275.201,6.61087e-07,0,6903,6903
275.251,6.11353e-07,0,6905,6905
275.301,5.60611e-07,0,6897,6897
275.35,5.1096e-07,0,6919,6919
275.4,4.63827e-07,0,6969,6969
275.45,4.19914e-07,0,7029,7029
275.503,3.77045e-07,0,7035,7035
275.553,3.3967e-07,0,7069,7069
275.602,3.04813e-07,0,7101,7101
275.652,2.72002e-07,0,7111,7111
275.702,2.41018e-07,0,7143,7143
275.752,2.1212e-07,0,7175,7175
275.802,1.86084e-07,0,7257,7257
275.851,1.63836e-07,0,7283,7283
275.901,1.4575e-07,0,7341,7341
275.951,1.31134e-07,0,7331,7331
276.001,1.18443e-07,0,7355,7355
276.051,1.06176e-07,0,7377,7377
276.1,9.37639e-08,0,7393,7393
276.15,8.17345e-08,0,7435,7435
276.203,7.05614e-08,0,7468,7468
276.253,6.22689e-08,0,7492,7492
276.302,5.62069e-08,0,7522,7522
276.352,5.17299e-08,0,7556,7556
276.402,4.78248e-08,0,7592,7592
276.452,4.35466e-08,0,7614,7614
276.502,3.84774e-08,0,7632,7632
276.551,3.29668e-08,0,7648,7648
276.601,2.79185e-08,0,7646,7646
276.651,2.42085e-08,0,7670,7670
276.701,2.21627e-08,0,7666,7666
276.751,2.14718e-08,0,7648,7648
276.8,2.15186e-08,0,7556,7556
276.85,2.17773e-08,0,7580,7580
276.9,2.19955e-08,0,7624,7624
276.953,2.21434e-08,0,7688,7688
277.003,2.22419e-08,0,7766,7766
277.052,2.23067e-08,0,7828,7828
277.102,2.22883e-08,0,7890,7890
277.152,2.2125e-08,0,7926,7926
277.202,2.18234e-08,0,7972,7972
277.252,2.1481e-08,0,8032,8032
277.301,2.12029e-08,0,8080,8080
277.351,2.10199e-08,0,8076,8076
277.401,2.08989e-08,0,8066,8066
277.451,2.07968e-08,0,8134,8134
277.501,2.06836e-08,0,8070,8070
277.55,2.05472e-08,0,8058,8058
277.6,2.03816e-08,0,8048,8048
277.653,2.01725e-08,0,7973,7973
277.703,1.99408e-08,0,7967,7967
277.752,1.96749e-08,0,7963,7963
277.802,1.93738e-08,0,7983,7983
277.852,1.90378e-08,0,7979,7979
277.902,1.86667e-08,0,8095,8095
277.952,1.82637e-08,0,8063,8063
278.001,1.78317e-08,0,8108,8108
278.051,1.73757e-08,0,8130,8130
278.101,1.69e-08,0,8108,8108
278.151,1.6409e-08,0,8164,8164
278.201,1.59074e-08,0,8136,8136
278.25,1.53991e-08,0,8168,8168
278.3,1.48875e-08,0,8148,8148
278.35,1.43757e-08,0,8112,8112
278.403,1.38364e-08,0,8148,8148
278.453,1.33335e-08,0,8148,8148
278.502,1.28399e-08,0,8146,8146
278.552,1.23589e-08,0,8154,8154
278.602,1.18946e-08,0,8110,8110
278.652,1.1451e-08,0,8138,8138
278.702,1.10316e-08,0,8150,8150
278.751,1.06393e-08,0,8084,8084
278.801,1.02759e-08,0,7950,7950
278.851,9.94247e-09,0,7986,7986
278.901,9.63886e-09,0,7900,7900
278.951,9.36466e-09,0,7872,7872
279,9.11844e-09,0,7840,7840
279.05,8.89834e-09,0,7814,7814
279.103,8.69211e-09,0,7782,7782
279.153,8.52105e-09,0,7750,7750
279.202,8.37146e-09,0,7736,7736
279.252,8.2417e-09,0,7680,7680
279.302,8.12992e-09,0,7654,7654
279.352,8.03433e-09,0,7614,7614
279.402,7.95317e-09,0,7574,7574
279.451,7.88466e-09,0,7562,7562
279.501,7.82697e-09,0,7522,7522
279.551,7.77881e-09,0,7472,7472
279.601,7.7393e-09,0,7424,7424
279.651,7.7076e-09,0,7392,7392
279.7,7.68306e-09,0,7478,7478
279.75,7.66494e-09,0,7552,7552
279.8,7.65214e-09,0,7540,7540
279.853,7.64305e-09,0,7520,7520
279.903,7.63647e-09,0,7524,7524
279.952,7.63669e-09,0,7644,7644
280.002,7.64209e-09,0,7700,7700
280.052,7.64897e-09,0,7674,7674
280.102,7.65765e-09,0,7648,7648
280.152,7.6682e-09,0,7624,7624
280.201,7.68046e-09,0,7612,7612
280.251,7.69443e-09,0,7588,7588
280.301,7.70978e-09,0,7604,7604
280.351,7.72603e-09,0,7630,7630
280.401,7.74257e-09,0,7596,7596
280.45,7.7593e-09,0,7580,7580
280.5,7.77625e-09,0,7700,7700
280.553,7.79359e-09,0,7812,7812
280.603,7.81017e-09,0,7890,7890
280.652,7.82681e-09,0,7980,7980
280.702,7.84348e-09,0,7936,7936
280.752,7.86019e-09,0,7880,7880
280.802,7.87719e-09,0,7848,7848
280.852,7.89376e-09,0,7922,7922
280.901,7.91011e-09,0,7956,7956
280.951,7.92641e-09,0,7980,7980
281.001,7.94243e-09,0,7896,7896
281.051,7.95796e-09,0,7850,7850
281.101,7.97334e-09,0,7808,7808
281.15,7.98863e-09,0,7746,7746
281.2,8.00339e-09,0,7898,7898
281.25,8.01765e-09,0,7786,7786
281.303,8.03214e-09,0,7690,7690
281.353,8.04534e-09,0,7640,7640
281.402,8.05822e-09,0,7708,7708
281.452,8.07063e-09,0,7662,7662
281.502,8.08269e-09,0,7548,7548
281.552,8.0945e-09,0,7494,7494
281.602,8.10606e-09,0,7440,7440
281.651,8.11808e-09,0,7530,7530
281.701,8.13151e-09,0,7480,7480
281.751,8.14734e-09,0,7376,7376
281.801,8.16698e-09,0,7334,7334
281.851,8.19212e-09,0,7284,7284
281.9,8.22473e-09,0,7236,7236
281.95,8.26749e-09,0,7188,7188
282.003,8.32762e-09,0,7156,7156
282.053,8.40243e-09,0,7106,7106
282.102,8.49856e-09,0,7064,7064
282.152,8.61973e-09,0,7010,7010
282.202,8.76958e-09,0,6998,6998
282.252,8.95153e-09,0,6946,6946
282.302,9.16905e-09,0,6964,6964
282.351,9.4263e-09,0,6906,6906
282.401,9.72892e-09,0,6906,6906
282.451,1.00847e-08,0,6854,6854
282.501,1.05038e-08,0,6822,6822
282.551,1.09987e-08,0,6820,6820
282.6,1.15846e-08,0,6816,6816
282.65,1.22779e-08,0,6800,6800
282.703,1.31486e-08,0,6794,6794
282.753,1.41185e-08,0,6824,6824
282.803,1.52489e-08,0,6800,6800
282.852,1.65558e-08,0,6786,6786
282.902,1.80532e-08,0,6824,6824
282.952,1.9753e-08,0,6786,6786
283.002,2.1664e-08,0,6798,6798
283.052,2.37912e-08,0,6786,6786
283.101,2.61359e-08,0,6750,6750
283.151,2.8695e-08,0,6762,6762
283.201,3.14603e-08,0,6732,6732
283.251,3.44194e-08,0,6796,6796
283.3,3.75569e-08,0,6802,6802
283.35,4.08554e-08,0,6802,6802
283.4,4.42982e-08,0,6876,6876
283.453,4.80866e-08,0,6910,6910
283.503,5.17936e-08,0,6944,6944
283.552,5.56299e-08,0,6988,6988
283.602,5.96122e-08,0,7032,7032
283.652,6.37694e-08,0,7076,7076
283.702,6.814e-08,0,7108,7108
283.752,7.27669e-08,0,7152,7152
283.801,7.76888e-08,0,7196,7196
283.851,8.2932e-08,0,7232,7232
283.901,8.85052e-08,0,7268,7268
283.951,9.43987e-08,0,7316,7316
284.001,1.00592e-07,0,7360,7360
284.05,1.07069e-07,0,7400,7400
284.1,1.13835e-07,0,7436,7436
284.153,1.21364e-07,0,7484,7484
284.203,1.2893e-07,0,7528,7528
284.253,1.37107e-07,0,7576,7576
284.302,1.46124e-07,0,7620,7620
284.352,1.56266e-07,0,7656,7656
284.402,1.67857e-07,0,7704,7704
284.452,1.81243e-07,0,7740,7740
284.501,1.96773e-07,0,7788,7788
284.551,2.14779e-07,0,7824,7824
284.601,2.35545e-07,0,7864,7864
284.651,2.59287e-07,0,7908,7908
284.701,2.86128e-07,0,7956,7956
284.75,3.16078e-07,0,7982,7982
284.8,3.4902e-07,0,8026,8026
284.85,3.847e-07,0,8070,8070
284.903,4.25026e-07,0,8106,8106
284.953,4.64955e-07,0,8112,8112
285.002,5.05993e-07,0,8152,8152
285.052,5.47345e-07,0,8156,8156
285.102,5.88118e-07,0,8168,8168
285.152,6.27349e-07,0,8156,8156
285.202,6.6406e-07,0,8152,8152
285.251,6.97313e-07,0,8148,8148
285.301,7.26271e-07,0,8148,8148
285.351,7.50258e-07,0,8148,8148
285.401,7.68789e-07,0,8148,8148
285.451,7.81581e-07,0,8148,8148
285.5,7.88532e-07,0,8144,8144
285.55,7.89688e-07,0,8140,8140
285.603,7.84747e-07,0,8096,8096
285.653,7.74451e-07,0,8078,8078
285.702,7.58885e-07,0,8160,8160
285.752,7.38249e-07,0,8184,8184
285.802,7.12756e-07,0,8192,8192
285.852,6.82665e-07,0,8192,8192
285.902,6.48314e-07,0,8192,8192
285.951,6.10153e-07,0,8192,8192
286.001,5.6876e-07,0,8192,8192
286.051,5.24833e-07,0,8192,8192
286.101,4.79161e-07,0,8192,8192
286.151,4.32582e-07,0,8192,8192
286.2,3.85929e-07,0,8192,8192
286.25,3.39974e-07,0,8192,8192
286.3,2.95395e-07,0,8192,8192
286.353,2.50308e-07,0,8192,8192
286.403,2.10169e-07,0,8192,8192
286.452,1.72711e-07,0,8192,8192
286.502,1.3813e-07,0,8192,8192
286.552,1.06535e-07,0,8192,8192
286.602,7.79581e-08,0,8192,8192
286.652,5.23694e-08,0,8192,8192
286.701,2.96827e-08,0,8192,8192
286.751,9.76396e-09,0,8104,8104
286.801,-7.55686e-09,0,8128,8128
286.851,-2.2473e-08,0,8152,8152
286.901,-3.51869e-08,0,8148,8148
286.95,-4.58981e-08,0,8152,8152
287,-5.47967e-08,0,8164,8164
287.053,-6.24405e-08,0,8176,8176
287.103,-6.81552e-08,0,8168,8168
287.152,-7.25687e-08,0,8156,8156
287.202,-7.58281e-08,0,8148,8148
287.252,-7.80674e-08,0,8160,8160
287.302,-7.94035e-08,0,8144,8144
287.352,-7.99329e-08,0,8144,8144
287.401,-7.97317e-08,0,8136,8136
287.451,-7.88611e-08,0,8180,8180
287.501,-7.73751e-08,0,8172,8172
287.551,-7.533e-08,0,8156,8156
287.601,-7.27915e-08,0,8172,8172
287.65,-6.98388e-08,0,8168,8168
287.7,-6.65626e-08,0,8144,8144
287.75,-6.3061e-08,0,8132,8132
287.803,-5.92158e-08,0,8128,8128
287.853,-5.55486e-08,0,8108,8108
287.902,-5.19248e-08,0,8100,8100
287.952,-4.84043e-08,0,8092,8092
288.002,-4.50299e-08,0,8084,8084
288.052,-4.18293e-08,0,8136,8136
288.102,-3.88172e-08,0,8136,8136
288.151,-3.5999e-08,0,8096,8096
288.201,-3.3374e-08,0,8072,8072
288.251,-3.09376e-08,0,8092,8092
288.301,-2.86837e-08,0,8136,8136
288.351,-2.66053e-08,0,8168,8168
288.4,-2.46955e-08,0,8136,8136
288.45,-2.29469e-08,0,8156,8156
288.503,-2.1263e-08,0,8172,8172
288.553,-1.98228e-08,0,8164,8164
288.602,-1.85199e-08,0,8164,8164
288.652,-1.73457e-08,0,8180,8180
288.702,-1.62914e-08,0,8184,8184
288.752,-1.5348e-08,0,8168,8168
288.802,-1.45067e-08,0,8176,8176
288.851,-1.37593e-08,0,8184,8184
288.901,-1.30979e-08,0,8192,8192
288.951,-1.25156e-08,0,8188,8188
289.001,-1.20058e-08,0,8180,8180
289.051,-1.1563e-08,0,8180,8180
289.1,-1.11818e-08,0,8184,8184
289.15,-1.08575e-08,0,8176,8176
289.2,-1.05862e-08,0,8180,8180
289.253,-1.03517e-08,0,8180,8180
289.303,-1.0176e-08,0,8188,8188
289.352,-1.00406e-08,0,8188,8188
289.402,-9.94165e-09,0,8184,8184
289.452,-9.87492e-09,0,8192,8192
289.502,-9.83625e-09,0,8192,8192
289.552,-9.82828e-09,0,8184,8184
289.601,-9.82775e-09,0,8192,8192
289.651,-9.84987e-09,0,8192,8192
289.701,-9.88478e-09,0,8192,8192
289.751,-9.92895e-09,0,8176,8176
289.801,-9.98069e-09,0,8192,8192
289.85,-1.00343e-08,0,8184,8184
289.9,-1.00922e-08,0,8180,8180
289.953,-1.01504e-08,0,8176,8176
290.003,-1.02051e-08,0,8176,8176
290.052,-1.02554e-08,0,8168,8168
290.102,-1.03025e-08,0,8160,8160
290.152,-1.03462e-08,0,8148,8148
290.202,-1.03873e-08,0,8136,8136
290.252,-1.0426e-08,0,8124,8124
290.301,-1.04626e-08,0,8092,8092
290.351,-1.04967e-08,0,8176,8176
290.401,-1.05287e-08,0,8098,8098
290.451,-1.05589e-08,0,8088,8088
290.501,-1.05872e-08,0,8158,8158
290.55,-1.06138e-08,0,8156,8156
290.6,-1.06386e-08,0,8164,8164
290.653,-1.06638e-08,0,8068,8068
290.703,-1.06859e-08,0,7952,7952
290.753,-1.07059e-08,0,8008,8008
290.802,-1.07241e-08,0,8076,8076
290.852,-1.07423e-08,0,8080,8080
290.902,-1.07564e-08,0,8072,8072
290.952,-1.07712e-08,0,8056,8056
291.001,-1.07859e-08,0,8020,8020
291.051,-1.08029e-08,0,8044,8044
291.101,-1.08212e-08,0,8046,8046
291.151,-1.08432e-08,0,8150,8150
291.201,-1.08678e-08,0,8192,8192
291.25,-1.0898e-08,0,8192,8192
291.3,-1.09373e-08,0,8192,8192
291.35,-1.09881e-08,0,8192,8192
291.403,-1.10553e-08,0,8192,8192
291.453,-1.11323e-08,0,8140,8140
291.502,-1.1221e-08,0,8016,8016
291.552,-1.1326e-08,0,8042,8042
291.602,-1.14481e-08,0,8058,8058
291.652,-1.15848e-08,0,8076,8076
291.702,-1.17365e-08,0,8062,8062
291.751,-1.1903e-08,0,8054,8054
291.801,-1.20838e-08,0,8034,8034
291.851,-1.22785e-08,0,8046,8046
291.901,-1.24868e-08,0,8028,8028
291.951,-1.27089e-08,0,7972,7972
292,-1.29451e-08,0,7916,7916
292.05,-1.31959e-08,0,7844,7844
292.103,-1.34781e-08,0,7898,7898
292.153,-1.3761e-08,0,7772,7772
292.202,-1.40602e-08,0,7792,7792
292.252,-1.43759e-08,0,7702,7702
292.302,-1.47077e-08,0,7734,7734
292.352,-1.50546e-08,0,7684,7684
292.402,-1.54155e-08,0,7684,7684
292.451,-1.57886e-08,0,7702,7702
292.501,-1.6172e-08,0,7638,7638
292.551,-1.65631e-08,0,7612,7612
292.601,-1.69601e-08,0,7620,7620
292.651,-1.73618e-08,0,7608,7608
292.7,-1.77661e-08,0,7618,7618
292.75,-1.817e-08,0,7624,7624
292.8,-1.85706e-08,0,7620,7620
292.853,-1.89894e-08,0,7596,7596
292.903,-1.93775e-08,0,7598,7598
292.952,-1.97559e-08,0,7602,7602
293.002,-2.01219e-08,0,7604,7604
293.052,-2.04725e-08,0,7570,7570
293.102,-2.08058e-08,0,7588,7588
293.152,-2.11203e-08,0,7580,7580
293.201,-2.14134e-08,0,7572,7572
293.251,-2.16826e-08,0,7576,7576
293.301,-2.1927e-08,0,7572,7572
293.351,-2.21453e-08,0,7558,7558
293.401,-2.23362e-08,0,7556,7556
293.45,-2.24991e-08,0,7566,7566
293.5,-2.26334e-08,0,7564,7564
293.553,-2.27448e-08,0,7604,7604
293.603,-2.28214e-08,0,7626,7626
293.652,-2.28714e-08,0,7670,7670
293.702,-2.28956e-08,0,7720,7720
293.752,-2.28912e-08,0,7776,7776
293.802,-2.28694e-08,0,7826,7826
293.852,-2.2826e-08,0,7870,7870
293.901,-2.27644e-08,0,7930,7930
293.951,-2.26839e-08,0,7978,7978
294.001,-2.25892e-08,0,8042,8042
294.051,-2.24808e-08,0,8086,8086
294.101,-2.23622e-08,0,8098,8098
294.15,-2.22351e-08,0,8138,8138
294.2,-2.21004e-08,0,8184,8184
294.25,-2.19599e-08,0,8184,8184
294.303,-2.18066e-08,0,8176,8176
294.353,-2.16587e-08,0,8176,8176
294.402,-2.1509e-08,0,8180,8180
294.452,-2.13586e-08,0,8192,8192
294.502,-2.1208e-08,0,8192,8192
294.552,-2.10585e-08,0,8184,8184
294.602,-2.09105e-08,0,8184,8184
294.651,-2.07646e-08,0,8176,8176
294.701,-2.06215e-08,0,8176,8176
294.751,-2.04817e-08,0,8192,8192
294.801,-2.03455e-08,0,8176,8176
294.851,-2.02133e-08,0,8176,8176
294.9,-2.00854e-08,0,8180,8180
294.95,-1.99619e-08,0,8188,8188
295.003,-1.98361e-08,0,8192,8192
295.053,-1.97221e-08,0,8168,8168
295.102,-1.96127e-08,0,8180,8180
295.152,-1.95079e-08,0,8176,8176
295.202,-1.94075e-08,0,8188,8188
295.252,-1.93115e-08,0,8172,8172
295.302,-1.92195e-08,0,8192,8192
295.351,-1.91313e-08,0,8172,8172
295.401,-1.90467e-08,0,8172,8172
295.451,-1.89655e-08,0,8152,8152
295.501,-1.88873e-08,0,8160,8160
295.551,-1.88119e-08,0,8156,8156
295.6,-1.8739e-08,0,8152,8152
295.65,-1.86682e-08,0,8152,8152
295.7,-1.85993e-08,0,8152,8152
295.753,-1.8528e-08,0,8152,8152
295.803,-1.84622e-08,0,8144,8144
295.852,-1.83975e-08,0,8144,8144
295.902,-1.83336e-08,0,8124,8124
295.952,-1.82706e-08,0,8120,8120
296.002,-1.8208e-08,0,8120,8120
296.052,-1.81458e-08,0,8116,8116
296.101,-1.80838e-08,0,8128,8128
296.151,-1.80217e-08,0,8128,8128
296.201,-1.79594e-08,0,8144,8144
296.251,-1.78968e-08,0,8136,8136
296.301,-1.78336e-08,0,8152,8152
296.35,-1.77697e-08,0,8144,8144
296.4,-1.7705e-08,0,8152,8152
296.453,-1.76354e-08,0,8128,8128
296.503,-1.75686e-08,0,8110,8110
296.552,-1.75006e-08,0,8074,8074
296.602,-1.74311e-08,0,8076,8076
296.652,-1.736e-08,0,8068,8068
296.702,-1.72872e-08,0,8064,8064
296.752,-1.72123e-08,0,8060,8060
296.801,-1.71353e-08,0,8042,8042
296.851,-1.70558e-08,0,8040,8040
296.901,-1.69737e-08,0,8088,8088
296.951,-1.68886e-08,0,8092,8092
297.001,-1.68005e-08,0,8094,8094
297.05,-1.67089e-08,0,8140,8140
297.1,-1.66138e-08,0,8156,8156
297.15,-1.65148e-08,0,8160,8160
297.203,-1.64056e-08,0,8144,8144
297.253,-1.6298e-08,0,8136,8136
297.302,-1.6186e-08,0,8008,8008
297.352,-1.60693e-08,0,8036,8036
297.402,-1.59479e-08,0,8044,8044
297.452,-1.58216e-08,0,8048,8048
297.502,-1.56903e-08,0,8076,8076
297.551,-1.55539e-08,0,8072,8072
297.601,-1.54122e-08,0,8052,8052
297.651,-1.52652e-08,0,8036,8036
297.701,-1.51128e-08,0,8016,8016
297.751,-1.49548e-08,0,7944,7944
297.8,-1.47912e-08,0,7928,7928
297.85,-1.4622e-08,0,7876,7876
297.903,-1.44364e-08,0,7838,7838
297.953,-1.42551e-08,0,7812,7812
298.002,-1.40677e-08,0,7766,7766
298.052,-1.38742e-08,0,7844,7844
298.102,-1.36741e-08,0,7884,7884
298.152,-1.34674e-08,0,7928,7928
298.202,-1.32536e-08,0,7982,7982
298.251,-1.30323e-08,0,8016,8016
298.301,-1.28028e-08,0,8046,8046
298.351,-1.25644e-08,0,8062,8062
298.401,-1.23164e-08,0,8082,8082
298.451,-1.20576e-08,0,8084,8084
298.5,-1.17869e-08,0,8112,8112
298.55,-1.15032e-08,0,8120,8120
298.603,-1.11869e-08,0,8120,8120
298.653,-1.08719e-08,0,8108,8108
298.703,-1.05395e-08,0,8096,8096
298.752,-1.01886e-08,0,8096,8096
298.802,-9.81787e-09,0,8104,8104
298.852,-9.42638e-09,0,8092,8092
298.902,-9.01337e-09,0,8108,8108
298.952,-8.57844e-09,0,8088,8088
299.001,-8.12157e-09,0,8086,8086
299.051,-7.64314e-09,0,8072,8072
299.101,-7.144e-09,0,8084,8084
299.151,-6.62548e-09,0,8072,8072
299.2,-6.08937e-09,0,8080,8080
299.25,-5.53791e-09,0,8074,8074
299.3,-4.97375e-09,0,8072,8072
299.353,-4.3659e-09,0,8062,8062
299.403,-3.78539e-09,0,7944,7944
299.452,-3.20224e-09,0,7895,7895
299.502,-2.62013e-09,0,7850,7850
299.552,-2.04284e-09,0,7862,7862
299.602,-1.47413e-09,0,7876,7876
299.652,-9.1771e-10,0,7880,7880
299.701,-3.77159e-10,0,7876,7876
299.751,1.44129e-10,0,7830,7830
299.801,6.42994e-10,0,7846,7846
299.851,1.11656e-09,0,7824,7824
299.901,1.56227e-09,0,7812,7812
299.95,1.97795e-09,0,7768,7768
300,2.3618e-09,0,7754,7754
300.053,2.73205e-09,0,7760,7760
300.103,3.04661e-09,0,7730,7730
300.152,3.32659e-09,0,7660,7660
300.202,3.572e-09,0,7592,7592
300.252,3.7833e-09,0,7644,7644
300.302,3.9613e-09,0,7680,7680
300.352,4.10719e-09,0,7700,7700
300.401,4.22243e-09,0,7726,7726
300.451,4.30881e-09,0,7720,7720
300.501,4.36842e-09,0,7772,7772
300.551,4.40365e-09,0,7814,7814
300.601,4.41451e-09,0,7818,7818
300.65,4.40351e-09,0,7842,7842
300.7,4.3795e-09,0,7764,7764
300.75,4.33931e-09,0,7728,7728
300.803,4.28179e-09,0,7746,7746
300.853,4.21531e-09,0,7748,7748
300.902,4.13861e-09,0,7690,7690
300.952,4.05476e-09,0,7686,7686
301.002,3.96533e-09,0,7670,7670
301.052,3.87163e-09,0,7820,7820
301.102,3.77577e-09,0,7804,7804
301.151,3.67842e-09,0,7694,7694
301.201,3.58121e-09,0,7622,7622
301.251,3.48508e-09,0,7568,7568
301.301,3.39112e-09,0,7622,7622
301.351,3.30031e-09,0,7692,7692
301.4,3.21344e-09,0,7648,7648
301.45,3.13138e-09,0,7728,7728
301.503,3.05064e-09,0,7696,7696
301.553,2.98038e-09,0,7680,7680
301.602,2.91681e-09,0,7746,7746
301.652,2.85981e-09,0,7624,7624
301.702,2.80975e-09,0,7600,7600
301.752,2.76668e-09,0,7676,7676
301.802,2.73025e-09,0,7662,7662
301.851,2.69998e-09,0,7654,7654
301.901,2.67497e-09,0,7732,7732
301.951,2.65433e-09,0,7674,7674
302.001,2.63693e-09,0,7638,7638
302.051,2.62162e-09,0,7620,7620
302.1,2.60744e-09,0,7716,7716
302.15,2.59344e-09,0,7626,7626
302.2,2.57868e-09,0,7590,7590
302.253,2.5614e-09,0,7518,7518
302.303,2.54285e-09,0,7508,7508
302.352,2.52143e-09,0,7604,7604
302.402,2.49667e-09,0,7560,7560
302.452,2.46824e-09,0,7576,7576
302.502,2.43586e-09,0,7502,7502
302.552,2.39949e-09,0,7460,7460
302.601,2.35947e-09,0,7632,7632
302.651,2.31647e-09,0,7584,7584
302.701,2.27135e-09,0,7486,7486
302.751,2.22507e-09,0,7434,7434
302.801,2.17853e-09,0,7428,7428
302.85,2.13252e-09,0,7348,7348
302.9,2.08773e-09,0,7246,7246
302.953,2.04235e-09,0,7274,7274
303.003,2.00208e-09,0,7260,7260
303.052,1.96497e-09,0,7286,7286
303.102,1.93166e-09,0,7294,7294
303.152,1.90278e-09,0,7282,7282
303.202,1.87888e-09,0,7358,7358
303.252,1.86041e-09,0,7300,7300
303.301,1.84828e-09,0,7278,7278
303.351,1.84399e-09,0,7264,7264
303.401,1.84771e-09,0,7260,7260
303.451,1.85442e-09,0,7306,7306
303.501,1.86304e-09,0,7278,7278
303.55,1.8735e-09,0,7270,7270
303.6,1.885e-09,0,7272,7272
303.65,1.89961e-09,0,7324,7324
303.703,1.91596e-09,0,7356,7356
303.753,1.93267e-09,0,7376,7376
303.802,1.95129e-09,0,7368,7368
303.852,1.97281e-09,0,7380,7380
303.902,2.00741e-09,0,7384,7384
303.952,2.04024e-09,0,7396,7396
304.002,2.07045e-09,0,7374,7374
304.051,2.09769e-09,0,7358,7358
304.101,2.1223e-09,0,7300,7300
304.151,2.14423e-09,0,7296,7296
304.201,2.16282e-09,0,7270,7270
304.251,2.17796e-09,0,7224,7224
304.3,2.19009e-09,0,7192,7192
304.35,2.20019e-09,0,7158,7158
304.403,2.20994e-09,0,7112,7112
304.453,2.21863e-09,0,7094,7094
304.502,2.22654e-09,0,7064,7064
304.552,2.23347e-09,0,7062,7062
304.602,2.23913e-09,0,7032,7032
304.652,2.24354e-09,0,7012,7012
304.702,2.24597e-09,0,6990,6990
304.751,2.24624e-09,0,6982,6982
304.801,2.24627e-09,0,6960,6960
304.851,2.24611e-09,0,6968,6968
304.901,2.24517e-09,0,6960,6960
304.951,2.24074e-09,0,6910,6910
