250,0,0,512,512
250.012,0,0,512,512
250.059,0,0,512,512
250.105,0,0,512,512
250.152,0,0,512,512
250.211,0,0,512,512
250.258,0,0,512,512
250.305,0,0,512,512
250.352,0,0,512,512
250.41,0,0,512,512
250.457,0,0,512,512
250.504,0,0,512,512
250.551,0,0,512,512
250.609,0,0,512,512
250.656,0,0,512,512
250.703,0,0,512,512
250.762,0,0,512,512
250.808,0,0,512,512
250.855,0,0,512,512
250.902,0,0,512,512
250.961,0,0,512,512
251.008,0,0,512,512
251.055,0,0,512,512
251.101,0,0,512,512
251.16,0,0,512,512
251.207,0,0,512,512
251.254,0,0,512,512
251.301,0,0,512,512
251.359,0,0,512,512
251.406,0,0,512,512
251.453,0,0,512,512
251.511,0,0,512,512
251.558,0,0,512,512
251.605,0,0,512,512
251.652,0,0,512,512
251.711,0,0,512,512
251.758,0,0,512,512
251.804,0,0,512,512
251.851,0,0,512,512
251.91,0,0,512,512
251.957,0,0,512,512
252.004,0,0,512,512
252.05,0,0,512,512
252.109,0,0,512,512
252.156,0,0,512,512
252.203,0,0,512,512
252.261,0,0,512,512
252.308,0,0,512,512
252.355,0,0,512,512
252.402,0,0,512,512
252.461,0,0,512,512
252.507,0,0,512,512
252.554,0,0,512,512
252.601,0,0,512,512
252.66,0,0,512,512
252.707,0,0,512,512
252.754,0,0,512,512
252.8,0,0,512,512
252.859,0,0,512,512
252.906,0,0,512,512
252.953,0,0,512,512
253.011,0,0,512,512
253.058,0,0,512,512
253.105,0,0,512,512
253.152,0,0,512,512
253.21,0,0,512,512
253.257,0,0,512,512
253.304,0,0,512,512
253.351,0,0,512,512
253.41,0,0,512,512
253.457,0,0,512,512
253.503,0,0,512,512
253.55,0,0,512,512
253.609,0,0,512,512
253.656,0,0,512,512
253.703,0,0,512,512
253.761,0,0,512,512
253.808,0,0,512,512
253.855,0,0,512,512
253.902,0,0,512,512
253.96,0,0,512,512
254.007,0,0,512,512
254.054,0,0,512,512
254.101,0,0,512,512
254.16,0,0,512,512
254.206,0,0,512,512
254.253,0,0,512,512
254.3,0,0,512,512
254.359,0,0,512,512
254.406,0,0,512,512
254.452,0,0,512,512
254.511,0,0,512,512
254.558,-1.38778e-17,0,512,512
254.605,-2.77556e-17,0,512,512
254.652,-2.77556e-17,0,512,512
254.71,-2.77556e-17,0,512,512
254.757,-2.77556e-17,0,512,512
254.804,-2.77556e-17,0,512,512
254.851,-2.77556e-17,0,512,512
254.909,-2.77556e-17,0,512,512
254.956,0,0,512,512
255.003,0,0,512,512
255.05,0,0,512,512
255.109,0,0,512,512
255.155,0,0,512,512
255.202,0,0,512,512
255.261,0,0,512,512
255.308,0,0,512,512
255.355,0,0,512,512
255.402,0,0,512,512
255.46,0,0,512,512
255.507,0,0,512,512
255.554,0,0,512,512
255.601,0,0,512,512
255.659,0,0,512,512
255.706,0,0,512,512
255.753,0,0,512,512
255.812,0,0,512,512
255.859,0,0,512,512
255.905,0,0,512,512
255.952,0,0,512,512
256.011,0,0,512,512
256.058,0,0,512,512
256.105,0,0,512,512
256.151,0,0,512,512
256.21,0,0,512,512
256.257,0,0,512,512
256.304,0,0,512,512
256.351,0,0,512,512
256.409,0,0,512,512
256.456,0,0,512,512
256.503,0,0,512,512
256.562,0,0,512,512
256.608,0,0,512,512
256.655,0,0,512,512
256.702,0,0,512,512
256.761,0,0,512,512
256.808,0,0,512,512
256.854,0,0,512,512
256.901,0,0,512,512
256.96,0,0,512,512
257.007,0,0,512,512
257.054,0,0,512,512
257.101,0,0,512,512
257.159,0,0,512,512
257.206,0,0,512,512
257.253,0,0,512,512
257.311,0,0,512,512
257.358,0,0,512,512
257.405,0,0,512,512
257.452,0,0,512,512
257.511,0,0,512,512
257.557,0,0,512,512
257.604,0,0,512,512
257.651,0,0,512,512
257.71,0,0,512,512
257.757,0,0,512,512
257.804,0,0,512,512
257.85,0,0,512,512
257.909,0,0,512,512
257.956,0,0,512,512
258.003,0,0,512,512
258.061,0,0,512,512
258.108,0,0,512,512
258.155,0,0,512,512
258.202,0,0,512,512
258.261,0,0,512,512
258.307,0,0,512,512
258.354,0,0,512,512
258.401,0,0,512,512
258.46,0,0,512,512
258.507,0,0,512,512
258.553,0,0,512,512
258.6,0,0,512,512
258.659,0,0,512,512
258.706,0,0,512,512
258.753,0,0,512,512
258.811,0,0,512,512
258.858,0,0,512,512
258.905,0,0,512,512
258.952,0,0,512,512
259.01,0,0,512,512
259.057,0,0,512,512
259.104,0,0,512,512
259.151,0,0,512,512
259.21,0,0,512,512
259.256,0,0,512,512
259.303,0,0,512,512
259.35,0,0,512,512
259.409,0,0,512,512
259.456,0,0,512,512
259.503,0,0,512,512
259.561,0,0,512,512
259.608,0,0,512,512
259.655,0,0,512,512
259.702,0,0,512,512
259.76,0,0,512,512
259.807,0,0,512,512
259.854,0,0,512,512
259.901,0,0,512,512
259.959,0,0,512,512
260.006,0,0,512,512
260.053,0,0,512,512
260.1,0,0,512,512
260.159,0,0,512,512
260.206,0,0,512,512
260.252,0,0,512,512
260.311,0,0,512,512
260.358,0,0,512,512
260.405,0,0,512,512
260.452,0,0,512,512
260.51,0,0,512,512
260.557,0,0,512,512
260.604,0,0,512,512
260.651,0,0,512,512
260.709,0,0,512,512
260.756,0,0,512,512
260.803,0,0,512,512
260.862,0,0,512,512
260.909,0,0,512,512
260.955,0,0,512,512
261.002,0,0,512,512
261.061,0,0,512,512
261.108,0,0,512,512
261.155,0,0,512,512
261.201,0,0,512,512
261.26,0,0,512,512
261.307,0,0,512,512
261.354,0,0,512,512
261.401,0,0,512,512
261.459,0,0,512,512
261.506,0,0,512,512
261.553,0,0,512,512
261.612,0,0,512,512
261.658,0,0,512,512
261.705,0,0,512,512
261.752,0,0,512,512
261.811,0,0,512,512
261.858,0,0,512,512
261.905,0,0,512,512
261.951,0,0,512,512
262.01,0,0,512,512
262.057,0,0,512,512
262.104,0,0,512,512
262.151,0,0,512,512
262.209,0,0,512,512
262.256,0,0,512,512
262.303,0,0,512,512
262.361,0,0,512,512
262.408,0,0,512,512
262.455,0,0,512,512
262.502,0,0,512,512
262.561,0,0,512,512
262.608,0,0,512,512
262.654,0,0,512,512
262.701,0,0,512,512
262.76,0,0,512,512
262.807,0,0,512,512
262.854,0,0,512,512
262.9,0,0,512,512
262.959,0,0,512,512
263.006,0,0,512,512
263.053,0,0,512,512
263.111,0,0,512,512
263.158,0,0,512,512
263.205,0,0,512,512
263.252,0,0,512,512
263.311,0,0,512,512
263.357,0,0,512,512
263.404,0,0,512,512
263.451,0,0,512,512
263.51,0,0,512,512
263.557,0,0,512,512
263.603,0,0,512,512
263.65,0,0,512,512
263.709,-1.38778e-17,0,512,512
263.756,-1.38778e-17,0,512,512
263.803,-2.77556e-17,0,512,512
263.861,-2.77556e-17,0,512,512
263.908,-2.77556e-17,0,512,512
263.955,-2.77556e-17,0,512,512
264.002,-2.77556e-17,0,512,512
264.06,-2.77556e-17,0,512,512
264.107,-1.38778e-17,0,512,512
264.154,-1.38778e-17,0,512,512
264.201,-1.38778e-17,0,512,512
264.26,-1.38778e-17,0,512,512
264.306,-1.38778e-17,0,512,512
264.353,-1.38778e-17,0,512,512
264.4,-1.38778e-17,0,512,512
264.459,-1.38778e-17,0,512,512
264.506,-1.38778e-17,0,512,512
264.553,-1.38778e-17,0,512,512
264.611,-1.38778e-17,0,512,512
264.658,-1.38778e-17,0,512,512
264.705,-1.38778e-17,0,512,512
264.752,-1.38778e-17,0,512,512
264.81,-1.38778e-17,0,512,512
264.857,-1.38778e-17,0,512,512
264.904,-1.38778e-17,0,512,512
264.951,-1.38778e-17,0,512,512
265.01,-1.38778e-17,0,512,512
265.056,-1.38778e-17,0,512,512
265.103,-1.38778e-17,0,512,512
265.15,-1.38778e-17,0,512,512
265.209,-1.38778e-17,0,512,512
265.256,-1.38778e-17,0,512,512
265.302,-1.38778e-17,0,512,512
265.361,-1.38778e-17,0,512,512
265.408,-1.38778e-17,0,512,512
265.455,0,0,512,512
265.502,0,0,512,512
265.56,0,0,512,512
265.607,0,0,512,512
265.654,0,0,512,512
265.701,0,0,512,512
265.759,0,0,512,512
265.806,0,0,512,512
265.853,0,0,512,512
265.9,0,0,512,512
265.959,0,0,512,512
266.005,0,0,512,512
266.052,0,0,512,512
266.111,0,0,512,512
266.158,0,0,512,512
266.205,0,0,512,512
266.252,0,0,512,512
266.31,0,0,512,512
266.357,0,0,512,512
266.404,0,0,512,512
266.451,0,0,512,512
266.509,0,0,512,512
266.556,0,0,512,512
266.603,0,0,512,512
266.662,0,0,512,512
266.708,0,0,512,512
266.755,0,0,512,512
266.802,0,0,512,512
266.861,0,0,512,512
266.908,0,0,512,512
266.955,0,0,512,512
267.001,0,0,512,512
267.06,0,0,512,512
267.107,0,0,512,512
267.154,0,0,512,512
267.201,0,0,512,512
267.259,0,0,512,512
267.306,0,0,512,512
267.353,0,0,512,512
267.412,0,0,512,512
267.458,0,0,512,512
267.505,0,0,512,512
267.552,0,0,512,512
267.611,0,0,512,512
267.658,0,0,512,512
267.704,0,0,512,512
267.751,0,0,512,512
267.81,0,0,512,512
267.857,0,0,512,512
267.904,0,0,512,512
267.95,0,0,512,512
268.009,0,0,512,512
268.056,1.38778e-17,0,512,512
268.1,1.38778e-17,0,527,527
268.152,1.38778e-17,0,539,539
268.202,1.38778e-17,0,537,537
268.254,1.38778e-17,0,541,541
268.301,1.38778e-17,0,547,547
268.354,1.38778e-17,0,551,551
268.401,1.38778e-17,0,539,539
268.454,1.38778e-17,0,537,537
268.507,1.38778e-17,0,533,533
268.555,1.38778e-17,0,541,541
268.602,1.38778e-17,0,547,547
268.655,1.38778e-17,0,547,547
268.702,1.38778e-17,0,548,548
268.754,1.38778e-17,0,551,551
268.804,1.38778e-17,0,549,549
268.853,1.38778e-17,0,548,548
268.903,1.38778e-17,0,549,549
268.953,1.38778e-17,0,545,545
269.002,1.38778e-17,0,542,542
269.052,1.38778e-17,0,536,536
269.102,1.38778e-17,0,530,530
269.152,1.38778e-17,0,524,524
269.201,1.38778e-17,0,520,520
269.251,1.38778e-17,0,516,516
269.308,0,0,512,512
269.354,0,0,512,512
269.401,1.38778e-17,0,512,512
269.452,1.38778e-17,0,523,523
269.502,1.38778e-17,0,537,537
269.552,1.38778e-17,0,535,535
269.603,1.38778e-17,0,543,543
269.653,1.38778e-17,0,575,575
269.7,1.38778e-17,0,571,571
269.751,1.38778e-17,0,613,613
269.801,1.38778e-17,0,647,647
269.85,1.38778e-17,0,683,683
269.9,1.38778e-17,0,723,723
269.953,1.38778e-17,0,775,775
270.003,1.38778e-17,0,819,819
270.052,1.38778e-17,0,877,877
270.102,1.38778e-17,0,917,917
270.152,1.38778e-17,0,949,949
270.202,1.38778e-17,0,995,995
270.252,1.38778e-17,0,1041,1041
270.301,1.38778e-17,0,1093,1093
270.351,1.38778e-17,0,1137,1137
270.401,1.38778e-17,0,1179,1179
270.451,1.38778e-17,0,1239,1239
270.501,1.38778e-17,0,1275,1275
270.55,1.38778e-17,0,1321,1321
270.6,1.38778e-17,0,1387,1387
270.65,1.38778e-17,0,1407,1407
270.703,1.38778e-17,0,1457,1457
270.753,1.38778e-17,0,1517,1517
270.802,1.38778e-17,0,1565,1565
270.852,1.38778e-17,0,1621,1621
270.902,1.38778e-17,0,1659,1659
270.952,1.38778e-17,0,1711,1711
271.002,1.38778e-17,0,1763,1763
271.051,1.38778e-17,0,1815,1815
271.101,1.38778e-17,0,1857,1857
271.151,1.38778e-17,0,1917,1917
271.201,1.38778e-17,0,1959,1959
271.251,1.38778e-17,0,2019,2019
271.3,1.38778e-17,0,2059,2059
271.35,1.38778e-17,0,2111,2111
271.403,1.38778e-17,0,2167,2167
271.453,1.38778e-17,0,2215,2215
271.502,1.38778e-17,0,2273,2273
271.552,1.38778e-17,0,2309,2309
271.602,1.38778e-17,0,2349,2349
271.652,1.38778e-17,0,2401,2401
271.702,1.38778e-17,0,2447,2447
271.751,1.38778e-17,0,2499,2499
271.801,1.38778e-17,0,2547,2547
271.851,1.38778e-17,0,2599,2599
271.901,1.38778e-17,0,2649,2649
271.951,1.38778e-17,0,2701,2701
272,1.38778e-17,0,2761,2761
272.05,1.38778e-17,0,2805,2805
272.103,1.38778e-17,0,2851,2851
272.153,1.38778e-17,0,2911,2911
272.203,1.38778e-17,0,2963,2963
272.252,1.38778e-17,0,3005,3005
272.302,1.38778e-17,0,3065,3065
272.352,1.38778e-17,0,3113,3113
272.402,1.38778e-17,0,3167,3167
272.451,1.38778e-17,0,3211,3211
272.501,1.38778e-17,0,3263,3263
272.551,1.38778e-17,0,3309,3309
272.601,1.38778e-17,0,3363,3363
272.651,1.38778e-17,0,3409,3409
272.7,1.38778e-17,0,3459,3459
272.75,1.38778e-17,0,3505,3505
272.8,1.38778e-17,0,3563,3563
272.853,1.38778e-17,0,3615,3615
272.903,1.38778e-17,0,3657,3657
272.952,1.38778e-17,0,3717,3717
273.002,1.38778e-17,0,3757,3757
273.052,1.38778e-17,0,3811,3811
273.102,1.38778e-17,0,3855,3855
273.152,1.38778e-17,0,3899,3899
273.201,1.38778e-17,0,3947,3947
273.251,1.38778e-17,0,3993,3993
273.301,1.38778e-17,0,4033,4033
273.351,1.38778e-17,0,4093,4093
273.401,1.38778e-17,0,4131,4131
273.45,1.38778e-17,0,4163,4163
273.5,1.38778e-17,0,4213,4213
273.553,1.38778e-17,0,4239,4239
273.603,1.38778e-17,0,4267,4267
273.652,1.38778e-17,0,4257,4257
273.702,1.38778e-17,0,4260,4260
273.752,1.38778e-17,0,4276,4276
273.802,1.38778e-17,0,4246,4246
273.852,1.38778e-17,0,4254,4254
273.901,1.38778e-17,0,4278,4278
273.951,1.38778e-17,0,4286,4286
274.001,1.38778e-17,0,4299,4299
274.051,1.38778e-17,0,4363,4363
274.101,1.38778e-17,0,4377,4377
274.15,-1.52656e-16,0,4387,4387
274.2,-3.88578e-16,0,4409,4409
274.25,-6.245e-16,0,4413,4413
274.303,-8.74301e-16,0,4393,4393
274.353,-1.11022e-15,0,4397,4397
274.402,-1.34615e-15,0,4431,4431
274.452,-1.66533e-15,0,4413,4413
274.502,-2.17881e-15,0,4441,4441
274.552,-3.10862e-15,0,4443,4443
274.602,-4.91274e-15,0,4421,4421
274.651,-8.35443e-15,0,4433,4433
274.701,-1.4766e-14,0,4417,4417
274.751,-2.62707e-14,0,4401,4401
274.801,-4.65322e-14,0,4351,4351
274.851,-8.09491e-14,0,4309,4309
274.9,-1.3789e-13,0,4305,4305
274.95,-2.29511e-13,0,4257,4257
275.003,-3.83388e-13,0,4249,4249
275.053,-6.06862e-13,0,4215,4215
275.102,-9.37375e-13,0,4203,4203
275.152,-1.41319e-12,0,4175,4175
275.202,-2.08121e-12,0,4181,4181
275.252,-2.99628e-12,0,4175,4175
275.302,-4.21777e-12,0,4149,4149
275.353,-5.80476e-12,0,4147,4147
275.4,-7.68112e-12,0,4131,4131
275.451,-1.01235e-11,0,4103,4103
275.502,-1.30478e-11,0,4071,4071
275.553,-1.64452e-11,0,4073,4073
275.601,-2.00338e-11,0,4045,4045
275.652,-2.41735e-11,0,4031,4031
275.7,-2.82578e-11,0,4019,4019
275.752,-3.26183e-11,0,4003,4003
275.801,-3.65439e-11,0,3963,3963
275.853,-4.0279e-11,0,3953,3953
275.902,-4.31471e-11,0,3941,3941
275.951,-4.51587e-11,0,3913,3913
276,-4.61103e-11,0,3901,3901
276.053,-4.57753e-11,0,3872,3872
276.103,-4.4074e-11,0,3852,3852
276.152,-4.09796e-11,0,3846,3846
276.202,-3.65142e-11,0,3844,3844
276.253,-3.07703e-11,0,3820,3820
276.303,-2.39053e-11,0,3810,3810
276.35,-1.66365e-11,0,3808,3808
276.401,-8.23465e-12,0,3788,3788
276.452,5.76664e-13,0,3796,3796
276.503,9.5273e-12,0,3778,3778
276.551,1.78351e-11,0,3774,3774
276.602,2.64055e-11,0,3768,3768
276.65,3.40307e-11,0,3756,3756
276.702,4.16499e-11,0,3742,3742
276.751,4.82946e-11,0,3746,3746
276.803,5.49144e-11,0,3734,3734
276.852,6.08138e-11,0,3728,3728
276.901,6.66357e-11,0,3710,3710
276.95,7.26754e-11,0,3714,3714
277.003,7.98272e-11,0,3704,3704
277.053,8.77907e-11,0,3696,3696
277.102,9.77569e-11,0,3680,3680
277.152,1.10731e-10,0,3676,3676
277.202,1.28046e-10,0,3686,3686
277.253,1.51407e-10,0,3688,3688
277.303,1.82977e-10,0,3688,3688
277.35,2.22196e-10,0,3702,3702
277.401,2.77695e-10,0,3732,3732
277.452,3.50651e-10,0,3750,3750
277.503,4.453e-10,0,3782,3782
277.55,5.56999e-10,0,3808,3808
277.602,7.05967e-10,0,3816,3816
277.653,8.88358e-10,0,3840,3840
277.701,1.09e-09,0,3852,3852
277.753,1.3405e-09,0,3862,3862
277.801,1.94147e-09,0,3872,3872
277.85,2.72804e-09,0,3858,3858
277.903,3.69558e-09,0,3866,3866
277.952,6.49401e-09,0,3858,3858
278.002,1.06358e-08,0,3856,3856
278.052,1.54552e-08,0,3852,3852
278.102,2.05625e-08,0,3842,3842
278.152,2.59008e-08,0,3835,3835
278.202,3.13498e-08,0,3817,3817
278.253,3.71177e-08,0,3811,3811
278.303,4.35188e-08,0,3779,3779
278.351,5.05894e-08,0,3747,3747
278.402,5.99521e-08,0,3715,3715
278.453,7.17407e-08,0,3663,3663
278.501,8.53746e-08,0,3615,3615
278.553,1.03617e-07,0,3557,3557
278.601,1.24456e-07,0,3495,3495
278.653,1.51767e-07,0,3453,3453
278.702,1.82219e-07,0,3389,3389
278.75,2.17994e-07,0,3353,3353
278.802,2.62661e-07,0,3311,3311
278.851,3.09765e-07,0,3273,3273
278.903,3.66223e-07,0,3219,3219
278.952,4.23681e-07,0,3185,3185
279.001,4.85706e-07,0,3145,3145
279.053,5.56966e-07,0,3105,3105
279.102,6.26209e-07,0,3071,3071
279.151,6.96968e-07,0,3039,3039
279.2,7.67534e-07,0,2983,2983
279.253,8.41127e-07,0,2957,2957
279.303,9.05239e-07,0,2909,2909
279.352,9.63701e-07,0,2869,2869
279.401,1.01555e-06,0,2833,2833
279.451,1.06052e-06,0,2801,2801
279.5,1.09905e-06,0,2757,2757
279.554,1.1344e-06,0,2715,2715
279.603,1.16286e-06,0,2663,2663
279.653,1.18843e-06,0,2635,2635
279.703,1.21207e-06,0,2583,2583
279.753,1.23382e-06,0,2543,2543
279.803,1.25335e-06,0,2501,2501
279.853,1.27067e-06,0,2527,2527
279.903,1.28542e-06,0,2525,2525
279.953,1.29718e-06,0,2591,2591
280.003,1.30573e-06,0,2615,2615
280.052,1.31119e-06,0,2657,2657
280.102,1.31401e-06,0,2669,2669
280.152,1.30503e-06,0,2631,2631
280.201,1.31382e-06,0,2777,2777
280.251,1.3121e-06,0,2841,2841
280.3,1.30895e-06,0,2883,2883
280.353,1.30329e-06,0,2945,2945
280.402,1.29422e-06,0,2981,2981
280.452,1.2809e-06,0,3019,3019
280.501,1.26271e-06,0,3075,3075
280.554,1.23728e-06,0,3107,3107
280.603,1.20862e-06,0,3145,3145
280.651,1.17577e-06,0,3191,3191
280.7,1.13961e-06,0,3227,3227
280.753,1.09768e-06,0,3261,3261
280.802,1.05603e-06,0,3317,3317
280.85,1.01146e-06,0,3355,3355
280.903,9.5967e-07,0,3395,3395
280.951,9.07653e-07,0,3445,3445
281.003,8.47268e-07,0,3477,3477
281.052,7.87442e-07,0,3515,3515
281.104,7.19755e-07,0,3558,3558
281.152,6.55008e-07,0,3584,3584
281.203,5.84568e-07,0,3640,3640
281.251,5.19507e-07,0,3660,3660
281.303,4.509e-07,0,3704,3704
281.354,3.84963e-07,0,3738,3738
281.401,3.26923e-07,0,3766,3766
281.452,2.68671e-07,0,3802,3802
281.502,2.1541e-07,0,3834,3834
281.552,1.67327e-07,0,3880,3880
281.602,1.24441e-07,0,3920,3920
281.652,8.66095e-08,0,3940,3940
281.702,5.3648e-08,0,3980,3980
281.752,2.5284e-08,0,4018,4018
281.801,1.17802e-09,0,4056,4056
281.85,-1.90453e-08,0,4092,4092
281.903,-3.69236e-08,0,4130,4130
281.952,-5.05668e-08,0,4144,4144
282,-6.17532e-08,0,4154,4154
282.052,-7.14279e-08,0,4234,4234
282.1,-7.85793e-08,0,4260,4260
282.152,-8.44109e-08,0,4314,4314
282.203,-8.85143e-08,0,4348,4348
282.251,-9.10732e-08,0,4360,4360
282.302,-9.24962e-08,0,4388,4388
282.353,-9.14547e-08,0,4418,4418
282.4,-9.1112e-08,0,4456,4456
282.45,-9.02482e-08,0,4470,4470
282.501,-8.93804e-08,0,4518,4518
282.551,-8.7295e-08,0,4548,4548
282.601,-8.46368e-08,0,4588,4588
282.65,-8.13887e-08,0,4632,4632
282.7,-7.75021e-08,0,4656,4656
282.753,-7.28902e-08,0,4715,4715
282.802,-6.82072e-08,0,4751,4751
282.851,-6.33999e-08,0,4793,4793
282.903,-5.82846e-08,0,4835,4835
282.952,-5.36362e-08,0,4883,4883
283,-4.92215e-08,0,4921,4921
283.052,-4.48024e-08,0,4967,4967
283.1,-4.09889e-08,0,5015,5015
283.151,-3.72791e-08,0,5067,5067
283.202,-3.39494e-08,0,5117,5117
283.25,-3.11795e-08,0,5157,5157
283.301,-2.85451e-08,0,5201,5201
283.351,-2.62474e-08,0,5235,5235
283.402,-2.42911e-08,0,5249,5249
283.452,-2.26381e-08,0,5244,5244
283.502,-2.12714e-08,0,5242,5242
283.552,-2.01553e-08,0,5274,5274
283.602,-1.92616e-08,0,5293,5293
283.651,-1.85609e-08,0,5315,5315
283.701,-1.79987e-08,0,5349,5349
283.753,-1.74846e-08,0,5369,5369
283.802,-1.74335e-08,0,5401,5401
283.851,-1.72929e-08,0,5423,5423
283.903,-1.7376e-08,0,5433,5433
283.951,-1.7452e-08,0,5465,5465
284.003,-1.75681e-08,0,5481,5481
284.051,-1.77229e-08,0,5497,5497
284.102,-1.79174e-08,0,5519,5519
284.15,-1.81178e-08,0,5533,5533
284.201,-1.83519e-08,0,5551,5551
284.252,-1.86068e-08,0,5563,5563
284.302,-1.88783e-08,0,5567,5567
284.352,-1.91627e-08,0,5595,5595
284.403,-1.94553e-08,0,5603,5603
284.453,-1.97488e-08,0,5619,5619
284.502,-2.0036e-08,0,5651,5651
284.552,-2.03135e-08,0,5635,5635
284.602,-2.05795e-08,0,5679,5679
284.652,-2.08321e-08,0,5707,5707
284.702,-2.10699e-08,0,5705,5705
284.751,-2.12916e-08,0,5713,5713
284.801,-2.14967e-08,0,5694,5694
284.851,-2.16845e-08,0,5710,5710
284.901,-2.18544e-08,0,5702,5702
284.951,-2.20062e-08,0,5710,5710
285,-2.21406e-08,0,5714,5714
285.05,-2.22594e-08,0,5710,5710
285.1,-2.23652e-08,0,5718,5718
285.153,-2.24629e-08,0,5748,5748
285.203,-2.25417e-08,0,5738,5738
285.252,-2.26023e-08,0,5776,5776
285.302,-2.26543e-08,0,5778,5778
285.352,-2.27032e-08,0,5810,5810
285.402,-2.27494e-08,0,5854,5854
285.452,-2.27948e-08,0,5894,5894
285.501,-2.28408e-08,0,5918,5918
285.551,-2.28886e-08,0,5940,5940
285.601,-2.29398e-08,0,5962,5962
285.651,-2.29961e-08,0,6012,6012
285.701,-2.30597e-08,0,6015,6015
285.75,-2.31324e-08,0,6033,6033
285.8,-2.32165e-08,0,6039,6039
285.853,-2.33204e-08,0,6041,6041
285.903,-2.34353e-08,0,6045,6045
285.952,-2.35693e-08,0,6053,6053
286.002,-2.37252e-08,0,6071,6071
286.052,-2.39055e-08,0,6065,6065
286.102,-2.41124e-08,0,6073,6073
286.152,-2.43465e-08,0,6089,6089
286.201,-2.46032e-08,0,6059,6059
286.251,-2.48706e-08,0,6037,6037
286.301,-2.51339e-08,0,5997,5997
286.351,-2.55448e-08,0,5951,5951
286.401,-2.60004e-08,0,5913,5913
286.45,-2.6449e-08,0,5876,5876
286.5,-2.69257e-08,0,5846,5846
286.553,-2.74812e-08,0,5772,5772
286.603,-2.80414e-08,0,5722,5722
286.653,-2.87257e-08,0,5664,5664
286.702,-2.92958e-08,0,5626,5626
286.752,-2.99421e-08,0,5576,5576
286.802,-3.06156e-08,0,5536,5536
286.852,-3.13032e-08,0,5478,5478
286.901,-3.20079e-08,0,5436,5436
286.951,-3.27218e-08,0,5388,5388
287.001,-3.34416e-08,0,5344,5344
287.051,-3.41641e-08,0,5294,5294
287.101,-3.48878e-08,0,5238,5238
287.15,-3.56109e-08,0,5186,5186
287.2,-3.63315e-08,0,5160,5160
287.25,-3.70495e-08,0,5108,5108
287.303,-3.78077e-08,0,5068,5068
287.353,-3.8521e-08,0,5026,5026
287.402,-3.92302e-08,0,4976,4976
287.452,-3.99338e-08,0,4942,4942
287.502,-4.06301e-08,0,4888,4888
287.552,-4.13169e-08,0,4854,4854
287.602,-4.19916e-08,0,4822,4822
287.651,-4.26519e-08,0,4764,4764
287.701,-4.32956e-08,0,4736,4736
287.751,-4.39208e-08,0,4710,4710
287.801,-4.45244e-08,0,4676,4676
287.851,-4.51032e-08,0,4650,4650
287.9,-4.56555e-08,0,4604,4604
287.95,-4.6182e-08,0,4556,4556
288.003,-4.67124e-08,0,4516,4516
288.053,-4.71871e-08,0,4478,4478
288.102,-4.76348e-08,0,4442,4442
288.152,-4.80528e-08,0,4404,4404
288.202,-4.84387e-08,0,4354,4354
288.252,-4.87902e-08,0,4312,4312
288.302,-4.91056e-08,0,4280,4280
288.351,-4.93835e-08,0,4227,4227
288.401,-4.96233e-08,0,4197,4197
288.451,-4.98247e-08,0,4173,4173
288.501,-4.99873e-08,0,4145,4145
288.551,-5.01153e-08,0,4145,4145
288.6,-5.02421e-08,0,4153,4153
288.65,-5.03765e-08,0,4141,4141
288.7,-5.03289e-08,0,4151,4151
288.753,-5.02957e-08,0,4135,4135
288.803,-5.02226e-08,0,4139,4139
288.852,-5.01147e-08,0,4154,4154
288.902,-4.99927e-08,0,4142,4142
288.952,-4.98542e-08,0,4146,4146
289.002,-4.96935e-08,0,4114,4114
289.052,-4.95165e-08,0,3984,3984
289.101,-4.93282e-08,0,3880,3880
289.151,-4.91284e-08,0,3820,3820
289.201,-4.89198e-08,0,3720,3720
289.251,-4.87064e-08,0,3636,3636
289.301,-4.84889e-08,0,3536,3536
289.35,-4.82674e-08,0,3470,3470
289.4,-4.80423e-08,0,3416,3416
289.453,-4.78014e-08,0,3334,3334
289.503,-4.75731e-08,0,3290,3290
289.552,-4.73452e-08,0,3224,3224
289.602,-4.71188e-08,0,3178,3178
289.652,-4.68944e-08,0,3118,3118
289.702,-4.66728e-08,0,3064,3064
289.752,-4.64545e-08,0,3020,3020
289.801,-4.62403e-08,0,2974,2974
289.851,-4.60304e-08,0,2924,2924
289.901,-4.58256e-08,0,2880,2880
289.951,-4.5626e-08,0,2814,2814
290.001,-4.54319e-08,0,2774,2774
290.05,-4.52434e-08,0,2710,2710
290.1,-4.50604e-08,0,2702,2702
290.15,-4.4883e-08,0,2618,2618
290.203,-4.47009e-08,0,2574,2574
290.253,-4.45342e-08,0,2454,2454
290.302,-4.43723e-08,0,2372,2372
290.352,-4.42151e-08,0,2286,2286
290.402,-4.40621e-08,0,2214,2214
290.452,-4.39129e-08,0,2094,2094
290.502,-4.37672e-08,0,2010,2010
290.551,-4.36246e-08,0,1946,1946
290.601,-4.34847e-08,0,1924,1924
290.651,-4.33469e-08,0,1902,1902
290.701,-4.3211e-08,0,1864,1864
290.751,-4.30764e-08,0,1822,1822
290.8,-4.29426e-08,0,1818,1818
290.85,-4.28094e-08,0,1936,1936
290.903,-4.26683e-08,0,1832,1832
290.953,-4.25346e-08,0,1776,1776
291.002,-4.24001e-08,0,1720,1720
291.052,-4.22644e-08,0,1664,1664
291.102,-4.21271e-08,0,1622,1622
291.152,-4.1988e-08,0,1608,1608
291.202,-4.18465e-08,0,1574,1574
291.251,-4.17025e-08,0,1550,1550
291.301,-4.15556e-08,0,1500,1500
291.351,-4.14055e-08,0,1448,1448
291.401,-4.12519e-08,0,1406,1406
291.451,-4.10946e-08,0,1370,1370
291.5,-4.09333e-08,0,1332,1332
291.55,-4.07676e-08,0,1290,1290
291.6,-4.05973e-08,0,1256,1256
291.653,-4.04116e-08,0,1202,1202
291.703,-4.02307e-08,0,1160,1160
291.752,-4.00442e-08,0,1122,1122
291.802,-3.98518e-08,0,1084,1084
291.852,-3.96532e-08,0,1036,1036
291.9,-3.94544e-08,0,1010,1010
291.953,-3.9232e-08,0,1011,1011
292,-3.90209e-08,0,1019,1019
292.054,-3.87775e-08,0,1027,1027
292.102,-3.85493e-08,0,1025,1025
292.155,-3.82851e-08,0,1033,1033
292.203,-3.80367e-08,0,1035,1035
292.251,-3.77783e-08,0,1035,1035
292.305,-3.74798e-08,0,1037,1037
292.354,-3.72038e-08,0,1039,1039
292.402,-3.69339e-08,0,1051,1051
292.452,-3.66199e-08,0,1055,1055
292.503,-3.62343e-08,0,1065,1065
292.555,-3.58351e-08,0,1071,1071
292.6,-3.54736e-08,0,1065,1065
292.652,-3.50452e-08,0,1045,1045
292.703,-3.46002e-08,0,1045,1045
292.754,-3.41357e-08,0,1037,1037
292.805,-3.36496e-08,0,1031,1031
292.855,-3.31411e-08,0,1013,1013
292.906,-3.26102e-08,0,1017,1017
292.95,-3.21303e-08,0,1013,1013
293,-3.15789e-08,0,1017,1017
293.051,-3.09516e-08,0,1009,1009
293.1,-3.02425e-08,0,1003,1003
293.15,-2.94247e-08,0,1023,1023
293.206,-2.84837e-08,0,1015,1015
293.256,-2.76282e-08,0,1013,1013
293.305,-2.67551e-08,0,1015,1015
293.354,-2.5856e-08,0,1007,1007
293.403,-2.49324e-08,0,1007,1007
293.452,-2.39839e-08,0,1003,1003
293.5,-2.30103e-08,0,1009,1009
293.555,-2.18846e-08,0,1005,1005
293.603,-2.08606e-08,0,997,997
293.652,-1.98215e-08,0,1011,1011
293.706,-1.86455e-08,0,1025,1025
293.753,-1.76032e-08,0,1037,1037
293.801,-1.65692e-08,0,1049,1049
293.855,-1.54225e-08,0,1049,1049
293.902,-1.44369e-08,0,1047,1047
293.955,-1.33155e-08,0,1045,1045
294.003,-1.23578e-08,0,1045,1045
294.056,-1.13058e-08,0,1045,1045
294.102,-1.03868e-08,0,1049,1049
294.155,-9.36064e-09,0,1045,1045
294.202,-8.45145e-09,0,1045,1045
294.255,-7.42869e-09,0,1043,1043
294.302,-6.52325e-09,0,1041,1041
294.354,-5.51926e-09,0,1047,1047
294.401,-4.64653e-09,0,1043,1043
294.454,-3.68851e-09,0,1045,1045
294.501,-2.85712e-09,0,1047,1047
294.554,-1.94417e-09,0,1047,1047
294.6,-1.1538e-09,0,1041,1041
294.653,-2.91144e-10,0,1041,1041
294.7,4.49651e-10,0,1047,1047
294.753,1.25129e-09,0,1043,1043
294.805,2.01687e-09,0,1045,1045
294.852,2.66465e-09,0,1047,1047
294.905,3.35287e-09,0,1047,1047
294.952,3.92498e-09,0,1041,1041
295.005,4.52026e-09,0,1041,1041
295.052,5.00397e-09,0,1025,1025
295.104,5.49499e-09,0,1005,1005
295.151,5.88317e-09,0,987,987
295.204,6.26535e-09,0,962,962
295.251,6.55737e-09,0,944,944
295.303,6.83885e-09,0,926,926
295.35,7.06544e-09,0,922,922
295.403,7.24326e-09,0,916,916
295.456,7.38027e-09,0,912,912
295.503,7.49317e-09,0,922,922
295.555,7.57945e-09,0,910,910
295.602,7.56714e-09,0,918,918
295.655,7.56767e-09,0,920,920
295.702,7.54654e-09,0,912,912
295.755,7.5089e-09,0,911,911
295.8,7.46908e-09,0,911,911
295.855,7.41182e-09,0,913,913
295.905,7.35039e-09,0,909,909
295.954,7.282e-09,0,919,919
296.003,7.20835e-09,0,909,909
296.053,7.12957e-09,0,907,907
296.102,7.04613e-09,0,915,915
296.151,6.95883e-09,0,911,911
296.2,6.86794e-09,0,915,915
296.255,6.76317e-09,0,917,917
296.304,6.66619e-09,0,909,909
296.352,6.56739e-09,0,911,911
296.401,6.46737e-09,0,909,909
296.455,6.35576e-09,0,897,897
296.504,6.25566e-09,0,901,901
296.553,6.15652e-09,0,901,901
296.601,6.05897e-09,0,891,891
296.655,5.95306e-09,0,897,897
296.703,5.86068e-09,0,897,897
296.752,5.77159e-09,0,887,887
296.805,5.67708e-09,0,893,893
296.853,5.59643e-09,0,882,882
296.901,5.52031e-09,0,874,874
296.955,5.44129e-09,0,876,876
297.003,5.37528e-09,0,870,870
297.051,5.31416e-09,0,866,866
297.104,5.25182e-09,0,862,862
297.152,5.20053e-09,0,866,866
297.205,5.14863e-09,0,854,854
297.252,5.10621e-09,0,854,854
297.305,5.06347e-09,0,854,854
297.353,5.02861e-09,0,846,846
297.405,4.99341e-09,0,854,854
297.453,4.96448e-09,0,854,854
297.505,4.93495e-09,0,852,852
297.552,4.91041e-09,0,854,854
297.605,4.88507e-09,0,854,854
297.651,4.86378e-09,0,854,854
297.703,4.84167e-09,0,846,846
297.755,4.82101e-09,0,856,856
297.801,4.80357e-09,0,854,854
297.853,4.78552e-09,0,848,848
297.904,4.76881e-09,0,852,852
297.955,4.75351e-09,0,852,852
298,4.74109e-09,0,848,848
298.051,4.72891e-09,0,850,850
298.101,4.71867e-09,0,856,856
298.151,4.7106e-09,0,848,848
298.201,4.70491e-09,0,852,852
298.251,4.70178e-09,0,856,856
298.3,4.7013e-09,0,856,856
298.355,4.70392e-09,0,848,848
298.404,4.70913e-09,0,852,852
298.453,4.71697e-09,0,856,856
298.502,4.72734e-09,0,862,862
298.55,4.74005e-09,0,852,852
298.604,4.75654e-09,0,858,858
298.652,4.77355e-09,0,860,860
298.7,4.7922e-09,0,854,854
298.753,4.81426e-09,0,854,854
298.801,4.83539e-09,0,858,858
298.853,4.85939e-09,0,860,860
298.901,4.88154e-09,0,858,858
298.953,4.90584e-09,0,864,864
299.005,4.92971e-09,0,862,862
299.052,4.95072e-09,0,864,864
299.103,4.97277e-09,0,858,858
299.154,4.99343e-09,0,864,864
299.201,5.01083e-09,0,870,870
299.252,5.02827e-09,0,868,868
299.303,5.04378e-09,0,866,866
299.353,5.05725e-09,0,870,870
299.404,5.06862e-09,0,866,866
299.454,5.07784e-09,0,874,874
299.504,5.08489e-09,0,872,872
299.554,5.08978e-09,0,870,870
299.604,5.09255e-09,0,872,872
299.653,5.09323e-09,0,874,874
299.703,5.09188e-09,0,876,876
299.752,5.08857e-09,0,872,872
299.801,5.08336e-09,0,872,872
299.85,5.07634e-09,0,874,874
299.904,5.06669e-09,0,878,878
299.952,5.05612e-09,0,880,880
300.001,5.04399e-09,0,878,878
300.053,5.02907e-09,0,878,878
300.102,5.01393e-09,0,884,884
300.154,4.99592e-09,0,882,882
300.202,4.97812e-09,0,880,880
300.254,4.95739e-09,0,884,884
300.302,4.93725e-09,0,884,884
300.353,4.91409e-09,0,884,884
300.401,4.89185e-09,0,884,884
300.452,4.86655e-09,0,886,886
300.503,4.84021e-09,0,888,888
300.55,4.81522e-09,0,886,886
300.601,4.78705e-09,0,890,890
300.652,4.75797e-09,0,888,888
300.702,4.72802e-09,0,890,890
300.753,4.69722e-09,0,890,890
300.803,4.66561e-09,0,898,898
300.853,4.63321e-09,0,886,886
300.903,4.60004e-09,0,886,886
300.953,4.5661e-09,0,892,892
301.003,4.53137e-09,0,892,892
301.053,4.49582e-09,0,890,890
301.102,4.45943e-09,0,900,900
301.152,4.42223e-09,0,896,896
301.202,4.38421e-09,0,890,890
301.251,4.34539e-09,0,892,892
301.301,4.30579e-09,0,892,892
301.351,4.2654e-09,0,898,898
301.401,4.22425e-09,0,900,900
301.45,4.18235e-09,0,900,900
301.5,4.13972e-09,0,896,896
301.554,4.09272e-09,0,894,894
301.604,4.04859e-09,0,892,892
301.653,4.00378e-09,0,894,894
301.703,3.95831e-09,0,898,898
301.753,3.91218e-09,0,896,896
301.802,3.86543e-09,0,904,904
301.852,3.81809e-09,0,900,900
301.902,3.77016e-09,0,891,891
301.952,3.7217e-09,0,885,885
302.001,3.67272e-09,0,875,875
302.051,3.62327e-09,0,873,873
302.101,3.57337e-09,0,865,865
302.15,3.52306e-09,0,861,861
302.2,3.47239e-09,0,849,849
302.254,3.41712e-09,0,841,841
302.304,3.36581e-09,0,831,831
302.353,3.31425e-09,0,823,823
302.403,3.2625e-09,0,819,819
302.453,3.21058e-09,0,811,811
302.503,3.15855e-09,0,809,809
302.552,3.10645e-09,0,793,793
302.602,3.05432e-09,0,789,789
302.652,3.00219e-09,0,787,787
302.701,2.95011e-09,0,771,771
302.751,2.89811e-09,0,755,755
302.801,2.84623e-09,0,743,743
302.851,2.7945e-09,0,725,725
302.9,2.74296e-09,0,713,713
302.954,2.68737e-09,0,697,697
303.004,2.6363e-09,0,681,681
303.053,2.58551e-09,0,669,669
303.103,2.535e-09,0,657,657
303.153,2.48481e-09,0,643,643
303.203,2.43495e-09,0,627,627
303.252,2.38543e-09,0,611,611
303.302,2.33628e-09,0,597,597
303.352,2.28749e-09,0,585,585
303.403,2.23742e-09,0,565,565
303.45,2.19215e-09,0,561,561
303.503,2.14163e-09,0,551,551
303.556,2.09156e-09,0,539,539
303.602,2.04744e-09,0,529,529
303.655,1.99823e-09,0,519,519
303.706,1.95131e-09,0,512,512
303.753,1.90831e-09,0,512,512
303.811,1.85507e-09,0,512,512
303.858,1.81287e-09,0,512,512
303.905,1.77102e-09,0,512,512
303.952,1.72952e-09,0,512,512
304.01,1.67813e-09,0,512,512
304.057,1.6374e-09,0,512,512
304.104,1.597e-09,0,512,512
304.151,1.55693e-09,0,512,512
304.21,1.5073e-09,0,512,512
304.257,1.46795e-09,0,512,512
304.303,1.42892e-09,0,512,512
304.35,1.39019e-09,0,512,512
304.409,1.34221e-09,0,512,512
304.456,1.30417e-09,0,512,512
304.503,1.26642e-09,0,512,512
304.561,1.21964e-09,0,512,512
304.608,1.18253e-09,0,512,512
304.655,1.14571e-09,0,512,512
304.702,1.10917e-09,0,512,512
304.76,1.06387e-09,0,512,512
304.807,1.02793e-09,0,512,512
304.854,9.92256e-10,0,512,512
304.901,9.56838e-10,0,512,512
304.96,9.12922e-10,0,512,512
