250,0,0,2048,2048
250.006,0,0,2048,2048
250.053,0,0,2048,2048
250.105,0,0,2048,2048
250.152,0,0,2048,2048
250.205,0,0,2048,2048
250.252,0,0,2048,2048
250.305,0,0,2048,2048
250.352,0,0,2048,2048
250.404,2.77556e-17,0,2048,2048
250.451,0,0,2048,2048
250.504,0,0,2048,2048
250.551,0,0,2048,2048
250.603,0,0,2048,2048
250.65,2.77556e-17,0,2048,2048
250.703,0,0,2048,2048
250.756,0,0,2048,2048
250.803,0,0,2048,2048
250.855,-2.77556e-17,0,2048,2048
250.902,-2.77556e-17,0,2048,2048
250.955,0,0,2048,2048
251.002,0,0,2048,2048
251.055,0,0,2048,2048
251.101,0,0,2048,2048
251.154,0,0,2048,2048
251.201,0,0,2048,2048
251.254,2.77556e-17,0,2048,2048
251.301,5.55112e-17,0,2048,2048
251.353,5.55112e-17,0,2048,2048
251.4,0,0,2048,2048
251.453,0,0,2048,2048
251.506,0,0,2048,2048
251.553,0,0,2048,2048
251.605,0,0,2048,2048
251.652,0,0,2048,2048
251.705,0,0,2048,2048
251.752,0,0,2048,2048
251.804,0,0,2048,2048
251.851,2.77556e-17,0,2048,2048
251.904,2.77556e-17,0,2048,2048
251.951,2.77556e-17,0,2048,2048
252.004,2.77556e-17,0,2048,2048
252.05,5.55112e-17,0,2048,2048
252.103,5.55112e-17,0,2048,2048
252.15,5.55112e-17,0,2048,2048
252.203,5.55112e-17,0,2048,2048
252.256,5.55112e-17,0,2048,2048
252.302,5.55112e-17,0,2048,2048
252.355,5.55112e-17,0,2048,2048
252.402,5.55112e-17,0,2048,2048
252.455,5.55112e-17,0,2048,2048
252.502,5.55112e-17,0,2048,2048
252.554,0,0,2048,2048
252.601,0,0,2048,2048
252.654,-2.77556e-17,0,2048,2048
252.701,-2.77556e-17,0,2048,2048
252.754,-2.77556e-17,0,2048,2048
252.8,-2.77556e-17,0,2048,2048
252.853,-2.77556e-17,0,2048,2048
252.906,-2.77556e-17,0,2048,2048
252.953,-2.77556e-17,0,2048,2048
253.005,-2.77556e-17,0,2048,2048
253.052,-2.77556e-17,0,2048,2048
253.105,-2.77556e-17,0,2048,2048
253.152,-2.77556e-17,0,2048,2048
253.205,-2.77556e-17,0,2048,2048
253.251,-2.77556e-17,0,2048,2048
253.304,-2.77556e-17,0,2048,2048
253.351,2.77556e-17,0,2048,2048
253.404,5.55112e-17,0,2048,2048
253.451,2.77556e-17,0,2048,2048
253.503,2.77556e-17,0,2048,2048
253.55,2.77556e-17,0,2048,2048
253.603,0,0,2048,2048
253.656,-2.77556e-17,0,2048,2048
253.703,-2.77556e-17,0,2048,2048
253.755,-2.77556e-17,0,2048,2048
253.802,-2.77556e-17,0,2048,2048
253.855,-2.77556e-17,0,2048,2048
253.902,-2.77556e-17,0,2048,2048
253.954,-2.77556e-17,0,2048,2048
254.001,-2.77556e-17,0,2048,2048
254.054,-2.77556e-17,0,2048,2048
254.101,-2.77556e-17,0,2048,2048
254.154,0,0,2048,2048
254.201,2.77556e-17,0,2048,2048
254.253,2.77556e-17,0,2048,2048
254.3,0,0,2048,2048
254.353,2.77556e-17,0,2048,2048
254.406,0,0,2048,2048
254.452,2.77556e-17,0,2048,2048
254.505,0,0,2048,2048
254.552,-2.77556e-17,0,2048,2048
254.605,-2.77556e-17,0,2048,2048
254.652,-2.77556e-17,0,2048,2048
254.704,-2.77556e-17,0,2048,2048
254.751,-2.77556e-17,0,2048,2048
254.804,-2.77556e-17,0,2048,2048
254.851,-2.77556e-17,0,2048,2048
254.904,-2.77556e-17,0,2048,2048
254.95,-2.77556e-17,0,2048,2048
255.003,-2.77556e-17,0,2048,2048
255.05,-2.77556e-17,0,2048,2048
255.103,-2.77556e-17,0,2048,2048
255.155,-2.77556e-17,0,2048,2048
255.202,-2.77556e-17,0,2048,2048
255.255,0,0,2048,2048
255.302,0,0,2048,2048
255.355,0,0,2048,2048
255.402,0,0,2048,2048
255.454,0,0,2048,2048
255.501,-2.77556e-17,0,2048,2048
255.554,-2.77556e-17,0,2048,2048
255.601,-2.77556e-17,0,2048,2048
255.653,-2.77556e-17,0,2048,2048
255.7,0,0,2048,2048
255.753,2.77556e-17,0,2048,2048
255.806,5.55112e-17,0,2048,2048
255.853,2.77556e-17,0,2048,2048
255.905,0,0,2048,2048
255.952,0,0,2048,2048
256.005,2.77556e-17,0,2048,2048
256.052,2.77556e-17,0,2048,2048
256.105,2.77556e-17,0,2048,2048
256.151,2.77556e-17,0,2048,2048
256.204,2.77556e-17,0,2048,2048
256.251,2.77556e-17,0,2048,2048
256.304,2.77556e-17,0,2048,2048
256.351,2.77556e-17,0,2048,2048
256.403,8.32667e-17,0,2048,2048
256.45,8.32667e-17,0,2048,2048
256.503,5.55112e-17,0,2048,2048
256.556,8.32667e-17,0,2048,2048
256.603,5.55112e-17,0,2048,2048
256.655,8.32667e-17,0,2048,2048
256.702,5.55112e-17,0,2048,2048
256.755,5.55112e-17,0,2048,2048
256.802,5.55112e-17,0,2048,2048
256.854,2.77556e-17,0,2048,2048
256.901,2.77556e-17,0,2048,2048
256.954,2.77556e-17,0,2048,2048
257.001,2.77556e-17,0,2048,2048
257.054,2.77556e-17,0,2048,2048
257.101,2.77556e-17,0,2048,2048
257.153,0,0,2048,2048
257.2,0,0,2048,2048
257.253,-2.77556e-17,0,2048,2048
257.306,-2.77556e-17,0,2048,2048
257.352,-2.77556e-17,0,2048,2048
257.405,2.77556e-17,0,2048,2048
257.452,2.77556e-17,0,2048,2048
257.505,0,0,2048,2048
257.552,2.77556e-17,0,2048,2048
257.604,0,0,2048,2048
257.651,0,0,2048,2048
257.704,0,0,2048,2048
257.751,0,0,2048,2048
257.804,0,0,2048,2048
257.85,0,0,2048,2048
257.903,2.77556e-17,0,2048,2048
257.95,0,0,2048,2048
258.003,2.77556e-17,0,2048,2048
258.055,2.77556e-17,0,2048,2048
258.102,0,0,2048,2048
258.155,2.77556e-17,0,2048,2048
258.202,-2.77556e-17,0,2048,2048
258.255,-2.77556e-17,0,2048,2048
258.302,-2.77556e-17,0,2048,2048
258.354,0,0,2048,2048
258.401,5.55112e-17,0,2048,2048
258.454,5.55112e-17,0,2048,2048
258.501,5.55112e-17,0,2048,2048
258.553,5.55112e-17,0,2048,2048
258.6,5.55112e-17,0,2048,2048
258.653,5.55112e-17,0,2048,2048
258.706,5.55112e-17,0,2048,2048
258.753,5.55112e-17,0,2048,2048
258.805,5.55112e-17,0,2048,2048
258.852,5.55112e-17,0,2048,2048
258.905,5.55112e-17,0,2048,2048
258.952,5.55112e-17,0,2048,2048
259.005,5.55112e-17,0,2048,2048
259.051,5.55112e-17,0,2048,2048
259.104,2.77556e-17,0,2048,2048
259.151,2.77556e-17,0,2048,2048
259.204,2.77556e-17,0,2048,2048
259.251,2.77556e-17,0,2048,2048
259.303,2.77556e-17,0,2048,2048
259.35,2.77556e-17,0,2048,2048
259.403,0,0,2048,2048
259.456,2.77556e-17,0,2048,2048
259.503,0,0,2048,2048
259.555,0,0,2048,2048
259.602,0,0,2048,2048
259.655,0,0,2048,2048
259.702,-2.77556e-17,0,2048,2048
259.754,0,0,2048,2048
259.801,0,0,2048,2048
259.854,-5.55112e-17,0,2048,2048
259.901,-5.55112e-17,0,2048,2048
259.954,-5.55112e-17,0,2048,2048
260,-5.55112e-17,0,2048,2048
260.053,-2.77556e-17,0,2048,2048
260.1,-5.55112e-17,0,2048,2048
260.153,-5.55112e-17,0,2048,2048
260.206,-5.55112e-17,0,2048,2048
260.252,-5.55112e-17,0,2048,2048
260.305,-5.55112e-17,0,2048,2048
260.352,-5.55112e-17,0,2048,2048
260.405,-5.55112e-17,0,2048,2048
260.452,-5.55112e-17,0,2048,2048
260.504,-5.55112e-17,0,2048,2048
260.551,-5.55112e-17,0,2048,2048
260.604,-2.77556e-17,0,2048,2048
260.651,-2.77556e-17,0,2048,2048
260.704,-2.77556e-17,0,2048,2048
260.75,-2.77556e-17,0,2048,2048
260.803,-2.77556e-17,0,2048,2048
260.856,-2.77556e-17,0,2048,2048
260.903,-2.77556e-17,0,2048,2048
260.955,-2.77556e-17,0,2048,2048
261.002,-2.77556e-17,0,2048,2048
261.055,-5.55112e-17,0,2048,2048
261.102,-5.55112e-17,0,2048,2048
261.155,-5.55112e-17,0,2048,2048
261.201,-5.55112e-17,0,2048,2048
261.254,-5.55112e-17,0,2048,2048
261.301,-5.55112e-17,0,2048,2048
261.354,-5.55112e-17,0,2048,2048
261.401,-5.55112e-17,0,2048,2048
261.453,-5.55112e-17,0,2048,2048
261.5,-5.55112e-17,0,2048,2048
261.553,-5.55112e-17,0,2048,2048
261.606,-5.55112e-17,0,2048,2048
261.653,-5.55112e-17,0,2048,2048
261.705,-5.55112e-17,0,2048,2048
261.752,-5.55112e-17,0,2048,2048
261.805,-2.77556e-17,0,2048,2048
261.852,-2.77556e-17,0,2048,2048
261.905,-2.77556e-17,0,2048,2048
261.951,-2.77556e-17,0,2048,2048
262.004,-2.77556e-17,0,2048,2048
262.051,-2.77556e-17,0,2048,2048
262.104,-2.77556e-17,0,2048,2048
262.151,-2.77556e-17,0,2048,2048
262.203,-2.77556e-17,0,2048,2048
262.25,-2.77556e-17,0,2048,2048
262.303,-2.77556e-17,0,2048,2048
262.356,-5.55112e-17,0,2048,2048
262.402,-2.77556e-17,0,2048,2048
262.455,0,0,2048,2048
262.502,0,0,2048,2048
262.555,0,0,2048,2048
262.602,0,0,2048,2048
262.654,0,0,2048,2048
262.701,2.77556e-17,0,2048,2048
262.754,5.55112e-17,0,2048,2048
262.801,5.55112e-17,0,2048,2048
262.854,5.55112e-17,0,2048,2048
262.9,5.55112e-17,0,2048,2048
262.953,5.55112e-17,0,2048,2048
263,5.55112e-17,0,2048,2048
263.053,5.55112e-17,0,2048,2048
263.105,5.55112e-17,0,2048,2048
263.152,5.55112e-17,0,2048,2048
263.205,5.55112e-17,0,2048,2048
263.252,0,0,2048,2048
263.305,0,0,2048,2048
263.352,2.77556e-17,0,2048,2048
263.404,5.55112e-17,0,2048,2048
263.451,5.55112e-17,0,2048,2048
263.504,5.55112e-17,0,2048,2048
263.551,2.77556e-17,0,2048,2048
263.603,0,0,2048,2048
263.65,0,0,2048,2048
263.703,0,0,2048,2048
263.756,0,0,2048,2048
263.803,2.77556e-17,0,2048,2048
263.855,0,0,2048,2048
263.902,2.77556e-17,0,2048,2048
263.955,-2.77556e-17,0,2048,2048
264.002,-2.77556e-17,0,2048,2048
264.055,-2.77556e-17,0,2048,2048
264.101,-2.77556e-17,0,2048,2048
264.154,-2.77556e-17,0,2048,2048
264.201,-2.77556e-17,0,2048,2048
264.254,-2.77556e-17,0,2048,2048
264.301,0,0,2048,2048
264.353,2.77556e-17,0,2048,2048
264.4,2.77556e-17,0,2048,2048
264.453,0,0,2048,2048
264.506,0,0,2048,2048
264.553,0,0,2048,2048
264.605,2.77556e-17,0,2048,2048
264.652,2.77556e-17,0,2048,2048
264.705,-2.77556e-17,0,2048,2048
264.752,-2.77556e-17,0,2048,2048
264.804,-2.77556e-17,0,2048,2048
264.851,-2.77556e-17,0,2048,2048
264.904,-2.77556e-17,0,2048,2048
264.951,-2.77556e-17,0,2048,2048
265.004,-2.77556e-17,0,2048,2048
265.051,-2.77556e-17,0,2048,2048
265.103,-2.77556e-17,0,2048,2048
265.15,-2.77556e-17,0,2048,2048
265.203,-2.77556e-17,0,2048,2048
265.256,-2.77556e-17,0,2048,2048
265.302,0,0,2048,2048
265.355,2.77556e-17,0,2048,2048
265.402,2.77556e-17,0,2048,2048
265.455,2.77556e-17,0,2048,2048
265.502,2.77556e-17,0,2048,2048
265.554,2.77556e-17,0,2048,2048
265.601,2.77556e-17,0,2048,2048
265.654,0,0,2048,2048
265.701,-2.77556e-17,0,2048,2048
265.754,-5.55112e-17,0,2048,2048
265.8,-5.55112e-17,0,2048,2048
265.853,-5.55112e-17,0,2048,2048
265.9,-2.77556e-17,0,2048,2048
265.953,-2.77556e-17,0,2048,2048
266.005,-2.77556e-17,0,2048,2048
266.052,-2.77556e-17,0,2048,2048
266.105,-2.77556e-17,0,2048,2048
266.152,0,0,2048,2048
266.205,0,0,2048,2048
266.252,0,0,2048,2048
266.304,-2.77556e-17,0,2048,2048
266.351,-8.32667e-17,0,2048,2048
266.404,-8.32667e-17,0,2048,2048
266.451,-5.55112e-17,0,2048,2048
266.503,-8.32667e-17,0,2048,2048
266.55,-5.55112e-17,0,2048,2048
266.603,-5.55112e-17,0,2048,2048
266.656,-5.55112e-17,0,2048,2048
266.703,-5.55112e-17,0,2048,2048
266.755,-5.55112e-17,0,2048,2048
266.802,-2.77556e-17,0,2048,2048
266.855,-5.55112e-17,0,2048,2048
266.902,-5.55112e-17,0,2048,2048
266.955,-2.77556e-17,0,2048,2048
267.001,-2.77556e-17,0,2048,2048
267.054,-2.77556e-17,0,2048,2048
267.101,-2.77556e-17,0,2048,2048
267.154,-2.77556e-17,0,2048,2048
267.201,-2.77556e-17,0,2048,2048
267.253,-2.77556e-17,0,2048,2048
267.3,-2.77556e-17,0,2048,2048
267.353,-5.55112e-17,0,2048,2048
267.406,-5.55112e-17,0,2048,2048
267.453,-5.55112e-17,0,2048,2048
267.505,-1.11022e-16,0,2048,2048
267.552,-5.55112e-17,0,2048,2048
267.605,-8.32667e-17,0,2048,2048
267.652,-8.32667e-17,0,2048,2048
267.704,-5.55112e-17,0,2048,2048
267.751,-5.55112e-17,0,2048,2048
267.804,-2.77556e-17,0,2048,2048
267.851,-5.55112e-17,0,2048,2048
267.904,-8.32667e-17,0,2048,2048
267.95,-5.55112e-17,0,2048,2048
268.003,-5.55112e-17,0,2048,2048
268.05,-5.55112e-17,0,2048,2048
268.102,-5.55112e-17,0,2054,2054
268.153,-5.55112e-17,0,2048,2048
268.206,-2.77556e-17,0,2048,2048
268.253,-2.77556e-17,0,2048,2048
268.305,-2.77556e-17,0,2048,2048
268.352,-2.77556e-17,0,2048,2048
268.405,-2.77556e-17,0,2048,2048
268.452,0,0,2048,2048
268.504,0,0,2048,2048
268.551,0,0,2048,2048
268.604,0,0,2048,2048
268.651,0,0,2048,2048
268.704,2.77556e-17,0,2048,2048
268.751,5.55112e-17,0,2048,2048
268.803,5.55112e-17,0,2048,2048
268.85,5.55112e-17,0,2048,2048
268.903,5.55112e-17,0,2048,2048
268.956,5.55112e-17,0,2048,2048
269.002,2.77556e-17,0,2048,2048
269.055,2.77556e-17,0,2048,2048
269.102,2.77556e-17,0,2048,2048
269.155,2.77556e-17,0,2048,2048
269.202,5.55112e-17,0,2048,2048
269.254,2.77556e-17,0,2048,2048
269.301,2.77556e-17,0,2048,2048
269.354,2.77556e-17,0,2048,2048
269.401,2.77556e-17,0,2048,2048
269.454,2.77556e-17,0,2048,2048
269.5,2.77556e-17,0,2048,2048
269.553,2.77556e-17,0,2048,2048
269.604,5.55112e-17,0,2050,2050
269.654,5.55112e-17,0,2050,2050
269.703,5.55112e-17,0,2050,2050
269.751,5.55112e-17,0,2086,2086
269.801,8.32667e-17,0,2114,2114
269.85,8.32667e-17,0,2146,2146
269.9,8.32667e-17,0,2182,2182
269.953,8.32667e-17,0,2218,2218
270.003,8.32667e-17,0,2258,2258
270.052,8.32667e-17,0,2310,2310
270.102,8.32667e-17,0,2338,2338
270.152,8.32667e-17,0,2370,2370
270.202,8.32667e-17,0,2422,2422
270.252,8.32667e-17,0,2442,2442
270.301,8.32667e-17,0,2478,2478
270.351,1.11022e-16,0,2522,2522
270.401,1.11022e-16,0,2554,2554
270.451,1.11022e-16,0,2598,2598
270.501,1.11022e-16,0,2638,2638
270.55,1.11022e-16,0,2670,2670
270.6,1.11022e-16,0,2718,2718
270.65,1.11022e-16,0,2738,2738
270.703,2.77556e-16,0,2774,2774
270.753,3.33067e-16,0,2818,2818
270.802,-3.35842e-15,0,2854,2854
270.852,-5.00711e-14,0,2902,2902
270.902,-3.54189e-13,0,2938,2938
270.952,-1.70838e-12,0,2986,2986
271.002,-6.184e-12,0,3022,3022
271.051,-1.75983e-11,0,3070,3070
271.101,-4.05032e-11,0,3106,3106
271.151,-7.68152e-11,0,3154,3154
271.201,-1.21466e-10,0,3190,3190
271.25,-1.60954e-10,0,3238,3238
271.3,-1.78066e-10,0,3274,3274
271.35,-1.61389e-10,0,3322,3322
271.403,-1.09796e-10,0,3362,3362
271.453,-4.62602e-11,0,3406,3406
271.502,1.02699e-11,0,3442,3442
271.552,4.62695e-11,0,3472,3472
271.602,6.16983e-11,0,3494,3494
271.652,6.66112e-11,0,3550,3550
271.702,7.18857e-11,0,3578,3578
271.751,8.1568e-11,0,3626,3626
271.801,9.21545e-11,0,3654,3654
271.851,9.8007e-11,0,3702,3702
271.901,9.73883e-11,0,3746,3746
271.951,9.39956e-11,0,3786,3786
272,9.33858e-11,0,3830,3830
272.05,9.80391e-11,0,3862,3862
272.103,1.05862e-10,0,3906,3906
272.153,1.10732e-10,0,3946,3946
272.203,1.10187e-10,0,3990,3990
272.252,1.05963e-10,0,4026,4026
272.302,1.02888e-10,0,4074,4074
272.352,1.04711e-10,0,4110,4110
272.402,1.10747e-10,0,4146,4146
272.451,1.16384e-10,0,4194,4194
272.501,1.17431e-10,0,4230,4230
272.551,1.14704e-10,0,4266,4266
272.601,1.13967e-10,0,4314,4314
272.651,1.19534e-10,0,4350,4350
272.7,1.26178e-10,0,4386,4386
272.75,1.1862e-10,0,4426,4426
272.8,8.53831e-11,0,4470,4470
272.853,4.16892e-11,0,4514,4514
272.903,6.21252e-11,0,4550,4550
272.952,2.56718e-10,0,4582,4582
273.002,7.49621e-10,0,4626,4626
273.052,1.54866e-09,0,4662,4662
273.102,4.94856e-09,0,4698,4698
273.152,1.02637e-08,0,4734,4734
273.201,1.59572e-08,0,4778,4778
273.251,2.1159e-08,0,4818,4818
273.301,2.53311e-08,0,4858,4858
273.351,2.84946e-08,0,4890,4890
273.401,3.12999e-08,0,4930,4930
273.45,3.47955e-08,0,4962,4962
273.5,4.00175e-08,0,4980,4980
273.553,4.80691e-08,0,5006,5006
273.603,5.8103e-08,0,5002,5002
273.652,7.03555e-08,0,5008,5008
273.702,8.50041e-08,0,5008,5008
273.752,1.02766e-07,0,5008,5008
273.802,1.24732e-07,0,5000,5000
273.852,1.51985e-07,0,5004,5004
273.901,1.8519e-07,0,4996,4996
273.951,2.24277e-07,0,5000,5000
274.001,2.68329e-07,0,5020,5020
274.051,3.15879e-07,0,5044,5044
274.101,3.6565e-07,0,5044,5044
274.15,4.17235e-07,0,5040,5040
274.2,4.71066e-07,0,5044,5044
274.25,5.27518e-07,0,5040,5040
274.303,5.89269e-07,0,5036,5036
274.353,6.47033e-07,0,5028,5028
274.402,7.01004e-07,0,5012,5012
274.452,7.48169e-07,0,5004,5004
274.502,7.86493e-07,0,4996,4996
274.552,8.15267e-07,0,4992,4992
274.602,8.35071e-07,0,4972,4972
274.651,8.47379e-07,0,4976,4976
274.701,8.53901e-07,0,4964,4964
274.751,8.56016e-07,0,4944,4944
274.801,8.55639e-07,0,4920,4920
274.851,8.51875e-07,0,4860,4860
274.9,8.42853e-07,0,4860,4860
274.95,8.29117e-07,0,4840,4840
275.003,8.08154e-07,0,4820,4820
275.053,7.81394e-07,0,4812,4812
275.102,7.47406e-07,0,4796,4796
275.152,7.06546e-07,0,4780,4780
275.202,6.60073e-07,0,4788,4788
275.252,6.1006e-07,0,4776,4776
275.302,5.58925e-07,0,4784,4784
275.353,5.08798e-07,0,4780,4780
275.4,4.63852e-07,0,4760,4760
275.451,4.19211e-07,0,4772,4772
275.502,3.77886e-07,0,4736,4736
275.553,3.39586e-07,0,4728,4728
275.601,3.05872e-07,0,4732,4732
275.652,2.72025e-07,0,4716,4716
275.701,2.4186e-07,0,4704,4704
275.752,2.11862e-07,0,4696,4696
275.801,1.86366e-07,0,4680,4680
275.853,1.63178e-07,0,4692,4692
275.902,1.45456e-07,0,4672,4672
275.951,1.31054e-07,0,4672,4672
276.001,1.18484e-07,0,4660,4660
276.05,1.06286e-07,0,4656,4656
276.103,9.31191e-08,0,4648,4648
276.153,8.10991e-08,0,4648,4648
276.203,7.05254e-08,0,4628,4628
276.253,6.21667e-08,0,4624,4624
276.3,5.63969e-08,0,4628,4628
276.351,5.18345e-08,0,4616,4616
276.401,4.7885e-08,0,4604,4604
276.452,4.35313e-08,0,4620,4620
276.5,3.8661e-08,0,4596,4596
276.551,3.29701e-08,0,4612,4612
276.603,2.77645e-08,0,4596,4596
276.651,2.42309e-08,0,4580,4580
276.703,2.22411e-08,0,4576,4576
276.752,2.15724e-08,0,4572,4572
276.8,2.15367e-08,0,4576,4576
276.853,2.1708e-08,0,4572,4572
276.902,2.18596e-08,0,4560,4560
276.951,2.1995e-08,0,4564,4564
277.001,2.20653e-08,0,4556,4556
277.05,2.20726e-08,0,4560,4560
277.1,2.20077e-08,0,4548,4548
277.15,2.1887e-08,0,4540,4540
277.2,2.1723e-08,0,4548,4548
277.251,2.15398e-08,0,4556,4556
277.301,2.13551e-08,0,4544,4544
277.352,2.1183e-08,0,4552,4552
277.402,2.10259e-08,0,4564,4564
277.453,2.08788e-08,0,4572,4572
277.501,2.07408e-08,0,4596,4596
277.552,2.05821e-08,0,4592,4592
277.603,2.04039e-08,0,4600,4600
277.651,2.02136e-08,0,4588,4588
277.703,1.99768e-08,0,4596,4596
277.752,1.9722e-08,0,4600,4600
277.8,1.94333e-08,0,4600,4600
277.853,1.9086e-08,0,4580,4580
277.902,1.87266e-08,0,4568,4568
277.951,1.83342e-08,0,4552,4552
278.001,1.79125e-08,0,4544,4544
278.051,1.74647e-08,0,4528,4528
278.101,1.69938e-08,0,4516,4516
278.151,1.65032e-08,0,4504,4504
278.201,1.59984e-08,0,4500,4500
278.252,1.54849e-08,0,4484,4484
278.303,1.49654e-08,0,4458,4458
278.35,1.44802e-08,0,4414,4414
278.401,1.3957e-08,0,4390,4390
278.453,1.34371e-08,0,4350,4350
278.501,1.29608e-08,0,4302,4302
278.553,1.24593e-08,0,4282,4282
278.601,1.20084e-08,0,4234,4234
278.653,1.15425e-08,0,4206,4206
278.701,1.11312e-08,0,4182,4182
278.753,1.07143e-08,0,4142,4142
278.802,1.03547e-08,0,4102,4102
278.851,1.00235e-08,0,4074,4074
278.903,9.69862e-09,0,4046,4046
278.952,9.42408e-09,0,4002,4002
279.001,9.17395e-09,0,3986,3986
279.053,8.9342e-09,0,3958,3958
279.102,8.74026e-09,0,3918,3918
279.151,8.5706e-09,0,3890,3890
279.2,8.42137e-09,0,3866,3866
279.253,8.28085e-09,0,3830,3830
279.303,8.16762e-09,0,3794,3794
279.352,8.06967e-09,0,3758,3758
279.401,7.9855e-09,0,3722,3722
279.451,7.91372e-09,0,3686,3686
279.5,7.85299e-09,0,3650,3650
279.554,7.7986e-09,0,3606,3606
279.603,7.7573e-09,0,3578,3578
279.653,7.72393e-09,0,3538,3538
279.703,7.69761e-09,0,3486,3486
279.753,7.67752e-09,0,3438,3438
279.803,7.66294e-09,0,3394,3394
279.853,7.65327e-09,0,3390,3390
279.903,7.64794e-09,0,3442,3442
279.953,7.64635e-09,0,3486,3486
280.003,7.64807e-09,0,3502,3502
280.053,7.65283e-09,0,3514,3514
280.102,7.66038e-09,0,3498,3498
280.152,7.67038e-09,0,3550,3550
280.201,7.68241e-09,0,3638,3638
280.251,7.69603e-09,0,3666,3666
280.3,7.71082e-09,0,3694,3694
280.353,7.72762e-09,0,3750,3750
280.403,7.74371e-09,0,3778,3778
280.452,7.76005e-09,0,3806,3806
280.501,7.7765e-09,0,3846,3846
280.554,7.79425e-09,0,3874,3874
280.603,7.81073e-09,0,3902,3902
280.652,7.82715e-09,0,3942,3942
280.7,7.84348e-09,0,3970,3970
280.753,7.86095e-09,0,4006,4006
280.802,7.87703e-09,0,4038,4038
280.85,7.89299e-09,0,4066,4066
280.903,7.91002e-09,0,4110,4110
280.951,7.92567e-09,0,4138,4138
281.003,7.94228e-09,0,4162,4162
281.052,7.95742e-09,0,4206,4206
281.104,7.97337e-09,0,4234,4234
281.152,7.98781e-09,0,4262,4262
281.203,8.00289e-09,0,4302,4302
281.251,8.01642e-09,0,4330,4330
281.303,8.03045e-09,0,4378,4378
281.354,8.04388e-09,0,4402,4402
281.401,8.05585e-09,0,4426,4426
281.452,8.06831e-09,0,4470,4470
281.502,8.08046e-09,0,4498,4498
281.552,8.09257e-09,0,4538,4538
281.602,8.10505e-09,0,4570,4570
281.652,8.11862e-09,0,4598,4598
281.702,8.13427e-09,0,4638,4638
281.752,8.15339e-09,0,4666,4666
281.801,8.17767e-09,0,4706,4706
281.85,8.20906e-09,0,4738,4738
281.903,8.25298e-09,0,4774,4774
281.951,8.30584e-09,0,4786,4786
282,8.37239e-09,0,4764,4764
282.052,8.46119e-09,0,4874,4874
282.1,8.56275e-09,0,4902,4902
282.152,8.69425e-09,0,4954,4954
282.203,8.85257e-09,0,4982,4982
282.251,9.02804e-09,0,5002,5002
282.302,9.2507e-09,0,5022,5022
282.353,9.51516e-09,0,5054,5054
282.403,9.82878e-09,0,5082,5082
282.45,1.01725e-08,0,5102,5102
282.501,1.06031e-08,0,5138,5138
282.551,1.11042e-08,0,5174,5174
282.601,1.16796e-08,0,5202,5202
282.65,1.23293e-08,0,5238,5238
282.703,1.31012e-08,0,5266,5266
282.753,1.38934e-08,0,5298,5298
282.802,1.47482e-08,0,5334,5334
282.851,1.56642e-08,0,5362,5362
282.903,1.73432e-08,0,5398,5398
282.952,1.92635e-08,0,5434,5434
283,2.1141e-08,0,5470,5470
283.052,2.31526e-08,0,5502,5502
283.103,2.55302e-08,0,5550,5550
283.151,2.8328e-08,0,5574,5574
283.202,3.13232e-08,0,5614,5614
283.253,3.442e-08,0,5650,5650
283.301,3.74693e-08,0,5690,5690
283.351,4.08669e-08,0,5714,5714
283.402,4.44064e-08,0,5708,5708
283.452,4.80715e-08,0,5700,5700
283.502,5.18465e-08,0,5708,5708
283.552,5.57258e-08,0,5736,5736
283.601,5.97088e-08,0,5748,5748
283.651,6.38042e-08,0,5760,5760
283.7,6.80357e-08,0,5796,5796
283.753,7.27285e-08,0,5808,5808
283.802,7.73971e-08,0,5816,5816
283.851,8.23761e-08,0,5836,5836
283.902,8.80521e-08,0,5856,5856
283.951,9.37618e-08,0,5864,5864
284.002,1.00183e-07,0,5876,5876
284.051,1.06511e-07,0,5896,5896
284.102,1.13499e-07,0,5908,5908
284.153,1.2077e-07,0,5920,5920
284.201,1.2794e-07,0,5924,5924
284.251,1.3606e-07,0,5936,5936
284.302,1.44935e-07,0,5956,5956
284.352,1.54876e-07,0,5980,5980
284.402,1.66229e-07,0,5996,5996
284.452,1.7936e-07,0,5996,5996
284.502,1.94625e-07,0,6020,6020
284.552,2.12385e-07,0,6036,6036
284.602,2.32969e-07,0,6036,6036
284.651,2.56618e-07,0,6040,6040
284.701,2.83476e-07,0,6068,6068
284.751,3.13563e-07,0,6056,6056
284.801,3.46766e-07,0,6064,6064
284.851,3.82833e-07,0,6052,6052
284.9,4.21367e-07,0,6060,6060
284.95,4.61836e-07,0,6068,6068
285.003,5.06046e-07,0,6060,6060
285.053,5.48239e-07,0,6044,6044
285.102,5.89912e-07,0,6044,6044
285.152,6.30054e-07,0,6036,6036
285.202,6.67622e-07,0,6044,6044
285.252,7.01617e-07,0,6060,6060
285.302,7.31149e-07,0,6080,6080
285.351,7.55511e-07,0,6096,6096
285.401,7.74219e-07,0,6108,6108
285.451,7.87017e-07,0,6120,6120
285.501,7.93855e-07,0,6116,6116
285.551,7.94836e-07,0,6144,6144
285.6,7.90142e-07,0,6164,6164
285.65,7.7998e-07,0,6168,6168
285.7,7.64547e-07,0,6188,6188
285.753,7.42654e-07,0,6192,6192
285.803,7.16918e-07,0,6224,6224
285.852,6.86488e-07,0,6220,6220
285.902,6.51677e-07,0,6256,6256
285.952,6.12924e-07,0,6268,6268
286.002,5.70819e-07,0,6272,6272
286.052,5.26094e-07,0,6280,6280
286.101,4.79586e-07,0,6300,6300
286.151,4.3219e-07,0,6324,6324
286.201,3.84791e-07,0,6294,6294
286.251,3.38201e-07,0,6258,6258
286.301,2.93117e-07,0,6226,6226
286.35,2.50096e-07,0,6186,6186
286.4,2.09554e-07,0,6154,6154
286.453,1.69648e-07,0,6114,6114
286.503,1.35001e-07,0,6098,6098
286.552,1.03406e-07,0,6042,6042
286.602,7.48881e-08,0,6022,6022
286.652,4.94107e-08,0,5978,5978
286.702,2.68802e-08,0,5954,5954
286.752,7.15142e-09,0,5918,5918
286.801,-9.9606e-09,0,5890,5890
286.851,-2.46653e-08,0,5846,5846
286.901,-3.71788e-08,0,5818,5818
286.951,-4.77086e-08,0,5782,5782
287.001,-5.64452e-08,0,5754,5754
287.05,-6.35593e-08,0,5714,5714
287.1,-6.92053e-08,0,5678,5678
287.15,-7.35269e-08,0,5634,5634
287.203,-7.68119e-08,0,5606,5606
287.253,-7.88337e-08,0,5578,5578
287.302,-7.9877e-08,0,5542,5542
287.352,-7.97346e-08,0,5510,5510
287.402,-7.94104e-08,0,5466,5466
287.452,-7.88485e-08,0,5438,5438
287.502,-7.80582e-08,0,5394,5394
287.551,-7.66404e-08,0,5354,5354
287.601,-7.37827e-08,0,5330,5330
287.651,-7.04821e-08,0,5310,5310
287.701,-6.69574e-08,0,5278,5278
287.751,-6.32912e-08,0,5254,5254
287.8,-5.95577e-08,0,5234,5234
287.85,-5.58178e-08,0,5206,5206
287.903,-5.19192e-08,0,5162,5162
287.953,-4.83494e-08,0,5118,5118
288.002,-4.49253e-08,0,5106,5106
288.052,-4.16757e-08,0,5058,5058
288.102,-3.8617e-08,0,5034,5034
288.152,-3.57623e-08,0,4998,4998
288.202,-3.31118e-08,0,4958,4958
288.251,-3.06609e-08,0,4922,4922
288.301,-2.84024e-08,0,4890,4890
288.351,-2.63252e-08,0,4854,4854
288.401,-2.44148e-08,0,4838,4838
288.451,-2.26591e-08,0,4826,4826
288.5,-2.10533e-08,0,4810,4810
288.55,-1.96022e-08,0,4802,4802
288.6,-1.83104e-08,0,4818,4818
288.653,-1.71118e-08,0,4810,4810
288.703,-1.6132e-08,0,4818,4818
288.752,-1.52925e-08,0,4810,4810
288.802,-1.45618e-08,0,4806,4806
288.852,-1.3894e-08,0,4806,4806
288.902,-1.32727e-08,0,4810,4810
288.952,-1.26999e-08,0,4806,4806
289.001,-1.218e-08,0,4806,4806
289.051,-1.16879e-08,0,4502,4502
289.101,-1.12761e-08,0,4430,4430
289.151,-1.09252e-08,0,4406,4406
289.201,-1.06301e-08,0,4310,4310
289.25,-1.03809e-08,0,4202,4202
289.3,-1.01118e-08,0,4138,4138
289.353,-9.95175e-09,0,4070,4070
289.403,-9.84087e-09,0,4030,4030
289.452,-9.76336e-09,0,3966,3966
289.502,-9.71543e-09,0,3906,3906
289.552,-9.69443e-09,0,3870,3870
289.602,-9.69591e-09,0,3830,3830
289.652,-9.716e-09,0,3770,3770
289.701,-9.75057e-09,0,3718,3718
289.751,-9.79622e-09,0,3694,3694
289.801,-9.84991e-09,0,3634,3634
289.851,-9.90904e-09,0,3606,3606
289.901,-9.97139e-09,0,3542,3542
289.95,-1.0035e-08,0,3502,3502
290,-1.00982e-08,0,3438,3438
290.053,-1.01629e-08,0,3386,3386
290.103,-1.02217e-08,0,3342,3342
290.153,-1.02786e-08,0,3290,3290
290.202,-1.03323e-08,0,3254,3254
290.252,-1.0382e-08,0,3202,3202
290.302,-1.04279e-08,0,3162,3162
290.352,-1.04707e-08,0,3130,3130
290.401,-1.05108e-08,0,3082,3082
290.451,-1.05483e-08,0,3046,3046
290.501,-1.05836e-08,0,3002,3002
290.551,-1.06165e-08,0,2988,2988
290.601,-1.06469e-08,0,2980,2980
290.65,-1.0675e-08,0,2984,2984
290.7,-1.07011e-08,0,2980,2980
290.75,-1.07251e-08,0,2992,2992
290.803,-1.0748e-08,0,2982,2982
290.853,-1.07675e-08,0,2942,2942
290.902,-1.07851e-08,0,2902,2902
290.952,-1.08016e-08,0,2858,2858
291.002,-1.08179e-08,0,2814,2814
291.052,-1.08351e-08,0,2766,2766
291.102,-1.08544e-08,0,2718,2718
291.151,-1.08773e-08,0,2686,2686
291.201,-1.09055e-08,0,2642,2642
291.251,-1.09405e-08,0,2594,2594
291.301,-1.09841e-08,0,2558,2558
291.351,-1.10379e-08,0,2518,2518
291.4,-1.11035e-08,0,2474,2474
291.45,-1.11822e-08,0,2426,2426
291.503,-1.12811e-08,0,2390,2390
291.553,-1.13902e-08,0,2334,2334
291.602,-1.1515e-08,0,2298,2298
291.652,-1.16556e-08,0,2250,2250
291.702,-1.18119e-08,0,2202,2202
291.752,-1.19835e-08,0,2166,2166
291.802,-1.217e-08,0,2130,2130
291.851,-1.23709e-08,0,2082,2082
291.901,-1.25837e-08,0,2050,2050
291.95,-1.28099e-08,0,2048,2048
292.003,-1.3067e-08,0,2048,2048
292.056,-1.33399e-08,0,2048,2048
292.102,-1.3596e-08,0,2048,2048
292.155,-1.38992e-08,0,2048,2048
292.202,-1.4182e-08,0,2048,2048
292.255,-1.45147e-08,0,2048,2048
292.302,-1.48226e-08,0,2048,2048
292.354,-1.51815e-08,0,2048,2048
292.401,-1.55105e-08,0,2048,2048
292.454,-1.589e-08,0,2048,2048
292.501,-1.62341e-08,0,2048,2048
292.553,-1.6627e-08,0,2048,2048
292.6,-1.69798e-08,0,2048,2048
292.653,-1.73789e-08,0,2048,2048
292.706,-1.77783e-08,0,2048,2048
292.753,-1.81321e-08,0,2048,2048
292.805,-1.85267e-08,0,2048,2048
292.852,-1.88728e-08,0,2048,2048
292.905,-1.92548e-08,0,2048,2048
292.952,-1.95861e-08,0,2048,2048
293.005,-1.99473e-08,0,2048,2048
293.051,-2.02562e-08,0,2048,2048
293.104,-2.05879e-08,0,2048,2048
293.151,-2.0867e-08,0,2048,2048
293.204,-2.11612e-08,0,2048,2048
293.251,-2.14037e-08,0,2048,2048
293.303,-2.16534e-08,0,2048,2048
293.35,-2.18538e-08,0,2048,2048
293.403,-2.20538e-08,0,2048,2048
293.456,-2.22261e-08,0,2048,2048
293.503,-2.23556e-08,0,2048,2048
293.555,-2.24746e-08,0,2048,2048
293.602,-2.25568e-08,0,2048,2048
293.655,-2.26236e-08,0,2086,2086
293.702,-2.26609e-08,0,2098,2098
293.754,-2.26792e-08,0,2106,2106
293.801,-2.26755e-08,0,2114,2114
293.854,-2.26501e-08,0,2126,2126
293.901,-2.261e-08,0,2130,2130
293.954,-2.25467e-08,0,2130,2130
294.001,-2.2476e-08,0,2130,2130
294.053,-2.23822e-08,0,2130,2130
294.1,-2.2288e-08,0,2130,2130
294.153,-2.21717e-08,0,2130,2130
294.206,-2.20461e-08,0,2130,2130
294.252,-2.1928e-08,0,2130,2130
294.305,-2.17894e-08,0,2130,2130
294.352,-2.16621e-08,0,2130,2130
294.405,-2.15156e-08,0,2130,2130
294.452,-2.13833e-08,0,2130,2130
294.504,-2.12335e-08,0,2130,2130
294.551,-2.11e-08,0,2130,2130
294.604,-2.09505e-08,0,2130,2130
294.651,-2.08187e-08,0,2130,2130
294.704,-2.06723e-08,0,2130,2130
294.75,-2.05445e-08,0,2130,2130
294.803,-2.04036e-08,0,2130,2130
294.85,-2.02813e-08,0,2130,2130
294.903,-2.01473e-08,0,2130,2130
294.955,-2.00176e-08,0,2130,2130
295.002,-1.99059e-08,0,2130,2130
295.055,-1.97846e-08,0,2124,2124
295.102,-1.96807e-08,0,2100,2100
295.155,-1.95681e-08,0,2084,2084
295.202,-1.94719e-08,0,2076,2076
295.254,-1.93677e-08,0,2068,2068
295.301,-1.92787e-08,0,2056,2056
295.354,-1.91824e-08,0,2048,2048
295.401,-1.91e-08,0,2048,2048
295.453,-1.90107e-08,0,2048,2048
295.5,-1.89342e-08,0,2048,2048
295.553,-1.88511e-08,0,2048,2048
295.606,-1.87708e-08,0,2048,2048
295.653,-1.87015e-08,0,2048,2048
295.705,-1.86257e-08,0,2048,2048
295.752,-1.85599e-08,0,2048,2048
295.805,-1.84874e-08,0,2048,2048
295.852,-1.84242e-08,0,2048,2048
295.905,-1.83541e-08,0,2048,2048
295.951,-1.82926e-08,0,2048,2048
296.004,-1.8224e-08,0,2048,2048
296.051,-1.81634e-08,0,2048,2048
296.104,-1.80955e-08,0,2048,2048
296.151,-1.80352e-08,0,2048,2048
296.203,-1.79672e-08,0,2048,2048
296.25,-1.79065e-08,0,2048,2048
296.303,-1.78378e-08,0,2048,2048
296.356,-1.77684e-08,0,2048,2048
296.403,-1.77061e-08,0,2048,2048
296.455,-1.7635e-08,0,2048,2048
296.502,-1.75708e-08,0,2048,2048
296.555,-1.74973e-08,0,2048,2048
296.602,-1.74307e-08,0,2048,2048
296.654,-1.73541e-08,0,2048,2048
296.701,-1.72843e-08,0,2048,2048
296.754,-1.72038e-08,0,2048,2048
296.801,-1.71302e-08,0,2048,2048
296.854,-1.70448e-08,0,2048,2048
296.901,-1.69665e-08,0,2048,2048
296.953,-1.68754e-08,0,2048,2048
297,-1.67915e-08,0,2048,2048
297.053,-1.66937e-08,0,2048,2048
297.106,-1.65919e-08,0,2048,2048
297.152,-1.64979e-08,0,2048,2048
297.205,-1.6388e-08,0,2048,2048
297.252,-1.62863e-08,0,2048,2048
297.305,-1.61674e-08,0,2048,2048
297.352,-1.60574e-08,0,2048,2048
297.404,-1.59288e-08,0,2048,2048
297.451,-1.58098e-08,0,2048,2048
297.504,-1.56708e-08,0,2048,2048
297.551,-1.55424e-08,0,2048,2048
297.604,-1.53924e-08,0,2048,2048
297.65,-1.52541e-08,0,2048,2048
297.703,-1.50927e-08,0,2048,2048
297.75,-1.4944e-08,0,2048,2048
297.803,-1.47707e-08,0,2048,2048
297.855,-1.45909e-08,0,2048,2048
297.902,-1.44254e-08,0,2048,2048
297.955,-1.42327e-08,0,2048,2048
298.002,-1.40554e-08,0,2048,2048
298.055,-1.3849e-08,0,2048,2048
298.102,-1.36588e-08,0,2048,2048
298.154,-1.34372e-08,0,2048,2048
298.201,-1.32328e-08,0,2048,2048
298.254,-1.29941e-08,0,2048,2048
298.301,-1.27735e-08,0,2048,2048
298.353,-1.25151e-08,0,2048,2048
298.4,-1.22756e-08,0,2048,2048
298.453,-1.19944e-08,0,2048,2048
298.506,-1.16995e-08,0,2048,2048
298.553,-1.14251e-08,0,2048,2048
298.605,-1.11015e-08,0,2048,2048
298.652,-1.07996e-08,0,2048,2048
298.705,-1.04431e-08,0,2048,2048
298.752,-1.01103e-08,0,2048,2048
298.805,-9.71743e-09,0,2048,2048
298.851,-9.35125e-09,0,2048,2048
298.904,-8.91987e-09,0,2048,2048
298.951,-8.51905e-09,0,2048,2048
299.004,-8.04861e-09,0,2048,2048
299.051,-7.61336e-09,0,2048,2048
299.103,-7.10506e-09,0,2048,2048
299.15,-6.63748e-09,0,2048,2048
299.203,-6.09511e-09,0,2048,2048
299.256,-5.53736e-09,0,2048,2048
299.303,-5.03073e-09,0,2048,2048
299.355,-4.45128e-09,0,2048,2048
299.402,-3.93038e-09,0,2048,2048
299.455,-3.34115e-09,0,2048,2048
299.502,-2.81751e-09,0,2048,2048
299.554,-2.23217e-09,0,2048,2048
299.601,-1.7183e-09,0,2048,2048
299.654,-1.15107e-09,0,2048,2048
299.701,-6.59532e-10,0,2048,2048
299.754,-1.24209e-10,0,2048,2048
299.8,3.33206e-10,0,2048,2048
299.853,8.24122e-10,0,2048,2048
299.9,1.23719e-09,0,2048,2048
299.953,1.67335e-09,0,2048,2048
300.006,2.07724e-09,0,2048,2048
300.052,2.40774e-09,0,2048,2048
300.105,2.74625e-09,0,2048,2048
300.152,3.01686e-09,0,2048,2048
300.205,3.28683e-09,0,2048,2048
300.252,3.49624e-09,0,2048,2048
300.304,3.69807e-09,0,2048,2048
300.351,3.84838e-09,0,2048,2048
300.404,3.98623e-09,0,2048,2048
300.451,4.08256e-09,0,2048,2048
300.504,4.16348e-09,0,2048,2048
300.55,4.21285e-09,0,2048,2048
300.603,4.24522e-09,0,2048,2048
300.656,4.25543e-09,0,2048,2048
300.703,4.24786e-09,0,2048,2048
300.755,4.22277e-09,0,2048,2048
300.802,4.18753e-09,0,2048,2048
300.855,4.13539e-09,0,2048,2048
300.902,4.0796e-09,0,2048,2048
300.955,4.0081e-09,0,2048,2048
301.001,3.93828e-09,0,2048,2048
301.054,3.85438e-09,0,2048,2048
301.101,3.77637e-09,0,2048,2048
301.154,3.68619e-09,0,2048,2048
301.201,3.60504e-09,0,2048,2048
301.253,3.51383e-09,0,2048,2048
301.3,3.4338e-09,0,2048,2048
301.353,3.34593e-09,0,2048,2048
301.406,3.2613e-09,0,2048,2048
301.453,3.18946e-09,0,2048,2048
301.505,3.1131e-09,0,2048,2048
301.552,3.04964e-09,0,2048,2048
301.605,2.98357e-09,0,2048,2048
301.652,2.92978e-09,0,2048,2048
301.704,2.87489e-09,0,2048,2048
301.751,2.83103e-09,0,2048,2048
301.804,2.787e-09,0,2048,2048
301.851,2.75226e-09,0,2048,2048
301.904,2.7176e-09,0,2048,2048
301.951,2.69019e-09,0,2048,2048
302.003,2.66246e-09,0,2048,2048
302.05,2.63991e-09,0,2048,2048
302.103,2.61607e-09,0,2048,2048
302.156,2.593e-09,0,2048,2048
302.202,2.57247e-09,0,2048,2048
302.255,2.54863e-09,0,2048,2048
302.302,2.52627e-09,0,2048,2048
302.355,2.49932e-09,0,2048,2048
302.402,2.47346e-09,0,2048,2048
302.454,2.44203e-09,0,2048,2048
302.501,2.41197e-09,0,2048,2048
302.554,2.37586e-09,0,2048,2048
302.601,2.3419e-09,0,2048,2048
302.654,2.30196e-09,0,2048,2048
302.7,2.26527e-09,0,2048,2048
302.753,2.2232e-09,0,2048,2048
302.8,2.18558e-09,0,2048,2048
302.853,2.14362e-09,0,2048,2048
302.905,2.10271e-09,0,2048,2048
302.952,2.06778e-09,0,2048,2048
303.005,2.03072e-09,0,2048,2048
303.052,2.00024e-09,0,2048,2048
303.105,1.96925e-09,0,2048,2048
303.152,1.94501e-09,0,2048,2048
303.204,1.92186e-09,0,2048,2048
303.251,1.90518e-09,0,2048,2048
303.304,1.89101e-09,0,2048,2048
303.351,1.88256e-09,0,2048,2048
303.403,1.87773e-09,0,2048,2048
303.45,1.87749e-09,0,2048,2048
303.503,1.88157e-09,0,2048,2048
303.556,1.88994e-09,0,2048,2048
303.603,1.90063e-09,0,2048,2048
303.655,1.91587e-09,0,2048,2048
303.702,1.93186e-09,0,2048,2048
303.755,1.95207e-09,0,2048,2048
303.802,1.97155e-09,0,2048,2048
303.855,1.99464e-09,0,2048,2048
303.901,2.01579e-09,0,2048,2048
303.954,2.03979e-09,0,2048,2048
304.001,2.06096e-09,0,2048,2048
304.054,2.08419e-09,0,2048,2048
304.101,2.10406e-09,0,2048,2048
304.153,2.12525e-09,0,2048,2048
304.2,2.14288e-09,0,2048,2048
304.253,2.16118e-09,0,2048,2048
304.306,2.17774e-09,0,2048,2048
304.353,2.19094e-09,0,2048,2048
304.405,2.20403e-09,0,2048,2048
304.452,2.2141e-09,0,2048,2048
304.505,2.22369e-09,0,2048,2048
304.552,2.2307e-09,0,2048,2048
304.604,2.23692e-09,0,2048,2048
304.651,2.24102e-09,0,2048,2048
304.704,2.24409e-09,0,2048,2048
304.751,2.2455e-09,0,2048,2048
304.804,2.24567e-09,0,2048,2048
304.851,2.24464e-09,0,2048,2048
304.903,2.24219e-09,0,2048,2048
304.95,2.23896e-09,0,2048,2048
