250,0,0,32768,32768
250.001,0,0,32768,32768
250.051,0,0,32768,32768
250.101,0,0,32768,32768
250.151,0,0,32768,32768
250.201,0,0,32768,32768
250.25,0,0,32768,32768
250.3,0,0,32768,32768
250.35,0,0,32768,32768
250.401,0,0,32768,32768
250.451,0,0,32768,32768
250.501,0,0,32768,32768
250.551,0,0,32768,32768
250.6,0,0,32768,32768
250.65,0,0,32768,32768
250.7,0,0,32768,32768
250.751,0,0,32768,32768
250.801,0,0,32768,32768
250.851,0,0,32768,32768
250.901,0,0,32768,32768
250.951,0,0,32768,32768
251,0,0,32768,32768
251.05,0,0,32768,32768
251.101,0,0,32768,32768
251.151,0,0,32768,32768
251.201,0,0,32768,32768
251.251,0,0,32768,32768
251.301,0,0,32768,32768
251.35,0,0,32768,32768
251.4,0,0,32768,32768
251.451,0,0,32768,32768
251.501,0,0,32768,32768
251.551,0,0,32768,32768
251.601,0,0,32768,32768
251.651,0,0,32768,32768
251.7,0,0,32768,32768
251.75,0,0,32768,32768
251.8,0,0,32768,32768
251.851,0,0,32768,32768
251.901,0,0,32768,32768
251.951,0,0,32768,32768
252.001,0,0,32768,32768
252.05,0,0,32768,32768
252.1,0,0,32768,32768
252.15,0,0,32768,32768
252.201,0,0,32768,32768
252.251,0,0,32768,32768
252.301,0,0,32768,32768
252.351,0,0,32768,32768
252.401,0,0,32768,32768
252.45,0,0,32768,32768
252.5,0,0,32768,32768
252.551,0,0,32768,32768
252.601,0,0,32768,32768
252.651,0,0,32768,32768
252.701,0,0,32768,32768
252.751,0,0,32768,32768
252.8,0,0,32768,32768
252.85,0,0,32768,32768
252.901,0,0,32768,32768
252.951,0,0,32768,32768
253.001,0,0,32768,32768
253.051,0,0,32768,32768
253.101,0,0,32768,32768
253.15,0,0,32768,32768
253.2,0,0,32768,32768
253.25,0,0,32768,32768
253.301,0,0,32768,32768
253.351,0,0,32768,32768
253.401,0,0,32768,32768
253.451,0,0,32768,32768
253.5,0,0,32768,32768
253.55,0,0,32768,32768
253.6,0,0,32768,32768
253.651,0,0,32768,32768
253.701,0,0,32768,32768
253.751,0,0,32768,32768
253.801,0,0,32768,32768
253.851,0,0,32768,32768
253.9,0,0,32768,32768
253.95,0,0,32768,32768
254.001,0,0,32768,32768
254.051,0,0,32768,32768
254.101,0,0,32768,32768
254.151,0,0,32768,32768
254.201,0,0,32768,32768
254.25,0,0,32768,32768
254.3,0,0,32768,32768
254.351,0,0,32768,32768
254.401,0,0,32768,32768
254.451,0,0,32768,32768
254.501,0,0,32768,32768
254.551,0,0,32768,32768
254.6,0,0,32768,32768
254.65,0,0,32768,32768
254.701,0,0,32768,32768
254.751,0,0,32768,32768
254.801,0,0,32768,32768
254.851,0,0,32768,32768
254.901,0,0,32768,32768
254.95,1.38778e-17,0,32768,32768
255,1.38778e-17,0,32768,32768
255.05,1.38778e-17,0,32768,32768
255.101,1.38778e-17,0,32768,32768
255.151,1.38778e-17,0,32768,32768
255.201,1.38778e-17,0,32768,32768
255.251,1.38778e-17,0,32768,32768
255.3,1.38778e-17,0,32768,32768
255.35,0,0,32768,32768
255.4,0,0,32768,32768
255.451,0,0,32768,32768
255.501,0,0,32768,32768
255.551,0,0,32768,32768
255.601,0,0,32768,32768
255.651,0,0,32768,32768
255.7,0,0,32768,32768
255.75,0,0,32768,32768
255.801,0,0,32768,32768
255.851,0,0,32768,32768
255.901,0,0,32768,32768
255.951,0,0,32768,32768
256.001,0,0,32768,32768
256.05,0,0,32768,32768
256.1,0,0,32768,32768
256.151,0,0,32768,32768
256.201,0,0,32768,32768
256.251,0,0,32768,32768
256.301,0,0,32768,32768
256.351,0,0,32768,32768
256.4,0,0,32768,32768
256.45,0,0,32768,32768
256.5,0,0,32768,32768
256.551,0,0,32768,32768
256.601,0,0,32768,32768
256.651,0,0,32768,32768
256.701,0,0,32768,32768
256.75,0,0,32768,32768
256.8,0,0,32768,32768
256.85,0,0,32768,32768
256.901,0,0,32768,32768
256.951,0,0,32768,32768
257.001,0,0,32768,32768
257.051,0,0,32768,32768
257.101,0,0,32768,32768
257.15,0,0,32768,32768
257.2,0,0,32768,32768
257.251,0,0,32768,32768
257.301,0,0,32768,32768
257.351,0,0,32768,32768
257.401,0,0,32768,32768
257.451,0,0,32768,32768
257.5,0,0,32768,32768
257.55,0,0,32768,32768
257.601,0,0,32768,32768
257.651,0,0,32768,32768
257.701,0,0,32768,32768
257.751,0,0,32768,32768
257.801,0,0,32768,32768
257.85,1.38778e-17,0,32768,32768
257.9,1.38778e-17,0,32768,32768
257.95,1.38778e-17,0,32768,32768
258.001,1.38778e-17,0,32768,32768
258.051,1.38778e-17,0,32768,32768
258.101,1.38778e-17,0,32768,32768
258.151,1.38778e-17,0,32768,32768
258.2,1.38778e-17,0,32768,32768
258.25,1.38778e-17,0,32768,32768
258.3,1.38778e-17,0,32768,32768
258.351,1.38778e-17,0,32768,32768
258.401,1.38778e-17,0,32768,32768
258.451,1.38778e-17,0,32768,32768
258.501,1.38778e-17,0,32768,32768
258.551,1.38778e-17,0,32768,32768
258.6,1.38778e-17,0,32768,32768
258.65,1.38778e-17,0,32768,32768
258.701,1.38778e-17,0,32768,32768
258.751,1.38778e-17,0,32768,32768
258.801,1.38778e-17,0,32768,32768
258.851,1.38778e-17,0,32768,32768
258.901,1.38778e-17,0,32768,32768
258.95,1.38778e-17,0,32768,32768
259,1.38778e-17,0,32768,32768
259.051,1.38778e-17,0,32768,32768
259.101,0,0,32768,32768
259.151,0,0,32768,32768
259.201,0,0,32768,32768
259.251,0,0,32768,32768
259.3,0,0,32768,32768
259.35,0,0,32768,32768
259.401,0,0,32768,32768
259.451,0,0,32768,32768
259.501,0,0,32768,32768
259.551,0,0,32768,32768
259.601,0,0,32768,32768
259.65,0,0,32768,32768
259.7,0,0,32768,32768
259.75,-1.38778e-17,0,32768,32768
259.801,-1.38778e-17,0,32768,32768
259.851,-1.38778e-17,0,32768,32768
259.901,-1.38778e-17,0,32768,32768
259.951,-1.38778e-17,0,32768,32768
260,-1.38778e-17,0,32768,32768
260.05,-2.77556e-17,0,32768,32768
260.1,-2.77556e-17,0,32768,32768
260.151,-1.38778e-17,0,32768,32768
260.201,-1.38778e-17,0,32768,32768
260.251,-1.38778e-17,0,32768,32768
260.301,-2.77556e-17,0,32768,32768
260.351,-1.38778e-17,0,32768,32768
260.4,-1.38778e-17,0,32768,32768
260.45,-1.38778e-17,0,32768,32768
260.501,-1.38778e-17,0,32768,32768
260.551,-1.38778e-17,0,32768,32768
260.601,-1.38778e-17,0,32768,32768
260.651,-1.38778e-17,0,32768,32768
260.701,-1.38778e-17,0,32768,32768
260.75,1.38778e-17,0,32768,32768
260.8,0,0,32768,32768
260.851,0,0,32768,32768
260.901,0,0,32768,32768
260.951,1.38778e-17,0,32768,32768
261.001,1.38778e-17,0,32768,32768
261.051,1.38778e-17,0,32768,32768
261.1,2.77556e-17,0,32768,32768
261.15,2.77556e-17,0,32768,32768
261.2,2.77556e-17,0,32768,32768
261.251,2.77556e-17,0,32768,32768
261.301,2.77556e-17,0,32768,32768
261.351,0,0,32768,32768
261.401,-1.38778e-17,0,32768,32768
261.45,-1.38778e-17,0,32768,32768
261.5,-2.77556e-17,0,32768,32768
261.55,-2.77556e-17,0,32768,32768
261.601,-2.77556e-17,0,32768,32768
261.651,-2.77556e-17,0,32768,32768
261.701,-2.77556e-17,0,32768,32768
261.751,-2.77556e-17,0,32768,32768
261.801,-2.77556e-17,0,32768,32768
261.85,-2.77556e-17,0,32768,32768
261.9,-2.77556e-17,0,32768,32768
261.951,-2.77556e-17,0,32768,32768
262.001,-2.77556e-17,0,32768,32768
262.051,-2.77556e-17,0,32768,32768
262.101,-2.77556e-17,0,32768,32768
262.151,-2.77556e-17,0,32768,32768
262.2,-1.38778e-17,0,32768,32768
262.25,-1.38778e-17,0,32768,32768
262.301,-1.38778e-17,0,32768,32768
262.351,-1.38778e-17,0,32768,32768
262.401,-1.38778e-17,0,32768,32768
262.451,-1.38778e-17,0,32768,32768
262.501,-1.38778e-17,0,32768,32768
262.55,-2.77556e-17,0,32768,32768
262.6,-1.38778e-17,0,32768,32768
262.651,1.38778e-17,0,32768,32768
262.701,1.38778e-17,0,32768,32768
262.751,2.77556e-17,0,32768,32768
262.801,2.77556e-17,0,32768,32768
262.851,5.55112e-17,0,32768,32768
262.9,6.93889e-17,0,32768,32768
262.95,6.93889e-17,0,32768,32768
263,6.93889e-17,0,32768,32768
263.051,6.93889e-17,0,32768,32768
263.101,6.93889e-17,0,32768,32768
263.151,6.93889e-17,0,32768,32768
263.201,8.32667e-17,0,32768,32768
263.25,8.32667e-17,0,32768,32768
263.3,8.32667e-17,0,32768,32768
263.35,8.32667e-17,0,32768,32768
263.401,8.32667e-17,0,32768,32768
263.451,8.32667e-17,0,32768,32768
263.501,8.32667e-17,0,32768,32768
263.551,6.93889e-17,0,32768,32768
263.601,4.16334e-17,0,32768,32768
263.65,4.16334e-17,0,32768,32768
263.7,2.77556e-17,0,32768,32768
263.751,1.38778e-17,0,32768,32768
263.801,1.38778e-17,0,32768,32768
263.851,0,0,32768,32768
263.901,0,0,32768,32768
263.951,0,0,32768,32768
264,0,0,32768,32768
264.05,0,0,32768,32768
264.101,0,0,32768,32768
264.151,0,0,32768,32768
264.201,0,0,32768,32768
264.251,1.38778e-17,0,32768,32768
264.301,1.38778e-17,0,32768,32768
264.35,1.38778e-17,0,32768,32768
264.4,1.38778e-17,0,32768,32768
264.45,1.38778e-17,0,32768,32768
264.501,1.38778e-17,0,32768,32768
264.551,1.38778e-17,0,32768,32768
264.601,1.38778e-17,0,32768,32768
264.651,1.38778e-17,0,32768,32768
264.7,2.77556e-17,0,32768,32768
264.75,4.16334e-17,0,32768,32768
264.8,4.16334e-17,0,32768,32768
264.851,4.16334e-17,0,32768,32768
264.901,4.16334e-17,0,32768,32768
264.951,4.16334e-17,0,32768,32768
265.001,4.16334e-17,0,32768,32768
265.051,4.16334e-17,0,32768,32768
265.1,2.77556e-17,0,32768,32768
265.15,2.77556e-17,0,32768,32768
265.201,1.38778e-17,0,32768,32768
265.251,0,0,32768,32768
265.301,0,0,32768,32768
265.351,-2.77556e-17,0,32768,32768
265.401,-4.16334e-17,0,32768,32768
265.45,-4.16334e-17,0,32768,32768
265.5,-4.16334e-17,0,32768,32768
265.551,-4.16334e-17,0,32768,32768
265.601,-4.16334e-17,0,32768,32768
265.651,-4.16334e-17,0,32768,32768
265.701,-4.16334e-17,0,32768,32768
265.751,-2.77556e-17,0,32768,32768
265.8,-2.77556e-17,0,32768,32768
265.85,-2.77556e-17,0,32768,32768
265.9,-1.38778e-17,0,32768,32768
265.951,0,0,32768,32768
266.001,1.38778e-17,0,32768,32768
266.051,1.38778e-17,0,32768,32768
266.101,2.77556e-17,0,32768,32768
266.15,5.55112e-17,0,32768,32768
266.2,4.16334e-17,0,32768,32768
266.25,2.77556e-17,0,32768,32768
266.301,2.77556e-17,0,32768,32768
266.351,2.77556e-17,0,32768,32768
266.401,4.16334e-17,0,32768,32768
266.451,4.16334e-17,0,32768,32768
266.501,5.55112e-17,0,32768,32768
266.55,5.55112e-17,0,32768,32768
266.6,5.55112e-17,0,32768,32768
266.651,5.55112e-17,0,32768,32768
266.701,5.55112e-17,0,32768,32768
266.751,5.55112e-17,0,32768,32768
266.801,4.16334e-17,0,32768,32768
266.851,4.16334e-17,0,32768,32768
266.9,4.16334e-17,0,32768,32768
266.95,4.16334e-17,0,32768,32768
267.001,4.16334e-17,0,32768,32768
267.051,4.16334e-17,0,32768,32768
267.101,4.16334e-17,0,32768,32768
267.151,4.16334e-17,0,32768,32768
267.201,4.16334e-17,0,32768,32768
267.25,5.55112e-17,0,32768,32768
267.3,5.55112e-17,0,32768,32768
267.351,5.55112e-17,0,32768,32768
267.401,5.55112e-17,0,32768,32768
267.451,4.16334e-17,0,32768,32768
267.501,4.16334e-17,0,32768,32768
267.551,5.55112e-17,0,32768,32768
267.6,4.16334e-17,0,32768,32768
267.65,4.16334e-17,0,32768,32768
267.7,4.16334e-17,0,32768,32768
267.751,4.16334e-17,0,32768,32768
267.801,4.16334e-17,0,32768,32768
267.851,4.16334e-17,0,32768,32768
267.901,5.55112e-17,0,32768,32768
267.95,5.55112e-17,0,32768,32768
268,5.55112e-17,0,32768,32768
268.05,5.55112e-17,0,32768,32768
268.1,5.55112e-17,0,33592,33592
268.151,5.55112e-17,0,34360,34360
268.201,5.55112e-17,0,35032,35032
268.25,5.55112e-17,0,35752,35752
268.3,5.55112e-17,0,36472,36472
268.351,5.55112e-17,0,37192,37192
268.4,5.55112e-17,0,37864,37864
268.45,5.55112e-17,0,38584,38584
268.5,5.55112e-17,0,39256,39256
268.551,5.55112e-17,0,39976,39976
268.6,5.55112e-17,0,40648,40648
268.65,5.55112e-17,0,41320,41320
268.701,5.55112e-17,0,42040,42040
268.75,5.55112e-17,0,42712,42712
268.8,5.55112e-17,0,43432,43432
268.85,5.55112e-17,0,44104,44104
268.901,5.55112e-17,0,44776,44776
268.95,5.55112e-17,0,45496,45496
269,5.55112e-17,0,46168,46168
269.051,5.55112e-17,0,46840,46840
269.101,5.55112e-17,0,47560,47560
269.15,5.55112e-17,0,48232,48232
269.2,5.55112e-17,0,48904,48904
269.251,5.55112e-17,0,49576,49576
269.3,5.55112e-17,0,50296,50296
269.35,5.55112e-17,0,50968,50968
269.4,5.55112e-17,0,51640,51640
269.451,5.55112e-17,0,52312,52312
269.5,5.55112e-17,0,52984,52984
269.55,5.55112e-17,0,53656,53656
269.601,5.55112e-17,0,54376,54376
269.65,5.55112e-17,0,55048,55048
269.7,5.55112e-17,0,55720,55720
269.75,5.55112e-17,0,56344,56344
269.801,5.55112e-17,0,57016,57016
269.85,5.55112e-17,0,57688,57688
269.9,5.55112e-17,0,58312,58312
269.95,5.55112e-17,0,58696,58696
270.001,5.55112e-17,0,59368,59368
270.05,5.55112e-17,0,60040,60040
270.1,5.55112e-17,0,60712,60712
270.151,5.55112e-17,0,61384,61384
270.2,5.55112e-17,0,62056,62056
270.25,5.55112e-17,0,62680,62680
270.3,5.55112e-17,0,63352,63352
270.351,5.55112e-17,0,64024,64024
270.4,5.55112e-17,0,64696,64696
270.45,5.55112e-17,0,65368,65368
270.501,5.55112e-17,0,65992,65992
270.551,5.55112e-17,0,66664,66664
270.6,5.55112e-17,0,67336,67336
270.65,5.55112e-17,0,67960,67960
270.701,5.55112e-17,0,68632,68632
270.75,5.55112e-17,0,69256,69256
270.8,5.55112e-17,0,69928,69928
270.85,5.55112e-17,0,70552,70552
270.901,5.55112e-17,0,71176,71176
270.95,5.55112e-17,0,71800,71800
271,5.55112e-17,0,72472,72472
271.051,5.55112e-17,0,73096,73096
271.1,5.55112e-17,0,73720,73720
271.15,5.55112e-17,0,74344,74344
271.2,5.55112e-17,0,74968,74968
271.251,5.55112e-17,0,75592,75592
271.3,5.55112e-17,0,76216,76216
271.35,5.55112e-17,0,76840,76840
271.401,5.55112e-17,0,77464,77464
271.451,5.55112e-17,0,78088,78088
271.5,5.55112e-17,0,78664,78664
271.55,5.55112e-17,0,79288,79288
271.601,5.55112e-17,0,79912,79912
271.65,5.55112e-17,0,80488,80488
271.7,5.55112e-17,0,81112,81112
271.75,5.55112e-17,0,81688,81688
271.801,5.55112e-17,0,82312,82312
271.85,5.55112e-17,0,82888,82888
271.9,5.55112e-17,0,83512,83512
271.951,5.55112e-17,0,84088,84088
272,5.55112e-17,0,84664,84664
272.05,5.55112e-17,0,85288,85288
272.1,5.55112e-17,0,85864,85864
272.151,5.55112e-17,0,86440,86440
272.2,5.55112e-17,0,87016,87016
272.25,5.55112e-17,0,87592,87592
272.3,5.55112e-17,0,88168,88168
272.351,5.55112e-17,0,88744,88744
272.4,5.55112e-17,0,89320,89320
272.45,5.55112e-17,0,89896,89896
272.501,5.55112e-17,0,90472,90472
272.55,5.55112e-17,0,91000,91000
272.6,5.55112e-17,0,91576,91576
272.65,4.16334e-17,0,92152,92152
272.701,4.16334e-17,0,92728,92728
272.75,4.16334e-17,0,93256,93256
272.8,4.16334e-17,0,93832,93832
272.851,4.16334e-17,0,94360,94360
272.9,4.16334e-17,0,94936,94936
272.95,4.16334e-17,0,95464,95464
273,4.16334e-17,0,95992,95992
273.051,4.16334e-17,0,96568,96568
273.1,4.16334e-17,0,97096,97096
273.15,4.16334e-17,0,97624,97624
273.2,4.16334e-17,0,98200,98200
273.251,4.16334e-17,0,98728,98728
273.3,4.16334e-17,0,99256,99256
273.35,4.16334e-17,0,99784,99784
273.401,4.16334e-17,0,100360,100360
273.45,4.16334e-17,0,100888,100888
273.5,4.16334e-17,0,101416,101416
273.55,4.16334e-17,0,101944,101944
273.601,4.16334e-17,0,102472,102472
273.65,4.16334e-17,0,103000,103000
273.7,4.16334e-17,0,103576,103576
273.751,4.16334e-17,0,104104,104104
273.801,4.16334e-17,0,104632,104632
273.85,4.16334e-17,0,105160,105160
273.9,4.16334e-17,0,105688,105688
273.951,4.16334e-17,0,106216,106216
274,4.16334e-17,0,106744,106744
274.05,4.16334e-17,0,107272,107272
274.1,4.16334e-17,0,107800,107800
274.151,4.16334e-17,0,108328,108328
274.2,4.16334e-17,0,108856,108856
274.25,4.16334e-17,0,109384,109384
274.301,4.16334e-17,0,109912,109912
274.35,4.16334e-17,0,110440,110440
274.4,4.16334e-17,0,110920,110920
274.45,4.16334e-17,0,111448,111448
274.501,4.16334e-17,0,111976,111976
274.55,4.16334e-17,0,112504,112504
274.6,4.16334e-17,0,113032,113032
274.651,4.16334e-17,0,113560,113560
274.701,4.16334e-17,0,114040,114040
274.75,4.16334e-17,0,114568,114568
274.8,4.16334e-17,0,115096,115096
274.851,4.16334e-17,0,115624,115624
274.9,4.16334e-17,0,116104,116104
274.95,4.16334e-17,0,116632,116632
275,4.16334e-17,0,117160,117160
275.051,6.245e-16,0,117640,117640
275.1,1.48492e-15,0,118168,118168
275.15,2.40086e-15,0,118696,118696
275.201,3.34455e-15,0,119176,119176
275.25,4.28824e-15,0,119704,119704
275.3,5.59275e-15,0,120184,120184
275.35,7.48013e-15,0,120712,120712
275.401,9.40914e-15,0,121240,121240
275.45,1.13243e-14,0,121720,121720
275.5,1.32394e-14,0,122248,122248
275.55,1.51545e-14,0,122728,122728
275.601,1.75415e-14,0,123256,123256
275.65,2.0331e-14,0,123736,123736
275.7,2.60209e-14,0,124216,124216
275.751,3.77892e-14,0,124696,124696
275.8,3.62904e-14,0,125176,125176
275.85,-9.45077e-14,0,125608,125608
275.9,-7.21465e-13,0,126040,126040
275.951,-2.68732e-12,0,126520,126520
276,-7.10706e-12,0,126952,126952
276.05,-3.12304e-11,0,127336,127336
276.101,-1.17278e-10,0,127768,127768
276.151,-2.70924e-10,0,128152,128152
276.2,-4.17661e-10,0,128584,128584
276.25,-4.28015e-10,0,128968,128968
276.301,-2.4604e-10,0,129352,129352
276.35,2.89924e-11,0,129688,129688
276.4,2.3531e-10,0,130072,130072
276.45,2.64217e-10,0,130408,130408
276.501,1.33573e-10,0,130840,130840
276.55,-1.98155e-11,0,131072,131072
276.6,-5.9632e-11,0,130864,130864
276.651,4.63036e-11,0,130704,130704
276.7,1.94884e-10,0,131072,131072
276.75,2.54526e-10,0,131072,131072
276.8,1.81511e-10,0,131072,131072
276.851,5.2243e-11,0,131072,131072
276.9,-8.56665e-12,0,131072,131072
276.95,4.71182e-11,0,131072,131072
277.001,1.65253e-10,0,131072,131072
277.051,2.40004e-10,0,131072,131072
277.1,2.11558e-10,0,131072,131072
277.15,8.48659e-11,0,131072,131072
277.201,-9.0315e-11,0,130992,130992
277.25,-2.32876e-10,0,131072,131072
277.3,-2.62835e-10,0,131040,131040
277.35,-1.29807e-10,0,131072,131072
277.401,1.09033e-10,0,131072,131072
277.45,2.86739e-10,0,131072,131072
277.5,2.80085e-10,0,131072,131072
277.551,1.39339e-10,0,131072,131072
277.6,8.76458e-11,0,131072,131072
277.65,2.78651e-10,0,131072,131072
277.7,5.68324e-10,0,131072,131072
277.751,5.67544e-10,0,131072,131072
277.8,9.00801e-11,0,131072,131072
277.85,-3.73567e-10,0,131072,131072
277.9,2.88469e-10,0,131072,131072
277.951,3.2025e-09,0,131072,131072
278,8.51865e-09,0,131072,131072
278.05,1.54415e-08,0,131072,131072
278.101,2.26899e-08,0,131072,131072
278.15,2.88283e-08,0,131072,131072
278.2,3.34411e-08,0,131072,131072
278.25,3.68795e-08,0,131072,131072
278.301,4.03344e-08,0,131072,131072
278.35,4.52337e-08,0,131072,131072
278.4,5.28487e-08,0,131072,131072
278.451,6.37939e-08,0,131072,131072
278.5,7.74803e-08,0,131072,131072
278.55,9.37582e-08,0,131072,131072
278.6,1.13036e-07,0,131072,131072
278.651,1.36964e-07,0,131072,131072
278.7,1.66523e-07,0,131072,131072
278.75,2.03348e-07,0,131072,131072
278.8,2.4786e-07,0,131072,131072
278.851,3.00166e-07,0,131072,131072
278.9,3.57212e-07,0,131072,131072
278.95,4.1821e-07,0,131072,131072
279.001,4.83639e-07,0,131072,131072
279.05,5.52375e-07,0,131072,131072
279.1,6.26383e-07,0,131072,131072
279.15,7.0531e-07,0,131072,131072
279.201,7.87601e-07,0,131072,131072
279.25,8.66229e-07,0,131072,131072
279.3,9.37663e-07,0,131072,131072
279.351,9.99472e-07,0,131072,131072
279.401,1.04881e-06,0,131072,131072
279.45,1.08767e-06,0,131072,131072
279.5,1.11835e-06,0,131072,131072
279.551,1.14389e-06,0,131072,131072
279.6,1.16578e-06,0,131072,131072
279.65,1.18579e-06,0,131072,131072
279.7,1.20472e-06,0,131072,131072
279.751,1.22335e-06,0,131072,131072
279.8,1.24137e-06,0,131072,131072
279.85,1.25884e-06,0,131072,131072
279.901,1.27511e-06,0,131072,131072
279.95,1.28815e-06,0,131072,131072
280,1.2965e-06,0,131072,131072
280.05,1.29919e-06,0,131072,131072
280.101,1.29698e-06,0,131072,131072
280.15,1.29271e-06,0,131072,131072
280.2,1.28978e-06,0,131072,131072
280.251,1.29046e-06,0,131072,131072
280.301,1.29452e-06,0,131072,131072
280.35,1.29931e-06,0,131072,131072
280.4,1.30102e-06,0,131072,131072
280.451,1.29587e-06,0,131072,131072
280.5,1.2816e-06,0,131072,131072
280.55,1.25755e-06,0,131072,131072
280.6,1.22492e-06,0,131072,131072
280.651,1.18583e-06,0,131072,131072
280.7,1.14482e-06,0,131072,131072
280.75,1.10414e-06,0,131072,131072
280.801,1.06404e-06,0,131072,131072
280.85,1.02416e-06,0,131072,131072
280.9,9.80926e-07,0,131072,131072
280.95,9.31669e-07,0,131072,131072
281.001,8.74397e-07,0,131072,131072
281.05,8.11341e-07,0,131072,131072
281.1,7.43193e-07,0,131072,131072
281.15,6.71663e-07,0,131072,131072
281.201,5.97408e-07,0,131072,131072
281.25,5.24282e-07,0,131072,131072
281.3,4.52646e-07,0,131072,131072
281.351,3.82639e-07,0,131072,131072
281.4,3.17397e-07,0,131072,131072
281.45,2.5716e-07,0,131072,131072
281.5,2.03102e-07,0,131072,131072
281.551,1.55014e-07,0,131072,131072
281.6,1.13669e-07,0,131072,131072
281.65,7.70677e-08,0,131072,131072
281.701,4.37295e-08,0,131072,131072
281.751,1.44922e-08,0,131072,131072
281.8,-1.04307e-08,0,131072,131072
281.85,-3.02202e-08,0,131072,131072
281.901,-4.5068e-08,0,131072,131072
281.95,-5.58041e-08,0,131072,131072
282,-6.46411e-08,0,131072,131072
282.05,-7.31284e-08,0,131072,131072
282.101,-8.16452e-08,0,131072,131072
282.15,-8.89863e-08,0,131072,131072
282.2,-9.40645e-08,0,131072,131072
282.251,-9.63102e-08,0,131072,131072
282.3,-9.59828e-08,0,131072,131072
282.35,-9.41244e-08,0,131072,131072
282.4,-9.19484e-08,0,131072,131072
282.451,-9.03727e-08,0,131072,131072
282.5,-8.96629e-08,0,131072,131072
282.55,-8.9192e-08,0,131072,131072
282.601,-8.79131e-08,0,131072,131072
282.651,-8.50731e-08,0,131072,131072
282.7,-8.05688e-08,0,131072,131072
282.75,-7.49312e-08,0,131072,131072
282.801,-6.88057e-08,0,131072,131072
282.85,-6.29145e-08,0,131072,131072
282.9,-5.73893e-08,0,131072,131072
282.95,-5.22439e-08,0,131072,131072
283.001,-4.73829e-08,0,131072,131072
283.05,-4.297e-08,0,131072,131072
283.1,-3.90053e-08,0,131072,131072
283.151,-3.54989e-08,0,131072,131072
283.2,-3.252e-08,0,131072,131072
283.25,-2.98991e-08,0,131072,131072
283.3,-2.75302e-08,0,131072,131072
283.351,-2.53543e-08,0,131072,131072
283.4,-2.34613e-08,0,131072,131072
283.45,-2.18451e-08,0,131072,131072
283.5,-2.05081e-08,0,131072,131072
283.551,-1.9418e-08,0,131072,131072
283.6,-1.85787e-08,0,131072,131072
283.65,-1.79435e-08,0,131072,131072
283.701,-1.74801e-08,0,131072,131072
283.75,-1.7179e-08,0,131072,131072
283.8,-1.70121e-08,0,131072,131072
283.85,-1.696e-08,0,131072,131072
283.901,-1.70032e-08,0,131072,131072
283.95,-1.71192e-08,0,131072,131072
284,-1.72893e-08,0,131072,131072
284.051,-1.7503e-08,0,131072,131072
284.101,-1.77461e-08,0,131072,131072
284.15,-1.80173e-08,0,131072,131072
284.2,-1.83128e-08,0,131072,131072
284.251,-1.86312e-08,0,131072,131072
284.3,-1.89546e-08,0,131072,131072
284.35,-1.92779e-08,0,131072,131072
284.4,-1.95934e-08,0,131072,131072
284.451,-1.99014e-08,0,131072,131072
284.5,-2.01923e-08,0,131072,131072
284.55,-2.04725e-08,0,131072,131072
284.601,-2.07478e-08,0,131072,131072
284.65,-2.101e-08,0,131072,131072
284.7,-2.12603e-08,0,131072,131072
284.75,-2.1494e-08,0,131072,131072
284.801,-2.17096e-08,0,131072,131072
284.85,-2.1898e-08,0,131072,131072
284.9,-2.2062e-08,0,131072,131072
284.951,-2.22043e-08,0,131072,131072
285.001,-2.23228e-08,0,131072,131072
285.05,-2.24217e-08,0,131072,131072
285.1,-2.25033e-08,0,131072,131072
285.151,-2.25707e-08,0,131072,131072
285.2,-2.26245e-08,0,131072,131072
285.25,-2.26687e-08,0,131072,131072
285.3,-2.27061e-08,0,131072,131072
285.351,-2.27398e-08,0,131072,131072
285.4,-2.2771e-08,0,131072,131072
285.45,-2.28016e-08,0,131072,131072
285.501,-2.28332e-08,0,131072,131072
285.55,-2.28659e-08,0,131072,131072
285.6,-2.29012e-08,0,131072,131072
285.65,-2.29403e-08,0,131072,131072
285.701,-2.29856e-08,0,131072,131072
285.75,-2.30378e-08,0,131072,131072
285.8,-2.30996e-08,0,131072,131072
285.85,-2.31735e-08,0,131072,131072
285.901,-2.32631e-08,0,131072,131072
285.95,-2.33686e-08,0,131072,131072
286,-2.3494e-08,0,131072,131072
286.051,-2.36451e-08,0,131072,131072
286.1,-2.38211e-08,0,131072,131072
286.15,-2.40279e-08,0,131072,131072
286.2,-2.4269e-08,0,131072,131072
286.251,-2.45518e-08,0,131072,131072
286.3,-2.48708e-08,0,131072,131072
286.35,-2.52318e-08,0,131072,131072
286.401,-2.5643e-08,0,131072,131072
286.451,-2.60941e-08,0,131072,131072
286.5,-2.65913e-08,0,131072,131072
286.55,-2.71341e-08,0,131072,131072
286.601,-2.77293e-08,0,131072,131072
286.65,-2.83552e-08,0,131072,131072
286.7,-2.90145e-08,0,131072,131072
286.75,-2.97008e-08,0,131072,131072
286.801,-3.04183e-08,0,131072,131072
286.85,-3.11403e-08,0,131072,131072
286.9,-3.18728e-08,0,131072,131072
286.951,-3.26232e-08,0,131072,131072
287,-3.33675e-08,0,131072,131072
287.05,-3.41149e-08,0,131072,131072
287.1,-3.48643e-08,0,131072,131072
287.151,-3.56259e-08,0,131072,131072
287.2,-3.63765e-08,0,131072,131072
287.25,-3.71258e-08,0,131072,131072
287.301,-3.78829e-08,0,131072,131072
287.351,-3.86233e-08,0,131072,131072
287.4,-3.93557e-08,0,131072,131072
287.45,-4.00781e-08,0,131072,131072
287.501,-4.07996e-08,0,131072,131072
287.55,-4.14992e-08,0,131072,131072
287.6,-4.21881e-08,0,131072,131072
287.65,-4.28666e-08,0,131072,131072
287.701,-4.35444e-08,0,131072,131072
287.75,-4.42002e-08,0,131072,131072
287.8,-4.48411e-08,0,131072,131072
287.851,-4.54719e-08,0,131072,131072
287.9,-4.60698e-08,0,131072,131072
287.95,-4.66401e-08,0,131072,131072
288,-4.71797e-08,0,131072,131072
288.051,-4.76938e-08,0,131072,131072
288.1,-4.81666e-08,0,131072,131072
288.15,-4.86057e-08,0,131072,131072
288.201,-4.9016e-08,0,131072,131072
288.251,-4.93844e-08,0,131072,131072
288.3,-4.97153e-08,0,131072,131072
288.35,-5.00059e-08,0,131072,131072
288.401,-5.02572e-08,0,131072,131072
288.45,-5.04595e-08,0,131072,131072
288.5,-5.06157e-08,0,131072,131072
288.55,-5.07252e-08,0,131072,131072
288.601,-5.07894e-08,0,131072,131072
288.65,-5.08078e-08,0,131072,131072
288.7,-5.07841e-08,0,131072,131072
288.751,-5.072e-08,0,131072,131072
288.8,-5.06212e-08,0,131072,131072
288.85,-5.0491e-08,0,131072,131072
288.9,-5.03335e-08,0,131072,131072
288.951,-5.01499e-08,0,131072,131072
289,-4.99491e-08,0,131072,131072
289.05,-4.97322e-08,0,131072,131072
289.1,-4.9502e-08,0,131072,131072
289.151,-4.9258e-08,0,131072,131072
289.2,-4.90103e-08,0,131072,131072
289.25,-4.87581e-08,0,131072,131072
289.301,-4.84999e-08,0,131072,131072
289.35,-4.82448e-08,0,131072,131072
289.4,-4.79902e-08,0,131072,131072
289.45,-4.77369e-08,0,131072,131072
289.501,-4.7482e-08,0,131072,131072
289.55,-4.7234e-08,0,131072,131072
289.6,-4.69901e-08,0,131072,131072
289.651,-4.6748e-08,0,131072,131072
289.7,-4.65154e-08,0,131072,131072
289.75,-4.62891e-08,0,131072,131072
289.8,-4.60691e-08,0,131072,131072
289.851,-4.58521e-08,0,131072,131072
289.9,-4.56443e-08,0,131072,131072
289.95,-4.54427e-08,0,131072,131072
290,-4.52475e-08,0,131072,131072
290.051,-4.50564e-08,0,131072,131072
290.1,-4.48752e-08,0,131072,131072
290.15,-4.47013e-08,0,131072,131072
290.201,-4.45321e-08,0,131072,131072
290.25,-4.4372e-08,0,131072,131072
290.3,-4.42181e-08,0,131072,131072
290.35,-4.407e-08,0,131072,131072
290.401,-4.39248e-08,0,131072,131072
290.45,-4.37864e-08,0,131072,131072
290.5,-4.3652e-08,0,131072,131072
290.551,-4.3519e-08,0,131072,131072
290.601,-4.33909e-08,0,131072,131072
290.65,-4.32651e-08,0,131072,131072
290.7,-4.31411e-08,0,131072,131072
290.751,-4.30166e-08,0,131072,131072
290.8,-4.28946e-08,0,131072,131072
290.85,-4.27729e-08,0,131072,131072
290.9,-4.2651e-08,0,131072,131072
290.951,-4.25264e-08,0,131072,131072
291,-4.24025e-08,0,131072,131072
291.05,-4.22768e-08,0,131072,131072
291.101,-4.21472e-08,0,131072,131072
291.15,-4.20169e-08,0,131072,131072
291.2,-4.18839e-08,0,131072,131072
291.25,-4.17476e-08,0,131072,131072
291.301,-4.16058e-08,0,131072,131072
291.35,-4.14622e-08,0,131072,131072
291.4,-4.13145e-08,0,131072,131072
291.451,-4.11604e-08,0,131072,131072
291.501,-4.10042e-08,0,131072,131072
291.55,-4.08435e-08,0,131072,131072
291.6,-4.06782e-08,0,131072,131072
291.651,-4.05058e-08,0,131072,131072
291.7,-4.03312e-08,0,131072,131072
291.75,-4.01517e-08,0,131072,131072
291.8,-3.99672e-08,0,131072,131072
291.851,-3.97744e-08,0,131072,131072
291.9,-3.95784e-08,0,131072,131072
291.95,-3.93756e-08,0,131072,131072
292.001,-3.9162e-08,0,131072,131072
292.05,-3.89431e-08,0,131072,131072
292.1,-3.87153e-08,0,131072,131072
292.15,-3.84786e-08,0,131072,131072
292.201,-3.82295e-08,0,131072,131072
292.25,-3.79752e-08,0,131072,131072
292.3,-3.77121e-08,0,131072,131072
292.35,-3.74396e-08,0,131072,131072
292.401,-3.71523e-08,0,131072,131072
292.45,-3.68571e-08,0,131072,131072
292.5,-3.65481e-08,0,131072,131072
292.551,-3.6218e-08,0,131072,131072
292.6,-3.58739e-08,0,131072,131072
292.65,-3.55081e-08,0,131072,131072
292.7,-3.5117e-08,0,131072,131072
292.751,-3.46905e-08,0,131072,131072
292.8,-3.42366e-08,0,131072,131072
292.85,-3.37453e-08,0,131072,131072
292.901,-3.32049e-08,0,131072,131072
292.951,-3.26275e-08,0,131072,131072
293,-3.20029e-08,0,131072,131072
293.05,-3.13286e-08,0,131072,131072
293.101,-3.05918e-08,0,131072,131072
293.15,-2.9813e-08,0,131072,131072
293.2,-2.89823e-08,0,131072,131072
293.25,-2.81017e-08,0,131072,131072
293.301,-2.71615e-08,0,131072,131072
293.35,-2.61946e-08,0,131072,131072
293.4,-2.51943e-08,0,131072,131072
293.451,-2.41524e-08,0,131072,131072
293.5,-2.31057e-08,0,131072,131072
293.55,-2.20449e-08,0,131072,131072
293.6,-2.09745e-08,0,131072,131072
293.651,-1.98817e-08,0,131072,131072
293.7,-1.88007e-08,0,131072,131072
293.75,-1.7717e-08,0,131072,131072
293.801,-1.66161e-08,0,131072,131072
293.851,-1.55312e-08,0,131072,131072
293.9,-1.44479e-08,0,131072,131072
293.95,-1.33682e-08,0,131072,131072
294.001,-1.22786e-08,0,131072,131072
294.05,-1.12134e-08,0,131072,131072
294.1,-1.01586e-08,0,131072,131072
294.15,-9.11596e-09,0,131072,131072
294.201,-8.07095e-09,0,131072,131072
294.25,-7.05398e-09,0,131072,131072
294.3,-6.04977e-09,0,131072,131072
294.351,-5.0443e-09,0,131072,131072
294.4,-4.0683e-09,0,131072,131072
294.45,-3.10996e-09,0,131072,131072
294.5,-2.1733e-09,0,131072,131072
294.551,-1.24979e-09,0,131072,131072
294.6,-3.70877e-10,0,131072,131072
294.65,4.73142e-10,0,131072,131072
294.7,1.27943e-09,0,131072,131072
294.751,2.05716e-09,0,131072,131072
294.8,2.78265e-09,0,131072,131072
294.85,3.46642e-09,0,131072,131072
294.901,4.11613e-09,0,131072,131072
294.95,4.71091e-09,0,131072,131072
295,5.25804e-09,0,131072,131072
295.05,5.75499e-09,0,131072,131072
295.101,6.20562e-09,0,131072,131072
295.15,6.59514e-09,0,131072,131072
295.2,6.92943e-09,0,131072,131072
295.251,7.21198e-09,0,131072,131072
295.301,7.4354e-09,0,131072,131072
295.35,7.60623e-09,0,131072,131072
295.4,7.72776e-09,0,131072,131072
295.451,7.80521e-09,0,131072,131072
295.5,7.8416e-09,0,131072,131072
295.55,7.84373e-09,0,131072,131072
295.6,7.81673e-09,0,131072,131072
295.651,7.76424e-09,0,131072,131072
295.7,7.69183e-09,0,131072,131072
295.75,7.60265e-09,0,131072,131072
295.801,7.49877e-09,0,131072,131072
295.85,7.38689e-09,0,131072,131072
295.9,7.26895e-09,0,131072,131072
295.95,7.1477e-09,0,131072,131072
296.001,7.02313e-09,0,131072,131072
296.05,6.89984e-09,0,131072,131072
296.1,6.77652e-09,0,131072,131072
296.151,6.65186e-09,0,131072,131072
296.201,6.53032e-09,0,131072,131072
296.25,6.41116e-09,0,131072,131072
296.3,6.29527e-09,0,131072,131072
296.351,6.18129e-09,0,131072,131072
296.4,6.07195e-09,0,131072,131072
296.45,5.96449e-09,0,131072,131072
296.5,5.85804e-09,0,131072,131072
296.551,5.75107e-09,0,131072,131072
296.6,5.64792e-09,0,131072,131072
296.65,5.54932e-09,0,131072,131072
296.701,5.45668e-09,0,131072,131072
296.75,5.37511e-09,0,131072,131072
296.8,5.30471e-09,0,131072,131072
296.85,5.24594e-09,0,131072,131072
296.901,5.19765e-09,0,131072,131072
296.95,5.16009e-09,0,131072,131072
297,5.13096e-09,0,131072,131072
297.05,5.10861e-09,0,131072,131072
297.101,5.09126e-09,0,131072,131072
297.15,5.07807e-09,0,131072,131072
297.2,5.06792e-09,0,131072,131072
297.251,5.06052e-09,0,131072,131072
297.3,5.05647e-09,0,131072,131072
297.35,5.05635e-09,0,131072,131072
297.4,5.06054e-09,0,131072,131072
297.451,5.06884e-09,0,131072,131072
297.5,5.07961e-09,0,131072,131072
297.55,5.09082e-09,0,131072,131072
297.601,5.10029e-09,0,131072,131072
297.651,5.10609e-09,0,131072,131072
297.7,5.10783e-09,0,131072,131072
297.75,5.10621e-09,0,131072,131072
297.801,5.10279e-09,0,131072,131072
297.85,5.0996e-09,0,131072,131072
297.9,5.09813e-09,0,131072,131072
297.95,5.09896e-09,0,131072,131072
298.001,5.10163e-09,0,131072,131072
298.05,5.10468e-09,0,131072,131072
298.1,5.10651e-09,0,131072,131072
298.151,5.10587e-09,0,131072,131072
298.2,5.1024e-09,0,131072,131072
298.25,5.09671e-09,0,131072,131072
298.3,5.09e-09,0,131072,131072
298.351,5.08359e-09,0,131072,131072
298.4,5.07885e-09,0,131072,131072
298.45,5.07645e-09,0,131072,131072
298.501,5.07671e-09,0,131072,131072
298.551,5.07961e-09,0,131072,131072
298.6,5.0849e-09,0,131072,131072
298.65,5.09217e-09,0,131072,131072
298.701,5.10102e-09,0,131072,131072
298.75,5.11046e-09,0,131072,131072
298.8,5.11986e-09,0,131072,131072
298.85,5.12849e-09,0,131072,131072
298.901,5.13603e-09,0,131072,131072
298.95,5.14212e-09,0,131072,131072
299,5.14701e-09,0,131072,131072
299.051,5.1509e-09,0,131072,131072
299.1,5.1536e-09,0,131072,131072
299.15,5.15488e-09,0,131072,131072
299.2,5.15438e-09,0,131072,131072
299.251,5.15188e-09,0,131072,131072
299.3,5.14766e-09,0,131072,131072
299.35,5.14225e-09,0,131072,131072
299.4,5.13622e-09,0,131072,131072
299.451,5.12986e-09,0,131072,131072
299.5,5.1233e-09,0,131072,131072
299.55,5.11611e-09,0,131072,131072
299.601,5.10777e-09,0,131072,131072
299.65,5.09831e-09,0,131072,131072
299.7,5.08772e-09,0,131072,131072
299.75,5.07638e-09,0,131072,131072
299.801,5.06459e-09,0,131072,131072
299.85,5.05297e-09,0,131072,131072
299.9,5.04138e-09,0,131072,131072
299.951,5.02935e-09,0,131072,131072
300,5.01687e-09,0,131072,131072
300.05,5.00342e-09,0,131072,131072
300.1,4.98882e-09,0,131072,131072
300.151,4.97284e-09,0,131072,131072
300.2,4.95601e-09,0,131072,131072
300.25,4.93822e-09,0,131072,131072
300.3,4.91954e-09,0,131072,131072
300.351,4.89971e-09,0,131072,131072
300.4,4.87932e-09,0,131072,131072
300.45,4.85808e-09,0,131072,131072
300.501,4.83565e-09,0,131072,131072
300.55,4.81264e-09,0,131072,131072
300.6,4.78869e-09,0,131072,131072
300.65,4.76374e-09,0,131072,131072
300.701,4.73733e-09,0,131072,131072
300.75,4.71022e-09,0,131072,131072
300.8,4.682e-09,0,131072,131072
300.851,4.65224e-09,0,131072,131072
300.901,4.62179e-09,0,131072,131072
300.95,4.59025e-09,0,131072,131072
301,4.55759e-09,0,131072,131072
301.051,4.52334e-09,0,131072,131072
301.1,4.48847e-09,0,131072,131072
301.15,4.45252e-09,0,131072,131072
301.2,4.41548e-09,0,131072,131072
301.251,4.3768e-09,0,131072,131072
301.3,4.3376e-09,0,131072,131072
301.35,4.29734e-09,0,131072,131072
301.401,4.25543e-09,0,131072,131072
301.45,4.2131e-09,0,131072,131072
301.5,4.16977e-09,0,131072,131072
301.55,4.12548e-09,0,131072,131072
301.601,4.07958e-09,0,131072,131072
301.65,4.03343e-09,0,131072,131072
301.7,3.9864e-09,0,131072,131072
301.751,3.93781e-09,0,131072,131072
301.801,3.8891e-09,0,131072,131072
301.85,3.83961e-09,0,131072,131072
301.9,3.78938e-09,0,131072,131072
301.951,3.73772e-09,0,131072,131072
302,3.68617e-09,0,131072,131072
302.05,3.63406e-09,0,131072,131072
302.1,3.58142e-09,0,131072,131072
302.151,3.52755e-09,0,131072,131072
302.2,3.47406e-09,0,131072,131072
302.25,3.42022e-09,0,131072,131072
302.301,3.36529e-09,0,131072,131072
302.35,3.31095e-09,0,131072,131072
302.4,3.25644e-09,0,131072,131072
302.45,3.20185e-09,0,131072,131072
302.501,3.14643e-09,0,131072,131072
302.55,3.09186e-09,0,131072,131072
302.6,3.0374e-09,0,131072,131072
302.65,2.98313e-09,0,131072,131072
302.701,2.9283e-09,0,131072,131072
302.75,2.87456e-09,0,131072,131072
302.8,2.82116e-09,0,131072,131072
302.851,2.76738e-09,0,131072,131072
302.9,2.71481e-09,0,131072,131072
302.95,2.66269e-09,0,131072,131072
303,2.61106e-09,0,131072,131072
303.051,2.55917e-09,0,131072,131072
303.1,2.50854e-09,0,131072,131072
303.15,2.45843e-09,0,131072,131072
303.201,2.40811e-09,0,131072,131072
303.251,2.35904e-09,0,131072,131072
303.3,2.31048e-09,0,131072,131072
303.35,2.26242e-09,0,131072,131072
303.401,2.21416e-09,0,131072,131072
303.45,2.16708e-09,0,131072,131072
303.5,2.12048e-09,0,131072,131072
303.55,2.07434e-09,0,131072,131072
303.601,2.02797e-09,0,131072,131072
303.65,1.98272e-09,0,131072,131072
303.7,1.93789e-09,0,131072,131072
303.751,1.89281e-09,0,131072,131072
303.8,1.84879e-09,0,131072,131072
303.85,1.80516e-09,0,131072,131072
303.9,1.7619e-09,0,131072,131072
303.951,1.71837e-09,0,131072,131072
304,1.67583e-09,0,131072,131072
304.05,1.63362e-09,0,131072,131072
304.101,1.59112e-09,0,131072,131072
304.151,1.54954e-09,0,131072,131072
304.2,1.50824e-09,0,131072,131072
304.25,1.4672e-09,0,131072,131072
304.301,1.42582e-09,0,131072,131072
304.35,1.38527e-09,0,131072,131072
304.4,1.34494e-09,0,131072,131072
304.45,1.30483e-09,0,131072,131072
304.501,1.26433e-09,0,131072,131072
304.55,1.22463e-09,0,131072,131072
304.6,1.18512e-09,0,131072,131072
304.651,1.14522e-09,0,131072,131072
304.7,1.10609e-09,0,131072,131072
304.75,1.06714e-09,0,131072,131072
304.8,1.02837e-09,0,131072,131072
304.851,9.89222e-10,0,131072,131072
304.9,9.50822e-10,0,131072,131072
304.95,9.1261e-10,0,131072,131072
