250,0,0,8192,8192
250.003,0,0,8192,8192
250.053,0,0,8192,8192
250.103,2.77556e-17,0,8192,8192
250.152,2.77556e-17,0,8192,8192
250.202,0,0,8192,8192
250.252,0,0,8192,8192
250.302,-2.77556e-17,0,8192,8192
250.352,0,0,8192,8192
250.401,0,0,8192,8192
250.451,2.77556e-17,0,8192,8192
250.501,2.77556e-17,0,8192,8192
250.551,2.77556e-17,0,8192,8192
250.6,0,0,8192,8192
250.65,2.77556e-17,0,8192,8192
250.7,-2.77556e-17,0,8192,8192
250.753,0,0,8192,8192
250.803,-2.77556e-17,0,8192,8192
250.852,0,0,8192,8192
250.902,0,0,8192,8192
250.952,0,0,8192,8192
251.002,0,0,8192,8192
251.052,0,0,8192,8192
251.101,0,0,8192,8192
251.151,0,0,8192,8192
251.201,2.77556e-17,0,8192,8192
251.251,2.77556e-17,0,8192,8192
251.301,2.77556e-17,0,8192,8192
251.35,0,0,8192,8192
251.4,5.55112e-17,0,8192,8192
251.453,0,0,8192,8192
251.503,0,0,8192,8192
251.553,-2.77556e-17,0,8192,8192
251.602,0,0,8192,8192
251.652,0,0,8192,8192
251.702,0,0,8192,8192
251.752,0,0,8192,8192
251.801,5.55112e-17,0,8192,8192
251.851,0,0,8192,8192
251.901,2.77556e-17,0,8192,8192
251.951,2.77556e-17,0,8192,8192
252.001,2.77556e-17,0,8192,8192
252.05,0,0,8192,8192
252.1,0,0,8192,8192
252.15,0,0,8192,8192
252.203,-5.55112e-17,0,8192,8192
252.253,-2.77556e-17,0,8192,8192
252.302,0,0,8192,8192
252.352,2.77556e-17,0,8192,8192
252.402,2.77556e-17,0,8192,8192
252.452,2.77556e-17,0,8192,8192
252.502,0,0,8192,8192
252.551,2.77556e-17,0,8192,8192
252.601,0,0,8192,8192
252.651,0,0,8192,8192
252.701,-2.77556e-17,0,8192,8192
252.751,0,0,8192,8192
252.8,2.77556e-17,0,8192,8192
252.85,2.77556e-17,0,8192,8192
252.903,2.77556e-17,0,8192,8192
252.953,2.77556e-17,0,8192,8192
253.002,0,0,8192,8192
253.052,2.77556e-17,0,8192,8192
253.102,0,0,8192,8192
253.152,2.77556e-17,0,8192,8192
253.202,0,0,8192,8192
253.251,2.77556e-17,0,8192,8192
253.301,2.77556e-17,0,8192,8192
253.351,0,0,8192,8192
253.401,2.77556e-17,0,8192,8192
253.451,2.77556e-17,0,8192,8192
253.5,2.77556e-17,0,8192,8192
253.55,2.77556e-17,0,8192,8192
253.6,0,0,8192,8192
253.653,2.77556e-17,0,8192,8192
253.703,2.77556e-17,0,8192,8192
253.752,0,0,8192,8192
253.802,0,0,8192,8192
253.852,0,0,8192,8192
253.902,-2.77556e-17,0,8192,8192
253.952,-5.55112e-17,0,8192,8192
254.001,-8.32667e-17,0,8192,8192
254.051,-2.77556e-17,0,8192,8192
254.101,2.77556e-17,0,8192,8192
254.151,0,0,8192,8192
254.201,-2.77556e-17,0,8192,8192
254.25,-5.55112e-17,0,8192,8192
254.3,-5.55112e-17,0,8192,8192
254.353,-5.55112e-17,0,8192,8192
254.403,-2.77556e-17,0,8192,8192
254.452,-2.77556e-17,0,8192,8192
254.502,0,0,8192,8192
254.552,-2.77556e-17,0,8192,8192
254.602,-2.77556e-17,0,8192,8192
254.652,-2.77556e-17,0,8192,8192
254.701,2.77556e-17,0,8192,8192
254.751,2.77556e-17,0,8192,8192
254.801,5.55112e-17,0,8192,8192
254.851,5.55112e-17,0,8192,8192
254.901,5.55112e-17,0,8192,8192
254.95,8.32667e-17,0,8192,8192
255,5.55112e-17,0,8192,8192
255.05,2.77556e-17,0,8192,8192
255.103,5.55112e-17,0,8192,8192
255.153,2.77556e-17,0,8192,8192
255.202,2.77556e-17,0,8192,8192
255.252,0,0,8192,8192
255.302,0,0,8192,8192
255.352,2.77556e-17,0,8192,8192
255.402,2.77556e-17,0,8192,8192
255.451,2.77556e-17,0,8192,8192
255.501,5.55112e-17,0,8192,8192
255.551,2.77556e-17,0,8192,8192
255.601,8.32667e-17,0,8192,8192
255.651,5.55112e-17,0,8192,8192
255.7,8.32667e-17,0,8192,8192
255.75,5.55112e-17,0,8192,8192
255.803,2.77556e-17,0,8192,8192
255.853,2.77556e-17,0,8192,8192
255.902,0,0,8192,8192
255.952,-2.77556e-17,0,8192,8192
256.002,0,0,8192,8192
256.052,0,0,8192,8192
256.102,0,0,8192,8192
256.151,2.77556e-17,0,8192,8192
256.201,2.77556e-17,0,8192,8192
256.251,2.77556e-17,0,8192,8192
256.301,0,0,8192,8192
256.351,-2.77556e-17,0,8192,8192
256.4,0,0,8192,8192
256.45,2.77556e-17,0,8192,8192
256.5,2.77556e-17,0,8192,8192
256.553,-2.77556e-17,0,8192,8192
256.603,2.77556e-17,0,8192,8192
256.652,2.77556e-17,0,8192,8192
256.702,5.55112e-17,0,8192,8192
256.752,5.55112e-17,0,8192,8192
256.802,5.55112e-17,0,8192,8192
256.852,2.77556e-17,0,8192,8192
256.901,2.77556e-17,0,8192,8192
256.951,2.77556e-17,0,8192,8192
257.001,5.55112e-17,0,8192,8192
257.051,8.32667e-17,0,8192,8192
257.101,1.11022e-16,0,8192,8192
257.15,8.32667e-17,0,8192,8192
257.2,8.32667e-17,0,8192,8192
257.253,1.11022e-16,0,8192,8192
257.303,2.77556e-17,0,8192,8192
257.352,2.77556e-17,0,8192,8192
257.402,2.77556e-17,0,8192,8192
257.452,2.77556e-17,0,8192,8192
257.502,0,0,8192,8192
257.552,2.77556e-17,0,8192,8192
257.601,0,0,8192,8192
257.651,-2.77556e-17,0,8192,8192
257.701,0,0,8192,8192
257.751,2.77556e-17,0,8192,8192
257.801,0,0,8192,8192
257.85,0,0,8192,8192
257.9,0,0,8192,8192
257.95,-2.77556e-17,0,8192,8192
258.003,-2.77556e-17,0,8192,8192
258.053,2.77556e-17,0,8192,8192
258.102,0,0,8192,8192
258.152,0,0,8192,8192
258.202,0,0,8192,8192
258.252,0,0,8192,8192
258.302,-2.77556e-17,0,8192,8192
258.351,-2.77556e-17,0,8192,8192
258.401,-2.77556e-17,0,8192,8192
258.451,-2.77556e-17,0,8192,8192
258.501,-2.77556e-17,0,8192,8192
258.551,-2.77556e-17,0,8192,8192
258.6,2.77556e-17,0,8192,8192
258.65,2.77556e-17,0,8192,8192
258.703,-5.55112e-17,0,8192,8192
258.753,-2.77556e-17,0,8192,8192
258.802,0,0,8192,8192
258.852,-2.77556e-17,0,8192,8192
258.902,-2.77556e-17,0,8192,8192
258.952,0,0,8192,8192
259.002,0,0,8192,8192
259.051,0,0,8192,8192
259.101,0,0,8192,8192
259.151,-2.77556e-17,0,8192,8192
259.201,2.77556e-17,0,8192,8192
259.251,0,0,8192,8192
259.3,0,0,8192,8192
259.35,5.55112e-17,0,8192,8192
259.403,0,0,8192,8192
259.453,2.77556e-17,0,8192,8192
259.503,0,0,8192,8192
259.552,0,0,8192,8192
259.602,0,0,8192,8192
259.652,-2.77556e-17,0,8192,8192
259.702,-2.77556e-17,0,8192,8192
259.751,-2.77556e-17,0,8192,8192
259.801,-2.77556e-17,0,8192,8192
259.851,-2.77556e-17,0,8192,8192
259.901,-2.77556e-17,0,8192,8192
259.951,0,0,8192,8192
260,-2.77556e-17,0,8192,8192
260.05,-5.55112e-17,0,8192,8192
260.1,-8.32667e-17,0,8192,8192
260.153,-5.55112e-17,0,8192,8192
260.203,-2.77556e-17,0,8192,8192
260.252,0,0,8192,8192
260.302,0,0,8192,8192
260.352,0,0,8192,8192
260.402,0,0,8192,8192
260.452,2.77556e-17,0,8192,8192
260.501,2.77556e-17,0,8192,8192
260.551,0,0,8192,8192
260.601,-2.77556e-17,0,8192,8192
260.651,-2.77556e-17,0,8192,8192
260.701,-2.77556e-17,0,8192,8192
260.75,-2.77556e-17,0,8192,8192
260.8,-2.77556e-17,0,8192,8192
260.853,-5.55112e-17,0,8192,8192
260.903,-5.55112e-17,0,8192,8192
260.952,-2.77556e-17,0,8192,8192
261.002,-2.77556e-17,0,8192,8192
261.052,-2.77556e-17,0,8192,8192
261.102,-8.32667e-17,0,8192,8192
261.152,-5.55112e-17,0,8192,8192
261.201,-5.55112e-17,0,8192,8192
261.251,-2.77556e-17,0,8192,8192
261.301,-2.77556e-17,0,8192,8192
261.351,-2.77556e-17,0,8192,8192
261.401,-2.77556e-17,0,8192,8192
261.45,2.77556e-17,0,8192,8192
261.5,0,0,8192,8192
261.55,2.77556e-17,0,8192,8192
261.603,5.55112e-17,0,8192,8192
261.653,5.55112e-17,0,8192,8192
261.702,5.55112e-17,0,8192,8192
261.752,8.32667e-17,0,8192,8192
261.802,5.55112e-17,0,8192,8192
261.852,5.55112e-17,0,8192,8192
261.902,8.32667e-17,0,8192,8192
261.951,5.55112e-17,0,8192,8192
262.001,2.77556e-17,0,8192,8192
262.051,2.77556e-17,0,8192,8192
262.101,2.77556e-17,0,8192,8192
262.151,2.77556e-17,0,8192,8192
262.2,2.77556e-17,0,8192,8192
262.25,2.77556e-17,0,8192,8192
262.303,0,0,8192,8192
262.353,0,0,8192,8192
262.402,0,0,8192,8192
262.452,0,0,8192,8192
262.502,2.77556e-17,0,8192,8192
262.552,2.77556e-17,0,8192,8192
262.602,2.77556e-17,0,8192,8192
262.651,2.77556e-17,0,8192,8192
262.701,2.77556e-17,0,8192,8192
262.751,2.77556e-17,0,8192,8192
262.801,2.77556e-17,0,8192,8192
262.851,2.77556e-17,0,8192,8192
262.9,5.55112e-17,0,8192,8192
262.95,5.55112e-17,0,8192,8192
263,5.55112e-17,0,8192,8192
263.053,5.55112e-17,0,8192,8192
263.103,0,0,8192,8192
263.152,2.77556e-17,0,8192,8192
263.202,0,0,8192,8192
263.252,2.77556e-17,0,8192,8192
263.302,-5.55112e-17,0,8192,8192
263.352,-2.77556e-17,0,8192,8192
263.401,-1.11022e-16,0,8192,8192
263.451,-1.11022e-16,0,8192,8192
263.501,-8.32667e-17,0,8192,8192
263.551,-8.32667e-17,0,8192,8192
263.601,-5.55112e-17,0,8192,8192
263.65,-8.32667e-17,0,8192,8192
263.7,0,0,8192,8192
263.753,-5.55112e-17,0,8192,8192
263.803,-8.32667e-17,0,8192,8192
263.852,-5.55112e-17,0,8192,8192
263.902,-2.77556e-17,0,8192,8192
263.952,0,0,8192,8192
264.002,2.77556e-17,0,8192,8192
264.052,0,0,8192,8192
264.101,0,0,8192,8192
264.151,2.77556e-17,0,8192,8192
264.201,2.77556e-17,0,8192,8192
264.251,2.77556e-17,0,8192,8192
264.301,0,0,8192,8192
264.35,0,0,8192,8192
264.4,0,0,8192,8192
264.45,0,0,8192,8192
264.503,0,0,8192,8192
264.553,2.77556e-17,0,8192,8192
264.602,-2.77556e-17,0,8192,8192
264.652,-2.77556e-17,0,8192,8192
264.702,0,0,8192,8192
264.752,0,0,8192,8192
264.802,0,0,8192,8192
264.851,0,0,8192,8192
264.901,0,0,8192,8192
264.951,0,0,8192,8192
265.001,0,0,8192,8192
265.051,2.77556e-17,0,8192,8192
265.1,2.77556e-17,0,8192,8192
265.15,5.55112e-17,0,8192,8192
265.203,5.55112e-17,0,8192,8192
265.253,2.77556e-17,0,8192,8192
265.302,2.77556e-17,0,8192,8192
265.352,2.77556e-17,0,8192,8192
265.402,2.77556e-17,0,8192,8192
265.452,2.77556e-17,0,8192,8192
265.502,2.77556e-17,0,8192,8192
265.551,0,0,8192,8192
265.601,-2.77556e-17,0,8192,8192
265.651,-2.77556e-17,0,8192,8192
265.701,-2.77556e-17,0,8192,8192
265.751,-2.77556e-17,0,8192,8192
265.8,-5.55112e-17,0,8192,8192
265.85,-8.32667e-17,0,8192,8192
265.9,-8.32667e-17,0,8192,8192
265.953,-8.32667e-17,0,8192,8192
266.003,-1.11022e-16,0,8192,8192
266.052,-1.38778e-16,0,8192,8192
266.102,-8.32667e-17,0,8192,8192
266.152,-8.32667e-17,0,8192,8192
266.202,-5.55112e-17,0,8192,8192
266.252,-5.55112e-17,0,8192,8192
266.301,-2.77556e-17,0,8192,8192
266.351,-2.77556e-17,0,8192,8192
266.401,-2.77556e-17,0,8192,8192
266.451,-2.77556e-17,0,8192,8192
266.501,5.55112e-17,0,8192,8192
266.55,5.55112e-17,0,8192,8192
266.6,8.32667e-17,0,8192,8192
266.653,8.32667e-17,0,8192,8192
266.703,8.32667e-17,0,8192,8192
266.752,1.11022e-16,0,8192,8192
266.802,5.55112e-17,0,8192,8192
266.852,2.77556e-17,0,8192,8192
266.902,2.77556e-17,0,8192,8192
266.952,2.77556e-17,0,8192,8192
267.001,2.77556e-17,0,8192,8192
267.051,2.77556e-17,0,8192,8192
267.101,2.77556e-17,0,8192,8192
267.151,5.55112e-17,0,8192,8192
267.201,5.55112e-17,0,8192,8192
267.25,5.55112e-17,0,8192,8192
267.3,5.55112e-17,0,8192,8192
267.353,0,0,8192,8192
267.403,2.77556e-17,0,8192,8192
267.453,-2.77556e-17,0,8192,8192
267.502,2.77556e-17,0,8192,8192
267.552,0,0,8192,8192
267.602,0,0,8192,8192
267.652,0,0,8192,8192
267.702,2.77556e-17,0,8192,8192
267.751,2.77556e-17,0,8192,8192
267.801,5.55112e-17,0,8192,8192
267.851,5.55112e-17,0,8192,8192
267.901,-2.77556e-17,0,8192,8192
267.95,-2.77556e-17,0,8192,8192
268,0,0,8192,8192
268.05,0,0,8192,8192
268.1,2.77556e-17,0,8192,8192
268.15,2.77556e-17,0,8192,8192
268.203,2.77556e-17,0,8192,8192
268.253,2.77556e-17,0,8192,8192
268.302,2.77556e-17,0,8192,8192
268.352,2.77556e-17,0,8192,8192
268.402,2.77556e-17,0,8192,8192
268.452,2.77556e-17,0,8192,8192
268.502,2.77556e-17,0,8192,8192
268.551,2.77556e-17,0,8192,8192
268.601,2.77556e-17,0,8192,8192
268.651,2.77556e-17,0,8192,8192
268.701,2.77556e-17,0,8192,8192
268.751,2.77556e-17,0,8192,8192
268.8,2.77556e-17,0,8192,8192
268.85,2.77556e-17,0,8192,8192
268.903,5.55112e-17,0,8192,8192
268.953,8.32667e-17,0,8192,8192
269.002,8.32667e-17,0,8192,8192
269.052,8.32667e-17,0,8192,8192
269.102,2.77556e-17,0,8192,8192
269.152,5.55112e-17,0,8192,8192
269.202,5.55112e-17,0,8192,8192
269.251,8.32667e-17,0,8192,8192
269.301,5.55112e-17,0,8192,8192
269.351,2.77556e-17,0,8192,8192
269.401,2.77556e-17,0,8192,8192
269.451,1.11022e-16,0,8192,8192
269.5,1.55431e-14,0,8192,8192
269.55,4.1131e-13,0,8192,8192
269.6,7.09599e-13,0,8192,8192
269.653,-3.20726e-11,0,8192,8192
269.703,-1.74098e-10,0,8192,8192
269.752,-3.81563e-10,0,8192,8192
269.802,-4.46184e-10,0,8192,8192
269.852,-2.70592e-10,0,8192,8192
269.9,1.96206e-11,0,8260,8260
269.951,2.61635e-10,0,8356,8356
270.001,2.97601e-10,0,8476,8476
270.051,1.44968e-10,0,8572,8572
270.101,-5.03431e-11,0,8676,8676
270.15,-1.17398e-10,0,8760,8760
270.2,-5.94652e-12,0,8768,8768
270.25,1.73343e-10,0,8744,8744
270.301,2.57774e-10,0,8804,8804
270.351,1.79987e-10,0,8892,8892
270.4,3.44029e-11,0,9100,9100
270.451,-4.67191e-11,0,9332,9332
270.5,4.05181e-12,0,9556,9556
270.551,1.27042e-10,0,9836,9836
270.6,2.12472e-10,0,10260,10260
270.65,2.01127e-10,0,10892,10892
270.7,1.15361e-10,0,11516,11516
270.751,2.38559e-11,0,12324,12324
270.8,-6.88499e-12,0,13204,13204
270.85,4.50794e-11,0,14084,14084
270.901,1.54129e-10,0,14868,14868
270.95,2.41941e-10,0,15756,15756
271,2.24953e-10,0,16660,16660
271.05,8.29243e-11,0,17500,17500
271.101,-8.26725e-11,0,18404,18404
271.15,-8.89558e-11,0,19292,19292
271.2,1.34455e-10,0,20148,20148
271.251,4.1466e-10,0,20972,20972
271.301,4.08245e-10,0,21812,21812
271.35,-1.60272e-11,0,22644,22644
271.4,-5.03106e-10,0,23484,23484
271.451,-3.07936e-10,0,24060,24060
271.5,1.2155e-09,0,24276,24276
271.55,4.24203e-09,0,24264,24264
271.6,1.10338e-08,0,24248,24248
271.651,1.74608e-08,0,24308,24308
271.7,2.24889e-08,0,24444,24444
271.75,2.60335e-08,0,24636,24636
271.801,2.84278e-08,0,25164,25164
271.85,3.03885e-08,0,25772,25772
271.9,3.31957e-08,0,26436,26436
271.95,3.7918e-08,0,27340,27340
272.001,4.49276e-08,0,28100,28100
272.05,5.66291e-08,0,28932,28932
272.1,6.90112e-08,0,29676,29676
272.151,8.28104e-08,0,30428,30428
272.201,9.78155e-08,0,31172,31172
272.25,1.16181e-07,0,32084,32084
272.3,1.47396e-07,0,33020,33020
272.351,1.79013e-07,0,33884,33884
272.4,2.21942e-07,0,34924,34924
272.45,2.6822e-07,0,35708,35708
272.5,3.16541e-07,0,36572,36572
272.551,3.65144e-07,0,37332,37332
272.6,4.12828e-07,0,38132,38132
272.65,4.63226e-07,0,38956,38956
272.701,5.19817e-07,0,39764,39764
272.75,5.79694e-07,0,40540,40540
272.8,6.38768e-07,0,41356,41356
272.85,6.91858e-07,0,42164,42164
272.901,7.3639e-07,0,43028,43028
272.95,7.69799e-07,0,43820,43820
273,7.92427e-07,0,44564,44564
273.051,8.05988e-07,0,45180,45180
273.101,8.12837e-07,0,45604,45604
273.15,8.14334e-07,0,45852,45852
273.2,8.14382e-07,0,45828,45828
273.251,8.13022e-07,0,45700,45700
273.3,8.10101e-07,0,45676,45676
273.35,8.00723e-07,0,45732,45732
273.4,7.87796e-07,0,45796,45796
273.451,7.70303e-07,0,45844,45844
273.5,7.39826e-07,0,45992,45992
273.55,7.07634e-07,0,46096,46096
273.601,6.6104e-07,0,46032,46032
273.65,6.11966e-07,0,46064,46064
273.7,5.60559e-07,0,46080,46080
273.75,5.10102e-07,0,45648,45648
273.801,4.61802e-07,0,45536,45536
273.85,4.1776e-07,0,45368,45368
273.9,3.77543e-07,0,45176,45176
273.95,3.40878e-07,0,45088,45088
274.001,3.06575e-07,0,45028,45028
274.05,2.74885e-07,0,44920,44920
274.1,2.44723e-07,0,44816,44816
274.151,2.15237e-07,0,44800,44800
274.2,1.87297e-07,0,44864,44864
274.25,1.61875e-07,0,44840,44840
274.3,1.41311e-07,0,44848,44848
274.351,1.26889e-07,0,44872,44872
274.4,1.17233e-07,0,44912,44912
274.45,1.08168e-07,0,44880,44880
274.501,9.6394e-08,0,44752,44752
274.551,8.26483e-08,0,44576,44576
274.6,6.94956e-08,0,44544,44544
274.65,5.91792e-08,0,44456,44456
274.701,5.13094e-08,0,44240,44240
274.751,4.89549e-08,0,44152,44152
274.801,4.63079e-08,0,43928,43928
274.85,4.35068e-08,0,43832,43832
274.9,3.95491e-08,0,43728,43728
274.95,3.4124e-08,0,43664,43664
275,2.80119e-08,0,43520,43520
275.05,2.27708e-08,0,43336,43336
275.101,1.9641e-08,0,43304,43304
275.15,1.88709e-08,0,43160,43160
275.2,1.89752e-08,0,43040,43040
275.25,1.93064e-08,0,42856,42856
275.3,1.96237e-08,0,42808,42808
275.35,1.98361e-08,0,42632,42632
275.4,1.99757e-08,0,42528,42528
275.45,2.00836e-08,0,42408,42408
275.5,2.01574e-08,0,42272,42272
275.55,2.01427e-08,0,42152,42152
275.6,1.99895e-08,0,41992,41992
275.651,1.97211e-08,0,41912,41912
275.701,1.94537e-08,0,41808,41808
275.751,1.92759e-08,0,41600,41600
275.8,1.9202e-08,0,41616,41616
275.851,1.9194e-08,0,41456,41456
275.9,1.92156e-08,0,41368,41368
275.95,1.92461e-08,0,41200,41200
276.001,1.92784e-08,0,41144,41144
276.05,1.93112e-08,0,41000,41000
276.101,1.93452e-08,0,40952,40952
276.151,1.93784e-08,0,40832,40832
276.201,1.94114e-08,0,40792,40792
276.25,1.94439e-08,0,40568,40568
276.3,1.94772e-08,0,40560,40560
276.35,1.95111e-08,0,40376,40376
276.4,1.95457e-08,0,40320,40320
276.45,1.95798e-08,0,40248,40248
276.501,1.96135e-08,0,40160,40160
276.55,1.96471e-08,0,40048,40048
276.6,1.96808e-08,0,39992,39992
276.65,1.97146e-08,0,39968,39968
276.7,1.97483e-08,0,39800,39800
276.751,1.97819e-08,0,39824,39824
276.8,1.98152e-08,0,39640,39640
276.85,1.98493e-08,0,39624,39624
276.9,1.9884e-08,0,39560,39560
276.951,1.99187e-08,0,39376,39376
277,1.99528e-08,0,39272,39272
277.051,1.99877e-08,0,39304,39304
277.101,2.00222e-08,0,39312,39312
277.15,2.00563e-08,0,39128,39128
277.2,2.00913e-08,0,39144,39144
277.251,2.01265e-08,0,38976,38976
277.301,2.01614e-08,0,38984,38984
277.351,2.01966e-08,0,38840,38840
277.401,2.0232e-08,0,38816,38816
277.45,2.02671e-08,0,38784,38784
277.5,2.03026e-08,0,38696,38696
277.551,2.03389e-08,0,38608,38608
277.601,2.03748e-08,0,38568,38568
277.65,2.04105e-08,0,38512,38512
277.701,2.04471e-08,0,38336,38336
277.75,2.04833e-08,0,38352,38352
277.8,2.05198e-08,0,38336,38336
277.851,2.05565e-08,0,38288,38288
277.901,2.05931e-08,0,38168,38168
277.95,2.06289e-08,0,38120,38120
278,2.06645e-08,0,38152,38152
278.05,2.07001e-08,0,37944,37944
278.1,2.07354e-08,0,37976,37976
278.151,2.07698e-08,0,37896,37896
278.2,2.08022e-08,0,37744,37744
278.25,2.08336e-08,0,37768,37768
278.301,2.08631e-08,0,37672,37672
278.35,2.08898e-08,0,37504,37504
278.4,2.0914e-08,0,37448,37448
278.451,2.0936e-08,0,37484,37484
278.5,2.09549e-08,0,37340,37340
278.55,2.09708e-08,0,37156,37156
278.6,2.0983e-08,0,37044,37044
278.65,2.09908e-08,0,36956,36956
278.7,2.09929e-08,0,36948,36948
278.75,2.09881e-08,0,37324,37324
278.801,2.09749e-08,0,37308,37308
278.851,2.09513e-08,0,37100,37100
278.9,2.09154e-08,0,36868,36868
278.951,2.08628e-08,0,36708,36708
279,2.07918e-08,0,36460,36460
279.051,2.06959e-08,0,36180,36180
279.101,2.05757e-08,0,35668,35668
279.15,2.04269e-08,0,35348,35348
279.2,2.02476e-08,0,35220,35220
279.25,2.00361e-08,0,34748,34748
279.3,1.97912e-08,0,34268,34268
279.35,1.95116e-08,0,33828,33828
279.4,1.91967e-08,0,33548,33548
279.45,1.88469e-08,0,33268,33268
279.501,1.84639e-08,0,32748,32748
279.55,1.8059e-08,0,31828,31828
279.601,1.76201e-08,0,31316,31316
279.65,1.71691e-08,0,30820,30820
279.701,1.6693e-08,0,30108,30108
279.751,1.62147e-08,0,29292,29292
279.801,1.57292e-08,0,28652,28652
279.85,1.52394e-08,0,28188,28188
279.9,1.4748e-08,0,27300,27300
279.951,1.42568e-08,0,25964,25964
280.001,1.37682e-08,0,24556,24556
280.05,1.32936e-08,0,23420,23420
280.101,1.28167e-08,0,21524,21524
280.151,1.2363e-08,0,18852,18852
280.201,1.19266e-08,0,15484,15484
280.251,1.15114e-08,0,15676,15676
280.301,1.11225e-08,0,18228,18228
280.351,1.07644e-08,0,19364,19364
280.4,1.04358e-08,0,20716,20716
280.451,1.01303e-08,0,21140,21140
280.501,9.85852e-09,0,22612,22612
280.55,9.61373e-09,0,23508,23508
280.601,9.38982e-09,0,24172,24172
280.65,9.19368e-09,0,24732,24732
280.7,9.01581e-09,0,25244,25244
280.751,8.85894e-09,0,25708,25708
280.8,8.72416e-09,0,26180,26180
280.85,8.60445e-09,0,26580,26580
280.901,8.50088e-09,0,26988,26988
280.951,8.41152e-09,0,27204,27204
281.001,8.33445e-09,0,27388,27388
281.051,8.26799e-09,0,27988,27988
281.101,8.21079e-09,0,28284,28284
281.151,8.1619e-09,0,28772,28772
281.2,8.1206e-09,0,29084,29084
281.25,8.08626e-09,0,29484,29484
281.301,8.05767e-09,0,30004,30004
281.35,8.03507e-09,0,30660,30660
281.401,8.01667e-09,0,31340,31340
281.45,8.0024e-09,0,31972,31972
281.5,7.99108e-09,0,32636,32636
281.551,7.98261e-09,0,33276,33276
281.601,7.97677e-09,0,33964,33964
281.651,7.97336e-09,0,34588,34588
281.701,7.9722e-09,0,35156,35156
281.751,7.97301e-09,0,35348,35348
281.801,7.97545e-09,0,35480,35480
281.85,7.97911e-09,0,35688,35688
281.9,7.98359e-09,0,34952,34952
281.951,7.98868e-09,0,34920,34920
282,7.99393e-09,0,35256,35256
282.051,7.99943e-09,0,35680,35680
282.1,8.00489e-09,0,35900,35900
282.15,8.0105e-09,0,36436,36436
282.201,8.01616e-09,0,36900,36900
282.251,8.0219e-09,0,37244,37244
282.301,8.02771e-09,0,37420,37420
282.35,8.03349e-09,0,37572,37572
282.401,8.03955e-09,0,37684,37684
282.451,8.04554e-09,0,37876,37876
282.501,8.05154e-09,0,37932,37932
282.55,8.05755e-09,0,38028,38028
282.6,8.06356e-09,0,38092,38092
282.651,8.06969e-09,0,38156,38156
282.7,8.07573e-09,0,38268,38268
282.751,8.08192e-09,0,38308,38308
282.801,8.08816e-09,0,38444,38444
282.85,8.09432e-09,0,38548,38548
282.9,8.10067e-09,0,38588,38588
282.95,8.10708e-09,0,38652,38652
283,8.11362e-09,0,38796,38796
283.05,8.12037e-09,0,38892,38892
283.101,8.12766e-09,0,38884,38884
283.151,8.13567e-09,0,38868,38868
283.201,8.14489e-09,0,38964,38964
283.251,8.15599e-09,0,38976,38976
283.3,8.16995e-09,0,39024,39024
283.351,8.18839e-09,0,39080,39080
283.4,8.21225e-09,0,39096,39096
283.45,8.24436e-09,0,39192,39192
283.501,8.28748e-09,0,39256,39256
283.55,8.34258e-09,0,39312,39312
283.601,8.41428e-09,0,39384,39384
283.651,8.50433e-09,0,39424,39424
283.701,8.61526e-09,0,39560,39560
283.75,8.74953e-09,0,39584,39584
283.8,8.90968e-09,0,39664,39664
283.85,9.10213e-09,0,39696,39696
283.9,9.32804e-09,0,39832,39832
283.95,9.59223e-09,0,39824,39824
284.001,9.90686e-09,0,39824,39824
284.05,1.02699e-08,0,39904,39904
284.1,1.0705e-08,0,40056,40056
284.15,1.12204e-08,0,40120,40120
284.2,1.1832e-08,0,40208,40208
284.251,1.25702e-08,0,40288,40288
284.3,1.34278e-08,0,40360,40360
284.35,1.44507e-08,0,40360,40360
284.4,1.56409e-08,0,40472,40472
284.451,1.70353e-08,0,40592,40592
284.5,1.85984e-08,0,40688,40688
284.551,2.03893e-08,0,40656,40656
284.601,2.23875e-08,0,40712,40712
284.651,2.45927e-08,0,40816,40816
284.7,2.70011e-08,0,40888,40888
284.751,2.96491e-08,0,40976,40976
284.801,3.24864e-08,0,40992,40992
284.851,3.54968e-08,0,40992,40992
284.901,3.86601e-08,0,40904,40904
284.95,4.19525e-08,0,40896,40896
285,4.54029e-08,0,40848,40848
285.051,4.89292e-08,0,40856,40856
285.1,5.25041e-08,0,40816,40816
285.15,5.61076e-08,0,40840,40840
285.201,5.97922e-08,0,40944,40944
285.25,6.34574e-08,0,40976,40976
285.3,6.72546e-08,0,41136,41136
285.351,7.11269e-08,0,41072,41072
285.4,7.7663e-08,0,41168,41168
285.45,8.33463e-08,0,41288,41288
285.5,8.89204e-08,0,41456,41456
285.55,9.45703e-08,0,41520,41520
285.6,1.00406e-07,0,41632,41632
285.65,1.06563e-07,0,41768,41768
285.701,1.12961e-07,0,41824,41824
285.75,1.1949e-07,0,41912,41912
285.801,1.26445e-07,0,41984,41984
285.85,1.33535e-07,0,42152,42152
285.9,1.40925e-07,0,42192,42192
285.95,1.48864e-07,0,42352,42352
286,1.58944e-07,0,42448,42448
286.05,1.70205e-07,0,42600,42600
286.101,1.82345e-07,0,42608,42608
286.15,1.95098e-07,0,42728,42728
286.2,2.08843e-07,0,42824,42824
286.25,2.23509e-07,0,42968,42968
286.3,2.50447e-07,0,42984,42984
286.351,2.92325e-07,0,43152,43152
286.401,3.3217e-07,0,43192,43192
286.45,3.73398e-07,0,43240,43240
286.5,4.15936e-07,0,43320,43320
286.551,4.60422e-07,0,43520,43520
286.6,5.05594e-07,0,43544,43544
286.65,5.5199e-07,0,43592,43592
286.7,5.98957e-07,0,43728,43728
286.751,6.45789e-07,0,43744,43744
286.8,6.89103e-07,0,43872,43872
286.85,7.27147e-07,0,43888,43888
286.901,7.58173e-07,0,43976,43976
286.95,7.79927e-07,0,44104,44104
287,7.91865e-07,0,44216,44216
287.05,7.92581e-07,0,44204,44204
287.101,7.90589e-07,0,44196,44196
287.15,7.86191e-07,0,44148,44148
287.2,7.77288e-07,0,44060,44060
287.251,7.658e-07,0,43980,43980
287.301,7.53216e-07,0,43956,43956
287.35,7.39209e-07,0,43772,43772
287.4,7.14746e-07,0,43804,43804
287.451,6.85654e-07,0,43756,43756
287.5,6.476e-07,0,43564,43564
287.55,6.01376e-07,0,43636,43636
287.6,5.51436e-07,0,43308,43308
287.651,4.98055e-07,0,43020,43020
287.7,4.44616e-07,0,43052,43052
287.75,3.92047e-07,0,43020,43020
287.801,3.40957e-07,0,42612,42612
287.85,2.93752e-07,0,42300,42300
287.9,2.50194e-07,0,42564,42564
287.95,2.10397e-07,0,41988,41988
288.001,1.73543e-07,0,41316,41316
288.05,1.40087e-07,0,40588,40588
288.1,1.08969e-07,0,39740,39740
288.151,7.98839e-08,0,38940,38940
288.201,5.41583e-08,0,38092,38092
288.25,3.18385e-08,0,37212,37212
288.3,1.32288e-08,0,36420,36420
288.351,-2.08159e-09,0,35572,35572
288.4,-1.43753e-08,0,34700,34700
288.45,-2.48169e-08,0,33964,33964
288.5,-3.42073e-08,0,33092,33092
288.551,-4.30527e-08,0,32276,32276
288.6,-5.13282e-08,0,31396,31396
288.65,-5.8762e-08,0,30636,30636
288.701,-6.09865e-08,0,30616,30616
288.75,-6.15038e-08,0,30624,30624
288.8,-6.16564e-08,0,30620,30620
288.85,-6.14572e-08,0,30452,30452
288.901,-6.09005e-08,0,30236,30236
288.95,-6.00078e-08,0,29924,29924
289,-5.87776e-08,0,29700,29700
289.05,-5.72114e-08,0,29364,29364
289.101,-5.52809e-08,0,28540,28540
289.15,-5.30578e-08,0,27700,27700
289.2,-5.05349e-08,0,26828,26828
289.251,-4.77053e-08,0,25956,25956
289.3,-4.47017e-08,0,25084,25084
289.35,-4.15481e-08,0,24276,24276
289.4,-3.83179e-08,0,23412,23412
289.451,-3.50399e-08,0,22604,22604
289.5,-3.18812e-08,0,21724,21724
289.55,-2.88557e-08,0,20900,20900
289.601,-2.59727e-08,0,19972,19972
289.651,-2.33511e-08,0,19076,19076
289.7,-2.09618e-08,0,18284,18284
289.75,-1.88068e-08,0,17516,17516
289.801,-1.68587e-08,0,16604,16604
289.85,-1.51688e-08,0,15676,15676
289.9,-1.36985e-08,0,14924,14924
289.95,-1.2437e-08,0,14036,14036
290.001,-1.13574e-08,0,13188,13188
290.05,-1.04747e-08,0,12324,12324
290.1,-9.75483e-09,0,11444,11444
290.151,-9.17329e-09,0,10652,10652
290.2,-8.72897e-09,0,9812,9812
290.25,-8.3955e-09,0,8972,8972
290.301,-8.15443e-09,0,8292,8292
290.351,-7.99864e-09,0,8192,8192
290.401,-7.91303e-09,0,8192,8192
290.45,-7.88898e-09,0,8192,8192
290.5,-7.91762e-09,0,8192,8192
290.553,-7.99542e-09,0,8192,8192
290.603,-8.10617e-09,0,8192,8192
290.653,-8.24657e-09,0,8192,8192
290.702,-8.41037e-09,0,8192,8192
290.752,-8.59426e-09,0,8192,8192
290.802,-8.79397e-09,0,8192,8192
290.852,-9.0011e-09,0,8192,8192
290.902,-9.2081e-09,0,8192,8192
290.951,-9.41067e-09,0,8192,8192
291.001,-9.60599e-09,0,8192,8192
291.051,-9.79188e-09,0,8192,8192
291.101,-9.96686e-09,0,8192,8192
291.15,-1.01299e-08,0,8192,8192
291.2,-1.02809e-08,0,8192,8192
291.25,-1.04198e-08,0,8192,8192
291.303,-1.05531e-08,0,8192,8192
291.353,-1.06649e-08,0,8192,8192
291.402,-1.07626e-08,0,8192,8192
291.452,-1.08458e-08,0,8192,8192
291.502,-1.09144e-08,0,8192,8192
291.552,-1.09695e-08,0,8192,8192
291.602,-1.10126e-08,0,8192,8192
291.651,-1.10455e-08,0,8192,8192
291.701,-1.10695e-08,0,8192,8192
291.751,-1.10861e-08,0,8192,8192
291.801,-1.10959e-08,0,8192,8192
291.851,-1.10998e-08,0,8192,8192
291.9,-1.10978e-08,0,8192,8192
291.95,-1.10894e-08,0,8192,8192
292.003,-1.10757e-08,0,8192,8192
292.053,-1.10614e-08,0,8192,8192
292.103,-1.10474e-08,0,8192,8192
292.152,-1.10344e-08,0,8192,8192
292.202,-1.10228e-08,0,8192,8192
292.252,-1.10132e-08,0,8192,8192
292.302,-1.10064e-08,0,8192,8192
292.351,-1.10029e-08,0,8192,8192
292.401,-1.10033e-08,0,8192,8192
292.451,-1.10079e-08,0,8192,8192
292.501,-1.10172e-08,0,8192,8192
292.551,-1.10316e-08,0,8192,8192
292.6,-1.10515e-08,0,8192,8192
292.65,-1.10772e-08,0,8192,8192
292.7,-1.11091e-08,0,8192,8192
292.753,-1.11498e-08,0,8192,8192
292.803,-1.11949e-08,0,8192,8192
292.852,-1.12465e-08,0,8192,8192
292.902,-1.13045e-08,0,8192,8192
292.952,-1.1369e-08,0,8192,8192
293.002,-1.14398e-08,0,8192,8192
293.052,-1.1517e-08,0,8192,8192
293.101,-1.16005e-08,0,8192,8192
293.151,-1.16906e-08,0,8192,8192
293.201,-1.17875e-08,0,8192,8192
293.251,-1.18915e-08,0,8192,8192
293.301,-1.20032e-08,0,8192,8192
293.35,-1.21232e-08,0,8192,8192
293.4,-1.22526e-08,0,8192,8192
293.453,-1.24009e-08,0,8192,8192
293.503,-1.25529e-08,0,8192,8192
293.552,-1.27182e-08,0,8192,8192
293.602,-1.28981e-08,0,8192,8192
293.652,-1.30942e-08,0,8192,8192
293.702,-1.3308e-08,0,8192,8192
293.752,-1.35408e-08,0,8192,8192
293.801,-1.37935e-08,0,8192,8192
293.851,-1.4067e-08,0,8192,8192
293.901,-1.43616e-08,0,8192,8192
293.951,-1.46771e-08,0,8192,8192
294.001,-1.50128e-08,0,8192,8192
294.05,-1.53676e-08,0,8192,8192
294.1,-1.57398e-08,0,8192,8192
294.15,-1.6127e-08,0,8192,8192
294.203,-1.65505e-08,0,8192,8192
294.253,-1.696e-08,0,8192,8192
294.302,-1.73753e-08,0,8192,8192
294.352,-1.77931e-08,0,8192,8192
294.402,-1.82098e-08,0,8192,8192
294.452,-1.86222e-08,0,8192,8192
294.502,-1.90269e-08,0,8192,8192
294.551,-1.94208e-08,0,8192,8192
294.601,-1.98011e-08,0,8192,8192
294.651,-2.01649e-08,0,8192,8192
294.701,-2.05096e-08,0,8192,8192
294.751,-2.08327e-08,0,8192,8192
294.8,-2.11319e-08,0,8192,8192
294.85,-2.14054e-08,0,8192,8192
294.903,-2.16649e-08,0,8192,8192
294.953,-2.18803e-08,0,8192,8192
295.002,-2.2066e-08,0,8192,8192
295.052,-2.22217e-08,0,8192,8192
295.102,-2.23474e-08,0,8192,8192
295.152,-2.24438e-08,0,8192,8192
295.202,-2.25119e-08,0,8192,8192
295.251,-2.2553e-08,0,8192,8192
295.301,-2.25688e-08,0,8192,8192
295.351,-2.25611e-08,0,8192,8192
295.401,-2.2532e-08,0,8192,8192
295.451,-2.24835e-08,0,8192,8192
295.5,-2.24177e-08,0,8192,8192
295.55,-2.23366e-08,0,8192,8192
295.6,-2.22424e-08,0,8192,8192
295.653,-2.21303e-08,0,8192,8192
295.703,-2.20148e-08,0,8192,8192
295.752,-2.18917e-08,0,8192,8192
295.802,-2.17625e-08,0,8192,8192
295.852,-2.16287e-08,0,8192,8192
295.902,-2.14916e-08,0,8192,8192
295.952,-2.13525e-08,0,8192,8192
296.001,-2.12124e-08,0,8192,8192
296.051,-2.10722e-08,0,8192,8192
296.101,-2.0933e-08,0,8192,8192
296.151,-2.07954e-08,0,8192,8192
296.201,-2.06601e-08,0,8192,8192
296.25,-2.05277e-08,0,8192,8192
296.3,-2.03985e-08,0,8192,8192
296.353,-2.02657e-08,0,8192,8192
296.403,-2.01444e-08,0,8192,8192
296.452,-2.00272e-08,0,8192,8192
296.502,-1.99143e-08,0,8192,8192
296.552,-1.98058e-08,0,8192,8192
296.602,-1.97017e-08,0,8192,8192
296.652,-1.96019e-08,0,8192,8192
296.701,-1.95065e-08,0,8192,8192
296.751,-1.94153e-08,0,8192,8192
296.801,-1.93281e-08,0,8192,8192
296.851,-1.92448e-08,0,8192,8192
296.901,-1.91651e-08,0,8192,8192
296.95,-1.90887e-08,0,8192,8192
297,-1.90155e-08,0,8192,8192
297.05,-1.8945e-08,0,8192,8192
297.103,-1.88731e-08,0,8192,8192
297.153,-1.88074e-08,0,8192,8192
297.202,-1.87436e-08,0,8192,8192
297.252,-1.86813e-08,0,8192,8192
297.302,-1.86202e-08,0,8192,8192
297.352,-1.85602e-08,0,8192,8192
297.402,-1.85008e-08,0,8192,8192
297.451,-1.8442e-08,0,8192,8192
297.501,-1.83834e-08,0,8192,8192
297.551,-1.83249e-08,0,8192,8192
297.601,-1.82662e-08,0,8192,8192
297.651,-1.82073e-08,0,8192,8192
297.7,-1.81479e-08,0,8192,8192
297.75,-1.80879e-08,0,8192,8192
297.803,-1.80237e-08,0,8192,8192
297.853,-1.79622e-08,0,8192,8192
297.902,-1.78997e-08,0,8192,8192
297.952,-1.78362e-08,0,8192,8192
298.002,-1.77716e-08,0,8192,8192
298.052,-1.77057e-08,0,8192,8192
298.102,-1.76384e-08,0,8192,8192
298.151,-1.75696e-08,0,8192,8192
298.201,-1.74991e-08,0,8192,8192
298.251,-1.74269e-08,0,8192,8192
298.301,-1.73526e-08,0,8192,8192
298.351,-1.72763e-08,0,8192,8192
298.4,-1.71975e-08,0,8192,8192
298.45,-1.71163e-08,0,8192,8192
298.503,-1.70273e-08,0,8192,8192
298.553,-1.69401e-08,0,8192,8192
298.603,-1.68497e-08,0,8192,8192
298.652,-1.6756e-08,0,8192,8192
298.702,-1.66585e-08,0,8192,8192
298.752,-1.65573e-08,0,8192,8192
298.802,-1.6452e-08,0,8192,8192
298.852,-1.63425e-08,0,8192,8192
298.901,-1.62286e-08,0,8192,8192
298.951,-1.61102e-08,0,8192,8192
299.001,-1.59871e-08,0,8192,8192
299.051,-1.58592e-08,0,8192,8192
299.1,-1.57264e-08,0,8192,8192
299.15,-1.55887e-08,0,8192,8192
299.2,-1.54458e-08,0,8192,8192
299.253,-1.52889e-08,0,8192,8192
299.303,-1.51354e-08,0,8192,8192
299.352,-1.49764e-08,0,8192,8192
299.402,-1.48121e-08,0,8192,8192
299.452,-1.46422e-08,0,8192,8192
299.502,-1.44668e-08,0,8192,8192
299.552,-1.42858e-08,0,8192,8192
299.601,-1.40992e-08,0,8192,8192
299.651,-1.39068e-08,0,8192,8192
299.701,-1.37085e-08,0,8192,8192
299.751,-1.35042e-08,0,8192,8192
299.801,-1.32936e-08,0,8192,8192
299.85,-1.30764e-08,0,8192,8192
299.9,-1.2852e-08,0,8192,8192
299.953,-1.26059e-08,0,8192,8192
300.003,-1.23646e-08,0,8192,8192
300.053,-1.21134e-08,0,8192,8192
300.102,-1.18512e-08,0,8192,8192
300.152,-1.15763e-08,0,8192,8192
300.202,-1.12871e-08,0,8192,8192
300.252,-1.09817e-08,0,8192,8192
300.301,-1.06583e-08,0,8192,8192
300.351,-1.03151e-08,0,8192,8192
300.401,-9.95056e-09,0,8192,8192
300.451,-9.56323e-09,0,8192,8192
300.501,-9.15219e-09,0,8192,8192
300.55,-8.71692e-09,0,8192,8192
300.6,-8.25743e-09,0,8192,8192
300.65,-7.77431e-09,0,8192,8192
300.703,-7.23833e-09,0,8192,8192
300.753,-6.71092e-09,0,8192,8192
300.802,-6.16532e-09,0,8192,8192
300.852,-5.60437e-09,0,8192,8192
300.902,-5.03135e-09,0,8192,8192
300.952,-4.44984e-09,0,8192,8192
301.002,-3.86362e-09,0,8192,8192
301.051,-3.27661e-09,0,8192,8192
301.101,-2.69272e-09,0,8192,8192
301.151,-2.11585e-09,0,8192,8192
301.201,-1.5498e-09,0,8192,8192
301.251,-9.98263e-10,0,8192,8192
301.3,-4.64776e-10,0,8192,8192
301.35,4.7272e-11,0,8192,8192
301.403,5.62543e-10,0,8192,8192
301.453,1.02072e-09,0,8192,8192
301.502,1.4486e-09,0,8192,8192
301.552,1.84399e-09,0,8192,8192
301.602,2.20517e-09,0,8192,8192
301.652,2.53095e-09,0,8192,8192
301.702,2.82067e-09,0,8192,8192
301.751,3.0743e-09,0,8192,8192
301.801,3.29232e-09,0,8192,8192
301.851,3.47573e-09,0,8192,8192
301.901,3.62597e-09,0,8192,8192
301.951,3.74484e-09,0,8192,8192
302,3.83442e-09,0,8192,8192
302.05,3.89697e-09,0,8192,8192
302.1,3.9349e-09,0,8192,8192
302.153,3.95095e-09,0,8192,8192
302.203,3.94591e-09,0,8192,8192
302.252,3.92371e-09,0,8192,8192
302.302,3.88669e-09,0,8192,8192
302.352,3.83707e-09,0,8192,8192
302.402,3.77694e-09,0,8192,8192
302.452,3.70828e-09,0,8192,8192
302.501,3.6329e-09,0,8192,8192
302.551,3.55248e-09,0,8192,8192
302.601,3.46857e-09,0,8192,8192
302.651,3.38259e-09,0,8192,8192
302.701,3.29582e-09,0,8192,8192
302.75,3.20942e-09,0,8192,8192
302.8,3.12441e-09,0,8192,8192
302.853,3.03691e-09,0,8192,8192
302.903,2.95743e-09,0,8192,8192
302.952,2.88168e-09,0,8192,8192
303.002,2.81017e-09,0,8192,8192
303.052,2.7433e-09,0,8192,8192
303.102,2.68137e-09,0,8192,8192
303.152,2.62459e-09,0,8192,8192
303.201,2.57306e-09,0,8192,8192
303.251,2.52683e-09,0,8192,8192
303.301,2.48582e-09,0,8192,8192
303.351,2.44993e-09,0,8192,8192
303.401,2.41895e-09,0,8192,8192
303.45,2.39261e-09,0,8192,8192
303.5,2.37058e-09,0,8192,8192
303.55,2.3525e-09,0,8192,8192
303.603,2.33717e-09,0,8192,8192
303.653,2.32581e-09,0,8192,8192
303.702,2.31698e-09,0,8192,8192
303.752,2.31014e-09,0,8192,8192
303.802,2.30476e-09,0,8192,8192
303.852,2.3003e-09,0,8192,8192
303.902,2.29625e-09,0,8192,8192
303.951,2.29216e-09,0,8192,8192
304.001,2.28765e-09,0,8192,8192
304.051,2.28246e-09,0,8192,8192
304.101,2.27647e-09,0,8192,8192
304.151,2.26965e-09,0,8192,8192
304.2,2.26212e-09,0,8192,8192
304.25,2.25408e-09,0,8192,8192
304.303,2.24528e-09,0,8192,8192
304.353,2.23699e-09,0,8192,8192
304.402,2.22897e-09,0,8192,8192
304.452,2.2214e-09,0,8192,8192
304.502,2.21442e-09,0,8192,8192
304.552,2.20811e-09,0,8192,8192
304.602,2.20252e-09,0,8192,8192
304.651,2.19765e-09,0,8192,8192
304.701,2.19354e-09,0,8192,8192
304.751,2.19023e-09,0,8192,8192
304.801,2.18778e-09,0,8192,8192
304.851,2.18625e-09,0,8192,8192
304.9,2.1857e-09,0,8192,8192
304.95,2.18618e-09,0,8192,8192
