250,0,0,512,512
250.012,0,0,512,512
250.059,0,0,512,512
250.105,0,0,512,512
250.152,0,0,512,512
250.211,0,0,512,512
250.258,0,0,512,512
250.305,0,0,512,512
250.352,0,0,512,512
250.41,0,0,512,512
250.457,0,0,512,512
250.504,0,0,512,512
250.551,0,0,512,512
250.609,0,0,512,512
250.656,0,0,512,512
250.703,0,0,512,512
250.762,0,0,512,512
250.808,0,0,512,512
250.855,0,0,512,512
250.902,0,0,512,512
250.961,0,0,512,512
251.008,0,0,512,512
251.055,0,0,512,512
251.101,0,0,512,512
251.16,0,0,512,512
251.207,0,0,512,512
251.254,0,0,512,512
251.301,0,0,512,512
251.359,0,0,512,512
251.406,0,0,512,512
251.453,0,0,512,512
251.511,0,0,512,512
251.558,0,0,512,512
251.605,0,0,512,512
251.652,0,0,512,512
251.711,0,0,512,512
251.758,0,0,512,512
251.804,0,0,512,512
251.851,0,0,512,512
251.91,0,0,512,512
251.957,0,0,512,512
252.004,0,0,512,512
252.05,0,0,512,512
252.109,0,0,512,512
252.156,0,0,512,512
252.203,0,0,512,512
252.261,0,0,512,512
252.308,0,0,512,512
252.355,0,0,512,512
252.402,0,0,512,512
252.461,0,0,512,512
252.507,0,0,512,512
252.554,0,0,512,512
252.601,0,0,512,512
252.66,0,0,512,512
252.707,0,0,512,512
252.754,0,0,512,512
252.8,0,0,512,512
252.859,0,0,512,512
252.906,0,0,512,512
252.953,0,0,512,512
253.011,0,0,512,512
253.058,0,0,512,512
253.105,0,0,512,512
253.152,0,0,512,512
253.21,0,0,512,512
253.257,0,0,512,512
253.304,0,0,512,512
253.351,0,0,512,512
253.41,0,0,512,512
253.457,0,0,512,512
253.503,0,0,512,512
253.55,0,0,512,512
253.609,0,0,512,512
253.656,0,0,512,512
253.703,0,0,512,512
253.761,0,0,512,512
253.808,0,0,512,512
253.855,0,0,512,512
253.902,0,0,512,512
253.96,0,0,512,512
254.007,0,0,512,512
254.054,0,0,512,512
254.101,0,0,512,512
254.16,0,0,512,512
254.206,0,0,512,512
254.253,0,0,512,512
254.3,0,0,512,512
254.359,0,0,512,512
254.406,0,0,512,512
254.452,0,0,512,512
254.511,0,0,512,512
254.558,0,0,512,512
254.605,0,0,512,512
254.652,0,0,512,512
254.71,0,0,512,512
254.757,0,0,512,512
254.804,0,0,512,512
254.851,0,0,512,512
254.909,0,0,512,512
254.956,0,0,512,512
255.003,0,0,512,512
255.05,0,0,512,512
255.109,0,0,512,512
255.155,0,0,512,512
255.202,0,0,512,512
255.261,0,0,512,512
255.308,0,0,512,512
255.355,0,0,512,512
255.402,0,0,512,512
255.46,0,0,512,512
255.507,0,0,512,512
255.554,0,0,512,512
255.601,0,0,512,512
255.659,0,0,512,512
255.706,0,0,512,512
255.753,0,0,512,512
255.812,0,0,512,512
255.859,0,0,512,512
255.905,0,0,512,512
255.952,0,0,512,512
256.011,0,0,512,512
256.058,0,0,512,512
256.105,0,0,512,512
256.151,0,0,512,512
256.21,0,0,512,512
256.257,0,0,512,512
256.304,0,0,512,512
256.351,0,0,512,512
256.409,0,0,512,512
256.456,0,0,512,512
256.503,0,0,512,512
256.562,0,0,512,512
256.608,0,0,512,512
256.655,0,0,512,512
256.702,0,0,512,512
256.761,0,0,512,512
256.808,0,0,512,512
256.854,0,0,512,512
256.901,0,0,512,512
256.96,0,0,512,512
257.007,0,0,512,512
257.054,0,0,512,512
257.101,0,0,512,512
257.159,0,0,512,512
257.206,0,0,512,512
257.253,0,0,512,512
257.311,0,0,512,512
257.358,0,0,512,512
257.405,0,0,512,512
257.452,0,0,512,512
257.511,0,0,512,512
257.557,0,0,512,512
257.604,0,0,512,512
257.651,0,0,512,512
257.71,0,0,512,512
257.757,0,0,512,512
257.804,0,0,512,512
257.85,0,0,512,512
257.909,0,0,512,512
257.956,0,0,512,512
258.003,0,0,512,512
258.061,0,0,512,512
258.108,0,0,512,512
258.155,0,0,512,512
258.202,0,0,512,512
258.261,0,0,512,512
258.307,0,0,512,512
258.354,0,0,512,512
258.401,0,0,512,512
258.46,0,0,512,512
258.507,0,0,512,512
258.553,0,0,512,512
258.6,0,0,512,512
258.659,0,0,512,512
258.706,0,0,512,512
258.753,0,0,512,512
258.811,0,0,512,512
258.858,0,0,512,512
258.905,0,0,512,512
258.952,0,0,512,512
259.01,0,0,512,512
259.057,0,0,512,512
259.104,0,0,512,512
259.151,0,0,512,512
259.21,0,0,512,512
259.256,0,0,512,512
259.303,0,0,512,512
259.35,0,0,512,512
259.409,0,0,512,512
259.456,0,0,512,512
259.503,0,0,512,512
259.561,0,0,512,512
259.608,0,0,512,512
259.655,0,0,512,512
259.702,0,0,512,512
259.76,0,0,512,512
259.807,0,0,512,512
259.854,0,0,512,512
259.901,0,0,512,512
259.959,0,0,512,512
260.006,0,0,512,512
260.053,0,0,512,512
260.1,0,0,512,512
260.159,0,0,512,512
260.206,0,0,512,512
260.252,-5.55112e-17,0,512,512
260.311,-5.55112e-17,0,512,512
260.358,-5.55112e-17,0,512,512
260.405,-5.55112e-17,0,512,512
260.452,-5.55112e-17,0,512,512
260.51,-2.77556e-17,0,512,512
260.557,-2.77556e-17,0,512,512
260.604,-2.77556e-17,0,512,512
260.651,-2.77556e-17,0,512,512
260.709,-2.77556e-17,0,512,512
260.756,-2.77556e-17,0,512,512
260.803,-2.77556e-17,0,512,512
260.862,-2.77556e-17,0,512,512
260.909,-2.77556e-17,0,512,512
260.955,-2.77556e-17,0,512,512
261.002,-2.77556e-17,0,512,512
261.061,-2.77556e-17,0,512,512
261.108,-2.77556e-17,0,512,512
261.155,-2.77556e-17,0,512,512
261.201,-2.77556e-17,0,512,512
261.26,0,0,512,512
261.307,0,0,512,512
261.354,0,0,512,512
261.401,0,0,512,512
261.459,0,0,512,512
261.506,0,0,512,512
261.553,0,0,512,512
261.612,2.77556e-17,0,512,512
261.658,2.77556e-17,0,512,512
261.705,2.77556e-17,0,512,512
261.752,2.77556e-17,0,512,512
261.811,2.77556e-17,0,512,512
261.858,2.77556e-17,0,512,512
261.905,2.77556e-17,0,512,512
261.951,2.77556e-17,0,512,512
262.01,5.55112e-17,0,512,512
262.057,5.55112e-17,0,512,512
262.104,5.55112e-17,0,512,512
262.151,5.55112e-17,0,512,512
262.209,5.55112e-17,0,512,512
262.256,2.77556e-17,0,512,512
262.303,2.77556e-17,0,512,512
262.361,2.77556e-17,0,512,512
262.408,2.77556e-17,0,512,512
262.455,5.55112e-17,0,512,512
262.502,5.55112e-17,0,512,512
262.561,5.55112e-17,0,512,512
262.608,5.55112e-17,0,512,512
262.654,5.55112e-17,0,512,512
262.701,5.55112e-17,0,512,512
262.76,5.55112e-17,0,512,512
262.807,5.55112e-17,0,512,512
262.854,5.55112e-17,0,512,512
262.9,5.55112e-17,0,512,512
262.959,5.55112e-17,0,512,512
263.006,5.55112e-17,0,512,512
263.053,5.55112e-17,0,512,512
263.111,5.55112e-17,0,512,512
263.158,2.77556e-17,0,512,512
263.205,2.77556e-17,0,512,512
263.252,5.55112e-17,0,512,512
263.311,2.77556e-17,0,512,512
263.357,0,0,512,512
263.404,0,0,512,512
263.451,0,0,512,512
263.51,0,0,512,512
263.557,0,0,512,512
263.603,0,0,512,512
263.65,0,0,512,512
263.709,0,0,512,512
263.756,0,0,512,512
263.803,0,0,512,512
263.861,0,0,512,512
263.908,0,0,512,512
263.955,0,0,512,512
264.002,0,0,512,512
264.06,0,0,512,512
264.107,0,0,512,512
264.154,0,0,512,512
264.201,0,0,512,512
264.26,0,0,512,512
264.306,0,0,512,512
264.353,0,0,512,512
264.4,2.77556e-17,0,512,512
264.459,2.77556e-17,0,512,512
264.506,2.77556e-17,0,512,512
264.553,0,0,512,512
264.611,0,0,512,512
264.658,0,0,512,512
264.705,0,0,512,512
264.752,0,0,512,512
264.81,0,0,512,512
264.857,0,0,512,512
264.904,0,0,512,512
264.951,0,0,512,512
265.01,0,0,512,512
265.056,0,0,512,512
265.103,0,0,512,512
265.15,0,0,512,512
265.209,0,0,512,512
265.256,0,0,512,512
265.302,0,0,512,512
265.361,0,0,512,512
265.408,0,0,512,512
265.455,0,0,512,512
265.502,0,0,512,512
265.56,0,0,512,512
265.607,0,0,512,512
265.654,0,0,512,512
265.701,0,0,512,512
265.759,0,0,512,512
265.806,0,0,512,512
265.853,0,0,512,512
265.9,0,0,512,512
265.959,0,0,512,512
266.005,0,0,512,512
266.052,0,0,512,512
266.111,0,0,512,512
266.158,0,0,512,512
266.205,0,0,512,512
266.252,0,0,512,512
266.31,0,0,512,512
266.357,0,0,512,512
266.404,0,0,512,512
266.451,0,0,512,512
266.509,0,0,512,512
266.556,0,0,512,512
266.603,0,0,512,512
266.662,0,0,512,512
266.708,0,0,512,512
266.755,0,0,512,512
266.802,0,0,512,512
266.861,0,0,512,512
266.908,0,0,512,512
266.955,0,0,512,512
267.001,0,0,512,512
267.06,0,0,512,512
267.107,0,0,512,512
267.154,0,0,512,512
267.201,0,0,512,512
267.259,0,0,512,512
267.306,0,0,512,512
267.353,0,0,512,512
267.412,0,0,512,512
267.458,0,0,512,512
267.505,0,0,512,512
267.552,0,0,512,512
267.611,0,0,512,512
267.658,0,0,512,512
267.704,0,0,512,512
267.751,0,0,512,512
267.81,0,0,512,512
267.857,0,0,512,512
267.904,0,0,512,512
267.95,0,0,512,512
268.009,0,0,512,512
268.056,0,0,512,512
268.101,0,0,641,641
268.15,0,0,701,701
268.2,0,0,761,761
268.253,0,0,821,821
268.303,0,0,881,881
268.353,0,0,941,941
268.402,0,0,1001,1001
268.452,0,0,1061,1061
268.502,0,0,1103,1103
268.552,0,0,1163,1163
268.601,0,0,1223,1223
268.651,0,0,1283,1283
268.701,0,0,1343,1343
268.751,0,0,1403,1403
268.801,0,0,1451,1451
268.85,0,0,1511,1511
268.9,0,0,1571,1571
268.95,0,0,1631,1631
269.003,0,0,1691,1691
269.053,0,0,1733,1733
269.102,0,0,1793,1793
269.152,0,0,1853,1853
269.202,0,0,1913,1913
269.252,0,0,1961,1961
269.302,0,0,2021,2021
269.351,0,0,2081,2081
269.401,0,0,2123,2123
269.451,0,0,2183,2183
269.501,0,0,2243,2243
269.551,0,0,2291,2291
269.6,0,0,2351,2351
269.65,0,0,2411,2411
269.703,0,0,2471,2471
269.753,0,0,2513,2513
269.802,0,0,2573,2573
269.852,0,0,2621,2621
269.902,0,0,2681,2681
269.952,0,0,2723,2723
270.002,0,0,2783,2783
270.051,0,0,2837,2837
270.101,0,0,2891,2891
270.151,0,0,2947,2947
270.201,0,0,2993,2993
270.251,0,0,3041,3041
270.3,0,0,3101,3101
270.35,0,0,3143,3143
270.4,0,0,3191,3191
270.453,0,0,3221,3221
270.503,0,0,3263,3263
270.552,0,0,3323,3323
270.602,0,0,3371,3371
270.652,0,0,3431,3431
270.702,0,0,3473,3473
270.752,0,0,3533,3533
270.801,0,0,3581,3581
270.851,0,0,3641,3641
270.901,0,0,3683,3683
270.951,0,0,3743,3743
271.001,0,0,3791,3791
271.05,0,0,3833,3833
271.1,0,0,3893,3893
271.153,0,0,3941,3941
271.203,0,0,4001,4001
271.252,0,0,4043,4043
271.302,0,0,4091,4091
271.352,0,0,4151,4151
271.402,0,0,4193,4193
271.452,0,0,4241,4241
271.501,0,0,4301,4301
271.551,0,0,4343,4343
271.601,0,0,4391,4391
271.651,0,0,4433,4433
271.701,0,0,4493,4493
271.75,0,0,4541,4541
271.8,1.38778e-16,0,4583,4583
271.85,4.44089e-16,0,4631,4631
271.903,9.4369e-16,0,4691,4691
271.953,1.38778e-15,0,4733,4733
272.002,1.83187e-15,0,4781,4781
272.052,2.27596e-15,0,4823,4823
272.102,2.7478e-15,0,4871,4871
272.152,3.21965e-15,0,4913,4913
272.202,3.69149e-15,0,4961,4961
272.251,4.16334e-15,0,5003,5003
272.301,4.63518e-15,0,5051,5051
272.351,5.10703e-15,0,5111,5111
272.401,5.21805e-15,0,5153,5153
272.451,4.71845e-15,0,5201,5201
272.5,2.47025e-15,0,5243,5243
272.55,-2.94209e-15,0,5291,5291
272.603,-1.40998e-14,0,5333,5333
272.653,-3.19189e-14,0,5381,5381
272.702,-9.02889e-14,0,5423,5423
272.752,-9.28757e-13,0,5471,5471
272.802,-4.77623e-12,0,5513,5513
272.852,-1.7439e-11,0,5561,5561
272.902,-4.82564e-11,0,5591,5591
272.951,-1.03985e-10,0,5633,5633
273.001,-1.76925e-10,0,5681,5681
273.051,-2.38202e-10,0,5723,5723
273.101,-2.49471e-10,0,5771,5771
273.151,-1.90305e-10,0,5813,5813
273.2,-7.89066e-11,0,5861,5861
273.25,3.48313e-11,0,5903,5903
273.3,1.01627e-10,0,5951,5951
273.353,1.04642e-10,0,5993,5993
273.403,7.18507e-11,0,6041,6041
273.452,4.95331e-11,0,6083,6083
273.502,6.29304e-11,0,6113,6113
273.552,1.01036e-10,0,6161,6161
273.602,1.30865e-10,0,6203,6203
273.652,1.28933e-10,0,6251,6251
273.701,1.01484e-10,0,6293,6293
273.751,7.6797e-11,0,6341,6341
273.801,7.87969e-11,0,6383,6383
273.851,1.06672e-10,0,6413,6413
273.901,1.37312e-10,0,6461,6461
273.95,1.46011e-10,0,6503,6503
274,1.26637e-10,0,6551,6551
274.053,9.42575e-11,0,6593,6593
274.103,7.99443e-11,0,6641,6641
274.152,9.66057e-11,0,6671,6671
274.202,1.34287e-10,0,6713,6713
274.252,1.62398e-10,0,6761,6761
274.302,1.52074e-10,0,6803,6803
274.352,1.0458e-10,0,6851,6851
274.401,6.07804e-11,0,6881,6881
274.451,7.17752e-11,0,6923,6923
274.501,1.43888e-10,0,6971,6971
274.551,2.11841e-10,0,7013,7013
274.601,1.9546e-10,0,7043,7043
274.65,1.31415e-10,0,7091,7091
274.7,2.83545e-10,0,7133,7133
274.753,1.19351e-09,0,7181,7181
274.803,3.23644e-09,0,7223,7223
274.853,6.61574e-09,0,7253,7253
274.902,1.11034e-08,0,7301,7301
274.952,1.6146e-08,0,7343,7343
275.002,2.11153e-08,0,7391,7391
275.052,2.55957e-08,0,7421,7421
275.102,2.95801e-08,0,7463,7463
275.151,3.34975e-08,0,7511,7511
275.201,3.80645e-08,0,7541,7541
275.251,4.40342e-08,0,7583,7583
275.301,5.19779e-08,0,7631,7631
275.35,6.22313e-08,0,7661,7661
275.4,7.50302e-08,0,7703,7703
275.45,9.07274e-08,0,7747,7747
275.503,1.11183e-07,0,7781,7781
275.553,1.34975e-07,0,7823,7823
275.602,1.63911e-07,0,7853,7853
275.652,1.98453e-07,0,7883,7883
275.702,2.38528e-07,0,7931,7931
275.752,2.8351e-07,0,7961,7961
275.802,3.32464e-07,0,7991,7991
275.851,3.84521e-07,0,8021,8021
275.901,4.39157e-07,0,8051,8051
275.951,4.96111e-07,0,8081,8081
276.001,5.54968e-07,0,8111,8111
276.051,6.14672e-07,0,8153,8153
276.1,6.73332e-07,0,8192,8192
276.15,7.28473e-07,0,8192,8192
276.203,7.80265e-07,0,8192,8192
276.253,8.20982e-07,0,8192,8192
276.302,8.52833e-07,0,8192,8192
276.352,8.75981e-07,0,8192,8192
276.402,8.91371e-07,0,8192,8192
276.452,9.00296e-07,0,8192,8192
276.502,9.03935e-07,0,8192,8192
276.551,9.03035e-07,0,8192,8192
276.601,8.97782e-07,0,8192,8192
276.651,8.87858e-07,0,8192,8192
276.701,8.72607e-07,0,8192,8192
276.751,8.51256e-07,0,8192,8192
276.8,8.23172e-07,0,8192,8192
276.85,7.88133e-07,0,8192,8192
276.9,7.46556e-07,0,8192,8192
276.953,6.96685e-07,0,8192,8192
277.003,6.45903e-07,0,8192,8192
277.052,5.93611e-07,0,8192,8192
277.102,5.4171e-07,0,8192,8192
277.152,4.91668e-07,0,8192,8192
277.202,4.44383e-07,0,8192,8192
277.252,4.00212e-07,0,8192,8192
277.301,3.59097e-07,0,8192,8192
277.351,3.20762e-07,0,8192,8192
277.401,2.84921e-07,0,8192,8192
277.451,2.51481e-07,0,8192,8192
277.501,2.20651e-07,0,8192,8192
277.55,1.92887e-07,0,8192,8192
277.6,1.68634e-07,0,8192,8192
277.653,1.4687e-07,0,8192,8192
277.703,1.29506e-07,0,8192,8192
277.752,1.14319e-07,0,8192,8192
277.802,1.00406e-07,0,8192,8192
277.852,8.72946e-08,0,8192,8192
277.902,7.50733e-08,0,8192,8192
277.952,6.41808e-08,0,8192,8192
278.001,5.50211e-08,0,8192,8192
278.051,4.76535e-08,0,8192,8192
278.101,4.17089e-08,0,8192,8192
278.151,3.65437e-08,0,8192,8192
278.201,3.15349e-08,0,8192,8192
278.25,2.63694e-08,0,8192,8192
278.3,2.11734e-08,0,8192,8192
278.35,1.64055e-08,0,8192,8192
278.403,1.23869e-08,0,8192,8192
278.453,9.85071e-09,0,8192,8192
278.502,8.46762e-09,0,8192,8192
278.552,7.92273e-09,0,8192,8192
278.602,7.84553e-09,0,8192,8192
278.652,7.95356e-09,0,8192,8192
278.702,8.09333e-09,0,8192,8192
278.751,8.20256e-09,0,8192,8192
278.801,8.25334e-09,0,8192,8192
278.851,8.222e-09,0,8192,8192
278.901,8.09511e-09,0,8192,8192
278.951,7.88884e-09,0,8192,8192
279,7.65123e-09,0,8192,8192
279.05,7.43866e-09,0,8192,8192
279.103,7.28037e-09,0,8192,8192
279.153,7.19863e-09,0,8192,8192
279.202,7.16628e-09,0,8192,8192
279.252,7.16289e-09,0,8192,8192
279.302,7.17332e-09,0,8192,8192
279.352,7.18924e-09,0,8192,8192
279.402,7.207e-09,0,8192,8192
279.451,7.22528e-09,0,8192,8192
279.501,7.24367e-09,0,8192,8192
279.551,7.26205e-09,0,8192,8192
279.601,7.28038e-09,0,8192,8192
279.651,7.29867e-09,0,8192,8192
279.7,7.31693e-09,0,8192,8192
279.75,7.33516e-09,0,8192,8192
279.8,7.35342e-09,0,8192,8192
279.853,7.37293e-09,0,8192,8192
279.903,7.39178e-09,0,8192,8192
279.952,7.41161e-09,0,8192,8192
280.002,7.43333e-09,0,8192,8192
280.052,7.45839e-09,0,8192,8192
280.102,7.48888e-09,0,8192,8192
280.152,7.52759e-09,0,8192,8192
280.201,7.57802e-09,0,8192,8192
280.251,7.64427e-09,0,8192,8192
280.301,7.73074e-09,0,8192,8192
280.351,7.84179e-09,0,8192,8192
280.401,7.98134e-09,0,8192,8192
280.45,8.15264e-09,0,8192,8192
280.5,8.35843e-09,0,8192,8192
280.553,8.61704e-09,0,8192,8192
280.603,8.90366e-09,0,8192,8192
280.652,9.23731e-09,0,8192,8192
280.702,9.62645e-09,0,8192,8192
280.752,1.00826e-08,0,8192,8192
280.802,1.06201e-08,0,8192,8192
280.852,1.1256e-08,0,8192,8192
280.901,1.20087e-08,0,8192,8192
280.951,1.28978e-08,0,8192,8192
281.001,1.39429e-08,0,8192,8192
281.051,1.5163e-08,0,8192,8192
281.101,1.65755e-08,0,8192,8192
281.15,1.81959e-08,0,8192,8192
281.2,2.0037e-08,0,8192,8192
281.25,2.21084e-08,0,8192,8192
281.303,2.45591e-08,0,8192,8192
281.353,2.7118e-08,0,8192,8192
281.402,2.99099e-08,0,8192,8192
281.452,3.29252e-08,0,8192,8192
281.502,3.61487e-08,0,8192,8192
281.552,3.95615e-08,0,8192,8192
281.602,4.31423e-08,0,8192,8192
281.651,4.68706e-08,0,8192,8192
281.701,5.07295e-08,0,8192,8192
281.751,5.471e-08,0,8192,8192
281.801,5.88148e-08,0,8192,8192
281.851,6.30619e-08,0,8192,8192
281.9,6.74861e-08,0,8192,8192
281.95,7.21365e-08,0,8192,8192
282.003,7.73695e-08,0,8192,8192
282.053,8.2658e-08,0,8192,8192
282.102,8.83175e-08,0,8192,8192
282.152,9.43543e-08,0,8192,8192
282.202,1.00746e-07,0,8192,8192
282.252,1.07453e-07,0,8192,8192
282.302,1.14433e-07,0,8192,8192
282.351,1.21676e-07,0,8192,8192
282.401,1.29219e-07,0,8192,8192
282.451,1.37175e-07,0,8192,8192
282.501,1.45732e-07,0,8192,8192
282.551,1.55152e-07,0,8192,8192
282.6,1.65763e-07,0,8192,8192
282.65,1.77934e-07,0,8192,8192
282.703,1.92959e-07,0,8192,8192
282.753,2.09588e-07,0,8192,8192
282.803,2.28966e-07,0,8192,8192
282.852,2.51418e-07,0,8192,8192
282.902,2.77187e-07,0,8192,8192
282.952,3.0641e-07,0,8192,8192
283.002,3.3909e-07,0,8192,8192
283.052,3.75085e-07,0,8192,8192
283.101,4.14102e-07,0,8192,8192
283.151,4.55693e-07,0,8192,8192
283.201,4.99262e-07,0,8192,8192
283.251,5.44067e-07,0,8192,8192
283.3,5.89226e-07,0,8192,8192
283.35,6.33737e-07,0,8192,8192
283.4,6.76509e-07,0,8192,8192
283.453,7.18662e-07,0,8192,8192
283.503,7.54389e-07,0,8192,8192
283.552,7.85193e-07,0,8192,8192
283.602,8.10341e-07,0,8192,8192
283.652,8.29344e-07,0,8192,8192
283.702,8.41962e-07,0,8192,8192
283.752,8.48174e-07,0,8192,8192
283.801,8.48115e-07,0,8192,8192
283.851,8.42006e-07,0,8192,8192
283.901,8.30087e-07,0,8192,8192
283.951,8.12579e-07,0,8192,8192
284.001,7.89676e-07,0,8192,8192
284.05,7.61568e-07,0,8192,8192
284.1,7.28489e-07,0,8192,8192
284.153,6.88417e-07,0,8192,8192
284.203,6.46306e-07,0,8192,8192
284.253,6.0071e-07,0,8192,8192
284.302,5.52433e-07,0,8192,8192
284.352,5.0239e-07,0,8192,8192
284.402,4.51549e-07,0,8192,8192
284.452,4.00854e-07,0,8192,8192
284.501,3.51166e-07,0,8192,8192
284.551,3.03211e-07,0,8192,8192
284.601,2.57562e-07,0,8192,8192
284.651,2.1464e-07,0,8192,8192
284.701,1.74729e-07,0,8192,8192
284.75,1.38005e-07,0,8192,8192
284.8,1.04558e-07,0,8192,8192
284.85,7.4403e-08,0,8192,8192
284.903,4.60114e-08,0,8192,8192
284.953,2.24238e-08,0,8192,8192
285.002,1.80481e-09,0,8192,8192
285.052,-1.60501e-08,0,8192,8192
285.102,-3.13687e-08,0,8192,8192
285.152,-4.43827e-08,0,8192,8192
285.202,-5.53123e-08,0,8192,8192
285.251,-6.43593e-08,0,8192,8192
285.301,-7.17083e-08,0,8192,8192
285.351,-7.75323e-08,0,8192,8192
285.401,-8.19983e-08,0,8192,8192
285.451,-8.52669e-08,0,8192,8192
285.5,-8.74872e-08,0,8192,8192
285.55,-8.87875e-08,0,8192,8192
285.603,-8.92735e-08,0,8192,8192
285.653,-8.89679e-08,0,8192,8192
285.702,-8.7973e-08,0,8192,8192
285.752,-8.63343e-08,0,8192,8192
285.802,-8.41046e-08,0,8192,8192
285.852,-8.1354e-08,0,8192,8192
285.902,-7.81737e-08,0,8192,8192
285.951,-7.4672e-08,0,8192,8192
286.001,-7.09659e-08,0,8192,8192
286.051,-6.71706e-08,0,8192,8192
286.101,-6.33896e-08,0,8192,8192
286.151,-5.97085e-08,0,8192,8192
286.2,-5.61919e-08,0,8192,8192
286.25,-5.28836e-08,0,8192,8192
286.3,-4.98097e-08,0,8192,8192
286.353,-4.68233e-08,0,8192,8192
286.403,-4.42581e-08,0,8192,8192
286.452,-4.19366e-08,0,8192,8192
286.502,-3.98512e-08,0,8192,8192
286.552,-3.79928e-08,0,8192,8192
286.602,-3.63517e-08,0,8192,8192
286.652,-3.49177e-08,0,8192,8192
286.701,-3.36798e-08,0,8192,8192
286.751,-3.26264e-08,0,8192,8192
286.801,-3.17445e-08,0,8192,8192
286.851,-3.10207e-08,0,8192,8192
286.901,-3.04406e-08,0,8192,8192
286.95,-2.99895e-08,0,8192,8192
287,-2.96529e-08,0,8192,8192
287.053,-2.94055e-08,0,8192,8192
287.103,-2.92606e-08,0,8192,8192
287.152,-2.91892e-08,0,8192,8192
287.202,-2.91796e-08,0,8192,8192
287.252,-2.92213e-08,0,8192,8192
287.302,-2.93047e-08,0,8192,8192
287.352,-2.94213e-08,0,8192,8192
287.401,-2.95636e-08,0,8192,8192
287.451,-2.97248e-08,0,8192,8192
287.501,-2.98989e-08,0,8192,8192
287.551,-3.00809e-08,0,8192,8192
287.601,-3.02661e-08,0,8192,8192
287.65,-3.04506e-08,0,8192,8192
287.7,-3.06308e-08,0,8192,8192
287.75,-3.08037e-08,0,8192,8192
287.803,-3.09757e-08,0,8192,8192
287.853,-3.11252e-08,0,8192,8192
287.902,-3.12601e-08,0,8192,8192
287.952,-3.13786e-08,0,8192,8192
288.002,-3.14796e-08,0,8192,8192
288.052,-3.15623e-08,0,8192,8192
288.102,-3.16261e-08,0,8192,8192
288.151,-3.16712e-08,0,8192,8192
288.201,-3.16979e-08,0,8192,8192
288.251,-3.1707e-08,0,8192,8192
288.301,-3.16993e-08,0,8192,8192
288.351,-3.1676e-08,0,8192,8192
288.4,-3.16385e-08,0,8192,8192
288.45,-3.15879e-08,0,8192,8192
288.503,-3.15215e-08,0,8192,8192
288.553,-3.14482e-08,0,8192,8192
288.602,-3.13657e-08,0,8192,8192
288.652,-3.12751e-08,0,8192,8192
288.702,-3.11775e-08,0,8192,8192
288.752,-3.10739e-08,0,8192,8192
288.802,-3.09651e-08,0,8192,8192
288.851,-3.08518e-08,0,8192,8192
288.901,-3.07348e-08,0,8192,8192
288.951,-3.06146e-08,0,8192,8192
289.001,-3.04917e-08,0,8192,8192
289.051,-3.03664e-08,0,8192,8192
289.1,-3.02388e-08,0,8192,8192
289.15,-3.01088e-08,0,8192,8192
289.2,-2.99763e-08,0,8192,8192
289.253,-2.98326e-08,0,8192,8192
289.303,-2.96928e-08,0,8192,8192
289.352,-2.95478e-08,0,8192,8192
289.402,-2.93964e-08,0,8192,8192
289.452,-2.92367e-08,0,8192,8192
289.502,-2.90668e-08,0,8192,8192
289.552,-2.88847e-08,0,8192,8192
289.601,-2.86881e-08,0,8192,8192
289.651,-2.84747e-08,0,8192,8192
289.701,-2.82424e-08,0,8192,8192
289.751,-2.79891e-08,0,8192,8192
289.8,-2.77134e-08,0,8192,8192
289.85,-2.74141e-08,0,8192,8192
289.9,-2.70905e-08,0,8192,8192
289.953,-2.67219e-08,0,8192,8192
290.003,-2.635e-08,0,8192,8192
290.052,-2.59572e-08,0,8192,8192
290.102,-2.55461e-08,0,8192,8192
290.152,-2.51203e-08,0,8192,8192
290.202,-2.46842e-08,0,8192,8192
290.252,-2.42428e-08,0,8192,8192
290.301,-2.38014e-08,0,8192,8192
290.351,-2.33657e-08,0,8192,8192
290.401,-2.29415e-08,0,8192,8192
290.451,-2.25344e-08,0,8192,8192
290.501,-2.21498e-08,0,8192,8192
290.55,-2.17927e-08,0,8192,8192
290.6,-2.14674e-08,0,8192,8192
290.653,-2.11619e-08,0,8192,8192
290.703,-2.09135e-08,0,8192,8192
290.753,-2.07064e-08,0,8192,8192
290.802,-2.05422e-08,0,8192,8192
290.852,-2.04216e-08,0,8192,8192
290.902,-2.03446e-08,0,8192,8192
290.952,-2.03101e-08,0,8192,8192
291.001,-2.03166e-08,0,8192,8192
291.051,-2.03614e-08,0,8192,8192
291.101,-2.04414e-08,0,8192,8192
291.151,-2.05528e-08,0,8192,8192
291.201,-2.06914e-08,0,8192,8192
291.25,-2.08524e-08,0,8192,8192
291.3,-2.10312e-08,0,8192,8192
291.35,-2.12225e-08,0,8192,8192
291.403,-2.14334e-08,0,8192,8192
291.453,-2.16353e-08,0,8192,8192
291.502,-2.1835e-08,0,8192,8192
291.552,-2.20283e-08,0,8192,8192
291.602,-2.22114e-08,0,8192,8192
291.652,-2.23807e-08,0,8192,8192
291.702,-2.25336e-08,0,8192,8192
291.751,-2.26676e-08,0,8192,8192
291.801,-2.27813e-08,0,8192,8192
291.851,-2.28734e-08,0,8192,8192
291.901,-2.29436e-08,0,8192,8192
291.951,-2.29919e-08,0,8192,8192
292,-2.30187e-08,0,8192,8192
292.05,-2.30248e-08,0,8192,8192
292.103,-2.301e-08,0,8192,8192
292.153,-2.29771e-08,0,8192,8192
292.202,-2.29271e-08,0,8192,8192
292.252,-2.28613e-08,0,8192,8192
292.302,-2.27809e-08,0,8192,8192
292.352,-2.26868e-08,0,8192,8192
292.402,-2.25802e-08,0,8192,8192
292.451,-2.24619e-08,0,8192,8192
292.501,-2.23327e-08,0,8192,8192
292.551,-2.21938e-08,0,8192,8192
292.601,-2.2046e-08,0,8192,8192
292.651,-2.18905e-08,0,8192,8192
292.7,-2.17286e-08,0,8192,8192
292.75,-2.15616e-08,0,8192,8192
292.8,-2.13911e-08,0,8192,8192
292.853,-2.12088e-08,0,8192,8192
292.903,-2.10369e-08,0,8192,8192
292.952,-2.08671e-08,0,8192,8192
293.002,-2.07014e-08,0,8192,8192
293.052,-2.05418e-08,0,8192,8192
293.102,-2.039e-08,0,8192,8192
293.152,-2.02478e-08,0,8192,8192
293.201,-2.01165e-08,0,8192,8192
293.251,-1.99972e-08,0,8192,8192
293.301,-1.98906e-08,0,8192,8192
293.351,-1.97968e-08,0,8192,8192
293.401,-1.97155e-08,0,8192,8192
293.45,-1.9646e-08,0,8192,8192
293.5,-1.95871e-08,0,8192,8192
293.553,-1.95346e-08,0,8192,8192
293.603,-1.94927e-08,0,8192,8192
293.652,-1.94566e-08,0,8192,8192
293.702,-1.94248e-08,0,8192,8192
293.752,-1.93958e-08,0,8192,8192
293.802,-1.93687e-08,0,8192,8192
293.852,-1.93423e-08,0,8192,8192
293.901,-1.93157e-08,0,8192,8192
293.951,-1.92881e-08,0,8192,8192
294.001,-1.92585e-08,0,8192,8192
294.051,-1.92259e-08,0,8192,8192
294.101,-1.91891e-08,0,8192,8192
294.15,-1.91472e-08,0,8192,8192
294.2,-1.90992e-08,0,8192,8192
294.25,-1.90442e-08,0,8192,8192
294.303,-1.89778e-08,0,8192,8192
294.353,-1.89072e-08,0,8192,8192
294.402,-1.88292e-08,0,8192,8192
294.452,-1.87441e-08,0,8192,8192
294.502,-1.86526e-08,0,8192,8192
294.552,-1.85555e-08,0,8192,8192
294.602,-1.84537e-08,0,8192,8192
294.651,-1.83481e-08,0,8192,8192
294.701,-1.82394e-08,0,8192,8192
294.751,-1.81285e-08,0,8192,8192
294.801,-1.80158e-08,0,8192,8192
294.851,-1.79018e-08,0,8192,8192
294.9,-1.7787e-08,0,8192,8192
294.95,-1.76714e-08,0,8192,8192
295.003,-1.75484e-08,0,8192,8192
295.053,-1.74316e-08,0,8192,8192
295.102,-1.7314e-08,0,8192,8192
295.152,-1.71954e-08,0,8192,8192
295.202,-1.70756e-08,0,8192,8192
295.252,-1.69542e-08,0,8192,8192
295.302,-1.68309e-08,0,8192,8192
295.351,-1.67052e-08,0,8192,8192
295.401,-1.65769e-08,0,8192,8192
295.451,-1.64456e-08,0,8192,8192
295.501,-1.63109e-08,0,8192,8192
295.551,-1.61725e-08,0,8192,8192
295.6,-1.60302e-08,0,8192,8192
295.65,-1.58837e-08,0,8192,8192
295.7,-1.57329e-08,0,8192,8192
295.753,-1.55684e-08,0,8192,8192
295.803,-1.54084e-08,0,8192,8192
295.852,-1.52438e-08,0,8192,8192
295.902,-1.50746e-08,0,8192,8192
295.952,-1.49006e-08,0,8192,8192
296.002,-1.47216e-08,0,8192,8192
296.052,-1.45376e-08,0,8192,8192
296.101,-1.43484e-08,0,8192,8192
296.151,-1.41537e-08,0,8192,8192
296.201,-1.39532e-08,0,8192,8192
296.251,-1.37468e-08,0,8192,8192
296.301,-1.35342e-08,0,8192,8192
296.35,-1.3315e-08,0,8192,8192
296.4,-1.30889e-08,0,8192,8192
296.453,-1.28415e-08,0,8192,8192
296.503,-1.25997e-08,0,8192,8192
296.552,-1.23493e-08,0,8192,8192
296.602,-1.20896e-08,0,8192,8192
296.652,-1.18196e-08,0,8192,8192
296.702,-1.15381e-08,0,8192,8192
296.752,-1.12439e-08,0,8192,8192
296.801,-1.09356e-08,0,8192,8192
296.851,-1.06118e-08,0,8192,8192
296.901,-1.02709e-08,0,8192,8192
296.951,-9.91142e-09,0,8192,8192
297.001,-9.53189e-09,0,8192,8192
297.05,-9.13104e-09,0,8192,8192
297.1,-8.70777e-09,0,8192,8192
297.15,-8.2613e-09,0,8192,8192
297.203,-7.76281e-09,0,8192,8192
297.253,-7.26769e-09,0,8192,8192
297.302,-6.74944e-09,0,8192,8192
297.352,-6.20908e-09,0,8192,8192
297.402,-5.64811e-09,0,8192,8192
297.452,-5.0686e-09,0,8192,8192
297.502,-4.47307e-09,0,8192,8192
297.551,-3.8645e-09,0,8192,8192
297.601,-3.24625e-09,0,8192,8192
297.651,-2.622e-09,0,8192,8192
297.701,-1.99564e-09,0,8192,8192
297.751,-1.37121e-09,0,8192,8192
297.8,-7.52839e-10,0,8192,8192
297.85,-1.44606e-10,0,8192,8192
297.903,4.83896e-10,0,8192,8192
297.953,1.05879e-09,0,8192,8192
298.002,1.61182e-09,0,8192,8192
298.052,2.13963e-09,0,8192,8192
298.102,2.63916e-09,0,8192,8192
298.152,3.10773e-09,0,8192,8192
298.202,3.54307e-09,0,8192,8192
298.251,3.94335e-09,0,8192,8192
298.301,4.30719e-09,0,8192,8192
298.351,4.63372e-09,0,8192,8192
298.401,4.92256e-09,0,8192,8192
298.451,5.17381e-09,0,8192,8192
298.5,5.38803e-09,0,8192,8192
298.55,5.56622e-09,0,8192,8192
298.603,5.71718e-09,0,8192,8192
298.653,5.82594e-09,0,8192,8192
298.703,5.9039e-09,0,8192,8192
298.752,5.95328e-09,0,8192,8192
298.802,5.97647e-09,0,8192,8192
298.852,5.97594e-09,0,8192,8192
298.902,5.95419e-09,0,8192,8192
298.952,5.91373e-09,0,8192,8192
299.001,5.85701e-09,0,8192,8192
299.051,5.78642e-09,0,8192,8192
299.101,5.70419e-09,0,8192,8192
299.151,5.61244e-09,0,8192,8192
299.2,5.51317e-09,0,8192,8192
299.25,5.40817e-09,0,8192,8192
299.3,5.29914e-09,0,8192,8192
299.353,5.18099e-09,0,8192,8192
299.403,5.06833e-09,0,8192,8192
299.452,4.95592e-09,0,8192,8192
299.502,4.84497e-09,0,8192,8192
299.552,4.73656e-09,0,8192,8192
299.602,4.63171e-09,0,8192,8192
299.652,4.53136e-09,0,8192,8192
299.701,4.43633e-09,0,8192,8192
299.751,4.34734e-09,0,8192,8192
299.801,4.26499e-09,0,8192,8192
299.851,4.18973e-09,0,8192,8192
299.901,4.12181e-09,0,8192,8192
299.95,4.0613e-09,0,8192,8192
300,4.00805e-09,0,8192,8192
300.053,3.95919e-09,0,8192,8192
300.103,3.91952e-09,0,8192,8192
300.152,3.88535e-09,0,8192,8192
300.202,3.85569e-09,0,8192,8192
300.252,3.82944e-09,0,8192,8192
300.302,3.80539e-09,0,8192,8192
300.352,3.78226e-09,0,8192,8192
300.401,3.7588e-09,0,8192,8192
300.451,3.73381e-09,0,8192,8192
300.501,3.70621e-09,0,8192,8192
300.551,3.6751e-09,0,8192,8192
300.601,3.63979e-09,0,8192,8192
300.65,3.59985e-09,0,8192,8192
300.7,3.55508e-09,0,8192,8192
300.75,3.50559e-09,0,8192,8192
300.803,3.4484e-09,0,8192,8192
300.853,3.39043e-09,0,8192,8192
300.902,3.32932e-09,0,8192,8192
300.952,3.26588e-09,0,8192,8192
301.002,3.20096e-09,0,8192,8192
301.052,3.13543e-09,0,8192,8192
301.102,3.07014e-09,0,8192,8192
301.151,3.0059e-09,0,8192,8192
301.201,2.94346e-09,0,8192,8192
301.251,2.88355e-09,0,8192,8192
301.301,2.82683e-09,0,8192,8192
301.351,2.77393e-09,0,8192,8192
301.4,2.72541e-09,0,8192,8192
301.45,2.68179e-09,0,8192,8192
301.503,2.64141e-09,0,8192,8192
301.553,2.60908e-09,0,8192,8192
301.602,2.58258e-09,0,8192,8192
301.652,2.56192e-09,0,8192,8192
301.702,2.54696e-09,0,8192,8192
301.752,2.53739e-09,0,8192,8192
301.802,2.53277e-09,0,8192,8192
301.851,2.5325e-09,0,8192,8192
301.901,2.53593e-09,0,8192,8192
301.951,2.54231e-09,0,8192,8192
302.001,2.5509e-09,0,8192,8192
302.051,2.56096e-09,0,8192,8192
302.1,2.57179e-09,0,8192,8192
302.15,2.58277e-09,0,8192,8192
302.2,2.59333e-09,0,8192,8192
302.253,2.60356e-09,0,8192,8192
302.303,2.61192e-09,0,8192,8192
302.352,2.61872e-09,0,8192,8192
302.402,2.62378e-09,0,8192,8192
302.452,2.62697e-09,0,8192,8192
302.502,2.62822e-09,0,8192,8192
302.552,2.62753e-09,0,8192,8192
302.601,2.62493e-09,0,8192,8192
302.651,2.6205e-09,0,8192,8192
302.701,2.61431e-09,0,8192,8192
302.751,2.60647e-09,0,8192,8192
302.801,2.59708e-09,0,8192,8192
302.85,2.58624e-09,0,8192,8192
302.9,2.57405e-09,0,8192,8192
302.953,2.55975e-09,0,8192,8192
303.003,2.545e-09,0,8192,8192
303.052,2.52911e-09,0,8192,8192
303.102,2.51213e-09,0,8192,8192
303.152,2.4941e-09,0,8192,8192
303.202,2.47508e-09,0,8192,8192
303.252,2.45511e-09,0,8192,8192
303.301,2.43427e-09,0,8192,8192
303.351,2.41263e-09,0,8192,8192
303.401,2.39029e-09,0,8192,8192
303.451,2.36734e-09,0,8192,8192
303.501,2.34391e-09,0,8192,8192
303.55,2.3201e-09,0,8192,8192
303.6,2.29604e-09,0,8192,8192
303.65,2.27183e-09,0,8192,8192
303.703,2.24616e-09,0,8192,8192
303.753,2.22198e-09,0,8192,8192
303.802,2.19794e-09,0,8192,8192
303.852,2.17412e-09,0,8192,8192
303.902,2.15058e-09,0,8192,8192
303.952,2.12736e-09,0,8192,8192
304.002,2.10449e-09,0,8192,8192
304.051,2.08201e-09,0,8192,8192
304.101,2.05992e-09,0,8192,8192
304.151,2.03824e-09,0,8192,8192
304.201,2.01695e-09,0,8192,8192
304.251,1.99604e-09,0,8192,8192
304.3,1.9755e-09,0,8192,8192
304.35,1.95528e-09,0,8192,8192
304.403,1.93421e-09,0,8192,8192
304.453,1.91457e-09,0,8192,8192
304.502,1.89515e-09,0,8192,8192
304.552,1.87589e-09,0,8192,8192
304.602,1.85675e-09,0,8192,8192
304.652,1.83766e-09,0,8192,8192
304.702,1.81859e-09,0,8192,8192
304.751,1.79947e-09,0,8192,8192
304.801,1.78026e-09,0,8192,8192
304.851,1.76091e-09,0,8192,8192
304.901,1.74137e-09,0,8192,8192
304.951,1.7216e-09,0,8192,8192
