250,0,0,512,512
250.012,0,0,512,512
250.059,0,0,512,512
250.105,0,0,512,512
250.152,0,0,512,512
250.211,0,0,512,512
250.258,0,0,512,512
250.305,0,0,512,512
250.352,0,0,512,512
250.41,0,0,512,512
250.457,0,0,512,512
250.504,0,0,512,512
250.551,0,0,512,512
250.609,0,0,512,512
250.656,0,0,512,512
250.703,0,0,512,512
250.762,0,0,512,512
250.808,0,0,512,512
250.855,0,0,512,512
250.902,0,0,512,512
250.961,0,0,512,512
251.008,0,0,512,512
251.055,0,0,512,512
251.101,0,0,512,512
251.16,0,0,512,512
251.207,0,0,512,512
251.254,0,0,512,512
251.301,0,0,512,512
251.359,0,0,512,512
251.406,0,0,512,512
251.453,0,0,512,512
251.511,0,0,512,512
251.558,0,0,512,512
251.605,0,0,512,512
251.652,0,0,512,512
251.711,0,0,512,512
251.758,0,0,512,512
251.804,0,0,512,512
251.851,0,0,512,512
251.91,0,0,512,512
251.957,0,0,512,512
252.004,0,0,512,512
252.05,0,0,512,512
252.109,0,0,512,512
252.156,0,0,512,512
252.203,0,0,512,512
252.261,0,0,512,512
252.308,0,0,512,512
252.355,0,0,512,512
252.402,0,0,512,512
252.461,0,0,512,512
252.507,0,0,512,512
252.554,0,0,512,512
252.601,0,0,512,512
252.66,0,0,512,512
252.707,0,0,512,512
252.754,0,0,512,512
252.8,0,0,512,512
252.859,0,0,512,512
252.906,0,0,512,512
252.953,0,0,512,512
253.011,0,0,512,512
253.058,0,0,512,512
253.105,0,0,512,512
253.152,0,0,512,512
253.21,0,0,512,512
253.257,0,0,512,512
253.304,0,0,512,512
253.351,0,0,512,512
253.41,0,0,512,512
253.457,0,0,512,512
253.503,0,0,512,512
253.55,0,0,512,512
253.609,0,0,512,512
253.656,0,0,512,512
253.703,0,0,512,512
253.761,0,0,512,512
253.808,0,0,512,512
253.855,0,0,512,512
253.902,0,0,512,512
253.96,0,0,512,512
254.007,0,0,512,512
254.054,0,0,512,512
254.101,0,0,512,512
254.16,0,0,512,512
254.206,0,0,512,512
254.253,0,0,512,512
254.3,0,0,512,512
254.359,0,0,512,512
254.406,0,0,512,512
254.452,0,0,512,512
254.511,0,0,512,512
254.558,0,0,512,512
254.605,0,0,512,512
254.652,0,0,512,512
254.71,0,0,512,512
254.757,0,0,512,512
254.804,0,0,512,512
254.851,0,0,512,512
254.909,0,0,512,512
254.956,0,0,512,512
255.003,0,0,512,512
255.05,0,0,512,512
255.109,0,0,512,512
255.155,0,0,512,512
255.202,0,0,512,512
255.261,0,0,512,512
255.308,0,0,512,512
255.355,0,0,512,512
255.402,0,0,512,512
255.46,0,0,512,512
255.507,0,0,512,512
255.554,0,0,512,512
255.601,0,0,512,512
255.659,0,0,512,512
255.706,0,0,512,512
255.753,0,0,512,512
255.812,0,0,512,512
255.859,0,0,512,512
255.905,0,0,512,512
255.952,0,0,512,512
256.011,0,0,512,512
256.058,0,0,512,512
256.105,0,0,512,512
256.151,0,0,512,512
256.21,0,0,512,512
256.257,0,0,512,512
256.304,0,0,512,512
256.351,0,0,512,512
256.409,0,0,512,512
256.456,0,0,512,512
256.503,0,0,512,512
256.562,0,0,512,512
256.608,0,0,512,512
256.655,0,0,512,512
256.702,0,0,512,512
256.761,0,0,512,512
256.808,0,0,512,512
256.854,0,0,512,512
256.901,0,0,512,512
256.96,0,0,512,512
257.007,0,0,512,512
257.054,0,0,512,512
257.101,0,0,512,512
257.159,0,0,512,512
257.206,0,0,512,512
257.253,0,0,512,512
257.311,0,0,512,512
257.358,0,0,512,512
257.405,0,0,512,512
257.452,0,0,512,512
257.511,0,0,512,512
257.557,0,0,512,512
257.604,0,0,512,512
257.651,0,0,512,512
257.71,0,0,512,512
257.757,0,0,512,512
257.804,0,0,512,512
257.85,2.77556e-17,0,512,512
257.909,2.77556e-17,0,512,512
257.956,2.77556e-17,0,512,512
258.003,2.77556e-17,0,512,512
258.061,2.77556e-17,0,512,512
258.108,2.77556e-17,0,512,512
258.155,2.77556e-17,0,512,512
258.202,2.77556e-17,0,512,512
258.261,2.77556e-17,0,512,512
258.307,2.77556e-17,0,512,512
258.354,2.77556e-17,0,512,512
258.401,2.77556e-17,0,512,512
258.46,2.77556e-17,0,512,512
258.507,2.77556e-17,0,512,512
258.553,2.77556e-17,0,512,512
258.6,2.77556e-17,0,512,512
258.659,2.77556e-17,0,512,512
258.706,2.77556e-17,0,512,512
258.753,2.77556e-17,0,512,512
258.811,2.77556e-17,0,512,512
258.858,2.77556e-17,0,512,512
258.905,2.77556e-17,0,512,512
258.952,0,0,512,512
259.01,0,0,512,512
259.057,0,0,512,512
259.104,0,0,512,512
259.151,2.77556e-17,0,512,512
259.21,2.77556e-17,0,512,512
259.256,2.77556e-17,0,512,512
259.303,2.77556e-17,0,512,512
259.35,2.77556e-17,0,512,512
259.409,2.77556e-17,0,512,512
259.456,2.77556e-17,0,512,512
259.503,2.77556e-17,0,512,512
259.561,2.77556e-17,0,512,512
259.608,2.77556e-17,0,512,512
259.655,2.77556e-17,0,512,512
259.702,2.77556e-17,0,512,512
259.76,2.77556e-17,0,512,512
259.807,2.77556e-17,0,512,512
259.854,2.77556e-17,0,512,512
259.901,2.77556e-17,0,512,512
259.959,2.77556e-17,0,512,512
260.006,2.77556e-17,0,512,512
260.053,2.77556e-17,0,512,512
260.1,2.77556e-17,0,512,512
260.159,2.77556e-17,0,512,512
260.206,0,0,512,512
260.252,0,0,512,512
260.311,0,0,512,512
260.358,0,0,512,512
260.405,0,0,512,512
260.452,0,0,512,512
260.51,0,0,512,512
260.557,0,0,512,512
260.604,0,0,512,512
260.651,0,0,512,512
260.709,0,0,512,512
260.756,0,0,512,512
260.803,0,0,512,512
260.862,0,0,512,512
260.909,0,0,512,512
260.955,0,0,512,512
261.002,0,0,512,512
261.061,0,0,512,512
261.108,0,0,512,512
261.155,0,0,512,512
261.201,0,0,512,512
261.26,0,0,512,512
261.307,0,0,512,512
261.354,0,0,512,512
261.401,0,0,512,512
261.459,0,0,512,512
261.506,0,0,512,512
261.553,0,0,512,512
261.612,0,0,512,512
261.658,0,0,512,512
261.705,0,0,512,512
261.752,0,0,512,512
261.811,0,0,512,512
261.858,0,0,512,512
261.905,0,0,512,512
261.951,0,0,512,512
262.01,0,0,512,512
262.057,0,0,512,512
262.104,0,0,512,512
262.151,0,0,512,512
262.209,0,0,512,512
262.256,0,0,512,512
262.303,0,0,512,512
262.361,0,0,512,512
262.408,0,0,512,512
262.455,0,0,512,512
262.502,0,0,512,512
262.561,0,0,512,512
262.608,0,0,512,512
262.654,0,0,512,512
262.701,0,0,512,512
262.76,0,0,512,512
262.807,0,0,512,512
262.854,0,0,512,512
262.9,0,0,512,512
262.959,0,0,512,512
263.006,0,0,512,512
263.053,0,0,512,512
263.111,-2.77556e-17,0,512,512
263.158,-2.77556e-17,0,512,512
263.205,-2.77556e-17,0,512,512
263.252,-2.77556e-17,0,512,512
263.311,-2.77556e-17,0,512,512
263.357,-2.77556e-17,0,512,512
263.404,-2.77556e-17,0,512,512
263.451,-2.77556e-17,0,512,512
263.51,-2.77556e-17,0,512,512
263.557,-2.77556e-17,0,512,512
263.603,-2.77556e-17,0,512,512
263.65,-2.77556e-17,0,512,512
263.709,-2.77556e-17,0,512,512
263.756,-2.77556e-17,0,512,512
263.803,-2.77556e-17,0,512,512
263.861,-2.77556e-17,0,512,512
263.908,-2.77556e-17,0,512,512
263.955,-2.77556e-17,0,512,512
264.002,-2.77556e-17,0,512,512
264.06,-2.77556e-17,0,512,512
264.107,-2.77556e-17,0,512,512
264.154,-2.77556e-17,0,512,512
264.201,-2.77556e-17,0,512,512
264.26,-2.77556e-17,0,512,512
264.306,-2.77556e-17,0,512,512
264.353,-2.77556e-17,0,512,512
264.4,-2.77556e-17,0,512,512
264.459,0,0,512,512
264.506,0,0,512,512
264.553,0,0,512,512
264.611,0,0,512,512
264.658,0,0,512,512
264.705,0,0,512,512
264.752,0,0,512,512
264.81,0,0,512,512
264.857,0,0,512,512
264.904,0,0,512,512
264.951,0,0,512,512
265.01,0,0,512,512
265.056,0,0,512,512
265.103,0,0,512,512
265.15,0,0,512,512
265.209,0,0,512,512
265.256,0,0,512,512
265.302,0,0,512,512
265.361,0,0,512,512
265.408,0,0,512,512
265.455,0,0,512,512
265.502,0,0,512,512
265.56,0,0,512,512
265.607,0,0,512,512
265.654,0,0,512,512
265.701,0,0,512,512
265.759,0,0,512,512
265.806,0,0,512,512
265.853,0,0,512,512
265.9,0,0,512,512
265.959,0,0,512,512
266.005,0,0,512,512
266.052,0,0,512,512
266.111,0,0,512,512
266.158,0,0,512,512
266.205,0,0,512,512
266.252,0,0,512,512
266.31,0,0,512,512
266.357,0,0,512,512
266.404,0,0,512,512
266.451,0,0,512,512
266.509,0,0,512,512
266.556,0,0,512,512
266.603,0,0,512,512
266.662,0,0,512,512
266.708,0,0,512,512
266.755,0,0,512,512
266.802,0,0,512,512
266.861,0,0,512,512
266.908,0,0,512,512
266.955,0,0,512,512
267.001,0,0,512,512
267.06,0,0,512,512
267.107,0,0,512,512
267.154,0,0,512,512
267.201,0,0,512,512
267.259,0,0,512,512
267.306,0,0,512,512
267.353,0,0,512,512
267.412,0,0,512,512
267.458,0,0,512,512
267.505,0,0,512,512
267.552,2.77556e-17,0,512,512
267.611,2.77556e-17,0,512,512
267.658,2.77556e-17,0,512,512
267.704,2.77556e-17,0,512,512
267.751,2.77556e-17,0,512,512
267.81,2.77556e-17,0,512,512
267.857,2.77556e-17,0,512,512
267.904,2.77556e-17,0,512,512
267.95,2.77556e-17,0,512,512
268.009,2.77556e-17,0,512,512
268.056,2.77556e-17,0,512,512
268.103,2.77556e-17,0,512,512
268.161,2.77556e-17,0,512,512
268.208,2.77556e-17,0,512,512
268.255,2.77556e-17,0,512,512
268.302,2.77556e-17,0,512,512
268.361,2.77556e-17,0,512,512
268.407,2.77556e-17,0,512,512
268.454,2.77556e-17,0,512,512
268.501,2.77556e-17,0,512,512
268.56,2.77556e-17,0,512,512
268.607,2.77556e-17,0,512,512
268.654,2.77556e-17,0,512,512
268.7,2.77556e-17,0,512,512
268.759,2.77556e-17,0,512,512
268.806,2.77556e-17,0,512,512
268.853,2.77556e-17,0,512,512
268.911,2.77556e-17,0,512,512
268.958,2.77556e-17,0,512,512
269.005,0,0,512,512
269.052,0,0,512,512
269.11,0,0,512,512
269.157,0,0,512,512
269.204,0,0,512,512
269.251,2.77556e-17,0,512,512
269.31,2.77556e-17,0,512,512
269.357,2.77556e-17,0,512,512
269.403,2.77556e-17,0,512,512
269.45,2.77556e-17,0,512,512
269.509,2.77556e-17,0,512,512
269.556,2.77556e-17,0,512,512
269.603,2.77556e-17,0,512,512
269.652,2.77556e-17,0,535,535
269.7,2.77556e-17,0,1847,1847
269.751,2.77556e-17,0,2489,2489
269.8,2.77556e-17,0,3229,3229
269.85,2.77556e-17,0,4099,4099
269.9,2.77556e-17,0,4867,4867
269.951,2.77556e-17,0,5729,5729
270,2.77556e-17,0,6563,6563
270.05,2.77556e-17,0,7363,7363
270.101,2.77556e-17,0,8145,8145
270.151,2.77556e-17,0,8977,8977
270.2,2.77556e-17,0,9853,9853
270.25,2.77556e-17,0,10647,10647
270.301,2.77556e-17,0,11583,11583
270.35,2.77556e-17,0,12403,12403
270.4,2.77556e-17,0,13159,13159
270.45,2.77556e-17,0,13989,13989
270.501,2.77556e-17,0,14937,14937
270.55,2.77556e-17,0,15667,15667
270.6,2.77556e-17,0,15973,15973
270.651,2.77556e-17,0,16685,16685
270.7,2.77556e-17,0,17537,17537
270.75,2.77556e-17,0,18419,18419
270.8,2.77556e-17,0,19235,19235
270.851,2.77556e-17,0,20135,20135
270.9,2.77556e-17,0,21017,21017
270.95,2.77556e-17,0,21869,21869
271,2.77556e-17,0,22757,22757
271.051,2.77556e-17,0,23657,23657
271.1,2.77556e-17,0,24467,24467
271.15,2.77556e-17,0,25355,25355
271.201,2.77556e-17,0,26255,26255
271.25,2.77556e-17,0,27137,27137
271.3,2.77556e-17,0,28037,28037
271.35,2.77556e-17,0,28877,28877
271.401,2.77556e-17,0,29777,29777
271.45,2.77556e-17,0,30659,30659
271.5,2.77556e-17,0,31559,31559
271.551,2.77556e-17,0,32443,32443
271.6,2.77556e-17,0,33283,33283
271.65,2.77556e-17,0,34157,34157
271.7,2.77556e-17,0,35037,35037
271.751,2.77556e-17,0,35897,35897
271.8,2.77556e-17,0,36779,36779
271.85,2.77556e-17,0,37591,37591
271.9,2.77556e-17,0,38495,38495
271.951,2.77556e-17,0,39329,39329
272,2.77556e-17,0,40165,40165
272.05,2.77556e-17,0,41037,41037
272.101,2.77556e-17,0,41879,41879
272.15,2.77556e-17,0,42695,42695
272.2,2.77556e-17,0,43531,43531
272.25,2.77556e-17,0,44363,44363
272.301,2.77556e-17,0,45165,45165
272.35,2.77556e-17,0,45977,45977
272.4,2.77556e-17,0,46763,46763
272.451,2.77556e-17,0,47587,47587
272.501,2.77556e-17,0,48395,48395
272.55,2.77556e-17,0,49165,49165
272.6,2.77556e-17,0,50017,50017
272.651,-4.16334e-16,0,50779,50779
272.7,-2.22045e-15,0,51579,51579
272.75,-4.10783e-15,0,52349,52349
272.8,-5.9952e-15,0,53113,53113
272.851,-7.74381e-15,0,53921,53921
272.9,-9.49241e-15,0,54615,54615
272.95,-1.1241e-14,0,54887,54887
273.001,-1.31561e-14,0,55697,55697
273.05,-1.65423e-14,0,56465,56465
273.1,-2.42861e-14,0,57317,57317
273.15,-4.06342e-14,0,58079,58079
273.201,-7.358e-14,0,58895,58895
273.25,-1.34726e-13,0,59657,59657
273.3,-2.4386e-13,0,60425,60425
273.351,-4.33875e-13,0,61259,61259
273.401,-7.41657e-13,0,62027,62027
273.45,-1.22613e-12,0,62669,62669
273.5,-1.95968e-12,0,63285,63285
273.551,-3.04723e-12,0,63897,63897
273.6,-4.55336e-12,0,63667,63667
273.65,-6.5859e-12,0,64169,64169
273.7,-9.22543e-12,0,64819,64819
273.751,-1.25759e-11,0,65757,65757
273.8,-1.6542e-11,0,67251,67251
273.85,-2.11039e-11,0,69095,69095
273.901,-2.61973e-11,0,69857,69857
273.95,-3.14503e-11,0,70625,70625
274,-3.66369e-11,0,71387,71387
274.05,-4.14024e-11,0,72155,72155
274.101,-4.54122e-11,0,72917,72917
274.15,-4.81639e-11,0,73645,73645
274.2,-4.93821e-11,0,74399,74399
274.251,-4.8779e-11,0,75167,75167
274.301,-4.62087e-11,0,75929,75929
274.35,-4.16347e-11,0,76697,76697
274.4,-3.51388e-11,0,77375,77375
274.451,-2.67834e-11,0,78137,78137
274.5,-1.71024e-11,0,78857,78857
274.55,-6.33998e-12,0,79619,79619
274.6,5.1191e-12,0,80315,80315
274.651,1.70636e-11,0,81077,81077
274.7,2.87868e-11,0,81797,81797
274.75,4.01552e-11,0,82559,82559
274.801,5.10807e-11,0,83237,83237
274.85,6.10743e-11,0,83957,83957
274.9,7.01969e-11,0,84647,84647
274.95,7.84031e-11,0,85415,85415
275.001,8.57868e-11,0,86129,86129
275.05,9.21425e-11,0,86807,86807
275.1,9.75775e-11,0,87527,87527
275.15,1.02037e-10,0,88217,88217
275.201,1.05426e-10,0,88967,88967
275.25,1.07409e-10,0,89699,89699
275.3,1.07707e-10,0,90377,90377
275.351,1.05868e-10,0,91097,91097
275.4,1.01547e-10,0,91787,91787
275.45,9.44854e-11,0,92507,92507
275.5,8.47548e-11,0,93185,93185
275.551,7.27703e-11,0,93899,93899
275.6,6.02101e-11,0,94595,94595
275.65,4.9063e-11,0,95309,95309
275.701,4.22523e-11,0,95987,95987
275.751,4.36566e-11,0,96707,96707
275.8,5.71091e-11,0,97397,97397
275.85,8.64641e-11,0,98117,98117
275.901,1.35814e-10,0,98795,98795
275.95,2.05851e-10,0,99509,99509
276,2.97992e-10,0,100205,100205
276.05,4.1258e-10,0,100835,100835
276.101,5.85861e-10,0,101555,101555
276.15,3.5802e-09,0,102245,102245
276.2,1.03712e-08,0,102959,102959
276.251,1.75816e-08,0,103637,103637
276.3,2.37155e-08,0,104357,104357
276.35,2.82994e-08,0,104999,104999
276.4,3.13705e-08,0,105677,105677
276.451,3.37238e-08,0,106397,106397
276.5,3.67219e-08,0,107087,107087
276.55,4.19004e-08,0,107747,107747
276.601,5.02043e-08,0,108437,108437
276.651,6.12358e-08,0,109127,109127
276.7,7.44986e-08,0,109787,109787
276.75,8.98859e-08,0,110477,110477
276.801,1.08559e-07,0,111167,111167
276.85,1.31472e-07,0,111827,111827
276.9,1.60325e-07,0,112517,112517
276.95,1.9609e-07,0,113159,113159
277.001,2.39546e-07,0,113837,113837
277.05,2.88347e-07,0,114557,114557
277.1,3.40992e-07,0,115199,115199
277.151,3.96207e-07,0,115877,115877
277.2,4.51718e-07,0,116525,116525
277.25,5.09417e-07,0,117239,117239
277.3,5.70705e-07,0,117869,117869
277.351,6.36187e-07,0,118565,118565
277.4,7.0102e-07,0,119195,119195
277.45,7.61771e-07,0,119837,119837
277.5,8.14493e-07,0,120557,120557
277.551,8.5727e-07,0,121187,121187
277.6,8.88043e-07,0,121829,121829
277.65,9.08293e-07,0,122459,122459
277.701,9.20225e-07,0,123107,123107
277.75,9.26002e-07,0,123737,123737
277.8,9.27703e-07,0,124295,124295
277.85,9.26104e-07,0,124889,124889
277.901,9.20929e-07,0,125519,125519
277.95,9.11554e-07,0,126057,126057
278,8.96857e-07,0,126587,126587
278.051,8.75275e-07,0,127187,127187
278.101,8.46344e-07,0,127697,127697
278.15,8.09134e-07,0,128207,128207
278.2,7.63767e-07,0,128717,128717
278.251,7.10845e-07,0,129227,129227
278.3,6.54632e-07,0,129737,129737
278.35,5.97541e-07,0,130294,130294
278.4,5.42146e-07,0,131072,131072
278.451,4.89289e-07,0,131072,131072
278.5,4.41169e-07,0,131072,131072
278.55,3.96979e-07,0,131072,131072
278.601,3.55694e-07,0,131072,131072
278.65,3.17829e-07,0,131072,131072
278.7,2.82097e-07,0,131072,131072
278.75,2.48088e-07,0,131072,131072
278.801,2.15481e-07,0,131072,131072
278.85,1.8619e-07,0,131072,131072
278.9,1.61265e-07,0,131072,131072
278.951,1.41464e-07,0,131072,131072
279.001,1.2665e-07,0,131072,131072
279.05,1.14138e-07,0,131072,131072
279.1,1.01438e-07,0,131072,131072
279.151,8.74252e-08,0,131072,131072
279.2,7.35586e-08,0,131072,131072
279.25,6.14732e-08,0,131072,131072
279.3,5.2361e-08,0,131072,131072
279.351,4.61772e-08,0,131072,131072
279.4,4.22173e-08,0,131072,131072
279.45,3.90265e-08,0,131072,131072
279.501,3.51749e-08,0,131072,131072
279.55,3.00247e-08,0,131072,131072
279.6,2.39609e-08,0,131072,131072
279.65,1.84301e-08,0,131072,131072
279.701,1.48982e-08,0,131072,131072
279.75,1.39957e-08,0,131072,131072
279.8,1.50478e-08,0,131072,131072
279.85,1.70475e-08,0,131072,131072
279.901,1.93256e-08,0,131072,131072
279.95,2.16072e-08,0,131072,131072
280,2.40199e-08,0,131072,131072
280.051,2.67309e-08,0,131072,131072
280.1,2.96977e-08,0,131072,131072
280.15,3.28916e-08,0,131072,131072
280.2,3.61642e-08,0,131072,131072
280.251,3.94588e-08,0,131072,131072
280.3,4.28102e-08,0,131072,131072
280.35,4.64666e-08,0,131072,131072
280.401,5.04846e-08,0,131072,131072
280.451,5.46169e-08,0,131072,131072
280.5,5.88348e-08,0,131072,131072
280.55,6.31055e-08,0,131072,131072
280.601,6.74731e-08,0,131072,131072
280.65,7.17927e-08,0,131072,131072
280.7,7.61111e-08,0,131072,131072
280.75,8.04433e-08,0,131072,131072
280.801,8.50577e-08,0,131072,131072
280.85,9.043e-08,0,131072,131072
280.9,9.73291e-08,0,131072,131072
280.951,1.05891e-07,0,131072,131072
281,1.15012e-07,0,131072,131072
281.05,1.23759e-07,0,131072,131072
281.1,1.31465e-07,0,131072,131072
281.151,1.38152e-07,0,131072,131072
281.2,1.44139e-07,0,131072,131072
281.25,1.50423e-07,0,131072,131072
281.301,1.58075e-07,0,131072,131072
281.351,1.67557e-07,0,131072,131072
281.4,1.79246e-07,0,131072,131072
281.45,1.932e-07,0,131072,131072
281.501,2.0985e-07,0,131072,131072
281.55,2.29261e-07,0,131072,131072
281.6,2.52535e-07,0,131072,131072
281.65,2.80608e-07,0,131072,131072
281.701,3.1463e-07,0,131072,131072
281.75,3.53596e-07,0,131072,131072
281.8,3.97206e-07,0,131072,131072
281.851,4.44923e-07,0,131072,131072
281.9,4.94133e-07,0,131072,131072
281.95,5.44818e-07,0,131072,131072
282,5.96875e-07,0,131072,131072
282.051,6.5105e-07,0,131072,131072
282.1,7.04989e-07,0,131072,131072
282.15,7.57545e-07,0,131072,131072
282.2,8.05927e-07,0,131072,131072
282.251,8.47793e-07,0,131072,131072
282.3,8.79739e-07,0,131072,131072
282.35,9.01479e-07,0,131072,131072
282.401,9.13442e-07,0,131072,131072
282.45,9.16602e-07,0,131072,131072
282.5,9.12941e-07,0,131072,131072
282.55,9.04038e-07,0,131072,131072
282.601,8.90674e-07,0,131072,131072
282.65,8.73534e-07,0,131072,131072
282.7,8.52142e-07,0,131072,131072
282.751,8.25372e-07,0,131072,131072
282.801,7.93155e-07,0,131072,131072
282.85,7.54437e-07,0,131072,131072
282.9,7.08921e-07,0,131072,131072
282.951,6.56194e-07,0,131072,131072
283,5.99042e-07,0,131072,131072
283.05,5.38739e-07,0,131072,131072
283.1,4.77628e-07,0,131072,131072
283.151,4.17047e-07,0,131072,131072
283.2,3.60407e-07,0,131072,131072
283.25,3.0774e-07,0,131072,131072
283.301,2.58641e-07,0,131072,131072
283.35,2.14333e-07,0,131072,131072
283.4,1.73622e-07,0,131072,131072
283.45,1.36041e-07,0,131072,131072
283.501,1.00843e-07,0,131072,131072
283.55,6.91764e-08,0,131072,131072
283.6,4.10286e-08,0,131072,131072
283.651,1.672e-08,0,131072,131072
283.701,-2.76227e-09,0,131072,131072
283.75,-1.82742e-08,0,131072,131072
283.8,-3.0975e-08,0,131072,131072
283.851,-4.23147e-08,0,131072,131072
283.9,-5.27184e-08,0,131072,131072
283.95,-6.22573e-08,0,131072,131072
284,-7.02618e-08,0,131072,131072
284.051,-7.61384e-08,0,131072,131072
284.1,-7.95377e-08,0,131072,131072
284.15,-8.09967e-08,0,131072,131072
284.201,-8.13622e-08,0,131072,131072
284.25,-8.15111e-08,0,131072,131072
284.3,-8.19652e-08,0,131072,131072
284.35,-8.26472e-08,0,131072,131072
284.401,-8.29828e-08,0,131072,131072
284.45,-8.22688e-08,0,131072,131072
284.5,-8.01441e-08,0,131072,131072
284.551,-7.66734e-08,0,131072,131072
284.601,-7.24372e-08,0,131072,131072
284.65,-6.79228e-08,0,131072,131072
284.7,-6.3496e-08,0,131072,131072
284.751,-5.92591e-08,0,131072,131072
284.8,-5.53718e-08,0,131072,131072
284.85,-5.17813e-08,0,131072,131072
284.9,-4.85215e-08,0,131072,131072
284.951,-4.5598e-08,0,131072,131072
285,-4.31065e-08,0,131072,131072
285.05,-4.09542e-08,0,131072,131072
285.101,-3.90384e-08,0,131072,131072
285.15,-3.736e-08,0,131072,131072
285.2,-3.58798e-08,0,131072,131072
285.25,-3.46118e-08,0,131072,131072
285.301,-3.35512e-08,0,131072,131072
285.35,-3.27222e-08,0,131072,131072
285.4,-3.20898e-08,0,131072,131072
285.45,-3.16316e-08,0,131072,131072
285.501,-3.13217e-08,0,131072,131072
285.55,-3.11482e-08,0,131072,131072
285.6,-3.10859e-08,0,131072,131072
285.651,-3.11175e-08,0,131072,131072
285.7,-3.12232e-08,0,131072,131072
285.75,-3.13849e-08,0,131072,131072
285.8,-3.15863e-08,0,131072,131072
285.851,-3.18177e-08,0,131072,131072
285.9,-3.20637e-08,0,131072,131072
285.95,-3.23224e-08,0,131072,131072
286.001,-3.25945e-08,0,131072,131072
286.051,-3.28684e-08,0,131072,131072
286.1,-3.31425e-08,0,131072,131072
286.15,-3.34103e-08,0,131072,131072
286.201,-3.36694e-08,0,131072,131072
286.25,-3.39085e-08,0,131072,131072
286.3,-3.41305e-08,0,131072,131072
286.35,-3.43369e-08,0,131072,131072
286.401,-3.45323e-08,0,131072,131072
286.45,-3.47118e-08,0,131072,131072
286.5,-3.48769e-08,0,131072,131072
286.551,-3.50265e-08,0,131072,131072
286.6,-3.5153e-08,0,131072,131072
286.65,-3.52561e-08,0,131072,131072
286.7,-3.5335e-08,0,131072,131072
286.751,-3.53909e-08,0,131072,131072
286.8,-3.54237e-08,0,131072,131072
286.85,-3.54359e-08,0,131072,131072
286.901,-3.54289e-08,0,131072,131072
286.951,-3.54047e-08,0,131072,131072
287,-3.53655e-08,0,131072,131072
287.05,-3.53138e-08,0,131072,131072
287.101,-3.52516e-08,0,131072,131072
287.15,-3.5183e-08,0,131072,131072
287.2,-3.51095e-08,0,131072,131072
287.25,-3.50327e-08,0,131072,131072
287.301,-3.49527e-08,0,131072,131072
287.35,-3.48734e-08,0,131072,131072
287.4,-3.47946e-08,0,131072,131072
287.451,-3.47164e-08,0,131072,131072
287.5,-3.46421e-08,0,131072,131072
287.55,-3.45716e-08,0,131072,131072
287.6,-3.45054e-08,0,131072,131072
287.651,-3.44435e-08,0,131072,131072
287.7,-3.43882e-08,0,131072,131072
287.75,-3.43391e-08,0,131072,131072
287.8,-3.42963e-08,0,131072,131072
287.851,-3.42598e-08,0,131072,131072
287.9,-3.42307e-08,0,131072,131072
287.95,-3.42084e-08,0,131072,131072
288.001,-3.41928e-08,0,131072,131072
288.05,-3.41843e-08,0,131072,131072
288.1,-3.41827e-08,0,131072,131072
288.15,-3.4188e-08,0,131072,131072
288.201,-3.42007e-08,0,131072,131072
288.25,-3.42208e-08,0,131072,131072
288.3,-3.42486e-08,0,131072,131072
288.351,-3.42847e-08,0,131072,131072
288.4,-3.43278e-08,0,131072,131072
288.45,-3.43779e-08,0,131072,131072
288.5,-3.44344e-08,0,131072,131072
288.551,-3.44978e-08,0,131072,131072
288.6,-3.45663e-08,0,131072,131072
288.65,-3.46408e-08,0,131072,131072
288.7,-3.47221e-08,0,131072,131072
288.751,-3.48124e-08,0,131072,131072
288.8,-3.491e-08,0,131072,131072
288.85,-3.50178e-08,0,131072,131072
288.901,-3.51389e-08,0,131072,131072
288.95,-3.5272e-08,0,131072,131072
289,-3.54209e-08,0,131072,131072
289.05,-3.55878e-08,0,131072,131072
289.101,-3.57782e-08,0,131072,131072
289.15,-3.59885e-08,0,131072,131072
289.2,-3.62229e-08,0,131072,131072
289.251,-3.64864e-08,0,131072,131072
289.301,-3.67719e-08,0,131072,131072
289.35,-3.70833e-08,0,131072,131072
289.4,-3.74202e-08,0,131072,131072
289.451,-3.7787e-08,0,131072,131072
289.5,-3.81711e-08,0,131072,131072
289.55,-3.85747e-08,0,131072,131072
289.6,-3.89933e-08,0,131072,131072
289.651,-3.9428e-08,0,131072,131072
289.7,-3.98605e-08,0,131072,131072
289.75,-4.02911e-08,0,131072,131072
289.801,-4.07206e-08,0,131072,131072
289.85,-4.11318e-08,0,131072,131072
289.9,-4.15273e-08,0,131072,131072
289.95,-4.19038e-08,0,131072,131072
290.001,-4.22632e-08,0,131072,131072
290.05,-4.2592e-08,0,131072,131072
290.1,-4.28922e-08,0,131072,131072
290.151,-4.31636e-08,0,131072,131072
290.201,-4.33945e-08,0,131072,131072
290.25,-4.35851e-08,0,131072,131072
290.3,-4.37326e-08,0,131072,131072
290.351,-4.38361e-08,0,131072,131072
290.4,-4.38916e-08,0,131072,131072
290.45,-4.39011e-08,0,131072,131072
290.5,-4.38654e-08,0,131072,131072
290.551,-4.37843e-08,0,131072,131072
290.6,-4.36615e-08,0,131072,131072
290.65,-4.34976e-08,0,131072,131072
290.701,-4.32906e-08,0,131072,131072
290.75,-4.30471e-08,0,131072,131072
290.8,-4.27648e-08,0,131072,131072
290.85,-4.24434e-08,0,131072,131072
290.901,-4.20765e-08,0,131072,131072
290.95,-4.16737e-08,0,131072,131072
291,-4.1229e-08,0,131072,131072
291.05,-4.07417e-08,0,131072,131072
291.101,-4.02032e-08,0,131072,131072
291.15,-3.9629e-08,0,131072,131072
291.2,-3.90115e-08,0,131072,131072
291.251,-3.83408e-08,0,131072,131072
291.3,-3.76369e-08,0,131072,131072
291.35,-3.68915e-08,0,131072,131072
291.4,-3.61073e-08,0,131072,131072
291.451,-3.5276e-08,0,131072,131072
291.5,-3.44272e-08,0,131072,131072
291.55,-3.35559e-08,0,131072,131072
291.601,-3.26562e-08,0,131072,131072
291.651,-3.17613e-08,0,131072,131072
291.7,-3.08651e-08,0,131072,131072
291.75,-2.99735e-08,0,131072,131072
291.801,-2.90789e-08,0,131072,131072
291.85,-2.8212e-08,0,131072,131072
291.9,-2.73637e-08,0,131072,131072
291.95,-2.65382e-08,0,131072,131072
292.001,-2.57278e-08,0,131072,131072
292.05,-2.49603e-08,0,131072,131072
292.1,-2.42281e-08,0,131072,131072
292.151,-2.35256e-08,0,131072,131072
292.2,-2.28773e-08,0,131072,131072
292.25,-2.22761e-08,0,131072,131072
292.3,-2.17239e-08,0,131072,131072
292.351,-2.12145e-08,0,131072,131072
292.4,-2.07621e-08,0,131072,131072
292.45,-2.0357e-08,0,131072,131072
292.501,-1.99915e-08,0,131072,131072
292.551,-1.9673e-08,0,131072,131072
292.6,-1.93926e-08,0,131072,131072
292.65,-1.91471e-08,0,131072,131072
292.701,-1.89305e-08,0,131072,131072
292.75,-1.87462e-08,0,131072,131072
292.8,-1.85879e-08,0,131072,131072
292.85,-1.84525e-08,0,131072,131072
292.901,-1.83355e-08,0,131072,131072
292.95,-1.82368e-08,0,131072,131072
293,-1.81518e-08,0,131072,131072
293.051,-1.80769e-08,0,131072,131072
293.1,-1.80124e-08,0,131072,131072
293.15,-1.79555e-08,0,131072,131072
293.2,-1.7905e-08,0,131072,131072
293.251,-1.78586e-08,0,131072,131072
293.3,-1.78161e-08,0,131072,131072
293.35,-1.77752e-08,0,131072,131072
293.4,-1.77348e-08,0,131072,131072
293.451,-1.7694e-08,0,131072,131072
293.5,-1.76537e-08,0,131072,131072
293.55,-1.76132e-08,0,131072,131072
293.601,-1.75712e-08,0,131072,131072
293.65,-1.75277e-08,0,131072,131072
293.7,-1.74805e-08,0,131072,131072
293.75,-1.74282e-08,0,131072,131072
293.801,-1.73687e-08,0,131072,131072
293.85,-1.73027e-08,0,131072,131072
293.9,-1.72291e-08,0,131072,131072
293.951,-1.71462e-08,0,131072,131072
294,-1.70561e-08,0,131072,131072
294.05,-1.69572e-08,0,131072,131072
294.1,-1.68493e-08,0,131072,131072
294.151,-1.67307e-08,0,131072,131072
294.2,-1.66054e-08,0,131072,131072
294.25,-1.64727e-08,0,131072,131072
294.3,-1.63336e-08,0,131072,131072
294.351,-1.61867e-08,0,131072,131072
294.4,-1.60363e-08,0,131072,131072
294.45,-1.58805e-08,0,129792,129792
294.501,-1.57168e-08,0,130368,130368
294.55,-1.55507e-08,0,130464,130464
294.6,-1.53809e-08,0,130512,130512
294.65,-1.52088e-08,0,130464,130464
294.701,-1.50328e-08,0,130464,130464
294.75,-1.4858e-08,0,130464,130464
294.8,-1.46808e-08,0,130432,130432
294.851,-1.44965e-08,0,130368,130368
294.901,-1.43082e-08,0,130272,130272
294.95,-1.41114e-08,0,130272,130272
295,-1.3905e-08,0,130272,130272
295.051,-1.3686e-08,0,130272,130272
295.1,-1.34616e-08,0,130184,130184
295.15,-1.32302e-08,0,130144,130144
295.2,-1.29931e-08,0,130088,130088
295.251,-1.27475e-08,0,130020,130020
295.3,-1.25005e-08,0,130032,130032
295.35,-1.22476e-08,0,129992,129992
295.401,-1.19828e-08,0,129936,129936
295.45,-1.1711e-08,0,129888,129888
295.5,-1.14254e-08,0,129888,129888
295.55,-1.11228e-08,0,129872,129872
295.601,-1.07952e-08,0,129872,129872
295.65,-1.04495e-08,0,129840,129840
295.7,-1.00788e-08,0,129816,129816
295.751,-9.67523e-09,0,129792,129792
295.801,-9.24898e-09,0,129792,129792
295.85,-8.793e-09,0,129744,129744
295.9,-8.30606e-09,0,129728,129728
295.951,-7.7792e-09,0,129728,129728
296,-7.22681e-09,0,129672,129672
296.05,-6.64118e-09,0,129672,129672
296.1,-6.02289e-09,0,129624,129624
296.151,-5.36423e-09,0,129660,129660
296.2,-4.68801e-09,0,129600,129600
296.25,-3.99007e-09,0,129600,129600
296.301,-3.26592e-09,0,129600,129600
296.35,-2.54083e-09,0,129576,129576
296.4,-1.79172e-09,0,129568,129568
296.45,-1.00417e-09,0,129612,129612
296.501,-3.12142e-11,0,129592,129592
296.55,3.91741e-10,0,129576,129576
296.6,7.65961e-10,0,129556,129556
296.65,1.5044e-09,0,129528,129528
296.701,2.33385e-09,0,129528,129528
296.75,2.94585e-09,0,129524,129524
296.8,3.51454e-09,0,129488,129488
296.851,4.05764e-09,0,129488,129488
296.9,4.56116e-09,0,129488,129488
296.95,5.02244e-09,0,129488,129488
297,5.43729e-09,0,129440,129440
297.051,5.80843e-09,0,129424,129424
297.1,6.1245e-09,0,129440,129440
297.15,6.39242e-09,0,129432,129432
297.201,6.61624e-09,0,129392,129392
297.251,6.79199e-09,0,129440,129440
297.3,6.92689e-09,0,129412,129412
297.35,7.02436e-09,0,129352,129352
297.401,7.08837e-09,0,129340,129340
297.45,7.12061e-09,0,129332,129332
297.5,7.12538e-09,0,129332,129332
297.55,7.10577e-09,0,129276,129276
297.601,7.06429e-09,0,129296,129296
297.65,7.00534e-09,0,129256,129256
297.7,6.93143e-09,0,129224,129224
297.751,6.84418e-09,0,129236,129236
297.8,6.74868e-09,0,129200,129200
297.85,6.64576e-09,0,129216,129216
297.9,6.53725e-09,0,129200,129200
297.951,6.42329e-09,0,129176,129176
298,6.30878e-09,0,129228,129228
298.05,6.194e-09,0,129200,129200
298.101,6.0779e-09,0,129224,129224
298.151,5.9654e-09,0,129232,129232
298.2,5.85564e-09,0,129244,129244
298.25,5.7488e-09,0,129264,129264
298.301,5.6433e-09,0,129232,129232
298.35,5.54178e-09,0,129300,129300
298.4,5.44414e-09,0,129316,129316
298.45,5.35372e-09,0,129308,129308
298.501,5.26903e-09,0,129304,129304
298.55,5.19192e-09,0,129332,129332
298.6,5.12164e-09,0,129352,129352
298.651,5.05793e-09,0,129352,129352
298.7,5.00225e-09,0,129368,129368
298.75,4.95368e-09,0,129352,129352
298.8,4.91224e-09,0,129360,129360
298.851,4.87694e-09,0,129416,129416
298.9,4.84806e-09,0,129400,129400
298.95,4.82382e-09,0,129416,129416
299,4.8028e-09,0,129352,129352
299.051,4.78396e-09,0,129392,129392
299.1,4.76685e-09,0,129376,129376
299.15,4.74998e-09,0,129352,129352
299.201,4.73321e-09,0,129352,129352
299.25,4.71753e-09,0,129328,129328
299.3,4.70085e-09,0,129368,129368
299.35,4.68127e-09,0,129316,129316
299.401,4.65813e-09,0,129328,129328
299.45,4.63147e-09,0,129368,129368
299.5,4.60084e-09,0,129316,129316
299.551,4.56614e-09,0,129320,129320
299.601,4.52957e-09,0,129324,129324
299.65,4.49263e-09,0,129328,129328
299.7,4.45672e-09,0,129286,129286
299.751,4.4217e-09,0,129328,129328
299.8,4.38856e-09,0,129280,129280
299.85,4.35629e-09,0,129264,129264
299.9,4.32425e-09,0,129240,129240
299.951,4.29142e-09,0,129176,129176
300,4.25765e-09,0,129140,129140
300.05,4.22168e-09,0,129096,129096
300.101,4.18677e-09,0,129044,129044
300.15,4.15549e-09,0,129008,129008
300.2,4.12075e-09,0,128970,128970
300.25,4.08724e-09,0,128920,128920
300.301,4.05732e-09,0,128848,128848
300.35,4.03135e-09,0,128884,128884
300.4,4.0086e-09,0,128800,128800
300.451,3.98802e-09,0,128784,128784
300.501,3.96956e-09,0,128712,128712
300.55,3.9523e-09,0,128692,128692
300.6,3.9355e-09,0,128616,128616
300.651,3.91847e-09,0,128580,128580
300.7,3.90138e-09,0,128532,128532
300.75,3.88388e-09,0,128462,128462
300.8,3.86626e-09,0,128424,128424
300.851,3.84832e-09,0,128396,128396
300.9,3.8305e-09,0,128324,128324
300.95,3.81238e-09,0,128282,128282
301.001,3.7932e-09,0,128200,128200
301.05,3.77308e-09,0,128144,128144
301.1,3.75176e-09,0,128074,128074
301.15,3.72948e-09,0,128022,128022
301.201,3.70643e-09,0,128024,128024
301.25,3.68369e-09,0,127936,127936
301.3,3.66088e-09,0,127860,127860
301.35,3.63788e-09,0,127832,127832
301.401,3.61408e-09,0,127792,127792
301.45,3.58986e-09,0,127704,127704
301.5,3.56493e-09,0,127692,127692
301.551,3.53908e-09,0,127656,127656
301.6,3.51333e-09,0,127592,127592
301.65,3.48766e-09,0,127576,127576
301.7,3.46215e-09,0,127540,127540
301.751,3.43637e-09,0,127524,127524
301.8,3.41086e-09,0,127524,127524
301.85,3.38503e-09,0,127392,127392
301.901,3.35838e-09,0,127380,127380
301.951,3.33119e-09,0,127340,127340
302,3.30301e-09,0,127320,127320
302.05,3.27462e-09,0,127320,127320
302.101,3.2458e-09,0,127320,127320
302.15,3.2171e-09,0,127320,127320
302.2,3.18776e-09,0,127272,127272
302.25,3.15802e-09,0,127280,127280
302.301,3.12833e-09,0,127244,127244
302.35,3.09927e-09,0,127240,127240
302.4,3.06962e-09,0,127252,127252
302.451,3.0393e-09,0,127240,127240
302.5,3.00952e-09,0,127216,127216
302.55,2.97947e-09,0,127202,127202
302.6,2.94906e-09,0,127200,127200
302.651,2.91829e-09,0,127192,127192
302.7,2.88812e-09,0,127200,127200
302.75,2.85761e-09,0,127192,127192
302.801,2.8262e-09,0,127188,127188
302.851,2.7952e-09,0,127160,127160
302.9,2.76423e-09,0,127152,127152
302.95,2.73318e-09,0,127638,127638
303.001,2.70211e-09,0,128510,128510
303.05,2.67113e-09,0,129374,129374
303.1,2.63863e-09,0,130246,130246
303.15,2.60569e-09,0,131072,131072
303.201,2.57222e-09,0,131072,131072
303.25,2.53853e-09,0,131072,131072
303.3,2.50478e-09,0,131072,131072
303.351,2.47195e-09,0,131072,131072
303.4,2.43799e-09,0,131072,131072
303.45,2.40101e-09,0,131072,131072
303.5,2.36536e-09,0,131072,131072
303.551,2.33045e-09,0,131072,131072
303.6,2.29461e-09,0,131072,131072
303.65,2.25644e-09,0,131072,131072
303.7,2.21712e-09,0,131072,131072
303.751,2.17766e-09,0,131072,131072
303.8,2.13863e-09,0,131072,131072
303.85,2.09872e-09,0,131072,131072
303.901,2.05752e-09,0,131072,131072
303.95,2.01656e-09,0,131072,131072
304,1.97543e-09,0,131072,131072
304.05,1.93407e-09,0,131072,131072
304.101,1.89171e-09,0,131072,131072
304.15,1.84953e-09,0,131072,131072
304.2,1.80697e-09,0,131072,131072
304.251,1.7635e-09,0,131072,131072
304.301,1.7205e-09,0,131072,131072
304.35,1.67746e-09,0,131072,131072
304.4,1.63441e-09,0,131072,131072
304.451,1.59077e-09,0,131072,131072
304.5,1.54792e-09,0,131072,131072
304.55,1.50528e-09,0,131072,131072
304.6,1.46289e-09,0,131072,131072
304.651,1.42016e-09,0,131072,131072
304.7,1.37833e-09,0,131072,131072
304.75,1.33685e-09,0,131072,131072
304.801,1.29545e-09,0,131072,131072
304.85,1.25566e-09,0,131072,131072
304.9,1.2168e-09,0,131072,131072
304.95,1.17829e-09,0,131072,131072
