250,0,0,512,512
250.012,0,0,512,512
250.059,0,0,512,512
250.105,0,0,512,512
250.152,0,0,512,512
250.211,0,0,512,512
250.258,0,0,512,512
250.305,0,0,512,512
250.352,0,0,512,512
250.41,2.77556e-17,0,512,512
250.457,2.77556e-17,0,512,512
250.504,0,0,512,512
250.551,0,0,512,512
250.609,0,0,512,512
250.656,0,0,512,512
250.703,0,0,512,512
250.762,0,0,512,512
250.808,0,0,512,512
250.855,0,0,512,512
250.902,2.77556e-17,0,512,512
250.961,2.77556e-17,0,512,512
251.008,2.77556e-17,0,512,512
251.055,2.77556e-17,0,512,512
251.101,0,0,512,512
251.16,0,0,512,512
251.207,2.77556e-17,0,512,512
251.254,0,0,512,512
251.301,0,0,512,512
251.359,0,0,512,512
251.406,0,0,512,512
251.453,0,0,512,512
251.511,0,0,512,512
251.558,0,0,512,512
251.605,2.77556e-17,0,512,512
251.652,2.77556e-17,0,512,512
251.711,0,0,512,512
251.758,0,0,512,512
251.804,0,0,512,512
251.851,0,0,512,512
251.91,0,0,512,512
251.957,0,0,512,512
252.004,-2.77556e-17,0,512,512
252.05,-2.77556e-17,0,512,512
252.109,-2.77556e-17,0,512,512
252.156,0,0,512,512
252.203,0,0,512,512
252.261,0,0,512,512
252.308,0,0,512,512
252.355,2.77556e-17,0,512,512
252.402,2.77556e-17,0,512,512
252.461,0,0,512,512
252.507,0,0,512,512
252.554,0,0,512,512
252.601,0,0,512,512
252.66,0,0,512,512
252.707,0,0,512,512
252.754,0,0,512,512
252.8,0,0,512,512
252.859,2.77556e-17,0,512,512
252.906,0,0,512,512
252.953,0,0,512,512
253.011,0,0,512,512
253.058,0,0,512,512
253.105,0,0,512,512
253.152,0,0,512,512
253.21,0,0,512,512
253.257,0,0,512,512
253.304,2.77556e-17,0,512,512
253.351,2.77556e-17,0,512,512
253.41,0,0,512,512
253.457,0,0,512,512
253.503,0,0,512,512
253.55,2.77556e-17,0,512,512
253.609,2.77556e-17,0,512,512
253.656,2.77556e-17,0,512,512
253.703,2.77556e-17,0,512,512
253.761,0,0,512,512
253.808,0,0,512,512
253.855,0,0,512,512
253.902,-2.77556e-17,0,512,512
253.96,-2.77556e-17,0,512,512
254.007,0,0,512,512
254.054,0,0,512,512
254.101,-2.77556e-17,0,512,512
254.16,0,0,512,512
254.206,-2.77556e-17,0,512,512
254.253,0,0,512,512
254.3,0,0,512,512
254.359,0,0,512,512
254.406,0,0,512,512
254.452,0,0,512,512
254.511,-2.77556e-17,0,512,512
254.558,-2.77556e-17,0,512,512
254.605,-2.77556e-17,0,512,512
254.652,-2.77556e-17,0,512,512
254.71,-2.77556e-17,0,512,512
254.757,0,0,512,512
254.804,0,0,512,512
254.851,-2.77556e-17,0,512,512
254.909,-5.55112e-17,0,512,512
254.956,-2.77556e-17,0,512,512
255.003,-2.77556e-17,0,512,512
255.05,-2.77556e-17,0,512,512
255.109,-2.77556e-17,0,512,512
255.155,-2.77556e-17,0,512,512
255.202,-2.77556e-17,0,512,512
255.261,-2.77556e-17,0,512,512
255.308,-2.77556e-17,0,512,512
255.355,-2.77556e-17,0,512,512
255.402,-2.77556e-17,0,512,512
255.46,-2.77556e-17,0,512,512
255.507,-2.77556e-17,0,512,512
255.554,-2.77556e-17,0,512,512
255.601,0,0,512,512
255.659,0,0,512,512
255.706,0,0,512,512
255.753,0,0,512,512
255.812,0,0,512,512
255.859,0,0,512,512
255.905,2.77556e-17,0,512,512
255.952,0,0,512,512
256.011,0,0,512,512
256.058,0,0,512,512
256.105,0,0,512,512
256.151,0,0,512,512
256.21,0,0,512,512
256.257,2.77556e-17,0,512,512
256.304,2.77556e-17,0,512,512
256.351,0,0,512,512
256.409,0,0,512,512
256.456,0,0,512,512
256.503,0,0,512,512
256.562,0,0,512,512
256.608,0,0,512,512
256.655,-2.77556e-17,0,512,512
256.702,0,0,512,512
256.761,-2.77556e-17,0,512,512
256.808,0,0,512,512
256.854,-2.77556e-17,0,512,512
256.901,-2.77556e-17,0,512,512
256.96,-2.77556e-17,0,512,512
257.007,-2.77556e-17,0,512,512
257.054,0,0,512,512
257.101,-2.77556e-17,0,512,512
257.159,-2.77556e-17,0,512,512
257.206,0,0,512,512
257.253,0,0,512,512
257.311,0,0,512,512
257.358,2.77556e-17,0,512,512
257.405,2.77556e-17,0,512,512
257.452,0,0,512,512
257.511,0,0,512,512
257.557,0,0,512,512
257.604,0,0,512,512
257.651,0,0,512,512
257.71,-2.77556e-17,0,512,512
257.757,0,0,512,512
257.804,0,0,512,512
257.85,0,0,512,512
257.909,-2.77556e-17,0,512,512
257.956,-2.77556e-17,0,512,512
258.003,-2.77556e-17,0,512,512
258.061,0,0,512,512
258.108,0,0,512,512
258.155,0,0,512,512
258.202,0,0,512,512
258.261,0,0,512,512
258.307,-2.77556e-17,0,512,512
258.354,0,0,512,512
258.401,-2.77556e-17,0,512,512
258.46,-2.77556e-17,0,512,512
258.507,-2.77556e-17,0,512,512
258.553,-2.77556e-17,0,512,512
258.6,-2.77556e-17,0,512,512
258.659,-2.77556e-17,0,512,512
258.706,-5.55112e-17,0,512,512
258.753,-5.55112e-17,0,512,512
258.811,-5.55112e-17,0,512,512
258.858,-5.55112e-17,0,512,512
258.905,-2.77556e-17,0,512,512
258.952,0,0,512,512
259.01,0,0,512,512
259.057,-2.77556e-17,0,512,512
259.104,0,0,512,512
259.151,0,0,512,512
259.21,-2.77556e-17,0,512,512
259.256,-2.77556e-17,0,512,512
259.303,0,0,512,512
259.35,0,0,512,512
259.409,2.77556e-17,0,512,512
259.456,2.77556e-17,0,512,512
259.503,0,0,512,512
259.561,0,0,512,512
259.608,0,0,512,512
259.655,-2.77556e-17,0,512,512
259.702,-2.77556e-17,0,512,512
259.76,0,0,512,512
259.807,0,0,512,512
259.854,2.77556e-17,0,512,512
259.901,0,0,512,512
259.959,0,0,512,512
260.006,0,0,512,512
260.053,0,0,512,512
260.1,-2.77556e-17,0,512,512
260.159,-2.77556e-17,0,512,512
260.206,-2.77556e-17,0,512,512
260.252,-2.77556e-17,0,512,512
260.311,-2.77556e-17,0,512,512
260.358,-2.77556e-17,0,512,512
260.405,-2.77556e-17,0,512,512
260.452,-2.77556e-17,0,512,512
260.51,-2.77556e-17,0,512,512
260.557,-2.77556e-17,0,512,512
260.604,0,0,512,512
260.651,0,0,512,512
260.709,0,0,512,512
260.756,0,0,512,512
260.803,0,0,512,512
260.862,0,0,512,512
260.909,2.77556e-17,0,512,512
260.955,2.77556e-17,0,512,512
261.002,2.77556e-17,0,512,512
261.061,2.77556e-17,0,512,512
261.108,2.77556e-17,0,512,512
261.155,2.77556e-17,0,512,512
261.201,2.77556e-17,0,512,512
261.26,0,0,512,512
261.307,0,0,512,512
261.354,0,0,512,512
261.401,0,0,512,512
261.459,0,0,512,512
261.506,0,0,512,512
261.553,0,0,512,512
261.612,0,0,512,512
261.658,0,0,512,512
261.705,0,0,512,512
261.752,2.77556e-17,0,512,512
261.811,2.77556e-17,0,512,512
261.858,-2.77556e-17,0,512,512
261.905,0,0,512,512
261.951,0,0,512,512
262.01,0,0,512,512
262.057,0,0,512,512
262.104,0,0,512,512
262.151,0,0,512,512
262.209,0,0,512,512
262.256,2.77556e-17,0,512,512
262.303,2.77556e-17,0,512,512
262.361,0,0,512,512
262.408,0,0,512,512
262.455,0,0,512,512
262.502,0,0,512,512
262.561,0,0,512,512
262.608,2.77556e-17,0,512,512
262.654,2.77556e-17,0,512,512
262.701,2.77556e-17,0,512,512
262.76,2.77556e-17,0,512,512
262.807,0,0,512,512
262.854,0,0,512,512
262.9,2.77556e-17,0,512,512
262.959,0,0,512,512
263.006,0,0,512,512
263.053,0,0,512,512
263.111,0,0,512,512
263.158,0,0,512,512
263.205,0,0,512,512
263.252,0,0,512,512
263.311,0,0,512,512
263.357,2.77556e-17,0,512,512
263.404,2.77556e-17,0,512,512
263.451,2.77556e-17,0,512,512
263.51,0,0,512,512
263.557,0,0,512,512
263.603,0,0,512,512
263.65,0,0,512,512
263.709,-2.77556e-17,0,512,512
263.756,-2.77556e-17,0,512,512
263.803,-2.77556e-17,0,512,512
263.861,0,0,512,512
263.908,0,0,512,512
263.955,2.77556e-17,0,512,512
264.002,0,0,512,512
264.06,0,0,512,512
264.107,0,0,512,512
264.154,0,0,512,512
264.201,0,0,512,512
264.26,0,0,512,512
264.306,2.77556e-17,0,512,512
264.353,2.77556e-17,0,512,512
264.4,2.77556e-17,0,512,512
264.459,2.77556e-17,0,512,512
264.506,2.77556e-17,0,512,512
264.553,2.77556e-17,0,512,512
264.611,2.77556e-17,0,512,512
264.658,2.77556e-17,0,512,512
264.705,2.77556e-17,0,512,512
264.752,2.77556e-17,0,512,512
264.81,2.77556e-17,0,512,512
264.857,2.77556e-17,0,512,512
264.904,2.77556e-17,0,512,512
264.951,2.77556e-17,0,512,512
265.01,2.77556e-17,0,512,512
265.056,2.77556e-17,0,512,512
265.103,2.77556e-17,0,512,512
265.15,2.77556e-17,0,512,512
265.209,2.77556e-17,0,512,512
265.256,2.77556e-17,0,512,512
265.302,2.77556e-17,0,512,512
265.361,5.55112e-17,0,512,512
265.408,5.55112e-17,0,512,512
265.455,5.55112e-17,0,512,512
265.502,5.55112e-17,0,512,512
265.56,2.77556e-17,0,512,512
265.607,2.77556e-17,0,512,512
265.654,2.77556e-17,0,512,512
265.701,2.77556e-17,0,512,512
265.759,2.77556e-17,0,512,512
265.806,2.77556e-17,0,512,512
265.853,2.77556e-17,0,512,512
265.9,2.77556e-17,0,512,512
265.959,2.77556e-17,0,512,512
266.005,2.77556e-17,0,512,512
266.052,2.77556e-17,0,512,512
266.111,0,0,512,512
266.158,2.77556e-17,0,512,512
266.205,0,0,512,512
266.252,2.77556e-17,0,512,512
266.31,2.77556e-17,0,512,512
266.357,2.77556e-17,0,512,512
266.404,2.77556e-17,0,512,512
266.451,2.77556e-17,0,512,512
266.509,0,0,512,512
266.556,0,0,512,512
266.603,-2.77556e-17,0,512,512
266.662,-2.77556e-17,0,512,512
266.708,-2.77556e-17,0,512,512
266.755,0,0,512,512
266.802,-2.77556e-17,0,512,512
266.861,-2.77556e-17,0,512,512
266.908,-2.77556e-17,0,512,512
266.955,-2.77556e-17,0,512,512
267.001,-2.77556e-17,0,512,512
267.06,-2.77556e-17,0,512,512
267.107,-2.77556e-17,0,512,512
267.154,-2.77556e-17,0,512,512
267.201,-2.77556e-17,0,512,512
267.259,-2.77556e-17,0,512,512
267.306,-2.77556e-17,0,512,512
267.353,-2.77556e-17,0,512,512
267.412,-2.77556e-17,0,512,512
267.458,-2.77556e-17,0,512,512
267.505,-2.77556e-17,0,512,512
267.552,0,0,512,512
267.611,2.77556e-17,0,512,512
267.658,2.77556e-17,0,512,512
267.704,2.77556e-17,0,512,512
267.751,2.77556e-17,0,512,512
267.81,2.77556e-17,0,512,512
267.857,2.77556e-17,0,512,512
267.904,2.77556e-17,0,512,512
267.95,2.77556e-17,0,512,512
268.009,2.77556e-17,0,512,512
268.056,2.77556e-17,0,512,512
268.101,2.77556e-17,0,879,879
268.151,2.77556e-17,0,1107,1107
268.201,2.77556e-17,0,1359,1359
268.251,2.77556e-17,0,1569,1569
268.3,2.77556e-17,0,1797,1797
268.35,2.77556e-17,0,2013,2013
268.401,2.77556e-17,0,2265,2265
268.451,2.77556e-17,0,2493,2493
268.501,2.77556e-17,0,2703,2703
268.551,2.77556e-17,0,2931,2931
268.601,2.77556e-17,0,3147,3147
268.65,2.77556e-17,0,3375,3375
268.7,2.77556e-17,0,3585,3585
268.75,2.77556e-17,0,3813,3813
268.801,2.77556e-17,0,4029,4029
268.851,2.77556e-17,0,4257,4257
268.901,2.77556e-17,0,4439,4439
268.951,2.77556e-17,0,4575,4575
269,2.77556e-17,0,4821,4821
269.05,2.77556e-17,0,5037,5037
269.1,2.77556e-17,0,5265,5265
269.151,2.77556e-17,0,5517,5517
269.201,2.77556e-17,0,5727,5727
269.251,2.77556e-17,0,5955,5955
269.301,2.77556e-17,0,6171,6171
269.351,2.77556e-17,0,6423,6423
269.4,2.77556e-17,0,6651,6651
269.45,2.77556e-17,0,6861,6861
269.501,2.77556e-17,0,7113,7113
269.551,2.77556e-17,0,7341,7341
269.601,2.77556e-17,0,7557,7557
269.651,2.77556e-17,0,7785,7785
269.701,2.77556e-17,0,8037,8037
269.75,2.77556e-17,0,8247,8247
269.8,2.77556e-17,0,8475,8475
269.851,2.77556e-17,0,8691,8691
269.901,2.77556e-17,0,8919,8919
269.951,2.77556e-17,0,9171,9171
270.001,2.77556e-17,0,9381,9381
270.051,2.77556e-17,0,9609,9609
270.1,2.77556e-17,0,9825,9825
270.15,2.77556e-17,0,10053,10053
270.2,2.77556e-17,0,10263,10263
270.251,5.27356e-16,0,10491,10491
270.301,1.41553e-15,0,10707,10707
270.351,2.33147e-15,0,10935,10935
270.401,3.27516e-15,0,11145,11145
270.45,4.44089e-15,0,11337,11337
270.5,7.16094e-15,0,11565,11565
270.55,1.36002e-14,0,11775,11775
270.601,2.7145e-14,0,12003,12003
270.651,5.07927e-14,0,12219,12219
270.701,8.71248e-14,0,12447,12447
270.751,1.33227e-13,0,12633,12633
270.801,1.74694e-13,0,12849,12849
270.85,1.7833e-13,0,13077,13077
270.9,8.69582e-14,0,13263,13263
270.951,-1.91763e-13,0,13479,13479
271.001,-7.38742e-13,0,13707,13707
271.051,-1.64732e-12,0,13893,13893
271.101,-2.98137e-12,0,14109,14109
271.151,-4.98268e-12,0,14295,14295
271.2,-1.93572e-11,0,14523,14523
271.25,-1.36722e-10,0,14715,14715
271.301,-3.52473e-10,0,14925,14925
271.351,-4.65778e-10,0,15131,15131
271.401,-3.33471e-10,0,15345,15345
271.451,-3.2237e-11,0,15531,15531
271.501,2.41288e-10,0,15747,15747
271.55,3.27438e-10,0,15933,15933
271.6,1.97516e-10,0,16125,16125
271.651,-2.7676e-11,0,16353,16353
271.701,-1.37377e-10,0,16539,16539
271.751,-4.46775e-11,0,16731,16731
271.801,1.59462e-10,0,16937,16937
271.851,2.87296e-10,0,17133,17133
271.9,2.30714e-10,0,17319,17319
271.95,5.70834e-11,0,17511,17511
272,-6.68054e-11,0,17697,17697
272.051,-3.19356e-11,0,17889,17889
272.101,1.15054e-10,0,18117,18117
272.151,2.39163e-10,0,18303,18303
272.201,2.45633e-10,0,18495,18495
272.25,1.45576e-10,0,18681,18681
272.3,2.31754e-11,0,18873,18873
272.35,-3.68679e-11,0,19059,19059
272.401,7.95466e-12,0,19251,19251
272.451,1.39221e-10,0,19437,19437
272.501,2.81871e-10,0,19629,19629
272.551,3.16918e-10,0,19779,19779
272.601,1.59893e-10,0,19965,19965
272.65,-1.17515e-10,0,20157,20157
272.7,-2.59787e-10,0,20343,20343
272.751,-1.05954e-11,0,20535,20535
272.801,5.15306e-10,0,20721,20721
272.851,7.93723e-10,0,20889,20889
272.901,3.12036e-10,0,21075,21075
272.951,-7.34122e-10,0,21267,21267
273,-1.20845e-09,0,21417,21417
273.05,2.94691e-10,0,21603,21603
273.101,4.52681e-09,0,21795,21795
273.151,1.05328e-08,0,21981,21981
273.201,1.69591e-08,0,22149,22149
273.251,2.25257e-08,0,22335,22335
273.301,2.65833e-08,0,22527,22527
273.35,2.91859e-08,0,22677,22677
273.4,3.11265e-08,0,22863,22863
273.45,3.38222e-08,0,23031,23031
273.501,3.89182e-08,0,23217,23217
273.551,4.68244e-08,0,23409,23409
273.601,5.73148e-08,0,23559,23559
273.651,6.972e-08,0,23665,23665
273.7,8.39906e-08,0,23913,23913
273.75,1.01059e-07,0,24099,24099
273.8,1.22404e-07,0,24271,24271
273.851,1.5029e-07,0,24401,24401
273.901,1.84001e-07,0,24627,24627
273.951,2.24289e-07,0,24795,24795
274.001,2.7003e-07,0,24981,24981
274.051,3.1908e-07,0,25131,25131
274.1,3.69406e-07,0,25323,25323
274.15,4.20544e-07,0,25485,25485
274.201,4.75452e-07,0,25677,25677
274.251,5.32539e-07,0,25827,25827
274.301,5.92808e-07,0,26013,26013
274.351,6.53137e-07,0,26181,26181
274.401,7.09231e-07,0,26359,26359
274.45,7.57475e-07,0,26517,26517
274.5,7.95756e-07,0,26685,26685
274.551,8.24133e-07,0,26871,26871
274.601,8.41903e-07,0,27021,27021
274.651,8.52156e-07,0,27213,27213
274.701,8.57292e-07,0,27335,27335
274.751,8.58968e-07,0,27563,27563
274.8,8.57737e-07,0,27717,27717
274.85,8.5333e-07,0,27879,27879
274.901,8.4467e-07,0,28071,28071
274.951,8.31177e-07,0,28221,28221
275.001,8.11541e-07,0,28383,28383
275.051,7.8477e-07,0,28575,28575
275.101,7.50223e-07,0,28725,28725
275.15,7.08039e-07,0,28887,28887
275.2,6.59669e-07,0,29079,29079
275.25,6.07798e-07,0,29229,29229
275.301,5.53911e-07,0,29391,29391
275.351,5.03463e-07,0,29583,29583
275.401,4.56207e-07,0,29733,29733
275.451,4.12648e-07,0,29895,29895
275.5,3.72709e-07,0,30067,30067
275.55,3.35904e-07,0,30237,30237
275.6,3.01582e-07,0,30399,30399
275.651,2.68197e-07,0,30549,30549
275.701,2.37259e-07,0,30717,30717
275.751,2.07945e-07,0,30867,30867
275.801,1.81266e-07,0,31029,31029
275.851,1.58797e-07,0,31155,31155
275.9,1.41505e-07,0,31305,31305
275.95,1.2855e-07,0,31473,31473
276.001,1.17111e-07,0,31599,31599
276.051,1.05351e-07,0,31725,31725
276.101,9.23213e-08,0,31875,31875
276.151,7.93286e-08,0,32001,32001
276.201,6.82227e-08,0,32127,32127
276.25,6.0031e-08,0,32253,32253
276.3,5.4612e-08,0,32415,32415
276.351,5.09467e-08,0,32640,32640
276.401,4.7894e-08,0,32768,32768
276.451,4.40105e-08,0,32768,32768
276.501,3.86157e-08,0,32768,32768
276.551,3.2241e-08,0,32768,32768
276.6,2.63995e-08,0,32768,32768
276.65,2.25169e-08,0,32768,32768
276.7,2.09483e-08,0,32768,32768
276.751,2.09708e-08,0,32768,32768
276.801,2.151e-08,0,32768,32768
276.851,2.19162e-08,0,32768,32768
276.901,2.20877e-08,0,32768,32768
276.95,2.21622e-08,0,32768,32768
277,2.22481e-08,0,32768,32768
277.05,2.23517e-08,0,32768,32768
277.101,2.24057e-08,0,32768,32768
277.151,2.22628e-08,0,32768,32768
277.201,2.185e-08,0,32768,32768
277.251,2.1383e-08,0,32768,32768
277.301,2.11033e-08,0,32768,32768
277.35,2.09861e-08,0,32768,32768
277.4,2.09154e-08,0,32768,32768
277.451,2.08331e-08,0,32768,32768
277.501,2.07296e-08,0,32768,32768
277.551,2.05984e-08,0,32768,32768
277.601,2.0437e-08,0,32768,32768
277.651,2.02437e-08,0,32768,32768
277.7,2.00171e-08,0,32768,32768
277.75,1.97557e-08,0,32768,32768
277.801,1.94488e-08,0,32768,32768
277.851,1.91128e-08,0,32768,32768
277.901,1.874e-08,0,32768,32768
277.951,1.83322e-08,0,32768,32768
278.001,1.78935e-08,0,32768,32768
278.05,1.74291e-08,0,32768,32768
278.1,1.69447e-08,0,32768,32768
278.15,1.64459e-08,0,32768,32768
278.201,1.59226e-08,0,32768,32768
278.251,1.54087e-08,0,32768,32768
278.301,1.48923e-08,0,32768,32768
278.351,1.43759e-08,0,32768,32768
278.4,1.38618e-08,0,32768,32768
278.45,1.33527e-08,0,32768,32768
278.5,1.28519e-08,0,32768,32768
278.551,1.23489e-08,0,32768,32768
278.601,1.18768e-08,0,32768,32768
278.651,1.14255e-08,0,32768,32768
278.701,1.09993e-08,0,32768,32768
278.75,1.06018e-08,0,32768,32768
278.8,1.02353e-08,0,32768,32768
278.85,9.90084e-09,0,32768,32768
278.901,9.58954e-09,0,32768,32768
278.951,9.31784e-09,0,32768,32768
279.001,9.07451e-09,0,32768,32768
279.051,8.85752e-09,0,32768,32768
279.101,8.66495e-09,0,32768,32768
279.15,8.49514e-09,0,32768,32768
279.2,8.34669e-09,0,32768,32768
279.251,8.21482e-09,0,32768,32768
279.301,8.10562e-09,0,32768,32768
279.351,8.01323e-09,0,32768,32768
279.401,7.93542e-09,0,32768,32768
279.451,7.86976e-09,0,32768,32768
279.5,7.81414e-09,0,32768,32768
279.55,7.76718e-09,0,32768,32768
279.601,7.72727e-09,0,32768,32768
279.651,7.69652e-09,0,32768,32768
279.701,7.67335e-09,0,32768,32768
279.751,7.65696e-09,0,32768,32768
279.801,7.64616e-09,0,32768,32768
279.85,7.63962e-09,0,32768,32768
279.9,7.63631e-09,0,32768,32768
279.95,7.63571e-09,0,32768,32768
280.001,7.63789e-09,0,32768,32768
280.051,7.64304e-09,0,32768,32768
280.101,7.65139e-09,0,32768,32768
280.151,7.66283e-09,0,32768,32768
280.2,7.67679e-09,0,32768,32768
280.25,7.6925e-09,0,32768,32768
280.3,7.70916e-09,0,32768,32768
280.351,7.72669e-09,0,32768,32768
280.401,7.74377e-09,0,32768,32768
280.451,7.76075e-09,0,32768,32768
280.501,7.77759e-09,0,32768,32768
280.551,7.79432e-09,0,32768,32768
280.6,7.811e-09,0,32768,32768
280.65,7.82765e-09,0,32768,32768
280.701,7.84479e-09,0,32768,32768
280.751,7.86147e-09,0,32768,32768
280.801,7.87814e-09,0,32768,32768
280.851,7.89478e-09,0,32768,32768
280.901,7.91132e-09,0,32768,32768
280.95,7.92772e-09,0,32768,32768
281,7.9439e-09,0,32768,32768
281.051,7.96023e-09,0,32768,32768
281.101,7.97574e-09,0,32768,32768
281.151,7.99086e-09,0,32768,32768
281.201,8.0056e-09,0,32768,32768
281.251,8.01997e-09,0,32768,32768
281.3,8.03397e-09,0,32768,32768
281.35,8.04753e-09,0,32768,32768
281.4,8.06062e-09,0,32768,32768
281.451,8.07357e-09,0,32768,32768
281.501,8.08568e-09,0,32768,32768
281.551,8.0974e-09,0,32768,32768
281.601,8.10879e-09,0,32768,32768
281.65,8.11993e-09,0,32768,32768
281.7,8.13109e-09,0,32768,32768
281.75,8.14297e-09,0,32768,32768
281.801,8.15718e-09,0,32768,32768
281.851,8.17442e-09,0,32768,32768
281.901,8.19649e-09,0,32768,32768
281.951,8.22481e-09,0,32768,32768
282.001,8.26165e-09,0,32768,32768
282.05,8.31134e-09,0,32768,32768
282.1,8.38104e-09,0,32768,32768
282.151,8.48324e-09,0,32768,32768
282.201,8.62042e-09,0,32768,32768
282.251,8.79894e-09,0,32768,32768
282.301,9.01717e-09,0,32768,32768
282.351,9.27009e-09,0,32768,32768
282.4,9.55424e-09,0,32768,32768
282.45,9.87266e-09,0,32768,32768
282.501,1.02486e-08,0,32768,32768
282.551,1.06793e-08,0,32768,32768
282.601,1.11957e-08,0,32768,32768
282.651,1.18178e-08,0,32768,32768
282.701,1.25642e-08,0,32768,32768
282.75,1.34532e-08,0,32768,32768
282.8,1.45045e-08,0,32768,32768
282.851,1.57773e-08,0,32768,32768
282.901,1.72172e-08,0,32768,32768
282.951,1.88713e-08,0,32768,32768
283.001,2.07488e-08,0,32768,32768
283.051,2.28553e-08,0,32768,32768
283.1,2.51948e-08,0,32768,32768
283.15,2.77683e-08,0,32768,32768
283.2,3.05712e-08,0,32768,32768
283.251,3.36819e-08,0,32768,32768
283.301,3.68992e-08,0,32768,32768
283.351,4.02797e-08,0,32768,32768
283.401,4.37935e-08,0,32768,32768
283.45,4.7415e-08,0,32768,32768
283.5,5.11241e-08,0,32768,32768
283.55,5.49054e-08,0,32768,32768
283.601,5.88629e-08,0,32768,32768
283.651,6.27761e-08,0,32768,32768
283.701,6.67944e-08,0,32768,32768
283.751,7.10016e-08,0,32768,32768
283.801,7.55247e-08,0,32768,32768
283.85,8.0504e-08,0,32768,32768
283.9,8.60407e-08,0,32768,32768
283.951,9.23321e-08,0,32768,32768
284.001,9.89105e-08,0,32768,32768
284.051,1.05754e-07,0,32768,32768
284.101,1.12657e-07,0,32768,32768
284.151,1.19487e-07,0,32768,32768
284.2,1.26258e-07,0,32768,32768
284.25,1.33156e-07,0,32768,32768
284.301,1.40736e-07,0,32768,32768
284.351,1.48986e-07,0,32768,32768
284.401,1.58549e-07,0,32768,32768
284.451,1.69847e-07,0,32768,32768
284.501,1.83293e-07,0,32768,32768
284.55,1.99304e-07,0,32768,32768
284.6,2.18311e-07,0,32768,32768
284.65,2.40719e-07,0,32768,32768
284.701,2.67675e-07,0,32768,32768
284.751,2.97789e-07,0,32768,32768
284.801,3.317e-07,0,32768,32768
284.851,3.69108e-07,0,32768,32768
284.9,4.09538e-07,0,32768,32768
284.95,4.52412e-07,0,32768,32768
285,4.97082e-07,0,32768,32768
285.051,5.44169e-07,0,32768,32768
285.101,5.90068e-07,0,32768,32768
285.151,6.34996e-07,0,32768,32768
285.201,6.77615e-07,0,32768,32768
285.251,7.1646e-07,0,32768,32768
285.3,7.5013e-07,0,32768,32768
285.35,7.77496e-07,0,32768,32768
285.401,7.98365e-07,0,32768,32768
285.451,8.1137e-07,0,32768,32768
285.501,8.1749e-07,0,32768,32768
285.551,8.17287e-07,0,32768,32768
285.601,8.11401e-07,0,32768,32768
285.65,8.00376e-07,0,32768,32768
285.7,7.8454e-07,0,32768,32768
285.751,7.63302e-07,0,32768,32768
285.801,7.3778e-07,0,32768,32768
285.851,7.07282e-07,0,32768,32768
285.901,6.71751e-07,0,32768,32768
285.951,6.31365e-07,0,32768,32768
286,5.86635e-07,0,32768,32768
286.05,5.38426e-07,0,32768,32768
286.1,4.87889e-07,0,32768,32768
286.151,4.34816e-07,0,32768,32768
286.201,3.83566e-07,0,32768,32768
286.251,3.33757e-07,0,32768,32768
286.301,2.86237e-07,0,32768,32768
286.35,2.4155e-07,0,32768,32768
286.4,1.99967e-07,0,32768,32768
286.45,1.6157e-07,0,32768,32768
286.501,1.25371e-07,0,32768,32768
286.551,9.34327e-08,0,32768,32768
286.601,6.47032e-08,0,32768,32768
286.651,3.92226e-08,0,32768,32768
286.701,1.69806e-08,0,32768,32768
286.75,-2.14771e-09,0,32768,32768
286.8,-1.84258e-08,0,32768,32768
286.851,-3.259e-08,0,32768,32768
286.901,-4.4219e-08,0,32768,32768
286.951,-5.40527e-08,0,32768,32768
287.001,-6.22688e-08,0,32768,32768
287.051,-6.89424e-08,0,32768,32768
287.1,-7.41176e-08,0,32768,32768
287.15,-7.78842e-08,0,32768,32768
287.201,-8.04757e-08,0,32768,32768
287.251,-8.19914e-08,0,32768,32768
287.301,-8.27641e-08,0,32768,32768
287.351,-8.29628e-08,0,32768,32768
287.401,-8.26443e-08,0,32768,32768
287.45,-8.17664e-08,0,32768,32768
287.5,-8.02441e-08,0,32768,32768
287.551,-7.79435e-08,0,32768,32768
287.601,-7.50164e-08,0,32768,32768
287.651,-7.15144e-08,0,32768,32768
287.701,-6.76042e-08,0,32768,32768
287.751,-6.34709e-08,0,32768,32768
287.8,-5.92818e-08,0,32768,32768
287.85,-5.5166e-08,0,32768,32768
287.9,-5.12121e-08,0,32768,32768
287.951,-4.73665e-08,0,32768,32768
288.001,-4.38749e-08,0,32768,32768
288.051,-4.06289e-08,0,32768,32768
288.101,-3.76197e-08,0,32768,32768
288.15,-3.48309e-08,0,32768,32768
288.2,-3.22451e-08,0,32768,32768
288.25,-2.98481e-08,0,32768,32768
288.301,-2.75678e-08,0,32768,32768
288.351,-2.55285e-08,0,32768,32768
288.401,-2.36586e-08,0,32768,32768
288.451,-2.19534e-08,0,32768,32768
288.501,-2.04068e-08,0,32768,32768
288.55,-1.90112e-08,0,32768,32768
288.6,-1.77575e-08,0,32768,32768
288.651,-1.66048e-08,0,32768,32768
288.701,-1.5608e-08,0,32768,32768
288.751,-1.47215e-08,0,32768,32768
288.801,-1.39347e-08,0,32768,32768
288.851,-1.32377e-08,0,32768,32768
288.9,-1.26216e-08,0,32768,32768
288.95,-1.20791e-08,0,32768,32768
289.001,-1.15915e-08,0,32768,32768
289.051,-1.11818e-08,0,32768,32768
289.101,-1.08313e-08,0,32768,32768
289.151,-1.05365e-08,0,32768,32768
289.201,-1.02936e-08,0,32768,32768
289.25,-1.00992e-08,0,32768,32768
289.3,-9.94944e-09,0,32768,32768
289.35,-9.84047e-09,0,32768,32768
289.401,-9.76678e-09,0,32768,32768
289.451,-9.72842e-09,0,32768,32768
289.501,-9.7185e-09,0,32768,32768
289.551,-9.73252e-09,0,32768,32768
289.6,-9.76585e-09,0,32768,32768
289.65,-9.81388e-09,0,32768,32768
289.7,-9.87223e-09,0,32768,32768
289.751,-9.93889e-09,0,32768,32768
289.801,-1.00066e-08,0,32768,32768
289.851,-1.00745e-08,0,32768,32768
289.901,-1.01406e-08,0,32768,32768
289.95,-1.02033e-08,0,32768,32768
290,-1.0262e-08,0,32768,32768
290.05,-1.03162e-08,0,32768,32768
290.101,-1.03671e-08,0,32768,32768
290.151,-1.04119e-08,0,32768,32768
290.201,-1.04524e-08,0,32768,32768
290.251,-1.0489e-08,0,32768,32768
290.301,-1.05222e-08,0,32768,32768
290.35,-1.05528e-08,0,32768,32768
290.4,-1.05815e-08,0,32768,32768
290.451,-1.06099e-08,0,32768,32768
290.501,-1.0637e-08,0,32768,32768
290.551,-1.06639e-08,0,32768,32768
290.601,-1.06906e-08,0,32768,32768
290.651,-1.07169e-08,0,32768,32768
290.7,-1.07425e-08,0,32768,32768
290.75,-1.07674e-08,0,32768,32768
290.801,-1.07921e-08,0,32768,32768
290.851,-1.08154e-08,0,32768,32768
290.901,-1.08382e-08,0,32768,32768
290.951,-1.08608e-08,0,32768,32768
291.001,-1.08836e-08,0,32768,32768
291.05,-1.09074e-08,0,32768,32768
291.1,-1.09331e-08,0,32768,32768
291.15,-1.09618e-08,0,32768,32768
291.201,-1.0996e-08,0,32768,32768
291.251,-1.10349e-08,0,32768,32768
291.301,-1.10807e-08,0,32768,32768
291.351,-1.11342e-08,0,32768,32768
291.4,-1.11964e-08,0,32768,32768
291.45,-1.12679e-08,0,32768,32768
291.5,-1.13498e-08,0,32768,32768
291.551,-1.1446e-08,0,32768,32768
291.601,-1.15516e-08,0,32768,32768
291.651,-1.16697e-08,0,32768,32768
291.701,-1.18002e-08,0,32768,32768
291.751,-1.19426e-08,0,32768,32768
291.8,-1.2096e-08,0,32768,32768
291.85,-1.22597e-08,0,32768,32768
291.901,-1.24385e-08,0,32768,32768
291.951,-1.26228e-08,0,32768,32768
292.001,-1.28189e-08,0,32768,32768
292.051,-1.30287e-08,0,32768,32768
292.101,-1.32548e-08,0,32768,32768
292.15,-1.34996e-08,0,32768,32768
292.2,-1.3765e-08,0,32768,32768
292.251,-1.40613e-08,0,32768,32768
292.301,-1.43718e-08,0,32768,32768
292.351,-1.47043e-08,0,32768,32768
292.401,-1.50575e-08,0,32768,32768
292.451,-1.54294e-08,0,32768,32768
292.5,-1.58179e-08,0,32768,32768
292.55,-1.62206e-08,0,32768,32768
292.6,-1.6635e-08,0,32768,32768
292.651,-1.70714e-08,0,32768,32768
292.701,-1.7502e-08,0,32768,32768
292.751,-1.79365e-08,0,32768,32768
292.801,-1.83718e-08,0,32768,32768
292.85,-1.88046e-08,0,32768,32768
292.9,-1.92315e-08,0,32768,32768
292.95,-1.96489e-08,0,32768,32768
293.001,-2.00651e-08,0,32768,32768
293.051,-2.04532e-08,0,32768,32768
293.101,-2.08225e-08,0,32768,32768
293.151,-2.11705e-08,0,32768,32768
293.201,-2.14949e-08,0,32768,32768
293.25,-2.17934e-08,0,32768,32768
293.3,-2.20637e-08,0,32768,32768
293.351,-2.23104e-08,0,32768,32768
293.401,-2.25175e-08,0,32768,32768
293.451,-2.26915e-08,0,32768,32768
293.501,-2.28322e-08,0,32768,32768
293.551,-2.294e-08,0,32768,32768
293.6,-2.3016e-08,0,32768,32768
293.65,-2.30618e-08,0,32768,32768
293.701,-2.30793e-08,0,32768,32768
293.751,-2.30694e-08,0,32768,32768
293.801,-2.30349e-08,0,32768,32768
293.851,-2.29781e-08,0,32768,32768
293.901,-2.29012e-08,0,32768,32768
293.95,-2.28067e-08,0,32768,32768
294,-2.26971e-08,0,32768,32768
294.051,-2.25713e-08,0,32768,32768
294.101,-2.24387e-08,0,32768,32768
294.151,-2.2298e-08,0,32768,32768
294.201,-2.21511e-08,0,32768,32768
294.251,-2.19994e-08,0,32768,32768
294.3,-2.18444e-08,0,32768,32768
294.35,-2.16871e-08,0,32768,32768
294.4,-2.15287e-08,0,32768,32768
294.451,-2.13654e-08,0,32768,32768
294.501,-2.12076e-08,0,32768,32768
294.551,-2.10513e-08,0,32768,32768
294.601,-2.08972e-08,0,32768,32768
294.65,-2.0746e-08,0,32768,32768
294.7,-2.05981e-08,0,32768,32768
294.75,-2.0454e-08,0,32768,32768
294.801,-2.03101e-08,0,32768,32768
294.851,-2.01749e-08,0,32768,32768
294.901,-2.00445e-08,0,32768,32768
294.951,-1.99191e-08,0,32768,32768
295.001,-1.97989e-08,0,32768,32768
295.05,-1.96839e-08,0,32768,32768
295.1,-1.95742e-08,0,32768,32768
295.151,-1.94666e-08,0,32768,32768
295.201,-1.93672e-08,0,32768,32768
295.251,-1.92726e-08,0,32768,32768
295.301,-1.91824e-08,0,32768,32768
295.351,-1.90964e-08,0,32768,32768
295.4,-1.90141e-08,0,32768,32768
295.45,-1.89354e-08,0,32768,32768
295.501,-1.88576e-08,0,32768,32768
295.551,-1.87848e-08,0,32768,32768
295.601,-1.87145e-08,0,32768,32768
295.651,-1.86463e-08,0,32768,32768
295.701,-1.858e-08,0,32768,32768
295.75,-1.85153e-08,0,32768,32768
295.8,-1.84518e-08,0,32768,32768
295.85,-1.83894e-08,0,32768,32768
295.901,-1.8326e-08,0,32768,32768
295.951,-1.8265e-08,0,32768,32768
296.001,-1.82044e-08,0,32768,32768
296.051,-1.8144e-08,0,32768,32768
296.1,-1.80836e-08,0,32768,32768
296.15,-1.80231e-08,0,32768,32768
296.2,-1.79622e-08,0,32768,32768
296.251,-1.78992e-08,0,32768,32768
296.301,-1.78374e-08,0,32768,32768
296.351,-1.7775e-08,0,32768,32768
296.401,-1.77117e-08,0,32768,32768
296.451,-1.76476e-08,0,32768,32768
296.5,-1.75824e-08,0,32768,32768
296.55,-1.7516e-08,0,32768,32768
296.601,-1.74463e-08,0,32768,32768
296.651,-1.7377e-08,0,32768,32768
296.701,-1.7306e-08,0,32768,32768
296.751,-1.72332e-08,0,32768,32768
296.801,-1.71582e-08,0,32768,32768
296.85,-1.70809e-08,0,32768,32768
296.9,-1.7001e-08,0,32768,32768
296.951,-1.69157e-08,0,32768,32768
297.001,-1.68296e-08,0,32768,32768
297.051,-1.67402e-08,0,32768,32768
297.101,-1.6647e-08,0,32768,32768
297.151,-1.65499e-08,0,32768,32768
297.2,-1.64486e-08,0,32768,32768
297.25,-1.63429e-08,0,32768,32768
297.3,-1.62325e-08,0,32768,32768
297.351,-1.61139e-08,0,32768,32768
297.401,-1.59937e-08,0,32768,32768
297.451,-1.58684e-08,0,32768,32768
297.501,-1.5738e-08,0,32768,32768
297.55,-1.56024e-08,0,32768,32768
297.6,-1.54616e-08,0,32768,32768
297.65,-1.53154e-08,0,32768,32768
297.701,-1.51594e-08,0,32768,32768
297.751,-1.50022e-08,0,32768,32768
297.801,-1.48396e-08,0,32768,32768
297.851,-1.46713e-08,0,32768,32768
297.901,-1.44973e-08,0,32768,32768
297.95,-1.43175e-08,0,32768,32768
298,-1.41317e-08,0,32768,32768
298.051,-1.39343e-08,0,32768,32768
298.101,-1.37365e-08,0,32768,32768
298.151,-1.35327e-08,0,32768,32768
298.201,-1.33228e-08,0,32768,32768
298.251,-1.31066e-08,0,32768,32768
298.3,-1.28838e-08,0,32768,32768
298.35,-1.26539e-08,0,32768,32768
298.401,-1.24091e-08,0,32768,32768
298.451,-1.21624e-08,0,32768,32768
298.501,-1.19056e-08,0,32768,32768
298.551,-1.16372e-08,0,32768,32768
298.601,-1.13555e-08,0,32768,32768
298.65,-1.10586e-08,0,32768,32768
298.7,-1.07445e-08,0,32768,32768
298.751,-1.04009e-08,0,32768,32768
298.801,-1.00456e-08,0,32768,32768
298.851,-9.66711e-09,0,32768,32768
298.901,-9.26388e-09,0,32768,32768
298.951,-8.83471e-09,0,32768,32768
299,-8.37889e-09,0,32768,32768
299.05,-7.89627e-09,0,32768,32768
299.1,-7.38733e-09,0,32768,32768
299.151,-6.8372e-09,0,32768,32768
299.201,-6.2793e-09,0,32768,32768
299.251,-5.70093e-09,0,32768,32768
299.301,-5.10543e-09,0,32768,32768
299.35,-4.49669e-09,0,32768,32768
299.4,-3.87901e-09,0,32768,32768
299.45,-3.25694e-09,0,32768,32768
299.501,-2.61691e-09,0,32768,32768
299.551,-2.00021e-09,0,32768,32768
299.601,-1.39299e-09,0,32768,32768
299.651,-7.99505e-10,0,32768,32768
299.701,-2.2376e-10,0,32768,32768
299.75,3.30464e-10,0,32768,32768
299.8,8.59624e-10,0,32768,32768
299.851,1.37469e-09,0,32768,32768
299.901,1.84313e-09,0,32768,32768
299.951,2.27744e-09,0,32768,32768
300.001,2.67535e-09,0,32768,32768
300.051,3.03513e-09,0,32768,32768
300.1,3.35564e-09,0,32768,32768
300.15,3.63636e-09,0,32768,32768
300.201,3.88396e-09,0,32768,32768
300.251,4.0851e-09,0,32768,32768
300.301,4.2488e-09,0,32768,32768
300.351,4.3769e-09,0,32768,32768
300.401,4.47163e-09,0,32768,32768
300.45,4.53545e-09,0,32768,32768
300.5,4.57102e-09,0,32768,32768
300.55,4.58108e-09,0,32768,32768
300.601,4.56773e-09,0,32768,32768
300.651,4.53454e-09,0,32768,32768
300.701,4.48416e-09,0,32768,32768
300.751,4.41916e-09,0,32768,32768
300.8,4.34201e-09,0,32768,32768
300.85,4.25499e-09,0,32768,32768
300.9,4.16023e-09,0,32768,32768
300.951,4.0566e-09,0,32768,32768
301.001,3.95178e-09,0,32768,32768
301.051,3.84439e-09,0,32768,32768
301.101,3.73575e-09,0,32768,32768
301.151,3.627e-09,0,32768,32768
301.2,3.51913e-09,0,32768,32768
301.25,3.41302e-09,0,32768,32768
301.301,3.30652e-09,0,32768,32768
301.351,3.20649e-09,0,32768,32768
301.401,3.11064e-09,0,32768,32768
301.451,3.01972e-09,0,32768,32768
301.501,2.93445e-09,0,32768,32768
301.55,2.85552e-09,0,32768,32768
301.6,2.78349e-09,0,32768,32768
301.651,2.71701e-09,0,32768,32768
301.701,2.66015e-09,0,32768,32768
301.751,2.61095e-09,0,32768,32768
301.801,2.56928e-09,0,32768,32768
301.851,2.53479e-09,0,32768,32768
301.9,2.50693e-09,0,32768,32768
301.95,2.48498e-09,0,32768,32768
302.001,2.46764e-09,0,32768,32768
302.051,2.45489e-09,0,32768,32768
302.101,2.44513e-09,0,32768,32768
302.151,2.43728e-09,0,32768,32768
302.201,2.43029e-09,0,32768,32768
302.25,2.42314e-09,0,32768,32768
302.3,2.41492e-09,0,32768,32768
302.35,2.40481e-09,0,32768,32768
302.401,2.39178e-09,0,32768,32768
302.451,2.37619e-09,0,32768,32768
302.501,2.3576e-09,0,32768,32768
302.551,2.33622e-09,0,32768,32768
302.6,2.31255e-09,0,32768,32768
302.65,2.28726e-09,0,32768,32768
302.7,2.26117e-09,0,32768,32768
302.751,2.23426e-09,0,32768,32768
302.801,2.20874e-09,0,32768,32768
302.851,2.18428e-09,0,32768,32768
302.901,2.16111e-09,0,32768,32768
302.951,2.13929e-09,0,32768,32768
303,2.11882e-09,0,32768,32768
303.05,2.09969e-09,0,32768,32768
303.101,2.08152e-09,0,32768,32768
303.151,2.06559e-09,0,32768,32768
303.201,2.05178e-09,0,32768,32768
303.251,2.04057e-09,0,32768,32768
303.301,2.03246e-09,0,32768,32768
303.35,2.02787e-09,0,32768,32768
303.4,2.02702e-09,0,32768,32768
303.451,2.03005e-09,0,32768,32768
303.501,2.03655e-09,0,32768,32768
303.551,2.0461e-09,0,32768,32768
303.601,2.05812e-09,0,32768,32768
303.651,2.07196e-09,0,32768,32768
303.7,2.087e-09,0,32768,32768
303.75,2.10266e-09,0,32768,32768
303.8,2.11847e-09,0,32768,32768
303.851,2.13448e-09,0,32768,32768
303.901,2.14945e-09,0,32768,32768
303.951,2.16357e-09,0,32768,32768
304.001,2.17662e-09,0,32768,32768
304.05,2.18846e-09,0,32768,32768
304.1,2.19898e-09,0,32768,32768
304.15,2.20812e-09,0,32768,32768
304.201,2.21613e-09,0,32768,32768
304.251,2.22258e-09,0,32768,32768
304.301,2.2278e-09,0,32768,32768
304.351,2.23187e-09,0,32768,32768
304.401,2.23484e-09,0,32768,32768
304.45,2.23679e-09,0,32768,32768
304.5,2.23778e-09,0,32768,32768
304.551,2.23787e-09,0,32768,32768
304.601,2.23715e-09,0,32768,32768
304.651,2.23572e-09,0,32768,32768
304.701,2.23365e-09,0,32768,32768
304.751,2.231e-09,0,32768,32768
304.8,2.22776e-09,0,32768,32768
304.85,2.22393e-09,0,32768,32768
304.901,2.21932e-09,0,32768,32768
304.951,2.21414e-09,0,32768,32768
