250,0,0,512,512
250.012,0,0,512,512
250.059,0,0,512,512
250.105,0,0,512,512
250.152,0,0,512,512
250.211,0,0,512,512
250.258,0,0,512,512
250.305,0,0,512,512
250.352,0,0,512,512
250.41,0,0,512,512
250.457,0,0,512,512
250.504,0,0,512,512
250.551,0,0,512,512
250.609,0,0,512,512
250.656,0,0,512,512
250.703,0,0,512,512
250.762,0,0,512,512
250.808,0,0,512,512
250.855,0,0,512,512
250.902,0,0,512,512
250.961,0,0,512,512
251.008,0,0,512,512
251.055,0,0,512,512
251.101,0,0,512,512
251.16,0,0,512,512
251.207,0,0,512,512
251.254,0,0,512,512
251.301,0,0,512,512
251.359,0,0,512,512
251.406,0,0,512,512
251.453,0,0,512,512
251.511,0,0,512,512
251.558,0,0,512,512
251.605,0,0,512,512
251.652,0,0,512,512
251.711,0,0,512,512
251.758,0,0,512,512
251.804,0,0,512,512
251.851,0,0,512,512
251.91,0,0,512,512
251.957,0,0,512,512
252.004,0,0,512,512
252.05,0,0,512,512
252.109,0,0,512,512
252.156,0,0,512,512
252.203,0,0,512,512
252.261,0,0,512,512
252.308,0,0,512,512
252.355,0,0,512,512
252.402,0,0,512,512
252.461,0,0,512,512
252.507,0,0,512,512
252.554,0,0,512,512
252.601,0,0,512,512
252.66,0,0,512,512
252.707,0,0,512,512
252.754,0,0,512,512
252.8,0,0,512,512
252.859,0,0,512,512
252.906,0,0,512,512
252.953,0,0,512,512
253.011,0,0,512,512
253.058,0,0,512,512
253.105,0,0,512,512
253.152,0,0,512,512
253.21,0,0,512,512
253.257,0,0,512,512
253.304,0,0,512,512
253.351,0,0,512,512
253.41,0,0,512,512
253.457,0,0,512,512
253.503,0,0,512,512
253.55,0,0,512,512
253.609,0,0,512,512
253.656,0,0,512,512
253.703,0,0,512,512
253.761,0,0,512,512
253.808,0,0,512,512
253.855,0,0,512,512
253.902,0,0,512,512
253.96,0,0,512,512
254.007,0,0,512,512
254.054,0,0,512,512
254.101,0,0,512,512
254.16,0,0,512,512
254.206,0,0,512,512
254.253,0,0,512,512
254.3,0,0,512,512
254.359,0,0,512,512
254.406,0,0,512,512
254.452,0,0,512,512
254.511,0,0,512,512
254.558,-1.38778e-17,0,512,512
254.605,-2.77556e-17,0,512,512
254.652,-2.77556e-17,0,512,512
254.71,-2.77556e-17,0,512,512
254.757,-2.77556e-17,0,512,512
254.804,-2.77556e-17,0,512,512
254.851,-2.77556e-17,0,512,512
254.909,-2.77556e-17,0,512,512
254.956,0,0,512,512
255.003,0,0,512,512
255.05,0,0,512,512
255.109,0,0,512,512
255.155,0,0,512,512
255.202,0,0,512,512
255.261,0,0,512,512
255.308,0,0,512,512
255.355,0,0,512,512
255.402,0,0,512,512
255.46,0,0,512,512
255.507,0,0,512,512
255.554,0,0,512,512
255.601,0,0,512,512
255.659,0,0,512,512
255.706,0,0,512,512
255.753,0,0,512,512
255.812,0,0,512,512
255.859,0,0,512,512
255.905,0,0,512,512
255.952,0,0,512,512
256.011,0,0,512,512
256.058,0,0,512,512
256.105,0,0,512,512
256.151,0,0,512,512
256.21,0,0,512,512
256.257,0,0,512,512
256.304,0,0,512,512
256.351,0,0,512,512
256.409,0,0,512,512
256.456,0,0,512,512
256.503,0,0,512,512
256.562,0,0,512,512
256.608,0,0,512,512
256.655,0,0,512,512
256.702,0,0,512,512
256.761,0,0,512,512
256.808,0,0,512,512
256.854,0,0,512,512
256.901,0,0,512,512
256.96,0,0,512,512
257.007,0,0,512,512
257.054,0,0,512,512
257.101,0,0,512,512
257.159,0,0,512,512
257.206,0,0,512,512
257.253,0,0,512,512
257.311,0,0,512,512
257.358,0,0,512,512
257.405,0,0,512,512
257.452,0,0,512,512
257.511,0,0,512,512
257.557,0,0,512,512
257.604,0,0,512,512
257.651,0,0,512,512
257.71,0,0,512,512
257.757,0,0,512,512
257.804,0,0,512,512
257.85,0,0,512,512
257.909,0,0,512,512
257.956,0,0,512,512
258.003,0,0,512,512
258.061,0,0,512,512
258.108,0,0,512,512
258.155,0,0,512,512
258.202,0,0,512,512
258.261,0,0,512,512
258.307,0,0,512,512
258.354,0,0,512,512
258.401,0,0,512,512
258.46,0,0,512,512
258.507,0,0,512,512
258.553,0,0,512,512
258.6,0,0,512,512
258.659,0,0,512,512
258.706,0,0,512,512
258.753,0,0,512,512
258.811,0,0,512,512
258.858,0,0,512,512
258.905,0,0,512,512
258.952,0,0,512,512
259.01,0,0,512,512
259.057,0,0,512,512
259.104,0,0,512,512
259.151,0,0,512,512
259.21,0,0,512,512
259.256,0,0,512,512
259.303,0,0,512,512
259.35,0,0,512,512
259.409,0,0,512,512
259.456,0,0,512,512
259.503,0,0,512,512
259.561,0,0,512,512
259.608,0,0,512,512
259.655,0,0,512,512
259.702,0,0,512,512
259.76,0,0,512,512
259.807,0,0,512,512
259.854,0,0,512,512
259.901,0,0,512,512
259.959,0,0,512,512
260.006,0,0,512,512
260.053,0,0,512,512
260.1,0,0,512,512
260.159,0,0,512,512
260.206,0,0,512,512
260.252,0,0,512,512
260.311,0,0,512,512
260.358,0,0,512,512
260.405,0,0,512,512
260.452,0,0,512,512
260.51,0,0,512,512
260.557,0,0,512,512
260.604,0,0,512,512
260.651,0,0,512,512
260.709,0,0,512,512
260.756,0,0,512,512
260.803,0,0,512,512
260.862,0,0,512,512
260.909,0,0,512,512
260.955,0,0,512,512
261.002,0,0,512,512
261.061,0,0,512,512
261.108,0,0,512,512
261.155,0,0,512,512
261.201,0,0,512,512
261.26,0,0,512,512
261.307,0,0,512,512
261.354,0,0,512,512
261.401,0,0,512,512
261.459,0,0,512,512
261.506,0,0,512,512
261.553,0,0,512,512
261.612,0,0,512,512
261.658,0,0,512,512
261.705,0,0,512,512
261.752,0,0,512,512
261.811,0,0,512,512
261.858,0,0,512,512
261.905,0,0,512,512
261.951,0,0,512,512
262.01,0,0,512,512
262.057,0,0,512,512
262.104,0,0,512,512
262.151,0,0,512,512
262.209,0,0,512,512
262.256,0,0,512,512
262.303,0,0,512,512
262.361,0,0,512,512
262.408,0,0,512,512
262.455,0,0,512,512
262.502,0,0,512,512
262.561,0,0,512,512
262.608,0,0,512,512
262.654,0,0,512,512
262.701,0,0,512,512
262.76,0,0,512,512
262.807,0,0,512,512
262.854,0,0,512,512
262.9,0,0,512,512
262.959,0,0,512,512
263.006,0,0,512,512
263.053,0,0,512,512
263.111,0,0,512,512
263.158,0,0,512,512
263.205,0,0,512,512
263.252,0,0,512,512
263.311,0,0,512,512
263.357,0,0,512,512
263.404,0,0,512,512
263.451,0,0,512,512
263.51,0,0,512,512
263.557,0,0,512,512
263.603,0,0,512,512
263.65,0,0,512,512
263.709,-1.38778e-17,0,512,512
263.756,-1.38778e-17,0,512,512
263.803,-2.77556e-17,0,512,512
263.861,-2.77556e-17,0,512,512
263.908,-2.77556e-17,0,512,512
263.955,-2.77556e-17,0,512,512
264.002,-2.77556e-17,0,512,512
264.06,-2.77556e-17,0,512,512
264.107,-1.38778e-17,0,512,512
264.154,-1.38778e-17,0,512,512
264.201,-1.38778e-17,0,512,512
264.26,-1.38778e-17,0,512,512
264.306,-1.38778e-17,0,512,512
264.353,-1.38778e-17,0,512,512
264.4,-1.38778e-17,0,512,512
264.459,-1.38778e-17,0,512,512
264.506,-1.38778e-17,0,512,512
264.553,-1.38778e-17,0,512,512
264.611,-1.38778e-17,0,512,512
264.658,-1.38778e-17,0,512,512
264.705,-1.38778e-17,0,512,512
264.752,-1.38778e-17,0,512,512
264.81,-1.38778e-17,0,512,512
264.857,-1.38778e-17,0,512,512
264.904,-1.38778e-17,0,512,512
264.951,-1.38778e-17,0,512,512
265.01,-1.38778e-17,0,512,512
265.056,-1.38778e-17,0,512,512
265.103,-1.38778e-17,0,512,512
265.15,-1.38778e-17,0,512,512
265.209,-1.38778e-17,0,512,512
265.256,-1.38778e-17,0,512,512
265.302,-1.38778e-17,0,512,512
265.361,-1.38778e-17,0,512,512
265.408,-1.38778e-17,0,512,512
265.455,0,0,512,512
265.502,0,0,512,512
265.56,0,0,512,512
265.607,0,0,512,512
265.654,0,0,512,512
265.701,0,0,512,512
265.759,0,0,512,512
265.806,0,0,512,512
265.853,0,0,512,512
265.9,0,0,512,512
265.959,0,0,512,512
266.005,0,0,512,512
266.052,0,0,512,512
266.111,0,0,512,512
266.158,0,0,512,512
266.205,0,0,512,512
266.252,0,0,512,512
266.31,0,0,512,512
266.357,0,0,512,512
266.404,0,0,512,512
266.451,0,0,512,512
266.509,0,0,512,512
266.556,0,0,512,512
266.603,0,0,512,512
266.662,0,0,512,512
266.708,0,0,512,512
266.755,0,0,512,512
266.802,0,0,512,512
266.861,0,0,512,512
266.908,0,0,512,512
266.955,0,0,512,512
267.001,0,0,512,512
267.06,0,0,512,512
267.107,0,0,512,512
267.154,0,0,512,512
267.201,0,0,512,512
267.259,0,0,512,512
267.306,0,0,512,512
267.353,0,0,512,512
267.412,0,0,512,512
267.458,0,0,512,512
267.505,0,0,512,512
267.552,0,0,512,512
267.611,0,0,512,512
267.658,0,0,512,512
267.704,0,0,512,512
267.751,0,0,512,512
267.81,0,0,512,512
267.857,0,0,512,512
267.904,0,0,512,512
267.95,0,0,512,512
268.009,0,0,512,512
268.056,1.38778e-17,0,512,512
268.103,1.38778e-17,0,512,512
268.161,1.38778e-17,0,512,512
268.208,1.38778e-17,0,512,512
268.255,0,0,512,512
268.302,0,0,512,512
268.361,1.38778e-17,0,512,512
268.407,1.38778e-17,0,512,512
268.454,1.38778e-17,0,512,512
268.501,1.38778e-17,0,512,512
268.56,1.38778e-17,0,512,512
268.607,1.38778e-17,0,512,512
268.654,1.38778e-17,0,512,512
268.7,1.38778e-17,0,512,512
268.759,1.38778e-17,0,512,512
268.806,1.38778e-17,0,512,512
268.853,1.38778e-17,0,512,512
268.911,1.38778e-17,0,512,512
268.958,1.38778e-17,0,512,512
269.005,1.38778e-17,0,512,512
269.052,1.38778e-17,0,512,512
269.11,1.38778e-17,0,512,512
269.157,1.38778e-17,0,512,512
269.204,1.38778e-17,0,512,512
269.251,1.38778e-17,0,512,512
269.31,1.38778e-17,0,512,512
269.357,1.38778e-17,0,512,512
269.403,1.38778e-17,0,512,512
269.45,1.38778e-17,0,512,512
269.509,1.38778e-17,0,512,512
269.556,1.38778e-17,0,512,512
269.603,1.38778e-17,0,512,512
269.661,1.38778e-17,0,512,512
269.708,1.38778e-17,0,512,512
269.755,1.38778e-17,0,512,512
269.802,1.38778e-17,0,512,512
269.86,0,0,512,512
269.907,1.38778e-17,0,512,512
269.954,1.38778e-17,0,512,512
270,1.38778e-17,0,1299,1299
270.05,1.38778e-17,0,2147,2147
270.101,1.38778e-17,0,3011,3011
270.151,1.38778e-17,0,3887,3887
270.2,1.38778e-17,0,4787,4787
270.25,1.38778e-17,0,5597,5597
270.301,1.38778e-17,0,6485,6485
270.35,1.38778e-17,0,7337,7337
270.4,1.38778e-17,0,8219,8219
270.45,1.38778e-17,0,9111,9111
270.501,1.38778e-17,0,9935,9935
270.55,1.38778e-17,0,10817,10817
270.6,1.38778e-17,0,11717,11717
270.651,1.38778e-17,0,12597,12597
270.7,1.38778e-17,0,13457,13457
270.75,1.38778e-17,0,14339,14339
270.8,1.38778e-17,0,15239,15239
270.851,1.38778e-17,0,16127,16127
270.9,1.38778e-17,0,17015,17015
270.95,1.38778e-17,0,17837,17837
271,1.38778e-17,0,18725,18725
271.051,1.38778e-17,0,19625,19625
271.1,1.38778e-17,0,20507,20507
271.15,1.38778e-17,0,21359,21359
271.201,1.38778e-17,0,22271,22271
271.25,1.38778e-17,0,23147,23147
271.3,1.38778e-17,0,24029,24029
271.35,1.38778e-17,0,24929,24929
271.401,1.38778e-17,0,25817,25817
271.45,1.38778e-17,0,26717,26717
271.5,1.38778e-17,0,27599,27599
271.551,1.38778e-17,0,28499,28499
271.6,1.38778e-17,0,29387,29387
271.65,1.38778e-17,0,30247,30247
271.7,1.38778e-17,0,31097,31097
271.751,1.38778e-17,0,31985,31985
271.8,1.38778e-17,0,32885,32885
271.85,1.38778e-17,0,33767,33767
271.9,1.38778e-17,0,34619,34619
271.951,1.38778e-17,0,35507,35507
272,1.38778e-17,0,36407,36407
272.05,1.38778e-17,0,37235,37235
272.101,1.38778e-17,0,38105,38105
272.15,1.38778e-17,0,39005,39005
272.2,1.38778e-17,0,39839,39839
272.25,1.38778e-17,0,40739,40739
272.301,1.38778e-17,0,41555,41555
272.35,1.38778e-17,0,42437,42437
272.4,1.38778e-17,0,43289,43289
272.451,1.38778e-17,0,44105,44105
272.501,1.38778e-17,0,44971,44971
272.55,1.38778e-17,0,45839,45839
272.6,1.38778e-17,0,46655,46655
272.651,1.38778e-17,0,47489,47489
272.7,1.38778e-17,0,48305,48305
272.75,1.38778e-17,0,49157,49157
272.8,1.38778e-17,0,49967,49967
272.851,1.38778e-17,0,50807,50807
272.9,1.38778e-17,0,51617,51617
272.95,1.38778e-17,0,52469,52469
273.001,1.38778e-17,0,53285,53285
273.05,1.38778e-17,0,54119,54119
273.1,1.38778e-17,0,54931,54931
273.15,1.38778e-17,0,55697,55697
273.201,1.38778e-17,0,56549,56549
273.25,1.38778e-17,0,57365,57365
273.3,1.38778e-17,0,58127,58127
273.351,1.38778e-17,0,58967,58967
273.401,1.38778e-17,0,59735,59735
273.45,1.38778e-17,0,60043,60043
273.5,1.38778e-17,0,59860,59860
273.551,1.38778e-17,0,59804,59804
273.6,1.38778e-17,0,59672,59672
273.65,1.38778e-17,0,59522,59522
273.7,1.38778e-17,0,59462,59462
273.751,1.38778e-17,0,59418,59418
273.8,1.38778e-17,0,59726,59726
273.85,1.38778e-17,0,60488,60488
273.901,1.38778e-17,0,61256,61256
273.95,1.38778e-17,0,62018,62018
274,-1.11022e-16,0,62786,62786
274.05,-8.18789e-16,0,63548,63548
274.101,-1.76248e-15,0,64316,64316
274.15,-2.70617e-15,0,65078,65078
274.2,-3.64986e-15,0,65846,65846
274.251,-4.60743e-15,0,66608,66608
274.301,-5.55112e-15,0,67376,67376
274.35,-6.4948e-15,0,68090,68090
274.4,-7.43849e-15,0,68858,68858
274.451,-8.39606e-15,0,69620,69620
274.5,-9.33975e-15,0,70298,70298
274.55,-1.09357e-14,0,71066,71066
274.6,-1.32255e-14,0,71780,71780
274.651,-1.71946e-14,0,73296,73296
274.7,-2.42029e-14,0,74810,74810
274.75,-3.64569e-14,0,76418,76418
274.801,-5.8023e-14,0,78026,78026
274.85,-9.40081e-14,0,79520,79520
274.9,-1.53058e-13,0,81092,81092
274.95,-2.47163e-13,0,82609,82609
275.001,-3.95836e-13,0,83885,83885
275.05,-6.17381e-13,0,84599,84599
275.1,-9.42593e-13,0,85277,85277
275.15,-1.4073e-12,0,85997,85997
275.201,-2.06514e-12,0,86687,86687
275.25,-2.94552e-12,0,87407,87407
275.3,-4.1072e-12,0,88085,88085
275.351,-5.62488e-12,0,88799,88799
275.4,-7.4989e-12,0,89495,89495
275.45,-9.7804e-12,0,90209,90209
275.5,-1.24818e-11,0,90887,90887
275.551,-1.56384e-11,0,91607,91607
275.6,-1.91125e-11,0,92297,92297
275.65,-2.28656e-11,0,93017,93017
275.701,-2.68366e-11,0,93695,93695
275.751,-3.07537e-11,0,94409,94409
275.8,-3.44889e-11,0,95069,95069
275.85,-3.7837e-11,0,95735,95735
275.901,-4.06194e-11,0,96449,96449
275.95,-4.25456e-11,0,97145,97145
276,-4.34757e-11,0,97859,97859
276.05,-4.32605e-11,0,98537,98537
276.101,-4.17682e-11,0,99185,99185
276.15,-3.89983e-11,0,99899,99899
276.2,-3.4957e-11,0,100577,100577
276.251,-2.96375e-11,0,101297,101297
276.3,-2.3328e-11,0,101939,101939
276.35,-1.6134e-11,0,102617,102617
276.4,-8.2549e-12,0,103337,103337
276.451,2.30108e-13,0,103979,103979
276.5,8.88581e-12,0,104657,104657
276.55,1.76885e-11,0,105377,105377
276.601,2.66962e-11,0,106019,106019
276.651,3.56758e-11,0,106697,106697
276.7,4.49182e-11,0,107417,107417
276.75,5.47523e-11,0,108059,108059
276.801,6.58873e-11,0,108737,108737
276.85,7.87991e-11,0,109385,109385
276.9,9.473e-11,0,110099,110099
276.95,1.15121e-10,0,110729,110729
277.001,1.42264e-10,0,111425,111425
277.05,1.77695e-10,0,112055,112055
277.1,2.24534e-10,0,112769,112769
277.151,2.87092e-10,0,113417,113417
277.2,3.67375e-10,0,114095,114095
277.25,4.7039e-10,0,114737,114737
277.3,6.00714e-10,0,115457,115457
277.351,7.65794e-10,0,116087,116087
277.4,9.65748e-10,0,116729,116729
277.45,1.20739e-09,0,117407,117407
277.5,1.49495e-09,0,118055,118055
277.551,1.83736e-09,0,118769,118769
277.6,2.22734e-09,0,119399,119399
277.65,2.67095e-09,0,120047,120047
277.701,3.17607e-09,0,120725,120725
277.75,3.72675e-09,0,121367,121367
277.8,4.32711e-09,0,121997,121997
277.85,4.97253e-09,0,122645,122645
277.901,5.66549e-09,0,123239,123239
277.95,6.37116e-09,0,123869,123869
278,7.07156e-09,0,124427,124427
278.051,7.73336e-09,0,125057,125057
278.101,8.76589e-09,0,125657,125657
278.15,1.81595e-08,0,126215,126215
278.2,2.98952e-08,0,126725,126725
278.251,3.63419e-08,0,127341,127341
278.3,4.06369e-08,0,127949,127949
278.35,4.58402e-08,0,128897,128897
278.4,5.35007e-08,0,131072,131072
278.451,6.45112e-08,0,131072,131072
278.5,7.83171e-08,0,131072,131072
278.55,9.49083e-08,0,131072,131072
278.601,1.14825e-07,0,131072,131072
278.65,1.3886e-07,0,131072,131072
278.7,1.68685e-07,0,131072,131072
278.75,2.05614e-07,0,131072,131072
278.801,2.51028e-07,0,131072,131072
278.85,3.03123e-07,0,131072,131072
278.9,3.6095e-07,0,131072,131072
278.951,4.23504e-07,0,131072,131072
279.001,4.87459e-07,0,131072,131072
279.05,5.53778e-07,0,131072,131072
279.1,6.23402e-07,0,131072,131072
279.151,6.98028e-07,0,131072,131072
279.2,7.75571e-07,0,131072,131072
279.25,8.55994e-07,0,131072,131072
279.3,9.32315e-07,0,131072,131072
279.351,9.97647e-07,0,131072,131072
279.4,1.04836e-06,0,131072,131072
279.45,1.0876e-06,0,131072,131072
279.501,1.11878e-06,0,131072,131072
279.55,1.14395e-06,0,131072,131072
279.6,1.16585e-06,0,131072,131072
279.65,1.18587e-06,0,131072,131072
279.701,1.20509e-06,0,131072,131072
279.75,1.22344e-06,0,131072,131072
279.8,1.24148e-06,0,131072,131072
279.85,1.25896e-06,0,131072,131072
279.901,1.27525e-06,0,131072,131072
279.95,1.28832e-06,0,131072,131072
280,1.29669e-06,0,131072,131072
280.051,1.2994e-06,0,131072,131072
280.1,1.29719e-06,0,131072,131072
280.15,1.29288e-06,0,131072,131072
280.2,1.28989e-06,0,131072,131072
280.251,1.29053e-06,0,131072,131072
280.3,1.29456e-06,0,131072,131072
280.35,1.29935e-06,0,131072,131072
280.401,1.30106e-06,0,131072,131072
280.451,1.29595e-06,0,131072,131072
280.5,1.28171e-06,0,131072,131072
280.55,1.25769e-06,0,131072,131072
280.601,1.22456e-06,0,131072,131072
280.65,1.18601e-06,0,131072,131072
280.7,1.14501e-06,0,131072,131072
280.75,1.10433e-06,0,131072,131072
280.801,1.06424e-06,0,131072,131072
280.85,1.02437e-06,0,131072,131072
280.9,9.81161e-07,0,131072,131072
280.951,9.31159e-07,0,131072,131072
281,8.74699e-07,0,131072,131072
281.05,8.11672e-07,0,131072,131072
281.1,7.43544e-07,0,131072,131072
281.151,6.70946e-07,0,131072,131072
281.2,5.97739e-07,0,131072,131072
281.25,5.24574e-07,0,131072,131072
281.301,4.51852e-07,0,131072,131072
281.351,3.82828e-07,0,131072,131072
281.4,3.17531e-07,0,130880,130880
281.45,2.57271e-07,0,131072,131072
281.501,2.0253e-07,0,131072,131072
281.55,1.55304e-07,0,131072,131072
281.6,1.13985e-07,0,131072,131072
281.65,7.72516e-08,0,131072,131072
281.701,4.37331e-08,0,131072,131072
281.75,1.44072e-08,0,131072,131072
281.8,-1.05662e-08,0,131072,131072
281.851,-3.05531e-08,0,131072,131072
281.9,-4.51092e-08,0,131072,131072
281.95,-5.57348e-08,0,131072,131072
282,-6.47704e-08,0,131072,131072
282.051,-7.33987e-08,0,130976,130976
282.1,-8.16664e-08,0,130912,130912
282.15,-8.89007e-08,0,130912,130912
282.2,-9.39537e-08,0,130912,130912
282.251,-9.62178e-08,0,130848,130848
282.3,-9.59582e-08,0,130810,130810
282.35,-9.41286e-08,0,130768,130768
282.401,-9.1933e-08,0,130720,130720
282.45,-9.03909e-08,0,130752,130752
282.5,-8.9684e-08,0,130720,130720
282.55,-8.91977e-08,0,130700,130700
282.601,-8.78386e-08,0,130688,130688
282.65,-8.49117e-08,0,130672,130672
282.7,-8.0405e-08,0,130656,130656
282.751,-7.47521e-08,0,130684,130684
282.801,-6.88302e-08,0,130688,130688
282.85,-6.3028e-08,0,130628,130628
282.9,-5.75025e-08,0,130608,130608
282.951,-5.2272e-08,0,130560,130560
283,-4.74951e-08,0,130608,130608
283.05,-4.3096e-08,0,130560,130560
283.1,-3.91674e-08,0,130608,130608
283.151,-3.56512e-08,0,130560,130560
283.2,-3.25719e-08,0,130560,130560
283.25,-2.98339e-08,0,130560,130560
283.301,-2.73954e-08,0,130560,130560
283.35,-2.52668e-08,0,130528,130528
283.4,-2.34204e-08,0,130560,130560
283.45,-2.18272e-08,0,130512,130512
283.501,-2.04718e-08,0,130512,130512
283.55,-1.93962e-08,0,130556,130556
283.6,-1.85518e-08,0,130512,130512
283.651,-1.79088e-08,0,130512,130512
283.701,-1.74454e-08,0,130512,130512
283.75,-1.71452e-08,0,130512,130512
283.8,-1.69859e-08,0,130480,130480
283.851,-1.6923e-08,0,130480,130480
283.9,-1.69621e-08,0,130480,130480
283.95,-1.70849e-08,0,130528,130528
284,-1.7263e-08,0,130528,130528
284.051,-1.7488e-08,0,130528,130528
284.1,-1.77339e-08,0,130584,130584
284.15,-1.8002e-08,0,130632,130632
284.201,-1.83093e-08,0,130678,130678
284.25,-1.86352e-08,0,130720,130720
284.3,-1.89573e-08,0,130784,130784
284.35,-1.92724e-08,0,130784,130784
284.401,-1.9594e-08,0,130816,130816
284.45,-1.99044e-08,0,130816,130816
284.5,-2.02012e-08,0,130848,130848
284.551,-2.04839e-08,0,130816,130816
284.601,-2.0749e-08,0,130848,130848
284.65,-2.10081e-08,0,130816,130816
284.7,-2.12594e-08,0,130848,130848
284.751,-2.14993e-08,0,130848,130848
284.8,-2.17142e-08,0,130848,130848
284.85,-2.19058e-08,0,130816,130816
284.9,-2.20735e-08,0,130816,130816
284.951,-2.22165e-08,0,130816,130816
285,-2.23342e-08,0,130800,130800
285.05,-2.24344e-08,0,130816,130816
285.101,-2.25193e-08,0,130736,130736
285.15,-2.25884e-08,0,130728,130728
285.2,-2.26449e-08,0,130720,130720
285.25,-2.26912e-08,0,130688,130688
285.301,-2.27296e-08,0,130732,130732
285.35,-2.27609e-08,0,130668,130668
285.4,-2.2788e-08,0,130644,130644
285.45,-2.28134e-08,0,130596,130596
285.501,-2.28402e-08,0,130604,130604
285.55,-2.28693e-08,0,130560,130560
285.6,-2.29024e-08,0,130560,130560
285.651,-2.2941e-08,0,130512,130512
285.7,-2.29853e-08,0,130528,130528
285.75,-2.30377e-08,0,130560,130560
285.8,-2.31e-08,0,130512,130512
285.851,-2.31755e-08,0,130512,130512
285.9,-2.32644e-08,0,130512,130512
285.95,-2.33702e-08,0,130512,130512
286.001,-2.34974e-08,0,130512,130512
286.051,-2.36474e-08,0,130512,130512
286.1,-2.38279e-08,0,130464,130464
286.15,-2.40396e-08,0,130432,130432
286.201,-2.42848e-08,0,130464,130464
286.25,-2.45643e-08,0,130464,130464
286.3,-2.48859e-08,0,130432,130432
286.35,-2.52484e-08,0,130416,130416
286.401,-2.56568e-08,0,130416,130416
286.45,-2.61045e-08,0,130416,130416
286.5,-2.66005e-08,0,130416,130416
286.551,-2.7146e-08,0,130368,130368
286.6,-2.77266e-08,0,130416,130416
286.65,-2.83488e-08,0,130368,130368
286.7,-2.90058e-08,0,130416,130416
286.751,-2.97012e-08,0,130368,130368
286.8,-3.04078e-08,0,130368,130368
286.85,-3.11297e-08,0,130336,130336
286.901,-3.18733e-08,0,130368,130368
286.951,-3.2613e-08,0,130352,130352
287,-3.33575e-08,0,130272,130272
287.05,-3.41047e-08,0,130256,130256
287.101,-3.48647e-08,0,130248,130248
287.15,-3.5616e-08,0,130160,130160
287.2,-3.6369e-08,0,130160,130160
287.25,-3.71205e-08,0,130176,130176
287.301,-3.78779e-08,0,130112,130112
287.35,-3.8618e-08,0,130120,130120
287.4,-3.93508e-08,0,130126,130126
287.451,-4.00837e-08,0,130064,130064
287.5,-4.07936e-08,0,130112,130112
287.55,-4.14927e-08,0,130112,130112
287.6,-4.21822e-08,0,130184,130184
287.651,-4.28706e-08,0,130200,130200
287.7,-4.35377e-08,0,130280,130280
287.75,-4.41933e-08,0,130288,130288
287.8,-4.48343e-08,0,130288,130288
287.851,-4.54653e-08,0,130352,130352
287.9,-4.60635e-08,0,130328,130328
287.95,-4.66338e-08,0,130320,130320
288.001,-4.71811e-08,0,130312,130312
288.05,-4.76876e-08,0,130284,130284
288.1,-4.816e-08,0,130240,130240
288.15,-4.85974e-08,0,130192,130192
288.201,-4.90079e-08,0,130132,130132
288.25,-4.93783e-08,0,130072,130072
288.3,-4.97109e-08,0,130072,130072
288.351,-5.00072e-08,0,130034,130034
288.4,-5.02525e-08,0,130044,130044
288.45,-5.04527e-08,0,130000,130000
288.5,-5.06101e-08,0,129962,129962
288.551,-5.07228e-08,0,129928,129928
288.6,-5.07866e-08,0,129912,129912
288.65,-5.08057e-08,0,129904,129904
288.7,-5.07827e-08,0,129880,129880
288.751,-5.07169e-08,0,129864,129864
288.8,-5.06147e-08,0,129848,129848
288.85,-5.04846e-08,0,129824,129824
288.901,-5.0327e-08,0,129824,129824
288.95,-5.01479e-08,0,129776,129776
289,-4.99486e-08,0,129744,129744
289.05,-4.97305e-08,0,129764,129764
289.101,-4.94941e-08,0,129772,129772
289.15,-4.92537e-08,0,129720,129720
289.2,-4.90073e-08,0,129692,129692
289.251,-4.87509e-08,0,129744,129744
289.301,-4.84959e-08,0,129732,129732
289.35,-4.82415e-08,0,129702,129702
289.4,-4.79881e-08,0,129690,129690
289.451,-4.77315e-08,0,129684,129684
289.5,-4.74792e-08,0,129666,129666
289.55,-4.72298e-08,0,129630,129630
289.6,-4.69861e-08,0,129632,129632
289.651,-4.67451e-08,0,129624,129624
289.7,-4.65134e-08,0,129648,129648
289.75,-4.62876e-08,0,129648,129648
289.801,-4.60642e-08,0,129664,129664
289.85,-4.58488e-08,0,129664,129664
289.9,-4.5639e-08,0,129664,129664
289.95,-4.5437e-08,0,129664,129664
290.001,-4.52405e-08,0,130076,130076
290.05,-4.50539e-08,0,130868,130868
290.1,-4.48735e-08,0,131072,131072
290.151,-4.46961e-08,0,131072,131072
290.201,-4.45279e-08,0,131072,131072
290.25,-4.43678e-08,0,131072,131072
290.3,-4.42149e-08,0,131072,131072
290.351,-4.40652e-08,0,131072,131072
290.4,-4.3922e-08,0,131072,131072
290.45,-4.37832e-08,0,131072,131072
290.5,-4.36486e-08,0,131072,131072
290.551,-4.35156e-08,0,131072,131072
290.6,-4.33875e-08,0,131072,131072
290.65,-4.32618e-08,0,131072,131072
290.701,-4.3136e-08,0,131072,131072
290.75,-4.30134e-08,0,131072,131072
290.8,-4.28915e-08,0,131072,131072
290.85,-4.27697e-08,0,131072,131072
290.901,-4.26458e-08,0,131072,131072
290.95,-4.25229e-08,0,131072,131072
291,-4.23989e-08,0,131072,131072
291.05,-4.22731e-08,0,131072,131072
291.101,-4.21432e-08,0,131072,131072
291.15,-4.20127e-08,0,131072,131072
291.2,-4.18792e-08,0,131072,131072
291.251,-4.17403e-08,0,131072,131072
291.3,-4.15998e-08,0,131072,131072
291.35,-4.14555e-08,0,131072,131072
291.4,-4.1307e-08,0,131072,131072
291.451,-4.11519e-08,0,131072,131072
291.5,-4.09946e-08,0,131072,131072
291.55,-4.08326e-08,0,131072,131072
291.601,-4.06633e-08,0,131072,131072
291.651,-4.04915e-08,0,131072,131072
291.7,-4.03147e-08,0,131072,131072
291.75,-4.01329e-08,0,131072,131072
291.801,-3.99431e-08,0,131072,131072
291.85,-3.97507e-08,0,131072,131072
291.9,-3.9553e-08,0,131072,131072
291.95,-3.93493e-08,0,131072,131072
292.001,-3.91362e-08,0,131072,131072
292.05,-3.89199e-08,0,131072,131072
292.1,-3.86966e-08,0,131072,131072
292.151,-3.84615e-08,0,131072,131072
292.2,-3.82201e-08,0,131072,131072
292.25,-3.79689e-08,0,131072,131072
292.3,-3.77076e-08,0,131072,131072
292.351,-3.74316e-08,0,131072,131072
292.4,-3.71489e-08,0,131072,131072
292.45,-3.68541e-08,0,131072,131072
292.501,-3.65401e-08,0,131072,131072
292.551,-3.6214e-08,0,131072,131072
292.6,-3.58688e-08,0,131072,131072
292.65,-3.55018e-08,0,131072,131072
292.701,-3.51033e-08,0,131072,131072
292.75,-3.46802e-08,0,131072,131072
292.8,-3.42223e-08,0,131072,131072
292.85,-3.37264e-08,0,131072,131072
292.901,-3.31829e-08,0,131072,131072
292.95,-3.2605e-08,0,131072,131072
293,-3.19816e-08,0,131072,131072
293.051,-3.12989e-08,0,131072,131072
293.1,-3.05748e-08,0,131072,131072
293.15,-2.97995e-08,0,131072,131072
293.2,-2.89735e-08,0,131072,131072
293.251,-2.80849e-08,0,131072,131072
293.3,-2.71627e-08,0,131072,131072
293.35,-2.61994e-08,0,131072,131072
293.4,-2.52015e-08,0,131072,131072
293.451,-2.41611e-08,0,131072,131072
293.5,-2.31154e-08,0,131072,131072
293.55,-2.20553e-08,0,131072,131072
293.601,-2.09692e-08,0,131072,131072
293.65,-1.98921e-08,0,131072,131072
293.7,-1.88106e-08,0,131072,131072
293.75,-1.77264e-08,0,131072,131072
293.801,-1.66243e-08,0,131072,131072
293.85,-1.55367e-08,0,131072,131072
293.9,-1.44495e-08,0,131072,131072
293.951,-1.33515e-08,0,131072,131072
294,-1.22794e-08,0,131072,131072
294.05,-1.12186e-08,0,131072,131072
294.1,-1.01674e-08,0,131072,131072
294.151,-9.10945e-09,0,131072,131072
294.2,-8.07737e-09,0,131072,131072
294.25,-7.05872e-09,0,131072,131072
294.3,-6.05484e-09,0,131072,131072
294.351,-5.05161e-09,0,131072,131072
294.4,-4.07756e-09,0,128995,128995
294.45,-3.11843e-09,0,127697,127697
294.501,-2.1666e-09,0,126765,126765
294.55,-1.25706e-09,0,126029,126029
294.6,1.49187e-11,0,125399,125399
294.65,8.43115e-10,0,124757,124757
294.701,1.51523e-09,0,124175,124175
294.75,2.23909e-09,0,123617,123617
294.8,2.90322e-09,0,122969,122969
294.851,3.51962e-09,0,122363,122363
294.901,4.11449e-09,0,121797,121797
294.95,4.66803e-09,0,121151,121151
295,5.16858e-09,0,120561,120561
295.051,5.63262e-09,0,119919,119919
295.1,6.04346e-09,0,119281,119281
295.15,6.40464e-09,0,118629,118629
295.2,6.71878e-09,0,117987,117987
295.251,6.98957e-09,0,117301,117301
295.3,7.20825e-09,0,116633,116633
295.35,7.38068e-09,0,115939,115939
295.401,7.51146e-09,0,115247,115247
295.45,7.60052e-09,0,114557,114557
295.5,7.65421e-09,0,113863,113863
295.55,7.67645e-09,0,113203,113203
295.601,7.67055e-09,0,112517,112517
295.65,7.64025e-09,0,111855,111855
295.7,7.58927e-09,0,111167,111167
295.751,7.52013e-09,0,110477,110477
295.801,7.43826e-09,0,109815,109815
295.85,7.34576e-09,0,109127,109127
295.9,7.24518e-09,0,108437,108437
295.951,7.13704e-09,0,107775,107775
296,7.02625e-09,0,107087,107087
296.05,6.91277e-09,0,106397,106397
296.1,6.79787e-09,0,105687,105687
296.151,6.68099e-09,0,104999,104999
296.2,6.56645e-09,0,104285,104285
296.25,6.45325e-09,0,103589,103589
296.301,6.3402e-09,0,102875,102875
296.35,6.23087e-09,0,102197,102197
296.4,6.12382e-09,0,101477,101477
296.45,6.01933e-09,0,100787,100787
296.501,5.91644e-09,0,100041,100041
296.55,5.81884e-09,0,99389,99389
296.6,5.72589e-09,0,98643,98643
296.65,5.63848e-09,0,97947,97947
296.701,5.55627e-09,0,97217,97217
296.75,5.48225e-09,0,96539,96539
296.8,5.41553e-09,0,95819,95819
296.851,5.35538e-09,0,95113,95113
296.9,5.30338e-09,0,94409,94409
296.95,5.25825e-09,0,93707,93707
297,5.21953e-09,0,93017,93017
297.051,5.18622e-09,0,92265,92265
297.1,5.15877e-09,0,91575,91575
297.15,5.13614e-09,0,90839,90839
297.201,5.11765e-09,0,90137,90137
297.251,5.10342e-09,0,89447,89447
297.3,5.09274e-09,0,88727,88727
297.35,5.0852e-09,0,88005,88005
297.401,5.08031e-09,0,87269,87269
297.45,5.07772e-09,0,86567,86567
297.5,5.07688e-09,0,85877,85877
297.55,5.0773e-09,0,85157,85157
297.601,5.07858e-09,0,84419,84419
297.65,5.08029e-09,0,83699,83699
297.7,5.08215e-09,0,83005,83005
297.751,5.08395e-09,0,82307,82307
297.8,5.08548e-09,0,81571,81571
297.85,5.08667e-09,0,80849,80849
297.9,5.08747e-09,0,80129,80129
297.951,5.0879e-09,0,79415,79415
298,5.08799e-09,0,78689,78689
298.05,5.08782e-09,0,77969,77969
298.101,5.0875e-09,0,77247,77247
298.151,5.08716e-09,0,76495,76495
298.2,5.08693e-09,0,75807,75807
298.25,5.08691e-09,0,75063,75063
298.301,5.08725e-09,0,74351,74351
298.35,5.08803e-09,0,73613,73613
298.4,5.08932e-09,0,72877,72877
298.45,5.09117e-09,0,72145,72145
298.501,5.09365e-09,0,71375,71375
298.55,5.09667e-09,0,70671,70671
298.6,5.10021e-09,0,69907,69907
298.651,5.10423e-09,0,69151,69151
298.7,5.1085e-09,0,68413,68413
298.75,5.11294e-09,0,67675,67675
298.8,5.11736e-09,0,66921,66921
298.851,5.12167e-09,0,66161,66161
298.9,5.12557e-09,0,65417,65417
298.95,5.12897e-09,0,64653,64653
299,5.13173e-09,0,63895,63895
299.051,5.13379e-09,0,63115,63115
299.1,5.135e-09,0,62355,62355
299.15,5.13533e-09,0,61603,61603
299.201,5.13475e-09,0,60837,60837
299.25,5.13326e-09,0,60065,60065
299.3,5.13084e-09,0,59297,59297
299.35,5.12751e-09,0,58523,58523
299.401,5.12321e-09,0,57709,57709
299.45,5.1181e-09,0,56899,56899
299.5,5.11212e-09,0,56161,56161
299.551,5.10521e-09,0,55389,55389
299.601,5.09758e-09,0,54587,54587
299.65,5.08916e-09,0,53815,53815
299.7,5.07996e-09,0,53005,53005
299.751,5.06986e-09,0,52173,52173
299.8,5.05915e-09,0,51357,51357
299.85,5.0477e-09,0,50515,50515
299.9,5.0355e-09,0,49645,49645
299.951,5.02236e-09,0,48841,48841
300,5.00865e-09,0,48011,48011
300.05,4.99416e-09,0,47199,47199
300.101,4.97866e-09,0,46369,46369
300.15,4.96256e-09,0,45589,45589
300.2,4.94563e-09,0,44737,44737
300.25,4.92784e-09,0,43943,43943
300.301,4.9089e-09,0,43097,43097
300.35,4.88931e-09,0,42301,42301
300.4,4.86878e-09,0,41415,41415
300.451,4.84697e-09,0,40647,40647
300.501,4.82448e-09,0,39819,39819
300.55,4.80098e-09,0,38943,38943
300.6,4.77645e-09,0,38107,38107
300.651,4.75049e-09,0,37303,37303
300.7,4.72384e-09,0,36361,36361
300.75,4.69612e-09,0,35513,35513
300.8,4.66734e-09,0,34657,34657
300.851,4.63706e-09,0,33779,33779
300.9,4.60615e-09,0,32957,32957
300.95,4.57419e-09,0,32029,32029
301.001,4.5407e-09,0,31099,31099
301.05,4.50667e-09,0,30209,30209
301.1,4.47162e-09,0,29211,29211
301.15,4.43556e-09,0,28269,28269
301.201,4.39795e-09,0,27367,27367
301.25,4.35989e-09,0,26445,26445
301.3,4.32084e-09,0,25537,25537
301.35,4.28082e-09,0,24613,24613
301.401,4.23922e-09,0,23717,23717
301.45,4.19727e-09,0,22787,22787
301.5,4.15437e-09,0,21847,21847
301.551,4.1099e-09,0,21003,21003
301.6,4.06517e-09,0,20075,20075
301.65,4.01957e-09,0,19141,19141
301.7,3.97313e-09,0,18233,18233
301.751,3.92519e-09,0,17325,17325
301.8,3.87718e-09,0,16413,16413
301.85,3.82845e-09,0,15505,15505
301.901,3.77833e-09,0,14603,14603
301.951,3.72833e-09,0,13641,13641
302,3.67776e-09,0,12763,12763
302.05,3.6267e-09,0,11861,11861
302.101,3.57444e-09,0,10949,10949
302.15,3.52255e-09,0,10043,10043
302.2,3.47034e-09,0,9129,9129
302.25,3.41786e-09,0,8233,8233
302.301,3.36439e-09,0,7309,7309
302.35,3.31154e-09,0,6423,6423
302.4,3.25858e-09,0,5507,5507
302.451,3.20479e-09,0,4523,4523
302.5,3.15177e-09,0,3619,3619
302.55,3.09879e-09,0,2671,2671
302.6,3.0459e-09,0,1757,1757
302.651,2.99236e-09,0,807,807
302.703,2.93695e-09,0,512,512
302.762,2.87532e-09,0,512,512
302.809,2.82624e-09,0,512,512
302.855,2.7774e-09,0,512,512
302.902,2.72882e-09,0,512,512
302.961,2.6685e-09,0,512,512
303.008,2.62058e-09,0,512,512
303.055,2.57298e-09,0,512,512
303.101,2.52572e-09,0,512,512
303.16,2.46713e-09,0,512,512
303.207,2.42066e-09,0,512,512
303.254,2.37455e-09,0,512,512
303.301,2.32882e-09,0,512,512
303.359,2.27218e-09,0,512,512
303.406,2.22729e-09,0,512,512
303.453,2.18278e-09,0,512,512
303.512,2.12766e-09,0,512,512
303.558,2.08398e-09,0,512,512
303.605,2.04066e-09,0,512,512
303.652,1.9977e-09,0,512,512
303.711,1.94451e-09,0,512,512
303.758,1.90234e-09,0,512,512
303.804,1.8605e-09,0,512,512
303.851,1.819e-09,0,512,512
303.91,1.76758e-09,0,512,512
303.957,1.72679e-09,0,512,512
304.004,1.6863e-09,0,512,512
304.051,1.64611e-09,0,512,512
304.109,1.59626e-09,0,512,512
304.156,1.5567e-09,0,512,512
304.203,1.51739e-09,0,512,512
304.261,1.46862e-09,0,512,512
304.308,1.42988e-09,0,512,512
304.355,1.39138e-09,0,512,512
304.402,1.35311e-09,0,512,512
304.461,1.30558e-09,0,512,512
304.507,1.2678e-09,0,512,512
304.554,1.23023e-09,0,512,512
304.601,1.19286e-09,0,512,512
304.66,1.14643e-09,0,512,512
304.707,1.10951e-09,0,512,512
304.754,1.07278e-09,0,512,512
304.8,1.03624e-09,0,512,512
304.859,9.90831e-10,0,512,512
304.906,9.54719e-10,0,512,512
304.953,9.18797e-10,0,512,512
