250,0,0,2048,2048
250.006,0,0,2048,2048
250.053,0,0,2048,2048
250.105,0,0,2048,2048
250.152,0,0,2048,2048
250.205,0,0,2048,2048
250.252,0,0,2048,2048
250.305,0,0,2048,2048
250.352,0,0,2048,2048
250.404,2.77556e-17,0,2048,2048
250.451,0,0,2048,2048
250.504,0,0,2048,2048
250.551,0,0,2048,2048
250.603,0,0,2048,2048
250.65,2.77556e-17,0,2048,2048
250.703,0,0,2048,2048
250.756,0,0,2048,2048
250.803,0,0,2048,2048
250.855,-2.77556e-17,0,2048,2048
250.902,-2.77556e-17,0,2048,2048
250.955,0,0,2048,2048
251.002,0,0,2048,2048
251.055,0,0,2048,2048
251.101,0,0,2048,2048
251.154,0,0,2048,2048
251.201,0,0,2048,2048
251.254,2.77556e-17,0,2048,2048
251.301,5.55112e-17,0,2048,2048
251.353,5.55112e-17,0,2048,2048
251.4,0,0,2048,2048
251.453,0,0,2048,2048
251.506,0,0,2048,2048
251.553,0,0,2048,2048
251.605,0,0,2048,2048
251.652,0,0,2048,2048
251.705,0,0,2048,2048
251.752,0,0,2048,2048
251.804,0,0,2048,2048
251.851,2.77556e-17,0,2048,2048
251.904,2.77556e-17,0,2048,2048
251.951,2.77556e-17,0,2048,2048
252.004,2.77556e-17,0,2048,2048
252.05,5.55112e-17,0,2048,2048
252.103,5.55112e-17,0,2048,2048
252.15,5.55112e-17,0,2048,2048
252.203,5.55112e-17,0,2048,2048
252.256,5.55112e-17,0,2048,2048
252.302,5.55112e-17,0,2048,2048
252.355,5.55112e-17,0,2048,2048
252.402,5.55112e-17,0,2048,2048
252.455,5.55112e-17,0,2048,2048
252.502,5.55112e-17,0,2048,2048
252.554,0,0,2048,2048
252.601,0,0,2048,2048
252.654,-2.77556e-17,0,2048,2048
252.701,-2.77556e-17,0,2048,2048
252.754,-2.77556e-17,0,2048,2048
252.8,-2.77556e-17,0,2048,2048
252.853,-2.77556e-17,0,2048,2048
252.906,-2.77556e-17,0,2048,2048
252.953,-2.77556e-17,0,2048,2048
253.005,-2.77556e-17,0,2048,2048
253.052,-2.77556e-17,0,2048,2048
253.105,-2.77556e-17,0,2048,2048
253.152,-2.77556e-17,0,2048,2048
253.205,-2.77556e-17,0,2048,2048
253.251,-2.77556e-17,0,2048,2048
253.304,-2.77556e-17,0,2048,2048
253.351,2.77556e-17,0,2048,2048
253.404,5.55112e-17,0,2048,2048
253.451,2.77556e-17,0,2048,2048
253.503,2.77556e-17,0,2048,2048
253.55,2.77556e-17,0,2048,2048
253.603,0,0,2048,2048
253.656,-2.77556e-17,0,2048,2048
253.703,-2.77556e-17,0,2048,2048
253.755,-2.77556e-17,0,2048,2048
253.802,-2.77556e-17,0,2048,2048
253.855,-2.77556e-17,0,2048,2048
253.902,-2.77556e-17,0,2048,2048
253.954,-2.77556e-17,0,2048,2048
254.001,-2.77556e-17,0,2048,2048
254.054,-2.77556e-17,0,2048,2048
254.101,-2.77556e-17,0,2048,2048
254.154,0,0,2048,2048
254.201,2.77556e-17,0,2048,2048
254.253,2.77556e-17,0,2048,2048
254.3,0,0,2048,2048
254.353,2.77556e-17,0,2048,2048
254.406,0,0,2048,2048
254.452,2.77556e-17,0,2048,2048
254.505,0,0,2048,2048
254.552,-2.77556e-17,0,2048,2048
254.605,-2.77556e-17,0,2048,2048
254.652,-2.77556e-17,0,2048,2048
254.704,-2.77556e-17,0,2048,2048
254.751,-2.77556e-17,0,2048,2048
254.804,-2.77556e-17,0,2048,2048
254.851,-2.77556e-17,0,2048,2048
254.904,-2.77556e-17,0,2048,2048
254.95,-2.77556e-17,0,2048,2048
255.003,-2.77556e-17,0,2048,2048
255.05,-2.77556e-17,0,2048,2048
255.103,-2.77556e-17,0,2048,2048
255.155,-2.77556e-17,0,2048,2048
255.202,-2.77556e-17,0,2048,2048
255.255,0,0,2048,2048
255.302,0,0,2048,2048
255.355,0,0,2048,2048
255.402,0,0,2048,2048
255.454,0,0,2048,2048
255.501,-2.77556e-17,0,2048,2048
255.554,-2.77556e-17,0,2048,2048
255.601,-2.77556e-17,0,2048,2048
255.653,-2.77556e-17,0,2048,2048
255.7,0,0,2048,2048
255.753,2.77556e-17,0,2048,2048
255.806,5.55112e-17,0,2048,2048
255.853,2.77556e-17,0,2048,2048
255.905,0,0,2048,2048
255.952,0,0,2048,2048
256.005,2.77556e-17,0,2048,2048
256.052,2.77556e-17,0,2048,2048
256.105,2.77556e-17,0,2048,2048
256.151,2.77556e-17,0,2048,2048
256.204,2.77556e-17,0,2048,2048
256.251,2.77556e-17,0,2048,2048
256.304,2.77556e-17,0,2048,2048
256.351,2.77556e-17,0,2048,2048
256.403,8.32667e-17,0,2048,2048
256.45,8.32667e-17,0,2048,2048
256.503,5.55112e-17,0,2048,2048
256.556,8.32667e-17,0,2048,2048
256.603,5.55112e-17,0,2048,2048
256.655,8.32667e-17,0,2048,2048
256.702,5.55112e-17,0,2048,2048
256.755,5.55112e-17,0,2048,2048
256.802,5.55112e-17,0,2048,2048
256.854,2.77556e-17,0,2048,2048
256.901,2.77556e-17,0,2048,2048
256.954,2.77556e-17,0,2048,2048
257.001,2.77556e-17,0,2048,2048
257.054,2.77556e-17,0,2048,2048
257.101,2.77556e-17,0,2048,2048
257.153,0,0,2048,2048
257.2,0,0,2048,2048
257.253,-2.77556e-17,0,2048,2048
257.306,-2.77556e-17,0,2048,2048
257.352,-2.77556e-17,0,2048,2048
257.405,2.77556e-17,0,2048,2048
257.452,2.77556e-17,0,2048,2048
257.505,0,0,2048,2048
257.552,2.77556e-17,0,2048,2048
257.604,0,0,2048,2048
257.651,0,0,2048,2048
257.704,0,0,2048,2048
257.751,0,0,2048,2048
257.804,0,0,2048,2048
257.85,0,0,2048,2048
257.903,2.77556e-17,0,2048,2048
257.95,0,0,2048,2048
258.003,2.77556e-17,0,2048,2048
258.055,2.77556e-17,0,2048,2048
258.102,0,0,2048,2048
258.155,2.77556e-17,0,2048,2048
258.202,-2.77556e-17,0,2048,2048
258.255,-2.77556e-17,0,2048,2048
258.302,-2.77556e-17,0,2048,2048
258.354,0,0,2048,2048
258.401,5.55112e-17,0,2048,2048
258.454,5.55112e-17,0,2048,2048
258.501,5.55112e-17,0,2048,2048
258.553,5.55112e-17,0,2048,2048
258.6,5.55112e-17,0,2048,2048
258.653,5.55112e-17,0,2048,2048
258.706,5.55112e-17,0,2048,2048
258.753,5.55112e-17,0,2048,2048
258.805,5.55112e-17,0,2048,2048
258.852,5.55112e-17,0,2048,2048
258.905,5.55112e-17,0,2048,2048
258.952,5.55112e-17,0,2048,2048
259.005,5.55112e-17,0,2048,2048
259.051,5.55112e-17,0,2048,2048
259.104,2.77556e-17,0,2048,2048
259.151,2.77556e-17,0,2048,2048
259.204,2.77556e-17,0,2048,2048
259.251,2.77556e-17,0,2048,2048
259.303,2.77556e-17,0,2048,2048
259.35,2.77556e-17,0,2048,2048
259.403,0,0,2048,2048
259.456,2.77556e-17,0,2048,2048
259.503,0,0,2048,2048
259.555,0,0,2048,2048
259.602,0,0,2048,2048
259.655,0,0,2048,2048
259.702,-2.77556e-17,0,2048,2048
259.754,0,0,2048,2048
259.801,0,0,2048,2048
259.854,-5.55112e-17,0,2048,2048
259.901,-5.55112e-17,0,2048,2048
259.954,-5.55112e-17,0,2048,2048
260,-5.55112e-17,0,2048,2048
260.053,-2.77556e-17,0,2048,2048
260.1,-5.55112e-17,0,2048,2048
260.153,-5.55112e-17,0,2048,2048
260.206,-5.55112e-17,0,2048,2048
260.252,-5.55112e-17,0,2048,2048
260.305,-5.55112e-17,0,2048,2048
260.352,-5.55112e-17,0,2048,2048
260.405,-5.55112e-17,0,2048,2048
260.452,-5.55112e-17,0,2048,2048
260.504,-5.55112e-17,0,2048,2048
260.551,-5.55112e-17,0,2048,2048
260.604,-2.77556e-17,0,2048,2048
260.651,-2.77556e-17,0,2048,2048
260.704,-2.77556e-17,0,2048,2048
260.75,-2.77556e-17,0,2048,2048
260.803,-2.77556e-17,0,2048,2048
260.856,-2.77556e-17,0,2048,2048
260.903,-2.77556e-17,0,2048,2048
260.955,-2.77556e-17,0,2048,2048
261.002,-2.77556e-17,0,2048,2048
261.055,-5.55112e-17,0,2048,2048
261.102,-5.55112e-17,0,2048,2048
261.155,-5.55112e-17,0,2048,2048
261.201,-5.55112e-17,0,2048,2048
261.254,-5.55112e-17,0,2048,2048
261.301,-5.55112e-17,0,2048,2048
261.354,-5.55112e-17,0,2048,2048
261.401,-5.55112e-17,0,2048,2048
261.453,-5.55112e-17,0,2048,2048
261.5,-5.55112e-17,0,2048,2048
261.553,-5.55112e-17,0,2048,2048
261.606,-5.55112e-17,0,2048,2048
261.653,-5.55112e-17,0,2048,2048
261.705,-5.55112e-17,0,2048,2048
261.752,-5.55112e-17,0,2048,2048
261.805,-2.77556e-17,0,2048,2048
261.852,-2.77556e-17,0,2048,2048
261.905,-2.77556e-17,0,2048,2048
261.951,-2.77556e-17,0,2048,2048
262.004,-2.77556e-17,0,2048,2048
262.051,-2.77556e-17,0,2048,2048
262.104,-2.77556e-17,0,2048,2048
262.151,-2.77556e-17,0,2048,2048
262.203,-2.77556e-17,0,2048,2048
262.25,-2.77556e-17,0,2048,2048
262.303,-2.77556e-17,0,2048,2048
262.356,-5.55112e-17,0,2048,2048
262.402,-2.77556e-17,0,2048,2048
262.455,0,0,2048,2048
262.502,0,0,2048,2048
262.555,0,0,2048,2048
262.602,0,0,2048,2048
262.654,0,0,2048,2048
262.701,2.77556e-17,0,2048,2048
262.754,5.55112e-17,0,2048,2048
262.801,5.55112e-17,0,2048,2048
262.854,5.55112e-17,0,2048,2048
262.9,5.55112e-17,0,2048,2048
262.953,5.55112e-17,0,2048,2048
263,5.55112e-17,0,2048,2048
263.053,5.55112e-17,0,2048,2048
263.105,5.55112e-17,0,2048,2048
263.152,5.55112e-17,0,2048,2048
263.205,5.55112e-17,0,2048,2048
263.252,0,0,2048,2048
263.305,0,0,2048,2048
263.352,2.77556e-17,0,2048,2048
263.404,5.55112e-17,0,2048,2048
263.451,5.55112e-17,0,2048,2048
263.504,5.55112e-17,0,2048,2048
263.551,2.77556e-17,0,2048,2048
263.603,0,0,2048,2048
263.65,0,0,2048,2048
263.703,0,0,2048,2048
263.756,0,0,2048,2048
263.803,2.77556e-17,0,2048,2048
263.855,0,0,2048,2048
263.902,2.77556e-17,0,2048,2048
263.955,-2.77556e-17,0,2048,2048
264.002,-2.77556e-17,0,2048,2048
264.055,-2.77556e-17,0,2048,2048
264.101,-2.77556e-17,0,2048,2048
264.154,-2.77556e-17,0,2048,2048
264.201,-2.77556e-17,0,2048,2048
264.254,-2.77556e-17,0,2048,2048
264.301,0,0,2048,2048
264.353,2.77556e-17,0,2048,2048
264.4,2.77556e-17,0,2048,2048
264.453,0,0,2048,2048
264.506,0,0,2048,2048
264.553,0,0,2048,2048
264.605,2.77556e-17,0,2048,2048
264.652,2.77556e-17,0,2048,2048
264.705,-2.77556e-17,0,2048,2048
264.752,-2.77556e-17,0,2048,2048
264.804,-2.77556e-17,0,2048,2048
264.851,-2.77556e-17,0,2048,2048
264.904,-2.77556e-17,0,2048,2048
264.951,-2.77556e-17,0,2048,2048
265.004,-2.77556e-17,0,2048,2048
265.051,-2.77556e-17,0,2048,2048
265.103,-2.77556e-17,0,2048,2048
265.15,-2.77556e-17,0,2048,2048
265.203,-2.77556e-17,0,2048,2048
265.256,-2.77556e-17,0,2048,2048
265.302,0,0,2048,2048
265.355,2.77556e-17,0,2048,2048
265.402,2.77556e-17,0,2048,2048
265.455,2.77556e-17,0,2048,2048
265.502,2.77556e-17,0,2048,2048
265.554,2.77556e-17,0,2048,2048
265.601,2.77556e-17,0,2048,2048
265.654,0,0,2048,2048
265.701,-2.77556e-17,0,2048,2048
265.754,-5.55112e-17,0,2048,2048
265.8,-5.55112e-17,0,2048,2048
265.853,-5.55112e-17,0,2048,2048
265.9,-2.77556e-17,0,2048,2048
265.953,-2.77556e-17,0,2048,2048
266.005,-2.77556e-17,0,2048,2048
266.052,-2.77556e-17,0,2048,2048
266.105,-2.77556e-17,0,2048,2048
266.152,0,0,2048,2048
266.205,0,0,2048,2048
266.252,0,0,2048,2048
266.304,-2.77556e-17,0,2048,2048
266.351,-8.32667e-17,0,2048,2048
266.404,-8.32667e-17,0,2048,2048
266.451,-5.55112e-17,0,2048,2048
266.503,-8.32667e-17,0,2048,2048
266.55,-5.55112e-17,0,2048,2048
266.603,-5.55112e-17,0,2048,2048
266.656,-5.55112e-17,0,2048,2048
266.703,-5.55112e-17,0,2048,2048
266.755,-5.55112e-17,0,2048,2048
266.802,-2.77556e-17,0,2048,2048
266.855,-5.55112e-17,0,2048,2048
266.902,-5.55112e-17,0,2048,2048
266.955,-2.77556e-17,0,2048,2048
267.001,-2.77556e-17,0,2048,2048
267.054,-2.77556e-17,0,2048,2048
267.101,-2.77556e-17,0,2048,2048
267.154,-2.77556e-17,0,2048,2048
267.201,-2.77556e-17,0,2048,2048
267.253,-2.77556e-17,0,2048,2048
267.3,-2.77556e-17,0,2048,2048
267.353,-5.55112e-17,0,2048,2048
267.406,-5.55112e-17,0,2048,2048
267.453,-5.55112e-17,0,2048,2048
267.505,-1.11022e-16,0,2048,2048
267.552,-5.55112e-17,0,2048,2048
267.605,-8.32667e-17,0,2048,2048
267.652,-8.32667e-17,0,2048,2048
267.704,-5.55112e-17,0,2048,2048
267.751,-5.55112e-17,0,2048,2048
267.804,-2.77556e-17,0,2048,2048
267.851,-5.55112e-17,0,2048,2048
267.904,-8.32667e-17,0,2048,2048
267.95,-5.55112e-17,0,2048,2048
268.003,-5.55112e-17,0,2048,2048
268.05,-5.55112e-17,0,2048,2048
268.103,-5.55112e-17,0,2048,2048
268.156,-5.55112e-17,0,2048,2048
268.202,-2.77556e-17,0,2048,2048
268.255,-2.77556e-17,0,2048,2048
268.302,-2.77556e-17,0,2048,2048
268.355,-2.77556e-17,0,2048,2048
268.402,-2.77556e-17,0,2048,2048
268.454,-2.77556e-17,0,2048,2048
268.501,-2.77556e-17,0,2048,2048
268.554,-2.77556e-17,0,2048,2048
268.601,-2.77556e-17,0,2048,2048
268.654,-2.77556e-17,0,2048,2048
268.7,-2.77556e-17,0,2048,2048
268.753,-2.77556e-17,0,2048,2048
268.806,-2.77556e-17,0,2048,2048
268.853,-2.77556e-17,0,2048,2048
268.905,-2.77556e-17,0,2048,2048
268.952,2.77556e-17,0,2048,2048
269.005,2.77556e-17,0,2048,2048
269.052,2.77556e-17,0,2048,2048
269.105,2.77556e-17,0,2048,2048
269.151,2.77556e-17,0,2048,2048
269.204,0,0,2048,2048
269.251,2.77556e-17,0,2048,2048
269.304,2.77556e-17,0,2048,2048
269.351,2.77556e-17,0,2048,2048
269.403,5.55112e-17,0,2048,2048
269.45,5.55112e-17,0,2048,2048
269.503,8.32667e-17,0,2048,2048
269.556,8.32667e-17,0,2048,2048
269.603,8.32667e-17,0,2048,2048
269.655,1.11022e-16,0,2048,2048
269.702,1.66533e-16,0,2048,2048
269.755,1.38778e-16,0,2048,2048
269.802,1.38778e-16,0,2048,2048
269.855,1.38778e-16,0,2048,2048
269.901,1.38778e-16,0,2048,2048
269.954,1.38778e-16,0,2048,2048
270.001,1.38778e-16,0,2048,2048
270.054,1.11022e-16,0,2048,2048
270.101,1.11022e-16,0,2048,2048
270.153,1.11022e-16,0,2048,2048
270.2,1.38778e-16,0,2048,2048
270.253,1.38778e-16,0,2048,2048
270.306,1.38778e-16,0,2048,2048
270.352,1.38778e-16,0,2048,2048
270.405,1.38778e-16,0,2048,2048
270.452,1.38778e-16,0,2048,2048
270.505,1.11022e-16,0,2048,2048
270.552,1.11022e-16,0,2048,2048
270.604,1.11022e-16,0,2048,2048
270.651,1.11022e-16,0,2048,2048
270.704,1.11022e-16,0,2048,2048
270.751,1.66533e-16,0,2048,2048
270.804,8.32667e-16,0,2048,2048
270.85,3.85803e-15,0,2048,2048
270.903,-1.88738e-15,0,2048,2048
270.95,-1.73001e-13,0,2048,2048
271.003,-1.63655e-12,0,2048,2048
271.056,-8.38385e-12,0,2048,2048
271.102,-2.55269e-11,0,2048,2048
271.155,-6.5722e-11,0,2048,2048
271.202,-1.19932e-10,0,2048,2048
271.255,-1.84022e-10,0,2048,2048
271.302,-2.16337e-10,0,2048,2048
271.354,-1.97605e-10,0,2048,2048
271.401,-1.30997e-10,0,2048,2048
271.454,-3.03587e-11,0,2048,2048
271.501,4.3943e-11,0,2048,2048
271.553,8.12136e-11,0,2048,2048
271.6,7.63056e-11,0,2048,2048
271.653,5.7746e-11,0,2048,2048
271.706,5.7023e-11,0,2048,2048
271.753,7.74426e-11,0,2048,2048
271.805,1.05806e-10,0,2048,2048
271.852,1.15929e-10,0,2048,2048
271.905,1.03884e-10,0,2048,2048
271.952,8.51774e-11,0,2048,2048
272.005,7.68858e-11,0,2048,2048
272.051,8.88009e-11,0,2048,2048
272.104,1.13547e-10,0,2048,2048
272.151,1.28286e-10,0,2048,2048
272.204,1.2372e-10,0,2048,2048
272.251,1.04765e-10,0,2048,2048
272.303,8.52758e-11,0,2048,2048
272.35,8.54662e-11,0,2048,2048
272.403,1.08616e-10,0,2048,2048
272.456,1.37176e-10,0,2048,2048
272.503,1.43235e-10,0,2048,2048
272.555,1.1661e-10,0,2048,2048
272.602,8.09275e-11,0,2048,2048
272.655,6.96531e-11,0,2048,2048
272.702,1.05797e-10,0,2048,2048
272.754,1.66781e-10,0,2048,2048
272.801,1.79452e-10,0,2048,2048
272.854,1.30931e-10,0,2048,2048
272.901,1.58447e-10,0,2048,2048
272.954,6.14046e-10,0,2048,2048
273.001,1.76874e-09,0,2048,2048
273.053,4.22694e-09,0,2048,2048
273.1,7.45569e-09,0,2048,2048
273.153,1.1938e-08,0,2048,2048
273.206,1.67555e-08,0,2048,2048
273.252,2.0877e-08,0,2048,2048
273.305,2.51096e-08,0,2048,2048
273.352,2.86529e-08,0,2048,2048
273.405,3.29022e-08,0,2048,2048
273.452,3.74943e-08,0,2048,2048
273.504,4.42117e-08,0,2048,2048
273.551,5.19562e-08,0,2048,2048
273.604,6.29844e-08,0,2048,2048
273.651,7.51261e-08,0,2048,2048
273.704,9.19085e-08,0,2048,2048
273.75,1.10196e-07,0,2048,2048
273.803,1.35343e-07,0,2048,2048
273.856,1.65999e-07,0,2048,2048
273.903,1.98086e-07,0,2048,2048
273.955,2.39341e-07,0,2048,2048
274.002,2.79996e-07,0,2048,2048
274.055,3.29382e-07,0,2048,2048
274.102,3.75956e-07,0,2048,2048
274.155,4.30954e-07,0,2048,2048
274.202,4.81832e-07,0,2048,2048
274.254,5.40555e-07,0,2048,2048
274.301,5.92852e-07,0,2048,2048
274.354,6.49708e-07,0,2048,2048
274.401,6.96442e-07,0,2048,2048
274.453,7.42562e-07,0,2048,2048
274.5,7.76548e-07,0,2048,2048
274.553,8.06338e-07,0,2048,2048
274.606,8.27566e-07,0,2048,2048
274.653,8.40093e-07,0,2048,2048
274.705,8.48196e-07,0,2048,2048
274.752,8.50883e-07,0,2048,2048
274.805,8.4934e-07,0,2048,2048
274.852,8.43925e-07,0,2048,2048
274.905,8.3288e-07,0,2048,2048
274.951,8.18099e-07,0,2048,2048
275.004,7.95206e-07,0,2048,2048
275.051,7.68906e-07,0,2048,2048
275.104,7.32667e-07,0,2048,2048
275.151,6.95133e-07,0,2048,2048
275.203,6.4826e-07,0,2048,2048
275.25,6.03996e-07,0,2048,2048
275.303,5.53188e-07,0,2048,2048
275.356,5.03112e-07,0,2048,2048
275.403,4.60336e-07,0,2048,2048
275.455,4.14889e-07,0,2048,2048
275.502,3.77083e-07,0,2048,2048
275.555,3.37381e-07,0,2048,2048
275.602,3.04408e-07,0,2048,2048
275.654,2.69751e-07,0,2048,2048
275.701,2.41155e-07,0,2048,2048
275.754,2.11778e-07,0,2048,2048
275.801,1.88508e-07,0,2048,2048
275.854,1.65779e-07,0,2048,2048
275.9,1.48497e-07,0,2048,2048
275.953,1.31721e-07,0,2048,2048
276,1.18465e-07,0,2048,2048
276.053,1.04744e-07,0,2048,2048
276.106,9.204e-08,0,2048,2048
276.152,8.17584e-08,0,2048,2048
276.205,7.1676e-08,0,2048,2048
276.252,6.42064e-08,0,2048,2048
276.305,5.73511e-08,0,2048,2048
276.352,5.22467e-08,0,2048,2048
276.404,4.70351e-08,0,2048,2048
276.451,4.24908e-08,0,2048,2048
276.504,3.73627e-08,0,2048,2048
276.551,3.29949e-08,0,2048,2048
276.604,2.87187e-08,0,2048,2048
276.65,2.57947e-08,0,2048,2048
276.703,2.3616e-08,0,2048,2048
276.756,2.24626e-08,0,2048,2048
276.803,2.20391e-08,0,2048,2048
276.855,2.19393e-08,0,2048,2048
276.902,2.1997e-08,0,2048,2048
276.955,2.20994e-08,0,2048,2048
277.002,2.21669e-08,0,2048,2048
277.055,2.21766e-08,0,2048,2048
277.101,2.21052e-08,0,2048,2048
277.154,2.19332e-08,0,2048,2048
277.201,2.17227e-08,0,2048,2048
277.254,2.14665e-08,0,2048,2048
277.301,2.12562e-08,0,2048,2048
277.353,2.10583e-08,0,2048,2048
277.4,2.09139e-08,0,2048,2048
277.453,2.07707e-08,0,2048,2048
277.506,2.06281e-08,0,2048,2048
277.553,2.0489e-08,0,2048,2048
277.605,2.03089e-08,0,2048,2048
277.652,2.01231e-08,0,2048,2048
277.705,1.98818e-08,0,2048,2048
277.752,1.96372e-08,0,2048,2048
277.804,1.93276e-08,0,2048,2048
277.851,1.90218e-08,0,2048,2048
277.904,1.86448e-08,0,2048,2048
277.951,1.8282e-08,0,2048,2048
278.004,1.78454e-08,0,2048,2048
278.051,1.7435e-08,0,2048,2048
278.103,1.6952e-08,0,2048,2048
278.15,1.65073e-08,0,2048,2048
278.203,1.59938e-08,0,2048,2048
278.256,1.54707e-08,0,2048,2048
278.302,1.5001e-08,0,2048,2048
278.355,1.44711e-08,0,2048,2048
278.402,1.4002e-08,0,2048,2048
278.455,1.348e-08,0,2048,2048
278.502,1.30243e-08,0,2048,2048
278.554,1.25247e-08,0,2048,2048
278.601,1.20953e-08,0,2048,2048
278.654,1.16321e-08,0,2048,2048
278.701,1.12407e-08,0,2048,2048
278.754,1.08258e-08,0,2048,2048
278.8,1.04813e-08,0,2048,2048
278.853,1.01223e-08,0,2048,2048
278.9,9.82899e-09,0,2048,2048
278.953,9.52798e-09,0,2048,2048
279.005,9.257e-09,0,2048,2048
279.052,9.04042e-09,0,2048,2048
279.105,8.82276e-09,0,2048,2048
279.152,8.65108e-09,0,2048,2048
279.205,8.48082e-09,0,2048,2048
279.252,8.34831e-09,0,2048,2048
279.304,8.21863e-09,0,2048,2048
279.351,8.11905e-09,0,2048,2048
279.404,8.02289e-09,0,2048,2048
279.451,7.95008e-09,0,2048,2048
279.503,7.88084e-09,0,2048,2048
279.55,7.82934e-09,0,2054,2054
279.603,7.78145e-09,0,2054,2054
279.656,7.74298e-09,0,2058,2058
279.703,7.71578e-09,0,2058,2058
279.755,7.69212e-09,0,2058,2058
279.802,7.67655e-09,0,2058,2058
279.855,7.66441e-09,0,2058,2058
279.902,7.65785e-09,0,2058,2058
279.955,7.65469e-09,0,2058,2058
280.001,7.65524e-09,0,2058,2058
280.054,7.65921e-09,0,2058,2058
280.101,7.66539e-09,0,2048,2048
280.154,7.67493e-09,0,2048,2048
280.201,7.68534e-09,0,2048,2048
280.253,7.69884e-09,0,2048,2048
280.3,7.71205e-09,0,2048,2048
280.353,7.72792e-09,0,2048,2048
280.406,7.74453e-09,0,2048,2048
280.453,7.75969e-09,0,2048,2048
280.505,7.777e-09,0,2048,2048
280.552,7.79251e-09,0,2048,2048
280.605,7.81003e-09,0,2048,2048
280.652,7.82562e-09,0,2048,2048
280.704,7.84315e-09,0,2048,2048
280.751,7.85869e-09,0,2050,2050
280.804,7.87611e-09,0,2050,2050
280.851,7.89151e-09,0,2050,2050
280.904,7.90871e-09,0,2050,2050
280.951,7.92384e-09,0,2050,2050
281.003,7.94065e-09,0,2050,2050
281.05,7.95536e-09,0,2050,2050
281.103,7.97162e-09,0,2050,2050
281.156,7.98754e-09,0,2050,2050
281.202,8.00137e-09,0,2050,2050
281.255,8.01656e-09,0,2050,2050
281.302,8.02974e-09,0,2050,2050
281.355,8.04424e-09,0,2050,2050
281.402,8.05691e-09,0,2050,2050
281.454,8.07111e-09,0,2050,2050
281.501,8.0839e-09,0,2050,2050
281.554,8.09894e-09,0,2050,2050
281.601,8.11342e-09,0,2048,2048
281.654,8.13185e-09,0,2048,2048
281.7,8.15112e-09,0,2048,2048
281.753,8.17751e-09,0,2048,2048
281.8,8.20666e-09,0,2048,2048
281.853,8.24791e-09,0,2048,2048
281.905,8.30063e-09,0,2048,2048
281.952,8.35945e-09,0,2048,2048
282.005,8.44198e-09,0,2048,2048
282.052,8.5326e-09,0,2048,2048
282.105,8.65747e-09,0,2048,2048
282.152,8.79222e-09,0,2048,2048
282.204,8.97505e-09,0,2048,2048
282.251,9.16978e-09,0,2048,2048
282.304,9.43123e-09,0,2048,2048
282.351,9.70743e-09,0,2048,2048
282.403,1.00758e-08,0,2048,2048
282.45,1.04628e-08,0,2048,2048
282.503,1.09761e-08,0,2048,2048
282.556,1.1585e-08,0,2048,2048
282.603,1.22181e-08,0,2048,2048
282.655,1.30479e-08,0,2048,2048
282.702,1.39023e-08,0,2048,2048
282.755,1.50093e-08,0,2048,2048
282.802,1.61347e-08,0,2048,2048
282.855,1.75726e-08,0,2048,2048
282.901,1.90132e-08,0,2048,2048
282.954,2.08258e-08,0,2048,2048
283.001,2.26135e-08,0,2048,2048
283.054,2.48276e-08,0,2048,2048
283.101,2.69776e-08,0,2048,2048
283.153,2.96004e-08,0,2048,2048
283.2,3.2111e-08,0,2048,2048
283.253,3.51335e-08,0,2048,2048
283.306,3.83617e-08,0,2048,2048
283.353,4.14009e-08,0,2048,2048
283.405,4.50097e-08,0,2048,2048
283.452,4.83872e-08,0,2048,2048
283.505,5.23818e-08,0,2048,2048
283.552,5.61125e-08,0,2048,2048
283.604,6.05223e-08,0,2048,2048
283.651,6.46426e-08,0,2048,2048
283.704,6.9519e-08,0,2048,2048
283.751,7.40829e-08,0,2048,2048
283.804,7.94953e-08,0,2048,2048
283.85,8.45738e-08,0,2048,2048
283.903,9.06182e-08,0,2048,2048
283.95,9.63185e-08,0,2048,2048
284.003,1.03153e-07,0,2048,2048
284.056,1.10507e-07,0,2048,2048
284.102,1.17564e-07,0,2048,2048
284.155,1.26204e-07,0,2048,2048
284.202,1.34633e-07,0,2048,2048
284.255,1.45125e-07,0,2048,2048
284.302,1.55516e-07,0,2048,2048
284.354,1.68611e-07,0,2048,2048
284.401,1.81685e-07,0,2048,2048
284.454,1.98217e-07,0,2048,2048
284.501,2.14699e-07,0,2048,2048
284.554,2.35409e-07,0,2048,2048
284.6,2.55838e-07,0,2048,2048
284.653,2.81143e-07,0,2048,2048
284.706,3.08877e-07,0,2048,2048
284.753,3.35471e-07,0,2048,2048
284.805,3.67381e-07,0,2048,2048
284.852,3.97275e-07,0,2048,2048
284.905,4.3226e-07,0,2048,2048
284.952,4.64177e-07,0,2048,2048
285.005,5.00483e-07,0,2048,2048
285.051,5.32602e-07,0,2048,2048
285.104,5.67923e-07,0,2048,2048
285.151,5.98021e-07,0,2048,2048
285.204,6.29743e-07,0,2048,2048
285.251,6.55474e-07,0,2048,2048
285.303,6.81033e-07,0,2048,2048
285.35,7.0027e-07,0,2048,2048
285.403,7.17529e-07,0,2048,2048
285.456,7.29758e-07,0,2048,2048
285.503,7.36167e-07,0,2048,2048
285.555,7.382e-07,0,2048,2048
285.602,7.35353e-07,0,2048,2048
285.655,7.26949e-07,0,2048,2048
285.702,7.14965e-07,0,2048,2048
285.755,6.96619e-07,0,2048,2048
285.801,6.76238e-07,0,2048,2048
285.854,6.49097e-07,0,2048,2048
285.901,6.216e-07,0,2048,2048
285.954,5.87364e-07,0,2048,2048
286.001,5.54459e-07,0,2048,2048
286.053,5.15225e-07,0,2048,2048
286.1,4.78885e-07,0,2048,2048
286.153,4.36941e-07,0,2048,2048
286.206,3.94488e-07,0,2048,2048
286.252,3.56818e-07,0,2048,2048
286.305,3.15033e-07,0,2048,2048
286.352,2.78825e-07,0,2048,2048
286.405,2.39561e-07,0,2048,2048
286.452,2.06271e-07,0,2048,2048
286.504,1.70919e-07,0,2048,2048
286.551,1.41549e-07,0,2048,2048
286.604,1.10967e-07,0,2048,2048
286.651,8.60411e-08,0,2048,2048
286.704,6.05652e-08,0,2048,2048
286.75,4.01794e-08,0,2048,2048
286.803,1.97215e-08,0,2048,2048
286.85,3.6539e-09,0,2048,2048
286.903,-1.21618e-08,0,2048,2048
286.955,-2.57298e-08,0,2048,2048
287.002,-3.60338e-08,0,2048,2048
287.055,-4.58012e-08,0,2048,2048
287.102,-5.29911e-08,0,2048,2048
287.155,-5.95498e-08,0,2048,2048
287.202,-6.41427e-08,0,2048,2048
287.254,-6.80549e-08,0,2048,2048
287.301,-7.05272e-08,0,2048,2048
287.354,-7.2298e-08,0,2048,2048
287.401,-7.307e-08,0,2048,2048
287.453,-7.31411e-08,0,2048,2048
287.5,-7.25801e-08,0,2048,2048
287.553,-7.13406e-08,0,2048,2048
287.606,-6.95521e-08,0,2048,2048
287.653,-6.75783e-08,0,2048,2048
287.705,-6.50088e-08,0,2048,2048
287.752,-6.24822e-08,0,2048,2048
287.805,-5.94417e-08,0,2048,2048
287.852,-5.66219e-08,0,2048,2048
287.905,-5.33805e-08,0,2048,2048
287.951,-5.04849e-08,0,2048,2048
288.004,-4.72586e-08,0,2048,2048
288.051,-4.44521e-08,0,2048,2048
288.104,-4.13951e-08,0,2048,2048
288.151,-3.87874e-08,0,2048,2048
288.203,-3.59947e-08,0,2048,2048
288.25,-3.36476e-08,0,2048,2048
288.303,-3.11664e-08,0,2048,2048
288.356,-2.88569e-08,0,2048,2048
288.403,-2.69484e-08,0,2048,2048
288.455,-2.49612e-08,0,2048,2048
288.502,-2.33336e-08,0,2048,2048
288.555,-2.16531e-08,0,2048,2048
288.602,-2.0288e-08,0,2048,2048
288.654,-1.88899e-08,0,2048,2048
288.701,-1.77634e-08,0,2048,2048
288.754,-1.66192e-08,0,2048,2048
288.801,-1.5705e-08,0,2048,2048
288.854,-1.47846e-08,0,2048,2048
288.901,-1.40563e-08,0,2048,2048
288.953,-1.33306e-08,0,2048,2048
289,-1.27627e-08,0,2048,2048
289.053,-1.2204e-08,0,2048,2048
289.106,-1.17233e-08,0,2048,2048
289.152,-1.1356e-08,0,2048,2048
289.205,-1.10045e-08,0,2048,2048
289.252,-1.07422e-08,0,2048,2048
289.305,-1.0498e-08,0,2048,2048
289.352,-1.0322e-08,0,2048,2048
289.404,-1.01653e-08,0,2048,2048
289.451,-1.00587e-08,0,2048,2048
289.504,-9.9712e-09,0,2048,2048
289.551,-9.91856e-09,0,2048,2048
289.604,-9.88365e-09,0,2048,2048
289.65,-9.87097e-09,0,2048,2048
289.703,-9.87383e-09,0,2048,2048
289.756,-9.89137e-09,0,2048,2048
289.803,-9.91663e-09,0,2048,2048
289.855,-9.95329e-09,0,2048,2048
289.902,-9.99118e-09,0,2048,2048
289.955,-1.00377e-08,0,2048,2048
290.002,-1.00812e-08,0,2048,2048
290.055,-1.01309e-08,0,2048,2048
290.102,-1.01748e-08,0,2048,2048
290.154,-1.0223e-08,0,2048,2048
290.201,-1.02642e-08,0,2048,2048
290.254,-1.03082e-08,0,2048,2048
290.301,-1.03447e-08,0,2048,2048
290.353,-1.03828e-08,0,2048,2048
290.4,-1.04136e-08,0,2048,2048
290.453,-1.04447e-08,0,2048,2048
290.506,-1.0472e-08,0,2048,2048
290.553,-1.0493e-08,0,2048,2048
290.605,-1.05129e-08,0,2048,2048
290.652,-1.05273e-08,0,2048,2048
290.705,-1.05402e-08,0,2048,2048
290.752,-1.05489e-08,0,2048,2048
290.805,-1.05561e-08,0,2048,2048
290.851,-1.05609e-08,0,2048,2048
290.904,-1.05653e-08,0,2048,2048
290.951,-1.05694e-08,0,2048,2048
291.004,-1.05754e-08,0,2048,2048
291.051,-1.05835e-08,0,2048,2048
291.103,-1.05971e-08,0,2048,2048
291.15,-1.0615e-08,0,2048,2048
291.203,-1.06433e-08,0,2048,2048
291.256,-1.06825e-08,0,2048,2048
291.302,-1.0728e-08,0,2048,2048
291.355,-1.0793e-08,0,2048,2048
291.402,-1.08646e-08,0,2048,2048
291.455,-1.09619e-08,0,2048,2048
291.502,-1.10644e-08,0,2048,2048
291.554,-1.11987e-08,0,2048,2048
291.601,-1.13354e-08,0,2048,2048
291.654,-1.1509e-08,0,2048,2048
291.701,-1.16809e-08,0,2048,2048
291.754,-1.18939e-08,0,2048,2048
291.8,-1.21002e-08,0,2048,2048
291.853,-1.23507e-08,0,2048,2048
291.9,-1.2589e-08,0,2048,2048
291.953,-1.28738e-08,0,2048,2048
292.006,-1.31752e-08,0,2048,2048
292.052,-1.3456e-08,0,2048,2048
292.105,-1.37854e-08,0,2048,2048
292.152,-1.40892e-08,0,2048,2048
292.205,-1.4442e-08,0,2048,2048
292.252,-1.47643e-08,0,2048,2048
292.304,-1.51355e-08,0,2048,2048
292.351,-1.54717e-08,0,2048,2048
292.404,-1.58557e-08,0,2048,2048
292.451,-1.62008e-08,0,2048,2048
292.503,-1.65918e-08,0,2048,2048
292.55,-1.69404e-08,0,2048,2048
292.603,-1.73323e-08,0,2048,2048
292.656,-1.7722e-08,0,2048,2048
292.703,-1.80652e-08,0,2048,2048
292.755,-1.8446e-08,0,2048,2048
292.802,-1.87785e-08,0,2048,2048
292.855,-1.9144e-08,0,2048,2048
292.902,-1.94601e-08,0,2048,2048
292.955,-1.9804e-08,0,2048,2048
293.001,-2.00982e-08,0,2048,2048
293.054,-2.04145e-08,0,2048,2048
293.101,-2.06815e-08,0,2048,2048
293.154,-2.09644e-08,0,2048,2048
293.201,-2.11993e-08,0,2048,2048
293.253,-2.14437e-08,0,2048,2048
293.3,-2.16423e-08,0,2048,2048
293.353,-2.1844e-08,0,2048,2048
293.406,-2.20217e-08,0,2048,2048
293.453,-2.21592e-08,0,2048,2048
293.505,-2.22905e-08,0,2048,2048
293.552,-2.23864e-08,0,2048,2048
293.605,-2.24711e-08,0,2048,2048
293.652,-2.2526e-08,0,2048,2048
293.704,-2.25656e-08,0,2048,2048
293.751,-2.25818e-08,0,2048,2048
293.804,-2.25795e-08,0,2048,2048
293.851,-2.25604e-08,0,2048,2048
293.904,-2.2521e-08,0,2048,2048
293.951,-2.24713e-08,0,2048,2048
294.003,-2.24003e-08,0,2048,2048
294.05,-2.23252e-08,0,2048,2048
294.103,-2.22287e-08,0,2048,2048
294.156,-2.21211e-08,0,2048,2048
294.202,-2.20175e-08,0,2048,2048
294.255,-2.18936e-08,0,2048,2048
294.302,-2.17779e-08,0,2048,2048
294.355,-2.16429e-08,0,2048,2048
294.402,-2.15196e-08,0,2048,2048
294.454,-2.13783e-08,0,2048,2048
294.501,-2.12512e-08,0,2048,2048
294.554,-2.11075e-08,0,2048,2048
294.601,-2.09798e-08,0,2048,2048
294.654,-2.08369e-08,0,2048,2048
294.7,-2.07111e-08,0,2048,2048
294.753,-2.05716e-08,0,2048,2048
294.8,-2.04498e-08,0,2048,2048
294.853,-2.03155e-08,0,2048,2048
294.905,-2.01846e-08,0,2048,2048
294.952,-2.00713e-08,0,2048,2048
295.005,-1.99475e-08,0,2048,2048
295.052,-1.98408e-08,0,2048,2048
295.105,-1.97246e-08,0,2048,2048
295.152,-1.96247e-08,0,2048,2048
295.204,-1.95161e-08,0,2048,2048
295.251,-1.9423e-08,0,2048,2048
295.304,-1.93219e-08,0,2048,2048
295.351,-1.92352e-08,0,2048,2048
295.403,-1.91411e-08,0,2048,2048
295.45,-1.90602e-08,0,2048,2048
295.503,-1.89722e-08,0,2048,2048
295.556,-1.88872e-08,0,2048,2048
295.603,-1.88139e-08,0,2048,2048
295.655,-1.87337e-08,0,2048,2048
295.702,-1.86642e-08,0,2048,2048
295.755,-1.85879e-08,0,2048,2048
295.802,-1.85216e-08,0,2048,2048
295.855,-1.84483e-08,0,2048,2048
295.901,-1.83841e-08,0,2048,2048
295.954,-1.83129e-08,0,2048,2048
296.001,-1.82503e-08,0,2048,2048
296.054,-1.81804e-08,0,2048,2048
296.101,-1.81185e-08,0,2048,2048
296.153,-1.8049e-08,0,2048,2048
296.2,-1.79873e-08,0,2048,2048
296.253,-1.79175e-08,0,2048,2048
296.306,-1.78473e-08,0,2048,2048
296.353,-1.77844e-08,0,2048,2048
296.405,-1.77129e-08,0,2048,2048
296.452,-1.76484e-08,0,2048,2048
296.505,-1.75747e-08,0,2048,2048
296.552,-1.7508e-08,0,2048,2048
296.604,-1.74315e-08,0,2048,2048
296.651,-1.73619e-08,0,2048,2048
296.704,-1.72817e-08,0,2048,2048
296.751,-1.72085e-08,0,2048,2048
296.804,-1.71238e-08,0,2048,2048
296.851,-1.70462e-08,0,2048,2048
296.903,-1.69561e-08,0,2048,2048
296.95,-1.68734e-08,0,2048,2048
297.003,-1.67772e-08,0,2048,2048
297.056,-1.66772e-08,0,2048,2048
297.102,-1.65852e-08,0,2048,2048
297.155,-1.64777e-08,0,2048,2048
297.202,-1.63785e-08,0,2048,2048
297.255,-1.62627e-08,0,2048,2048
297.302,-1.61558e-08,0,2048,2048
297.354,-1.60308e-08,0,2048,2048
297.401,-1.59155e-08,0,2048,2048
297.454,-1.57807e-08,0,2048,2048
297.501,-1.56563e-08,0,2048,2048
297.554,-1.5511e-08,0,2048,2048
297.6,-1.53769e-08,0,2048,2048
297.653,-1.52204e-08,0,2048,2048
297.706,-1.50578e-08,0,2048,2048
297.753,-1.49079e-08,0,2048,2048
297.805,-1.4733e-08,0,2048,2048
297.852,-1.45719e-08,0,2048,2048
297.905,-1.43839e-08,0,2048,2048
297.952,-1.42106e-08,0,2048,2048
298.005,-1.40084e-08,0,2048,2048
298.052,-1.38219e-08,0,2048,2048
298.104,-1.3604e-08,0,2048,2048
298.151,-1.34027e-08,0,2048,2048
298.204,-1.31673e-08,0,2048,2048
298.251,-1.29493e-08,0,2048,2048
298.303,-1.26939e-08,0,2048,2048
298.35,-1.2457e-08,0,2048,2048
298.403,-1.21787e-08,0,2048,2048
298.456,-1.18871e-08,0,2048,2048
298.503,-1.16159e-08,0,2048,2048
298.555,-1.12967e-08,0,2048,2048
298.602,-1.09996e-08,0,2048,2048
298.655,-1.06496e-08,0,2048,2048
298.702,-1.0324e-08,0,2048,2048
298.755,-9.94082e-09,0,2048,2048
298.801,-9.5849e-09,0,2048,2048
298.854,-9.16703e-09,0,2048,2048
298.901,-8.78007e-09,0,2048,2048
298.954,-8.3275e-09,0,2048,2048
299.001,-7.91031e-09,0,2048,2048
299.053,-7.42493e-09,0,2048,2048
299.1,-6.98011e-09,0,2048,2048
299.153,-6.46593e-09,0,2048,2048
299.206,-5.93889e-09,0,2048,2048
299.253,-5.46125e-09,0,2048,2048
299.305,-4.91571e-09,0,2048,2048
299.352,-4.42551e-09,0,2048,2048
299.405,-3.87063e-09,0,2048,2048
299.452,-3.37665e-09,0,2048,2048
299.504,-2.82289e-09,0,2048,2048
299.551,-2.33486e-09,0,2048,2048
299.604,-1.79343e-09,0,2048,2048
299.651,-1.32138e-09,0,2048,2048
299.704,-8.03501e-10,0,2048,2048
299.75,-3.57173e-10,0,2048,2048
299.803,1.26649e-10,0,2048,2048
299.85,5.38448e-10,0,2048,2048
299.903,9.79057e-10,0,2048,2048
299.956,1.39371e-09,0,2048,2048
300.002,1.7391e-09,0,2048,2048
300.055,2.10031e-09,0,2048,2048
300.102,2.39626e-09,0,2048,2048
300.155,2.70028e-09,0,2048,2048
300.202,2.94454e-09,0,2048,2048
300.254,3.19007e-09,0,2048,2048
300.301,3.38253e-09,0,2048,2048
300.354,3.57058e-09,0,2048,2048
300.401,3.71312e-09,0,2048,2048
300.453,3.8468e-09,0,2048,2048
300.5,3.94297e-09,0,2048,2048
300.553,4.02708e-09,0,2048,2048
300.606,4.08733e-09,0,2048,2048
300.653,4.12236e-09,0,2048,2048
300.705,4.14266e-09,0,2048,2048
300.752,4.14529e-09,0,2048,2048
300.805,4.13275e-09,0,2048,2048
300.852,4.10942e-09,0,2048,2048
300.905,4.07131e-09,0,2048,2048
300.951,4.02845e-09,0,2048,2048
301.004,3.9719e-09,0,2048,2048
301.051,3.91567e-09,0,2048,2048
301.104,3.84735e-09,0,2048,2048
301.151,3.78342e-09,0,2048,2048
301.203,3.70937e-09,0,2048,2048
301.25,3.64276e-09,0,2048,2048
301.303,3.56818e-09,0,2048,2048
301.356,3.49508e-09,0,2048,2048
301.403,3.43219e-09,0,2048,2048
301.455,3.36454e-09,0,2048,2048
301.502,3.30768e-09,0,2048,2048
301.555,3.24786e-09,0,2048,2048
301.602,3.19858e-09,0,2048,2048
301.654,3.14762e-09,0,2048,2048
301.701,3.10625e-09,0,2048,2048
301.754,3.06386e-09,0,2048,2048
301.801,3.02954e-09,0,2048,2048
301.854,2.99416e-09,0,2048,2048
301.901,2.96501e-09,0,2048,2048
301.953,2.93405e-09,0,2048,2048
302,2.90745e-09,0,2048,2048
302.053,2.87768e-09,0,2048,2048
302.106,2.84715e-09,0,2048,2048
302.152,2.81862e-09,0,2048,2048
302.205,2.78419e-09,0,2048,2048
302.252,2.7509e-09,0,2048,2048
302.305,2.70988e-09,0,2048,2048
302.352,2.66986e-09,0,2048,2048
302.404,2.6206e-09,0,2048,2048
302.451,2.57295e-09,0,2048,2048
302.504,2.51509e-09,0,2048,2048
302.551,2.46011e-09,0,2048,2048
302.604,2.39469e-09,0,2048,2048
302.65,2.33389e-09,0,2048,2048
302.703,2.26321e-09,0,2048,2048
302.75,2.1991e-09,0,2048,2048
302.803,2.12645e-09,0,2048,2048
302.855,2.05428e-09,0,2048,2048
302.902,1.99145e-09,0,2048,2048
302.955,1.92326e-09,0,2048,2048
303.002,1.8657e-09,0,2048,2048
303.055,1.80531e-09,0,2048,2048
303.102,1.75624e-09,0,2048,2048
303.154,1.70694e-09,0,2048,2048
303.201,1.66892e-09,0,2048,2048
303.254,1.63313e-09,0,2048,2048
303.301,1.60784e-09,0,2048,2048
303.353,1.5869e-09,0,2048,2048
303.4,1.57501e-09,0,2048,2048
303.453,1.5691e-09,0,2048,2048
303.506,1.57083e-09,0,2048,2048
303.553,1.57845e-09,0,2048,2048
303.605,1.59339e-09,0,2048,2048
303.652,1.61183e-09,0,2048,2048
303.705,1.63772e-09,0,2048,2048
303.752,1.66471e-09,0,2048,2048
303.805,1.6988e-09,0,2048,2048
303.851,1.73175e-09,0,2048,2048
303.904,1.77105e-09,0,2048,2048
303.951,1.80734e-09,0,2048,2048
304.004,1.84898e-09,0,2048,2048
304.051,1.88615e-09,0,2048,2048
304.103,1.92756e-09,0,2048,2048
304.15,1.96354e-09,0,2048,2048
304.203,2.00261e-09,0,2048,2048
304.256,2.0398e-09,0,2048,2048
304.303,2.07097e-09,0,2048,2048
304.355,2.10366e-09,0,2048,2048
304.402,2.13044e-09,0,2048,2048
304.455,2.15788e-09,0,2048,2048
304.502,2.17979e-09,0,2048,2048
304.554,2.20162e-09,0,2048,2048
304.601,2.21851e-09,0,2048,2048
304.654,2.23472e-09,0,2048,2048
304.701,2.24669e-09,0,2048,2048
304.754,2.25748e-09,0,2048,2048
304.801,2.2648e-09,0,2048,2048
304.853,2.27056e-09,0,2048,2048
304.9,2.2736e-09,0,2048,2048
304.953,2.27481e-09,0,2048,2048
