250,0,0,32768,32768
250.001,0,0,32768,32768
250.051,0,0,32768,32768
250.101,0,0,32768,32768
250.151,0,0,32768,32768
250.201,0,0,32768,32768
250.25,0,0,32768,32768
250.3,0,0,32768,32768
250.35,0,0,32768,32768
250.401,0,0,32768,32768
250.451,0,0,32768,32768
250.501,0,0,32768,32768
250.551,0,0,32768,32768
250.6,0,0,32768,32768
250.65,0,0,32768,32768
250.7,0,0,32768,32768
250.751,0,0,32768,32768
250.801,0,0,32768,32768
250.851,0,0,32768,32768
250.901,0,0,32768,32768
250.951,0,0,32768,32768
251,0,0,32768,32768
251.05,0,0,32768,32768
251.101,0,0,32768,32768
251.151,0,0,32768,32768
251.201,0,0,32768,32768
251.251,0,0,32768,32768
251.301,0,0,32768,32768
251.35,0,0,32768,32768
251.4,0,0,32768,32768
251.451,0,0,32768,32768
251.501,0,0,32768,32768
251.551,0,0,32768,32768
251.601,0,0,32768,32768
251.651,2.77556e-17,0,32768,32768
251.7,2.77556e-17,0,32768,32768
251.75,2.77556e-17,0,32768,32768
251.8,2.77556e-17,0,32768,32768
251.851,2.77556e-17,0,32768,32768
251.901,2.77556e-17,0,32768,32768
251.951,5.55112e-17,0,32768,32768
252.001,2.77556e-17,0,32768,32768
252.05,2.77556e-17,0,32768,32768
252.1,0,0,32768,32768
252.15,0,0,32768,32768
252.201,0,0,32768,32768
252.251,0,0,32768,32768
252.301,0,0,32768,32768
252.351,0,0,32768,32768
252.401,0,0,32768,32768
252.45,0,0,32768,32768
252.5,0,0,32768,32768
252.551,0,0,32768,32768
252.601,0,0,32768,32768
252.651,0,0,32768,32768
252.701,0,0,32768,32768
252.751,0,0,32768,32768
252.8,0,0,32768,32768
252.85,0,0,32768,32768
252.901,0,0,32768,32768
252.951,0,0,32768,32768
253.001,0,0,32768,32768
253.051,0,0,32768,32768
253.101,0,0,32768,32768
253.15,0,0,32768,32768
253.2,0,0,32768,32768
253.25,0,0,32768,32768
253.301,2.77556e-17,0,32768,32768
253.351,2.77556e-17,0,32768,32768
253.401,2.77556e-17,0,32768,32768
253.451,2.77556e-17,0,32768,32768
253.5,-2.77556e-17,0,32768,32768
253.55,-2.77556e-17,0,32768,32768
253.6,0,0,32768,32768
253.651,-2.77556e-17,0,32768,32768
253.701,0,0,32768,32768
253.751,0,0,32768,32768
253.801,0,0,32768,32768
253.851,0,0,32768,32768
253.9,0,0,32768,32768
253.95,0,0,32768,32768
254.001,-2.77556e-17,0,32768,32768
254.051,-2.77556e-17,0,32768,32768
254.101,-2.77556e-17,0,32768,32768
254.151,-2.77556e-17,0,32768,32768
254.201,-2.77556e-17,0,32768,32768
254.25,-2.77556e-17,0,32768,32768
254.3,0,0,32768,32768
254.351,0,0,32768,32768
254.401,0,0,32768,32768
254.451,0,0,32768,32768
254.501,0,0,32768,32768
254.551,0,0,32768,32768
254.6,0,0,32768,32768
254.65,2.77556e-17,0,32768,32768
254.701,2.77556e-17,0,32768,32768
254.751,5.55112e-17,0,32768,32768
254.801,2.77556e-17,0,32768,32768
254.851,0,0,32768,32768
254.901,-2.77556e-17,0,32768,32768
254.95,-2.77556e-17,0,32768,32768
255,-2.77556e-17,0,32768,32768
255.05,-2.77556e-17,0,32768,32768
255.101,-2.77556e-17,0,32768,32768
255.151,-2.77556e-17,0,32768,32768
255.201,-5.55112e-17,0,32768,32768
255.251,-2.77556e-17,0,32768,32768
255.3,-2.77556e-17,0,32768,32768
255.35,-2.77556e-17,0,32768,32768
255.4,-2.77556e-17,0,32768,32768
255.451,-2.77556e-17,0,32768,32768
255.501,-2.77556e-17,0,32768,32768
255.551,-2.77556e-17,0,32768,32768
255.601,-2.77556e-17,0,32768,32768
255.651,-2.77556e-17,0,32768,32768
255.7,-2.77556e-17,0,32768,32768
255.75,-2.77556e-17,0,32768,32768
255.801,-2.77556e-17,0,32768,32768
255.851,-2.77556e-17,0,32768,32768
255.901,-2.77556e-17,0,32768,32768
255.951,-2.77556e-17,0,32768,32768
256.001,-2.77556e-17,0,32768,32768
256.05,-2.77556e-17,0,32768,32768
256.1,-2.77556e-17,0,32768,32768
256.151,-2.77556e-17,0,32768,32768
256.201,-2.77556e-17,0,32768,32768
256.251,-2.77556e-17,0,32768,32768
256.301,-2.77556e-17,0,32768,32768
256.351,-2.77556e-17,0,32768,32768
256.4,-2.77556e-17,0,32768,32768
256.45,-2.77556e-17,0,32768,32768
256.5,-2.77556e-17,0,32768,32768
256.551,-2.77556e-17,0,32768,32768
256.601,-2.77556e-17,0,32768,32768
256.651,-2.77556e-17,0,32768,32768
256.701,-2.77556e-17,0,32768,32768
256.75,-2.77556e-17,0,32768,32768
256.8,-2.77556e-17,0,32768,32768
256.85,-2.77556e-17,0,32768,32768
256.901,-2.77556e-17,0,32768,32768
256.951,-2.77556e-17,0,32768,32768
257.001,-2.77556e-17,0,32768,32768
257.051,-2.77556e-17,0,32768,32768
257.101,-2.77556e-17,0,32768,32768
257.15,-2.77556e-17,0,32768,32768
257.2,-2.77556e-17,0,32768,32768
257.251,-2.77556e-17,0,32768,32768
257.301,-2.77556e-17,0,32768,32768
257.351,2.77556e-17,0,32768,32768
257.401,2.77556e-17,0,32768,32768
257.451,2.77556e-17,0,32768,32768
257.5,2.77556e-17,0,32768,32768
257.55,2.77556e-17,0,32768,32768
257.601,0,0,32768,32768
257.651,0,0,32768,32768
257.701,0,0,32768,32768
257.751,0,0,32768,32768
257.801,0,0,32768,32768
257.85,0,0,32768,32768
257.9,0,0,32768,32768
257.95,0,0,32768,32768
258.001,0,0,32768,32768
258.051,0,0,32768,32768
258.101,0,0,32768,32768
258.151,0,0,32768,32768
258.2,0,0,32768,32768
258.25,0,0,32768,32768
258.3,0,0,32768,32768
258.351,0,0,32768,32768
258.401,0,0,32768,32768
258.451,0,0,32768,32768
258.501,0,0,32768,32768
258.551,0,0,32768,32768
258.6,0,0,32768,32768
258.65,0,0,32768,32768
258.701,0,0,32768,32768
258.751,0,0,32768,32768
258.801,0,0,32768,32768
258.851,0,0,32768,32768
258.901,0,0,32768,32768
258.95,0,0,32768,32768
259,0,0,32768,32768
259.051,0,0,32768,32768
259.101,0,0,32768,32768
259.151,5.55112e-17,0,32768,32768
259.201,5.55112e-17,0,32768,32768
259.251,2.77556e-17,0,32768,32768
259.3,2.77556e-17,0,32768,32768
259.35,-2.77556e-17,0,32768,32768
259.401,-2.77556e-17,0,32768,32768
259.451,2.77556e-17,0,32768,32768
259.501,2.77556e-17,0,32768,32768
259.551,5.55112e-17,0,32768,32768
259.601,8.32667e-17,0,32768,32768
259.65,5.55112e-17,0,32768,32768
259.7,5.55112e-17,0,32768,32768
259.75,8.32667e-17,0,32768,32768
259.801,1.11022e-16,0,32768,32768
259.851,1.11022e-16,0,32768,32768
259.901,1.11022e-16,0,32768,32768
259.951,1.11022e-16,0,32768,32768
260,8.32667e-17,0,32768,32768
260.05,8.32667e-17,0,32768,32768
260.1,1.11022e-16,0,32768,32768
260.151,1.11022e-16,0,32768,32768
260.201,1.11022e-16,0,32768,32768
260.251,1.11022e-16,0,32768,32768
260.301,8.32667e-17,0,32768,32768
260.351,1.11022e-16,0,32768,32768
260.4,1.11022e-16,0,32768,32768
260.45,1.11022e-16,0,32768,32768
260.501,8.32667e-17,0,32768,32768
260.551,8.32667e-17,0,32768,32768
260.601,1.11022e-16,0,32768,32768
260.651,1.11022e-16,0,32768,32768
260.701,5.55112e-17,0,32768,32768
260.75,8.32667e-17,0,32768,32768
260.8,8.32667e-17,0,32768,32768
260.851,8.32667e-17,0,32768,32768
260.901,8.32667e-17,0,32768,32768
260.951,8.32667e-17,0,32768,32768
261.001,8.32667e-17,0,32768,32768
261.051,8.32667e-17,0,32768,32768
261.1,8.32667e-17,0,32768,32768
261.15,8.32667e-17,0,32768,32768
261.2,8.32667e-17,0,32768,32768
261.251,8.32667e-17,0,32768,32768
261.301,5.55112e-17,0,32768,32768
261.351,5.55112e-17,0,32768,32768
261.401,2.77556e-17,0,32768,32768
261.45,2.77556e-17,0,32768,32768
261.5,2.77556e-17,0,32768,32768
261.55,2.77556e-17,0,32768,32768
261.601,5.55112e-17,0,32768,32768
261.651,5.55112e-17,0,32768,32768
261.701,5.55112e-17,0,32768,32768
261.751,5.55112e-17,0,32768,32768
261.801,5.55112e-17,0,32768,32768
261.85,5.55112e-17,0,32768,32768
261.9,5.55112e-17,0,32768,32768
261.951,0,0,32768,32768
262.001,0,0,32768,32768
262.051,0,0,32768,32768
262.101,0,0,32768,32768
262.151,2.77556e-17,0,32768,32768
262.2,2.77556e-17,0,32768,32768
262.25,2.77556e-17,0,32768,32768
262.301,2.77556e-17,0,32768,32768
262.351,2.77556e-17,0,32768,32768
262.401,0,0,32768,32768
262.451,0,0,32768,32768
262.501,0,0,32768,32768
262.55,0,0,32768,32768
262.6,0,0,32768,32768
262.651,0,0,32768,32768
262.701,0,0,32768,32768
262.751,0,0,32768,32768
262.801,0,0,32768,32768
262.851,0,0,32768,32768
262.9,0,0,32768,32768
262.95,0,0,32768,32768
263,0,0,32768,32768
263.051,0,0,32768,32768
263.101,0,0,32768,32768
263.151,0,0,32768,32768
263.201,0,0,32768,32768
263.25,5.55112e-17,0,32768,32768
263.3,5.55112e-17,0,32768,32768
263.35,2.77556e-17,0,32768,32768
263.401,0,0,32768,32768
263.451,0,0,32768,32768
263.501,0,0,32768,32768
263.551,0,0,32768,32768
263.601,0,0,32768,32768
263.65,0,0,32768,32768
263.7,0,0,32768,32768
263.751,0,0,32768,32768
263.801,0,0,32768,32768
263.851,0,0,32768,32768
263.901,0,0,32768,32768
263.951,0,0,32768,32768
264,0,0,32768,32768
264.05,0,0,32768,32768
264.101,0,0,32768,32768
264.151,0,0,32768,32768
264.201,0,0,32768,32768
264.251,0,0,32768,32768
264.301,0,0,32768,32768
264.35,0,0,32768,32768
264.4,0,0,32768,32768
264.45,0,0,32768,32768
264.501,0,0,32768,32768
264.551,0,0,32768,32768
264.601,0,0,32768,32768
264.651,0,0,32768,32768
264.7,0,0,32768,32768
264.75,0,0,32768,32768
264.8,0,0,32768,32768
264.851,0,0,32768,32768
264.901,0,0,32768,32768
264.951,0,0,32768,32768
265.001,0,0,32768,32768
265.051,0,0,32768,32768
265.1,0,0,32768,32768
265.15,0,0,32768,32768
265.201,0,0,32768,32768
265.251,0,0,32768,32768
265.301,0,0,32768,32768
265.351,0,0,32768,32768
265.401,0,0,32768,32768
265.45,0,0,32768,32768
265.5,0,0,32768,32768
265.551,0,0,32768,32768
265.601,0,0,32768,32768
265.651,0,0,32768,32768
265.701,0,0,32768,32768
265.751,0,0,32768,32768
265.8,0,0,32768,32768
265.85,0,0,32768,32768
265.9,0,0,32768,32768
265.951,0,0,32768,32768
266.001,0,0,32768,32768
266.051,2.77556e-17,0,32768,32768
266.101,2.77556e-17,0,32768,32768
266.15,2.77556e-17,0,32768,32768
266.2,2.77556e-17,0,32768,32768
266.25,0,0,32768,32768
266.301,0,0,32768,32768
266.351,0,0,32768,32768
266.401,0,0,32768,32768
266.451,0,0,32768,32768
266.501,0,0,32768,32768
266.55,0,0,32768,32768
266.6,0,0,32768,32768
266.651,0,0,32768,32768
266.701,0,0,32768,32768
266.751,0,0,32768,32768
266.801,0,0,32768,32768
266.851,0,0,32768,32768
266.9,2.77556e-17,0,32768,32768
266.95,8.32667e-17,0,32768,32768
267.001,8.32667e-17,0,32768,32768
267.051,5.55112e-17,0,32768,32768
267.101,8.32667e-17,0,32768,32768
267.151,8.32667e-17,0,32768,32768
267.201,8.32667e-17,0,32768,32768
267.25,5.55112e-17,0,32768,32768
267.3,2.77556e-17,0,32768,32768
267.351,2.77556e-17,0,32768,32768
267.401,2.77556e-17,0,32768,32768
267.451,2.77556e-17,0,32768,32768
267.501,2.77556e-17,0,32768,32768
267.551,2.77556e-17,0,32768,32768
267.6,2.77556e-17,0,32768,32768
267.65,2.77556e-17,0,32768,32768
267.7,2.77556e-17,0,32768,32768
267.751,2.77556e-17,0,32768,32768
267.801,2.77556e-17,0,32768,32768
267.851,2.77556e-17,0,32768,32768
267.901,2.77556e-17,0,32768,32768
267.95,2.77556e-17,0,32768,32768
268,2.77556e-17,0,32768,32768
268.05,2.77556e-17,0,32768,32768
268.101,2.77556e-17,0,32768,32768
268.151,2.77556e-17,0,32768,32768
268.201,2.77556e-17,0,32768,32768
268.251,2.77556e-17,0,32768,32768
268.301,2.77556e-17,0,32768,32768
268.35,2.77556e-17,0,32768,32768
268.4,2.77556e-17,0,32768,32768
268.451,2.77556e-17,0,32768,32768
268.501,2.77556e-17,0,32768,32768
268.551,2.77556e-17,0,32768,32768
268.601,2.77556e-17,0,32768,32768
268.651,2.77556e-17,0,32768,32768
268.7,5.55112e-17,0,32768,32768
268.75,5.55112e-17,0,32768,32768
268.801,8.32667e-17,0,32768,32768
268.851,5.55112e-17,0,32768,32768
268.901,8.32667e-17,0,32768,32768
268.951,8.32667e-17,0,32768,32768
269.001,8.32667e-17,0,32768,32768
269.05,5.55112e-17,0,32768,32768
269.1,5.55112e-17,0,32768,32768
269.15,5.55112e-17,0,32768,32768
269.201,5.55112e-17,0,32768,32768
269.251,5.55112e-17,0,32768,32768
269.301,5.55112e-17,0,32768,32768
269.351,5.55112e-17,0,32768,32768
269.4,5.55112e-17,0,32768,32768
269.45,5.55112e-17,0,32768,32768
269.5,5.55112e-17,0,32768,32768
269.551,8.32667e-17,0,32768,32768
269.601,8.32667e-17,0,32768,32768
269.651,8.32667e-17,0,32768,32768
269.701,8.32667e-17,0,32768,32768
269.751,5.55112e-17,0,32768,32768
269.8,8.32667e-17,0,32768,32768
269.85,5.55112e-17,0,32768,32768
269.901,5.55112e-17,0,32768,32768
269.951,5.55112e-17,0,32768,32768
270.001,5.55112e-17,0,32768,32768
270.051,5.55112e-17,0,32768,32768
270.101,-2.77556e-17,0,32768,32768
270.15,-2.77556e-17,0,32768,32768
270.2,2.77556e-17,0,32768,32768
270.251,0,0,32768,32768
270.301,2.77556e-17,0,32768,32768
270.351,5.55112e-17,0,32768,32768
270.401,2.77556e-17,0,32768,32768
270.451,5.55112e-17,0,32768,32768
270.5,2.77556e-17,0,32768,32768
270.55,2.77556e-17,0,32768,32768
270.6,2.77556e-17,0,32768,32768
270.651,2.77556e-17,0,32768,32768
270.701,0,0,32768,32768
270.751,0,0,32768,32768
270.801,2.77556e-17,0,32768,32768
270.85,5.55112e-17,0,32768,32768
270.9,2.77556e-17,0,32768,32768
270.95,2.77556e-17,0,32768,32768
271.001,0,0,32768,32768
271.051,2.77556e-17,0,32768,32768
271.101,0,0,32768,32768
271.151,0,0,32768,32768
271.201,0,0,32768,32768
271.25,0,0,32768,32768
271.3,0,0,32768,32768
271.351,0,0,32768,32768
271.401,0,0,32768,32768
271.451,0,0,32768,32768
271.501,0,0,32768,32768
271.551,0,0,32768,32768
271.6,0,0,32768,32768
271.65,0,0,32768,32768
271.701,0,0,32768,32768
271.751,0,0,32768,32768
271.801,-2.77556e-17,0,32768,32768
271.851,-5.55112e-17,0,32768,32768
271.901,-5.55112e-17,0,32768,32768
271.95,-5.55112e-17,0,32768,32768
272,-2.77556e-17,0,32768,32768
272.051,-5.55112e-17,0,32768,32768
272.101,-5.55112e-17,0,32768,32768
272.151,-2.77556e-17,0,32768,32768
272.201,-2.77556e-17,0,32768,32768
272.251,0,0,32768,32768
272.3,0,0,32768,32768
272.35,-2.77556e-17,0,32768,32768
272.4,-5.55112e-17,0,32768,32768
272.451,-5.55112e-17,0,32768,32768
272.501,-2.77556e-17,0,32768,32768
272.551,0,0,32768,32768
272.601,0,0,32768,32768
272.65,0,0,32768,32768
272.7,2.77556e-17,0,32768,32768
272.75,2.77556e-17,0,32768,32768
272.801,2.77556e-17,0,32768,32768
272.851,0,0,32768,32768
272.901,0,0,32768,32768
272.951,2.77556e-17,0,32768,32768
273.001,2.77556e-17,0,32768,32768
273.05,2.77556e-17,0,32768,32768
273.1,2.77556e-17,0,32768,32768
273.151,2.77556e-17,0,32768,32768
273.201,2.77556e-17,0,32768,32768
273.251,2.77556e-17,0,32768,32768
273.301,2.77556e-17,0,32768,32768
273.351,2.77556e-17,0,32768,32768
273.4,2.77556e-17,0,32768,32768
273.45,2.77556e-17,0,32768,32768
273.501,2.77556e-17,0,32768,32768
273.551,2.77556e-17,0,32768,32768
273.601,2.77556e-17,0,32768,32768
273.651,2.77556e-17,0,32768,32768
273.701,2.77556e-17,0,32768,32768
273.75,2.77556e-17,0,32768,32768
273.8,2.77556e-17,0,32768,32768
273.851,2.77556e-17,0,32768,32768
273.901,3.05311e-16,0,32768,32768
273.951,1.4988e-15,0,32768,32768
274.001,1.27676e-15,0,32768,32768
274.051,-1.02113e-13,0,32768,32768
274.1,-1.23618e-12,0,32768,32768
274.15,-7.86116e-12,0,32768,32768
274.2,-3.24074e-11,0,32768,32768
274.251,-9.55479e-11,0,32768,32768
274.301,-1.96475e-10,0,32768,32768
274.351,-2.96579e-10,0,32768,32768
274.401,-3.24662e-10,0,32768,32768
274.45,-2.36048e-10,0,32768,32768
274.5,-6.1775e-11,0,32768,32768
274.55,1.05983e-10,0,32768,32768
274.601,1.811e-10,0,32768,32768
274.651,1.41574e-10,0,32768,32768
274.701,5.26532e-11,0,32768,32768
274.751,2.48035e-12,0,32768,32768
274.801,3.50698e-11,0,32768,32768
274.85,1.17964e-10,0,32768,32768
274.9,1.7646e-10,0,32768,32768
274.951,1.61337e-10,0,32768,32768
275.001,9.46306e-11,0,32768,32768
275.051,4.19632e-11,0,32768,32768
275.101,5.0642e-11,0,32768,32768
275.151,1.11036e-10,0,32768,32768
275.2,1.70548e-10,0,32768,32768
275.25,1.81482e-10,0,32768,32768
275.301,1.36372e-10,0,32768,32768
275.351,7.52392e-11,0,32768,32768
275.401,4.60415e-11,0,32768,32768
275.451,7.50915e-11,0,32768,32768
275.501,1.4702e-10,0,32768,32768
275.55,2.08497e-10,0,32768,32768
275.6,2.00175e-10,0,32768,32768
275.65,1.08777e-10,0,32768,32768
275.701,-3.39173e-13,0,32768,32768
275.751,-4.52027e-12,0,32768,32768
275.801,1.40105e-10,0,32768,32768
275.851,3.20805e-10,0,32768,32768
275.9,3.22446e-10,0,32768,32768
275.95,6.63298e-11,0,32768,32768
276,-1.39834e-10,0,32768,32768
276.051,4.3225e-10,0,32768,32768
276.101,2.49731e-09,0,32768,32768
276.151,6.34493e-09,0,32768,32768
276.201,1.16e-08,0,32768,32768
276.251,1.74022e-08,0,32768,32768
276.3,2.28358e-08,0,32768,32768
276.35,2.73437e-08,0,32768,32768
276.401,3.10588e-08,0,32768,32768
276.451,3.4426e-08,0,32768,32768
276.501,3.85797e-08,0,32768,32768
276.551,4.45087e-08,0,32768,32768
276.601,5.2816e-08,0,32768,32768
276.65,6.3653e-08,0,32768,32768
276.7,7.70072e-08,0,32768,32768
276.751,9.36404e-08,0,32768,32768
276.801,1.13339e-07,0,32768,32768
276.851,1.37607e-07,0,32768,32768
276.901,1.67494e-07,0,32768,32768
276.951,2.03621e-07,0,32768,32768
277,2.45871e-07,0,32768,32768
277.05,2.93331e-07,0,32768,32768
277.1,3.44621e-07,0,32768,32768
277.151,4.00164e-07,0,32768,32768
277.201,4.56319e-07,0,32768,32768
277.251,5.14845e-07,0,32768,32768
277.301,5.75808e-07,0,32768,32768
277.35,6.38227e-07,0,32768,32768
277.4,6.99763e-07,0,32768,32768
277.45,7.57242e-07,0,32768,32768
277.501,8.08953e-07,0,32768,32768
277.551,8.49786e-07,0,32768,32768
277.601,8.80585e-07,0,32768,32768
277.651,9.01905e-07,0,32768,32768
277.701,9.15219e-07,0,32768,32768
277.75,9.22295e-07,0,32768,32768
277.8,9.2458e-07,0,32768,32768
277.851,9.22726e-07,0,32768,32768
277.901,9.16853e-07,0,32768,32768
277.951,9.06403e-07,0,32768,32768
278.001,8.90477e-07,0,32768,32768
278.051,8.68087e-07,0,32768,32768
278.1,8.38418e-07,0,32768,32768
278.15,8.01132e-07,0,32768,32768
278.201,7.55275e-07,0,32768,32768
278.251,7.04904e-07,0,32768,32768
278.301,6.50992e-07,0,32768,32768
278.351,5.95999e-07,0,32768,32768
278.401,5.42093e-07,0,32768,32768
278.45,4.90793e-07,0,32768,32768
278.5,4.42878e-07,0,32768,32768
278.551,3.97251e-07,0,32768,32768
278.601,3.56235e-07,0,32768,32768
278.651,3.17991e-07,0,32768,32768
278.701,2.82074e-07,0,32768,32768
278.751,2.48312e-07,0,32768,32768
278.8,2.16995e-07,0,32768,32768
278.85,1.88848e-07,0,32768,32768
278.9,1.64665e-07,0,32768,32768
278.951,1.44181e-07,0,32768,32768
279.001,1.27864e-07,0,32768,32768
279.051,1.13654e-07,0,32768,32768
279.101,1.00196e-07,0,32768,32768
279.15,8.69491e-08,0,32768,32768
279.2,7.4337e-08,0,32768,32768
279.25,6.32605e-08,0,32768,32768
279.301,5.41801e-08,0,32768,32768
279.351,4.76538e-08,0,32768,32768
279.401,4.27759e-08,0,32768,32768
279.451,3.85915e-08,0,32768,32768
279.501,3.42352e-08,0,32768,32768
279.55,2.93453e-08,0,32768,32768
279.6,2.42537e-08,0,32768,32768
279.651,1.96751e-08,0,32768,32768
279.701,1.67095e-08,0,32768,32768
279.751,1.55553e-08,0,32768,32768
279.801,1.59857e-08,0,32768,32768
279.851,1.74609e-08,0,32768,32768
279.9,1.94757e-08,0,32768,32768
279.95,2.17501e-08,0,32768,32768
280.001,2.42869e-08,0,32768,32768
280.051,2.69601e-08,0,32768,32768
280.101,2.98471e-08,0,32768,32768
280.151,3.29096e-08,0,32768,32768
280.201,3.60922e-08,0,32768,32768
280.25,3.93783e-08,0,32768,32768
280.3,4.28101e-08,0,32768,32768
280.35,4.64417e-08,0,32768,32768
280.401,5.04008e-08,0,32768,32768
280.451,5.44258e-08,0,32768,32768
280.501,5.85765e-08,0,32768,32768
280.551,6.28072e-08,0,32768,32768
280.6,6.7088e-08,0,32768,32768
280.65,7.14286e-08,0,32768,32768
280.7,7.59136e-08,0,32768,32768
280.751,8.0865e-08,0,32768,32768
280.801,8.62312e-08,0,32768,32768
280.851,9.23329e-08,0,32768,32768
280.901,9.92124e-08,0,32768,32768
280.951,1.06717e-07,0,32768,32768
281,1.14535e-07,0,32768,32768
281.05,1.22319e-07,0,32768,32768
281.101,1.30047e-07,0,32768,32768
281.151,1.37275e-07,0,32768,32768
281.201,1.44488e-07,0,32768,32768
281.251,1.52143e-07,0,32768,32768
281.301,1.60778e-07,0,32768,32768
281.35,1.7091e-07,0,32768,32768
281.4,1.82982e-07,0,32768,32768
281.451,1.97868e-07,0,32768,32768
281.501,2.1516e-07,0,32768,32768
281.551,2.3575e-07,0,32768,32768
281.601,2.6017e-07,0,32768,32768
281.651,2.88874e-07,0,32768,32768
281.7,3.22093e-07,0,32768,32768
281.75,3.59738e-07,0,32768,32768
281.8,4.01398e-07,0,32768,32768
281.851,4.4781e-07,0,32768,32768
281.901,4.95602e-07,0,32768,32768
281.951,5.45374e-07,0,32768,32768
282.001,5.96432e-07,0,32768,32768
282.05,6.47918e-07,0,32768,32768
282.1,6.98638e-07,0,32768,32768
282.15,7.47011e-07,0,32768,32768
282.201,7.92412e-07,0,32768,32768
282.251,8.30394e-07,0,32768,32768
282.301,8.60903e-07,0,32768,32768
282.351,8.83151e-07,0,32768,32768
282.401,8.97067e-07,0,32768,32768
282.45,9.03181e-07,0,32768,32768
282.5,9.02367e-07,0,32768,32768
282.551,8.95264e-07,0,32768,32768
282.601,8.83008e-07,0,32768,32768
282.651,8.65836e-07,0,32768,32768
282.701,8.43741e-07,0,32768,32768
282.751,8.16453e-07,0,32768,32768
282.8,7.83615e-07,0,32768,32768
282.85,7.4499e-07,0,32768,32768
282.901,6.99273e-07,0,32768,32768
282.951,6.49637e-07,0,32768,32768
283.001,5.959e-07,0,32768,32768
283.051,5.39503e-07,0,32768,32768
283.101,4.82088e-07,0,32768,32768
283.15,4.25256e-07,0,32768,32768
283.2,3.70347e-07,0,32768,32768
283.251,3.16828e-07,0,32768,32768
283.301,2.68289e-07,0,32768,32768
283.351,2.23319e-07,0,32768,32768
283.401,1.81866e-07,0,32768,32768
283.451,1.43816e-07,0,32768,32768
283.5,1.0912e-07,0,32768,32768
283.55,7.78467e-08,0,32768,32768
283.6,5.01345e-08,0,32768,32768
283.651,2.54222e-08,0,32768,32768
283.701,5.02301e-09,0,32768,32768
283.751,-1.21696e-08,0,32768,32768
283.801,-2.66848e-08,0,32768,32768
283.85,-3.90698e-08,0,32768,32768
283.9,-4.97158e-08,0,32768,32768
283.95,-5.87755e-08,0,32768,32768
284.001,-6.64093e-08,0,32768,32768
284.051,-7.21095e-08,0,32768,32768
284.101,-7.61667e-08,0,32768,32768
284.151,-7.88134e-08,0,32768,32768
284.201,-8.04173e-08,0,32768,32768
284.25,-8.13519e-08,0,32768,32768
284.3,-8.18579e-08,0,32768,32768
284.351,-8.19699e-08,0,32768,32768
284.401,-8.15434e-08,0,32768,32768
284.451,-8.03949e-08,0,32768,32768
284.501,-7.84022e-08,0,32768,32768
284.551,-7.55895e-08,0,32768,32768
284.6,-7.21238e-08,0,32768,32768
284.65,-6.82521e-08,0,32768,32768
284.701,-6.41061e-08,0,32768,32768
284.751,-6.01273e-08,0,32768,32768
284.801,-5.63328e-08,0,32768,32768
284.851,-5.28034e-08,0,32768,32768
284.901,-4.95829e-08,0,32768,32768
284.95,-4.66894e-08,0,32768,32768
285,-4.41196e-08,0,32768,32768
285.05,-4.18537e-08,0,32768,32768
285.101,-3.98081e-08,0,32768,32768
285.151,-3.80715e-08,0,32768,32768
285.201,-3.6562e-08,0,32768,32768
285.251,-3.5268e-08,0,32768,32768
285.3,-3.41821e-08,0,32768,32768
285.35,-3.32959e-08,0,32768,32768
285.4,-3.25976e-08,0,32768,32768
285.451,-3.20585e-08,0,32768,32768
285.501,-3.16906e-08,0,32768,32768
285.551,-3.14567e-08,0,32768,32768
285.601,-3.13371e-08,0,32768,32768
285.651,-3.13133e-08,0,32768,32768
285.7,-3.13675e-08,0,32768,32768
285.75,-3.14836e-08,0,32768,32768
285.801,-3.16525e-08,0,32768,32768
285.851,-3.18524e-08,0,32768,32768
285.901,-3.20775e-08,0,32768,32768
285.951,-3.23201e-08,0,32768,32768
286.001,-3.25737e-08,0,32768,32768
286.05,-3.28327e-08,0,32768,32768
286.1,-3.30919e-08,0,32768,32768
286.151,-3.33543e-08,0,32768,32768
286.201,-3.36007e-08,0,32768,32768
286.251,-3.3836e-08,0,32768,32768
286.301,-3.40583e-08,0,32768,32768
286.351,-3.42664e-08,0,32768,32768
286.4,-3.44599e-08,0,32768,32768
286.45,-3.4638e-08,0,32768,32768
286.501,-3.48041e-08,0,32768,32768
286.551,-3.49472e-08,0,32768,32768
286.601,-3.50708e-08,0,32768,32768
286.651,-3.51737e-08,0,32768,32768
286.701,-3.52551e-08,0,32768,32768
286.75,-3.53148e-08,0,32768,32768
286.8,-3.53536e-08,0,32768,32768
286.85,-3.53724e-08,0,32768,32768
286.901,-3.53725e-08,0,32768,32768
286.951,-3.53557e-08,0,32768,32768
287.001,-3.53245e-08,0,32768,32768
287.051,-3.52809e-08,0,32768,32768
287.1,-3.52272e-08,0,32768,32768
287.15,-3.51657e-08,0,32768,32768
287.2,-3.50982e-08,0,32768,32768
287.251,-3.50244e-08,0,32768,32768
287.301,-3.49502e-08,0,32768,32768
287.351,-3.4875e-08,0,32768,32768
287.401,-3.47999e-08,0,32768,32768
287.451,-3.4726e-08,0,32768,32768
287.5,-3.46545e-08,0,32768,32768
287.55,-3.45861e-08,0,32768,32768
287.601,-3.45199e-08,0,32768,32768
287.651,-3.44603e-08,0,32768,32768
287.701,-3.4406e-08,0,32768,32768
287.751,-3.43574e-08,0,32768,32768
287.801,-3.4315e-08,0,32768,32768
287.85,-3.42788e-08,0,32768,32768
287.9,-3.42493e-08,0,32768,32768
287.951,-3.42259e-08,0,32768,32768
288.001,-3.42101e-08,0,32768,32768
288.051,-3.42012e-08,0,32768,32768
288.101,-3.41994e-08,0,32768,32768
288.151,-3.42047e-08,0,32768,32768
288.2,-3.42173e-08,0,32768,32768
288.25,-3.42372e-08,0,32768,32768
288.3,-3.42644e-08,0,32768,32768
288.351,-3.43e-08,0,32768,32768
288.401,-3.43418e-08,0,32768,32768
288.451,-3.43904e-08,0,32768,32768
288.501,-3.44458e-08,0,32768,32768
288.55,-3.45079e-08,0,32768,32768
288.6,-3.45767e-08,0,32768,32768
288.65,-3.46527e-08,0,32768,32768
288.701,-3.47388e-08,0,32768,32768
288.751,-3.4831e-08,0,32768,32768
288.801,-3.49328e-08,0,32768,32768
288.851,-3.50454e-08,0,32768,32768
288.901,-3.51703e-08,0,32768,32768
288.95,-3.53094e-08,0,32768,32768
289,-3.54644e-08,0,32768,32768
289.051,-3.56426e-08,0,32768,32768
289.101,-3.58356e-08,0,32768,32768
289.151,-3.60499e-08,0,32768,32768
289.201,-3.62866e-08,0,32768,32768
289.251,-3.65469e-08,0,32768,32768
289.3,-3.6831e-08,0,32768,32768
289.35,-3.71389e-08,0,32768,32768
289.401,-3.748e-08,0,32768,32768
289.451,-3.78333e-08,0,32768,32768
289.501,-3.8206e-08,0,32768,32768
289.551,-3.85951e-08,0,32768,32768
289.601,-3.89969e-08,0,32768,32768
289.65,-3.94073e-08,0,32768,32768
289.7,-3.98216e-08,0,32768,32768
289.751,-4.02473e-08,0,32768,32768
289.801,-4.06552e-08,0,32768,32768
289.851,-4.10532e-08,0,32768,32768
289.901,-4.14371e-08,0,32768,32768
289.951,-4.1803e-08,0,32768,32768
290,-4.21471e-08,0,32768,32768
290.05,-4.2466e-08,0,32768,32768
290.1,-4.27561e-08,0,32768,32768
290.151,-4.30211e-08,0,32768,32768
290.201,-4.32426e-08,0,32768,32768
290.251,-4.3426e-08,0,32768,32768
290.301,-4.3569e-08,0,32768,32768
290.35,-4.36697e-08,0,32768,32768
290.4,-4.37272e-08,0,32768,32768
290.45,-4.3741e-08,0,32768,32768
290.501,-4.37095e-08,0,32768,32768
290.551,-4.36351e-08,0,32768,32768
290.601,-4.35182e-08,0,32768,32768
290.651,-4.33595e-08,0,32768,32768
290.701,-4.31597e-08,0,32768,32768
290.75,-4.29192e-08,0,32768,32768
290.8,-4.26383e-08,0,32768,32768
290.851,-4.23068e-08,0,32768,32768
290.901,-4.19433e-08,0,32768,32768
290.951,-4.15385e-08,0,32768,32768
291.001,-4.10919e-08,0,32768,32768
291.051,-4.0603e-08,0,32768,32768
291.1,-4.00715e-08,0,32768,32768
291.15,-3.94975e-08,0,32768,32768
291.201,-3.88623e-08,0,32768,32768
291.251,-3.8203e-08,0,32768,32768
291.301,-3.75036e-08,0,32768,32768
291.351,-3.67661e-08,0,32768,32768
291.401,-3.59936e-08,0,32768,32768
291.45,-3.519e-08,0,32768,32768
291.5,-3.43601e-08,0,32768,32768
291.55,-3.35093e-08,0,32768,32768
291.601,-3.2618e-08,0,32768,32768
291.651,-3.17433e-08,0,32768,32768
291.701,-3.08658e-08,0,32768,32768
291.751,-2.99913e-08,0,32768,32768
291.8,-2.91252e-08,0,32768,32768
291.85,-2.82724e-08,0,32768,32768
291.9,-2.74376e-08,0,32768,32768
291.951,-2.66018e-08,0,32768,32768
292.001,-2.58169e-08,0,32768,32768
292.051,-2.5063e-08,0,32768,32768
292.101,-2.43439e-08,0,32768,32768
292.151,-2.36631e-08,0,32768,32768
292.2,-2.30238e-08,0,32768,32768
292.25,-2.24284e-08,0,32768,32768
292.301,-2.18628e-08,0,32768,32768
292.351,-2.13602e-08,0,32768,32768
292.401,-2.09034e-08,0,32768,32768
292.451,-2.04913e-08,0,32768,32768
292.501,-2.01221e-08,0,32768,32768
292.55,-1.97933e-08,0,32768,32768
292.6,-1.95024e-08,0,32768,32768
292.651,-1.92394e-08,0,32768,32768
292.701,-1.90164e-08,0,32768,32768
292.751,-1.88223e-08,0,32768,32768
292.801,-1.86541e-08,0,32768,32768
292.851,-1.8509e-08,0,32768,32768
292.9,-1.83839e-08,0,32768,32768
292.95,-1.8276e-08,0,32768,32768
293,-1.81829e-08,0,32768,32768
293.051,-1.80998e-08,0,32768,32768
293.101,-1.80294e-08,0,32768,32768
293.151,-1.7967e-08,0,32768,32768
293.201,-1.79109e-08,0,32768,32768
293.25,-1.78597e-08,0,32768,32768
293.3,-1.7812e-08,0,32768,32768
293.35,-1.77668e-08,0,32768,32768
293.401,-1.77219e-08,0,32768,32768
293.451,-1.76792e-08,0,32768,32768
293.501,-1.76365e-08,0,32768,32768
293.551,-1.75931e-08,0,32768,32768
293.601,-1.75478e-08,0,32768,32768
293.65,-1.74997e-08,0,32768,32768
293.7,-1.74473e-08,0,32768,32768
293.751,-1.73878e-08,0,32768,32768
293.801,-1.73234e-08,0,32768,32768
293.851,-1.72514e-08,0,32768,32768
293.901,-1.71712e-08,0,32768,32768
293.951,-1.70822e-08,0,32768,32768
294,-1.69842e-08,0,32768,32768
294.05,-1.68771e-08,0,32768,32768
294.101,-1.67574e-08,0,32768,32768
294.151,-1.66326e-08,0,32768,32768
294.201,-1.65001e-08,0,32768,32768
294.251,-1.63606e-08,0,32768,32768
294.301,-1.62152e-08,0,32768,32768
294.35,-1.60647e-08,0,32768,32768
294.4,-1.59101e-08,0,32768,32768
294.451,-1.57474e-08,0,32768,32768
294.501,-1.5587e-08,0,32768,32768
294.551,-1.5425e-08,0,32768,32768
294.601,-1.52623e-08,0,32768,32768
294.651,-1.50994e-08,0,32768,32768
294.7,-1.49364e-08,0,32768,32768
294.75,-1.47725e-08,0,32768,32768
294.8,-1.46066e-08,0,32768,32768
294.851,-1.44322e-08,0,32768,32768
294.901,-1.42573e-08,0,32768,32768
294.951,-1.40756e-08,0,32768,32768
295.001,-1.3886e-08,0,32768,32768
295.05,-1.36881e-08,0,32768,32768
295.1,-1.3482e-08,0,32768,32768
295.15,-1.3268e-08,0,32768,32768
295.201,-1.30398e-08,0,32768,32768
295.251,-1.28106e-08,0,32768,32768
295.301,-1.25733e-08,0,32768,32768
295.351,-1.23267e-08,0,32768,32768
295.401,-1.20688e-08,0,32768,32768
295.45,-1.17971e-08,0,32768,32768
295.5,-1.15087e-08,0,32768,32768
295.551,-1.11915e-08,0,32768,32768
295.601,-1.08608e-08,0,32768,32768
295.651,-1.05057e-08,0,32768,32768
295.701,-1.01244e-08,0,32768,32768
295.751,-9.71539e-09,0,32768,32768
295.8,-9.2777e-09,0,32768,32768
295.85,-8.81048e-09,0,32768,32768
295.901,-8.29806e-09,0,32768,32768
295.951,-7.76942e-09,0,32768,32768
296.001,-7.21052e-09,0,32768,32768
296.051,-6.62211e-09,0,32768,32768
296.101,-6.00576e-09,0,32768,32768
296.15,-5.36391e-09,0,32768,32768
296.2,-4.69987e-09,0,32768,32768
296.25,-4.0177e-09,0,32768,32768
296.301,-3.30138e-09,0,32768,32768
296.351,-2.59688e-09,0,32768,32768
296.401,-1.88894e-09,0,32768,32768
296.451,-1.18259e-09,0,32768,32768
296.5,-4.82763e-10,0,32768,32768
296.55,2.05708e-10,0,32768,32768
296.6,8.78181e-10,0,32768,32768
296.651,1.54908e-09,0,32768,32768
296.701,2.17585e-09,0,32768,32768
296.751,2.77422e-09,0,32768,32768
296.801,3.34075e-09,0,32768,32768
296.851,3.8723e-09,0,32768,32768
296.9,4.36607e-09,0,32768,32768
296.95,4.81957e-09,0,32768,32768
297.001,5.24221e-09,0,32768,32768
297.051,5.60834e-09,0,32768,32768
297.101,5.92995e-09,0,32768,32768
297.151,6.20708e-09,0,32768,32768
297.201,6.4406e-09,0,32768,32768
297.25,6.63211e-09,0,32768,32768
297.3,6.78379e-09,0,32768,32768
297.351,6.90113e-09,0,32768,32768
297.401,6.9804e-09,0,32768,32768
297.451,7.02858e-09,0,32768,32768
297.501,7.04879e-09,0,32768,32768
297.551,7.04417e-09,0,32768,32768
297.6,7.01778e-09,0,32768,32768
297.65,6.97258e-09,0,32768,32768
297.701,6.90941e-09,0,32768,32768
297.751,6.8346e-09,0,32768,32768
297.801,6.74906e-09,0,32768,32768
297.851,6.65505e-09,0,32768,32768
297.901,6.55464e-09,0,32768,32768
297.95,6.44966e-09,0,32768,32768
298,6.34172e-09,0,32768,32768
298.05,6.2322e-09,0,32768,32768
298.101,6.11907e-09,0,32768,32768
298.151,6.00982e-09,0,32768,32768
298.201,5.9021e-09,0,32768,32768
298.251,5.79674e-09,0,32768,32768
298.3,5.69451e-09,0,32768,32768
298.35,5.59622e-09,0,32768,32768
298.4,5.50268e-09,0,32768,32768
298.451,5.41217e-09,0,32768,32768
298.501,5.33061e-09,0,32768,32768
298.551,5.25595e-09,0,32768,32768
298.601,5.18862e-09,0,32768,32768
298.651,5.12889e-09,0,32768,32768
298.7,5.07677e-09,0,32768,32768
298.75,5.03207e-09,0,32768,32768
298.801,4.99334e-09,0,32768,32768
298.851,4.96209e-09,0,32768,32768
298.901,4.93627e-09,0,32768,32768
298.951,4.91483e-09,0,32768,32768
299.001,4.89663e-09,0,32768,32768
299.05,4.88046e-09,0,32768,32768
299.1,4.86511e-09,0,32768,32768
299.151,4.8489e-09,0,32768,32768
299.201,4.8316e-09,0,32768,32768
299.251,4.81171e-09,0,32768,32768
299.301,4.78832e-09,0,32768,32768
299.351,4.76072e-09,0,32768,32768
299.4,4.72845e-09,0,32768,32768
299.45,4.69142e-09,0,32768,32768
299.5,4.64995e-09,0,32768,32768
299.551,4.60332e-09,0,32768,32768
299.601,4.55516e-09,0,32768,32768
299.651,4.50527e-09,0,32768,32768
299.701,4.45467e-09,0,32768,32768
299.75,4.40421e-09,0,32768,32768
299.8,4.35444e-09,0,32768,32768
299.85,4.30562e-09,0,32768,32768
299.901,4.25638e-09,0,32768,32768
299.951,4.20947e-09,0,32768,32768
300.001,4.16344e-09,0,32768,32768
300.051,4.11842e-09,0,32768,32768
300.101,4.07477e-09,0,32768,32768
300.15,4.03307e-09,0,32768,32768
300.2,3.99402e-09,0,32768,32768
300.251,3.95736e-09,0,32768,32768
300.301,3.9258e-09,0,32768,32768
300.351,3.89859e-09,0,32768,32768
300.401,3.87576e-09,0,32768,32768
300.451,3.85704e-09,0,32768,32768
300.5,3.84188e-09,0,32768,32768
300.55,3.82959e-09,0,32768,32768
300.601,3.81913e-09,0,32768,32768
300.651,3.81037e-09,0,32768,32768
300.701,3.80236e-09,0,32768,32768
300.751,3.79462e-09,0,32768,32768
300.801,3.78675e-09,0,32768,32768
300.85,3.77844e-09,0,32768,32768
300.9,3.76941e-09,0,32768,32768
300.95,3.75944e-09,0,32768,32768
301.001,3.748e-09,0,32768,32768
301.051,3.7356e-09,0,32768,32768
301.101,3.72191e-09,0,32768,32768
301.151,3.70695e-09,0,32768,32768
301.2,3.6908e-09,0,32768,32768
301.25,3.67354e-09,0,32768,32768
301.3,3.65526e-09,0,32768,32768
301.351,3.63542e-09,0,32768,32768
301.401,3.61522e-09,0,32768,32768
301.451,3.59413e-09,0,32768,32768
301.501,3.57224e-09,0,32768,32768
301.551,3.54962e-09,0,32768,32768
301.6,3.52639e-09,0,32768,32768
301.65,3.50264e-09,0,32768,32768
301.701,3.4777e-09,0,32768,32768
301.751,3.453e-09,0,32768,32768
301.801,3.42778e-09,0,32768,32768
301.851,3.40196e-09,0,32768,32768
301.901,3.37546e-09,0,32768,32768
301.95,3.34825e-09,0,32768,32768
302,3.32029e-09,0,32768,32768
302.051,3.2908e-09,0,32768,32768
302.101,3.26151e-09,0,32768,32768
302.151,3.23172e-09,0,32768,32768
302.201,3.20152e-09,0,32768,32768
302.251,3.17101e-09,0,32768,32768
302.3,3.14029e-09,0,32768,32768
302.35,3.10941e-09,0,32768,32768
302.401,3.07752e-09,0,32768,32768
302.451,3.04647e-09,0,32768,32768
302.501,3.01537e-09,0,32768,32768
302.551,2.98423e-09,0,32768,32768
302.601,2.95305e-09,0,32768,32768
302.65,2.92184e-09,0,32768,32768
302.7,2.89058e-09,0,32768,32768
302.75,2.85927e-09,0,32768,32768
302.801,2.82698e-09,0,32768,32768
302.851,2.79552e-09,0,32768,32768
302.901,2.76396e-09,0,32768,32768
302.951,2.73227e-09,0,32768,32768
303,2.70042e-09,0,32768,32768
303.05,2.66837e-09,0,32768,32768
303.1,2.63609e-09,0,32768,32768
303.151,2.60256e-09,0,32768,32768
303.201,2.56967e-09,0,32768,32768
303.251,2.53642e-09,0,32768,32768
303.301,2.50278e-09,0,32768,32768
303.351,2.4687e-09,0,32768,32768
303.4,2.43415e-09,0,32768,32768
303.45,2.39911e-09,0,32768,32768
303.501,2.36249e-09,0,32768,32768
303.551,2.32636e-09,0,32768,32768
303.601,2.28968e-09,0,32768,32768
303.651,2.25244e-09,0,32768,32768
303.701,2.21463e-09,0,32768,32768
303.75,2.17626e-09,0,32768,32768
303.8,2.13734e-09,0,32768,32768
303.851,2.09673e-09,0,32768,32768
303.901,2.05677e-09,0,32768,32768
303.951,2.01634e-09,0,32768,32768
304.001,1.97546e-09,0,32768,32768
304.051,1.93419e-09,0,32768,32768
304.1,1.89257e-09,0,32768,32768
304.15,1.85064e-09,0,32768,32768
304.2,1.80846e-09,0,32768,32768
304.251,1.76483e-09,0,32768,32768
304.301,1.7223e-09,0,32768,32768
304.351,1.6797e-09,0,32768,32768
304.401,1.63709e-09,0,32768,32768
304.45,1.59453e-09,0,32768,32768
304.5,1.55208e-09,0,32768,32768
304.55,1.5098e-09,0,32768,32768
304.601,1.46653e-09,0,32768,32768
304.651,1.4248e-09,0,32768,32768
304.701,1.38341e-09,0,32768,32768
304.751,1.34244e-09,0,32768,32768
304.801,1.30191e-09,0,32768,32768
304.85,1.26189e-09,0,32768,32768
304.9,1.22241e-09,0,32768,32768
304.951,1.18239e-09,0,32768,32768
