250,0,0,512,512
250.012,0,0,512,512
250.059,0,0,512,512
250.105,0,0,512,512
250.152,0,0,512,512
250.211,0,0,512,512
250.258,0,0,512,512
250.305,0,0,512,512
250.352,0,0,512,512
250.41,0,0,512,512
250.457,0,0,512,512
250.504,0,0,512,512
250.551,0,0,512,512
250.609,0,0,512,512
250.656,0,0,512,512
250.703,0,0,512,512
250.762,0,0,512,512
250.808,0,0,512,512
250.855,0,0,512,512
250.902,0,0,512,512
250.961,0,0,512,512
251.008,0,0,512,512
251.055,0,0,512,512
251.101,0,0,512,512
251.16,0,0,512,512
251.207,0,0,512,512
251.254,0,0,512,512
251.301,0,0,512,512
251.359,0,0,512,512
251.406,0,0,512,512
251.453,0,0,512,512
251.511,0,0,512,512
251.558,0,0,512,512
251.605,0,0,512,512
251.652,0,0,512,512
251.711,0,0,512,512
251.758,0,0,512,512
251.804,0,0,512,512
251.851,0,0,512,512
251.91,0,0,512,512
251.957,0,0,512,512
252.004,0,0,512,512
252.05,0,0,512,512
252.109,0,0,512,512
252.156,0,0,512,512
252.203,0,0,512,512
252.261,0,0,512,512
252.308,0,0,512,512
252.355,0,0,512,512
252.402,0,0,512,512
252.461,0,0,512,512
252.507,0,0,512,512
252.554,0,0,512,512
252.601,0,0,512,512
252.66,0,0,512,512
252.707,0,0,512,512
252.754,0,0,512,512
252.8,0,0,512,512
252.859,0,0,512,512
252.906,0,0,512,512
252.953,0,0,512,512
253.011,0,0,512,512
253.058,0,0,512,512
253.105,0,0,512,512
253.152,0,0,512,512
253.21,0,0,512,512
253.257,0,0,512,512
253.304,0,0,512,512
253.351,0,0,512,512
253.41,0,0,512,512
253.457,0,0,512,512
253.503,0,0,512,512
253.55,0,0,512,512
253.609,0,0,512,512
253.656,0,0,512,512
253.703,0,0,512,512
253.761,0,0,512,512
253.808,0,0,512,512
253.855,0,0,512,512
253.902,0,0,512,512
253.96,0,0,512,512
254.007,0,0,512,512
254.054,0,0,512,512
254.101,0,0,512,512
254.16,0,0,512,512
254.206,0,0,512,512
254.253,0,0,512,512
254.3,0,0,512,512
254.359,0,0,512,512
254.406,0,0,512,512
254.452,0,0,512,512
254.511,0,0,512,512
254.558,0,0,512,512
254.605,0,0,512,512
254.652,0,0,512,512
254.71,0,0,512,512
254.757,0,0,512,512
254.804,0,0,512,512
254.851,0,0,512,512
254.909,0,0,512,512
254.956,0,0,512,512
255.003,0,0,512,512
255.05,0,0,512,512
255.109,0,0,512,512
255.155,0,0,512,512
255.202,0,0,512,512
255.261,0,0,512,512
255.308,0,0,512,512
255.355,0,0,512,512
255.402,0,0,512,512
255.46,0,0,512,512
255.507,0,0,512,512
255.554,0,0,512,512
255.601,0,0,512,512
255.659,0,0,512,512
255.706,0,0,512,512
255.753,0,0,512,512
255.812,0,0,512,512
255.859,0,0,512,512
255.905,0,0,512,512
255.952,0,0,512,512
256.011,0,0,512,512
256.058,0,0,512,512
256.105,0,0,512,512
256.151,0,0,512,512
256.21,0,0,512,512
256.257,0,0,512,512
256.304,0,0,512,512
256.351,0,0,512,512
256.409,0,0,512,512
256.456,0,0,512,512
256.503,0,0,512,512
256.562,0,0,512,512
256.608,0,0,512,512
256.655,0,0,512,512
256.702,0,0,512,512
256.761,0,0,512,512
256.808,0,0,512,512
256.854,0,0,512,512
256.901,0,0,512,512
256.96,0,0,512,512
257.007,0,0,512,512
257.054,0,0,512,512
257.101,0,0,512,512
257.159,0,0,512,512
257.206,0,0,512,512
257.253,0,0,512,512
257.311,0,0,512,512
257.358,0,0,512,512
257.405,0,0,512,512
257.452,0,0,512,512
257.511,0,0,512,512
257.557,0,0,512,512
257.604,0,0,512,512
257.651,0,0,512,512
257.71,0,0,512,512
257.757,0,0,512,512
257.804,0,0,512,512
257.85,2.77556e-17,0,512,512
257.909,2.77556e-17,0,512,512
257.956,2.77556e-17,0,512,512
258.003,2.77556e-17,0,512,512
258.061,2.77556e-17,0,512,512
258.108,2.77556e-17,0,512,512
258.155,2.77556e-17,0,512,512
258.202,2.77556e-17,0,512,512
258.261,2.77556e-17,0,512,512
258.307,2.77556e-17,0,512,512
258.354,2.77556e-17,0,512,512
258.401,2.77556e-17,0,512,512
258.46,2.77556e-17,0,512,512
258.507,2.77556e-17,0,512,512
258.553,2.77556e-17,0,512,512
258.6,2.77556e-17,0,512,512
258.659,2.77556e-17,0,512,512
258.706,2.77556e-17,0,512,512
258.753,2.77556e-17,0,512,512
258.811,2.77556e-17,0,512,512
258.858,2.77556e-17,0,512,512
258.905,2.77556e-17,0,512,512
258.952,0,0,512,512
259.01,0,0,512,512
259.057,0,0,512,512
259.104,0,0,512,512
259.151,2.77556e-17,0,512,512
259.21,2.77556e-17,0,512,512
259.256,2.77556e-17,0,512,512
259.303,2.77556e-17,0,512,512
259.35,2.77556e-17,0,512,512
259.409,2.77556e-17,0,512,512
259.456,2.77556e-17,0,512,512
259.503,2.77556e-17,0,512,512
259.561,2.77556e-17,0,512,512
259.608,2.77556e-17,0,512,512
259.655,2.77556e-17,0,512,512
259.702,2.77556e-17,0,512,512
259.76,2.77556e-17,0,512,512
259.807,2.77556e-17,0,512,512
259.854,2.77556e-17,0,512,512
259.901,2.77556e-17,0,512,512
259.959,2.77556e-17,0,512,512
260.006,2.77556e-17,0,512,512
260.053,2.77556e-17,0,512,512
260.1,2.77556e-17,0,512,512
260.159,2.77556e-17,0,512,512
260.206,0,0,512,512
260.252,0,0,512,512
260.311,0,0,512,512
260.358,0,0,512,512
260.405,0,0,512,512
260.452,0,0,512,512
260.51,0,0,512,512
260.557,0,0,512,512
260.604,0,0,512,512
260.651,0,0,512,512
260.709,0,0,512,512
260.756,0,0,512,512
260.803,0,0,512,512
260.862,0,0,512,512
260.909,0,0,512,512
260.955,0,0,512,512
261.002,0,0,512,512
261.061,0,0,512,512
261.108,0,0,512,512
261.155,0,0,512,512
261.201,0,0,512,512
261.26,0,0,512,512
261.307,0,0,512,512
261.354,0,0,512,512
261.401,0,0,512,512
261.459,0,0,512,512
261.506,0,0,512,512
261.553,0,0,512,512
261.612,0,0,512,512
261.658,0,0,512,512
261.705,0,0,512,512
261.752,0,0,512,512
261.811,0,0,512,512
261.858,0,0,512,512
261.905,0,0,512,512
261.951,0,0,512,512
262.01,0,0,512,512
262.057,0,0,512,512
262.104,0,0,512,512
262.151,0,0,512,512
262.209,0,0,512,512
262.256,0,0,512,512
262.303,0,0,512,512
262.361,0,0,512,512
262.408,0,0,512,512
262.455,0,0,512,512
262.502,0,0,512,512
262.561,0,0,512,512
262.608,0,0,512,512
262.654,0,0,512,512
262.701,0,0,512,512
262.76,0,0,512,512
262.807,0,0,512,512
262.854,0,0,512,512
262.9,0,0,512,512
262.959,0,0,512,512
263.006,0,0,512,512
263.053,0,0,512,512
263.111,-2.77556e-17,0,512,512
263.158,-2.77556e-17,0,512,512
263.205,-2.77556e-17,0,512,512
263.252,-2.77556e-17,0,512,512
263.311,-2.77556e-17,0,512,512
263.357,-2.77556e-17,0,512,512
263.404,-2.77556e-17,0,512,512
263.451,-2.77556e-17,0,512,512
263.51,-2.77556e-17,0,512,512
263.557,-2.77556e-17,0,512,512
263.603,-2.77556e-17,0,512,512
263.65,-2.77556e-17,0,512,512
263.709,-2.77556e-17,0,512,512
263.756,-2.77556e-17,0,512,512
263.803,-2.77556e-17,0,512,512
263.861,-2.77556e-17,0,512,512
263.908,-2.77556e-17,0,512,512
263.955,-2.77556e-17,0,512,512
264.002,-2.77556e-17,0,512,512
264.06,-2.77556e-17,0,512,512
264.107,-2.77556e-17,0,512,512
264.154,-2.77556e-17,0,512,512
264.201,-2.77556e-17,0,512,512
264.26,-2.77556e-17,0,512,512
264.306,-2.77556e-17,0,512,512
264.353,-2.77556e-17,0,512,512
264.4,-2.77556e-17,0,512,512
264.459,0,0,512,512
264.506,0,0,512,512
264.553,0,0,512,512
264.611,0,0,512,512
264.658,0,0,512,512
264.705,0,0,512,512
264.752,0,0,512,512
264.81,0,0,512,512
264.857,0,0,512,512
264.904,0,0,512,512
264.951,0,0,512,512
265.01,0,0,512,512
265.056,0,0,512,512
265.103,0,0,512,512
265.15,0,0,512,512
265.209,0,0,512,512
265.256,0,0,512,512
265.302,0,0,512,512
265.361,0,0,512,512
265.408,0,0,512,512
265.455,0,0,512,512
265.502,0,0,512,512
265.56,0,0,512,512
265.607,0,0,512,512
265.654,0,0,512,512
265.701,0,0,512,512
265.759,0,0,512,512
265.806,0,0,512,512
265.853,0,0,512,512
265.9,0,0,512,512
265.959,0,0,512,512
266.005,0,0,512,512
266.052,0,0,512,512
266.111,0,0,512,512
266.158,0,0,512,512
266.205,0,0,512,512
266.252,0,0,512,512
266.31,0,0,512,512
266.357,0,0,512,512
266.404,0,0,512,512
266.451,0,0,512,512
266.509,0,0,512,512
266.556,0,0,512,512
266.603,0,0,512,512
266.662,0,0,512,512
266.708,0,0,512,512
266.755,0,0,512,512
266.802,0,0,512,512
266.861,0,0,512,512
266.908,0,0,512,512
266.955,0,0,512,512
267.001,0,0,512,512
267.06,0,0,512,512
267.107,0,0,512,512
267.154,0,0,512,512
267.201,0,0,512,512
267.259,0,0,512,512
267.306,0,0,512,512
267.353,0,0,512,512
267.412,0,0,512,512
267.458,0,0,512,512
267.505,0,0,512,512
267.552,2.77556e-17,0,512,512
267.611,2.77556e-17,0,512,512
267.658,2.77556e-17,0,512,512
267.704,2.77556e-17,0,512,512
267.751,2.77556e-17,0,512,512
267.81,2.77556e-17,0,512,512
267.857,2.77556e-17,0,512,512
267.904,2.77556e-17,0,512,512
267.95,2.77556e-17,0,512,512
268.009,2.77556e-17,0,512,512
268.056,2.77556e-17,0,512,512
268.103,2.77556e-17,0,551,551
268.152,2.77556e-17,0,593,593
268.202,2.77556e-17,0,653,653
268.252,2.77556e-17,0,713,713
268.302,2.77556e-17,0,761,761
268.352,2.77556e-17,0,821,821
268.401,2.77556e-17,0,863,863
268.451,2.77556e-17,0,923,923
268.501,2.77556e-17,0,983,983
268.551,2.77556e-17,0,1031,1031
268.6,2.77556e-17,0,1091,1091
268.65,2.77556e-17,0,1133,1133
268.7,2.77556e-17,0,1193,1193
268.753,2.77556e-17,0,1253,1253
268.803,2.77556e-17,0,1301,1301
268.852,2.77556e-17,0,1361,1361
268.902,2.77556e-17,0,1421,1421
268.952,2.77556e-17,0,1463,1463
269.002,2.77556e-17,0,1523,1523
269.052,2.77556e-17,0,1571,1571
269.101,2.77556e-17,0,1631,1631
269.151,2.77556e-17,0,1673,1673
269.201,2.77556e-17,0,1733,1733
269.251,2.77556e-17,0,1793,1793
269.301,2.77556e-17,0,1841,1841
269.35,2.77556e-17,0,1901,1901
269.4,2.77556e-17,0,1943,1943
269.453,2.77556e-17,0,2003,2003
269.503,2.77556e-17,0,2063,2063
269.553,2.77556e-17,0,2111,2111
269.602,2.77556e-17,0,2171,2171
269.652,2.77556e-17,0,2213,2213
269.702,2.77556e-17,0,2273,2273
269.752,2.77556e-17,0,2321,2321
269.801,2.77556e-17,0,2381,2381
269.851,2.77556e-17,0,2423,2423
269.901,2.77556e-17,0,2483,2483
269.951,2.77556e-17,0,2531,2531
270.001,2.77556e-17,0,2591,2591
270.05,2.77556e-17,0,2633,2633
270.1,2.77556e-17,0,2693,2693
270.15,2.77556e-17,0,2741,2741
270.203,2.77556e-17,0,2801,2801
270.253,2.77556e-17,0,2843,2843
270.302,2.77556e-17,0,2903,2903
270.352,2.77556e-17,0,2951,2951
270.402,2.77556e-17,0,3011,3011
270.452,2.77556e-17,0,3053,3053
270.502,2.77556e-17,0,3101,3101
270.551,2.77556e-17,0,3153,3153
270.601,2.77556e-17,0,3195,3195
270.651,2.77556e-17,0,3243,3243
270.701,2.77556e-17,0,3287,3287
270.751,2.77556e-17,0,3301,3301
270.8,2.77556e-17,0,3365,3365
270.85,2.77556e-17,0,3397,3397
270.903,2.77556e-17,0,3419,3419
270.953,2.77556e-17,0,3455,3455
271.002,2.77556e-17,0,3515,3515
271.052,2.77556e-17,0,3561,3561
271.102,2.77556e-17,0,3565,3565
271.152,2.77556e-17,0,3597,3597
271.202,2.77556e-17,0,3617,3617
271.251,2.77556e-17,0,3675,3675
271.301,2.77556e-17,0,3721,3721
271.351,2.77556e-17,0,3785,3785
271.401,2.77556e-17,0,3861,3861
271.451,2.77556e-17,0,3943,3943
271.5,2.77556e-17,0,4015,4015
271.55,2.77556e-17,0,4077,4077
271.6,2.77556e-17,0,4121,4121
271.653,2.77556e-17,0,4159,4159
271.703,2.77556e-17,0,4195,4195
271.752,2.77556e-17,0,4251,4251
271.802,2.77556e-17,0,4277,4277
271.852,2.77556e-17,0,4319,4319
271.902,2.77556e-17,0,4363,4363
271.952,2.77556e-17,0,4427,4427
272.001,2.77556e-17,0,4487,4487
272.051,2.77556e-17,0,4571,4571
272.101,2.77556e-17,0,4643,4643
272.151,2.77556e-17,0,4691,4691
272.201,2.77556e-17,0,4733,4733
272.25,2.77556e-17,0,4781,4781
272.3,2.77556e-17,0,4823,4823
272.353,2.77556e-17,0,4871,4871
272.403,2.77556e-17,0,4913,4913
272.452,2.77556e-17,0,4961,4961
272.502,2.77556e-17,0,5003,5003
272.552,2.77556e-17,0,5047,5047
272.602,2.77556e-17,0,5081,5081
272.652,2.77556e-17,0,5123,5123
272.701,-5.55112e-17,0,5171,5171
272.751,-4.44089e-16,0,5213,5213
272.801,-8.88178e-16,0,5261,5261
272.851,-1.36002e-15,0,5303,5303
272.901,-1.77636e-15,0,5347,5347
272.95,-2.2482e-15,0,5381,5381
273,-2.9976e-15,0,5423,5423
273.05,-4.66294e-15,0,5471,5471
273.103,-8.63198e-15,0,5513,5513
273.153,-1.65146e-14,0,5553,5553
273.202,-3.20299e-14,0,5555,5555
273.252,-6.11455e-14,0,5577,5577
273.302,-1.1402e-13,0,5609,5609
273.352,-2.06363e-13,0,5655,5655
273.402,-3.62155e-13,0,5697,5697
273.451,-6.16479e-13,0,5773,5773
273.501,-1.01821e-12,0,5843,5843
273.551,-1.63275e-12,0,5891,5891
273.601,-2.54399e-12,0,5921,5921
273.651,-3.8545e-12,0,5963,5963
273.7,-5.68348e-12,0,6011,6011
273.75,-8.16183e-12,0,6041,6041
273.803,-1.1643e-11,0,6083,6083
273.853,-1.58723e-11,0,6131,6131
273.902,-2.11217e-11,0,6173,6173
273.952,-2.74565e-11,0,6203,6203
274.002,-3.4892e-11,0,6223,6223
274.052,-4.33802e-11,0,6293,6293
274.102,-5.27974e-11,0,6323,6323
274.151,-6.29509e-11,0,6371,6371
274.201,-7.35644e-11,0,6413,6413
274.251,-8.59098e-11,0,6443,6443
274.301,-1.06058e-10,0,6491,6491
274.351,-1.54503e-10,0,6525,6525
274.4,-1.6257e-10,0,6539,6539
274.45,-1.24267e-10,0,6571,6571
274.503,-4.93446e-11,0,6589,6589
274.553,2.08455e-11,0,6595,6595
274.603,6.46303e-11,0,6627,6627
274.652,8.07764e-11,0,6645,6645
274.702,7.89087e-11,0,6667,6667
274.752,7.7104e-11,0,6715,6715
274.802,8.49414e-11,0,6751,6751
274.852,9.80406e-11,0,6779,6779
274.901,1.11033e-10,0,6835,6835
274.951,1.12271e-10,0,6857,6857
275.001,1.03813e-10,0,6899,6899
275.051,9.68159e-11,0,6937,6937
275.1,9.98079e-11,0,6977,6977
275.15,1.11925e-10,0,7021,7021
275.2,1.24655e-10,0,7057,7057
275.253,1.28066e-10,0,7097,7097
275.303,1.19833e-10,0,7135,7135
275.352,1.0888e-10,0,7177,7177
275.402,1.05829e-10,0,7195,7195
275.452,1.14862e-10,0,7251,7251
275.502,1.29539e-10,0,7281,7281
275.552,1.36289e-10,0,7311,7311
275.601,1.26651e-10,0,7359,7359
275.651,1.07811e-10,0,7381,7381
275.701,9.88293e-11,0,7431,7431
275.751,1.13591e-10,0,7463,7463
275.801,1.44932e-10,0,7505,7505
275.85,1.73325e-10,0,7519,7519
275.9,2.15351e-10,0,7557,7557
275.953,4.09015e-10,0,7583,7583
276.003,9.97736e-10,0,7623,7623
276.053,2.31171e-09,0,7649,7649
276.102,4.61181e-09,0,7679,7679
276.152,7.95713e-09,0,7725,7725
276.202,1.215e-08,0,7767,7767
276.252,1.68054e-08,0,7835,7835
276.301,2.15161e-08,0,7869,7869
276.351,2.60409e-08,0,7963,7963
276.401,3.04287e-08,0,8056,8056
276.451,3.50293e-08,0,8060,8060
276.501,4.03918e-08,0,8056,8056
276.55,4.71118e-08,0,8060,8060
276.6,5.57114e-08,0,8060,8060
276.65,6.66133e-08,0,8056,8056
276.703,8.11052e-08,0,8044,8044
276.753,9.80725e-08,0,8032,8032
276.802,1.18835e-07,0,8020,8020
276.852,1.44052e-07,0,8008,8008
276.902,1.74282e-07,0,8008,8008
276.952,2.098e-07,0,7900,7900
277.002,2.5049e-07,0,7926,7926
277.051,2.9587e-07,0,7968,7968
277.101,3.45258e-07,0,7996,7996
277.151,3.97973e-07,0,8020,8020
277.201,4.53438e-07,0,8056,8056
277.251,5.11085e-07,0,8080,8080
277.3,5.70113e-07,0,8100,8100
277.35,6.29257e-07,0,8132,8132
277.403,6.90019e-07,0,8148,8148
277.453,7.43441e-07,0,8168,8168
277.502,7.90956e-07,0,8192,8192
277.552,8.31044e-07,0,8192,8192
277.602,8.62947e-07,0,8192,8192
277.652,8.86702e-07,0,8192,8192
277.702,9.02957e-07,0,8192,8192
277.751,9.12657e-07,0,8192,8192
277.801,9.16702e-07,0,8192,8192
277.851,9.15692e-07,0,8192,8192
277.901,9.09805e-07,0,8192,8192
277.951,8.98824e-07,0,8192,8192
278,8.8226e-07,0,8192,8192
278.05,8.59558e-07,0,8192,8192
278.1,8.30328e-07,0,8192,8192
278.153,7.9227e-07,0,8192,8192
278.203,7.50193e-07,0,8192,8192
278.252,7.03305e-07,0,8192,8192
278.302,6.53173e-07,0,8192,8192
278.352,6.01551e-07,0,8192,8192
278.402,5.50095e-07,0,8192,8192
278.452,5.00136e-07,0,8192,8192
278.501,4.52555e-07,0,8192,8192
278.551,4.07786e-07,0,8192,8192
278.601,3.65914e-07,0,8192,8192
278.651,3.26836e-07,0,8192,8192
278.701,2.90435e-07,0,8192,8192
278.75,2.56719e-07,0,8192,8192
278.8,2.25866e-07,0,8192,8192
278.853,1.96621e-07,0,8192,8192
278.903,1.72424e-07,0,8192,8192
278.952,1.51459e-07,0,8192,8192
279.002,1.33303e-07,0,8192,8192
279.052,1.17325e-07,0,8192,8192
279.102,1.02934e-07,0,8192,8192
279.152,8.97951e-08,0,8192,8192
279.201,7.78892e-08,0,8192,8192
279.251,6.73956e-08,0,8192,8192
279.301,5.8475e-08,0,8192,8192
279.351,5.10901e-08,0,8192,8192
279.401,4.4959e-08,0,8192,8192
279.45,3.96559e-08,0,8192,8192
279.5,3.47962e-08,0,8192,8192
279.55,3.02061e-08,0,8192,8192
279.603,2.57517e-08,0,8192,8192
279.653,2.22378e-08,0,8192,8192
279.702,1.97224e-08,0,8192,8192
279.752,1.83875e-08,0,8192,8192
279.802,1.8214e-08,0,8192,8192
279.852,1.90198e-08,0,8192,8192
279.902,2.0557e-08,0,8192,8192
279.951,2.26011e-08,0,8192,8192
280.001,2.49939e-08,0,8192,8192
280.051,2.76404e-08,0,8192,8192
280.101,3.04857e-08,0,8192,8192
280.151,3.34962e-08,0,8192,8192
280.2,3.66534e-08,0,8192,8192
280.25,3.99555e-08,0,8192,8192
280.303,4.36212e-08,0,8192,8192
280.353,4.72563e-08,0,8192,8192
280.402,5.10637e-08,0,8192,8192
280.452,5.50367e-08,0,8192,8192
280.502,5.91668e-08,0,8192,8192
280.552,6.34563e-08,0,8192,8192
280.602,6.7928e-08,0,8192,8192
280.651,7.26286e-08,0,8192,8192
280.701,7.76218e-08,0,8192,8192
280.751,8.29737e-08,0,8192,8192
280.801,8.87331e-08,0,8192,8192
280.851,9.49151e-08,0,8192,8192
280.9,1.01494e-07,0,8192,8192
280.95,1.08409e-07,0,8192,8192
281,1.15593e-07,0,8192,8192
281.053,1.23442e-07,0,8192,8192
281.103,1.31098e-07,0,8192,8192
281.152,1.39093e-07,0,8192,8192
281.202,1.47617e-07,0,8192,8192
281.252,1.56949e-07,0,8192,8192
281.302,1.67437e-07,0,8192,8192
281.352,1.79475e-07,0,8192,8192
281.401,1.93487e-07,0,8192,8192
281.451,2.099e-07,0,8192,8192
281.501,2.29127e-07,0,8192,8192
281.551,2.51536e-07,0,8192,8192
281.601,2.77418e-07,0,8192,8192
281.65,3.06951e-07,0,8192,8192
281.7,3.40174e-07,0,8192,8192
281.753,3.79237e-07,0,8192,8192
281.803,4.19498e-07,0,8192,8192
281.852,4.62575e-07,0,8192,8192
281.902,5.07869e-07,0,8192,8192
281.952,5.54628e-07,0,8192,8192
282.002,6.01951e-07,0,8192,8192
282.052,6.48795e-07,0,8192,8192
282.101,6.94002e-07,0,8192,8192
282.151,7.36358e-07,0,8192,8192
282.201,7.74678e-07,0,8192,8192
282.251,8.07908e-07,0,8192,8192
282.301,8.35218e-07,0,8192,8192
282.35,8.56063e-07,0,8192,8192
282.4,8.70196e-07,0,8192,8192
282.45,8.7763e-07,0,8192,8192
282.503,8.78421e-07,0,8192,8192
282.553,8.72783e-07,0,8192,8192
282.602,8.61237e-07,0,8192,8192
282.652,8.44019e-07,0,8192,8192
282.702,8.21301e-07,0,8192,8192
282.752,7.93223e-07,0,8192,8192
282.802,7.59955e-07,0,8192,8192
282.851,7.21774e-07,0,8192,8192
282.901,6.7912e-07,0,8192,8192
282.951,6.32637e-07,0,8192,8192
283.001,5.83161e-07,0,8192,8192
283.051,5.31679e-07,0,8192,8192
283.1,4.79247e-07,0,8192,8192
283.15,4.26905e-07,0,8192,8192
283.203,3.72625e-07,0,8192,8192
283.253,3.23256e-07,0,8192,8192
283.302,2.76333e-07,0,8192,8192
283.352,2.32272e-07,0,8192,8192
283.402,1.91343e-07,0,8192,8192
283.452,1.53705e-07,0,8192,8192
283.502,1.1944e-07,0,8192,8192
283.551,8.8564e-08,0,8192,8192
283.601,6.10343e-08,0,8192,8192
283.651,3.67449e-08,0,8192,8192
283.701,1.55269e-08,0,8192,8192
283.751,-2.84065e-09,0,8192,8192
283.8,-1.86088e-08,0,8192,8192
283.85,-3.20316e-08,0,8192,8192
283.903,-4.39478e-08,0,8192,8192
283.953,-5.32489e-08,0,8192,8192
284.003,-6.08367e-08,0,8192,8192
284.052,-6.68803e-08,0,8192,8192
284.102,-7.15488e-08,0,8192,8192
284.152,-7.50133e-08,0,8192,8192
284.202,-7.7439e-08,0,8192,8192
284.251,-7.89693e-08,0,8192,8192
284.301,-7.97134e-08,0,8192,8192
284.351,-7.97426e-08,0,8192,8192
284.401,-7.90993e-08,0,8192,8192
284.451,-7.78147e-08,0,8192,8192
284.5,-7.59293e-08,0,8192,8192
284.55,-7.35076e-08,0,8192,8192
284.6,-7.06433e-08,0,8192,8192
284.653,-6.72588e-08,0,8192,8192
284.703,-6.38659e-08,0,8192,8192
284.752,-6.0411e-08,0,8192,8192
284.802,-5.7005e-08,0,8192,8192
284.852,-5.37363e-08,0,8192,8192
284.902,-5.06677e-08,0,8192,8192
284.952,-4.78384e-08,0,8192,8192
285.001,-4.52675e-08,0,8192,8192
285.051,-4.29592e-08,0,8192,8192
285.101,-4.09083e-08,0,8192,8192
285.151,-3.91042e-08,0,8192,8192
285.201,-3.75339e-08,0,8192,8192
285.25,-3.61841e-08,0,8192,8192
285.3,-3.50415e-08,0,8192,8192
285.353,-3.40426e-08,0,8192,8192
285.403,-3.3284e-08,0,8192,8192
285.452,-3.26898e-08,0,8192,8192
285.502,-3.22446e-08,0,8192,8192
285.552,-3.19319e-08,0,8192,8192
285.602,-3.17352e-08,0,8192,8192
285.652,-3.1638e-08,0,8192,8192
285.701,-3.16245e-08,0,8192,8192
285.751,-3.168e-08,0,8192,8192
285.801,-3.1791e-08,0,8192,8192
285.851,-3.19455e-08,0,8192,8192
285.901,-3.21331e-08,0,8192,8192
285.95,-3.23445e-08,0,8192,8192
286,-3.25719e-08,0,8192,8192
286.05,-3.28089e-08,0,8192,8192
286.103,-3.30638e-08,0,8192,8192
286.153,-3.33036e-08,0,8192,8192
286.202,-3.35386e-08,0,8192,8192
286.252,-3.37656e-08,0,8192,8192
286.302,-3.39822e-08,0,8192,8192
286.352,-3.41863e-08,0,8192,8192
286.402,-3.43763e-08,0,8192,8192
286.451,-3.45508e-08,0,8192,8192
286.501,-3.47084e-08,0,8192,8192
286.551,-3.48483e-08,0,8192,8192
286.601,-3.49697e-08,0,8192,8192
286.651,-3.50719e-08,0,8192,8192
286.7,-3.51546e-08,0,8192,8192
286.75,-3.52181e-08,0,8192,8192
286.803,-3.52648e-08,0,8192,8192
286.853,-3.52904e-08,0,8192,8192
286.902,-3.52992e-08,0,8192,8192
286.952,-3.52926e-08,0,8192,8192
287.002,-3.52721e-08,0,8192,8192
287.052,-3.52397e-08,0,8192,8192
287.102,-3.5197e-08,0,8192,8192
287.151,-3.5146e-08,0,8192,8192
287.201,-3.50883e-08,0,8192,8192
287.251,-3.50258e-08,0,8192,8192
287.301,-3.49598e-08,0,8192,8192
287.351,-3.48919e-08,0,8192,8192
287.4,-3.48234e-08,0,8192,8192
287.45,-3.47554e-08,0,8192,8192
287.5,-3.4689e-08,0,8192,8192
287.553,-3.46214e-08,0,8192,8192
287.603,-3.45611e-08,0,8192,8192
287.652,-3.45048e-08,0,8192,8192
287.702,-3.44532e-08,0,8192,8192
287.752,-3.44068e-08,0,8192,8192
287.802,-3.43661e-08,0,8192,8192
287.852,-3.43313e-08,0,8192,8192
287.901,-3.43029e-08,0,8192,8192
287.951,-3.42809e-08,0,8192,8192
288.001,-3.42657e-08,0,8192,8192
288.051,-3.42574e-08,0,8192,8192
288.101,-3.4256e-08,0,8192,8192
288.15,-3.42616e-08,0,8192,8192
288.2,-3.42744e-08,0,8192,8192
288.253,-3.42956e-08,0,8192,8192
288.303,-3.43231e-08,0,8192,8192
288.352,-3.43577e-08,0,8192,8192
288.402,-3.43995e-08,0,8192,8192
288.452,-3.44486e-08,0,8192,8192
288.502,-3.45051e-08,0,8192,8192
288.552,-3.45693e-08,0,8192,8192
288.601,-3.46415e-08,0,8192,8192
288.651,-3.47222e-08,0,8192,8192
288.701,-3.48121e-08,0,8192,8192
288.751,-3.49121e-08,0,8192,8192
288.801,-3.50231e-08,0,8192,8192
288.85,-3.51462e-08,0,8192,8192
288.9,-3.52827e-08,0,8192,8192
288.95,-3.5434e-08,0,8192,8192
289.003,-3.56117e-08,0,8192,8192
289.053,-3.57974e-08,0,8192,8192
289.102,-3.60017e-08,0,8192,8192
289.152,-3.62255e-08,0,8192,8192
289.202,-3.64694e-08,0,8192,8192
289.252,-3.67339e-08,0,8192,8192
289.302,-3.70189e-08,0,8192,8192
289.351,-3.73236e-08,0,8192,8192
289.401,-3.76472e-08,0,8192,8192
289.451,-3.7988e-08,0,8192,8192
289.501,-3.83439e-08,0,8192,8192
289.551,-3.87123e-08,0,8192,8192
289.6,-3.90902e-08,0,8192,8192
289.65,-3.94743e-08,0,8192,8192
289.703,-3.98837e-08,0,8192,8192
289.753,-4.02688e-08,0,8192,8192
289.802,-4.06485e-08,0,8192,8192
289.852,-4.10188e-08,0,8192,8192
289.902,-4.13758e-08,0,8192,8192
289.952,-4.17157e-08,0,8192,8192
290.002,-4.20348e-08,0,8192,8192
290.051,-4.23298e-08,0,8192,8192
290.101,-4.25973e-08,0,8192,8192
290.151,-4.28345e-08,0,8192,8192
290.201,-4.30385e-08,0,8192,8192
290.251,-4.32073e-08,0,8192,8192
290.3,-4.33387e-08,0,8192,8192
290.35,-4.34314e-08,0,8192,8192
290.403,-4.34859e-08,0,8192,8192
290.453,-4.34954e-08,0,8192,8192
290.503,-4.34637e-08,0,8192,8192
290.552,-4.33905e-08,0,8192,8192
290.602,-4.32758e-08,0,8192,8192
290.652,-4.31198e-08,0,8192,8192
290.702,-4.29226e-08,0,8192,8192
290.752,-4.26842e-08,0,8192,8192
290.801,-4.24048e-08,0,8192,8192
290.851,-4.20844e-08,0,8192,8192
290.901,-4.1723e-08,0,8192,8192
290.951,-4.13205e-08,0,8192,8192
291,-4.0877e-08,0,8192,8192
291.05,-4.03924e-08,0,8192,8192
291.1,-3.98672e-08,0,8192,8192
291.153,-3.92673e-08,0,8192,8192
291.203,-3.86603e-08,0,8192,8192
291.252,-3.80155e-08,0,8192,8192
291.302,-3.73346e-08,0,8192,8192
291.352,-3.66201e-08,0,8192,8192
291.402,-3.5875e-08,0,8192,8192
291.452,-3.51026e-08,0,8192,8192
291.501,-3.43071e-08,0,8192,8192
291.551,-3.34928e-08,0,8192,8192
291.601,-3.26644e-08,0,8192,8192
291.651,-3.1827e-08,0,8192,8192
291.701,-3.09856e-08,0,8192,8192
291.75,-3.01452e-08,0,8192,8192
291.8,-2.93109e-08,0,8192,8192
291.853,-2.84395e-08,0,8192,8192
291.903,-2.76329e-08,0,8192,8192
291.952,-2.68465e-08,0,8192,8192
292.002,-2.60846e-08,0,8192,8192
292.052,-2.53509e-08,0,8192,8192
292.102,-2.46488e-08,0,8192,8192
292.152,-2.39813e-08,0,8192,8192
292.201,-2.3351e-08,0,8192,8192
292.251,-2.27596e-08,0,8192,8192
292.301,-2.22085e-08,0,8192,8192
292.351,-2.16985e-08,0,8192,8192
292.401,-2.12296e-08,0,8192,8192
292.45,-2.08013e-08,0,8192,8192
292.5,-2.04127e-08,0,8192,8192
292.55,-2.00622e-08,0,8192,8192
292.603,-1.97307e-08,0,8192,8192
292.653,-1.94526e-08,0,8192,8192
292.702,-1.92061e-08,0,8192,8192
292.752,-1.89885e-08,0,8192,8192
292.802,-1.87974e-08,0,8192,8192
292.852,-1.86299e-08,0,8192,8192
292.902,-1.84835e-08,0,8192,8192
292.951,-1.83556e-08,0,8192,8192
293.001,-1.82437e-08,0,8192,8192
293.051,-1.81456e-08,0,8192,8192
293.101,-1.8059e-08,0,8192,8192
293.151,-1.7982e-08,0,8192,8192
293.2,-1.79129e-08,0,8192,8192
293.25,-1.78499e-08,0,8192,8192
293.303,-1.77885e-08,0,8192,8192
293.353,-1.77339e-08,0,8192,8192
293.402,-1.76816e-08,0,8192,8192
293.452,-1.76302e-08,0,8192,8192
293.502,-1.75786e-08,0,8192,8192
293.552,-1.75258e-08,0,8192,8192
293.602,-1.74704e-08,0,8192,8192
293.651,-1.74114e-08,0,8192,8192
293.701,-1.73475e-08,0,8192,8192
293.751,-1.72777e-08,0,8192,8192
293.801,-1.7201e-08,0,8192,8192
293.851,-1.71165e-08,0,8192,8192
293.9,-1.70236e-08,0,8192,8192
293.95,-1.69219e-08,0,8192,8192
294,-1.68113e-08,0,8192,8192
294.053,-1.66847e-08,0,8192,8192
294.103,-1.65565e-08,0,8192,8192
294.152,-1.64209e-08,0,8192,8192
294.202,-1.62785e-08,0,8192,8192
294.252,-1.61307e-08,0,8192,8192
294.302,-1.59786e-08,0,8192,8192
294.352,-1.58236e-08,0,8192,8192
294.401,-1.56668e-08,0,8192,8192
294.451,-1.55095e-08,0,8192,8192
294.501,-1.53528e-08,0,8192,8192
294.551,-1.51974e-08,0,8192,8192
294.601,-1.50436e-08,0,8192,8192
294.65,-1.48917e-08,0,8192,8192
294.7,-1.47412e-08,0,8192,8192
294.753,-1.45826e-08,0,8192,8192
294.803,-1.44324e-08,0,8192,8192
294.852,-1.42807e-08,0,8192,8192
294.902,-1.4126e-08,0,8192,8192
294.952,-1.39669e-08,0,8192,8192
295.002,-1.38021e-08,0,8192,8192
295.052,-1.36305e-08,0,8192,8192
295.101,-1.34508e-08,0,8192,8192
295.151,-1.3262e-08,0,8192,8192
295.201,-1.30629e-08,0,8192,8192
295.251,-1.28522e-08,0,8192,8192
295.301,-1.26285e-08,0,8192,8192
295.35,-1.23901e-08,0,8192,8192
295.4,-1.21351e-08,0,8192,8192
295.45,-1.18614e-08,0,8192,8192
295.503,-1.15488e-08,0,8192,8192
295.553,-1.12301e-08,0,8192,8192
295.602,-1.08866e-08,0,8192,8192
295.652,-1.05167e-08,0,8192,8192
295.702,-1.01192e-08,0,8192,8192
295.752,-9.6931e-09,0,8192,8192
295.802,-9.2381e-09,0,8192,8192
295.851,-8.75413e-09,0,8192,8192
295.901,-8.24161e-09,0,8192,8192
295.951,-7.70139e-09,0,8192,8192
296.001,-7.13476e-09,0,8192,8192
296.051,-6.54349e-09,0,8192,8192
296.1,-5.92977e-09,0,8192,8192
296.15,-5.29626e-09,0,8192,8192
296.203,-4.60731e-09,0,8192,8192
296.253,-3.94307e-09,0,8192,8192
296.302,-3.26946e-09,0,8192,8192
296.352,-2.59045e-09,0,8192,8192
296.402,-1.91018e-09,0,8192,8192
296.452,-1.23285e-09,0,8192,8192
296.502,-5.62708e-10,0,8192,8192
296.551,9.60763e-11,0,8192,8192
296.601,7.39439e-10,0,8192,8192
296.651,1.36349e-09,0,8192,8192
296.701,1.96456e-09,0,8192,8192
296.751,2.53926e-09,0,8192,8192
296.8,3.08449e-09,0,8192,8192
296.85,3.59752e-09,0,8192,8192
296.9,4.07599e-09,0,8192,8192
296.953,4.54279e-09,0,8192,8192
297.003,4.9445e-09,0,8192,8192
297.052,5.30716e-09,0,8192,8192
297.102,5.6303e-09,0,8192,8192
297.152,5.91393e-09,0,8192,8192
297.202,6.15859e-09,0,8192,8192
297.252,6.36529e-09,0,8192,8192
297.301,6.53545e-09,0,8192,8192
297.351,6.67091e-09,0,8192,8192
297.401,6.77379e-09,0,8192,8192
297.451,6.84646e-09,0,8192,8192
297.501,6.89146e-09,0,8192,8192
297.55,6.91142e-09,0,8192,8192
297.6,6.90902e-09,0,8192,8192
297.653,6.88502e-09,0,8192,8192
297.703,6.84482e-09,0,8192,8192
297.752,6.79008e-09,0,8192,8192
297.802,6.72315e-09,0,8192,8192
297.852,6.64621e-09,0,8192,8192
297.902,6.56128e-09,0,8192,8192
297.952,6.47022e-09,0,8192,8192
298.001,6.37471e-09,0,8192,8192
298.051,6.2763e-09,0,8192,8192
298.101,6.1764e-09,0,8192,8192
298.151,6.07629e-09,0,8192,8192
298.201,5.97717e-09,0,8192,8192
298.25,5.88013e-09,0,8192,8192
298.3,5.78618e-09,0,8192,8192
298.353,5.69113e-09,0,8192,8192
298.403,5.6064e-09,0,8192,8192
298.453,5.52734e-09,0,8192,8192
298.502,5.45454e-09,0,8192,8192
298.552,5.38845e-09,0,8192,8192
298.602,5.32933e-09,0,8192,8192
298.652,5.27727e-09,0,8192,8192
298.702,5.2321e-09,0,8192,8192
298.751,5.19344e-09,0,8192,8192
298.801,5.16069e-09,0,8192,8192
298.851,5.13302e-09,0,8192,8192
298.901,5.10941e-09,0,8192,8192
298.95,5.08871e-09,0,8192,8192
299,5.06962e-09,0,8192,8192
299.05,5.05081e-09,0,8192,8192
299.103,5.02971e-09,0,8192,8192
299.153,5.00732e-09,0,8192,8192
299.202,4.98137e-09,0,8192,8192
299.252,4.9509e-09,0,8192,8192
299.302,4.91518e-09,0,8192,8192
299.352,4.87375e-09,0,8192,8192
299.402,4.82645e-09,0,8192,8192
299.451,4.7734e-09,0,8192,8192
299.501,4.71499e-09,0,8192,8192
299.551,4.65184e-09,0,8192,8192
299.601,4.58472e-09,0,8192,8192
299.651,4.51455e-09,0,8192,8192
299.7,4.44229e-09,0,8192,8192
299.75,4.36889e-09,0,8192,8192
299.803,4.29099e-09,0,8192,8192
299.853,4.21816e-09,0,8192,8192
299.903,4.1469e-09,0,8192,8192
299.952,4.07798e-09,0,8192,8192
300.002,4.01212e-09,0,8192,8192
300.052,3.95001e-09,0,8192,8192
300.102,3.89228e-09,0,8192,8192
300.151,3.83952e-09,0,8192,8192
300.201,3.79222e-09,0,8192,8192
300.251,3.75077e-09,0,8192,8192
300.301,3.71541e-09,0,8192,8192
300.351,3.68622e-09,0,8192,8192
300.4,3.6631e-09,0,8192,8192
300.45,3.64575e-09,0,8192,8192
300.5,3.63373e-09,0,8192,8192
300.553,3.62615e-09,0,8192,8192
300.603,3.6231e-09,0,8192,8192
300.652,3.62327e-09,0,8192,8192
300.702,3.62585e-09,0,8192,8192
300.752,3.63006e-09,0,8192,8192
300.802,3.63518e-09,0,8192,8192
300.852,3.64052e-09,0,8192,8192
300.901,3.64551e-09,0,8192,8192
300.951,3.64965e-09,0,8192,8192
301.001,3.65254e-09,0,8192,8192
301.051,3.65389e-09,0,8192,8192
301.101,3.65347e-09,0,8192,8192
301.15,3.65115e-09,0,8192,8192
301.2,3.64684e-09,0,8192,8192
301.253,3.6401e-09,0,8192,8192
301.303,3.63171e-09,0,8192,8192
301.352,3.6214e-09,0,8192,8192
301.402,3.60927e-09,0,8192,8192
301.452,3.5954e-09,0,8192,8192
301.502,3.57989e-09,0,8192,8192
301.552,3.56283e-09,0,8192,8192
301.601,3.54433e-09,0,8192,8192
301.651,3.52445e-09,0,8192,8192
301.701,3.50325e-09,0,8192,8192
301.751,3.48079e-09,0,8192,8192
301.801,3.45711e-09,0,8192,8192
301.85,3.43224e-09,0,8192,8192
301.9,3.40624e-09,0,8192,8192
301.95,3.37915e-09,0,8192,8192
302.003,3.34934e-09,0,8192,8192
302.053,3.32021e-09,0,8192,8192
302.102,3.29022e-09,0,8192,8192
302.152,3.25946e-09,0,8192,8192
302.202,3.22805e-09,0,8192,8192
302.252,3.19611e-09,0,8192,8192
302.302,3.16373e-09,0,8192,8192
302.351,3.13103e-09,0,8192,8192
302.401,3.09811e-09,0,8192,8192
302.451,3.06503e-09,0,8192,8192
302.501,3.03187e-09,0,8192,8192
302.551,2.99868e-09,0,8192,8192
302.6,2.96551e-09,0,8192,8192
302.65,2.93238e-09,0,8192,8192
302.703,2.89735e-09,0,8192,8192
302.753,2.86433e-09,0,8192,8192
302.802,2.83136e-09,0,8192,8192
302.852,2.79843e-09,0,8192,8192
302.902,2.7655e-09,0,8192,8192
302.952,2.73257e-09,0,8192,8192
303.002,2.69958e-09,0,8192,8192
303.051,2.66651e-09,0,8192,8192
303.101,2.63331e-09,0,8192,8192
303.151,2.59994e-09,0,8192,8192
303.201,2.56636e-09,0,8192,8192
303.251,2.53253e-09,0,8192,8192
303.3,2.4984e-09,0,8192,8192
303.35,2.46394e-09,0,8192,8192
303.4,2.4291e-09,0,8192,8192
303.453,2.39178e-09,0,8192,8192
303.503,2.35609e-09,0,8192,8192
303.552,2.31995e-09,0,8192,8192
303.602,2.28334e-09,0,8192,8192
303.652,2.24625e-09,0,8192,8192
303.702,2.20868e-09,0,8192,8192
303.752,2.17063e-09,0,8192,8192
303.801,2.1321e-09,0,8192,8192
303.851,2.0931e-09,0,8192,8192
303.901,2.05367e-09,0,8192,8192
303.951,2.01381e-09,0,8192,8192
304.001,1.97356e-09,0,8192,8192
304.05,1.93295e-09,0,8192,8192
304.1,1.89202e-09,0,8192,8192
304.153,1.84837e-09,0,8192,8192
304.203,1.80691e-09,0,8192,8192
304.252,1.76526e-09,0,8192,8192
304.302,1.72347e-09,0,8192,8192
304.352,1.68161e-09,0,8192,8192
304.402,1.63972e-09,0,8192,8192
304.452,1.59786e-09,0,8192,8192
304.501,1.55609e-09,0,8192,8192
304.551,1.51446e-09,0,8192,8192
304.601,1.47302e-09,0,8192,8192
304.651,1.43185e-09,0,8192,8192
304.701,1.39098e-09,0,8192,8192
304.75,1.35046e-09,0,8192,8192
304.8,1.31036e-09,0,8192,8192
304.85,1.27072e-09,0,8192,8192
304.903,1.22929e-09,0,8192,8192
304.953,1.19072e-09,0,8192,8192
