250,0,0,8192,8192
250.003,0,0,8192,8192
250.053,0,0,8192,8192
250.103,0,0,8192,8192
250.152,0,0,8192,8192
250.202,0,0,8192,8192
250.252,0,0,8192,8192
250.302,0,0,8192,8192
250.352,0,0,8192,8192
250.401,0,0,8192,8192
250.451,0,0,8192,8192
250.501,0,0,8192,8192
250.551,0,0,8192,8192
250.6,0,0,8192,8192
250.65,0,0,8192,8192
250.7,0,0,8192,8192
250.753,0,0,8192,8192
250.803,0,0,8192,8192
250.852,0,0,8192,8192
250.902,0,0,8192,8192
250.952,0,0,8192,8192
251.002,0,0,8192,8192
251.052,0,0,8192,8192
251.101,0,0,8192,8192
251.151,0,0,8192,8192
251.201,0,0,8192,8192
251.251,0,0,8192,8192
251.301,0,0,8192,8192
251.35,0,0,8192,8192
251.4,0,0,8192,8192
251.453,0,0,8192,8192
251.503,0,0,8192,8192
251.553,0,0,8192,8192
251.602,0,0,8192,8192
251.652,0,0,8192,8192
251.702,0,0,8192,8192
251.752,0,0,8192,8192
251.801,0,0,8192,8192
251.851,0,0,8192,8192
251.901,0,0,8192,8192
251.951,0,0,8192,8192
252.001,0,0,8192,8192
252.05,0,0,8192,8192
252.1,0,0,8192,8192
252.15,0,0,8192,8192
252.203,0,0,8192,8192
252.253,0,0,8192,8192
252.302,0,0,8192,8192
252.352,0,0,8192,8192
252.402,0,0,8192,8192
252.452,0,0,8192,8192
252.502,0,0,8192,8192
252.551,0,0,8192,8192
252.601,0,0,8192,8192
252.651,0,0,8192,8192
252.701,0,0,8192,8192
252.751,0,0,8192,8192
252.8,0,0,8192,8192
252.85,0,0,8192,8192
252.903,0,0,8192,8192
252.953,0,0,8192,8192
253.002,0,0,8192,8192
253.052,0,0,8192,8192
253.102,0,0,8192,8192
253.152,0,0,8192,8192
253.202,0,0,8192,8192
253.251,0,0,8192,8192
253.301,0,0,8192,8192
253.351,0,0,8192,8192
253.401,0,0,8192,8192
253.451,0,0,8192,8192
253.5,0,0,8192,8192
253.55,0,0,8192,8192
253.6,0,0,8192,8192
253.653,0,0,8192,8192
253.703,0,0,8192,8192
253.752,0,0,8192,8192
253.802,0,0,8192,8192
253.852,0,0,8192,8192
253.902,0,0,8192,8192
253.952,0,0,8192,8192
254.001,0,0,8192,8192
254.051,0,0,8192,8192
254.101,0,0,8192,8192
254.151,0,0,8192,8192
254.201,0,0,8192,8192
254.25,0,0,8192,8192
254.3,0,0,8192,8192
254.353,0,0,8192,8192
254.403,0,0,8192,8192
254.452,0,0,8192,8192
254.502,0,0,8192,8192
254.552,0,0,8192,8192
254.602,0,0,8192,8192
254.652,0,0,8192,8192
254.701,0,0,8192,8192
254.751,0,0,8192,8192
254.801,0,0,8192,8192
254.851,0,0,8192,8192
254.901,0,0,8192,8192
254.95,0,0,8192,8192
255,0,0,8192,8192
255.05,0,0,8192,8192
255.103,0,0,8192,8192
255.153,0,0,8192,8192
255.202,0,0,8192,8192
255.252,0,0,8192,8192
255.302,2.77556e-17,0,8192,8192
255.352,2.77556e-17,0,8192,8192
255.402,5.55112e-17,0,8192,8192
255.451,2.77556e-17,0,8192,8192
255.501,2.77556e-17,0,8192,8192
255.551,2.77556e-17,0,8192,8192
255.601,2.77556e-17,0,8192,8192
255.651,2.77556e-17,0,8192,8192
255.7,2.77556e-17,0,8192,8192
255.75,2.77556e-17,0,8192,8192
255.803,2.77556e-17,0,8192,8192
255.853,2.77556e-17,0,8192,8192
255.902,2.77556e-17,0,8192,8192
255.952,2.77556e-17,0,8192,8192
256.002,5.55112e-17,0,8192,8192
256.052,5.55112e-17,0,8192,8192
256.102,5.55112e-17,0,8192,8192
256.151,5.55112e-17,0,8192,8192
256.201,2.77556e-17,0,8192,8192
256.251,2.77556e-17,0,8192,8192
256.301,2.77556e-17,0,8192,8192
256.351,2.77556e-17,0,8192,8192
256.4,2.77556e-17,0,8192,8192
256.45,2.77556e-17,0,8192,8192
256.5,0,0,8192,8192
256.553,0,0,8192,8192
256.603,0,0,8192,8192
256.652,0,0,8192,8192
256.702,0,0,8192,8192
256.752,0,0,8192,8192
256.802,0,0,8192,8192
256.852,0,0,8192,8192
256.901,0,0,8192,8192
256.951,0,0,8192,8192
257.001,0,0,8192,8192
257.051,0,0,8192,8192
257.101,0,0,8192,8192
257.15,0,0,8192,8192
257.2,0,0,8192,8192
257.253,0,0,8192,8192
257.303,2.77556e-17,0,8192,8192
257.352,2.77556e-17,0,8192,8192
257.402,5.55112e-17,0,8192,8192
257.452,5.55112e-17,0,8192,8192
257.502,5.55112e-17,0,8192,8192
257.552,5.55112e-17,0,8192,8192
257.601,5.55112e-17,0,8192,8192
257.651,5.55112e-17,0,8192,8192
257.701,5.55112e-17,0,8192,8192
257.751,5.55112e-17,0,8192,8192
257.801,5.55112e-17,0,8192,8192
257.85,5.55112e-17,0,8192,8192
257.9,5.55112e-17,0,8192,8192
257.95,5.55112e-17,0,8192,8192
258.003,5.55112e-17,0,8192,8192
258.053,5.55112e-17,0,8192,8192
258.102,5.55112e-17,0,8192,8192
258.152,5.55112e-17,0,8192,8192
258.202,5.55112e-17,0,8192,8192
258.252,5.55112e-17,0,8192,8192
258.302,5.55112e-17,0,8192,8192
258.351,5.55112e-17,0,8192,8192
258.401,5.55112e-17,0,8192,8192
258.451,5.55112e-17,0,8192,8192
258.501,5.55112e-17,0,8192,8192
258.551,5.55112e-17,0,8192,8192
258.6,5.55112e-17,0,8192,8192
258.65,2.77556e-17,0,8192,8192
258.703,0,0,8192,8192
258.753,0,0,8192,8192
258.802,0,0,8192,8192
258.852,2.77556e-17,0,8192,8192
258.902,2.77556e-17,0,8192,8192
258.952,5.55112e-17,0,8192,8192
259.002,5.55112e-17,0,8192,8192
259.051,2.77556e-17,0,8192,8192
259.101,2.77556e-17,0,8192,8192
259.151,2.77556e-17,0,8192,8192
259.201,2.77556e-17,0,8192,8192
259.251,2.77556e-17,0,8192,8192
259.3,2.77556e-17,0,8192,8192
259.35,2.77556e-17,0,8192,8192
259.403,2.77556e-17,0,8192,8192
259.453,2.77556e-17,0,8192,8192
259.503,2.77556e-17,0,8192,8192
259.552,2.77556e-17,0,8192,8192
259.602,2.77556e-17,0,8192,8192
259.652,2.77556e-17,0,8192,8192
259.702,2.77556e-17,0,8192,8192
259.751,2.77556e-17,0,8192,8192
259.801,2.77556e-17,0,8192,8192
259.851,2.77556e-17,0,8192,8192
259.901,0,0,8192,8192
259.951,-2.77556e-17,0,8192,8192
260,-2.77556e-17,0,8192,8192
260.05,-2.77556e-17,0,8192,8192
260.1,-2.77556e-17,0,8192,8192
260.153,-2.77556e-17,0,8192,8192
260.203,-2.77556e-17,0,8192,8192
260.252,-2.77556e-17,0,8192,8192
260.302,-2.77556e-17,0,8192,8192
260.352,-2.77556e-17,0,8192,8192
260.402,-2.77556e-17,0,8192,8192
260.452,-2.77556e-17,0,8192,8192
260.501,-2.77556e-17,0,8192,8192
260.551,-2.77556e-17,0,8192,8192
260.601,-2.77556e-17,0,8192,8192
260.651,-2.77556e-17,0,8192,8192
260.701,-2.77556e-17,0,8192,8192
260.75,-2.77556e-17,0,8192,8192
260.8,-2.77556e-17,0,8192,8192
260.853,-2.77556e-17,0,8192,8192
260.903,-2.77556e-17,0,8192,8192
260.952,-2.77556e-17,0,8192,8192
261.002,-8.32667e-17,0,8192,8192
261.052,-8.32667e-17,0,8192,8192
261.102,-8.32667e-17,0,8192,8192
261.152,-5.55112e-17,0,8192,8192
261.201,-2.77556e-17,0,8192,8192
261.251,-2.77556e-17,0,8192,8192
261.301,-2.77556e-17,0,8192,8192
261.351,-2.77556e-17,0,8192,8192
261.401,-2.77556e-17,0,8192,8192
261.45,-2.77556e-17,0,8192,8192
261.5,-2.77556e-17,0,8192,8192
261.55,-2.77556e-17,0,8192,8192
261.603,-2.77556e-17,0,8192,8192
261.653,0,0,8192,8192
261.702,-2.77556e-17,0,8192,8192
261.752,-2.77556e-17,0,8192,8192
261.802,-2.77556e-17,0,8192,8192
261.852,-2.77556e-17,0,8192,8192
261.902,-2.77556e-17,0,8192,8192
261.951,-2.77556e-17,0,8192,8192
262.001,-2.77556e-17,0,8192,8192
262.051,-2.77556e-17,0,8192,8192
262.101,-2.77556e-17,0,8192,8192
262.151,-2.77556e-17,0,8192,8192
262.2,-2.77556e-17,0,8192,8192
262.25,-2.77556e-17,0,8192,8192
262.303,-2.77556e-17,0,8192,8192
262.353,-2.77556e-17,0,8192,8192
262.402,-2.77556e-17,0,8192,8192
262.452,-2.77556e-17,0,8192,8192
262.502,-2.77556e-17,0,8192,8192
262.552,-2.77556e-17,0,8192,8192
262.602,-2.77556e-17,0,8192,8192
262.651,-2.77556e-17,0,8192,8192
262.701,-2.77556e-17,0,8192,8192
262.751,0,0,8192,8192
262.801,0,0,8192,8192
262.851,0,0,8192,8192
262.9,0,0,8192,8192
262.95,-2.77556e-17,0,8192,8192
263,-2.77556e-17,0,8192,8192
263.053,0,0,8192,8192
263.103,0,0,8192,8192
263.152,0,0,8192,8192
263.202,0,0,8192,8192
263.252,0,0,8192,8192
263.302,2.77556e-17,0,8192,8192
263.352,0,0,8192,8192
263.401,0,0,8192,8192
263.451,0,0,8192,8192
263.501,2.77556e-17,0,8192,8192
263.551,5.55112e-17,0,8192,8192
263.601,5.55112e-17,0,8192,8192
263.65,0,0,8192,8192
263.7,0,0,8192,8192
263.753,0,0,8192,8192
263.803,0,0,8192,8192
263.852,0,0,8192,8192
263.902,0,0,8192,8192
263.952,0,0,8192,8192
264.002,0,0,8192,8192
264.052,0,0,8192,8192
264.101,0,0,8192,8192
264.151,0,0,8192,8192
264.201,0,0,8192,8192
264.251,0,0,8192,8192
264.301,2.77556e-17,0,8192,8192
264.35,2.77556e-17,0,8192,8192
264.4,2.77556e-17,0,8192,8192
264.45,2.77556e-17,0,8192,8192
264.503,2.77556e-17,0,8192,8192
264.553,2.77556e-17,0,8192,8192
264.602,2.77556e-17,0,8192,8192
264.652,2.77556e-17,0,8192,8192
264.702,2.77556e-17,0,8192,8192
264.752,2.77556e-17,0,8192,8192
264.802,2.77556e-17,0,8192,8192
264.851,2.77556e-17,0,8192,8192
264.901,2.77556e-17,0,8192,8192
264.951,2.77556e-17,0,8192,8192
265.001,2.77556e-17,0,8192,8192
265.051,2.77556e-17,0,8192,8192
265.1,2.77556e-17,0,8192,8192
265.15,2.77556e-17,0,8192,8192
265.203,2.77556e-17,0,8192,8192
265.253,2.77556e-17,0,8192,8192
265.302,2.77556e-17,0,8192,8192
265.352,2.77556e-17,0,8192,8192
265.402,2.77556e-17,0,8192,8192
265.452,2.77556e-17,0,8192,8192
265.502,2.77556e-17,0,8192,8192
265.551,2.77556e-17,0,8192,8192
265.601,2.77556e-17,0,8192,8192
265.651,2.77556e-17,0,8192,8192
265.701,5.55112e-17,0,8192,8192
265.751,5.55112e-17,0,8192,8192
265.8,2.77556e-17,0,8192,8192
265.85,2.77556e-17,0,8192,8192
265.9,2.77556e-17,0,8192,8192
265.953,2.77556e-17,0,8192,8192
266.003,2.77556e-17,0,8192,8192
266.052,2.77556e-17,0,8192,8192
266.102,2.77556e-17,0,8192,8192
266.152,2.77556e-17,0,8192,8192
266.202,2.77556e-17,0,8192,8192
266.252,2.77556e-17,0,8192,8192
266.301,2.77556e-17,0,8192,8192
266.351,2.77556e-17,0,8192,8192
266.401,2.77556e-17,0,8192,8192
266.451,2.77556e-17,0,8192,8192
266.501,2.77556e-17,0,8192,8192
266.55,2.77556e-17,0,8192,8192
266.6,2.77556e-17,0,8192,8192
266.653,2.77556e-17,0,8192,8192
266.703,2.77556e-17,0,8192,8192
266.752,2.77556e-17,0,8192,8192
266.802,2.77556e-17,0,8192,8192
266.852,2.77556e-17,0,8192,8192
266.902,2.77556e-17,0,8192,8192
266.952,-2.77556e-17,0,8192,8192
267.001,-2.77556e-17,0,8192,8192
267.051,-2.77556e-17,0,8192,8192
267.101,-2.77556e-17,0,8192,8192
267.151,0,0,8192,8192
267.201,0,0,8192,8192
267.25,-2.77556e-17,0,8192,8192
267.3,0,0,8192,8192
267.353,-2.77556e-17,0,8192,8192
267.403,-2.77556e-17,0,8192,8192
267.453,-2.77556e-17,0,8192,8192
267.502,-2.77556e-17,0,8192,8192
267.552,-2.77556e-17,0,8192,8192
267.602,-2.77556e-17,0,8192,8192
267.652,-2.77556e-17,0,8192,8192
267.702,-2.77556e-17,0,8192,8192
267.751,0,0,8192,8192
267.801,0,0,8192,8192
267.851,0,0,8192,8192
267.901,0,0,8192,8192
267.95,0,0,8192,8192
268,0,0,8192,8192
268.05,0,0,8192,8192
268.1,0,0,9308,9308
268.151,0,0,10196,10196
268.2,0,0,11108,11108
268.25,0,0,11948,11948
268.301,0,0,12836,12836
268.351,0,0,13748,13748
268.4,0,0,14588,14588
268.45,0,0,15428,15428
268.501,0,0,16316,16316
268.55,0,0,17212,17212
268.6,0,0,18068,18068
268.65,0,0,18908,18908
268.701,0,0,19796,19796
268.75,0,0,20636,20636
268.8,0,0,21476,21476
268.851,0,0,22388,22388
268.9,0,0,23228,23228
268.95,0,0,24068,24068
269,0,0,24908,24908
269.051,0,0,25796,25796
269.1,0,0,26636,26636
269.15,0,0,27476,27476
269.201,0,0,28316,28316
269.251,0,0,29228,29228
269.3,0,0,30068,30068
269.35,0,0,30908,30908
269.401,0,0,31748,31748
269.45,0,0,32588,32588
269.5,0,0,33428,33428
269.55,0,0,34268,34268
269.601,0,0,35108,35108
269.65,0,0,35948,35948
269.7,0,0,36716,36716
269.751,0,0,37556,37556
269.8,0,0,38036,38036
269.85,0,0,38876,38876
269.9,0,0,39716,39716
269.951,0,0,40556,40556
270,0,0,41396,41396
270.05,0,0,42236,42236
270.1,0,0,43076,43076
270.151,0,0,43916,43916
270.2,0,0,44756,44756
270.25,0,0,45596,45596
270.301,0,0,46436,46436
270.35,0,0,47276,47276
270.4,0,0,48116,48116
270.45,0,0,48908,48908
270.501,0,0,49748,49748
270.55,0,0,50588,50588
270.6,0,0,51356,51356
270.651,0,0,52196,52196
270.701,0,0,52988,52988
270.75,0,0,53828,53828
270.8,0,0,54596,54596
270.851,0,0,55388,55388
270.9,0,0,56228,56228
270.95,0,0,56996,56996
271,0,0,57788,57788
271.051,0,0,58556,58556
271.1,0,0,59372,59372
271.15,0,0,60188,60188
271.201,0,0,60956,60956
271.25,0,0,61748,61748
271.3,0,0,62492,62492
271.35,0,0,63236,63236
271.401,0,0,64028,64028
271.45,0,0,64796,64796
271.5,0,0,65588,65588
271.551,0,0,66356,66356
271.601,0,0,67076,67076
271.65,0,0,67868,67868
271.7,0,0,68588,68588
271.751,0,0,69356,69356
271.8,0,0,70076,70076
271.85,0,0,70868,70868
271.9,0,0,71588,71588
271.951,0,0,72308,72308
272,0,0,73076,73076
272.05,0,0,73796,73796
272.101,0,0,74516,74516
272.15,0,0,75236,75236
272.2,0,0,75956,75956
272.25,0,0,76676,76676
272.301,0,0,77452,77452
272.35,0,0,78116,78116
272.4,0,0,78836,78836
272.451,0,0,79556,79556
272.501,0,0,80276,80276
272.55,0,0,80996,80996
272.6,0,0,81668,81668
272.651,0,0,82388,82388
272.7,0,0,83108,83108
272.75,0,0,83756,83756
272.8,0,0,84476,84476
272.851,0,0,85148,85148
272.9,0,0,85868,85868
272.95,0,0,86516,86516
273.001,1.55431e-15,0,87236,87236
273.05,3.21965e-15,0,87908,87908
273.1,5.02376e-15,0,88556,88556
273.15,6.82787e-15,0,89228,89228
273.201,8.6875e-15,0,89948,89948
273.25,1.02973e-14,0,90596,90596
273.3,1.19904e-14,0,91268,91268
273.35,1.38223e-14,0,91972,91972
273.401,1.56819e-14,0,92636,92636
273.45,1.75138e-14,0,93308,93308
273.5,1.92346e-14,0,93956,93956
273.551,2.10387e-14,0,94628,94628
273.6,2.28706e-14,0,95332,95332
273.65,2.4758e-14,0,95996,95996
273.7,2.66176e-14,0,96668,96668
273.751,3.07532e-14,0,97316,97316
273.8,4.26603e-14,0,97988,97988
273.85,6.81954e-14,0,98636,98636
273.901,1.05027e-13,0,99308,99308
273.951,1.2193e-13,0,99956,99956
274,2.7145e-14,0,100628,100628
274.05,-3.67317e-13,0,101276,101276
274.101,-1.37335e-12,0,101948,101948
274.15,-3.31077e-12,0,102596,102596
274.2,-6.46525e-12,0,103268,103268
274.25,-3.1859e-11,0,103916,103916
274.301,-1.51522e-10,0,104588,104588
274.35,-3.49474e-10,0,105236,105236
274.4,-4.71124e-10,0,105892,105892
274.451,-3.63066e-10,0,106508,106508
274.5,-7.35973e-11,0,107156,107156
274.55,2.1197e-10,0,107828,107828
274.6,3.25394e-10,0,108476,108476
274.651,2.19924e-10,0,109148,109148
274.7,1.11124e-11,0,109748,109748
274.75,-1.14982e-10,0,110396,110396
274.801,-4.87104e-11,0,111068,111068
274.851,1.41129e-10,0,111716,111716
274.9,2.79066e-10,0,112316,112316
274.95,2.47063e-10,0,112988,112988
275.001,8.64055e-11,0,113636,113636
275.05,-4.28913e-11,0,114236,114236
275.1,-2.96309e-11,0,114908,114908
275.15,1.02577e-10,0,115556,115556
275.201,2.33493e-10,0,116156,116156
275.25,2.56013e-10,0,116828,116828
275.3,1.68131e-10,0,117428,117428
275.351,4.42358e-11,0,118076,118076
275.4,-2.33436e-11,0,118748,118748
275.45,1.05048e-11,0,119348,119348
275.5,1.34478e-10,0,119948,119948
275.551,2.77844e-10,0,120596,120596
275.6,3.19749e-10,0,121268,121268
275.65,1.79578e-10,0,121868,121868
275.7,-8.06291e-11,0,122468,122468
275.751,-2.26171e-10,0,123068,123068
275.8,-1.97364e-11,0,123668,123668
275.85,4.61463e-10,0,124196,124196
275.901,7.4792e-10,0,124796,124796
275.95,3.38663e-10,0,125348,125348
276,-6.08515e-10,0,125876,125876
276.05,-1.04196e-09,0,126428,126428
276.101,4.6508e-10,0,126908,126908
276.15,4.56871e-09,0,127436,127436
276.2,1.07219e-08,0,127916,127916
276.251,1.76352e-08,0,128396,128396
276.301,2.37204e-08,0,128876,128876
276.35,2.83034e-08,0,129356,129356
276.4,3.13708e-08,0,129788,129788
276.451,3.37254e-08,0,130268,130268
276.5,3.67257e-08,0,131072,131072
276.55,4.19016e-08,0,131040,131040
276.6,5.00672e-08,0,130816,130816
276.651,6.12425e-08,0,130680,130680
276.7,7.45045e-08,0,131072,131072
276.75,8.98975e-08,0,131072,131072
276.801,1.0857e-07,0,131072,131072
276.85,1.31483e-07,0,131072,131072
276.9,1.60344e-07,0,131072,131072
276.95,1.96109e-07,0,131072,131072
277.001,2.3956e-07,0,131072,131072
277.05,2.88364e-07,0,131072,131072
277.1,3.41011e-07,0,131072,131072
277.151,3.96228e-07,0,131072,131072
277.201,4.51743e-07,0,131008,131008
277.25,5.09438e-07,0,131072,131072
277.3,5.70725e-07,0,131040,131040
277.351,6.36216e-07,0,131072,131072
277.4,7.01045e-07,0,131072,131072
277.45,7.61788e-07,0,131072,131072
277.5,8.14512e-07,0,131072,131072
277.551,8.57286e-07,0,131072,131072
277.6,8.88052e-07,0,131072,131072
277.65,9.08303e-07,0,131072,131072
277.701,9.2023e-07,0,131072,131072
277.75,9.26001e-07,0,131072,131072
277.8,9.27706e-07,0,131072,131072
277.85,9.26104e-07,0,131072,131072
277.901,9.20924e-07,0,131072,131072
277.95,9.11553e-07,0,131072,131072
278,8.96855e-07,0,131072,131072
278.051,8.75269e-07,0,131072,131072
278.101,8.46338e-07,0,131072,131072
278.15,8.09123e-07,0,131072,131072
278.2,7.63751e-07,0,131072,131072
278.251,7.10832e-07,0,131072,131072
278.3,6.54617e-07,0,131072,131072
278.35,5.97523e-07,0,131072,131072
278.4,5.42137e-07,0,131072,131072
278.451,4.89285e-07,0,131072,131072
278.5,4.41164e-07,0,131072,131072
278.55,3.96978e-07,0,131072,131072
278.601,3.55697e-07,0,131072,131072
278.65,3.17833e-07,0,131072,131072
278.7,2.82102e-07,0,131072,131072
278.75,2.4809e-07,0,131072,131072
278.801,2.1548e-07,0,131072,131072
278.85,1.86196e-07,0,131072,131072
278.9,1.6127e-07,0,131072,131072
278.95,1.41696e-07,0,131072,131072
279.001,1.26584e-07,0,131072,131072
279.05,1.13989e-07,0,131072,131072
279.1,1.01195e-07,0,131072,131072
279.151,8.71387e-08,0,131072,131072
279.2,7.33285e-08,0,131072,131072
279.25,6.13795e-08,0,131072,131072
279.3,5.24178e-08,0,131072,131072
279.351,4.63245e-08,0,131072,131072
279.4,4.23538e-08,0,131072,131072
279.45,3.90879e-08,0,131072,131072
279.501,3.51745e-08,0,131072,131072
279.551,3.00253e-08,0,131072,131072
279.6,2.40129e-08,0,131072,131072
279.65,1.85289e-08,0,131072,131072
279.701,1.49845e-08,0,131072,131072
279.75,1.40232e-08,0,131072,131072
279.8,1.50371e-08,0,131072,131072
279.85,1.70466e-08,0,131072,131072
279.901,1.9363e-08,0,131072,131072
279.95,2.16836e-08,0,131072,131072
280,2.4108e-08,0,131072,131072
280.051,2.67914e-08,0,131072,131072
280.1,2.97079e-08,0,131072,131072
280.15,3.28651e-08,0,131072,131072
280.2,3.61447e-08,0,131072,131072
280.251,3.94899e-08,0,131072,131072
280.3,4.28902e-08,0,131072,131072
280.35,4.65411e-08,0,131072,131072
280.401,5.0479e-08,0,131072,131072
280.451,5.4505e-08,0,131072,131072
280.5,5.86737e-08,0,131072,131072
280.55,6.30011e-08,0,131072,131072
280.601,6.74714e-08,0,131072,131072
280.65,7.1783e-08,0,131072,131072
280.7,7.59065e-08,0,131072,131072
280.75,8.00297e-08,0,131072,131072
280.801,8.47412e-08,0,131072,131072
280.85,9.05206e-08,0,131072,131072
280.9,9.77478e-08,0,131072,131072
280.951,1.06324e-07,0,131072,131072
281,1.1528e-07,0,131072,131072
281.05,1.23874e-07,0,131072,131072
281.1,1.31501e-07,0,131072,131072
281.151,1.38159e-07,0,131072,131072
281.2,1.44139e-07,0,131072,131072
281.25,1.50421e-07,0,131072,131072
281.3,1.57948e-07,0,131072,131072
281.351,1.67555e-07,0,131072,131072
281.4,1.79247e-07,0,131072,131072
281.45,1.93202e-07,0,131072,131072
281.501,2.09854e-07,0,131072,131072
281.55,2.29267e-07,0,131072,131072
281.6,2.52543e-07,0,131072,131072
281.65,2.80618e-07,0,131072,131072
281.701,3.14642e-07,0,131072,131072
281.75,3.53609e-07,0,131072,131072
281.8,3.9722e-07,0,131072,131072
281.851,4.4494e-07,0,131072,131072
281.901,4.94152e-07,0,131072,131072
281.95,5.44838e-07,0,131072,131072
282,5.96896e-07,0,131072,131072
282.051,6.51071e-07,0,131072,131072
282.1,7.0501e-07,0,131072,131072
282.15,7.57564e-07,0,131072,131072
282.2,8.05944e-07,0,131072,131072
282.251,8.47807e-07,0,131072,131072
282.3,8.79749e-07,0,131072,131072
282.35,9.01486e-07,0,131072,131072
282.401,9.13445e-07,0,131072,131072
282.45,9.16602e-07,0,131072,131072
282.5,9.12938e-07,0,131072,131072
282.55,9.04033e-07,0,131072,131072
282.601,8.90666e-07,0,131072,131072
282.65,8.73524e-07,0,131072,131072
282.7,8.52131e-07,0,131072,131072
282.751,8.25358e-07,0,131072,131072
282.801,7.93139e-07,0,131072,131072
282.85,7.54416e-07,0,131072,131072
282.9,7.08897e-07,0,131072,131072
282.951,6.56167e-07,0,131072,131072
283,5.99015e-07,0,131072,131072
283.05,5.3871e-07,0,131072,131072
283.1,4.77601e-07,0,131072,131072
283.151,4.17021e-07,0,131072,131072
283.2,3.60384e-07,0,131072,131072
283.25,3.07719e-07,0,131072,131072
283.301,2.58622e-07,0,131072,131072
283.35,2.14314e-07,0,131072,131072
283.4,1.73605e-07,0,131072,131072
283.45,1.36024e-07,0,131072,131072
283.501,1.00827e-07,0,131072,131072
283.55,6.91622e-08,0,131072,131072
283.6,4.10167e-08,0,131072,131072
283.65,1.70302e-08,0,131072,131072
283.701,-2.76916e-09,0,131072,131072
283.75,-1.82794e-08,0,131072,131072
283.8,-3.09792e-08,0,131072,131072
283.851,-4.23187e-08,0,131072,131072
283.9,-5.27224e-08,0,131072,131072
283.95,-6.2261e-08,0,131072,131072
284,-7.02647e-08,0,131072,131072
284.051,-7.61404e-08,0,131072,131072
284.1,-7.95389e-08,0,131072,131072
284.15,-8.09973e-08,0,131072,131072
284.201,-8.13626e-08,0,131072,131072
284.251,-8.15115e-08,0,131072,131072
284.3,-8.1966e-08,0,131072,131072
284.35,-8.26492e-08,0,131072,131072
284.401,-8.29879e-08,0,131072,131072
284.45,-8.22769e-08,0,131072,131072
284.5,-8.01518e-08,0,131072,131072
284.55,-7.67331e-08,0,131072,131072
284.601,-7.24316e-08,0,131072,131072
284.65,-6.79129e-08,0,131072,131072
284.7,-6.34867e-08,0,131072,131072
284.751,-5.92528e-08,0,131072,131072
284.8,-5.53682e-08,0,131072,131072
284.85,-5.17792e-08,0,131072,131072
284.9,-4.85202e-08,0,131072,131072
284.951,-4.5597e-08,0,131072,131072
285,-4.31056e-08,0,131072,131072
285.05,-4.09535e-08,0,131072,131072
285.101,-3.90378e-08,0,131072,131072
285.151,-3.73595e-08,0,131072,131072
285.2,-3.58795e-08,0,131072,131072
285.25,-3.46115e-08,0,131072,131072
285.301,-3.3551e-08,0,131072,131072
285.35,-3.27221e-08,0,131072,131072
285.4,-3.20898e-08,0,131072,131072
285.45,-3.16317e-08,0,131072,131072
285.501,-3.13219e-08,0,131072,131072
285.55,-3.11484e-08,0,131072,131072
285.6,-3.10862e-08,0,131072,131072
285.651,-3.11178e-08,0,131072,131072
285.7,-3.12235e-08,0,131072,131072
285.75,-3.13853e-08,0,131072,131072
285.8,-3.15867e-08,0,131072,131072
285.851,-3.18181e-08,0,131072,131072
285.9,-3.20641e-08,0,131072,131072
285.95,-3.23228e-08,0,131072,131072
286,-3.2591e-08,0,131072,131072
286.051,-3.28689e-08,0,131072,131072
286.1,-3.3143e-08,0,131072,131072
286.15,-3.34107e-08,0,131072,131072
286.201,-3.36698e-08,0,131072,131072
286.25,-3.39089e-08,0,131072,131072
286.3,-3.41309e-08,0,131072,131072
286.35,-3.43373e-08,0,131072,131072
286.401,-3.45326e-08,0,131072,131072
286.45,-3.47119e-08,0,131072,131072
286.5,-3.48769e-08,0,131072,131072
286.551,-3.50265e-08,0,131072,131072
286.6,-3.5153e-08,0,131072,131072
286.65,-3.52561e-08,0,131072,131072
286.7,-3.5335e-08,0,131072,131072
286.751,-3.53909e-08,0,131072,131072
286.8,-3.54237e-08,0,131072,131072
286.85,-3.54359e-08,0,131072,131072
286.9,-3.54291e-08,0,131072,131072
286.951,-3.54047e-08,0,131072,131072
287,-3.53655e-08,0,131072,131072
287.05,-3.53139e-08,0,131072,131072
287.101,-3.52517e-08,0,131072,131072
287.15,-3.51832e-08,0,131072,131072
287.2,-3.51096e-08,0,131072,131072
287.25,-3.50328e-08,0,131072,131072
287.301,-3.49529e-08,0,131072,131072
287.35,-3.48736e-08,0,131072,131072
287.4,-3.47948e-08,0,131072,131072
287.451,-3.47167e-08,0,131072,131072
287.501,-3.46424e-08,0,131072,131072
287.55,-3.45718e-08,0,131072,131072
287.6,-3.45057e-08,0,131072,131072
287.651,-3.44438e-08,0,131072,131072
287.7,-3.43885e-08,0,131072,131072
287.75,-3.43393e-08,0,131072,131072
287.8,-3.42965e-08,0,131072,131072
287.851,-3.426e-08,0,131072,131072
287.9,-3.42308e-08,0,131072,131072
287.95,-3.42084e-08,0,131072,131072
288.001,-3.41927e-08,0,131072,131072
288.05,-3.41841e-08,0,131072,131072
288.1,-3.41824e-08,0,131072,131072
288.15,-3.41876e-08,0,131072,131072
288.201,-3.42004e-08,0,131072,131072
288.25,-3.42206e-08,0,131072,131072
288.3,-3.42487e-08,0,131072,131072
288.351,-3.42851e-08,0,131072,131072
288.401,-3.43285e-08,0,131072,131072
288.45,-3.43787e-08,0,131072,131072
288.5,-3.44353e-08,0,131072,131072
288.551,-3.44988e-08,0,131072,131072
288.6,-3.45672e-08,0,131072,131072
288.65,-3.46417e-08,0,131072,131072
288.7,-3.47229e-08,0,131072,131072
288.751,-3.48131e-08,0,131072,131072
288.8,-3.49108e-08,0,131072,131072
288.85,-3.50185e-08,0,131072,131072
288.901,-3.51396e-08,0,131072,131072
288.95,-3.52726e-08,0,131072,131072
289,-3.54214e-08,0,131072,131072
289.05,-3.55884e-08,0,131072,131072
289.101,-3.57787e-08,0,131072,131072
289.15,-3.5989e-08,0,131072,131072
289.2,-3.62233e-08,0,131072,131072
289.251,-3.64868e-08,0,131072,131072
289.301,-3.67723e-08,0,131072,131072
289.35,-3.70837e-08,0,131072,131072
289.4,-3.74206e-08,0,131072,131072
289.451,-3.77874e-08,0,131072,131072
289.5,-3.81715e-08,0,131072,131072
289.55,-3.8575e-08,0,131072,131072
289.6,-3.89936e-08,0,131072,131072
289.651,-3.94284e-08,0,131072,131072
289.7,-3.98609e-08,0,131072,131072
289.75,-4.02915e-08,0,131072,131072
289.801,-4.07211e-08,0,131072,131072
289.85,-4.11324e-08,0,131072,131072
289.9,-4.1528e-08,0,131072,131072
289.95,-4.19046e-08,0,131072,131072
290.001,-4.22641e-08,0,131072,131072
290.05,-4.2593e-08,0,131072,131072
290.1,-4.28932e-08,0,131072,131072
290.15,-4.31608e-08,0,131072,131072
290.201,-4.33951e-08,0,131072,131072
290.25,-4.35856e-08,0,131072,131072
290.3,-4.37329e-08,0,131072,131072
290.351,-4.38362e-08,0,131072,131072
290.4,-4.38917e-08,0,131072,131072
290.45,-4.39012e-08,0,131072,131072
290.5,-4.38655e-08,0,131072,131072
290.551,-4.37843e-08,0,131072,131072
290.6,-4.36615e-08,0,131072,131072
290.65,-4.34976e-08,0,131072,131072
290.701,-4.32905e-08,0,131072,131072
290.751,-4.30471e-08,0,131072,131072
290.8,-4.27648e-08,0,131072,131072
290.85,-4.24433e-08,0,131072,131072
290.901,-4.20764e-08,0,131072,131072
290.95,-4.16736e-08,0,131072,131072
291,-4.12289e-08,0,131072,131072
291.05,-4.07416e-08,0,131072,131072
291.101,-4.02031e-08,0,131072,131072
291.15,-3.96289e-08,0,131072,131072
291.2,-3.90114e-08,0,131072,131072
291.251,-3.83407e-08,0,131072,131072
291.3,-3.76367e-08,0,131072,131072
291.35,-3.68914e-08,0,131072,131072
291.4,-3.61071e-08,0,131072,131072
291.451,-3.52758e-08,0,131072,131072
291.5,-3.44271e-08,0,131072,131072
291.55,-3.35558e-08,0,131072,131072
291.601,-3.2656e-08,0,131072,131072
291.651,-3.17611e-08,0,131072,131072
291.7,-3.08647e-08,0,131072,131072
291.75,-2.99731e-08,0,131072,131072
291.801,-2.90785e-08,0,131072,131072
291.85,-2.82116e-08,0,131072,131072
291.9,-2.73634e-08,0,131072,131072
291.95,-2.6538e-08,0,131072,131072
292.001,-2.57276e-08,0,131072,131072
292.05,-2.49601e-08,0,131072,131072
292.1,-2.42279e-08,0,131072,131072
292.151,-2.35254e-08,0,131072,131072
292.2,-2.28772e-08,0,131072,131072
292.25,-2.2276e-08,0,131072,131072
292.3,-2.17238e-08,0,131072,131072
292.351,-2.12144e-08,0,131072,131072
292.4,-2.0762e-08,0,131072,131072
292.45,-2.03569e-08,0,131072,131072
292.5,-1.99964e-08,0,131072,131072
292.551,-1.9673e-08,0,131072,131072
292.6,-1.93926e-08,0,131072,131072
292.65,-1.91471e-08,0,131072,131072
292.701,-1.89305e-08,0,131072,131072
292.75,-1.87461e-08,0,131072,131072
292.8,-1.85878e-08,0,131072,131072
292.85,-1.84525e-08,0,131072,131072
292.901,-1.83355e-08,0,131072,131072
292.95,-1.82369e-08,0,131072,131072
293,-1.8152e-08,0,131072,131072
293.051,-1.80771e-08,0,131072,131072
293.101,-1.80127e-08,0,131072,131072
293.15,-1.7956e-08,0,131072,131072
293.2,-1.79055e-08,0,131072,131072
293.251,-1.78591e-08,0,131072,131072
293.3,-1.78165e-08,0,131072,131072
293.35,-1.77754e-08,0,131072,131072
293.4,-1.77351e-08,0,131072,131072
293.451,-1.76943e-08,0,131072,131072
293.5,-1.76542e-08,0,131072,131072
293.55,-1.76137e-08,0,131072,131072
293.601,-1.75717e-08,0,131072,131072
293.65,-1.75281e-08,0,131072,131072
293.7,-1.74808e-08,0,131072,131072
293.75,-1.74285e-08,0,131072,131072
293.801,-1.73688e-08,0,131072,131072
293.85,-1.73028e-08,0,131072,131072
293.9,-1.72292e-08,0,131072,131072
293.951,-1.71463e-08,0,131072,131072
294.001,-1.70561e-08,0,131072,131072
294.05,-1.69572e-08,0,131072,131072
294.1,-1.68493e-08,0,131072,131072
294.151,-1.67307e-08,0,131072,131072
294.2,-1.66054e-08,0,131072,131072
294.25,-1.64727e-08,0,131072,131072
294.3,-1.63335e-08,0,131072,131072
294.351,-1.61866e-08,0,131072,131072
294.4,-1.60362e-08,0,131072,131072
294.45,-1.58804e-08,0,131072,131072
294.501,-1.57168e-08,0,131072,131072
294.55,-1.55507e-08,0,131072,131072
294.6,-1.5381e-08,0,131072,131072
294.65,-1.5209e-08,0,131072,131072
294.701,-1.50331e-08,0,131072,131072
294.75,-1.48584e-08,0,131072,131072
294.8,-1.46812e-08,0,131072,131072
294.85,-1.44996e-08,0,131072,131072
294.901,-1.43086e-08,0,131072,131072
294.95,-1.41116e-08,0,131072,131072
295,-1.39051e-08,0,131072,131072
295.051,-1.36859e-08,0,131072,131072
295.1,-1.34614e-08,0,131072,131072
295.15,-1.32299e-08,0,131072,131072
295.2,-1.29928e-08,0,131072,131072
295.251,-1.27472e-08,0,131072,131072
295.3,-1.25003e-08,0,131072,131072
295.35,-1.22473e-08,0,131072,131072
295.401,-1.19825e-08,0,131072,131072
295.451,-1.17108e-08,0,131072,131072
295.5,-1.14252e-08,0,131072,131072
295.55,-1.11226e-08,0,131072,131072
295.601,-1.07949e-08,0,131072,131072
295.65,-1.04492e-08,0,131072,131072
295.7,-1.00785e-08,0,131072,131072
295.75,-9.68101e-09,0,131072,131072
295.801,-9.2487e-09,0,131072,131072
295.85,-8.79271e-09,0,131072,131072
295.9,-8.30576e-09,0,131072,131072
295.951,-7.77889e-09,0,131072,131072
296,-7.2265e-09,0,131072,131072
296.05,-6.64086e-09,0,131072,131072
296.1,-6.02258e-09,0,131072,131072
296.151,-5.36392e-09,0,131072,131072
296.2,-4.68771e-09,0,131072,131072
296.25,-3.98979e-09,0,131072,131072
296.301,-3.26567e-09,0,131072,131072
296.351,-2.54275e-09,0,131072,131072
296.4,-1.81669e-09,0,131072,131072
296.45,-1.09305e-09,0,131072,131072
296.501,-3.66551e-10,0,131072,131072
296.55,3.36775e-10,0,131072,131072
296.6,1.02284e-09,0,131072,131072
296.65,1.68724e-09,0,131072,131072
296.701,2.33514e-09,0,131072,131072
296.75,2.94412e-09,0,131072,131072
296.8,3.52044e-09,0,131072,131072
296.851,4.06857e-09,0,131072,131072
296.9,4.56931e-09,0,131072,131072
296.95,5.02761e-09,0,131072,131072
297,5.44048e-09,0,131072,131072
297.051,5.81066e-09,0,131072,131072
297.1,6.12634e-09,0,131072,131072
297.15,6.39357e-09,0,131072,131072
297.2,6.61399e-09,0,131072,131072
297.251,6.79254e-09,0,131072,131072
297.3,6.92731e-09,0,131072,131072
297.35,7.02466e-09,0,131072,131072
297.401,7.08867e-09,0,131072,131072
297.45,7.12085e-09,0,131072,131072
297.5,7.12554e-09,0,131072,131072
297.55,7.10591e-09,0,131072,131072
297.601,7.06437e-09,0,131072,131072
297.65,7.00533e-09,0,131072,131072
297.7,6.93142e-09,0,131072,131072
297.751,6.84415e-09,0,131072,131072
297.801,6.74862e-09,0,131072,131072
297.85,6.64583e-09,0,131072,131072
297.9,6.53764e-09,0,131072,131072
297.951,6.42404e-09,0,131072,131072
298,6.30992e-09,0,131072,131072
298.05,6.19512e-09,0,131072,131072
298.1,6.08091e-09,0,131072,131072
298.151,5.96664e-09,0,131072,131072
298.2,5.85631e-09,0,131072,131072
298.25,5.74868e-09,0,131072,131072
298.301,5.64267e-09,0,131072,131072
298.35,5.5419e-09,0,131072,131072
298.4,5.44555e-09,0,131072,131072
298.45,5.35454e-09,0,131072,131072
298.501,5.26856e-09,0,131072,131072
298.55,5.1908e-09,0,131072,131072
298.6,5.1204e-09,0,131072,131072
298.651,5.05661e-09,0,131072,131072
298.701,5.0012e-09,0,131072,131072
298.75,4.95299e-09,0,131072,131072
298.8,4.91169e-09,0,131072,131072
298.851,4.87637e-09,0,131072,131072
298.9,4.84735e-09,0,131072,131072
298.95,4.8231e-09,0,131072,131072
299,4.80248e-09,0,131072,131072
299.051,4.78405e-09,0,131072,131072
299.1,4.76733e-09,0,131072,131072
299.15,4.75128e-09,0,131072,131072
299.201,4.7351e-09,0,131072,131072
299.25,4.71868e-09,0,131072,131072
299.3,4.70106e-09,0,131072,131072
299.35,4.68132e-09,0,131072,131072
299.401,4.65815e-09,0,131072,131072
299.45,4.63153e-09,0,131072,131072
299.5,4.60104e-09,0,131072,131072
299.551,4.56672e-09,0,131072,131072
299.601,4.53069e-09,0,131072,131072
299.65,4.49386e-09,0,131072,131072
299.7,4.45748e-09,0,131072,131072
299.751,4.42185e-09,0,131072,131072
299.8,4.38823e-09,0,131072,131072
299.85,4.35578e-09,0,131072,131072
299.9,4.32382e-09,0,131072,131072
299.951,4.29113e-09,0,131072,131072
300,4.25806e-09,0,131072,131072
300.05,4.22392e-09,0,131072,131072
300.101,4.18844e-09,0,131072,131072
300.15,4.15332e-09,0,131072,131072
300.2,4.11903e-09,0,131072,131072
300.25,4.08662e-09,0,131072,131072
300.301,4.05658e-09,0,131072,131072
300.35,4.03029e-09,0,131072,131072
300.4,4.00731e-09,0,131072,131072
300.45,3.98717e-09,0,131072,131072
300.501,3.96885e-09,0,131072,131072
300.55,3.95196e-09,0,131072,131072
300.6,3.93543e-09,0,131072,131072
300.651,3.91848e-09,0,131072,131072
300.7,3.90138e-09,0,131072,131072
300.75,3.88391e-09,0,131072,131072
300.8,3.86626e-09,0,131072,131072
300.851,3.84829e-09,0,131072,131072
300.9,3.83047e-09,0,131072,131072
300.95,3.81226e-09,0,131072,131072
301.001,3.793e-09,0,131072,131072
301.051,3.77293e-09,0,131072,131072
301.1,3.75173e-09,0,131072,131072
301.15,3.7296e-09,0,131072,131072
301.201,3.70662e-09,0,131072,131072
301.25,3.68379e-09,0,131072,131072
301.3,3.66092e-09,0,131072,131072
301.35,3.6379e-09,0,131072,131072
301.401,3.61409e-09,0,131072,131072
301.45,3.58993e-09,0,131072,131072
301.5,3.56502e-09,0,131072,131072
301.551,3.53916e-09,0,131072,131072
301.6,3.51341e-09,0,131072,131072
301.65,3.4877e-09,0,131072,131072
301.7,3.46218e-09,0,131072,131072
301.751,3.43641e-09,0,131072,131072
301.8,3.41088e-09,0,131072,131072
301.85,3.38497e-09,0,131072,131072
301.901,3.35807e-09,0,131072,131072
301.951,3.3309e-09,0,131072,131072
302,3.30311e-09,0,131072,131072
302.05,3.27483e-09,0,131072,131072
302.101,3.24575e-09,0,131072,131072
302.15,3.21681e-09,0,131072,131072
302.2,3.18766e-09,0,131072,131072
302.25,3.15835e-09,0,131072,131072
302.301,3.12849e-09,0,131072,131072
302.35,3.09896e-09,0,131072,131072
302.4,3.06934e-09,0,131072,131072
302.451,3.03917e-09,0,131072,131072
302.5,3.00933e-09,0,131072,131072
302.55,2.97936e-09,0,131072,131072
302.6,2.94927e-09,0,131072,131072
302.651,2.91861e-09,0,131072,131072
302.7,2.88826e-09,0,131072,131072
302.75,2.85777e-09,0,131072,131072
302.8,2.82714e-09,0,131072,131072
302.851,2.7959e-09,0,131072,131072
302.9,2.76493e-09,0,131072,131072
302.95,2.73376e-09,0,131072,131072
303.001,2.70189e-09,0,131072,131072
303.05,2.67023e-09,0,131072,131072
303.1,2.63827e-09,0,131072,131072
303.15,2.60598e-09,0,131072,131072
303.201,2.57284e-09,0,131072,131072
303.25,2.53976e-09,0,131072,131072
303.3,2.50624e-09,0,131072,131072
303.351,2.47174e-09,0,131072,131072
303.401,2.43722e-09,0,131072,131072
303.45,2.40217e-09,0,131072,131072
303.5,2.36656e-09,0,131072,131072
303.551,2.32982e-09,0,131072,131072
303.6,2.293e-09,0,131072,131072
303.65,2.25556e-09,0,131072,131072
303.7,2.21751e-09,0,131072,131072
303.751,2.17829e-09,0,131072,131072
303.8,2.13905e-09,0,131072,131072
303.85,2.09925e-09,0,131072,131072
303.901,2.05832e-09,0,131072,131072
303.95,2.01748e-09,0,131072,131072
304,1.97619e-09,0,131072,131072
304.05,1.93448e-09,0,131072,131072
304.101,1.89179e-09,0,131072,131072
304.15,1.84939e-09,0,131072,131072
304.2,1.80674e-09,0,131072,131072
304.251,1.76325e-09,0,131072,131072
304.301,1.72027e-09,0,131072,131072
304.35,1.67722e-09,0,131072,131072
304.4,1.63417e-09,0,131072,131072
304.451,1.59056e-09,0,131072,131072
304.5,1.54773e-09,0,131072,131072
304.55,1.5051e-09,0,131072,131072
304.6,1.46274e-09,0,131072,131072
304.651,1.4201e-09,0,131072,131072
304.7,1.37845e-09,0,131072,131072
304.75,1.33724e-09,0,131072,131072
304.801,1.29591e-09,0,131072,131072
304.85,1.25571e-09,0,131072,131072
304.9,1.21608e-09,0,131072,131072
304.95,1.17706e-09,0,131072,131072
