250,0,0,2048,2048
250.006,0,0,2048,2048
250.053,0,0,2048,2048
250.105,0,0,2048,2048
250.152,0,0,2048,2048
250.205,0,0,2048,2048
250.252,0,0,2048,2048
250.305,0,0,2048,2048
250.352,0,0,2048,2048
250.404,2.77556e-17,0,2048,2048
250.451,0,0,2048,2048
250.504,0,0,2048,2048
250.551,0,0,2048,2048
250.603,0,0,2048,2048
250.65,2.77556e-17,0,2048,2048
250.703,0,0,2048,2048
250.756,0,0,2048,2048
250.803,0,0,2048,2048
250.855,-2.77556e-17,0,2048,2048
250.902,-2.77556e-17,0,2048,2048
250.955,0,0,2048,2048
251.002,0,0,2048,2048
251.055,0,0,2048,2048
251.101,0,0,2048,2048
251.154,0,0,2048,2048
251.201,0,0,2048,2048
251.254,2.77556e-17,0,2048,2048
251.301,5.55112e-17,0,2048,2048
251.353,5.55112e-17,0,2048,2048
251.4,0,0,2048,2048
251.453,0,0,2048,2048
251.506,0,0,2048,2048
251.553,0,0,2048,2048
251.605,0,0,2048,2048
251.652,0,0,2048,2048
251.705,0,0,2048,2048
251.752,0,0,2048,2048
251.804,0,0,2048,2048
251.851,2.77556e-17,0,2048,2048
251.904,2.77556e-17,0,2048,2048
251.951,2.77556e-17,0,2048,2048
252.004,2.77556e-17,0,2048,2048
252.05,5.55112e-17,0,2048,2048
252.103,5.55112e-17,0,2048,2048
252.15,5.55112e-17,0,2048,2048
252.203,5.55112e-17,0,2048,2048
252.256,5.55112e-17,0,2048,2048
252.302,5.55112e-17,0,2048,2048
252.355,5.55112e-17,0,2048,2048
252.402,5.55112e-17,0,2048,2048
252.455,5.55112e-17,0,2048,2048
252.502,5.55112e-17,0,2048,2048
252.554,0,0,2048,2048
252.601,0,0,2048,2048
252.654,-2.77556e-17,0,2048,2048
252.701,-2.77556e-17,0,2048,2048
252.754,-2.77556e-17,0,2048,2048
252.8,-2.77556e-17,0,2048,2048
252.853,-2.77556e-17,0,2048,2048
252.906,-2.77556e-17,0,2048,2048
252.953,-2.77556e-17,0,2048,2048
253.005,-2.77556e-17,0,2048,2048
253.052,-2.77556e-17,0,2048,2048
253.105,-2.77556e-17,0,2048,2048
253.152,-2.77556e-17,0,2048,2048
253.205,-2.77556e-17,0,2048,2048
253.251,-2.77556e-17,0,2048,2048
253.304,-2.77556e-17,0,2048,2048
253.351,2.77556e-17,0,2048,2048
253.404,5.55112e-17,0,2048,2048
253.451,2.77556e-17,0,2048,2048
253.503,2.77556e-17,0,2048,2048
253.55,2.77556e-17,0,2048,2048
253.603,0,0,2048,2048
253.656,-2.77556e-17,0,2048,2048
253.703,-2.77556e-17,0,2048,2048
253.755,-2.77556e-17,0,2048,2048
253.802,-2.77556e-17,0,2048,2048
253.855,-2.77556e-17,0,2048,2048
253.902,-2.77556e-17,0,2048,2048
253.954,-2.77556e-17,0,2048,2048
254.001,-2.77556e-17,0,2048,2048
254.054,-2.77556e-17,0,2048,2048
254.101,-2.77556e-17,0,2048,2048
254.154,0,0,2048,2048
254.201,2.77556e-17,0,2048,2048
254.253,2.77556e-17,0,2048,2048
254.3,0,0,2048,2048
254.353,2.77556e-17,0,2048,2048
254.406,0,0,2048,2048
254.452,2.77556e-17,0,2048,2048
254.505,0,0,2048,2048
254.552,-2.77556e-17,0,2048,2048
254.605,-2.77556e-17,0,2048,2048
254.652,-2.77556e-17,0,2048,2048
254.704,-2.77556e-17,0,2048,2048
254.751,-2.77556e-17,0,2048,2048
254.804,-2.77556e-17,0,2048,2048
254.851,-2.77556e-17,0,2048,2048
254.904,-2.77556e-17,0,2048,2048
254.95,-2.77556e-17,0,2048,2048
255.003,-2.77556e-17,0,2048,2048
255.05,-2.77556e-17,0,2048,2048
255.103,-2.77556e-17,0,2048,2048
255.155,-2.77556e-17,0,2048,2048
255.202,-2.77556e-17,0,2048,2048
255.255,0,0,2048,2048
255.302,0,0,2048,2048
255.355,0,0,2048,2048
255.402,0,0,2048,2048
255.454,0,0,2048,2048
255.501,-2.77556e-17,0,2048,2048
255.554,-2.77556e-17,0,2048,2048
255.601,-2.77556e-17,0,2048,2048
255.653,-2.77556e-17,0,2048,2048
255.7,0,0,2048,2048
255.753,2.77556e-17,0,2048,2048
255.806,5.55112e-17,0,2048,2048
255.853,2.77556e-17,0,2048,2048
255.905,0,0,2048,2048
255.952,0,0,2048,2048
256.005,2.77556e-17,0,2048,2048
256.052,2.77556e-17,0,2048,2048
256.105,2.77556e-17,0,2048,2048
256.151,2.77556e-17,0,2048,2048
256.204,2.77556e-17,0,2048,2048
256.251,2.77556e-17,0,2048,2048
256.304,2.77556e-17,0,2048,2048
256.351,2.77556e-17,0,2048,2048
256.403,8.32667e-17,0,2048,2048
256.45,8.32667e-17,0,2048,2048
256.503,5.55112e-17,0,2048,2048
256.556,8.32667e-17,0,2048,2048
256.603,5.55112e-17,0,2048,2048
256.655,8.32667e-17,0,2048,2048
256.702,5.55112e-17,0,2048,2048
256.755,5.55112e-17,0,2048,2048
256.802,5.55112e-17,0,2048,2048
256.854,2.77556e-17,0,2048,2048
256.901,2.77556e-17,0,2048,2048
256.954,2.77556e-17,0,2048,2048
257.001,2.77556e-17,0,2048,2048
257.054,2.77556e-17,0,2048,2048
257.101,2.77556e-17,0,2048,2048
257.153,0,0,2048,2048
257.2,0,0,2048,2048
257.253,-2.77556e-17,0,2048,2048
257.306,-2.77556e-17,0,2048,2048
257.352,-2.77556e-17,0,2048,2048
257.405,2.77556e-17,0,2048,2048
257.452,2.77556e-17,0,2048,2048
257.505,0,0,2048,2048
257.552,2.77556e-17,0,2048,2048
257.604,0,0,2048,2048
257.651,0,0,2048,2048
257.704,0,0,2048,2048
257.751,0,0,2048,2048
257.804,0,0,2048,2048
257.85,0,0,2048,2048
257.903,2.77556e-17,0,2048,2048
257.95,0,0,2048,2048
258.003,2.77556e-17,0,2048,2048
258.055,2.77556e-17,0,2048,2048
258.102,0,0,2048,2048
258.155,2.77556e-17,0,2048,2048
258.202,-2.77556e-17,0,2048,2048
258.255,-2.77556e-17,0,2048,2048
258.302,-2.77556e-17,0,2048,2048
258.354,0,0,2048,2048
258.401,5.55112e-17,0,2048,2048
258.454,5.55112e-17,0,2048,2048
258.501,5.55112e-17,0,2048,2048
258.553,5.55112e-17,0,2048,2048
258.6,5.55112e-17,0,2048,2048
258.653,5.55112e-17,0,2048,2048
258.706,5.55112e-17,0,2048,2048
258.753,5.55112e-17,0,2048,2048
258.805,5.55112e-17,0,2048,2048
258.852,5.55112e-17,0,2048,2048
258.905,5.55112e-17,0,2048,2048
258.952,5.55112e-17,0,2048,2048
259.005,5.55112e-17,0,2048,2048
259.051,5.55112e-17,0,2048,2048
259.104,2.77556e-17,0,2048,2048
259.151,2.77556e-17,0,2048,2048
259.204,2.77556e-17,0,2048,2048
259.251,2.77556e-17,0,2048,2048
259.303,2.77556e-17,0,2048,2048
259.35,2.77556e-17,0,2048,2048
259.403,0,0,2048,2048
259.456,2.77556e-17,0,2048,2048
259.503,0,0,2048,2048
259.555,0,0,2048,2048
259.602,0,0,2048,2048
259.655,0,0,2048,2048
259.702,-2.77556e-17,0,2048,2048
259.754,0,0,2048,2048
259.801,0,0,2048,2048
259.854,-5.55112e-17,0,2048,2048
259.901,-5.55112e-17,0,2048,2048
259.954,-5.55112e-17,0,2048,2048
260,-5.55112e-17,0,2048,2048
260.053,-2.77556e-17,0,2048,2048
260.1,-5.55112e-17,0,2048,2048
260.153,-5.55112e-17,0,2048,2048
260.206,-5.55112e-17,0,2048,2048
260.252,-5.55112e-17,0,2048,2048
260.305,-5.55112e-17,0,2048,2048
260.352,-5.55112e-17,0,2048,2048
260.405,-5.55112e-17,0,2048,2048
260.452,-5.55112e-17,0,2048,2048
260.504,-5.55112e-17,0,2048,2048
260.551,-5.55112e-17,0,2048,2048
260.604,-2.77556e-17,0,2048,2048
260.651,-2.77556e-17,0,2048,2048
260.704,-2.77556e-17,0,2048,2048
260.75,-2.77556e-17,0,2048,2048
260.803,-2.77556e-17,0,2048,2048
260.856,-2.77556e-17,0,2048,2048
260.903,-2.77556e-17,0,2048,2048
260.955,-2.77556e-17,0,2048,2048
261.002,-2.77556e-17,0,2048,2048
261.055,-5.55112e-17,0,2048,2048
261.102,-5.55112e-17,0,2048,2048
261.155,-5.55112e-17,0,2048,2048
261.201,-5.55112e-17,0,2048,2048
261.254,-5.55112e-17,0,2048,2048
261.301,-5.55112e-17,0,2048,2048
261.354,-5.55112e-17,0,2048,2048
261.401,-5.55112e-17,0,2048,2048
261.453,-5.55112e-17,0,2048,2048
261.5,-5.55112e-17,0,2048,2048
261.553,-5.55112e-17,0,2048,2048
261.606,-5.55112e-17,0,2048,2048
261.653,-5.55112e-17,0,2048,2048
261.705,-5.55112e-17,0,2048,2048
261.752,-5.55112e-17,0,2048,2048
261.805,-2.77556e-17,0,2048,2048
261.852,-2.77556e-17,0,2048,2048
261.905,-2.77556e-17,0,2048,2048
261.951,-2.77556e-17,0,2048,2048
262.004,-2.77556e-17,0,2048,2048
262.051,-2.77556e-17,0,2048,2048
262.104,-2.77556e-17,0,2048,2048
262.151,-2.77556e-17,0,2048,2048
262.203,-2.77556e-17,0,2048,2048
262.25,-2.77556e-17,0,2048,2048
262.303,-2.77556e-17,0,2048,2048
262.356,-5.55112e-17,0,2048,2048
262.402,-2.77556e-17,0,2048,2048
262.455,0,0,2048,2048
262.502,0,0,2048,2048
262.555,0,0,2048,2048
262.602,0,0,2048,2048
262.654,0,0,2048,2048
262.701,2.77556e-17,0,2048,2048
262.754,5.55112e-17,0,2048,2048
262.801,5.55112e-17,0,2048,2048
262.854,5.55112e-17,0,2048,2048
262.9,5.55112e-17,0,2048,2048
262.953,5.55112e-17,0,2048,2048
263,5.55112e-17,0,2048,2048
263.053,5.55112e-17,0,2048,2048
263.105,5.55112e-17,0,2048,2048
263.152,5.55112e-17,0,2048,2048
263.205,5.55112e-17,0,2048,2048
263.252,0,0,2048,2048
263.305,0,0,2048,2048
263.352,2.77556e-17,0,2048,2048
263.404,5.55112e-17,0,2048,2048
263.451,5.55112e-17,0,2048,2048
263.504,5.55112e-17,0,2048,2048
263.551,2.77556e-17,0,2048,2048
263.603,0,0,2048,2048
263.65,0,0,2048,2048
263.703,0,0,2048,2048
263.756,0,0,2048,2048
263.803,2.77556e-17,0,2048,2048
263.855,0,0,2048,2048
263.902,2.77556e-17,0,2048,2048
263.955,-2.77556e-17,0,2048,2048
264.002,-2.77556e-17,0,2048,2048
264.055,-2.77556e-17,0,2048,2048
264.101,-2.77556e-17,0,2048,2048
264.154,-2.77556e-17,0,2048,2048
264.201,-2.77556e-17,0,2048,2048
264.254,-2.77556e-17,0,2048,2048
264.301,0,0,2048,2048
264.353,2.77556e-17,0,2048,2048
264.4,2.77556e-17,0,2048,2048
264.453,0,0,2048,2048
264.506,0,0,2048,2048
264.553,0,0,2048,2048
264.605,2.77556e-17,0,2048,2048
264.652,2.77556e-17,0,2048,2048
264.705,-2.77556e-17,0,2048,2048
264.752,-2.77556e-17,0,2048,2048
264.804,-2.77556e-17,0,2048,2048
264.851,-2.77556e-17,0,2048,2048
264.904,-2.77556e-17,0,2048,2048
264.951,-2.77556e-17,0,2048,2048
265.004,-2.77556e-17,0,2048,2048
265.051,-2.77556e-17,0,2048,2048
265.103,-2.77556e-17,0,2048,2048
265.15,-2.77556e-17,0,2048,2048
265.203,-2.77556e-17,0,2048,2048
265.256,-2.77556e-17,0,2048,2048
265.302,0,0,2048,2048
265.355,2.77556e-17,0,2048,2048
265.402,2.77556e-17,0,2048,2048
265.455,2.77556e-17,0,2048,2048
265.502,2.77556e-17,0,2048,2048
265.554,2.77556e-17,0,2048,2048
265.601,2.77556e-17,0,2048,2048
265.654,0,0,2048,2048
265.701,-2.77556e-17,0,2048,2048
265.754,-5.55112e-17,0,2048,2048
265.8,-5.55112e-17,0,2048,2048
265.853,-5.55112e-17,0,2048,2048
265.9,-2.77556e-17,0,2048,2048
265.953,-2.77556e-17,0,2048,2048
266.005,-2.77556e-17,0,2048,2048
266.052,-2.77556e-17,0,2048,2048
266.105,-2.77556e-17,0,2048,2048
266.152,0,0,2048,2048
266.205,0,0,2048,2048
266.252,0,0,2048,2048
266.304,-2.77556e-17,0,2048,2048
266.351,-8.32667e-17,0,2048,2048
266.404,-8.32667e-17,0,2048,2048
266.451,-5.55112e-17,0,2048,2048
266.503,-8.32667e-17,0,2048,2048
266.55,-5.55112e-17,0,2048,2048
266.603,-5.55112e-17,0,2048,2048
266.656,-5.55112e-17,0,2048,2048
266.703,-5.55112e-17,0,2048,2048
266.755,-5.55112e-17,0,2048,2048
266.802,-2.77556e-17,0,2048,2048
266.855,-5.55112e-17,0,2048,2048
266.902,-5.55112e-17,0,2048,2048
266.955,-2.77556e-17,0,2048,2048
267.001,-2.77556e-17,0,2048,2048
267.054,-2.77556e-17,0,2048,2048
267.101,-2.77556e-17,0,2048,2048
267.154,-2.77556e-17,0,2048,2048
267.201,-2.77556e-17,0,2048,2048
267.253,-2.77556e-17,0,2048,2048
267.3,-2.77556e-17,0,2048,2048
267.353,-5.55112e-17,0,2048,2048
267.406,-5.55112e-17,0,2048,2048
267.453,-5.55112e-17,0,2048,2048
267.505,-1.11022e-16,0,2048,2048
267.552,-5.55112e-17,0,2048,2048
267.605,-8.32667e-17,0,2048,2048
267.652,-8.32667e-17,0,2048,2048
267.704,-5.55112e-17,0,2048,2048
267.751,-5.55112e-17,0,2048,2048
267.804,-2.77556e-17,0,2048,2048
267.851,-5.55112e-17,0,2048,2048
267.904,-8.32667e-17,0,2048,2048
267.95,-5.55112e-17,0,2048,2048
268.003,-5.55112e-17,0,2048,2048
268.05,-5.55112e-17,0,2048,2048
268.103,-5.55112e-17,0,2048,2048
268.156,-5.55112e-17,0,2048,2048
268.202,-2.77556e-17,0,2048,2048
268.255,-2.77556e-17,0,2048,2048
268.302,-2.77556e-17,0,2048,2048
268.355,-2.77556e-17,0,2048,2048
268.402,-2.77556e-17,0,2048,2048
268.454,-2.77556e-17,0,2048,2048
268.501,-2.77556e-17,0,2048,2048
268.554,-2.77556e-17,0,2048,2048
268.601,-2.77556e-17,0,2048,2048
268.654,-2.77556e-17,0,2048,2048
268.7,-2.77556e-17,0,2048,2048
268.753,-2.77556e-17,0,2048,2048
268.806,-2.77556e-17,0,2048,2048
268.853,-2.77556e-17,0,2048,2048
268.905,-2.77556e-17,0,2048,2048
268.952,2.77556e-17,0,2048,2048
269.005,2.77556e-17,0,2048,2048
269.052,2.77556e-17,0,2048,2048
269.105,2.77556e-17,0,2048,2048
269.151,2.77556e-17,0,2048,2048
269.204,0,0,2048,2048
269.251,2.77556e-17,0,2048,2048
269.304,2.77556e-17,0,2048,2048
269.351,2.77556e-17,0,2048,2048
269.403,5.55112e-17,0,2048,2048
269.45,5.55112e-17,0,2048,2048
269.503,8.32667e-17,0,2048,2048
269.556,8.32667e-17,0,2048,2048
269.603,8.32667e-17,0,2048,2048
269.651,8.32667e-17,0,2210,2210
269.701,8.32667e-17,0,2390,2390
269.751,8.32667e-17,0,2606,2606
269.801,8.32667e-17,0,2786,2786
269.85,8.32667e-17,0,2990,2990
269.9,8.32667e-17,0,3206,3206
269.95,8.32667e-17,0,3386,3386
270.001,8.32667e-17,0,3590,3590
270.051,8.32667e-17,0,3806,3806
270.101,8.32667e-17,0,4010,4010
270.151,8.32667e-17,0,4190,4190
270.201,8.32667e-17,0,4398,4398
270.25,8.32667e-17,0,4594,4594
270.3,8.32667e-17,0,4774,4774
270.351,8.32667e-17,0,4982,4982
270.401,8.32667e-17,0,5138,5138
270.451,8.32667e-17,0,5334,5334
270.501,8.32667e-17,0,5478,5478
270.551,8.32667e-17,0,5498,5498
270.6,8.32667e-17,0,5666,5666
270.65,8.32667e-17,0,5858,5858
270.701,8.32667e-17,0,6050,6050
270.751,-1.7486e-15,0,6266,6266
270.801,-2.17604e-14,0,6470,6470
270.851,-1.51462e-13,0,6686,6686
270.901,-7.46875e-13,0,6890,6890
270.95,-2.82746e-12,0,7070,7070
271,-8.55865e-12,0,7286,7286
271.051,-2.1763e-11,0,7490,7490
271.101,-4.48735e-11,0,7706,7706
271.151,-7.82179e-11,0,7910,7910
271.201,-1.16134e-10,0,8126,8126
271.251,-1.47253e-10,0,8330,8330
271.3,-1.58754e-10,0,8510,8510
271.35,-1.43133e-10,0,8726,8726
271.4,-1.0309e-10,0,8930,8930
271.451,-4.92049e-11,0,9146,9146
271.501,-1.30868e-13,0,9350,9350
271.551,3.52499e-11,0,9566,9566
271.601,5.54635e-11,0,9770,9770
271.65,6.59656e-11,0,9950,9950
271.7,7.35688e-11,0,10166,10166
271.75,8.16792e-11,0,10370,10370
271.801,8.96396e-11,0,10586,10586
271.851,9.4516e-11,0,10766,10766
271.901,9.5849e-11,0,10970,10970
271.951,9.55572e-11,0,11150,11150
272.001,9.64482e-11,0,11366,11366
272.05,9.97686e-11,0,11546,11546
272.1,1.04282e-10,0,11726,11726
272.151,1.076e-10,0,11846,11846
272.201,1.08097e-10,0,11906,11906
272.251,1.06758e-10,0,12110,12110
272.301,1.0587e-10,0,12290,12290
272.351,1.07125e-10,0,12506,12506
272.4,1.10256e-10,0,12686,12686
272.45,1.13698e-10,0,12890,12890
272.501,1.16964e-10,0,13106,13106
272.551,1.21991e-10,0,13286,13286
272.601,1.31991e-10,0,13490,13490
272.651,1.45871e-10,0,13670,13670
272.701,1.52684e-10,0,13886,13886
272.75,1.30859e-10,0,14090,14090
272.8,5.68124e-11,0,14270,14270
272.85,-7.35225e-11,0,14486,14486
272.901,-2.13746e-10,0,14666,14666
272.951,-2.33924e-10,0,14870,14870
273.001,-1.189e-11,0,15050,15050
273.051,4.89817e-10,0,15266,15266
273.1,3.98271e-09,0,15446,15446
273.15,1.03712e-08,0,15638,15638
273.2,1.68334e-08,0,15830,15830
273.251,2.25733e-08,0,16010,16010
273.301,2.66229e-08,0,16226,16226
273.351,2.9209e-08,0,16406,16406
273.401,3.11438e-08,0,16586,16586
273.451,3.38549e-08,0,16790,16790
273.5,3.87936e-08,0,16970,16970
273.55,4.66452e-08,0,17130,17130
273.601,5.74309e-08,0,17230,17230
273.651,6.9853e-08,0,17418,17418
273.701,8.41456e-08,0,17598,17598
273.751,1.0125e-07,0,17666,17666
273.801,1.22649e-07,0,17882,17882
273.85,1.4971e-07,0,18266,18266
273.9,1.83292e-07,0,18446,18446
273.951,2.24727e-07,0,18638,18638
274.001,2.70511e-07,0,18830,18830
274.051,3.19581e-07,0,19010,19010
274.101,3.69911e-07,0,19190,19190
274.151,4.21057e-07,0,19358,19358
274.2,4.7438e-07,0,19526,19526
274.25,5.31401e-07,0,19706,19706
274.301,5.93428e-07,0,19886,19886
274.351,6.53731e-07,0,20066,20066
274.401,7.0976e-07,0,20246,20246
274.451,7.57914e-07,0,20426,20426
274.501,7.96089e-07,0,20606,20606
274.55,8.23697e-07,0,20786,20786
274.6,8.41635e-07,0,20930,20930
274.65,8.52011e-07,0,21110,21110
274.701,8.57324e-07,0,21290,21290
274.751,8.5897e-07,0,21470,21470
274.801,8.57709e-07,0,21626,21626
274.851,8.53265e-07,0,21806,21806
274.9,8.44875e-07,0,21986,21986
274.95,8.3149e-07,0,22130,22130
275,8.11981e-07,0,22310,22310
275.051,7.84453e-07,0,22490,22490
275.101,7.49831e-07,0,22646,22646
275.151,7.07587e-07,0,22826,22826
275.201,6.59173e-07,0,23006,23006
275.251,6.07275e-07,0,23150,23150
275.3,5.54909e-07,0,23330,23330
275.35,5.04409e-07,0,23486,23486
275.401,4.55749e-07,0,23666,23666
275.451,4.12225e-07,0,23846,23846
275.501,3.7232e-07,0,23990,23990
275.551,3.3555e-07,0,24170,24170
275.601,3.01252e-07,0,24326,24326
275.65,2.68813e-07,0,24506,24506
275.7,2.37845e-07,0,24650,24650
275.751,2.07662e-07,0,24830,24830
275.801,1.81016e-07,0,24986,24986
275.851,1.58594e-07,0,25166,25166
275.901,1.41353e-07,0,25310,25310
275.951,1.28432e-07,0,25490,25490
276,1.17326e-07,0,25646,25646
276.05,1.05591e-07,0,25826,25826
276.1,9.25773e-08,0,25970,25970
276.151,7.92039e-08,0,26150,26150
276.201,6.8126e-08,0,26306,26306
276.251,5.9965e-08,0,26486,26486
276.301,5.45696e-08,0,26630,26630
276.35,5.10065e-08,0,26798,26798
276.4,4.79573e-08,0,26966,26966
276.45,4.40989e-08,0,27110,27110
276.501,3.85537e-08,0,27290,27290
276.551,3.21762e-08,0,27446,27446
276.601,2.63508e-08,0,27626,27626
276.651,2.24996e-08,0,27770,27770
276.701,2.09552e-08,0,27926,27926
276.75,2.09614e-08,0,28106,28106
276.8,2.14874e-08,0,28250,28250
276.851,2.19102e-08,0,28406,28406
276.901,2.20858e-08,0,28586,28586
276.951,2.21624e-08,0,28730,28730
277.001,2.22489e-08,0,28886,28886
277.051,2.23527e-08,0,29066,29066
277.1,2.24071e-08,0,29210,29210
277.15,2.22719e-08,0,29366,29366
277.201,2.18504e-08,0,29546,29546
277.251,2.1383e-08,0,29690,29690
277.301,2.1103e-08,0,29846,29846
277.351,2.09856e-08,0,29990,29990
277.401,2.09147e-08,0,30170,30170
277.45,2.08348e-08,0,30326,30326
277.5,2.07318e-08,0,30470,30470
277.55,2.06011e-08,0,30626,30626
277.601,2.04352e-08,0,30770,30770
277.651,2.02416e-08,0,30926,30926
277.701,2.00146e-08,0,31070,31070
277.751,1.97529e-08,0,31226,31226
277.8,1.94549e-08,0,31370,31370
277.85,1.91197e-08,0,31526,31526
277.9,1.87475e-08,0,31646,31646
277.951,1.83279e-08,0,31790,31790
278.001,1.78889e-08,0,31910,31910
278.051,1.74242e-08,0,32030,32030
278.101,1.69396e-08,0,32150,32150
278.151,1.64408e-08,0,32270,32270
278.2,1.59325e-08,0,32390,32390
278.25,1.54186e-08,0,32546,32546
278.301,1.4887e-08,0,32768,32768
278.351,1.43706e-08,0,32768,32768
278.401,1.38566e-08,0,32768,32768
278.451,1.33476e-08,0,32768,32768
278.501,1.28469e-08,0,32768,32768
278.55,1.23582e-08,0,32768,32768
278.6,1.18857e-08,0,32768,32768
278.651,1.14211e-08,0,32768,32768
278.701,1.09951e-08,0,32768,32768
278.751,1.05979e-08,0,32768,32768
278.801,1.02318e-08,0,32768,32768
278.851,9.89759e-09,0,32768,32768
278.9,9.59504e-09,0,32768,32768
278.95,9.32277e-09,0,32768,32768
279.001,9.07215e-09,0,32768,32768
279.051,8.85541e-09,0,32768,32768
279.101,8.66308e-09,0,32768,32768
279.151,8.4935e-09,0,32768,32768
279.201,8.34525e-09,0,32768,32768
279.25,8.21707e-09,0,32768,32768
279.3,8.10752e-09,0,32768,32768
279.35,8.01482e-09,0,32768,32768
279.401,7.93465e-09,0,32768,32768
279.451,7.86909e-09,0,32768,32768
279.501,7.81355e-09,0,32768,32768
279.551,7.76665e-09,0,32768,32768
279.6,7.72781e-09,0,32768,32768
279.65,7.69686e-09,0,32768,32768
279.7,7.67347e-09,0,32768,32768
279.751,7.65647e-09,0,32768,32768
279.801,7.64559e-09,0,32768,32768
279.851,7.63895e-09,0,32768,32768
279.901,7.63558e-09,0,32768,32768
279.951,7.63499e-09,0,32768,32768
280,7.63722e-09,0,32768,32768
280.05,7.64258e-09,0,32768,32768
280.101,7.6516e-09,0,32768,32768
280.151,7.66355e-09,0,32768,32768
280.201,7.67797e-09,0,32768,32768
280.251,7.69396e-09,0,32768,32768
280.301,7.71069e-09,0,32768,32768
280.35,7.72761e-09,0,32768,32768
280.4,7.74449e-09,0,32768,32768
280.451,7.76176e-09,0,32768,32768
280.501,7.77846e-09,0,32768,32768
280.551,7.79509e-09,0,32768,32768
280.601,7.81166e-09,0,32768,32768
280.651,7.8282e-09,0,32768,32768
280.7,7.84475e-09,0,32768,32768
280.75,7.86134e-09,0,32768,32768
280.8,7.87799e-09,0,32768,32768
280.851,7.89511e-09,0,32768,32768
280.901,7.91165e-09,0,32768,32768
280.951,7.92801e-09,0,32768,32768
281.001,7.94413e-09,0,32768,32768
281.05,7.95994e-09,0,32768,32768
281.1,7.9754e-09,0,32768,32768
281.15,7.99046e-09,0,32768,32768
281.201,8.00551e-09,0,32768,32768
281.251,8.01961e-09,0,32768,32768
281.301,8.03317e-09,0,32768,32768
281.351,8.04609e-09,0,32768,32768
281.401,8.05832e-09,0,32768,32768
281.45,8.06979e-09,0,32768,32768
281.5,8.08047e-09,0,32768,32768
281.551,8.09063e-09,0,32768,32768
281.601,8.09976e-09,0,32768,32768
281.651,8.1083e-09,0,32768,32768
281.701,8.11667e-09,0,32768,32768
281.751,8.12584e-09,0,32768,32768
281.8,8.13776e-09,0,32768,32768
281.85,8.15553e-09,0,32768,32768
281.901,8.18418e-09,0,32768,32768
281.951,8.22622e-09,0,32768,32768
282.001,8.28548e-09,0,32768,32768
282.051,8.36375e-09,0,32768,32768
282.101,8.46154e-09,0,32768,32768
282.15,8.57879e-09,0,32768,32768
282.2,8.71588e-09,0,32768,32768
282.251,8.87956e-09,0,32768,32768
282.301,9.06424e-09,0,32768,32768
282.351,9.27996e-09,0,32768,32768
282.401,9.53422e-09,0,32768,32768
282.451,9.83617e-09,0,32768,32768
282.5,1.01967e-08,0,32768,32768
282.55,1.06287e-08,0,32768,32768
282.6,1.11476e-08,0,32768,32768
282.651,1.1791e-08,0,32768,32768
282.701,1.25422e-08,0,32768,32768
282.751,1.3438e-08,0,32768,32768
282.801,1.44979e-08,0,32768,32768
282.85,1.57398e-08,0,32768,32768
282.9,1.71792e-08,0,32768,32768
282.95,1.88294e-08,0,32768,32768
283.001,2.076e-08,0,32768,32768
283.051,2.28696e-08,0,32768,32768
283.101,2.52147e-08,0,32768,32768
283.151,2.77946e-08,0,32768,32768
283.201,3.06022e-08,0,32768,32768
283.25,3.36231e-08,0,32768,32768
283.3,3.68366e-08,0,32768,32768
283.351,4.03193e-08,0,32768,32768
283.401,4.38453e-08,0,32768,32768
283.451,4.74861e-08,0,32768,32768
283.501,5.1219e-08,0,32768,32768
283.551,5.50251e-08,0,32768,32768
283.6,5.88914e-08,0,32768,32768
283.65,6.28181e-08,0,32768,32768
283.701,6.6953e-08,0,32768,32768
283.751,7.11355e-08,0,32768,32768
283.801,7.56081e-08,0,32768,32768
283.851,8.05231e-08,0,32768,32768
283.901,8.60017e-08,0,32768,32768
283.95,9.20712e-08,0,32768,32768
284,9.86338e-08,0,32768,32768
284.05,1.05492e-07,0,32768,32768
284.101,1.12629e-07,0,32768,32768
284.151,1.19491e-07,0,32768,32768
284.201,1.26289e-07,0,32768,32768
284.251,1.33208e-07,0,32768,32768
284.3,1.40578e-07,0,32768,32768
284.35,1.48814e-07,0,32768,32768
284.4,1.5835e-07,0,32768,32768
284.451,1.69973e-07,0,32768,32768
284.501,1.83443e-07,0,32768,32768
284.551,1.99483e-07,0,32768,32768
284.601,2.18522e-07,0,32768,32768
284.651,2.40967e-07,0,32768,32768
284.7,2.67135e-07,0,32768,32768
284.75,2.97174e-07,0,32768,32768
284.801,3.32063e-07,0,32768,32768
284.851,3.69502e-07,0,32768,32768
284.901,4.09959e-07,0,32768,32768
284.951,4.52853e-07,0,32768,32768
285.001,4.97538e-07,0,32768,32768
285.05,5.43279e-07,0,32768,32768
285.1,5.89185e-07,0,32768,32768
285.151,6.3544e-07,0,32768,32768
285.201,6.78028e-07,0,32768,32768
285.251,7.16829e-07,0,32768,32768
285.301,7.5044e-07,0,32768,32768
285.351,7.77738e-07,0,32768,32768
285.4,7.98044e-07,0,32768,32768
285.45,8.11186e-07,0,32768,32768
285.5,8.17434e-07,0,32768,32768
285.551,8.17255e-07,0,32768,32768
285.601,8.11315e-07,0,32768,32768
285.651,8.00241e-07,0,32768,32768
285.701,7.84357e-07,0,32768,32768
285.75,7.63749e-07,0,32768,32768
285.8,7.38322e-07,0,32768,32768
285.85,7.07922e-07,0,32768,32768
285.901,6.7137e-07,0,32768,32768
285.951,6.30938e-07,0,32768,32768
286.001,5.86169e-07,0,32768,32768
286.051,5.3793e-07,0,32768,32768
286.101,4.87377e-07,0,32768,32768
286.15,4.35817e-07,0,32768,32768
286.2,3.84549e-07,0,32768,32768
286.251,3.33267e-07,0,32768,32768
286.301,2.85773e-07,0,32768,32768
286.351,2.41117e-07,0,32768,32768
286.401,1.99565e-07,0,32768,32768
286.451,1.61201e-07,0,32768,32768
286.5,1.26021e-07,0,32768,32768
286.55,9.40212e-08,0,32768,32768
286.601,6.44311e-08,0,32768,32768
286.651,3.89828e-08,0,32768,32768
286.701,1.67726e-08,0,32768,32768
286.751,-2.32582e-09,0,32768,32768
286.801,-1.85771e-08,0,32768,32768
286.85,-3.23462e-08,0,32768,32768
286.9,-4.40123e-08,0,32768,32768
286.951,-5.41435e-08,0,32768,32768
287.001,-6.23435e-08,0,32768,32768
287.051,-6.90016e-08,0,32768,32768
287.101,-7.41619e-08,0,32768,32768
287.151,-7.7915e-08,0,32768,32768
287.2,-8.04369e-08,0,32768,32768
287.25,-8.19691e-08,0,32768,32768
287.3,-8.2754e-08,0,32768,32768
287.351,-8.29609e-08,0,32768,32768
287.401,-8.26368e-08,0,32768,32768
287.451,-8.17526e-08,0,32768,32768
287.501,-8.02236e-08,0,32768,32768
287.55,-7.79926e-08,0,32768,32768
287.6,-7.50788e-08,0,32768,32768
287.65,-7.15874e-08,0,32768,32768
287.701,-6.75649e-08,0,32768,32768
287.751,-6.34306e-08,0,32768,32768
287.801,-5.92414e-08,0,32768,32768
287.851,-5.51263e-08,0,32768,32768
287.901,-5.11734e-08,0,32768,32768
287.95,-4.74357e-08,0,32768,32768
288,-4.39387e-08,0,32768,32768
288.051,-4.05957e-08,0,32768,32768
288.101,-3.75887e-08,0,32768,32768
288.151,-3.48022e-08,0,32768,32768
288.201,-3.22187e-08,0,32768,32768
288.251,-2.98239e-08,0,32768,32768
288.3,-2.76082e-08,0,32768,32768
288.35,-2.5566e-08,0,32768,32768
288.401,-2.36404e-08,0,32768,32768
288.451,-2.19369e-08,0,32768,32768
288.501,-2.0392e-08,0,32768,32768
288.551,-1.89979e-08,0,32768,32768
288.601,-1.77457e-08,0,32768,32768
288.65,-1.66254e-08,0,32768,32768
288.7,-1.56264e-08,0,32768,32768
288.75,-1.47379e-08,0,32768,32768
288.801,-1.39275e-08,0,32768,32768
288.851,-1.32312e-08,0,32768,32768
288.901,-1.26159e-08,0,32768,32768
288.951,-1.20741e-08,0,32768,32768
289,-1.16001e-08,0,32768,32768
289.05,-1.11892e-08,0,32768,32768
289.1,-1.08376e-08,0,32768,32768
289.151,-1.05338e-08,0,32768,32768
289.201,-1.02914e-08,0,32768,32768
289.251,-1.00975e-08,0,32768,32768
289.301,-9.94818e-09,0,32768,32768
289.351,-9.83962e-09,0,32768,32768
289.4,-9.76791e-09,0,32768,32768
289.45,-9.72898e-09,0,32768,32768
289.501,-9.71866e-09,0,32768,32768
289.551,-9.73293e-09,0,32768,32768
289.601,-9.76646e-09,0,32768,32768
289.651,-9.81463e-09,0,32768,32768
289.701,-9.87306e-09,0,32768,32768
289.75,-9.93779e-09,0,32768,32768
289.8,-1.00055e-08,0,32768,32768
289.851,-1.00753e-08,0,32768,32768
289.901,-1.01413e-08,0,32768,32768
289.951,-1.0204e-08,0,32768,32768
290.001,-1.02627e-08,0,32768,32768
290.051,-1.03168e-08,0,32768,32768
290.1,-1.03663e-08,0,32768,32768
290.15,-1.04113e-08,0,32768,32768
290.201,-1.04531e-08,0,32768,32768
290.251,-1.04896e-08,0,32768,32768
290.301,-1.05228e-08,0,32768,32768
290.351,-1.05532e-08,0,32768,32768
290.401,-1.05818e-08,0,32768,32768
290.45,-1.06094e-08,0,32768,32768
290.5,-1.06364e-08,0,32768,32768
290.55,-1.06633e-08,0,32768,32768
290.601,-1.06907e-08,0,32768,32768
290.651,-1.07171e-08,0,32768,32768
290.701,-1.07427e-08,0,32768,32768
290.751,-1.07676e-08,0,32768,32768
290.8,-1.07917e-08,0,32768,32768
290.85,-1.08151e-08,0,32768,32768
290.9,-1.08379e-08,0,32768,32768
290.951,-1.08612e-08,0,32768,32768
291.001,-1.08841e-08,0,32768,32768
291.051,-1.09079e-08,0,32768,32768
291.101,-1.09336e-08,0,32768,32768
291.151,-1.09624e-08,0,32768,32768
291.2,-1.09956e-08,0,32768,32768
291.25,-1.10344e-08,0,32768,32768
291.301,-1.10814e-08,0,32768,32768
291.351,-1.1135e-08,0,32768,32768
291.401,-1.11971e-08,0,32768,32768
291.451,-1.12687e-08,0,32768,32768
291.501,-1.13507e-08,0,32768,32768
291.55,-1.1444e-08,0,32768,32768
291.6,-1.15493e-08,0,32768,32768
291.651,-1.16708e-08,0,32768,32768
291.701,-1.18015e-08,0,32768,32768
291.751,-1.1944e-08,0,32768,32768
291.801,-1.20975e-08,0,32768,32768
291.851,-1.22613e-08,0,32768,32768
291.9,-1.24349e-08,0,32768,32768
291.95,-1.2619e-08,0,32768,32768
292,-1.28149e-08,0,32768,32768
292.051,-1.30309e-08,0,32768,32768
292.101,-1.32571e-08,0,32768,32768
292.151,-1.35021e-08,0,32768,32768
292.201,-1.37677e-08,0,32768,32768
292.25,-1.40554e-08,0,32768,32768
292.3,-1.43656e-08,0,32768,32768
292.35,-1.46976e-08,0,32768,32768
292.401,-1.50611e-08,0,32768,32768
292.451,-1.54332e-08,0,32768,32768
292.501,-1.58218e-08,0,32768,32768
292.551,-1.62246e-08,0,32768,32768
292.601,-1.66392e-08,0,32768,32768
292.65,-1.7063e-08,0,32768,32768
292.7,-1.74936e-08,0,32768,32768
292.751,-1.79408e-08,0,32768,32768
292.801,-1.83761e-08,0,32768,32768
292.851,-1.88089e-08,0,32768,32768
292.901,-1.92357e-08,0,32768,32768
292.951,-1.9653e-08,0,32768,32768
293,-2.00573e-08,0,32768,32768
293.05,-2.04458e-08,0,32768,32768
293.101,-2.0826e-08,0,32768,32768
293.151,-2.11738e-08,0,32768,32768
293.201,-2.1498e-08,0,32768,32768
293.251,-2.17962e-08,0,32768,32768
293.301,-2.20663e-08,0,32768,32768
293.35,-2.2306e-08,0,32768,32768
293.4,-2.25138e-08,0,32768,32768
293.451,-2.26931e-08,0,32768,32768
293.501,-2.28334e-08,0,32768,32768
293.551,-2.29409e-08,0,32768,32768
293.601,-2.30166e-08,0,32768,32768
293.651,-2.30621e-08,0,32768,32768
293.7,-2.30792e-08,0,32768,32768
293.75,-2.30698e-08,0,32768,32768
293.8,-2.30358e-08,0,32768,32768
293.851,-2.29774e-08,0,32768,32768
293.901,-2.29003e-08,0,32768,32768
293.951,-2.28057e-08,0,32768,32768
294.001,-2.26959e-08,0,32768,32768
294.05,-2.25737e-08,0,32768,32768
294.1,-2.24413e-08,0,32768,32768
294.15,-2.23008e-08,0,32768,32768
294.201,-2.21496e-08,0,32768,32768
294.251,-2.19979e-08,0,32768,32768
294.301,-2.18428e-08,0,32768,32768
294.351,-2.16855e-08,0,32768,32768
294.401,-2.15271e-08,0,32768,32768
294.45,-2.13685e-08,0,32346,32346
294.5,-2.12106e-08,0,32632,32632
294.551,-2.10497e-08,0,32656,32656
294.601,-2.08956e-08,0,32672,32672
294.651,-2.07444e-08,0,32672,32672
294.701,-2.05966e-08,0,32672,32672
294.751,-2.04526e-08,0,32672,32672
294.8,-2.03128e-08,0,32672,32672
294.85,-2.01774e-08,0,32672,32672
294.901,-2.00432e-08,0,32656,32656
294.951,-1.99178e-08,0,32624,32624
295.001,-1.97976e-08,0,32592,32592
295.051,-1.96827e-08,0,32584,32584
295.101,-1.95731e-08,0,32584,32584
295.15,-1.94686e-08,0,32560,32560
295.2,-1.93691e-08,0,32560,32560
295.25,-1.92743e-08,0,32536,32536
295.301,-1.91815e-08,0,32536,32536
295.351,-1.90955e-08,0,32536,32536
295.401,-1.90133e-08,0,32512,32512
295.451,-1.89346e-08,0,32512,32512
295.5,-1.8859e-08,0,32536,32536
295.55,-1.87862e-08,0,32520,32520
295.6,-1.87158e-08,0,32520,32520
295.651,-1.86457e-08,0,32520,32520
295.701,-1.85794e-08,0,32536,32536
295.751,-1.85147e-08,0,32512,32512
295.801,-1.84512e-08,0,32512,32512
295.851,-1.83888e-08,0,32512,32512
295.9,-1.83272e-08,0,32520,32520
295.95,-1.82662e-08,0,32536,32536
296.001,-1.82038e-08,0,32520,32520
296.051,-1.81433e-08,0,32512,32512
296.101,-1.80829e-08,0,32512,32512
296.151,-1.80223e-08,0,32496,32496
296.201,-1.79615e-08,0,32488,32488
296.25,-1.79002e-08,0,32464,32464
296.3,-1.78384e-08,0,32472,32472
296.351,-1.77741e-08,0,32488,32488
296.401,-1.77108e-08,0,32464,32464
296.451,-1.76467e-08,0,32472,32472
296.501,-1.75815e-08,0,32464,32464
296.551,-1.75151e-08,0,32480,32480
296.6,-1.74474e-08,0,32480,32480
296.65,-1.73782e-08,0,32480,32480
296.7,-1.73073e-08,0,32464,32464
296.751,-1.72323e-08,0,32448,32448
296.801,-1.71574e-08,0,32464,32464
296.851,-1.708e-08,0,32448,32448
296.901,-1.70001e-08,0,32464,32464
296.95,-1.69173e-08,0,32464,32464
297,-1.68313e-08,0,32440,32440
297.05,-1.67419e-08,0,32464,32464
297.101,-1.6646e-08,0,32440,32440
297.151,-1.65489e-08,0,32440,32440
297.201,-1.64475e-08,0,32448,32448
297.251,-1.63417e-08,0,32440,32440
297.301,-1.62313e-08,0,32440,32440
297.35,-1.61161e-08,0,32440,32440
297.4,-1.5996e-08,0,32440,32440
297.451,-1.5867e-08,0,32424,32424
297.501,-1.57365e-08,0,32440,32440
297.551,-1.56008e-08,0,32440,32440
297.601,-1.54599e-08,0,32416,32416
297.651,-1.53136e-08,0,32440,32440
297.7,-1.5162e-08,0,32440,32440
297.75,-1.5005e-08,0,32424,32424
297.801,-1.48376e-08,0,32440,32440
297.851,-1.46692e-08,0,32424,32424
297.901,-1.44952e-08,0,32400,32400
297.951,-1.43154e-08,0,32384,32384
298.001,-1.41296e-08,0,32368,32368
298.05,-1.39379e-08,0,32392,32392
298.1,-1.37403e-08,0,32400,32400
298.151,-1.35306e-08,0,32368,32368
298.201,-1.33206e-08,0,32380,32380
298.251,-1.31044e-08,0,32400,32400
298.301,-1.28816e-08,0,32392,32392
298.351,-1.26517e-08,0,32376,32376
298.4,-1.24139e-08,0,32400,32400
298.45,-1.21674e-08,0,32392,32392
298.5,-1.19107e-08,0,32376,32376
298.551,-1.16345e-08,0,32400,32400
298.601,-1.13527e-08,0,32368,32368
298.651,-1.10556e-08,0,32392,32392
298.701,-1.07413e-08,0,32384,32384
298.75,-1.04077e-08,0,32400,32400
298.8,-1.00528e-08,0,32376,32376
298.85,-9.67474e-09,0,32392,32392
298.901,-9.25975e-09,0,32368,32368
298.951,-8.83032e-09,0,32384,32384
299.001,-8.37422e-09,0,32392,32392
299.051,-7.89132e-09,0,32368,32368
299.101,-7.38211e-09,0,32376,32376
299.15,-6.84779e-09,0,32368,32368
299.2,-6.29027e-09,0,32368,32368
299.251,-5.69475e-09,0,32368,32368
299.301,-5.09789e-09,0,32376,32376
299.351,-4.4844e-09,0,32352,32352
299.401,-3.85228e-09,0,32368,32368
299.451,-3.1933e-09,0,32368,32368
299.5,-2.50319e-09,0,32368,32368
299.55,-1.81992e-09,0,32368,32368
299.601,-1.2013e-09,0,32368,32368
299.651,-6.88064e-10,0,32344,32344
299.701,-1.85075e-10,0,32344,32344
299.751,1.7586e-10,0,32344,32344
299.801,5.29137e-10,0,32344,32344
299.85,1.08324e-09,0,32344,32344
299.9,1.83426e-09,0,32344,32344
299.95,2.26082e-09,0,32344,32344
300.001,2.67439e-09,0,32320,32320
300.051,3.03456e-09,0,32312,32312
300.101,3.35587e-09,0,32312,32312
300.151,3.63773e-09,0,32312,32312
300.2,3.87833e-09,0,32308,32308
300.25,4.08081e-09,0,32312,32312
300.3,4.24555e-09,0,32320,32320
300.351,4.37794e-09,0,32320,32320
300.401,4.47246e-09,0,32304,32304
300.451,4.53571e-09,0,32328,32328
300.501,4.57095e-09,0,32320,32320
300.551,4.58085e-09,0,32320,32320
300.6,4.5682e-09,0,32348,32348
300.65,4.53539e-09,0,32328,32328
300.701,4.48375e-09,0,32280,32280
300.751,4.41935e-09,0,32252,32252
300.801,4.34099e-09,0,32212,32212
300.851,4.2538e-09,0,32220,32220
300.901,4.15959e-09,0,32192,32192
300.95,4.05916e-09,0,32168,32168
301,3.95317e-09,0,32168,32168
301.051,3.84214e-09,0,32168,32168
301.101,3.73331e-09,0,32132,32132
301.151,3.62557e-09,0,32144,32144
301.201,3.51804e-09,0,32108,32108
301.251,3.41287e-09,0,32108,32108
301.3,3.30846e-09,0,32092,32092
301.35,3.20935e-09,0,32060,32060
301.4,3.11309e-09,0,32048,32048
301.451,3.01936e-09,0,32048,32048
301.501,2.93465e-09,0,32032,32032
301.551,2.85548e-09,0,32024,32024
301.601,2.78311e-09,0,32016,32016
301.65,2.718e-09,0,32024,32024
301.7,2.65927e-09,0,31988,31988
301.75,2.61047e-09,0,31988,31988
301.801,2.56918e-09,0,31964,31964
301.851,2.5349e-09,0,31956,31956
301.901,2.50696e-09,0,31964,31964
301.951,2.48496e-09,0,31952,31952
302.001,2.46811e-09,0,31948,31948
302.05,2.45528e-09,0,31928,31928
302.1,2.44545e-09,0,31940,31940
302.151,2.43731e-09,0,31928,31928
302.201,2.43023e-09,0,31928,31928
302.251,2.42303e-09,0,31928,31928
302.301,2.41482e-09,0,31928,31928
302.351,2.4047e-09,0,31928,31928
302.4,2.39203e-09,0,31936,31936
302.45,2.37648e-09,0,31944,31944
302.501,2.35741e-09,0,31944,31944
302.551,2.33605e-09,0,31952,31952
302.601,2.31245e-09,0,31960,31960
302.651,2.28728e-09,0,31960,31960
302.701,2.26132e-09,0,31960,31960
302.75,2.2353e-09,0,31952,31952
302.8,2.20982e-09,0,31952,31952
302.851,2.18473e-09,0,31944,31944
302.901,2.16165e-09,0,31952,31952
302.951,2.1398e-09,0,31958,31958
303.001,2.11916e-09,0,32158,32158
303.051,2.09981e-09,0,32350,32350
303.1,2.08201e-09,0,32550,32550
303.15,2.06597e-09,0,32748,32748
303.2,2.05206e-09,0,32768,32768
303.251,2.0405e-09,0,32768,32768
303.301,2.03248e-09,0,32768,32768
303.351,2.02796e-09,0,32768,32768
303.401,2.02713e-09,0,32768,32768
303.45,2.03002e-09,0,32768,32768
303.5,2.03646e-09,0,32768,32768
303.55,2.04598e-09,0,32768,32768
303.601,2.05828e-09,0,32768,32768
303.651,2.0721e-09,0,32768,32768
303.701,2.08717e-09,0,32768,32768
303.751,2.10284e-09,0,32768,32768
303.801,2.11861e-09,0,32768,32768
303.85,2.13415e-09,0,32768,32768
303.9,2.14915e-09,0,32768,32768
303.951,2.16367e-09,0,32768,32768
304.001,2.17671e-09,0,32768,32768
304.051,2.18856e-09,0,32768,32768
304.101,2.19905e-09,0,32768,32768
304.151,2.20813e-09,0,32768,32768
304.2,2.21592e-09,0,32768,32768
304.25,2.22239e-09,0,32768,32768
304.301,2.22775e-09,0,32768,32768
304.351,2.23181e-09,0,32768,32768
304.401,2.23467e-09,0,32768,32768
304.451,2.23627e-09,0,32768,32768
304.501,2.2371e-09,0,32768,32768
304.55,2.23747e-09,0,32768,32768
304.6,2.23706e-09,0,32768,32768
304.65,2.23575e-09,0,32768,32768
304.701,2.2336e-09,0,32768,32768
304.751,2.23093e-09,0,32768,32768
304.801,2.22771e-09,0,32768,32768
304.851,2.2238e-09,0,32768,32768
304.9,2.21915e-09,0,32768,32768
304.95,2.2137e-09,0,32768,32768
