250,0,0,32768,32768
250.001,0,0,32768,32768
250.051,2.77556e-17,0,32768,32768
250.101,0,0,32768,32768
250.151,2.77556e-17,0,32768,32768
250.201,0,0,32768,32768
250.25,0,0,32768,32768
250.3,-2.77556e-17,0,32768,32768
250.35,-2.77556e-17,0,32768,32768
250.401,0,0,32768,32768
250.451,0,0,32768,32768
250.501,0,0,32768,32768
250.551,-2.77556e-17,0,32768,32768
250.6,-2.77556e-17,0,32768,32768
250.65,-2.77556e-17,0,32768,32768
250.7,0,0,32768,32768
250.751,2.77556e-17,0,32768,32768
250.801,-2.77556e-17,0,32768,32768
250.851,-2.77556e-17,0,32768,32768
250.901,-2.77556e-17,0,32768,32768
250.951,-2.77556e-17,0,32768,32768
251,-8.32667e-17,0,32768,32768
251.05,5.55112e-17,0,32768,32768
251.101,-2.77556e-17,0,32768,32768
251.151,-2.77556e-17,0,32768,32768
251.201,0,0,32768,32768
251.251,0,0,32768,32768
251.301,0,0,32768,32768
251.35,-2.77556e-17,0,32768,32768
251.4,-5.55112e-17,0,32768,32768
251.451,-2.77556e-17,0,32768,32768
251.501,-5.55112e-17,0,32768,32768
251.551,-1.11022e-16,0,32768,32768
251.601,-5.55112e-17,0,32768,32768
251.651,2.77556e-17,0,32768,32768
251.7,2.77556e-17,0,32768,32768
251.75,0,0,32768,32768
251.8,0,0,32768,32768
251.851,5.55112e-17,0,32768,32768
251.901,5.55112e-17,0,32768,32768
251.951,8.32667e-17,0,32768,32768
252.001,2.77556e-17,0,32768,32768
252.05,5.55112e-17,0,32768,32768
252.1,5.55112e-17,0,32768,32768
252.15,5.55112e-17,0,32768,32768
252.201,2.77556e-17,0,32768,32768
252.251,2.77556e-17,0,32768,32768
252.301,1.11022e-16,0,32768,32768
252.351,1.11022e-16,0,32768,32768
252.401,8.32667e-17,0,32768,32768
252.45,2.77556e-17,0,32768,32768
252.5,2.77556e-17,0,32768,32768
252.551,2.77556e-17,0,32768,32768
252.601,-2.77556e-17,0,32768,32768
252.651,0,0,32768,32768
252.701,2.77556e-17,0,32768,32768
252.751,5.55112e-17,0,32768,32768
252.8,5.55112e-17,0,32768,32768
252.85,5.55112e-17,0,32768,32768
252.901,5.55112e-17,0,32768,32768
252.951,5.55112e-17,0,32768,32768
253.001,8.32667e-17,0,32768,32768
253.051,1.11022e-16,0,32768,32768
253.101,2.77556e-17,0,32768,32768
253.15,0,0,32768,32768
253.2,-2.77556e-17,0,32768,32768
253.25,0,0,32768,32768
253.301,2.77556e-17,0,32768,32768
253.351,2.77556e-17,0,32768,32768
253.401,0,0,32768,32768
253.451,0,0,32768,32768
253.5,0,0,32768,32768
253.55,2.77556e-17,0,32768,32768
253.6,2.77556e-17,0,32768,32768
253.651,2.77556e-17,0,32768,32768
253.701,2.77556e-17,0,32768,32768
253.751,0,0,32768,32768
253.801,2.77556e-17,0,32768,32768
253.851,2.77556e-17,0,32768,32768
253.9,2.77556e-17,0,32768,32768
253.95,0,0,32768,32768
254.001,2.77556e-17,0,32768,32768
254.051,0,0,32768,32768
254.101,2.77556e-17,0,32768,32768
254.151,0,0,32768,32768
254.201,5.55112e-17,0,32768,32768
254.25,2.77556e-17,0,32768,32768
254.3,5.55112e-17,0,32768,32768
254.351,5.55112e-17,0,32768,32768
254.401,5.55112e-17,0,32768,32768
254.451,2.77556e-17,0,32768,32768
254.501,2.77556e-17,0,32768,32768
254.551,2.77556e-17,0,32768,32768
254.6,2.77556e-17,0,32768,32768
254.65,5.55112e-17,0,32768,32768
254.701,5.55112e-17,0,32768,32768
254.751,5.55112e-17,0,32768,32768
254.801,0,0,32768,32768
254.851,0,0,32768,32768
254.901,0,0,32768,32768
254.95,0,0,32768,32768
255,5.55112e-17,0,32768,32768
255.05,8.32667e-17,0,32768,32768
255.101,8.32667e-17,0,32768,32768
255.151,8.32667e-17,0,32768,32768
255.201,5.55112e-17,0,32768,32768
255.251,2.77556e-17,0,32768,32768
255.3,5.55112e-17,0,32768,32768
255.35,2.77556e-17,0,32768,32768
255.4,-2.77556e-17,0,32768,32768
255.451,2.77556e-17,0,32768,32768
255.501,2.77556e-17,0,32768,32768
255.551,2.77556e-17,0,32768,32768
255.601,2.77556e-17,0,32768,32768
255.651,0,0,32768,32768
255.7,0,0,32768,32768
255.75,-2.77556e-17,0,32768,32768
255.801,-5.55112e-17,0,32768,32768
255.851,-5.55112e-17,0,32768,32768
255.901,-2.77556e-17,0,32768,32768
255.951,-2.77556e-17,0,32768,32768
256.001,-5.55112e-17,0,32768,32768
256.05,-5.55112e-17,0,32768,32768
256.1,-2.77556e-17,0,32768,32768
256.151,-8.32667e-17,0,32768,32768
256.201,-5.55112e-17,0,32768,32768
256.251,-5.55112e-17,0,32768,32768
256.301,-5.55112e-17,0,32768,32768
256.351,0,0,32768,32768
256.4,2.77556e-17,0,32768,32768
256.45,5.55112e-17,0,32768,32768
256.5,2.77556e-17,0,32768,32768
256.551,0,0,32768,32768
256.601,0,0,32768,32768
256.651,5.55112e-17,0,32768,32768
256.701,5.55112e-17,0,32768,32768
256.75,8.32667e-17,0,32768,32768
256.8,2.77556e-17,0,32768,32768
256.85,0,0,32768,32768
256.901,2.77556e-17,0,32768,32768
256.951,2.77556e-17,0,32768,32768
257.001,0,0,32768,32768
257.051,0,0,32768,32768
257.101,-2.77556e-17,0,32768,32768
257.15,-2.77556e-17,0,32768,32768
257.2,-2.77556e-17,0,32768,32768
257.251,0,0,32768,32768
257.301,-2.77556e-17,0,32768,32768
257.351,0,0,32768,32768
257.401,0,0,32768,32768
257.451,0,0,32768,32768
257.5,-2.77556e-17,0,32768,32768
257.55,-2.77556e-17,0,32768,32768
257.601,2.77556e-17,0,32768,32768
257.651,8.32667e-17,0,32768,32768
257.701,5.55112e-17,0,32768,32768
257.751,2.77556e-17,0,32768,32768
257.801,0,0,32768,32768
257.85,2.77556e-17,0,32768,32768
257.9,2.77556e-17,0,32768,32768
257.95,2.77556e-17,0,32768,32768
258.001,0,0,32768,32768
258.051,0,0,32768,32768
258.101,0,0,32768,32768
258.151,2.77556e-17,0,32768,32768
258.2,0,0,32768,32768
258.25,2.77556e-17,0,32768,32768
258.3,5.55112e-17,0,32768,32768
258.351,2.77556e-17,0,32768,32768
258.401,2.77556e-17,0,32768,32768
258.451,2.77556e-17,0,32768,32768
258.501,0,0,32768,32768
258.551,0,0,32768,32768
258.6,0,0,32768,32768
258.65,2.77556e-17,0,32768,32768
258.701,2.77556e-17,0,32768,32768
258.751,2.77556e-17,0,32768,32768
258.801,0,0,32768,32768
258.851,-2.77556e-17,0,32768,32768
258.901,-2.77556e-17,0,32768,32768
258.95,0,0,32768,32768
259,0,0,32768,32768
259.051,5.55112e-17,0,32768,32768
259.101,8.32667e-17,0,32768,32768
259.151,1.38778e-16,0,32768,32768
259.201,1.38778e-16,0,32768,32768
259.251,8.32667e-17,0,32768,32768
259.3,8.32667e-17,0,32768,32768
259.35,8.32667e-17,0,32768,32768
259.401,8.32667e-17,0,32768,32768
259.451,5.55112e-17,0,32768,32768
259.501,5.55112e-17,0,32768,32768
259.551,1.11022e-16,0,32768,32768
259.601,8.32667e-17,0,32768,32768
259.65,5.55112e-17,0,32768,32768
259.7,0,0,32768,32768
259.75,-5.55112e-17,0,32768,32768
259.801,-2.77556e-17,0,32768,32768
259.851,-5.55112e-17,0,32768,32768
259.901,-2.77556e-17,0,32768,32768
259.951,-5.55112e-17,0,32768,32768
260,-8.32667e-17,0,32768,32768
260.05,-5.55112e-17,0,32768,32768
260.1,0,0,32768,32768
260.151,5.55112e-17,0,32768,32768
260.201,2.77556e-17,0,32768,32768
260.251,-5.55112e-17,0,32768,32768
260.301,-5.55112e-17,0,32768,32768
260.351,-5.55112e-17,0,32768,32768
260.4,0,0,32768,32768
260.45,0,0,32768,32768
260.501,-2.77556e-17,0,32768,32768
260.551,-2.77556e-17,0,32768,32768
260.601,-2.77556e-17,0,32768,32768
260.651,-5.55112e-17,0,32768,32768
260.701,0,0,32768,32768
260.75,-5.55112e-17,0,32768,32768
260.8,-5.55112e-17,0,32768,32768
260.851,-8.32667e-17,0,32768,32768
260.901,0,0,32768,32768
260.951,0,0,32768,32768
261.001,0,0,32768,32768
261.051,2.77556e-17,0,32768,32768
261.1,2.77556e-17,0,32768,32768
261.15,2.77556e-17,0,32768,32768
261.2,5.55112e-17,0,32768,32768
261.251,2.77556e-17,0,32768,32768
261.301,2.77556e-17,0,32768,32768
261.351,5.55112e-17,0,32768,32768
261.401,2.77556e-17,0,32768,32768
261.45,2.77556e-17,0,32768,32768
261.5,2.77556e-17,0,32768,32768
261.55,0,0,32768,32768
261.601,-2.77556e-17,0,32768,32768
261.651,-1.11022e-16,0,32768,32768
261.701,-8.32667e-17,0,32768,32768
261.751,-1.11022e-16,0,32768,32768
261.801,-8.32667e-17,0,32768,32768
261.85,-8.32667e-17,0,32768,32768
261.9,-5.55112e-17,0,32768,32768
261.951,-5.55112e-17,0,32768,32768
262.001,-8.32667e-17,0,32768,32768
262.051,-2.77556e-17,0,32768,32768
262.101,-5.55112e-17,0,32768,32768
262.151,-2.77556e-17,0,32768,32768
262.2,0,0,32768,32768
262.25,-2.77556e-17,0,32768,32768
262.301,-2.77556e-17,0,32768,32768
262.351,-8.32667e-17,0,32768,32768
262.401,-8.32667e-17,0,32768,32768
262.451,-8.32667e-17,0,32768,32768
262.501,-8.32667e-17,0,32768,32768
262.55,-1.11022e-16,0,32768,32768
262.6,-8.32667e-17,0,32768,32768
262.651,-1.11022e-16,0,32768,32768
262.701,-8.32667e-17,0,32768,32768
262.751,-2.77556e-17,0,32768,32768
262.801,2.77556e-17,0,32768,32768
262.851,5.55112e-17,0,32768,32768
262.9,2.77556e-17,0,32768,32768
262.95,2.77556e-17,0,32768,32768
263,0,0,32768,32768
263.051,-2.77556e-17,0,32768,32768
263.101,-5.55112e-17,0,32768,32768
263.151,0,0,32768,32768
263.201,5.55112e-17,0,32768,32768
263.25,5.55112e-17,0,32768,32768
263.3,1.66533e-16,0,32768,32768
263.35,1.66533e-16,0,32768,32768
263.401,1.66533e-16,0,32768,32768
263.451,1.38778e-16,0,32768,32768
263.501,1.11022e-16,0,32768,32768
263.551,5.55112e-17,0,32768,32768
263.601,8.32667e-17,0,32768,32768
263.65,1.38778e-16,0,32768,32768
263.7,1.11022e-16,0,32768,32768
263.751,5.55112e-17,0,32768,32768
263.801,5.55112e-17,0,32768,32768
263.851,1.38778e-16,0,32768,32768
263.901,5.55112e-17,0,32768,32768
263.951,8.32667e-17,0,32768,32768
264,2.77556e-17,0,32768,32768
264.05,5.55112e-17,0,32768,32768
264.101,5.55112e-17,0,32768,32768
264.151,5.55112e-17,0,32768,32768
264.201,5.55112e-17,0,32768,32768
264.251,2.77556e-17,0,32768,32768
264.301,2.77556e-17,0,32768,32768
264.35,5.55112e-17,0,32768,32768
264.4,8.32667e-17,0,32768,32768
264.45,8.32667e-17,0,32768,32768
264.501,2.77556e-17,0,32768,32768
264.551,2.77556e-17,0,32768,32768
264.601,2.77556e-17,0,32768,32768
264.651,8.32667e-17,0,32768,32768
264.7,2.77556e-17,0,32768,32768
264.75,2.77556e-17,0,32768,32768
264.8,5.55112e-17,0,32768,32768
264.851,5.55112e-17,0,32768,32768
264.901,0,0,32768,32768
264.951,0,0,32768,32768
265.001,1.94289e-16,0,32768,32768
265.051,1.94289e-16,0,32768,32768
265.1,1.94289e-16,0,32768,32768
265.15,1.38778e-16,0,32768,32768
265.201,8.32667e-17,0,32768,32768
265.251,1.11022e-16,0,32768,32768
265.301,8.32667e-17,0,32768,32768
265.351,1.11022e-16,0,32768,32768
265.401,1.38778e-16,0,32768,32768
265.45,1.11022e-16,0,32768,32768
265.5,1.11022e-16,0,32768,32768
265.551,1.11022e-16,0,32768,32768
265.601,8.32667e-17,0,32768,32768
265.651,8.32667e-17,0,32768,32768
265.701,8.32667e-17,0,32768,32768
265.751,8.32667e-17,0,32768,32768
265.8,5.55112e-17,0,32768,32768
265.85,5.55112e-17,0,32768,32768
265.9,5.55112e-17,0,32768,32768
265.951,2.77556e-17,0,32768,32768
266.001,1.11022e-16,0,32768,32768
266.051,8.32667e-17,0,32768,32768
266.101,8.32667e-17,0,32768,32768
266.15,1.66533e-16,0,32768,32768
266.2,1.38778e-16,0,32768,32768
266.25,1.38778e-16,0,32768,32768
266.301,8.32667e-17,0,32768,32768
266.351,8.32667e-17,0,32768,32768
266.401,8.32667e-17,0,32768,32768
266.451,1.11022e-16,0,32768,32768
266.501,1.11022e-16,0,32768,32768
266.55,5.55112e-17,0,32768,32768
266.6,5.55112e-17,0,32768,32768
266.651,5.55112e-17,0,32768,32768
266.701,1.11022e-16,0,32768,32768
266.751,1.11022e-16,0,32768,32768
266.801,1.11022e-16,0,32768,32768
266.851,5.55112e-17,0,32768,32768
266.9,5.55112e-17,0,32768,32768
266.95,5.55112e-17,0,32768,32768
267.001,2.77556e-17,0,32768,32768
267.051,2.77556e-17,0,32768,32768
267.101,2.77556e-17,0,32768,32768
267.151,5.55112e-17,0,32768,32768
267.201,2.77556e-17,0,32768,32768
267.25,8.32667e-17,0,32768,32768
267.3,5.55112e-17,0,32768,32768
267.351,1.11022e-16,0,32768,32768
267.401,5.55112e-17,0,32768,32768
267.451,2.77556e-17,0,32768,32768
267.501,2.77556e-17,0,32768,32768
267.551,2.77556e-17,0,32768,32768
267.6,2.77556e-17,0,32768,32768
267.65,2.77556e-17,0,32768,32768
267.7,5.55112e-17,0,32768,32768
267.751,5.55112e-17,0,32768,32768
267.801,5.55112e-17,0,32768,32768
267.851,1.11022e-16,0,32768,32768
267.901,8.32667e-17,0,32768,32768
267.95,5.55112e-17,0,32768,32768
268,2.77556e-17,0,32768,32768
268.05,5.55112e-17,0,32768,32768
268.1,0,0,33496,33496
268.151,0,0,34168,34168
268.201,0,0,34840,34840
268.25,0,0,35512,35512
268.3,0,0,36040,36040
268.351,0,0,36520,36520
268.4,0,0,37192,37192
268.45,0,0,37864,37864
268.5,0,0,38536,38536
268.551,0,0,39256,39256
268.6,0,0,39928,39928
268.65,0,0,40600,40600
268.701,0,0,41272,41272
268.75,0,0,41856,41856
268.8,0,0,42472,42472
268.85,0,0,43144,43144
268.901,0,0,43592,43592
268.95,0,0,44264,44264
269,0,0,44824,44824
269.051,0,0,45448,45448
269.101,0,0,45824,45824
269.15,0,0,46056,46056
269.2,0,0,46744,46744
269.251,0,0,46968,46968
269.3,0,0,47528,47528
269.35,0,0,48120,48120
269.4,0,0,48712,48712
269.451,0,0,49400,49400
269.5,0,0,50008,50008
269.55,0,0,50552,50552
269.601,0,0,51224,51224
269.65,0,0,51784,51784
269.7,0,0,52360,52360
269.75,0,0,53032,53032
269.801,0,0,53576,53576
269.85,0,0,54200,54200
269.9,0,0,54824,54824
269.95,0,0,55368,55368
270.001,0,0,55384,55384
270.05,0,0,55944,55944
270.1,0,0,56696,56696
270.151,0,0,57176,57176
270.2,0,0,57736,57736
270.25,0,0,58328,58328
270.3,0,0,59048,59048
270.351,0,0,59752,59752
270.4,0,0,60344,60344
270.45,0,0,61000,61000
270.501,0,0,61576,61576
270.551,0,0,62216,62216
270.6,0,0,62840,62840
270.65,0,0,63544,63544
270.701,0,0,64104,64104
270.75,0,0,64728,64728
270.8,5.55112e-17,0,65368,65368
270.85,1.80411e-15,0,65992,65992
270.901,3.63598e-15,0,66648,66648
270.95,5.82867e-15,0,67208,67208
271,3.16969e-14,0,67784,67784
271.051,2.1691e-13,0,68520,68520
271.1,4.79172e-13,0,69112,69112
271.15,-2.83493e-12,0,69752,69752
271.2,-2.36451e-11,0,70344,70344
271.251,-8.08526e-11,0,70968,70968
271.3,-3.48512e-10,0,71512,71512
271.35,-5.83277e-10,0,72216,72216
271.401,-4.20201e-10,0,72856,72856
271.451,-3.64277e-11,0,73384,73384
271.5,3.08694e-10,0,73992,73992
271.55,4.2438e-10,0,74664,74664
271.601,2.40149e-10,0,75112,75112
271.65,-5.41427e-11,0,75816,75816
271.7,-2.20416e-10,0,76424,76424
271.75,-7.33992e-11,0,76952,76952
271.801,1.32983e-10,0,77592,77592
271.85,3.64503e-10,0,78136,78136
271.9,2.82448e-10,0,78728,78728
271.951,-5.89315e-12,0,79336,79336
272,-8.68345e-11,0,79848,79848
272.05,-3.35702e-11,0,80200,80200
272.1,8.06728e-11,0,80504,80504
272.151,2.71937e-10,0,81096,81096
272.2,2.93526e-10,0,81704,81704
272.25,1.41636e-10,0,82280,82280
272.3,-6.19274e-12,0,82872,82872
272.351,-2.49749e-11,0,83528,83528
272.4,8.64164e-12,0,84056,84056
272.45,8.17646e-11,0,84696,84696
272.501,2.91382e-10,0,85288,85288
272.55,3.98615e-10,0,85800,85800
272.6,2.40282e-10,0,86376,86376
272.65,-1.38664e-10,0,86952,86952
272.701,-4.22e-10,0,87480,87480
272.75,-1.97724e-10,0,88120,88120
272.8,5.34421e-10,0,88664,88664
272.851,1.12043e-09,0,89304,89304
272.9,6.79494e-10,0,89848,89848
272.95,-8.00467e-10,0,90376,90376
273,-1.95578e-09,0,91016,91016
273.051,-8.26037e-10,0,91528,91528
273.1,3.4704e-09,0,92008,92008
273.15,1.00202e-08,0,92568,92568
273.2,1.69882e-08,0,93192,93192
273.251,2.29463e-08,0,93784,93784
273.3,2.70689e-08,0,94312,94312
273.35,2.94642e-08,0,94824,94824
273.401,3.08866e-08,0,95496,95496
273.45,3.29275e-08,0,95944,95944
273.5,3.74537e-08,0,96488,96488
273.55,4.53668e-08,0,96984,96984
273.601,5.62766e-08,0,97656,97656
273.65,6.8728e-08,0,98232,98232
273.7,8.25748e-08,0,98728,98728
273.751,9.91956e-08,0,99288,99288
273.801,1.19906e-07,0,99784,99784
273.85,1.46445e-07,0,100344,100344
273.9,1.79732e-07,0,100872,100872
273.951,2.20684e-07,0,101336,101336
274,2.6711e-07,0,101912,101912
274.05,3.17014e-07,0,102456,102456
274.1,3.67627e-07,0,102968,102968
274.151,4.18883e-07,0,103176,103176
274.2,4.7127e-07,0,103688,103688
274.25,5.28141e-07,0,104248,104248
274.301,5.90433e-07,0,104888,104888
274.35,6.52584e-07,0,105960,105960
274.4,7.10312e-07,0,106904,106904
274.45,7.59649e-07,0,107656,107656
274.501,7.99059e-07,0,108168,108168
274.55,8.26715e-07,0,108712,108712
274.6,8.44106e-07,0,109272,109272
274.651,8.53783e-07,0,109800,109800
274.701,8.58394e-07,0,110296,110296
274.75,8.59988e-07,0,110808,110808
274.8,8.58971e-07,0,111384,111384
274.851,8.54868e-07,0,111944,111944
274.9,8.46997e-07,0,112888,112888
274.95,8.342e-07,0,113944,113944
275,8.15265e-07,0,114744,114744
275.051,7.88697e-07,0,115128,115128
275.1,7.54479e-07,0,115688,115688
275.15,7.12102e-07,0,116136,116136
275.201,6.62137e-07,0,116632,116632
275.25,6.09107e-07,0,117160,117160
275.3,5.55812e-07,0,117624,117624
275.35,5.0476e-07,0,118104,118104
275.401,4.56474e-07,0,118600,118600
275.45,4.12797e-07,0,119048,119048
275.5,3.72913e-07,0,119544,119544
275.55,3.36264e-07,0,120104,120104
275.601,3.0162e-07,0,120552,120552
275.65,2.69305e-07,0,121048,121048
275.7,2.38311e-07,0,121496,121496
275.751,2.08144e-07,0,122056,122056
275.8,1.80678e-07,0,122504,122504
275.85,1.57489e-07,0,122952,122952
275.9,1.40221e-07,0,123384,123384
275.951,1.28028e-07,0,123816,123816
276,1.1803e-07,0,124328,124328
276.05,1.06678e-07,0,124744,124744
276.101,9.29141e-08,0,125224,125224
276.151,7.90542e-08,0,125592,125592
276.2,6.74166e-08,0,126104,126104
276.25,5.91933e-08,0,126504,126504
276.301,5.39817e-08,0,127016,127016
276.35,5.08642e-08,0,127448,127448
276.4,4.83549e-08,0,127816,127816
276.45,4.48991e-08,0,128344,128344
276.501,3.93427e-08,0,128760,128760
276.55,3.23445e-08,0,129192,129192
276.6,2.58022e-08,0,129712,129712
276.651,2.16156e-08,0,129808,129808
276.7,2.0336e-08,0,129984,129984
276.75,2.07876e-08,0,130240,130240
276.8,2.15837e-08,0,130080,130080
276.851,2.20207e-08,0,129360,129360
276.9,2.21202e-08,0,129752,129752
276.95,2.21476e-08,0,130352,130352
277.001,2.22365e-08,0,130032,130032
277.051,2.2362e-08,0,130144,130144
277.1,2.24632e-08,0,130288,130288
277.15,2.24248e-08,0,130352,130352
277.201,2.19329e-08,0,129584,129584
277.25,2.12953e-08,0,130288,130288
277.3,2.10469e-08,0,130368,130368
277.35,2.09838e-08,0,130384,130384
277.401,2.09267e-08,0,130704,130704
277.45,2.08501e-08,0,130928,130928
277.5,2.07483e-08,0,130960,130960
277.551,2.06158e-08,0,131072,131072
277.6,2.04537e-08,0,130800,130800
277.65,2.02593e-08,0,130512,130512
277.7,2.00317e-08,0,131072,131072
277.751,1.97655e-08,0,131072,131072
277.8,1.94664e-08,0,130656,130656
277.85,1.91287e-08,0,131072,131072
277.9,1.87523e-08,0,131072,131072
277.951,1.8333e-08,0,130720,130720
278,1.78875e-08,0,130896,130896
278.05,1.7416e-08,0,131072,131072
278.101,1.69179e-08,0,131072,131072
278.15,1.64137e-08,0,131072,131072
278.2,1.59016e-08,0,131072,131072
278.25,1.5385e-08,0,131072,131072
278.301,1.4859e-08,0,131072,131072
278.35,1.43407e-08,0,131040,131040
278.4,1.38246e-08,0,131072,131072
278.451,1.33058e-08,0,131072,131072
278.5,1.28024e-08,0,131072,131072
278.55,1.23108e-08,0,131072,131072
278.6,1.18354e-08,0,131072,131072
278.651,1.13746e-08,0,131072,131072
278.7,1.09467e-08,0,131072,131072
278.75,1.05488e-08,0,131072,131072
278.8,1.01836e-08,0,131072,131072
278.851,9.84693e-09,0,131072,131072
278.9,9.54787e-09,0,131072,131072
278.95,9.27943e-09,0,131072,131072
279.001,9.03602e-09,0,131072,131072
279.05,8.82239e-09,0,131072,131072
279.1,8.63277e-09,0,131072,131072
279.15,8.46552e-09,0,131072,131072
279.201,8.31737e-09,0,131072,131072
279.25,8.19157e-09,0,131072,131072
279.3,8.0847e-09,0,131072,131072
279.351,7.99396e-09,0,131072,131072
279.401,7.91944e-09,0,131072,131072
279.45,7.85667e-09,0,131072,131072
279.5,7.80291e-09,0,131072,131072
279.551,7.75613e-09,0,131072,131072
279.6,7.71766e-09,0,131072,131072
279.65,7.68734e-09,0,131072,131072
279.7,7.66526e-09,0,131072,131072
279.751,7.65029e-09,0,131072,131072
279.8,7.64118e-09,0,131072,131072
279.85,7.63594e-09,0,131072,131072
279.901,7.63328e-09,0,131072,131072
279.95,7.63278e-09,0,131072,131072
280,7.63465e-09,0,131072,131072
280.05,7.63957e-09,0,131072,131072
280.101,7.64821e-09,0,131072,131072
280.15,7.66022e-09,0,131072,131072
280.2,7.67495e-09,0,131072,131072
280.251,7.69166e-09,0,131072,131072
280.301,7.70897e-09,0,131072,131072
280.35,7.72651e-09,0,131072,131072
280.4,7.74388e-09,0,131072,131072
280.451,7.76117e-09,0,131072,131072
280.5,7.77794e-09,0,131072,131072
280.55,7.79455e-09,0,131072,131072
280.6,7.81113e-09,0,131072,131072
280.651,7.82805e-09,0,131072,131072
280.7,7.84482e-09,0,131072,131072
280.75,7.86156e-09,0,131072,131072
280.801,7.87847e-09,0,131072,131072
280.85,7.89508e-09,0,131072,131072
280.9,7.91169e-09,0,131072,131072
280.95,7.92822e-09,0,131072,131072
281.001,7.94481e-09,0,131072,131072
281.05,7.96085e-09,0,131072,131072
281.1,7.97645e-09,0,131072,131072
281.15,7.99153e-09,0,131072,131072
281.201,8.0064e-09,0,131072,131072
281.25,8.02082e-09,0,131072,131072
281.3,8.03506e-09,0,131072,131072
281.351,8.04919e-09,0,131072,131072
281.4,8.06253e-09,0,131072,131072
281.45,8.07513e-09,0,131072,131072
281.5,8.08713e-09,0,131072,131072
281.551,8.09906e-09,0,131072,131072
281.6,8.11092e-09,0,131072,131072
281.65,8.12271e-09,0,131072,131072
281.701,8.13379e-09,0,131072,131072
281.751,8.14318e-09,0,131072,131072
281.8,8.15173e-09,0,131072,131072
281.85,8.16232e-09,0,131072,131072
281.901,8.1796e-09,0,131072,131072
281.95,8.20656e-09,0,131072,131072
282,8.24322e-09,0,131072,131072
282.05,8.28566e-09,0,131072,131072
282.101,8.33332e-09,0,131072,131072
282.15,8.39796e-09,0,131072,131072
282.2,8.50996e-09,0,131072,131072
282.251,8.6997e-09,0,131072,131072
282.3,8.95979e-09,0,131072,131072
282.35,9.25927e-09,0,131072,131072
282.4,9.56003e-09,0,131072,131072
282.451,9.85519e-09,0,131072,131072
282.5,1.01637e-08,0,131072,131072
282.55,1.05369e-08,0,131072,131072
282.601,1.10218e-08,0,131072,131072
282.651,1.16238e-08,0,131072,131072
282.7,1.23544e-08,0,131072,131072
282.75,1.32182e-08,0,131072,131072
282.801,1.42496e-08,0,131072,131072
282.85,1.54524e-08,0,131072,131072
282.9,1.68731e-08,0,131072,131072
282.95,1.85283e-08,0,131072,131072
283.001,2.04459e-08,0,131072,131072
283.05,2.25629e-08,0,131072,131072
283.1,2.49057e-08,0,131072,131072
283.151,2.75261e-08,0,131072,131072
283.2,3.03614e-08,0,131072,131072
283.25,3.34446e-08,0,131072,131072
283.3,3.67464e-08,0,131072,131072
283.351,4.02655e-08,0,131072,131072
283.4,4.38404e-08,0,131072,131072
283.45,4.74836e-08,0,131072,131072
283.5,5.11961e-08,0,131072,131072
283.551,5.5058e-08,0,131072,131072
283.6,5.89592e-08,0,131072,131072
283.65,6.28996e-08,0,131072,131072
283.701,6.68489e-08,0,131072,131072
283.75,7.06778e-08,0,131072,131072
283.8,7.46168e-08,0,131072,131072
283.85,7.90347e-08,0,131072,131072
283.901,8.44284e-08,0,131072,131072
283.95,9.08519e-08,0,131072,131072
284,9.8212e-08,0,131072,131072
284.051,1.06121e-07,0,131072,131072
284.101,1.13717e-07,0,131072,131072
284.15,1.20655e-07,0,131072,131072
284.2,1.26849e-07,0,131072,131072
284.251,1.32728e-07,0,131072,131072
284.3,1.38782e-07,0,131072,131072
284.35,1.45833e-07,0,131072,131072
284.4,1.5446e-07,0,131072,131072
284.451,1.65172e-07,0,131072,131072
284.5,1.7785e-07,0,131072,131072
284.55,1.92883e-07,0,131072,131072
284.601,2.11026e-07,0,131072,131072
284.65,2.32444e-07,0,131072,131072
284.7,2.58083e-07,0,131072,131072
284.75,2.88399e-07,0,131072,131072
284.801,3.23915e-07,0,131072,131072
284.85,3.63035e-07,0,131072,131072
284.9,4.05316e-07,0,131072,131072
284.951,4.50494e-07,0,131072,131072
285.001,4.96612e-07,0,131072,131072
285.05,5.43994e-07,0,131072,131072
285.1,5.92303e-07,0,131072,131072
285.151,6.41407e-07,0,131072,131072
285.2,6.88256e-07,0,131072,131072
285.25,7.31339e-07,0,131072,131072
285.3,7.68337e-07,0,131072,131072
285.351,7.97794e-07,0,131072,131072
285.4,8.17946e-07,0,131072,131072
285.45,8.29407e-07,0,131072,131072
285.501,8.3311e-07,0,131072,131072
285.55,8.30304e-07,0,131072,131072
285.6,8.22382e-07,0,131072,131072
285.65,8.10235e-07,0,131072,131072
285.701,7.93943e-07,0,131072,131072
285.75,7.73813e-07,0,131072,131072
285.8,7.49125e-07,0,131072,131072
285.85,7.19235e-07,0,131072,131072
285.901,6.83038e-07,0,131072,131072
285.95,6.414e-07,0,131072,131072
286,5.94231e-07,0,131072,131072
286.051,5.41802e-07,0,131072,131072
286.1,4.87289e-07,0,131072,131072
286.15,4.31898e-07,0,131072,131072
286.2,3.77485e-07,0,131072,131072
286.251,3.24772e-07,0,131072,131072
286.3,2.76204e-07,0,131072,131072
286.35,2.31351e-07,0,131072,131072
286.401,1.89567e-07,0,131072,131072
286.451,1.51759e-07,0,131072,131072
286.5,1.1696e-07,0,131072,131072
286.55,8.49882e-08,0,131072,131072
286.601,5.55347e-08,0,131072,131072
286.65,2.98054e-08,0,131072,131072
286.7,7.74838e-09,0,131072,131072
286.75,-1.05073e-08,0,131072,131072
286.801,-2.55278e-08,0,131072,131072
286.85,-3.77107e-08,0,131072,131072
286.9,-4.82206e-08,0,131072,131072
286.951,-5.77818e-08,0,131072,131072
287,-6.61617e-08,0,131072,131072
287.05,-7.3136e-08,0,131072,131072
287.1,-7.82861e-08,0,131072,131072
287.151,-8.1516e-08,0,131072,131072
287.2,-8.30297e-08,0,131072,131072
287.25,-8.34937e-08,0,131072,131072
287.301,-8.35544e-08,0,131072,131072
287.351,-8.3613e-08,0,131072,131072
287.4,-8.36609e-08,0,131072,131072
287.45,-8.33381e-08,0,131072,131072
287.501,-8.21554e-08,0,131072,131072
287.55,-7.98583e-08,0,131072,131072
287.6,-7.64764e-08,0,131072,131072
287.65,-7.23165e-08,0,131072,131072
287.701,-6.77062e-08,0,131072,131072
287.75,-6.31031e-08,0,131072,131072
287.8,-5.86248e-08,0,131072,131072
287.851,-5.42855e-08,0,131072,131072
287.9,-5.02433e-08,0,131072,131072
287.95,-4.64625e-08,0,131072,131072
288,-4.29711e-08,0,131072,131072
288.051,-3.973e-08,0,131072,131072
288.1,-3.68052e-08,0,131072,131072
288.15,-3.40998e-08,0,131072,131072
288.201,-3.15383e-08,0,131072,131072
288.251,-2.91795e-08,0,131072,131072
288.3,-2.69884e-08,0,131072,131072
288.35,-2.49723e-08,0,131072,131072
288.401,-2.31066e-08,0,131072,131072
288.45,-2.14394e-08,0,131072,131072
288.5,-1.99331e-08,0,131072,131072
288.55,-1.85782e-08,0,131072,131072
288.601,-1.73484e-08,0,131072,131072
288.65,-1.627e-08,0,131072,131072
288.7,-1.53137e-08,0,131072,131072
288.751,-1.4456e-08,0,131072,131072
288.8,-1.37084e-08,0,131072,131072
288.85,-1.3045e-08,0,131072,131072
288.9,-1.24552e-08,0,131072,131072
288.951,-1.19243e-08,0,131072,131072
289,-1.14638e-08,0,131072,131072
289.05,-1.10638e-08,0,131072,131072
289.1,-1.07228e-08,0,131072,131072
289.151,-1.04346e-08,0,131072,131072
289.2,-1.02038e-08,0,131072,131072
289.25,-1.00212e-08,0,131072,131072
289.301,-9.88041e-09,0,131072,131072
289.35,-9.78168e-09,0,131072,131072
289.4,-9.7195e-09,0,131072,131072
289.45,-9.6909e-09,0,131072,131072
289.501,-9.69253e-09,0,131072,131072
289.55,-9.7196e-09,0,131072,131072
289.6,-9.76626e-09,0,131072,131072
289.651,-9.82754e-09,0,131072,131072
289.7,-9.89621e-09,0,131072,131072
289.75,-9.96873e-09,0,131072,131072
289.8,-1.00418e-08,0,131072,131072
289.851,-1.01141e-08,0,131072,131072
289.9,-1.01814e-08,0,131072,131072
289.95,-1.02438e-08,0,131072,131072
290,-1.03006e-08,0,131072,131072
290.051,-1.03528e-08,0,131072,131072
290.1,-1.03996e-08,0,131072,131072
290.15,-1.04424e-08,0,131072,131072
290.201,-1.0482e-08,0,131072,131072
290.25,-1.05172e-08,0,131072,131072
290.3,-1.05485e-08,0,131072,131072
290.35,-1.05766e-08,0,131072,131072
290.401,-1.06027e-08,0,131072,131072
290.45,-1.06276e-08,0,131072,131072
290.5,-1.06527e-08,0,131072,131072
290.551,-1.06792e-08,0,131072,131072
290.601,-1.07063e-08,0,131072,131072
290.65,-1.07338e-08,0,131072,131072
290.7,-1.07614e-08,0,131072,131072
290.751,-1.0789e-08,0,131072,131072
290.8,-1.08161e-08,0,131072,131072
290.85,-1.08435e-08,0,131072,131072
290.9,-1.08717e-08,0,131072,131072
290.951,-1.09013e-08,0,131072,131072
291,-1.09313e-08,0,131072,131072
291.05,-1.09624e-08,0,131072,131072
291.101,-1.09954e-08,0,131072,131072
291.15,-1.10305e-08,0,131072,131072
291.2,-1.10697e-08,0,131072,131072
291.25,-1.11145e-08,0,131072,131072
291.301,-1.11668e-08,0,131072,131072
291.35,-1.12258e-08,0,131072,131072
291.4,-1.12917e-08,0,131072,131072
291.451,-1.13656e-08,0,131072,131072
291.501,-1.14455e-08,0,131072,131072
291.55,-1.15332e-08,0,131072,131072
291.6,-1.16301e-08,0,131072,131072
291.651,-1.17389e-08,0,131072,131072
291.7,-1.18568e-08,0,131072,131072
291.75,-1.19849e-08,0,131072,131072
291.8,-1.21222e-08,0,131072,131072
291.851,-1.22698e-08,0,131072,131072
291.9,-1.24234e-08,0,131072,131072
291.95,-1.25856e-08,0,131072,131072
292.001,-1.27612e-08,0,131072,131072
292.05,-1.2948e-08,0,131072,131072
292.1,-1.31519e-08,0,131072,131072
292.15,-1.33762e-08,0,131072,131072
292.201,-1.36274e-08,0,131072,131072
292.25,-1.39001e-08,0,131072,131072
292.3,-1.41987e-08,0,131072,131072
292.35,-1.45227e-08,0,131072,131072
292.401,-1.48767e-08,0,131072,131072
292.45,-1.52486e-08,0,131072,131072
292.5,-1.56414e-08,0,131072,131072
292.551,-1.6059e-08,0,131072,131072
292.6,-1.64867e-08,0,131072,131072
292.65,-1.69277e-08,0,131072,131072
292.7,-1.73785e-08,0,131072,131072
292.751,-1.78421e-08,0,131072,131072
292.8,-1.83007e-08,0,131072,131072
292.85,-1.87568e-08,0,131072,131072
292.901,-1.92126e-08,0,131072,131072
292.951,-1.96509e-08,0,131072,131072
293,-2.00748e-08,0,131072,131072
293.05,-2.04811e-08,0,131072,131072
293.101,-2.08728e-08,0,131072,131072
293.15,-2.12363e-08,0,131072,131072
293.2,-2.15756e-08,0,131072,131072
293.25,-2.18884e-08,0,131072,131072
293.301,-2.21757e-08,0,131072,131072
293.35,-2.24261e-08,0,131072,131072
293.4,-2.2641e-08,0,131072,131072
293.451,-2.2821e-08,0,131072,131072
293.5,-2.29604e-08,0,131072,131072
293.55,-2.30636e-08,0,131072,131072
293.6,-2.31327e-08,0,131072,131072
293.651,-2.31709e-08,0,131072,131072
293.7,-2.31795e-08,0,131072,131072
293.75,-2.31615e-08,0,131072,131072
293.801,-2.3118e-08,0,131072,131072
293.851,-2.3052e-08,0,131072,131072
293.9,-2.29656e-08,0,131072,131072
293.95,-2.28613e-08,0,131072,131072
294.001,-2.27404e-08,0,131072,131072
294.05,-2.26092e-08,0,131072,131072
294.1,-2.24688e-08,0,131072,131072
294.15,-2.23212e-08,0,131072,131072
294.201,-2.21657e-08,0,131072,131072
294.25,-2.20084e-08,0,131072,131072
294.3,-2.18481e-08,0,131072,131072
294.351,-2.16834e-08,0,131072,131072
294.4,-2.15202e-08,0,131072,131072
294.45,-2.13572e-08,0,131072,131072
294.5,-2.11953e-08,0,131072,131072
294.551,-2.10333e-08,0,131072,131072
294.6,-2.08765e-08,0,131072,131072
294.65,-2.07231e-08,0,131072,131072
294.7,-2.05735e-08,0,131072,131072
294.751,-2.04257e-08,0,131072,131072
294.8,-2.02845e-08,0,131072,131072
294.85,-2.01477e-08,0,131072,131072
294.901,-2.00141e-08,0,131072,131072
294.95,-1.98878e-08,0,131072,131072
295,-1.97671e-08,0,131072,131072
295.05,-1.96521e-08,0,131072,131072
295.101,-1.95414e-08,0,131072,131072
295.15,-1.94379e-08,0,131072,131072
295.2,-1.93396e-08,0,131072,131072
295.251,-1.9245e-08,0,131072,131072
295.301,-1.91564e-08,0,131072,131072
295.35,-1.90721e-08,0,131072,131072
295.4,-1.89916e-08,0,131072,131072
295.451,-1.89134e-08,0,131072,131072
295.5,-1.88394e-08,0,131072,131072
295.55,-1.87682e-08,0,131072,131072
295.6,-1.86994e-08,0,131072,131072
295.651,-1.86317e-08,0,131072,131072
295.7,-1.85668e-08,0,131072,131072
295.75,-1.85034e-08,0,131072,131072
295.801,-1.84403e-08,0,131072,131072
295.85,-1.83791e-08,0,131072,131072
295.9,-1.83186e-08,0,131072,131072
295.95,-1.82586e-08,0,131072,131072
296.001,-1.81981e-08,0,131072,131072
296.05,-1.81385e-08,0,131072,131072
296.1,-1.80789e-08,0,131072,131072
296.151,-1.80182e-08,0,131072,131072
296.201,-1.79581e-08,0,131072,131072
296.25,-1.78975e-08,0,131072,131072
296.3,-1.78363e-08,0,131072,131072
296.351,-1.77734e-08,0,131072,131072
296.4,-1.77107e-08,0,131072,131072
296.45,-1.76471e-08,0,131072,131072
296.5,-1.75824e-08,0,131072,131072
296.551,-1.75156e-08,0,131072,131072
296.6,-1.74485e-08,0,131072,131072
296.65,-1.738e-08,0,131072,131072
296.701,-1.73088e-08,0,131072,131072
296.75,-1.72367e-08,0,131072,131072
296.8,-1.71626e-08,0,131072,131072
296.85,-1.70862e-08,0,131072,131072
296.901,-1.70061e-08,0,131072,131072
296.95,-1.69242e-08,0,131072,131072
297,-1.68391e-08,0,131072,131072
297.05,-1.67507e-08,0,131072,131072
297.101,-1.6657e-08,0,131072,131072
297.15,-1.65607e-08,0,131072,131072
297.2,-1.64601e-08,0,131072,131072
297.251,-1.63533e-08,0,131072,131072
297.3,-1.62433e-08,0,131072,131072
297.35,-1.61283e-08,0,131072,131072
297.4,-1.60082e-08,0,131072,131072
297.451,-1.5881e-08,0,131072,131072
297.5,-1.57504e-08,0,131072,131072
297.55,-1.56145e-08,0,131072,131072
297.601,-1.54712e-08,0,131072,131072
297.651,-1.53248e-08,0,131072,131072
297.7,-1.51731e-08,0,131072,131072
297.75,-1.50161e-08,0,131072,131072
297.801,-1.48515e-08,0,131072,131072
297.85,-1.46837e-08,0,131072,131072
297.9,-1.45102e-08,0,131072,131072
297.95,-1.43306e-08,0,131072,131072
298.001,-1.41422e-08,0,131072,131072
298.05,-1.395e-08,0,131072,131072
298.1,-1.37517e-08,0,131072,131072
298.151,-1.35444e-08,0,131072,131072
298.2,-1.33343e-08,0,131072,131072
298.25,-1.31187e-08,0,131072,131072
298.3,-1.28975e-08,0,131072,131072
298.351,-1.26673e-08,0,131072,131072
298.4,-1.24338e-08,0,131072,131072
298.45,-1.21929e-08,0,131072,131072
298.501,-1.19396e-08,0,131072,131072
298.551,-1.16795e-08,0,131072,131072
298.6,-1.14072e-08,0,131072,131072
298.65,-1.11205e-08,0,131072,131072
298.701,-1.08122e-08,0,131072,131072
298.75,-1.04887e-08,0,131072,131072
298.8,-1.0143e-08,0,131072,131072
298.85,-9.77272e-09,0,131072,131072
298.901,-9.3697e-09,0,131072,131072
298.95,-8.94397e-09,0,131072,131072
299,-8.48878e-09,0,131072,131072
299.051,-7.99621e-09,0,131072,131072
299.1,-7.48064e-09,0,131072,131072
299.15,-6.93599e-09,0,131072,131072
299.2,-6.36409e-09,0,131072,131072
299.251,-5.75886e-09,0,131072,131072
299.3,-5.14184e-09,0,131072,131072
299.35,-4.50932e-09,0,131072,131072
299.4,-3.86684e-09,0,131072,131072
299.451,-3.21068e-09,0,131072,131072
299.5,-2.56558e-09,0,131072,131072
299.55,-1.92729e-09,0,131072,131072
299.601,-1.29133e-09,0,131072,131072
299.65,-6.80261e-10,0,131072,131072
299.7,-8.84051e-11,0,131072,131072
299.75,4.8076e-10,0,131072,131072
299.801,1.03159e-09,0,131072,131072
299.85,1.54483e-09,0,131072,131072
299.9,2.02547e-09,0,131072,131072
299.951,2.47642e-09,0,131072,131072
300,2.88139e-09,0,131072,131072
300.05,3.24468e-09,0,131072,131072
300.1,3.5647e-09,0,131072,131072
300.151,3.84461e-09,0,131072,131072
300.2,4.07675e-09,0,131072,131072
300.25,4.26688e-09,0,131072,131072
300.3,4.41717e-09,0,131072,131072
300.351,4.53167e-09,0,131072,131072
300.4,4.61006e-09,0,131072,131072
300.45,4.6573e-09,0,131072,131072
300.501,4.67647e-09,0,131072,131072
300.55,4.66999e-09,0,131072,131072
300.6,4.64126e-09,0,131072,131072
300.65,4.59317e-09,0,131072,131072
300.701,4.52757e-09,0,131072,131072
300.75,4.4492e-09,0,131072,131072
300.8,4.35986e-09,0,131072,131072
300.851,4.26043e-09,0,131072,131072
300.901,4.15585e-09,0,131072,131072
300.95,4.04653e-09,0,131072,131072
301,3.93406e-09,0,131072,131072
301.051,3.81822e-09,0,131072,131072
301.1,3.7037e-09,0,131072,131072
301.15,3.59001e-09,0,131072,131072
301.2,3.47808e-09,0,131072,131072
301.251,3.367e-09,0,131072,131072
301.3,3.26053e-09,0,131072,131072
301.35,3.15752e-09,0,131072,131072
301.401,3.0571e-09,0,131072,131072
301.45,2.9629e-09,0,131072,131072
301.5,2.87423e-09,0,131072,131072
301.55,2.79188e-09,0,131072,131072
301.601,2.71544e-09,0,131072,131072
301.65,2.64759e-09,0,131072,131072
301.7,2.58736e-09,0,131072,131072
301.751,2.53406e-09,0,131072,131072
301.801,2.4891e-09,0,131072,131072
301.85,2.45141e-09,0,131072,131072
301.9,2.42059e-09,0,131072,131072
301.951,2.39572e-09,0,131072,131072
302,2.37669e-09,0,131072,131072
302.05,2.36215e-09,0,131072,131072
302.1,2.35109e-09,0,131072,131072
302.151,2.34254e-09,0,131072,131072
302.2,2.336e-09,0,131072,131072
302.25,2.33073e-09,0,131072,131072
302.301,2.32609e-09,0,131072,131072
302.35,2.32152e-09,0,131072,131072
302.4,2.31617e-09,0,131072,131072
302.45,2.30926e-09,0,131072,131072
302.501,2.30009e-09,0,131072,131072
302.55,2.28879e-09,0,131072,131072
302.6,2.27563e-09,0,131072,131072
302.65,2.26144e-09,0,131072,131072
302.701,2.24706e-09,0,131072,131072
302.75,2.23388e-09,0,131072,131072
302.8,2.22232e-09,0,131072,131072
302.851,2.21243e-09,0,131072,131072
302.9,2.20424e-09,0,131072,131072
302.95,2.19704e-09,0,131072,131072
303,2.19016e-09,0,131072,131072
303.051,2.18299e-09,0,131072,131072
303.1,2.17548e-09,0,131072,131072
303.15,2.16765e-09,0,131072,131072
303.201,2.15987e-09,0,131072,131072
303.251,2.15311e-09,0,131072,131072
303.3,2.14805e-09,0,131072,131072
303.35,2.14539e-09,0,131072,131072
303.401,2.14555e-09,0,131072,131072
303.45,2.14852e-09,0,131072,131072
303.5,2.1539e-09,0,131072,131072
303.55,2.16105e-09,0,131072,131072
303.601,2.16932e-09,0,131072,131072
303.65,2.17778e-09,0,131072,131072
303.7,2.18603e-09,0,131072,131072
303.751,2.19394e-09,0,131072,131072
303.8,2.20122e-09,0,131072,131072
303.85,2.20807e-09,0,131072,131072
303.9,2.21454e-09,0,131072,131072
303.951,2.22066e-09,0,131072,131072
304,2.22605e-09,0,131072,131072
304.05,2.23054e-09,0,131072,131072
304.101,2.23393e-09,0,131072,131072
304.151,2.2361e-09,0,131072,131072
304.2,2.23724e-09,0,131072,131072
304.25,2.23764e-09,0,131072,131072
304.301,2.23757e-09,0,131072,131072
304.35,2.23715e-09,0,131072,131072
304.4,2.23633e-09,0,131072,131072
304.45,2.23495e-09,0,131072,131072
304.501,2.23281e-09,0,131072,131072
304.55,2.22995e-09,0,131072,131072
304.6,2.22647e-09,0,131072,131072
304.651,2.22252e-09,0,131072,131072
304.7,2.21847e-09,0,131072,131072
304.75,2.21438e-09,0,131072,131072
304.8,2.21022e-09,0,131072,131072
304.851,2.20578e-09,0,131072,131072
304.9,2.20099e-09,0,131072,131072
304.95,2.19563e-09,0,131072,131072
