250,0,0,2048,2048
250.006,0,0,2048,2048
250.053,0,0,2048,2048
250.105,0,0,2048,2048
250.152,0,0,2048,2048
250.205,0,0,2048,2048
250.252,0,0,2048,2048
250.305,0,0,2048,2048
250.352,0,0,2048,2048
250.404,2.77556e-17,0,2048,2048
250.451,0,0,2048,2048
250.504,0,0,2048,2048
250.551,0,0,2048,2048
250.603,0,0,2048,2048
250.65,2.77556e-17,0,2048,2048
250.703,0,0,2048,2048
250.756,0,0,2048,2048
250.803,0,0,2048,2048
250.855,-2.77556e-17,0,2048,2048
250.902,-2.77556e-17,0,2048,2048
250.955,0,0,2048,2048
251.002,0,0,2048,2048
251.055,0,0,2048,2048
251.101,0,0,2048,2048
251.154,0,0,2048,2048
251.201,0,0,2048,2048
251.254,2.77556e-17,0,2048,2048
251.301,5.55112e-17,0,2048,2048
251.353,5.55112e-17,0,2048,2048
251.4,0,0,2048,2048
251.453,0,0,2048,2048
251.506,0,0,2048,2048
251.553,0,0,2048,2048
251.605,0,0,2048,2048
251.652,0,0,2048,2048
251.705,0,0,2048,2048
251.752,0,0,2048,2048
251.804,0,0,2048,2048
251.851,2.77556e-17,0,2048,2048
251.904,2.77556e-17,0,2048,2048
251.951,2.77556e-17,0,2048,2048
252.004,2.77556e-17,0,2048,2048
252.05,5.55112e-17,0,2048,2048
252.103,5.55112e-17,0,2048,2048
252.15,5.55112e-17,0,2048,2048
252.203,5.55112e-17,0,2048,2048
252.256,5.55112e-17,0,2048,2048
252.302,5.55112e-17,0,2048,2048
252.355,5.55112e-17,0,2048,2048
252.402,5.55112e-17,0,2048,2048
252.455,5.55112e-17,0,2048,2048
252.502,5.55112e-17,0,2048,2048
252.554,0,0,2048,2048
252.601,0,0,2048,2048
252.654,-2.77556e-17,0,2048,2048
252.701,-2.77556e-17,0,2048,2048
252.754,-2.77556e-17,0,2048,2048
252.8,-2.77556e-17,0,2048,2048
252.853,-2.77556e-17,0,2048,2048
252.906,-2.77556e-17,0,2048,2048
252.953,-2.77556e-17,0,2048,2048
253.005,-2.77556e-17,0,2048,2048
253.052,-2.77556e-17,0,2048,2048
253.105,-2.77556e-17,0,2048,2048
253.152,-2.77556e-17,0,2048,2048
253.205,-2.77556e-17,0,2048,2048
253.251,-2.77556e-17,0,2048,2048
253.304,-2.77556e-17,0,2048,2048
253.351,2.77556e-17,0,2048,2048
253.404,5.55112e-17,0,2048,2048
253.451,2.77556e-17,0,2048,2048
253.503,2.77556e-17,0,2048,2048
253.55,2.77556e-17,0,2048,2048
253.603,0,0,2048,2048
253.656,-2.77556e-17,0,2048,2048
253.703,-2.77556e-17,0,2048,2048
253.755,-2.77556e-17,0,2048,2048
253.802,-2.77556e-17,0,2048,2048
253.855,-2.77556e-17,0,2048,2048
253.902,-2.77556e-17,0,2048,2048
253.954,-2.77556e-17,0,2048,2048
254.001,-2.77556e-17,0,2048,2048
254.054,-2.77556e-17,0,2048,2048
254.101,-2.77556e-17,0,2048,2048
254.154,0,0,2048,2048
254.201,2.77556e-17,0,2048,2048
254.253,2.77556e-17,0,2048,2048
254.3,0,0,2048,2048
254.353,2.77556e-17,0,2048,2048
254.406,0,0,2048,2048
254.452,2.77556e-17,0,2048,2048
254.505,0,0,2048,2048
254.552,-2.77556e-17,0,2048,2048
254.605,-2.77556e-17,0,2048,2048
254.652,-2.77556e-17,0,2048,2048
254.704,-2.77556e-17,0,2048,2048
254.751,-2.77556e-17,0,2048,2048
254.804,-2.77556e-17,0,2048,2048
254.851,-2.77556e-17,0,2048,2048
254.904,-2.77556e-17,0,2048,2048
254.95,-2.77556e-17,0,2048,2048
255.003,-2.77556e-17,0,2048,2048
255.05,-2.77556e-17,0,2048,2048
255.103,-2.77556e-17,0,2048,2048
255.155,-2.77556e-17,0,2048,2048
255.202,-2.77556e-17,0,2048,2048
255.255,0,0,2048,2048
255.302,0,0,2048,2048
255.355,0,0,2048,2048
255.402,0,0,2048,2048
255.454,0,0,2048,2048
255.501,-2.77556e-17,0,2048,2048
255.554,-2.77556e-17,0,2048,2048
255.601,-2.77556e-17,0,2048,2048
255.653,-2.77556e-17,0,2048,2048
255.7,0,0,2048,2048
255.753,2.77556e-17,0,2048,2048
255.806,5.55112e-17,0,2048,2048
255.853,2.77556e-17,0,2048,2048
255.905,0,0,2048,2048
255.952,0,0,2048,2048
256.005,2.77556e-17,0,2048,2048
256.052,2.77556e-17,0,2048,2048
256.105,2.77556e-17,0,2048,2048
256.151,2.77556e-17,0,2048,2048
256.204,2.77556e-17,0,2048,2048
256.251,2.77556e-17,0,2048,2048
256.304,2.77556e-17,0,2048,2048
256.351,2.77556e-17,0,2048,2048
256.403,8.32667e-17,0,2048,2048
256.45,8.32667e-17,0,2048,2048
256.503,5.55112e-17,0,2048,2048
256.556,8.32667e-17,0,2048,2048
256.603,5.55112e-17,0,2048,2048
256.655,8.32667e-17,0,2048,2048
256.702,5.55112e-17,0,2048,2048
256.755,5.55112e-17,0,2048,2048
256.802,5.55112e-17,0,2048,2048
256.854,2.77556e-17,0,2048,2048
256.901,2.77556e-17,0,2048,2048
256.954,2.77556e-17,0,2048,2048
257.001,2.77556e-17,0,2048,2048
257.054,2.77556e-17,0,2048,2048
257.101,2.77556e-17,0,2048,2048
257.153,0,0,2048,2048
257.2,0,0,2048,2048
257.253,-2.77556e-17,0,2048,2048
257.306,-2.77556e-17,0,2048,2048
257.352,-2.77556e-17,0,2048,2048
257.405,2.77556e-17,0,2048,2048
257.452,2.77556e-17,0,2048,2048
257.505,0,0,2048,2048
257.552,2.77556e-17,0,2048,2048
257.604,0,0,2048,2048
257.651,0,0,2048,2048
257.704,0,0,2048,2048
257.751,0,0,2048,2048
257.804,0,0,2048,2048
257.85,0,0,2048,2048
257.903,2.77556e-17,0,2048,2048
257.95,0,0,2048,2048
258.003,2.77556e-17,0,2048,2048
258.055,2.77556e-17,0,2048,2048
258.102,0,0,2048,2048
258.155,2.77556e-17,0,2048,2048
258.202,-2.77556e-17,0,2048,2048
258.255,-2.77556e-17,0,2048,2048
258.302,-2.77556e-17,0,2048,2048
258.354,0,0,2048,2048
258.401,5.55112e-17,0,2048,2048
258.454,5.55112e-17,0,2048,2048
258.501,5.55112e-17,0,2048,2048
258.553,5.55112e-17,0,2048,2048
258.6,5.55112e-17,0,2048,2048
258.653,5.55112e-17,0,2048,2048
258.706,5.55112e-17,0,2048,2048
258.753,5.55112e-17,0,2048,2048
258.805,5.55112e-17,0,2048,2048
258.852,5.55112e-17,0,2048,2048
258.905,5.55112e-17,0,2048,2048
258.952,5.55112e-17,0,2048,2048
259.005,5.55112e-17,0,2048,2048
259.051,5.55112e-17,0,2048,2048
259.104,2.77556e-17,0,2048,2048
259.151,2.77556e-17,0,2048,2048
259.204,2.77556e-17,0,2048,2048
259.251,2.77556e-17,0,2048,2048
259.303,2.77556e-17,0,2048,2048
259.35,2.77556e-17,0,2048,2048
259.403,0,0,2048,2048
259.456,2.77556e-17,0,2048,2048
259.503,0,0,2048,2048
259.555,0,0,2048,2048
259.602,0,0,2048,2048
259.655,0,0,2048,2048
259.702,-2.77556e-17,0,2048,2048
259.754,0,0,2048,2048
259.801,0,0,2048,2048
259.854,-5.55112e-17,0,2048,2048
259.901,-5.55112e-17,0,2048,2048
259.954,-5.55112e-17,0,2048,2048
260,-5.55112e-17,0,2048,2048
260.053,-2.77556e-17,0,2048,2048
260.1,-5.55112e-17,0,2048,2048
260.153,-5.55112e-17,0,2048,2048
260.206,-5.55112e-17,0,2048,2048
260.252,-5.55112e-17,0,2048,2048
260.305,-5.55112e-17,0,2048,2048
260.352,-5.55112e-17,0,2048,2048
260.405,-5.55112e-17,0,2048,2048
260.452,-5.55112e-17,0,2048,2048
260.504,-5.55112e-17,0,2048,2048
260.551,-5.55112e-17,0,2048,2048
260.604,-2.77556e-17,0,2048,2048
260.651,-2.77556e-17,0,2048,2048
260.704,-2.77556e-17,0,2048,2048
260.75,-2.77556e-17,0,2048,2048
260.803,-2.77556e-17,0,2048,2048
260.856,-2.77556e-17,0,2048,2048
260.903,-2.77556e-17,0,2048,2048
260.955,-2.77556e-17,0,2048,2048
261.002,-2.77556e-17,0,2048,2048
261.055,-5.55112e-17,0,2048,2048
261.102,-5.55112e-17,0,2048,2048
261.155,-5.55112e-17,0,2048,2048
261.201,-5.55112e-17,0,2048,2048
261.254,-5.55112e-17,0,2048,2048
261.301,-5.55112e-17,0,2048,2048
261.354,-5.55112e-17,0,2048,2048
261.401,-5.55112e-17,0,2048,2048
261.453,-5.55112e-17,0,2048,2048
261.5,-5.55112e-17,0,2048,2048
261.553,-5.55112e-17,0,2048,2048
261.606,-5.55112e-17,0,2048,2048
261.653,-5.55112e-17,0,2048,2048
261.705,-5.55112e-17,0,2048,2048
261.752,-5.55112e-17,0,2048,2048
261.805,-2.77556e-17,0,2048,2048
261.852,-2.77556e-17,0,2048,2048
261.905,-2.77556e-17,0,2048,2048
261.951,-2.77556e-17,0,2048,2048
262.004,-2.77556e-17,0,2048,2048
262.051,-2.77556e-17,0,2048,2048
262.104,-2.77556e-17,0,2048,2048
262.151,-2.77556e-17,0,2048,2048
262.203,-2.77556e-17,0,2048,2048
262.25,-2.77556e-17,0,2048,2048
262.303,-2.77556e-17,0,2048,2048
262.356,-5.55112e-17,0,2048,2048
262.402,-2.77556e-17,0,2048,2048
262.455,0,0,2048,2048
262.502,0,0,2048,2048
262.555,0,0,2048,2048
262.602,0,0,2048,2048
262.654,0,0,2048,2048
262.701,2.77556e-17,0,2048,2048
262.754,5.55112e-17,0,2048,2048
262.801,5.55112e-17,0,2048,2048
262.854,5.55112e-17,0,2048,2048
262.9,5.55112e-17,0,2048,2048
262.953,5.55112e-17,0,2048,2048
263,5.55112e-17,0,2048,2048
263.053,5.55112e-17,0,2048,2048
263.105,5.55112e-17,0,2048,2048
263.152,5.55112e-17,0,2048,2048
263.205,5.55112e-17,0,2048,2048
263.252,0,0,2048,2048
263.305,0,0,2048,2048
263.352,2.77556e-17,0,2048,2048
263.404,5.55112e-17,0,2048,2048
263.451,5.55112e-17,0,2048,2048
263.504,5.55112e-17,0,2048,2048
263.551,2.77556e-17,0,2048,2048
263.603,0,0,2048,2048
263.65,0,0,2048,2048
263.703,0,0,2048,2048
263.756,0,0,2048,2048
263.803,2.77556e-17,0,2048,2048
263.855,0,0,2048,2048
263.902,2.77556e-17,0,2048,2048
263.955,-2.77556e-17,0,2048,2048
264.002,-2.77556e-17,0,2048,2048
264.055,-2.77556e-17,0,2048,2048
264.101,-2.77556e-17,0,2048,2048
264.154,-2.77556e-17,0,2048,2048
264.201,-2.77556e-17,0,2048,2048
264.254,-2.77556e-17,0,2048,2048
264.301,0,0,2048,2048
264.353,2.77556e-17,0,2048,2048
264.4,2.77556e-17,0,2048,2048
264.453,0,0,2048,2048
264.506,0,0,2048,2048
264.553,0,0,2048,2048
264.605,2.77556e-17,0,2048,2048
264.652,2.77556e-17,0,2048,2048
264.705,-2.77556e-17,0,2048,2048
264.752,-2.77556e-17,0,2048,2048
264.804,-2.77556e-17,0,2048,2048
264.851,-2.77556e-17,0,2048,2048
264.904,-2.77556e-17,0,2048,2048
264.951,-2.77556e-17,0,2048,2048
265.004,-2.77556e-17,0,2048,2048
265.051,-2.77556e-17,0,2048,2048
265.103,-2.77556e-17,0,2048,2048
265.15,-2.77556e-17,0,2048,2048
265.203,-2.77556e-17,0,2048,2048
265.256,-2.77556e-17,0,2048,2048
265.302,0,0,2048,2048
265.355,2.77556e-17,0,2048,2048
265.402,2.77556e-17,0,2048,2048
265.455,2.77556e-17,0,2048,2048
265.502,2.77556e-17,0,2048,2048
265.554,2.77556e-17,0,2048,2048
265.601,2.77556e-17,0,2048,2048
265.654,0,0,2048,2048
265.701,-2.77556e-17,0,2048,2048
265.754,-5.55112e-17,0,2048,2048
265.8,-5.55112e-17,0,2048,2048
265.853,-5.55112e-17,0,2048,2048
265.9,-2.77556e-17,0,2048,2048
265.953,-2.77556e-17,0,2048,2048
266.005,-2.77556e-17,0,2048,2048
266.052,-2.77556e-17,0,2048,2048
266.105,-2.77556e-17,0,2048,2048
266.152,0,0,2048,2048
266.205,0,0,2048,2048
266.252,0,0,2048,2048
266.304,-2.77556e-17,0,2048,2048
266.351,-8.32667e-17,0,2048,2048
266.404,-8.32667e-17,0,2048,2048
266.451,-5.55112e-17,0,2048,2048
266.503,-8.32667e-17,0,2048,2048
266.55,-5.55112e-17,0,2048,2048
266.603,-5.55112e-17,0,2048,2048
266.656,-5.55112e-17,0,2048,2048
266.703,-5.55112e-17,0,2048,2048
266.755,-5.55112e-17,0,2048,2048
266.802,-2.77556e-17,0,2048,2048
266.855,-5.55112e-17,0,2048,2048
266.902,-5.55112e-17,0,2048,2048
266.955,-2.77556e-17,0,2048,2048
267.001,-2.77556e-17,0,2048,2048
267.054,-2.77556e-17,0,2048,2048
267.101,-2.77556e-17,0,2048,2048
267.154,-2.77556e-17,0,2048,2048
267.201,-2.77556e-17,0,2048,2048
267.253,-2.77556e-17,0,2048,2048
267.3,-2.77556e-17,0,2048,2048
267.353,-5.55112e-17,0,2048,2048
267.406,-5.55112e-17,0,2048,2048
267.453,-5.55112e-17,0,2048,2048
267.505,-1.11022e-16,0,2048,2048
267.552,-5.55112e-17,0,2048,2048
267.605,-8.32667e-17,0,2048,2048
267.652,-8.32667e-17,0,2048,2048
267.704,-5.55112e-17,0,2048,2048
267.751,-5.55112e-17,0,2048,2048
267.804,-2.77556e-17,0,2048,2048
267.851,-5.55112e-17,0,2048,2048
267.904,-8.32667e-17,0,2048,2048
267.95,-5.55112e-17,0,2048,2048
268.003,-5.55112e-17,0,2048,2048
268.05,-5.55112e-17,0,2048,2048
268.103,-5.55112e-17,0,2048,2048
268.156,-5.55112e-17,0,2048,2048
268.202,-2.77556e-17,0,2048,2048
268.255,-2.77556e-17,0,2048,2048
268.302,-2.77556e-17,0,2048,2048
268.355,-2.77556e-17,0,2048,2048
268.402,-2.77556e-17,0,2048,2048
268.454,-2.77556e-17,0,2048,2048
268.501,-2.77556e-17,0,2048,2048
268.554,-2.77556e-17,0,2048,2048
268.601,-2.77556e-17,0,2048,2048
268.654,-2.77556e-17,0,2048,2048
268.7,-2.77556e-17,0,2048,2048
268.753,-2.77556e-17,0,2048,2048
268.806,-2.77556e-17,0,2048,2048
268.853,-2.77556e-17,0,2048,2048
268.905,-2.77556e-17,0,2048,2048
268.952,2.77556e-17,0,2048,2048
269.005,2.77556e-17,0,2048,2048
269.052,2.77556e-17,0,2048,2048
269.105,2.77556e-17,0,2048,2048
269.151,2.77556e-17,0,2048,2048
269.204,0,0,2048,2048
269.251,2.77556e-17,0,2048,2048
269.304,2.77556e-17,0,2048,2048
269.351,2.77556e-17,0,2048,2048
269.403,5.55112e-17,0,2048,2048
269.45,5.55112e-17,0,2048,2048
269.503,8.32667e-17,0,2048,2048
269.556,8.32667e-17,0,2048,2048
269.603,8.32667e-17,0,2048,2048
269.651,8.32667e-17,0,2074,2074
269.7,1.11022e-16,0,2122,2122
269.75,1.11022e-16,0,2158,2158
269.8,1.11022e-16,0,2194,2194
269.853,1.11022e-16,0,2242,2242
269.903,1.11022e-16,0,2278,2278
269.952,1.11022e-16,0,2314,2314
270.002,1.11022e-16,0,2362,2362
270.052,1.11022e-16,0,2398,2398
270.102,1.11022e-16,0,2434,2434
270.152,1.11022e-16,0,2482,2482
270.201,1.11022e-16,0,2518,2518
270.251,1.11022e-16,0,2554,2554
270.301,1.11022e-16,0,2566,2566
270.351,1.11022e-16,0,2566,2566
270.401,1.11022e-16,0,2602,2602
270.45,1.11022e-16,0,2638,2638
270.5,1.11022e-16,0,2686,2686
270.553,1.11022e-16,0,2722,2722
270.603,1.11022e-16,0,2770,2770
270.652,1.11022e-16,0,2806,2806
270.702,3.88578e-16,0,2842,2842
270.752,4.71845e-16,0,2890,2890
270.802,-3.05311e-15,0,2926,2926
270.852,-4.76563e-14,0,2974,2974
270.901,-3.39395e-13,0,3010,3010
270.951,-1.64244e-12,0,3046,3046
271.001,-5.9612e-12,0,3094,3094
271.051,-1.70056e-11,0,3130,3130
271.101,-3.92295e-11,0,3178,3178
271.15,-7.45655e-11,0,3214,3214
271.2,-1.18166e-10,0,3250,3250
271.25,-1.56919e-10,0,3286,3286
271.303,-1.74004e-10,0,3334,3334
271.353,-1.56024e-10,0,3334,3334
271.402,-1.07744e-10,0,3358,3358
271.452,-4.54411e-11,0,3406,3406
271.502,1.03049e-11,0,3442,3442
271.552,4.60906e-11,0,3490,3490
271.602,6.16702e-11,0,3526,3526
271.651,6.67628e-11,0,3574,3574
271.701,7.20311e-11,0,3610,3610
271.751,8.15454e-11,0,3658,3658
271.801,9.19829e-11,0,3694,3694
271.851,9.78539e-11,0,3742,3742
271.9,9.74099e-11,0,3778,3778
271.95,9.42053e-11,0,3826,3826
272.003,9.37851e-11,0,3862,3862
272.053,9.86195e-11,0,3910,3910
272.102,1.05902e-10,0,3946,3946
272.152,1.10718e-10,0,3994,3994
272.202,1.10241e-10,0,4030,4030
272.252,1.06132e-10,0,4078,4078
272.302,1.03096e-10,0,4114,4114
272.351,1.04809e-10,0,4150,4150
272.401,1.10635e-10,0,4198,4198
272.451,1.16142e-10,0,4234,4234
272.501,1.1746e-10,0,4282,4282
272.551,1.15884e-10,0,4318,4318
272.6,1.17688e-10,0,4354,4354
272.65,1.27118e-10,0,4402,4402
272.7,1.37128e-10,0,4438,4438
272.753,1.26599e-10,0,4486,4486
272.803,8.03557e-11,0,4522,4522
272.852,1.7657e-11,0,4558,4558
272.902,1.04137e-11,0,4606,4606
272.952,1.63125e-10,0,4642,4642
273.002,5.53846e-10,0,4678,4678
273.052,1.38833e-09,0,4714,4714
273.101,5.06568e-09,0,4762,4762
273.151,1.02878e-08,0,4798,4798
273.201,1.59527e-08,0,4834,4834
273.251,2.11357e-08,0,4870,4870
273.301,2.52954e-08,0,4906,4906
273.35,2.84624e-08,0,4954,4954
273.4,3.1272e-08,0,4990,4990
273.453,3.50119e-08,0,5026,5026
273.503,4.03361e-08,0,5062,5062
273.552,4.79851e-08,0,5110,5110
273.602,5.79972e-08,0,5146,5146
273.652,7.02329e-08,0,5182,5182
273.702,8.48608e-08,0,5218,5218
273.752,1.0259e-07,0,5222,5222
273.801,1.2451e-07,0,5258,5258
273.851,1.51706e-07,0,5326,5326
273.901,1.84854e-07,0,5362,5362
273.951,2.23894e-07,0,5398,5398
274.001,2.67909e-07,0,5434,5434
274.05,3.15434e-07,0,5470,5470
274.1,3.65182e-07,0,5506,5506
274.153,4.19838e-07,0,5554,5554
274.203,4.73794e-07,0,5590,5590
274.253,5.30375e-07,0,5626,5626
274.302,5.88736e-07,0,5662,5662
274.352,6.46529e-07,0,5686,5686
274.402,7.0055e-07,0,5722,5722
274.452,7.47782e-07,0,5758,5758
274.502,7.86186e-07,0,5794,5794
274.551,8.15048e-07,0,5830,5830
274.601,8.34949e-07,0,5866,5866
274.651,8.47397e-07,0,5902,5902
274.701,8.54185e-07,0,5938,5938
274.75,8.56743e-07,0,5974,5974
274.8,8.55781e-07,0,6010,6010
274.85,8.51289e-07,0,6046,6046
274.903,8.42062e-07,0,6082,6082
274.953,8.28201e-07,0,6106,6106
275.002,8.08347e-07,0,6142,6142
275.052,7.81666e-07,0,6178,6178
275.102,7.4775e-07,0,6214,6214
275.152,7.06955e-07,0,6250,6250
275.202,6.60608e-07,0,6286,6286
275.251,6.10852e-07,0,6310,6310
275.301,5.60108e-07,0,6346,6346
275.351,5.10472e-07,0,6382,6382
275.401,4.63363e-07,0,6418,6418
275.451,4.19477e-07,0,6454,6454
275.5,3.78926e-07,0,6478,6478
275.55,3.41417e-07,0,6514,6514
275.603,3.04466e-07,0,6550,6550
275.653,2.7168e-07,0,6586,6586
275.703,2.40719e-07,0,6622,6622
275.752,2.11851e-07,0,6646,6646
275.802,1.85851e-07,0,6682,6682
275.852,1.63643e-07,0,6718,6718
275.902,1.45594e-07,0,6754,6754
275.951,1.31003e-07,0,6790,6790
276.001,1.18319e-07,0,6814,6814
276.051,1.06048e-07,0,6850,6850
276.101,9.36338e-08,0,6886,6886
276.151,8.16133e-08,0,6910,6910
276.2,7.10216e-08,0,6946,6946
276.25,6.26167e-08,0,6982,6982
276.3,5.64579e-08,0,7018,7018
276.353,5.16901e-08,0,7054,7054
276.403,4.7786e-08,0,7078,7078
276.452,4.35008e-08,0,7114,7114
276.502,3.84239e-08,0,7150,7150
276.552,3.29132e-08,0,7174,7174
276.602,2.78761e-08,0,7210,7210
276.652,2.41838e-08,0,7246,7246
276.701,2.2153e-08,0,7270,7270
276.751,2.14693e-08,0,7306,7306
276.801,2.15176e-08,0,7342,7342
276.851,2.17766e-08,0,7378,7378
276.901,2.19953e-08,0,7402,7402
276.95,2.21371e-08,0,7438,7438
277,2.22375e-08,0,7474,7474
277.053,2.23076e-08,0,7498,7498
277.103,2.22892e-08,0,7534,7534
277.152,2.21257e-08,0,7570,7570
277.202,2.18238e-08,0,7594,7594
277.252,2.14811e-08,0,7630,7630
277.302,2.12027e-08,0,7666,7666
277.352,2.10196e-08,0,7690,7690
277.401,2.08989e-08,0,7726,7726
277.451,2.07958e-08,0,7750,7750
277.501,2.06821e-08,0,7786,7786
277.551,2.05451e-08,0,7810,7810
277.601,2.03795e-08,0,7846,7846
277.65,2.01828e-08,0,7882,7882
277.7,1.9953e-08,0,7906,7906
277.75,1.96888e-08,0,7942,7942
277.803,1.93707e-08,0,7966,7966
277.853,1.90338e-08,0,7990,7990
277.902,1.86627e-08,0,8026,8026
277.952,1.82595e-08,0,8050,8050
278.002,1.78275e-08,0,8074,8074
278.052,1.73711e-08,0,8098,8098
278.102,1.6895e-08,0,8122,8122
278.151,1.64039e-08,0,8146,8146
278.201,1.59023e-08,0,8192,8192
278.251,1.5394e-08,0,8192,8192
278.301,1.48824e-08,0,8192,8192
278.351,1.43705e-08,0,8192,8192
278.4,1.38613e-08,0,8192,8192
278.45,1.33579e-08,0,8192,8192
278.503,1.28348e-08,0,8192,8192
278.553,1.2354e-08,0,8192,8192
278.602,1.18901e-08,0,8192,8192
278.652,1.14468e-08,0,8192,8192
278.702,1.10276e-08,0,8192,8192
278.752,1.06355e-08,0,8192,8192
278.802,1.02724e-08,0,8192,8192
278.851,9.93921e-09,0,8192,8192
278.901,9.63604e-09,0,8192,8192
278.951,9.36205e-09,0,8192,8192
279.001,9.11595e-09,0,8192,8192
279.051,8.89616e-09,0,8192,8192
279.1,8.70103e-09,0,8192,8192
279.15,8.52894e-09,0,8192,8192
279.2,8.3783e-09,0,8192,8192
279.253,8.24042e-09,0,8192,8192
279.303,8.12884e-09,0,8192,8192
279.352,8.0335e-09,0,8192,8192
279.402,7.95251e-09,0,8192,8192
279.452,7.88399e-09,0,8192,8192
279.502,7.82634e-09,0,8192,8192
279.552,7.77827e-09,0,8192,8192
279.601,7.73882e-09,0,8192,8192
279.651,7.70723e-09,0,8192,8192
279.701,7.68276e-09,0,8192,8192
279.751,7.66461e-09,0,8192,8192
279.801,7.65188e-09,0,8192,8192
279.85,7.64373e-09,0,8192,8192
279.9,7.63946e-09,0,8192,8192
279.953,7.63867e-09,0,8192,8192
280.003,7.64121e-09,0,8192,8192
280.052,7.64681e-09,0,8192,8192
280.102,7.65531e-09,0,8192,8192
280.152,7.6664e-09,0,8192,8192
280.202,7.67962e-09,0,8192,8192
280.252,7.6944e-09,0,8192,8192
280.301,7.71021e-09,0,8192,8192
280.351,7.72659e-09,0,8192,8192
280.401,7.74322e-09,0,8192,8192
280.451,7.75994e-09,0,8192,8192
280.501,7.77664e-09,0,8192,8192
280.55,7.7933e-09,0,8192,8192
280.6,7.80992e-09,0,8192,8192
280.65,7.82653e-09,0,8192,8192
280.703,7.84411e-09,0,8192,8192
280.753,7.86073e-09,0,8192,8192
280.802,7.87732e-09,0,8192,8192
280.852,7.89387e-09,0,8192,8192
280.902,7.91031e-09,0,8192,8192
280.952,7.92659e-09,0,8192,8192
281.002,7.94266e-09,0,8192,8192
281.051,7.95845e-09,0,8192,8192
281.101,7.97392e-09,0,8192,8192
281.151,7.98901e-09,0,8192,8192
281.201,8.00369e-09,0,8192,8192
281.251,8.01791e-09,0,8192,8192
281.3,8.03163e-09,0,8192,8192
281.35,8.04478e-09,0,8192,8192
281.403,8.05805e-09,0,8192,8192
281.453,8.06991e-09,0,8192,8192
281.502,8.08116e-09,0,8192,8192
281.552,8.09191e-09,0,8192,8192
281.602,8.10249e-09,0,8192,8192
281.652,8.1135e-09,0,8192,8192
281.702,8.12599e-09,0,8192,8192
281.751,8.1415e-09,0,8192,8192
281.801,8.16204e-09,0,8192,8192
281.851,8.19003e-09,0,8192,8192
281.901,8.22807e-09,0,8192,8192
281.951,8.27872e-09,0,8192,8192
282,8.34437e-09,0,8192,8192
282.05,8.42718e-09,0,8192,8192
282.1,8.52917e-09,0,8192,8192
282.153,8.66046e-09,0,8192,8192
282.203,8.80917e-09,0,8192,8192
282.252,8.98536e-09,0,8192,8192
282.302,9.19359e-09,0,8192,8192
282.352,9.43983e-09,0,8192,8192
282.402,9.73169e-09,0,8192,8192
282.452,1.00785e-08,0,8192,8192
282.501,1.04915e-08,0,8192,8192
282.551,1.09836e-08,0,8192,8192
282.601,1.15693e-08,0,8192,8192
282.651,1.22647e-08,0,8192,8192
282.7,1.30864e-08,0,8192,8192
282.75,1.40514e-08,0,8192,8192
282.8,1.51764e-08,0,8192,8192
282.853,1.65593e-08,0,8192,8192
282.903,1.80612e-08,0,8192,8192
282.952,1.97654e-08,0,8192,8192
283.002,2.16807e-08,0,8192,8192
283.052,2.38124e-08,0,8192,8192
283.102,2.61621e-08,0,8192,8192
283.152,2.87267e-08,0,8192,8192
283.201,3.14988e-08,0,8192,8192
283.251,3.44665e-08,0,8192,8192
283.301,3.76149e-08,0,8192,8192
283.351,4.09267e-08,0,8192,8192
283.401,4.43845e-08,0,8192,8192
283.45,4.7973e-08,0,8192,8192
283.5,5.1683e-08,0,8192,8192
283.553,5.57442e-08,0,8192,8192
283.603,5.97199e-08,0,8192,8192
283.653,6.38606e-08,0,8192,8192
283.702,6.82077e-08,0,8192,8192
283.752,7.2808e-08,0,8192,8192
283.802,7.77052e-08,0,8192,8192
283.852,8.29297e-08,0,8192,8192
283.901,8.84921e-08,0,8192,8192
283.951,9.43831e-08,0,8192,8192
284.001,1.00581e-07,0,8192,8192
284.051,1.07068e-07,0,8192,8192
284.101,1.13847e-07,0,8192,8192
284.15,1.20963e-07,0,8192,8192
284.2,1.28515e-07,0,8192,8192
284.25,1.36666e-07,0,8192,8192
284.303,1.46205e-07,0,8192,8192
284.353,1.56366e-07,0,8192,8192
284.402,1.67977e-07,0,8192,8192
284.452,1.81386e-07,0,8192,8192
284.502,1.96942e-07,0,8192,8192
284.552,2.14975e-07,0,8192,8192
284.602,2.3577e-07,0,8192,8192
284.651,2.59543e-07,0,8192,8192
284.701,2.86415e-07,0,8192,8192
284.751,3.16396e-07,0,8192,8192
284.801,3.49366e-07,0,8192,8192
284.851,3.85071e-07,0,8192,8192
284.9,4.23118e-07,0,8192,8192
284.95,4.62974e-07,0,8192,8192
285.003,5.06406e-07,0,8192,8192
285.053,5.47757e-07,0,8192,8192
285.102,5.88519e-07,0,8192,8192
285.152,6.2773e-07,0,8192,8192
285.202,6.64412e-07,0,8192,8192
285.252,6.97626e-07,0,8192,8192
285.302,7.26538e-07,0,8192,8192
285.351,7.50473e-07,0,8192,8192
285.401,7.68948e-07,0,8192,8192
285.451,7.81682e-07,0,8192,8192
285.501,7.88575e-07,0,8192,8192
285.551,7.89673e-07,0,8192,8192
285.6,7.85114e-07,0,8192,8192
285.65,7.7508e-07,0,8192,8192
285.7,7.59767e-07,0,8192,8192
285.753,7.3802e-07,0,8192,8192
285.803,7.1248e-07,0,8192,8192
285.852,6.82344e-07,0,8192,8192
285.902,6.47953e-07,0,8192,8192
285.952,6.09756e-07,0,8192,8192
286.002,5.68334e-07,0,8192,8192
286.052,5.24384e-07,0,8192,8192
286.101,4.78698e-07,0,8192,8192
286.151,4.32114e-07,0,8192,8192
286.201,3.85462e-07,0,8192,8192
286.251,3.39517e-07,0,8192,8192
286.301,2.94954e-07,0,8192,8192
286.35,2.52328e-07,0,8192,8192
286.4,2.12065e-07,0,8192,8192
286.453,1.72348e-07,0,8192,8192
286.503,1.37798e-07,0,8192,8192
286.552,1.06233e-07,0,8192,8192
286.602,7.76873e-08,0,8192,8192
286.652,5.2129e-08,0,8192,8192
286.702,2.94711e-08,0,8192,8192
286.752,9.57938e-09,0,8192,8192
286.801,-7.7166e-09,0,8192,8192
286.851,-2.26102e-08,0,8192,8192
286.901,-3.53035e-08,0,8192,8192
286.951,-4.59961e-08,0,8192,8192
287.001,-5.48778e-08,0,8192,8192
287.05,-6.21263e-08,0,8192,8192
287.1,-6.79085e-08,0,8192,8192
287.15,-7.23818e-08,0,8192,8192
287.203,-7.58556e-08,0,8192,8192
287.253,-7.8085e-08,0,8192,8192
287.302,-7.94123e-08,0,8192,8192
287.352,-7.99338e-08,0,8192,8192
287.402,-7.97255e-08,0,8192,8192
287.452,-7.88485e-08,0,8192,8192
287.502,-7.73567e-08,0,8192,8192
287.551,-7.53064e-08,0,8192,8192
287.601,-7.27635e-08,0,8192,8192
287.651,-6.98072e-08,0,8192,8192
287.701,-6.65284e-08,0,8192,8192
287.751,-6.3025e-08,0,8192,8192
287.8,-5.93944e-08,0,8192,8192
287.85,-5.57267e-08,0,8192,8192
287.903,-5.18883e-08,0,8192,8192
287.953,-4.83688e-08,0,8192,8192
288.002,-4.49959e-08,0,8192,8192
288.052,-4.1797e-08,0,8192,8192
288.102,-3.87869e-08,0,8192,8192
288.152,-3.59708e-08,0,8192,8192
288.202,-3.33478e-08,0,8192,8192
288.251,-3.09135e-08,0,8192,8192
288.301,-2.86617e-08,0,8192,8192
288.351,-2.65853e-08,0,8192,8192
288.401,-2.46773e-08,0,8192,8192
288.451,-2.29304e-08,0,8192,8192
288.5,-2.13373e-08,0,8192,8192
288.55,-1.98901e-08,0,8192,8192
288.6,-1.85807e-08,0,8192,8192
288.653,-1.73348e-08,0,8192,8192
288.703,-1.62816e-08,0,8192,8192
288.752,-1.53392e-08,0,8192,8192
288.802,-1.44988e-08,0,8192,8192
288.852,-1.37523e-08,0,8192,8192
288.902,-1.30917e-08,0,8192,8192
288.952,-1.25101e-08,0,8192,8192
289.001,-1.2001e-08,0,8192,8192
289.051,-1.15587e-08,0,8192,8192
289.101,-1.11781e-08,0,8192,8192
289.151,-1.08545e-08,0,8192,8192
289.201,-1.05836e-08,0,8192,8192
289.25,-1.03613e-08,0,8192,8192
289.3,-1.01835e-08,0,8192,8192
289.353,-1.00394e-08,0,8192,8192
289.403,-9.94071e-09,0,8192,8192
289.452,-9.87432e-09,0,8192,8192
289.502,-9.83612e-09,0,8192,8192
289.552,-9.82204e-09,0,8192,8192
289.602,-9.82806e-09,0,8192,8192
289.652,-9.85035e-09,0,8192,8192
289.701,-9.88527e-09,0,8192,8192
289.751,-9.92947e-09,0,8192,8192
289.801,-9.97998e-09,0,8192,8192
289.851,-1.00342e-08,0,8192,8192
289.901,-1.009e-08,0,8192,8192
289.95,-1.01457e-08,0,8192,8192
290,-1.01999e-08,0,8192,8192
290.053,-1.02546e-08,0,8192,8192
290.103,-1.03032e-08,0,8192,8192
290.153,-1.03485e-08,0,8192,8192
290.202,-1.03905e-08,0,8192,8192
290.252,-1.04293e-08,0,8192,8192
290.302,-1.04653e-08,0,8192,8192
290.352,-1.04988e-08,0,8192,8192
290.402,-1.05302e-08,0,8192,8192
290.451,-1.05599e-08,0,8192,8192
290.501,-1.05879e-08,0,8192,8192
290.551,-1.06144e-08,0,8192,8192
290.601,-1.06394e-08,0,8192,8192
290.65,-1.06629e-08,0,8192,8192
290.7,-1.06846e-08,0,8192,8192
290.75,-1.07046e-08,0,8192,8192
290.803,-1.07238e-08,0,8192,8192
290.853,-1.07402e-08,0,8192,8192
290.902,-1.07553e-08,0,8192,8192
290.952,-1.07697e-08,0,8192,8192
291.002,-1.07842e-08,0,8192,8192
291.052,-1.07996e-08,0,8192,8192
291.102,-1.08173e-08,0,8192,8192
291.151,-1.08387e-08,0,8192,8192
291.201,-1.08652e-08,0,8192,8192
291.251,-1.08984e-08,0,8192,8192
291.301,-1.094e-08,0,8192,8192
291.351,-1.09915e-08,0,8192,8192
291.4,-1.10544e-08,0,8192,8192
291.45,-1.11302e-08,0,8192,8192
291.503,-1.12256e-08,0,8192,8192
291.553,-1.13309e-08,0,8192,8192
291.602,-1.14515e-08,0,8192,8192
291.652,-1.15875e-08,0,8192,8192
291.702,-1.17389e-08,0,8192,8192
291.752,-1.19051e-08,0,8192,8192
291.802,-1.20858e-08,0,8192,8192
291.851,-1.22805e-08,0,8192,8192
291.901,-1.2489e-08,0,8192,8192
291.951,-1.27112e-08,0,8192,8192
292.001,-1.29475e-08,0,8192,8192
292.051,-1.31984e-08,0,8192,8192
292.1,-1.34647e-08,0,8192,8192
292.15,-1.37468e-08,0,8192,8192
292.2,-1.40453e-08,0,8192,8192
292.253,-1.43792e-08,0,8192,8192
292.303,-1.4711e-08,0,8192,8192
292.352,-1.50581e-08,0,8192,8192
292.402,-1.5419e-08,0,8192,8192
292.452,-1.57921e-08,0,8192,8192
292.502,-1.61755e-08,0,8192,8192
292.552,-1.65672e-08,0,8192,8192
292.601,-1.69651e-08,0,8192,8192
292.651,-1.7367e-08,0,8192,8192
292.701,-1.77707e-08,0,8192,8192
292.751,-1.81741e-08,0,8192,8192
292.801,-1.85748e-08,0,8192,8192
292.85,-1.89705e-08,0,8192,8192
292.9,-1.93589e-08,0,8192,8192
292.953,-1.97593e-08,0,8192,8192
293.003,-2.01248e-08,0,8192,8192
293.052,-2.04755e-08,0,8192,8192
293.102,-2.0809e-08,0,8192,8192
293.152,-2.11232e-08,0,8192,8192
293.202,-2.14158e-08,0,8192,8192
293.252,-2.16851e-08,0,8192,8192
293.301,-2.19294e-08,0,8192,8192
293.351,-2.21473e-08,0,8192,8192
293.401,-2.23378e-08,0,8192,8192
293.451,-2.25002e-08,0,8192,8192
293.501,-2.26343e-08,0,8192,8192
293.55,-2.274e-08,0,8192,8192
293.6,-2.2818e-08,0,8192,8192
293.65,-2.2869e-08,0,8192,8192
293.703,-2.28949e-08,0,8192,8192
293.753,-2.28942e-08,0,8192,8192
293.802,-2.28708e-08,0,8192,8192
293.852,-2.28265e-08,0,8192,8192
293.902,-2.27632e-08,0,8192,8192
293.952,-2.26829e-08,0,8192,8192
294.002,-2.25878e-08,0,8192,8192
294.051,-2.24799e-08,0,8192,8192
294.101,-2.23611e-08,0,8192,8192
294.151,-2.22334e-08,0,8192,8192
294.201,-2.20984e-08,0,8192,8192
294.251,-2.19579e-08,0,8192,8192
294.3,-2.18131e-08,0,8192,8192
294.35,-2.16653e-08,0,8192,8192
294.403,-2.15069e-08,0,8192,8192
294.453,-2.13564e-08,0,8130,8130
294.502,-2.12061e-08,0,8160,8160
294.552,-2.10566e-08,0,8192,8192
294.602,-2.09087e-08,0,8192,8192
294.652,-2.0763e-08,0,8192,8192
294.702,-2.06201e-08,0,8192,8192
294.751,-2.04804e-08,0,8192,8192
294.801,-2.03444e-08,0,8192,8192
294.851,-2.02123e-08,0,8192,8192
294.901,-2.00844e-08,0,8192,8192
294.951,-1.9961e-08,0,8192,8192
295,-1.98421e-08,0,8192,8192
295.05,-1.97279e-08,0,8192,8192
295.1,-1.96182e-08,0,8192,8192
295.153,-1.95071e-08,0,8192,8192
295.203,-1.94068e-08,0,8192,8192
295.252,-1.93107e-08,0,8184,8184
295.302,-1.92187e-08,0,8168,8168
295.352,-1.91305e-08,0,8168,8168
295.402,-1.9046e-08,0,8168,8168
295.452,-1.89648e-08,0,8184,8184
295.501,-1.88866e-08,0,8192,8192
295.551,-1.88112e-08,0,8184,8184
295.601,-1.87382e-08,0,8192,8192
295.651,-1.86674e-08,0,8176,8176
295.701,-1.85986e-08,0,8168,8168
295.75,-1.85313e-08,0,8160,8160
295.8,-1.84655e-08,0,8160,8160
295.853,-1.8397e-08,0,8152,8152
295.903,-1.83332e-08,0,8160,8160
295.952,-1.82701e-08,0,8160,8160
296.002,-1.82075e-08,0,8152,8152
296.052,-1.81452e-08,0,8152,8152
296.102,-1.80831e-08,0,8152,8152
296.152,-1.80208e-08,0,8152,8152
296.201,-1.79584e-08,0,8152,8152
296.251,-1.78956e-08,0,8152,8152
296.301,-1.78323e-08,0,8152,8152
296.351,-1.77684e-08,0,8144,8144
296.401,-1.77038e-08,0,8168,8168
296.45,-1.76381e-08,0,8192,8192
296.5,-1.75715e-08,0,8192,8192
296.55,-1.75035e-08,0,8184,8184
296.603,-1.74301e-08,0,8168,8168
296.653,-1.7359e-08,0,8160,8160
296.702,-1.72862e-08,0,8152,8152
296.752,-1.72114e-08,0,8152,8152
296.802,-1.71344e-08,0,8160,8160
296.852,-1.70549e-08,0,8160,8160
296.902,-1.69727e-08,0,8160,8160
296.951,-1.68877e-08,0,8144,8144
297.001,-1.67995e-08,0,8152,8152
297.051,-1.67079e-08,0,8144,8144
297.101,-1.66127e-08,0,8144,8144
297.151,-1.65137e-08,0,8152,8152
297.2,-1.64106e-08,0,8144,8144
297.25,-1.63033e-08,0,8144,8144
297.303,-1.61848e-08,0,8144,8144
297.353,-1.60681e-08,0,8144,8144
297.402,-1.59466e-08,0,8144,8144
297.452,-1.58203e-08,0,8144,8144
297.502,-1.56889e-08,0,8144,8144
297.552,-1.55523e-08,0,8144,8144
297.602,-1.54106e-08,0,8144,8144
297.651,-1.52635e-08,0,8144,8144
297.701,-1.51109e-08,0,8144,8144
297.751,-1.49529e-08,0,8152,8152
297.801,-1.47892e-08,0,8144,8144
297.851,-1.46199e-08,0,8144,8144
297.9,-1.44448e-08,0,8144,8144
297.95,-1.42638e-08,0,8144,8144
298.003,-1.40656e-08,0,8144,8144
298.053,-1.3872e-08,0,8144,8144
298.103,-1.3672e-08,0,8144,8144
298.152,-1.34653e-08,0,8144,8144
298.202,-1.32515e-08,0,8144,8144
298.252,-1.30301e-08,0,8144,8144
298.302,-1.28006e-08,0,8144,8144
298.352,-1.25622e-08,0,8144,8144
298.401,-1.2314e-08,0,8144,8144
298.451,-1.20551e-08,0,8144,8144
298.501,-1.17843e-08,0,8144,8144
298.551,-1.15004e-08,0,8144,8144
298.6,-1.1202e-08,0,8136,8136
298.65,-1.08878e-08,0,8140,8140
298.7,-1.05563e-08,0,8144,8144
298.753,-1.01851e-08,0,8140,8140
298.803,-9.81413e-09,0,8132,8132
298.852,-9.42239e-09,0,8136,8136
298.902,-9.00914e-09,0,8140,8140
298.952,-8.57398e-09,0,8128,8128
299.002,-8.11687e-09,0,8128,8128
299.052,-7.63822e-09,0,8128,8128
299.101,-7.13888e-09,0,8132,8132
299.151,-6.62016e-09,0,8132,8132
299.201,-6.08382e-09,0,8132,8132
299.251,-5.53193e-09,0,8136,8136
299.301,-4.96657e-09,0,8132,8132
299.35,-4.3892e-09,0,8128,8128
299.4,-3.79975e-09,0,8128,8128
299.453,-3.16165e-09,0,8124,8124
299.503,-2.55059e-09,0,8124,8124
299.553,-1.94839e-09,0,8112,8112
299.602,-1.37444e-09,0,8116,8116
299.652,-8.283e-10,0,8112,8112
299.702,-2.84262e-10,0,8116,8116
299.752,9.88787e-11,0,8112,8112
299.801,4.04554e-10,0,8116,8116
299.851,7.82151e-10,0,8112,8112
299.901,1.50555e-09,0,8112,8112
299.951,1.97457e-09,0,8104,8104
300.001,2.36435e-09,0,8104,8104
300.05,2.71067e-09,0,8108,8108
300.1,3.02823e-09,0,8108,8108
300.15,3.30963e-09,0,8104,8104
300.203,3.57257e-09,0,8104,8104
300.253,3.7834e-09,0,8096,8096
300.302,3.95944e-09,0,8092,8092
300.352,4.10709e-09,0,8088,8088
300.402,4.2229e-09,0,8088,8088
300.452,4.30951e-09,0,8076,8076
300.502,4.36886e-09,0,8076,8076
300.551,4.4028e-09,0,8076,8076
300.601,4.41522e-09,0,8076,8076
300.651,4.40797e-09,0,8088,8088
300.701,4.38255e-09,0,8076,8076
300.751,4.34054e-09,0,8076,8076
300.8,4.28426e-09,0,8076,8076
300.85,4.21742e-09,0,8068,8068
300.903,4.137e-09,0,8076,8076
300.953,4.05342e-09,0,8080,8080
301.002,3.9641e-09,0,8072,8072
301.052,3.87063e-09,0,8072,8072
301.102,3.77453e-09,0,8068,8068
301.152,3.67739e-09,0,8072,8072
301.202,3.58022e-09,0,8080,8080
301.251,3.48402e-09,0,8088,8088
301.301,3.39005e-09,0,8096,8096
301.351,3.29935e-09,0,8088,8088
301.401,3.21255e-09,0,8100,8100
301.451,3.13051e-09,0,8092,8092
301.5,3.0542e-09,0,8104,8104
301.55,2.98392e-09,0,8088,8088
301.6,2.91988e-09,0,8072,8072
301.653,2.8595e-09,0,8060,8060
301.703,2.80971e-09,0,8052,8052
301.752,2.76674e-09,0,8040,8040
301.802,2.73022e-09,0,8052,8052
301.852,2.69963e-09,0,8040,8040
301.902,2.67438e-09,0,8044,8044
301.952,2.65361e-09,0,8040,8040
302.001,2.63626e-09,0,8040,8040
302.051,2.62105e-09,0,8040,8040
302.101,2.60728e-09,0,8040,8040
302.151,2.5945e-09,0,8040,8040
302.201,2.58128e-09,0,8040,8040
302.25,2.56575e-09,0,8032,8032
302.3,2.54671e-09,0,8040,8040
302.353,2.52254e-09,0,8028,8028
302.403,2.49603e-09,0,8040,8040
302.452,2.46599e-09,0,8028,8028
302.502,2.43259e-09,0,8040,8040
302.552,2.3961e-09,0,8028,8028
302.602,2.35673e-09,0,8040,8040
302.652,2.31498e-09,0,8028,8028
302.701,2.27131e-09,0,8040,8040
302.751,2.22566e-09,0,8028,8028
302.801,2.17839e-09,0,8040,8040
302.851,2.1315e-09,0,8028,8028
302.901,2.08701e-09,0,8040,8040
302.95,2.04539e-09,0,8028,8028
303,2.00589e-09,0,8050,8050
303.05,1.96855e-09,0,8086,8086
303.103,1.93312e-09,0,8134,8134
303.153,1.9045e-09,0,8170,8170
303.202,1.88015e-09,0,8192,8192
303.252,1.86003e-09,0,8192,8192
303.302,1.84496e-09,0,8192,8192
303.352,1.83571e-09,0,8192,8192
303.402,1.83262e-09,0,8192,8192
303.451,1.83537e-09,0,8192,8192
303.501,1.84311e-09,0,8192,8192
303.551,1.85519e-09,0,8192,8192
303.601,1.8712e-09,0,8192,8192
303.651,1.89066e-09,0,8192,8192
303.7,1.91293e-09,0,8192,8192
303.75,1.93735e-09,0,8192,8192
303.803,1.9648e-09,0,8192,8192
303.853,1.99155e-09,0,8192,8192
303.902,2.01848e-09,0,8192,8192
303.952,2.04502e-09,0,8192,8192
304.002,2.0707e-09,0,8192,8192
304.052,2.09513e-09,0,8192,8192
304.102,2.11806e-09,0,8192,8192
304.151,2.13927e-09,0,8192,8192
304.201,2.15864e-09,0,8192,8192
304.251,2.17608e-09,0,8192,8192
304.301,2.19158e-09,0,8192,8192
304.351,2.20517e-09,0,8192,8192
304.4,2.21692e-09,0,8192,8192
304.45,2.22688e-09,0,8192,8192
304.5,2.23512e-09,0,8192,8192
304.553,2.24206e-09,0,8192,8192
304.603,2.24702e-09,0,8192,8192
304.652,2.25051e-09,0,8192,8192
304.702,2.25257e-09,0,8192,8192
304.752,2.25325e-09,0,8192,8192
304.802,2.25259e-09,0,8192,8192
304.852,2.25058e-09,0,8192,8192
304.901,2.24729e-09,0,8192,8192
304.951,2.24289e-09,0,8192,8192
