250,0,0,512,512
250.012,0,0,512,512
250.059,0,0,512,512
250.105,0,0,512,512
250.152,0,0,512,512
250.211,0,0,512,512
250.258,0,0,512,512
250.305,0,0,512,512
250.352,0,0,512,512
250.41,0,0,512,512
250.457,0,0,512,512
250.504,0,0,512,512
250.551,0,0,512,512
250.609,0,0,512,512
250.656,0,0,512,512
250.703,0,0,512,512
250.762,0,0,512,512
250.808,0,0,512,512
250.855,0,0,512,512
250.902,0,0,512,512
250.961,2.77556e-17,0,512,512
251.008,2.77556e-17,0,512,512
251.055,2.77556e-17,0,512,512
251.101,0,0,512,512
251.16,0,0,512,512
251.207,0,0,512,512
251.254,0,0,512,512
251.301,0,0,512,512
251.359,0,0,512,512
251.406,0,0,512,512
251.453,0,0,512,512
251.511,0,0,512,512
251.558,0,0,512,512
251.605,0,0,512,512
251.652,0,0,512,512
251.711,0,0,512,512
251.758,0,0,512,512
251.804,0,0,512,512
251.851,0,0,512,512
251.91,0,0,512,512
251.957,0,0,512,512
252.004,0,0,512,512
252.05,0,0,512,512
252.109,0,0,512,512
252.156,0,0,512,512
252.203,0,0,512,512
252.261,0,0,512,512
252.308,0,0,512,512
252.355,0,0,512,512
252.402,0,0,512,512
252.461,0,0,512,512
252.507,-2.77556e-17,0,512,512
252.554,-2.77556e-17,0,512,512
252.601,-2.77556e-17,0,512,512
252.66,-2.77556e-17,0,512,512
252.707,-2.77556e-17,0,512,512
252.754,-2.77556e-17,0,512,512
252.8,0,0,512,512
252.859,0,0,512,512
252.906,-2.77556e-17,0,512,512
252.953,-2.77556e-17,0,512,512
253.011,-2.77556e-17,0,512,512
253.058,-2.77556e-17,0,512,512
253.105,-2.77556e-17,0,512,512
253.152,-2.77556e-17,0,512,512
253.21,-2.77556e-17,0,512,512
253.257,-2.77556e-17,0,512,512
253.304,-2.77556e-17,0,512,512
253.351,0,0,512,512
253.41,0,0,512,512
253.457,0,0,512,512
253.503,0,0,512,512
253.55,0,0,512,512
253.609,0,0,512,512
253.656,0,0,512,512
253.703,0,0,512,512
253.761,0,0,512,512
253.808,0,0,512,512
253.855,0,0,512,512
253.902,-2.77556e-17,0,512,512
253.96,-2.77556e-17,0,512,512
254.007,-2.77556e-17,0,512,512
254.054,0,0,512,512
254.101,-2.77556e-17,0,512,512
254.16,0,0,512,512
254.206,0,0,512,512
254.253,0,0,512,512
254.3,0,0,512,512
254.359,0,0,512,512
254.406,0,0,512,512
254.452,0,0,512,512
254.511,0,0,512,512
254.558,0,0,512,512
254.605,0,0,512,512
254.652,-2.77556e-17,0,512,512
254.71,-2.77556e-17,0,512,512
254.757,-2.77556e-17,0,512,512
254.804,-2.77556e-17,0,512,512
254.851,-2.77556e-17,0,512,512
254.909,-2.77556e-17,0,512,512
254.956,0,0,512,512
255.003,0,0,512,512
255.05,0,0,512,512
255.109,0,0,512,512
255.155,0,0,512,512
255.202,0,0,512,512
255.261,0,0,512,512
255.308,0,0,512,512
255.355,0,0,512,512
255.402,0,0,512,512
255.46,0,0,512,512
255.507,0,0,512,512
255.554,0,0,512,512
255.601,0,0,512,512
255.659,0,0,512,512
255.706,0,0,512,512
255.753,0,0,512,512
255.812,0,0,512,512
255.859,0,0,512,512
255.905,0,0,512,512
255.952,-2.77556e-17,0,512,512
256.011,-2.77556e-17,0,512,512
256.058,-2.77556e-17,0,512,512
256.105,-2.77556e-17,0,512,512
256.151,-2.77556e-17,0,512,512
256.21,-2.77556e-17,0,512,512
256.257,-2.77556e-17,0,512,512
256.304,-2.77556e-17,0,512,512
256.351,-2.77556e-17,0,512,512
256.409,-2.77556e-17,0,512,512
256.456,-2.77556e-17,0,512,512
256.503,0,0,512,512
256.562,0,0,512,512
256.608,0,0,512,512
256.655,-2.77556e-17,0,512,512
256.702,-2.77556e-17,0,512,512
256.761,-2.77556e-17,0,512,512
256.808,-5.55112e-17,0,512,512
256.854,-5.55112e-17,0,512,512
256.901,-5.55112e-17,0,512,512
256.96,-5.55112e-17,0,512,512
257.007,-5.55112e-17,0,512,512
257.054,-5.55112e-17,0,512,512
257.101,-5.55112e-17,0,512,512
257.159,-5.55112e-17,0,512,512
257.206,-5.55112e-17,0,512,512
257.253,-5.55112e-17,0,512,512
257.311,-2.77556e-17,0,512,512
257.358,-2.77556e-17,0,512,512
257.405,-2.77556e-17,0,512,512
257.452,-2.77556e-17,0,512,512
257.511,-2.77556e-17,0,512,512
257.557,0,0,512,512
257.604,-2.77556e-17,0,512,512
257.651,0,0,512,512
257.71,0,0,512,512
257.757,0,0,512,512
257.804,0,0,512,512
257.85,-2.77556e-17,0,512,512
257.909,-2.77556e-17,0,512,512
257.956,0,0,512,512
258.003,0,0,512,512
258.061,0,0,512,512
258.108,0,0,512,512
258.155,0,0,512,512
258.202,0,0,512,512
258.261,2.77556e-17,0,512,512
258.307,0,0,512,512
258.354,0,0,512,512
258.401,0,0,512,512
258.46,0,0,512,512
258.507,0,0,512,512
258.553,0,0,512,512
258.6,-2.77556e-17,0,512,512
258.659,2.77556e-17,0,512,512
258.706,5.55112e-17,0,512,512
258.753,2.77556e-17,0,512,512
258.811,2.77556e-17,0,512,512
258.858,5.55112e-17,0,512,512
258.905,2.77556e-17,0,512,512
258.952,2.77556e-17,0,512,512
259.01,2.77556e-17,0,512,512
259.057,2.77556e-17,0,512,512
259.104,2.77556e-17,0,512,512
259.151,2.77556e-17,0,512,512
259.21,0,0,512,512
259.256,0,0,512,512
259.303,0,0,512,512
259.35,0,0,512,512
259.409,0,0,512,512
259.456,0,0,512,512
259.503,0,0,512,512
259.561,0,0,512,512
259.608,0,0,512,512
259.655,0,0,512,512
259.702,0,0,512,512
259.76,0,0,512,512
259.807,0,0,512,512
259.854,0,0,512,512
259.901,2.77556e-17,0,512,512
259.959,0,0,512,512
260.006,2.77556e-17,0,512,512
260.053,2.77556e-17,0,512,512
260.1,2.77556e-17,0,512,512
260.159,2.77556e-17,0,512,512
260.206,2.77556e-17,0,512,512
260.252,2.77556e-17,0,512,512
260.311,2.77556e-17,0,512,512
260.358,2.77556e-17,0,512,512
260.405,2.77556e-17,0,512,512
260.452,2.77556e-17,0,512,512
260.51,2.77556e-17,0,512,512
260.557,5.55112e-17,0,512,512
260.604,5.55112e-17,0,512,512
260.651,5.55112e-17,0,512,512
260.709,2.77556e-17,0,512,512
260.756,0,0,512,512
260.803,0,0,512,512
260.862,0,0,512,512
260.909,0,0,512,512
260.955,0,0,512,512
261.002,0,0,512,512
261.061,2.77556e-17,0,512,512
261.108,2.77556e-17,0,512,512
261.155,0,0,512,512
261.201,2.77556e-17,0,512,512
261.26,-2.77556e-17,0,512,512
261.307,0,0,512,512
261.354,0,0,512,512
261.401,0,0,512,512
261.459,0,0,512,512
261.506,2.77556e-17,0,512,512
261.553,2.77556e-17,0,512,512
261.612,0,0,512,512
261.658,-2.77556e-17,0,512,512
261.705,0,0,512,512
261.752,2.77556e-17,0,512,512
261.811,2.77556e-17,0,512,512
261.858,0,0,512,512
261.905,2.77556e-17,0,512,512
261.951,2.77556e-17,0,512,512
262.01,-5.55112e-17,0,512,512
262.057,-2.77556e-17,0,512,512
262.104,0,0,512,512
262.151,0,0,512,512
262.209,-2.77556e-17,0,512,512
262.256,-2.77556e-17,0,512,512
262.303,-2.77556e-17,0,512,512
262.361,-2.77556e-17,0,512,512
262.408,0,0,512,512
262.455,0,0,512,512
262.502,0,0,512,512
262.561,0,0,512,512
262.608,0,0,512,512
262.654,2.77556e-17,0,512,512
262.701,2.77556e-17,0,512,512
262.76,0,0,512,512
262.807,0,0,512,512
262.854,0,0,512,512
262.9,0,0,512,512
262.959,0,0,512,512
263.006,0,0,512,512
263.053,0,0,512,512
263.111,0,0,512,512
263.158,-2.77556e-17,0,512,512
263.205,0,0,512,512
263.252,0,0,512,512
263.311,0,0,512,512
263.357,0,0,512,512
263.404,0,0,512,512
263.451,2.77556e-17,0,512,512
263.51,2.77556e-17,0,512,512
263.557,0,0,512,512
263.603,-2.77556e-17,0,512,512
263.65,-2.77556e-17,0,512,512
263.709,-2.77556e-17,0,512,512
263.756,0,0,512,512
263.803,0,0,512,512
263.861,0,0,512,512
263.908,0,0,512,512
263.955,-2.77556e-17,0,512,512
264.002,-2.77556e-17,0,512,512
264.06,-2.77556e-17,0,512,512
264.107,-2.77556e-17,0,512,512
264.154,0,0,512,512
264.201,-2.77556e-17,0,512,512
264.26,0,0,512,512
264.306,0,0,512,512
264.353,-5.55112e-17,0,512,512
264.4,-2.77556e-17,0,512,512
264.459,-2.77556e-17,0,512,512
264.506,-2.77556e-17,0,512,512
264.553,-2.77556e-17,0,512,512
264.611,-2.77556e-17,0,512,512
264.658,-2.77556e-17,0,512,512
264.705,0,0,512,512
264.752,0,0,512,512
264.81,-2.77556e-17,0,512,512
264.857,-2.77556e-17,0,512,512
264.904,0,0,512,512
264.951,0,0,512,512
265.01,0,0,512,512
265.056,0,0,512,512
265.103,0,0,512,512
265.15,0,0,512,512
265.209,0,0,512,512
265.256,0,0,512,512
265.302,0,0,512,512
265.361,0,0,512,512
265.408,0,0,512,512
265.455,0,0,512,512
265.502,0,0,512,512
265.56,0,0,512,512
265.607,0,0,512,512
265.654,0,0,512,512
265.701,0,0,512,512
265.759,0,0,512,512
265.806,0,0,512,512
265.853,0,0,512,512
265.9,0,0,512,512
265.959,0,0,512,512
266.005,0,0,512,512
266.052,2.77556e-17,0,512,512
266.111,2.77556e-17,0,512,512
266.158,2.77556e-17,0,512,512
266.205,0,0,512,512
266.252,0,0,512,512
266.31,2.77556e-17,0,512,512
266.357,2.77556e-17,0,512,512
266.404,2.77556e-17,0,512,512
266.451,2.77556e-17,0,512,512
266.509,2.77556e-17,0,512,512
266.556,2.77556e-17,0,512,512
266.603,2.77556e-17,0,512,512
266.662,2.77556e-17,0,512,512
266.708,2.77556e-17,0,512,512
266.755,2.77556e-17,0,512,512
266.802,2.77556e-17,0,512,512
266.861,2.77556e-17,0,512,512
266.908,2.77556e-17,0,512,512
266.955,2.77556e-17,0,512,512
267.001,2.77556e-17,0,512,512
267.06,2.77556e-17,0,512,512
267.107,2.77556e-17,0,512,512
267.154,2.77556e-17,0,512,512
267.201,2.77556e-17,0,512,512
267.259,2.77556e-17,0,512,512
267.306,2.77556e-17,0,512,512
267.353,2.77556e-17,0,512,512
267.412,2.77556e-17,0,512,512
267.458,2.77556e-17,0,512,512
267.505,2.77556e-17,0,512,512
267.552,2.77556e-17,0,512,512
267.611,2.77556e-17,0,512,512
267.658,2.77556e-17,0,512,512
267.704,2.77556e-17,0,512,512
267.751,5.55112e-17,0,512,512
267.81,5.55112e-17,0,512,512
267.857,5.55112e-17,0,512,512
267.904,8.32667e-17,0,512,512
267.95,8.32667e-17,0,512,512
268.009,5.55112e-17,0,512,512
268.056,5.55112e-17,0,512,512
268.103,5.55112e-17,0,512,512
268.161,2.77556e-17,0,512,512
268.208,2.77556e-17,0,512,512
268.255,2.77556e-17,0,512,512
268.302,0,0,512,512
268.361,2.77556e-17,0,512,512
268.407,0,0,512,512
268.454,0,0,512,512
268.501,0,0,512,512
268.56,0,0,512,512
268.607,0,0,512,512
268.654,0,0,512,512
268.7,0,0,512,512
268.759,2.77556e-17,0,512,512
268.806,0,0,512,512
268.853,0,0,512,512
268.911,-2.77556e-17,0,512,512
268.958,0,0,512,512
269.005,0,0,512,512
269.052,2.77556e-17,0,512,512
269.11,0,0,512,512
269.157,2.77556e-17,0,512,512
269.204,0,0,512,512
269.251,2.77556e-17,0,512,512
269.31,4.44089e-16,0,512,512
269.357,4.55191e-15,0,512,512
269.403,-9.35363e-15,0,512,512
269.45,-4.55219e-13,0,512,512
269.509,-5.61912e-12,0,512,512
269.556,-2.24128e-11,0,512,512
269.603,-6.09579e-11,0,512,512
269.661,-1.38834e-10,0,512,512
269.708,-2.00483e-10,0,512,512
269.755,-2.27584e-10,0,512,512
269.802,-1.99253e-10,0,512,512
269.86,-9.75159e-11,0,512,512
269.903,-1.26309e-11,0,523,523
269.953,5.33474e-11,0,539,539
270.002,7.10899e-11,0,549,549
270.052,5.94401e-11,0,557,557
270.102,4.9068e-11,0,573,573
270.151,5.74976e-11,0,579,579
270.201,7.97215e-11,0,586,586
270.251,9.85005e-11,0,594,594
270.3,1.01912e-10,0,595,595
270.35,9.24847e-11,0,611,611
270.404,8.20121e-11,0,639,639
270.452,8.25824e-11,0,679,679
270.501,9.2896e-11,0,705,705
270.551,1.04855e-10,0,741,741
270.601,1.09911e-10,0,777,777
270.652,1.05772e-10,0,833,833
270.702,9.80639e-11,0,883,883
270.751,9.44699e-11,0,963,963
270.8,9.83819e-11,0,1067,1067
270.85,1.06607e-10,0,1219,1219
270.901,1.12096e-10,0,1377,1377
270.951,1.10297e-10,0,1529,1529
271.001,1.04185e-10,0,1693,1693
271.051,1.00357e-10,0,1845,1845
271.1,1.02299e-10,0,2003,2003
271.15,1.07799e-10,0,2159,2159
271.2,1.17796e-10,0,2323,2323
271.251,1.57005e-10,0,2475,2475
271.301,2.87283e-10,0,2621,2621
271.351,6.14713e-10,0,2793,2793
271.401,1.27013e-09,0,2869,2869
271.45,2.37839e-09,0,2947,2947
271.5,4.02428e-09,0,2961,2961
271.55,6.25895e-09,0,2964,2964
271.601,1.003e-08,0,2978,2978
271.651,1.46146e-08,0,2967,2967
271.701,1.92571e-08,0,2999,2999
271.751,2.3222e-08,0,3003,3003
271.801,2.69677e-08,0,3029,3029
271.85,3.06691e-08,0,3073,3073
271.9,3.48417e-08,0,3145,3145
271.951,3.99436e-08,0,3245,3245
272.001,4.69653e-08,0,3367,3367
272.051,5.51018e-08,0,3523,3523
272.101,6.41473e-08,0,3687,3687
272.151,8.05267e-08,0,3827,3827
272.2,9.91749e-08,0,4005,4005
272.25,1.19101e-07,0,4139,4139
272.301,1.48418e-07,0,4301,4301
272.351,1.81434e-07,0,4481,4481
272.401,2.17747e-07,0,4615,4615
272.451,2.55966e-07,0,4763,4763
272.501,2.95616e-07,0,4933,4933
272.55,3.61073e-07,0,5089,5089
272.6,4.11205e-07,0,5211,5211
272.65,4.62375e-07,0,5385,5385
272.701,5.19211e-07,0,5509,5509
272.751,5.77498e-07,0,5603,5603
272.801,6.34937e-07,0,5641,5641
272.851,6.87172e-07,0,5715,5715
272.9,7.30952e-07,0,5731,5731
272.95,7.64903e-07,0,5769,5769
273,7.89262e-07,0,5827,5827
273.051,8.03859e-07,0,5853,5853
273.101,8.08892e-07,0,5909,5909
273.151,8.10348e-07,0,5871,5871
273.201,8.10167e-07,0,5901,5901
273.251,8.08795e-07,0,5907,5907
273.3,8.06252e-07,0,5889,5889
273.35,7.99989e-07,0,5921,5921
273.401,7.87835e-07,0,5907,5907
273.451,7.68057e-07,0,5895,5895
273.501,7.3898e-07,0,5892,5892
273.551,7.05696e-07,0,5906,5906
273.601,6.69535e-07,0,5882,5882
273.65,6.30799e-07,0,5832,5832
273.7,5.66482e-07,0,5836,5836
273.751,5.12073e-07,0,5790,5790
273.801,4.64583e-07,0,5840,5840
273.851,4.20557e-07,0,5806,5806
273.901,3.80087e-07,0,5798,5798
273.951,3.43142e-07,0,5810,5810
274,3.08939e-07,0,5744,5744
274.05,2.7697e-07,0,5778,5778
274.101,2.45713e-07,0,5772,5772
274.151,2.1662e-07,0,5770,5770
274.201,1.89088e-07,0,5774,5774
274.251,1.64138e-07,0,5770,5770
274.301,1.43161e-07,0,5766,5766
274.35,1.28073e-07,0,5780,5780
274.4,1.16498e-07,0,5776,5776
274.451,1.05661e-07,0,5828,5828
274.501,9.5385e-08,0,5902,5902
274.551,8.36637e-08,0,5946,5946
274.601,7.24497e-08,0,5926,5926
274.651,6.28358e-08,0,5954,5954
274.701,5.55767e-08,0,5912,5912
274.75,4.97385e-08,0,5934,5934
274.8,4.51032e-08,0,5894,5894
274.85,4.18738e-08,0,5920,5920
274.9,3.82388e-08,0,5906,5906
274.951,3.40276e-08,0,5886,5886
275.001,2.96972e-08,0,5860,5860
275.05,2.59101e-08,0,5842,5842
275.101,2.27897e-08,0,5844,5844
275.15,2.12911e-08,0,5810,5810
275.201,1.99712e-08,0,5778,5778
275.251,1.97825e-08,0,5764,5764
275.301,1.97547e-08,0,5736,5736
275.351,1.97864e-08,0,5712,5712
275.401,1.98254e-08,0,5718,5718
275.451,1.98522e-08,0,5698,5698
275.5,1.98562e-08,0,5686,5686
275.551,1.98224e-08,0,5666,5666
275.601,1.97588e-08,0,5664,5664
275.652,1.9667e-08,0,5670,5670
275.701,1.95702e-08,0,5606,5606
275.751,1.94823e-08,0,5604,5604
275.801,1.94132e-08,0,5578,5578
275.851,1.93639e-08,0,5580,5580
275.902,1.93317e-08,0,5570,5570
275.95,1.93178e-08,0,5528,5528
276.001,1.9322e-08,0,5526,5526
276.05,1.93391e-08,0,5518,5518
276.101,1.93643e-08,0,5492,5492
276.151,1.93928e-08,0,5458,5458
276.201,1.94241e-08,0,5494,5494
276.251,1.94571e-08,0,5440,5440
276.301,1.94905e-08,0,5460,5460
276.351,1.95235e-08,0,5414,5414
276.401,1.95564e-08,0,5418,5418
276.45,1.9589e-08,0,5378,5378
276.501,1.96239e-08,0,5372,5372
276.55,1.96581e-08,0,5406,5406
276.602,1.96933e-08,0,5350,5350
276.651,1.97267e-08,0,5368,5368
276.701,1.97596e-08,0,5342,5342
276.751,1.97925e-08,0,5338,5338
276.801,1.9826e-08,0,5324,5324
276.852,1.98599e-08,0,5290,5290
276.9,1.98928e-08,0,5294,5294
276.951,1.99268e-08,0,5288,5288
277,1.99596e-08,0,5286,5286
277.052,1.99936e-08,0,5266,5266
277.101,2.00267e-08,0,5254,5254
277.151,2.00603e-08,0,5268,5268
277.201,2.00942e-08,0,5278,5278
277.251,2.01285e-08,0,5248,5248
277.301,2.01629e-08,0,5256,5256
277.352,2.01976e-08,0,5226,5226
277.401,2.02314e-08,0,5222,5222
277.452,2.02667e-08,0,5242,5242
277.501,2.0301e-08,0,5198,5198
277.55,2.03356e-08,0,5196,5196
277.6,2.03705e-08,0,5202,5202
277.652,2.04071e-08,0,5168,5168
277.702,2.04427e-08,0,5172,5172
277.75,2.04772e-08,0,5190,5190
277.8,2.05131e-08,0,5138,5138
277.851,2.05492e-08,0,5128,5128
277.901,2.05851e-08,0,5124,5124
277.951,2.06209e-08,0,5120,5120
278,2.06547e-08,0,5092,5092
278.051,2.06887e-08,0,5116,5116
278.101,2.07213e-08,0,5088,5088
278.15,2.07508e-08,0,5060,5060
278.201,2.07792e-08,0,5082,5082
278.25,2.08043e-08,0,5028,5028
278.301,2.08281e-08,0,5037,5037
278.35,2.08488e-08,0,5025,5025
278.401,2.08679e-08,0,5009,5009
278.451,2.08839e-08,0,5039,5039
278.502,2.08975e-08,0,4997,4997
278.551,2.09072e-08,0,4975,4975
278.601,2.09123e-08,0,4991,4991
278.65,2.09116e-08,0,4933,4933
278.702,2.09031e-08,0,4923,4923
278.751,2.08855e-08,0,4947,4947
278.801,2.08567e-08,0,4865,4865
278.851,2.08149e-08,0,4845,4845
278.901,2.07579e-08,0,4809,4809
278.951,2.06835e-08,0,4849,4849
279.001,2.05897e-08,0,4987,4987
279.051,2.04742e-08,0,5003,5003
279.101,2.03349e-08,0,4963,4963
279.152,2.01698e-08,0,4999,4999
279.2,1.9985e-08,0,4855,4855
279.251,1.97646e-08,0,4765,4765
279.301,1.95145e-08,0,4749,4749
279.352,1.92347e-08,0,4641,4641
279.401,1.89378e-08,0,4631,4631
279.451,1.86011e-08,0,4641,4641
279.5,1.82519e-08,0,4559,4559
279.551,1.78645e-08,0,4409,4409
279.6,1.74709e-08,0,4331,4331
279.651,1.70446e-08,0,4071,4071
279.7,1.66185e-08,0,3999,3999
279.751,1.61652e-08,0,3889,3889
279.801,1.57134e-08,0,3859,3859
279.85,1.5262e-08,0,3763,3763
279.901,1.47952e-08,0,3655,3655
279.951,1.43276e-08,0,3495,3495
280.001,1.38746e-08,0,3527,3527
280.05,1.34313e-08,0,3231,3231
280.1,1.29911e-08,0,2871,2871
280.152,1.25532e-08,0,2307,2307
280.2,1.21556e-08,0,1719,1719
280.251,1.17625e-08,0,1833,1833
280.3,1.13923e-08,0,2113,2113
280.351,1.10344e-08,0,1999,1999
280.402,1.07043e-08,0,2271,2271
280.45,1.04089e-08,0,2323,2323
280.501,1.01228e-08,0,2355,2355
280.55,9.86939e-09,0,2679,2679
280.601,9.63119e-09,0,3011,3011
280.651,9.42116e-09,0,3043,3043
280.701,9.23209e-09,0,3199,3199
280.75,9.06278e-09,0,3281,3281
280.8,8.91126e-09,0,3339,3339
280.851,8.77424e-09,0,3407,3407
280.9,8.65776e-09,0,3445,3445
280.951,8.55177e-09,0,3495,3495
281,8.46253e-09,0,3533,3533
281.051,8.38211e-09,0,3563,3563
281.1,8.3151e-09,0,3651,3651
281.151,8.25538e-09,0,3735,3735
281.2,8.20617e-09,0,3821,3821
281.251,8.16285e-09,0,3937,3937
281.3,8.12764e-09,0,4015,4015
281.351,8.0971e-09,0,4143,4143
281.401,8.0727e-09,0,4241,4241
281.451,8.05197e-09,0,4367,4367
281.501,8.03583e-09,0,4495,4495
281.552,8.02258e-09,0,4551,4551
281.602,8.01254e-09,0,4445,4445
281.65,8.0053e-09,0,4487,4487
281.701,8.00006e-09,0,4481,4481
281.751,7.99681e-09,0,4477,4477
281.802,7.99527e-09,0,4467,4467
281.85,7.99513e-09,0,4457,4457
281.901,7.99614e-09,0,4468,4468
281.951,7.99809e-09,0,4506,4506
282.001,8.00079e-09,0,4543,4543
282.051,8.00406e-09,0,4573,4573
282.101,8.00778e-09,0,4619,4619
282.151,8.01185e-09,0,4655,4655
282.201,8.0162e-09,0,4683,4683
282.251,8.0208e-09,0,4737,4737
282.3,8.02563e-09,0,4757,4757
282.352,8.0309e-09,0,4779,4779
282.401,8.03623e-09,0,4809,4809
282.451,8.04187e-09,0,4841,4841
282.5,8.04787e-09,0,4833,4833
282.551,8.05455e-09,0,4843,4843
282.601,8.06151e-09,0,4873,4873
282.652,8.06944e-09,0,4863,4863
282.701,8.07788e-09,0,4857,4857
282.75,8.08732e-09,0,4881,4881
282.801,8.09841e-09,0,4883,4883
282.852,8.11111e-09,0,4869,4869
282.901,8.12521e-09,0,4901,4901
282.951,8.14219e-09,0,4885,4885
283,8.16126e-09,0,4921,4921
283.051,8.18444e-09,0,4915,4915
283.101,8.21171e-09,0,4899,4899
283.151,8.24382e-09,0,4953,4953
283.202,8.28166e-09,0,4907,4907
283.25,8.32445e-09,0,4919,4919
283.3,8.37664e-09,0,4929,4929
283.35,8.43803e-09,0,4916,4916
283.4,8.51006e-09,0,4916,4916
283.452,8.5979e-09,0,4908,4908
283.501,8.69739e-09,0,4926,4926
283.551,8.81384e-09,0,4946,4946
283.602,8.9555e-09,0,4942,4942
283.65,9.11558e-09,0,4950,4950
283.701,9.30998e-09,0,4990,4990
283.751,9.53793e-09,0,4972,4972
283.802,9.80476e-09,0,4980,4980
283.852,1.01163e-08,0,4982,4982
283.901,1.0479e-08,0,4962,4962
283.951,1.08998e-08,0,5002,5002
284,1.13857e-08,0,5000,5000
284.051,1.19654e-08,0,4996,4996
284.1,1.26062e-08,0,5010,5010
284.151,1.33609e-08,0,5014,5014
284.201,1.42151e-08,0,5066,5066
284.252,1.5174e-08,0,5028,5028
284.3,1.62036e-08,0,5030,5030
284.352,1.7423e-08,0,5056,5056
284.401,1.87177e-08,0,5026,5026
284.451,2.01272e-08,0,5054,5054
284.5,2.16513e-08,0,5060,5060
284.551,2.33475e-08,0,5066,5066
284.6,2.51017e-08,0,5068,5068
284.651,2.70338e-08,0,5054,5054
284.701,2.90845e-08,0,5080,5080
284.751,3.12542e-08,0,5094,5094
284.801,3.35443e-08,0,5086,5086
284.851,3.589e-08,0,5086,5086
284.9,3.95762e-08,0,5092,5092
284.952,4.40444e-08,0,5094,5094
285.001,4.80583e-08,0,5122,5122
285.052,5.23606e-08,0,5102,5102
285.1,5.64216e-08,0,5108,5108
285.151,6.07307e-08,0,5116,5116
285.201,6.50673e-08,0,5138,5138
285.251,6.9498e-08,0,5138,5138
285.301,7.40198e-08,0,5166,5166
285.351,7.86474e-08,0,5154,5154
285.4,8.34043e-08,0,5184,5184
285.451,8.84576e-08,0,5200,5200
285.5,9.35125e-08,0,5210,5210
285.551,1.00137e-07,0,5232,5232
285.602,1.06862e-07,0,5210,5210
285.65,1.13527e-07,0,5228,5228
285.7,1.20497e-07,0,5234,5234
285.75,1.27715e-07,0,5266,5266
285.8,1.3516e-07,0,5250,5250
285.851,1.4314e-07,0,5246,5246
285.901,1.51202e-07,0,5300,5300
285.95,1.59623e-07,0,5266,5266
286.001,1.68754e-07,0,5288,5288
286.051,1.78377e-07,0,5292,5292
286.1,1.92151e-07,0,5314,5314
286.15,2.1157e-07,0,5302,5302
286.2,2.31662e-07,0,5302,5302
286.25,2.56468e-07,0,5352,5352
286.3,2.84262e-07,0,5348,5348
286.351,3.14101e-07,0,5340,5340
286.401,3.44333e-07,0,5356,5356
286.451,3.769e-07,0,5342,5342
286.5,4.09806e-07,0,5382,5382
286.551,4.44977e-07,0,5391,5391
286.601,4.81512e-07,0,5363,5363
286.651,5.19532e-07,0,5345,5345
286.701,5.59287e-07,0,5367,5367
286.751,6.15812e-07,0,5379,5379
286.801,6.64516e-07,0,5345,5345
286.851,6.99714e-07,0,5375,5375
286.901,7.26526e-07,0,5363,5363
286.95,7.45824e-07,0,5357,5357
287,7.50783e-07,0,5367,5367
287.051,7.5051e-07,0,5361,5361
287.101,7.48698e-07,0,5355,5355
287.151,7.45577e-07,0,5333,5333
287.201,7.39387e-07,0,5343,5343
287.251,7.31365e-07,0,5335,5335
287.3,7.2015e-07,0,5305,5305
287.35,7.00925e-07,0,5299,5299
287.401,6.76562e-07,0,5273,5273
287.451,6.48802e-07,0,5257,5257
287.501,6.19467e-07,0,5245,5245
287.551,5.88351e-07,0,5251,5251
287.601,5.55391e-07,0,5201,5201
287.65,5.20431e-07,0,5173,5173
287.7,4.83232e-07,0,5171,5171
287.75,4.25773e-07,0,5145,5145
287.801,3.65665e-07,0,5109,5109
287.851,3.15602e-07,0,5061,5061
287.901,2.69299e-07,0,5007,5007
287.951,2.26452e-07,0,4959,4959
288,1.87322e-07,0,4871,4871
288.05,1.51914e-07,0,4819,4819
288.1,1.20057e-07,0,4753,4753
288.151,9.06475e-08,0,4661,4661
288.201,6.51342e-08,0,4605,4605
288.251,4.23695e-08,0,4549,4549
288.301,2.18416e-08,0,4471,4471
288.351,3.3186e-09,0,4377,4377
288.4,-9.67874e-09,0,4315,4315
288.45,-2.16349e-08,0,4201,4201
288.501,-3.34514e-08,0,4035,4035
288.551,-3.98236e-08,0,3861,3861
288.601,-4.52592e-08,0,3747,3747
288.651,-4.99199e-08,0,3704,3704
288.701,-5.1547e-08,0,3664,3664
288.75,-5.2092e-08,0,3700,3700
288.8,-5.22136e-08,0,3675,3675
288.851,-5.21294e-08,0,3701,3701
288.901,-5.17955e-08,0,3653,3653
288.951,-5.12636e-08,0,3637,3637
289.001,-5.05088e-08,0,3585,3585
289.051,-4.95461e-08,0,3529,3529
289.1,-4.84011e-08,0,3445,3445
289.15,-4.70881e-08,0,3387,3387
289.201,-4.55729e-08,0,3285,3285
289.251,-4.39611e-08,0,3211,3211
289.301,-4.22311e-08,0,3131,3131
289.351,-4.03901e-08,0,3075,3075
289.401,-3.84318e-08,0,2991,2991
289.45,-3.63454e-08,0,2821,2821
289.5,-3.41264e-08,0,2661,2661
289.55,-3.17907e-08,0,2487,2487
289.601,-2.93142e-08,0,2307,2307
289.651,-2.6911e-08,0,2127,2127
289.701,-2.45836e-08,0,1981,1981
289.751,-2.23881e-08,0,1799,1799
289.8,-2.03596e-08,0,1653,1653
289.85,-1.85153e-08,0,1469,1469
289.9,-1.68613e-08,0,1313,1313
289.951,-1.53586e-08,0,1143,1143
290.001,-1.40862e-08,0,999,999
290.051,-1.30055e-08,0,895,895
290.101,-1.21001e-08,0,787,787
290.15,-1.13584e-08,0,675,675
290.202,-1.07422e-08,0,615,615
290.252,-1.02843e-08,0,573,573
290.302,-9.93427e-09,0,527,527
290.354,-9.66389e-09,0,515,515
290.407,-9.46467e-09,0,512,512
290.454,-9.34247e-09,0,512,512
290.501,-9.2633e-09,0,512,512
290.559,-9.21558e-09,0,512,512
290.606,-9.21223e-09,0,512,512
290.653,-9.23459e-09,0,512,512
290.712,-9.29159e-09,0,512,512
290.759,-9.35546e-09,0,512,512
290.805,-9.43208e-09,0,512,512
290.852,-9.51864e-09,0,512,512
290.911,-9.6359e-09,0,512,512
290.958,-9.73222e-09,0,512,512
291.005,-9.82665e-09,0,512,512
291.051,-9.91668e-09,0,512,512
291.11,-1.00223e-08,0,512,512
291.157,-1.01025e-08,0,512,512
291.204,-1.01805e-08,0,512,512
291.251,-1.02572e-08,0,512,512
291.309,-1.0351e-08,0,512,512
291.356,-1.04236e-08,0,512,512
291.403,-1.04935e-08,0,512,512
291.462,-1.05756e-08,0,512,512
291.508,-1.06364e-08,0,512,512
291.555,-1.06926e-08,0,512,512
291.602,-1.07442e-08,0,512,512
291.661,-1.08019e-08,0,512,512
291.708,-1.08426e-08,0,512,512
291.754,-1.08785e-08,0,512,512
291.801,-1.09099e-08,0,512,512
291.86,-1.09434e-08,0,512,512
291.907,-1.09655e-08,0,512,512
291.954,-1.09832e-08,0,512,512
292.001,-1.0997e-08,0,512,512
292.059,-1.10099e-08,0,512,512
292.106,-1.10183e-08,0,512,512
292.153,-1.10262e-08,0,512,512
292.211,-1.10365e-08,0,512,512
292.258,-1.10457e-08,0,512,512
292.305,-1.10562e-08,0,512,512
292.352,-1.10683e-08,0,512,512
292.411,-1.10863e-08,0,512,512
292.458,-1.11036e-08,0,512,512
292.504,-1.11237e-08,0,512,512
292.551,-1.11472e-08,0,512,512
292.61,-1.11818e-08,0,512,512
292.657,-1.12142e-08,0,512,512
292.704,-1.12514e-08,0,512,512
292.75,-1.12937e-08,0,512,512
292.809,-1.13545e-08,0,512,512
292.856,-1.141e-08,0,512,512
292.903,-1.14722e-08,0,512,512
292.961,-1.15598e-08,0,512,512
293.008,-1.16383e-08,0,512,512
293.055,-1.17244e-08,0,512,512
293.102,-1.18185e-08,0,512,512
293.161,-1.19475e-08,0,512,512
293.207,-1.20601e-08,0,512,512
293.254,-1.21814e-08,0,512,512
293.301,-1.23115e-08,0,512,512
293.36,-1.2487e-08,0,512,512
293.407,-1.26379e-08,0,512,512
293.453,-1.27985e-08,0,512,512
293.5,-1.29691e-08,0,512,512
293.559,-1.31966e-08,0,512,512
293.606,-1.33903e-08,0,512,512
293.653,-1.35945e-08,0,512,512
293.711,-1.38647e-08,0,512,512
293.758,-1.40928e-08,0,512,512
293.805,-1.43313e-08,0,512,512
293.852,-1.458e-08,0,512,512
293.91,-1.49047e-08,0,512,512
293.957,-1.51749e-08,0,512,512
294.004,-1.54537e-08,0,512,512
294.051,-1.57401e-08,0,512,512
294.11,-1.61076e-08,0,512,512
294.156,-1.64079e-08,0,512,512
294.203,-1.67124e-08,0,512,512
294.25,-1.70199e-08,0,512,512
294.309,-1.74062e-08,0,512,512
294.356,-1.77151e-08,0,512,512
294.403,-1.80222e-08,0,512,512
294.461,-1.84013e-08,0,512,512
294.508,-1.86988e-08,0,512,512
294.555,-1.89896e-08,0,512,512
294.602,-1.92721e-08,0,512,512
294.66,-1.96114e-08,0,512,512
294.707,-1.98703e-08,0,512,512
294.754,-2.01166e-08,0,512,512
294.801,-2.03492e-08,0,512,512
294.859,-2.06192e-08,0,512,512
294.906,-2.08175e-08,0,512,512
294.953,-2.09995e-08,0,512,512
295,-2.11645e-08,0,512,512
295.059,-2.13464e-08,0,512,512
295.106,-2.14722e-08,0,512,512
295.152,-2.15804e-08,0,512,512
295.211,-2.16911e-08,0,512,512
295.258,-2.17605e-08,0,512,512
295.305,-2.18131e-08,0,512,512
295.352,-2.18496e-08,0,512,512
295.41,-2.18735e-08,0,512,512
295.457,-2.18761e-08,0,512,512
295.504,-2.18651e-08,0,512,512
295.551,-2.18413e-08,0,512,512
295.609,-2.17949e-08,0,512,512
295.656,-2.17457e-08,0,512,512
295.703,-2.16868e-08,0,512,512
295.762,-2.16012e-08,0,512,512
295.809,-2.15243e-08,0,512,512
295.855,-2.14409e-08,0,512,512
295.902,-2.1352e-08,0,512,512
295.961,-2.12344e-08,0,512,512
296.008,-2.11362e-08,0,512,512
296.055,-2.10351e-08,0,512,512
296.102,-2.0932e-08,0,512,512
296.16,-2.08011e-08,0,512,512
296.207,-2.06956e-08,0,512,512
296.254,-2.05899e-08,0,512,512
296.301,-2.04845e-08,0,512,512
296.359,-2.03539e-08,0,512,512
296.406,-2.02506e-08,0,512,512
296.453,-2.01488e-08,0,512,512
296.512,-2.0024e-08,0,512,512
296.558,-1.99264e-08,0,512,512
296.605,-1.98308e-08,0,512,512
296.652,-1.97374e-08,0,512,512
296.711,-1.96238e-08,0,512,512
296.758,-1.95355e-08,0,512,512
296.805,-1.94496e-08,0,512,512
296.851,-1.93659e-08,0,512,512
296.91,-1.92643e-08,0,512,512
296.957,-1.91855e-08,0,512,512
297.004,-1.91087e-08,0,512,512
297.051,-1.90339e-08,0,512,512
297.109,-1.89429e-08,0,512,512
297.156,-1.88719e-08,0,512,512
297.203,-1.88024e-08,0,512,512
297.261,-1.87175e-08,0,512,512
297.308,-1.86508e-08,0,512,512
297.355,-1.85852e-08,0,512,512
297.402,-1.85204e-08,0,512,512
297.461,-1.84404e-08,0,512,512
297.508,-1.83769e-08,0,512,512
297.554,-1.83138e-08,0,512,512
297.601,-1.82509e-08,0,512,512
297.66,-1.81722e-08,0,512,512
297.707,-1.81091e-08,0,512,512
297.754,-1.80457e-08,0,512,512
297.8,-1.79819e-08,0,512,512
297.859,-1.79012e-08,0,512,512
297.906,-1.78359e-08,0,512,512
297.953,-1.77697e-08,0,512,512
298.011,-1.76855e-08,0,512,512
298.058,-1.76168e-08,0,512,512
298.105,-1.75468e-08,0,512,512
298.152,-1.74753e-08,0,512,512
298.211,-1.73838e-08,0,512,512
298.257,-1.73087e-08,0,512,512
298.304,-1.72317e-08,0,512,512
298.351,-1.71527e-08,0,512,512
298.41,-1.70509e-08,0,512,512
298.457,-1.69669e-08,0,512,512
298.503,-1.68804e-08,0,512,512
298.55,-1.67913e-08,0,512,512
298.609,-1.6676e-08,0,512,512
298.656,-1.65806e-08,0,512,512
298.703,-1.6482e-08,0,512,512
298.761,-1.63543e-08,0,512,512
298.808,-1.62483e-08,0,512,512
298.855,-1.61387e-08,0,512,512
298.902,-1.60255e-08,0,512,512
298.96,-1.58786e-08,0,512,512
299.007,-1.57566e-08,0,512,512
299.054,-1.56304e-08,0,512,512
299.101,-1.55e-08,0,512,512
299.16,-1.53307e-08,0,512,512
299.207,-1.51901e-08,0,512,512
299.253,-1.50448e-08,0,512,512
299.3,-1.48946e-08,0,512,512
299.359,-1.46996e-08,0,512,512
299.406,-1.45376e-08,0,512,512
299.453,-1.43701e-08,0,512,512
299.511,-1.41527e-08,0,512,512
299.558,-1.39719e-08,0,512,512
299.605,-1.37847e-08,0,512,512
299.652,-1.35909e-08,0,512,512
299.71,-1.33387e-08,0,512,512
299.757,-1.31286e-08,0,512,512
299.804,-1.29106e-08,0,512,512
299.851,-1.26844e-08,0,512,512
299.91,-1.23892e-08,0,512,512
299.956,-1.21427e-08,0,512,512
300.003,-1.18864e-08,0,512,512
300.05,-1.162e-08,0,512,512
300.109,-1.12718e-08,0,512,512
300.156,-1.09808e-08,0,512,512
300.202,-1.06783e-08,0,512,512
300.261,-1.02836e-08,0,512,512
300.308,-9.95416e-09,0,512,512
300.355,-9.61256e-09,0,512,512
300.402,-9.25874e-09,0,512,512
300.46,-8.79946e-09,0,512,512
300.507,-8.41874e-09,0,512,512
300.554,-8.02661e-09,0,512,512
300.601,-7.62363e-09,0,512,512
300.659,-7.10573e-09,0,512,512
300.706,-6.68113e-09,0,512,512
300.753,-6.2485e-09,0,512,512
300.8,-5.80902e-09,0,512,512
300.859,-5.25206e-09,0,512,512
300.905,-4.80215e-09,0,512,512
300.952,-4.35008e-09,0,512,512
301.011,-3.78449e-09,0,512,512
301.058,-3.33371e-09,0,512,512
301.105,-2.88636e-09,0,512,512
301.152,-2.44424e-09,0,512,512
301.21,-1.90166e-09,0,512,512
301.257,-1.47781e-09,0,512,512
301.304,-1.06489e-09,0,512,512
301.351,-6.64524e-10,0,512,512
301.409,-1.8404e-10,0,512,512
301.456,1.82661e-10,0,512,512
301.503,5.32282e-10,0,512,512
301.562,9.4364e-10,0,512,512
301.609,1.25109e-09,0,512,512
301.655,1.53851e-09,0,512,512
301.702,1.80539e-09,0,512,512
301.761,2.10959e-09,0,512,512
301.808,2.32927e-09,0,512,512
301.855,2.52795e-09,0,512,512
301.901,2.70589e-09,0,512,512
301.96,2.89976e-09,0,512,512
302.007,3.03273e-09,0,512,512
302.054,3.14681e-09,0,512,512
302.101,3.24284e-09,0,512,512
302.159,3.33897e-09,0,512,512
302.206,3.39802e-09,0,512,512
302.253,3.44241e-09,0,512,512
302.312,3.47905e-09,0,512,512
302.358,3.49472e-09,0,512,512
302.405,3.49958e-09,0,512,512
302.452,3.49481e-09,0,512,512
302.511,3.47707e-09,0,512,512
302.558,3.45484e-09,0,512,512
302.604,3.42663e-09,0,512,512
302.651,3.39346e-09,0,512,512
302.71,3.34647e-09,0,512,512
302.757,3.30554e-09,0,512,512
302.804,3.26252e-09,0,512,512
302.851,3.21812e-09,0,512,512
302.909,3.16168e-09,0,512,512
302.956,3.11646e-09,0,512,512
303.003,3.0717e-09,0,512,512
303.061,3.01701e-09,0,512,512
303.108,2.97464e-09,0,512,512
303.155,2.93376e-09,0,512,512
303.202,2.89453e-09,0,512,512
303.261,2.84797e-09,0,512,512
303.307,2.81273e-09,0,512,512
303.354,2.77925e-09,0,512,512
303.401,2.74743e-09,0,512,512
303.46,2.70982e-09,0,512,512
303.507,2.68126e-09,0,512,512
303.554,2.65385e-09,0,512,512
303.6,2.62739e-09,0,512,512
303.659,2.59533e-09,0,512,512
303.706,2.57023e-09,0,512,512
303.753,2.54542e-09,0,512,512
303.811,2.51455e-09,0,512,512
303.858,2.48978e-09,0,512,512
303.905,2.46485e-09,0,512,512
303.952,2.43967e-09,0,512,512
304.01,2.40783e-09,0,512,512
304.057,2.38207e-09,0,512,512
304.104,2.35612e-09,0,512,512
304.151,2.33009e-09,0,512,512
304.21,2.29763e-09,0,512,512
304.257,2.27192e-09,0,512,512
304.303,2.24663e-09,0,512,512
304.35,2.22199e-09,0,512,512
304.409,2.19239e-09,0,512,512
304.456,2.16995e-09,0,512,512
304.503,2.14882e-09,0,512,512
304.561,2.12455e-09,0,512,512
304.608,2.10707e-09,0,512,512
304.655,2.09145e-09,0,512,512
304.702,2.07783e-09,0,512,512
304.76,2.06372e-09,0,512,512
304.807,2.05483e-09,0,512,512
304.854,2.04808e-09,0,512,512
304.901,2.04345e-09,0,512,512
304.96,2.04055e-09,0,512,512
