250,0,0,8192,8192
250.003,0,0,8192,8192
250.053,0,0,8192,8192
250.103,0,0,8192,8192
250.152,0,0,8192,8192
250.202,0,0,8192,8192
250.252,0,0,8192,8192
250.302,0,0,8192,8192
250.352,0,0,8192,8192
250.401,0,0,8192,8192
250.451,0,0,8192,8192
250.501,0,0,8192,8192
250.551,0,0,8192,8192
250.6,0,0,8192,8192
250.65,0,0,8192,8192
250.7,0,0,8192,8192
250.753,0,0,8192,8192
250.803,0,0,8192,8192
250.852,0,0,8192,8192
250.902,0,0,8192,8192
250.952,0,0,8192,8192
251.002,0,0,8192,8192
251.052,0,0,8192,8192
251.101,0,0,8192,8192
251.151,0,0,8192,8192
251.201,0,0,8192,8192
251.251,0,0,8192,8192
251.301,0,0,8192,8192
251.35,0,0,8192,8192
251.4,0,0,8192,8192
251.453,0,0,8192,8192
251.503,0,0,8192,8192
251.553,0,0,8192,8192
251.602,0,0,8192,8192
251.652,0,0,8192,8192
251.702,0,0,8192,8192
251.752,0,0,8192,8192
251.801,0,0,8192,8192
251.851,0,0,8192,8192
251.901,0,0,8192,8192
251.951,0,0,8192,8192
252.001,0,0,8192,8192
252.05,0,0,8192,8192
252.1,0,0,8192,8192
252.15,0,0,8192,8192
252.203,0,0,8192,8192
252.253,0,0,8192,8192
252.302,0,0,8192,8192
252.352,0,0,8192,8192
252.402,0,0,8192,8192
252.452,0,0,8192,8192
252.502,0,0,8192,8192
252.551,0,0,8192,8192
252.601,0,0,8192,8192
252.651,0,0,8192,8192
252.701,0,0,8192,8192
252.751,0,0,8192,8192
252.8,0,0,8192,8192
252.85,0,0,8192,8192
252.903,0,0,8192,8192
252.953,0,0,8192,8192
253.002,0,0,8192,8192
253.052,0,0,8192,8192
253.102,0,0,8192,8192
253.152,0,0,8192,8192
253.202,0,0,8192,8192
253.251,0,0,8192,8192
253.301,0,0,8192,8192
253.351,0,0,8192,8192
253.401,0,0,8192,8192
253.451,0,0,8192,8192
253.5,0,0,8192,8192
253.55,0,0,8192,8192
253.6,0,0,8192,8192
253.653,0,0,8192,8192
253.703,0,0,8192,8192
253.752,0,0,8192,8192
253.802,0,0,8192,8192
253.852,0,0,8192,8192
253.902,0,0,8192,8192
253.952,0,0,8192,8192
254.001,0,0,8192,8192
254.051,0,0,8192,8192
254.101,0,0,8192,8192
254.151,0,0,8192,8192
254.201,0,0,8192,8192
254.25,0,0,8192,8192
254.3,0,0,8192,8192
254.353,0,0,8192,8192
254.403,0,0,8192,8192
254.452,0,0,8192,8192
254.502,0,0,8192,8192
254.552,0,0,8192,8192
254.602,0,0,8192,8192
254.652,0,0,8192,8192
254.701,0,0,8192,8192
254.751,0,0,8192,8192
254.801,0,0,8192,8192
254.851,0,0,8192,8192
254.901,0,0,8192,8192
254.95,0,0,8192,8192
255,0,0,8192,8192
255.05,0,0,8192,8192
255.103,0,0,8192,8192
255.153,0,0,8192,8192
255.202,0,0,8192,8192
255.252,0,0,8192,8192
255.302,2.77556e-17,0,8192,8192
255.352,2.77556e-17,0,8192,8192
255.402,5.55112e-17,0,8192,8192
255.451,2.77556e-17,0,8192,8192
255.501,2.77556e-17,0,8192,8192
255.551,2.77556e-17,0,8192,8192
255.601,2.77556e-17,0,8192,8192
255.651,2.77556e-17,0,8192,8192
255.7,2.77556e-17,0,8192,8192
255.75,2.77556e-17,0,8192,8192
255.803,2.77556e-17,0,8192,8192
255.853,2.77556e-17,0,8192,8192
255.902,2.77556e-17,0,8192,8192
255.952,2.77556e-17,0,8192,8192
256.002,5.55112e-17,0,8192,8192
256.052,5.55112e-17,0,8192,8192
256.102,5.55112e-17,0,8192,8192
256.151,5.55112e-17,0,8192,8192
256.201,2.77556e-17,0,8192,8192
256.251,2.77556e-17,0,8192,8192
256.301,2.77556e-17,0,8192,8192
256.351,2.77556e-17,0,8192,8192
256.4,2.77556e-17,0,8192,8192
256.45,2.77556e-17,0,8192,8192
256.5,0,0,8192,8192
256.553,0,0,8192,8192
256.603,0,0,8192,8192
256.652,0,0,8192,8192
256.702,0,0,8192,8192
256.752,0,0,8192,8192
256.802,0,0,8192,8192
256.852,0,0,8192,8192
256.901,0,0,8192,8192
256.951,0,0,8192,8192
257.001,0,0,8192,8192
257.051,0,0,8192,8192
257.101,0,0,8192,8192
257.15,0,0,8192,8192
257.2,0,0,8192,8192
257.253,0,0,8192,8192
257.303,2.77556e-17,0,8192,8192
257.352,2.77556e-17,0,8192,8192
257.402,5.55112e-17,0,8192,8192
257.452,5.55112e-17,0,8192,8192
257.502,5.55112e-17,0,8192,8192
257.552,5.55112e-17,0,8192,8192
257.601,5.55112e-17,0,8192,8192
257.651,5.55112e-17,0,8192,8192
257.701,5.55112e-17,0,8192,8192
257.751,5.55112e-17,0,8192,8192
257.801,5.55112e-17,0,8192,8192
257.85,5.55112e-17,0,8192,8192
257.9,5.55112e-17,0,8192,8192
257.95,5.55112e-17,0,8192,8192
258.003,5.55112e-17,0,8192,8192
258.053,5.55112e-17,0,8192,8192
258.102,5.55112e-17,0,8192,8192
258.152,5.55112e-17,0,8192,8192
258.202,5.55112e-17,0,8192,8192
258.252,5.55112e-17,0,8192,8192
258.302,5.55112e-17,0,8192,8192
258.351,5.55112e-17,0,8192,8192
258.401,5.55112e-17,0,8192,8192
258.451,5.55112e-17,0,8192,8192
258.501,5.55112e-17,0,8192,8192
258.551,5.55112e-17,0,8192,8192
258.6,5.55112e-17,0,8192,8192
258.65,2.77556e-17,0,8192,8192
258.703,0,0,8192,8192
258.753,0,0,8192,8192
258.802,0,0,8192,8192
258.852,2.77556e-17,0,8192,8192
258.902,2.77556e-17,0,8192,8192
258.952,5.55112e-17,0,8192,8192
259.002,5.55112e-17,0,8192,8192
259.051,2.77556e-17,0,8192,8192
259.101,2.77556e-17,0,8192,8192
259.151,2.77556e-17,0,8192,8192
259.201,2.77556e-17,0,8192,8192
259.251,2.77556e-17,0,8192,8192
259.3,2.77556e-17,0,8192,8192
259.35,2.77556e-17,0,8192,8192
259.403,2.77556e-17,0,8192,8192
259.453,2.77556e-17,0,8192,8192
259.503,2.77556e-17,0,8192,8192
259.552,2.77556e-17,0,8192,8192
259.602,2.77556e-17,0,8192,8192
259.652,2.77556e-17,0,8192,8192
259.702,2.77556e-17,0,8192,8192
259.751,2.77556e-17,0,8192,8192
259.801,2.77556e-17,0,8192,8192
259.851,2.77556e-17,0,8192,8192
259.901,0,0,8192,8192
259.951,-2.77556e-17,0,8192,8192
260,-2.77556e-17,0,8192,8192
260.05,-2.77556e-17,0,8192,8192
260.1,-2.77556e-17,0,8192,8192
260.153,-2.77556e-17,0,8192,8192
260.203,-2.77556e-17,0,8192,8192
260.252,-2.77556e-17,0,8192,8192
260.302,-2.77556e-17,0,8192,8192
260.352,-2.77556e-17,0,8192,8192
260.402,-2.77556e-17,0,8192,8192
260.452,-2.77556e-17,0,8192,8192
260.501,-2.77556e-17,0,8192,8192
260.551,-2.77556e-17,0,8192,8192
260.601,-2.77556e-17,0,8192,8192
260.651,-2.77556e-17,0,8192,8192
260.701,-2.77556e-17,0,8192,8192
260.75,-2.77556e-17,0,8192,8192
260.8,-2.77556e-17,0,8192,8192
260.853,-2.77556e-17,0,8192,8192
260.903,-2.77556e-17,0,8192,8192
260.952,-2.77556e-17,0,8192,8192
261.002,-8.32667e-17,0,8192,8192
261.052,-8.32667e-17,0,8192,8192
261.102,-8.32667e-17,0,8192,8192
261.152,-5.55112e-17,0,8192,8192
261.201,-2.77556e-17,0,8192,8192
261.251,-2.77556e-17,0,8192,8192
261.301,-2.77556e-17,0,8192,8192
261.351,-2.77556e-17,0,8192,8192
261.401,-2.77556e-17,0,8192,8192
261.45,-2.77556e-17,0,8192,8192
261.5,-2.77556e-17,0,8192,8192
261.55,-2.77556e-17,0,8192,8192
261.603,-2.77556e-17,0,8192,8192
261.653,0,0,8192,8192
261.702,-2.77556e-17,0,8192,8192
261.752,-2.77556e-17,0,8192,8192
261.802,-2.77556e-17,0,8192,8192
261.852,-2.77556e-17,0,8192,8192
261.902,-2.77556e-17,0,8192,8192
261.951,-2.77556e-17,0,8192,8192
262.001,-2.77556e-17,0,8192,8192
262.051,-2.77556e-17,0,8192,8192
262.101,-2.77556e-17,0,8192,8192
262.151,-2.77556e-17,0,8192,8192
262.2,-2.77556e-17,0,8192,8192
262.25,-2.77556e-17,0,8192,8192
262.303,-2.77556e-17,0,8192,8192
262.353,-2.77556e-17,0,8192,8192
262.402,-2.77556e-17,0,8192,8192
262.452,-2.77556e-17,0,8192,8192
262.502,-2.77556e-17,0,8192,8192
262.552,-2.77556e-17,0,8192,8192
262.602,-2.77556e-17,0,8192,8192
262.651,-2.77556e-17,0,8192,8192
262.701,-2.77556e-17,0,8192,8192
262.751,0,0,8192,8192
262.801,0,0,8192,8192
262.851,0,0,8192,8192
262.9,0,0,8192,8192
262.95,-2.77556e-17,0,8192,8192
263,-2.77556e-17,0,8192,8192
263.053,0,0,8192,8192
263.103,0,0,8192,8192
263.152,0,0,8192,8192
263.202,0,0,8192,8192
263.252,0,0,8192,8192
263.302,2.77556e-17,0,8192,8192
263.352,0,0,8192,8192
263.401,0,0,8192,8192
263.451,0,0,8192,8192
263.501,2.77556e-17,0,8192,8192
263.551,5.55112e-17,0,8192,8192
263.601,5.55112e-17,0,8192,8192
263.65,0,0,8192,8192
263.7,0,0,8192,8192
263.753,0,0,8192,8192
263.803,0,0,8192,8192
263.852,0,0,8192,8192
263.902,0,0,8192,8192
263.952,0,0,8192,8192
264.002,0,0,8192,8192
264.052,0,0,8192,8192
264.101,0,0,8192,8192
264.151,0,0,8192,8192
264.201,0,0,8192,8192
264.251,0,0,8192,8192
264.301,2.77556e-17,0,8192,8192
264.35,2.77556e-17,0,8192,8192
264.4,2.77556e-17,0,8192,8192
264.45,2.77556e-17,0,8192,8192
264.503,2.77556e-17,0,8192,8192
264.553,2.77556e-17,0,8192,8192
264.602,2.77556e-17,0,8192,8192
264.652,2.77556e-17,0,8192,8192
264.702,2.77556e-17,0,8192,8192
264.752,2.77556e-17,0,8192,8192
264.802,2.77556e-17,0,8192,8192
264.851,2.77556e-17,0,8192,8192
264.901,2.77556e-17,0,8192,8192
264.951,2.77556e-17,0,8192,8192
265.001,2.77556e-17,0,8192,8192
265.051,2.77556e-17,0,8192,8192
265.1,2.77556e-17,0,8192,8192
265.15,2.77556e-17,0,8192,8192
265.203,2.77556e-17,0,8192,8192
265.253,2.77556e-17,0,8192,8192
265.302,2.77556e-17,0,8192,8192
265.352,2.77556e-17,0,8192,8192
265.402,2.77556e-17,0,8192,8192
265.452,2.77556e-17,0,8192,8192
265.502,2.77556e-17,0,8192,8192
265.551,2.77556e-17,0,8192,8192
265.601,2.77556e-17,0,8192,8192
265.651,2.77556e-17,0,8192,8192
265.701,5.55112e-17,0,8192,8192
265.751,5.55112e-17,0,8192,8192
265.8,2.77556e-17,0,8192,8192
265.85,2.77556e-17,0,8192,8192
265.9,2.77556e-17,0,8192,8192
265.953,2.77556e-17,0,8192,8192
266.003,2.77556e-17,0,8192,8192
266.052,2.77556e-17,0,8192,8192
266.102,2.77556e-17,0,8192,8192
266.152,2.77556e-17,0,8192,8192
266.202,2.77556e-17,0,8192,8192
266.252,2.77556e-17,0,8192,8192
266.301,2.77556e-17,0,8192,8192
266.351,2.77556e-17,0,8192,8192
266.401,2.77556e-17,0,8192,8192
266.451,2.77556e-17,0,8192,8192
266.501,2.77556e-17,0,8192,8192
266.55,2.77556e-17,0,8192,8192
266.6,2.77556e-17,0,8192,8192
266.653,2.77556e-17,0,8192,8192
266.703,2.77556e-17,0,8192,8192
266.752,2.77556e-17,0,8192,8192
266.802,2.77556e-17,0,8192,8192
266.852,2.77556e-17,0,8192,8192
266.902,2.77556e-17,0,8192,8192
266.952,-2.77556e-17,0,8192,8192
267.001,-2.77556e-17,0,8192,8192
267.051,-2.77556e-17,0,8192,8192
267.101,-2.77556e-17,0,8192,8192
267.151,0,0,8192,8192
267.201,0,0,8192,8192
267.25,-2.77556e-17,0,8192,8192
267.3,0,0,8192,8192
267.353,-2.77556e-17,0,8192,8192
267.403,-2.77556e-17,0,8192,8192
267.453,-2.77556e-17,0,8192,8192
267.502,-2.77556e-17,0,8192,8192
267.552,-2.77556e-17,0,8192,8192
267.602,-2.77556e-17,0,8192,8192
267.652,-2.77556e-17,0,8192,8192
267.702,-2.77556e-17,0,8192,8192
267.751,0,0,8192,8192
267.801,0,0,8192,8192
267.851,0,0,8192,8192
267.901,0,0,8192,8192
267.95,0,0,8192,8192
268,0,0,8192,8192
268.05,0,0,8192,8192
268.103,0,0,8192,8192
268.153,0,0,8192,8192
268.202,0,0,8192,8192
268.252,0,0,8192,8192
268.302,0,0,8192,8192
268.352,0,0,8192,8192
268.402,0,0,8192,8192
268.451,0,0,8192,8192
268.501,0,0,8192,8192
268.551,0,0,8192,8192
268.601,0,0,8192,8192
268.651,0,0,8192,8192
268.7,0,0,8192,8192
268.75,0,0,8192,8192
268.803,0,0,8192,8192
268.853,0,0,8192,8192
268.902,0,0,8192,8192
268.952,0,0,8192,8192
269.002,0,0,8192,8192
269.052,0,0,8192,8192
269.102,0,0,8192,8192
269.151,0,0,8192,8192
269.201,0,0,8192,8192
269.251,0,0,8192,8192
269.301,0,0,8192,8192
269.351,0,0,8192,8192
269.4,0,0,8192,8192
269.45,0,0,8192,8192
269.5,0,0,8192,8192
269.553,0,0,8192,8192
269.603,0,0,8192,8192
269.652,2.77556e-17,0,8192,8192
269.702,2.77556e-17,0,8192,8192
269.752,2.77556e-17,0,8192,8192
269.802,0,0,8192,8192
269.852,2.77556e-17,0,8192,8192
269.901,2.77556e-17,0,8192,8192
269.951,2.77556e-17,0,8192,8192
270.001,2.77556e-17,0,8192,8192
270.051,2.77556e-17,0,8192,8192
270.101,2.77556e-17,0,8192,8192
270.15,2.77556e-17,0,8192,8192
270.2,2.77556e-17,0,8192,8192
270.253,2.77556e-17,0,8192,8192
270.303,2.77556e-17,0,8192,8192
270.352,2.77556e-17,0,8192,8192
270.402,2.77556e-17,0,8192,8192
270.452,2.77556e-17,0,8192,8192
270.502,2.77556e-17,0,8192,8192
270.552,2.77556e-17,0,8192,8192
270.601,2.77556e-17,0,8192,8192
270.651,2.77556e-17,0,8192,8192
270.701,2.77556e-17,0,8192,8192
270.751,0,0,8192,8192
270.801,-2.77556e-17,0,8204,8204
270.85,-2.77556e-17,0,8300,8300
270.901,-2.77556e-17,0,8412,8412
270.951,-2.77556e-17,0,8508,8508
271.001,-2.77556e-17,0,8612,8612
271.051,0,0,8716,8716
271.101,0,0,8828,8828
271.15,0,0,8932,8932
271.2,0,0,9036,9036
271.25,0,0,9148,9148
271.301,0,0,9252,9252
271.351,0,0,9372,9372
271.401,0,0,9424,9424
271.451,0,0,9432,9432
271.5,0,0,9416,9416
271.55,0,0,9416,9416
271.6,0,0,9432,9432
271.651,0,0,9408,9408
271.701,0,0,9432,9432
271.751,0,0,9408,9408
271.801,0,0,9408,9408
271.85,0,0,9416,9416
271.9,0,0,9400,9400
271.95,0,0,9396,9396
272.001,0,0,9492,9492
272.051,0,0,9588,9588
272.101,0,0,9692,9692
272.151,0,0,9796,9796
272.201,0,0,9884,9884
272.25,0,0,9972,9972
272.3,0,0,10108,10108
272.351,0,0,10220,10220
272.401,0,0,10316,10316
272.451,0,0,10412,10412
272.501,0,0,10500,10500
272.551,0,0,10628,10628
272.6,0,0,10732,10732
272.65,0,0,10852,10852
272.701,0,0,10908,10908
272.751,0,0,10928,10928
272.801,0,0,10936,10936
272.851,0,0,10904,10904
272.901,0,0,10920,10920
272.95,0,0,10928,10928
273,0,0,10912,10912
273.05,0,0,10912,10912
273.101,0,0,10888,10888
273.151,0,0,10888,10888
273.201,0,0,10880,10880
273.251,0,0,10896,10896
273.3,0,0,10864,10864
273.35,0,0,10864,10864
273.4,0,0,10848,10848
273.451,0,0,10856,10856
273.501,0,0,10824,10824
273.551,0,0,10824,10824
273.601,0,0,10808,10808
273.651,-6.93889e-16,0,10808,10808
273.7,-1.58207e-15,0,10816,10816
273.75,-3.66374e-15,0,10800,10800
273.801,-1.83464e-14,0,10800,10800
273.851,-9.08995e-14,0,10784,10784
273.901,-3.82777e-13,0,10784,10784
273.951,-1.35997e-12,0,10784,10784
274.001,-4.11332e-12,0,10792,10792
274.05,-1.06821e-11,0,10768,10768
274.1,-2.39798e-11,0,10760,10760
274.151,-4.75901e-11,0,10744,10744
274.201,-8.05431e-11,0,10776,10776
274.251,-1.18887e-10,0,10760,10760
274.301,-1.52705e-10,0,10728,10728
274.351,-1.69445e-10,0,10752,10752
274.401,-1.59581e-10,0,10760,10760
274.451,-1.22327e-10,0,10744,10744
274.501,-6.74552e-11,0,10784,10784
274.55,-1.25152e-11,0,10856,10856
274.601,3.20828e-11,0,10896,10896
274.65,5.84664e-11,0,10896,10896
274.701,7.19632e-11,0,10904,10904
274.751,7.95908e-11,0,10888,10888
274.8,8.75065e-11,0,10872,10872
274.85,9.62539e-11,0,10848,10848
274.901,1.02925e-10,0,10832,10832
274.951,1.05269e-10,0,10840,10840
275.001,1.0444e-10,0,10808,10808
275.05,1.04077e-10,0,10832,10832
275.101,1.06954e-10,0,10808,10808
275.15,1.12421e-10,0,10800,10800
275.2,1.17407e-10,0,10808,10808
275.251,1.18947e-10,0,10792,10792
275.301,1.16857e-10,0,10792,10792
275.351,1.14217e-10,0,10768,10768
275.401,1.14472e-10,0,10744,10744
275.45,1.1823e-10,0,10736,10736
275.501,1.23005e-10,0,10720,10720
275.552,1.24739e-10,0,10736,10736
275.601,1.22371e-10,0,10704,10704
275.65,1.19359e-10,0,10704,10704
275.7,1.21963e-10,0,10704,10704
275.751,1.3832e-10,0,10680,10680
275.801,1.80608e-10,0,10688,10688
275.852,2.8345e-10,0,10696,10696
275.9,5.14845e-10,0,10656,10656
275.951,1.02545e-09,0,10680,10680
276.002,1.9997e-09,0,10632,10632
276.051,3.56859e-09,0,10640,10640
276.1,5.8776e-09,0,10632,10632
276.151,9.05925e-09,0,10632,10632
276.201,1.2798e-08,0,10608,10608
276.251,1.69981e-08,0,10592,10592
276.301,2.14729e-08,0,10592,10592
276.351,2.61374e-08,0,10584,10584
276.4,3.08982e-08,0,10576,10576
276.451,3.6339e-08,0,10568,10568
276.5,4.24813e-08,0,10560,10560
276.551,5.02293e-08,0,10552,10552
276.601,5.9562e-08,0,10536,10536
276.65,7.11882e-08,0,10536,10536
276.7,8.55841e-08,0,10528,10528
276.75,1.03228e-07,0,10528,10528
276.8,1.24541e-07,0,10520,10520
276.851,1.49857e-07,0,10512,10512
276.901,1.79304e-07,0,10504,10504
276.95,2.11531e-07,0,10528,10528
277.001,2.48317e-07,0,10488,10488
277.051,2.86349e-07,0,10496,10496
277.1,3.25877e-07,0,10488,10488
277.15,3.6596e-07,0,10480,10480
277.202,4.27975e-07,0,10488,10488
277.25,5.02185e-07,0,10480,10480
277.3,5.71884e-07,0,10472,10472
277.351,6.36869e-07,0,10464,10464
277.402,6.98697e-07,0,10456,10456
277.451,7.53813e-07,0,10448,10448
277.5,8.02618e-07,0,10440,10440
277.551,8.44795e-07,0,10432,10432
277.601,8.76376e-07,0,10424,10424
277.651,8.98971e-07,0,10408,10408
277.701,9.10207e-07,0,10416,10416
277.751,9.13637e-07,0,10400,10400
277.802,9.13766e-07,0,10408,10408
277.85,9.10435e-07,0,10408,10408
277.9,9.0288e-07,0,10392,10392
277.951,8.90747e-07,0,10400,10400
278.001,8.73618e-07,0,10416,10416
278.05,8.52191e-07,0,10384,10384
278.101,8.24908e-07,0,10376,10376
278.152,7.92916e-07,0,10376,10376
278.2,7.58415e-07,0,10376,10376
278.251,7.19892e-07,0,10376,10376
278.3,6.81209e-07,0,10384,10384
278.351,6.3918e-07,0,10376,10376
278.401,5.58003e-07,0,10368,10368
278.452,4.96082e-07,0,10368,10368
278.501,4.45041e-07,0,10336,10336
278.551,4.00021e-07,0,10344,10344
278.6,3.58726e-07,0,10360,10360
278.652,3.18857e-07,0,10360,10360
278.701,2.82968e-07,0,10336,10336
278.751,2.49323e-07,0,10320,10320
278.801,2.18125e-07,0,10344,10344
278.851,1.89801e-07,0,10328,10328
278.901,1.64803e-07,0,10304,10304
278.951,1.43274e-07,0,10392,10392
279.001,1.24786e-07,0,10504,10504
279.051,1.12303e-07,0,10504,10504
279.101,9.9574e-08,0,10560,10560
279.151,8.71161e-08,0,10556,10556
279.202,7.50697e-08,0,10484,10484
279.25,6.41044e-08,0,10444,10444
279.301,5.56796e-08,0,10444,10444
279.351,5.00755e-08,0,10420,10420
279.4,4.48817e-08,0,10452,10452
279.451,3.97859e-08,0,10484,10484
279.502,3.50195e-08,0,10476,10476
279.551,3.07795e-08,0,10444,10444
279.602,2.68557e-08,0,10412,10412
279.651,2.37331e-08,0,10244,10244
279.7,2.14012e-08,0,10172,10172
279.751,1.99536e-08,0,10196,10196
279.801,1.94852e-08,0,10116,10116
279.851,1.98722e-08,0,10108,10108
279.9,2.09684e-08,0,10044,10044
279.95,2.26637e-08,0,10012,10012
280,2.48507e-08,0,10076,10076
280.051,2.74246e-08,0,9996,9996
280.101,3.02628e-08,0,9488,9488
280.152,3.33703e-08,0,9016,9016
280.202,3.65765e-08,0,8344,8344
280.252,3.99834e-08,0,8208,8208
280.302,4.35376e-08,0,8252,8252
280.353,4.73395e-08,0,8436,8436
280.401,5.11419e-08,0,8708,8708
280.451,5.51777e-08,0,8708,8708
280.501,5.93697e-08,0,8740,8740
280.551,6.37694e-08,0,8996,8996
280.601,6.84438e-08,0,9228,9228
280.65,7.32257e-08,0,9364,9364
280.701,7.84364e-08,0,9524,9524
280.751,8.39767e-08,0,9556,9556
280.801,8.98696e-08,0,9604,9604
280.851,9.60339e-08,0,9604,9604
280.901,1.02589e-07,0,9652,9652
280.951,1.09493e-07,0,9668,9668
281,1.16717e-07,0,9700,9700
281.052,1.24569e-07,0,9692,9692
281.101,1.32493e-07,0,9748,9748
281.151,1.40879e-07,0,9796,9796
281.2,1.49881e-07,0,9876,9876
281.251,1.60142e-07,0,9940,9940
281.301,1.71161e-07,0,10004,10004
281.352,1.84133e-07,0,10068,10068
281.401,1.9834e-07,0,10132,10132
281.452,2.15201e-07,0,10188,10188
281.501,2.33659e-07,0,10276,10276
281.552,2.5538e-07,0,10332,10332
281.6,2.78745e-07,0,10204,10204
281.651,3.05556e-07,0,10188,10188
281.702,3.34849e-07,0,10172,10172
281.75,3.65453e-07,0,10080,10080
281.801,4.00189e-07,0,10072,10072
281.851,4.3826e-07,0,10032,10032
281.901,4.79236e-07,0,10040,10040
281.952,5.21421e-07,0,10072,10072
282.002,5.62895e-07,0,10104,10104
282.05,6.21027e-07,0,10088,10088
282.1,6.85738e-07,0,10120,10120
282.152,7.41665e-07,0,10120,10120
282.202,7.87634e-07,0,10128,10128
282.252,8.25061e-07,0,10136,10136
282.301,8.54378e-07,0,10160,10160
282.351,8.75812e-07,0,10144,10144
282.401,8.86229e-07,0,10152,10152
282.45,8.87061e-07,0,10160,10160
282.501,8.83038e-07,0,10152,10152
282.551,8.73976e-07,0,10152,10152
282.6,8.6006e-07,0,10168,10168
282.651,8.40862e-07,0,10128,10128
282.7,8.18249e-07,0,10136,10136
282.751,7.90947e-07,0,10160,10160
282.8,7.61357e-07,0,10152,10152
282.851,7.27592e-07,0,10128,10128
282.9,6.92571e-07,0,10136,10136
282.951,6.54218e-07,0,10152,10152
283.001,6.14598e-07,0,10136,10136
283.05,5.59062e-07,0,10136,10136
283.101,5.04749e-07,0,10136,10136
283.151,4.47909e-07,0,10128,10128
283.201,3.88658e-07,0,10136,10136
283.252,3.30092e-07,0,10136,10136
283.3,2.77374e-07,0,10120,10120
283.35,2.2825e-07,0,10112,10112
283.4,1.84859e-07,0,10120,10120
283.452,1.44877e-07,0,10136,10136
283.501,1.10283e-07,0,10120,10120
283.551,7.92109e-08,0,10096,10096
283.602,5.05989e-08,0,10144,10144
283.651,2.64322e-08,0,10120,10120
283.701,4.70088e-09,0,10128,10128
283.75,-1.38521e-08,0,10128,10128
283.8,-2.72608e-08,0,10104,10104
283.85,-3.95877e-08,0,10112,10112
283.9,-5.08209e-08,0,10112,10112
283.952,-5.81253e-08,0,10080,10080
284.001,-6.37461e-08,0,10120,10120
284.05,-6.86033e-08,0,10120,10120
284.101,-7.2609e-08,0,10112,10112
284.15,-7.54774e-08,0,10096,10096
284.201,-7.74787e-08,0,10128,10128
284.251,-7.8612e-08,0,10096,10096
284.301,-7.89888e-08,0,10120,10120
284.351,-7.87212e-08,0,10112,10112
284.401,-7.78508e-08,0,10144,10144
284.451,-7.64396e-08,0,10128,10128
284.5,-7.45367e-08,0,10128,10128
284.551,-7.21165e-08,0,10128,10128
284.6,-6.94278e-08,0,10128,10128
284.651,-6.63788e-08,0,10128,10128
284.701,-6.3172e-08,0,10120,10120
284.751,-5.99035e-08,0,10112,10112
284.801,-5.66582e-08,0,10104,10104
284.851,-5.35151e-08,0,10128,10128
284.901,-5.05317e-08,0,10128,10128
284.95,-4.77499e-08,0,10104,10104
285.001,-4.51151e-08,0,10112,10112
285.051,-4.28047e-08,0,10112,10112
285.101,-4.06669e-08,0,10112,10112
285.15,-3.88385e-08,0,10112,10112
285.2,-3.71998e-08,0,10104,10104
285.25,-3.58089e-08,0,10136,10136
285.3,-3.46484e-08,0,10136,10136
285.35,-3.37015e-08,0,10136,10136
285.401,-3.29308e-08,0,10152,10152
285.451,-3.2368e-08,0,10152,10152
285.5,-3.19663e-08,0,10128,10128
285.551,-3.16982e-08,0,10136,10136
285.601,-3.1555e-08,0,10144,10144
285.65,-3.15121e-08,0,10144,10144
285.7,-3.15477e-08,0,10152,10152
285.75,-3.16486e-08,0,10136,10136
285.8,-3.18011e-08,0,10160,10160
285.85,-3.19893e-08,0,10144,10144
285.901,-3.2205e-08,0,10152,10152
285.951,-3.24274e-08,0,10104,10104
286.001,-3.26669e-08,0,10136,10136
286.05,-3.29051e-08,0,10136,10136
286.101,-3.31507e-08,0,10144,10144
286.151,-3.33892e-08,0,10104,10104
286.201,-3.36167e-08,0,10144,10144
286.251,-3.3833e-08,0,10136,10136
286.301,-3.40394e-08,0,10136,10136
286.351,-3.42342e-08,0,10160,10160
286.4,-3.44136e-08,0,10144,10144
286.451,-3.45787e-08,0,10120,10120
286.5,-3.47207e-08,0,10128,10128
286.551,-3.48508e-08,0,10144,10144
286.601,-3.49657e-08,0,10144,10144
286.651,-3.50632e-08,0,10168,10168
286.7,-3.51385e-08,0,10112,10112
286.751,-3.51975e-08,0,10176,10176
286.801,-3.52364e-08,0,10144,10144
286.851,-3.52599e-08,0,10152,10152
286.901,-3.52696e-08,0,10136,10136
286.951,-3.52653e-08,0,10120,10120
287,-3.52467e-08,0,10136,10136
287.05,-3.52147e-08,0,10120,10120
287.1,-3.51722e-08,0,10120,10120
287.151,-3.51208e-08,0,10104,10104
287.201,-3.50654e-08,0,10120,10120
287.251,-3.50051e-08,0,10096,10096
287.301,-3.49399e-08,0,10088,10088
287.35,-3.48709e-08,0,10112,10112
287.4,-3.48004e-08,0,10128,10128
287.45,-3.4731e-08,0,10072,10072
287.501,-3.46623e-08,0,10112,10112
287.551,-3.4599e-08,0,10088,10088
287.601,-3.4539e-08,0,10080,10080
287.651,-3.44823e-08,0,10120,10120
287.701,-3.44296e-08,0,10080,10080
287.75,-3.4382e-08,0,10056,10056
287.8,-3.43409e-08,0,10080,10080
287.851,-3.43061e-08,0,10056,10056
287.901,-3.42796e-08,0,10072,10072
287.951,-3.42594e-08,0,10080,10080
288.001,-3.42451e-08,0,10088,10088
288.051,-3.42369e-08,0,10040,10040
288.1,-3.42357e-08,0,10056,10056
288.15,-3.42425e-08,0,10064,10064
288.201,-3.42579e-08,0,10072,10072
288.251,-3.42806e-08,0,10024,10024
288.301,-3.431e-08,0,10024,10024
288.351,-3.4346e-08,0,10048,10048
288.401,-3.43887e-08,0,10032,10032
288.45,-3.44387e-08,0,10032,10032
288.5,-3.44968e-08,0,9900,9900
288.551,-3.45658e-08,0,9804,9804
288.601,-3.46421e-08,0,9684,9684
288.651,-3.47274e-08,0,9680,9680
288.701,-3.48216e-08,0,9648,9648
288.751,-3.4925e-08,0,9664,9664
288.8,-3.50382e-08,0,9664,9664
288.85,-3.51623e-08,0,9664,9664
288.9,-3.52987e-08,0,9664,9664
288.951,-3.54535e-08,0,9680,9680
289.001,-3.56194e-08,0,9664,9664
289.051,-3.58014e-08,0,9664,9664
289.101,-3.60005e-08,0,9648,9648
289.15,-3.62172e-08,0,9632,9632
289.2,-3.6452e-08,0,9648,9648
289.25,-3.67056e-08,0,9632,9632
289.301,-3.69872e-08,0,9632,9632
289.351,-3.7281e-08,0,9632,9632
289.401,-3.75949e-08,0,9632,9632
289.451,-3.79281e-08,0,9580,9580
289.501,-3.82789e-08,0,9460,9460
289.55,-3.86448e-08,0,9356,9356
289.6,-3.90226e-08,0,9236,9236
289.651,-3.94193e-08,0,9116,9116
289.701,-3.98076e-08,0,9012,9012
289.751,-4.01939e-08,0,8900,8900
289.801,-4.05735e-08,0,8764,8764
289.851,-4.09426e-08,0,8660,8660
289.9,-4.12972e-08,0,8540,8540
289.95,-4.16342e-08,0,8436,8436
290.002,-4.19607e-08,0,8348,8348
290.051,-4.22522e-08,0,8292,8292
290.101,-4.25175e-08,0,8236,8236
290.152,-4.27604e-08,0,8192,8192
290.202,-4.29656e-08,0,8192,8192
290.252,-4.31371e-08,0,8192,8192
290.302,-4.32724e-08,0,8192,8192
290.351,-4.33695e-08,0,8192,8192
290.401,-4.34267e-08,0,8192,8192
290.451,-4.34423e-08,0,8192,8192
290.501,-4.34153e-08,0,8192,8192
290.551,-4.33451e-08,0,8192,8192
290.6,-4.32313e-08,0,8192,8192
290.65,-4.3074e-08,0,8192,8192
290.703,-4.28604e-08,0,8192,8192
290.753,-4.26153e-08,0,8192,8192
290.802,-4.23288e-08,0,8192,8192
290.852,-4.20017e-08,0,8192,8192
290.902,-4.16351e-08,0,8192,8192
290.952,-4.12295e-08,0,8192,8192
291.002,-4.07858e-08,0,8192,8192
291.051,-4.03046e-08,0,8192,8192
291.101,-3.97866e-08,0,8192,8192
291.151,-3.92321e-08,0,8192,8192
291.201,-3.86409e-08,0,8192,8192
291.251,-3.80132e-08,0,8192,8192
291.3,-3.7349e-08,0,8192,8192
291.35,-3.66487e-08,0,8192,8192
291.4,-3.59139e-08,0,8192,8192
291.453,-3.51012e-08,0,8192,8192
291.503,-3.43054e-08,0,8192,8192
291.552,-3.34879e-08,0,8192,8192
291.602,-3.26549e-08,0,8192,8192
291.652,-3.18131e-08,0,8192,8192
291.702,-3.09688e-08,0,8192,8192
291.752,-3.01276e-08,0,8192,8192
291.801,-2.92947e-08,0,8192,8192
291.851,-2.84742e-08,0,8192,8192
291.901,-2.76701e-08,0,8192,8192
291.951,-2.68856e-08,0,8192,8192
292.001,-2.61239e-08,0,8192,8192
292.05,-2.53877e-08,0,8192,8192
292.1,-2.46796e-08,0,8192,8192
292.153,-2.39631e-08,0,8192,8192
292.203,-2.33203e-08,0,8192,8192
292.252,-2.27128e-08,0,8192,8192
292.302,-2.21435e-08,0,8192,8192
292.352,-2.16151e-08,0,8192,8192
292.402,-2.11298e-08,0,8192,8192
292.452,-2.0689e-08,0,8192,8192
292.501,-2.02926e-08,0,8192,8192
292.551,-1.99391e-08,0,8192,8192
292.601,-1.96261e-08,0,8192,8192
292.651,-1.93506e-08,0,8192,8192
292.701,-1.91094e-08,0,8192,8192
292.75,-1.88992e-08,0,8192,8192
292.8,-1.87166e-08,0,8192,8192
292.853,-1.85498e-08,0,8192,8192
292.903,-1.84141e-08,0,8192,8192
292.953,-1.82967e-08,0,8192,8192
293.002,-1.8195e-08,0,8192,8192
293.052,-1.81063e-08,0,8192,8192
293.102,-1.80282e-08,0,8192,8192
293.152,-1.79584e-08,0,8192,8192
293.202,-1.78949e-08,0,8192,8192
293.251,-1.78361e-08,0,8192,8192
293.301,-1.77805e-08,0,8192,8192
293.351,-1.77269e-08,0,8192,8192
293.401,-1.76744e-08,0,8192,8192
293.45,-1.76219e-08,0,8192,8192
293.5,-1.75685e-08,0,8192,8192
293.55,-1.75133e-08,0,8192,8192
293.603,-1.74518e-08,0,8192,8192
293.653,-1.739e-08,0,8192,8192
293.702,-1.73238e-08,0,8192,8192
293.752,-1.72522e-08,0,8192,8192
293.802,-1.71748e-08,0,8192,8192
293.852,-1.70908e-08,0,8192,8192
293.902,-1.69997e-08,0,8192,8192
293.951,-1.69011e-08,0,8192,8192
294.001,-1.67948e-08,0,8192,8192
294.051,-1.66806e-08,0,8192,8192
294.101,-1.65588e-08,0,8192,8192
294.151,-1.64296e-08,0,8192,8192
294.2,-1.62931e-08,0,8192,8192
294.25,-1.61499e-08,0,8192,8192
294.303,-1.59911e-08,0,8192,8192
294.353,-1.5835e-08,0,8192,8192
294.402,-1.56736e-08,0,8192,8192
294.452,-1.55084e-08,0,8192,8192
294.502,-1.53413e-08,0,8192,8192
294.552,-1.51752e-08,0,8192,8192
294.602,-1.50133e-08,0,8192,8192
294.651,-1.4858e-08,0,8192,8192
294.701,-1.47102e-08,0,8192,8192
294.751,-1.45685e-08,0,8192,8192
294.801,-1.44291e-08,0,8192,8192
294.851,-1.42875e-08,0,8192,8192
294.9,-1.41392e-08,0,8192,8192
294.95,-1.39811e-08,0,8192,8192
295,-1.38115e-08,0,8192,8192
295.053,-1.36189e-08,0,8192,8192
295.103,-1.34248e-08,0,8192,8192
295.152,-1.32189e-08,0,8192,8192
295.202,-1.30013e-08,0,8192,8192
295.252,-1.27718e-08,0,8192,8192
295.302,-1.25298e-08,0,8192,8192
295.352,-1.22748e-08,0,8192,8192
295.401,-1.20061e-08,0,8192,8192
295.451,-1.17222e-08,0,8192,8192
295.501,-1.14213e-08,0,8192,8192
295.551,-1.11002e-08,0,8192,8192
295.601,-1.07556e-08,0,8192,8192
295.65,-1.03843e-08,0,8192,8192
295.7,-9.98444e-09,0,8192,8192
295.753,-9.52971e-09,0,8192,8192
295.803,-9.07216e-09,0,8192,8192
295.852,-8.5894e-09,0,8192,8192
295.902,-8.08315e-09,0,8192,8192
295.952,-7.55435e-09,0,8192,8192
296.002,-7.0033e-09,0,8192,8192
296.052,-6.43017e-09,0,8192,8192
296.101,-5.83539e-09,0,8192,8192
296.151,-5.21998e-09,0,8192,8192
296.201,-4.5858e-09,0,8192,8192
296.251,-3.93558e-09,0,8192,8192
296.301,-3.27297e-09,0,8192,8192
296.35,-2.60236e-09,0,8192,8192
296.4,-1.92856e-09,0,8192,8192
296.45,-1.25649e-09,0,8192,8192
296.503,-5.52007e-10,0,8192,8192
296.553,1.02045e-10,0,8192,8192
296.602,7.4115e-10,0,8192,8192
296.652,1.36181e-09,0,8192,8192
296.702,1.96085e-09,0,8192,8192
296.752,2.53536e-09,0,8192,8192
296.802,3.08263e-09,0,8192,8192
296.851,3.60012e-09,0,8192,8192
296.901,4.08545e-09,0,8192,8192
296.951,4.53638e-09,0,8192,8192
297.001,4.95087e-09,0,8192,8192
297.051,5.32713e-09,0,8192,8192
297.1,5.66376e-09,0,8192,8192
297.15,5.95983e-09,0,8192,8192
297.203,6.22881e-09,0,8192,8192
297.253,6.44123e-09,0,8192,8192
297.302,6.61435e-09,0,8192,8192
297.352,6.74995e-09,0,8192,8192
297.402,6.85033e-09,0,8192,8192
297.452,6.91819e-09,0,8192,8192
297.502,6.9565e-09,0,8192,8192
297.551,6.96838e-09,0,8192,8192
297.601,6.95696e-09,0,8192,8192
297.651,6.92535e-09,0,8192,8192
297.701,6.87651e-09,0,8192,8192
297.751,6.81329e-09,0,8192,8192
297.8,6.73834e-09,0,8192,8192
297.85,6.65409e-09,0,8192,8192
297.9,6.56277e-09,0,8192,8192
297.953,6.46061e-09,0,8192,8192
298.003,6.36079e-09,0,8192,8192
298.052,6.25931e-09,0,8192,8192
298.102,6.15749e-09,0,8192,8192
298.152,6.05651e-09,0,8192,8192
298.202,5.95737e-09,0,8192,8192
298.252,5.86097e-09,0,8192,8192
298.301,5.76814e-09,0,8192,8192
298.351,5.67957e-09,0,8192,8192
298.401,5.59589e-09,0,8192,8192
298.451,5.51762e-09,0,8192,8192
298.501,5.44518e-09,0,8192,8192
298.55,5.37884e-09,0,8192,8192
298.6,5.31874e-09,0,8192,8192
298.653,5.26193e-09,0,8192,8192
298.703,5.21457e-09,0,8192,8192
298.752,5.17308e-09,0,8192,8192
298.802,5.13707e-09,0,8192,8192
298.852,5.10606e-09,0,8192,8192
298.902,5.07946e-09,0,8192,8192
298.952,5.05656e-09,0,8192,8192
299.001,5.0365e-09,0,8192,8192
299.051,5.01826e-09,0,8192,8192
299.101,5.00061e-09,0,8192,8192
299.151,4.98211e-09,0,8192,8192
299.201,4.96112e-09,0,8192,8192
299.25,4.93597e-09,0,8192,8192
299.3,4.90508e-09,0,8192,8192
299.35,4.86719e-09,0,8192,8192
299.403,4.81868e-09,0,8192,8192
299.453,4.76495e-09,0,8192,8192
299.502,4.70432e-09,0,8192,8192
299.552,4.63816e-09,0,8192,8192
299.602,4.56827e-09,0,8192,8192
299.652,4.49655e-09,0,8192,8192
299.702,4.42475e-09,0,8192,8192
299.751,4.35432e-09,0,8192,8192
299.801,4.28625e-09,0,8192,8192
299.851,4.22118e-09,0,8192,8192
299.901,4.15938e-09,0,8192,8192
299.951,4.10094e-09,0,8192,8192
300,4.04584e-09,0,8192,8192
300.05,3.99408e-09,0,8192,8192
300.103,3.94305e-09,0,8192,8192
300.153,3.89871e-09,0,8192,8192
300.202,3.8586e-09,0,8192,8192
300.252,3.82331e-09,0,8192,8192
300.302,3.79343e-09,0,8192,8192
300.352,3.76944e-09,0,8192,8192
300.402,3.75149e-09,0,8192,8192
300.451,3.73935e-09,0,8192,8192
300.501,3.73231e-09,0,8192,8192
300.551,3.72933e-09,0,8192,8192
300.601,3.72913e-09,0,8192,8192
300.651,3.7304e-09,0,8192,8192
300.7,3.73195e-09,0,8192,8192
300.75,3.73285e-09,0,8192,8192
300.803,3.73241e-09,0,8192,8192
300.853,3.73032e-09,0,8192,8192
300.903,3.72648e-09,0,8192,8192
300.952,3.72094e-09,0,8192,8192
301.002,3.71379e-09,0,8192,8192
301.052,3.70516e-09,0,8192,8192
301.102,3.69515e-09,0,8192,8192
301.152,3.68384e-09,0,8192,8192
301.201,3.67129e-09,0,8192,8192
301.251,3.65756e-09,0,8192,8192
301.301,3.6427e-09,0,8192,8192
301.351,3.62677e-09,0,8192,8192
301.4,3.60982e-09,0,8192,8192
301.45,3.59192e-09,0,8192,8192
301.5,3.57309e-09,0,8192,8192
301.553,3.55218e-09,0,8192,8192
301.603,3.53151e-09,0,8192,8192
301.652,3.50995e-09,0,8192,8192
301.702,3.48747e-09,0,8192,8192
301.752,3.46407e-09,0,8192,8192
301.802,3.43973e-09,0,8192,8192
301.852,3.41446e-09,0,8192,8192
301.901,3.38826e-09,0,8192,8192
301.951,3.36118e-09,0,8192,8192
302.001,3.33324e-09,0,8192,8192
302.051,3.3045e-09,0,8192,8192
302.101,3.27503e-09,0,8192,8192
302.15,3.24489e-09,0,8192,8192
302.2,3.21417e-09,0,8192,8192
302.253,3.18109e-09,0,8192,8192
302.303,3.14942e-09,0,8192,8192
302.353,3.11742e-09,0,8192,8192
302.402,3.08517e-09,0,8192,8192
302.452,3.05273e-09,0,8192,8192
302.502,3.02017e-09,0,8192,8192
302.552,2.98754e-09,0,8192,8192
302.601,2.95488e-09,0,8192,8192
302.651,2.92223e-09,0,8192,8192
302.701,2.8896e-09,0,8192,8192
302.751,2.857e-09,0,8192,8192
302.801,2.82442e-09,0,8192,8192
302.85,2.79185e-09,0,8192,8192
302.9,2.75926e-09,0,8192,8192
302.95,2.72663e-09,0,8192,8192
303.003,2.69199e-09,0,8192,8192
303.053,2.65916e-09,0,8192,8192
303.102,2.62617e-09,0,8192,8192
303.152,2.59298e-09,0,8192,8192
303.202,2.55955e-09,0,8192,8192
303.252,2.52583e-09,0,8192,8192
303.302,2.4918e-09,0,8192,8192
303.351,2.45741e-09,0,8192,8192
303.401,2.42264e-09,0,8192,8192
303.451,2.38745e-09,0,8192,8192
303.501,2.35182e-09,0,8192,8192
303.551,2.31573e-09,0,8192,8192
303.6,2.27916e-09,0,8192,8192
303.65,2.24211e-09,0,8192,8192
303.703,2.20235e-09,0,8192,8192
303.753,2.16431e-09,0,8192,8192
303.802,2.12578e-09,0,8192,8192
303.852,2.08679e-09,0,8192,8192
303.902,2.04736e-09,0,8192,8192
303.952,2.00751e-09,0,8192,8192
304.002,1.96726e-09,0,8192,8192
304.051,1.92666e-09,0,8192,8192
304.101,1.88574e-09,0,8192,8192
304.151,1.84454e-09,0,8192,8192
304.201,1.8031e-09,0,8192,8192
304.251,1.76147e-09,0,8192,8192
304.3,1.71971e-09,0,8192,8192
304.35,1.67786e-09,0,8192,8192
304.4,1.63598e-09,0,8192,8192
304.453,1.59167e-09,0,8192,8192
304.503,1.54991e-09,0,8192,8192
304.552,1.50829e-09,0,8192,8192
304.602,1.46687e-09,0,8192,8192
304.652,1.42571e-09,0,8192,8192
304.702,1.38486e-09,0,8192,8192
304.752,1.34437e-09,0,8192,8192
304.801,1.3043e-09,0,8192,8192
304.851,1.26469e-09,0,8192,8192
304.901,1.22558e-09,0,8192,8192
304.951,1.18703e-09,0,8192,8192
