250,0,0,512,512
250.012,0,0,512,512
250.059,0,0,512,512
250.105,0,0,512,512
250.152,0,0,512,512
250.211,0,0,512,512
250.258,0,0,512,512
250.305,0,0,512,512
250.352,0,0,512,512
250.41,2.77556e-17,0,512,512
250.457,2.77556e-17,0,512,512
250.504,0,0,512,512
250.551,0,0,512,512
250.609,0,0,512,512
250.656,0,0,512,512
250.703,0,0,512,512
250.762,0,0,512,512
250.808,0,0,512,512
250.855,0,0,512,512
250.902,2.77556e-17,0,512,512
250.961,2.77556e-17,0,512,512
251.008,2.77556e-17,0,512,512
251.055,2.77556e-17,0,512,512
251.101,0,0,512,512
251.16,0,0,512,512
251.207,2.77556e-17,0,512,512
251.254,0,0,512,512
251.301,0,0,512,512
251.359,0,0,512,512
251.406,0,0,512,512
251.453,0,0,512,512
251.511,0,0,512,512
251.558,0,0,512,512
251.605,2.77556e-17,0,512,512
251.652,2.77556e-17,0,512,512
251.711,0,0,512,512
251.758,0,0,512,512
251.804,0,0,512,512
251.851,0,0,512,512
251.91,0,0,512,512
251.957,0,0,512,512
252.004,-2.77556e-17,0,512,512
252.05,-2.77556e-17,0,512,512
252.109,-2.77556e-17,0,512,512
252.156,0,0,512,512
252.203,0,0,512,512
252.261,0,0,512,512
252.308,0,0,512,512
252.355,2.77556e-17,0,512,512
252.402,2.77556e-17,0,512,512
252.461,0,0,512,512
252.507,0,0,512,512
252.554,0,0,512,512
252.601,0,0,512,512
252.66,0,0,512,512
252.707,0,0,512,512
252.754,0,0,512,512
252.8,0,0,512,512
252.859,2.77556e-17,0,512,512
252.906,0,0,512,512
252.953,0,0,512,512
253.011,0,0,512,512
253.058,0,0,512,512
253.105,0,0,512,512
253.152,0,0,512,512
253.21,0,0,512,512
253.257,0,0,512,512
253.304,2.77556e-17,0,512,512
253.351,2.77556e-17,0,512,512
253.41,0,0,512,512
253.457,0,0,512,512
253.503,0,0,512,512
253.55,2.77556e-17,0,512,512
253.609,2.77556e-17,0,512,512
253.656,2.77556e-17,0,512,512
253.703,2.77556e-17,0,512,512
253.761,0,0,512,512
253.808,0,0,512,512
253.855,0,0,512,512
253.902,-2.77556e-17,0,512,512
253.96,-2.77556e-17,0,512,512
254.007,0,0,512,512
254.054,0,0,512,512
254.101,-2.77556e-17,0,512,512
254.16,0,0,512,512
254.206,-2.77556e-17,0,512,512
254.253,0,0,512,512
254.3,0,0,512,512
254.359,0,0,512,512
254.406,0,0,512,512
254.452,0,0,512,512
254.511,-2.77556e-17,0,512,512
254.558,-2.77556e-17,0,512,512
254.605,-2.77556e-17,0,512,512
254.652,-2.77556e-17,0,512,512
254.71,-2.77556e-17,0,512,512
254.757,0,0,512,512
254.804,0,0,512,512
254.851,-2.77556e-17,0,512,512
254.909,-5.55112e-17,0,512,512
254.956,-2.77556e-17,0,512,512
255.003,-2.77556e-17,0,512,512
255.05,-2.77556e-17,0,512,512
255.109,-2.77556e-17,0,512,512
255.155,-2.77556e-17,0,512,512
255.202,-2.77556e-17,0,512,512
255.261,-2.77556e-17,0,512,512
255.308,-2.77556e-17,0,512,512
255.355,-2.77556e-17,0,512,512
255.402,-2.77556e-17,0,512,512
255.46,-2.77556e-17,0,512,512
255.507,-2.77556e-17,0,512,512
255.554,-2.77556e-17,0,512,512
255.601,0,0,512,512
255.659,0,0,512,512
255.706,0,0,512,512
255.753,0,0,512,512
255.812,0,0,512,512
255.859,0,0,512,512
255.905,2.77556e-17,0,512,512
255.952,0,0,512,512
256.011,0,0,512,512
256.058,0,0,512,512
256.105,0,0,512,512
256.151,0,0,512,512
256.21,0,0,512,512
256.257,2.77556e-17,0,512,512
256.304,2.77556e-17,0,512,512
256.351,0,0,512,512
256.409,0,0,512,512
256.456,0,0,512,512
256.503,0,0,512,512
256.562,0,0,512,512
256.608,0,0,512,512
256.655,-2.77556e-17,0,512,512
256.702,0,0,512,512
256.761,-2.77556e-17,0,512,512
256.808,0,0,512,512
256.854,-2.77556e-17,0,512,512
256.901,-2.77556e-17,0,512,512
256.96,-2.77556e-17,0,512,512
257.007,-2.77556e-17,0,512,512
257.054,0,0,512,512
257.101,-2.77556e-17,0,512,512
257.159,-2.77556e-17,0,512,512
257.206,0,0,512,512
257.253,0,0,512,512
257.311,0,0,512,512
257.358,2.77556e-17,0,512,512
257.405,2.77556e-17,0,512,512
257.452,0,0,512,512
257.511,0,0,512,512
257.557,0,0,512,512
257.604,0,0,512,512
257.651,0,0,512,512
257.71,-2.77556e-17,0,512,512
257.757,0,0,512,512
257.804,0,0,512,512
257.85,0,0,512,512
257.909,-2.77556e-17,0,512,512
257.956,-2.77556e-17,0,512,512
258.003,-2.77556e-17,0,512,512
258.061,0,0,512,512
258.108,0,0,512,512
258.155,0,0,512,512
258.202,0,0,512,512
258.261,0,0,512,512
258.307,-2.77556e-17,0,512,512
258.354,0,0,512,512
258.401,-2.77556e-17,0,512,512
258.46,-2.77556e-17,0,512,512
258.507,-2.77556e-17,0,512,512
258.553,-2.77556e-17,0,512,512
258.6,-2.77556e-17,0,512,512
258.659,-2.77556e-17,0,512,512
258.706,-5.55112e-17,0,512,512
258.753,-5.55112e-17,0,512,512
258.811,-5.55112e-17,0,512,512
258.858,-5.55112e-17,0,512,512
258.905,-2.77556e-17,0,512,512
258.952,0,0,512,512
259.01,0,0,512,512
259.057,-2.77556e-17,0,512,512
259.104,0,0,512,512
259.151,0,0,512,512
259.21,-2.77556e-17,0,512,512
259.256,-2.77556e-17,0,512,512
259.303,0,0,512,512
259.35,0,0,512,512
259.409,2.77556e-17,0,512,512
259.456,2.77556e-17,0,512,512
259.503,0,0,512,512
259.561,0,0,512,512
259.608,0,0,512,512
259.655,-2.77556e-17,0,512,512
259.702,-2.77556e-17,0,512,512
259.76,0,0,512,512
259.807,0,0,512,512
259.854,2.77556e-17,0,512,512
259.901,0,0,512,512
259.959,0,0,512,512
260.006,0,0,512,512
260.053,0,0,512,512
260.1,-2.77556e-17,0,512,512
260.159,-2.77556e-17,0,512,512
260.206,-2.77556e-17,0,512,512
260.252,-2.77556e-17,0,512,512
260.311,-2.77556e-17,0,512,512
260.358,-2.77556e-17,0,512,512
260.405,-2.77556e-17,0,512,512
260.452,-2.77556e-17,0,512,512
260.51,-2.77556e-17,0,512,512
260.557,-2.77556e-17,0,512,512
260.604,0,0,512,512
260.651,0,0,512,512
260.709,0,0,512,512
260.756,0,0,512,512
260.803,0,0,512,512
260.862,0,0,512,512
260.909,2.77556e-17,0,512,512
260.955,2.77556e-17,0,512,512
261.002,2.77556e-17,0,512,512
261.061,2.77556e-17,0,512,512
261.108,2.77556e-17,0,512,512
261.155,2.77556e-17,0,512,512
261.201,2.77556e-17,0,512,512
261.26,0,0,512,512
261.307,0,0,512,512
261.354,0,0,512,512
261.401,0,0,512,512
261.459,0,0,512,512
261.506,0,0,512,512
261.553,0,0,512,512
261.612,0,0,512,512
261.658,0,0,512,512
261.705,0,0,512,512
261.752,2.77556e-17,0,512,512
261.811,2.77556e-17,0,512,512
261.858,-2.77556e-17,0,512,512
261.905,0,0,512,512
261.951,0,0,512,512
262.01,0,0,512,512
262.057,0,0,512,512
262.104,0,0,512,512
262.151,0,0,512,512
262.209,0,0,512,512
262.256,2.77556e-17,0,512,512
262.303,2.77556e-17,0,512,512
262.361,0,0,512,512
262.408,0,0,512,512
262.455,0,0,512,512
262.502,0,0,512,512
262.561,0,0,512,512
262.608,2.77556e-17,0,512,512
262.654,2.77556e-17,0,512,512
262.701,2.77556e-17,0,512,512
262.76,2.77556e-17,0,512,512
262.807,0,0,512,512
262.854,0,0,512,512
262.9,2.77556e-17,0,512,512
262.959,0,0,512,512
263.006,0,0,512,512
263.053,0,0,512,512
263.111,0,0,512,512
263.158,0,0,512,512
263.205,0,0,512,512
263.252,0,0,512,512
263.311,0,0,512,512
263.357,2.77556e-17,0,512,512
263.404,2.77556e-17,0,512,512
263.451,2.77556e-17,0,512,512
263.51,0,0,512,512
263.557,0,0,512,512
263.603,0,0,512,512
263.65,0,0,512,512
263.709,-2.77556e-17,0,512,512
263.756,-2.77556e-17,0,512,512
263.803,-2.77556e-17,0,512,512
263.861,0,0,512,512
263.908,0,0,512,512
263.955,2.77556e-17,0,512,512
264.002,0,0,512,512
264.06,0,0,512,512
264.107,0,0,512,512
264.154,0,0,512,512
264.201,0,0,512,512
264.26,0,0,512,512
264.306,2.77556e-17,0,512,512
264.353,2.77556e-17,0,512,512
264.4,2.77556e-17,0,512,512
264.459,2.77556e-17,0,512,512
264.506,2.77556e-17,0,512,512
264.553,2.77556e-17,0,512,512
264.611,2.77556e-17,0,512,512
264.658,2.77556e-17,0,512,512
264.705,2.77556e-17,0,512,512
264.752,2.77556e-17,0,512,512
264.81,2.77556e-17,0,512,512
264.857,2.77556e-17,0,512,512
264.904,2.77556e-17,0,512,512
264.951,2.77556e-17,0,512,512
265.01,2.77556e-17,0,512,512
265.056,2.77556e-17,0,512,512
265.103,2.77556e-17,0,512,512
265.15,2.77556e-17,0,512,512
265.209,2.77556e-17,0,512,512
265.256,2.77556e-17,0,512,512
265.302,2.77556e-17,0,512,512
265.361,5.55112e-17,0,512,512
265.408,5.55112e-17,0,512,512
265.455,5.55112e-17,0,512,512
265.502,5.55112e-17,0,512,512
265.56,2.77556e-17,0,512,512
265.607,2.77556e-17,0,512,512
265.654,2.77556e-17,0,512,512
265.701,2.77556e-17,0,512,512
265.759,2.77556e-17,0,512,512
265.806,2.77556e-17,0,512,512
265.853,2.77556e-17,0,512,512
265.9,2.77556e-17,0,512,512
265.959,2.77556e-17,0,512,512
266.005,2.77556e-17,0,512,512
266.052,2.77556e-17,0,512,512
266.111,0,0,512,512
266.158,2.77556e-17,0,512,512
266.205,0,0,512,512
266.252,2.77556e-17,0,512,512
266.31,2.77556e-17,0,512,512
266.357,2.77556e-17,0,512,512
266.404,2.77556e-17,0,512,512
266.451,2.77556e-17,0,512,512
266.509,0,0,512,512
266.556,0,0,512,512
266.603,-2.77556e-17,0,512,512
266.662,-2.77556e-17,0,512,512
266.708,-2.77556e-17,0,512,512
266.755,0,0,512,512
266.802,-2.77556e-17,0,512,512
266.861,-2.77556e-17,0,512,512
266.908,-2.77556e-17,0,512,512
266.955,-2.77556e-17,0,512,512
267.001,-2.77556e-17,0,512,512
267.06,-2.77556e-17,0,512,512
267.107,-2.77556e-17,0,512,512
267.154,-2.77556e-17,0,512,512
267.201,-2.77556e-17,0,512,512
267.259,-2.77556e-17,0,512,512
267.306,-2.77556e-17,0,512,512
267.353,-2.77556e-17,0,512,512
267.412,-2.77556e-17,0,512,512
267.458,-2.77556e-17,0,512,512
267.505,-2.77556e-17,0,512,512
267.552,0,0,512,512
267.611,2.77556e-17,0,512,512
267.658,2.77556e-17,0,512,512
267.704,2.77556e-17,0,512,512
267.751,2.77556e-17,0,512,512
267.81,2.77556e-17,0,512,512
267.857,2.77556e-17,0,512,512
267.904,2.77556e-17,0,512,512
267.95,2.77556e-17,0,512,512
268.009,2.77556e-17,0,512,512
268.056,2.77556e-17,0,512,512
268.103,2.77556e-17,0,512,512
268.161,2.77556e-17,0,512,512
268.208,2.77556e-17,0,512,512
268.255,0,0,512,512
268.302,0,0,512,512
268.361,0,0,512,512
268.407,0,0,512,512
268.454,0,0,512,512
268.501,0,0,512,512
268.56,0,0,512,512
268.607,0,0,512,512
268.654,-2.77556e-17,0,512,512
268.7,-2.77556e-17,0,512,512
268.759,-2.77556e-17,0,512,512
268.806,-2.77556e-17,0,512,512
268.853,0,0,512,512
268.911,0,0,512,512
268.958,2.77556e-17,0,512,512
269.005,2.77556e-17,0,512,512
269.052,2.77556e-17,0,512,512
269.11,0,0,512,512
269.157,0,0,512,512
269.204,0,0,512,512
269.251,2.77556e-17,0,512,512
269.31,2.77556e-17,0,512,512
269.357,0,0,512,512
269.403,2.77556e-17,0,512,512
269.45,2.77556e-17,0,512,512
269.509,2.77556e-17,0,512,512
269.556,2.77556e-17,0,512,512
269.603,2.77556e-17,0,512,512
269.661,2.77556e-17,0,512,512
269.708,2.77556e-17,0,512,512
269.755,2.77556e-17,0,512,512
269.802,2.77556e-17,0,512,512
269.86,2.77556e-17,0,512,512
269.907,2.77556e-17,0,512,512
269.954,2.77556e-17,0,512,512
270.001,2.77556e-17,0,512,512
270.06,2.77556e-17,0,512,512
270.106,2.77556e-17,0,512,512
270.153,2.77556e-17,0,512,512
270.2,2.77556e-17,0,512,512
270.259,2.77556e-17,0,512,512
270.306,2.77556e-17,0,512,512
270.352,2.77556e-17,0,512,512
270.411,2.77556e-17,0,512,512
270.458,2.77556e-17,0,512,512
270.505,2.77556e-17,0,512,512
270.552,2.77556e-17,0,512,512
270.61,0,0,512,512
270.657,-3.88578e-16,0,512,512
270.704,-4.41314e-15,0,512,512
270.751,-3.07809e-14,0,512,512
270.809,-2.32814e-13,0,512,512
270.856,-9.03e-13,0,512,512
270.903,-2.86893e-12,0,512,512
270.95,-7.63248e-12,0,512,512
271.009,-2.07224e-11,0,512,512
271.056,-3.91198e-11,0,512,512
271.102,-6.45485e-11,0,512,512
271.161,-1.00971e-10,0,512,512
271.208,-1.25834e-10,0,512,512
271.255,-1.38846e-10,0,512,512
271.302,-1.35093e-10,0,512,512
271.36,-1.07258e-10,0,512,512
271.407,-7.30386e-11,0,512,512
271.454,-3.65817e-11,0,512,512
271.501,-4.24591e-12,0,512,512
271.559,2.65184e-11,0,512,512
271.606,4.45424e-11,0,512,512
271.653,5.90609e-11,0,512,512
271.712,7.39754e-11,0,512,512
271.759,8.28792e-11,0,512,512
271.805,8.8372e-11,0,512,512
271.852,9.08678e-11,0,512,512
271.911,9.23818e-11,0,512,512
271.958,9.45935e-11,0,512,512
272.005,9.83822e-11,0,512,512
272.051,1.02684e-10,0,512,512
272.11,1.06091e-10,0,512,512
272.157,1.0616e-10,0,512,512
272.204,1.04843e-10,0,512,512
272.251,1.04245e-10,0,512,512
272.309,1.06729e-10,0,512,512
272.356,1.1052e-10,0,512,512
272.403,1.13279e-10,0,512,512
272.462,1.12412e-10,0,512,512
272.508,1.09407e-10,0,512,512
272.555,1.0803e-10,0,512,512
272.602,1.10965e-10,0,512,512
272.661,1.20011e-10,0,512,512
272.708,1.32694e-10,0,512,512
272.754,1.67797e-10,0,512,512
272.801,2.75345e-10,0,512,512
272.86,6.56665e-10,0,512,512
272.907,1.31898e-09,0,512,512
272.954,2.44554e-09,0,512,512
273.001,4.13237e-09,0,512,512
273.059,7.05803e-09,0,512,512
273.106,9.97211e-09,0,512,512
273.153,1.32613e-08,0,512,512
273.211,1.77065e-08,0,512,512
273.258,2.14477e-08,0,512,512
273.305,2.53901e-08,0,512,512
273.352,2.96792e-08,0,512,512
273.411,3.58867e-08,0,512,512
273.457,4.18844e-08,0,512,512
273.504,4.9145e-08,0,512,512
273.551,5.80059e-08,0,512,512
273.61,7.18841e-08,0,512,512
273.657,8.57074e-08,0,512,512
273.704,1.02396e-07,0,512,512
273.75,1.22342e-07,0,512,512
273.809,1.5233e-07,0,512,512
273.856,1.80578e-07,0,512,512
273.903,2.12618e-07,0,512,512
273.961,2.57767e-07,0,512,512
274.008,2.97636e-07,0,512,512
274.055,3.40464e-07,0,512,512
274.102,3.85826e-07,0,512,512
274.161,4.45271e-07,0,512,512
274.207,4.94146e-07,0,512,512
274.254,5.43189e-07,0,512,512
274.301,5.91279e-07,0,512,512
274.36,6.48203e-07,0,512,512
274.407,6.89771e-07,0,512,512
274.453,7.26759e-07,0,512,512
274.5,7.5851e-07,0,512,512
274.559,7.90371e-07,0,512,512
274.606,8.09611e-07,0,512,512
274.653,8.23539e-07,0,512,512
274.711,8.33954e-07,0,512,512
274.758,8.37017e-07,0,512,512
274.805,8.35554e-07,0,512,512
274.852,8.29561e-07,0,512,512
274.91,8.15521e-07,0,512,512
274.957,7.98861e-07,0,512,512
275.004,7.77284e-07,0,512,512
275.051,7.50881e-07,0,512,512
275.11,7.11607e-07,0,512,512
275.156,6.75909e-07,0,512,512
275.203,6.37307e-07,0,512,512
275.25,5.96768e-07,0,512,512
275.309,5.44866e-07,0,512,512
275.356,5.03447e-07,0,512,512
275.403,4.62902e-07,0,512,512
275.461,4.14222e-07,0,512,512
275.508,3.77273e-07,0,512,512
275.555,3.42305e-07,0,512,512
275.602,3.0944e-07,0,512,512
275.66,2.7148e-07,0,512,512
275.707,2.43741e-07,0,512,512
275.754,2.18431e-07,0,512,512
275.801,1.95563e-07,0,512,512
275.859,1.70279e-07,0,512,512
275.906,1.52458e-07,0,512,512
275.953,1.36506e-07,0,512,512
276,1.22179e-07,0,512,512
276.059,1.0627e-07,0,512,512
276.106,9.50057e-08,0,512,512
276.152,8.49737e-08,0,512,512
276.211,7.40709e-08,0,512,512
276.258,6.65325e-08,0,512,512
276.305,5.9882e-08,0,512,512
276.352,5.39441e-08,0,512,512
276.41,4.72946e-08,0,512,512
276.457,4.24879e-08,0,512,512
276.504,3.81266e-08,0,512,512
276.551,3.42595e-08,0,512,512
276.609,3.02196e-08,0,512,512
276.656,2.7674e-08,0,512,512
276.703,2.5732e-08,0,512,512
276.762,2.40643e-08,0,512,512
276.809,2.32245e-08,0,512,512
276.855,2.2708e-08,0,512,512
276.902,2.24115e-08,0,512,512
276.961,2.2217e-08,0,512,512
277.008,2.21214e-08,0,512,512
277.055,2.20315e-08,0,512,512
277.101,2.19238e-08,0,512,512
277.16,2.17536e-08,0,512,512
277.207,2.15943e-08,0,512,512
277.254,2.14246e-08,0,512,512
277.301,2.12537e-08,0,512,512
277.359,2.10471e-08,0,512,512
277.406,2.08893e-08,0,512,512
277.453,2.07354e-08,0,512,512
277.512,2.05411e-08,0,512,512
277.558,2.03774e-08,0,512,512
277.605,2.02007e-08,0,512,512
277.652,2.00066e-08,0,512,512
277.711,1.97347e-08,0,512,512
277.758,1.94915e-08,0,512,512
277.804,1.92243e-08,0,512,512
277.851,1.89327e-08,0,512,512
277.91,1.8535e-08,0,512,512
277.957,1.81914e-08,0,512,512
278.004,1.78268e-08,0,512,512
278.051,1.74431e-08,0,512,512
278.109,1.69399e-08,0,512,512
278.156,1.65216e-08,0,512,512
278.203,1.60919e-08,0,512,512
278.261,1.55431e-08,0,512,512
278.308,1.5098e-08,0,512,512
278.355,1.46507e-08,0,512,512
278.402,1.4204e-08,0,512,512
278.461,1.36505e-08,0,512,512
278.508,1.3215e-08,0,512,512
278.554,1.27888e-08,0,512,512
278.601,1.23743e-08,0,512,512
278.66,1.18759e-08,0,512,512
278.707,1.14955e-08,0,512,512
278.754,1.1133e-08,0,512,512
278.8,1.07898e-08,0,512,512
278.859,1.03895e-08,0,512,512
278.906,1.00929e-08,0,512,512
278.953,9.81765e-09,0,512,512
279.011,9.50357e-09,0,512,512
279.058,9.27591e-09,0,512,512
279.105,9.06862e-09,0,512,512
279.152,8.88093e-09,0,512,512
279.211,8.67252e-09,0,512,512
279.257,8.52548e-09,0,512,512
279.304,8.39475e-09,0,512,512
279.351,8.27919e-09,0,512,512
279.41,8.15431e-09,0,512,512
279.457,8.06867e-09,0,512,512
279.503,7.99452e-09,0,512,512
279.55,7.93082e-09,0,512,512
279.609,7.86438e-09,0,512,512
279.656,7.82066e-09,0,512,512
279.703,7.78442e-09,0,512,512
279.761,7.74848e-09,0,512,512
279.808,7.72636e-09,0,512,512
279.855,7.70948e-09,0,512,512
279.902,7.69727e-09,0,512,512
279.96,7.6878e-09,0,512,512
280.007,7.6843e-09,0,512,512
280.054,7.68396e-09,0,512,512
280.101,7.6864e-09,0,512,512
280.16,7.69281e-09,0,512,512
280.206,7.70022e-09,0,512,512
280.253,7.70932e-09,0,512,512
280.3,7.71984e-09,0,512,512
280.359,7.73461e-09,0,512,512
280.406,7.74744e-09,0,512,512
280.453,7.76096e-09,0,512,512
280.511,7.7786e-09,0,512,512
280.558,7.79314e-09,0,512,512
280.605,7.80794e-09,0,512,512
280.652,7.82291e-09,0,512,512
280.71,7.84176e-09,0,512,512
280.757,7.85686e-09,0,512,512
280.804,7.87195e-09,0,512,512
280.851,7.88698e-09,0,512,512
280.91,7.90562e-09,0,512,512
280.956,7.9204e-09,0,512,512
281.003,7.93504e-09,0,512,512
281.05,7.94954e-09,0,512,512
281.109,7.96749e-09,0,512,512
281.156,7.98176e-09,0,512,512
281.202,7.99603e-09,0,512,512
281.261,8.01404e-09,0,512,512
281.308,8.02881e-09,0,512,512
281.355,8.04414e-09,0,512,512
281.402,8.06036e-09,0,512,512
281.46,8.0825e-09,0,512,512
281.507,8.10233e-09,0,512,512
281.554,8.12473e-09,0,512,512
281.601,8.15048e-09,0,512,512
281.659,8.18875e-09,0,512,512
281.706,8.22556e-09,0,512,512
281.753,8.26925e-09,0,512,512
281.8,8.32128e-09,0,512,512
281.859,8.40065e-09,0,512,512
281.905,8.47799e-09,0,512,512
281.952,8.57007e-09,0,512,512
282.011,8.70988e-09,0,512,512
282.058,8.84512e-09,0,512,512
282.105,9.00483e-09,0,512,512
282.152,9.19286e-09,0,512,512
282.21,9.47437e-09,0,512,512
282.257,9.74271e-09,0,512,512
282.304,1.00553e-08,0,512,512
282.351,1.0418e-08,0,512,512
282.409,1.09519e-08,0,512,512
282.456,1.1452e-08,0,512,512
282.503,1.20249e-08,0,512,512
282.562,1.28552e-08,0,512,512
282.608,1.36206e-08,0,512,512
282.655,1.44846e-08,0,512,512
282.702,1.54553e-08,0,512,512
282.761,1.68305e-08,0,512,512
282.808,1.80694e-08,0,512,512
282.855,1.94394e-08,0,512,512
282.901,2.0947e-08,0,512,512
282.96,2.30342e-08,0,512,512
283.007,2.48729e-08,0,512,512
283.054,2.6867e-08,0,512,512
283.101,2.9021e-08,0,512,512
283.159,3.19445e-08,0,512,512
283.206,3.44729e-08,0,512,512
283.253,3.7174e-08,0,512,512
283.312,4.07996e-08,0,512,512
283.358,4.39053e-08,0,512,512
283.405,4.71995e-08,0,512,512
283.452,5.06893e-08,0,512,512
283.511,5.53399e-08,0,512,512
283.558,5.93048e-08,0,512,512
283.604,6.35021e-08,0,512,512
283.651,6.79497e-08,0,512,512
283.71,7.38946e-08,0,512,512
283.757,7.89921e-08,0,512,512
283.804,8.44288e-08,0,512,512
283.85,9.02442e-08,0,512,512
283.909,9.81168e-08,0,512,512
283.956,1.04963e-07,0,512,512
284.003,1.12362e-07,0,512,512
284.061,1.22492e-07,0,512,512
284.108,1.3139e-07,0,512,512
284.155,1.4108e-07,0,512,512
284.202,1.5164e-07,0,512,512
284.261,1.66186e-07,0,512,512
284.307,1.78991e-07,0,512,512
284.354,1.92909e-07,0,512,512
284.401,2.07995e-07,0,512,512
284.46,2.28558e-07,0,512,512
284.507,2.46396e-07,0,512,512
284.554,2.65464e-07,0,512,512
284.6,2.85728e-07,0,512,512
284.659,3.12644e-07,0,512,512
284.706,3.35328e-07,0,512,512
284.753,3.58892e-07,0,512,512
284.811,3.89329e-07,0,512,512
284.858,4.1422e-07,0,512,512
284.905,4.39342e-07,0,512,512
284.952,4.64436e-07,0,512,512
285.01,4.95342e-07,0,512,512
285.057,5.19338e-07,0,512,512
285.104,5.42357e-07,0,512,512
285.151,5.64094e-07,0,512,512
285.21,5.89005e-07,0,512,512
285.257,6.06777e-07,0,512,512
285.303,6.2234e-07,0,512,512
285.35,6.35455e-07,0,512,512
285.409,6.48085e-07,0,512,512
285.456,6.5497e-07,0,512,512
285.503,6.58849e-07,0,512,512
285.561,6.59345e-07,0,512,512
285.608,6.56211e-07,0,512,512
285.655,6.49946e-07,0,512,512
285.702,6.40605e-07,0,512,512
285.76,6.24753e-07,0,512,512
285.807,6.089e-07,0,512,512
285.854,5.90424e-07,0,512,512
285.901,5.69537e-07,0,512,512
285.96,5.40408e-07,0,512,512
286.006,5.15011e-07,0,512,512
286.053,4.88061e-07,0,512,512
286.1,4.59853e-07,0,512,512
286.159,4.2328e-07,0,512,512
286.206,3.93333e-07,0,512,512
286.252,3.63091e-07,0,512,512
286.311,3.25296e-07,0,512,512
286.358,2.95382e-07,0,512,512
286.405,2.66013e-07,0,512,512
286.452,2.37404e-07,0,512,512
286.51,2.02996e-07,0,512,512
286.557,1.76747e-07,0,512,512
286.604,1.51774e-07,0,512,512
286.651,1.28181e-07,0,512,512
286.709,1.00744e-07,0,512,512
286.756,8.04975e-08,0,512,512
286.803,6.17927e-08,0,512,512
286.85,4.46335e-08,0,512,512
286.909,2.53356e-08,0,512,512
286.955,1.15802e-08,0,512,512
287.002,-7.2764e-10,0,512,512
287.061,-1.41624e-08,0,512,512
287.108,-2.34289e-08,0,512,512
287.155,-3.14556e-08,0,512,512
287.202,-3.83177e-08,0,512,512
287.26,-4.53764e-08,0,512,512
287.307,-4.99045e-08,0,512,512
287.354,-5.35238e-08,0,512,512
287.401,-5.63126e-08,0,512,512
287.459,-5.87469e-08,0,512,512
287.506,-5.99436e-08,0,512,512
287.553,-6.05501e-08,0,512,512
287.612,-6.05818e-08,0,512,512
287.659,-6.01046e-08,0,512,512
287.705,-5.92465e-08,0,512,512
287.752,-5.80644e-08,0,512,512
287.811,-5.62115e-08,0,512,512
287.858,-5.44883e-08,0,512,512
287.905,-5.25994e-08,0,512,512
287.951,-5.0585e-08,0,512,512
288.01,-4.79457e-08,0,512,512
288.057,-4.57765e-08,0,512,512
288.104,-4.35865e-08,0,512,512
288.151,-4.14e-08,0,512,512
288.209,-3.87035e-08,0,512,512
288.256,-3.6597e-08,0,512,512
288.303,-3.4551e-08,0,512,512
288.362,-3.20958e-08,0,512,512
288.408,-3.0224e-08,0,512,512
288.455,-2.84415e-08,0,512,512
288.502,-2.67525e-08,0,512,512
288.561,-2.4777e-08,0,512,512
288.608,-2.33067e-08,0,512,512
288.654,-2.1934e-08,0,512,512
288.701,-2.0658e-08,0,512,512
288.76,-1.91959e-08,0,512,512
288.807,-1.81293e-08,0,512,512
288.854,-1.71508e-08,0,512,512
288.901,-1.62569e-08,0,512,512
288.959,-1.52526e-08,0,512,512
289.006,-1.45345e-08,0,512,512
289.053,-1.38878e-08,0,512,512
289.111,-1.31733e-08,0,512,512
289.158,-1.26716e-08,0,512,512
289.205,-1.22274e-08,0,512,512
289.252,-1.18366e-08,0,512,512
289.311,-1.1417e-08,0,512,512
289.357,-1.11316e-08,0,512,512
289.404,-1.08868e-08,0,512,512
289.451,-1.06789e-08,0,512,512
289.51,-1.04657e-08,0,512,512
289.557,-1.03284e-08,0,512,512
289.604,-1.02172e-08,0,512,512
289.65,-1.01293e-08,0,512,512
289.709,-1.00477e-08,0,512,512
289.756,-1.0002e-08,0,512,512
289.803,-9.97112e-09,0,512,512
289.861,-9.94985e-09,0,512,512
289.908,-9.94428e-09,0,512,512
289.955,-9.94685e-09,0,512,512
290.002,-9.95588e-09,0,512,512
290.06,-9.97395e-09,0,512,512
290.107,-9.99217e-09,0,512,512
290.154,-1.00124e-08,0,512,512
290.201,-1.00337e-08,0,512,512
290.26,-1.00603e-08,0,512,512
290.307,-1.00807e-08,0,512,512
290.353,-1.00996e-08,0,512,512
290.4,-1.01166e-08,0,512,512
290.459,-1.01346e-08,0,512,512
290.506,-1.01463e-08,0,512,512
290.553,-1.01555e-08,0,512,512
290.611,-1.01638e-08,0,512,512
290.658,-1.01682e-08,0,512,512
290.705,-1.01711e-08,0,512,512
290.752,-1.01733e-08,0,512,512
290.81,-1.0176e-08,0,512,512
290.857,-1.01793e-08,0,512,512
290.904,-1.01849e-08,0,512,512
290.951,-1.01937e-08,0,512,512
291.01,-1.02114e-08,0,512,512
291.056,-1.02326e-08,0,512,512
291.103,-1.02613e-08,0,512,512
291.15,-1.02992e-08,0,512,512
291.209,-1.03612e-08,0,512,512
291.256,-1.04243e-08,0,512,512
291.303,-1.05007e-08,0,512,512
291.361,-1.06164e-08,0,512,512
291.408,-1.07264e-08,0,512,512
291.455,-1.08526e-08,0,512,512
291.502,-1.09956e-08,0,512,512
291.56,-1.11987e-08,0,512,512
291.607,-1.13807e-08,0,512,512
291.654,-1.15799e-08,0,512,512
291.701,-1.17962e-08,0,512,512
291.759,-1.20898e-08,0,512,512
291.806,-1.23423e-08,0,512,512
291.853,-1.26095e-08,0,512,512
291.9,-1.28904e-08,0,512,512
291.959,-1.32591e-08,0,512,512
292.006,-1.35664e-08,0,512,512
292.052,-1.38832e-08,0,512,512
292.111,-1.42903e-08,0,512,512
292.158,-1.46231e-08,0,512,512
292.205,-1.49605e-08,0,512,512
292.252,-1.53011e-08,0,512,512
292.31,-1.5729e-08,0,512,512
292.357,-1.60713e-08,0,512,512
292.404,-1.64121e-08,0,512,512
292.451,-1.675e-08,0,512,512
292.509,-1.71667e-08,0,512,512
292.556,-1.74941e-08,0,512,512
292.603,-1.7815e-08,0,512,512
292.662,-1.82056e-08,0,512,512
292.709,-1.85087e-08,0,512,512
292.755,-1.88026e-08,0,512,512
292.802,-1.90865e-08,0,512,512
292.861,-1.94267e-08,0,512,512
292.908,-1.96862e-08,0,512,512
292.955,-1.99342e-08,0,512,512
293.001,-2.017e-08,0,512,512
293.06,-2.04473e-08,0,512,512
293.107,-2.06547e-08,0,512,512
293.154,-2.0849e-08,0,512,512
293.201,-2.10298e-08,0,512,512
293.259,-2.12367e-08,0,512,512
293.306,-2.13868e-08,0,512,512
293.353,-2.15229e-08,0,512,512
293.412,-2.16735e-08,0,512,512
293.458,-2.17782e-08,0,512,512
293.505,-2.1869e-08,0,512,512
293.552,-2.19461e-08,0,512,512
293.611,-2.20232e-08,0,512,512
293.658,-2.20699e-08,0,512,512
293.704,-2.21036e-08,0,512,512
293.751,-2.21247e-08,0,512,512
293.81,-2.21338e-08,0,512,512
293.857,-2.2128e-08,0,512,512
293.904,-2.21112e-08,0,512,512
293.951,-2.20838e-08,0,512,512
294.009,-2.20357e-08,0,512,512
294.056,-2.1987e-08,0,512,512
294.103,-2.19299e-08,0,512,512
294.161,-2.18477e-08,0,512,512
294.208,-2.17742e-08,0,512,512
294.255,-2.16946e-08,0,512,512
294.302,-2.16095e-08,0,512,512
294.361,-2.14965e-08,0,512,512
294.408,-2.14016e-08,0,512,512
294.454,-2.13033e-08,0,512,512
294.501,-2.12023e-08,0,512,512
294.56,-2.1073e-08,0,512,512
294.607,-2.09678e-08,0,512,512
294.654,-2.08616e-08,0,512,512
294.7,-2.07548e-08,0,512,512
294.759,-2.06211e-08,0,512,512
294.806,-2.05144e-08,0,512,512
294.853,-2.04082e-08,0,512,512
294.911,-2.02769e-08,0,512,512
294.958,-2.01731e-08,0,512,512
295.005,-2.00707e-08,0,512,512
295.052,-1.99699e-08,0,512,512
295.111,-1.98463e-08,0,512,512
295.157,-1.97495e-08,0,512,512
295.204,-1.96546e-08,0,512,512
295.251,-1.95616e-08,0,512,512
295.31,-1.94482e-08,0,512,512
295.357,-1.93597e-08,0,512,512
295.403,-1.92731e-08,0,512,512
295.45,-1.91884e-08,0,512,512
295.509,-1.90852e-08,0,512,512
295.556,-1.90046e-08,0,512,512
295.603,-1.89257e-08,0,512,512
295.661,-1.88292e-08,0,512,512
295.708,-1.87537e-08,0,512,512
295.755,-1.86795e-08,0,512,512
295.802,-1.86065e-08,0,512,512
295.86,-1.85167e-08,0,512,512
295.907,-1.84459e-08,0,512,512
295.954,-1.83759e-08,0,512,512
296.001,-1.83066e-08,0,512,512
296.06,-1.82206e-08,0,512,512
296.106,-1.81521e-08,0,512,512
296.153,-1.80839e-08,0,512,512
296.2,-1.80156e-08,0,512,512
296.259,-1.79302e-08,0,512,512
296.306,-1.78615e-08,0,512,512
296.353,-1.77924e-08,0,512,512
296.411,-1.77052e-08,0,512,512
296.458,-1.76345e-08,0,512,512
296.505,-1.75629e-08,0,512,512
296.552,-1.74903e-08,0,512,512
296.61,-1.73977e-08,0,512,512
296.657,-1.7322e-08,0,512,512
296.704,-1.72448e-08,0,512,512
296.751,-1.71658e-08,0,512,512
296.81,-1.70644e-08,0,512,512
296.856,-1.69809e-08,0,512,512
296.903,-1.68951e-08,0,512,512
296.95,-1.68069e-08,0,512,512
297.009,-1.6693e-08,0,512,512
297.056,-1.65987e-08,0,512,512
297.102,-1.65015e-08,0,512,512
297.161,-1.63756e-08,0,512,512
297.208,-1.6271e-08,0,512,512
297.255,-1.6163e-08,0,512,512
297.302,-1.60513e-08,0,512,512
297.36,-1.59062e-08,0,512,512
297.407,-1.57856e-08,0,512,512
297.454,-1.56607e-08,0,512,512
297.501,-1.55313e-08,0,512,512
297.559,-1.53631e-08,0,512,512
297.606,-1.52229e-08,0,512,512
297.653,-1.50777e-08,0,512,512
297.712,-1.48886e-08,0,512,512
297.759,-1.47309e-08,0,512,512
297.805,-1.45674e-08,0,512,512
297.852,-1.43977e-08,0,512,512
297.911,-1.41765e-08,0,512,512
297.958,-1.39919e-08,0,512,512
298.005,-1.38002e-08,0,512,512
298.052,-1.36011e-08,0,512,512
298.11,-1.33414e-08,0,512,512
298.157,-1.31245e-08,0,512,512
298.204,-1.28991e-08,0,512,512
298.251,-1.2665e-08,0,512,512
298.309,-1.23595e-08,0,512,512
298.356,-1.21045e-08,0,512,512
298.403,-1.18398e-08,0,512,512
298.462,-1.14949e-08,0,512,512
298.508,-1.12075e-08,0,512,512
298.555,-1.09097e-08,0,512,512
298.602,-1.06015e-08,0,512,512
298.661,-1.02013e-08,0,512,512
298.708,-9.8694e-09,0,512,512
298.755,-9.52708e-09,0,512,512
298.801,-9.17457e-09,0,512,512
298.86,-8.72001e-09,0,512,512
298.907,-8.34569e-09,0,512,512
298.954,-7.96239e-09,0,512,512
299.001,-7.57068e-09,0,512,512
299.059,-7.07025e-09,0,512,512
299.106,-6.66222e-09,0,512,512
299.153,-6.2483e-09,0,512,512
299.211,-5.72407e-09,0,512,512
299.258,-5.30052e-09,0,512,512
299.305,-4.87448e-09,0,512,512
299.352,-4.44714e-09,0,512,512
299.411,-3.91304e-09,0,512,512
299.458,-3.48738e-09,0,512,512
299.504,-3.06459e-09,0,512,512
299.551,-2.646e-09,0,512,512
299.61,-2.13068e-09,0,512,512
299.657,-1.72635e-09,0,512,512
299.704,-1.33046e-09,0,512,512
299.75,-9.44229e-10,0,512,512
299.809,-4.76804e-10,0,512,512
299.856,-1.16489e-10,0,512,512
299.903,2.30625e-10,0,512,512
299.961,6.44578e-10,0,512,512
300.008,9.5882e-10,0,512,512
300.055,1.25729e-09,0,512,512
300.102,1.53942e-09,0,512,512
300.161,1.86845e-09,0,512,512
300.207,2.1124e-09,0,512,512
300.254,2.33902e-09,0,512,512
300.301,2.54828e-09,0,512,512
300.36,2.78553e-09,0,512,512
300.407,2.95613e-09,0,512,512
300.454,3.10999e-09,0,512,512
300.5,3.24753e-09,0,512,512
300.559,3.3973e-09,0,512,512
300.606,3.50012e-09,0,512,512
300.653,3.58859e-09,0,512,512
300.711,3.68014e-09,0,512,512
300.758,3.73914e-09,0,512,512
300.805,3.78639e-09,0,512,512
300.852,3.8228e-09,0,512,512
300.91,3.8544e-09,0,512,512
300.957,3.86967e-09,0,512,512
301.004,3.87699e-09,0,512,512
301.051,3.87725e-09,0,512,512
301.11,3.86892e-09,0,512,512
301.157,3.8563e-09,0,512,512
301.203,3.83919e-09,0,512,512
301.25,3.81828e-09,0,512,512
301.309,3.78771e-09,0,512,512
301.356,3.76038e-09,0,512,512
301.403,3.73098e-09,0,512,512
301.461,3.69188e-09,0,512,512
301.508,3.65906e-09,0,512,512
301.555,3.62511e-09,0,512,512
301.602,3.59013e-09,0,512,512
301.66,3.54503e-09,0,512,512
301.707,3.50782e-09,0,512,512
301.754,3.4695e-09,0,512,512
301.801,3.42994e-09,0,512,512
301.86,3.37845e-09,0,512,512
301.906,3.33537e-09,0,512,512
301.953,3.29035e-09,0,512,512
302,3.24317e-09,0,512,512
302.059,3.18078e-09,0,512,512
302.106,3.12789e-09,0,512,512
302.152,3.07215e-09,0,512,512
302.211,2.99828e-09,0,512,512
302.258,2.93572e-09,0,512,512
302.305,2.87006e-09,0,512,512
302.352,2.80137e-09,0,512,512
302.41,2.71142e-09,0,512,512
302.457,2.63643e-09,0,512,512
302.504,2.55904e-09,0,512,512
302.551,2.4796e-09,0,512,512
302.609,2.37805e-09,0,512,512
302.656,2.29559e-09,0,512,512
302.703,2.21262e-09,0,512,512
302.75,2.1297e-09,0,512,512
302.809,2.02708e-09,0,512,512
302.855,1.94655e-09,0,512,512
302.902,1.8681e-09,0,512,512
302.961,1.77395e-09,0,512,512
303.008,1.70248e-09,0,512,512
303.055,1.63508e-09,0,512,512
303.102,1.57229e-09,0,512,512
303.16,1.50101e-09,0,512,512
303.207,1.45027e-09,0,512,512
303.254,1.40551e-09,0,512,512
303.301,1.367e-09,0,512,512
303.359,1.32797e-09,0,512,512
303.406,1.30416e-09,0,512,512
303.453,1.28698e-09,0,512,512
303.512,1.27476e-09,0,512,512
303.559,1.27222e-09,0,512,512
303.605,1.27589e-09,0,512,512
303.652,1.2855e-09,0,512,512
303.711,1.30535e-09,0,512,512
303.758,1.32703e-09,0,512,512
303.805,1.3534e-09,0,512,512
303.851,1.38398e-09,0,512,512
303.91,1.42739e-09,0,512,512
303.957,1.46564e-09,0,512,512
304.004,1.50645e-09,0,512,512
304.051,1.54931e-09,0,512,512
304.109,1.60497e-09,0,512,512
304.156,1.65056e-09,0,512,512
304.203,1.69659e-09,0,512,512
304.262,1.75404e-09,0,512,512
304.308,1.79944e-09,0,512,512
304.355,1.84391e-09,0,512,512
304.402,1.88712e-09,0,512,512
304.461,1.93889e-09,0,512,512
304.508,1.97818e-09,0,512,512
304.554,2.01534e-09,0,512,512
304.601,2.05019e-09,0,512,512
304.66,2.09026e-09,0,512,512
304.707,2.1194e-09,0,512,512
304.754,2.14585e-09,0,512,512
304.801,2.16959e-09,0,512,512
304.859,2.19539e-09,0,512,512
304.906,2.21297e-09,0,512,512
304.953,2.22786e-09,0,512,512
