250,0,0,8192,8192
250.003,0,0,8192,8192
250.053,0,0,8192,8192
250.103,0,0,8192,8192
250.152,0,0,8192,8192
250.202,0,0,8192,8192
250.252,0,0,8192,8192
250.302,0,0,8192,8192
250.352,-1.38778e-17,0,8192,8192
250.401,-1.38778e-17,0,8192,8192
250.451,-2.77556e-17,0,8192,8192
250.501,-2.77556e-17,0,8192,8192
250.551,-1.38778e-17,0,8192,8192
250.6,-1.38778e-17,0,8192,8192
250.65,-1.38778e-17,0,8192,8192
250.7,-4.16334e-17,0,8192,8192
250.753,-1.38778e-17,0,8192,8192
250.803,0,0,8192,8192
250.852,0,0,8192,8192
250.902,0,0,8192,8192
250.952,0,0,8192,8192
251.002,-1.38778e-17,0,8192,8192
251.052,0,0,8192,8192
251.101,0,0,8192,8192
251.151,0,0,8192,8192
251.201,0,0,8192,8192
251.251,0,0,8192,8192
251.301,0,0,8192,8192
251.35,1.38778e-17,0,8192,8192
251.4,1.38778e-17,0,8192,8192
251.453,1.38778e-17,0,8192,8192
251.503,1.38778e-17,0,8192,8192
251.553,1.38778e-17,0,8192,8192
251.602,1.38778e-17,0,8192,8192
251.652,0,0,8192,8192
251.702,0,0,8192,8192
251.752,0,0,8192,8192
251.801,0,0,8192,8192
251.851,0,0,8192,8192
251.901,0,0,8192,8192
251.951,0,0,8192,8192
252.001,-1.38778e-17,0,8192,8192
252.05,0,0,8192,8192
252.1,-1.38778e-17,0,8192,8192
252.15,0,0,8192,8192
252.203,0,0,8192,8192
252.253,0,0,8192,8192
252.302,0,0,8192,8192
252.352,0,0,8192,8192
252.402,0,0,8192,8192
252.452,0,0,8192,8192
252.502,0,0,8192,8192
252.551,0,0,8192,8192
252.601,0,0,8192,8192
252.651,-1.38778e-17,0,8192,8192
252.701,0,0,8192,8192
252.751,0,0,8192,8192
252.8,0,0,8192,8192
252.85,-1.38778e-17,0,8192,8192
252.903,1.38778e-17,0,8192,8192
252.953,2.77556e-17,0,8192,8192
253.002,2.77556e-17,0,8192,8192
253.052,2.77556e-17,0,8192,8192
253.102,2.77556e-17,0,8192,8192
253.152,4.16334e-17,0,8192,8192
253.202,4.16334e-17,0,8192,8192
253.251,2.77556e-17,0,8192,8192
253.301,2.77556e-17,0,8192,8192
253.351,4.16334e-17,0,8192,8192
253.401,2.77556e-17,0,8192,8192
253.451,2.77556e-17,0,8192,8192
253.5,2.77556e-17,0,8192,8192
253.55,2.77556e-17,0,8192,8192
253.6,1.38778e-17,0,8192,8192
253.653,1.38778e-17,0,8192,8192
253.703,1.38778e-17,0,8192,8192
253.752,1.38778e-17,0,8192,8192
253.802,0,0,8192,8192
253.852,-1.38778e-17,0,8192,8192
253.902,-1.38778e-17,0,8192,8192
253.952,0,0,8192,8192
254.001,0,0,8192,8192
254.051,1.38778e-17,0,8192,8192
254.101,1.38778e-17,0,8192,8192
254.151,2.77556e-17,0,8192,8192
254.201,1.38778e-17,0,8192,8192
254.25,2.77556e-17,0,8192,8192
254.3,2.77556e-17,0,8192,8192
254.353,2.77556e-17,0,8192,8192
254.403,1.38778e-17,0,8192,8192
254.452,1.38778e-17,0,8192,8192
254.502,1.38778e-17,0,8192,8192
254.552,1.38778e-17,0,8192,8192
254.602,1.38778e-17,0,8192,8192
254.652,2.77556e-17,0,8192,8192
254.701,2.77556e-17,0,8192,8192
254.751,0,0,8192,8192
254.801,0,0,8192,8192
254.851,-1.38778e-17,0,8192,8192
254.901,0,0,8192,8192
254.95,-2.77556e-17,0,8192,8192
255,-1.38778e-17,0,8192,8192
255.05,0,0,8192,8192
255.103,0,0,8192,8192
255.153,1.38778e-17,0,8192,8192
255.202,2.77556e-17,0,8192,8192
255.252,1.38778e-17,0,8192,8192
255.302,1.38778e-17,0,8192,8192
255.352,1.38778e-17,0,8192,8192
255.402,2.77556e-17,0,8192,8192
255.451,2.77556e-17,0,8192,8192
255.501,2.77556e-17,0,8192,8192
255.551,1.38778e-17,0,8192,8192
255.601,1.38778e-17,0,8192,8192
255.651,1.38778e-17,0,8192,8192
255.7,2.77556e-17,0,8192,8192
255.75,2.77556e-17,0,8192,8192
255.803,1.38778e-17,0,8192,8192
255.853,1.38778e-17,0,8192,8192
255.902,1.38778e-17,0,8192,8192
255.952,1.38778e-17,0,8192,8192
256.002,1.38778e-17,0,8192,8192
256.052,1.38778e-17,0,8192,8192
256.102,0,0,8192,8192
256.151,-1.38778e-17,0,8192,8192
256.201,0,0,8192,8192
256.251,0,0,8192,8192
256.301,-1.38778e-17,0,8192,8192
256.351,0,0,8192,8192
256.4,0,0,8192,8192
256.45,0,0,8192,8192
256.5,-1.38778e-17,0,8192,8192
256.553,-1.38778e-17,0,8192,8192
256.603,-2.77556e-17,0,8192,8192
256.652,-1.38778e-17,0,8192,8192
256.702,-1.38778e-17,0,8192,8192
256.752,-2.77556e-17,0,8192,8192
256.802,0,0,8192,8192
256.852,0,0,8192,8192
256.901,0,0,8192,8192
256.951,0,0,8192,8192
257.001,0,0,8192,8192
257.051,0,0,8192,8192
257.101,0,0,8192,8192
257.15,0,0,8192,8192
257.2,0,0,8192,8192
257.253,0,0,8192,8192
257.303,0,0,8192,8192
257.352,1.38778e-17,0,8192,8192
257.402,2.77556e-17,0,8192,8192
257.452,1.38778e-17,0,8192,8192
257.502,2.77556e-17,0,8192,8192
257.552,1.38778e-17,0,8192,8192
257.601,2.77556e-17,0,8192,8192
257.651,4.16334e-17,0,8192,8192
257.701,4.16334e-17,0,8192,8192
257.751,2.77556e-17,0,8192,8192
257.801,2.77556e-17,0,8192,8192
257.85,4.16334e-17,0,8192,8192
257.9,4.16334e-17,0,8192,8192
257.95,2.77556e-17,0,8192,8192
258.003,1.38778e-17,0,8192,8192
258.053,1.38778e-17,0,8192,8192
258.102,1.38778e-17,0,8192,8192
258.152,2.77556e-17,0,8192,8192
258.202,2.77556e-17,0,8192,8192
258.252,2.77556e-17,0,8192,8192
258.302,2.77556e-17,0,8192,8192
258.351,2.77556e-17,0,8192,8192
258.401,1.38778e-17,0,8192,8192
258.451,1.38778e-17,0,8192,8192
258.501,1.38778e-17,0,8192,8192
258.551,1.38778e-17,0,8192,8192
258.6,1.38778e-17,0,8192,8192
258.65,1.38778e-17,0,8192,8192
258.703,2.77556e-17,0,8192,8192
258.753,2.77556e-17,0,8192,8192
258.802,2.77556e-17,0,8192,8192
258.852,1.38778e-17,0,8192,8192
258.902,1.38778e-17,0,8192,8192
258.952,2.77556e-17,0,8192,8192
259.002,2.77556e-17,0,8192,8192
259.051,1.38778e-17,0,8192,8192
259.101,1.38778e-17,0,8192,8192
259.151,2.77556e-17,0,8192,8192
259.201,2.77556e-17,0,8192,8192
259.251,1.38778e-17,0,8192,8192
259.3,2.77556e-17,0,8192,8192
259.35,2.77556e-17,0,8192,8192
259.403,1.38778e-17,0,8192,8192
259.453,2.77556e-17,0,8192,8192
259.503,2.77556e-17,0,8192,8192
259.552,2.77556e-17,0,8192,8192
259.602,4.16334e-17,0,8192,8192
259.652,2.77556e-17,0,8192,8192
259.702,2.77556e-17,0,8192,8192
259.751,2.77556e-17,0,8192,8192
259.801,2.77556e-17,0,8192,8192
259.851,4.16334e-17,0,8192,8192
259.901,4.16334e-17,0,8192,8192
259.951,4.16334e-17,0,8192,8192
260,2.77556e-17,0,8192,8192
260.05,4.16334e-17,0,8192,8192
260.1,4.16334e-17,0,8192,8192
260.153,4.16334e-17,0,8192,8192
260.203,2.77556e-17,0,8192,8192
260.252,5.55112e-17,0,8192,8192
260.302,5.55112e-17,0,8192,8192
260.352,2.77556e-17,0,8192,8192
260.402,1.38778e-17,0,8192,8192
260.452,1.38778e-17,0,8192,8192
260.501,1.38778e-17,0,8192,8192
260.551,1.38778e-17,0,8192,8192
260.601,1.38778e-17,0,8192,8192
260.651,2.77556e-17,0,8192,8192
260.701,2.77556e-17,0,8192,8192
260.75,2.77556e-17,0,8192,8192
260.8,2.77556e-17,0,8192,8192
260.853,2.77556e-17,0,8192,8192
260.903,2.77556e-17,0,8192,8192
260.952,2.77556e-17,0,8192,8192
261.002,2.77556e-17,0,8192,8192
261.052,4.16334e-17,0,8192,8192
261.102,1.38778e-17,0,8192,8192
261.152,1.38778e-17,0,8192,8192
261.201,1.38778e-17,0,8192,8192
261.251,2.77556e-17,0,8192,8192
261.301,2.77556e-17,0,8192,8192
261.351,2.77556e-17,0,8192,8192
261.401,2.77556e-17,0,8192,8192
261.45,2.77556e-17,0,8192,8192
261.5,4.16334e-17,0,8192,8192
261.55,2.77556e-17,0,8192,8192
261.603,0,0,8192,8192
261.653,2.77556e-17,0,8192,8192
261.702,4.16334e-17,0,8192,8192
261.752,2.77556e-17,0,8192,8192
261.802,0,0,8192,8192
261.852,0,0,8192,8192
261.902,0,0,8192,8192
261.951,0,0,8192,8192
262.001,0,0,8192,8192
262.051,0,0,8192,8192
262.101,0,0,8192,8192
262.151,0,0,8192,8192
262.2,0,0,8192,8192
262.25,0,0,8192,8192
262.303,0,0,8192,8192
262.353,-1.38778e-17,0,8192,8192
262.402,-1.38778e-17,0,8192,8192
262.452,-1.38778e-17,0,8192,8192
262.502,-1.38778e-17,0,8192,8192
262.552,-1.38778e-17,0,8192,8192
262.602,0,0,8192,8192
262.651,0,0,8192,8192
262.701,0,0,8192,8192
262.751,0,0,8192,8192
262.801,0,0,8192,8192
262.851,0,0,8192,8192
262.9,0,0,8192,8192
262.95,0,0,8192,8192
263,-1.38778e-17,0,8192,8192
263.053,-1.38778e-17,0,8192,8192
263.103,-4.16334e-17,0,8192,8192
263.152,-2.77556e-17,0,8192,8192
263.202,-2.77556e-17,0,8192,8192
263.252,-2.77556e-17,0,8192,8192
263.302,-2.77556e-17,0,8192,8192
263.352,-2.77556e-17,0,8192,8192
263.401,-2.77556e-17,0,8192,8192
263.451,-2.77556e-17,0,8192,8192
263.501,-1.38778e-17,0,8192,8192
263.551,-1.38778e-17,0,8192,8192
263.601,-2.77556e-17,0,8192,8192
263.65,-2.77556e-17,0,8192,8192
263.7,1.38778e-17,0,8192,8192
263.753,1.38778e-17,0,8192,8192
263.803,-1.38778e-17,0,8192,8192
263.852,-1.38778e-17,0,8192,8192
263.902,-1.38778e-17,0,8192,8192
263.952,-1.38778e-17,0,8192,8192
264.002,0,0,8192,8192
264.052,-2.77556e-17,0,8192,8192
264.101,-1.38778e-17,0,8192,8192
264.151,-4.16334e-17,0,8192,8192
264.201,0,0,8192,8192
264.251,-1.38778e-17,0,8192,8192
264.301,0,0,8192,8192
264.35,-1.38778e-17,0,8192,8192
264.4,0,0,8192,8192
264.45,0,0,8192,8192
264.503,0,0,8192,8192
264.553,0,0,8192,8192
264.602,0,0,8192,8192
264.652,0,0,8192,8192
264.702,1.38778e-17,0,8192,8192
264.752,0,0,8192,8192
264.802,0,0,8192,8192
264.851,0,0,8192,8192
264.901,-1.38778e-17,0,8192,8192
264.951,-1.38778e-17,0,8192,8192
265.001,-1.38778e-17,0,8192,8192
265.051,0,0,8192,8192
265.1,0,0,8192,8192
265.15,0,0,8192,8192
265.203,1.38778e-17,0,8192,8192
265.253,1.38778e-17,0,8192,8192
265.302,1.38778e-17,0,8192,8192
265.352,1.38778e-17,0,8192,8192
265.402,0,0,8192,8192
265.452,0,0,8192,8192
265.502,0,0,8192,8192
265.551,0,0,8192,8192
265.601,0,0,8192,8192
265.651,0,0,8192,8192
265.701,1.38778e-17,0,8192,8192
265.751,1.38778e-17,0,8192,8192
265.8,2.77556e-17,0,8192,8192
265.85,2.77556e-17,0,8192,8192
265.9,1.38778e-17,0,8192,8192
265.953,2.77556e-17,0,8192,8192
266.003,2.77556e-17,0,8192,8192
266.052,2.77556e-17,0,8192,8192
266.102,1.38778e-17,0,8192,8192
266.152,1.38778e-17,0,8192,8192
266.202,2.77556e-17,0,8192,8192
266.252,1.38778e-17,0,8192,8192
266.301,1.38778e-17,0,8192,8192
266.351,0,0,8192,8192
266.401,0,0,8192,8192
266.451,-1.38778e-17,0,8192,8192
266.501,0,0,8192,8192
266.55,0,0,8192,8192
266.6,0,0,8192,8192
266.653,0,0,8192,8192
266.703,1.38778e-17,0,8192,8192
266.752,0,0,8192,8192
266.802,2.77556e-17,0,8192,8192
266.852,2.77556e-17,0,8192,8192
266.902,1.38778e-17,0,8192,8192
266.952,1.38778e-17,0,8192,8192
267.001,0,0,8192,8192
267.051,0,0,8192,8192
267.101,0,0,8192,8192
267.151,1.38778e-17,0,8192,8192
267.201,2.77556e-17,0,8192,8192
267.25,2.77556e-17,0,8192,8192
267.3,4.16334e-17,0,8192,8192
267.353,4.16334e-17,0,8192,8192
267.403,6.93889e-17,0,8192,8192
267.453,6.93889e-17,0,8192,8192
267.502,5.55112e-17,0,8192,8192
267.552,2.77556e-17,0,8192,8192
267.602,2.77556e-17,0,8192,8192
267.652,2.77556e-17,0,8192,8192
267.702,1.38778e-17,0,8192,8192
267.751,1.38778e-17,0,8192,8192
267.801,1.38778e-17,0,8192,8192
267.851,2.77556e-17,0,8192,8192
267.901,1.38778e-17,0,8192,8192
267.95,1.38778e-17,0,8192,8192
268,1.38778e-17,0,8192,8192
268.05,2.77556e-17,0,8192,8192
268.103,2.77556e-17,0,8192,8192
268.153,1.38778e-17,0,8192,8192
268.202,1.38778e-17,0,8192,8192
268.252,1.38778e-17,0,8192,8192
268.302,1.38778e-17,0,8192,8192
268.352,1.38778e-17,0,8192,8192
268.402,1.38778e-17,0,8192,8192
268.451,2.77556e-17,0,8192,8192
268.501,2.77556e-17,0,8192,8192
268.551,4.16334e-17,0,8192,8192
268.601,2.77556e-17,0,8192,8192
268.651,2.77556e-17,0,8192,8192
268.7,4.16334e-17,0,8192,8192
268.75,2.77556e-17,0,8192,8192
268.803,2.77556e-17,0,8192,8192
268.853,4.16334e-17,0,8192,8192
268.902,4.16334e-17,0,8192,8192
268.952,4.16334e-17,0,8192,8192
269.002,4.16334e-17,0,8192,8192
269.052,4.16334e-17,0,8192,8192
269.102,2.77556e-17,0,8192,8192
269.151,2.77556e-17,0,8192,8192
269.201,2.77556e-17,0,8192,8192
269.251,1.38778e-17,0,8192,8192
269.301,1.38778e-17,0,8192,8192
269.351,1.38778e-17,0,8192,8192
269.4,1.38778e-17,0,8192,8192
269.45,1.38778e-17,0,8192,8192
269.5,1.38778e-17,0,8192,8192
269.553,1.38778e-17,0,8192,8192
269.603,0,0,8192,8192
269.652,-2.77556e-17,0,8192,8192
269.702,-5.55112e-17,0,8192,8192
269.752,-4.16334e-17,0,8192,8192
269.802,-2.77556e-17,0,8192,8192
269.852,-2.77556e-17,0,8192,8192
269.901,-2.77556e-17,0,8192,8192
269.951,0,0,8192,8192
270.001,0,0,8192,8192
270.051,0,0,8192,8192
270.101,0,0,8192,8192
270.15,0,0,8192,8192
270.2,0,0,8192,8192
270.253,0,0,8192,8192
270.303,-1.38778e-17,0,8192,8192
270.352,-1.38778e-17,0,8192,8192
270.402,-1.38778e-17,0,8192,8192
270.452,-2.77556e-17,0,8192,8192
270.502,-2.77556e-17,0,8192,8192
270.552,-4.16334e-17,0,8192,8192
270.601,-2.77556e-17,0,8192,8192
270.651,-2.77556e-17,0,8192,8192
270.701,-2.77556e-17,0,8192,8192
270.751,-2.77556e-17,0,8192,8192
270.801,-1.38778e-17,0,8204,8204
270.85,-1.38778e-17,0,8300,8300
270.901,-1.38778e-17,0,8412,8412
270.951,-1.38778e-17,0,8508,8508
271.001,-1.38778e-17,0,8612,8612
271.051,-1.38778e-17,0,8716,8716
271.101,-1.38778e-17,0,8828,8828
271.15,-1.38778e-17,0,8932,8932
271.2,-1.38778e-17,0,9036,9036
271.25,-1.38778e-17,0,9148,9148
271.301,-1.38778e-17,0,9252,9252
271.351,-1.38778e-17,0,9372,9372
271.401,-1.38778e-17,0,9424,9424
271.451,-1.38778e-17,0,9432,9432
271.5,-1.38778e-17,0,9416,9416
271.55,-1.38778e-17,0,9416,9416
271.6,-1.38778e-17,0,9432,9432
271.651,-1.38778e-17,0,9408,9408
271.701,-1.38778e-17,0,9432,9432
271.751,-1.38778e-17,0,9408,9408
271.801,-1.38778e-17,0,9408,9408
271.85,-1.38778e-17,0,9416,9416
271.9,-1.38778e-17,0,9400,9400
271.95,-1.38778e-17,0,9396,9396
272.001,-1.38778e-17,0,9492,9492
272.051,-1.38778e-17,0,9588,9588
272.101,0,0,9692,9692
272.151,0,0,9796,9796
272.201,0,0,9884,9884
272.25,0,0,9972,9972
272.3,0,0,10108,10108
272.351,-1.38778e-17,0,10220,10220
272.401,-1.38778e-17,0,10316,10316
272.451,0,0,10412,10412
272.501,0,0,10500,10500
272.551,0,0,10628,10628
272.6,0,0,10732,10732
272.65,0,0,10852,10852
272.701,0,0,10908,10908
272.751,0,0,10928,10928
272.801,0,0,10936,10936
272.851,0,0,10904,10904
272.901,0,0,10920,10920
272.95,-1.38778e-17,0,10928,10928
273,-1.38778e-17,0,10912,10912
273.05,-1.38778e-17,0,10912,10912
273.101,0,0,10888,10888
273.151,0,0,10888,10888
273.201,0,0,10880,10880
273.251,0,0,10896,10896
273.3,0,0,10864,10864
273.35,0,0,10864,10864
273.4,0,0,10848,10848
273.451,-1.38778e-17,0,10856,10856
273.501,-1.38778e-17,0,10824,10824
273.551,-1.38778e-17,0,10824,10824
273.601,0,0,10808,10808
273.651,0,0,10808,10808
273.7,0,0,10816,10816
273.75,0,0,10800,10800
273.801,0,0,10800,10800
273.851,-1.38778e-17,0,10784,10784
273.901,-1.38778e-17,0,10784,10784
273.951,-1.38778e-17,0,10784,10784
274.001,0,0,10792,10792
274.05,0,0,10768,10768
274.1,0,0,10760,10760
274.151,0,0,10744,10744
274.201,0,0,10776,10776
274.251,-1.38778e-17,0,10760,10760
274.301,-1.38778e-17,0,10728,10728
274.351,-1.38778e-17,0,10752,10752
274.401,-1.38778e-17,0,10760,10760
274.451,0,0,10744,10744
274.501,0,0,10784,10784
274.55,0,0,10856,10856
274.601,0,0,10896,10896
274.65,-1.38778e-17,0,10896,10896
274.701,-5.55112e-17,0,10904,10904
274.751,-4.16334e-16,0,10888,10888
274.8,-7.91034e-16,0,10872,10872
274.85,-1.19349e-15,0,10848,10848
274.901,-1.59595e-15,0,10832,10832
274.951,-2.23432e-15,0,10840,10840
275.001,-4.81559e-15,0,10808,10808
275.05,-1.60705e-14,0,10832,10832
275.101,-6.17284e-14,0,10808,10808
275.15,-2.1276e-13,0,10800,10800
275.2,-6.60305e-13,0,10808,10808
275.251,-1.89088e-12,0,10792,10792
275.301,-4.69363e-12,0,10792,10792
275.351,-1.04638e-11,0,10768,10768
275.401,-2.09815e-11,0,10744,10744
275.45,-3.72408e-11,0,10736,10736
275.501,-6.07355e-11,0,10720,10720
275.552,-8.91112e-11,0,10736,10736
275.601,-1.16535e-10,0,10704,10704
275.65,-1.37123e-10,0,10704,10704
275.7,-1.44103e-10,0,10704,10704
275.751,-1.3276e-10,0,10680,10680
275.801,-1.04636e-10,0,10688,10688
275.852,-6.54514e-11,0,10696,10696
275.9,-2.48254e-11,0,10656,10656
275.951,1.26259e-11,0,10680,10680
276.002,4.14974e-11,0,10632,10632
276.051,6.11981e-11,0,10640,10640
276.1,7.4961e-11,0,10632,10632
276.151,8.54094e-11,0,10632,10632
276.201,9.31315e-11,0,10608,10608
276.251,9.87653e-11,0,10592,10592
276.301,1.02487e-10,0,10592,10592
276.351,1.05055e-10,0,10584,10584
276.4,1.07493e-10,0,10576,10576
276.451,1.10649e-10,0,10568,10568
276.5,1.14084e-10,0,10560,10560
276.551,1.17126e-10,0,10552,10552
276.601,1.18893e-10,0,10536,10536
276.65,1.19677e-10,0,10536,10536
276.7,1.2038e-10,0,10528,10528
276.75,1.21854e-10,0,10528,10528
276.8,1.24126e-10,0,10520,10520
276.851,1.26422e-10,0,10512,10512
276.901,1.28136e-10,0,10504,10504
276.95,1.30111e-10,0,10528,10528
277.001,1.3614e-10,0,10488,10488
277.051,1.53563e-10,0,10496,10496
277.1,1.97961e-10,0,10488,10488
277.15,3.00096e-10,0,10480,10480
277.202,5.27471e-10,0,10488,10488
277.25,9.38438e-10,0,10480,10480
277.3,1.69086e-09,0,10472,10472
277.351,2.91763e-09,0,10464,10464
277.402,4.74812e-09,0,10456,10456
277.451,7.15949e-09,0,10448,10448
277.5,1.02125e-08,0,10440,10440
277.551,1.39917e-08,0,10432,10432
277.601,1.81284e-08,0,10424,10424
277.651,2.267e-08,0,10408,10408
277.701,2.7616e-08,0,10416,10416
277.751,3.30676e-08,0,10400,10400
277.802,3.9259e-08,0,10408,10408
277.85,4.6246e-08,0,10408,10408
277.9,5.49818e-08,0,10392,10392
277.951,6.56912e-08,0,10400,10400
278.001,7.88628e-08,0,10416,10416
278.05,9.43239e-08,0,10384,10384
278.101,1.1369e-07,0,10376,10376
278.152,1.36787e-07,0,10376,10376
278.2,1.62772e-07,0,10376,10376
278.251,1.93651e-07,0,10376,10376
278.3,2.26921e-07,0,10384,10384
278.351,2.64648e-07,0,10376,10376
278.401,3.03352e-07,0,10368,10368
278.452,3.45144e-07,0,10368,10368
278.501,3.8603e-07,0,10336,10336
278.551,4.44647e-07,0,10344,10344
278.6,5.25074e-07,0,10360,10360
278.652,6.01778e-07,0,10360,10360
278.701,6.69831e-07,0,10336,10336
278.751,7.33654e-07,0,10320,10320
278.801,7.92548e-07,0,10344,10344
278.851,8.45002e-07,0,10328,10328
278.901,8.89559e-07,0,10304,10304
278.951,9.25466e-07,0,10392,10392
279.001,9.5235e-07,0,10504,10504
279.051,9.68906e-07,0,10504,10504
279.101,9.76153e-07,0,10560,10560
279.151,9.8011e-07,0,10556,10556
279.202,9.80334e-07,0,10484,10484
279.25,9.76681e-07,0,10444,10444
279.301,9.6857e-07,0,10444,10444
279.351,9.55886e-07,0,10420,10420
279.4,9.39421e-07,0,10452,10452
279.451,9.17907e-07,0,10484,10484
279.502,8.92347e-07,0,10476,10476
279.551,8.64711e-07,0,10444,10444
279.602,8.33479e-07,0,10412,10412
279.651,8.01716e-07,0,10220,10220
279.7,7.68434e-07,0,10196,10196
279.751,7.04444e-07,0,10164,10164
279.801,6.44801e-07,0,10124,10124
279.85,5.99081e-07,0,10052,10052
279.902,5.60164e-07,0,9988,9988
279.952,5.28346e-07,0,9948,9948
280.001,5.01023e-07,0,9924,9924
280.051,4.78136e-07,0,9884,9884
280.1,4.61807e-07,0,9432,9432
280.151,4.48179e-07,0,8984,8984
280.201,4.43987e-07,0,8336,8336
280.253,4.42244e-07,0,8224,8224
280.303,4.47274e-07,0,8268,8268
280.351,4.57965e-07,0,8444,8444
280.402,4.75199e-07,0,8732,8732
280.451,4.96065e-07,0,8732,8732
280.501,5.20199e-07,0,8756,8756
280.55,5.49192e-07,0,8956,8956
280.602,5.89282e-07,0,9284,9284
280.651,6.32577e-07,0,9404,9404
280.701,6.83434e-07,0,9564,9564
280.751,7.3731e-07,0,9596,9596
280.801,7.87516e-07,0,9652,9652
280.851,8.30425e-07,0,9660,9660
280.9,8.64084e-07,0,9700,9700
280.95,8.89948e-07,0,9724,9724
281.002,9.09438e-07,0,9772,9772
281.051,9.17558e-07,0,9756,9756
281.101,9.1828e-07,0,9804,9804
281.15,9.1295e-07,0,9844,9844
281.202,9.01601e-07,0,9924,9924
281.251,8.85877e-07,0,9964,9964
281.3,8.66185e-07,0,10044,10044
281.351,8.41739e-07,0,10116,10116
281.4,8.14269e-07,0,10180,10180
281.451,7.82318e-07,0,10236,10236
281.5,7.49178e-07,0,10300,10300
281.551,7.11162e-07,0,10372,10372
281.602,6.64213e-07,0,10228,10228
281.65,6.20354e-07,0,10228,10228
281.701,5.72131e-07,0,10220,10220
281.752,5.19601e-07,0,10120,10120
281.8,4.63796e-07,0,10104,10104
281.85,4.00687e-07,0,10048,10048
281.901,3.3743e-07,0,10048,10048
281.951,2.80008e-07,0,10096,10096
282.001,2.30219e-07,0,10104,10104
282.051,1.86577e-07,0,10120,10120
282.101,1.47447e-07,0,10136,10136
282.151,1.11921e-07,0,10120,10120
282.201,7.97022e-08,0,10168,10168
282.251,5.09419e-08,0,10168,10168
282.3,2.58565e-08,0,10152,10152
282.35,4.18268e-09,0,10176,10176
282.402,-1.44838e-08,0,10160,10160
282.451,-2.82545e-08,0,10168,10168
282.5,-4.09849e-08,0,10168,10168
282.552,-5.17701e-08,0,10152,10152
282.601,-5.88846e-08,0,10168,10168
282.65,-6.53759e-08,0,10176,10176
282.701,-7.07593e-08,0,10184,10184
282.75,-7.45912e-08,0,10152,10152
282.801,-7.73156e-08,0,10168,10168
282.85,-7.89568e-08,0,10152,10152
282.901,-7.97874e-08,0,10136,10136
282.952,-7.989e-08,0,10144,10144
283,-7.9367e-08,0,10160,10160
283.051,-7.81985e-08,0,10168,10168
283.101,-7.64183e-08,0,10144,10144
283.152,-7.40671e-08,0,10144,10144
283.2,-7.13006e-08,0,10136,10136
283.25,-6.80005e-08,0,10120,10120
283.301,-6.43806e-08,0,10160,10160
283.351,-6.05478e-08,0,10152,10152
283.401,-5.66282e-08,0,10152,10152
283.45,-5.27246e-08,0,10152,10152
283.502,-4.87833e-08,0,10128,10128
283.551,-4.51518e-08,0,10128,10128
283.6,-4.17287e-08,0,10112,10112
283.651,-3.84344e-08,0,10136,10136
283.702,-3.54141e-08,0,10128,10128
283.75,-3.27625e-08,0,10120,10120
283.8,-3.02818e-08,0,10128,10128
283.851,-2.80706e-08,0,10136,10136
283.9,-2.61263e-08,0,10128,10128
283.952,-2.43848e-08,0,10152,10152
284.001,-2.29506e-08,0,10128,10128
284.05,-2.17435e-08,0,10136,10136
284.101,-2.07148e-08,0,10104,10104
284.15,-1.99135e-08,0,10136,10136
284.201,-1.92599e-08,0,10160,10160
284.251,-1.87657e-08,0,10152,10152
284.301,-1.8412e-08,0,10136,10136
284.351,-1.81817e-08,0,10152,10152
284.401,-1.80574e-08,0,10152,10152
284.45,-1.8021e-08,0,10136,10136
284.501,-1.80603e-08,0,10152,10152
284.551,-1.81599e-08,0,10160,10160
284.601,-1.83142e-08,0,10168,10168
284.65,-1.85027e-08,0,10144,10144
284.701,-1.87296e-08,0,10144,10144
284.751,-1.89819e-08,0,10136,10136
284.801,-1.92534e-08,0,10152,10152
284.851,-1.95379e-08,0,10128,10128
284.9,-1.98307e-08,0,10152,10152
284.951,-2.01389e-08,0,10144,10144
285.001,-2.04394e-08,0,10128,10128
285.051,-2.07488e-08,0,10136,10136
285.1,-2.10448e-08,0,10144,10144
285.151,-2.13458e-08,0,10136,10136
285.201,-2.1641e-08,0,10128,10128
285.251,-2.19292e-08,0,10136,10136
285.301,-2.22097e-08,0,10184,10184
285.351,-2.2483e-08,0,10160,10160
285.4,-2.27496e-08,0,10152,10152
285.451,-2.30191e-08,0,10168,10168
285.501,-2.32762e-08,0,10160,10160
285.551,-2.35396e-08,0,10160,10160
285.6,-2.37954e-08,0,10152,10152
285.651,-2.40629e-08,0,10168,10168
285.701,-2.43369e-08,0,10184,10184
285.751,-2.46202e-08,0,10152,10152
285.801,-2.49161e-08,0,10168,10168
285.85,-2.52278e-08,0,10184,10184
285.901,-2.55695e-08,0,10160,10160
285.951,-2.59238e-08,0,10160,10160
286.001,-2.63156e-08,0,10160,10160
286.051,-2.67227e-08,0,10160,10160
286.101,-2.71707e-08,0,10168,10168
286.151,-2.76459e-08,0,10128,10128
286.201,-2.8145e-08,0,10176,10176
286.251,-2.86629e-08,0,10176,10176
286.301,-2.91941e-08,0,10168,10168
286.351,-2.97332e-08,0,10176,10176
286.4,-3.02763e-08,0,10152,10152
286.451,-3.08371e-08,0,10152,10152
286.501,-3.13963e-08,0,10152,10152
286.55,-3.19342e-08,0,10192,10192
286.601,-3.24802e-08,0,10184,10184
286.651,-3.30154e-08,0,10160,10160
286.701,-3.35383e-08,0,10160,10160
286.751,-3.40473e-08,0,10160,10160
286.801,-3.45412e-08,0,10176,10176
286.85,-3.50182e-08,0,10176,10176
286.9,-3.54755e-08,0,10152,10152
286.95,-3.59105e-08,0,10152,10152
287.001,-3.63327e-08,0,10168,10168
287.051,-3.67157e-08,0,10136,10136
287.101,-3.70703e-08,0,10160,10160
287.151,-3.73961e-08,0,10168,10168
287.2,-3.76944e-08,0,10160,10160
287.25,-3.79677e-08,0,10160,10160
287.3,-3.8219e-08,0,10152,10152
287.351,-3.84578e-08,0,10144,10144
287.401,-3.86734e-08,0,10112,10112
287.451,-3.88761e-08,0,10160,10160
287.501,-3.90696e-08,0,10128,10128
287.551,-3.92578e-08,0,10128,10128
287.6,-3.94444e-08,0,10120,10120
287.65,-3.96326e-08,0,10128,10128
287.701,-3.98311e-08,0,10104,10104
287.751,-4.00315e-08,0,10112,10112
287.801,-4.02428e-08,0,10120,10120
287.851,-4.04681e-08,0,10104,10104
287.901,-4.07103e-08,0,10096,10096
287.95,-4.09713e-08,0,10104,10104
288,-4.12527e-08,0,10096,10096
288.051,-4.15646e-08,0,10112,10112
288.101,-4.18895e-08,0,10096,10096
288.151,-4.22351e-08,0,10080,10080
288.201,-4.25992e-08,0,10096,10096
288.251,-4.29786e-08,0,10096,10096
288.3,-4.33693e-08,0,10064,10064
288.35,-4.3767e-08,0,10072,10072
288.4,-4.41675e-08,0,10064,10064
288.451,-4.45784e-08,0,10028,10028
288.501,-4.49721e-08,0,9908,9908
288.551,-4.53567e-08,0,9804,9804
288.601,-4.57292e-08,0,9700,9700
288.65,-4.60868e-08,0,9680,9680
288.7,-4.6427e-08,0,9664,9664
288.75,-4.67473e-08,0,9664,9664
288.801,-4.70536e-08,0,9664,9664
288.851,-4.73261e-08,0,9680,9680
288.901,-4.75718e-08,0,9640,9640
288.951,-4.77889e-08,0,9640,9640
289.001,-4.79756e-08,0,9648,9648
289.05,-4.81303e-08,0,9632,9632
289.1,-4.82515e-08,0,9648,9648
289.151,-4.83404e-08,0,9648,9648
289.201,-4.83916e-08,0,9648,9648
289.251,-4.84094e-08,0,9632,9632
289.301,-4.83952e-08,0,9648,9648
289.351,-4.83512e-08,0,9632,9632
289.4,-4.82794e-08,0,9648,9648
289.45,-4.81823e-08,0,9564,9564
289.501,-4.80585e-08,0,9460,9460
289.551,-4.7918e-08,0,9332,9332
289.601,-4.77605e-08,0,9212,9212
289.651,-4.75886e-08,0,9108,9108
289.701,-4.74047e-08,0,9004,9004
289.75,-4.72105e-08,0,8884,8884
289.8,-4.7008e-08,0,8780,8780
289.85,-4.6799e-08,0,8644,8644
289.901,-4.6579e-08,0,8540,8540
289.951,-4.63623e-08,0,8436,8436
290.001,-4.61431e-08,0,8348,8348
290.051,-4.59247e-08,0,8292,8292
290.1,-4.57064e-08,0,8236,8236
290.152,-4.54791e-08,0,8192,8192
290.202,-4.52626e-08,0,8192,8192
290.252,-4.50481e-08,0,8192,8192
290.302,-4.48363e-08,0,8192,8192
290.352,-4.46277e-08,0,8192,8192
290.401,-4.44224e-08,0,8192,8192
290.451,-4.42206e-08,0,8192,8192
290.501,-4.40221e-08,0,8192,8192
290.551,-4.38266e-08,0,8192,8192
290.601,-4.36341e-08,0,8192,8192
290.65,-4.34447e-08,0,8192,8192
290.7,-4.32583e-08,0,8192,8192
290.753,-4.30642e-08,0,8192,8192
290.803,-4.28838e-08,0,8192,8192
290.853,-4.27059e-08,0,8192,8192
290.902,-4.25297e-08,0,8192,8192
290.952,-4.23548e-08,0,8192,8192
291.002,-4.21803e-08,0,8192,8192
291.052,-4.20058e-08,0,8192,8192
291.101,-4.18309e-08,0,8192,8192
291.151,-4.16552e-08,0,8192,8192
291.201,-4.14786e-08,0,8192,8192
291.251,-4.13006e-08,0,8192,8192
291.301,-4.11208e-08,0,8192,8192
291.35,-4.09385e-08,0,8192,8192
291.4,-4.0753e-08,0,8192,8192
291.45,-4.05635e-08,0,8192,8192
291.503,-4.03576e-08,0,8192,8192
291.553,-4.01576e-08,0,8192,8192
291.602,-3.99516e-08,0,8192,8192
291.652,-3.9739e-08,0,8192,8192
291.702,-3.95191e-08,0,8192,8192
291.752,-3.92913e-08,0,8192,8192
291.802,-3.90548e-08,0,8192,8192
291.851,-3.88087e-08,0,8192,8192
291.901,-3.8552e-08,0,8192,8192
291.951,-3.82836e-08,0,8192,8192
292.001,-3.80022e-08,0,8192,8192
292.051,-3.77061e-08,0,8192,8192
292.1,-3.73934e-08,0,8192,8192
292.15,-3.70621e-08,0,8192,8192
292.203,-3.66888e-08,0,8192,8192
292.253,-3.63131e-08,0,8192,8192
292.302,-3.5913e-08,0,8192,8192
292.352,-3.54867e-08,0,8192,8192
292.402,-3.50323e-08,0,8192,8192
292.452,-3.45476e-08,0,8192,8192
292.502,-3.40307e-08,0,8192,8192
292.551,-3.34792e-08,0,8192,8192
292.601,-3.28915e-08,0,8192,8192
292.651,-3.22661e-08,0,8192,8192
292.701,-3.16024e-08,0,8192,8192
292.751,-3.0901e-08,0,8192,8192
292.8,-3.01638e-08,0,8192,8192
292.85,-2.93938e-08,0,8192,8192
292.9,-2.85956e-08,0,8192,8192
292.953,-2.77253e-08,0,8192,8192
293.003,-2.68853e-08,0,8192,8192
293.052,-2.60332e-08,0,8192,8192
293.102,-2.51741e-08,0,8192,8192
293.152,-2.43127e-08,0,8192,8192
293.202,-2.34532e-08,0,8192,8192
293.252,-2.25995e-08,0,8192,8192
293.301,-2.17549e-08,0,8192,8192
293.351,-2.09224e-08,0,8192,8192
293.401,-2.01048e-08,0,8192,8192
293.451,-1.93045e-08,0,8192,8192
293.501,-1.85239e-08,0,8192,8192
293.55,-1.77657e-08,0,8192,8192
293.6,-1.70323e-08,0,8192,8192
293.653,-1.6286e-08,0,8192,8192
293.703,-1.56122e-08,0,8192,8192
293.752,-1.49704e-08,0,8192,8192
293.802,-1.43614e-08,0,8192,8192
293.852,-1.37852e-08,0,8192,8192
293.902,-1.32403e-08,0,8192,8192
293.952,-1.27243e-08,0,8192,8192
294.001,-1.22341e-08,0,8192,8192
294.051,-1.17659e-08,0,8192,8192
294.101,-1.13156e-08,0,8192,8192
294.151,-1.08791e-08,0,8192,8192
294.201,-1.04521e-08,0,8192,8192
294.25,-1.00303e-08,0,8192,8192
294.3,-9.60971e-09,0,8192,8192
294.35,-9.18627e-09,0,8192,8192
294.403,-8.73062e-09,0,8192,8192
294.453,-8.28965e-09,0,8192,8192
294.502,-7.83498e-09,0,8192,8192
294.552,-7.36363e-09,0,8192,8192
294.602,-6.87303e-09,0,8192,8192
294.652,-6.36112e-09,0,8192,8192
294.702,-5.82654e-09,0,8192,8192
294.751,-5.26883e-09,0,8192,8192
294.801,-4.68849e-09,0,8192,8192
294.851,-4.08706e-09,0,8192,8192
294.901,-3.46709e-09,0,8192,8192
294.951,-2.83196e-09,0,8192,8192
295,-2.18566e-09,0,8192,8192
295.05,-1.53258e-09,0,8192,8192
295.103,-8.38693e-10,0,8192,8192
295.153,-1.85794e-10,0,8192,8192
295.202,4.60374e-10,0,8192,8192
295.252,1.0958e-09,0,8192,8192
295.302,1.71675e-09,0,8192,8192
295.352,2.31983e-09,0,8192,8192
295.402,2.90189e-09,0,8192,8192
295.451,3.45998e-09,0,8192,8192
295.501,3.9913e-09,0,8192,8192
295.551,4.49307e-09,0,8192,8192
295.601,4.96253e-09,0,8192,8192
295.651,5.39694e-09,0,8192,8192
295.7,5.79352e-09,0,8192,8192
295.75,6.14945e-09,0,8192,8192
295.8,6.46184e-09,0,8192,8192
295.853,6.742e-09,0,8192,8192
295.903,6.95625e-09,0,8192,8192
295.952,7.12017e-09,0,8192,8192
296.002,7.2341e-09,0,8192,8192
296.052,7.30053e-09,0,8192,8192
296.102,7.32404e-09,0,8192,8192
296.152,7.3107e-09,0,8192,8192
296.201,7.26722e-09,0,8192,8192
296.251,7.19999e-09,0,8192,8192
296.301,7.1145e-09,0,8192,8192
296.351,7.01519e-09,0,8192,8192
296.401,6.90549e-09,0,8192,8192
296.45,6.7881e-09,0,8192,8192
296.5,6.66526e-09,0,8192,8192
296.553,6.53137e-09,0,8192,8192
296.603,6.40312e-09,0,8192,8192
296.652,6.27471e-09,0,8192,8192
296.702,6.1476e-09,0,8192,8192
296.752,6.02335e-09,0,8192,8192
296.802,5.90371e-09,0,8192,8192
296.852,5.79082e-09,0,8192,8192
296.901,5.68708e-09,0,8192,8192
296.951,5.59486e-09,0,8192,8192
297.001,5.51598e-09,0,8192,8192
297.051,5.45119e-09,0,8192,8192
297.101,5.40001e-09,0,8192,8192
297.15,5.36086e-09,0,8192,8192
297.2,5.33163e-09,0,8192,8192
297.25,5.3102e-09,0,8192,8192
297.303,5.2942e-09,0,8192,8192
297.353,5.28431e-09,0,8192,8192
297.402,5.27892e-09,0,8192,8192
297.452,5.27777e-09,0,8192,8192
297.502,5.2807e-09,0,8192,8192
297.552,5.28748e-09,0,8192,8192
297.602,5.2977e-09,0,8192,8192
297.651,5.3107e-09,0,8192,8192
297.701,5.32552e-09,0,8192,8192
297.751,5.34086e-09,0,8192,8192
297.801,5.35513e-09,0,8192,8192
297.851,5.36651e-09,0,8192,8192
297.9,5.37309e-09,0,8192,8192
297.95,5.37307e-09,0,8192,8192
298.003,5.36426e-09,0,8192,8192
298.053,5.34689e-09,0,8192,8192
298.102,5.32083e-09,0,8192,8192
298.152,5.28708e-09,0,8192,8192
298.202,5.24732e-09,0,8192,8192
298.252,5.20361e-09,0,8192,8192
298.302,5.15807e-09,0,8192,8192
298.351,5.11251e-09,0,8192,8192
298.401,5.06831e-09,0,8192,8192
298.451,5.02632e-09,0,8192,8192
298.501,4.98697e-09,0,8192,8192
298.551,4.95033e-09,0,8192,8192
298.6,4.91632e-09,0,8192,8192
298.65,4.8848e-09,0,8192,8192
298.703,4.85404e-09,0,8192,8192
298.753,4.82757e-09,0,8192,8192
298.803,4.8039e-09,0,8192,8192
298.852,4.78362e-09,0,8192,8192
298.902,4.7675e-09,0,8192,8192
298.952,4.75641e-09,0,8192,8192
299.002,4.75107e-09,0,8192,8192
299.052,4.75187e-09,0,8192,8192
299.101,4.75866e-09,0,8192,8192
299.151,4.77072e-09,0,8192,8192
299.201,4.78684e-09,0,8192,8192
299.251,4.8055e-09,0,8192,8192
299.3,4.82514e-09,0,8192,8192
299.35,4.84443e-09,0,8192,8192
299.4,4.86233e-09,0,8192,8192
299.453,4.87907e-09,0,8192,8192
299.503,4.89249e-09,0,8192,8192
299.552,4.90354e-09,0,8192,8192
299.602,4.91232e-09,0,8192,8192
299.652,4.91897e-09,0,8192,8192
299.702,4.92359e-09,0,8192,8192
299.752,4.92629e-09,0,8192,8192
299.801,4.92709e-09,0,8192,8192
299.851,4.92601e-09,0,8192,8192
299.901,4.92308e-09,0,8192,8192
299.951,4.91831e-09,0,8192,8192
300.001,4.91175e-09,0,8192,8192
300.05,4.90344e-09,0,8192,8192
300.1,4.89342e-09,0,8192,8192
300.153,4.88097e-09,0,8192,8192
300.203,4.86749e-09,0,8192,8192
300.252,4.85232e-09,0,8192,8192
300.302,4.83542e-09,0,8192,8192
300.352,4.81677e-09,0,8192,8192
300.402,4.79635e-09,0,8192,8192
300.452,4.77414e-09,0,8192,8192
300.501,4.75015e-09,0,8192,8192
300.551,4.72439e-09,0,8192,8192
300.601,4.6969e-09,0,8192,8192
300.651,4.66774e-09,0,8192,8192
300.701,4.63698e-09,0,8192,8192
300.75,4.60471e-09,0,8192,8192
300.8,4.57105e-09,0,8192,8192
300.85,4.5361e-09,0,8192,8192
300.903,4.49783e-09,0,8192,8192
300.953,4.46064e-09,0,8192,8192
301.002,4.42256e-09,0,8192,8192
301.052,4.38373e-09,0,8192,8192
301.102,4.34427e-09,0,8192,8192
301.152,4.30432e-09,0,8192,8192
301.202,4.26396e-09,0,8192,8192
301.251,4.22331e-09,0,8192,8192
301.301,4.18245e-09,0,8192,8192
301.351,4.14144e-09,0,8192,8192
301.401,4.10032e-09,0,8192,8192
301.451,4.05915e-09,0,8192,8192
301.5,4.01794e-09,0,8192,8192
301.55,3.97671e-09,0,8192,8192
301.603,3.93303e-09,0,8192,8192
301.653,3.89174e-09,0,8192,8192
301.702,3.8504e-09,0,8192,8192
301.752,3.809e-09,0,8192,8192
301.802,3.76751e-09,0,8192,8192
301.852,3.7259e-09,0,8192,8192
301.902,3.68413e-09,0,8192,8192
301.951,3.64217e-09,0,8192,8192
302.001,3.6e-09,0,8192,8192
302.051,3.55756e-09,0,8192,8192
302.101,3.51482e-09,0,8192,8192
302.151,3.47176e-09,0,8192,8192
302.2,3.42834e-09,0,8192,8192
302.25,3.38454e-09,0,8192,8192
302.3,3.34033e-09,0,8192,8192
302.353,3.29307e-09,0,8192,8192
302.403,3.24797e-09,0,8192,8192
302.452,3.20244e-09,0,8192,8192
302.502,3.15646e-09,0,8192,8192
302.552,3.11004e-09,0,8192,8192
302.602,3.06318e-09,0,8192,8192
302.652,3.01591e-09,0,8192,8192
302.701,2.96823e-09,0,8192,8192
302.751,2.92018e-09,0,8192,8192
302.801,2.87178e-09,0,8192,8192
302.851,2.82306e-09,0,8192,8192
302.901,2.77405e-09,0,8192,8192
302.95,2.72481e-09,0,8192,8192
303,2.67536e-09,0,8192,8192
303.053,2.62285e-09,0,8192,8192
303.103,2.57315e-09,0,8192,8192
303.152,2.5234e-09,0,8192,8192
303.202,2.47366e-09,0,8192,8192
303.252,2.42398e-09,0,8192,8192
303.302,2.37441e-09,0,8192,8192
303.352,2.32502e-09,0,8192,8192
303.401,2.27585e-09,0,8192,8192
303.451,2.22694e-09,0,8192,8192
303.501,2.17835e-09,0,8192,8192
303.551,2.13009e-09,0,8192,8192
303.601,2.08222e-09,0,8192,8192
303.65,2.03475e-09,0,8192,8192
303.7,1.9877e-09,0,8192,8192
303.75,1.9411e-09,0,8192,8192
303.803,1.89224e-09,0,8192,8192
303.853,1.84657e-09,0,8192,8192
303.902,1.80135e-09,0,8192,8192
303.952,1.7566e-09,0,8192,8192
304.002,1.71231e-09,0,8192,8192
304.052,1.66846e-09,0,8192,8192
304.102,1.62506e-09,0,8192,8192
304.151,1.58209e-09,0,8192,8192
304.201,1.53954e-09,0,8192,8192
304.251,1.4974e-09,0,8192,8192
304.301,1.45565e-09,0,8192,8192
304.351,1.41427e-09,0,8192,8192
304.4,1.37325e-09,0,8192,8192
304.45,1.33257e-09,0,8192,8192
304.503,1.28985e-09,0,8192,8192
304.553,1.24981e-09,0,8192,8192
304.602,1.21007e-09,0,8192,8192
304.652,1.17061e-09,0,8192,8192
304.702,1.13141e-09,0,8192,8192
304.752,1.09247e-09,0,8192,8192
304.802,1.05378e-09,0,8192,8192
304.851,1.01534e-09,0,8192,8192
304.901,9.77134e-10,0,8192,8192
304.951,9.39166e-10,0,8192,8192
