250,0,0,8192,8192
250.003,0,0,8192,8192
250.053,0,0,8192,8192
250.103,0,0,8192,8192
250.152,0,0,8192,8192
250.202,2.77556e-17,0,8192,8192
250.252,0,0,8192,8192
250.302,0,0,8192,8192
250.352,-2.77556e-17,0,8192,8192
250.401,-2.77556e-17,0,8192,8192
250.451,-2.77556e-17,0,8192,8192
250.501,-2.77556e-17,0,8192,8192
250.551,-2.77556e-17,0,8192,8192
250.6,-2.77556e-17,0,8192,8192
250.65,-2.77556e-17,0,8192,8192
250.7,-2.77556e-17,0,8192,8192
250.753,-2.77556e-17,0,8192,8192
250.803,-2.77556e-17,0,8192,8192
250.852,-2.77556e-17,0,8192,8192
250.902,-2.77556e-17,0,8192,8192
250.952,-2.77556e-17,0,8192,8192
251.002,-2.77556e-17,0,8192,8192
251.052,-2.77556e-17,0,8192,8192
251.101,-2.77556e-17,0,8192,8192
251.151,-2.77556e-17,0,8192,8192
251.201,-2.77556e-17,0,8192,8192
251.251,-2.77556e-17,0,8192,8192
251.301,-2.77556e-17,0,8192,8192
251.35,-2.77556e-17,0,8192,8192
251.4,-2.77556e-17,0,8192,8192
251.453,-2.77556e-17,0,8192,8192
251.503,-2.77556e-17,0,8192,8192
251.553,0,0,8192,8192
251.602,2.77556e-17,0,8192,8192
251.652,2.77556e-17,0,8192,8192
251.702,5.55112e-17,0,8192,8192
251.752,5.55112e-17,0,8192,8192
251.801,0,0,8192,8192
251.851,0,0,8192,8192
251.901,0,0,8192,8192
251.951,0,0,8192,8192
252.001,0,0,8192,8192
252.05,0,0,8192,8192
252.1,0,0,8192,8192
252.15,2.77556e-17,0,8192,8192
252.203,2.77556e-17,0,8192,8192
252.253,-2.77556e-17,0,8192,8192
252.302,-2.77556e-17,0,8192,8192
252.352,-2.77556e-17,0,8192,8192
252.402,-2.77556e-17,0,8192,8192
252.452,-2.77556e-17,0,8192,8192
252.502,-2.77556e-17,0,8192,8192
252.551,-2.77556e-17,0,8192,8192
252.601,-2.77556e-17,0,8192,8192
252.651,-2.77556e-17,0,8192,8192
252.701,-2.77556e-17,0,8192,8192
252.751,-2.77556e-17,0,8192,8192
252.8,-2.77556e-17,0,8192,8192
252.85,-2.77556e-17,0,8192,8192
252.903,-2.77556e-17,0,8192,8192
252.953,-2.77556e-17,0,8192,8192
253.002,-2.77556e-17,0,8192,8192
253.052,2.77556e-17,0,8192,8192
253.102,0,0,8192,8192
253.152,2.77556e-17,0,8192,8192
253.202,2.77556e-17,0,8192,8192
253.251,2.77556e-17,0,8192,8192
253.301,2.77556e-17,0,8192,8192
253.351,2.77556e-17,0,8192,8192
253.401,2.77556e-17,0,8192,8192
253.451,2.77556e-17,0,8192,8192
253.5,2.77556e-17,0,8192,8192
253.55,2.77556e-17,0,8192,8192
253.6,2.77556e-17,0,8192,8192
253.653,2.77556e-17,0,8192,8192
253.703,2.77556e-17,0,8192,8192
253.752,5.55112e-17,0,8192,8192
253.802,5.55112e-17,0,8192,8192
253.852,5.55112e-17,0,8192,8192
253.902,5.55112e-17,0,8192,8192
253.952,2.77556e-17,0,8192,8192
254.001,2.77556e-17,0,8192,8192
254.051,5.55112e-17,0,8192,8192
254.101,5.55112e-17,0,8192,8192
254.151,5.55112e-17,0,8192,8192
254.201,5.55112e-17,0,8192,8192
254.25,2.77556e-17,0,8192,8192
254.3,2.77556e-17,0,8192,8192
254.353,2.77556e-17,0,8192,8192
254.403,2.77556e-17,0,8192,8192
254.452,2.77556e-17,0,8192,8192
254.502,2.77556e-17,0,8192,8192
254.552,2.77556e-17,0,8192,8192
254.602,2.77556e-17,0,8192,8192
254.652,0,0,8192,8192
254.701,2.77556e-17,0,8192,8192
254.751,0,0,8192,8192
254.801,0,0,8192,8192
254.851,0,0,8192,8192
254.901,0,0,8192,8192
254.95,0,0,8192,8192
255,0,0,8192,8192
255.05,0,0,8192,8192
255.103,0,0,8192,8192
255.153,2.77556e-17,0,8192,8192
255.202,2.77556e-17,0,8192,8192
255.252,2.77556e-17,0,8192,8192
255.302,2.77556e-17,0,8192,8192
255.352,2.77556e-17,0,8192,8192
255.402,2.77556e-17,0,8192,8192
255.451,2.77556e-17,0,8192,8192
255.501,2.77556e-17,0,8192,8192
255.551,2.77556e-17,0,8192,8192
255.601,0,0,8192,8192
255.651,2.77556e-17,0,8192,8192
255.7,0,0,8192,8192
255.75,2.77556e-17,0,8192,8192
255.803,0,0,8192,8192
255.853,0,0,8192,8192
255.902,2.77556e-17,0,8192,8192
255.952,2.77556e-17,0,8192,8192
256.002,0,0,8192,8192
256.052,0,0,8192,8192
256.102,0,0,8192,8192
256.151,0,0,8192,8192
256.201,0,0,8192,8192
256.251,0,0,8192,8192
256.301,2.77556e-17,0,8192,8192
256.351,0,0,8192,8192
256.4,5.55112e-17,0,8192,8192
256.45,5.55112e-17,0,8192,8192
256.5,5.55112e-17,0,8192,8192
256.553,2.77556e-17,0,8192,8192
256.603,2.77556e-17,0,8192,8192
256.652,2.77556e-17,0,8192,8192
256.702,2.77556e-17,0,8192,8192
256.752,2.77556e-17,0,8192,8192
256.802,2.77556e-17,0,8192,8192
256.852,-2.77556e-17,0,8192,8192
256.901,-2.77556e-17,0,8192,8192
256.951,-2.77556e-17,0,8192,8192
257.001,-5.55112e-17,0,8192,8192
257.051,-5.55112e-17,0,8192,8192
257.101,-5.55112e-17,0,8192,8192
257.15,-2.77556e-17,0,8192,8192
257.2,-2.77556e-17,0,8192,8192
257.253,-2.77556e-17,0,8192,8192
257.303,-2.77556e-17,0,8192,8192
257.352,-2.77556e-17,0,8192,8192
257.402,-2.77556e-17,0,8192,8192
257.452,-2.77556e-17,0,8192,8192
257.502,-2.77556e-17,0,8192,8192
257.552,-2.77556e-17,0,8192,8192
257.601,-2.77556e-17,0,8192,8192
257.651,-2.77556e-17,0,8192,8192
257.701,-2.77556e-17,0,8192,8192
257.751,-2.77556e-17,0,8192,8192
257.801,-2.77556e-17,0,8192,8192
257.85,-2.77556e-17,0,8192,8192
257.9,-2.77556e-17,0,8192,8192
257.95,-2.77556e-17,0,8192,8192
258.003,-2.77556e-17,0,8192,8192
258.053,-2.77556e-17,0,8192,8192
258.102,-2.77556e-17,0,8192,8192
258.152,-2.77556e-17,0,8192,8192
258.202,-2.77556e-17,0,8192,8192
258.252,-2.77556e-17,0,8192,8192
258.302,-2.77556e-17,0,8192,8192
258.351,-2.77556e-17,0,8192,8192
258.401,-2.77556e-17,0,8192,8192
258.451,-2.77556e-17,0,8192,8192
258.501,-2.77556e-17,0,8192,8192
258.551,-2.77556e-17,0,8192,8192
258.6,-2.77556e-17,0,8192,8192
258.65,-2.77556e-17,0,8192,8192
258.703,-2.77556e-17,0,8192,8192
258.753,-2.77556e-17,0,8192,8192
258.802,-2.77556e-17,0,8192,8192
258.852,-2.77556e-17,0,8192,8192
258.902,-2.77556e-17,0,8192,8192
258.952,-2.77556e-17,0,8192,8192
259.002,-2.77556e-17,0,8192,8192
259.051,-2.77556e-17,0,8192,8192
259.101,-2.77556e-17,0,8192,8192
259.151,-2.77556e-17,0,8192,8192
259.201,-2.77556e-17,0,8192,8192
259.251,2.77556e-17,0,8192,8192
259.3,5.55112e-17,0,8192,8192
259.35,5.55112e-17,0,8192,8192
259.403,5.55112e-17,0,8192,8192
259.453,5.55112e-17,0,8192,8192
259.503,5.55112e-17,0,8192,8192
259.552,5.55112e-17,0,8192,8192
259.602,5.55112e-17,0,8192,8192
259.652,5.55112e-17,0,8192,8192
259.702,5.55112e-17,0,8192,8192
259.751,5.55112e-17,0,8192,8192
259.801,5.55112e-17,0,8192,8192
259.851,5.55112e-17,0,8192,8192
259.901,5.55112e-17,0,8192,8192
259.951,5.55112e-17,0,8192,8192
260,2.77556e-17,0,8192,8192
260.05,2.77556e-17,0,8192,8192
260.1,2.77556e-17,0,8192,8192
260.153,2.77556e-17,0,8192,8192
260.203,2.77556e-17,0,8192,8192
260.252,5.55112e-17,0,8192,8192
260.302,5.55112e-17,0,8192,8192
260.352,2.77556e-17,0,8192,8192
260.402,5.55112e-17,0,8192,8192
260.452,5.55112e-17,0,8192,8192
260.501,5.55112e-17,0,8192,8192
260.551,5.55112e-17,0,8192,8192
260.601,5.55112e-17,0,8192,8192
260.651,5.55112e-17,0,8192,8192
260.701,5.55112e-17,0,8192,8192
260.75,5.55112e-17,0,8192,8192
260.8,5.55112e-17,0,8192,8192
260.853,2.77556e-17,0,8192,8192
260.903,2.77556e-17,0,8192,8192
260.952,5.55112e-17,0,8192,8192
261.002,5.55112e-17,0,8192,8192
261.052,5.55112e-17,0,8192,8192
261.102,2.77556e-17,0,8192,8192
261.152,2.77556e-17,0,8192,8192
261.201,2.77556e-17,0,8192,8192
261.251,2.77556e-17,0,8192,8192
261.301,2.77556e-17,0,8192,8192
261.351,2.77556e-17,0,8192,8192
261.401,2.77556e-17,0,8192,8192
261.45,2.77556e-17,0,8192,8192
261.5,2.77556e-17,0,8192,8192
261.55,2.77556e-17,0,8192,8192
261.603,2.77556e-17,0,8192,8192
261.653,2.77556e-17,0,8192,8192
261.702,2.77556e-17,0,8192,8192
261.752,2.77556e-17,0,8192,8192
261.802,2.77556e-17,0,8192,8192
261.852,2.77556e-17,0,8192,8192
261.902,2.77556e-17,0,8192,8192
261.951,2.77556e-17,0,8192,8192
262.001,2.77556e-17,0,8192,8192
262.051,2.77556e-17,0,8192,8192
262.101,2.77556e-17,0,8192,8192
262.151,0,0,8192,8192
262.2,0,0,8192,8192
262.25,0,0,8192,8192
262.303,-2.77556e-17,0,8192,8192
262.353,-2.77556e-17,0,8192,8192
262.402,-2.77556e-17,0,8192,8192
262.452,-2.77556e-17,0,8192,8192
262.502,-2.77556e-17,0,8192,8192
262.552,-2.77556e-17,0,8192,8192
262.602,2.77556e-17,0,8192,8192
262.651,2.77556e-17,0,8192,8192
262.701,2.77556e-17,0,8192,8192
262.751,2.77556e-17,0,8192,8192
262.801,2.77556e-17,0,8192,8192
262.851,2.77556e-17,0,8192,8192
262.9,2.77556e-17,0,8192,8192
262.95,0,0,8192,8192
263,0,0,8192,8192
263.053,0,0,8192,8192
263.103,2.77556e-17,0,8192,8192
263.152,2.77556e-17,0,8192,8192
263.202,2.77556e-17,0,8192,8192
263.252,0,0,8192,8192
263.302,0,0,8192,8192
263.352,2.77556e-17,0,8192,8192
263.401,2.77556e-17,0,8192,8192
263.451,0,0,8192,8192
263.501,0,0,8192,8192
263.551,2.77556e-17,0,8192,8192
263.601,2.77556e-17,0,8192,8192
263.65,0,0,8192,8192
263.7,0,0,8192,8192
263.753,2.77556e-17,0,8192,8192
263.803,0,0,8192,8192
263.852,0,0,8192,8192
263.902,0,0,8192,8192
263.952,0,0,8192,8192
264.002,-2.77556e-17,0,8192,8192
264.052,-2.77556e-17,0,8192,8192
264.101,-8.32667e-17,0,8192,8192
264.151,-8.32667e-17,0,8192,8192
264.201,-8.32667e-17,0,8192,8192
264.251,-8.32667e-17,0,8192,8192
264.301,-8.32667e-17,0,8192,8192
264.35,-8.32667e-17,0,8192,8192
264.4,-8.32667e-17,0,8192,8192
264.45,-5.55112e-17,0,8192,8192
264.503,-2.77556e-17,0,8192,8192
264.553,-2.77556e-17,0,8192,8192
264.602,-2.77556e-17,0,8192,8192
264.652,-2.77556e-17,0,8192,8192
264.702,-2.77556e-17,0,8192,8192
264.752,-2.77556e-17,0,8192,8192
264.802,-2.77556e-17,0,8192,8192
264.851,-2.77556e-17,0,8192,8192
264.901,-2.77556e-17,0,8192,8192
264.951,-5.55112e-17,0,8192,8192
265.001,-2.77556e-17,0,8192,8192
265.051,-5.55112e-17,0,8192,8192
265.1,-5.55112e-17,0,8192,8192
265.15,-5.55112e-17,0,8192,8192
265.203,-5.55112e-17,0,8192,8192
265.253,-5.55112e-17,0,8192,8192
265.302,-2.77556e-17,0,8192,8192
265.352,-5.55112e-17,0,8192,8192
265.402,-2.77556e-17,0,8192,8192
265.452,-5.55112e-17,0,8192,8192
265.502,-5.55112e-17,0,8192,8192
265.551,-2.77556e-17,0,8192,8192
265.601,0,0,8192,8192
265.651,0,0,8192,8192
265.701,0,0,8192,8192
265.751,0,0,8192,8192
265.8,0,0,8192,8192
265.85,0,0,8192,8192
265.9,0,0,8192,8192
265.953,0,0,8192,8192
266.003,0,0,8192,8192
266.052,0,0,8192,8192
266.102,0,0,8192,8192
266.152,2.77556e-17,0,8192,8192
266.202,0,0,8192,8192
266.252,0,0,8192,8192
266.301,0,0,8192,8192
266.351,0,0,8192,8192
266.401,-2.77556e-17,0,8192,8192
266.451,-2.77556e-17,0,8192,8192
266.501,0,0,8192,8192
266.55,0,0,8192,8192
266.6,0,0,8192,8192
266.653,0,0,8192,8192
266.703,0,0,8192,8192
266.752,0,0,8192,8192
266.802,0,0,8192,8192
266.852,0,0,8192,8192
266.902,0,0,8192,8192
266.952,0,0,8192,8192
267.001,0,0,8192,8192
267.051,0,0,8192,8192
267.101,-2.77556e-17,0,8192,8192
267.151,-2.77556e-17,0,8192,8192
267.201,0,0,8192,8192
267.25,0,0,8192,8192
267.3,0,0,8192,8192
267.353,0,0,8192,8192
267.403,0,0,8192,8192
267.453,0,0,8192,8192
267.502,2.77556e-17,0,8192,8192
267.552,2.77556e-17,0,8192,8192
267.602,0,0,8192,8192
267.652,0,0,8192,8192
267.702,0,0,8192,8192
267.751,0,0,8192,8192
267.801,0,0,8192,8192
267.851,0,0,8192,8192
267.901,0,0,8192,8192
267.95,2.77556e-17,0,8192,8192
268,0,0,8192,8192
268.05,0,0,8192,8192
268.1,0,0,8364,8364
268.15,0,0,8400,8400
268.2,0,0,8396,8396
268.251,0,0,8444,8444
268.301,0,0,8540,8540
268.351,0,0,8536,8536
268.401,0,0,8480,8480
268.451,0,0,8456,8456
268.5,0,0,8416,8416
268.55,0,0,8424,8424
268.601,0,0,8360,8360
268.651,0,0,8312,8312
268.701,0,0,8248,8248
268.751,0,0,8192,8192
268.8,-5.55112e-17,0,8192,8192
268.85,-5.55112e-17,0,8192,8192
268.9,-5.55112e-17,0,8192,8192
268.953,-5.55112e-17,0,8192,8192
269.003,-2.77556e-17,0,8192,8192
269.052,-2.77556e-17,0,8192,8192
269.102,-5.55112e-17,0,8192,8192
269.152,-5.55112e-17,0,8192,8192
269.202,-8.32667e-17,0,8192,8192
269.252,-5.55112e-17,0,8192,8192
269.301,-5.55112e-17,0,8192,8192
269.351,-8.32667e-17,0,8192,8192
269.401,-8.32667e-17,0,8192,8192
269.451,-8.32667e-17,0,8284,8284
269.501,-8.32667e-17,0,8380,8380
269.551,-8.32667e-17,0,8396,8396
269.6,-8.32667e-17,0,8524,8524
269.65,-8.32667e-17,0,8676,8676
269.7,-8.32667e-17,0,8772,8772
269.751,-8.32667e-17,0,8908,8908
269.801,-8.32667e-17,0,9076,9076
269.851,-8.32667e-17,0,9204,9204
269.901,-8.32667e-17,0,9356,9356
269.951,-8.32667e-17,0,9476,9476
270,-8.32667e-17,0,9628,9628
270.05,-8.32667e-17,0,9796,9796
270.101,-8.32667e-17,0,9884,9884
270.151,-8.32667e-17,0,10044,10044
270.201,-8.32667e-17,0,10204,10204
270.251,-8.32667e-17,0,10372,10372
270.301,-8.32667e-17,0,10556,10556
270.35,-8.32667e-17,0,10692,10692
270.4,-8.32667e-17,0,10884,10884
270.451,-8.32667e-17,0,11012,11012
270.501,-8.32667e-17,0,11188,11188
270.551,-8.32667e-17,0,11348,11348
270.601,-8.32667e-17,0,11508,11508
270.651,-8.32667e-17,0,11660,11660
270.7,-8.32667e-17,0,11836,11836
270.75,-8.32667e-17,0,11988,11988
270.8,-8.32667e-17,0,12172,12172
270.851,-8.32667e-17,0,12324,12324
270.901,-8.32667e-17,0,12500,12500
270.951,-8.32667e-17,0,12660,12660
271.001,-8.32667e-17,0,12828,12828
271.05,-8.32667e-17,0,12980,12980
271.1,-8.32667e-17,0,13148,13148
271.15,-8.32667e-17,0,13284,13284
271.201,-8.32667e-17,0,13468,13468
271.251,-8.32667e-17,0,13636,13636
271.301,-8.32667e-17,0,13812,13812
271.351,-8.32667e-17,0,13940,13940
271.401,-8.32667e-17,0,14100,14100
271.45,-8.32667e-17,0,14268,14268
271.5,-8.32667e-17,0,14436,14436
271.551,-8.32667e-17,0,14564,14564
271.601,-8.32667e-17,0,14684,14684
271.651,-8.32667e-17,0,14852,14852
271.701,-8.32667e-17,0,15004,15004
271.751,-5.55112e-17,0,15108,15108
271.8,-5.55112e-17,0,15276,15276
271.85,-5.55112e-17,0,15428,15428
271.901,-5.55112e-17,0,15612,15612
271.951,-5.55112e-17,0,15764,15764
272.001,-5.55112e-17,0,15908,15908
272.051,-5.55112e-17,0,16044,16044
272.101,-5.55112e-17,0,16228,16228
272.15,-5.55112e-17,0,16308,16308
272.2,-5.55112e-17,0,16452,16452
272.251,-5.55112e-17,0,16620,16620
272.301,-5.55112e-17,0,16772,16772
272.351,5.55112e-17,0,16948,16948
272.401,2.22045e-16,0,17084,17084
272.451,3.88578e-16,0,17244,17244
272.5,3.60822e-16,0,17412,17412
272.55,-5.77316e-15,0,17572,17572
272.6,-5.65659e-14,0,17716,17716
272.651,-3.39312e-13,0,17884,17884
272.701,-1.45395e-12,0,18028,18028
272.751,-4.99259e-12,0,18164,18164
272.801,-1.4098e-11,0,18356,18356
272.85,-3.32253e-11,0,18452,18452
272.9,-6.59589e-11,0,18636,18636
272.95,-1.10865e-10,0,18796,18796
273.001,-1.59136e-10,0,18940,18940
273.051,-1.89997e-10,0,19092,19092
273.101,-1.87858e-10,0,19220,19220
273.151,-1.47161e-10,0,19372,19372
273.201,-7.94349e-11,0,19532,19532
273.25,-8.21951e-12,0,19668,19668
273.3,4.4269e-11,0,19860,19860
273.351,6.98522e-11,0,20028,20028
273.401,7.50592e-11,0,20132,20132
273.451,7.63425e-11,0,20332,20332
273.501,8.40495e-11,0,20428,20428
273.551,9.73308e-11,0,20452,20452
273.6,1.079e-10,0,20628,20628
273.65,1.09282e-10,0,20752,20752
273.701,1.02878e-10,0,20736,20736
273.751,9.72937e-11,0,20640,20640
273.801,9.93607e-11,0,20728,20728
273.851,1.08868e-10,0,20704,20704
273.901,1.18966e-10,0,20744,20744
273.95,1.22289e-10,0,20864,20864
274,1.17283e-10,0,21064,21064
274.05,1.09521e-10,0,21264,21264
274.101,1.07031e-10,0,21520,21520
274.151,1.13179e-10,0,21680,21680
274.201,1.22294e-10,0,21784,21784
274.251,1.23827e-10,0,21864,21864
274.3,1.1157e-10,0,21768,21768
274.35,9.27464e-11,0,21888,21888
274.4,8.82955e-11,0,21848,21848
274.451,1.20718e-10,0,21900,21900
274.501,1.85566e-10,0,21916,21916
274.551,2.41239e-10,0,21996,21996
274.601,2.18135e-10,0,21964,21964
274.651,6.32507e-11,0,21860,21860
274.7,-1.63603e-10,0,21924,21924
274.75,-1.82126e-10,0,21764,21764
274.801,8.08081e-10,0,21628,21628
274.851,4.25663e-09,0,21444,21444
274.901,9.55959e-09,0,21228,21228
274.951,1.57188e-08,0,21044,21044
275.001,2.15782e-08,0,20948,20948
275.05,2.63398e-08,0,20820,20820
275.1,2.98458e-08,0,20820,20820
275.151,3.27319e-08,0,20724,20724
275.201,3.59752e-08,0,20748,20748
275.251,4.09066e-08,0,20676,20676
275.301,4.83455e-08,0,20660,20660
275.351,5.8429e-08,0,20556,20556
275.4,7.09002e-08,0,20436,20436
275.45,8.57203e-08,0,20364,20364
275.501,1.04066e-07,0,20188,20188
275.551,1.26081e-07,0,20012,20012
275.601,1.53525e-07,0,19908,19908
275.651,1.8732e-07,0,19796,19796
275.701,2.27649e-07,0,19796,19796
275.75,2.73726e-07,0,19700,19700
275.801,3.24781e-07,0,19460,19460
275.851,3.77779e-07,0,19460,19460
275.901,4.32667e-07,0,19324,19324
275.95,4.88101e-07,0,19260,19260
276.001,5.48374e-07,0,19108,19108
276.051,6.11469e-07,0,19052,19052
276.101,6.73451e-07,0,19012,19012
276.15,7.32388e-07,0,18916,18916
276.201,7.86448e-07,0,18912,18912
276.251,8.29635e-07,0,18832,18832
276.301,8.62316e-07,0,18856,18856
276.351,8.84905e-07,0,18800,18800
276.4,8.98573e-07,0,18776,18776
276.451,9.06183e-07,0,18712,18712
276.501,9.08957e-07,0,18696,18696
276.551,9.08395e-07,0,18688,18688
276.6,9.03975e-07,0,18688,18688
276.651,8.95106e-07,0,18640,18640
276.701,8.81408e-07,0,18616,18616
276.751,8.61475e-07,0,18608,18608
276.801,8.34324e-07,0,18552,18552
276.851,7.99167e-07,0,18488,18488
276.9,7.57386e-07,0,18472,18472
276.951,7.07495e-07,0,18448,18448
277.002,6.52967e-07,0,18416,18416
277.051,5.9838e-07,0,18312,18312
277.101,5.44053e-07,0,18296,18296
277.151,4.9214e-07,0,18224,18224
277.201,4.43648e-07,0,18200,18200
277.25,4.00256e-07,0,18208,18208
277.301,3.58713e-07,0,18192,18192
277.351,3.20042e-07,0,18208,18208
277.401,2.84818e-07,0,18224,18224
277.452,2.50236e-07,0,18392,18392
277.501,2.18833e-07,0,18552,18552
277.551,1.89595e-07,0,18864,18864
277.601,1.64302e-07,0,19056,19056
277.651,1.4378e-07,0,19184,19184
277.702,1.27618e-07,0,19240,19240
277.75,1.1451e-07,0,19144,19144
277.8,1.01541e-07,0,19072,19072
277.851,8.80996e-08,0,19008,19008
277.902,7.44048e-08,0,19072,19072
277.951,6.24745e-08,0,19120,19120
278.001,5.26428e-08,0,19152,19152
278.05,4.57852e-08,0,19232,19232
278.101,4.08188e-08,0,19312,19312
278.151,3.68385e-08,0,19352,19352
278.201,3.26033e-08,0,19408,19408
278.251,2.73613e-08,0,19432,19432
278.3,2.12784e-08,0,19448,19448
278.351,1.5189e-08,0,19372,19372
278.401,1.06973e-08,0,19396,19396
278.45,8.1903e-09,0,19348,19348
278.501,7.41263e-09,0,19268,19268
278.551,7.46609e-09,0,19172,19172
278.601,7.69603e-09,0,19028,19028
278.652,7.92269e-09,0,18908,18908
278.701,8.08809e-09,0,18756,18756
278.751,8.18169e-09,0,18660,18660
278.801,8.20761e-09,0,18580,18580
278.85,8.16686e-09,0,18516,18516
278.901,8.05036e-09,0,18428,18428
278.95,7.87669e-09,0,18324,18324
279.001,7.66822e-09,0,18212,18212
279.051,7.47242e-09,0,18108,18108
279.101,7.3227e-09,0,17956,17956
279.151,7.22973e-09,0,17836,17836
279.201,7.18535e-09,0,17732,17732
279.251,7.17319e-09,0,17604,17604
279.301,7.17821e-09,0,17460,17460
279.35,7.19129e-09,0,17348,17348
279.401,7.20788e-09,0,17204,17204
279.451,7.22541e-09,0,17076,17076
279.5,7.24278e-09,0,16980,16980
279.551,7.26088e-09,0,16844,16844
279.601,7.2791e-09,0,16756,16756
279.651,7.29728e-09,0,16660,16660
279.701,7.31524e-09,0,16612,16612
279.75,7.33294e-09,0,16548,16548
279.8,7.35026e-09,0,16732,16732
279.85,7.36702e-09,0,16852,16852
279.901,7.38349e-09,0,16868,16868
279.951,7.39874e-09,0,16996,16996
280.001,7.41397e-09,0,17252,17252
280.051,7.43128e-09,0,17380,17380
280.101,7.45421e-09,0,17540,17540
280.15,7.48732e-09,0,17644,17644
280.2,7.53533e-09,0,17796,17796
280.251,7.60461e-09,0,17940,17940
280.301,7.69415e-09,0,18084,18084
280.351,7.80736e-09,0,18212,18212
280.401,7.94525e-09,0,18324,18324
280.451,8.10898e-09,0,18452,18452
280.5,8.30062e-09,0,18596,18596
280.55,8.52329e-09,0,18732,18732
280.601,8.79005e-09,0,18876,18876
280.651,9.09266e-09,0,18980,18980
280.701,9.44246e-09,0,19124,19124
280.751,9.82969e-09,0,19260,19260
280.801,1.02293e-08,0,19396,19396
280.85,1.09095e-08,0,19508,19508
280.9,1.16466e-08,0,19668,19668
280.95,1.24334e-08,0,19788,19788
281.001,1.34698e-08,0,19932,19932
281.051,1.4703e-08,0,20068,20068
281.101,1.61028e-08,0,20188,20188
281.151,1.7712e-08,0,20316,20316
281.2,1.95522e-08,0,20460,20460
281.25,2.16344e-08,0,20596,20596
281.3,2.39691e-08,0,20724,20724
281.351,2.66399e-08,0,20892,20892
281.401,2.94915e-08,0,20920,20920
281.451,3.25869e-08,0,20920,20920
281.501,3.59084e-08,0,20960,20960
281.551,3.94288e-08,0,21000,21000
281.6,4.31163e-08,0,21024,21024
281.65,4.69407e-08,0,21064,21064
281.701,5.09903e-08,0,21104,21104
281.751,5.50075e-08,0,21128,21128
281.801,5.90877e-08,0,21144,21144
281.851,6.32217e-08,0,21176,21176
281.901,6.74161e-08,0,21192,21192
281.95,7.17092e-08,0,21184,21184
282,7.61952e-08,0,21208,21208
282.051,8.11881e-08,0,21296,21296
282.101,8.66084e-08,0,21320,21320
282.151,9.27344e-08,0,21360,21360
282.201,9.95499e-08,0,21392,21392
282.251,1.06867e-07,0,21416,21416
282.3,1.14394e-07,0,21456,21456
282.351,1.21976e-07,0,21488,21488
282.401,1.29181e-07,0,21544,21544
282.45,1.36213e-07,0,21576,21576
282.501,1.43594e-07,0,21648,21648
282.552,1.51551e-07,0,21712,21712
282.6,1.60289e-07,0,21756,21756
282.651,1.7086e-07,0,21948,21948
282.701,1.83427e-07,0,22060,22060
282.751,1.98395e-07,0,22244,22244
282.801,2.1619e-07,0,22396,22396
282.851,2.37269e-07,0,22532,22532
282.9,2.6207e-07,0,22652,22652
282.951,2.91905e-07,0,22836,22836
283,3.24992e-07,0,22972,22972
283.051,3.63243e-07,0,23108,23108
283.101,4.05163e-07,0,23252,23252
283.151,4.50088e-07,0,23444,23444
283.201,4.97305e-07,0,23572,23572
283.251,5.46106e-07,0,23732,23732
283.301,5.95712e-07,0,23884,23884
283.351,6.45156e-07,0,24100,24100
283.4,6.93185e-07,0,24088,24088
283.451,7.39613e-07,0,24088,24088
283.501,7.81117e-07,0,24200,24200
283.55,8.15126e-07,0,24272,24272
283.601,8.42635e-07,0,24376,24376
283.651,8.6195e-07,0,24484,24484
283.701,8.73206e-07,0,24596,24596
283.751,8.77047e-07,0,24724,24724
283.8,8.74358e-07,0,24764,24764
283.851,8.65659e-07,0,24836,24836
283.901,8.52095e-07,0,24964,24964
283.951,8.33154e-07,0,25020,25020
284,8.09946e-07,0,25116,25116
284.051,7.80864e-07,0,25180,25180
284.101,7.46318e-07,0,25196,25196
284.151,7.06256e-07,0,25308,25308
284.201,6.60972e-07,0,25316,25316
284.251,6.11122e-07,0,25364,25364
284.3,5.57724e-07,0,25428,25428
284.35,5.02192e-07,0,25460,25460
284.4,4.46074e-07,0,25532,25532
284.451,3.89234e-07,0,25580,25580
284.501,3.36137e-07,0,25740,25740
284.551,2.85949e-07,0,25716,25716
284.601,2.39102e-07,0,25828,25828
284.651,1.95729e-07,0,25812,25812
284.7,1.55799e-07,0,25816,25816
284.75,1.19239e-07,0,25776,25776
284.801,8.51139e-08,0,25736,25736
284.851,5.54479e-08,0,25712,25712
284.901,2.93117e-08,0,25736,25736
284.951,6.71528e-09,0,25720,25720
285.001,-1.25129e-08,0,25632,25632
285.05,-2.87443e-08,0,25624,25624
285.1,-4.24683e-08,0,25520,25520
285.151,-5.4465e-08,0,25472,25472
285.201,-6.43644e-08,0,25528,25528
285.251,-7.26504e-08,0,25936,25936
285.301,-7.93125e-08,0,26360,26360
285.351,-8.43415e-08,0,26656,26656
285.4,-8.78372e-08,0,26808,26808
285.45,-9.00413e-08,0,26880,26880
285.501,-9.1302e-08,0,26960,26960
285.551,-9.18571e-08,0,26992,26992
285.601,-9.17827e-08,0,27040,27040
285.651,-9.14893e-08,0,27112,27112
285.701,-9.0837e-08,0,27152,27152
285.75,-8.90435e-08,0,27280,27280
285.8,-8.64162e-08,0,27376,27376
285.85,-8.31068e-08,0,27512,27512
285.901,-7.912e-08,0,27580,27580
285.951,-7.48942e-08,0,27572,27572
286.001,-7.0537e-08,0,27564,27564
286.051,-6.62196e-08,0,27524,27524
286.1,-6.2058e-08,0,27468,27468
286.15,-5.8123e-08,0,27428,27428
286.2,-5.44535e-08,0,27380,27380
286.251,-5.09727e-08,0,27324,27324
286.301,-4.7885e-08,0,27244,27244
286.351,-4.50836e-08,0,27180,27180
286.401,-4.25592e-08,0,27084,27084
286.451,-4.02997e-08,0,26836,26836
286.5,-3.82917e-08,0,26772,26772
286.55,-3.65218e-08,0,26564,26564
286.601,-3.49357e-08,0,26372,26372
286.651,-3.36112e-08,0,26244,26244
286.701,-3.24846e-08,0,26152,26152
286.751,-3.15309e-08,0,25968,25968
286.801,-3.07237e-08,0,25784,25784
286.85,-3.00847e-08,0,25616,25616
286.9,-2.96466e-08,0,25464,25464
286.951,-2.93564e-08,0,25296,25296
287.001,-2.91711e-08,0,25120,25120
287.051,-2.90738e-08,0,25184,25184
287.101,-2.90247e-08,0,25176,25176
287.151,-2.90177e-08,0,25056,25056
287.2,-2.9053e-08,0,24888,24888
287.25,-2.91281e-08,0,24752,24752
287.3,-2.92377e-08,0,24600,24600
287.351,-2.93806e-08,0,24448,24448
287.401,-2.95422e-08,0,24248,24248
287.451,-2.97203e-08,0,24104,24104
287.501,-2.99093e-08,0,23968,23968
287.55,-3.01042e-08,0,23848,23848
287.6,-3.03007e-08,0,23696,23696
287.65,-3.04949e-08,0,23568,23568
287.701,-3.06891e-08,0,23416,23416
287.751,-3.08693e-08,0,23304,23304
287.801,-3.10383e-08,0,23192,23192
287.851,-3.11939e-08,0,23128,23128
287.901,-3.13339e-08,0,23016,23016
287.95,-3.14566e-08,0,22880,22880
288,-3.15605e-08,0,22776,22776
288.051,-3.16463e-08,0,22664,22664
288.101,-3.17086e-08,0,22504,22504
288.151,-3.17502e-08,0,22344,22344
288.201,-3.17721e-08,0,22232,22232
288.251,-3.17753e-08,0,21880,21880
288.3,-3.17611e-08,0,21596,21596
288.35,-3.17311e-08,0,21316,21316
288.401,-3.16853e-08,0,21124,21124
288.451,-3.16278e-08,0,21004,21004
288.501,-3.1559e-08,0,20948,20948
288.551,-3.14803e-08,0,20868,20868
288.601,-3.1393e-08,0,20828,20828
288.65,-3.12984e-08,0,20716,20716
288.7,-3.11975e-08,0,20652,20652
288.751,-3.10881e-08,0,20588,20588
288.801,-3.09772e-08,0,20516,20516
288.851,-3.08622e-08,0,20436,20436
288.901,-3.07438e-08,0,20396,20396
288.951,-3.06225e-08,0,20292,20292
289,-3.04988e-08,0,20276,20276
289.05,-3.03731e-08,0,20228,20228
289.1,-3.0246e-08,0,20516,20516
289.151,-3.01144e-08,0,20652,20652
289.201,-2.99856e-08,0,20220,20220
289.251,-2.98551e-08,0,19980,19980
289.301,-2.9722e-08,0,19396,19396
289.35,-2.95855e-08,0,19092,19092
289.4,-2.94444e-08,0,18804,18804
289.45,-2.9297e-08,0,18612,18612
289.501,-2.91362e-08,0,18380,18380
289.551,-2.89687e-08,0,18196,18196
289.601,-2.87873e-08,0,18092,18092
289.651,-2.85888e-08,0,17924,17924
289.701,-2.83702e-08,0,17852,17852
289.75,-2.81287e-08,0,17780,17780
289.8,-2.78621e-08,0,17652,17652
289.851,-2.75612e-08,0,17484,17484
289.901,-2.72522e-08,0,17324,17324
289.951,-2.69441e-08,0,17180,17180
290.001,-2.66298e-08,0,16980,16980
290.051,-2.62196e-08,0,16780,16780
290.1,-2.57439e-08,0,16572,16572
290.15,-2.52977e-08,0,16364,16364
290.201,-2.48141e-08,0,16196,16196
290.251,-2.43287e-08,0,15940,15940
290.301,-2.38453e-08,0,15660,15660
290.351,-2.337e-08,0,15356,15356
290.401,-2.29065e-08,0,15028,15028
290.45,-2.24655e-08,0,14716,14716
290.5,-2.20456e-08,0,14404,14404
290.55,-2.16547e-08,0,14176,14176
290.601,-2.12895e-08,0,13992,13992
290.651,-2.0976e-08,0,13840,13840
290.701,-2.07076e-08,0,13516,13516
290.751,-2.04874e-08,0,13028,13028
290.8,-2.03155e-08,0,12572,12572
290.85,-2.01944e-08,0,12164,12164
290.9,-2.00513e-08,0,11900,11900
290.951,-2.00303e-08,0,12228,12228
291.001,-2.00496e-08,0,12572,12572
291.051,-2.01059e-08,0,12636,12636
291.101,-2.02086e-08,0,12644,12644
291.151,-2.03586e-08,0,12636,12636
291.2,-2.05408e-08,0,12508,12508
291.25,-2.07396e-08,0,12364,12364
291.301,-2.09614e-08,0,12252,12252
291.351,-2.11907e-08,0,12116,12116
291.401,-2.1426e-08,0,12380,12380
291.451,-2.16542e-08,0,12500,12500
291.501,-2.187e-08,0,12524,12524
291.55,-2.20891e-08,0,12460,12460
291.6,-2.23023e-08,0,12404,12404
291.651,-2.25048e-08,0,12388,12388
291.701,-2.26805e-08,0,12356,12356
291.751,-2.28224e-08,0,12316,12316
291.801,-2.29341e-08,0,12300,12300
291.851,-2.30198e-08,0,12292,12292
291.9,-2.30815e-08,0,12260,12260
291.951,-2.31218e-08,0,12244,12244
292,-2.31406e-08,0,12336,12336
292.051,-2.31389e-08,0,12440,12440
292.101,-2.31179e-08,0,12472,12472
292.151,-2.30776e-08,0,12512,12512
292.2,-2.30228e-08,0,12560,12560
292.251,-2.29517e-08,0,12496,12496
292.301,-2.28675e-08,0,12488,12488
292.351,-2.27714e-08,0,12528,12528
292.401,-2.26646e-08,0,12504,12504
292.451,-2.25484e-08,0,12560,12560
292.5,-2.24231e-08,0,12560,12560
292.551,-2.22853e-08,0,12632,12632
292.601,-2.21447e-08,0,12648,12648
292.651,-2.19931e-08,0,12592,12592
292.7,-2.18411e-08,0,12416,12416
292.751,-2.16801e-08,0,12336,12336
292.801,-2.15167e-08,0,12264,12264
292.851,-2.13523e-08,0,12264,12264
292.901,-2.11882e-08,0,12224,12224
292.951,-2.10261e-08,0,12208,12208
293,-2.08673e-08,0,12192,12192
293.051,-2.07085e-08,0,12252,12252
293.1,-2.05608e-08,0,12180,12180
293.151,-2.04155e-08,0,12132,12132
293.2,-2.02808e-08,0,12100,12100
293.25,-2.01508e-08,0,12332,12332
293.301,-2.00364e-08,0,12564,12564
293.351,-1.99334e-08,0,12644,12644
293.401,-1.98394e-08,0,12724,12724
293.45,-1.97547e-08,0,12876,12876
293.501,-1.96763e-08,0,13148,13148
293.551,-1.96077e-08,0,13140,13140
293.601,-1.95426e-08,0,13124,13124
293.651,-1.94835e-08,0,13060,13060
293.701,-1.94254e-08,0,13044,13044
293.751,-1.93694e-08,0,13044,13044
293.801,-1.93148e-08,0,13006,13006
293.851,-1.92616e-08,0,12996,12996
293.901,-1.92095e-08,0,12994,12994
293.951,-1.91584e-08,0,13010,13010
294,-1.91078e-08,0,12974,12974
294.051,-1.90556e-08,0,12966,12966
294.1,-1.90038e-08,0,12986,12986
294.151,-1.89483e-08,0,12966,12966
294.201,-1.88893e-08,0,12974,12974
294.25,-1.8828e-08,0,12988,12988
294.3,-1.876e-08,0,12966,12966
294.35,-1.86868e-08,0,12968,12968
294.401,-1.86065e-08,0,12980,12980
294.451,-1.8524e-08,0,12970,12970
294.501,-1.84376e-08,0,12988,12988
294.551,-1.83481e-08,0,12984,12984
294.601,-1.8256e-08,0,12968,12968
294.65,-1.81619e-08,0,12972,12972
294.7,-1.80662e-08,0,12980,12980
294.751,-1.79662e-08,0,12988,12988
294.801,-1.78678e-08,0,12976,12976
294.851,-1.77682e-08,0,12984,12984
294.901,-1.76677e-08,0,12976,12976
294.951,-1.75663e-08,0,12964,12964
295,-1.74639e-08,0,12976,12976
295.05,-1.73604e-08,0,12780,12780
295.1,-1.72555e-08,0,12648,12648
295.151,-1.71456e-08,0,12444,12444
295.201,-1.70366e-08,0,12312,12312
295.251,-1.69251e-08,0,12200,12200
295.301,-1.68109e-08,0,12116,12116
295.35,-1.66936e-08,0,12028,12028
295.4,-1.6573e-08,0,11904,11904
295.45,-1.64488e-08,0,11820,11820
295.501,-1.63166e-08,0,11796,11796
295.551,-1.61837e-08,0,11780,11780
295.601,-1.60461e-08,0,11760,11760
295.651,-1.59036e-08,0,11736,11736
295.701,-1.57561e-08,0,11724,11724
295.75,-1.56035e-08,0,11720,11720
295.8,-1.5446e-08,0,11680,11680
295.851,-1.52785e-08,0,11628,11628
295.901,-1.51107e-08,0,11612,11612
295.951,-1.49376e-08,0,11648,11648
296.001,-1.47592e-08,0,11608,11608
296.051,-1.45754e-08,0,11624,11624
296.1,-1.43861e-08,0,11516,11516
296.15,-1.41913e-08,0,11412,11412
296.201,-1.39847e-08,0,11300,11300
296.251,-1.37779e-08,0,11184,11184
296.301,-1.3565e-08,0,11080,11080
296.351,-1.33457e-08,0,10988,10988
296.401,-1.31199e-08,0,10868,10868
296.45,-1.28874e-08,0,10788,10788
296.5,-1.26479e-08,0,10744,10744
296.551,-1.23937e-08,0,10668,10668
296.601,-1.21389e-08,0,10612,10612
296.651,-1.18755e-08,0,10544,10544
296.701,-1.16012e-08,0,10516,10516
296.75,-1.13228e-08,0,10508,10508
296.801,-1.10224e-08,0,10544,10544
296.852,-1.07091e-08,0,10536,10536
296.9,-1.03939e-08,0,10536,10536
296.951,-1.00506e-08,0,10544,10544
297.001,-9.68899e-09,0,10520,10520
297.052,-9.3089e-09,0,10544,10544
297.1,-8.92978e-09,0,10544,10544
297.151,-8.53145e-09,0,10520,10520
297.201,-8.1349e-09,0,10544,10544
297.251,-7.64462e-09,0,10536,10536
297.301,-6.97252e-09,0,10520,10520
297.351,-6.39799e-09,0,10520,10520
297.4,-5.81902e-09,0,10536,10536
297.452,-5.19805e-09,0,10552,10552
297.501,-4.57666e-09,0,10520,10520
297.55,-3.9402e-09,0,10536,10536
297.601,-3.26874e-09,0,10536,10536
297.651,-2.59249e-09,0,10536,10536
297.702,-1.9171e-09,0,10560,10560
297.752,-1.24794e-09,0,10536,10536
297.802,-5.89601e-10,0,10544,10544
297.851,5.38009e-11,0,10544,10544
297.901,6.785e-10,0,10544,10544
297.95,1.28107e-09,0,10560,10560
298.001,1.87836e-09,0,10544,10544
298.05,2.42561e-09,0,10544,10544
298.101,2.9585e-09,0,10544,10544
298.151,3.45364e-09,0,10568,10568
298.201,3.90798e-09,0,10552,10552
298.251,4.31929e-09,0,10552,10552
298.301,4.68655e-09,0,10568,10568
298.351,5.01019e-09,0,10576,10576
298.4,5.29174e-09,0,10576,10576
298.451,5.5404e-09,0,10584,10584
298.5,5.74264e-09,0,10592,10592
298.551,5.90196e-09,0,10600,10600
298.602,6.01473e-09,0,10608,10608
298.65,6.05006e-09,0,10608,10608
298.7,6.07495e-09,0,10624,10624
298.75,6.08302e-09,0,10632,10632
298.802,6.0738e-09,0,10616,10616
298.851,6.04677e-09,0,10632,10632
298.901,6.00271e-09,0,10632,10632
298.952,5.94123e-09,0,10640,10640
299.001,5.86797e-09,0,10664,10664
299.051,5.78053e-09,0,10664,10664
299.101,5.68364e-09,0,10664,10664
299.152,5.57918e-09,0,10664,10664
299.2,5.47283e-09,0,10688,10688
299.251,5.3554e-09,0,10696,10696
299.301,5.23927e-09,0,10680,10680
299.351,5.12203e-09,0,10704,10704
299.402,5.00114e-09,0,10720,10720
299.451,4.88513e-09,0,10720,10720
299.501,4.76759e-09,0,10712,10712
299.55,4.65681e-09,0,10712,10712
299.6,4.54639e-09,0,10736,10736
299.65,4.44082e-09,0,10752,10752
299.7,4.34079e-09,0,10760,10760
299.75,4.24685e-09,0,10744,10744
299.801,4.1569e-09,0,10776,10776
299.851,4.07671e-09,0,10776,10776
299.901,4.00144e-09,0,10768,10768
299.951,3.93572e-09,0,10760,10760
300.001,3.8753e-09,0,10792,10792
300.051,3.82205e-09,0,10792,10792
300.102,3.77548e-09,0,10816,10816
300.151,3.73494e-09,0,10816,10816
300.201,3.69966e-09,0,10808,10808
300.251,3.66878e-09,0,10840,10840
300.3,3.64142e-09,0,10832,10832
300.351,3.61589e-09,0,10832,10832
300.401,3.59271e-09,0,10848,10848
300.451,3.5695e-09,0,10856,10856
300.501,3.5461e-09,0,10856,10856
300.55,3.52249e-09,0,10864,10864
300.6,3.49664e-09,0,10864,10864
300.65,3.46884e-09,0,10872,10872
300.701,3.43791e-09,0,10872,10872
300.751,3.40551e-09,0,10896,10896
300.801,3.37095e-09,0,10896,10896
300.851,3.3345e-09,0,10904,10904
300.901,3.29658e-09,0,10904,10904
300.95,3.25763e-09,0,10896,10896
301,3.21809e-09,0,10904,10904
301.051,3.17721e-09,0,10912,10912
301.101,3.13767e-09,0,10920,10920
301.151,3.09861e-09,0,10928,10928
301.201,3.06033e-09,0,10928,10928
301.251,3.0231e-09,0,10944,10944
301.3,2.98719e-09,0,10952,10952
301.35,2.95291e-09,0,10952,10952
301.401,2.91965e-09,0,10952,10952
301.451,2.88962e-09,0,10952,10952
301.501,2.86211e-09,0,10936,10936
301.551,2.83736e-09,0,10960,10960
301.601,2.81551e-09,0,10944,10944
301.65,2.79663e-09,0,10960,10960
301.7,2.78064e-09,0,10944,10944
301.75,2.76738e-09,0,10960,10960
301.801,2.75632e-09,0,10960,10960
301.851,2.74773e-09,0,10976,10976
301.901,2.74087e-09,0,10960,10960
301.951,2.73532e-09,0,10976,10976
302,2.73066e-09,0,10960,10960
302.05,2.72649e-09,0,10960,10960
302.1,2.72244e-09,0,10960,10960
302.151,2.71807e-09,0,10976,10976
302.201,2.71335e-09,0,10960,10960
302.251,2.70794e-09,0,10960,10960
302.301,2.70168e-09,0,10952,10952
302.351,2.69448e-09,0,10868,10868
302.4,2.68626e-09,0,10756,10756
302.45,2.67701e-09,0,10636,10636
302.501,2.6664e-09,0,10516,10516
302.551,2.65508e-09,0,10412,10412
302.601,2.64279e-09,0,10292,10292
302.651,2.6296e-09,0,10172,10172
302.701,2.61556e-09,0,10068,10068
302.75,2.60074e-09,0,9948,9948
302.8,2.5852e-09,0,9844,9844
302.851,2.56851e-09,0,9732,9732
302.901,2.55169e-09,0,9620,9620
302.951,2.5343e-09,0,9500,9500
303.001,2.51638e-09,0,9396,9396
303.051,2.49795e-09,0,9284,9284
303.1,2.47904e-09,0,9172,9172
303.15,2.45964e-09,0,9060,9060
303.2,2.43979e-09,0,8940,8940
303.251,2.41889e-09,0,8836,8836
303.301,2.39816e-09,0,8716,8716
303.351,2.37705e-09,0,8596,8596
303.401,2.35561e-09,0,8492,8492
303.45,2.3339e-09,0,8388,8388
303.501,2.31142e-09,0,8268,8268
303.551,2.28936e-09,0,8212,8212
303.601,2.26723e-09,0,8192,8192
303.651,2.245e-09,0,8192,8192
303.7,2.22279e-09,0,8192,8192
303.75,2.20063e-09,0,8192,8192
303.8,2.17859e-09,0,8192,8192
303.853,2.15539e-09,0,8192,8192
303.903,2.13368e-09,0,8192,8192
303.952,2.11219e-09,0,8192,8192
304.002,2.09096e-09,0,8192,8192
304.052,2.07003e-09,0,8192,8192
304.102,2.0494e-09,0,8192,8192
304.152,2.02908e-09,0,8192,8192
304.201,2.00906e-09,0,8192,8192
304.251,1.98933e-09,0,8192,8192
304.301,1.96986e-09,0,8192,8192
304.351,1.95063e-09,0,8192,8192
304.401,1.93161e-09,0,8192,8192
304.45,1.91276e-09,0,8192,8192
304.5,1.89404e-09,0,8192,8192
304.553,1.87432e-09,0,8192,8192
304.603,1.85575e-09,0,8192,8192
304.652,1.83717e-09,0,8192,8192
304.702,1.81855e-09,0,8192,8192
304.752,1.79982e-09,0,8192,8192
304.802,1.78094e-09,0,8192,8192
304.852,1.76188e-09,0,8192,8192
304.901,1.74258e-09,0,8192,8192
304.951,1.723e-09,0,8192,8192
