250,0,0,8192,8192
250.003,0,0,8192,8192
250.053,0,0,8192,8192
250.103,0,0,8192,8192
250.152,0,0,8192,8192
250.202,2.77556e-17,0,8192,8192
250.252,0,0,8192,8192
250.302,0,0,8192,8192
250.352,-2.77556e-17,0,8192,8192
250.401,-2.77556e-17,0,8192,8192
250.451,-2.77556e-17,0,8192,8192
250.501,-2.77556e-17,0,8192,8192
250.551,-2.77556e-17,0,8192,8192
250.6,-2.77556e-17,0,8192,8192
250.65,-2.77556e-17,0,8192,8192
250.7,-2.77556e-17,0,8192,8192
250.753,-2.77556e-17,0,8192,8192
250.803,-2.77556e-17,0,8192,8192
250.852,-2.77556e-17,0,8192,8192
250.902,-2.77556e-17,0,8192,8192
250.952,-2.77556e-17,0,8192,8192
251.002,-2.77556e-17,0,8192,8192
251.052,-2.77556e-17,0,8192,8192
251.101,-2.77556e-17,0,8192,8192
251.151,-2.77556e-17,0,8192,8192
251.201,-2.77556e-17,0,8192,8192
251.251,-2.77556e-17,0,8192,8192
251.301,-2.77556e-17,0,8192,8192
251.35,-2.77556e-17,0,8192,8192
251.4,-2.77556e-17,0,8192,8192
251.453,-2.77556e-17,0,8192,8192
251.503,-2.77556e-17,0,8192,8192
251.553,0,0,8192,8192
251.602,2.77556e-17,0,8192,8192
251.652,2.77556e-17,0,8192,8192
251.702,5.55112e-17,0,8192,8192
251.752,5.55112e-17,0,8192,8192
251.801,0,0,8192,8192
251.851,0,0,8192,8192
251.901,0,0,8192,8192
251.951,0,0,8192,8192
252.001,0,0,8192,8192
252.05,0,0,8192,8192
252.1,0,0,8192,8192
252.15,2.77556e-17,0,8192,8192
252.203,2.77556e-17,0,8192,8192
252.253,-2.77556e-17,0,8192,8192
252.302,-2.77556e-17,0,8192,8192
252.352,-2.77556e-17,0,8192,8192
252.402,-2.77556e-17,0,8192,8192
252.452,-2.77556e-17,0,8192,8192
252.502,-2.77556e-17,0,8192,8192
252.551,-2.77556e-17,0,8192,8192
252.601,-2.77556e-17,0,8192,8192
252.651,-2.77556e-17,0,8192,8192
252.701,-2.77556e-17,0,8192,8192
252.751,-2.77556e-17,0,8192,8192
252.8,-2.77556e-17,0,8192,8192
252.85,-2.77556e-17,0,8192,8192
252.903,-2.77556e-17,0,8192,8192
252.953,-2.77556e-17,0,8192,8192
253.002,-2.77556e-17,0,8192,8192
253.052,2.77556e-17,0,8192,8192
253.102,0,0,8192,8192
253.152,2.77556e-17,0,8192,8192
253.202,2.77556e-17,0,8192,8192
253.251,2.77556e-17,0,8192,8192
253.301,2.77556e-17,0,8192,8192
253.351,2.77556e-17,0,8192,8192
253.401,2.77556e-17,0,8192,8192
253.451,2.77556e-17,0,8192,8192
253.5,2.77556e-17,0,8192,8192
253.55,2.77556e-17,0,8192,8192
253.6,2.77556e-17,0,8192,8192
253.653,2.77556e-17,0,8192,8192
253.703,2.77556e-17,0,8192,8192
253.752,5.55112e-17,0,8192,8192
253.802,5.55112e-17,0,8192,8192
253.852,5.55112e-17,0,8192,8192
253.902,5.55112e-17,0,8192,8192
253.952,2.77556e-17,0,8192,8192
254.001,2.77556e-17,0,8192,8192
254.051,5.55112e-17,0,8192,8192
254.101,5.55112e-17,0,8192,8192
254.151,5.55112e-17,0,8192,8192
254.201,5.55112e-17,0,8192,8192
254.25,2.77556e-17,0,8192,8192
254.3,2.77556e-17,0,8192,8192
254.353,2.77556e-17,0,8192,8192
254.403,2.77556e-17,0,8192,8192
254.452,2.77556e-17,0,8192,8192
254.502,2.77556e-17,0,8192,8192
254.552,2.77556e-17,0,8192,8192
254.602,2.77556e-17,0,8192,8192
254.652,0,0,8192,8192
254.701,2.77556e-17,0,8192,8192
254.751,0,0,8192,8192
254.801,0,0,8192,8192
254.851,0,0,8192,8192
254.901,0,0,8192,8192
254.95,0,0,8192,8192
255,0,0,8192,8192
255.05,0,0,8192,8192
255.103,0,0,8192,8192
255.153,2.77556e-17,0,8192,8192
255.202,2.77556e-17,0,8192,8192
255.252,2.77556e-17,0,8192,8192
255.302,2.77556e-17,0,8192,8192
255.352,2.77556e-17,0,8192,8192
255.402,2.77556e-17,0,8192,8192
255.451,2.77556e-17,0,8192,8192
255.501,2.77556e-17,0,8192,8192
255.551,2.77556e-17,0,8192,8192
255.601,0,0,8192,8192
255.651,2.77556e-17,0,8192,8192
255.7,0,0,8192,8192
255.75,2.77556e-17,0,8192,8192
255.803,0,0,8192,8192
255.853,0,0,8192,8192
255.902,2.77556e-17,0,8192,8192
255.952,2.77556e-17,0,8192,8192
256.002,0,0,8192,8192
256.052,0,0,8192,8192
256.102,0,0,8192,8192
256.151,0,0,8192,8192
256.201,0,0,8192,8192
256.251,0,0,8192,8192
256.301,2.77556e-17,0,8192,8192
256.351,0,0,8192,8192
256.4,5.55112e-17,0,8192,8192
256.45,5.55112e-17,0,8192,8192
256.5,5.55112e-17,0,8192,8192
256.553,2.77556e-17,0,8192,8192
256.603,2.77556e-17,0,8192,8192
256.652,2.77556e-17,0,8192,8192
256.702,2.77556e-17,0,8192,8192
256.752,2.77556e-17,0,8192,8192
256.802,2.77556e-17,0,8192,8192
256.852,-2.77556e-17,0,8192,8192
256.901,-2.77556e-17,0,8192,8192
256.951,-2.77556e-17,0,8192,8192
257.001,-5.55112e-17,0,8192,8192
257.051,-5.55112e-17,0,8192,8192
257.101,-5.55112e-17,0,8192,8192
257.15,-2.77556e-17,0,8192,8192
257.2,-2.77556e-17,0,8192,8192
257.253,-2.77556e-17,0,8192,8192
257.303,-2.77556e-17,0,8192,8192
257.352,-2.77556e-17,0,8192,8192
257.402,-2.77556e-17,0,8192,8192
257.452,-2.77556e-17,0,8192,8192
257.502,-2.77556e-17,0,8192,8192
257.552,-2.77556e-17,0,8192,8192
257.601,-2.77556e-17,0,8192,8192
257.651,-2.77556e-17,0,8192,8192
257.701,-2.77556e-17,0,8192,8192
257.751,-2.77556e-17,0,8192,8192
257.801,-2.77556e-17,0,8192,8192
257.85,-2.77556e-17,0,8192,8192
257.9,-2.77556e-17,0,8192,8192
257.95,-2.77556e-17,0,8192,8192
258.003,-2.77556e-17,0,8192,8192
258.053,-2.77556e-17,0,8192,8192
258.102,-2.77556e-17,0,8192,8192
258.152,-2.77556e-17,0,8192,8192
258.202,-2.77556e-17,0,8192,8192
258.252,-2.77556e-17,0,8192,8192
258.302,-2.77556e-17,0,8192,8192
258.351,-2.77556e-17,0,8192,8192
258.401,-2.77556e-17,0,8192,8192
258.451,-2.77556e-17,0,8192,8192
258.501,-2.77556e-17,0,8192,8192
258.551,-2.77556e-17,0,8192,8192
258.6,-2.77556e-17,0,8192,8192
258.65,-2.77556e-17,0,8192,8192
258.703,-2.77556e-17,0,8192,8192
258.753,-2.77556e-17,0,8192,8192
258.802,-2.77556e-17,0,8192,8192
258.852,-2.77556e-17,0,8192,8192
258.902,-2.77556e-17,0,8192,8192
258.952,-2.77556e-17,0,8192,8192
259.002,-2.77556e-17,0,8192,8192
259.051,-2.77556e-17,0,8192,8192
259.101,-2.77556e-17,0,8192,8192
259.151,-2.77556e-17,0,8192,8192
259.201,-2.77556e-17,0,8192,8192
259.251,2.77556e-17,0,8192,8192
259.3,5.55112e-17,0,8192,8192
259.35,5.55112e-17,0,8192,8192
259.403,5.55112e-17,0,8192,8192
259.453,5.55112e-17,0,8192,8192
259.503,5.55112e-17,0,8192,8192
259.552,5.55112e-17,0,8192,8192
259.602,5.55112e-17,0,8192,8192
259.652,5.55112e-17,0,8192,8192
259.702,5.55112e-17,0,8192,8192
259.751,5.55112e-17,0,8192,8192
259.801,5.55112e-17,0,8192,8192
259.851,5.55112e-17,0,8192,8192
259.901,5.55112e-17,0,8192,8192
259.951,5.55112e-17,0,8192,8192
260,2.77556e-17,0,8192,8192
260.05,2.77556e-17,0,8192,8192
260.1,2.77556e-17,0,8192,8192
260.153,2.77556e-17,0,8192,8192
260.203,2.77556e-17,0,8192,8192
260.252,5.55112e-17,0,8192,8192
260.302,5.55112e-17,0,8192,8192
260.352,2.77556e-17,0,8192,8192
260.402,5.55112e-17,0,8192,8192
260.452,5.55112e-17,0,8192,8192
260.501,5.55112e-17,0,8192,8192
260.551,5.55112e-17,0,8192,8192
260.601,5.55112e-17,0,8192,8192
260.651,5.55112e-17,0,8192,8192
260.701,5.55112e-17,0,8192,8192
260.75,5.55112e-17,0,8192,8192
260.8,5.55112e-17,0,8192,8192
260.853,2.77556e-17,0,8192,8192
260.903,2.77556e-17,0,8192,8192
260.952,5.55112e-17,0,8192,8192
261.002,5.55112e-17,0,8192,8192
261.052,5.55112e-17,0,8192,8192
261.102,2.77556e-17,0,8192,8192
261.152,2.77556e-17,0,8192,8192
261.201,2.77556e-17,0,8192,8192
261.251,2.77556e-17,0,8192,8192
261.301,2.77556e-17,0,8192,8192
261.351,2.77556e-17,0,8192,8192
261.401,2.77556e-17,0,8192,8192
261.45,2.77556e-17,0,8192,8192
261.5,2.77556e-17,0,8192,8192
261.55,2.77556e-17,0,8192,8192
261.603,2.77556e-17,0,8192,8192
261.653,2.77556e-17,0,8192,8192
261.702,2.77556e-17,0,8192,8192
261.752,2.77556e-17,0,8192,8192
261.802,2.77556e-17,0,8192,8192
261.852,2.77556e-17,0,8192,8192
261.902,2.77556e-17,0,8192,8192
261.951,2.77556e-17,0,8192,8192
262.001,2.77556e-17,0,8192,8192
262.051,2.77556e-17,0,8192,8192
262.101,2.77556e-17,0,8192,8192
262.151,0,0,8192,8192
262.2,0,0,8192,8192
262.25,0,0,8192,8192
262.303,-2.77556e-17,0,8192,8192
262.353,-2.77556e-17,0,8192,8192
262.402,-2.77556e-17,0,8192,8192
262.452,-2.77556e-17,0,8192,8192
262.502,-2.77556e-17,0,8192,8192
262.552,-2.77556e-17,0,8192,8192
262.602,2.77556e-17,0,8192,8192
262.651,2.77556e-17,0,8192,8192
262.701,2.77556e-17,0,8192,8192
262.751,2.77556e-17,0,8192,8192
262.801,2.77556e-17,0,8192,8192
262.851,2.77556e-17,0,8192,8192
262.9,2.77556e-17,0,8192,8192
262.95,0,0,8192,8192
263,0,0,8192,8192
263.053,0,0,8192,8192
263.103,2.77556e-17,0,8192,8192
263.152,2.77556e-17,0,8192,8192
263.202,2.77556e-17,0,8192,8192
263.252,0,0,8192,8192
263.302,0,0,8192,8192
263.352,2.77556e-17,0,8192,8192
263.401,2.77556e-17,0,8192,8192
263.451,0,0,8192,8192
263.501,0,0,8192,8192
263.551,2.77556e-17,0,8192,8192
263.601,2.77556e-17,0,8192,8192
263.65,0,0,8192,8192
263.7,0,0,8192,8192
263.753,2.77556e-17,0,8192,8192
263.803,0,0,8192,8192
263.852,0,0,8192,8192
263.902,0,0,8192,8192
263.952,0,0,8192,8192
264.002,-2.77556e-17,0,8192,8192
264.052,-2.77556e-17,0,8192,8192
264.101,-8.32667e-17,0,8192,8192
264.151,-8.32667e-17,0,8192,8192
264.201,-8.32667e-17,0,8192,8192
264.251,-8.32667e-17,0,8192,8192
264.301,-8.32667e-17,0,8192,8192
264.35,-8.32667e-17,0,8192,8192
264.4,-8.32667e-17,0,8192,8192
264.45,-5.55112e-17,0,8192,8192
264.503,-2.77556e-17,0,8192,8192
264.553,-2.77556e-17,0,8192,8192
264.602,-2.77556e-17,0,8192,8192
264.652,-2.77556e-17,0,8192,8192
264.702,-2.77556e-17,0,8192,8192
264.752,-2.77556e-17,0,8192,8192
264.802,-2.77556e-17,0,8192,8192
264.851,-2.77556e-17,0,8192,8192
264.901,-2.77556e-17,0,8192,8192
264.951,-5.55112e-17,0,8192,8192
265.001,-2.77556e-17,0,8192,8192
265.051,-5.55112e-17,0,8192,8192
265.1,-5.55112e-17,0,8192,8192
265.15,-5.55112e-17,0,8192,8192
265.203,-5.55112e-17,0,8192,8192
265.253,-5.55112e-17,0,8192,8192
265.302,-2.77556e-17,0,8192,8192
265.352,-5.55112e-17,0,8192,8192
265.402,-2.77556e-17,0,8192,8192
265.452,-5.55112e-17,0,8192,8192
265.502,-5.55112e-17,0,8192,8192
265.551,-2.77556e-17,0,8192,8192
265.601,0,0,8192,8192
265.651,0,0,8192,8192
265.701,0,0,8192,8192
265.751,0,0,8192,8192
265.8,0,0,8192,8192
265.85,0,0,8192,8192
265.9,0,0,8192,8192
265.953,0,0,8192,8192
266.003,0,0,8192,8192
266.052,0,0,8192,8192
266.102,0,0,8192,8192
266.152,2.77556e-17,0,8192,8192
266.202,0,0,8192,8192
266.252,0,0,8192,8192
266.301,0,0,8192,8192
266.351,0,0,8192,8192
266.401,-2.77556e-17,0,8192,8192
266.451,-2.77556e-17,0,8192,8192
266.501,0,0,8192,8192
266.55,0,0,8192,8192
266.6,0,0,8192,8192
266.653,0,0,8192,8192
266.703,0,0,8192,8192
266.752,0,0,8192,8192
266.802,0,0,8192,8192
266.852,0,0,8192,8192
266.902,0,0,8192,8192
266.952,0,0,8192,8192
267.001,0,0,8192,8192
267.051,0,0,8192,8192
267.101,-2.77556e-17,0,8192,8192
267.151,-2.77556e-17,0,8192,8192
267.201,0,0,8192,8192
267.25,0,0,8192,8192
267.3,0,0,8192,8192
267.353,0,0,8192,8192
267.403,0,0,8192,8192
267.453,0,0,8192,8192
267.502,2.77556e-17,0,8192,8192
267.552,2.77556e-17,0,8192,8192
267.602,0,0,8192,8192
267.652,0,0,8192,8192
267.702,0,0,8192,8192
267.751,0,0,8192,8192
267.801,0,0,8192,8192
267.851,0,0,8192,8192
267.901,0,0,8192,8192
267.95,2.77556e-17,0,8192,8192
268,0,0,8192,8192
268.05,0,0,8192,8192
268.101,0,0,8420,8420
268.15,0,0,8432,8432
268.2,0,0,8408,8408
268.251,0,0,8388,8388
268.301,0,0,8484,8484
268.35,0,0,8496,8496
268.4,0,0,8472,8472
268.451,0,0,8440,8440
268.501,0,0,8416,8416
268.551,0,0,8368,8368
268.601,0,0,8312,8312
268.651,0,0,8240,8240
268.701,0,0,8192,8192
268.751,2.77556e-17,0,8192,8192
268.8,0,0,8192,8192
268.85,-2.77556e-17,0,8192,8192
268.9,-2.77556e-17,0,8192,8192
268.953,-2.77556e-17,0,8192,8192
269.003,-5.55112e-17,0,8192,8192
269.052,-8.32667e-17,0,8192,8192
269.102,-8.32667e-17,0,8192,8192
269.152,-1.11022e-16,0,8192,8192
269.202,-1.11022e-16,0,8192,8192
269.252,-1.38778e-16,0,8192,8192
269.301,-1.38778e-16,0,8192,8192
269.351,-1.38778e-16,0,8192,8192
269.401,-1.38778e-16,0,8192,8192
269.451,-1.38778e-16,0,8284,8284
269.501,-1.38778e-16,0,8380,8380
269.551,-1.38778e-16,0,8396,8396
269.6,-1.38778e-16,0,8572,8572
269.651,-1.38778e-16,0,8804,8804
269.701,-1.38778e-16,0,8908,8908
269.751,-1.38778e-16,0,9388,9388
269.801,-1.38778e-16,0,10012,10012
269.85,-1.38778e-16,0,10220,10220
269.9,-1.38778e-16,0,11028,11028
269.951,-1.38778e-16,0,11740,11740
270,-1.38778e-16,0,12564,12564
270.05,-1.38778e-16,0,13300,13300
270.1,-1.38778e-16,0,14068,14068
270.151,-1.38778e-16,0,14892,14892
270.2,-1.38778e-16,0,15340,15340
270.25,-1.38778e-16,0,15708,15708
270.301,-1.38778e-16,0,16388,16388
270.35,-1.38778e-16,0,17324,17324
270.4,-1.38778e-16,0,18060,18060
270.45,-1.38778e-16,0,18940,18940
270.501,-1.38778e-16,0,19732,19732
270.55,-1.38778e-16,0,20404,20404
270.6,-1.38778e-16,0,21268,21268
270.65,-1.38778e-16,0,22092,22092
270.701,-1.38778e-16,0,22996,22996
270.75,-1.38778e-16,0,24204,24204
270.8,-1.38778e-16,0,25300,25300
270.851,-1.38778e-16,0,26084,26084
270.9,-1.38778e-16,0,26956,26956
270.95,-1.38778e-16,0,27780,27780
271,-1.38778e-16,0,28604,28604
271.051,-1.38778e-16,0,29436,29436
271.1,-1.38778e-16,0,30196,30196
271.15,-1.38778e-16,0,30972,30972
271.201,-1.38778e-16,0,31764,31764
271.25,-1.38778e-16,0,32556,32556
271.3,-1.38778e-16,0,33420,33420
271.35,-1.38778e-16,0,34212,34212
271.401,-1.38778e-16,0,35100,35100
271.45,-1.38778e-16,0,35884,35884
271.5,-1.38778e-16,0,36708,36708
271.55,-1.38778e-16,0,37124,37124
271.601,-1.38778e-16,0,37516,37516
271.65,-1.38778e-16,0,38284,38284
271.7,-1.38778e-16,0,39004,39004
271.751,-1.38778e-16,0,39892,39892
271.8,-1.38778e-16,0,40572,40572
271.85,-1.38778e-16,0,41524,41524
271.9,-1.38778e-16,0,42252,42252
271.951,-1.38778e-16,0,43020,43020
272,-1.38778e-16,0,43892,43892
272.05,-1.38778e-16,0,44716,44716
272.101,-1.38778e-16,0,45444,45444
272.151,-1.38778e-16,0,46268,46268
272.2,-1.38778e-16,0,47036,47036
272.25,-1.38778e-16,0,47852,47852
272.301,-1.38778e-16,0,48612,48612
272.35,-1.38778e-16,0,49396,49396
272.4,-1.38778e-15,0,50204,50204
272.45,-3.05311e-15,0,50956,50956
272.501,-7.18869e-15,0,51716,51716
272.55,-3.78308e-14,0,52564,52564
272.6,-1.9118e-13,0,53292,53292
272.651,-8.01886e-13,0,54060,54060
272.7,-2.7226e-12,0,54772,54772
272.75,-7.78699e-12,0,55540,55540
272.8,-1.89765e-11,0,56252,56252
272.851,-4.00902e-11,0,57036,57036
272.9,-7.21963e-11,0,57820,57820
272.95,-1.12398e-10,0,58556,58556
273.001,-1.51584e-10,0,59324,59324
273.051,-1.74448e-10,0,60196,60196
273.1,-1.6955e-10,0,60932,60932
273.15,-1.34038e-10,0,61612,61612
273.201,-7.6382e-11,0,62428,62428
273.25,-1.59481e-11,0,63500,63500
273.3,3.1713e-11,0,64140,64140
273.35,5.96984e-11,0,64628,64628
273.401,7.21797e-11,0,65340,65340
273.45,7.85054e-11,0,66172,66172
273.5,8.61972e-11,0,66364,66364
273.551,9.6088e-11,0,66556,66556
273.6,1.0381e-10,0,66716,66716
273.65,1.06083e-10,0,66792,66792
273.7,1.03849e-10,0,66784,66784
273.751,1.01602e-10,0,66264,66264
273.8,1.03443e-10,0,66216,66216
273.85,1.09342e-10,0,66056,66056
273.901,1.15632e-10,0,66416,66416
273.951,1.18029e-10,0,66208,66208
274,1.15861e-10,0,66324,66324
274.05,1.12248e-10,0,66936,66936
274.101,1.11392e-10,0,67352,67352
274.15,1.14611e-10,0,67568,67568
274.2,1.18649e-10,0,68152,68152
274.25,1.18566e-10,0,67984,67984
274.301,1.13076e-10,0,68448,68448
274.35,1.08675e-10,0,68600,68600
274.4,1.1597e-10,0,68668,68668
274.451,1.39993e-10,0,68836,68836
274.5,1.66441e-10,0,68812,68812
274.55,1.61143e-10,0,68532,68532
274.6,8.39883e-11,0,67932,67932
274.651,-7.71592e-11,0,67404,67404
274.7,-2.50228e-10,0,67460,67460
274.75,-2.89504e-10,0,66780,66780
274.8,-5.77319e-11,0,66244,66244
274.851,2.00772e-09,0,65940,65940
274.9,8.43899e-09,0,65812,65812
274.95,1.56168e-08,0,65292,65292
275.001,2.22285e-08,0,64948,64948
275.05,2.71866e-08,0,65132,65132
275.1,3.04248e-08,0,64484,64484
275.15,3.24916e-08,0,64060,64060
275.2,3.47042e-08,0,63524,63524
275.25,3.88379e-08,0,63164,63164
275.301,4.61693e-08,0,63100,63100
275.35,5.65129e-08,0,62676,62676
275.4,6.91408e-08,0,62388,62388
275.45,8.36027e-08,0,62156,62156
275.5,1.0058e-07,0,61924,61924
275.55,1.21321e-07,0,61676,61676
275.601,1.48166e-07,0,61244,61244
275.651,1.81546e-07,0,60876,60876
275.701,2.22316e-07,0,60516,60516
275.75,2.69087e-07,0,60268,60268
275.801,3.2128e-07,0,60156,60156
275.851,3.74753e-07,0,60132,60132
275.901,4.28943e-07,0,59708,59708
275.951,4.84827e-07,0,59500,59500
276,5.43614e-07,0,59300,59300
276.05,6.06781e-07,0,59132,59132
276.101,6.72921e-07,0,58748,58748
276.151,7.35319e-07,0,58544,58544
276.2,7.89638e-07,0,58312,58312
276.251,8.34613e-07,0,58152,58152
276.3,8.67549e-07,0,58024,58024
276.35,8.89524e-07,0,58360,58360
276.401,9.02373e-07,0,58280,58280
276.45,9.08581e-07,0,57944,57944
276.5,9.10222e-07,0,57888,57888
276.55,9.1016e-07,0,57400,57400
276.6,9.07516e-07,0,57272,57272
276.651,8.98864e-07,0,57112,57112
276.7,8.86067e-07,0,57072,57072
276.751,8.6692e-07,0,56848,56848
276.801,8.40694e-07,0,56696,56696
276.851,8.06148e-07,0,56600,56600
276.9,7.63664e-07,0,56496,56496
276.95,7.12732e-07,0,56352,56352
277,6.57475e-07,0,56248,56248
277.05,6.00475e-07,0,56112,56112
277.1,5.44683e-07,0,56040,56040
277.151,4.91906e-07,0,55912,55912
277.2,4.43765e-07,0,55768,55768
277.25,3.99493e-07,0,55752,55752
277.3,3.58728e-07,0,55584,55584
277.35,3.20802e-07,0,55624,55624
277.401,2.84993e-07,0,55672,55672
277.45,2.5132e-07,0,55704,55704
277.5,2.19031e-07,0,55928,55928
277.55,1.88846e-07,0,56240,56240
277.6,1.62466e-07,0,56288,56288
277.651,1.41637e-07,0,56280,56280
277.7,1.26617e-07,0,56184,56184
277.75,1.147e-07,0,55952,55952
277.8,1.02688e-07,0,55608,55608
277.851,8.88831e-08,0,55552,55552
277.9,7.44465e-08,0,55480,55480
277.95,6.13587e-08,0,55368,55368
278,5.13e-08,0,55264,55264
278.05,4.45401e-08,0,55120,55120
278.101,4.02694e-08,0,55000,55000
278.151,3.71691e-08,0,54888,54888
278.2,3.36139e-08,0,54816,54816
278.251,2.83955e-08,0,54672,54672
278.301,2.15115e-08,0,54592,54592
278.35,1.45882e-08,0,54288,54288
278.4,9.489e-09,0,54012,54012
278.45,7.34669e-09,0,53844,53844
278.5,7.10716e-09,0,53516,53516
278.55,7.33171e-09,0,52892,52892
278.601,7.58893e-09,0,52276,52276
278.65,7.82614e-09,0,51668,51668
278.701,8.00958e-09,0,51188,51188
278.75,8.11651e-09,0,50812,50812
278.801,8.14697e-09,0,50300,50300
278.85,8.10695e-09,0,49692,49692
278.9,8.00312e-09,0,49164,49164
278.95,7.85119e-09,0,48516,48516
279.001,7.67354e-09,0,47900,47900
279.051,7.50639e-09,0,47284,47284
279.101,7.36969e-09,0,46588,46588
279.15,7.27556e-09,0,45972,45972
279.2,7.2192e-09,0,45252,45252
279.251,7.19411e-09,0,44724,44724
279.301,7.1897e-09,0,44060,44060
279.35,7.19674e-09,0,43388,43388
279.401,7.20977e-09,0,42788,42788
279.45,7.22554e-09,0,42092,42092
279.5,7.24284e-09,0,41548,41548
279.551,7.26099e-09,0,40924,40924
279.601,7.27893e-09,0,40236,40236
279.651,7.29697e-09,0,39644,39644
279.701,7.31488e-09,0,39076,39076
279.751,7.33241e-09,0,38132,38132
279.801,7.34936e-09,0,36964,36964
279.85,7.36517e-09,0,36860,36860
279.9,7.38013e-09,0,37508,37508
279.95,7.39382e-09,0,37204,37204
280,7.40662e-09,0,37948,37948
280.05,7.42007e-09,0,39012,39012
280.101,7.43834e-09,0,39476,39476
280.151,7.46679e-09,0,40580,40580
280.2,7.51223e-09,0,41460,41460
280.251,7.58101e-09,0,41860,41860
280.3,7.67259e-09,0,42332,42332
280.351,7.79007e-09,0,43404,43404
280.4,7.92756e-09,0,43892,43892
280.45,8.08958e-09,0,44932,44932
280.501,8.27522e-09,0,45964,45964
280.551,8.48886e-09,0,46636,46636
280.601,8.73699e-09,0,47316,47316
280.651,9.0268e-09,0,47916,47916
280.701,9.36332e-09,0,48620,48620
280.751,9.7399e-09,0,49284,49284
280.801,1.01331e-08,0,49820,49820
280.85,1.07687e-08,0,50484,50484
280.901,1.14955e-08,0,51060,51060
280.95,1.22617e-08,0,51724,51724
281,1.32216e-08,0,52476,52476
281.05,1.44455e-08,0,53020,53020
281.101,1.58233e-08,0,53572,53572
281.15,1.72973e-08,0,54212,54212
281.2,1.88778e-08,0,54804,54804
281.25,2.13501e-08,0,55540,55540
281.3,2.37592e-08,0,56204,56204
281.351,2.64328e-08,0,56784,56784
281.4,2.92816e-08,0,57320,57320
281.451,3.23513e-08,0,57880,57880
281.501,3.55339e-08,0,58496,58496
281.551,3.93974e-08,0,59064,59064
281.6,4.3149e-08,0,59696,59696
281.651,4.71034e-08,0,60176,60176
281.701,5.10856e-08,0,60744,60744
281.751,5.51224e-08,0,61264,61264
281.801,5.92469e-08,0,61616,61616
281.85,6.33569e-08,0,62096,62096
281.9,6.75473e-08,0,62540,62540
281.951,7.17941e-08,0,62912,62912
282.001,7.60548e-08,0,63704,63704
282.05,8.04078e-08,0,64072,64072
282.101,8.51696e-08,0,65064,65064
282.15,9.07315e-08,0,65560,65560
282.2,9.78539e-08,0,66064,66064
282.25,1.06308e-07,0,66632,66632
282.301,1.15286e-07,0,67144,67144
282.35,1.23505e-07,0,67576,67576
282.4,1.30743e-07,0,67928,67928
282.45,1.36935e-07,0,68264,68264
282.5,1.42718e-07,0,68176,68176
282.551,1.49085e-07,0,68080,68080
282.6,1.56768e-07,0,68812,68812
282.65,1.66595e-07,0,69044,69044
282.7,1.78567e-07,0,69700,69700
282.75,1.92721e-07,0,70540,70540
282.801,2.09613e-07,0,71100,71100
282.851,2.29625e-07,0,71724,71724
282.9,2.53209e-07,0,72388,72388
282.951,2.825e-07,0,73060,73060
283,3.16615e-07,0,73764,73764
283.05,3.55722e-07,0,74436,74436
283.1,3.99627e-07,0,75164,75164
283.15,4.46389e-07,0,75916,75916
283.2,4.94859e-07,0,76660,76660
283.251,5.45318e-07,0,76972,76972
283.3,5.96136e-07,0,77236,77236
283.35,6.48781e-07,0,77260,77260
283.4,7.01388e-07,0,77264,77264
283.45,7.51783e-07,0,77456,77456
283.501,7.97822e-07,0,77728,77728
283.55,8.35406e-07,0,78088,78088
283.6,8.63937e-07,0,78376,78376
283.65,8.82191e-07,0,78716,78716
283.701,8.90832e-07,0,79124,79124
283.75,8.91372e-07,0,79476,79476
283.8,8.85768e-07,0,79932,79932
283.85,8.75326e-07,0,80164,80164
283.9,8.61181e-07,0,80412,80412
283.951,8.42837e-07,0,80900,80900
284,8.20262e-07,0,81164,81164
284.05,7.92156e-07,0,81412,81412
284.1,7.5823e-07,0,81732,81732
284.15,7.17976e-07,0,81980,81980
284.201,6.70542e-07,0,82284,82284
284.25,6.17977e-07,0,82580,82580
284.3,5.60182e-07,0,82876,82876
284.35,5.00065e-07,0,83404,83404
284.4,4.39978e-07,0,83804,83804
284.45,3.8112e-07,0,84268,84268
284.501,3.25848e-07,0,84628,84628
284.551,2.74864e-07,0,84980,84980
284.601,2.28252e-07,0,85068,85068
284.65,1.85633e-07,0,85228,85228
284.7,1.4645e-07,0,85288,85288
284.751,1.09761e-07,0,85272,85272
284.8,7.64575e-08,0,85280,85280
284.85,4.62206e-08,0,85248,85248
284.9,1.96279e-08,0,85016,85016
284.951,-3.02617e-09,0,84736,84736
285,-2.09717e-08,0,84200,84200
285.05,-3.52389e-08,0,84160,84160
285.101,-4.72385e-08,0,84008,84008
285.15,-5.78338e-08,0,83976,83976
285.2,-6.7737e-08,0,84000,84000
285.25,-7.66717e-08,0,84584,84584
285.301,-8.40207e-08,0,85264,85264
285.35,-8.89393e-08,0,85592,85592
285.4,-9.14514e-08,0,85880,85880
285.45,-9.23034e-08,0,86256,86256
285.501,-9.22909e-08,0,86680,86680
285.55,-9.22886e-08,0,87216,87216
285.6,-9.22264e-08,0,87720,87720
285.651,-9.20397e-08,0,88240,88240
285.7,-9.17144e-08,0,88784,88784
285.75,-9.10371e-08,0,89272,89272
285.8,-8.88364e-08,0,89840,89840
285.851,-8.42677e-08,0,90212,90212
285.9,-7.95356e-08,0,90620,90620
285.95,-7.47608e-08,0,90788,90788
286.001,-6.99941e-08,0,91036,91036
286.051,-6.54813e-08,0,91180,91180
286.1,-6.12097e-08,0,91188,91188
286.15,-5.72098e-08,0,91380,91380
286.201,-5.34474e-08,0,91348,91348
286.25,-5.00416e-08,0,91300,91300
286.3,-4.69405e-08,0,90900,90900
286.35,-4.41416e-08,0,90324,90324
286.401,-4.16022e-08,0,89532,89532
286.45,-3.93837e-08,0,88748,88748
286.5,-3.74294e-08,0,88228,88228
286.551,-3.56969e-08,0,87276,87276
286.6,-3.42048e-08,0,86476,86476
286.65,-3.28884e-08,0,85908,85908
286.7,-3.17996e-08,0,85296,85296
286.751,-3.08884e-08,0,84528,84528
286.8,-3.01146e-08,0,83680,83680
286.85,-2.96854e-08,0,83096,83096
286.901,-2.94127e-08,0,82256,82256
286.951,-2.92059e-08,0,81520,81520
287,-2.90625e-08,0,80768,80768
287.05,-2.89886e-08,0,80360,80360
287.101,-2.89535e-08,0,79688,79688
287.15,-2.89616e-08,0,78944,78944
287.2,-2.90114e-08,0,78192,78192
287.25,-2.90995e-08,0,77448,77448
287.301,-2.92233e-08,0,76672,76672
287.35,-2.93726e-08,0,75984,75984
287.4,-2.95431e-08,0,75312,75312
287.451,-2.97317e-08,0,74608,74608
287.5,-2.99269e-08,0,73824,73824
287.55,-3.01268e-08,0,73216,73216
287.6,-3.0327e-08,0,72560,72560
287.651,-3.05269e-08,0,71920,71920
287.7,-3.07179e-08,0,71240,71240
287.75,-3.09002e-08,0,70560,70560
287.801,-3.10736e-08,0,69888,69888
287.851,-3.12309e-08,0,69368,69368
287.9,-3.13723e-08,0,68624,68624
287.95,-3.14959e-08,0,67936,67936
288.001,-3.1601e-08,0,67296,67296
288.05,-3.16834e-08,0,66576,66576
288.1,-3.17444e-08,0,65952,65952
288.15,-3.17844e-08,0,65304,65304
288.201,-3.18044e-08,0,64728,64728
288.25,-3.1805e-08,0,63872,63872
288.3,-3.17882e-08,0,62948,62948
288.351,-3.17547e-08,0,62204,62204
288.4,-3.17072e-08,0,61548,61548
288.45,-3.16468e-08,0,61036,61036
288.5,-3.15753e-08,0,60612,60612
288.551,-3.14927e-08,0,60380,60380
288.6,-3.1403e-08,0,60044,60044
288.65,-3.13063e-08,0,59716,59716
288.7,-3.12038e-08,0,59234,59234
288.751,-3.10949e-08,0,59036,59036
288.8,-3.09833e-08,0,58644,58644
288.85,-3.08678e-08,0,57492,57492
288.901,-3.07472e-08,0,56908,56908
288.95,-3.06254e-08,0,56556,56556
289,-3.05012e-08,0,56020,56020
289.05,-3.03752e-08,0,55596,55596
289.101,-3.02464e-08,0,53196,53196
289.15,-3.0119e-08,0,52380,52380
289.2,-2.99911e-08,0,50996,50996
289.251,-2.98608e-08,0,49652,49652
289.3,-2.97312e-08,0,48308,48308
289.35,-2.95992e-08,0,47324,47324
289.4,-2.94634e-08,0,46388,46388
289.451,-2.932e-08,0,45444,45444
289.5,-2.91708e-08,0,44604,44604
289.55,-2.90111e-08,0,43708,43708
289.6,-2.8838e-08,0,42996,42996
289.651,-2.86453e-08,0,42108,42108
289.7,-2.8435e-08,0,41428,41428
289.75,-2.82011e-08,0,40596,40596
289.801,-2.79368e-08,0,39732,39732
289.85,-2.76493e-08,0,39052,39052
289.9,-2.73436e-08,0,38140,38140
289.95,-2.70353e-08,0,37292,37292
290.001,-2.67098e-08,0,36404,36404
290.05,-2.62932e-08,0,35516,35516
290.1,-2.58155e-08,0,34588,34588
290.151,-2.53481e-08,0,33748,33748
290.201,-2.48613e-08,0,32844,32844
290.25,-2.43599e-08,0,31804,31804
290.3,-2.38561e-08,0,30644,30644
290.351,-2.3353e-08,0,29460,29460
290.4,-2.28717e-08,0,28352,28352
290.45,-2.24158e-08,0,27432,27432
290.5,-2.19835e-08,0,27264,27264
290.551,-2.15766e-08,0,27056,27056
290.6,-2.12144e-08,0,26912,26912
290.65,-2.0889e-08,0,26760,26760
290.701,-2.06046e-08,0,26508,26508
290.75,-2.03708e-08,0,26020,26020
290.8,-2.01828e-08,0,25476,25476
290.85,-2.00586e-08,0,24444,24444
290.901,-1.98924e-08,0,23620,23620
290.95,-1.98686e-08,0,23092,23092
291,-1.98746e-08,0,22796,22796
291.051,-1.99351e-08,0,22212,22212
291.101,-2.00547e-08,0,21492,21492
291.15,-2.02311e-08,0,20700,20700
291.2,-2.04456e-08,0,19916,19916
291.251,-2.06834e-08,0,19140,19140
291.3,-2.09268e-08,0,18332,18332
291.35,-2.11772e-08,0,17460,17460
291.4,-2.14283e-08,0,17244,17244
291.451,-2.16741e-08,0,16716,16716
291.5,-2.19144e-08,0,15964,15964
291.55,-2.21528e-08,0,15244,15244
291.601,-2.23817e-08,0,14524,14524
291.65,-2.25856e-08,0,13796,13796
291.7,-2.27533e-08,0,13060,13060
291.75,-2.28871e-08,0,12348,12348
291.801,-2.29941e-08,0,12124,12124
291.851,-2.30732e-08,0,12116,12116
291.9,-2.31304e-08,0,12116,12116
291.952,-2.31692e-08,0,12184,12184
292.001,-2.31863e-08,0,12280,12280
292.05,-2.31825e-08,0,12376,12376
292.101,-2.31586e-08,0,12424,12424
292.15,-2.31182e-08,0,12408,12408
292.201,-2.30601e-08,0,12448,12448
292.251,-2.29874e-08,0,12416,12416
292.302,-2.29018e-08,0,12424,12424
292.352,-2.28052e-08,0,12416,12416
292.401,-2.26987e-08,0,12424,12424
292.451,-2.25832e-08,0,12488,12488
292.501,-2.24596e-08,0,12480,12480
292.55,-2.2329e-08,0,12504,12504
292.601,-2.21874e-08,0,12544,12544
292.652,-2.20403e-08,0,12424,12424
292.701,-2.18939e-08,0,12248,12248
292.751,-2.17392e-08,0,12168,12168
292.801,-2.15823e-08,0,12096,12096
292.851,-2.14245e-08,0,12104,12104
292.901,-2.12673e-08,0,12096,12096
292.951,-2.11118e-08,0,12112,12112
293,-2.09593e-08,0,12120,12120
293.051,-2.0806e-08,0,12180,12180
293.101,-2.06624e-08,0,12164,12164
293.151,-2.05188e-08,0,12124,12124
293.2,-2.03837e-08,0,12308,12308
293.25,-2.02542e-08,0,12484,12484
293.301,-2.01355e-08,0,12572,12572
293.351,-2.00245e-08,0,12684,12684
293.4,-1.99213e-08,0,12716,12716
293.45,-1.9826e-08,0,12860,12860
293.501,-1.97356e-08,0,13124,13124
293.551,-1.96541e-08,0,13116,13116
293.601,-1.95749e-08,0,13116,13116
293.651,-1.95016e-08,0,13076,13076
293.701,-1.94285e-08,0,13028,13028
293.751,-1.93573e-08,0,13036,13036
293.801,-1.9288e-08,0,13036,13036
293.851,-1.92205e-08,0,13028,13028
293.901,-1.91549e-08,0,12996,12996
293.951,-1.90912e-08,0,13004,13004
294,-1.9029e-08,0,12996,12996
294.051,-1.89658e-08,0,12996,12996
294.1,-1.89047e-08,0,12980,12980
294.151,-1.88408e-08,0,12980,12980
294.201,-1.87751e-08,0,12988,12988
294.25,-1.87087e-08,0,12980,12980
294.3,-1.86373e-08,0,12996,12996
294.35,-1.85627e-08,0,12996,12996
294.401,-1.84828e-08,0,13004,13004
294.451,-1.84024e-08,0,12988,12988
294.501,-1.832e-08,0,12988,12988
294.551,-1.82359e-08,0,12996,12996
294.601,-1.81505e-08,0,12980,12980
294.65,-1.80641e-08,0,13004,13004
294.7,-1.79764e-08,0,12988,12988
294.75,-1.78875e-08,0,13004,13004
294.801,-1.77946e-08,0,12996,12996
294.851,-1.7703e-08,0,12996,12996
294.901,-1.76101e-08,0,12996,12996
294.951,-1.75159e-08,0,12980,12980
295,-1.74205e-08,0,12996,12996
295.05,-1.73237e-08,0,12732,12732
295.1,-1.72251e-08,0,12568,12568
295.151,-1.71212e-08,0,12424,12424
295.201,-1.70175e-08,0,12280,12280
295.251,-1.69107e-08,0,12224,12224
295.301,-1.68007e-08,0,12104,12104
295.351,-1.66871e-08,0,11968,11968
295.4,-1.65697e-08,0,11888,11888
295.45,-1.64484e-08,0,11816,11816
295.501,-1.63188e-08,0,11792,11792
295.551,-1.61883e-08,0,11768,11768
295.601,-1.60527e-08,0,11760,11760
295.651,-1.5912e-08,0,11720,11720
295.701,-1.57661e-08,0,11680,11680
295.75,-1.56149e-08,0,11672,11672
295.8,-1.54585e-08,0,11648,11648
295.851,-1.52919e-08,0,11624,11624
295.901,-1.51248e-08,0,11600,11600
295.951,-1.49524e-08,0,11584,11584
296.001,-1.47746e-08,0,11592,11592
296.051,-1.45912e-08,0,11600,11600
296.1,-1.44021e-08,0,11500,11500
296.15,-1.42071e-08,0,11388,11388
296.2,-1.40061e-08,0,11268,11268
296.251,-1.37928e-08,0,11180,11180
296.301,-1.35793e-08,0,11060,11060
296.351,-1.33594e-08,0,10956,10956
296.401,-1.31332e-08,0,10836,10836
296.45,-1.29004e-08,0,10780,10780
296.5,-1.26609e-08,0,10708,10708
296.55,-1.24144e-08,0,10636,10636
296.601,-1.21529e-08,0,10580,10580
296.651,-1.18908e-08,0,10508,10508
296.701,-1.16186e-08,0,10484,10484
296.75,-1.1343e-08,0,10472,10472
296.801,-1.1046e-08,0,10512,10512
296.852,-1.07369e-08,0,10528,10528
296.9,-1.04263e-08,0,10520,10520
296.951,-1.00883e-08,0,10536,10536
297.001,-9.73314e-09,0,10528,10528
297.052,-9.36131e-09,0,10536,10536
297.1,-8.99205e-09,0,10520,10520
297.151,-8.60387e-09,0,10528,10528
297.201,-8.21358e-09,0,10552,10552
297.251,-7.65396e-09,0,10536,10536
297.301,-7.02548e-09,0,10536,10536
297.351,-6.45485e-09,0,10536,10536
297.4,-5.87619e-09,0,10512,10512
297.451,-5.24649e-09,0,10520,10520
297.501,-4.61796e-09,0,10528,10528
297.552,-3.94714e-09,0,10552,10552
297.6,-3.28835e-09,0,10536,10536
297.651,-2.59955e-09,0,10536,10536
297.701,-1.9114e-09,0,10536,10536
297.751,-1.22984e-09,0,10536,10536
297.801,-5.59617e-10,0,10536,10536
297.851,9.51588e-11,0,10544,10544
297.9,7.30954e-10,0,10520,10520
297.951,1.36585e-09,0,10536,10536
298.001,1.95236e-09,0,10560,10560
298.051,2.52845e-09,0,10552,10552
298.1,3.0506e-09,0,10560,10560
298.15,3.55215e-09,0,10560,10560
298.201,4.01064e-09,0,10552,10552
298.251,4.424e-09,0,10584,10584
298.3,4.79134e-09,0,10552,10552
298.35,5.11336e-09,0,10552,10552
298.401,5.40059e-09,0,10576,10576
298.451,5.63544e-09,0,10568,10568
298.501,5.83906e-09,0,10576,10576
298.55,5.98097e-09,0,10576,10576
298.601,6.06965e-09,0,10576,10576
298.651,6.10491e-09,0,10608,10608
298.701,6.12379e-09,0,10608,10608
298.751,6.12497e-09,0,10624,10624
298.801,6.10842e-09,0,10624,10624
298.85,6.07454e-09,0,10648,10648
298.901,6.02156e-09,0,10632,10632
298.95,5.95522e-09,0,10632,10632
299.001,5.87315e-09,0,10632,10632
299.052,5.77959e-09,0,10664,10664
299.1,5.68046e-09,0,10664,10664
299.15,5.57121e-09,0,10664,10664
299.2,5.45681e-09,0,10664,10664
299.25,5.33912e-09,0,10688,10688
299.301,5.21549e-09,0,10688,10688
299.351,5.09498e-09,0,10696,10696
299.4,4.97493e-09,0,10696,10696
299.451,4.85248e-09,0,10696,10696
299.502,4.73257e-09,0,10720,10720
299.55,4.61961e-09,0,10720,10720
299.601,4.50714e-09,0,10728,10728
299.651,4.39948e-09,0,10712,10712
299.701,4.29718e-09,0,10736,10736
299.75,4.20079e-09,0,10752,10752
299.801,4.10802e-09,0,10760,10760
299.851,4.0248e-09,0,10760,10760
299.9,3.94839e-09,0,10784,10784
299.951,3.87676e-09,0,10760,10760
300.001,3.81231e-09,0,10768,10768
300.051,3.75485e-09,0,10792,10792
300.101,3.704e-09,0,10800,10800
300.151,3.65925e-09,0,10792,10792
300.201,3.62003e-09,0,10800,10800
300.251,3.58568e-09,0,10824,10824
300.3,3.55543e-09,0,10824,10824
300.351,3.52781e-09,0,10824,10824
300.4,3.50367e-09,0,10832,10832
300.451,3.48077e-09,0,10832,10832
300.501,3.45912e-09,0,10856,10856
300.551,3.43809e-09,0,10872,10872
300.601,3.41711e-09,0,10864,10864
300.651,3.39575e-09,0,10880,10880
300.701,3.3737e-09,0,10888,10888
300.751,3.35076e-09,0,10872,10872
300.801,3.32692e-09,0,10880,10880
300.851,3.30228e-09,0,10872,10872
300.9,3.27702e-09,0,10888,10888
300.95,3.25134e-09,0,10896,10896
301.001,3.22469e-09,0,10912,10912
301.051,3.19877e-09,0,10896,10896
301.101,3.17294e-09,0,10920,10920
301.151,3.14726e-09,0,10904,10904
301.201,3.12176e-09,0,10920,10920
301.25,3.09651e-09,0,10912,10912
301.3,3.0716e-09,0,10944,10944
301.351,3.04646e-09,0,10928,10928
301.401,3.02267e-09,0,10944,10944
301.451,2.99971e-09,0,10936,10936
301.501,2.97776e-09,0,10952,10952
301.551,2.95699e-09,0,10952,10952
301.6,2.93753e-09,0,10952,10952
301.65,2.91944e-09,0,10936,10936
301.701,2.90223e-09,0,10952,10952
301.751,2.88679e-09,0,10936,10936
301.801,2.87245e-09,0,10952,10952
301.851,2.85903e-09,0,10952,10952
301.901,2.8463e-09,0,10952,10952
301.95,2.83402e-09,0,10952,10952
302,2.82197e-09,0,10920,10920
302.05,2.80996e-09,0,10952,10952
302.101,2.79746e-09,0,10952,10952
302.151,2.78503e-09,0,10952,10952
302.201,2.77219e-09,0,10952,10952
302.251,2.75886e-09,0,10952,10952
302.3,2.745e-09,0,10936,10936
302.35,2.73058e-09,0,10852,10852
302.4,2.71559e-09,0,10732,10732
302.451,2.69959e-09,0,10612,10612
302.501,2.68351e-09,0,10500,10500
302.551,2.66695e-09,0,10396,10396
302.601,2.64996e-09,0,10276,10276
302.651,2.63256e-09,0,10172,10172
302.7,2.61479e-09,0,10036,10036
302.75,2.59669e-09,0,9948,9948
302.801,2.57775e-09,0,9812,9812
302.851,2.55906e-09,0,9708,9708
302.901,2.54012e-09,0,9588,9588
302.951,2.52094e-09,0,9468,9468
303.001,2.50153e-09,0,9364,9364
303.05,2.48189e-09,0,9260,9260
303.1,2.46203e-09,0,9156,9156
303.151,2.44136e-09,0,9028,9028
303.201,2.42107e-09,0,8908,8908
303.251,2.40057e-09,0,8788,8788
303.301,2.3799e-09,0,8684,8684
303.351,2.35906e-09,0,8580,8580
303.4,2.33809e-09,0,8460,8460
303.45,2.31701e-09,0,8340,8340
303.501,2.29532e-09,0,8252,8252
303.551,2.27419e-09,0,8196,8196
303.603,2.25214e-09,0,8192,8192
303.653,2.23101e-09,0,8192,8192
303.703,2.20993e-09,0,8192,8192
303.752,2.18892e-09,0,8192,8192
303.802,2.16802e-09,0,8192,8192
303.852,2.14723e-09,0,8192,8192
303.902,2.12659e-09,0,8192,8192
303.951,2.10612e-09,0,8192,8192
304.001,2.08584e-09,0,8192,8192
304.051,2.06579e-09,0,8192,8192
304.101,2.04597e-09,0,8192,8192
304.151,2.02639e-09,0,8192,8192
304.2,2.00702e-09,0,8192,8192
304.25,1.98786e-09,0,8192,8192
304.3,1.96888e-09,0,8192,8192
304.353,1.94898e-09,0,8192,8192
304.403,1.93032e-09,0,8192,8192
304.452,1.91179e-09,0,8192,8192
304.502,1.89333e-09,0,8192,8192
304.552,1.87493e-09,0,8192,8192
304.602,1.85654e-09,0,8192,8192
304.652,1.83811e-09,0,8192,8192
304.701,1.81961e-09,0,8192,8192
304.751,1.80099e-09,0,8192,8192
304.801,1.78221e-09,0,8192,8192
304.851,1.76322e-09,0,8192,8192
304.901,1.74397e-09,0,8192,8192
304.95,1.72443e-09,0,8192,8192
