250,0,0,512,512
250.012,0,0,512,512
250.059,0,0,512,512
250.105,0,0,512,512
250.152,0,0,512,512
250.211,0,0,512,512
250.258,0,0,512,512
250.305,0,0,512,512
250.352,0,0,512,512
250.41,0,0,512,512
250.457,0,0,512,512
250.504,0,0,512,512
250.551,0,0,512,512
250.609,0,0,512,512
250.656,0,0,512,512
250.703,0,0,512,512
250.762,0,0,512,512
250.808,0,0,512,512
250.855,0,0,512,512
250.902,0,0,512,512
250.961,0,0,512,512
251.008,0,0,512,512
251.055,0,0,512,512
251.101,0,0,512,512
251.16,0,0,512,512
251.207,0,0,512,512
251.254,0,0,512,512
251.301,0,0,512,512
251.359,0,0,512,512
251.406,0,0,512,512
251.453,0,0,512,512
251.511,0,0,512,512
251.558,0,0,512,512
251.605,0,0,512,512
251.652,0,0,512,512
251.711,0,0,512,512
251.758,0,0,512,512
251.804,0,0,512,512
251.851,0,0,512,512
251.91,0,0,512,512
251.957,0,0,512,512
252.004,0,0,512,512
252.05,0,0,512,512
252.109,0,0,512,512
252.156,0,0,512,512
252.203,0,0,512,512
252.261,0,0,512,512
252.308,0,0,512,512
252.355,0,0,512,512
252.402,0,0,512,512
252.461,0,0,512,512
252.507,0,0,512,512
252.554,0,0,512,512
252.601,0,0,512,512
252.66,0,0,512,512
252.707,0,0,512,512
252.754,0,0,512,512
252.8,0,0,512,512
252.859,0,0,512,512
252.906,0,0,512,512
252.953,0,0,512,512
253.011,0,0,512,512
253.058,0,0,512,512
253.105,0,0,512,512
253.152,0,0,512,512
253.21,0,0,512,512
253.257,-1.38778e-17,0,512,512
253.304,-1.38778e-17,0,512,512
253.351,-1.38778e-17,0,512,512
253.41,-1.38778e-17,0,512,512
253.457,-1.38778e-17,0,512,512
253.503,-1.38778e-17,0,512,512
253.55,-1.38778e-17,0,512,512
253.609,-1.38778e-17,0,512,512
253.656,-1.38778e-17,0,512,512
253.703,-1.38778e-17,0,512,512
253.761,-1.38778e-17,0,512,512
253.808,-1.38778e-17,0,512,512
253.855,-1.38778e-17,0,512,512
253.902,-1.38778e-17,0,512,512
253.96,-1.38778e-17,0,512,512
254.007,-1.38778e-17,0,512,512
254.054,-1.38778e-17,0,512,512
254.101,-1.38778e-17,0,512,512
254.16,-1.38778e-17,0,512,512
254.206,-1.38778e-17,0,512,512
254.253,0,0,512,512
254.3,1.38778e-17,0,512,512
254.359,1.38778e-17,0,512,512
254.406,1.38778e-17,0,512,512
254.452,2.77556e-17,0,512,512
254.511,2.77556e-17,0,512,512
254.558,1.38778e-17,0,512,512
254.605,0,0,512,512
254.652,0,0,512,512
254.71,0,0,512,512
254.757,0,0,512,512
254.804,0,0,512,512
254.851,0,0,512,512
254.909,0,0,512,512
254.956,0,0,512,512
255.003,0,0,512,512
255.05,-1.38778e-17,0,512,512
255.109,-1.38778e-17,0,512,512
255.155,-1.38778e-17,0,512,512
255.202,-2.77556e-17,0,512,512
255.261,-2.77556e-17,0,512,512
255.308,-2.77556e-17,0,512,512
255.355,-2.77556e-17,0,512,512
255.402,-2.77556e-17,0,512,512
255.46,-1.38778e-17,0,512,512
255.507,-1.38778e-17,0,512,512
255.554,-1.38778e-17,0,512,512
255.601,-1.38778e-17,0,512,512
255.659,-1.38778e-17,0,512,512
255.706,-1.38778e-17,0,512,512
255.753,-1.38778e-17,0,512,512
255.812,-1.38778e-17,0,512,512
255.859,-1.38778e-17,0,512,512
255.905,-1.38778e-17,0,512,512
255.952,-1.38778e-17,0,512,512
256.011,0,0,512,512
256.058,1.38778e-17,0,512,512
256.105,1.38778e-17,0,512,512
256.151,1.38778e-17,0,512,512
256.21,1.38778e-17,0,512,512
256.257,1.38778e-17,0,512,512
256.304,1.38778e-17,0,512,512
256.351,1.38778e-17,0,512,512
256.409,1.38778e-17,0,512,512
256.456,1.38778e-17,0,512,512
256.503,1.38778e-17,0,512,512
256.562,1.38778e-17,0,512,512
256.608,1.38778e-17,0,512,512
256.655,1.38778e-17,0,512,512
256.702,1.38778e-17,0,512,512
256.761,0,0,512,512
256.808,0,0,512,512
256.854,0,0,512,512
256.901,0,0,512,512
256.96,0,0,512,512
257.007,0,0,512,512
257.054,0,0,512,512
257.101,0,0,512,512
257.159,0,0,512,512
257.206,0,0,512,512
257.253,0,0,512,512
257.311,0,0,512,512
257.358,1.38778e-17,0,512,512
257.405,0,0,512,512
257.452,0,0,512,512
257.511,1.38778e-17,0,512,512
257.557,0,0,512,512
257.604,0,0,512,512
257.651,0,0,512,512
257.71,1.38778e-17,0,512,512
257.757,0,0,512,512
257.804,0,0,512,512
257.85,1.38778e-17,0,512,512
257.909,0,0,512,512
257.956,0,0,512,512
258.003,0,0,512,512
258.061,0,0,512,512
258.108,0,0,512,512
258.155,0,0,512,512
258.202,0,0,512,512
258.261,0,0,512,512
258.307,0,0,512,512
258.354,0,0,512,512
258.401,0,0,512,512
258.46,0,0,512,512
258.507,-1.38778e-17,0,512,512
258.553,-1.38778e-17,0,512,512
258.6,-1.38778e-17,0,512,512
258.659,-1.38778e-17,0,512,512
258.706,-1.38778e-17,0,512,512
258.753,-1.38778e-17,0,512,512
258.811,-1.38778e-17,0,512,512
258.858,-1.38778e-17,0,512,512
258.905,-1.38778e-17,0,512,512
258.952,-1.38778e-17,0,512,512
259.01,-1.38778e-17,0,512,512
259.057,-1.38778e-17,0,512,512
259.104,-1.38778e-17,0,512,512
259.151,-1.38778e-17,0,512,512
259.21,1.38778e-17,0,512,512
259.256,1.38778e-17,0,512,512
259.303,1.38778e-17,0,512,512
259.35,2.77556e-17,0,512,512
259.409,2.77556e-17,0,512,512
259.456,2.77556e-17,0,512,512
259.503,2.77556e-17,0,512,512
259.561,2.77556e-17,0,512,512
259.608,2.77556e-17,0,512,512
259.655,2.77556e-17,0,512,512
259.702,2.77556e-17,0,512,512
259.76,2.77556e-17,0,512,512
259.807,2.77556e-17,0,512,512
259.854,2.77556e-17,0,512,512
259.901,2.77556e-17,0,512,512
259.959,2.77556e-17,0,512,512
260.006,2.77556e-17,0,512,512
260.053,2.77556e-17,0,512,512
260.1,2.77556e-17,0,512,512
260.159,2.77556e-17,0,512,512
260.206,2.77556e-17,0,512,512
260.252,2.77556e-17,0,512,512
260.311,1.38778e-17,0,512,512
260.358,1.38778e-17,0,512,512
260.405,0,0,512,512
260.452,0,0,512,512
260.51,0,0,512,512
260.557,0,0,512,512
260.604,0,0,512,512
260.651,-1.38778e-17,0,512,512
260.709,-1.38778e-17,0,512,512
260.756,-1.38778e-17,0,512,512
260.803,-1.38778e-17,0,512,512
260.862,0,0,512,512
260.909,0,0,512,512
260.955,0,0,512,512
261.002,1.38778e-17,0,512,512
261.061,0,0,512,512
261.108,0,0,512,512
261.155,1.38778e-17,0,512,512
261.201,1.38778e-17,0,512,512
261.26,1.38778e-17,0,512,512
261.307,1.38778e-17,0,512,512
261.354,1.38778e-17,0,512,512
261.401,1.38778e-17,0,512,512
261.459,2.77556e-17,0,512,512
261.506,2.77556e-17,0,512,512
261.553,1.38778e-17,0,512,512
261.612,1.38778e-17,0,512,512
261.658,1.38778e-17,0,512,512
261.705,1.38778e-17,0,512,512
261.752,1.38778e-17,0,512,512
261.811,1.38778e-17,0,512,512
261.858,0,0,512,512
261.905,0,0,512,512
261.951,0,0,512,512
262.01,0,0,512,512
262.057,0,0,512,512
262.104,0,0,512,512
262.151,-1.38778e-17,0,512,512
262.209,0,0,512,512
262.256,-1.38778e-17,0,512,512
262.303,-1.38778e-17,0,512,512
262.361,-1.38778e-17,0,512,512
262.408,-1.38778e-17,0,512,512
262.455,-1.38778e-17,0,512,512
262.502,-1.38778e-17,0,512,512
262.561,-1.38778e-17,0,512,512
262.608,-1.38778e-17,0,512,512
262.654,-1.38778e-17,0,512,512
262.701,-1.38778e-17,0,512,512
262.76,-1.38778e-17,0,512,512
262.807,-1.38778e-17,0,512,512
262.854,-1.38778e-17,0,512,512
262.9,-1.38778e-17,0,512,512
262.959,-1.38778e-17,0,512,512
263.006,-1.38778e-17,0,512,512
263.053,-1.38778e-17,0,512,512
263.111,-1.38778e-17,0,512,512
263.158,-1.38778e-17,0,512,512
263.205,-1.38778e-17,0,512,512
263.252,-1.38778e-17,0,512,512
263.311,-1.38778e-17,0,512,512
263.357,-1.38778e-17,0,512,512
263.404,-2.77556e-17,0,512,512
263.451,-1.38778e-17,0,512,512
263.51,-2.77556e-17,0,512,512
263.557,-1.38778e-17,0,512,512
263.603,-2.77556e-17,0,512,512
263.65,-2.77556e-17,0,512,512
263.709,-2.77556e-17,0,512,512
263.756,-2.77556e-17,0,512,512
263.803,-2.77556e-17,0,512,512
263.861,-1.38778e-17,0,512,512
263.908,-2.77556e-17,0,512,512
263.955,-2.77556e-17,0,512,512
264.002,-1.38778e-17,0,512,512
264.06,-1.38778e-17,0,512,512
264.107,-1.38778e-17,0,512,512
264.154,-2.77556e-17,0,512,512
264.201,-1.38778e-17,0,512,512
264.26,-1.38778e-17,0,512,512
264.306,-1.38778e-17,0,512,512
264.353,-2.77556e-17,0,512,512
264.4,-1.38778e-17,0,512,512
264.459,-1.38778e-17,0,512,512
264.506,-1.38778e-17,0,512,512
264.553,-2.77556e-17,0,512,512
264.611,-1.38778e-17,0,512,512
264.658,0,0,512,512
264.705,0,0,512,512
264.752,0,0,512,512
264.81,0,0,512,512
264.857,0,0,512,512
264.904,0,0,512,512
264.951,0,0,512,512
265.01,0,0,512,512
265.056,0,0,512,512
265.103,-1.38778e-17,0,512,512
265.15,-1.38778e-17,0,512,512
265.209,-1.38778e-17,0,512,512
265.256,-1.38778e-17,0,512,512
265.302,-1.38778e-17,0,512,512
265.361,-1.38778e-17,0,512,512
265.408,-1.38778e-17,0,512,512
265.455,-1.38778e-17,0,512,512
265.502,-1.38778e-17,0,512,512
265.56,-1.38778e-17,0,512,512
265.607,-1.38778e-17,0,512,512
265.654,-1.38778e-17,0,512,512
265.701,-1.38778e-17,0,512,512
265.759,-1.38778e-17,0,512,512
265.806,-1.38778e-17,0,512,512
265.853,-1.38778e-17,0,512,512
265.9,-1.38778e-17,0,512,512
265.959,-1.38778e-17,0,512,512
266.005,-1.38778e-17,0,512,512
266.052,-1.38778e-17,0,512,512
266.111,-1.38778e-17,0,512,512
266.158,-1.38778e-17,0,512,512
266.205,-1.38778e-17,0,512,512
266.252,0,0,512,512
266.31,1.38778e-17,0,512,512
266.357,2.77556e-17,0,512,512
266.404,4.16334e-17,0,512,512
266.451,2.77556e-17,0,512,512
266.509,1.38778e-17,0,512,512
266.556,2.77556e-17,0,512,512
266.603,2.77556e-17,0,512,512
266.662,2.77556e-17,0,512,512
266.708,1.38778e-17,0,512,512
266.755,2.77556e-17,0,512,512
266.802,1.38778e-17,0,512,512
266.861,1.38778e-17,0,512,512
266.908,1.38778e-17,0,512,512
266.955,2.77556e-17,0,512,512
267.001,2.77556e-17,0,512,512
267.06,1.38778e-17,0,512,512
267.107,1.38778e-17,0,512,512
267.154,1.38778e-17,0,512,512
267.201,1.38778e-17,0,512,512
267.259,1.38778e-17,0,512,512
267.306,1.38778e-17,0,512,512
267.353,1.38778e-17,0,512,512
267.412,1.38778e-17,0,512,512
267.458,1.38778e-17,0,512,512
267.505,1.38778e-17,0,512,512
267.552,1.38778e-17,0,512,512
267.611,1.38778e-17,0,512,512
267.658,1.38778e-17,0,512,512
267.704,1.38778e-17,0,512,512
267.751,1.38778e-17,0,512,512
267.81,1.38778e-17,0,512,512
267.857,1.38778e-17,0,512,512
267.904,1.38778e-17,0,512,512
267.95,1.38778e-17,0,512,512
268.009,1.38778e-17,0,512,512
268.056,1.38778e-17,0,512,512
268.103,1.38778e-17,0,512,512
268.161,1.38778e-17,0,512,512
268.208,1.38778e-17,0,512,512
268.255,1.38778e-17,0,512,512
268.302,1.38778e-17,0,512,512
268.361,0,0,512,512
268.407,0,0,512,512
268.454,0,0,512,512
268.501,0,0,512,512
268.56,0,0,512,512
268.607,0,0,512,512
268.654,0,0,512,512
268.7,0,0,512,512
268.759,-1.38778e-17,0,512,512
268.806,0,0,512,512
268.853,0,0,512,512
268.911,0,0,512,512
268.958,0,0,512,512
269.005,0,0,512,512
269.052,0,0,512,512
269.11,0,0,512,512
269.157,0,0,512,512
269.204,0,0,512,512
269.251,1.38778e-17,0,512,512
269.31,1.38778e-17,0,512,512
269.357,0,0,512,512
269.403,0,0,512,512
269.45,1.38778e-17,0,512,512
269.509,1.38778e-17,0,512,512
269.556,1.38778e-17,0,512,512
269.603,1.38778e-17,0,512,512
269.661,1.38778e-17,0,512,512
269.708,1.38778e-17,0,512,512
269.755,2.77556e-17,0,512,512
269.802,2.77556e-17,0,512,512
269.86,1.38778e-17,0,512,512
269.907,1.38778e-17,0,512,512
269.954,1.38778e-17,0,512,512
270.003,1.38778e-17,0,525,525
270.05,1.38778e-17,0,531,531
270.103,1.38778e-17,0,543,543
270.156,1.38778e-17,0,555,555
270.203,1.38778e-17,0,567,567
270.255,1.38778e-17,0,573,573
270.302,1.38778e-17,0,585,585
270.355,1.38778e-17,0,597,597
270.402,1.38778e-17,0,603,603
270.455,1.38778e-17,0,615,615
270.501,1.38778e-17,0,627,627
270.554,1.38778e-17,0,639,639
270.601,1.38778e-17,0,645,645
270.654,1.38778e-17,0,657,657
270.701,1.38778e-17,0,669,669
270.753,1.38778e-17,0,681,681
270.8,1.38778e-17,0,687,687
270.853,1.38778e-17,0,699,699
270.906,1.38778e-17,0,711,711
270.952,1.38778e-17,0,723,723
271.005,1.38778e-17,0,735,735
271.052,1.38778e-17,0,741,741
271.105,1.38778e-17,0,753,753
271.152,1.38778e-17,0,765,765
271.204,1.38778e-17,0,771,771
271.251,1.38778e-17,0,783,783
271.304,1.38778e-17,0,795,795
271.351,1.38778e-17,0,807,807
271.404,1.38778e-17,0,819,819
271.45,1.38778e-17,0,825,825
271.503,1.38778e-17,0,837,837
271.55,1.38778e-17,0,849,849
271.603,1.38778e-17,0,861,861
271.655,1.38778e-17,0,867,867
271.702,1.38778e-17,0,879,879
271.755,1.38778e-17,0,891,891
271.802,1.38778e-17,0,903,903
271.855,1.38778e-17,0,909,909
271.902,1.38778e-17,0,921,921
271.954,1.38778e-17,0,933,933
272.001,1.38778e-17,0,939,939
272.054,1.38778e-17,0,951,951
272.101,1.38778e-17,0,963,963
272.153,1.38778e-17,0,975,975
272.2,1.38778e-17,0,981,981
272.253,1.38778e-17,0,993,993
272.306,1.38778e-17,0,1005,1005
272.353,1.38778e-17,0,1017,1017
272.405,1.38778e-17,0,1023,1023
272.452,1.38778e-17,0,1035,1035
272.505,1.38778e-17,0,1047,1047
272.552,1.38778e-17,0,1053,1053
272.605,1.38778e-17,0,1065,1065
272.651,1.38778e-17,0,1077,1077
272.704,1.38778e-17,0,1083,1083
272.751,1.38778e-17,0,1095,1095
272.804,1.38778e-17,0,1107,1107
272.851,1.38778e-17,0,1113,1113
272.903,1.38778e-17,0,1125,1125
272.95,1.38778e-17,0,1131,1131
273.003,1.38778e-17,0,1143,1143
273.056,1.38778e-17,0,1155,1155
273.103,1.38778e-17,0,1161,1161
273.155,1.38778e-17,0,1173,1173
273.202,1.38778e-17,0,1185,1185
273.255,1.38778e-17,0,1191,1191
273.302,1.38778e-17,0,1203,1203
273.354,1.38778e-17,0,1209,1209
273.401,1.38778e-17,0,1221,1221
273.454,1.38778e-17,0,1229,1229
273.501,1.38778e-17,0,1228,1228
273.554,1.38778e-17,0,1228,1228
273.601,1.38778e-17,0,1222,1222
273.653,1.38778e-17,0,1228,1228
273.7,1.38778e-17,0,1222,1222
273.753,1.38778e-17,0,1228,1228
273.806,1.38778e-17,0,1240,1240
273.852,1.38778e-17,0,1246,1246
273.905,1.38778e-17,0,1258,1258
273.952,1.38778e-17,0,1264,1264
274.005,1.38778e-17,0,1276,1276
274.052,0,0,1282,1282
274.104,-1.11022e-16,0,1294,1294
274.151,-2.22045e-16,0,1300,1300
274.204,-4.16334e-16,0,1312,1312
274.251,-8.04912e-16,0,1318,1318
274.304,-1.84575e-15,0,1330,1330
274.35,-3.88578e-15,0,1336,1336
274.403,-8.84015e-15,0,1348,1348
274.456,-1.9415e-14,0,1354,1354
274.503,-3.79002e-14,0,1360,1360
274.555,-7.73409e-14,0,1372,1372
274.602,-1.40873e-13,0,1378,1378
274.655,-2.66023e-13,0,1390,1390
274.702,-4.52541e-13,0,1402,1402
274.755,-7.92658e-13,0,1420,1420
274.802,-1.26305e-12,0,1438,1438
274.854,-2.05867e-12,0,1462,1462
274.901,-3.08123e-12,0,1474,1474
274.954,-4.68744e-12,0,1492,1492
275.001,-6.60674e-12,0,1509,1509
275.053,-9.40627e-12,0,1515,1515
275.1,-1.25126e-11,0,1527,1527
275.153,-1.67099e-11,0,1533,1533
275.206,-2.15871e-11,0,1545,1545
275.253,-2.63684e-11,0,1551,1551
275.305,-3.20217e-11,0,1557,1557
275.352,-3.70283e-11,0,1569,1569
275.405,-4.22701e-11,0,1575,1575
275.452,-4.62346e-11,0,1581,1581
275.505,-4.95049e-11,0,1593,1593
275.551,-5.10355e-11,0,1599,1599
275.604,-5.09089e-11,0,1611,1611
275.651,-4.89837e-11,0,1617,1617
275.704,-4.47027e-11,0,1623,1623
275.751,-3.90616e-11,0,1635,1635
275.803,-3.08247e-11,0,1641,1641
275.85,-2.20598e-11,0,1647,1647
275.903,-1.09297e-11,0,1659,1659
275.956,1.12298e-12,0,1665,1665
276.003,1.22488e-11,0,1677,1677
276.055,2.48447e-11,0,1683,1683
276.102,3.58253e-11,0,1689,1689
276.155,4.7672e-11,0,1701,1701
276.202,5.76025e-11,0,1707,1707
276.254,6.80307e-11,0,1719,1719
276.301,7.66898e-11,0,1725,1725
276.354,8.59652e-11,0,1731,1731
276.401,9.41652e-11,0,1737,1737
276.454,1.04063e-10,0,1749,1749
276.5,1.1442e-10,0,1755,1755
276.553,1.29497e-10,0,1767,1767
276.6,1.47997e-10,0,1773,1773
276.653,1.77886e-10,0,1779,1779
276.706,2.2219e-10,0,1791,1791
276.752,2.78915e-10,0,1797,1797
276.805,3.69685e-10,0,1803,1803
276.852,4.82009e-10,0,1815,1815
276.905,6.54395e-10,0,1821,1821
276.952,8.58442e-10,0,1827,1827
277.004,1.15745e-09,0,1839,1839
277.051,1.49555e-09,0,1845,1845
277.104,1.96891e-09,0,1851,1851
277.151,2.481e-09,0,1863,1863
277.203,3.16768e-09,0,1869,1869
277.25,3.88047e-09,0,1875,1875
277.303,4.7987e-09,0,1887,1887
277.356,5.83747e-09,0,1893,1893
277.403,6.85758e-09,0,1899,1899
277.455,8.10523e-09,0,1911,1911
277.502,9.29204e-09,0,1917,1917
277.555,1.16501e-08,0,1923,1923
277.602,1.55801e-08,0,1935,1935
277.655,2.06856e-08,0,1941,1941
277.701,2.58307e-08,0,1947,1947
277.754,3.22432e-08,0,1959,1959
277.801,3.88261e-08,0,1965,1965
277.854,4.74729e-08,0,1971,1971
277.901,5.64711e-08,0,1977,1977
277.953,6.85969e-08,0,1983,1983
278,8.1599e-08,0,1995,1995
278.053,9.91395e-08,0,2001,2001
278.106,1.20317e-07,0,2007,2007
278.153,1.42637e-07,0,2013,2013
278.205,1.71988e-07,0,2025,2025
278.252,2.02043e-07,0,2037,2037
278.305,2.40467e-07,0,2048,2048
278.352,2.78655e-07,0,2048,2048
278.404,3.25894e-07,0,2048,2048
278.451,3.7136e-07,0,2048,2048
278.504,4.25847e-07,0,2048,2048
278.551,4.76572e-07,0,2048,2048
278.604,5.35273e-07,0,2048,2048
278.651,5.87974e-07,0,2048,2048
278.703,6.46613e-07,0,2048,2048
278.75,6.9705e-07,0,2048,2048
278.803,7.50638e-07,0,2048,2048
278.856,7.99691e-07,0,2048,2048
278.902,8.3865e-07,0,2048,2048
278.955,8.7658e-07,0,2048,2048
279.002,9.04701e-07,0,2048,2048
279.055,9.2986e-07,0,2048,2048
279.102,9.46451e-07,0,2048,2048
279.154,9.58694e-07,0,2048,2048
279.201,9.63954e-07,0,2048,2048
279.254,9.63634e-07,0,2048,2048
279.301,9.57877e-07,0,2048,2048
279.354,9.45367e-07,0,2048,2048
279.4,9.29073e-07,0,2048,2048
279.453,9.05298e-07,0,2048,2048
279.5,8.798e-07,0,2048,2048
279.553,8.46942e-07,0,2048,2048
279.605,8.10616e-07,0,2048,2048
279.652,7.76316e-07,0,2048,2048
279.705,7.36559e-07,0,2048,2048
279.752,7.01122e-07,0,2048,2048
279.805,6.6222e-07,0,2048,2048
279.852,6.29354e-07,0,2048,2048
279.904,5.95211e-07,0,2048,2048
279.951,5.68065e-07,0,2048,2048
280.004,5.41828e-07,0,2048,2048
280.051,5.22843e-07,0,2048,2048
280.103,5.06861e-07,0,2048,2048
280.15,4.97757e-07,0,2048,2048
280.203,4.935e-07,0,2048,2048
280.256,4.95668e-07,0,2048,2048
280.303,5.02911e-07,0,2048,2048
280.355,5.16775e-07,0,2048,2048
280.402,5.33812e-07,0,2048,2048
280.455,5.57699e-07,0,2048,2048
280.502,5.82515e-07,0,2048,2048
280.555,6.13621e-07,0,2048,2048
280.601,6.43288e-07,0,2048,2048
280.654,6.77884e-07,0,2048,2048
280.701,7.08771e-07,0,2048,2048
280.754,7.4254e-07,0,2048,2048
280.801,7.7075e-07,0,2048,2048
280.853,7.99452e-07,0,2048,2048
280.9,8.2153e-07,0,2048,2048
280.953,8.4181e-07,0,2048,2048
281.006,8.56722e-07,0,2048,2048
281.053,8.6516e-07,0,2048,2048
281.105,8.69023e-07,0,2048,2048
281.152,8.6736e-07,0,2048,2048
281.205,8.59726e-07,0,2048,2048
281.252,8.47844e-07,0,2048,2048
281.304,8.28835e-07,0,2048,2048
281.351,8.07055e-07,0,2048,2048
281.404,7.77301e-07,0,2048,2048
281.451,7.46474e-07,0,2048,2048
281.504,7.07318e-07,0,2048,2048
281.551,6.69019e-07,0,2048,2048
281.603,6.22675e-07,0,2048,2048
281.65,5.79237e-07,0,2048,2048
281.703,5.28662e-07,0,2048,2048
281.756,4.77166e-07,0,2048,2048
281.802,4.31346e-07,0,2048,2048
281.855,3.80509e-07,0,2048,2048
281.902,3.36533e-07,0,2048,2048
281.955,2.89006e-07,0,2048,2048
282.002,2.48892e-07,0,2048,2048
282.054,2.06525e-07,0,2048,2048
282.101,1.71539e-07,0,2048,2048
282.154,1.35345e-07,0,2048,2048
282.201,1.06047e-07,0,2048,2048
282.254,7.63139e-08,0,2048,2048
282.3,5.26951e-08,0,2048,2048
282.353,2.91656e-08,0,2048,2048
282.406,8.68816e-09,0,2048,2048
282.453,-7.11589e-09,0,2048,2048
282.505,-2.23979e-08,0,2048,2048
282.552,-3.39385e-08,0,2048,2048
282.605,-4.4829e-08,0,2048,2048
282.652,-5.28209e-08,0,2048,2048
282.705,-6.01035e-08,0,2048,2048
282.752,-6.52111e-08,0,2048,2048
282.804,-6.95847e-08,0,2048,2048
282.851,-7.23781e-08,0,2048,2048
282.904,-7.44205e-08,0,2048,2048
282.951,-7.53564e-08,0,2048,2048
283.003,-7.55228e-08,0,2048,2048
283.05,-7.49636e-08,0,2048,2048
283.103,-7.363e-08,0,2048,2048
283.156,-7.16472e-08,0,2048,2048
283.203,-6.94234e-08,0,2048,2048
283.255,-6.65006e-08,0,2048,2048
283.302,-6.36139e-08,0,2048,2048
283.355,-6.01412e-08,0,2048,2048
283.402,-5.69357e-08,0,2048,2048
283.455,-5.3284e-08,0,2048,2048
283.501,-5.00636e-08,0,2048,2048
283.554,-4.6534e-08,0,2048,2048
283.601,-4.35236e-08,0,2048,2048
283.654,-4.03184e-08,0,2048,2048
283.701,-3.76534e-08,0,2048,2048
283.753,-3.48793e-08,0,2048,2048
283.8,-3.26199e-08,0,2048,2048
283.853,-3.0313e-08,0,2048,2048
283.906,-2.82521e-08,0,2048,2048
283.953,-2.66218e-08,0,2048,2048
284.005,-2.50061e-08,0,2048,2048
284.052,-2.37555e-08,0,2048,2048
284.105,-2.2546e-08,0,2048,2048
284.152,-2.16356e-08,0,2048,2048
284.204,-2.07835e-08,0,2048,2048
284.251,-2.01674e-08,0,2048,2048
284.304,-1.96191e-08,0,2048,2048
284.351,-1.92485e-08,0,2048,2048
284.404,-1.89489e-08,0,2048,2048
284.45,-1.87752e-08,0,2048,2048
284.503,-1.86713e-08,0,2048,2048
284.55,-1.86495e-08,0,2048,2048
284.603,-1.8693e-08,0,2048,2048
284.656,-1.87975e-08,0,2048,2048
284.702,-1.89329e-08,0,2048,2048
284.755,-1.91245e-08,0,2048,2048
284.802,-1.93232e-08,0,2048,2048
284.855,-1.95718e-08,0,2048,2048
284.902,-1.98101e-08,0,2048,2048
284.954,-2.00925e-08,0,2048,2048
285.001,-2.03525e-08,0,2048,2048
285.054,-2.06514e-08,0,2048,2048
285.101,-2.09202e-08,0,2048,2048
285.154,-2.12239e-08,0,2048,2048
285.2,-2.14934e-08,0,2048,2048
285.253,-2.1795e-08,0,2048,2048
285.306,-2.20945e-08,0,2048,2048
285.353,-2.23588e-08,0,2048,2048
285.405,-2.26547e-08,0,2048,2048
285.452,-2.29174e-08,0,2048,2048
285.505,-2.3214e-08,0,2048,2048
285.552,-2.34803e-08,0,2048,2048
285.605,-2.37848e-08,0,2048,2048
285.651,-2.4062e-08,0,2048,2048
285.704,-2.43835e-08,0,2048,2048
285.751,-2.46797e-08,0,2048,2048
285.804,-2.5027e-08,0,2048,2048
285.851,-2.53498e-08,0,2048,2048
285.903,-2.57304e-08,0,2048,2048
285.95,-2.60851e-08,0,2048,2048
286.003,-2.65034e-08,0,2048,2048
286.056,-2.69423e-08,0,2048,2048
286.103,-2.73494e-08,0,2048,2048
286.155,-2.78257e-08,0,2048,2048
286.202,-2.82642e-08,0,2048,2048
286.255,-2.87727e-08,0,2048,2048
286.302,-2.92365e-08,0,2048,2048
286.354,-2.97689e-08,0,2048,2048
286.401,-3.02493e-08,0,2048,2048
286.454,-3.0795e-08,0,2048,2048
286.501,-3.12818e-08,0,2048,2048
286.554,-3.18286e-08,0,2048,2048
286.601,-3.2311e-08,0,2048,2048
286.653,-3.28466e-08,0,2048,2048
286.7,-3.3314e-08,0,2048,2048
286.753,-3.38272e-08,0,2048,2048
286.806,-3.43244e-08,0,2048,2048
286.852,-3.47512e-08,0,2048,2048
286.905,-3.52124e-08,0,2048,2048
286.952,-3.56045e-08,0,2048,2048
287.005,-3.60245e-08,0,2048,2048
287.052,-3.63788e-08,0,2048,2048
287.104,-3.6756e-08,0,2048,2048
287.151,-3.70726e-08,0,2048,2048
287.204,-3.74089e-08,0,2048,2048
287.251,-3.76913e-08,0,2048,2048
287.304,-3.79922e-08,0,2048,2048
287.35,-3.82465e-08,0,2048,2048
287.403,-3.85201e-08,0,2048,2048
287.45,-3.87546e-08,0,2048,2048
287.503,-3.90112e-08,0,2048,2048
287.555,-3.92633e-08,0,2048,2048
287.602,-3.94861e-08,0,2048,2048
287.655,-3.97381e-08,0,2048,2048
287.702,-3.99655e-08,0,2048,2048
287.755,-4.02275e-08,0,2048,2048
287.802,-4.04677e-08,0,2048,2048
287.854,-4.07478e-08,0,2048,2048
287.901,-4.10067e-08,0,2048,2048
287.954,-4.13101e-08,0,2048,2048
288.001,-4.15908e-08,0,2048,2048
288.053,-4.1919e-08,0,2048,2048
288.1,-4.22214e-08,0,2048,2048
288.153,-4.25724e-08,0,2048,2048
288.206,-4.29335e-08,0,2048,2048
288.253,-4.32613e-08,0,2048,2048
288.305,-4.36355e-08,0,2048,2048
288.352,-4.39709e-08,0,2048,2048
288.405,-4.43486e-08,0,2048,2048
288.452,-4.46822e-08,0,2048,2048
288.505,-4.50522e-08,0,2048,2048
288.551,-4.53737e-08,0,2048,2048
288.604,-4.5724e-08,0,2048,2048
288.651,-4.60229e-08,0,2048,2048
288.704,-4.63422e-08,0,2048,2048
288.751,-4.66087e-08,0,2048,2048
288.803,-4.68866e-08,0,2048,2048
288.85,-4.71124e-08,0,2048,2048
288.903,-4.73406e-08,0,2048,2048
288.956,-4.75399e-08,0,2048,2048
289.003,-4.76919e-08,0,2048,2048
289.055,-4.78338e-08,0,2048,2048
289.102,-4.79338e-08,0,2048,2048
289.155,-4.80169e-08,0,2048,2048
289.202,-4.80649e-08,0,2048,2048
289.254,-4.80905e-08,0,2048,2048
289.301,-4.80888e-08,0,2048,2048
289.354,-4.80607e-08,0,2048,2048
289.401,-4.80137e-08,0,2048,2048
289.454,-4.79377e-08,0,2048,2048
289.501,-4.7851e-08,0,2048,2048
289.553,-4.77338e-08,0,2048,2048
289.6,-4.76139e-08,0,2048,2048
289.653,-4.74632e-08,0,2048,2048
289.706,-4.72976e-08,0,2048,2048
289.752,-4.71398e-08,0,2048,2048
289.805,-4.69519e-08,0,2048,2048
289.852,-4.67772e-08,0,2048,2048
289.905,-4.65736e-08,0,2048,2048
289.952,-4.63876e-08,0,2048,2048
290.004,-4.61741e-08,0,2048,2048
290.051,-4.59816e-08,0,2048,2048
290.104,-4.57631e-08,0,2048,2048
290.151,-4.55679e-08,0,2048,2048
290.204,-4.53482e-08,0,2048,2048
290.25,-4.51533e-08,0,2048,2048
290.303,-4.49352e-08,0,2048,2048
290.356,-4.47188e-08,0,2048,2048
290.403,-4.45283e-08,0,2048,2048
290.455,-4.43163e-08,0,2048,2048
290.502,-4.41301e-08,0,2048,2048
290.555,-4.39231e-08,0,2048,2048
290.602,-4.37415e-08,0,2048,2048
290.655,-4.35398e-08,0,2048,2048
290.701,-4.33626e-08,0,2048,2048
290.754,-4.31654e-08,0,2048,2048
290.801,-4.2992e-08,0,2048,2048
290.854,-4.27985e-08,0,2048,2048
290.901,-4.26278e-08,0,2048,2048
290.953,-4.24367e-08,0,2048,2048
291,-4.22673e-08,0,2048,2048
291.053,-4.2077e-08,0,2048,2048
291.106,-4.18863e-08,0,2048,2048
291.153,-4.1716e-08,0,2048,2048
291.205,-4.15233e-08,0,2048,2048
291.252,-4.13503e-08,0,2048,2048
291.305,-4.11535e-08,0,2048,2048
291.352,-4.09759e-08,0,2048,2048
291.405,-4.07727e-08,0,2048,2048
291.451,-4.05884e-08,0,2048,2048
291.504,-4.03763e-08,0,2048,2048
291.551,-4.01829e-08,0,2048,2048
291.604,-3.9959e-08,0,2048,2048
291.651,-3.97536e-08,0,2048,2048
291.703,-3.95144e-08,0,2048,2048
291.75,-3.92937e-08,0,2048,2048
291.803,-3.90351e-08,0,2048,2048
291.856,-3.87641e-08,0,2048,2048
291.902,-3.85117e-08,0,2048,2048
291.955,-3.82131e-08,0,2048,2048
292.002,-3.79334e-08,0,2048,2048
292.055,-3.76009e-08,0,2048,2048
292.102,-3.7288e-08,0,2048,2048
292.154,-3.69145e-08,0,2048,2048
292.201,-3.6562e-08,0,2048,2048
292.254,-3.61406e-08,0,2048,2048
292.301,-3.57424e-08,0,2048,2048
292.354,-3.52665e-08,0,2048,2048
292.4,-3.48175e-08,0,2048,2048
292.453,-3.4282e-08,0,2048,2048
292.5,-3.37785e-08,0,2048,2048
292.553,-3.31807e-08,0,2048,2048
292.606,-3.25497e-08,0,2048,2048
292.652,-3.19615e-08,0,2048,2048
292.705,-3.12699e-08,0,2048,2048
292.752,-3.06298e-08,0,2048,2048
292.805,-2.9883e-08,0,2048,2048
292.852,-2.91975e-08,0,2048,2048
292.904,-2.84044e-08,0,2048,2048
292.951,-2.76825e-08,0,2048,2048
293.004,-2.68547e-08,0,2048,2048
293.051,-2.6108e-08,0,2048,2048
293.103,-2.52592e-08,0,2048,2048
293.15,-2.45003e-08,0,2048,2048
293.203,-2.36453e-08,0,2048,2048
293.256,-2.2793e-08,0,2048,2048
293.303,-2.20408e-08,0,2048,2048
293.355,-2.12042e-08,0,2048,2048
293.402,-2.04717e-08,0,2048,2048
293.455,-1.96632e-08,0,2048,2048
293.502,-1.89605e-08,0,2048,2048
293.555,-1.819e-08,0,2048,2048
293.601,-1.75243e-08,0,2048,2048
293.654,-1.67982e-08,0,2048,2048
293.701,-1.61736e-08,0,2048,2048
293.754,-1.54947e-08,0,2048,2048
293.801,-1.49119e-08,0,2048,2048
293.853,-1.4279e-08,0,2048,2048
293.9,-1.37354e-08,0,2048,2048
293.953,-1.31436e-08,0,2048,2048
294.006,-1.25706e-08,0,2048,2048
294.053,-1.20749e-08,0,2048,2048
294.105,-1.153e-08,0,2048,2048
294.152,-1.10546e-08,0,2048,2048
294.205,-1.05268e-08,0,2048,2048
294.252,-1.00615e-08,0,2048,2048
294.304,-9.53935e-09,0,2048,2048
294.351,-9.074e-09,0,2048,2048
294.404,-8.54649e-09,0,2048,2048
294.451,-8.07203e-09,0,2039,2039
294.504,-7.52994e-09,0,2013,2013
294.551,-7.03925e-09,0,2001,2001
294.603,-6.47601e-09,0,1989,1989
294.65,-5.96466e-09,0,1983,1983
294.703,-5.377e-09,0,1973,1973
294.756,-4.77631e-09,0,1965,1965
294.802,-4.23192e-09,0,1959,1959
294.855,-3.60876e-09,0,1953,1953
294.902,-3.04653e-09,0,1947,1947
294.955,-2.40332e-09,0,1935,1935
295.002,-1.78564e-09,0,1929,1929
295.054,-9.32815e-10,0,1923,1923
295.101,-2.8012e-10,0,1917,1917
295.154,1.81119e-10,0,1905,1905
295.201,6.3001e-10,0,1899,1899
295.254,1.21242e-09,0,1889,1889
295.3,1.70963e-09,0,1881,1881
295.353,2.27116e-09,0,1875,1875
295.4,2.76888e-09,0,1865,1865
295.453,3.29896e-09,0,1857,1857
295.505,3.80801e-09,0,1851,1851
295.552,4.23617e-09,0,1845,1845
295.605,4.68325e-09,0,1835,1835
295.652,5.05211e-09,0,1829,1829
295.705,5.43022e-09,0,1821,1821
295.752,5.73095e-09,0,1817,1817
295.804,6.03005e-09,0,1809,1809
295.851,6.25953e-09,0,1805,1805
295.904,6.47631e-09,0,1797,1797
295.951,6.63347e-09,0,1791,1791
296.003,6.77079e-09,0,1785,1785
296.05,6.85871e-09,0,1779,1779
296.103,6.92176e-09,0,1773,1773
296.156,6.94931e-09,0,1761,1761
296.203,6.94624e-09,0,1755,1755
296.255,6.91515e-09,0,1743,1743
296.302,6.8658e-09,0,1737,1737
296.355,6.78907e-09,0,1725,1725
296.402,6.70513e-09,0,1719,1719
296.455,6.5967e-09,0,1707,1707
296.501,6.49081e-09,0,1701,1701
296.554,6.36437e-09,0,1689,1689
296.601,6.24838e-09,0,1683,1683
296.654,6.11697e-09,0,1671,1671
296.701,6.00179e-09,0,1665,1665
296.753,5.87664e-09,0,1655,1655
296.8,5.77131e-09,0,1647,1647
296.853,5.66145e-09,0,1641,1641
296.906,5.56246e-09,0,1629,1629
296.953,5.48468e-09,0,1623,1623
297.005,5.40945e-09,0,1613,1613
297.052,5.35386e-09,0,1605,1605
297.105,5.30405e-09,0,1599,1599
297.152,5.27084e-09,0,1589,1589
297.204,5.2453e-09,0,1581,1581
297.251,5.23233e-09,0,1575,1575
297.304,5.22754e-09,0,1563,1563
297.351,5.23083e-09,0,1557,1557
297.404,5.24151e-09,0,1547,1547
297.451,5.25583e-09,0,1539,1539
297.503,5.27566e-09,0,1533,1533
297.55,5.29514e-09,0,1523,1523
297.603,5.31745e-09,0,1515,1515
297.656,5.3385e-09,0,1509,1509
297.702,5.35482e-09,0,1499,1499
297.755,5.36917e-09,0,1491,1491
297.802,5.37738e-09,0,1485,1485
297.855,5.38055e-09,0,1473,1473
297.902,5.37734e-09,0,1467,1467
297.954,5.36644e-09,0,1461,1461
298.001,5.35004e-09,0,1451,1451
298.054,5.32401e-09,0,1443,1443
298.101,5.29429e-09,0,1437,1437
298.154,5.25384e-09,0,1425,1425
298.2,5.21216e-09,0,1419,1419
298.253,5.15959e-09,0,1413,1413
298.306,5.10198e-09,0,1401,1401
298.353,5.04743e-09,0,1395,1395
298.405,4.98345e-09,0,1385,1385
298.452,4.92523e-09,0,1377,1377
298.505,4.8594e-09,0,1371,1371
298.552,4.80159e-09,0,1359,1359
298.605,4.73849e-09,0,1353,1353
298.652,4.68502e-09,0,1343,1343
298.704,4.6288e-09,0,1335,1335
298.751,4.58306e-09,0,1329,1329
298.804,4.53708e-09,0,1317,1317
298.851,4.5016e-09,0,1311,1311
298.903,4.4682e-09,0,1301,1301
298.95,4.44452e-09,0,1293,1293
299.003,4.4248e-09,0,1287,1287
299.056,4.41236e-09,0,1275,1275
299.103,4.40727e-09,0,1269,1269
299.155,4.40794e-09,0,1257,1257
299.202,4.41384e-09,0,1251,1251
299.255,4.42592e-09,0,1239,1239
299.302,4.44095e-09,0,1233,1233
299.355,4.46202e-09,0,1221,1221
299.401,4.4838e-09,0,1215,1215
299.454,4.51099e-09,0,1205,1205
299.501,4.5369e-09,0,1197,1197
299.554,4.56726e-09,0,1187,1187
299.601,4.59471e-09,0,1179,1179
299.653,4.62545e-09,0,1169,1169
299.7,4.65212e-09,0,1161,1161
299.753,4.68084e-09,0,1149,1149
299.806,4.70768e-09,0,1143,1143
299.852,4.72958e-09,0,1133,1133
299.905,4.75166e-09,0,1125,1125
299.952,4.76875e-09,0,1113,1113
300.005,4.78489e-09,0,1107,1107
300.052,4.79633e-09,0,1095,1095
300.104,4.80579e-09,0,1089,1089
300.151,4.8111e-09,0,1077,1077
300.204,4.81356e-09,0,1067,1067
300.251,4.8126e-09,0,1059,1059
300.304,4.80805e-09,0,1049,1049
300.35,4.80098e-09,0,1041,1041
300.403,4.78971e-09,0,1029,1029
300.45,4.77685e-09,0,1023,1023
300.503,4.75933e-09,0,1011,1011
300.556,4.73872e-09,0,999,999
300.602,4.71797e-09,0,993,993
300.655,4.69203e-09,0,981,981
300.702,4.66681e-09,0,971,971
300.755,4.63619e-09,0,963,963
300.802,4.60712e-09,0,951,951
300.854,4.5725e-09,0,941,941
300.901,4.54018e-09,0,933,933
300.954,4.50225e-09,0,921,921
301.001,4.46729e-09,0,911,911
301.053,4.42672e-09,0,903,903
301.1,4.38968e-09,0,891,891
301.153,4.34708e-09,0,879,879
301.206,4.30363e-09,0,869,869
301.253,4.26441e-09,0,861,861
301.305,4.21973e-09,0,849,849
301.352,4.1796e-09,0,837,837
301.405,4.13408e-09,0,827,827
301.452,4.09336e-09,0,819,819
301.505,4.04731e-09,0,807,807
301.551,4.00622e-09,0,795,795
301.604,3.95985e-09,0,785,785
301.651,3.91854e-09,0,777,777
301.704,3.87199e-09,0,765,765
301.751,3.83055e-09,0,753,753
301.803,3.78387e-09,0,743,743
301.85,3.74233e-09,0,735,735
301.903,3.69553e-09,0,723,723
301.956,3.64866e-09,0,711,711
302.003,3.6069e-09,0,701,701
302.055,3.55982e-09,0,693,693
302.102,3.51785e-09,0,681,681
302.155,3.47046e-09,0,669,669
302.202,3.42818e-09,0,659,659
302.254,3.38041e-09,0,647,647
302.301,3.33775e-09,0,639,639
302.354,3.28952e-09,0,627,627
302.401,3.24644e-09,0,617,617
302.454,3.19771e-09,0,609,609
302.501,3.15417e-09,0,597,597
302.553,3.10494e-09,0,585,585
302.6,3.06096e-09,0,575,575
302.653,3.01124e-09,0,563,563
302.706,2.9613e-09,0,551,551
302.752,2.91672e-09,0,543,543
302.805,2.86638e-09,0,531,531
302.852,2.82149e-09,0,519,519
302.907,2.7685e-09,0,512,512
302.954,2.72337e-09,0,512,512
303.001,2.67815e-09,0,512,512
303.06,2.62154e-09,0,512,512
303.106,2.5762e-09,0,512,512
303.153,2.53086e-09,0,512,512
303.2,2.48553e-09,0,512,512
303.259,2.42892e-09,0,512,512
303.306,2.38371e-09,0,512,512
303.352,2.3386e-09,0,512,512
303.411,2.28239e-09,0,512,512
303.458,2.23759e-09,0,512,512
303.505,2.19297e-09,0,512,512
303.552,2.14855e-09,0,512,512
303.61,2.09334e-09,0,512,512
303.657,2.04946e-09,0,512,512
303.704,2.00584e-09,0,512,512
303.751,1.9625e-09,0,512,512
303.809,1.90876e-09,0,512,512
303.856,1.86611e-09,0,512,512
303.903,1.82378e-09,0,512,512
303.95,1.78178e-09,0,512,512
304.009,1.72975e-09,0,512,512
304.055,1.68851e-09,0,512,512
304.102,1.64759e-09,0,512,512
304.161,1.5969e-09,0,512,512
304.208,1.55671e-09,0,512,512
304.255,1.51684e-09,0,512,512
304.302,1.47727e-09,0,512,512
304.36,1.42824e-09,0,512,512
304.407,1.38934e-09,0,512,512
304.454,1.35073e-09,0,512,512
304.501,1.3124e-09,0,512,512
304.559,1.26487e-09,0,512,512
304.606,1.22714e-09,0,512,512
304.653,1.18968e-09,0,512,512
304.712,1.14322e-09,0,512,512
304.759,1.10634e-09,0,512,512
304.805,1.06971e-09,0,512,512
304.852,1.03333e-09,0,512,512
304.911,9.88196e-10,0,512,512
304.958,9.52368e-10,0,512,512
