250,0,0,8192,8192
250.003,0,0,8192,8192
250.053,0,0,8192,8192
250.103,0,0,8192,8192
250.152,0,0,8192,8192
250.202,0,0,8192,8192
250.252,2.77556e-17,0,8192,8192
250.302,0,0,8192,8192
250.352,0,0,8192,8192
250.401,0,0,8192,8192
250.451,0,0,8192,8192
250.501,0,0,8192,8192
250.551,0,0,8192,8192
250.6,0,0,8192,8192
250.65,2.77556e-17,0,8192,8192
250.7,0,0,8192,8192
250.753,0,0,8192,8192
250.803,0,0,8192,8192
250.852,0,0,8192,8192
250.902,2.77556e-17,0,8192,8192
250.952,0,0,8192,8192
251.002,2.77556e-17,0,8192,8192
251.052,2.77556e-17,0,8192,8192
251.101,2.77556e-17,0,8192,8192
251.151,2.77556e-17,0,8192,8192
251.201,2.77556e-17,0,8192,8192
251.251,2.77556e-17,0,8192,8192
251.301,2.77556e-17,0,8192,8192
251.35,2.77556e-17,0,8192,8192
251.4,0,0,8192,8192
251.453,-2.77556e-17,0,8192,8192
251.503,-2.77556e-17,0,8192,8192
251.553,2.77556e-17,0,8192,8192
251.602,2.77556e-17,0,8192,8192
251.652,2.77556e-17,0,8192,8192
251.702,5.55112e-17,0,8192,8192
251.752,5.55112e-17,0,8192,8192
251.801,5.55112e-17,0,8192,8192
251.851,5.55112e-17,0,8192,8192
251.901,5.55112e-17,0,8192,8192
251.951,5.55112e-17,0,8192,8192
252.001,2.77556e-17,0,8192,8192
252.05,2.77556e-17,0,8192,8192
252.1,2.77556e-17,0,8192,8192
252.15,-2.77556e-17,0,8192,8192
252.203,-2.77556e-17,0,8192,8192
252.253,-5.55112e-17,0,8192,8192
252.302,-2.77556e-17,0,8192,8192
252.352,-5.55112e-17,0,8192,8192
252.402,0,0,8192,8192
252.452,-2.77556e-17,0,8192,8192
252.502,-2.77556e-17,0,8192,8192
252.551,2.77556e-17,0,8192,8192
252.601,2.77556e-17,0,8192,8192
252.651,5.55112e-17,0,8192,8192
252.701,2.77556e-17,0,8192,8192
252.751,2.77556e-17,0,8192,8192
252.8,0,0,8192,8192
252.85,-2.77556e-17,0,8192,8192
252.903,-5.55112e-17,0,8192,8192
252.953,-5.55112e-17,0,8192,8192
253.002,-2.77556e-17,0,8192,8192
253.052,-2.77556e-17,0,8192,8192
253.102,-5.55112e-17,0,8192,8192
253.152,-5.55112e-17,0,8192,8192
253.202,-2.77556e-17,0,8192,8192
253.251,-2.77556e-17,0,8192,8192
253.301,0,0,8192,8192
253.351,2.77556e-17,0,8192,8192
253.401,0,0,8192,8192
253.451,2.77556e-17,0,8192,8192
253.5,5.55112e-17,0,8192,8192
253.55,5.55112e-17,0,8192,8192
253.6,5.55112e-17,0,8192,8192
253.653,2.77556e-17,0,8192,8192
253.703,2.77556e-17,0,8192,8192
253.752,2.77556e-17,0,8192,8192
253.802,2.77556e-17,0,8192,8192
253.852,2.77556e-17,0,8192,8192
253.902,-5.55112e-17,0,8192,8192
253.952,-2.77556e-17,0,8192,8192
254.001,0,0,8192,8192
254.051,-2.77556e-17,0,8192,8192
254.101,-2.77556e-17,0,8192,8192
254.151,-2.77556e-17,0,8192,8192
254.201,-2.77556e-17,0,8192,8192
254.25,-2.77556e-17,0,8192,8192
254.3,-2.77556e-17,0,8192,8192
254.353,-2.77556e-17,0,8192,8192
254.403,-5.55112e-17,0,8192,8192
254.452,-2.77556e-17,0,8192,8192
254.502,2.77556e-17,0,8192,8192
254.552,8.32667e-17,0,8192,8192
254.602,5.55112e-17,0,8192,8192
254.652,2.77556e-17,0,8192,8192
254.701,2.77556e-17,0,8192,8192
254.751,2.77556e-17,0,8192,8192
254.801,0,0,8192,8192
254.851,2.77556e-17,0,8192,8192
254.901,5.55112e-17,0,8192,8192
254.95,5.55112e-17,0,8192,8192
255,8.32667e-17,0,8192,8192
255.05,2.77556e-17,0,8192,8192
255.103,5.55112e-17,0,8192,8192
255.153,5.55112e-17,0,8192,8192
255.202,5.55112e-17,0,8192,8192
255.252,8.32667e-17,0,8192,8192
255.302,8.32667e-17,0,8192,8192
255.352,8.32667e-17,0,8192,8192
255.402,8.32667e-17,0,8192,8192
255.451,8.32667e-17,0,8192,8192
255.501,8.32667e-17,0,8192,8192
255.551,5.55112e-17,0,8192,8192
255.601,5.55112e-17,0,8192,8192
255.651,5.55112e-17,0,8192,8192
255.7,5.55112e-17,0,8192,8192
255.75,5.55112e-17,0,8192,8192
255.803,2.77556e-17,0,8192,8192
255.853,-2.77556e-17,0,8192,8192
255.902,0,0,8192,8192
255.952,-2.77556e-17,0,8192,8192
256.002,-2.77556e-17,0,8192,8192
256.052,-2.77556e-17,0,8192,8192
256.102,-2.77556e-17,0,8192,8192
256.151,-5.55112e-17,0,8192,8192
256.201,-5.55112e-17,0,8192,8192
256.251,-8.32667e-17,0,8192,8192
256.301,-8.32667e-17,0,8192,8192
256.351,-5.55112e-17,0,8192,8192
256.4,-2.77556e-17,0,8192,8192
256.45,-2.77556e-17,0,8192,8192
256.5,-5.55112e-17,0,8192,8192
256.553,-5.55112e-17,0,8192,8192
256.603,-2.77556e-17,0,8192,8192
256.652,-5.55112e-17,0,8192,8192
256.702,-5.55112e-17,0,8192,8192
256.752,0,0,8192,8192
256.802,-2.77556e-17,0,8192,8192
256.852,-2.77556e-17,0,8192,8192
256.901,-2.77556e-17,0,8192,8192
256.951,-2.77556e-17,0,8192,8192
257.001,-2.77556e-17,0,8192,8192
257.051,0,0,8192,8192
257.101,0,0,8192,8192
257.15,0,0,8192,8192
257.2,5.55112e-17,0,8192,8192
257.253,0,0,8192,8192
257.303,-2.77556e-17,0,8192,8192
257.352,-2.77556e-17,0,8192,8192
257.402,2.77556e-17,0,8192,8192
257.452,5.55112e-17,0,8192,8192
257.502,5.55112e-17,0,8192,8192
257.552,8.32667e-17,0,8192,8192
257.601,5.55112e-17,0,8192,8192
257.651,5.55112e-17,0,8192,8192
257.701,2.77556e-17,0,8192,8192
257.751,0,0,8192,8192
257.801,-2.77556e-17,0,8192,8192
257.85,-2.77556e-17,0,8192,8192
257.9,-2.77556e-17,0,8192,8192
257.95,-2.77556e-17,0,8192,8192
258.003,-2.77556e-17,0,8192,8192
258.053,0,0,8192,8192
258.102,0,0,8192,8192
258.152,-2.77556e-17,0,8192,8192
258.202,-5.55112e-17,0,8192,8192
258.252,-2.77556e-17,0,8192,8192
258.302,2.77556e-17,0,8192,8192
258.351,2.77556e-17,0,8192,8192
258.401,2.77556e-17,0,8192,8192
258.451,2.77556e-17,0,8192,8192
258.501,2.77556e-17,0,8192,8192
258.551,2.77556e-17,0,8192,8192
258.6,2.77556e-17,0,8192,8192
258.65,2.77556e-17,0,8192,8192
258.703,0,0,8192,8192
258.753,5.55112e-17,0,8192,8192
258.802,2.77556e-17,0,8192,8192
258.852,0,0,8192,8192
258.902,2.77556e-17,0,8192,8192
258.952,2.77556e-17,0,8192,8192
259.002,0,0,8192,8192
259.051,0,0,8192,8192
259.101,0,0,8192,8192
259.151,2.77556e-17,0,8192,8192
259.201,0,0,8192,8192
259.251,-2.77556e-17,0,8192,8192
259.3,-2.77556e-17,0,8192,8192
259.35,-2.77556e-17,0,8192,8192
259.403,-5.55112e-17,0,8192,8192
259.453,0,0,8192,8192
259.503,0,0,8192,8192
259.552,0,0,8192,8192
259.602,0,0,8192,8192
259.652,-2.77556e-17,0,8192,8192
259.702,-2.77556e-17,0,8192,8192
259.751,-2.77556e-17,0,8192,8192
259.801,-2.77556e-17,0,8192,8192
259.851,-2.77556e-17,0,8192,8192
259.901,-2.77556e-17,0,8192,8192
259.951,0,0,8192,8192
260,5.55112e-17,0,8192,8192
260.05,-2.77556e-17,0,8192,8192
260.1,-2.77556e-17,0,8192,8192
260.153,-2.77556e-17,0,8192,8192
260.203,5.55112e-17,0,8192,8192
260.252,0,0,8192,8192
260.302,-2.77556e-17,0,8192,8192
260.352,-2.77556e-17,0,8192,8192
260.402,-2.77556e-17,0,8192,8192
260.452,-5.55112e-17,0,8192,8192
260.501,-5.55112e-17,0,8192,8192
260.551,-5.55112e-17,0,8192,8192
260.601,-2.77556e-17,0,8192,8192
260.651,-8.32667e-17,0,8192,8192
260.701,-2.77556e-17,0,8192,8192
260.75,-2.77556e-17,0,8192,8192
260.8,0,0,8192,8192
260.853,0,0,8192,8192
260.903,2.77556e-17,0,8192,8192
260.952,0,0,8192,8192
261.002,0,0,8192,8192
261.052,0,0,8192,8192
261.102,0,0,8192,8192
261.152,-2.77556e-17,0,8192,8192
261.201,-2.77556e-17,0,8192,8192
261.251,-2.77556e-17,0,8192,8192
261.301,-2.77556e-17,0,8192,8192
261.351,-5.55112e-17,0,8192,8192
261.401,-2.77556e-17,0,8192,8192
261.45,-2.77556e-17,0,8192,8192
261.5,-5.55112e-17,0,8192,8192
261.55,-2.77556e-17,0,8192,8192
261.603,-2.77556e-17,0,8192,8192
261.653,-5.55112e-17,0,8192,8192
261.702,-2.77556e-17,0,8192,8192
261.752,0,0,8192,8192
261.802,0,0,8192,8192
261.852,-5.55112e-17,0,8192,8192
261.902,-5.55112e-17,0,8192,8192
261.951,-2.77556e-17,0,8192,8192
262.001,0,0,8192,8192
262.051,-2.77556e-17,0,8192,8192
262.101,-2.77556e-17,0,8192,8192
262.151,-2.77556e-17,0,8192,8192
262.2,-2.77556e-17,0,8192,8192
262.25,-2.77556e-17,0,8192,8192
262.303,5.55112e-17,0,8192,8192
262.353,5.55112e-17,0,8192,8192
262.402,2.77556e-17,0,8192,8192
262.452,5.55112e-17,0,8192,8192
262.502,5.55112e-17,0,8192,8192
262.552,0,0,8192,8192
262.602,0,0,8192,8192
262.651,2.77556e-17,0,8192,8192
262.701,2.77556e-17,0,8192,8192
262.751,0,0,8192,8192
262.801,2.77556e-17,0,8192,8192
262.851,0,0,8192,8192
262.9,5.55112e-17,0,8192,8192
262.95,5.55112e-17,0,8192,8192
263,5.55112e-17,0,8192,8192
263.053,8.32667e-17,0,8192,8192
263.103,8.32667e-17,0,8192,8192
263.152,8.32667e-17,0,8192,8192
263.202,5.55112e-17,0,8192,8192
263.252,1.11022e-16,0,8192,8192
263.302,1.11022e-16,0,8192,8192
263.352,8.32667e-17,0,8192,8192
263.401,5.55112e-17,0,8192,8192
263.451,2.77556e-17,0,8192,8192
263.501,0,0,8192,8192
263.551,0,0,8192,8192
263.601,0,0,8192,8192
263.65,0,0,8192,8192
263.7,0,0,8192,8192
263.753,2.77556e-17,0,8192,8192
263.803,5.55112e-17,0,8192,8192
263.852,2.77556e-17,0,8192,8192
263.902,2.77556e-17,0,8192,8192
263.952,0,0,8192,8192
264.002,0,0,8192,8192
264.052,-2.77556e-17,0,8192,8192
264.101,-5.55112e-17,0,8192,8192
264.151,-2.77556e-17,0,8192,8192
264.201,-2.77556e-17,0,8192,8192
264.251,-2.77556e-17,0,8192,8192
264.301,0,0,8192,8192
264.35,0,0,8192,8192
264.4,5.55112e-17,0,8192,8192
264.45,1.11022e-16,0,8192,8192
264.503,1.11022e-16,0,8192,8192
264.553,1.11022e-16,0,8192,8192
264.602,1.11022e-16,0,8192,8192
264.652,8.32667e-17,0,8192,8192
264.702,8.32667e-17,0,8192,8192
264.752,1.11022e-16,0,8192,8192
264.802,1.38778e-16,0,8192,8192
264.851,1.66533e-16,0,8192,8192
264.901,1.11022e-16,0,8192,8192
264.951,1.38778e-16,0,8192,8192
265.001,1.38778e-16,0,8192,8192
265.051,1.11022e-16,0,8192,8192
265.1,8.32667e-17,0,8192,8192
265.15,1.11022e-16,0,8192,8192
265.203,8.32667e-17,0,8192,8192
265.253,1.11022e-16,0,8192,8192
265.302,1.11022e-16,0,8192,8192
265.352,8.32667e-17,0,8192,8192
265.402,5.55112e-17,0,8192,8192
265.452,5.55112e-17,0,8192,8192
265.502,5.55112e-17,0,8192,8192
265.551,8.32667e-17,0,8192,8192
265.601,8.32667e-17,0,8192,8192
265.651,5.55112e-17,0,8192,8192
265.701,5.55112e-17,0,8192,8192
265.751,5.55112e-17,0,8192,8192
265.8,2.77556e-17,0,8192,8192
265.85,2.77556e-17,0,8192,8192
265.9,2.77556e-17,0,8192,8192
265.953,2.77556e-17,0,8192,8192
266.003,0,0,8192,8192
266.052,0,0,8192,8192
266.102,0,0,8192,8192
266.152,-5.55112e-17,0,8192,8192
266.202,-5.55112e-17,0,8192,8192
266.252,-5.55112e-17,0,8192,8192
266.301,-5.55112e-17,0,8192,8192
266.351,-8.32667e-17,0,8192,8192
266.401,-8.32667e-17,0,8192,8192
266.451,-8.32667e-17,0,8192,8192
266.501,-8.32667e-17,0,8192,8192
266.55,-1.11022e-16,0,8192,8192
266.6,-1.11022e-16,0,8192,8192
266.653,-1.11022e-16,0,8192,8192
266.703,-1.11022e-16,0,8192,8192
266.752,-1.38778e-16,0,8192,8192
266.802,-1.38778e-16,0,8192,8192
266.852,-1.38778e-16,0,8192,8192
266.902,-1.11022e-16,0,8192,8192
266.952,-1.38778e-16,0,8192,8192
267.001,-1.38778e-16,0,8192,8192
267.051,-8.32667e-17,0,8192,8192
267.101,-1.11022e-16,0,8192,8192
267.151,-5.55112e-17,0,8192,8192
267.201,-5.55112e-17,0,8192,8192
267.25,-8.32667e-17,0,8192,8192
267.3,-5.55112e-17,0,8192,8192
267.353,-5.55112e-17,0,8192,8192
267.403,-2.77556e-17,0,8192,8192
267.453,-5.55112e-17,0,8192,8192
267.502,-8.32667e-17,0,8192,8192
267.552,-1.11022e-16,0,8192,8192
267.602,-1.11022e-16,0,8192,8192
267.652,-8.32667e-17,0,8192,8192
267.702,-1.11022e-16,0,8192,8192
267.751,-8.32667e-17,0,8192,8192
267.801,-1.11022e-16,0,8192,8192
267.851,-1.11022e-16,0,8192,8192
267.901,-1.38778e-16,0,8192,8192
267.95,-1.38778e-16,0,8192,8192
268,-1.38778e-16,0,8192,8192
268.05,-1.11022e-16,0,8192,8192
268.1,-1.11022e-16,0,9236,9236
268.151,-1.11022e-16,0,9964,9964
268.2,-1.11022e-16,0,10572,10572
268.25,-1.11022e-16,0,11372,11372
268.301,-1.11022e-16,0,12108,12108
268.351,-1.11022e-16,0,12596,12596
268.4,-1.11022e-16,0,12980,12980
268.45,-1.11022e-16,0,13820,13820
268.501,-1.11022e-16,0,14444,14444
268.55,-1.11022e-16,0,14868,14868
268.6,-1.11022e-16,0,15540,15540
268.65,-1.11022e-16,0,16252,16252
268.701,-1.11022e-16,0,16556,16556
268.75,-1.11022e-16,0,17284,17284
268.8,-1.11022e-16,0,18116,18116
268.851,-1.11022e-16,0,18412,18412
268.9,-1.11022e-16,0,18828,18828
268.95,-1.11022e-16,0,19396,19396
269,-1.11022e-16,0,19524,19524
269.051,-1.11022e-16,0,19900,19900
269.1,-1.11022e-16,0,20356,20356
269.15,-1.11022e-16,0,20780,20780
269.201,-1.11022e-16,0,20732,20732
269.251,-1.11022e-16,0,20948,20948
269.3,-1.11022e-16,0,21412,21412
269.35,-1.11022e-16,0,21828,21828
269.401,-1.11022e-16,0,22012,22012
269.45,-1.11022e-16,0,22780,22780
269.5,-1.11022e-16,0,23540,23540
269.55,-1.11022e-16,0,24044,24044
269.601,-1.11022e-16,0,24828,24828
269.65,-1.11022e-16,0,25516,25516
269.7,-1.11022e-16,0,26288,26288
269.751,-1.11022e-16,0,26884,26884
269.8,-1.11022e-16,0,27694,27694
269.85,-1.11022e-16,0,28366,28366
269.9,-1.11022e-16,0,29144,29144
269.951,-1.11022e-16,0,29816,29816
270,-1.11022e-16,0,30612,30612
270.05,-1.11022e-16,0,31362,31362
270.1,-1.11022e-16,0,32062,32062
270.151,-1.11022e-16,0,32692,32692
270.2,-1.11022e-16,0,33522,33522
270.25,-1.11022e-16,0,34168,34168
270.301,-1.11022e-16,0,34924,34924
270.35,-1.11022e-16,0,35542,35542
270.4,-1.11022e-16,0,36350,36350
270.45,-1.11022e-16,0,37092,37092
270.501,-1.11022e-16,0,37816,37816
270.55,6.10623e-16,0,38538,38538
270.6,2.2482e-15,0,39310,39310
270.651,3.94129e-15,0,39984,39984
270.701,5.80092e-15,0,40680,40680
270.75,7.66054e-15,0,41326,41326
270.8,9.54792e-15,0,42220,42220
270.851,1.57929e-14,0,42916,42916
270.9,4.9627e-14,0,43650,43650
270.95,1.68615e-13,0,44472,44472
271,4.18082e-13,0,45260,45260
271.051,5.00988e-13,0,45912,45912
271.1,-1.0987e-12,0,46808,46808
271.15,-8.15387e-12,0,47490,47490
271.201,-2.71215e-11,0,48182,48182
271.25,-8.4815e-11,0,48932,48932
271.3,-3.20979e-10,0,49632,49632
271.35,-5.42392e-10,0,50390,50390
271.401,-4.58244e-10,0,51162,51162
271.45,-5.10195e-11,0,51792,51792
271.5,2.94334e-10,0,52564,52564
271.551,3.68258e-10,0,53310,53310
271.601,2.85065e-10,0,54018,54018
271.65,-2.83805e-11,0,54498,54498
271.7,-1.75964e-10,0,55260,55260
271.751,-1.23383e-10,0,56022,56022
271.8,1.40874e-10,0,56704,56704
271.85,3.20857e-10,0,57272,57272
271.9,2.85605e-10,0,58084,58084
271.951,1.24837e-10,0,58828,58828
272,-8.7331e-11,0,59468,59468
272.05,-5.68771e-11,0,60014,60014
272.101,6.78483e-11,0,60898,60898
272.15,2.27411e-10,0,61540,61540
272.2,2.30745e-10,0,62262,62262
272.25,1.62199e-10,0,62800,62800
272.301,5.43465e-11,0,63518,63518
272.35,3.77975e-12,0,63962,63962
272.4,1.73673e-11,0,64884,64884
272.451,1.19948e-10,0,65598,65598
272.501,2.49664e-10,0,66160,66160
272.55,3.11471e-10,0,66886,66886
272.6,2.6324e-10,0,67574,67574
272.651,-1.16646e-10,0,68274,68274
272.7,-3.83384e-10,0,68942,68942
272.75,-2.49232e-10,0,69514,69514
272.8,5.21548e-10,0,70290,70290
272.851,1.09651e-09,0,70966,70966
272.9,6.9972e-10,0,71598,71598
272.95,-7.92601e-10,0,72144,72144
273.001,-1.94488e-09,0,72762,72762
273.05,-8.37832e-10,0,73532,73532
273.1,3.45727e-09,0,73968,73968
273.15,1.00038e-08,0,74546,74546
273.201,1.70697e-08,0,75184,75184
273.25,2.29341e-08,0,75626,75626
273.3,2.70608e-08,0,76412,76412
273.35,2.94598e-08,0,77004,77004
273.401,3.08829e-08,0,77792,77792
273.45,3.29198e-08,0,78286,78286
273.5,3.74375e-08,0,78816,78816
273.551,4.54816e-08,0,79388,79388
273.6,5.62471e-08,0,80114,80114
273.65,6.86973e-08,0,80748,80748
273.7,8.25399e-08,0,80576,80576
273.751,9.91506e-08,0,80472,80472
273.8,1.19847e-07,0,80988,80988
273.85,1.4637e-07,0,81946,81946
273.901,1.80179e-07,0,82582,82582
273.951,2.20563e-07,0,83128,83128
274,2.66975e-07,0,83610,83610
274.05,3.16882e-07,0,84534,84534
274.101,3.68244e-07,0,86012,86012
274.15,4.18757e-07,0,86592,86592
274.2,4.71138e-07,0,87212,87212
274.25,5.28002e-07,0,87666,87666
274.301,5.9028e-07,0,88282,88282
274.35,6.52425e-07,0,88894,88894
274.4,7.1017e-07,0,89630,89630
274.451,7.60187e-07,0,90220,90220
274.5,7.98974e-07,0,90826,90826
274.55,8.26658e-07,0,91354,91354
274.6,8.44073e-07,0,91704,91704
274.651,8.53767e-07,0,92222,92222
274.7,8.58382e-07,0,92880,92880
274.75,8.59958e-07,0,93402,93402
274.801,8.58955e-07,0,93508,93508
274.851,8.54882e-07,0,93718,93718
274.9,8.47023e-07,0,93226,93226
274.95,8.34244e-07,0,92808,92808
275.001,8.14998e-07,0,92018,92018
275.05,7.88776e-07,0,91378,91378
275.1,7.54578e-07,0,90934,90934
275.15,7.12225e-07,0,90742,90742
275.201,6.62272e-07,0,90454,90454
275.25,6.09237e-07,0,90158,90158
275.3,5.55934e-07,0,90118,90118
275.351,5.04153e-07,0,90002,90002
275.4,4.56587e-07,0,90032,90032
275.45,4.12901e-07,0,89578,89578
275.5,3.7301e-07,0,89342,89342
275.551,3.35835e-07,0,88792,88792
275.6,3.01704e-07,0,88238,88238
275.65,2.69385e-07,0,87464,87464
275.7,2.38387e-07,0,86438,86438
275.751,2.08217e-07,0,85744,85744
275.8,1.80745e-07,0,84746,84746
275.85,1.57539e-07,0,84064,84064
275.901,1.40045e-07,0,83244,83244
275.95,1.28055e-07,0,82700,82700
276,1.18058e-07,0,81924,81924
276.05,1.06711e-07,0,81408,81408
276.101,9.29504e-08,0,80616,80616
276.15,7.90886e-08,0,79976,79976
276.2,6.74432e-08,0,79378,79378
276.251,5.91109e-08,0,78944,78944
276.3,5.39997e-08,0,78684,78684
276.351,5.08516e-08,0,78364,78364
276.4,4.83498e-08,0,78188,78188
276.45,4.48901e-08,0,77986,77986
276.5,3.93995e-08,0,77706,77706
276.55,3.2353e-08,0,77432,77432
276.601,2.5745e-08,0,77314,77314
276.65,2.16278e-08,0,77024,77024
276.7,2.03412e-08,0,76972,76972
276.75,2.07814e-08,0,76948,76948
276.8,2.15895e-08,0,76660,76660
276.85,2.20151e-08,0,76682,76682
276.901,2.21198e-08,0,76654,76654
276.95,2.21714e-08,0,76548,76548
277.001,2.22533e-08,0,76154,76154
277.05,2.23539e-08,0,75942,75942
277.1,2.24102e-08,0,75696,75696
277.15,2.23993e-08,0,75180,75180
277.2,2.19737e-08,0,75022,75022
277.25,2.12879e-08,0,74978,74978
277.301,2.10332e-08,0,75642,75642
277.35,2.0986e-08,0,75990,75990
277.4,2.09311e-08,0,76910,76910
277.451,2.08556e-08,0,77840,77840
277.5,2.07547e-08,0,79194,79194
277.55,2.06244e-08,0,79660,79660
277.601,2.04621e-08,0,80026,80026
277.65,2.02606e-08,0,80656,80656
277.7,2.00314e-08,0,81474,81474
277.751,1.97666e-08,0,82566,82566
277.8,1.94663e-08,0,83198,83198
277.85,1.91294e-08,0,84064,84064
277.901,1.87526e-08,0,84886,84886
277.951,1.83329e-08,0,85580,85580
278.001,1.78842e-08,0,86346,86346
278.051,1.74117e-08,0,86788,86788
278.1,1.69213e-08,0,87390,87390
278.151,1.64121e-08,0,88044,88044
278.201,1.58961e-08,0,88816,88816
278.251,1.5377e-08,0,89518,89518
278.301,1.48583e-08,0,90264,90264
278.35,1.43426e-08,0,91218,91218
278.4,1.38211e-08,0,91588,91588
278.451,1.33064e-08,0,91812,91812
278.501,1.28024e-08,0,91786,91786
278.55,1.23102e-08,0,91274,91274
278.601,1.18298e-08,0,90748,90748
278.65,1.13794e-08,0,89944,89944
278.7,1.09481e-08,0,89302,89302
278.75,1.05486e-08,0,88614,88614
278.801,1.01783e-08,0,87876,87876
278.85,9.84821e-09,0,87250,87250
278.9,9.54708e-09,0,86532,86532
278.95,9.27762e-09,0,85856,85856
279,9.03781e-09,0,85158,85158
279.051,8.82147e-09,0,84332,84332
279.1,8.63287e-09,0,83676,83676
279.15,8.46462e-09,0,82920,82920
279.2,8.31809e-09,0,82162,82162
279.251,8.19039e-09,0,81384,81384
279.3,8.08362e-09,0,80720,80720
279.35,7.99309e-09,0,79958,79958
279.4,7.91466e-09,0,79132,79132
279.451,7.85332e-09,0,78662,78662
279.5,7.80522e-09,0,78396,78396
279.55,7.75916e-09,0,78126,78126
279.601,7.71683e-09,0,77666,77666
279.65,7.68971e-09,0,76948,76948
279.7,7.6687e-09,0,76512,76512
279.75,7.64852e-09,0,75878,75878
279.801,7.63838e-09,0,75150,75150
279.85,7.63615e-09,0,75574,75574
279.9,7.63449e-09,0,75716,75716
279.95,7.63456e-09,0,76404,76404
280.001,7.63719e-09,0,76956,76956
280.05,7.64275e-09,0,77488,77488
280.1,7.6514e-09,0,78082,78082
280.151,7.66316e-09,0,78718,78718
280.2,7.67708e-09,0,79404,79404
280.25,7.69261e-09,0,80028,80028
280.3,7.70905e-09,0,80662,80662
280.351,7.72619e-09,0,81404,81404
280.4,7.74321e-09,0,82134,82134
280.45,7.7602e-09,0,82806,82806
280.501,7.77737e-09,0,83566,83566
280.551,7.79421e-09,0,84286,84286
280.6,7.81098e-09,0,85018,85018
280.65,7.82771e-09,0,85590,85590
280.701,7.84468e-09,0,86148,86148
280.75,7.8614e-09,0,86628,86628
280.8,7.87809e-09,0,87150,87150
280.85,7.89474e-09,0,87614,87614
280.901,7.91155e-09,0,87988,87988
280.95,7.92796e-09,0,88144,88144
281,7.94415e-09,0,88190,88190
281.051,7.96031e-09,0,88352,88352
281.1,7.97591e-09,0,88484,88484
281.15,7.99117e-09,0,88432,88432
281.2,8.00606e-09,0,88214,88214
281.251,8.02078e-09,0,88058,88058
281.3,8.03485e-09,0,87956,87956
281.35,8.04846e-09,0,87866,87866
281.401,8.06177e-09,0,87762,87762
281.451,8.07437e-09,0,87622,87622
281.5,8.08643e-09,0,87464,87464
281.55,8.09788e-09,0,87340,87340
281.601,8.10873e-09,0,87228,87228
281.65,8.11854e-09,0,87128,87128
281.7,8.12757e-09,0,87016,87016
281.75,8.13641e-09,0,86950,86950
281.801,8.1465e-09,0,86804,86804
281.85,8.15943e-09,0,86734,86734
281.9,8.17734e-09,0,86762,86762
281.951,8.20253e-09,0,86670,86670
282,8.23627e-09,0,86566,86566
282.05,8.2865e-09,0,86536,86536
282.1,8.35216e-09,0,86388,86388
282.151,8.44692e-09,0,86310,86310
282.2,8.57036e-09,0,86236,86236
282.25,8.70697e-09,0,86110,86110
282.3,8.92842e-09,0,86080,86080
282.351,9.22004e-09,0,85916,85916
282.4,9.51574e-09,0,85796,85796
282.45,9.82152e-09,0,85732,85732
282.501,1.01372e-08,0,85690,85690
282.55,1.0561e-08,0,85530,85530
282.6,1.10409e-08,0,85196,85196
282.65,1.16203e-08,0,84888,84888
282.7,1.23368e-08,0,85146,85146
282.75,1.31946e-08,0,85712,85712
282.8,1.42361e-08,0,85928,85928
282.851,1.54658e-08,0,86628,86628
282.901,1.68969e-08,0,87096,87096
282.95,1.85393e-08,0,87770,87770
283,2.04021e-08,0,88360,88360
283.05,2.25281e-08,0,89144,89144
283.1,2.48975e-08,0,89788,89788
283.15,2.75118e-08,0,90628,90628
283.2,3.03623e-08,0,91580,91580
283.25,3.34775e-08,0,92558,92558
283.301,3.67834e-08,0,93480,93480
283.351,4.02423e-08,0,94206,94206
283.401,4.38169e-08,0,94408,94408
283.45,4.74767e-08,0,94610,94610
283.501,5.12607e-08,0,95466,95466
283.55,5.50514e-08,0,96698,96698
283.6,5.89568e-08,0,97810,97810
283.651,6.29419e-08,0,98474,98474
283.7,6.68209e-08,0,99208,99208
283.751,7.06901e-08,0,99996,99996
283.8,7.45918e-08,0,100684,100684
283.85,7.90083e-08,0,101366,101366
283.901,8.43922e-08,0,102048,102048
283.95,9.08193e-08,0,102576,102576
284,9.81984e-08,0,103388,103388
284.05,1.06017e-07,0,104138,104138
284.101,1.13746e-07,0,104856,104856
284.15,1.20687e-07,0,105774,105774
284.2,1.26868e-07,0,106656,106656
284.251,1.32722e-07,0,107366,107366
284.3,1.3875e-07,0,108030,108030
284.35,1.4578e-07,0,108606,108606
284.4,1.54397e-07,0,109256,109256
284.451,1.65104e-07,0,109882,109882
284.5,1.77775e-07,0,110472,110472
284.55,1.92793e-07,0,111040,111040
284.601,2.10912e-07,0,111676,111676
284.651,2.32305e-07,0,112256,112256
284.7,2.57928e-07,0,112598,112598
284.75,2.88246e-07,0,112650,112650
284.801,3.23786e-07,0,112516,112516
284.85,3.6294e-07,0,112380,112380
284.9,4.05259e-07,0,112268,112268
284.95,4.49795e-07,0,112224,112224
285.001,4.96596e-07,0,112282,112282
285.05,5.43991e-07,0,113008,113008
285.1,5.92329e-07,0,114550,114550
285.151,6.41492e-07,0,116986,116986
285.2,6.8842e-07,0,117800,117800
285.25,7.31582e-07,0,118296,118296
285.3,7.68641e-07,0,118926,118926
285.351,7.98127e-07,0,119778,119778
285.4,8.1827e-07,0,120312,120312
285.45,8.29689e-07,0,120540,120540
285.501,8.33336e-07,0,121232,121232
285.551,8.30479e-07,0,121514,121514
285.6,8.22525e-07,0,121364,121364
285.65,8.10366e-07,0,121742,121742
285.701,7.94081e-07,0,121670,121670
285.75,7.73969e-07,0,121562,121562
285.8,7.49301e-07,0,121420,121420
285.85,7.19427e-07,0,121750,121750
285.901,6.83232e-07,0,121650,121650
285.95,6.41577e-07,0,121552,121552
286,5.94366e-07,0,121472,121472
286.051,5.41873e-07,0,121694,121694
286.1,4.87287e-07,0,121984,121984
286.15,4.31826e-07,0,122336,122336
286.2,3.77359e-07,0,122482,122482
286.251,3.24616e-07,0,122820,122820
286.3,2.76038e-07,0,122836,122836
286.35,2.31192e-07,0,123680,123680
286.4,1.90003e-07,0,123328,123328
286.451,1.5163e-07,0,123608,123608
286.5,1.16839e-07,0,123536,123536
286.55,8.48658e-08,0,121456,121456
286.601,5.54005e-08,0,119610,119610
286.65,2.96578e-08,0,117410,117410
286.7,7.59769e-09,0,115466,115466
286.75,-1.0642e-08,0,114666,114666
286.801,-2.56289e-08,0,114402,114402
286.85,-3.77753e-08,0,113266,113266
286.9,-4.82622e-08,0,112142,112142
286.951,-5.7822e-08,0,111216,111216
287,-6.6216e-08,0,109908,109908
287.05,-7.3206e-08,0,109238,109238
287.1,-7.83604e-08,0,108912,108912
287.151,-8.15782e-08,0,108742,108742
287.2,-8.30745e-08,0,107638,107638
287.25,-8.35527e-08,0,107338,107338
287.3,-8.36153e-08,0,106646,106646
287.351,-8.35392e-08,0,105840,105840
287.4,-8.36343e-08,0,105202,105202
287.45,-8.33519e-08,0,104550,104550
287.501,-8.21982e-08,0,104100,104100
287.55,-7.98977e-08,0,103302,103302
287.6,-7.6497e-08,0,102626,102626
287.65,-7.23236e-08,0,102092,102092
287.701,-6.77042e-08,0,101588,101588
287.75,-6.30898e-08,0,101092,101092
287.8,-5.86114e-08,0,101088,101088
287.851,-5.42795e-08,0,101628,101628
287.901,-5.02464e-08,0,100474,100474
287.95,-4.64704e-08,0,99758,99758
288,-4.29759e-08,0,99034,99034
288.051,-3.97269e-08,0,99388,99388
288.1,-3.67958e-08,0,98644,98644
288.15,-3.40884e-08,0,98680,98680
288.2,-3.15615e-08,0,98142,98142
288.251,-2.91673e-08,0,97290,97290
288.3,-2.69763e-08,0,96208,96208
288.35,-2.49616e-08,0,94504,94504
288.401,-2.30971e-08,0,93266,93266
288.45,-2.14306e-08,0,92794,92794
288.5,-1.99219e-08,0,93004,93004
288.55,-1.8558e-08,0,92502,92502
288.601,-1.73213e-08,0,93836,93836
288.65,-1.62506e-08,0,94966,94966
288.7,-1.53087e-08,0,95362,95362
288.751,-1.44702e-08,0,96054,96054
288.801,-1.37557e-08,0,97622,97622
288.85,-1.31112e-08,0,99840,99840
288.9,-1.25043e-08,0,101222,101222
288.951,-1.19325e-08,0,103362,103362
289,-1.14467e-08,0,103814,103814
289.05,-1.10569e-08,0,105146,105146
289.1,-1.07181e-08,0,106208,106208
289.151,-1.04204e-08,0,106482,106482
289.2,-1.01878e-08,0,106604,106604
289.25,-1.00114e-08,0,106282,106282
289.301,-9.87431e-09,0,103362,103362
289.35,-9.77652e-09,0,101732,101732
289.4,-9.68407e-09,0,100798,100798
289.45,-9.67067e-09,0,100164,100164
289.501,-9.6789e-09,0,101418,101418
289.55,-9.70729e-09,0,101294,101294
289.6,-9.75797e-09,0,101868,101868
289.651,-9.81987e-09,0,100596,100596
289.701,-9.89649e-09,0,101752,101752
289.75,-9.97143e-09,0,101468,101468
289.8,-1.00493e-08,0,101266,101266
289.851,-1.01286e-08,0,102214,102214
289.9,-1.02019e-08,0,102276,102276
289.95,-1.02585e-08,0,102498,102498
290,-1.03035e-08,0,101842,101842
290.051,-1.03436e-08,0,101066,101066
290.1,-1.03837e-08,0,100008,100008
290.15,-1.04236e-08,0,98406,98406
290.201,-1.04629e-08,0,96986,96986
290.25,-1.04996e-08,0,95200,95200
290.3,-1.0534e-08,0,93144,93144
290.35,-1.0566e-08,0,91094,91094
290.401,-1.05959e-08,0,88916,88916
290.45,-1.06239e-08,0,86526,86526
290.5,-1.06516e-08,0,83782,83782
290.55,-1.068e-08,0,79468,79468
290.601,-1.07096e-08,0,77314,77314
290.65,-1.0739e-08,0,76390,76390
290.7,-1.0768e-08,0,75786,75786
290.751,-1.07979e-08,0,76814,76814
290.8,-1.08266e-08,0,76178,76178
290.85,-1.08559e-08,0,74678,74678
290.9,-1.0886e-08,0,75514,75514
290.951,-1.09174e-08,0,76286,76286
291,-1.09498e-08,0,78206,78206
291.05,-1.09828e-08,0,78834,78834
291.101,-1.10171e-08,0,78416,78416
291.151,-1.10527e-08,0,77996,77996
291.2,-1.10915e-08,0,78162,78162
291.25,-1.11347e-08,0,78350,78350
291.301,-1.11833e-08,0,78038,78038
291.35,-1.12358e-08,0,77520,77520
291.4,-1.12922e-08,0,78228,78228
291.45,-1.13536e-08,0,78388,78388
291.501,-1.14259e-08,0,78228,78228
291.55,-1.1515e-08,0,77880,77880
291.6,-1.16195e-08,0,77734,77734
291.651,-1.1733e-08,0,77474,77474
291.7,-1.18525e-08,0,77664,77664
291.75,-1.19813e-08,0,77848,77848
291.8,-1.21197e-08,0,77916,77916
291.851,-1.22673e-08,0,78484,78484
291.9,-1.2418e-08,0,78356,78356
291.95,-1.25819e-08,0,78158,78158
292.001,-1.27548e-08,0,78152,78152
292.051,-1.2949e-08,0,78730,78730
292.1,-1.31432e-08,0,79284,79284
292.15,-1.33532e-08,0,79784,79784
292.201,-1.35951e-08,0,80510,80510
292.25,-1.38734e-08,0,80806,80806
292.3,-1.41767e-08,0,81036,81036
292.35,-1.45177e-08,0,80994,80994
292.401,-1.48701e-08,0,80934,80934
292.45,-1.52321e-08,0,81022,81022
292.5,-1.56183e-08,0,81142,81142
292.551,-1.60403e-08,0,81488,81488
292.6,-1.64773e-08,0,81398,81398
292.65,-1.69231e-08,0,81260,81260
292.7,-1.73764e-08,0,80834,80834
292.751,-1.78419e-08,0,78544,78544
292.8,-1.83027e-08,0,77190,77190
292.85,-1.87609e-08,0,76610,76610
292.9,-1.92098e-08,0,75826,75826
292.951,-1.96548e-08,0,74790,74790
293,-2.00791e-08,0,73506,73506
293.05,-2.04846e-08,0,72178,72178
293.101,-2.08725e-08,0,71078,71078
293.151,-2.12336e-08,0,70238,70238
293.2,-2.15741e-08,0,69736,69736
293.25,-2.18891e-08,0,69482,69482
293.301,-2.21764e-08,0,69250,69250
293.351,-2.24291e-08,0,69178,69178
293.401,-2.26479e-08,0,69234,69234
293.451,-2.28323e-08,0,69242,69242
293.5,-2.29776e-08,0,69178,69178
293.551,-2.30813e-08,0,68942,68942
293.601,-2.31427e-08,0,68658,68658
293.651,-2.31449e-08,0,68908,68908
293.7,-2.31337e-08,0,69168,69168
293.75,-2.3114e-08,0,69320,69320
293.8,-2.30829e-08,0,69578,69578
293.851,-2.30272e-08,0,69836,69836
293.9,-2.29495e-08,0,70064,70064
293.95,-2.28473e-08,0,70302,70302
294,-2.27317e-08,0,70518,70518
294.051,-2.26016e-08,0,70736,70736
294.1,-2.24636e-08,0,70964,70964
294.15,-2.23185e-08,0,71232,71232
294.201,-2.21657e-08,0,71426,71426
294.25,-2.20108e-08,0,71658,71658
294.3,-2.18526e-08,0,71854,71854
294.35,-2.16921e-08,0,72094,72094
294.401,-2.15281e-08,0,72334,72334
294.45,-2.13665e-08,0,72564,72564
294.5,-2.1206e-08,0,72750,72750
294.551,-2.10451e-08,0,72992,72992
294.601,-2.08892e-08,0,73076,73076
294.65,-2.07365e-08,0,73164,73164
294.7,-2.05872e-08,0,73236,73236
294.751,-2.04397e-08,0,73360,73360
294.8,-2.02985e-08,0,73414,73414
294.85,-2.01619e-08,0,73416,73416
294.9,-2.00303e-08,0,73600,73600
294.951,-1.99021e-08,0,74114,74114
295,-1.97811e-08,0,74466,74466
295.05,-1.96655e-08,0,74800,74800
295.101,-1.95539e-08,0,74448,74448
295.15,-1.94498e-08,0,74104,74104
295.2,-1.93511e-08,0,74760,74760
295.25,-1.92573e-08,0,74830,74830
295.301,-1.91667e-08,0,75070,75070
295.35,-1.90815e-08,0,75286,75286
295.4,-1.9e-08,0,74956,74956
295.451,-1.89207e-08,0,74824,74824
295.501,-1.88457e-08,0,74444,74444
295.55,-1.87736e-08,0,73914,73914
295.6,-1.87045e-08,0,73542,73542
295.651,-1.86368e-08,0,73098,73098
295.7,-1.85718e-08,0,72608,72608
295.75,-1.85081e-08,0,71980,71980
295.8,-1.84455e-08,0,71360,71360
295.851,-1.8383e-08,0,70718,70718
295.9,-1.83223e-08,0,69962,69962
295.95,-1.82622e-08,0,69218,69218
296.001,-1.82016e-08,0,68488,68488
296.05,-1.8142e-08,0,67788,67788
296.1,-1.80822e-08,0,67010,67010
296.15,-1.80222e-08,0,66344,66344
296.201,-1.79609e-08,0,65674,65674
296.25,-1.79002e-08,0,64978,64978
296.3,-1.78389e-08,0,64306,64306
296.35,-1.7777e-08,0,63534,63534
296.401,-1.77134e-08,0,63090,63090
296.45,-1.76498e-08,0,62684,62684
296.5,-1.75851e-08,0,62092,62092
296.551,-1.75183e-08,0,61410,61410
296.6,-1.7451e-08,0,60692,60692
296.65,-1.73822e-08,0,60052,60052
296.7,-1.73118e-08,0,59462,59462
296.751,-1.72386e-08,0,58810,58810
296.801,-1.71642e-08,0,58296,58296
296.85,-1.70877e-08,0,58262,58262
296.901,-1.70077e-08,0,58444,58444
296.95,-1.69264e-08,0,58666,58666
297,-1.68408e-08,0,58850,58850
297.05,-1.67519e-08,0,58972,58972
297.1,-1.66596e-08,0,59054,59054
297.151,-1.65618e-08,0,59066,59066
297.2,-1.64617e-08,0,59066,59066
297.25,-1.63558e-08,0,58874,58874
297.3,-1.62455e-08,0,58814,58814
297.351,-1.61289e-08,0,58738,58738
297.4,-1.60097e-08,0,58700,58700
297.45,-1.58839e-08,0,58582,58582
297.501,-1.57532e-08,0,58554,58554
297.55,-1.56176e-08,0,58498,58498
297.6,-1.54774e-08,0,58376,58376
297.651,-1.53308e-08,0,58230,58230
297.701,-1.51821e-08,0,58008,58008
297.751,-1.50345e-08,0,57824,57824
297.801,-1.48893e-08,0,57620,57620
297.85,-1.47234e-08,0,57422,57422
297.901,-1.45133e-08,0,57180,57180
297.951,-1.43295e-08,0,56976,56976
298.001,-1.41405e-08,0,56786,56786
298.051,-1.39475e-08,0,56664,56664
298.1,-1.37496e-08,0,56518,56518
298.15,-1.35433e-08,0,56318,56318
298.201,-1.33319e-08,0,56212,56212
298.25,-1.31153e-08,0,56074,56074
298.3,-1.28937e-08,0,55942,55942
298.351,-1.26636e-08,0,55896,55896
298.4,-1.24318e-08,0,55814,55814
298.45,-1.21901e-08,0,55774,55774
298.5,-1.19407e-08,0,55658,55658
298.551,-1.16776e-08,0,55674,55674
298.6,-1.14071e-08,0,55596,55596
298.65,-1.11205e-08,0,55564,55564
298.7,-1.08253e-08,0,55514,55514
298.75,-1.05282e-08,0,55500,55500
298.801,-1.02016e-08,0,55450,55450
298.85,-9.78853e-09,0,55442,55442
298.9,-9.38236e-09,0,55438,55438
298.95,-8.9554e-09,0,55350,55350
299,-8.50103e-09,0,55324,55324
299.051,-8.0103e-09,0,55300,55300
299.1,-7.49838e-09,0,55248,55248
299.15,-6.95039e-09,0,55252,55252
299.2,-6.37511e-09,0,55250,55250
299.251,-5.76659e-09,0,55250,55250
299.3,-5.14806e-09,0,55262,55262
299.351,-4.50758e-09,0,55226,55226
299.401,-3.86043e-09,0,55214,55214
299.45,-3.2121e-09,0,55228,55228
299.5,-2.56705e-09,0,55274,55274
299.55,-1.92882e-09,0,55354,55354
299.601,-1.2927e-09,0,55442,55442
299.65,-6.81196e-10,0,55494,55494
299.7,-8.86358e-11,0,55520,55520
299.751,4.89816e-10,0,55620,55620
299.801,1.0342e-09,0,55652,55652
299.85,1.55e-09,0,55730,55730
299.9,2.03379e-09,0,55810,55810
299.951,2.48793e-09,0,55856,55856
300,2.89509e-09,0,55904,55904
300.05,3.25903e-09,0,55938,55938
300.1,3.57817e-09,0,56014,56014
300.151,3.8563e-09,0,56068,56068
300.2,4.08691e-09,0,56112,56112
300.25,4.27734e-09,0,56164,56164
300.301,4.4328e-09,0,56162,56162
300.35,4.5507e-09,0,56152,56152
300.4,4.6393e-09,0,56158,56158
300.45,4.65996e-09,0,56130,56130
300.501,4.64345e-09,0,56114,56114
300.55,4.61985e-09,0,56114,56114
300.6,4.58723e-09,0,55714,55714
300.65,4.54592e-09,0,55278,55278
300.701,4.4905e-09,0,55088,55088
300.75,4.42707e-09,0,54840,54840
300.8,4.35474e-09,0,54540,54540
300.851,4.25534e-09,0,54310,54310
300.9,4.15105e-09,0,54082,54082
300.95,4.04342e-09,0,53830,53830
301,3.93308e-09,0,53582,53582
301.051,3.81976e-09,0,53382,53382
301.1,3.70775e-09,0,53146,53146
301.15,3.59629e-09,0,52948,52948
301.201,3.48461e-09,0,52146,52146
301.25,3.37668e-09,0,51642,51642
301.3,3.27158e-09,0,50888,50888
301.35,3.16991e-09,0,50356,50356
301.401,3.07094e-09,0,49604,49604
301.45,2.97821e-09,0,49046,49046
301.5,2.89094e-09,0,48396,48396
301.55,2.80973e-09,0,48010,48010
301.601,2.73406e-09,0,47498,47498
301.65,2.66653e-09,0,47026,47026
301.7,2.60618e-09,0,46508,46508
301.751,2.55238e-09,0,45978,45978
301.8,2.50661e-09,0,45448,45448
301.85,2.46785e-09,0,44898,44898
301.9,2.43578e-09,0,44302,44302
301.951,2.4095e-09,0,43720,43720
302,2.38958e-09,0,43184,43184
302.05,2.37319e-09,0,42592,42592
302.101,2.35976e-09,0,41878,41878
302.151,2.34863e-09,0,41148,41148
302.2,2.33961e-09,0,40272,40272
302.25,2.33095e-09,0,39376,39376
302.301,2.32281e-09,0,38544,38544
302.35,2.31493e-09,0,37778,37778
302.4,2.30685e-09,0,36982,36982
302.45,2.29828e-09,0,36122,36122
302.501,2.28893e-09,0,35208,35208
302.55,2.27907e-09,0,34276,34276
302.6,2.26868e-09,0,33380,33380
302.651,2.25781e-09,0,32504,32504
302.7,2.24702e-09,0,31668,31668
302.75,2.23641e-09,0,30822,30822
302.8,2.22617e-09,0,30018,30018
302.851,2.2163e-09,0,29098,29098
302.9,2.20717e-09,0,28182,28182
302.95,2.19863e-09,0,27150,27150
303.001,2.19058e-09,0,26312,26312
303.051,2.18326e-09,0,25520,25520
303.1,2.17666e-09,0,24694,24694
303.15,2.1709e-09,0,23866,23866
303.201,2.16606e-09,0,23080,23080
303.25,2.16251e-09,0,22224,22224
303.3,2.16037e-09,0,21440,21440
303.35,2.15968e-09,0,20596,20596
303.401,2.16043e-09,0,19798,19798
303.45,2.1625e-09,0,18980,18980
303.5,2.16576e-09,0,18142,18142
303.551,2.17013e-09,0,17342,17342
303.6,2.17526e-09,0,16504,16504
303.651,2.18106e-09,0,16106,16106
303.701,2.18713e-09,0,16114,16114
303.75,2.19335e-09,0,16162,16162
303.801,2.19966e-09,0,16148,16148
303.851,2.20562e-09,0,16144,16144
303.9,2.21123e-09,0,16148,16148
303.95,2.21634e-09,0,16140,16140
304.001,2.22097e-09,0,16074,16074
304.051,2.22484e-09,0,15958,15958
304.1,2.22803e-09,0,15854,15854
304.15,2.2305e-09,0,15732,15732
304.201,2.23228e-09,0,15562,15562
304.25,2.23332e-09,0,15336,15336
304.3,2.23367e-09,0,15110,15110
304.351,2.23335e-09,0,14884,14884
304.401,2.23242e-09,0,14668,14668
304.45,2.23095e-09,0,14440,14440
304.5,2.22899e-09,0,14208,14208
304.551,2.22651e-09,0,13984,13984
304.601,2.22364e-09,0,13760,13760
304.65,2.22036e-09,0,13544,13544
304.701,2.21659e-09,0,13280,13280
304.751,2.21252e-09,0,13082,13082
304.8,2.20806e-09,0,12840,12840
304.85,2.20323e-09,0,12632,12632
304.901,2.19789e-09,0,12378,12378
304.951,2.19221e-09,0,12184,12184
