250,0,0,8192,8192
250.003,0,0,8192,8192
250.053,0,0,8192,8192
250.103,0,0,8192,8192
250.152,0,0,8192,8192
250.202,0,0,8192,8192
250.252,0,0,8192,8192
250.302,0,0,8192,8192
250.352,0,0,8192,8192
250.401,0,0,8192,8192
250.451,0,0,8192,8192
250.501,0,0,8192,8192
250.551,0,0,8192,8192
250.6,0,0,8192,8192
250.65,0,0,8192,8192
250.7,0,0,8192,8192
250.753,0,0,8192,8192
250.803,0,0,8192,8192
250.852,0,0,8192,8192
250.902,0,0,8192,8192
250.952,0,0,8192,8192
251.002,0,0,8192,8192
251.052,0,0,8192,8192
251.101,0,0,8192,8192
251.151,0,0,8192,8192
251.201,0,0,8192,8192
251.251,0,0,8192,8192
251.301,0,0,8192,8192
251.35,0,0,8192,8192
251.4,0,0,8192,8192
251.453,0,0,8192,8192
251.503,0,0,8192,8192
251.553,0,0,8192,8192
251.602,0,0,8192,8192
251.652,0,0,8192,8192
251.702,0,0,8192,8192
251.752,0,0,8192,8192
251.801,0,0,8192,8192
251.851,0,0,8192,8192
251.901,0,0,8192,8192
251.951,0,0,8192,8192
252.001,0,0,8192,8192
252.05,0,0,8192,8192
252.1,0,0,8192,8192
252.15,0,0,8192,8192
252.203,0,0,8192,8192
252.253,0,0,8192,8192
252.302,0,0,8192,8192
252.352,0,0,8192,8192
252.402,0,0,8192,8192
252.452,0,0,8192,8192
252.502,0,0,8192,8192
252.551,0,0,8192,8192
252.601,0,0,8192,8192
252.651,0,0,8192,8192
252.701,0,0,8192,8192
252.751,0,0,8192,8192
252.8,0,0,8192,8192
252.85,0,0,8192,8192
252.903,0,0,8192,8192
252.953,0,0,8192,8192
253.002,0,0,8192,8192
253.052,0,0,8192,8192
253.102,0,0,8192,8192
253.152,0,0,8192,8192
253.202,0,0,8192,8192
253.251,0,0,8192,8192
253.301,0,0,8192,8192
253.351,0,0,8192,8192
253.401,0,0,8192,8192
253.451,0,0,8192,8192
253.5,0,0,8192,8192
253.55,0,0,8192,8192
253.6,0,0,8192,8192
253.653,0,0,8192,8192
253.703,0,0,8192,8192
253.752,0,0,8192,8192
253.802,0,0,8192,8192
253.852,0,0,8192,8192
253.902,0,0,8192,8192
253.952,0,0,8192,8192
254.001,0,0,8192,8192
254.051,0,0,8192,8192
254.101,0,0,8192,8192
254.151,0,0,8192,8192
254.201,0,0,8192,8192
254.25,0,0,8192,8192
254.3,0,0,8192,8192
254.353,0,0,8192,8192
254.403,0,0,8192,8192
254.452,0,0,8192,8192
254.502,0,0,8192,8192
254.552,0,0,8192,8192
254.602,0,0,8192,8192
254.652,0,0,8192,8192
254.701,0,0,8192,8192
254.751,0,0,8192,8192
254.801,0,0,8192,8192
254.851,0,0,8192,8192
254.901,0,0,8192,8192
254.95,0,0,8192,8192
255,0,0,8192,8192
255.05,0,0,8192,8192
255.103,0,0,8192,8192
255.153,0,0,8192,8192
255.202,0,0,8192,8192
255.252,0,0,8192,8192
255.302,2.77556e-17,0,8192,8192
255.352,2.77556e-17,0,8192,8192
255.402,5.55112e-17,0,8192,8192
255.451,2.77556e-17,0,8192,8192
255.501,2.77556e-17,0,8192,8192
255.551,2.77556e-17,0,8192,8192
255.601,2.77556e-17,0,8192,8192
255.651,2.77556e-17,0,8192,8192
255.7,2.77556e-17,0,8192,8192
255.75,2.77556e-17,0,8192,8192
255.803,2.77556e-17,0,8192,8192
255.853,2.77556e-17,0,8192,8192
255.902,2.77556e-17,0,8192,8192
255.952,2.77556e-17,0,8192,8192
256.002,5.55112e-17,0,8192,8192
256.052,5.55112e-17,0,8192,8192
256.102,5.55112e-17,0,8192,8192
256.151,5.55112e-17,0,8192,8192
256.201,2.77556e-17,0,8192,8192
256.251,2.77556e-17,0,8192,8192
256.301,2.77556e-17,0,8192,8192
256.351,2.77556e-17,0,8192,8192
256.4,2.77556e-17,0,8192,8192
256.45,2.77556e-17,0,8192,8192
256.5,0,0,8192,8192
256.553,0,0,8192,8192
256.603,0,0,8192,8192
256.652,0,0,8192,8192
256.702,0,0,8192,8192
256.752,0,0,8192,8192
256.802,0,0,8192,8192
256.852,0,0,8192,8192
256.901,0,0,8192,8192
256.951,0,0,8192,8192
257.001,0,0,8192,8192
257.051,0,0,8192,8192
257.101,0,0,8192,8192
257.15,0,0,8192,8192
257.2,0,0,8192,8192
257.253,0,0,8192,8192
257.303,2.77556e-17,0,8192,8192
257.352,2.77556e-17,0,8192,8192
257.402,5.55112e-17,0,8192,8192
257.452,5.55112e-17,0,8192,8192
257.502,5.55112e-17,0,8192,8192
257.552,5.55112e-17,0,8192,8192
257.601,5.55112e-17,0,8192,8192
257.651,5.55112e-17,0,8192,8192
257.701,5.55112e-17,0,8192,8192
257.751,5.55112e-17,0,8192,8192
257.801,5.55112e-17,0,8192,8192
257.85,5.55112e-17,0,8192,8192
257.9,5.55112e-17,0,8192,8192
257.95,5.55112e-17,0,8192,8192
258.003,5.55112e-17,0,8192,8192
258.053,5.55112e-17,0,8192,8192
258.102,5.55112e-17,0,8192,8192
258.152,5.55112e-17,0,8192,8192
258.202,5.55112e-17,0,8192,8192
258.252,5.55112e-17,0,8192,8192
258.302,5.55112e-17,0,8192,8192
258.351,5.55112e-17,0,8192,8192
258.401,5.55112e-17,0,8192,8192
258.451,5.55112e-17,0,8192,8192
258.501,5.55112e-17,0,8192,8192
258.551,5.55112e-17,0,8192,8192
258.6,5.55112e-17,0,8192,8192
258.65,2.77556e-17,0,8192,8192
258.703,0,0,8192,8192
258.753,0,0,8192,8192
258.802,0,0,8192,8192
258.852,2.77556e-17,0,8192,8192
258.902,2.77556e-17,0,8192,8192
258.952,5.55112e-17,0,8192,8192
259.002,5.55112e-17,0,8192,8192
259.051,2.77556e-17,0,8192,8192
259.101,2.77556e-17,0,8192,8192
259.151,2.77556e-17,0,8192,8192
259.201,2.77556e-17,0,8192,8192
259.251,2.77556e-17,0,8192,8192
259.3,2.77556e-17,0,8192,8192
259.35,2.77556e-17,0,8192,8192
259.403,2.77556e-17,0,8192,8192
259.453,2.77556e-17,0,8192,8192
259.503,2.77556e-17,0,8192,8192
259.552,2.77556e-17,0,8192,8192
259.602,2.77556e-17,0,8192,8192
259.652,2.77556e-17,0,8192,8192
259.702,2.77556e-17,0,8192,8192
259.751,2.77556e-17,0,8192,8192
259.801,2.77556e-17,0,8192,8192
259.851,2.77556e-17,0,8192,8192
259.901,0,0,8192,8192
259.951,-2.77556e-17,0,8192,8192
260,-2.77556e-17,0,8192,8192
260.05,-2.77556e-17,0,8192,8192
260.1,-2.77556e-17,0,8192,8192
260.153,-2.77556e-17,0,8192,8192
260.203,-2.77556e-17,0,8192,8192
260.252,-2.77556e-17,0,8192,8192
260.302,-2.77556e-17,0,8192,8192
260.352,-2.77556e-17,0,8192,8192
260.402,-2.77556e-17,0,8192,8192
260.452,-2.77556e-17,0,8192,8192
260.501,-2.77556e-17,0,8192,8192
260.551,-2.77556e-17,0,8192,8192
260.601,-2.77556e-17,0,8192,8192
260.651,-2.77556e-17,0,8192,8192
260.701,-2.77556e-17,0,8192,8192
260.75,-2.77556e-17,0,8192,8192
260.8,-2.77556e-17,0,8192,8192
260.853,-2.77556e-17,0,8192,8192
260.903,-2.77556e-17,0,8192,8192
260.952,-2.77556e-17,0,8192,8192
261.002,-8.32667e-17,0,8192,8192
261.052,-8.32667e-17,0,8192,8192
261.102,-8.32667e-17,0,8192,8192
261.152,-5.55112e-17,0,8192,8192
261.201,-2.77556e-17,0,8192,8192
261.251,-2.77556e-17,0,8192,8192
261.301,-2.77556e-17,0,8192,8192
261.351,-2.77556e-17,0,8192,8192
261.401,-2.77556e-17,0,8192,8192
261.45,-2.77556e-17,0,8192,8192
261.5,-2.77556e-17,0,8192,8192
261.55,-2.77556e-17,0,8192,8192
261.603,-2.77556e-17,0,8192,8192
261.653,0,0,8192,8192
261.702,-2.77556e-17,0,8192,8192
261.752,-2.77556e-17,0,8192,8192
261.802,-2.77556e-17,0,8192,8192
261.852,-2.77556e-17,0,8192,8192
261.902,-2.77556e-17,0,8192,8192
261.951,-2.77556e-17,0,8192,8192
262.001,-2.77556e-17,0,8192,8192
262.051,-2.77556e-17,0,8192,8192
262.101,-2.77556e-17,0,8192,8192
262.151,-2.77556e-17,0,8192,8192
262.2,-2.77556e-17,0,8192,8192
262.25,-2.77556e-17,0,8192,8192
262.303,-2.77556e-17,0,8192,8192
262.353,-2.77556e-17,0,8192,8192
262.402,-2.77556e-17,0,8192,8192
262.452,-2.77556e-17,0,8192,8192
262.502,-2.77556e-17,0,8192,8192
262.552,-2.77556e-17,0,8192,8192
262.602,-2.77556e-17,0,8192,8192
262.651,-2.77556e-17,0,8192,8192
262.701,-2.77556e-17,0,8192,8192
262.751,0,0,8192,8192
262.801,0,0,8192,8192
262.851,0,0,8192,8192
262.9,0,0,8192,8192
262.95,-2.77556e-17,0,8192,8192
263,-2.77556e-17,0,8192,8192
263.053,0,0,8192,8192
263.103,0,0,8192,8192
263.152,0,0,8192,8192
263.202,0,0,8192,8192
263.252,0,0,8192,8192
263.302,2.77556e-17,0,8192,8192
263.352,0,0,8192,8192
263.401,0,0,8192,8192
263.451,0,0,8192,8192
263.501,2.77556e-17,0,8192,8192
263.551,5.55112e-17,0,8192,8192
263.601,5.55112e-17,0,8192,8192
263.65,0,0,8192,8192
263.7,0,0,8192,8192
263.753,0,0,8192,8192
263.803,0,0,8192,8192
263.852,0,0,8192,8192
263.902,0,0,8192,8192
263.952,0,0,8192,8192
264.002,0,0,8192,8192
264.052,0,0,8192,8192
264.101,0,0,8192,8192
264.151,0,0,8192,8192
264.201,0,0,8192,8192
264.251,0,0,8192,8192
264.301,2.77556e-17,0,8192,8192
264.35,2.77556e-17,0,8192,8192
264.4,2.77556e-17,0,8192,8192
264.45,2.77556e-17,0,8192,8192
264.503,2.77556e-17,0,8192,8192
264.553,2.77556e-17,0,8192,8192
264.602,2.77556e-17,0,8192,8192
264.652,2.77556e-17,0,8192,8192
264.702,2.77556e-17,0,8192,8192
264.752,2.77556e-17,0,8192,8192
264.802,2.77556e-17,0,8192,8192
264.851,2.77556e-17,0,8192,8192
264.901,2.77556e-17,0,8192,8192
264.951,2.77556e-17,0,8192,8192
265.001,2.77556e-17,0,8192,8192
265.051,2.77556e-17,0,8192,8192
265.1,2.77556e-17,0,8192,8192
265.15,2.77556e-17,0,8192,8192
265.203,2.77556e-17,0,8192,8192
265.253,2.77556e-17,0,8192,8192
265.302,2.77556e-17,0,8192,8192
265.352,2.77556e-17,0,8192,8192
265.402,2.77556e-17,0,8192,8192
265.452,2.77556e-17,0,8192,8192
265.502,2.77556e-17,0,8192,8192
265.551,2.77556e-17,0,8192,8192
265.601,2.77556e-17,0,8192,8192
265.651,2.77556e-17,0,8192,8192
265.701,5.55112e-17,0,8192,8192
265.751,5.55112e-17,0,8192,8192
265.8,2.77556e-17,0,8192,8192
265.85,2.77556e-17,0,8192,8192
265.9,2.77556e-17,0,8192,8192
265.953,2.77556e-17,0,8192,8192
266.003,2.77556e-17,0,8192,8192
266.052,2.77556e-17,0,8192,8192
266.102,2.77556e-17,0,8192,8192
266.152,2.77556e-17,0,8192,8192
266.202,2.77556e-17,0,8192,8192
266.252,2.77556e-17,0,8192,8192
266.301,2.77556e-17,0,8192,8192
266.351,2.77556e-17,0,8192,8192
266.401,2.77556e-17,0,8192,8192
266.451,2.77556e-17,0,8192,8192
266.501,2.77556e-17,0,8192,8192
266.55,2.77556e-17,0,8192,8192
266.6,2.77556e-17,0,8192,8192
266.653,2.77556e-17,0,8192,8192
266.703,2.77556e-17,0,8192,8192
266.752,2.77556e-17,0,8192,8192
266.802,2.77556e-17,0,8192,8192
266.852,2.77556e-17,0,8192,8192
266.902,2.77556e-17,0,8192,8192
266.952,-2.77556e-17,0,8192,8192
267.001,-2.77556e-17,0,8192,8192
267.051,-2.77556e-17,0,8192,8192
267.101,-2.77556e-17,0,8192,8192
267.151,0,0,8192,8192
267.201,0,0,8192,8192
267.25,-2.77556e-17,0,8192,8192
267.3,0,0,8192,8192
267.353,-2.77556e-17,0,8192,8192
267.403,-2.77556e-17,0,8192,8192
267.453,-2.77556e-17,0,8192,8192
267.502,-2.77556e-17,0,8192,8192
267.552,-2.77556e-17,0,8192,8192
267.602,-2.77556e-17,0,8192,8192
267.652,-2.77556e-17,0,8192,8192
267.702,-2.77556e-17,0,8192,8192
267.751,0,0,8192,8192
267.801,0,0,8192,8192
267.851,0,0,8192,8192
267.901,0,0,8192,8192
267.95,0,0,8192,8192
268,0,0,8192,8192
268.05,0,0,8192,8192
268.103,0,0,8192,8192
268.153,0,0,8192,8192
268.202,0,0,8192,8192
268.252,0,0,8192,8192
268.302,0,0,8192,8192
268.352,0,0,8192,8192
268.402,0,0,8192,8192
268.451,0,0,8192,8192
268.501,0,0,8192,8192
268.551,0,0,8192,8192
268.601,0,0,8192,8192
268.651,0,0,8192,8192
268.7,0,0,8192,8192
268.75,0,0,8192,8192
268.803,0,0,8192,8192
268.853,0,0,8192,8192
268.902,0,0,8192,8192
268.952,0,0,8192,8192
269.002,0,0,8192,8192
269.052,0,0,8192,8192
269.102,0,0,8192,8192
269.151,0,0,8192,8192
269.201,0,0,8192,8192
269.251,0,0,8192,8192
269.301,0,0,8192,8192
269.351,0,0,8192,8192
269.4,0,0,8192,8192
269.45,0,0,8192,8192
269.5,0,0,8192,8192
269.553,0,0,8192,8192
269.603,0,0,8192,8192
269.65,0,0,8812,8812
269.7,0,0,9596,9596
269.751,0,0,10124,10124
269.8,0,0,10932,10932
269.85,0,0,11692,11692
269.9,0,0,12516,12516
269.951,0,0,13292,13292
270,0,0,14036,14036
270.05,0,0,14844,14844
270.1,0,0,15620,15620
270.151,0,0,16404,16404
270.2,0,0,17212,17212
270.25,0,0,18036,18036
270.301,0,0,18924,18924
270.35,0,0,19636,19636
270.4,0,0,20460,20460
270.45,0,0,21300,21300
270.501,0,0,22188,22188
270.55,0,0,22924,22924
270.6,0,0,23748,23748
270.651,0,0,24588,24588
270.701,0,0,25380,25380
270.75,0,0,26188,26188
270.8,0,0,27012,27012
270.851,0,0,27836,27836
270.9,0,0,28620,28620
270.95,0,0,29428,29428
271,0,0,30204,30204
271.051,0,0,30972,30972
271.1,0,0,31788,31788
271.15,0,0,32116,32116
271.201,0,0,32708,32708
271.25,0,0,33476,33476
271.3,0,0,34316,34316
271.35,0,0,35156,35156
271.401,0,0,35996,35996
271.45,0,0,36836,36836
271.5,0,0,37628,37628
271.551,0,0,38468,38468
271.601,0,0,39308,39308
271.65,0,0,40148,40148
271.7,0,0,40916,40916
271.751,0,0,41756,41756
271.8,0,0,42596,42596
271.85,0,0,43388,43388
271.9,0,0,44212,44212
271.951,0,0,44996,44996
272,0,0,45836,45836
272.05,0,0,46628,46628
272.101,0,0,47396,47396
272.15,0,0,48236,48236
272.2,0,0,49028,49028
272.25,0,0,49796,49796
272.301,0,0,50588,50588
272.35,0,0,51428,51428
272.4,0,0,52196,52196
272.451,0,0,52988,52988
272.501,0,0,53756,53756
272.55,0,0,54548,54548
272.6,0,0,55316,55316
272.651,0,0,56108,56108
272.7,0,0,56852,56852
272.75,0,0,57596,57596
272.8,0,0,58292,58292
272.851,0,0,59028,59028
272.9,0,0,59836,59836
272.95,0,0,60572,60572
273.001,0,0,61308,61308
273.05,0,0,61996,61996
273.1,0,0,62788,62788
273.15,0,0,63508,63508
273.201,0,0,64228,64228
273.25,0,0,64996,64996
273.3,0,0,65716,65716
273.35,0,0,66436,66436
273.401,-1.27676e-15,0,67156,67156
273.45,-3.16414e-15,0,67676,67676
273.5,-5.05151e-15,0,68276,68276
273.551,-6.96665e-15,0,68732,68732
273.6,-8.85403e-15,0,68420,68420
273.65,-1.06304e-14,0,68916,68916
273.7,-1.44051e-14,0,69508,69508
273.751,-3.64153e-14,0,70380,70380
273.8,-1.24928e-13,0,71764,71764
273.85,-4.1897e-13,0,72964,72964
273.901,-1.28153e-12,0,73628,73628
273.951,-3.42112e-12,0,74276,74276
274,-8.11703e-12,0,74996,74996
274.05,-1.71646e-11,0,75692,75692
274.101,-3.27077e-11,0,76388,76388
274.15,-5.52143e-11,0,77108,77108
274.2,-8.34633e-11,0,77828,77828
274.25,-1.12871e-10,0,78476,78476
274.301,-1.3639e-10,0,79196,79196
274.35,-1.45457e-10,0,79916,79916
274.4,-1.35528e-10,0,80588,80588
274.451,-1.06546e-10,0,81308,81308
274.5,-6.55944e-11,0,82012,82012
274.55,-2.16645e-11,0,82676,82676
274.6,1.68606e-11,0,83348,83348
274.651,4.59562e-11,0,84068,84068
274.7,6.5045e-11,0,84716,84716
274.75,7.76435e-11,0,85388,85388
274.801,8.69349e-11,0,86108,86108
274.851,9.41356e-11,0,86756,86756
274.9,9.94383e-11,0,87428,87428
274.95,1.02705e-10,0,88076,88076
275.001,1.04589e-10,0,88796,88796
275.05,1.06299e-10,0,89468,89468
275.1,1.08788e-10,0,90116,90116
275.15,1.11911e-10,0,90788,90788
275.201,1.147e-10,0,91436,91436
275.25,1.16157e-10,0,92108,92108
275.3,1.1638e-10,0,92828,92828
275.351,1.16376e-10,0,93476,93476
275.4,1.17292e-10,0,94148,94148
275.45,1.19535e-10,0,94796,94796
275.5,1.22764e-10,0,95468,95468
275.551,1.26737e-10,0,96116,96116
275.6,1.3165e-10,0,96788,96788
275.65,1.37508e-10,0,97436,97436
275.7,1.41186e-10,0,98108,98108
275.751,1.33679e-10,0,98756,98756
275.8,1.02047e-10,0,99428,99428
275.85,3.82034e-11,0,100076,100076
275.901,-4.59693e-11,0,100748,100748
275.95,-9.92925e-11,0,101396,101396
276,-4.57978e-11,0,102068,102068
276.05,1.8577e-10,0,102668,102668
276.101,6.2143e-10,0,103372,103372
276.15,3.9783e-09,0,103988,103988
276.2,1.05755e-08,0,104636,104636
276.251,1.76211e-08,0,105308,105308
276.301,2.37219e-08,0,105956,105956
276.35,2.8302e-08,0,106612,106612
276.4,3.13706e-08,0,107228,107228
276.451,3.3726e-08,0,107876,107876
276.5,3.6725e-08,0,108548,108548
276.55,4.19017e-08,0,109148,109148
276.6,5.00673e-08,0,109796,109796
276.651,6.12422e-08,0,110468,110468
276.7,7.45044e-08,0,111116,111116
276.75,8.98973e-08,0,111716,111716
276.801,1.0857e-07,0,112388,112388
276.85,1.31482e-07,0,113036,113036
276.9,1.60343e-07,0,113636,113636
276.95,1.96108e-07,0,114308,114308
277.001,2.39559e-07,0,114908,114908
277.05,2.88364e-07,0,115556,115556
277.1,3.41011e-07,0,116212,116212
277.151,3.9623e-07,0,116828,116828
277.201,4.51745e-07,0,117476,117476
277.25,5.0944e-07,0,118076,118076
277.3,5.70726e-07,0,118748,118748
277.351,6.36216e-07,0,119348,119348
277.4,7.01045e-07,0,119972,119972
277.45,7.61788e-07,0,120596,120596
277.5,8.14513e-07,0,121196,121196
277.551,8.57287e-07,0,121796,121796
277.6,8.88052e-07,0,122396,122396
277.65,9.08303e-07,0,122996,122996
277.701,9.2023e-07,0,123596,123596
277.75,9.26001e-07,0,124196,124196
277.8,9.27706e-07,0,124796,124796
277.85,9.26104e-07,0,125348,125348
277.901,9.20925e-07,0,125932,125932
277.95,9.11553e-07,0,126428,126428
278,8.96855e-07,0,126956,126956
278.051,8.75268e-07,0,127436,127436
278.101,8.46338e-07,0,127988,127988
278.15,8.09123e-07,0,128468,128468
278.2,7.63751e-07,0,128876,128876
278.251,7.10833e-07,0,129356,129356
278.3,6.54617e-07,0,129788,129788
278.35,5.97522e-07,0,130196,130196
278.4,5.42136e-07,0,130916,130916
278.451,4.89285e-07,0,131072,131072
278.5,4.41164e-07,0,131072,131072
278.55,3.96975e-07,0,131072,131072
278.601,3.5569e-07,0,131072,131072
278.65,3.17821e-07,0,131072,131072
278.7,2.82086e-07,0,131072,131072
278.75,2.48069e-07,0,131072,131072
278.801,2.15451e-07,0,131072,131072
278.85,1.86156e-07,0,131072,131072
278.9,1.61222e-07,0,131072,131072
278.95,1.41656e-07,0,131072,131072
279.001,1.26586e-07,0,131072,131072
279.05,1.14069e-07,0,131072,131072
279.1,1.01364e-07,0,131072,131072
279.151,8.73534e-08,0,131072,131072
279.2,7.34991e-08,0,131072,131072
279.25,6.14276e-08,0,131072,131072
279.3,5.23316e-08,0,131072,131072
279.351,4.61681e-08,0,131072,131072
279.4,4.22241e-08,0,131072,131072
279.45,3.90436e-08,0,131072,131072
279.501,3.52025e-08,0,131072,131072
279.551,3.0059e-08,0,131072,131072
279.6,2.39962e-08,0,131072,131072
279.65,1.84659e-08,0,131072,131072
279.701,1.49365e-08,0,131072,131072
279.75,1.40339e-08,0,131072,131072
279.8,1.50834e-08,0,131072,131072
279.85,1.70826e-08,0,131072,131072
279.901,1.93606e-08,0,131072,131072
279.95,2.16398e-08,0,131072,131072
280,2.40497e-08,0,131072,131072
280.051,2.6762e-08,0,131072,131072
280.1,2.97303e-08,0,131072,131072
280.15,3.29227e-08,0,131072,131072
280.2,3.61919e-08,0,131072,131072
280.251,3.94844e-08,0,131072,131072
280.3,4.28301e-08,0,131072,131072
280.35,4.64726e-08,0,131072,131072
280.401,5.04674e-08,0,131072,131072
280.451,5.45698e-08,0,131072,131072
280.5,5.875e-08,0,131072,131072
280.55,6.29791e-08,0,131072,131072
280.601,6.73137e-08,0,131072,131072
280.65,7.16262e-08,0,131072,131072
280.7,7.59751e-08,0,131072,131072
280.75,8.03773e-08,0,131072,131072
280.801,8.50995e-08,0,131072,131072
280.85,9.05951e-08,0,131072,131072
280.9,9.75665e-08,0,131072,131072
280.951,1.06102e-07,0,131072,131072
281,1.15143e-07,0,131072,131072
281.05,1.23818e-07,0,131072,131072
281.1,1.31485e-07,0,131072,131072
281.151,1.38156e-07,0,131072,131072
281.2,1.44139e-07,0,131072,131072
281.25,1.50422e-07,0,131072,131072
281.3,1.57951e-07,0,131072,131072
281.351,1.67557e-07,0,131072,131072
281.4,1.79248e-07,0,131072,131072
281.45,1.93203e-07,0,131072,131072
281.501,2.09855e-07,0,131072,131072
281.55,2.29268e-07,0,131072,131072
281.6,2.52544e-07,0,131072,131072
281.65,2.80619e-07,0,131072,131072
281.701,3.14643e-07,0,131072,131072
281.75,3.53609e-07,0,131072,131072
281.8,3.9722e-07,0,131072,131072
281.851,4.4494e-07,0,131072,131072
281.901,4.94152e-07,0,131072,131072
281.95,5.44838e-07,0,131072,131072
282,5.96896e-07,0,131072,131072
282.051,6.51071e-07,0,131072,131072
282.1,7.0501e-07,0,131072,131072
282.15,7.57564e-07,0,131072,131072
282.2,8.05944e-07,0,131072,131072
282.251,8.47807e-07,0,131072,131072
282.3,8.7975e-07,0,131072,131072
282.35,9.01486e-07,0,131072,131072
282.401,9.13445e-07,0,131072,131072
282.45,9.16602e-07,0,131072,131072
282.5,9.12938e-07,0,131072,131072
282.55,9.04033e-07,0,131072,131072
282.601,8.90667e-07,0,131072,131072
282.65,8.73525e-07,0,131072,131072
282.7,8.5213e-07,0,131072,131072
282.751,8.25358e-07,0,131072,131072
282.801,7.93139e-07,0,131072,131072
282.85,7.54417e-07,0,131072,131072
282.9,7.08898e-07,0,131072,131072
282.951,6.56169e-07,0,131072,131072
283,5.99016e-07,0,131072,131072
283.05,5.38711e-07,0,131072,131072
283.1,4.77601e-07,0,131072,131072
283.151,4.17021e-07,0,131072,131072
283.2,3.60384e-07,0,131072,131072
283.25,3.07719e-07,0,131072,131072
283.301,2.58622e-07,0,131072,131072
283.35,2.14314e-07,0,131072,131072
283.4,1.73604e-07,0,131072,131072
283.45,1.36024e-07,0,131072,131072
283.501,1.00827e-07,0,131072,131072
283.55,6.9162e-08,0,131072,131072
283.6,4.10166e-08,0,131072,131072
283.65,1.70302e-08,0,131072,131072
283.701,-2.76917e-09,0,131072,131072
283.75,-1.82794e-08,0,131072,131072
283.8,-3.09792e-08,0,131072,131072
283.851,-4.23187e-08,0,131072,131072
283.9,-5.27224e-08,0,131072,131072
283.95,-6.2261e-08,0,131072,131072
284,-7.02647e-08,0,131072,131072
284.051,-7.61404e-08,0,131072,131072
284.1,-7.95389e-08,0,131072,131072
284.15,-8.09974e-08,0,131072,131072
284.201,-8.13627e-08,0,131072,131072
284.251,-8.15118e-08,0,131072,131072
284.3,-8.19662e-08,0,131072,131072
284.35,-8.26483e-08,0,131072,131072
284.401,-8.29836e-08,0,131072,131072
284.45,-8.22689e-08,0,131072,131072
284.5,-8.01433e-08,0,131072,131072
284.55,-7.67294e-08,0,131072,131072
284.601,-7.2435e-08,0,131072,131072
284.65,-6.79206e-08,0,131072,131072
284.7,-6.3494e-08,0,131072,131072
284.751,-5.92574e-08,0,131072,131072
284.8,-5.53703e-08,0,131072,131072
284.85,-5.17799e-08,0,131072,131072
284.9,-4.85204e-08,0,131072,131072
284.951,-4.5597e-08,0,131072,131072
285,-4.31055e-08,0,131072,131072
285.05,-4.09534e-08,0,131072,131072
285.101,-3.90377e-08,0,131072,131072
285.151,-3.73594e-08,0,131072,131072
285.2,-3.58794e-08,0,131072,131072
285.25,-3.46115e-08,0,131072,131072
285.301,-3.3551e-08,0,131072,131072
285.35,-3.27221e-08,0,131072,131072
285.4,-3.20897e-08,0,131072,131072
285.45,-3.16316e-08,0,131072,131072
285.501,-3.13219e-08,0,131072,131072
285.55,-3.11484e-08,0,131072,131072
285.6,-3.10862e-08,0,131072,131072
285.651,-3.11178e-08,0,131072,131072
285.7,-3.12235e-08,0,131072,131072
285.75,-3.13853e-08,0,131072,131072
285.8,-3.15866e-08,0,131072,131072
285.851,-3.18181e-08,0,131072,131072
285.9,-3.20641e-08,0,131072,131072
285.95,-3.23228e-08,0,131072,131072
286,-3.25909e-08,0,131072,131072
286.051,-3.28688e-08,0,131072,131072
286.1,-3.31429e-08,0,131072,131072
286.15,-3.34106e-08,0,131072,131072
286.201,-3.36697e-08,0,131072,131072
286.25,-3.39088e-08,0,131072,131072
286.3,-3.41308e-08,0,131072,131072
286.35,-3.43372e-08,0,131072,131072
286.401,-3.45325e-08,0,131072,131072
286.45,-3.47119e-08,0,131072,131072
286.5,-3.4877e-08,0,131072,131072
286.551,-3.50266e-08,0,131072,131072
286.6,-3.51531e-08,0,131072,131072
286.65,-3.52562e-08,0,131072,131072
286.7,-3.5335e-08,0,131072,131072
286.751,-3.5391e-08,0,131072,131072
286.8,-3.54237e-08,0,131072,131072
286.85,-3.54359e-08,0,131072,131072
286.9,-3.54291e-08,0,131072,131072
286.951,-3.54047e-08,0,131072,131072
287,-3.53655e-08,0,131072,131072
287.05,-3.53139e-08,0,131072,131072
287.101,-3.52517e-08,0,131072,131072
287.15,-3.51832e-08,0,131072,131072
287.2,-3.51097e-08,0,131072,131072
287.25,-3.50328e-08,0,131072,131072
287.301,-3.49529e-08,0,131072,131072
287.35,-3.48736e-08,0,131072,131072
287.4,-3.47948e-08,0,131072,131072
287.451,-3.47166e-08,0,131072,131072
287.501,-3.46424e-08,0,131072,131072
287.55,-3.45718e-08,0,131072,131072
287.6,-3.45057e-08,0,131072,131072
287.651,-3.44438e-08,0,131072,131072
287.7,-3.43885e-08,0,131072,131072
287.75,-3.43393e-08,0,131072,131072
287.8,-3.42965e-08,0,131072,131072
287.851,-3.42599e-08,0,131072,131072
287.9,-3.42307e-08,0,131072,131072
287.95,-3.42084e-08,0,131072,131072
288.001,-3.41927e-08,0,131072,131072
288.05,-3.41842e-08,0,131072,131072
288.1,-3.41825e-08,0,131072,131072
288.15,-3.41879e-08,0,131072,131072
288.201,-3.42007e-08,0,131072,131072
288.25,-3.42209e-08,0,131072,131072
288.3,-3.42488e-08,0,131072,131072
288.351,-3.42851e-08,0,131072,131072
288.401,-3.43283e-08,0,131072,131072
288.45,-3.43785e-08,0,131072,131072
288.5,-3.4435e-08,0,131072,131072
288.551,-3.44985e-08,0,131072,131072
288.6,-3.4567e-08,0,131072,131072
288.65,-3.46415e-08,0,131072,131072
288.7,-3.47228e-08,0,131072,131072
288.751,-3.4813e-08,0,131072,131072
288.8,-3.49107e-08,0,131072,131072
288.85,-3.50184e-08,0,131072,131072
288.901,-3.51395e-08,0,131072,131072
288.95,-3.52726e-08,0,131072,131072
289,-3.54214e-08,0,131072,131072
289.05,-3.55883e-08,0,131072,131072
289.101,-3.57787e-08,0,131072,131072
289.15,-3.59889e-08,0,131072,131072
289.2,-3.62233e-08,0,131072,131072
289.251,-3.64868e-08,0,131072,131072
289.301,-3.67723e-08,0,131072,131072
289.35,-3.70837e-08,0,131072,131072
289.4,-3.74205e-08,0,131072,131072
289.451,-3.77873e-08,0,131072,131072
289.5,-3.81715e-08,0,131072,131072
289.55,-3.8575e-08,0,131072,131072
289.6,-3.89936e-08,0,131072,131072
289.651,-3.94284e-08,0,131072,131072
289.7,-3.98609e-08,0,131072,131072
289.75,-4.02915e-08,0,131072,131072
289.801,-4.07211e-08,0,131072,131072
289.85,-4.11325e-08,0,131072,131072
289.9,-4.1528e-08,0,131072,131072
289.95,-4.19045e-08,0,131072,131072
290.001,-4.2264e-08,0,131072,131072
290.05,-4.25928e-08,0,131072,131072
290.1,-4.28929e-08,0,131072,131072
290.15,-4.31605e-08,0,131072,131072
290.201,-4.33949e-08,0,131072,131072
290.25,-4.35854e-08,0,131072,131072
290.3,-4.37328e-08,0,131072,131072
290.351,-4.38362e-08,0,131072,131072
290.4,-4.38917e-08,0,131072,131072
290.45,-4.39012e-08,0,131072,131072
290.5,-4.38655e-08,0,131072,131072
290.551,-4.37843e-08,0,131072,131072
290.6,-4.36615e-08,0,131072,131072
290.65,-4.34976e-08,0,131072,131072
290.701,-4.32905e-08,0,131072,131072
290.751,-4.30471e-08,0,131072,131072
290.8,-4.27648e-08,0,131072,131072
290.85,-4.24433e-08,0,131072,131072
290.901,-4.20764e-08,0,131072,131072
290.95,-4.16736e-08,0,131072,131072
291,-4.12289e-08,0,131072,131072
291.05,-4.07416e-08,0,131072,131072
291.101,-4.02031e-08,0,131072,131072
291.15,-3.96289e-08,0,131072,131072
291.2,-3.90114e-08,0,131072,131072
291.251,-3.83407e-08,0,131072,131072
291.3,-3.76367e-08,0,131072,131072
291.35,-3.68913e-08,0,131072,131072
291.4,-3.61071e-08,0,131072,131072
291.451,-3.52758e-08,0,131072,131072
291.5,-3.4427e-08,0,131072,131072
291.55,-3.35557e-08,0,131072,131072
291.601,-3.26559e-08,0,131072,131072
291.651,-3.1761e-08,0,131072,131072
291.7,-3.08648e-08,0,131072,131072
291.75,-2.99732e-08,0,131072,131072
291.801,-2.90787e-08,0,131072,131072
291.85,-2.82117e-08,0,131072,131072
291.9,-2.73635e-08,0,131072,131072
291.95,-2.65379e-08,0,131072,131072
292.001,-2.57275e-08,0,131072,131072
292.05,-2.49601e-08,0,131072,131072
292.1,-2.42279e-08,0,131072,131072
292.151,-2.35254e-08,0,131072,131072
292.2,-2.28772e-08,0,131072,131072
292.25,-2.22759e-08,0,131072,131072
292.3,-2.17237e-08,0,131072,131072
292.351,-2.12144e-08,0,131072,131072
292.4,-2.0762e-08,0,131072,131072
292.45,-2.03569e-08,0,131072,131072
292.5,-1.99964e-08,0,131072,131072
292.551,-1.9673e-08,0,131072,131072
292.6,-1.93926e-08,0,131072,131072
292.65,-1.91471e-08,0,131072,131072
292.701,-1.89305e-08,0,131072,131072
292.75,-1.87462e-08,0,131072,131072
292.8,-1.85879e-08,0,131072,131072
292.85,-1.84526e-08,0,131072,131072
292.901,-1.83356e-08,0,131072,131072
292.95,-1.8237e-08,0,131072,131072
293,-1.8152e-08,0,131072,131072
293.051,-1.80772e-08,0,131072,131072
293.101,-1.80126e-08,0,131072,131072
293.15,-1.79558e-08,0,131072,131072
293.2,-1.79052e-08,0,131072,131072
293.251,-1.78588e-08,0,131072,131072
293.3,-1.78162e-08,0,131072,131072
293.35,-1.77754e-08,0,131072,131072
293.4,-1.77351e-08,0,131072,131072
293.451,-1.76943e-08,0,131072,131072
293.5,-1.76541e-08,0,131072,131072
293.55,-1.76136e-08,0,131072,131072
293.601,-1.75715e-08,0,131072,131072
293.65,-1.7528e-08,0,131072,131072
293.7,-1.74808e-08,0,131072,131072
293.75,-1.74284e-08,0,131072,131072
293.801,-1.73688e-08,0,131072,131072
293.85,-1.73028e-08,0,131072,131072
293.9,-1.72291e-08,0,131072,131072
293.951,-1.71462e-08,0,131072,131072
294.001,-1.70561e-08,0,131072,131072
294.05,-1.69572e-08,0,131072,131072
294.1,-1.68493e-08,0,131072,131072
294.151,-1.67306e-08,0,131072,131072
294.2,-1.66053e-08,0,131072,131072
294.25,-1.64726e-08,0,131072,131072
294.3,-1.63335e-08,0,131072,131072
294.351,-1.61865e-08,0,131072,131072
294.4,-1.60362e-08,0,131072,131072
294.45,-1.58804e-08,0,129792,129792
294.501,-1.57168e-08,0,130368,130368
294.55,-1.55508e-08,0,130464,130464
294.6,-1.5381e-08,0,130512,130512
294.65,-1.5209e-08,0,130464,130464
294.701,-1.5033e-08,0,130464,130464
294.75,-1.48583e-08,0,130464,130464
294.8,-1.46811e-08,0,130432,130432
294.85,-1.44994e-08,0,130368,130368
294.901,-1.43083e-08,0,130272,130272
294.95,-1.41114e-08,0,130272,130272
295,-1.3905e-08,0,130272,130272
295.051,-1.36859e-08,0,130272,130272
295.1,-1.34614e-08,0,130184,130184
295.15,-1.32299e-08,0,130136,130136
295.2,-1.29928e-08,0,130088,130088
295.251,-1.27473e-08,0,130016,130016
295.3,-1.25003e-08,0,130032,130032
295.35,-1.22474e-08,0,129952,129952
295.401,-1.19825e-08,0,129936,129936
295.451,-1.17108e-08,0,129888,129888
295.5,-1.14252e-08,0,129888,129888
295.55,-1.11226e-08,0,129848,129848
295.601,-1.0795e-08,0,129840,129840
295.65,-1.04492e-08,0,129824,129824
295.7,-1.00785e-08,0,129808,129808
295.75,-9.68103e-09,0,129784,129784
295.801,-9.24872e-09,0,129784,129784
295.85,-8.79273e-09,0,129712,129712
295.9,-8.30579e-09,0,129720,129720
295.951,-7.77892e-09,0,129664,129664
296,-7.22652e-09,0,129648,129648
296.05,-6.64088e-09,0,129600,129600
296.1,-6.02258e-09,0,129592,129592
296.151,-5.36391e-09,0,129656,129656
296.2,-4.68768e-09,0,129600,129600
296.25,-3.98973e-09,0,129600,129600
296.301,-3.26557e-09,0,129600,129600
296.351,-2.5404e-09,0,129552,129552
296.4,-1.79092e-09,0,129536,129536
296.45,-1.00094e-09,0,129552,129552
296.501,-8.29362e-12,0,129536,129536
296.55,3.93088e-10,0,129536,129536
296.6,7.60249e-10,0,129488,129488
296.65,1.49279e-09,0,129488,129488
296.701,2.3294e-09,0,129488,129488
296.75,2.9409e-09,0,129464,129464
296.8,3.51624e-09,0,129456,129456
296.851,4.06421e-09,0,129456,129456
296.9,4.56475e-09,0,129488,129488
296.95,5.02356e-09,0,129424,129424
297,5.43761e-09,0,129440,129440
297.051,5.80866e-09,0,129424,129424
297.1,6.12482e-09,0,129440,129440
297.15,6.39244e-09,0,129392,129392
297.2,6.61326e-09,0,129392,129392
297.251,6.79207e-09,0,129400,129400
297.3,6.92698e-09,0,129384,129384
297.35,7.02436e-09,0,129344,129344
297.401,7.08842e-09,0,129336,129336
297.45,7.12066e-09,0,129328,129328
297.5,7.12535e-09,0,129264,129264
297.55,7.10573e-09,0,129256,129256
297.601,7.06426e-09,0,129248,129248
297.65,7.00525e-09,0,129200,129200
297.7,6.93137e-09,0,129224,129224
297.751,6.84414e-09,0,129224,129224
297.801,6.74859e-09,0,129200,129200
297.85,6.64572e-09,0,129224,129224
297.9,6.53723e-09,0,129224,129224
297.951,6.42272e-09,0,129224,129224
298,6.30819e-09,0,129200,129200
298.05,6.19384e-09,0,129272,129272
298.1,6.08102e-09,0,129320,129320
298.151,5.96579e-09,0,129272,129272
298.2,5.85508e-09,0,129344,129344
298.25,5.74827e-09,0,129392,129392
298.301,5.6425e-09,0,129448,129448
298.35,5.54171e-09,0,129432,129432
298.4,5.44486e-09,0,129448,129448
298.45,5.35355e-09,0,129512,129512
298.501,5.26883e-09,0,129512,129512
298.55,5.19212e-09,0,129552,129552
298.6,5.12169e-09,0,129560,129560
298.651,5.05769e-09,0,129584,129584
298.701,5.00207e-09,0,129560,129560
298.75,4.954e-09,0,129584,129584
298.8,4.91263e-09,0,129560,129560
298.851,4.87703e-09,0,129584,129584
298.9,4.848e-09,0,129512,129512
298.95,4.82388e-09,0,129536,129536
299,4.80308e-09,0,129520,129520
299.051,4.78418e-09,0,129480,129480
299.1,4.76705e-09,0,129512,129512
299.15,4.75086e-09,0,129464,129464
299.201,4.73473e-09,0,129512,129512
299.25,4.71848e-09,0,129440,129440
299.3,4.70095e-09,0,129440,129440
299.35,4.68124e-09,0,129464,129464
299.401,4.65803e-09,0,129464,129464
299.45,4.63128e-09,0,129448,129448
299.5,4.60051e-09,0,129392,129392
299.551,4.56562e-09,0,129392,129392
299.601,4.52934e-09,0,129392,129392
299.65,4.49288e-09,0,129392,129392
299.7,4.4572e-09,0,129344,129344
299.751,4.42207e-09,0,129368,129368
299.8,4.38853e-09,0,129312,129312
299.85,4.35588e-09,0,129296,129296
299.9,4.32379e-09,0,129272,129272
299.951,4.29111e-09,0,129288,129288
300,4.25814e-09,0,129272,129272
300.05,4.22417e-09,0,129224,129224
300.101,4.18896e-09,0,129168,129168
300.15,4.15405e-09,0,129208,129208
300.2,4.11969e-09,0,129176,129176
300.25,4.08703e-09,0,129152,129152
300.301,4.0568e-09,0,129152,129152
300.35,4.03057e-09,0,129088,129088
300.4,4.00794e-09,0,129048,129048
300.45,3.98813e-09,0,129088,129088
300.501,3.96972e-09,0,129080,129080
300.55,3.95247e-09,0,129032,129032
300.6,3.93559e-09,0,129032,129032
300.651,3.91847e-09,0,128984,128984
300.7,3.90135e-09,0,128984,128984
300.75,3.88388e-09,0,128912,128912
300.8,3.86626e-09,0,128912,128912
300.851,3.84828e-09,0,128888,128888
300.9,3.83044e-09,0,128840,128840
300.95,3.81221e-09,0,128800,128800
301.001,3.79296e-09,0,128816,128816
301.051,3.77296e-09,0,128760,128760
301.1,3.75201e-09,0,128744,128744
301.15,3.73e-09,0,128672,128672
301.201,3.70676e-09,0,128640,128640
301.25,3.68381e-09,0,128576,128576
301.3,3.66093e-09,0,128560,128560
301.35,3.6379e-09,0,128480,128480
301.401,3.61407e-09,0,128432,128432
301.45,3.5899e-09,0,128432,128432
301.5,3.565e-09,0,128432,128432
301.551,3.53915e-09,0,128400,128400
301.6,3.51343e-09,0,128336,128336
301.65,3.48773e-09,0,128336,128336
301.7,3.46219e-09,0,128312,128312
301.751,3.4364e-09,0,128280,128280
301.8,3.41086e-09,0,128264,128264
301.85,3.38495e-09,0,128264,128264
301.901,3.35805e-09,0,128264,128264
301.951,3.33087e-09,0,128232,128232
302,3.3031e-09,0,128216,128216
302.05,3.27481e-09,0,128200,128200
302.101,3.24574e-09,0,128160,128160
302.15,3.21681e-09,0,128144,128144
302.2,3.18767e-09,0,128144,128144
302.25,3.15837e-09,0,128128,128128
302.301,3.1285e-09,0,128112,128112
302.35,3.09896e-09,0,128080,128080
302.4,3.06934e-09,0,128008,128008
302.451,3.03918e-09,0,128040,128040
302.5,3.00934e-09,0,127952,127952
302.55,2.97936e-09,0,127952,127952
302.6,2.94921e-09,0,127952,127952
302.651,2.91838e-09,0,128008,128008
302.7,2.8878e-09,0,127952,127952
302.75,2.85713e-09,0,127920,127920
302.8,2.82648e-09,0,127904,127904
302.851,2.79528e-09,0,127944,127944
302.9,2.76432e-09,0,127880,127880
302.95,2.73324e-09,0,128036,128036
303.001,2.70164e-09,0,128948,128948
303.05,2.67031e-09,0,129772,129772
303.1,2.63857e-09,0,130556,130556
303.15,2.60626e-09,0,131072,131072
303.201,2.57301e-09,0,131072,131072
303.25,2.53989e-09,0,131072,131072
303.3,2.50646e-09,0,131072,131072
303.351,2.47212e-09,0,131072,131072
303.401,2.43761e-09,0,131072,131072
303.45,2.4024e-09,0,131072,131072
303.5,2.36665e-09,0,131072,131072
303.551,2.32986e-09,0,131072,131072
303.6,2.29303e-09,0,131072,131072
303.65,2.25557e-09,0,131072,131072
303.7,2.21747e-09,0,131072,131072
303.751,2.17821e-09,0,131072,131072
303.8,2.13893e-09,0,131072,131072
303.85,2.09908e-09,0,131072,131072
303.901,2.05811e-09,0,131072,131072
303.95,2.01731e-09,0,131072,131072
304,1.9761e-09,0,131072,131072
304.05,1.93449e-09,0,131072,131072
304.101,1.89186e-09,0,131072,131072
304.15,1.84949e-09,0,131072,131072
304.2,1.80685e-09,0,131072,131072
304.251,1.76338e-09,0,131072,131072
304.301,1.72041e-09,0,131072,131072
304.35,1.67737e-09,0,131072,131072
304.4,1.63431e-09,0,131072,131072
304.451,1.5907e-09,0,131072,131072
304.5,1.54786e-09,0,131072,131072
304.55,1.50524e-09,0,131072,131072
304.6,1.46289e-09,0,131072,131072
304.651,1.42024e-09,0,131072,131072
304.7,1.37861e-09,0,131072,131072
304.75,1.33738e-09,0,131072,131072
304.801,1.29604e-09,0,131072,131072
304.85,1.25585e-09,0,131072,131072
304.9,1.21622e-09,0,131072,131072
304.95,1.17719e-09,0,131072,131072
