250,0,0,512,512
250.012,0,0,512,512
250.059,0,0,512,512
250.105,0,0,512,512
250.152,0,0,512,512
250.211,0,0,512,512
250.258,0,0,512,512
250.305,0,0,512,512
250.352,0,0,512,512
250.41,0,0,512,512
250.457,0,0,512,512
250.504,0,0,512,512
250.551,0,0,512,512
250.609,0,0,512,512
250.656,0,0,512,512
250.703,0,0,512,512
250.762,0,0,512,512
250.808,0,0,512,512
250.855,0,0,512,512
250.902,0,0,512,512
250.961,0,0,512,512
251.008,0,0,512,512
251.055,0,0,512,512
251.101,0,0,512,512
251.16,0,0,512,512
251.207,0,0,512,512
251.254,0,0,512,512
251.301,0,0,512,512
251.359,0,0,512,512
251.406,0,0,512,512
251.453,0,0,512,512
251.511,0,0,512,512
251.558,0,0,512,512
251.605,0,0,512,512
251.652,0,0,512,512
251.711,0,0,512,512
251.758,0,0,512,512
251.804,0,0,512,512
251.851,0,0,512,512
251.91,0,0,512,512
251.957,0,0,512,512
252.004,0,0,512,512
252.05,0,0,512,512
252.109,0,0,512,512
252.156,0,0,512,512
252.203,0,0,512,512
252.261,0,0,512,512
252.308,0,0,512,512
252.355,0,0,512,512
252.402,0,0,512,512
252.461,0,0,512,512
252.507,0,0,512,512
252.554,0,0,512,512
252.601,0,0,512,512
252.66,0,0,512,512
252.707,0,0,512,512
252.754,0,0,512,512
252.8,0,0,512,512
252.859,0,0,512,512
252.906,0,0,512,512
252.953,0,0,512,512
253.011,0,0,512,512
253.058,0,0,512,512
253.105,0,0,512,512
253.152,0,0,512,512
253.21,0,0,512,512
253.257,0,0,512,512
253.304,0,0,512,512
253.351,0,0,512,512
253.41,0,0,512,512
253.457,0,0,512,512
253.503,0,0,512,512
253.55,0,0,512,512
253.609,0,0,512,512
253.656,0,0,512,512
253.703,0,0,512,512
253.761,0,0,512,512
253.808,0,0,512,512
253.855,0,0,512,512
253.902,0,0,512,512
253.96,0,0,512,512
254.007,0,0,512,512
254.054,0,0,512,512
254.101,0,0,512,512
254.16,0,0,512,512
254.206,0,0,512,512
254.253,0,0,512,512
254.3,0,0,512,512
254.359,0,0,512,512
254.406,0,0,512,512
254.452,0,0,512,512
254.511,0,0,512,512
254.558,0,0,512,512
254.605,0,0,512,512
254.652,0,0,512,512
254.71,0,0,512,512
254.757,0,0,512,512
254.804,0,0,512,512
254.851,0,0,512,512
254.909,0,0,512,512
254.956,0,0,512,512
255.003,0,0,512,512
255.05,0,0,512,512
255.109,0,0,512,512
255.155,0,0,512,512
255.202,0,0,512,512
255.261,0,0,512,512
255.308,0,0,512,512
255.355,0,0,512,512
255.402,0,0,512,512
255.46,0,0,512,512
255.507,0,0,512,512
255.554,0,0,512,512
255.601,0,0,512,512
255.659,0,0,512,512
255.706,0,0,512,512
255.753,0,0,512,512
255.812,0,0,512,512
255.859,0,0,512,512
255.905,0,0,512,512
255.952,0,0,512,512
256.011,0,0,512,512
256.058,0,0,512,512
256.105,0,0,512,512
256.151,0,0,512,512
256.21,0,0,512,512
256.257,0,0,512,512
256.304,0,0,512,512
256.351,0,0,512,512
256.409,0,0,512,512
256.456,0,0,512,512
256.503,0,0,512,512
256.562,0,0,512,512
256.608,0,0,512,512
256.655,0,0,512,512
256.702,0,0,512,512
256.761,0,0,512,512
256.808,0,0,512,512
256.854,0,0,512,512
256.901,0,0,512,512
256.96,0,0,512,512
257.007,0,0,512,512
257.054,0,0,512,512
257.101,0,0,512,512
257.159,0,0,512,512
257.206,0,0,512,512
257.253,0,0,512,512
257.311,0,0,512,512
257.358,0,0,512,512
257.405,0,0,512,512
257.452,0,0,512,512
257.511,0,0,512,512
257.557,0,0,512,512
257.604,0,0,512,512
257.651,0,0,512,512
257.71,0,0,512,512
257.757,0,0,512,512
257.804,0,0,512,512
257.85,0,0,512,512
257.909,0,0,512,512
257.956,0,0,512,512
258.003,0,0,512,512
258.061,0,0,512,512
258.108,0,0,512,512
258.155,0,0,512,512
258.202,0,0,512,512
258.261,0,0,512,512
258.307,0,0,512,512
258.354,0,0,512,512
258.401,0,0,512,512
258.46,0,0,512,512
258.507,0,0,512,512
258.553,0,0,512,512
258.6,0,0,512,512
258.659,0,0,512,512
258.706,0,0,512,512
258.753,0,0,512,512
258.811,0,0,512,512
258.858,0,0,512,512
258.905,0,0,512,512
258.952,0,0,512,512
259.01,0,0,512,512
259.057,0,0,512,512
259.104,0,0,512,512
259.151,0,0,512,512
259.21,0,0,512,512
259.256,0,0,512,512
259.303,0,0,512,512
259.35,0,0,512,512
259.409,0,0,512,512
259.456,0,0,512,512
259.503,0,0,512,512
259.561,0,0,512,512
259.608,0,0,512,512
259.655,0,0,512,512
259.702,0,0,512,512
259.76,0,0,512,512
259.807,0,0,512,512
259.854,0,0,512,512
259.901,0,0,512,512
259.959,0,0,512,512
260.006,0,0,512,512
260.053,0,0,512,512
260.1,0,0,512,512
260.159,0,0,512,512
260.206,0,0,512,512
260.252,-5.55112e-17,0,512,512
260.311,-5.55112e-17,0,512,512
260.358,-5.55112e-17,0,512,512
260.405,-5.55112e-17,0,512,512
260.452,-5.55112e-17,0,512,512
260.51,-2.77556e-17,0,512,512
260.557,-2.77556e-17,0,512,512
260.604,-2.77556e-17,0,512,512
260.651,-2.77556e-17,0,512,512
260.709,-2.77556e-17,0,512,512
260.756,-2.77556e-17,0,512,512
260.803,-2.77556e-17,0,512,512
260.862,-2.77556e-17,0,512,512
260.909,-2.77556e-17,0,512,512
260.955,-2.77556e-17,0,512,512
261.002,-2.77556e-17,0,512,512
261.061,-2.77556e-17,0,512,512
261.108,-2.77556e-17,0,512,512
261.155,-2.77556e-17,0,512,512
261.201,-2.77556e-17,0,512,512
261.26,0,0,512,512
261.307,0,0,512,512
261.354,0,0,512,512
261.401,0,0,512,512
261.459,0,0,512,512
261.506,0,0,512,512
261.553,0,0,512,512
261.612,2.77556e-17,0,512,512
261.658,2.77556e-17,0,512,512
261.705,2.77556e-17,0,512,512
261.752,2.77556e-17,0,512,512
261.811,2.77556e-17,0,512,512
261.858,2.77556e-17,0,512,512
261.905,2.77556e-17,0,512,512
261.951,2.77556e-17,0,512,512
262.01,5.55112e-17,0,512,512
262.057,5.55112e-17,0,512,512
262.104,5.55112e-17,0,512,512
262.151,5.55112e-17,0,512,512
262.209,5.55112e-17,0,512,512
262.256,2.77556e-17,0,512,512
262.303,2.77556e-17,0,512,512
262.361,2.77556e-17,0,512,512
262.408,2.77556e-17,0,512,512
262.455,5.55112e-17,0,512,512
262.502,5.55112e-17,0,512,512
262.561,5.55112e-17,0,512,512
262.608,5.55112e-17,0,512,512
262.654,5.55112e-17,0,512,512
262.701,5.55112e-17,0,512,512
262.76,5.55112e-17,0,512,512
262.807,5.55112e-17,0,512,512
262.854,5.55112e-17,0,512,512
262.9,5.55112e-17,0,512,512
262.959,5.55112e-17,0,512,512
263.006,5.55112e-17,0,512,512
263.053,5.55112e-17,0,512,512
263.111,5.55112e-17,0,512,512
263.158,2.77556e-17,0,512,512
263.205,2.77556e-17,0,512,512
263.252,5.55112e-17,0,512,512
263.311,2.77556e-17,0,512,512
263.357,0,0,512,512
263.404,0,0,512,512
263.451,0,0,512,512
263.51,0,0,512,512
263.557,0,0,512,512
263.603,0,0,512,512
263.65,0,0,512,512
263.709,0,0,512,512
263.756,0,0,512,512
263.803,0,0,512,512
263.861,0,0,512,512
263.908,0,0,512,512
263.955,0,0,512,512
264.002,0,0,512,512
264.06,0,0,512,512
264.107,0,0,512,512
264.154,0,0,512,512
264.201,0,0,512,512
264.26,0,0,512,512
264.306,0,0,512,512
264.353,0,0,512,512
264.4,2.77556e-17,0,512,512
264.459,2.77556e-17,0,512,512
264.506,2.77556e-17,0,512,512
264.553,0,0,512,512
264.611,0,0,512,512
264.658,0,0,512,512
264.705,0,0,512,512
264.752,0,0,512,512
264.81,0,0,512,512
264.857,0,0,512,512
264.904,0,0,512,512
264.951,0,0,512,512
265.01,0,0,512,512
265.056,0,0,512,512
265.103,0,0,512,512
265.15,0,0,512,512
265.209,0,0,512,512
265.256,0,0,512,512
265.302,0,0,512,512
265.361,0,0,512,512
265.408,0,0,512,512
265.455,0,0,512,512
265.502,0,0,512,512
265.56,0,0,512,512
265.607,0,0,512,512
265.654,0,0,512,512
265.701,0,0,512,512
265.759,0,0,512,512
265.806,0,0,512,512
265.853,0,0,512,512
265.9,0,0,512,512
265.959,0,0,512,512
266.005,0,0,512,512
266.052,0,0,512,512
266.111,0,0,512,512
266.158,0,0,512,512
266.205,0,0,512,512
266.252,0,0,512,512
266.31,0,0,512,512
266.357,0,0,512,512
266.404,0,0,512,512
266.451,0,0,512,512
266.509,0,0,512,512
266.556,0,0,512,512
266.603,0,0,512,512
266.662,0,0,512,512
266.708,0,0,512,512
266.755,0,0,512,512
266.802,0,0,512,512
266.861,0,0,512,512
266.908,0,0,512,512
266.955,0,0,512,512
267.001,0,0,512,512
267.06,0,0,512,512
267.107,0,0,512,512
267.154,0,0,512,512
267.201,0,0,512,512
267.259,0,0,512,512
267.306,0,0,512,512
267.353,0,0,512,512
267.412,0,0,512,512
267.458,0,0,512,512
267.505,0,0,512,512
267.552,0,0,512,512
267.611,0,0,512,512
267.658,0,0,512,512
267.704,0,0,512,512
267.751,0,0,512,512
267.81,0,0,512,512
267.857,0,0,512,512
267.904,0,0,512,512
267.95,0,0,512,512
268.009,0,0,512,512
268.056,0,0,512,512
268.1,0,0,1487,1487
268.151,0,0,2137,2137
268.2,0,0,2751,2751
268.25,0,0,3571,3571
268.301,0,0,4479,4479
268.35,0,0,5083,5083
268.4,0,0,5595,5595
268.45,0,0,6425,6425
268.501,0,0,7231,7231
268.55,0,0,7703,7703
268.6,0,0,8499,8499
268.65,0,0,9219,9219
268.701,0,0,9669,9669
268.75,0,0,10413,10413
268.8,0,0,11127,11127
268.851,0,0,11477,11477
268.9,0,0,11977,11977
268.95,0,0,12605,12605
269,0,0,12865,12865
269.051,0,0,13149,13149
269.1,0,0,13843,13843
269.15,0,0,14213,14213
269.201,0,0,14279,14279
269.251,0,0,14681,14681
269.3,0,0,15185,15185
269.35,0,0,15691,15691
269.401,0,0,15999,15999
269.45,0,0,16823,16823
269.5,0,0,17657,17657
269.55,0,0,18203,18203
269.601,0,0,18989,18989
269.65,0,0,19767,19767
269.7,0,0,20499,20499
269.751,0,0,21233,21233
269.8,0,0,22163,22163
269.85,0,0,22891,22891
269.9,0,0,23573,23573
269.951,0,0,24297,24297
270,0,0,25145,25145
270.05,0,0,25865,25865
270.101,0,0,26735,26735
270.151,0,0,27373,27373
270.2,0,0,28257,28257
270.25,0,0,28951,28951
270.301,0,0,29767,29767
270.35,0,0,30589,30589
270.4,0,0,31361,31361
270.45,0,0,32021,32021
270.501,0,0,32861,32861
270.55,0,0,33649,33649
270.6,0,0,34437,34437
270.651,0,0,35235,35235
270.7,0,0,35821,35821
270.75,0,0,36595,36595
270.8,0,0,37411,37411
270.851,0,0,38267,38267
270.9,0,0,39047,39047
270.95,0,0,39951,39951
271,0,0,40805,40805
271.051,0,0,41541,41541
271.1,0,0,42447,42447
271.15,0,0,43209,43209
271.201,0,0,43889,43889
271.25,0,0,44787,44787
271.3,0,0,45535,45535
271.35,0,0,46311,46311
271.401,0,0,47095,47095
271.45,0,0,47813,47813
271.5,9.4369e-16,0,48549,48549
271.551,2.69229e-15,0,49371,49371
271.6,4.57967e-15,0,50057,50057
271.65,6.46705e-15,0,50809,50809
271.7,8.35443e-15,0,51487,51487
271.751,1.02418e-14,0,52345,52345
271.8,1.21292e-14,0,53087,53087
271.85,1.40166e-14,0,53839,53839
271.9,1.59039e-14,0,54459,54459
271.951,1.78191e-14,0,55369,55369
272,1.97065e-14,0,56041,56041
272.05,2.16771e-14,0,56727,56727
272.101,2.52853e-14,0,57571,57571
272.15,3.03924e-14,0,58191,58191
272.2,3.59712e-14,0,58895,58895
272.25,4.11893e-14,0,59583,59583
272.301,4.17444e-14,0,60315,60315
272.35,2.86993e-14,0,60921,60921
272.4,-1.30174e-14,0,61769,61769
272.451,-1.09579e-13,0,62437,62437
272.501,-2.93987e-13,0,63157,63157
272.55,-6.15202e-13,0,63865,63865
272.6,-1.13504e-12,0,64615,64615
272.651,-1.94134e-12,0,65301,65301
272.7,-3.09452e-12,0,66035,66035
272.75,-4.68806e-12,0,66617,66617
272.8,-6.75598e-12,0,67493,67493
272.851,-1.20284e-11,0,68145,68145
272.9,-2.12584e-11,0,68761,68761
272.95,-4.70384e-11,0,69405,69405
273.001,-9.58744e-11,0,70103,70103
273.05,-2.26492e-10,0,70743,70743
273.1,-4.11031e-10,0,71323,71323
273.15,-4.25518e-10,0,71853,71853
273.201,-2.338e-10,0,72529,72529
273.25,1.55409e-10,0,73163,73163
273.3,3.08889e-10,0,73901,73901
273.351,2.72975e-10,0,74603,74603
273.401,1.5235e-10,0,75257,75257
273.45,-7.41685e-11,0,75871,75871
273.5,-7.72809e-11,0,76529,76529
273.551,2.07813e-11,0,77207,77207
273.6,2.15749e-10,0,77841,77841
273.65,2.42164e-10,0,78601,78601
273.7,1.71535e-10,0,78539,78539
273.751,4.94565e-11,0,78499,78499
273.8,8.43453e-12,0,79041,79041
273.85,5.18836e-11,0,79885,79885
273.901,1.3267e-10,0,80621,80621
273.95,1.74506e-10,0,81057,81057
274,1.54606e-10,0,81889,81889
274.05,1.13528e-10,0,82803,82803
274.101,7.55621e-11,0,84181,84181
274.15,7.79793e-11,0,84761,84761
274.2,1.09775e-10,0,85417,85417
274.251,1.93682e-10,0,85913,85913
274.301,2.38258e-10,0,86687,86687
274.35,2.18636e-10,0,87327,87327
274.4,8.13263e-11,0,88085,88085
274.451,-2.40438e-10,0,88697,88697
274.5,-2.06613e-10,0,89267,89267
274.55,2.91075e-10,0,89771,89771
274.6,8.38117e-10,0,90299,90299
274.651,7.33353e-10,0,90881,90881
274.7,-3.4277e-10,0,91535,91535
274.75,-1.39074e-09,0,92051,92051
274.801,-7.97066e-10,0,92351,92351
274.85,2.64637e-09,0,92405,92405
274.9,8.60889e-09,0,92073,92073
274.95,1.56382e-08,0,91731,91731
275.001,2.22223e-08,0,91027,91027
275.05,2.71803e-08,0,90399,90399
275.1,3.04063e-08,0,89987,89987
275.15,3.24562e-08,0,89925,89925
275.201,3.472e-08,0,89615,89615
275.25,3.88742e-08,0,89389,89389
275.3,4.61164e-08,0,89359,89359
275.351,5.66007e-08,0,89129,89129
275.4,6.92067e-08,0,89011,89011
275.45,8.3599e-08,0,88769,88769
275.5,1.00423e-07,0,88605,88605
275.551,1.21546e-07,0,87883,87883
275.6,1.48003e-07,0,87395,87395
275.65,1.81229e-07,0,86515,86515
275.701,2.22308e-07,0,85659,85659
275.751,2.69354e-07,0,84915,84915
275.8,3.20861e-07,0,84165,84165
275.85,3.74267e-07,0,83553,83553
275.901,4.2903e-07,0,82857,82857
275.95,4.84503e-07,0,82389,82389
276,5.43549e-07,0,81767,81767
276.05,6.06788e-07,0,81151,81151
276.101,6.72719e-07,0,80383,80383
276.15,7.34786e-07,0,79701,79701
276.2,7.89499e-07,0,79106,79106
276.251,8.34568e-07,0,78658,78658
276.301,8.67651e-07,0,78384,78384
276.35,8.89418e-07,0,78114,78114
276.401,9.02387e-07,0,77890,77890
276.451,9.08818e-07,0,77720,77720
276.501,9.11136e-07,0,77444,77444
276.551,9.10417e-07,0,77116,77116
276.6,9.06483e-07,0,76978,76978
276.651,8.98575e-07,0,76698,76698
276.701,8.85826e-07,0,76454,76454
276.751,8.6686e-07,0,76482,76482
276.8,8.40919e-07,0,76152,76152
276.85,8.06217e-07,0,76352,76352
276.9,7.63472e-07,0,76184,76184
276.95,7.13091e-07,0,76222,76222
277,6.57555e-07,0,75998,75998
277.05,6.00241e-07,0,75652,75652
277.1,5.45013e-07,0,75534,75534
277.151,4.91924e-07,0,75146,75146
277.201,4.43488e-07,0,74798,74798
277.251,3.98974e-07,0,74970,74970
277.3,3.5864e-07,0,75512,75512
277.351,3.20497e-07,0,76064,76064
277.4,2.85311e-07,0,77030,77030
277.45,2.51217e-07,0,77750,77750
277.5,2.188e-07,0,79418,79418
277.55,1.88853e-07,0,79623,79623
277.601,1.62392e-07,0,80010,80010
277.65,1.41848e-07,0,80684,80684
277.7,1.26729e-07,0,81510,81510
277.75,1.14682e-07,0,82572,82572
277.8,1.02692e-07,0,83114,83114
277.85,8.89603e-08,0,84357,84357
277.901,7.44071e-08,0,84794,84794
277.95,6.14703e-08,0,85492,85492
278,5.13576e-08,0,86296,86296
278.05,4.46268e-08,0,86806,86806
278.1,4.03451e-08,0,87602,87602
278.15,3.71617e-08,0,88092,88092
278.2,3.35705e-08,0,89504,89504
278.25,2.83995e-08,0,89694,89694
278.301,2.1526e-08,0,90222,90222
278.351,1.46016e-08,0,91218,91218
278.4,9.48844e-09,0,91520,91520
278.451,6.99936e-09,0,91770,91770
278.501,6.70488e-09,0,91504,91504
278.55,7.25631e-09,0,91306,91306
278.6,7.84652e-09,0,90510,90510
278.651,8.09158e-09,0,89712,89712
278.7,8.1766e-09,0,89176,89176
278.75,8.25462e-09,0,88220,88220
278.801,8.3369e-09,0,87664,87664
278.85,8.39451e-09,0,87040,87040
278.9,8.37807e-09,0,86266,86266
278.95,8.14429e-09,0,85438,85438
279,7.58638e-09,0,84838,84838
279.051,7.21003e-09,0,83906,83906
279.1,7.11325e-09,0,83178,83178
279.15,7.1209e-09,0,82308,82308
279.2,7.13446e-09,0,81588,81588
279.25,7.15036e-09,0,80812,80812
279.301,7.16765e-09,0,80278,80278
279.35,7.18518e-09,0,79494,79494
279.4,7.20313e-09,0,78794,78794
279.451,7.22163e-09,0,78328,78328
279.501,7.23981e-09,0,77968,77968
279.55,7.25773e-09,0,77544,77544
279.6,7.27535e-09,0,77062,77062
279.651,7.29287e-09,0,76652,76652
279.7,7.30988e-09,0,76106,76106
279.75,7.32695e-09,0,75362,75362
279.8,7.34432e-09,0,74762,74762
279.851,7.36214e-09,0,74944,74944
279.9,7.37923e-09,0,75042,75042
279.95,7.3951e-09,0,76006,76006
280.001,7.41005e-09,0,76588,76588
280.05,7.42547e-09,0,77242,77242
280.1,7.44429e-09,0,77704,77704
280.15,7.47175e-09,0,78424,78424
280.201,7.50865e-09,0,79008,79008
280.25,7.56681e-09,0,79748,79748
280.3,7.63737e-09,0,80360,80360
280.35,7.72156e-09,0,81196,81196
280.401,7.8471e-09,0,81888,81888
280.45,7.99399e-09,0,82588,82588
280.5,8.17502e-09,0,83406,83406
280.551,8.4622e-09,0,84072,84072
280.6,8.77189e-09,0,84820,84820
280.65,9.10658e-09,0,85394,85394
280.7,9.44798e-09,0,86060,86060
280.751,9.83526e-09,0,86598,86598
280.8,1.02896e-08,0,87226,87226
280.85,1.0833e-08,0,87748,87748
280.901,1.15075e-08,0,88172,88172
280.95,1.23198e-08,0,88026,88026
281,1.32997e-08,0,88100,88100
281.05,1.44701e-08,0,88192,88192
281.101,1.58713e-08,0,88450,88450
281.15,1.74767e-08,0,88074,88074
281.2,1.93155e-08,0,87848,87848
281.25,2.13991e-08,0,87632,87632
281.301,2.37761e-08,0,87434,87434
281.35,2.63883e-08,0,87256,87256
281.4,2.92706e-08,0,87344,87344
281.451,3.2461e-08,0,87062,87062
281.5,3.58424e-08,0,87086,87086
281.55,3.94246e-08,0,86798,86798
281.6,4.31679e-08,0,86580,86580
281.651,4.70906e-08,0,86390,86390
281.7,5.10481e-08,0,86374,86374
281.75,5.50829e-08,0,86218,86218
281.801,5.92594e-08,0,86043,86043
281.851,6.34547e-08,0,85933,85933
281.9,6.76755e-08,0,85892,85892
281.95,7.18181e-08,0,85760,85760
282.001,7.59238e-08,0,85560,85560
282.05,8.01209e-08,0,85498,85498
282.1,8.49715e-08,0,85302,85302
282.15,9.09735e-08,0,85142,85142
282.201,9.84019e-08,0,84988,84988
282.25,1.06695e-07,0,84890,84890
282.3,1.15247e-07,0,84768,84768
282.351,1.23428e-07,0,84654,84654
282.4,1.30559e-07,0,84584,84584
282.45,1.36825e-07,0,84506,84506
282.5,1.42778e-07,0,84320,84320
282.551,1.49365e-07,0,84096,84096
282.6,1.5723e-07,0,83908,83908
282.65,1.67014e-07,0,83612,83612
282.7,1.79079e-07,0,83671,83671
282.75,1.93277e-07,0,84410,84410
282.801,2.10248e-07,0,84920,84920
282.851,2.3038e-07,0,85168,85168
282.901,2.54502e-07,0,85728,85728
282.95,2.83378e-07,0,86226,86226
283,3.17373e-07,0,86980,86980
283.05,3.56862e-07,0,87599,87599
283.101,4.0045e-07,0,88340,88340
283.15,4.46916e-07,0,89198,89198
283.2,4.95208e-07,0,89954,89954
283.251,5.45553e-07,0,90916,90916
283.3,5.96274e-07,0,91666,91666
283.35,6.48616e-07,0,92572,92572
283.4,7.0071e-07,0,92752,92752
283.451,7.51206e-07,0,93024,93024
283.5,7.95925e-07,0,93988,93988
283.55,8.33669e-07,0,95122,95122
283.6,8.6198e-07,0,96486,96486
283.65,8.80336e-07,0,97222,97222
283.701,8.89437e-07,0,97946,97946
283.75,8.90449e-07,0,98828,98828
283.8,8.85115e-07,0,99616,99616
283.85,8.74817e-07,0,100422,100422
283.901,8.60155e-07,0,101132,101132
283.951,8.41688e-07,0,101748,101748
284,8.18846e-07,0,102560,102560
284.05,7.90939e-07,0,103390,103390
284.101,7.56664e-07,0,104034,104034
284.15,7.16451e-07,0,105046,105046
284.2,6.69765e-07,0,105982,105982
284.25,6.17225e-07,0,106698,106698
284.301,5.59366e-07,0,107384,107384
284.35,4.99891e-07,0,108026,108026
284.4,4.4021e-07,0,108712,108712
284.451,3.81468e-07,0,109394,109394
284.5,3.26797e-07,0,110014,110014
284.55,2.76072e-07,0,110626,110626
284.6,2.29457e-07,0,111188,111188
284.651,1.86111e-07,0,111916,111916
284.7,1.4686e-07,0,112200,112200
284.75,1.10665e-07,0,112412,112412
284.801,7.69154e-08,0,112240,112240
284.851,4.68151e-08,0,112060,112060
284.9,2.03653e-08,0,112094,112094
284.95,-1.94397e-09,0,112058,112058
285.001,-2.02991e-08,0,112174,112174
285.05,-3.48048e-08,0,112964,112964
285.1,-4.68789e-08,0,114552,114552
285.15,-5.75908e-08,0,116828,116828
285.201,-6.75742e-08,0,117644,117644
285.25,-7.6323e-08,0,118226,118226
285.3,-8.33862e-08,0,118824,118824
285.351,-8.83356e-08,0,119578,119578
285.4,-9.10189e-08,0,120196,120196
285.45,-9.20388e-08,0,120576,120576
285.5,-9.22306e-08,0,121072,121072
285.551,-9.2202e-08,0,121428,121428
285.6,-9.24113e-08,0,121490,121490
285.65,-9.26325e-08,0,121320,121320
285.7,-9.23569e-08,0,121684,121684
285.751,-9.0906e-08,0,121626,121626
285.8,-8.81045e-08,0,121562,121562
285.85,-8.41735e-08,0,121246,121246
285.901,-7.9483e-08,0,121400,121400
285.95,-7.4631e-08,0,121406,121406
286,-6.98629e-08,0,121278,121278
286.05,-6.5314e-08,0,121702,121702
286.101,-6.09679e-08,0,121748,121748
286.15,-5.69683e-08,0,122042,122042
286.2,-5.328e-08,0,122134,122134
286.251,-4.9893e-08,0,122406,122406
286.301,-4.69123e-08,0,122726,122726
286.35,-4.42481e-08,0,123484,123484
286.4,-4.18394e-08,0,123258,123258
286.451,-3.96171e-08,0,123598,123598
286.5,-3.76405e-08,0,123500,123500
286.55,-3.58884e-08,0,121602,121602
286.6,-3.43676e-08,0,119906,119906
286.651,-3.30531e-08,0,117324,117324
286.7,-3.19688e-08,0,116202,116202
286.75,-3.10737e-08,0,114952,114952
286.801,-3.03292e-08,0,113812,113812
286.85,-2.97639e-08,0,112756,112756
286.9,-2.9368e-08,0,111788,111788
286.95,-2.90886e-08,0,110772,110772
287.001,-2.89172e-08,0,110234,110234
287.05,-2.88519e-08,0,109852,109852
287.1,-2.88282e-08,0,109340,109340
287.151,-2.88371e-08,0,108408,108408
287.201,-2.88722e-08,0,107756,107756
287.25,-2.90073e-08,0,107098,107098
287.3,-2.91641e-08,0,106782,106782
287.351,-2.93361e-08,0,105788,105788
287.4,-2.94994e-08,0,105336,105336
287.45,-2.97468e-08,0,104546,104546
287.5,-2.99715e-08,0,104488,104488
287.551,-3.01885e-08,0,103230,103230
287.6,-3.03985e-08,0,102460,102460
287.65,-3.0602e-08,0,103182,103182
287.701,-3.08005e-08,0,101988,101988
287.75,-3.099e-08,0,100932,100932
287.8,-3.11698e-08,0,101460,101460
287.85,-3.13334e-08,0,101040,101040
287.901,-3.14834e-08,0,99844,99844
287.95,-3.16104e-08,0,98850,98850
288,-3.17152e-08,0,99624,99624
288.051,-3.18003e-08,0,98410,98410
288.101,-3.18665e-08,0,98060,98060
288.15,-3.19108e-08,0,97726,97726
288.2,-3.19058e-08,0,97418,97418
288.251,-3.18727e-08,0,96772,96772
288.3,-3.18405e-08,0,95596,95596
288.35,-3.17991e-08,0,94054,94054
288.4,-3.17425e-08,0,93482,93482
288.451,-3.16724e-08,0,92384,92384
288.5,-3.15948e-08,0,92376,92376
288.55,-3.15097e-08,0,92396,92396
288.601,-3.14179e-08,0,95138,95138
288.65,-3.13198e-08,0,95146,95146
288.7,-3.12156e-08,0,95940,95940
288.75,-3.11062e-08,0,97288,97288
288.801,-3.09919e-08,0,98878,98878
288.85,-3.08752e-08,0,99420,99420
288.9,-3.07547e-08,0,102172,102172
288.95,-3.06316e-08,0,103194,103194
289.001,-3.05045e-08,0,103820,103820
289.05,-3.03766e-08,0,105392,105392
289.1,-3.02498e-08,0,105120,105120
289.151,-3.01218e-08,0,106290,106290
289.2,-2.99977e-08,0,106602,106602
289.25,-2.98734e-08,0,105964,105964
289.3,-2.97447e-08,0,103828,103828
289.351,-2.96111e-08,0,101200,101200
289.4,-2.94839e-08,0,101102,101102
289.45,-2.93515e-08,0,99728,99728
289.501,-2.91942e-08,0,100264,100264
289.551,-2.90339e-08,0,100362,100362
289.6,-2.88653e-08,0,100332,100332
289.65,-2.86725e-08,0,100436,100436
289.701,-2.84591e-08,0,101736,101736
289.75,-2.82368e-08,0,101164,101164
289.8,-2.80021e-08,0,101380,101380
289.85,-2.77331e-08,0,101644,101644
289.901,-2.74061e-08,0,102002,102002
289.95,-2.70518e-08,0,101304,101304
290,-2.6669e-08,0,100858,100858
290.051,-2.62477e-08,0,100430,100430
290.1,-2.58056e-08,0,99430,99430
290.15,-2.53371e-08,0,97852,97852
290.2,-2.48481e-08,0,96550,96550
290.251,-2.4339e-08,0,94832,94832
290.3,-2.383e-08,0,92710,92710
290.35,-2.33152e-08,0,90706,90706
290.401,-2.27936e-08,0,88306,88306
290.451,-2.23312e-08,0,86032,86032
290.5,-2.19419e-08,0,83464,83464
290.55,-2.15484e-08,0,79450,79450
290.601,-2.11833e-08,0,77216,77216
290.65,-2.08646e-08,0,75932,75932
290.7,-2.05804e-08,0,75172,75172
290.75,-2.03537e-08,0,77292,77292
290.801,-2.01989e-08,0,75660,75660
290.85,-2.00887e-08,0,73904,73904
290.9,-2.0012e-08,0,75118,75118
290.951,-1.99782e-08,0,75972,75972
291,-2.00173e-08,0,77786,77786
291.05,-2.01006e-08,0,78372,78372
291.1,-2.02817e-08,0,78046,78046
291.151,-2.04214e-08,0,77480,77480
291.2,-2.06144e-08,0,77508,77508
291.25,-2.08329e-08,0,77594,77594
291.301,-2.10738e-08,0,77434,77434
291.351,-2.13119e-08,0,76886,76886
291.4,-2.15549e-08,0,77998,77998
291.45,-2.18003e-08,0,77764,77764
291.501,-2.20557e-08,0,77894,77894
291.55,-2.22936e-08,0,78152,78152
291.6,-2.25124e-08,0,77790,77790
291.65,-2.27115e-08,0,77878,77878
291.701,-2.28932e-08,0,77980,77980
291.75,-2.30417e-08,0,78026,78026
291.8,-2.31445e-08,0,78242,78242
291.851,-2.3199e-08,0,78288,78288
291.9,-2.32337e-08,0,78304,78304
291.95,-2.32587e-08,0,78012,78012
292,-2.32743e-08,0,77911,77911
292.051,-2.32603e-08,0,79002,79002
292.1,-2.32355e-08,0,79272,79272
292.15,-2.31869e-08,0,79618,79618
292.2,-2.31229e-08,0,80144,80144
292.251,-2.30321e-08,0,80366,80366
292.3,-2.29328e-08,0,80578,80578
292.35,-2.28293e-08,0,80718,80718
292.401,-2.27132e-08,0,80266,80266
292.45,-2.25895e-08,0,80934,80934
292.5,-2.24611e-08,0,81112,81112
292.55,-2.2325e-08,0,81340,81340
292.601,-2.21777e-08,0,81320,81320
292.65,-2.20281e-08,0,81344,81344
292.7,-2.18744e-08,0,80646,80646
292.751,-2.17147e-08,0,78872,78872
292.801,-2.15545e-08,0,77290,77290
292.85,-2.13937e-08,0,76810,76810
292.9,-2.12341e-08,0,75734,75734
292.951,-2.10729e-08,0,75166,75166
293,-2.0917e-08,0,73696,73696
293.05,-2.07656e-08,0,72084,72084
293.1,-2.06191e-08,0,71262,71262
293.151,-2.04757e-08,0,70332,70332
293.2,-2.03409e-08,0,70098,70098
293.25,-2.02136e-08,0,69756,69756
293.3,-2.00916e-08,0,69572,69572
293.35,-1.99782e-08,0,69558,69558
293.4,-1.98766e-08,0,69432,69432
293.45,-1.97831e-08,0,69610,69610
293.5,-1.96962e-08,0,69638,69638
293.551,-1.96175e-08,0,69600,69600
293.601,-1.95441e-08,0,69274,69274
293.651,-1.9473e-08,0,69322,69322
293.7,-1.94034e-08,0,69712,69712
293.75,-1.9334e-08,0,69840,69840
293.801,-1.92644e-08,0,70046,70046
293.85,-1.91975e-08,0,70614,70614
293.9,-1.91329e-08,0,70694,70694
293.95,-1.90699e-08,0,70860,70860
294.001,-1.9008e-08,0,71433,71433
294.05,-1.89483e-08,0,71522,71522
294.1,-1.88891e-08,0,71724,71724
294.15,-1.88294e-08,0,72116,72116
294.201,-1.87667e-08,0,72320,72320
294.25,-1.87017e-08,0,72458,72458
294.3,-1.86327e-08,0,72708,72708
294.351,-1.85587e-08,0,72996,72996
294.4,-1.84818e-08,0,73146,73146
294.45,-1.84018e-08,0,73272,73272
294.5,-1.83196e-08,0,73596,73596
294.551,-1.82347e-08,0,73740,73740
294.6,-1.81499e-08,0,73786,73786
294.65,-1.8064e-08,0,74018,74018
294.701,-1.79758e-08,0,74138,74138
294.751,-1.78877e-08,0,74576,74576
294.8,-1.77983e-08,0,74908,74908
294.85,-1.77073e-08,0,75150,75150
294.901,-1.76134e-08,0,75682,75682
294.95,-1.75195e-08,0,76052,76052
295,-1.74243e-08,0,76304,76304
295.05,-1.7328e-08,0,76804,76804
295.101,-1.72287e-08,0,76464,76464
295.15,-1.71285e-08,0,76012,76012
295.2,-1.70251e-08,0,76276,76276
295.251,-1.69168e-08,0,76712,76712
295.3,-1.68068e-08,0,76578,76578
295.35,-1.66933e-08,0,76350,76350
295.4,-1.6576e-08,0,76404,76404
295.451,-1.64529e-08,0,76122,76122
295.5,-1.63271e-08,0,75752,75752
295.55,-1.61967e-08,0,75596,75596
295.601,-1.60593e-08,0,75110,75110
295.651,-1.59185e-08,0,74540,74540
295.7,-1.57721e-08,0,73724,73724
295.75,-1.56203e-08,0,73012,73012
295.801,-1.54608e-08,0,72118,72118
295.85,-1.52985e-08,0,71376,71376
295.9,-1.5132e-08,0,70696,70696
295.95,-1.49626e-08,0,69954,69954
296.001,-1.47853e-08,0,69140,69140
296.05,-1.4612e-08,0,68344,68344
296.1,-1.44162e-08,0,67456,67456
296.151,-1.42104e-08,0,66812,66812
296.2,-1.40079e-08,0,66116,66116
296.25,-1.38003e-08,0,65416,65416
296.3,-1.35864e-08,0,64714,64714
296.351,-1.33629e-08,0,64008,64008
296.4,-1.31359e-08,0,63426,63426
296.45,-1.29026e-08,0,62996,62996
296.5,-1.26631e-08,0,62336,62336
296.551,-1.24143e-08,0,61634,61634
296.6,-1.21637e-08,0,60856,60856
296.65,-1.19072e-08,0,60108,60108
296.701,-1.16395e-08,0,59434,59434
296.75,-1.13664e-08,0,58810,58810
296.8,-1.10814e-08,0,58150,58150
296.85,-1.07824e-08,0,58080,58080
296.901,-1.04632e-08,0,58152,58152
296.95,-1.01382e-08,0,58318,58318
297.001,-9.81701e-09,0,58450,58450
297.051,-9.39938e-09,0,58576,58576
297.101,-8.97828e-09,0,58612,58612
297.15,-8.54044e-09,0,58698,58698
297.2,-8.07576e-09,0,58620,58620
297.25,-7.57284e-09,0,58394,58394
297.3,-7.03877e-09,0,58124,58124
297.35,-6.47435e-09,0,58058,58058
297.4,-5.8806e-09,0,57876,57876
297.45,-5.24859e-09,0,57824,57824
297.501,-4.5925e-09,0,57776,57776
297.551,-3.91862e-09,0,57828,57828
297.601,-3.23384e-09,0,57748,57748
297.65,-2.54452e-09,0,57610,57610
297.701,-1.84514e-09,0,57398,57398
297.751,-1.15247e-09,0,57154,57154
297.801,-4.71687e-10,0,56974,56974
297.851,1.92649e-10,0,56648,56648
297.9,8.36457e-10,0,56324,56324
297.95,1.46621e-09,0,56066,56066
298.001,2.06788e-09,0,55922,55922
298.05,2.63841e-09,0,55732,55732
298.1,3.17496e-09,0,55538,55538
298.151,3.68205e-09,0,55424,55424
298.2,4.13947e-09,0,55368,55368
298.25,4.55777e-09,0,55260,55260
298.3,4.92652e-09,0,55214,55214
298.351,5.24992e-09,0,55038,55038
298.4,5.51929e-09,0,54948,54948
298.45,5.7458e-09,0,54910,54910
298.5,5.92936e-09,0,54712,54712
298.55,6.07479e-09,0,54568,54568
298.601,6.18239e-09,0,54532,54532
298.65,6.25745e-09,0,54540,54540
298.7,6.2466e-09,0,54470,54470
298.75,6.22199e-09,0,54466,54466
298.8,6.18943e-09,0,54406,54406
298.851,6.14756e-09,0,54302,54302
298.9,6.09334e-09,0,54184,54184
298.95,6.02141e-09,0,53992,53992
299,5.93884e-09,0,53911,53911
299.051,5.83627e-09,0,53847,53847
299.1,5.72468e-09,0,53761,53761
299.15,5.60279e-09,0,53743,53743
299.2,5.47689e-09,0,53722,53722
299.25,5.34961e-09,0,53578,53578
299.3,5.22204e-09,0,53642,53642
299.35,5.09313e-09,0,53554,53554
299.401,4.96548e-09,0,53592,53592
299.451,4.83993e-09,0,53592,53592
299.5,4.7174e-09,0,53616,53616
299.55,4.5983e-09,0,53772,53772
299.6,4.48316e-09,0,53890,53890
299.651,4.371e-09,0,53988,53988
299.7,4.2657e-09,0,54108,54108
299.75,4.16624e-09,0,54226,54226
299.801,4.07202e-09,0,54380,54380
299.85,3.9864e-09,0,54446,54446
299.9,3.90846e-09,0,54738,54738
299.95,3.83833e-09,0,54808,54808
300.001,3.77511e-09,0,54906,54906
300.05,3.72049e-09,0,55008,55008
300.1,3.67326e-09,0,55126,55126
300.151,3.63269e-09,0,55250,55250
300.201,3.59943e-09,0,55278,55278
300.25,3.57159e-09,0,55372,55372
300.3,3.54748e-09,0,55750,55750
300.351,3.5252e-09,0,55910,55910
300.4,3.50435e-09,0,55946,55946
300.45,3.48406e-09,0,55970,55970
300.5,3.46399e-09,0,55984,55984
300.551,3.44356e-09,0,55974,55974
300.6,3.42305e-09,0,56022,56022
300.65,3.40191e-09,0,56010,56010
300.701,3.37962e-09,0,55888,55888
300.75,3.35672e-09,0,55584,55584
300.8,3.3329e-09,0,55446,55446
300.85,3.30831e-09,0,55414,55414
300.901,3.28273e-09,0,54670,54670
300.95,3.25702e-09,0,54510,54510
301,3.23094e-09,0,54204,54204
301.051,3.20425e-09,0,53908,53908
301.101,3.17791e-09,0,53790,53790
301.15,3.15167e-09,0,53386,53386
301.2,3.12551e-09,0,53000,53000
301.251,3.09935e-09,0,52444,52444
301.3,3.07421e-09,0,51710,51710
301.35,3.04964e-09,0,51154,51154
301.4,3.02583e-09,0,50406,50406
301.451,3.00263e-09,0,49826,49826
301.5,2.98082e-09,0,49186,49186
301.55,2.96063e-09,0,48754,48754
301.601,2.94078e-09,0,48202,48202
301.65,2.92272e-09,0,47558,47558
301.7,2.90579e-09,0,47032,47032
301.75,2.89001e-09,0,46308,46308
301.801,2.87503e-09,0,45758,45758
301.85,2.86095e-09,0,45028,45028
301.9,2.84766e-09,0,44440,44440
301.95,2.83483e-09,0,43862,43862
302.001,2.82209e-09,0,43378,43378
302.05,2.80955e-09,0,42820,42820
302.1,2.7968e-09,0,42050,42050
302.151,2.78373e-09,0,41270,41270
302.2,2.77054e-09,0,40586,40586
302.25,2.75683e-09,0,39754,39754
302.3,2.74261e-09,0,38918,38918
302.351,2.72765e-09,0,38120,38120
302.4,2.71241e-09,0,37344,37344
302.45,2.69667e-09,0,36616,36616
302.501,2.6802e-09,0,35646,35646
302.551,2.66351e-09,0,34822,34822
302.6,2.64641e-09,0,33826,33826
302.65,2.62896e-09,0,32844,32844
302.701,2.61092e-09,0,31922,31922
302.75,2.59285e-09,0,31042,31042
302.8,2.57454e-09,0,30110,30110
302.85,2.55598e-09,0,29120,29120
302.901,2.53691e-09,0,28036,28036
302.95,2.51789e-09,0,26912,26912
303,2.49866e-09,0,25876,25876
303.051,2.47893e-09,0,24780,24780
303.1,2.45922e-09,0,23784,23784
303.15,2.43917e-09,0,22734,22734
303.2,2.41908e-09,0,21760,21760
303.251,2.39868e-09,0,20726,20726
303.3,2.37835e-09,0,19744,19744
303.35,2.35779e-09,0,18876,18876
303.401,2.33675e-09,0,18106,18106
303.451,2.31586e-09,0,17136,17136
303.5,2.29486e-09,0,16294,16294
303.55,2.27377e-09,0,15430,15430
303.601,2.2523e-09,0,14552,14552
303.651,2.23095e-09,0,14096,14096
303.701,2.20984e-09,0,14164,14164
303.75,2.18881e-09,0,14144,14144
303.8,2.16788e-09,0,14208,14208
303.851,2.14666e-09,0,14204,14204
303.9,2.12601e-09,0,14176,14176
303.95,2.10556e-09,0,14080,14080
304.001,2.08498e-09,0,13996,13996
304.051,2.06513e-09,0,13818,13818
304.1,2.04554e-09,0,13646,13646
304.15,2.02614e-09,0,13516,13516
304.201,2.00653e-09,0,13272,13272
304.251,1.98751e-09,0,13024,13024
304.3,1.96869e-09,0,12746,12746
304.351,1.94965e-09,0,12480,12480
304.401,1.93118e-09,0,12188,12188
304.45,1.91296e-09,0,11906,11906
304.5,1.89495e-09,0,11658,11658
304.551,1.87664e-09,0,11386,11386
304.601,1.8587e-09,0,11118,11118
304.65,1.84067e-09,0,10840,10840
304.701,1.82211e-09,0,10548,10548
304.751,1.8037e-09,0,10264,10264
304.8,1.78503e-09,0,10006,10006
304.85,1.76609e-09,0,9728,9728
304.901,1.74647e-09,0,9476,9476
304.95,1.72718e-09,0,9220,9220
