250,0,0,512,512
250.012,0,0,512,512
250.059,0,0,512,512
250.105,0,0,512,512
250.152,0,0,512,512
250.211,0,0,512,512
250.258,0,0,512,512
250.305,0,0,512,512
250.352,0,0,512,512
250.41,0,0,512,512
250.457,0,0,512,512
250.504,0,0,512,512
250.551,0,0,512,512
250.609,0,0,512,512
250.656,0,0,512,512
250.703,0,0,512,512
250.762,0,0,512,512
250.808,0,0,512,512
250.855,0,0,512,512
250.902,0,0,512,512
250.961,2.77556e-17,0,512,512
251.008,2.77556e-17,0,512,512
251.055,2.77556e-17,0,512,512
251.101,0,0,512,512
251.16,0,0,512,512
251.207,0,0,512,512
251.254,0,0,512,512
251.301,0,0,512,512
251.359,0,0,512,512
251.406,0,0,512,512
251.453,0,0,512,512
251.511,0,0,512,512
251.558,0,0,512,512
251.605,0,0,512,512
251.652,0,0,512,512
251.711,0,0,512,512
251.758,0,0,512,512
251.804,0,0,512,512
251.851,0,0,512,512
251.91,0,0,512,512
251.957,0,0,512,512
252.004,0,0,512,512
252.05,0,0,512,512
252.109,0,0,512,512
252.156,0,0,512,512
252.203,0,0,512,512
252.261,0,0,512,512
252.308,0,0,512,512
252.355,0,0,512,512
252.402,0,0,512,512
252.461,0,0,512,512
252.507,-2.77556e-17,0,512,512
252.554,-2.77556e-17,0,512,512
252.601,-2.77556e-17,0,512,512
252.66,-2.77556e-17,0,512,512
252.707,-2.77556e-17,0,512,512
252.754,-2.77556e-17,0,512,512
252.8,0,0,512,512
252.859,0,0,512,512
252.906,-2.77556e-17,0,512,512
252.953,-2.77556e-17,0,512,512
253.011,-2.77556e-17,0,512,512
253.058,-2.77556e-17,0,512,512
253.105,-2.77556e-17,0,512,512
253.152,-2.77556e-17,0,512,512
253.21,-2.77556e-17,0,512,512
253.257,-2.77556e-17,0,512,512
253.304,-2.77556e-17,0,512,512
253.351,0,0,512,512
253.41,0,0,512,512
253.457,0,0,512,512
253.503,0,0,512,512
253.55,0,0,512,512
253.609,0,0,512,512
253.656,0,0,512,512
253.703,0,0,512,512
253.761,0,0,512,512
253.808,0,0,512,512
253.855,0,0,512,512
253.902,-2.77556e-17,0,512,512
253.96,-2.77556e-17,0,512,512
254.007,-2.77556e-17,0,512,512
254.054,0,0,512,512
254.101,-2.77556e-17,0,512,512
254.16,0,0,512,512
254.206,0,0,512,512
254.253,0,0,512,512
254.3,0,0,512,512
254.359,0,0,512,512
254.406,0,0,512,512
254.452,0,0,512,512
254.511,0,0,512,512
254.558,0,0,512,512
254.605,0,0,512,512
254.652,-2.77556e-17,0,512,512
254.71,-2.77556e-17,0,512,512
254.757,-2.77556e-17,0,512,512
254.804,-2.77556e-17,0,512,512
254.851,-2.77556e-17,0,512,512
254.909,-2.77556e-17,0,512,512
254.956,0,0,512,512
255.003,0,0,512,512
255.05,0,0,512,512
255.109,0,0,512,512
255.155,0,0,512,512
255.202,0,0,512,512
255.261,0,0,512,512
255.308,0,0,512,512
255.355,0,0,512,512
255.402,0,0,512,512
255.46,0,0,512,512
255.507,0,0,512,512
255.554,0,0,512,512
255.601,0,0,512,512
255.659,0,0,512,512
255.706,0,0,512,512
255.753,0,0,512,512
255.812,0,0,512,512
255.859,0,0,512,512
255.905,0,0,512,512
255.952,-2.77556e-17,0,512,512
256.011,-2.77556e-17,0,512,512
256.058,-2.77556e-17,0,512,512
256.105,-2.77556e-17,0,512,512
256.151,-2.77556e-17,0,512,512
256.21,-2.77556e-17,0,512,512
256.257,-2.77556e-17,0,512,512
256.304,-2.77556e-17,0,512,512
256.351,-2.77556e-17,0,512,512
256.409,-2.77556e-17,0,512,512
256.456,-2.77556e-17,0,512,512
256.503,0,0,512,512
256.562,0,0,512,512
256.608,0,0,512,512
256.655,-2.77556e-17,0,512,512
256.702,-2.77556e-17,0,512,512
256.761,-2.77556e-17,0,512,512
256.808,-5.55112e-17,0,512,512
256.854,-5.55112e-17,0,512,512
256.901,-5.55112e-17,0,512,512
256.96,-5.55112e-17,0,512,512
257.007,-5.55112e-17,0,512,512
257.054,-5.55112e-17,0,512,512
257.101,-5.55112e-17,0,512,512
257.159,-5.55112e-17,0,512,512
257.206,-5.55112e-17,0,512,512
257.253,-5.55112e-17,0,512,512
257.311,-2.77556e-17,0,512,512
257.358,-2.77556e-17,0,512,512
257.405,-2.77556e-17,0,512,512
257.452,-2.77556e-17,0,512,512
257.511,-2.77556e-17,0,512,512
257.557,0,0,512,512
257.604,-2.77556e-17,0,512,512
257.651,0,0,512,512
257.71,0,0,512,512
257.757,0,0,512,512
257.804,0,0,512,512
257.85,-2.77556e-17,0,512,512
257.909,-2.77556e-17,0,512,512
257.956,0,0,512,512
258.003,0,0,512,512
258.061,0,0,512,512
258.108,0,0,512,512
258.155,0,0,512,512
258.202,0,0,512,512
258.261,2.77556e-17,0,512,512
258.307,0,0,512,512
258.354,0,0,512,512
258.401,0,0,512,512
258.46,0,0,512,512
258.507,0,0,512,512
258.553,0,0,512,512
258.6,-2.77556e-17,0,512,512
258.659,2.77556e-17,0,512,512
258.706,5.55112e-17,0,512,512
258.753,2.77556e-17,0,512,512
258.811,2.77556e-17,0,512,512
258.858,5.55112e-17,0,512,512
258.905,2.77556e-17,0,512,512
258.952,2.77556e-17,0,512,512
259.01,2.77556e-17,0,512,512
259.057,2.77556e-17,0,512,512
259.104,2.77556e-17,0,512,512
259.151,2.77556e-17,0,512,512
259.21,0,0,512,512
259.256,0,0,512,512
259.303,0,0,512,512
259.35,0,0,512,512
259.409,0,0,512,512
259.456,0,0,512,512
259.503,0,0,512,512
259.561,0,0,512,512
259.608,0,0,512,512
259.655,0,0,512,512
259.702,0,0,512,512
259.76,0,0,512,512
259.807,0,0,512,512
259.854,0,0,512,512
259.901,2.77556e-17,0,512,512
259.959,0,0,512,512
260.006,2.77556e-17,0,512,512
260.053,2.77556e-17,0,512,512
260.1,2.77556e-17,0,512,512
260.159,2.77556e-17,0,512,512
260.206,2.77556e-17,0,512,512
260.252,2.77556e-17,0,512,512
260.311,2.77556e-17,0,512,512
260.358,2.77556e-17,0,512,512
260.405,2.77556e-17,0,512,512
260.452,2.77556e-17,0,512,512
260.51,2.77556e-17,0,512,512
260.557,5.55112e-17,0,512,512
260.604,5.55112e-17,0,512,512
260.651,5.55112e-17,0,512,512
260.709,2.77556e-17,0,512,512
260.756,0,0,512,512
260.803,0,0,512,512
260.862,0,0,512,512
260.909,0,0,512,512
260.955,0,0,512,512
261.002,0,0,512,512
261.061,2.77556e-17,0,512,512
261.108,2.77556e-17,0,512,512
261.155,0,0,512,512
261.201,2.77556e-17,0,512,512
261.26,-2.77556e-17,0,512,512
261.307,0,0,512,512
261.354,0,0,512,512
261.401,0,0,512,512
261.459,0,0,512,512
261.506,2.77556e-17,0,512,512
261.553,2.77556e-17,0,512,512
261.612,0,0,512,512
261.658,-2.77556e-17,0,512,512
261.705,0,0,512,512
261.752,2.77556e-17,0,512,512
261.811,2.77556e-17,0,512,512
261.858,0,0,512,512
261.905,2.77556e-17,0,512,512
261.951,2.77556e-17,0,512,512
262.01,-5.55112e-17,0,512,512
262.057,-2.77556e-17,0,512,512
262.104,0,0,512,512
262.151,0,0,512,512
262.209,-2.77556e-17,0,512,512
262.256,-2.77556e-17,0,512,512
262.303,-2.77556e-17,0,512,512
262.361,-2.77556e-17,0,512,512
262.408,0,0,512,512
262.455,0,0,512,512
262.502,0,0,512,512
262.561,0,0,512,512
262.608,0,0,512,512
262.654,2.77556e-17,0,512,512
262.701,2.77556e-17,0,512,512
262.76,0,0,512,512
262.807,0,0,512,512
262.854,0,0,512,512
262.9,0,0,512,512
262.959,0,0,512,512
263.006,0,0,512,512
263.053,0,0,512,512
263.111,0,0,512,512
263.158,-2.77556e-17,0,512,512
263.205,0,0,512,512
263.252,0,0,512,512
263.311,0,0,512,512
263.357,0,0,512,512
263.404,0,0,512,512
263.451,2.77556e-17,0,512,512
263.51,2.77556e-17,0,512,512
263.557,0,0,512,512
263.603,-2.77556e-17,0,512,512
263.65,-2.77556e-17,0,512,512
263.709,-2.77556e-17,0,512,512
263.756,0,0,512,512
263.803,0,0,512,512
263.861,0,0,512,512
263.908,0,0,512,512
263.955,-2.77556e-17,0,512,512
264.002,-2.77556e-17,0,512,512
264.06,-2.77556e-17,0,512,512
264.107,-2.77556e-17,0,512,512
264.154,0,0,512,512
264.201,-2.77556e-17,0,512,512
264.26,0,0,512,512
264.306,0,0,512,512
264.353,-5.55112e-17,0,512,512
264.4,-2.77556e-17,0,512,512
264.459,-2.77556e-17,0,512,512
264.506,-2.77556e-17,0,512,512
264.553,-2.77556e-17,0,512,512
264.611,-2.77556e-17,0,512,512
264.658,-2.77556e-17,0,512,512
264.705,0,0,512,512
264.752,0,0,512,512
264.81,-2.77556e-17,0,512,512
264.857,-2.77556e-17,0,512,512
264.904,0,0,512,512
264.951,0,0,512,512
265.01,0,0,512,512
265.056,0,0,512,512
265.103,0,0,512,512
265.15,0,0,512,512
265.209,0,0,512,512
265.256,0,0,512,512
265.302,0,0,512,512
265.361,0,0,512,512
265.408,0,0,512,512
265.455,0,0,512,512
265.502,0,0,512,512
265.56,0,0,512,512
265.607,0,0,512,512
265.654,0,0,512,512
265.701,0,0,512,512
265.759,0,0,512,512
265.806,0,0,512,512
265.853,0,0,512,512
265.9,0,0,512,512
265.959,0,0,512,512
266.005,0,0,512,512
266.052,2.77556e-17,0,512,512
266.111,2.77556e-17,0,512,512
266.158,2.77556e-17,0,512,512
266.205,0,0,512,512
266.252,0,0,512,512
266.31,2.77556e-17,0,512,512
266.357,2.77556e-17,0,512,512
266.404,2.77556e-17,0,512,512
266.451,2.77556e-17,0,512,512
266.509,2.77556e-17,0,512,512
266.556,2.77556e-17,0,512,512
266.603,2.77556e-17,0,512,512
266.662,2.77556e-17,0,512,512
266.708,2.77556e-17,0,512,512
266.755,2.77556e-17,0,512,512
266.802,2.77556e-17,0,512,512
266.861,2.77556e-17,0,512,512
266.908,2.77556e-17,0,512,512
266.955,2.77556e-17,0,512,512
267.001,2.77556e-17,0,512,512
267.06,2.77556e-17,0,512,512
267.107,2.77556e-17,0,512,512
267.154,2.77556e-17,0,512,512
267.201,2.77556e-17,0,512,512
267.259,2.77556e-17,0,512,512
267.306,2.77556e-17,0,512,512
267.353,2.77556e-17,0,512,512
267.412,2.77556e-17,0,512,512
267.458,2.77556e-17,0,512,512
267.505,2.77556e-17,0,512,512
267.552,2.77556e-17,0,512,512
267.611,2.77556e-17,0,512,512
267.658,2.77556e-17,0,512,512
267.704,2.77556e-17,0,512,512
267.751,5.55112e-17,0,512,512
267.81,5.55112e-17,0,512,512
267.857,5.55112e-17,0,512,512
267.904,8.32667e-17,0,512,512
267.95,8.32667e-17,0,512,512
268.009,5.55112e-17,0,512,512
268.056,5.55112e-17,0,512,512
268.1,5.55112e-17,0,527,527
268.152,5.55112e-17,0,539,539
268.202,5.55112e-17,0,537,537
268.254,2.77556e-17,0,541,541
268.301,2.77556e-17,0,547,547
268.354,2.77556e-17,0,551,551
268.401,2.77556e-17,0,539,539
268.454,2.77556e-17,0,537,537
268.507,2.77556e-17,0,533,533
268.555,2.77556e-17,0,541,541
268.602,2.77556e-17,0,547,547
268.655,2.77556e-17,0,547,547
268.702,2.77556e-17,0,548,548
268.754,2.77556e-17,0,551,551
268.804,2.77556e-17,0,549,549
268.853,2.77556e-17,0,548,548
268.903,2.77556e-17,0,549,549
268.953,2.77556e-17,0,545,545
269.002,2.77556e-17,0,542,542
269.052,2.77556e-17,0,536,536
269.102,2.77556e-17,0,530,530
269.152,8.32667e-17,0,524,524
269.201,3.88578e-16,0,520,520
269.251,-2.13718e-15,0,516,516
269.308,-5.36793e-14,0,512,512
269.354,-3.2821e-13,0,512,512
269.401,-1.46663e-12,0,512,512
269.452,-5.9058e-12,0,523,523
269.502,-1.8226e-11,0,537,537
269.552,-4.40708e-11,0,535,535
269.603,-8.50393e-11,0,543,543
269.653,-1.31756e-10,0,575,575
269.7,-1.67864e-10,0,571,571
269.751,-1.78819e-10,0,613,613
269.801,-1.52076e-10,0,647,647
269.85,-9.5979e-11,0,683,683
269.9,-3.14563e-11,0,723,723
269.953,2.20675e-11,0,775,775
270.003,4.86005e-11,0,819,819
270.052,5.73651e-11,0,877,877
270.102,6.10612e-11,0,917,917
270.152,6.86183e-11,0,949,949
270.202,8.0009e-11,0,995,995
270.252,8.93951e-11,0,1041,1041
270.301,9.21846e-11,0,1093,1093
270.351,8.9368e-11,0,1137,1137
270.401,8.61377e-11,0,1179,1179
270.451,8.70927e-11,0,1239,1239
270.501,9.26375e-11,0,1275,1275
270.55,9.93127e-11,0,1321,1321
270.6,1.03169e-10,0,1387,1387
270.65,1.0307e-10,0,1407,1407
270.703,1.01241e-10,0,1457,1457
270.753,1.01374e-10,0,1517,1517
270.802,1.04276e-10,0,1565,1565
270.852,1.07131e-10,0,1621,1621
270.902,1.05658e-10,0,1659,1659
270.952,9.88038e-11,0,1711,1711
271.002,9.2329e-11,0,1763,1763
271.051,9.72055e-11,0,1815,1815
271.101,1.21375e-10,0,1857,1857
271.151,1.58864e-10,0,1917,1917
271.201,1.84771e-10,0,1959,1959
271.251,1.62378e-10,0,2019,2019
271.3,6.01646e-11,0,2059,2059
271.35,-1.3168e-10,0,2111,2111
271.403,-3.32133e-10,0,2167,2167
271.453,-2.9704e-10,0,2215,2215
271.502,2.84318e-10,0,2273,2273
271.552,5.03027e-09,0,2309,2309
271.602,1.10955e-08,0,2349,2349
271.652,1.71721e-08,0,2401,2401
271.702,2.22208e-08,0,2447,2447
271.751,2.57954e-08,0,2499,2499
271.801,2.80277e-08,0,2547,2547
271.851,2.98511e-08,0,2599,2599
271.901,3.26659e-08,0,2649,2649
271.951,3.78241e-08,0,2701,2701
272,4.57639e-08,0,2761,2761
272.05,5.60386e-08,0,2805,2805
272.103,6.87871e-08,0,2851,2851
272.153,8.27338e-08,0,2911,2911
272.203,9.96286e-08,0,2963,2963
272.252,1.20896e-07,0,3005,3005
272.302,1.47776e-07,0,3065,3065
272.352,1.80942e-07,0,3113,3113
272.402,2.2028e-07,0,3167,3167
272.451,2.64484e-07,0,3211,3211
272.501,3.11389e-07,0,3263,3263
272.551,3.59224e-07,0,3309,3309
272.601,4.07922e-07,0,3363,3363
272.651,4.59037e-07,0,3409,3409
272.7,5.13842e-07,0,3459,3459
272.75,5.71402e-07,0,3505,3505
272.8,6.2839e-07,0,3563,3563
272.853,6.83578e-07,0,3615,3615
272.903,7.27499e-07,0,3657,3657
272.952,7.61691e-07,0,3717,3717
273.002,7.85872e-07,0,3757,3757
273.052,8.01178e-07,0,3811,3811
273.102,8.09769e-07,0,3855,3855
273.152,8.13763e-07,0,3899,3899
273.201,8.14686e-07,0,3947,3947
273.251,8.14355e-07,0,3993,3993
273.301,8.08658e-07,0,4033,4033
273.351,7.99872e-07,0,4093,4093
273.401,7.86248e-07,0,4131,4131
273.45,7.66615e-07,0,4163,4163
273.5,7.4007e-07,0,4213,4213
273.553,7.03864e-07,0,4239,4239
273.603,6.62311e-07,0,4267,4267
273.652,6.15346e-07,0,4257,4257
273.702,5.65692e-07,0,4260,4260
273.752,5.16158e-07,0,4276,4276
273.802,4.68712e-07,0,4246,4246
273.852,4.24447e-07,0,4254,4254
273.901,3.83723e-07,0,4278,4278
273.951,3.46372e-07,0,4286,4286
274.001,3.11918e-07,0,4299,4299
274.051,2.79688e-07,0,4363,4363
274.101,2.49124e-07,0,4377,4377
274.15,2.19912e-07,0,4387,4387
274.2,1.92313e-07,0,4409,4409
274.25,1.67441e-07,0,4413,4413
274.303,1.45776e-07,0,4393,4393
274.353,1.30431e-07,0,4397,4397
274.402,1.18795e-07,0,4431,4431
274.452,1.08283e-07,0,4413,4413
274.502,9.68132e-08,0,4441,4441
274.552,8.42494e-08,0,4443,4443
274.602,7.20853e-08,0,4421,4421
274.651,6.20068e-08,0,4433,4433
274.701,5.47704e-08,0,4417,4417
274.751,5.00474e-08,0,4401,4401
274.801,4.68664e-08,0,4351,4351
274.851,4.39413e-08,0,4309,4309
274.9,4.00381e-08,0,4305,4305
274.95,3.4657e-08,0,4257,4257
275.003,2.81775e-08,0,4249,4249
275.053,2.29417e-08,0,4215,4215
275.102,1.98154e-08,0,4203,4203
275.152,1.88239e-08,0,4175,4175
275.202,1.89223e-08,0,4181,4181
275.252,1.92491e-08,0,4175,4175
275.302,1.95756e-08,0,4149,4149
275.353,1.98124e-08,0,4147,4147
275.4,1.995e-08,0,4131,4131
275.451,2.00093e-08,0,4103,4103
275.502,1.99906e-08,0,4071,4071
275.553,1.99196e-08,0,4073,4073
275.601,1.98138e-08,0,4045,4045
275.652,1.9679e-08,0,4031,4031
275.7,1.95517e-08,0,4019,4019
275.752,1.94358e-08,0,4003,4003
275.801,1.93569e-08,0,3963,3963
275.853,1.93071e-08,0,3953,3953
275.902,1.9288e-08,0,3941,3941
275.951,1.92888e-08,0,3913,3913
276,1.93033e-08,0,3901,3901
276.053,1.9328e-08,0,3872,3872
276.103,1.93563e-08,0,3852,3852
276.152,1.93874e-08,0,3846,3846
276.202,1.94199e-08,0,3844,3844
276.253,1.94529e-08,0,3820,3820
276.303,1.94864e-08,0,3810,3810
276.35,1.9518e-08,0,3808,3808
276.401,1.95518e-08,0,3788,3788
276.452,1.95856e-08,0,3796,3796
276.503,1.96194e-08,0,3778,3778
276.551,1.96513e-08,0,3774,3774
276.602,1.96858e-08,0,3768,3768
276.65,1.97184e-08,0,3756,3756
276.702,1.97535e-08,0,3742,3742
276.751,1.97865e-08,0,3746,3746
276.803,1.98219e-08,0,3734,3734
276.852,1.98552e-08,0,3728,3728
276.901,1.98887e-08,0,3710,3710
276.95,1.99223e-08,0,3714,3714
277.003,1.99583e-08,0,3704,3704
277.053,1.99923e-08,0,3696,3696
277.102,2.00266e-08,0,3680,3680
277.152,2.00609e-08,0,3676,3676
277.202,2.00955e-08,0,3686,3686
277.253,2.01302e-08,0,3688,3688
277.303,2.0165e-08,0,3688,3688
277.35,2.01978e-08,0,3702,3702
277.401,2.02331e-08,0,3732,3732
277.452,2.02688e-08,0,3750,3750
277.503,2.03048e-08,0,3782,3782
277.55,2.03387e-08,0,3808,3808
277.602,2.03753e-08,0,3816,3816
277.653,2.04122e-08,0,3840,3840
277.701,2.04468e-08,0,3852,3852
277.753,2.04842e-08,0,3862,3862
277.801,2.05193e-08,0,3872,3872
277.85,2.05547e-08,0,3858,3858
277.903,2.05926e-08,0,3866,3866
277.952,2.06281e-08,0,3858,3858
278.002,2.06633e-08,0,3856,3856
278.052,2.06981e-08,0,3852,3852
278.102,2.07322e-08,0,3842,3842
278.152,2.07653e-08,0,3835,3835
278.202,2.0797e-08,0,3817,3817
278.253,2.08271e-08,0,3811,3811
278.303,2.08552e-08,0,3779,3779
278.351,2.08793e-08,0,3747,3747
278.402,2.09025e-08,0,3715,3715
278.453,2.09226e-08,0,3663,3663
278.501,2.0938e-08,0,3615,3615
278.553,2.09502e-08,0,3557,3557
278.601,2.09566e-08,0,3495,3495
278.653,2.09571e-08,0,3453,3453
278.702,2.09502e-08,0,3389,3389
278.75,2.09348e-08,0,3353,3353
278.802,2.09069e-08,0,3311,3311
278.851,2.08685e-08,0,3273,3273
278.903,2.08119e-08,0,3219,3219
278.952,2.07432e-08,0,3185,3185
279.001,2.06575e-08,0,3145,3145
279.053,2.05448e-08,0,3105,3105
279.102,2.04201e-08,0,3071,3071
279.151,2.02759e-08,0,3039,3039
279.2,2.01124e-08,0,2983,2983
279.253,1.99153e-08,0,2957,2957
279.303,1.97139e-08,0,2909,2909
279.352,1.9496e-08,0,2869,2869
279.401,1.92674e-08,0,2833,2833
279.451,1.88601e-08,0,2801,2801
279.5,1.84187e-08,0,2757,2757
279.554,1.79799e-08,0,2715,2715
279.603,1.75441e-08,0,2663,2663
279.653,1.71112e-08,0,2635,2635
279.703,1.66538e-08,0,2583,2583
279.753,1.61912e-08,0,2543,2543
279.803,1.57157e-08,0,2501,2501
279.853,1.52362e-08,0,2527,2527
279.903,1.4757e-08,0,2525,2525
279.953,1.42784e-08,0,2591,2591
280.003,1.38064e-08,0,2615,2615
280.052,1.33416e-08,0,2657,2657
280.102,1.28896e-08,0,2669,2669
280.152,1.24517e-08,0,2631,2631
280.201,1.20322e-08,0,2777,2777
280.251,1.1633e-08,0,2841,2841
280.3,1.12565e-08,0,2883,2883
280.353,1.08781e-08,0,2945,2945
280.402,1.05528e-08,0,2981,2981
280.452,1.02529e-08,0,3019,3019
280.501,9.97817e-09,0,3075,3075
280.554,9.70999e-09,0,3107,3107
280.603,9.48554e-09,0,3145,3145
280.651,9.28361e-09,0,3191,3191
280.7,9.10264e-09,0,3227,3227
280.753,8.92926e-09,0,3261,3261
280.802,8.78634e-09,0,3317,3317
280.85,8.65919e-09,0,3355,3355
280.903,8.53625e-09,0,3395,3395
280.951,8.44592e-09,0,3445,3445
281.003,8.36201e-09,0,3477,3477
281.052,8.29592e-09,0,3515,3515
281.104,8.23336e-09,0,3558,3558
281.152,8.19984e-09,0,3584,3584
281.203,8.16276e-09,0,3640,3640
281.251,8.13217e-09,0,3660,3660
281.303,8.10252e-09,0,3704,3704
281.354,8.0772e-09,0,3738,3738
281.401,8.05704e-09,0,3766,3766
281.452,8.03862e-09,0,3802,3802
281.502,8.02381e-09,0,3834,3834
281.552,8.01205e-09,0,3880,3880
281.602,8.00326e-09,0,3920,3920
281.652,7.99698e-09,0,3940,3940
281.702,7.99295e-09,0,3980,3980
281.752,7.99074e-09,0,4018,4018
281.801,7.99004e-09,0,4056,4056
281.85,7.99067e-09,0,4092,4092
281.903,7.99261e-09,0,4130,4130
281.952,7.99532e-09,0,4144,4144
282,7.99866e-09,0,4154,4154
282.052,8.00274e-09,0,4234,4234
282.1,8.0069e-09,0,4260,4260
282.152,8.01161e-09,0,4314,4314
282.203,8.01652e-09,0,4348,4348
282.251,8.02122e-09,0,4360,4360
282.302,8.02629e-09,0,4388,4388
282.353,8.03137e-09,0,4418,4418
282.4,8.03612e-09,0,4456,4456
282.45,8.04125e-09,0,4470,4470
282.501,8.04644e-09,0,4518,4518
282.551,8.0517e-09,0,4548,4548
282.601,8.05704e-09,0,4588,4588
282.65,8.06246e-09,0,4632,4632
282.7,8.06798e-09,0,4656,4656
282.753,8.07404e-09,0,4715,4715
282.802,8.07998e-09,0,4751,4751
282.851,8.08631e-09,0,4793,4793
282.903,8.09374e-09,0,4835,4835
282.952,8.10165e-09,0,4883,4883
283,8.11082e-09,0,4921,4921
283.052,8.12251e-09,0,4967,4967
283.1,8.13579e-09,0,5015,5015
283.151,8.15316e-09,0,5067,5067
283.202,8.17471e-09,0,5117,5117
283.25,8.1996e-09,0,5157,5157
283.301,8.23222e-09,0,5201,5201
283.351,8.27224e-09,0,5235,5235
283.402,8.3209e-09,0,5249,5249
283.452,8.37939e-09,0,5244,5244
283.502,8.44887e-09,0,5242,5242
283.552,8.53045e-09,0,5274,5274
283.602,8.62504e-09,0,5293,5293
283.651,8.73357e-09,0,5315,5315
283.701,8.85682e-09,0,5349,5349
283.753,9.00466e-09,0,5369,5369
283.802,9.16042e-09,0,5401,5401
283.851,9.33297e-09,0,5423,5423
283.903,9.53512e-09,0,5433,5433
283.951,9.74352e-09,0,5465,5465
284.003,9.98911e-09,0,5481,5481
284.051,1.03073e-08,0,5497,5497
284.102,1.08337e-08,0,5519,5519
284.15,1.14332e-08,0,5533,5533
284.201,1.21372e-08,0,5551,5551
284.252,1.29014e-08,0,5563,5563
284.302,1.37151e-08,0,5567,5567
284.352,1.45769e-08,0,5595,5595
284.403,1.54922e-08,0,5603,5603
284.453,1.64626e-08,0,5619,5619
284.502,1.79308e-08,0,5651,5651
284.552,2.00078e-08,0,5635,5635
284.602,2.19715e-08,0,5679,5679
284.652,2.39676e-08,0,5707,5707
284.702,2.68682e-08,0,5705,5705
284.751,2.96544e-08,0,5713,5713
284.801,3.25267e-08,0,5694,5694
284.851,3.55369e-08,0,5710,5710
284.901,3.87016e-08,0,5702,5702
284.951,4.20043e-08,0,5710,5710
285,4.54429e-08,0,5714,5714
285.05,4.89917e-08,0,5710,5710
285.1,5.26573e-08,0,5718,5718
285.153,5.6652e-08,0,5748,5748
285.203,6.05522e-08,0,5738,5738
285.252,6.45971e-08,0,5776,5776
285.302,6.88313e-08,0,5778,5778
285.352,7.33191e-08,0,5810,5810
285.402,7.81149e-08,0,5854,5854
285.452,8.32716e-08,0,5894,5894
285.501,8.88002e-08,0,5918,5918
285.551,9.46848e-08,0,5940,5940
285.601,1.00879e-07,0,5962,5962
285.651,1.07366e-07,0,6012,6012
285.701,1.14162e-07,0,6015,6015
285.75,1.2133e-07,0,6033,6033
285.8,1.29004e-07,0,6039,6039
285.853,1.37902e-07,0,6041,6041
285.903,1.47312e-07,0,6045,6045
285.952,1.58011e-07,0,6053,6053
286.002,1.70334e-07,0,6071,6071
286.052,1.84621e-07,0,6065,6065
286.102,2.01198e-07,0,6073,6073
286.152,2.20358e-07,0,6089,6089
286.201,2.42329e-07,0,6059,6059
286.251,2.67262e-07,0,6037,6037
286.301,2.95196e-07,0,5997,5997
286.351,3.26057e-07,0,5951,5951
286.401,3.59639e-07,0,5913,5913
286.45,3.95606e-07,0,5876,5876
286.5,4.33487e-07,0,5846,5846
286.553,4.75016e-07,0,5772,5772
286.603,5.14816e-07,0,5722,5722
286.653,5.54328e-07,0,5664,5664
286.702,5.92643e-07,0,5626,5626
286.752,6.28815e-07,0,5576,5576
286.802,6.61926e-07,0,5536,5536
286.852,6.91142e-07,0,5478,5478
286.901,7.15772e-07,0,5436,5436
286.951,7.35306e-07,0,5388,5388
287.001,7.49434e-07,0,5344,5344
287.051,7.58029e-07,0,5294,5294
287.101,7.61108e-07,0,5238,5238
287.15,7.58789e-07,0,5186,5186
287.2,7.51231e-07,0,5160,5160
287.25,7.38606e-07,0,5108,5108
287.303,7.19906e-07,0,5068,5068
287.353,6.97398e-07,0,5026,5026
287.402,6.70406e-07,0,4976,4976
287.452,6.39221e-07,0,4942,4942
287.502,6.0424e-07,0,4888,4888
287.552,5.65984e-07,0,4854,4854
287.602,5.25095e-07,0,4822,4822
287.651,4.82315e-07,0,4764,4764
287.701,4.38441e-07,0,4736,4736
287.751,3.94277e-07,0,4710,4710
287.801,3.50584e-07,0,4676,4676
287.851,3.08033e-07,0,4650,4650
287.9,2.67183e-07,0,4604,4604
287.95,2.28468e-07,0,4556,4556
288.003,1.90155e-07,0,4516,4516
288.053,1.56721e-07,0,4478,4478
288.102,1.26085e-07,0,4442,4442
288.152,9.8296e-08,0,4404,4404
288.202,7.33408e-08,0,4354,4354
288.252,5.11505e-08,0,4312,4312
288.302,3.16085e-08,0,4280,4280
288.351,1.45594e-08,0,4227,4227
288.401,-1.77455e-10,0,4197,4197
288.451,-1.27948e-08,0,4173,4173
288.501,-2.34839e-08,0,4145,4145
288.551,-3.24255e-08,0,4145,4145
288.6,-3.97859e-08,0,4153,4153
288.65,-4.57166e-08,0,4141,4141
288.7,-5.03575e-08,0,4151,4151
288.753,-5.40187e-08,0,4135,4135
288.803,-5.64589e-08,0,4139,4139
288.852,-5.79594e-08,0,4154,4154
288.902,-5.81386e-08,0,4142,4142
288.952,-5.80499e-08,0,4146,4146
289.002,-5.77883e-08,0,4114,4114
289.052,-5.71643e-08,0,3984,3984
289.101,-5.62826e-08,0,3880,3880
289.151,-5.43948e-08,0,3820,3820
289.201,-5.15602e-08,0,3720,3720
289.251,-4.85347e-08,0,3636,3636
289.301,-4.53604e-08,0,3536,3536
289.35,-4.21031e-08,0,3470,3470
289.4,-3.88228e-08,0,3416,3416
289.453,-3.54098e-08,0,3334,3334
289.503,-3.22777e-08,0,3290,3290
289.552,-2.92833e-08,0,3224,3224
289.602,-2.64698e-08,0,3178,3178
289.652,-2.38574e-08,0,3118,3118
289.702,-2.14521e-08,0,3064,3064
289.752,-1.92684e-08,0,3020,3020
289.801,-1.73058e-08,0,2974,2974
289.851,-1.55685e-08,0,2924,2924
289.901,-1.40357e-08,0,2880,2880
289.951,-1.26988e-08,0,2814,2814
290.001,-1.15491e-08,0,2774,2774
290.05,-1.05774e-08,0,2710,2710
290.1,-9.78226e-09,0,2702,2702
290.15,-9.16085e-09,0,2618,2618
290.203,-8.64245e-09,0,2574,2574
290.253,-8.33167e-09,0,2454,2454
290.302,-8.27238e-09,0,2372,2372
290.352,-8.29402e-09,0,2286,2286
290.402,-8.32774e-09,0,2214,2214
290.452,-8.38731e-09,0,2094,2094
290.502,-8.4664e-09,0,2010,2010
290.551,-8.56132e-09,0,1946,1946
290.601,-8.67228e-09,0,1924,1924
290.651,-8.79592e-09,0,1902,1902
290.701,-8.9306e-09,0,1864,1864
290.751,-9.07379e-09,0,1822,1822
290.8,-9.2231e-09,0,1818,1818
290.85,-9.3749e-09,0,1936,1936
290.903,-9.53539e-09,0,1832,1832
290.953,-9.68447e-09,0,1776,1776
291.002,-9.82891e-09,0,1720,1720
291.052,-9.96699e-09,0,1664,1664
291.102,-1.00975e-08,0,1622,1622
291.152,-1.02196e-08,0,1608,1608
291.202,-1.03328e-08,0,1574,1574
291.251,-1.04366e-08,0,1550,1550
291.301,-1.05306e-08,0,1500,1500
291.351,-1.06147e-08,0,1448,1448
291.401,-1.06893e-08,0,1406,1406
291.451,-1.07548e-08,0,1370,1370
291.5,-1.08118e-08,0,1332,1332
291.55,-1.08607e-08,0,1290,1290
291.6,-1.09019e-08,0,1256,1256
291.653,-1.09382e-08,0,1202,1202
291.703,-1.09662e-08,0,1160,1160
291.752,-1.09889e-08,0,1122,1122
291.802,-1.1007e-08,0,1084,1084
291.852,-1.10211e-08,0,1036,1036
291.9,-1.10315e-08,0,1010,1010
291.953,-1.10399e-08,0,1011,1011
292,-1.10453e-08,0,1019,1019
292.054,-1.10498e-08,0,1027,1027
292.102,-1.1053e-08,0,1025,1025
292.155,-1.10568e-08,0,1033,1033
292.203,-1.10611e-08,0,1035,1035
292.251,-1.10666e-08,0,1035,1035
292.305,-1.10749e-08,0,1037,1037
292.354,-1.10847e-08,0,1039,1039
292.402,-1.10971e-08,0,1051,1051
292.452,-1.11132e-08,0,1055,1055
292.503,-1.11342e-08,0,1065,1065
292.555,-1.11598e-08,0,1071,1071
292.6,-1.11865e-08,0,1065,1065
292.652,-1.12219e-08,0,1045,1045
292.703,-1.12628e-08,0,1045,1045
292.754,-1.13095e-08,0,1037,1037
292.805,-1.1362e-08,0,1031,1031
292.855,-1.14206e-08,0,1013,1013
292.906,-1.14856e-08,0,1017,1017
292.95,-1.15478e-08,0,1013,1013
293,-1.16254e-08,0,1017,1017
293.051,-1.17101e-08,0,1009,1009
293.1,-1.18021e-08,0,1003,1003
293.15,-1.19019e-08,0,1023,1023
293.206,-1.20238e-08,0,1015,1015
293.256,-1.2141e-08,0,1013,1013
293.305,-1.22668e-08,0,1015,1015
293.354,-1.24013e-08,0,1007,1007
293.403,-1.25448e-08,0,1007,1007
293.452,-1.26975e-08,0,1003,1003
293.5,-1.28593e-08,0,1009,1009
293.555,-1.30519e-08,0,1005,1005
293.603,-1.32318e-08,0,997,997
293.652,-1.34194e-08,0,1011,1011
293.706,-1.36387e-08,0,1025,1025
293.753,-1.38406e-08,0,1037,1037
293.801,-1.4049e-08,0,1049,1049
293.855,-1.42907e-08,0,1049,1049
293.902,-1.45115e-08,0,1047,1047
293.955,-1.47659e-08,0,1045,1045
294.003,-1.49968e-08,0,1045,1045
294.056,-1.52855e-08,0,1045,1045
294.102,-1.57419e-08,0,1049,1049
294.155,-1.62017e-08,0,1045,1045
294.202,-1.65649e-08,0,1045,1045
294.255,-1.69799e-08,0,1043,1043
294.302,-1.73248e-08,0,1041,1041
294.354,-1.77285e-08,0,1047,1047
294.401,-1.80718e-08,0,1043,1043
294.454,-1.8462e-08,0,1045,1045
294.501,-1.87983e-08,0,1047,1047
294.554,-1.91686e-08,0,1047,1047
294.6,-1.94879e-08,0,1041,1041
294.653,-1.98305e-08,0,1041,1041
294.7,-2.01223e-08,0,1047,1047
294.753,-2.04289e-08,0,1043,1043
294.805,-2.07152e-08,0,1045,1045
294.852,-2.0948e-08,0,1047,1047
294.905,-2.11871e-08,0,1047,1047
294.952,-2.13772e-08,0,1041,1041
295.005,-2.15662e-08,0,1041,1041
295.052,-2.17121e-08,0,1025,1025
295.104,-2.18513e-08,0,1005,1005
295.151,-2.1963e-08,0,987,987
295.204,-2.20297e-08,0,962,962
295.251,-2.20526e-08,0,944,944
295.303,-2.20672e-08,0,926,926
295.35,-2.20696e-08,0,922,922
295.403,-2.20581e-08,0,916,916
295.456,-2.20359e-08,0,912,912
295.503,-2.20054e-08,0,922,922
295.555,-2.19598e-08,0,910,910
295.602,-2.19086e-08,0,918,918
295.655,-2.18413e-08,0,920,920
295.702,-2.17734e-08,0,912,912
295.755,-2.16886e-08,0,911,911
295.8,-2.16086e-08,0,911,911
295.855,-2.15046e-08,0,913,913
295.905,-2.14057e-08,0,909,909
295.954,-2.13027e-08,0,919,919
296.003,-2.11961e-08,0,909,909
296.053,-2.10867e-08,0,907,907
296.102,-2.09755e-08,0,915,915
296.151,-2.08633e-08,0,911,911
296.2,-2.07506e-08,0,915,915
296.255,-2.06253e-08,0,917,917
296.304,-2.05134e-08,0,909,909
296.352,-2.04028e-08,0,911,911
296.401,-2.02938e-08,0,909,909
296.455,-2.01752e-08,0,897,897
296.504,-2.00708e-08,0,901,901
296.553,-1.9969e-08,0,901,901
296.601,-1.98698e-08,0,891,891
296.655,-1.97629e-08,0,897,897
296.703,-1.96695e-08,0,897,897
296.752,-1.95789e-08,0,887,887
296.805,-1.94814e-08,0,893,893
296.853,-1.93963e-08,0,882,882
296.901,-1.93138e-08,0,874,874
296.955,-1.9225e-08,0,876,876
297.003,-1.91474e-08,0,870,870
297.051,-1.90719e-08,0,866,866
297.104,-1.89903e-08,0,862,862
297.152,-1.89187e-08,0,866,866
297.205,-1.8841e-08,0,854,854
297.252,-1.87727e-08,0,854,854
297.305,-1.86983e-08,0,854,854
297.353,-1.86326e-08,0,846,846
297.405,-1.85609e-08,0,854,854
297.453,-1.84972e-08,0,854,854
297.505,-1.84274e-08,0,852,852
297.552,-1.83651e-08,0,854,854
297.605,-1.82964e-08,0,854,854
297.651,-1.82349e-08,0,854,854
297.703,-1.81669e-08,0,846,846
297.755,-1.80988e-08,0,856,856
297.801,-1.80374e-08,0,854,854
297.853,-1.79689e-08,0,848,848
297.904,-1.78998e-08,0,852,852
297.955,-1.783e-08,0,852,852
298,-1.77665e-08,0,848,848
298.051,-1.7695e-08,0,850,850
298.101,-1.76223e-08,0,856,856
298.151,-1.75483e-08,0,848,848
298.201,-1.7473e-08,0,852,852
298.251,-1.7396e-08,0,856,856
298.3,-1.73173e-08,0,856,856
298.355,-1.72286e-08,0,848,848
298.404,-1.71458e-08,0,852,852
298.453,-1.70608e-08,0,856,856
298.502,-1.69735e-08,0,862,862
298.55,-1.68837e-08,0,852,852
298.604,-1.67819e-08,0,858,858
298.652,-1.66864e-08,0,860,860
298.7,-1.65881e-08,0,854,854
298.753,-1.64765e-08,0,854,854
298.801,-1.63716e-08,0,858,858
298.853,-1.62524e-08,0,860,860
298.901,-1.61405e-08,0,858,858
298.953,-1.60133e-08,0,864,864
299.005,-1.58817e-08,0,862,862
299.052,-1.57581e-08,0,864,864
299.103,-1.56178e-08,0,858,858
299.154,-1.54728e-08,0,864,864
299.201,-1.53368e-08,0,870,870
299.252,-1.51825e-08,0,868,868
299.303,-1.50235e-08,0,866,866
299.353,-1.48597e-08,0,870,870
299.404,-1.46911e-08,0,866,866
299.454,-1.45177e-08,0,874,874
299.504,-1.43396e-08,0,872,872
299.554,-1.41573e-08,0,870,870
299.604,-1.39708e-08,0,872,872
299.653,-1.37802e-08,0,874,874
299.703,-1.35858e-08,0,876,876
299.752,-1.33878e-08,0,872,872
299.801,-1.31864e-08,0,872,872
299.85,-1.29816e-08,0,874,874
299.904,-1.27542e-08,0,878,878
299.952,-1.25419e-08,0,880,880
300.001,-1.23262e-08,0,878,878
300.053,-1.20863e-08,0,878,878
300.102,-1.1862e-08,0,884,884
300.154,-1.16122e-08,0,882,882
300.202,-1.13367e-08,0,880,880
300.254,-1.08593e-08,0,884,884
300.302,-1.04734e-08,0,884,884
300.353,-1.00689e-08,0,884,884
300.401,-9.70228e-09,0,884,884
300.452,-9.30907e-09,0,886,886
300.503,-8.90007e-09,0,888,888
300.55,-8.5249e-09,0,886,886
300.601,-8.09852e-09,0,890,890
300.652,-7.66435e-09,0,888,888
300.702,-7.21435e-09,0,890,890
300.753,-6.75237e-09,0,890,890
300.803,-6.27583e-09,0,898,898
300.853,-5.78517e-09,0,886,886
300.903,-5.28254e-09,0,886,886
300.953,-4.63472e-09,0,892,892
301.003,-4.01352e-09,0,892,892
301.053,-3.42717e-09,0,890,890
301.102,-2.86925e-09,0,900,900
301.152,-2.32136e-09,0,896,896
301.202,-1.78936e-09,0,890,890
301.251,-1.27249e-09,0,892,892
301.301,-7.7125e-10,0,892,892
301.351,-2.91925e-10,0,898,898
301.401,1.67807e-10,0,900,900
301.45,6.00809e-10,0,900,900
301.5,1.009e-09,0,896,896
301.554,1.41774e-09,0,894,894
301.604,1.76467e-09,0,892,892
301.653,2.08033e-09,0,894,894
301.703,2.36476e-09,0,898,898
301.753,2.61838e-09,0,896,896
301.802,2.84113e-09,0,904,904
301.852,3.03673e-09,0,900,900
301.902,3.19942e-09,0,891,891
301.952,3.3351e-09,0,885,885
302.001,3.44605e-09,0,875,875
302.051,3.51716e-09,0,873,873
302.101,3.53818e-09,0,865,865
302.15,3.55043e-09,0,861,861
302.2,3.55477e-09,0,849,849
302.254,3.55218e-09,0,841,841
302.304,3.54136e-09,0,831,831
302.353,3.52411e-09,0,823,823
302.403,3.50179e-09,0,819,819
302.453,3.47453e-09,0,811,811
302.503,3.44207e-09,0,809,809
302.552,3.4053e-09,0,793,793
302.602,3.36526e-09,0,789,789
302.652,3.32251e-09,0,787,787
302.701,3.27765e-09,0,771,771
302.751,3.23104e-09,0,755,755
302.801,3.1834e-09,0,743,743
302.851,3.1355e-09,0,725,725
302.9,3.08768e-09,0,713,713
302.954,3.03637e-09,0,697,697
303.004,2.98993e-09,0,681,681
303.053,2.94487e-09,0,669,669
303.103,2.90146e-09,0,657,657
303.153,2.85978e-09,0,643,643
303.203,2.81994e-09,0,627,627
303.252,2.78209e-09,0,611,611
303.302,2.74627e-09,0,597,597
303.352,2.71243e-09,0,585,585
303.403,2.67935e-09,0,565,565
303.45,2.65077e-09,0,561,561
303.503,2.62028e-09,0,551,551
303.556,2.5914e-09,0,539,539
303.602,2.56691e-09,0,529,529
303.655,2.54044e-09,0,519,519
303.706,2.51577e-09,0,512,512
303.753,2.49346e-09,0,512,512
303.811,2.46606e-09,0,512,512
303.858,2.44438e-09,0,512,512
303.905,2.42279e-09,0,512,512
303.952,2.40118e-09,0,512,512
304.01,2.37405e-09,0,512,512
304.057,2.35226e-09,0,512,512
304.104,2.3304e-09,0,512,512
304.151,2.30847e-09,0,512,512
304.21,2.28097e-09,0,512,512
304.257,2.25893e-09,0,512,512
304.303,2.23692e-09,0,512,512
304.35,2.21506e-09,0,512,512
304.409,2.18822e-09,0,512,512
304.456,2.16742e-09,0,512,512
304.503,2.14744e-09,0,512,512
304.561,2.12384e-09,0,512,512
304.608,2.10622e-09,0,512,512
304.655,2.08986e-09,0,512,512
304.702,2.07494e-09,0,512,512
304.76,2.05852e-09,0,512,512
304.807,2.04727e-09,0,512,512
304.854,2.03772e-09,0,512,512
304.901,2.02991e-09,0,512,512
304.96,2.02264e-09,0,512,512
