250,0,0,8192,8192
250.003,0,0,8192,8192
250.053,0,0,8192,8192
250.103,0,0,8192,8192
250.152,0,0,8192,8192
250.202,2.77556e-17,0,8192,8192
250.252,0,0,8192,8192
250.302,0,0,8192,8192
250.352,-2.77556e-17,0,8192,8192
250.401,-2.77556e-17,0,8192,8192
250.451,-2.77556e-17,0,8192,8192
250.501,-2.77556e-17,0,8192,8192
250.551,-2.77556e-17,0,8192,8192
250.6,-2.77556e-17,0,8192,8192
250.65,-2.77556e-17,0,8192,8192
250.7,-2.77556e-17,0,8192,8192
250.753,-2.77556e-17,0,8192,8192
250.803,-2.77556e-17,0,8192,8192
250.852,-2.77556e-17,0,8192,8192
250.902,-2.77556e-17,0,8192,8192
250.952,-2.77556e-17,0,8192,8192
251.002,-2.77556e-17,0,8192,8192
251.052,-2.77556e-17,0,8192,8192
251.101,-2.77556e-17,0,8192,8192
251.151,-2.77556e-17,0,8192,8192
251.201,-2.77556e-17,0,8192,8192
251.251,-2.77556e-17,0,8192,8192
251.301,-2.77556e-17,0,8192,8192
251.35,-2.77556e-17,0,8192,8192
251.4,-2.77556e-17,0,8192,8192
251.453,-2.77556e-17,0,8192,8192
251.503,-2.77556e-17,0,8192,8192
251.553,0,0,8192,8192
251.602,2.77556e-17,0,8192,8192
251.652,2.77556e-17,0,8192,8192
251.702,5.55112e-17,0,8192,8192
251.752,5.55112e-17,0,8192,8192
251.801,0,0,8192,8192
251.851,0,0,8192,8192
251.901,0,0,8192,8192
251.951,0,0,8192,8192
252.001,0,0,8192,8192
252.05,0,0,8192,8192
252.1,0,0,8192,8192
252.15,2.77556e-17,0,8192,8192
252.203,2.77556e-17,0,8192,8192
252.253,-2.77556e-17,0,8192,8192
252.302,-2.77556e-17,0,8192,8192
252.352,-2.77556e-17,0,8192,8192
252.402,-2.77556e-17,0,8192,8192
252.452,-2.77556e-17,0,8192,8192
252.502,-2.77556e-17,0,8192,8192
252.551,-2.77556e-17,0,8192,8192
252.601,-2.77556e-17,0,8192,8192
252.651,-2.77556e-17,0,8192,8192
252.701,-2.77556e-17,0,8192,8192
252.751,-2.77556e-17,0,8192,8192
252.8,-2.77556e-17,0,8192,8192
252.85,-2.77556e-17,0,8192,8192
252.903,-2.77556e-17,0,8192,8192
252.953,-2.77556e-17,0,8192,8192
253.002,-2.77556e-17,0,8192,8192
253.052,2.77556e-17,0,8192,8192
253.102,0,0,8192,8192
253.152,2.77556e-17,0,8192,8192
253.202,2.77556e-17,0,8192,8192
253.251,2.77556e-17,0,8192,8192
253.301,2.77556e-17,0,8192,8192
253.351,2.77556e-17,0,8192,8192
253.401,2.77556e-17,0,8192,8192
253.451,2.77556e-17,0,8192,8192
253.5,2.77556e-17,0,8192,8192
253.55,2.77556e-17,0,8192,8192
253.6,2.77556e-17,0,8192,8192
253.653,2.77556e-17,0,8192,8192
253.703,2.77556e-17,0,8192,8192
253.752,5.55112e-17,0,8192,8192
253.802,5.55112e-17,0,8192,8192
253.852,5.55112e-17,0,8192,8192
253.902,5.55112e-17,0,8192,8192
253.952,2.77556e-17,0,8192,8192
254.001,2.77556e-17,0,8192,8192
254.051,5.55112e-17,0,8192,8192
254.101,5.55112e-17,0,8192,8192
254.151,5.55112e-17,0,8192,8192
254.201,5.55112e-17,0,8192,8192
254.25,2.77556e-17,0,8192,8192
254.3,2.77556e-17,0,8192,8192
254.353,2.77556e-17,0,8192,8192
254.403,2.77556e-17,0,8192,8192
254.452,2.77556e-17,0,8192,8192
254.502,2.77556e-17,0,8192,8192
254.552,2.77556e-17,0,8192,8192
254.602,2.77556e-17,0,8192,8192
254.652,0,0,8192,8192
254.701,2.77556e-17,0,8192,8192
254.751,0,0,8192,8192
254.801,0,0,8192,8192
254.851,0,0,8192,8192
254.901,0,0,8192,8192
254.95,0,0,8192,8192
255,0,0,8192,8192
255.05,0,0,8192,8192
255.103,0,0,8192,8192
255.153,2.77556e-17,0,8192,8192
255.202,2.77556e-17,0,8192,8192
255.252,2.77556e-17,0,8192,8192
255.302,2.77556e-17,0,8192,8192
255.352,2.77556e-17,0,8192,8192
255.402,2.77556e-17,0,8192,8192
255.451,2.77556e-17,0,8192,8192
255.501,2.77556e-17,0,8192,8192
255.551,2.77556e-17,0,8192,8192
255.601,0,0,8192,8192
255.651,2.77556e-17,0,8192,8192
255.7,0,0,8192,8192
255.75,2.77556e-17,0,8192,8192
255.803,0,0,8192,8192
255.853,0,0,8192,8192
255.902,2.77556e-17,0,8192,8192
255.952,2.77556e-17,0,8192,8192
256.002,0,0,8192,8192
256.052,0,0,8192,8192
256.102,0,0,8192,8192
256.151,0,0,8192,8192
256.201,0,0,8192,8192
256.251,0,0,8192,8192
256.301,2.77556e-17,0,8192,8192
256.351,0,0,8192,8192
256.4,5.55112e-17,0,8192,8192
256.45,5.55112e-17,0,8192,8192
256.5,5.55112e-17,0,8192,8192
256.553,2.77556e-17,0,8192,8192
256.603,2.77556e-17,0,8192,8192
256.652,2.77556e-17,0,8192,8192
256.702,2.77556e-17,0,8192,8192
256.752,2.77556e-17,0,8192,8192
256.802,2.77556e-17,0,8192,8192
256.852,-2.77556e-17,0,8192,8192
256.901,-2.77556e-17,0,8192,8192
256.951,-2.77556e-17,0,8192,8192
257.001,-5.55112e-17,0,8192,8192
257.051,-5.55112e-17,0,8192,8192
257.101,-5.55112e-17,0,8192,8192
257.15,-2.77556e-17,0,8192,8192
257.2,-2.77556e-17,0,8192,8192
257.253,-2.77556e-17,0,8192,8192
257.303,-2.77556e-17,0,8192,8192
257.352,-2.77556e-17,0,8192,8192
257.402,-2.77556e-17,0,8192,8192
257.452,-2.77556e-17,0,8192,8192
257.502,-2.77556e-17,0,8192,8192
257.552,-2.77556e-17,0,8192,8192
257.601,-2.77556e-17,0,8192,8192
257.651,-2.77556e-17,0,8192,8192
257.701,-2.77556e-17,0,8192,8192
257.751,-2.77556e-17,0,8192,8192
257.801,-2.77556e-17,0,8192,8192
257.85,-2.77556e-17,0,8192,8192
257.9,-2.77556e-17,0,8192,8192
257.95,-2.77556e-17,0,8192,8192
258.003,-2.77556e-17,0,8192,8192
258.053,-2.77556e-17,0,8192,8192
258.102,-2.77556e-17,0,8192,8192
258.152,-2.77556e-17,0,8192,8192
258.202,-2.77556e-17,0,8192,8192
258.252,-2.77556e-17,0,8192,8192
258.302,-2.77556e-17,0,8192,8192
258.351,-2.77556e-17,0,8192,8192
258.401,-2.77556e-17,0,8192,8192
258.451,-2.77556e-17,0,8192,8192
258.501,-2.77556e-17,0,8192,8192
258.551,-2.77556e-17,0,8192,8192
258.6,-2.77556e-17,0,8192,8192
258.65,-2.77556e-17,0,8192,8192
258.703,-2.77556e-17,0,8192,8192
258.753,-2.77556e-17,0,8192,8192
258.802,-2.77556e-17,0,8192,8192
258.852,-2.77556e-17,0,8192,8192
258.902,-2.77556e-17,0,8192,8192
258.952,-2.77556e-17,0,8192,8192
259.002,-2.77556e-17,0,8192,8192
259.051,-2.77556e-17,0,8192,8192
259.101,-2.77556e-17,0,8192,8192
259.151,-2.77556e-17,0,8192,8192
259.201,-2.77556e-17,0,8192,8192
259.251,2.77556e-17,0,8192,8192
259.3,5.55112e-17,0,8192,8192
259.35,5.55112e-17,0,8192,8192
259.403,5.55112e-17,0,8192,8192
259.453,5.55112e-17,0,8192,8192
259.503,5.55112e-17,0,8192,8192
259.552,5.55112e-17,0,8192,8192
259.602,5.55112e-17,0,8192,8192
259.652,5.55112e-17,0,8192,8192
259.702,5.55112e-17,0,8192,8192
259.751,5.55112e-17,0,8192,8192
259.801,5.55112e-17,0,8192,8192
259.851,5.55112e-17,0,8192,8192
259.901,5.55112e-17,0,8192,8192
259.951,5.55112e-17,0,8192,8192
260,2.77556e-17,0,8192,8192
260.05,2.77556e-17,0,8192,8192
260.1,2.77556e-17,0,8192,8192
260.153,2.77556e-17,0,8192,8192
260.203,2.77556e-17,0,8192,8192
260.252,5.55112e-17,0,8192,8192
260.302,5.55112e-17,0,8192,8192
260.352,2.77556e-17,0,8192,8192
260.402,5.55112e-17,0,8192,8192
260.452,5.55112e-17,0,8192,8192
260.501,5.55112e-17,0,8192,8192
260.551,5.55112e-17,0,8192,8192
260.601,5.55112e-17,0,8192,8192
260.651,5.55112e-17,0,8192,8192
260.701,5.55112e-17,0,8192,8192
260.75,5.55112e-17,0,8192,8192
260.8,5.55112e-17,0,8192,8192
260.853,2.77556e-17,0,8192,8192
260.903,2.77556e-17,0,8192,8192
260.952,5.55112e-17,0,8192,8192
261.002,5.55112e-17,0,8192,8192
261.052,5.55112e-17,0,8192,8192
261.102,2.77556e-17,0,8192,8192
261.152,2.77556e-17,0,8192,8192
261.201,2.77556e-17,0,8192,8192
261.251,2.77556e-17,0,8192,8192
261.301,2.77556e-17,0,8192,8192
261.351,2.77556e-17,0,8192,8192
261.401,2.77556e-17,0,8192,8192
261.45,2.77556e-17,0,8192,8192
261.5,2.77556e-17,0,8192,8192
261.55,2.77556e-17,0,8192,8192
261.603,2.77556e-17,0,8192,8192
261.653,2.77556e-17,0,8192,8192
261.702,2.77556e-17,0,8192,8192
261.752,2.77556e-17,0,8192,8192
261.802,2.77556e-17,0,8192,8192
261.852,2.77556e-17,0,8192,8192
261.902,2.77556e-17,0,8192,8192
261.951,2.77556e-17,0,8192,8192
262.001,2.77556e-17,0,8192,8192
262.051,2.77556e-17,0,8192,8192
262.101,2.77556e-17,0,8192,8192
262.151,0,0,8192,8192
262.2,0,0,8192,8192
262.25,0,0,8192,8192
262.303,-2.77556e-17,0,8192,8192
262.353,-2.77556e-17,0,8192,8192
262.402,-2.77556e-17,0,8192,8192
262.452,-2.77556e-17,0,8192,8192
262.502,-2.77556e-17,0,8192,8192
262.552,-2.77556e-17,0,8192,8192
262.602,2.77556e-17,0,8192,8192
262.651,2.77556e-17,0,8192,8192
262.701,2.77556e-17,0,8192,8192
262.751,2.77556e-17,0,8192,8192
262.801,2.77556e-17,0,8192,8192
262.851,2.77556e-17,0,8192,8192
262.9,2.77556e-17,0,8192,8192
262.95,0,0,8192,8192
263,0,0,8192,8192
263.053,0,0,8192,8192
263.103,2.77556e-17,0,8192,8192
263.152,2.77556e-17,0,8192,8192
263.202,2.77556e-17,0,8192,8192
263.252,0,0,8192,8192
263.302,0,0,8192,8192
263.352,2.77556e-17,0,8192,8192
263.401,2.77556e-17,0,8192,8192
263.451,0,0,8192,8192
263.501,0,0,8192,8192
263.551,2.77556e-17,0,8192,8192
263.601,2.77556e-17,0,8192,8192
263.65,0,0,8192,8192
263.7,0,0,8192,8192
263.753,2.77556e-17,0,8192,8192
263.803,0,0,8192,8192
263.852,0,0,8192,8192
263.902,0,0,8192,8192
263.952,0,0,8192,8192
264.002,-2.77556e-17,0,8192,8192
264.052,-2.77556e-17,0,8192,8192
264.101,-8.32667e-17,0,8192,8192
264.151,-8.32667e-17,0,8192,8192
264.201,-8.32667e-17,0,8192,8192
264.251,-8.32667e-17,0,8192,8192
264.301,-8.32667e-17,0,8192,8192
264.35,-8.32667e-17,0,8192,8192
264.4,-8.32667e-17,0,8192,8192
264.45,-5.55112e-17,0,8192,8192
264.503,-2.77556e-17,0,8192,8192
264.553,-2.77556e-17,0,8192,8192
264.602,-2.77556e-17,0,8192,8192
264.652,-2.77556e-17,0,8192,8192
264.702,-2.77556e-17,0,8192,8192
264.752,-2.77556e-17,0,8192,8192
264.802,-2.77556e-17,0,8192,8192
264.851,-2.77556e-17,0,8192,8192
264.901,-2.77556e-17,0,8192,8192
264.951,-5.55112e-17,0,8192,8192
265.001,-2.77556e-17,0,8192,8192
265.051,-5.55112e-17,0,8192,8192
265.1,-5.55112e-17,0,8192,8192
265.15,-5.55112e-17,0,8192,8192
265.203,-5.55112e-17,0,8192,8192
265.253,-5.55112e-17,0,8192,8192
265.302,-2.77556e-17,0,8192,8192
265.352,-5.55112e-17,0,8192,8192
265.402,-2.77556e-17,0,8192,8192
265.452,-5.55112e-17,0,8192,8192
265.502,-5.55112e-17,0,8192,8192
265.551,-2.77556e-17,0,8192,8192
265.601,0,0,8192,8192
265.651,0,0,8192,8192
265.701,0,0,8192,8192
265.751,0,0,8192,8192
265.8,0,0,8192,8192
265.85,0,0,8192,8192
265.9,0,0,8192,8192
265.953,0,0,8192,8192
266.003,0,0,8192,8192
266.052,0,0,8192,8192
266.102,0,0,8192,8192
266.152,2.77556e-17,0,8192,8192
266.202,0,0,8192,8192
266.252,0,0,8192,8192
266.301,0,0,8192,8192
266.351,0,0,8192,8192
266.401,-2.77556e-17,0,8192,8192
266.451,-2.77556e-17,0,8192,8192
266.501,0,0,8192,8192
266.55,0,0,8192,8192
266.6,0,0,8192,8192
266.653,0,0,8192,8192
266.703,0,0,8192,8192
266.752,0,0,8192,8192
266.802,0,0,8192,8192
266.852,0,0,8192,8192
266.902,0,0,8192,8192
266.952,0,0,8192,8192
267.001,0,0,8192,8192
267.051,0,0,8192,8192
267.101,-2.77556e-17,0,8192,8192
267.151,-2.77556e-17,0,8192,8192
267.201,0,0,8192,8192
267.25,0,0,8192,8192
267.3,0,0,8192,8192
267.353,0,0,8192,8192
267.403,0,0,8192,8192
267.453,0,0,8192,8192
267.502,2.77556e-17,0,8192,8192
267.552,2.77556e-17,0,8192,8192
267.602,0,0,8192,8192
267.652,0,0,8192,8192
267.702,0,0,8192,8192
267.751,0,0,8192,8192
267.801,0,0,8192,8192
267.851,0,0,8192,8192
267.901,0,0,8192,8192
267.95,2.77556e-17,0,8192,8192
268,0,0,8192,8192
268.05,0,0,8192,8192
268.103,0,0,8192,8192
268.153,0,0,8192,8192
268.202,0,0,8192,8192
268.252,0,0,8192,8192
268.302,0,0,8192,8192
268.352,0,0,8192,8192
268.402,0,0,8192,8192
268.451,0,0,8192,8192
268.501,0,0,8192,8192
268.551,-2.77556e-17,0,8192,8192
268.601,0,0,8192,8192
268.651,-2.77556e-17,0,8192,8192
268.7,-2.77556e-17,0,8192,8192
268.75,0,0,8192,8192
268.803,-2.77556e-17,0,8192,8192
268.853,0,0,8192,8192
268.902,-2.77556e-17,0,8192,8192
268.952,-2.77556e-17,0,8192,8192
269.002,0,0,8192,8192
269.052,-5.55112e-17,0,8192,8192
269.102,-5.55112e-17,0,8192,8192
269.151,-5.55112e-17,0,8192,8192
269.201,-5.55112e-17,0,8192,8192
269.251,-5.55112e-17,0,8192,8192
269.301,-5.55112e-17,0,8192,8192
269.351,-5.55112e-17,0,8192,8192
269.4,-2.77556e-17,0,8192,8192
269.45,-5.55112e-17,0,8192,8192
269.5,-5.55112e-17,0,8192,8192
269.553,-5.55112e-17,0,8192,8192
269.603,-5.55112e-17,0,8192,8192
269.652,-5.55112e-17,0,8192,8192
269.702,-5.55112e-17,0,8192,8192
269.752,-5.55112e-17,0,8192,8192
269.802,-5.55112e-17,0,8192,8192
269.852,-5.55112e-17,0,8192,8192
269.901,-2.77556e-17,0,8192,8192
269.951,-5.55112e-17,0,8192,8192
270.001,-5.55112e-17,0,8192,8192
270.051,-5.55112e-17,0,8192,8192
270.101,-5.55112e-17,0,8192,8192
270.15,-5.55112e-17,0,8192,8192
270.2,-2.77556e-17,0,8192,8192
270.253,0,0,8192,8192
270.303,0,0,8192,8192
270.352,2.77556e-17,0,8192,8192
270.402,0,0,8192,8192
270.452,0,0,8192,8192
270.502,-2.77556e-17,0,8192,8192
270.552,-2.77556e-17,0,8192,8192
270.601,-2.77556e-17,0,8192,8192
270.651,-2.77556e-17,0,8192,8192
270.701,-2.77556e-17,0,8192,8192
270.751,-2.77556e-17,0,8192,8192
270.801,-2.77556e-17,0,8192,8192
270.85,-2.77556e-17,0,8192,8192
270.9,-2.77556e-17,0,8192,8192
270.95,-2.77556e-17,0,8192,8192
271.003,-2.77556e-17,0,8192,8192
271.053,-2.77556e-17,0,8192,8192
271.102,-2.77556e-17,0,8192,8192
271.152,-2.77556e-17,0,8192,8192
271.202,-2.77556e-17,0,8192,8192
271.252,-2.77556e-17,0,8192,8192
271.302,-2.77556e-17,0,8192,8192
271.351,-2.77556e-17,0,8192,8192
271.401,-2.77556e-17,0,8192,8192
271.451,-2.77556e-17,0,8192,8192
271.501,-2.77556e-17,0,8192,8192
271.551,-2.77556e-17,0,8192,8192
271.6,-2.77556e-17,0,8192,8192
271.65,-2.77556e-17,0,8192,8192
271.703,-2.77556e-17,0,8192,8192
271.753,-2.77556e-17,0,8192,8192
271.802,-2.77556e-17,0,8192,8192
271.852,-2.77556e-17,0,8192,8192
271.902,-2.77556e-17,0,8192,8192
271.952,-2.77556e-17,0,8192,8192
272.002,-2.77556e-17,0,8192,8192
272.051,-2.77556e-17,0,8192,8192
272.101,-2.77556e-17,0,8192,8192
272.151,-2.77556e-17,0,8192,8192
272.201,0,0,8192,8192
272.251,0,0,8192,8192
272.3,2.77556e-17,0,8192,8192
272.35,2.77556e-17,0,8192,8192
272.4,0,0,8192,8192
272.453,0,0,8192,8192
272.503,1.11022e-16,0,8192,8192
272.552,3.88578e-16,0,8192,8192
272.602,8.88178e-16,0,8192,8192
272.652,-5.82867e-15,0,8192,8192
272.702,-1.11189e-13,0,8192,8192
272.752,-8.78603e-13,0,8192,8192
272.801,-4.51791e-12,0,8192,8192
272.851,-1.67588e-11,0,8192,8192
272.901,-4.69838e-11,0,8192,8192
272.951,-1.0223e-10,0,8192,8192
273.001,-1.7521e-10,0,8192,8192
273.05,-2.37268e-10,0,8192,8192
273.1,-2.49823e-10,0,8192,8192
273.153,-1.86393e-10,0,8192,8192
273.203,-7.37072e-11,0,8192,8192
273.252,3.89067e-11,0,8192,8192
273.302,1.02998e-10,0,8192,8192
273.352,1.04929e-10,0,8192,8192
273.402,7.23351e-11,0,8192,8192
273.452,4.96286e-11,0,8192,8192
273.501,6.25233e-11,0,8192,8192
273.551,1.00501e-10,0,8192,8192
273.601,1.30681e-10,0,8192,8192
273.651,1.29238e-10,0,8192,8192
273.701,1.01981e-10,0,8192,8192
273.75,7.70471e-11,0,8192,8192
273.8,7.86058e-11,0,8192,8192
273.853,1.08244e-10,0,8192,8192
273.903,1.38344e-10,0,8192,8192
273.953,1.4573e-10,0,8192,8192
274.002,1.25346e-10,0,8192,8192
274.052,9.46629e-11,0,8192,8192
274.102,7.99682e-11,0,8192,8192
274.152,9.62003e-11,0,8192,8192
274.202,1.3377e-10,0,8192,8192
274.251,1.62258e-10,0,8192,8192
274.301,1.52562e-10,0,8192,8192
274.351,1.05374e-10,0,8192,8192
274.401,6.11055e-11,0,8192,8192
274.45,7.10899e-11,0,8192,8192
274.5,1.42636e-10,0,8192,8192
274.55,2.11333e-10,0,8192,8192
274.603,1.92638e-10,0,8192,8192
274.653,1.30887e-10,0,8192,8192
274.702,3.02632e-10,0,8192,8192
274.752,1.17411e-09,0,8192,8192
274.802,3.19845e-09,0,8192,8192
274.852,6.55925e-09,0,8192,8192
274.902,1.10343e-08,0,8192,8192
274.951,1.60734e-08,0,8192,8192
275.001,2.10474e-08,0,8192,8192
275.051,2.5536e-08,0,8192,8192
275.101,2.95255e-08,0,8192,8192
275.151,3.34396e-08,0,8192,8192
275.2,3.79924e-08,0,8192,8192
275.25,4.39384e-08,0,8192,8192
275.303,5.23869e-08,0,8192,8192
275.353,6.2749e-08,0,8192,8192
275.403,7.56677e-08,0,8192,8192
275.452,9.15054e-08,0,8192,8192
275.502,1.10879e-07,0,8192,8192
275.552,1.34603e-07,0,8192,8192
275.602,1.63462e-07,0,8192,8192
275.651,1.97925e-07,0,8192,8192
275.701,2.37924e-07,0,8192,8192
275.751,2.82842e-07,0,8192,8192
275.801,3.31745e-07,0,8192,8192
275.851,3.83763e-07,0,8192,8192
275.9,4.38364e-07,0,8192,8192
275.95,4.95287e-07,0,8192,8192
276,5.54122e-07,0,8192,8192
276.053,6.17328e-07,0,8192,8192
276.103,6.75885e-07,0,8192,8192
276.152,7.30808e-07,0,8192,8192
276.202,7.79623e-07,0,8192,8192
276.252,8.20463e-07,0,8192,8192
276.302,8.52441e-07,0,8192,8192
276.352,8.75708e-07,0,8192,8192
276.401,8.912e-07,0,8192,8192
276.451,9.00208e-07,0,8192,8192
276.501,9.03916e-07,0,8192,8192
276.551,9.03078e-07,0,8192,8192
276.601,8.97889e-07,0,8192,8192
276.65,8.88036e-07,0,8192,8192
276.7,8.72867e-07,0,8192,8192
276.753,8.50152e-07,0,8192,8192
276.803,8.21759e-07,0,8192,8192
276.852,7.86416e-07,0,8192,8192
276.902,7.44571e-07,0,8192,8192
276.952,6.97395e-07,0,8192,8192
277.002,6.46651e-07,0,8192,8192
277.052,5.94367e-07,0,8192,8192
277.101,5.42447e-07,0,8192,8192
277.151,4.92367e-07,0,8192,8192
277.201,4.45037e-07,0,8192,8192
277.251,4.00819e-07,0,8192,8192
277.301,3.59661e-07,0,8192,8192
277.35,3.21288e-07,0,8192,8192
277.4,2.85414e-07,0,8192,8192
277.45,2.51941e-07,0,8192,8192
277.503,2.19347e-07,0,8192,8192
277.553,1.91732e-07,0,8192,8192
277.602,1.67641e-07,0,8192,8192
277.652,1.47141e-07,0,8192,8192
277.702,1.29739e-07,0,8192,8192
277.752,1.14526e-07,0,8192,8192
277.802,1.00598e-07,0,8192,8192
277.851,8.74753e-08,0,8192,8192
277.901,7.52382e-08,0,8192,8192
277.951,6.43234e-08,0,8192,8192
278.001,5.5138e-08,0,8192,8192
278.051,4.7747e-08,0,8192,8192
278.1,4.17868e-08,0,8192,8192
278.15,3.66157e-08,0,8192,8192
278.203,3.13097e-08,0,8192,8192
278.253,2.61369e-08,0,8192,8192
278.302,2.09486e-08,0,8192,8192
278.352,1.62123e-08,0,8192,8192
278.402,1.24328e-08,0,8192,8192
278.452,9.87868e-09,0,8192,8192
278.502,8.48091e-09,0,8192,8192
278.551,7.92668e-09,0,8192,8192
278.601,7.84501e-09,0,8192,8192
278.651,7.95165e-09,0,8192,8192
278.701,8.09134e-09,0,8192,8192
278.751,8.20077e-09,0,8192,8192
278.8,8.25172e-09,0,8192,8192
278.85,8.22052e-09,0,8192,8192
278.9,8.09379e-09,0,8192,8192
278.953,7.87408e-09,0,8192,8192
279.003,7.63671e-09,0,8192,8192
279.052,7.42726e-09,0,8192,8192
279.102,7.27994e-09,0,8192,8192
279.152,7.19831e-09,0,8192,8192
279.202,7.16602e-09,0,8192,8192
279.252,7.16265e-09,0,8192,8192
279.301,7.17309e-09,0,8192,8192
279.351,7.18902e-09,0,8192,8192
279.401,7.20678e-09,0,8192,8192
279.451,7.22506e-09,0,8192,8192
279.501,7.24345e-09,0,8192,8192
279.55,7.26184e-09,0,8192,8192
279.6,7.28018e-09,0,8192,8192
279.653,7.29955e-09,0,8192,8192
279.703,7.3178e-09,0,8192,8192
279.752,7.33603e-09,0,8192,8192
279.802,7.3543e-09,0,8192,8192
279.852,7.37273e-09,0,8192,8192
279.902,7.39159e-09,0,8192,8192
279.952,7.41142e-09,0,8192,8192
280.001,7.43313e-09,0,8192,8192
280.051,7.45818e-09,0,8192,8192
280.101,7.48862e-09,0,8192,8192
280.151,7.52724e-09,0,8192,8192
280.201,7.57751e-09,0,8192,8192
280.25,7.64351e-09,0,8192,8192
280.3,7.72965e-09,0,8192,8192
280.35,7.84029e-09,0,8192,8192
280.403,7.9885e-09,0,8192,8192
280.453,8.16123e-09,0,8192,8192
280.502,8.36857e-09,0,8192,8192
280.552,8.61333e-09,0,8192,8192
280.602,8.89931e-09,0,8192,8192
280.652,9.23223e-09,0,8192,8192
280.702,9.62051e-09,0,8192,8192
280.751,1.00756e-08,0,8192,8192
280.801,1.06119e-08,0,8192,8192
280.851,1.12462e-08,0,8192,8192
280.901,1.19971e-08,0,8192,8192
280.951,1.28842e-08,0,8192,8192
281,1.3927e-08,0,8192,8192
281.05,1.51445e-08,0,8192,8192
281.103,1.66434e-08,0,8192,8192
281.153,1.82734e-08,0,8192,8192
281.202,2.01246e-08,0,8192,8192
281.252,2.22065e-08,0,8192,8192
281.302,2.45246e-08,0,8192,8192
281.352,2.70801e-08,0,8192,8192
281.402,2.98688e-08,0,8192,8192
281.451,3.2881e-08,0,8192,8192
281.501,3.61016e-08,0,8192,8192
281.551,3.95119e-08,0,8192,8192
281.601,4.30905e-08,0,8192,8192
281.651,4.68167e-08,0,8192,8192
281.7,5.06739e-08,0,8192,8192
281.75,5.46527e-08,0,8192,8192
281.8,5.87556e-08,0,8192,8192
281.853,6.32554e-08,0,8192,8192
281.903,6.76886e-08,0,8192,8192
281.952,7.23503e-08,0,8192,8192
282.002,7.72971e-08,0,8192,8192
282.052,8.25806e-08,0,8192,8192
282.102,8.82347e-08,0,8192,8192
282.152,9.42663e-08,0,8192,8192
282.201,1.00654e-07,0,8192,8192
282.251,1.07356e-07,0,8192,8192
282.301,1.14333e-07,0,8192,8192
282.351,1.21571e-07,0,8192,8192
282.401,1.2911e-07,0,8192,8192
282.45,1.37059e-07,0,8192,8192
282.5,1.45606e-07,0,8192,8192
282.553,1.55599e-07,0,8192,8192
282.603,1.66271e-07,0,8192,8192
282.652,1.78521e-07,0,8192,8192
282.702,1.92743e-07,0,8192,8192
282.752,2.09335e-07,0,8192,8192
282.802,2.28671e-07,0,8192,8192
282.852,2.51078e-07,0,8192,8192
282.901,2.76799e-07,0,8192,8192
282.951,3.05972e-07,0,8192,8192
283.001,3.38603e-07,0,8192,8192
283.051,3.74553e-07,0,8192,8192
283.101,4.13529e-07,0,8192,8192
283.15,4.55087e-07,0,8192,8192
283.2,4.98633e-07,0,8192,8192
283.253,5.46082e-07,0,8192,8192
283.303,5.91234e-07,0,8192,8192
283.353,6.3569e-07,0,8192,8192
283.402,6.78359e-07,0,8192,8192
283.452,7.18122e-07,0,8192,8192
283.502,7.53913e-07,0,8192,8192
283.552,7.84793e-07,0,8192,8192
283.601,8.10025e-07,0,8192,8192
283.651,8.29117e-07,0,8192,8192
283.701,8.41827e-07,0,8192,8192
283.751,8.4813e-07,0,8192,8192
283.801,8.48159e-07,0,8192,8192
283.85,8.42135e-07,0,8192,8192
283.9,8.30297e-07,0,8192,8192
283.95,8.12867e-07,0,8192,8192
284.003,7.88533e-07,0,8192,8192
284.053,7.60199e-07,0,8192,8192
284.102,7.26906e-07,0,8192,8192
284.152,6.88992e-07,0,8192,8192
284.202,6.46936e-07,0,8192,8192
284.252,6.01385e-07,0,8192,8192
284.302,5.5314e-07,0,8192,8192
284.351,5.03116e-07,0,8192,8192
284.401,4.52278e-07,0,8192,8192
284.451,4.01575e-07,0,8192,8192
284.501,3.51866e-07,0,8192,8192
284.551,3.03881e-07,0,8192,8192
284.6,2.58196e-07,0,8192,8192
284.65,2.15232e-07,0,8192,8192
284.703,1.73024e-07,0,8192,8192
284.753,1.36445e-07,0,8192,8192
284.802,1.03144e-07,0,8192,8192
284.852,7.31358e-08,0,8192,8192
284.902,4.63707e-08,0,8192,8192
284.952,2.27396e-08,0,8192,8192
285.002,2.07954e-09,0,8192,8192
285.051,-1.58134e-08,0,8192,8192
285.101,-3.11668e-08,0,8192,8192
285.151,-4.42123e-08,0,8192,8192
285.201,-5.51704e-08,0,8192,8192
285.251,-6.42431e-08,0,8192,8192
285.3,-7.16152e-08,0,8192,8192
285.35,-7.74598e-08,0,8192,8192
285.4,-8.19439e-08,0,8192,8192
285.453,-8.53876e-08,0,8192,8192
285.503,-8.75642e-08,0,8192,8192
285.552,-8.88259e-08,0,8192,8192
285.602,-8.92728e-08,0,8192,8192
285.652,-8.89773e-08,0,8192,8192
285.702,-8.79919e-08,0,8192,8192
285.752,-8.63621e-08,0,8192,8192
285.801,-8.41404e-08,0,8192,8192
285.851,-8.13969e-08,0,8192,8192
285.901,-7.82221e-08,0,8192,8192
285.951,-7.47244e-08,0,8192,8192
286.001,-7.10208e-08,0,8192,8192
286.05,-6.72263e-08,0,8192,8192
286.1,-6.34448e-08,0,8192,8192
286.153,-5.955e-08,0,8192,8192
286.203,-5.60422e-08,0,8192,8192
286.252,-5.27441e-08,0,8192,8192
286.302,-4.9681e-08,0,8192,8192
286.352,-4.68642e-08,0,8192,8192
286.402,-4.42953e-08,0,8192,8192
286.452,-4.197e-08,0,8192,8192
286.501,-3.98809e-08,0,8192,8192
286.551,-3.8019e-08,0,8192,8192
286.601,-3.63745e-08,0,8192,8192
286.651,-3.49373e-08,0,8192,8192
286.701,-3.36965e-08,0,8192,8192
286.75,-3.26404e-08,0,8192,8192
286.8,-3.17561e-08,0,8192,8192
286.85,-3.10301e-08,0,8192,8192
286.903,-3.04178e-08,0,8192,8192
286.953,-2.99721e-08,0,8192,8192
287.002,-2.96403e-08,0,8192,8192
287.052,-2.94081e-08,0,8192,8192
287.102,-2.92621e-08,0,8192,8192
287.152,-2.91897e-08,0,8192,8192
287.202,-2.91793e-08,0,8192,8192
287.251,-2.92203e-08,0,8192,8192
287.301,-2.93032e-08,0,8192,8192
287.351,-2.94195e-08,0,8192,8192
287.401,-2.95614e-08,0,8192,8192
287.451,-2.97224e-08,0,8192,8192
287.5,-2.98964e-08,0,8192,8192
287.55,-3.00783e-08,0,8192,8192
287.603,-3.02744e-08,0,8192,8192
287.653,-3.04587e-08,0,8192,8192
287.702,-3.06387e-08,0,8192,8192
287.752,-3.08112e-08,0,8192,8192
287.802,-3.09735e-08,0,8192,8192
287.852,-3.11232e-08,0,8192,8192
287.902,-3.12583e-08,0,8192,8192
287.951,-3.13771e-08,0,8192,8192
288.001,-3.14784e-08,0,8192,8192
288.051,-3.15613e-08,0,8192,8192
288.101,-3.16254e-08,0,8192,8192
288.151,-3.16707e-08,0,8192,8192
288.2,-3.16977e-08,0,8192,8192
288.25,-3.1707e-08,0,8192,8192
288.3,-3.16996e-08,0,8192,8192
288.353,-3.16747e-08,0,8192,8192
288.403,-3.16366e-08,0,8192,8192
288.452,-3.15854e-08,0,8192,8192
288.502,-3.15226e-08,0,8192,8192
288.552,-3.14494e-08,0,8192,8192
288.602,-3.1367e-08,0,8192,8192
288.652,-3.12765e-08,0,8192,8192
288.701,-3.11791e-08,0,8192,8192
288.751,-3.10755e-08,0,8192,8192
288.801,-3.09668e-08,0,8192,8192
288.851,-3.08536e-08,0,8192,8192
288.901,-3.07366e-08,0,8192,8192
288.95,-3.06165e-08,0,8192,8192
289,-3.04936e-08,0,8192,8192
289.053,-3.03608e-08,0,8192,8192
289.103,-3.02331e-08,0,8192,8192
289.152,-3.01031e-08,0,8192,8192
289.202,-2.99705e-08,0,8192,8192
289.252,-2.98347e-08,0,8192,8192
289.302,-2.96949e-08,0,8192,8192
289.352,-2.955e-08,0,8192,8192
289.401,-2.93987e-08,0,8192,8192
289.451,-2.92391e-08,0,8192,8192
289.501,-2.90694e-08,0,8192,8192
289.551,-2.88875e-08,0,8192,8192
289.601,-2.86911e-08,0,8192,8192
289.65,-2.8478e-08,0,8192,8192
289.7,-2.82459e-08,0,8192,8192
289.753,-2.79774e-08,0,8192,8192
289.803,-2.77007e-08,0,8192,8192
289.853,-2.74002e-08,0,8192,8192
289.902,-2.70756e-08,0,8192,8192
289.952,-2.67271e-08,0,8192,8192
290.002,-2.63556e-08,0,8192,8192
290.052,-2.5963e-08,0,8192,8192
290.102,-2.55521e-08,0,8192,8192
290.151,-2.51266e-08,0,8192,8192
290.201,-2.46906e-08,0,8192,8192
290.251,-2.42492e-08,0,8192,8192
290.301,-2.38077e-08,0,8192,8192
290.35,-2.33719e-08,0,8192,8192
290.4,-2.29475e-08,0,8192,8192
290.45,-2.25402e-08,0,8192,8192
290.503,-2.21334e-08,0,8192,8192
290.553,-2.17775e-08,0,8192,8192
290.602,-2.14538e-08,0,8192,8192
290.652,-2.11658e-08,0,8192,8192
290.702,-2.09169e-08,0,8192,8192
290.752,-2.07091e-08,0,8192,8192
290.802,-2.05443e-08,0,8192,8192
290.851,-2.04231e-08,0,8192,8192
290.901,-2.03454e-08,0,8192,8192
290.951,-2.03104e-08,0,8192,8192
291.001,-2.03163e-08,0,8192,8192
291.051,-2.03605e-08,0,8192,8192
291.1,-2.04401e-08,0,8192,8192
291.15,-2.05511e-08,0,8192,8192
291.203,-2.06982e-08,0,8192,8192
291.253,-2.08601e-08,0,8192,8192
291.302,-2.10395e-08,0,8192,8192
291.352,-2.12313e-08,0,8192,8192
291.402,-2.14306e-08,0,8192,8192
291.452,-2.16324e-08,0,8192,8192
291.502,-2.18323e-08,0,8192,8192
291.551,-2.20257e-08,0,8192,8192
291.601,-2.22089e-08,0,8192,8192
291.651,-2.23785e-08,0,8192,8192
291.701,-2.25316e-08,0,8192,8192
291.751,-2.26659e-08,0,8192,8192
291.8,-2.27799e-08,0,8192,8192
291.85,-2.28723e-08,0,8192,8192
291.9,-2.29428e-08,0,8192,8192
291.953,-2.29936e-08,0,8192,8192
292.003,-2.30194e-08,0,8192,8192
292.052,-2.30247e-08,0,8192,8192
292.102,-2.30104e-08,0,8192,8192
292.152,-2.29778e-08,0,8192,8192
292.202,-2.2928e-08,0,8192,8192
292.252,-2.28625e-08,0,8192,8192
292.301,-2.27822e-08,0,8192,8192
292.351,-2.26883e-08,0,8192,8192
292.401,-2.25819e-08,0,8192,8192
292.451,-2.24637e-08,0,8192,8192
292.501,-2.23347e-08,0,8192,8192
292.55,-2.21959e-08,0,8192,8192
292.6,-2.20482e-08,0,8192,8192
292.653,-2.18835e-08,0,8192,8192
292.703,-2.17213e-08,0,8192,8192
292.752,-2.15541e-08,0,8192,8192
292.802,-2.13836e-08,0,8192,8192
292.852,-2.12114e-08,0,8192,8192
292.902,-2.10394e-08,0,8192,8192
292.952,-2.08696e-08,0,8192,8192
293.001,-2.07038e-08,0,8192,8192
293.051,-2.05441e-08,0,8192,8192
293.101,-2.03922e-08,0,8192,8192
293.151,-2.02498e-08,0,8192,8192
293.201,-2.01184e-08,0,8192,8192
293.25,-1.99989e-08,0,8192,8192
293.3,-1.98921e-08,0,8192,8192
293.35,-1.97981e-08,0,8192,8192
293.403,-1.97122e-08,0,8192,8192
293.453,-1.96432e-08,0,8192,8192
293.502,-1.95848e-08,0,8192,8192
293.552,-1.95353e-08,0,8192,8192
293.602,-1.94934e-08,0,8192,8192
293.652,-1.94572e-08,0,8192,8192
293.702,-1.94253e-08,0,8192,8192
293.751,-1.93963e-08,0,8192,8192
293.801,-1.93691e-08,0,8192,8192
293.851,-1.93427e-08,0,8192,8192
293.901,-1.93162e-08,0,8192,8192
293.951,-1.92886e-08,0,8192,8192
294,-1.9259e-08,0,8192,8192
294.05,-1.92264e-08,0,8192,8192
294.103,-1.91874e-08,0,8192,8192
294.153,-1.91453e-08,0,8192,8192
294.202,-1.90969e-08,0,8192,8192
294.252,-1.90416e-08,0,8192,8192
294.302,-1.89788e-08,0,8192,8192
294.352,-1.89084e-08,0,8192,8192
294.402,-1.88304e-08,0,8192,8192
294.451,-1.87454e-08,0,8192,8192
294.501,-1.8654e-08,0,8192,8192
294.551,-1.8557e-08,0,8192,8192
294.601,-1.84553e-08,0,8192,8192
294.651,-1.83497e-08,0,8192,8192
294.7,-1.82411e-08,0,8192,8192
294.75,-1.81301e-08,0,8192,8192
294.8,-1.80175e-08,0,8192,8192
294.853,-1.78968e-08,0,8192,8192
294.903,-1.77819e-08,0,8192,8192
294.952,-1.76663e-08,0,8192,8192
295.002,-1.75502e-08,0,8192,8192
295.052,-1.74333e-08,0,8192,8192
295.102,-1.73158e-08,0,8192,8192
295.152,-1.71972e-08,0,8192,8192
295.201,-1.70774e-08,0,8192,8192
295.251,-1.6956e-08,0,8192,8192
295.301,-1.68327e-08,0,8192,8192
295.351,-1.67071e-08,0,8192,8192
295.401,-1.65788e-08,0,8192,8192
295.45,-1.64476e-08,0,8192,8192
295.5,-1.63129e-08,0,8192,8192
295.553,-1.61663e-08,0,8192,8192
295.603,-1.60238e-08,0,8192,8192
295.652,-1.58772e-08,0,8192,8192
295.702,-1.57262e-08,0,8192,8192
295.752,-1.55707e-08,0,8192,8192
295.802,-1.54108e-08,0,8192,8192
295.852,-1.52463e-08,0,8192,8192
295.901,-1.50771e-08,0,8192,8192
295.951,-1.49031e-08,0,8192,8192
296.001,-1.47243e-08,0,8192,8192
296.051,-1.45404e-08,0,8192,8192
296.101,-1.43512e-08,0,8192,8192
296.15,-1.41565e-08,0,8192,8192
296.2,-1.39562e-08,0,8192,8192
296.25,-1.37498e-08,0,8192,8192
296.303,-1.35246e-08,0,8192,8192
296.353,-1.33051e-08,0,8192,8192
296.402,-1.30787e-08,0,8192,8192
296.452,-1.28449e-08,0,8192,8192
296.502,-1.26032e-08,0,8192,8192
296.552,-1.2353e-08,0,8192,8192
296.602,-1.20934e-08,0,8192,8192
296.651,-1.18235e-08,0,8192,8192
296.701,-1.15422e-08,0,8192,8192
296.751,-1.12482e-08,0,8192,8192
296.801,-1.09401e-08,0,8192,8192
296.851,-1.06166e-08,0,8192,8192
296.9,-1.02759e-08,0,8192,8192
296.95,-9.91669e-09,0,8192,8192
297.003,-9.5145e-09,0,8192,8192
297.053,-9.11267e-09,0,8192,8192
297.102,-8.68838e-09,0,8192,8192
297.152,-8.24086e-09,0,8192,8192
297.202,-7.7697e-09,0,8192,8192
297.252,-7.27491e-09,0,8192,8192
297.302,-6.75699e-09,0,8192,8192
297.351,-6.21693e-09,0,8192,8192
297.401,-5.65624e-09,0,8192,8192
297.451,-5.07698e-09,0,8192,8192
297.501,-4.48165e-09,0,8192,8192
297.551,-3.87325e-09,0,8192,8192
297.6,-3.25511e-09,0,8192,8192
297.65,-2.63091e-09,0,8192,8192
297.703,-1.96773e-09,0,8192,8192
297.753,-1.34349e-09,0,8192,8192
297.803,-7.25476e-10,0,8192,8192
297.852,-1.17789e-10,0,8192,8192
297.902,4.75571e-10,0,8192,8192
297.952,1.05075e-09,0,8192,8192
298.002,1.60412e-09,0,8192,8192
298.052,2.13231e-09,0,8192,8192
298.101,2.63226e-09,0,8192,8192
298.151,3.1013e-09,0,8192,8192
298.201,3.53713e-09,0,8192,8192
298.251,3.93791e-09,0,8192,8192
298.3,4.30228e-09,0,8192,8192
298.35,4.62935e-09,0,8192,8192
298.4,4.91873e-09,0,8192,8192
298.453,5.18416e-09,0,8192,8192
298.503,5.39676e-09,0,8192,8192
298.552,5.57338e-09,0,8192,8192
298.602,5.71543e-09,0,8192,8192
298.652,5.82464e-09,0,8192,8192
298.702,5.90303e-09,0,8192,8192
298.752,5.9528e-09,0,8192,8192
298.801,5.97635e-09,0,8192,8192
298.851,5.97613e-09,0,8192,8192
298.901,5.95467e-09,0,8192,8192
298.951,5.91446e-09,0,8192,8192
299.001,5.85796e-09,0,8192,8192
299.05,5.78754e-09,0,8192,8192
299.1,5.70546e-09,0,8192,8192
299.153,5.6082e-09,0,8192,8192
299.203,5.50863e-09,0,8192,8192
299.253,5.40342e-09,0,8192,8192
299.302,5.29424e-09,0,8192,8192
299.352,5.18263e-09,0,8192,8192
299.402,5.06996e-09,0,8192,8192
299.452,4.95755e-09,0,8192,8192
299.501,4.84657e-09,0,8192,8192
299.551,4.73811e-09,0,8192,8192
299.601,4.63321e-09,0,8192,8192
299.651,4.53278e-09,0,8192,8192
299.701,4.43767e-09,0,8192,8192
299.75,4.34859e-09,0,8192,8192
299.8,4.26615e-09,0,8192,8192
299.85,4.19078e-09,0,8192,8192
299.903,4.11898e-09,0,8192,8192
299.953,4.0588e-09,0,8192,8192
300.002,4.00587e-09,0,8192,8192
300.052,3.95982e-09,0,8192,8192
300.102,3.92007e-09,0,8192,8192
300.152,3.88582e-09,0,8192,8192
300.202,3.8561e-09,0,8192,8192
300.251,3.82982e-09,0,8192,8192
300.301,3.80574e-09,0,8192,8192
300.351,3.7826e-09,0,8192,8192
300.401,3.75916e-09,0,8192,8192
300.451,3.73419e-09,0,8192,8192
300.5,3.70664e-09,0,8192,8192
300.55,3.67558e-09,0,8192,8192
300.603,3.63812e-09,0,8192,8192
300.653,3.59796e-09,0,8192,8192
300.702,3.55298e-09,0,8192,8192
300.752,3.50329e-09,0,8192,8192
300.802,3.44921e-09,0,8192,8192
300.852,3.39129e-09,0,8192,8192
300.902,3.33022e-09,0,8192,8192
300.951,3.2668e-09,0,8192,8192
301.001,3.2019e-09,0,8192,8192
301.051,3.13637e-09,0,8192,8192
301.101,3.07107e-09,0,8192,8192
301.151,3.00681e-09,0,8192,8192
301.2,2.94434e-09,0,8192,8192
301.25,2.88439e-09,0,8192,8192
301.3,2.82762e-09,0,8192,8192
301.353,2.77168e-09,0,8192,8192
301.403,2.72337e-09,0,8192,8192
301.452,2.67997e-09,0,8192,8192
301.502,2.64192e-09,0,8192,8192
301.552,2.60951e-09,0,8192,8192
301.602,2.58292e-09,0,8192,8192
301.652,2.56218e-09,0,8192,8192
301.701,2.54714e-09,0,8192,8192
301.751,2.5375e-09,0,8192,8192
301.801,2.53281e-09,0,8192,8192
301.851,2.53249e-09,0,8192,8192
301.901,2.53586e-09,0,8192,8192
301.95,2.54221e-09,0,8192,8192
302,2.55077e-09,0,8192,8192
302.053,2.56143e-09,0,8192,8192
302.103,2.57229e-09,0,8192,8192
302.152,2.58326e-09,0,8192,8192
302.202,2.5938e-09,0,8192,8192
302.252,2.60344e-09,0,8192,8192
302.302,2.61182e-09,0,8192,8192
302.352,2.61865e-09,0,8192,8192
302.401,2.62373e-09,0,8192,8192
302.451,2.62694e-09,0,8192,8192
302.501,2.62822e-09,0,8192,8192
302.551,2.62756e-09,0,8192,8192
302.601,2.62499e-09,0,8192,8192
302.65,2.62058e-09,0,8192,8192
302.7,2.61442e-09,0,8192,8192
302.75,2.6066e-09,0,8192,8192
302.803,2.59664e-09,0,8192,8192
302.853,2.58574e-09,0,8192,8192
302.902,2.57348e-09,0,8192,8192
302.952,2.55996e-09,0,8192,8192
303.002,2.54523e-09,0,8192,8192
303.052,2.52936e-09,0,8192,8192
303.102,2.51239e-09,0,8192,8192
303.151,2.49437e-09,0,8192,8192
303.201,2.47536e-09,0,8192,8192
303.251,2.45541e-09,0,8192,8192
303.301,2.43458e-09,0,8192,8192
303.351,2.41295e-09,0,8192,8192
303.4,2.39062e-09,0,8192,8192
303.45,2.36768e-09,0,8192,8192
303.503,2.34286e-09,0,8192,8192
303.553,2.31904e-09,0,8192,8192
303.602,2.29497e-09,0,8192,8192
303.652,2.27076e-09,0,8192,8192
303.702,2.24652e-09,0,8192,8192
303.752,2.22233e-09,0,8192,8192
303.802,2.19829e-09,0,8192,8192
303.851,2.17447e-09,0,8192,8192
303.901,2.15092e-09,0,8192,8192
303.951,2.12769e-09,0,8192,8192
304.001,2.10482e-09,0,8192,8192
304.051,2.08234e-09,0,8192,8192
304.1,2.06024e-09,0,8192,8192
304.15,2.03855e-09,0,8192,8192
304.2,2.01726e-09,0,8192,8192
304.253,1.99512e-09,0,8192,8192
304.303,1.97459e-09,0,8192,8192
304.352,1.9544e-09,0,8192,8192
304.402,1.9345e-09,0,8192,8192
304.452,1.91486e-09,0,8192,8192
304.502,1.89543e-09,0,8192,8192
304.552,1.87617e-09,0,8192,8192
304.601,1.85702e-09,0,8192,8192
304.651,1.83794e-09,0,8192,8192
304.701,1.81887e-09,0,8192,8192
304.751,1.79975e-09,0,8192,8192
304.801,1.78054e-09,0,8192,8192
304.85,1.76119e-09,0,8192,8192
304.9,1.74165e-09,0,8192,8192
304.953,1.72071e-09,0,8192,8192
