250,0,0,8192,8192
250.003,0,0,8192,8192
250.053,0,0,8192,8192
250.103,0,0,8192,8192
250.152,0,0,8192,8192
250.202,0,0,8192,8192
250.252,0,0,8192,8192
250.302,0,0,8192,8192
250.352,-1.38778e-17,0,8192,8192
250.401,-1.38778e-17,0,8192,8192
250.451,-2.77556e-17,0,8192,8192
250.501,-2.77556e-17,0,8192,8192
250.551,-1.38778e-17,0,8192,8192
250.6,-1.38778e-17,0,8192,8192
250.65,-1.38778e-17,0,8192,8192
250.7,-4.16334e-17,0,8192,8192
250.753,-1.38778e-17,0,8192,8192
250.803,0,0,8192,8192
250.852,0,0,8192,8192
250.902,0,0,8192,8192
250.952,0,0,8192,8192
251.002,-1.38778e-17,0,8192,8192
251.052,0,0,8192,8192
251.101,0,0,8192,8192
251.151,0,0,8192,8192
251.201,0,0,8192,8192
251.251,0,0,8192,8192
251.301,0,0,8192,8192
251.35,1.38778e-17,0,8192,8192
251.4,1.38778e-17,0,8192,8192
251.453,1.38778e-17,0,8192,8192
251.503,1.38778e-17,0,8192,8192
251.553,1.38778e-17,0,8192,8192
251.602,1.38778e-17,0,8192,8192
251.652,0,0,8192,8192
251.702,0,0,8192,8192
251.752,0,0,8192,8192
251.801,0,0,8192,8192
251.851,0,0,8192,8192
251.901,0,0,8192,8192
251.951,0,0,8192,8192
252.001,-1.38778e-17,0,8192,8192
252.05,0,0,8192,8192
252.1,-1.38778e-17,0,8192,8192
252.15,0,0,8192,8192
252.203,0,0,8192,8192
252.253,0,0,8192,8192
252.302,0,0,8192,8192
252.352,0,0,8192,8192
252.402,0,0,8192,8192
252.452,0,0,8192,8192
252.502,0,0,8192,8192
252.551,0,0,8192,8192
252.601,0,0,8192,8192
252.651,-1.38778e-17,0,8192,8192
252.701,0,0,8192,8192
252.751,0,0,8192,8192
252.8,0,0,8192,8192
252.85,-1.38778e-17,0,8192,8192
252.903,1.38778e-17,0,8192,8192
252.953,2.77556e-17,0,8192,8192
253.002,2.77556e-17,0,8192,8192
253.052,2.77556e-17,0,8192,8192
253.102,2.77556e-17,0,8192,8192
253.152,4.16334e-17,0,8192,8192
253.202,4.16334e-17,0,8192,8192
253.251,2.77556e-17,0,8192,8192
253.301,2.77556e-17,0,8192,8192
253.351,4.16334e-17,0,8192,8192
253.401,2.77556e-17,0,8192,8192
253.451,2.77556e-17,0,8192,8192
253.5,2.77556e-17,0,8192,8192
253.55,2.77556e-17,0,8192,8192
253.6,1.38778e-17,0,8192,8192
253.653,1.38778e-17,0,8192,8192
253.703,1.38778e-17,0,8192,8192
253.752,1.38778e-17,0,8192,8192
253.802,0,0,8192,8192
253.852,-1.38778e-17,0,8192,8192
253.902,-1.38778e-17,0,8192,8192
253.952,0,0,8192,8192
254.001,0,0,8192,8192
254.051,1.38778e-17,0,8192,8192
254.101,1.38778e-17,0,8192,8192
254.151,2.77556e-17,0,8192,8192
254.201,1.38778e-17,0,8192,8192
254.25,2.77556e-17,0,8192,8192
254.3,2.77556e-17,0,8192,8192
254.353,2.77556e-17,0,8192,8192
254.403,1.38778e-17,0,8192,8192
254.452,1.38778e-17,0,8192,8192
254.502,1.38778e-17,0,8192,8192
254.552,1.38778e-17,0,8192,8192
254.602,1.38778e-17,0,8192,8192
254.652,2.77556e-17,0,8192,8192
254.701,2.77556e-17,0,8192,8192
254.751,0,0,8192,8192
254.801,0,0,8192,8192
254.851,-1.38778e-17,0,8192,8192
254.901,0,0,8192,8192
254.95,-2.77556e-17,0,8192,8192
255,-1.38778e-17,0,8192,8192
255.05,0,0,8192,8192
255.103,0,0,8192,8192
255.153,1.38778e-17,0,8192,8192
255.202,2.77556e-17,0,8192,8192
255.252,1.38778e-17,0,8192,8192
255.302,1.38778e-17,0,8192,8192
255.352,1.38778e-17,0,8192,8192
255.402,2.77556e-17,0,8192,8192
255.451,2.77556e-17,0,8192,8192
255.501,2.77556e-17,0,8192,8192
255.551,1.38778e-17,0,8192,8192
255.601,1.38778e-17,0,8192,8192
255.651,1.38778e-17,0,8192,8192
255.7,2.77556e-17,0,8192,8192
255.75,2.77556e-17,0,8192,8192
255.803,1.38778e-17,0,8192,8192
255.853,1.38778e-17,0,8192,8192
255.902,1.38778e-17,0,8192,8192
255.952,1.38778e-17,0,8192,8192
256.002,1.38778e-17,0,8192,8192
256.052,1.38778e-17,0,8192,8192
256.102,0,0,8192,8192
256.151,-1.38778e-17,0,8192,8192
256.201,0,0,8192,8192
256.251,0,0,8192,8192
256.301,-1.38778e-17,0,8192,8192
256.351,0,0,8192,8192
256.4,0,0,8192,8192
256.45,0,0,8192,8192
256.5,-1.38778e-17,0,8192,8192
256.553,-1.38778e-17,0,8192,8192
256.603,-2.77556e-17,0,8192,8192
256.652,-1.38778e-17,0,8192,8192
256.702,-1.38778e-17,0,8192,8192
256.752,-2.77556e-17,0,8192,8192
256.802,0,0,8192,8192
256.852,0,0,8192,8192
256.901,0,0,8192,8192
256.951,0,0,8192,8192
257.001,0,0,8192,8192
257.051,0,0,8192,8192
257.101,0,0,8192,8192
257.15,0,0,8192,8192
257.2,0,0,8192,8192
257.253,0,0,8192,8192
257.303,0,0,8192,8192
257.352,1.38778e-17,0,8192,8192
257.402,2.77556e-17,0,8192,8192
257.452,1.38778e-17,0,8192,8192
257.502,2.77556e-17,0,8192,8192
257.552,1.38778e-17,0,8192,8192
257.601,2.77556e-17,0,8192,8192
257.651,4.16334e-17,0,8192,8192
257.701,4.16334e-17,0,8192,8192
257.751,2.77556e-17,0,8192,8192
257.801,2.77556e-17,0,8192,8192
257.85,4.16334e-17,0,8192,8192
257.9,4.16334e-17,0,8192,8192
257.95,2.77556e-17,0,8192,8192
258.003,1.38778e-17,0,8192,8192
258.053,1.38778e-17,0,8192,8192
258.102,1.38778e-17,0,8192,8192
258.152,2.77556e-17,0,8192,8192
258.202,2.77556e-17,0,8192,8192
258.252,2.77556e-17,0,8192,8192
258.302,2.77556e-17,0,8192,8192
258.351,2.77556e-17,0,8192,8192
258.401,1.38778e-17,0,8192,8192
258.451,1.38778e-17,0,8192,8192
258.501,1.38778e-17,0,8192,8192
258.551,1.38778e-17,0,8192,8192
258.6,1.38778e-17,0,8192,8192
258.65,1.38778e-17,0,8192,8192
258.703,2.77556e-17,0,8192,8192
258.753,2.77556e-17,0,8192,8192
258.802,2.77556e-17,0,8192,8192
258.852,1.38778e-17,0,8192,8192
258.902,1.38778e-17,0,8192,8192
258.952,2.77556e-17,0,8192,8192
259.002,2.77556e-17,0,8192,8192
259.051,1.38778e-17,0,8192,8192
259.101,1.38778e-17,0,8192,8192
259.151,2.77556e-17,0,8192,8192
259.201,2.77556e-17,0,8192,8192
259.251,1.38778e-17,0,8192,8192
259.3,2.77556e-17,0,8192,8192
259.35,2.77556e-17,0,8192,8192
259.403,1.38778e-17,0,8192,8192
259.453,2.77556e-17,0,8192,8192
259.503,2.77556e-17,0,8192,8192
259.552,2.77556e-17,0,8192,8192
259.602,4.16334e-17,0,8192,8192
259.652,2.77556e-17,0,8192,8192
259.702,2.77556e-17,0,8192,8192
259.751,2.77556e-17,0,8192,8192
259.801,2.77556e-17,0,8192,8192
259.851,4.16334e-17,0,8192,8192
259.901,4.16334e-17,0,8192,8192
259.951,4.16334e-17,0,8192,8192
260,2.77556e-17,0,8192,8192
260.05,4.16334e-17,0,8192,8192
260.1,4.16334e-17,0,8192,8192
260.153,4.16334e-17,0,8192,8192
260.203,2.77556e-17,0,8192,8192
260.252,5.55112e-17,0,8192,8192
260.302,5.55112e-17,0,8192,8192
260.352,2.77556e-17,0,8192,8192
260.402,1.38778e-17,0,8192,8192
260.452,1.38778e-17,0,8192,8192
260.501,1.38778e-17,0,8192,8192
260.551,1.38778e-17,0,8192,8192
260.601,1.38778e-17,0,8192,8192
260.651,2.77556e-17,0,8192,8192
260.701,2.77556e-17,0,8192,8192
260.75,2.77556e-17,0,8192,8192
260.8,2.77556e-17,0,8192,8192
260.853,2.77556e-17,0,8192,8192
260.903,2.77556e-17,0,8192,8192
260.952,2.77556e-17,0,8192,8192
261.002,2.77556e-17,0,8192,8192
261.052,4.16334e-17,0,8192,8192
261.102,1.38778e-17,0,8192,8192
261.152,1.38778e-17,0,8192,8192
261.201,1.38778e-17,0,8192,8192
261.251,2.77556e-17,0,8192,8192
261.301,2.77556e-17,0,8192,8192
261.351,2.77556e-17,0,8192,8192
261.401,2.77556e-17,0,8192,8192
261.45,2.77556e-17,0,8192,8192
261.5,4.16334e-17,0,8192,8192
261.55,2.77556e-17,0,8192,8192
261.603,0,0,8192,8192
261.653,2.77556e-17,0,8192,8192
261.702,4.16334e-17,0,8192,8192
261.752,2.77556e-17,0,8192,8192
261.802,0,0,8192,8192
261.852,0,0,8192,8192
261.902,0,0,8192,8192
261.951,0,0,8192,8192
262.001,0,0,8192,8192
262.051,0,0,8192,8192
262.101,0,0,8192,8192
262.151,0,0,8192,8192
262.2,0,0,8192,8192
262.25,0,0,8192,8192
262.303,0,0,8192,8192
262.353,-1.38778e-17,0,8192,8192
262.402,-1.38778e-17,0,8192,8192
262.452,-1.38778e-17,0,8192,8192
262.502,-1.38778e-17,0,8192,8192
262.552,-1.38778e-17,0,8192,8192
262.602,0,0,8192,8192
262.651,0,0,8192,8192
262.701,0,0,8192,8192
262.751,0,0,8192,8192
262.801,0,0,8192,8192
262.851,0,0,8192,8192
262.9,0,0,8192,8192
262.95,0,0,8192,8192
263,-1.38778e-17,0,8192,8192
263.053,-1.38778e-17,0,8192,8192
263.103,-4.16334e-17,0,8192,8192
263.152,-2.77556e-17,0,8192,8192
263.202,-2.77556e-17,0,8192,8192
263.252,-2.77556e-17,0,8192,8192
263.302,-2.77556e-17,0,8192,8192
263.352,-2.77556e-17,0,8192,8192
263.401,-2.77556e-17,0,8192,8192
263.451,-2.77556e-17,0,8192,8192
263.501,-1.38778e-17,0,8192,8192
263.551,-1.38778e-17,0,8192,8192
263.601,-2.77556e-17,0,8192,8192
263.65,-2.77556e-17,0,8192,8192
263.7,1.38778e-17,0,8192,8192
263.753,1.38778e-17,0,8192,8192
263.803,-1.38778e-17,0,8192,8192
263.852,-1.38778e-17,0,8192,8192
263.902,-1.38778e-17,0,8192,8192
263.952,-1.38778e-17,0,8192,8192
264.002,0,0,8192,8192
264.052,-2.77556e-17,0,8192,8192
264.101,-1.38778e-17,0,8192,8192
264.151,-4.16334e-17,0,8192,8192
264.201,0,0,8192,8192
264.251,-1.38778e-17,0,8192,8192
264.301,0,0,8192,8192
264.35,-1.38778e-17,0,8192,8192
264.4,0,0,8192,8192
264.45,0,0,8192,8192
264.503,0,0,8192,8192
264.553,0,0,8192,8192
264.602,0,0,8192,8192
264.652,0,0,8192,8192
264.702,1.38778e-17,0,8192,8192
264.752,0,0,8192,8192
264.802,0,0,8192,8192
264.851,0,0,8192,8192
264.901,-1.38778e-17,0,8192,8192
264.951,-1.38778e-17,0,8192,8192
265.001,-1.38778e-17,0,8192,8192
265.051,0,0,8192,8192
265.1,0,0,8192,8192
265.15,0,0,8192,8192
265.203,1.38778e-17,0,8192,8192
265.253,1.38778e-17,0,8192,8192
265.302,1.38778e-17,0,8192,8192
265.352,1.38778e-17,0,8192,8192
265.402,0,0,8192,8192
265.452,0,0,8192,8192
265.502,0,0,8192,8192
265.551,0,0,8192,8192
265.601,0,0,8192,8192
265.651,0,0,8192,8192
265.701,1.38778e-17,0,8192,8192
265.751,1.38778e-17,0,8192,8192
265.8,2.77556e-17,0,8192,8192
265.85,2.77556e-17,0,8192,8192
265.9,1.38778e-17,0,8192,8192
265.953,2.77556e-17,0,8192,8192
266.003,2.77556e-17,0,8192,8192
266.052,2.77556e-17,0,8192,8192
266.102,1.38778e-17,0,8192,8192
266.152,1.38778e-17,0,8192,8192
266.202,2.77556e-17,0,8192,8192
266.252,1.38778e-17,0,8192,8192
266.301,1.38778e-17,0,8192,8192
266.351,0,0,8192,8192
266.401,0,0,8192,8192
266.451,-1.38778e-17,0,8192,8192
266.501,0,0,8192,8192
266.55,0,0,8192,8192
266.6,0,0,8192,8192
266.653,0,0,8192,8192
266.703,1.38778e-17,0,8192,8192
266.752,0,0,8192,8192
266.802,2.77556e-17,0,8192,8192
266.852,2.77556e-17,0,8192,8192
266.902,1.38778e-17,0,8192,8192
266.952,1.38778e-17,0,8192,8192
267.001,0,0,8192,8192
267.051,0,0,8192,8192
267.101,0,0,8192,8192
267.151,1.38778e-17,0,8192,8192
267.201,2.77556e-17,0,8192,8192
267.25,2.77556e-17,0,8192,8192
267.3,4.16334e-17,0,8192,8192
267.353,4.16334e-17,0,8192,8192
267.403,6.93889e-17,0,8192,8192
267.453,6.93889e-17,0,8192,8192
267.502,5.55112e-17,0,8192,8192
267.552,2.77556e-17,0,8192,8192
267.602,2.77556e-17,0,8192,8192
267.652,2.77556e-17,0,8192,8192
267.702,1.38778e-17,0,8192,8192
267.751,1.38778e-17,0,8192,8192
267.801,1.38778e-17,0,8192,8192
267.851,2.77556e-17,0,8192,8192
267.901,1.38778e-17,0,8192,8192
267.95,1.38778e-17,0,8192,8192
268,1.38778e-17,0,8192,8192
268.05,2.77556e-17,0,8192,8192
268.1,2.77556e-17,0,9116,9116
268.151,2.77556e-17,0,9956,9956
268.2,2.77556e-17,0,10796,10796
268.25,2.77556e-17,0,11588,11588
268.301,2.77556e-17,0,12068,12068
268.351,2.77556e-17,0,12908,12908
268.4,2.77556e-17,0,13748,13748
268.45,2.77556e-17,0,14588,14588
268.501,2.77556e-17,0,15428,15428
268.55,2.77556e-17,0,16268,16268
268.6,2.77556e-17,0,17108,17108
268.65,2.77556e-17,0,17948,17948
268.701,2.77556e-17,0,18812,18812
268.75,2.77556e-17,0,19612,19612
268.8,2.77556e-17,0,20324,20324
268.851,2.77556e-17,0,21132,21132
268.9,2.77556e-17,0,21812,21812
268.95,2.77556e-17,0,22620,22620
269,2.77556e-17,0,23420,23420
269.051,2.77556e-17,0,24196,24196
269.1,2.77556e-17,0,24796,24796
269.15,2.77556e-17,0,25124,25124
269.201,2.77556e-17,0,25964,25964
269.251,2.77556e-17,0,26404,26404
269.3,2.77556e-17,0,27036,27036
269.35,2.77556e-17,0,27868,27868
269.401,2.77556e-17,0,28596,28596
269.45,2.77556e-17,0,29452,29452
269.5,2.77556e-17,0,30204,30204
269.55,2.77556e-17,0,30956,30956
269.601,2.77556e-17,0,31732,31732
269.65,2.77556e-17,0,32476,32476
269.7,2.77556e-17,0,33268,33268
269.751,2.77556e-17,0,34068,34068
269.8,2.77556e-17,0,34804,34804
269.85,2.77556e-17,0,35636,35636
269.9,2.77556e-17,0,36324,36324
269.951,2.77556e-17,0,36980,36980
270,2.77556e-17,0,37212,37212
270.05,2.77556e-17,0,37916,37916
270.1,2.77556e-17,0,38748,38748
270.151,2.77556e-17,0,39444,39444
270.2,2.77556e-17,0,40212,40212
270.25,2.77556e-17,0,40804,40804
270.301,2.77556e-17,0,41716,41716
270.35,2.77556e-17,0,42484,42484
270.4,2.77556e-17,0,43204,43204
270.45,2.77556e-17,0,44012,44012
270.501,2.77556e-17,0,44756,44756
270.55,2.77556e-17,0,45412,45412
270.6,2.77556e-17,0,46252,46252
270.651,2.77556e-17,0,47036,47036
270.701,2.77556e-17,0,47724,47724
270.75,2.77556e-17,0,48564,48564
270.8,2.77556e-17,0,49300,49300
270.851,2.77556e-17,0,50084,50084
270.9,2.77556e-17,0,50876,50876
270.95,2.77556e-17,0,51588,51588
271,2.77556e-17,0,52324,52324
271.051,2.77556e-17,0,53228,53228
271.1,2.77556e-17,0,53900,53900
271.15,2.77556e-17,0,54732,54732
271.201,2.77556e-17,0,55540,55540
271.25,2.77556e-17,0,56188,56188
271.3,2.77556e-17,0,56988,56988
271.35,2.77556e-17,0,57764,57764
271.401,2.77556e-17,0,58516,58516
271.45,2.77556e-17,0,59244,59244
271.5,2.77556e-17,0,59940,59940
271.551,2.77556e-17,0,60748,60748
271.601,2.77556e-17,0,61380,61380
271.65,2.77556e-17,0,62180,62180
271.7,2.77556e-17,0,62884,62884
271.751,2.77556e-17,0,63668,63668
271.8,2.77556e-17,0,64428,64428
271.85,2.77556e-17,0,65100,65100
271.9,2.77556e-17,0,65916,65916
271.951,2.77556e-17,0,66620,66620
272,2.77556e-17,0,67260,67260
272.05,2.77556e-17,0,67772,67772
272.101,2.77556e-17,0,68188,68188
272.15,2.77556e-17,0,68876,68876
272.2,2.77556e-17,0,69644,69644
272.25,2.77556e-17,0,70364,70364
272.301,2.77556e-17,0,71132,71132
272.35,2.77556e-17,0,71860,71860
272.4,2.77556e-17,0,72596,72596
272.451,2.77556e-17,0,73348,73348
272.501,2.77556e-17,0,73988,73988
272.55,2.77556e-17,0,74652,74652
272.6,2.77556e-17,0,75452,75452
272.651,2.77556e-17,0,76116,76116
272.7,2.77556e-17,0,76820,76820
272.75,2.77556e-17,0,77580,77580
272.8,2.77556e-17,0,78364,78364
272.851,2.77556e-17,0,79116,79116
272.9,2.77556e-17,0,80028,80028
272.95,2.77556e-17,0,81292,81292
273.001,2.77556e-17,0,82772,82772
273.05,2.77556e-17,0,83956,83956
273.1,2.77556e-17,0,84732,84732
273.15,2.77556e-17,0,85404,85404
273.201,2.77556e-17,0,86036,86036
273.25,2.77556e-17,0,86692,86692
273.3,2.77556e-17,0,87444,87444
273.35,2.77556e-17,0,88020,88020
273.401,2.77556e-17,0,88748,88748
273.45,2.77556e-17,0,89404,89404
273.5,2.77556e-17,0,90004,90004
273.551,2.77556e-17,0,90692,90692
273.6,2.77556e-17,0,91348,91348
273.65,2.77556e-17,0,92044,92044
273.7,2.77556e-17,0,92740,92740
273.751,2.77556e-17,0,93436,93436
273.8,2.77556e-17,0,93988,93988
273.85,2.77556e-17,0,94676,94676
273.901,2.77556e-17,0,95436,95436
273.951,2.77556e-17,0,96036,96036
274,2.77556e-17,0,96724,96724
274.05,2.77556e-17,0,97468,97468
274.101,2.77556e-17,0,98772,98772
274.15,2.77556e-17,0,99740,99740
274.2,2.77556e-17,0,100772,100772
274.25,2.77556e-17,0,101388,101388
274.301,2.77556e-17,0,101988,101988
274.35,2.77556e-17,0,102636,102636
274.4,2.77556e-17,0,103268,103268
274.451,2.77556e-17,0,103876,103876
274.5,6.93889e-17,0,104436,104436
274.55,1.38778e-16,0,105028,105028
274.6,3.05311e-16,0,105684,105684
274.651,4.16334e-16,0,106332,106332
274.7,4.71845e-16,0,106852,106852
274.75,5.68989e-16,0,107588,107588
274.801,6.245e-16,0,108212,108212
274.851,6.80012e-16,0,108740,108740
274.9,7.07767e-16,0,109484,109484
274.95,5.13478e-16,0,110012,110012
275.001,-3.84415e-15,0,110676,110676
275.05,-2.40363e-14,0,111364,111364
275.1,-8.97615e-14,0,111932,111932
275.15,-2.69937e-13,0,112548,112548
275.201,-7.16732e-13,0,112940,112940
275.25,-1.68493e-12,0,113660,113660
275.3,-3.61293e-12,0,114108,114108
275.351,-7.19483e-12,0,114740,114740
275.4,-1.31234e-11,0,115300,115300
275.45,-2.22665e-11,0,115948,115948
275.5,-3.52958e-11,0,116508,116508
275.551,-5.27668e-11,0,117172,117172
275.6,-7.38059e-11,0,117756,117756
275.65,-1.24394e-10,0,118292,118292
275.7,-3.01232e-10,0,119068,119068
275.751,-4.02644e-10,0,119668,119668
275.8,-3.11014e-10,0,120284,120284
275.85,-5.06767e-11,0,120884,120884
275.901,1.68812e-10,0,121444,121444
275.95,2.65859e-10,0,122044,122044
276,1.71156e-10,0,122596,122596
276.05,2.51806e-11,0,123412,123412
276.101,1.37549e-11,0,124572,124572
276.15,3.69521e-11,0,125684,125684
276.2,7.39295e-11,0,126644,126644
276.251,1.87815e-10,0,127124,127124
276.301,1.90036e-10,0,127764,127764
276.35,9.66219e-11,0,128228,128228
276.4,3.89761e-11,0,128692,128692
276.451,4.47695e-11,0,129156,129156
276.5,9.63774e-11,0,129772,129772
276.55,1.74054e-10,0,130800,130800
276.6,2.05308e-10,0,130792,130792
276.651,1.51192e-10,0,130776,130776
276.7,7.74971e-11,0,130760,130760
276.75,4.57018e-11,0,130640,130640
276.801,6.66689e-11,0,129968,129968
276.85,1.37484e-10,0,129352,129352
276.9,2.32613e-10,0,129376,129376
276.95,2.59429e-10,0,130152,130152
277.001,1.23349e-10,0,129720,129720
277.05,-5.34489e-11,0,129528,129528
277.1,-1.2631e-10,0,129960,129960
277.151,7.42444e-11,0,130064,130064
277.201,4.47679e-10,0,128808,128808
277.25,5.93696e-10,0,130088,130088
277.3,1.90689e-10,0,130304,130304
277.351,-5.1975e-10,0,130304,130304
277.4,-5.4452e-10,0,130624,130624
277.45,1.25548e-09,0,130896,130896
277.5,5.40759e-09,0,130944,130944
277.551,1.15073e-08,0,131072,131072
277.6,1.81463e-08,0,130896,130896
277.65,2.41583e-08,0,130544,130544
277.701,2.88773e-08,0,131072,131072
277.75,3.21873e-08,0,131072,131072
277.8,3.49867e-08,0,130712,130712
277.85,3.8683e-08,0,131072,131072
277.901,4.47131e-08,0,131072,131072
277.95,5.35511e-08,0,130784,130784
278,6.51175e-08,0,130880,130880
278.051,7.92286e-08,0,131072,131072
278.101,9.55889e-08,0,131040,131040
278.15,1.15314e-07,0,131040,131040
278.2,1.39813e-07,0,131072,131072
278.251,1.70949e-07,0,131072,131072
278.3,2.08685e-07,0,131072,131072
278.35,2.53387e-07,0,131040,131040
278.4,3.03963e-07,0,131072,131072
278.451,3.59403e-07,0,131072,131072
278.5,4.16401e-07,0,131072,131072
278.55,4.75236e-07,0,131072,131072
278.601,5.37629e-07,0,131072,131072
278.65,6.02633e-07,0,131072,131072
278.7,6.70434e-07,0,131072,131072
278.75,7.38249e-07,0,131072,131072
278.801,8.02999e-07,0,131072,131072
278.85,8.59076e-07,0,131072,131072
278.9,9.05053e-07,0,131072,131072
278.95,9.40104e-07,0,131072,131072
279.001,9.65219e-07,0,131072,131072
279.05,9.81553e-07,0,131072,131072
279.1,9.91825e-07,0,131072,131072
279.151,9.97906e-07,0,131072,131072
279.2,1.00044e-06,0,131072,131072
279.25,9.99376e-07,0,131072,131072
279.3,9.93763e-07,0,131072,131072
279.351,9.82149e-07,0,131072,131072
279.4,9.63848e-07,0,131072,131072
279.45,9.38303e-07,0,131072,131072
279.501,9.05172e-07,0,131072,131072
279.551,8.66161e-07,0,131072,131072
279.6,8.22128e-07,0,131072,131072
279.65,7.74843e-07,0,131072,131072
279.701,7.25545e-07,0,131072,131072
279.75,6.77443e-07,0,131072,131072
279.8,6.31257e-07,0,131072,131072
279.85,5.88181e-07,0,131072,131072
279.901,5.48676e-07,0,131072,131072
279.95,5.14546e-07,0,131072,131072
280,4.85307e-07,0,131072,131072
280.051,4.6028e-07,0,131072,131072
280.1,4.39817e-07,0,131072,131072
280.15,4.23847e-07,0,131072,131072
280.2,4.13846e-07,0,131072,131072
280.251,4.12099e-07,0,131072,131072
280.3,4.20415e-07,0,131072,131072
280.35,4.38661e-07,0,131072,131072
280.401,4.65258e-07,0,131072,131072
280.451,4.96547e-07,0,131072,131072
280.5,5.30727e-07,0,131072,131072
280.55,5.67219e-07,0,131072,131072
280.601,6.07353e-07,0,131072,131072
280.65,6.51019e-07,0,131072,131072
280.7,6.99006e-07,0,131072,131072
280.75,7.49893e-07,0,131072,131072
280.801,8.01162e-07,0,131072,131072
280.85,8.47003e-07,0,131072,131072
280.9,8.84387e-07,0,131072,131072
280.951,9.11656e-07,0,131072,131072
281,9.28193e-07,0,131072,131072
281.05,9.36043e-07,0,131072,131072
281.1,9.37074e-07,0,131072,131072
281.151,9.32639e-07,0,131072,131072
281.2,9.23752e-07,0,131072,131072
281.25,9.10807e-07,0,131072,131072
281.3,8.93863e-07,0,131072,131072
281.351,8.72258e-07,0,131072,131072
281.4,8.45933e-07,0,131072,131072
281.45,8.13708e-07,0,131072,131072
281.501,7.74085e-07,0,131072,131072
281.55,7.277e-07,0,131072,131072
281.6,6.74323e-07,0,131072,131072
281.65,6.15333e-07,0,131072,131072
281.701,5.52074e-07,0,131072,131072
281.75,4.88989e-07,0,131072,131072
281.8,4.27486e-07,0,131072,131072
281.851,3.68427e-07,0,131072,131072
281.901,3.14468e-07,0,131072,131072
281.95,2.64977e-07,0,131072,131072
282,2.19711e-07,0,131072,131072
282.051,1.77573e-07,0,131072,131072
282.1,1.39232e-07,0,131072,131072
282.15,1.03726e-07,0,131072,131072
282.2,7.11473e-08,0,131072,131072
282.251,4.16751e-08,0,131072,131072
282.3,1.69695e-08,0,131072,131072
282.35,-2.97828e-09,0,131072,131072
282.401,-1.88031e-08,0,131072,131072
282.45,-3.138e-08,0,131072,131072
282.5,-4.25094e-08,0,131072,131072
282.55,-5.30924e-08,0,131072,131072
282.601,-6.31304e-08,0,131072,131072
282.65,-7.14765e-08,0,131072,131072
282.7,-7.74523e-08,0,131072,131072
282.751,-8.08386e-08,0,131072,131072
282.801,-8.20112e-08,0,131072,131072
282.85,-8.19924e-08,0,131072,131072
282.9,-8.17976e-08,0,131072,131072
282.951,-8.20571e-08,0,131072,131072
283,-8.26945e-08,0,131072,131072
283.05,-8.30271e-08,0,131072,131072
283.1,-8.22133e-08,0,131072,131072
283.151,-7.97343e-08,0,131072,131072
283.2,-7.58029e-08,0,131072,131072
283.25,-7.09641e-08,0,131072,131072
283.301,-6.57597e-08,0,131072,131072
283.35,-6.07418e-08,0,131072,131072
283.4,-5.59788e-08,0,131072,131072
283.45,-5.14807e-08,0,131072,131072
283.501,-4.71867e-08,0,131072,131072
283.55,-4.32656e-08,0,131072,131072
283.6,-3.97212e-08,0,131072,131072
283.65,-3.65841e-08,0,131072,131072
283.701,-3.37684e-08,0,131072,131072
283.75,-3.12632e-08,0,131072,131072
283.8,-2.89648e-08,0,131072,131072
283.851,-2.68422e-08,0,131072,131072
283.9,-2.49833e-08,0,131072,131072
283.95,-2.33714e-08,0,131072,131072
284,-2.20021e-08,0,131072,131072
284.051,-2.08441e-08,0,131072,131072
284.1,-1.99111e-08,0,131072,131072
284.15,-1.91661e-08,0,131072,131072
284.201,-1.85846e-08,0,131072,131072
284.251,-1.81671e-08,0,131072,131072
284.3,-1.78873e-08,0,131072,131072
284.35,-1.77271e-08,0,131072,131072
284.401,-1.76666e-08,0,131072,131072
284.45,-1.76883e-08,0,131072,131072
284.5,-1.77742e-08,0,131072,131072
284.55,-1.79126e-08,0,131072,131072
284.601,-1.80991e-08,0,131072,131072
284.65,-1.8323e-08,0,131072,131072
284.7,-1.85813e-08,0,131072,131072
284.751,-1.88712e-08,0,131072,131072
284.8,-1.91755e-08,0,131072,131072
284.85,-1.949e-08,0,131072,131072
284.9,-1.98083e-08,0,131072,131072
284.951,-2.01318e-08,0,131072,131072
285,-2.04499e-08,0,131072,131072
285.05,-2.07677e-08,0,131072,131072
285.101,-2.10893e-08,0,131072,131072
285.151,-2.14032e-08,0,131072,131072
285.2,-2.17101e-08,0,131072,131072
285.25,-2.2006e-08,0,131072,131072
285.301,-2.22918e-08,0,131072,131072
285.35,-2.25582e-08,0,131072,131072
285.4,-2.28105e-08,0,131072,131072
285.45,-2.30514e-08,0,131072,131072
285.501,-2.32877e-08,0,131072,131072
285.55,-2.35169e-08,0,131072,131072
285.6,-2.37472e-08,0,131072,131072
285.651,-2.39875e-08,0,131072,131072
285.7,-2.42361e-08,0,131072,131072
285.75,-2.45012e-08,0,131072,131072
285.8,-2.47869e-08,0,131072,131072
285.851,-2.5101e-08,0,131072,131072
285.9,-2.54372e-08,0,131072,131072
285.95,-2.5802e-08,0,131072,131072
286,-2.61973e-08,0,131072,131072
286.051,-2.66308e-08,0,131072,131072
286.1,-2.709e-08,0,131072,131072
286.15,-2.75793e-08,0,131072,131072
286.201,-2.81032e-08,0,131072,131072
286.25,-2.86418e-08,0,131072,131072
286.3,-2.91972e-08,0,131072,131072
286.35,-2.97642e-08,0,131072,131072
286.401,-3.03463e-08,0,131072,131072
286.45,-3.09225e-08,0,131072,131072
286.5,-3.1498e-08,0,131072,131072
286.551,-3.20782e-08,0,131072,131072
286.6,-3.26437e-08,0,131072,131072
286.65,-3.32001e-08,0,131072,131072
286.7,-3.3744e-08,0,131072,131072
286.751,-3.42795e-08,0,131072,131072
286.8,-3.47874e-08,0,131072,131072
286.85,-3.52717e-08,0,131072,131072
286.9,-3.57291e-08,0,131072,131072
286.951,-3.61631e-08,0,131072,131072
287,-3.65594e-08,0,131072,131072
287.05,-3.69236e-08,0,131072,131072
287.101,-3.72607e-08,0,131072,131072
287.15,-3.75621e-08,0,131072,131072
287.2,-3.78349e-08,0,131072,131072
287.25,-3.80818e-08,0,131072,131072
287.301,-3.83086e-08,0,131072,131072
287.35,-3.8512e-08,0,131072,131072
287.4,-3.86985e-08,0,131072,131072
287.451,-3.8874e-08,0,131072,131072
287.501,-3.9037e-08,0,131072,131072
287.55,-3.91941e-08,0,131072,131072
287.6,-3.93501e-08,0,131072,131072
287.651,-3.95125e-08,0,131072,131072
287.7,-3.96815e-08,0,131072,131072
287.75,-3.98639e-08,0,131072,131072
287.8,-4.00632e-08,0,131072,131072
287.851,-4.02856e-08,0,131072,131072
287.9,-4.05266e-08,0,131072,131072
287.95,-4.07912e-08,0,131072,131072
288.001,-4.10855e-08,0,131072,131072
288.05,-4.14021e-08,0,131072,131072
288.1,-4.17455e-08,0,131072,131072
288.15,-4.21148e-08,0,131072,131072
288.201,-4.25133e-08,0,131072,131072
288.25,-4.2925e-08,0,131072,131072
288.3,-4.33503e-08,0,131072,131072
288.351,-4.379e-08,0,131072,131072
288.401,-4.42259e-08,0,131072,131072
288.45,-4.46594e-08,0,131072,131072
288.5,-4.50865e-08,0,131072,131072
288.551,-4.551e-08,0,131072,131072
288.6,-4.59143e-08,0,131072,131072
288.65,-4.63031e-08,0,131072,131072
288.7,-4.66733e-08,0,131072,131072
288.751,-4.70269e-08,0,131072,131072
288.8,-4.73501e-08,0,131072,131072
288.85,-4.76448e-08,0,131072,131072
288.901,-4.79107e-08,0,131072,131072
288.95,-4.81369e-08,0,131072,131072
289,-4.83248e-08,0,131072,131072
289.05,-4.84727e-08,0,131072,131072
289.101,-4.85817e-08,0,131072,131072
289.15,-4.86494e-08,0,131072,131072
289.2,-4.86795e-08,0,131072,131072
289.251,-4.86741e-08,0,131072,131072
289.301,-4.86362e-08,0,131072,131072
289.35,-4.85691e-08,0,131072,131072
289.4,-4.84753e-08,0,131072,131072
289.451,-4.83557e-08,0,131072,131072
289.5,-4.82162e-08,0,131072,131072
289.55,-4.80578e-08,0,131072,131072
289.6,-4.7883e-08,0,131072,131072
289.651,-4.76917e-08,0,131072,131072
289.7,-4.74922e-08,0,131072,131072
289.75,-4.72842e-08,0,131072,131072
289.801,-4.70665e-08,0,131072,131072
289.85,-4.68471e-08,0,131072,131072
289.9,-4.66241e-08,0,131072,131072
289.95,-4.63984e-08,0,131072,131072
290.001,-4.61679e-08,0,131072,131072
290.05,-4.59405e-08,0,131072,131072
290.1,-4.5714e-08,0,131072,131072
290.15,-4.54896e-08,0,131072,131072
290.201,-4.52648e-08,0,131072,131072
290.25,-4.50464e-08,0,131072,131072
290.3,-4.48313e-08,0,131072,131072
290.351,-4.46165e-08,0,131072,131072
290.4,-4.44082e-08,0,131072,131072
290.45,-4.42035e-08,0,131072,131072
290.5,-4.40028e-08,0,131072,131072
290.551,-4.38035e-08,0,131072,131072
290.6,-4.36115e-08,0,131072,131072
290.65,-4.3424e-08,0,131072,131072
290.701,-4.3238e-08,0,131072,131072
290.751,-4.30584e-08,0,131072,131072
290.8,-4.28821e-08,0,131072,131072
290.85,-4.27084e-08,0,131072,131072
290.901,-4.25342e-08,0,131072,131072
290.95,-4.2364e-08,0,131072,131072
291,-4.21948e-08,0,131072,131072
291.05,-4.20261e-08,0,131072,131072
291.101,-4.18548e-08,0,131072,131072
291.15,-4.16854e-08,0,131072,131072
291.2,-4.15151e-08,0,131072,131072
291.251,-4.13409e-08,0,131072,131072
291.3,-4.11675e-08,0,131072,131072
291.35,-4.09917e-08,0,131072,131072
291.4,-4.0813e-08,0,131072,131072
291.451,-4.06277e-08,0,131072,131072
291.5,-4.04402e-08,0,131072,131072
291.55,-4.02471e-08,0,131072,131072
291.601,-4.00447e-08,0,131072,131072
291.651,-3.98388e-08,0,131072,131072
291.7,-3.96264e-08,0,131072,131072
291.75,-3.94077e-08,0,131072,131072
291.801,-3.91794e-08,0,131072,131072
291.85,-3.89478e-08,0,131072,131072
291.9,-3.87087e-08,0,131072,131072
291.95,-3.8461e-08,0,131072,131072
292.001,-3.81993e-08,0,131072,131072
292.05,-3.79291e-08,0,131072,131072
292.1,-3.76446e-08,0,131072,131072
292.151,-3.73386e-08,0,131072,131072
292.2,-3.70168e-08,0,131072,131072
292.25,-3.66714e-08,0,131072,131072
292.3,-3.62987e-08,0,131072,131072
292.351,-3.58884e-08,0,131072,131072
292.4,-3.5449e-08,0,131072,131072
292.45,-3.49715e-08,0,131072,131072
292.5,-3.44535e-08,0,131072,131072
292.551,-3.38843e-08,0,131072,131072
292.6,-3.32791e-08,0,131072,131072
292.65,-3.26289e-08,0,131072,131072
292.701,-3.19232e-08,0,131072,131072
292.75,-3.11838e-08,0,131072,131072
292.8,-3.04032e-08,0,131072,131072
292.85,-2.9586e-08,0,131072,131072
292.901,-2.87249e-08,0,131072,131072
292.95,-2.78515e-08,0,131072,131072
293,-2.69603e-08,0,131072,131072
293.051,-2.60445e-08,0,131072,131072
293.101,-2.51363e-08,0,131072,131072
293.15,-2.42277e-08,0,131072,131072
293.2,-2.33227e-08,0,131072,131072
293.251,-2.24123e-08,0,131072,131072
293.3,-2.15265e-08,0,131072,131072
293.35,-2.06562e-08,0,131072,131072
293.4,-1.98057e-08,0,131072,131072
293.451,-1.89674e-08,0,131072,131072
293.5,-1.81701e-08,0,131072,131072
293.55,-1.74053e-08,0,131072,131072
293.601,-1.66659e-08,0,131072,131072
293.65,-1.59757e-08,0,131072,131072
293.7,-1.5325e-08,0,131072,131072
293.75,-1.47139e-08,0,131072,131072
293.801,-1.41332e-08,0,131072,131072
293.85,-1.35978e-08,0,131072,131072
293.9,-1.30963e-08,0,131072,131072
293.951,-1.26187e-08,0,131072,131072
294.001,-1.21751e-08,0,131072,131072
294.05,-1.17546e-08,0,131072,131072
294.1,-1.1353e-08,0,131072,131072
294.151,-1.09603e-08,0,131072,131072
294.2,-1.05828e-08,0,131072,131072
294.25,-1.02093e-08,0,131072,131072
294.3,-9.8339e-09,0,131072,131072
294.351,-9.44521e-09,0,131072,131072
294.4,-9.04901e-09,0,131072,131072
294.45,-8.63508e-09,0,131072,131072
294.501,-8.19295e-09,0,131072,131072
294.55,-7.73212e-09,0,131072,131072
294.6,-7.24362e-09,0,131072,131072
294.65,-6.72529e-09,0,131072,131072
294.701,-6.16752e-09,0,131072,131072
294.75,-5.58641e-09,0,131072,131072
294.8,-4.97553e-09,0,131072,131072
294.85,-4.33785e-09,0,131072,131072
294.901,-3.66777e-09,0,131072,131072
294.95,-2.98989e-09,0,131072,131072
295,-2.30017e-09,0,131072,131072
295.051,-1.59389e-09,0,131072,131072
295.1,-8.96912e-10,0,131072,131072
295.15,-2.0403e-10,0,131072,131072
295.2,4.80154e-10,0,131072,131072
295.251,1.16122e-09,0,131072,131072
295.3,1.81566e-09,0,131072,131072
295.35,2.45008e-09,0,131072,131072
295.401,3.06895e-09,0,131072,131072
295.451,3.6503e-09,0,131072,131072
295.5,4.20066e-09,0,131072,131072
295.55,4.71435e-09,0,131072,131072
295.601,5.19274e-09,0,131072,131072
295.65,5.61798e-09,0,131072,131072
295.7,5.99469e-09,0,131072,131072
295.75,6.32179e-09,0,131072,131072
295.801,6.60341e-09,0,131072,131072
295.85,6.83289e-09,0,131072,131072
295.9,7.01663e-09,0,131072,131072
295.951,7.15849e-09,0,131072,131072
296,7.25662e-09,0,131072,131072
296.05,7.31599e-09,0,131072,131072
296.1,7.33993e-09,0,131072,131072
296.151,7.33223e-09,0,131072,131072
296.2,7.29795e-09,0,131072,131072
296.25,7.24221e-09,0,131072,131072
296.301,7.16858e-09,0,131072,131072
296.351,7.08324e-09,0,131072,131072
296.4,6.98824e-09,0,131072,131072
296.45,6.88559e-09,0,131072,131072
296.501,6.77485e-09,0,131072,131072
296.55,6.66011e-09,0,131072,131072
296.6,6.54079e-09,0,131072,131072
296.65,6.41827e-09,0,131072,131072
296.701,6.29262e-09,0,131072,131072
296.75,6.16973e-09,0,131072,131072
296.8,6.05007e-09,0,131072,131072
296.851,5.93398e-09,0,131072,131072
296.9,5.82634e-09,0,131072,131072
296.95,5.72632e-09,0,131072,131072
297,5.63433e-09,0,131072,131072
297.051,5.54929e-09,0,131072,131072
297.1,5.47361e-09,0,131072,131072
297.15,5.40589e-09,0,131072,131072
297.2,5.34603e-09,0,131072,131072
297.251,5.29327e-09,0,131072,131072
297.3,5.24917e-09,0,131072,131072
297.35,5.21307e-09,0,131072,131072
297.401,5.18478e-09,0,131072,131072
297.45,5.16508e-09,0,131072,131072
297.5,5.15296e-09,0,131072,131072
297.55,5.14728e-09,0,131072,131072
297.601,5.14643e-09,0,131072,131072
297.65,5.14873e-09,0,131072,131072
297.7,5.15285e-09,0,131072,131072
297.751,5.15825e-09,0,131072,131072
297.801,5.16461e-09,0,131072,131072
297.85,5.17195e-09,0,131072,131072
297.9,5.17981e-09,0,131072,131072
297.951,5.18723e-09,0,131072,131072
298,5.19246e-09,0,131072,131072
298.05,5.19415e-09,0,131072,131072
298.1,5.19145e-09,0,131072,131072
298.151,5.18435e-09,0,131072,131072
298.2,5.1741e-09,0,131072,131072
298.25,5.16223e-09,0,131072,131072
298.301,5.15015e-09,0,131072,131072
298.35,5.13933e-09,0,131072,131072
298.4,5.13001e-09,0,131072,131072
298.45,5.12199e-09,0,131072,131072
298.501,5.11453e-09,0,131072,131072
298.55,5.10704e-09,0,131072,131072
298.6,5.09864e-09,0,131072,131072
298.651,5.08864e-09,0,131072,131072
298.701,5.07715e-09,0,131072,131072
298.75,5.06432e-09,0,131072,131072
298.8,5.05084e-09,0,131072,131072
298.851,5.03761e-09,0,131072,131072
298.9,5.02617e-09,0,131072,131072
298.95,5.01731e-09,0,131072,131072
299,5.01158e-09,0,131072,131072
299.051,5.00895e-09,0,131072,131072
299.1,5.00898e-09,0,131072,131072
299.15,5.01073e-09,0,131072,131072
299.201,5.01325e-09,0,131072,131072
299.25,5.01559e-09,0,131072,131072
299.3,5.0172e-09,0,131072,131072
299.35,5.01786e-09,0,131072,131072
299.401,5.01761e-09,0,131072,131072
299.45,5.01667e-09,0,131072,131072
299.5,5.01521e-09,0,131072,131072
299.551,5.01315e-09,0,131072,131072
299.601,5.01022e-09,0,131072,131072
299.65,5.00594e-09,0,131072,131072
299.7,4.9999e-09,0,131072,131072
299.751,4.99185e-09,0,131072,131072
299.8,4.98223e-09,0,131072,131072
299.85,4.97135e-09,0,131072,131072
299.9,4.95962e-09,0,131072,131072
299.951,4.94697e-09,0,131072,131072
300,4.93359e-09,0,131072,131072
300.05,4.91894e-09,0,131072,131072
300.101,4.90243e-09,0,131072,131072
300.15,4.88443e-09,0,131072,131072
300.2,4.86487e-09,0,131072,131072
300.25,4.84409e-09,0,131072,131072
300.301,4.82213e-09,0,131072,131072
300.35,4.79979e-09,0,131072,131072
300.4,4.7767e-09,0,131072,131072
300.45,4.75259e-09,0,131072,131072
300.501,4.7268e-09,0,131072,131072
300.55,4.69985e-09,0,131072,131072
300.6,4.67134e-09,0,131072,131072
300.651,4.64091e-09,0,131072,131072
300.7,4.60961e-09,0,131072,131072
300.75,4.57716e-09,0,131072,131072
300.8,4.54373e-09,0,131072,131072
300.851,4.50891e-09,0,131072,131072
300.9,4.47383e-09,0,131072,131072
300.95,4.43809e-09,0,131072,131072
301.001,4.40123e-09,0,131072,131072
301.051,4.3644e-09,0,131072,131072
301.1,4.32711e-09,0,131072,131072
301.15,4.28943e-09,0,131072,131072
301.201,4.25082e-09,0,131072,131072
301.25,4.21247e-09,0,131072,131072
301.3,4.17386e-09,0,131072,131072
301.35,4.13503e-09,0,131072,131072
301.401,4.09544e-09,0,131072,131072
301.45,4.05628e-09,0,131072,131072
301.5,4.01697e-09,0,131072,131072
301.551,3.97695e-09,0,131072,131072
301.6,3.93739e-09,0,131072,131072
301.65,3.89771e-09,0,131072,131072
301.7,3.85787e-09,0,131072,131072
301.751,3.81729e-09,0,131072,131072
301.8,3.77709e-09,0,131072,131072
301.85,3.73666e-09,0,131072,131072
301.901,3.69536e-09,0,131072,131072
301.951,3.65435e-09,0,131072,131072
302,3.613e-09,0,131072,131072
302.05,3.57126e-09,0,131072,131072
302.101,3.52849e-09,0,131072,131072
302.15,3.48587e-09,0,131072,131072
302.2,3.44276e-09,0,131072,131072
302.25,3.39914e-09,0,131072,131072
302.301,3.35432e-09,0,131072,131072
302.35,3.30959e-09,0,131072,131072
302.4,3.26431e-09,0,131072,131072
302.451,3.2178e-09,0,131072,131072
302.5,3.17142e-09,0,131072,131072
302.55,3.12451e-09,0,131072,131072
302.6,3.07709e-09,0,131072,131072
302.651,3.02848e-09,0,131072,131072
302.7,2.98011e-09,0,131072,131072
302.75,2.93131e-09,0,131072,131072
302.8,2.88213e-09,0,131072,131072
302.851,2.83186e-09,0,131072,131072
302.9,2.78203e-09,0,131072,131072
302.95,2.73195e-09,0,131072,131072
303.001,2.68096e-09,0,131072,131072
303.05,2.63057e-09,0,131072,131072
303.1,2.58014e-09,0,131072,131072
303.15,2.5297e-09,0,131072,131072
303.201,2.47859e-09,0,131072,131072
303.25,2.42835e-09,0,131072,131072
303.3,2.37829e-09,0,131072,131072
303.351,2.32773e-09,0,131072,131072
303.401,2.27818e-09,0,131072,131072
303.45,2.22895e-09,0,131072,131072
303.5,2.18008e-09,0,131072,131072
303.551,2.13089e-09,0,131072,131072
303.6,2.08282e-09,0,131072,131072
303.65,2.03519e-09,0,131072,131072
303.7,1.988e-09,0,131072,131072
303.751,1.94058e-09,0,131072,131072
303.8,1.8943e-09,0,131072,131072
303.85,1.8485e-09,0,131072,131072
303.901,1.80249e-09,0,131072,131072
303.95,1.75761e-09,0,131072,131072
304,1.7132e-09,0,131072,131072
304.05,1.66924e-09,0,131072,131072
304.101,1.62509e-09,0,131072,131072
304.15,1.58202e-09,0,131072,131072
304.2,1.53938e-09,0,131072,131072
304.251,1.49653e-09,0,131072,131072
304.301,1.45471e-09,0,131072,131072
304.35,1.41326e-09,0,131072,131072
304.4,1.37218e-09,0,131072,131072
304.451,1.33086e-09,0,131072,131072
304.5,1.29048e-09,0,131072,131072
304.55,1.25043e-09,0,131072,131072
304.6,1.21068e-09,0,131072,131072
304.651,1.17065e-09,0,131072,131072
304.7,1.1315e-09,0,131072,131072
304.75,1.09262e-09,0,131072,131072
304.801,1.05344e-09,0,131072,131072
304.85,1.01509e-09,0,131072,131072
304.9,9.76983e-10,0,131072,131072
304.95,9.39127e-10,0,131072,131072
