250,0,0,512,512
250.012,0,0,512,512
250.059,0,0,512,512
250.105,0,0,512,512
250.152,0,0,512,512
250.211,0,0,512,512
250.258,0,0,512,512
250.305,0,0,512,512
250.352,0,0,512,512
250.41,2.77556e-17,0,512,512
250.457,2.77556e-17,0,512,512
250.504,0,0,512,512
250.551,0,0,512,512
250.609,0,0,512,512
250.656,0,0,512,512
250.703,0,0,512,512
250.762,0,0,512,512
250.808,0,0,512,512
250.855,0,0,512,512
250.902,2.77556e-17,0,512,512
250.961,2.77556e-17,0,512,512
251.008,2.77556e-17,0,512,512
251.055,2.77556e-17,0,512,512
251.101,0,0,512,512
251.16,0,0,512,512
251.207,2.77556e-17,0,512,512
251.254,0,0,512,512
251.301,0,0,512,512
251.359,0,0,512,512
251.406,0,0,512,512
251.453,0,0,512,512
251.511,0,0,512,512
251.558,0,0,512,512
251.605,2.77556e-17,0,512,512
251.652,2.77556e-17,0,512,512
251.711,0,0,512,512
251.758,0,0,512,512
251.804,0,0,512,512
251.851,0,0,512,512
251.91,0,0,512,512
251.957,0,0,512,512
252.004,-2.77556e-17,0,512,512
252.05,-2.77556e-17,0,512,512
252.109,-2.77556e-17,0,512,512
252.156,0,0,512,512
252.203,0,0,512,512
252.261,0,0,512,512
252.308,0,0,512,512
252.355,2.77556e-17,0,512,512
252.402,2.77556e-17,0,512,512
252.461,0,0,512,512
252.507,0,0,512,512
252.554,0,0,512,512
252.601,0,0,512,512
252.66,0,0,512,512
252.707,0,0,512,512
252.754,0,0,512,512
252.8,0,0,512,512
252.859,2.77556e-17,0,512,512
252.906,0,0,512,512
252.953,0,0,512,512
253.011,0,0,512,512
253.058,0,0,512,512
253.105,0,0,512,512
253.152,0,0,512,512
253.21,0,0,512,512
253.257,0,0,512,512
253.304,2.77556e-17,0,512,512
253.351,2.77556e-17,0,512,512
253.41,0,0,512,512
253.457,0,0,512,512
253.503,0,0,512,512
253.55,2.77556e-17,0,512,512
253.609,2.77556e-17,0,512,512
253.656,2.77556e-17,0,512,512
253.703,2.77556e-17,0,512,512
253.761,0,0,512,512
253.808,0,0,512,512
253.855,0,0,512,512
253.902,-2.77556e-17,0,512,512
253.96,-2.77556e-17,0,512,512
254.007,0,0,512,512
254.054,0,0,512,512
254.101,-2.77556e-17,0,512,512
254.16,0,0,512,512
254.206,-2.77556e-17,0,512,512
254.253,0,0,512,512
254.3,0,0,512,512
254.359,0,0,512,512
254.406,0,0,512,512
254.452,0,0,512,512
254.511,-2.77556e-17,0,512,512
254.558,-2.77556e-17,0,512,512
254.605,-2.77556e-17,0,512,512
254.652,-2.77556e-17,0,512,512
254.71,-2.77556e-17,0,512,512
254.757,0,0,512,512
254.804,0,0,512,512
254.851,-2.77556e-17,0,512,512
254.909,-5.55112e-17,0,512,512
254.956,-2.77556e-17,0,512,512
255.003,-2.77556e-17,0,512,512
255.05,-2.77556e-17,0,512,512
255.109,-2.77556e-17,0,512,512
255.155,-2.77556e-17,0,512,512
255.202,-2.77556e-17,0,512,512
255.261,-2.77556e-17,0,512,512
255.308,-2.77556e-17,0,512,512
255.355,-2.77556e-17,0,512,512
255.402,-2.77556e-17,0,512,512
255.46,-2.77556e-17,0,512,512
255.507,-2.77556e-17,0,512,512
255.554,-2.77556e-17,0,512,512
255.601,0,0,512,512
255.659,0,0,512,512
255.706,0,0,512,512
255.753,0,0,512,512
255.812,0,0,512,512
255.859,0,0,512,512
255.905,2.77556e-17,0,512,512
255.952,0,0,512,512
256.011,0,0,512,512
256.058,0,0,512,512
256.105,0,0,512,512
256.151,0,0,512,512
256.21,0,0,512,512
256.257,2.77556e-17,0,512,512
256.304,2.77556e-17,0,512,512
256.351,0,0,512,512
256.409,0,0,512,512
256.456,0,0,512,512
256.503,0,0,512,512
256.562,0,0,512,512
256.608,0,0,512,512
256.655,-2.77556e-17,0,512,512
256.702,0,0,512,512
256.761,-2.77556e-17,0,512,512
256.808,0,0,512,512
256.854,-2.77556e-17,0,512,512
256.901,-2.77556e-17,0,512,512
256.96,-2.77556e-17,0,512,512
257.007,-2.77556e-17,0,512,512
257.054,0,0,512,512
257.101,-2.77556e-17,0,512,512
257.159,-2.77556e-17,0,512,512
257.206,0,0,512,512
257.253,0,0,512,512
257.311,0,0,512,512
257.358,2.77556e-17,0,512,512
257.405,2.77556e-17,0,512,512
257.452,0,0,512,512
257.511,0,0,512,512
257.557,0,0,512,512
257.604,0,0,512,512
257.651,0,0,512,512
257.71,-2.77556e-17,0,512,512
257.757,0,0,512,512
257.804,0,0,512,512
257.85,0,0,512,512
257.909,-2.77556e-17,0,512,512
257.956,-2.77556e-17,0,512,512
258.003,-2.77556e-17,0,512,512
258.061,0,0,512,512
258.108,0,0,512,512
258.155,0,0,512,512
258.202,0,0,512,512
258.261,0,0,512,512
258.307,-2.77556e-17,0,512,512
258.354,0,0,512,512
258.401,-2.77556e-17,0,512,512
258.46,-2.77556e-17,0,512,512
258.507,-2.77556e-17,0,512,512
258.553,-2.77556e-17,0,512,512
258.6,-2.77556e-17,0,512,512
258.659,-2.77556e-17,0,512,512
258.706,-5.55112e-17,0,512,512
258.753,-5.55112e-17,0,512,512
258.811,-5.55112e-17,0,512,512
258.858,-5.55112e-17,0,512,512
258.905,-2.77556e-17,0,512,512
258.952,0,0,512,512
259.01,0,0,512,512
259.057,-2.77556e-17,0,512,512
259.104,0,0,512,512
259.151,0,0,512,512
259.21,-2.77556e-17,0,512,512
259.256,-2.77556e-17,0,512,512
259.303,0,0,512,512
259.35,0,0,512,512
259.409,2.77556e-17,0,512,512
259.456,2.77556e-17,0,512,512
259.503,0,0,512,512
259.561,0,0,512,512
259.608,0,0,512,512
259.655,-2.77556e-17,0,512,512
259.702,-2.77556e-17,0,512,512
259.76,0,0,512,512
259.807,0,0,512,512
259.854,2.77556e-17,0,512,512
259.901,0,0,512,512
259.959,0,0,512,512
260.006,0,0,512,512
260.053,0,0,512,512
260.1,-2.77556e-17,0,512,512
260.159,-2.77556e-17,0,512,512
260.206,-2.77556e-17,0,512,512
260.252,-2.77556e-17,0,512,512
260.311,-2.77556e-17,0,512,512
260.358,-2.77556e-17,0,512,512
260.405,-2.77556e-17,0,512,512
260.452,-2.77556e-17,0,512,512
260.51,-2.77556e-17,0,512,512
260.557,-2.77556e-17,0,512,512
260.604,0,0,512,512
260.651,0,0,512,512
260.709,0,0,512,512
260.756,0,0,512,512
260.803,0,0,512,512
260.862,0,0,512,512
260.909,2.77556e-17,0,512,512
260.955,2.77556e-17,0,512,512
261.002,2.77556e-17,0,512,512
261.061,2.77556e-17,0,512,512
261.108,2.77556e-17,0,512,512
261.155,2.77556e-17,0,512,512
261.201,2.77556e-17,0,512,512
261.26,0,0,512,512
261.307,0,0,512,512
261.354,0,0,512,512
261.401,0,0,512,512
261.459,0,0,512,512
261.506,0,0,512,512
261.553,0,0,512,512
261.612,0,0,512,512
261.658,0,0,512,512
261.705,0,0,512,512
261.752,2.77556e-17,0,512,512
261.811,2.77556e-17,0,512,512
261.858,-2.77556e-17,0,512,512
261.905,0,0,512,512
261.951,0,0,512,512
262.01,0,0,512,512
262.057,0,0,512,512
262.104,0,0,512,512
262.151,0,0,512,512
262.209,0,0,512,512
262.256,2.77556e-17,0,512,512
262.303,2.77556e-17,0,512,512
262.361,0,0,512,512
262.408,0,0,512,512
262.455,0,0,512,512
262.502,0,0,512,512
262.561,0,0,512,512
262.608,2.77556e-17,0,512,512
262.654,2.77556e-17,0,512,512
262.701,2.77556e-17,0,512,512
262.76,2.77556e-17,0,512,512
262.807,0,0,512,512
262.854,0,0,512,512
262.9,2.77556e-17,0,512,512
262.959,0,0,512,512
263.006,0,0,512,512
263.053,0,0,512,512
263.111,0,0,512,512
263.158,0,0,512,512
263.205,0,0,512,512
263.252,0,0,512,512
263.311,0,0,512,512
263.357,2.77556e-17,0,512,512
263.404,2.77556e-17,0,512,512
263.451,2.77556e-17,0,512,512
263.51,0,0,512,512
263.557,0,0,512,512
263.603,0,0,512,512
263.65,0,0,512,512
263.709,-2.77556e-17,0,512,512
263.756,-2.77556e-17,0,512,512
263.803,-2.77556e-17,0,512,512
263.861,0,0,512,512
263.908,0,0,512,512
263.955,2.77556e-17,0,512,512
264.002,0,0,512,512
264.06,0,0,512,512
264.107,0,0,512,512
264.154,0,0,512,512
264.201,0,0,512,512
264.26,0,0,512,512
264.306,2.77556e-17,0,512,512
264.353,2.77556e-17,0,512,512
264.4,2.77556e-17,0,512,512
264.459,2.77556e-17,0,512,512
264.506,2.77556e-17,0,512,512
264.553,2.77556e-17,0,512,512
264.611,2.77556e-17,0,512,512
264.658,2.77556e-17,0,512,512
264.705,2.77556e-17,0,512,512
264.752,2.77556e-17,0,512,512
264.81,2.77556e-17,0,512,512
264.857,2.77556e-17,0,512,512
264.904,2.77556e-17,0,512,512
264.951,2.77556e-17,0,512,512
265.01,2.77556e-17,0,512,512
265.056,2.77556e-17,0,512,512
265.103,2.77556e-17,0,512,512
265.15,2.77556e-17,0,512,512
265.209,2.77556e-17,0,512,512
265.256,2.77556e-17,0,512,512
265.302,2.77556e-17,0,512,512
265.361,5.55112e-17,0,512,512
265.408,5.55112e-17,0,512,512
265.455,5.55112e-17,0,512,512
265.502,5.55112e-17,0,512,512
265.56,2.77556e-17,0,512,512
265.607,2.77556e-17,0,512,512
265.654,2.77556e-17,0,512,512
265.701,2.77556e-17,0,512,512
265.759,2.77556e-17,0,512,512
265.806,2.77556e-17,0,512,512
265.853,2.77556e-17,0,512,512
265.9,2.77556e-17,0,512,512
265.959,2.77556e-17,0,512,512
266.005,2.77556e-17,0,512,512
266.052,2.77556e-17,0,512,512
266.111,0,0,512,512
266.158,2.77556e-17,0,512,512
266.205,0,0,512,512
266.252,2.77556e-17,0,512,512
266.31,2.77556e-17,0,512,512
266.357,2.77556e-17,0,512,512
266.404,2.77556e-17,0,512,512
266.451,2.77556e-17,0,512,512
266.509,0,0,512,512
266.556,0,0,512,512
266.603,-2.77556e-17,0,512,512
266.662,-2.77556e-17,0,512,512
266.708,-2.77556e-17,0,512,512
266.755,0,0,512,512
266.802,-2.77556e-17,0,512,512
266.861,-2.77556e-17,0,512,512
266.908,-2.77556e-17,0,512,512
266.955,-2.77556e-17,0,512,512
267.001,-2.77556e-17,0,512,512
267.06,-2.77556e-17,0,512,512
267.107,-2.77556e-17,0,512,512
267.154,-2.77556e-17,0,512,512
267.201,-2.77556e-17,0,512,512
267.259,-2.77556e-17,0,512,512
267.306,-2.77556e-17,0,512,512
267.353,-2.77556e-17,0,512,512
267.412,-2.77556e-17,0,512,512
267.458,-2.77556e-17,0,512,512
267.505,-2.77556e-17,0,512,512
267.552,0,0,512,512
267.611,2.77556e-17,0,512,512
267.658,2.77556e-17,0,512,512
267.704,2.77556e-17,0,512,512
267.751,2.77556e-17,0,512,512
267.81,2.77556e-17,0,512,512
267.857,2.77556e-17,0,512,512
267.904,2.77556e-17,0,512,512
267.95,2.77556e-17,0,512,512
268.009,2.77556e-17,0,512,512
268.056,2.77556e-17,0,512,512
268.103,2.77556e-17,0,512,512
268.161,2.77556e-17,0,512,512
268.208,2.77556e-17,0,512,512
268.255,0,0,512,512
268.302,0,0,512,512
268.361,0,0,512,512
268.407,0,0,512,512
268.454,0,0,512,512
268.501,0,0,512,512
268.56,0,0,512,512
268.607,0,0,512,512
268.654,-2.77556e-17,0,512,512
268.7,-2.77556e-17,0,512,512
268.759,-2.77556e-17,0,512,512
268.806,-2.77556e-17,0,512,512
268.853,0,0,512,512
268.911,0,0,512,512
268.958,2.77556e-17,0,512,512
269.005,2.77556e-17,0,512,512
269.052,2.77556e-17,0,512,512
269.11,0,0,512,512
269.157,0,0,512,512
269.204,0,0,512,512
269.251,2.77556e-17,0,512,512
269.31,2.77556e-17,0,512,512
269.357,0,0,512,512
269.403,2.77556e-17,0,512,512
269.45,2.77556e-17,0,512,512
269.509,2.77556e-17,0,512,512
269.556,2.77556e-17,0,512,512
269.603,2.77556e-17,0,512,512
269.661,2.77556e-17,0,512,512
269.708,2.77556e-17,0,512,512
269.755,2.77556e-17,0,512,512
269.802,2.77556e-17,0,512,512
269.86,2.77556e-17,0,512,512
269.903,2.77556e-17,0,523,523
269.953,2.77556e-17,0,539,539
270.002,2.77556e-17,0,549,549
270.052,2.77556e-17,0,557,557
270.102,2.77556e-17,0,573,573
270.151,2.77556e-17,0,579,579
270.201,2.77556e-17,0,586,586
270.251,2.77556e-17,0,594,594
270.3,2.77556e-17,0,595,595
270.35,2.77556e-17,0,611,611
270.404,2.77556e-17,0,639,639
270.452,2.77556e-17,0,679,679
270.501,-5.55112e-17,0,705,705
270.551,-6.66134e-16,0,741,741
270.601,-4.55191e-15,0,777,777
270.652,-2.7478e-14,0,833,833
270.702,-1.25899e-13,0,883,883
270.751,-4.67154e-13,0,963,963
270.8,-1.41992e-12,0,1067,1067
270.85,-3.74725e-12,0,1219,1219
270.901,-8.70976e-12,0,1377,1377
270.951,-1.72506e-11,0,1529,1529
271.001,-3.02441e-11,0,1693,1693
271.051,-4.73861e-11,0,1845,1845
271.1,-6.68499e-11,0,2003,2003
271.15,-8.54031e-11,0,2159,2159
271.2,-9.91859e-11,0,2323,2323
271.251,-1.04915e-10,0,2475,2475
271.301,-1.00568e-10,0,2621,2621
271.351,-8.69048e-11,0,2793,2793
271.401,-6.61683e-11,0,2869,2869
271.45,-4.15155e-11,0,2947,2947
271.5,-1.60505e-11,0,2961,2961
271.55,7.85638e-12,0,2964,2964
271.601,2.9368e-11,0,2978,2978
271.651,4.67007e-11,0,2967,2967
271.701,6.05599e-11,0,2999,2999
271.751,7.13147e-11,0,3003,3003
271.801,7.94966e-11,0,3029,3029
271.85,8.56916e-11,0,3073,3073
271.9,9.04508e-11,0,3145,3145
271.951,9.43143e-11,0,3245,3245
272.001,9.73617e-11,0,3367,3367
272.051,9.988e-11,0,3523,3523
272.101,1.01964e-10,0,3687,3687
272.151,1.03692e-10,0,3827,3827
272.2,1.0515e-10,0,4005,4005
272.25,1.06425e-10,0,4139,4139
272.301,1.07647e-10,0,4301,4301
272.351,1.08932e-10,0,4481,4481
272.401,1.1082e-10,0,4615,4615
272.451,1.14611e-10,0,4763,4763
272.501,1.23253e-10,0,4933,4933
272.55,1.42693e-10,0,5089,5089
272.6,1.8373e-10,0,5211,5211
272.65,2.64166e-10,0,5385,5385
272.701,4.16363e-10,0,5509,5509
272.751,6.69157e-10,0,5603,5603
272.801,1.0713e-09,0,5641,5641
272.851,1.67373e-09,0,5715,5715
272.9,2.5271e-09,0,5731,5731
272.95,3.6746e-09,0,5769,5769
273,5.14471e-09,0,5827,5827
273.051,7.00371e-09,0,5853,5853
273.101,9.14012e-09,0,5909,5909
273.151,1.17599e-08,0,5871,5871
273.201,1.55245e-08,0,5901,5901
273.251,1.97624e-08,0,5907,5907
273.3,2.43491e-08,0,5889,5889
273.35,2.87972e-08,0,5921,5921
273.401,3.36763e-08,0,5907,5907
273.451,3.8642e-08,0,5895,5895
273.501,4.48778e-08,0,5892,5892
273.551,5.24729e-08,0,5906,5906
273.601,6.08374e-08,0,5882,5882
273.65,7.00534e-08,0,5832,5832
273.7,8.18469e-08,0,5836,5836
273.751,1.01935e-07,0,5790,5790
273.801,1.23212e-07,0,5840,5840
273.851,1.52527e-07,0,5806,5806
273.901,1.85503e-07,0,5798,5798
273.951,2.21785e-07,0,5810,5810
274,2.60353e-07,0,5744,5744
274.05,3.00276e-07,0,5778,5778
274.101,3.50932e-07,0,5772,5772
274.151,4.18061e-07,0,5770,5770
274.201,4.75771e-07,0,5774,5774
274.251,5.33049e-07,0,5770,5770
274.301,5.92347e-07,0,5766,5766
274.35,6.51391e-07,0,5780,5780
274.4,7.06492e-07,0,5776,5776
274.451,7.54391e-07,0,5828,5828
274.501,7.93002e-07,0,5902,5902
274.551,8.21887e-07,0,5946,5946
274.601,8.40747e-07,0,5926,5926
274.651,8.4669e-07,0,5954,5954
274.701,8.47532e-07,0,5912,5912
274.75,8.47134e-07,0,5934,5934
274.8,8.4569e-07,0,5894,5894
274.85,8.43404e-07,0,5920,5920
274.9,8.38445e-07,0,5906,5906
274.951,8.29056e-07,0,5886,5886
275.001,8.127e-07,0,5860,5860
275.05,7.83632e-07,0,5842,5842
275.101,7.49769e-07,0,5844,5844
275.15,7.13636e-07,0,5810,5810
275.201,6.73996e-07,0,5778,5778
275.251,6.34334e-07,0,5764,5764
275.301,5.6158e-07,0,5736,5736
275.351,5.05702e-07,0,5712,5712
275.401,4.57455e-07,0,5718,5718
275.451,4.13208e-07,0,5698,5698
275.5,3.73733e-07,0,5686,5686
275.551,3.3613e-07,0,5666,5666
275.601,3.01975e-07,0,5664,5664
275.652,2.68541e-07,0,5670,5670
275.701,2.37796e-07,0,5606,5606
275.751,2.08675e-07,0,5604,5604
275.801,1.82132e-07,0,5578,5578
275.851,1.58995e-07,0,5580,5580
275.902,1.39735e-07,0,5570,5570
275.95,1.27574e-07,0,5528,5528
276.001,1.1552e-07,0,5526,5526
276.05,1.04182e-07,0,5518,5518
276.101,9.23456e-08,0,5492,5492
276.151,8.07533e-08,0,5458,5458
276.201,6.9497e-08,0,5494,5494
276.251,6.19999e-08,0,5440,5440
276.301,5.60029e-08,0,5460,5460
276.351,5.05456e-08,0,5414,5414
276.401,4.54785e-08,0,5418,5418
276.45,4.07877e-08,0,5378,5378
276.501,3.7275e-08,0,5372,5372
276.55,3.36673e-08,0,5406,5406
276.602,3.0062e-08,0,5350,5350
276.651,2.69466e-08,0,5368,5368
276.701,2.49212e-08,0,5342,5342
276.751,2.36874e-08,0,5338,5338
276.801,2.2525e-08,0,5324,5324
276.852,2.23528e-08,0,5290,5290
276.9,2.21384e-08,0,5294,5294
276.951,2.2061e-08,0,5288,5288
277,2.1959e-08,0,5286,5286
277.052,2.18699e-08,0,5266,5266
277.101,2.18007e-08,0,5254,5254
277.151,2.17075e-08,0,5268,5268
277.201,2.16121e-08,0,5278,5278
277.251,2.15035e-08,0,5248,5248
277.301,2.13836e-08,0,5256,5256
277.352,2.12529e-08,0,5226,5226
277.401,2.11146e-08,0,5222,5222
277.452,2.09625e-08,0,5242,5242
277.501,2.08061e-08,0,5198,5198
277.55,2.06361e-08,0,5196,5196
277.6,2.04489e-08,0,5202,5202
277.652,2.02303e-08,0,5168,5168
277.702,1.99908e-08,0,5172,5172
277.75,1.97313e-08,0,5190,5190
277.8,1.94303e-08,0,5138,5138
277.851,1.90974e-08,0,5128,5128
277.901,1.8734e-08,0,5124,5124
277.951,1.83422e-08,0,5120,5120
278,1.7939e-08,0,5092,5092
278.051,1.74948e-08,0,5116,5116
278.101,1.70278e-08,0,5088,5088
278.15,1.65612e-08,0,5060,5060
278.201,1.60648e-08,0,5082,5082
278.25,1.55796e-08,0,5028,5028
278.301,1.50712e-08,0,5037,5037
278.35,1.45791e-08,0,5025,5025
278.401,1.40673e-08,0,5009,5009
278.451,1.35768e-08,0,5039,5039
278.502,1.30745e-08,0,4997,4997
278.551,1.26021e-08,0,4975,4975
278.601,1.21445e-08,0,4991,4991
278.65,1.17047e-08,0,4933,4933
278.702,1.12694e-08,0,4923,4923
278.751,1.08733e-08,0,4947,4947
278.801,1.05021e-08,0,4865,4865
278.851,1.01575e-08,0,4845,4845
278.901,9.84056e-09,0,4809,4809
278.951,9.5518e-09,0,4849,4849
279.001,9.29089e-09,0,4987,4987
279.051,9.05686e-09,0,5003,5003
279.101,8.84833e-09,0,4963,4963
279.152,8.6636e-09,0,4999,4999
279.2,8.50682e-09,0,4855,4855
279.251,8.36364e-09,0,4765,4765
279.301,8.23904e-09,0,4749,4749
279.352,8.13131e-09,0,4641,4641
279.401,8.04212e-09,0,4631,4631
279.451,7.96294e-09,0,4641,4641
279.5,7.89858e-09,0,4559,4559
279.551,7.84269e-09,0,4409,4409
279.6,7.79843e-09,0,4331,4331
279.651,7.76135e-09,0,4071,4071
279.7,7.73304e-09,0,3999,3999
279.751,7.71051e-09,0,3889,3889
279.801,7.6943e-09,0,3859,3859
279.85,7.68318e-09,0,3763,3763
279.901,7.67606e-09,0,3655,3655
279.951,7.67267e-09,0,3495,3495
280.001,7.67247e-09,0,3527,3527
280.05,7.67493e-09,0,3231,3231
280.1,7.67987e-09,0,2871,2871
280.152,7.68728e-09,0,2307,2307
280.2,7.69623e-09,0,1719,1719
280.251,7.70729e-09,0,1833,1833
280.3,7.71977e-09,0,2113,2113
280.351,7.73382e-09,0,1999,1999
280.402,7.74856e-09,0,2271,2271
280.45,7.76331e-09,0,2323,2323
280.501,7.77913e-09,0,2355,2355
280.55,7.7946e-09,0,2679,2679
280.601,7.81066e-09,0,3011,3011
280.651,7.82639e-09,0,3043,3043
280.701,7.84216e-09,0,3199,3199
280.75,7.858e-09,0,3281,3281
280.8,7.874e-09,0,3339,3339
280.851,7.89045e-09,0,3407,3407
280.9,7.90641e-09,0,3445,3445
280.951,7.92308e-09,0,3495,3495
281,7.93927e-09,0,3533,3533
281.051,7.95622e-09,0,3563,3563
281.1,7.97278e-09,0,3651,3651
281.151,7.99026e-09,0,3735,3735
281.2,8.00755e-09,0,3821,3821
281.251,8.02611e-09,0,3937,3937
281.3,8.04485e-09,0,4015,4015
281.351,8.06548e-09,0,4143,4143
281.401,8.08688e-09,0,4241,4241
281.451,8.11111e-09,0,4367,4367
281.501,8.13698e-09,0,4495,4495
281.552,8.16702e-09,0,4551,4551
281.602,8.20054e-09,0,4445,4445
281.65,8.23756e-09,0,4487,4487
281.701,8.28164e-09,0,4481,4481
281.751,8.33246e-09,0,4477,4477
281.802,8.39128e-09,0,4467,4467
281.85,8.45674e-09,0,4457,4457
281.901,8.53571e-09,0,4468,4468
281.951,8.62778e-09,0,4506,4506
282.001,8.73527e-09,0,4543,4543
282.051,8.86096e-09,0,4573,4573
282.101,9.00813e-09,0,4619,4619
282.151,9.18064e-09,0,4655,4655
282.201,9.38305e-09,0,4683,4683
282.251,9.62068e-09,0,4737,4737
282.3,9.89972e-09,0,4757,4757
282.352,1.02409e-08,0,4779,4779
282.401,1.06271e-08,0,4809,4809
282.451,1.1079e-08,0,4841,4841
282.5,1.16058e-08,0,4833,4833
282.551,1.2243e-08,0,4843,4843
282.601,1.29538e-08,0,4873,4873
282.652,1.3803e-08,0,4863,4863
282.701,1.47368e-08,0,4857,4857
282.75,1.57913e-08,0,4881,4881
282.801,1.70195e-08,0,4883,4883
282.852,1.83858e-08,0,4869,4869
282.901,1.98322e-08,0,4901,4901
282.951,2.14677e-08,0,4885,4885
283,2.31677e-08,0,4921,4921
283.051,2.50588e-08,0,4915,4915
283.101,2.70745e-08,0,4899,4899
283.151,2.92119e-08,0,4953,4953
283.202,3.14709e-08,0,4907,4907
283.25,3.37882e-08,0,4919,4919
283.3,3.69251e-08,0,4929,4929
283.35,4.13455e-08,0,4916,4916
283.4,4.54709e-08,0,4916,4916
283.452,4.97817e-08,0,4908,4908
283.501,5.40041e-08,0,4926,4926
283.551,5.819e-08,0,4946,4946
283.602,6.26762e-08,0,4942,4942
283.65,6.70282e-08,0,4950,4950
283.701,7.16436e-08,0,4990,4990
283.751,7.63509e-08,0,4972,4972
283.802,8.11455e-08,0,4980,4980
283.852,8.60608e-08,0,4982,4982
283.901,9.11001e-08,0,4962,4962
283.951,9.74284e-08,0,5002,5002
284,1.03635e-07,0,5000,5000
284.051,1.10474e-07,0,4996,4996
284.1,1.17251e-07,0,5010,5010
284.151,1.24416e-07,0,5014,5014
284.201,1.31886e-07,0,5066,5066
284.252,1.39607e-07,0,5028,5028
284.3,1.47346e-07,0,5030,5030
284.352,1.55957e-07,0,5056,5056
284.401,1.64597e-07,0,5026,5026
284.451,1.73619e-07,0,5054,5054
284.5,1.83253e-07,0,5060,5060
284.551,2.0387e-07,0,5066,5066
284.6,2.23306e-07,0,5068,5068
284.651,2.45705e-07,0,5054,5054
284.701,2.73729e-07,0,5080,5080
284.751,3.02871e-07,0,5094,5094
284.801,3.33422e-07,0,5086,5086
284.851,3.65693e-07,0,5086,5086
284.9,3.99457e-07,0,5092,5092
284.952,4.35738e-07,0,5094,5094
285.001,4.71932e-07,0,5122,5122
285.052,5.10459e-07,0,5102,5102
285.1,5.49105e-07,0,5108,5108
285.151,6.10986e-07,0,5116,5116
285.201,6.66064e-07,0,5138,5138
285.251,7.08252e-07,0,5138,5138
285.301,7.41741e-07,0,5166,5166
285.351,7.67132e-07,0,5154,5154
285.4,7.84458e-07,0,5184,5184
285.451,7.86923e-07,0,5200,5200
285.5,7.8614e-07,0,5210,5210
285.551,7.83408e-07,0,5232,5232
285.602,7.78676e-07,0,5210,5210
285.65,7.71566e-07,0,5228,5228
285.7,7.62546e-07,0,5234,5234
285.75,7.432e-07,0,5266,5266
285.8,7.21346e-07,0,5250,5250
285.851,6.92624e-07,0,5246,5246
285.901,6.62838e-07,0,5300,5300
285.95,6.31281e-07,0,5266,5266
286.001,5.96894e-07,0,5288,5288
286.051,5.60709e-07,0,5292,5292
286.1,5.23877e-07,0,5314,5314
286.15,4.69313e-07,0,5302,5302
286.2,4.06602e-07,0,5302,5302
286.25,3.51512e-07,0,5352,5352
286.3,3.00211e-07,0,5348,5348
286.351,2.5063e-07,0,5340,5340
286.401,2.06466e-07,0,5356,5356
286.451,1.65444e-07,0,5342,5342
286.5,1.29767e-07,0,5382,5382
286.551,9.68299e-08,0,5391,5391
286.601,6.73858e-08,0,5363,5363
286.651,4.12016e-08,0,5345,5345
286.701,1.80642e-08,0,5367,5367
286.751,-2.42549e-09,0,5379,5379
286.801,-2.08369e-08,0,5345,5345
286.851,-3.37971e-08,0,5375,5375
286.901,-4.54483e-08,0,5363,5363
286.95,-5.63195e-08,0,5357,5357
287,-6.31884e-08,0,5367,5367
287.051,-6.84904e-08,0,5361,5361
287.101,-7.28301e-08,0,5355,5355
287.151,-7.41135e-08,0,5333,5333
287.201,-7.48084e-08,0,5343,5343
287.251,-7.46933e-08,0,5335,5335
287.3,-7.44534e-08,0,5305,5305
287.35,-7.39283e-08,0,5299,5299
287.401,-7.31146e-08,0,5273,5273
287.451,-7.20785e-08,0,5257,5257
287.501,-7.08049e-08,0,5245,5245
287.551,-6.93208e-08,0,5251,5251
287.601,-6.76398e-08,0,5201,5201
287.65,-6.57792e-08,0,5173,5173
287.7,-6.37531e-08,0,5171,5171
287.75,-6.15796e-08,0,5145,5145
287.801,-5.9207e-08,0,5109,5109
287.851,-5.67882e-08,0,5061,5061
287.901,-5.42771e-08,0,5007,5007
287.951,-5.17123e-08,0,4959,4959
288,-4.86418e-08,0,4871,4871
288.05,-4.48647e-08,0,4819,4819
288.1,-4.1617e-08,0,4753,4753
288.151,-3.85466e-08,0,4661,4661
288.201,-3.57879e-08,0,4605,4605
288.251,-3.32459e-08,0,4549,4549
288.301,-3.08639e-08,0,4471,4471
288.351,-2.8652e-08,0,4377,4377
288.4,-2.65909e-08,0,4315,4315
288.45,-2.46855e-08,0,4201,4201
288.501,-2.28873e-08,0,4035,4035
288.551,-2.13095e-08,0,3861,3861
288.601,-1.99068e-08,0,3747,3747
288.651,-1.8689e-08,0,3704,3704
288.701,-1.75897e-08,0,3664,3664
288.75,-1.66085e-08,0,3700,3700
288.8,-1.57519e-08,0,3675,3675
288.851,-1.49318e-08,0,3701,3701
288.901,-1.41925e-08,0,3653,3653
288.951,-1.35136e-08,0,3637,3637
289.001,-1.28925e-08,0,3585,3585
289.051,-1.23415e-08,0,3529,3529
289.1,-1.18245e-08,0,3445,3445
289.15,-1.13653e-08,0,3387,3387
289.201,-1.09465e-08,0,3285,3285
289.251,-1.05958e-08,0,3211,3211
289.301,-1.03001e-08,0,3131,3131
289.351,-1.00574e-08,0,3075,3075
289.401,-9.86408e-09,0,2991,2991
289.45,-9.71566e-09,0,2821,2821
289.5,-9.60759e-09,0,2661,2661
289.55,-9.53529e-09,0,2487,2487
289.601,-9.49364e-09,0,2307,2307
289.651,-9.48071e-09,0,2127,2127
289.701,-9.49082e-09,0,1981,1981
289.751,-9.52031e-09,0,1799,1799
289.8,-9.56582e-09,0,1653,1653
289.85,-9.62372e-09,0,1469,1469
289.9,-9.68999e-09,0,1313,1313
289.951,-9.76291e-09,0,1143,1143
290.001,-9.83562e-09,0,999,999
290.051,-9.90752e-09,0,895,895
290.101,-9.9778e-09,0,787,787
290.15,-1.00457e-08,0,675,675
290.202,-1.01133e-08,0,615,615
290.252,-1.01747e-08,0,573,573
290.302,-1.0233e-08,0,527,527
290.354,-1.02897e-08,0,515,515
290.407,-1.03442e-08,0,512,512
290.454,-1.03895e-08,0,512,512
290.501,-1.04325e-08,0,512,512
290.559,-1.04837e-08,0,512,512
290.606,-1.05232e-08,0,512,512
290.653,-1.05615e-08,0,512,512
290.712,-1.06081e-08,0,512,512
290.759,-1.06443e-08,0,512,512
290.805,-1.06796e-08,0,512,512
290.852,-1.0714e-08,0,512,512
290.911,-1.07561e-08,0,512,512
290.958,-1.07894e-08,0,512,512
291.005,-1.08231e-08,0,512,512
291.051,-1.08576e-08,0,512,512
291.11,-1.09035e-08,0,512,512
291.157,-1.09434e-08,0,512,512
291.204,-1.09871e-08,0,512,512
291.251,-1.10357e-08,0,512,512
291.309,-1.11055e-08,0,512,512
291.356,-1.11705e-08,0,512,512
291.403,-1.12455e-08,0,512,512
291.462,-1.13563e-08,0,512,512
291.508,-1.14604e-08,0,512,512
291.555,-1.15795e-08,0,512,512
291.602,-1.17139e-08,0,512,512
291.661,-1.19027e-08,0,512,512
291.708,-1.20691e-08,0,512,512
291.754,-1.22476e-08,0,512,512
291.801,-1.2437e-08,0,512,512
291.86,-1.2687e-08,0,512,512
291.907,-1.28969e-08,0,512,512
291.954,-1.31153e-08,0,512,512
292.001,-1.33424e-08,0,512,512
292.059,-1.36391e-08,0,512,512
292.106,-1.38871e-08,0,512,512
292.153,-1.41447e-08,0,512,512
292.211,-1.44798e-08,0,512,512
292.258,-1.47579e-08,0,512,512
292.305,-1.50438e-08,0,512,512
292.352,-1.53364e-08,0,512,512
292.411,-1.57094e-08,0,512,512
292.458,-1.60116e-08,0,512,512
292.504,-1.63156e-08,0,512,512
292.551,-1.66202e-08,0,512,512
292.61,-1.70006e-08,0,512,512
292.657,-1.73042e-08,0,512,512
292.704,-1.76071e-08,0,512,512
292.75,-1.79093e-08,0,512,512
292.809,-1.82857e-08,0,512,512
292.856,-1.8585e-08,0,512,512
292.903,-1.88815e-08,0,512,512
292.961,-1.92463e-08,0,512,512
293.008,-1.95317e-08,0,512,512
293.055,-1.98096e-08,0,512,512
293.102,-2.00784e-08,0,512,512
293.161,-2.0399e-08,0,512,512
293.207,-2.06414e-08,0,512,512
293.254,-2.08698e-08,0,512,512
293.301,-2.10829e-08,0,512,512
293.36,-2.13259e-08,0,512,512
293.407,-2.15005e-08,0,512,512
293.453,-2.16565e-08,0,512,512
293.5,-2.17935e-08,0,512,512
293.559,-2.19377e-08,0,512,512
293.606,-2.20315e-08,0,512,512
293.653,-2.21066e-08,0,512,512
293.711,-2.21748e-08,0,512,512
293.758,-2.22096e-08,0,512,512
293.805,-2.22276e-08,0,512,512
293.852,-2.22296e-08,0,512,512
293.91,-2.22107e-08,0,512,512
293.957,-2.21797e-08,0,512,512
294.004,-2.21355e-08,0,512,512
294.051,-2.20792e-08,0,512,512
294.11,-2.19935e-08,0,512,512
294.156,-2.1914e-08,0,512,512
294.203,-2.18261e-08,0,512,512
294.25,-2.1731e-08,0,512,512
294.309,-2.16036e-08,0,512,512
294.356,-2.14963e-08,0,512,512
294.403,-2.13853e-08,0,512,512
294.461,-2.1243e-08,0,512,512
294.508,-2.11272e-08,0,512,512
294.555,-2.10105e-08,0,512,512
294.602,-2.08936e-08,0,512,512
294.66,-2.0748e-08,0,512,512
294.707,-2.06325e-08,0,512,512
294.754,-2.05182e-08,0,512,512
294.801,-2.04053e-08,0,512,512
294.859,-2.02666e-08,0,512,512
294.906,-2.01579e-08,0,512,512
294.953,-2.00511e-08,0,512,512
295,-1.99465e-08,0,512,512
295.059,-1.98188e-08,0,512,512
295.106,-1.97192e-08,0,512,512
295.152,-1.96219e-08,0,512,512
295.211,-1.95035e-08,0,512,512
295.258,-1.94114e-08,0,512,512
295.305,-1.93216e-08,0,512,512
295.352,-1.9234e-08,0,512,512
295.41,-1.91277e-08,0,512,512
295.457,-1.90451e-08,0,512,512
295.504,-1.89645e-08,0,512,512
295.551,-1.8886e-08,0,512,512
295.609,-1.87904e-08,0,512,512
295.656,-1.8716e-08,0,512,512
295.703,-1.86431e-08,0,512,512
295.762,-1.8554e-08,0,512,512
295.809,-1.84842e-08,0,512,512
295.855,-1.84155e-08,0,512,512
295.902,-1.83478e-08,0,512,512
295.961,-1.82643e-08,0,512,512
296.008,-1.81982e-08,0,512,512
296.055,-1.81325e-08,0,512,512
296.102,-1.80672e-08,0,512,512
296.16,-1.79857e-08,0,512,512
296.207,-1.79204e-08,0,512,512
296.254,-1.7855e-08,0,512,512
296.301,-1.77893e-08,0,512,512
296.359,-1.77064e-08,0,512,512
296.406,-1.76394e-08,0,512,512
296.453,-1.75716e-08,0,512,512
296.512,-1.74855e-08,0,512,512
296.558,-1.74153e-08,0,512,512
296.605,-1.73439e-08,0,512,512
296.652,-1.7271e-08,0,512,512
296.711,-1.71777e-08,0,512,512
296.758,-1.7101e-08,0,512,512
296.805,-1.70225e-08,0,512,512
296.851,-1.69418e-08,0,512,512
296.91,-1.68377e-08,0,512,512
296.957,-1.67517e-08,0,512,512
297.004,-1.6663e-08,0,512,512
297.051,-1.65716e-08,0,512,512
297.109,-1.6453e-08,0,512,512
297.156,-1.63546e-08,0,512,512
297.203,-1.62528e-08,0,512,512
297.261,-1.61206e-08,0,512,512
297.308,-1.60107e-08,0,512,512
297.355,-1.58969e-08,0,512,512
297.402,-1.57791e-08,0,512,512
297.461,-1.5626e-08,0,512,512
297.508,-1.54985e-08,0,512,512
297.554,-1.53666e-08,0,512,512
297.601,-1.52301e-08,0,512,512
297.66,-1.50527e-08,0,512,512
297.707,-1.49051e-08,0,512,512
297.754,-1.47525e-08,0,512,512
297.8,-1.45945e-08,0,512,512
297.859,-1.43894e-08,0,512,512
297.906,-1.42188e-08,0,512,512
297.953,-1.40424e-08,0,512,512
298.011,-1.3813e-08,0,512,512
298.058,-1.36222e-08,0,512,512
298.105,-1.34245e-08,0,512,512
298.152,-1.32196e-08,0,512,512
298.211,-1.29528e-08,0,512,512
298.257,-1.27303e-08,0,512,512
298.304,-1.24992e-08,0,512,512
298.351,-1.22592e-08,0,512,512
298.41,-1.19457e-08,0,512,512
298.457,-1.16835e-08,0,512,512
298.503,-1.14107e-08,0,512,512
298.55,-1.11267e-08,0,512,512
298.609,-1.07554e-08,0,512,512
298.656,-1.04447e-08,0,512,512
298.703,-1.01216e-08,0,512,512
298.761,-9.69958e-09,0,512,512
298.808,-9.34738e-09,0,512,512
298.855,-8.98211e-09,0,512,512
298.902,-8.60385e-09,0,512,512
298.96,-8.1131e-09,0,512,512
299.007,-7.70663e-09,0,512,512
299.054,-7.28843e-09,0,512,512
299.101,-6.85924e-09,0,512,512
299.16,-6.30869e-09,0,512,512
299.207,-5.85834e-09,0,512,512
299.253,-5.40055e-09,0,512,512
299.3,-4.93675e-09,0,512,512
299.359,-4.35093e-09,0,512,512
299.406,-3.87949e-09,0,512,512
299.453,-3.40754e-09,0,512,512
299.511,-2.81976e-09,0,512,512
299.558,-2.35363e-09,0,512,512
299.605,-1.89327e-09,0,512,512
299.652,-1.44066e-09,0,512,512
299.71,-8.88738e-10,0,512,512
299.757,-4.60559e-10,0,512,512
299.804,-4.61928e-11,0,512,512
299.851,3.52684e-10,0,512,512
299.91,8.27158e-10,0,512,512
299.956,1.18576e-09,0,512,512
300.003,1.52443e-09,0,512,512
300.05,1.84215e-09,0,512,512
300.109,2.20863e-09,0,512,512
300.156,2.47659e-09,0,512,512
300.202,2.72172e-09,0,512,512
300.261,2.99584e-09,0,512,512
300.308,3.18941e-09,0,512,512
300.355,3.36043e-09,0,512,512
300.402,3.50939e-09,0,512,512
300.46,3.66557e-09,0,512,512
300.507,3.76751e-09,0,512,512
300.554,3.85005e-09,0,512,512
300.601,3.91429e-09,0,512,512
300.659,3.97062e-09,0,512,512
300.706,3.99805e-09,0,512,512
300.753,4.01121e-09,0,512,512
300.8,4.01142e-09,0,512,512
300.859,3.99551e-09,0,512,512
300.905,3.97146e-09,0,512,512
300.952,3.93872e-09,0,512,512
301.011,3.88748e-09,0,512,512
301.058,3.83967e-09,0,512,512
301.105,3.78701e-09,0,512,512
301.152,3.73053e-09,0,512,512
301.21,3.65603e-09,0,512,512
301.257,3.59437e-09,0,512,512
301.304,3.53172e-09,0,512,512
301.351,3.46878e-09,0,512,512
301.409,3.39061e-09,0,512,512
301.456,3.32912e-09,0,512,512
301.503,3.26902e-09,0,512,512
301.562,3.19636e-09,0,512,512
301.609,3.14051e-09,0,512,512
301.655,3.08688e-09,0,512,512
301.702,3.03555e-09,0,512,512
301.761,2.97468e-09,0,512,512
301.808,2.92856e-09,0,512,512
301.855,2.88462e-09,0,512,512
301.901,2.84272e-09,0,512,512
301.96,2.79292e-09,0,512,512
302.007,2.75487e-09,0,512,512
302.054,2.71816e-09,0,512,512
302.101,2.68255e-09,0,512,512
302.159,2.63922e-09,0,512,512
302.206,2.60524e-09,0,512,512
302.253,2.57164e-09,0,512,512
302.312,2.52995e-09,0,512,512
302.358,2.49669e-09,0,512,512
302.405,2.46345e-09,0,512,512
302.452,2.43019e-09,0,512,512
302.511,2.38865e-09,0,512,512
302.558,2.35552e-09,0,512,512
302.604,2.32261e-09,0,512,512
302.651,2.29009e-09,0,512,512
302.71,2.25026e-09,0,512,512
302.757,2.21932e-09,0,512,512
302.804,2.18946e-09,0,512,512
302.851,2.16091e-09,0,512,512
302.909,2.12743e-09,0,512,512
302.956,2.1027e-09,0,512,512
303.003,2.08003e-09,0,512,512
303.061,2.05486e-09,0,512,512
303.108,2.03745e-09,0,512,512
303.155,2.02259e-09,0,512,512
303.202,2.01035e-09,0,512,512
303.261,1.9988e-09,0,512,512
303.307,1.99254e-09,0,512,512
303.354,1.98887e-09,0,512,512
303.401,1.9877e-09,0,512,512
303.46,1.98954e-09,0,512,512
303.507,1.99345e-09,0,512,512
303.554,1.99933e-09,0,512,512
303.6,2.00695e-09,0,512,512
303.659,2.0186e-09,0,512,512
303.706,2.02933e-09,0,512,512
303.753,2.04105e-09,0,512,512
303.811,2.05677e-09,0,512,512
303.858,2.06992e-09,0,512,512
303.905,2.08337e-09,0,512,512
303.952,2.09693e-09,0,512,512
304.01,2.11379e-09,0,512,512
304.057,2.12703e-09,0,512,512
304.104,2.13991e-09,0,512,512
304.151,2.15233e-09,0,512,512
304.21,2.16708e-09,0,512,512
304.257,2.17818e-09,0,512,512
304.303,2.18859e-09,0,512,512
304.35,2.19827e-09,0,512,512
304.409,2.20929e-09,0,512,512
304.456,2.21723e-09,0,512,512
304.503,2.22435e-09,0,512,512
304.561,2.23208e-09,0,512,512
304.608,2.23733e-09,0,512,512
304.655,2.24172e-09,0,512,512
304.702,2.24526e-09,0,512,512
304.76,2.24846e-09,0,512,512
304.807,2.25005e-09,0,512,512
304.854,2.25075e-09,0,512,512
304.901,2.25058e-09,0,512,512
304.96,2.24911e-09,0,512,512
