250,0,0,2048,2048
250.006,0,0,2048,2048
250.053,0,0,2048,2048
250.105,0,0,2048,2048
250.152,0,0,2048,2048
250.205,0,0,2048,2048
250.252,0,0,2048,2048
250.305,0,0,2048,2048
250.352,0,0,2048,2048
250.404,2.77556e-17,0,2048,2048
250.451,0,0,2048,2048
250.504,0,0,2048,2048
250.551,0,0,2048,2048
250.603,0,0,2048,2048
250.65,2.77556e-17,0,2048,2048
250.703,0,0,2048,2048
250.756,0,0,2048,2048
250.803,0,0,2048,2048
250.855,-2.77556e-17,0,2048,2048
250.902,-2.77556e-17,0,2048,2048
250.955,0,0,2048,2048
251.002,0,0,2048,2048
251.055,0,0,2048,2048
251.101,0,0,2048,2048
251.154,0,0,2048,2048
251.201,0,0,2048,2048
251.254,2.77556e-17,0,2048,2048
251.301,5.55112e-17,0,2048,2048
251.353,5.55112e-17,0,2048,2048
251.4,0,0,2048,2048
251.453,0,0,2048,2048
251.506,0,0,2048,2048
251.553,0,0,2048,2048
251.605,0,0,2048,2048
251.652,0,0,2048,2048
251.705,0,0,2048,2048
251.752,0,0,2048,2048
251.804,0,0,2048,2048
251.851,2.77556e-17,0,2048,2048
251.904,2.77556e-17,0,2048,2048
251.951,2.77556e-17,0,2048,2048
252.004,2.77556e-17,0,2048,2048
252.05,5.55112e-17,0,2048,2048
252.103,5.55112e-17,0,2048,2048
252.15,5.55112e-17,0,2048,2048
252.203,5.55112e-17,0,2048,2048
252.256,5.55112e-17,0,2048,2048
252.302,5.55112e-17,0,2048,2048
252.355,5.55112e-17,0,2048,2048
252.402,5.55112e-17,0,2048,2048
252.455,5.55112e-17,0,2048,2048
252.502,5.55112e-17,0,2048,2048
252.554,0,0,2048,2048
252.601,0,0,2048,2048
252.654,-2.77556e-17,0,2048,2048
252.701,-2.77556e-17,0,2048,2048
252.754,-2.77556e-17,0,2048,2048
252.8,-2.77556e-17,0,2048,2048
252.853,-2.77556e-17,0,2048,2048
252.906,-2.77556e-17,0,2048,2048
252.953,-2.77556e-17,0,2048,2048
253.005,-2.77556e-17,0,2048,2048
253.052,-2.77556e-17,0,2048,2048
253.105,-2.77556e-17,0,2048,2048
253.152,-2.77556e-17,0,2048,2048
253.205,-2.77556e-17,0,2048,2048
253.251,-2.77556e-17,0,2048,2048
253.304,-2.77556e-17,0,2048,2048
253.351,2.77556e-17,0,2048,2048
253.404,5.55112e-17,0,2048,2048
253.451,2.77556e-17,0,2048,2048
253.503,2.77556e-17,0,2048,2048
253.55,2.77556e-17,0,2048,2048
253.603,0,0,2048,2048
253.656,-2.77556e-17,0,2048,2048
253.703,-2.77556e-17,0,2048,2048
253.755,-2.77556e-17,0,2048,2048
253.802,-2.77556e-17,0,2048,2048
253.855,-2.77556e-17,0,2048,2048
253.902,-2.77556e-17,0,2048,2048
253.954,-2.77556e-17,0,2048,2048
254.001,-2.77556e-17,0,2048,2048
254.054,-2.77556e-17,0,2048,2048
254.101,-2.77556e-17,0,2048,2048
254.154,0,0,2048,2048
254.201,2.77556e-17,0,2048,2048
254.253,2.77556e-17,0,2048,2048
254.3,0,0,2048,2048
254.353,2.77556e-17,0,2048,2048
254.406,0,0,2048,2048
254.452,2.77556e-17,0,2048,2048
254.505,0,0,2048,2048
254.552,-2.77556e-17,0,2048,2048
254.605,-2.77556e-17,0,2048,2048
254.652,-2.77556e-17,0,2048,2048
254.704,-2.77556e-17,0,2048,2048
254.751,-2.77556e-17,0,2048,2048
254.804,-2.77556e-17,0,2048,2048
254.851,-2.77556e-17,0,2048,2048
254.904,-2.77556e-17,0,2048,2048
254.95,-2.77556e-17,0,2048,2048
255.003,-2.77556e-17,0,2048,2048
255.05,-2.77556e-17,0,2048,2048
255.103,-2.77556e-17,0,2048,2048
255.155,-2.77556e-17,0,2048,2048
255.202,-2.77556e-17,0,2048,2048
255.255,0,0,2048,2048
255.302,0,0,2048,2048
255.355,0,0,2048,2048
255.402,0,0,2048,2048
255.454,0,0,2048,2048
255.501,-2.77556e-17,0,2048,2048
255.554,-2.77556e-17,0,2048,2048
255.601,-2.77556e-17,0,2048,2048
255.653,-2.77556e-17,0,2048,2048
255.7,0,0,2048,2048
255.753,2.77556e-17,0,2048,2048
255.806,5.55112e-17,0,2048,2048
255.853,2.77556e-17,0,2048,2048
255.905,0,0,2048,2048
255.952,0,0,2048,2048
256.005,2.77556e-17,0,2048,2048
256.052,2.77556e-17,0,2048,2048
256.105,2.77556e-17,0,2048,2048
256.151,2.77556e-17,0,2048,2048
256.204,2.77556e-17,0,2048,2048
256.251,2.77556e-17,0,2048,2048
256.304,2.77556e-17,0,2048,2048
256.351,2.77556e-17,0,2048,2048
256.403,8.32667e-17,0,2048,2048
256.45,8.32667e-17,0,2048,2048
256.503,5.55112e-17,0,2048,2048
256.556,8.32667e-17,0,2048,2048
256.603,5.55112e-17,0,2048,2048
256.655,8.32667e-17,0,2048,2048
256.702,5.55112e-17,0,2048,2048
256.755,5.55112e-17,0,2048,2048
256.802,5.55112e-17,0,2048,2048
256.854,2.77556e-17,0,2048,2048
256.901,2.77556e-17,0,2048,2048
256.954,2.77556e-17,0,2048,2048
257.001,2.77556e-17,0,2048,2048
257.054,2.77556e-17,0,2048,2048
257.101,2.77556e-17,0,2048,2048
257.153,0,0,2048,2048
257.2,0,0,2048,2048
257.253,-2.77556e-17,0,2048,2048
257.306,-2.77556e-17,0,2048,2048
257.352,-2.77556e-17,0,2048,2048
257.405,2.77556e-17,0,2048,2048
257.452,2.77556e-17,0,2048,2048
257.505,0,0,2048,2048
257.552,2.77556e-17,0,2048,2048
257.604,0,0,2048,2048
257.651,0,0,2048,2048
257.704,0,0,2048,2048
257.751,0,0,2048,2048
257.804,0,0,2048,2048
257.85,0,0,2048,2048
257.903,2.77556e-17,0,2048,2048
257.95,0,0,2048,2048
258.003,2.77556e-17,0,2048,2048
258.055,2.77556e-17,0,2048,2048
258.102,0,0,2048,2048
258.155,2.77556e-17,0,2048,2048
258.202,-2.77556e-17,0,2048,2048
258.255,-2.77556e-17,0,2048,2048
258.302,-2.77556e-17,0,2048,2048
258.354,0,0,2048,2048
258.401,5.55112e-17,0,2048,2048
258.454,5.55112e-17,0,2048,2048
258.501,5.55112e-17,0,2048,2048
258.553,5.55112e-17,0,2048,2048
258.6,5.55112e-17,0,2048,2048
258.653,5.55112e-17,0,2048,2048
258.706,5.55112e-17,0,2048,2048
258.753,5.55112e-17,0,2048,2048
258.805,5.55112e-17,0,2048,2048
258.852,5.55112e-17,0,2048,2048
258.905,5.55112e-17,0,2048,2048
258.952,5.55112e-17,0,2048,2048
259.005,5.55112e-17,0,2048,2048
259.051,5.55112e-17,0,2048,2048
259.104,2.77556e-17,0,2048,2048
259.151,2.77556e-17,0,2048,2048
259.204,2.77556e-17,0,2048,2048
259.251,2.77556e-17,0,2048,2048
259.303,2.77556e-17,0,2048,2048
259.35,2.77556e-17,0,2048,2048
259.403,0,0,2048,2048
259.456,2.77556e-17,0,2048,2048
259.503,0,0,2048,2048
259.555,0,0,2048,2048
259.602,0,0,2048,2048
259.655,0,0,2048,2048
259.702,-2.77556e-17,0,2048,2048
259.754,0,0,2048,2048
259.801,0,0,2048,2048
259.854,-5.55112e-17,0,2048,2048
259.901,-5.55112e-17,0,2048,2048
259.954,-5.55112e-17,0,2048,2048
260,-5.55112e-17,0,2048,2048
260.053,-2.77556e-17,0,2048,2048
260.1,-5.55112e-17,0,2048,2048
260.153,-5.55112e-17,0,2048,2048
260.206,-5.55112e-17,0,2048,2048
260.252,-5.55112e-17,0,2048,2048
260.305,-5.55112e-17,0,2048,2048
260.352,-5.55112e-17,0,2048,2048
260.405,-5.55112e-17,0,2048,2048
260.452,-5.55112e-17,0,2048,2048
260.504,-5.55112e-17,0,2048,2048
260.551,-5.55112e-17,0,2048,2048
260.604,-2.77556e-17,0,2048,2048
260.651,-2.77556e-17,0,2048,2048
260.704,-2.77556e-17,0,2048,2048
260.75,-2.77556e-17,0,2048,2048
260.803,-2.77556e-17,0,2048,2048
260.856,-2.77556e-17,0,2048,2048
260.903,-2.77556e-17,0,2048,2048
260.955,-2.77556e-17,0,2048,2048
261.002,-2.77556e-17,0,2048,2048
261.055,-5.55112e-17,0,2048,2048
261.102,-5.55112e-17,0,2048,2048
261.155,-5.55112e-17,0,2048,2048
261.201,-5.55112e-17,0,2048,2048
261.254,-5.55112e-17,0,2048,2048
261.301,-5.55112e-17,0,2048,2048
261.354,-5.55112e-17,0,2048,2048
261.401,-5.55112e-17,0,2048,2048
261.453,-5.55112e-17,0,2048,2048
261.5,-5.55112e-17,0,2048,2048
261.553,-5.55112e-17,0,2048,2048
261.606,-5.55112e-17,0,2048,2048
261.653,-5.55112e-17,0,2048,2048
261.705,-5.55112e-17,0,2048,2048
261.752,-5.55112e-17,0,2048,2048
261.805,-2.77556e-17,0,2048,2048
261.852,-2.77556e-17,0,2048,2048
261.905,-2.77556e-17,0,2048,2048
261.951,-2.77556e-17,0,2048,2048
262.004,-2.77556e-17,0,2048,2048
262.051,-2.77556e-17,0,2048,2048
262.104,-2.77556e-17,0,2048,2048
262.151,-2.77556e-17,0,2048,2048
262.203,-2.77556e-17,0,2048,2048
262.25,-2.77556e-17,0,2048,2048
262.303,-2.77556e-17,0,2048,2048
262.356,-5.55112e-17,0,2048,2048
262.402,-2.77556e-17,0,2048,2048
262.455,0,0,2048,2048
262.502,0,0,2048,2048
262.555,0,0,2048,2048
262.602,0,0,2048,2048
262.654,0,0,2048,2048
262.701,2.77556e-17,0,2048,2048
262.754,5.55112e-17,0,2048,2048
262.801,5.55112e-17,0,2048,2048
262.854,5.55112e-17,0,2048,2048
262.9,5.55112e-17,0,2048,2048
262.953,5.55112e-17,0,2048,2048
263,5.55112e-17,0,2048,2048
263.053,5.55112e-17,0,2048,2048
263.105,5.55112e-17,0,2048,2048
263.152,5.55112e-17,0,2048,2048
263.205,5.55112e-17,0,2048,2048
263.252,0,0,2048,2048
263.305,0,0,2048,2048
263.352,2.77556e-17,0,2048,2048
263.404,5.55112e-17,0,2048,2048
263.451,5.55112e-17,0,2048,2048
263.504,5.55112e-17,0,2048,2048
263.551,2.77556e-17,0,2048,2048
263.603,0,0,2048,2048
263.65,0,0,2048,2048
263.703,0,0,2048,2048
263.756,0,0,2048,2048
263.803,2.77556e-17,0,2048,2048
263.855,0,0,2048,2048
263.902,2.77556e-17,0,2048,2048
263.955,-2.77556e-17,0,2048,2048
264.002,-2.77556e-17,0,2048,2048
264.055,-2.77556e-17,0,2048,2048
264.101,-2.77556e-17,0,2048,2048
264.154,-2.77556e-17,0,2048,2048
264.201,-2.77556e-17,0,2048,2048
264.254,-2.77556e-17,0,2048,2048
264.301,0,0,2048,2048
264.353,2.77556e-17,0,2048,2048
264.4,2.77556e-17,0,2048,2048
264.453,0,0,2048,2048
264.506,0,0,2048,2048
264.553,0,0,2048,2048
264.605,2.77556e-17,0,2048,2048
264.652,2.77556e-17,0,2048,2048
264.705,-2.77556e-17,0,2048,2048
264.752,-2.77556e-17,0,2048,2048
264.804,-2.77556e-17,0,2048,2048
264.851,-2.77556e-17,0,2048,2048
264.904,-2.77556e-17,0,2048,2048
264.951,-2.77556e-17,0,2048,2048
265.004,-2.77556e-17,0,2048,2048
265.051,-2.77556e-17,0,2048,2048
265.103,-2.77556e-17,0,2048,2048
265.15,-2.77556e-17,0,2048,2048
265.203,-2.77556e-17,0,2048,2048
265.256,-2.77556e-17,0,2048,2048
265.302,0,0,2048,2048
265.355,2.77556e-17,0,2048,2048
265.402,2.77556e-17,0,2048,2048
265.455,2.77556e-17,0,2048,2048
265.502,2.77556e-17,0,2048,2048
265.554,2.77556e-17,0,2048,2048
265.601,2.77556e-17,0,2048,2048
265.654,0,0,2048,2048
265.701,-2.77556e-17,0,2048,2048
265.754,-5.55112e-17,0,2048,2048
265.8,-5.55112e-17,0,2048,2048
265.853,-5.55112e-17,0,2048,2048
265.9,-2.77556e-17,0,2048,2048
265.953,-2.77556e-17,0,2048,2048
266.005,-2.77556e-17,0,2048,2048
266.052,-2.77556e-17,0,2048,2048
266.105,-2.77556e-17,0,2048,2048
266.152,0,0,2048,2048
266.205,0,0,2048,2048
266.252,0,0,2048,2048
266.304,-2.77556e-17,0,2048,2048
266.351,-8.32667e-17,0,2048,2048
266.404,-8.32667e-17,0,2048,2048
266.451,-5.55112e-17,0,2048,2048
266.503,-8.32667e-17,0,2048,2048
266.55,-5.55112e-17,0,2048,2048
266.603,-5.55112e-17,0,2048,2048
266.656,-5.55112e-17,0,2048,2048
266.703,-5.55112e-17,0,2048,2048
266.755,-5.55112e-17,0,2048,2048
266.802,-2.77556e-17,0,2048,2048
266.855,-5.55112e-17,0,2048,2048
266.902,-5.55112e-17,0,2048,2048
266.955,-2.77556e-17,0,2048,2048
267.001,-2.77556e-17,0,2048,2048
267.054,-2.77556e-17,0,2048,2048
267.101,-2.77556e-17,0,2048,2048
267.154,-2.77556e-17,0,2048,2048
267.201,-2.77556e-17,0,2048,2048
267.253,-2.77556e-17,0,2048,2048
267.3,-2.77556e-17,0,2048,2048
267.353,-5.55112e-17,0,2048,2048
267.406,-5.55112e-17,0,2048,2048
267.453,-5.55112e-17,0,2048,2048
267.505,-1.11022e-16,0,2048,2048
267.552,-5.55112e-17,0,2048,2048
267.605,-8.32667e-17,0,2048,2048
267.652,-8.32667e-17,0,2048,2048
267.704,-5.55112e-17,0,2048,2048
267.751,-5.55112e-17,0,2048,2048
267.804,-2.77556e-17,0,2048,2048
267.851,-5.55112e-17,0,2048,2048
267.904,-8.32667e-17,0,2048,2048
267.95,-5.55112e-17,0,2048,2048
268.003,-5.55112e-17,0,2048,2048
268.05,-5.55112e-17,0,2048,2048
268.103,-5.55112e-17,0,2048,2048
268.156,-5.55112e-17,0,2048,2048
268.202,-2.77556e-17,0,2048,2048
268.255,-2.77556e-17,0,2048,2048
268.302,-2.77556e-17,0,2048,2048
268.355,-2.77556e-17,0,2048,2048
268.402,-2.77556e-17,0,2048,2048
268.454,-2.77556e-17,0,2048,2048
268.501,-2.77556e-17,0,2048,2048
268.554,-2.77556e-17,0,2048,2048
268.601,-2.77556e-17,0,2048,2048
268.654,-2.77556e-17,0,2048,2048
268.7,-2.77556e-17,0,2048,2048
268.753,-2.77556e-17,0,2048,2048
268.806,-2.77556e-17,0,2048,2048
268.853,-2.77556e-17,0,2048,2048
268.905,-2.77556e-17,0,2048,2048
268.952,2.77556e-17,0,2048,2048
269.005,2.77556e-17,0,2048,2048
269.052,2.77556e-17,0,2048,2048
269.105,2.77556e-17,0,2048,2048
269.151,2.77556e-17,0,2048,2048
269.204,0,0,2048,2048
269.251,2.77556e-17,0,2048,2048
269.304,2.77556e-17,0,2048,2048
269.351,2.77556e-17,0,2048,2048
269.403,5.55112e-17,0,2048,2048
269.45,5.55112e-17,0,2048,2048
269.503,8.32667e-17,0,2048,2048
269.556,8.32667e-17,0,2048,2048
269.603,8.32667e-17,0,2048,2048
269.65,8.32667e-17,0,2694,2694
269.701,8.32667e-17,0,3490,3490
269.75,8.32667e-17,0,4038,4038
269.8,8.32667e-17,0,4810,4810
269.85,8.32667e-17,0,5674,5674
269.901,8.32667e-17,0,6458,6458
269.95,8.32667e-17,0,7274,7274
270,8.32667e-17,0,8082,8082
270.051,8.32667e-17,0,8902,8902
270.1,8.32667e-17,0,9742,9742
270.15,8.32667e-17,0,10586,10586
270.2,8.32667e-17,0,11370,11370
270.251,8.32667e-17,0,12254,12254
270.3,8.32667e-17,0,13130,13130
270.35,8.32667e-17,0,13902,13902
270.4,8.32667e-17,0,14774,14774
270.451,8.32667e-17,0,15650,15650
270.5,8.32667e-17,0,16538,16538
270.55,8.32667e-17,0,17310,17310
270.601,8.32667e-17,0,18170,18170
270.65,8.32667e-17,0,19010,19010
270.7,-8.60423e-16,0,19814,19814
270.75,-5.16254e-15,0,20602,20602
270.801,-4.05231e-14,0,20878,20878
270.85,-2.32619e-13,0,21550,21550
270.9,-1.01422e-12,0,22414,22414
270.951,-3.56251e-12,0,23266,23266
271.001,-1.00153e-11,0,24154,24154
271.05,-2.34513e-11,0,24958,24958
271.1,-4.64021e-11,0,25834,25834
271.151,-7.89018e-11,0,26722,26722
271.2,-1.14264e-10,0,27598,27598
271.25,-1.42447e-10,0,28438,28438
271.3,-1.5221e-10,0,29314,29314
271.351,-1.3689e-10,0,30202,30202
271.4,-9.9657e-11,0,31078,31078
271.45,-5.11974e-11,0,31966,31966
271.501,-4.12739e-12,0,32770,32770
271.55,3.08349e-11,0,33646,33646
271.6,5.25334e-11,0,34534,34534
271.65,6.4955e-11,0,35374,35374
271.701,7.36838e-11,0,36250,36250
271.75,8.15821e-11,0,37126,37126
271.8,8.86313e-11,0,37922,37922
271.851,9.33971e-11,0,38818,38818
271.901,9.53223e-11,0,39646,39646
271.95,9.59099e-11,0,40534,40534
272,9.72004e-11,0,41338,41338
272.051,1.00175e-10,0,42214,42214
272.1,1.03882e-10,0,43054,43054
272.15,1.06638e-10,0,43858,43858
272.2,1.07453e-10,0,44686,44686
272.251,1.06888e-10,0,45574,45574
272.3,1.06546e-10,0,46378,46378
272.35,1.0759e-10,0,47206,47206
272.401,1.0999e-10,0,48010,48010
272.45,1.13004e-10,0,48850,48850
272.5,1.17103e-10,0,49654,49654
272.55,1.24774e-10,0,50482,50482
272.601,1.3905e-10,0,51286,51286
272.65,1.57883e-10,0,52086,52086
272.7,1.70526e-10,0,52826,52826
272.751,1.55633e-10,0,53598,53598
272.801,8.88526e-11,0,54346,54346
272.85,-4.66675e-11,0,55142,55142
272.9,-2.50121e-10,0,55898,55898
272.951,-5.03732e-10,0,56702,56702
273,-7.49667e-10,0,57458,57458
273.05,-6.3254e-10,0,58182,58182
273.1,3.38712e-09,0,58982,58982
273.151,1.00723e-08,0,59694,59694
273.2,1.70396e-08,0,60430,60430
273.25,2.29067e-08,0,60646,60646
273.301,2.70885e-08,0,61366,61366
273.35,2.94785e-08,0,62190,62190
273.4,3.08761e-08,0,62962,62962
273.45,3.29041e-08,0,63550,63550
273.501,3.75003e-08,0,64154,64154
273.55,4.54445e-08,0,64710,64710
273.6,5.61849e-08,0,64386,64386
273.65,6.86227e-08,0,64874,64874
273.701,8.26769e-08,0,65618,65618
273.75,9.90592e-08,0,66526,66526
273.8,1.19732e-07,0,68006,68006
273.851,1.46659e-07,0,69814,69814
273.9,1.79994e-07,0,70570,70570
273.95,2.20348e-07,0,71326,71326
274,2.6674e-07,0,72082,72082
274.051,3.17379e-07,0,72838,72838
274.1,3.67986e-07,0,73594,73594
274.15,4.1849e-07,0,74350,74350
274.201,4.71659e-07,0,75106,75106
274.251,5.28572e-07,0,75814,75814
274.3,5.89953e-07,0,76570,76570
274.35,6.52111e-07,0,77326,77326
274.401,7.10697e-07,0,78066,78066
274.45,7.59972e-07,0,78754,78754
274.5,7.98809e-07,0,79510,79510
274.55,8.26545e-07,0,80218,80218
274.601,8.44199e-07,0,80974,80974
274.65,8.53734e-07,0,81658,81658
274.7,8.58371e-07,0,82366,82366
274.751,8.5999e-07,0,83122,83122
274.8,8.58954e-07,0,83794,83794
274.85,8.54911e-07,0,84502,84502
274.9,8.47072e-07,0,85258,85258
274.951,8.3409e-07,0,85942,85942
275,8.15107e-07,0,86650,86650
275.05,7.88921e-07,0,87322,87322
275.101,7.54205e-07,0,88054,88054
275.151,7.1178e-07,0,88786,88786
275.2,6.6253e-07,0,89470,89470
275.25,6.09505e-07,0,90178,90178
275.301,5.55433e-07,0,90850,90850
275.35,5.04414e-07,0,91558,91558
275.4,4.5682e-07,0,92242,92242
275.45,4.13104e-07,0,92950,92950
275.501,3.72637e-07,0,93622,93622
275.55,3.36014e-07,0,94330,94330
275.6,3.01869e-07,0,95014,95014
275.651,2.69073e-07,0,95722,95722
275.7,2.38089e-07,0,96438,96438
275.75,2.08365e-07,0,97102,97102
275.8,1.80876e-07,0,97786,97786
275.851,1.57342e-07,0,98494,98494
275.9,1.40119e-07,0,99166,99166
275.95,1.28109e-07,0,99874,99874
276,1.18109e-07,0,100558,100558
276.051,1.06586e-07,0,101266,101266
276.1,9.30204e-08,0,101938,101938
276.15,7.91554e-08,0,102646,102646
276.201,6.73465e-08,0,103282,103282
276.25,5.91458e-08,0,103954,103954
276.3,5.40107e-08,0,104662,104662
276.35,5.08835e-08,0,105346,105346
276.401,4.83355e-08,0,106054,106054
276.45,4.4868e-08,0,106678,106678
276.5,3.93923e-08,0,107362,107362
276.551,3.22926e-08,0,108070,108070
276.6,2.57526e-08,0,108742,108742
276.65,2.1645e-08,0,109378,109378
276.7,2.03928e-08,0,110086,110086
276.751,2.0792e-08,0,110758,110758
276.8,2.15487e-08,0,111394,111394
276.85,2.20053e-08,0,112102,112102
276.9,2.21187e-08,0,112726,112726
276.951,2.21479e-08,0,113410,113410
277,2.22354e-08,0,114118,114118
277.05,2.2361e-08,0,114742,114742
277.101,2.24635e-08,0,115426,115426
277.15,2.24208e-08,0,116094,116094
277.2,2.19323e-08,0,116758,116758
277.25,2.12951e-08,0,117394,117394
277.301,2.10455e-08,0,118066,118066
277.35,2.09833e-08,0,118702,118702
277.4,2.0927e-08,0,119410,119410
277.451,2.08493e-08,0,120034,120034
277.501,2.07474e-08,0,120670,120670
277.55,2.06168e-08,0,121342,121342
277.6,2.04549e-08,0,121978,121978
277.651,2.02576e-08,0,122602,122602
277.7,2.00298e-08,0,123238,123238
277.75,1.97675e-08,0,123814,123814
277.8,1.94686e-08,0,124450,124450
277.851,1.9126e-08,0,125002,125002
277.9,1.87494e-08,0,125618,125618
277.95,1.83361e-08,0,126206,126206
278.001,1.78841e-08,0,126718,126718
278.05,1.74125e-08,0,127270,127270
278.1,1.69215e-08,0,127774,127774
278.15,1.64175e-08,0,128278,128278
278.201,1.58978e-08,0,128782,128782
278.25,1.53812e-08,0,129238,129238
278.3,1.48628e-08,0,129742,129742
278.351,1.43369e-08,0,130294,130294
278.401,1.38208e-08,0,131072,131072
278.45,1.33095e-08,0,131072,131072
278.5,1.28061e-08,0,131072,131072
278.551,1.23072e-08,0,131072,131072
278.6,1.1832e-08,0,131072,131072
278.65,1.13778e-08,0,131072,131072
278.7,1.09497e-08,0,131072,131072
278.751,1.0546e-08,0,131072,131072
278.8,1.0181e-08,0,131072,131072
278.85,9.84922e-09,0,131072,131072
278.901,9.54576e-09,0,131072,131072
278.95,9.27753e-09,0,131072,131072
279,9.03765e-09,0,131072,131072
279.05,8.82383e-09,0,131072,131072
279.101,8.6314e-09,0,131072,131072
279.15,8.46431e-09,0,131072,131072
279.2,8.31832e-09,0,131072,131072
279.25,8.19236e-09,0,131072,131072
279.301,8.0839e-09,0,131072,131072
279.35,7.99447e-09,0,131072,131072
279.4,7.91986e-09,0,131072,131072
279.451,7.85613e-09,0,131072,131072
279.5,7.80241e-09,0,131072,131072
279.55,7.75628e-09,0,131072,131072
279.6,7.7177e-09,0,131072,131072
279.651,7.68687e-09,0,131072,131072
279.7,7.66475e-09,0,131072,131072
279.75,7.64988e-09,0,131072,131072
279.801,7.6405e-09,0,131072,131072
279.851,7.63514e-09,0,131072,131072
279.9,7.6324e-09,0,131072,131072
279.95,7.63181e-09,0,131072,131072
280.001,7.63374e-09,0,131072,131072
280.05,7.63896e-09,0,131072,131072
280.1,7.64808e-09,0,131072,131072
280.15,7.66091e-09,0,131072,131072
280.201,7.6767e-09,0,131072,131072
280.25,7.69363e-09,0,131072,131072
280.3,7.71087e-09,0,131072,131072
280.351,7.72818e-09,0,131072,131072
280.4,7.74503e-09,0,131072,131072
280.45,7.76176e-09,0,131072,131072
280.5,7.77844e-09,0,131072,131072
280.551,7.79532e-09,0,131072,131072
280.6,7.81188e-09,0,131072,131072
280.65,7.82837e-09,0,131072,131072
280.701,7.84511e-09,0,131072,131072
280.751,7.86171e-09,0,131072,131072
280.8,7.87844e-09,0,131072,131072
280.85,7.8952e-09,0,131072,131072
280.901,7.91208e-09,0,131072,131072
280.95,7.9285e-09,0,131072,131072
281,7.94466e-09,0,131072,131072
281.05,7.96051e-09,0,131072,131072
281.101,7.97621e-09,0,131072,131072
281.15,7.99128e-09,0,131072,131072
281.2,8.00589e-09,0,131072,131072
281.251,8.02018e-09,0,131072,131072
281.3,8.03366e-09,0,131072,131072
281.35,8.04648e-09,0,131072,131072
281.4,8.05855e-09,0,131072,131072
281.451,8.06996e-09,0,131072,131072
281.5,8.08031e-09,0,131072,131072
281.55,8.08976e-09,0,131072,131072
281.6,8.09834e-09,0,131072,131072
281.651,8.10625e-09,0,131072,131072
281.7,8.11348e-09,0,131072,131072
281.75,8.12048e-09,0,131072,131072
281.801,8.1283e-09,0,131072,131072
281.85,8.13941e-09,0,131072,131072
281.9,8.15946e-09,0,131072,131072
281.95,8.19552e-09,0,131072,131072
282.001,8.25397e-09,0,131072,131072
282.05,8.33468e-09,0,131072,131072
282.1,8.43658e-09,0,131072,131072
282.151,8.55851e-09,0,131072,131072
282.201,8.69475e-09,0,131072,131072
282.25,8.84757e-09,0,131072,131072
282.3,9.02111e-09,0,131072,131072
282.351,9.22572e-09,0,131072,131072
282.4,9.46437e-09,0,131072,131072
282.45,9.74911e-09,0,131072,131072
282.5,1.00897e-08,0,131072,131072
282.551,1.05043e-08,0,131072,131072
282.6,1.09958e-08,0,131072,131072
282.65,1.15885e-08,0,131072,131072
282.701,1.23163e-08,0,131072,131072
282.75,1.31822e-08,0,131072,131072
282.8,1.42181e-08,0,131072,131072
282.85,1.54429e-08,0,131072,131072
282.901,1.68936e-08,0,131072,131072
282.95,1.85395e-08,0,131072,131072
283,2.04102e-08,0,131072,131072
283.051,2.25494e-08,0,131072,131072
283.101,2.49045e-08,0,131072,131072
283.15,2.75084e-08,0,131072,131072
283.2,3.03556e-08,0,131072,131072
283.251,3.34756e-08,0,131072,131072
283.3,3.67511e-08,0,131072,131072
283.35,4.01931e-08,0,131072,131072
283.4,4.37682e-08,0,131072,131072
283.451,4.75016e-08,0,131072,131072
283.5,5.1261e-08,0,131072,131072
283.55,5.50824e-08,0,131072,131072
283.601,5.90098e-08,0,131072,131072
283.65,6.29173e-08,0,131072,131072
283.7,6.68495e-08,0,131072,131072
283.75,7.08071e-08,0,131072,131072
283.801,7.49181e-08,0,131072,131072
283.85,7.92969e-08,0,131072,131072
283.9,8.44125e-08,0,131072,131072
283.95,9.06265e-08,0,131072,131072
284.001,9.80214e-08,0,131072,131072
284.05,1.05866e-07,0,131072,131072
284.1,1.13552e-07,0,131072,131072
284.151,1.20656e-07,0,131072,131072
284.2,1.26877e-07,0,131072,131072
284.25,1.32682e-07,0,131072,131072
284.3,1.38735e-07,0,131072,131072
284.351,1.45891e-07,0,131072,131072
284.4,1.54531e-07,0,131072,131072
284.45,1.65087e-07,0,131072,131072
284.501,1.77951e-07,0,131072,131072
284.551,1.93001e-07,0,131072,131072
284.6,2.1088e-07,0,131072,131072
284.65,2.32269e-07,0,131072,131072
284.701,2.58285e-07,0,131072,131072
284.75,2.88634e-07,0,131072,131072
284.8,3.23635e-07,0,131072,131072
284.85,3.62726e-07,0,131072,131072
284.901,4.05627e-07,0,131072,131072
284.95,4.5015e-07,0,131072,131072
285,4.96258e-07,0,131072,131072
285.051,5.44336e-07,0,131072,131072
285.1,5.92648e-07,0,131072,131072
285.15,6.41043e-07,0,131072,131072
285.2,6.87911e-07,0,131072,131072
285.251,7.31626e-07,0,131072,131072
285.3,7.68574e-07,0,131072,131072
285.35,7.97608e-07,0,131072,131072
285.401,8.1806e-07,0,131072,131072
285.451,8.29461e-07,0,131072,131072
285.5,8.3311e-07,0,131072,131072
285.55,8.30347e-07,0,131072,131072
285.601,8.2231e-07,0,131072,131072
285.65,8.10135e-07,0,131072,131072
285.7,7.94081e-07,0,131072,131072
285.75,7.73983e-07,0,131072,131072
285.801,7.48933e-07,0,131072,131072
285.85,7.19004e-07,0,131072,131072
285.9,6.83333e-07,0,131072,131072
285.951,6.41086e-07,0,131072,131072
286,5.9388e-07,0,131072,131072
286.05,5.42209e-07,0,131072,131072
286.1,4.87709e-07,0,131072,131072
286.151,4.31504e-07,0,131072,131072
286.2,3.77103e-07,0,131072,131072
286.25,3.25152e-07,0,131072,131072
286.3,2.76556e-07,0,131072,131072
286.351,2.31042e-07,0,131072,131072
286.4,1.89863e-07,0,131072,131072
286.45,1.52031e-07,0,131072,131072
286.501,1.16719e-07,0,131072,131072
286.55,8.47687e-08,0,131072,131072
286.6,5.57417e-08,0,131072,131072
286.65,2.99869e-08,0,131072,131072
286.701,7.60584e-09,0,131072,131072
286.75,-1.0622e-08,0,131072,131072
286.8,-2.54232e-08,0,131072,131072
286.851,-3.77869e-08,0,131072,131072
286.9,-4.82889e-08,0,131072,131072
286.95,-5.77128e-08,0,131072,131072
287,-6.6102e-08,0,131072,131072
287.051,-7.31788e-08,0,131072,131072
287.1,-7.83151e-08,0,131072,131072
287.15,-8.14986e-08,0,131072,131072
287.2,-8.3023e-08,0,131072,131072
287.251,-8.34951e-08,0,131072,131072
287.3,-8.35545e-08,0,131072,131072
287.35,-8.36121e-08,0,131072,131072
287.401,-8.36587e-08,0,131072,131072
287.45,-8.33291e-08,0,131072,131072
287.5,-8.21621e-08,0,131072,131072
287.55,-7.9874e-08,0,131072,131072
287.601,-7.64466e-08,0,131072,131072
287.65,-7.22875e-08,0,131072,131072
287.7,-6.7747e-08,0,131072,131072
287.751,-6.3077e-08,0,131072,131072
287.801,-5.85984e-08,0,131072,131072
287.85,-5.43201e-08,0,131072,131072
287.9,-5.02748e-08,0,131072,131072
287.951,-4.64382e-08,0,131072,131072
288,-4.29492e-08,0,131072,131072
288.05,-3.97553e-08,0,131072,131072
288.1,-3.68286e-08,0,131072,131072
288.151,-3.40828e-08,0,131072,131072
288.2,-3.15578e-08,0,131072,131072
288.25,-2.91972e-08,0,131072,131072
288.301,-2.69735e-08,0,131072,131072
288.35,-2.49585e-08,0,131072,131072
288.4,-2.31197e-08,0,131072,131072
288.45,-2.14512e-08,0,131072,131072
288.501,-1.99227e-08,0,131072,131072
288.55,-1.85688e-08,0,131072,131072
288.6,-1.73569e-08,0,131072,131072
288.651,-1.62627e-08,0,131072,131072
288.701,-1.53074e-08,0,131072,131072
288.75,-1.44621e-08,0,131072,131072
288.8,-1.37138e-08,0,131072,131072
288.851,-1.30405e-08,0,131072,131072
288.9,-1.2451e-08,0,131072,131072
288.95,-1.19278e-08,0,131072,131072
289,-1.14669e-08,0,131072,131072
289.051,-1.1061e-08,0,131072,131072
289.1,-1.07204e-08,0,131072,131072
289.15,-1.04363e-08,0,131072,131072
289.201,-1.02021e-08,0,131072,131072
289.25,-1.00198e-08,0,131072,131072
289.3,-9.8811e-09,0,131072,131072
289.35,-9.78213e-09,0,131072,131072
289.401,-9.71907e-09,0,131072,131072
289.45,-9.69074e-09,0,131072,131072
289.5,-9.69238e-09,0,131072,131072
289.551,-9.71989e-09,0,131072,131072
289.601,-9.76674e-09,0,131072,131072
289.65,-9.82719e-09,0,131072,131072
289.7,-9.89584e-09,0,131072,131072
289.751,-9.9694e-09,0,131072,131072
289.8,-1.00424e-08,0,131072,131072
289.85,-1.01136e-08,0,131072,131072
289.9,-1.01809e-08,0,131072,131072
289.951,-1.02442e-08,0,131072,131072
290,-1.0301e-08,0,131072,131072
290.05,-1.03524e-08,0,131072,131072
290.101,-1.03998e-08,0,131072,131072
290.15,-1.04425e-08,0,131072,131072
290.2,-1.04816e-08,0,131072,131072
290.25,-1.05171e-08,0,131072,131072
290.301,-1.05491e-08,0,131072,131072
290.35,-1.05771e-08,0,131072,131072
290.4,-1.06027e-08,0,131072,131072
290.45,-1.06273e-08,0,131072,131072
290.501,-1.06527e-08,0,131072,131072
290.55,-1.06788e-08,0,131072,131072
290.6,-1.07059e-08,0,131072,131072
290.651,-1.07339e-08,0,131072,131072
290.7,-1.07615e-08,0,131072,131072
290.75,-1.07887e-08,0,131072,131072
290.8,-1.08158e-08,0,131072,131072
290.851,-1.08437e-08,0,131072,131072
290.9,-1.08719e-08,0,131072,131072
290.95,-1.0901e-08,0,131072,131072
291.001,-1.09315e-08,0,131072,131072
291.051,-1.09626e-08,0,131072,131072
291.1,-1.09953e-08,0,131072,131072
291.15,-1.10304e-08,0,131072,131072
291.201,-1.10702e-08,0,131072,131072
291.25,-1.11151e-08,0,131072,131072
291.3,-1.11667e-08,0,131072,131072
291.35,-1.12255e-08,0,131072,131072
291.401,-1.12923e-08,0,131072,131072
291.45,-1.13651e-08,0,131072,131072
291.5,-1.14448e-08,0,131072,131072
291.551,-1.15338e-08,0,131072,131072
291.6,-1.16307e-08,0,131072,131072
291.65,-1.17379e-08,0,131072,131072
291.7,-1.18558e-08,0,131072,131072
291.751,-1.19858e-08,0,131072,131072
291.8,-1.21231e-08,0,131072,131072
291.85,-1.22686e-08,0,131072,131072
291.901,-1.24244e-08,0,131072,131072
291.951,-1.25867e-08,0,131072,131072
292,-1.27597e-08,0,131072,131072
292.05,-1.29464e-08,0,131072,131072
292.101,-1.31534e-08,0,131072,131072
292.15,-1.33778e-08,0,131072,131072
292.2,-1.36254e-08,0,131072,131072
292.25,-1.38979e-08,0,131072,131072
292.301,-1.42008e-08,0,131072,131072
292.35,-1.45251e-08,0,131072,131072
292.4,-1.48739e-08,0,131072,131072
292.451,-1.52513e-08,0,131072,131072
292.5,-1.56442e-08,0,131072,131072
292.55,-1.60557e-08,0,131072,131072
292.6,-1.64833e-08,0,131072,131072
292.651,-1.69308e-08,0,131072,131072
292.7,-1.73817e-08,0,131072,131072
292.75,-1.78385e-08,0,131072,131072
292.8,-1.82972e-08,0,131072,131072
292.851,-1.87599e-08,0,131072,131072
292.9,-1.92091e-08,0,131072,131072
292.95,-1.96476e-08,0,131072,131072
293.001,-2.00777e-08,0,131072,131072
293.05,-2.04839e-08,0,131072,131072
293.1,-2.08699e-08,0,131072,131072
293.15,-2.12336e-08,0,131072,131072
293.201,-2.15779e-08,0,131072,131072
293.25,-2.18905e-08,0,131072,131072
293.3,-2.21737e-08,0,131072,131072
293.351,-2.24278e-08,0,131072,131072
293.401,-2.26424e-08,0,131072,131072
293.45,-2.28197e-08,0,131072,131072
293.5,-2.29595e-08,0,131072,131072
293.551,-2.30642e-08,0,131072,131072
293.6,-2.31331e-08,0,131072,131072
293.65,-2.31707e-08,0,131072,131072
293.7,-2.31795e-08,0,131072,131072
293.751,-2.31613e-08,0,131072,131072
293.8,-2.31183e-08,0,131072,131072
293.85,-2.30526e-08,0,131072,131072
293.901,-2.29648e-08,0,131072,131072
293.95,-2.28605e-08,0,131072,131072
294,-2.27413e-08,0,131072,131072
294.05,-2.26102e-08,0,131072,131072
294.101,-2.24677e-08,0,131072,131072
294.15,-2.232e-08,0,131072,131072
294.2,-2.21669e-08,0,131072,131072
294.251,-2.20072e-08,0,131072,131072
294.301,-2.18469e-08,0,131072,131072
294.35,-2.16846e-08,0,131072,131072
294.4,-2.15214e-08,0,131072,131072
294.451,-2.1356e-08,0,129796,129796
294.5,-2.11942e-08,0,130368,130368
294.55,-2.10344e-08,0,130464,130464
294.6,-2.08776e-08,0,130512,130512
294.651,-2.0722e-08,0,130464,130464
294.7,-2.05724e-08,0,130464,130464
294.75,-2.04268e-08,0,130464,130464
294.801,-2.02834e-08,0,130416,130416
294.85,-2.01467e-08,0,130352,130352
294.9,-2.0015e-08,0,130272,130272
294.95,-1.98887e-08,0,130272,130272
295.001,-1.97662e-08,0,130272,130272
295.05,-1.96513e-08,0,130264,130264
295.1,-1.95421e-08,0,130192,130192
295.15,-1.94386e-08,0,130136,130136
295.201,-1.93389e-08,0,130088,130088
295.25,-1.92457e-08,0,130024,130024
295.3,-1.9157e-08,0,130032,130032
295.351,-1.90714e-08,0,129960,129960
295.4,-1.89909e-08,0,129936,129936
295.45,-1.89139e-08,0,129888,129888
295.5,-1.88399e-08,0,129888,129888
295.551,-1.87677e-08,0,129872,129872
295.6,-1.86989e-08,0,129872,129872
295.65,-1.86322e-08,0,129824,129824
295.701,-1.85664e-08,0,129808,129808
295.751,-1.8503e-08,0,129784,129784
295.8,-1.84408e-08,0,129792,129792
295.85,-1.83796e-08,0,129736,129736
295.901,-1.83182e-08,0,129720,129720
295.95,-1.82582e-08,0,129688,129688
296,-1.81985e-08,0,129656,129656
296.05,-1.81389e-08,0,129632,129632
296.101,-1.80784e-08,0,129592,129592
296.15,-1.80185e-08,0,129640,129640
296.2,-1.79583e-08,0,129600,129600
296.251,-1.78967e-08,0,129600,129600
296.3,-1.78355e-08,0,129600,129600
296.35,-1.77735e-08,0,129552,129552
296.4,-1.77108e-08,0,129552,129552
296.451,-1.76463e-08,0,129568,129568
296.5,-1.75817e-08,0,129536,129536
296.55,-1.75159e-08,0,129552,129552
296.601,-1.74478e-08,0,129488,129488
296.651,-1.73793e-08,0,129488,129488
296.7,-1.73092e-08,0,129504,129504
296.75,-1.72372e-08,0,129480,129480
296.801,-1.7162e-08,0,129456,129456
296.85,-1.70856e-08,0,129456,129456
296.9,-1.70066e-08,0,129488,129488
296.95,-1.69248e-08,0,129424,129424
297.001,-1.68385e-08,0,129440,129440
297.05,-1.675e-08,0,129424,129424
297.1,-1.66577e-08,0,129440,129440
297.151,-1.656e-08,0,129416,129416
297.2,-1.64593e-08,0,129392,129392
297.25,-1.63541e-08,0,129432,129432
297.3,-1.62441e-08,0,129380,129380
297.351,-1.61274e-08,0,129356,129356
297.4,-1.60073e-08,0,129344,129344
297.45,-1.5882e-08,0,129320,129320
297.5,-1.57514e-08,0,129264,129264
297.551,-1.56135e-08,0,129264,129264
297.6,-1.54723e-08,0,129256,129256
297.65,-1.53258e-08,0,129200,129200
297.701,-1.51718e-08,0,129224,129224
297.75,-1.50148e-08,0,129224,129224
297.8,-1.48525e-08,0,129200,129200
297.85,-1.46846e-08,0,129216,129216
297.901,-1.45085e-08,0,129200,129200
297.95,-1.4329e-08,0,129176,129176
298,-1.41433e-08,0,129152,129152
298.051,-1.39485e-08,0,129184,129184
298.1,-1.37502e-08,0,129224,129224
298.15,-1.35459e-08,0,129232,129232
298.2,-1.33359e-08,0,129256,129256
298.251,-1.31171e-08,0,129264,129264
298.3,-1.2896e-08,0,129240,129240
298.35,-1.2669e-08,0,129300,129300
298.4,-1.24357e-08,0,129352,129352
298.451,-1.21912e-08,0,129308,129308
298.5,-1.19416e-08,0,129304,129304
298.55,-1.16816e-08,0,129352,129352
298.601,-1.14053e-08,0,129352,129352
298.65,-1.11184e-08,0,129352,129352
298.7,-1.08146e-08,0,129384,129384
298.75,-1.04913e-08,0,129352,129352
298.801,-1.01405e-08,0,129376,129376
298.85,-9.77001e-09,0,129352,129352
298.9,-9.37284e-09,0,129384,129384
298.951,-8.94086e-09,0,129432,129432
299.001,-8.48545e-09,0,129352,129352
299.05,-8.00002e-09,0,129352,129352
299.1,-7.48466e-09,0,129424,129424
299.151,-6.93201e-09,0,129368,129368
299.2,-6.3599e-09,0,129384,129384
299.25,-5.76342e-09,0,129376,129376
299.3,-5.14637e-09,0,129416,129416
299.351,-4.50292e-09,0,129376,129376
299.4,-3.8511e-09,0,129376,129376
299.45,-3.16772e-09,0,129352,129352
299.501,-2.4026e-09,0,129336,129336
299.55,-1.62962e-09,0,129328,129328
299.6,-1.05523e-09,0,129304,129304
299.65,-6.22277e-10,0,129272,129272
299.701,-3.41419e-11,0,129228,129228
299.75,1.90607e-10,0,129140,129140
299.8,5.47784e-10,0,129096,129096
299.851,1.5381e-09,0,129096,129096
299.901,2.02105e-09,0,129040,129040
299.95,2.47033e-09,0,129016,129016
300,2.87231e-09,0,128964,128964
300.051,3.24075e-09,0,128988,128988
300.1,3.55983e-09,0,128920,128920
300.15,3.84506e-09,0,128872,128872
300.2,4.07949e-09,0,128832,128832
300.251,4.26551e-09,0,128792,128792
300.3,4.41423e-09,0,128716,128716
300.35,4.52984e-09,0,128700,128700
300.401,4.61363e-09,0,128680,128680
300.45,4.65942e-09,0,128632,128632
300.5,4.67442e-09,0,128596,128596
300.55,4.66752e-09,0,128532,128532
300.601,4.64094e-09,0,128532,128532
300.65,4.5951e-09,0,128472,128472
300.7,4.5289e-09,0,128416,128416
300.75,4.44831e-09,0,128412,128412
300.801,4.3576e-09,0,128388,128388
300.85,4.26152e-09,0,128336,128336
300.9,4.15806e-09,0,128320,128320
300.951,4.046e-09,0,128280,128280
301,3.93187e-09,0,128208,128208
301.05,3.81768e-09,0,128148,128148
301.1,3.70453e-09,0,128092,128092
301.151,3.59015e-09,0,128028,128028
301.2,3.47786e-09,0,127956,127956
301.25,3.36727e-09,0,127944,127944
301.301,3.25864e-09,0,127860,127860
301.351,3.15607e-09,0,127832,127832
301.4,3.05804e-09,0,127788,127788
301.45,2.96407e-09,0,127720,127720
301.501,2.87374e-09,0,127692,127692
301.55,2.79111e-09,0,127672,127672
301.6,2.71606e-09,0,127596,127596
301.65,2.64894e-09,0,127584,127584
301.701,2.5882e-09,0,127540,127540
301.75,2.53559e-09,0,127524,127524
301.8,2.49017e-09,0,127480,127480
301.851,2.45173e-09,0,127476,127476
301.9,2.42123e-09,0,127420,127420
301.95,2.39693e-09,0,127392,127392
302,2.37779e-09,0,127404,127404
302.051,2.36257e-09,0,127368,127368
302.1,2.35111e-09,0,127372,127372
302.15,2.34251e-09,0,127336,127336
302.201,2.33593e-09,0,127324,127324
302.251,2.33075e-09,0,127284,127284
302.3,2.32628e-09,0,127296,127296
302.35,2.32165e-09,0,127272,127272
302.401,2.31609e-09,0,127264,127264
302.45,2.30899e-09,0,127252,127252
302.5,2.29987e-09,0,127244,127244
302.55,2.28845e-09,0,127240,127240
302.601,2.27485e-09,0,127200,127200
302.65,2.26063e-09,0,127192,127192
302.7,2.24676e-09,0,127200,127200
302.751,2.23391e-09,0,127192,127192
302.8,2.22284e-09,0,127200,127200
302.85,2.21334e-09,0,127192,127192
302.9,2.20532e-09,0,127168,127168
302.951,2.19791e-09,0,127638,127638
303,2.1907e-09,0,128510,128510
303.05,2.18327e-09,0,129374,129374
303.1,2.17571e-09,0,130246,130246
303.151,2.16785e-09,0,131072,131072
303.2,2.16031e-09,0,131072,131072
303.25,2.15365e-09,0,131072,131072
303.301,2.14849e-09,0,131072,131072
303.35,2.14573e-09,0,131072,131072
303.4,2.14589e-09,0,131072,131072
303.45,2.14904e-09,0,131072,131072
303.501,2.1546e-09,0,131072,131072
303.55,2.16175e-09,0,131072,131072
303.6,2.16965e-09,0,131072,131072
303.651,2.17803e-09,0,131072,131072
303.701,2.18612e-09,0,131072,131072
303.75,2.19384e-09,0,131072,131072
303.8,2.20114e-09,0,131072,131072
303.851,2.20803e-09,0,131072,131072
303.9,2.21418e-09,0,131072,131072
303.95,2.21963e-09,0,131072,131072
304,2.22538e-09,0,131072,131072
304.051,2.23039e-09,0,131072,131072
304.1,2.23381e-09,0,131072,131072
304.15,2.23595e-09,0,131072,131072
304.201,2.23712e-09,0,131072,131072
304.25,2.23754e-09,0,131072,131072
304.3,2.23749e-09,0,131072,131072
304.35,2.2371e-09,0,131072,131072
304.401,2.23625e-09,0,131072,131072
304.45,2.23488e-09,0,131072,131072
304.5,2.23277e-09,0,131072,131072
304.551,2.22979e-09,0,131072,131072
304.601,2.226e-09,0,131072,131072
304.65,2.22178e-09,0,131072,131072
304.7,2.21757e-09,0,131072,131072
304.751,2.21379e-09,0,131072,131072
304.8,2.21074e-09,0,131072,131072
304.85,2.20722e-09,0,131072,131072
304.9,2.20249e-09,0,131072,131072
304.951,2.19635e-09,0,131072,131072
