250,0,0,512,512
250.012,0,0,512,512
250.059,0,0,512,512
250.105,0,0,512,512
250.152,0,0,512,512
250.211,0,0,512,512
250.258,0,0,512,512
250.305,0,0,512,512
250.352,0,0,512,512
250.41,0,0,512,512
250.457,0,0,512,512
250.504,0,0,512,512
250.551,0,0,512,512
250.609,0,0,512,512
250.656,0,0,512,512
250.703,0,0,512,512
250.762,0,0,512,512
250.808,0,0,512,512
250.855,0,0,512,512
250.902,0,0,512,512
250.961,0,0,512,512
251.008,0,0,512,512
251.055,0,0,512,512
251.101,0,0,512,512
251.16,0,0,512,512
251.207,0,0,512,512
251.254,0,0,512,512
251.301,0,0,512,512
251.359,0,0,512,512
251.406,0,0,512,512
251.453,0,0,512,512
251.511,0,0,512,512
251.558,0,0,512,512
251.605,0,0,512,512
251.652,0,0,512,512
251.711,0,0,512,512
251.758,0,0,512,512
251.804,0,0,512,512
251.851,0,0,512,512
251.91,0,0,512,512
251.957,0,0,512,512
252.004,0,0,512,512
252.05,0,0,512,512
252.109,0,0,512,512
252.156,0,0,512,512
252.203,0,0,512,512
252.261,0,0,512,512
252.308,0,0,512,512
252.355,0,0,512,512
252.402,0,0,512,512
252.461,0,0,512,512
252.507,0,0,512,512
252.554,0,0,512,512
252.601,0,0,512,512
252.66,0,0,512,512
252.707,0,0,512,512
252.754,0,0,512,512
252.8,0,0,512,512
252.859,0,0,512,512
252.906,0,0,512,512
252.953,0,0,512,512
253.011,0,0,512,512
253.058,0,0,512,512
253.105,0,0,512,512
253.152,0,0,512,512
253.21,0,0,512,512
253.257,0,0,512,512
253.304,0,0,512,512
253.351,0,0,512,512
253.41,0,0,512,512
253.457,0,0,512,512
253.503,0,0,512,512
253.55,0,0,512,512
253.609,0,0,512,512
253.656,0,0,512,512
253.703,0,0,512,512
253.761,0,0,512,512
253.808,0,0,512,512
253.855,0,0,512,512
253.902,0,0,512,512
253.96,0,0,512,512
254.007,0,0,512,512
254.054,0,0,512,512
254.101,0,0,512,512
254.16,0,0,512,512
254.206,0,0,512,512
254.253,0,0,512,512
254.3,0,0,512,512
254.359,0,0,512,512
254.406,0,0,512,512
254.452,0,0,512,512
254.511,0,0,512,512
254.558,-1.38778e-17,0,512,512
254.605,-2.77556e-17,0,512,512
254.652,-2.77556e-17,0,512,512
254.71,-2.77556e-17,0,512,512
254.757,-2.77556e-17,0,512,512
254.804,-2.77556e-17,0,512,512
254.851,-2.77556e-17,0,512,512
254.909,-2.77556e-17,0,512,512
254.956,0,0,512,512
255.003,0,0,512,512
255.05,0,0,512,512
255.109,0,0,512,512
255.155,0,0,512,512
255.202,0,0,512,512
255.261,0,0,512,512
255.308,0,0,512,512
255.355,0,0,512,512
255.402,0,0,512,512
255.46,0,0,512,512
255.507,0,0,512,512
255.554,0,0,512,512
255.601,0,0,512,512
255.659,0,0,512,512
255.706,0,0,512,512
255.753,0,0,512,512
255.812,0,0,512,512
255.859,0,0,512,512
255.905,0,0,512,512
255.952,0,0,512,512
256.011,0,0,512,512
256.058,0,0,512,512
256.105,0,0,512,512
256.151,0,0,512,512
256.21,0,0,512,512
256.257,0,0,512,512
256.304,0,0,512,512
256.351,0,0,512,512
256.409,0,0,512,512
256.456,0,0,512,512
256.503,0,0,512,512
256.562,0,0,512,512
256.608,0,0,512,512
256.655,0,0,512,512
256.702,0,0,512,512
256.761,0,0,512,512
256.808,0,0,512,512
256.854,0,0,512,512
256.901,0,0,512,512
256.96,0,0,512,512
257.007,0,0,512,512
257.054,0,0,512,512
257.101,0,0,512,512
257.159,0,0,512,512
257.206,0,0,512,512
257.253,0,0,512,512
257.311,0,0,512,512
257.358,0,0,512,512
257.405,0,0,512,512
257.452,0,0,512,512
257.511,0,0,512,512
257.557,0,0,512,512
257.604,0,0,512,512
257.651,0,0,512,512
257.71,0,0,512,512
257.757,0,0,512,512
257.804,0,0,512,512
257.85,0,0,512,512
257.909,0,0,512,512
257.956,0,0,512,512
258.003,0,0,512,512
258.061,0,0,512,512
258.108,0,0,512,512
258.155,0,0,512,512
258.202,0,0,512,512
258.261,0,0,512,512
258.307,0,0,512,512
258.354,0,0,512,512
258.401,0,0,512,512
258.46,0,0,512,512
258.507,0,0,512,512
258.553,0,0,512,512
258.6,0,0,512,512
258.659,0,0,512,512
258.706,0,0,512,512
258.753,0,0,512,512
258.811,0,0,512,512
258.858,0,0,512,512
258.905,0,0,512,512
258.952,0,0,512,512
259.01,0,0,512,512
259.057,0,0,512,512
259.104,0,0,512,512
259.151,0,0,512,512
259.21,0,0,512,512
259.256,0,0,512,512
259.303,0,0,512,512
259.35,0,0,512,512
259.409,0,0,512,512
259.456,0,0,512,512
259.503,0,0,512,512
259.561,0,0,512,512
259.608,0,0,512,512
259.655,0,0,512,512
259.702,0,0,512,512
259.76,0,0,512,512
259.807,0,0,512,512
259.854,0,0,512,512
259.901,0,0,512,512
259.959,0,0,512,512
260.006,0,0,512,512
260.053,0,0,512,512
260.1,0,0,512,512
260.159,0,0,512,512
260.206,0,0,512,512
260.252,0,0,512,512
260.311,0,0,512,512
260.358,0,0,512,512
260.405,0,0,512,512
260.452,0,0,512,512
260.51,0,0,512,512
260.557,0,0,512,512
260.604,0,0,512,512
260.651,0,0,512,512
260.709,0,0,512,512
260.756,0,0,512,512
260.803,0,0,512,512
260.862,0,0,512,512
260.909,0,0,512,512
260.955,0,0,512,512
261.002,0,0,512,512
261.061,0,0,512,512
261.108,0,0,512,512
261.155,0,0,512,512
261.201,0,0,512,512
261.26,0,0,512,512
261.307,0,0,512,512
261.354,0,0,512,512
261.401,0,0,512,512
261.459,0,0,512,512
261.506,0,0,512,512
261.553,0,0,512,512
261.612,0,0,512,512
261.658,0,0,512,512
261.705,0,0,512,512
261.752,0,0,512,512
261.811,0,0,512,512
261.858,0,0,512,512
261.905,0,0,512,512
261.951,0,0,512,512
262.01,0,0,512,512
262.057,0,0,512,512
262.104,0,0,512,512
262.151,0,0,512,512
262.209,0,0,512,512
262.256,0,0,512,512
262.303,0,0,512,512
262.361,0,0,512,512
262.408,0,0,512,512
262.455,0,0,512,512
262.502,0,0,512,512
262.561,0,0,512,512
262.608,0,0,512,512
262.654,0,0,512,512
262.701,0,0,512,512
262.76,0,0,512,512
262.807,0,0,512,512
262.854,0,0,512,512
262.9,0,0,512,512
262.959,0,0,512,512
263.006,0,0,512,512
263.053,0,0,512,512
263.111,0,0,512,512
263.158,0,0,512,512
263.205,0,0,512,512
263.252,0,0,512,512
263.311,0,0,512,512
263.357,0,0,512,512
263.404,0,0,512,512
263.451,0,0,512,512
263.51,0,0,512,512
263.557,0,0,512,512
263.603,0,0,512,512
263.65,0,0,512,512
263.709,-1.38778e-17,0,512,512
263.756,-1.38778e-17,0,512,512
263.803,-2.77556e-17,0,512,512
263.861,-2.77556e-17,0,512,512
263.908,-2.77556e-17,0,512,512
263.955,-2.77556e-17,0,512,512
264.002,-2.77556e-17,0,512,512
264.06,-2.77556e-17,0,512,512
264.107,-1.38778e-17,0,512,512
264.154,-1.38778e-17,0,512,512
264.201,-1.38778e-17,0,512,512
264.26,-1.38778e-17,0,512,512
264.306,-1.38778e-17,0,512,512
264.353,-1.38778e-17,0,512,512
264.4,-1.38778e-17,0,512,512
264.459,-1.38778e-17,0,512,512
264.506,-1.38778e-17,0,512,512
264.553,-1.38778e-17,0,512,512
264.611,-1.38778e-17,0,512,512
264.658,-1.38778e-17,0,512,512
264.705,-1.38778e-17,0,512,512
264.752,-1.38778e-17,0,512,512
264.81,-1.38778e-17,0,512,512
264.857,-1.38778e-17,0,512,512
264.904,-1.38778e-17,0,512,512
264.951,-1.38778e-17,0,512,512
265.01,-1.38778e-17,0,512,512
265.056,-1.38778e-17,0,512,512
265.103,-1.38778e-17,0,512,512
265.15,-1.38778e-17,0,512,512
265.209,-1.38778e-17,0,512,512
265.256,-1.38778e-17,0,512,512
265.302,-1.38778e-17,0,512,512
265.361,-1.38778e-17,0,512,512
265.408,-1.38778e-17,0,512,512
265.455,0,0,512,512
265.502,0,0,512,512
265.56,0,0,512,512
265.607,0,0,512,512
265.654,0,0,512,512
265.701,0,0,512,512
265.759,0,0,512,512
265.806,0,0,512,512
265.853,0,0,512,512
265.9,0,0,512,512
265.959,0,0,512,512
266.005,0,0,512,512
266.052,0,0,512,512
266.111,0,0,512,512
266.158,0,0,512,512
266.205,0,0,512,512
266.252,0,0,512,512
266.31,0,0,512,512
266.357,0,0,512,512
266.404,0,0,512,512
266.451,0,0,512,512
266.509,0,0,512,512
266.556,0,0,512,512
266.603,0,0,512,512
266.662,0,0,512,512
266.708,0,0,512,512
266.755,0,0,512,512
266.802,0,0,512,512
266.861,0,0,512,512
266.908,0,0,512,512
266.955,0,0,512,512
267.001,0,0,512,512
267.06,0,0,512,512
267.107,0,0,512,512
267.154,0,0,512,512
267.201,0,0,512,512
267.259,0,0,512,512
267.306,0,0,512,512
267.353,0,0,512,512
267.412,0,0,512,512
267.458,0,0,512,512
267.505,0,0,512,512
267.552,0,0,512,512
267.611,0,0,512,512
267.658,0,0,512,512
267.704,0,0,512,512
267.751,0,0,512,512
267.81,0,0,512,512
267.857,0,0,512,512
267.904,0,0,512,512
267.95,0,0,512,512
268.009,0,0,512,512
268.056,1.38778e-17,0,512,512
268.103,1.38778e-17,0,512,512
268.161,1.38778e-17,0,512,512
268.208,1.38778e-17,0,512,512
268.255,0,0,512,512
268.302,0,0,512,512
268.361,1.38778e-17,0,512,512
268.407,1.38778e-17,0,512,512
268.454,1.38778e-17,0,512,512
268.501,1.38778e-17,0,512,512
268.56,1.38778e-17,0,512,512
268.607,1.38778e-17,0,512,512
268.654,1.38778e-17,0,512,512
268.7,1.38778e-17,0,512,512
268.759,1.38778e-17,0,512,512
268.806,1.38778e-17,0,512,512
268.853,1.38778e-17,0,512,512
268.911,1.38778e-17,0,512,512
268.958,1.38778e-17,0,512,512
269.005,1.38778e-17,0,512,512
269.052,1.38778e-17,0,512,512
269.11,1.38778e-17,0,512,512
269.157,1.38778e-17,0,512,512
269.204,1.38778e-17,0,512,512
269.251,1.38778e-17,0,512,512
269.31,1.38778e-17,0,512,512
269.357,1.38778e-17,0,512,512
269.403,1.38778e-17,0,512,512
269.45,1.38778e-17,0,512,512
269.509,1.38778e-17,0,512,512
269.556,1.38778e-17,0,512,512
269.603,1.38778e-17,0,512,512
269.661,1.38778e-17,0,512,512
269.708,1.38778e-17,0,512,512
269.755,1.38778e-17,0,512,512
269.802,1.38778e-17,0,512,512
269.86,0,0,512,512
269.907,1.38778e-17,0,512,512
269.954,1.38778e-17,0,512,512
270.001,1.38778e-17,0,512,512
270.06,1.38778e-17,0,512,512
270.106,1.38778e-17,0,512,512
270.153,1.38778e-17,0,512,512
270.2,1.38778e-17,0,512,512
270.259,1.38778e-17,0,512,512
270.306,1.38778e-17,0,512,512
270.352,1.38778e-17,0,512,512
270.411,1.38778e-17,0,512,512
270.458,1.38778e-17,0,512,512
270.505,1.38778e-17,0,512,512
270.552,1.38778e-17,0,512,512
270.61,1.38778e-17,0,512,512
270.657,1.38778e-17,0,512,512
270.701,1.38778e-17,0,515,515
270.756,1.38778e-17,0,521,521
270.803,1.38778e-17,0,529,529
270.855,1.38778e-17,0,537,537
270.902,1.38778e-17,0,543,543
270.955,1.38778e-17,0,551,551
271.002,1.38778e-17,0,555,555
271.054,1.38778e-17,0,561,561
271.101,1.38778e-17,0,569,569
271.15,1.38778e-17,0,585,585
271.2,1.38778e-17,0,599,599
271.254,1.38778e-17,0,615,615
271.304,1.38778e-17,0,631,631
271.353,1.38778e-17,0,647,647
271.403,1.38778e-17,0,653,653
271.453,1.38778e-17,0,652,652
271.502,1.38778e-17,0,652,652
271.552,1.38778e-17,0,654,654
271.602,1.38778e-17,0,652,652
271.652,1.38778e-17,0,658,658
271.701,1.38778e-17,0,658,658
271.751,1.38778e-17,0,650,650
271.801,1.38778e-17,0,652,652
271.85,1.38778e-17,0,654,654
271.9,1.38778e-17,0,661,661
271.954,1.38778e-17,0,669,669
272.004,1.38778e-17,0,671,671
272.053,1.38778e-17,0,679,679
272.103,1.38778e-17,0,691,691
272.153,1.38778e-17,0,693,693
272.203,1.38778e-17,0,701,701
272.252,1.38778e-17,0,709,709
272.302,1.38778e-17,0,713,713
272.352,1.38778e-17,0,715,715
272.401,1.38778e-17,0,719,719
272.451,1.38778e-17,0,731,731
272.501,1.38778e-17,0,733,733
272.551,1.38778e-17,0,731,731
272.6,1.38778e-17,0,733,733
272.65,1.38778e-17,0,729,729
272.703,1.38778e-17,0,733,733
272.756,1.38778e-17,0,731,731
272.803,1.38778e-17,0,739,739
272.855,1.38778e-17,0,741,741
272.902,1.38778e-17,0,743,743
272.955,1.38778e-17,0,747,747
273.002,1.38778e-17,0,745,745
273.055,1.38778e-17,0,749,749
273.101,1.38778e-17,0,750,750
273.154,1.38778e-17,0,754,754
273.201,1.38778e-17,0,754,754
273.254,1.38778e-17,0,754,754
273.301,1.38778e-17,0,752,752
273.353,1.38778e-17,0,748,748
273.4,1.38778e-17,0,754,754
273.453,1.38778e-17,0,748,748
273.506,1.38778e-17,0,748,748
273.552,1.38778e-17,0,752,752
273.605,1.38778e-17,0,758,758
273.652,1.38778e-17,0,752,752
273.705,1.38778e-17,0,746,746
273.752,1.38778e-17,0,748,748
273.804,1.38778e-17,0,752,752
273.851,1.38778e-17,0,756,756
273.904,1.38778e-17,0,758,758
273.951,1.38778e-17,0,756,756
274.004,1.38778e-17,0,762,762
274.05,1.38778e-17,0,762,762
274.103,1.38778e-17,0,772,772
274.15,1.38778e-17,0,774,774
274.203,1.38778e-17,0,772,772
274.255,1.38778e-17,0,778,778
274.302,1.38778e-17,0,782,782
274.355,1.38778e-17,0,784,784
274.402,1.38778e-17,0,788,788
274.455,-8.32667e-17,0,796,796
274.502,-1.66533e-16,0,800,800
274.554,-2.91434e-16,0,806,806
274.601,-4.30211e-16,0,808,808
274.654,-7.77156e-16,0,810,810
274.702,-1.45717e-15,0,812,812
274.755,-3.17801e-15,0,816,816
274.803,-6.43929e-15,0,828,828
274.85,-1.28508e-14,0,820,820
274.904,-2.72005e-14,0,828,828
274.952,-5.15282e-14,0,832,832
275.006,-1.02057e-13,0,838,838
275.054,-1.81549e-13,0,834,834
275.101,-3.0867e-13,0,830,830
275.151,-5.28522e-13,0,832,832
275.201,-8.75661e-13,0,832,832
275.251,-1.40485e-12,0,830,830
275.301,-2.18402e-12,0,826,826
275.35,-3.29241e-12,0,824,824
275.4,-4.81612e-12,0,820,820
275.45,-6.84024e-12,0,824,824
275.5,-9.4382e-12,0,830,830
275.55,-1.26583e-11,0,818,818
275.6,-1.65095e-11,0,808,808
275.652,-2.11706e-11,0,810,810
275.703,-2.61381e-11,0,808,808
275.753,-3.14294e-11,0,792,792
275.804,-3.67971e-11,0,796,796
275.855,-4.19175e-11,0,802,802
275.905,-4.64396e-11,0,800,800
275.95,-4.96132e-11,0,794,794
276.001,-5.20151e-11,0,796,796
276.053,-5.28115e-11,0,794,794
276.104,-5.17607e-11,0,796,796
276.154,-4.88501e-11,0,794,794
276.203,-4.42068e-11,0,798,798
276.252,-3.79242e-11,0,796,796
276.301,-3.02132e-11,0,806,806
276.355,-2.04257e-11,0,808,808
276.404,-1.071e-11,0,808,808
276.453,-5.89279e-13,0,812,812
276.501,9.58496e-12,0,812,812
276.55,1.9503e-11,0,824,824
276.604,2.98367e-11,0,826,826
276.653,3.8569e-11,0,830,830
276.703,4.68228e-11,0,818,818
276.75,5.43524e-11,0,820,820
276.804,6.27695e-11,0,816,816
276.852,7.11599e-11,0,810,810
276.905,8.2792e-11,0,804,804
276.953,9.71815e-11,0,804,804
277.001,1.17782e-10,0,806,806
277.055,1.52134e-10,0,796,796
277.103,1.98704e-10,0,798,798
277.152,2.66543e-10,0,802,802
277.2,3.63931e-10,0,796,796
277.254,5.19696e-10,0,802,802
277.303,7.17605e-10,0,796,796
277.351,9.87267e-10,0,784,784
277.4,1.34887e-09,0,788,788
277.454,1.88736e-09,0,792,792
277.503,2.52487e-09,0,770,770
277.552,3.34004e-09,0,774,774
277.601,4.36878e-09,0,774,774
277.65,5.65052e-09,0,762,762
277.705,7.42568e-09,0,766,766
277.754,9.39457e-09,0,772,772
277.803,1.17708e-08,0,768,768
277.853,1.46172e-08,0,764,764
277.902,1.80042e-08,0,766,766
277.952,2.20053e-08,0,768,768
278.001,2.67066e-08,0,764,764
278.051,3.2203e-08,0,764,764
278.101,3.85911e-08,0,760,760
278.151,4.59834e-08,0,762,762
278.2,5.44944e-08,0,760,760
278.25,6.42333e-08,0,758,758
278.3,7.5323e-08,0,758,758
278.351,8.78733e-08,0,756,756
278.401,1.01985e-07,0,752,752
278.451,1.17758e-07,0,764,764
278.501,1.35267e-07,0,754,754
278.552,1.54562e-07,0,744,744
278.602,1.75702e-07,0,758,758
278.653,1.98672e-07,0,752,752
278.703,2.23385e-07,0,746,746
278.754,2.49637e-07,0,750,750
278.805,2.75974e-07,0,750,750
278.85,3.02215e-07,0,748,748
278.901,3.50478e-07,0,746,746
278.952,4.22825e-07,0,755,755
279.005,4.93035e-07,0,745,745
279.052,5.60456e-07,0,745,745
279.105,6.3729e-07,0,739,739
279.153,7.04604e-07,0,735,735
279.201,7.6912e-07,0,733,733
279.252,8.32812e-07,0,725,725
279.306,8.95978e-07,0,719,719
279.352,9.45592e-07,0,721,721
279.406,9.97114e-07,0,715,715
279.451,1.03362e-06,0,709,709
279.501,1.06862e-06,0,711,711
279.552,1.09678e-06,0,713,713
279.603,1.11889e-06,0,713,713
279.653,1.13572e-06,0,707,707
279.704,1.14948e-06,0,701,701
279.755,1.16184e-06,0,699,699
279.804,1.17299e-06,0,711,711
279.853,1.18429e-06,0,697,697
279.902,1.19481e-06,0,721,721
279.95,1.20656e-06,0,701,701
280.001,1.22179e-06,0,711,711
280.056,1.24086e-06,0,683,683
280.103,1.25832e-06,0,653,653
280.153,1.27492e-06,0,620,620
280.201,1.28892e-06,0,578,578
280.257,1.29176e-06,0,533,533
280.303,1.28804e-06,0,535,535
280.358,1.27332e-06,0,543,543
280.403,1.25732e-06,0,543,543
280.45,1.22727e-06,0,587,587
280.5,1.1981e-06,0,589,589
280.552,1.1742e-06,0,625,625
280.602,1.14154e-06,0,637,637
280.655,1.1046e-06,0,647,647
280.7,1.0704e-06,0,647,647
280.751,1.03093e-06,0,653,653
280.803,9.92395e-07,0,657,657
280.854,9.52682e-07,0,657,657
280.905,9.09648e-07,0,663,663
280.95,8.69615e-07,0,661,661
281.005,8.17909e-07,0,657,657
281.053,7.71317e-07,0,657,657
281.101,7.24564e-07,0,663,663
281.155,6.69395e-07,0,663,663
281.203,6.184e-07,0,669,669
281.251,5.6534e-07,0,671,671
281.306,5.0347e-07,0,673,673
281.354,4.49235e-07,0,679,679
281.402,3.97191e-07,0,685,685
281.457,3.3913e-07,0,683,683
281.504,2.8864e-07,0,693,693
281.552,2.39786e-07,0,697,697
281.6,1.94577e-07,0,699,699
281.655,1.47458e-07,0,705,705
281.703,1.10106e-07,0,705,705
281.751,7.72746e-08,0,705,705
281.806,4.53519e-08,0,691,691
281.854,1.88227e-08,0,688,688
281.901,8.62102e-10,0,686,686
281.955,-1.89852e-08,0,682,682
282.001,-3.30397e-08,0,674,674
282.054,-4.73852e-08,0,668,668
282.101,-5.8075e-08,0,678,678
282.154,-7.02958e-08,0,674,674
282.208,-7.6507e-08,0,670,670
282.253,-7.98491e-08,0,678,678
282.307,-8.22424e-08,0,680,680
282.352,-8.29049e-08,0,676,676
282.406,-8.23331e-08,0,684,684
282.451,-8.12209e-08,0,674,674
282.504,-7.96985e-08,0,678,678
282.557,-7.75105e-08,0,684,684
282.603,-7.51962e-08,0,674,674
282.656,-7.23399e-08,0,676,676
282.701,-6.9715e-08,0,686,686
282.753,-6.64248e-08,0,676,676
282.806,-6.30548e-08,0,676,676
282.851,-6.01348e-08,0,682,682
282.904,-5.66882e-08,0,676,676
282.956,-5.32641e-08,0,676,676
283.001,-5.03808e-08,0,680,680
283.053,-4.71008e-08,0,676,676
283.105,-4.39451e-08,0,674,674
283.15,-4.13525e-08,0,678,678
283.202,-3.84701e-08,0,680,680
283.254,-3.57658e-08,0,678,678
283.306,-3.32632e-08,0,676,676
283.35,-3.12884e-08,0,680,680
283.401,-2.91814e-08,0,678,678
283.453,-2.728e-08,0,676,676
283.504,-2.55849e-08,0,682,682
283.555,-2.41004e-08,0,678,678
283.605,-2.28255e-08,0,676,676
283.656,-2.17539e-08,0,684,684
283.706,-2.08711e-08,0,678,678
283.756,-2.01527e-08,0,674,674
283.806,-1.9579e-08,0,676,676
283.855,-1.91372e-08,0,680,680
283.905,-1.88163e-08,0,674,674
283.954,-1.86048e-08,0,676,676
284.003,-1.84877e-08,0,678,678
284.052,-1.84476e-08,0,674,674
284.101,-1.84689e-08,0,680,680
284.157,-1.85535e-08,0,674,674
284.205,-1.86712e-08,0,678,678
284.253,-1.88228e-08,0,680,680
284.301,-1.90008e-08,0,680,680
284.356,-1.92265e-08,0,680,680
284.404,-1.94352e-08,0,680,680
284.452,-1.96492e-08,0,680,680
284.506,-1.98957e-08,0,682,682
284.553,-2.01097e-08,0,680,680
284.6,-2.03192e-08,0,680,680
284.654,-2.05504e-08,0,682,682
284.7,-2.07439e-08,0,680,680
284.754,-2.09547e-08,0,676,676
284.8,-2.11308e-08,0,682,682
284.853,-2.13233e-08,0,676,676
284.906,-2.15062e-08,0,676,676
284.952,-2.16575e-08,0,676,676
285.004,-2.18191e-08,0,682,682
285.056,-2.19676e-08,0,676,676
285.102,-2.20871e-08,0,682,682
285.153,-2.22123e-08,0,680,680
285.205,-2.2327e-08,0,676,676
285.25,-2.24206e-08,0,682,682
285.301,-2.25217e-08,0,678,678
285.352,-2.26188e-08,0,682,682
285.403,-2.27138e-08,0,678,678
285.454,-2.28087e-08,0,680,680
285.505,-2.29053e-08,0,682,682
285.555,-2.30051e-08,0,680,680
285.605,-2.31093e-08,0,680,680
285.656,-2.3219e-08,0,678,678
285.706,-2.33356e-08,0,680,680
285.755,-2.34606e-08,0,682,682
285.805,-2.35957e-08,0,680,680
285.854,-2.37428e-08,0,680,680
285.904,-2.39036e-08,0,678,678
285.953,-2.40796e-08,0,680,680
286.002,-2.42721e-08,0,680,680
286.051,-2.44821e-08,0,680,680
286.105,-2.47408e-08,0,682,682
286.154,-2.49919e-08,0,686,686
286.202,-2.52639e-08,0,678,678
286.251,-2.55583e-08,0,682,682
286.305,-2.59178e-08,0,678,678
286.353,-2.62636e-08,0,680,680
286.4,-2.66346e-08,0,688,688
286.454,-2.70826e-08,0,680,680
286.501,-2.75076e-08,0,678,678
286.555,-2.80154e-08,0,684,684
286.602,-2.84921e-08,0,686,686
286.655,-2.90552e-08,0,684,684
286.702,-2.95782e-08,0,678,678
286.754,-3.01903e-08,0,676,676
286.801,-3.07542e-08,0,680,680
286.854,-3.14085e-08,0,680,680
286.901,-3.20057e-08,0,684,684
286.954,-3.26925e-08,0,680,680
287,-3.33142e-08,0,676,676
287.053,-3.40237e-08,0,686,686
287.1,-3.46612e-08,0,682,682
287.153,-3.53839e-08,0,682,682
287.205,-3.61099e-08,0,678,678
287.252,-3.67563e-08,0,676,676
287.305,-3.74823e-08,0,680,680
287.352,-3.8125e-08,0,680,680
287.405,-3.88429e-08,0,680,680
287.452,-3.94745e-08,0,678,678
287.504,-4.01753e-08,0,676,676
287.551,-4.07878e-08,0,672,672
287.604,-4.14627e-08,0,682,682
287.651,-4.20483e-08,0,680,680
287.703,-4.26889e-08,0,682,682
287.75,-4.32406e-08,0,674,674
287.803,-4.38398e-08,0,674,674
287.856,-4.44145e-08,0,676,676
287.903,-4.49037e-08,0,670,670
287.955,-4.54283e-08,0,676,676
288.002,-4.58706e-08,0,680,680
288.055,-4.63402e-08,0,682,682
288.102,-4.67317e-08,0,674,674
288.155,-4.7142e-08,0,674,674
288.201,-4.74793e-08,0,678,678
288.254,-4.78272e-08,0,668,668
288.301,-4.81079e-08,0,674,674
288.354,-4.83912e-08,0,676,676
288.401,-4.8614e-08,0,673,673
288.453,-4.88316e-08,0,665,665
288.5,-4.89958e-08,0,657,657
288.553,-4.91477e-08,0,649,649
288.606,-4.92654e-08,0,635,635
288.653,-4.93418e-08,0,636,636
288.705,-4.93968e-08,0,638,638
288.752,-4.94192e-08,0,636,636
288.805,-4.94158e-08,0,636,636
288.852,-4.93887e-08,0,638,638
288.904,-4.93327e-08,0,634,634
288.951,-4.92617e-08,0,632,632
289.004,-4.91599e-08,0,638,638
289.051,-4.90514e-08,0,638,638
289.104,-4.89111e-08,0,636,636
289.15,-4.87718e-08,0,636,636
289.203,-4.86006e-08,0,638,638
289.25,-4.84373e-08,0,632,632
289.303,-4.8243e-08,0,630,630
289.356,-4.80395e-08,0,636,636
289.402,-4.78524e-08,0,631,631
289.455,-4.76366e-08,0,627,627
289.502,-4.74415e-08,0,621,621
289.555,-4.72196e-08,0,615,615
289.602,-4.70214e-08,0,605,605
289.654,-4.67982e-08,0,599,599
289.701,-4.66006e-08,0,591,591
289.754,-4.638e-08,0,583,583
289.801,-4.6186e-08,0,581,581
289.853,-4.59706e-08,0,571,571
289.9,-4.57822e-08,0,561,561
289.953,-4.5574e-08,0,557,557
290.006,-4.537e-08,0,549,549
290.053,-4.51925e-08,0,541,541
290.105,-4.49971e-08,0,535,535
290.152,-4.48273e-08,0,527,527
290.202,-4.46525e-08,0,519,519
290.251,-4.44801e-08,0,515,515
290.304,-4.43e-08,0,512,512
290.351,-4.41444e-08,0,512,512
290.41,-4.39543e-08,0,512,512
290.457,-4.38054e-08,0,512,512
290.504,-4.3659e-08,0,512,512
290.55,-4.35151e-08,0,512,512
290.609,-4.3338e-08,0,512,512
290.656,-4.31983e-08,0,512,512
290.703,-4.30602e-08,0,512,512
290.761,-4.2889e-08,0,512,512
290.808,-4.2753e-08,0,512,512
290.855,-4.26174e-08,0,512,512
290.902,-4.24818e-08,0,512,512
290.961,-4.2312e-08,0,512,512
291.007,-4.21754e-08,0,512,512
291.054,-4.20377e-08,0,512,512
291.101,-4.18985e-08,0,512,512
291.16,-4.17222e-08,0,512,512
291.207,-4.15787e-08,0,512,512
291.254,-4.14327e-08,0,512,512
291.3,-4.1284e-08,0,512,512
291.359,-4.10936e-08,0,512,512
291.406,-4.09375e-08,0,512,512
291.453,-4.07775e-08,0,512,512
291.511,-4.05718e-08,0,512,512
291.558,-4.04022e-08,0,512,512
291.605,-4.02278e-08,0,512,512
291.652,-4.00482e-08,0,512,512
291.71,-3.98158e-08,0,512,512
291.757,-3.96232e-08,0,512,512
291.804,-3.9424e-08,0,512,512
291.851,-3.92177e-08,0,512,512
291.91,-3.89493e-08,0,512,512
291.957,-3.87254e-08,0,512,512
292.003,-3.84928e-08,0,512,512
292.05,-3.82507e-08,0,512,512
292.109,-3.79341e-08,0,512,512
292.156,-3.76688e-08,0,512,512
292.203,-3.73922e-08,0,512,512
292.261,-3.70293e-08,0,512,512
292.308,-3.67245e-08,0,512,512
292.355,-3.64061e-08,0,512,512
292.402,-3.60732e-08,0,512,512
292.46,-3.56357e-08,0,512,512
292.507,-3.52675e-08,0,512,512
292.554,-3.48822e-08,0,512,512
292.601,-3.44789e-08,0,512,512
292.66,-3.39481e-08,0,512,512
292.706,-3.35009e-08,0,512,512
292.753,-3.30327e-08,0,512,512
292.8,-3.25424e-08,0,512,512
292.859,-3.18973e-08,0,512,512
292.906,-3.13544e-08,0,512,512
292.952,-3.07868e-08,0,512,512
293.011,-3.00418e-08,0,512,512
293.058,-2.9417e-08,0,512,512
293.105,-2.87664e-08,0,512,512
293.152,-2.809e-08,0,512,512
293.21,-2.72089e-08,0,512,512
293.257,-2.64763e-08,0,512,512
293.304,-2.572e-08,0,512,512
293.351,-2.49409e-08,0,512,512
293.409,-2.39372e-08,0,512,512
293.456,-2.31121e-08,0,512,512
293.503,-2.22689e-08,0,512,512
293.55,-2.14094e-08,0,512,512
293.609,-2.03146e-08,0,512,512
293.656,-1.94245e-08,0,512,512
293.702,-1.85238e-08,0,512,512
293.761,-1.73857e-08,0,512,512
293.808,-1.64676e-08,0,512,512
293.855,-1.55448e-08,0,512,512
293.902,-1.46192e-08,0,512,512
293.96,-1.34612e-08,0,512,512
294.007,-1.25365e-08,0,512,512
294.054,-1.16153e-08,0,512,512
294.101,-1.06998e-08,0,512,512
294.159,-9.56651e-09,0,512,512
294.206,-8.67111e-09,0,512,512
294.253,-7.78788e-09,0,512,512
294.312,-6.70384e-09,0,512,512
294.359,-5.85484e-09,0,512,512
294.405,-5.02391e-09,0,512,512
294.452,-4.21266e-09,0,512,512
294.511,-3.22853e-09,0,512,512
294.558,-2.4668e-09,0,512,512
294.605,-1.72909e-09,0,512,512
294.651,-1.01644e-09,0,512,512
294.71,-1.62247e-10,0,512,512
294.757,4.90885e-10,0,512,512
294.804,1.11646e-09,0,512,512
294.851,1.71396e-09,0,512,512
294.909,2.42072e-09,0,512,512
294.956,2.95363e-09,0,512,512
295.003,3.45741e-09,0,512,512
295.062,4.04595e-09,0,512,512
295.108,4.48377e-09,0,512,512
295.155,4.89231e-09,0,512,512
295.202,5.27172e-09,0,512,512
295.261,5.70541e-09,0,512,512
295.308,6.02038e-09,0,512,512
295.354,6.30749e-09,0,512,512
295.401,6.56736e-09,0,512,512
295.46,6.85508e-09,0,512,512
295.507,7.05663e-09,0,512,512
295.554,7.23384e-09,0,512,512
295.601,7.38779e-09,0,512,512
295.659,7.54933e-09,0,512,512
295.706,7.65534e-09,0,512,512
295.753,7.74208e-09,0,512,512
295.811,7.82527e-09,0,512,512
295.858,7.87308e-09,0,512,512
295.905,7.90543e-09,0,512,512
295.952,7.9233e-09,0,512,512
296.011,7.92656e-09,0,512,512
296.057,7.91477e-09,0,512,512
296.104,7.8908e-09,0,512,512
296.151,7.85511e-09,0,512,512
296.21,7.79459e-09,0,512,512
296.257,7.73388e-09,0,512,512
296.304,7.66263e-09,0,512,512
296.35,7.58126e-09,0,512,512
296.409,7.46615e-09,0,512,512
296.456,7.36414e-09,0,512,512
296.503,7.25421e-09,0,512,512
296.561,7.10715e-09,0,512,512
296.608,6.98311e-09,0,512,512
296.655,6.85469e-09,0,512,512
296.702,6.72311e-09,0,512,512
296.761,6.55607e-09,0,512,512
296.807,6.4218e-09,0,512,512
296.854,6.2881e-09,0,512,512
296.901,6.15589e-09,0,512,512
296.96,5.99384e-09,0,512,512
297.007,5.86748e-09,0,512,512
297.053,5.74447e-09,0,512,512
297.1,5.62507e-09,0,512,512
297.159,5.48108e-09,0,512,512
297.206,5.37012e-09,0,512,512
297.253,5.2629e-09,0,512,512
297.311,5.13401e-09,0,512,512
297.358,5.0349e-09,0,512,512
297.405,4.93926e-09,0,512,512
297.452,4.84703e-09,0,512,512
297.51,4.73652e-09,0,512,512
297.557,4.65191e-09,0,512,512
297.604,4.57074e-09,0,512,512
297.651,4.49305e-09,0,512,512
297.71,4.40097e-09,0,512,512
297.756,4.33147e-09,0,512,512
297.803,4.26584e-09,0,512,512
297.85,4.20426e-09,0,512,512
297.909,4.13329e-09,0,512,512
297.956,4.08164e-09,0,512,512
298.003,4.03486e-09,0,512,512
298.061,3.9837e-09,0,512,512
298.108,3.94902e-09,0,512,512
298.155,3.92024e-09,0,512,512
298.202,3.89767e-09,0,512,512
298.26,3.87855e-09,0,512,512
298.307,3.87077e-09,0,512,512
298.354,3.86979e-09,0,512,512
298.401,3.87562e-09,0,512,512
298.459,3.89239e-09,0,512,512
298.506,3.91318e-09,0,512,512
298.553,3.94024e-09,0,512,512
298.6,3.97319e-09,0,512,512
298.659,4.02201e-09,0,512,512
298.706,4.06652e-09,0,512,512
298.752,4.11524e-09,0,512,512
298.811,4.1811e-09,0,512,512
298.858,4.23692e-09,0,512,512
298.905,4.29478e-09,0,512,512
298.952,4.35399e-09,0,512,512
299.01,4.42887e-09,0,512,512
299.057,4.48868e-09,0,512,512
299.104,4.54775e-09,0,512,512
299.151,4.60553e-09,0,512,512
299.209,4.67518e-09,0,512,512
299.256,4.7283e-09,0,512,512
299.303,4.77868e-09,0,512,512
299.362,4.83732e-09,0,512,512
299.409,4.88043e-09,0,512,512
299.455,4.91991e-09,0,512,512
299.502,4.95559e-09,0,512,512
299.561,4.99466e-09,0,512,512
299.608,5.0214e-09,0,512,512
299.655,5.04409e-09,0,512,512
299.701,5.06275e-09,0,512,512
299.76,5.08047e-09,0,512,512
299.807,5.09029e-09,0,512,512
299.854,5.09634e-09,0,512,512
299.901,5.0988e-09,0,512,512
299.959,5.09704e-09,0,512,512
300.006,5.09199e-09,0,512,512
300.053,5.08392e-09,0,512,512
300.112,5.06985e-09,0,512,512
300.158,5.05566e-09,0,512,512
300.205,5.03904e-09,0,512,512
300.252,5.02019e-09,0,512,512
300.311,4.99374e-09,0,512,512
300.358,4.97046e-09,0,512,512
300.405,4.94546e-09,0,512,512
300.451,4.91888e-09,0,512,512
300.51,4.88364e-09,0,512,512
300.557,4.85397e-09,0,512,512
300.604,4.82311e-09,0,512,512
300.651,4.79117e-09,0,512,512
300.709,4.74985e-09,0,512,512
300.756,4.7158e-09,0,512,512
300.803,4.68093e-09,0,512,512
300.861,4.63633e-09,0,512,512
300.908,4.59989e-09,0,512,512
300.955,4.56286e-09,0,512,512
301.002,4.52527e-09,0,512,512
301.061,4.47757e-09,0,512,512
301.108,4.43889e-09,0,512,512
301.154,4.39977e-09,0,512,512
301.201,4.36025e-09,0,512,512
301.26,4.3103e-09,0,512,512
301.307,4.26993e-09,0,512,512
301.354,4.2292e-09,0,512,512
301.4,4.18813e-09,0,512,512
301.459,4.13632e-09,0,512,512
301.506,4.09449e-09,0,512,512
301.553,4.05233e-09,0,512,512
301.611,3.99917e-09,0,512,512
301.658,3.95627e-09,0,512,512
301.705,3.91304e-09,0,512,512
301.752,3.86948e-09,0,512,512
301.811,3.81457e-09,0,512,512
301.857,3.77027e-09,0,512,512
301.904,3.72566e-09,0,512,512
301.951,3.68073e-09,0,512,512
302.01,3.62413e-09,0,512,512
302.057,3.57851e-09,0,512,512
302.103,3.5326e-09,0,512,512
302.15,3.48642e-09,0,512,512
302.209,3.42832e-09,0,512,512
302.256,3.38157e-09,0,512,512
302.303,3.33458e-09,0,512,512
302.361,3.27556e-09,0,512,512
302.408,3.22814e-09,0,512,512
302.455,3.18056e-09,0,512,512
302.502,3.13283e-09,0,512,512
302.56,3.07302e-09,0,512,512
302.607,3.02506e-09,0,512,512
302.654,2.97705e-09,0,512,512
302.701,2.929e-09,0,512,512
302.76,2.86891e-09,0,512,512
302.807,2.82086e-09,0,512,512
302.853,2.77285e-09,0,512,512
302.9,2.72491e-09,0,512,512
302.959,2.6651e-09,0,512,512
303.006,2.61738e-09,0,512,512
303.053,2.5698e-09,0,512,512
303.111,2.51054e-09,0,512,512
303.158,2.46334e-09,0,512,512
303.205,2.41634e-09,0,512,512
303.252,2.36956e-09,0,512,512
303.31,2.31142e-09,0,512,512
303.357,2.26519e-09,0,512,512
303.404,2.21923e-09,0,512,512
303.451,2.17356e-09,0,512,512
303.51,2.11688e-09,0,512,512
303.556,2.07189e-09,0,512,512
303.603,2.02723e-09,0,512,512
303.65,1.98289e-09,0,512,512
303.709,1.92796e-09,0,512,512
303.756,1.8844e-09,0,512,512
303.802,1.8412e-09,0,512,512
303.861,1.78771e-09,0,512,512
303.908,1.74533e-09,0,512,512
303.955,1.70333e-09,0,512,512
304.002,1.66169e-09,0,512,512
304.06,1.61018e-09,0,512,512
304.107,1.56939e-09,0,512,512
304.154,1.52897e-09,0,512,512
304.201,1.48893e-09,0,512,512
304.259,1.4394e-09,0,512,512
304.306,1.4002e-09,0,512,512
304.353,1.36135e-09,0,512,512
304.4,1.32287e-09,0,512,512
304.459,1.27527e-09,0,512,512
304.505,1.23758e-09,0,512,512
304.552,1.20024e-09,0,512,512
304.611,1.15404e-09,0,512,512
304.658,1.11746e-09,0,512,512
304.705,1.08121e-09,0,512,512
304.752,1.04528e-09,0,512,512
304.81,1.00082e-09,0,512,512
304.857,9.65595e-10,0,512,512
304.904,9.30679e-10,0,512,512
304.951,8.96064e-10,0,512,512
