250,0,0,8192,8192
250.003,0,0,8192,8192
250.053,0,0,8192,8192
250.103,0,0,8192,8192
250.152,0,0,8192,8192
250.202,0,0,8192,8192
250.252,0,0,8192,8192
250.302,0,0,8192,8192
250.352,0,0,8192,8192
250.401,0,0,8192,8192
250.451,0,0,8192,8192
250.501,0,0,8192,8192
250.551,0,0,8192,8192
250.6,0,0,8192,8192
250.65,0,0,8192,8192
250.7,0,0,8192,8192
250.753,0,0,8192,8192
250.803,0,0,8192,8192
250.852,0,0,8192,8192
250.902,0,0,8192,8192
250.952,0,0,8192,8192
251.002,0,0,8192,8192
251.052,0,0,8192,8192
251.101,0,0,8192,8192
251.151,0,0,8192,8192
251.201,0,0,8192,8192
251.251,0,0,8192,8192
251.301,0,0,8192,8192
251.35,0,0,8192,8192
251.4,0,0,8192,8192
251.453,0,0,8192,8192
251.503,0,0,8192,8192
251.553,0,0,8192,8192
251.602,0,0,8192,8192
251.652,0,0,8192,8192
251.702,0,0,8192,8192
251.752,0,0,8192,8192
251.801,0,0,8192,8192
251.851,0,0,8192,8192
251.901,0,0,8192,8192
251.951,0,0,8192,8192
252.001,0,0,8192,8192
252.05,0,0,8192,8192
252.1,0,0,8192,8192
252.15,0,0,8192,8192
252.203,0,0,8192,8192
252.253,0,0,8192,8192
252.302,0,0,8192,8192
252.352,0,0,8192,8192
252.402,0,0,8192,8192
252.452,0,0,8192,8192
252.502,0,0,8192,8192
252.551,0,0,8192,8192
252.601,0,0,8192,8192
252.651,0,0,8192,8192
252.701,0,0,8192,8192
252.751,0,0,8192,8192
252.8,0,0,8192,8192
252.85,0,0,8192,8192
252.903,0,0,8192,8192
252.953,0,0,8192,8192
253.002,0,0,8192,8192
253.052,0,0,8192,8192
253.102,0,0,8192,8192
253.152,0,0,8192,8192
253.202,0,0,8192,8192
253.251,0,0,8192,8192
253.301,0,0,8192,8192
253.351,0,0,8192,8192
253.401,0,0,8192,8192
253.451,0,0,8192,8192
253.5,0,0,8192,8192
253.55,0,0,8192,8192
253.6,0,0,8192,8192
253.653,0,0,8192,8192
253.703,0,0,8192,8192
253.752,0,0,8192,8192
253.802,0,0,8192,8192
253.852,0,0,8192,8192
253.902,0,0,8192,8192
253.952,0,0,8192,8192
254.001,0,0,8192,8192
254.051,0,0,8192,8192
254.101,0,0,8192,8192
254.151,0,0,8192,8192
254.201,0,0,8192,8192
254.25,0,0,8192,8192
254.3,0,0,8192,8192
254.353,0,0,8192,8192
254.403,0,0,8192,8192
254.452,0,0,8192,8192
254.502,0,0,8192,8192
254.552,0,0,8192,8192
254.602,0,0,8192,8192
254.652,0,0,8192,8192
254.701,0,0,8192,8192
254.751,0,0,8192,8192
254.801,0,0,8192,8192
254.851,0,0,8192,8192
254.901,0,0,8192,8192
254.95,0,0,8192,8192
255,0,0,8192,8192
255.05,0,0,8192,8192
255.103,0,0,8192,8192
255.153,0,0,8192,8192
255.202,0,0,8192,8192
255.252,0,0,8192,8192
255.302,2.77556e-17,0,8192,8192
255.352,2.77556e-17,0,8192,8192
255.402,5.55112e-17,0,8192,8192
255.451,2.77556e-17,0,8192,8192
255.501,2.77556e-17,0,8192,8192
255.551,2.77556e-17,0,8192,8192
255.601,2.77556e-17,0,8192,8192
255.651,2.77556e-17,0,8192,8192
255.7,2.77556e-17,0,8192,8192
255.75,2.77556e-17,0,8192,8192
255.803,2.77556e-17,0,8192,8192
255.853,2.77556e-17,0,8192,8192
255.902,2.77556e-17,0,8192,8192
255.952,2.77556e-17,0,8192,8192
256.002,5.55112e-17,0,8192,8192
256.052,5.55112e-17,0,8192,8192
256.102,5.55112e-17,0,8192,8192
256.151,5.55112e-17,0,8192,8192
256.201,2.77556e-17,0,8192,8192
256.251,2.77556e-17,0,8192,8192
256.301,2.77556e-17,0,8192,8192
256.351,2.77556e-17,0,8192,8192
256.4,2.77556e-17,0,8192,8192
256.45,2.77556e-17,0,8192,8192
256.5,0,0,8192,8192
256.553,0,0,8192,8192
256.603,0,0,8192,8192
256.652,0,0,8192,8192
256.702,0,0,8192,8192
256.752,0,0,8192,8192
256.802,0,0,8192,8192
256.852,0,0,8192,8192
256.901,0,0,8192,8192
256.951,0,0,8192,8192
257.001,0,0,8192,8192
257.051,0,0,8192,8192
257.101,0,0,8192,8192
257.15,0,0,8192,8192
257.2,0,0,8192,8192
257.253,0,0,8192,8192
257.303,2.77556e-17,0,8192,8192
257.352,2.77556e-17,0,8192,8192
257.402,5.55112e-17,0,8192,8192
257.452,5.55112e-17,0,8192,8192
257.502,5.55112e-17,0,8192,8192
257.552,5.55112e-17,0,8192,8192
257.601,5.55112e-17,0,8192,8192
257.651,5.55112e-17,0,8192,8192
257.701,5.55112e-17,0,8192,8192
257.751,5.55112e-17,0,8192,8192
257.801,5.55112e-17,0,8192,8192
257.85,5.55112e-17,0,8192,8192
257.9,5.55112e-17,0,8192,8192
257.95,5.55112e-17,0,8192,8192
258.003,5.55112e-17,0,8192,8192
258.053,5.55112e-17,0,8192,8192
258.102,5.55112e-17,0,8192,8192
258.152,5.55112e-17,0,8192,8192
258.202,5.55112e-17,0,8192,8192
258.252,5.55112e-17,0,8192,8192
258.302,5.55112e-17,0,8192,8192
258.351,5.55112e-17,0,8192,8192
258.401,5.55112e-17,0,8192,8192
258.451,5.55112e-17,0,8192,8192
258.501,5.55112e-17,0,8192,8192
258.551,5.55112e-17,0,8192,8192
258.6,5.55112e-17,0,8192,8192
258.65,2.77556e-17,0,8192,8192
258.703,0,0,8192,8192
258.753,0,0,8192,8192
258.802,0,0,8192,8192
258.852,2.77556e-17,0,8192,8192
258.902,2.77556e-17,0,8192,8192
258.952,5.55112e-17,0,8192,8192
259.002,5.55112e-17,0,8192,8192
259.051,2.77556e-17,0,8192,8192
259.101,2.77556e-17,0,8192,8192
259.151,2.77556e-17,0,8192,8192
259.201,2.77556e-17,0,8192,8192
259.251,2.77556e-17,0,8192,8192
259.3,2.77556e-17,0,8192,8192
259.35,2.77556e-17,0,8192,8192
259.403,2.77556e-17,0,8192,8192
259.453,2.77556e-17,0,8192,8192
259.503,2.77556e-17,0,8192,8192
259.552,2.77556e-17,0,8192,8192
259.602,2.77556e-17,0,8192,8192
259.652,2.77556e-17,0,8192,8192
259.702,2.77556e-17,0,8192,8192
259.751,2.77556e-17,0,8192,8192
259.801,2.77556e-17,0,8192,8192
259.851,2.77556e-17,0,8192,8192
259.901,0,0,8192,8192
259.951,-2.77556e-17,0,8192,8192
260,-2.77556e-17,0,8192,8192
260.05,-2.77556e-17,0,8192,8192
260.1,-2.77556e-17,0,8192,8192
260.153,-2.77556e-17,0,8192,8192
260.203,-2.77556e-17,0,8192,8192
260.252,-2.77556e-17,0,8192,8192
260.302,-2.77556e-17,0,8192,8192
260.352,-2.77556e-17,0,8192,8192
260.402,-2.77556e-17,0,8192,8192
260.452,-2.77556e-17,0,8192,8192
260.501,-2.77556e-17,0,8192,8192
260.551,-2.77556e-17,0,8192,8192
260.601,-2.77556e-17,0,8192,8192
260.651,-2.77556e-17,0,8192,8192
260.701,-2.77556e-17,0,8192,8192
260.75,-2.77556e-17,0,8192,8192
260.8,-2.77556e-17,0,8192,8192
260.853,-2.77556e-17,0,8192,8192
260.903,-2.77556e-17,0,8192,8192
260.952,-2.77556e-17,0,8192,8192
261.002,-8.32667e-17,0,8192,8192
261.052,-8.32667e-17,0,8192,8192
261.102,-8.32667e-17,0,8192,8192
261.152,-5.55112e-17,0,8192,8192
261.201,-2.77556e-17,0,8192,8192
261.251,-2.77556e-17,0,8192,8192
261.301,-2.77556e-17,0,8192,8192
261.351,-2.77556e-17,0,8192,8192
261.401,-2.77556e-17,0,8192,8192
261.45,-2.77556e-17,0,8192,8192
261.5,-2.77556e-17,0,8192,8192
261.55,-2.77556e-17,0,8192,8192
261.603,-2.77556e-17,0,8192,8192
261.653,0,0,8192,8192
261.702,-2.77556e-17,0,8192,8192
261.752,-2.77556e-17,0,8192,8192
261.802,-2.77556e-17,0,8192,8192
261.852,-2.77556e-17,0,8192,8192
261.902,-2.77556e-17,0,8192,8192
261.951,-2.77556e-17,0,8192,8192
262.001,-2.77556e-17,0,8192,8192
262.051,-2.77556e-17,0,8192,8192
262.101,-2.77556e-17,0,8192,8192
262.151,-2.77556e-17,0,8192,8192
262.2,-2.77556e-17,0,8192,8192
262.25,-2.77556e-17,0,8192,8192
262.303,-2.77556e-17,0,8192,8192
262.353,-2.77556e-17,0,8192,8192
262.402,-2.77556e-17,0,8192,8192
262.452,-2.77556e-17,0,8192,8192
262.502,-2.77556e-17,0,8192,8192
262.552,-2.77556e-17,0,8192,8192
262.602,-2.77556e-17,0,8192,8192
262.651,-2.77556e-17,0,8192,8192
262.701,-2.77556e-17,0,8192,8192
262.751,0,0,8192,8192
262.801,0,0,8192,8192
262.851,0,0,8192,8192
262.9,0,0,8192,8192
262.95,-2.77556e-17,0,8192,8192
263,-2.77556e-17,0,8192,8192
263.053,0,0,8192,8192
263.103,0,0,8192,8192
263.152,0,0,8192,8192
263.202,0,0,8192,8192
263.252,0,0,8192,8192
263.302,2.77556e-17,0,8192,8192
263.352,0,0,8192,8192
263.401,0,0,8192,8192
263.451,0,0,8192,8192
263.501,2.77556e-17,0,8192,8192
263.551,5.55112e-17,0,8192,8192
263.601,5.55112e-17,0,8192,8192
263.65,0,0,8192,8192
263.7,0,0,8192,8192
263.753,0,0,8192,8192
263.803,0,0,8192,8192
263.852,0,0,8192,8192
263.902,0,0,8192,8192
263.952,0,0,8192,8192
264.002,0,0,8192,8192
264.052,0,0,8192,8192
264.101,0,0,8192,8192
264.151,0,0,8192,8192
264.201,0,0,8192,8192
264.251,0,0,8192,8192
264.301,2.77556e-17,0,8192,8192
264.35,2.77556e-17,0,8192,8192
264.4,2.77556e-17,0,8192,8192
264.45,2.77556e-17,0,8192,8192
264.503,2.77556e-17,0,8192,8192
264.553,2.77556e-17,0,8192,8192
264.602,2.77556e-17,0,8192,8192
264.652,2.77556e-17,0,8192,8192
264.702,2.77556e-17,0,8192,8192
264.752,2.77556e-17,0,8192,8192
264.802,2.77556e-17,0,8192,8192
264.851,2.77556e-17,0,8192,8192
264.901,2.77556e-17,0,8192,8192
264.951,2.77556e-17,0,8192,8192
265.001,2.77556e-17,0,8192,8192
265.051,2.77556e-17,0,8192,8192
265.1,2.77556e-17,0,8192,8192
265.15,2.77556e-17,0,8192,8192
265.203,2.77556e-17,0,8192,8192
265.253,2.77556e-17,0,8192,8192
265.302,2.77556e-17,0,8192,8192
265.352,2.77556e-17,0,8192,8192
265.402,2.77556e-17,0,8192,8192
265.452,2.77556e-17,0,8192,8192
265.502,2.77556e-17,0,8192,8192
265.551,2.77556e-17,0,8192,8192
265.601,2.77556e-17,0,8192,8192
265.651,2.77556e-17,0,8192,8192
265.701,5.55112e-17,0,8192,8192
265.751,5.55112e-17,0,8192,8192
265.8,2.77556e-17,0,8192,8192
265.85,2.77556e-17,0,8192,8192
265.9,2.77556e-17,0,8192,8192
265.953,2.77556e-17,0,8192,8192
266.003,2.77556e-17,0,8192,8192
266.052,2.77556e-17,0,8192,8192
266.102,2.77556e-17,0,8192,8192
266.152,2.77556e-17,0,8192,8192
266.202,2.77556e-17,0,8192,8192
266.252,2.77556e-17,0,8192,8192
266.301,2.77556e-17,0,8192,8192
266.351,2.77556e-17,0,8192,8192
266.401,2.77556e-17,0,8192,8192
266.451,2.77556e-17,0,8192,8192
266.501,2.77556e-17,0,8192,8192
266.55,2.77556e-17,0,8192,8192
266.6,2.77556e-17,0,8192,8192
266.653,2.77556e-17,0,8192,8192
266.703,2.77556e-17,0,8192,8192
266.752,2.77556e-17,0,8192,8192
266.802,2.77556e-17,0,8192,8192
266.852,2.77556e-17,0,8192,8192
266.902,2.77556e-17,0,8192,8192
266.952,-2.77556e-17,0,8192,8192
267.001,-2.77556e-17,0,8192,8192
267.051,-2.77556e-17,0,8192,8192
267.101,-2.77556e-17,0,8192,8192
267.151,0,0,8192,8192
267.201,0,0,8192,8192
267.25,-2.77556e-17,0,8192,8192
267.3,0,0,8192,8192
267.353,-2.77556e-17,0,8192,8192
267.403,-2.77556e-17,0,8192,8192
267.453,-2.77556e-17,0,8192,8192
267.502,-2.77556e-17,0,8192,8192
267.552,-2.77556e-17,0,8192,8192
267.602,-2.77556e-17,0,8192,8192
267.652,-2.77556e-17,0,8192,8192
267.702,-2.77556e-17,0,8192,8192
267.751,0,0,8192,8192
267.801,0,0,8192,8192
267.851,0,0,8192,8192
267.901,0,0,8192,8192
267.95,0,0,8192,8192
268,0,0,8192,8192
268.05,0,0,8192,8192
268.101,0,0,8420,8420
268.15,0,0,8432,8432
268.2,0,0,8408,8408
268.251,0,0,8388,8388
268.301,0,0,8484,8484
268.35,0,0,8496,8496
268.4,0,0,8472,8472
268.451,0,0,8440,8440
268.501,0,0,8416,8416
268.551,0,0,8368,8368
268.601,0,0,8312,8312
268.651,0,0,8240,8240
268.701,0,0,8192,8192
268.751,0,0,8192,8192
268.8,0,0,8192,8192
268.85,0,0,8192,8192
268.9,0,0,8192,8192
268.953,0,0,8192,8192
269.003,0,0,8192,8192
269.052,0,0,8192,8192
269.102,0,0,8192,8192
269.152,0,0,8192,8192
269.202,-2.77556e-17,0,8192,8192
269.252,-2.77556e-17,0,8192,8192
269.301,0,0,8192,8192
269.351,0,0,8192,8192
269.401,0,0,8192,8192
269.451,0,0,8284,8284
269.501,0,0,8380,8380
269.551,0,0,8396,8396
269.6,0,0,8572,8572
269.651,0,0,8804,8804
269.701,0,0,8908,8908
269.751,0,0,9388,9388
269.801,0,0,10012,10012
269.85,0,0,10220,10220
269.9,0,0,11028,11028
269.951,0,0,11740,11740
270,0,0,12564,12564
270.05,0,0,13300,13300
270.1,0,0,14068,14068
270.151,0,0,14892,14892
270.2,0,0,15340,15340
270.25,0,0,15708,15708
270.301,0,0,16388,16388
270.35,0,0,17324,17324
270.4,0,0,18060,18060
270.45,0,0,18940,18940
270.501,0,0,19732,19732
270.55,0,0,20404,20404
270.6,0,0,21268,21268
270.65,0,0,22092,22092
270.701,0,0,22996,22996
270.75,0,0,24204,24204
270.8,0,0,25300,25300
270.851,0,0,26084,26084
270.9,0,0,26956,26956
270.95,0,0,27780,27780
271,0,0,28604,28604
271.051,0,0,29436,29436
271.1,0,0,30196,30196
271.15,0,0,30972,30972
271.201,0,0,31764,31764
271.25,0,0,32556,32556
271.3,0,0,33420,33420
271.35,0,0,34212,34212
271.401,0,0,35100,35100
271.45,0,0,35884,35884
271.5,0,0,36708,36708
271.55,0,0,37124,37124
271.601,0,0,37516,37516
271.65,0,0,38284,38284
271.7,0,0,39004,39004
271.751,0,0,39892,39892
271.8,0,0,40572,40572
271.85,0,0,41524,41524
271.9,0,0,42252,42252
271.951,0,0,43020,43020
272,0,0,43892,43892
272.05,0,0,44716,44716
272.101,0,0,45444,45444
272.151,0,0,46268,46268
272.2,0,0,47036,47036
272.25,0,0,47852,47852
272.301,0,0,48612,48612
272.35,0,0,49396,49396
272.4,0,0,50204,50204
272.45,0,0,50956,50956
272.501,0,0,51716,51716
272.55,0,0,52564,52564
272.6,0,0,53292,53292
272.651,0,0,54060,54060
272.7,0,0,54772,54772
272.75,0,0,55540,55540
272.8,0,0,56252,56252
272.851,0,0,57036,57036
272.9,0,0,57820,57820
272.95,0,0,58556,58556
273.001,0,0,59324,59324
273.051,0,0,60196,60196
273.1,0,0,60932,60932
273.15,0,0,61612,61612
273.201,0,0,62428,62428
273.25,0,0,63500,63500
273.3,0,0,64140,64140
273.35,0,0,64628,64628
273.401,-1.11022e-16,0,65340,65340
273.45,-1.83187e-15,0,66172,66172
273.5,-3.69149e-15,0,66364,66364
273.551,-5.57887e-15,0,66556,66556
273.6,-7.46625e-15,0,66716,66716
273.65,-9.35363e-15,0,66792,66792
273.7,-1.44884e-14,0,66784,66784
273.751,-4.16056e-14,0,66264,66264
273.8,-1.45051e-13,0,66216,66216
273.85,-4.76952e-13,0,66056,66056
273.901,-1.42159e-12,0,66416,66416
273.951,-3.70376e-12,0,66208,66208
274,-8.59957e-12,0,66324,66324
274.05,-1.78498e-11,0,66936,66936
274.101,-3.34813e-11,0,67352,67352
274.15,-5.58144e-11,0,67568,67568
274.2,-8.35552e-11,0,68152,68152
274.25,-1.12218e-10,0,67984,67984
274.301,-1.35048e-10,0,68448,68448
274.35,-1.43903e-10,0,68600,68600
274.4,-1.34486e-10,0,68668,68668
274.451,-1.06689e-10,0,68836,68836
274.5,-6.71286e-11,0,68812,68812
274.55,-2.42228e-11,0,68532,68532
274.6,1.4074e-11,0,67932,67932
274.651,4.38038e-11,0,67404,67404
274.7,6.40432e-11,0,67460,67460
274.75,7.78237e-11,0,66780,66780
274.8,8.78245e-11,0,66244,66244
274.851,9.54896e-11,0,65940,65940
274.9,1.00747e-10,0,65812,65812
274.95,1.03777e-10,0,65292,65292
275.001,1.05376e-10,0,64948,64948
275.05,1.06821e-10,0,65132,65132
275.1,1.09072e-10,0,64484,64484
275.15,1.12009e-10,0,64060,64060
275.2,1.14673e-10,0,63524,63524
275.25,1.16159e-10,0,63164,63164
275.301,1.16431e-10,0,63100,63100
275.35,1.16305e-10,0,62676,62676
275.4,1.1658e-10,0,62388,62388
275.45,1.17262e-10,0,62156,62156
275.5,1.177e-10,0,61924,61924
275.55,1.17732e-10,0,61676,61676
275.601,1.18731e-10,0,61244,61244
275.651,1.22863e-10,0,60876,60876
275.701,1.30068e-10,0,60516,60516
275.75,1.34143e-10,0,60268,60268
275.801,1.22155e-10,0,60156,60156
275.851,8.11952e-11,0,60132,60132
275.901,1.18758e-11,0,59708,59708
275.951,-5.55219e-11,0,59500,59500
276,-5.61371e-11,0,59300,59300
276.05,9.24656e-11,0,59132,59132
276.101,7.4215e-10,0,58748,58748
276.151,4.05432e-09,0,58544,58544
276.2,1.05457e-08,0,58312,58312
276.251,1.75953e-08,0,58152,58152
276.3,2.37216e-08,0,58024,58024
276.35,2.83303e-08,0,58360,58360
276.401,3.14176e-08,0,58280,58280
276.45,3.37129e-08,0,57944,57944
276.5,3.6708e-08,0,57888,57888
276.55,4.18602e-08,0,57400,57400
276.6,5.00798e-08,0,57272,57272
276.651,6.12074e-08,0,57112,57112
276.7,7.44047e-08,0,57072,57072
276.751,9.00207e-08,0,56848,56848
276.801,1.08446e-07,0,56696,56696
276.851,1.31461e-07,0,56600,56600
276.9,1.60082e-07,0,56496,56496
276.95,1.96304e-07,0,56352,56352
277,2.39128e-07,0,56248,56248
277.05,2.88099e-07,0,56112,56112
277.1,3.41137e-07,0,56040,56040
277.151,3.96121e-07,0,55912,55912
277.2,4.51421e-07,0,55768,55768
277.25,5.09073e-07,0,55752,55752
277.3,5.70577e-07,0,55584,55584
277.35,6.35643e-07,0,55624,55624
277.401,7.01291e-07,0,55672,55672
277.45,7.61978e-07,0,55704,55704
277.5,8.14834e-07,0,55928,55928
277.55,8.57271e-07,0,56240,56240
277.6,8.88347e-07,0,56288,56288
277.651,9.08732e-07,0,56280,56280
277.7,9.20278e-07,0,56184,56184
277.75,9.2563e-07,0,55952,55952
277.8,9.26698e-07,0,55608,55608
277.851,9.26687e-07,0,55552,55552
277.9,9.21972e-07,0,55480,55480
277.95,9.12081e-07,0,55368,55368
278,8.97173e-07,0,55264,55264
278.05,8.75775e-07,0,55120,55120
278.101,8.46541e-07,0,55000,55000
278.151,8.09349e-07,0,54888,54888
278.2,7.63783e-07,0,54816,54816
278.251,7.11168e-07,0,54672,54672
278.301,6.54202e-07,0,54592,54592
278.35,5.97223e-07,0,54288,54288
278.4,5.41791e-07,0,54012,54012
278.45,4.89472e-07,0,53844,53844
278.5,4.40996e-07,0,53516,53516
278.55,3.96477e-07,0,52892,52892
278.601,3.5545e-07,0,52276,52276
278.65,3.17907e-07,0,51668,51668
278.701,2.81748e-07,0,51188,51188
278.75,2.47892e-07,0,50812,50812
278.801,2.15179e-07,0,50300,50300
278.85,1.85816e-07,0,49692,49692
278.9,1.60794e-07,0,49164,49164
278.95,1.41254e-07,0,48516,48516
279.001,1.26305e-07,0,47900,47900
279.051,1.13979e-07,0,47284,47284
279.101,1.01279e-07,0,46588,46588
279.15,8.75347e-08,0,45972,45972
279.2,7.33786e-08,0,45252,45252
279.251,6.107e-08,0,44724,44724
279.301,5.19048e-08,0,44060,44060
279.35,4.59776e-08,0,43388,43388
279.401,4.21148e-08,0,42788,42788
279.45,3.90937e-08,0,42092,42092
279.5,3.54108e-08,0,41548,41548
279.551,3.01369e-08,0,40924,40924
279.601,2.38983e-08,0,40236,40236
279.651,1.8215e-08,0,39644,39644
279.701,1.48106e-08,0,39076,39076
279.751,1.41343e-08,0,38132,38132
279.801,1.53595e-08,0,36964,36964
279.85,1.7016e-08,0,36860,36860
279.9,1.90733e-08,0,37508,37508
279.95,2.13282e-08,0,37204,37204
280,2.37919e-08,0,37948,37948
280.05,2.64989e-08,0,39012,39012
280.101,2.94531e-08,0,39476,39476
280.151,3.24649e-08,0,40580,40580
280.2,3.58376e-08,0,41460,41460
280.251,3.93167e-08,0,41860,41860
280.3,4.29146e-08,0,42332,42332
280.351,4.68183e-08,0,43404,43404
280.4,5.06925e-08,0,43892,43892
280.45,5.47077e-08,0,44932,44932
280.501,5.89042e-08,0,45964,45964
280.551,6.31242e-08,0,46636,46636
280.601,6.73346e-08,0,47316,47316
280.651,7.16961e-08,0,47916,47916
280.701,7.60181e-08,0,48620,48620
280.751,8.04801e-08,0,49284,49284
280.801,8.5064e-08,0,49820,49820
280.85,9.03897e-08,0,50484,50484
280.901,9.73122e-08,0,51060,51060
280.95,1.05828e-07,0,51724,51724
281,1.151e-07,0,52476,52476
281.05,1.24014e-07,0,53020,53020
281.101,1.31829e-07,0,53572,53572
281.15,1.38228e-07,0,54212,54212
281.2,1.44117e-07,0,54804,54804
281.25,1.50189e-07,0,55540,55540
281.3,1.57567e-07,0,56204,56204
281.351,1.67177e-07,0,56784,56784
281.4,1.7883e-07,0,57320,57320
281.451,1.92857e-07,0,57880,57880
281.501,2.09269e-07,0,58496,58496
281.551,2.28542e-07,0,59064,59064
281.6,2.51559e-07,0,59696,59696
281.651,2.79843e-07,0,60176,60176
281.701,3.13656e-07,0,60744,60744
281.751,3.5295e-07,0,61264,61264
281.801,3.96853e-07,0,61616,61616
281.85,4.43974e-07,0,62096,62096
281.9,4.93832e-07,0,62540,62540
281.951,5.44852e-07,0,62912,62912
282.001,5.97038e-07,0,63704,63704
282.05,6.50518e-07,0,64072,64072
282.101,7.05569e-07,0,65064,65064
282.15,7.58305e-07,0,65560,65560
282.2,8.07598e-07,0,66064,66064
282.25,8.49455e-07,0,66632,66632
282.301,8.82141e-07,0,67144,67144
282.35,9.03659e-07,0,67576,67576
282.4,9.15175e-07,0,67928,67928
282.45,9.17658e-07,0,68264,68264
282.5,9.13713e-07,0,68176,68176
282.551,9.04399e-07,0,68080,68080
282.6,8.91628e-07,0,68812,68812
282.65,8.7488e-07,0,69044,69044
282.7,8.53653e-07,0,69700,69700
282.75,8.27326e-07,0,70540,70540
282.801,7.94738e-07,0,71100,71100
282.851,7.55633e-07,0,71724,71724
282.9,7.10479e-07,0,72388,72388
282.951,6.57252e-07,0,73060,73060
283,5.99702e-07,0,73764,73764
283.05,5.39122e-07,0,74436,74436
283.1,4.76979e-07,0,75164,75164
283.15,4.16603e-07,0,75916,75916
283.2,3.5967e-07,0,76660,76660
283.251,3.0623e-07,0,76972,76972
283.3,2.58163e-07,0,77236,77236
283.35,2.13628e-07,0,77260,77260
283.4,1.72879e-07,0,77264,77264
283.45,1.35356e-07,0,77456,77456
283.501,1.00196e-07,0,77728,77728
283.55,6.85841e-08,0,78088,78088
283.6,4.00699e-08,0,78376,78376
283.65,1.59226e-08,0,78716,78716
283.701,-3.76955e-09,0,79124,79124
283.75,-1.89182e-08,0,79476,79476
283.8,-3.1371e-08,0,79932,79932
283.85,-4.24028e-08,0,80164,80164
283.9,-5.28659e-08,0,80412,80412
283.951,-6.27437e-08,0,80900,80900
284,-7.09422e-08,0,81164,81164
284.05,-7.69193e-08,0,81412,81412
284.1,-8.01705e-08,0,81732,81732
284.15,-8.12302e-08,0,81980,81980
284.201,-8.14702e-08,0,82284,82284
284.25,-8.16904e-08,0,82580,82580
284.3,-8.19871e-08,0,82876,82876
284.35,-8.22825e-08,0,83404,83404
284.4,-8.23863e-08,0,83804,83804
284.45,-8.2234e-08,0,84268,84268
284.501,-8.06806e-08,0,84628,84628
284.551,-7.67369e-08,0,84980,84980
284.601,-7.24055e-08,0,85068,85068
284.65,-6.79821e-08,0,85228,85228
284.7,-6.36438e-08,0,85288,85288
284.751,-5.94422e-08,0,85272,85272
284.8,-5.55794e-08,0,85280,85280
284.85,-5.20145e-08,0,85248,85248
284.9,-4.8753e-08,0,85016,85016
284.951,-4.57747e-08,0,84736,84736
285,-4.31533e-08,0,84200,84200
285.05,-4.08446e-08,0,84160,84160
285.101,-3.88054e-08,0,84008,84008
285.15,-3.70832e-08,0,83976,83976
285.2,-3.56248e-08,0,84000,84000
285.25,-3.44073e-08,0,84584,84584
285.301,-3.34011e-08,0,85264,85264
285.35,-3.25585e-08,0,85592,85592
285.4,-3.20463e-08,0,85880,85880
285.45,-3.15252e-08,0,86256,86256
285.501,-3.11559e-08,0,86680,86680
285.55,-3.09848e-08,0,87216,87216
285.6,-3.10497e-08,0,87720,87720
285.651,-3.11664e-08,0,88240,88240
285.7,-3.13266e-08,0,88784,88784
285.75,-3.15109e-08,0,89272,89272
285.8,-3.17116e-08,0,89840,89840
285.851,-3.19304e-08,0,90212,90212
285.9,-3.216e-08,0,90620,90620
285.95,-3.24002e-08,0,90788,90788
286.001,-3.26553e-08,0,91036,91036
286.051,-3.29117e-08,0,91180,91180
286.1,-3.31673e-08,0,91188,91188
286.15,-3.34188e-08,0,91380,91380
286.201,-3.36648e-08,0,91348,91348
286.25,-3.38955e-08,0,91300,91300
286.3,-3.41131e-08,0,90900,90900
286.35,-3.43174e-08,0,90324,90324
286.401,-3.45105e-08,0,89532,89532
286.45,-3.46856e-08,0,88748,88748
286.5,-3.4844e-08,0,88228,88228
286.551,-3.49858e-08,0,87276,87276
286.6,-3.51053e-08,0,86476,86476
286.65,-3.52054e-08,0,85908,85908
286.7,-3.52847e-08,0,85296,85296
286.751,-3.53432e-08,0,84528,84528
286.8,-3.53786e-08,0,83680,83680
286.85,-3.53941e-08,0,83096,83096
286.901,-3.53915e-08,0,82256,82256
286.951,-3.53725e-08,0,81520,81520
287,-3.53388e-08,0,80768,80768
287.05,-3.52925e-08,0,80360,80360
287.101,-3.52352e-08,0,79688,79688
287.15,-3.5171e-08,0,78944,78944
287.2,-3.51012e-08,0,78192,78192
287.25,-3.50279e-08,0,77448,77448
287.301,-3.49514e-08,0,76672,76672
287.35,-3.48752e-08,0,75984,75984
287.4,-3.47996e-08,0,75312,75312
287.451,-3.47245e-08,0,74608,74608
287.5,-3.46532e-08,0,73824,73824
287.55,-3.45853e-08,0,73216,73216
287.6,-3.45217e-08,0,72560,72560
287.651,-3.4462e-08,0,71920,71920
287.7,-3.44086e-08,0,71240,71240
287.75,-3.43612e-08,0,70560,70560
287.801,-3.43193e-08,0,69888,69888
287.851,-3.42846e-08,0,69368,69368
287.9,-3.42565e-08,0,68624,68624
287.95,-3.42351e-08,0,67936,67936
288.001,-3.42203e-08,0,67296,67296
288.05,-3.42127e-08,0,66576,66576
288.1,-3.42122e-08,0,65952,65952
288.15,-3.42187e-08,0,65304,65304
288.201,-3.42326e-08,0,64728,64728
288.25,-3.42538e-08,0,63872,63872
288.3,-3.42821e-08,0,62948,62948
288.351,-3.43181e-08,0,62204,62204
288.4,-3.43606e-08,0,61548,61548
288.45,-3.44098e-08,0,61036,61036
288.5,-3.44656e-08,0,60612,60612
288.551,-3.45292e-08,0,60380,60380
288.6,-3.45987e-08,0,60044,60044
288.65,-3.46754e-08,0,59716,59716
288.7,-3.47598e-08,0,59234,59234
288.751,-3.48543e-08,0,59036,59036
288.8,-3.49572e-08,0,58644,58644
288.85,-3.5071e-08,0,57492,57492
288.901,-3.51988e-08,0,56908,56908
288.95,-3.53385e-08,0,56556,56556
289,-3.54933e-08,0,56020,56020
289.05,-3.56649e-08,0,55596,55596
289.101,-3.58579e-08,0,53196,53196
289.15,-3.60684e-08,0,52380,52380
289.2,-3.63002e-08,0,50996,50996
289.251,-3.65585e-08,0,49652,49652
289.3,-3.68366e-08,0,48308,48308
289.35,-3.71395e-08,0,47324,47324
289.4,-3.74683e-08,0,46388,46388
289.451,-3.78283e-08,0,45444,45444
289.5,-3.82071e-08,0,44604,44604
289.55,-3.86047e-08,0,43708,43708
289.6,-3.9013e-08,0,42996,42996
289.651,-3.94238e-08,0,42108,42108
289.7,-3.981e-08,0,41428,41428
289.75,-4.01778e-08,0,40596,40596
289.801,-4.05896e-08,0,39732,39732
289.85,-4.10674e-08,0,39052,39052
289.9,-4.14617e-08,0,38140,38140
289.95,-4.18337e-08,0,37292,37292
290.001,-4.21907e-08,0,36404,36404
290.05,-4.25155e-08,0,35516,35516
290.1,-4.28094e-08,0,34588,34588
290.151,-4.30737e-08,0,33748,33748
290.201,-4.32991e-08,0,32844,32844
290.25,-4.34941e-08,0,31804,31804
290.3,-4.36475e-08,0,30644,30644
290.351,-4.37598e-08,0,29460,29460
290.4,-4.3844e-08,0,28352,28352
290.45,-4.38281e-08,0,27432,27432
290.5,-4.37639e-08,0,27264,27264
290.551,-4.36666e-08,0,27056,27056
290.6,-4.35352e-08,0,26912,26912
290.65,-4.33683e-08,0,26760,26760
290.701,-4.31609e-08,0,26508,26508
290.75,-4.29197e-08,0,26020,26020
290.8,-4.26397e-08,0,25476,25476
290.85,-4.23221e-08,0,24444,24444
290.901,-4.19613e-08,0,23620,23620
290.95,-4.15649e-08,0,23092,23092
291,-4.11269e-08,0,22796,22796
291.051,-4.06307e-08,0,22212,22212
291.101,-4.01104e-08,0,21492,21492
291.15,-3.9558e-08,0,20700,20700
291.2,-3.89718e-08,0,19916,19916
291.251,-3.83381e-08,0,19140,19140
291.3,-3.76644e-08,0,18332,18332
291.35,-3.69268e-08,0,17460,17460
291.4,-3.61332e-08,0,17244,17244
291.451,-3.52937e-08,0,16716,16716
291.5,-3.44445e-08,0,15964,15964
291.55,-3.35773e-08,0,15244,15244
291.601,-3.26838e-08,0,14524,14524
291.65,-3.17959e-08,0,13796,13796
291.7,-3.09068e-08,0,13060,13060
291.75,-3.0022e-08,0,12348,12348
291.801,-2.91298e-08,0,12124,12124
291.851,-2.8268e-08,0,12116,12116
291.9,-2.74227e-08,0,12116,12116
291.952,-2.65733e-08,0,12184,12184
292.001,-2.57714e-08,0,12280,12280
292.05,-2.50003e-08,0,12376,12376
292.101,-2.42456e-08,0,12424,12424
292.15,-2.35629e-08,0,12408,12408
292.201,-2.29079e-08,0,12448,12448
292.251,-2.23048e-08,0,12416,12416
292.302,-2.17508e-08,0,12424,12424
292.352,-2.12466e-08,0,12416,12416
292.401,-2.07944e-08,0,12424,12424
292.451,-2.03935e-08,0,12488,12488
292.501,-2.00399e-08,0,12480,12480
292.55,-1.97284e-08,0,12504,12504
292.601,-1.9446e-08,0,12544,12544
292.652,-1.91995e-08,0,12424,12424
292.701,-1.89917e-08,0,12248,12248
292.751,-1.88045e-08,0,12168,12168
292.801,-1.8643e-08,0,12096,12096
292.851,-1.8505e-08,0,12104,12104
292.901,-1.83861e-08,0,12096,12096
292.951,-1.82821e-08,0,12112,12112
293,-1.81903e-08,0,12120,12120
293.051,-1.81081e-08,0,12180,12180
293.101,-1.80378e-08,0,12164,12164
293.151,-1.79735e-08,0,12124,12124
293.2,-1.7918e-08,0,12308,12308
293.25,-1.78661e-08,0,12484,12484
293.301,-1.78186e-08,0,12572,12572
293.351,-1.77733e-08,0,12684,12684
293.4,-1.773e-08,0,12716,12716
293.45,-1.76877e-08,0,12860,12860
293.501,-1.7644e-08,0,13124,13124
293.551,-1.76009e-08,0,13116,13116
293.601,-1.75553e-08,0,13116,13116
293.651,-1.75083e-08,0,13076,13076
293.701,-1.74564e-08,0,13028,13028
293.751,-1.74002e-08,0,13036,13036
293.801,-1.73382e-08,0,13036,13036
293.851,-1.72701e-08,0,13028,13028
293.901,-1.71951e-08,0,12996,12996
293.951,-1.71127e-08,0,13004,13004
294,-1.7023e-08,0,12996,12996
294.051,-1.69224e-08,0,12996,12996
294.1,-1.68167e-08,0,12980,12980
294.151,-1.66998e-08,0,12980,12980
294.201,-1.65753e-08,0,12988,12988
294.25,-1.64477e-08,0,12980,12980
294.3,-1.63097e-08,0,12996,12996
294.35,-1.61658e-08,0,12996,12996
294.401,-1.60119e-08,0,13004,13004
294.451,-1.58571e-08,0,12988,12988
294.501,-1.56974e-08,0,12988,12988
294.551,-1.55332e-08,0,12996,12996
294.601,-1.5365e-08,0,12980,12980
294.65,-1.51932e-08,0,13004,13004
294.7,-1.50183e-08,0,12988,12988
294.75,-1.48401e-08,0,13004,13004
294.801,-1.46524e-08,0,12996,12996
294.851,-1.44648e-08,0,12996,12996
294.901,-1.42713e-08,0,12996,12996
294.951,-1.40711e-08,0,12980,12980
295,-1.38636e-08,0,12996,12996
295.05,-1.36486e-08,0,12732,12732
295.1,-1.3426e-08,0,12568,12568
295.151,-1.31892e-08,0,12424,12424
295.201,-1.29517e-08,0,12280,12280
295.251,-1.27069e-08,0,12224,12224
295.301,-1.24546e-08,0,12104,12104
295.351,-1.2194e-08,0,11968,11968
295.4,-1.1924e-08,0,11888,11888
295.45,-1.16429e-08,0,11816,11816
295.501,-1.13396e-08,0,11792,11792
295.551,-1.10298e-08,0,11768,11768
295.601,-1.07037e-08,0,11760,11760
295.651,-1.03598e-08,0,11720,11720
295.701,-9.99575e-09,0,11680,11680
295.75,-9.60756e-09,0,11672,11672
295.8,-9.19191e-09,0,11648,11648
295.851,-8.74927e-09,0,11624,11624
295.901,-8.36192e-09,0,11600,11600
295.951,-7.76152e-09,0,11584,11584
296.001,-7.20434e-09,0,11592,11592
296.051,-6.62729e-09,0,11600,11600
296.1,-6.02129e-09,0,11500,11500
296.15,-5.38365e-09,0,11388,11388
296.2,-4.71837e-09,0,11268,11268
296.251,-4.00931e-09,0,11180,11180
296.301,-3.3035e-09,0,11060,11060
296.351,-2.58798e-09,0,10956,10956
296.401,-1.86937e-09,0,10836,10836
296.45,-1.15368e-09,0,10780,10780
296.5,-4.4596e-10,0,10708,10708
296.55,2.49611e-10,0,10636,10636
296.601,9.49077e-10,0,10580,10580
296.651,1.60876e-09,0,10508,10508
296.701,2.24841e-09,0,10484,10484
296.75,2.84693e-09,0,10472,10472
296.801,3.43482e-09,0,10512,10512
296.852,3.98392e-09,0,10528,10528
296.9,4.47223e-09,0,10520,10520
296.951,4.93431e-09,0,10536,10536
297.001,5.34874e-09,0,10528,10528
297.052,5.71533e-09,0,10536,10536
297.1,6.02497e-09,0,10520,10520
297.151,6.30413e-09,0,10528,10528
297.201,6.53906e-09,0,10552,10552
297.251,6.73143e-09,0,10536,10536
297.301,6.85345e-09,0,10536,10536
297.351,6.93022e-09,0,10536,10536
297.4,6.97469e-09,0,10512,10512
297.451,7.0031e-09,0,10520,10520
297.501,7.01048e-09,0,10528,10528
297.552,6.99724e-09,0,10552,10552
297.6,6.96567e-09,0,10536,10536
297.651,6.91596e-09,0,10536,10536
297.701,6.85188e-09,0,10536,10536
297.751,6.77586e-09,0,10536,10536
297.801,6.69054e-09,0,10536,10536
297.851,6.59788e-09,0,10544,10544
297.9,6.4999e-09,0,10520,10520
297.951,6.39434e-09,0,10536,10536
298.001,6.29003e-09,0,10560,10560
298.051,6.18075e-09,0,10552,10552
298.1,6.07517e-09,0,10560,10560
298.15,5.9669e-09,0,10560,10560
298.201,5.86054e-09,0,10552,10552
298.251,5.75698e-09,0,10584,10584
298.3,5.65695e-09,0,10552,10552
298.35,5.56113e-09,0,10552,10552
298.401,5.46709e-09,0,10576,10576
298.451,5.38162e-09,0,10568,10568
298.501,5.29922e-09,0,10576,10576
298.55,5.22576e-09,0,10576,10576
298.601,5.15631e-09,0,10576,10576
298.651,5.09354e-09,0,10608,10608
298.701,5.03736e-09,0,10608,10608
298.751,4.98755e-09,0,10624,10624
298.801,4.94377e-09,0,10624,10624
298.85,4.9055e-09,0,10648,10648
298.901,4.87105e-09,0,10632,10632
298.95,4.84193e-09,0,10632,10632
299.001,4.81539e-09,0,10632,10632
299.052,4.79163e-09,0,10664,10664
299.1,4.77047e-09,0,10664,10664
299.15,4.74974e-09,0,10664,10664
299.2,4.7294e-09,0,10664,10664
299.25,4.70878e-09,0,10688,10688
299.301,4.68661e-09,0,10688,10688
299.351,4.66384e-09,0,10696,10696
299.4,4.6395e-09,0,10696,10696
299.451,4.6126e-09,0,10696,10696
299.502,4.58398e-09,0,10720,10720
299.55,4.55482e-09,0,10720,10720
299.601,4.52353e-09,0,10728,10728
299.651,4.49137e-09,0,10712,10712
299.701,4.45865e-09,0,10736,10736
299.75,4.42564e-09,0,10752,10752
299.801,4.39152e-09,0,10760,10760
299.851,4.35848e-09,0,10760,10760
299.9,4.32559e-09,0,10784,10784
299.951,4.29191e-09,0,10760,10760
300.001,4.25855e-09,0,10768,10768
300.051,4.22566e-09,0,10792,10792
300.101,4.19345e-09,0,10800,10800
300.151,4.16216e-09,0,10792,10792
300.201,4.13204e-09,0,10800,10800
300.251,4.10331e-09,0,10824,10824
300.3,4.07611e-09,0,10824,10824
300.351,4.04978e-09,0,10824,10824
300.4,4.02586e-09,0,10832,10832
300.451,4.0028e-09,0,10832,10832
300.501,3.98117e-09,0,10856,10856
300.551,3.96075e-09,0,10872,10872
300.601,3.94125e-09,0,10864,10864
300.651,3.9224e-09,0,10880,10880
300.701,3.90392e-09,0,10888,10888
300.751,3.88557e-09,0,10872,10872
300.801,3.86718e-09,0,10880,10880
300.851,3.84858e-09,0,10872,10872
300.9,3.82966e-09,0,10888,10888
300.95,3.81032e-09,0,10896,10896
301.001,3.78989e-09,0,10912,10912
301.051,3.7695e-09,0,10896,10896
301.101,3.74856e-09,0,10920,10920
301.151,3.72709e-09,0,10904,10904
301.201,3.70511e-09,0,10920,10920
301.25,3.68264e-09,0,10912,10912
301.3,3.65972e-09,0,10944,10944
301.351,3.63569e-09,0,10928,10928
301.401,3.61193e-09,0,10944,10944
301.451,3.58779e-09,0,10936,10936
301.501,3.56329e-09,0,10952,10952
301.551,3.53844e-09,0,10952,10952
301.6,3.51326e-09,0,10952,10952
301.65,3.48774e-09,0,10936,10936
301.701,3.46114e-09,0,10952,10952
301.751,3.43497e-09,0,10936,10936
301.801,3.40846e-09,0,10952,10952
301.851,3.38161e-09,0,10952,10952
301.901,3.35442e-09,0,10952,10952
301.95,3.3269e-09,0,10952,10952
302,3.29906e-09,0,10920,10920
302.05,3.27092e-09,0,10952,10952
302.101,3.24168e-09,0,10952,10952
302.151,3.21304e-09,0,10952,10952
302.201,3.18421e-09,0,10952,10952
302.251,3.15521e-09,0,10952,10952
302.3,3.12608e-09,0,10936,10936
302.35,3.09681e-09,0,10852,10852
302.4,3.06741e-09,0,10732,10732
302.451,3.037e-09,0,10612,10612
302.501,3.0073e-09,0,10500,10500
302.551,2.97745e-09,0,10396,10396
302.601,2.94744e-09,0,10276,10276
302.651,2.91725e-09,0,10172,10172
302.7,2.8869e-09,0,10036,10036
302.75,2.85638e-09,0,9948,9948
302.801,2.82475e-09,0,9812,9812
302.851,2.79382e-09,0,9708,9708
302.901,2.76268e-09,0,9588,9588
302.951,2.73129e-09,0,9468,9468
303.001,2.69963e-09,0,9364,9364
303.05,2.66769e-09,0,9260,9260
303.1,2.63543e-09,0,9156,9156
303.151,2.60187e-09,0,9028,9028
303.201,2.56889e-09,0,8908,8908
303.251,2.53553e-09,0,8788,8788
303.301,2.50174e-09,0,8684,8684
303.351,2.46751e-09,0,8580,8580
303.4,2.43282e-09,0,8460,8460
303.45,2.39764e-09,0,8340,8340
303.501,2.361e-09,0,8252,8252
303.551,2.32484e-09,0,8196,8196
303.603,2.28656e-09,0,8192,8192
303.653,2.24926e-09,0,8192,8192
303.703,2.21141e-09,0,8192,8192
303.752,2.17304e-09,0,8192,8192
303.802,2.13414e-09,0,8192,8192
303.852,2.09472e-09,0,8192,8192
303.902,2.05482e-09,0,8192,8192
303.951,2.01447e-09,0,8192,8192
304.001,1.97368e-09,0,8192,8192
304.051,1.93251e-09,0,8192,8192
304.101,1.891e-09,0,8192,8192
304.151,1.84919e-09,0,8192,8192
304.2,1.80714e-09,0,8192,8192
304.25,1.7649e-09,0,8192,8192
304.3,1.72254e-09,0,8192,8192
304.353,1.67762e-09,0,8192,8192
304.403,1.63518e-09,0,8192,8192
304.452,1.59281e-09,0,8192,8192
304.502,1.55057e-09,0,8192,8192
304.552,1.50851e-09,0,8192,8192
304.602,1.46669e-09,0,8192,8192
304.652,1.42517e-09,0,8192,8192
304.701,1.384e-09,0,8192,8192
304.751,1.34323e-09,0,8192,8192
304.801,1.3029e-09,0,8192,8192
304.851,1.26307e-09,0,8192,8192
304.901,1.22375e-09,0,8192,8192
304.95,1.185e-09,0,8192,8192
