250,0,0,32768,32768
250.001,0,0,32768,32768
250.051,0,0,32768,32768
250.101,0,0,32768,32768
250.151,0,0,32768,32768
250.201,0,0,32768,32768
250.25,0,0,32768,32768
250.3,0,0,32768,32768
250.35,0,0,32768,32768
250.401,-1.38778e-17,0,32768,32768
250.451,0,0,32768,32768
250.501,0,0,32768,32768
250.551,0,0,32768,32768
250.6,0,0,32768,32768
250.65,0,0,32768,32768
250.7,1.38778e-17,0,32768,32768
250.751,-1.38778e-17,0,32768,32768
250.801,-1.38778e-17,0,32768,32768
250.851,1.38778e-17,0,32768,32768
250.901,2.77556e-17,0,32768,32768
250.951,2.77556e-17,0,32768,32768
251,-1.38778e-17,0,32768,32768
251.05,-4.16334e-17,0,32768,32768
251.101,-2.77556e-17,0,32768,32768
251.151,0,0,32768,32768
251.201,1.38778e-17,0,32768,32768
251.251,0,0,32768,32768
251.301,0,0,32768,32768
251.35,0,0,32768,32768
251.4,0,0,32768,32768
251.451,1.38778e-17,0,32768,32768
251.501,2.77556e-17,0,32768,32768
251.551,1.38778e-17,0,32768,32768
251.601,1.38778e-17,0,32768,32768
251.651,-1.38778e-17,0,32768,32768
251.7,0,0,32768,32768
251.75,1.38778e-17,0,32768,32768
251.8,1.38778e-17,0,32768,32768
251.851,1.38778e-17,0,32768,32768
251.901,1.38778e-17,0,32768,32768
251.951,1.38778e-17,0,32768,32768
252.001,0,0,32768,32768
252.05,-2.77556e-17,0,32768,32768
252.1,0,0,32768,32768
252.15,1.38778e-17,0,32768,32768
252.201,-1.38778e-17,0,32768,32768
252.251,-2.77556e-17,0,32768,32768
252.301,-2.77556e-17,0,32768,32768
252.351,0,0,32768,32768
252.401,0,0,32768,32768
252.45,0,0,32768,32768
252.5,2.77556e-17,0,32768,32768
252.551,1.38778e-17,0,32768,32768
252.601,2.77556e-17,0,32768,32768
252.651,2.77556e-17,0,32768,32768
252.701,1.38778e-17,0,32768,32768
252.751,0,0,32768,32768
252.8,0,0,32768,32768
252.85,1.38778e-17,0,32768,32768
252.901,4.16334e-17,0,32768,32768
252.951,4.16334e-17,0,32768,32768
253.001,1.38778e-17,0,32768,32768
253.051,1.38778e-17,0,32768,32768
253.101,0,0,32768,32768
253.15,-4.16334e-17,0,32768,32768
253.2,-4.16334e-17,0,32768,32768
253.25,-2.77556e-17,0,32768,32768
253.301,-2.77556e-17,0,32768,32768
253.351,-1.38778e-17,0,32768,32768
253.401,-1.38778e-17,0,32768,32768
253.451,-1.38778e-17,0,32768,32768
253.5,-1.38778e-17,0,32768,32768
253.55,-1.38778e-17,0,32768,32768
253.6,1.38778e-17,0,32768,32768
253.651,1.38778e-17,0,32768,32768
253.701,1.38778e-17,0,32768,32768
253.751,1.38778e-17,0,32768,32768
253.801,1.38778e-17,0,32768,32768
253.851,2.77556e-17,0,32768,32768
253.9,2.77556e-17,0,32768,32768
253.95,4.16334e-17,0,32768,32768
254.001,2.77556e-17,0,32768,32768
254.051,2.77556e-17,0,32768,32768
254.101,2.77556e-17,0,32768,32768
254.151,1.38778e-17,0,32768,32768
254.201,1.38778e-17,0,32768,32768
254.25,1.38778e-17,0,32768,32768
254.3,0,0,32768,32768
254.351,-1.38778e-17,0,32768,32768
254.401,-1.38778e-17,0,32768,32768
254.451,1.38778e-17,0,32768,32768
254.501,2.77556e-17,0,32768,32768
254.551,2.77556e-17,0,32768,32768
254.6,1.38778e-17,0,32768,32768
254.65,1.38778e-17,0,32768,32768
254.701,-2.77556e-17,0,32768,32768
254.751,-1.38778e-17,0,32768,32768
254.801,-1.38778e-17,0,32768,32768
254.851,-1.38778e-17,0,32768,32768
254.901,-1.38778e-17,0,32768,32768
254.95,-1.38778e-17,0,32768,32768
255,-1.38778e-17,0,32768,32768
255.05,-1.38778e-17,0,32768,32768
255.101,-2.77556e-17,0,32768,32768
255.151,-2.77556e-17,0,32768,32768
255.201,-4.16334e-17,0,32768,32768
255.251,-1.38778e-17,0,32768,32768
255.3,-1.38778e-17,0,32768,32768
255.35,1.38778e-17,0,32768,32768
255.4,1.38778e-17,0,32768,32768
255.451,1.38778e-17,0,32768,32768
255.501,1.38778e-17,0,32768,32768
255.551,2.77556e-17,0,32768,32768
255.601,2.77556e-17,0,32768,32768
255.651,2.77556e-17,0,32768,32768
255.7,2.77556e-17,0,32768,32768
255.75,1.38778e-17,0,32768,32768
255.801,-1.38778e-17,0,32768,32768
255.851,-2.77556e-17,0,32768,32768
255.901,-1.38778e-17,0,32768,32768
255.951,-1.38778e-17,0,32768,32768
256.001,-1.38778e-17,0,32768,32768
256.05,0,0,32768,32768
256.1,0,0,32768,32768
256.151,-4.16334e-17,0,32768,32768
256.201,0,0,32768,32768
256.251,0,0,32768,32768
256.301,1.38778e-17,0,32768,32768
256.351,0,0,32768,32768
256.4,-4.16334e-17,0,32768,32768
256.45,-1.38778e-17,0,32768,32768
256.5,-2.77556e-17,0,32768,32768
256.551,-1.38778e-17,0,32768,32768
256.601,-1.38778e-17,0,32768,32768
256.651,-1.38778e-17,0,32768,32768
256.701,-1.38778e-17,0,32768,32768
256.75,0,0,32768,32768
256.8,1.38778e-17,0,32768,32768
256.85,1.38778e-17,0,32768,32768
256.901,0,0,32768,32768
256.951,-2.77556e-17,0,32768,32768
257.001,-4.16334e-17,0,32768,32768
257.051,-4.16334e-17,0,32768,32768
257.101,-1.38778e-17,0,32768,32768
257.15,-1.38778e-17,0,32768,32768
257.2,-1.38778e-17,0,32768,32768
257.251,1.38778e-17,0,32768,32768
257.301,2.77556e-17,0,32768,32768
257.351,2.77556e-17,0,32768,32768
257.401,1.38778e-17,0,32768,32768
257.451,1.38778e-17,0,32768,32768
257.5,0,0,32768,32768
257.55,2.77556e-17,0,32768,32768
257.601,2.77556e-17,0,32768,32768
257.651,4.16334e-17,0,32768,32768
257.701,4.16334e-17,0,32768,32768
257.751,4.16334e-17,0,32768,32768
257.801,1.38778e-17,0,32768,32768
257.85,1.38778e-17,0,32768,32768
257.9,0,0,32768,32768
257.95,1.38778e-17,0,32768,32768
258.001,1.38778e-17,0,32768,32768
258.051,1.38778e-17,0,32768,32768
258.101,0,0,32768,32768
258.151,-1.38778e-17,0,32768,32768
258.2,-4.16334e-17,0,32768,32768
258.25,-2.77556e-17,0,32768,32768
258.3,-2.77556e-17,0,32768,32768
258.351,1.38778e-17,0,32768,32768
258.401,1.38778e-17,0,32768,32768
258.451,2.77556e-17,0,32768,32768
258.501,0,0,32768,32768
258.551,1.38778e-17,0,32768,32768
258.6,0,0,32768,32768
258.65,1.38778e-17,0,32768,32768
258.701,0,0,32768,32768
258.751,1.38778e-17,0,32768,32768
258.801,0,0,32768,32768
258.851,-2.77556e-17,0,32768,32768
258.901,-2.77556e-17,0,32768,32768
258.95,-1.38778e-17,0,32768,32768
259,-4.16334e-17,0,32768,32768
259.051,-5.55112e-17,0,32768,32768
259.101,-2.77556e-17,0,32768,32768
259.151,-4.16334e-17,0,32768,32768
259.201,-2.77556e-17,0,32768,32768
259.251,-1.38778e-17,0,32768,32768
259.3,1.38778e-17,0,32768,32768
259.35,1.38778e-17,0,32768,32768
259.401,1.38778e-17,0,32768,32768
259.451,0,0,32768,32768
259.501,-2.77556e-17,0,32768,32768
259.551,-1.38778e-17,0,32768,32768
259.601,0,0,32768,32768
259.65,1.38778e-17,0,32768,32768
259.7,2.77556e-17,0,32768,32768
259.75,1.38778e-17,0,32768,32768
259.801,1.38778e-17,0,32768,32768
259.851,2.77556e-17,0,32768,32768
259.901,2.77556e-17,0,32768,32768
259.951,2.77556e-17,0,32768,32768
260,2.77556e-17,0,32768,32768
260.05,1.38778e-17,0,32768,32768
260.1,2.77556e-17,0,32768,32768
260.151,2.77556e-17,0,32768,32768
260.201,2.77556e-17,0,32768,32768
260.251,4.16334e-17,0,32768,32768
260.301,2.77556e-17,0,32768,32768
260.351,1.38778e-17,0,32768,32768
260.4,2.77556e-17,0,32768,32768
260.45,1.38778e-17,0,32768,32768
260.501,-2.77556e-17,0,32768,32768
260.551,-1.38778e-17,0,32768,32768
260.601,-2.77556e-17,0,32768,32768
260.651,-6.93889e-17,0,32768,32768
260.701,-5.55112e-17,0,32768,32768
260.75,-5.55112e-17,0,32768,32768
260.8,-4.16334e-17,0,32768,32768
260.851,-1.38778e-17,0,32768,32768
260.901,0,0,32768,32768
260.951,1.38778e-17,0,32768,32768
261.001,1.38778e-17,0,32768,32768
261.051,0,0,32768,32768
261.1,1.38778e-17,0,32768,32768
261.15,0,0,32768,32768
261.2,-2.77556e-17,0,32768,32768
261.251,-1.38778e-17,0,32768,32768
261.301,1.38778e-17,0,32768,32768
261.351,1.38778e-17,0,32768,32768
261.401,1.38778e-17,0,32768,32768
261.45,1.38778e-17,0,32768,32768
261.5,0,0,32768,32768
261.55,-1.38778e-17,0,32768,32768
261.601,0,0,32768,32768
261.651,0,0,32768,32768
261.701,2.77556e-17,0,32768,32768
261.751,1.38778e-17,0,32768,32768
261.801,4.16334e-17,0,32768,32768
261.85,2.77556e-17,0,32768,32768
261.9,4.16334e-17,0,32768,32768
261.951,6.93889e-17,0,32768,32768
262.001,6.93889e-17,0,32768,32768
262.051,8.32667e-17,0,32768,32768
262.101,1.11022e-16,0,32768,32768
262.151,9.71445e-17,0,32768,32768
262.2,9.71445e-17,0,32768,32768
262.25,1.11022e-16,0,32768,32768
262.301,1.11022e-16,0,32768,32768
262.351,1.38778e-16,0,32768,32768
262.401,1.38778e-16,0,32768,32768
262.451,1.38778e-16,0,32768,32768
262.501,1.249e-16,0,32768,32768
262.55,1.11022e-16,0,32768,32768
262.6,9.71445e-17,0,32768,32768
262.651,9.71445e-17,0,32768,32768
262.701,6.93889e-17,0,32768,32768
262.751,6.93889e-17,0,32768,32768
262.801,5.55112e-17,0,32768,32768
262.851,4.16334e-17,0,32768,32768
262.9,2.77556e-17,0,32768,32768
262.95,4.16334e-17,0,32768,32768
263,4.16334e-17,0,32768,32768
263.051,1.38778e-17,0,32768,32768
263.101,-1.38778e-17,0,32768,32768
263.151,-1.38778e-17,0,32768,32768
263.201,-1.38778e-17,0,32768,32768
263.25,1.38778e-17,0,32768,32768
263.3,4.16334e-17,0,32768,32768
263.35,4.16334e-17,0,32768,32768
263.401,5.55112e-17,0,32768,32768
263.451,2.77556e-17,0,32768,32768
263.501,1.38778e-17,0,32768,32768
263.551,1.38778e-17,0,32768,32768
263.601,1.38778e-17,0,32768,32768
263.65,-1.38778e-17,0,32768,32768
263.7,0,0,32768,32768
263.751,2.77556e-17,0,32768,32768
263.801,1.38778e-17,0,32768,32768
263.851,2.77556e-17,0,32768,32768
263.901,5.55112e-17,0,32768,32768
263.951,4.16334e-17,0,32768,32768
264,2.77556e-17,0,32768,32768
264.05,2.77556e-17,0,32768,32768
264.101,0,0,32768,32768
264.151,0,0,32768,32768
264.201,-1.38778e-17,0,32768,32768
264.251,-1.38778e-17,0,32768,32768
264.301,-2.77556e-17,0,32768,32768
264.35,-4.16334e-17,0,32768,32768
264.4,-4.16334e-17,0,32768,32768
264.45,-4.16334e-17,0,32768,32768
264.501,-4.16334e-17,0,32768,32768
264.551,-4.16334e-17,0,32768,32768
264.601,-4.16334e-17,0,32768,32768
264.651,-5.55112e-17,0,32768,32768
264.7,-5.55112e-17,0,32768,32768
264.75,-4.16334e-17,0,32768,32768
264.8,-4.16334e-17,0,32768,32768
264.851,-5.55112e-17,0,32768,32768
264.901,-5.55112e-17,0,32768,32768
264.951,-4.16334e-17,0,32768,32768
265.001,-4.16334e-17,0,32768,32768
265.051,-2.77556e-17,0,32768,32768
265.1,-1.38778e-17,0,32768,32768
265.15,-1.38778e-17,0,32768,32768
265.201,0,0,32768,32768
265.251,0,0,32768,32768
265.301,-1.38778e-17,0,32768,32768
265.351,-1.38778e-17,0,32768,32768
265.401,-1.38778e-17,0,32768,32768
265.45,0,0,32768,32768
265.5,2.77556e-17,0,32768,32768
265.551,0,0,32768,32768
265.601,2.77556e-17,0,32768,32768
265.651,2.77556e-17,0,32768,32768
265.701,-1.38778e-17,0,32768,32768
265.751,1.38778e-17,0,32768,32768
265.8,0,0,32768,32768
265.85,0,0,32768,32768
265.9,1.38778e-17,0,32768,32768
265.951,-1.38778e-17,0,32768,32768
266.001,0,0,32768,32768
266.051,1.38778e-17,0,32768,32768
266.101,0,0,32768,32768
266.15,-4.16334e-17,0,32768,32768
266.2,-2.77556e-17,0,32768,32768
266.25,-1.38778e-17,0,32768,32768
266.301,-4.16334e-17,0,32768,32768
266.351,-2.77556e-17,0,32768,32768
266.401,-1.38778e-17,0,32768,32768
266.451,1.38778e-17,0,32768,32768
266.501,0,0,32768,32768
266.55,0,0,32768,32768
266.6,0,0,32768,32768
266.651,1.38778e-17,0,32768,32768
266.701,1.38778e-17,0,32768,32768
266.751,1.38778e-17,0,32768,32768
266.801,5.55112e-17,0,32768,32768
266.851,4.16334e-17,0,32768,32768
266.9,5.55112e-17,0,32768,32768
266.95,5.55112e-17,0,32768,32768
267.001,5.55112e-17,0,32768,32768
267.051,6.93889e-17,0,32768,32768
267.101,4.16334e-17,0,32768,32768
267.151,4.16334e-17,0,32768,32768
267.201,5.55112e-17,0,32768,32768
267.25,5.55112e-17,0,32768,32768
267.3,8.32667e-17,0,32768,32768
267.351,8.32667e-17,0,32768,32768
267.401,6.93889e-17,0,32768,32768
267.451,5.55112e-17,0,32768,32768
267.501,5.55112e-17,0,32768,32768
267.551,5.55112e-17,0,32768,32768
267.6,4.16334e-17,0,32768,32768
267.65,5.55112e-17,0,32768,32768
267.7,1.38778e-17,0,32768,32768
267.751,2.77556e-17,0,32768,32768
267.801,2.77556e-17,0,32768,32768
267.851,0,0,32768,32768
267.901,-2.77556e-17,0,32768,32768
267.95,1.38778e-17,0,32768,32768
268,4.16334e-17,0,32768,32768
268.05,6.93889e-17,0,32768,32768
268.101,6.93889e-17,0,32768,32768
268.151,1.249e-16,0,32768,32768
268.201,1.11022e-16,0,32768,32768
268.251,1.11022e-16,0,32768,32768
268.301,8.32667e-17,0,32768,32768
268.35,9.71445e-17,0,32768,32768
268.4,6.93889e-17,0,32768,32768
268.451,8.32667e-17,0,32768,32768
268.501,6.93889e-17,0,32768,32768
268.551,8.32667e-17,0,32768,32768
268.601,9.71445e-17,0,32768,32768
268.651,9.71445e-17,0,32768,32768
268.7,8.32667e-17,0,32768,32768
268.75,8.32667e-17,0,32768,32768
268.801,9.71445e-17,0,32768,32768
268.851,1.11022e-16,0,32768,32768
268.901,1.11022e-16,0,32768,32768
268.951,1.38778e-16,0,32768,32768
269.001,1.249e-16,0,32768,32768
269.05,1.38778e-16,0,32768,32768
269.1,1.249e-16,0,32768,32768
269.15,1.38778e-16,0,32768,32768
269.201,1.38778e-16,0,32768,32768
269.251,1.38778e-16,0,32768,32768
269.301,9.71445e-17,0,32768,32768
269.351,6.93889e-17,0,32768,32768
269.4,5.55112e-17,0,32768,32768
269.45,6.93889e-17,0,32768,32768
269.5,2.77556e-17,0,32768,32768
269.551,1.38778e-17,0,32768,32768
269.601,1.38778e-17,0,32768,32768
269.651,1.38778e-17,0,32768,32768
269.701,1.38778e-17,0,32768,32768
269.751,1.38778e-17,0,32768,32768
269.8,1.38778e-17,0,32768,32768
269.85,0,0,32768,32768
269.901,1.38778e-17,0,32768,32768
269.951,2.77556e-17,0,32768,32768
270.001,1.38778e-17,0,32768,32768
270.051,0,0,32768,32768
270.101,0,0,32768,32768
270.15,-1.38778e-17,0,32768,32768
270.2,1.38778e-17,0,32768,32768
270.251,0,0,32768,32768
270.301,-1.38778e-17,0,32768,32768
270.351,-2.77556e-17,0,32768,32768
270.401,-4.16334e-17,0,32768,32768
270.451,-2.77556e-17,0,32768,32768
270.5,0,0,32768,32768
270.55,-1.38778e-17,0,32768,32768
270.6,-1.38778e-17,0,32768,32768
270.651,0,0,32768,32768
270.701,0,0,32768,32768
270.751,1.38778e-17,0,32768,32768
270.801,1.38778e-17,0,32768,32768
270.85,1.38778e-17,0,32768,32768
270.9,2.77556e-17,0,32768,32768
270.95,2.77556e-17,0,32768,32768
271.001,2.77556e-17,0,32768,32768
271.051,6.93889e-17,0,32768,32768
271.101,6.93889e-17,0,32768,32768
271.151,6.93889e-17,0,32768,32768
271.201,6.93889e-17,0,32768,32768
271.25,6.93889e-17,0,32768,32768
271.3,5.55112e-17,0,32768,32768
271.351,2.77556e-17,0,32768,32768
271.401,2.77556e-17,0,32768,32768
271.451,2.77556e-17,0,32768,32768
271.501,2.77556e-17,0,32768,32768
271.551,2.77556e-17,0,32768,32768
271.6,2.77556e-17,0,32768,32768
271.65,2.77556e-17,0,32768,32768
271.701,5.55112e-17,0,32768,32768
271.751,5.55112e-17,0,32768,32768
271.801,5.55112e-17,0,32768,32768
271.851,5.55112e-17,0,32768,32768
271.901,5.55112e-17,0,32768,32768
271.95,5.55112e-17,0,32768,32768
272,4.16334e-17,0,32768,32768
272.051,4.16334e-17,0,32768,32768
272.101,2.77556e-17,0,32768,32768
272.151,1.38778e-17,0,32768,32768
272.201,-2.77556e-17,0,32768,32768
272.251,-4.16334e-17,0,32768,32768
272.3,-1.38778e-17,0,32768,32768
272.35,-1.38778e-17,0,32768,32768
272.4,-4.16334e-17,0,32768,32768
272.451,-1.38778e-17,0,32768,32768
272.501,1.38778e-17,0,32768,32768
272.551,0,0,32768,32768
272.601,1.38778e-17,0,32768,32768
272.65,1.38778e-17,0,32768,32768
272.7,1.38778e-17,0,32768,32768
272.75,1.38778e-17,0,32768,32768
272.801,2.77556e-17,0,32768,32768
272.851,5.55112e-17,0,32768,32768
272.901,5.55112e-17,0,32768,32768
272.951,6.93889e-17,0,32768,32768
273.001,6.93889e-17,0,32768,32768
273.05,6.93889e-17,0,32768,32768
273.1,6.93889e-17,0,32768,32768
273.151,9.71445e-17,0,32768,32768
273.201,8.32667e-17,0,32768,32768
273.251,8.32667e-17,0,32768,32768
273.301,8.32667e-17,0,32768,32768
273.351,6.93889e-17,0,32768,32768
273.4,8.32667e-17,0,32768,32768
273.45,6.93889e-17,0,32768,32768
273.501,6.93889e-17,0,32768,32768
273.551,6.93889e-17,0,32768,32768
273.601,6.93889e-17,0,32768,32768
273.651,6.93889e-17,0,32768,32768
273.701,6.93889e-17,0,32768,32768
273.75,5.55112e-17,0,32768,32768
273.8,1.38778e-17,0,32768,32768
273.851,2.77556e-17,0,32768,32768
273.901,2.77556e-17,0,32768,32768
273.951,2.77556e-17,0,32768,32768
274.001,2.77556e-17,0,32768,32768
274.051,5.55112e-17,0,32768,32768
274.1,6.93889e-17,0,32768,32768
274.15,5.55112e-17,0,32768,32768
274.2,6.93889e-17,0,32768,32768
274.251,6.93889e-17,0,32768,32768
274.301,9.71445e-17,0,32768,32768
274.351,8.32667e-17,0,32768,32768
274.401,9.71445e-17,0,32768,32768
274.45,1.11022e-16,0,32768,32768
274.5,9.71445e-17,0,32768,32768
274.55,6.93889e-17,0,32768,32768
274.601,6.93889e-17,0,32768,32768
274.651,5.55112e-17,0,32768,32768
274.701,5.55112e-17,0,32768,32768
274.751,6.93889e-17,0,32768,32768
274.801,4.16334e-17,0,32768,32768
274.85,2.77556e-17,0,32768,32768
274.9,2.77556e-17,0,32768,32768
274.951,2.77556e-17,0,32768,32768
275.001,1.38778e-17,0,32768,32768
275.051,-1.38778e-17,0,32768,32768
275.101,0,0,32768,32768
275.151,1.38778e-17,0,32768,32768
275.2,2.77556e-16,0,32768,32768
275.25,2.22045e-16,0,32768,32768
275.301,-1.02557e-14,0,32768,32768
275.351,-1.34143e-13,0,32768,32768
275.401,-9.89375e-13,0,32768,32768
275.451,-5.02973e-12,0,32768,32768
275.501,-1.8806e-11,0,32768,32768
275.55,-5.34233e-11,0,32768,32768
275.6,-1.17522e-10,0,32768,32768
275.65,-2.02182e-10,0,32768,32768
275.701,-2.72996e-10,0,32768,32768
275.751,-2.77671e-10,0,32768,32768
275.801,-1.97191e-10,0,32768,32768
275.851,-6.03363e-11,0,32768,32768
275.9,6.75753e-11,0,32768,32768
275.95,1.29026e-10,0,32768,32768
276,1.14006e-10,0,32768,32768
276.051,6.23148e-11,0,32768,32768
276.101,3.54105e-11,0,32768,32768
276.151,5.87499e-11,0,32768,32768
276.201,1.11054e-10,0,32768,32768
276.251,1.46647e-10,0,32768,32768
276.3,1.37934e-10,0,32768,32768
276.35,9.85128e-11,0,32768,32768
276.401,6.7666e-11,0,32768,32768
276.451,7.63425e-11,0,32768,32768
276.501,1.16317e-10,0,32768,32768
276.551,1.54191e-10,0,32768,32768
276.601,1.59874e-10,0,32768,32768
276.65,1.30563e-10,0,32768,32768
276.7,9.14506e-11,0,32768,32768
276.751,7.59691e-11,0,32768,32768
276.801,1.01361e-10,0,32768,32768
276.851,1.51035e-10,0,32768,32768
276.901,1.85236e-10,0,32768,32768
276.951,1.6864e-10,0,32768,32768
277,1.05364e-10,0,32768,32768
277.05,4.97753e-11,0,32768,32768
277.1,6.79243e-11,0,32768,32768
277.151,1.6957e-10,0,32768,32768
277.201,2.57643e-10,0,32768,32768
277.251,2.26254e-10,0,32768,32768
277.301,1.19857e-10,0,32768,32768
277.35,2.67894e-10,0,32768,32768
277.4,1.22964e-09,0,32768,32768
277.45,3.52918e-09,0,32768,32768
277.501,7.47262e-09,0,32768,32768
277.551,1.24984e-08,0,32768,32768
277.601,1.80052e-08,0,32768,32768
277.651,2.32716e-08,0,32768,32768
277.701,2.78837e-08,0,32768,32768
277.75,3.19337e-08,0,32768,32768
277.8,3.60071e-08,0,32768,32768
277.851,4.11382e-08,0,32768,32768
277.901,4.78803e-08,0,32768,32768
277.951,5.69023e-08,0,32768,32768
278.001,6.8452e-08,0,32768,32768
278.051,8.27074e-08,0,32768,32768
278.1,1.00058e-07,0,32768,32768
278.15,1.21238e-07,0,32768,32768
278.201,1.48051e-07,0,32768,32768
278.251,1.79869e-07,0,32768,32768
278.301,2.17844e-07,0,32768,32768
278.351,2.61803e-07,0,32768,32768
278.401,3.10966e-07,0,32768,32768
278.45,3.64253e-07,0,32768,32768
278.5,4.20743e-07,0,32768,32768
278.551,4.81759e-07,0,32768,32768
278.601,5.43672e-07,0,32768,32768
278.651,6.078e-07,0,32768,32768
278.701,6.72932e-07,0,32768,32768
278.751,7.36863e-07,0,32768,32768
278.8,7.96789e-07,0,32768,32768
278.85,8.50016e-07,0,32768,32768
278.9,8.94623e-07,0,32768,32768
278.951,9.30723e-07,0,32768,32768
279.001,9.56641e-07,0,32768,32768
279.051,9.74746e-07,0,32768,32768
279.101,9.8653e-07,0,32768,32768
279.15,9.93247e-07,0,32768,32768
279.2,9.95579e-07,0,32768,32768
279.25,9.93547e-07,0,32768,32768
279.301,9.86381e-07,0,32768,32768
279.351,9.73739e-07,0,32768,32768
279.401,9.54816e-07,0,32768,32768
279.451,9.29239e-07,0,32768,32768
279.501,8.97112e-07,0,32768,32768
279.55,8.59109e-07,0,32768,32768
279.6,8.16457e-07,0,32768,32768
279.651,7.69415e-07,0,32768,32768
279.701,7.22498e-07,0,32768,32768
279.751,6.76079e-07,0,32768,32768
279.801,6.31573e-07,0,32768,32768
279.851,5.9007e-07,0,32768,32768
279.9,5.52322e-07,0,32768,32768
279.95,5.18765e-07,0,32768,32768
280.001,4.88795e-07,0,32768,32768
280.051,4.6424e-07,0,32768,32768
280.101,4.44479e-07,0,32768,32768
280.151,4.30214e-07,0,32768,32768
280.201,4.22536e-07,0,32768,32768
280.25,4.22569e-07,0,32768,32768
280.3,4.30916e-07,0,32768,32768
280.35,4.47263e-07,0,32768,32768
280.401,4.7121e-07,0,32768,32768
280.451,4.99863e-07,0,32768,32768
280.501,5.32643e-07,0,32768,32768
280.551,5.69015e-07,0,32768,32768
280.6,6.089e-07,0,32768,32768
280.65,6.52162e-07,0,32768,32768
280.7,6.98064e-07,0,32768,32768
280.751,7.46335e-07,0,32768,32768
280.801,7.91717e-07,0,32768,32768
280.851,8.32851e-07,0,32768,32768
280.901,8.67406e-07,0,32768,32768
280.951,8.93992e-07,0,32768,32768
281,9.12314e-07,0,32768,32768
281.05,9.22905e-07,0,32768,32768
281.101,9.26696e-07,0,32768,32768
281.151,9.24389e-07,0,32768,32768
281.201,9.1686e-07,0,32768,32768
281.251,9.04507e-07,0,32768,32768
281.301,8.87445e-07,0,32768,32768
281.35,8.65512e-07,0,32768,32768
281.4,8.38317e-07,0,32768,32768
281.451,8.04304e-07,0,32768,32768
281.501,7.65016e-07,0,32768,32768
281.551,7.1954e-07,0,32768,32768
281.601,6.68403e-07,0,32768,32768
281.651,6.12746e-07,0,32768,32768
281.7,5.54197e-07,0,32768,32768
281.75,4.946e-07,0,32768,32768
281.8,4.35723e-07,0,32768,32768
281.851,3.77389e-07,0,32768,32768
281.901,3.23934e-07,0,32768,32768
281.951,2.74149e-07,0,32768,32768
282.001,2.28137e-07,0,32768,32768
282.05,1.85761e-07,0,32768,32768
282.1,1.46829e-07,0,32768,32768
282.15,1.11245e-07,0,32768,32768
282.201,7.8198e-08,0,32768,32768
282.251,4.97956e-08,0,32768,32768
282.301,2.52287e-08,0,32768,32768
282.351,4.4607e-09,0,32768,32768
282.401,-1.28764e-08,0,32768,32768
282.45,-2.74162e-08,0,32768,32768
282.5,-3.9837e-08,0,32768,32768
282.551,-5.0907e-08,0,32768,32768
282.601,-6.01352e-08,0,32768,32768
282.651,-6.77348e-08,0,32768,32768
282.701,-7.35303e-08,0,32768,32768
282.751,-7.75098e-08,0,32768,32768
282.8,-7.99219e-08,0,32768,32768
282.85,-8.1215e-08,0,32768,32768
282.901,-8.18738e-08,0,32768,32768
282.951,-8.21694e-08,0,32768,32768
283.001,-8.21545e-08,0,32768,32768
283.051,-8.16253e-08,0,32768,32768
283.101,-8.03004e-08,0,32768,32768
283.15,-7.79956e-08,0,32768,32768
283.2,-7.47256e-08,0,32768,32768
283.251,-7.05662e-08,0,32768,32768
283.301,-6.60615e-08,0,32768,32768
283.351,-6.13909e-08,0,32768,32768
283.401,-5.67698e-08,0,32768,32768
283.451,-5.23328e-08,0,32768,32768
283.5,-4.81572e-08,0,32768,32768
283.55,-4.42885e-08,0,32768,32768
283.6,-4.07509e-08,0,32768,32768
283.651,-3.74572e-08,0,32768,32768
283.701,-3.45761e-08,0,32768,32768
283.751,-3.19778e-08,0,32768,32768
283.801,-2.96337e-08,0,32768,32768
283.85,-2.75268e-08,0,32768,32768
283.9,-2.56511e-08,0,32768,32768
283.95,-2.40057e-08,0,32768,32768
284.001,-2.25491e-08,0,32768,32768
284.051,-2.13564e-08,0,32768,32768
284.101,-2.03697e-08,0,32768,32768
284.151,-1.9573e-08,0,32768,32768
284.201,-1.89494e-08,0,32768,32768
284.25,-1.84814e-08,0,32768,32768
284.3,-1.81512e-08,0,32768,32768
284.351,-1.79368e-08,0,32768,32768
284.401,-1.78328e-08,0,32768,32768
284.451,-1.78155e-08,0,32768,32768
284.501,-1.78704e-08,0,32768,32768
284.551,-1.79855e-08,0,32768,32768
284.6,-1.81508e-08,0,32768,32768
284.65,-1.83578e-08,0,32768,32768
284.701,-1.86063e-08,0,32768,32768
284.751,-1.88749e-08,0,32768,32768
284.801,-1.91633e-08,0,32768,32768
284.851,-1.94655e-08,0,32768,32768
284.901,-1.97761e-08,0,32768,32768
284.95,-2.00914e-08,0,32768,32768
285,-2.04083e-08,0,32768,32768
285.05,-2.07248e-08,0,32768,32768
285.101,-2.1048e-08,0,32768,32768
285.151,-2.13574e-08,0,32768,32768
285.201,-2.16598e-08,0,32768,32768
285.251,-2.19532e-08,0,32768,32768
285.3,-2.2236e-08,0,32768,32768
285.35,-2.25075e-08,0,32768,32768
285.4,-2.27682e-08,0,32768,32768
285.451,-2.30274e-08,0,32768,32768
285.501,-2.32732e-08,0,32768,32768
285.551,-2.35166e-08,0,32768,32768
285.601,-2.37619e-08,0,32768,32768
285.651,-2.40136e-08,0,32768,32768
285.7,-2.42761e-08,0,32768,32768
285.75,-2.45536e-08,0,32768,32768
285.801,-2.48589e-08,0,32768,32768
285.851,-2.5178e-08,0,32768,32768
285.901,-2.5522e-08,0,32768,32768
285.951,-2.58928e-08,0,32768,32768
286.001,-2.62919e-08,0,32768,32768
286.05,-2.67197e-08,0,32768,32768
286.1,-2.71754e-08,0,32768,32768
286.151,-2.76722e-08,0,32768,32768
286.201,-2.81789e-08,0,32768,32768
286.251,-2.87057e-08,0,32768,32768
286.301,-2.92486e-08,0,32768,32768
286.351,-2.98035e-08,0,32768,32768
286.4,-3.0366e-08,0,32768,32768
286.45,-3.09324e-08,0,32768,32768
286.501,-3.15155e-08,0,32768,32768
286.551,-3.20786e-08,0,32768,32768
286.601,-3.26352e-08,0,32768,32768
286.651,-3.3182e-08,0,32768,32768
286.701,-3.37158e-08,0,32768,32768
286.75,-3.42332e-08,0,32768,32768
286.8,-3.47312e-08,0,32768,32768
286.85,-3.52064e-08,0,32768,32768
286.901,-3.56691e-08,0,32768,32768
286.951,-3.60906e-08,0,32768,32768
287.001,-3.64831e-08,0,32768,32768
287.051,-3.6846e-08,0,32768,32768
287.1,-3.71794e-08,0,32768,32768
287.15,-3.74843e-08,0,32768,32768
287.2,-3.77622e-08,0,32768,32768
287.251,-3.80225e-08,0,32768,32768
287.301,-3.82528e-08,0,32768,32768
287.351,-3.84639e-08,0,32768,32768
287.401,-3.86589e-08,0,32768,32768
287.451,-3.88414e-08,0,32768,32768
287.5,-3.9015e-08,0,32768,32768
287.55,-3.91838e-08,0,32768,32768
287.601,-3.93569e-08,0,32768,32768
287.651,-3.95289e-08,0,32768,32768
287.701,-3.97087e-08,0,32768,32768
287.751,-3.99001e-08,0,32768,32768
287.801,-4.01066e-08,0,32768,32768
287.85,-4.03309e-08,0,32768,32768
287.9,-4.05755e-08,0,32768,32768
287.951,-4.08503e-08,0,32768,32768
288.001,-4.11411e-08,0,32768,32768
288.051,-4.14556e-08,0,32768,32768
288.101,-4.17936e-08,0,32768,32768
288.151,-4.21536e-08,0,32768,32768
288.2,-4.25334e-08,0,32768,32768
288.25,-4.29296e-08,0,32768,32768
288.3,-4.33384e-08,0,32768,32768
288.351,-4.3768e-08,0,32768,32768
288.401,-4.41891e-08,0,32768,32768
288.451,-4.46097e-08,0,32768,32768
288.501,-4.50258e-08,0,32768,32768
288.55,-4.54336e-08,0,32768,32768
288.6,-4.58296e-08,0,32768,32768
288.65,-4.62103e-08,0,32768,32768
288.701,-4.65828e-08,0,32768,32768
288.751,-4.69226e-08,0,32768,32768
288.801,-4.72374e-08,0,32768,32768
288.851,-4.7524e-08,0,32768,32768
288.901,-4.77795e-08,0,32768,32768
288.95,-4.80015e-08,0,32768,32768
289,-4.81879e-08,0,32768,32768
289.051,-4.83416e-08,0,32768,32768
289.101,-4.84531e-08,0,32768,32768
289.151,-4.85278e-08,0,32768,32768
289.201,-4.85669e-08,0,32768,32768
289.251,-4.8572e-08,0,32768,32768
289.3,-4.85452e-08,0,32768,32768
289.35,-4.8489e-08,0,32768,32768
289.401,-4.8403e-08,0,32768,32768
289.451,-4.82947e-08,0,32768,32768
289.501,-4.81648e-08,0,32768,32768
289.551,-4.80158e-08,0,32768,32768
289.601,-4.78502e-08,0,32768,32768
289.65,-4.76706e-08,0,32768,32768
289.7,-4.74791e-08,0,32768,32768
289.751,-4.72721e-08,0,32768,32768
289.801,-4.70633e-08,0,32768,32768
289.851,-4.68487e-08,0,32768,32768
289.901,-4.66298e-08,0,32768,32768
289.951,-4.6408e-08,0,32768,32768
290,-4.61845e-08,0,32768,32768
290.05,-4.59605e-08,0,32768,32768
290.1,-4.57368e-08,0,32768,32768
290.151,-4.5508e-08,0,32768,32768
290.201,-4.52877e-08,0,32768,32768
290.251,-4.507e-08,0,32768,32768
290.301,-4.48551e-08,0,32768,32768
290.35,-4.46436e-08,0,32768,32768
290.4,-4.44354e-08,0,32768,32768
290.45,-4.4231e-08,0,32768,32768
290.501,-4.40245e-08,0,32768,32768
290.551,-4.3828e-08,0,32768,32768
290.601,-4.36354e-08,0,32768,32768
290.651,-4.34467e-08,0,32768,32768
290.701,-4.32617e-08,0,32768,32768
290.75,-4.30801e-08,0,32768,32768
290.8,-4.29016e-08,0,32768,32768
290.851,-4.27204e-08,0,32768,32768
290.901,-4.25465e-08,0,32768,32768
290.951,-4.23741e-08,0,32768,32768
291.001,-4.22028e-08,0,32768,32768
291.051,-4.2032e-08,0,32768,32768
291.1,-4.18612e-08,0,32768,32768
291.15,-4.16899e-08,0,32768,32768
291.201,-4.15126e-08,0,32768,32768
291.251,-4.13389e-08,0,32768,32768
291.301,-4.11632e-08,0,32768,32768
291.351,-4.09848e-08,0,32768,32768
291.401,-4.08032e-08,0,32768,32768
291.45,-4.06176e-08,0,32768,32768
291.5,-4.04276e-08,0,32768,32768
291.55,-4.02324e-08,0,32768,32768
291.601,-4.00257e-08,0,32768,32768
291.651,-3.98189e-08,0,32768,32768
291.701,-3.96058e-08,0,32768,32768
291.751,-3.9386e-08,0,32768,32768
291.8,-3.91591e-08,0,32768,32768
291.85,-3.89245e-08,0,32768,32768
291.9,-3.86812e-08,0,32768,32768
291.951,-3.84203e-08,0,32768,32768
292.001,-3.81553e-08,0,32768,32768
292.051,-3.78767e-08,0,32768,32768
292.101,-3.75825e-08,0,32768,32768
292.151,-3.72699e-08,0,32768,32768
292.2,-3.69361e-08,0,32768,32768
292.25,-3.65781e-08,0,32768,32768
292.301,-3.61807e-08,0,32768,32768
292.351,-3.57635e-08,0,32768,32768
292.401,-3.53125e-08,0,32768,32768
292.451,-3.48252e-08,0,32768,32768
292.501,-3.42991e-08,0,32768,32768
292.55,-3.37326e-08,0,32768,32768
292.6,-3.31247e-08,0,32768,32768
292.651,-3.24554e-08,0,32768,32768
292.701,-3.17637e-08,0,32768,32768
292.751,-3.10327e-08,0,32768,32768
292.801,-3.02651e-08,0,32768,32768
292.851,-2.94647e-08,0,32768,32768
292.9,-2.86359e-08,0,32768,32768
292.95,-2.77838e-08,0,32768,32768
293,-2.69138e-08,0,32768,32768
293.051,-2.60052e-08,0,32768,32768
293.101,-2.51153e-08,0,32768,32768
293.151,-2.42233e-08,0,32768,32768
293.201,-2.3334e-08,0,32768,32768
293.25,-2.24519e-08,0,32768,32768
293.3,-2.15813e-08,0,32768,32768
293.35,-2.07263e-08,0,32768,32768
293.401,-1.98667e-08,0,32768,32768
293.451,-1.90557e-08,0,32768,32768
293.501,-1.82721e-08,0,32768,32768
293.551,-1.75188e-08,0,32768,32768
293.601,-1.67987e-08,0,32768,32768
293.65,-1.61134e-08,0,32768,32768
293.7,-1.5464e-08,0,32768,32768
293.751,-1.48332e-08,0,32768,32768
293.801,-1.42563e-08,0,32768,32768
293.851,-1.37131e-08,0,32768,32768
293.901,-1.32016e-08,0,32768,32768
293.951,-1.27188e-08,0,32768,32768
294,-1.22615e-08,0,32768,32768
294.05,-1.18259e-08,0,32768,32768
294.101,-1.13959e-08,0,32768,32768
294.151,-1.09913e-08,0,32768,32768
294.201,-1.05951e-08,0,32768,32768
294.251,-1.02023e-08,0,32768,32768
294.301,-9.80778e-09,0,32768,32768
294.35,-9.40681e-09,0,32768,32768
294.4,-8.99469e-09,0,32768,32768
294.451,-8.55429e-09,0,32768,32768
294.501,-8.10692e-09,0,32768,32768
294.551,-7.63713e-09,0,32768,32768
294.601,-7.14253e-09,0,32768,32768
294.651,-6.62161e-09,0,32768,32768
294.7,-6.07382e-09,0,32768,32768
294.75,-5.4996e-09,0,32768,32768
294.8,-4.90038e-09,0,32768,32768
294.851,-4.2599e-09,0,32768,32768
294.901,-3.61794e-09,0,32768,32768
294.951,-2.96023e-09,0,32768,32768
295.001,-2.29088e-09,0,32768,32768
295.05,-1.61422e-09,0,32768,32768
295.1,-9.34697e-10,0,32768,32768
295.15,-2.5677e-10,0,32768,32768
295.201,4.34812e-10,0,32768,32768
295.251,1.09613e-09,0,32768,32768
295.301,1.74286e-09,0,32768,32768
295.351,2.37082e-09,0,32768,32768
295.401,2.97582e-09,0,32768,32768
295.45,3.55366e-09,0,32768,32768
295.5,4.10011e-09,0,32768,32768
295.551,4.62555e-09,0,32768,32768
295.601,5.09611e-09,0,32768,32768
295.651,5.52415e-09,0,32768,32768
295.701,5.90721e-09,0,32768,32768
295.751,6.24366e-09,0,32768,32768
295.8,6.53269e-09,0,32768,32768
295.85,6.77434e-09,0,32768,32768
295.901,6.97438e-09,0,32768,32768
295.951,7.12289e-09,0,32768,32768
296.001,7.22841e-09,0,32768,32768
296.051,7.29384e-09,0,32768,32768
296.101,7.32273e-09,0,32768,32768
296.15,7.31924e-09,0,32768,32768
296.2,7.28787e-09,0,32768,32768
296.25,7.23323e-09,0,32768,32768
296.301,7.15725e-09,0,32768,32768
296.351,7.0682e-09,0,32768,32768
296.401,6.96736e-09,0,32768,32768
296.451,6.85727e-09,0,32768,32768
296.5,6.73998e-09,0,32768,32768
296.55,6.6172e-09,0,32768,32768
296.6,6.49062e-09,0,32768,32768
296.651,6.35817e-09,0,32768,32768
296.701,6.22939e-09,0,32768,32768
296.751,6.10257e-09,0,32768,32768
296.801,5.9798e-09,0,32768,32768
296.851,5.86301e-09,0,32768,32768
296.9,5.75382e-09,0,32768,32768
296.95,5.65348e-09,0,32768,32768
297.001,5.56024e-09,0,32768,32768
297.051,5.47981e-09,0,32768,32768
297.101,5.40944e-09,0,32768,32768
297.151,5.34897e-09,0,32768,32768
297.201,5.29817e-09,0,32768,32768
297.25,5.25677e-09,0,32768,32768
297.3,5.2245e-09,0,32768,32768
297.351,5.20047e-09,0,32768,32768
297.401,5.18556e-09,0,32768,32768
297.451,5.17828e-09,0,32768,32768
297.501,5.17766e-09,0,32768,32768
297.551,5.18253e-09,0,32768,32768
297.6,5.19156e-09,0,32768,32768
297.65,5.2034e-09,0,32768,32768
297.701,5.21717e-09,0,32768,32768
297.751,5.23089e-09,0,32768,32768
297.801,5.24386e-09,0,32768,32768
297.851,5.25503e-09,0,32768,32768
297.901,5.26337e-09,0,32768,32768
297.95,5.26788e-09,0,32768,32768
298,5.26774e-09,0,32768,32768
298.05,5.2624e-09,0,32768,32768
298.101,5.25137e-09,0,32768,32768
298.151,5.23571e-09,0,32768,32768
298.201,5.21604e-09,0,32768,32768
298.251,5.19349e-09,0,32768,32768
298.3,5.16926e-09,0,32768,32768
298.35,5.14439e-09,0,32768,32768
298.4,5.11963e-09,0,32768,32768
298.451,5.09463e-09,0,32768,32768
298.501,5.07087e-09,0,32768,32768
298.551,5.04746e-09,0,32768,32768
298.601,5.0242e-09,0,32768,32768
298.651,5.00101e-09,0,32768,32768
298.7,4.97803e-09,0,32768,32768
298.75,4.95571e-09,0,32768,32768
298.801,4.93415e-09,0,32768,32768
298.851,4.91547e-09,0,32768,32768
298.901,4.89989e-09,0,32768,32768
298.951,4.88813e-09,0,32768,32768
299.001,4.88061e-09,0,32768,32768
299.05,4.87737e-09,0,32768,32768
299.1,4.87812e-09,0,32768,32768
299.151,4.88239e-09,0,32768,32768
299.201,4.88914e-09,0,32768,32768
299.251,4.89761e-09,0,32768,32768
299.301,4.90701e-09,0,32768,32768
299.351,4.9167e-09,0,32768,32768
299.4,4.92616e-09,0,32768,32768
299.45,4.93501e-09,0,32768,32768
299.5,4.94291e-09,0,32768,32768
299.551,4.94976e-09,0,32768,32768
299.601,4.95488e-09,0,32768,32768
299.651,4.95827e-09,0,32768,32768
299.701,4.95976e-09,0,32768,32768
299.75,4.95928e-09,0,32768,32768
299.8,4.95683e-09,0,32768,32768
299.85,4.95246e-09,0,32768,32768
299.901,4.94606e-09,0,32768,32768
299.951,4.93805e-09,0,32768,32768
300.001,4.92828e-09,0,32768,32768
300.051,4.91678e-09,0,32768,32768
300.101,4.90353e-09,0,32768,32768
300.15,4.88859e-09,0,32768,32768
300.2,4.87203e-09,0,32768,32768
300.251,4.85341e-09,0,32768,32768
300.301,4.83389e-09,0,32768,32768
300.351,4.81304e-09,0,32768,32768
300.401,4.79084e-09,0,32768,32768
300.451,4.76726e-09,0,32768,32768
300.5,4.74219e-09,0,32768,32768
300.55,4.71557e-09,0,32768,32768
300.601,4.6865e-09,0,32768,32768
300.651,4.65664e-09,0,32768,32768
300.701,4.62527e-09,0,32768,32768
300.751,4.59251e-09,0,32768,32768
300.801,4.5585e-09,0,32768,32768
300.85,4.52342e-09,0,32768,32768
300.9,4.48742e-09,0,32768,32768
300.95,4.45064e-09,0,32768,32768
301.001,4.41211e-09,0,32768,32768
301.051,4.37414e-09,0,32768,32768
301.101,4.33571e-09,0,32768,32768
301.151,4.29692e-09,0,32768,32768
301.2,4.25782e-09,0,32768,32768
301.25,4.21847e-09,0,32768,32768
301.3,4.17891e-09,0,32768,32768
301.351,4.13801e-09,0,32768,32768
301.401,4.09816e-09,0,32768,32768
301.451,4.0582e-09,0,32768,32768
301.501,4.01816e-09,0,32768,32768
301.551,3.97805e-09,0,32768,32768
301.6,3.93786e-09,0,32768,32768
301.65,3.89759e-09,0,32768,32768
301.701,3.85604e-09,0,32768,32768
301.751,3.81555e-09,0,32768,32768
301.801,3.77492e-09,0,32768,32768
301.851,3.7341e-09,0,32768,32768
301.901,3.69306e-09,0,32768,32768
301.95,3.65176e-09,0,32768,32768
302,3.61016e-09,0,32768,32768
302.051,3.56699e-09,0,32768,32768
302.101,3.52467e-09,0,32768,32768
302.151,3.48194e-09,0,32768,32768
302.201,3.43877e-09,0,32768,32768
302.251,3.39514e-09,0,32768,32768
302.3,3.35103e-09,0,32768,32768
302.35,3.30641e-09,0,32768,32768
302.401,3.25995e-09,0,32768,32768
302.451,3.2143e-09,0,32768,32768
302.501,3.16814e-09,0,32768,32768
302.551,3.12148e-09,0,32768,32768
302.601,3.07433e-09,0,32768,32768
302.65,3.02671e-09,0,32768,32768
302.7,2.97865e-09,0,32768,32768
302.75,2.93017e-09,0,32768,32768
302.801,2.87987e-09,0,32768,32768
302.851,2.83066e-09,0,32768,32768
302.901,2.78115e-09,0,32768,32768
302.951,2.73139e-09,0,32768,32768
303,2.68144e-09,0,32768,32768
303.05,2.63135e-09,0,32768,32768
303.1,2.58118e-09,0,32768,32768
303.151,2.52952e-09,0,32768,32768
303.201,2.47937e-09,0,32768,32768
303.251,2.42932e-09,0,32768,32768
303.301,2.37942e-09,0,32768,32768
303.351,2.32973e-09,0,32768,32768
303.4,2.28029e-09,0,32768,32768
303.45,2.23115e-09,0,32768,32768
303.501,2.18091e-09,0,32768,32768
303.551,2.13249e-09,0,32768,32768
303.601,2.08446e-09,0,32768,32768
303.651,2.03685e-09,0,32768,32768
303.701,1.98968e-09,0,32768,32768
303.75,1.94296e-09,0,32768,32768
303.8,1.8967e-09,0,32768,32768
303.851,1.84956e-09,0,32768,32768
303.901,1.80424e-09,0,32768,32768
303.951,1.75939e-09,0,32768,32768
304.001,1.71501e-09,0,32768,32768
304.051,1.67108e-09,0,32768,32768
304.1,1.62759e-09,0,32768,32768
304.15,1.58455e-09,0,32768,32768
304.2,1.54194e-09,0,32768,32768
304.251,1.4985e-09,0,32768,32768
304.301,1.4567e-09,0,32768,32768
304.351,1.41529e-09,0,32768,32768
304.401,1.37424e-09,0,32768,32768
304.45,1.33354e-09,0,32768,32768
304.5,1.29317e-09,0,32768,32768
304.55,1.25312e-09,0,32768,32768
304.601,1.21221e-09,0,32768,32768
304.651,1.17276e-09,0,32768,32768
304.701,1.13359e-09,0,32768,32768
304.751,1.09468e-09,0,32768,32768
304.801,1.05603e-09,0,32768,32768
304.85,1.01763e-09,0,32768,32768
304.9,9.79472e-10,0,32768,32768
304.951,9.40441e-10,0,32768,32768
