250,0,0,32768,32768
250.001,0,0,32768,32768
250.051,2.77556e-17,0,32768,32768
250.101,0,0,32768,32768
250.151,2.77556e-17,0,32768,32768
250.201,0,0,32768,32768
250.25,0,0,32768,32768
250.3,-2.77556e-17,0,32768,32768
250.35,-2.77556e-17,0,32768,32768
250.401,0,0,32768,32768
250.451,0,0,32768,32768
250.501,0,0,32768,32768
250.551,-2.77556e-17,0,32768,32768
250.6,-2.77556e-17,0,32768,32768
250.65,-2.77556e-17,0,32768,32768
250.7,0,0,32768,32768
250.751,2.77556e-17,0,32768,32768
250.801,-2.77556e-17,0,32768,32768
250.851,-2.77556e-17,0,32768,32768
250.901,-2.77556e-17,0,32768,32768
250.951,-2.77556e-17,0,32768,32768
251,-8.32667e-17,0,32768,32768
251.05,5.55112e-17,0,32768,32768
251.101,-2.77556e-17,0,32768,32768
251.151,-2.77556e-17,0,32768,32768
251.201,0,0,32768,32768
251.251,0,0,32768,32768
251.301,0,0,32768,32768
251.35,-2.77556e-17,0,32768,32768
251.4,-5.55112e-17,0,32768,32768
251.451,-2.77556e-17,0,32768,32768
251.501,-5.55112e-17,0,32768,32768
251.551,-1.11022e-16,0,32768,32768
251.601,-5.55112e-17,0,32768,32768
251.651,2.77556e-17,0,32768,32768
251.7,2.77556e-17,0,32768,32768
251.75,0,0,32768,32768
251.8,0,0,32768,32768
251.851,5.55112e-17,0,32768,32768
251.901,5.55112e-17,0,32768,32768
251.951,8.32667e-17,0,32768,32768
252.001,2.77556e-17,0,32768,32768
252.05,5.55112e-17,0,32768,32768
252.1,5.55112e-17,0,32768,32768
252.15,5.55112e-17,0,32768,32768
252.201,2.77556e-17,0,32768,32768
252.251,2.77556e-17,0,32768,32768
252.301,1.11022e-16,0,32768,32768
252.351,1.11022e-16,0,32768,32768
252.401,8.32667e-17,0,32768,32768
252.45,2.77556e-17,0,32768,32768
252.5,2.77556e-17,0,32768,32768
252.551,2.77556e-17,0,32768,32768
252.601,-2.77556e-17,0,32768,32768
252.651,0,0,32768,32768
252.701,2.77556e-17,0,32768,32768
252.751,5.55112e-17,0,32768,32768
252.8,5.55112e-17,0,32768,32768
252.85,5.55112e-17,0,32768,32768
252.901,5.55112e-17,0,32768,32768
252.951,5.55112e-17,0,32768,32768
253.001,8.32667e-17,0,32768,32768
253.051,1.11022e-16,0,32768,32768
253.101,2.77556e-17,0,32768,32768
253.15,0,0,32768,32768
253.2,-2.77556e-17,0,32768,32768
253.25,0,0,32768,32768
253.301,2.77556e-17,0,32768,32768
253.351,2.77556e-17,0,32768,32768
253.401,0,0,32768,32768
253.451,0,0,32768,32768
253.5,0,0,32768,32768
253.55,2.77556e-17,0,32768,32768
253.6,2.77556e-17,0,32768,32768
253.651,2.77556e-17,0,32768,32768
253.701,2.77556e-17,0,32768,32768
253.751,0,0,32768,32768
253.801,2.77556e-17,0,32768,32768
253.851,2.77556e-17,0,32768,32768
253.9,2.77556e-17,0,32768,32768
253.95,0,0,32768,32768
254.001,2.77556e-17,0,32768,32768
254.051,0,0,32768,32768
254.101,2.77556e-17,0,32768,32768
254.151,0,0,32768,32768
254.201,5.55112e-17,0,32768,32768
254.25,2.77556e-17,0,32768,32768
254.3,5.55112e-17,0,32768,32768
254.351,5.55112e-17,0,32768,32768
254.401,5.55112e-17,0,32768,32768
254.451,2.77556e-17,0,32768,32768
254.501,2.77556e-17,0,32768,32768
254.551,2.77556e-17,0,32768,32768
254.6,2.77556e-17,0,32768,32768
254.65,5.55112e-17,0,32768,32768
254.701,5.55112e-17,0,32768,32768
254.751,5.55112e-17,0,32768,32768
254.801,0,0,32768,32768
254.851,0,0,32768,32768
254.901,0,0,32768,32768
254.95,0,0,32768,32768
255,5.55112e-17,0,32768,32768
255.05,8.32667e-17,0,32768,32768
255.101,8.32667e-17,0,32768,32768
255.151,8.32667e-17,0,32768,32768
255.201,5.55112e-17,0,32768,32768
255.251,2.77556e-17,0,32768,32768
255.3,5.55112e-17,0,32768,32768
255.35,2.77556e-17,0,32768,32768
255.4,-2.77556e-17,0,32768,32768
255.451,2.77556e-17,0,32768,32768
255.501,2.77556e-17,0,32768,32768
255.551,2.77556e-17,0,32768,32768
255.601,2.77556e-17,0,32768,32768
255.651,0,0,32768,32768
255.7,0,0,32768,32768
255.75,-2.77556e-17,0,32768,32768
255.801,-5.55112e-17,0,32768,32768
255.851,-5.55112e-17,0,32768,32768
255.901,-2.77556e-17,0,32768,32768
255.951,-2.77556e-17,0,32768,32768
256.001,-5.55112e-17,0,32768,32768
256.05,-5.55112e-17,0,32768,32768
256.1,-2.77556e-17,0,32768,32768
256.151,-8.32667e-17,0,32768,32768
256.201,-5.55112e-17,0,32768,32768
256.251,-5.55112e-17,0,32768,32768
256.301,-5.55112e-17,0,32768,32768
256.351,0,0,32768,32768
256.4,2.77556e-17,0,32768,32768
256.45,5.55112e-17,0,32768,32768
256.5,2.77556e-17,0,32768,32768
256.551,0,0,32768,32768
256.601,0,0,32768,32768
256.651,5.55112e-17,0,32768,32768
256.701,5.55112e-17,0,32768,32768
256.75,8.32667e-17,0,32768,32768
256.8,2.77556e-17,0,32768,32768
256.85,0,0,32768,32768
256.901,2.77556e-17,0,32768,32768
256.951,2.77556e-17,0,32768,32768
257.001,0,0,32768,32768
257.051,0,0,32768,32768
257.101,-2.77556e-17,0,32768,32768
257.15,-2.77556e-17,0,32768,32768
257.2,-2.77556e-17,0,32768,32768
257.251,0,0,32768,32768
257.301,-2.77556e-17,0,32768,32768
257.351,0,0,32768,32768
257.401,0,0,32768,32768
257.451,0,0,32768,32768
257.5,-2.77556e-17,0,32768,32768
257.55,-2.77556e-17,0,32768,32768
257.601,2.77556e-17,0,32768,32768
257.651,8.32667e-17,0,32768,32768
257.701,5.55112e-17,0,32768,32768
257.751,2.77556e-17,0,32768,32768
257.801,0,0,32768,32768
257.85,2.77556e-17,0,32768,32768
257.9,2.77556e-17,0,32768,32768
257.95,2.77556e-17,0,32768,32768
258.001,0,0,32768,32768
258.051,0,0,32768,32768
258.101,0,0,32768,32768
258.151,2.77556e-17,0,32768,32768
258.2,0,0,32768,32768
258.25,2.77556e-17,0,32768,32768
258.3,5.55112e-17,0,32768,32768
258.351,2.77556e-17,0,32768,32768
258.401,2.77556e-17,0,32768,32768
258.451,2.77556e-17,0,32768,32768
258.501,0,0,32768,32768
258.551,0,0,32768,32768
258.6,0,0,32768,32768
258.65,2.77556e-17,0,32768,32768
258.701,2.77556e-17,0,32768,32768
258.751,2.77556e-17,0,32768,32768
258.801,0,0,32768,32768
258.851,-2.77556e-17,0,32768,32768
258.901,-2.77556e-17,0,32768,32768
258.95,0,0,32768,32768
259,0,0,32768,32768
259.051,5.55112e-17,0,32768,32768
259.101,8.32667e-17,0,32768,32768
259.151,1.38778e-16,0,32768,32768
259.201,1.38778e-16,0,32768,32768
259.251,8.32667e-17,0,32768,32768
259.3,8.32667e-17,0,32768,32768
259.35,8.32667e-17,0,32768,32768
259.401,8.32667e-17,0,32768,32768
259.451,5.55112e-17,0,32768,32768
259.501,5.55112e-17,0,32768,32768
259.551,1.11022e-16,0,32768,32768
259.601,8.32667e-17,0,32768,32768
259.65,5.55112e-17,0,32768,32768
259.7,0,0,32768,32768
259.75,-5.55112e-17,0,32768,32768
259.801,-2.77556e-17,0,32768,32768
259.851,-5.55112e-17,0,32768,32768
259.901,-2.77556e-17,0,32768,32768
259.951,-5.55112e-17,0,32768,32768
260,-8.32667e-17,0,32768,32768
260.05,-5.55112e-17,0,32768,32768
260.1,0,0,32768,32768
260.151,5.55112e-17,0,32768,32768
260.201,2.77556e-17,0,32768,32768
260.251,-5.55112e-17,0,32768,32768
260.301,-5.55112e-17,0,32768,32768
260.351,-5.55112e-17,0,32768,32768
260.4,0,0,32768,32768
260.45,0,0,32768,32768
260.501,-2.77556e-17,0,32768,32768
260.551,-2.77556e-17,0,32768,32768
260.601,-2.77556e-17,0,32768,32768
260.651,-5.55112e-17,0,32768,32768
260.701,0,0,32768,32768
260.75,-5.55112e-17,0,32768,32768
260.8,-5.55112e-17,0,32768,32768
260.851,-8.32667e-17,0,32768,32768
260.901,0,0,32768,32768
260.951,0,0,32768,32768
261.001,0,0,32768,32768
261.051,2.77556e-17,0,32768,32768
261.1,2.77556e-17,0,32768,32768
261.15,2.77556e-17,0,32768,32768
261.2,5.55112e-17,0,32768,32768
261.251,2.77556e-17,0,32768,32768
261.301,2.77556e-17,0,32768,32768
261.351,5.55112e-17,0,32768,32768
261.401,2.77556e-17,0,32768,32768
261.45,2.77556e-17,0,32768,32768
261.5,2.77556e-17,0,32768,32768
261.55,0,0,32768,32768
261.601,-2.77556e-17,0,32768,32768
261.651,-1.11022e-16,0,32768,32768
261.701,-8.32667e-17,0,32768,32768
261.751,-1.11022e-16,0,32768,32768
261.801,-8.32667e-17,0,32768,32768
261.85,-8.32667e-17,0,32768,32768
261.9,-5.55112e-17,0,32768,32768
261.951,-5.55112e-17,0,32768,32768
262.001,-8.32667e-17,0,32768,32768
262.051,-2.77556e-17,0,32768,32768
262.101,-5.55112e-17,0,32768,32768
262.151,-2.77556e-17,0,32768,32768
262.2,0,0,32768,32768
262.25,-2.77556e-17,0,32768,32768
262.301,-2.77556e-17,0,32768,32768
262.351,-8.32667e-17,0,32768,32768
262.401,-8.32667e-17,0,32768,32768
262.451,-8.32667e-17,0,32768,32768
262.501,-8.32667e-17,0,32768,32768
262.55,-1.11022e-16,0,32768,32768
262.6,-8.32667e-17,0,32768,32768
262.651,-1.11022e-16,0,32768,32768
262.701,-8.32667e-17,0,32768,32768
262.751,-2.77556e-17,0,32768,32768
262.801,2.77556e-17,0,32768,32768
262.851,5.55112e-17,0,32768,32768
262.9,2.77556e-17,0,32768,32768
262.95,2.77556e-17,0,32768,32768
263,0,0,32768,32768
263.051,-2.77556e-17,0,32768,32768
263.101,-5.55112e-17,0,32768,32768
263.151,0,0,32768,32768
263.201,5.55112e-17,0,32768,32768
263.25,5.55112e-17,0,32768,32768
263.3,1.66533e-16,0,32768,32768
263.35,1.66533e-16,0,32768,32768
263.401,1.66533e-16,0,32768,32768
263.451,1.38778e-16,0,32768,32768
263.501,1.11022e-16,0,32768,32768
263.551,5.55112e-17,0,32768,32768
263.601,8.32667e-17,0,32768,32768
263.65,1.38778e-16,0,32768,32768
263.7,1.11022e-16,0,32768,32768
263.751,5.55112e-17,0,32768,32768
263.801,5.55112e-17,0,32768,32768
263.851,1.38778e-16,0,32768,32768
263.901,5.55112e-17,0,32768,32768
263.951,8.32667e-17,0,32768,32768
264,2.77556e-17,0,32768,32768
264.05,5.55112e-17,0,32768,32768
264.101,5.55112e-17,0,32768,32768
264.151,5.55112e-17,0,32768,32768
264.201,5.55112e-17,0,32768,32768
264.251,2.77556e-17,0,32768,32768
264.301,2.77556e-17,0,32768,32768
264.35,5.55112e-17,0,32768,32768
264.4,8.32667e-17,0,32768,32768
264.45,8.32667e-17,0,32768,32768
264.501,2.77556e-17,0,32768,32768
264.551,2.77556e-17,0,32768,32768
264.601,2.77556e-17,0,32768,32768
264.651,8.32667e-17,0,32768,32768
264.7,2.77556e-17,0,32768,32768
264.75,2.77556e-17,0,32768,32768
264.8,5.55112e-17,0,32768,32768
264.851,5.55112e-17,0,32768,32768
264.901,0,0,32768,32768
264.951,0,0,32768,32768
265.001,1.94289e-16,0,32768,32768
265.051,1.94289e-16,0,32768,32768
265.1,1.94289e-16,0,32768,32768
265.15,1.38778e-16,0,32768,32768
265.201,8.32667e-17,0,32768,32768
265.251,1.11022e-16,0,32768,32768
265.301,8.32667e-17,0,32768,32768
265.351,1.11022e-16,0,32768,32768
265.401,1.38778e-16,0,32768,32768
265.45,1.11022e-16,0,32768,32768
265.5,1.11022e-16,0,32768,32768
265.551,1.11022e-16,0,32768,32768
265.601,8.32667e-17,0,32768,32768
265.651,8.32667e-17,0,32768,32768
265.701,8.32667e-17,0,32768,32768
265.751,8.32667e-17,0,32768,32768
265.8,5.55112e-17,0,32768,32768
265.85,5.55112e-17,0,32768,32768
265.9,5.55112e-17,0,32768,32768
265.951,2.77556e-17,0,32768,32768
266.001,1.11022e-16,0,32768,32768
266.051,8.32667e-17,0,32768,32768
266.101,8.32667e-17,0,32768,32768
266.15,1.66533e-16,0,32768,32768
266.2,1.38778e-16,0,32768,32768
266.25,1.38778e-16,0,32768,32768
266.301,8.32667e-17,0,32768,32768
266.351,8.32667e-17,0,32768,32768
266.401,8.32667e-17,0,32768,32768
266.451,1.11022e-16,0,32768,32768
266.501,1.11022e-16,0,32768,32768
266.55,5.55112e-17,0,32768,32768
266.6,5.55112e-17,0,32768,32768
266.651,5.55112e-17,0,32768,32768
266.701,1.11022e-16,0,32768,32768
266.751,1.11022e-16,0,32768,32768
266.801,1.11022e-16,0,32768,32768
266.851,5.55112e-17,0,32768,32768
266.9,5.55112e-17,0,32768,32768
266.95,5.55112e-17,0,32768,32768
267.001,2.77556e-17,0,32768,32768
267.051,2.77556e-17,0,32768,32768
267.101,2.77556e-17,0,32768,32768
267.151,5.55112e-17,0,32768,32768
267.201,2.77556e-17,0,32768,32768
267.25,8.32667e-17,0,32768,32768
267.3,5.55112e-17,0,32768,32768
267.351,1.11022e-16,0,32768,32768
267.401,5.55112e-17,0,32768,32768
267.451,2.77556e-17,0,32768,32768
267.501,2.77556e-17,0,32768,32768
267.551,2.77556e-17,0,32768,32768
267.6,2.77556e-17,0,32768,32768
267.65,2.77556e-17,0,32768,32768
267.7,5.55112e-17,0,32768,32768
267.751,5.55112e-17,0,32768,32768
267.801,5.55112e-17,0,32768,32768
267.851,1.11022e-16,0,32768,32768
267.901,8.32667e-17,0,32768,32768
267.95,5.55112e-17,0,32768,32768
268,2.77556e-17,0,32768,32768
268.05,5.55112e-17,0,32768,32768
268.1,0,0,33640,33640
268.151,0,0,34360,34360
268.201,0,0,35080,35080
268.25,0,0,35800,35800
268.3,0,0,36520,36520
268.351,0,0,37240,37240
268.4,0,0,37912,37912
268.45,0,0,38600,38600
268.5,0,0,39304,39304
268.551,0,0,40024,40024
268.6,0,0,40696,40696
268.65,0,0,41368,41368
268.701,0,0,42088,42088
268.75,0,0,42760,42760
268.8,0,0,43432,43432
268.85,0,0,44104,44104
268.901,0,0,44824,44824
268.95,0,0,45496,45496
269,0,0,46072,46072
269.051,0,0,46744,46744
269.101,0,0,47432,47432
269.15,0,0,48136,48136
269.2,0,0,48616,48616
269.251,0,0,49288,49288
269.3,0,0,49928,49928
269.35,0,0,50568,50568
269.4,0,0,51224,51224
269.451,0,0,51864,51864
269.5,0,0,52472,52472
269.55,0,0,53000,53000
269.601,0,0,53752,53752
269.65,0,0,54392,54392
269.7,0,0,55096,55096
269.75,0,0,55736,55736
269.801,0,0,56456,56456
269.85,0,0,57080,57080
269.9,0,0,57832,57832
269.95,0,0,58472,58472
270.001,0,0,59112,59112
270.05,0,0,59736,59736
270.1,0,0,60392,60392
270.151,0,0,61016,61016
270.2,0,0,61704,61704
270.25,0,0,62376,62376
270.3,0,0,63032,63032
270.351,0,0,63720,63720
270.4,0,0,64392,64392
270.45,0,0,65000,65000
270.501,0,0,65592,65592
270.551,0,0,66246,66246
270.6,0,0,66884,66884
270.65,0,0,67552,67552
270.701,0,0,68160,68160
270.75,0,0,68806,68806
270.8,0,0,69454,69454
270.85,1.36002e-15,0,70082,70082
270.901,3.13638e-15,0,70758,70758
270.95,4.91274e-15,0,71376,71376
271,1.3517e-14,0,71996,71996
271.051,1.24317e-13,0,72616,72616
271.1,7.62751e-13,0,73230,73230
271.15,2.13649e-12,0,73902,73902
271.2,-6.60944e-13,0,74470,74470
271.251,-7.33664e-11,0,75108,75108
271.3,-3.72896e-10,0,75750,75750
271.35,-5.88311e-10,0,76392,76392
271.401,-4.20479e-10,0,76952,76952
271.451,-3.64388e-11,0,77590,77590
271.5,3.08675e-10,0,78190,78190
271.55,4.24606e-10,0,78810,78810
271.601,2.48952e-10,0,79456,79456
271.65,-5.83192e-11,0,80072,80072
271.7,-2.29976e-10,0,80680,80680
271.75,-1.13572e-10,0,81290,81290
271.801,1.80613e-10,0,81830,81830
271.85,3.71181e-10,0,82472,82472
271.9,2.957e-10,0,83080,83080
271.951,4.23306e-11,0,83624,83624
272,-1.36615e-10,0,84234,84234
272.05,-9.31935e-11,0,84804,84804
272.1,1.12984e-10,0,85332,85332
272.151,2.88096e-10,0,85922,85922
272.2,2.98244e-10,0,86546,86546
272.25,1.61441e-10,0,87078,87078
272.3,2.29095e-12,0,87628,87628
272.351,-7.51019e-11,0,88212,88212
272.4,-3.61906e-11,0,88778,88778
272.45,1.17349e-10,0,89432,89432
272.501,3.11646e-10,0,89924,89924
272.55,3.9895e-10,0,90528,90528
272.6,2.4088e-10,0,91114,91114
272.65,-1.38608e-10,0,91632,91632
272.701,-4.21954e-10,0,92182,92182
272.75,-1.97683e-10,0,92766,92766
272.8,5.34494e-10,0,93256,93256
272.851,1.12045e-09,0,93838,93838
272.9,6.79476e-10,0,94366,94366
272.95,-8.00555e-10,0,94952,94952
273,-1.95567e-09,0,95484,95484
273.051,-8.26116e-10,0,96046,96046
273.1,3.47045e-09,0,96582,96582
273.15,1.00202e-08,0,97098,97098
273.2,1.69882e-08,0,97692,97692
273.251,2.29463e-08,0,98186,98186
273.3,2.70689e-08,0,98686,98686
273.35,2.94642e-08,0,99250,99250
273.401,3.08866e-08,0,99800,99800
273.45,3.29275e-08,0,100360,100360
273.5,3.74537e-08,0,100840,100840
273.55,4.53668e-08,0,101380,101380
273.601,5.62766e-08,0,101912,101912
273.65,6.8728e-08,0,102424,102424
273.7,8.25748e-08,0,102982,102982
273.751,9.91956e-08,0,103416,103416
273.801,1.19906e-07,0,103972,103972
273.85,1.46445e-07,0,104600,104600
273.9,1.79732e-07,0,105076,105076
273.951,2.20684e-07,0,105604,105604
274,2.6711e-07,0,106116,106116
274.05,3.17014e-07,0,106670,106670
274.1,3.67627e-07,0,107138,107138
274.151,4.18883e-07,0,107732,107732
274.2,4.7127e-07,0,108156,108156
274.25,5.28141e-07,0,108712,108712
274.301,5.90433e-07,0,109244,109244
274.35,6.52584e-07,0,109718,109718
274.4,7.10312e-07,0,110204,110204
274.45,7.59649e-07,0,110684,110684
274.501,7.99059e-07,0,111210,111210
274.55,8.26715e-07,0,111672,111672
274.6,8.44106e-07,0,112258,112258
274.651,8.53783e-07,0,112808,112808
274.701,8.58394e-07,0,113236,113236
274.75,8.59988e-07,0,113776,113776
274.8,8.58971e-07,0,114298,114298
274.851,8.54868e-07,0,114858,114858
274.9,8.46997e-07,0,115258,115258
274.95,8.342e-07,0,115792,115792
275,8.15265e-07,0,116328,116328
275.051,7.88697e-07,0,116568,116568
275.1,7.54479e-07,0,117080,117080
275.15,7.12102e-07,0,117376,117376
275.201,6.62137e-07,0,117648,117648
275.25,6.09107e-07,0,118156,118156
275.3,5.55812e-07,0,118730,118730
275.35,5.0476e-07,0,119160,119160
275.401,4.56475e-07,0,119746,119746
275.45,4.12797e-07,0,120092,120092
275.5,3.72913e-07,0,120584,120584
275.55,3.36264e-07,0,120836,120836
275.601,3.0162e-07,0,121142,121142
275.65,2.69305e-07,0,121364,121364
275.7,2.38311e-07,0,121726,121726
275.751,2.08144e-07,0,122058,122058
275.8,1.80677e-07,0,122268,122268
275.85,1.57489e-07,0,122506,122506
275.9,1.40221e-07,0,122788,122788
275.951,1.28029e-07,0,122844,122844
276,1.1803e-07,0,123098,123098
276.05,1.06678e-07,0,123240,123240
276.101,9.2914e-08,0,123546,123546
276.151,7.90542e-08,0,123658,123658
276.2,6.74166e-08,0,123844,123844
276.25,5.91933e-08,0,124008,124008
276.301,5.39817e-08,0,124184,124184
276.35,5.0864e-08,0,124390,124390
276.4,4.83548e-08,0,124488,124488
276.45,4.48991e-08,0,124630,124630
276.501,3.93428e-08,0,124808,124808
276.55,3.23447e-08,0,124986,124986
276.6,2.58022e-08,0,124936,124936
276.651,2.16155e-08,0,124756,124756
276.7,2.0336e-08,0,124580,124580
276.75,2.07876e-08,0,124378,124378
276.8,2.15836e-08,0,124176,124176
276.851,2.20198e-08,0,124010,124010
276.9,2.21198e-08,0,123936,123936
276.95,2.21488e-08,0,124340,124340
277.001,2.22367e-08,0,125116,125116
277.051,2.2362e-08,0,125020,125020
277.1,2.24633e-08,0,125168,125168
277.15,2.24249e-08,0,126022,126022
277.201,2.19328e-08,0,126624,126624
277.25,2.12949e-08,0,126840,126840
277.3,2.10453e-08,0,126154,126154
277.35,2.09844e-08,0,127024,127024
277.401,2.09268e-08,0,127626,127626
277.45,2.08503e-08,0,127634,127634
277.5,2.07486e-08,0,127996,127996
277.551,2.06159e-08,0,128066,128066
277.6,2.04538e-08,0,127958,127958
277.65,2.02593e-08,0,127976,127976
277.7,2.00317e-08,0,127904,127904
277.751,1.97655e-08,0,127948,127948
277.8,1.94664e-08,0,127836,127836
277.85,1.91287e-08,0,127982,127982
277.9,1.87523e-08,0,127984,127984
277.951,1.8333e-08,0,127880,127880
278,1.78875e-08,0,127884,127884
278.05,1.7416e-08,0,127930,127930
278.101,1.69179e-08,0,128022,128022
278.15,1.64138e-08,0,128170,128170
278.2,1.59016e-08,0,127806,127806
278.25,1.53851e-08,0,128150,128150
278.301,1.4859e-08,0,128408,128408
278.35,1.43407e-08,0,129002,129002
278.4,1.38246e-08,0,129156,129156
278.451,1.33058e-08,0,129270,129270
278.5,1.28024e-08,0,129220,129220
278.55,1.23108e-08,0,129176,129176
278.6,1.18354e-08,0,129260,129260
278.651,1.13746e-08,0,128430,128430
278.7,1.09467e-08,0,127032,127032
278.75,1.05489e-08,0,125788,125788
278.8,1.01836e-08,0,124768,124768
278.851,9.84695e-09,0,123318,123318
278.9,9.54787e-09,0,122082,122082
278.95,9.27943e-09,0,120982,120982
279.001,9.03602e-09,0,119832,119832
279.05,8.8224e-09,0,118764,118764
279.1,8.63279e-09,0,117716,117716
279.15,8.46554e-09,0,116788,116788
279.201,8.31737e-09,0,115884,115884
279.25,8.19137e-09,0,114886,114886
279.3,8.08453e-09,0,113928,113928
279.351,7.99399e-09,0,112948,112948
279.401,7.91943e-09,0,112122,112122
279.45,7.85667e-09,0,111128,111128
279.5,7.80299e-09,0,110280,110280
279.551,7.75615e-09,0,109376,109376
279.6,7.71771e-09,0,108064,108064
279.65,7.68747e-09,0,107320,107320
279.7,7.6654e-09,0,107288,107288
279.751,7.65032e-09,0,107010,107010
279.8,7.64076e-09,0,106896,106896
279.85,7.63172e-09,0,107552,107552
279.901,7.63273e-09,0,109124,109124
279.95,7.63432e-09,0,109960,109960
280,7.63667e-09,0,111188,111188
280.05,7.64169e-09,0,112410,112410
280.101,7.65016e-09,0,113610,113610
280.15,7.66173e-09,0,114388,114388
280.2,7.67596e-09,0,114892,114892
280.251,7.69222e-09,0,115372,115372
280.301,7.70923e-09,0,115856,115856
280.35,7.72659e-09,0,116754,116754
280.4,7.74378e-09,0,117478,117478
280.451,7.76108e-09,0,118364,118364
280.5,7.77783e-09,0,118726,118726
280.55,7.79446e-09,0,118298,118298
280.6,7.81108e-09,0,117844,117844
280.651,7.82804e-09,0,117388,117388
280.7,7.84484e-09,0,116922,116922
280.75,7.86159e-09,0,116284,116284
280.801,7.8785e-09,0,115672,115672
280.85,7.89509e-09,0,115192,115192
280.9,7.91162e-09,0,114768,114768
280.95,7.92811e-09,0,114446,114446
281.001,7.94469e-09,0,114176,114176
281.05,7.96071e-09,0,113920,113920
281.1,7.97629e-09,0,113612,113612
281.15,7.99136e-09,0,113180,113180
281.201,8.00625e-09,0,112716,112716
281.25,8.02067e-09,0,112288,112288
281.3,8.03487e-09,0,111808,111808
281.351,8.04897e-09,0,111350,111350
281.4,8.06232e-09,0,110860,110860
281.45,8.07498e-09,0,110400,110400
281.5,8.08705e-09,0,109958,109958
281.551,8.09903e-09,0,109552,109552
281.6,8.11087e-09,0,109130,109130
281.65,8.12261e-09,0,108744,108744
281.701,8.13381e-09,0,108306,108306
281.751,8.14386e-09,0,107884,107884
281.8,8.15404e-09,0,107482,107482
281.85,8.16713e-09,0,107086,107086
281.901,8.18661e-09,0,106842,106842
281.95,8.21644e-09,0,106544,106544
282,8.25383e-09,0,106244,106244
282.05,8.29034e-09,0,105986,105986
282.101,8.32835e-09,0,105916,105916
282.15,8.38597e-09,0,106088,106088
282.2,8.49666e-09,0,105978,105978
282.251,8.68973e-09,0,105696,105696
282.3,8.95541e-09,0,105504,105504
282.35,9.26036e-09,0,105590,105590
282.4,9.56336e-09,0,105546,105546
282.451,9.85478e-09,0,105498,105498
282.5,1.01546e-08,0,105468,105468
282.55,1.05212e-08,0,105484,105484
282.601,1.101e-08,0,105366,105366
282.651,1.16255e-08,0,105354,105354
282.7,1.23673e-08,0,105286,105286
282.75,1.32311e-08,0,105300,105300
282.801,1.42528e-08,0,105198,105198
282.85,1.54453e-08,0,105172,105172
282.9,1.68635e-08,0,105126,105126
282.95,1.85247e-08,0,105118,105118
283.001,2.04511e-08,0,105072,105072
283.05,2.25719e-08,0,105084,105084
283.1,2.49113e-08,0,105050,105050
283.151,2.75241e-08,0,104950,104950
283.2,3.03536e-08,0,104992,104992
283.25,3.34411e-08,0,105450,105450
283.3,3.67486e-08,0,106056,106056
283.351,4.02645e-08,0,106712,106712
283.401,4.38737e-08,0,107328,107328
283.45,4.74806e-08,0,108040,108040
283.501,5.125e-08,0,108728,108728
283.55,5.50514e-08,0,109384,109384
283.6,5.89509e-08,0,110056,110056
283.65,6.28926e-08,0,110728,110728
283.701,6.68432e-08,0,111416,111416
283.75,7.06721e-08,0,112056,112056
283.8,7.46105e-08,0,112760,112760
283.851,7.90981e-08,0,113432,113432
283.901,8.44197e-08,0,114072,114072
283.95,9.08419e-08,0,114648,114648
284,9.82012e-08,0,115176,115176
284.051,1.0611e-07,0,116024,116024
284.1,1.13707e-07,0,116824,116824
284.15,1.20646e-07,0,117304,117304
284.2,1.26841e-07,0,118024,118024
284.251,1.3272e-07,0,118840,118840
284.3,1.38773e-07,0,119432,119432
284.35,1.45821e-07,0,120056,120056
284.401,1.54587e-07,0,120696,120696
284.45,1.65155e-07,0,121336,121336
284.5,1.7783e-07,0,121976,121976
284.55,1.92859e-07,0,122712,122712
284.601,2.10997e-07,0,123416,123416
284.65,2.3241e-07,0,124120,124120
284.7,2.58043e-07,0,124824,124824
284.751,2.88833e-07,0,125512,125512
284.801,3.23862e-07,0,126216,126216
284.85,3.62977e-07,0,126128,126128
284.9,4.05255e-07,0,126360,126360
284.951,4.5043e-07,0,127368,127368
285,4.96547e-07,0,128360,128360
285.05,5.43928e-07,0,128920,128920
285.1,5.92235e-07,0,129400,129400
285.151,6.41342e-07,0,129832,129832
285.2,6.88195e-07,0,129808,129808
285.25,7.31286e-07,0,129840,129840
285.301,7.68783e-07,0,129744,129744
285.35,7.97763e-07,0,129680,129680
285.4,8.17928e-07,0,129620,129620
285.45,8.294e-07,0,129636,129636
285.501,8.33112e-07,0,129652,129652
285.55,8.30313e-07,0,129520,129520
285.6,8.22398e-07,0,129178,129178
285.65,8.10256e-07,0,128380,128380
285.701,7.9397e-07,0,129400,129400
285.75,7.73846e-07,0,130470,130470
285.8,7.49165e-07,0,130426,130426
285.851,7.18801e-07,0,130944,130944
285.9,6.83094e-07,0,130880,130880
285.95,6.41464e-07,0,130912,130912
286,5.94302e-07,0,131008,131008
286.051,5.41877e-07,0,131008,131008
286.1,4.87366e-07,0,131008,131008
286.15,4.31974e-07,0,130880,130880
286.201,3.76773e-07,0,130784,130784
286.251,3.24841e-07,0,130816,130816
286.3,2.76267e-07,0,130880,130880
286.35,2.31409e-07,0,130720,130720
286.401,1.8962e-07,0,130848,130848
286.45,1.51808e-07,0,130976,130976
286.5,1.17005e-07,0,130806,130806
286.55,8.50292e-08,0,130780,130780
286.601,5.55713e-08,0,130744,130744
286.65,2.9837e-08,0,129112,129112
286.7,7.77465e-09,0,128962,128962
286.751,-1.07273e-08,0,129346,129346
286.8,-2.55105e-08,0,129228,129228
286.85,-3.76958e-08,0,129604,129604
286.9,-4.82073e-08,0,129598,129598
286.951,-5.77699e-08,0,129918,129918
287,-6.61515e-08,0,129976,129976
287.05,-7.31283e-08,0,129696,129696
287.101,-7.83422e-08,0,129454,129454
287.151,-8.15136e-08,0,129554,129554
287.2,-8.3029e-08,0,129596,129596
287.25,-8.34943e-08,0,129426,129426
287.301,-8.35541e-08,0,129290,129290
287.35,-8.36125e-08,0,129318,129318
287.4,-8.36611e-08,0,129372,129372
287.45,-8.33393e-08,0,129488,129488
287.501,-8.21582e-08,0,128904,128904
287.55,-7.98627e-08,0,128610,128610
287.6,-7.64821e-08,0,128638,128638
287.651,-7.22578e-08,0,128502,128502
287.7,-6.77125e-08,0,128508,128508
287.75,-6.31092e-08,0,128402,128402
287.8,-5.86306e-08,0,128326,128326
287.851,-5.42911e-08,0,128396,128396
287.9,-5.02486e-08,0,128346,128346
287.95,-4.64676e-08,0,128406,128406
288,-4.29757e-08,0,128680,128680
288.051,-3.97343e-08,0,128690,128690
288.1,-3.68091e-08,0,128364,128364
288.15,-3.41034e-08,0,128160,128160
288.201,-3.15414e-08,0,128336,128336
288.25,-2.91821e-08,0,128506,128506
288.3,-2.69907e-08,0,128646,128646
288.35,-2.49745e-08,0,128476,128476
288.401,-2.31087e-08,0,129188,129188
288.45,-2.14413e-08,0,129350,129350
288.5,-1.99349e-08,0,129284,129284
288.551,-1.85609e-08,0,129438,129438
288.6,-1.73497e-08,0,129486,129486
288.65,-1.62711e-08,0,129644,129644
288.7,-1.53145e-08,0,129776,129776
288.751,-1.4457e-08,0,129952,129952
288.8,-1.37115e-08,0,130050,130050
288.85,-1.30511e-08,0,130150,130150
288.9,-1.24552e-08,0,130078,130078
288.951,-1.19209e-08,0,130514,130514
289,-1.14629e-08,0,130322,130322
289.05,-1.1064e-08,0,130416,130416
289.101,-1.07185e-08,0,130232,130232
289.15,-1.04349e-08,0,130142,130142
289.2,-1.02041e-08,0,130158,130158
289.25,-1.00214e-08,0,130364,130364
289.301,-9.88057e-09,0,129950,129950
289.35,-9.78177e-09,0,129674,129674
289.4,-9.71954e-09,0,129972,129972
289.451,-9.6906e-09,0,130262,130262
289.501,-9.69243e-09,0,130344,130344
289.55,-9.71969e-09,0,130430,130430
289.6,-9.76592e-09,0,130508,130508
289.651,-9.82792e-09,0,130570,130570
289.7,-9.89617e-09,0,130590,130590
289.75,-9.96916e-09,0,130542,130542
289.8,-1.00423e-08,0,130494,130494
289.851,-1.01152e-08,0,130386,130386
289.9,-1.01839e-08,0,130232,130232
289.95,-1.02465e-08,0,130086,130086
290.001,-1.0303e-08,0,129956,129956
290.05,-1.03521e-08,0,129656,129656
290.1,-1.03974e-08,0,129640,129640
290.15,-1.04398e-08,0,129464,129464
290.201,-1.04798e-08,0,129048,129048
290.25,-1.05156e-08,0,129180,129180
290.3,-1.05474e-08,0,128536,128536
290.351,-1.05762e-08,0,127538,127538
290.401,-1.0602e-08,0,128004,128004
290.45,-1.0627e-08,0,127884,127884
290.5,-1.06526e-08,0,129756,129756
290.551,-1.06794e-08,0,129702,129702
290.6,-1.07066e-08,0,129692,129692
290.65,-1.07342e-08,0,128028,128028
290.7,-1.07617e-08,0,126082,126082
290.751,-1.07894e-08,0,125118,125118
290.8,-1.08163e-08,0,124250,124250
290.85,-1.0844e-08,0,123544,123544
290.901,-1.08736e-08,0,123154,123154
290.95,-1.09022e-08,0,123170,123170
291,-1.09328e-08,0,123020,123020
291.05,-1.09647e-08,0,122788,122788
291.101,-1.0998e-08,0,121778,121778
291.15,-1.10331e-08,0,120772,120772
291.2,-1.10724e-08,0,120506,120506
291.25,-1.1117e-08,0,120606,120606
291.301,-1.1168e-08,0,123128,123128
291.35,-1.12236e-08,0,122144,122144
291.4,-1.12878e-08,0,120834,120834
291.451,-1.13629e-08,0,120286,120286
291.5,-1.1444e-08,0,121198,121198
291.55,-1.15325e-08,0,122854,122854
291.6,-1.16295e-08,0,124878,124878
291.651,-1.17376e-08,0,124952,124952
291.7,-1.1855e-08,0,125190,125190
291.75,-1.19834e-08,0,125192,125192
291.801,-1.21234e-08,0,124520,124520
291.851,-1.22694e-08,0,124032,124032
291.9,-1.24229e-08,0,122848,122848
291.95,-1.2585e-08,0,123816,123816
292.001,-1.27607e-08,0,123326,123326
292.05,-1.29476e-08,0,122462,122462
292.1,-1.31516e-08,0,122486,122486
292.15,-1.3376e-08,0,123150,123150
292.201,-1.36272e-08,0,122054,122054
292.25,-1.38998e-08,0,121920,121920
292.3,-1.41983e-08,0,121370,121370
292.351,-1.45272e-08,0,121548,121548
292.4,-1.48761e-08,0,121344,121344
292.45,-1.52478e-08,0,120758,120758
292.5,-1.56404e-08,0,120996,120996
292.551,-1.60579e-08,0,121200,121200
292.6,-1.64858e-08,0,121184,121184
292.65,-1.6927e-08,0,120538,120538
292.701,-1.73845e-08,0,120438,120438
292.751,-1.78415e-08,0,120362,120362
292.8,-1.83002e-08,0,120184,120184
292.85,-1.87563e-08,0,120190,120190
292.901,-1.9212e-08,0,120238,120238
292.95,-1.96504e-08,0,120102,120102
293,-2.00742e-08,0,120148,120148
293.05,-2.04806e-08,0,119980,119980
293.101,-2.08723e-08,0,119926,119926
293.15,-2.12359e-08,0,119932,119932
293.2,-2.15753e-08,0,120124,120124
293.251,-2.18925e-08,0,120048,120048
293.3,-2.21755e-08,0,120074,120074
293.35,-2.24258e-08,0,120048,120048
293.4,-2.2641e-08,0,120114,120114
293.451,-2.28215e-08,0,120552,120552
293.5,-2.29618e-08,0,120942,120942
293.55,-2.30652e-08,0,121196,121196
293.6,-2.31331e-08,0,121530,121530
293.651,-2.31697e-08,0,122382,122382
293.7,-2.31765e-08,0,123096,123096
293.75,-2.31596e-08,0,123690,123690
293.801,-2.31183e-08,0,124358,124358
293.85,-2.30521e-08,0,125086,125086
293.9,-2.29652e-08,0,125638,125638
293.95,-2.28609e-08,0,126220,126220
294.001,-2.27401e-08,0,126968,126968
294.05,-2.26092e-08,0,127680,127680
294.1,-2.2469e-08,0,128324,128324
294.151,-2.23193e-08,0,129052,129052
294.2,-2.21661e-08,0,129740,129740
294.25,-2.20087e-08,0,130272,130272
294.3,-2.18482e-08,0,130566,130566
294.351,-2.16835e-08,0,130660,130660
294.4,-2.15203e-08,0,130696,130696
294.45,-2.13573e-08,0,130738,130738
294.5,-2.11954e-08,0,130652,130652
294.551,-2.10334e-08,0,130670,130670
294.6,-2.08767e-08,0,130510,130510
294.65,-2.07234e-08,0,130684,130684
294.701,-2.05717e-08,0,130666,130666
294.75,-2.04262e-08,0,130450,130450
294.8,-2.02848e-08,0,130552,130552
294.85,-2.0148e-08,0,130518,130518
294.901,-2.00143e-08,0,130578,130578
294.95,-1.9888e-08,0,130598,130598
295,-1.97674e-08,0,130538,130538
295.051,-1.96508e-08,0,130560,130560
295.101,-1.95417e-08,0,130544,130544
295.15,-1.94381e-08,0,129974,129974
295.2,-1.93397e-08,0,130254,130254
295.251,-1.92451e-08,0,130414,130414
295.3,-1.91565e-08,0,130380,130380
295.35,-1.90721e-08,0,130114,130114
295.4,-1.89917e-08,0,130092,130092
295.451,-1.89136e-08,0,129976,129976
295.5,-1.88397e-08,0,129916,129916
295.55,-1.87684e-08,0,129910,129910
295.601,-1.86985e-08,0,129786,129786
295.65,-1.86318e-08,0,129732,129732
295.7,-1.85669e-08,0,129752,129752
295.75,-1.85035e-08,0,129660,129660
295.801,-1.84403e-08,0,129610,129610
295.85,-1.83791e-08,0,129462,129462
295.9,-1.83187e-08,0,129478,129478
295.951,-1.82578e-08,0,129374,129374
296.001,-1.81982e-08,0,129272,129272
296.05,-1.81386e-08,0,129222,129222
296.1,-1.8079e-08,0,129564,129564
296.151,-1.80183e-08,0,129382,129382
296.2,-1.79582e-08,0,129384,129384
296.25,-1.78977e-08,0,129330,129330
296.3,-1.78365e-08,0,129232,129232
296.351,-1.77737e-08,0,129216,129216
296.4,-1.77109e-08,0,129244,129244
296.45,-1.76472e-08,0,129246,129246
296.501,-1.75816e-08,0,129160,129160
296.55,-1.75157e-08,0,129082,129082
296.6,-1.74487e-08,0,128724,128724
296.65,-1.73802e-08,0,128186,128186
296.701,-1.7309e-08,0,127748,127748
296.75,-1.72369e-08,0,127416,127416
296.8,-1.71628e-08,0,127328,127328
296.85,-1.70864e-08,0,127268,127268
296.901,-1.70062e-08,0,127186,127186
296.95,-1.69243e-08,0,127824,127824
297,-1.68393e-08,0,127960,127960
297.051,-1.67495e-08,0,127048,127048
297.1,-1.66572e-08,0,126664,126664
297.15,-1.65609e-08,0,126704,126704
297.2,-1.64603e-08,0,126720,126720
297.251,-1.63536e-08,0,125630,125630
297.3,-1.62435e-08,0,124162,124162
297.35,-1.61285e-08,0,123576,123576
297.401,-1.60066e-08,0,123388,123388
297.451,-1.58812e-08,0,123198,123198
297.5,-1.57505e-08,0,122806,122806
297.55,-1.56146e-08,0,122392,122392
297.601,-1.54714e-08,0,121932,121932
297.65,-1.53249e-08,0,121548,121548
297.7,-1.51733e-08,0,120986,120986
297.75,-1.50164e-08,0,120330,120330
297.801,-1.48517e-08,0,119912,119912
297.85,-1.46839e-08,0,119570,119570
297.9,-1.45104e-08,0,118954,118954
297.951,-1.43283e-08,0,118228,118228
298,-1.41425e-08,0,117806,117806
298.05,-1.39504e-08,0,117414,117414
298.1,-1.37521e-08,0,117242,117242
298.151,-1.35448e-08,0,116960,116960
298.2,-1.33347e-08,0,116640,116640
298.25,-1.3119e-08,0,116324,116324
298.301,-1.28946e-08,0,115938,115938
298.351,-1.26676e-08,0,115530,115530
298.4,-1.24342e-08,0,115236,115236
298.45,-1.21933e-08,0,114804,114804
298.501,-1.194e-08,0,114506,114506
298.55,-1.16799e-08,0,114134,114134
298.6,-1.14076e-08,0,113754,113754
298.65,-1.11209e-08,0,113442,113442
298.701,-1.08126e-08,0,113100,113100
298.75,-1.04891e-08,0,112844,112844
298.8,-1.01435e-08,0,112640,112640
298.851,-9.7676e-09,0,112372,112372
298.9,-9.37025e-09,0,111922,111922
298.95,-8.94457e-09,0,111956,111956
299,-8.48943e-09,0,112380,112380
299.051,-7.99691e-09,0,112648,112648
299.1,-7.48138e-09,0,112660,112660
299.15,-6.93678e-09,0,112654,112654
299.2,-6.36491e-09,0,112624,112624
299.251,-5.7597e-09,0,112622,112622
299.3,-5.14271e-09,0,112794,112794
299.35,-4.51021e-09,0,112964,112964
299.401,-3.85824e-09,0,112972,112972
299.45,-3.21157e-09,0,112986,112986
299.5,-2.56646e-09,0,112988,112988
299.55,-1.92815e-09,0,112992,112992
299.601,-1.29218e-09,0,112982,112982
299.65,-6.81118e-10,0,112974,112974
299.7,-8.92758e-11,0,112960,112960
299.751,4.8814e-10,0,112940,112940
299.801,1.03102e-09,0,112928,112928
299.85,1.54454e-09,0,112928,112928
299.9,2.02527e-09,0,112946,112946
299.951,2.47614e-09,0,112908,112908
300,2.88102e-09,0,112890,112890
300.05,3.24428e-09,0,112878,112878
300.1,3.56432e-09,0,113474,113474
300.151,3.84428e-09,0,116128,116128
300.2,4.0765e-09,0,116748,116748
300.25,4.26678e-09,0,117034,117034
300.301,4.41929e-09,0,118426,118426
300.35,4.53226e-09,0,118680,118680
300.4,4.61081e-09,0,118982,118982
300.45,4.65874e-09,0,119540,119540
300.501,4.67748e-09,0,119526,119526
300.55,4.66547e-09,0,119534,119534
300.6,4.64038e-09,0,119520,119520
300.651,4.59308e-09,0,119514,119514
300.701,4.52797e-09,0,119502,119502
300.75,4.44896e-09,0,119466,119466
300.8,4.35941e-09,0,119480,119480
300.851,4.26e-09,0,119446,119446
300.9,4.15558e-09,0,119418,119418
300.95,4.04652e-09,0,119452,119452
301,3.93431e-09,0,119450,119450
301.051,3.81864e-09,0,119424,119424
301.1,3.70416e-09,0,120474,120474
301.15,3.59039e-09,0,121538,121538
301.201,3.47673e-09,0,122946,122946
301.25,3.36719e-09,0,125244,125244
301.3,3.26067e-09,0,125360,125360
301.35,3.15764e-09,0,125314,125314
301.401,3.0572e-09,0,125282,125282
301.45,2.96301e-09,0,125204,125204
301.5,2.87432e-09,0,125196,125196
301.55,2.79192e-09,0,125174,125174
301.601,2.71547e-09,0,125116,125116
301.65,2.64757e-09,0,125196,125196
301.7,2.5873e-09,0,125180,125180
301.751,2.53396e-09,0,125104,125104
301.8,2.48899e-09,0,125124,125124
301.85,2.45122e-09,0,125094,125094
301.9,2.42032e-09,0,125062,125062
301.951,2.39569e-09,0,125062,125062
302,2.37735e-09,0,125048,125048
302.05,2.36344e-09,0,125034,125034
302.101,2.35249e-09,0,125028,125028
302.151,2.3439e-09,0,124064,124064
302.2,2.33685e-09,0,123306,123306
302.25,2.33097e-09,0,122680,122680
302.301,2.3256e-09,0,121982,121982
302.35,2.32028e-09,0,121126,121126
302.4,2.31426e-09,0,120172,120172
302.45,2.30682e-09,0,119108,119108
302.501,2.29773e-09,0,117688,117688
302.55,2.28693e-09,0,116492,116492
302.6,2.27462e-09,0,115496,115496
302.651,2.26117e-09,0,114592,114592
302.7,2.24777e-09,0,113724,113724
302.75,2.23506e-09,0,112784,112784
302.8,2.22362e-09,0,111946,111946
302.851,2.21354e-09,0,110520,110520
302.9,2.20495e-09,0,109092,109092
302.95,2.19728e-09,0,107610,107610
303.001,2.18994e-09,0,105944,105944
303.051,2.18273e-09,0,104340,104340
303.1,2.17538e-09,0,102870,102870
303.15,2.16799e-09,0,102074,102074
303.201,2.16087e-09,0,101468,101468
303.25,2.15483e-09,0,100720,100720
303.3,2.15038e-09,0,99810,99810
303.35,2.14842e-09,0,98926,98926
303.401,2.14881e-09,0,98200,98200
303.45,2.15152e-09,0,97548,97548
303.5,2.15621e-09,0,96866,96866
303.551,2.16252e-09,0,96174,96174
303.6,2.16973e-09,0,95498,95498
303.65,2.17743e-09,0,94832,94832
303.7,2.18527e-09,0,94146,94146
303.751,2.19304e-09,0,93716,93716
303.8,2.20034e-09,0,93704,93704
303.85,2.20722e-09,0,93702,93702
303.9,2.21362e-09,0,93078,93078
303.951,2.21953e-09,0,92382,92382
304,2.22465e-09,0,91714,91714
304.05,2.22892e-09,0,91034,91034
304.101,2.23232e-09,0,90360,90360
304.15,2.23472e-09,0,89682,89682
304.2,2.23623e-09,0,89014,89014
304.25,2.23698e-09,0,88342,88342
304.301,2.2371e-09,0,87652,87652
304.35,2.23667e-09,0,86984,86984
304.4,2.23573e-09,0,86296,86296
304.451,2.2342e-09,0,85620,85620
304.501,2.2321e-09,0,84936,84936
304.55,2.22941e-09,0,84268,84268
304.6,2.2262e-09,0,83592,83592
304.651,2.22254e-09,0,82922,82922
304.7,2.21864e-09,0,82230,82230
304.75,2.21454e-09,0,81538,81538
304.8,2.21023e-09,0,80880,80880
304.851,2.20558e-09,0,80194,80194
304.9,2.20062e-09,0,79526,79526
304.95,2.19519e-09,0,78844,78844
