250,0,0,32768,32768
250.001,0,0,32768,32768
250.051,0,0,32768,32768
250.101,0,0,32768,32768
250.151,0,0,32768,32768
250.201,0,0,32768,32768
250.25,0,0,32768,32768
250.3,0,0,32768,32768
250.35,0,0,32768,32768
250.401,0,0,32768,32768
250.451,0,0,32768,32768
250.501,0,0,32768,32768
250.551,0,0,32768,32768
250.6,0,0,32768,32768
250.65,0,0,32768,32768
250.7,0,0,32768,32768
250.751,2.77556e-17,0,32768,32768
250.801,2.77556e-17,0,32768,32768
250.851,2.77556e-17,0,32768,32768
250.901,2.77556e-17,0,32768,32768
250.951,2.77556e-17,0,32768,32768
251,2.77556e-17,0,32768,32768
251.05,0,0,32768,32768
251.101,0,0,32768,32768
251.151,0,0,32768,32768
251.201,0,0,32768,32768
251.251,0,0,32768,32768
251.301,0,0,32768,32768
251.35,0,0,32768,32768
251.4,0,0,32768,32768
251.451,0,0,32768,32768
251.501,0,0,32768,32768
251.551,2.77556e-17,0,32768,32768
251.601,0,0,32768,32768
251.651,2.77556e-17,0,32768,32768
251.7,0,0,32768,32768
251.75,2.77556e-17,0,32768,32768
251.8,0,0,32768,32768
251.851,0,0,32768,32768
251.901,0,0,32768,32768
251.951,0,0,32768,32768
252.001,0,0,32768,32768
252.05,0,0,32768,32768
252.1,0,0,32768,32768
252.15,0,0,32768,32768
252.201,0,0,32768,32768
252.251,0,0,32768,32768
252.301,0,0,32768,32768
252.351,0,0,32768,32768
252.401,0,0,32768,32768
252.45,0,0,32768,32768
252.5,0,0,32768,32768
252.551,2.77556e-17,0,32768,32768
252.601,2.77556e-17,0,32768,32768
252.651,2.77556e-17,0,32768,32768
252.701,0,0,32768,32768
252.751,2.77556e-17,0,32768,32768
252.8,0,0,32768,32768
252.85,0,0,32768,32768
252.901,-2.77556e-17,0,32768,32768
252.951,0,0,32768,32768
253.001,0,0,32768,32768
253.051,0,0,32768,32768
253.101,0,0,32768,32768
253.15,0,0,32768,32768
253.2,0,0,32768,32768
253.25,2.77556e-17,0,32768,32768
253.301,2.77556e-17,0,32768,32768
253.351,2.77556e-17,0,32768,32768
253.401,2.77556e-17,0,32768,32768
253.451,2.77556e-17,0,32768,32768
253.5,2.77556e-17,0,32768,32768
253.55,2.77556e-17,0,32768,32768
253.6,2.77556e-17,0,32768,32768
253.651,2.77556e-17,0,32768,32768
253.701,2.77556e-17,0,32768,32768
253.751,2.77556e-17,0,32768,32768
253.801,2.77556e-17,0,32768,32768
253.851,2.77556e-17,0,32768,32768
253.9,2.77556e-17,0,32768,32768
253.95,2.77556e-17,0,32768,32768
254.001,2.77556e-17,0,32768,32768
254.051,5.55112e-17,0,32768,32768
254.101,8.32667e-17,0,32768,32768
254.151,5.55112e-17,0,32768,32768
254.201,-2.77556e-17,0,32768,32768
254.25,-2.77556e-17,0,32768,32768
254.3,-2.77556e-17,0,32768,32768
254.351,-2.77556e-17,0,32768,32768
254.401,-2.77556e-17,0,32768,32768
254.451,0,0,32768,32768
254.501,0,0,32768,32768
254.551,-2.77556e-17,0,32768,32768
254.6,0,0,32768,32768
254.65,-2.77556e-17,0,32768,32768
254.701,-2.77556e-17,0,32768,32768
254.751,-2.77556e-17,0,32768,32768
254.801,-2.77556e-17,0,32768,32768
254.851,-5.55112e-17,0,32768,32768
254.901,-5.55112e-17,0,32768,32768
254.95,-5.55112e-17,0,32768,32768
255,-5.55112e-17,0,32768,32768
255.05,-2.77556e-17,0,32768,32768
255.101,0,0,32768,32768
255.151,0,0,32768,32768
255.201,0,0,32768,32768
255.251,0,0,32768,32768
255.3,0,0,32768,32768
255.35,0,0,32768,32768
255.4,0,0,32768,32768
255.451,0,0,32768,32768
255.501,0,0,32768,32768
255.551,0,0,32768,32768
255.601,0,0,32768,32768
255.651,0,0,32768,32768
255.7,0,0,32768,32768
255.75,0,0,32768,32768
255.801,0,0,32768,32768
255.851,0,0,32768,32768
255.901,0,0,32768,32768
255.951,0,0,32768,32768
256.001,0,0,32768,32768
256.05,-2.77556e-17,0,32768,32768
256.1,0,0,32768,32768
256.151,0,0,32768,32768
256.201,0,0,32768,32768
256.251,0,0,32768,32768
256.301,0,0,32768,32768
256.351,0,0,32768,32768
256.4,2.77556e-17,0,32768,32768
256.45,2.77556e-17,0,32768,32768
256.5,5.55112e-17,0,32768,32768
256.551,5.55112e-17,0,32768,32768
256.601,8.32667e-17,0,32768,32768
256.651,2.77556e-17,0,32768,32768
256.701,1.11022e-16,0,32768,32768
256.75,5.55112e-17,0,32768,32768
256.8,2.77556e-17,0,32768,32768
256.85,2.77556e-17,0,32768,32768
256.901,-2.77556e-17,0,32768,32768
256.951,0,0,32768,32768
257.001,0,0,32768,32768
257.051,2.77556e-17,0,32768,32768
257.101,0,0,32768,32768
257.15,0,0,32768,32768
257.2,0,0,32768,32768
257.251,0,0,32768,32768
257.301,2.77556e-17,0,32768,32768
257.351,5.55112e-17,0,32768,32768
257.401,5.55112e-17,0,32768,32768
257.451,8.32667e-17,0,32768,32768
257.5,8.32667e-17,0,32768,32768
257.55,5.55112e-17,0,32768,32768
257.601,5.55112e-17,0,32768,32768
257.651,5.55112e-17,0,32768,32768
257.701,5.55112e-17,0,32768,32768
257.751,2.77556e-17,0,32768,32768
257.801,5.55112e-17,0,32768,32768
257.85,2.77556e-17,0,32768,32768
257.9,0,0,32768,32768
257.95,2.77556e-17,0,32768,32768
258.001,5.55112e-17,0,32768,32768
258.051,2.77556e-17,0,32768,32768
258.101,2.77556e-17,0,32768,32768
258.151,-5.55112e-17,0,32768,32768
258.2,-5.55112e-17,0,32768,32768
258.25,-2.77556e-17,0,32768,32768
258.3,-2.77556e-17,0,32768,32768
258.351,-5.55112e-17,0,32768,32768
258.401,0,0,32768,32768
258.451,-2.77556e-17,0,32768,32768
258.501,0,0,32768,32768
258.551,0,0,32768,32768
258.6,0,0,32768,32768
258.65,0,0,32768,32768
258.701,0,0,32768,32768
258.751,-2.77556e-17,0,32768,32768
258.801,-2.77556e-17,0,32768,32768
258.851,-2.77556e-17,0,32768,32768
258.901,-2.77556e-17,0,32768,32768
258.95,0,0,32768,32768
259,2.77556e-17,0,32768,32768
259.051,0,0,32768,32768
259.101,0,0,32768,32768
259.151,-2.77556e-17,0,32768,32768
259.201,0,0,32768,32768
259.251,0,0,32768,32768
259.3,0,0,32768,32768
259.35,-5.55112e-17,0,32768,32768
259.401,-2.77556e-17,0,32768,32768
259.451,0,0,32768,32768
259.501,0,0,32768,32768
259.551,-5.55112e-17,0,32768,32768
259.601,-5.55112e-17,0,32768,32768
259.65,-5.55112e-17,0,32768,32768
259.7,0,0,32768,32768
259.75,-2.77556e-17,0,32768,32768
259.801,-5.55112e-17,0,32768,32768
259.851,-8.32667e-17,0,32768,32768
259.901,-8.32667e-17,0,32768,32768
259.951,-8.32667e-17,0,32768,32768
260,-8.32667e-17,0,32768,32768
260.05,-8.32667e-17,0,32768,32768
260.1,-5.55112e-17,0,32768,32768
260.151,-5.55112e-17,0,32768,32768
260.201,-5.55112e-17,0,32768,32768
260.251,0,0,32768,32768
260.301,-2.77556e-17,0,32768,32768
260.351,0,0,32768,32768
260.4,5.55112e-17,0,32768,32768
260.45,8.32667e-17,0,32768,32768
260.501,5.55112e-17,0,32768,32768
260.551,5.55112e-17,0,32768,32768
260.601,2.77556e-17,0,32768,32768
260.651,2.77556e-17,0,32768,32768
260.701,5.55112e-17,0,32768,32768
260.75,5.55112e-17,0,32768,32768
260.8,8.32667e-17,0,32768,32768
260.851,1.11022e-16,0,32768,32768
260.901,8.32667e-17,0,32768,32768
260.951,8.32667e-17,0,32768,32768
261.001,1.11022e-16,0,32768,32768
261.051,1.11022e-16,0,32768,32768
261.1,1.11022e-16,0,32768,32768
261.15,5.55112e-17,0,32768,32768
261.2,5.55112e-17,0,32768,32768
261.251,5.55112e-17,0,32768,32768
261.301,2.77556e-17,0,32768,32768
261.351,2.77556e-17,0,32768,32768
261.401,2.77556e-17,0,32768,32768
261.45,2.77556e-17,0,32768,32768
261.5,2.77556e-17,0,32768,32768
261.55,5.55112e-17,0,32768,32768
261.601,5.55112e-17,0,32768,32768
261.651,8.32667e-17,0,32768,32768
261.701,5.55112e-17,0,32768,32768
261.751,5.55112e-17,0,32768,32768
261.801,2.77556e-17,0,32768,32768
261.85,2.77556e-17,0,32768,32768
261.9,5.55112e-17,0,32768,32768
261.951,2.77556e-17,0,32768,32768
262.001,2.77556e-17,0,32768,32768
262.051,5.55112e-17,0,32768,32768
262.101,5.55112e-17,0,32768,32768
262.151,5.55112e-17,0,32768,32768
262.2,2.77556e-17,0,32768,32768
262.25,2.77556e-17,0,32768,32768
262.301,5.55112e-17,0,32768,32768
262.351,5.55112e-17,0,32768,32768
262.401,2.77556e-17,0,32768,32768
262.451,2.77556e-17,0,32768,32768
262.501,2.77556e-17,0,32768,32768
262.55,2.77556e-17,0,32768,32768
262.6,5.55112e-17,0,32768,32768
262.651,5.55112e-17,0,32768,32768
262.701,8.32667e-17,0,32768,32768
262.751,8.32667e-17,0,32768,32768
262.801,1.11022e-16,0,32768,32768
262.851,8.32667e-17,0,32768,32768
262.9,8.32667e-17,0,32768,32768
262.95,1.11022e-16,0,32768,32768
263,8.32667e-17,0,32768,32768
263.051,8.32667e-17,0,32768,32768
263.101,8.32667e-17,0,32768,32768
263.151,8.32667e-17,0,32768,32768
263.201,2.77556e-17,0,32768,32768
263.25,0,0,32768,32768
263.3,0,0,32768,32768
263.35,0,0,32768,32768
263.401,0,0,32768,32768
263.451,0,0,32768,32768
263.501,0,0,32768,32768
263.551,-2.77556e-17,0,32768,32768
263.601,-2.77556e-17,0,32768,32768
263.65,2.77556e-17,0,32768,32768
263.7,2.77556e-17,0,32768,32768
263.751,5.55112e-17,0,32768,32768
263.801,5.55112e-17,0,32768,32768
263.851,5.55112e-17,0,32768,32768
263.901,8.32667e-17,0,32768,32768
263.951,8.32667e-17,0,32768,32768
264,8.32667e-17,0,32768,32768
264.05,8.32667e-17,0,32768,32768
264.101,8.32667e-17,0,32768,32768
264.151,8.32667e-17,0,32768,32768
264.201,8.32667e-17,0,32768,32768
264.251,8.32667e-17,0,32768,32768
264.301,8.32667e-17,0,32768,32768
264.35,5.55112e-17,0,32768,32768
264.4,5.55112e-17,0,32768,32768
264.45,2.77556e-17,0,32768,32768
264.501,5.55112e-17,0,32768,32768
264.551,5.55112e-17,0,32768,32768
264.601,5.55112e-17,0,32768,32768
264.651,5.55112e-17,0,32768,32768
264.7,5.55112e-17,0,32768,32768
264.75,5.55112e-17,0,32768,32768
264.8,5.55112e-17,0,32768,32768
264.851,5.55112e-17,0,32768,32768
264.901,5.55112e-17,0,32768,32768
264.951,5.55112e-17,0,32768,32768
265.001,5.55112e-17,0,32768,32768
265.051,1.11022e-16,0,32768,32768
265.1,8.32667e-17,0,32768,32768
265.15,5.55112e-17,0,32768,32768
265.201,8.32667e-17,0,32768,32768
265.251,2.77556e-17,0,32768,32768
265.301,2.77556e-17,0,32768,32768
265.351,2.77556e-17,0,32768,32768
265.401,0,0,32768,32768
265.45,2.77556e-17,0,32768,32768
265.5,2.77556e-17,0,32768,32768
265.551,2.77556e-17,0,32768,32768
265.601,2.77556e-17,0,32768,32768
265.651,2.77556e-17,0,32768,32768
265.701,0,0,32768,32768
265.751,5.55112e-17,0,32768,32768
265.8,2.77556e-17,0,32768,32768
265.85,2.77556e-17,0,32768,32768
265.9,2.77556e-17,0,32768,32768
265.951,2.77556e-17,0,32768,32768
266.001,0,0,32768,32768
266.051,2.77556e-17,0,32768,32768
266.101,5.55112e-17,0,32768,32768
266.15,2.77556e-17,0,32768,32768
266.2,2.77556e-17,0,32768,32768
266.25,2.77556e-17,0,32768,32768
266.301,2.77556e-17,0,32768,32768
266.351,0,0,32768,32768
266.401,0,0,32768,32768
266.451,-2.77556e-17,0,32768,32768
266.501,0,0,32768,32768
266.55,0,0,32768,32768
266.6,0,0,32768,32768
266.651,0,0,32768,32768
266.701,5.55112e-17,0,32768,32768
266.751,5.55112e-17,0,32768,32768
266.801,2.77556e-17,0,32768,32768
266.851,5.55112e-17,0,32768,32768
266.9,2.77556e-17,0,32768,32768
266.95,2.77556e-17,0,32768,32768
267.001,0,0,32768,32768
267.051,5.55112e-17,0,32768,32768
267.101,8.32667e-17,0,32768,32768
267.151,5.55112e-17,0,32768,32768
267.201,5.55112e-17,0,32768,32768
267.25,5.55112e-17,0,32768,32768
267.3,2.77556e-17,0,32768,32768
267.351,2.77556e-17,0,32768,32768
267.401,2.77556e-17,0,32768,32768
267.451,2.77556e-17,0,32768,32768
267.501,5.55112e-17,0,32768,32768
267.551,5.55112e-17,0,32768,32768
267.6,5.55112e-17,0,32768,32768
267.65,2.77556e-17,0,32768,32768
267.7,5.55112e-17,0,32768,32768
267.751,5.55112e-17,0,32768,32768
267.801,2.77556e-17,0,32768,32768
267.851,5.55112e-17,0,32768,32768
267.901,5.55112e-17,0,32768,32768
267.95,5.55112e-17,0,32768,32768
268,5.55112e-17,0,32768,32768
268.05,5.55112e-17,0,32768,32768
268.101,0,0,32768,32768
268.151,0,0,32768,32768
268.201,0,0,32768,32768
268.251,0,0,32768,32768
268.301,0,0,32768,32768
268.35,0,0,32768,32768
268.4,2.77556e-17,0,32768,32768
268.451,5.55112e-17,0,32768,32768
268.501,8.32667e-17,0,32768,32768
268.551,8.32667e-17,0,32768,32768
268.601,5.55112e-17,0,32768,32768
268.651,0,0,32768,32768
268.7,0,0,32768,32768
268.75,-5.55112e-17,0,32768,32768
268.801,-5.55112e-17,0,32768,32768
268.851,-5.55112e-17,0,32768,32768
268.901,-8.32667e-17,0,32768,32768
268.951,-2.77556e-17,0,32768,32768
269.001,0,0,32768,32768
269.05,-5.55112e-17,0,32768,32768
269.1,-5.55112e-17,0,32768,32768
269.15,-5.55112e-17,0,32768,32768
269.201,-5.55112e-17,0,32768,32768
269.251,-5.55112e-17,0,32768,32768
269.301,-5.55112e-17,0,32768,32768
269.351,-5.55112e-17,0,32768,32768
269.4,-5.55112e-17,0,32768,32768
269.45,-5.55112e-17,0,32768,32768
269.5,-5.55112e-17,0,32768,32768
269.551,-5.55112e-17,0,32768,32768
269.601,-2.77556e-17,0,32768,32768
269.651,0,0,32768,32768
269.701,0,0,32768,32768
269.751,0,0,32768,32768
269.8,0,0,32768,32768
269.85,0,0,32768,32768
269.901,0,0,32768,32768
269.951,0,0,32768,32768
270.001,0,0,32768,32768
270.051,-2.77556e-17,0,32768,32768
270.101,-2.77556e-17,0,32768,32768
270.15,0,0,32768,32768
270.2,0,0,32768,32768
270.251,0,0,32768,32768
270.301,0,0,32768,32768
270.351,0,0,32768,32768
270.401,0,0,32768,32768
270.451,0,0,32768,32768
270.5,-2.77556e-17,0,32768,32768
270.55,0,0,32768,32768
270.6,0,0,32768,32768
270.651,0,0,32768,32768
270.701,0,0,32768,32768
270.751,0,0,32768,32768
270.801,8.32667e-17,0,32768,32768
270.85,2.77556e-17,0,32768,32768
270.9,5.55112e-17,0,32768,32768
270.95,2.77556e-17,0,32768,32768
271.001,0,0,32768,32768
271.051,0,0,32768,32768
271.101,2.77556e-17,0,32768,32768
271.151,2.77556e-17,0,32768,32768
271.201,2.77556e-17,0,32768,32768
271.25,2.77556e-17,0,32768,32768
271.3,2.77556e-17,0,32768,32768
271.351,0,0,32768,32768
271.401,0,0,32768,32768
271.451,0,0,32768,32768
271.501,0,0,32768,32768
271.551,0,0,32768,32768
271.6,0,0,32768,32768
271.65,0,0,32768,32768
271.701,0,0,32768,32768
271.751,2.77556e-17,0,32768,32768
271.801,2.77556e-17,0,32768,32768
271.851,2.77556e-17,0,32768,32768
271.901,2.77556e-17,0,32768,32768
271.95,0,0,32768,32768
272,2.77556e-17,0,32768,32768
272.051,5.55112e-17,0,32768,32768
272.101,2.77556e-17,0,32768,32768
272.151,2.77556e-17,0,32768,32768
272.201,0,0,32768,32768
272.251,0,0,32768,32768
272.3,5.55112e-17,0,32768,32768
272.35,2.77556e-17,0,32768,32768
272.4,2.77556e-17,0,32768,32768
272.451,2.77556e-17,0,32768,32768
272.501,2.77556e-17,0,32768,32768
272.551,2.77556e-17,0,32768,32768
272.601,2.77556e-17,0,32768,32768
272.65,0,0,32768,32768
272.7,1.05471e-15,0,32768,32768
272.75,1.11577e-14,0,32768,32768
272.801,1.46272e-14,0,32768,32768
272.851,-9.13991e-13,0,32768,32768
272.901,-9.67368e-12,0,32768,32768
272.951,-4.87642e-11,0,32768,32768
273.001,-1.47338e-10,0,32768,32768
273.05,-2.89659e-10,0,32768,32768
273.1,-3.82418e-10,0,32768,32768
273.151,-3.22547e-10,0,32768,32768
273.201,-1.18783e-10,0,32768,32768
273.251,1.11984e-10,0,32768,32768
273.301,2.36366e-10,0,32768,32768
273.351,2.00484e-10,0,32768,32768
273.4,6.5845e-11,0,32768,32768
273.45,-3.93309e-11,0,32768,32768
273.501,-2.10525e-11,0,32768,32768
273.551,9.75514e-11,0,32768,32768
273.601,2.05403e-10,0,32768,32768
273.651,2.09487e-10,0,32768,32768
273.701,1.16177e-10,0,32768,32768
273.75,1.8044e-11,0,32768,32768
273.8,3.72785e-12,0,32768,32768
273.851,8.35206e-11,0,32768,32768
273.901,1.79805e-10,0,32768,32768
273.951,2.1497e-10,0,32768,32768
274.001,1.67213e-10,0,32768,32768
274.051,7.89695e-11,0,32768,32768
274.1,1.75851e-11,0,32768,32768
274.15,2.98499e-11,0,32768,32768
274.2,1.15261e-10,0,32768,32768
274.251,2.22793e-10,0,32768,32768
274.301,2.58184e-10,0,32768,32768
274.351,1.66413e-10,0,32768,32768
274.401,-8.29647e-12,0,32768,32768
274.45,-1.08289e-10,0,32768,32768
274.5,1.78659e-11,0,32768,32768
274.55,3.2476e-10,0,32768,32768
274.601,5.1235e-10,0,32768,32768
274.651,2.54485e-10,0,32768,32768
274.701,-3.20508e-10,0,32768,32768
274.751,-4.70736e-10,0,32768,32768
274.801,8.33646e-10,0,32768,32768
274.85,4.22755e-09,0,32768,32768
274.9,9.48141e-09,0,32768,32768
274.951,1.58053e-08,0,32768,32768
275.001,2.16501e-08,0,32768,32768
275.051,2.6393e-08,0,32768,32768
275.101,2.98848e-08,0,32768,32768
275.151,3.26858e-08,0,32768,32768
275.2,3.59118e-08,0,32768,32768
275.25,4.0808e-08,0,32768,32768
275.301,4.84621e-08,0,32768,32768
275.351,5.85789e-08,0,32768,32768
275.401,7.10796e-08,0,32768,32768
275.451,8.59326e-08,0,32768,32768
275.501,1.03746e-07,0,32768,32768
275.55,1.25681e-07,0,32768,32768
275.6,1.53025e-07,0,32768,32768
275.65,1.86711e-07,0,32768,32768
275.701,2.28214e-07,0,32768,32768
275.751,2.74356e-07,0,32768,32768
275.801,3.24627e-07,0,32768,32768
275.851,3.77362e-07,0,32768,32768
275.9,4.31782e-07,0,32768,32768
275.95,4.88297e-07,0,32768,32768
276,5.47677e-07,0,32768,32768
276.051,6.11484e-07,0,32768,32768
276.101,6.73869e-07,0,32768,32768
276.151,7.33117e-07,0,32768,32768
276.201,7.85649e-07,0,32768,32768
276.251,8.28872e-07,0,32768,32768
276.3,8.61651e-07,0,32768,32768
276.35,8.84338e-07,0,32768,32768
276.401,8.98779e-07,0,32768,32768
276.451,9.0626e-07,0,32768,32768
276.501,9.09082e-07,0,32768,32768
276.551,9.08212e-07,0,32768,32768
276.601,9.03761e-07,0,32768,32768
276.65,8.95193e-07,0,32768,32768
276.7,8.81584e-07,0,32768,32768
276.751,8.61172e-07,0,32768,32768
276.801,8.341e-07,0,32768,32768
276.851,7.99249e-07,0,32768,32768
276.901,7.56714e-07,0,32768,32768
276.951,7.07646e-07,0,32768,32768
277,6.54238e-07,0,32768,32768
277.05,5.99197e-07,0,32768,32768
277.1,5.45004e-07,0,32768,32768
277.151,4.91938e-07,0,32768,32768
277.201,4.43948e-07,0,32768,32768
277.251,3.99667e-07,0,32768,32768
277.301,3.5881e-07,0,32768,32768
277.35,3.2083e-07,0,32768,32768
277.4,2.85146e-07,0,32768,32768
277.45,2.51381e-07,0,32768,32768
277.501,2.18727e-07,0,32768,32768
277.551,1.89792e-07,0,32768,32768
277.601,1.64732e-07,0,32768,32768
277.651,1.44303e-07,0,32768,32768
277.701,1.28106e-07,0,32768,32768
277.75,1.14511e-07,0,32768,32768
277.8,1.01577e-07,0,32768,32768
277.851,8.78759e-08,0,32768,32768
277.901,7.45966e-08,0,32768,32768
277.951,6.25962e-08,0,32768,32768
278.001,5.29443e-08,0,32768,32768
278.051,4.59078e-08,0,32768,32768
278.1,4.0916e-08,0,32768,32768
278.15,3.68734e-08,0,32768,32768
278.201,3.24708e-08,0,32768,32768
278.251,2.72328e-08,0,32768,32768
278.301,2.12096e-08,0,32768,32768
278.351,1.53663e-08,0,32768,32768
278.401,1.08461e-08,0,32768,32768
278.45,8.2413e-09,0,32768,32768
278.5,7.32572e-09,0,32768,32768
278.551,7.3863e-09,0,32768,32768
278.601,7.72251e-09,0,32768,32768
278.651,7.98867e-09,0,32768,32768
278.701,8.14234e-09,0,32768,32768
278.751,8.24735e-09,0,32768,32768
278.8,8.33661e-09,0,32768,32768
278.85,8.37125e-09,0,32768,32768
278.9,8.26861e-09,0,32768,32768
278.951,7.9828e-09,0,32768,32768
279.001,7.62358e-09,0,32768,32768
279.051,7.33426e-09,0,32768,32768
279.101,7.18236e-09,0,32768,32768
279.15,7.13494e-09,0,32768,32768
279.2,7.13518e-09,0,32768,32768
279.25,7.14987e-09,0,32768,32768
279.301,7.16813e-09,0,32768,32768
279.351,7.18629e-09,0,32768,32768
279.401,7.20446e-09,0,32768,32768
279.451,7.22267e-09,0,32768,32768
279.501,7.24094e-09,0,32768,32768
279.55,7.25925e-09,0,32768,32768
279.6,7.27753e-09,0,32768,32768
279.651,7.29625e-09,0,32768,32768
279.701,7.31434e-09,0,32768,32768
279.751,7.33244e-09,0,32768,32768
279.801,7.35066e-09,0,32768,32768
279.851,7.36902e-09,0,32768,32768
279.9,7.38744e-09,0,32768,32768
279.95,7.40605e-09,0,32768,32768
280.001,7.42608e-09,0,32768,32768
280.051,7.44776e-09,0,32768,32768
280.101,7.47343e-09,0,32768,32768
280.151,7.50473e-09,0,32768,32768
280.201,7.54316e-09,0,32768,32768
280.25,7.59111e-09,0,32768,32768
280.3,7.65381e-09,0,32768,32768
280.35,7.74052e-09,0,32768,32768
280.401,7.8672e-09,0,32768,32768
280.451,8.03653e-09,0,32768,32768
280.501,8.25424e-09,0,32768,32768
280.551,8.51484e-09,0,32768,32768
280.6,8.80899e-09,0,32768,32768
280.65,9.13143e-09,0,32768,32768
280.7,9.48764e-09,0,32768,32768
280.751,9.90784e-09,0,32768,32768
280.801,1.03927e-08,0,32768,32768
280.851,1.09776e-08,0,32768,32768
280.901,1.16828e-08,0,32768,32768
280.951,1.25265e-08,0,32768,32768
281,1.3528e-08,0,32768,32768
281.05,1.47093e-08,0,32768,32768
281.101,1.61374e-08,0,32768,32768
281.151,1.77504e-08,0,32768,32768
281.201,1.95986e-08,0,32768,32768
281.251,2.16889e-08,0,32768,32768
281.301,2.40261e-08,0,32768,32768
281.35,2.66143e-08,0,32768,32768
281.4,2.94555e-08,0,32768,32768
281.451,3.26386e-08,0,32768,32768
281.501,3.59636e-08,0,32768,32768
281.551,3.94879e-08,0,32768,32768
281.601,4.31751e-08,0,32768,32768
281.651,4.69916e-08,0,32768,32768
281.7,5.09117e-08,0,32768,32768
281.75,5.4918e-08,0,32768,32768
281.8,5.89948e-08,0,32768,32768
281.851,6.32508e-08,0,32768,32768
281.901,6.74447e-08,0,32768,32768
281.951,7.17413e-08,0,32768,32768
282.001,7.62497e-08,0,32768,32768
282.05,8.11382e-08,0,32768,32768
282.1,8.65875e-08,0,32768,32768
282.15,9.27136e-08,0,32768,32768
282.201,9.97069e-08,0,32768,32768
282.251,1.06991e-07,0,32768,32768
282.301,1.14482e-07,0,32768,32768
282.351,1.21916e-07,0,32768,32768
282.401,1.29155e-07,0,32768,32768
282.45,1.36268e-07,0,32768,32768
282.5,1.43533e-07,0,32768,32768
282.551,1.51624e-07,0,32768,32768
282.601,1.60581e-07,0,32768,32768
282.651,1.71099e-07,0,32768,32768
282.701,1.83616e-07,0,32768,32768
282.751,1.98555e-07,0,32768,32768
282.8,2.16365e-07,0,32768,32768
282.85,2.37529e-07,0,32768,32768
282.901,2.63305e-07,0,32768,32768
282.951,2.9257e-07,0,32768,32768
283.001,3.26115e-07,0,32768,32768
283.051,3.63769e-07,0,32768,32768
283.101,4.05103e-07,0,32768,32768
283.15,4.49521e-07,0,32768,32768
283.2,4.96361e-07,0,32768,32768
283.251,5.46378e-07,0,32768,32768
283.301,5.95922e-07,0,32768,32768
283.351,6.45421e-07,0,32768,32768
283.401,6.93594e-07,0,32768,32768
283.451,7.38875e-07,0,32768,32768
283.5,7.79567e-07,0,32768,32768
283.55,8.14105e-07,0,32768,32768
283.6,8.41324e-07,0,32768,32768
283.651,8.61095e-07,0,32768,32768
283.701,8.72327e-07,0,32768,32768
283.751,8.76233e-07,0,32768,32768
283.801,8.73589e-07,0,32768,32768
283.85,8.65171e-07,0,32768,32768
283.9,8.51551e-07,0,32768,32768
283.95,8.32996e-07,0,32768,32768
284.001,8.0871e-07,0,32768,32768
284.051,7.79853e-07,0,32768,32768
284.101,7.45561e-07,0,32768,32768
284.151,7.05755e-07,0,32768,32768
284.201,6.6068e-07,0,32768,32768
284.25,6.11003e-07,0,32768,32768
284.3,5.57808e-07,0,32768,32768
284.351,5.00844e-07,0,32768,32768
284.401,4.44924e-07,0,32768,32768
284.451,3.89876e-07,0,32768,32768
284.501,3.3687e-07,0,32768,32768
284.551,2.86717e-07,0,32768,32768
284.6,2.39863e-07,0,32768,32768
284.65,1.96463e-07,0,32768,32768
284.701,1.55377e-07,0,32768,32768
284.751,1.18894e-07,0,32768,32768
284.801,8.57814e-08,0,32768,32768
284.851,5.61047e-08,0,32768,32768
284.901,2.9945e-08,0,32768,32768
284.95,7.30085e-09,0,32768,32768
285,-1.19997e-08,0,32768,32768
285.05,-2.83154e-08,0,32768,32768
285.101,-4.24888e-08,0,32768,32768
285.151,-5.41668e-08,0,32768,32768
285.201,-6.40905e-08,0,32768,32768
285.251,-7.23828e-08,0,32768,32768
285.3,-7.90492e-08,0,32768,32768
285.35,-8.4095e-08,0,32768,32768
285.4,-8.76273e-08,0,32768,32768
285.451,-8.99353e-08,0,32768,32768
285.501,-9.1212e-08,0,32768,32768
285.551,-9.18285e-08,0,32768,32768
285.601,-9.19474e-08,0,32768,32768
285.651,-9.15731e-08,0,32768,32768
285.7,-9.05945e-08,0,32768,32768
285.75,-8.88775e-08,0,32768,32768
285.801,-8.6272e-08,0,32768,32768
285.851,-8.29839e-08,0,32768,32768
285.901,-7.91147e-08,0,32768,32768
285.951,-7.48845e-08,0,32768,32768
286.001,-7.0511e-08,0,32768,32768
286.05,-6.61718e-08,0,32768,32768
286.1,-6.19924e-08,0,32768,32768
286.151,-5.79404e-08,0,32768,32768
286.201,-5.42929e-08,0,32768,32768
286.251,-5.09489e-08,0,32768,32768
286.301,-4.79072e-08,0,32768,32768
286.351,-4.51531e-08,0,32768,32768
286.4,-4.2666e-08,0,32768,32768
286.45,-4.04261e-08,0,32768,32768
286.501,-3.83639e-08,0,32768,32768
286.551,-3.65887e-08,0,32768,32768
286.601,-3.50321e-08,0,32768,32768
286.651,-3.36877e-08,0,32768,32768
286.701,-3.25459e-08,0,32768,32768
286.75,-3.15943e-08,0,32768,32768
286.8,-3.0818e-08,0,32768,32768
286.85,-3.0201e-08,0,32768,32768
286.901,-2.97145e-08,0,32768,32768
286.951,-2.9369e-08,0,32768,32768
287.001,-2.91321e-08,0,32768,32768
287.051,-2.89879e-08,0,32768,32768
287.1,-2.89218e-08,0,32768,32768
287.15,-2.89207e-08,0,32768,32768
287.2,-2.89733e-08,0,32768,32768
287.251,-2.90732e-08,0,32768,32768
287.301,-2.92059e-08,0,32768,32768
287.351,-2.9366e-08,0,32768,32768
287.401,-2.95463e-08,0,32768,32768
287.451,-2.97402e-08,0,32768,32768
287.5,-2.9942e-08,0,32768,32768
287.55,-3.01467e-08,0,32768,32768
287.601,-3.03564e-08,0,32768,32768
287.651,-3.05561e-08,0,32768,32768
287.701,-3.07492e-08,0,32768,32768
287.751,-3.09334e-08,0,32768,32768
287.801,-3.1106e-08,0,32768,32768
287.85,-3.12644e-08,0,32768,32768
287.9,-3.14062e-08,0,32768,32768
287.951,-3.15323e-08,0,32768,32768
288.001,-3.1634e-08,0,32768,32768
288.051,-3.17142e-08,0,32768,32768
288.101,-3.17728e-08,0,32768,32768
288.151,-3.18103e-08,0,32768,32768
288.2,-3.18277e-08,0,32768,32768
288.25,-3.18261e-08,0,32768,32768
288.3,-3.18073e-08,0,32768,32768
288.351,-3.17714e-08,0,32768,32768
288.401,-3.17222e-08,0,32768,32768
288.451,-3.16605e-08,0,32768,32768
288.501,-3.15878e-08,0,32768,32768
288.55,-3.15055e-08,0,32768,32768
288.6,-3.14149e-08,0,32768,32768
288.65,-3.13171e-08,0,32768,32768
288.701,-3.12102e-08,0,32768,32768
288.751,-3.11012e-08,0,32768,32768
288.801,-3.09879e-08,0,32768,32768
288.851,-3.08709e-08,0,32768,32768
288.901,-3.07508e-08,0,32768,32768
288.95,-3.06282e-08,0,32768,32768
289,-3.05036e-08,0,32768,32768
289.051,-3.03738e-08,0,32768,32768
289.101,-3.02467e-08,0,32768,32768
289.151,-3.01188e-08,0,32768,32768
289.201,-2.99901e-08,0,32768,32768
289.251,-2.98602e-08,0,32768,32768
289.3,-2.97284e-08,0,32768,32768
289.35,-2.95937e-08,0,32768,32768
289.401,-2.94505e-08,0,32768,32768
289.451,-2.93051e-08,0,32768,32768
289.501,-2.91514e-08,0,32768,32768
289.551,-2.89868e-08,0,32768,32768
289.601,-2.88086e-08,0,32768,32768
289.65,-2.86137e-08,0,32768,32768
289.7,-2.83991e-08,0,32768,32768
289.751,-2.81543e-08,0,32768,32768
289.801,-2.78908e-08,0,32768,32768
289.851,-2.75997e-08,0,32768,32768
289.901,-2.72797e-08,0,32768,32768
289.951,-2.69301e-08,0,32768,32768
290,-2.65513e-08,0,32768,32768
290.05,-2.61448e-08,0,32768,32768
290.1,-2.57132e-08,0,32768,32768
290.151,-2.52471e-08,0,32768,32768
290.201,-2.47785e-08,0,32768,32768
290.251,-2.43007e-08,0,32768,32768
290.301,-2.38208e-08,0,32768,32768
290.35,-2.33463e-08,0,32768,32768
290.4,-2.28846e-08,0,32768,32768
290.45,-2.24426e-08,0,32768,32768
290.501,-2.20149e-08,0,32768,32768
290.551,-2.16317e-08,0,32768,32768
290.601,-2.12852e-08,0,32768,32768
290.651,-2.09792e-08,0,32768,32768
290.701,-2.07172e-08,0,32768,32768
290.75,-2.05018e-08,0,32768,32768
290.8,-2.03347e-08,0,32768,32768
290.851,-2.02141e-08,0,32768,32768
290.901,-2.01471e-08,0,32768,32768
290.951,-2.01281e-08,0,32768,32768
291.001,-2.01551e-08,0,32768,32768
291.051,-2.02248e-08,0,32768,32768
291.1,-2.03333e-08,0,32768,32768
291.15,-2.04757e-08,0,32768,32768
291.201,-2.06524e-08,0,32768,32768
291.251,-2.08476e-08,0,32768,32768
291.301,-2.10603e-08,0,32768,32768
291.351,-2.12848e-08,0,32768,32768
291.401,-2.15156e-08,0,32768,32768
291.45,-2.17471e-08,0,32768,32768
291.5,-2.1974e-08,0,32768,32768
291.55,-2.21913e-08,0,32768,32768
291.601,-2.24e-08,0,32768,32768
291.651,-2.25843e-08,0,32768,32768
291.701,-2.27472e-08,0,32768,32768
291.751,-2.28865e-08,0,32768,32768
291.8,-2.30007e-08,0,32768,32768
291.85,-2.30893e-08,0,32768,32768
291.9,-2.31525e-08,0,32768,32768
291.951,-2.31917e-08,0,32768,32768
292.001,-2.32059e-08,0,32768,32768
292.051,-2.31981e-08,0,32768,32768
292.101,-2.317e-08,0,32768,32768
292.151,-2.31237e-08,0,32768,32768
292.2,-2.30612e-08,0,32768,32768
292.25,-2.29842e-08,0,32768,32768
292.301,-2.28916e-08,0,32768,32768
292.351,-2.279e-08,0,32768,32768
292.401,-2.2678e-08,0,32768,32768
292.451,-2.25563e-08,0,32768,32768
292.501,-2.24257e-08,0,32768,32768
292.55,-2.2287e-08,0,32768,32768
292.6,-2.2141e-08,0,32768,32768
292.651,-2.19841e-08,0,32768,32768
292.701,-2.18263e-08,0,32768,32768
292.751,-2.16643e-08,0,32768,32768
292.801,-2.14994e-08,0,32768,32768
292.851,-2.13329e-08,0,32768,32768
292.9,-2.11663e-08,0,32768,32768
292.95,-2.10013e-08,0,32768,32768
293,-2.08394e-08,0,32768,32768
293.051,-2.06775e-08,0,32768,32768
293.101,-2.05261e-08,0,32768,32768
293.151,-2.03819e-08,0,32768,32768
293.201,-2.0246e-08,0,32768,32768
293.25,-2.01194e-08,0,32768,32768
293.3,-2.00032e-08,0,32768,32768
293.35,-1.98981e-08,0,32768,32768
293.401,-1.98016e-08,0,32768,32768
293.451,-1.97187e-08,0,32768,32768
293.501,-1.96453e-08,0,32768,32768
293.551,-1.95796e-08,0,32768,32768
293.601,-1.95194e-08,0,32768,32768
293.65,-1.94627e-08,0,32768,32768
293.7,-1.9408e-08,0,32768,32768
293.751,-1.93527e-08,0,32768,32768
293.801,-1.92997e-08,0,32768,32768
293.851,-1.92474e-08,0,32768,32768
293.901,-1.91961e-08,0,32768,32768
293.951,-1.9146e-08,0,32768,32768
294,-1.90969e-08,0,32768,32768
294.05,-1.90481e-08,0,32768,32768
294.101,-1.89972e-08,0,32768,32768
294.151,-1.89454e-08,0,32768,32768
294.201,-1.88899e-08,0,32768,32768
294.251,-1.88294e-08,0,32768,32768
294.301,-1.87631e-08,0,32768,32768
294.35,-1.86907e-08,0,32768,32768
294.4,-1.86126e-08,0,32768,32768
294.451,-1.85269e-08,0,32768,32768
294.501,-1.84395e-08,0,32768,32768
294.551,-1.83491e-08,0,32768,32768
294.601,-1.82565e-08,0,32768,32768
294.651,-1.8162e-08,0,32768,32768
294.7,-1.80661e-08,0,32768,32768
294.75,-1.79688e-08,0,32768,32768
294.8,-1.78702e-08,0,32768,32768
294.851,-1.77674e-08,0,32768,32768
294.901,-1.76666e-08,0,32768,32768
294.951,-1.7565e-08,0,32768,32768
295.001,-1.74626e-08,0,32768,32768
295.05,-1.73593e-08,0,32768,32768
295.1,-1.72548e-08,0,32768,32768
295.15,-1.71486e-08,0,32768,32768
295.201,-1.70368e-08,0,32768,32768
295.251,-1.69256e-08,0,32768,32768
295.301,-1.68114e-08,0,32768,32768
295.351,-1.66941e-08,0,32768,32768
295.401,-1.65735e-08,0,32768,32768
295.45,-1.64492e-08,0,32768,32768
295.5,-1.6321e-08,0,32768,32768
295.551,-1.61843e-08,0,32768,32768
295.601,-1.60465e-08,0,32768,32768
295.651,-1.59035e-08,0,32768,32768
295.701,-1.57553e-08,0,32768,32768
295.751,-1.56019e-08,0,32768,32768
295.8,-1.54435e-08,0,32768,32768
295.85,-1.52803e-08,0,32768,32768
295.901,-1.51072e-08,0,32768,32768
295.951,-1.49342e-08,0,32768,32768
296.001,-1.47562e-08,0,32768,32768
296.051,-1.45729e-08,0,32768,32768
296.101,-1.43841e-08,0,32768,32768
296.15,-1.41896e-08,0,32768,32768
296.2,-1.39891e-08,0,32768,32768
296.25,-1.37825e-08,0,32768,32768
296.301,-1.35633e-08,0,32768,32768
296.351,-1.3344e-08,0,32768,32768
296.401,-1.31184e-08,0,32768,32768
296.451,-1.28865e-08,0,32768,32768
296.5,-1.26479e-08,0,32768,32768
296.55,-1.24025e-08,0,32768,32768
296.6,-1.21495e-08,0,32768,32768
296.651,-1.18803e-08,0,32768,32768
296.701,-1.16091e-08,0,32768,32768
296.751,-1.13269e-08,0,32768,32768
296.801,-1.1032e-08,0,32768,32768
296.851,-1.07226e-08,0,32768,32768
296.9,-1.03964e-08,0,32768,32768
296.95,-1.00513e-08,0,32768,32768
297.001,-9.67387e-09,0,32768,32768
297.051,-9.28359e-09,0,32768,32768
297.101,-8.86804e-09,0,32768,32768
297.151,-8.42564e-09,0,32768,32768
297.201,-7.95522e-09,0,32768,32768
297.25,-7.45618e-09,0,32768,32768
297.3,-6.92854e-09,0,32768,32768
297.351,-6.3563e-09,0,32768,32768
297.401,-5.77374e-09,0,32768,32768
297.451,-5.16728e-09,0,32768,32768
297.501,-4.54007e-09,0,32768,32768
297.551,-3.89594e-09,0,32768,32768
297.6,-3.23931e-09,0,32768,32768
297.65,-2.57499e-09,0,32768,32768
297.701,-1.8884e-09,0,32768,32768
297.751,-1.22393e-09,0,32768,32768
297.801,-5.6693e-10,0,32768,32768
297.851,7.78881e-11,0,32768,32768
297.901,7.06062e-10,0,32768,32768
297.95,1.3134e-09,0,32768,32768
298,1.89596e-09,0,32768,32768
298.05,2.45004e-09,0,32768,32768
298.101,2.98706e-09,0,32768,32768
298.151,3.47311e-09,0,32768,32768
298.201,3.92128e-09,0,32768,32768
298.251,4.32928e-09,0,32768,32768
298.3,4.69545e-09,0,32768,32768
298.35,5.01877e-09,0,32768,32768
298.4,5.29895e-09,0,32768,32768
298.451,5.54277e-09,0,32768,32768
298.501,5.73745e-09,0,32768,32768
298.551,5.89229e-09,0,32768,32768
298.601,6.0095e-09,0,32768,32768
298.651,6.09161e-09,0,32768,32768
298.7,6.14141e-09,0,32768,32768
298.75,6.16184e-09,0,32768,32768
298.801,6.15534e-09,0,32768,32768
298.851,6.12538e-09,0,32768,32768
298.901,6.07509e-09,0,32768,32768
298.951,6.00736e-09,0,32768,32768
299.001,5.92493e-09,0,32768,32768
299.05,5.8304e-09,0,32768,32768
299.1,5.72616e-09,0,32768,32768
299.151,5.61104e-09,0,32768,32768
299.201,5.49364e-09,0,32768,32768
299.251,5.37253e-09,0,32768,32768
299.301,5.24924e-09,0,32768,32768
299.351,5.1251e-09,0,32768,32768
299.4,5.00124e-09,0,32768,32768
299.45,4.87867e-09,0,32768,32768
299.5,4.75828e-09,0,32768,32768
299.551,4.6375e-09,0,32768,32768
299.601,4.52406e-09,0,32768,32768
299.651,4.41529e-09,0,32768,32768
299.701,4.31198e-09,0,32768,32768
299.75,4.21492e-09,0,32768,32768
299.8,4.12481e-09,0,32768,32768
299.85,4.04222e-09,0,32768,32768
299.901,3.9655e-09,0,32768,32768
299.951,3.89923e-09,0,32768,32768
300.001,3.84111e-09,0,32768,32768
300.051,3.79088e-09,0,32768,32768
300.101,3.74809e-09,0,32768,32768
300.15,3.71205e-09,0,32768,32768
300.2,3.68189e-09,0,32768,32768
300.251,3.65592e-09,0,32768,32768
300.301,3.63445e-09,0,32768,32768
300.351,3.61552e-09,0,32768,32768
300.401,3.59793e-09,0,32768,32768
300.451,3.58052e-09,0,32768,32768
300.5,3.56221e-09,0,32768,32768
300.55,3.54198e-09,0,32768,32768
300.601,3.51826e-09,0,32768,32768
300.651,3.49174e-09,0,32768,32768
300.701,3.46145e-09,0,32768,32768
300.751,3.42738e-09,0,32768,32768
300.801,3.38985e-09,0,32768,32768
300.85,3.34951e-09,0,32768,32768
300.9,3.30723e-09,0,32768,32768
300.95,3.26395e-09,0,32768,32768
301.001,3.21924e-09,0,32768,32768
301.051,3.17635e-09,0,32768,32768
301.101,3.13441e-09,0,32768,32768
301.151,3.09359e-09,0,32768,32768
301.2,3.05388e-09,0,32768,32768
301.25,3.01524e-09,0,32768,32768
301.3,2.97766e-09,0,32768,32768
301.351,2.94026e-09,0,32768,32768
301.401,2.90555e-09,0,32768,32768
301.451,2.87299e-09,0,32768,32768
301.501,2.84319e-09,0,32768,32768
301.551,2.81678e-09,0,32768,32768
301.6,2.7942e-09,0,32768,32768
301.65,2.7757e-09,0,32768,32768
301.701,2.76086e-09,0,32768,32768
301.751,2.75017e-09,0,32768,32768
301.801,2.74262e-09,0,32768,32768
301.851,2.73752e-09,0,32768,32768
301.901,2.73417e-09,0,32768,32768
301.95,2.73192e-09,0,32768,32768
302,2.73019e-09,0,32768,32768
302.051,2.72847e-09,0,32768,32768
302.101,2.72648e-09,0,32768,32768
302.151,2.72388e-09,0,32768,32768
302.201,2.72043e-09,0,32768,32768
302.251,2.71591e-09,0,32768,32768
302.3,2.71018e-09,0,32768,32768
302.35,2.70317e-09,0,32768,32768
302.401,2.69459e-09,0,32768,32768
302.451,2.68498e-09,0,32768,32768
302.501,2.6742e-09,0,32768,32768
302.551,2.66234e-09,0,32768,32768
302.601,2.64949e-09,0,32768,32768
302.65,2.63572e-09,0,32768,32768
302.7,2.62109e-09,0,32768,32768
302.75,2.60567e-09,0,32768,32768
302.801,2.58906e-09,0,32768,32768
302.851,2.57233e-09,0,32768,32768
302.901,2.5551e-09,0,32768,32768
302.951,2.53745e-09,0,32768,32768
303,2.51942e-09,0,32768,32768
303.05,2.50102e-09,0,32768,32768
303.1,2.4822e-09,0,32768,32768
303.151,2.46231e-09,0,32768,32768
303.201,2.44244e-09,0,32768,32768
303.251,2.422e-09,0,32768,32768
303.301,2.40099e-09,0,32768,32768
303.351,2.37946e-09,0,32768,32768
303.4,2.35749e-09,0,32768,32768
303.45,2.33518e-09,0,32768,32768
303.501,2.31199e-09,0,32768,32768
303.551,2.28933e-09,0,32768,32768
303.601,2.26664e-09,0,32768,32768
303.651,2.244e-09,0,32768,32768
303.701,2.22148e-09,0,32768,32768
303.75,2.19911e-09,0,32768,32768
303.8,2.17694e-09,0,32768,32768
303.851,2.15435e-09,0,32768,32768
303.901,2.13267e-09,0,32768,32768
303.951,2.11127e-09,0,32768,32768
304.001,2.09015e-09,0,32768,32768
304.051,2.06935e-09,0,32768,32768
304.1,2.04886e-09,0,32768,32768
304.15,2.02869e-09,0,32768,32768
304.2,2.00883e-09,0,32768,32768
304.251,1.9887e-09,0,32768,32768
304.301,1.96944e-09,0,32768,32768
304.351,1.95042e-09,0,32768,32768
304.401,1.93162e-09,0,32768,32768
304.45,1.91301e-09,0,32768,32768
304.5,1.89452e-09,0,32768,32768
304.55,1.87611e-09,0,32768,32768
304.601,1.8572e-09,0,32768,32768
304.651,1.8388e-09,0,32768,32768
304.701,1.82032e-09,0,32768,32768
304.751,1.80171e-09,0,32768,32768
304.801,1.78292e-09,0,32768,32768
304.85,1.76388e-09,0,32768,32768
304.9,1.74456e-09,0,32768,32768
304.951,1.72434e-09,0,32768,32768
