250,0,0,2048,2048
250.006,0,0,2048,2048
250.053,0,0,2048,2048
250.105,0,0,2048,2048
250.152,0,0,2048,2048
250.205,0,0,2048,2048
250.252,0,0,2048,2048
250.305,0,0,2048,2048
250.352,0,0,2048,2048
250.404,0,0,2048,2048
250.451,0,0,2048,2048
250.504,0,0,2048,2048
250.551,0,0,2048,2048
250.603,0,0,2048,2048
250.65,0,0,2048,2048
250.703,0,0,2048,2048
250.756,0,0,2048,2048
250.803,0,0,2048,2048
250.855,0,0,2048,2048
250.902,0,0,2048,2048
250.955,0,0,2048,2048
251.002,0,0,2048,2048
251.055,0,0,2048,2048
251.101,0,0,2048,2048
251.154,0,0,2048,2048
251.201,0,0,2048,2048
251.254,0,0,2048,2048
251.301,0,0,2048,2048
251.353,0,0,2048,2048
251.4,0,0,2048,2048
251.453,0,0,2048,2048
251.506,0,0,2048,2048
251.553,0,0,2048,2048
251.605,0,0,2048,2048
251.652,0,0,2048,2048
251.705,0,0,2048,2048
251.752,0,0,2048,2048
251.804,0,0,2048,2048
251.851,0,0,2048,2048
251.904,0,0,2048,2048
251.951,0,0,2048,2048
252.004,0,0,2048,2048
252.05,0,0,2048,2048
252.103,0,0,2048,2048
252.15,0,0,2048,2048
252.203,0,0,2048,2048
252.256,0,0,2048,2048
252.302,0,0,2048,2048
252.355,0,0,2048,2048
252.402,0,0,2048,2048
252.455,0,0,2048,2048
252.502,0,0,2048,2048
252.554,0,0,2048,2048
252.601,0,0,2048,2048
252.654,0,0,2048,2048
252.701,0,0,2048,2048
252.754,0,0,2048,2048
252.8,0,0,2048,2048
252.853,0,0,2048,2048
252.906,0,0,2048,2048
252.953,0,0,2048,2048
253.005,0,0,2048,2048
253.052,0,0,2048,2048
253.105,0,0,2048,2048
253.152,0,0,2048,2048
253.205,0,0,2048,2048
253.251,0,0,2048,2048
253.304,0,0,2048,2048
253.351,0,0,2048,2048
253.404,0,0,2048,2048
253.451,0,0,2048,2048
253.503,0,0,2048,2048
253.55,0,0,2048,2048
253.603,0,0,2048,2048
253.656,0,0,2048,2048
253.703,0,0,2048,2048
253.755,0,0,2048,2048
253.802,0,0,2048,2048
253.855,0,0,2048,2048
253.902,0,0,2048,2048
253.954,0,0,2048,2048
254.001,0,0,2048,2048
254.054,0,0,2048,2048
254.101,0,0,2048,2048
254.154,0,0,2048,2048
254.201,0,0,2048,2048
254.253,0,0,2048,2048
254.3,0,0,2048,2048
254.353,0,0,2048,2048
254.406,0,0,2048,2048
254.452,0,0,2048,2048
254.505,0,0,2048,2048
254.552,0,0,2048,2048
254.605,0,0,2048,2048
254.652,0,0,2048,2048
254.704,0,0,2048,2048
254.751,0,0,2048,2048
254.804,0,0,2048,2048
254.851,0,0,2048,2048
254.904,0,0,2048,2048
254.95,0,0,2048,2048
255.003,0,0,2048,2048
255.05,0,0,2048,2048
255.103,0,0,2048,2048
255.155,0,0,2048,2048
255.202,0,0,2048,2048
255.255,0,0,2048,2048
255.302,0,0,2048,2048
255.355,0,0,2048,2048
255.402,0,0,2048,2048
255.454,0,0,2048,2048
255.501,0,0,2048,2048
255.554,0,0,2048,2048
255.601,0,0,2048,2048
255.653,0,0,2048,2048
255.7,0,0,2048,2048
255.753,0,0,2048,2048
255.806,0,0,2048,2048
255.853,0,0,2048,2048
255.905,0,0,2048,2048
255.952,0,0,2048,2048
256.005,0,0,2048,2048
256.052,0,0,2048,2048
256.105,0,0,2048,2048
256.151,0,0,2048,2048
256.204,0,0,2048,2048
256.251,0,0,2048,2048
256.304,0,0,2048,2048
256.351,0,0,2048,2048
256.403,0,0,2048,2048
256.45,0,0,2048,2048
256.503,0,0,2048,2048
256.556,0,0,2048,2048
256.603,0,0,2048,2048
256.655,0,0,2048,2048
256.702,0,0,2048,2048
256.755,0,0,2048,2048
256.802,0,0,2048,2048
256.854,-1.38778e-17,0,2048,2048
256.901,-1.38778e-17,0,2048,2048
256.954,-1.38778e-17,0,2048,2048
257.001,0,0,2048,2048
257.054,0,0,2048,2048
257.101,0,0,2048,2048
257.153,0,0,2048,2048
257.2,0,0,2048,2048
257.253,0,0,2048,2048
257.306,0,0,2048,2048
257.352,0,0,2048,2048
257.405,0,0,2048,2048
257.452,0,0,2048,2048
257.505,0,0,2048,2048
257.552,0,0,2048,2048
257.604,0,0,2048,2048
257.651,0,0,2048,2048
257.704,0,0,2048,2048
257.751,0,0,2048,2048
257.804,0,0,2048,2048
257.85,0,0,2048,2048
257.903,0,0,2048,2048
257.95,0,0,2048,2048
258.003,0,0,2048,2048
258.055,0,0,2048,2048
258.102,0,0,2048,2048
258.155,-1.38778e-17,0,2048,2048
258.202,-1.38778e-17,0,2048,2048
258.255,-1.38778e-17,0,2048,2048
258.302,-1.38778e-17,0,2048,2048
258.354,-1.38778e-17,0,2048,2048
258.401,-1.38778e-17,0,2048,2048
258.454,-1.38778e-17,0,2048,2048
258.501,-1.38778e-17,0,2048,2048
258.553,-1.38778e-17,0,2048,2048
258.6,-1.38778e-17,0,2048,2048
258.653,-1.38778e-17,0,2048,2048
258.706,-1.38778e-17,0,2048,2048
258.753,-1.38778e-17,0,2048,2048
258.805,-1.38778e-17,0,2048,2048
258.852,-1.38778e-17,0,2048,2048
258.905,-1.38778e-17,0,2048,2048
258.952,-1.38778e-17,0,2048,2048
259.005,-1.38778e-17,0,2048,2048
259.051,-2.77556e-17,0,2048,2048
259.104,-2.77556e-17,0,2048,2048
259.151,-2.77556e-17,0,2048,2048
259.204,-2.77556e-17,0,2048,2048
259.251,-2.77556e-17,0,2048,2048
259.303,-2.77556e-17,0,2048,2048
259.35,-2.77556e-17,0,2048,2048
259.403,-2.77556e-17,0,2048,2048
259.456,-2.77556e-17,0,2048,2048
259.503,-2.77556e-17,0,2048,2048
259.555,-2.77556e-17,0,2048,2048
259.602,-2.77556e-17,0,2048,2048
259.655,-2.77556e-17,0,2048,2048
259.702,-1.38778e-17,0,2048,2048
259.754,-1.38778e-17,0,2048,2048
259.801,-1.38778e-17,0,2048,2048
259.854,-1.38778e-17,0,2048,2048
259.901,-1.38778e-17,0,2048,2048
259.954,-1.38778e-17,0,2048,2048
260,-1.38778e-17,0,2048,2048
260.053,-1.38778e-17,0,2048,2048
260.1,-1.38778e-17,0,2048,2048
260.153,-1.38778e-17,0,2048,2048
260.206,-1.38778e-17,0,2048,2048
260.252,-1.38778e-17,0,2048,2048
260.305,-1.38778e-17,0,2048,2048
260.352,-1.38778e-17,0,2048,2048
260.405,-1.38778e-17,0,2048,2048
260.452,-1.38778e-17,0,2048,2048
260.504,-1.38778e-17,0,2048,2048
260.551,-1.38778e-17,0,2048,2048
260.604,-1.38778e-17,0,2048,2048
260.651,-1.38778e-17,0,2048,2048
260.704,-1.38778e-17,0,2048,2048
260.75,-1.38778e-17,0,2048,2048
260.803,-1.38778e-17,0,2048,2048
260.856,-1.38778e-17,0,2048,2048
260.903,-1.38778e-17,0,2048,2048
260.955,-1.38778e-17,0,2048,2048
261.002,-1.38778e-17,0,2048,2048
261.055,-1.38778e-17,0,2048,2048
261.102,-1.38778e-17,0,2048,2048
261.155,-1.38778e-17,0,2048,2048
261.201,-1.38778e-17,0,2048,2048
261.254,-1.38778e-17,0,2048,2048
261.301,-1.38778e-17,0,2048,2048
261.354,-1.38778e-17,0,2048,2048
261.401,-1.38778e-17,0,2048,2048
261.453,0,0,2048,2048
261.5,0,0,2048,2048
261.553,0,0,2048,2048
261.606,0,0,2048,2048
261.653,0,0,2048,2048
261.705,0,0,2048,2048
261.752,0,0,2048,2048
261.805,0,0,2048,2048
261.852,0,0,2048,2048
261.905,0,0,2048,2048
261.951,0,0,2048,2048
262.004,0,0,2048,2048
262.051,0,0,2048,2048
262.104,0,0,2048,2048
262.151,-1.38778e-17,0,2048,2048
262.203,-1.38778e-17,0,2048,2048
262.25,-1.38778e-17,0,2048,2048
262.303,-1.38778e-17,0,2048,2048
262.356,-1.38778e-17,0,2048,2048
262.402,-1.38778e-17,0,2048,2048
262.455,-1.38778e-17,0,2048,2048
262.502,-1.38778e-17,0,2048,2048
262.555,-1.38778e-17,0,2048,2048
262.602,-1.38778e-17,0,2048,2048
262.654,-1.38778e-17,0,2048,2048
262.701,-1.38778e-17,0,2048,2048
262.754,-1.38778e-17,0,2048,2048
262.801,-1.38778e-17,0,2048,2048
262.854,-1.38778e-17,0,2048,2048
262.9,-1.38778e-17,0,2048,2048
262.953,-1.38778e-17,0,2048,2048
263,-1.38778e-17,0,2048,2048
263.053,-1.38778e-17,0,2048,2048
263.105,-2.77556e-17,0,2048,2048
263.152,-2.77556e-17,0,2048,2048
263.205,-2.77556e-17,0,2048,2048
263.252,-2.77556e-17,0,2048,2048
263.305,-2.77556e-17,0,2048,2048
263.352,-2.77556e-17,0,2048,2048
263.404,-2.77556e-17,0,2048,2048
263.451,-2.77556e-17,0,2048,2048
263.504,-2.77556e-17,0,2048,2048
263.551,-2.77556e-17,0,2048,2048
263.603,-2.77556e-17,0,2048,2048
263.65,-2.77556e-17,0,2048,2048
263.703,-2.77556e-17,0,2048,2048
263.756,-2.77556e-17,0,2048,2048
263.803,-2.77556e-17,0,2048,2048
263.855,-2.77556e-17,0,2048,2048
263.902,-2.77556e-17,0,2048,2048
263.955,-2.77556e-17,0,2048,2048
264.002,-2.77556e-17,0,2048,2048
264.055,-2.77556e-17,0,2048,2048
264.101,-2.77556e-17,0,2048,2048
264.154,-2.77556e-17,0,2048,2048
264.201,-2.77556e-17,0,2048,2048
264.254,-2.77556e-17,0,2048,2048
264.301,-2.77556e-17,0,2048,2048
264.353,-2.77556e-17,0,2048,2048
264.4,-2.77556e-17,0,2048,2048
264.453,-2.77556e-17,0,2048,2048
264.506,-2.77556e-17,0,2048,2048
264.553,-2.77556e-17,0,2048,2048
264.605,-2.77556e-17,0,2048,2048
264.652,-2.77556e-17,0,2048,2048
264.705,-2.77556e-17,0,2048,2048
264.752,-2.77556e-17,0,2048,2048
264.804,-2.77556e-17,0,2048,2048
264.851,-2.77556e-17,0,2048,2048
264.904,-2.77556e-17,0,2048,2048
264.951,-2.77556e-17,0,2048,2048
265.004,-2.77556e-17,0,2048,2048
265.051,-2.77556e-17,0,2048,2048
265.103,-2.77556e-17,0,2048,2048
265.15,-2.77556e-17,0,2048,2048
265.203,-2.77556e-17,0,2048,2048
265.256,-2.77556e-17,0,2048,2048
265.302,-2.77556e-17,0,2048,2048
265.355,-2.77556e-17,0,2048,2048
265.402,-2.77556e-17,0,2048,2048
265.455,-2.77556e-17,0,2048,2048
265.502,-2.77556e-17,0,2048,2048
265.554,-2.77556e-17,0,2048,2048
265.601,-2.77556e-17,0,2048,2048
265.654,-2.77556e-17,0,2048,2048
265.701,-2.77556e-17,0,2048,2048
265.754,-2.77556e-17,0,2048,2048
265.8,-2.77556e-17,0,2048,2048
265.853,-2.77556e-17,0,2048,2048
265.9,-2.77556e-17,0,2048,2048
265.953,-2.77556e-17,0,2048,2048
266.005,-2.77556e-17,0,2048,2048
266.052,-2.77556e-17,0,2048,2048
266.105,-2.77556e-17,0,2048,2048
266.152,-2.77556e-17,0,2048,2048
266.205,-2.77556e-17,0,2048,2048
266.252,-2.77556e-17,0,2048,2048
266.304,-2.77556e-17,0,2048,2048
266.351,-2.77556e-17,0,2048,2048
266.404,-2.77556e-17,0,2048,2048
266.451,-2.77556e-17,0,2048,2048
266.503,-2.77556e-17,0,2048,2048
266.55,-2.77556e-17,0,2048,2048
266.603,-2.77556e-17,0,2048,2048
266.656,-2.77556e-17,0,2048,2048
266.703,-2.77556e-17,0,2048,2048
266.755,-2.77556e-17,0,2048,2048
266.802,-2.77556e-17,0,2048,2048
266.855,-2.77556e-17,0,2048,2048
266.902,-2.77556e-17,0,2048,2048
266.955,-2.77556e-17,0,2048,2048
267.001,-2.77556e-17,0,2048,2048
267.054,-2.77556e-17,0,2048,2048
267.101,-2.77556e-17,0,2048,2048
267.154,-2.77556e-17,0,2048,2048
267.201,-1.38778e-17,0,2048,2048
267.253,-1.38778e-17,0,2048,2048
267.3,-1.38778e-17,0,2048,2048
267.353,-1.38778e-17,0,2048,2048
267.406,-1.38778e-17,0,2048,2048
267.453,-1.38778e-17,0,2048,2048
267.505,-1.38778e-17,0,2048,2048
267.552,-1.38778e-17,0,2048,2048
267.605,-1.38778e-17,0,2048,2048
267.652,-1.38778e-17,0,2048,2048
267.704,-1.38778e-17,0,2048,2048
267.751,-1.38778e-17,0,2048,2048
267.804,-1.38778e-17,0,2048,2048
267.851,-1.38778e-17,0,2048,2048
267.904,-1.38778e-17,0,2048,2048
267.95,-1.38778e-17,0,2048,2048
268.003,-2.77556e-17,0,2048,2048
268.05,-2.77556e-17,0,2048,2048
268.103,-2.77556e-17,0,2048,2048
268.156,-2.77556e-17,0,2048,2048
268.202,-2.77556e-17,0,2048,2048
268.255,-2.77556e-17,0,2048,2048
268.302,-2.77556e-17,0,2048,2048
268.355,-2.77556e-17,0,2048,2048
268.402,-2.77556e-17,0,2048,2048
268.454,-2.77556e-17,0,2048,2048
268.501,-2.77556e-17,0,2048,2048
268.554,-2.77556e-17,0,2048,2048
268.601,-2.77556e-17,0,2048,2048
268.654,-2.77556e-17,0,2048,2048
268.7,-2.77556e-17,0,2048,2048
268.753,-2.77556e-17,0,2048,2048
268.806,-2.77556e-17,0,2048,2048
268.853,-2.77556e-17,0,2048,2048
268.905,-2.77556e-17,0,2048,2048
268.952,-2.77556e-17,0,2048,2048
269.005,-2.77556e-17,0,2048,2048
269.052,-2.77556e-17,0,2048,2048
269.105,-2.77556e-17,0,2048,2048
269.151,-2.77556e-17,0,2048,2048
269.204,-2.77556e-17,0,2048,2048
269.251,-2.77556e-17,0,2048,2048
269.304,-2.77556e-17,0,2048,2048
269.351,-2.77556e-17,0,2048,2048
269.403,-1.38778e-17,0,2048,2048
269.45,-1.38778e-17,0,2048,2048
269.503,-1.38778e-17,0,2048,2048
269.556,-1.38778e-17,0,2048,2048
269.603,-1.38778e-17,0,2048,2048
269.655,-1.38778e-17,0,2048,2048
269.702,-1.38778e-17,0,2048,2048
269.755,-1.38778e-17,0,2048,2048
269.802,-1.38778e-17,0,2048,2048
269.855,-1.38778e-17,0,2048,2048
269.901,-1.38778e-17,0,2048,2048
269.954,-1.38778e-17,0,2048,2048
270.001,-1.38778e-17,0,2048,2048
270.054,-1.38778e-17,0,2048,2048
270.101,-1.38778e-17,0,2048,2048
270.153,-1.38778e-17,0,2048,2048
270.2,-1.38778e-17,0,2048,2048
270.253,-1.38778e-17,0,2048,2048
270.306,-1.38778e-17,0,2048,2048
270.352,-1.38778e-17,0,2048,2048
270.405,-1.38778e-17,0,2048,2048
270.452,-1.38778e-17,0,2048,2048
270.505,-1.38778e-17,0,2048,2048
270.552,-1.38778e-17,0,2048,2048
270.604,-1.38778e-17,0,2048,2048
270.651,-1.38778e-17,0,2048,2048
270.704,-1.38778e-17,0,2048,2048
270.751,-1.38778e-17,0,2048,2048
270.804,-1.38778e-17,0,2048,2048
270.85,-1.38778e-17,0,2048,2048
270.903,-1.38778e-17,0,2048,2048
270.95,-1.38778e-17,0,2048,2048
271.003,-1.38778e-17,0,2048,2048
271.056,-1.38778e-17,0,2048,2048
271.102,-1.38778e-17,0,2048,2048
271.155,-1.38778e-17,0,2048,2048
271.202,-1.38778e-17,0,2048,2048
271.255,0,0,2048,2048
271.302,0,0,2048,2048
271.354,0,0,2048,2048
271.401,0,0,2048,2048
271.454,0,0,2048,2048
271.501,0,0,2048,2048
271.553,0,0,2048,2048
271.6,0,0,2048,2048
271.653,0,0,2048,2048
271.706,0,0,2048,2048
271.753,0,0,2048,2048
271.805,0,0,2048,2048
271.852,0,0,2048,2048
271.905,0,0,2048,2048
271.952,0,0,2048,2048
272.005,1.38778e-17,0,2048,2048
272.051,1.38778e-17,0,2048,2048
272.104,1.38778e-17,0,2048,2048
272.151,1.38778e-17,0,2048,2048
272.204,1.38778e-17,0,2048,2048
272.251,1.38778e-17,0,2048,2048
272.303,1.38778e-17,0,2048,2048
272.35,2.77556e-17,0,2048,2048
272.403,2.77556e-17,0,2048,2048
272.456,2.77556e-17,0,2048,2048
272.503,2.77556e-17,0,2048,2048
272.555,2.77556e-17,0,2048,2048
272.602,2.77556e-17,0,2048,2048
272.655,2.77556e-17,0,2048,2048
272.702,2.77556e-17,0,2048,2048
272.754,2.77556e-17,0,2048,2048
272.801,2.77556e-17,0,2048,2048
272.854,2.77556e-17,0,2048,2048
272.901,2.77556e-17,0,2048,2048
272.954,2.77556e-17,0,2048,2048
273.001,2.77556e-17,0,2048,2048
273.053,2.77556e-17,0,2048,2048
273.1,2.77556e-17,0,2048,2048
273.153,2.77556e-17,0,2048,2048
273.206,2.77556e-17,0,2048,2048
273.252,2.77556e-17,0,2048,2048
273.305,2.77556e-17,0,2048,2048
273.352,2.77556e-17,0,2048,2048
273.405,2.77556e-17,0,2048,2048
273.452,2.77556e-17,0,2048,2048
273.504,2.77556e-17,0,2048,2048
273.551,2.77556e-17,0,2048,2048
273.604,2.77556e-17,0,2048,2048
273.651,2.77556e-17,0,2048,2048
273.704,2.77556e-17,0,2048,2048
273.75,2.77556e-17,0,2048,2048
273.803,2.77556e-17,0,2048,2048
273.856,2.77556e-17,0,2048,2048
273.903,2.77556e-17,0,2048,2048
273.955,2.77556e-17,0,2048,2048
274.002,2.77556e-17,0,2048,2048
274.055,2.77556e-17,0,2048,2048
274.102,2.77556e-17,0,2048,2048
274.155,4.16334e-17,0,2048,2048
274.202,4.16334e-17,0,2048,2048
274.254,4.16334e-17,0,2048,2048
274.301,4.16334e-17,0,2048,2048
274.354,4.16334e-17,0,2048,2048
274.401,4.16334e-17,0,2048,2048
274.453,4.16334e-17,0,2048,2048
274.5,4.16334e-17,0,2048,2048
274.553,4.16334e-17,0,2048,2048
274.606,4.16334e-17,0,2048,2048
274.653,4.16334e-17,0,2048,2048
274.705,4.16334e-17,0,2048,2048
274.752,4.16334e-17,0,2048,2048
274.805,4.16334e-17,0,2048,2048
274.852,4.16334e-17,0,2048,2048
274.905,4.16334e-17,0,2048,2048
274.951,4.16334e-17,0,2048,2048
275.004,4.16334e-17,0,2048,2048
275.051,4.16334e-17,0,2048,2048
275.104,4.16334e-17,0,2048,2048
275.151,-1.38778e-17,0,2048,2048
275.203,-1.94289e-16,0,2048,2048
275.25,-8.88178e-16,0,2048,2048
275.303,-3.78864e-15,0,2048,2048
275.356,-1.41831e-14,0,2048,2048
275.403,-4.1786e-14,0,2048,2048
275.455,-1.28064e-13,0,2048,2048
275.502,-3.19411e-13,0,2048,2048
275.555,-8.17818e-13,0,2048,2048
275.602,-1.74914e-12,0,2048,2048
275.654,-3.78983e-12,0,2048,2048
275.701,-7.02008e-12,0,2048,2048
275.754,-1.29973e-11,0,2048,2048
275.801,-2.1008e-11,0,2048,2048
275.854,-3.3475e-11,0,2048,2048
275.9,-4.74598e-11,0,2048,2048
275.953,-6.53771e-11,0,2048,2048
276,-8.15076e-11,0,2048,2048
276.053,-9.71361e-11,0,2048,2048
276.106,-1.07008e-10,0,2048,2048
276.152,-1.08839e-10,0,2048,2048
276.205,-1.01929e-10,0,2048,2048
276.252,-8.81031e-11,0,2048,2048
276.305,-6.56295e-11,0,2048,2048
276.352,-4.17471e-11,0,2048,2048
276.404,-1.33531e-11,0,2048,2048
276.451,1.10825e-11,0,2048,2048
276.504,3.58378e-11,0,2048,2048
276.551,5.451e-11,0,2048,2048
276.604,7.13609e-11,0,2048,2048
276.65,8.26703e-11,0,2048,2048
276.703,9.15106e-11,0,2048,2048
276.756,9.65529e-11,0,2048,2048
276.803,9.80681e-11,0,2048,2048
276.855,9.66276e-11,0,2048,2048
276.902,9.27408e-11,0,2048,2048
276.955,8.58457e-11,0,2048,2048
277.002,7.81264e-11,0,2048,2048
277.055,6.88582e-11,0,2048,2048
277.101,6.14593e-11,0,2048,2048
277.154,5.5849e-11,0,2048,2048
277.201,5.47218e-11,0,2048,2048
277.254,5.92587e-11,0,2048,2048
277.301,6.96273e-11,0,2048,2048
277.353,9.03927e-11,0,2048,2048
277.4,1.20379e-10,0,2048,2048
277.453,1.75707e-10,0,2048,2048
277.506,2.7209e-10,0,2048,2048
277.553,4.18854e-10,0,2048,2048
277.605,7e-10,0,2048,2048
277.652,1.10958e-09,0,2048,2048
277.705,1.83288e-09,0,2048,2048
277.752,2.78831e-09,0,2048,2048
277.804,4.30547e-09,0,2048,2048
277.851,6.11222e-09,0,2048,2048
277.904,8.71136e-09,0,2048,2048
277.951,1.15452e-08,0,2048,2048
278.004,1.5325e-08,0,2048,2048
278.051,1.92104e-08,0,2048,2048
278.103,2.41938e-08,0,2048,2048
278.15,2.92253e-08,0,2048,2048
278.203,3.56981e-08,0,2048,2048
278.256,4.32632e-08,0,2048,2048
278.302,5.11742e-08,0,2048,2048
278.355,6.17931e-08,0,2048,2048
278.402,7.31447e-08,0,2048,2048
278.455,8.85647e-08,0,2048,2048
278.502,1.05074e-07,0,2048,2048
278.554,1.27322e-07,0,2048,2048
278.601,1.50784e-07,0,2048,2048
278.654,1.81752e-07,0,2048,2048
278.701,2.13623e-07,0,2048,2048
278.754,2.54564e-07,0,2048,2048
278.8,2.95512e-07,0,2048,2048
278.853,3.46575e-07,0,2048,2048
278.9,3.96127e-07,0,2048,2048
278.953,4.56035e-07,0,2048,2048
279.005,5.19569e-07,0,2048,2048
279.052,5.78257e-07,0,2048,2048
279.105,6.45662e-07,0,2048,2048
279.152,7.05749e-07,0,2048,2048
279.205,7.72263e-07,0,2048,2048
279.252,8.29367e-07,0,2048,2048
279.304,8.90252e-07,0,2048,2048
279.351,9.40653e-07,0,2048,2048
279.404,9.92601e-07,0,2048,2048
279.451,1.03433e-06,0,2048,2048
279.503,1.07627e-06,0,2048,2048
279.55,1.1093e-06,0,2054,2054
279.603,1.14203e-06,0,2054,2054
279.656,1.17051e-06,0,2058,2058
279.703,1.19257e-06,0,2058,2058
279.755,1.21403e-06,0,2058,2058
279.802,1.23032e-06,0,2058,2058
279.855,1.24566e-06,0,2058,2058
279.902,1.25672e-06,0,2058,2058
279.955,1.26622e-06,0,2058,2058
280.001,1.27188e-06,0,2058,2058
280.054,1.27524e-06,0,2058,2058
280.101,1.2762e-06,0,2048,2048
280.154,1.27563e-06,0,2048,2048
280.201,1.27373e-06,0,2048,2048
280.253,1.26982e-06,0,2048,2048
280.3,1.26444e-06,0,2048,2048
280.353,1.25585e-06,0,2048,2048
280.406,1.24415e-06,0,2048,2048
280.453,1.23084e-06,0,2048,2048
280.505,1.21234e-06,0,2048,2048
280.552,1.19256e-06,0,2048,2048
280.605,1.16634e-06,0,2048,2048
280.652,1.13934e-06,0,2048,2048
280.704,1.10481e-06,0,2048,2048
280.751,1.07052e-06,0,2050,2050
280.804,1.02801e-06,0,2050,2050
280.851,9.86838e-07,0,2050,2050
280.904,9.36853e-07,0,2050,2050
280.951,8.89334e-07,0,2050,2050
281.003,8.32702e-07,0,2050,2050
281.05,7.79897e-07,0,2050,2050
281.103,7.18278e-07,0,2050,2050
281.156,6.55164e-07,0,2050,2050
281.202,5.98687e-07,0,2050,2050
281.255,5.35504e-07,0,2050,2050
281.302,4.80025e-07,0,2050,2050
281.355,4.18833e-07,0,2050,2050
281.402,3.66094e-07,0,2050,2050
281.454,3.09378e-07,0,2050,2050
281.501,2.61861e-07,0,2050,2050
281.554,2.12168e-07,0,2050,2050
281.601,1.71617e-07,0,2048,2048
281.654,1.30232e-07,0,2048,2048
281.7,9.72305e-08,0,2048,2048
281.753,6.42729e-08,0,2048,2048
281.8,3.8534e-08,0,2048,2048
281.853,1.33418e-08,0,2048,2048
281.905,-8.15812e-09,0,2048,2048
281.952,-2.44365e-08,0,2048,2048
282.005,-3.98888e-08,0,2048,2048
282.052,-5.13641e-08,0,2048,2048
282.105,-6.1991e-08,0,2048,2048
282.152,-6.95595e-08,0,2048,2048
282.204,-7.61378e-08,0,2048,2048
282.251,-8.0449e-08,0,2048,2048
282.304,-8.38032e-08,0,2048,2048
282.351,-8.56372e-08,0,2048,2048
282.403,-8.65892e-08,0,2048,2048
282.45,-8.65729e-08,0,2048,2048
282.503,-8.57047e-08,0,2048,2048
282.556,-8.40441e-08,0,2048,2048
282.603,-8.19837e-08,0,2048,2048
282.655,-7.90954e-08,0,2048,2048
282.702,-7.6097e-08,0,2048,2048
282.755,-7.23328e-08,0,2048,2048
282.802,-6.87238e-08,0,2048,2048
282.855,-6.44696e-08,0,2048,2048
282.901,-6.06016e-08,0,2048,2048
282.954,-5.62478e-08,0,2048,2048
283.001,-5.24482e-08,0,2048,2048
283.054,-4.83242e-08,0,2048,2048
283.101,-4.48403e-08,0,2048,2048
283.153,-4.11662e-08,0,2048,2048
283.2,-3.81409e-08,0,2048,2048
283.253,-3.50223e-08,0,2048,2048
283.306,-3.22101e-08,0,2048,2048
283.353,-2.99654e-08,0,2048,2048
283.405,-2.77192e-08,0,2048,2048
283.452,-2.59615e-08,0,2048,2048
283.505,-2.42395e-08,0,2048,2048
283.552,-2.29233e-08,0,2048,2048
283.604,-2.16682e-08,0,2048,2048
283.651,-2.07388e-08,0,2048,2048
283.704,-1.98853e-08,0,2048,2048
283.751,-1.92825e-08,0,2048,2048
283.804,-1.87617e-08,0,2048,2048
283.85,-1.84236e-08,0,2048,2048
283.903,-1.81667e-08,0,2048,2048
283.95,-1.8034e-08,0,2048,2048
284.003,-1.79769e-08,0,2048,2048
284.056,-1.80024e-08,0,2048,2048
284.102,-1.80826e-08,0,2048,2048
284.155,-1.82256e-08,0,2048,2048
284.202,-1.83907e-08,0,2048,2048
284.255,-1.86093e-08,0,2048,2048
284.302,-1.88257e-08,0,2048,2048
284.354,-1.90866e-08,0,2048,2048
284.401,-1.93284e-08,0,2048,2048
284.454,-1.96061e-08,0,2048,2048
284.501,-1.98537e-08,0,2048,2048
284.554,-2.01292e-08,0,2048,2048
284.6,-2.03683e-08,0,2048,2048
284.653,-2.06281e-08,0,2048,2048
284.706,-2.08756e-08,0,2048,2048
284.753,-2.10836e-08,0,2048,2048
284.805,-2.1303e-08,0,2048,2048
284.852,-2.14842e-08,0,2048,2048
284.905,-2.16719e-08,0,2048,2048
284.952,-2.18244e-08,0,2048,2048
285.005,-2.19802e-08,0,2048,2048
285.051,-2.21051e-08,0,2048,2048
285.104,-2.22314e-08,0,2048,2048
285.151,-2.23321e-08,0,2048,2048
285.204,-2.24336e-08,0,2048,2048
285.251,-2.25149e-08,0,2048,2048
285.303,-2.25979e-08,0,2048,2048
285.35,-2.26658e-08,0,2048,2048
285.403,-2.27376e-08,0,2048,2048
285.456,-2.28064e-08,0,2048,2048
285.503,-2.28671e-08,0,2048,2048
285.555,-2.29368e-08,0,2048,2048
285.602,-2.30018e-08,0,2048,2048
285.655,-2.30808e-08,0,2048,2048
285.702,-2.3158e-08,0,2048,2048
285.755,-2.32552e-08,0,2048,2048
285.801,-2.33527e-08,0,2048,2048
285.854,-2.34775e-08,0,2048,2048
285.901,-2.36039e-08,0,2048,2048
285.954,-2.3766e-08,0,2048,2048
286.001,-2.393e-08,0,2048,2048
286.053,-2.4139e-08,0,2048,2048
286.1,-2.43486e-08,0,2048,2048
286.153,-2.46134e-08,0,2048,2048
286.206,-2.49106e-08,0,2048,2048
286.252,-2.52035e-08,0,2048,2048
286.305,-2.55665e-08,0,2048,2048
286.352,-2.59196e-08,0,2048,2048
286.405,-2.63515e-08,0,2048,2048
286.452,-2.67662e-08,0,2048,2048
286.504,-2.72669e-08,0,2048,2048
286.551,-2.77414e-08,0,2048,2048
286.604,-2.83071e-08,0,2048,2048
286.651,-2.88368e-08,0,2048,2048
286.704,-2.94607e-08,0,2048,2048
286.75,-3.00381e-08,0,2048,2048
286.803,-3.07108e-08,0,2048,2048
286.85,-3.13269e-08,0,2048,2048
286.903,-3.20377e-08,0,2048,2048
286.955,-3.2764e-08,0,2048,2048
287.002,-3.34202e-08,0,2048,2048
287.055,-3.41675e-08,0,2048,2048
287.102,-3.48376e-08,0,2048,2048
287.155,-3.55953e-08,0,2048,2048
287.202,-3.62704e-08,0,2048,2048
287.254,-3.70292e-08,0,2048,2048
287.301,-3.77014e-08,0,2048,2048
287.354,-3.84528e-08,0,2048,2048
287.401,-3.9115e-08,0,2048,2048
287.453,-3.98515e-08,0,2048,2048
287.5,-4.04973e-08,0,2048,2048
287.553,-4.1212e-08,0,2048,2048
287.606,-4.19123e-08,0,2048,2048
287.653,-4.25212e-08,0,2048,2048
287.705,-4.31892e-08,0,2048,2048
287.752,-4.37663e-08,0,2048,2048
287.805,-4.4395e-08,0,2048,2048
287.852,-4.49339e-08,0,2048,2048
287.905,-4.55159e-08,0,2048,2048
287.951,-4.60102e-08,0,2048,2048
288.004,-4.65383e-08,0,2048,2048
288.051,-4.69815e-08,0,2048,2048
288.104,-4.74487e-08,0,2048,2048
288.151,-4.78349e-08,0,2048,2048
288.203,-4.8235e-08,0,2048,2048
288.25,-4.85591e-08,0,2048,2048
288.303,-4.88872e-08,0,2048,2048
288.356,-4.91756e-08,0,2048,2048
288.403,-4.93982e-08,0,2048,2048
288.455,-4.96105e-08,0,2048,2048
288.502,-4.97654e-08,0,2048,2048
288.555,-4.99019e-08,0,2048,2048
288.602,-4.99903e-08,0,2048,2048
288.654,-5.00537e-08,0,2048,2048
288.701,-5.00792e-08,0,2048,2048
288.754,-5.00748e-08,0,2048,2048
288.801,-5.0043e-08,0,2048,2048
288.854,-4.99779e-08,0,2048,2048
288.901,-4.98959e-08,0,2048,2048
288.953,-4.97789e-08,0,2048,2048
289,-4.96549e-08,0,2048,2048
289.053,-4.94955e-08,0,2048,2048
289.106,-4.93175e-08,0,2048,2048
289.152,-4.9146e-08,0,2048,2048
289.205,-4.89402e-08,0,2048,2048
289.252,-4.87479e-08,0,2048,2048
289.305,-4.85232e-08,0,2048,2048
289.352,-4.83176e-08,0,2048,2048
289.404,-4.80816e-08,0,2048,2048
289.451,-4.78691e-08,0,2048,2048
289.504,-4.76283e-08,0,2048,2048
289.551,-4.7414e-08,0,2048,2048
289.604,-4.71737e-08,0,2048,2048
289.65,-4.69618e-08,0,2048,2048
289.703,-4.67261e-08,0,2048,2048
289.756,-4.64941e-08,0,2048,2048
289.803,-4.62916e-08,0,2048,2048
289.855,-4.60684e-08,0,2048,2048
289.902,-4.58744e-08,0,2048,2048
289.955,-4.56615e-08,0,2048,2048
290.002,-4.54772e-08,0,2048,2048
290.055,-4.52755e-08,0,2048,2048
290.102,-4.51014e-08,0,2048,2048
290.154,-4.49111e-08,0,2048,2048
290.201,-4.47469e-08,0,2048,2048
290.254,-4.45676e-08,0,2048,2048
290.301,-4.44129e-08,0,2048,2048
290.353,-4.42438e-08,0,2048,2048
290.4,-4.40976e-08,0,2048,2048
290.453,-4.39374e-08,0,2048,2048
290.506,-4.37814e-08,0,2048,2048
290.553,-4.36457e-08,0,2048,2048
290.605,-4.34961e-08,0,2048,2048
290.652,-4.33654e-08,0,2048,2048
290.705,-4.32205e-08,0,2048,2048
290.752,-4.30931e-08,0,2048,2048
290.805,-4.29509e-08,0,2048,2048
290.851,-4.28252e-08,0,2048,2048
290.904,-4.2684e-08,0,2048,2048
290.951,-4.25582e-08,0,2048,2048
291.004,-4.24161e-08,0,2048,2048
291.051,-4.22887e-08,0,2048,2048
291.103,-4.2144e-08,0,2048,2048
291.15,-4.20136e-08,0,2048,2048
291.203,-4.18646e-08,0,2048,2048
291.256,-4.17128e-08,0,2048,2048
291.302,-4.15751e-08,0,2048,2048
291.355,-4.14168e-08,0,2048,2048
291.402,-4.12729e-08,0,2048,2048
291.455,-4.11068e-08,0,2048,2048
291.502,-4.09553e-08,0,2048,2048
291.554,-4.07802e-08,0,2048,2048
291.601,-4.062e-08,0,2048,2048
291.654,-4.04344e-08,0,2048,2048
291.701,-4.02644e-08,0,2048,2048
291.754,-4.00669e-08,0,2048,2048
291.8,-3.98855e-08,0,2048,2048
291.853,-3.96745e-08,0,2048,2048
291.9,-3.94802e-08,0,2048,2048
291.953,-3.92536e-08,0,2048,2048
292.006,-3.90178e-08,0,2048,2048
292.052,-3.87998e-08,0,2048,2048
292.105,-3.85444e-08,0,2048,2048
292.152,-3.83074e-08,0,2048,2048
292.205,-3.80287e-08,0,2048,2048
292.252,-3.77692e-08,0,2048,2048
292.304,-3.74627e-08,0,2048,2048
292.351,-3.71762e-08,0,2048,2048
292.404,-3.68363e-08,0,2048,2048
292.451,-3.65172e-08,0,2048,2048
292.503,-3.61373e-08,0,2048,2048
292.55,-3.57794e-08,0,2048,2048
292.603,-3.53521e-08,0,2048,2048
292.656,-3.48966e-08,0,2048,2048
292.703,-3.44664e-08,0,2048,2048
292.755,-3.39519e-08,0,2048,2048
292.802,-3.34662e-08,0,2048,2048
292.855,-3.2886e-08,0,2048,2048
292.902,-3.23394e-08,0,2048,2048
292.955,-3.16886e-08,0,2048,2048
293.001,-3.10776e-08,0,2048,2048
293.054,-3.03533e-08,0,2048,2048
293.101,-2.96768e-08,0,2048,2048
293.154,-2.88794e-08,0,2048,2048
293.201,-2.8139e-08,0,2048,2048
293.253,-2.72718e-08,0,2048,2048
293.3,-2.6472e-08,0,2048,2048
293.353,-2.55414e-08,0,2048,2048
293.406,-2.45807e-08,0,2048,2048
293.453,-2.37036e-08,0,2048,2048
293.505,-2.26937e-08,0,2048,2048
293.552,-2.17777e-08,0,2048,2048
293.605,-2.07296e-08,0,2048,2048
293.652,-1.97849e-08,0,2048,2048
293.704,-1.87103e-08,0,2048,2048
293.751,-1.77471e-08,0,2048,2048
293.804,-1.66574e-08,0,2048,2048
293.851,-1.56856e-08,0,2048,2048
293.904,-1.45916e-08,0,2048,2048
293.951,-1.36206e-08,0,2048,2048
294.003,-1.25324e-08,0,2048,2048
294.05,-1.15709e-08,0,2048,2048
294.103,-1.04979e-08,0,2048,2048
294.156,-9.43669e-09,0,2048,2048
294.202,-8.50518e-09,0,2048,2048
294.255,-7.47271e-09,0,2048,2048
294.302,-6.57058e-09,0,2048,2048
294.355,-5.57544e-09,0,2048,2048
294.402,-4.71027e-09,0,2048,2048
294.454,-3.76094e-09,0,2048,2048
294.501,-2.94025e-09,0,2048,2048
294.554,-2.04516e-09,0,2048,2048
294.601,-1.27635e-09,0,2048,2048
294.654,-4.43646e-10,0,2048,2048
294.7,2.66247e-10,0,2048,2048
294.753,1.02897e-09,0,2048,2048
294.8,1.6736e-09,0,2048,2048
294.853,2.35978e-09,0,2048,2048
294.905,3.00328e-09,0,2048,2048
294.952,3.53851e-09,0,2048,2048
295.005,4.09854e-09,0,2048,2048
295.052,4.55853e-09,0,2048,2048
295.105,5.03335e-09,0,2048,2048
295.152,5.41769e-09,0,2048,2048
295.204,5.80821e-09,0,2048,2048
295.251,6.11892e-09,0,2048,2048
295.304,6.42876e-09,0,2048,2048
295.351,6.67024e-09,0,2048,2048
295.403,6.90557e-09,0,2048,2048
295.45,7.08424e-09,0,2048,2048
295.503,7.25316e-09,0,2048,2048
295.556,7.39061e-09,0,2048,2048
295.603,7.48852e-09,0,2048,2048
295.655,7.57374e-09,0,2048,2048
295.702,7.6293e-09,0,2048,2048
295.755,7.67128e-09,0,2048,2048
295.802,7.69202e-09,0,2048,2048
295.855,7.69851e-09,0,2048,2048
295.901,7.69063e-09,0,2048,2048
295.954,7.66771e-09,0,2048,2048
296.001,7.63579e-09,0,2048,2048
296.054,7.5878e-09,0,2048,2048
296.101,7.53503e-09,0,2048,2048
296.153,7.46494e-09,0,2048,2048
296.2,7.39358e-09,0,2048,2048
296.253,7.30369e-09,0,2048,2048
296.306,7.20424e-09,0,2048,2048
296.353,7.10845e-09,0,2048,2048
296.405,6.99315e-09,0,2048,2048
296.452,6.88479e-09,0,2048,2048
296.505,6.75737e-09,0,2048,2048
296.552,6.64023e-09,0,2048,2048
296.604,6.50544e-09,0,2048,2048
296.651,6.38414e-09,0,2048,2048
296.704,6.24744e-09,0,2048,2048
296.751,6.12692e-09,0,2048,2048
296.804,5.99379e-09,0,2048,2048
296.851,5.87868e-09,0,2048,2048
296.903,5.75387e-09,0,2048,2048
296.95,5.64784e-09,0,2048,2048
297.003,5.53473e-09,0,2048,2048
297.056,5.42859e-09,0,2048,2048
297.102,5.34025e-09,0,2048,2048
297.155,5.24761e-09,0,2048,2048
297.202,5.17105e-09,0,2048,2048
297.255,5.09102e-09,0,2048,2048
297.302,5.02486e-09,0,2048,2048
297.354,4.9554e-09,0,2048,2048
297.401,4.89749e-09,0,2048,2048
297.454,4.83598e-09,0,2048,2048
297.501,4.78396e-09,0,2048,2048
297.554,4.72784e-09,0,2048,2048
297.6,4.67965e-09,0,2048,2048
297.653,4.62698e-09,0,2048,2048
297.706,4.57566e-09,0,2048,2048
297.753,4.53109e-09,0,2048,2048
297.805,4.4822e-09,0,2048,2048
297.852,4.44e-09,0,2048,2048
297.905,4.39428e-09,0,2048,2048
297.952,4.3556e-09,0,2048,2048
298.005,4.31482e-09,0,2048,2048
298.052,4.28153e-09,0,2048,2048
298.104,4.2481e-09,0,2048,2048
298.151,4.22251e-09,0,2048,2048
298.204,4.19906e-09,0,2048,2048
298.251,4.18348e-09,0,2048,2048
298.303,4.1724e-09,0,2048,2048
298.35,4.16867e-09,0,2048,2048
298.403,4.17164e-09,0,2048,2048
298.456,4.18238e-09,0,2048,2048
298.503,4.19843e-09,0,2048,2048
298.555,4.22363e-09,0,2048,2048
298.602,4.25207e-09,0,2048,2048
298.655,4.29035e-09,0,2048,2048
298.702,4.32942e-09,0,2048,2048
298.755,4.37825e-09,0,2048,2048
298.801,4.42526e-09,0,2048,2048
298.854,4.48125e-09,0,2048,2048
298.901,4.53293e-09,0,2048,2048
298.954,4.59224e-09,0,2048,2048
299.001,4.64516e-09,0,2048,2048
299.053,4.70402e-09,0,2048,2048
299.1,4.75502e-09,0,2048,2048
299.153,4.81014e-09,0,2048,2048
299.206,4.86221e-09,0,2048,2048
299.253,4.90544e-09,0,2048,2048
299.305,4.95024e-09,0,2048,2048
299.352,4.98639e-09,0,2048,2048
299.405,5.02271e-09,0,2048,2048
299.452,5.05104e-09,0,2048,2048
299.504,5.07843e-09,0,2048,2048
299.551,5.09881e-09,0,2048,2048
299.604,5.11738e-09,0,2048,2048
299.651,5.13011e-09,0,2048,2048
299.704,5.14034e-09,0,2048,2048
299.75,5.14595e-09,0,2048,2048
299.803,5.14852e-09,0,2048,2048
299.85,5.14765e-09,0,2048,2048
299.903,5.14332e-09,0,2048,2048
299.956,5.13562e-09,0,2048,2048
300.002,5.12611e-09,0,2048,2048
300.055,5.11261e-09,0,2048,2048
300.102,5.09826e-09,0,2048,2048
300.155,5.07964e-09,0,2048,2048
300.202,5.06103e-09,0,2048,2048
300.254,5.03794e-09,0,2048,2048
300.301,5.01565e-09,0,2048,2048
300.354,4.98873e-09,0,2048,2048
300.401,4.9633e-09,0,2048,2048
300.453,4.93314e-09,0,2048,2048
300.5,4.90508e-09,0,2048,2048
300.553,4.87223e-09,0,2048,2048
300.606,4.83817e-09,0,2048,2048
300.653,4.80696e-09,0,2048,2048
300.705,4.77091e-09,0,2048,2048
300.752,4.73811e-09,0,2048,2048
300.805,4.70043e-09,0,2048,2048
300.852,4.66629e-09,0,2048,2048
300.905,4.62723e-09,0,2048,2048
300.951,4.59195e-09,0,2048,2048
301.004,4.55166e-09,0,2048,2048
301.051,4.51533e-09,0,2048,2048
301.104,4.47391e-09,0,2048,2048
301.151,4.43658e-09,0,2048,2048
301.203,4.39404e-09,0,2048,2048
301.25,4.35573e-09,0,2048,2048
301.303,4.31205e-09,0,2048,2048
301.356,4.26776e-09,0,2048,2048
301.403,4.22788e-09,0,2048,2048
301.455,4.18241e-09,0,2048,2048
301.502,4.14145e-09,0,2048,2048
301.555,4.09476e-09,0,2048,2048
301.602,4.05271e-09,0,2048,2048
301.654,4.00479e-09,0,2048,2048
301.701,3.96164e-09,0,2048,2048
301.754,3.9125e-09,0,2048,2048
301.801,3.86828e-09,0,2048,2048
301.854,3.81794e-09,0,2048,2048
301.901,3.77269e-09,0,2048,2048
301.953,3.72124e-09,0,2048,2048
302,3.67503e-09,0,2048,2048
302.053,3.62256e-09,0,2048,2048
302.106,3.56959e-09,0,2048,2048
302.152,3.52212e-09,0,2048,2048
302.205,3.46832e-09,0,2048,2048
302.252,3.42019e-09,0,2048,2048
302.305,3.36572e-09,0,2048,2048
302.352,3.31706e-09,0,2048,2048
302.404,3.26209e-09,0,2048,2048
302.451,3.21307e-09,0,2048,2048
302.504,3.15777e-09,0,2048,2048
302.551,3.10854e-09,0,2048,2048
302.604,3.0531e-09,0,2048,2048
302.65,3.00381e-09,0,2048,2048
302.703,2.94839e-09,0,2048,2048
302.75,2.89919e-09,0,2048,2048
302.803,2.84396e-09,0,2048,2048
302.855,2.78889e-09,0,2048,2048
302.902,2.7401e-09,0,2048,2048
302.955,2.68543e-09,0,2048,2048
303.002,2.63706e-09,0,2048,2048
303.055,2.58291e-09,0,2048,2048
303.102,2.53505e-09,0,2048,2048
303.154,2.48153e-09,0,2048,2048
303.201,2.43426e-09,0,2048,2048
303.254,2.38144e-09,0,2048,2048
303.301,2.33483e-09,0,2048,2048
303.353,2.28278e-09,0,2048,2048
303.4,2.23687e-09,0,2048,2048
303.453,2.18564e-09,0,2048,2048
303.506,2.13486e-09,0,2048,2048
303.553,2.09011e-09,0,2048,2048
303.605,2.0402e-09,0,2048,2048
303.652,1.99622e-09,0,2048,2048
303.705,1.9472e-09,0,2048,2048
303.752,1.90402e-09,0,2048,2048
303.805,1.8559e-09,0,2048,2048
303.851,1.81352e-09,0,2048,2048
303.904,1.76628e-09,0,2048,2048
303.951,1.72469e-09,0,2048,2048
304.004,1.67834e-09,0,2048,2048
304.051,1.63752e-09,0,2048,2048
304.103,1.59202e-09,0,2048,2048
304.15,1.55196e-09,0,2048,2048
304.203,1.50729e-09,0,2048,2048
304.256,1.46304e-09,0,2048,2048
304.303,1.42405e-09,0,2048,2048
304.355,1.38057e-09,0,2048,2048
304.402,1.34225e-09,0,2048,2048
304.455,1.2995e-09,0,2048,2048
304.502,1.26181e-09,0,2048,2048
304.554,1.21975e-09,0,2048,2048
304.601,1.18265e-09,0,2048,2048
304.654,1.14124e-09,0,2048,2048
304.701,1.10471e-09,0,2048,2048
304.754,1.06392e-09,0,2048,2048
304.801,1.02793e-09,0,2048,2048
304.853,9.87739e-10,0,2048,2048
304.9,9.52277e-10,0,2048,2048
304.953,9.12673e-10,0,2048,2048
