250,0,0,2048,2048
250.006,0,0,2048,2048
250.053,0,0,2048,2048
250.105,0,0,2048,2048
250.152,0,0,2048,2048
250.205,-2.77556e-17,0,2048,2048
250.252,0,0,2048,2048
250.305,-2.77556e-17,0,2048,2048
250.352,0,0,2048,2048
250.404,-2.77556e-17,0,2048,2048
250.451,0,0,2048,2048
250.504,0,0,2048,2048
250.551,-2.77556e-17,0,2048,2048
250.603,0,0,2048,2048
250.65,0,0,2048,2048
250.703,-2.77556e-17,0,2048,2048
250.756,0,0,2048,2048
250.803,-2.77556e-17,0,2048,2048
250.855,0,0,2048,2048
250.902,-2.77556e-17,0,2048,2048
250.955,-2.77556e-17,0,2048,2048
251.002,0,0,2048,2048
251.055,-2.77556e-17,0,2048,2048
251.101,-2.77556e-17,0,2048,2048
251.154,-2.77556e-17,0,2048,2048
251.201,0,0,2048,2048
251.254,0,0,2048,2048
251.301,-2.77556e-17,0,2048,2048
251.353,0,0,2048,2048
251.4,2.77556e-17,0,2048,2048
251.453,2.77556e-17,0,2048,2048
251.506,2.77556e-17,0,2048,2048
251.553,2.77556e-17,0,2048,2048
251.605,2.77556e-17,0,2048,2048
251.652,2.77556e-17,0,2048,2048
251.705,2.77556e-17,0,2048,2048
251.752,5.55112e-17,0,2048,2048
251.804,5.55112e-17,0,2048,2048
251.851,2.77556e-17,0,2048,2048
251.904,-2.77556e-17,0,2048,2048
251.951,-2.77556e-17,0,2048,2048
252.004,-2.77556e-17,0,2048,2048
252.05,-2.77556e-17,0,2048,2048
252.103,-2.77556e-17,0,2048,2048
252.15,-2.77556e-17,0,2048,2048
252.203,0,0,2048,2048
252.256,0,0,2048,2048
252.302,0,0,2048,2048
252.355,0,0,2048,2048
252.402,0,0,2048,2048
252.455,-2.77556e-17,0,2048,2048
252.502,0,0,2048,2048
252.554,0,0,2048,2048
252.601,0,0,2048,2048
252.654,0,0,2048,2048
252.701,0,0,2048,2048
252.754,0,0,2048,2048
252.8,0,0,2048,2048
252.853,0,0,2048,2048
252.906,-2.77556e-17,0,2048,2048
252.953,-2.77556e-17,0,2048,2048
253.005,-2.77556e-17,0,2048,2048
253.052,0,0,2048,2048
253.105,0,0,2048,2048
253.152,-2.77556e-17,0,2048,2048
253.205,-2.77556e-17,0,2048,2048
253.251,-2.77556e-17,0,2048,2048
253.304,0,0,2048,2048
253.351,0,0,2048,2048
253.404,0,0,2048,2048
253.451,-2.77556e-17,0,2048,2048
253.503,0,0,2048,2048
253.55,0,0,2048,2048
253.603,-2.77556e-17,0,2048,2048
253.656,-2.77556e-17,0,2048,2048
253.703,0,0,2048,2048
253.755,-2.77556e-17,0,2048,2048
253.802,2.77556e-17,0,2048,2048
253.855,2.77556e-17,0,2048,2048
253.902,2.77556e-17,0,2048,2048
253.954,8.32667e-17,0,2048,2048
254.001,5.55112e-17,0,2048,2048
254.054,2.77556e-17,0,2048,2048
254.101,2.77556e-17,0,2048,2048
254.154,5.55112e-17,0,2048,2048
254.201,5.55112e-17,0,2048,2048
254.253,5.55112e-17,0,2048,2048
254.3,2.77556e-17,0,2048,2048
254.353,5.55112e-17,0,2048,2048
254.406,2.77556e-17,0,2048,2048
254.452,2.77556e-17,0,2048,2048
254.505,2.77556e-17,0,2048,2048
254.552,2.77556e-17,0,2048,2048
254.605,2.77556e-17,0,2048,2048
254.652,2.77556e-17,0,2048,2048
254.704,0,0,2048,2048
254.751,0,0,2048,2048
254.804,0,0,2048,2048
254.851,0,0,2048,2048
254.904,2.77556e-17,0,2048,2048
254.95,-2.77556e-17,0,2048,2048
255.003,0,0,2048,2048
255.05,0,0,2048,2048
255.103,0,0,2048,2048
255.155,0,0,2048,2048
255.202,0,0,2048,2048
255.255,0,0,2048,2048
255.302,0,0,2048,2048
255.355,0,0,2048,2048
255.402,0,0,2048,2048
255.454,-5.55112e-17,0,2048,2048
255.501,-5.55112e-17,0,2048,2048
255.554,-2.77556e-17,0,2048,2048
255.601,-2.77556e-17,0,2048,2048
255.653,-2.77556e-17,0,2048,2048
255.7,-5.55112e-17,0,2048,2048
255.753,0,0,2048,2048
255.806,0,0,2048,2048
255.853,0,0,2048,2048
255.905,0,0,2048,2048
255.952,-2.77556e-17,0,2048,2048
256.005,-2.77556e-17,0,2048,2048
256.052,0,0,2048,2048
256.105,0,0,2048,2048
256.151,5.55112e-17,0,2048,2048
256.204,2.77556e-17,0,2048,2048
256.251,0,0,2048,2048
256.304,2.77556e-17,0,2048,2048
256.351,2.77556e-17,0,2048,2048
256.403,2.77556e-17,0,2048,2048
256.45,2.77556e-17,0,2048,2048
256.503,2.77556e-17,0,2048,2048
256.556,2.77556e-17,0,2048,2048
256.603,5.55112e-17,0,2048,2048
256.655,5.55112e-17,0,2048,2048
256.702,5.55112e-17,0,2048,2048
256.755,5.55112e-17,0,2048,2048
256.802,2.77556e-17,0,2048,2048
256.854,2.77556e-17,0,2048,2048
256.901,2.77556e-17,0,2048,2048
256.954,2.77556e-17,0,2048,2048
257.001,2.77556e-17,0,2048,2048
257.054,2.77556e-17,0,2048,2048
257.101,2.77556e-17,0,2048,2048
257.153,2.77556e-17,0,2048,2048
257.2,2.77556e-17,0,2048,2048
257.253,2.77556e-17,0,2048,2048
257.306,5.55112e-17,0,2048,2048
257.352,0,0,2048,2048
257.405,0,0,2048,2048
257.452,0,0,2048,2048
257.505,-2.77556e-17,0,2048,2048
257.552,-2.77556e-17,0,2048,2048
257.604,-2.77556e-17,0,2048,2048
257.651,0,0,2048,2048
257.704,-2.77556e-17,0,2048,2048
257.751,-2.77556e-17,0,2048,2048
257.804,-2.77556e-17,0,2048,2048
257.85,-5.55112e-17,0,2048,2048
257.903,-5.55112e-17,0,2048,2048
257.95,-5.55112e-17,0,2048,2048
258.003,-5.55112e-17,0,2048,2048
258.055,-2.77556e-17,0,2048,2048
258.102,-2.77556e-17,0,2048,2048
258.155,-2.77556e-17,0,2048,2048
258.202,-2.77556e-17,0,2048,2048
258.255,-2.77556e-17,0,2048,2048
258.302,-2.77556e-17,0,2048,2048
258.354,0,0,2048,2048
258.401,-2.77556e-17,0,2048,2048
258.454,0,0,2048,2048
258.501,0,0,2048,2048
258.553,0,0,2048,2048
258.6,0,0,2048,2048
258.653,2.77556e-17,0,2048,2048
258.706,0,0,2048,2048
258.753,0,0,2048,2048
258.805,-2.77556e-17,0,2048,2048
258.852,-2.77556e-17,0,2048,2048
258.905,-2.77556e-17,0,2048,2048
258.952,-2.77556e-17,0,2048,2048
259.005,-2.77556e-17,0,2048,2048
259.051,-2.77556e-17,0,2048,2048
259.104,-2.77556e-17,0,2048,2048
259.151,0,0,2048,2048
259.204,0,0,2048,2048
259.251,0,0,2048,2048
259.303,-5.55112e-17,0,2048,2048
259.35,-5.55112e-17,0,2048,2048
259.403,-2.77556e-17,0,2048,2048
259.456,-5.55112e-17,0,2048,2048
259.503,-2.77556e-17,0,2048,2048
259.555,-2.77556e-17,0,2048,2048
259.602,-2.77556e-17,0,2048,2048
259.655,-2.77556e-17,0,2048,2048
259.702,-5.55112e-17,0,2048,2048
259.754,-2.77556e-17,0,2048,2048
259.801,-5.55112e-17,0,2048,2048
259.854,-2.77556e-17,0,2048,2048
259.901,-2.77556e-17,0,2048,2048
259.954,-2.77556e-17,0,2048,2048
260,-2.77556e-17,0,2048,2048
260.053,-2.77556e-17,0,2048,2048
260.1,-2.77556e-17,0,2048,2048
260.153,-2.77556e-17,0,2048,2048
260.206,-2.77556e-17,0,2048,2048
260.252,0,0,2048,2048
260.305,0,0,2048,2048
260.352,0,0,2048,2048
260.405,0,0,2048,2048
260.452,2.77556e-17,0,2048,2048
260.504,2.77556e-17,0,2048,2048
260.551,2.77556e-17,0,2048,2048
260.604,0,0,2048,2048
260.651,0,0,2048,2048
260.704,0,0,2048,2048
260.75,-2.77556e-17,0,2048,2048
260.803,0,0,2048,2048
260.856,0,0,2048,2048
260.903,-2.77556e-17,0,2048,2048
260.955,0,0,2048,2048
261.002,2.77556e-17,0,2048,2048
261.055,2.77556e-17,0,2048,2048
261.102,2.77556e-17,0,2048,2048
261.155,2.77556e-17,0,2048,2048
261.201,2.77556e-17,0,2048,2048
261.254,2.77556e-17,0,2048,2048
261.301,2.77556e-17,0,2048,2048
261.354,2.77556e-17,0,2048,2048
261.401,0,0,2048,2048
261.453,0,0,2048,2048
261.5,0,0,2048,2048
261.553,2.77556e-17,0,2048,2048
261.606,5.55112e-17,0,2048,2048
261.653,2.77556e-17,0,2048,2048
261.705,5.55112e-17,0,2048,2048
261.752,5.55112e-17,0,2048,2048
261.805,5.55112e-17,0,2048,2048
261.852,5.55112e-17,0,2048,2048
261.905,5.55112e-17,0,2048,2048
261.951,5.55112e-17,0,2048,2048
262.004,2.77556e-17,0,2048,2048
262.051,5.55112e-17,0,2048,2048
262.104,5.55112e-17,0,2048,2048
262.151,0,0,2048,2048
262.203,0,0,2048,2048
262.25,0,0,2048,2048
262.303,2.77556e-17,0,2048,2048
262.356,2.77556e-17,0,2048,2048
262.402,2.77556e-17,0,2048,2048
262.455,0,0,2048,2048
262.502,0,0,2048,2048
262.555,0,0,2048,2048
262.602,0,0,2048,2048
262.654,0,0,2048,2048
262.701,2.77556e-17,0,2048,2048
262.754,0,0,2048,2048
262.801,0,0,2048,2048
262.854,-2.77556e-17,0,2048,2048
262.9,0,0,2048,2048
262.953,2.77556e-17,0,2048,2048
263,2.77556e-17,0,2048,2048
263.053,2.77556e-17,0,2048,2048
263.105,2.77556e-17,0,2048,2048
263.152,2.77556e-17,0,2048,2048
263.205,2.77556e-17,0,2048,2048
263.252,2.77556e-17,0,2048,2048
263.305,0,0,2048,2048
263.352,0,0,2048,2048
263.404,0,0,2048,2048
263.451,0,0,2048,2048
263.504,0,0,2048,2048
263.551,0,0,2048,2048
263.603,0,0,2048,2048
263.65,0,0,2048,2048
263.703,-2.77556e-17,0,2048,2048
263.756,0,0,2048,2048
263.803,-2.77556e-17,0,2048,2048
263.855,0,0,2048,2048
263.902,0,0,2048,2048
263.955,2.77556e-17,0,2048,2048
264.002,2.77556e-17,0,2048,2048
264.055,2.77556e-17,0,2048,2048
264.101,2.77556e-17,0,2048,2048
264.154,2.77556e-17,0,2048,2048
264.201,5.55112e-17,0,2048,2048
264.254,2.77556e-17,0,2048,2048
264.301,0,0,2048,2048
264.353,0,0,2048,2048
264.4,-2.77556e-17,0,2048,2048
264.453,0,0,2048,2048
264.506,2.77556e-17,0,2048,2048
264.553,2.77556e-17,0,2048,2048
264.605,2.77556e-17,0,2048,2048
264.652,8.32667e-17,0,2048,2048
264.705,8.32667e-17,0,2048,2048
264.752,2.77556e-17,0,2048,2048
264.804,5.55112e-17,0,2048,2048
264.851,2.77556e-17,0,2048,2048
264.904,0,0,2048,2048
264.951,0,0,2048,2048
265.004,0,0,2048,2048
265.051,0,0,2048,2048
265.103,-2.77556e-17,0,2048,2048
265.15,0,0,2048,2048
265.203,-2.77556e-17,0,2048,2048
265.256,0,0,2048,2048
265.302,2.77556e-17,0,2048,2048
265.355,0,0,2048,2048
265.402,-2.77556e-17,0,2048,2048
265.455,-2.77556e-17,0,2048,2048
265.502,-2.77556e-17,0,2048,2048
265.554,0,0,2048,2048
265.601,-2.77556e-17,0,2048,2048
265.654,-2.77556e-17,0,2048,2048
265.701,-5.55112e-17,0,2048,2048
265.754,-8.32667e-17,0,2048,2048
265.8,-5.55112e-17,0,2048,2048
265.853,-2.77556e-17,0,2048,2048
265.9,-2.77556e-17,0,2048,2048
265.953,-2.77556e-17,0,2048,2048
266.005,-2.77556e-17,0,2048,2048
266.052,-2.77556e-17,0,2048,2048
266.105,-2.77556e-17,0,2048,2048
266.152,-5.55112e-17,0,2048,2048
266.205,-5.55112e-17,0,2048,2048
266.252,-8.32667e-17,0,2048,2048
266.304,-5.55112e-17,0,2048,2048
266.351,-8.32667e-17,0,2048,2048
266.404,-8.32667e-17,0,2048,2048
266.451,-5.55112e-17,0,2048,2048
266.503,-2.77556e-17,0,2048,2048
266.55,0,0,2048,2048
266.603,0,0,2048,2048
266.656,-2.77556e-17,0,2048,2048
266.703,-2.77556e-17,0,2048,2048
266.755,-5.55112e-17,0,2048,2048
266.802,-5.55112e-17,0,2048,2048
266.855,-2.77556e-17,0,2048,2048
266.902,-5.55112e-17,0,2048,2048
266.955,-5.55112e-17,0,2048,2048
267.001,-5.55112e-17,0,2048,2048
267.054,-5.55112e-17,0,2048,2048
267.101,-8.32667e-17,0,2048,2048
267.154,-5.55112e-17,0,2048,2048
267.201,-5.55112e-17,0,2048,2048
267.253,-2.77556e-17,0,2048,2048
267.3,-2.77556e-17,0,2048,2048
267.353,0,0,2048,2048
267.406,-2.77556e-17,0,2048,2048
267.453,-2.77556e-17,0,2048,2048
267.505,-2.77556e-17,0,2048,2048
267.552,-2.77556e-17,0,2048,2048
267.605,-5.55112e-17,0,2048,2048
267.652,-5.55112e-17,0,2048,2048
267.704,-1.11022e-16,0,2048,2048
267.751,-5.55112e-17,0,2048,2048
267.804,-5.55112e-17,0,2048,2048
267.851,-5.55112e-17,0,2048,2048
267.904,-2.77556e-17,0,2048,2048
267.95,-5.55112e-17,0,2048,2048
268.003,-2.77556e-17,0,2048,2048
268.05,-2.77556e-17,0,2048,2048
268.101,-2.77556e-17,0,3106,3106
268.15,-2.77556e-17,0,3978,3978
268.2,-2.77556e-17,0,4798,4798
268.251,-2.77556e-17,0,5674,5674
268.3,-2.77556e-17,0,6262,6262
268.35,-2.77556e-17,0,7018,7018
268.4,-2.77556e-17,0,7894,7894
268.451,-2.77556e-17,0,8782,8782
268.5,-2.77556e-17,0,9658,9658
268.55,-2.77556e-17,0,10546,10546
268.601,-2.77556e-17,0,11422,11422
268.651,-2.77556e-17,0,12310,12310
268.7,-2.77556e-17,0,13186,13186
268.75,-2.77556e-17,0,14030,14030
268.801,-2.77556e-17,0,14758,14758
268.85,-2.77556e-17,0,15694,15694
268.9,-2.77556e-17,0,16290,16290
268.95,-2.77556e-17,0,17106,17106
269.001,-2.77556e-17,0,18014,18014
269.05,-2.77556e-17,0,18934,18934
269.1,-2.77556e-17,0,19378,19378
269.151,2.77556e-16,0,19894,19894
269.2,1.83187e-15,0,20762,20762
269.25,3.77476e-15,0,21206,21206
269.3,1.43774e-14,0,21934,21934
269.351,7.5967e-14,0,22778,22778
269.4,2.99871e-13,0,23610,23610
269.45,8.14321e-13,0,24318,24318
269.501,1.31878e-12,0,25274,25274
269.551,1.09052e-13,0,26026,26026
269.6,-6.37784e-12,0,26858,26858
269.65,-2.23115e-11,0,27578,27578
269.701,-4.99951e-11,0,28446,28446
269.75,-4.85951e-10,0,29334,29334
269.8,-6.19857e-10,0,30018,30018
269.85,-3.15299e-10,0,30954,30954
269.901,1.08297e-10,0,31770,31770
269.95,4.10811e-10,0,32442,32442
270,4.30036e-10,0,32754,32754
270.051,1.5003e-10,0,33538,33538
270.1,-1.71774e-10,0,34270,34270
270.15,-2.6965e-10,0,35094,35094
270.2,-3.67117e-12,0,35738,35738
270.251,2.78226e-10,0,36598,36598
270.3,4.13913e-10,0,37438,37438
270.35,2.21003e-10,0,38222,38222
270.4,-4.51698e-11,0,39082,39082
270.451,-1.82549e-10,0,39814,39814
270.5,-2.34693e-12,0,40634,40634
270.55,1.5203e-10,0,41338,41338
270.601,3.3192e-10,0,42150,42150
270.65,2.69359e-10,0,42938,42938
270.7,6.83706e-11,0,43778,43778
270.75,-3.71932e-11,0,44526,44526
270.801,-5.17368e-11,0,45298,45298
270.85,1.10958e-11,0,46154,46154
270.9,7.50049e-11,0,46926,46926
270.951,3.68128e-10,0,47778,47778
271.001,4.13646e-10,0,48586,48586
271.05,1.59701e-10,0,49398,49398
271.1,-2.91001e-10,0,50114,50114
271.151,-5.13813e-10,0,50974,50974
271.2,-8.1419e-11,0,51790,51790
271.25,8.25654e-10,0,52502,52502
271.3,1.30324e-09,0,53310,53310
271.351,4.32745e-10,0,54138,54138
271.4,-1.40605e-09,0,54950,54950
271.45,-2.35099e-09,0,55698,55698
271.501,-3.58056e-10,0,56470,56470
271.55,4.87705e-09,0,57234,57234
271.6,1.17829e-08,0,57866,57866
271.65,1.84005e-08,0,58742,58742
271.701,2.3591e-08,0,59514,59514
271.75,2.69111e-08,0,60266,60266
271.8,2.85754e-08,0,60994,60994
271.851,2.95731e-08,0,61754,61754
271.901,3.17782e-08,0,62574,62574
271.95,3.70289e-08,0,63250,63250
272,4.57376e-08,0,64098,64098
272.051,5.69633e-08,0,64614,64614
272.1,6.91542e-08,0,65066,65066
272.15,8.26159e-08,0,65822,65822
272.2,9.89497e-08,0,66706,66706
272.251,1.2034e-07,0,67346,67346
272.3,1.47448e-07,0,68206,68206
272.35,1.81209e-07,0,69070,69070
272.401,2.22431e-07,0,70242,70242
272.45,2.68455e-07,0,71606,71606
272.5,3.16785e-07,0,72946,72946
272.55,3.64689e-07,0,74314,74314
272.601,4.13063e-07,0,75306,75306
272.65,4.63483e-07,0,76182,76182
272.7,5.19256e-07,0,76890,76890
272.751,5.80008e-07,0,77566,77566
272.801,6.39059e-07,0,78314,78314
272.85,6.92109e-07,0,79030,79030
272.9,7.36019e-07,0,79722,79722
272.951,7.69946e-07,0,80434,80434
273,7.92515e-07,0,81158,81158
273.05,8.05697e-07,0,81730,81730
273.1,8.12407e-07,0,82414,82414
273.151,8.15507e-07,0,83146,83146
273.2,8.16194e-07,0,83810,83810
273.25,8.14404e-07,0,84454,84454
273.301,8.0953e-07,0,85142,85142
273.35,8.00823e-07,0,85738,85738
273.4,7.87061e-07,0,86478,86478
273.45,7.67064e-07,0,87166,87166
273.501,7.39464e-07,0,87910,87910
273.55,7.04388e-07,0,88618,88618
273.6,6.61421e-07,0,89302,89302
273.65,6.12474e-07,0,90022,90022
273.701,5.6031e-07,0,90830,90830
273.75,5.09864e-07,0,91570,91570
273.8,4.62263e-07,0,92582,92582
273.851,4.1755e-07,0,93950,93950
273.9,3.77342e-07,0,95322,95322
273.95,3.40691e-07,0,96322,96322
274,3.06888e-07,0,96930,96930
274.051,2.74734e-07,0,97574,97574
274.1,2.44581e-07,0,98242,98242
274.15,2.15515e-07,0,98566,98566
274.201,1.87167e-07,0,99158,99158
274.251,1.61765e-07,0,99882,99882
274.3,1.41228e-07,0,100422,100422
274.35,1.26997e-07,0,101070,101070
274.401,1.17192e-07,0,101746,101746
274.45,1.08118e-07,0,102434,102434
274.5,9.65188e-08,0,103078,103078
274.55,8.27789e-08,0,103662,103662
274.601,6.94375e-08,0,104334,104334
274.65,5.93186e-08,0,105014,105014
274.7,5.26977e-08,0,105578,105578
274.751,4.87225e-08,0,106302,106302
274.8,4.63716e-08,0,106978,106978
274.85,4.41363e-08,0,107570,107570
274.9,4.0442e-08,0,108278,108278
274.951,3.43292e-08,0,108818,108818
275,2.71533e-08,0,109522,109522
275.05,2.12062e-08,0,110134,110134
275.101,1.82246e-08,0,110726,110726
275.151,1.79866e-08,0,111434,111434
275.2,1.88997e-08,0,111886,111886
275.25,1.96476e-08,0,112558,112558
275.301,1.98977e-08,0,113138,113138
275.35,1.99091e-08,0,113746,113746
275.4,1.99526e-08,0,114290,114290
275.45,2.00823e-08,0,114918,114918
275.501,2.02319e-08,0,115598,115598
275.55,2.03441e-08,0,116242,116242
275.6,2.03381e-08,0,116954,116954
275.651,1.96018e-08,0,117594,117594
275.7,1.91152e-08,0,118470,118470
275.75,1.91102e-08,0,119522,119522
275.8,1.91421e-08,0,120838,120838
275.851,1.91749e-08,0,121966,121966
275.9,1.92073e-08,0,122462,122462
275.95,1.92399e-08,0,122454,122454
276,1.92725e-08,0,122582,122582
276.051,1.93056e-08,0,123530,123530
276.1,1.93383e-08,0,124746,124746
276.15,1.93715e-08,0,125678,125678
276.201,1.9405e-08,0,126250,126250
276.25,1.94381e-08,0,126822,126822
276.3,1.94712e-08,0,127330,127330
276.35,1.95045e-08,0,127878,127878
276.401,1.95385e-08,0,128418,128418
276.45,1.95721e-08,0,128990,128990
276.5,1.96058e-08,0,130796,130796
276.551,1.964e-08,0,130800,130800
276.6,1.96737e-08,0,130784,130784
276.65,1.97073e-08,0,130736,130736
276.7,1.97411e-08,0,130528,130528
276.751,1.97756e-08,0,129828,129828
276.8,1.98096e-08,0,129304,129304
276.85,1.98438e-08,0,129128,129128
276.9,1.98781e-08,0,129176,129176
276.951,1.99129e-08,0,130072,130072
277,1.99473e-08,0,129464,129464
277.05,1.99817e-08,0,128952,128952
277.101,2.00169e-08,0,129832,129832
277.15,2.00518e-08,0,130080,130080
277.2,2.00867e-08,0,128544,128544
277.25,2.01216e-08,0,129800,129800
277.301,2.01571e-08,0,130316,130316
277.35,2.01923e-08,0,130312,130312
277.4,2.02276e-08,0,130504,130504
277.451,2.02636e-08,0,130880,130880
277.501,2.02992e-08,0,130944,130944
277.55,2.03349e-08,0,131072,131072
277.6,2.03707e-08,0,130976,130976
277.651,2.0407e-08,0,130544,130544
277.7,2.0443e-08,0,131040,131040
277.75,2.04793e-08,0,131072,131072
277.8,2.05157e-08,0,130712,130712
277.851,2.05527e-08,0,131072,131072
277.9,2.05891e-08,0,131072,131072
277.95,2.06256e-08,0,130784,130784
278.001,2.06627e-08,0,130928,130928
278.05,2.06997e-08,0,131072,131072
278.1,2.07371e-08,0,131072,131072
278.15,2.07743e-08,0,131072,131072
278.201,2.08102e-08,0,131072,131072
278.25,2.08429e-08,0,131072,131072
278.3,2.08721e-08,0,131072,131072
278.351,2.08982e-08,0,131040,131040
278.401,2.09211e-08,0,131072,131072
278.45,2.0942e-08,0,131072,131072
278.5,2.09614e-08,0,131072,131072
278.551,2.09795e-08,0,131072,131072
278.6,2.0995e-08,0,131072,131072
278.65,2.10065e-08,0,131072,131072
278.7,2.10124e-08,0,131072,131072
278.751,2.10115e-08,0,131072,131072
278.8,2.10023e-08,0,131072,131072
278.85,2.09833e-08,0,131072,131072
278.901,2.09516e-08,0,131072,131072
278.95,2.09053e-08,0,131072,131072
279,2.08403e-08,0,131072,131072
279.05,2.07525e-08,0,131072,131072
279.101,2.06367e-08,0,131072,131072
279.15,2.04934e-08,0,131072,131072
279.2,2.03198e-08,0,131072,131072
279.25,2.01147e-08,0,131072,131072
279.301,1.98732e-08,0,131072,131072
279.35,1.96008e-08,0,131072,131072
279.4,1.92923e-08,0,131072,131072
279.451,1.89416e-08,0,131072,131072
279.5,1.85602e-08,0,131072,131072
279.55,1.81468e-08,0,131072,131072
279.6,1.77066e-08,0,131072,131072
279.651,1.72385e-08,0,131072,131072
279.7,1.67623e-08,0,131072,131072
279.75,1.62764e-08,0,131072,131072
279.801,1.57774e-08,0,131072,131072
279.851,1.52826e-08,0,131072,131072
279.9,1.47869e-08,0,131072,131072
279.95,1.42923e-08,0,131072,131072
280.001,1.37938e-08,0,131072,131072
280.05,1.33087e-08,0,131072,131072
280.1,1.28332e-08,0,131072,131072
280.15,1.23713e-08,0,131072,131072
280.201,1.19211e-08,0,131072,131072
280.25,1.15003e-08,0,131072,131072
280.3,1.11063e-08,0,131072,131072
280.351,1.07368e-08,0,131072,131072
280.4,1.04039e-08,0,131072,131072
280.45,1.01017e-08,0,131072,131072
280.5,9.82894e-09,0,131072,131072
280.551,9.58011e-09,0,131072,131072
280.6,9.36022e-09,0,131072,131072
280.65,9.16359e-09,0,131072,131072
280.701,8.98615e-09,0,131072,131072
280.751,8.83169e-09,0,131072,131072
280.8,8.69643e-09,0,131072,131072
280.85,8.57933e-09,0,131072,131072
280.901,8.47765e-09,0,131072,131072
280.95,8.39225e-09,0,131072,131072
281,8.31887e-09,0,131072,131072
281.05,8.25491e-09,0,131072,131072
281.101,8.19787e-09,0,131072,131072
281.15,8.14888e-09,0,131072,131072
281.2,8.10734e-09,0,131072,131072
281.251,8.073e-09,0,131072,131072
281.3,8.04633e-09,0,131072,131072
281.35,8.02544e-09,0,131072,131072
281.4,8.00869e-09,0,131072,131072
281.451,7.9946e-09,0,131072,131072
281.5,7.98294e-09,0,131072,131072
281.55,7.97351e-09,0,131072,131072
281.6,7.9668e-09,0,131072,131072
281.651,7.96331e-09,0,131072,131072
281.7,7.96317e-09,0,131072,131072
281.75,7.96579e-09,0,131072,131072
281.801,7.97044e-09,0,131072,131072
281.85,7.97619e-09,0,131072,131072
281.9,7.98238e-09,0,131072,131072
281.95,7.98852e-09,0,131072,131072
282.001,7.99446e-09,0,131072,131072
282.05,8.00004e-09,0,131072,131072
282.1,8.0055e-09,0,131072,131072
282.151,8.01104e-09,0,131072,131072
282.201,8.01659e-09,0,131072,131072
282.25,8.02227e-09,0,131072,131072
282.3,8.02808e-09,0,131072,131072
282.351,8.03413e-09,0,131072,131072
282.4,8.04025e-09,0,131072,131072
282.45,8.0465e-09,0,131072,131072
282.5,8.05286e-09,0,131072,131072
282.551,8.0594e-09,0,131072,131072
282.6,8.06589e-09,0,131072,131072
282.65,8.07231e-09,0,131072,131072
282.701,8.07871e-09,0,131072,131072
282.75,8.08495e-09,0,131072,131072
282.8,8.09122e-09,0,131072,131072
282.85,8.09758e-09,0,131072,131072
282.901,8.10406e-09,0,131072,131072
282.95,8.1103e-09,0,131072,131072
283,8.11616e-09,0,131072,131072
283.051,8.12168e-09,0,131072,131072
283.101,8.12686e-09,0,131072,131072
283.15,8.13196e-09,0,131072,131072
283.2,8.13687e-09,0,131072,131072
283.251,8.14109e-09,0,131072,131072
283.3,8.14404e-09,0,131072,131072
283.35,8.14653e-09,0,131072,131072
283.4,8.15134e-09,0,131072,131072
283.451,8.16333e-09,0,131072,131072
283.5,8.1868e-09,0,131072,131072
283.55,8.22389e-09,0,131072,131072
283.601,8.27357e-09,0,131072,131072
283.65,8.33111e-09,0,131072,131072
283.7,8.39975e-09,0,131072,131072
283.75,8.49531e-09,0,131072,131072
283.801,8.6447e-09,0,131072,131072
283.85,8.85605e-09,0,131072,131072
283.9,9.11684e-09,0,131072,131072
283.95,9.39706e-09,0,131072,131072
284.001,9.68216e-09,0,131072,131072
284.05,9.97486e-09,0,131072,131072
284.1,1.03136e-08,0,131072,131072
284.151,1.07424e-08,0,131072,131072
284.2,1.12743e-08,0,131072,131072
284.25,1.19277e-08,0,131072,131072
284.3,1.27104e-08,0,131072,131072
284.351,1.36503e-08,0,131072,131072
284.4,1.47439e-08,0,131072,131072
284.45,1.60318e-08,0,131072,131072
284.501,1.75581e-08,0,131072,131072
284.551,1.9286e-08,0,131072,131072
284.6,2.1234e-08,0,131072,131072
284.65,2.34014e-08,0,131072,131072
284.701,2.58309e-08,0,131072,131072
284.75,2.84609e-08,0,131072,131072
284.8,3.13249e-08,0,131072,131072
284.85,3.44036e-08,0,131072,131072
284.901,3.77062e-08,0,131072,131072
284.95,4.10867e-08,0,131072,131072
285,4.45518e-08,0,131072,131072
285.051,4.81415e-08,0,131072,131072
285.1,5.17626e-08,0,131072,131072
285.15,5.54713e-08,0,131072,131072
285.2,5.92344e-08,0,131072,131072
285.251,6.30406e-08,0,131072,131072
285.3,6.67505e-08,0,131072,131072
285.35,7.05274e-08,0,131072,131072
285.401,7.47164e-08,0,131072,131072
285.451,7.95619e-08,0,131072,131072
285.5,8.53684e-08,0,131072,131072
285.55,9.20965e-08,0,131072,131072
285.601,9.9497e-08,0,131072,131072
285.65,1.06813e-07,0,131072,131072
285.7,1.13677e-07,0,131072,131072
285.75,1.19897e-07,0,131072,131072
285.801,1.2574e-07,0,131072,131072
285.85,1.31553e-07,0,131072,131072
285.9,1.38079e-07,0,131072,131072
285.951,1.46038e-07,0,131072,131072
286,1.55603e-07,0,131072,131072
286.05,1.67118e-07,0,131072,131072
286.1,1.80813e-07,0,131072,131072
286.151,1.97329e-07,0,131072,131072
286.2,2.16768e-07,0,131072,131072
286.25,2.39995e-07,0,131072,131072
286.3,2.67509e-07,0,131072,131072
286.351,2.99936e-07,0,131072,131072
286.4,3.35979e-07,0,131072,131072
286.45,3.75338e-07,0,131072,131072
286.501,4.17784e-07,0,131072,131072
286.55,4.61387e-07,0,131072,131072
286.6,5.06329e-07,0,131072,131072
286.65,5.52265e-07,0,131072,131072
286.701,5.99214e-07,0,131072,131072
286.75,6.44519e-07,0,131072,131072
286.8,6.8697e-07,0,131072,131072
286.851,7.24934e-07,0,131072,131072
286.9,7.55437e-07,0,131072,131072
286.95,7.77943e-07,0,131072,131072
287,7.92235e-07,0,131072,131072
287.051,7.98957e-07,0,131072,131072
287.1,7.99038e-07,0,131072,131072
287.15,7.93835e-07,0,131072,131072
287.2,7.843e-07,0,131072,131072
287.251,7.70704e-07,0,131072,131072
287.3,7.5345e-07,0,131072,131072
287.35,7.32001e-07,0,131072,131072
287.401,7.05376e-07,0,131072,131072
287.45,6.73812e-07,0,131072,131072
287.5,6.3669e-07,0,131072,131072
287.55,5.94208e-07,0,131072,131072
287.601,5.4643e-07,0,131072,131072
287.65,4.96111e-07,0,131072,131072
287.7,4.44308e-07,0,131072,131072
287.751,3.92036e-07,0,131072,131072
287.801,3.42325e-07,0,131072,131072
287.85,2.9544e-07,0,131072,131072
287.9,2.51897e-07,0,131072,131072
287.951,2.11218e-07,0,131072,131072
288,1.74382e-07,0,131072,131072
288.05,1.40483e-07,0,131072,131072
288.1,1.09312e-07,0,131072,131072
288.151,8.04785e-08,0,131072,131072
288.2,5.5063e-08,0,131072,131072
288.25,3.29712e-08,0,131072,131072
288.301,1.41479e-08,0,131072,131072
288.35,-1.05944e-09,0,131072,131072
288.4,-1.35699e-08,0,131072,131072
288.45,-2.41986e-08,0,131072,131072
288.501,-3.37234e-08,0,131072,131072
288.55,-4.20871e-08,0,131072,131072
288.6,-4.9234e-08,0,131072,131072
288.651,-5.48739e-08,0,131072,131072
288.701,-5.86407e-08,0,131072,131072
288.75,-6.07736e-08,0,131072,131072
288.8,-6.17336e-08,0,131072,131072
288.851,-6.21049e-08,0,131072,131072
288.9,-6.23244e-08,0,131072,131072
288.95,-6.25179e-08,0,131072,131072
289,-6.24669e-08,0,131072,131072
289.051,-6.17653e-08,0,131072,131072
289.1,-6.01141e-08,0,131072,131072
289.15,-5.7444e-08,0,131072,131072
289.201,-5.38968e-08,0,131072,131072
289.25,-4.9917e-08,0,131072,131072
289.3,-4.57819e-08,0,131072,131072
289.35,-4.17107e-08,0,131072,131072
289.401,-3.77597e-08,0,131072,131072
289.45,-3.40938e-08,0,131072,131072
289.5,-3.06867e-08,0,131072,131072
289.551,-2.75239e-08,0,131072,131072
289.601,-2.47123e-08,0,131072,131072
289.65,-2.21915e-08,0,131072,131072
289.7,-1.9927e-08,0,131072,131072
289.751,-1.78531e-08,0,131072,131072
289.8,-1.60085e-08,0,131072,131072
289.85,-1.43582e-08,0,131072,131072
289.9,-1.29065e-08,0,131072,131072
289.951,-1.16379e-08,0,131072,131072
290,-1.05837e-08,0,131072,131072
290.05,-9.71327e-09,0,131072,131072
290.101,-9.00342e-09,0,131072,131072
290.15,-8.45913e-09,0,131072,131072
290.2,-8.05263e-09,0,131072,131072
290.25,-7.76707e-09,0,131072,131072
290.301,-7.5832e-09,0,131072,131072
290.35,-7.48915e-09,0,131072,131072
290.4,-7.46581e-09,0,131072,131072
290.45,-7.49989e-09,0,131072,131072
290.501,-7.58271e-09,0,131072,131072
290.55,-7.70451e-09,0,131072,131072
290.6,-7.8607e-09,0,131072,131072
290.651,-8.04899e-09,0,131072,131072
290.7,-8.25779e-09,0,131072,131072
290.75,-8.48243e-09,0,131072,131072
290.8,-8.71518e-09,0,131072,131072
290.851,-8.95235e-09,0,131072,131072
290.9,-9.18162e-09,0,131072,131072
290.95,-9.40325e-09,0,131072,131072
291.001,-9.61904e-09,0,131072,131072
291.051,-9.82239e-09,0,131072,131072
291.1,-1.0016e-08,0,131072,131072
291.15,-1.01987e-08,0,131072,131072
291.201,-1.03708e-08,0,131072,131072
291.25,-1.05251e-08,0,131072,131072
291.3,-1.06622e-08,0,131072,131072
291.35,-1.07809e-08,0,131072,131072
291.401,-1.08821e-08,0,131072,131072
291.45,-1.09631e-08,0,131072,131072
291.5,-1.10263e-08,0,131072,131072
291.551,-1.10741e-08,0,131072,131072
291.6,-1.11075e-08,0,131072,131072
291.65,-1.11299e-08,0,131072,131072
291.7,-1.11434e-08,0,131072,131072
291.751,-1.11496e-08,0,131072,131072
291.8,-1.11488e-08,0,131072,131072
291.85,-1.11416e-08,0,131072,131072
291.901,-1.11285e-08,0,131072,131072
291.951,-1.11114e-08,0,131072,131072
292,-1.10919e-08,0,131072,131072
292.05,-1.10719e-08,0,131072,131072
292.101,-1.10526e-08,0,131072,131072
292.15,-1.10355e-08,0,131072,131072
292.2,-1.10205e-08,0,131072,131072
292.25,-1.10076e-08,0,131072,131072
292.301,-1.09969e-08,0,131072,131072
292.35,-1.09894e-08,0,131072,131072
292.4,-1.09858e-08,0,131072,131072
292.451,-1.09872e-08,0,131072,131072
292.5,-1.09941e-08,0,131072,131072
292.55,-1.10069e-08,0,131072,131072
292.6,-1.10256e-08,0,131072,131072
292.651,-1.10504e-08,0,131072,131072
292.7,-1.10806e-08,0,131072,131072
292.75,-1.11166e-08,0,131072,131072
292.8,-1.11588e-08,0,131072,131072
292.851,-1.12081e-08,0,131072,131072
292.9,-1.12632e-08,0,131072,131072
292.95,-1.1325e-08,0,131072,131072
293.001,-1.13943e-08,0,131072,131072
293.05,-1.1469e-08,0,131072,131072
293.1,-1.15496e-08,0,131072,131072
293.15,-1.1636e-08,0,131072,131072
293.201,-1.17295e-08,0,131072,131072
293.25,-1.18275e-08,0,131072,131072
293.3,-1.19318e-08,0,131072,131072
293.351,-1.20448e-08,0,131072,131072
293.401,-1.21643e-08,0,131072,131072
293.45,-1.22929e-08,0,131072,131072
293.5,-1.24321e-08,0,131072,131072
293.551,-1.25859e-08,0,131072,131072
293.6,-1.27517e-08,0,131072,131072
293.65,-1.29339e-08,0,131072,131072
293.7,-1.31344e-08,0,131072,131072
293.751,-1.33587e-08,0,131072,131072
293.8,-1.36018e-08,0,131072,131072
293.85,-1.38682e-08,0,131072,131072
293.901,-1.41631e-08,0,131072,131072
293.95,-1.44784e-08,0,131072,131072
294,-1.48182e-08,0,131072,131072
294.05,-1.51817e-08,0,131072,131072
294.101,-1.55737e-08,0,131072,131072
294.15,-1.59803e-08,0,131072,131072
294.2,-1.6404e-08,0,131072,131072
294.251,-1.68471e-08,0,131072,131072
294.301,-1.72923e-08,0,131072,131072
294.35,-1.77411e-08,0,131072,131072
294.4,-1.81887e-08,0,131072,131072
294.451,-1.86375e-08,0,131072,131072
294.5,-1.90706e-08,0,131072,131072
294.55,-1.94916e-08,0,131072,131072
294.6,-1.98977e-08,0,131072,131072
294.651,-2.02917e-08,0,131072,131072
294.7,-2.06598e-08,0,131072,131072
294.75,-2.10051e-08,0,131072,131072
294.801,-2.13293e-08,0,131072,131072
294.85,-2.16202e-08,0,131072,131072
294.9,-2.18803e-08,0,131072,131072
294.95,-2.21073e-08,0,131072,131072
295.001,-2.23026e-08,0,131072,131072
295.05,-2.24599e-08,0,131072,131072
295.1,-2.25828e-08,0,131072,131072
295.15,-2.26723e-08,0,131072,131072
295.201,-2.27311e-08,0,131072,131072
295.25,-2.27596e-08,0,131072,131072
295.3,-2.27613e-08,0,131072,131072
295.351,-2.27383e-08,0,131072,131072
295.4,-2.26935e-08,0,131072,131072
295.45,-2.26292e-08,0,131072,131072
295.5,-2.25476e-08,0,131072,131072
295.551,-2.24494e-08,0,131072,131072
295.6,-2.23399e-08,0,131072,131072
295.65,-2.222e-08,0,131072,131072
295.701,-2.20898e-08,0,131072,131072
295.751,-2.19551e-08,0,131072,131072
295.8,-2.18155e-08,0,131072,131072
295.85,-2.16724e-08,0,131072,131072
295.901,-2.15247e-08,0,131072,131072
295.95,-2.13777e-08,0,131072,131072
296,-2.12304e-08,0,131072,131072
296.05,-2.10837e-08,0,131072,131072
296.101,-2.09365e-08,0,131072,131072
296.15,-2.07939e-08,0,131072,131072
296.2,-2.06541e-08,0,131072,131072
296.251,-2.05157e-08,0,131072,131072
296.3,-2.03829e-08,0,131072,131072
296.35,-2.02538e-08,0,131072,131072
296.4,-2.01288e-08,0,131072,131072
296.451,-2.00065e-08,0,131072,131072
296.5,-1.98909e-08,0,131072,131072
296.55,-1.97803e-08,0,131072,131072
296.601,-1.96734e-08,0,131072,131072
296.651,-1.95735e-08,0,131072,131072
296.7,-1.94787e-08,0,131072,131072
296.75,-1.93888e-08,0,131072,131072
296.801,-1.93024e-08,0,131072,131072
296.85,-1.92216e-08,0,131072,131072
296.9,-1.91447e-08,0,131072,131072
296.95,-1.90713e-08,0,131072,131072
297.001,-1.9e-08,0,131072,131072
297.05,-1.89326e-08,0,131072,131072
297.1,-1.88677e-08,0,131072,131072
297.151,-1.88039e-08,0,131072,131072
297.2,-1.87428e-08,0,131072,131072
297.25,-1.86831e-08,0,131072,131072
297.3,-1.86246e-08,0,131072,131072
297.351,-1.85661e-08,0,131072,131072
297.4,-1.85091e-08,0,131072,131072
297.45,-1.84524e-08,0,131072,131072
297.5,-1.83959e-08,0,131072,131072
297.551,-1.83385e-08,0,131072,131072
297.6,-1.82817e-08,0,131072,131072
297.65,-1.82245e-08,0,131072,131072
297.701,-1.8166e-08,0,131072,131072
297.75,-1.81076e-08,0,131072,131072
297.8,-1.80484e-08,0,131072,131072
297.85,-1.79884e-08,0,131072,131072
297.901,-1.79265e-08,0,131072,131072
297.95,-1.78644e-08,0,131072,131072
298,-1.78013e-08,0,131072,131072
298.051,-1.77359e-08,0,131072,131072
298.1,-1.76702e-08,0,131072,131072
298.15,-1.76031e-08,0,131072,131072
298.2,-1.75345e-08,0,131072,131072
298.251,-1.74632e-08,0,131072,131072
298.3,-1.73912e-08,0,131072,131072
298.35,-1.73171e-08,0,131072,131072
298.4,-1.72408e-08,0,131072,131072
298.451,-1.71609e-08,0,131072,131072
298.5,-1.70794e-08,0,131072,131072
298.55,-1.69951e-08,0,131072,131072
298.601,-1.69062e-08,0,131072,131072
298.65,-1.68151e-08,0,131072,131072
298.7,-1.67203e-08,0,131072,131072
298.75,-1.66215e-08,0,131072,131072
298.801,-1.65169e-08,0,131072,131072
298.85,-1.64093e-08,0,131072,131072
298.9,-1.62971e-08,0,131072,131072
298.951,-1.61784e-08,0,131072,131072
299.001,-1.60565e-08,0,131072,131072
299.05,-1.59297e-08,0,131072,131072
299.1,-1.57979e-08,0,131072,131072
299.151,-1.5659e-08,0,131072,131072
299.2,-1.55172e-08,0,131072,131072
299.25,-1.53704e-08,0,131072,131072
299.3,-1.52186e-08,0,131072,131072
299.351,-1.50594e-08,0,131072,131072
299.4,-1.48973e-08,0,131072,131072
299.45,-1.47299e-08,0,131072,131072
299.501,-1.45542e-08,0,131072,131072
299.55,-1.43752e-08,0,131072,131072
299.6,-1.41901e-08,0,131072,131072
299.65,-1.39991e-08,0,131072,131072
299.701,-1.37994e-08,0,131072,131072
299.75,-1.35969e-08,0,131072,131072
299.8,-1.3389e-08,0,131072,131072
299.851,-1.31726e-08,0,131072,131072
299.901,-1.29538e-08,0,131072,131072
299.95,-1.27289e-08,0,131072,131072
300,-1.24971e-08,0,131072,131072
300.051,-1.22537e-08,0,131072,131072
300.1,-1.20043e-08,0,131072,131072
300.15,-1.17437e-08,0,131072,131072
300.2,-1.14698e-08,0,131072,131072
300.251,-1.11761e-08,0,131072,131072
300.3,-1.08687e-08,0,131072,131072
300.35,-1.05407e-08,0,131072,131072
300.401,-1.01847e-08,0,131072,131072
300.45,-9.80867e-09,0,131072,131072
300.5,-9.40604e-09,0,131072,131072
300.55,-8.97556e-09,0,131072,131072
300.601,-8.50952e-09,0,131072,131072
300.65,-8.02131e-09,0,131072,131072
300.7,-7.50496e-09,0,131072,131072
300.75,-6.96186e-09,0,131072,131072
300.801,-6.38588e-09,0,131072,131072
300.85,-5.79713e-09,0,131072,131072
300.9,-5.19176e-09,0,131072,131072
300.951,-4.56565e-09,0,131072,131072
301,-3.9424e-09,0,131072,131072
301.05,-3.31838e-09,0,131072,131072
301.1,-2.6987e-09,0,131072,131072
301.151,-2.07904e-09,0,131072,131072
301.2,-1.48147e-09,0,131072,131072
301.25,-9.00572e-10,0,131072,131072
301.301,-3.31624e-10,0,131072,131072
301.351,2.05564e-10,0,131072,131072
301.4,7.16229e-10,0,131072,131072
301.45,1.19728e-09,0,131072,131072
301.501,1.65193e-09,0,131072,131072
301.55,2.06389e-09,0,131072,131072
301.6,2.43739e-09,0,131072,131072
301.65,2.77061e-09,0,131072,131072
301.701,3.06665e-09,0,131072,131072
301.75,3.31697e-09,0,131072,131072
301.8,3.52717e-09,0,131072,131072
301.851,3.70124e-09,0,131072,131072
301.9,3.83649e-09,0,131072,131072
301.95,3.93838e-09,0,131072,131072
302,4.00974e-09,0,131072,131072
302.051,4.05383e-09,0,131072,131072
302.1,4.0722e-09,0,131072,131072
302.15,4.06843e-09,0,131072,131072
302.201,4.0448e-09,0,131072,131072
302.251,4.00474e-09,0,131072,131072
302.3,3.95073e-09,0,131072,131072
302.35,3.88529e-09,0,131072,131072
302.401,3.80958e-09,0,131072,131072
302.45,3.72786e-09,0,131072,131072
302.5,3.64086e-09,0,131072,131072
302.55,3.55015e-09,0,131072,131072
302.601,3.45578e-09,0,131072,131072
302.65,3.36178e-09,0,131072,131072
302.7,3.26795e-09,0,131072,131072
302.751,3.17391e-09,0,131072,131072
302.8,3.0831e-09,0,131072,131072
302.85,2.99471e-09,0,131072,131072
302.9,2.90921e-09,0,131072,131072
302.951,2.82594e-09,0,131072,131072
303,2.74794e-09,0,131072,131072
303.05,2.67468e-09,0,131072,131072
303.1,2.60693e-09,0,131072,131072
303.151,2.54447e-09,0,131072,131072
303.2,2.4896e-09,0,131072,131072
303.25,2.44165e-09,0,131072,131072
303.301,2.40014e-09,0,131072,131072
303.35,2.36619e-09,0,131072,131072
303.4,2.33895e-09,0,131072,131072
303.45,2.31808e-09,0,131072,131072
303.501,2.30287e-09,0,131072,131072
303.55,2.29305e-09,0,131072,131072
303.6,2.28748e-09,0,131072,131072
303.651,2.28521e-09,0,131072,131072
303.701,2.28541e-09,0,131072,131072
303.75,2.28725e-09,0,131072,131072
303.8,2.29012e-09,0,131072,131072
303.851,2.29347e-09,0,131072,131072
303.9,2.29655e-09,0,131072,131072
303.95,2.29869e-09,0,131072,131072
304,2.29914e-09,0,131072,131072
304.051,2.29725e-09,0,131072,131072
304.1,2.29281e-09,0,131072,131072
304.15,2.28602e-09,0,131072,131072
304.201,2.27736e-09,0,131072,131072
304.25,2.268e-09,0,131072,131072
304.3,2.25875e-09,0,131072,131072
304.35,2.25032e-09,0,131072,131072
304.401,2.24293e-09,0,131072,131072
304.45,2.23671e-09,0,131072,131072
304.5,2.23115e-09,0,131072,131072
304.551,2.22562e-09,0,131072,131072
304.601,2.21976e-09,0,131072,131072
304.65,2.21321e-09,0,131072,131072
304.7,2.206e-09,0,131072,131072
304.751,2.19838e-09,0,131072,131072
304.8,2.19123e-09,0,131072,131072
304.85,2.18518e-09,0,131072,131072
304.9,2.18097e-09,0,131072,131072
304.951,2.17906e-09,0,131072,131072
