250,0,0,512,512
250.012,0,0,512,512
250.059,0,0,512,512
250.105,0,0,512,512
250.152,0,0,512,512
250.211,0,0,512,512
250.258,0,0,512,512
250.305,0,0,512,512
250.352,0,0,512,512
250.41,0,0,512,512
250.457,0,0,512,512
250.504,0,0,512,512
250.551,0,0,512,512
250.609,0,0,512,512
250.656,0,0,512,512
250.703,0,0,512,512
250.762,0,0,512,512
250.808,0,0,512,512
250.855,0,0,512,512
250.902,0,0,512,512
250.961,2.77556e-17,0,512,512
251.008,2.77556e-17,0,512,512
251.055,2.77556e-17,0,512,512
251.101,0,0,512,512
251.16,0,0,512,512
251.207,0,0,512,512
251.254,0,0,512,512
251.301,0,0,512,512
251.359,0,0,512,512
251.406,0,0,512,512
251.453,0,0,512,512
251.511,0,0,512,512
251.558,0,0,512,512
251.605,0,0,512,512
251.652,0,0,512,512
251.711,0,0,512,512
251.758,0,0,512,512
251.804,0,0,512,512
251.851,0,0,512,512
251.91,0,0,512,512
251.957,0,0,512,512
252.004,0,0,512,512
252.05,0,0,512,512
252.109,0,0,512,512
252.156,0,0,512,512
252.203,0,0,512,512
252.261,0,0,512,512
252.308,0,0,512,512
252.355,0,0,512,512
252.402,0,0,512,512
252.461,0,0,512,512
252.507,-2.77556e-17,0,512,512
252.554,-2.77556e-17,0,512,512
252.601,-2.77556e-17,0,512,512
252.66,-2.77556e-17,0,512,512
252.707,-2.77556e-17,0,512,512
252.754,-2.77556e-17,0,512,512
252.8,0,0,512,512
252.859,0,0,512,512
252.906,-2.77556e-17,0,512,512
252.953,-2.77556e-17,0,512,512
253.011,-2.77556e-17,0,512,512
253.058,-2.77556e-17,0,512,512
253.105,-2.77556e-17,0,512,512
253.152,-2.77556e-17,0,512,512
253.21,-2.77556e-17,0,512,512
253.257,-2.77556e-17,0,512,512
253.304,-2.77556e-17,0,512,512
253.351,0,0,512,512
253.41,0,0,512,512
253.457,0,0,512,512
253.503,0,0,512,512
253.55,0,0,512,512
253.609,0,0,512,512
253.656,0,0,512,512
253.703,0,0,512,512
253.761,0,0,512,512
253.808,0,0,512,512
253.855,0,0,512,512
253.902,-2.77556e-17,0,512,512
253.96,-2.77556e-17,0,512,512
254.007,-2.77556e-17,0,512,512
254.054,0,0,512,512
254.101,-2.77556e-17,0,512,512
254.16,0,0,512,512
254.206,0,0,512,512
254.253,0,0,512,512
254.3,0,0,512,512
254.359,0,0,512,512
254.406,0,0,512,512
254.452,0,0,512,512
254.511,0,0,512,512
254.558,0,0,512,512
254.605,0,0,512,512
254.652,-2.77556e-17,0,512,512
254.71,-2.77556e-17,0,512,512
254.757,-2.77556e-17,0,512,512
254.804,-2.77556e-17,0,512,512
254.851,-2.77556e-17,0,512,512
254.909,-2.77556e-17,0,512,512
254.956,0,0,512,512
255.003,0,0,512,512
255.05,0,0,512,512
255.109,0,0,512,512
255.155,0,0,512,512
255.202,0,0,512,512
255.261,0,0,512,512
255.308,0,0,512,512
255.355,0,0,512,512
255.402,0,0,512,512
255.46,0,0,512,512
255.507,0,0,512,512
255.554,0,0,512,512
255.601,0,0,512,512
255.659,0,0,512,512
255.706,0,0,512,512
255.753,0,0,512,512
255.812,0,0,512,512
255.859,0,0,512,512
255.905,0,0,512,512
255.952,-2.77556e-17,0,512,512
256.011,-2.77556e-17,0,512,512
256.058,-2.77556e-17,0,512,512
256.105,-2.77556e-17,0,512,512
256.151,-2.77556e-17,0,512,512
256.21,-2.77556e-17,0,512,512
256.257,-2.77556e-17,0,512,512
256.304,-2.77556e-17,0,512,512
256.351,-2.77556e-17,0,512,512
256.409,-2.77556e-17,0,512,512
256.456,-2.77556e-17,0,512,512
256.503,0,0,512,512
256.562,0,0,512,512
256.608,0,0,512,512
256.655,-2.77556e-17,0,512,512
256.702,-2.77556e-17,0,512,512
256.761,-2.77556e-17,0,512,512
256.808,-5.55112e-17,0,512,512
256.854,-5.55112e-17,0,512,512
256.901,-5.55112e-17,0,512,512
256.96,-5.55112e-17,0,512,512
257.007,-5.55112e-17,0,512,512
257.054,-5.55112e-17,0,512,512
257.101,-5.55112e-17,0,512,512
257.159,-5.55112e-17,0,512,512
257.206,-5.55112e-17,0,512,512
257.253,-5.55112e-17,0,512,512
257.311,-2.77556e-17,0,512,512
257.358,-2.77556e-17,0,512,512
257.405,-2.77556e-17,0,512,512
257.452,-2.77556e-17,0,512,512
257.511,-2.77556e-17,0,512,512
257.557,0,0,512,512
257.604,-2.77556e-17,0,512,512
257.651,0,0,512,512
257.71,0,0,512,512
257.757,0,0,512,512
257.804,0,0,512,512
257.85,-2.77556e-17,0,512,512
257.909,-2.77556e-17,0,512,512
257.956,0,0,512,512
258.003,0,0,512,512
258.061,0,0,512,512
258.108,0,0,512,512
258.155,0,0,512,512
258.202,0,0,512,512
258.261,2.77556e-17,0,512,512
258.307,0,0,512,512
258.354,0,0,512,512
258.401,0,0,512,512
258.46,0,0,512,512
258.507,0,0,512,512
258.553,0,0,512,512
258.6,-2.77556e-17,0,512,512
258.659,2.77556e-17,0,512,512
258.706,5.55112e-17,0,512,512
258.753,2.77556e-17,0,512,512
258.811,2.77556e-17,0,512,512
258.858,5.55112e-17,0,512,512
258.905,2.77556e-17,0,512,512
258.952,2.77556e-17,0,512,512
259.01,2.77556e-17,0,512,512
259.057,2.77556e-17,0,512,512
259.104,2.77556e-17,0,512,512
259.151,2.77556e-17,0,512,512
259.21,0,0,512,512
259.256,0,0,512,512
259.303,0,0,512,512
259.35,0,0,512,512
259.409,0,0,512,512
259.456,0,0,512,512
259.503,0,0,512,512
259.561,0,0,512,512
259.608,0,0,512,512
259.655,0,0,512,512
259.702,0,0,512,512
259.76,0,0,512,512
259.807,0,0,512,512
259.854,0,0,512,512
259.901,2.77556e-17,0,512,512
259.959,0,0,512,512
260.006,2.77556e-17,0,512,512
260.053,2.77556e-17,0,512,512
260.1,2.77556e-17,0,512,512
260.159,2.77556e-17,0,512,512
260.206,2.77556e-17,0,512,512
260.252,2.77556e-17,0,512,512
260.311,2.77556e-17,0,512,512
260.358,2.77556e-17,0,512,512
260.405,2.77556e-17,0,512,512
260.452,2.77556e-17,0,512,512
260.51,2.77556e-17,0,512,512
260.557,5.55112e-17,0,512,512
260.604,5.55112e-17,0,512,512
260.651,5.55112e-17,0,512,512
260.709,2.77556e-17,0,512,512
260.756,0,0,512,512
260.803,0,0,512,512
260.862,0,0,512,512
260.909,0,0,512,512
260.955,0,0,512,512
261.002,0,0,512,512
261.061,2.77556e-17,0,512,512
261.108,2.77556e-17,0,512,512
261.155,0,0,512,512
261.201,2.77556e-17,0,512,512
261.26,-2.77556e-17,0,512,512
261.307,0,0,512,512
261.354,0,0,512,512
261.401,0,0,512,512
261.459,0,0,512,512
261.506,2.77556e-17,0,512,512
261.553,2.77556e-17,0,512,512
261.612,0,0,512,512
261.658,-2.77556e-17,0,512,512
261.705,0,0,512,512
261.752,2.77556e-17,0,512,512
261.811,2.77556e-17,0,512,512
261.858,0,0,512,512
261.905,2.77556e-17,0,512,512
261.951,2.77556e-17,0,512,512
262.01,-5.55112e-17,0,512,512
262.057,-2.77556e-17,0,512,512
262.104,0,0,512,512
262.151,0,0,512,512
262.209,-2.77556e-17,0,512,512
262.256,-2.77556e-17,0,512,512
262.303,-2.77556e-17,0,512,512
262.361,-2.77556e-17,0,512,512
262.408,0,0,512,512
262.455,0,0,512,512
262.502,0,0,512,512
262.561,0,0,512,512
262.608,0,0,512,512
262.654,2.77556e-17,0,512,512
262.701,2.77556e-17,0,512,512
262.76,0,0,512,512
262.807,0,0,512,512
262.854,0,0,512,512
262.9,0,0,512,512
262.959,0,0,512,512
263.006,0,0,512,512
263.053,0,0,512,512
263.111,0,0,512,512
263.158,-2.77556e-17,0,512,512
263.205,0,0,512,512
263.252,0,0,512,512
263.311,0,0,512,512
263.357,0,0,512,512
263.404,0,0,512,512
263.451,2.77556e-17,0,512,512
263.51,2.77556e-17,0,512,512
263.557,0,0,512,512
263.603,-2.77556e-17,0,512,512
263.65,-2.77556e-17,0,512,512
263.709,-2.77556e-17,0,512,512
263.756,0,0,512,512
263.803,0,0,512,512
263.861,0,0,512,512
263.908,0,0,512,512
263.955,-2.77556e-17,0,512,512
264.002,-2.77556e-17,0,512,512
264.06,-2.77556e-17,0,512,512
264.107,-2.77556e-17,0,512,512
264.154,0,0,512,512
264.201,-2.77556e-17,0,512,512
264.26,0,0,512,512
264.306,0,0,512,512
264.353,-5.55112e-17,0,512,512
264.4,-2.77556e-17,0,512,512
264.459,-2.77556e-17,0,512,512
264.506,-2.77556e-17,0,512,512
264.553,-2.77556e-17,0,512,512
264.611,-2.77556e-17,0,512,512
264.658,-2.77556e-17,0,512,512
264.705,0,0,512,512
264.752,0,0,512,512
264.81,-2.77556e-17,0,512,512
264.857,-2.77556e-17,0,512,512
264.904,0,0,512,512
264.951,0,0,512,512
265.01,0,0,512,512
265.056,0,0,512,512
265.103,0,0,512,512
265.15,0,0,512,512
265.209,0,0,512,512
265.256,0,0,512,512
265.302,0,0,512,512
265.361,0,0,512,512
265.408,0,0,512,512
265.455,0,0,512,512
265.502,0,0,512,512
265.56,0,0,512,512
265.607,0,0,512,512
265.654,0,0,512,512
265.701,0,0,512,512
265.759,0,0,512,512
265.806,0,0,512,512
265.853,0,0,512,512
265.9,0,0,512,512
265.959,0,0,512,512
266.005,0,0,512,512
266.052,2.77556e-17,0,512,512
266.111,2.77556e-17,0,512,512
266.158,2.77556e-17,0,512,512
266.205,0,0,512,512
266.252,0,0,512,512
266.31,2.77556e-17,0,512,512
266.357,2.77556e-17,0,512,512
266.404,2.77556e-17,0,512,512
266.451,2.77556e-17,0,512,512
266.509,2.77556e-17,0,512,512
266.556,2.77556e-17,0,512,512
266.603,2.77556e-17,0,512,512
266.662,2.77556e-17,0,512,512
266.708,2.77556e-17,0,512,512
266.755,2.77556e-17,0,512,512
266.802,2.77556e-17,0,512,512
266.861,2.77556e-17,0,512,512
266.908,2.77556e-17,0,512,512
266.955,2.77556e-17,0,512,512
267.001,2.77556e-17,0,512,512
267.06,2.77556e-17,0,512,512
267.107,2.77556e-17,0,512,512
267.154,2.77556e-17,0,512,512
267.201,2.77556e-17,0,512,512
267.259,2.77556e-17,0,512,512
267.306,2.77556e-17,0,512,512
267.353,2.77556e-17,0,512,512
267.412,2.77556e-17,0,512,512
267.458,2.77556e-17,0,512,512
267.505,2.77556e-17,0,512,512
267.552,2.77556e-17,0,512,512
267.611,2.77556e-17,0,512,512
267.658,2.77556e-17,0,512,512
267.704,2.77556e-17,0,512,512
267.751,5.55112e-17,0,512,512
267.81,5.55112e-17,0,512,512
267.857,5.55112e-17,0,512,512
267.904,8.32667e-17,0,512,512
267.95,8.32667e-17,0,512,512
268.009,5.55112e-17,0,512,512
268.056,5.55112e-17,0,512,512
268.101,5.55112e-17,0,977,977
268.151,5.55112e-17,0,1191,1191
268.201,5.55112e-17,0,1419,1419
268.251,5.55112e-17,0,1643,1643
268.3,5.55112e-17,0,1887,1887
268.35,5.55112e-17,0,2115,2115
268.401,5.55112e-17,0,2347,2347
268.451,5.55112e-17,0,2587,2587
268.501,5.55112e-17,0,2807,2807
268.551,5.55112e-17,0,3043,3043
268.601,5.55112e-17,0,3275,3275
268.65,5.55112e-17,0,3501,3501
268.7,5.55112e-17,0,3733,3733
268.75,5.55112e-17,0,3949,3949
268.801,5.55112e-17,0,4181,4181
268.851,5.55112e-17,0,4417,4417
268.901,5.55112e-17,0,4649,4649
268.951,5.55112e-17,0,4873,4873
269,5.55112e-17,0,5091,5091
269.05,5.55112e-17,0,5315,5315
269.1,8.32667e-17,0,5539,5539
269.151,8.32667e-16,0,5775,5775
269.201,1.80411e-15,0,5989,5989
269.251,4.41314e-15,0,6215,6215
269.301,1.24623e-14,0,6431,6431
269.351,3.31124e-14,0,6653,6653
269.4,7.91311e-14,0,6881,6881
269.45,1.69281e-13,0,7087,7087
269.501,3.32984e-13,0,7285,7285
269.551,5.98632e-13,0,7497,7497
269.601,1.87536e-12,0,7725,7725
269.651,1.11203e-12,0,7947,7947
269.701,-1.24952e-10,0,8139,8139
269.75,-4.40021e-10,0,8375,8375
269.8,-5.51574e-10,0,8595,8595
269.851,-2.99759e-10,0,8811,8811
269.901,7.92269e-11,0,9027,9027
269.951,3.58593e-10,0,9257,9257
270.001,3.83193e-10,0,9481,9481
270.051,1.54801e-10,0,9713,9713
270.1,-1.28832e-10,0,9935,9935
270.15,-2.18153e-10,0,10147,10147
270.2,-3.57333e-11,0,10367,10367
270.251,2.50221e-10,0,10581,10581
270.301,3.61435e-10,0,10809,10809
270.351,2.17475e-10,0,11019,11019
270.401,-2.79839e-11,0,11247,11247
270.45,-1.44286e-10,0,11463,11463
270.5,-4.08756e-11,0,11671,11671
270.55,1.67526e-10,0,11881,11881
270.601,2.97181e-10,0,12113,12113
270.651,2.5331e-10,0,12323,12323
270.701,1.03868e-10,0,12541,12541
270.751,-3.30829e-11,0,12743,12743
270.801,-7.5317e-11,0,12953,12953
270.85,-1.46905e-12,0,13175,13175
270.9,1.64696e-10,0,13383,13383
270.951,3.41478e-10,0,13597,13597
271.001,3.66764e-10,0,13817,13817
271.051,1.34492e-10,0,14009,14009
271.101,-2.45604e-10,0,14223,14223
271.151,-4.08632e-10,0,14435,14435
271.2,-2.54328e-11,0,14635,14635
271.25,7.28505e-10,0,14841,14841
271.301,1.08296e-09,0,15037,15037
271.351,2.98086e-10,0,15261,15261
271.401,-1.22772e-09,0,15455,15455
271.451,-1.88449e-09,0,15651,15651
271.501,4.00924e-11,0,15863,15863
271.55,4.90107e-09,0,16049,16049
271.6,1.14353e-08,0,16261,16261
271.651,1.80496e-08,0,16469,16469
271.701,2.31495e-08,0,16655,16655
271.751,2.65414e-08,0,16851,16851
271.801,2.84019e-08,0,17053,17053
271.851,2.96915e-08,0,17253,17253
271.9,3.21186e-08,0,17447,17447
271.95,3.73063e-08,0,17635,17635
272,4.56972e-08,0,17827,17827
272.051,5.67926e-08,0,18025,18025
272.101,6.89554e-08,0,18227,18227
272.151,8.26198e-08,0,18415,18415
272.201,9.91499e-08,0,18613,18613
272.25,1.20236e-07,0,18793,18793
272.3,1.47161e-07,0,18995,18995
272.35,1.80647e-07,0,19171,19171
272.401,2.21989e-07,0,19379,19379
272.451,2.67376e-07,0,19551,19551
272.501,3.15185e-07,0,19735,19735
272.551,3.63112e-07,0,19919,19919
272.601,4.11236e-07,0,20099,20099
272.65,4.61939e-07,0,20279,20279
272.7,5.17304e-07,0,20477,20477
272.751,5.78024e-07,0,20659,20659
272.801,6.3629e-07,0,20839,20839
272.851,6.8902e-07,0,21017,21017
272.901,7.3301e-07,0,21193,21193
272.951,7.6679e-07,0,21399,21399
273,7.90066e-07,0,21551,21551
273.05,8.04117e-07,0,21739,21739
273.101,8.11709e-07,0,21925,21925
273.151,8.15071e-07,0,22099,22099
273.201,8.15823e-07,0,22279,22279
273.251,8.14037e-07,0,22453,22453
273.301,8.09224e-07,0,22627,22627
273.35,8.00525e-07,0,22803,22803
273.4,7.86821e-07,0,22981,22981
273.45,7.66982e-07,0,23169,23169
273.501,7.39171e-07,0,23335,23335
273.551,7.04312e-07,0,23531,23531
273.601,6.61861e-07,0,23689,23689
273.651,6.13643e-07,0,23883,23883
273.7,5.62861e-07,0,24043,24043
273.75,5.12667e-07,0,24217,24217
273.8,4.6503e-07,0,24401,24401
273.851,4.19585e-07,0,24567,24567
273.901,3.79227e-07,0,24747,24747
273.951,3.42352e-07,0,24933,24933
274.001,3.08327e-07,0,25087,25087
274.051,2.76462e-07,0,25279,25279
274.1,2.46175e-07,0,25437,25437
274.15,2.17052e-07,0,25611,25611
274.201,1.88449e-07,0,25803,25803
274.251,1.63327e-07,0,25957,25957
274.301,1.42884e-07,0,26137,26137
274.351,1.28203e-07,0,26311,26311
274.401,1.17774e-07,0,26465,26465
274.45,1.08188e-07,0,26657,26657
274.5,9.67365e-08,0,26815,26815
274.551,8.30936e-08,0,26997,26997
274.601,7.03213e-08,0,27177,27177
274.651,6.01948e-08,0,27327,27327
274.701,5.33434e-08,0,27511,27511
274.751,4.91531e-08,0,27681,27681
274.8,4.65171e-08,0,27835,27835
274.85,4.404e-08,0,28015,28015
274.901,4.01309e-08,0,28193,28193
274.951,3.43323e-08,0,28355,28355
275.001,2.75564e-08,0,28527,28527
275.051,2.18583e-08,0,28697,28697
275.101,1.87723e-08,0,28843,28843
275.15,1.81876e-08,0,29031,29031
275.2,1.88435e-08,0,29197,29197
275.25,1.95408e-08,0,29347,29347
275.301,1.98527e-08,0,29539,29539
275.351,1.99139e-08,0,29697,29697
275.401,1.99666e-08,0,29851,29851
275.451,2.00836e-08,0,30035,30035
275.5,2.02218e-08,0,30201,30201
275.55,2.03266e-08,0,30355,30355
275.6,2.02274e-08,0,30495,30495
275.651,1.96563e-08,0,30681,30681
275.701,1.9205e-08,0,30823,30823
275.751,1.91212e-08,0,30981,30981
275.801,1.91439e-08,0,31119,31119
275.851,1.9176e-08,0,31257,31257
275.9,1.92085e-08,0,31411,31411
275.95,1.92412e-08,0,31549,31549
276.001,1.92749e-08,0,31689,31689
276.051,1.93077e-08,0,31831,31831
276.101,1.93406e-08,0,31965,31965
276.151,1.93736e-08,0,32087,32087
276.201,1.94067e-08,0,32210,32210
276.25,1.94399e-08,0,32334,32334
276.3,1.94731e-08,0,32450,32450
276.351,1.95075e-08,0,32548,32548
276.401,1.9541e-08,0,32660,32660
276.451,1.95745e-08,0,32752,32752
276.501,1.96082e-08,0,32768,32768
276.551,1.96419e-08,0,32768,32768
276.6,1.96756e-08,0,32768,32768
276.65,1.97093e-08,0,32768,32768
276.7,1.97431e-08,0,32768,32768
276.751,1.9778e-08,0,32768,32768
276.801,1.9812e-08,0,32768,32768
276.851,1.98461e-08,0,32768,32768
276.901,1.98802e-08,0,32736,32736
276.95,1.99144e-08,0,32768,32768
277,1.99487e-08,0,32768,32768
277.05,1.99831e-08,0,32752,32752
277.101,2.00187e-08,0,32768,32768
277.151,2.00534e-08,0,32752,32752
277.201,2.00882e-08,0,32768,32768
277.251,2.01231e-08,0,32720,32720
277.301,2.01581e-08,0,32632,32632
277.35,2.01933e-08,0,32768,32768
277.4,2.02285e-08,0,32624,32624
277.451,2.0265e-08,0,32704,32704
277.501,2.03005e-08,0,32748,32748
277.551,2.03362e-08,0,32756,32756
277.601,2.03719e-08,0,32712,32712
277.651,2.04078e-08,0,32744,32744
277.7,2.04438e-08,0,32736,32736
277.75,2.048e-08,0,32720,32720
277.801,2.05174e-08,0,32644,32644
277.851,2.05537e-08,0,32744,32744
277.901,2.05902e-08,0,32664,32664
277.951,2.06267e-08,0,32736,32736
278.001,2.06635e-08,0,32664,32664
278.05,2.07004e-08,0,32768,32768
278.1,2.07371e-08,0,32720,32720
278.15,2.07731e-08,0,32656,32656
278.201,2.08084e-08,0,32752,32752
278.251,2.08403e-08,0,32624,32624
278.301,2.08694e-08,0,32720,32720
278.351,2.08955e-08,0,32668,32668
278.4,2.09191e-08,0,32744,32744
278.45,2.09404e-08,0,32648,32648
278.5,2.09597e-08,0,32768,32768
278.551,2.09772e-08,0,32640,32640
278.601,2.09912e-08,0,32768,32768
278.651,2.10012e-08,0,32680,32680
278.701,2.10058e-08,0,32768,32768
278.75,2.10021e-08,0,32592,32592
278.8,2.09914e-08,0,32496,32496
278.85,2.09701e-08,0,32484,32484
278.901,2.09346e-08,0,32496,32496
278.951,2.08841e-08,0,32504,32504
279.001,2.08146e-08,0,32432,32432
279.051,2.07227e-08,0,32434,32434
279.101,2.06054e-08,0,32450,32450
279.15,2.046e-08,0,32404,32404
279.2,2.02847e-08,0,32458,32458
279.251,2.00715e-08,0,32394,32394
279.301,1.98309e-08,0,32528,32528
279.351,1.95562e-08,0,32450,32450
279.401,1.92464e-08,0,32394,32394
279.451,1.89017e-08,0,32410,32410
279.5,1.85235e-08,0,32376,32376
279.55,1.8115e-08,0,32424,32424
279.601,1.76675e-08,0,32486,32486
279.651,1.72118e-08,0,32426,32426
279.701,1.67406e-08,0,32360,32360
279.751,1.62588e-08,0,32440,32440
279.801,1.57702e-08,0,32376,32376
279.85,1.52779e-08,0,32348,32348
279.9,1.47845e-08,0,32306,32306
279.95,1.42924e-08,0,32284,32284
280.001,1.37899e-08,0,32408,32408
280.051,1.33086e-08,0,32358,32358
280.101,1.28376e-08,0,32296,32296
280.151,1.23807e-08,0,32394,32394
280.2,1.1942e-08,0,32412,32412
280.25,1.15255e-08,0,32406,32406
280.3,1.11348e-08,0,32492,32492
280.351,1.07619e-08,0,32602,32602
280.401,1.04297e-08,0,32596,32596
280.451,1.0127e-08,0,32584,32584
280.501,9.85283e-09,0,32672,32672
280.551,9.6058e-09,0,32632,32632
280.6,9.38406e-09,0,32530,32530
280.65,9.18582e-09,0,32674,32674
280.701,9.00461e-09,0,32646,32646
280.751,8.84933e-09,0,32460,32460
280.801,8.71321e-09,0,32582,32582
280.851,8.5949e-09,0,32464,32464
280.901,8.49278e-09,0,32576,32576
280.95,8.40489e-09,0,32456,32456
281,8.3291e-09,0,32428,32428
281.051,8.26163e-09,0,32564,32564
281.101,8.20488e-09,0,32366,32366
281.151,8.15599e-09,0,32484,32484
281.201,8.11457e-09,0,32390,32390
281.251,8.08027e-09,0,32446,32446
281.3,8.05247e-09,0,32322,32322
281.35,8.03016e-09,0,32468,32468
281.4,8.01216e-09,0,32592,32592
281.451,7.99673e-09,0,32414,32414
281.501,7.98449e-09,0,32310,32310
281.551,7.97651e-09,0,32500,32500
281.601,7.97118e-09,0,32294,32294
281.65,7.96778e-09,0,32332,32332
281.7,7.96765e-09,0,32122,32122
281.75,7.96815e-09,0,32198,32198
281.801,7.97224e-09,0,31998,31998
281.851,7.9773e-09,0,31916,31916
281.901,7.98282e-09,0,31852,31852
281.951,7.9885e-09,0,31786,31786
282.001,7.99417e-09,0,31726,31726
282.05,7.99978e-09,0,31678,31678
282.1,8.00534e-09,0,31612,31612
282.151,8.01106e-09,0,31542,31542
282.201,8.01665e-09,0,31482,31482
282.251,8.02231e-09,0,31424,31424
282.301,8.02809e-09,0,31334,31334
282.351,8.034e-09,0,31288,31288
282.4,8.04005e-09,0,31222,31222
282.45,8.04621e-09,0,31162,31162
282.501,8.05264e-09,0,31118,31118
282.551,8.05894e-09,0,31032,31032
282.601,8.06525e-09,0,31014,31014
282.651,8.07155e-09,0,30948,30948
282.701,8.07784e-09,0,30918,30918
282.75,8.08413e-09,0,30878,30878
282.8,8.09046e-09,0,30824,30824
282.851,8.09703e-09,0,30776,30776
282.901,8.10344e-09,0,30736,30736
282.951,8.10985e-09,0,30708,30708
283.001,8.11626e-09,0,30666,30666
283.051,8.12267e-09,0,30632,30632
283.1,8.12913e-09,0,30588,30588
283.15,8.13568e-09,0,30520,30520
283.2,8.14239e-09,0,30488,30488
283.251,8.14971e-09,0,30508,30508
283.301,8.15757e-09,0,30612,30612
283.351,8.16735e-09,0,30768,30768
283.401,8.1802e-09,0,30930,30930
283.45,8.19729e-09,0,31078,31078
283.5,8.22038e-09,0,31138,31138
283.55,8.25182e-09,0,31202,31202
283.601,8.29711e-09,0,31250,31250
283.651,8.35986e-09,0,31314,31314
283.701,8.44867e-09,0,31362,31362
283.751,8.57061e-09,0,31426,31426
283.801,8.72986e-09,0,31474,31474
283.85,8.92649e-09,0,31538,31538
283.9,9.15759e-09,0,31586,31586
283.951,9.42894e-09,0,31650,31650
284.001,9.7272e-09,0,31698,31698
284.051,1.00686e-08,0,31762,31762
284.101,1.04681e-08,0,31826,31826
284.151,1.09442e-08,0,31874,31874
284.2,1.15158e-08,0,31938,31938
284.25,1.22011e-08,0,31986,31986
284.301,1.30443e-08,0,32050,32050
284.351,1.40161e-08,0,32098,32098
284.401,1.51569e-08,0,32162,32162
284.451,1.64839e-08,0,32210,32210
284.501,1.80109e-08,0,32274,32274
284.55,1.9748e-08,0,32322,32322
284.6,2.1702e-08,0,32386,32386
284.65,2.38773e-08,0,32434,32434
284.701,2.63489e-08,0,32498,32498
284.751,2.89718e-08,0,32546,32546
284.801,3.18025e-08,0,32610,32610
284.851,3.48222e-08,0,32674,32674
284.9,3.80061e-08,0,32678,32678
284.95,4.13274e-08,0,32736,32736
285,4.47614e-08,0,32768,32768
285.051,4.83925e-08,0,32752,32752
285.101,5.19976e-08,0,32752,32752
285.151,5.56704e-08,0,32736,32736
285.201,5.94163e-08,0,32720,32720
285.251,6.32666e-08,0,32704,32704
285.3,6.72896e-08,0,32720,32720
285.35,7.15893e-08,0,32720,32720
285.401,7.64293e-08,0,32720,32720
285.451,8.16275e-08,0,32712,32712
285.501,8.73384e-08,0,32752,32752
285.551,9.34929e-08,0,32696,32696
285.601,9.99448e-08,0,32728,32728
285.65,1.06522e-07,0,32476,32476
285.7,1.13101e-07,0,32768,32768
285.751,1.19862e-07,0,32768,32768
285.801,1.26553e-07,0,32768,32768
285.851,1.33635e-07,0,32768,32768
285.901,1.41463e-07,0,32768,32768
285.951,1.50436e-07,0,32768,32768
286,1.60956e-07,0,32768,32768
286.05,1.73422e-07,0,32768,32768
286.1,1.88232e-07,0,32768,32768
286.151,2.0635e-07,0,32768,32768
286.201,2.27127e-07,0,32768,32768
286.251,2.51344e-07,0,32768,32768
286.301,2.7917e-07,0,32768,32768
286.35,3.10586e-07,0,32768,32768
286.4,3.45375e-07,0,32768,32768
286.45,3.83148e-07,0,32768,32768
286.501,4.24612e-07,0,32768,32768
286.551,4.66785e-07,0,32768,32768
286.601,5.10127e-07,0,32768,32768
286.651,5.53813e-07,0,32768,32768
286.701,5.96836e-07,0,32704,32704
286.75,6.37996e-07,0,32724,32724
286.8,6.75976e-07,0,32732,32732
286.851,7.10383e-07,0,32740,32740
286.901,7.38131e-07,0,32764,32764
286.951,7.59546e-07,0,32764,32764
287.001,7.74334e-07,0,32760,32760
287.051,7.82609e-07,0,32748,32748
287.1,7.8478e-07,0,32752,32752
287.15,7.81385e-07,0,32744,32744
287.201,7.72604e-07,0,32768,32768
287.251,7.59291e-07,0,32760,32760
287.301,7.41411e-07,0,32768,32768
287.351,7.18939e-07,0,32768,32768
287.401,6.91776e-07,0,32760,32760
287.45,6.59875e-07,0,32764,32764
287.5,6.2337e-07,0,32768,32768
287.551,5.81417e-07,0,32768,32768
287.601,5.37153e-07,0,32768,32768
287.651,4.90435e-07,0,32768,32768
287.701,4.42427e-07,0,32768,32768
287.751,3.94322e-07,0,32760,32760
287.8,3.47199e-07,0,32764,32764
287.85,3.01922e-07,0,32768,32768
287.9,2.59088e-07,0,32752,32752
287.951,2.17908e-07,0,32768,32768
288.001,1.8089e-07,0,32768,32768
288.051,1.46857e-07,0,32768,32768
288.101,1.15818e-07,0,32760,32760
288.15,8.77943e-08,0,32760,32760
288.2,6.28102e-08,0,32760,32760
288.25,4.08552e-08,0,32768,32768
288.301,2.13166e-08,0,32768,32768
288.351,5.09625e-09,0,32736,32736
288.401,-8.70849e-09,0,32768,32768
288.451,-2.04297e-08,0,32768,32768
288.501,-3.03565e-08,0,32764,32764
288.55,-3.86877e-08,0,32768,32768
288.6,-4.55333e-08,0,32768,32768
288.651,-5.10998e-08,0,32768,32768
288.701,-5.51574e-08,0,32768,32768
288.751,-5.80309e-08,0,32764,32764
288.801,-5.99205e-08,0,32768,32768
288.851,-6.10378e-08,0,32764,32764
288.9,-6.15492e-08,0,32768,32768
288.95,-6.15358e-08,0,32768,32768
289.001,-6.09684e-08,0,32768,32768
289.051,-5.98241e-08,0,32768,32768
289.101,-5.80474e-08,0,32768,32768
289.151,-5.56441e-08,0,32764,32764
289.201,-5.26908e-08,0,32768,32768
289.25,-4.93228e-08,0,32768,32768
289.3,-4.57035e-08,0,32768,32768
289.35,-4.19921e-08,0,32768,32768
289.401,-3.82152e-08,0,32768,32768
289.451,-3.46882e-08,0,32768,32768
289.501,-3.13651e-08,0,32768,32768
289.551,-2.82815e-08,0,32768,32768
289.6,-2.54523e-08,0,32768,32768
289.65,-2.28769e-08,0,32768,32768
289.7,-2.05459e-08,0,32768,32768
289.751,-1.83877e-08,0,32768,32768
289.801,-1.65127e-08,0,32768,32768
289.851,-1.4846e-08,0,32768,32768
289.901,-1.33802e-08,0,32768,32768
289.95,-1.21091e-08,0,32768,32768
290,-1.10258e-08,0,32768,32768
290.05,-1.01216e-08,0,32760,32760
290.101,-9.36568e-09,0,32728,32728
290.151,-8.78722e-09,0,32768,32768
290.201,-8.34675e-09,0,32732,32732
290.251,-8.02789e-09,0,32744,32744
290.301,-7.81429e-09,0,32740,32740
290.35,-7.69033e-09,0,32720,32720
290.4,-7.6419e-09,0,32694,32694
290.451,-7.65797e-09,0,32704,32704
290.501,-7.72697e-09,0,32744,32744
290.551,-7.83971e-09,0,32768,32768
290.601,-7.98858e-09,0,32768,32768
290.651,-8.16659e-09,0,32670,32670
290.7,-8.36701e-09,0,32656,32656
290.75,-8.58306e-09,0,32712,32712
290.801,-8.81492e-09,0,32708,32708
290.851,-9.04316e-09,0,32666,32666
290.901,-9.26914e-09,0,32616,32616
290.951,-9.4888e-09,0,32566,32566
291.001,-9.69915e-09,0,32632,32632
291.05,-9.89822e-09,0,32732,32732
291.1,-1.00847e-08,0,32596,32596
291.15,-1.02575e-08,0,32690,32690
291.201,-1.04204e-08,0,32768,32768
291.251,-1.05632e-08,0,32768,32768
291.301,-1.06899e-08,0,32768,32768
291.351,-1.08e-08,0,32768,32768
291.4,-1.08933e-08,0,32768,32768
291.45,-1.09699e-08,0,32530,32530
291.5,-1.10307e-08,0,32702,32702
291.551,-1.10783e-08,0,32706,32706
291.601,-1.11115e-08,0,32718,32718
291.651,-1.11339e-08,0,32682,32682
291.701,-1.11471e-08,0,32678,32678
291.751,-1.11518e-08,0,32648,32648
291.8,-1.11507e-08,0,32534,32534
291.85,-1.1143e-08,0,32654,32654
291.901,-1.1131e-08,0,32586,32586
291.951,-1.11159e-08,0,32518,32518
292.001,-1.10984e-08,0,32458,32458
292.051,-1.10801e-08,0,32478,32478
292.101,-1.10622e-08,0,32422,32422
292.15,-1.10456e-08,0,32404,32404
292.2,-1.10306e-08,0,32348,32348
292.251,-1.10176e-08,0,32124,32124
292.301,-1.10077e-08,0,32310,32310
292.351,-1.10011e-08,0,32156,32156
292.401,-1.09989e-08,0,32228,32228
292.451,-1.1e-08,0,32166,32166
292.5,-1.10064e-08,0,32076,32076
292.55,-1.10191e-08,0,31988,31988
292.6,-1.10378e-08,0,32032,32032
292.651,-1.10634e-08,0,32058,32058
292.701,-1.10944e-08,0,32068,32068
292.751,-1.11316e-08,0,32036,32036
292.801,-1.11749e-08,0,32046,32046
292.85,-1.12245e-08,0,32012,32012
292.9,-1.12804e-08,0,32016,32016
292.95,-1.13426e-08,0,32010,32010
293.001,-1.14131e-08,0,32026,32026
293.051,-1.1488e-08,0,31986,31986
293.101,-1.1569e-08,0,32000,32000
293.151,-1.16563e-08,0,31986,31986
293.201,-1.175e-08,0,31976,31976
293.25,-1.18505e-08,0,31964,31964
293.3,-1.19583e-08,0,31974,31974
293.351,-1.20776e-08,0,31964,31964
293.401,-1.22026e-08,0,31966,31966
293.451,-1.23376e-08,0,32080,32080
293.501,-1.24842e-08,0,32248,32248
293.551,-1.26437e-08,0,32354,32354
293.6,-1.28178e-08,0,32352,32352
293.65,-1.30081e-08,0,32376,32376
293.701,-1.32227e-08,0,32326,32326
293.751,-1.34508e-08,0,32340,32340
293.801,-1.36996e-08,0,32354,32354
293.851,-1.39701e-08,0,32332,32332
293.901,-1.42627e-08,0,32330,32330
293.95,-1.45777e-08,0,32344,32344
294,-1.49147e-08,0,32480,32480
294.051,-1.52835e-08,0,32676,32676
294.101,-1.56614e-08,0,32768,32768
294.151,-1.60565e-08,0,32752,32752
294.201,-1.64658e-08,0,32768,32768
294.251,-1.68862e-08,0,32768,32768
294.3,-1.7314e-08,0,32764,32764
294.35,-1.77455e-08,0,32768,32768
294.4,-1.81768e-08,0,32752,32752
294.451,-1.86165e-08,0,32752,32752
294.501,-1.90359e-08,0,32764,32764
294.551,-1.94442e-08,0,32768,32768
294.601,-1.98383e-08,0,32750,32750
294.65,-2.02153e-08,0,32768,32768
294.7,-2.05724e-08,0,32768,32768
294.75,-2.09068e-08,0,32764,32764
294.801,-2.12249e-08,0,32768,32768
294.851,-2.15062e-08,0,32760,32760
294.901,-2.17584e-08,0,32768,32768
294.951,-2.198e-08,0,32754,32754
295.001,-2.217e-08,0,32768,32768
295.05,-2.23281e-08,0,32768,32768
295.1,-2.24546e-08,0,32764,32764
295.151,-2.25525e-08,0,32764,32764
295.201,-2.26174e-08,0,32744,32744
295.251,-2.26543e-08,0,32766,32766
295.301,-2.26648e-08,0,32766,32766
295.351,-2.26512e-08,0,32720,32720
295.4,-2.2616e-08,0,32730,32730
295.45,-2.25611e-08,0,32718,32718
295.501,-2.24864e-08,0,32716,32716
295.551,-2.23985e-08,0,32710,32710
295.601,-2.22977e-08,0,32708,32708
295.651,-2.21859e-08,0,32712,32712
295.701,-2.2065e-08,0,32710,32710
295.75,-2.19369e-08,0,32704,32704
295.8,-2.18031e-08,0,32704,32704
295.85,-2.16651e-08,0,32704,32704
295.901,-2.152e-08,0,32704,32704
295.951,-2.13773e-08,0,32702,32702
296.001,-2.12339e-08,0,32686,32686
296.051,-2.10909e-08,0,32704,32704
296.1,-2.09489e-08,0,32682,32682
296.15,-2.08086e-08,0,32704,32704
296.2,-2.06708e-08,0,32704,32704
296.251,-2.0532e-08,0,32694,32694
296.301,-2.04006e-08,0,32700,32700
296.351,-2.02729e-08,0,32696,32696
296.401,-2.01492e-08,0,32698,32698
296.451,-2.00299e-08,0,32696,32696
296.5,-1.99152e-08,0,32696,32696
296.55,-1.98052e-08,0,32696,32696
296.601,-1.9697e-08,0,32656,32656
296.651,-1.95967e-08,0,32598,32598
296.701,-1.95013e-08,0,32596,32596
296.751,-1.94105e-08,0,32620,32620
296.801,-1.9324e-08,0,32600,32600
296.85,-1.92417e-08,0,32574,32574
296.9,-1.91633e-08,0,32510,32510
296.951,-1.90862e-08,0,32682,32682
297.001,-1.90144e-08,0,32696,32696
297.051,-1.89455e-08,0,32706,32706
297.101,-1.8879e-08,0,32702,32702
297.151,-1.88147e-08,0,32696,32696
297.2,-1.87522e-08,0,32712,32712
297.25,-1.86912e-08,0,32720,32720
297.3,-1.86314e-08,0,32372,32372
297.351,-1.85708e-08,0,32608,32608
297.401,-1.85127e-08,0,32624,32624
297.451,-1.8455e-08,0,32608,32608
297.501,-1.83975e-08,0,32608,32608
297.55,-1.834e-08,0,32568,32568
297.6,-1.82824e-08,0,32568,32568
297.65,-1.82244e-08,0,32552,32552
297.701,-1.81643e-08,0,32510,32510
297.751,-1.81053e-08,0,32452,32452
297.801,-1.80455e-08,0,32276,32276
297.851,-1.79849e-08,0,32170,32170
297.901,-1.79234e-08,0,32116,32116
297.95,-1.78608e-08,0,32048,32048
298,-1.77971e-08,0,31806,31806
298.051,-1.77303e-08,0,31962,31962
298.101,-1.7664e-08,0,31964,31964
298.151,-1.75963e-08,0,31956,31956
298.201,-1.75269e-08,0,31920,31920
298.251,-1.74558e-08,0,32232,32232
298.3,-1.73828e-08,0,32208,32208
298.35,-1.73078e-08,0,32244,32244
298.401,-1.72281e-08,0,32348,32348
298.451,-1.71482e-08,0,32408,32408
298.501,-1.70656e-08,0,32476,32476
298.551,-1.698e-08,0,32546,32546
298.601,-1.68912e-08,0,32600,32600
298.65,-1.6799e-08,0,32592,32592
298.7,-1.6703e-08,0,32572,32572
298.751,-1.66002e-08,0,32608,32608
298.801,-1.64961e-08,0,32640,32640
298.851,-1.63877e-08,0,32612,32612
298.901,-1.62748e-08,0,32640,32640
298.951,-1.61573e-08,0,32628,32628
299,-1.60351e-08,0,32616,32616
299.05,-1.5908e-08,0,32620,32620
299.1,-1.57761e-08,0,32624,32624
299.151,-1.5635e-08,0,32612,32612
299.201,-1.54929e-08,0,32544,32544
299.251,-1.53458e-08,0,32134,32134
299.301,-1.51934e-08,0,31674,31674
299.35,-1.50359e-08,0,31644,31644
299.4,-1.4873e-08,0,31840,31840
299.45,-1.47046e-08,0,31984,31984
299.501,-1.45255e-08,0,32024,32024
299.551,-1.43459e-08,0,32002,32002
299.601,-1.41605e-08,0,32086,32086
299.651,-1.39694e-08,0,32076,32076
299.701,-1.37726e-08,0,32056,32056
299.75,-1.35699e-08,0,31786,31786
299.8,-1.33612e-08,0,32016,32016
299.851,-1.31397e-08,0,32034,32034
299.901,-1.29177e-08,0,32094,32094
299.951,-1.26882e-08,0,32172,32172
300.001,-1.24504e-08,0,32300,32300
300.051,-1.22031e-08,0,32500,32500
300.1,-1.1945e-08,0,32662,32662
300.15,-1.16745e-08,0,32756,32756
300.201,-1.13813e-08,0,32756,32756
300.251,-1.108e-08,0,32764,32764
300.301,-1.07608e-08,0,32764,32764
300.351,-1.04216e-08,0,32764,32764
300.401,-1.00607e-08,0,32764,32764
300.45,-9.67656e-09,0,32744,32744
300.5,-9.26795e-09,0,32768,32768
300.55,-8.83408e-09,0,32752,32752
300.601,-8.36075e-09,0,32768,32768
300.651,-7.87534e-09,0,32768,32768
300.701,-7.36566e-09,0,32768,32768
300.751,-6.83337e-09,0,32768,32768
300.8,-6.28079e-09,0,32768,32768
300.85,-5.71088e-09,0,32758,32758
300.9,-5.12713e-09,0,32750,32750
300.951,-4.51593e-09,0,32756,32756
301.001,-3.91651e-09,0,32762,32762
301.051,-3.31589e-09,0,32754,32754
301.101,-2.71844e-09,0,32756,32756
301.151,-2.1284e-09,0,32746,32746
301.2,-1.54987e-09,0,32756,32756
301.25,-9.86717e-10,0,32754,32754
301.301,-4.26924e-10,0,32756,32756
301.351,9.40044e-11,0,32758,32758
301.401,5.89164e-10,0,32760,32760
301.451,1.05562e-09,0,32762,32762
301.501,1.49074e-09,0,32748,32748
301.55,1.89228e-09,0,32750,32750
301.6,2.25846e-09,0,32738,32738
301.651,2.59715e-09,0,32738,32738
301.701,2.88834e-09,0,32736,32736
301.751,3.1422e-09,0,32732,32732
301.801,3.3593e-09,0,32732,32732
301.851,3.54075e-09,0,32736,32736
301.9,3.68811e-09,0,32738,32738
301.95,3.80335e-09,0,32638,32638
302.001,3.89079e-09,0,32528,32528
302.051,3.94796e-09,0,32392,32392
302.101,3.98025e-09,0,32258,32258
302.151,3.98917e-09,0,32196,32196
302.201,3.98007e-09,0,32040,32040
302.25,3.9534e-09,0,32008,32008
302.3,3.91188e-09,0,31998,31998
302.35,3.85795e-09,0,31970,31970
302.401,3.79186e-09,0,31964,31964
302.451,3.71947e-09,0,31940,31940
302.501,3.64088e-09,0,31648,31648
302.551,3.55775e-09,0,31344,31344
302.6,3.47153e-09,0,30940,30940
302.65,3.38354e-09,0,30806,30806
302.7,3.29488e-09,0,30746,30746
302.751,3.20398e-09,0,30484,30484
302.801,3.11691e-09,0,30482,30482
302.851,3.03188e-09,0,30446,30446
302.901,2.94964e-09,0,30306,30306
302.951,2.87091e-09,0,30614,30614
303,2.79643e-09,0,30394,30394
303.05,2.72688e-09,0,30254,30254
303.101,2.66112e-09,0,30404,30404
303.151,2.60346e-09,0,30514,30514
303.201,2.55238e-09,0,30718,30718
303.251,2.50814e-09,0,30746,30746
303.301,2.47086e-09,0,30604,30604
303.35,2.44044e-09,0,30560,30560
303.4,2.41663e-09,0,30542,30542
303.451,2.39859e-09,0,30716,30716
303.501,2.38667e-09,0,30716,30716
303.551,2.37942e-09,0,30594,30594
303.601,2.37603e-09,0,30956,30956
303.651,2.37518e-09,0,30466,30466
303.7,2.37595e-09,0,30500,30500
303.75,2.37678e-09,0,30248,30248
303.8,2.37719e-09,0,30232,30232
303.851,2.37697e-09,0,30124,30124
303.901,2.3751e-09,0,30164,30164
303.951,2.37188e-09,0,29926,29926
304.001,2.36538e-09,0,29810,29810
304.05,2.35383e-09,0,29656,29656
304.1,2.34e-09,0,29936,29936
304.15,2.32342e-09,0,29482,29482
304.201,2.304e-09,0,29386,29386
304.251,2.28358e-09,0,29788,29788
304.301,2.2624e-09,0,29264,29264
304.351,2.24111e-09,0,29068,29068
304.401,2.2202e-09,0,29526,29526
304.45,2.19996e-09,0,28952,28952
304.5,2.18051e-09,0,28984,28984
304.551,2.16137e-09,0,29042,29042
304.601,2.14368e-09,0,28810,28810
304.651,2.12701e-09,0,28810,28810
304.701,2.11163e-09,0,28682,28682
304.751,2.09793e-09,0,28652,28652
304.8,2.08636e-09,0,29162,29162
304.85,2.07739e-09,0,28802,28802
304.901,2.0713e-09,0,28848,28848
304.951,2.06992e-09,0,29018,29018
