250,0,0,8192,8192
250.003,0,0,8192,8192
250.053,0,0,8192,8192
250.103,0,0,8192,8192
250.152,0,0,8192,8192
250.202,2.77556e-17,0,8192,8192
250.252,0,0,8192,8192
250.302,0,0,8192,8192
250.352,-2.77556e-17,0,8192,8192
250.401,-2.77556e-17,0,8192,8192
250.451,-2.77556e-17,0,8192,8192
250.501,-2.77556e-17,0,8192,8192
250.551,-2.77556e-17,0,8192,8192
250.6,-2.77556e-17,0,8192,8192
250.65,-2.77556e-17,0,8192,8192
250.7,-2.77556e-17,0,8192,8192
250.753,-2.77556e-17,0,8192,8192
250.803,-2.77556e-17,0,8192,8192
250.852,-2.77556e-17,0,8192,8192
250.902,-2.77556e-17,0,8192,8192
250.952,-2.77556e-17,0,8192,8192
251.002,-2.77556e-17,0,8192,8192
251.052,-2.77556e-17,0,8192,8192
251.101,-2.77556e-17,0,8192,8192
251.151,-2.77556e-17,0,8192,8192
251.201,-2.77556e-17,0,8192,8192
251.251,-2.77556e-17,0,8192,8192
251.301,-2.77556e-17,0,8192,8192
251.35,-2.77556e-17,0,8192,8192
251.4,-2.77556e-17,0,8192,8192
251.453,-2.77556e-17,0,8192,8192
251.503,-2.77556e-17,0,8192,8192
251.553,0,0,8192,8192
251.602,2.77556e-17,0,8192,8192
251.652,2.77556e-17,0,8192,8192
251.702,5.55112e-17,0,8192,8192
251.752,5.55112e-17,0,8192,8192
251.801,0,0,8192,8192
251.851,0,0,8192,8192
251.901,0,0,8192,8192
251.951,0,0,8192,8192
252.001,0,0,8192,8192
252.05,0,0,8192,8192
252.1,0,0,8192,8192
252.15,2.77556e-17,0,8192,8192
252.203,2.77556e-17,0,8192,8192
252.253,-2.77556e-17,0,8192,8192
252.302,-2.77556e-17,0,8192,8192
252.352,-2.77556e-17,0,8192,8192
252.402,-2.77556e-17,0,8192,8192
252.452,-2.77556e-17,0,8192,8192
252.502,-2.77556e-17,0,8192,8192
252.551,-2.77556e-17,0,8192,8192
252.601,-2.77556e-17,0,8192,8192
252.651,-2.77556e-17,0,8192,8192
252.701,-2.77556e-17,0,8192,8192
252.751,-2.77556e-17,0,8192,8192
252.8,-2.77556e-17,0,8192,8192
252.85,-2.77556e-17,0,8192,8192
252.903,-2.77556e-17,0,8192,8192
252.953,-2.77556e-17,0,8192,8192
253.002,-2.77556e-17,0,8192,8192
253.052,2.77556e-17,0,8192,8192
253.102,0,0,8192,8192
253.152,2.77556e-17,0,8192,8192
253.202,2.77556e-17,0,8192,8192
253.251,2.77556e-17,0,8192,8192
253.301,2.77556e-17,0,8192,8192
253.351,2.77556e-17,0,8192,8192
253.401,2.77556e-17,0,8192,8192
253.451,2.77556e-17,0,8192,8192
253.5,2.77556e-17,0,8192,8192
253.55,2.77556e-17,0,8192,8192
253.6,2.77556e-17,0,8192,8192
253.653,2.77556e-17,0,8192,8192
253.703,2.77556e-17,0,8192,8192
253.752,5.55112e-17,0,8192,8192
253.802,5.55112e-17,0,8192,8192
253.852,5.55112e-17,0,8192,8192
253.902,5.55112e-17,0,8192,8192
253.952,2.77556e-17,0,8192,8192
254.001,2.77556e-17,0,8192,8192
254.051,5.55112e-17,0,8192,8192
254.101,5.55112e-17,0,8192,8192
254.151,5.55112e-17,0,8192,8192
254.201,5.55112e-17,0,8192,8192
254.25,2.77556e-17,0,8192,8192
254.3,2.77556e-17,0,8192,8192
254.353,2.77556e-17,0,8192,8192
254.403,2.77556e-17,0,8192,8192
254.452,2.77556e-17,0,8192,8192
254.502,2.77556e-17,0,8192,8192
254.552,2.77556e-17,0,8192,8192
254.602,2.77556e-17,0,8192,8192
254.652,0,0,8192,8192
254.701,2.77556e-17,0,8192,8192
254.751,0,0,8192,8192
254.801,0,0,8192,8192
254.851,0,0,8192,8192
254.901,0,0,8192,8192
254.95,0,0,8192,8192
255,0,0,8192,8192
255.05,0,0,8192,8192
255.103,0,0,8192,8192
255.153,2.77556e-17,0,8192,8192
255.202,2.77556e-17,0,8192,8192
255.252,2.77556e-17,0,8192,8192
255.302,2.77556e-17,0,8192,8192
255.352,2.77556e-17,0,8192,8192
255.402,2.77556e-17,0,8192,8192
255.451,2.77556e-17,0,8192,8192
255.501,2.77556e-17,0,8192,8192
255.551,2.77556e-17,0,8192,8192
255.601,0,0,8192,8192
255.651,2.77556e-17,0,8192,8192
255.7,0,0,8192,8192
255.75,2.77556e-17,0,8192,8192
255.803,0,0,8192,8192
255.853,0,0,8192,8192
255.902,2.77556e-17,0,8192,8192
255.952,2.77556e-17,0,8192,8192
256.002,0,0,8192,8192
256.052,0,0,8192,8192
256.102,0,0,8192,8192
256.151,0,0,8192,8192
256.201,0,0,8192,8192
256.251,0,0,8192,8192
256.301,2.77556e-17,0,8192,8192
256.351,0,0,8192,8192
256.4,5.55112e-17,0,8192,8192
256.45,5.55112e-17,0,8192,8192
256.5,5.55112e-17,0,8192,8192
256.553,2.77556e-17,0,8192,8192
256.603,2.77556e-17,0,8192,8192
256.652,2.77556e-17,0,8192,8192
256.702,2.77556e-17,0,8192,8192
256.752,2.77556e-17,0,8192,8192
256.802,2.77556e-17,0,8192,8192
256.852,-2.77556e-17,0,8192,8192
256.901,-2.77556e-17,0,8192,8192
256.951,-2.77556e-17,0,8192,8192
257.001,-5.55112e-17,0,8192,8192
257.051,-5.55112e-17,0,8192,8192
257.101,-5.55112e-17,0,8192,8192
257.15,-2.77556e-17,0,8192,8192
257.2,-2.77556e-17,0,8192,8192
257.253,-2.77556e-17,0,8192,8192
257.303,-2.77556e-17,0,8192,8192
257.352,-2.77556e-17,0,8192,8192
257.402,-2.77556e-17,0,8192,8192
257.452,-2.77556e-17,0,8192,8192
257.502,-2.77556e-17,0,8192,8192
257.552,-2.77556e-17,0,8192,8192
257.601,-2.77556e-17,0,8192,8192
257.651,-2.77556e-17,0,8192,8192
257.701,-2.77556e-17,0,8192,8192
257.751,-2.77556e-17,0,8192,8192
257.801,-2.77556e-17,0,8192,8192
257.85,-2.77556e-17,0,8192,8192
257.9,-2.77556e-17,0,8192,8192
257.95,-2.77556e-17,0,8192,8192
258.003,-2.77556e-17,0,8192,8192
258.053,-2.77556e-17,0,8192,8192
258.102,-2.77556e-17,0,8192,8192
258.152,-2.77556e-17,0,8192,8192
258.202,-2.77556e-17,0,8192,8192
258.252,-2.77556e-17,0,8192,8192
258.302,-2.77556e-17,0,8192,8192
258.351,-2.77556e-17,0,8192,8192
258.401,-2.77556e-17,0,8192,8192
258.451,-2.77556e-17,0,8192,8192
258.501,-2.77556e-17,0,8192,8192
258.551,-2.77556e-17,0,8192,8192
258.6,-2.77556e-17,0,8192,8192
258.65,-2.77556e-17,0,8192,8192
258.703,-2.77556e-17,0,8192,8192
258.753,-2.77556e-17,0,8192,8192
258.802,-2.77556e-17,0,8192,8192
258.852,-2.77556e-17,0,8192,8192
258.902,-2.77556e-17,0,8192,8192
258.952,-2.77556e-17,0,8192,8192
259.002,-2.77556e-17,0,8192,8192
259.051,-2.77556e-17,0,8192,8192
259.101,-2.77556e-17,0,8192,8192
259.151,-2.77556e-17,0,8192,8192
259.201,-2.77556e-17,0,8192,8192
259.251,2.77556e-17,0,8192,8192
259.3,5.55112e-17,0,8192,8192
259.35,5.55112e-17,0,8192,8192
259.403,5.55112e-17,0,8192,8192
259.453,5.55112e-17,0,8192,8192
259.503,5.55112e-17,0,8192,8192
259.552,5.55112e-17,0,8192,8192
259.602,5.55112e-17,0,8192,8192
259.652,5.55112e-17,0,8192,8192
259.702,5.55112e-17,0,8192,8192
259.751,5.55112e-17,0,8192,8192
259.801,5.55112e-17,0,8192,8192
259.851,5.55112e-17,0,8192,8192
259.901,5.55112e-17,0,8192,8192
259.951,5.55112e-17,0,8192,8192
260,2.77556e-17,0,8192,8192
260.05,2.77556e-17,0,8192,8192
260.1,2.77556e-17,0,8192,8192
260.153,2.77556e-17,0,8192,8192
260.203,2.77556e-17,0,8192,8192
260.252,5.55112e-17,0,8192,8192
260.302,5.55112e-17,0,8192,8192
260.352,2.77556e-17,0,8192,8192
260.402,5.55112e-17,0,8192,8192
260.452,5.55112e-17,0,8192,8192
260.501,5.55112e-17,0,8192,8192
260.551,5.55112e-17,0,8192,8192
260.601,5.55112e-17,0,8192,8192
260.651,5.55112e-17,0,8192,8192
260.701,5.55112e-17,0,8192,8192
260.75,5.55112e-17,0,8192,8192
260.8,5.55112e-17,0,8192,8192
260.853,2.77556e-17,0,8192,8192
260.903,2.77556e-17,0,8192,8192
260.952,5.55112e-17,0,8192,8192
261.002,5.55112e-17,0,8192,8192
261.052,5.55112e-17,0,8192,8192
261.102,2.77556e-17,0,8192,8192
261.152,2.77556e-17,0,8192,8192
261.201,2.77556e-17,0,8192,8192
261.251,2.77556e-17,0,8192,8192
261.301,2.77556e-17,0,8192,8192
261.351,2.77556e-17,0,8192,8192
261.401,2.77556e-17,0,8192,8192
261.45,2.77556e-17,0,8192,8192
261.5,2.77556e-17,0,8192,8192
261.55,2.77556e-17,0,8192,8192
261.603,2.77556e-17,0,8192,8192
261.653,2.77556e-17,0,8192,8192
261.702,2.77556e-17,0,8192,8192
261.752,2.77556e-17,0,8192,8192
261.802,2.77556e-17,0,8192,8192
261.852,2.77556e-17,0,8192,8192
261.902,2.77556e-17,0,8192,8192
261.951,2.77556e-17,0,8192,8192
262.001,2.77556e-17,0,8192,8192
262.051,2.77556e-17,0,8192,8192
262.101,2.77556e-17,0,8192,8192
262.151,0,0,8192,8192
262.2,0,0,8192,8192
262.25,0,0,8192,8192
262.303,-2.77556e-17,0,8192,8192
262.353,-2.77556e-17,0,8192,8192
262.402,-2.77556e-17,0,8192,8192
262.452,-2.77556e-17,0,8192,8192
262.502,-2.77556e-17,0,8192,8192
262.552,-2.77556e-17,0,8192,8192
262.602,2.77556e-17,0,8192,8192
262.651,2.77556e-17,0,8192,8192
262.701,2.77556e-17,0,8192,8192
262.751,2.77556e-17,0,8192,8192
262.801,2.77556e-17,0,8192,8192
262.851,2.77556e-17,0,8192,8192
262.9,2.77556e-17,0,8192,8192
262.95,0,0,8192,8192
263,0,0,8192,8192
263.053,0,0,8192,8192
263.103,2.77556e-17,0,8192,8192
263.152,2.77556e-17,0,8192,8192
263.202,2.77556e-17,0,8192,8192
263.252,0,0,8192,8192
263.302,0,0,8192,8192
263.352,2.77556e-17,0,8192,8192
263.401,2.77556e-17,0,8192,8192
263.451,0,0,8192,8192
263.501,0,0,8192,8192
263.551,2.77556e-17,0,8192,8192
263.601,2.77556e-17,0,8192,8192
263.65,0,0,8192,8192
263.7,0,0,8192,8192
263.753,2.77556e-17,0,8192,8192
263.803,0,0,8192,8192
263.852,0,0,8192,8192
263.902,0,0,8192,8192
263.952,0,0,8192,8192
264.002,-2.77556e-17,0,8192,8192
264.052,-2.77556e-17,0,8192,8192
264.101,-8.32667e-17,0,8192,8192
264.151,-8.32667e-17,0,8192,8192
264.201,-8.32667e-17,0,8192,8192
264.251,-8.32667e-17,0,8192,8192
264.301,-8.32667e-17,0,8192,8192
264.35,-8.32667e-17,0,8192,8192
264.4,-8.32667e-17,0,8192,8192
264.45,-5.55112e-17,0,8192,8192
264.503,-2.77556e-17,0,8192,8192
264.553,-2.77556e-17,0,8192,8192
264.602,-2.77556e-17,0,8192,8192
264.652,-2.77556e-17,0,8192,8192
264.702,-2.77556e-17,0,8192,8192
264.752,-2.77556e-17,0,8192,8192
264.802,-2.77556e-17,0,8192,8192
264.851,-2.77556e-17,0,8192,8192
264.901,-2.77556e-17,0,8192,8192
264.951,-5.55112e-17,0,8192,8192
265.001,-2.77556e-17,0,8192,8192
265.051,-5.55112e-17,0,8192,8192
265.1,-5.55112e-17,0,8192,8192
265.15,-5.55112e-17,0,8192,8192
265.203,-5.55112e-17,0,8192,8192
265.253,-5.55112e-17,0,8192,8192
265.302,-2.77556e-17,0,8192,8192
265.352,-5.55112e-17,0,8192,8192
265.402,-2.77556e-17,0,8192,8192
265.452,-5.55112e-17,0,8192,8192
265.502,-5.55112e-17,0,8192,8192
265.551,-2.77556e-17,0,8192,8192
265.601,0,0,8192,8192
265.651,0,0,8192,8192
265.701,0,0,8192,8192
265.751,0,0,8192,8192
265.8,0,0,8192,8192
265.85,0,0,8192,8192
265.9,0,0,8192,8192
265.953,0,0,8192,8192
266.003,0,0,8192,8192
266.052,0,0,8192,8192
266.102,0,0,8192,8192
266.152,2.77556e-17,0,8192,8192
266.202,0,0,8192,8192
266.252,0,0,8192,8192
266.301,0,0,8192,8192
266.351,0,0,8192,8192
266.401,-2.77556e-17,0,8192,8192
266.451,-2.77556e-17,0,8192,8192
266.501,0,0,8192,8192
266.55,0,0,8192,8192
266.6,0,0,8192,8192
266.653,0,0,8192,8192
266.703,0,0,8192,8192
266.752,0,0,8192,8192
266.802,0,0,8192,8192
266.852,0,0,8192,8192
266.902,0,0,8192,8192
266.952,0,0,8192,8192
267.001,0,0,8192,8192
267.051,0,0,8192,8192
267.101,-2.77556e-17,0,8192,8192
267.151,-2.77556e-17,0,8192,8192
267.201,0,0,8192,8192
267.25,0,0,8192,8192
267.3,0,0,8192,8192
267.353,0,0,8192,8192
267.403,0,0,8192,8192
267.453,0,0,8192,8192
267.502,2.77556e-17,0,8192,8192
267.552,2.77556e-17,0,8192,8192
267.602,0,0,8192,8192
267.652,0,0,8192,8192
267.702,0,0,8192,8192
267.751,0,0,8192,8192
267.801,0,0,8192,8192
267.851,0,0,8192,8192
267.901,0,0,8192,8192
267.95,2.77556e-17,0,8192,8192
268,0,0,8192,8192
268.05,0,0,8192,8192
268.1,0,0,8436,8436
268.15,0,0,8628,8628
268.2,0,0,8820,8820
268.251,0,0,9012,9012
268.301,0,0,9180,9180
268.351,0,0,9372,9372
268.401,0,0,9540,9540
268.451,0,0,9732,9732
268.5,0,0,9900,9900
268.55,0,0,10076,10076
268.601,0,0,10260,10260
268.651,0,0,10428,10428
268.701,0,0,10596,10596
268.751,0,0,10788,10788
268.801,0,0,10956,10956
268.85,0,0,11124,11124
268.9,0,0,11292,11292
268.951,0,0,11484,11484
269.001,0,0,11652,11652
269.051,0,0,11820,11820
269.101,0,0,11988,11988
269.151,0,0,12156,12156
269.2,0,0,12324,12324
269.25,0,0,12492,12492
269.3,0,0,12660,12660
269.351,0,0,12828,12828
269.401,0,0,13004,13004
269.451,0,0,13164,13164
269.501,0,0,13300,13300
269.55,0,0,13452,13452
269.6,0,0,13620,13620
269.65,0,0,13788,13788
269.701,0,0,13956,13956
269.751,0,0,14124,14124
269.801,0,0,14316,14316
269.851,0,0,14484,14484
269.901,0,0,14652,14652
269.95,0,0,14820,14820
270,0,0,14988,14988
270.051,0,0,15164,15164
270.101,0,0,15348,15348
270.151,0,0,15516,15516
270.201,0,0,15684,15684
270.251,0,0,15852,15852
270.3,0,0,16020,16020
270.35,0,0,16172,16172
270.401,0,0,16356,16356
270.451,0,0,16508,16508
270.501,0,0,16668,16668
270.551,0,0,16836,16836
270.601,0,0,17004,17004
270.65,0,0,17172,17172
270.7,0,0,17340,17340
270.75,0,0,17484,17484
270.801,0,0,17652,17652
270.851,0,0,17820,17820
270.901,0,0,17988,17988
270.951,0,0,18132,18132
271,0,0,18300,18300
271.05,0,0,18444,18444
271.1,0,0,18612,18612
271.151,0,0,18780,18780
271.201,0,0,18924,18924
271.251,0,0,19092,19092
271.301,0,0,19236,19236
271.35,0,0,19388,19388
271.4,0,0,19548,19548
271.45,0,0,19692,19692
271.501,0,0,19860,19860
271.551,0,0,20004,20004
271.601,0,0,20156,20156
271.651,0,0,20316,20316
271.701,0,0,20460,20460
271.75,0,0,20604,20604
271.8,0,0,20756,20756
271.851,0,0,20916,20916
271.901,0,0,21060,21060
271.951,0,0,21204,21204
272.001,0,0,21348,21348
272.051,0,0,21500,21500
272.1,0,0,21644,21644
272.15,0,0,21788,21788
272.201,0,0,21948,21948
272.251,5.55112e-17,0,22092,22092
272.301,9.4369e-16,0,22236,22236
272.351,1.83187e-15,0,22380,22380
272.401,2.72005e-15,0,22524,22524
272.45,3.58047e-15,0,22652,22652
272.5,4.57967e-15,0,22796,22796
272.55,7.49401e-15,0,22932,22932
272.601,1.79579e-14,0,23076,23076
272.651,4.20775e-14,0,23220,23220
272.701,6.56419e-14,0,23364,23364
272.751,-1.60982e-14,0,23508,23508
272.8,-5.3646e-13,0,23636,23636
272.85,-2.20765e-12,0,23772,23772
272.9,-8.04448e-12,0,23916,23916
272.951,-4.88526e-11,0,24060,24060
273.001,-1.48661e-10,0,24188,24188
273.051,-2.91333e-10,0,24324,24324
273.101,-3.82794e-10,0,24468,24468
273.151,-3.25031e-10,0,24596,24596
273.2,-1.22942e-10,0,24732,24732
273.25,1.08603e-10,0,24876,24876
273.301,2.3689e-10,0,24996,24996
273.351,1.99218e-10,0,25140,25140
273.401,6.41354e-11,0,25284,25284
273.451,-3.99208e-11,0,25404,25404
273.501,-2.2416e-11,0,25548,25548
273.55,9.53023e-11,0,25676,25676
273.6,2.04324e-10,0,25812,25812
273.651,2.08828e-10,0,25956,25956
273.701,1.14774e-10,0,26076,26076
273.751,1.72198e-11,0,26220,26220
273.801,4.16045e-12,0,26340,26340
273.851,8.17102e-11,0,26484,26484
273.9,1.78459e-10,0,26604,26604
273.95,2.15086e-10,0,26748,26748
274.001,1.66249e-10,0,26876,26876
274.051,7.79454e-11,0,27012,27012
274.101,1.7266e-11,0,27140,27140
274.151,3.0536e-11,0,27276,27276
274.201,1.16598e-10,0,27404,27404
274.25,2.21326e-10,0,27540,27540
274.3,2.5858e-10,0,27660,27660
274.35,1.68991e-10,0,27804,27804
274.401,-1.0395e-11,0,27924,27924
274.451,-1.08372e-10,0,28068,28068
274.501,2.07858e-11,0,28188,28188
274.551,3.28441e-10,0,28332,28332
274.6,5.12396e-10,0,28452,28452
274.65,2.62868e-10,0,28572,28572
274.7,-3.11225e-10,0,28716,28716
274.751,-4.65468e-10,0,28836,28836
274.801,8.61802e-10,0,28964,28964
274.851,4.28111e-09,0,29100,29100
274.901,9.55222e-09,0,29220,29220
274.951,1.56978e-08,0,29348,29348
275,2.15566e-08,0,29484,29484
275.05,2.63222e-08,0,29604,29604
275.101,2.99211e-08,0,29732,29732
275.151,3.272e-08,0,29868,29868
275.201,3.59593e-08,0,29996,29996
275.251,4.08818e-08,0,30116,30116
275.301,4.83093e-08,0,30252,30252
275.35,5.83818e-08,0,30372,30372
275.4,7.08428e-08,0,30500,30500
275.451,8.61272e-08,0,30636,30636
275.501,1.03982e-07,0,30756,30756
275.551,1.25976e-07,0,30876,30876
275.601,1.53394e-07,0,30996,30996
275.651,1.87161e-07,0,31116,31116
275.7,2.27465e-07,0,31236,31236
275.75,2.73523e-07,0,31356,31356
275.8,3.2374e-07,0,31460,31460
275.851,3.78019e-07,0,31596,31596
275.901,4.32456e-07,0,31692,31692
275.951,4.88997e-07,0,31796,31796
276.001,5.48411e-07,0,31892,31892
276.05,6.10395e-07,0,32004,32004
276.1,6.728e-07,0,32100,32100
276.15,7.32135e-07,0,32196,32196
276.201,7.86229e-07,0,32300,32300
276.251,8.29334e-07,0,32388,32388
276.301,8.61988e-07,0,32484,32484
276.351,8.84561e-07,0,32564,32564
276.401,8.98602e-07,0,32660,32660
276.45,9.06176e-07,0,32752,32752
276.5,9.09067e-07,0,32768,32768
276.551,9.0818e-07,0,32768,32768
276.601,9.03682e-07,0,32768,32768
276.651,8.95059e-07,0,32768,32768
276.701,8.81381e-07,0,32768,32768
276.751,8.6157e-07,0,32768,32768
276.8,8.34625e-07,0,32768,32768
276.85,7.99909e-07,0,32768,32768
276.901,7.56144e-07,0,32768,32768
276.951,7.0701e-07,0,32752,32752
277.001,6.53567e-07,0,32768,32768
277.051,5.98527e-07,0,32752,32752
277.101,5.44362e-07,0,32768,32768
277.15,4.92804e-07,0,32768,32768
277.2,4.44749e-07,0,32768,32768
277.25,4.00403e-07,0,32720,32720
277.301,3.58332e-07,0,32616,32616
277.351,3.2038e-07,0,32752,32752
277.401,2.84719e-07,0,32672,32672
277.451,2.50977e-07,0,32704,32704
277.5,2.19249e-07,0,32680,32680
277.55,1.90259e-07,0,32768,32768
277.6,1.65125e-07,0,32720,32720
277.651,1.44083e-07,0,32720,32720
277.701,1.27931e-07,0,32736,32736
277.751,1.14355e-07,0,32624,32624
277.801,1.01419e-07,0,32768,32768
277.851,8.8109e-08,0,32656,32656
277.9,7.48189e-08,0,32768,32768
277.95,6.27852e-08,0,32680,32680
278.001,5.28429e-08,0,32768,32768
278.051,4.58361e-08,0,32720,32720
278.101,4.08633e-08,0,32656,32656
278.151,3.6825e-08,0,32672,32672
278.201,3.2552e-08,0,32736,32736
278.25,2.73317e-08,0,32768,32768
278.3,2.13155e-08,0,32736,32736
278.351,1.53014e-08,0,32736,32736
278.401,1.08026e-08,0,32624,32624
278.451,8.2213e-09,0,32704,32704
278.501,7.32233e-09,0,32752,32752
278.551,7.38146e-09,0,32688,32688
278.6,7.7169e-09,0,32624,32624
278.65,7.9852e-09,0,32736,32736
278.701,8.14381e-09,0,32632,32632
278.751,8.24861e-09,0,32576,32576
278.801,8.33791e-09,0,32392,32392
278.851,8.37257e-09,0,32342,32342
278.901,8.26982e-09,0,32552,32552
278.95,7.99389e-09,0,32412,32412
279,7.63448e-09,0,32324,32324
279.05,7.34128e-09,0,32474,32474
279.101,7.18264e-09,0,32458,32458
279.151,7.13542e-09,0,32418,32418
279.201,7.13471e-09,0,32306,32306
279.251,7.14996e-09,0,32506,32506
279.3,7.16773e-09,0,32476,32476
279.35,7.18602e-09,0,32392,32392
279.4,7.20432e-09,0,32320,32320
279.451,7.22291e-09,0,32384,32384
279.501,7.2409e-09,0,32296,32296
279.551,7.25932e-09,0,32368,32368
279.601,7.27776e-09,0,32224,32224
279.651,7.29603e-09,0,32472,32472
279.7,7.31408e-09,0,32384,32384
279.75,7.33209e-09,0,32336,32336
279.801,7.35073e-09,0,32448,32448
279.851,7.369e-09,0,32352,32352
279.901,7.38727e-09,0,32264,32264
279.951,7.40573e-09,0,32256,32256
280.001,7.42514e-09,0,32304,32304
280.05,7.44686e-09,0,32296,32296
280.1,7.47274e-09,0,32344,32344
280.151,7.50533e-09,0,32304,32304
280.201,7.54418e-09,0,32448,32448
280.251,7.5924e-09,0,32392,32392
280.301,7.6553e-09,0,32344,32344
280.351,7.74226e-09,0,32592,32592
280.4,7.86506e-09,0,32560,32560
280.45,8.03341e-09,0,32544,32544
280.5,8.25016e-09,0,32488,32488
280.551,8.51819e-09,0,32616,32616
280.601,8.81271e-09,0,32650,32650
280.651,9.13554e-09,0,32614,32614
280.701,9.49221e-09,0,32574,32574
280.75,9.90017e-09,0,32528,32528
280.8,1.03836e-08,0,32554,32554
280.85,1.09665e-08,0,32634,32634
280.901,1.16921e-08,0,32492,32492
280.951,1.25376e-08,0,32370,32370
281.001,1.3541e-08,0,32554,32554
281.051,1.47247e-08,0,32434,32434
281.101,1.61115e-08,0,32698,32698
281.15,1.77206e-08,0,32534,32534
281.2,1.95646e-08,0,32490,32490
281.251,2.17157e-08,0,32522,32522
281.301,2.40558e-08,0,32544,32544
281.351,2.66472e-08,0,32434,32434
281.401,2.94915e-08,0,32316,32316
281.451,3.25832e-08,0,32492,32492
281.5,3.59044e-08,0,32316,32316
281.55,3.94254e-08,0,32570,32570
281.601,4.32206e-08,0,32302,32302
281.651,4.70384e-08,0,32158,32158
281.701,5.09598e-08,0,32398,32398
281.751,5.49669e-08,0,32176,32176
281.801,5.90445e-08,0,32152,32152
281.85,6.31788e-08,0,32042,32042
281.9,6.73715e-08,0,31964,31964
281.95,7.16656e-08,0,31900,31900
282.001,7.63061e-08,0,31828,31828
282.051,8.12003e-08,0,31784,31784
282.101,8.66573e-08,0,31700,31700
282.151,9.27918e-08,0,31638,31638
282.2,9.95841e-08,0,31590,31590
282.25,1.06862e-07,0,31508,31508
282.3,1.14351e-07,0,31442,31442
282.351,1.22004e-07,0,31388,31388
282.401,1.29241e-07,0,31324,31324
282.451,1.36354e-07,0,31268,31268
282.501,1.43623e-07,0,31196,31196
282.55,1.5148e-07,0,31140,31140
282.6,1.60414e-07,0,31084,31084
282.65,1.70901e-07,0,31020,31020
282.701,1.8378e-07,0,30972,30972
282.751,1.98751e-07,0,30922,30922
282.801,2.166e-07,0,30874,30874
282.851,2.37807e-07,0,30820,30820
282.901,2.62836e-07,0,30774,30774
282.95,2.92028e-07,0,30726,30726
283,3.25501e-07,0,30674,30674
283.051,3.64251e-07,0,30636,30636
283.101,4.05627e-07,0,30582,30582
283.151,4.50079e-07,0,30566,30566
283.201,4.96943e-07,0,30494,30494
283.251,5.45528e-07,0,30482,30482
283.3,5.95062e-07,0,30516,30516
283.35,6.4457e-07,0,30724,30724
283.401,6.94161e-07,0,31000,31000
283.451,7.39397e-07,0,31064,31064
283.501,7.80023e-07,0,31128,31128
283.551,8.14479e-07,0,31192,31192
283.601,8.41606e-07,0,31240,31240
283.65,8.60833e-07,0,31304,31304
283.7,8.72198e-07,0,31352,31352
283.75,8.76224e-07,0,31416,31416
283.801,8.73521e-07,0,31464,31464
283.851,8.65037e-07,0,31528,31528
283.901,8.51355e-07,0,31576,31576
283.951,8.32739e-07,0,31640,31640
284,8.09159e-07,0,31688,31688
284.05,7.80393e-07,0,31752,31752
284.1,7.46195e-07,0,31800,31800
284.151,7.05232e-07,0,31864,31864
284.201,6.60096e-07,0,31912,31912
284.251,6.1037e-07,0,31976,31976
284.301,5.57141e-07,0,32024,32024
284.351,5.01806e-07,0,32088,32088
284.4,4.45884e-07,0,32136,32136
284.45,3.90812e-07,0,32200,32200
284.501,3.36243e-07,0,32264,32264
284.551,2.86128e-07,0,32312,32312
284.601,2.39315e-07,0,32376,32376
284.651,1.95956e-07,0,32424,32424
284.701,1.56035e-07,0,32488,32488
284.75,1.19493e-07,0,32536,32536
284.8,8.63218e-08,0,32600,32600
284.851,5.57636e-08,0,32648,32648
284.901,2.96475e-08,0,32664,32664
284.951,7.04611e-09,0,32752,32752
285.001,-1.22151e-08,0,32768,32768
285.051,-2.84968e-08,0,32768,32768
285.1,-4.22695e-08,0,32752,32752
285.15,-5.39799e-08,0,32720,32720
285.2,-6.39324e-08,0,32720,32720
285.251,-7.24729e-08,0,32704,32704
285.301,-7.91196e-08,0,32720,32720
285.351,-8.41463e-08,0,32720,32720
285.401,-8.76614e-08,0,32720,32720
285.45,-8.99055e-08,0,32712,32712
285.5,-9.11959e-08,0,32752,32752
285.55,-9.18219e-08,0,32688,32688
285.601,-9.19456e-08,0,32608,32608
285.651,-9.15648e-08,0,32500,32500
285.701,-9.05778e-08,0,32768,32768
285.751,-8.88512e-08,0,32768,32768
285.801,-8.6322e-08,0,32768,32768
285.85,-8.30456e-08,0,32768,32768
285.9,-7.91847e-08,0,32768,32768
285.951,-7.48312e-08,0,32768,32768
286.001,-7.0457e-08,0,32768,32768
286.051,-6.61189e-08,0,32768,32768
286.101,-6.19416e-08,0,32768,32768
286.151,-5.80041e-08,0,32768,32768
286.2,-5.43509e-08,0,32768,32768
286.25,-5.10012e-08,0,32768,32768
286.301,-4.78691e-08,0,32768,32768
286.351,-4.51185e-08,0,32768,32768
286.401,-4.26349e-08,0,32768,32768
286.451,-4.03985e-08,0,32768,32768
286.501,-3.83953e-08,0,32768,32768
286.55,-3.66167e-08,0,32768,32768
286.6,-3.50568e-08,0,32768,32768
286.651,-3.36725e-08,0,32768,32768
286.701,-3.25332e-08,0,32720,32720
286.751,-3.15839e-08,0,32736,32736
286.801,-3.08097e-08,0,32712,32712
286.851,-3.01945e-08,0,32736,32736
286.9,-2.97216e-08,0,32768,32768
286.95,-2.93741e-08,0,32768,32768
287,-2.91355e-08,0,32736,32736
287.051,-2.89867e-08,0,32752,32752
287.101,-2.89215e-08,0,32736,32736
287.151,-2.89211e-08,0,32736,32736
287.201,-2.89743e-08,0,32752,32752
287.25,-2.90712e-08,0,32768,32768
287.3,-2.92034e-08,0,32768,32768
287.35,-2.93631e-08,0,32768,32768
287.401,-2.95486e-08,0,32768,32768
287.451,-2.97427e-08,0,32768,32768
287.501,-2.99445e-08,0,32768,32768
287.551,-3.01492e-08,0,32768,32768
287.601,-3.0353e-08,0,32768,32768
287.65,-3.05528e-08,0,32768,32768
287.7,-3.0746e-08,0,32768,32768
287.751,-3.09356e-08,0,32768,32768
287.801,-3.1108e-08,0,32768,32768
287.851,-3.12663e-08,0,32752,32752
287.901,-3.14078e-08,0,32768,32768
287.951,-3.15304e-08,0,32768,32768
288,-3.16324e-08,0,32768,32768
288.05,-3.1713e-08,0,32768,32768
288.101,-3.17735e-08,0,32768,32768
288.151,-3.18107e-08,0,32768,32768
288.201,-3.18278e-08,0,32752,32752
288.251,-3.18262e-08,0,32768,32768
288.301,-3.18069e-08,0,32768,32768
288.35,-3.17721e-08,0,32720,32720
288.4,-3.17232e-08,0,32768,32768
288.45,-3.16616e-08,0,32768,32768
288.501,-3.15866e-08,0,32768,32768
288.551,-3.15042e-08,0,32768,32768
288.601,-3.14135e-08,0,32752,32752
288.651,-3.13158e-08,0,32768,32768
288.7,-3.1212e-08,0,32752,32752
288.75,-3.1103e-08,0,32768,32768
288.8,-3.09898e-08,0,32768,32768
288.851,-3.08693e-08,0,32768,32768
288.901,-3.07492e-08,0,32768,32768
288.951,-3.06266e-08,0,32768,32768
289.001,-3.0502e-08,0,32768,32768
289.051,-3.0376e-08,0,32768,32768
289.1,-3.02489e-08,0,32768,32768
289.15,-3.0121e-08,0,32768,32768
289.201,-2.99885e-08,0,32768,32768
289.251,-2.98586e-08,0,32768,32768
289.301,-2.9727e-08,0,32768,32768
289.351,-2.95923e-08,0,32768,32768
289.401,-2.9453e-08,0,32768,32768
289.45,-2.93077e-08,0,32768,32768
289.5,-2.91541e-08,0,32768,32768
289.551,-2.89847e-08,0,32768,32768
289.601,-2.88062e-08,0,32768,32768
289.651,-2.8611e-08,0,32768,32768
289.701,-2.8396e-08,0,32768,32768
289.751,-2.81584e-08,0,32768,32768
289.8,-2.78954e-08,0,32768,32768
289.85,-2.76049e-08,0,32768,32768
289.901,-2.72756e-08,0,32768,32768
289.951,-2.69256e-08,0,32768,32768
290.001,-2.65465e-08,0,32752,32752
290.051,-2.61396e-08,0,32736,32736
290.101,-2.57078e-08,0,32720,32720
290.15,-2.52551e-08,0,32680,32680
290.2,-2.47867e-08,0,32736,32736
290.25,-2.43089e-08,0,32768,32768
290.301,-2.3815e-08,0,32720,32720
290.351,-2.33406e-08,0,32704,32704
290.401,-2.2879e-08,0,32736,32736
290.451,-2.24373e-08,0,32728,32728
290.5,-2.20218e-08,0,32752,32752
290.55,-2.1638e-08,0,32752,32752
290.6,-2.12908e-08,0,32768,32768
290.651,-2.09757e-08,0,32704,32704
290.701,-2.07143e-08,0,32576,32576
290.751,-2.04994e-08,0,32576,32576
290.801,-2.03329e-08,0,32614,32614
290.851,-2.02157e-08,0,32670,32670
290.9,-2.01478e-08,0,32552,32552
290.95,-2.01265e-08,0,32544,32544
291.001,-2.01558e-08,0,32622,32622
291.051,-2.02258e-08,0,32524,32524
291.101,-2.03349e-08,0,32514,32514
291.151,-2.04776e-08,0,32758,32758
291.201,-2.06492e-08,0,32768,32768
291.25,-2.08441e-08,0,32768,32768
291.3,-2.10565e-08,0,32768,32768
291.351,-2.12876e-08,0,32768,32768
291.401,-2.15184e-08,0,32720,32720
291.451,-2.17499e-08,0,32696,32696
291.501,-2.19767e-08,0,32702,32702
291.551,-2.21938e-08,0,32706,32706
291.6,-2.23966e-08,0,32710,32710
291.65,-2.25813e-08,0,32632,32632
291.7,-2.27446e-08,0,32628,32628
291.751,-2.28882e-08,0,32712,32712
291.801,-2.3002e-08,0,32640,32640
291.851,-2.309e-08,0,32622,32622
291.901,-2.31528e-08,0,32570,32570
291.95,-2.31911e-08,0,32542,32542
292,-2.32057e-08,0,32448,32448
292.05,-2.31983e-08,0,32426,32426
292.101,-2.31695e-08,0,32470,32470
292.151,-2.31231e-08,0,32436,32436
292.201,-2.30602e-08,0,32306,32306
292.251,-2.2983e-08,0,32308,32308
292.301,-2.28932e-08,0,32368,32368
292.35,-2.27918e-08,0,32162,32162
292.4,-2.268e-08,0,32350,32350
292.451,-2.25548e-08,0,32184,32184
292.501,-2.2424e-08,0,32006,32006
292.551,-2.22853e-08,0,32022,32022
292.601,-2.21392e-08,0,32006,32006
292.651,-2.19869e-08,0,32044,32044
292.7,-2.18291e-08,0,32082,32082
292.75,-2.1667e-08,0,32070,32070
292.801,-2.14972e-08,0,32056,32056
292.851,-2.13307e-08,0,32008,32008
292.901,-2.11642e-08,0,32016,32016
292.951,-2.09993e-08,0,32012,32012
293.001,-2.08374e-08,0,31960,31960
293.05,-2.06801e-08,0,31980,31980
293.1,-2.05287e-08,0,31978,31978
293.15,-2.03844e-08,0,31986,31986
293.201,-2.02444e-08,0,31948,31948
293.251,-2.0118e-08,0,31960,31960
293.301,-2.00018e-08,0,31960,31960
293.351,-1.98967e-08,0,31952,31952
293.4,-1.9803e-08,0,31948,31948
293.45,-1.972e-08,0,31984,31984
293.5,-1.96465e-08,0,32182,32182
293.551,-1.95788e-08,0,32314,32314
293.601,-1.95186e-08,0,32348,32348
293.651,-1.9462e-08,0,32348,32348
293.701,-1.94073e-08,0,32312,32312
293.75,-1.93536e-08,0,32332,32332
293.8,-1.93006e-08,0,32320,32320
293.85,-1.92482e-08,0,32328,32328
293.901,-1.91954e-08,0,32304,32304
293.951,-1.91453e-08,0,32336,32336
294.001,-1.90963e-08,0,32364,32364
294.051,-1.90475e-08,0,32524,32524
294.101,-1.89981e-08,0,32700,32700
294.15,-1.89464e-08,0,32766,32766
294.2,-1.88909e-08,0,32764,32764
294.251,-1.88286e-08,0,32768,32768
294.301,-1.87622e-08,0,32768,32768
294.351,-1.86897e-08,0,32756,32756
294.401,-1.86115e-08,0,32768,32768
294.451,-1.85283e-08,0,32756,32756
294.5,-1.8441e-08,0,32760,32760
294.55,-1.83507e-08,0,32768,32768
294.601,-1.82553e-08,0,32768,32768
294.651,-1.81608e-08,0,32768,32768
294.701,-1.80649e-08,0,32766,32766
294.751,-1.79676e-08,0,32766,32766
294.801,-1.78689e-08,0,32768,32768
294.85,-1.77691e-08,0,32758,32758
294.9,-1.76683e-08,0,32758,32758
294.95,-1.75667e-08,0,32768,32768
295.001,-1.74613e-08,0,32760,32760
295.051,-1.7358e-08,0,32764,32764
295.101,-1.72535e-08,0,32764,32764
295.151,-1.71472e-08,0,32764,32764
295.2,-1.70387e-08,0,32760,32760
295.25,-1.69275e-08,0,32758,32758
295.3,-1.68134e-08,0,32768,32768
295.351,-1.66926e-08,0,32720,32720
295.401,-1.6572e-08,0,32704,32704
295.451,-1.64477e-08,0,32706,32706
295.501,-1.63194e-08,0,32712,32712
295.551,-1.61866e-08,0,32716,32716
295.6,-1.60489e-08,0,32708,32708
295.65,-1.5906e-08,0,32708,32708
295.701,-1.57534e-08,0,32706,32706
295.751,-1.56e-08,0,32704,32704
295.801,-1.54415e-08,0,32704,32704
295.851,-1.52782e-08,0,32704,32704
295.901,-1.51102e-08,0,32704,32704
295.95,-1.49372e-08,0,32688,32688
296,-1.47593e-08,0,32688,32688
296.051,-1.45706e-08,0,32688,32688
296.101,-1.43818e-08,0,32688,32688
296.151,-1.41872e-08,0,32688,32688
296.201,-1.39866e-08,0,32704,32704
296.251,-1.37799e-08,0,32688,32688
296.3,-1.3567e-08,0,32688,32688
296.35,-1.33478e-08,0,32704,32704
296.4,-1.31223e-08,0,32688,32688
296.451,-1.28836e-08,0,32688,32688
296.501,-1.2645e-08,0,32704,32704
296.551,-1.23994e-08,0,32704,32704
296.601,-1.21463e-08,0,32640,32640
296.65,-1.18848e-08,0,32592,32592
296.7,-1.16138e-08,0,32594,32594
296.75,-1.13318e-08,0,32592,32592
296.801,-1.10283e-08,0,32600,32600
296.851,-1.07187e-08,0,32568,32568
296.901,-1.03923e-08,0,32504,32504
296.951,-1.00469e-08,0,32580,32580
297.001,-9.68037e-09,0,32680,32680
297.05,-9.29051e-09,0,32680,32680
297.1,-8.87543e-09,0,32688,32688
297.151,-8.42009e-09,0,32704,32704
297.201,-7.94935e-09,0,32704,32704
297.251,-7.44996e-09,0,32720,32720
297.301,-6.92198e-09,0,32304,32304
297.351,-6.36614e-09,0,32600,32600
297.4,-5.78402e-09,0,32608,32608
297.45,-5.17794e-09,0,32584,32584
297.501,-4.53234e-09,0,32584,32584
297.551,-3.88803e-09,0,32552,32552
297.601,-3.23128e-09,0,32488,32488
297.651,-2.5669e-09,0,32536,32536
297.701,-1.89991e-09,0,32432,32432
297.75,-1.23536e-09,0,32416,32416
297.8,-5.78185e-10,0,32192,32192
297.851,8.56248e-11,0,32232,32232
297.901,7.13569e-10,0,32128,32128
297.951,1.32063e-09,0,32008,32008
298.001,1.90286e-09,0,31800,31800
298.051,2.45658e-09,0,31768,31768
298.1,2.97835e-09,0,31912,31912
298.15,3.46504e-09,0,31880,31880
298.2,3.91388e-09,0,31824,31824
298.251,4.33399e-09,0,31944,31944
298.301,4.69963e-09,0,32104,32104
298.351,5.02242e-09,0,32288,32288
298.401,5.30207e-09,0,32312,32312
298.45,5.53903e-09,0,32424,32424
298.5,5.7344e-09,0,32440,32440
298.55,5.88991e-09,0,32472,32472
298.601,6.01067e-09,0,32568,32568
298.651,6.09237e-09,0,32576,32576
298.701,6.14177e-09,0,32592,32592
298.751,6.16185e-09,0,32584,32584
298.801,6.15522e-09,0,32632,32632
298.85,6.12594e-09,0,32616,32616
298.9,6.07629e-09,0,32640,32640
298.951,6.00655e-09,0,32624,32624
299.001,5.92393e-09,0,32640,32640
299.051,5.82913e-09,0,32600,32600
299.101,5.72479e-09,0,32600,32600
299.151,5.61299e-09,0,32648,32648
299.2,5.49569e-09,0,32504,32504
299.25,5.37465e-09,0,32108,32108
299.301,5.24774e-09,0,31812,31812
299.351,5.12359e-09,0,31596,31596
299.401,4.99974e-09,0,31692,31692
299.451,4.87718e-09,0,31928,31928
299.501,4.75682e-09,0,32000,32000
299.55,4.63947e-09,0,31992,31992
299.6,4.52595e-09,0,32208,32208
299.65,4.41709e-09,0,32088,32088
299.701,4.31076e-09,0,32000,32000
299.751,4.21375e-09,0,31920,31920
299.801,4.12374e-09,0,31784,31784
299.851,4.04123e-09,0,31956,31956
299.9,3.96665e-09,0,32000,32000
299.95,3.90026e-09,0,32216,32216
300,3.84195e-09,0,32412,32412
300.051,3.79015e-09,0,32504,32504
300.101,3.7474e-09,0,32616,32616
300.151,3.71158e-09,0,32756,32756
300.201,3.68182e-09,0,32760,32760
300.251,3.65691e-09,0,32768,32768
300.3,3.63549e-09,0,32768,32768
300.35,3.61637e-09,0,32764,32764
300.401,3.59787e-09,0,32756,32756
300.451,3.57998e-09,0,32768,32768
300.501,3.56121e-09,0,32756,32756
300.551,3.54071e-09,0,32768,32768
300.601,3.51771e-09,0,32764,32764
300.65,3.49159e-09,0,32760,32760
300.7,3.46188e-09,0,32760,32760
300.751,3.42731e-09,0,32764,32764
300.801,3.38999e-09,0,32760,32760
300.851,3.34958e-09,0,32760,32760
300.901,3.30708e-09,0,32756,32756
300.951,3.26361e-09,0,32758,32758
301,3.22006e-09,0,32764,32764
301.05,3.1771e-09,0,32758,32758
301.1,3.13512e-09,0,32756,32756
301.151,3.09306e-09,0,32758,32758
301.201,3.05329e-09,0,32758,32758
301.251,3.01452e-09,0,32756,32756
301.301,2.97681e-09,0,32754,32754
301.35,2.94045e-09,0,32758,32758
301.4,2.90585e-09,0,32754,32754
301.45,2.87349e-09,0,32748,32748
301.501,2.84309e-09,0,32754,32754
301.551,2.81699e-09,0,32744,32744
301.601,2.79474e-09,0,32746,32746
301.651,2.77646e-09,0,32734,32734
301.701,2.7619e-09,0,32740,32740
301.75,2.75082e-09,0,32738,32738
301.8,2.74298e-09,0,32742,32742
301.851,2.73764e-09,0,32740,32740
301.901,2.73434e-09,0,32736,32736
301.951,2.73212e-09,0,32718,32718
302.001,2.72958e-09,0,32582,32582
302.051,2.72716e-09,0,32506,32506
302.1,2.72667e-09,0,32386,32386
302.15,2.72244e-09,0,32248,32248
302.201,2.71913e-09,0,32172,32172
302.251,2.71473e-09,0,32060,32060
302.301,2.70953e-09,0,32016,32016
302.351,2.70304e-09,0,31942,31942
302.401,2.69493e-09,0,32056,32056
302.45,2.6851e-09,0,31750,31750
302.5,2.67412e-09,0,31542,31542
302.551,2.66174e-09,0,31216,31216
302.601,2.64885e-09,0,31036,31036
302.651,2.63482e-09,0,30690,30690
302.701,2.62033e-09,0,30498,30498
302.751,2.60499e-09,0,30280,30280
302.8,2.58881e-09,0,30222,30222
302.85,2.57226e-09,0,30262,30262
302.9,2.55516e-09,0,30070,30070
302.951,2.53699e-09,0,30560,30560
303.001,2.51884e-09,0,30464,30464
303.051,2.50064e-09,0,30350,30350
303.101,2.48189e-09,0,30474,30474
303.15,2.46247e-09,0,30404,30404
303.2,2.44257e-09,0,30538,30538
303.25,2.42212e-09,0,30532,30532
303.301,2.40052e-09,0,30516,30516
303.351,2.37897e-09,0,30492,30492
303.401,2.35718e-09,0,30586,30586
303.451,2.33491e-09,0,30620,30620
303.501,2.31222e-09,0,30538,30538
303.55,2.2895e-09,0,30596,30596
303.6,2.26689e-09,0,30496,30496
303.651,2.24364e-09,0,30428,30428
303.701,2.22123e-09,0,30314,30314
303.751,2.1991e-09,0,30300,30300
303.801,2.17717e-09,0,30202,30202
303.851,2.15527e-09,0,30180,30180
303.9,2.13342e-09,0,30092,30092
303.95,2.11181e-09,0,30014,30014
304.001,2.08989e-09,0,29908,29908
304.051,2.06901e-09,0,29770,29770
304.101,2.0486e-09,0,29674,29674
304.151,2.02853e-09,0,29636,29636
304.201,2.00872e-09,0,29580,29580
304.25,1.98921e-09,0,29438,29438
304.3,1.96996e-09,0,29346,29346
304.35,1.95091e-09,0,29294,29294
304.401,1.93152e-09,0,29320,29320
304.451,1.91286e-09,0,29288,29288
304.501,1.89432e-09,0,29240,29240
304.551,1.87587e-09,0,29202,29202
304.6,1.85747e-09,0,29172,29172
304.65,1.83908e-09,0,29122,29122
304.7,1.82064e-09,0,29130,29130
304.751,1.80154e-09,0,29192,29192
304.801,1.78278e-09,0,29206,29206
304.851,1.76376e-09,0,29258,29258
304.901,1.74444e-09,0,29312,29312
304.951,1.7248e-09,0,29298,29298
