250,0,0,8192,8192
250.003,0,0,8192,8192
250.053,0,0,8192,8192
250.103,0,0,8192,8192
250.152,0,0,8192,8192
250.202,0,0,8192,8192
250.252,2.77556e-17,0,8192,8192
250.302,0,0,8192,8192
250.352,0,0,8192,8192
250.401,0,0,8192,8192
250.451,0,0,8192,8192
250.501,0,0,8192,8192
250.551,0,0,8192,8192
250.6,0,0,8192,8192
250.65,2.77556e-17,0,8192,8192
250.7,0,0,8192,8192
250.753,0,0,8192,8192
250.803,0,0,8192,8192
250.852,0,0,8192,8192
250.902,2.77556e-17,0,8192,8192
250.952,0,0,8192,8192
251.002,2.77556e-17,0,8192,8192
251.052,2.77556e-17,0,8192,8192
251.101,2.77556e-17,0,8192,8192
251.151,2.77556e-17,0,8192,8192
251.201,2.77556e-17,0,8192,8192
251.251,2.77556e-17,0,8192,8192
251.301,2.77556e-17,0,8192,8192
251.35,2.77556e-17,0,8192,8192
251.4,0,0,8192,8192
251.453,-2.77556e-17,0,8192,8192
251.503,-2.77556e-17,0,8192,8192
251.553,2.77556e-17,0,8192,8192
251.602,2.77556e-17,0,8192,8192
251.652,2.77556e-17,0,8192,8192
251.702,5.55112e-17,0,8192,8192
251.752,5.55112e-17,0,8192,8192
251.801,5.55112e-17,0,8192,8192
251.851,5.55112e-17,0,8192,8192
251.901,5.55112e-17,0,8192,8192
251.951,5.55112e-17,0,8192,8192
252.001,2.77556e-17,0,8192,8192
252.05,2.77556e-17,0,8192,8192
252.1,2.77556e-17,0,8192,8192
252.15,-2.77556e-17,0,8192,8192
252.203,-2.77556e-17,0,8192,8192
252.253,-5.55112e-17,0,8192,8192
252.302,-2.77556e-17,0,8192,8192
252.352,-5.55112e-17,0,8192,8192
252.402,0,0,8192,8192
252.452,-2.77556e-17,0,8192,8192
252.502,-2.77556e-17,0,8192,8192
252.551,2.77556e-17,0,8192,8192
252.601,2.77556e-17,0,8192,8192
252.651,5.55112e-17,0,8192,8192
252.701,2.77556e-17,0,8192,8192
252.751,2.77556e-17,0,8192,8192
252.8,0,0,8192,8192
252.85,-2.77556e-17,0,8192,8192
252.903,-5.55112e-17,0,8192,8192
252.953,-5.55112e-17,0,8192,8192
253.002,-2.77556e-17,0,8192,8192
253.052,-2.77556e-17,0,8192,8192
253.102,-5.55112e-17,0,8192,8192
253.152,-5.55112e-17,0,8192,8192
253.202,-2.77556e-17,0,8192,8192
253.251,-2.77556e-17,0,8192,8192
253.301,0,0,8192,8192
253.351,2.77556e-17,0,8192,8192
253.401,0,0,8192,8192
253.451,2.77556e-17,0,8192,8192
253.5,5.55112e-17,0,8192,8192
253.55,5.55112e-17,0,8192,8192
253.6,5.55112e-17,0,8192,8192
253.653,2.77556e-17,0,8192,8192
253.703,2.77556e-17,0,8192,8192
253.752,2.77556e-17,0,8192,8192
253.802,2.77556e-17,0,8192,8192
253.852,2.77556e-17,0,8192,8192
253.902,-5.55112e-17,0,8192,8192
253.952,-2.77556e-17,0,8192,8192
254.001,0,0,8192,8192
254.051,-2.77556e-17,0,8192,8192
254.101,-2.77556e-17,0,8192,8192
254.151,-2.77556e-17,0,8192,8192
254.201,-2.77556e-17,0,8192,8192
254.25,-2.77556e-17,0,8192,8192
254.3,-2.77556e-17,0,8192,8192
254.353,-2.77556e-17,0,8192,8192
254.403,-5.55112e-17,0,8192,8192
254.452,-2.77556e-17,0,8192,8192
254.502,2.77556e-17,0,8192,8192
254.552,8.32667e-17,0,8192,8192
254.602,5.55112e-17,0,8192,8192
254.652,2.77556e-17,0,8192,8192
254.701,2.77556e-17,0,8192,8192
254.751,2.77556e-17,0,8192,8192
254.801,0,0,8192,8192
254.851,2.77556e-17,0,8192,8192
254.901,5.55112e-17,0,8192,8192
254.95,5.55112e-17,0,8192,8192
255,8.32667e-17,0,8192,8192
255.05,2.77556e-17,0,8192,8192
255.103,5.55112e-17,0,8192,8192
255.153,5.55112e-17,0,8192,8192
255.202,5.55112e-17,0,8192,8192
255.252,8.32667e-17,0,8192,8192
255.302,8.32667e-17,0,8192,8192
255.352,8.32667e-17,0,8192,8192
255.402,8.32667e-17,0,8192,8192
255.451,8.32667e-17,0,8192,8192
255.501,8.32667e-17,0,8192,8192
255.551,5.55112e-17,0,8192,8192
255.601,5.55112e-17,0,8192,8192
255.651,5.55112e-17,0,8192,8192
255.7,5.55112e-17,0,8192,8192
255.75,5.55112e-17,0,8192,8192
255.803,2.77556e-17,0,8192,8192
255.853,-2.77556e-17,0,8192,8192
255.902,0,0,8192,8192
255.952,-2.77556e-17,0,8192,8192
256.002,-2.77556e-17,0,8192,8192
256.052,-2.77556e-17,0,8192,8192
256.102,-2.77556e-17,0,8192,8192
256.151,-5.55112e-17,0,8192,8192
256.201,-5.55112e-17,0,8192,8192
256.251,-8.32667e-17,0,8192,8192
256.301,-8.32667e-17,0,8192,8192
256.351,-5.55112e-17,0,8192,8192
256.4,-2.77556e-17,0,8192,8192
256.45,-2.77556e-17,0,8192,8192
256.5,-5.55112e-17,0,8192,8192
256.553,-5.55112e-17,0,8192,8192
256.603,-2.77556e-17,0,8192,8192
256.652,-5.55112e-17,0,8192,8192
256.702,-5.55112e-17,0,8192,8192
256.752,0,0,8192,8192
256.802,-2.77556e-17,0,8192,8192
256.852,-2.77556e-17,0,8192,8192
256.901,-2.77556e-17,0,8192,8192
256.951,-2.77556e-17,0,8192,8192
257.001,-2.77556e-17,0,8192,8192
257.051,0,0,8192,8192
257.101,0,0,8192,8192
257.15,0,0,8192,8192
257.2,5.55112e-17,0,8192,8192
257.253,0,0,8192,8192
257.303,-2.77556e-17,0,8192,8192
257.352,-2.77556e-17,0,8192,8192
257.402,2.77556e-17,0,8192,8192
257.452,5.55112e-17,0,8192,8192
257.502,5.55112e-17,0,8192,8192
257.552,8.32667e-17,0,8192,8192
257.601,5.55112e-17,0,8192,8192
257.651,5.55112e-17,0,8192,8192
257.701,2.77556e-17,0,8192,8192
257.751,0,0,8192,8192
257.801,-2.77556e-17,0,8192,8192
257.85,-2.77556e-17,0,8192,8192
257.9,-2.77556e-17,0,8192,8192
257.95,-2.77556e-17,0,8192,8192
258.003,-2.77556e-17,0,8192,8192
258.053,0,0,8192,8192
258.102,0,0,8192,8192
258.152,-2.77556e-17,0,8192,8192
258.202,-5.55112e-17,0,8192,8192
258.252,-2.77556e-17,0,8192,8192
258.302,2.77556e-17,0,8192,8192
258.351,2.77556e-17,0,8192,8192
258.401,2.77556e-17,0,8192,8192
258.451,2.77556e-17,0,8192,8192
258.501,2.77556e-17,0,8192,8192
258.551,2.77556e-17,0,8192,8192
258.6,2.77556e-17,0,8192,8192
258.65,2.77556e-17,0,8192,8192
258.703,0,0,8192,8192
258.753,5.55112e-17,0,8192,8192
258.802,2.77556e-17,0,8192,8192
258.852,0,0,8192,8192
258.902,2.77556e-17,0,8192,8192
258.952,2.77556e-17,0,8192,8192
259.002,0,0,8192,8192
259.051,0,0,8192,8192
259.101,0,0,8192,8192
259.151,2.77556e-17,0,8192,8192
259.201,0,0,8192,8192
259.251,-2.77556e-17,0,8192,8192
259.3,-2.77556e-17,0,8192,8192
259.35,-2.77556e-17,0,8192,8192
259.403,-5.55112e-17,0,8192,8192
259.453,0,0,8192,8192
259.503,0,0,8192,8192
259.552,0,0,8192,8192
259.602,0,0,8192,8192
259.652,-2.77556e-17,0,8192,8192
259.702,-2.77556e-17,0,8192,8192
259.751,-2.77556e-17,0,8192,8192
259.801,-2.77556e-17,0,8192,8192
259.851,-2.77556e-17,0,8192,8192
259.901,-2.77556e-17,0,8192,8192
259.951,0,0,8192,8192
260,5.55112e-17,0,8192,8192
260.05,-2.77556e-17,0,8192,8192
260.1,-2.77556e-17,0,8192,8192
260.153,-2.77556e-17,0,8192,8192
260.203,5.55112e-17,0,8192,8192
260.252,0,0,8192,8192
260.302,-2.77556e-17,0,8192,8192
260.352,-2.77556e-17,0,8192,8192
260.402,-2.77556e-17,0,8192,8192
260.452,-5.55112e-17,0,8192,8192
260.501,-5.55112e-17,0,8192,8192
260.551,-5.55112e-17,0,8192,8192
260.601,-2.77556e-17,0,8192,8192
260.651,-8.32667e-17,0,8192,8192
260.701,-2.77556e-17,0,8192,8192
260.75,-2.77556e-17,0,8192,8192
260.8,0,0,8192,8192
260.853,0,0,8192,8192
260.903,2.77556e-17,0,8192,8192
260.952,0,0,8192,8192
261.002,0,0,8192,8192
261.052,0,0,8192,8192
261.102,0,0,8192,8192
261.152,-2.77556e-17,0,8192,8192
261.201,-2.77556e-17,0,8192,8192
261.251,-2.77556e-17,0,8192,8192
261.301,-2.77556e-17,0,8192,8192
261.351,-5.55112e-17,0,8192,8192
261.401,-2.77556e-17,0,8192,8192
261.45,-2.77556e-17,0,8192,8192
261.5,-5.55112e-17,0,8192,8192
261.55,-2.77556e-17,0,8192,8192
261.603,-2.77556e-17,0,8192,8192
261.653,-5.55112e-17,0,8192,8192
261.702,-2.77556e-17,0,8192,8192
261.752,0,0,8192,8192
261.802,0,0,8192,8192
261.852,-5.55112e-17,0,8192,8192
261.902,-5.55112e-17,0,8192,8192
261.951,-2.77556e-17,0,8192,8192
262.001,0,0,8192,8192
262.051,-2.77556e-17,0,8192,8192
262.101,-2.77556e-17,0,8192,8192
262.151,-2.77556e-17,0,8192,8192
262.2,-2.77556e-17,0,8192,8192
262.25,-2.77556e-17,0,8192,8192
262.303,5.55112e-17,0,8192,8192
262.353,5.55112e-17,0,8192,8192
262.402,2.77556e-17,0,8192,8192
262.452,5.55112e-17,0,8192,8192
262.502,5.55112e-17,0,8192,8192
262.552,0,0,8192,8192
262.602,0,0,8192,8192
262.651,2.77556e-17,0,8192,8192
262.701,2.77556e-17,0,8192,8192
262.751,0,0,8192,8192
262.801,2.77556e-17,0,8192,8192
262.851,0,0,8192,8192
262.9,5.55112e-17,0,8192,8192
262.95,5.55112e-17,0,8192,8192
263,5.55112e-17,0,8192,8192
263.053,8.32667e-17,0,8192,8192
263.103,8.32667e-17,0,8192,8192
263.152,8.32667e-17,0,8192,8192
263.202,5.55112e-17,0,8192,8192
263.252,1.11022e-16,0,8192,8192
263.302,1.11022e-16,0,8192,8192
263.352,8.32667e-17,0,8192,8192
263.401,5.55112e-17,0,8192,8192
263.451,2.77556e-17,0,8192,8192
263.501,0,0,8192,8192
263.551,0,0,8192,8192
263.601,0,0,8192,8192
263.65,0,0,8192,8192
263.7,0,0,8192,8192
263.753,2.77556e-17,0,8192,8192
263.803,5.55112e-17,0,8192,8192
263.852,2.77556e-17,0,8192,8192
263.902,2.77556e-17,0,8192,8192
263.952,0,0,8192,8192
264.002,0,0,8192,8192
264.052,-2.77556e-17,0,8192,8192
264.101,-5.55112e-17,0,8192,8192
264.151,-2.77556e-17,0,8192,8192
264.201,-2.77556e-17,0,8192,8192
264.251,-2.77556e-17,0,8192,8192
264.301,0,0,8192,8192
264.35,0,0,8192,8192
264.4,5.55112e-17,0,8192,8192
264.45,1.11022e-16,0,8192,8192
264.503,1.11022e-16,0,8192,8192
264.553,1.11022e-16,0,8192,8192
264.602,1.11022e-16,0,8192,8192
264.652,8.32667e-17,0,8192,8192
264.702,8.32667e-17,0,8192,8192
264.752,1.11022e-16,0,8192,8192
264.802,1.38778e-16,0,8192,8192
264.851,1.66533e-16,0,8192,8192
264.901,1.11022e-16,0,8192,8192
264.951,1.38778e-16,0,8192,8192
265.001,1.38778e-16,0,8192,8192
265.051,1.11022e-16,0,8192,8192
265.1,8.32667e-17,0,8192,8192
265.15,1.11022e-16,0,8192,8192
265.203,8.32667e-17,0,8192,8192
265.253,1.11022e-16,0,8192,8192
265.302,1.11022e-16,0,8192,8192
265.352,8.32667e-17,0,8192,8192
265.402,5.55112e-17,0,8192,8192
265.452,5.55112e-17,0,8192,8192
265.502,5.55112e-17,0,8192,8192
265.551,8.32667e-17,0,8192,8192
265.601,8.32667e-17,0,8192,8192
265.651,5.55112e-17,0,8192,8192
265.701,5.55112e-17,0,8192,8192
265.751,5.55112e-17,0,8192,8192
265.8,2.77556e-17,0,8192,8192
265.85,2.77556e-17,0,8192,8192
265.9,2.77556e-17,0,8192,8192
265.953,2.77556e-17,0,8192,8192
266.003,0,0,8192,8192
266.052,0,0,8192,8192
266.102,0,0,8192,8192
266.152,-5.55112e-17,0,8192,8192
266.202,-5.55112e-17,0,8192,8192
266.252,-5.55112e-17,0,8192,8192
266.301,-5.55112e-17,0,8192,8192
266.351,-8.32667e-17,0,8192,8192
266.401,-8.32667e-17,0,8192,8192
266.451,-8.32667e-17,0,8192,8192
266.501,-8.32667e-17,0,8192,8192
266.55,-1.11022e-16,0,8192,8192
266.6,-1.11022e-16,0,8192,8192
266.653,-1.11022e-16,0,8192,8192
266.703,-1.11022e-16,0,8192,8192
266.752,-1.38778e-16,0,8192,8192
266.802,-1.38778e-16,0,8192,8192
266.852,-1.38778e-16,0,8192,8192
266.902,-1.11022e-16,0,8192,8192
266.952,-1.38778e-16,0,8192,8192
267.001,-1.38778e-16,0,8192,8192
267.051,-8.32667e-17,0,8192,8192
267.101,-1.11022e-16,0,8192,8192
267.151,-5.55112e-17,0,8192,8192
267.201,-5.55112e-17,0,8192,8192
267.25,-8.32667e-17,0,8192,8192
267.3,-5.55112e-17,0,8192,8192
267.353,-5.55112e-17,0,8192,8192
267.403,-2.77556e-17,0,8192,8192
267.453,-5.55112e-17,0,8192,8192
267.502,-8.32667e-17,0,8192,8192
267.552,-1.11022e-16,0,8192,8192
267.602,-1.11022e-16,0,8192,8192
267.652,-8.32667e-17,0,8192,8192
267.702,-1.11022e-16,0,8192,8192
267.751,-8.32667e-17,0,8192,8192
267.801,-1.11022e-16,0,8192,8192
267.851,-1.11022e-16,0,8192,8192
267.901,-1.38778e-16,0,8192,8192
267.95,-1.38778e-16,0,8192,8192
268,-1.38778e-16,0,8192,8192
268.05,-1.11022e-16,0,8192,8192
268.103,-1.11022e-16,0,8192,8192
268.153,-1.11022e-16,0,8192,8192
268.202,-1.11022e-16,0,8192,8192
268.252,-1.11022e-16,0,8192,8192
268.302,-1.11022e-16,0,8192,8192
268.352,-1.11022e-16,0,8192,8192
268.402,-8.32667e-17,0,8192,8192
268.451,-8.32667e-17,0,8192,8192
268.501,-8.32667e-17,0,8192,8192
268.551,-5.55112e-17,0,8192,8192
268.601,-8.32667e-17,0,8192,8192
268.651,-1.11022e-16,0,8192,8192
268.7,-5.55112e-17,0,8192,8192
268.75,-5.55112e-17,0,8192,8192
268.803,-5.55112e-17,0,8192,8192
268.853,-5.55112e-17,0,8192,8192
268.902,-2.77556e-17,0,8192,8192
268.952,-2.77556e-17,0,8192,8192
269.002,0,0,8192,8192
269.052,0,0,8192,8192
269.102,-5.55112e-17,0,8192,8192
269.151,-5.55112e-17,0,8192,8192
269.201,-5.55112e-17,0,8192,8192
269.251,-2.77556e-17,0,8192,8192
269.301,0,0,8192,8192
269.351,-2.77556e-17,0,8192,8192
269.4,-2.77556e-17,0,8192,8192
269.45,-5.55112e-17,0,8192,8192
269.5,-8.32667e-17,0,8192,8192
269.553,0,0,8192,8192
269.603,0,0,8192,8192
269.652,-2.77556e-17,0,8192,8192
269.702,-2.77556e-17,0,8192,8192
269.752,-2.77556e-17,0,8192,8192
269.802,-2.77556e-17,0,8192,8192
269.852,0,0,8192,8192
269.901,-5.55112e-17,0,8192,8192
269.951,-2.77556e-17,0,8196,8196
270,-2.77556e-17,0,8364,8364
270.051,-2.77556e-17,0,8532,8532
270.101,-2.77556e-17,0,8700,8700
270.151,-2.77556e-17,0,8868,8868
270.201,-2.77556e-17,0,9036,9036
270.251,-2.77556e-17,0,9204,9204
270.3,-2.77556e-17,0,9372,9372
270.35,-2.77556e-17,0,9540,9540
270.401,-2.77556e-17,0,9708,9708
270.451,-2.77556e-17,0,9876,9876
270.501,-2.77556e-17,0,10044,10044
270.551,-2.77556e-17,0,10212,10212
270.601,-2.77556e-17,0,10380,10380
270.65,-2.77556e-17,0,10524,10524
270.7,-2.77556e-17,0,10692,10692
270.75,-2.77556e-17,0,10860,10860
270.801,-2.77556e-17,0,11052,11052
270.851,7.49401e-16,0,11220,11220
270.901,2.08167e-15,0,11388,11388
270.951,7.91034e-15,0,11556,11556
271,-3.81917e-14,0,11724,11724
271.05,-9.08745e-13,0,11868,11868
271.1,-6.74191e-12,0,12036,12036
271.151,-3.03052e-11,0,12228,12228
271.201,-8.67942e-11,0,12396,12396
271.251,-1.76636e-10,0,12564,12564
271.301,-2.62777e-10,0,12732,12732
271.35,-2.84786e-10,0,12900,12900
271.4,-2.08296e-10,0,13068,13068
271.45,-6.17703e-11,0,13236,13236
271.501,8.20436e-11,0,13404,13404
271.551,1.44965e-10,0,13572,13572
271.601,1.20013e-10,0,13740,13740
271.651,5.57279e-11,0,13908,13908
271.701,1.9196e-11,0,14076,14076
271.75,4.2608e-11,0,14244,14244
271.8,1.0189e-10,0,14412,14412
271.851,1.44465e-10,0,14580,14580
271.901,1.3498e-10,0,14748,14748
271.951,9.06016e-11,0,14916,14916
272.001,5.54535e-11,0,15084,15084
272.051,6.11748e-11,0,15228,15228
272.1,1.01401e-10,0,15396,15396
272.15,1.41394e-10,0,15564,15564
272.201,1.49079e-10,0,15732,15732
272.251,1.20363e-10,0,15900,15900
272.301,8.0839e-11,0,16068,16068
272.351,6.32228e-11,0,16212,16212
272.401,8.40918e-11,0,16380,16380
272.45,1.30359e-10,0,16548,16548
272.5,1.65119e-10,0,16692,16692
272.55,1.53786e-10,0,16860,16860
272.601,9.52917e-11,0,17028,17028
272.651,4.25284e-11,0,17172,17172
272.701,5.47681e-11,0,17340,17340
272.751,1.3903e-10,0,17484,17484
272.8,2.18297e-10,0,17652,17652
272.85,1.96327e-10,0,17820,17820
272.9,9.93122e-11,0,17964,17964
272.951,1.84861e-10,0,18132,18132
273.001,8.61159e-10,0,18276,18276
273.051,2.44428e-09,0,18444,18444
273.101,4.9348e-09,0,18588,18588
273.151,7.97648e-09,0,18732,18732
273.2,1.43542e-08,0,18900,18900
273.25,2.18376e-08,0,19044,19044
273.301,2.65576e-08,0,19212,19212
273.351,2.92041e-08,0,19356,19356
273.401,3.11599e-08,0,19500,19500
273.451,3.38763e-08,0,19552,19552
273.501,3.88258e-08,0,19552,19552
273.55,4.66902e-08,0,19528,19528
273.6,5.71479e-08,0,19504,19504
273.651,6.99195e-08,0,19480,19480
273.701,8.42228e-08,0,19464,19464
273.751,1.01342e-07,0,19504,19504
273.801,1.22764e-07,0,19528,19528
273.851,1.49857e-07,0,19624,19624
273.9,1.83476e-07,0,19768,19768
273.95,2.23676e-07,0,19912,19912
274.001,2.70757e-07,0,20056,20056
274.051,3.19839e-07,0,20200,20200
274.101,3.70175e-07,0,20344,20344
274.151,4.21327e-07,0,20488,20488
274.201,4.74657e-07,0,20632,20632
274.25,5.3169e-07,0,20776,20776
274.3,5.91934e-07,0,20920,20920
274.35,6.5229e-07,0,21040,21040
274.401,7.10018e-07,0,21184,21184
274.451,7.58127e-07,0,21328,21328
274.501,7.96255e-07,0,21472,21472
274.551,8.23816e-07,0,21616,21616
274.6,8.41709e-07,0,21760,21760
274.65,8.5205e-07,0,22048,22048
274.7,8.57245e-07,0,22360,22360
274.751,8.58971e-07,0,22672,22672
274.801,8.57695e-07,0,22960,22960
274.851,8.53234e-07,0,23248,23248
274.901,8.44822e-07,0,23560,23560
274.951,8.31408e-07,0,23848,23848
275,8.11864e-07,0,24060,24060
275.05,7.85196e-07,0,24180,24180
275.101,7.4963e-07,0,24324,24324
275.151,7.07346e-07,0,24468,24468
275.201,6.5891e-07,0,24588,24588
275.251,6.07009e-07,0,24732,24732
275.301,5.54652e-07,0,24852,24852
275.35,5.04167e-07,0,24996,24996
275.4,4.56863e-07,0,25116,25116
275.451,4.12021e-07,0,25260,25260
275.501,3.72129e-07,0,25380,25380
275.551,3.35368e-07,0,25524,25524
275.601,3.01081e-07,0,25644,25644
275.651,2.68651e-07,0,25788,25788
275.7,2.3769e-07,0,25908,25908
275.75,2.08346e-07,0,26052,26052
275.8,1.8162e-07,0,26172,26172
275.851,1.58495e-07,0,26316,26316
275.901,1.4128e-07,0,26436,26436
275.951,1.28376e-07,0,26580,26580
276.001,1.17272e-07,0,26700,26700
276.05,1.0553e-07,0,26844,26844
276.1,9.25112e-08,0,26964,26964
276.15,7.95038e-08,0,27084,27084
276.201,6.80761e-08,0,27228,27228
276.251,5.99303e-08,0,27348,27348
276.301,5.45472e-08,0,27492,27492
276.351,5.09904e-08,0,27612,27612
276.401,4.79407e-08,0,27732,27732
276.45,4.4075e-08,0,27876,27876
276.5,3.86933e-08,0,27996,27996
276.551,3.21093e-08,0,28116,28116
276.601,2.62814e-08,0,28260,28260
276.651,2.25046e-08,0,28380,28380
276.701,2.10278e-08,0,28500,28500
276.751,2.10076e-08,0,28644,28644
276.8,2.14733e-08,0,28764,28764
276.85,2.18668e-08,0,28884,28884
276.901,2.20678e-08,0,29028,29028
276.951,2.21621e-08,0,29148,29148
277.001,2.22509e-08,0,29268,29268
277.051,2.23439e-08,0,29388,29388
277.101,2.23741e-08,0,29532,29532
277.15,2.22216e-08,0,29652,29652
277.2,2.18486e-08,0,29772,29772
277.25,2.14248e-08,0,29892,29892
277.301,2.11332e-08,0,30036,30036
277.351,2.0996e-08,0,30156,30156
277.401,2.09154e-08,0,30276,30276
277.451,2.08343e-08,0,30396,30396
277.5,2.07323e-08,0,30516,30516
277.55,2.06023e-08,0,30660,30660
277.6,2.04419e-08,0,30780,30780
277.651,2.02432e-08,0,30900,30900
277.701,2.00162e-08,0,31020,31020
277.751,1.97545e-08,0,31140,31140
277.801,1.94564e-08,0,31260,31260
277.851,1.91212e-08,0,31380,31380
277.9,1.87489e-08,0,31500,31500
277.95,1.83417e-08,0,31620,31620
278.001,1.78901e-08,0,31716,31716
278.051,1.74252e-08,0,31836,31836
278.101,1.69401e-08,0,31932,31932
278.151,1.64403e-08,0,32028,32028
278.201,1.5931e-08,0,32124,32124
278.25,1.54164e-08,0,32220,32220
278.3,1.48997e-08,0,32316,32316
278.351,1.4368e-08,0,32436,32436
278.401,1.38539e-08,0,32556,32556
278.451,1.3345e-08,0,32768,32768
278.501,1.28444e-08,0,32768,32768
278.551,1.23557e-08,0,32768,32768
278.6,1.18833e-08,0,32768,32768
278.65,1.14317e-08,0,32768,32768
278.701,1.0993e-08,0,32768,32768
278.751,1.05959e-08,0,32768,32768
278.801,1.023e-08,0,32768,32768
278.851,9.89598e-09,0,32768,32768
278.901,9.59358e-09,0,32768,32768
278.95,9.32142e-09,0,32768,32768
279,9.07767e-09,0,32768,32768
279.05,8.8603e-09,0,32768,32768
279.101,8.66211e-09,0,32768,32768
279.151,8.49268e-09,0,32768,32768
279.201,8.34456e-09,0,32768,32768
279.251,8.21645e-09,0,32768,32768
279.3,8.10698e-09,0,32768,32768
279.35,8.01436e-09,0,32768,32768
279.4,7.93635e-09,0,32768,32768
279.451,7.86874e-09,0,32768,32768
279.501,7.81324e-09,0,32768,32768
279.551,7.76643e-09,0,32768,32768
279.601,7.7277e-09,0,32768,32768
279.651,7.69684e-09,0,32768,32768
279.7,7.67354e-09,0,32768,32768
279.75,7.657e-09,0,32768,32768
279.801,7.64579e-09,0,32768,32768
279.851,7.63922e-09,0,32768,32768
279.901,7.63583e-09,0,32768,32768
279.951,7.63517e-09,0,32768,32768
280.001,7.63732e-09,0,32768,32768
280.05,7.64257e-09,0,32768,32768
280.1,7.6511e-09,0,32768,32768
280.151,7.66316e-09,0,32768,32768
280.201,7.67746e-09,0,32768,32768
280.251,7.69337e-09,0,32768,32768
280.301,7.71001e-09,0,32768,32768
280.351,7.72685e-09,0,32768,32768
280.4,7.74372e-09,0,32768,32768
280.45,7.76059e-09,0,32768,32768
280.5,7.77744e-09,0,32768,32768
280.551,7.79469e-09,0,32768,32768
280.601,7.81132e-09,0,32768,32768
280.651,7.82788e-09,0,32768,32768
280.701,7.84446e-09,0,32768,32768
280.75,7.86108e-09,0,32768,32768
280.8,7.87776e-09,0,32768,32768
280.85,7.89443e-09,0,32768,32768
280.901,7.9115e-09,0,32768,32768
280.951,7.9279e-09,0,32768,32768
281.001,7.94405e-09,0,32768,32768
281.051,7.95992e-09,0,32768,32768
281.101,7.97546e-09,0,32768,32768
281.15,7.99067e-09,0,32768,32768
281.2,8.00551e-09,0,32768,32768
281.251,8.02039e-09,0,32768,32768
281.301,8.03445e-09,0,32768,32768
281.351,8.04811e-09,0,32768,32768
281.401,8.06135e-09,0,32708,32708
281.451,8.07415e-09,0,32768,32768
281.5,8.08655e-09,0,32768,32768
281.55,8.09858e-09,0,32768,32768
281.601,8.11067e-09,0,32768,32768
281.651,8.12229e-09,0,32768,32768
281.701,8.13413e-09,0,32768,32768
281.751,8.14675e-09,0,32768,32768
281.801,8.16103e-09,0,32768,32768
281.85,8.1784e-09,0,32768,32768
281.9,8.2012e-09,0,32768,32768
281.95,8.23308e-09,0,32768,32768
282.001,8.28036e-09,0,32768,32768
282.051,8.34526e-09,0,32768,32768
282.101,8.43246e-09,0,32768,32768
282.151,8.54396e-09,0,32768,32768
282.2,8.68079e-09,0,32768,32768
282.25,8.84419e-09,0,32768,32768
282.3,9.03649e-09,0,32768,32768
282.351,9.26878e-09,0,32768,32768
282.401,9.53371e-09,0,32768,32768
282.451,9.84515e-09,0,32768,32768
282.501,1.02131e-08,0,32768,32768
282.55,1.065e-08,0,32768,32768
282.6,1.11714e-08,0,32768,32768
282.65,1.17953e-08,0,32768,32768
282.701,1.25658e-08,0,32768,32768
282.751,1.34601e-08,0,32768,32768
282.801,1.45182e-08,0,32768,32768
282.851,1.57584e-08,0,32768,32768
282.901,1.71964e-08,0,32768,32768
282.95,1.88458e-08,0,32768,32768
283,2.07175e-08,0,32768,32768
283.051,2.28856e-08,0,32768,32768
283.101,2.52309e-08,0,32768,32768
283.151,2.78115e-08,0,32768,32768
283.201,3.062e-08,0,32768,32768
283.251,3.36421e-08,0,32768,32768
283.3,3.68575e-08,0,32768,32768
283.35,4.02426e-08,0,32768,32768
283.401,4.38796e-08,0,32768,32768
283.451,4.75402e-08,0,32768,32768
283.501,5.13134e-08,0,32768,32768
283.551,5.51948e-08,0,32768,32768
283.601,5.9189e-08,0,32768,32768
283.65,6.33071e-08,0,32768,32768
283.7,6.75638e-08,0,32768,32768
283.75,7.1974e-08,0,32768,32768
283.801,7.66947e-08,0,32768,32768
283.851,8.14958e-08,0,32768,32768
283.901,8.65865e-08,0,32768,32768
283.951,9.20749e-08,0,32768,32768
284,9.80482e-08,0,32768,32768
284.05,1.04499e-07,0,32768,32768
284.1,1.11301e-07,0,32768,32768
284.151,1.18482e-07,0,32768,32768
284.201,1.25529e-07,0,32768,32768
284.251,1.32717e-07,0,32768,32768
284.301,1.40309e-07,0,32768,32768
284.351,1.48697e-07,0,32768,32768
284.4,1.58328e-07,0,32768,32768
284.45,1.69645e-07,0,32768,32768
284.501,1.8351e-07,0,32768,32768
284.551,1.99572e-07,0,32768,32768
284.601,2.1863e-07,0,32768,32768
284.651,2.41094e-07,0,32768,32768
284.701,2.67282e-07,0,32768,32768
284.75,2.97342e-07,0,32768,32768
284.8,3.312e-07,0,32768,32768
284.851,3.69707e-07,0,32768,32768
284.901,4.10179e-07,0,32768,32768
284.951,4.53084e-07,0,32768,32768
285.001,4.97775e-07,0,32768,32768
285.051,5.43517e-07,0,32768,32768
285.1,5.8942e-07,0,32768,32768
285.15,6.34371e-07,0,32768,32768
285.2,6.77033e-07,0,32768,32768
285.251,7.17015e-07,0,32768,32768
285.301,7.50597e-07,0,32768,32768
285.351,7.77862e-07,0,32768,32768
285.401,7.98134e-07,0,32768,32768
285.45,8.1124e-07,0,32768,32768
285.5,8.17456e-07,0,32768,32768
285.55,8.17338e-07,0,32768,32768
285.601,8.11279e-07,0,32768,32768
285.651,8.0018e-07,0,32768,32768
285.701,7.84274e-07,0,32768,32768
285.751,7.63643e-07,0,32768,32768
285.801,7.38193e-07,0,32768,32768
285.85,7.0777e-07,0,32768,32768
285.9,6.72313e-07,0,32768,32768
285.951,6.3074e-07,0,32768,32768
286.001,5.85952e-07,0,32768,32768
286.051,5.37698e-07,0,32768,32768
286.101,4.87134e-07,0,32768,32768
286.151,4.35571e-07,0,32768,32768
286.2,3.84304e-07,0,32768,32768
286.25,3.34464e-07,0,32768,32768
286.301,2.85546e-07,0,32768,32768
286.351,2.40902e-07,0,32768,32768
286.401,1.99364e-07,0,32768,32768
286.451,1.61014e-07,0,32768,32768
286.501,1.25849e-07,0,32768,32768
286.55,9.38633e-08,0,32768,32768
286.6,6.50836e-08,0,32768,32768
286.651,3.8849e-08,0,32768,32768
286.701,1.66513e-08,0,32768,32768
286.751,-2.42827e-09,0,32768,32768
286.801,-1.86537e-08,0,32768,32768
286.851,-3.23962e-08,0,32768,32768
286.9,-4.40434e-08,0,32768,32768
286.95,-5.39008e-08,0,32768,32768
287,-6.21449e-08,0,32736,32736
287.051,-6.9021e-08,0,32736,32736
287.101,-7.41788e-08,0,32752,32752
287.151,-7.79284e-08,0,32704,32704
287.201,-8.04484e-08,0,32720,32720
287.25,-8.19583e-08,0,32688,32688
287.3,-8.27756e-08,0,32688,32688
287.35,-8.29484e-08,0,32688,32688
287.401,-8.26461e-08,0,32688,32688
287.451,-8.1746e-08,0,32672,32672
287.501,-8.02092e-08,0,32688,32688
287.551,-7.79735e-08,0,32688,32688
287.601,-7.50551e-08,0,32688,32688
287.65,-7.15654e-08,0,32688,32688
287.7,-6.76615e-08,0,32672,32672
287.751,-6.34142e-08,0,32688,32688
287.801,-5.92287e-08,0,32688,32688
287.851,-5.51164e-08,0,32688,32688
287.901,-5.11656e-08,0,32672,32672
287.951,-4.74288e-08,0,32664,32664
288,-4.39306e-08,0,32664,32664
288.05,-4.06772e-08,0,32664,32664
288.101,-3.7575e-08,0,32648,32648
288.151,-3.47863e-08,0,32656,32656
288.201,-3.22011e-08,0,32632,32632
288.251,-2.98062e-08,0,32648,32648
288.301,-2.75919e-08,0,32648,32648
288.35,-2.55513e-08,0,32624,32624
288.4,-2.36798e-08,0,32616,32616
288.45,-2.19727e-08,0,32624,32624
288.501,-2.03813e-08,0,32624,32624
288.551,-1.89882e-08,0,32624,32624
288.601,-1.77368e-08,0,32608,32608
288.651,-1.66172e-08,0,32600,32600
288.7,-1.56186e-08,0,32616,32616
288.75,-1.47307e-08,0,32600,32600
288.8,-1.39425e-08,0,32608,32608
288.851,-1.32251e-08,0,32624,32624
288.901,-1.26105e-08,0,32616,32616
288.951,-1.20694e-08,0,32632,32632
289.001,-1.15963e-08,0,32600,32600
289.051,-1.11894e-08,0,32592,32592
289.1,-1.084e-08,0,32592,32592
289.15,-1.05408e-08,0,32600,32600
289.201,-1.02886e-08,0,32592,32592
289.251,-1.00835e-08,0,32600,32600
289.301,-9.93839e-09,0,32600,32600
289.351,-9.84544e-09,0,32616,32616
289.401,-9.77825e-09,0,32592,32592
289.45,-9.72957e-09,0,32608,32608
289.5,-9.7183e-09,0,32608,32608
289.551,-9.72671e-09,0,32600,32600
289.601,-9.75639e-09,0,32592,32592
289.651,-9.81679e-09,0,32584,32584
289.701,-9.87526e-09,0,32592,32592
289.751,-9.94554e-09,0,32600,32600
289.8,-1.0001e-08,0,32592,32592
289.85,-1.00682e-08,0,32592,32592
289.901,-1.01482e-08,0,32592,32592
289.951,-1.02054e-08,0,32600,32600
290.001,-1.02582e-08,0,32604,32604
290.051,-1.03119e-08,0,32724,32724
290.101,-1.03664e-08,0,32768,32768
290.15,-1.04178e-08,0,32768,32768
290.2,-1.0452e-08,0,32768,32768
290.25,-1.04874e-08,0,32768,32768
290.301,-1.05293e-08,0,32768,32768
290.351,-1.05535e-08,0,32768,32768
290.401,-1.0583e-08,0,32768,32768
290.451,-1.06146e-08,0,32768,32768
290.5,-1.06341e-08,0,32768,32768
290.55,-1.06636e-08,0,32768,32768
290.6,-1.06922e-08,0,32768,32768
290.651,-1.07131e-08,0,32768,32768
290.701,-1.07442e-08,0,32768,32768
290.751,-1.07715e-08,0,32768,32768
290.801,-1.0793e-08,0,32768,32768
290.851,-1.08151e-08,0,32768,32768
290.9,-1.0837e-08,0,32768,32768
290.95,-1.08564e-08,0,32768,32768
291.001,-1.08836e-08,0,32768,32768
291.051,-1.09124e-08,0,32768,32768
291.101,-1.09402e-08,0,32768,32768
291.151,-1.0969e-08,0,32768,32768
291.201,-1.10003e-08,0,32768,32768
291.25,-1.10376e-08,0,32768,32768
291.3,-1.10829e-08,0,32768,32768
291.351,-1.11374e-08,0,32768,32768
291.401,-1.11981e-08,0,32768,32768
291.451,-1.1268e-08,0,32768,32768
291.501,-1.13463e-08,0,32768,32768
291.551,-1.14385e-08,0,32768,32768
291.6,-1.15489e-08,0,32768,32768
291.65,-1.1669e-08,0,32768,32768
291.7,-1.18003e-08,0,32768,32768
291.751,-1.19471e-08,0,32768,32768
291.801,-1.20965e-08,0,32768,32768
291.851,-1.2262e-08,0,32768,32768
291.901,-1.2438e-08,0,32768,32768
291.95,-1.26197e-08,0,32768,32768
292,-1.28154e-08,0,32768,32768
292.05,-1.30236e-08,0,32768,32768
292.101,-1.32551e-08,0,32768,32768
292.151,-1.35038e-08,0,32768,32768
292.201,-1.37687e-08,0,32768,32768
292.251,-1.40552e-08,0,32768,32768
292.301,-1.4368e-08,0,32768,32768
292.35,-1.46984e-08,0,32768,32768
292.4,-1.5051e-08,0,32768,32768
292.451,-1.54365e-08,0,32768,32768
292.501,-1.58235e-08,0,32768,32768
292.551,-1.62243e-08,0,32768,32768
292.601,-1.66397e-08,0,32768,32768
292.651,-1.70658e-08,0,32768,32768
292.7,-1.74988e-08,0,32768,32768
292.75,-1.79321e-08,0,32768,32768
292.801,-1.83776e-08,0,32768,32768
292.851,-1.881e-08,0,32768,32768
292.901,-1.92367e-08,0,32768,32768
292.951,-1.96531e-08,0,32768,32768
293.001,-2.00571e-08,0,32768,32768
293.05,-2.04473e-08,0,32768,32768
293.1,-2.082e-08,0,32768,32768
293.15,-2.11705e-08,0,32768,32768
293.201,-2.1504e-08,0,32768,32768
293.251,-2.18026e-08,0,32768,32768
293.301,-2.2074e-08,0,32768,32768
293.351,-2.23123e-08,0,32768,32768
293.4,-2.2517e-08,0,32768,32768
293.45,-2.26898e-08,0,32768,32768
293.5,-2.28304e-08,0,32768,32768
293.551,-2.29413e-08,0,32768,32768
293.601,-2.30168e-08,0,32768,32768
293.651,-2.30622e-08,0,32768,32768
293.701,-2.30791e-08,0,32768,32768
293.75,-2.30696e-08,0,32768,32768
293.8,-2.30355e-08,0,32768,32768
293.85,-2.2979e-08,0,32768,32768
293.901,-2.28998e-08,0,32768,32768
293.951,-2.2805e-08,0,32768,32768
294.001,-2.26953e-08,0,32768,32768
294.051,-2.2573e-08,0,32768,32768
294.101,-2.24405e-08,0,32768,32768
294.15,-2.23e-08,0,32768,32768
294.2,-2.21531e-08,0,32768,32768
294.251,-2.1997e-08,0,32768,32768
294.301,-2.18419e-08,0,32768,32768
294.351,-2.16846e-08,0,32768,32768
294.401,-2.15262e-08,0,32460,32460
294.451,-2.13676e-08,0,32172,32172
294.5,-2.12097e-08,0,31980,31980
294.55,-2.10534e-08,0,31836,31836
294.601,-2.08948e-08,0,31700,31700
294.651,-2.07436e-08,0,31596,31596
294.701,-2.05958e-08,0,31476,31476
294.751,-2.04518e-08,0,31380,31380
294.801,-2.0312e-08,0,31260,31260
294.85,-2.01767e-08,0,31164,31164
294.9,-2.00462e-08,0,31068,31068
294.95,-1.99207e-08,0,30972,30972
295.001,-1.9797e-08,0,30852,30852
295.051,-1.96821e-08,0,30756,30756
295.101,-1.95725e-08,0,30636,30636
295.151,-1.9468e-08,0,30516,30516
295.2,-1.93685e-08,0,30396,30396
295.25,-1.92738e-08,0,30276,30276
295.3,-1.91835e-08,0,30156,30156
295.351,-1.90949e-08,0,30020,30020
295.401,-1.90128e-08,0,29892,29892
295.451,-1.89341e-08,0,29772,29772
295.501,-1.88585e-08,0,29636,29636
295.551,-1.87857e-08,0,29508,29508
295.6,-1.87153e-08,0,29388,29388
295.65,-1.86471e-08,0,29276,29276
295.701,-1.85789e-08,0,29156,29156
295.751,-1.85141e-08,0,29052,29052
295.801,-1.84507e-08,0,28932,28932
295.851,-1.83883e-08,0,28812,28812
295.901,-1.83267e-08,0,28692,28692
295.95,-1.82656e-08,0,28572,28572
296,-1.8205e-08,0,28452,28452
296.051,-1.81428e-08,0,28308,28308
296.101,-1.80823e-08,0,28188,28188
296.151,-1.80217e-08,0,28044,28044
296.201,-1.79609e-08,0,27924,27924
296.251,-1.78996e-08,0,27780,27780
296.3,-1.78378e-08,0,27644,27644
296.35,-1.77754e-08,0,27516,27516
296.4,-1.77121e-08,0,27372,27372
296.451,-1.76461e-08,0,27252,27252
296.501,-1.75809e-08,0,27108,27108
296.551,-1.75145e-08,0,26988,26988
296.601,-1.74468e-08,0,26844,26844
296.65,-1.73775e-08,0,26724,26724
296.7,-1.73066e-08,0,26580,26580
296.75,-1.72338e-08,0,26460,26460
296.801,-1.71566e-08,0,26316,26316
296.851,-1.70793e-08,0,26196,26196
296.901,-1.69993e-08,0,26052,26052
296.951,-1.69164e-08,0,25932,25932
297.001,-1.68304e-08,0,25788,25788
297.05,-1.6741e-08,0,25668,25668
297.1,-1.66479e-08,0,25532,25532
297.151,-1.6548e-08,0,25404,25404
297.201,-1.64466e-08,0,25268,25268
297.251,-1.63408e-08,0,25140,25140
297.301,-1.62303e-08,0,25004,25004
297.351,-1.61151e-08,0,24876,24876
297.4,-1.59948e-08,0,24756,24756
297.45,-1.58695e-08,0,24612,24612
297.501,-1.57351e-08,0,24492,24492
297.551,-1.55992e-08,0,24348,24348
297.601,-1.5458e-08,0,24228,24228
297.651,-1.53114e-08,0,24092,24092
297.701,-1.51594e-08,0,23964,23964
297.75,-1.50019e-08,0,23844,23844
297.8,-1.4839e-08,0,23708,23708
297.851,-1.46653e-08,0,23580,23580
297.901,-1.4491e-08,0,23460,23460
297.951,-1.43109e-08,0,23316,23316
298.001,-1.41251e-08,0,23196,23196
298.051,-1.39335e-08,0,23060,23060
298.1,-1.37361e-08,0,22932,22932
298.15,-1.35329e-08,0,22812,22812
298.2,-1.33236e-08,0,22668,22668
298.251,-1.31015e-08,0,22548,22548
298.301,-1.28791e-08,0,22404,22404
298.351,-1.26494e-08,0,22284,22284
298.401,-1.24118e-08,0,22148,22148
298.45,-1.21654e-08,0,22020,22020
298.5,-1.19089e-08,0,21884,21884
298.55,-1.16409e-08,0,21756,21756
298.601,-1.1351e-08,0,21612,21612
298.651,-1.10541e-08,0,21492,21492
298.701,-1.07398e-08,0,21348,21348
298.751,-1.04062e-08,0,21204,21204
298.801,-1.00513e-08,0,21084,21084
298.85,-9.67318e-09,0,20940,20940
298.9,-9.27032e-09,0,20804,20804
298.951,-8.82852e-09,0,20676,20676
299.001,-8.37229e-09,0,20532,20532
299.051,-7.88926e-09,0,20388,20388
299.101,-7.37992e-09,0,20244,20244
299.151,-6.84541e-09,0,20108,20108
299.2,-6.2873e-09,0,19980,19980
299.25,-5.7066e-09,0,19836,19836
299.301,-5.08309e-09,0,19692,19692
299.351,-4.4426e-09,0,19548,19548
299.401,-3.74712e-09,0,19404,19404
299.451,-2.98974e-09,0,19260,19260
299.501,-2.23703e-09,0,19116,19116
299.55,-1.58285e-09,0,18972,18972
299.6,-1.01339e-09,0,18828,18828
299.65,-5.98391e-10,0,18684,18684
299.701,-1.48855e-10,0,18540,18540
299.751,3.38685e-10,0,18396,18396
299.801,8.27995e-10,0,18236,18236
299.851,1.30138e-09,0,18084,18084
299.9,1.75048e-09,0,17940,17940
299.95,2.17048e-09,0,17780,17780
300,2.55766e-09,0,17620,17620
300.051,2.92105e-09,0,17492,17492
300.101,3.23656e-09,0,17308,17308
300.151,3.50906e-09,0,17204,17204
300.201,3.75288e-09,0,17020,17020
300.251,3.95323e-09,0,16860,16860
300.3,4.12243e-09,0,16748,16748
300.35,4.25706e-09,0,16556,16556
300.401,4.35954e-09,0,16452,16452
300.451,4.43107e-09,0,16276,16276
300.501,4.47517e-09,0,16076,16076
300.551,4.49311e-09,0,15996,15996
300.601,4.48797e-09,0,15804,15804
300.65,4.46535e-09,0,15620,15620
300.7,4.4252e-09,0,15484,15484
300.751,4.36681e-09,0,15332,15332
300.801,4.29721e-09,0,15156,15156
300.851,4.21758e-09,0,14988,14988
300.901,4.13126e-09,0,14860,14860
300.951,4.03786e-09,0,14676,14676
301,3.93856e-09,0,14476,14476
301.05,3.83585e-09,0,14388,14388
301.1,3.73176e-09,0,14188,14188
301.151,3.6254e-09,0,13988,13988
301.201,3.52222e-09,0,13804,13804
301.251,3.41973e-09,0,13700,13700
301.301,3.31957e-09,0,13492,13492
301.35,3.2227e-09,0,13292,13292
301.4,3.13063e-09,0,13172,13172
301.45,3.04408e-09,0,12988,12988
301.501,2.95991e-09,0,12780,12780
301.551,2.88354e-09,0,12628,12628
301.601,2.81351e-09,0,12468,12468
301.651,2.75002e-09,0,12276,12276
301.701,2.69343e-09,0,12124,12124
301.75,2.64438e-09,0,11956,11956
301.8,2.60202e-09,0,11756,11756
301.851,2.56423e-09,0,11628,11628
301.901,2.53304e-09,0,11428,11428
301.951,2.50716e-09,0,11228,11228
302.001,2.48607e-09,0,11124,11124
302.051,2.46923e-09,0,10908,10908
302.1,2.45531e-09,0,10716,10716
302.15,2.44281e-09,0,10604,10604
302.201,2.43075e-09,0,10380,10380
302.251,2.41926e-09,0,10228,10228
302.301,2.40719e-09,0,10060,10060
302.351,2.39409e-09,0,9876,9876
302.401,2.37975e-09,0,9756,9756
302.45,2.36362e-09,0,9540,9540
302.5,2.34525e-09,0,9388,9388
302.551,2.32429e-09,0,9204,9204
302.601,2.30251e-09,0,9012,9012
302.651,2.27971e-09,0,8876,8876
302.701,2.25636e-09,0,8676,8676
302.751,2.23311e-09,0,8556,8556
302.8,2.21022e-09,0,8340,8340
302.851,2.18728e-09,0,8192,8192
302.901,2.16516e-09,0,8192,8192
302.951,2.14396e-09,0,8192,8192
303,2.12407e-09,0,8192,8192
303.05,2.10583e-09,0,8192,8192
303.1,2.08959e-09,0,8192,8192
303.153,2.07475e-09,0,8192,8192
303.203,2.06298e-09,0,8192,8192
303.252,2.05354e-09,0,8192,8192
303.302,2.04677e-09,0,8192,8192
303.352,2.04295e-09,0,8192,8192
303.402,2.04228e-09,0,8192,8192
303.452,2.04473e-09,0,8192,8192
303.501,2.04992e-09,0,8192,8192
303.551,2.0574e-09,0,8192,8192
303.601,2.06685e-09,0,8192,8192
303.651,2.07799e-09,0,8192,8192
303.701,2.0905e-09,0,8192,8192
303.75,2.10398e-09,0,8192,8192
303.8,2.11779e-09,0,8192,8192
303.853,2.13213e-09,0,8192,8192
303.903,2.14515e-09,0,8192,8192
303.952,2.15762e-09,0,8192,8192
304.002,2.16956e-09,0,8192,8192
304.052,2.18076e-09,0,8192,8192
304.102,2.19092e-09,0,8192,8192
304.152,2.19988e-09,0,8192,8192
304.201,2.20769e-09,0,8192,8192
304.251,2.21451e-09,0,8192,8192
304.301,2.2204e-09,0,8192,8192
304.351,2.22523e-09,0,8192,8192
304.401,2.22884e-09,0,8192,8192
304.45,2.23127e-09,0,8192,8192
304.5,2.23274e-09,0,8192,8192
304.55,2.23345e-09,0,8192,8192
304.603,2.23336e-09,0,8192,8192
304.653,2.23234e-09,0,8192,8192
304.702,2.23039e-09,0,8192,8192
304.752,2.22768e-09,0,8192,8192
304.802,2.22439e-09,0,8192,8192
304.852,2.22057e-09,0,8192,8192
304.902,2.21609e-09,0,8192,8192
304.951,2.2108e-09,0,8192,8192
