250,0,0,2048,2048
250.006,0,0,2048,2048
250.053,0,0,2048,2048
250.105,0,0,2048,2048
250.152,0,0,2048,2048
250.205,-2.77556e-17,0,2048,2048
250.252,0,0,2048,2048
250.305,-2.77556e-17,0,2048,2048
250.352,0,0,2048,2048
250.404,-2.77556e-17,0,2048,2048
250.451,0,0,2048,2048
250.504,0,0,2048,2048
250.551,-2.77556e-17,0,2048,2048
250.603,0,0,2048,2048
250.65,0,0,2048,2048
250.703,-2.77556e-17,0,2048,2048
250.756,0,0,2048,2048
250.803,-2.77556e-17,0,2048,2048
250.855,0,0,2048,2048
250.902,-2.77556e-17,0,2048,2048
250.955,-2.77556e-17,0,2048,2048
251.002,0,0,2048,2048
251.055,-2.77556e-17,0,2048,2048
251.101,-2.77556e-17,0,2048,2048
251.154,-2.77556e-17,0,2048,2048
251.201,0,0,2048,2048
251.254,0,0,2048,2048
251.301,-2.77556e-17,0,2048,2048
251.353,0,0,2048,2048
251.4,2.77556e-17,0,2048,2048
251.453,2.77556e-17,0,2048,2048
251.506,2.77556e-17,0,2048,2048
251.553,2.77556e-17,0,2048,2048
251.605,2.77556e-17,0,2048,2048
251.652,2.77556e-17,0,2048,2048
251.705,2.77556e-17,0,2048,2048
251.752,5.55112e-17,0,2048,2048
251.804,5.55112e-17,0,2048,2048
251.851,2.77556e-17,0,2048,2048
251.904,-2.77556e-17,0,2048,2048
251.951,-2.77556e-17,0,2048,2048
252.004,-2.77556e-17,0,2048,2048
252.05,-2.77556e-17,0,2048,2048
252.103,-2.77556e-17,0,2048,2048
252.15,-2.77556e-17,0,2048,2048
252.203,0,0,2048,2048
252.256,0,0,2048,2048
252.302,0,0,2048,2048
252.355,0,0,2048,2048
252.402,0,0,2048,2048
252.455,-2.77556e-17,0,2048,2048
252.502,0,0,2048,2048
252.554,0,0,2048,2048
252.601,0,0,2048,2048
252.654,0,0,2048,2048
252.701,0,0,2048,2048
252.754,0,0,2048,2048
252.8,0,0,2048,2048
252.853,0,0,2048,2048
252.906,-2.77556e-17,0,2048,2048
252.953,-2.77556e-17,0,2048,2048
253.005,-2.77556e-17,0,2048,2048
253.052,0,0,2048,2048
253.105,0,0,2048,2048
253.152,-2.77556e-17,0,2048,2048
253.205,-2.77556e-17,0,2048,2048
253.251,-2.77556e-17,0,2048,2048
253.304,0,0,2048,2048
253.351,0,0,2048,2048
253.404,0,0,2048,2048
253.451,-2.77556e-17,0,2048,2048
253.503,0,0,2048,2048
253.55,0,0,2048,2048
253.603,-2.77556e-17,0,2048,2048
253.656,-2.77556e-17,0,2048,2048
253.703,0,0,2048,2048
253.755,-2.77556e-17,0,2048,2048
253.802,2.77556e-17,0,2048,2048
253.855,2.77556e-17,0,2048,2048
253.902,2.77556e-17,0,2048,2048
253.954,8.32667e-17,0,2048,2048
254.001,5.55112e-17,0,2048,2048
254.054,2.77556e-17,0,2048,2048
254.101,2.77556e-17,0,2048,2048
254.154,5.55112e-17,0,2048,2048
254.201,5.55112e-17,0,2048,2048
254.253,5.55112e-17,0,2048,2048
254.3,2.77556e-17,0,2048,2048
254.353,5.55112e-17,0,2048,2048
254.406,2.77556e-17,0,2048,2048
254.452,2.77556e-17,0,2048,2048
254.505,2.77556e-17,0,2048,2048
254.552,2.77556e-17,0,2048,2048
254.605,2.77556e-17,0,2048,2048
254.652,2.77556e-17,0,2048,2048
254.704,0,0,2048,2048
254.751,0,0,2048,2048
254.804,0,0,2048,2048
254.851,0,0,2048,2048
254.904,2.77556e-17,0,2048,2048
254.95,-2.77556e-17,0,2048,2048
255.003,0,0,2048,2048
255.05,0,0,2048,2048
255.103,0,0,2048,2048
255.155,0,0,2048,2048
255.202,0,0,2048,2048
255.255,0,0,2048,2048
255.302,0,0,2048,2048
255.355,0,0,2048,2048
255.402,0,0,2048,2048
255.454,-5.55112e-17,0,2048,2048
255.501,-5.55112e-17,0,2048,2048
255.554,-2.77556e-17,0,2048,2048
255.601,-2.77556e-17,0,2048,2048
255.653,-2.77556e-17,0,2048,2048
255.7,-5.55112e-17,0,2048,2048
255.753,0,0,2048,2048
255.806,0,0,2048,2048
255.853,0,0,2048,2048
255.905,0,0,2048,2048
255.952,-2.77556e-17,0,2048,2048
256.005,-2.77556e-17,0,2048,2048
256.052,0,0,2048,2048
256.105,0,0,2048,2048
256.151,5.55112e-17,0,2048,2048
256.204,2.77556e-17,0,2048,2048
256.251,0,0,2048,2048
256.304,2.77556e-17,0,2048,2048
256.351,2.77556e-17,0,2048,2048
256.403,2.77556e-17,0,2048,2048
256.45,2.77556e-17,0,2048,2048
256.503,2.77556e-17,0,2048,2048
256.556,2.77556e-17,0,2048,2048
256.603,5.55112e-17,0,2048,2048
256.655,5.55112e-17,0,2048,2048
256.702,5.55112e-17,0,2048,2048
256.755,5.55112e-17,0,2048,2048
256.802,2.77556e-17,0,2048,2048
256.854,2.77556e-17,0,2048,2048
256.901,2.77556e-17,0,2048,2048
256.954,2.77556e-17,0,2048,2048
257.001,2.77556e-17,0,2048,2048
257.054,2.77556e-17,0,2048,2048
257.101,2.77556e-17,0,2048,2048
257.153,2.77556e-17,0,2048,2048
257.2,2.77556e-17,0,2048,2048
257.253,2.77556e-17,0,2048,2048
257.306,5.55112e-17,0,2048,2048
257.352,0,0,2048,2048
257.405,0,0,2048,2048
257.452,0,0,2048,2048
257.505,-2.77556e-17,0,2048,2048
257.552,-2.77556e-17,0,2048,2048
257.604,-2.77556e-17,0,2048,2048
257.651,0,0,2048,2048
257.704,-2.77556e-17,0,2048,2048
257.751,-2.77556e-17,0,2048,2048
257.804,-2.77556e-17,0,2048,2048
257.85,-5.55112e-17,0,2048,2048
257.903,-5.55112e-17,0,2048,2048
257.95,-5.55112e-17,0,2048,2048
258.003,-5.55112e-17,0,2048,2048
258.055,-2.77556e-17,0,2048,2048
258.102,-2.77556e-17,0,2048,2048
258.155,-2.77556e-17,0,2048,2048
258.202,-2.77556e-17,0,2048,2048
258.255,-2.77556e-17,0,2048,2048
258.302,-2.77556e-17,0,2048,2048
258.354,0,0,2048,2048
258.401,-2.77556e-17,0,2048,2048
258.454,0,0,2048,2048
258.501,0,0,2048,2048
258.553,0,0,2048,2048
258.6,0,0,2048,2048
258.653,2.77556e-17,0,2048,2048
258.706,0,0,2048,2048
258.753,0,0,2048,2048
258.805,-2.77556e-17,0,2048,2048
258.852,-2.77556e-17,0,2048,2048
258.905,-2.77556e-17,0,2048,2048
258.952,-2.77556e-17,0,2048,2048
259.005,-2.77556e-17,0,2048,2048
259.051,-2.77556e-17,0,2048,2048
259.104,-2.77556e-17,0,2048,2048
259.151,0,0,2048,2048
259.204,0,0,2048,2048
259.251,0,0,2048,2048
259.303,-5.55112e-17,0,2048,2048
259.35,-5.55112e-17,0,2048,2048
259.403,-2.77556e-17,0,2048,2048
259.456,-5.55112e-17,0,2048,2048
259.503,-2.77556e-17,0,2048,2048
259.555,-2.77556e-17,0,2048,2048
259.602,-2.77556e-17,0,2048,2048
259.655,-2.77556e-17,0,2048,2048
259.702,-5.55112e-17,0,2048,2048
259.754,-2.77556e-17,0,2048,2048
259.801,-5.55112e-17,0,2048,2048
259.854,-2.77556e-17,0,2048,2048
259.901,-2.77556e-17,0,2048,2048
259.954,-2.77556e-17,0,2048,2048
260,-2.77556e-17,0,2048,2048
260.053,-2.77556e-17,0,2048,2048
260.1,-2.77556e-17,0,2048,2048
260.153,-2.77556e-17,0,2048,2048
260.206,-2.77556e-17,0,2048,2048
260.252,0,0,2048,2048
260.305,0,0,2048,2048
260.352,0,0,2048,2048
260.405,0,0,2048,2048
260.452,2.77556e-17,0,2048,2048
260.504,2.77556e-17,0,2048,2048
260.551,2.77556e-17,0,2048,2048
260.604,0,0,2048,2048
260.651,0,0,2048,2048
260.704,0,0,2048,2048
260.75,-2.77556e-17,0,2048,2048
260.803,0,0,2048,2048
260.856,0,0,2048,2048
260.903,-2.77556e-17,0,2048,2048
260.955,0,0,2048,2048
261.002,2.77556e-17,0,2048,2048
261.055,2.77556e-17,0,2048,2048
261.102,2.77556e-17,0,2048,2048
261.155,2.77556e-17,0,2048,2048
261.201,2.77556e-17,0,2048,2048
261.254,2.77556e-17,0,2048,2048
261.301,2.77556e-17,0,2048,2048
261.354,2.77556e-17,0,2048,2048
261.401,0,0,2048,2048
261.453,0,0,2048,2048
261.5,0,0,2048,2048
261.553,2.77556e-17,0,2048,2048
261.606,5.55112e-17,0,2048,2048
261.653,2.77556e-17,0,2048,2048
261.705,5.55112e-17,0,2048,2048
261.752,5.55112e-17,0,2048,2048
261.805,5.55112e-17,0,2048,2048
261.852,5.55112e-17,0,2048,2048
261.905,5.55112e-17,0,2048,2048
261.951,5.55112e-17,0,2048,2048
262.004,2.77556e-17,0,2048,2048
262.051,5.55112e-17,0,2048,2048
262.104,5.55112e-17,0,2048,2048
262.151,0,0,2048,2048
262.203,0,0,2048,2048
262.25,0,0,2048,2048
262.303,2.77556e-17,0,2048,2048
262.356,2.77556e-17,0,2048,2048
262.402,2.77556e-17,0,2048,2048
262.455,0,0,2048,2048
262.502,0,0,2048,2048
262.555,0,0,2048,2048
262.602,0,0,2048,2048
262.654,0,0,2048,2048
262.701,2.77556e-17,0,2048,2048
262.754,0,0,2048,2048
262.801,0,0,2048,2048
262.854,-2.77556e-17,0,2048,2048
262.9,0,0,2048,2048
262.953,2.77556e-17,0,2048,2048
263,2.77556e-17,0,2048,2048
263.053,2.77556e-17,0,2048,2048
263.105,2.77556e-17,0,2048,2048
263.152,2.77556e-17,0,2048,2048
263.205,2.77556e-17,0,2048,2048
263.252,2.77556e-17,0,2048,2048
263.305,0,0,2048,2048
263.352,0,0,2048,2048
263.404,0,0,2048,2048
263.451,0,0,2048,2048
263.504,0,0,2048,2048
263.551,0,0,2048,2048
263.603,0,0,2048,2048
263.65,0,0,2048,2048
263.703,-2.77556e-17,0,2048,2048
263.756,0,0,2048,2048
263.803,-2.77556e-17,0,2048,2048
263.855,0,0,2048,2048
263.902,0,0,2048,2048
263.955,2.77556e-17,0,2048,2048
264.002,2.77556e-17,0,2048,2048
264.055,2.77556e-17,0,2048,2048
264.101,2.77556e-17,0,2048,2048
264.154,2.77556e-17,0,2048,2048
264.201,5.55112e-17,0,2048,2048
264.254,2.77556e-17,0,2048,2048
264.301,0,0,2048,2048
264.353,0,0,2048,2048
264.4,-2.77556e-17,0,2048,2048
264.453,0,0,2048,2048
264.506,2.77556e-17,0,2048,2048
264.553,2.77556e-17,0,2048,2048
264.605,2.77556e-17,0,2048,2048
264.652,8.32667e-17,0,2048,2048
264.705,8.32667e-17,0,2048,2048
264.752,2.77556e-17,0,2048,2048
264.804,5.55112e-17,0,2048,2048
264.851,2.77556e-17,0,2048,2048
264.904,0,0,2048,2048
264.951,0,0,2048,2048
265.004,0,0,2048,2048
265.051,0,0,2048,2048
265.103,-2.77556e-17,0,2048,2048
265.15,0,0,2048,2048
265.203,-2.77556e-17,0,2048,2048
265.256,0,0,2048,2048
265.302,2.77556e-17,0,2048,2048
265.355,0,0,2048,2048
265.402,-2.77556e-17,0,2048,2048
265.455,-2.77556e-17,0,2048,2048
265.502,-2.77556e-17,0,2048,2048
265.554,0,0,2048,2048
265.601,-2.77556e-17,0,2048,2048
265.654,-2.77556e-17,0,2048,2048
265.701,-5.55112e-17,0,2048,2048
265.754,-8.32667e-17,0,2048,2048
265.8,-5.55112e-17,0,2048,2048
265.853,-2.77556e-17,0,2048,2048
265.9,-2.77556e-17,0,2048,2048
265.953,-2.77556e-17,0,2048,2048
266.005,-2.77556e-17,0,2048,2048
266.052,-2.77556e-17,0,2048,2048
266.105,-2.77556e-17,0,2048,2048
266.152,-5.55112e-17,0,2048,2048
266.205,-5.55112e-17,0,2048,2048
266.252,-8.32667e-17,0,2048,2048
266.304,-5.55112e-17,0,2048,2048
266.351,-8.32667e-17,0,2048,2048
266.404,-8.32667e-17,0,2048,2048
266.451,-5.55112e-17,0,2048,2048
266.503,-2.77556e-17,0,2048,2048
266.55,0,0,2048,2048
266.603,0,0,2048,2048
266.656,-2.77556e-17,0,2048,2048
266.703,-2.77556e-17,0,2048,2048
266.755,-5.55112e-17,0,2048,2048
266.802,-5.55112e-17,0,2048,2048
266.855,-2.77556e-17,0,2048,2048
266.902,-5.55112e-17,0,2048,2048
266.955,-5.55112e-17,0,2048,2048
267.001,-5.55112e-17,0,2048,2048
267.054,-5.55112e-17,0,2048,2048
267.101,-8.32667e-17,0,2048,2048
267.154,-5.55112e-17,0,2048,2048
267.201,-5.55112e-17,0,2048,2048
267.253,-2.77556e-17,0,2048,2048
267.3,-2.77556e-17,0,2048,2048
267.353,0,0,2048,2048
267.406,-2.77556e-17,0,2048,2048
267.453,-2.77556e-17,0,2048,2048
267.505,-2.77556e-17,0,2048,2048
267.552,-2.77556e-17,0,2048,2048
267.605,-5.55112e-17,0,2048,2048
267.652,-5.55112e-17,0,2048,2048
267.704,-1.11022e-16,0,2048,2048
267.751,-5.55112e-17,0,2048,2048
267.804,-5.55112e-17,0,2048,2048
267.851,-5.55112e-17,0,2048,2048
267.904,-2.77556e-17,0,2048,2048
267.95,-5.55112e-17,0,2048,2048
268.003,-2.77556e-17,0,2048,2048
268.05,-2.77556e-17,0,2048,2048
268.101,-2.77556e-17,0,2122,2122
268.151,-2.77556e-17,0,2170,2170
268.201,-2.77556e-17,0,2218,2218
268.25,-2.77556e-17,0,2254,2254
268.3,-2.77556e-17,0,2302,2302
268.35,-2.77556e-17,0,2350,2350
268.403,-2.77556e-17,0,2398,2398
268.453,0,0,2434,2434
268.502,0,0,2482,2482
268.552,0,0,2518,2518
268.602,0,0,2566,2566
268.652,0,0,2594,2594
268.702,0,0,2626,2626
268.751,0,0,2674,2674
268.801,0,0,2710,2710
268.851,0,0,2758,2758
268.901,0,0,2806,2806
268.951,0,0,2842,2842
269,0,0,2890,2890
269.05,0,0,2938,2938
269.103,0,0,2986,2986
269.153,0,0,3022,3022
269.202,0,0,3070,3070
269.252,0,0,3118,3118
269.302,3.60822e-16,0,3154,3154
269.352,4.69069e-15,0,3202,3202
269.402,4.06064e-14,0,3242,3242
269.451,2.22378e-13,0,3286,3286
269.501,7.43544e-13,0,3334,3334
269.551,1.2397e-12,0,3370,3370
269.601,-6.90115e-13,0,3418,3418
269.651,-2.46888e-11,0,3466,3466
269.7,-1.61971e-10,0,3502,3502
269.75,-3.72166e-10,0,3550,3550
269.8,-4.47799e-10,0,3590,3590
269.853,-2.65846e-10,0,3634,3634
269.903,3.56042e-11,0,3682,3682
269.952,2.69695e-10,0,3722,3722
270.002,3.03686e-10,0,3766,3766
270.052,1.42888e-10,0,3806,3806
270.102,-6.33463e-11,0,3850,3850
270.152,-1.33269e-10,0,3890,3890
270.201,-9.51528e-12,0,3934,3934
270.251,1.89058e-10,0,3970,3970
270.301,2.8101e-10,0,4018,4018
270.351,1.93025e-10,0,4054,4054
270.401,2.04965e-11,0,4102,4102
270.45,-7.38597e-11,0,4138,4138
270.5,-1.36318e-11,0,4186,4186
270.553,1.43051e-10,0,4222,4222
270.603,2.41978e-10,0,4270,4270
270.652,2.20563e-10,0,4306,4306
270.702,1.11221e-10,0,4342,4342
270.752,7.24448e-13,0,4390,4390
270.802,-3.76432e-11,0,4426,4426
270.852,2.35944e-11,0,4462,4462
270.901,1.60007e-10,0,4510,4510
270.951,2.89737e-10,0,4546,4546
271.001,2.94166e-10,0,4582,4582
271.051,1.07607e-10,0,4630,4630
271.101,-1.64148e-10,0,4666,4666
271.15,-2.49678e-10,0,4702,4702
271.2,5.55108e-11,0,4738,4738
271.25,5.79642e-10,0,4786,4786
271.303,7.52862e-10,0,4822,4822
271.353,1.0892e-10,0,4858,4858
271.402,-9.31672e-10,0,4894,4894
271.452,-1.12344e-09,0,4934,4934
271.502,8.11025e-10,0,4978,4978
271.552,5.17621e-09,0,5014,5014
271.602,1.10842e-08,0,5050,5050
271.651,1.71292e-08,0,5086,5086
271.701,2.21884e-08,0,5122,5122
271.751,2.57613e-08,0,5162,5162
271.801,2.80121e-08,0,5198,5198
271.851,2.98257e-08,0,5242,5242
271.9,3.26336e-08,0,5278,5278
271.95,3.77588e-08,0,5314,5314
272.003,4.62207e-08,0,5350,5350
272.053,5.65932e-08,0,5386,5386
272.102,6.86693e-08,0,5422,5422
272.152,8.26041e-08,0,5458,5458
272.202,9.94607e-08,0,5494,5494
272.252,1.2068e-07,0,5530,5530
272.302,1.47493e-07,0,5566,5566
272.351,1.80604e-07,0,5602,5602
272.401,2.19893e-07,0,5638,5638
272.451,2.64069e-07,0,5674,5674
272.501,3.10954e-07,0,5710,5710
272.551,3.58762e-07,0,5746,5746
272.6,4.07435e-07,0,5782,5782
272.65,4.58518e-07,0,5810,5810
272.7,5.13311e-07,0,5846,5846
272.753,5.74291e-07,0,5882,5882
272.803,6.31154e-07,0,5914,5914
272.852,6.83151e-07,0,5950,5950
272.902,7.27142e-07,0,5986,5986
272.952,7.61421e-07,0,6022,6022
273.002,7.85689e-07,0,6058,6058
273.052,8.01075e-07,0,6086,6086
273.101,8.09753e-07,0,6118,6118
273.151,8.13949e-07,0,6154,6154
273.201,8.15041e-07,0,6190,6190
273.251,8.13378e-07,0,6226,6226
273.301,8.08605e-07,0,6254,6254
273.35,7.99942e-07,0,6286,6286
273.4,7.86362e-07,0,6322,6322
273.453,7.65442e-07,0,6358,6358
273.503,7.38557e-07,0,6394,6394
273.552,7.04213e-07,0,6430,6430
273.602,6.62745e-07,0,6454,6454
273.652,6.15815e-07,0,6490,6490
273.702,5.66161e-07,0,6510,6510
273.752,5.16599e-07,0,6514,6514
273.801,4.69138e-07,0,6542,6542
273.851,4.24844e-07,0,6566,6566
273.901,3.84081e-07,0,6578,6578
273.951,3.46701e-07,0,6614,6614
274.001,3.12206e-07,0,6606,6606
274.05,2.79963e-07,0,6626,6626
274.1,2.49401e-07,0,6646,6646
274.153,2.18515e-07,0,6666,6666
274.203,1.91024e-07,0,6686,6686
274.253,1.66321e-07,0,6702,6702
274.302,1.45944e-07,0,6682,6682
274.352,1.30545e-07,0,6730,6730
274.402,1.18889e-07,0,6754,6754
274.452,1.08385e-07,0,6750,6750
274.502,9.69325e-08,0,6806,6806
274.551,8.43664e-08,0,6814,6814
274.601,7.21843e-08,0,6830,6830
274.651,6.20852e-08,0,6850,6850
274.701,5.48204e-08,0,6834,6834
274.75,5.00801e-08,0,6834,6834
274.8,4.6895e-08,0,6886,6886
274.85,4.39721e-08,0,6874,6874
274.903,3.98038e-08,0,6906,6906
274.953,3.43596e-08,0,6930,6930
275.002,2.82263e-08,0,6966,6966
275.052,2.29565e-08,0,6986,6986
275.102,1.97528e-08,0,7022,7022
275.152,1.86807e-08,0,7022,7022
275.202,1.88861e-08,0,7034,7034
275.251,1.94069e-08,0,7018,7018
275.301,1.97516e-08,0,7022,7022
275.351,1.9896e-08,0,7054,7054
275.401,1.99795e-08,0,7102,7102
275.451,2.00849e-08,0,7138,7138
275.5,2.02052e-08,0,7154,7154
275.55,2.02698e-08,0,7198,7198
275.603,2.01093e-08,0,7230,7230
275.653,1.97099e-08,0,7246,7246
275.703,1.93404e-08,0,7278,7278
275.752,1.91785e-08,0,7314,7314
275.802,1.91569e-08,0,7366,7366
275.852,1.91803e-08,0,7386,7386
275.902,1.92119e-08,0,7418,7418
275.951,1.92447e-08,0,7426,7426
276.001,1.92777e-08,0,7462,7462
276.051,1.93107e-08,0,7454,7454
276.101,1.93439e-08,0,7474,7474
276.151,1.93771e-08,0,7510,7510
276.2,1.94104e-08,0,7538,7538
276.25,1.94437e-08,0,7550,7550
276.3,1.94771e-08,0,7590,7590
276.353,1.95125e-08,0,7606,7606
276.403,1.9546e-08,0,7648,7648
276.452,1.95796e-08,0,7668,7668
276.502,1.96132e-08,0,7680,7680
276.552,1.96468e-08,0,7680,7680
276.602,1.96805e-08,0,7692,7692
276.652,1.97143e-08,0,7704,7704
276.701,1.97481e-08,0,7692,7692
276.751,1.97819e-08,0,7636,7636
276.801,1.98158e-08,0,7608,7608
276.851,1.98497e-08,0,7656,7656
276.901,1.98837e-08,0,7704,7704
276.95,1.99178e-08,0,7740,7740
277,1.99519e-08,0,7792,7792
277.053,1.99882e-08,0,7856,7856
277.103,2.00226e-08,0,7900,7900
277.152,2.00571e-08,0,7936,7936
277.202,2.00917e-08,0,7976,7976
277.252,2.01265e-08,0,8032,8032
277.302,2.01614e-08,0,8068,8068
277.352,2.01964e-08,0,8080,8080
277.401,2.02316e-08,0,8072,8072
277.451,2.02668e-08,0,8128,8128
277.501,2.03023e-08,0,8052,8052
277.551,2.03378e-08,0,8062,8062
277.601,2.03735e-08,0,8026,8026
277.65,2.04093e-08,0,7970,7970
277.7,2.04453e-08,0,8002,8002
277.75,2.04814e-08,0,7966,7966
277.803,2.05198e-08,0,8042,8042
277.853,2.05561e-08,0,8018,8018
277.902,2.05925e-08,0,8030,8030
277.952,2.0629e-08,0,8066,8066
278.002,2.06655e-08,0,8106,8106
278.052,2.07017e-08,0,8106,8106
278.102,2.07373e-08,0,8104,8104
278.151,2.07718e-08,0,8160,8160
278.201,2.08048e-08,0,8128,8128
278.251,2.08358e-08,0,8108,8108
278.301,2.08646e-08,0,8168,8168
278.351,2.08909e-08,0,8120,8120
278.4,2.09147e-08,0,8120,8120
278.45,2.09361e-08,0,8128,8128
278.503,2.09557e-08,0,8132,8132
278.553,2.09712e-08,0,8132,8132
278.602,2.09834e-08,0,8140,8140
278.652,2.09905e-08,0,8100,8100
278.702,2.09905e-08,0,8104,8104
278.752,2.09827e-08,0,8064,8064
278.802,2.09673e-08,0,7956,7956
278.851,2.09407e-08,0,7892,7892
278.901,2.09002e-08,0,7908,7908
278.951,2.08431e-08,0,7960,7960
279.001,2.07667e-08,0,7924,7924
279.051,2.06682e-08,0,7872,7872
279.1,2.0545e-08,0,7888,7888
279.15,2.03947e-08,0,7840,7840
279.2,2.02153e-08,0,7792,7792
279.253,1.99917e-08,0,7736,7736
279.303,1.97473e-08,0,7692,7692
279.352,1.94699e-08,0,7648,7648
279.402,1.91593e-08,0,7604,7604
279.452,1.88163e-08,0,7536,7536
279.502,1.84427e-08,0,7500,7500
279.552,1.80413e-08,0,7456,7456
279.601,1.76157e-08,0,7404,7404
279.651,1.71698e-08,0,7360,7360
279.701,1.67081e-08,0,7384,7384
279.751,1.62346e-08,0,7428,7428
279.801,1.57531e-08,0,7400,7400
279.85,1.5267e-08,0,7368,7368
279.9,1.47794e-08,0,7400,7400
279.953,1.42647e-08,0,7560,7560
280.003,1.37833e-08,0,7676,7676
280.052,1.33097e-08,0,7784,7784
280.102,1.28471e-08,0,7868,7868
280.152,1.23991e-08,0,7840,7840
280.202,1.19692e-08,0,7820,7820
280.252,1.15606e-08,0,7776,7776
280.301,1.11761e-08,0,7812,7812
280.351,1.08177e-08,0,7848,7848
280.401,1.04866e-08,0,7828,7828
280.451,1.01831e-08,0,7820,7820
280.501,9.90693e-09,0,7816,7816
280.55,9.65704e-09,0,7772,7772
280.6,9.43219e-09,0,7740,7740
280.65,9.23092e-09,0,7700,7700
280.703,9.04187e-09,0,7700,7700
280.753,8.88445e-09,0,7660,7660
280.802,8.74599e-09,0,7620,7620
280.852,8.62491e-09,0,7580,7580
280.902,8.51954e-09,0,7540,7540
280.952,8.42816e-09,0,7500,7500
281.002,8.34912e-09,0,7464,7464
281.051,8.28089e-09,0,7432,7432
281.101,8.22217e-09,0,7404,7404
281.151,8.17195e-09,0,7364,7364
281.201,8.12936e-09,0,7328,7328
281.251,8.09366e-09,0,7292,7292
281.3,8.06402e-09,0,7256,7256
281.35,8.03949e-09,0,7216,7216
281.403,8.0175e-09,0,7172,7172
281.453,7.99909e-09,0,7136,7136
281.502,7.98625e-09,0,7100,7100
281.552,7.98324e-09,0,7052,7052
281.602,7.97814e-09,0,6996,6996
281.652,7.97588e-09,0,7056,7056
281.702,7.97543e-09,0,7020,7020
281.751,7.97628e-09,0,6976,6976
281.801,7.97832e-09,0,6944,6944
281.851,7.98148e-09,0,6968,6968
281.901,7.98556e-09,0,6920,6920
281.951,7.99034e-09,0,6912,6912
282,7.99555e-09,0,6904,6904
282.05,8.00094e-09,0,6860,6860
282.1,8.00637e-09,0,6828,6828
282.153,8.01219e-09,0,6800,6800
282.203,8.01775e-09,0,6800,6800
282.252,8.02339e-09,0,6756,6756
282.302,8.02912e-09,0,6756,6756
282.352,8.03493e-09,0,6752,6752
282.402,8.04081e-09,0,6764,6764
282.452,8.04676e-09,0,6764,6764
282.501,8.05276e-09,0,6776,6776
282.551,8.05881e-09,0,6732,6732
282.601,8.06489e-09,0,6760,6760
282.651,8.07099e-09,0,6732,6732
282.7,8.0771e-09,0,6720,6720
282.75,8.08323e-09,0,6728,6728
282.8,8.08935e-09,0,6712,6712
282.853,8.09582e-09,0,6716,6716
282.903,8.10192e-09,0,6716,6716
282.952,8.10801e-09,0,6712,6712
283.002,8.11413e-09,0,6712,6712
283.052,8.12037e-09,0,6708,6708
283.102,8.12691e-09,0,6700,6700
283.152,8.13395e-09,0,6704,6704
283.201,8.14168e-09,0,6716,6716
283.251,8.15023e-09,0,6706,6706
283.301,8.15972e-09,0,6746,6746
283.351,8.1686e-09,0,6794,6794
283.401,8.19319e-09,0,6830,6830
283.451,8.22394e-09,0,6866,6866
283.501,8.26247e-09,0,6914,6914
283.551,8.31336e-09,0,6958,6958
283.6,8.38029e-09,0,6998,6998
283.65,8.46672e-09,0,7034,7034
283.703,8.58335e-09,0,7082,7082
283.753,8.72075e-09,0,7126,7126
283.802,8.88803e-09,0,7166,7166
283.852,9.08876e-09,0,7202,7202
283.902,9.32718e-09,0,7250,7250
283.952,9.60875e-09,0,7294,7294
284.002,9.94064e-09,0,7334,7334
284.051,1.03321e-08,0,7370,7370
284.101,1.07945e-08,0,7418,7418
284.151,1.13413e-08,0,7462,7462
284.201,1.19874e-08,0,7502,7502
284.251,1.27487e-08,0,7538,7538
284.3,1.36416e-08,0,7582,7582
284.35,1.46822e-08,0,7630,7630
284.4,1.58857e-08,0,7670,7670
284.453,1.73527e-08,0,7714,7714
284.503,1.89324e-08,0,7754,7754
284.552,2.07098e-08,0,7798,7798
284.602,2.26905e-08,0,7846,7846
284.652,2.48765e-08,0,7882,7882
284.702,2.72657e-08,0,7922,7922
284.752,2.98519e-08,0,7966,7966
284.801,3.2625e-08,0,8014,8014
284.851,3.55721e-08,0,8050,8050
284.901,3.86786e-08,0,8098,8098
284.951,4.19304e-08,0,8092,8092
285.001,4.53162e-08,0,8134,8134
285.05,4.88306e-08,0,8176,8176
285.1,5.24761e-08,0,8164,8164
285.153,5.64932e-08,0,8160,8160
285.203,6.046e-08,0,8156,8156
285.252,6.46268e-08,0,8148,8148
285.302,6.90293e-08,0,8148,8148
285.352,7.37006e-08,0,8148,8148
285.402,7.86655e-08,0,8148,8148
285.452,8.39356e-08,0,8148,8148
285.501,8.95093e-08,0,8144,8144
285.551,9.53774e-08,0,8140,8140
285.601,1.01533e-07,0,8096,8096
285.651,1.07988e-07,0,8078,8078
285.701,1.14785e-07,0,8152,8152
285.75,1.22013e-07,0,8184,8184
285.8,1.29814e-07,0,8192,8192
285.85,1.38386e-07,0,8192,8192
285.903,1.48579e-07,0,8192,8192
285.953,1.59562e-07,0,8192,8192
286.002,1.72182e-07,0,8192,8192
286.052,1.86759e-07,0,8192,8192
286.102,2.03596e-07,0,8192,8192
286.152,2.22963e-07,0,8192,8192
286.202,2.45069e-07,0,8192,8192
286.251,2.70042e-07,0,8192,8192
286.301,2.9791e-07,0,8192,8192
286.351,3.28588e-07,0,8192,8192
286.401,3.61868e-07,0,8192,8192
286.451,3.9741e-07,0,8192,8192
286.5,4.34749e-07,0,8192,8192
286.55,4.73292e-07,0,8192,8192
286.603,5.14629e-07,0,8192,8192
286.653,5.53323e-07,0,8192,8192
286.702,5.90794e-07,0,8192,8192
286.752,6.26148e-07,0,8056,8056
286.802,6.58518e-07,0,8144,8144
286.852,6.87119e-07,0,8152,8152
286.902,7.1129e-07,0,8148,8148
286.951,7.30532e-07,0,8144,8144
287.001,7.4452e-07,0,8164,8164
287.051,7.53091e-07,0,8168,8168
287.101,7.56222e-07,0,8160,8160
287.151,7.53988e-07,0,8168,8168
287.2,7.46525e-07,0,8144,8144
287.25,7.34003e-07,0,8152,8152
287.303,7.15436e-07,0,8152,8152
287.353,6.93106e-07,0,8160,8160
287.403,6.66372e-07,0,8136,8136
287.452,6.35552e-07,0,8128,8128
287.502,6.01053e-07,0,8136,8136
287.552,5.63393e-07,0,8120,8120
287.602,5.23188e-07,0,8104,8104
287.651,4.81141e-07,0,8160,8160
287.701,4.38007e-07,0,8152,8152
287.751,3.94543e-07,0,8152,8152
287.801,3.51472e-07,0,8128,8128
287.851,3.09444e-07,0,8120,8120
287.9,2.69007e-07,0,8104,8104
287.95,2.30599e-07,0,8112,8112
288,1.9455e-07,0,8096,8096
288.053,1.59201e-07,0,8104,8104
288.103,1.28625e-07,0,8112,8112
288.152,1.00836e-07,0,8080,8080
288.202,7.58299e-08,0,8112,8112
288.252,5.35446e-08,0,8112,8112
288.302,3.38729e-08,0,8128,8128
288.352,1.66716e-08,0,8136,8136
288.401,1.77282e-09,0,8080,8080
288.451,-1.10042e-08,0,8072,8072
288.501,-2.18429e-08,0,8088,8088
288.551,-3.09218e-08,0,8096,8096
288.601,-3.84112e-08,0,8136,8136
288.65,-4.44716e-08,0,8144,8144
288.7,-4.92538e-08,0,8144,8144
288.753,-5.30803e-08,0,8152,8152
288.803,-5.56603e-08,0,8160,8160
288.852,-5.73511e-08,0,8176,8176
288.902,-5.82481e-08,0,8176,8176
288.952,-5.84303e-08,0,8168,8168
289.002,-5.79629e-08,0,8144,8144
289.052,-5.69037e-08,0,8136,8136
289.101,-5.53103e-08,0,8184,8184
289.151,-5.32457e-08,0,8192,8192
289.201,-5.07829e-08,0,8184,8184
289.251,-4.80041e-08,0,8184,8184
289.301,-4.49983e-08,0,8168,8168
289.35,-4.1856e-08,0,8176,8176
289.4,-3.86633e-08,0,8168,8168
289.45,-3.54968e-08,0,8184,8184
289.503,-3.22428e-08,0,8192,8192
289.553,-2.93139e-08,0,8192,8192
289.602,-2.656e-08,0,8184,8184
289.652,-2.40029e-08,0,8192,8192
289.702,-2.1654e-08,0,8192,8192
289.752,-1.95176e-08,0,8184,8184
289.802,-1.75928e-08,0,8192,8192
289.851,-1.58757e-08,0,8184,8184
289.901,-1.43598e-08,0,8184,8184
289.951,-1.30376e-08,0,8176,8176
290.001,-1.19e-08,0,8176,8176
290.051,-1.09369e-08,0,8168,8168
290.1,-1.01371e-08,0,8156,8156
290.15,-9.48802e-09,0,8144,8144
290.203,-8.95041e-09,0,8132,8132
290.253,-8.56948e-09,0,8184,8184
290.302,-8.29758e-09,0,8152,8152
290.352,-8.1211e-09,0,8104,8104
290.402,-8.02711e-09,0,8136,8136
290.452,-8.00362e-09,0,8044,8044
290.502,-8.03958e-09,0,8156,8156
290.551,-8.12479e-09,0,8156,8156
290.601,-8.25006e-09,0,8136,8136
290.651,-8.40705e-09,0,8020,8020
290.701,-8.58815e-09,0,7936,7936
290.751,-8.78636e-09,0,7980,7980
290.8,-8.99509e-09,0,8008,8008
290.85,-9.20849e-09,0,8012,8012
290.9,-9.42151e-09,0,8012,8012
290.953,-9.64182e-09,0,8008,8008
291.003,-9.84124e-09,0,8004,8004
291.052,-1.00295e-08,0,8040,8040
291.102,-1.02045e-08,0,7900,7900
291.152,-1.03649e-08,0,8168,8168
291.202,-1.051e-08,0,8192,8192
291.252,-1.06393e-08,0,8192,8192
291.301,-1.0753e-08,0,8192,8192
291.351,-1.08511e-08,0,8192,8192
291.401,-1.09343e-08,0,8192,8192
291.451,-1.10031e-08,0,8156,8156
291.501,-1.10582e-08,0,8004,8004
291.55,-1.11003e-08,0,8044,8044
291.6,-1.11303e-08,0,8048,8048
291.653,-1.11505e-08,0,8052,8052
291.703,-1.11629e-08,0,8052,8052
291.752,-1.11666e-08,0,8036,8036
291.802,-1.11581e-08,0,8044,8044
291.852,-1.11518e-08,0,8044,8044
291.902,-1.11415e-08,0,7996,7996
291.952,-1.11282e-08,0,7948,7948
292.001,-1.1113e-08,0,7900,7900
292.051,-1.10973e-08,0,7840,7840
292.101,-1.10814e-08,0,7812,7812
292.151,-1.1066e-08,0,7824,7824
292.201,-1.10519e-08,0,7752,7752
292.25,-1.10404e-08,0,7620,7620
292.3,-1.1032e-08,0,7688,7688
292.35,-1.1028e-08,0,7688,7688
292.403,-1.10285e-08,0,7744,7744
292.453,-1.10322e-08,0,7700,7700
292.502,-1.10376e-08,0,7712,7712
292.552,-1.10528e-08,0,7672,7672
292.602,-1.10715e-08,0,7664,7664
292.652,-1.10971e-08,0,7652,7652
292.702,-1.11256e-08,0,7656,7656
292.751,-1.11612e-08,0,7656,7656
292.801,-1.12062e-08,0,7640,7640
292.851,-1.12566e-08,0,7660,7660
292.901,-1.13124e-08,0,7624,7624
292.951,-1.13752e-08,0,7648,7648
293,-1.1445e-08,0,7644,7644
293.05,-1.15218e-08,0,7616,7616
293.103,-1.16108e-08,0,7620,7620
293.153,-1.17024e-08,0,7604,7604
293.202,-1.18016e-08,0,7624,7624
293.252,-1.19088e-08,0,7628,7628
293.302,-1.20245e-08,0,7636,7636
293.352,-1.21496e-08,0,7644,7644
293.402,-1.22849e-08,0,7632,7632
293.451,-1.24315e-08,0,7636,7636
293.501,-1.25903e-08,0,7632,7632
293.551,-1.27626e-08,0,7642,7642
293.601,-1.29495e-08,0,7674,7674
293.651,-1.31521e-08,0,7734,7734
293.7,-1.33716e-08,0,7750,7750
293.75,-1.36087e-08,0,7802,7802
293.803,-1.38797e-08,0,7842,7842
293.853,-1.41551e-08,0,7886,7886
293.903,-1.44492e-08,0,7934,7934
293.952,-1.47619e-08,0,7978,7978
294.002,-1.50923e-08,0,8022,8022
294.052,-1.54395e-08,0,8062,8062
294.102,-1.58018e-08,0,8090,8090
294.152,-1.61774e-08,0,8138,8138
294.201,-1.65641e-08,0,8176,8176
294.251,-1.69593e-08,0,8184,8184
294.301,-1.73602e-08,0,8168,8168
294.351,-1.77636e-08,0,8176,8176
294.4,-1.81667e-08,0,8176,8176
294.45,-1.85661e-08,0,8184,8184
294.5,-1.89587e-08,0,8192,8192
294.553,-1.93637e-08,0,8192,8192
294.603,-1.97329e-08,0,8192,8192
294.652,-2.00863e-08,0,8176,8176
294.702,-2.04214e-08,0,8168,8168
294.752,-2.07357e-08,0,8192,8192
294.802,-2.10273e-08,0,8176,8176
294.852,-2.12944e-08,0,8168,8168
294.901,-2.15354e-08,0,8192,8192
294.951,-2.17493e-08,0,8192,8192
295.001,-2.19355e-08,0,8192,8192
295.051,-2.20936e-08,0,8160,8160
295.101,-2.22236e-08,0,8176,8176
295.15,-2.23262e-08,0,8168,8168
295.2,-2.24019e-08,0,8176,8176
295.253,-2.2454e-08,0,8160,8160
295.303,-2.24772e-08,0,8192,8192
295.352,-2.24791e-08,0,8184,8184
295.402,-2.24583e-08,0,8160,8160
295.452,-2.24205e-08,0,8152,8152
295.502,-2.23648e-08,0,8152,8152
295.552,-2.22933e-08,0,8152,8152
295.601,-2.22083e-08,0,8152,8152
295.651,-2.21116e-08,0,8152,8152
295.701,-2.2005e-08,0,8152,8152
295.751,-2.18901e-08,0,8144,8144
295.801,-2.17684e-08,0,8144,8144
295.85,-2.16415e-08,0,8144,8144
295.9,-2.15107e-08,0,8144,8144
295.95,-2.13771e-08,0,8120,8120
296.003,-2.12338e-08,0,8120,8120
296.053,-2.10979e-08,0,8128,8128
296.102,-2.09623e-08,0,8120,8120
296.152,-2.08276e-08,0,8144,8144
296.202,-2.06946e-08,0,8144,8144
296.252,-2.05638e-08,0,8136,8136
296.302,-2.04358e-08,0,8144,8144
296.351,-2.03109e-08,0,8144,8144
296.401,-2.01895e-08,0,8144,8144
296.451,-2.0072e-08,0,8136,8136
296.501,-1.99585e-08,0,8112,8112
296.551,-1.98492e-08,0,8082,8082
296.6,-1.97442e-08,0,8076,8076
296.65,-1.96435e-08,0,8068,8068
296.703,-1.95415e-08,0,8064,8064
296.753,-1.94495e-08,0,8060,8060
296.802,-1.93614e-08,0,8042,8042
296.852,-1.92771e-08,0,8042,8042
296.902,-1.91963e-08,0,8100,8100
296.952,-1.91189e-08,0,8084,8084
297.002,-1.90444e-08,0,8094,8094
297.051,-1.89727e-08,0,8140,8140
297.101,-1.89035e-08,0,8148,8148
297.151,-1.88364e-08,0,8160,8160
297.201,-1.87712e-08,0,8152,8152
297.251,-1.87076e-08,0,8136,8136
297.3,-1.86454e-08,0,8012,8012
297.35,-1.85841e-08,0,8032,8032
297.4,-1.85237e-08,0,8052,8052
297.453,-1.84604e-08,0,8048,8048
297.503,-1.8401e-08,0,8072,8072
297.552,-1.83417e-08,0,8056,8056
297.602,-1.82824e-08,0,8036,8036
297.652,-1.82228e-08,0,8004,8004
297.702,-1.81629e-08,0,7984,7984
297.752,-1.81025e-08,0,7928,7928
297.801,-1.80414e-08,0,7908,7908
297.851,-1.79795e-08,0,7868,7868
297.901,-1.79167e-08,0,7824,7824
297.951,-1.78529e-08,0,7808,7808
298.001,-1.77879e-08,0,7762,7762
298.05,-1.77217e-08,0,7832,7832
298.1,-1.76541e-08,0,7884,7884
298.153,-1.75809e-08,0,7948,7948
298.203,-1.751e-08,0,8020,8020
298.252,-1.74373e-08,0,8036,8036
298.302,-1.73626e-08,0,8076,8076
298.352,-1.72856e-08,0,8084,8084
298.402,-1.72063e-08,0,8100,8100
298.452,-1.71243e-08,0,8116,8116
298.501,-1.70396e-08,0,8116,8116
298.551,-1.69518e-08,0,8116,8116
298.601,-1.68609e-08,0,8104,8104
298.651,-1.67666e-08,0,8100,8100
298.701,-1.66686e-08,0,8092,8092
298.75,-1.65669e-08,0,8108,8108
298.8,-1.64611e-08,0,8104,8104
298.85,-1.63513e-08,0,8092,8092
298.903,-1.62303e-08,0,8108,8108
298.953,-1.61115e-08,0,8092,8092
299.002,-1.5988e-08,0,8092,8092
299.052,-1.58599e-08,0,8080,8080
299.102,-1.57269e-08,0,8076,8076
299.152,-1.5589e-08,0,8072,8072
299.202,-1.5446e-08,0,8088,8088
299.251,-1.52979e-08,0,8084,8084
299.301,-1.51446e-08,0,8080,8080
299.351,-1.49859e-08,0,8088,8088
299.401,-1.48219e-08,0,7942,7942
299.451,-1.46523e-08,0,7910,7910
299.5,-1.44772e-08,0,7870,7870
299.55,-1.42963e-08,0,7850,7850
299.603,-1.40983e-08,0,7834,7834
299.653,-1.39049e-08,0,7824,7824
299.702,-1.37051e-08,0,7848,7848
299.752,-1.34985e-08,0,7864,7864
299.802,-1.32847e-08,0,7836,7836
299.852,-1.30631e-08,0,7824,7824
299.902,-1.28331e-08,0,7832,7832
299.951,-1.25938e-08,0,7788,7788
300.001,-1.23444e-08,0,7728,7728
300.051,-1.20837e-08,0,7668,7668
300.101,-1.18107e-08,0,7668,7668
300.151,-1.15241e-08,0,7656,7656
300.2,-1.12225e-08,0,7628,7628
300.25,-1.09048e-08,0,7656,7656
300.3,-1.05697e-08,0,7684,7684
300.353,-1.01946e-08,0,7700,7700
300.403,-9.82024e-09,0,7780,7780
300.452,-9.42555e-09,0,7832,7832
300.502,-9.01011e-09,0,7872,7872
300.552,-8.57381e-09,0,7856,7856
300.602,-8.11694e-09,0,7816,7816
300.652,-7.64019e-09,0,7796,7796
300.701,-7.1447e-09,0,7804,7804
300.751,-6.63202e-09,0,7784,7784
300.801,-6.10415e-09,0,7740,7740
300.851,-5.56347e-09,0,7700,7700
300.901,-5.0127e-09,0,7696,7696
300.95,-4.45487e-09,0,7752,7752
301,-3.89323e-09,0,7716,7716
301.053,-3.29819e-09,0,7744,7744
301.103,-2.73954e-09,0,7708,7708
301.152,-2.18776e-09,0,7672,7672
301.202,-1.64633e-09,0,7656,7656
301.252,-1.11865e-09,0,7640,7640
301.302,-6.07968e-10,0,7616,7616
301.352,-1.17318e-10,0,7576,7576
301.401,3.50512e-10,0,7592,7592
301.451,7.93033e-10,0,7596,7596
301.501,1.20809e-09,0,7616,7616
301.551,1.59388e-09,0,7632,7632
301.601,1.94901e-09,0,7628,7628
301.65,2.27248e-09,0,7600,7600
301.7,2.56373e-09,0,7596,7596
301.753,2.83681e-09,0,7560,7560
301.803,3.06166e-09,0,7536,7536
301.853,3.25505e-09,0,7528,7528
301.902,3.41795e-09,0,7552,7552
301.952,3.55167e-09,0,7552,7552
302.002,3.65781e-09,0,7540,7540
302.052,3.7382e-09,0,7576,7576
302.102,3.79465e-09,0,7588,7588
302.151,3.82873e-09,0,7572,7572
302.201,3.83997e-09,0,7532,7532
302.251,3.83555e-09,0,7480,7480
302.301,3.82259e-09,0,7448,7448
302.35,3.78896e-09,0,7456,7456
302.4,3.74566e-09,0,7476,7476
302.45,3.69262e-09,0,7464,7464
302.503,3.62771e-09,0,7464,7464
302.553,3.56008e-09,0,7464,7464
302.602,3.48797e-09,0,7416,7416
302.652,3.41282e-09,0,7416,7416
302.702,3.33593e-09,0,7352,7352
302.752,3.25845e-09,0,7304,7304
302.802,3.18148e-09,0,7260,7260
302.851,3.10612e-09,0,7260,7260
302.901,3.03317e-09,0,7220,7220
302.951,2.96344e-09,0,7208,7208
303.001,2.89793e-09,0,7132,7132
303.051,2.83708e-09,0,7108,7108
303.1,2.78152e-09,0,7064,7064
303.15,2.73172e-09,0,7116,7116
303.203,2.6854e-09,0,7248,7248
303.253,2.64804e-09,0,7240,7240
303.303,2.61698e-09,0,7208,7208
303.352,2.59182e-09,0,7204,7204
303.402,2.5721e-09,0,7208,7208
303.452,2.55731e-09,0,7228,7228
303.502,2.54646e-09,0,7252,7252
303.551,2.53857e-09,0,7284,7284
303.601,2.5324e-09,0,7300,7300
303.651,2.52714e-09,0,7344,7344
303.701,2.52233e-09,0,7380,7380
303.751,2.51691e-09,0,7404,7404
303.8,2.5096e-09,0,7388,7388
303.85,2.49999e-09,0,7364,7364
303.9,2.48761e-09,0,7390,7390
303.953,2.47162e-09,0,7388,7388
304.003,2.45469e-09,0,7372,7372
304.052,2.43066e-09,0,7352,7352
304.102,2.40124e-09,0,7328,7328
304.152,2.36934e-09,0,7284,7284
304.202,2.3344e-09,0,7264,7264
304.252,2.2969e-09,0,7236,7236
304.301,2.25752e-09,0,7192,7192
304.351,2.21706e-09,0,7188,7188
304.401,2.17641e-09,0,7168,7168
304.451,2.13626e-09,0,7156,7156
304.501,2.09721e-09,0,7148,7148
304.55,2.05993e-09,0,7128,7128
304.6,2.0251e-09,0,7144,7144
304.653,1.99151e-09,0,7108,7108
304.703,1.9635e-09,0,7096,7096
304.752,1.93977e-09,0,7056,7056
304.802,1.92095e-09,0,7064,7064
304.852,1.90789e-09,0,7048,7048
304.902,1.90145e-09,0,7012,7012
304.952,1.90233e-09,0,7004,7004
