250,0,0,8192,8192
250.003,0,0,8192,8192
250.053,0,0,8192,8192
250.103,0,0,8192,8192
250.152,0,0,8192,8192
250.202,0,0,8192,8192
250.252,0,0,8192,8192
250.302,0,0,8192,8192
250.352,0,0,8192,8192
250.401,0,0,8192,8192
250.451,0,0,8192,8192
250.501,0,0,8192,8192
250.551,0,0,8192,8192
250.6,0,0,8192,8192
250.65,0,0,8192,8192
250.7,0,0,8192,8192
250.753,0,0,8192,8192
250.803,0,0,8192,8192
250.852,0,0,8192,8192
250.902,0,0,8192,8192
250.952,0,0,8192,8192
251.002,0,0,8192,8192
251.052,0,0,8192,8192
251.101,0,0,8192,8192
251.151,0,0,8192,8192
251.201,0,0,8192,8192
251.251,0,0,8192,8192
251.301,0,0,8192,8192
251.35,0,0,8192,8192
251.4,0,0,8192,8192
251.453,0,0,8192,8192
251.503,0,0,8192,8192
251.553,0,0,8192,8192
251.602,0,0,8192,8192
251.652,0,0,8192,8192
251.702,0,0,8192,8192
251.752,0,0,8192,8192
251.801,0,0,8192,8192
251.851,0,0,8192,8192
251.901,0,0,8192,8192
251.951,0,0,8192,8192
252.001,0,0,8192,8192
252.05,0,0,8192,8192
252.1,0,0,8192,8192
252.15,0,0,8192,8192
252.203,0,0,8192,8192
252.253,0,0,8192,8192
252.302,0,0,8192,8192
252.352,0,0,8192,8192
252.402,0,0,8192,8192
252.452,0,0,8192,8192
252.502,0,0,8192,8192
252.551,0,0,8192,8192
252.601,0,0,8192,8192
252.651,0,0,8192,8192
252.701,0,0,8192,8192
252.751,0,0,8192,8192
252.8,0,0,8192,8192
252.85,0,0,8192,8192
252.903,0,0,8192,8192
252.953,0,0,8192,8192
253.002,0,0,8192,8192
253.052,0,0,8192,8192
253.102,0,0,8192,8192
253.152,0,0,8192,8192
253.202,0,0,8192,8192
253.251,0,0,8192,8192
253.301,0,0,8192,8192
253.351,0,0,8192,8192
253.401,0,0,8192,8192
253.451,0,0,8192,8192
253.5,0,0,8192,8192
253.55,0,0,8192,8192
253.6,0,0,8192,8192
253.653,0,0,8192,8192
253.703,0,0,8192,8192
253.752,0,0,8192,8192
253.802,0,0,8192,8192
253.852,0,0,8192,8192
253.902,0,0,8192,8192
253.952,0,0,8192,8192
254.001,0,0,8192,8192
254.051,0,0,8192,8192
254.101,0,0,8192,8192
254.151,0,0,8192,8192
254.201,0,0,8192,8192
254.25,0,0,8192,8192
254.3,0,0,8192,8192
254.353,0,0,8192,8192
254.403,0,0,8192,8192
254.452,0,0,8192,8192
254.502,0,0,8192,8192
254.552,0,0,8192,8192
254.602,0,0,8192,8192
254.652,0,0,8192,8192
254.701,0,0,8192,8192
254.751,0,0,8192,8192
254.801,0,0,8192,8192
254.851,0,0,8192,8192
254.901,0,0,8192,8192
254.95,0,0,8192,8192
255,0,0,8192,8192
255.05,0,0,8192,8192
255.103,0,0,8192,8192
255.153,0,0,8192,8192
255.202,0,0,8192,8192
255.252,0,0,8192,8192
255.302,0,0,8192,8192
255.352,0,0,8192,8192
255.402,1.38778e-17,0,8192,8192
255.451,1.38778e-17,0,8192,8192
255.501,1.38778e-17,0,8192,8192
255.551,1.38778e-17,0,8192,8192
255.601,1.38778e-17,0,8192,8192
255.651,1.38778e-17,0,8192,8192
255.7,1.38778e-17,0,8192,8192
255.75,1.38778e-17,0,8192,8192
255.803,1.38778e-17,0,8192,8192
255.853,1.38778e-17,0,8192,8192
255.902,1.38778e-17,0,8192,8192
255.952,1.38778e-17,0,8192,8192
256.002,1.38778e-17,0,8192,8192
256.052,1.38778e-17,0,8192,8192
256.102,1.38778e-17,0,8192,8192
256.151,0,0,8192,8192
256.201,0,0,8192,8192
256.251,0,0,8192,8192
256.301,0,0,8192,8192
256.351,0,0,8192,8192
256.4,0,0,8192,8192
256.45,0,0,8192,8192
256.5,0,0,8192,8192
256.553,1.38778e-17,0,8192,8192
256.603,1.38778e-17,0,8192,8192
256.652,1.38778e-17,0,8192,8192
256.702,1.38778e-17,0,8192,8192
256.752,1.38778e-17,0,8192,8192
256.802,1.38778e-17,0,8192,8192
256.852,1.38778e-17,0,8192,8192
256.901,1.38778e-17,0,8192,8192
256.951,1.38778e-17,0,8192,8192
257.001,1.38778e-17,0,8192,8192
257.051,1.38778e-17,0,8192,8192
257.101,1.38778e-17,0,8192,8192
257.15,1.38778e-17,0,8192,8192
257.2,1.38778e-17,0,8192,8192
257.253,1.38778e-17,0,8192,8192
257.303,1.38778e-17,0,8192,8192
257.352,1.38778e-17,0,8192,8192
257.402,1.38778e-17,0,8192,8192
257.452,0,0,8192,8192
257.502,0,0,8192,8192
257.552,0,0,8192,8192
257.601,0,0,8192,8192
257.651,0,0,8192,8192
257.701,0,0,8192,8192
257.751,0,0,8192,8192
257.801,0,0,8192,8192
257.85,0,0,8192,8192
257.9,0,0,8192,8192
257.95,0,0,8192,8192
258.003,0,0,8192,8192
258.053,0,0,8192,8192
258.102,0,0,8192,8192
258.152,0,0,8192,8192
258.202,0,0,8192,8192
258.252,0,0,8192,8192
258.302,0,0,8192,8192
258.351,0,0,8192,8192
258.401,0,0,8192,8192
258.451,0,0,8192,8192
258.501,0,0,8192,8192
258.551,0,0,8192,8192
258.6,0,0,8192,8192
258.65,0,0,8192,8192
258.703,0,0,8192,8192
258.753,0,0,8192,8192
258.802,0,0,8192,8192
258.852,1.38778e-17,0,8192,8192
258.902,2.77556e-17,0,8192,8192
258.952,2.77556e-17,0,8192,8192
259.002,2.77556e-17,0,8192,8192
259.051,2.77556e-17,0,8192,8192
259.101,2.77556e-17,0,8192,8192
259.151,2.77556e-17,0,8192,8192
259.201,2.77556e-17,0,8192,8192
259.251,2.77556e-17,0,8192,8192
259.3,2.77556e-17,0,8192,8192
259.35,2.77556e-17,0,8192,8192
259.403,2.77556e-17,0,8192,8192
259.453,2.77556e-17,0,8192,8192
259.503,2.77556e-17,0,8192,8192
259.552,2.77556e-17,0,8192,8192
259.602,2.77556e-17,0,8192,8192
259.652,2.77556e-17,0,8192,8192
259.702,2.77556e-17,0,8192,8192
259.751,2.77556e-17,0,8192,8192
259.801,2.77556e-17,0,8192,8192
259.851,2.77556e-17,0,8192,8192
259.901,2.77556e-17,0,8192,8192
259.951,2.77556e-17,0,8192,8192
260,2.77556e-17,0,8192,8192
260.05,2.77556e-17,0,8192,8192
260.1,2.77556e-17,0,8192,8192
260.153,2.77556e-17,0,8192,8192
260.203,2.77556e-17,0,8192,8192
260.252,2.77556e-17,0,8192,8192
260.302,2.77556e-17,0,8192,8192
260.352,2.77556e-17,0,8192,8192
260.402,2.77556e-17,0,8192,8192
260.452,2.77556e-17,0,8192,8192
260.501,2.77556e-17,0,8192,8192
260.551,2.77556e-17,0,8192,8192
260.601,2.77556e-17,0,8192,8192
260.651,2.77556e-17,0,8192,8192
260.701,2.77556e-17,0,8192,8192
260.75,2.77556e-17,0,8192,8192
260.8,1.38778e-17,0,8192,8192
260.853,1.38778e-17,0,8192,8192
260.903,1.38778e-17,0,8192,8192
260.952,1.38778e-17,0,8192,8192
261.002,1.38778e-17,0,8192,8192
261.052,1.38778e-17,0,8192,8192
261.102,1.38778e-17,0,8192,8192
261.152,1.38778e-17,0,8192,8192
261.201,1.38778e-17,0,8192,8192
261.251,2.77556e-17,0,8192,8192
261.301,2.77556e-17,0,8192,8192
261.351,2.77556e-17,0,8192,8192
261.401,2.77556e-17,0,8192,8192
261.45,2.77556e-17,0,8192,8192
261.5,2.77556e-17,0,8192,8192
261.55,2.77556e-17,0,8192,8192
261.603,2.77556e-17,0,8192,8192
261.653,2.77556e-17,0,8192,8192
261.702,2.77556e-17,0,8192,8192
261.752,2.77556e-17,0,8192,8192
261.802,2.77556e-17,0,8192,8192
261.852,2.77556e-17,0,8192,8192
261.902,2.77556e-17,0,8192,8192
261.951,2.77556e-17,0,8192,8192
262.001,2.77556e-17,0,8192,8192
262.051,2.77556e-17,0,8192,8192
262.101,2.77556e-17,0,8192,8192
262.151,2.77556e-17,0,8192,8192
262.2,2.77556e-17,0,8192,8192
262.25,2.77556e-17,0,8192,8192
262.303,2.77556e-17,0,8192,8192
262.353,2.77556e-17,0,8192,8192
262.402,2.77556e-17,0,8192,8192
262.452,2.77556e-17,0,8192,8192
262.502,2.77556e-17,0,8192,8192
262.552,2.77556e-17,0,8192,8192
262.602,2.77556e-17,0,8192,8192
262.651,2.77556e-17,0,8192,8192
262.701,2.77556e-17,0,8192,8192
262.751,2.77556e-17,0,8192,8192
262.801,2.77556e-17,0,8192,8192
262.851,2.77556e-17,0,8192,8192
262.9,1.38778e-17,0,8192,8192
262.95,1.38778e-17,0,8192,8192
263,1.38778e-17,0,8192,8192
263.053,1.38778e-17,0,8192,8192
263.103,1.38778e-17,0,8192,8192
263.152,1.38778e-17,0,8192,8192
263.202,1.38778e-17,0,8192,8192
263.252,1.38778e-17,0,8192,8192
263.302,1.38778e-17,0,8192,8192
263.352,1.38778e-17,0,8192,8192
263.401,1.38778e-17,0,8192,8192
263.451,0,0,8192,8192
263.501,0,0,8192,8192
263.551,0,0,8192,8192
263.601,0,0,8192,8192
263.65,0,0,8192,8192
263.7,0,0,8192,8192
263.753,0,0,8192,8192
263.803,0,0,8192,8192
263.852,0,0,8192,8192
263.902,0,0,8192,8192
263.952,0,0,8192,8192
264.002,0,0,8192,8192
264.052,0,0,8192,8192
264.101,-1.38778e-17,0,8192,8192
264.151,-1.38778e-17,0,8192,8192
264.201,-1.38778e-17,0,8192,8192
264.251,-1.38778e-17,0,8192,8192
264.301,-1.38778e-17,0,8192,8192
264.35,-1.38778e-17,0,8192,8192
264.4,-1.38778e-17,0,8192,8192
264.45,-1.38778e-17,0,8192,8192
264.503,-1.38778e-17,0,8192,8192
264.553,-1.38778e-17,0,8192,8192
264.602,-1.38778e-17,0,8192,8192
264.652,-1.38778e-17,0,8192,8192
264.702,-1.38778e-17,0,8192,8192
264.752,-1.38778e-17,0,8192,8192
264.802,-1.38778e-17,0,8192,8192
264.851,-1.38778e-17,0,8192,8192
264.901,-1.38778e-17,0,8192,8192
264.951,-1.38778e-17,0,8192,8192
265.001,-1.38778e-17,0,8192,8192
265.051,-1.38778e-17,0,8192,8192
265.1,-1.38778e-17,0,8192,8192
265.15,-1.38778e-17,0,8192,8192
265.203,-1.38778e-17,0,8192,8192
265.253,-1.38778e-17,0,8192,8192
265.302,-1.38778e-17,0,8192,8192
265.352,-1.38778e-17,0,8192,8192
265.402,-1.38778e-17,0,8192,8192
265.452,-1.38778e-17,0,8192,8192
265.502,-1.38778e-17,0,8192,8192
265.551,-1.38778e-17,0,8192,8192
265.601,-1.38778e-17,0,8192,8192
265.651,-1.38778e-17,0,8192,8192
265.701,-1.38778e-17,0,8192,8192
265.751,-1.38778e-17,0,8192,8192
265.8,-1.38778e-17,0,8192,8192
265.85,-1.38778e-17,0,8192,8192
265.9,-1.38778e-17,0,8192,8192
265.953,0,0,8192,8192
266.003,0,0,8192,8192
266.052,0,0,8192,8192
266.102,0,0,8192,8192
266.152,0,0,8192,8192
266.202,0,0,8192,8192
266.252,1.38778e-17,0,8192,8192
266.301,1.38778e-17,0,8192,8192
266.351,1.38778e-17,0,8192,8192
266.401,1.38778e-17,0,8192,8192
266.451,1.38778e-17,0,8192,8192
266.501,1.38778e-17,0,8192,8192
266.55,1.38778e-17,0,8192,8192
266.6,1.38778e-17,0,8192,8192
266.653,1.38778e-17,0,8192,8192
266.703,1.38778e-17,0,8192,8192
266.752,1.38778e-17,0,8192,8192
266.802,1.38778e-17,0,8192,8192
266.852,1.38778e-17,0,8192,8192
266.902,1.38778e-17,0,8192,8192
266.952,1.38778e-17,0,8192,8192
267.001,1.38778e-17,0,8192,8192
267.051,1.38778e-17,0,8192,8192
267.101,1.38778e-17,0,8192,8192
267.151,1.38778e-17,0,8192,8192
267.201,1.38778e-17,0,8192,8192
267.25,1.38778e-17,0,8192,8192
267.3,1.38778e-17,0,8192,8192
267.353,1.38778e-17,0,8192,8192
267.403,1.38778e-17,0,8192,8192
267.453,1.38778e-17,0,8192,8192
267.502,1.38778e-17,0,8192,8192
267.552,1.38778e-17,0,8192,8192
267.602,1.38778e-17,0,8192,8192
267.652,1.38778e-17,0,8192,8192
267.702,1.38778e-17,0,8192,8192
267.751,1.38778e-17,0,8192,8192
267.801,1.38778e-17,0,8192,8192
267.851,1.38778e-17,0,8192,8192
267.901,1.38778e-17,0,8192,8192
267.95,1.38778e-17,0,8192,8192
268,1.38778e-17,0,8192,8192
268.05,1.38778e-17,0,8192,8192
268.1,1.38778e-17,0,8192,8192
268.15,2.77556e-17,0,8192,8192
268.203,2.77556e-17,0,8192,8192
268.253,2.77556e-17,0,8192,8192
268.302,2.77556e-17,0,8192,8192
268.352,2.77556e-17,0,8192,8192
268.402,2.77556e-17,0,8192,8192
268.452,1.38778e-17,0,8192,8192
268.502,1.38778e-17,0,8192,8192
268.551,1.38778e-17,0,8192,8192
268.601,1.38778e-17,0,8192,8192
268.651,1.38778e-17,0,8192,8192
268.701,1.38778e-17,0,8192,8192
268.751,1.38778e-17,0,8192,8192
268.8,1.38778e-17,0,8192,8192
268.85,1.38778e-17,0,8192,8192
268.903,0,0,8192,8192
268.953,0,0,8192,8192
269.002,0,0,8192,8192
269.052,0,0,8192,8192
269.102,0,0,8192,8192
269.152,0,0,8192,8192
269.202,0,0,8192,8192
269.251,0,0,8192,8192
269.301,0,0,8192,8192
269.351,0,0,8192,8192
269.401,0,0,8192,8192
269.451,0,0,8192,8192
269.5,0,0,8192,8192
269.55,0,0,8192,8192
269.6,0,0,8192,8192
269.653,0,0,8192,8192
269.703,0,0,8192,8192
269.752,0,0,8192,8192
269.802,0,0,8192,8192
269.852,0,0,8192,8192
269.9,0,0,8260,8260
269.951,0,0,8356,8356
270.001,0,0,8476,8476
270.051,0,0,8572,8572
270.101,0,0,8676,8676
270.15,0,0,8760,8760
270.2,0,0,8768,8768
270.25,0,0,8744,8744
270.301,0,0,8804,8804
270.351,0,0,8892,8892
270.401,0,0,9084,9084
270.451,0,0,9236,9236
270.501,0,0,9412,9412
270.55,0,0,9556,9556
270.6,0,0,9708,9708
270.651,0,0,9908,9908
270.701,0,0,10052,10052
270.751,0,0,10244,10244
270.801,0,0,10372,10372
270.851,0,0,10588,10588
270.9,0,0,10764,10764
270.95,0,0,10940,10940
271.001,0,0,11116,11116
271.051,0,0,11300,11300
271.101,0,0,11492,11492
271.151,0,0,11684,11684
271.201,0,0,11892,11892
271.25,0,0,12044,12044
271.3,0,0,12220,12220
271.351,0,0,12380,12380
271.401,0,0,12556,12556
271.451,0,0,12708,12708
271.501,0,0,12844,12844
271.551,0,0,12880,12880
271.6,0,0,12904,12904
271.65,0,0,12948,12948
271.7,0,0,13060,13060
271.751,0,0,13212,13212
271.801,0,0,13372,13372
271.851,0,0,13524,13524
271.901,0,0,13684,13684
271.95,0,0,13852,13852
272,0,0,14020,14020
272.05,0,0,14188,14188
272.101,0,0,14348,14348
272.151,0,0,14524,14524
272.201,0,0,14724,14724
272.251,0,0,14956,14956
272.301,0,0,15164,15164
272.35,0,0,15348,15348
272.4,0,0,15484,15484
272.451,0,0,15644,15644
272.501,0,0,15828,15828
272.551,0,0,15956,15956
272.601,0,0,16140,16140
272.651,0,0,16284,16284
272.7,0,0,16444,16444
272.75,0,0,16596,16596
272.801,0,0,16756,16756
272.851,0,0,16900,16900
272.901,0,0,17052,17052
272.951,0,0,17212,17212
273.001,0,0,17372,17372
273.05,0,0,17524,17524
273.1,0,0,17644,17644
273.15,0,0,17788,17788
273.201,0,0,17884,17884
273.251,0,0,17940,17940
273.301,0,0,18100,18100
273.351,0,0,18244,18244
273.4,0,0,18420,18420
273.45,0,0,18532,18532
273.5,0,0,18664,18664
273.551,0,0,18680,18680
273.601,0,0,18560,18560
273.651,0,0,18480,18480
273.701,0,0,18272,18272
273.751,0,0,18144,18144
273.8,0,0,18000,18000
273.85,0,0,17896,17896
273.901,0,0,17848,17848
273.951,0,0,17824,17824
274.001,0,0,17812,17812
274.051,0,0,17792,17792
274.101,0,0,17784,17784
274.15,0,0,17792,17792
274.2,0,0,17800,17800
274.251,0,0,17864,17864
274.301,0,0,17976,17976
274.351,0,0,18048,18048
274.401,0,0,18120,18120
274.451,0,0,18240,18240
274.5,0,0,18216,18216
274.55,0,0,18192,18192
274.601,0,0,18168,18168
274.651,0,0,18160,18160
274.701,0,0,18120,18120
274.751,0,0,18096,18096
274.801,0,0,18040,18040
274.85,0,0,18008,18008
274.9,0,0,18000,18000
274.95,0,0,17952,17952
275.001,0,0,17928,17928
275.051,0,0,17896,17896
275.101,-3.60822e-16,0,17840,17840
275.151,-7.91034e-16,0,17824,17824
275.201,-1.23512e-15,0,17776,17776
275.251,-1.70697e-15,0,17784,17784
275.301,-2.17881e-15,0,17728,17728
275.35,-2.6229e-15,0,17712,17712
275.401,-3.78864e-15,0,17680,17680
275.45,-8.29892e-15,0,17624,17624
275.501,-2.62984e-14,0,17576,17576
275.551,-8.56815e-14,0,17560,17560
275.601,-2.64039e-13,0,17536,17536
275.651,-7.46264e-13,0,17496,17496
275.701,-1.92152e-12,0,17480,17480
275.751,-4.50506e-12,0,17456,17456
275.801,-9.62368e-12,0,17408,17408
275.851,-1.83945e-11,0,17360,17360
275.901,-3.27751e-11,0,17352,17352
275.951,-5.25555e-11,0,17312,17312
276,-7.72314e-11,0,17312,17312
276.05,-1.03849e-10,0,17288,17288
276.101,-1.28062e-10,0,17232,17232
276.152,-1.42314e-10,0,17232,17232
276.2,-1.42731e-10,0,17176,17176
276.251,-1.27383e-10,0,17152,17152
276.301,-9.79408e-11,0,17128,17128
276.35,-6.10239e-11,0,17080,17080
276.401,-2.08727e-11,0,17088,17088
276.451,1.45143e-11,0,17064,17064
276.5,4.33895e-11,0,17040,17040
276.55,6.52425e-11,0,17016,17016
276.6,8.11421e-11,0,17000,17000
276.651,9.25208e-11,0,16992,16992
276.701,1.00365e-10,0,16944,16944
276.751,1.05087e-10,0,16920,16920
276.801,1.06785e-10,0,16912,16912
276.851,1.0556e-10,0,16872,16872
276.901,1.01311e-10,0,16832,16832
276.95,9.36393e-11,0,16840,16840
277,8.21835e-11,0,16816,16816
277.05,6.72725e-11,0,16800,16800
277.1,5.06172e-11,0,16784,16784
277.151,3.54883e-11,0,16776,16776
277.201,2.59996e-11,0,16736,16736
277.25,2.5606e-11,0,16728,16728
277.301,3.61114e-11,0,16736,16736
277.35,5.64839e-11,0,16672,16672
277.401,8.62217e-11,0,16680,16680
277.451,1.21551e-10,0,16688,16688
277.501,1.64038e-10,0,16632,16632
277.551,2.20363e-10,0,16632,16632
277.601,3.08642e-10,0,16608,16608
277.651,4.65669e-10,0,16584,16584
277.7,7.41486e-10,0,16584,16584
277.751,1.24576e-09,0,16544,16544
277.8,2.05345e-09,0,16536,16536
277.852,3.34715e-09,0,16488,16488
277.901,5.1451e-09,0,16472,16472
277.951,7.55143e-09,0,16448,16448
278.001,1.05818e-08,0,16440,16440
278.051,1.41805e-08,0,16400,16400
278.102,1.81658e-08,0,16344,16344
278.15,2.42213e-08,0,16344,16344
278.201,3.09939e-08,0,16304,16304
278.25,3.64717e-08,0,16288,16288
278.302,4.19586e-08,0,16264,16264
278.351,4.78396e-08,0,16224,16224
278.401,5.48315e-08,0,16192,16192
278.451,6.39904e-08,0,16292,16292
278.501,7.82586e-08,0,16188,16188
278.551,9.5692e-08,0,16092,16092
278.601,1.16623e-07,0,16084,16084
278.652,1.42026e-07,0,16100,16100
278.7,1.71833e-07,0,16076,16076
278.751,2.09335e-07,0,15948,15948
278.801,2.53996e-07,0,15828,15828
278.85,3.03532e-07,0,15700,15700
278.901,3.60897e-07,0,15628,15628
278.952,4.23181e-07,0,15508,15508
279.001,4.86995e-07,0,15452,15452
279.051,5.56924e-07,0,15316,15316
279.101,6.2763e-07,0,15228,15228
279.152,7.03888e-07,0,15108,15108
279.201,7.78693e-07,0,14908,14908
279.25,8.52549e-07,0,14876,14876
279.302,9.24434e-07,0,14780,14780
279.351,9.8545e-07,0,14684,14684
279.4,1.03665e-06,0,14564,14564
279.45,1.07797e-06,0,14460,14460
279.502,1.1119e-06,0,14324,14324
279.551,1.13838e-06,0,14140,14140
279.601,1.16117e-06,0,14020,14020
279.651,1.18251e-06,0,13908,13908
279.701,1.20456e-06,0,13748,13748
279.751,1.22822e-06,0,13508,13508
279.801,1.25138e-06,0,13204,13204
279.852,1.26719e-06,0,12772,12772
279.9,1.27981e-06,0,12452,12452
279.951,1.2915e-06,0,12252,12252
280,1.29943e-06,0,12028,12028
280.051,1.3006e-06,0,11868,11868
280.1,1.30298e-06,0,11684,11684
280.152,1.30682e-06,0,11356,11356
280.201,1.29875e-06,0,11276,11276
280.25,1.30153e-06,0,11036,11036
280.301,1.30592e-06,0,11260,11260
280.352,1.29911e-06,0,11708,11708
280.4,1.299e-06,0,12132,12132
280.45,1.29014e-06,0,12468,12468
280.501,1.27379e-06,0,12804,12804
280.551,1.24952e-06,0,12892,12892
280.601,1.21791e-06,0,12932,12932
280.651,1.18065e-06,0,13116,13116
280.702,1.14136e-06,0,13188,13188
280.752,1.10092e-06,0,13324,13324
280.801,1.06138e-06,0,13452,13452
280.851,1.02078e-06,0,13540,13540
280.901,9.7683e-07,0,13628,13628
280.951,9.25626e-07,0,13764,13764
281,8.67719e-07,0,13900,13900
281.05,8.04477e-07,0,14012,14012
281.101,7.34885e-07,0,14156,14156
281.151,6.64893e-07,0,14204,14204
281.2,5.93926e-07,0,14324,14324
281.251,5.20803e-07,0,14452,14452
281.301,4.51879e-07,0,14588,14588
281.352,3.83141e-07,0,14716,14716
281.401,3.20618e-07,0,14868,14868
281.452,2.60644e-07,0,14980,14980
281.501,2.08142e-07,0,15084,15084
281.551,1.59239e-07,0,15236,15236
281.6,1.17591e-07,0,15332,15332
281.651,7.93663e-08,0,15460,15460
281.701,4.57722e-08,0,15580,15580
281.75,1.77645e-08,0,15748,15748
281.8,-6.69039e-09,0,15844,15844
281.851,-2.66014e-08,0,15940,15940
281.901,-4.24314e-08,0,15912,15912
281.951,-5.4918e-08,0,15776,15776
282.001,-6.50983e-08,0,15848,15848
282.051,-7.38841e-08,0,15904,15904
282.101,-8.15298e-08,0,16244,16244
282.151,-8.77418e-08,0,16284,16284
282.2,-9.24238e-08,0,16348,16348
282.251,-9.60528e-08,0,16460,16460
282.3,-9.54863e-08,0,16476,16476
282.351,-9.44624e-08,0,16540,16540
282.401,-9.29976e-08,0,16604,16604
282.452,-9.14248e-08,0,16668,16668
282.5,-8.98075e-08,0,16652,16652
282.55,-8.78679e-08,0,16700,16700
282.602,-8.53872e-08,0,16748,16748
282.651,-8.22845e-08,0,16820,16820
282.7,-7.84868e-08,0,16892,16892
282.751,-7.37183e-08,0,16956,16956
282.8,-6.862e-08,0,17036,17036
282.851,-6.31544e-08,0,17124,17124
282.901,-5.77822e-08,0,17172,17172
282.952,-5.26809e-08,0,17236,17236
283.002,-4.79442e-08,0,17340,17340
283.051,-4.36019e-08,0,17436,17436
283.101,-3.9668e-08,0,17508,17508
283.15,-3.61395e-08,0,17396,17396
283.201,-3.28971e-08,0,17412,17412
283.251,-3.01346e-08,0,17448,17448
283.301,-2.76316e-08,0,17480,17480
283.35,-2.55297e-08,0,17520,17520
283.4,-2.3637e-08,0,17560,17560
283.45,-2.20792e-08,0,17608,17608
283.5,-2.07596e-08,0,17648,17648
283.55,-1.96701e-08,0,17656,17656
283.601,-1.86006e-08,0,17696,17696
283.651,-1.80743e-08,0,17712,17712
283.702,-1.7645e-08,0,17752,17752
283.751,-1.73482e-08,0,17760,17760
283.801,-1.71643e-08,0,17824,17824
283.852,-1.70911e-08,0,17856,17856
283.9,-1.71073e-08,0,17896,17896
283.95,-1.71989e-08,0,17896,17896
284.002,-1.73564e-08,0,17936,17936
284.051,-1.75563e-08,0,17920,17920
284.101,-1.77921e-08,0,17928,17928
284.15,-1.80554e-08,0,17984,17984
284.201,-1.83492e-08,0,18024,18024
284.251,-1.86577e-08,0,18008,18008
284.3,-1.8963e-08,0,18032,18032
284.351,-1.92791e-08,0,18040,18040
284.401,-1.95909e-08,0,18088,18088
284.451,-1.98947e-08,0,18120,18120
284.5,-2.01872e-08,0,18136,18136
284.551,-2.04748e-08,0,18152,18152
284.601,-2.07396e-08,0,18152,18152
284.65,-2.09903e-08,0,18184,18184
284.701,-2.12338e-08,0,18184,18184
284.751,-2.14594e-08,0,18184,18184
284.8,-2.16589e-08,0,18168,18168
284.85,-2.18437e-08,0,18168,18168
284.9,-2.2007e-08,0,18184,18184
284.95,-2.2149e-08,0,18152,18152
285.001,-2.22745e-08,0,18088,18088
285.051,-2.23778e-08,0,18104,18104
285.1,-2.24647e-08,0,18136,18136
285.151,-2.25393e-08,0,18144,18144
285.201,-2.26014e-08,0,18136,18136
285.25,-2.26518e-08,0,18160,18160
285.3,-2.2696e-08,0,18232,18232
285.351,-2.27344e-08,0,18240,18240
285.4,-2.27689e-08,0,18320,18320
285.45,-2.28016e-08,0,18312,18312
285.5,-2.28343e-08,0,18376,18376
285.551,-2.28697e-08,0,18392,18392
285.601,-2.29073e-08,0,18448,18448
285.651,-2.29495e-08,0,18480,18480
285.701,-2.2998e-08,0,18488,18488
285.751,-2.30549e-08,0,18552,18552
285.8,-2.31223e-08,0,18584,18584
285.85,-2.32023e-08,0,18600,18600
285.901,-2.33001e-08,0,18616,18616
285.951,-2.34129e-08,0,18696,18696
286.001,-2.35463e-08,0,18720,18720
286.051,-2.37034e-08,0,18736,18736
286.101,-2.38873e-08,0,18720,18720
286.15,-2.41013e-08,0,18776,18776
286.2,-2.43485e-08,0,18808,18808
286.251,-2.46406e-08,0,18800,18800
286.301,-2.49632e-08,0,18848,18848
286.351,-2.53259e-08,0,18824,18824
286.401,-2.57302e-08,0,18824,18824
286.451,-2.61768e-08,0,18848,18848
286.5,-2.66654e-08,0,18872,18872
286.55,-2.71948e-08,0,18864,18864
286.6,-2.77626e-08,0,18768,18768
286.651,-2.8384e-08,0,18680,18680
286.701,-2.902e-08,0,18656,18656
286.751,-2.96838e-08,0,18584,18584
286.801,-3.03713e-08,0,18520,18520
286.85,-3.10779e-08,0,18440,18440
286.9,-3.17998e-08,0,18376,18376
286.95,-3.25333e-08,0,18360,18360
287.001,-3.32976e-08,0,18336,18336
287.051,-3.40465e-08,0,18272,18272
287.101,-3.48e-08,0,18228,18228
287.151,-3.5556e-08,0,18116,18116
287.201,-3.63128e-08,0,18036,18036
287.25,-3.70685e-08,0,17940,17940
287.3,-3.78212e-08,0,17844,17844
287.351,-3.85909e-08,0,17724,17724
287.401,-3.93315e-08,0,17628,17628
287.451,-4.00636e-08,0,17524,17524
287.501,-4.07856e-08,0,17412,17412
287.551,-4.14963e-08,0,17324,17324
287.6,-4.21946e-08,0,17188,17188
287.65,-4.28792e-08,0,17076,17076
287.701,-4.35677e-08,0,16892,16892
287.751,-4.42189e-08,0,16724,16724
287.801,-4.48504e-08,0,16564,16564
287.851,-4.54599e-08,0,16412,16412
287.901,-4.60451e-08,0,16236,16236
287.95,-4.66038e-08,0,16084,16084
288,-4.71337e-08,0,15932,15932
288.051,-4.76469e-08,0,15748,15748
288.101,-4.81121e-08,0,15596,15596
288.151,-4.8543e-08,0,15436,15436
288.201,-4.89379e-08,0,15276,15276
288.251,-4.92953e-08,0,15092,15092
288.3,-4.96135e-08,0,14964,14964
288.35,-4.9891e-08,0,14772,14772
288.4,-5.01264e-08,0,14620,14620
288.451,-5.03238e-08,0,14476,14476
288.501,-5.04716e-08,0,14300,14300
288.551,-5.05765e-08,0,14140,14140
288.601,-5.06393e-08,0,13956,13956
288.65,-5.06616e-08,0,13820,13820
288.7,-5.06455e-08,0,13660,13660
288.75,-5.05935e-08,0,13584,13584
288.801,-5.05051e-08,0,13560,13560
288.851,-5.03885e-08,0,13524,13524
288.901,-5.02449e-08,0,13356,13356
288.951,-5.00776e-08,0,13188,13188
289.001,-4.98898e-08,0,13004,13004
289.05,-4.9685e-08,0,12844,12844
289.1,-4.94663e-08,0,12684,12684
289.151,-4.92296e-08,0,12500,12500
289.201,-4.89914e-08,0,12316,12316
289.251,-4.87473e-08,0,12164,12164
289.301,-4.84995e-08,0,11996,11996
289.351,-4.82498e-08,0,11828,11828
289.4,-4.79998e-08,0,11676,11676
289.45,-4.77506e-08,0,11492,11492
289.501,-4.74962e-08,0,11324,11324
289.551,-4.72521e-08,0,11156,11156
289.601,-4.70119e-08,0,10972,10972
289.651,-4.67762e-08,0,10820,10820
289.701,-4.65459e-08,0,10652,10652
289.75,-4.63214e-08,0,10484,10484
289.8,-4.61033e-08,0,10292,10292
289.85,-4.58918e-08,0,10148,10148
289.901,-4.56811e-08,0,9956,9956
289.951,-4.54832e-08,0,9804,9804
290.001,-4.52917e-08,0,9620,9620
290.051,-4.5106e-08,0,9468,9468
290.1,-4.49261e-08,0,9268,9268
290.15,-4.47516e-08,0,9116,9116
290.2,-4.45825e-08,0,8948,8948
290.251,-4.44142e-08,0,8764,8764
290.301,-4.42561e-08,0,8612,8612
290.351,-4.41033e-08,0,8444,8444
290.401,-4.39555e-08,0,8276,8276
290.451,-4.38095e-08,0,8192,8192
290.501,-4.36705e-08,0,8192,8192
290.551,-4.35351e-08,0,8192,8192
290.601,-4.3403e-08,0,8192,8192
290.651,-4.32736e-08,0,8192,8192
290.7,-4.31462e-08,0,8192,8192
290.75,-4.30204e-08,0,8192,8192
290.8,-4.28956e-08,0,8192,8192
290.853,-4.27641e-08,0,8192,8192
290.903,-4.26399e-08,0,8192,8192
290.952,-4.25153e-08,0,8192,8192
291.002,-4.23897e-08,0,8192,8192
291.052,-4.22626e-08,0,8192,8192
291.102,-4.21333e-08,0,8192,8192
291.152,-4.20012e-08,0,8192,8192
291.201,-4.1866e-08,0,8192,8192
291.251,-4.17272e-08,0,8192,8192
291.301,-4.15847e-08,0,8192,8192
291.351,-4.14383e-08,0,8192,8192
291.401,-4.1288e-08,0,8192,8192
291.45,-4.11337e-08,0,8192,8192
291.5,-4.09754e-08,0,8192,8192
291.553,-4.08031e-08,0,8192,8192
291.603,-4.0636e-08,0,8192,8192
291.652,-4.04645e-08,0,8192,8192
291.702,-4.02881e-08,0,8192,8192
291.752,-4.01068e-08,0,8192,8192
291.802,-3.992e-08,0,8192,8192
291.852,-3.97273e-08,0,8192,8192
291.901,-3.95283e-08,0,8192,8192
291.951,-3.93225e-08,0,8192,8192
292.001,-3.91095e-08,0,8192,8192
292.051,-3.88889e-08,0,8192,8192
292.101,-3.86603e-08,0,8192,8192
292.15,-3.84234e-08,0,8192,8192
292.2,-3.81776e-08,0,8192,8192
292.25,-3.79224e-08,0,8192,8192
292.303,-3.76411e-08,0,8192,8192
292.353,-3.7364e-08,0,8192,8192
292.402,-3.70747e-08,0,8192,8192
292.452,-3.67714e-08,0,8192,8192
292.502,-3.64524e-08,0,8192,8192
292.552,-3.61155e-08,0,8192,8192
292.602,-3.5758e-08,0,8192,8192
292.651,-3.53773e-08,0,8192,8192
292.701,-3.49703e-08,0,8192,8192
292.751,-3.45339e-08,0,8192,8192
292.801,-3.40649e-08,0,8192,8192
292.851,-3.35601e-08,0,8192,8192
292.9,-3.30164e-08,0,8192,8192
292.95,-3.24314e-08,0,8192,8192
293.003,-3.17644e-08,0,8192,8192
293.053,-3.10879e-08,0,8192,8192
293.102,-3.03654e-08,0,8192,8192
293.152,-2.95971e-08,0,8192,8192
293.202,-2.87838e-08,0,8192,8192
293.252,-2.79276e-08,0,8192,8192
293.302,-2.70312e-08,0,8192,8192
293.351,-2.60982e-08,0,8192,8192
293.401,-2.51327e-08,0,8192,8192
293.451,-2.41388e-08,0,8192,8192
293.501,-2.31208e-08,0,8192,8192
293.551,-2.20829e-08,0,8192,8192
293.6,-2.10289e-08,0,8192,8192
293.65,-1.99623e-08,0,8192,8192
293.7,-1.88861e-08,0,8192,8192
293.753,-1.77392e-08,0,8192,8192
293.803,-1.66519e-08,0,8192,8192
293.852,-1.55629e-08,0,8192,8192
293.902,-1.44747e-08,0,8192,8192
293.952,-1.33893e-08,0,8192,8192
294.002,-1.23089e-08,0,8192,8192
294.052,-1.12356e-08,0,8192,8192
294.101,-1.01713e-08,0,8192,8192
294.151,-9.11776e-09,0,8192,8192
294.201,-8.07681e-09,0,8192,8192
294.251,-7.05024e-09,0,8192,8192
294.301,-6.03992e-09,0,8192,8192
294.35,-5.04789e-09,0,8192,8192
294.4,-4.07637e-09,0,8192,8192
294.453,-3.0728e-09,0,8192,8192
294.503,-2.15139e-09,0,8192,8192
294.552,-1.25838e-09,0,8192,8192
294.602,-3.96435e-10,0,8192,8192
294.652,4.3187e-10,0,8192,8192
294.702,1.22408e-09,0,8192,8192
294.752,1.9779e-09,0,8192,8192
294.801,2.69115e-09,0,8192,8192
294.851,3.36176e-09,0,8192,8192
294.901,3.98776e-09,0,8192,8192
294.951,4.56731e-09,0,8192,8192
295.001,5.09876e-09,0,8192,8192
295.05,5.58073e-09,0,8192,8192
295.1,6.01225e-09,0,8192,8192
295.153,6.41368e-09,0,8192,8192
295.203,6.74062e-09,0,8192,8192
295.253,7.01774e-09,0,8192,8192
295.302,7.24659e-09,0,8192,8192
295.352,7.42929e-09,0,8192,8192
295.402,7.56852e-09,0,8192,8192
295.452,7.66741e-09,0,8192,8192
295.502,7.72947e-09,0,8192,8192
295.551,7.75847e-09,0,8192,8192
295.601,7.75838e-09,0,8192,8192
295.651,7.73319e-09,0,8192,8192
295.701,7.68683e-09,0,8192,8192
295.75,7.62303e-09,0,8192,8192
295.8,7.54527e-09,0,8192,8192
295.85,7.45667e-09,0,8192,8192
295.903,7.35404e-09,0,8192,8192
295.953,7.25117e-09,0,8192,8192
296.002,7.14437e-09,0,8192,8192
296.052,7.03501e-09,0,8192,8192
296.102,6.92407e-09,0,8192,8192
296.152,6.81226e-09,0,8192,8192
296.202,6.70001e-09,0,8192,8192
296.251,6.58761e-09,0,8192,8192
296.301,6.47521e-09,0,8192,8192
296.351,6.36293e-09,0,8192,8192
296.401,6.25089e-09,0,8192,8192
296.451,6.13932e-09,0,8192,8192
296.5,6.02869e-09,0,8192,8192
296.55,5.91976e-09,0,8192,8192
296.603,5.8075e-09,0,8192,8192
296.653,5.70581e-09,0,8192,8192
296.702,5.60983e-09,0,8192,8192
296.752,5.52094e-09,0,8192,8192
296.802,5.44023e-09,0,8192,8192
296.852,5.36833e-09,0,8192,8192
296.902,5.30542e-09,0,8192,8192
296.951,5.25122e-09,0,8192,8192
297.001,5.20513e-09,0,8192,8192
297.051,5.16633e-09,0,8192,8192
297.101,5.13395e-09,0,8192,8192
297.151,5.1072e-09,0,8192,8192
297.2,5.08541e-09,0,8192,8192
297.25,5.06805e-09,0,8192,8192
297.3,5.05464e-09,0,8192,8192
297.353,5.04419e-09,0,8192,8192
297.403,5.03722e-09,0,8192,8192
297.452,5.03231e-09,0,8192,8192
297.502,5.02861e-09,0,8192,8192
297.552,5.02525e-09,0,8192,8192
297.602,5.02152e-09,0,8192,8192
297.652,5.01691e-09,0,8192,8192
297.701,5.01122e-09,0,8192,8192
297.751,5.00453e-09,0,8192,8192
297.801,4.99714e-09,0,8192,8192
297.851,4.9894e-09,0,8192,8192
297.901,4.98161e-09,0,8192,8192
297.95,4.97394e-09,0,8192,8192
298,4.96641e-09,0,8192,8192
298.053,4.95848e-09,0,8192,8192
298.103,4.95096e-09,0,8192,8192
298.152,4.94341e-09,0,8192,8192
298.202,4.93606e-09,0,8192,8192
298.252,4.92932e-09,0,8192,8192
298.302,4.9238e-09,0,8192,8192
298.352,4.9202e-09,0,8192,8192
298.401,4.91917e-09,0,8192,8192
298.451,4.92124e-09,0,8192,8192
298.501,4.92671e-09,0,8192,8192
298.551,4.93562e-09,0,8192,8192
298.601,4.94778e-09,0,8192,8192
298.65,4.96276e-09,0,8192,8192
298.7,4.98003e-09,0,8192,8192
298.75,4.99893e-09,0,8192,8192
298.803,5.01998e-09,0,8192,8192
298.853,5.04015e-09,0,8192,8192
298.902,5.05996e-09,0,8192,8192
298.952,5.07884e-09,0,8192,8192
299.002,5.09629e-09,0,8192,8192
299.052,5.11186e-09,0,8192,8192
299.102,5.12524e-09,0,8192,8192
299.151,5.13618e-09,0,8192,8192
299.201,5.14458e-09,0,8192,8192
299.251,5.15042e-09,0,8192,8192
299.301,5.15383e-09,0,8192,8192
299.351,5.155e-09,0,8192,8192
299.4,5.15416e-09,0,8192,8192
299.45,5.15157e-09,0,8192,8192
299.503,5.14718e-09,0,8192,8192
299.553,5.14169e-09,0,8192,8192
299.602,5.13506e-09,0,8192,8192
299.652,5.12742e-09,0,8192,8192
299.702,5.11886e-09,0,8192,8192
299.752,5.10948e-09,0,8192,8192
299.802,5.09934e-09,0,8192,8192
299.851,5.08847e-09,0,8192,8192
299.901,5.07686e-09,0,8192,8192
299.951,5.06449e-09,0,8192,8192
300.001,5.05126e-09,0,8192,8192
300.051,5.03708e-09,0,8192,8192
300.1,5.02183e-09,0,8192,8192
300.15,5.00542e-09,0,8192,8192
300.2,4.98774e-09,0,8192,8192
300.253,4.96759e-09,0,8192,8192
300.303,4.94718e-09,0,8192,8192
300.352,4.92545e-09,0,8192,8192
300.402,4.90242e-09,0,8192,8192
300.452,4.87818e-09,0,8192,8192
300.502,4.85281e-09,0,8192,8192
300.552,4.82638e-09,0,8192,8192
300.601,4.79896e-09,0,8192,8192
300.651,4.77064e-09,0,8192,8192
300.701,4.74145e-09,0,8192,8192
300.751,4.71144e-09,0,8192,8192
300.801,4.68063e-09,0,8192,8192
300.85,4.64902e-09,0,8192,8192
300.9,4.61662e-09,0,8192,8192
300.953,4.58144e-09,0,8192,8192
301.003,4.54737e-09,0,8192,8192
301.052,4.51246e-09,0,8192,8192
301.102,4.47669e-09,0,8192,8192
301.152,4.44004e-09,0,8192,8192
301.202,4.40249e-09,0,8192,8192
301.252,4.36402e-09,0,8192,8192
301.301,4.32463e-09,0,8192,8192
301.351,4.2843e-09,0,8192,8192
301.401,4.24305e-09,0,8192,8192
301.451,4.20087e-09,0,8192,8192
301.501,4.15777e-09,0,8192,8192
301.55,4.11378e-09,0,8192,8192
301.6,4.06891e-09,0,8192,8192
301.65,4.02318e-09,0,8192,8192
301.703,3.97386e-09,0,8192,8192
301.753,3.92646e-09,0,8192,8192
301.802,3.87829e-09,0,8192,8192
301.852,3.8294e-09,0,8192,8192
301.902,3.77982e-09,0,8192,8192
301.952,3.72959e-09,0,8192,8192
302.002,3.67877e-09,0,8192,8192
302.051,3.6274e-09,0,8192,8192
302.101,3.57554e-09,0,8192,8192
302.151,3.52322e-09,0,8192,8192
302.201,3.47052e-09,0,8192,8192
302.251,3.41748e-09,0,8192,8192
302.3,3.36415e-09,0,8192,8192
302.35,3.31061e-09,0,8192,8192
302.403,3.25373e-09,0,8192,8192
302.453,3.19991e-09,0,8192,8192
302.502,3.14604e-09,0,8192,8192
302.552,3.09218e-09,0,8192,8192
302.602,3.03839e-09,0,8192,8192
302.652,2.98471e-09,0,8192,8192
302.702,2.93121e-09,0,8192,8192
302.751,2.87793e-09,0,8192,8192
302.801,2.82491e-09,0,8192,8192
302.851,2.77219e-09,0,8192,8192
302.901,2.71981e-09,0,8192,8192
302.951,2.6678e-09,0,8192,8192
303,2.61619e-09,0,8192,8192
303.05,2.56499e-09,0,8192,8192
303.103,2.51125e-09,0,8192,8192
303.153,2.46096e-09,0,8192,8192
303.203,2.41112e-09,0,8192,8192
303.252,2.36175e-09,0,8192,8192
303.302,2.31283e-09,0,8192,8192
303.352,2.26438e-09,0,8192,8192
303.402,2.21638e-09,0,8192,8192
303.452,2.16884e-09,0,8192,8192
303.501,2.12176e-09,0,8192,8192
303.551,2.07512e-09,0,8192,8192
303.601,2.02892e-09,0,8192,8192
303.651,1.98315e-09,0,8192,8192
303.7,1.93781e-09,0,8192,8192
303.75,1.89289e-09,0,8192,8192
303.8,1.84838e-09,0,8192,8192
303.853,1.80169e-09,0,8192,8192
303.903,1.758e-09,0,8192,8192
303.952,1.7147e-09,0,8192,8192
304.002,1.67176e-09,0,8192,8192
304.052,1.62919e-09,0,8192,8192
304.102,1.58697e-09,0,8192,8192
304.152,1.54508e-09,0,8192,8192
304.201,1.50352e-09,0,8192,8192
304.251,1.46226e-09,0,8192,8192
304.301,1.42129e-09,0,8192,8192
304.351,1.38061e-09,0,8192,8192
304.401,1.34019e-09,0,8192,8192
304.45,1.30003e-09,0,8192,8192
304.5,1.26012e-09,0,8192,8192
304.553,1.21812e-09,0,8192,8192
304.603,1.17869e-09,0,8192,8192
304.653,1.13949e-09,0,8192,8192
304.702,1.10051e-09,0,8192,8192
304.752,1.06174e-09,0,8192,8192
304.802,1.02318e-09,0,8192,8192
304.852,9.84845e-10,0,8192,8192
304.901,9.4672e-10,0,8192,8192
304.951,9.08811e-10,0,8192,8192
