250,0,0,2048,2048
250.006,0,0,2048,2048
250.053,0,0,2048,2048
250.105,0,0,2048,2048
250.152,0,0,2048,2048
250.205,0,0,2048,2048
250.252,0,0,2048,2048
250.305,0,0,2048,2048
250.352,0,0,2048,2048
250.404,0,0,2048,2048
250.451,0,0,2048,2048
250.504,0,0,2048,2048
250.551,0,0,2048,2048
250.603,0,0,2048,2048
250.65,0,0,2048,2048
250.703,0,0,2048,2048
250.756,0,0,2048,2048
250.803,0,0,2048,2048
250.855,0,0,2048,2048
250.902,0,0,2048,2048
250.955,0,0,2048,2048
251.002,0,0,2048,2048
251.055,0,0,2048,2048
251.101,0,0,2048,2048
251.154,0,0,2048,2048
251.201,0,0,2048,2048
251.254,0,0,2048,2048
251.301,0,0,2048,2048
251.353,0,0,2048,2048
251.4,0,0,2048,2048
251.453,0,0,2048,2048
251.506,0,0,2048,2048
251.553,0,0,2048,2048
251.605,0,0,2048,2048
251.652,0,0,2048,2048
251.705,0,0,2048,2048
251.752,0,0,2048,2048
251.804,0,0,2048,2048
251.851,0,0,2048,2048
251.904,0,0,2048,2048
251.951,0,0,2048,2048
252.004,0,0,2048,2048
252.05,0,0,2048,2048
252.103,0,0,2048,2048
252.15,0,0,2048,2048
252.203,0,0,2048,2048
252.256,0,0,2048,2048
252.302,0,0,2048,2048
252.355,0,0,2048,2048
252.402,0,0,2048,2048
252.455,0,0,2048,2048
252.502,0,0,2048,2048
252.554,0,0,2048,2048
252.601,0,0,2048,2048
252.654,0,0,2048,2048
252.701,0,0,2048,2048
252.754,0,0,2048,2048
252.8,0,0,2048,2048
252.853,0,0,2048,2048
252.906,0,0,2048,2048
252.953,0,0,2048,2048
253.005,0,0,2048,2048
253.052,0,0,2048,2048
253.105,0,0,2048,2048
253.152,0,0,2048,2048
253.205,0,0,2048,2048
253.251,0,0,2048,2048
253.304,0,0,2048,2048
253.351,0,0,2048,2048
253.404,0,0,2048,2048
253.451,0,0,2048,2048
253.503,0,0,2048,2048
253.55,0,0,2048,2048
253.603,0,0,2048,2048
253.656,0,0,2048,2048
253.703,0,0,2048,2048
253.755,0,0,2048,2048
253.802,0,0,2048,2048
253.855,0,0,2048,2048
253.902,0,0,2048,2048
253.954,0,0,2048,2048
254.001,0,0,2048,2048
254.054,0,0,2048,2048
254.101,0,0,2048,2048
254.154,0,0,2048,2048
254.201,0,0,2048,2048
254.253,0,0,2048,2048
254.3,0,0,2048,2048
254.353,0,0,2048,2048
254.406,0,0,2048,2048
254.452,0,0,2048,2048
254.505,0,0,2048,2048
254.552,0,0,2048,2048
254.605,0,0,2048,2048
254.652,0,0,2048,2048
254.704,0,0,2048,2048
254.751,0,0,2048,2048
254.804,0,0,2048,2048
254.851,0,0,2048,2048
254.904,0,0,2048,2048
254.95,0,0,2048,2048
255.003,0,0,2048,2048
255.05,0,0,2048,2048
255.103,0,0,2048,2048
255.155,0,0,2048,2048
255.202,0,0,2048,2048
255.255,0,0,2048,2048
255.302,0,0,2048,2048
255.355,0,0,2048,2048
255.402,0,0,2048,2048
255.454,0,0,2048,2048
255.501,0,0,2048,2048
255.554,0,0,2048,2048
255.601,0,0,2048,2048
255.653,0,0,2048,2048
255.7,0,0,2048,2048
255.753,0,0,2048,2048
255.806,0,0,2048,2048
255.853,0,0,2048,2048
255.905,0,0,2048,2048
255.952,0,0,2048,2048
256.005,0,0,2048,2048
256.052,0,0,2048,2048
256.105,0,0,2048,2048
256.151,0,0,2048,2048
256.204,0,0,2048,2048
256.251,0,0,2048,2048
256.304,0,0,2048,2048
256.351,0,0,2048,2048
256.403,0,0,2048,2048
256.45,0,0,2048,2048
256.503,0,0,2048,2048
256.556,0,0,2048,2048
256.603,0,0,2048,2048
256.655,0,0,2048,2048
256.702,0,0,2048,2048
256.755,0,0,2048,2048
256.802,0,0,2048,2048
256.854,-1.38778e-17,0,2048,2048
256.901,-1.38778e-17,0,2048,2048
256.954,-1.38778e-17,0,2048,2048
257.001,0,0,2048,2048
257.054,0,0,2048,2048
257.101,0,0,2048,2048
257.153,0,0,2048,2048
257.2,0,0,2048,2048
257.253,0,0,2048,2048
257.306,0,0,2048,2048
257.352,0,0,2048,2048
257.405,0,0,2048,2048
257.452,0,0,2048,2048
257.505,0,0,2048,2048
257.552,0,0,2048,2048
257.604,0,0,2048,2048
257.651,0,0,2048,2048
257.704,0,0,2048,2048
257.751,0,0,2048,2048
257.804,0,0,2048,2048
257.85,0,0,2048,2048
257.903,0,0,2048,2048
257.95,0,0,2048,2048
258.003,0,0,2048,2048
258.055,0,0,2048,2048
258.102,0,0,2048,2048
258.155,-1.38778e-17,0,2048,2048
258.202,-1.38778e-17,0,2048,2048
258.255,-1.38778e-17,0,2048,2048
258.302,-1.38778e-17,0,2048,2048
258.354,-1.38778e-17,0,2048,2048
258.401,-1.38778e-17,0,2048,2048
258.454,-1.38778e-17,0,2048,2048
258.501,-1.38778e-17,0,2048,2048
258.553,-1.38778e-17,0,2048,2048
258.6,-1.38778e-17,0,2048,2048
258.653,-1.38778e-17,0,2048,2048
258.706,-1.38778e-17,0,2048,2048
258.753,-1.38778e-17,0,2048,2048
258.805,-1.38778e-17,0,2048,2048
258.852,-1.38778e-17,0,2048,2048
258.905,-1.38778e-17,0,2048,2048
258.952,-1.38778e-17,0,2048,2048
259.005,-1.38778e-17,0,2048,2048
259.051,-2.77556e-17,0,2048,2048
259.104,-2.77556e-17,0,2048,2048
259.151,-2.77556e-17,0,2048,2048
259.204,-2.77556e-17,0,2048,2048
259.251,-2.77556e-17,0,2048,2048
259.303,-2.77556e-17,0,2048,2048
259.35,-2.77556e-17,0,2048,2048
259.403,-2.77556e-17,0,2048,2048
259.456,-2.77556e-17,0,2048,2048
259.503,-2.77556e-17,0,2048,2048
259.555,-2.77556e-17,0,2048,2048
259.602,-2.77556e-17,0,2048,2048
259.655,-2.77556e-17,0,2048,2048
259.702,-1.38778e-17,0,2048,2048
259.754,-1.38778e-17,0,2048,2048
259.801,-1.38778e-17,0,2048,2048
259.854,-1.38778e-17,0,2048,2048
259.901,-1.38778e-17,0,2048,2048
259.954,-1.38778e-17,0,2048,2048
260,-1.38778e-17,0,2048,2048
260.053,-1.38778e-17,0,2048,2048
260.1,-1.38778e-17,0,2048,2048
260.153,-1.38778e-17,0,2048,2048
260.206,-1.38778e-17,0,2048,2048
260.252,-1.38778e-17,0,2048,2048
260.305,-1.38778e-17,0,2048,2048
260.352,-1.38778e-17,0,2048,2048
260.405,-1.38778e-17,0,2048,2048
260.452,-1.38778e-17,0,2048,2048
260.504,-1.38778e-17,0,2048,2048
260.551,-1.38778e-17,0,2048,2048
260.604,-1.38778e-17,0,2048,2048
260.651,-1.38778e-17,0,2048,2048
260.704,-1.38778e-17,0,2048,2048
260.75,-1.38778e-17,0,2048,2048
260.803,-1.38778e-17,0,2048,2048
260.856,-1.38778e-17,0,2048,2048
260.903,-1.38778e-17,0,2048,2048
260.955,-1.38778e-17,0,2048,2048
261.002,-1.38778e-17,0,2048,2048
261.055,-1.38778e-17,0,2048,2048
261.102,-1.38778e-17,0,2048,2048
261.155,-1.38778e-17,0,2048,2048
261.201,-1.38778e-17,0,2048,2048
261.254,-1.38778e-17,0,2048,2048
261.301,-1.38778e-17,0,2048,2048
261.354,-1.38778e-17,0,2048,2048
261.401,-1.38778e-17,0,2048,2048
261.453,0,0,2048,2048
261.5,0,0,2048,2048
261.553,0,0,2048,2048
261.606,0,0,2048,2048
261.653,0,0,2048,2048
261.705,0,0,2048,2048
261.752,0,0,2048,2048
261.805,0,0,2048,2048
261.852,0,0,2048,2048
261.905,0,0,2048,2048
261.951,0,0,2048,2048
262.004,0,0,2048,2048
262.051,0,0,2048,2048
262.104,0,0,2048,2048
262.151,-1.38778e-17,0,2048,2048
262.203,-1.38778e-17,0,2048,2048
262.25,-1.38778e-17,0,2048,2048
262.303,-1.38778e-17,0,2048,2048
262.356,-1.38778e-17,0,2048,2048
262.402,-1.38778e-17,0,2048,2048
262.455,-1.38778e-17,0,2048,2048
262.502,-1.38778e-17,0,2048,2048
262.555,-1.38778e-17,0,2048,2048
262.602,-1.38778e-17,0,2048,2048
262.654,-1.38778e-17,0,2048,2048
262.701,-1.38778e-17,0,2048,2048
262.754,-1.38778e-17,0,2048,2048
262.801,-1.38778e-17,0,2048,2048
262.854,-1.38778e-17,0,2048,2048
262.9,-1.38778e-17,0,2048,2048
262.953,-1.38778e-17,0,2048,2048
263,-1.38778e-17,0,2048,2048
263.053,-1.38778e-17,0,2048,2048
263.105,-2.77556e-17,0,2048,2048
263.152,-2.77556e-17,0,2048,2048
263.205,-2.77556e-17,0,2048,2048
263.252,-2.77556e-17,0,2048,2048
263.305,-2.77556e-17,0,2048,2048
263.352,-2.77556e-17,0,2048,2048
263.404,-2.77556e-17,0,2048,2048
263.451,-2.77556e-17,0,2048,2048
263.504,-2.77556e-17,0,2048,2048
263.551,-2.77556e-17,0,2048,2048
263.603,-2.77556e-17,0,2048,2048
263.65,-2.77556e-17,0,2048,2048
263.703,-2.77556e-17,0,2048,2048
263.756,-2.77556e-17,0,2048,2048
263.803,-2.77556e-17,0,2048,2048
263.855,-2.77556e-17,0,2048,2048
263.902,-2.77556e-17,0,2048,2048
263.955,-2.77556e-17,0,2048,2048
264.002,-2.77556e-17,0,2048,2048
264.055,-2.77556e-17,0,2048,2048
264.101,-2.77556e-17,0,2048,2048
264.154,-2.77556e-17,0,2048,2048
264.201,-2.77556e-17,0,2048,2048
264.254,-2.77556e-17,0,2048,2048
264.301,-2.77556e-17,0,2048,2048
264.353,-2.77556e-17,0,2048,2048
264.4,-2.77556e-17,0,2048,2048
264.453,-2.77556e-17,0,2048,2048
264.506,-2.77556e-17,0,2048,2048
264.553,-2.77556e-17,0,2048,2048
264.605,-2.77556e-17,0,2048,2048
264.652,-2.77556e-17,0,2048,2048
264.705,-2.77556e-17,0,2048,2048
264.752,-2.77556e-17,0,2048,2048
264.804,-2.77556e-17,0,2048,2048
264.851,-2.77556e-17,0,2048,2048
264.904,-2.77556e-17,0,2048,2048
264.951,-2.77556e-17,0,2048,2048
265.004,-2.77556e-17,0,2048,2048
265.051,-2.77556e-17,0,2048,2048
265.103,-2.77556e-17,0,2048,2048
265.15,-2.77556e-17,0,2048,2048
265.203,-2.77556e-17,0,2048,2048
265.256,-2.77556e-17,0,2048,2048
265.302,-2.77556e-17,0,2048,2048
265.355,-2.77556e-17,0,2048,2048
265.402,-2.77556e-17,0,2048,2048
265.455,-2.77556e-17,0,2048,2048
265.502,-2.77556e-17,0,2048,2048
265.554,-2.77556e-17,0,2048,2048
265.601,-2.77556e-17,0,2048,2048
265.654,-2.77556e-17,0,2048,2048
265.701,-2.77556e-17,0,2048,2048
265.754,-2.77556e-17,0,2048,2048
265.8,-2.77556e-17,0,2048,2048
265.853,-2.77556e-17,0,2048,2048
265.9,-2.77556e-17,0,2048,2048
265.953,-2.77556e-17,0,2048,2048
266.005,-2.77556e-17,0,2048,2048
266.052,-2.77556e-17,0,2048,2048
266.105,-2.77556e-17,0,2048,2048
266.152,-2.77556e-17,0,2048,2048
266.205,-2.77556e-17,0,2048,2048
266.252,-2.77556e-17,0,2048,2048
266.304,-2.77556e-17,0,2048,2048
266.351,-2.77556e-17,0,2048,2048
266.404,-2.77556e-17,0,2048,2048
266.451,-2.77556e-17,0,2048,2048
266.503,-2.77556e-17,0,2048,2048
266.55,-2.77556e-17,0,2048,2048
266.603,-2.77556e-17,0,2048,2048
266.656,-2.77556e-17,0,2048,2048
266.703,-2.77556e-17,0,2048,2048
266.755,-2.77556e-17,0,2048,2048
266.802,-2.77556e-17,0,2048,2048
266.855,-2.77556e-17,0,2048,2048
266.902,-2.77556e-17,0,2048,2048
266.955,-2.77556e-17,0,2048,2048
267.001,-2.77556e-17,0,2048,2048
267.054,-2.77556e-17,0,2048,2048
267.101,-2.77556e-17,0,2048,2048
267.154,-2.77556e-17,0,2048,2048
267.201,-1.38778e-17,0,2048,2048
267.253,-1.38778e-17,0,2048,2048
267.3,-1.38778e-17,0,2048,2048
267.353,-1.38778e-17,0,2048,2048
267.406,-1.38778e-17,0,2048,2048
267.453,-1.38778e-17,0,2048,2048
267.505,-1.38778e-17,0,2048,2048
267.552,-1.38778e-17,0,2048,2048
267.605,-1.38778e-17,0,2048,2048
267.652,-1.38778e-17,0,2048,2048
267.704,-1.38778e-17,0,2048,2048
267.751,-1.38778e-17,0,2048,2048
267.804,-1.38778e-17,0,2048,2048
267.851,-1.38778e-17,0,2048,2048
267.904,-1.38778e-17,0,2048,2048
267.95,-1.38778e-17,0,2048,2048
268.003,-2.77556e-17,0,2048,2048
268.05,-2.77556e-17,0,2048,2048
268.103,-2.77556e-17,0,2048,2048
268.156,-2.77556e-17,0,2048,2048
268.202,-2.77556e-17,0,2048,2048
268.255,-2.77556e-17,0,2048,2048
268.302,-2.77556e-17,0,2048,2048
268.355,-2.77556e-17,0,2048,2048
268.402,-2.77556e-17,0,2048,2048
268.454,-2.77556e-17,0,2048,2048
268.501,-2.77556e-17,0,2048,2048
268.554,-2.77556e-17,0,2048,2048
268.601,-2.77556e-17,0,2048,2048
268.654,-2.77556e-17,0,2048,2048
268.7,-2.77556e-17,0,2048,2048
268.753,-2.77556e-17,0,2048,2048
268.806,-2.77556e-17,0,2048,2048
268.853,-2.77556e-17,0,2048,2048
268.905,-2.77556e-17,0,2048,2048
268.952,-2.77556e-17,0,2048,2048
269.005,-2.77556e-17,0,2048,2048
269.052,-2.77556e-17,0,2048,2048
269.105,-2.77556e-17,0,2048,2048
269.151,-2.77556e-17,0,2048,2048
269.204,-2.77556e-17,0,2048,2048
269.251,-2.77556e-17,0,2048,2048
269.304,-2.77556e-17,0,2048,2048
269.351,-2.77556e-17,0,2048,2048
269.403,-1.38778e-17,0,2048,2048
269.45,-1.38778e-17,0,2048,2048
269.503,-1.38778e-17,0,2048,2048
269.556,-1.38778e-17,0,2048,2048
269.603,-1.38778e-17,0,2048,2048
269.655,-1.38778e-17,0,2048,2048
269.702,-1.38778e-17,0,2048,2048
269.755,-1.38778e-17,0,2048,2048
269.802,-1.38778e-17,0,2048,2048
269.855,-1.38778e-17,0,2048,2048
269.901,-1.38778e-17,0,2048,2048
269.954,-1.38778e-17,0,2050,2050
270,-1.38778e-17,0,2902,2902
270.051,-1.38778e-17,0,3790,3790
270.1,-1.38778e-17,0,4618,4618
270.15,-1.38778e-17,0,5506,5506
270.2,-1.38778e-17,0,6310,6310
270.251,-1.38778e-17,0,7186,7186
270.3,-1.38778e-17,0,8050,8050
270.35,-1.38778e-17,0,8902,8902
270.4,-1.38778e-17,0,9790,9790
270.451,-1.38778e-17,0,10666,10666
270.5,-1.38778e-17,0,11470,11470
270.55,-1.38778e-17,0,12358,12358
270.601,-1.38778e-17,0,13234,13234
270.65,-1.38778e-17,0,14122,14122
270.7,-1.38778e-17,0,14950,14950
270.75,-1.38778e-17,0,15838,15838
270.801,-1.38778e-17,0,16714,16714
270.85,-1.38778e-17,0,17602,17602
270.9,-1.38778e-17,0,18478,18478
270.951,-1.38778e-17,0,19366,19366
271.001,-1.38778e-17,0,20234,20234
271.05,-1.38778e-17,0,21046,21046
271.1,-1.38778e-17,0,21934,21934
271.151,-1.38778e-17,0,22810,22810
271.2,-1.38778e-17,0,23698,23698
271.25,-1.38778e-17,0,24574,24574
271.3,-1.38778e-17,0,25462,25462
271.351,-1.38778e-17,0,26338,26338
271.4,-1.38778e-17,0,27226,27226
271.45,-1.38778e-17,0,28102,28102
271.501,-1.38778e-17,0,28990,28990
271.55,-1.38778e-17,0,29866,29866
271.6,-1.38778e-17,0,30706,30706
271.65,-1.38778e-17,0,31582,31582
271.701,-1.38778e-17,0,32470,32470
271.75,-1.38778e-17,0,33346,33346
271.8,-1.38778e-17,0,34234,34234
271.851,-1.38778e-17,0,35110,35110
271.901,-1.38778e-17,0,35998,35998
271.95,-1.38778e-17,0,36802,36802
272,-1.38778e-17,0,37678,37678
272.051,-1.38778e-17,0,38566,38566
272.1,-1.38778e-17,0,39442,39442
272.15,-1.38778e-17,0,40282,40282
272.2,-1.38778e-17,0,41158,41158
272.251,-1.38778e-17,0,41962,41962
272.3,-1.38778e-17,0,42850,42850
272.35,-1.38778e-17,0,43678,43678
272.401,-1.38778e-17,0,44566,44566
272.45,-1.38778e-17,0,45370,45370
272.5,-1.38778e-17,0,46198,46198
272.55,-1.38778e-17,0,47002,47002
272.601,-1.38778e-17,0,47890,47890
272.65,-1.38778e-17,0,48718,48718
272.7,-1.38778e-17,0,49522,49522
272.751,-1.38778e-17,0,50362,50362
272.801,-1.38778e-17,0,51166,51166
272.85,-1.38778e-17,0,51994,51994
272.9,-1.38778e-17,0,52798,52798
272.951,-1.38778e-17,0,53638,53638
273,-1.38778e-17,0,54442,54442
273.05,-1.38778e-17,0,55270,55270
273.1,-1.38778e-17,0,56026,56026
273.151,-1.38778e-17,0,56830,56830
273.2,-1.38778e-17,0,57670,57670
273.25,-1.38778e-17,0,58474,58474
273.301,-1.38778e-17,0,59230,59230
273.35,-1.38778e-17,0,60058,60058
273.4,-1.38778e-17,0,60814,60814
273.45,-1.38778e-17,0,61116,61116
273.501,-1.38778e-17,0,60972,60972
273.55,-1.38778e-17,0,60876,60876
273.6,-1.38778e-17,0,60744,60744
273.65,-1.38778e-17,0,60624,60624
273.701,-1.38778e-17,0,60540,60540
273.75,-1.38778e-17,0,60532,60532
273.8,-1.38778e-17,0,60844,60844
273.851,-1.38778e-17,0,61564,61564
273.9,-1.38778e-17,0,62384,62384
273.95,-1.38778e-17,0,63148,63148
274,-1.38778e-17,0,63896,63896
274.051,-1.38778e-17,0,64660,64660
274.1,-1.38778e-17,0,65416,65416
274.15,-1.38778e-17,0,66100,66100
274.201,-1.38778e-17,0,66856,66856
274.251,-1.38778e-17,0,67612,67612
274.3,-1.38778e-17,0,68368,68368
274.35,-8.32667e-17,0,69124,69124
274.401,-9.57567e-16,0,69832,69832
274.45,-1.90126e-15,0,70588,70588
274.5,-2.83107e-15,0,71344,71344
274.55,-3.76088e-15,0,72016,72016
274.601,-4.71845e-15,0,72772,72772
274.65,-5.66214e-15,0,74220,74220
274.7,-6.60583e-15,0,75764,75764
274.751,-7.56339e-15,0,77304,77304
274.8,-8.50708e-15,0,78888,78888
274.85,-9.86711e-15,0,80448,80448
274.9,-1.1699e-14,0,81996,81996
274.951,-1.36141e-14,0,83544,83544
275,-1.55986e-14,0,84682,84682
275.05,-1.90681e-14,0,85390,85390
275.101,-2.66454e-14,0,86130,86130
275.151,-4.3604e-14,0,86818,86818
275.2,-8.04079e-14,0,87526,87526
275.25,-1.56333e-13,0,88210,88210
275.301,-3.07837e-13,0,88918,88918
275.35,-5.86392e-13,0,89590,89590
275.4,-1.07855e-12,0,90298,90298
275.45,-1.90641e-12,0,90982,90982
275.501,-3.25705e-12,0,91690,91690
275.55,-5.29408e-12,0,92362,92362
275.6,-8.25427e-12,0,93070,93070
275.651,-1.24188e-11,0,93754,93754
275.7,-1.78246e-11,0,94462,94462
275.75,-2.45664e-11,0,95086,95086
275.8,-3.25203e-11,0,95770,95770
275.851,-4.14869e-11,0,96478,96478
275.9,-5.06419e-11,0,97150,97150
275.95,-5.93544e-11,0,97858,97858
276,-6.67435e-11,0,98542,98542
276.051,-7.19638e-11,0,99250,99250
276.1,-7.40605e-11,0,99874,99874
276.15,-7.25627e-11,0,100558,100558
276.201,-6.71159e-11,0,101266,101266
276.25,-5.79941e-11,0,101938,101938
276.3,-4.56102e-11,0,102574,102574
276.35,-3.07089e-11,0,103282,103282
276.401,-1.39669e-11,0,103954,103954
276.45,3.12413e-12,0,104590,104590
276.5,1.98437e-11,0,105298,105298
276.551,3.55782e-11,0,105970,105970
276.6,4.92157e-11,0,106606,106606
276.65,6.05535e-11,0,107314,107314
276.7,6.93593e-11,0,107986,107986
276.751,7.56732e-11,0,108622,108622
276.8,7.94677e-11,0,109330,109330
276.85,8.11823e-11,0,109954,109954
276.9,8.13168e-11,0,110638,110638
276.951,8.05328e-11,0,111346,111346
277,7.97383e-11,0,111970,111970
277.05,8.00435e-11,0,112606,112606
277.101,8.29583e-11,0,113278,113278
277.15,9.03248e-11,0,113970,113970
277.2,1.04739e-10,0,114622,114622
277.25,1.29731e-10,0,115246,115246
277.301,1.70877e-10,0,115930,115930
277.35,2.33586e-10,0,116554,116554
277.4,3.26863e-10,0,117262,117262
277.451,4.63739e-10,0,117898,117898
277.501,6.53127e-10,0,118534,118534
277.55,9.10917e-10,0,119206,119206
277.6,1.25189e-09,0,119830,119830
277.651,1.6972e-09,0,120538,120538
277.7,2.24548e-09,0,121174,121174
277.75,2.90953e-09,0,121798,121798
277.8,3.69063e-09,0,122434,122434
277.851,4.59706e-09,0,123058,123058
277.9,5.58882e-09,0,123694,123694
277.95,6.65241e-09,0,124246,124246
278.001,7.74481e-09,0,124822,124822
278.05,8.70072e-09,0,125458,125458
278.1,1.16443e-08,0,125962,125962
278.15,2.29633e-08,0,126514,126514
278.201,3.15894e-08,0,127090,127090
278.25,3.65523e-08,0,127622,127622
278.3,4.0359e-08,0,128190,128190
278.351,4.54514e-08,0,128846,128846
278.401,5.30795e-08,0,130848,130848
278.45,6.38536e-08,0,131072,131072
278.5,7.75654e-08,0,131072,131072
278.551,9.42703e-08,0,131072,131072
278.6,1.13903e-07,0,131072,131072
278.65,1.3784e-07,0,131072,131072
278.7,1.67634e-07,0,131072,131072
278.751,2.0518e-07,0,131072,131072
278.8,2.50028e-07,0,131072,131072
278.85,3.0223e-07,0,131072,131072
278.901,3.61152e-07,0,131072,131072
278.95,4.23037e-07,0,131072,131072
279,4.87303e-07,0,131072,131072
279.05,5.53929e-07,0,131072,131072
279.101,6.24895e-07,0,131072,131072
279.15,6.99091e-07,0,131072,131072
279.2,7.78286e-07,0,131072,131072
279.25,8.59415e-07,0,131072,131072
279.301,9.35362e-07,0,131072,131072
279.35,9.98215e-07,0,131072,131072
279.4,1.04833e-06,0,131072,131072
279.451,1.08793e-06,0,131072,131072
279.5,1.1186e-06,0,131072,131072
279.55,1.14378e-06,0,131072,131072
279.6,1.16568e-06,0,131072,131072
279.651,1.18599e-06,0,131072,131072
279.7,1.20492e-06,0,131072,131072
279.75,1.22328e-06,0,131072,131072
279.801,1.24158e-06,0,131072,131072
279.851,1.25906e-06,0,131072,131072
279.9,1.2751e-06,0,131072,131072
279.95,1.28818e-06,0,131072,131072
280.001,1.29667e-06,0,131072,131072
280.05,1.29932e-06,0,131072,131072
280.1,1.29713e-06,0,131072,131072
280.15,1.29283e-06,0,131072,131072
280.201,1.28983e-06,0,131072,131072
280.25,1.29048e-06,0,131072,131072
280.3,1.2945e-06,0,131072,131072
280.351,1.29936e-06,0,131072,131072
280.4,1.30103e-06,0,131072,131072
280.45,1.29596e-06,0,131072,131072
280.5,1.28176e-06,0,131072,131072
280.551,1.25737e-06,0,131072,131072
280.6,1.22469e-06,0,131072,131072
280.65,1.18616e-06,0,131072,131072
280.701,1.14456e-06,0,131072,131072
280.751,1.10389e-06,0,131072,131072
280.8,1.06438e-06,0,131072,131072
280.85,1.02451e-06,0,131072,131072
280.901,9.80651e-07,0,131072,131072
280.95,9.31353e-07,0,131072,131072
281,8.74925e-07,0,131072,131072
281.05,8.11927e-07,0,131072,131072
281.101,7.4279e-07,0,131072,131072
281.15,6.7124e-07,0,131072,131072
281.2,5.98042e-07,0,131072,131072
281.251,5.23815e-07,0,131072,131072
281.3,4.52165e-07,0,131072,131072
281.35,3.83139e-07,0,131072,131072
281.4,3.1783e-07,0,130944,130944
281.451,2.56694e-07,0,131072,131072
281.5,2.02739e-07,0,131072,131072
281.55,1.55448e-07,0,131072,131072
281.6,1.14095e-07,0,131072,131072
281.651,7.68663e-08,0,131072,131072
281.7,4.38998e-08,0,131072,131072
281.75,1.45922e-08,0,131072,131072
281.801,-1.07144e-08,0,131072,131072
281.85,-3.04413e-08,0,131072,131072
281.9,-4.49988e-08,0,131072,131072
281.95,-5.56184e-08,0,131072,131072
282.001,-6.47638e-08,0,131072,131072
282.05,-7.32844e-08,0,131008,131008
282.1,-8.1605e-08,0,130912,130912
282.151,-8.89813e-08,0,130880,130880
282.201,-9.40288e-08,0,130880,130880
282.25,-9.62517e-08,0,130816,130816
282.3,-9.59798e-08,0,130800,130800
282.351,-9.41096e-08,0,130768,130768
282.4,-9.19401e-08,0,130736,130736
282.45,-9.03953e-08,0,130760,130760
282.5,-8.96918e-08,0,130736,130736
282.551,-8.92046e-08,0,130720,130720
282.6,-8.78803e-08,0,130720,130720
282.65,-8.50064e-08,0,130648,130648
282.701,-8.04159e-08,0,130720,130720
282.75,-7.4826e-08,0,130688,130688
282.8,-6.88579e-08,0,130652,130652
282.85,-6.30234e-08,0,130608,130608
282.901,-5.74239e-08,0,130608,130608
282.95,-5.22516e-08,0,130560,130560
283,-4.74384e-08,0,130616,130616
283.051,-4.30057e-08,0,130560,130560
283.101,-3.90906e-08,0,130576,130576
283.15,-3.55928e-08,0,130560,130560
283.2,-3.25445e-08,0,130576,130576
283.251,-2.98402e-08,0,130560,130560
283.3,-2.74545e-08,0,130560,130560
283.35,-2.53313e-08,0,130528,130528
283.4,-2.34323e-08,0,130560,130560
283.451,-2.18097e-08,0,130512,130512
283.5,-2.04885e-08,0,130512,130512
283.55,-1.94144e-08,0,130560,130560
283.601,-1.85612e-08,0,130512,130512
283.65,-1.79254e-08,0,130512,130512
283.7,-1.74769e-08,0,130512,130512
283.75,-1.71686e-08,0,130528,130528
283.801,-1.69917e-08,0,130520,130520
283.85,-1.69387e-08,0,130480,130480
283.9,-1.69802e-08,0,130520,130520
283.95,-1.71043e-08,0,130544,130544
284.001,-1.72869e-08,0,130528,130528
284.05,-1.74934e-08,0,130544,130544
284.1,-1.77308e-08,0,130624,130624
284.151,-1.80104e-08,0,130680,130680
284.2,-1.83183e-08,0,130720,130720
284.25,-1.86279e-08,0,130720,130720
284.3,-1.89448e-08,0,130784,130784
284.351,-1.92788e-08,0,130784,130784
284.4,-1.96017e-08,0,130816,130816
284.45,-1.99069e-08,0,130816,130816
284.501,-2.01933e-08,0,130848,130848
284.551,-2.04695e-08,0,130816,130816
284.6,-2.07447e-08,0,130848,130848
284.65,-2.10096e-08,0,130816,130816
284.701,-2.12647e-08,0,130848,130848
284.75,-2.15018e-08,0,130848,130848
284.8,-2.17177e-08,0,130848,130848
284.85,-2.19031e-08,0,130816,130816
284.901,-2.20651e-08,0,130816,130816
284.95,-2.22062e-08,0,130816,130816
285,-2.23268e-08,0,130816,130816
285.051,-2.2429e-08,0,130792,130792
285.1,-2.25127e-08,0,130736,130736
285.15,-2.25819e-08,0,130720,130720
285.2,-2.26382e-08,0,130720,130720
285.251,-2.26832e-08,0,130688,130688
285.3,-2.27207e-08,0,130736,130736
285.35,-2.27536e-08,0,130672,130672
285.401,-2.27828e-08,0,130640,130640
285.451,-2.28099e-08,0,130640,130640
285.5,-2.28377e-08,0,130624,130624
285.55,-2.2868e-08,0,130560,130560
285.601,-2.29024e-08,0,130560,130560
285.65,-2.29407e-08,0,130528,130528
285.7,-2.2985e-08,0,130560,130560
285.75,-2.30371e-08,0,130560,130560
285.801,-2.31e-08,0,130512,130512
285.85,-2.31737e-08,0,130512,130512
285.9,-2.32622e-08,0,130512,130512
285.951,-2.33691e-08,0,130512,130512
286,-2.34964e-08,0,130512,130512
286.05,-2.36495e-08,0,130464,130464
286.1,-2.38214e-08,0,130464,130464
286.151,-2.40332e-08,0,130464,130464
286.2,-2.4279e-08,0,130464,130464
286.25,-2.456e-08,0,130464,130464
286.3,-2.48824e-08,0,130464,130464
286.351,-2.52483e-08,0,130416,130416
286.4,-2.56534e-08,0,130416,130416
286.45,-2.61036e-08,0,130416,130416
286.501,-2.66036e-08,0,130416,130416
286.55,-2.71425e-08,0,130368,130368
286.6,-2.77258e-08,0,130416,130416
286.65,-2.8349e-08,0,130368,130368
286.701,-2.90165e-08,0,130384,130384
286.75,-2.97021e-08,0,130368,130368
286.8,-3.04088e-08,0,130368,130368
286.851,-3.11416e-08,0,130336,130336
286.9,-3.1874e-08,0,130368,130368
286.95,-3.26134e-08,0,130368,130368
287,-3.33575e-08,0,130296,130296
287.051,-3.41162e-08,0,130272,130272
287.1,-3.48669e-08,0,130272,130272
287.15,-3.56184e-08,0,130176,130176
287.2,-3.63679e-08,0,130176,130176
287.251,-3.71284e-08,0,130176,130176
287.3,-3.7876e-08,0,130128,130128
287.35,-3.86179e-08,0,130160,130160
287.401,-3.93621e-08,0,130136,130136
287.45,-4.00841e-08,0,130088,130088
287.5,-4.07949e-08,0,130112,130112
287.55,-4.14944e-08,0,130112,130112
287.601,-4.21922e-08,0,130184,130184
287.65,-4.28695e-08,0,130200,130200
287.7,-4.35372e-08,0,130280,130280
287.751,-4.42027e-08,0,130280,130280
287.801,-4.48435e-08,0,130352,130352
287.85,-4.54651e-08,0,130352,130352
287.9,-4.60632e-08,0,130336,130336
287.951,-4.66419e-08,0,130304,130304
288,-4.71809e-08,0,130312,130312
288.05,-4.76869e-08,0,130288,130288
288.1,-4.81597e-08,0,130240,130240
288.151,-4.86053e-08,0,130192,130192
288.2,-4.90104e-08,0,130156,130156
288.25,-4.938e-08,0,130072,130072
288.301,-4.97142e-08,0,130076,130076
288.35,-5.00023e-08,0,130056,130056
288.4,-5.02498e-08,0,130048,130048
288.45,-5.04533e-08,0,130024,130024
288.501,-5.06139e-08,0,130000,130000
288.55,-5.07254e-08,0,129984,129984
288.6,-5.07893e-08,0,129960,129960
288.651,-5.08073e-08,0,129948,129948
288.701,-5.07846e-08,0,129936,129936
288.75,-5.07229e-08,0,129912,129912
288.8,-5.06219e-08,0,129912,129912
288.851,-5.04858e-08,0,129888,129888
288.9,-5.03275e-08,0,129864,129864
288.95,-5.01483e-08,0,129864,129864
289,-4.99497e-08,0,129848,129848
289.051,-4.97302e-08,0,129816,129816
289.1,-4.94983e-08,0,129816,129816
289.15,-4.92567e-08,0,129816,129816
289.201,-4.9006e-08,0,129768,129768
289.25,-4.87543e-08,0,129752,129752
289.3,-4.85002e-08,0,129728,129728
289.35,-4.82451e-08,0,129760,129760
289.401,-4.79855e-08,0,129688,129688
289.45,-4.77308e-08,0,129704,129704
289.5,-4.74792e-08,0,129688,129688
289.551,-4.72284e-08,0,129668,129668
289.601,-4.69862e-08,0,129652,129652
289.65,-4.67493e-08,0,129640,129640
289.7,-4.65174e-08,0,129696,129696
289.751,-4.62879e-08,0,129712,129712
289.8,-4.60685e-08,0,129680,129680
289.85,-4.5855e-08,0,129680,129680
289.9,-4.56454e-08,0,129664,129664
289.951,-4.54383e-08,0,129664,129664
290,-4.52423e-08,0,130076,130076
290.05,-4.5055e-08,0,130868,130868
290.101,-4.48727e-08,0,131072,131072
290.15,-4.46993e-08,0,131072,131072
290.2,-4.45319e-08,0,131072,131072
290.25,-4.43713e-08,0,131072,131072
290.301,-4.42155e-08,0,131072,131072
290.35,-4.40677e-08,0,131072,131072
290.4,-4.39247e-08,0,131072,131072
290.45,-4.37861e-08,0,131072,131072
290.501,-4.36496e-08,0,131072,131072
290.55,-4.35186e-08,0,131072,131072
290.6,-4.33905e-08,0,131072,131072
290.651,-4.32629e-08,0,131072,131072
290.7,-4.3139e-08,0,131072,131072
290.75,-4.30164e-08,0,131072,131072
290.8,-4.28944e-08,0,131072,131072
290.851,-4.27709e-08,0,131072,131072
290.9,-4.26489e-08,0,131072,131072
290.95,-4.25261e-08,0,131072,131072
291.001,-4.24004e-08,0,131072,131072
291.051,-4.22748e-08,0,131072,131072
291.1,-4.2147e-08,0,131072,131072
291.15,-4.20165e-08,0,131072,131072
291.201,-4.18812e-08,0,131072,131072
291.25,-4.17448e-08,0,131072,131072
291.3,-4.16048e-08,0,131072,131072
291.35,-4.14611e-08,0,131072,131072
291.401,-4.1311e-08,0,131072,131072
291.45,-4.11586e-08,0,131072,131072
291.5,-4.10018e-08,0,131072,131072
291.551,-4.0838e-08,0,131072,131072
291.6,-4.06719e-08,0,131072,131072
291.65,-4.05008e-08,0,131072,131072
291.7,-4.03246e-08,0,131072,131072
291.751,-4.01406e-08,0,131072,131072
291.8,-3.99539e-08,0,131072,131072
291.85,-3.97618e-08,0,131072,131072
291.901,-3.95612e-08,0,131072,131072
291.951,-3.93575e-08,0,131072,131072
292,-3.91475e-08,0,131072,131072
292.05,-3.89302e-08,0,131072,131072
292.101,-3.87014e-08,0,131072,131072
292.15,-3.84674e-08,0,131072,131072
292.2,-3.8225e-08,0,131072,131072
292.25,-3.79733e-08,0,131072,131072
292.301,-3.77075e-08,0,131072,131072
292.35,-3.7435e-08,0,131072,131072
292.4,-3.71518e-08,0,131072,131072
292.451,-3.68526e-08,0,131072,131072
292.5,-3.65442e-08,0,131072,131072
292.55,-3.62191e-08,0,131072,131072
292.6,-3.58747e-08,0,131072,131072
292.651,-3.55027e-08,0,131072,131072
292.7,-3.51104e-08,0,131072,131072
292.75,-3.46882e-08,0,131072,131072
292.8,-3.42314e-08,0,131072,131072
292.851,-3.37289e-08,0,131072,131072
292.9,-3.31936e-08,0,131072,131072
292.95,-3.26152e-08,0,131072,131072
293.001,-3.19809e-08,0,131072,131072
293.05,-3.13075e-08,0,131072,131072
293.1,-3.05839e-08,0,131072,131072
293.15,-2.98081e-08,0,131072,131072
293.201,-2.8968e-08,0,131072,131072
293.25,-2.80901e-08,0,131072,131072
293.3,-2.71666e-08,0,131072,131072
293.351,-2.61882e-08,0,131072,131072
293.401,-2.51893e-08,0,131072,131072
293.45,-2.41632e-08,0,131072,131072
293.5,-2.31169e-08,0,131072,131072
293.551,-2.20409e-08,0,131072,131072
293.6,-2.09709e-08,0,131072,131072
293.65,-1.98942e-08,0,131072,131072
293.7,-1.88129e-08,0,131072,131072
293.751,-1.77124e-08,0,131072,131072
293.8,-1.66255e-08,0,131072,131072
293.85,-1.55379e-08,0,131072,131072
293.901,-1.44369e-08,0,131072,131072
293.95,-1.33578e-08,0,131072,131072
294,-1.22869e-08,0,131072,131072
294.05,-1.12244e-08,0,131072,131072
294.101,-1.0154e-08,0,131072,131072
294.15,-9.10925e-09,0,131072,131072
294.2,-8.07938e-09,0,131072,131072
294.251,-7.04926e-09,0,131072,131072
294.301,-6.04607e-09,0,131072,131072
294.35,-5.05485e-09,0,131072,131072
294.4,-4.07879e-09,0,129042,129042
294.451,-3.1072e-09,0,127694,127694
294.5,-2.17206e-09,0,126806,126806
294.55,-1.26418e-09,0,126082,126082
294.6,-1.18119e-10,0,125458,125458
294.651,5.70626e-10,0,124822,124822
294.7,1.29176e-09,0,124246,124246
294.75,2.02433e-09,0,123694,123694
294.801,2.73196e-09,0,123058,123058
294.85,3.39423e-09,0,122510,122510
294.9,4.01697e-09,0,121958,121958
294.95,4.59431e-09,0,121410,121410
295.001,5.13172e-09,0,120782,120782
295.05,5.61329e-09,0,120210,120210
295.1,6.04516e-09,0,119610,119610
295.15,6.42619e-09,0,118982,118982
295.201,6.76054e-09,0,118370,118370
295.25,7.03865e-09,0,117690,117690
295.3,7.26667e-09,0,117006,117006
295.351,7.44859e-09,0,116318,116318
295.4,7.58162e-09,0,115630,115630
295.45,7.67205e-09,0,114978,114978
295.5,7.72402e-09,0,114318,114318
295.551,7.74213e-09,0,113622,113622
295.6,7.73042e-09,0,112970,112970
295.65,7.69352e-09,0,112322,112322
295.701,7.63446e-09,0,111694,111694
295.751,7.55893e-09,0,110998,110998
295.8,7.46999e-09,0,110338,110338
295.85,7.37097e-09,0,109662,109662
295.901,7.26322e-09,0,109006,109006
295.95,7.15225e-09,0,108350,108350
296,7.03816e-09,0,107622,107622
296.05,6.92184e-09,0,106930,106930
296.101,6.80223e-09,0,106242,106242
296.15,6.68365e-09,0,105550,105550
296.2,6.56537e-09,0,104866,104866
296.251,6.44653e-09,0,104158,104158
296.3,6.33123e-09,0,103470,103470
296.35,6.21817e-09,0,102778,102778
296.4,6.1076e-09,0,102086,102086
296.451,5.99813e-09,0,101386,101386
296.5,5.89322e-09,0,100698,100698
296.55,5.79176e-09,0,100006,100006
296.601,5.69314e-09,0,99298,99298
296.651,5.6012e-09,0,98614,98614
296.7,5.51564e-09,0,97918,97918
296.75,5.43761e-09,0,97234,97234
296.801,5.36709e-09,0,96526,96526
296.85,5.30666e-09,0,95842,95842
296.9,5.25523e-09,0,95146,95146
296.95,5.21228e-09,0,94462,94462
297.001,5.17648e-09,0,93754,93754
297.05,5.14777e-09,0,93070,93070
297.1,5.12453e-09,0,92362,92362
297.151,5.10568e-09,0,91642,91642
297.2,5.09121e-09,0,90934,90934
297.25,5.08055e-09,0,90234,90234
297.3,5.07354e-09,0,89542,89542
297.351,5.06994e-09,0,88854,88854
297.4,5.06945e-09,0,88162,88162
297.45,5.07139e-09,0,87454,87454
297.5,5.07503e-09,0,86770,86770
297.551,5.07963e-09,0,86030,86030
297.6,5.0843e-09,0,85358,85358
297.65,5.08851e-09,0,84674,84674
297.701,5.09194e-09,0,83998,83998
297.75,5.09437e-09,0,83314,83314
297.8,5.09593e-09,0,82626,82626
297.85,5.09674e-09,0,81934,81934
297.901,5.09698e-09,0,81218,81218
297.95,5.09673e-09,0,80570,80570
298,5.09606e-09,0,79858,79858
298.051,5.09501e-09,0,79170,79170
298.1,5.09368e-09,0,78494,78494
298.15,5.09215e-09,0,77794,77794
298.2,5.09054e-09,0,77082,77082
298.251,5.08897e-09,0,76390,76390
298.3,5.08766e-09,0,75710,75710
298.35,5.08677e-09,0,75018,75018
298.4,5.08648e-09,0,74286,74286
298.451,5.087e-09,0,73598,73598
298.5,5.08847e-09,0,72878,72878
298.55,5.09098e-09,0,72198,72198
298.601,5.09459e-09,0,71490,71490
298.65,5.09911e-09,0,70786,70786
298.7,5.1044e-09,0,70074,70074
298.75,5.11019e-09,0,69350,69350
298.801,5.11626e-09,0,68662,68662
298.85,5.1221e-09,0,67898,67898
298.9,5.12748e-09,0,67198,67198
298.951,5.1322e-09,0,66442,66442
299.001,5.1359e-09,0,65730,65730
299.05,5.13856e-09,0,65006,65006
299.1,5.1401e-09,0,64266,64266
299.151,5.14054e-09,0,63534,63534
299.2,5.13992e-09,0,62774,62774
299.25,5.1383e-09,0,62026,62026
299.3,5.13575e-09,0,61310,61310
299.351,5.13224e-09,0,60550,60550
299.4,5.1279e-09,0,59790,59790
299.45,5.12269e-09,0,59046,59046
299.501,5.11652e-09,0,58290,58290
299.55,5.10957e-09,0,57526,57526
299.6,5.10179e-09,0,56774,56774
299.65,5.09319e-09,0,56022,56022
299.701,5.08369e-09,0,55222,55222
299.75,5.07358e-09,0,54462,54462
299.8,5.06278e-09,0,53694,53694
299.851,5.05114e-09,0,52910,52910
299.901,5.039e-09,0,52094,52094
299.95,5.02617e-09,0,51266,51266
300,5.01264e-09,0,50406,50406
300.051,4.99815e-09,0,49594,49594
300.1,4.98309e-09,0,48822,48822
300.15,4.9672e-09,0,47974,47974
300.2,4.95046e-09,0,47226,47226
300.251,4.93258e-09,0,46406,46406
300.3,4.91406e-09,0,45618,45618
300.35,4.89462e-09,0,44830,44830
300.401,4.87396e-09,0,43998,43998
300.45,4.85264e-09,0,43230,43230
300.5,4.83035e-09,0,42382,42382
300.55,4.80706e-09,0,41566,41566
300.601,4.78237e-09,0,40794,40794
300.65,4.75698e-09,0,39850,39850
300.7,4.73051e-09,0,39050,39050
300.75,4.70294e-09,0,38178,38178
300.801,4.67385e-09,0,37306,37306
300.85,4.64409e-09,0,36530,36530
300.9,4.61325e-09,0,35646,35646
300.951,4.58087e-09,0,34782,34782
301,4.5479e-09,0,33882,33882
301.05,4.51391e-09,0,32890,32890
301.1,4.47889e-09,0,31994,31994
301.151,4.44232e-09,0,31058,31058
301.2,4.40527e-09,0,30122,30122
301.25,4.36722e-09,0,29202,29202
301.301,4.32758e-09,0,28254,28254
301.351,4.28752e-09,0,27350,27350
301.4,4.24648e-09,0,26486,26486
301.45,4.20446e-09,0,25582,25582
301.501,4.16085e-09,0,24666,24666
301.55,4.11691e-09,0,23738,23738
301.6,4.07204e-09,0,22790,22790
301.65,4.02627e-09,0,21882,21882
301.701,3.97892e-09,0,20994,20994
301.75,3.93141e-09,0,20090,20090
301.8,3.88309e-09,0,19174,19174
301.851,3.83328e-09,0,18318,18318
301.9,3.78347e-09,0,17394,17394
301.95,3.73301e-09,0,16474,16474
302,3.68196e-09,0,15662,15662
302.051,3.62962e-09,0,14694,14694
302.1,3.57756e-09,0,13786,13786
302.15,3.5251e-09,0,12882,12882
302.201,3.47151e-09,0,12018,12018
302.251,3.41842e-09,0,11066,11066
302.3,3.3651e-09,0,10218,10218
302.35,3.31161e-09,0,9278,9278
302.401,3.25722e-09,0,8354,8354
302.45,3.20355e-09,0,7474,7474
302.5,3.14987e-09,0,6566,6566
302.55,3.09624e-09,0,5662,5662
302.601,3.0419e-09,0,4710,4710
302.65,2.9885e-09,0,3790,3790
302.7,2.93528e-09,0,2850,2850
302.753,2.87894e-09,0,2048,2048
302.806,2.82313e-09,0,2048,2048
302.853,2.77381e-09,0,2048,2048
302.905,2.71868e-09,0,2048,2048
302.952,2.67003e-09,0,2048,2048
303.005,2.61571e-09,0,2048,2048
303.052,2.56782e-09,0,2048,2048
303.105,2.51439e-09,0,2048,2048
303.152,2.46733e-09,0,2048,2048
303.204,2.41485e-09,0,2048,2048
303.251,2.36864e-09,0,2048,2048
303.304,2.31715e-09,0,2048,2048
303.351,2.27181e-09,0,2048,2048
303.403,2.22128e-09,0,2048,2048
303.45,2.17681e-09,0,2048,2048
303.503,2.12724e-09,0,2048,2048
303.556,2.07818e-09,0,2048,2048
303.603,2.03498e-09,0,2048,2048
303.655,1.98682e-09,0,2048,2048
303.702,1.94441e-09,0,2048,2048
303.755,1.89713e-09,0,2048,2048
303.802,1.85548e-09,0,2048,2048
303.855,1.80902e-09,0,2048,2048
303.901,1.76807e-09,0,2048,2048
303.954,1.72237e-09,0,2048,2048
304.001,1.68208e-09,0,2048,2048
304.054,1.63711e-09,0,2048,2048
304.101,1.59743e-09,0,2048,2048
304.153,1.55311e-09,0,2048,2048
304.2,1.51399e-09,0,2048,2048
304.253,1.47028e-09,0,2048,2048
304.306,1.42686e-09,0,2048,2048
304.352,1.38852e-09,0,2048,2048
304.405,1.34564e-09,0,2048,2048
304.452,1.30775e-09,0,2048,2048
304.505,1.26537e-09,0,2048,2048
304.552,1.22791e-09,0,2048,2048
304.604,1.18601e-09,0,2048,2048
304.651,1.14896e-09,0,2048,2048
304.704,1.10751e-09,0,2048,2048
304.751,1.07086e-09,0,2048,2048
304.804,1.02985e-09,0,2048,2048
304.85,9.93585e-10,0,2048,2048
304.903,9.52997e-10,0,2048,2048
304.95,9.17106e-10,0,2048,2048
