250,0,0,512,512
250.012,0,0,512,512
250.059,0,0,512,512
250.105,0,0,512,512
250.152,0,0,512,512
250.211,0,0,512,512
250.258,0,0,512,512
250.305,0,0,512,512
250.352,0,0,512,512
250.41,0,0,512,512
250.457,0,0,512,512
250.504,0,0,512,512
250.551,0,0,512,512
250.609,0,0,512,512
250.656,0,0,512,512
250.703,0,0,512,512
250.762,0,0,512,512
250.808,0,0,512,512
250.855,0,0,512,512
250.902,0,0,512,512
250.961,0,0,512,512
251.008,0,0,512,512
251.055,0,0,512,512
251.101,0,0,512,512
251.16,0,0,512,512
251.207,0,0,512,512
251.254,0,0,512,512
251.301,0,0,512,512
251.359,0,0,512,512
251.406,0,0,512,512
251.453,0,0,512,512
251.511,0,0,512,512
251.558,0,0,512,512
251.605,0,0,512,512
251.652,0,0,512,512
251.711,0,0,512,512
251.758,0,0,512,512
251.804,0,0,512,512
251.851,0,0,512,512
251.91,0,0,512,512
251.957,0,0,512,512
252.004,0,0,512,512
252.05,0,0,512,512
252.109,0,0,512,512
252.156,0,0,512,512
252.203,0,0,512,512
252.261,0,0,512,512
252.308,0,0,512,512
252.355,0,0,512,512
252.402,0,0,512,512
252.461,0,0,512,512
252.507,0,0,512,512
252.554,0,0,512,512
252.601,0,0,512,512
252.66,0,0,512,512
252.707,0,0,512,512
252.754,0,0,512,512
252.8,0,0,512,512
252.859,0,0,512,512
252.906,0,0,512,512
252.953,0,0,512,512
253.011,0,0,512,512
253.058,0,0,512,512
253.105,0,0,512,512
253.152,0,0,512,512
253.21,0,0,512,512
253.257,-1.38778e-17,0,512,512
253.304,-1.38778e-17,0,512,512
253.351,-1.38778e-17,0,512,512
253.41,-1.38778e-17,0,512,512
253.457,-1.38778e-17,0,512,512
253.503,-1.38778e-17,0,512,512
253.55,-1.38778e-17,0,512,512
253.609,-1.38778e-17,0,512,512
253.656,-1.38778e-17,0,512,512
253.703,-1.38778e-17,0,512,512
253.761,-1.38778e-17,0,512,512
253.808,-1.38778e-17,0,512,512
253.855,-1.38778e-17,0,512,512
253.902,-1.38778e-17,0,512,512
253.96,-1.38778e-17,0,512,512
254.007,-1.38778e-17,0,512,512
254.054,-1.38778e-17,0,512,512
254.101,-1.38778e-17,0,512,512
254.16,-1.38778e-17,0,512,512
254.206,-1.38778e-17,0,512,512
254.253,0,0,512,512
254.3,1.38778e-17,0,512,512
254.359,1.38778e-17,0,512,512
254.406,1.38778e-17,0,512,512
254.452,2.77556e-17,0,512,512
254.511,2.77556e-17,0,512,512
254.558,1.38778e-17,0,512,512
254.605,0,0,512,512
254.652,0,0,512,512
254.71,0,0,512,512
254.757,0,0,512,512
254.804,0,0,512,512
254.851,0,0,512,512
254.909,0,0,512,512
254.956,0,0,512,512
255.003,0,0,512,512
255.05,-1.38778e-17,0,512,512
255.109,-1.38778e-17,0,512,512
255.155,-1.38778e-17,0,512,512
255.202,-2.77556e-17,0,512,512
255.261,-2.77556e-17,0,512,512
255.308,-2.77556e-17,0,512,512
255.355,-2.77556e-17,0,512,512
255.402,-2.77556e-17,0,512,512
255.46,-1.38778e-17,0,512,512
255.507,-1.38778e-17,0,512,512
255.554,-1.38778e-17,0,512,512
255.601,-1.38778e-17,0,512,512
255.659,-1.38778e-17,0,512,512
255.706,-1.38778e-17,0,512,512
255.753,-1.38778e-17,0,512,512
255.812,-1.38778e-17,0,512,512
255.859,-1.38778e-17,0,512,512
255.905,-1.38778e-17,0,512,512
255.952,-1.38778e-17,0,512,512
256.011,0,0,512,512
256.058,1.38778e-17,0,512,512
256.105,1.38778e-17,0,512,512
256.151,1.38778e-17,0,512,512
256.21,1.38778e-17,0,512,512
256.257,1.38778e-17,0,512,512
256.304,1.38778e-17,0,512,512
256.351,1.38778e-17,0,512,512
256.409,1.38778e-17,0,512,512
256.456,1.38778e-17,0,512,512
256.503,1.38778e-17,0,512,512
256.562,1.38778e-17,0,512,512
256.608,1.38778e-17,0,512,512
256.655,1.38778e-17,0,512,512
256.702,1.38778e-17,0,512,512
256.761,0,0,512,512
256.808,0,0,512,512
256.854,0,0,512,512
256.901,0,0,512,512
256.96,0,0,512,512
257.007,0,0,512,512
257.054,0,0,512,512
257.101,0,0,512,512
257.159,0,0,512,512
257.206,0,0,512,512
257.253,0,0,512,512
257.311,0,0,512,512
257.358,1.38778e-17,0,512,512
257.405,0,0,512,512
257.452,0,0,512,512
257.511,1.38778e-17,0,512,512
257.557,0,0,512,512
257.604,0,0,512,512
257.651,0,0,512,512
257.71,1.38778e-17,0,512,512
257.757,0,0,512,512
257.804,0,0,512,512
257.85,1.38778e-17,0,512,512
257.909,0,0,512,512
257.956,0,0,512,512
258.003,0,0,512,512
258.061,0,0,512,512
258.108,0,0,512,512
258.155,0,0,512,512
258.202,0,0,512,512
258.261,0,0,512,512
258.307,0,0,512,512
258.354,0,0,512,512
258.401,0,0,512,512
258.46,0,0,512,512
258.507,-1.38778e-17,0,512,512
258.553,-1.38778e-17,0,512,512
258.6,-1.38778e-17,0,512,512
258.659,-1.38778e-17,0,512,512
258.706,-1.38778e-17,0,512,512
258.753,-1.38778e-17,0,512,512
258.811,-1.38778e-17,0,512,512
258.858,-1.38778e-17,0,512,512
258.905,-1.38778e-17,0,512,512
258.952,-1.38778e-17,0,512,512
259.01,-1.38778e-17,0,512,512
259.057,-1.38778e-17,0,512,512
259.104,-1.38778e-17,0,512,512
259.151,-1.38778e-17,0,512,512
259.21,1.38778e-17,0,512,512
259.256,1.38778e-17,0,512,512
259.303,1.38778e-17,0,512,512
259.35,2.77556e-17,0,512,512
259.409,2.77556e-17,0,512,512
259.456,2.77556e-17,0,512,512
259.503,2.77556e-17,0,512,512
259.561,2.77556e-17,0,512,512
259.608,2.77556e-17,0,512,512
259.655,2.77556e-17,0,512,512
259.702,2.77556e-17,0,512,512
259.76,2.77556e-17,0,512,512
259.807,2.77556e-17,0,512,512
259.854,2.77556e-17,0,512,512
259.901,2.77556e-17,0,512,512
259.959,2.77556e-17,0,512,512
260.006,2.77556e-17,0,512,512
260.053,2.77556e-17,0,512,512
260.1,2.77556e-17,0,512,512
260.159,2.77556e-17,0,512,512
260.206,2.77556e-17,0,512,512
260.252,2.77556e-17,0,512,512
260.311,1.38778e-17,0,512,512
260.358,1.38778e-17,0,512,512
260.405,0,0,512,512
260.452,0,0,512,512
260.51,0,0,512,512
260.557,0,0,512,512
260.604,0,0,512,512
260.651,-1.38778e-17,0,512,512
260.709,-1.38778e-17,0,512,512
260.756,-1.38778e-17,0,512,512
260.803,-1.38778e-17,0,512,512
260.862,0,0,512,512
260.909,0,0,512,512
260.955,0,0,512,512
261.002,1.38778e-17,0,512,512
261.061,0,0,512,512
261.108,0,0,512,512
261.155,1.38778e-17,0,512,512
261.201,1.38778e-17,0,512,512
261.26,1.38778e-17,0,512,512
261.307,1.38778e-17,0,512,512
261.354,1.38778e-17,0,512,512
261.401,1.38778e-17,0,512,512
261.459,2.77556e-17,0,512,512
261.506,2.77556e-17,0,512,512
261.553,1.38778e-17,0,512,512
261.612,1.38778e-17,0,512,512
261.658,1.38778e-17,0,512,512
261.705,1.38778e-17,0,512,512
261.752,1.38778e-17,0,512,512
261.811,1.38778e-17,0,512,512
261.858,0,0,512,512
261.905,0,0,512,512
261.951,0,0,512,512
262.01,0,0,512,512
262.057,0,0,512,512
262.104,0,0,512,512
262.151,-1.38778e-17,0,512,512
262.209,0,0,512,512
262.256,-1.38778e-17,0,512,512
262.303,-1.38778e-17,0,512,512
262.361,-1.38778e-17,0,512,512
262.408,-1.38778e-17,0,512,512
262.455,-1.38778e-17,0,512,512
262.502,-1.38778e-17,0,512,512
262.561,-1.38778e-17,0,512,512
262.608,-1.38778e-17,0,512,512
262.654,-1.38778e-17,0,512,512
262.701,-1.38778e-17,0,512,512
262.76,-1.38778e-17,0,512,512
262.807,-1.38778e-17,0,512,512
262.854,-1.38778e-17,0,512,512
262.9,-1.38778e-17,0,512,512
262.959,-1.38778e-17,0,512,512
263.006,-1.38778e-17,0,512,512
263.053,-1.38778e-17,0,512,512
263.111,-1.38778e-17,0,512,512
263.158,-1.38778e-17,0,512,512
263.205,-1.38778e-17,0,512,512
263.252,-1.38778e-17,0,512,512
263.311,-1.38778e-17,0,512,512
263.357,-1.38778e-17,0,512,512
263.404,-2.77556e-17,0,512,512
263.451,-1.38778e-17,0,512,512
263.51,-2.77556e-17,0,512,512
263.557,-1.38778e-17,0,512,512
263.603,-2.77556e-17,0,512,512
263.65,-2.77556e-17,0,512,512
263.709,-2.77556e-17,0,512,512
263.756,-2.77556e-17,0,512,512
263.803,-2.77556e-17,0,512,512
263.861,-1.38778e-17,0,512,512
263.908,-2.77556e-17,0,512,512
263.955,-2.77556e-17,0,512,512
264.002,-1.38778e-17,0,512,512
264.06,-1.38778e-17,0,512,512
264.107,-1.38778e-17,0,512,512
264.154,-2.77556e-17,0,512,512
264.201,-1.38778e-17,0,512,512
264.26,-1.38778e-17,0,512,512
264.306,-1.38778e-17,0,512,512
264.353,-2.77556e-17,0,512,512
264.4,-1.38778e-17,0,512,512
264.459,-1.38778e-17,0,512,512
264.506,-1.38778e-17,0,512,512
264.553,-2.77556e-17,0,512,512
264.611,-1.38778e-17,0,512,512
264.658,0,0,512,512
264.705,0,0,512,512
264.752,0,0,512,512
264.81,0,0,512,512
264.857,0,0,512,512
264.904,0,0,512,512
264.951,0,0,512,512
265.01,0,0,512,512
265.056,0,0,512,512
265.103,-1.38778e-17,0,512,512
265.15,-1.38778e-17,0,512,512
265.209,-1.38778e-17,0,512,512
265.256,-1.38778e-17,0,512,512
265.302,-1.38778e-17,0,512,512
265.361,-1.38778e-17,0,512,512
265.408,-1.38778e-17,0,512,512
265.455,-1.38778e-17,0,512,512
265.502,-1.38778e-17,0,512,512
265.56,-1.38778e-17,0,512,512
265.607,-1.38778e-17,0,512,512
265.654,-1.38778e-17,0,512,512
265.701,-1.38778e-17,0,512,512
265.759,-1.38778e-17,0,512,512
265.806,-1.38778e-17,0,512,512
265.853,-1.38778e-17,0,512,512
265.9,-1.38778e-17,0,512,512
265.959,-1.38778e-17,0,512,512
266.005,-1.38778e-17,0,512,512
266.052,-1.38778e-17,0,512,512
266.111,-1.38778e-17,0,512,512
266.158,-1.38778e-17,0,512,512
266.205,-1.38778e-17,0,512,512
266.252,0,0,512,512
266.31,1.38778e-17,0,512,512
266.357,2.77556e-17,0,512,512
266.404,4.16334e-17,0,512,512
266.451,2.77556e-17,0,512,512
266.509,1.38778e-17,0,512,512
266.556,2.77556e-17,0,512,512
266.603,2.77556e-17,0,512,512
266.662,2.77556e-17,0,512,512
266.708,1.38778e-17,0,512,512
266.755,2.77556e-17,0,512,512
266.802,1.38778e-17,0,512,512
266.861,1.38778e-17,0,512,512
266.908,1.38778e-17,0,512,512
266.955,2.77556e-17,0,512,512
267.001,2.77556e-17,0,512,512
267.06,1.38778e-17,0,512,512
267.107,1.38778e-17,0,512,512
267.154,1.38778e-17,0,512,512
267.201,1.38778e-17,0,512,512
267.259,1.38778e-17,0,512,512
267.306,1.38778e-17,0,512,512
267.353,1.38778e-17,0,512,512
267.412,1.38778e-17,0,512,512
267.458,1.38778e-17,0,512,512
267.505,1.38778e-17,0,512,512
267.552,1.38778e-17,0,512,512
267.611,1.38778e-17,0,512,512
267.658,1.38778e-17,0,512,512
267.704,1.38778e-17,0,512,512
267.751,1.38778e-17,0,512,512
267.81,1.38778e-17,0,512,512
267.857,1.38778e-17,0,512,512
267.904,1.38778e-17,0,512,512
267.95,1.38778e-17,0,512,512
268.009,1.38778e-17,0,512,512
268.056,1.38778e-17,0,512,512
268.103,1.38778e-17,0,512,512
268.161,1.38778e-17,0,512,512
268.208,1.38778e-17,0,512,512
268.255,1.38778e-17,0,512,512
268.302,1.38778e-17,0,512,512
268.361,0,0,512,512
268.407,0,0,512,512
268.454,0,0,512,512
268.501,0,0,512,512
268.56,0,0,512,512
268.607,0,0,512,512
268.654,0,0,512,512
268.7,0,0,512,512
268.759,-1.38778e-17,0,512,512
268.806,0,0,512,512
268.853,0,0,512,512
268.911,0,0,512,512
268.958,0,0,512,512
269.005,0,0,512,512
269.052,0,0,512,512
269.11,0,0,512,512
269.157,0,0,512,512
269.204,0,0,512,512
269.251,1.38778e-17,0,512,512
269.31,1.38778e-17,0,512,512
269.357,0,0,512,512
269.403,0,0,512,512
269.45,1.38778e-17,0,512,512
269.509,1.38778e-17,0,512,512
269.556,1.38778e-17,0,512,512
269.603,1.38778e-17,0,512,512
269.661,1.38778e-17,0,512,512
269.708,1.38778e-17,0,512,512
269.755,2.77556e-17,0,512,512
269.802,2.77556e-17,0,512,512
269.86,1.38778e-17,0,512,512
269.903,1.38778e-17,0,523,523
269.953,1.38778e-17,0,539,539
270.002,1.38778e-17,0,549,549
270.052,1.38778e-17,0,557,557
270.102,1.38778e-17,0,573,573
270.151,1.38778e-17,0,579,579
270.201,1.38778e-17,0,586,586
270.251,1.38778e-17,0,594,594
270.3,1.38778e-17,0,595,595
270.35,1.38778e-17,0,611,611
270.404,1.38778e-17,0,639,639
270.452,1.38778e-17,0,679,679
270.501,1.38778e-17,0,705,705
270.551,1.38778e-17,0,741,741
270.601,1.38778e-17,0,777,777
270.652,1.38778e-17,0,833,833
270.702,1.38778e-17,0,883,883
270.751,1.38778e-17,0,963,963
270.8,1.38778e-17,0,1067,1067
270.85,1.38778e-17,0,1219,1219
270.901,1.38778e-17,0,1377,1377
270.951,1.38778e-17,0,1529,1529
271.001,1.38778e-17,0,1693,1693
271.051,1.38778e-17,0,1845,1845
271.1,1.38778e-17,0,2003,2003
271.15,1.38778e-17,0,2159,2159
271.2,1.38778e-17,0,2323,2323
271.251,1.38778e-17,0,2475,2475
271.301,1.38778e-17,0,2621,2621
271.351,1.38778e-17,0,2793,2793
271.401,1.38778e-17,0,2869,2869
271.45,1.38778e-17,0,2947,2947
271.5,1.38778e-17,0,2961,2961
271.55,1.38778e-17,0,2964,2964
271.601,1.38778e-17,0,2978,2978
271.651,1.38778e-17,0,2967,2967
271.701,1.38778e-17,0,2999,2999
271.751,1.38778e-17,0,3003,3003
271.801,1.38778e-17,0,3029,3029
271.85,1.38778e-17,0,3073,3073
271.9,1.38778e-17,0,3145,3145
271.951,1.38778e-17,0,3245,3245
272.001,1.38778e-17,0,3367,3367
272.051,1.38778e-17,0,3523,3523
272.101,1.38778e-17,0,3687,3687
272.151,1.38778e-17,0,3827,3827
272.2,1.38778e-17,0,4005,4005
272.25,1.38778e-17,0,4139,4139
272.301,1.38778e-17,0,4301,4301
272.351,1.38778e-17,0,4481,4481
272.401,1.38778e-17,0,4615,4615
272.451,1.38778e-17,0,4763,4763
272.501,1.38778e-17,0,4933,4933
272.55,1.38778e-17,0,5089,5089
272.6,1.38778e-17,0,5211,5211
272.65,1.38778e-17,0,5385,5385
272.701,1.38778e-17,0,5509,5509
272.751,1.38778e-17,0,5603,5603
272.801,1.38778e-17,0,5641,5641
272.851,1.38778e-17,0,5715,5715
272.9,1.38778e-17,0,5731,5731
272.95,1.38778e-17,0,5769,5769
273,1.38778e-17,0,5827,5827
273.051,1.38778e-17,0,5853,5853
273.101,1.38778e-17,0,5909,5909
273.151,1.38778e-17,0,5871,5871
273.201,1.38778e-17,0,5901,5901
273.251,1.38778e-17,0,5907,5907
273.3,1.38778e-17,0,5889,5889
273.35,1.38778e-17,0,5921,5921
273.401,1.38778e-17,0,5907,5907
273.451,1.38778e-17,0,5895,5895
273.501,1.38778e-17,0,5892,5892
273.551,1.38778e-17,0,5906,5906
273.601,1.38778e-17,0,5882,5882
273.65,1.38778e-17,0,5832,5832
273.7,1.38778e-17,0,5836,5836
273.751,-4.16334e-17,0,5790,5790
273.801,-4.30211e-16,0,5840,5840
273.851,-9.02056e-16,0,5806,5806
273.901,-1.3739e-15,0,5798,5798
273.951,-1.84575e-15,0,5810,5810
274,-2.31759e-15,0,5744,5744
274.05,-2.78944e-15,0,5778,5778
274.101,-3.27516e-15,0,5772,5772
274.151,-4.14946e-15,0,5770,5770
274.201,-5.7454e-15,0,5774,5774
274.251,-8.75688e-15,0,5770,5770
274.301,-1.45578e-14,0,5766,5766
274.35,-2.54657e-14,0,5780,5780
274.4,-4.54359e-14,0,5776,5776
274.451,-8.08797e-14,0,5828,5828
274.501,-1.41817e-13,0,5902,5902
274.551,-2.43403e-13,0,5946,5946
274.601,-4.01512e-13,0,5926,5926
274.651,-6.55295e-13,0,5954,5954
274.701,-1.02718e-12,0,5912,5912
274.75,-1.56951e-12,0,5934,5934
274.8,-2.33756e-12,0,5894,5894
274.85,-3.39408e-12,0,5920,5920
274.9,-4.80477e-12,0,5906,5906
274.951,-6.63324e-12,0,5886,5886
275.001,-8.93147e-12,0,5860,5860
275.05,-1.16384e-11,0,5842,5842
275.101,-1.49229e-11,0,5844,5844
275.15,-1.85447e-11,0,5810,5810
275.201,-2.26413e-11,0,5778,5778
275.251,-2.68251e-11,0,5764,5764
275.301,-3.10314e-11,0,5736,5736
275.351,-3.50329e-11,0,5712,5712
275.401,-3.85696e-11,0,5718,5718
275.451,-4.13665e-11,0,5698,5698
275.5,-4.31161e-11,0,5686,5686
275.551,-4.36926e-11,0,5666,5666
275.601,-4.28748e-11,0,5664,5664
275.652,-4.04785e-11,0,5670,5670
275.701,-3.65997e-11,0,5606,5606
275.751,-3.121e-11,0,5604,5604
275.801,-2.43987e-11,0,5578,5578
275.851,-1.63273e-11,0,5580,5580
275.902,-7.21138e-12,0,5570,5570
275.95,2.38262e-12,0,5528,5528
276.001,1.28412e-11,0,5526,5526
276.05,2.32585e-11,0,5518,5518
276.101,3.41301e-11,0,5492,5492
276.151,4.46238e-11,0,5458,5458
276.201,5.50586e-11,0,5494,5494
276.251,6.55373e-11,0,5440,5440
276.301,7.63508e-11,0,5460,5460
276.351,8.80643e-11,0,5414,5414
276.401,1.01606e-10,0,5418,5418
276.45,1.17762e-10,0,5378,5378
276.501,1.39679e-10,0,5372,5372
276.55,1.68621e-10,0,5406,5406
276.602,2.10491e-10,0,5350,5350
276.651,2.6749e-10,0,5368,5368
276.701,3.47112e-10,0,5342,5342
276.751,4.5725e-10,0,5338,5338
276.801,6.07714e-10,0,5324,5324
276.852,8.10252e-10,0,5290,5290
276.9,1.06799e-09,0,5294,5294
276.951,1.41445e-09,0,5288,5288
277,1.84162e-09,0,5286,5286
277.052,2.39771e-09,0,5266,5266
277.101,3.06216e-09,0,5254,5254
277.151,3.86921e-09,0,5268,5268
277.201,4.836e-09,0,5278,5278
277.251,5.97803e-09,0,5248,5248
277.301,7.30909e-09,0,5256,5256
277.352,8.8416e-09,0,5226,5226
277.401,1.05185e-08,0,5222,5222
277.452,1.24716e-08,0,5242,5242
277.501,1.45606e-08,0,5198,5198
277.55,1.68419e-08,0,5196,5196
277.6,1.96274e-08,0,5202,5202
277.652,2.36634e-08,0,5168,5168
277.702,2.83517e-08,0,5172,5172
277.75,3.34365e-08,0,5190,5190
277.8,3.96093e-08,0,5138,5138
277.851,4.69292e-08,0,5128,5128
277.901,5.48998e-08,0,5124,5124
277.951,6.35365e-08,0,5120,5120
278,7.24351e-08,0,5092,5092
278.051,8.22679e-08,0,5116,5116
278.101,1.02133e-07,0,5088,5088
278.15,1.23412e-07,0,5060,5060
278.201,1.53332e-07,0,5082,5082
278.25,1.85416e-07,0,5028,5028
278.301,2.21862e-07,0,5037,5037
278.35,2.59233e-07,0,5025,5025
278.401,3.00103e-07,0,5009,5009
278.451,3.40643e-07,0,5039,5039
278.502,3.82974e-07,0,4997,4997
278.551,4.51613e-07,0,4975,4975
278.601,5.30254e-07,0,4991,4991
278.65,6.0185e-07,0,4933,4933
278.702,6.71675e-07,0,4923,4923
278.751,7.35099e-07,0,4947,4947
278.801,7.93912e-07,0,4865,4865
278.851,8.46209e-07,0,4845,4845
278.901,8.90312e-07,0,4809,4809
278.951,9.25093e-07,0,4849,4849
279.001,9.49373e-07,0,4987,4987
279.051,9.61897e-07,0,5003,5003
279.101,9.6787e-07,0,4963,4963
279.152,9.72376e-07,0,4999,4999
279.2,9.75803e-07,0,4855,4855
279.251,9.76708e-07,0,4765,4765
279.301,9.77423e-07,0,4749,4749
279.352,9.77037e-07,0,4641,4641
279.401,9.55975e-07,0,4631,4631
279.451,9.30836e-07,0,4641,4641
279.5,9.0144e-07,0,4559,4559
279.551,8.70035e-07,0,4409,4409
279.6,8.37611e-07,0,4331,4331
279.651,8.02326e-07,0,4071,4071
279.701,7.66114e-07,0,3995,3995
279.752,7.03386e-07,0,3913,3913
279.801,6.46205e-07,0,3841,3841
279.851,6.01084e-07,0,3741,3741
279.9,5.62314e-07,0,3601,3601
279.95,5.28989e-07,0,3503,3503
280.002,4.97679e-07,0,3385,3385
280.052,4.72772e-07,0,3189,3189
280.102,4.51335e-07,0,2935,2935
280.152,4.36921e-07,0,2353,2353
280.201,4.3705e-07,0,1575,1575
280.251,4.31306e-07,0,1559,1559
280.301,4.3634e-07,0,1737,1737
280.351,4.51739e-07,0,2163,2163
280.401,4.70725e-07,0,2249,2249
280.452,4.89227e-07,0,2243,2243
280.501,5.13998e-07,0,2313,2313
280.551,5.48746e-07,0,2757,2757
280.6,5.89049e-07,0,2917,2917
280.651,6.31627e-07,0,3059,3059
280.701,6.83971e-07,0,3233,3233
280.751,7.36688e-07,0,3301,3301
280.801,7.84852e-07,0,3387,3387
280.851,8.28014e-07,0,3439,3439
280.901,8.62383e-07,0,3489,3489
280.95,8.87072e-07,0,3483,3483
281.002,9.07106e-07,0,3519,3519
281.051,9.14904e-07,0,3589,3589
281.101,9.11987e-07,0,3669,3669
281.15,9.05505e-07,0,3729,3729
281.202,8.94984e-07,0,3857,3857
281.251,8.80677e-07,0,3955,3955
281.302,8.63662e-07,0,4045,4045
281.351,8.44307e-07,0,4153,4153
281.4,8.21157e-07,0,4243,4243
281.451,7.92346e-07,0,4377,4377
281.502,7.58052e-07,0,4485,4485
281.551,7.19552e-07,0,4569,4569
281.601,6.72138e-07,0,4559,4559
281.65,6.26336e-07,0,4517,4517
281.701,5.75138e-07,0,4523,4523
281.751,5.20548e-07,0,4529,4529
281.801,4.61548e-07,0,4489,4489
281.852,3.98625e-07,0,4473,4473
281.9,3.38587e-07,0,4514,4514
281.95,2.81299e-07,0,4550,4550
282,2.3138e-07,0,4571,4571
282.05,1.87763e-07,0,4595,4595
282.1,1.48725e-07,0,4627,4627
282.15,1.13359e-07,0,4655,4655
282.2,8.10849e-08,0,4721,4721
282.252,5.0984e-08,0,4759,4759
282.302,2.55782e-08,0,4761,4761
282.351,3.58281e-09,0,4803,4803
282.401,-1.46117e-08,0,4823,4823
282.45,-2.89388e-08,0,4845,4845
282.501,-4.2173e-08,0,4819,4819
282.551,-5.29418e-08,0,4857,4857
282.6,-6.04025e-08,0,4857,4857
282.651,-6.80535e-08,0,4869,4869
282.7,-7.4386e-08,0,4887,4887
282.751,-7.84505e-08,0,4879,4879
282.8,-7.92663e-08,0,4889,4889
282.851,-7.93375e-08,0,4911,4911
282.902,-7.90606e-08,0,4913,4913
282.95,-7.85204e-08,0,4901,4901
283.001,-7.74806e-08,0,4939,4939
283.052,-7.59926e-08,0,4921,4921
283.1,-7.42103e-08,0,4943,4943
283.15,-7.20676e-08,0,4945,4945
283.201,-6.97481e-08,0,4949,4949
283.251,-6.62149e-08,0,4941,4941
283.301,-6.2445e-08,0,4950,4950
283.351,-5.8923e-08,0,4932,4932
283.401,-5.55365e-08,0,4920,4920
283.451,-5.19854e-08,0,4964,4964
283.5,-4.85105e-08,0,4930,4930
283.551,-4.50971e-08,0,4986,4986
283.6,-4.18676e-08,0,4954,4954
283.651,-3.86971e-08,0,4970,4970
283.702,-3.58004e-08,0,4978,4978
283.75,-3.32114e-08,0,4982,4982
283.8,-3.07607e-08,0,4976,4976
283.85,-2.85879e-08,0,5010,5010
283.902,-2.65972e-08,0,5006,5006
283.951,-2.49108e-08,0,5036,5036
284.001,-2.34499e-08,0,5028,5028
284.052,-2.21441e-08,0,5036,5036
284.101,-2.10766e-08,0,5006,5006
284.151,-2.02618e-08,0,5022,5022
284.202,-1.95731e-08,0,5060,5060
284.25,-1.92532e-08,0,5044,5044
284.3,-1.89765e-08,0,5042,5042
284.352,-1.87396e-08,0,5052,5052
284.401,-1.86033e-08,0,5066,5066
284.451,-1.85318e-08,0,5082,5082
284.5,-1.85145e-08,0,5056,5056
284.551,-1.85593e-08,0,5078,5078
284.602,-1.86538e-08,0,5094,5094
284.65,-1.87848e-08,0,5110,5110
284.701,-1.8957e-08,0,5104,5104
284.751,-1.91581e-08,0,5090,5090
284.801,-1.93826e-08,0,5098,5098
284.85,-1.96254e-08,0,5112,5112
284.9,-1.98814e-08,0,5142,5142
284.951,-2.01555e-08,0,5102,5102
285,-2.04263e-08,0,5112,5112
285.051,-2.07086e-08,0,5094,5094
285.102,-2.09912e-08,0,5108,5108
285.15,-2.12629e-08,0,5140,5140
285.2,-2.15406e-08,0,5154,5154
285.25,-2.18145e-08,0,5166,5166
285.3,-2.20842e-08,0,5198,5198
285.35,-2.23501e-08,0,5180,5180
285.401,-2.26216e-08,0,5180,5180
285.45,-2.2883e-08,0,5204,5204
285.501,-2.31529e-08,0,5218,5218
285.55,-2.34165e-08,0,5240,5240
285.601,-2.36929e-08,0,5214,5214
285.651,-2.39762e-08,0,5244,5244
285.701,-2.42689e-08,0,5266,5266
285.751,-2.45736e-08,0,5286,5286
285.801,-2.48927e-08,0,5296,5296
285.85,-2.52284e-08,0,5282,5282
285.901,-2.55939e-08,0,5286,5286
285.951,-2.59684e-08,0,5306,5306
286.001,-2.63757e-08,0,5322,5322
286.05,-2.67912e-08,0,5316,5316
286.101,-2.72399e-08,0,5334,5334
286.151,-2.77075e-08,0,5346,5346
286.201,-2.81918e-08,0,5344,5344
286.251,-2.86902e-08,0,5372,5372
286.3,-2.91997e-08,0,5356,5356
286.351,-2.97332e-08,0,5358,5358
286.401,-3.02564e-08,0,5388,5388
286.451,-3.07976e-08,0,5390,5390
286.501,-3.13223e-08,0,5366,5366
286.551,-3.18595e-08,0,5403,5403
286.601,-3.23903e-08,0,5395,5395
286.651,-3.2912e-08,0,5381,5381
286.701,-3.34221e-08,0,5389,5389
286.751,-3.39184e-08,0,5369,5369
286.801,-3.43997e-08,0,5395,5395
286.851,-3.48639e-08,0,5377,5377
286.9,-3.53092e-08,0,5407,5407
286.95,-3.57338e-08,0,5383,5383
287,-3.61368e-08,0,5391,5391
287.051,-3.65281e-08,0,5377,5377
287.101,-3.68853e-08,0,5373,5373
287.151,-3.722e-08,0,5359,5359
287.201,-3.75333e-08,0,5367,5367
287.25,-3.78264e-08,0,5341,5341
287.3,-3.81011e-08,0,5301,5301
287.35,-3.83596e-08,0,5321,5321
287.401,-3.86115e-08,0,5297,5297
287.451,-3.88451e-08,0,5289,5289
287.501,-3.90709e-08,0,5309,5309
287.551,-3.92918e-08,0,5259,5259
287.601,-3.95107e-08,0,5237,5237
287.65,-3.97305e-08,0,5237,5237
287.7,-3.9954e-08,0,5209,5209
287.751,-4.01903e-08,0,5173,5173
287.801,-4.04281e-08,0,5123,5123
287.851,-4.06759e-08,0,5097,5097
287.901,-4.09348e-08,0,5033,5033
287.951,-4.12059e-08,0,4983,4983
288,-4.14894e-08,0,4897,4897
288.05,-4.17853e-08,0,4867,4867
288.101,-4.21023e-08,0,4779,4779
288.151,-4.24213e-08,0,4703,4703
288.201,-4.27498e-08,0,4645,4645
288.251,-4.3086e-08,0,4547,4547
288.301,-4.34279e-08,0,4507,4507
288.35,-4.37731e-08,0,4409,4409
288.4,-4.41193e-08,0,4373,4373
288.451,-4.44739e-08,0,4211,4211
288.501,-4.48139e-08,0,4027,4027
288.551,-4.51466e-08,0,3857,3857
288.601,-4.54695e-08,0,3737,3737
288.651,-4.578e-08,0,3711,3711
288.7,-4.60755e-08,0,3690,3690
288.75,-4.63538e-08,0,3668,3668
288.8,-4.66127e-08,0,3673,3673
288.851,-4.68571e-08,0,3693,3693
288.901,-4.70714e-08,0,3657,3657
288.951,-4.72616e-08,0,3633,3633
289.001,-4.74266e-08,0,3591,3591
289.05,-4.75657e-08,0,3521,3521
289.1,-4.76785e-08,0,3433,3433
289.15,-4.77648e-08,0,3375,3375
289.201,-4.78261e-08,0,3295,3295
289.251,-4.78592e-08,0,3207,3207
289.301,-4.78672e-08,0,3133,3133
289.351,-4.78508e-08,0,3083,3083
289.401,-4.78111e-08,0,2987,2987
289.45,-4.77496e-08,0,2805,2805
289.5,-4.76676e-08,0,2645,2645
289.551,-4.75635e-08,0,2463,2463
289.601,-4.74451e-08,0,2303,2303
289.651,-4.73112e-08,0,2143,2143
289.701,-4.71636e-08,0,1977,1977
289.751,-4.70041e-08,0,1809,1809
289.8,-4.68342e-08,0,1641,1641
289.85,-4.66556e-08,0,1469,1469
289.901,-4.64641e-08,0,1289,1289
289.951,-4.62722e-08,0,1143,1143
290.002,-4.60726e-08,0,999,999
290.052,-4.58731e-08,0,895,895
290.101,-4.56713e-08,0,779,779
290.152,-4.54645e-08,0,673,673
290.202,-4.52602e-08,0,627,627
290.251,-4.50558e-08,0,565,565
290.301,-4.48512e-08,0,529,529
290.354,-4.46377e-08,0,515,515
290.41,-4.44089e-08,0,512,512
290.457,-4.42208e-08,0,512,512
290.504,-4.40342e-08,0,512,512
290.551,-4.38493e-08,0,512,512
290.61,-4.36203e-08,0,512,512
290.657,-4.34389e-08,0,512,512
290.703,-4.32589e-08,0,512,512
290.75,-4.30803e-08,0,512,512
290.809,-4.28585e-08,0,512,512
290.856,-4.26822e-08,0,512,512
290.903,-4.25065e-08,0,512,512
290.961,-4.22874e-08,0,512,512
291.008,-4.21122e-08,0,512,512
291.055,-4.19368e-08,0,512,512
291.102,-4.17608e-08,0,512,512
291.16,-4.15396e-08,0,512,512
291.207,-4.13611e-08,0,512,512
291.254,-4.1181e-08,0,512,512
291.301,-4.09987e-08,0,512,512
291.36,-4.07674e-08,0,512,512
291.406,-4.05789e-08,0,512,512
291.453,-4.0387e-08,0,512,512
291.5,-4.01911e-08,0,512,512
291.559,-3.99399e-08,0,512,512
291.606,-3.97332e-08,0,512,512
291.652,-3.95207e-08,0,512,512
291.711,-3.9246e-08,0,512,512
291.758,-3.9018e-08,0,512,512
291.805,-3.87818e-08,0,512,512
291.852,-3.85366e-08,0,512,512
291.91,-3.82157e-08,0,512,512
291.957,-3.79463e-08,0,512,512
292.004,-3.76642e-08,0,512,512
292.051,-3.73681e-08,0,512,512
292.109,-3.69764e-08,0,512,512
292.156,-3.66441e-08,0,512,512
292.203,-3.62933e-08,0,512,512
292.25,-3.59226e-08,0,512,512
292.309,-3.54292e-08,0,512,512
292.355,-3.50088e-08,0,512,512
292.402,-3.45643e-08,0,512,512
292.461,-3.39732e-08,0,512,512
292.508,-3.34712e-08,0,512,512
292.555,-3.29426e-08,0,512,512
292.602,-3.23873e-08,0,512,512
292.66,-3.16561e-08,0,512,512
292.707,-3.10422e-08,0,512,512
292.754,-3.04035e-08,0,512,512
292.801,-2.97416e-08,0,512,512
292.859,-2.88841e-08,0,512,512
292.906,-2.81766e-08,0,512,512
292.953,-2.74525e-08,0,512,512
293.012,-2.65282e-08,0,512,512
293.058,-2.57766e-08,0,512,512
293.105,-2.50175e-08,0,512,512
293.152,-2.42537e-08,0,512,512
293.211,-2.32969e-08,0,512,512
293.258,-2.25333e-08,0,512,512
293.305,-2.17745e-08,0,512,512
293.351,-2.10231e-08,0,512,512
293.41,-2.00982e-08,0,512,512
293.457,-1.93728e-08,0,512,512
293.504,-1.86625e-08,0,512,512
293.551,-1.79693e-08,0,512,512
293.609,-1.71291e-08,0,512,512
293.656,-1.64796e-08,0,512,512
293.703,-1.58512e-08,0,512,512
293.762,-1.50959e-08,0,512,512
293.808,-1.45159e-08,0,512,512
293.855,-1.39571e-08,0,512,512
293.902,-1.34185e-08,0,512,512
293.961,-1.27718e-08,0,512,512
294.008,-1.22737e-08,0,512,512
294.054,-1.17907e-08,0,512,512
294.101,-1.13204e-08,0,512,512
294.16,-1.07469e-08,0,512,512
294.207,-1.02965e-08,0,512,512
294.254,-9.85053e-09,0,512,512
294.3,-9.40656e-09,0,512,512
294.359,-8.85057e-09,0,512,512
294.406,-8.40217e-09,0,512,512
294.453,-7.94833e-09,0,512,512
294.511,-7.37076e-09,0,512,512
294.558,-6.89883e-09,0,512,512
294.605,-6.41707e-09,0,512,512
294.652,-5.92489e-09,0,512,512
294.711,-5.29477e-09,0,512,512
294.757,-4.77903e-09,0,512,512
294.804,-4.25361e-09,0,512,512
294.851,-3.71946e-09,0,512,512
294.91,-3.04146e-09,0,512,512
294.957,-2.49271e-09,0,512,512
295.004,-1.94027e-09,0,512,512
295.05,-1.38613e-09,0,512,512
295.109,-6.94382e-10,0,512,512
295.156,-1.44501e-10,0,512,512
295.203,3.99666e-10,0,512,512
295.261,1.0681e-09,0,512,512
295.308,1.5904e-09,0,512,512
295.355,2.09891e-09,0,512,512
295.402,2.59116e-09,0,512,512
295.46,3.17988e-09,0,512,512
295.507,3.62672e-09,0,512,512
295.554,4.04968e-09,0,512,512
295.601,4.4467e-09,0,512,512
295.66,4.90369e-09,0,512,512
295.707,5.23594e-09,0,512,512
295.753,5.53723e-09,0,512,512
295.8,5.80669e-09,0,512,512
295.859,6.09812e-09,0,512,512
295.906,6.29494e-09,0,512,512
295.953,6.45999e-09,0,512,512
296.011,6.62303e-09,0,512,512
296.058,6.72044e-09,0,512,512
296.105,6.79032e-09,0,512,512
296.152,6.83463e-09,0,512,512
296.21,6.85737e-09,0,512,512
296.257,6.85227e-09,0,512,512
296.304,6.82906e-09,0,512,512
296.351,6.79018e-09,0,512,512
296.41,6.72319e-09,0,512,512
296.456,6.65774e-09,0,512,512
296.503,6.58417e-09,0,512,512
296.55,6.50463e-09,0,512,512
296.609,6.39984e-09,0,512,512
296.656,6.31394e-09,0,512,512
296.702,6.22802e-09,0,512,512
296.761,6.12281e-09,0,512,512
296.808,6.04189e-09,0,512,512
296.855,5.96498e-09,0,512,512
296.902,5.89287e-09,0,512,512
296.96,5.8103e-09,0,512,512
297.007,5.75073e-09,0,512,512
297.054,5.69704e-09,0,512,512
297.101,5.64921e-09,0,512,512
297.159,5.59734e-09,0,512,512
297.206,5.56181e-09,0,512,512
297.253,5.53113e-09,0,512,512
297.3,5.50485e-09,0,512,512
297.359,5.47742e-09,0,512,512
297.406,5.45916e-09,0,512,512
297.452,5.4436e-09,0,512,512
297.511,5.42712e-09,0,512,512
297.558,5.41566e-09,0,512,512
297.605,5.40516e-09,0,512,512
297.652,5.39513e-09,0,512,512
297.71,5.38252e-09,0,512,512
297.757,5.37185e-09,0,512,512
297.804,5.36024e-09,0,512,512
297.851,5.34736e-09,0,512,512
297.909,5.32909e-09,0,512,512
297.956,5.31251e-09,0,512,512
298.003,5.29408e-09,0,512,512
298.062,5.26841e-09,0,512,512
298.109,5.24587e-09,0,512,512
298.155,5.2217e-09,0,512,512
298.202,5.19612e-09,0,512,512
298.261,5.16258e-09,0,512,512
298.308,5.1349e-09,0,512,512
298.355,5.10684e-09,0,512,512
298.401,5.07877e-09,0,512,512
298.46,5.04427e-09,0,512,512
298.507,5.01758e-09,0,512,512
298.554,4.99207e-09,0,512,512
298.601,4.96807e-09,0,512,512
298.659,4.94062e-09,0,512,512
298.706,4.92098e-09,0,512,512
298.753,4.90359e-09,0,512,512
298.812,4.88521e-09,0,512,512
298.858,4.87325e-09,0,512,512
298.905,4.86374e-09,0,512,512
298.952,4.85661e-09,0,512,512
299.011,4.85085e-09,0,512,512
299.058,4.84856e-09,0,512,512
299.104,4.8481e-09,0,512,512
299.151,4.84923e-09,0,512,512
299.21,4.85248e-09,0,512,512
299.257,4.8562e-09,0,512,512
299.304,4.86062e-09,0,512,512
299.351,4.86547e-09,0,512,512
299.409,4.87176e-09,0,512,512
299.456,4.87669e-09,0,512,512
299.503,4.88131e-09,0,512,512
299.561,4.8864e-09,0,512,512
299.608,4.88972e-09,0,512,512
299.655,4.89227e-09,0,512,512
299.702,4.89394e-09,0,512,512
299.761,4.89469e-09,0,512,512
299.808,4.89413e-09,0,512,512
299.854,4.8925e-09,0,512,512
299.901,4.88976e-09,0,512,512
299.96,4.88472e-09,0,512,512
300.007,4.87936e-09,0,512,512
300.054,4.8728e-09,0,512,512
300.1,4.865e-09,0,512,512
300.159,4.85347e-09,0,512,512
300.206,4.84279e-09,0,512,512
300.253,4.83078e-09,0,512,512
300.311,4.81387e-09,0,512,512
300.358,4.79878e-09,0,512,512
300.405,4.78229e-09,0,512,512
300.452,4.76437e-09,0,512,512
300.511,4.73992e-09,0,512,512
300.557,4.71873e-09,0,512,512
300.604,4.69606e-09,0,512,512
300.651,4.67192e-09,0,512,512
300.71,4.63968e-09,0,512,512
300.757,4.61227e-09,0,512,512
300.803,4.58343e-09,0,512,512
300.85,4.55322e-09,0,512,512
300.909,4.51358e-09,0,512,512
300.956,4.48044e-09,0,512,512
301.003,4.44611e-09,0,512,512
301.061,4.40164e-09,0,512,512
301.108,4.36493e-09,0,512,512
301.155,4.32729e-09,0,512,512
301.202,4.28885e-09,0,512,512
301.26,4.23978e-09,0,512,512
301.307,4.19985e-09,0,512,512
301.354,4.15941e-09,0,512,512
301.401,4.11856e-09,0,512,512
301.46,4.06703e-09,0,512,512
301.506,4.02553e-09,0,512,512
301.553,3.98384e-09,0,512,512
301.6,3.94203e-09,0,512,512
301.659,3.88966e-09,0,512,512
301.706,3.8477e-09,0,512,512
301.753,3.80573e-09,0,512,512
301.811,3.75325e-09,0,512,512
301.858,3.71126e-09,0,512,512
301.905,3.66927e-09,0,512,512
301.952,3.62726e-09,0,512,512
302.01,3.57471e-09,0,512,512
302.057,3.53262e-09,0,512,512
302.104,3.49047e-09,0,512,512
302.151,3.44823e-09,0,512,512
302.209,3.39529e-09,0,512,512
302.256,3.3528e-09,0,512,512
302.303,3.31017e-09,0,512,512
302.35,3.26738e-09,0,512,512
302.409,3.21366e-09,0,512,512
302.456,3.17048e-09,0,512,512
302.502,3.12711e-09,0,512,512
302.561,3.07263e-09,0,512,512
302.608,3.02883e-09,0,512,512
302.655,2.98483e-09,0,512,512
302.702,2.94065e-09,0,512,512
302.76,2.88517e-09,0,512,512
302.807,2.84061e-09,0,512,512
302.854,2.79589e-09,0,512,512
302.901,2.75104e-09,0,512,512
302.959,2.69481e-09,0,512,512
303.006,2.64973e-09,0,512,512
303.053,2.60458e-09,0,512,512
303.112,2.54808e-09,0,512,512
303.159,2.50287e-09,0,512,512
303.205,2.45767e-09,0,512,512
303.252,2.41252e-09,0,512,512
303.311,2.35618e-09,0,512,512
303.358,2.31121e-09,0,512,512
303.405,2.26638e-09,0,512,512
303.451,2.2217e-09,0,512,512
303.51,2.16611e-09,0,512,512
303.557,2.12186e-09,0,512,512
303.604,2.07785e-09,0,512,512
303.651,2.03408e-09,0,512,512
303.709,1.97974e-09,0,512,512
303.756,1.93659e-09,0,512,512
303.803,1.89373e-09,0,512,512
303.862,1.8406e-09,0,512,512
303.908,1.79845e-09,0,512,512
303.955,1.75662e-09,0,512,512
304.002,1.71511e-09,0,512,512
304.061,1.6637e-09,0,512,512
304.108,1.62294e-09,0,512,512
304.155,1.5825e-09,0,512,512
304.201,1.54239e-09,0,512,512
304.26,1.49269e-09,0,512,512
304.307,1.45329e-09,0,512,512
304.354,1.41419e-09,0,512,512
304.401,1.3754e-09,0,512,512
304.459,1.32731e-09,0,512,512
304.506,1.28916e-09,0,512,512
304.553,1.25128e-09,0,512,512
304.611,1.20432e-09,0,512,512
304.658,1.16705e-09,0,512,512
304.705,1.13003e-09,0,512,512
304.752,1.09327e-09,0,512,512
304.811,1.04768e-09,0,512,512
304.858,1.01148e-09,0,512,512
304.904,9.7553e-10,0,512,512
304.951,9.3983e-10,0,512,512
