250,0,0,8192,8192
250.003,0,0,8192,8192
250.053,0,0,8192,8192
250.103,0,0,8192,8192
250.152,0,0,8192,8192
250.202,2.77556e-17,0,8192,8192
250.252,0,0,8192,8192
250.302,0,0,8192,8192
250.352,-2.77556e-17,0,8192,8192
250.401,-2.77556e-17,0,8192,8192
250.451,-2.77556e-17,0,8192,8192
250.501,-2.77556e-17,0,8192,8192
250.551,-2.77556e-17,0,8192,8192
250.6,-2.77556e-17,0,8192,8192
250.65,-2.77556e-17,0,8192,8192
250.7,-2.77556e-17,0,8192,8192
250.753,-2.77556e-17,0,8192,8192
250.803,-2.77556e-17,0,8192,8192
250.852,-2.77556e-17,0,8192,8192
250.902,-2.77556e-17,0,8192,8192
250.952,-2.77556e-17,0,8192,8192
251.002,-2.77556e-17,0,8192,8192
251.052,-2.77556e-17,0,8192,8192
251.101,-2.77556e-17,0,8192,8192
251.151,-2.77556e-17,0,8192,8192
251.201,-2.77556e-17,0,8192,8192
251.251,-2.77556e-17,0,8192,8192
251.301,-2.77556e-17,0,8192,8192
251.35,-2.77556e-17,0,8192,8192
251.4,-2.77556e-17,0,8192,8192
251.453,-2.77556e-17,0,8192,8192
251.503,-2.77556e-17,0,8192,8192
251.553,0,0,8192,8192
251.602,2.77556e-17,0,8192,8192
251.652,2.77556e-17,0,8192,8192
251.702,5.55112e-17,0,8192,8192
251.752,5.55112e-17,0,8192,8192
251.801,0,0,8192,8192
251.851,0,0,8192,8192
251.901,0,0,8192,8192
251.951,0,0,8192,8192
252.001,0,0,8192,8192
252.05,0,0,8192,8192
252.1,0,0,8192,8192
252.15,2.77556e-17,0,8192,8192
252.203,2.77556e-17,0,8192,8192
252.253,-2.77556e-17,0,8192,8192
252.302,-2.77556e-17,0,8192,8192
252.352,-2.77556e-17,0,8192,8192
252.402,-2.77556e-17,0,8192,8192
252.452,-2.77556e-17,0,8192,8192
252.502,-2.77556e-17,0,8192,8192
252.551,-2.77556e-17,0,8192,8192
252.601,-2.77556e-17,0,8192,8192
252.651,-2.77556e-17,0,8192,8192
252.701,-2.77556e-17,0,8192,8192
252.751,-2.77556e-17,0,8192,8192
252.8,-2.77556e-17,0,8192,8192
252.85,-2.77556e-17,0,8192,8192
252.903,-2.77556e-17,0,8192,8192
252.953,-2.77556e-17,0,8192,8192
253.002,-2.77556e-17,0,8192,8192
253.052,2.77556e-17,0,8192,8192
253.102,0,0,8192,8192
253.152,2.77556e-17,0,8192,8192
253.202,2.77556e-17,0,8192,8192
253.251,2.77556e-17,0,8192,8192
253.301,2.77556e-17,0,8192,8192
253.351,2.77556e-17,0,8192,8192
253.401,2.77556e-17,0,8192,8192
253.451,2.77556e-17,0,8192,8192
253.5,2.77556e-17,0,8192,8192
253.55,2.77556e-17,0,8192,8192
253.6,2.77556e-17,0,8192,8192
253.653,2.77556e-17,0,8192,8192
253.703,2.77556e-17,0,8192,8192
253.752,5.55112e-17,0,8192,8192
253.802,5.55112e-17,0,8192,8192
253.852,5.55112e-17,0,8192,8192
253.902,5.55112e-17,0,8192,8192
253.952,2.77556e-17,0,8192,8192
254.001,2.77556e-17,0,8192,8192
254.051,5.55112e-17,0,8192,8192
254.101,5.55112e-17,0,8192,8192
254.151,5.55112e-17,0,8192,8192
254.201,5.55112e-17,0,8192,8192
254.25,2.77556e-17,0,8192,8192
254.3,2.77556e-17,0,8192,8192
254.353,2.77556e-17,0,8192,8192
254.403,2.77556e-17,0,8192,8192
254.452,2.77556e-17,0,8192,8192
254.502,2.77556e-17,0,8192,8192
254.552,2.77556e-17,0,8192,8192
254.602,2.77556e-17,0,8192,8192
254.652,0,0,8192,8192
254.701,2.77556e-17,0,8192,8192
254.751,0,0,8192,8192
254.801,0,0,8192,8192
254.851,0,0,8192,8192
254.901,0,0,8192,8192
254.95,0,0,8192,8192
255,0,0,8192,8192
255.05,0,0,8192,8192
255.103,0,0,8192,8192
255.153,2.77556e-17,0,8192,8192
255.202,2.77556e-17,0,8192,8192
255.252,2.77556e-17,0,8192,8192
255.302,2.77556e-17,0,8192,8192
255.352,2.77556e-17,0,8192,8192
255.402,2.77556e-17,0,8192,8192
255.451,2.77556e-17,0,8192,8192
255.501,2.77556e-17,0,8192,8192
255.551,2.77556e-17,0,8192,8192
255.601,0,0,8192,8192
255.651,2.77556e-17,0,8192,8192
255.7,0,0,8192,8192
255.75,2.77556e-17,0,8192,8192
255.803,0,0,8192,8192
255.853,0,0,8192,8192
255.902,2.77556e-17,0,8192,8192
255.952,2.77556e-17,0,8192,8192
256.002,0,0,8192,8192
256.052,0,0,8192,8192
256.102,0,0,8192,8192
256.151,0,0,8192,8192
256.201,0,0,8192,8192
256.251,0,0,8192,8192
256.301,2.77556e-17,0,8192,8192
256.351,0,0,8192,8192
256.4,5.55112e-17,0,8192,8192
256.45,5.55112e-17,0,8192,8192
256.5,5.55112e-17,0,8192,8192
256.553,2.77556e-17,0,8192,8192
256.603,2.77556e-17,0,8192,8192
256.652,2.77556e-17,0,8192,8192
256.702,2.77556e-17,0,8192,8192
256.752,2.77556e-17,0,8192,8192
256.802,2.77556e-17,0,8192,8192
256.852,-2.77556e-17,0,8192,8192
256.901,-2.77556e-17,0,8192,8192
256.951,-2.77556e-17,0,8192,8192
257.001,-5.55112e-17,0,8192,8192
257.051,-5.55112e-17,0,8192,8192
257.101,-5.55112e-17,0,8192,8192
257.15,-2.77556e-17,0,8192,8192
257.2,-2.77556e-17,0,8192,8192
257.253,-2.77556e-17,0,8192,8192
257.303,-2.77556e-17,0,8192,8192
257.352,-2.77556e-17,0,8192,8192
257.402,-2.77556e-17,0,8192,8192
257.452,-2.77556e-17,0,8192,8192
257.502,-2.77556e-17,0,8192,8192
257.552,-2.77556e-17,0,8192,8192
257.601,-2.77556e-17,0,8192,8192
257.651,-2.77556e-17,0,8192,8192
257.701,-2.77556e-17,0,8192,8192
257.751,-2.77556e-17,0,8192,8192
257.801,-2.77556e-17,0,8192,8192
257.85,-2.77556e-17,0,8192,8192
257.9,-2.77556e-17,0,8192,8192
257.95,-2.77556e-17,0,8192,8192
258.003,-2.77556e-17,0,8192,8192
258.053,-2.77556e-17,0,8192,8192
258.102,-2.77556e-17,0,8192,8192
258.152,-2.77556e-17,0,8192,8192
258.202,-2.77556e-17,0,8192,8192
258.252,-2.77556e-17,0,8192,8192
258.302,-2.77556e-17,0,8192,8192
258.351,-2.77556e-17,0,8192,8192
258.401,-2.77556e-17,0,8192,8192
258.451,-2.77556e-17,0,8192,8192
258.501,-2.77556e-17,0,8192,8192
258.551,-2.77556e-17,0,8192,8192
258.6,-2.77556e-17,0,8192,8192
258.65,-2.77556e-17,0,8192,8192
258.703,-2.77556e-17,0,8192,8192
258.753,-2.77556e-17,0,8192,8192
258.802,-2.77556e-17,0,8192,8192
258.852,-2.77556e-17,0,8192,8192
258.902,-2.77556e-17,0,8192,8192
258.952,-2.77556e-17,0,8192,8192
259.002,-2.77556e-17,0,8192,8192
259.051,-2.77556e-17,0,8192,8192
259.101,-2.77556e-17,0,8192,8192
259.151,-2.77556e-17,0,8192,8192
259.201,-2.77556e-17,0,8192,8192
259.251,2.77556e-17,0,8192,8192
259.3,5.55112e-17,0,8192,8192
259.35,5.55112e-17,0,8192,8192
259.403,5.55112e-17,0,8192,8192
259.453,5.55112e-17,0,8192,8192
259.503,5.55112e-17,0,8192,8192
259.552,5.55112e-17,0,8192,8192
259.602,5.55112e-17,0,8192,8192
259.652,5.55112e-17,0,8192,8192
259.702,5.55112e-17,0,8192,8192
259.751,5.55112e-17,0,8192,8192
259.801,5.55112e-17,0,8192,8192
259.851,5.55112e-17,0,8192,8192
259.901,5.55112e-17,0,8192,8192
259.951,5.55112e-17,0,8192,8192
260,2.77556e-17,0,8192,8192
260.05,2.77556e-17,0,8192,8192
260.1,2.77556e-17,0,8192,8192
260.153,2.77556e-17,0,8192,8192
260.203,2.77556e-17,0,8192,8192
260.252,5.55112e-17,0,8192,8192
260.302,5.55112e-17,0,8192,8192
260.352,2.77556e-17,0,8192,8192
260.402,5.55112e-17,0,8192,8192
260.452,5.55112e-17,0,8192,8192
260.501,5.55112e-17,0,8192,8192
260.551,5.55112e-17,0,8192,8192
260.601,5.55112e-17,0,8192,8192
260.651,5.55112e-17,0,8192,8192
260.701,5.55112e-17,0,8192,8192
260.75,5.55112e-17,0,8192,8192
260.8,5.55112e-17,0,8192,8192
260.853,2.77556e-17,0,8192,8192
260.903,2.77556e-17,0,8192,8192
260.952,5.55112e-17,0,8192,8192
261.002,5.55112e-17,0,8192,8192
261.052,5.55112e-17,0,8192,8192
261.102,2.77556e-17,0,8192,8192
261.152,2.77556e-17,0,8192,8192
261.201,2.77556e-17,0,8192,8192
261.251,2.77556e-17,0,8192,8192
261.301,2.77556e-17,0,8192,8192
261.351,2.77556e-17,0,8192,8192
261.401,2.77556e-17,0,8192,8192
261.45,2.77556e-17,0,8192,8192
261.5,2.77556e-17,0,8192,8192
261.55,2.77556e-17,0,8192,8192
261.603,2.77556e-17,0,8192,8192
261.653,2.77556e-17,0,8192,8192
261.702,2.77556e-17,0,8192,8192
261.752,2.77556e-17,0,8192,8192
261.802,2.77556e-17,0,8192,8192
261.852,2.77556e-17,0,8192,8192
261.902,2.77556e-17,0,8192,8192
261.951,2.77556e-17,0,8192,8192
262.001,2.77556e-17,0,8192,8192
262.051,2.77556e-17,0,8192,8192
262.101,2.77556e-17,0,8192,8192
262.151,0,0,8192,8192
262.2,0,0,8192,8192
262.25,0,0,8192,8192
262.303,-2.77556e-17,0,8192,8192
262.353,-2.77556e-17,0,8192,8192
262.402,-2.77556e-17,0,8192,8192
262.452,-2.77556e-17,0,8192,8192
262.502,-2.77556e-17,0,8192,8192
262.552,-2.77556e-17,0,8192,8192
262.602,2.77556e-17,0,8192,8192
262.651,2.77556e-17,0,8192,8192
262.701,2.77556e-17,0,8192,8192
262.751,2.77556e-17,0,8192,8192
262.801,2.77556e-17,0,8192,8192
262.851,2.77556e-17,0,8192,8192
262.9,2.77556e-17,0,8192,8192
262.95,0,0,8192,8192
263,0,0,8192,8192
263.053,0,0,8192,8192
263.103,2.77556e-17,0,8192,8192
263.152,2.77556e-17,0,8192,8192
263.202,2.77556e-17,0,8192,8192
263.252,0,0,8192,8192
263.302,0,0,8192,8192
263.352,2.77556e-17,0,8192,8192
263.401,2.77556e-17,0,8192,8192
263.451,0,0,8192,8192
263.501,0,0,8192,8192
263.551,2.77556e-17,0,8192,8192
263.601,2.77556e-17,0,8192,8192
263.65,0,0,8192,8192
263.7,0,0,8192,8192
263.753,2.77556e-17,0,8192,8192
263.803,0,0,8192,8192
263.852,0,0,8192,8192
263.902,0,0,8192,8192
263.952,0,0,8192,8192
264.002,-2.77556e-17,0,8192,8192
264.052,-2.77556e-17,0,8192,8192
264.101,-8.32667e-17,0,8192,8192
264.151,-8.32667e-17,0,8192,8192
264.201,-8.32667e-17,0,8192,8192
264.251,-8.32667e-17,0,8192,8192
264.301,-8.32667e-17,0,8192,8192
264.35,-8.32667e-17,0,8192,8192
264.4,-8.32667e-17,0,8192,8192
264.45,-5.55112e-17,0,8192,8192
264.503,-2.77556e-17,0,8192,8192
264.553,-2.77556e-17,0,8192,8192
264.602,-2.77556e-17,0,8192,8192
264.652,-2.77556e-17,0,8192,8192
264.702,-2.77556e-17,0,8192,8192
264.752,-2.77556e-17,0,8192,8192
264.802,-2.77556e-17,0,8192,8192
264.851,-2.77556e-17,0,8192,8192
264.901,-2.77556e-17,0,8192,8192
264.951,-5.55112e-17,0,8192,8192
265.001,-2.77556e-17,0,8192,8192
265.051,-5.55112e-17,0,8192,8192
265.1,-5.55112e-17,0,8192,8192
265.15,-5.55112e-17,0,8192,8192
265.203,-5.55112e-17,0,8192,8192
265.253,-5.55112e-17,0,8192,8192
265.302,-2.77556e-17,0,8192,8192
265.352,-5.55112e-17,0,8192,8192
265.402,-2.77556e-17,0,8192,8192
265.452,-5.55112e-17,0,8192,8192
265.502,-5.55112e-17,0,8192,8192
265.551,-2.77556e-17,0,8192,8192
265.601,0,0,8192,8192
265.651,0,0,8192,8192
265.701,0,0,8192,8192
265.751,0,0,8192,8192
265.8,0,0,8192,8192
265.85,0,0,8192,8192
265.9,0,0,8192,8192
265.953,0,0,8192,8192
266.003,0,0,8192,8192
266.052,0,0,8192,8192
266.102,0,0,8192,8192
266.152,2.77556e-17,0,8192,8192
266.202,0,0,8192,8192
266.252,0,0,8192,8192
266.301,0,0,8192,8192
266.351,0,0,8192,8192
266.401,-2.77556e-17,0,8192,8192
266.451,-2.77556e-17,0,8192,8192
266.501,0,0,8192,8192
266.55,0,0,8192,8192
266.6,0,0,8192,8192
266.653,0,0,8192,8192
266.703,0,0,8192,8192
266.752,0,0,8192,8192
266.802,0,0,8192,8192
266.852,0,0,8192,8192
266.902,0,0,8192,8192
266.952,0,0,8192,8192
267.001,0,0,8192,8192
267.051,0,0,8192,8192
267.101,-2.77556e-17,0,8192,8192
267.151,-2.77556e-17,0,8192,8192
267.201,0,0,8192,8192
267.25,0,0,8192,8192
267.3,0,0,8192,8192
267.353,0,0,8192,8192
267.403,0,0,8192,8192
267.453,0,0,8192,8192
267.502,2.77556e-17,0,8192,8192
267.552,2.77556e-17,0,8192,8192
267.602,0,0,8192,8192
267.652,0,0,8192,8192
267.702,0,0,8192,8192
267.751,0,0,8192,8192
267.801,0,0,8192,8192
267.851,0,0,8192,8192
267.901,0,0,8192,8192
267.95,2.77556e-17,0,8192,8192
268,0,0,8192,8192
268.05,0,0,8192,8192
268.103,0,0,8192,8192
268.153,0,0,8192,8192
268.202,0,0,8192,8192
268.252,0,0,8192,8192
268.302,0,0,8192,8192
268.352,0,0,8192,8192
268.402,0,0,8192,8192
268.451,0,0,8192,8192
268.501,0,0,8192,8192
268.551,-2.77556e-17,0,8192,8192
268.601,0,0,8192,8192
268.651,-2.77556e-17,0,8192,8192
268.7,-2.77556e-17,0,8192,8192
268.75,0,0,8192,8192
268.803,-2.77556e-17,0,8192,8192
268.853,0,0,8192,8192
268.902,-2.77556e-17,0,8192,8192
268.952,-2.77556e-17,0,8192,8192
269.002,0,0,8192,8192
269.052,-5.55112e-17,0,8192,8192
269.102,-5.55112e-17,0,8192,8192
269.151,-5.55112e-17,0,8192,8192
269.201,-5.55112e-17,0,8192,8192
269.251,-5.55112e-17,0,8192,8192
269.301,-5.55112e-17,0,8192,8192
269.351,-5.55112e-17,0,8192,8192
269.4,-2.77556e-17,0,8192,8192
269.45,-5.55112e-17,0,8192,8192
269.5,-5.55112e-17,0,8192,8192
269.553,-5.55112e-17,0,8192,8192
269.603,-5.55112e-17,0,8192,8192
269.652,-5.55112e-17,0,8192,8192
269.702,-5.55112e-17,0,8192,8192
269.752,-5.55112e-17,0,8192,8192
269.802,-5.55112e-17,0,8192,8192
269.852,-5.55112e-17,0,8192,8192
269.901,-2.77556e-17,0,8192,8192
269.951,-5.55112e-17,0,8196,8196
270,-5.55112e-17,0,8364,8364
270.051,-5.55112e-17,0,8532,8532
270.101,-5.55112e-17,0,8700,8700
270.151,-5.55112e-17,0,8868,8868
270.201,-5.55112e-17,0,9036,9036
270.251,-5.55112e-17,0,9204,9204
270.3,-5.55112e-17,0,9372,9372
270.35,-5.55112e-17,0,9540,9540
270.401,-5.55112e-17,0,9708,9708
270.451,-5.55112e-17,0,9876,9876
270.501,-5.55112e-17,0,10044,10044
270.551,-5.55112e-17,0,10212,10212
270.601,-5.55112e-17,0,10380,10380
270.65,-5.55112e-17,0,10524,10524
270.7,-5.55112e-17,0,10692,10692
270.75,-5.55112e-17,0,10860,10860
270.801,-5.55112e-17,0,11052,11052
270.851,-5.55112e-17,0,11220,11220
270.901,-5.55112e-17,0,11388,11388
270.951,-5.55112e-17,0,11556,11556
271,-5.55112e-17,0,11724,11724
271.05,-5.55112e-17,0,11868,11868
271.1,-5.55112e-17,0,12036,12036
271.151,-5.55112e-17,0,12228,12228
271.201,-5.55112e-17,0,12396,12396
271.251,-5.55112e-17,0,12564,12564
271.301,-5.55112e-17,0,12732,12732
271.35,-5.55112e-17,0,12900,12900
271.4,-5.55112e-17,0,13068,13068
271.45,-5.55112e-17,0,13236,13236
271.501,-5.55112e-17,0,13404,13404
271.551,-5.55112e-17,0,13572,13572
271.601,-5.55112e-17,0,13740,13740
271.651,-5.55112e-17,0,13908,13908
271.701,-5.55112e-17,0,14076,14076
271.75,-5.55112e-17,0,14244,14244
271.8,-5.55112e-17,0,14412,14412
271.851,-5.55112e-17,0,14580,14580
271.901,-5.55112e-17,0,14748,14748
271.951,-5.55112e-17,0,14916,14916
272.001,-5.55112e-17,0,15084,15084
272.051,-5.55112e-17,0,15228,15228
272.1,-5.55112e-17,0,15396,15396
272.15,-5.55112e-17,0,15564,15564
272.201,-5.55112e-17,0,15732,15732
272.251,-5.55112e-17,0,15900,15900
272.301,-5.55112e-17,0,16068,16068
272.351,-5.55112e-17,0,16212,16212
272.401,-5.55112e-17,0,16380,16380
272.45,-5.55112e-17,0,16548,16548
272.5,-6.38378e-16,0,16692,16692
272.55,-3.85803e-15,0,16860,16860
272.601,-3.58324e-14,0,17028,17028
272.651,-2.2557e-13,0,17172,17172
272.701,-1.07409e-12,0,17340,17340
272.751,-4.03935e-12,0,17484,17484
272.8,-1.2294e-11,0,17652,17652
272.85,-3.0762e-11,0,17820,17820
272.9,-6.39639e-11,0,17964,17964
272.951,-1.12781e-10,0,18132,18132
273.001,-1.63559e-10,0,18276,18276
273.051,-1.97784e-10,0,18444,18444
273.101,-1.95844e-10,0,18588,18588
273.151,-1.51086e-10,0,18732,18732
273.2,-7.67076e-11,0,18900,18900
273.25,1.2268e-13,0,19044,19044
273.301,5.51348e-11,0,19212,19212
273.351,7.62457e-11,0,19356,19356
273.401,7.5982e-11,0,19500,19500
273.451,7.31332e-11,0,19552,19552
273.501,8.00169e-11,0,19552,19552
273.55,9.51575e-11,0,19528,19528
273.6,1.08007e-10,0,19504,19504
273.651,1.10112e-10,0,19480,19480
273.701,1.03008e-10,0,19464,19464
273.751,9.63482e-11,0,19504,19504
273.801,9.83561e-11,0,19528,19528
273.851,1.08961e-10,0,19624,19624
273.9,1.20323e-10,0,19768,19768
273.95,1.23912e-10,0,19912,19912
274.001,1.17559e-10,0,20056,20056
274.051,1.0817e-10,0,20200,20200
274.101,1.0491e-10,0,20344,20344
274.151,1.11856e-10,0,20488,20488
274.201,1.23972e-10,0,20632,20632
274.25,1.3078e-10,0,20776,20776
274.3,1.25605e-10,0,20920,20920
274.35,1.12867e-10,0,21040,21040
274.401,1.05805e-10,0,21184,21184
274.451,1.15276e-10,0,21328,21328
274.501,1.38852e-10,0,21472,21472
274.551,1.72401e-10,0,21616,21616
274.6,2.42558e-10,0,21760,21760
274.65,4.42527e-10,0,22048,22048
274.7,9.36267e-10,0,22360,22360
274.751,1.9467e-09,0,22672,22672
274.801,3.53682e-09,0,22960,22960
274.851,5.69925e-09,0,23248,23248
274.901,8.24046e-09,0,23560,23560
274.951,1.22639e-08,0,23848,23848
275,1.98258e-08,0,24060,24060
275.05,2.57107e-08,0,24180,24180
275.101,2.97853e-08,0,24324,24324
275.151,3.26912e-08,0,24468,24468
275.201,3.59573e-08,0,24588,24588
275.251,4.08814e-08,0,24732,24732
275.301,4.83084e-08,0,24852,24852
275.35,5.8382e-08,0,24996,24996
275.4,7.08429e-08,0,25116,25116
275.451,8.61267e-08,0,25260,25260
275.501,1.03982e-07,0,25380,25380
275.551,1.25976e-07,0,25524,25524
275.601,1.53394e-07,0,25644,25644
275.651,1.87161e-07,0,25788,25788
275.7,2.27465e-07,0,25908,25908
275.75,2.73523e-07,0,26052,26052
275.8,3.2374e-07,0,26172,26172
275.851,3.78019e-07,0,26316,26316
275.901,4.32456e-07,0,26436,26436
275.951,4.88997e-07,0,26580,26580
276.001,5.4841e-07,0,26700,26700
276.05,6.10394e-07,0,26844,26844
276.1,6.728e-07,0,26964,26964
276.15,7.32135e-07,0,27084,27084
276.201,7.86229e-07,0,27228,27228
276.251,8.29334e-07,0,27348,27348
276.301,8.61988e-07,0,27492,27492
276.351,8.84561e-07,0,27612,27612
276.401,8.98602e-07,0,27732,27732
276.45,9.06176e-07,0,27876,27876
276.5,9.09067e-07,0,27996,27996
276.551,9.0818e-07,0,28116,28116
276.601,9.03682e-07,0,28260,28260
276.651,8.95059e-07,0,28380,28380
276.701,8.81381e-07,0,28500,28500
276.751,8.61569e-07,0,28644,28644
276.8,8.34625e-07,0,28764,28764
276.85,7.99909e-07,0,28884,28884
276.901,7.56144e-07,0,29028,29028
276.951,7.0701e-07,0,29148,29148
277.001,6.53567e-07,0,29268,29268
277.051,5.98527e-07,0,29388,29388
277.101,5.44362e-07,0,29532,29532
277.15,4.92804e-07,0,29652,29652
277.2,4.44749e-07,0,29772,29772
277.25,4.00403e-07,0,29892,29892
277.301,3.58331e-07,0,30036,30036
277.351,3.2038e-07,0,30156,30156
277.401,2.84719e-07,0,30276,30276
277.451,2.50977e-07,0,30396,30396
277.5,2.19249e-07,0,30516,30516
277.55,1.90259e-07,0,30660,30660
277.6,1.65125e-07,0,30780,30780
277.651,1.44083e-07,0,30900,30900
277.701,1.2793e-07,0,31020,31020
277.751,1.14355e-07,0,31140,31140
277.801,1.01419e-07,0,31260,31260
277.851,8.81089e-08,0,31380,31380
277.9,7.48188e-08,0,31500,31500
277.95,6.27851e-08,0,31620,31620
278.001,5.28427e-08,0,31716,31716
278.051,4.58358e-08,0,31836,31836
278.101,4.08629e-08,0,31932,31932
278.151,3.6824e-08,0,32028,32028
278.201,3.25487e-08,0,32124,32124
278.25,2.7321e-08,0,32220,32220
278.3,2.1294e-08,0,32316,32316
278.351,1.52838e-08,0,32436,32436
278.401,1.08185e-08,0,32556,32556
278.451,8.27174e-09,0,32768,32768
278.501,7.3663e-09,0,32768,32768
278.551,7.38618e-09,0,32768,32768
278.6,7.69235e-09,0,32768,32768
278.65,7.95975e-09,0,32768,32768
278.701,8.13145e-09,0,32768,32768
278.751,8.24317e-09,0,32768,32768
278.801,8.32647e-09,0,32768,32768
278.851,8.34632e-09,0,32768,32768
278.901,8.23565e-09,0,32768,32768
278.95,7.97398e-09,0,32768,32768
279,7.64144e-09,0,32768,32768
279.05,7.36273e-09,0,32768,32768
279.101,7.19985e-09,0,32768,32768
279.151,7.14288e-09,0,32768,32768
279.201,7.13774e-09,0,32768,32768
279.251,7.15126e-09,0,32768,32768
279.3,7.16942e-09,0,32768,32768
279.35,7.18819e-09,0,32768,32768
279.4,7.20684e-09,0,32768,32768
279.451,7.22592e-09,0,32768,32768
279.501,7.24439e-09,0,32768,32768
279.551,7.26281e-09,0,32768,32768
279.601,7.28119e-09,0,32768,32768
279.651,7.29948e-09,0,32768,32768
279.7,7.31769e-09,0,32768,32768
279.75,7.33583e-09,0,32768,32768
279.801,7.35441e-09,0,32768,32768
279.851,7.37232e-09,0,32768,32768
279.901,7.39021e-09,0,32768,32768
279.951,7.4086e-09,0,32768,32768
280.001,7.42842e-09,0,32768,32768
280.05,7.45079e-09,0,32768,32768
280.1,7.4771e-09,0,32768,32768
280.151,7.51093e-09,0,32768,32768
280.201,7.55488e-09,0,32768,32768
280.251,7.61587e-09,0,32768,32768
280.301,7.69958e-09,0,32768,32768
280.351,7.80932e-09,0,32768,32768
280.4,7.94606e-09,0,32768,32768
280.45,8.11005e-09,0,32768,32768
280.5,8.30239e-09,0,32768,32768
280.551,8.53298e-09,0,32768,32768
280.601,8.79351e-09,0,32768,32768
280.651,9.09683e-09,0,32768,32768
280.701,9.45169e-09,0,32768,32768
280.75,9.86931e-09,0,32768,32768
280.8,1.03638e-08,0,32768,32768
280.85,1.09528e-08,0,32768,32768
280.901,1.16795e-08,0,32768,32768
280.951,1.25256e-08,0,32768,32768
281.001,1.35329e-08,0,32768,32768
281.051,1.47229e-08,0,32768,32768
281.101,1.61144e-08,0,32768,32768
281.15,1.77234e-08,0,32768,32768
281.2,1.95632e-08,0,32768,32768
281.251,2.17102e-08,0,32768,32768
281.301,2.40506e-08,0,32768,32768
281.351,2.66467e-08,0,32768,32768
281.401,2.94966e-08,0,32708,32708
281.451,3.25901e-08,0,32768,32768
281.5,3.59089e-08,0,32768,32768
281.55,3.94281e-08,0,32768,32768
281.601,4.32306e-08,0,32768,32768
281.651,4.70719e-08,0,32768,32768
281.701,5.10373e-08,0,32768,32768
281.751,5.5115e-08,0,32768,32768
281.801,5.93033e-08,0,32768,32768
281.85,6.36111e-08,0,32768,32768
281.9,6.80546e-08,0,32768,32768
281.95,7.26521e-08,0,32768,32768
282.001,7.75609e-08,0,32768,32768
282.051,8.25138e-08,0,32768,32768
282.101,8.76848e-08,0,32768,32768
282.151,9.31732e-08,0,32768,32768
282.2,9.91404e-08,0,32768,32768
282.25,1.05714e-07,0,32768,32768
282.3,1.12855e-07,0,32768,32768
282.351,1.20556e-07,0,32768,32768
282.401,1.28096e-07,0,32768,32768
282.451,1.35583e-07,0,32768,32768
282.501,1.43172e-07,0,32768,32768
282.55,1.51249e-07,0,32768,32768
282.6,1.60311e-07,0,32768,32768
282.65,1.70864e-07,0,32768,32768
282.701,1.83773e-07,0,32768,32768
282.751,1.98756e-07,0,32768,32768
282.801,2.16608e-07,0,32768,32768
282.851,2.37816e-07,0,32768,32768
282.901,2.62845e-07,0,32768,32768
282.95,2.92037e-07,0,32768,32768
283,3.2551e-07,0,32768,32768
283.051,3.6426e-07,0,32768,32768
283.101,4.05636e-07,0,32768,32768
283.151,4.50087e-07,0,32768,32768
283.201,4.96951e-07,0,32768,32768
283.251,5.45536e-07,0,32768,32768
283.3,5.9507e-07,0,32768,32768
283.35,6.44578e-07,0,32768,32768
283.401,6.94168e-07,0,32768,32768
283.451,7.39404e-07,0,32768,32768
283.501,7.8003e-07,0,32768,32768
283.551,8.14486e-07,0,32768,32768
283.601,8.41613e-07,0,32768,32768
283.65,8.6084e-07,0,32768,32768
283.7,8.72205e-07,0,32768,32768
283.75,8.76231e-07,0,32768,32768
283.801,8.73529e-07,0,32768,32768
283.851,8.65045e-07,0,32768,32768
283.901,8.51365e-07,0,32768,32768
283.951,8.32751e-07,0,32768,32768
284,8.09173e-07,0,32768,32768
284.05,7.8041e-07,0,32768,32768
284.1,7.46216e-07,0,32768,32768
284.151,7.05257e-07,0,32768,32768
284.201,6.60123e-07,0,32768,32768
284.251,6.10396e-07,0,32768,32768
284.301,5.57164e-07,0,32768,32768
284.351,5.01825e-07,0,32768,32768
284.4,4.45898e-07,0,32768,32768
284.45,3.90821e-07,0,32768,32768
284.501,3.36248e-07,0,32768,32768
284.551,2.8613e-07,0,32768,32768
284.601,2.39315e-07,0,32768,32768
284.651,1.95955e-07,0,32768,32768
284.701,1.56033e-07,0,32768,32768
284.75,1.1949e-07,0,32768,32768
284.8,8.6318e-08,0,32768,32768
284.851,5.5755e-08,0,32768,32768
284.901,2.96299e-08,0,32768,32768
284.951,7.02108e-09,0,32768,32768
285.001,-1.22345e-08,0,32768,32768
285.051,-2.84958e-08,0,32768,32768
285.1,-4.22476e-08,0,32768,32768
285.15,-5.39514e-08,0,32768,32768
285.2,-6.39111e-08,0,32768,32768
285.251,-7.24627e-08,0,32768,32768
285.301,-7.91168e-08,0,32768,32768
285.351,-8.41471e-08,0,32768,32768
285.401,-8.76639e-08,0,32768,32768
285.45,-8.99092e-08,0,32768,32768
285.5,-9.12006e-08,0,32768,32768
285.55,-9.18269e-08,0,32768,32768
285.601,-9.19492e-08,0,32768,32768
285.651,-9.15653e-08,0,32768,32768
285.701,-9.05741e-08,0,32768,32768
285.751,-8.88439e-08,0,32768,32768
285.801,-8.63136e-08,0,32768,32768
285.85,-8.30393e-08,0,32768,32768
285.9,-7.91831e-08,0,32768,32768
285.951,-7.48355e-08,0,32768,32768
286.001,-7.04663e-08,0,32768,32768
286.051,-6.61317e-08,0,32768,32768
286.101,-6.19564e-08,0,32768,32768
286.151,-5.80192e-08,0,32768,32768
286.2,-5.43647e-08,0,32768,32768
286.25,-5.10116e-08,0,32768,32768
286.301,-4.78745e-08,0,32768,32768
286.351,-4.51188e-08,0,32768,32768
286.401,-4.2631e-08,0,32768,32768
286.451,-4.03923e-08,0,32768,32768
286.501,-3.83885e-08,0,32768,32768
286.55,-3.66105e-08,0,32768,32768
286.6,-3.50516e-08,0,32768,32768
286.651,-3.36681e-08,0,32768,32768
286.701,-3.25294e-08,0,32768,32768
286.751,-3.15802e-08,0,32768,32768
286.801,-3.0806e-08,0,32768,32768
286.851,-3.01908e-08,0,32768,32768
286.9,-2.97178e-08,0,32768,32768
286.95,-2.93703e-08,0,32768,32768
287,-2.91317e-08,0,32736,32736
287.051,-2.89831e-08,0,32736,32736
287.101,-2.8918e-08,0,32752,32752
287.151,-2.89179e-08,0,32704,32704
287.201,-2.89715e-08,0,32720,32720
287.25,-2.90689e-08,0,32688,32688
287.3,-2.92016e-08,0,32688,32688
287.35,-2.93617e-08,0,32688,32688
287.401,-2.95477e-08,0,32688,32688
287.451,-2.9742e-08,0,32672,32672
287.501,-2.99441e-08,0,32688,32688
287.551,-3.0149e-08,0,32688,32688
287.601,-3.03529e-08,0,32688,32688
287.65,-3.05528e-08,0,32688,32688
287.7,-3.07461e-08,0,32672,32672
287.751,-3.09357e-08,0,32688,32688
287.801,-3.11081e-08,0,32688,32688
287.851,-3.12664e-08,0,32688,32688
287.901,-3.14079e-08,0,32672,32672
287.951,-3.15305e-08,0,32664,32664
288,-3.16325e-08,0,32664,32664
288.05,-3.17131e-08,0,32664,32664
288.101,-3.17735e-08,0,32648,32648
288.151,-3.18108e-08,0,32656,32656
288.201,-3.18279e-08,0,32632,32632
288.251,-3.18262e-08,0,32648,32648
288.301,-3.18071e-08,0,32648,32648
288.35,-3.17722e-08,0,32624,32624
288.4,-3.17232e-08,0,32616,32616
288.45,-3.16614e-08,0,32624,32624
288.501,-3.15863e-08,0,32624,32624
288.551,-3.15034e-08,0,32624,32624
288.601,-3.1412e-08,0,32608,32608
288.651,-3.13135e-08,0,32600,32600
288.7,-3.12089e-08,0,32616,32616
288.75,-3.10993e-08,0,32600,32600
288.8,-3.09857e-08,0,32608,32608
288.851,-3.08651e-08,0,32624,32624
288.901,-3.07448e-08,0,32616,32616
288.951,-3.06209e-08,0,32632,32632
289.001,-3.04967e-08,0,32600,32600
289.051,-3.03737e-08,0,32592,32592
289.1,-3.02475e-08,0,32592,32592
289.15,-3.01208e-08,0,32600,32600
289.201,-2.99887e-08,0,32592,32592
289.251,-2.98578e-08,0,32600,32600
289.301,-2.9727e-08,0,32600,32600
289.351,-2.9594e-08,0,32616,32616
289.401,-2.94549e-08,0,32592,32592
289.45,-2.93093e-08,0,32608,32608
289.5,-2.91563e-08,0,32608,32608
289.551,-2.89875e-08,0,32600,32600
289.601,-2.8809e-08,0,32592,32592
289.651,-2.86134e-08,0,32584,32584
289.701,-2.83979e-08,0,32592,32592
289.751,-2.81597e-08,0,32600,32600
289.8,-2.78961e-08,0,32592,32592
289.85,-2.76051e-08,0,32592,32592
289.901,-2.72754e-08,0,32592,32592
289.951,-2.69252e-08,0,32600,32600
290.001,-2.65459e-08,0,32604,32604
290.051,-2.61391e-08,0,32724,32724
290.101,-2.57073e-08,0,32768,32768
290.15,-2.52545e-08,0,32768,32768
290.2,-2.4786e-08,0,32768,32768
290.25,-2.43083e-08,0,32768,32768
290.301,-2.38145e-08,0,32768,32768
290.351,-2.33403e-08,0,32768,32768
290.401,-2.28789e-08,0,32768,32768
290.451,-2.24372e-08,0,32768,32768
290.5,-2.20216e-08,0,32768,32768
290.55,-2.16377e-08,0,32768,32768
290.6,-2.12904e-08,0,32768,32768
290.651,-2.09754e-08,0,32768,32768
290.701,-2.07141e-08,0,32768,32768
290.751,-2.05e-08,0,32768,32768
290.801,-2.0335e-08,0,32768,32768
290.851,-2.02186e-08,0,32768,32768
290.9,-2.01491e-08,0,32768,32768
290.95,-2.01252e-08,0,32768,32768
291.001,-2.01481e-08,0,32768,32768
291.051,-2.02189e-08,0,32768,32768
291.101,-2.03345e-08,0,32768,32768
291.151,-2.04822e-08,0,32768,32768
291.201,-2.06525e-08,0,32768,32768
291.25,-2.08433e-08,0,32768,32768
291.3,-2.10516e-08,0,32768,32768
291.351,-2.12813e-08,0,32768,32768
291.401,-2.15152e-08,0,32768,32768
291.451,-2.17508e-08,0,32768,32768
291.501,-2.19787e-08,0,32768,32768
291.551,-2.21932e-08,0,32768,32768
291.6,-2.23946e-08,0,32768,32768
291.65,-2.25814e-08,0,32768,32768
291.7,-2.2745e-08,0,32768,32768
291.751,-2.28855e-08,0,32768,32768
291.801,-2.29982e-08,0,32768,32768
291.851,-2.30887e-08,0,32768,32768
291.901,-2.31545e-08,0,32768,32768
291.95,-2.31927e-08,0,32768,32768
292,-2.32068e-08,0,32768,32768
292.05,-2.32003e-08,0,32768,32768
292.101,-2.31715e-08,0,32768,32768
292.151,-2.31246e-08,0,32768,32768
292.201,-2.30618e-08,0,32768,32768
292.251,-2.29835e-08,0,32768,32768
292.301,-2.28928e-08,0,32768,32768
292.35,-2.27913e-08,0,32768,32768
292.4,-2.26788e-08,0,32768,32768
292.451,-2.25544e-08,0,32768,32768
292.501,-2.24252e-08,0,32768,32768
292.551,-2.22863e-08,0,32768,32768
292.601,-2.21389e-08,0,32768,32768
292.651,-2.19849e-08,0,32768,32768
292.7,-2.1826e-08,0,32768,32768
292.75,-2.16651e-08,0,32768,32768
292.801,-2.14983e-08,0,32768,32768
292.851,-2.13341e-08,0,32768,32768
292.901,-2.1168e-08,0,32768,32768
292.951,-2.1002e-08,0,32768,32768
293.001,-2.08387e-08,0,32768,32768
293.05,-2.06804e-08,0,32768,32768
293.1,-2.05283e-08,0,32768,32768
293.15,-2.0383e-08,0,32768,32768
293.201,-2.02414e-08,0,32768,32768
293.251,-2.01131e-08,0,32768,32768
293.301,-1.99967e-08,0,32768,32768
293.351,-1.98938e-08,0,32768,32768
293.4,-1.98028e-08,0,32768,32768
293.45,-1.97215e-08,0,32768,32768
293.5,-1.96481e-08,0,32768,32768
293.551,-1.95794e-08,0,32768,32768
293.601,-1.95191e-08,0,32768,32768
293.651,-1.9463e-08,0,32768,32768
293.701,-1.94081e-08,0,32768,32768
293.75,-1.93535e-08,0,32768,32768
293.8,-1.92994e-08,0,32768,32768
293.85,-1.92466e-08,0,32768,32768
293.901,-1.91945e-08,0,32768,32768
293.951,-1.91449e-08,0,32768,32768
294.001,-1.90958e-08,0,32768,32768
294.051,-1.90473e-08,0,32768,32768
294.101,-1.89977e-08,0,32768,32768
294.15,-1.8946e-08,0,32768,32768
294.2,-1.8891e-08,0,32768,32768
294.251,-1.88284e-08,0,32768,32768
294.301,-1.87611e-08,0,32768,32768
294.351,-1.86886e-08,0,32768,32768
294.401,-1.86116e-08,0,32460,32460
294.451,-1.85298e-08,0,32172,32172
294.5,-1.84425e-08,0,31980,31980
294.55,-1.83509e-08,0,31836,31836
294.601,-1.82544e-08,0,31700,31700
294.651,-1.81594e-08,0,31596,31596
294.701,-1.8063e-08,0,31476,31476
294.751,-1.79657e-08,0,31380,31380
294.801,-1.78683e-08,0,31260,31260
294.85,-1.77707e-08,0,31164,31164
294.9,-1.76718e-08,0,31068,31068
294.95,-1.75712e-08,0,30972,30972
295.001,-1.74665e-08,0,30852,30852
295.051,-1.73636e-08,0,30756,30756
295.101,-1.72584e-08,0,30636,30636
295.151,-1.71503e-08,0,30516,30516
295.2,-1.704e-08,0,30396,30396
295.25,-1.69277e-08,0,30276,30276
295.3,-1.68131e-08,0,30156,30156
295.351,-1.66922e-08,0,30020,30020
295.401,-1.65715e-08,0,29892,29892
295.451,-1.64472e-08,0,29772,29772
295.501,-1.63188e-08,0,29636,29636
295.551,-1.6186e-08,0,29508,29508
295.6,-1.60483e-08,0,29388,29388
295.65,-1.59053e-08,0,29276,29276
295.701,-1.57526e-08,0,29156,29156
295.751,-1.5599e-08,0,29052,29052
295.801,-1.54403e-08,0,28932,28932
295.851,-1.52766e-08,0,28812,28812
295.901,-1.51081e-08,0,28692,28692
295.95,-1.49347e-08,0,28572,28572
296,-1.47563e-08,0,28452,28452
296.051,-1.45672e-08,0,28308,28308
296.101,-1.4378e-08,0,28188,28188
296.151,-1.41831e-08,0,28044,28044
296.201,-1.39824e-08,0,27924,27924
296.251,-1.37757e-08,0,27780,27780
296.3,-1.35631e-08,0,27644,27644
296.35,-1.33444e-08,0,27516,27516
296.4,-1.31195e-08,0,27372,27372
296.451,-1.28814e-08,0,27252,27252
296.501,-1.26433e-08,0,27108,27108
296.551,-1.23982e-08,0,26988,26988
296.601,-1.21454e-08,0,26844,26844
296.65,-1.18841e-08,0,26724,26724
296.7,-1.16133e-08,0,26580,26580
296.75,-1.13315e-08,0,26460,26460
296.801,-1.10281e-08,0,26316,26316
296.851,-1.07187e-08,0,26196,26196
296.901,-1.03925e-08,0,26052,26052
296.951,-1.00472e-08,0,25932,25932
297.001,-9.68082e-09,0,25788,25788
297.05,-9.29103e-09,0,25668,25668
297.1,-8.87597e-09,0,25532,25532
297.151,-8.42063e-09,0,25404,25404
297.201,-7.94986e-09,0,25268,25268
297.251,-7.45046e-09,0,25140,25140
297.301,-6.92246e-09,0,25004,25004
297.351,-6.36662e-09,0,24876,24876
297.4,-5.78449e-09,0,24756,24756
297.45,-5.17827e-09,0,24612,24612
297.501,-4.53124e-09,0,24492,24492
297.551,-3.879e-09,0,24348,24348
297.601,-3.19364e-09,0,24228,24228
297.651,-2.44889e-09,0,24092,24092
297.701,-1.57728e-09,0,23964,23964
297.75,-7.6295e-10,0,23844,23844
297.8,-3.57217e-10,0,23708,23708
297.851,1.51744e-10,0,23580,23580
297.901,6.91072e-10,0,23460,23460
297.951,1.24434e-09,0,23316,23316
298.001,1.7947e-09,0,23196,23196
298.051,2.32865e-09,0,23060,23060
298.1,2.83728e-09,0,22932,22932
298.15,3.31544e-09,0,22812,22812
298.2,3.75912e-09,0,22668,22668
298.251,4.17713e-09,0,22548,22548
298.301,4.54327e-09,0,22404,22404
298.351,4.8686e-09,0,22284,22284
298.401,5.15265e-09,0,22148,22148
298.45,5.39555e-09,0,22020,22020
298.5,5.59835e-09,0,21884,21884
298.55,5.76266e-09,0,21756,21756
298.601,5.89352e-09,0,21612,21612
298.651,5.9857e-09,0,21492,21492
298.701,6.0461e-09,0,21348,21348
298.751,6.07732e-09,0,21204,21204
298.801,6.08206e-09,0,21084,21084
298.85,6.06327e-09,0,20940,20940
298.9,6.02374e-09,0,20804,20804
298.951,5.96429e-09,0,20676,20676
299.001,5.89102e-09,0,20532,20532
299.051,5.80493e-09,0,20388,20388
299.101,5.70834e-09,0,20244,20244
299.151,5.6034e-09,0,20108,20108
299.2,5.49212e-09,0,19980,19980
299.25,5.37627e-09,0,19836,19836
299.301,5.25395e-09,0,19692,19692
299.351,5.13363e-09,0,19548,19548
299.401,5.01316e-09,0,19404,19404
299.451,4.89363e-09,0,19260,19260
299.501,4.77604e-09,0,19116,19116
299.55,4.66136e-09,0,18972,18972
299.6,4.55042e-09,0,18828,18828
299.65,4.444e-09,0,18684,18684
299.701,4.33995e-09,0,18540,18540
299.751,4.24487e-09,0,18396,18396
299.801,4.15626e-09,0,18236,18236
299.851,4.07456e-09,0,18084,18084
299.9,4.00007e-09,0,17940,17940
299.95,3.93292e-09,0,17780,17780
300,3.87308e-09,0,17620,17620
300.051,3.81889e-09,0,17492,17492
300.101,3.77305e-09,0,17308,17308
300.151,3.73336e-09,0,17204,17204
300.201,3.69912e-09,0,17020,17020
300.251,3.66952e-09,0,16860,16860
300.3,3.64364e-09,0,16748,16748
300.35,3.62042e-09,0,16556,16556
300.401,3.5982e-09,0,16452,16452
300.451,3.57715e-09,0,16276,16276
300.501,3.55561e-09,0,16076,16076
300.551,3.53267e-09,0,15996,15996
300.601,3.50763e-09,0,15804,15804
300.65,3.48e-09,0,15620,15620
300.7,3.44956e-09,0,15484,15484
300.751,3.41529e-09,0,15332,15332
300.801,3.37943e-09,0,15156,15156
300.851,3.34143e-09,0,14988,14988
300.901,3.30182e-09,0,14860,14860
300.951,3.26115e-09,0,14676,14676
301,3.21997e-09,0,14476,14476
301.05,3.17877e-09,0,14388,14388
301.1,3.13793e-09,0,14188,14188
301.151,3.09658e-09,0,13988,13988
301.201,3.05732e-09,0,13804,13804
301.251,3.01917e-09,0,13700,13700
301.301,2.98239e-09,0,13492,13492
301.35,2.94722e-09,0,13292,13292
301.4,2.914e-09,0,13172,13172
301.45,2.88306e-09,0,12988,12988
301.501,2.85397e-09,0,12780,12780
301.551,2.82869e-09,0,12628,12628
301.601,2.80657e-09,0,12468,12468
301.651,2.78775e-09,0,12276,12276
301.701,2.77225e-09,0,12124,12124
301.75,2.75984e-09,0,11956,11956
301.8,2.75006e-09,0,11756,11756
301.851,2.74216e-09,0,11628,11628
301.901,2.73616e-09,0,11428,11428
301.951,2.73144e-09,0,11228,11228
302.001,2.7276e-09,0,11124,11124
302.051,2.72414e-09,0,10908,10908
302.1,2.7206e-09,0,10716,10716
302.15,2.71661e-09,0,10604,10604
302.201,2.71179e-09,0,10380,10380
302.251,2.70628e-09,0,10228,10228
302.301,2.69988e-09,0,10060,10060
302.351,2.69262e-09,0,9876,9876
302.401,2.6845e-09,0,9756,9756
302.45,2.67543e-09,0,9540,9540
302.5,2.66532e-09,0,9388,9388
302.551,2.65388e-09,0,9204,9204
302.601,2.64188e-09,0,9012,9012
302.651,2.62905e-09,0,8876,8876
302.701,2.61529e-09,0,8676,8676
302.751,2.60058e-09,0,8556,8556
302.8,2.58506e-09,0,8340,8340
302.851,2.56865e-09,0,8192,8192
302.901,2.55198e-09,0,8192,8192
302.951,2.53472e-09,0,8192,8192
303,2.51681e-09,0,8192,8192
303.05,2.49831e-09,0,8192,8192
303.1,2.47935e-09,0,8192,8192
303.153,2.45889e-09,0,8192,8192
303.203,2.43916e-09,0,8192,8192
303.252,2.41891e-09,0,8192,8192
303.302,2.39807e-09,0,8192,8192
303.352,2.3767e-09,0,8192,8192
303.402,2.35497e-09,0,8192,8192
303.452,2.33308e-09,0,8192,8192
303.501,2.31111e-09,0,8192,8192
303.551,2.289e-09,0,8192,8192
303.601,2.26671e-09,0,8192,8192
303.651,2.24428e-09,0,8192,8192
303.701,2.22188e-09,0,8192,8192
303.75,2.19969e-09,0,8192,8192
303.8,2.17778e-09,0,8192,8192
303.853,2.15481e-09,0,8192,8192
303.903,2.13326e-09,0,8192,8192
303.952,2.11184e-09,0,8192,8192
304.002,2.09064e-09,0,8192,8192
304.052,2.06976e-09,0,8192,8192
304.102,2.04931e-09,0,8192,8192
304.152,2.02927e-09,0,8192,8192
304.201,2.00957e-09,0,8192,8192
304.251,1.9901e-09,0,8192,8192
304.301,1.97082e-09,0,8192,8192
304.351,1.95176e-09,0,8192,8192
304.401,1.93295e-09,0,8192,8192
304.45,1.91443e-09,0,8192,8192
304.5,1.89616e-09,0,8192,8192
304.55,1.87799e-09,0,8192,8192
304.603,1.85868e-09,0,8192,8192
304.653,1.84023e-09,0,8192,8192
304.702,1.82156e-09,0,8192,8192
304.752,1.80269e-09,0,8192,8192
304.802,1.78368e-09,0,8192,8192
304.852,1.76451e-09,0,8192,8192
304.902,1.7451e-09,0,8192,8192
304.951,1.72534e-09,0,8192,8192
