250,0,0,32768,32768
250.001,0,0,32768,32768
250.051,0,0,32768,32768
250.101,0,0,32768,32768
250.151,0,0,32768,32768
250.201,0,0,32768,32768
250.25,0,0,32768,32768
250.3,0,0,32768,32768
250.35,0,0,32768,32768
250.401,0,0,32768,32768
250.451,0,0,32768,32768
250.501,0,0,32768,32768
250.551,0,0,32768,32768
250.6,0,0,32768,32768
250.65,0,0,32768,32768
250.7,0,0,32768,32768
250.751,0,0,32768,32768
250.801,0,0,32768,32768
250.851,0,0,32768,32768
250.901,0,0,32768,32768
250.951,0,0,32768,32768
251,0,0,32768,32768
251.05,0,0,32768,32768
251.101,0,0,32768,32768
251.151,0,0,32768,32768
251.201,0,0,32768,32768
251.251,0,0,32768,32768
251.301,0,0,32768,32768
251.35,0,0,32768,32768
251.4,0,0,32768,32768
251.451,0,0,32768,32768
251.501,0,0,32768,32768
251.551,0,0,32768,32768
251.601,0,0,32768,32768
251.651,2.77556e-17,0,32768,32768
251.7,2.77556e-17,0,32768,32768
251.75,2.77556e-17,0,32768,32768
251.8,2.77556e-17,0,32768,32768
251.851,2.77556e-17,0,32768,32768
251.901,2.77556e-17,0,32768,32768
251.951,5.55112e-17,0,32768,32768
252.001,2.77556e-17,0,32768,32768
252.05,2.77556e-17,0,32768,32768
252.1,0,0,32768,32768
252.15,0,0,32768,32768
252.201,0,0,32768,32768
252.251,0,0,32768,32768
252.301,0,0,32768,32768
252.351,0,0,32768,32768
252.401,0,0,32768,32768
252.45,0,0,32768,32768
252.5,0,0,32768,32768
252.551,0,0,32768,32768
252.601,0,0,32768,32768
252.651,0,0,32768,32768
252.701,0,0,32768,32768
252.751,0,0,32768,32768
252.8,0,0,32768,32768
252.85,0,0,32768,32768
252.901,0,0,32768,32768
252.951,0,0,32768,32768
253.001,0,0,32768,32768
253.051,0,0,32768,32768
253.101,0,0,32768,32768
253.15,0,0,32768,32768
253.2,0,0,32768,32768
253.25,0,0,32768,32768
253.301,2.77556e-17,0,32768,32768
253.351,2.77556e-17,0,32768,32768
253.401,2.77556e-17,0,32768,32768
253.451,2.77556e-17,0,32768,32768
253.5,-2.77556e-17,0,32768,32768
253.55,-2.77556e-17,0,32768,32768
253.6,0,0,32768,32768
253.651,-2.77556e-17,0,32768,32768
253.701,0,0,32768,32768
253.751,0,0,32768,32768
253.801,0,0,32768,32768
253.851,0,0,32768,32768
253.9,0,0,32768,32768
253.95,0,0,32768,32768
254.001,-2.77556e-17,0,32768,32768
254.051,-2.77556e-17,0,32768,32768
254.101,-2.77556e-17,0,32768,32768
254.151,-2.77556e-17,0,32768,32768
254.201,-2.77556e-17,0,32768,32768
254.25,-2.77556e-17,0,32768,32768
254.3,0,0,32768,32768
254.351,0,0,32768,32768
254.401,0,0,32768,32768
254.451,0,0,32768,32768
254.501,0,0,32768,32768
254.551,0,0,32768,32768
254.6,0,0,32768,32768
254.65,2.77556e-17,0,32768,32768
254.701,2.77556e-17,0,32768,32768
254.751,5.55112e-17,0,32768,32768
254.801,2.77556e-17,0,32768,32768
254.851,0,0,32768,32768
254.901,-2.77556e-17,0,32768,32768
254.95,-2.77556e-17,0,32768,32768
255,-2.77556e-17,0,32768,32768
255.05,-2.77556e-17,0,32768,32768
255.101,-2.77556e-17,0,32768,32768
255.151,-2.77556e-17,0,32768,32768
255.201,-5.55112e-17,0,32768,32768
255.251,-2.77556e-17,0,32768,32768
255.3,-2.77556e-17,0,32768,32768
255.35,-2.77556e-17,0,32768,32768
255.4,-2.77556e-17,0,32768,32768
255.451,-2.77556e-17,0,32768,32768
255.501,-2.77556e-17,0,32768,32768
255.551,-2.77556e-17,0,32768,32768
255.601,-2.77556e-17,0,32768,32768
255.651,-2.77556e-17,0,32768,32768
255.7,-2.77556e-17,0,32768,32768
255.75,-2.77556e-17,0,32768,32768
255.801,-2.77556e-17,0,32768,32768
255.851,-2.77556e-17,0,32768,32768
255.901,-2.77556e-17,0,32768,32768
255.951,-2.77556e-17,0,32768,32768
256.001,-2.77556e-17,0,32768,32768
256.05,-2.77556e-17,0,32768,32768
256.1,-2.77556e-17,0,32768,32768
256.151,-2.77556e-17,0,32768,32768
256.201,-2.77556e-17,0,32768,32768
256.251,-2.77556e-17,0,32768,32768
256.301,-2.77556e-17,0,32768,32768
256.351,-2.77556e-17,0,32768,32768
256.4,-2.77556e-17,0,32768,32768
256.45,-2.77556e-17,0,32768,32768
256.5,-2.77556e-17,0,32768,32768
256.551,-2.77556e-17,0,32768,32768
256.601,-2.77556e-17,0,32768,32768
256.651,-2.77556e-17,0,32768,32768
256.701,-2.77556e-17,0,32768,32768
256.75,-2.77556e-17,0,32768,32768
256.8,-2.77556e-17,0,32768,32768
256.85,-2.77556e-17,0,32768,32768
256.901,-2.77556e-17,0,32768,32768
256.951,-2.77556e-17,0,32768,32768
257.001,-2.77556e-17,0,32768,32768
257.051,-2.77556e-17,0,32768,32768
257.101,-2.77556e-17,0,32768,32768
257.15,-2.77556e-17,0,32768,32768
257.2,-2.77556e-17,0,32768,32768
257.251,-2.77556e-17,0,32768,32768
257.301,-2.77556e-17,0,32768,32768
257.351,2.77556e-17,0,32768,32768
257.401,2.77556e-17,0,32768,32768
257.451,2.77556e-17,0,32768,32768
257.5,2.77556e-17,0,32768,32768
257.55,2.77556e-17,0,32768,32768
257.601,0,0,32768,32768
257.651,0,0,32768,32768
257.701,0,0,32768,32768
257.751,0,0,32768,32768
257.801,0,0,32768,32768
257.85,0,0,32768,32768
257.9,0,0,32768,32768
257.95,0,0,32768,32768
258.001,0,0,32768,32768
258.051,0,0,32768,32768
258.101,0,0,32768,32768
258.151,0,0,32768,32768
258.2,0,0,32768,32768
258.25,0,0,32768,32768
258.3,0,0,32768,32768
258.351,0,0,32768,32768
258.401,0,0,32768,32768
258.451,0,0,32768,32768
258.501,0,0,32768,32768
258.551,0,0,32768,32768
258.6,0,0,32768,32768
258.65,0,0,32768,32768
258.701,0,0,32768,32768
258.751,0,0,32768,32768
258.801,0,0,32768,32768
258.851,0,0,32768,32768
258.901,0,0,32768,32768
258.95,0,0,32768,32768
259,0,0,32768,32768
259.051,0,0,32768,32768
259.101,0,0,32768,32768
259.151,5.55112e-17,0,32768,32768
259.201,5.55112e-17,0,32768,32768
259.251,2.77556e-17,0,32768,32768
259.3,2.77556e-17,0,32768,32768
259.35,-2.77556e-17,0,32768,32768
259.401,-2.77556e-17,0,32768,32768
259.451,2.77556e-17,0,32768,32768
259.501,2.77556e-17,0,32768,32768
259.551,5.55112e-17,0,32768,32768
259.601,8.32667e-17,0,32768,32768
259.65,5.55112e-17,0,32768,32768
259.7,5.55112e-17,0,32768,32768
259.75,8.32667e-17,0,32768,32768
259.801,1.11022e-16,0,32768,32768
259.851,1.11022e-16,0,32768,32768
259.901,1.11022e-16,0,32768,32768
259.951,1.11022e-16,0,32768,32768
260,8.32667e-17,0,32768,32768
260.05,8.32667e-17,0,32768,32768
260.1,1.11022e-16,0,32768,32768
260.151,1.11022e-16,0,32768,32768
260.201,1.11022e-16,0,32768,32768
260.251,1.11022e-16,0,32768,32768
260.301,8.32667e-17,0,32768,32768
260.351,1.11022e-16,0,32768,32768
260.4,1.11022e-16,0,32768,32768
260.45,1.11022e-16,0,32768,32768
260.501,8.32667e-17,0,32768,32768
260.551,8.32667e-17,0,32768,32768
260.601,1.11022e-16,0,32768,32768
260.651,1.11022e-16,0,32768,32768
260.701,5.55112e-17,0,32768,32768
260.75,8.32667e-17,0,32768,32768
260.8,8.32667e-17,0,32768,32768
260.851,8.32667e-17,0,32768,32768
260.901,8.32667e-17,0,32768,32768
260.951,8.32667e-17,0,32768,32768
261.001,8.32667e-17,0,32768,32768
261.051,8.32667e-17,0,32768,32768
261.1,8.32667e-17,0,32768,32768
261.15,8.32667e-17,0,32768,32768
261.2,8.32667e-17,0,32768,32768
261.251,8.32667e-17,0,32768,32768
261.301,5.55112e-17,0,32768,32768
261.351,5.55112e-17,0,32768,32768
261.401,2.77556e-17,0,32768,32768
261.45,2.77556e-17,0,32768,32768
261.5,2.77556e-17,0,32768,32768
261.55,2.77556e-17,0,32768,32768
261.601,5.55112e-17,0,32768,32768
261.651,5.55112e-17,0,32768,32768
261.701,5.55112e-17,0,32768,32768
261.751,5.55112e-17,0,32768,32768
261.801,5.55112e-17,0,32768,32768
261.85,5.55112e-17,0,32768,32768
261.9,5.55112e-17,0,32768,32768
261.951,0,0,32768,32768
262.001,0,0,32768,32768
262.051,0,0,32768,32768
262.101,0,0,32768,32768
262.151,2.77556e-17,0,32768,32768
262.2,2.77556e-17,0,32768,32768
262.25,2.77556e-17,0,32768,32768
262.301,2.77556e-17,0,32768,32768
262.351,2.77556e-17,0,32768,32768
262.401,0,0,32768,32768
262.451,0,0,32768,32768
262.501,0,0,32768,32768
262.55,0,0,32768,32768
262.6,0,0,32768,32768
262.651,0,0,32768,32768
262.701,0,0,32768,32768
262.751,0,0,32768,32768
262.801,0,0,32768,32768
262.851,0,0,32768,32768
262.9,0,0,32768,32768
262.95,0,0,32768,32768
263,0,0,32768,32768
263.051,0,0,32768,32768
263.101,0,0,32768,32768
263.151,0,0,32768,32768
263.201,0,0,32768,32768
263.25,5.55112e-17,0,32768,32768
263.3,5.55112e-17,0,32768,32768
263.35,2.77556e-17,0,32768,32768
263.401,0,0,32768,32768
263.451,0,0,32768,32768
263.501,0,0,32768,32768
263.551,0,0,32768,32768
263.601,0,0,32768,32768
263.65,0,0,32768,32768
263.7,0,0,32768,32768
263.751,0,0,32768,32768
263.801,0,0,32768,32768
263.851,0,0,32768,32768
263.901,0,0,32768,32768
263.951,0,0,32768,32768
264,0,0,32768,32768
264.05,0,0,32768,32768
264.101,0,0,32768,32768
264.151,0,0,32768,32768
264.201,0,0,32768,32768
264.251,0,0,32768,32768
264.301,0,0,32768,32768
264.35,0,0,32768,32768
264.4,0,0,32768,32768
264.45,0,0,32768,32768
264.501,0,0,32768,32768
264.551,0,0,32768,32768
264.601,0,0,32768,32768
264.651,0,0,32768,32768
264.7,0,0,32768,32768
264.75,0,0,32768,32768
264.8,0,0,32768,32768
264.851,0,0,32768,32768
264.901,0,0,32768,32768
264.951,0,0,32768,32768
265.001,0,0,32768,32768
265.051,0,0,32768,32768
265.1,0,0,32768,32768
265.15,0,0,32768,32768
265.201,0,0,32768,32768
265.251,0,0,32768,32768
265.301,0,0,32768,32768
265.351,0,0,32768,32768
265.401,0,0,32768,32768
265.45,0,0,32768,32768
265.5,0,0,32768,32768
265.551,0,0,32768,32768
265.601,0,0,32768,32768
265.651,0,0,32768,32768
265.701,0,0,32768,32768
265.751,0,0,32768,32768
265.8,0,0,32768,32768
265.85,0,0,32768,32768
265.9,0,0,32768,32768
265.951,0,0,32768,32768
266.001,0,0,32768,32768
266.051,2.77556e-17,0,32768,32768
266.101,2.77556e-17,0,32768,32768
266.15,2.77556e-17,0,32768,32768
266.2,2.77556e-17,0,32768,32768
266.25,0,0,32768,32768
266.301,0,0,32768,32768
266.351,0,0,32768,32768
266.401,0,0,32768,32768
266.451,0,0,32768,32768
266.501,0,0,32768,32768
266.55,0,0,32768,32768
266.6,0,0,32768,32768
266.651,0,0,32768,32768
266.701,0,0,32768,32768
266.751,0,0,32768,32768
266.801,0,0,32768,32768
266.851,0,0,32768,32768
266.9,2.77556e-17,0,32768,32768
266.95,8.32667e-17,0,32768,32768
267.001,8.32667e-17,0,32768,32768
267.051,5.55112e-17,0,32768,32768
267.101,8.32667e-17,0,32768,32768
267.151,8.32667e-17,0,32768,32768
267.201,8.32667e-17,0,32768,32768
267.25,5.55112e-17,0,32768,32768
267.3,2.77556e-17,0,32768,32768
267.351,2.77556e-17,0,32768,32768
267.401,2.77556e-17,0,32768,32768
267.451,2.77556e-17,0,32768,32768
267.501,2.77556e-17,0,32768,32768
267.551,2.77556e-17,0,32768,32768
267.6,2.77556e-17,0,32768,32768
267.65,2.77556e-17,0,32768,32768
267.7,2.77556e-17,0,32768,32768
267.751,2.77556e-17,0,32768,32768
267.801,2.77556e-17,0,32768,32768
267.851,2.77556e-17,0,32768,32768
267.901,2.77556e-17,0,32768,32768
267.95,2.77556e-17,0,32768,32768
268,2.77556e-17,0,32768,32768
268.05,2.77556e-17,0,32768,32768
268.101,2.77556e-17,0,32768,32768
268.151,2.77556e-17,0,32768,32768
268.201,2.77556e-17,0,32768,32768
268.251,2.77556e-17,0,32768,32768
268.301,2.77556e-17,0,32768,32768
268.35,2.77556e-17,0,32768,32768
268.4,2.77556e-17,0,32768,32768
268.451,2.77556e-17,0,32768,32768
268.501,2.77556e-17,0,32768,32768
268.551,2.77556e-17,0,32768,32768
268.601,2.77556e-17,0,32768,32768
268.651,2.77556e-17,0,32768,32768
268.7,5.55112e-17,0,32768,32768
268.75,5.55112e-17,0,32768,32768
268.801,8.32667e-17,0,32768,32768
268.851,5.55112e-17,0,32768,32768
268.901,8.32667e-17,0,32768,32768
268.951,8.32667e-17,0,32768,32768
269.001,8.32667e-17,0,32768,32768
269.05,5.55112e-17,0,32768,32768
269.1,5.55112e-17,0,32768,32768
269.15,5.55112e-17,0,32768,32768
269.201,5.55112e-17,0,32768,32768
269.251,5.55112e-17,0,32768,32768
269.301,5.55112e-17,0,32768,32768
269.351,5.55112e-17,0,32768,32768
269.4,5.55112e-17,0,32768,32768
269.45,5.55112e-17,0,32768,32768
269.5,5.55112e-17,0,32768,32768
269.551,8.32667e-17,0,32768,32768
269.601,8.32667e-17,0,32768,32768
269.651,8.32667e-17,0,32768,32768
269.701,8.32667e-17,0,32768,32768
269.751,5.55112e-17,0,32768,32768
269.8,8.32667e-17,0,32768,32768
269.85,5.55112e-17,0,32768,32768
269.901,5.55112e-17,0,32768,32768
269.95,5.55112e-17,0,32824,32824
270.001,5.55112e-17,0,33496,33496
270.05,5.55112e-17,0,34168,34168
270.1,5.55112e-17,0,34792,34792
270.151,5.55112e-17,0,35464,35464
270.2,5.55112e-17,0,36136,36136
270.25,5.55112e-17,0,36808,36808
270.3,5.55112e-17,0,37480,37480
270.351,5.55112e-17,0,38152,38152
270.4,5.55112e-17,0,38824,38824
270.45,5.55112e-17,0,39496,39496
270.501,5.55112e-17,0,40168,40168
270.551,5.55112e-17,0,40840,40840
270.6,5.55112e-17,0,41512,41512
270.65,5.55112e-17,0,42184,42184
270.701,5.55112e-17,0,42856,42856
270.75,5.55112e-17,0,43528,43528
270.8,5.55112e-17,0,44200,44200
270.85,5.55112e-17,0,44872,44872
270.901,5.55112e-17,0,45544,45544
270.95,5.55112e-17,0,46216,46216
271,5.55112e-17,0,46888,46888
271.051,5.55112e-17,0,47608,47608
271.1,5.55112e-17,0,48280,48280
271.15,5.55112e-17,0,48952,48952
271.2,5.55112e-17,0,49624,49624
271.251,5.55112e-17,0,50296,50296
271.3,5.55112e-17,0,50968,50968
271.35,5.55112e-17,0,51640,51640
271.401,5.55112e-17,0,52312,52312
271.451,5.55112e-17,0,52984,52984
271.5,5.55112e-17,0,53656,53656
271.55,5.55112e-17,0,54328,54328
271.601,5.55112e-17,0,55000,55000
271.65,5.55112e-17,0,55672,55672
271.7,5.55112e-17,0,56344,56344
271.75,5.55112e-17,0,57016,57016
271.801,5.55112e-17,0,57688,57688
271.85,5.55112e-17,0,58360,58360
271.9,5.55112e-17,0,59032,59032
271.951,5.55112e-17,0,59704,59704
272,5.55112e-17,0,60376,60376
272.05,5.55112e-17,0,61000,61000
272.1,5.55112e-17,0,61672,61672
272.151,5.55112e-17,0,62344,62344
272.2,5.55112e-17,0,62968,62968
272.25,5.55112e-17,0,63640,63640
272.3,5.55112e-17,0,64264,64264
272.351,5.55112e-17,0,64936,64936
272.4,5.55112e-17,0,65560,65560
272.45,5.55112e-17,0,66232,66232
272.501,5.55112e-17,0,66856,66856
272.55,5.55112e-17,0,67480,67480
272.6,5.55112e-17,0,68152,68152
272.65,5.55112e-17,0,68776,68776
272.701,5.55112e-17,0,69400,69400
272.75,5.55112e-17,0,70024,70024
272.8,5.55112e-17,0,70648,70648
272.851,5.55112e-17,0,71272,71272
272.9,5.55112e-17,0,71896,71896
272.95,5.55112e-17,0,72520,72520
273,5.55112e-17,0,73144,73144
273.051,5.55112e-17,0,73768,73768
273.1,5.55112e-17,0,74392,74392
273.15,5.55112e-17,0,75016,75016
273.2,5.55112e-17,0,75592,75592
273.251,5.55112e-17,0,76216,76216
273.3,5.55112e-17,0,76840,76840
273.35,5.55112e-17,0,77416,77416
273.401,5.55112e-17,0,78040,78040
273.45,5.55112e-17,0,78240,78240
273.5,5.55112e-17,0,78144,78144
273.55,5.55112e-17,0,78048,78048
273.601,5.55112e-17,0,78000,78000
273.65,5.55112e-17,0,77952,77952
273.7,5.55112e-17,0,77872,77872
273.751,5.55112e-17,0,77920,77920
273.801,5.55112e-17,0,78000,78000
273.85,5.55112e-17,0,78240,78240
273.9,-3.88578e-16,0,78768,78768
273.951,-1.67644e-14,0,79344,79344
274,-1.84713e-13,0,79920,79920
274.05,-1.19432e-12,0,80496,80496
274.1,-5.53099e-12,0,81072,81072
274.151,-1.96736e-11,0,81648,81648
274.2,-5.31445e-11,0,82224,82224
274.25,-1.12922e-10,0,82800,82800
274.301,-1.91224e-10,0,83376,83376
274.35,-2.53431e-10,0,83904,83904
274.4,-2.5932e-10,0,84480,84480
274.45,-1.89158e-10,0,85056,85056
274.501,-6.44731e-11,0,85584,85584
274.55,5.41473e-11,0,86160,86160
274.6,1.16951e-10,0,86976,86976
274.651,1.11994e-10,0,88224,88224
274.701,7.27854e-11,0,89424,89424
274.75,4.80963e-11,0,90672,90672
274.8,6.33684e-11,0,91824,91824
274.851,1.05259e-10,0,93024,93024
274.9,1.36027e-10,0,94272,94272
274.95,1.32353e-10,0,95472,95472
275,1.02675e-10,0,96232,96232
275.051,7.73033e-11,0,96760,96760
275.1,8.11779e-11,0,97288,97288
275.15,1.10861e-10,0,97816,97816
275.201,1.41675e-10,0,98344,98344
275.25,1.48011e-10,0,98872,98872
275.3,1.26606e-10,0,99448,99448
275.35,9.62553e-11,0,99928,99928
275.401,8.31569e-11,0,100504,100504
275.45,1.00872e-10,0,101032,101032
275.5,1.37316e-10,0,101560,101560
275.55,1.62411e-10,0,102040,102040
275.601,1.50055e-10,0,102616,102616
275.65,1.05302e-10,0,103096,103096
275.7,6.80037e-11,0,103624,103624
275.751,8.27058e-11,0,104152,104152
275.8,1.48349e-10,0,104680,104680
275.85,2.04655e-10,0,105208,105208
275.9,1.9396e-10,0,105736,105736
275.951,1.75777e-10,0,106264,106264
276,4.00335e-10,0,106792,106792
276.05,1.22877e-09,0,107320,107320
276.101,2.96361e-09,0,107800,107800
276.151,5.53721e-09,0,108328,108328
276.2,8.64635e-09,0,108856,108856
276.25,1.5014e-08,0,109384,109384
276.301,2.2904e-08,0,109912,109912
276.35,2.815e-08,0,110392,110392
276.4,3.13581e-08,0,110920,110920
276.45,3.36951e-08,0,111448,111448
276.501,3.6736e-08,0,111928,111928
276.55,4.19189e-08,0,112456,112456
276.6,5.00921e-08,0,112984,112984
276.651,6.1273e-08,0,113464,113464
276.7,7.45386e-08,0,113992,113992
276.75,8.99375e-08,0,114520,114520
276.8,1.08321e-07,0,115000,115000
276.851,1.31547e-07,0,115528,115528
276.9,1.60427e-07,0,116008,116008
276.95,1.96212e-07,0,116536,116536
277.001,2.39684e-07,0,117016,117016
277.051,2.88502e-07,0,117544,117544
277.1,3.41152e-07,0,118024,118024
277.15,3.9556e-07,0,118552,118552
277.201,4.51883e-07,0,119032,119032
277.25,5.09583e-07,0,119560,119560
277.3,5.70878e-07,0,120040,120040
277.35,6.35416e-07,0,120568,120568
277.401,7.01207e-07,0,121048,121048
277.45,7.61938e-07,0,121528,121528
277.5,8.14636e-07,0,122056,122056
277.551,8.5738e-07,0,122536,122536
277.6,8.88116e-07,0,123064,123064
277.65,9.08342e-07,0,123544,123544
277.7,9.20127e-07,0,124024,124024
277.751,9.2601e-07,0,124504,124504
277.8,9.27706e-07,0,124984,124984
277.85,9.26096e-07,0,125464,125464
277.9,9.2101e-07,0,125896,125896
277.951,9.11522e-07,0,126328,126328
278,8.96806e-07,0,126760,126760
278.05,8.75568e-07,0,127192,127192
278.101,8.46251e-07,0,127624,127624
278.15,8.09015e-07,0,128008,128008
278.2,7.63623e-07,0,128440,128440
278.25,7.11497e-07,0,128824,128824
278.301,6.54476e-07,0,129208,129208
278.35,5.97386e-07,0,129544,129544
278.4,5.42006e-07,0,129928,129928
278.451,4.89162e-07,0,130360,130360
278.5,4.41051e-07,0,131072,131072
278.55,3.96872e-07,0,131072,131072
278.6,3.56174e-07,0,131072,131072
278.651,3.17739e-07,0,131072,131072
278.7,2.82016e-07,0,131072,131072
278.75,2.48012e-07,0,131072,131072
278.8,2.15865e-07,0,131072,131072
278.851,1.86128e-07,0,131072,131072
278.9,1.61199e-07,0,131072,131072
278.95,1.41621e-07,0,131072,131072
279.001,1.26527e-07,0,131072,131072
279.05,1.13984e-07,0,131072,131072
279.1,1.01258e-07,0,131072,131072
279.15,8.74527e-08,0,131072,131072
279.201,7.34106e-08,0,131072,131072
279.25,6.1376e-08,0,131072,131072
279.3,5.23202e-08,0,131072,131072
279.351,4.61866e-08,0,131072,131072
279.401,4.22542e-08,0,131072,131072
279.45,3.90696e-08,0,131072,131072
279.5,3.5281e-08,0,131072,131072
279.551,3.00576e-08,0,131072,131072
279.6,2.39814e-08,0,131072,131072
279.65,1.84502e-08,0,131072,131072
279.7,1.49741e-08,0,131072,131072
279.751,1.4061e-08,0,131072,131072
279.8,1.51085e-08,0,131072,131072
279.85,1.70912e-08,0,131072,131072
279.901,1.9359e-08,0,131072,131072
279.95,2.16431e-08,0,131072,131072
280,2.40609e-08,0,131072,131072
280.05,2.67305e-08,0,131072,131072
280.101,2.97303e-08,0,131072,131072
280.15,3.29082e-08,0,131072,131072
280.2,3.61711e-08,0,131072,131072
280.251,3.94835e-08,0,131072,131072
280.301,4.28566e-08,0,131072,131072
280.35,4.65036e-08,0,131072,131072
280.4,5.04311e-08,0,131072,131072
280.451,5.45961e-08,0,131072,131072
280.5,5.87966e-08,0,131072,131072
280.55,6.30605e-08,0,131072,131072
280.6,6.73849e-08,0,131072,131072
280.651,7.18616e-08,0,131072,131072
280.7,7.6426e-08,0,131072,131072
280.75,8.12387e-08,0,131072,131072
280.801,8.64697e-08,0,131072,131072
280.85,9.20126e-08,0,131072,131072
280.9,9.80504e-08,0,131072,131072
280.95,1.05038e-07,0,131072,131072
281.001,1.13478e-07,0,131072,131072
281.05,1.22426e-07,0,131072,131072
281.1,1.3072e-07,0,131072,131072
281.15,1.37765e-07,0,131072,131072
281.201,1.44061e-07,0,131072,131072
281.25,1.5042e-07,0,131072,131072
281.3,1.57972e-07,0,131072,131072
281.351,1.67587e-07,0,131072,131072
281.4,1.79284e-07,0,130848,130848
281.45,1.93244e-07,0,131072,131072
281.5,2.09641e-07,0,131072,131072
281.551,2.29325e-07,0,131072,131072
281.6,2.52612e-07,0,131072,131072
281.65,2.80702e-07,0,131072,131072
281.701,3.14742e-07,0,131072,131072
281.751,3.53723e-07,0,131072,131072
281.8,3.97344e-07,0,131072,131072
281.85,4.44359e-07,0,131072,131072
281.901,4.94283e-07,0,131072,131072
281.95,5.4497e-07,0,131072,131072
282,5.97029e-07,0,131040,131040
282.05,6.50414e-07,0,130912,130912
282.101,7.05146e-07,0,130912,130912
282.15,7.57696e-07,0,130912,130912
282.2,8.06063e-07,0,130912,130912
282.251,8.47906e-07,0,130848,130848
282.3,8.79822e-07,0,130832,130832
282.35,9.01532e-07,0,130768,130768
282.4,9.13361e-07,0,130736,130736
282.451,9.16603e-07,0,130752,130752
282.5,9.12925e-07,0,130736,130736
282.55,9.04008e-07,0,130736,130736
282.601,8.90631e-07,0,130720,130720
282.651,8.73479e-07,0,130720,130720
282.7,8.52073e-07,0,130720,130720
282.75,8.25716e-07,0,130688,130688
282.801,7.93054e-07,0,130688,130688
282.85,7.54319e-07,0,130672,130672
282.9,7.08787e-07,0,130672,130672
282.95,6.56852e-07,0,130640,130640
283.001,5.98884e-07,0,130688,130688
283.05,5.38572e-07,0,130560,130560
283.1,4.7746e-07,0,130608,130608
283.151,4.16882e-07,0,130560,130560
283.2,3.6025e-07,0,130560,130560
283.25,3.07593e-07,0,130560,130560
283.3,2.59185e-07,0,130560,130560
283.351,2.14205e-07,0,130528,130528
283.4,1.73502e-07,0,130560,130560
283.45,1.35929e-07,0,130512,130512
283.5,1.01227e-07,0,130528,130528
283.551,6.90734e-08,0,130560,130560
283.6,4.08392e-08,0,130512,130512
283.65,1.55753e-08,0,130512,130512
283.701,-3.26642e-09,0,130512,130512
283.75,-1.56649e-08,0,130512,130512
283.8,-3.08017e-08,0,130496,130496
283.85,-4.21624e-08,0,130512,130512
283.901,-5.27418e-08,0,130512,130512
283.95,-6.22772e-08,0,130544,130544
284,-7.02796e-08,0,130576,130576
284.051,-7.61459e-08,0,130576,130576
284.101,-7.95496e-08,0,130640,130640
284.15,-8.10105e-08,0,130656,130656
284.2,-8.137e-08,0,130720,130720
284.251,-8.14916e-08,0,130752,130752
284.3,-8.19862e-08,0,130784,130784
284.35,-8.26569e-08,0,130784,130784
284.4,-8.29783e-08,0,130816,130816
284.451,-8.22841e-08,0,130816,130816
284.5,-8.012e-08,0,130848,130848
284.55,-7.67236e-08,0,130816,130816
284.601,-7.24127e-08,0,130848,130848
284.65,-6.79141e-08,0,130816,130816
284.7,-6.34861e-08,0,130848,130848
284.75,-5.93102e-08,0,130848,130848
284.801,-5.53656e-08,0,130848,130848
284.85,-5.1779e-08,0,130816,130816
284.9,-4.85235e-08,0,130816,130816
284.951,-4.56012e-08,0,130816,130816
285.001,-4.31042e-08,0,130816,130816
285.05,-4.09426e-08,0,130816,130816
285.1,-3.90472e-08,0,130816,130816
285.151,-3.7343e-08,0,130752,130752
285.2,-3.5868e-08,0,130720,130720
285.25,-3.46049e-08,0,130688,130688
285.3,-3.35605e-08,0,130736,130736
285.351,-3.27193e-08,0,130688,130688
285.4,-3.20877e-08,0,130656,130656
285.45,-3.16295e-08,0,130656,130656
285.501,-3.13188e-08,0,130640,130640
285.55,-3.11433e-08,0,130592,130592
285.6,-3.10806e-08,0,130576,130576
285.65,-3.11112e-08,0,130576,130576
285.701,-3.12191e-08,0,130560,130560
285.75,-3.13856e-08,0,130560,130560
285.8,-3.15898e-08,0,130512,130512
285.85,-3.18126e-08,0,130512,130512
285.901,-3.20578e-08,0,130512,130512
285.95,-3.23195e-08,0,130512,130512
286,-3.25939e-08,0,130512,130512
286.051,-3.28729e-08,0,130512,130512
286.1,-3.31423e-08,0,130512,130512
286.15,-3.34079e-08,0,130480,130480
286.2,-3.36663e-08,0,130464,130464
286.251,-3.391e-08,0,130464,130464
286.3,-3.41288e-08,0,130464,130464
286.35,-3.43333e-08,0,130416,130416
286.401,-3.45298e-08,0,130464,130464
286.451,-3.47085e-08,0,130416,130416
286.5,-3.48793e-08,0,130416,130416
286.55,-3.50213e-08,0,130384,130384
286.601,-3.51475e-08,0,130416,130416
286.65,-3.52586e-08,0,130368,130368
286.7,-3.53375e-08,0,130416,130416
286.75,-3.53911e-08,0,130368,130368
286.801,-3.54243e-08,0,130368,130368
286.85,-3.54379e-08,0,130336,130336
286.9,-3.54312e-08,0,130368,130368
286.951,-3.54062e-08,0,130368,130368
287,-3.53645e-08,0,130320,130320
287.05,-3.531e-08,0,130320,130320
287.1,-3.52539e-08,0,130368,130368
287.151,-3.51903e-08,0,130368,130368
287.2,-3.51134e-08,0,130320,130320
287.25,-3.50323e-08,0,130320,130320
287.301,-3.49524e-08,0,130320,130320
287.351,-3.48701e-08,0,130336,130336
287.4,-3.47911e-08,0,130320,130320
287.45,-3.47172e-08,0,130368,130368
287.501,-3.46431e-08,0,130368,130368
287.55,-3.45726e-08,0,130384,130384
287.6,-3.45068e-08,0,130464,130464
287.65,-3.4445e-08,0,130464,130464
287.701,-3.439e-08,0,130512,130512
287.75,-3.43402e-08,0,130512,130512
287.8,-3.42968e-08,0,130560,130560
287.851,-3.42602e-08,0,130512,130512
287.9,-3.42311e-08,0,130560,130560
287.95,-3.42089e-08,0,130560,130560
288,-3.41936e-08,0,130512,130512
288.051,-3.41851e-08,0,130464,130464
288.1,-3.41839e-08,0,130464,130464
288.15,-3.41897e-08,0,130464,130464
288.201,-3.4203e-08,0,130416,130416
288.251,-3.42233e-08,0,130416,130416
288.3,-3.4251e-08,0,130368,130368
288.35,-3.42863e-08,0,130368,130368
288.401,-3.43296e-08,0,130320,130320
288.45,-3.43792e-08,0,130320,130320
288.5,-3.44353e-08,0,130320,130320
288.55,-3.44974e-08,0,130320,130320
288.601,-3.45667e-08,0,130272,130272
288.65,-3.46415e-08,0,130272,130272
288.7,-3.47228e-08,0,130272,130272
288.751,-3.48129e-08,0,130240,130240
288.8,-3.4911e-08,0,130224,130224
288.85,-3.50202e-08,0,130224,130224
288.9,-3.51404e-08,0,130224,130224
288.951,-3.5274e-08,0,130192,130192
289,-3.54208e-08,0,130176,130176
289.05,-3.55877e-08,0,130176,130176
289.1,-3.5776e-08,0,130176,130176
289.151,-3.59902e-08,0,130176,130176
289.2,-3.62258e-08,0,130144,130144
289.25,-3.64863e-08,0,130128,130128
289.301,-3.67759e-08,0,130176,130176
289.35,-3.70868e-08,0,130176,130176
289.4,-3.74231e-08,0,130144,130144
289.45,-3.77837e-08,0,130128,130128
289.501,-3.81727e-08,0,130128,130128
289.55,-3.8576e-08,0,130128,130128
289.6,-3.89946e-08,0,130096,130096
289.651,-3.94293e-08,0,130080,130080
289.7,-3.98615e-08,0,130128,130128
289.75,-4.02921e-08,0,130128,130128
289.8,-4.07156e-08,0,130128,130128
289.851,-4.11329e-08,0,130096,130096
289.9,-4.15282e-08,0,130080,130080
289.95,-4.19043e-08,0,130080,130080
290,-4.2258e-08,0,130360,130360
290.051,-4.25911e-08,0,131032,131032
290.1,-4.28905e-08,0,131072,131072
290.15,-4.31579e-08,0,131072,131072
290.201,-4.33924e-08,0,131072,131072
290.25,-4.35834e-08,0,131072,131072
290.3,-4.37315e-08,0,131072,131072
290.35,-4.38343e-08,0,131072,131072
290.401,-4.38913e-08,0,131072,131072
290.45,-4.39009e-08,0,131072,131072
290.5,-4.38653e-08,0,131072,131072
290.551,-4.37841e-08,0,131072,131072
290.601,-4.36612e-08,0,131072,131072
290.65,-4.34972e-08,0,131072,131072
290.7,-4.32932e-08,0,131072,131072
290.751,-4.30463e-08,0,131072,131072
290.8,-4.27639e-08,0,131072,131072
290.85,-4.24423e-08,0,131072,131072
290.9,-4.20807e-08,0,131072,131072
290.951,-4.16718e-08,0,131072,131072
291,-4.12266e-08,0,131072,131072
291.05,-4.0739e-08,0,131072,131072
291.101,-4.02004e-08,0,131072,131072
291.15,-3.96261e-08,0,131072,131072
291.2,-3.90084e-08,0,131072,131072
291.25,-3.83473e-08,0,131072,131072
291.301,-3.76329e-08,0,131072,131072
291.35,-3.68876e-08,0,131072,131072
291.4,-3.61044e-08,0,131072,131072
291.451,-3.52743e-08,0,131072,131072
291.501,-3.4426e-08,0,131072,131072
291.55,-3.35547e-08,0,131072,131072
291.6,-3.26679e-08,0,131072,131072
291.651,-3.17595e-08,0,131072,131072
291.7,-3.08624e-08,0,131072,131072
291.75,-2.99696e-08,0,131072,131072
291.8,-2.90873e-08,0,131072,131072
291.851,-2.82082e-08,0,131072,131072
291.9,-2.73616e-08,0,131072,131072
291.95,-2.65368e-08,0,131072,131072
292.001,-2.5726e-08,0,131072,131072
292.05,-2.49575e-08,0,131072,131072
292.1,-2.42246e-08,0,131072,131072
292.15,-2.3532e-08,0,131072,131072
292.201,-2.28747e-08,0,131072,131072
292.25,-2.22746e-08,0,131072,131072
292.3,-2.17233e-08,0,131072,131072
292.35,-2.12213e-08,0,131072,131072
292.401,-2.07621e-08,0,131072,131072
292.45,-2.03571e-08,0,131072,131072
292.5,-1.99966e-08,0,131072,131072
292.551,-1.9673e-08,0,131072,131072
292.6,-1.93925e-08,0,131072,131072
292.65,-1.91469e-08,0,131072,131072
292.7,-1.89332e-08,0,131072,131072
292.751,-1.87462e-08,0,131072,131072
292.8,-1.85885e-08,0,131072,131072
292.85,-1.84544e-08,0,131072,131072
292.901,-1.83386e-08,0,131072,131072
292.951,-1.82403e-08,0,131072,131072
293,-1.81544e-08,0,131072,131072
293.05,-1.80792e-08,0,131072,131072
293.101,-1.80127e-08,0,131072,131072
293.15,-1.79554e-08,0,131072,131072
293.2,-1.79047e-08,0,131072,131072
293.25,-1.7859e-08,0,131072,131072
293.301,-1.78162e-08,0,131072,131072
293.35,-1.77759e-08,0,131072,131072
293.4,-1.77362e-08,0,131072,131072
293.451,-1.76956e-08,0,131072,131072
293.5,-1.76549e-08,0,131072,131072
293.55,-1.76137e-08,0,131072,131072
293.6,-1.75717e-08,0,131072,131072
293.651,-1.75273e-08,0,131072,131072
293.7,-1.74801e-08,0,131072,131072
293.75,-1.74279e-08,0,131072,131072
293.801,-1.73684e-08,0,131072,131072
293.851,-1.73025e-08,0,131072,131072
293.9,-1.72289e-08,0,131072,131072
293.95,-1.71472e-08,0,131072,131072
294.001,-1.70558e-08,0,131072,131072
294.05,-1.69568e-08,0,131072,131072
294.1,-1.68489e-08,0,131072,131072
294.15,-1.6732e-08,0,131072,131072
294.201,-1.66049e-08,0,131072,131072
294.25,-1.64723e-08,0,131072,131072
294.3,-1.63332e-08,0,131072,131072
294.351,-1.61862e-08,0,131072,131072
294.4,-1.60358e-08,0,129464,129464
294.45,-1.58799e-08,0,128488,128488
294.5,-1.57187e-08,0,127784,127784
294.551,-1.55501e-08,0,127240,127240
294.6,-1.53802e-08,0,126760,126760
294.65,-1.5208e-08,0,126280,126280
294.7,-1.50342e-08,0,125864,125864
294.751,-1.48565e-08,0,125416,125416
294.8,-1.46787e-08,0,125016,125016
294.85,-1.44967e-08,0,124696,124696
294.901,-1.43054e-08,0,124280,124280
294.95,-1.41086e-08,0,123864,123864
295,-1.39025e-08,0,123496,123496
295.05,-1.36872e-08,0,123032,123032
295.101,-1.34601e-08,0,122568,122568
295.15,-1.32291e-08,0,122120,122120
295.2,-1.29923e-08,0,121608,121608
295.251,-1.27469e-08,0,121128,121128
295.301,-1.25e-08,0,120648,120648
295.35,-1.22471e-08,0,120120,120120
295.4,-1.19861e-08,0,119640,119640
295.451,-1.17103e-08,0,119176,119176
295.5,-1.14247e-08,0,118648,118648
295.55,-1.1122e-08,0,118136,118136
295.6,-1.07993e-08,0,117656,117656
295.651,-1.04486e-08,0,117176,117176
295.7,-1.00779e-08,0,116632,116632
295.75,-9.68028e-09,0,116152,116152
295.801,-9.24787e-09,0,115656,115656
295.85,-8.79181e-09,0,115176,115176
295.9,-8.30483e-09,0,114696,114696
295.95,-7.78595e-09,0,114232,114232
296.001,-7.22612e-09,0,113720,113720
296.05,-6.64114e-09,0,113192,113192
296.1,-6.0231e-09,0,112664,112664
296.151,-5.36412e-09,0,112120,112120
296.201,-4.68829e-09,0,111592,111592
296.25,-3.99224e-09,0,111064,111064
296.3,-3.27718e-09,0,110536,110536
296.351,-2.50717e-09,0,109976,109976
296.4,-1.66972e-09,0,109416,109416
296.45,-9.07714e-10,0,108888,108888
296.5,-3.50378e-10,0,108424,108424
296.551,3.11705e-10,0,107864,107864
296.6,9.85837e-10,0,107336,107336
296.65,1.64461e-09,0,106840,106840
296.701,2.286e-09,0,106280,106280
296.75,2.88873e-09,0,105752,105752
296.8,3.46076e-09,0,105224,105224
296.85,3.99707e-09,0,104744,104744
296.901,4.50235e-09,0,104184,104184
296.95,4.95995e-09,0,103688,103688
297,5.37306e-09,0,103160,103160
297.05,5.73986e-09,0,102664,102664
297.101,6.06325e-09,0,102088,102088
297.15,6.33376e-09,0,101560,101560
297.2,6.55833e-09,0,101064,101064
297.251,6.74147e-09,0,100568,100568
297.3,6.88126e-09,0,100072,100072
297.35,6.98354e-09,0,99544,99544
297.4,7.05172e-09,0,99016,99016
297.451,7.08919e-09,0,98488,98488
297.5,7.09828e-09,0,97976,97976
297.55,7.08276e-09,0,97480,97480
297.601,7.04538e-09,0,96952,96952
297.651,6.99035e-09,0,96472,96472
297.7,6.92044e-09,0,95992,95992
297.75,6.8384e-09,0,95432,95432
297.801,6.74519e-09,0,94888,94888
297.85,6.64558e-09,0,94392,94392
297.9,6.53997e-09,0,93912,93912
297.95,6.43013e-09,0,93384,93384
298.001,6.3161e-09,0,92904,92904
298.05,6.20258e-09,0,92424,92424
298.1,6.08923e-09,0,91912,91912
298.151,5.97556e-09,0,91400,91400
298.2,5.86567e-09,0,90904,90904
298.25,5.75864e-09,0,90424,90424
298.3,5.65491e-09,0,89896,89896
298.351,5.55366e-09,0,89336,89336
298.4,5.45838e-09,0,88840,88840
298.45,5.36836e-09,0,88312,88312
298.501,5.28306e-09,0,87736,87736
298.551,5.20555e-09,0,87192,87192
298.6,5.13497e-09,0,86664,86664
298.65,5.07159e-09,0,86120,86120
298.701,5.01458e-09,0,85560,85560
298.75,4.96547e-09,0,85032,85032
298.8,4.92301e-09,0,84488,84488
298.85,4.88677e-09,0,83928,83928
298.901,4.85552e-09,0,83352,83352
298.95,4.82931e-09,0,82792,82792
299,4.80664e-09,0,82248,82248
299.051,4.78637e-09,0,81672,81672
299.1,4.76813e-09,0,81144,81144
299.15,4.75084e-09,0,80616,80616
299.2,4.73376e-09,0,80040,80040
299.251,4.71586e-09,0,79464,79464
299.3,4.69695e-09,0,78920,78920
299.35,4.67601e-09,0,78360,78360
299.4,4.65235e-09,0,77800,77800
299.451,4.6252e-09,0,77224,77224
299.5,4.59545e-09,0,76648,76648
299.55,4.56308e-09,0,76072,76072
299.601,4.5283e-09,0,75496,75496
299.65,4.49306e-09,0,74856,74856
299.7,4.45774e-09,0,74280,74280
299.75,4.42292e-09,0,73624,73624
299.801,4.38841e-09,0,73048,73048
299.85,4.35512e-09,0,72472,72472
299.9,4.32221e-09,0,71880,71880
299.951,4.28878e-09,0,71304,71304
300,4.25548e-09,0,70728,70728
300.05,4.22174e-09,0,70184,70184
300.1,4.18775e-09,0,69496,69496
300.151,4.15351e-09,0,68872,68872
300.2,4.12066e-09,0,68280,68280
300.25,4.08942e-09,0,67752,67752
300.3,4.06045e-09,0,67144,67144
300.351,4.03372e-09,0,66392,66392
300.4,4.01006e-09,0,65832,65832
300.45,3.98879e-09,0,65240,65240
300.501,3.96913e-09,0,64536,64536
300.55,3.95104e-09,0,64008,64008
300.6,3.93361e-09,0,63240,63240
300.65,3.91637e-09,0,62728,62728
300.701,3.89876e-09,0,61960,61960
300.75,3.88119e-09,0,61416,61416
300.8,3.86334e-09,0,60696,60696
300.851,3.84489e-09,0,60136,60136
300.901,3.82628e-09,0,59432,59432
300.95,3.80714e-09,0,58824,58824
301,3.7874e-09,0,58088,58088
301.051,3.76679e-09,0,57480,57480
301.1,3.746e-09,0,56760,56760
301.15,3.72484e-09,0,56136,56136
301.2,3.70334e-09,0,55400,55400
301.251,3.68118e-09,0,54760,54760
301.3,3.65889e-09,0,54104,54104
301.35,3.63608e-09,0,53368,53368
301.401,3.61233e-09,0,52776,52776
301.45,3.58831e-09,0,51944,51944
301.5,3.56371e-09,0,51336,51336
301.55,3.53867e-09,0,50728,50728
301.601,3.51296e-09,0,49880,49880
301.65,3.48747e-09,0,49256,49256
301.7,3.46189e-09,0,48648,48648
301.751,3.43584e-09,0,47880,47880
301.801,3.40997e-09,0,47176,47176
301.85,3.38377e-09,0,46536,46536
301.9,3.35714e-09,0,45912,45912
301.951,3.32962e-09,0,45176,45176
302,3.30199e-09,0,44440,44440
302.05,3.27392e-09,0,43768,43768
302.1,3.24545e-09,0,43128,43128
302.151,3.21625e-09,0,42504,42504
302.2,3.18724e-09,0,41800,41800
302.25,3.15803e-09,0,41000,41000
302.301,3.12824e-09,0,40360,40360
302.35,3.09875e-09,0,39688,39688
302.4,3.06914e-09,0,39048,39048
302.45,3.03942e-09,0,38360,38360
302.501,3.00913e-09,0,37592,37592
302.55,2.97917e-09,0,36936,36936
302.6,2.94907e-09,0,36264,36264
302.65,2.91886e-09,0,35640,35640
302.701,2.88806e-09,0,34968,34968
302.75,2.85757e-09,0,34232,34232
302.8,2.82692e-09,0,33496,33496
302.851,2.79564e-09,0,32808,32808
302.901,2.76429e-09,0,32768,32768
302.951,2.73307e-09,0,32768,32768
303.001,2.70161e-09,0,32768,32768
303.05,2.66989e-09,0,32768,32768
303.1,2.63787e-09,0,32768,32768
303.151,2.60455e-09,0,32768,32768
303.201,2.57182e-09,0,32768,32768
303.251,2.53868e-09,0,32768,32768
303.301,2.5051e-09,0,32768,32768
303.351,2.47106e-09,0,32768,32768
303.4,2.43651e-09,0,32768,32768
303.45,2.40144e-09,0,32768,32768
303.5,2.3658e-09,0,32768,32768
303.551,2.32852e-09,0,32768,32768
303.601,2.29169e-09,0,32768,32768
303.651,2.25426e-09,0,32768,32768
303.701,2.21622e-09,0,32768,32768
303.75,2.17757e-09,0,32768,32768
303.8,2.13835e-09,0,32768,32768
303.85,2.09858e-09,0,32768,32768
303.901,2.05713e-09,0,32768,32768
303.951,2.0164e-09,0,32768,32768
304.001,1.97523e-09,0,32768,32768
304.051,1.93365e-09,0,32768,32768
304.101,1.89173e-09,0,32768,32768
304.15,1.84951e-09,0,32768,32768
304.2,1.80704e-09,0,32768,32768
304.251,1.76312e-09,0,32768,32768
304.301,1.72033e-09,0,32768,32768
304.351,1.67747e-09,0,32768,32768
304.401,1.63461e-09,0,32768,32768
304.451,1.59182e-09,0,32768,32768
304.5,1.54916e-09,0,32768,32768
304.55,1.50669e-09,0,32768,32768
304.601,1.46324e-09,0,32768,32768
304.651,1.42137e-09,0,32768,32768
304.701,1.37985e-09,0,32768,32768
304.751,1.33874e-09,0,32768,32768
304.801,1.29811e-09,0,32768,32768
304.85,1.25801e-09,0,32768,32768
304.9,1.21844e-09,0,32768,32768
304.95,1.17947e-09,0,32768,32768
