250,0,0,2048,2048
250.006,0,0,2048,2048
250.053,0,0,2048,2048
250.105,0,0,2048,2048
250.152,0,0,2048,2048
250.205,0,0,2048,2048
250.252,0,0,2048,2048
250.305,0,0,2048,2048
250.352,0,0,2048,2048
250.404,0,0,2048,2048
250.451,1.38778e-17,0,2048,2048
250.504,0,0,2048,2048
250.551,0,0,2048,2048
250.603,0,0,2048,2048
250.65,0,0,2048,2048
250.703,0,0,2048,2048
250.756,0,0,2048,2048
250.803,0,0,2048,2048
250.855,0,0,2048,2048
250.902,-1.38778e-17,0,2048,2048
250.955,-1.38778e-17,0,2048,2048
251.002,-1.38778e-17,0,2048,2048
251.055,-1.38778e-17,0,2048,2048
251.101,-1.38778e-17,0,2048,2048
251.154,0,0,2048,2048
251.201,0,0,2048,2048
251.254,0,0,2048,2048
251.301,0,0,2048,2048
251.353,0,0,2048,2048
251.4,0,0,2048,2048
251.453,0,0,2048,2048
251.506,0,0,2048,2048
251.553,0,0,2048,2048
251.605,1.38778e-17,0,2048,2048
251.652,0,0,2048,2048
251.705,0,0,2048,2048
251.752,-1.38778e-17,0,2048,2048
251.804,-1.38778e-17,0,2048,2048
251.851,-1.38778e-17,0,2048,2048
251.904,-1.38778e-17,0,2048,2048
251.951,0,0,2048,2048
252.004,0,0,2048,2048
252.05,0,0,2048,2048
252.103,0,0,2048,2048
252.15,0,0,2048,2048
252.203,0,0,2048,2048
252.256,0,0,2048,2048
252.302,0,0,2048,2048
252.355,1.38778e-17,0,2048,2048
252.402,1.38778e-17,0,2048,2048
252.455,0,0,2048,2048
252.502,0,0,2048,2048
252.554,-1.38778e-17,0,2048,2048
252.601,-1.38778e-17,0,2048,2048
252.654,-1.38778e-17,0,2048,2048
252.701,0,0,2048,2048
252.754,0,0,2048,2048
252.8,0,0,2048,2048
252.853,0,0,2048,2048
252.906,0,0,2048,2048
252.953,0,0,2048,2048
253.005,0,0,2048,2048
253.052,0,0,2048,2048
253.105,0,0,2048,2048
253.152,0,0,2048,2048
253.205,0,0,2048,2048
253.251,0,0,2048,2048
253.304,0,0,2048,2048
253.351,0,0,2048,2048
253.404,0,0,2048,2048
253.451,0,0,2048,2048
253.503,0,0,2048,2048
253.55,0,0,2048,2048
253.603,0,0,2048,2048
253.656,0,0,2048,2048
253.703,0,0,2048,2048
253.755,0,0,2048,2048
253.802,0,0,2048,2048
253.855,0,0,2048,2048
253.902,0,0,2048,2048
253.954,0,0,2048,2048
254.001,0,0,2048,2048
254.054,0,0,2048,2048
254.101,0,0,2048,2048
254.154,-1.38778e-17,0,2048,2048
254.201,0,0,2048,2048
254.253,0,0,2048,2048
254.3,-1.38778e-17,0,2048,2048
254.353,-1.38778e-17,0,2048,2048
254.406,-1.38778e-17,0,2048,2048
254.452,-1.38778e-17,0,2048,2048
254.505,0,0,2048,2048
254.552,0,0,2048,2048
254.605,0,0,2048,2048
254.652,0,0,2048,2048
254.704,0,0,2048,2048
254.751,1.38778e-17,0,2048,2048
254.804,2.77556e-17,0,2048,2048
254.851,2.77556e-17,0,2048,2048
254.904,2.77556e-17,0,2048,2048
254.95,2.77556e-17,0,2048,2048
255.003,1.38778e-17,0,2048,2048
255.05,1.38778e-17,0,2048,2048
255.103,0,0,2048,2048
255.155,0,0,2048,2048
255.202,1.38778e-17,0,2048,2048
255.255,1.38778e-17,0,2048,2048
255.302,1.38778e-17,0,2048,2048
255.355,1.38778e-17,0,2048,2048
255.402,1.38778e-17,0,2048,2048
255.454,1.38778e-17,0,2048,2048
255.501,1.38778e-17,0,2048,2048
255.554,2.77556e-17,0,2048,2048
255.601,2.77556e-17,0,2048,2048
255.653,2.77556e-17,0,2048,2048
255.7,1.38778e-17,0,2048,2048
255.753,1.38778e-17,0,2048,2048
255.806,1.38778e-17,0,2048,2048
255.853,1.38778e-17,0,2048,2048
255.905,1.38778e-17,0,2048,2048
255.952,1.38778e-17,0,2048,2048
256.005,1.38778e-17,0,2048,2048
256.052,1.38778e-17,0,2048,2048
256.105,1.38778e-17,0,2048,2048
256.151,1.38778e-17,0,2048,2048
256.204,1.38778e-17,0,2048,2048
256.251,1.38778e-17,0,2048,2048
256.304,1.38778e-17,0,2048,2048
256.351,2.77556e-17,0,2048,2048
256.403,1.38778e-17,0,2048,2048
256.45,1.38778e-17,0,2048,2048
256.503,1.38778e-17,0,2048,2048
256.556,1.38778e-17,0,2048,2048
256.603,1.38778e-17,0,2048,2048
256.655,1.38778e-17,0,2048,2048
256.702,1.38778e-17,0,2048,2048
256.755,0,0,2048,2048
256.802,0,0,2048,2048
256.854,0,0,2048,2048
256.901,0,0,2048,2048
256.954,0,0,2048,2048
257.001,0,0,2048,2048
257.054,-1.38778e-17,0,2048,2048
257.101,0,0,2048,2048
257.153,0,0,2048,2048
257.2,0,0,2048,2048
257.253,0,0,2048,2048
257.306,0,0,2048,2048
257.352,0,0,2048,2048
257.405,0,0,2048,2048
257.452,-1.38778e-17,0,2048,2048
257.505,-1.38778e-17,0,2048,2048
257.552,-2.77556e-17,0,2048,2048
257.604,-2.77556e-17,0,2048,2048
257.651,-2.77556e-17,0,2048,2048
257.704,-2.77556e-17,0,2048,2048
257.751,-2.77556e-17,0,2048,2048
257.804,-2.77556e-17,0,2048,2048
257.85,-2.77556e-17,0,2048,2048
257.903,-2.77556e-17,0,2048,2048
257.95,-2.77556e-17,0,2048,2048
258.003,-2.77556e-17,0,2048,2048
258.055,-2.77556e-17,0,2048,2048
258.102,-2.77556e-17,0,2048,2048
258.155,-2.77556e-17,0,2048,2048
258.202,-2.77556e-17,0,2048,2048
258.255,-2.77556e-17,0,2048,2048
258.302,-2.77556e-17,0,2048,2048
258.354,-1.38778e-17,0,2048,2048
258.401,-1.38778e-17,0,2048,2048
258.454,-1.38778e-17,0,2048,2048
258.501,-1.38778e-17,0,2048,2048
258.553,-1.38778e-17,0,2048,2048
258.6,-1.38778e-17,0,2048,2048
258.653,-1.38778e-17,0,2048,2048
258.706,-1.38778e-17,0,2048,2048
258.753,-1.38778e-17,0,2048,2048
258.805,-1.38778e-17,0,2048,2048
258.852,-1.38778e-17,0,2048,2048
258.905,-2.77556e-17,0,2048,2048
258.952,-4.16334e-17,0,2048,2048
259.005,-4.16334e-17,0,2048,2048
259.051,-2.77556e-17,0,2048,2048
259.104,-2.77556e-17,0,2048,2048
259.151,-1.38778e-17,0,2048,2048
259.204,-1.38778e-17,0,2048,2048
259.251,-1.38778e-17,0,2048,2048
259.303,-1.38778e-17,0,2048,2048
259.35,-1.38778e-17,0,2048,2048
259.403,-1.38778e-17,0,2048,2048
259.456,-1.38778e-17,0,2048,2048
259.503,-1.38778e-17,0,2048,2048
259.555,-1.38778e-17,0,2048,2048
259.602,-1.38778e-17,0,2048,2048
259.655,-1.38778e-17,0,2048,2048
259.702,0,0,2048,2048
259.754,0,0,2048,2048
259.801,0,0,2048,2048
259.854,1.38778e-17,0,2048,2048
259.901,1.38778e-17,0,2048,2048
259.954,1.38778e-17,0,2048,2048
260,1.38778e-17,0,2048,2048
260.053,1.38778e-17,0,2048,2048
260.1,1.38778e-17,0,2048,2048
260.153,1.38778e-17,0,2048,2048
260.206,1.38778e-17,0,2048,2048
260.252,1.38778e-17,0,2048,2048
260.305,0,0,2048,2048
260.352,0,0,2048,2048
260.405,-1.38778e-17,0,2048,2048
260.452,-1.38778e-17,0,2048,2048
260.504,0,0,2048,2048
260.551,0,0,2048,2048
260.604,0,0,2048,2048
260.651,0,0,2048,2048
260.704,0,0,2048,2048
260.75,1.38778e-17,0,2048,2048
260.803,1.38778e-17,0,2048,2048
260.856,1.38778e-17,0,2048,2048
260.903,1.38778e-17,0,2048,2048
260.955,1.38778e-17,0,2048,2048
261.002,0,0,2048,2048
261.055,0,0,2048,2048
261.102,0,0,2048,2048
261.155,1.38778e-17,0,2048,2048
261.201,0,0,2048,2048
261.254,-1.38778e-17,0,2048,2048
261.301,-1.38778e-17,0,2048,2048
261.354,-1.38778e-17,0,2048,2048
261.401,-1.38778e-17,0,2048,2048
261.453,0,0,2048,2048
261.5,0,0,2048,2048
261.553,0,0,2048,2048
261.606,0,0,2048,2048
261.653,0,0,2048,2048
261.705,0,0,2048,2048
261.752,0,0,2048,2048
261.805,-1.38778e-17,0,2048,2048
261.852,0,0,2048,2048
261.905,-1.38778e-17,0,2048,2048
261.951,-1.38778e-17,0,2048,2048
262.004,-1.38778e-17,0,2048,2048
262.051,-1.38778e-17,0,2048,2048
262.104,-1.38778e-17,0,2048,2048
262.151,-1.38778e-17,0,2048,2048
262.203,-1.38778e-17,0,2048,2048
262.25,-1.38778e-17,0,2048,2048
262.303,-1.38778e-17,0,2048,2048
262.356,-1.38778e-17,0,2048,2048
262.402,-1.38778e-17,0,2048,2048
262.455,-1.38778e-17,0,2048,2048
262.502,-1.38778e-17,0,2048,2048
262.555,-1.38778e-17,0,2048,2048
262.602,-2.77556e-17,0,2048,2048
262.654,-2.77556e-17,0,2048,2048
262.701,-2.77556e-17,0,2048,2048
262.754,-2.77556e-17,0,2048,2048
262.801,-4.16334e-17,0,2048,2048
262.854,-2.77556e-17,0,2048,2048
262.9,-2.77556e-17,0,2048,2048
262.953,-2.77556e-17,0,2048,2048
263,-2.77556e-17,0,2048,2048
263.053,-5.55112e-17,0,2048,2048
263.105,-4.16334e-17,0,2048,2048
263.152,-4.16334e-17,0,2048,2048
263.205,-4.16334e-17,0,2048,2048
263.252,-2.77556e-17,0,2048,2048
263.305,-2.77556e-17,0,2048,2048
263.352,-2.77556e-17,0,2048,2048
263.404,-2.77556e-17,0,2048,2048
263.451,-2.77556e-17,0,2048,2048
263.504,-2.77556e-17,0,2048,2048
263.551,-2.77556e-17,0,2048,2048
263.603,-2.77556e-17,0,2048,2048
263.65,-2.77556e-17,0,2048,2048
263.703,-2.77556e-17,0,2048,2048
263.756,-2.77556e-17,0,2048,2048
263.803,-2.77556e-17,0,2048,2048
263.855,-2.77556e-17,0,2048,2048
263.902,-1.38778e-17,0,2048,2048
263.955,-1.38778e-17,0,2048,2048
264.002,-1.38778e-17,0,2048,2048
264.055,-1.38778e-17,0,2048,2048
264.101,-1.38778e-17,0,2048,2048
264.154,-1.38778e-17,0,2048,2048
264.201,-1.38778e-17,0,2048,2048
264.254,-1.38778e-17,0,2048,2048
264.301,-1.38778e-17,0,2048,2048
264.353,-1.38778e-17,0,2048,2048
264.4,-1.38778e-17,0,2048,2048
264.453,-1.38778e-17,0,2048,2048
264.506,-1.38778e-17,0,2048,2048
264.553,-1.38778e-17,0,2048,2048
264.605,-1.38778e-17,0,2048,2048
264.652,-1.38778e-17,0,2048,2048
264.705,-1.38778e-17,0,2048,2048
264.752,-1.38778e-17,0,2048,2048
264.804,-1.38778e-17,0,2048,2048
264.851,-1.38778e-17,0,2048,2048
264.904,-2.77556e-17,0,2048,2048
264.951,-2.77556e-17,0,2048,2048
265.004,-2.77556e-17,0,2048,2048
265.051,-4.16334e-17,0,2048,2048
265.103,-2.77556e-17,0,2048,2048
265.15,-2.77556e-17,0,2048,2048
265.203,-2.77556e-17,0,2048,2048
265.256,-2.77556e-17,0,2048,2048
265.302,-2.77556e-17,0,2048,2048
265.355,-2.77556e-17,0,2048,2048
265.402,-2.77556e-17,0,2048,2048
265.455,-2.77556e-17,0,2048,2048
265.502,-2.77556e-17,0,2048,2048
265.554,-2.77556e-17,0,2048,2048
265.601,-2.77556e-17,0,2048,2048
265.654,-2.77556e-17,0,2048,2048
265.701,-2.77556e-17,0,2048,2048
265.754,-2.77556e-17,0,2048,2048
265.8,-2.77556e-17,0,2048,2048
265.853,-2.77556e-17,0,2048,2048
265.9,-2.77556e-17,0,2048,2048
265.953,-2.77556e-17,0,2048,2048
266.005,-2.77556e-17,0,2048,2048
266.052,-2.77556e-17,0,2048,2048
266.105,-2.77556e-17,0,2048,2048
266.152,-2.77556e-17,0,2048,2048
266.205,-4.16334e-17,0,2048,2048
266.252,-4.16334e-17,0,2048,2048
266.304,-4.16334e-17,0,2048,2048
266.351,-4.16334e-17,0,2048,2048
266.404,-5.55112e-17,0,2048,2048
266.451,-2.77556e-17,0,2048,2048
266.503,-2.77556e-17,0,2048,2048
266.55,-2.77556e-17,0,2048,2048
266.603,-4.16334e-17,0,2048,2048
266.656,-2.77556e-17,0,2048,2048
266.703,-2.77556e-17,0,2048,2048
266.755,-2.77556e-17,0,2048,2048
266.802,-1.38778e-17,0,2048,2048
266.855,-1.38778e-17,0,2048,2048
266.902,-1.38778e-17,0,2048,2048
266.955,-2.77556e-17,0,2048,2048
267.001,-5.55112e-17,0,2048,2048
267.054,-5.55112e-17,0,2048,2048
267.101,-4.16334e-17,0,2048,2048
267.154,-4.16334e-17,0,2048,2048
267.201,-2.77556e-17,0,2048,2048
267.253,-2.77556e-17,0,2048,2048
267.3,-2.77556e-17,0,2048,2048
267.353,-4.16334e-17,0,2048,2048
267.406,-4.16334e-17,0,2048,2048
267.453,-2.77556e-17,0,2048,2048
267.505,-2.77556e-17,0,2048,2048
267.552,-1.38778e-17,0,2048,2048
267.605,-1.38778e-17,0,2048,2048
267.652,-1.38778e-17,0,2048,2048
267.704,-2.77556e-17,0,2048,2048
267.751,-2.77556e-17,0,2048,2048
267.804,-5.55112e-17,0,2048,2048
267.851,-4.16334e-17,0,2048,2048
267.904,-5.55112e-17,0,2048,2048
267.95,-5.55112e-17,0,2048,2048
268.003,-4.16334e-17,0,2048,2048
268.05,-4.16334e-17,0,2048,2048
268.1,-4.16334e-17,0,2366,2366
268.15,-4.16334e-17,0,2606,2606
268.201,-4.16334e-17,0,2810,2810
268.251,-4.16334e-17,0,3050,3050
268.301,-4.16334e-17,0,3266,3266
268.351,-4.16334e-17,0,3470,3470
268.4,-4.16334e-17,0,3710,3710
268.45,-4.16334e-17,0,3926,3926
268.5,-4.16334e-17,0,4130,4130
268.551,-4.16334e-17,0,4370,4370
268.601,-4.16334e-17,0,4586,4586
268.651,-4.16334e-17,0,4790,4790
268.701,-4.16334e-17,0,5006,5006
268.751,-4.16334e-17,0,5210,5210
268.8,-4.16334e-17,0,5438,5438
268.85,-4.16334e-17,0,5666,5666
268.901,-4.16334e-17,0,5870,5870
268.951,-4.16334e-17,0,6086,6086
269.001,-4.16334e-17,0,6290,6290
269.051,-4.16334e-17,0,6506,6506
269.101,-4.16334e-17,0,6710,6710
269.15,-4.16334e-17,0,6918,6918
269.2,-4.16334e-17,0,7070,7070
269.251,-4.16334e-17,0,7226,7226
269.301,-4.16334e-17,0,7430,7430
269.351,-4.16334e-17,0,7646,7646
269.401,-4.16334e-17,0,7850,7850
269.451,-4.16334e-17,0,8090,8090
269.5,-4.16334e-17,0,8306,8306
269.55,-4.16334e-17,0,8510,8510
269.6,-4.16334e-17,0,8726,8726
269.651,-4.16334e-17,0,8966,8966
269.701,-4.16334e-17,0,9170,9170
269.751,-4.16334e-17,0,9386,9386
269.801,-4.16334e-17,0,9618,9618
269.85,-4.16334e-17,0,9830,9830
269.9,-4.16334e-17,0,10046,10046
269.95,-4.16334e-17,0,10250,10250
270.001,-4.16334e-17,0,10466,10466
270.051,-4.16334e-17,0,10670,10670
270.101,-4.16334e-17,0,10886,10886
270.151,-4.16334e-17,0,11090,11090
270.201,-4.16334e-17,0,11306,11306
270.25,-4.16334e-17,0,11510,11510
270.3,-4.16334e-17,0,11726,11726
270.351,-4.16334e-17,0,11930,11930
270.401,-4.16334e-17,0,12146,12146
270.451,-4.16334e-17,0,12350,12350
270.501,-4.16334e-17,0,12566,12566
270.551,-4.16334e-17,0,12770,12770
270.6,-4.16334e-17,0,12986,12986
270.65,-4.16334e-17,0,13166,13166
270.701,-4.16334e-17,0,13370,13370
270.751,-4.16334e-17,0,13586,13586
270.801,-4.16334e-17,0,13790,13790
270.851,-4.16334e-17,0,14006,14006
270.901,-4.16334e-17,0,14186,14186
270.95,-4.16334e-17,0,14390,14390
271,-4.16334e-17,0,14598,14598
271.051,-4.16334e-17,0,14786,14786
271.101,-4.16334e-17,0,14990,14990
271.151,-4.16334e-17,0,15170,15170
271.201,-4.16334e-17,0,15386,15386
271.251,-4.16334e-17,0,15566,15566
271.3,-4.16334e-17,0,15770,15770
271.35,-4.16334e-17,0,15950,15950
271.4,-4.16334e-17,0,16166,16166
271.451,-4.16334e-17,0,16346,16346
271.501,-4.16334e-17,0,16550,16550
271.551,-4.16334e-17,0,16730,16730
271.601,-4.16334e-17,0,16910,16910
271.65,-4.16334e-17,0,17126,17126
271.7,-4.16334e-17,0,17306,17306
271.75,-4.16334e-17,0,17486,17486
271.801,-4.16334e-17,0,17690,17690
271.851,-4.16334e-17,0,17870,17870
271.901,-4.16334e-17,0,18050,18050
271.951,-4.16334e-17,0,18230,18230
272.001,-4.16334e-17,0,18410,18410
272.05,-4.16334e-17,0,18590,18590
272.1,-4.16334e-17,0,18806,18806
272.151,-4.16334e-17,0,18986,18986
272.201,-4.16334e-17,0,19166,19166
272.251,-4.16334e-17,0,19346,19346
272.301,-4.16334e-17,0,19526,19526
272.351,-4.16334e-17,0,19706,19706
272.4,-4.16334e-17,0,19886,19886
272.45,-4.16334e-17,0,20066,20066
272.501,-4.16334e-17,0,20246,20246
272.551,-4.16334e-17,0,20426,20426
272.601,-4.16334e-17,0,20606,20606
272.651,-4.16334e-17,0,20750,20750
272.701,-4.16334e-17,0,20930,20930
272.75,-4.16334e-17,0,21110,21110
272.8,-4.16334e-17,0,21290,21290
272.85,-4.16334e-17,0,21446,21446
272.901,-4.16334e-17,0,21626,21626
272.951,-4.16334e-17,0,21806,21806
273.001,-4.16334e-17,0,21986,21986
273.051,-4.16334e-17,0,22130,22130
273.1,-4.16334e-17,0,22310,22310
273.15,-4.16334e-17,0,22490,22490
273.2,-4.16334e-17,0,22646,22646
273.251,-4.16334e-17,0,22826,22826
273.301,-4.16334e-17,0,23006,23006
273.351,-4.16334e-17,0,23150,23150
273.401,-4.16334e-17,0,23330,23330
273.451,-4.16334e-17,0,23510,23510
273.5,-4.16334e-17,0,23666,23666
273.55,-4.16334e-17,0,23846,23846
273.601,-4.16334e-17,0,24026,24026
273.651,-4.16334e-17,0,24090,24090
273.701,-4.16334e-17,0,24350,24350
273.751,-4.16334e-17,0,24506,24506
273.801,-4.16334e-17,0,24686,24686
273.85,-4.16334e-17,0,24766,24766
273.9,1.38778e-16,0,25010,25010
273.951,5.55112e-16,0,25178,25178
274.001,9.71445e-16,0,25346,25346
274.051,1.44329e-15,0,25526,25526
274.101,1.91513e-15,0,25670,25670
274.151,2.3731e-15,0,25838,25838
274.2,2.80331e-15,0,26006,26006
274.25,3.27516e-15,0,26150,26150
274.301,4.10783e-15,0,26330,26330
274.351,5.02376e-15,0,26486,26486
274.401,5.93969e-15,0,26666,26666
274.451,6.88338e-15,0,26810,26810
274.501,7.81319e-15,0,26990,26990
274.55,8.75688e-15,0,27146,27146
274.6,9.70057e-15,0,27326,27326
274.65,1.06443e-14,0,27470,27470
274.701,1.16157e-14,0,27618,27618
274.751,1.25594e-14,0,27806,27806
274.801,1.34892e-14,0,27950,27950
274.851,1.40027e-14,0,28130,28130
274.9,1.26982e-14,0,28286,28286
274.95,5.45397e-15,0,28430,28430
275,-1.55709e-14,0,28610,28610
275.051,-6.63497e-14,0,28766,28766
275.101,-1.67227e-13,0,28938,28938
275.151,-3.52676e-13,0,29090,29090
275.201,-6.68535e-13,0,29246,29246
275.251,-1.17192e-12,0,29390,29390
275.3,-1.92779e-12,0,29570,29570
275.35,-3.00232e-12,0,29726,29726
275.401,-4.50263e-12,0,29870,29870
275.451,-6.38446e-12,0,30050,30050
275.501,-1.46235e-11,0,30206,30206
275.551,-4.85272e-11,0,30350,30350
275.601,-1.12694e-10,0,30506,30506
275.65,-1.98011e-10,0,30650,30650
275.7,-2.68324e-10,0,30806,30806
275.751,-2.75128e-10,0,30950,30950
275.801,-1.95199e-10,0,31106,31106
275.851,-5.87809e-11,0,31250,31250
275.901,6.84777e-11,0,31398,31398
275.951,1.2925e-10,0,31526,31526
276,1.13779e-10,0,31646,31646
276.05,6.3467e-11,0,31790,31790
276.1,3.55955e-11,0,31910,31910
276.151,5.91297e-11,0,32030,32030
276.201,1.11491e-10,0,32150,32150
276.251,1.46835e-10,0,32270,32270
276.301,1.37798e-10,0,32390,32390
276.35,9.82867e-11,0,32546,32546
276.4,6.7992e-11,0,32768,32768
276.45,7.57239e-11,0,32768,32768
276.501,1.16626e-10,0,32768,32768
276.551,1.54381e-10,0,32768,32768
276.601,1.59811e-10,0,32768,32768
276.651,1.30355e-10,0,32768,32768
276.701,9.13143e-11,0,32768,32768
276.75,7.5942e-11,0,32768,32768
276.8,1.00453e-10,0,32768,32768
276.851,1.51395e-10,0,32768,32768
276.901,1.85311e-10,0,32768,32768
276.951,1.68286e-10,0,32768,32768
277.001,1.04803e-10,0,32768,32768
277.051,4.94942e-11,0,32768,32768
277.1,6.81347e-11,0,32768,32768
277.15,1.66576e-10,0,32768,32768
277.201,2.57252e-10,0,32768,32768
277.251,2.24475e-10,0,32768,32768
277.301,1.17737e-10,0,32768,32768
277.351,2.68663e-10,0,32768,32768
277.401,1.23782e-09,0,32768,32768
277.45,3.54857e-09,0,32768,32768
277.5,7.37121e-09,0,32736,32736
277.55,1.23799e-08,0,32768,32768
277.601,1.80478e-08,0,32768,32768
277.651,2.33114e-08,0,32768,32768
277.701,2.79185e-08,0,32768,32768
277.751,3.19652e-08,0,32768,32768
277.8,3.60406e-08,0,32768,32768
277.85,4.10115e-08,0,32768,32768
277.9,4.77063e-08,0,32768,32768
277.951,5.69746e-08,0,32768,32768
278.001,6.85429e-08,0,32768,32768
278.051,8.28187e-08,0,32768,32768
278.101,1.00194e-07,0,32768,32768
278.151,1.21405e-07,0,32768,32768
278.2,1.4741e-07,0,32768,32768
278.25,1.79095e-07,0,32768,32768
278.301,2.18137e-07,0,32768,32768
278.351,2.62136e-07,0,32768,32768
278.401,3.11332e-07,0,32768,32768
278.451,3.64643e-07,0,32768,32768
278.501,4.21152e-07,0,32768,32768
278.55,4.80404e-07,0,32768,32768
278.6,5.42261e-07,0,32768,32768
278.651,6.0826e-07,0,32768,32768
278.701,6.73393e-07,0,32768,32768
278.751,7.37306e-07,0,32768,32768
278.801,7.97194e-07,0,32768,32768
278.851,8.50366e-07,0,32768,32768
278.9,8.94907e-07,0,32768,32768
278.95,9.30046e-07,0,32768,32768
279.001,9.56795e-07,0,32768,32768
279.051,9.74851e-07,0,32768,32768
279.101,9.86594e-07,0,32768,32768
279.151,9.93278e-07,0,32768,32768
279.201,9.95579e-07,0,32768,32768
279.25,9.93515e-07,0,32768,32768
279.3,9.86594e-07,0,32768,32768
279.35,9.74085e-07,0,32768,32768
279.401,9.54654e-07,0,32768,32768
279.451,9.29029e-07,0,32768,32768
279.501,8.96858e-07,0,32768,32768
279.551,8.58817e-07,0,32768,32768
279.6,8.16137e-07,0,32768,32768
279.65,7.70451e-07,0,32768,32768
279.7,7.23542e-07,0,32768,32768
279.751,6.75752e-07,0,32768,32768
279.801,6.31265e-07,0,32768,32768
279.851,5.89786e-07,0,32768,32768
279.901,5.52067e-07,0,32768,32768
279.951,5.1854e-07,0,32768,32768
280,4.89392e-07,0,32768,32768
280.05,4.64735e-07,0,32768,32768
280.101,4.44355e-07,0,32768,32768
280.151,4.30133e-07,0,32768,32768
280.201,4.22507e-07,0,32768,32768
280.251,4.22598e-07,0,32768,32768
280.301,4.31005e-07,0,32768,32768
280.35,4.47405e-07,0,32768,32768
280.4,4.70626e-07,0,32768,32768
280.451,5.00082e-07,0,32768,32768
280.501,5.32888e-07,0,32768,32768
280.551,5.69284e-07,0,32768,32768
280.601,6.09193e-07,0,32768,32768
280.651,6.52478e-07,0,32768,32768
280.7,6.98394e-07,0,32768,32768
280.75,7.45294e-07,0,32768,32768
280.8,7.9074e-07,0,32768,32768
280.851,8.33122e-07,0,32768,32768
280.901,8.67624e-07,0,32768,32768
280.951,8.94152e-07,0,32768,32768
281.001,9.12415e-07,0,32768,32768
281.05,9.22955e-07,0,32768,32768
281.1,9.26683e-07,0,32768,32768
281.15,9.24499e-07,0,32768,32768
281.201,9.16788e-07,0,32768,32768
281.251,9.04401e-07,0,32768,32768
281.301,8.87305e-07,0,32768,32768
281.351,8.65336e-07,0,32768,32768
281.401,8.38102e-07,0,32768,32768
281.45,8.05107e-07,0,32768,32768
281.5,7.65959e-07,0,32768,32768
281.551,7.19195e-07,0,32768,32768
281.601,6.68021e-07,0,32768,32768
281.651,6.12338e-07,0,32768,32768
281.701,5.53774e-07,0,32768,32768
281.751,4.94175e-07,0,32768,32768
281.8,4.35309e-07,0,32768,32768
281.85,3.78618e-07,0,32768,32768
281.901,3.23566e-07,0,32768,32768
281.951,2.73808e-07,0,32768,32768
282.001,2.27823e-07,0,32768,32768
282.051,1.85472e-07,0,32768,32768
282.101,1.46563e-07,0,32768,32768
282.15,1.11003e-07,0,32768,32768
282.2,7.88727e-08,0,32768,32768
282.251,4.96062e-08,0,32768,32768
282.301,2.50669e-08,0,32768,32768
282.351,4.32513e-09,0,32768,32768
282.401,-1.29895e-08,0,32768,32768
282.451,-2.75117e-08,0,32768,32768
282.5,-3.99193e-08,0,32768,32768
282.55,-5.0684e-08,0,32768,32768
282.6,-5.99463e-08,0,32768,32768
282.651,-6.77823e-08,0,32768,32768
282.701,-7.35645e-08,0,32768,32768
282.751,-7.75316e-08,0,32768,32768
282.801,-7.99341e-08,0,32768,32768
282.85,-8.1221e-08,0,32768,32768
282.9,-8.18636e-08,0,32768,32768
282.95,-8.21653e-08,0,32768,32768
283.001,-8.21524e-08,0,32768,32768
283.051,-8.16185e-08,0,32768,32768
283.101,-8.02871e-08,0,32768,32768
283.151,-7.79753e-08,0,32768,32768
283.201,-7.46991e-08,0,32768,32768
283.25,-7.06624e-08,0,32768,32768
283.3,-6.61645e-08,0,32768,32768
283.351,-6.13574e-08,0,32768,32768
283.401,-5.67371e-08,0,32768,32768
283.451,-5.23014e-08,0,32768,32768
283.501,-4.81275e-08,0,32768,32768
283.551,-4.42608e-08,0,32768,32768
283.6,-4.07252e-08,0,32768,32768
283.65,-3.75229e-08,0,32768,32768
283.701,-3.45547e-08,0,32768,32768
283.751,-3.19586e-08,0,32768,32768
283.801,-2.96167e-08,0,32768,32768
283.851,-2.75119e-08,0,32768,32768
283.901,-2.56382e-08,0,32768,32768
283.95,-2.39946e-08,0,32768,32768
284,-2.25781e-08,0,32768,32768
284.05,-2.13807e-08,0,32768,32768
284.101,-2.03634e-08,0,32768,32768
284.151,-1.95681e-08,0,32768,32768
284.201,-1.89457e-08,0,32768,32768
284.251,-1.84786e-08,0,32768,32768
284.3,-1.81494e-08,0,32768,32768
284.35,-1.79403e-08,0,32768,32768
284.4,-1.78342e-08,0,32768,32768
284.451,-1.78157e-08,0,32768,32768
284.501,-1.78711e-08,0,32768,32768
284.551,-1.79866e-08,0,32768,32768
284.601,-1.81522e-08,0,32768,32768
284.651,-1.83594e-08,0,32768,32768
284.7,-1.86006e-08,0,32768,32768
284.75,-1.88687e-08,0,32768,32768
284.801,-1.91655e-08,0,32768,32768
284.851,-1.94677e-08,0,32768,32768
284.901,-1.97784e-08,0,32768,32768
284.951,-2.00937e-08,0,32768,32768
285.001,-2.04106e-08,0,32768,32768
285.05,-2.0727e-08,0,32768,32768
285.1,-2.10411e-08,0,32768,32768
285.151,-2.13596e-08,0,32768,32768
285.201,-2.1662e-08,0,32768,32768
285.251,-2.19553e-08,0,32768,32768
285.301,-2.2238e-08,0,32768,32768
285.351,-2.25094e-08,0,32768,32768
285.4,-2.27701e-08,0,32768,32768
285.45,-2.30219e-08,0,32768,32768
285.5,-2.32677e-08,0,32768,32768
285.551,-2.35184e-08,0,32768,32768
285.601,-2.37637e-08,0,32768,32768
285.651,-2.40155e-08,0,32768,32768
285.701,-2.4278e-08,0,32768,32768
285.75,-2.45556e-08,0,32768,32768
285.8,-2.48521e-08,0,32768,32768
285.85,-2.51706e-08,0,32768,32768
285.901,-2.55245e-08,0,32768,32768
285.951,-2.58955e-08,0,32768,32768
286.001,-2.62948e-08,0,32768,32768
286.051,-2.67228e-08,0,32768,32768
286.101,-2.71787e-08,0,32768,32768
286.15,-2.76611e-08,0,32768,32768
286.2,-2.81673e-08,0,32768,32768
286.251,-2.87094e-08,0,32768,32768
286.301,-2.92525e-08,0,32768,32768
286.351,-2.98074e-08,0,32768,32768
286.401,-3.037e-08,0,32768,32768
286.451,-3.09364e-08,0,32768,32768
286.5,-3.15029e-08,0,32768,32768
286.55,-3.20661e-08,0,32768,32768
286.601,-3.26391e-08,0,32768,32768
286.651,-3.31858e-08,0,32768,32768
286.701,-3.37195e-08,0,32768,32768
286.751,-3.42368e-08,0,32768,32768
286.801,-3.47346e-08,0,32768,32768
286.85,-3.52096e-08,0,32768,32768
286.9,-3.56593e-08,0,32768,32768
286.951,-3.60935e-08,0,32768,32768
287.001,-3.64858e-08,0,32768,32768
287.051,-3.68484e-08,0,32768,32768
287.101,-3.71816e-08,0,32768,32768
287.151,-3.74863e-08,0,32768,32768
287.2,-3.77641e-08,0,32768,32768
287.25,-3.80171e-08,0,32768,32768
287.3,-3.82479e-08,0,32768,32768
287.351,-3.84653e-08,0,32768,32768
287.401,-3.86602e-08,0,32768,32768
287.451,-3.88426e-08,0,32768,32768
287.501,-3.90161e-08,0,32768,32768
287.55,-3.91849e-08,0,32768,32768
287.6,-3.93531e-08,0,32768,32768
287.65,-3.95249e-08,0,32768,32768
287.701,-3.971e-08,0,32768,32768
287.751,-3.99015e-08,0,32768,32768
287.801,-4.0108e-08,0,32768,32768
287.851,-4.03325e-08,0,32768,32768
287.901,-4.05772e-08,0,32768,32768
287.95,-4.08441e-08,0,32768,32768
288,-4.11343e-08,0,32768,32768
288.051,-4.14579e-08,0,32768,32768
288.101,-4.1796e-08,0,32768,32768
288.151,-4.21562e-08,0,32768,32768
288.201,-4.25361e-08,0,32768,32768
288.251,-4.29324e-08,0,32768,32768
288.3,-4.33413e-08,0,32768,32768
288.35,-4.37585e-08,0,32768,32768
288.401,-4.4192e-08,0,32768,32768
288.451,-4.46127e-08,0,32768,32768
288.501,-4.50287e-08,0,32768,32768
288.551,-4.54364e-08,0,32768,32768
288.601,-4.58323e-08,0,32768,32768
288.65,-4.62128e-08,0,32768,32768
288.7,-4.65749e-08,0,32768,32768
288.75,-4.69152e-08,0,32768,32768
288.801,-4.72394e-08,0,32768,32768
288.851,-4.75258e-08,0,32768,32768
288.901,-4.77811e-08,0,32768,32768
288.951,-4.80028e-08,0,32768,32768
289,-4.81891e-08,0,32768,32768
289.05,-4.83386e-08,0,32768,32768
289.1,-4.84509e-08,0,32768,32768
289.151,-4.85282e-08,0,32768,32768
289.201,-4.8567e-08,0,32768,32768
289.251,-4.85719e-08,0,32768,32768
289.301,-4.85449e-08,0,32768,32768
289.351,-4.84884e-08,0,32768,32768
289.4,-4.84051e-08,0,32768,32768
289.45,-4.82973e-08,0,32768,32768
289.501,-4.81638e-08,0,32768,32768
289.551,-4.80146e-08,0,32768,32768
289.601,-4.78489e-08,0,32768,32768
289.651,-4.76692e-08,0,32768,32768
289.701,-4.74777e-08,0,32768,32768
289.75,-4.72766e-08,0,32768,32768
289.8,-4.7068e-08,0,32768,32768
289.851,-4.68471e-08,0,32768,32768
289.901,-4.66282e-08,0,32768,32768
289.951,-4.64063e-08,0,32768,32768
290.001,-4.61828e-08,0,32768,32768
290.051,-4.59588e-08,0,32768,32768
290.1,-4.57352e-08,0,32768,32768
290.15,-4.55129e-08,0,32768,32768
290.201,-4.52861e-08,0,32768,32768
290.251,-4.50683e-08,0,32768,32768
290.301,-4.48536e-08,0,32768,32768
290.351,-4.4642e-08,0,32768,32768
290.401,-4.44339e-08,0,32768,32768
290.45,-4.42295e-08,0,32768,32768
290.5,-4.40289e-08,0,32768,32768
290.55,-4.38322e-08,0,32768,32768
290.601,-4.3634e-08,0,32768,32768
290.651,-4.34453e-08,0,32768,32768
290.701,-4.32603e-08,0,32768,32768
290.751,-4.30788e-08,0,32768,32768
290.8,-4.29002e-08,0,32768,32768
290.85,-4.27242e-08,0,32768,32768
290.9,-4.25503e-08,0,32768,32768
290.951,-4.23728e-08,0,32768,32768
291.001,-4.22015e-08,0,32768,32768
291.051,-4.20307e-08,0,32768,32768
291.101,-4.18599e-08,0,32768,32768
291.151,-4.16886e-08,0,32768,32768
291.2,-4.15164e-08,0,32768,32768
291.25,-4.13428e-08,0,32768,32768
291.301,-4.11619e-08,0,32768,32768
291.351,-4.09835e-08,0,32768,32768
291.401,-4.08018e-08,0,32768,32768
291.451,-4.06162e-08,0,32768,32768
291.501,-4.04261e-08,0,32768,32768
291.55,-4.02309e-08,0,32768,32768
291.6,-4.00302e-08,0,32768,32768
291.651,-3.98173e-08,0,32768,32768
291.701,-3.96042e-08,0,32768,32768
291.751,-3.93843e-08,0,32768,32768
291.801,-3.91574e-08,0,32768,32768
291.851,-3.89227e-08,0,32768,32768
291.9,-3.86793e-08,0,32768,32768
291.95,-3.8426e-08,0,32768,32768
292,-3.81612e-08,0,32768,32768
292.051,-3.78746e-08,0,32768,32768
292.101,-3.75803e-08,0,32768,32768
292.151,-3.72676e-08,0,32768,32768
292.201,-3.69336e-08,0,32768,32768
292.25,-3.65754e-08,0,32768,32768
292.3,-3.61896e-08,0,32768,32768
292.35,-3.57731e-08,0,32768,32768
292.401,-3.53091e-08,0,32768,32768
292.451,-3.48215e-08,0,32768,32768
292.501,-3.42951e-08,0,32768,32768
292.551,-3.37284e-08,0,32768,32768
292.601,-3.31202e-08,0,32768,32768
292.65,-3.24703e-08,0,32768,32768
292.7,-3.17795e-08,0,32768,32768
292.751,-3.10273e-08,0,32768,32768
292.801,-3.02595e-08,0,32768,32768
292.851,-2.94589e-08,0,32768,32768
292.901,-2.86299e-08,0,32768,32768
292.951,-2.77777e-08,0,32768,32768
293,-2.69075e-08,0,32768,32768
293.05,-2.60249e-08,0,32768,32768
293.101,-2.51089e-08,0,32768,32768
293.151,-2.42169e-08,0,32768,32768
293.201,-2.33277e-08,0,32768,32768
293.251,-2.24456e-08,0,32768,32768
293.301,-2.15751e-08,0,32768,32768
293.35,-2.07202e-08,0,32768,32768
293.4,-1.9885e-08,0,32768,32768
293.451,-1.905e-08,0,32768,32768
293.501,-1.82666e-08,0,32768,32768
293.551,-1.75136e-08,0,32768,32768
293.601,-1.67936e-08,0,32768,32768
293.651,-1.61086e-08,0,32768,32768
293.7,-1.54595e-08,0,32768,32768
293.75,-1.48465e-08,0,32768,32768
293.8,-1.42687e-08,0,32768,32768
293.851,-1.37094e-08,0,32768,32768
293.901,-1.3198e-08,0,32768,32768
293.951,-1.27154e-08,0,32768,32768
294.001,-1.22583e-08,0,32768,32768
294.05,-1.18229e-08,0,32768,32768
294.1,-1.1405e-08,0,32768,32768
294.15,-1.10002e-08,0,32768,32768
294.201,-1.05923e-08,0,32768,32768
294.251,-1.01995e-08,0,32768,32768
294.301,-9.80495e-09,0,32768,32768
294.351,-9.40392e-09,0,32768,32768
294.401,-8.9917e-09,0,32768,32768
294.45,-8.56403e-09,0,32768,32768
294.5,-8.11713e-09,0,32768,32768
294.551,-7.6337e-09,0,32768,32768
294.601,-7.13892e-09,0,32768,32768
294.651,-6.61781e-09,0,32768,32768
294.701,-6.06983e-09,0,32768,32768
294.751,-5.49542e-09,0,32768,32768
294.8,-4.89603e-09,0,32768,32768
294.85,-4.274e-09,0,32768,32768
294.901,-3.61332e-09,0,32768,32768
294.951,-2.95551e-09,0,32768,32768
295.001,-2.28609e-09,0,32768,32768
295.051,-1.60939e-09,0,32768,32768
295.101,-9.29873e-10,0,32768,32768
295.15,-2.51973e-10,0,32768,32768
295.2,4.19921e-10,0,32768,32768
295.25,1.08152e-09,0,32768,32768
295.301,1.74739e-09,0,32768,32768
295.351,2.3752e-09,0,32768,32768
295.401,2.98002e-09,0,32768,32768
295.451,3.55765e-09,0,32768,32768
295.5,4.10386e-09,0,32768,32768
295.55,4.61458e-09,0,32768,32768
295.6,5.08605e-09,0,32768,32768
295.651,5.52702e-09,0,32768,32768
295.701,5.90976e-09,0,32768,32768
295.751,6.24586e-09,0,32768,32768
295.801,6.53456e-09,0,32768,32768
295.851,6.77587e-09,0,32768,32768
295.9,6.97055e-09,0,32768,32768
295.95,7.12004e-09,0,32768,32768
296.001,7.229e-09,0,32768,32768
296.051,7.29415e-09,0,32768,32768
296.101,7.3228e-09,0,32768,32768
296.151,7.31909e-09,0,32768,32768
296.201,7.28755e-09,0,32768,32768
296.25,7.23275e-09,0,32768,32768
296.3,7.15906e-09,0,32768,32768
296.351,7.0675e-09,0,32768,32768
296.401,6.96658e-09,0,32768,32768
296.451,6.85644e-09,0,32768,32768
296.501,6.7391e-09,0,32768,32768
296.551,6.61629e-09,0,32768,32768
296.6,6.48969e-09,0,32768,32768
296.65,6.36102e-09,0,32768,32768
296.7,6.23222e-09,0,32768,32768
296.751,6.10166e-09,0,32768,32768
296.801,5.97893e-09,0,32768,32768
296.851,5.86218e-09,0,32768,32768
296.901,5.75306e-09,0,32768,32768
296.95,5.65278e-09,0,32768,32768
297,5.56213e-09,0,32768,32768
297.05,5.48148e-09,0,32768,32768
297.101,5.40896e-09,0,32768,32768
297.151,5.34857e-09,0,32768,32768
297.201,5.29783e-09,0,32768,32768
297.251,5.2565e-09,0,32768,32768
297.301,5.22429e-09,0,32768,32768
297.35,5.20088e-09,0,32768,32768
297.4,5.1858e-09,0,32768,32768
297.451,5.17824e-09,0,32768,32768
297.501,5.17766e-09,0,32768,32768
297.551,5.18257e-09,0,32768,32768
297.601,5.19162e-09,0,32768,32768
297.651,5.20348e-09,0,32768,32768
297.7,5.21686e-09,0,32768,32768
297.75,5.23058e-09,0,32768,32768
297.801,5.24394e-09,0,32768,32768
297.851,5.25509e-09,0,32768,32768
297.901,5.26341e-09,0,32768,32768
297.951,5.2679e-09,0,32768,32768
298.001,5.26772e-09,0,32768,32768
298.05,5.26234e-09,0,32768,32768
298.1,5.25167e-09,0,32768,32768
298.151,5.23558e-09,0,32768,32768
298.201,5.21588e-09,0,32768,32768
298.251,5.19331e-09,0,32768,32768
298.301,5.16908e-09,0,32768,32768
298.351,5.14421e-09,0,32768,32768
298.4,5.11945e-09,0,32768,32768
298.45,5.09516e-09,0,32768,32768
298.5,5.07139e-09,0,32768,32768
298.551,5.04729e-09,0,32768,32768
298.601,5.02403e-09,0,32768,32768
298.651,5.00084e-09,0,32768,32768
298.701,4.97787e-09,0,32768,32768
298.75,4.95555e-09,0,32768,32768
298.8,4.93459e-09,0,32768,32768
298.85,4.91585e-09,0,32768,32768
298.901,4.89979e-09,0,32768,32768
298.951,4.88805e-09,0,32768,32768
299.001,4.88056e-09,0,32768,32768
299.051,4.87736e-09,0,32768,32768
299.101,4.87813e-09,0,32768,32768
299.15,4.88226e-09,0,32768,32768
299.2,4.88896e-09,0,32768,32768
299.251,4.89766e-09,0,32768,32768
299.301,4.90707e-09,0,32768,32768
299.351,4.91676e-09,0,32768,32768
299.401,4.92622e-09,0,32768,32768
299.451,4.93506e-09,0,32768,32768
299.5,4.94295e-09,0,32768,32768
299.55,4.94962e-09,0,32768,32768
299.601,4.9549e-09,0,32768,32768
299.651,4.95828e-09,0,32768,32768
299.701,4.95976e-09,0,32768,32768
299.751,4.95926e-09,0,32768,32768
299.801,4.95679e-09,0,32768,32768
299.85,4.95242e-09,0,32768,32768
299.9,4.94622e-09,0,32768,32768
299.95,4.93824e-09,0,32768,32768
300.001,4.9282e-09,0,32768,32768
300.051,4.91668e-09,0,32768,32768
300.101,4.90342e-09,0,32768,32768
300.151,4.88847e-09,0,32768,32768
300.2,4.8719e-09,0,32768,32768
300.25,4.85382e-09,0,32768,32768
300.3,4.83434e-09,0,32768,32768
300.351,4.81288e-09,0,32768,32768
300.401,4.79067e-09,0,32768,32768
300.451,4.76708e-09,0,32768,32768
300.501,4.742e-09,0,32768,32768
300.551,4.71537e-09,0,32768,32768
300.6,4.68714e-09,0,32768,32768
300.65,4.65732e-09,0,32768,32768
300.701,4.62504e-09,0,32768,32768
300.751,4.59227e-09,0,32768,32768
300.801,4.55825e-09,0,32768,32768
300.851,4.52316e-09,0,32768,32768
300.901,4.48715e-09,0,32768,32768
300.95,4.45037e-09,0,32768,32768
301,4.41294e-09,0,32768,32768
301.051,4.37386e-09,0,32768,32768
301.101,4.33543e-09,0,32768,32768
301.151,4.29664e-09,0,32768,32768
301.201,4.25753e-09,0,32768,32768
301.251,4.21818e-09,0,32768,32768
301.3,4.17862e-09,0,32768,32768
301.35,4.13889e-09,0,32768,32768
301.4,4.09904e-09,0,32768,32768
301.451,4.05791e-09,0,32768,32768
301.501,4.01787e-09,0,32768,32768
301.551,3.97775e-09,0,32768,32768
301.601,3.93757e-09,0,32768,32768
301.65,3.8973e-09,0,32768,32768
301.7,3.85694e-09,0,32768,32768
301.75,3.81645e-09,0,32768,32768
301.801,3.77462e-09,0,32768,32768
301.851,3.7338e-09,0,32768,32768
301.901,3.69276e-09,0,32768,32768
301.951,3.65146e-09,0,32768,32768
302.001,3.60986e-09,0,32768,32768
302.05,3.56792e-09,0,32768,32768
302.1,3.52561e-09,0,32768,32768
302.151,3.48163e-09,0,32768,32768
302.201,3.43846e-09,0,32768,32768
302.251,3.39483e-09,0,32768,32768
302.301,3.35071e-09,0,32768,32768
302.351,3.30609e-09,0,32768,32768
302.4,3.26096e-09,0,32768,32768
302.45,3.21532e-09,0,32768,32768
302.501,3.1678e-09,0,32768,32768
302.551,3.12114e-09,0,32768,32768
302.601,3.07399e-09,0,32768,32768
302.651,3.02637e-09,0,32768,32768
302.701,2.9783e-09,0,32768,32768
302.75,2.92982e-09,0,32768,32768
302.8,2.88096e-09,0,32768,32768
302.851,2.8303e-09,0,32768,32768
302.901,2.78079e-09,0,32768,32768
302.951,2.73103e-09,0,32768,32768
303.001,2.68108e-09,0,32768,32768
303.051,2.63099e-09,0,32768,32768
303.1,2.58082e-09,0,32768,32768
303.15,2.53063e-09,0,32768,32768
303.2,2.48048e-09,0,32768,32768
303.251,2.42896e-09,0,32768,32768
303.301,2.37906e-09,0,32768,32768
303.351,2.32937e-09,0,32768,32768
303.401,2.27994e-09,0,32768,32768
303.45,2.2308e-09,0,32768,32768
303.5,2.18199e-09,0,32768,32768
303.55,2.13356e-09,0,32768,32768
303.601,2.08412e-09,0,32768,32768
303.651,2.03651e-09,0,32768,32768
303.701,1.98934e-09,0,32768,32768
303.751,1.94263e-09,0,32768,32768
303.801,1.89637e-09,0,32768,32768
303.85,1.85057e-09,0,32768,32768
303.9,1.80525e-09,0,32768,32768
303.951,1.75907e-09,0,32768,32768
304.001,1.71469e-09,0,32768,32768
304.051,1.67076e-09,0,32768,32768
304.101,1.62728e-09,0,32768,32768
304.151,1.58424e-09,0,32768,32768
304.2,1.54163e-09,0,32768,32768
304.25,1.49943e-09,0,32768,32768
304.301,1.4564e-09,0,32768,32768
304.351,1.41499e-09,0,32768,32768
304.401,1.37395e-09,0,32768,32768
304.451,1.33325e-09,0,32768,32768
304.501,1.29288e-09,0,32768,32768
304.55,1.25284e-09,0,32768,32768
304.6,1.21309e-09,0,32768,32768
304.65,1.17364e-09,0,32768,32768
304.701,1.13331e-09,0,32768,32768
304.751,1.0944e-09,0,32768,32768
304.801,1.05576e-09,0,32768,32768
304.851,1.01736e-09,0,32768,32768
304.9,9.792e-10,0,32768,32768
304.95,9.41283e-10,0,32768,32768
