250,0,0,2048,2048
250.006,0,0,2048,2048
250.053,0,0,2048,2048
250.105,0,0,2048,2048
250.152,0,0,2048,2048
250.205,0,0,2048,2048
250.252,0,0,2048,2048
250.305,0,0,2048,2048
250.352,0,0,2048,2048
250.404,0,0,2048,2048
250.451,0,0,2048,2048
250.504,0,0,2048,2048
250.551,0,0,2048,2048
250.603,0,0,2048,2048
250.65,0,0,2048,2048
250.703,0,0,2048,2048
250.756,0,0,2048,2048
250.803,0,0,2048,2048
250.855,0,0,2048,2048
250.902,0,0,2048,2048
250.955,0,0,2048,2048
251.002,0,0,2048,2048
251.055,0,0,2048,2048
251.101,0,0,2048,2048
251.154,0,0,2048,2048
251.201,0,0,2048,2048
251.254,0,0,2048,2048
251.301,0,0,2048,2048
251.353,0,0,2048,2048
251.4,0,0,2048,2048
251.453,0,0,2048,2048
251.506,0,0,2048,2048
251.553,0,0,2048,2048
251.605,0,0,2048,2048
251.652,0,0,2048,2048
251.705,0,0,2048,2048
251.752,0,0,2048,2048
251.804,0,0,2048,2048
251.851,0,0,2048,2048
251.904,0,0,2048,2048
251.951,0,0,2048,2048
252.004,0,0,2048,2048
252.05,0,0,2048,2048
252.103,0,0,2048,2048
252.15,0,0,2048,2048
252.203,0,0,2048,2048
252.256,0,0,2048,2048
252.302,0,0,2048,2048
252.355,0,0,2048,2048
252.402,0,0,2048,2048
252.455,0,0,2048,2048
252.502,0,0,2048,2048
252.554,0,0,2048,2048
252.601,0,0,2048,2048
252.654,0,0,2048,2048
252.701,0,0,2048,2048
252.754,0,0,2048,2048
252.8,0,0,2048,2048
252.853,0,0,2048,2048
252.906,0,0,2048,2048
252.953,0,0,2048,2048
253.005,0,0,2048,2048
253.052,0,0,2048,2048
253.105,0,0,2048,2048
253.152,0,0,2048,2048
253.205,0,0,2048,2048
253.251,0,0,2048,2048
253.304,0,0,2048,2048
253.351,0,0,2048,2048
253.404,0,0,2048,2048
253.451,0,0,2048,2048
253.503,0,0,2048,2048
253.55,0,0,2048,2048
253.603,0,0,2048,2048
253.656,0,0,2048,2048
253.703,0,0,2048,2048
253.755,0,0,2048,2048
253.802,0,0,2048,2048
253.855,0,0,2048,2048
253.902,0,0,2048,2048
253.954,0,0,2048,2048
254.001,0,0,2048,2048
254.054,0,0,2048,2048
254.101,0,0,2048,2048
254.154,0,0,2048,2048
254.201,0,0,2048,2048
254.253,0,0,2048,2048
254.3,0,0,2048,2048
254.353,0,0,2048,2048
254.406,0,0,2048,2048
254.452,0,0,2048,2048
254.505,0,0,2048,2048
254.552,0,0,2048,2048
254.605,0,0,2048,2048
254.652,0,0,2048,2048
254.704,0,0,2048,2048
254.751,0,0,2048,2048
254.804,0,0,2048,2048
254.851,0,0,2048,2048
254.904,0,0,2048,2048
254.95,0,0,2048,2048
255.003,0,0,2048,2048
255.05,0,0,2048,2048
255.103,0,0,2048,2048
255.155,0,0,2048,2048
255.202,0,0,2048,2048
255.255,0,0,2048,2048
255.302,0,0,2048,2048
255.355,0,0,2048,2048
255.402,0,0,2048,2048
255.454,0,0,2048,2048
255.501,0,0,2048,2048
255.554,0,0,2048,2048
255.601,0,0,2048,2048
255.653,0,0,2048,2048
255.7,0,0,2048,2048
255.753,0,0,2048,2048
255.806,0,0,2048,2048
255.853,0,0,2048,2048
255.905,0,0,2048,2048
255.952,0,0,2048,2048
256.005,2.77556e-17,0,2048,2048
256.052,2.77556e-17,0,2048,2048
256.105,2.77556e-17,0,2048,2048
256.151,2.77556e-17,0,2048,2048
256.204,0,0,2048,2048
256.251,0,0,2048,2048
256.304,0,0,2048,2048
256.351,2.77556e-17,0,2048,2048
256.403,2.77556e-17,0,2048,2048
256.45,2.77556e-17,0,2048,2048
256.503,2.77556e-17,0,2048,2048
256.556,2.77556e-17,0,2048,2048
256.603,2.77556e-17,0,2048,2048
256.655,2.77556e-17,0,2048,2048
256.702,2.77556e-17,0,2048,2048
256.755,2.77556e-17,0,2048,2048
256.802,2.77556e-17,0,2048,2048
256.854,2.77556e-17,0,2048,2048
256.901,2.77556e-17,0,2048,2048
256.954,2.77556e-17,0,2048,2048
257.001,2.77556e-17,0,2048,2048
257.054,2.77556e-17,0,2048,2048
257.101,0,0,2048,2048
257.153,0,0,2048,2048
257.2,0,0,2048,2048
257.253,0,0,2048,2048
257.306,0,0,2048,2048
257.352,0,0,2048,2048
257.405,0,0,2048,2048
257.452,0,0,2048,2048
257.505,0,0,2048,2048
257.552,0,0,2048,2048
257.604,0,0,2048,2048
257.651,-2.77556e-17,0,2048,2048
257.704,-2.77556e-17,0,2048,2048
257.751,-2.77556e-17,0,2048,2048
257.804,-2.77556e-17,0,2048,2048
257.85,-2.77556e-17,0,2048,2048
257.903,-2.77556e-17,0,2048,2048
257.95,-2.77556e-17,0,2048,2048
258.003,-2.77556e-17,0,2048,2048
258.055,-2.77556e-17,0,2048,2048
258.102,-2.77556e-17,0,2048,2048
258.155,0,0,2048,2048
258.202,0,0,2048,2048
258.255,0,0,2048,2048
258.302,0,0,2048,2048
258.354,0,0,2048,2048
258.401,2.77556e-17,0,2048,2048
258.454,2.77556e-17,0,2048,2048
258.501,2.77556e-17,0,2048,2048
258.553,2.77556e-17,0,2048,2048
258.6,2.77556e-17,0,2048,2048
258.653,2.77556e-17,0,2048,2048
258.706,2.77556e-17,0,2048,2048
258.753,2.77556e-17,0,2048,2048
258.805,2.77556e-17,0,2048,2048
258.852,2.77556e-17,0,2048,2048
258.905,2.77556e-17,0,2048,2048
258.952,2.77556e-17,0,2048,2048
259.005,2.77556e-17,0,2048,2048
259.051,2.77556e-17,0,2048,2048
259.104,2.77556e-17,0,2048,2048
259.151,0,0,2048,2048
259.204,0,0,2048,2048
259.251,0,0,2048,2048
259.303,0,0,2048,2048
259.35,2.77556e-17,0,2048,2048
259.403,2.77556e-17,0,2048,2048
259.456,2.77556e-17,0,2048,2048
259.503,2.77556e-17,0,2048,2048
259.555,0,0,2048,2048
259.602,0,0,2048,2048
259.655,0,0,2048,2048
259.702,0,0,2048,2048
259.754,0,0,2048,2048
259.801,0,0,2048,2048
259.854,-2.77556e-17,0,2048,2048
259.901,-2.77556e-17,0,2048,2048
259.954,-5.55112e-17,0,2048,2048
260,-5.55112e-17,0,2048,2048
260.053,-5.55112e-17,0,2048,2048
260.1,-5.55112e-17,0,2048,2048
260.153,-5.55112e-17,0,2048,2048
260.206,-2.77556e-17,0,2048,2048
260.252,-2.77556e-17,0,2048,2048
260.305,-2.77556e-17,0,2048,2048
260.352,-2.77556e-17,0,2048,2048
260.405,-2.77556e-17,0,2048,2048
260.452,-2.77556e-17,0,2048,2048
260.504,-2.77556e-17,0,2048,2048
260.551,-2.77556e-17,0,2048,2048
260.604,-2.77556e-17,0,2048,2048
260.651,-2.77556e-17,0,2048,2048
260.704,-2.77556e-17,0,2048,2048
260.75,-2.77556e-17,0,2048,2048
260.803,-2.77556e-17,0,2048,2048
260.856,-2.77556e-17,0,2048,2048
260.903,-2.77556e-17,0,2048,2048
260.955,-2.77556e-17,0,2048,2048
261.002,-2.77556e-17,0,2048,2048
261.055,-2.77556e-17,0,2048,2048
261.102,0,0,2048,2048
261.155,0,0,2048,2048
261.201,0,0,2048,2048
261.254,2.77556e-17,0,2048,2048
261.301,2.77556e-17,0,2048,2048
261.354,0,0,2048,2048
261.401,0,0,2048,2048
261.453,0,0,2048,2048
261.5,2.77556e-17,0,2048,2048
261.553,2.77556e-17,0,2048,2048
261.606,2.77556e-17,0,2048,2048
261.653,2.77556e-17,0,2048,2048
261.705,0,0,2048,2048
261.752,0,0,2048,2048
261.805,0,0,2048,2048
261.852,2.77556e-17,0,2048,2048
261.905,2.77556e-17,0,2048,2048
261.951,0,0,2048,2048
262.004,0,0,2048,2048
262.051,-5.55112e-17,0,2048,2048
262.104,-5.55112e-17,0,2048,2048
262.151,-1.11022e-16,0,2048,2048
262.203,-8.32667e-17,0,2048,2048
262.25,-8.32667e-17,0,2048,2048
262.303,-8.32667e-17,0,2048,2048
262.356,-8.32667e-17,0,2048,2048
262.402,-8.32667e-17,0,2048,2048
262.455,-8.32667e-17,0,2048,2048
262.502,-5.55112e-17,0,2048,2048
262.555,-5.55112e-17,0,2048,2048
262.602,-5.55112e-17,0,2048,2048
262.654,-5.55112e-17,0,2048,2048
262.701,-5.55112e-17,0,2048,2048
262.754,-8.32667e-17,0,2048,2048
262.801,-8.32667e-17,0,2048,2048
262.854,-8.32667e-17,0,2048,2048
262.9,-8.32667e-17,0,2048,2048
262.953,-8.32667e-17,0,2048,2048
263,-8.32667e-17,0,2048,2048
263.053,-8.32667e-17,0,2048,2048
263.105,-8.32667e-17,0,2048,2048
263.152,-8.32667e-17,0,2048,2048
263.205,-8.32667e-17,0,2048,2048
263.252,-8.32667e-17,0,2048,2048
263.305,-8.32667e-17,0,2048,2048
263.352,-8.32667e-17,0,2048,2048
263.404,-8.32667e-17,0,2048,2048
263.451,-8.32667e-17,0,2048,2048
263.504,-8.32667e-17,0,2048,2048
263.551,-8.32667e-17,0,2048,2048
263.603,-8.32667e-17,0,2048,2048
263.65,-8.32667e-17,0,2048,2048
263.703,-8.32667e-17,0,2048,2048
263.756,-5.55112e-17,0,2048,2048
263.803,-5.55112e-17,0,2048,2048
263.855,-5.55112e-17,0,2048,2048
263.902,-5.55112e-17,0,2048,2048
263.955,-5.55112e-17,0,2048,2048
264.002,-5.55112e-17,0,2048,2048
264.055,-5.55112e-17,0,2048,2048
264.101,-5.55112e-17,0,2048,2048
264.154,-5.55112e-17,0,2048,2048
264.201,-5.55112e-17,0,2048,2048
264.254,-5.55112e-17,0,2048,2048
264.301,-5.55112e-17,0,2048,2048
264.353,-5.55112e-17,0,2048,2048
264.4,-5.55112e-17,0,2048,2048
264.453,-5.55112e-17,0,2048,2048
264.506,-5.55112e-17,0,2048,2048
264.553,-5.55112e-17,0,2048,2048
264.605,-5.55112e-17,0,2048,2048
264.652,-5.55112e-17,0,2048,2048
264.705,-5.55112e-17,0,2048,2048
264.752,-5.55112e-17,0,2048,2048
264.804,-5.55112e-17,0,2048,2048
264.851,-5.55112e-17,0,2048,2048
264.904,-5.55112e-17,0,2048,2048
264.951,-5.55112e-17,0,2048,2048
265.004,0,0,2048,2048
265.051,0,0,2048,2048
265.103,0,0,2048,2048
265.15,0,0,2048,2048
265.203,0,0,2048,2048
265.256,0,0,2048,2048
265.302,0,0,2048,2048
265.355,0,0,2048,2048
265.402,2.77556e-17,0,2048,2048
265.455,2.77556e-17,0,2048,2048
265.502,2.77556e-17,0,2048,2048
265.554,2.77556e-17,0,2048,2048
265.601,2.77556e-17,0,2048,2048
265.654,2.77556e-17,0,2048,2048
265.701,0,0,2048,2048
265.754,0,0,2048,2048
265.8,0,0,2048,2048
265.853,2.77556e-17,0,2048,2048
265.9,2.77556e-17,0,2048,2048
265.953,2.77556e-17,0,2048,2048
266.005,2.77556e-17,0,2048,2048
266.052,5.55112e-17,0,2048,2048
266.105,2.77556e-17,0,2048,2048
266.152,2.77556e-17,0,2048,2048
266.205,5.55112e-17,0,2048,2048
266.252,5.55112e-17,0,2048,2048
266.304,5.55112e-17,0,2048,2048
266.351,5.55112e-17,0,2048,2048
266.404,5.55112e-17,0,2048,2048
266.451,5.55112e-17,0,2048,2048
266.503,5.55112e-17,0,2048,2048
266.55,5.55112e-17,0,2048,2048
266.603,5.55112e-17,0,2048,2048
266.656,5.55112e-17,0,2048,2048
266.703,5.55112e-17,0,2048,2048
266.755,5.55112e-17,0,2048,2048
266.802,5.55112e-17,0,2048,2048
266.855,5.55112e-17,0,2048,2048
266.902,5.55112e-17,0,2048,2048
266.955,5.55112e-17,0,2048,2048
267.001,5.55112e-17,0,2048,2048
267.054,5.55112e-17,0,2048,2048
267.101,5.55112e-17,0,2048,2048
267.154,5.55112e-17,0,2048,2048
267.201,5.55112e-17,0,2048,2048
267.253,5.55112e-17,0,2048,2048
267.3,5.55112e-17,0,2048,2048
267.353,5.55112e-17,0,2048,2048
267.406,5.55112e-17,0,2048,2048
267.453,5.55112e-17,0,2048,2048
267.505,5.55112e-17,0,2048,2048
267.552,5.55112e-17,0,2048,2048
267.605,5.55112e-17,0,2048,2048
267.652,2.77556e-17,0,2048,2048
267.704,2.77556e-17,0,2048,2048
267.751,2.77556e-17,0,2048,2048
267.804,2.77556e-17,0,2048,2048
267.851,5.55112e-17,0,2048,2048
267.904,2.77556e-17,0,2048,2048
267.95,2.77556e-17,0,2048,2048
268.003,5.55112e-17,0,2048,2048
268.05,2.77556e-17,0,2048,2048
268.101,2.77556e-17,0,3358,3358
268.15,2.77556e-17,0,4246,4246
268.2,2.77556e-17,0,5170,5170
268.251,2.77556e-17,0,6130,6130
268.3,2.77556e-17,0,7018,7018
268.35,2.77556e-17,0,7906,7906
268.4,2.77556e-17,0,8830,8830
268.451,2.77556e-17,0,9790,9790
268.5,2.77556e-17,0,10666,10666
268.55,2.77556e-17,0,11554,11554
268.601,2.77556e-17,0,12478,12478
268.651,2.77556e-17,0,13366,13366
268.7,2.77556e-17,0,14242,14242
268.75,2.77556e-17,0,15202,15202
268.801,2.77556e-17,0,16090,16090
268.85,2.77556e-17,0,16966,16966
268.9,2.77556e-17,0,17902,17902
268.95,2.77556e-17,0,18778,18778
269.001,2.77556e-17,0,19666,19666
269.05,2.77556e-17,0,20542,20542
269.1,2.77556e-17,0,21502,21502
269.151,2.77556e-17,0,22390,22390
269.2,2.77556e-17,0,23266,23266
269.25,2.77556e-17,0,24154,24154
269.3,2.77556e-17,0,25030,25030
269.351,2.77556e-17,0,25966,25966
269.4,2.77556e-17,0,26842,26842
269.45,2.77556e-17,0,27730,27730
269.501,2.77556e-17,0,28606,28606
269.551,2.77556e-17,0,29494,29494
269.6,2.77556e-17,0,30370,30370
269.65,2.77556e-17,0,31258,31258
269.701,2.77556e-17,0,32134,32134
269.75,2.77556e-17,0,33022,33022
269.8,2.77556e-17,0,33898,33898
269.85,2.77556e-17,0,34762,34762
269.901,2.77556e-17,0,35614,35614
269.95,2.77556e-17,0,36418,36418
270,2.77556e-17,0,36922,36922
270.051,2.77556e-17,0,37810,37810
270.1,2.77556e-17,0,38686,38686
270.15,2.77556e-17,0,39574,39574
270.2,2.77556e-17,0,40402,40402
270.251,2.77556e-17,0,41290,41290
270.3,2.77556e-17,0,42166,42166
270.35,2.77556e-17,0,43054,43054
270.4,2.77556e-17,0,43930,43930
270.451,2.77556e-17,0,44734,44734
270.5,2.77556e-17,0,45622,45622
270.55,2.77556e-17,0,46498,46498
270.601,2.77556e-17,0,47338,47338
270.65,2.77556e-17,0,48214,48214
270.7,2.77556e-17,0,49018,49018
270.75,2.77556e-17,0,49906,49906
270.801,2.77556e-17,0,50734,50734
270.85,2.77556e-17,0,51538,51538
270.9,2.77556e-17,0,52426,52426
270.951,2.77556e-17,0,53254,53254
271.001,2.77556e-17,0,54058,54058
271.05,2.77556e-17,0,54898,54898
271.1,2.77556e-17,0,55702,55702
271.151,2.77556e-17,0,56570,56570
271.2,2.77556e-17,0,57402,57402
271.25,2.77556e-17,0,58174,58174
271.3,2.77556e-17,0,58978,58978
271.351,2.77556e-17,0,59806,59806
271.4,2.77556e-17,0,60610,60610
271.45,2.77556e-17,0,61450,61450
271.501,2.77556e-17,0,62254,62254
271.55,2.77556e-17,0,63010,63010
271.6,2.77556e-17,0,63838,63838
271.65,2.77556e-17,0,64606,64606
271.701,6.38378e-16,0,65398,65398
271.75,2.47025e-15,0,66238,66238
271.8,4.35763e-15,0,66994,66994
271.851,6.27276e-15,0,67798,67798
271.901,8.16014e-15,0,68554,68554
271.95,1.00475e-14,0,69310,69310
272,1.19349e-14,0,70066,70066
272.051,1.385e-14,0,70894,70894
272.1,1.56819e-14,0,71650,71650
272.15,1.75693e-14,0,72406,72406
272.2,1.94567e-14,0,73162,73162
272.251,2.13163e-14,0,73918,73918
272.3,2.3842e-14,0,74674,74674
272.35,2.99483e-14,0,75430,75430
272.401,4.51028e-14,0,76186,76186
272.45,7.61058e-14,0,76942,76942
272.5,1.31561e-13,0,77698,77698
272.55,2.16938e-13,0,78382,78382
272.601,3.26739e-13,0,79138,79138
272.65,4.23217e-13,0,79894,79894
272.7,4.30739e-13,0,80602,80602
272.751,2.16355e-13,0,81358,81358
272.801,-3.81722e-13,0,82114,82114
272.85,-1.53358e-12,0,82786,82786
272.9,-3.35582e-12,0,83494,83494
272.951,-7.10879e-12,0,84250,84250
273,-7.14181e-11,0,84934,84934
273.05,-2.86933e-10,0,85666,85666
273.1,-5.02835e-10,0,86398,86398
273.151,-4.63803e-10,0,87070,87070
273.2,-1.66246e-10,0,87790,87790
273.25,1.81341e-10,0,88534,88534
273.301,3.69971e-10,0,89218,89218
273.35,2.98593e-10,0,89926,89926
273.4,5.51849e-11,0,90598,90598
273.45,-1.45102e-10,0,91346,91346
273.501,-1.25489e-10,0,92062,92062
273.55,8.83733e-11,0,92746,92746
273.6,2.94581e-10,0,93454,93454
273.65,3.09582e-10,0,94126,94126
273.701,1.329e-10,0,94834,94834
273.75,-5.45187e-11,0,95518,95518
273.8,-8.50925e-11,0,96226,96226
273.851,5.58807e-11,0,96982,96982
273.9,2.27717e-10,0,97654,97654
273.95,2.89384e-10,0,98362,98362
274,2.09379e-10,0,99034,99034
274.051,6.34425e-11,0,99754,99754
274.1,-3.80214e-11,0,100426,100426
274.15,-3.33905e-11,0,101062,101062
274.201,8.44912e-11,0,101770,101770
274.251,2.55394e-10,0,102486,102486
274.3,3.61791e-10,0,103150,103150
274.35,2.74388e-10,0,103834,103834
274.401,-2.00953e-11,0,104542,104542
274.45,-2.90495e-10,0,105214,105214
274.5,-2.07052e-10,0,105922,105922
274.55,3.20256e-10,0,106558,106558
274.601,8.68149e-10,0,107230,107230
274.65,7.09597e-10,0,107938,107938
274.7,-3.48035e-10,0,108622,108622
274.751,-1.41153e-09,0,109330,109330
274.8,-7.9565e-10,0,109954,109954
274.85,2.6263e-09,0,110638,110638
274.9,8.57667e-09,0,111346,111346
274.951,1.57077e-08,0,112018,112018
275,2.21953e-08,0,112654,112654
275.05,2.71619e-08,0,113362,113362
275.101,3.04314e-08,0,114026,114026
275.151,3.2475e-08,0,114670,114670
275.2,3.47068e-08,0,115378,115378
275.25,3.88482e-08,0,116002,116002
275.301,4.62054e-08,0,116686,116686
275.35,5.65472e-08,0,117310,117310
275.4,6.91449e-08,0,118018,118018
275.45,8.35268e-08,0,118654,118654
275.501,1.00607e-07,0,119326,119326
275.55,1.21438e-07,0,119962,119962
275.6,1.47872e-07,0,120670,120670
275.651,1.81608e-07,0,121294,121294
275.7,2.22107e-07,0,121930,121930
275.75,2.69123e-07,0,122554,122554
275.8,3.20619e-07,0,123190,123190
275.851,3.74814e-07,0,123814,123814
275.9,4.28776e-07,0,124366,124366
275.95,4.8423e-07,0,124954,124954
276,5.43257e-07,0,125506,125506
276.051,6.07435e-07,0,126082,126082
276.1,6.72415e-07,0,126634,126634
276.15,7.34508e-07,0,127182,127182
276.201,7.90005e-07,0,127726,127726
276.25,8.34396e-07,0,128230,128230
276.3,8.67375e-07,0,128734,128734
276.35,8.89342e-07,0,129238,129238
276.401,9.02363e-07,0,129742,129742
276.45,9.08809e-07,0,130294,130294
276.5,9.11161e-07,0,131072,131072
276.551,9.10384e-07,0,131072,131072
276.6,9.06433e-07,0,130816,130816
276.65,8.98639e-07,0,130680,130680
276.7,8.85952e-07,0,131072,131072
276.751,8.66823e-07,0,131072,131072
276.8,8.40642e-07,0,131072,131072
276.85,8.06311e-07,0,131072,131072
276.9,7.63561e-07,0,131072,131072
276.951,7.12562e-07,0,131072,131072
277,6.57345e-07,0,131072,131072
277.05,6.00578e-07,0,131072,131072
277.101,5.44379e-07,0,131072,131072
277.15,4.92157e-07,0,131072,131072
277.2,4.43856e-07,0,131040,131040
277.25,3.9959e-07,0,131072,131072
277.301,3.58385e-07,0,131040,131040
277.35,3.2073e-07,0,131072,131072
277.4,2.85287e-07,0,131072,131072
277.451,2.51024e-07,0,131072,131072
277.501,2.18801e-07,0,131072,131072
277.55,1.88825e-07,0,131072,131072
277.6,1.62726e-07,0,131072,131072
277.651,1.41839e-07,0,131072,131072
277.7,1.26717e-07,0,131072,131072
277.75,1.14711e-07,0,131008,131008
277.8,1.02715e-07,0,131072,131072
277.851,8.88961e-08,0,131072,131072
277.9,7.45063e-08,0,131072,131072
277.95,6.15002e-08,0,131072,131072
278.001,5.13677e-08,0,131072,131072
278.05,4.46482e-08,0,131072,131072
278.1,4.03622e-08,0,131072,131072
278.15,3.71774e-08,0,131072,131072
278.201,3.35148e-08,0,131072,131072
278.25,2.83238e-08,0,131072,131072
278.3,2.1594e-08,0,131072,131072
278.351,1.46437e-08,0,131072,131072
278.401,9.53018e-09,0,131072,131072
278.45,7.05044e-09,0,131072,131072
278.5,6.70132e-09,0,131072,131072
278.551,7.28284e-09,0,131072,131072
278.6,7.83127e-09,0,131072,131072
278.65,8.0786e-09,0,131072,131072
278.7,8.15742e-09,0,131072,131072
278.751,8.23356e-09,0,131072,131072
278.8,8.34759e-09,0,131072,131072
278.85,8.45292e-09,0,131072,131072
278.901,8.42808e-09,0,131072,131072
278.95,8.10202e-09,0,131072,131072
279,7.57782e-09,0,131072,131072
279.05,7.22163e-09,0,131072,131072
279.101,7.11558e-09,0,131072,131072
279.15,7.11391e-09,0,131072,131072
279.2,7.1305e-09,0,131072,131072
279.25,7.14878e-09,0,131072,131072
279.301,7.1673e-09,0,131072,131072
279.35,7.18532e-09,0,131072,131072
279.4,7.20318e-09,0,131072,131072
279.451,7.22134e-09,0,131072,131072
279.5,7.2395e-09,0,131072,131072
279.55,7.25796e-09,0,131072,131072
279.6,7.27649e-09,0,131072,131072
279.651,7.29499e-09,0,131072,131072
279.7,7.31274e-09,0,131072,131072
279.75,7.33024e-09,0,131072,131072
279.801,7.34836e-09,0,131072,131072
279.851,7.36695e-09,0,131072,131072
279.9,7.38584e-09,0,131072,131072
279.95,7.40387e-09,0,131072,131072
280.001,7.42082e-09,0,131072,131072
280.05,7.43815e-09,0,131072,131072
280.1,7.46106e-09,0,131072,131072
280.15,7.49538e-09,0,131072,131072
280.201,7.54323e-09,0,131072,131072
280.25,7.59581e-09,0,131072,131072
280.3,7.6432e-09,0,131072,131072
280.351,7.68922e-09,0,131072,131072
280.4,7.76242e-09,0,131072,131072
280.45,7.9083e-09,0,131072,131072
280.5,8.15327e-09,0,131072,131072
280.551,8.48393e-09,0,131072,131072
280.6,8.83571e-09,0,131072,131072
280.65,9.16454e-09,0,131072,131072
280.701,9.47235e-09,0,131072,131072
280.751,9.80104e-09,0,131072,131072
280.8,1.02262e-08,0,131072,131072
280.85,1.07953e-08,0,131072,131072
280.901,1.15238e-08,0,131072,131072
280.95,1.23702e-08,0,131072,131072
281,1.33402e-08,0,131072,131072
281.05,1.44684e-08,0,131072,131072
281.101,1.58343e-08,0,131072,131072
281.15,1.74428e-08,0,131072,131072
281.2,1.93181e-08,0,131072,131072
281.251,2.14716e-08,0,131072,131072
281.3,2.38214e-08,0,131072,131072
281.35,2.64026e-08,0,131072,131072
281.4,2.92417e-08,0,131072,131072
281.451,3.24101e-08,0,131072,131072
281.5,3.58107e-08,0,131072,131072
281.55,3.94412e-08,0,131072,131072
281.6,4.3226e-08,0,131072,131072
281.651,4.71488e-08,0,131072,131072
281.7,5.10631e-08,0,131072,131072
281.75,5.50499e-08,0,131072,131072
281.801,5.92173e-08,0,131072,131072
281.85,6.34413e-08,0,131072,131072
281.9,6.76861e-08,0,131072,131072
281.95,7.18255e-08,0,131072,131072
282.001,7.59204e-08,0,131072,131072
282.05,8.01236e-08,0,131072,131072
282.1,8.49926e-08,0,131072,131072
282.151,9.11032e-08,0,131072,131072
282.201,9.84239e-08,0,131072,131072
282.25,1.06696e-07,0,131072,131072
282.3,1.15225e-07,0,131072,131072
282.351,1.23394e-07,0,131072,131072
282.4,1.30527e-07,0,131072,131072
282.45,1.36809e-07,0,131072,131072
282.5,1.42786e-07,0,131072,131072
282.551,1.49395e-07,0,131072,131072
282.6,1.57274e-07,0,131072,131072
282.65,1.67062e-07,0,131072,131072
282.701,1.79191e-07,0,131072,131072
282.75,1.93437e-07,0,131072,131072
282.8,2.10249e-07,0,131072,131072
282.85,2.30235e-07,0,131072,131072
282.901,2.54619e-07,0,131072,131072
282.95,2.83489e-07,0,131072,131072
283,3.1757e-07,0,131072,131072
283.051,3.57255e-07,0,131072,131072
283.101,4.00552e-07,0,131072,131072
283.15,4.46848e-07,0,131072,131072
283.2,4.95136e-07,0,131072,131072
283.251,5.45624e-07,0,131072,131072
283.3,5.9669e-07,0,131072,131072
283.35,6.4873e-07,0,131072,131072
283.4,7.0065e-07,0,131072,131072
283.451,7.51095e-07,0,131072,131072
283.5,7.95907e-07,0,131072,131072
283.55,8.33296e-07,0,131072,131072
283.601,8.61846e-07,0,131072,131072
283.65,8.8012e-07,0,131072,131072
283.7,8.89141e-07,0,131072,131072
283.75,8.90235e-07,0,131072,131072
283.801,8.84883e-07,0,131072,131072
283.85,8.74612e-07,0,131072,131072
283.9,8.6018e-07,0,131072,131072
283.95,8.4174e-07,0,131072,131072
284.001,8.18551e-07,0,131072,131072
284.05,7.90593e-07,0,131072,131072
284.1,7.56814e-07,0,131072,131072
284.151,7.16026e-07,0,131072,131072
284.2,6.69333e-07,0,131072,131072
284.25,6.16817e-07,0,131072,131072
284.3,5.59873e-07,0,131072,131072
284.351,4.99611e-07,0,131072,131072
284.4,4.40006e-07,0,131072,131072
284.45,3.82157e-07,0,131072,131072
284.501,3.26697e-07,0,131072,131072
284.551,2.75993e-07,0,131072,131072
284.6,2.29385e-07,0,131072,131072
284.65,1.86641e-07,0,131072,131072
284.701,1.46789e-07,0,131072,131072
284.75,1.10603e-07,0,131072,131072
284.8,7.73428e-08,0,131072,131072
284.85,4.72288e-08,0,131072,131072
284.901,2.03996e-08,0,131072,131072
284.95,-1.88696e-09,0,131072,131072
285,-2.00086e-08,0,131072,131072
285.051,-3.47791e-08,0,131072,131072
285.1,-4.68839e-08,0,131072,131072
285.15,-5.76091e-08,0,131072,131072
285.2,-6.74424e-08,0,131072,131072
285.251,-7.63002e-08,0,131072,131072
285.3,-8.33364e-08,0,131072,131072
285.35,-8.82198e-08,0,131072,131072
285.401,-9.09681e-08,0,131072,131072
285.451,-9.20092e-08,0,131072,131072
285.5,-9.21864e-08,0,131072,131072
285.55,-9.22182e-08,0,131072,131072
285.601,-9.24382e-08,0,131072,131072
285.65,-9.26498e-08,0,131072,131072
285.7,-9.23091e-08,0,131072,131072
285.75,-9.08692e-08,0,131072,131072
285.801,-8.80536e-08,0,131072,131072
285.85,-8.41346e-08,0,131072,131072
285.9,-7.95273e-08,0,131072,131072
285.951,-7.46172e-08,0,131072,131072
286,-6.98547e-08,0,131072,131072
286.05,-6.53054e-08,0,131072,131072
286.1,-6.10113e-08,0,131072,131072
286.151,-5.69413e-08,0,131072,131072
286.2,-5.32537e-08,0,131072,131072
286.25,-4.99234e-08,0,131072,131072
286.3,-4.69498e-08,0,131072,131072
286.351,-4.42506e-08,0,131072,131072
286.4,-4.18441e-08,0,131072,131072
286.45,-3.9653e-08,0,131072,131072
286.501,-3.76463e-08,0,131072,131072
286.55,-3.5894e-08,0,131072,131072
286.6,-3.43719e-08,0,131072,131072
286.65,-3.30743e-08,0,131072,131072
286.701,-3.19722e-08,0,131072,131072
286.75,-3.10799e-08,0,131072,131072
286.8,-3.03621e-08,0,131072,131072
286.851,-2.97951e-08,0,131072,131072
286.9,-2.93788e-08,0,131072,131072
286.95,-2.9087e-08,0,131072,131072
287,-2.89018e-08,0,131072,131072
287.051,-2.88043e-08,0,131072,131072
287.1,-2.87801e-08,0,131072,131072
287.15,-2.88131e-08,0,131072,131072
287.2,-2.88929e-08,0,131072,131072
287.251,-2.90144e-08,0,131072,131072
287.3,-2.91679e-08,0,131072,131072
287.35,-2.93487e-08,0,131072,131072
287.401,-2.95521e-08,0,131072,131072
287.45,-2.97641e-08,0,131072,131072
287.5,-2.99797e-08,0,131072,131072
287.55,-3.01936e-08,0,131072,131072
287.601,-3.04056e-08,0,131072,131072
287.65,-3.06086e-08,0,131072,131072
287.7,-3.08054e-08,0,131072,131072
287.751,-3.09975e-08,0,131072,131072
287.801,-3.11768e-08,0,131072,131072
287.85,-3.1342e-08,0,131072,131072
287.9,-3.14891e-08,0,131072,131072
287.951,-3.16164e-08,0,131072,131072
288,-3.17181e-08,0,131072,131072
288.05,-3.17958e-08,0,131072,131072
288.1,-3.18502e-08,0,131072,131072
288.151,-3.18825e-08,0,131072,131072
288.2,-3.18935e-08,0,131072,131072
288.25,-3.18853e-08,0,131072,131072
288.301,-3.18592e-08,0,131072,131072
288.35,-3.18177e-08,0,131072,131072
288.4,-3.17626e-08,0,131072,131072
288.45,-3.16954e-08,0,131072,131072
288.501,-3.16163e-08,0,131072,131072
288.55,-3.15291e-08,0,131072,131072
288.6,-3.1434e-08,0,131072,131072
288.651,-3.13308e-08,0,131072,131072
288.701,-3.12238e-08,0,131072,131072
288.75,-3.11126e-08,0,131072,131072
288.8,-3.09977e-08,0,131072,131072
288.851,-3.08778e-08,0,131072,131072
288.9,-3.07566e-08,0,131072,131072
288.95,-3.06328e-08,0,131072,131072
289,-3.05068e-08,0,131072,131072
289.051,-3.03776e-08,0,131072,131072
289.1,-3.02498e-08,0,131072,131072
289.15,-3.01222e-08,0,131072,131072
289.201,-2.99932e-08,0,131072,131072
289.25,-2.98663e-08,0,131072,131072
289.3,-2.97386e-08,0,131072,131072
289.35,-2.96089e-08,0,131072,131072
289.401,-2.94738e-08,0,131072,131072
289.45,-2.93356e-08,0,131072,131072
289.5,-2.91903e-08,0,131072,131072
289.551,-2.90335e-08,0,131072,131072
289.601,-2.88664e-08,0,131072,131072
289.65,-2.86835e-08,0,131072,131072
289.7,-2.84806e-08,0,131072,131072
289.751,-2.82504e-08,0,131072,131072
289.8,-2.7996e-08,0,131072,131072
289.85,-2.77117e-08,0,131072,131072
289.9,-2.73959e-08,0,131072,131072
289.951,-2.70422e-08,0,131072,131072
290,-2.66609e-08,0,131072,131072
290.05,-2.62478e-08,0,131072,131072
290.101,-2.57984e-08,0,131072,131072
290.15,-2.53294e-08,0,131072,131072
290.2,-2.48403e-08,0,131072,131072
290.25,-2.43386e-08,0,131072,131072
290.301,-2.3826e-08,0,131072,131072
290.35,-2.33267e-08,0,131072,131072
290.4,-2.28424e-08,0,131072,131072
290.45,-2.23809e-08,0,131072,131072
290.501,-2.19429e-08,0,131072,131072
290.55,-2.15462e-08,0,131072,131072
290.6,-2.11885e-08,0,131072,131072
290.651,-2.08692e-08,0,131072,131072
290.7,-2.06008e-08,0,131072,131072
290.75,-2.03814e-08,0,131072,131072
290.8,-2.02134e-08,0,131072,131072
290.851,-2.00969e-08,0,131072,131072
290.9,-2.00356e-08,0,131072,131072
290.95,-2.00261e-08,0,131072,131072
291.001,-2.00667e-08,0,131072,131072
291.051,-2.01523e-08,0,131072,131072
291.1,-2.0278e-08,0,131072,131072
291.15,-2.04386e-08,0,131072,131072
291.201,-2.06311e-08,0,131072,131072
291.25,-2.08441e-08,0,131072,131072
291.3,-2.10743e-08,0,131072,131072
291.35,-2.1316e-08,0,131072,131072
291.401,-2.15674e-08,0,131072,131072
291.45,-2.18154e-08,0,131072,131072
291.5,-2.20581e-08,0,131072,131072
291.551,-2.2293e-08,0,131072,131072
291.6,-2.25077e-08,0,131072,131072
291.65,-2.27007e-08,0,131072,131072
291.7,-2.28683e-08,0,131072,131072
291.751,-2.30099e-08,0,131072,131072
291.8,-2.31209e-08,0,131072,131072
291.85,-2.3204e-08,0,131072,131072
291.901,-2.32613e-08,0,131072,131072
291.951,-2.32925e-08,0,131072,131072
292,-2.33e-08,0,131072,131072
292.05,-2.32849e-08,0,131072,131072
292.101,-2.32483e-08,0,131072,131072
292.15,-2.31932e-08,0,131072,131072
292.2,-2.31219e-08,0,131072,131072
292.25,-2.30369e-08,0,131072,131072
292.301,-2.29389e-08,0,131072,131072
292.35,-2.28324e-08,0,131072,131072
292.4,-2.27171e-08,0,131072,131072
292.451,-2.25917e-08,0,131072,131072
292.5,-2.24601e-08,0,131072,131072
292.55,-2.23212e-08,0,131072,131072
292.6,-2.2176e-08,0,131072,131072
292.651,-2.20233e-08,0,131072,131072
292.7,-2.18688e-08,0,131072,131072
292.75,-2.17113e-08,0,131072,131072
292.8,-2.15517e-08,0,131072,131072
292.851,-2.13885e-08,0,131072,131072
292.9,-2.12277e-08,0,131072,131072
292.95,-2.10684e-08,0,131072,131072
293.001,-2.09098e-08,0,131072,131072
293.05,-2.07577e-08,0,131072,131072
293.1,-2.06107e-08,0,131072,131072
293.15,-2.04693e-08,0,131072,131072
293.201,-2.03318e-08,0,131072,131072
293.25,-2.02028e-08,0,131072,131072
293.3,-2.00815e-08,0,131072,131072
293.351,-1.99675e-08,0,131072,131072
293.401,-1.98653e-08,0,131072,131072
293.45,-1.9773e-08,0,131072,131072
293.5,-1.96897e-08,0,131072,131072
293.551,-1.96123e-08,0,131072,131072
293.6,-1.95404e-08,0,131072,131072
293.65,-1.94708e-08,0,131072,131072
293.7,-1.94019e-08,0,131072,131072
293.751,-1.9332e-08,0,131072,131072
293.8,-1.92635e-08,0,131072,131072
293.85,-1.91959e-08,0,131072,131072
293.901,-1.91293e-08,0,131072,131072
293.95,-1.9066e-08,0,131072,131072
294,-1.90053e-08,0,131072,131072
294.05,-1.89466e-08,0,131072,131072
294.101,-1.8888e-08,0,131072,131072
294.15,-1.88298e-08,0,131072,131072
294.2,-1.87695e-08,0,131072,131072
294.251,-1.87045e-08,0,131072,131072
294.301,-1.86359e-08,0,131072,131072
294.35,-1.85625e-08,0,131072,131072
294.4,-1.84849e-08,0,131072,131072
294.451,-1.84027e-08,0,131072,131072
294.5,-1.83194e-08,0,131072,131072
294.55,-1.82349e-08,0,131072,131072
294.6,-1.81498e-08,0,131072,131072
294.651,-1.80628e-08,0,131072,131072
294.7,-1.79763e-08,0,131072,131072
294.75,-1.78884e-08,0,131072,131072
294.801,-1.77973e-08,0,131072,131072
294.85,-1.77055e-08,0,131072,131072
294.9,-1.7612e-08,0,131072,131072
294.95,-1.75173e-08,0,131072,131072
295.001,-1.74207e-08,0,131072,131072
295.05,-1.73249e-08,0,131072,131072
295.1,-1.72278e-08,0,131072,131072
295.15,-1.71285e-08,0,131072,131072
295.201,-1.70243e-08,0,131072,131072
295.25,-1.69176e-08,0,131072,131072
295.3,-1.68071e-08,0,131072,131072
295.351,-1.66914e-08,0,131072,131072
295.4,-1.6574e-08,0,131072,131072
295.45,-1.64532e-08,0,131072,131072
295.5,-1.63284e-08,0,131072,131072
295.551,-1.61969e-08,0,131072,131072
295.6,-1.60615e-08,0,131072,131072
295.65,-1.59201e-08,0,131072,131072
295.701,-1.57705e-08,0,131072,131072
295.751,-1.56175e-08,0,131072,131072
295.8,-1.54594e-08,0,131072,131072
295.85,-1.52965e-08,0,131072,131072
295.901,-1.51265e-08,0,131072,131072
295.95,-1.49541e-08,0,131072,131072
296,-1.47766e-08,0,131072,131072
296.05,-1.45938e-08,0,131072,131072
296.101,-1.44025e-08,0,131072,131072
296.15,-1.42081e-08,0,131072,131072
296.2,-1.40073e-08,0,131072,131072
296.251,-1.37968e-08,0,131072,131072
296.3,-1.35827e-08,0,131072,131072
296.35,-1.3362e-08,0,131072,131072
296.4,-1.31352e-08,0,131072,131072
296.451,-1.2899e-08,0,131072,131072
296.5,-1.26607e-08,0,131072,131072
296.55,-1.24166e-08,0,131072,131072
296.601,-1.21627e-08,0,131072,131072
296.651,-1.19055e-08,0,131072,131072
296.7,-1.16402e-08,0,131072,131072
296.75,-1.13653e-08,0,131072,131072
296.801,-1.10746e-08,0,131072,131072
296.85,-1.07746e-08,0,131072,131072
296.9,-1.04584e-08,0,131072,131072
296.95,-1.01235e-08,0,131072,131072
297.001,-9.76165e-09,0,131072,131072
297.05,-9.3804e-09,0,131072,131072
297.1,-8.97223e-09,0,131072,131072
297.151,-8.52839e-09,0,131072,131072
297.2,-8.06018e-09,0,131072,131072
297.25,-7.56039e-09,0,131072,131072
297.3,-7.02863e-09,0,131072,131072
297.351,-6.45671e-09,0,131072,131072
297.4,-5.86242e-09,0,131072,131072
297.45,-5.23998e-09,0,131072,131072
297.5,-4.59285e-09,0,131072,131072
297.551,-3.91573e-09,0,131072,131072
297.6,-3.23392e-09,0,131072,131072
297.65,-2.54391e-09,0,131072,131072
297.701,-1.84185e-09,0,131072,131072
297.75,-1.15415e-09,0,131072,131072
297.8,-4.76083e-10,0,131072,131072
297.85,1.87626e-10,0,131072,131072
297.901,8.42176e-10,0,131072,131072
297.95,1.46485e-09,0,131072,131072
298,2.06175e-09,0,131072,131072
298.051,2.63748e-09,0,131072,131072
298.1,3.17167e-09,0,131072,131072
298.15,3.66923e-09,0,131072,131072
298.2,4.12663e-09,0,131072,131072
298.251,4.54653e-09,0,131072,131072
298.3,4.91434e-09,0,131072,131072
298.35,5.23509e-09,0,131072,131072
298.4,5.5085e-09,0,131072,131072
298.451,5.73846e-09,0,131072,131072
298.5,5.92016e-09,0,131072,131072
298.55,6.05989e-09,0,131072,131072
298.601,6.16193e-09,0,131072,131072
298.65,6.22665e-09,0,131072,131072
298.7,6.25906e-09,0,131072,131072
298.75,6.26239e-09,0,131072,131072
298.801,6.23924e-09,0,131072,131072
298.85,6.19344e-09,0,131072,131072
298.9,6.12796e-09,0,131072,131072
298.951,6.04458e-09,0,131072,131072
299.001,5.94876e-09,0,131072,131072
299.05,5.84217e-09,0,131072,131072
299.1,5.72722e-09,0,131072,131072
299.151,5.60418e-09,0,131072,131072
299.2,5.47844e-09,0,131072,131072
299.25,5.34987e-09,0,131072,131072
299.3,5.22001e-09,0,131072,131072
299.351,5.08834e-09,0,131072,131072
299.4,4.95987e-09,0,131072,131072
299.45,4.83359e-09,0,131072,131072
299.501,4.70834e-09,0,131072,131072
299.55,4.58824e-09,0,131072,131072
299.6,4.47193e-09,0,131072,131072
299.65,4.36005e-09,0,131072,131072
299.701,4.25187e-09,0,131072,131072
299.75,4.15143e-09,0,131072,131072
299.8,4.05796e-09,0,131072,131072
299.851,3.97089e-09,0,131072,131072
299.901,3.89313e-09,0,131072,131072
299.95,3.82347e-09,0,131072,131072
300,3.76184e-09,0,131072,131072
300.051,3.70732e-09,0,131072,131072
300.1,3.66117e-09,0,131072,131072
300.15,3.62203e-09,0,131072,131072
300.2,3.58918e-09,0,131072,131072
300.251,3.56125e-09,0,131072,131072
300.3,3.53792e-09,0,131072,131072
300.35,3.51766e-09,0,131072,131072
300.401,3.49927e-09,0,131072,131072
300.45,3.48257e-09,0,131072,131072
300.5,3.46665e-09,0,131072,131072
300.55,3.45089e-09,0,131072,131072
300.601,3.43424e-09,0,131072,131072
300.65,3.41625e-09,0,131072,131072
300.7,3.39581e-09,0,131072,131072
300.75,3.3724e-09,0,131072,131072
300.801,3.34562e-09,0,131072,131072
300.85,3.31686e-09,0,131072,131072
300.9,3.28685e-09,0,131072,131072
300.951,3.25635e-09,0,131072,131072
301,3.22727e-09,0,131072,131072
301.05,3.19974e-09,0,131072,131072
301.1,3.17378e-09,0,131072,131072
301.151,3.14861e-09,0,131072,131072
301.2,3.12426e-09,0,131072,131072
301.25,3.09963e-09,0,131072,131072
301.301,3.07387e-09,0,131072,131072
301.351,3.04757e-09,0,131072,131072
301.4,3.0207e-09,0,131072,131072
301.45,2.99393e-09,0,131072,131072
301.501,2.96782e-09,0,131072,131072
301.55,2.94407e-09,0,131072,131072
301.6,2.92305e-09,0,131072,131072
301.65,2.90508e-09,0,131072,131072
301.701,2.88985e-09,0,131072,131072
301.75,2.87729e-09,0,131072,131072
301.8,2.86637e-09,0,131072,131072
301.851,2.85611e-09,0,131072,131072
301.9,2.84611e-09,0,131072,131072
301.95,2.83577e-09,0,131072,131072
302,2.82495e-09,0,131072,131072
302.051,2.81353e-09,0,131072,131072
302.1,2.80199e-09,0,131072,131072
302.15,2.79025e-09,0,131072,131072
302.201,2.77801e-09,0,131072,131072
302.251,2.76536e-09,0,131072,131072
302.3,2.7518e-09,0,131072,131072
302.35,2.73714e-09,0,131072,131072
302.401,2.72115e-09,0,131072,131072
302.45,2.70457e-09,0,131072,131072
302.5,2.68753e-09,0,131072,131072
302.55,2.67032e-09,0,131072,131072
302.601,2.65276e-09,0,131072,131072
302.65,2.63523e-09,0,131072,131072
302.7,2.61725e-09,0,131072,131072
302.751,2.59838e-09,0,131072,131072
302.8,2.57918e-09,0,131072,131072
302.85,2.55958e-09,0,131072,131072
302.9,2.53989e-09,0,131072,131072
302.951,2.52008e-09,0,131072,131072
303,2.50079e-09,0,131072,131072
303.05,2.48166e-09,0,131072,131072
303.1,2.46245e-09,0,131072,131072
303.151,2.44266e-09,0,131072,131072
303.2,2.42269e-09,0,131072,131072
303.25,2.40224e-09,0,131072,131072
303.301,2.38105e-09,0,131072,131072
303.35,2.35985e-09,0,131072,131072
303.4,2.33844e-09,0,131072,131072
303.45,2.31692e-09,0,131072,131072
303.501,2.29504e-09,0,131072,131072
303.55,2.2735e-09,0,131072,131072
303.6,2.25202e-09,0,131072,131072
303.651,2.23033e-09,0,131072,131072
303.701,2.20907e-09,0,131072,131072
303.75,2.18795e-09,0,131072,131072
303.8,2.16697e-09,0,131072,131072
303.851,2.14585e-09,0,131072,131072
303.9,2.12521e-09,0,131072,131072
303.95,2.10477e-09,0,131072,131072
304,2.08456e-09,0,131072,131072
304.051,2.06429e-09,0,131072,131072
304.1,2.04457e-09,0,131072,131072
304.15,2.02511e-09,0,131072,131072
304.201,2.00563e-09,0,131072,131072
304.25,1.98668e-09,0,131072,131072
304.3,1.96798e-09,0,131072,131072
304.35,1.94949e-09,0,131072,131072
304.401,1.93091e-09,0,131072,131072
304.45,1.91274e-09,0,131072,131072
304.5,1.89467e-09,0,131072,131072
304.551,1.87637e-09,0,131072,131072
304.601,1.85833e-09,0,131072,131072
304.65,1.84023e-09,0,131072,131072
304.7,1.82201e-09,0,131072,131072
304.751,1.80335e-09,0,131072,131072
304.8,1.78473e-09,0,131072,131072
304.85,1.76583e-09,0,131072,131072
304.9,1.74659e-09,0,131072,131072
304.951,1.72669e-09,0,131072,131072
