250,0,0,512,512
250.012,0,0,512,512
250.059,0,0,512,512
250.105,0,0,512,512
250.152,0,0,512,512
250.211,0,0,512,512
250.258,0,0,512,512
250.305,0,0,512,512
250.352,0,0,512,512
250.41,2.77556e-17,0,512,512
250.457,2.77556e-17,0,512,512
250.504,0,0,512,512
250.551,0,0,512,512
250.609,0,0,512,512
250.656,0,0,512,512
250.703,0,0,512,512
250.762,0,0,512,512
250.808,0,0,512,512
250.855,0,0,512,512
250.902,2.77556e-17,0,512,512
250.961,2.77556e-17,0,512,512
251.008,2.77556e-17,0,512,512
251.055,2.77556e-17,0,512,512
251.101,0,0,512,512
251.16,0,0,512,512
251.207,2.77556e-17,0,512,512
251.254,0,0,512,512
251.301,0,0,512,512
251.359,0,0,512,512
251.406,0,0,512,512
251.453,0,0,512,512
251.511,0,0,512,512
251.558,0,0,512,512
251.605,2.77556e-17,0,512,512
251.652,2.77556e-17,0,512,512
251.711,0,0,512,512
251.758,0,0,512,512
251.804,0,0,512,512
251.851,0,0,512,512
251.91,0,0,512,512
251.957,0,0,512,512
252.004,-2.77556e-17,0,512,512
252.05,-2.77556e-17,0,512,512
252.109,-2.77556e-17,0,512,512
252.156,0,0,512,512
252.203,0,0,512,512
252.261,0,0,512,512
252.308,0,0,512,512
252.355,2.77556e-17,0,512,512
252.402,2.77556e-17,0,512,512
252.461,0,0,512,512
252.507,0,0,512,512
252.554,0,0,512,512
252.601,0,0,512,512
252.66,0,0,512,512
252.707,0,0,512,512
252.754,0,0,512,512
252.8,0,0,512,512
252.859,2.77556e-17,0,512,512
252.906,0,0,512,512
252.953,0,0,512,512
253.011,0,0,512,512
253.058,0,0,512,512
253.105,0,0,512,512
253.152,0,0,512,512
253.21,0,0,512,512
253.257,0,0,512,512
253.304,2.77556e-17,0,512,512
253.351,2.77556e-17,0,512,512
253.41,0,0,512,512
253.457,0,0,512,512
253.503,0,0,512,512
253.55,2.77556e-17,0,512,512
253.609,2.77556e-17,0,512,512
253.656,2.77556e-17,0,512,512
253.703,2.77556e-17,0,512,512
253.761,0,0,512,512
253.808,0,0,512,512
253.855,0,0,512,512
253.902,-2.77556e-17,0,512,512
253.96,-2.77556e-17,0,512,512
254.007,0,0,512,512
254.054,0,0,512,512
254.101,-2.77556e-17,0,512,512
254.16,0,0,512,512
254.206,-2.77556e-17,0,512,512
254.253,0,0,512,512
254.3,0,0,512,512
254.359,0,0,512,512
254.406,0,0,512,512
254.452,0,0,512,512
254.511,-2.77556e-17,0,512,512
254.558,-2.77556e-17,0,512,512
254.605,-2.77556e-17,0,512,512
254.652,-2.77556e-17,0,512,512
254.71,-2.77556e-17,0,512,512
254.757,0,0,512,512
254.804,0,0,512,512
254.851,-2.77556e-17,0,512,512
254.909,-5.55112e-17,0,512,512
254.956,-2.77556e-17,0,512,512
255.003,-2.77556e-17,0,512,512
255.05,-2.77556e-17,0,512,512
255.109,-2.77556e-17,0,512,512
255.155,-2.77556e-17,0,512,512
255.202,-2.77556e-17,0,512,512
255.261,-2.77556e-17,0,512,512
255.308,-2.77556e-17,0,512,512
255.355,-2.77556e-17,0,512,512
255.402,-2.77556e-17,0,512,512
255.46,-2.77556e-17,0,512,512
255.507,-2.77556e-17,0,512,512
255.554,-2.77556e-17,0,512,512
255.601,0,0,512,512
255.659,0,0,512,512
255.706,0,0,512,512
255.753,0,0,512,512
255.812,0,0,512,512
255.859,0,0,512,512
255.905,2.77556e-17,0,512,512
255.952,0,0,512,512
256.011,0,0,512,512
256.058,0,0,512,512
256.105,0,0,512,512
256.151,0,0,512,512
256.21,0,0,512,512
256.257,2.77556e-17,0,512,512
256.304,2.77556e-17,0,512,512
256.351,0,0,512,512
256.409,0,0,512,512
256.456,0,0,512,512
256.503,0,0,512,512
256.562,0,0,512,512
256.608,0,0,512,512
256.655,-2.77556e-17,0,512,512
256.702,0,0,512,512
256.761,-2.77556e-17,0,512,512
256.808,0,0,512,512
256.854,-2.77556e-17,0,512,512
256.901,-2.77556e-17,0,512,512
256.96,-2.77556e-17,0,512,512
257.007,-2.77556e-17,0,512,512
257.054,0,0,512,512
257.101,-2.77556e-17,0,512,512
257.159,-2.77556e-17,0,512,512
257.206,0,0,512,512
257.253,0,0,512,512
257.311,0,0,512,512
257.358,2.77556e-17,0,512,512
257.405,2.77556e-17,0,512,512
257.452,0,0,512,512
257.511,0,0,512,512
257.557,0,0,512,512
257.604,0,0,512,512
257.651,0,0,512,512
257.71,-2.77556e-17,0,512,512
257.757,0,0,512,512
257.804,0,0,512,512
257.85,0,0,512,512
257.909,-2.77556e-17,0,512,512
257.956,-2.77556e-17,0,512,512
258.003,-2.77556e-17,0,512,512
258.061,0,0,512,512
258.108,0,0,512,512
258.155,0,0,512,512
258.202,0,0,512,512
258.261,0,0,512,512
258.307,-2.77556e-17,0,512,512
258.354,0,0,512,512
258.401,-2.77556e-17,0,512,512
258.46,-2.77556e-17,0,512,512
258.507,-2.77556e-17,0,512,512
258.553,-2.77556e-17,0,512,512
258.6,-2.77556e-17,0,512,512
258.659,-2.77556e-17,0,512,512
258.706,-5.55112e-17,0,512,512
258.753,-5.55112e-17,0,512,512
258.811,-5.55112e-17,0,512,512
258.858,-5.55112e-17,0,512,512
258.905,-2.77556e-17,0,512,512
258.952,0,0,512,512
259.01,0,0,512,512
259.057,-2.77556e-17,0,512,512
259.104,0,0,512,512
259.151,0,0,512,512
259.21,-2.77556e-17,0,512,512
259.256,-2.77556e-17,0,512,512
259.303,0,0,512,512
259.35,0,0,512,512
259.409,2.77556e-17,0,512,512
259.456,2.77556e-17,0,512,512
259.503,0,0,512,512
259.561,0,0,512,512
259.608,0,0,512,512
259.655,-2.77556e-17,0,512,512
259.702,-2.77556e-17,0,512,512
259.76,0,0,512,512
259.807,0,0,512,512
259.854,2.77556e-17,0,512,512
259.901,0,0,512,512
259.959,0,0,512,512
260.006,0,0,512,512
260.053,0,0,512,512
260.1,-2.77556e-17,0,512,512
260.159,-2.77556e-17,0,512,512
260.206,-2.77556e-17,0,512,512
260.252,-2.77556e-17,0,512,512
260.311,-2.77556e-17,0,512,512
260.358,-2.77556e-17,0,512,512
260.405,-2.77556e-17,0,512,512
260.452,-2.77556e-17,0,512,512
260.51,-2.77556e-17,0,512,512
260.557,-2.77556e-17,0,512,512
260.604,0,0,512,512
260.651,0,0,512,512
260.709,0,0,512,512
260.756,0,0,512,512
260.803,0,0,512,512
260.862,0,0,512,512
260.909,2.77556e-17,0,512,512
260.955,2.77556e-17,0,512,512
261.002,2.77556e-17,0,512,512
261.061,2.77556e-17,0,512,512
261.108,2.77556e-17,0,512,512
261.155,2.77556e-17,0,512,512
261.201,2.77556e-17,0,512,512
261.26,0,0,512,512
261.307,0,0,512,512
261.354,0,0,512,512
261.401,0,0,512,512
261.459,0,0,512,512
261.506,0,0,512,512
261.553,0,0,512,512
261.612,0,0,512,512
261.658,0,0,512,512
261.705,0,0,512,512
261.752,2.77556e-17,0,512,512
261.811,2.77556e-17,0,512,512
261.858,-2.77556e-17,0,512,512
261.905,0,0,512,512
261.951,0,0,512,512
262.01,0,0,512,512
262.057,0,0,512,512
262.104,0,0,512,512
262.151,0,0,512,512
262.209,0,0,512,512
262.256,2.77556e-17,0,512,512
262.303,2.77556e-17,0,512,512
262.361,0,0,512,512
262.408,0,0,512,512
262.455,0,0,512,512
262.502,0,0,512,512
262.561,0,0,512,512
262.608,2.77556e-17,0,512,512
262.654,2.77556e-17,0,512,512
262.701,2.77556e-17,0,512,512
262.76,2.77556e-17,0,512,512
262.807,0,0,512,512
262.854,0,0,512,512
262.9,2.77556e-17,0,512,512
262.959,0,0,512,512
263.006,0,0,512,512
263.053,0,0,512,512
263.111,0,0,512,512
263.158,0,0,512,512
263.205,0,0,512,512
263.252,0,0,512,512
263.311,0,0,512,512
263.357,2.77556e-17,0,512,512
263.404,2.77556e-17,0,512,512
263.451,2.77556e-17,0,512,512
263.51,0,0,512,512
263.557,0,0,512,512
263.603,0,0,512,512
263.65,0,0,512,512
263.709,-2.77556e-17,0,512,512
263.756,-2.77556e-17,0,512,512
263.803,-2.77556e-17,0,512,512
263.861,0,0,512,512
263.908,0,0,512,512
263.955,2.77556e-17,0,512,512
264.002,0,0,512,512
264.06,0,0,512,512
264.107,0,0,512,512
264.154,0,0,512,512
264.201,0,0,512,512
264.26,0,0,512,512
264.306,2.77556e-17,0,512,512
264.353,2.77556e-17,0,512,512
264.4,2.77556e-17,0,512,512
264.459,2.77556e-17,0,512,512
264.506,2.77556e-17,0,512,512
264.553,2.77556e-17,0,512,512
264.611,2.77556e-17,0,512,512
264.658,2.77556e-17,0,512,512
264.705,2.77556e-17,0,512,512
264.752,2.77556e-17,0,512,512
264.81,2.77556e-17,0,512,512
264.857,2.77556e-17,0,512,512
264.904,2.77556e-17,0,512,512
264.951,2.77556e-17,0,512,512
265.01,2.77556e-17,0,512,512
265.056,2.77556e-17,0,512,512
265.103,2.77556e-17,0,512,512
265.15,2.77556e-17,0,512,512
265.209,2.77556e-17,0,512,512
265.256,2.77556e-17,0,512,512
265.302,2.77556e-17,0,512,512
265.361,5.55112e-17,0,512,512
265.408,5.55112e-17,0,512,512
265.455,5.55112e-17,0,512,512
265.502,5.55112e-17,0,512,512
265.56,2.77556e-17,0,512,512
265.607,2.77556e-17,0,512,512
265.654,2.77556e-17,0,512,512
265.701,2.77556e-17,0,512,512
265.759,2.77556e-17,0,512,512
265.806,2.77556e-17,0,512,512
265.853,2.77556e-17,0,512,512
265.9,2.77556e-17,0,512,512
265.959,2.77556e-17,0,512,512
266.005,2.77556e-17,0,512,512
266.052,2.77556e-17,0,512,512
266.111,0,0,512,512
266.158,2.77556e-17,0,512,512
266.205,0,0,512,512
266.252,2.77556e-17,0,512,512
266.31,2.77556e-17,0,512,512
266.357,2.77556e-17,0,512,512
266.404,2.77556e-17,0,512,512
266.451,2.77556e-17,0,512,512
266.509,0,0,512,512
266.556,0,0,512,512
266.603,-2.77556e-17,0,512,512
266.662,-2.77556e-17,0,512,512
266.708,-2.77556e-17,0,512,512
266.755,0,0,512,512
266.802,-2.77556e-17,0,512,512
266.861,-2.77556e-17,0,512,512
266.908,-2.77556e-17,0,512,512
266.955,-2.77556e-17,0,512,512
267.001,-2.77556e-17,0,512,512
267.06,-2.77556e-17,0,512,512
267.107,-2.77556e-17,0,512,512
267.154,-2.77556e-17,0,512,512
267.201,-2.77556e-17,0,512,512
267.259,-2.77556e-17,0,512,512
267.306,-2.77556e-17,0,512,512
267.353,-2.77556e-17,0,512,512
267.412,-2.77556e-17,0,512,512
267.458,-2.77556e-17,0,512,512
267.505,-2.77556e-17,0,512,512
267.552,0,0,512,512
267.611,2.77556e-17,0,512,512
267.658,2.77556e-17,0,512,512
267.704,2.77556e-17,0,512,512
267.751,2.77556e-17,0,512,512
267.81,2.77556e-17,0,512,512
267.857,2.77556e-17,0,512,512
267.904,2.77556e-17,0,512,512
267.95,2.77556e-17,0,512,512
268.009,2.77556e-17,0,512,512
268.056,2.77556e-17,0,512,512
268.1,2.77556e-17,0,2489,2489
268.151,2.77556e-17,0,3407,3407
268.2,2.77556e-17,0,4325,4325
268.25,2.77556e-17,0,5297,5297
268.301,2.77556e-17,0,6227,6227
268.35,2.77556e-17,0,7127,7127
268.4,2.77556e-17,0,8099,8099
268.45,2.77556e-17,0,9035,9035
268.501,2.77556e-17,0,9935,9935
268.55,2.77556e-17,0,10907,10907
268.6,2.77556e-17,0,11795,11795
268.65,2.77556e-17,0,12737,12737
268.701,2.77556e-17,0,13709,13709
268.75,2.77556e-17,0,14597,14597
268.8,2.77556e-17,0,15545,15545
268.851,2.77556e-17,0,16517,16517
268.9,2.77556e-17,0,17399,17399
268.95,2.77556e-17,0,18315,18315
269,2.77556e-17,0,19235,19235
269.051,2.77556e-17,0,20207,20207
269.1,2.77556e-17,0,21107,21107
269.15,2.77556e-17,0,22037,22037
269.201,2.77556e-17,0,22937,22937
269.251,2.77556e-17,0,23909,23909
269.3,2.77556e-17,0,24797,24797
269.35,2.77556e-17,0,25745,25745
269.401,2.77556e-17,0,26627,26627
269.45,2.77556e-17,0,27599,27599
269.5,2.77556e-17,0,28499,28499
269.55,2.77556e-17,0,29435,29435
269.601,2.77556e-17,0,30335,30335
269.65,2.77556e-17,0,31307,31307
269.7,2.77556e-17,0,32189,32189
269.751,2.77556e-17,0,33109,33109
269.8,2.77556e-17,0,34025,34025
269.85,2.77556e-17,0,34925,34925
269.9,2.77556e-17,0,35807,35807
269.951,2.77556e-17,0,36707,36707
270,2.77556e-17,0,37671,37671
270.05,2.77556e-17,0,38567,38567
270.101,2.77556e-17,0,39467,39467
270.151,2.77556e-17,0,40349,40349
270.2,2.77556e-17,0,41233,41233
270.25,2.77556e-17,0,42065,42065
270.301,5.27356e-16,0,42947,42947
270.35,2.35922e-15,0,43847,43847
270.4,4.2466e-15,0,44735,44735
270.45,6.10623e-15,0,45587,45587
270.501,7.96585e-15,0,46469,46469
270.55,9.79772e-15,0,47369,47369
270.6,1.16296e-14,0,48185,48185
270.651,1.35447e-14,0,49067,49067
270.7,1.54321e-14,0,49919,49919
270.75,1.73195e-14,0,50807,50807
270.8,1.92069e-14,0,51617,51617
270.851,2.14551e-14,0,52469,52469
270.9,2.53131e-14,0,53341,53341
270.95,3.09197e-14,0,54167,54167
271,3.84692e-14,0,55019,55019
271.051,4.81004e-14,0,55835,55835
271.1,6.25888e-14,0,56669,56669
271.15,9.37084e-13,0,57485,57485
271.201,3.87282e-12,0,58337,58337
271.25,-6.96326e-11,0,59147,59147
271.3,-3.62111e-10,0,59987,59987
271.35,-5.8337e-10,0,60797,60797
271.401,-4.20907e-10,0,61649,61649
271.45,-3.7648e-11,0,62417,62417
271.5,3.07922e-10,0,63227,63227
271.551,4.24182e-10,0,64067,64067
271.6,2.49802e-10,0,64829,64829
271.65,-5.74284e-11,0,65645,65645
271.7,-2.29819e-10,0,66407,66407
271.751,-1.10686e-10,0,67259,67259
271.8,1.79748e-10,0,68027,68027
271.85,3.7098e-10,0,68789,68789
271.9,2.96268e-10,0,69605,69605
271.951,4.30639e-11,0,70367,70367
272,-1.37337e-10,0,71135,71135
272.05,-9.28389e-11,0,71897,71897
272.101,1.15815e-10,0,72737,72737
272.15,2.89011e-10,0,73499,73499
272.2,2.96467e-10,0,74267,74267
272.25,1.61632e-10,0,75029,75029
272.301,3.64153e-13,0,75797,75797
272.35,-7.7465e-11,0,76547,76547
272.4,-3.45477e-11,0,77255,77255
272.451,1.19873e-10,0,78017,78017
272.501,3.11449e-10,0,78785,78785
272.55,4.0024e-10,0,79547,79547
272.6,2.41251e-10,0,80267,80267
272.651,-1.43378e-10,0,81029,81029
272.7,-4.21677e-10,0,81757,81757
272.75,-1.99199e-10,0,82475,82475
272.8,5.32093e-10,0,83189,83189
272.851,1.11993e-09,0,83957,83957
272.9,6.82742e-10,0,84647,84647
272.95,-7.95825e-10,0,85379,85379
273.001,-1.95956e-09,0,86129,86129
273.05,-8.34586e-10,0,86807,86807
273.1,3.45335e-09,0,87527,87527
273.15,1.00003e-08,0,88289,88289
273.201,1.70668e-08,0,88985,88985
273.25,2.29315e-08,0,89699,89699
273.3,2.7059e-08,0,90407,90407
273.351,2.94839e-08,0,91145,91145
273.401,3.08824e-08,0,91859,91859
273.45,3.29182e-08,0,92555,92555
273.5,3.74347e-08,0,93269,93269
273.551,4.54788e-08,0,93947,93947
273.6,5.62425e-08,0,94667,94667
273.65,6.86898e-08,0,95357,95357
273.7,8.25315e-08,0,96077,96077
273.751,9.91426e-08,0,96755,96755
273.8,1.19837e-07,0,97469,97469
273.85,1.46354e-07,0,98165,98165
273.901,1.80159e-07,0,98879,98879
273.95,2.20549e-07,0,99557,99557
274,2.66967e-07,0,100277,100277
274.05,3.16865e-07,0,100967,100967
274.101,3.68215e-07,0,101687,101687
274.15,4.18731e-07,0,102317,102317
274.2,4.71123e-07,0,103007,103007
274.251,5.28854e-07,0,103727,103727
274.301,5.90248e-07,0,104405,104405
274.35,6.524e-07,0,105047,105047
274.4,7.10154e-07,0,105767,105767
274.451,7.60169e-07,0,106437,106437
274.5,7.98956e-07,0,107087,107087
274.55,8.26647e-07,0,107799,107799
274.6,8.44068e-07,0,108437,108437
274.651,8.53764e-07,0,109079,109079
274.7,8.58385e-07,0,109337,109337
274.75,8.59987e-07,0,110015,110015
274.801,8.58941e-07,0,110729,110729
274.85,8.54885e-07,0,111377,111377
274.9,8.47028e-07,0,112055,112055
274.95,8.34248e-07,0,112769,112769
275.001,8.15001e-07,0,113465,113465
275.05,7.88786e-07,0,114179,114179
275.1,7.54597e-07,0,114809,114809
275.15,7.12243e-07,0,115505,115505
275.201,6.62288e-07,0,116219,116219
275.25,6.09263e-07,0,116897,116897
275.3,5.55965e-07,0,117545,117545
275.351,5.04175e-07,0,118259,118259
275.4,4.566e-07,0,118937,118937
275.45,4.12917e-07,0,119585,119585
275.5,3.7303e-07,0,120299,120299
275.551,3.35852e-07,0,120929,120929
275.6,3.01717e-07,0,121621,121621
275.65,2.694e-07,0,122255,122255
275.701,2.37958e-07,0,122897,122897
275.751,2.08233e-07,0,123479,123479
275.8,1.80754e-07,0,124127,124127
275.85,1.57546e-07,0,124685,124685
275.901,1.40052e-07,0,125267,125267
275.95,1.2806e-07,0,125825,125825
276,1.1806e-07,0,126419,126419
276.05,1.06715e-07,0,127716,127716
276.101,9.29575e-08,0,128382,128382
276.15,7.90946e-08,0,128892,128892
276.2,6.74462e-08,0,129402,129402
276.251,5.91164e-08,0,129910,129910
276.3,5.39936e-08,0,130412,130412
276.35,5.08716e-08,0,130836,130836
276.4,4.83622e-08,0,130584,130584
276.451,4.48469e-08,0,131070,131070
276.5,3.93624e-08,0,131072,131072
276.55,3.23664e-08,0,131072,131072
276.601,2.57365e-08,0,131072,131072
276.651,2.1623e-08,0,131072,131072
276.7,2.03365e-08,0,131072,131072
276.75,2.07851e-08,0,131072,131072
276.801,2.15914e-08,0,131072,131072
276.85,2.20201e-08,0,131072,131072
276.9,2.21202e-08,0,131072,131072
276.95,2.21475e-08,0,131072,131072
277.001,2.22362e-08,0,131072,131072
277.05,2.23617e-08,0,131072,131072
277.1,2.2463e-08,0,131072,131072
277.151,2.24213e-08,0,131072,131072
277.2,2.19327e-08,0,131072,131072
277.25,2.12953e-08,0,131072,131072
277.3,2.1047e-08,0,131072,131072
277.351,2.09832e-08,0,131072,131072
277.4,2.09268e-08,0,131072,131072
277.45,2.08503e-08,0,131072,131072
277.5,2.07487e-08,0,131072,131072
277.551,2.06162e-08,0,131072,131072
277.6,2.04542e-08,0,131072,131072
277.65,2.02599e-08,0,131072,131072
277.701,2.00288e-08,0,131072,131072
277.75,1.97663e-08,0,131072,131072
277.8,1.94673e-08,0,131072,131072
277.85,1.91297e-08,0,131072,131072
277.901,1.87476e-08,0,131072,131072
277.95,1.83342e-08,0,131072,131072
278,1.78888e-08,0,131072,131072
278.051,1.74103e-08,0,131072,131072
278.101,1.69193e-08,0,131072,131072
278.15,1.64152e-08,0,131072,131072
278.2,1.59031e-08,0,131072,131072
278.251,1.53789e-08,0,131072,131072
278.3,1.48605e-08,0,131072,131072
278.35,1.43422e-08,0,131072,131072
278.4,1.38261e-08,0,131072,131072
278.451,1.33073e-08,0,131072,131072
278.5,1.28039e-08,0,131072,131072
278.55,1.23122e-08,0,131072,131072
278.601,1.18299e-08,0,131072,131072
278.65,1.13759e-08,0,131072,131072
278.7,1.09479e-08,0,131072,131072
278.75,1.055e-08,0,131072,131072
278.801,1.01795e-08,0,131072,131072
278.85,9.84787e-09,0,131072,131072
278.9,9.54872e-09,0,131072,131072
278.951,9.27646e-09,0,131072,131072
279.001,9.0367e-09,0,131072,131072
279.05,8.823e-09,0,131072,131072
279.1,8.63332e-09,0,131072,131072
279.151,8.46371e-09,0,131072,131072
279.2,8.31779e-09,0,131072,131072
279.25,8.19192e-09,0,131072,131072
279.3,8.08501e-09,0,131072,131072
279.351,7.99421e-09,0,131072,131072
279.4,7.91965e-09,0,131072,131072
279.45,7.85685e-09,0,131072,131072
279.501,7.80234e-09,0,131072,131072
279.55,7.75627e-09,0,131072,131072
279.6,7.71778e-09,0,131072,131072
279.65,7.68744e-09,0,131072,131072
279.701,7.66506e-09,0,131072,131072
279.75,7.65034e-09,0,131072,131072
279.8,7.64122e-09,0,131072,131072
279.85,7.636e-09,0,131072,131072
279.901,7.63338e-09,0,131072,131072
279.95,7.63293e-09,0,131072,131072
280,7.63483e-09,0,131072,131072
280.051,7.63985e-09,0,131072,131072
280.1,7.64835e-09,0,131072,131072
280.15,7.6603e-09,0,131072,131072
280.2,7.67499e-09,0,131072,131072
280.251,7.69168e-09,0,131072,131072
280.3,7.709e-09,0,131072,131072
280.35,7.72655e-09,0,131072,131072
280.401,7.7442e-09,0,131072,131072
280.451,7.76125e-09,0,131072,131072
280.5,7.77794e-09,0,131072,131072
280.55,7.79447e-09,0,131072,131072
280.601,7.8113e-09,0,131072,131072
280.65,7.82803e-09,0,131072,131072
280.7,7.84484e-09,0,131072,131072
280.75,7.86161e-09,0,131072,131072
280.801,7.87854e-09,0,131072,131072
280.85,7.89511e-09,0,131072,131072
280.9,7.91165e-09,0,131072,131072
280.951,7.92841e-09,0,131072,131072
281,7.94482e-09,0,131072,131072
281.05,7.96089e-09,0,131072,131072
281.1,7.97647e-09,0,131072,131072
281.151,7.99174e-09,0,131072,131072
281.2,8.00639e-09,0,131072,131072
281.25,8.0208e-09,0,131072,131072
281.301,8.03525e-09,0,131072,131072
281.351,8.0492e-09,0,131072,131072
281.4,8.06259e-09,0,131072,131072
281.45,8.07524e-09,0,131072,131072
281.501,8.08742e-09,0,131072,131072
281.55,8.09918e-09,0,131072,131072
281.6,8.11106e-09,0,131072,131072
281.65,8.12291e-09,0,131072,131072
281.701,8.13421e-09,0,131072,131072
281.75,8.14423e-09,0,131072,131072
281.8,8.15433e-09,0,131072,131072
281.851,8.16804e-09,0,131072,131072
281.9,8.18912e-09,0,131072,131072
281.95,8.21933e-09,0,131072,131072
282,8.25534e-09,0,131072,131072
282.051,8.2919e-09,0,131072,131072
282.1,8.32956e-09,0,131072,131072
282.15,8.38759e-09,0,131072,131072
282.2,8.49846e-09,0,131072,131072
282.251,8.69121e-09,0,131072,131072
282.3,8.95622e-09,0,131072,131072
282.35,9.26051e-09,0,131072,131072
282.401,9.56733e-09,0,131072,131072
282.45,9.85392e-09,0,131072,131072
282.5,1.01531e-08,0,131072,131072
282.55,1.05192e-08,0,131072,131072
282.601,1.1008e-08,0,131072,131072
282.65,1.16236e-08,0,131072,131072
282.7,1.23653e-08,0,131072,131072
282.751,1.32421e-08,0,131072,131072
282.801,1.42491e-08,0,131072,131072
282.85,1.54407e-08,0,131072,131072
282.9,1.68585e-08,0,131072,131072
282.951,1.85459e-08,0,131072,131072
283,2.04459e-08,0,131072,131072
283.05,2.25657e-08,0,131072,131072
283.1,2.49036e-08,0,131072,131072
283.151,2.7515e-08,0,131072,131072
283.2,3.03437e-08,0,131072,131072
283.25,3.34272e-08,0,131072,131072
283.301,3.67856e-08,0,131072,131072
283.35,4.02626e-08,0,131072,131072
283.4,4.38414e-08,0,131072,131072
283.45,4.74826e-08,0,131072,131072
283.501,5.12439e-08,0,131072,131072
283.55,5.5045e-08,0,131072,131072
283.6,5.89445e-08,0,131072,131072
283.651,6.2944e-08,0,131072,131072
283.701,6.68369e-08,0,131072,131072
283.75,7.0666e-08,0,131072,131072
283.8,7.46041e-08,0,131072,131072
283.851,7.90907e-08,0,131072,131072
283.9,8.44108e-08,0,131072,131072
283.95,9.08314e-08,0,131072,131072
284,9.81895e-08,0,131072,131072
284.051,1.06098e-07,0,131072,131072
284.1,1.13696e-07,0,131072,131072
284.15,1.20636e-07,0,131072,131072
284.201,1.26918e-07,0,131072,131072
284.25,1.3271e-07,0,131072,131072
284.3,1.38763e-07,0,131072,131072
284.35,1.4581e-07,0,131072,131072
284.401,1.54572e-07,0,131072,131072
284.45,1.65138e-07,0,131072,131072
284.5,1.7781e-07,0,131072,131072
284.551,1.93075e-07,0,131072,131072
284.601,2.10968e-07,0,131072,131072
284.65,2.32374e-07,0,131072,131072
284.7,2.57999e-07,0,131072,131072
284.751,2.88781e-07,0,131072,131072
284.8,3.23803e-07,0,131072,131072
284.85,3.62912e-07,0,131072,131072
284.9,4.05186e-07,0,131072,131072
284.951,4.5036e-07,0,131072,131072
285,4.96476e-07,0,131072,131072
285.05,5.43856e-07,0,131072,131072
285.101,5.92877e-07,0,131072,131072
285.15,6.41269e-07,0,131072,131072
285.2,6.88124e-07,0,131072,131072
285.25,7.3122e-07,0,131072,131072
285.301,7.68727e-07,0,131072,131072
285.35,7.9772e-07,0,131072,131072
285.4,8.17899e-07,0,131072,131072
285.45,8.29384e-07,0,131072,131072
285.501,8.33109e-07,0,131072,131072
285.55,8.3032e-07,0,131072,131072
285.6,8.22412e-07,0,131072,131072
285.651,8.10069e-07,0,131072,131072
285.7,7.93996e-07,0,131072,131072
285.75,7.7388e-07,0,131072,131072
285.8,7.49206e-07,0,131072,131072
285.851,7.18851e-07,0,131072,131072
285.9,6.83153e-07,0,131072,131072
285.95,6.41533e-07,0,131072,131072
286.001,5.93649e-07,0,131072,131072
286.051,5.4196e-07,0,131072,131072
286.1,4.87451e-07,0,131072,131072
286.15,4.32059e-07,0,131072,131072
286.201,3.76855e-07,0,131072,131072
286.25,3.24918e-07,0,131072,131072
286.3,2.7634e-07,0,131072,131072
286.35,2.31477e-07,0,131072,131072
286.401,1.89684e-07,0,131072,131072
286.45,1.51868e-07,0,131072,131072
286.5,1.1706e-07,0,131072,131072
286.551,8.46313e-08,0,131072,131072
286.6,5.56174e-08,0,131072,131072
286.65,2.98772e-08,0,131072,131072
286.7,7.80816e-09,0,131072,131072
286.751,-1.07004e-08,0,131072,131072
286.8,-2.54888e-08,0,131072,131072
286.85,-3.76777e-08,0,131072,131072
286.901,-4.83369e-08,0,131072,131072
286.951,-5.7755e-08,0,131072,131072
287,-6.61382e-08,0,131072,131072
287.05,-7.31175e-08,0,131072,131072
287.101,-7.83346e-08,0,131072,131072
287.15,-8.15093e-08,0,131072,131072
287.2,-8.30272e-08,0,131072,131072
287.25,-8.34933e-08,0,131072,131072
287.301,-8.35545e-08,0,131072,131072
287.35,-8.36129e-08,0,131072,131072
287.4,-8.36611e-08,0,131072,131072
287.451,-8.33302e-08,0,131072,131072
287.5,-8.21606e-08,0,131072,131072
287.55,-7.98669e-08,0,131072,131072
287.6,-7.64879e-08,0,131072,131072
287.651,-7.22647e-08,0,131072,131072
287.7,-6.77199e-08,0,131072,131072
287.75,-6.31167e-08,0,131072,131072
287.8,-5.86378e-08,0,131072,131072
287.851,-5.4298e-08,0,131072,131072
287.9,-5.02551e-08,0,131072,131072
287.95,-4.64738e-08,0,131072,131072
288.001,-4.29325e-08,0,131072,131072
288.05,-3.97399e-08,0,131072,131072
288.1,-3.68143e-08,0,131072,131072
288.15,-3.41082e-08,0,131072,131072
288.201,-3.1546e-08,0,131072,131072
288.25,-2.91864e-08,0,131072,131072
288.3,-2.69947e-08,0,131072,131072
288.351,-2.49497e-08,0,131072,131072
288.4,-2.31118e-08,0,131072,131072
288.45,-2.14441e-08,0,131072,131072
288.5,-1.99374e-08,0,131072,131072
288.551,-1.85631e-08,0,131072,131072
288.6,-1.73517e-08,0,131072,131072
288.65,-1.6273e-08,0,131072,131072
288.7,-1.53164e-08,0,131072,131072
288.751,-1.44583e-08,0,131072,131072
288.8,-1.37105e-08,0,131072,131072
288.85,-1.30469e-08,0,131072,131072
288.901,-1.24486e-08,0,131072,131072
288.95,-1.19257e-08,0,131072,131072
289,-1.1465e-08,0,131072,131072
289.05,-1.10648e-08,0,131072,131072
289.101,-1.07191e-08,0,131072,131072
289.15,-1.04353e-08,0,131072,131072
289.2,-1.02044e-08,0,131072,131072
289.251,-1.00193e-08,0,131072,131072
289.301,-9.88076e-09,0,131072,131072
289.35,-9.78191e-09,0,131072,131072
289.4,-9.71962e-09,0,131072,131072
289.451,-9.69075e-09,0,131072,131072
289.5,-9.6925e-09,0,131072,131072
289.55,-9.71951e-09,0,131072,131072
289.6,-9.76611e-09,0,131072,131072
289.651,-9.82734e-09,0,131072,131072
289.7,-9.89599e-09,0,131072,131072
289.75,-9.9685e-09,0,131072,131072
289.801,-1.00427e-08,0,131072,131072
289.85,-1.01139e-08,0,131072,131072
289.9,-1.01812e-08,0,131072,131072
289.95,-1.02436e-08,0,131072,131072
290.001,-1.03012e-08,0,131072,131072
290.05,-1.03526e-08,0,131072,131072
290.1,-1.03995e-08,0,131072,131072
290.151,-1.04429e-08,0,131072,131072
290.201,-1.04819e-08,0,131072,131072
290.25,-1.05171e-08,0,131072,131072
290.3,-1.05485e-08,0,131072,131072
290.351,-1.05769e-08,0,131072,131072
290.4,-1.06027e-08,0,131072,131072
290.45,-1.06275e-08,0,131072,131072
290.5,-1.06527e-08,0,131072,131072
290.551,-1.06791e-08,0,131072,131072
290.6,-1.07062e-08,0,131072,131072
290.65,-1.07337e-08,0,131072,131072
290.701,-1.07617e-08,0,131072,131072
290.75,-1.07889e-08,0,131072,131072
290.8,-1.0816e-08,0,131072,131072
290.85,-1.08435e-08,0,131072,131072
290.901,-1.08721e-08,0,131072,131072
290.95,-1.09012e-08,0,131072,131072
291,-1.09312e-08,0,131072,131072
291.05,-1.09623e-08,0,131072,131072
291.101,-1.09953e-08,0,131072,131072
291.15,-1.10304e-08,0,131072,131072
291.2,-1.10696e-08,0,131072,131072
291.251,-1.1115e-08,0,131072,131072
291.3,-1.11667e-08,0,131072,131072
291.35,-1.12256e-08,0,131072,131072
291.4,-1.12915e-08,0,131072,131072
291.451,-1.13654e-08,0,131072,131072
291.5,-1.14453e-08,0,131072,131072
291.55,-1.1533e-08,0,131072,131072
291.601,-1.16313e-08,0,131072,131072
291.651,-1.17386e-08,0,131072,131072
291.7,-1.18565e-08,0,131072,131072
291.75,-1.19845e-08,0,131072,131072
291.801,-1.21238e-08,0,131072,131072
291.85,-1.22694e-08,0,131072,131072
291.9,-1.24229e-08,0,131072,131072
291.95,-1.25851e-08,0,131072,131072
292.001,-1.27607e-08,0,131072,131072
292.05,-1.29474e-08,0,131072,131072
292.1,-1.31513e-08,0,131072,131072
292.151,-1.3379e-08,0,131072,131072
292.2,-1.36267e-08,0,131072,131072
292.25,-1.38993e-08,0,131072,131072
292.3,-1.41977e-08,0,131072,131072
292.351,-1.45267e-08,0,131072,131072
292.4,-1.48757e-08,0,131072,131072
292.45,-1.52475e-08,0,131072,131072
292.501,-1.56461e-08,0,131072,131072
292.551,-1.60577e-08,0,131072,131072
292.6,-1.64854e-08,0,131072,131072
292.65,-1.69264e-08,0,131072,131072
292.701,-1.73839e-08,0,131072,131072
292.75,-1.78407e-08,0,131072,131072
292.8,-1.82993e-08,0,131072,131072
292.85,-1.87554e-08,0,131072,131072
292.901,-1.92113e-08,0,131072,131072
292.95,-1.96497e-08,0,131072,131072
293,-2.00736e-08,0,131072,131072
293.051,-2.04858e-08,0,131072,131072
293.1,-2.08717e-08,0,131072,131072
293.15,-2.12353e-08,0,131072,131072
293.2,-2.15747e-08,0,131072,131072
293.251,-2.18919e-08,0,131072,131072
293.3,-2.2175e-08,0,131072,131072
293.35,-2.24255e-08,0,131072,131072
293.4,-2.26405e-08,0,131072,131072
293.451,-2.28205e-08,0,131072,131072
293.5,-2.29601e-08,0,131072,131072
293.55,-2.30633e-08,0,131072,131072
293.601,-2.31334e-08,0,131072,131072
293.65,-2.31708e-08,0,131072,131072
293.7,-2.31796e-08,0,131072,131072
293.75,-2.31616e-08,0,131072,131072
293.801,-2.31181e-08,0,131072,131072
293.85,-2.30523e-08,0,131072,131072
293.9,-2.29659e-08,0,131072,131072
293.951,-2.286e-08,0,131072,131072
294,-2.27407e-08,0,131072,131072
294.05,-2.26096e-08,0,131072,131072
294.1,-2.24692e-08,0,131072,131072
294.151,-2.23194e-08,0,131072,131072
294.2,-2.21662e-08,0,131072,131072
294.25,-2.20089e-08,0,131072,131072
294.3,-2.18485e-08,0,131072,131072
294.351,-2.16839e-08,0,131072,131072
294.4,-2.15207e-08,0,131072,131072
294.45,-2.13577e-08,0,131072,131072
294.501,-2.11935e-08,0,131072,131072
294.55,-2.10338e-08,0,131072,131072
294.6,-2.0877e-08,0,131072,131072
294.65,-2.07236e-08,0,131072,131072
294.701,-2.05718e-08,0,131072,131072
294.75,-2.04262e-08,0,131072,131072
294.8,-2.02849e-08,0,131072,131072
294.851,-2.01462e-08,0,131072,131072
294.901,-2.00145e-08,0,131072,131072
294.95,-1.98881e-08,0,131072,131072
295,-1.97674e-08,0,131072,131072
295.051,-1.96508e-08,0,131072,131072
295.1,-1.95417e-08,0,131072,131072
295.15,-1.94382e-08,0,131072,131072
295.2,-1.93399e-08,0,131072,131072
295.251,-1.92453e-08,0,131072,131072
295.3,-1.91567e-08,0,131072,131072
295.35,-1.90723e-08,0,131072,131072
295.401,-1.89906e-08,0,131072,131072
295.45,-1.89136e-08,0,131072,131072
295.5,-1.88397e-08,0,131072,131072
295.55,-1.87684e-08,0,131072,131072
295.601,-1.86986e-08,0,131072,131072
295.65,-1.86319e-08,0,131072,131072
295.7,-1.8567e-08,0,131072,131072
295.751,-1.85027e-08,0,131072,131072
295.801,-1.84405e-08,0,131072,131072
295.85,-1.83793e-08,0,131072,131072
295.9,-1.83188e-08,0,131072,131072
295.951,-1.82579e-08,0,131072,131072
296,-1.81982e-08,0,131072,131072
296.05,-1.81387e-08,0,131072,131072
296.1,-1.80791e-08,0,131072,131072
296.151,-1.80184e-08,0,131072,131072
296.2,-1.79583e-08,0,131072,131072
296.25,-1.78976e-08,0,131072,131072
296.301,-1.78355e-08,0,131072,131072
296.35,-1.77736e-08,0,131072,131072
296.4,-1.77109e-08,0,131072,131072
296.45,-1.76473e-08,0,131072,131072
296.501,-1.75817e-08,0,131072,131072
296.55,-1.75158e-08,0,131072,131072
296.6,-1.74487e-08,0,131072,131072
296.65,-1.73802e-08,0,131072,131072
296.701,-1.7309e-08,0,131072,131072
296.75,-1.7237e-08,0,131072,131072
296.8,-1.71629e-08,0,131072,131072
296.851,-1.70853e-08,0,131072,131072
296.9,-1.70063e-08,0,131072,131072
296.95,-1.69244e-08,0,131072,131072
297,-1.68394e-08,0,131072,131072
297.051,-1.67496e-08,0,131072,131072
297.1,-1.66573e-08,0,131072,131072
297.15,-1.6561e-08,0,131072,131072
297.201,-1.64589e-08,0,131072,131072
297.251,-1.63536e-08,0,131072,131072
297.3,-1.62436e-08,0,131072,131072
297.35,-1.61286e-08,0,131072,131072
297.401,-1.60067e-08,0,131072,131072
297.45,-1.58814e-08,0,131072,131072
297.5,-1.57508e-08,0,131072,131072
297.55,-1.56149e-08,0,131072,131072
297.601,-1.54717e-08,0,131072,131072
297.65,-1.53252e-08,0,131072,131072
297.7,-1.51735e-08,0,131072,131072
297.751,-1.50143e-08,0,131072,131072
297.8,-1.4852e-08,0,131072,131072
297.85,-1.46842e-08,0,131072,131072
297.9,-1.45107e-08,0,131072,131072
297.951,-1.43285e-08,0,131072,131072
298,-1.41427e-08,0,131072,131072
298.05,-1.39506e-08,0,131072,131072
298.101,-1.37493e-08,0,131072,131072
298.151,-1.3545e-08,0,131072,131072
298.2,-1.33349e-08,0,131072,131072
298.25,-1.31193e-08,0,131072,131072
298.301,-1.28949e-08,0,131072,131072
298.35,-1.26679e-08,0,131072,131072
298.4,-1.24345e-08,0,131072,131072
298.45,-1.21937e-08,0,131072,131072
298.501,-1.19404e-08,0,131072,131072
298.55,-1.16803e-08,0,131072,131072
298.6,-1.14081e-08,0,131072,131072
298.651,-1.1117e-08,0,131072,131072
298.7,-1.08131e-08,0,131072,131072
298.75,-1.04897e-08,0,131072,131072
298.8,-1.01441e-08,0,131072,131072
298.851,-9.76821e-09,0,131072,131072
298.9,-9.37091e-09,0,131072,131072
298.95,-8.94527e-09,0,131072,131072
299,-8.49017e-09,0,131072,131072
299.051,-7.99769e-09,0,131072,131072
299.1,-7.4822e-09,0,131072,131072
299.15,-6.93764e-09,0,131072,131072
299.201,-6.35721e-09,0,131072,131072
299.25,-5.76065e-09,0,131072,131072
299.3,-5.14369e-09,0,131072,131072
299.35,-4.51121e-09,0,131072,131072
299.401,-3.85926e-09,0,131072,131072
299.45,-3.21259e-09,0,131072,131072
299.5,-2.56747e-09,0,131072,131072
299.551,-1.91984e-09,0,131072,131072
299.601,-1.29316e-09,0,131072,131072
299.65,-6.8207e-10,0,131072,131072
299.7,-9.01957e-11,0,131072,131072
299.751,4.87258e-10,0,131072,131072
299.8,1.03018e-09,0,131072,131072
299.85,1.54374e-09,0,131072,131072
299.9,2.02452e-09,0,131072,131072
299.951,2.47544e-09,0,131072,131072
300,2.88037e-09,0,131072,131072
300.05,3.2437e-09,0,131072,131072
300.101,3.5682e-09,0,131072,131072
300.15,3.84386e-09,0,131072,131072
300.2,4.07612e-09,0,131072,131072
300.25,4.26637e-09,0,131072,131072
300.301,4.4187e-09,0,131072,131072
300.35,4.53138e-09,0,131072,131072
300.4,4.60987e-09,0,131072,131072
300.451,4.65767e-09,0,131072,131072
300.501,4.67644e-09,0,131072,131072
300.55,4.67004e-09,0,131072,131072
300.6,4.64137e-09,0,131072,131072
300.651,4.5925e-09,0,131072,131072
300.7,4.52778e-09,0,131072,131072
300.75,4.44944e-09,0,131072,131072
300.8,4.36013e-09,0,131072,131072
300.851,4.26072e-09,0,131072,131072
300.9,4.15616e-09,0,131072,131072
300.95,4.04686e-09,0,131072,131072
301.001,3.93273e-09,0,131072,131072
301.05,3.81855e-09,0,131072,131072
301.1,3.70404e-09,0,131072,131072
301.15,3.59034e-09,0,131072,131072
301.201,3.47677e-09,0,131072,131072
301.25,3.36732e-09,0,131072,131072
301.3,3.26084e-09,0,131072,131072
301.35,3.15782e-09,0,131072,131072
301.401,3.05739e-09,0,131072,131072
301.45,2.96317e-09,0,131072,131072
301.5,2.87448e-09,0,131072,131072
301.551,2.79095e-09,0,131072,131072
301.6,2.71566e-09,0,131072,131072
301.65,2.64778e-09,0,131072,131072
301.7,2.58753e-09,0,131072,131072
301.751,2.5342e-09,0,131072,131072
301.8,2.48922e-09,0,131072,131072
301.85,2.45151e-09,0,131072,131072
301.901,2.42027e-09,0,131072,131072
301.951,2.39578e-09,0,131072,131072
302,2.37674e-09,0,131072,131072
302.05,2.36219e-09,0,131072,131072
302.101,2.35098e-09,0,131072,131072
302.15,2.34257e-09,0,131072,131072
302.2,2.33602e-09,0,131072,131072
302.25,2.33075e-09,0,131072,131072
302.301,2.32611e-09,0,131072,131072
302.35,2.32154e-09,0,131072,131072
302.4,2.31619e-09,0,131072,131072
302.451,2.30917e-09,0,131072,131072
302.5,2.30012e-09,0,131072,131072
302.55,2.28882e-09,0,131072,131072
302.6,2.27567e-09,0,131072,131072
302.651,2.26127e-09,0,131072,131072
302.7,2.2471e-09,0,131072,131072
302.75,2.23392e-09,0,131072,131072
302.801,2.22219e-09,0,131072,131072
302.851,2.21246e-09,0,131072,131072
302.9,2.20426e-09,0,131072,131072
302.95,2.19706e-09,0,131072,131072
303.001,2.19008e-09,0,131072,131072
303.05,2.18301e-09,0,131072,131072
303.1,2.1755e-09,0,131072,131072
303.15,2.16767e-09,0,131072,131072
303.201,2.15989e-09,0,131072,131072
303.25,2.15313e-09,0,131072,131072
303.3,2.14806e-09,0,131072,131072
303.351,2.14538e-09,0,131072,131072
303.4,2.14554e-09,0,131072,131072
303.45,2.14851e-09,0,131072,131072
303.5,2.15388e-09,0,131072,131072
303.551,2.16114e-09,0,131072,131072
303.6,2.1693e-09,0,131072,131072
303.65,2.17775e-09,0,131072,131072
303.7,2.18601e-09,0,131072,131072
303.751,2.19391e-09,0,131072,131072
303.8,2.2012e-09,0,131072,131072
303.85,2.20805e-09,0,131072,131072
303.901,2.21461e-09,0,131072,131072
303.95,2.22064e-09,0,131072,131072
304,2.22604e-09,0,131072,131072
304.05,2.23053e-09,0,131072,131072
304.101,2.23392e-09,0,131072,131072
304.15,2.23609e-09,0,131072,131072
304.2,2.23724e-09,0,131072,131072
304.251,2.23765e-09,0,131072,131072
304.301,2.23757e-09,0,131072,131072
304.35,2.23715e-09,0,131072,131072
304.4,2.23633e-09,0,131072,131072
304.451,2.23493e-09,0,131072,131072
304.5,2.23282e-09,0,131072,131072
304.55,2.22996e-09,0,131072,131072
304.6,2.22648e-09,0,131072,131072
304.651,2.22253e-09,0,131072,131072
304.7,2.21848e-09,0,131072,131072
304.75,2.21439e-09,0,131072,131072
304.801,2.21017e-09,0,131072,131072
304.85,2.20579e-09,0,131072,131072
304.9,2.201e-09,0,131072,131072
304.95,2.19564e-09,0,131072,131072
