250,0,0,8192,8192
250.003,0,0,8192,8192
250.053,0,0,8192,8192
250.103,0,0,8192,8192
250.152,0,0,8192,8192
250.202,0,0,8192,8192
250.252,0,0,8192,8192
250.302,0,0,8192,8192
250.352,-1.38778e-17,0,8192,8192
250.401,-1.38778e-17,0,8192,8192
250.451,-2.77556e-17,0,8192,8192
250.501,-2.77556e-17,0,8192,8192
250.551,-1.38778e-17,0,8192,8192
250.6,-1.38778e-17,0,8192,8192
250.65,-1.38778e-17,0,8192,8192
250.7,-4.16334e-17,0,8192,8192
250.753,-1.38778e-17,0,8192,8192
250.803,0,0,8192,8192
250.852,0,0,8192,8192
250.902,0,0,8192,8192
250.952,0,0,8192,8192
251.002,-1.38778e-17,0,8192,8192
251.052,0,0,8192,8192
251.101,0,0,8192,8192
251.151,0,0,8192,8192
251.201,0,0,8192,8192
251.251,0,0,8192,8192
251.301,0,0,8192,8192
251.35,1.38778e-17,0,8192,8192
251.4,1.38778e-17,0,8192,8192
251.453,1.38778e-17,0,8192,8192
251.503,1.38778e-17,0,8192,8192
251.553,1.38778e-17,0,8192,8192
251.602,1.38778e-17,0,8192,8192
251.652,0,0,8192,8192
251.702,0,0,8192,8192
251.752,0,0,8192,8192
251.801,0,0,8192,8192
251.851,0,0,8192,8192
251.901,0,0,8192,8192
251.951,0,0,8192,8192
252.001,-1.38778e-17,0,8192,8192
252.05,0,0,8192,8192
252.1,-1.38778e-17,0,8192,8192
252.15,0,0,8192,8192
252.203,0,0,8192,8192
252.253,0,0,8192,8192
252.302,0,0,8192,8192
252.352,0,0,8192,8192
252.402,0,0,8192,8192
252.452,0,0,8192,8192
252.502,0,0,8192,8192
252.551,0,0,8192,8192
252.601,0,0,8192,8192
252.651,-1.38778e-17,0,8192,8192
252.701,0,0,8192,8192
252.751,0,0,8192,8192
252.8,0,0,8192,8192
252.85,-1.38778e-17,0,8192,8192
252.903,1.38778e-17,0,8192,8192
252.953,2.77556e-17,0,8192,8192
253.002,2.77556e-17,0,8192,8192
253.052,2.77556e-17,0,8192,8192
253.102,2.77556e-17,0,8192,8192
253.152,4.16334e-17,0,8192,8192
253.202,4.16334e-17,0,8192,8192
253.251,2.77556e-17,0,8192,8192
253.301,2.77556e-17,0,8192,8192
253.351,4.16334e-17,0,8192,8192
253.401,2.77556e-17,0,8192,8192
253.451,2.77556e-17,0,8192,8192
253.5,2.77556e-17,0,8192,8192
253.55,2.77556e-17,0,8192,8192
253.6,1.38778e-17,0,8192,8192
253.653,1.38778e-17,0,8192,8192
253.703,1.38778e-17,0,8192,8192
253.752,1.38778e-17,0,8192,8192
253.802,0,0,8192,8192
253.852,-1.38778e-17,0,8192,8192
253.902,-1.38778e-17,0,8192,8192
253.952,0,0,8192,8192
254.001,0,0,8192,8192
254.051,1.38778e-17,0,8192,8192
254.101,1.38778e-17,0,8192,8192
254.151,2.77556e-17,0,8192,8192
254.201,1.38778e-17,0,8192,8192
254.25,2.77556e-17,0,8192,8192
254.3,2.77556e-17,0,8192,8192
254.353,2.77556e-17,0,8192,8192
254.403,1.38778e-17,0,8192,8192
254.452,1.38778e-17,0,8192,8192
254.502,1.38778e-17,0,8192,8192
254.552,1.38778e-17,0,8192,8192
254.602,1.38778e-17,0,8192,8192
254.652,2.77556e-17,0,8192,8192
254.701,2.77556e-17,0,8192,8192
254.751,0,0,8192,8192
254.801,0,0,8192,8192
254.851,-1.38778e-17,0,8192,8192
254.901,0,0,8192,8192
254.95,-2.77556e-17,0,8192,8192
255,-1.38778e-17,0,8192,8192
255.05,0,0,8192,8192
255.103,0,0,8192,8192
255.153,1.38778e-17,0,8192,8192
255.202,2.77556e-17,0,8192,8192
255.252,1.38778e-17,0,8192,8192
255.302,1.38778e-17,0,8192,8192
255.352,1.38778e-17,0,8192,8192
255.402,2.77556e-17,0,8192,8192
255.451,2.77556e-17,0,8192,8192
255.501,2.77556e-17,0,8192,8192
255.551,1.38778e-17,0,8192,8192
255.601,1.38778e-17,0,8192,8192
255.651,1.38778e-17,0,8192,8192
255.7,2.77556e-17,0,8192,8192
255.75,2.77556e-17,0,8192,8192
255.803,1.38778e-17,0,8192,8192
255.853,1.38778e-17,0,8192,8192
255.902,1.38778e-17,0,8192,8192
255.952,1.38778e-17,0,8192,8192
256.002,1.38778e-17,0,8192,8192
256.052,1.38778e-17,0,8192,8192
256.102,0,0,8192,8192
256.151,-1.38778e-17,0,8192,8192
256.201,0,0,8192,8192
256.251,0,0,8192,8192
256.301,-1.38778e-17,0,8192,8192
256.351,0,0,8192,8192
256.4,0,0,8192,8192
256.45,0,0,8192,8192
256.5,-1.38778e-17,0,8192,8192
256.553,-1.38778e-17,0,8192,8192
256.603,-2.77556e-17,0,8192,8192
256.652,-1.38778e-17,0,8192,8192
256.702,-1.38778e-17,0,8192,8192
256.752,-2.77556e-17,0,8192,8192
256.802,0,0,8192,8192
256.852,0,0,8192,8192
256.901,0,0,8192,8192
256.951,0,0,8192,8192
257.001,0,0,8192,8192
257.051,0,0,8192,8192
257.101,0,0,8192,8192
257.15,0,0,8192,8192
257.2,0,0,8192,8192
257.253,0,0,8192,8192
257.303,0,0,8192,8192
257.352,1.38778e-17,0,8192,8192
257.402,2.77556e-17,0,8192,8192
257.452,1.38778e-17,0,8192,8192
257.502,2.77556e-17,0,8192,8192
257.552,1.38778e-17,0,8192,8192
257.601,2.77556e-17,0,8192,8192
257.651,4.16334e-17,0,8192,8192
257.701,4.16334e-17,0,8192,8192
257.751,2.77556e-17,0,8192,8192
257.801,2.77556e-17,0,8192,8192
257.85,4.16334e-17,0,8192,8192
257.9,4.16334e-17,0,8192,8192
257.95,2.77556e-17,0,8192,8192
258.003,1.38778e-17,0,8192,8192
258.053,1.38778e-17,0,8192,8192
258.102,1.38778e-17,0,8192,8192
258.152,2.77556e-17,0,8192,8192
258.202,2.77556e-17,0,8192,8192
258.252,2.77556e-17,0,8192,8192
258.302,2.77556e-17,0,8192,8192
258.351,2.77556e-17,0,8192,8192
258.401,1.38778e-17,0,8192,8192
258.451,1.38778e-17,0,8192,8192
258.501,1.38778e-17,0,8192,8192
258.551,1.38778e-17,0,8192,8192
258.6,1.38778e-17,0,8192,8192
258.65,1.38778e-17,0,8192,8192
258.703,2.77556e-17,0,8192,8192
258.753,2.77556e-17,0,8192,8192
258.802,2.77556e-17,0,8192,8192
258.852,1.38778e-17,0,8192,8192
258.902,1.38778e-17,0,8192,8192
258.952,2.77556e-17,0,8192,8192
259.002,2.77556e-17,0,8192,8192
259.051,1.38778e-17,0,8192,8192
259.101,1.38778e-17,0,8192,8192
259.151,2.77556e-17,0,8192,8192
259.201,2.77556e-17,0,8192,8192
259.251,1.38778e-17,0,8192,8192
259.3,2.77556e-17,0,8192,8192
259.35,2.77556e-17,0,8192,8192
259.403,1.38778e-17,0,8192,8192
259.453,2.77556e-17,0,8192,8192
259.503,2.77556e-17,0,8192,8192
259.552,2.77556e-17,0,8192,8192
259.602,4.16334e-17,0,8192,8192
259.652,2.77556e-17,0,8192,8192
259.702,2.77556e-17,0,8192,8192
259.751,2.77556e-17,0,8192,8192
259.801,2.77556e-17,0,8192,8192
259.851,4.16334e-17,0,8192,8192
259.901,4.16334e-17,0,8192,8192
259.951,4.16334e-17,0,8192,8192
260,2.77556e-17,0,8192,8192
260.05,4.16334e-17,0,8192,8192
260.1,4.16334e-17,0,8192,8192
260.153,4.16334e-17,0,8192,8192
260.203,2.77556e-17,0,8192,8192
260.252,5.55112e-17,0,8192,8192
260.302,5.55112e-17,0,8192,8192
260.352,2.77556e-17,0,8192,8192
260.402,1.38778e-17,0,8192,8192
260.452,1.38778e-17,0,8192,8192
260.501,1.38778e-17,0,8192,8192
260.551,1.38778e-17,0,8192,8192
260.601,1.38778e-17,0,8192,8192
260.651,2.77556e-17,0,8192,8192
260.701,2.77556e-17,0,8192,8192
260.75,2.77556e-17,0,8192,8192
260.8,2.77556e-17,0,8192,8192
260.853,2.77556e-17,0,8192,8192
260.903,2.77556e-17,0,8192,8192
260.952,2.77556e-17,0,8192,8192
261.002,2.77556e-17,0,8192,8192
261.052,4.16334e-17,0,8192,8192
261.102,1.38778e-17,0,8192,8192
261.152,1.38778e-17,0,8192,8192
261.201,1.38778e-17,0,8192,8192
261.251,2.77556e-17,0,8192,8192
261.301,2.77556e-17,0,8192,8192
261.351,2.77556e-17,0,8192,8192
261.401,2.77556e-17,0,8192,8192
261.45,2.77556e-17,0,8192,8192
261.5,4.16334e-17,0,8192,8192
261.55,2.77556e-17,0,8192,8192
261.603,0,0,8192,8192
261.653,2.77556e-17,0,8192,8192
261.702,4.16334e-17,0,8192,8192
261.752,2.77556e-17,0,8192,8192
261.802,0,0,8192,8192
261.852,0,0,8192,8192
261.902,0,0,8192,8192
261.951,0,0,8192,8192
262.001,0,0,8192,8192
262.051,0,0,8192,8192
262.101,0,0,8192,8192
262.151,0,0,8192,8192
262.2,0,0,8192,8192
262.25,0,0,8192,8192
262.303,0,0,8192,8192
262.353,-1.38778e-17,0,8192,8192
262.402,-1.38778e-17,0,8192,8192
262.452,-1.38778e-17,0,8192,8192
262.502,-1.38778e-17,0,8192,8192
262.552,-1.38778e-17,0,8192,8192
262.602,0,0,8192,8192
262.651,0,0,8192,8192
262.701,0,0,8192,8192
262.751,0,0,8192,8192
262.801,0,0,8192,8192
262.851,0,0,8192,8192
262.9,0,0,8192,8192
262.95,0,0,8192,8192
263,-1.38778e-17,0,8192,8192
263.053,-1.38778e-17,0,8192,8192
263.103,-4.16334e-17,0,8192,8192
263.152,-2.77556e-17,0,8192,8192
263.202,-2.77556e-17,0,8192,8192
263.252,-2.77556e-17,0,8192,8192
263.302,-2.77556e-17,0,8192,8192
263.352,-2.77556e-17,0,8192,8192
263.401,-2.77556e-17,0,8192,8192
263.451,-2.77556e-17,0,8192,8192
263.501,-1.38778e-17,0,8192,8192
263.551,-1.38778e-17,0,8192,8192
263.601,-2.77556e-17,0,8192,8192
263.65,-2.77556e-17,0,8192,8192
263.7,1.38778e-17,0,8192,8192
263.753,1.38778e-17,0,8192,8192
263.803,-1.38778e-17,0,8192,8192
263.852,-1.38778e-17,0,8192,8192
263.902,-1.38778e-17,0,8192,8192
263.952,-1.38778e-17,0,8192,8192
264.002,0,0,8192,8192
264.052,-2.77556e-17,0,8192,8192
264.101,-1.38778e-17,0,8192,8192
264.151,-4.16334e-17,0,8192,8192
264.201,0,0,8192,8192
264.251,-1.38778e-17,0,8192,8192
264.301,0,0,8192,8192
264.35,-1.38778e-17,0,8192,8192
264.4,0,0,8192,8192
264.45,0,0,8192,8192
264.503,0,0,8192,8192
264.553,0,0,8192,8192
264.602,0,0,8192,8192
264.652,0,0,8192,8192
264.702,1.38778e-17,0,8192,8192
264.752,0,0,8192,8192
264.802,0,0,8192,8192
264.851,0,0,8192,8192
264.901,-1.38778e-17,0,8192,8192
264.951,-1.38778e-17,0,8192,8192
265.001,-1.38778e-17,0,8192,8192
265.051,0,0,8192,8192
265.1,0,0,8192,8192
265.15,0,0,8192,8192
265.203,1.38778e-17,0,8192,8192
265.253,1.38778e-17,0,8192,8192
265.302,1.38778e-17,0,8192,8192
265.352,1.38778e-17,0,8192,8192
265.402,0,0,8192,8192
265.452,0,0,8192,8192
265.502,0,0,8192,8192
265.551,0,0,8192,8192
265.601,0,0,8192,8192
265.651,0,0,8192,8192
265.701,1.38778e-17,0,8192,8192
265.751,1.38778e-17,0,8192,8192
265.8,2.77556e-17,0,8192,8192
265.85,2.77556e-17,0,8192,8192
265.9,1.38778e-17,0,8192,8192
265.953,2.77556e-17,0,8192,8192
266.003,2.77556e-17,0,8192,8192
266.052,2.77556e-17,0,8192,8192
266.102,1.38778e-17,0,8192,8192
266.152,1.38778e-17,0,8192,8192
266.202,2.77556e-17,0,8192,8192
266.252,1.38778e-17,0,8192,8192
266.301,1.38778e-17,0,8192,8192
266.351,0,0,8192,8192
266.401,0,0,8192,8192
266.451,-1.38778e-17,0,8192,8192
266.501,0,0,8192,8192
266.55,0,0,8192,8192
266.6,0,0,8192,8192
266.653,0,0,8192,8192
266.703,1.38778e-17,0,8192,8192
266.752,0,0,8192,8192
266.802,2.77556e-17,0,8192,8192
266.852,2.77556e-17,0,8192,8192
266.902,1.38778e-17,0,8192,8192
266.952,1.38778e-17,0,8192,8192
267.001,0,0,8192,8192
267.051,0,0,8192,8192
267.101,0,0,8192,8192
267.151,1.38778e-17,0,8192,8192
267.201,2.77556e-17,0,8192,8192
267.25,2.77556e-17,0,8192,8192
267.3,4.16334e-17,0,8192,8192
267.353,4.16334e-17,0,8192,8192
267.403,6.93889e-17,0,8192,8192
267.453,6.93889e-17,0,8192,8192
267.502,5.55112e-17,0,8192,8192
267.552,2.77556e-17,0,8192,8192
267.602,2.77556e-17,0,8192,8192
267.652,2.77556e-17,0,8192,8192
267.702,1.38778e-17,0,8192,8192
267.751,1.38778e-17,0,8192,8192
267.801,1.38778e-17,0,8192,8192
267.851,2.77556e-17,0,8192,8192
267.901,1.38778e-17,0,8192,8192
267.95,1.38778e-17,0,8192,8192
268,1.38778e-17,0,8192,8192
268.05,2.77556e-17,0,8192,8192
268.1,2.77556e-17,0,9356,9356
268.151,2.77556e-17,0,10268,10268
268.2,2.77556e-17,0,11156,11156
268.25,2.77556e-17,0,12068,12068
268.301,2.77556e-17,0,12932,12932
268.351,2.77556e-17,0,13820,13820
268.4,2.77556e-17,0,14676,14676
268.45,2.77556e-17,0,15548,15548
268.501,2.77556e-17,0,16420,16420
268.55,2.77556e-17,0,17300,17300
268.6,2.77556e-17,0,18156,18156
268.65,2.77556e-17,0,19020,19020
268.701,2.77556e-17,0,19892,19892
268.75,2.77556e-17,0,20748,20748
268.8,2.77556e-17,0,21612,21612
268.851,2.77556e-17,0,22500,22500
268.9,2.77556e-17,0,23308,23308
268.95,2.77556e-17,0,24180,24180
269,2.77556e-17,0,25036,25036
269.051,2.77556e-17,0,25804,25804
269.1,2.77556e-17,0,26676,26676
269.15,2.77556e-17,0,27452,27452
269.201,2.77556e-17,0,28164,28164
269.251,2.77556e-17,0,29012,29012
269.3,2.77556e-17,0,29860,29860
269.35,2.77556e-17,0,30644,30644
269.401,2.77556e-17,0,31468,31468
269.45,2.77556e-17,0,32292,32292
269.5,2.77556e-17,0,33084,33084
269.55,2.77556e-17,0,33876,33876
269.601,2.77556e-17,0,34652,34652
269.65,2.77556e-17,0,35532,35532
269.7,2.77556e-17,0,36388,36388
269.751,2.77556e-17,0,37164,37164
269.8,2.77556e-17,0,38084,38084
269.85,2.77556e-17,0,38860,38860
269.9,2.77556e-17,0,39668,39668
269.951,2.77556e-17,0,40480,40480
270,2.77556e-17,0,41300,41300
270.05,2.77556e-17,0,42088,42088
270.1,2.77556e-17,0,42960,42960
270.151,2.77556e-17,0,43708,43708
270.2,2.77556e-17,0,44556,44556
270.25,2.77556e-17,0,45414,45414
270.301,2.77556e-17,0,46244,46244
270.35,2.77556e-17,0,47008,47008
270.4,2.77556e-17,0,47790,47790
270.45,2.77556e-17,0,48650,48650
270.501,2.77556e-17,0,49418,49418
270.55,2.77556e-17,0,50176,50176
270.6,2.77556e-17,0,51048,51048
270.651,2.77556e-17,0,51804,51804
270.701,2.77556e-17,0,52620,52620
270.75,2.77556e-17,0,53442,53442
270.8,2.77556e-17,0,54214,54214
270.851,2.77556e-17,0,55054,55054
270.9,2.77556e-17,0,55826,55826
270.95,2.77556e-17,0,56648,56648
271,2.77556e-17,0,57442,57442
271.051,2.77556e-17,0,58220,58220
271.1,2.77556e-17,0,58950,58950
271.15,2.77556e-17,0,59764,59764
271.201,2.77556e-17,0,60602,60602
271.25,2.77556e-17,0,61328,61328
271.3,2.77556e-17,0,62102,62102
271.35,2.77556e-17,0,62940,62940
271.401,2.77556e-17,0,63682,63682
271.45,2.77556e-17,0,64472,64472
271.5,2.77556e-17,0,65246,65246
271.551,2.77556e-17,0,65968,65968
271.601,2.77556e-17,0,66720,66720
271.65,2.77556e-17,0,67492,67492
271.7,2.77556e-17,0,68252,68252
271.751,2.77556e-17,0,69068,69068
271.8,2.77556e-17,0,69744,69744
271.85,2.77556e-17,0,70522,70522
271.9,2.77556e-17,0,71270,71270
271.951,2.77556e-17,0,71954,71954
272,2.77556e-17,0,72722,72722
272.05,2.77556e-17,0,73434,73434
272.101,2.77556e-17,0,74082,74082
272.15,2.77556e-17,0,74844,74844
272.2,2.77556e-17,0,75594,75594
272.25,2.77556e-17,0,76280,76280
272.301,2.77556e-17,0,77062,77062
272.35,2.77556e-17,0,77718,77718
272.4,2.77556e-17,0,78414,78414
272.451,2.77556e-17,0,79150,79150
272.501,2.77556e-17,0,79854,79854
272.55,2.77556e-17,0,80638,80638
272.6,2.77556e-17,0,81330,81330
272.651,2.77556e-17,0,81966,81966
272.7,2.77556e-17,0,82726,82726
272.75,2.77556e-17,0,83424,83424
272.8,2.77556e-17,0,84022,84022
272.851,2.77556e-17,0,84754,84754
272.9,2.77556e-17,0,85406,85406
272.95,2.77556e-17,0,86160,86160
273.001,2.77556e-17,0,86814,86814
273.05,2.77556e-17,0,87472,87472
273.1,2.77556e-17,0,88186,88186
273.15,2.77556e-17,0,88796,88796
273.201,2.77556e-17,0,89470,89470
273.25,2.77556e-17,0,90184,90184
273.3,2.77556e-17,0,90820,90820
273.35,2.77556e-17,0,91506,91506
273.401,2.77556e-17,0,92226,92226
273.45,2.77556e-17,0,92848,92848
273.5,2.77556e-17,0,93510,93510
273.551,2.77556e-17,0,94176,94176
273.6,2.77556e-17,0,94856,94856
273.65,2.77556e-17,0,95484,95484
273.7,2.77556e-17,0,96104,96104
273.751,2.77556e-17,0,96624,96624
273.8,2.77556e-17,0,97476,97476
273.85,2.77556e-17,0,98260,98260
273.901,2.77556e-17,0,98766,98766
273.951,2.77556e-17,0,99430,99430
274,2.77556e-17,0,100084,100084
274.05,4.71845e-16,0,100836,100836
274.101,1.38778e-15,0,101404,101404
274.15,2.30371e-15,0,102106,102106
274.2,3.23352e-15,0,102756,102756
274.25,4.16334e-15,0,103308,103308
274.301,5.09315e-15,0,103964,103964
274.35,6.10623e-15,0,104628,104628
274.4,7.93809e-15,0,105236,105236
274.451,9.8116e-15,0,105820,105820
274.5,1.16851e-14,0,106488,106488
274.55,1.35725e-14,0,107104,107104
274.6,1.54599e-14,0,107812,107812
274.651,1.73611e-14,0,108484,108484
274.7,1.92346e-14,0,109100,109100
274.75,2.1122e-14,0,109778,109778
274.801,2.30371e-14,0,110346,110346
274.851,2.49106e-14,0,111052,111052
274.9,2.6798e-14,0,111684,111684
274.95,2.86854e-14,0,112252,112252
275.001,3.07809e-14,0,112916,112916
275.05,3.49859e-14,0,113408,113408
275.1,4.40065e-14,0,113890,113890
275.15,6.00769e-14,0,114356,114356
275.201,7.90201e-14,0,114882,114882
275.25,7.91034e-14,0,115456,115456
275.3,1.44329e-15,0,115990,115990
275.351,-2.82843e-13,0,116592,116592
275.4,-9.79647e-13,0,117282,117282
275.45,-2.40276e-12,0,117690,117690
275.5,-4.94604e-12,0,118404,118404
275.551,-1.27661e-11,0,118820,118820
275.6,-5.74472e-11,0,119274,119274
275.65,-1.82155e-10,0,119632,119632
275.7,-3.46447e-10,0,120140,120140
275.751,-4.2623e-10,0,120490,120490
275.8,-3.20628e-10,0,120866,120866
275.85,-6.88235e-11,0,121270,121270
275.901,1.78449e-10,0,121570,121570
275.95,2.71153e-10,0,121780,121780
276,1.87351e-10,0,122138,122138
276.05,2.15413e-11,0,122356,122356
276.101,-7.29174e-11,0,122706,122706
276.15,-1.72173e-11,0,122936,122936
276.2,1.34706e-10,0,123256,123256
276.251,2.4094e-10,0,123472,123472
276.301,2.14021e-10,0,123722,123722
276.35,8.85115e-11,0,124036,124036
276.4,-9.98432e-12,0,124208,124208
276.451,9.98104e-13,0,124418,124418
276.5,1.09797e-10,0,124732,124732
276.55,2.1297e-10,0,124946,124946
276.6,2.32523e-10,0,124916,124916
276.651,1.5963e-10,0,124722,124722
276.7,5.83262e-11,0,124594,124594
276.75,6.15108e-12,0,124322,124322
276.801,3.81769e-11,0,124246,124246
276.85,1.50346e-10,0,123958,123958
276.9,2.63789e-10,0,123924,123924
276.95,2.84653e-10,0,124300,124300
277.001,1.48098e-10,0,124914,124914
277.05,-5.81544e-11,0,124852,124852
277.1,-1.36149e-10,0,125148,125148
277.151,7.312e-11,0,125810,125810
277.201,4.48323e-10,0,126534,126534
277.25,5.9537e-10,0,126818,126818
277.3,1.93757e-10,0,126204,126204
277.351,-5.13955e-10,0,127290,127290
277.4,-5.3526e-10,0,128574,128574
277.45,1.27045e-09,0,127548,127548
277.5,5.42985e-09,0,128128,128128
277.551,1.15371e-08,0,127490,127490
277.6,1.81775e-08,0,128112,128112
277.65,2.41736e-08,0,127382,127382
277.701,2.88542e-08,0,127990,127990
277.75,3.2136e-08,0,128556,128556
277.8,3.49464e-08,0,127792,127792
277.85,3.86588e-08,0,128592,128592
277.901,4.47035e-08,0,128780,128780
277.95,5.35552e-08,0,128034,128034
278,6.51263e-08,0,128116,128116
278.051,7.92334e-08,0,127968,127968
278.101,9.5575e-08,0,128120,128120
278.15,1.15274e-07,0,128902,128902
278.2,1.39779e-07,0,127508,127508
278.251,1.70958e-07,0,129116,129116
278.3,2.08724e-07,0,128444,128444
278.35,2.53417e-07,0,130310,130310
278.4,3.03965e-07,0,129056,129056
278.451,3.59379e-07,0,129564,129564
278.5,4.16374e-07,0,129174,129174
278.55,4.75231e-07,0,129730,129730
278.601,5.37647e-07,0,129104,129104
278.65,6.02656e-07,0,128660,128660
278.7,6.70446e-07,0,127942,127942
278.75,7.38241e-07,0,125208,125208
278.801,8.02976e-07,0,125640,125640
278.85,8.59055e-07,0,124142,124142
278.9,9.05051e-07,0,123264,123264
278.95,9.40122e-07,0,122412,122412
279.001,9.65245e-07,0,120594,120594
279.05,9.81576e-07,0,119678,119678
279.1,9.91831e-07,0,119394,119394
279.151,9.97896e-07,0,117940,117940
279.2,1.00044e-06,0,117100,117100
279.25,9.99377e-07,0,116044,116044
279.3,9.93764e-07,0,115064,115064
279.351,9.82148e-07,0,114046,114046
279.4,9.63847e-07,0,113466,113466
279.45,9.38302e-07,0,112526,112526
279.501,9.05172e-07,0,111534,111534
279.551,8.66161e-07,0,111436,111436
279.6,8.22128e-07,0,110006,110006
279.65,7.74844e-07,0,109262,109262
279.701,7.25545e-07,0,109352,109352
279.75,6.77443e-07,0,108962,108962
279.8,6.31257e-07,0,109330,109330
279.85,5.88181e-07,0,109138,109138
279.901,5.48676e-07,0,111256,111256
279.95,5.14546e-07,0,112542,112542
280,4.85307e-07,0,112696,112696
280.051,4.6028e-07,0,114222,114222
280.1,4.39817e-07,0,115572,115572
280.15,4.23847e-07,0,116524,116524
280.2,4.13846e-07,0,116852,116852
280.251,4.12098e-07,0,117022,117022
280.3,4.20415e-07,0,116634,116634
280.35,4.38662e-07,0,117003,117003
280.401,4.65258e-07,0,117173,117173
280.451,4.96547e-07,0,117473,117473
280.5,5.30727e-07,0,117515,117515
280.55,5.67219e-07,0,117150,117150
280.601,6.07353e-07,0,116738,116738
280.65,6.51019e-07,0,116430,116430
280.7,6.99006e-07,0,115410,115410
280.75,7.49893e-07,0,114806,114806
280.801,8.01162e-07,0,114258,114258
280.85,8.47003e-07,0,114086,114086
280.9,8.84386e-07,0,113406,113406
280.951,9.11655e-07,0,112778,112778
281,9.28193e-07,0,112438,112438
281.05,9.36043e-07,0,112130,112130
281.1,9.37074e-07,0,111616,111616
281.151,9.32639e-07,0,111630,111630
281.2,9.23752e-07,0,110770,110770
281.25,9.10807e-07,0,110634,110634
281.3,8.93864e-07,0,109980,109980
281.351,8.72259e-07,0,109380,109380
281.4,8.45933e-07,0,109534,109534
281.45,8.13708e-07,0,108514,108514
281.501,7.74084e-07,0,108424,108424
281.55,7.27699e-07,0,108244,108244
281.6,6.74323e-07,0,108174,108174
281.65,6.15333e-07,0,108394,108394
281.701,5.52074e-07,0,108208,108208
281.75,4.88989e-07,0,108046,108046
281.8,4.27487e-07,0,108106,108106
281.851,3.68428e-07,0,107750,107750
281.901,3.14468e-07,0,107528,107528
281.95,2.64977e-07,0,107372,107372
282,2.19712e-07,0,107028,107028
282.051,1.77573e-07,0,106808,106808
282.1,1.39232e-07,0,106598,106598
282.15,1.03726e-07,0,106392,106392
282.2,7.11474e-08,0,106134,106134
282.251,4.16752e-08,0,105840,105840
282.3,1.69696e-08,0,105698,105698
282.35,-2.97828e-09,0,105492,105492
282.401,-1.88031e-08,0,105384,105384
282.45,-3.13799e-08,0,105230,105230
282.5,-4.25094e-08,0,104976,104976
282.55,-5.30924e-08,0,104892,104892
282.601,-6.31304e-08,0,104714,104714
282.65,-7.14765e-08,0,104676,104676
282.7,-7.74524e-08,0,104574,104574
282.751,-8.08387e-08,0,104530,104530
282.801,-8.20112e-08,0,104318,104318
282.85,-8.19924e-08,0,104218,104218
282.9,-8.17977e-08,0,104046,104046
282.951,-8.20573e-08,0,103884,103884
283,-8.26945e-08,0,103758,103758
283.05,-8.3027e-08,0,103670,103670
283.1,-8.22132e-08,0,103528,103528
283.151,-7.97343e-08,0,103410,103410
283.2,-7.5803e-08,0,103346,103346
283.25,-7.09642e-08,0,103602,103602
283.3,-6.58281e-08,0,104392,104392
283.351,-6.0735e-08,0,105035,105035
283.4,-5.59723e-08,0,105713,105713
283.45,-5.14748e-08,0,106690,106690
283.501,-4.71814e-08,0,107364,107364
283.55,-4.32608e-08,0,108112,108112
283.6,-3.97169e-08,0,108816,108816
283.65,-3.65804e-08,0,109568,109568
283.701,-3.37652e-08,0,110272,110272
283.75,-3.12602e-08,0,111024,111024
283.8,-2.89616e-08,0,111744,111744
283.851,-2.68389e-08,0,112480,112480
283.901,-2.49803e-08,0,113120,113120
283.95,-2.33689e-08,0,113856,113856
284,-2.20002e-08,0,114368,114368
284.051,-2.08426e-08,0,115360,115360
284.1,-1.99099e-08,0,116000,116000
284.15,-1.91651e-08,0,116672,116672
284.2,-1.85911e-08,0,117504,117504
284.251,-1.81664e-08,0,118160,118160
284.3,-1.78866e-08,0,118832,118832
284.35,-1.77265e-08,0,119600,119600
284.401,-1.76667e-08,0,120368,120368
284.45,-1.76888e-08,0,121024,121024
284.5,-1.77743e-08,0,121728,121728
284.55,-1.79127e-08,0,122544,122544
284.601,-1.80993e-08,0,123312,123312
284.65,-1.83234e-08,0,124094,124094
284.7,-1.85817e-08,0,124846,124846
284.75,-1.88672e-08,0,125612,125612
284.801,-1.91759e-08,0,126352,126352
284.85,-1.94904e-08,0,126212,126212
284.9,-1.98088e-08,0,126792,126792
284.951,-2.01322e-08,0,127604,127604
285,-2.04504e-08,0,128672,128672
285.05,-2.07683e-08,0,129302,129302
285.1,-2.10852e-08,0,129640,129640
285.151,-2.14035e-08,0,129918,129918
285.2,-2.17105e-08,0,129798,129798
285.25,-2.20064e-08,0,129814,129814
285.301,-2.22922e-08,0,129830,129830
285.351,-2.25586e-08,0,129684,129684
285.4,-2.2811e-08,0,129648,129648
285.45,-2.30518e-08,0,129620,129620
285.501,-2.32881e-08,0,129656,129656
285.55,-2.35172e-08,0,129628,129628
285.6,-2.37476e-08,0,129208,129208
285.65,-2.39844e-08,0,128880,128880
285.701,-2.42372e-08,0,129512,129512
285.75,-2.45033e-08,0,130332,130332
285.8,-2.47869e-08,0,130542,130542
285.851,-2.51001e-08,0,130994,130994
285.9,-2.54365e-08,0,130930,130930
285.95,-2.58019e-08,0,130884,130884
286,-2.61975e-08,0,130972,130972
286.051,-2.66314e-08,0,130922,130922
286.1,-2.70905e-08,0,130942,130942
286.15,-2.75802e-08,0,130986,130986
286.201,-2.81041e-08,0,130966,130966
286.251,-2.86428e-08,0,131000,131000
286.3,-2.91982e-08,0,130952,130952
286.35,-2.97654e-08,0,130952,130952
286.401,-3.03472e-08,0,130908,130908
286.45,-3.09232e-08,0,130868,130868
286.5,-3.14988e-08,0,130840,130840
286.55,-3.20708e-08,0,130786,130786
286.601,-3.26448e-08,0,130770,130770
286.65,-3.32015e-08,0,129508,129508
286.7,-3.37456e-08,0,128894,128894
286.751,-3.42811e-08,0,129120,129120
286.8,-3.47888e-08,0,129402,129402
286.85,-3.52732e-08,0,129518,129518
286.9,-3.57301e-08,0,129818,129818
286.951,-3.61631e-08,0,129880,129880
287,-3.65587e-08,0,130116,130116
287.05,-3.69228e-08,0,129892,129892
287.1,-3.72558e-08,0,129708,129708
287.151,-3.75623e-08,0,129644,129644
287.2,-3.78352e-08,0,129300,129300
287.25,-3.8082e-08,0,129508,129508
287.301,-3.83089e-08,0,129330,129330
287.35,-3.85123e-08,0,129366,129366
287.4,-3.86987e-08,0,129356,129356
287.45,-3.88709e-08,0,129286,129286
287.501,-3.90359e-08,0,129394,129394
287.55,-3.91941e-08,0,129342,129342
287.6,-3.93506e-08,0,129244,129244
287.651,-3.95124e-08,0,129148,129148
287.7,-3.9682e-08,0,128984,128984
287.75,-3.98642e-08,0,128754,128754
287.8,-4.00635e-08,0,128646,128646
287.851,-4.0286e-08,0,128460,128460
287.9,-4.0527e-08,0,128186,128186
287.95,-4.07918e-08,0,128212,128212
288,-4.10816e-08,0,128098,128098
288.051,-4.14025e-08,0,127798,127798
288.1,-4.17462e-08,0,127912,127912
288.15,-4.21157e-08,0,127832,127832
288.201,-4.25142e-08,0,128274,128274
288.25,-4.29256e-08,0,128532,128532
288.3,-4.33509e-08,0,128828,128828
288.35,-4.37841e-08,0,128398,128398
288.401,-4.42264e-08,0,129146,129146
288.45,-4.46602e-08,0,129086,129086
288.5,-4.5087e-08,0,129156,129156
288.551,-4.55104e-08,0,129372,129372
288.601,-4.59149e-08,0,129540,129540
288.65,-4.63036e-08,0,129700,129700
288.7,-4.66737e-08,0,129870,129870
288.751,-4.70273e-08,0,129902,129902
288.8,-4.73504e-08,0,130032,130032
288.85,-4.7645e-08,0,130252,130252
288.9,-4.79073e-08,0,130342,130342
288.951,-4.8137e-08,0,130394,130394
289,-4.8325e-08,0,130252,130252
289.05,-4.8473e-08,0,130258,130258
289.101,-4.85828e-08,0,130254,130254
289.15,-4.86513e-08,0,130122,130122
289.2,-4.86806e-08,0,130078,130078
289.25,-4.86703e-08,0,130186,130186
289.301,-4.86362e-08,0,129838,129838
289.35,-4.85686e-08,0,129754,129754
289.4,-4.84749e-08,0,130114,130114
289.451,-4.83553e-08,0,130220,130220
289.501,-4.82153e-08,0,130474,130474
289.55,-4.80567e-08,0,130522,130522
289.6,-4.78823e-08,0,130568,130568
289.651,-4.76913e-08,0,130624,130624
289.7,-4.74918e-08,0,130634,130634
289.75,-4.72838e-08,0,130638,130638
289.8,-4.70694e-08,0,130534,130534
289.851,-4.68469e-08,0,130532,130532
289.9,-4.66239e-08,0,130374,130374
289.95,-4.63981e-08,0,130332,130332
290.001,-4.61677e-08,0,130086,130086
290.05,-4.59403e-08,0,129842,129842
290.1,-4.57139e-08,0,129668,129668
290.15,-4.54895e-08,0,129470,129470
290.201,-4.52647e-08,0,129512,129512
290.25,-4.50463e-08,0,129306,129306
290.3,-4.48311e-08,0,128748,128748
290.35,-4.46194e-08,0,128294,128294
290.401,-4.4408e-08,0,127248,127248
290.45,-4.42032e-08,0,128572,128572
290.5,-4.40025e-08,0,128430,128430
290.551,-4.38032e-08,0,129454,129454
290.6,-4.36112e-08,0,129702,129702
290.65,-4.34238e-08,0,128114,128114
290.7,-4.32405e-08,0,126556,126556
290.751,-4.30583e-08,0,125416,125416
290.8,-4.28819e-08,0,125258,125258
290.85,-4.27081e-08,0,125574,125574
290.901,-4.25338e-08,0,125246,125246
290.95,-4.23636e-08,0,124950,124950
291,-4.21944e-08,0,124800,124800
291.05,-4.20258e-08,0,125008,125008
291.101,-4.18546e-08,0,124344,124344
291.15,-4.16853e-08,0,122662,122662
291.2,-4.1515e-08,0,122250,122250
291.25,-4.13432e-08,0,122124,122124
291.301,-4.11672e-08,0,123366,123366
291.35,-4.09916e-08,0,122558,122558
291.4,-4.08129e-08,0,121610,121610
291.451,-4.06276e-08,0,121344,121344
291.5,-4.044e-08,0,122226,122226
291.55,-4.02469e-08,0,123178,123178
291.6,-4.00475e-08,0,123692,123692
291.651,-3.98386e-08,0,123726,123726
291.7,-3.96262e-08,0,123838,123838
291.75,-3.94075e-08,0,123592,123592
291.801,-3.91792e-08,0,123626,123626
291.851,-3.89475e-08,0,122838,122838
291.9,-3.87085e-08,0,122004,122004
291.95,-3.84608e-08,0,122634,122634
292.001,-3.8199e-08,0,121822,121822
292.05,-3.79288e-08,0,120994,120994
292.1,-3.76443e-08,0,120890,120890
292.15,-3.73428e-08,0,120788,120788
292.201,-3.70165e-08,0,120940,120940
292.25,-3.66711e-08,0,120962,120962
292.3,-3.62982e-08,0,120912,120912
292.351,-3.58879e-08,0,121922,121922
292.4,-3.54485e-08,0,121660,121660
292.45,-3.4971e-08,0,120832,120832
292.5,-3.44528e-08,0,120410,120410
292.551,-3.38835e-08,0,119944,119944
292.6,-3.32783e-08,0,119606,119606
292.65,-3.26281e-08,0,118936,118936
292.701,-3.19224e-08,0,118610,118610
292.751,-3.11828e-08,0,118188,118188
292.8,-3.04023e-08,0,117990,117990
292.85,-2.9585e-08,0,118120,118120
292.901,-2.87238e-08,0,118194,118194
292.95,-2.78503e-08,0,118298,118298
293,-2.6959e-08,0,118364,118364
293.05,-2.60564e-08,0,118074,118074
293.101,-2.5135e-08,0,118178,118178
293.15,-2.42264e-08,0,118112,118112
293.2,-2.33215e-08,0,118390,118390
293.251,-2.24111e-08,0,118420,118420
293.3,-2.15253e-08,0,118460,118460
293.35,-2.06551e-08,0,118316,118316
293.4,-1.98046e-08,0,118684,118684
293.451,-1.89663e-08,0,119640,119640
293.5,-1.8169e-08,0,120289,120289
293.55,-1.74043e-08,0,120901,120901
293.6,-1.66754e-08,0,121601,121601
293.651,-1.5975e-08,0,122159,122159
293.7,-1.53243e-08,0,122621,122621
293.75,-1.47132e-08,0,123197,123197
293.801,-1.41326e-08,0,123901,123901
293.85,-1.35972e-08,0,124567,124567
293.9,-1.30956e-08,0,125249,125249
293.95,-1.26246e-08,0,125803,125803
294.001,-1.21742e-08,0,126649,126649
294.05,-1.17537e-08,0,127467,127467
294.1,-1.13522e-08,0,128216,128216
294.151,-1.09597e-08,0,128994,128994
294.201,-1.05824e-08,0,129714,129714
294.25,-1.02091e-08,0,130310,130310
294.3,-9.83401e-09,0,130636,130636
294.351,-9.44551e-09,0,130602,130602
294.4,-9.04924e-09,0,130690,130690
294.45,-8.63497e-09,0,130662,130662
294.5,-8.19896e-09,0,130584,130584
294.551,-7.73115e-09,0,130654,130654
294.6,-7.24249e-09,0,130680,130680
294.65,-6.72425e-09,0,130674,130674
294.701,-6.16663e-09,0,130616,130616
294.75,-5.58556e-09,0,130498,130498
294.8,-4.97466e-09,0,130542,130542
294.85,-4.33694e-09,0,130592,130592
294.901,-3.66684e-09,0,130626,130626
294.95,-2.98896e-09,0,130582,130582
295,-2.29925e-09,0,130600,130600
295.051,-1.59296e-09,0,130580,130580
295.101,-8.95982e-10,0,130438,130438
295.15,-2.03134e-10,0,130006,130006
295.2,4.80934e-10,0,130422,130422
295.251,1.16182e-09,0,130670,130670
295.3,1.81616e-09,0,130388,130388
295.35,2.45043e-09,0,130070,130070
295.4,3.06096e-09,0,129986,129986
295.451,3.65214e-09,0,129962,129962
295.5,4.20232e-09,0,129904,129904
295.55,4.7155e-09,0,129848,129848
295.601,5.19357e-09,0,129758,129758
295.65,5.61861e-09,0,129748,129748
295.7,5.99516e-09,0,129728,129728
295.75,6.32215e-09,0,129682,129682
295.801,6.60369e-09,0,129552,129552
295.85,6.83307e-09,0,129590,129590
295.9,7.01668e-09,0,129626,129626
295.95,7.15717e-09,0,129316,129316
296.001,7.25857e-09,0,129344,129344
296.05,7.31525e-09,0,129298,129298
296.1,7.33989e-09,0,129410,129410
296.151,7.33e-09,0,129372,129372
296.2,7.29795e-09,0,129346,129346
296.25,7.24195e-09,0,129324,129324
296.3,7.16931e-09,0,129244,129244
296.351,7.08266e-09,0,129190,129190
296.4,6.9876e-09,0,129186,129186
296.45,6.88485e-09,0,129214,129214
296.501,6.77422e-09,0,129142,129142
296.551,6.65974e-09,0,129024,129024
296.6,6.5407e-09,0,128742,128742
296.65,6.41835e-09,0,128016,128016
296.701,6.29274e-09,0,127522,127522
296.75,6.16987e-09,0,127354,127354
296.8,6.05024e-09,0,127130,127130
296.85,5.93592e-09,0,127090,127090
296.901,5.82675e-09,0,127018,127018
296.95,5.72675e-09,0,127847,127847
297,5.63465e-09,0,128250,128250
297.051,5.5494e-09,0,126938,126938
297.1,5.47355e-09,0,126532,126532
297.15,5.40575e-09,0,126474,126474
297.2,5.3459e-09,0,126434,126434
297.251,5.29308e-09,0,125402,125402
297.3,5.24892e-09,0,123726,123726
297.35,5.21281e-09,0,123486,123486
297.401,5.18463e-09,0,123508,123508
297.451,5.16507e-09,0,123304,123304
297.5,5.15261e-09,0,122804,122804
297.55,5.14661e-09,0,122386,122386
297.601,5.14757e-09,0,121968,121968
297.65,5.15035e-09,0,121518,121518
297.7,5.15439e-09,0,120632,120632
297.75,5.15939e-09,0,120304,120304
297.801,5.16547e-09,0,119082,119082
297.85,5.17225e-09,0,118354,118354
297.9,5.17925e-09,0,117532,117532
297.951,5.18557e-09,0,116488,116488
298,5.18984e-09,0,116296,116296
298.05,5.19084e-09,0,115698,115698
298.1,5.18773e-09,0,115392,115392
298.151,5.18181e-09,0,115662,115662
298.2,5.1741e-09,0,115270,115270
298.25,5.16409e-09,0,115102,115102
298.3,5.15245e-09,0,114854,114854
298.351,5.14056e-09,0,114570,114570
298.4,5.13045e-09,0,114392,114392
298.45,5.1223e-09,0,114110,114110
298.501,5.11465e-09,0,113948,113948
298.55,5.10683e-09,0,113666,113666
298.6,5.09814e-09,0,113446,113446
298.65,5.0883e-09,0,113156,113156
298.701,5.07716e-09,0,113032,113032
298.75,5.06478e-09,0,112918,112918
298.8,5.0517e-09,0,112840,112840
298.851,5.03913e-09,0,112664,112664
298.901,5.0285e-09,0,112176,112176
298.95,5.02054e-09,0,112102,112102
299,5.01528e-09,0,112132,112132
299.051,5.0123e-09,0,111976,111976
299.1,5.01204e-09,0,111610,111610
299.15,5.01182e-09,0,111530,111530
299.2,5.0123e-09,0,110990,110990
299.251,5.01481e-09,0,110590,110590
299.3,5.01742e-09,0,111036,111036
299.35,5.01842e-09,0,111222,111222
299.401,5.01847e-09,0,111728,111728
299.45,5.0174e-09,0,112324,112324
299.5,5.01424e-09,0,112084,112084
299.55,5.0126e-09,0,111824,111824
299.601,5.009e-09,0,112160,112160
299.65,5.00412e-09,0,112392,112392
299.7,4.99761e-09,0,112764,112764
299.751,4.9897e-09,0,112832,112832
299.801,4.98083e-09,0,113774,113774
299.85,4.97068e-09,0,113982,113982
299.9,4.95944e-09,0,113982,113982
299.951,4.94646e-09,0,113972,113972
300,4.93245e-09,0,113940,113940
300.05,4.91744e-09,0,113904,113904
300.1,4.90111e-09,0,114048,114048
300.151,4.88311e-09,0,116404,116404
300.2,4.86419e-09,0,116766,116766
300.25,4.84387e-09,0,117022,117022
300.301,4.82229e-09,0,118210,118210
300.35,4.80007e-09,0,118438,118438
300.4,4.77659e-09,0,118716,118716
300.45,4.75215e-09,0,119122,119122
300.501,4.72611e-09,0,119238,119238
300.55,4.69906e-09,0,119238,119238
300.6,4.67057e-09,0,119230,119230
300.65,4.64057e-09,0,119214,119214
300.701,4.60889e-09,0,119214,119214
300.75,4.57663e-09,0,119178,119178
300.8,4.54334e-09,0,119184,119184
300.851,4.5086e-09,0,119176,119176
300.9,4.47356e-09,0,119168,119168
300.95,4.43785e-09,0,119148,119148
301,4.40158e-09,0,119152,119152
301.051,4.36426e-09,0,119138,119138
301.1,4.32719e-09,0,120390,120390
301.15,4.28948e-09,0,121556,121556
301.201,4.25091e-09,0,123140,123140
301.251,4.21259e-09,0,125370,125370
301.3,4.17397e-09,0,125560,125560
301.35,4.13515e-09,0,125580,125580
301.401,4.09558e-09,0,125502,125502
301.45,4.05645e-09,0,125430,125430
301.5,4.01721e-09,0,125398,125398
301.55,3.97788e-09,0,125384,125384
301.601,3.93782e-09,0,125310,125310
301.65,3.89814e-09,0,125374,125374
301.7,3.85823e-09,0,125322,125322
301.751,3.81753e-09,0,125270,125270
301.8,3.77725e-09,0,125250,125250
301.85,3.73687e-09,0,125224,125224
301.9,3.69631e-09,0,125194,125194
301.951,3.65481e-09,0,125196,125196
302,3.61344e-09,0,125244,125244
302.05,3.57158e-09,0,125162,125162
302.101,3.52871e-09,0,125188,125188
302.151,3.48608e-09,0,124916,124916
302.2,3.443e-09,0,123544,123544
302.25,3.39932e-09,0,122936,122936
302.301,3.35435e-09,0,122370,122370
302.35,3.30959e-09,0,121854,121854
302.4,3.26437e-09,0,120604,120604
302.45,3.21859e-09,0,119346,119346
302.501,3.17155e-09,0,117492,117492
302.55,3.12468e-09,0,115996,115996
302.6,3.07729e-09,0,114758,114758
302.651,3.02869e-09,0,113534,113534
302.7,2.98028e-09,0,112458,112458
302.75,2.9314e-09,0,111442,111442
302.8,2.88217e-09,0,110580,110580
302.851,2.83193e-09,0,109356,109356
302.9,2.78213e-09,0,107850,107850
302.95,2.73207e-09,0,106584,106584
303.001,2.68107e-09,0,104882,104882
303.051,2.63067e-09,0,102732,102732
303.1,2.58022e-09,0,100752,100752
303.15,2.52977e-09,0,99464,99464
303.201,2.47866e-09,0,98476,98476
303.25,2.42843e-09,0,97456,97456
303.3,2.37838e-09,0,97088,97088
303.35,2.32856e-09,0,96300,96300
303.401,2.27828e-09,0,95588,95588
303.45,2.22905e-09,0,94890,94890
303.5,2.18017e-09,0,94064,94064
303.551,2.13097e-09,0,93274,93274
303.6,2.08289e-09,0,92408,92408
303.65,2.03523e-09,0,91644,91644
303.7,1.98802e-09,0,90752,90752
303.751,1.94057e-09,0,90379,90379
303.8,1.89429e-09,0,90094,90094
303.85,1.84847e-09,0,89760,89760
303.9,1.80313e-09,0,88876,88876
303.951,1.7576e-09,0,87900,87900
304,1.71319e-09,0,87030,87030
304.05,1.66922e-09,0,86068,86068
304.101,1.62506e-09,0,85078,85078
304.15,1.58199e-09,0,84098,84098
304.2,1.53936e-09,0,83160,83160
304.25,1.49715e-09,0,82198,82198
304.301,1.45468e-09,0,81572,81572
304.35,1.41322e-09,0,80904,80904
304.4,1.37214e-09,0,80216,80216
304.451,1.33082e-09,0,79498,79498
304.501,1.29045e-09,0,78822,78822
304.55,1.2504e-09,0,78218,78218
304.6,1.21066e-09,0,77574,77574
304.651,1.17064e-09,0,76934,76934
304.7,1.13149e-09,0,76284,76284
304.75,1.0926e-09,0,75648,75648
304.8,1.05399e-09,0,74986,74986
304.851,1.01506e-09,0,74612,74612
304.9,9.76959e-10,0,73986,73986
304.95,9.39107e-10,0,73760,73760
