250,0,0,512,512
250.012,0,0,512,512
250.059,0,0,512,512
250.105,0,0,512,512
250.152,0,0,512,512
250.211,0,0,512,512
250.258,0,0,512,512
250.305,0,0,512,512
250.352,0,0,512,512
250.41,2.77556e-17,0,512,512
250.457,2.77556e-17,0,512,512
250.504,0,0,512,512
250.551,0,0,512,512
250.609,0,0,512,512
250.656,0,0,512,512
250.703,0,0,512,512
250.762,0,0,512,512
250.808,0,0,512,512
250.855,0,0,512,512
250.902,2.77556e-17,0,512,512
250.961,2.77556e-17,0,512,512
251.008,2.77556e-17,0,512,512
251.055,2.77556e-17,0,512,512
251.101,0,0,512,512
251.16,0,0,512,512
251.207,2.77556e-17,0,512,512
251.254,0,0,512,512
251.301,0,0,512,512
251.359,0,0,512,512
251.406,0,0,512,512
251.453,0,0,512,512
251.511,0,0,512,512
251.558,0,0,512,512
251.605,2.77556e-17,0,512,512
251.652,2.77556e-17,0,512,512
251.711,0,0,512,512
251.758,0,0,512,512
251.804,0,0,512,512
251.851,0,0,512,512
251.91,0,0,512,512
251.957,0,0,512,512
252.004,-2.77556e-17,0,512,512
252.05,-2.77556e-17,0,512,512
252.109,-2.77556e-17,0,512,512
252.156,0,0,512,512
252.203,0,0,512,512
252.261,0,0,512,512
252.308,0,0,512,512
252.355,2.77556e-17,0,512,512
252.402,2.77556e-17,0,512,512
252.461,0,0,512,512
252.507,0,0,512,512
252.554,0,0,512,512
252.601,0,0,512,512
252.66,0,0,512,512
252.707,0,0,512,512
252.754,0,0,512,512
252.8,0,0,512,512
252.859,2.77556e-17,0,512,512
252.906,0,0,512,512
252.953,0,0,512,512
253.011,0,0,512,512
253.058,0,0,512,512
253.105,0,0,512,512
253.152,0,0,512,512
253.21,0,0,512,512
253.257,0,0,512,512
253.304,2.77556e-17,0,512,512
253.351,2.77556e-17,0,512,512
253.41,0,0,512,512
253.457,0,0,512,512
253.503,0,0,512,512
253.55,2.77556e-17,0,512,512
253.609,2.77556e-17,0,512,512
253.656,2.77556e-17,0,512,512
253.703,2.77556e-17,0,512,512
253.761,0,0,512,512
253.808,0,0,512,512
253.855,0,0,512,512
253.902,-2.77556e-17,0,512,512
253.96,-2.77556e-17,0,512,512
254.007,0,0,512,512
254.054,0,0,512,512
254.101,-2.77556e-17,0,512,512
254.16,0,0,512,512
254.206,-2.77556e-17,0,512,512
254.253,0,0,512,512
254.3,0,0,512,512
254.359,0,0,512,512
254.406,0,0,512,512
254.452,0,0,512,512
254.511,-2.77556e-17,0,512,512
254.558,-2.77556e-17,0,512,512
254.605,-2.77556e-17,0,512,512
254.652,-2.77556e-17,0,512,512
254.71,-2.77556e-17,0,512,512
254.757,0,0,512,512
254.804,0,0,512,512
254.851,-2.77556e-17,0,512,512
254.909,-5.55112e-17,0,512,512
254.956,-2.77556e-17,0,512,512
255.003,-2.77556e-17,0,512,512
255.05,-2.77556e-17,0,512,512
255.109,-2.77556e-17,0,512,512
255.155,-2.77556e-17,0,512,512
255.202,-2.77556e-17,0,512,512
255.261,-2.77556e-17,0,512,512
255.308,-2.77556e-17,0,512,512
255.355,-2.77556e-17,0,512,512
255.402,-2.77556e-17,0,512,512
255.46,-2.77556e-17,0,512,512
255.507,-2.77556e-17,0,512,512
255.554,-2.77556e-17,0,512,512
255.601,0,0,512,512
255.659,0,0,512,512
255.706,0,0,512,512
255.753,0,0,512,512
255.812,0,0,512,512
255.859,0,0,512,512
255.905,2.77556e-17,0,512,512
255.952,0,0,512,512
256.011,0,0,512,512
256.058,0,0,512,512
256.105,0,0,512,512
256.151,0,0,512,512
256.21,0,0,512,512
256.257,2.77556e-17,0,512,512
256.304,2.77556e-17,0,512,512
256.351,0,0,512,512
256.409,0,0,512,512
256.456,0,0,512,512
256.503,0,0,512,512
256.562,0,0,512,512
256.608,0,0,512,512
256.655,-2.77556e-17,0,512,512
256.702,0,0,512,512
256.761,-2.77556e-17,0,512,512
256.808,0,0,512,512
256.854,-2.77556e-17,0,512,512
256.901,-2.77556e-17,0,512,512
256.96,-2.77556e-17,0,512,512
257.007,-2.77556e-17,0,512,512
257.054,0,0,512,512
257.101,-2.77556e-17,0,512,512
257.159,-2.77556e-17,0,512,512
257.206,0,0,512,512
257.253,0,0,512,512
257.311,0,0,512,512
257.358,2.77556e-17,0,512,512
257.405,2.77556e-17,0,512,512
257.452,0,0,512,512
257.511,0,0,512,512
257.557,0,0,512,512
257.604,0,0,512,512
257.651,0,0,512,512
257.71,-2.77556e-17,0,512,512
257.757,0,0,512,512
257.804,0,0,512,512
257.85,0,0,512,512
257.909,-2.77556e-17,0,512,512
257.956,-2.77556e-17,0,512,512
258.003,-2.77556e-17,0,512,512
258.061,0,0,512,512
258.108,0,0,512,512
258.155,0,0,512,512
258.202,0,0,512,512
258.261,0,0,512,512
258.307,-2.77556e-17,0,512,512
258.354,0,0,512,512
258.401,-2.77556e-17,0,512,512
258.46,-2.77556e-17,0,512,512
258.507,-2.77556e-17,0,512,512
258.553,-2.77556e-17,0,512,512
258.6,-2.77556e-17,0,512,512
258.659,-2.77556e-17,0,512,512
258.706,-5.55112e-17,0,512,512
258.753,-5.55112e-17,0,512,512
258.811,-5.55112e-17,0,512,512
258.858,-5.55112e-17,0,512,512
258.905,-2.77556e-17,0,512,512
258.952,0,0,512,512
259.01,0,0,512,512
259.057,-2.77556e-17,0,512,512
259.104,0,0,512,512
259.151,0,0,512,512
259.21,-2.77556e-17,0,512,512
259.256,-2.77556e-17,0,512,512
259.303,0,0,512,512
259.35,0,0,512,512
259.409,2.77556e-17,0,512,512
259.456,2.77556e-17,0,512,512
259.503,0,0,512,512
259.561,0,0,512,512
259.608,0,0,512,512
259.655,-2.77556e-17,0,512,512
259.702,-2.77556e-17,0,512,512
259.76,0,0,512,512
259.807,0,0,512,512
259.854,2.77556e-17,0,512,512
259.901,0,0,512,512
259.959,0,0,512,512
260.006,0,0,512,512
260.053,0,0,512,512
260.1,-2.77556e-17,0,512,512
260.159,-2.77556e-17,0,512,512
260.206,-2.77556e-17,0,512,512
260.252,-2.77556e-17,0,512,512
260.311,-2.77556e-17,0,512,512
260.358,-2.77556e-17,0,512,512
260.405,-2.77556e-17,0,512,512
260.452,-2.77556e-17,0,512,512
260.51,-2.77556e-17,0,512,512
260.557,-2.77556e-17,0,512,512
260.604,0,0,512,512
260.651,0,0,512,512
260.709,0,0,512,512
260.756,0,0,512,512
260.803,0,0,512,512
260.862,0,0,512,512
260.909,2.77556e-17,0,512,512
260.955,2.77556e-17,0,512,512
261.002,2.77556e-17,0,512,512
261.061,2.77556e-17,0,512,512
261.108,2.77556e-17,0,512,512
261.155,2.77556e-17,0,512,512
261.201,2.77556e-17,0,512,512
261.26,0,0,512,512
261.307,0,0,512,512
261.354,0,0,512,512
261.401,0,0,512,512
261.459,0,0,512,512
261.506,0,0,512,512
261.553,0,0,512,512
261.612,0,0,512,512
261.658,0,0,512,512
261.705,0,0,512,512
261.752,2.77556e-17,0,512,512
261.811,2.77556e-17,0,512,512
261.858,-2.77556e-17,0,512,512
261.905,0,0,512,512
261.951,0,0,512,512
262.01,0,0,512,512
262.057,0,0,512,512
262.104,0,0,512,512
262.151,0,0,512,512
262.209,0,0,512,512
262.256,2.77556e-17,0,512,512
262.303,2.77556e-17,0,512,512
262.361,0,0,512,512
262.408,0,0,512,512
262.455,0,0,512,512
262.502,0,0,512,512
262.561,0,0,512,512
262.608,2.77556e-17,0,512,512
262.654,2.77556e-17,0,512,512
262.701,2.77556e-17,0,512,512
262.76,2.77556e-17,0,512,512
262.807,0,0,512,512
262.854,0,0,512,512
262.9,2.77556e-17,0,512,512
262.959,0,0,512,512
263.006,0,0,512,512
263.053,0,0,512,512
263.111,0,0,512,512
263.158,0,0,512,512
263.205,0,0,512,512
263.252,0,0,512,512
263.311,0,0,512,512
263.357,2.77556e-17,0,512,512
263.404,2.77556e-17,0,512,512
263.451,2.77556e-17,0,512,512
263.51,0,0,512,512
263.557,0,0,512,512
263.603,0,0,512,512
263.65,0,0,512,512
263.709,-2.77556e-17,0,512,512
263.756,-2.77556e-17,0,512,512
263.803,-2.77556e-17,0,512,512
263.861,0,0,512,512
263.908,0,0,512,512
263.955,2.77556e-17,0,512,512
264.002,0,0,512,512
264.06,0,0,512,512
264.107,0,0,512,512
264.154,0,0,512,512
264.201,0,0,512,512
264.26,0,0,512,512
264.306,2.77556e-17,0,512,512
264.353,2.77556e-17,0,512,512
264.4,2.77556e-17,0,512,512
264.459,2.77556e-17,0,512,512
264.506,2.77556e-17,0,512,512
264.553,2.77556e-17,0,512,512
264.611,2.77556e-17,0,512,512
264.658,2.77556e-17,0,512,512
264.705,2.77556e-17,0,512,512
264.752,2.77556e-17,0,512,512
264.81,2.77556e-17,0,512,512
264.857,2.77556e-17,0,512,512
264.904,2.77556e-17,0,512,512
264.951,2.77556e-17,0,512,512
265.01,2.77556e-17,0,512,512
265.056,2.77556e-17,0,512,512
265.103,2.77556e-17,0,512,512
265.15,2.77556e-17,0,512,512
265.209,2.77556e-17,0,512,512
265.256,2.77556e-17,0,512,512
265.302,2.77556e-17,0,512,512
265.361,5.55112e-17,0,512,512
265.408,5.55112e-17,0,512,512
265.455,5.55112e-17,0,512,512
265.502,5.55112e-17,0,512,512
265.56,2.77556e-17,0,512,512
265.607,2.77556e-17,0,512,512
265.654,2.77556e-17,0,512,512
265.701,2.77556e-17,0,512,512
265.759,2.77556e-17,0,512,512
265.806,2.77556e-17,0,512,512
265.853,2.77556e-17,0,512,512
265.9,2.77556e-17,0,512,512
265.959,2.77556e-17,0,512,512
266.005,2.77556e-17,0,512,512
266.052,2.77556e-17,0,512,512
266.111,0,0,512,512
266.158,2.77556e-17,0,512,512
266.205,0,0,512,512
266.252,2.77556e-17,0,512,512
266.31,2.77556e-17,0,512,512
266.357,2.77556e-17,0,512,512
266.404,2.77556e-17,0,512,512
266.451,2.77556e-17,0,512,512
266.509,0,0,512,512
266.556,0,0,512,512
266.603,-2.77556e-17,0,512,512
266.662,-2.77556e-17,0,512,512
266.708,-2.77556e-17,0,512,512
266.755,0,0,512,512
266.802,-2.77556e-17,0,512,512
266.861,-2.77556e-17,0,512,512
266.908,-2.77556e-17,0,512,512
266.955,-2.77556e-17,0,512,512
267.001,-2.77556e-17,0,512,512
267.06,-2.77556e-17,0,512,512
267.107,-2.77556e-17,0,512,512
267.154,-2.77556e-17,0,512,512
267.201,-2.77556e-17,0,512,512
267.259,-2.77556e-17,0,512,512
267.306,-2.77556e-17,0,512,512
267.353,-2.77556e-17,0,512,512
267.412,-2.77556e-17,0,512,512
267.458,-2.77556e-17,0,512,512
267.505,-2.77556e-17,0,512,512
267.552,0,0,512,512
267.611,2.77556e-17,0,512,512
267.658,2.77556e-17,0,512,512
267.704,2.77556e-17,0,512,512
267.751,2.77556e-17,0,512,512
267.81,2.77556e-17,0,512,512
267.857,2.77556e-17,0,512,512
267.904,2.77556e-17,0,512,512
267.95,2.77556e-17,0,512,512
268.009,2.77556e-17,0,512,512
268.056,2.77556e-17,0,512,512
268.105,2.77556e-17,0,537,537
268.152,2.77556e-17,0,549,549
268.205,2.77556e-17,0,567,567
268.252,2.77556e-17,0,579,579
268.304,2.77556e-17,0,591,591
268.351,2.77556e-17,0,603,603
268.404,2.77556e-17,0,615,615
268.451,2.77556e-17,0,627,627
268.504,2.77556e-17,0,639,639
268.55,2.77556e-17,0,651,651
268.603,2.77556e-17,0,663,663
268.65,2.77556e-17,0,675,675
268.703,2.77556e-17,0,687,687
268.756,2.77556e-17,0,699,699
268.802,2.77556e-17,0,711,711
268.855,2.77556e-17,0,723,723
268.902,2.77556e-17,0,735,735
268.955,2.77556e-17,0,747,747
269.002,2.77556e-17,0,753,753
269.054,2.77556e-17,0,765,765
269.101,2.77556e-17,0,777,777
269.154,2.77556e-17,0,789,789
269.201,2.77556e-17,0,801,801
269.254,2.77556e-17,0,813,813
269.3,2.77556e-17,0,825,825
269.353,2.77556e-17,0,837,837
269.406,2.77556e-17,0,843,843
269.453,2.77556e-17,0,855,855
269.505,2.77556e-17,0,861,861
269.552,2.77556e-17,0,873,873
269.605,2.77556e-17,0,885,885
269.652,2.77556e-17,0,897,897
269.705,2.77556e-17,0,909,909
269.751,2.77556e-17,0,915,915
269.804,2.77556e-17,0,927,927
269.851,2.77556e-17,0,939,939
269.904,2.77556e-17,0,951,951
269.951,2.77556e-17,0,963,963
270.003,2.77556e-17,0,975,975
270.05,2.77556e-17,0,987,987
270.103,2.77556e-17,0,999,999
270.156,2.77556e-17,0,1011,1011
270.203,2.77556e-17,0,1023,1023
270.255,2.77556e-17,0,1035,1035
270.302,2.77556e-17,0,1041,1041
270.355,2.77556e-17,0,1053,1053
270.402,2.77556e-17,0,1065,1065
270.455,5.55112e-17,0,1077,1077
270.501,1.94289e-16,0,1089,1089
270.554,4.44089e-16,0,1095,1095
270.601,7.49401e-16,0,1107,1107
270.654,1.4988e-15,0,1119,1119
270.701,2.35922e-15,0,1131,1131
270.753,2.13718e-15,0,1143,1143
270.8,-2.55351e-15,0,1149,1149
270.853,-2.07057e-14,0,1161,1161
270.906,-6.62248e-14,0,1173,1173
270.952,-2.95236e-13,0,1185,1185
271.005,-2.22358e-12,0,1191,1191
271.052,-8.77021e-12,0,1203,1203
271.105,-2.92339e-11,0,1215,1215
271.152,-6.60606e-11,0,1221,1221
271.204,-1.27843e-10,0,1233,1233
271.251,-1.8546e-10,0,1245,1245
271.304,-2.21374e-10,0,1257,1257
271.351,-2.04265e-10,0,1263,1263
271.404,-1.28883e-10,0,1275,1275
271.45,-3.81849e-11,0,1281,1281
271.503,4.61237e-11,0,1293,1293
271.55,8.00022e-11,0,1305,1305
271.603,7.53026e-11,0,1317,1317
271.655,5.70556e-11,0,1323,1323
271.702,5.61688e-11,0,1335,1335
271.755,7.87833e-11,0,1341,1341
271.802,1.04279e-10,0,1353,1353
271.855,1.15831e-10,0,1365,1365
271.902,1.05127e-10,0,1371,1371
271.954,8.4247e-11,0,1383,1383
272.001,7.65651e-11,0,1389,1389
272.054,8.96283e-11,0,1401,1401
272.101,1.11792e-10,0,1413,1413
272.153,1.28431e-10,0,1419,1419
272.2,1.24562e-10,0,1431,1431
272.253,1.03562e-10,0,1437,1437
272.306,8.47188e-11,0,1449,1449
272.353,8.60119e-11,0,1455,1455
272.405,1.10001e-10,0,1467,1467
272.452,1.35724e-10,0,1473,1473
272.505,1.42729e-10,0,1485,1485
272.552,1.19131e-10,0,1497,1497
272.605,7.93625e-11,0,1503,1503
272.651,6.86624e-11,0,1515,1515
272.704,1.08533e-10,0,1521,1521
272.751,1.63528e-10,0,1533,1533
272.804,1.78252e-10,0,1539,1539
272.851,1.34146e-10,0,1551,1551
272.903,1.66319e-10,0,1557,1557
272.95,5.61747e-10,0,1563,1563
273.003,1.85359e-09,0,1575,1575
273.056,4.37136e-09,0,1587,1587
273.103,7.64584e-09,0,1593,1593
273.155,1.21571e-08,0,1605,1605
273.202,1.64432e-08,0,1611,1611
273.255,2.10809e-08,0,1623,1623
273.302,2.48451e-08,0,1629,1629
273.354,2.88369e-08,0,1635,1635
273.401,3.26029e-08,0,1647,1647
273.454,3.7763e-08,0,1653,1653
273.501,4.37141e-08,0,1665,1665
273.554,5.2408e-08,0,1671,1671
273.601,6.21862e-08,0,1683,1683
273.653,7.58214e-08,0,1689,1689
273.7,9.07011e-08,0,1701,1701
273.753,1.11237e-07,0,1707,1707
273.806,1.36618e-07,0,1719,1719
273.852,1.63811e-07,0,1725,1725
273.905,1.99846e-07,0,1731,1731
273.952,2.36478e-07,0,1743,1743
274.005,2.82168e-07,0,1749,1749
274.052,3.26048e-07,0,1761,1761
274.104,3.78419e-07,0,1767,1767
274.151,4.27292e-07,0,1779,1779
274.204,4.84507e-07,0,1785,1785
274.251,5.36712e-07,0,1791,1791
274.304,5.95537e-07,0,1803,1803
274.35,6.46127e-07,0,1809,1809
274.403,6.98738e-07,0,1821,1821
274.456,7.44504e-07,0,1827,1827
274.503,7.78128e-07,0,1833,1833
274.555,8.07508e-07,0,1845,1845
274.602,8.26435e-07,0,1851,1851
274.655,8.40604e-07,0,1863,1863
274.702,8.47845e-07,0,1869,1869
274.755,8.50919e-07,0,1881,1881
274.802,8.49586e-07,0,1887,1887
274.854,8.43536e-07,0,1893,1893
274.901,8.33771e-07,0,1905,1905
274.954,8.17196e-07,0,1911,1911
275.001,7.96908e-07,0,1917,1917
275.053,7.67388e-07,0,1929,1929
275.1,7.35224e-07,0,1935,1935
275.153,6.93061e-07,0,1947,1947
275.206,6.46e-07,0,1953,1953
275.253,6.01651e-07,0,1959,1959
275.305,5.5084e-07,0,1965,1965
275.352,5.06308e-07,0,1977,1977
275.405,4.58171e-07,0,1983,1983
275.452,4.17748e-07,0,1989,1989
275.505,3.75188e-07,0,1995,1995
275.551,3.39877e-07,0,2001,2001
275.604,3.02758e-07,0,2013,2013
275.651,2.71932e-07,0,2019,2019
275.704,2.3974e-07,0,2025,2025
275.751,2.13597e-07,0,2031,2031
275.803,1.87386e-07,0,2037,2037
275.85,1.67151e-07,0,2048,2048
275.903,1.4767e-07,0,2048,2048
275.956,1.31002e-07,0,2048,2048
276.003,1.17809e-07,0,2048,2048
276.055,1.04137e-07,0,2048,2048
276.102,9.2833e-08,0,2048,2048
276.155,8.12568e-08,0,2048,2048
276.202,7.22783e-08,0,2048,2048
276.254,6.3857e-08,0,2048,2048
276.301,5.77552e-08,0,2048,2048
276.354,5.19986e-08,0,2048,2048
276.401,4.73675e-08,0,2048,2048
276.454,4.2254e-08,0,2048,2048
276.5,3.76931e-08,0,2048,2048
276.553,3.27794e-08,0,2048,2048
276.6,2.89676e-08,0,2048,2048
276.653,2.56684e-08,0,2048,2048
276.706,2.35422e-08,0,2048,2048
276.752,2.25122e-08,0,2048,2048
276.805,2.20276e-08,0,2048,2048
276.852,2.19386e-08,0,2048,2048
276.905,2.20018e-08,0,2048,2048
276.952,2.2094e-08,0,2048,2048
277.004,2.21721e-08,0,2048,2048
277.051,2.21845e-08,0,2048,2048
277.104,2.21089e-08,0,2048,2048
277.151,2.19592e-08,0,2048,2048
277.203,2.17243e-08,0,2048,2048
277.25,2.14949e-08,0,2048,2048
277.303,2.12551e-08,0,2048,2048
277.356,2.10559e-08,0,2048,2048
277.403,2.09104e-08,0,2048,2048
277.455,2.07658e-08,0,2048,2048
277.502,2.06385e-08,0,2048,2048
277.555,2.04816e-08,0,2048,2048
277.602,2.03217e-08,0,2048,2048
277.655,2.01128e-08,0,2048,2048
277.701,1.98986e-08,0,2048,2048
277.754,1.96238e-08,0,2048,2048
277.801,1.93488e-08,0,2048,2048
277.854,1.90053e-08,0,2048,2048
277.901,1.86704e-08,0,2048,2048
277.953,1.82625e-08,0,2048,2048
278,1.78746e-08,0,2048,2048
278.053,1.74132e-08,0,2048,2048
278.106,1.69293e-08,0,2048,2048
278.153,1.6484e-08,0,2048,2048
278.205,1.59699e-08,0,2048,2048
278.252,1.55049e-08,0,2048,2048
278.305,1.49766e-08,0,2048,2048
278.352,1.45055e-08,0,2048,2048
278.404,1.39778e-08,0,2048,2048
278.451,1.35137e-08,0,2048,2048
278.504,1.3001e-08,0,2048,2048
278.551,1.25567e-08,0,2048,2048
278.604,1.20734e-08,0,2048,2048
278.651,1.16615e-08,0,2048,2048
278.703,1.1221e-08,0,2048,2048
278.75,1.0852e-08,0,2048,2048
278.803,1.04641e-08,0,2048,2048
278.856,1.01065e-08,0,2048,2048
278.902,9.81448e-09,0,2048,2048
278.955,9.51488e-09,0,2048,2048
279.002,9.27377e-09,0,2048,2048
279.055,9.02983e-09,0,2048,2048
279.102,8.83614e-09,0,2048,2048
279.154,8.64275e-09,0,2048,2048
279.201,8.49123e-09,0,2048,2048
279.254,8.34193e-09,0,2048,2048
279.301,8.22651e-09,0,2048,2048
279.354,8.11429e-09,0,2048,2048
279.4,8.02869e-09,0,2048,2048
279.453,7.94662e-09,0,2048,2048
279.5,7.88498e-09,0,2048,2048
279.553,7.82693e-09,0,2048,2048
279.605,7.77949e-09,0,2048,2048
279.652,7.74523e-09,0,2048,2048
279.705,7.71454e-09,0,2048,2048
279.752,7.69346e-09,0,2048,2048
279.805,7.67587e-09,0,2048,2048
279.852,7.66503e-09,0,2048,2048
279.904,7.6576e-09,0,2048,2048
279.951,7.65475e-09,0,2048,2048
280.004,7.65532e-09,0,2048,2048
280.051,7.65881e-09,0,2048,2048
280.103,7.66572e-09,0,2048,2048
280.15,7.67417e-09,0,2048,2048
280.203,7.68586e-09,0,2048,2048
280.256,7.69942e-09,0,2048,2048
280.303,7.71268e-09,0,2048,2048
280.355,7.72858e-09,0,2048,2048
280.402,7.74334e-09,0,2048,2048
280.455,7.76037e-09,0,2048,2048
280.502,7.77576e-09,0,2048,2048
280.555,7.7932e-09,0,2048,2048
280.601,7.80877e-09,0,2048,2048
280.654,7.8263e-09,0,2048,2048
280.701,7.84187e-09,0,2048,2048
280.754,7.85935e-09,0,2048,2048
280.801,7.87483e-09,0,2048,2048
280.853,7.89215e-09,0,2048,2048
280.9,7.90743e-09,0,2048,2048
280.953,7.92444e-09,0,2048,2048
281.006,7.94123e-09,0,2048,2048
281.053,7.95593e-09,0,2048,2048
281.105,7.97217e-09,0,2048,2048
281.152,7.98631e-09,0,2048,2048
281.205,8.00186e-09,0,2048,2048
281.252,8.01536e-09,0,2048,2048
281.304,8.03017e-09,0,2048,2048
281.351,8.04304e-09,0,2048,2048
281.404,8.05726e-09,0,2048,2048
281.451,8.06983e-09,0,2048,2048
281.504,8.08415e-09,0,2048,2048
281.551,8.09742e-09,0,2048,2048
281.603,8.11359e-09,0,2048,2048
281.65,8.12981e-09,0,2048,2048
281.703,8.1513e-09,0,2048,2048
281.756,8.17778e-09,0,2048,2048
281.802,8.20708e-09,0,2048,2048
281.855,8.24862e-09,0,2048,2048
281.902,8.29519e-09,0,2048,2048
281.955,8.3611e-09,0,2048,2048
282.002,8.43417e-09,0,2048,2048
282.054,8.53586e-09,0,2048,2048
282.101,8.64659e-09,0,2048,2048
282.154,8.79797e-09,0,2048,2048
282.201,8.96021e-09,0,2048,2048
282.254,9.17907e-09,0,2048,2048
282.3,9.41114e-09,0,2048,2048
282.353,9.72158e-09,0,2048,2048
282.406,1.00932e-08,0,2048,2048
282.453,1.04835e-08,0,2048,2048
282.505,1.10011e-08,0,2048,2048
282.552,1.15414e-08,0,2048,2048
282.605,1.22529e-08,0,2048,2048
282.652,1.29893e-08,0,2048,2048
282.705,1.39493e-08,0,2048,2048
282.752,1.49319e-08,0,2048,2048
282.804,1.61964e-08,0,2048,2048
282.851,1.74729e-08,0,2048,2048
282.904,1.90917e-08,0,2048,2048
282.951,2.07011e-08,0,2048,2048
283.003,2.27103e-08,0,2048,2048
283.05,2.46766e-08,0,2048,2048
283.103,2.70932e-08,0,2048,2048
283.156,2.97259e-08,0,2048,2048
283.203,3.22452e-08,0,2048,2048
283.255,3.52773e-08,0,2048,2048
283.302,3.81451e-08,0,2048,2048
283.355,4.15623e-08,0,2048,2048
283.402,4.47685e-08,0,2048,2048
283.455,4.85662e-08,0,2048,2048
283.501,5.21152e-08,0,2048,2048
283.554,5.63101e-08,0,2048,2048
283.601,6.02279e-08,0,2048,2048
283.654,6.4861e-08,0,2048,2048
283.701,6.91932e-08,0,2048,2048
283.753,7.43251e-08,0,2048,2048
283.8,7.91333e-08,0,2048,2048
283.853,8.48437e-08,0,2048,2048
283.906,9.09049e-08,0,2048,2048
283.953,9.66223e-08,0,2048,2048
284.005,1.03478e-07,0,2048,2048
284.052,1.1001e-07,0,2048,2048
284.105,1.17943e-07,0,2048,2048
284.152,1.25615e-07,0,2048,2048
284.204,1.35089e-07,0,2048,2048
284.251,1.44404e-07,0,2048,2048
284.304,1.56083e-07,0,2048,2048
284.351,1.67708e-07,0,2048,2048
284.404,1.82405e-07,0,2048,2048
284.45,1.97089e-07,0,2048,2048
284.503,2.15632e-07,0,2048,2048
284.55,2.34054e-07,0,2048,2048
284.603,2.57084e-07,0,2048,2048
284.656,2.82617e-07,0,2048,2048
284.702,3.07399e-07,0,2048,2048
284.755,3.37525e-07,0,2048,2048
284.802,3.6613e-07,0,2048,2048
284.855,4.00073e-07,0,2048,2048
284.902,4.31477e-07,0,2048,2048
284.954,4.67713e-07,0,2048,2048
285.001,5.00251e-07,0,2048,2048
285.054,5.36602e-07,0,2048,2048
285.101,5.68121e-07,0,2048,2048
285.154,6.02006e-07,0,2048,2048
285.2,6.30146e-07,0,2048,2048
285.253,6.58931e-07,0,2048,2048
285.306,6.84047e-07,0,2048,2048
285.353,7.02827e-07,0,2048,2048
285.405,7.19533e-07,0,2048,2048
285.452,7.30161e-07,0,2048,2048
285.505,7.37121e-07,0,2048,2048
285.552,7.38741e-07,0,2048,2048
285.605,7.35369e-07,0,2048,2048
285.651,7.27785e-07,0,2048,2048
285.704,7.14209e-07,0,2048,2048
285.751,6.97831e-07,0,2048,2048
285.804,6.7483e-07,0,2048,2048
285.851,6.50619e-07,0,2048,2048
285.903,6.19561e-07,0,2048,2048
285.95,5.88969e-07,0,2048,2048
286.003,5.51728e-07,0,2048,2048
286.056,5.12106e-07,0,2048,2048
286.103,4.75422e-07,0,2048,2048
286.155,4.33118e-07,0,2048,2048
286.202,3.95112e-07,0,2048,2048
286.255,3.52481e-07,0,2048,2048
286.302,3.15159e-07,0,2048,2048
286.354,2.74302e-07,0,2048,2048
286.401,2.3935e-07,0,2048,2048
286.454,2.01915e-07,0,2048,2048
286.501,1.70555e-07,0,2048,2048
286.554,1.37636e-07,0,2048,2048
286.601,1.10592e-07,0,2048,2048
286.653,8.27342e-08,0,2048,2048
286.7,6.02683e-08,0,2048,2048
286.753,3.7546e-08,0,2048,2048
286.806,1.74489e-08,0,2048,2048
286.852,1.69607e-09,0,2048,2048
286.905,-1.37785e-08,0,2048,2048
286.952,-2.56586e-08,0,2048,2048
287.005,-3.70668e-08,0,2048,2048
287.052,-4.56013e-08,0,2048,2048
287.104,-5.35506e-08,0,2048,2048
287.151,-5.92769e-08,0,2048,2048
287.204,-6.43548e-08,0,2048,2048
287.251,-6.77713e-08,0,2048,2048
287.304,-7.05061e-08,0,2048,2048
287.35,-7.20512e-08,0,2048,2048
287.403,-7.29014e-08,0,2048,2048
287.45,-7.29547e-08,0,2048,2048
287.503,-7.23206e-08,0,2048,2048
287.555,-7.10485e-08,0,2048,2048
287.602,-6.94606e-08,0,2048,2048
287.655,-6.72453e-08,0,2048,2048
287.702,-6.49652e-08,0,2048,2048
287.755,-6.21291e-08,0,2048,2048
287.802,-5.94307e-08,0,2048,2048
287.854,-5.62647e-08,0,2048,2048
287.901,-5.33879e-08,0,2048,2048
287.954,-5.01365e-08,0,2048,2048
288.001,-4.72735e-08,0,2048,2048
288.053,-4.41226e-08,0,2048,2048
288.1,-4.14108e-08,0,2048,2048
288.153,-3.84844e-08,0,2048,2048
288.206,-3.57081e-08,0,2048,2048
288.253,-3.33766e-08,0,2048,2048
288.305,-3.09138e-08,0,2048,2048
288.352,-2.88694e-08,0,2048,2048
288.405,-2.6732e-08,0,2048,2048
288.452,-2.49746e-08,0,2048,2048
288.505,-2.31535e-08,0,2048,2048
288.551,-2.16687e-08,0,2048,2048
288.604,-2.01424e-08,0,2048,2048
288.651,-1.89078e-08,0,2048,2048
288.704,-1.76488e-08,0,2048,2048
288.751,-1.66386e-08,0,2048,2048
288.803,-1.5617e-08,0,2048,2048
288.85,-1.48043e-08,0,2048,2048
288.903,-1.39901e-08,0,2048,2048
288.956,-1.3274e-08,0,2048,2048
289.003,-1.27136e-08,0,2048,2048
289.055,-1.21623e-08,0,2048,2048
289.102,-1.17371e-08,0,2048,2048
289.155,-1.13257e-08,0,2048,2048
289.202,-1.10145e-08,0,2048,2048
289.254,-1.07205e-08,0,2048,2048
289.301,-1.05044e-08,0,2048,2048
289.354,-1.03072e-08,0,2048,2048
289.401,-1.01687e-08,0,2048,2048
289.454,-1.00495e-08,0,2048,2048
289.501,-9.97247e-09,0,2048,2048
289.553,-9.91399e-09,0,2048,2048
289.6,-9.88365e-09,0,2048,2048
289.653,-9.87007e-09,0,2048,2048
289.706,-9.87448e-09,0,2048,2048
289.752,-9.89061e-09,0,2048,2048
289.805,-9.91949e-09,0,2048,2048
289.852,-9.95243e-09,0,2048,2048
289.905,-9.99531e-09,0,2048,2048
289.952,-1.00369e-08,0,2048,2048
290.004,-1.00857e-08,0,2048,2048
290.051,-1.01299e-08,0,2048,2048
290.104,-1.01791e-08,0,2048,2048
290.151,-1.02218e-08,0,2048,2048
290.204,-1.02678e-08,0,2048,2048
290.25,-1.03066e-08,0,2048,2048
290.303,-1.03473e-08,0,2048,2048
290.356,-1.03847e-08,0,2048,2048
290.403,-1.04149e-08,0,2048,2048
290.455,-1.04454e-08,0,2048,2048
290.502,-1.04693e-08,0,2048,2048
290.555,-1.04925e-08,0,2048,2048
290.602,-1.05099e-08,0,2048,2048
290.655,-1.05258e-08,0,2048,2048
290.701,-1.0537e-08,0,2048,2048
290.754,-1.05464e-08,0,2048,2048
290.801,-1.05525e-08,0,2048,2048
290.854,-1.05575e-08,0,2048,2048
290.901,-1.05609e-08,0,2048,2048
290.953,-1.05649e-08,0,2048,2048
291,-1.05697e-08,0,2048,2048
291.053,-1.0578e-08,0,2048,2048
291.106,-1.05913e-08,0,2048,2048
291.153,-1.0609e-08,0,2048,2048
291.205,-1.06375e-08,0,2048,2048
291.252,-1.0672e-08,0,2048,2048
291.305,-1.07233e-08,0,2048,2048
291.352,-1.07815e-08,0,2048,2048
291.405,-1.08626e-08,0,2048,2048
291.451,-1.095e-08,0,2048,2048
291.504,-1.10665e-08,0,2048,2048
291.551,-1.11869e-08,0,2048,2048
291.604,-1.13419e-08,0,2048,2048
291.651,-1.14972e-08,0,2048,2048
291.703,-1.16915e-08,0,2048,2048
291.75,-1.18815e-08,0,2048,2048
291.803,-1.2114e-08,0,2048,2048
291.856,-1.23658e-08,0,2048,2048
291.902,-1.26051e-08,0,2048,2048
291.955,-1.28908e-08,0,2048,2048
292.002,-1.31587e-08,0,2048,2048
292.055,-1.34748e-08,0,2048,2048
292.102,-1.37678e-08,0,2048,2048
292.154,-1.411e-08,0,2048,2048
292.201,-1.44242e-08,0,2048,2048
292.254,-1.47878e-08,0,2048,2048
292.301,-1.51187e-08,0,2048,2048
292.354,-1.54982e-08,0,2048,2048
292.4,-1.58406e-08,0,2048,2048
292.453,-1.623e-08,0,2048,2048
292.5,-1.65784e-08,0,2048,2048
292.553,-1.69714e-08,0,2048,2048
292.606,-1.73636e-08,0,2048,2048
292.652,-1.77102e-08,0,2048,2048
292.705,-1.80962e-08,0,2048,2048
292.752,-1.84344e-08,0,2048,2048
292.805,-1.88079e-08,0,2048,2048
292.852,-1.91324e-08,0,2048,2048
292.904,-1.94873e-08,0,2048,2048
292.951,-1.97924e-08,0,2048,2048
293.004,-2.01227e-08,0,2048,2048
293.051,-2.04033e-08,0,2048,2048
293.103,-2.07031e-08,0,2048,2048
293.15,-2.09541e-08,0,2048,2048
293.203,-2.12178e-08,0,2048,2048
293.256,-2.14604e-08,0,2048,2048
293.303,-2.16574e-08,0,2048,2048
293.355,-2.18572e-08,0,2048,2048
293.402,-2.20147e-08,0,2048,2048
293.455,-2.21688e-08,0,2048,2048
293.502,-2.22849e-08,0,2048,2048
293.555,-2.23921e-08,0,2048,2048
293.601,-2.24666e-08,0,2048,2048
293.654,-2.25275e-08,0,2048,2048
293.701,-2.25619e-08,0,2048,2048
293.754,-2.2579e-08,0,2048,2048
293.801,-2.25761e-08,0,2048,2048
293.853,-2.25536e-08,0,2048,2048
293.9,-2.25176e-08,0,2048,2048
293.953,-2.24607e-08,0,2048,2048
294.006,-2.23879e-08,0,2048,2048
294.053,-2.23113e-08,0,2048,2048
294.105,-2.22133e-08,0,2048,2048
294.152,-2.2117e-08,0,2048,2048
294.205,-2.19999e-08,0,2048,2048
294.252,-2.18893e-08,0,2048,2048
294.304,-2.17588e-08,0,2048,2048
294.351,-2.16385e-08,0,2048,2048
294.404,-2.14996e-08,0,2048,2048
294.451,-2.13738e-08,0,2048,2048
294.504,-2.12308e-08,0,2048,2048
294.551,-2.11031e-08,0,2048,2048
294.603,-2.09596e-08,0,2048,2048
294.65,-2.08327e-08,0,2048,2048
294.703,-2.06914e-08,0,2048,2048
294.756,-2.05523e-08,0,2048,2048
294.802,-2.04308e-08,0,2048,2048
294.855,-2.02969e-08,0,2048,2048
294.902,-2.01808e-08,0,2048,2048
294.955,-2.00536e-08,0,2048,2048
295.002,-1.99438e-08,0,2048,2048
295.054,-1.9824e-08,0,2048,2048
295.101,-1.97209e-08,0,2048,2048
295.154,-1.96087e-08,0,2048,2048
295.201,-1.95125e-08,0,2048,2048
295.254,-1.9408e-08,0,2048,2048
295.3,-1.93183e-08,0,2048,2048
295.353,-1.9221e-08,0,2048,2048
295.4,-1.91374e-08,0,2048,2048
295.453,-1.90467e-08,0,2048,2048
295.505,-1.8959e-08,0,2048,2048
295.552,-1.88836e-08,0,2048,2048
295.605,-1.88013e-08,0,2048,2048
295.652,-1.87301e-08,0,2048,2048
295.705,-1.86521e-08,0,2048,2048
295.752,-1.85844e-08,0,2048,2048
295.804,-1.85099e-08,0,2048,2048
295.851,-1.84448e-08,0,2048,2048
295.904,-1.83728e-08,0,2048,2048
295.951,-1.83096e-08,0,2048,2048
296.003,-1.82392e-08,0,2048,2048
296.05,-1.81771e-08,0,2048,2048
296.103,-1.81075e-08,0,2048,2048
296.156,-1.80381e-08,0,2048,2048
296.203,-1.79763e-08,0,2048,2048
296.255,-1.79066e-08,0,2048,2048
296.302,-1.78443e-08,0,2048,2048
296.355,-1.77735e-08,0,2048,2048
296.402,-1.77099e-08,0,2048,2048
296.455,-1.76374e-08,0,2048,2048
296.501,-1.75719e-08,0,2048,2048
296.554,-1.74969e-08,0,2048,2048
296.601,-1.74289e-08,0,2048,2048
296.654,-1.73506e-08,0,2048,2048
296.701,-1.72793e-08,0,2048,2048
296.753,-1.7197e-08,0,2048,2048
296.8,-1.71217e-08,0,2048,2048
296.853,-1.70345e-08,0,2048,2048
296.906,-1.69442e-08,0,2048,2048
296.953,-1.68614e-08,0,2048,2048
297.005,-1.67649e-08,0,2048,2048
297.052,-1.66761e-08,0,2048,2048
297.105,-1.65725e-08,0,2048,2048
297.152,-1.6477e-08,0,2048,2048
297.204,-1.63654e-08,0,2048,2048
297.251,-1.62625e-08,0,2048,2048
297.304,-1.61422e-08,0,2048,2048
297.351,-1.60311e-08,0,2048,2048
297.404,-1.59013e-08,0,2048,2048
297.451,-1.57814e-08,0,2048,2048
297.503,-1.56414e-08,0,2048,2048
297.55,-1.55123e-08,0,2048,2048
297.603,-1.53614e-08,0,2048,2048
297.656,-1.52046e-08,0,2048,2048
297.702,-1.506e-08,0,2048,2048
297.755,-1.48913e-08,0,2048,2048
297.802,-1.47359e-08,0,2048,2048
297.855,-1.45546e-08,0,2048,2048
297.902,-1.43875e-08,0,2048,2048
297.954,-1.41925e-08,0,2048,2048
298.001,-1.40128e-08,0,2048,2048
298.054,-1.3803e-08,0,2048,2048
298.101,-1.36093e-08,0,2048,2048
298.154,-1.33829e-08,0,2048,2048
298.2,-1.31736e-08,0,2048,2048
298.253,-1.29284e-08,0,2048,2048
298.306,-1.26723e-08,0,2048,2048
298.353,-1.24348e-08,0,2048,2048
298.405,-1.21557e-08,0,2048,2048
298.452,-1.18964e-08,0,2048,2048
298.505,-1.15912e-08,0,2048,2048
298.552,-1.13073e-08,0,2048,2048
298.605,-1.09728e-08,0,2048,2048
298.652,-1.06614e-08,0,2048,2048
298.704,-1.02947e-08,0,2048,2048
298.751,-9.95371e-09,0,2048,2048
298.804,-9.55274e-09,0,2048,2048
298.851,-9.18075e-09,0,2048,2048
298.903,-8.74472e-09,0,2048,2048
298.95,-8.34176e-09,0,2048,2048
299.003,-7.87161e-09,0,2048,2048
299.056,-7.38446e-09,0,2048,2048
299.103,-6.9381e-09,0,2048,2048
299.155,-6.42228e-09,0,2048,2048
299.202,-5.95301e-09,0,2048,2048
299.255,-5.41485e-09,0,2048,2048
299.302,-4.92922e-09,0,2048,2048
299.355,-4.37706e-09,0,2048,2048
299.401,-3.88324e-09,0,2048,2048
299.454,-3.32701e-09,0,2048,2048
299.501,-2.83438e-09,0,2048,2048
299.554,-2.28505e-09,0,2048,2048
299.601,-1.80358e-09,0,2048,2048
299.653,-1.27248e-09,0,2048,2048
299.7,-8.12163e-10,0,2048,2048
299.753,-3.10247e-10,0,2048,2048
299.806,1.72114e-10,0,2048,2048
299.852,5.82386e-10,0,2048,2048
299.905,1.02104e-09,0,2048,2048
299.952,1.38901e-09,0,2048,2048
300.005,1.77675e-09,0,2048,2048
300.052,2.09701e-09,0,2048,2048
300.104,2.42891e-09,0,2048,2048
300.151,2.69814e-09,0,2048,2048
300.204,2.9717e-09,0,2048,2048
300.251,3.18879e-09,0,2048,2048
300.304,3.40395e-09,0,2048,2048
300.35,3.56985e-09,0,2048,2048
300.403,3.72879e-09,0,2048,2048
300.45,3.84634e-09,0,2048,2048
300.503,3.95313e-09,0,2048,2048
300.556,4.0345e-09,0,2048,2048
300.602,4.08688e-09,0,2048,2048
300.655,4.12505e-09,0,2048,2048
300.702,4.14206e-09,0,2048,2048
300.755,4.14397e-09,0,2048,2048
300.802,4.13196e-09,0,2048,2048
300.854,4.10488e-09,0,2048,2048
300.901,4.07034e-09,0,2048,2048
300.954,4.02153e-09,0,2048,2048
301.001,3.97079e-09,0,2048,2048
301.053,3.90715e-09,0,2048,2048
301.1,3.84614e-09,0,2048,2048
301.153,3.77405e-09,0,2048,2048
301.206,3.6998e-09,0,2048,2048
301.253,3.63318e-09,0,2048,2048
301.305,3.5587e-09,0,2048,2048
301.352,3.49384e-09,0,2048,2048
301.405,3.42329e-09,0,2048,2048
301.452,3.36338e-09,0,2048,2048
301.505,3.29974e-09,0,2048,2048
301.551,3.24688e-09,0,2048,2048
301.604,3.19185e-09,0,2048,2048
301.651,3.14695e-09,0,2048,2048
301.704,3.10086e-09,0,2048,2048
301.751,3.06361e-09,0,2048,2048
301.803,3.02546e-09,0,2048,2048
301.85,2.99441e-09,0,2048,2048
301.903,2.96203e-09,0,2048,2048
301.956,2.93151e-09,0,2048,2048
302.003,2.9052e-09,0,2048,2048
302.055,2.87564e-09,0,2048,2048
302.102,2.84863e-09,0,2048,2048
302.155,2.81658e-09,0,2048,2048
302.202,2.78593e-09,0,2048,2048
302.254,2.74835e-09,0,2048,2048
302.301,2.71171e-09,0,2048,2048
302.354,2.66643e-09,0,2048,2048
302.401,2.62237e-09,0,2048,2048
302.454,2.56843e-09,0,2048,2048
302.501,2.51669e-09,0,2048,2048
302.553,2.45451e-09,0,2048,2048
302.6,2.39607e-09,0,2048,2048
302.653,2.32738e-09,0,2048,2048
302.706,2.25636e-09,0,2048,2048
302.752,2.192e-09,0,2048,2048
302.805,2.11918e-09,0,2048,2048
302.852,2.0549e-09,0,2048,2048
302.905,1.98412e-09,0,2048,2048
302.952,1.92343e-09,0,2048,2048
303.004,1.85864e-09,0,2048,2048
303.051,1.80493e-09,0,2048,2048
303.104,1.74973e-09,0,2048,2048
303.151,1.70594e-09,0,2048,2048
303.204,1.66323e-09,0,2048,2048
303.25,1.63151e-09,0,2048,2048
303.303,1.6032e-09,0,2048,2048
303.35,1.58477e-09,0,2048,2048
303.403,1.57164e-09,0,2048,2048
303.455,1.56647e-09,0,2048,2048
303.502,1.56832e-09,0,2048,2048
303.555,1.57729e-09,0,2048,2048
303.602,1.59096e-09,0,2048,2048
303.655,1.61215e-09,0,2048,2048
303.702,1.63559e-09,0,2048,2048
303.754,1.66641e-09,0,2048,2048
303.801,1.69711e-09,0,2048,2048
303.854,1.73458e-09,0,2048,2048
303.901,1.76985e-09,0,2048,2048
303.953,1.81097e-09,0,2048,2048
304,1.84821e-09,0,2048,2048
304.053,1.89021e-09,0,2048,2048
304.106,1.93169e-09,0,2048,2048
304.153,1.96765e-09,0,2048,2048
304.205,2.00662e-09,0,2048,2048
304.252,2.03961e-09,0,2048,2048
304.305,2.07456e-09,0,2048,2048
304.352,2.10348e-09,0,2048,2048
304.405,2.13343e-09,0,2048,2048
304.451,2.15763e-09,0,2048,2048
304.504,2.18206e-09,0,2048,2048
304.551,2.20126e-09,0,2048,2048
304.604,2.22003e-09,0,2048,2048
304.651,2.23424e-09,0,2048,2048
304.703,2.24749e-09,0,2048,2048
304.75,2.25691e-09,0,2048,2048
304.803,2.26496e-09,0,2048,2048
304.856,2.27043e-09,0,2048,2048
304.903,2.27322e-09,0,2048,2048
304.955,2.27418e-09,0,2048,2048
