250,0,0,2048,2048
250.006,0,0,2048,2048
250.053,0,0,2048,2048
250.105,0,0,2048,2048
250.152,0,0,2048,2048
250.205,-2.77556e-17,0,2048,2048
250.252,0,0,2048,2048
250.305,-2.77556e-17,0,2048,2048
250.352,0,0,2048,2048
250.404,-2.77556e-17,0,2048,2048
250.451,0,0,2048,2048
250.504,0,0,2048,2048
250.551,-2.77556e-17,0,2048,2048
250.603,0,0,2048,2048
250.65,0,0,2048,2048
250.703,-2.77556e-17,0,2048,2048
250.756,0,0,2048,2048
250.803,-2.77556e-17,0,2048,2048
250.855,0,0,2048,2048
250.902,-2.77556e-17,0,2048,2048
250.955,-2.77556e-17,0,2048,2048
251.002,0,0,2048,2048
251.055,-2.77556e-17,0,2048,2048
251.101,-2.77556e-17,0,2048,2048
251.154,-2.77556e-17,0,2048,2048
251.201,0,0,2048,2048
251.254,0,0,2048,2048
251.301,-2.77556e-17,0,2048,2048
251.353,0,0,2048,2048
251.4,2.77556e-17,0,2048,2048
251.453,2.77556e-17,0,2048,2048
251.506,2.77556e-17,0,2048,2048
251.553,2.77556e-17,0,2048,2048
251.605,2.77556e-17,0,2048,2048
251.652,2.77556e-17,0,2048,2048
251.705,2.77556e-17,0,2048,2048
251.752,5.55112e-17,0,2048,2048
251.804,5.55112e-17,0,2048,2048
251.851,2.77556e-17,0,2048,2048
251.904,-2.77556e-17,0,2048,2048
251.951,-2.77556e-17,0,2048,2048
252.004,-2.77556e-17,0,2048,2048
252.05,-2.77556e-17,0,2048,2048
252.103,-2.77556e-17,0,2048,2048
252.15,-2.77556e-17,0,2048,2048
252.203,0,0,2048,2048
252.256,0,0,2048,2048
252.302,0,0,2048,2048
252.355,0,0,2048,2048
252.402,0,0,2048,2048
252.455,-2.77556e-17,0,2048,2048
252.502,0,0,2048,2048
252.554,0,0,2048,2048
252.601,0,0,2048,2048
252.654,0,0,2048,2048
252.701,0,0,2048,2048
252.754,0,0,2048,2048
252.8,0,0,2048,2048
252.853,0,0,2048,2048
252.906,-2.77556e-17,0,2048,2048
252.953,-2.77556e-17,0,2048,2048
253.005,-2.77556e-17,0,2048,2048
253.052,0,0,2048,2048
253.105,0,0,2048,2048
253.152,-2.77556e-17,0,2048,2048
253.205,-2.77556e-17,0,2048,2048
253.251,-2.77556e-17,0,2048,2048
253.304,0,0,2048,2048
253.351,0,0,2048,2048
253.404,0,0,2048,2048
253.451,-2.77556e-17,0,2048,2048
253.503,0,0,2048,2048
253.55,0,0,2048,2048
253.603,-2.77556e-17,0,2048,2048
253.656,-2.77556e-17,0,2048,2048
253.703,0,0,2048,2048
253.755,-2.77556e-17,0,2048,2048
253.802,2.77556e-17,0,2048,2048
253.855,2.77556e-17,0,2048,2048
253.902,2.77556e-17,0,2048,2048
253.954,8.32667e-17,0,2048,2048
254.001,5.55112e-17,0,2048,2048
254.054,2.77556e-17,0,2048,2048
254.101,2.77556e-17,0,2048,2048
254.154,5.55112e-17,0,2048,2048
254.201,5.55112e-17,0,2048,2048
254.253,5.55112e-17,0,2048,2048
254.3,2.77556e-17,0,2048,2048
254.353,5.55112e-17,0,2048,2048
254.406,2.77556e-17,0,2048,2048
254.452,2.77556e-17,0,2048,2048
254.505,2.77556e-17,0,2048,2048
254.552,2.77556e-17,0,2048,2048
254.605,2.77556e-17,0,2048,2048
254.652,2.77556e-17,0,2048,2048
254.704,0,0,2048,2048
254.751,0,0,2048,2048
254.804,0,0,2048,2048
254.851,0,0,2048,2048
254.904,2.77556e-17,0,2048,2048
254.95,-2.77556e-17,0,2048,2048
255.003,0,0,2048,2048
255.05,0,0,2048,2048
255.103,0,0,2048,2048
255.155,0,0,2048,2048
255.202,0,0,2048,2048
255.255,0,0,2048,2048
255.302,0,0,2048,2048
255.355,0,0,2048,2048
255.402,0,0,2048,2048
255.454,-5.55112e-17,0,2048,2048
255.501,-5.55112e-17,0,2048,2048
255.554,-2.77556e-17,0,2048,2048
255.601,-2.77556e-17,0,2048,2048
255.653,-2.77556e-17,0,2048,2048
255.7,-5.55112e-17,0,2048,2048
255.753,0,0,2048,2048
255.806,0,0,2048,2048
255.853,0,0,2048,2048
255.905,0,0,2048,2048
255.952,-2.77556e-17,0,2048,2048
256.005,-2.77556e-17,0,2048,2048
256.052,0,0,2048,2048
256.105,0,0,2048,2048
256.151,5.55112e-17,0,2048,2048
256.204,2.77556e-17,0,2048,2048
256.251,0,0,2048,2048
256.304,2.77556e-17,0,2048,2048
256.351,2.77556e-17,0,2048,2048
256.403,2.77556e-17,0,2048,2048
256.45,2.77556e-17,0,2048,2048
256.503,2.77556e-17,0,2048,2048
256.556,2.77556e-17,0,2048,2048
256.603,5.55112e-17,0,2048,2048
256.655,5.55112e-17,0,2048,2048
256.702,5.55112e-17,0,2048,2048
256.755,5.55112e-17,0,2048,2048
256.802,2.77556e-17,0,2048,2048
256.854,2.77556e-17,0,2048,2048
256.901,2.77556e-17,0,2048,2048
256.954,2.77556e-17,0,2048,2048
257.001,2.77556e-17,0,2048,2048
257.054,2.77556e-17,0,2048,2048
257.101,2.77556e-17,0,2048,2048
257.153,2.77556e-17,0,2048,2048
257.2,2.77556e-17,0,2048,2048
257.253,2.77556e-17,0,2048,2048
257.306,5.55112e-17,0,2048,2048
257.352,0,0,2048,2048
257.405,0,0,2048,2048
257.452,0,0,2048,2048
257.505,-2.77556e-17,0,2048,2048
257.552,-2.77556e-17,0,2048,2048
257.604,-2.77556e-17,0,2048,2048
257.651,0,0,2048,2048
257.704,-2.77556e-17,0,2048,2048
257.751,-2.77556e-17,0,2048,2048
257.804,-2.77556e-17,0,2048,2048
257.85,-5.55112e-17,0,2048,2048
257.903,-5.55112e-17,0,2048,2048
257.95,-5.55112e-17,0,2048,2048
258.003,-5.55112e-17,0,2048,2048
258.055,-2.77556e-17,0,2048,2048
258.102,-2.77556e-17,0,2048,2048
258.155,-2.77556e-17,0,2048,2048
258.202,-2.77556e-17,0,2048,2048
258.255,-2.77556e-17,0,2048,2048
258.302,-2.77556e-17,0,2048,2048
258.354,0,0,2048,2048
258.401,-2.77556e-17,0,2048,2048
258.454,0,0,2048,2048
258.501,0,0,2048,2048
258.553,0,0,2048,2048
258.6,0,0,2048,2048
258.653,2.77556e-17,0,2048,2048
258.706,0,0,2048,2048
258.753,0,0,2048,2048
258.805,-2.77556e-17,0,2048,2048
258.852,-2.77556e-17,0,2048,2048
258.905,-2.77556e-17,0,2048,2048
258.952,-2.77556e-17,0,2048,2048
259.005,-2.77556e-17,0,2048,2048
259.051,-2.77556e-17,0,2048,2048
259.104,-2.77556e-17,0,2048,2048
259.151,0,0,2048,2048
259.204,0,0,2048,2048
259.251,0,0,2048,2048
259.303,-5.55112e-17,0,2048,2048
259.35,-5.55112e-17,0,2048,2048
259.403,-2.77556e-17,0,2048,2048
259.456,-5.55112e-17,0,2048,2048
259.503,-2.77556e-17,0,2048,2048
259.555,-2.77556e-17,0,2048,2048
259.602,-2.77556e-17,0,2048,2048
259.655,-2.77556e-17,0,2048,2048
259.702,-5.55112e-17,0,2048,2048
259.754,-2.77556e-17,0,2048,2048
259.801,-5.55112e-17,0,2048,2048
259.854,-2.77556e-17,0,2048,2048
259.901,-2.77556e-17,0,2048,2048
259.954,-2.77556e-17,0,2048,2048
260,-2.77556e-17,0,2048,2048
260.053,-2.77556e-17,0,2048,2048
260.1,-2.77556e-17,0,2048,2048
260.153,-2.77556e-17,0,2048,2048
260.206,-2.77556e-17,0,2048,2048
260.252,0,0,2048,2048
260.305,0,0,2048,2048
260.352,0,0,2048,2048
260.405,0,0,2048,2048
260.452,2.77556e-17,0,2048,2048
260.504,2.77556e-17,0,2048,2048
260.551,2.77556e-17,0,2048,2048
260.604,0,0,2048,2048
260.651,0,0,2048,2048
260.704,0,0,2048,2048
260.75,-2.77556e-17,0,2048,2048
260.803,0,0,2048,2048
260.856,0,0,2048,2048
260.903,-2.77556e-17,0,2048,2048
260.955,0,0,2048,2048
261.002,2.77556e-17,0,2048,2048
261.055,2.77556e-17,0,2048,2048
261.102,2.77556e-17,0,2048,2048
261.155,2.77556e-17,0,2048,2048
261.201,2.77556e-17,0,2048,2048
261.254,2.77556e-17,0,2048,2048
261.301,2.77556e-17,0,2048,2048
261.354,2.77556e-17,0,2048,2048
261.401,0,0,2048,2048
261.453,0,0,2048,2048
261.5,0,0,2048,2048
261.553,2.77556e-17,0,2048,2048
261.606,5.55112e-17,0,2048,2048
261.653,2.77556e-17,0,2048,2048
261.705,5.55112e-17,0,2048,2048
261.752,5.55112e-17,0,2048,2048
261.805,5.55112e-17,0,2048,2048
261.852,5.55112e-17,0,2048,2048
261.905,5.55112e-17,0,2048,2048
261.951,5.55112e-17,0,2048,2048
262.004,2.77556e-17,0,2048,2048
262.051,5.55112e-17,0,2048,2048
262.104,5.55112e-17,0,2048,2048
262.151,0,0,2048,2048
262.203,0,0,2048,2048
262.25,0,0,2048,2048
262.303,2.77556e-17,0,2048,2048
262.356,2.77556e-17,0,2048,2048
262.402,2.77556e-17,0,2048,2048
262.455,0,0,2048,2048
262.502,0,0,2048,2048
262.555,0,0,2048,2048
262.602,0,0,2048,2048
262.654,0,0,2048,2048
262.701,2.77556e-17,0,2048,2048
262.754,0,0,2048,2048
262.801,0,0,2048,2048
262.854,-2.77556e-17,0,2048,2048
262.9,0,0,2048,2048
262.953,2.77556e-17,0,2048,2048
263,2.77556e-17,0,2048,2048
263.053,2.77556e-17,0,2048,2048
263.105,2.77556e-17,0,2048,2048
263.152,2.77556e-17,0,2048,2048
263.205,2.77556e-17,0,2048,2048
263.252,2.77556e-17,0,2048,2048
263.305,0,0,2048,2048
263.352,0,0,2048,2048
263.404,0,0,2048,2048
263.451,0,0,2048,2048
263.504,0,0,2048,2048
263.551,0,0,2048,2048
263.603,0,0,2048,2048
263.65,0,0,2048,2048
263.703,-2.77556e-17,0,2048,2048
263.756,0,0,2048,2048
263.803,-2.77556e-17,0,2048,2048
263.855,0,0,2048,2048
263.902,0,0,2048,2048
263.955,2.77556e-17,0,2048,2048
264.002,2.77556e-17,0,2048,2048
264.055,2.77556e-17,0,2048,2048
264.101,2.77556e-17,0,2048,2048
264.154,2.77556e-17,0,2048,2048
264.201,5.55112e-17,0,2048,2048
264.254,2.77556e-17,0,2048,2048
264.301,0,0,2048,2048
264.353,0,0,2048,2048
264.4,-2.77556e-17,0,2048,2048
264.453,0,0,2048,2048
264.506,2.77556e-17,0,2048,2048
264.553,2.77556e-17,0,2048,2048
264.605,2.77556e-17,0,2048,2048
264.652,8.32667e-17,0,2048,2048
264.705,8.32667e-17,0,2048,2048
264.752,2.77556e-17,0,2048,2048
264.804,5.55112e-17,0,2048,2048
264.851,2.77556e-17,0,2048,2048
264.904,0,0,2048,2048
264.951,0,0,2048,2048
265.004,0,0,2048,2048
265.051,0,0,2048,2048
265.103,-2.77556e-17,0,2048,2048
265.15,0,0,2048,2048
265.203,-2.77556e-17,0,2048,2048
265.256,0,0,2048,2048
265.302,2.77556e-17,0,2048,2048
265.355,0,0,2048,2048
265.402,-2.77556e-17,0,2048,2048
265.455,-2.77556e-17,0,2048,2048
265.502,-2.77556e-17,0,2048,2048
265.554,0,0,2048,2048
265.601,-2.77556e-17,0,2048,2048
265.654,-2.77556e-17,0,2048,2048
265.701,-5.55112e-17,0,2048,2048
265.754,-8.32667e-17,0,2048,2048
265.8,-5.55112e-17,0,2048,2048
265.853,-2.77556e-17,0,2048,2048
265.9,-2.77556e-17,0,2048,2048
265.953,-2.77556e-17,0,2048,2048
266.005,-2.77556e-17,0,2048,2048
266.052,-2.77556e-17,0,2048,2048
266.105,-2.77556e-17,0,2048,2048
266.152,-5.55112e-17,0,2048,2048
266.205,-5.55112e-17,0,2048,2048
266.252,-8.32667e-17,0,2048,2048
266.304,-5.55112e-17,0,2048,2048
266.351,-8.32667e-17,0,2048,2048
266.404,-8.32667e-17,0,2048,2048
266.451,-5.55112e-17,0,2048,2048
266.503,-2.77556e-17,0,2048,2048
266.55,0,0,2048,2048
266.603,0,0,2048,2048
266.656,-2.77556e-17,0,2048,2048
266.703,-2.77556e-17,0,2048,2048
266.755,-5.55112e-17,0,2048,2048
266.802,-5.55112e-17,0,2048,2048
266.855,-2.77556e-17,0,2048,2048
266.902,-5.55112e-17,0,2048,2048
266.955,-5.55112e-17,0,2048,2048
267.001,-5.55112e-17,0,2048,2048
267.054,-5.55112e-17,0,2048,2048
267.101,-8.32667e-17,0,2048,2048
267.154,-5.55112e-17,0,2048,2048
267.201,-5.55112e-17,0,2048,2048
267.253,-2.77556e-17,0,2048,2048
267.3,-2.77556e-17,0,2048,2048
267.353,0,0,2048,2048
267.406,-2.77556e-17,0,2048,2048
267.453,-2.77556e-17,0,2048,2048
267.505,-2.77556e-17,0,2048,2048
267.552,-2.77556e-17,0,2048,2048
267.605,-5.55112e-17,0,2048,2048
267.652,-5.55112e-17,0,2048,2048
267.704,-1.11022e-16,0,2048,2048
267.751,-5.55112e-17,0,2048,2048
267.804,-5.55112e-17,0,2048,2048
267.851,-5.55112e-17,0,2048,2048
267.904,-2.77556e-17,0,2048,2048
267.95,-5.55112e-17,0,2048,2048
268.003,-2.77556e-17,0,2048,2048
268.05,-2.77556e-17,0,2048,2048
268.101,-2.77556e-17,0,2098,2098
268.151,-2.77556e-17,0,2134,2134
268.201,-2.77556e-17,0,2158,2158
268.25,-2.77556e-17,0,2206,2206
268.3,-2.77556e-17,0,2242,2242
268.35,-2.77556e-17,0,2290,2290
268.403,-2.77556e-17,0,2338,2338
268.453,0,0,2374,2374
268.502,0,0,2422,2422
268.552,0,0,2470,2470
268.602,0,0,2506,2506
268.652,0,0,2554,2554
268.702,0,0,2590,2590
268.751,0,0,2638,2638
268.801,0,0,2686,2686
268.851,0,0,2722,2722
268.901,0,0,2770,2770
268.951,0,0,2806,2806
269,0,0,2854,2854
269.05,0,0,2890,2890
269.103,0,0,2938,2938
269.153,0,0,2986,2986
269.202,0,0,3022,3022
269.252,1.11022e-16,0,3070,3070
269.302,1.30451e-15,0,3118,3118
269.352,1.35725e-14,0,3154,3154
269.402,7.86871e-14,0,3202,3202
269.451,2.16827e-13,0,3238,3238
269.501,-1.69975e-13,0,3286,3286
269.551,-3.92933e-12,0,3322,3322
269.601,-1.73914e-11,0,3370,3370
269.651,-4.77008e-11,0,3418,3418
269.7,-1.33072e-10,0,3454,3454
269.75,-3.51909e-10,0,3502,3502
269.8,-4.41301e-10,0,3538,3538
269.853,-2.64718e-10,0,3586,3586
269.903,3.58831e-11,0,3634,3634
269.952,2.70016e-10,0,3670,3670
270.002,3.03879e-10,0,3718,3718
270.052,1.42949e-10,0,3754,3754
270.102,-6.34044e-11,0,3802,3802
270.152,-1.33344e-10,0,3838,3838
270.201,-9.56127e-12,0,3886,3886
270.251,1.89034e-10,0,3922,3922
270.301,2.81022e-10,0,3958,3958
270.351,1.9304e-10,0,4006,4006
270.401,2.05209e-11,0,4042,4042
270.45,-7.38448e-11,0,4090,4090
270.5,-1.36261e-11,0,4126,4126
270.553,1.43054e-10,0,4174,4174
270.603,2.41976e-10,0,4202,4202
270.652,2.20558e-10,0,4230,4230
270.702,1.11219e-10,0,4274,4274
270.752,3.74639e-12,0,4298,4298
270.802,-3.64205e-11,0,4310,4310
270.852,1.61139e-11,0,4326,4326
270.901,1.58689e-10,0,4370,4370
270.951,2.88267e-10,0,4398,4398
271.001,2.94022e-10,0,4434,4434
271.051,1.07452e-10,0,4478,4478
271.101,-1.64421e-10,0,4498,4498
271.15,-2.50116e-10,0,4506,4506
271.2,5.52171e-11,0,4514,4514
271.25,5.79618e-10,0,4538,4538
271.303,7.52929e-10,0,4578,4578
271.353,1.09072e-10,0,4614,4614
271.402,-9.31552e-10,0,4666,4666
271.452,-1.12342e-09,0,4746,4746
271.502,8.10996e-10,0,4814,4814
271.552,5.17618e-09,0,4850,4850
271.602,1.10841e-08,0,4890,4890
271.651,1.71291e-08,0,4942,4942
271.701,2.21885e-08,0,4990,4990
271.751,2.57613e-08,0,5018,5018
271.801,2.80122e-08,0,5054,5054
271.851,2.98256e-08,0,5090,5090
271.9,3.26332e-08,0,5126,5126
271.95,3.77587e-08,0,5166,5166
272.003,4.62208e-08,0,5210,5210
272.053,5.65934e-08,0,5262,5262
272.102,6.86694e-08,0,5334,5334
272.152,8.26042e-08,0,5398,5398
272.202,9.94608e-08,0,5434,5434
272.252,1.2068e-07,0,5470,5470
272.302,1.47494e-07,0,5506,5506
272.351,1.80604e-07,0,5542,5542
272.401,2.19893e-07,0,5578,5578
272.451,2.64069e-07,0,5614,5614
272.501,3.10954e-07,0,5650,5650
272.551,3.58762e-07,0,5686,5686
272.6,4.07435e-07,0,5710,5710
272.65,4.58518e-07,0,5746,5746
272.7,5.13311e-07,0,5782,5782
272.753,5.74291e-07,0,5818,5818
272.803,6.31154e-07,0,5854,5854
272.852,6.83152e-07,0,5890,5890
272.902,7.27142e-07,0,5926,5926
272.952,7.61421e-07,0,5962,5962
273.002,7.85689e-07,0,5986,5986
273.052,8.01075e-07,0,6022,6022
273.101,8.09753e-07,0,6058,6058
273.151,8.13949e-07,0,6086,6086
273.201,8.15041e-07,0,6098,6098
273.251,8.13378e-07,0,6094,6094
273.301,8.08605e-07,0,6122,6122
273.35,7.99942e-07,0,6158,6158
273.4,7.86362e-07,0,6206,6206
273.453,7.65442e-07,0,6270,6270
273.503,7.38557e-07,0,6322,6322
273.552,7.04213e-07,0,6358,6358
273.602,6.62745e-07,0,6394,6394
273.652,6.15815e-07,0,6430,6430
273.702,5.66161e-07,0,6454,6454
273.752,5.16599e-07,0,6490,6490
273.801,4.69138e-07,0,6526,6526
273.851,4.24844e-07,0,6550,6550
273.901,3.84081e-07,0,6586,6586
273.951,3.46701e-07,0,6622,6622
274.001,3.12206e-07,0,6638,6638
274.05,2.79963e-07,0,6682,6682
274.1,2.49401e-07,0,6718,6718
274.153,2.18515e-07,0,6754,6754
274.203,1.91024e-07,0,6790,6790
274.253,1.66321e-07,0,6814,6814
274.302,1.45944e-07,0,6850,6850
274.352,1.30545e-07,0,6886,6886
274.402,1.18889e-07,0,6910,6910
274.452,1.08385e-07,0,6930,6930
274.502,9.69325e-08,0,6966,6966
274.551,8.43664e-08,0,6990,6990
274.601,7.21843e-08,0,7010,7010
274.651,6.20852e-08,0,7030,7030
274.701,5.48204e-08,0,7046,7046
274.75,5.00801e-08,0,7066,7066
274.8,4.6895e-08,0,7074,7074
274.85,4.39721e-08,0,7094,7094
274.903,3.98038e-08,0,7114,7114
274.953,3.43596e-08,0,7142,7142
275.002,2.82264e-08,0,7158,7158
275.052,2.29567e-08,0,7194,7194
275.102,1.9753e-08,0,7218,7218
275.152,1.86807e-08,0,7254,7254
275.202,1.8886e-08,0,7290,7290
275.251,1.94068e-08,0,7314,7314
275.301,1.97515e-08,0,7350,7350
275.351,1.98959e-08,0,7374,7374
275.401,1.99794e-08,0,7410,7410
275.451,2.00849e-08,0,7446,7446
275.5,2.02052e-08,0,7470,7470
275.55,2.02698e-08,0,7506,7506
275.603,2.01093e-08,0,7530,7530
275.653,1.97099e-08,0,7566,7566
275.703,1.93404e-08,0,7598,7598
275.752,1.91786e-08,0,7618,7618
275.802,1.91571e-08,0,7646,7646
275.852,1.91804e-08,0,7662,7662
275.902,1.9212e-08,0,7698,7698
275.951,1.92447e-08,0,7710,7710
276.001,1.92777e-08,0,7738,7738
276.051,1.93108e-08,0,7774,7774
276.101,1.93439e-08,0,7802,7802
276.151,1.93771e-08,0,7830,7830
276.2,1.94104e-08,0,7866,7866
276.25,1.94437e-08,0,7898,7898
276.3,1.94771e-08,0,7922,7922
276.353,1.95125e-08,0,7974,7974
276.403,1.9546e-08,0,8010,8010
276.452,1.95796e-08,0,8080,8080
276.502,1.96133e-08,0,8088,8088
276.552,1.96469e-08,0,8088,8088
276.602,1.96806e-08,0,8096,8096
276.652,1.97142e-08,0,8096,8096
276.701,1.9748e-08,0,8112,8112
276.751,1.97819e-08,0,8104,8104
276.801,1.98158e-08,0,8096,8096
276.851,1.98497e-08,0,8096,8096
276.901,1.98837e-08,0,8092,8092
276.95,1.99178e-08,0,8050,8050
277,1.99519e-08,0,8010,8010
277.053,1.99882e-08,0,8036,8036
277.103,2.00226e-08,0,8052,8052
277.152,2.00571e-08,0,8076,8076
277.202,2.00917e-08,0,8100,8100
277.252,2.01265e-08,0,8124,8124
277.302,2.01614e-08,0,8144,8144
277.352,2.01964e-08,0,8168,8168
277.401,2.02316e-08,0,8184,8184
277.451,2.02668e-08,0,8192,8192
277.501,2.03023e-08,0,8192,8192
277.551,2.03378e-08,0,8192,8192
277.601,2.03735e-08,0,8192,8192
277.65,2.04093e-08,0,8192,8192
277.7,2.04453e-08,0,8192,8192
277.75,2.04814e-08,0,8192,8192
277.803,2.05198e-08,0,8192,8192
277.853,2.05561e-08,0,8192,8192
277.902,2.05925e-08,0,8192,8192
277.952,2.0629e-08,0,8192,8192
278.002,2.06655e-08,0,8192,8192
278.052,2.07017e-08,0,8192,8192
278.102,2.07372e-08,0,8192,8192
278.151,2.07718e-08,0,8192,8192
278.201,2.08047e-08,0,8192,8192
278.251,2.08357e-08,0,8192,8192
278.301,2.08645e-08,0,8192,8192
278.351,2.08908e-08,0,8192,8192
278.4,2.09146e-08,0,8192,8192
278.45,2.0936e-08,0,8192,8192
278.503,2.09557e-08,0,8192,8192
278.553,2.09711e-08,0,8192,8192
278.602,2.09828e-08,0,8192,8192
278.652,2.09897e-08,0,8192,8192
278.702,2.09906e-08,0,8192,8192
278.752,2.09841e-08,0,8192,8192
278.802,2.09683e-08,0,8192,8192
278.851,2.09412e-08,0,8192,8192
278.901,2.09003e-08,0,8192,8192
278.951,2.08431e-08,0,8192,8192
279.001,2.07667e-08,0,8192,8192
279.051,2.06682e-08,0,8192,8192
279.1,2.0545e-08,0,8192,8192
279.15,2.03947e-08,0,8192,8192
279.2,2.02153e-08,0,8192,8192
279.253,1.99916e-08,0,8192,8192
279.303,1.97472e-08,0,8192,8192
279.352,1.94698e-08,0,8192,8192
279.402,1.91592e-08,0,8192,8192
279.452,1.88163e-08,0,8192,8192
279.502,1.84427e-08,0,8192,8192
279.552,1.80413e-08,0,8192,8192
279.601,1.76156e-08,0,8192,8192
279.651,1.71698e-08,0,8192,8192
279.701,1.67081e-08,0,8192,8192
279.751,1.62346e-08,0,8192,8192
279.801,1.57531e-08,0,8192,8192
279.85,1.5267e-08,0,8192,8192
279.9,1.47794e-08,0,8192,8192
279.953,1.42647e-08,0,8192,8192
280.003,1.37833e-08,0,8192,8192
280.052,1.33097e-08,0,8192,8192
280.102,1.28471e-08,0,8192,8192
280.152,1.23991e-08,0,8192,8192
280.202,1.19692e-08,0,8192,8192
280.252,1.15606e-08,0,8192,8192
280.301,1.11761e-08,0,8192,8192
280.351,1.08177e-08,0,8192,8192
280.401,1.04866e-08,0,8192,8192
280.451,1.01831e-08,0,8192,8192
280.501,9.90692e-09,0,8192,8192
280.55,9.65704e-09,0,8192,8192
280.6,9.4322e-09,0,8192,8192
280.65,9.23094e-09,0,8192,8192
280.703,9.04187e-09,0,8192,8192
280.753,8.88443e-09,0,8192,8192
280.802,8.74596e-09,0,8192,8192
280.852,8.62488e-09,0,8192,8192
280.902,8.51951e-09,0,8192,8192
280.952,8.42814e-09,0,8192,8192
281.002,8.34909e-09,0,8192,8192
281.051,8.28085e-09,0,8192,8192
281.101,8.22213e-09,0,8192,8192
281.151,8.17189e-09,0,8192,8192
281.201,8.1293e-09,0,8192,8192
281.251,8.09358e-09,0,8192,8192
281.3,8.06396e-09,0,8192,8192
281.35,8.03967e-09,0,8192,8192
281.403,8.01892e-09,0,8192,8192
281.453,8.00335e-09,0,8192,8192
281.502,7.9912e-09,0,8192,8192
281.552,7.98215e-09,0,8192,8192
281.602,7.97601e-09,0,8192,8192
281.652,7.97257e-09,0,8192,8192
281.702,7.97158e-09,0,8192,8192
281.751,7.97267e-09,0,8192,8192
281.801,7.97541e-09,0,8192,8192
281.851,7.97935e-09,0,8192,8192
281.901,7.98406e-09,0,8192,8192
281.951,7.98923e-09,0,8192,8192
282,7.99461e-09,0,8192,8192
282.05,8.00009e-09,0,8192,8192
282.1,8.00558e-09,0,8192,8192
282.153,8.01142e-09,0,8192,8192
282.203,8.01696e-09,0,8192,8192
282.252,8.02257e-09,0,8192,8192
282.302,8.02827e-09,0,8192,8192
282.352,8.03408e-09,0,8192,8192
282.402,8.03998e-09,0,8192,8192
282.452,8.04596e-09,0,8192,8192
282.501,8.052e-09,0,8192,8192
282.551,8.05807e-09,0,8192,8192
282.601,8.06416e-09,0,8192,8192
282.651,8.07024e-09,0,8192,8192
282.7,8.07632e-09,0,8192,8192
282.75,8.08238e-09,0,8192,8192
282.8,8.0884e-09,0,8192,8192
282.853,8.09471e-09,0,8192,8192
282.903,8.10057e-09,0,8192,8192
282.952,8.10629e-09,0,8192,8192
283.002,8.11184e-09,0,8192,8192
283.052,8.11725e-09,0,8192,8192
283.102,8.12261e-09,0,8192,8192
283.152,8.1282e-09,0,8192,8192
283.201,8.13452e-09,0,8192,8192
283.251,8.14238e-09,0,8192,8192
283.301,8.15297e-09,0,8192,8192
283.351,8.16783e-09,0,8192,8192
283.401,8.18889e-09,0,8192,8192
283.45,8.21837e-09,0,8192,8192
283.5,8.25876e-09,0,8192,8192
283.553,8.31637e-09,0,8192,8192
283.603,8.38775e-09,0,8192,8192
283.653,8.47853e-09,0,8192,8192
283.702,8.59162e-09,0,8192,8192
283.752,8.73003e-09,0,8192,8192
283.802,8.89697e-09,0,8192,8192
283.852,9.09619e-09,0,8192,8192
283.901,9.33227e-09,0,8192,8192
283.951,9.61109e-09,0,8192,8192
284.001,9.9402e-09,0,8192,8192
284.051,1.03291e-08,0,8192,8192
284.101,1.07893e-08,0,8192,8192
284.15,1.13341e-08,0,8192,8192
284.2,1.19785e-08,0,8192,8192
284.25,1.27382e-08,0,8192,8192
284.303,1.36865e-08,0,8192,8192
284.353,1.47347e-08,0,8192,8192
284.402,1.59466e-08,0,8192,8192
284.452,1.73358e-08,0,8192,8192
284.502,1.89136e-08,0,8192,8192
284.552,2.0689e-08,0,8192,8192
284.602,2.26676e-08,0,8192,8192
284.651,2.48514e-08,0,8192,8192
284.701,2.72383e-08,0,8192,8192
284.751,2.98222e-08,0,8192,8192
284.801,3.25931e-08,0,8192,8192
284.851,3.55381e-08,0,8192,8192
284.9,3.86427e-08,0,8192,8192
284.95,4.18927e-08,0,8192,8192
285.003,4.54802e-08,0,8192,8192
285.053,4.90006e-08,0,8192,8192
285.102,5.26527e-08,0,8192,8192
285.152,5.64495e-08,0,8192,8192
285.202,6.04143e-08,0,8192,8192
285.252,6.45788e-08,0,8192,8192
285.302,6.89785e-08,0,8192,8192
285.351,7.36468e-08,0,8192,8192
285.401,7.86082e-08,0,8192,8192
285.451,8.38749e-08,0,8192,8192
285.501,8.94453e-08,0,8192,8192
285.551,9.53102e-08,0,8192,8192
285.6,1.01463e-07,0,8192,8192
285.65,1.07914e-07,0,8192,8192
285.7,1.14707e-07,0,8192,8192
285.753,1.2237e-07,0,8192,8192
285.803,1.30204e-07,0,8192,8192
285.852,1.38819e-07,0,8192,8192
285.902,1.48465e-07,0,8192,8192
285.952,1.59432e-07,0,8192,8192
286.002,1.72032e-07,0,8192,8192
286.052,1.86585e-07,0,8192,8192
286.101,2.03396e-07,0,8192,8192
286.151,2.22734e-07,0,8192,8192
286.201,2.44808e-07,0,8192,8192
286.251,2.69749e-07,0,8192,8192
286.301,2.97585e-07,0,8192,8192
286.35,3.28233e-07,0,8192,8192
286.4,3.61485e-07,0,8192,8192
286.453,3.99155e-07,0,8192,8192
286.503,4.36565e-07,0,8192,8192
286.552,4.75149e-07,0,8192,8192
286.602,5.14195e-07,0,8192,8192
286.652,5.52897e-07,0,8192,8192
286.702,5.90386e-07,0,8192,8192
286.752,6.25768e-07,0,8192,8192
286.801,6.58176e-07,0,8192,8192
286.851,6.86822e-07,0,8192,8192
286.901,7.11046e-07,0,8192,8192
286.951,7.30345e-07,0,8192,8192
287.001,7.44392e-07,0,8192,8192
287.05,7.53024e-07,0,8192,8192
287.1,7.56215e-07,0,8192,8192
287.15,7.5404e-07,0,8192,8192
287.203,7.4604e-07,0,8192,8192
287.253,7.33281e-07,0,8192,8192
287.302,7.15658e-07,0,8192,8192
287.352,6.93378e-07,0,8192,8192
287.402,6.66692e-07,0,8192,8192
287.452,6.35915e-07,0,8192,8192
287.502,6.01455e-07,0,8192,8192
287.551,5.63826e-07,0,8192,8192
287.601,5.23646e-07,0,8192,8192
287.651,4.81617e-07,0,8192,8192
287.701,4.3849e-07,0,8192,8192
287.751,3.95026e-07,0,8192,8192
287.8,3.51948e-07,0,8192,8192
287.85,3.09905e-07,0,8192,8192
287.903,2.67127e-07,0,8192,8192
287.953,2.28825e-07,0,8192,8192
288.002,1.92895e-07,0,8192,8192
288.052,1.59558e-07,0,8192,8192
288.102,1.28951e-07,0,8192,8192
288.152,1.01131e-07,0,8192,8192
288.202,7.60941e-08,0,8192,8192
288.251,5.3779e-08,0,8192,8192
288.301,3.40789e-08,0,8192,8192
288.351,1.68509e-08,0,8192,8192
288.401,1.92739e-09,0,8192,8192
288.451,-1.08723e-08,0,8192,8192
288.5,-2.17316e-08,0,8192,8192
288.55,-3.08292e-08,0,8192,8192
288.6,-3.83355e-08,0,8192,8192
288.653,-4.47271e-08,0,8192,8192
288.703,-4.9452e-08,0,8192,8192
288.752,-5.30458e-08,0,8192,8192
288.802,-5.56364e-08,0,8192,8192
288.852,-5.73365e-08,0,8192,8192
288.902,-5.8242e-08,0,8192,8192
288.952,-5.84317e-08,0,8192,8192
289.001,-5.79713e-08,0,8192,8192
289.051,-5.69184e-08,0,8192,8192
289.101,-5.53306e-08,0,8192,8192
289.151,-5.3271e-08,0,8192,8192
289.201,-5.08121e-08,0,8192,8192
289.25,-4.80364e-08,0,8192,8192
289.3,-4.50327e-08,0,8192,8192
289.353,-4.17043e-08,0,8192,8192
289.403,-3.85112e-08,0,8192,8192
289.452,-3.53476e-08,0,8192,8192
289.502,-3.22763e-08,0,8192,8192
289.552,-2.93456e-08,0,8192,8192
289.602,-2.65897e-08,0,8192,8192
289.652,-2.40304e-08,0,8192,8192
289.701,-2.16792e-08,0,8192,8192
289.751,-1.95405e-08,0,8192,8192
289.801,-1.76135e-08,0,8192,8192
289.851,-1.58941e-08,0,8192,8192
289.901,-1.43761e-08,0,8192,8192
289.95,-1.30517e-08,0,8192,8192
290,-1.19121e-08,0,8192,8192
290.053,-1.08956e-08,0,8192,8192
290.103,-1.01031e-08,0,8192,8192
290.153,-9.46081e-09,0,8192,8192
290.202,-8.95542e-09,0,8192,8192
290.252,-8.57312e-09,0,8192,8192
290.302,-8.3e-09,0,8192,8192
290.352,-8.12249e-09,0,8192,8192
290.402,-8.02762e-09,0,8192,8192
290.451,-8.00333e-09,0,8192,8192
290.501,-8.03857e-09,0,8192,8192
290.551,-8.12325e-09,0,8192,8192
290.601,-8.24819e-09,0,8192,8192
290.65,-8.40501e-09,0,8192,8192
290.7,-8.58599e-09,0,8192,8192
290.75,-8.78405e-09,0,8192,8192
290.803,-9.00517e-09,0,8192,8192
290.853,-9.21869e-09,0,8192,8192
290.902,-9.43157e-09,0,8192,8192
290.952,-9.63951e-09,0,8192,8192
291.002,-9.839e-09,0,8192,8192
291.052,-1.00273e-08,0,8192,8192
291.102,-1.02025e-08,0,8192,8192
291.151,-1.03632e-08,0,8192,8192
291.201,-1.05085e-08,0,8192,8192
291.251,-1.0638e-08,0,8192,8192
291.301,-1.07517e-08,0,8192,8192
291.351,-1.08496e-08,0,8192,8192
291.4,-1.09324e-08,0,8192,8192
291.45,-1.10007e-08,0,8192,8192
291.503,-1.10581e-08,0,8192,8192
291.553,-1.10995e-08,0,8192,8192
291.602,-1.11296e-08,0,8192,8192
291.652,-1.11497e-08,0,8192,8192
291.702,-1.11611e-08,0,8192,8192
291.752,-1.1165e-08,0,8192,8192
291.802,-1.11628e-08,0,8192,8192
291.851,-1.11555e-08,0,8192,8192
291.901,-1.11443e-08,0,8192,8192
291.951,-1.11304e-08,0,8192,8192
292.001,-1.11146e-08,0,8192,8192
292.051,-1.1098e-08,0,8192,8192
292.1,-1.10815e-08,0,8192,8192
292.15,-1.10658e-08,0,8192,8192
292.2,-1.10516e-08,0,8192,8192
292.253,-1.1039e-08,0,8192,8192
292.303,-1.103e-08,0,8192,8192
292.352,-1.10245e-08,0,8192,8192
292.402,-1.1023e-08,0,8192,8192
292.452,-1.1026e-08,0,8192,8192
292.502,-1.10341e-08,0,8192,8192
292.552,-1.10476e-08,0,8192,8192
292.601,-1.10669e-08,0,8192,8192
292.651,-1.10923e-08,0,8192,8192
292.701,-1.11239e-08,0,8192,8192
292.751,-1.11619e-08,0,8192,8192
292.801,-1.12062e-08,0,8192,8192
292.85,-1.12569e-08,0,8192,8192
292.9,-1.13141e-08,0,8192,8192
292.953,-1.13816e-08,0,8192,8192
293.003,-1.14521e-08,0,8192,8192
293.052,-1.15292e-08,0,8192,8192
293.102,-1.16131e-08,0,8192,8192
293.152,-1.17042e-08,0,8192,8192
293.202,-1.18027e-08,0,8192,8192
293.252,-1.19093e-08,0,8192,8192
293.301,-1.20245e-08,0,8192,8192
293.351,-1.21491e-08,0,8192,8192
293.401,-1.2284e-08,0,8192,8192
293.451,-1.24302e-08,0,8192,8192
293.501,-1.25887e-08,0,8192,8192
293.55,-1.27607e-08,0,8192,8192
293.6,-1.29474e-08,0,8192,8192
293.65,-1.31498e-08,0,8192,8192
293.703,-1.33825e-08,0,8192,8192
293.753,-1.36204e-08,0,8192,8192
293.802,-1.38767e-08,0,8192,8192
293.852,-1.41518e-08,0,8192,8192
293.902,-1.44457e-08,0,8192,8192
293.952,-1.47582e-08,0,8192,8192
294.002,-1.50884e-08,0,8192,8192
294.051,-1.54354e-08,0,8192,8192
294.101,-1.57976e-08,0,8192,8192
294.151,-1.61731e-08,0,8192,8192
294.201,-1.65597e-08,0,8192,8192
294.251,-1.69548e-08,0,8192,8192
294.3,-1.73555e-08,0,8192,8192
294.35,-1.7759e-08,0,8192,8192
294.403,-1.81856e-08,0,8192,8192
294.453,-1.85848e-08,0,8192,8192
294.502,-1.8977e-08,0,8192,8192
294.552,-1.93593e-08,0,8192,8192
294.602,-1.97286e-08,0,8192,8192
294.652,-2.00823e-08,0,8192,8192
294.702,-2.04176e-08,0,8192,8192
294.751,-2.07322e-08,0,8192,8192
294.801,-2.10241e-08,0,8192,8192
294.851,-2.12914e-08,0,8192,8192
294.901,-2.15328e-08,0,8192,8192
294.951,-2.1747e-08,0,8192,8192
295,-2.19335e-08,0,8192,8192
295.05,-2.20919e-08,0,8192,8192
295.1,-2.22223e-08,0,8192,8192
295.153,-2.23302e-08,0,8192,8192
295.203,-2.24047e-08,0,8192,8192
295.252,-2.24534e-08,0,8192,8192
295.302,-2.24779e-08,0,8192,8192
295.352,-2.24796e-08,0,8192,8192
295.402,-2.24602e-08,0,8192,8192
295.452,-2.24217e-08,0,8192,8192
295.501,-2.23658e-08,0,8192,8192
295.551,-2.22945e-08,0,8192,8192
295.601,-2.22096e-08,0,8192,8192
295.651,-2.2113e-08,0,8192,8192
295.701,-2.20064e-08,0,8192,8192
295.75,-2.18915e-08,0,8192,8192
295.8,-2.17699e-08,0,8192,8192
295.853,-2.16354e-08,0,8192,8192
295.903,-2.15043e-08,0,8192,8192
295.952,-2.13705e-08,0,8192,8192
296.002,-2.12352e-08,0,8192,8192
296.052,-2.10992e-08,0,8192,8192
296.102,-2.09635e-08,0,8192,8192
296.152,-2.08287e-08,0,8192,8192
296.201,-2.06957e-08,0,8192,8192
296.251,-2.05649e-08,0,8192,8192
296.301,-2.04369e-08,0,8192,8192
296.351,-2.03121e-08,0,8192,8192
296.401,-2.01909e-08,0,8192,8192
296.45,-2.00734e-08,0,8192,8192
296.5,-1.996e-08,0,8192,8192
296.55,-1.98507e-08,0,8192,8192
296.603,-1.97397e-08,0,8192,8192
296.653,-1.96392e-08,0,8192,8192
296.702,-1.95429e-08,0,8192,8192
296.752,-1.94507e-08,0,8192,8192
296.802,-1.93625e-08,0,8192,8192
296.852,-1.92781e-08,0,8192,8192
296.902,-1.91973e-08,0,8192,8192
296.951,-1.91198e-08,0,8192,8192
297.001,-1.90453e-08,0,8192,8192
297.051,-1.89736e-08,0,8192,8192
297.101,-1.89043e-08,0,8192,8192
297.151,-1.88372e-08,0,8192,8192
297.2,-1.8772e-08,0,8192,8192
297.25,-1.87084e-08,0,8192,8192
297.303,-1.86425e-08,0,8192,8192
297.353,-1.85813e-08,0,8192,8192
297.402,-1.85209e-08,0,8192,8192
297.452,-1.84611e-08,0,8192,8192
297.502,-1.84017e-08,0,8192,8192
297.552,-1.83424e-08,0,8192,8192
297.602,-1.8283e-08,0,8192,8192
297.651,-1.82235e-08,0,8192,8192
297.701,-1.81635e-08,0,8192,8192
297.751,-1.81031e-08,0,8192,8192
297.801,-1.8042e-08,0,8192,8192
297.851,-1.79802e-08,0,8192,8192
297.9,-1.79174e-08,0,8192,8192
297.95,-1.78536e-08,0,8192,8192
298.003,-1.77849e-08,0,8192,8192
298.053,-1.77186e-08,0,8192,8192
298.103,-1.76509e-08,0,8192,8192
298.152,-1.75817e-08,0,8192,8192
298.202,-1.75107e-08,0,8192,8192
298.252,-1.7438e-08,0,8192,8192
298.302,-1.73632e-08,0,8192,8192
298.352,-1.72862e-08,0,8192,8192
298.401,-1.72069e-08,0,8192,8192
298.451,-1.71249e-08,0,8192,8192
298.501,-1.70403e-08,0,8192,8192
298.551,-1.69526e-08,0,8192,8192
298.6,-1.68617e-08,0,8192,8192
298.65,-1.67675e-08,0,8192,8192
298.7,-1.66696e-08,0,8192,8192
298.753,-1.65619e-08,0,8192,8192
298.803,-1.6456e-08,0,8192,8192
298.852,-1.6346e-08,0,8192,8192
298.902,-1.62317e-08,0,8192,8192
298.952,-1.61129e-08,0,8192,8192
299.002,-1.59895e-08,0,8192,8192
299.052,-1.58613e-08,0,8192,8192
299.101,-1.57284e-08,0,8192,8192
299.151,-1.55905e-08,0,8192,8192
299.201,-1.54476e-08,0,8192,8192
299.251,-1.52995e-08,0,8192,8192
299.301,-1.51462e-08,0,8192,8192
299.35,-1.49876e-08,0,8192,8192
299.4,-1.48236e-08,0,8192,8192
299.453,-1.4644e-08,0,8192,8192
299.503,-1.44686e-08,0,8192,8192
299.553,-1.42874e-08,0,8192,8192
299.602,-1.41002e-08,0,8192,8192
299.652,-1.39069e-08,0,8192,8192
299.702,-1.37072e-08,0,8192,8192
299.752,-1.35008e-08,0,8192,8192
299.801,-1.32871e-08,0,8192,8192
299.851,-1.30656e-08,0,8192,8192
299.901,-1.28357e-08,0,8192,8192
299.951,-1.25966e-08,0,8192,8192
300.001,-1.23473e-08,0,8192,8192
300.05,-1.20868e-08,0,8192,8192
300.1,-1.18139e-08,0,8192,8192
300.15,-1.15274e-08,0,8192,8192
300.203,-1.12079e-08,0,8192,8192
300.253,-1.08893e-08,0,8192,8192
300.302,-1.05534e-08,0,8192,8192
300.352,-1.01987e-08,0,8192,8192
300.402,-9.82456e-09,0,8192,8192
300.452,-9.43008e-09,0,8192,8192
300.502,-9.01485e-09,0,8192,8192
300.551,-8.57876e-09,0,8192,8192
300.601,-8.1221e-09,0,8192,8192
300.651,-7.64556e-09,0,8192,8192
300.701,-7.15026e-09,0,8192,8192
300.751,-6.63776e-09,0,8192,8192
300.8,-6.11006e-09,0,8192,8192
300.85,-5.56951e-09,0,8192,8192
300.903,-4.98621e-09,0,8192,8192
300.953,-4.42813e-09,0,8192,8192
301.002,-3.8664e-09,0,8192,8192
301.052,-3.30443e-09,0,8192,8192
301.102,-2.74574e-09,0,8192,8192
301.152,-2.19386e-09,0,8192,8192
301.202,-1.6523e-09,0,8192,8192
301.251,-1.12446e-09,0,8192,8192
301.301,-6.13579e-10,0,8192,8192
301.351,-1.22698e-10,0,8192,8192
301.401,3.45392e-10,0,8192,8192
301.451,7.882e-10,0,8192,8192
301.5,1.20356e-09,0,8192,8192
301.55,1.58969e-09,0,8192,8192
301.6,1.94516e-09,0,8192,8192
301.653,2.28704e-09,0,8192,8192
301.703,2.57675e-09,0,8192,8192
301.752,2.83407e-09,0,8192,8192
301.802,3.05926e-09,0,8192,8192
301.852,3.25296e-09,0,8192,8192
301.902,3.41616e-09,0,8192,8192
301.952,3.55016e-09,0,8192,8192
302.001,3.65649e-09,0,8192,8192
302.051,3.73693e-09,0,8192,8192
302.101,3.79341e-09,0,8192,8192
302.151,3.82797e-09,0,8192,8192
302.201,3.84272e-09,0,8192,8192
302.25,3.83979e-09,0,8192,8192
302.3,3.8213e-09,0,8192,8192
302.353,3.78705e-09,0,8192,8192
302.403,3.74295e-09,0,8192,8192
302.452,3.68934e-09,0,8192,8192
302.502,3.62801e-09,0,8192,8192
302.552,3.5606e-09,0,8192,8192
302.602,3.48867e-09,0,8192,8192
302.652,3.41362e-09,0,8192,8192
302.701,3.33676e-09,0,8192,8192
302.751,3.25929e-09,0,8192,8192
302.801,3.18231e-09,0,8192,8192
302.851,3.10686e-09,0,8192,8192
302.901,3.03387e-09,0,8192,8192
302.95,2.96419e-09,0,8192,8192
303,2.89859e-09,0,8192,8192
303.05,2.83774e-09,0,8192,8192
303.103,2.7791e-09,0,8192,8192
303.153,2.72964e-09,0,8192,8192
303.202,2.68621e-09,0,8192,8192
303.252,2.64891e-09,0,8192,8192
303.302,2.6177e-09,0,8192,8192
303.352,2.59233e-09,0,8192,8192
303.402,2.57238e-09,0,8192,8192
303.451,2.55725e-09,0,8192,8192
303.501,2.54621e-09,0,8192,8192
303.551,2.53838e-09,0,8192,8192
303.601,2.53279e-09,0,8192,8192
303.651,2.52841e-09,0,8192,8192
303.7,2.5242e-09,0,8192,8192
303.75,2.51915e-09,0,8192,8192
303.803,2.51186e-09,0,8192,8192
303.853,2.50229e-09,0,8192,8192
303.902,2.48946e-09,0,8192,8192
303.952,2.47293e-09,0,8192,8192
304.002,2.45243e-09,0,8192,8192
304.052,2.42794e-09,0,8192,8192
304.102,2.39962e-09,0,8192,8192
304.151,2.3678e-09,0,8192,8192
304.201,2.33298e-09,0,8192,8192
304.251,2.29574e-09,0,8192,8192
304.301,2.25676e-09,0,8192,8192
304.351,2.21675e-09,0,8192,8192
304.4,2.17644e-09,0,8192,8192
304.45,2.13653e-09,0,8192,8192
304.5,2.0977e-09,0,8192,8192
304.553,2.05851e-09,0,8192,8192
304.603,2.02394e-09,0,8192,8192
304.652,1.99233e-09,0,8192,8192
304.702,1.96419e-09,0,8192,8192
304.752,1.93998e-09,0,8192,8192
304.802,1.9201e-09,0,8192,8192
304.852,1.90482e-09,0,8192,8192
304.901,1.89434e-09,0,8192,8192
304.951,1.88873e-09,0,8192,8192
