250,0,0,512,512
250.012,0,0,512,512
250.059,0,0,512,512
250.105,0,0,512,512
250.152,0,0,512,512
250.211,0,0,512,512
250.258,0,0,512,512
250.305,0,0,512,512
250.352,0,0,512,512
250.41,2.77556e-17,0,512,512
250.457,2.77556e-17,0,512,512
250.504,0,0,512,512
250.551,0,0,512,512
250.609,0,0,512,512
250.656,0,0,512,512
250.703,0,0,512,512
250.762,0,0,512,512
250.808,0,0,512,512
250.855,0,0,512,512
250.902,2.77556e-17,0,512,512
250.961,2.77556e-17,0,512,512
251.008,2.77556e-17,0,512,512
251.055,2.77556e-17,0,512,512
251.101,0,0,512,512
251.16,0,0,512,512
251.207,2.77556e-17,0,512,512
251.254,0,0,512,512
251.301,0,0,512,512
251.359,0,0,512,512
251.406,0,0,512,512
251.453,0,0,512,512
251.511,0,0,512,512
251.558,0,0,512,512
251.605,2.77556e-17,0,512,512
251.652,2.77556e-17,0,512,512
251.711,0,0,512,512
251.758,0,0,512,512
251.804,0,0,512,512
251.851,0,0,512,512
251.91,0,0,512,512
251.957,0,0,512,512
252.004,-2.77556e-17,0,512,512
252.05,-2.77556e-17,0,512,512
252.109,-2.77556e-17,0,512,512
252.156,0,0,512,512
252.203,0,0,512,512
252.261,0,0,512,512
252.308,0,0,512,512
252.355,2.77556e-17,0,512,512
252.402,2.77556e-17,0,512,512
252.461,0,0,512,512
252.507,0,0,512,512
252.554,0,0,512,512
252.601,0,0,512,512
252.66,0,0,512,512
252.707,0,0,512,512
252.754,0,0,512,512
252.8,0,0,512,512
252.859,2.77556e-17,0,512,512
252.906,0,0,512,512
252.953,0,0,512,512
253.011,0,0,512,512
253.058,0,0,512,512
253.105,0,0,512,512
253.152,0,0,512,512
253.21,0,0,512,512
253.257,0,0,512,512
253.304,2.77556e-17,0,512,512
253.351,2.77556e-17,0,512,512
253.41,0,0,512,512
253.457,0,0,512,512
253.503,0,0,512,512
253.55,2.77556e-17,0,512,512
253.609,2.77556e-17,0,512,512
253.656,2.77556e-17,0,512,512
253.703,2.77556e-17,0,512,512
253.761,0,0,512,512
253.808,0,0,512,512
253.855,0,0,512,512
253.902,-2.77556e-17,0,512,512
253.96,-2.77556e-17,0,512,512
254.007,0,0,512,512
254.054,0,0,512,512
254.101,-2.77556e-17,0,512,512
254.16,0,0,512,512
254.206,-2.77556e-17,0,512,512
254.253,0,0,512,512
254.3,0,0,512,512
254.359,0,0,512,512
254.406,0,0,512,512
254.452,0,0,512,512
254.511,-2.77556e-17,0,512,512
254.558,-2.77556e-17,0,512,512
254.605,-2.77556e-17,0,512,512
254.652,-2.77556e-17,0,512,512
254.71,-2.77556e-17,0,512,512
254.757,0,0,512,512
254.804,0,0,512,512
254.851,-2.77556e-17,0,512,512
254.909,-5.55112e-17,0,512,512
254.956,-2.77556e-17,0,512,512
255.003,-2.77556e-17,0,512,512
255.05,-2.77556e-17,0,512,512
255.109,-2.77556e-17,0,512,512
255.155,-2.77556e-17,0,512,512
255.202,-2.77556e-17,0,512,512
255.261,-2.77556e-17,0,512,512
255.308,-2.77556e-17,0,512,512
255.355,-2.77556e-17,0,512,512
255.402,-2.77556e-17,0,512,512
255.46,-2.77556e-17,0,512,512
255.507,-2.77556e-17,0,512,512
255.554,-2.77556e-17,0,512,512
255.601,0,0,512,512
255.659,0,0,512,512
255.706,0,0,512,512
255.753,0,0,512,512
255.812,0,0,512,512
255.859,0,0,512,512
255.905,2.77556e-17,0,512,512
255.952,0,0,512,512
256.011,0,0,512,512
256.058,0,0,512,512
256.105,0,0,512,512
256.151,0,0,512,512
256.21,0,0,512,512
256.257,2.77556e-17,0,512,512
256.304,2.77556e-17,0,512,512
256.351,0,0,512,512
256.409,0,0,512,512
256.456,0,0,512,512
256.503,0,0,512,512
256.562,0,0,512,512
256.608,0,0,512,512
256.655,-2.77556e-17,0,512,512
256.702,0,0,512,512
256.761,-2.77556e-17,0,512,512
256.808,0,0,512,512
256.854,-2.77556e-17,0,512,512
256.901,-2.77556e-17,0,512,512
256.96,-2.77556e-17,0,512,512
257.007,-2.77556e-17,0,512,512
257.054,0,0,512,512
257.101,-2.77556e-17,0,512,512
257.159,-2.77556e-17,0,512,512
257.206,0,0,512,512
257.253,0,0,512,512
257.311,0,0,512,512
257.358,2.77556e-17,0,512,512
257.405,2.77556e-17,0,512,512
257.452,0,0,512,512
257.511,0,0,512,512
257.557,0,0,512,512
257.604,0,0,512,512
257.651,0,0,512,512
257.71,-2.77556e-17,0,512,512
257.757,0,0,512,512
257.804,0,0,512,512
257.85,0,0,512,512
257.909,-2.77556e-17,0,512,512
257.956,-2.77556e-17,0,512,512
258.003,-2.77556e-17,0,512,512
258.061,0,0,512,512
258.108,0,0,512,512
258.155,0,0,512,512
258.202,0,0,512,512
258.261,0,0,512,512
258.307,-2.77556e-17,0,512,512
258.354,0,0,512,512
258.401,-2.77556e-17,0,512,512
258.46,-2.77556e-17,0,512,512
258.507,-2.77556e-17,0,512,512
258.553,-2.77556e-17,0,512,512
258.6,-2.77556e-17,0,512,512
258.659,-2.77556e-17,0,512,512
258.706,-5.55112e-17,0,512,512
258.753,-5.55112e-17,0,512,512
258.811,-5.55112e-17,0,512,512
258.858,-5.55112e-17,0,512,512
258.905,-2.77556e-17,0,512,512
258.952,0,0,512,512
259.01,0,0,512,512
259.057,-2.77556e-17,0,512,512
259.104,0,0,512,512
259.151,0,0,512,512
259.21,-2.77556e-17,0,512,512
259.256,-2.77556e-17,0,512,512
259.303,0,0,512,512
259.35,0,0,512,512
259.409,2.77556e-17,0,512,512
259.456,2.77556e-17,0,512,512
259.503,0,0,512,512
259.561,0,0,512,512
259.608,0,0,512,512
259.655,-2.77556e-17,0,512,512
259.702,-2.77556e-17,0,512,512
259.76,0,0,512,512
259.807,0,0,512,512
259.854,2.77556e-17,0,512,512
259.901,0,0,512,512
259.959,0,0,512,512
260.006,0,0,512,512
260.053,0,0,512,512
260.1,-2.77556e-17,0,512,512
260.159,-2.77556e-17,0,512,512
260.206,-2.77556e-17,0,512,512
260.252,-2.77556e-17,0,512,512
260.311,-2.77556e-17,0,512,512
260.358,-2.77556e-17,0,512,512
260.405,-2.77556e-17,0,512,512
260.452,-2.77556e-17,0,512,512
260.51,-2.77556e-17,0,512,512
260.557,-2.77556e-17,0,512,512
260.604,0,0,512,512
260.651,0,0,512,512
260.709,0,0,512,512
260.756,0,0,512,512
260.803,0,0,512,512
260.862,0,0,512,512
260.909,2.77556e-17,0,512,512
260.955,2.77556e-17,0,512,512
261.002,2.77556e-17,0,512,512
261.061,2.77556e-17,0,512,512
261.108,2.77556e-17,0,512,512
261.155,2.77556e-17,0,512,512
261.201,2.77556e-17,0,512,512
261.26,0,0,512,512
261.307,0,0,512,512
261.354,0,0,512,512
261.401,0,0,512,512
261.459,0,0,512,512
261.506,0,0,512,512
261.553,0,0,512,512
261.612,0,0,512,512
261.658,0,0,512,512
261.705,0,0,512,512
261.752,2.77556e-17,0,512,512
261.811,2.77556e-17,0,512,512
261.858,-2.77556e-17,0,512,512
261.905,0,0,512,512
261.951,0,0,512,512
262.01,0,0,512,512
262.057,0,0,512,512
262.104,0,0,512,512
262.151,0,0,512,512
262.209,0,0,512,512
262.256,2.77556e-17,0,512,512
262.303,2.77556e-17,0,512,512
262.361,0,0,512,512
262.408,0,0,512,512
262.455,0,0,512,512
262.502,0,0,512,512
262.561,0,0,512,512
262.608,2.77556e-17,0,512,512
262.654,2.77556e-17,0,512,512
262.701,2.77556e-17,0,512,512
262.76,2.77556e-17,0,512,512
262.807,0,0,512,512
262.854,0,0,512,512
262.9,2.77556e-17,0,512,512
262.959,0,0,512,512
263.006,0,0,512,512
263.053,0,0,512,512
263.111,0,0,512,512
263.158,0,0,512,512
263.205,0,0,512,512
263.252,0,0,512,512
263.311,0,0,512,512
263.357,2.77556e-17,0,512,512
263.404,2.77556e-17,0,512,512
263.451,2.77556e-17,0,512,512
263.51,0,0,512,512
263.557,0,0,512,512
263.603,0,0,512,512
263.65,0,0,512,512
263.709,-2.77556e-17,0,512,512
263.756,-2.77556e-17,0,512,512
263.803,-2.77556e-17,0,512,512
263.861,0,0,512,512
263.908,0,0,512,512
263.955,2.77556e-17,0,512,512
264.002,0,0,512,512
264.06,0,0,512,512
264.107,0,0,512,512
264.154,0,0,512,512
264.201,0,0,512,512
264.26,0,0,512,512
264.306,2.77556e-17,0,512,512
264.353,2.77556e-17,0,512,512
264.4,2.77556e-17,0,512,512
264.459,2.77556e-17,0,512,512
264.506,2.77556e-17,0,512,512
264.553,2.77556e-17,0,512,512
264.611,2.77556e-17,0,512,512
264.658,2.77556e-17,0,512,512
264.705,2.77556e-17,0,512,512
264.752,2.77556e-17,0,512,512
264.81,2.77556e-17,0,512,512
264.857,2.77556e-17,0,512,512
264.904,2.77556e-17,0,512,512
264.951,2.77556e-17,0,512,512
265.01,2.77556e-17,0,512,512
265.056,2.77556e-17,0,512,512
265.103,2.77556e-17,0,512,512
265.15,2.77556e-17,0,512,512
265.209,2.77556e-17,0,512,512
265.256,2.77556e-17,0,512,512
265.302,2.77556e-17,0,512,512
265.361,5.55112e-17,0,512,512
265.408,5.55112e-17,0,512,512
265.455,5.55112e-17,0,512,512
265.502,5.55112e-17,0,512,512
265.56,2.77556e-17,0,512,512
265.607,2.77556e-17,0,512,512
265.654,2.77556e-17,0,512,512
265.701,2.77556e-17,0,512,512
265.759,2.77556e-17,0,512,512
265.806,2.77556e-17,0,512,512
265.853,2.77556e-17,0,512,512
265.9,2.77556e-17,0,512,512
265.959,2.77556e-17,0,512,512
266.005,2.77556e-17,0,512,512
266.052,2.77556e-17,0,512,512
266.111,0,0,512,512
266.158,2.77556e-17,0,512,512
266.205,0,0,512,512
266.252,2.77556e-17,0,512,512
266.31,2.77556e-17,0,512,512
266.357,2.77556e-17,0,512,512
266.404,2.77556e-17,0,512,512
266.451,2.77556e-17,0,512,512
266.509,0,0,512,512
266.556,0,0,512,512
266.603,-2.77556e-17,0,512,512
266.662,-2.77556e-17,0,512,512
266.708,-2.77556e-17,0,512,512
266.755,0,0,512,512
266.802,-2.77556e-17,0,512,512
266.861,-2.77556e-17,0,512,512
266.908,-2.77556e-17,0,512,512
266.955,-2.77556e-17,0,512,512
267.001,-2.77556e-17,0,512,512
267.06,-2.77556e-17,0,512,512
267.107,-2.77556e-17,0,512,512
267.154,-2.77556e-17,0,512,512
267.201,-2.77556e-17,0,512,512
267.259,-2.77556e-17,0,512,512
267.306,-2.77556e-17,0,512,512
267.353,-2.77556e-17,0,512,512
267.412,-2.77556e-17,0,512,512
267.458,-2.77556e-17,0,512,512
267.505,-2.77556e-17,0,512,512
267.552,0,0,512,512
267.611,2.77556e-17,0,512,512
267.658,2.77556e-17,0,512,512
267.704,2.77556e-17,0,512,512
267.751,2.77556e-17,0,512,512
267.81,2.77556e-17,0,512,512
267.857,2.77556e-17,0,512,512
267.904,2.77556e-17,0,512,512
267.95,2.77556e-17,0,512,512
268.009,2.77556e-17,0,512,512
268.056,2.77556e-17,0,512,512
268.103,2.77556e-17,0,512,512
268.161,2.77556e-17,0,512,512
268.208,2.77556e-17,0,512,512
268.255,0,0,512,512
268.302,0,0,512,512
268.361,0,0,512,512
268.407,0,0,512,512
268.454,0,0,512,512
268.501,0,0,512,512
268.56,0,0,512,512
268.607,0,0,512,512
268.654,-2.77556e-17,0,512,512
268.7,-2.77556e-17,0,512,512
268.759,-2.77556e-17,0,512,512
268.806,-2.77556e-17,0,512,512
268.853,0,0,512,512
268.911,0,0,512,512
268.958,2.77556e-17,0,512,512
269.005,2.77556e-17,0,512,512
269.052,2.77556e-17,0,512,512
269.11,0,0,512,512
269.157,0,0,512,512
269.204,0,0,512,512
269.251,2.77556e-17,0,512,512
269.31,2.77556e-17,0,512,512
269.357,0,0,512,512
269.403,2.77556e-17,0,512,512
269.45,2.77556e-17,0,512,512
269.509,2.77556e-17,0,512,512
269.556,2.77556e-17,0,512,512
269.603,2.77556e-17,0,512,512
269.652,5.55112e-17,0,535,535
269.7,5.55112e-17,0,1847,1847
269.751,5.55112e-17,0,2489,2489
269.8,5.55112e-17,0,3229,3229
269.85,5.55112e-17,0,4099,4099
269.9,5.55112e-17,0,4867,4867
269.951,5.55112e-17,0,5729,5729
270,5.55112e-17,0,6563,6563
270.05,5.55112e-17,0,7363,7363
270.101,5.55112e-17,0,8145,8145
270.151,5.55112e-17,0,8977,8977
270.2,5.55112e-17,0,9853,9853
270.25,5.55112e-17,0,10647,10647
270.301,5.55112e-17,0,11583,11583
270.35,5.55112e-17,0,12403,12403
270.4,5.55112e-17,0,13159,13159
270.45,-6.38378e-16,0,13989,13989
270.501,-2.55351e-15,0,14937,14937
270.55,-9.13158e-15,0,15667,15667
270.6,-3.68316e-14,0,15973,15973
270.651,-1.36641e-13,0,16685,16685
270.7,-4.31127e-13,0,17537,17537
270.75,-1.18738e-12,0,18419,18419
270.8,-2.88189e-12,0,19235,19235
270.851,-6.28897e-12,0,20135,20135
270.9,-1.2167e-11,0,21017,21017
270.95,-2.1275e-11,0,21869,21869
271,-3.38292e-11,0,22757,22757
271.051,-4.94046e-11,0,23657,23657
271.1,-6.58154e-11,0,24467,24467
271.15,-8.07162e-11,0,25355,25355
271.201,-9.14024e-11,0,26255,26255
271.25,-9.52205e-11,0,27137,27137
271.3,-9.11983e-11,0,28037,28037
271.35,-7.95932e-11,0,28877,28877
271.401,-6.16241e-11,0,29777,29777
271.45,-4.01076e-11,0,30659,30659
271.5,-1.7227e-11,0,31559,31559
271.551,5.29302e-12,0,32443,32443
271.6,2.53759e-11,0,33283,33283
271.65,4.26142e-11,0,34157,34157
271.7,5.68065e-11,0,35037,35037
271.751,6.82728e-11,0,35897,35897
271.8,7.70738e-11,0,36779,36779
271.85,8.38717e-11,0,37591,37591
271.9,8.91332e-11,0,38495,38495
271.951,9.3309e-11,0,39329,39329
272,9.65805e-11,0,40165,40165
272.05,9.92245e-11,0,41037,41037
272.101,1.01423e-10,0,41879,41879
272.15,1.0326e-10,0,42695,42695
272.2,1.04963e-10,0,43531,43531
272.25,1.06822e-10,0,44363,44363
272.301,1.09287e-10,0,45165,45165
272.35,1.12769e-10,0,45977,45977
272.4,1.17664e-10,0,46763,46763
272.451,1.23964e-10,0,47587,47587
272.501,1.30408e-10,0,48395,48395
272.55,1.34574e-10,0,49165,49165
272.6,1.32312e-10,0,50017,50017
272.651,1.1774e-10,0,50779,50779
272.7,8.50637e-11,0,51579,51579
272.75,2.8695e-11,0,52349,52349
272.8,-5.48433e-11,0,53113,53113
272.851,-1.67882e-10,0,53921,53921
272.9,-3.04621e-10,0,54615,54615
272.95,-4.71507e-10,0,54887,54887
273.001,-5.77298e-10,0,55697,55697
273.05,-1.74926e-10,0,56465,56465
273.1,3.32099e-09,0,57317,57317
273.15,9.9855e-09,0,58079,58079
273.201,1.70601e-08,0,58895,58895
273.25,2.29232e-08,0,59657,59657
273.3,2.70707e-08,0,60425,60425
273.351,2.94771e-08,0,61259,61259
273.401,3.08754e-08,0,62027,62027
273.45,3.29218e-08,0,62669,62669
273.5,3.74302e-08,0,63285,63285
273.551,4.54829e-08,0,63897,63897
273.6,5.62382e-08,0,63667,63667
273.65,6.86829e-08,0,64169,64169
273.7,8.25392e-08,0,64819,64819
273.751,9.9139e-08,0,65757,65757
273.8,1.19837e-07,0,67251,67251
273.85,1.46352e-07,0,69095,69095
273.901,1.80154e-07,0,69857,69857
273.95,2.20557e-07,0,70625,70625
274,2.66963e-07,0,71387,71387
274.05,3.16862e-07,0,72155,72155
274.101,3.68217e-07,0,72917,72917
274.15,4.18727e-07,0,73645,73645
274.2,4.71127e-07,0,74399,74399
274.251,5.28851e-07,0,75167,75167
274.301,5.90244e-07,0,75929,75929
274.35,6.52405e-07,0,76697,76697
274.4,7.10151e-07,0,77375,77375
274.451,7.60169e-07,0,78137,78137
274.5,7.98956e-07,0,78857,78857
274.55,8.26643e-07,0,79619,79619
274.6,8.44073e-07,0,80315,80315
274.651,8.53761e-07,0,81077,81077
274.7,8.58382e-07,0,81797,81797
274.75,8.5999e-07,0,82559,82559
274.801,8.58938e-07,0,83237,83237
274.85,8.54886e-07,0,83957,83957
274.9,8.47027e-07,0,84647,84647
274.95,8.34244e-07,0,85415,85415
275.001,8.15004e-07,0,86129,86129
275.05,7.88784e-07,0,86807,86807
275.1,7.54595e-07,0,87527,87527
275.15,7.12246e-07,0,88217,88217
275.201,6.62284e-07,0,88967,88967
275.25,6.09264e-07,0,89699,89699
275.3,5.55965e-07,0,90377,90377
275.351,5.04171e-07,0,91097,91097
275.4,4.56603e-07,0,91787,91787
275.45,4.12916e-07,0,92507,92507
275.5,3.73028e-07,0,93185,93185
275.551,3.35855e-07,0,93899,93899
275.6,3.01714e-07,0,94595,94595
275.65,2.694e-07,0,95309,95309
275.701,2.37959e-07,0,95987,95987
275.751,2.0823e-07,0,96707,96707
275.8,1.80755e-07,0,97397,97397
275.85,1.57546e-07,0,98117,98117
275.901,1.4005e-07,0,98795,98795
275.95,1.28061e-07,0,99509,99509
276,1.18059e-07,0,100205,100205
276.05,1.06713e-07,0,100835,100835
276.101,9.29596e-08,0,101555,101555
276.15,7.90933e-08,0,102245,102245
276.2,6.74452e-08,0,102959,102959
276.251,5.91181e-08,0,103637,103637
276.3,5.39917e-08,0,104357,104357
276.35,5.08716e-08,0,104999,104999
276.4,4.8364e-08,0,105677,105677
276.451,4.48457e-08,0,106397,106397
276.5,3.93632e-08,0,107087,107087
276.55,3.23654e-08,0,107747,107747
276.601,2.57247e-08,0,108437,108437
276.651,2.16339e-08,0,109127,109127
276.7,2.0391e-08,0,109787,109787
276.75,2.07831e-08,0,110477,110477
276.801,2.15541e-08,0,111167,111167
276.85,2.20064e-08,0,111827,111827
276.9,2.21176e-08,0,112517,112517
276.95,2.21487e-08,0,113159,113159
277.001,2.22354e-08,0,113837,113837
277.05,2.23607e-08,0,114557,114557
277.1,2.24642e-08,0,115199,115199
277.151,2.24202e-08,0,115877,115877
277.2,2.19321e-08,0,116525,116525
277.25,2.12963e-08,0,117239,117239
277.3,2.10457e-08,0,117869,117869
277.351,2.0983e-08,0,118565,118565
277.4,2.09277e-08,0,119195,119195
277.45,2.0849e-08,0,119837,119837
277.5,2.07487e-08,0,120557,120557
277.551,2.06167e-08,0,121187,121187
277.6,2.04529e-08,0,121829,121829
277.65,2.02602e-08,0,122459,122459
277.701,2.00291e-08,0,123107,123107
277.75,1.9765e-08,0,123737,123737
277.8,1.94677e-08,0,124295,124295
277.85,1.91299e-08,0,124889,124889
277.901,1.87465e-08,0,125519,125519
277.95,1.83348e-08,0,126057,126057
278,1.78887e-08,0,126587,126587
278.051,1.74093e-08,0,127187,127187
278.101,1.692e-08,0,127697,127697
278.15,1.6415e-08,0,128207,128207
278.2,1.59022e-08,0,128717,128717
278.251,1.53796e-08,0,129227,129227
278.3,1.48601e-08,0,129737,129737
278.35,1.43415e-08,0,130294,130294
278.4,1.38267e-08,0,131072,131072
278.451,1.33068e-08,0,131072,131072
278.5,1.28032e-08,0,131072,131072
278.55,1.23128e-08,0,131072,131072
278.601,1.18293e-08,0,131072,131072
278.65,1.13754e-08,0,131072,131072
278.7,1.09484e-08,0,131072,131072
278.75,1.05494e-08,0,131072,131072
278.801,1.0179e-08,0,131072,131072
278.85,9.84833e-09,0,131072,131072
278.9,9.54809e-09,0,131072,131072
278.951,9.27613e-09,0,131072,131072
279.001,9.03709e-09,0,131072,131072
279.05,8.82231e-09,0,131072,131072
279.1,8.63302e-09,0,131072,131072
279.151,8.46402e-09,0,131072,131072
279.2,8.31706e-09,0,131072,131072
279.25,8.19162e-09,0,131072,131072
279.3,8.08523e-09,0,131072,131072
279.351,7.99342e-09,0,131072,131072
279.4,7.91929e-09,0,131072,131072
279.45,7.85691e-09,0,131072,131072
279.501,7.80143e-09,0,131072,131072
279.55,7.75578e-09,0,131072,131072
279.6,7.71759e-09,0,131072,131072
279.65,7.68633e-09,0,131072,131072
279.701,7.66434e-09,0,131072,131072
279.75,7.64981e-09,0,131072,131072
279.8,7.63976e-09,0,131072,131072
279.85,7.63488e-09,0,131072,131072
279.901,7.63246e-09,0,131072,131072
279.95,7.6312e-09,0,131072,131072
280,7.63364e-09,0,131072,131072
280.051,7.63932e-09,0,131072,131072
280.1,7.64785e-09,0,131072,131072
280.15,7.66123e-09,0,131072,131072
280.2,7.67716e-09,0,131072,131072
280.251,7.69374e-09,0,131072,131072
280.3,7.71144e-09,0,131072,131072
280.35,7.72881e-09,0,131072,131072
280.401,7.74527e-09,0,131072,131072
280.451,7.76234e-09,0,131072,131072
280.5,7.77927e-09,0,131072,131072
280.55,7.79527e-09,0,131072,131072
280.601,7.8123e-09,0,131072,131072
280.65,7.82894e-09,0,131072,131072
280.7,7.84473e-09,0,131072,131072
280.75,7.86142e-09,0,131072,131072
280.801,7.8785e-09,0,131072,131072
280.85,7.89449e-09,0,131072,131072
280.9,7.91105e-09,0,131072,131072
280.951,7.92765e-09,0,131072,131072
281,7.94285e-09,0,131072,131072
281.05,7.95833e-09,0,131072,131072
281.1,7.97355e-09,0,131072,131072
281.151,7.98768e-09,0,131072,131072
281.2,8.00166e-09,0,131072,131072
281.25,8.0153e-09,0,131072,131072
281.301,8.02779e-09,0,131072,131072
281.351,8.04003e-09,0,131072,131072
281.4,8.05203e-09,0,131072,131072
281.45,8.06277e-09,0,131072,131072
281.501,8.07363e-09,0,131072,131072
281.55,8.08435e-09,0,131072,131072
281.6,8.0941e-09,0,131072,131072
281.65,8.10395e-09,0,131072,131072
281.701,8.1144e-09,0,131072,131072
281.75,8.12427e-09,0,131072,131072
281.8,8.13529e-09,0,131072,131072
281.851,8.15056e-09,0,131072,131072
281.9,8.17388e-09,0,131072,131072
281.95,8.21299e-09,0,131072,131072
282,8.27362e-09,0,131072,131072
282.051,8.35734e-09,0,131072,131072
282.1,8.46003e-09,0,131072,131072
282.15,8.5803e-09,0,131072,131072
282.2,8.71501e-09,0,131072,131072
282.251,8.86703e-09,0,131072,131072
282.3,9.03738e-09,0,131072,131072
282.35,9.23488e-09,0,131072,131072
282.401,9.47172e-09,0,131072,131072
282.45,9.75178e-09,0,131072,131072
282.5,1.00884e-08,0,131072,131072
282.55,1.04921e-08,0,131072,131072
282.601,1.09865e-08,0,131072,131072
282.65,1.1577e-08,0,131072,131072
282.7,1.22915e-08,0,131072,131072
282.751,1.31673e-08,0,131072,131072
282.801,1.42026e-08,0,131072,131072
282.85,1.54279e-08,0,131072,131072
282.9,1.68562e-08,0,131072,131072
282.951,1.85245e-08,0,131072,131072
283,2.03963e-08,0,131072,131072
283.05,2.25043e-08,0,131072,131072
283.1,2.48572e-08,0,131072,131072
283.151,2.74998e-08,0,131072,131072
283.2,3.03514e-08,0,131072,131072
283.25,3.34311e-08,0,131072,131072
283.301,3.67614e-08,0,131072,131072
283.35,4.02134e-08,0,131072,131072
283.4,4.38014e-08,0,131072,131072
283.45,4.74944e-08,0,131072,131072
283.501,5.13222e-08,0,131072,131072
283.55,5.51541e-08,0,131072,131072
283.6,5.90296e-08,0,131072,131072
283.651,6.29915e-08,0,131072,131072
283.701,6.6911e-08,0,131072,131072
283.75,7.08474e-08,0,131072,131072
283.8,7.487e-08,0,131072,131072
283.851,7.92794e-08,0,131072,131072
283.9,8.43699e-08,0,131072,131072
283.95,9.05758e-08,0,131072,131072
284,9.78709e-08,0,131072,131072
284.051,1.05853e-07,0,131072,131072
284.1,1.1356e-07,0,131072,131072
284.15,1.2058e-07,0,131072,131072
284.201,1.26902e-07,0,131072,131072
284.25,1.32709e-07,0,131072,131072
284.3,1.38767e-07,0,131072,131072
284.35,1.45814e-07,0,131072,131072
284.401,1.54577e-07,0,131072,131072
284.45,1.65143e-07,0,131072,131072
284.5,1.77814e-07,0,131072,131072
284.551,1.93079e-07,0,131072,131072
284.601,2.10972e-07,0,131072,131072
284.65,2.32377e-07,0,131072,131072
284.7,2.58002e-07,0,131072,131072
284.751,2.88784e-07,0,131072,131072
284.8,3.23806e-07,0,131072,131072
284.85,3.62914e-07,0,131072,131072
284.9,4.05189e-07,0,131072,131072
284.951,4.50361e-07,0,131072,131072
285,4.96478e-07,0,131072,131072
285.05,5.43858e-07,0,131072,131072
285.101,5.92878e-07,0,131072,131072
285.15,6.4127e-07,0,131072,131072
285.2,6.88125e-07,0,131072,131072
285.25,7.31221e-07,0,131072,131072
285.301,7.68728e-07,0,131072,131072
285.35,7.97721e-07,0,131072,131072
285.4,8.179e-07,0,131072,131072
285.45,8.29385e-07,0,131072,131072
285.501,8.3311e-07,0,131072,131072
285.55,8.30321e-07,0,131072,131072
285.6,8.22413e-07,0,131072,131072
285.651,8.1007e-07,0,131072,131072
285.7,7.93998e-07,0,131072,131072
285.75,7.73882e-07,0,131072,131072
285.8,7.49209e-07,0,131072,131072
285.851,7.18855e-07,0,131072,131072
285.9,6.83157e-07,0,131072,131072
285.95,6.41537e-07,0,131072,131072
286.001,5.93652e-07,0,131072,131072
286.051,5.41963e-07,0,131072,131072
286.1,4.87453e-07,0,131072,131072
286.15,4.32059e-07,0,131072,131072
286.201,3.76855e-07,0,131072,131072
286.25,3.24918e-07,0,131072,131072
286.3,2.7634e-07,0,131072,131072
286.35,2.31477e-07,0,131072,131072
286.401,1.89684e-07,0,131072,131072
286.45,1.51868e-07,0,131072,131072
286.5,1.1706e-07,0,131072,131072
286.551,8.46311e-08,0,131072,131072
286.6,5.56172e-08,0,131072,131072
286.65,2.98771e-08,0,131072,131072
286.7,7.80815e-09,0,131072,131072
286.751,-1.07003e-08,0,131072,131072
286.8,-2.54886e-08,0,131072,131072
286.85,-3.76775e-08,0,131072,131072
286.901,-4.83365e-08,0,131072,131072
286.951,-5.77545e-08,0,131072,131072
287,-6.61376e-08,0,131072,131072
287.05,-7.31168e-08,0,131072,131072
287.101,-7.8334e-08,0,131072,131072
287.15,-8.15089e-08,0,131072,131072
287.2,-8.3027e-08,0,131072,131072
287.25,-8.34934e-08,0,131072,131072
287.301,-8.35546e-08,0,131072,131072
287.35,-8.36125e-08,0,131072,131072
287.4,-8.36594e-08,0,131072,131072
287.451,-8.33261e-08,0,131072,131072
287.5,-8.21543e-08,0,131072,131072
287.55,-7.98609e-08,0,131072,131072
287.6,-7.64852e-08,0,131072,131072
287.651,-7.22669e-08,0,131072,131072
287.7,-6.77254e-08,0,131072,131072
287.75,-6.31228e-08,0,131072,131072
287.8,-5.86424e-08,0,131072,131072
287.851,-5.43005e-08,0,131072,131072
287.9,-5.02562e-08,0,131072,131072
287.95,-4.64741e-08,0,131072,131072
288.001,-4.29326e-08,0,131072,131072
288.05,-3.97398e-08,0,131072,131072
288.1,-3.68142e-08,0,131072,131072
288.15,-3.41081e-08,0,131072,131072
288.201,-3.15458e-08,0,131072,131072
288.25,-2.91863e-08,0,131072,131072
288.3,-2.69946e-08,0,131072,131072
288.351,-2.49496e-08,0,131072,131072
288.4,-2.31116e-08,0,131072,131072
288.45,-2.14438e-08,0,131072,131072
288.5,-1.99371e-08,0,131072,131072
288.551,-1.85629e-08,0,131072,131072
288.6,-1.73516e-08,0,131072,131072
288.65,-1.62729e-08,0,131072,131072
288.7,-1.53164e-08,0,131072,131072
288.751,-1.44584e-08,0,131072,131072
288.8,-1.37105e-08,0,131072,131072
288.85,-1.30468e-08,0,131072,131072
288.901,-1.24484e-08,0,131072,131072
288.95,-1.19255e-08,0,131072,131072
289,-1.14649e-08,0,131072,131072
289.05,-1.10647e-08,0,131072,131072
289.101,-1.07189e-08,0,131072,131072
289.15,-1.04351e-08,0,131072,131072
289.2,-1.02041e-08,0,131072,131072
289.251,-1.0019e-08,0,131072,131072
289.301,-9.88055e-09,0,131072,131072
289.35,-9.78177e-09,0,131072,131072
289.4,-9.71954e-09,0,131072,131072
289.451,-9.69071e-09,0,131072,131072
289.5,-9.6925e-09,0,131072,131072
289.55,-9.71956e-09,0,131072,131072
289.6,-9.76624e-09,0,131072,131072
289.651,-9.82755e-09,0,131072,131072
289.7,-9.89622e-09,0,131072,131072
289.75,-9.96871e-09,0,131072,131072
289.801,-1.00428e-08,0,131072,131072
289.85,-1.01139e-08,0,131072,131072
289.9,-1.01813e-08,0,131072,131072
289.95,-1.02436e-08,0,131072,131072
290.001,-1.03013e-08,0,131072,131072
290.05,-1.03527e-08,0,131072,131072
290.1,-1.03994e-08,0,131072,131072
290.151,-1.04427e-08,0,131072,131072
290.201,-1.04818e-08,0,131072,131072
290.25,-1.05172e-08,0,131072,131072
290.3,-1.05488e-08,0,131072,131072
290.351,-1.05771e-08,0,131072,131072
290.4,-1.06027e-08,0,131072,131072
290.45,-1.06273e-08,0,131072,131072
290.5,-1.06523e-08,0,131072,131072
290.551,-1.06788e-08,0,131072,131072
290.6,-1.07059e-08,0,131072,131072
290.65,-1.07335e-08,0,131072,131072
290.701,-1.07614e-08,0,131072,131072
290.75,-1.07887e-08,0,131072,131072
290.8,-1.08158e-08,0,131072,131072
290.85,-1.08433e-08,0,131072,131072
290.901,-1.08719e-08,0,131072,131072
290.95,-1.09011e-08,0,131072,131072
291,-1.09312e-08,0,131072,131072
291.05,-1.09623e-08,0,131072,131072
291.101,-1.09955e-08,0,131072,131072
291.15,-1.10306e-08,0,131072,131072
291.2,-1.10698e-08,0,131072,131072
291.251,-1.11153e-08,0,131072,131072
291.3,-1.11669e-08,0,131072,131072
291.35,-1.12256e-08,0,131072,131072
291.4,-1.12915e-08,0,131072,131072
291.451,-1.13653e-08,0,131072,131072
291.5,-1.1445e-08,0,131072,131072
291.55,-1.15327e-08,0,131072,131072
291.601,-1.1631e-08,0,131072,131072
291.651,-1.17383e-08,0,131072,131072
291.7,-1.18562e-08,0,131072,131072
291.75,-1.19843e-08,0,131072,131072
291.801,-1.21236e-08,0,131072,131072
291.85,-1.22692e-08,0,131072,131072
291.9,-1.24227e-08,0,131072,131072
291.95,-1.25849e-08,0,131072,131072
292.001,-1.27604e-08,0,131072,131072
292.05,-1.29472e-08,0,131072,131072
292.1,-1.31511e-08,0,131072,131072
292.151,-1.33788e-08,0,131072,131072
292.2,-1.36264e-08,0,131072,131072
292.25,-1.38991e-08,0,131072,131072
292.3,-1.41975e-08,0,131072,131072
292.351,-1.45265e-08,0,131072,131072
292.4,-1.48754e-08,0,131072,131072
292.45,-1.52473e-08,0,131072,131072
292.501,-1.56459e-08,0,131072,131072
292.551,-1.60575e-08,0,131072,131072
292.6,-1.64852e-08,0,131072,131072
292.65,-1.69262e-08,0,131072,131072
292.701,-1.73837e-08,0,131072,131072
292.75,-1.78405e-08,0,131072,131072
292.8,-1.82992e-08,0,131072,131072
292.85,-1.87552e-08,0,131072,131072
292.901,-1.92111e-08,0,131072,131072
292.95,-1.96495e-08,0,131072,131072
293,-2.00734e-08,0,131072,131072
293.051,-2.04856e-08,0,131072,131072
293.1,-2.08715e-08,0,131072,131072
293.15,-2.12351e-08,0,131072,131072
293.2,-2.15745e-08,0,131072,131072
293.251,-2.18917e-08,0,131072,131072
293.3,-2.21748e-08,0,131072,131072
293.35,-2.24253e-08,0,131072,131072
293.4,-2.26403e-08,0,131072,131072
293.451,-2.28204e-08,0,131072,131072
293.5,-2.29599e-08,0,131072,131072
293.55,-2.30632e-08,0,131072,131072
293.601,-2.31332e-08,0,131072,131072
293.65,-2.31707e-08,0,131072,131072
293.7,-2.31794e-08,0,131072,131072
293.75,-2.31615e-08,0,131072,131072
293.801,-2.3118e-08,0,131072,131072
293.85,-2.30521e-08,0,131072,131072
293.9,-2.29657e-08,0,131072,131072
293.951,-2.28599e-08,0,131072,131072
294,-2.27406e-08,0,131072,131072
294.05,-2.26095e-08,0,131072,131072
294.1,-2.24691e-08,0,131072,131072
294.151,-2.23193e-08,0,131072,131072
294.2,-2.21661e-08,0,131072,131072
294.25,-2.20087e-08,0,131072,131072
294.3,-2.18484e-08,0,131072,131072
294.351,-2.16837e-08,0,131072,131072
294.4,-2.15205e-08,0,131072,131072
294.45,-2.13575e-08,0,129792,129792
294.501,-2.11933e-08,0,130368,130368
294.55,-2.10336e-08,0,130464,130464
294.6,-2.08768e-08,0,130512,130512
294.65,-2.07234e-08,0,130464,130464
294.701,-2.05716e-08,0,130464,130464
294.75,-2.0426e-08,0,130464,130464
294.8,-2.02847e-08,0,130432,130432
294.851,-2.0146e-08,0,130368,130368
294.901,-2.00143e-08,0,130272,130272
294.95,-1.9888e-08,0,130272,130272
295,-1.97673e-08,0,130272,130272
295.051,-1.96507e-08,0,130272,130272
295.1,-1.95416e-08,0,130184,130184
295.15,-1.9438e-08,0,130144,130144
295.2,-1.93398e-08,0,130088,130088
295.251,-1.92452e-08,0,130020,130020
295.3,-1.91566e-08,0,130032,130032
295.35,-1.90722e-08,0,129992,129992
295.401,-1.89905e-08,0,129936,129936
295.45,-1.89135e-08,0,129888,129888
295.5,-1.88396e-08,0,129888,129888
295.55,-1.87684e-08,0,129872,129872
295.601,-1.86986e-08,0,129872,129872
295.65,-1.86319e-08,0,129840,129840
295.7,-1.8567e-08,0,129816,129816
295.751,-1.85026e-08,0,129792,129792
295.801,-1.84405e-08,0,129792,129792
295.85,-1.83792e-08,0,129744,129744
295.9,-1.83187e-08,0,129728,129728
295.951,-1.82579e-08,0,129728,129728
296,-1.81982e-08,0,129672,129672
296.05,-1.81386e-08,0,129672,129672
296.1,-1.80789e-08,0,129624,129624
296.151,-1.80181e-08,0,129660,129660
296.2,-1.79579e-08,0,129600,129600
296.25,-1.78972e-08,0,129600,129600
296.301,-1.7835e-08,0,129600,129600
296.35,-1.77731e-08,0,129576,129576
296.4,-1.77104e-08,0,129568,129568
296.45,-1.76468e-08,0,129612,129612
296.501,-1.75812e-08,0,129592,129592
296.55,-1.75154e-08,0,129576,129576
296.6,-1.74484e-08,0,129556,129556
296.65,-1.73799e-08,0,129528,129528
296.701,-1.73087e-08,0,129528,129528
296.75,-1.72367e-08,0,129524,129524
296.8,-1.71627e-08,0,129488,129488
296.851,-1.70852e-08,0,129488,129488
296.9,-1.70062e-08,0,129488,129488
296.95,-1.69243e-08,0,129488,129488
297,-1.68393e-08,0,129440,129440
297.051,-1.67495e-08,0,129424,129424
297.1,-1.66573e-08,0,129440,129440
297.15,-1.6561e-08,0,129432,129432
297.201,-1.64589e-08,0,129392,129392
297.251,-1.63537e-08,0,129440,129440
297.3,-1.62436e-08,0,129412,129412
297.35,-1.61287e-08,0,129352,129352
297.401,-1.60068e-08,0,129340,129340
297.45,-1.58814e-08,0,129332,129332
297.5,-1.57508e-08,0,129332,129332
297.55,-1.56148e-08,0,129276,129276
297.601,-1.54715e-08,0,129296,129296
297.65,-1.5325e-08,0,129256,129256
297.7,-1.51733e-08,0,129224,129224
297.751,-1.50139e-08,0,129236,129236
297.8,-1.48515e-08,0,129200,129200
297.85,-1.46837e-08,0,129216,129216
297.9,-1.45102e-08,0,129200,129200
297.951,-1.43281e-08,0,129176,129176
298,-1.41424e-08,0,129228,129228
298.05,-1.39504e-08,0,129200,129200
298.101,-1.37493e-08,0,129224,129224
298.151,-1.3545e-08,0,129232,129232
298.2,-1.3335e-08,0,129244,129244
298.25,-1.31194e-08,0,129264,129264
298.301,-1.2895e-08,0,129232,129232
298.35,-1.26681e-08,0,129300,129300
298.4,-1.24346e-08,0,129316,129316
298.45,-1.21938e-08,0,129308,129308
298.501,-1.19405e-08,0,129304,129304
298.55,-1.16804e-08,0,129332,129332
298.6,-1.14082e-08,0,129352,129352
298.651,-1.11171e-08,0,129352,129352
298.7,-1.08132e-08,0,129368,129368
298.75,-1.04898e-08,0,129352,129352
298.8,-1.01441e-08,0,129360,129360
298.851,-9.76829e-09,0,129416,129416
298.9,-9.37099e-09,0,129400,129400
298.95,-8.94534e-09,0,129416,129416
299,-8.49023e-09,0,129352,129352
299.051,-7.99775e-09,0,129392,129392
299.1,-7.48224e-09,0,129376,129376
299.15,-6.93767e-09,0,129352,129352
299.201,-6.35723e-09,0,129352,129352
299.25,-5.76064e-09,0,129328,129328
299.3,-5.14351e-09,0,129368,129368
299.35,-4.50946e-09,0,129316,129316
299.401,-3.84838e-09,0,129328,129328
299.45,-3.16612e-09,0,129368,129368
299.5,-2.41586e-09,0,129316,129316
299.551,-1.63202e-09,0,129320,129320
299.601,-1.05184e-09,0,129324,129324
299.65,-6.10449e-10,0,129328,129328
299.7,-1.14474e-10,0,129286,129286
299.751,2.15974e-10,0,129328,129328
299.8,6.00046e-10,0,129280,129280
299.85,1.53186e-09,0,129264,129264
299.9,2.01187e-09,0,129240,129240
299.951,2.46984e-09,0,129176,129176
300,2.87569e-09,0,129140,129140
300.05,3.23994e-09,0,129096,129096
300.101,3.56726e-09,0,129044,129044
300.15,3.84125e-09,0,129008,129008
300.2,4.0759e-09,0,128970,128970
300.25,4.26184e-09,0,128920,128920
300.301,4.41677e-09,0,128848,128848
300.35,4.53553e-09,0,128884,128884
300.4,4.6047e-09,0,128800,128800
300.451,4.65868e-09,0,128784,128784
300.501,4.67546e-09,0,128712,128712
300.55,4.67075e-09,0,128692,128692
300.6,4.64259e-09,0,128616,128616
300.651,4.59213e-09,0,128580,128580
300.7,4.52894e-09,0,128532,128532
300.75,4.44818e-09,0,128462,128462
300.8,4.35847e-09,0,128424,128424
300.851,4.26085e-09,0,128396,128396
300.9,4.15763e-09,0,128324,128324
300.95,4.04737e-09,0,128282,128282
301.001,3.93138e-09,0,128200,128200
301.05,3.8168e-09,0,128144,128144
301.1,3.70374e-09,0,128074,128074
301.15,3.5912e-09,0,128022,128022
301.201,3.47754e-09,0,128024,128024
301.25,3.36692e-09,0,127936,127936
301.3,3.25998e-09,0,127860,127860
301.35,3.15718e-09,0,127832,127832
301.401,3.05713e-09,0,127792,127792
301.45,2.96325e-09,0,127704,127704
301.5,2.87464e-09,0,127692,127692
301.551,2.79125e-09,0,127656,127656
301.6,2.71614e-09,0,127592,127592
301.65,2.64862e-09,0,127576,127576
301.7,2.58852e-09,0,127540,127540
301.751,2.5351e-09,0,127524,127524
301.8,2.48984e-09,0,127524,127524
301.85,2.45178e-09,0,127392,127392
301.901,2.42143e-09,0,127380,127380
301.951,2.39698e-09,0,127340,127340
302,2.37559e-09,0,127320,127320
302.05,2.36467e-09,0,127320,127320
302.101,2.34979e-09,0,127320,127320
302.15,2.34331e-09,0,127320,127320
302.2,2.33664e-09,0,127272,127272
302.25,2.32947e-09,0,127280,127280
302.301,2.32604e-09,0,127244,127244
302.35,2.32144e-09,0,127240,127240
302.4,2.31818e-09,0,127252,127252
302.451,2.30819e-09,0,127240,127240
302.5,2.29826e-09,0,127216,127216
302.55,2.28901e-09,0,127202,127202
302.6,2.27741e-09,0,127200,127200
302.651,2.26098e-09,0,127192,127192
302.7,2.24445e-09,0,127200,127200
302.75,2.23285e-09,0,127192,127192
302.801,2.22356e-09,0,127188,127188
302.851,2.21421e-09,0,127160,127160
302.9,2.20543e-09,0,127152,127152
302.95,2.19814e-09,0,127638,127638
303.001,2.19071e-09,0,128510,128510
303.05,2.18306e-09,0,129374,129374
303.1,2.17521e-09,0,130246,130246
303.15,2.16737e-09,0,131072,131072
303.201,2.15972e-09,0,131072,131072
303.25,2.15311e-09,0,131072,131072
303.3,2.14833e-09,0,131072,131072
303.351,2.14593e-09,0,131072,131072
303.4,2.14635e-09,0,131072,131072
303.45,2.14942e-09,0,131072,131072
303.5,2.15478e-09,0,131072,131072
303.551,2.16169e-09,0,131072,131072
303.6,2.16959e-09,0,131072,131072
303.65,2.17781e-09,0,131072,131072
303.7,2.18597e-09,0,131072,131072
303.751,2.19389e-09,0,131072,131072
303.8,2.20111e-09,0,131072,131072
303.85,2.20801e-09,0,131072,131072
303.901,2.21455e-09,0,131072,131072
303.95,2.22066e-09,0,131072,131072
304,2.22609e-09,0,131072,131072
304.05,2.23061e-09,0,131072,131072
304.101,2.23398e-09,0,131072,131072
304.15,2.23609e-09,0,131072,131072
304.2,2.23712e-09,0,131072,131072
304.251,2.23736e-09,0,131072,131072
304.301,2.23685e-09,0,131072,131072
304.35,2.23595e-09,0,131072,131072
304.4,2.23561e-09,0,131072,131072
304.451,2.2347e-09,0,131072,131072
304.5,2.23268e-09,0,131072,131072
304.55,2.22981e-09,0,131072,131072
304.6,2.22628e-09,0,131072,131072
304.651,2.22207e-09,0,131072,131072
304.7,2.21769e-09,0,131072,131072
304.75,2.21361e-09,0,131072,131072
304.801,2.21018e-09,0,131072,131072
304.85,2.20709e-09,0,131072,131072
304.9,2.20297e-09,0,131072,131072
304.95,2.19733e-09,0,131072,131072
