250,0,0,2048,2048
250.006,0,0,2048,2048
250.053,0,0,2048,2048
250.105,0,0,2048,2048
250.152,0,0,2048,2048
250.205,0,0,2048,2048
250.252,0,0,2048,2048
250.305,0,0,2048,2048
250.352,0,0,2048,2048
250.404,2.77556e-17,0,2048,2048
250.451,0,0,2048,2048
250.504,0,0,2048,2048
250.551,0,0,2048,2048
250.603,0,0,2048,2048
250.65,2.77556e-17,0,2048,2048
250.703,0,0,2048,2048
250.756,0,0,2048,2048
250.803,0,0,2048,2048
250.855,-2.77556e-17,0,2048,2048
250.902,-2.77556e-17,0,2048,2048
250.955,0,0,2048,2048
251.002,0,0,2048,2048
251.055,0,0,2048,2048
251.101,0,0,2048,2048
251.154,0,0,2048,2048
251.201,0,0,2048,2048
251.254,2.77556e-17,0,2048,2048
251.301,5.55112e-17,0,2048,2048
251.353,5.55112e-17,0,2048,2048
251.4,0,0,2048,2048
251.453,0,0,2048,2048
251.506,0,0,2048,2048
251.553,0,0,2048,2048
251.605,0,0,2048,2048
251.652,0,0,2048,2048
251.705,0,0,2048,2048
251.752,0,0,2048,2048
251.804,0,0,2048,2048
251.851,2.77556e-17,0,2048,2048
251.904,2.77556e-17,0,2048,2048
251.951,2.77556e-17,0,2048,2048
252.004,2.77556e-17,0,2048,2048
252.05,5.55112e-17,0,2048,2048
252.103,5.55112e-17,0,2048,2048
252.15,5.55112e-17,0,2048,2048
252.203,5.55112e-17,0,2048,2048
252.256,5.55112e-17,0,2048,2048
252.302,5.55112e-17,0,2048,2048
252.355,5.55112e-17,0,2048,2048
252.402,5.55112e-17,0,2048,2048
252.455,5.55112e-17,0,2048,2048
252.502,5.55112e-17,0,2048,2048
252.554,0,0,2048,2048
252.601,0,0,2048,2048
252.654,-2.77556e-17,0,2048,2048
252.701,-2.77556e-17,0,2048,2048
252.754,-2.77556e-17,0,2048,2048
252.8,-2.77556e-17,0,2048,2048
252.853,-2.77556e-17,0,2048,2048
252.906,-2.77556e-17,0,2048,2048
252.953,-2.77556e-17,0,2048,2048
253.005,-2.77556e-17,0,2048,2048
253.052,-2.77556e-17,0,2048,2048
253.105,-2.77556e-17,0,2048,2048
253.152,-2.77556e-17,0,2048,2048
253.205,-2.77556e-17,0,2048,2048
253.251,-2.77556e-17,0,2048,2048
253.304,-2.77556e-17,0,2048,2048
253.351,2.77556e-17,0,2048,2048
253.404,5.55112e-17,0,2048,2048
253.451,2.77556e-17,0,2048,2048
253.503,2.77556e-17,0,2048,2048
253.55,2.77556e-17,0,2048,2048
253.603,0,0,2048,2048
253.656,-2.77556e-17,0,2048,2048
253.703,-2.77556e-17,0,2048,2048
253.755,-2.77556e-17,0,2048,2048
253.802,-2.77556e-17,0,2048,2048
253.855,-2.77556e-17,0,2048,2048
253.902,-2.77556e-17,0,2048,2048
253.954,-2.77556e-17,0,2048,2048
254.001,-2.77556e-17,0,2048,2048
254.054,-2.77556e-17,0,2048,2048
254.101,-2.77556e-17,0,2048,2048
254.154,0,0,2048,2048
254.201,2.77556e-17,0,2048,2048
254.253,2.77556e-17,0,2048,2048
254.3,0,0,2048,2048
254.353,2.77556e-17,0,2048,2048
254.406,0,0,2048,2048
254.452,2.77556e-17,0,2048,2048
254.505,0,0,2048,2048
254.552,-2.77556e-17,0,2048,2048
254.605,-2.77556e-17,0,2048,2048
254.652,-2.77556e-17,0,2048,2048
254.704,-2.77556e-17,0,2048,2048
254.751,-2.77556e-17,0,2048,2048
254.804,-2.77556e-17,0,2048,2048
254.851,-2.77556e-17,0,2048,2048
254.904,-2.77556e-17,0,2048,2048
254.95,-2.77556e-17,0,2048,2048
255.003,-2.77556e-17,0,2048,2048
255.05,-2.77556e-17,0,2048,2048
255.103,-2.77556e-17,0,2048,2048
255.155,-2.77556e-17,0,2048,2048
255.202,-2.77556e-17,0,2048,2048
255.255,0,0,2048,2048
255.302,0,0,2048,2048
255.355,0,0,2048,2048
255.402,0,0,2048,2048
255.454,0,0,2048,2048
255.501,-2.77556e-17,0,2048,2048
255.554,-2.77556e-17,0,2048,2048
255.601,-2.77556e-17,0,2048,2048
255.653,-2.77556e-17,0,2048,2048
255.7,0,0,2048,2048
255.753,2.77556e-17,0,2048,2048
255.806,5.55112e-17,0,2048,2048
255.853,2.77556e-17,0,2048,2048
255.905,0,0,2048,2048
255.952,0,0,2048,2048
256.005,2.77556e-17,0,2048,2048
256.052,2.77556e-17,0,2048,2048
256.105,2.77556e-17,0,2048,2048
256.151,2.77556e-17,0,2048,2048
256.204,2.77556e-17,0,2048,2048
256.251,2.77556e-17,0,2048,2048
256.304,2.77556e-17,0,2048,2048
256.351,2.77556e-17,0,2048,2048
256.403,8.32667e-17,0,2048,2048
256.45,8.32667e-17,0,2048,2048
256.503,5.55112e-17,0,2048,2048
256.556,8.32667e-17,0,2048,2048
256.603,5.55112e-17,0,2048,2048
256.655,8.32667e-17,0,2048,2048
256.702,5.55112e-17,0,2048,2048
256.755,5.55112e-17,0,2048,2048
256.802,5.55112e-17,0,2048,2048
256.854,2.77556e-17,0,2048,2048
256.901,2.77556e-17,0,2048,2048
256.954,2.77556e-17,0,2048,2048
257.001,2.77556e-17,0,2048,2048
257.054,2.77556e-17,0,2048,2048
257.101,2.77556e-17,0,2048,2048
257.153,0,0,2048,2048
257.2,0,0,2048,2048
257.253,-2.77556e-17,0,2048,2048
257.306,-2.77556e-17,0,2048,2048
257.352,-2.77556e-17,0,2048,2048
257.405,2.77556e-17,0,2048,2048
257.452,2.77556e-17,0,2048,2048
257.505,0,0,2048,2048
257.552,2.77556e-17,0,2048,2048
257.604,0,0,2048,2048
257.651,0,0,2048,2048
257.704,0,0,2048,2048
257.751,0,0,2048,2048
257.804,0,0,2048,2048
257.85,0,0,2048,2048
257.903,2.77556e-17,0,2048,2048
257.95,0,0,2048,2048
258.003,2.77556e-17,0,2048,2048
258.055,2.77556e-17,0,2048,2048
258.102,0,0,2048,2048
258.155,2.77556e-17,0,2048,2048
258.202,-2.77556e-17,0,2048,2048
258.255,-2.77556e-17,0,2048,2048
258.302,-2.77556e-17,0,2048,2048
258.354,0,0,2048,2048
258.401,5.55112e-17,0,2048,2048
258.454,5.55112e-17,0,2048,2048
258.501,5.55112e-17,0,2048,2048
258.553,5.55112e-17,0,2048,2048
258.6,5.55112e-17,0,2048,2048
258.653,5.55112e-17,0,2048,2048
258.706,5.55112e-17,0,2048,2048
258.753,5.55112e-17,0,2048,2048
258.805,5.55112e-17,0,2048,2048
258.852,5.55112e-17,0,2048,2048
258.905,5.55112e-17,0,2048,2048
258.952,5.55112e-17,0,2048,2048
259.005,5.55112e-17,0,2048,2048
259.051,5.55112e-17,0,2048,2048
259.104,2.77556e-17,0,2048,2048
259.151,2.77556e-17,0,2048,2048
259.204,2.77556e-17,0,2048,2048
259.251,2.77556e-17,0,2048,2048
259.303,2.77556e-17,0,2048,2048
259.35,2.77556e-17,0,2048,2048
259.403,0,0,2048,2048
259.456,2.77556e-17,0,2048,2048
259.503,0,0,2048,2048
259.555,0,0,2048,2048
259.602,0,0,2048,2048
259.655,0,0,2048,2048
259.702,-2.77556e-17,0,2048,2048
259.754,0,0,2048,2048
259.801,0,0,2048,2048
259.854,-5.55112e-17,0,2048,2048
259.901,-5.55112e-17,0,2048,2048
259.954,-5.55112e-17,0,2048,2048
260,-5.55112e-17,0,2048,2048
260.053,-2.77556e-17,0,2048,2048
260.1,-5.55112e-17,0,2048,2048
260.153,-5.55112e-17,0,2048,2048
260.206,-5.55112e-17,0,2048,2048
260.252,-5.55112e-17,0,2048,2048
260.305,-5.55112e-17,0,2048,2048
260.352,-5.55112e-17,0,2048,2048
260.405,-5.55112e-17,0,2048,2048
260.452,-5.55112e-17,0,2048,2048
260.504,-5.55112e-17,0,2048,2048
260.551,-5.55112e-17,0,2048,2048
260.604,-2.77556e-17,0,2048,2048
260.651,-2.77556e-17,0,2048,2048
260.704,-2.77556e-17,0,2048,2048
260.75,-2.77556e-17,0,2048,2048
260.803,-2.77556e-17,0,2048,2048
260.856,-2.77556e-17,0,2048,2048
260.903,-2.77556e-17,0,2048,2048
260.955,-2.77556e-17,0,2048,2048
261.002,-2.77556e-17,0,2048,2048
261.055,-5.55112e-17,0,2048,2048
261.102,-5.55112e-17,0,2048,2048
261.155,-5.55112e-17,0,2048,2048
261.201,-5.55112e-17,0,2048,2048
261.254,-5.55112e-17,0,2048,2048
261.301,-5.55112e-17,0,2048,2048
261.354,-5.55112e-17,0,2048,2048
261.401,-5.55112e-17,0,2048,2048
261.453,-5.55112e-17,0,2048,2048
261.5,-5.55112e-17,0,2048,2048
261.553,-5.55112e-17,0,2048,2048
261.606,-5.55112e-17,0,2048,2048
261.653,-5.55112e-17,0,2048,2048
261.705,-5.55112e-17,0,2048,2048
261.752,-5.55112e-17,0,2048,2048
261.805,-2.77556e-17,0,2048,2048
261.852,-2.77556e-17,0,2048,2048
261.905,-2.77556e-17,0,2048,2048
261.951,-2.77556e-17,0,2048,2048
262.004,-2.77556e-17,0,2048,2048
262.051,-2.77556e-17,0,2048,2048
262.104,-2.77556e-17,0,2048,2048
262.151,-2.77556e-17,0,2048,2048
262.203,-2.77556e-17,0,2048,2048
262.25,-2.77556e-17,0,2048,2048
262.303,-2.77556e-17,0,2048,2048
262.356,-5.55112e-17,0,2048,2048
262.402,-2.77556e-17,0,2048,2048
262.455,0,0,2048,2048
262.502,0,0,2048,2048
262.555,0,0,2048,2048
262.602,0,0,2048,2048
262.654,0,0,2048,2048
262.701,2.77556e-17,0,2048,2048
262.754,5.55112e-17,0,2048,2048
262.801,5.55112e-17,0,2048,2048
262.854,5.55112e-17,0,2048,2048
262.9,5.55112e-17,0,2048,2048
262.953,5.55112e-17,0,2048,2048
263,5.55112e-17,0,2048,2048
263.053,5.55112e-17,0,2048,2048
263.105,5.55112e-17,0,2048,2048
263.152,5.55112e-17,0,2048,2048
263.205,5.55112e-17,0,2048,2048
263.252,0,0,2048,2048
263.305,0,0,2048,2048
263.352,2.77556e-17,0,2048,2048
263.404,5.55112e-17,0,2048,2048
263.451,5.55112e-17,0,2048,2048
263.504,5.55112e-17,0,2048,2048
263.551,2.77556e-17,0,2048,2048
263.603,0,0,2048,2048
263.65,0,0,2048,2048
263.703,0,0,2048,2048
263.756,0,0,2048,2048
263.803,2.77556e-17,0,2048,2048
263.855,0,0,2048,2048
263.902,2.77556e-17,0,2048,2048
263.955,-2.77556e-17,0,2048,2048
264.002,-2.77556e-17,0,2048,2048
264.055,-2.77556e-17,0,2048,2048
264.101,-2.77556e-17,0,2048,2048
264.154,-2.77556e-17,0,2048,2048
264.201,-2.77556e-17,0,2048,2048
264.254,-2.77556e-17,0,2048,2048
264.301,0,0,2048,2048
264.353,2.77556e-17,0,2048,2048
264.4,2.77556e-17,0,2048,2048
264.453,0,0,2048,2048
264.506,0,0,2048,2048
264.553,0,0,2048,2048
264.605,2.77556e-17,0,2048,2048
264.652,2.77556e-17,0,2048,2048
264.705,-2.77556e-17,0,2048,2048
264.752,-2.77556e-17,0,2048,2048
264.804,-2.77556e-17,0,2048,2048
264.851,-2.77556e-17,0,2048,2048
264.904,-2.77556e-17,0,2048,2048
264.951,-2.77556e-17,0,2048,2048
265.004,-2.77556e-17,0,2048,2048
265.051,-2.77556e-17,0,2048,2048
265.103,-2.77556e-17,0,2048,2048
265.15,-2.77556e-17,0,2048,2048
265.203,-2.77556e-17,0,2048,2048
265.256,-2.77556e-17,0,2048,2048
265.302,0,0,2048,2048
265.355,2.77556e-17,0,2048,2048
265.402,2.77556e-17,0,2048,2048
265.455,2.77556e-17,0,2048,2048
265.502,2.77556e-17,0,2048,2048
265.554,2.77556e-17,0,2048,2048
265.601,2.77556e-17,0,2048,2048
265.654,0,0,2048,2048
265.701,-2.77556e-17,0,2048,2048
265.754,-5.55112e-17,0,2048,2048
265.8,-5.55112e-17,0,2048,2048
265.853,-5.55112e-17,0,2048,2048
265.9,-2.77556e-17,0,2048,2048
265.953,-2.77556e-17,0,2048,2048
266.005,-2.77556e-17,0,2048,2048
266.052,-2.77556e-17,0,2048,2048
266.105,-2.77556e-17,0,2048,2048
266.152,0,0,2048,2048
266.205,0,0,2048,2048
266.252,0,0,2048,2048
266.304,-2.77556e-17,0,2048,2048
266.351,-8.32667e-17,0,2048,2048
266.404,-8.32667e-17,0,2048,2048
266.451,-5.55112e-17,0,2048,2048
266.503,-8.32667e-17,0,2048,2048
266.55,-5.55112e-17,0,2048,2048
266.603,-5.55112e-17,0,2048,2048
266.656,-5.55112e-17,0,2048,2048
266.703,-5.55112e-17,0,2048,2048
266.755,-5.55112e-17,0,2048,2048
266.802,-2.77556e-17,0,2048,2048
266.855,-5.55112e-17,0,2048,2048
266.902,-5.55112e-17,0,2048,2048
266.955,-2.77556e-17,0,2048,2048
267.001,-2.77556e-17,0,2048,2048
267.054,-2.77556e-17,0,2048,2048
267.101,-2.77556e-17,0,2048,2048
267.154,-2.77556e-17,0,2048,2048
267.201,-2.77556e-17,0,2048,2048
267.253,-2.77556e-17,0,2048,2048
267.3,-2.77556e-17,0,2048,2048
267.353,-5.55112e-17,0,2048,2048
267.406,-5.55112e-17,0,2048,2048
267.453,-5.55112e-17,0,2048,2048
267.505,-1.11022e-16,0,2048,2048
267.552,-5.55112e-17,0,2048,2048
267.605,-8.32667e-17,0,2048,2048
267.652,-8.32667e-17,0,2048,2048
267.704,-5.55112e-17,0,2048,2048
267.751,-5.55112e-17,0,2048,2048
267.804,-2.77556e-17,0,2048,2048
267.851,-5.55112e-17,0,2048,2048
267.904,-8.32667e-17,0,2048,2048
267.95,-5.55112e-17,0,2048,2048
268.003,-5.55112e-17,0,2048,2048
268.05,-5.55112e-17,0,2048,2048
268.101,-5.55112e-17,0,2122,2122
268.151,-5.55112e-17,0,2182,2182
268.201,-5.55112e-17,0,2230,2230
268.25,-5.55112e-17,0,2278,2278
268.3,-5.55112e-17,0,2326,2326
268.35,-5.55112e-17,0,2362,2362
268.403,-5.55112e-17,0,2410,2410
268.453,-5.55112e-17,0,2458,2458
268.502,-5.55112e-17,0,2506,2506
268.552,-5.55112e-17,0,2554,2554
268.602,-5.55112e-17,0,2602,2602
268.652,-5.55112e-17,0,2638,2638
268.702,-2.77556e-17,0,2686,2686
268.751,-2.77556e-17,0,2734,2734
268.801,-2.77556e-17,0,2770,2770
268.851,-2.77556e-17,0,2818,2818
268.901,-2.77556e-17,0,2866,2866
268.951,-2.77556e-17,0,2906,2906
269,-2.77556e-17,0,2950,2950
269.05,-2.77556e-17,0,2998,2998
269.103,-2.77556e-17,0,3038,3038
269.153,-2.77556e-17,0,3082,3082
269.202,-2.77556e-17,0,3130,3130
269.252,-2.77556e-17,0,3166,3166
269.302,-2.77556e-17,0,3214,3214
269.352,-2.77556e-17,0,3254,3254
269.402,-2.77556e-17,0,3298,3298
269.451,-2.77556e-17,0,3334,3334
269.501,-2.77556e-17,0,3374,3374
269.551,-2.77556e-17,0,3406,3406
269.601,-2.77556e-17,0,3442,3442
269.651,-2.77556e-17,0,3490,3490
269.7,-2.77556e-17,0,3538,3538
269.75,-2.77556e-17,0,3574,3574
269.8,-2.77556e-17,0,3622,3622
269.853,-2.77556e-17,0,3670,3670
269.903,-2.77556e-17,0,3718,3718
269.952,-2.77556e-17,0,3754,3754
270.002,-2.77556e-17,0,3802,3802
270.052,-2.77556e-17,0,3838,3838
270.102,-2.77556e-17,0,3886,3886
270.152,-2.77556e-17,0,3934,3934
270.201,-2.77556e-17,0,3970,3970
270.251,-2.77556e-17,0,4018,4018
270.301,-2.77556e-17,0,4054,4054
270.351,-2.77556e-17,0,4102,4102
270.401,-2.77556e-17,0,4138,4138
270.45,-2.77556e-17,0,4186,4186
270.5,-2.77556e-17,0,4222,4222
270.553,-2.77556e-17,0,4270,4270
270.603,2.498e-16,0,4306,4306
270.652,5.82867e-16,0,4354,4354
270.702,1.02696e-15,0,4390,4390
270.752,2.52576e-15,0,4438,4438
270.802,8.27116e-15,0,4474,4474
270.852,2.53964e-14,0,4510,4510
270.901,6.27276e-14,0,4558,4558
270.951,1.0919e-13,0,4594,4594
271.001,7.87426e-14,0,4642,4642
271.051,-2.50772e-13,0,4678,4678
271.101,-1.49467e-12,0,4714,4714
271.15,-1.61305e-11,0,4762,4762
271.2,-6.69862e-11,0,4798,4798
271.25,-1.69697e-10,0,4834,4834
271.303,-2.93353e-10,0,4882,4882
271.353,-3.33373e-10,0,4918,4918
271.402,-2.40368e-10,0,4954,4954
271.452,-5.09986e-11,0,4990,4990
271.502,1.27672e-10,0,5026,5026
271.552,1.98324e-10,0,5074,5074
271.602,1.43154e-10,0,5110,5110
271.651,3.42087e-11,0,5146,5146
271.701,-2.49571e-11,0,5182,5182
271.751,1.63684e-11,0,5218,5218
271.801,1.16859e-10,0,5258,5258
271.851,1.85338e-10,0,5302,5302
271.9,1.65445e-10,0,5338,5338
271.95,8.37127e-11,0,5374,5374
272.003,1.7477e-11,0,5410,5410
272.053,3.18185e-11,0,5446,5446
272.102,1.05246e-10,0,5482,5482
272.152,1.73423e-10,0,5518,5518
272.202,1.82736e-10,0,5554,5554
272.252,1.3049e-10,0,5590,5590
272.302,5.97836e-11,0,5626,5626
272.351,2.46888e-11,0,5662,5662
272.401,5.51871e-11,0,5698,5698
272.451,1.37358e-10,0,5734,5734
272.501,2.13798e-10,0,5770,5770
272.551,2.13028e-10,0,5806,5806
272.6,1.08734e-10,0,5842,5842
272.65,-2.87606e-11,0,5878,5878
272.7,-5.80618e-11,0,5914,5914
272.753,1.19046e-10,0,5950,5950
272.803,3.60311e-10,0,5986,5986
272.852,3.91673e-10,0,6022,6022
272.902,5.98932e-11,0,6058,6058
272.952,-3.45262e-10,0,6094,6094
273.002,-6.89085e-11,0,6130,6130
273.052,1.70897e-09,0,6154,6154
273.101,5.32638e-09,0,6190,6190
273.151,1.03867e-08,0,6226,6226
273.201,1.59765e-08,0,6262,6262
273.251,2.11407e-08,0,6298,6298
273.301,2.52984e-08,0,6334,6334
273.35,2.84646e-08,0,6362,6362
273.4,3.12714e-08,0,6394,6394
273.453,3.50104e-08,0,6430,6430
273.503,4.03359e-08,0,6466,6466
273.552,4.79857e-08,0,6502,6502
273.602,5.79976e-08,0,6538,6538
273.652,7.02329e-08,0,6574,6574
273.702,8.48609e-08,0,6598,6598
273.752,1.0259e-07,0,6634,6634
273.801,1.2451e-07,0,6670,6670
273.851,1.51706e-07,0,6706,6706
273.901,1.84854e-07,0,6742,6742
273.951,2.23894e-07,0,6766,6766
274.001,2.6791e-07,0,6802,6802
274.05,3.15434e-07,0,6838,6838
274.1,3.65182e-07,0,6874,6874
274.153,4.19838e-07,0,6910,6910
274.203,4.73794e-07,0,6934,6934
274.253,5.30375e-07,0,6970,6970
274.302,5.88736e-07,0,7006,7006
274.352,6.46529e-07,0,7042,7042
274.402,7.0055e-07,0,7066,7066
274.452,7.47782e-07,0,7102,7102
274.502,7.86186e-07,0,7138,7138
274.551,8.15048e-07,0,7174,7174
274.601,8.34949e-07,0,7198,7198
274.651,8.47397e-07,0,7234,7234
274.701,8.54185e-07,0,7270,7270
274.75,8.56743e-07,0,7298,7298
274.8,8.55781e-07,0,7330,7330
274.85,8.51289e-07,0,7366,7366
274.903,8.42062e-07,0,7402,7402
274.953,8.28201e-07,0,7426,7426
275.002,8.08347e-07,0,7462,7462
275.052,7.81666e-07,0,7498,7498
275.102,7.47751e-07,0,7526,7526
275.152,7.06956e-07,0,7542,7542
275.202,6.60608e-07,0,7586,7586
275.251,6.10852e-07,0,7622,7622
275.301,5.60108e-07,0,7654,7654
275.351,5.10472e-07,0,7690,7690
275.401,4.63363e-07,0,7714,7714
275.451,4.19477e-07,0,7750,7750
275.5,3.78926e-07,0,7778,7778
275.55,3.41417e-07,0,7810,7810
275.603,3.04466e-07,0,7838,7838
275.653,2.7168e-07,0,7870,7870
275.703,2.40719e-07,0,7894,7894
275.752,2.11851e-07,0,7922,7922
275.802,1.85851e-07,0,7954,7954
275.852,1.63643e-07,0,7978,7978
275.902,1.45594e-07,0,8002,8002
275.951,1.31003e-07,0,8026,8026
276.001,1.18319e-07,0,8054,8054
276.051,1.06048e-07,0,8078,8078
276.101,9.36338e-08,0,8102,8102
276.151,8.16134e-08,0,8126,8126
276.2,7.10216e-08,0,8150,8150
276.25,6.26168e-08,0,8176,8176
276.3,5.6458e-08,0,8192,8192
276.353,5.16902e-08,0,8192,8192
276.403,4.77862e-08,0,8192,8192
276.452,4.35011e-08,0,8192,8192
276.502,3.84241e-08,0,8192,8192
276.552,3.29127e-08,0,8192,8192
276.602,2.78738e-08,0,8160,8160
276.652,2.418e-08,0,8160,8160
276.701,2.21503e-08,0,8152,8152
276.751,2.147e-08,0,8152,8152
276.801,2.1521e-08,0,8156,8156
276.851,2.178e-08,0,8176,8176
276.901,2.19973e-08,0,8184,8184
276.95,2.21378e-08,0,8176,8176
277,2.22378e-08,0,8192,8192
277.053,2.23076e-08,0,8192,8192
277.103,2.22892e-08,0,8192,8192
277.152,2.21257e-08,0,8192,8192
277.202,2.18238e-08,0,8192,8192
277.252,2.14811e-08,0,8192,8192
277.302,2.12027e-08,0,8192,8192
277.352,2.10196e-08,0,8192,8192
277.401,2.08989e-08,0,8192,8192
277.451,2.07958e-08,0,8192,8192
277.501,2.06821e-08,0,8184,8184
277.551,2.05452e-08,0,8184,8184
277.601,2.03796e-08,0,8184,8184
277.65,2.01829e-08,0,8168,8168
277.7,1.99531e-08,0,8184,8184
277.75,1.96889e-08,0,8144,8144
277.803,1.93707e-08,0,8184,8184
277.853,1.90339e-08,0,8192,8192
277.902,1.86627e-08,0,8168,8168
277.952,1.82595e-08,0,8184,8184
278.002,1.78275e-08,0,8184,8184
278.052,1.73712e-08,0,8192,8192
278.102,1.68951e-08,0,8192,8192
278.151,1.6404e-08,0,8192,8192
278.201,1.59023e-08,0,8192,8192
278.251,1.5394e-08,0,8192,8192
278.301,1.48824e-08,0,8192,8192
278.351,1.43705e-08,0,8192,8192
278.4,1.38613e-08,0,8192,8192
278.45,1.33579e-08,0,8192,8192
278.503,1.28348e-08,0,8192,8192
278.553,1.23541e-08,0,8192,8192
278.602,1.18901e-08,0,8192,8192
278.652,1.14468e-08,0,8192,8192
278.702,1.10276e-08,0,8192,8192
278.752,1.06355e-08,0,8192,8192
278.802,1.02724e-08,0,8192,8192
278.851,9.93924e-09,0,8192,8192
278.901,9.63606e-09,0,8192,8192
278.951,9.36208e-09,0,8192,8192
279.001,9.11599e-09,0,8192,8192
279.051,8.89621e-09,0,8192,8192
279.1,8.70108e-09,0,8192,8192
279.15,8.52898e-09,0,8192,8192
279.2,8.37832e-09,0,8192,8192
279.253,8.24043e-09,0,8184,8184
279.303,8.12886e-09,0,8184,8184
279.352,8.03353e-09,0,8192,8192
279.402,7.95255e-09,0,8192,8192
279.452,7.88406e-09,0,8192,8192
279.502,7.82643e-09,0,8192,8192
279.552,7.77839e-09,0,8192,8192
279.601,7.73898e-09,0,8192,8192
279.651,7.70743e-09,0,8192,8192
279.701,7.68302e-09,0,8192,8192
279.751,7.66493e-09,0,8192,8192
279.801,7.65225e-09,0,8192,8192
279.85,7.64415e-09,0,8192,8192
279.9,7.63997e-09,0,8192,8192
279.953,7.639e-09,0,8192,8192
280.003,7.64134e-09,0,8192,8192
280.052,7.64677e-09,0,8192,8192
280.102,7.65504e-09,0,8192,8192
280.152,7.66606e-09,0,8184,8184
280.202,7.6791e-09,0,8192,8192
280.252,7.69377e-09,0,8192,8192
280.301,7.70951e-09,0,8192,8192
280.351,7.72588e-09,0,8192,8192
280.401,7.74252e-09,0,8192,8192
280.451,7.75932e-09,0,8192,8192
280.501,7.7761e-09,0,8192,8192
280.55,7.79285e-09,0,8192,8192
280.6,7.8096e-09,0,8192,8192
280.65,7.82623e-09,0,8184,8184
280.703,7.84388e-09,0,8192,8192
280.753,7.86055e-09,0,8192,8192
280.802,7.87719e-09,0,8192,8192
280.852,7.89376e-09,0,8192,8192
280.902,7.91023e-09,0,8176,8176
280.952,7.92654e-09,0,8192,8192
281.002,7.94264e-09,0,8184,8184
281.051,7.95846e-09,0,8184,8184
281.101,7.97396e-09,0,8192,8192
281.151,7.98917e-09,0,8184,8184
281.201,8.00402e-09,0,8176,8176
281.251,8.01851e-09,0,8192,8192
281.3,8.03259e-09,0,8168,8168
281.35,8.04623e-09,0,8192,8192
281.403,8.06028e-09,0,8176,8176
281.453,8.07318e-09,0,8192,8192
281.502,8.08566e-09,0,8192,8192
281.552,8.09784e-09,0,8176,8176
281.602,8.11001e-09,0,8168,8168
281.652,8.12247e-09,0,8190,8190
281.702,8.13575e-09,0,8192,8192
281.751,8.15075e-09,0,8172,8172
281.801,8.16893e-09,0,8150,8150
281.851,8.19221e-09,0,8144,8144
281.901,8.22306e-09,0,8136,8136
281.951,8.26454e-09,0,8140,8140
282,8.32018e-09,0,8136,8136
282.05,8.39385e-09,0,8136,8136
282.1,8.48934e-09,0,8140,8140
282.153,8.61809e-09,0,8128,8128
282.203,8.76928e-09,0,8136,8136
282.252,8.95241e-09,0,8128,8128
282.302,9.17076e-09,0,8136,8136
282.352,9.42859e-09,0,8136,8136
282.402,9.73169e-09,0,8136,8136
282.452,1.0088e-08,0,8144,8144
282.501,1.05077e-08,0,8136,8136
282.551,1.10038e-08,0,8144,8144
282.601,1.15909e-08,0,8136,8136
282.651,1.22857e-08,0,8136,8136
282.7,1.31054e-08,0,8136,8136
282.75,1.40677e-08,0,8136,8136
282.8,1.51899e-08,0,8136,8136
282.853,1.65699e-08,0,8136,8136
282.903,1.80693e-08,0,8136,8136
282.952,1.97713e-08,0,8136,8136
283.002,2.16845e-08,0,8136,8136
283.052,2.38141e-08,0,8136,8136
283.102,2.61613e-08,0,8136,8136
283.152,2.87225e-08,0,8136,8136
283.201,3.14897e-08,0,8136,8136
283.251,3.44506e-08,0,8136,8136
283.301,3.75895e-08,0,8136,8136
283.351,4.08894e-08,0,8176,8176
283.401,4.43336e-08,0,8192,8192
283.45,4.79092e-08,0,8192,8192
283.5,5.16102e-08,0,8192,8192
283.553,5.56697e-08,0,8192,8192
283.603,5.96538e-08,0,8192,8192
283.653,6.3813e-08,0,8192,8192
283.702,6.81861e-08,0,8192,8192
283.752,7.28158e-08,0,8192,8192
283.802,7.77408e-08,0,8192,8192
283.852,8.29874e-08,0,8192,8192
283.901,8.85638e-08,0,8192,8192
283.951,9.44604e-08,0,8192,8192
284.001,1.00657e-07,0,8192,8192
284.051,1.07136e-07,0,8192,8192
284.101,1.13905e-07,0,8192,8192
284.15,1.21008e-07,0,8192,8192
284.2,1.28549e-07,0,8192,8192
284.25,1.36691e-07,0,8192,8192
284.303,1.4622e-07,0,8192,8192
284.353,1.56375e-07,0,8192,8192
284.402,1.67982e-07,0,8192,8192
284.452,1.81388e-07,0,8192,8192
284.502,1.96942e-07,0,8192,8192
284.552,2.14974e-07,0,8192,8192
284.602,2.35769e-07,0,8192,8192
284.651,2.59542e-07,0,8192,8192
284.701,2.86414e-07,0,8192,8192
284.751,3.16394e-07,0,8192,8192
284.801,3.49365e-07,0,8192,8192
284.851,3.8507e-07,0,8192,8192
284.9,4.23117e-07,0,8192,8192
284.95,4.62973e-07,0,8192,8192
285.003,5.06405e-07,0,8192,8192
285.053,5.47756e-07,0,8192,8192
285.102,5.88518e-07,0,8192,8192
285.152,6.27729e-07,0,8192,8192
285.202,6.64411e-07,0,8192,8192
285.252,6.97625e-07,0,8192,8192
285.302,7.26537e-07,0,8192,8192
285.351,7.50472e-07,0,8192,8192
285.401,7.68947e-07,0,8192,8192
285.451,7.8168e-07,0,8192,8192
285.501,7.88573e-07,0,8192,8192
285.551,7.89672e-07,0,8192,8192
285.6,7.85112e-07,0,8192,8192
285.65,7.75077e-07,0,8192,8192
285.7,7.59764e-07,0,8192,8192
285.753,7.38018e-07,0,8192,8192
285.803,7.12478e-07,0,8192,8192
285.852,6.82342e-07,0,8192,8192
285.902,6.47951e-07,0,8192,8192
285.952,6.09755e-07,0,8192,8192
286.002,5.68333e-07,0,8192,8192
286.052,5.24383e-07,0,8192,8192
286.101,4.78697e-07,0,8192,8192
286.151,4.32113e-07,0,8192,8192
286.201,3.85462e-07,0,8192,8192
286.251,3.39517e-07,0,8192,8192
286.301,2.94954e-07,0,8192,8192
286.35,2.52328e-07,0,8192,8192
286.4,2.12065e-07,0,8192,8192
286.453,1.72348e-07,0,8192,8192
286.503,1.37798e-07,0,8192,8192
286.552,1.06233e-07,0,8192,8192
286.602,7.76873e-08,0,8192,8192
286.652,5.21289e-08,0,8192,8192
286.702,2.9471e-08,0,8192,8192
286.752,9.57922e-09,0,8192,8192
286.801,-7.71681e-09,0,8192,8192
286.851,-2.26104e-08,0,8192,8192
286.901,-3.53037e-08,0,8192,8192
286.951,-4.59964e-08,0,8192,8192
287.001,-5.4878e-08,0,8192,8192
287.05,-6.21265e-08,0,8192,8192
287.1,-6.79087e-08,0,8192,8192
287.15,-7.23821e-08,0,8192,8192
287.203,-7.58559e-08,0,8192,8192
287.253,-7.80854e-08,0,8192,8192
287.302,-7.94128e-08,0,8192,8192
287.352,-7.99342e-08,0,8192,8192
287.402,-7.9726e-08,0,8192,8192
287.452,-7.88489e-08,0,8192,8192
287.502,-7.73569e-08,0,8192,8192
287.551,-7.53064e-08,0,8192,8192
287.601,-7.27634e-08,0,8192,8192
287.651,-6.98069e-08,0,8192,8192
287.701,-6.65279e-08,0,8192,8192
287.751,-6.30244e-08,0,8192,8192
287.8,-5.93937e-08,0,8192,8192
287.85,-5.57261e-08,0,8192,8192
287.903,-5.18877e-08,0,8192,8192
287.953,-4.83683e-08,0,8192,8192
288.002,-4.49956e-08,0,8192,8192
288.052,-4.17968e-08,0,8192,8192
288.102,-3.87867e-08,0,8192,8192
288.152,-3.59707e-08,0,8192,8192
288.202,-3.33478e-08,0,8192,8192
288.251,-3.09136e-08,0,8192,8192
288.301,-2.86617e-08,0,8192,8192
288.351,-2.65853e-08,0,8192,8192
288.401,-2.46773e-08,0,8192,8192
288.451,-2.29305e-08,0,8192,8192
288.5,-2.13373e-08,0,8192,8192
288.55,-1.98902e-08,0,8192,8192
288.6,-1.85807e-08,0,8192,8192
288.653,-1.73348e-08,0,8192,8192
288.703,-1.62815e-08,0,8192,8192
288.752,-1.53391e-08,0,8192,8192
288.802,-1.44988e-08,0,8192,8192
288.852,-1.37522e-08,0,8192,8192
288.902,-1.30917e-08,0,8192,8192
288.952,-1.251e-08,0,8192,8192
289.001,-1.2001e-08,0,8192,8192
289.051,-1.15587e-08,0,8192,8192
289.101,-1.11781e-08,0,8192,8192
289.151,-1.08546e-08,0,8192,8192
289.201,-1.05837e-08,0,8192,8192
289.25,-1.03613e-08,0,8192,8192
289.3,-1.01835e-08,0,8192,8192
289.353,-1.00394e-08,0,8192,8192
289.403,-9.94072e-09,0,8192,8192
289.452,-9.87433e-09,0,8192,8192
289.502,-9.83615e-09,0,8192,8192
289.552,-9.82209e-09,0,8192,8192
289.602,-9.82799e-09,0,8192,8192
289.652,-9.85036e-09,0,8192,8192
289.701,-9.88522e-09,0,8192,8192
289.751,-9.92945e-09,0,8192,8192
289.801,-9.97997e-09,0,8192,8192
289.851,-1.00342e-08,0,8192,8192
289.901,-1.009e-08,0,8192,8192
289.95,-1.01456e-08,0,8192,8192
290,-1.01998e-08,0,8192,8192
290.053,-1.02544e-08,0,8192,8192
290.103,-1.0303e-08,0,8192,8192
290.153,-1.03483e-08,0,8192,8192
290.202,-1.03903e-08,0,8192,8192
290.252,-1.04291e-08,0,8192,8192
290.302,-1.04652e-08,0,8192,8192
290.352,-1.04987e-08,0,8192,8192
290.402,-1.05302e-08,0,8192,8192
290.451,-1.05598e-08,0,8192,8192
290.501,-1.05879e-08,0,8192,8192
290.551,-1.06144e-08,0,8192,8192
290.601,-1.06395e-08,0,8192,8192
290.65,-1.06629e-08,0,8152,8152
290.7,-1.06846e-08,0,8192,8192
290.75,-1.07045e-08,0,8192,8192
290.803,-1.07237e-08,0,8192,8192
290.853,-1.07401e-08,0,8192,8192
290.902,-1.07553e-08,0,8192,8192
290.952,-1.07695e-08,0,8192,8192
291.002,-1.07839e-08,0,8192,8192
291.052,-1.07994e-08,0,8192,8192
291.102,-1.08171e-08,0,8184,8184
291.151,-1.08385e-08,0,8192,8192
291.201,-1.0865e-08,0,8192,8192
291.251,-1.08982e-08,0,8192,8192
291.301,-1.09398e-08,0,8192,8192
291.351,-1.09914e-08,0,8192,8192
291.4,-1.10543e-08,0,8192,8192
291.45,-1.11301e-08,0,8192,8192
291.503,-1.12256e-08,0,8192,8192
291.553,-1.13309e-08,0,8192,8192
291.602,-1.14515e-08,0,8192,8192
291.652,-1.15876e-08,0,8192,8192
291.702,-1.17389e-08,0,8192,8192
291.752,-1.19052e-08,0,8192,8192
291.802,-1.20859e-08,0,8192,8192
291.851,-1.22806e-08,0,8192,8192
291.901,-1.2489e-08,0,8192,8192
291.951,-1.27113e-08,0,8192,8192
292.001,-1.29476e-08,0,8192,8192
292.051,-1.31985e-08,0,8192,8192
292.1,-1.34647e-08,0,8192,8192
292.15,-1.37469e-08,0,8192,8192
292.2,-1.40453e-08,0,8192,8192
292.253,-1.43792e-08,0,8192,8192
292.303,-1.47111e-08,0,8192,8192
292.352,-1.50581e-08,0,8192,8192
292.402,-1.5419e-08,0,8168,8168
292.452,-1.57921e-08,0,8148,8148
292.502,-1.61756e-08,0,8136,8136
292.552,-1.65673e-08,0,8116,8116
292.601,-1.69652e-08,0,8152,8152
292.651,-1.7367e-08,0,8128,8128
292.701,-1.77708e-08,0,8160,8160
292.751,-1.81741e-08,0,8152,8152
292.801,-1.85748e-08,0,8160,8160
292.85,-1.89705e-08,0,8168,8168
292.9,-1.93589e-08,0,8160,8160
292.953,-1.97594e-08,0,8152,8152
293.003,-2.01249e-08,0,8152,8152
293.052,-2.04756e-08,0,8156,8156
293.102,-2.08091e-08,0,8150,8150
293.152,-2.11233e-08,0,8152,8152
293.202,-2.14159e-08,0,8152,8152
293.252,-2.16851e-08,0,8148,8148
293.301,-2.19294e-08,0,8154,8154
293.351,-2.21473e-08,0,8134,8134
293.401,-2.23378e-08,0,8164,8164
293.451,-2.25003e-08,0,8148,8148
293.501,-2.26343e-08,0,8156,8156
293.55,-2.274e-08,0,8152,8152
293.6,-2.2818e-08,0,8172,8172
293.65,-2.2869e-08,0,8160,8160
293.703,-2.28949e-08,0,8168,8168
293.753,-2.28942e-08,0,8168,8168
293.802,-2.28708e-08,0,8160,8160
293.852,-2.28265e-08,0,8160,8160
293.902,-2.27632e-08,0,8160,8160
293.952,-2.26829e-08,0,8176,8176
294.002,-2.25878e-08,0,8192,8192
294.051,-2.24799e-08,0,8192,8192
294.101,-2.23611e-08,0,8192,8192
294.151,-2.22334e-08,0,8192,8192
294.201,-2.20985e-08,0,8192,8192
294.251,-2.19579e-08,0,8192,8192
294.3,-2.18131e-08,0,8192,8192
294.35,-2.16654e-08,0,8192,8192
294.403,-2.15069e-08,0,8192,8192
294.453,-2.13565e-08,0,8192,8192
294.502,-2.12061e-08,0,8192,8192
294.552,-2.10566e-08,0,8192,8192
294.602,-2.09088e-08,0,8192,8192
294.652,-2.07631e-08,0,8192,8192
294.702,-2.06202e-08,0,8192,8192
294.751,-2.04805e-08,0,8192,8192
294.801,-2.03444e-08,0,8192,8192
294.851,-2.02123e-08,0,8192,8192
294.901,-2.00845e-08,0,8192,8192
294.951,-1.9961e-08,0,8192,8192
295,-1.98422e-08,0,8192,8192
295.05,-1.97279e-08,0,8192,8192
295.1,-1.96183e-08,0,8192,8192
295.153,-1.95072e-08,0,8192,8192
295.203,-1.94068e-08,0,8192,8192
295.252,-1.93107e-08,0,8192,8192
295.302,-1.92187e-08,0,8192,8192
295.352,-1.91306e-08,0,8192,8192
295.402,-1.9046e-08,0,8192,8192
295.452,-1.89648e-08,0,8192,8192
295.501,-1.88866e-08,0,8192,8192
295.551,-1.88112e-08,0,8192,8192
295.601,-1.87382e-08,0,8192,8192
295.651,-1.86675e-08,0,8192,8192
295.701,-1.85986e-08,0,8192,8192
295.75,-1.85314e-08,0,8192,8192
295.8,-1.84655e-08,0,8192,8192
295.853,-1.8397e-08,0,8192,8192
295.903,-1.83333e-08,0,8192,8192
295.952,-1.82702e-08,0,8192,8192
296.002,-1.82076e-08,0,8192,8192
296.052,-1.81453e-08,0,8192,8192
296.102,-1.80831e-08,0,8192,8192
296.152,-1.80209e-08,0,8192,8192
296.201,-1.79585e-08,0,8192,8192
296.251,-1.78957e-08,0,8192,8192
296.301,-1.78325e-08,0,8192,8192
296.351,-1.77686e-08,0,8192,8192
296.401,-1.77039e-08,0,8192,8192
296.45,-1.76383e-08,0,8192,8192
296.5,-1.75716e-08,0,8192,8192
296.55,-1.75037e-08,0,8192,8192
296.603,-1.74302e-08,0,8192,8192
296.653,-1.73592e-08,0,8192,8192
296.702,-1.72864e-08,0,8192,8192
296.752,-1.72115e-08,0,8192,8192
296.802,-1.71344e-08,0,8192,8192
296.852,-1.7055e-08,0,8192,8192
296.902,-1.69728e-08,0,8192,8192
296.951,-1.68878e-08,0,8192,8192
297.001,-1.67996e-08,0,8192,8192
297.051,-1.6708e-08,0,8192,8192
297.101,-1.66128e-08,0,8192,8192
297.151,-1.65138e-08,0,8192,8192
297.2,-1.64107e-08,0,8192,8192
297.25,-1.63034e-08,0,8192,8192
297.303,-1.61849e-08,0,8192,8192
297.353,-1.60682e-08,0,8192,8192
297.402,-1.59468e-08,0,8192,8192
297.452,-1.58205e-08,0,8192,8192
297.502,-1.56891e-08,0,8192,8192
297.552,-1.55526e-08,0,8192,8192
297.602,-1.54108e-08,0,8192,8192
297.651,-1.52637e-08,0,8192,8192
297.701,-1.51112e-08,0,8192,8192
297.751,-1.49532e-08,0,8192,8192
297.801,-1.47895e-08,0,8192,8192
297.851,-1.46202e-08,0,8192,8192
297.9,-1.44451e-08,0,8192,8192
297.95,-1.4264e-08,0,8192,8192
298.003,-1.40658e-08,0,8192,8192
298.053,-1.38722e-08,0,8192,8192
298.103,-1.36721e-08,0,8124,8124
298.152,-1.34654e-08,0,8184,8184
298.202,-1.32515e-08,0,8192,8192
298.252,-1.30301e-08,0,8192,8192
298.302,-1.28006e-08,0,8192,8192
298.352,-1.25621e-08,0,8192,8192
298.401,-1.2314e-08,0,8192,8192
298.451,-1.20551e-08,0,8192,8192
298.501,-1.17843e-08,0,8192,8192
298.551,-1.15003e-08,0,8192,8192
298.6,-1.12019e-08,0,8192,8192
298.65,-1.08877e-08,0,8192,8192
298.7,-1.05562e-08,0,8192,8192
298.753,-1.0185e-08,0,8192,8192
298.803,-9.81408e-09,0,8192,8192
298.852,-9.42236e-09,0,8192,8192
298.902,-9.00912e-09,0,8192,8192
298.952,-8.57396e-09,0,8192,8192
299.002,-8.11686e-09,0,8192,8192
299.052,-7.63821e-09,0,8192,8192
299.101,-7.13887e-09,0,8192,8192
299.151,-6.62017e-09,0,8192,8192
299.201,-6.0839e-09,0,8192,8192
299.251,-5.53231e-09,0,8192,8192
299.301,-4.96803e-09,0,8192,8192
299.35,-4.3941e-09,0,8192,8192
299.4,-3.81381e-09,0,8192,8192
299.453,-3.19639e-09,0,8132,8132
299.503,-2.61431e-09,0,8184,8184
299.553,-2.03709e-09,0,8192,8192
299.602,-1.46849e-09,0,8192,8192
299.652,-9.12213e-10,0,8192,8192
299.702,-3.71842e-10,0,8192,8192
299.752,1.49231e-10,0,8192,8192
299.801,6.47848e-10,0,8192,8192
299.851,1.12114e-09,0,8192,8192
299.901,1.56655e-09,0,8192,8192
299.951,1.98191e-09,0,8184,8184
300.001,2.36543e-09,0,8192,8192
300.05,2.71577e-09,0,8192,8192
300.1,3.03201e-09,0,8192,8192
300.15,3.31368e-09,0,8192,8192
300.203,3.57424e-09,0,8192,8192
300.253,3.78518e-09,0,8192,8192
300.302,3.96282e-09,0,8192,8192
300.352,4.10834e-09,0,8192,8192
300.402,4.22326e-09,0,8184,8184
300.452,4.30935e-09,0,8192,8192
300.502,4.36858e-09,0,8192,8192
300.551,4.40309e-09,0,8192,8192
300.601,4.41512e-09,0,8192,8192
300.651,4.40695e-09,0,8192,8192
300.701,4.38089e-09,0,8176,8176
300.751,4.33919e-09,0,8192,8192
300.8,4.28405e-09,0,8192,8192
300.85,4.21758e-09,0,8192,8192
300.903,4.13706e-09,0,8192,8192
300.953,4.05338e-09,0,8192,8192
301.002,3.96406e-09,0,8192,8192
301.052,3.87067e-09,0,8192,8192
301.102,3.77468e-09,0,8192,8192
301.152,3.67743e-09,0,8192,8192
301.202,3.58017e-09,0,8192,8192
301.251,3.48403e-09,0,8192,8192
301.301,3.39008e-09,0,8184,8184
301.351,3.29927e-09,0,8192,8192
301.401,3.21249e-09,0,8192,8192
301.451,3.13054e-09,0,8192,8192
301.5,3.05411e-09,0,8192,8192
301.55,2.98376e-09,0,8192,8192
301.6,2.91991e-09,0,8192,8192
301.653,2.85971e-09,0,8192,8192
301.703,2.80993e-09,0,8192,8192
301.752,2.76691e-09,0,8192,8192
301.802,2.73036e-09,0,8184,8184
301.852,2.69979e-09,0,8192,8192
301.902,2.67451e-09,0,8192,8192
301.952,2.6537e-09,0,8192,8192
302.001,2.63639e-09,0,8192,8192
302.051,2.62153e-09,0,8192,8192
302.101,2.60799e-09,0,8192,8192
302.151,2.59468e-09,0,8192,8192
302.201,2.58052e-09,0,8192,8192
302.25,2.56457e-09,0,8192,8192
302.3,2.54599e-09,0,8192,8192
302.353,2.52276e-09,0,8192,8192
302.403,2.49702e-09,0,8192,8192
302.452,2.46739e-09,0,8192,8192
302.502,2.43393e-09,0,8192,8192
302.552,2.39689e-09,0,8192,8192
302.602,2.35671e-09,0,8184,8184
302.652,2.31396e-09,0,8184,8184
302.701,2.26935e-09,0,8192,8192
302.751,2.2236e-09,0,8184,8184
302.801,2.1775e-09,0,8192,8192
302.851,2.1318e-09,0,8184,8184
302.901,2.08725e-09,0,8192,8192
302.95,2.04455e-09,0,8192,8192
303,2.00435e-09,0,8192,8192
303.05,1.96727e-09,0,8192,8192
303.103,1.93204e-09,0,8192,8192
303.153,1.90309e-09,0,8192,8192
303.202,1.87881e-09,0,8192,8192
303.252,1.85956e-09,0,8192,8192
303.302,1.84559e-09,0,8192,8192
303.352,1.83705e-09,0,8176,8176
303.402,1.83396e-09,0,8184,8184
303.451,1.83625e-09,0,8184,8184
303.501,1.84352e-09,0,8168,8168
303.551,1.85521e-09,0,8176,8176
303.601,1.87106e-09,0,8184,8184
303.651,1.89045e-09,0,8176,8176
303.7,1.91267e-09,0,8192,8192
303.75,1.93706e-09,0,8192,8192
303.803,1.96449e-09,0,8184,8184
303.853,1.99121e-09,0,8168,8168
303.902,2.0181e-09,0,8168,8168
303.952,2.04463e-09,0,8148,8148
304.002,2.07035e-09,0,8184,8184
304.052,2.09486e-09,0,8176,8176
304.102,2.11788e-09,0,8184,8184
304.151,2.1392e-09,0,8192,8192
304.201,2.15867e-09,0,8144,8144
304.251,2.17622e-09,0,8168,8168
304.301,2.1918e-09,0,8184,8184
304.351,2.20546e-09,0,8192,8192
304.4,2.21729e-09,0,8192,8192
304.45,2.22731e-09,0,8176,8176
304.5,2.23551e-09,0,8144,8144
304.553,2.24233e-09,0,8192,8192
304.603,2.24718e-09,0,8192,8192
304.652,2.25057e-09,0,8176,8176
304.702,2.25257e-09,0,8136,8136
304.752,2.25307e-09,0,8168,8168
304.802,2.25248e-09,0,8176,8176
304.852,2.25072e-09,0,8192,8192
304.901,2.24761e-09,0,8184,8184
304.951,2.2434e-09,0,8168,8168
