250,0,0,512,512
250.012,0,0,512,512
250.059,0,0,512,512
250.105,0,0,512,512
250.152,0,0,512,512
250.211,0,0,512,512
250.258,0,0,512,512
250.305,0,0,512,512
250.352,0,0,512,512
250.41,0,0,512,512
250.457,0,0,512,512
250.504,0,0,512,512
250.551,0,0,512,512
250.609,0,0,512,512
250.656,0,0,512,512
250.703,0,0,512,512
250.762,0,0,512,512
250.808,0,0,512,512
250.855,0,0,512,512
250.902,0,0,512,512
250.961,2.77556e-17,0,512,512
251.008,2.77556e-17,0,512,512
251.055,2.77556e-17,0,512,512
251.101,0,0,512,512
251.16,0,0,512,512
251.207,0,0,512,512
251.254,0,0,512,512
251.301,0,0,512,512
251.359,0,0,512,512
251.406,0,0,512,512
251.453,0,0,512,512
251.511,0,0,512,512
251.558,0,0,512,512
251.605,0,0,512,512
251.652,0,0,512,512
251.711,0,0,512,512
251.758,0,0,512,512
251.804,0,0,512,512
251.851,0,0,512,512
251.91,0,0,512,512
251.957,0,0,512,512
252.004,0,0,512,512
252.05,0,0,512,512
252.109,0,0,512,512
252.156,0,0,512,512
252.203,0,0,512,512
252.261,0,0,512,512
252.308,0,0,512,512
252.355,0,0,512,512
252.402,0,0,512,512
252.461,0,0,512,512
252.507,-2.77556e-17,0,512,512
252.554,-2.77556e-17,0,512,512
252.601,-2.77556e-17,0,512,512
252.66,-2.77556e-17,0,512,512
252.707,-2.77556e-17,0,512,512
252.754,-2.77556e-17,0,512,512
252.8,0,0,512,512
252.859,0,0,512,512
252.906,-2.77556e-17,0,512,512
252.953,-2.77556e-17,0,512,512
253.011,-2.77556e-17,0,512,512
253.058,-2.77556e-17,0,512,512
253.105,-2.77556e-17,0,512,512
253.152,-2.77556e-17,0,512,512
253.21,-2.77556e-17,0,512,512
253.257,-2.77556e-17,0,512,512
253.304,-2.77556e-17,0,512,512
253.351,0,0,512,512
253.41,0,0,512,512
253.457,0,0,512,512
253.503,0,0,512,512
253.55,0,0,512,512
253.609,0,0,512,512
253.656,0,0,512,512
253.703,0,0,512,512
253.761,0,0,512,512
253.808,0,0,512,512
253.855,0,0,512,512
253.902,-2.77556e-17,0,512,512
253.96,-2.77556e-17,0,512,512
254.007,-2.77556e-17,0,512,512
254.054,0,0,512,512
254.101,-2.77556e-17,0,512,512
254.16,0,0,512,512
254.206,0,0,512,512
254.253,0,0,512,512
254.3,0,0,512,512
254.359,0,0,512,512
254.406,0,0,512,512
254.452,0,0,512,512
254.511,0,0,512,512
254.558,0,0,512,512
254.605,0,0,512,512
254.652,-2.77556e-17,0,512,512
254.71,-2.77556e-17,0,512,512
254.757,-2.77556e-17,0,512,512
254.804,-2.77556e-17,0,512,512
254.851,-2.77556e-17,0,512,512
254.909,-2.77556e-17,0,512,512
254.956,0,0,512,512
255.003,0,0,512,512
255.05,0,0,512,512
255.109,0,0,512,512
255.155,0,0,512,512
255.202,0,0,512,512
255.261,0,0,512,512
255.308,0,0,512,512
255.355,0,0,512,512
255.402,0,0,512,512
255.46,0,0,512,512
255.507,0,0,512,512
255.554,0,0,512,512
255.601,0,0,512,512
255.659,0,0,512,512
255.706,0,0,512,512
255.753,0,0,512,512
255.812,0,0,512,512
255.859,0,0,512,512
255.905,0,0,512,512
255.952,-2.77556e-17,0,512,512
256.011,-2.77556e-17,0,512,512
256.058,-2.77556e-17,0,512,512
256.105,-2.77556e-17,0,512,512
256.151,-2.77556e-17,0,512,512
256.21,-2.77556e-17,0,512,512
256.257,-2.77556e-17,0,512,512
256.304,-2.77556e-17,0,512,512
256.351,-2.77556e-17,0,512,512
256.409,-2.77556e-17,0,512,512
256.456,-2.77556e-17,0,512,512
256.503,0,0,512,512
256.562,0,0,512,512
256.608,0,0,512,512
256.655,-2.77556e-17,0,512,512
256.702,-2.77556e-17,0,512,512
256.761,-2.77556e-17,0,512,512
256.808,-5.55112e-17,0,512,512
256.854,-5.55112e-17,0,512,512
256.901,-5.55112e-17,0,512,512
256.96,-5.55112e-17,0,512,512
257.007,-5.55112e-17,0,512,512
257.054,-5.55112e-17,0,512,512
257.101,-5.55112e-17,0,512,512
257.159,-5.55112e-17,0,512,512
257.206,-5.55112e-17,0,512,512
257.253,-5.55112e-17,0,512,512
257.311,-2.77556e-17,0,512,512
257.358,-2.77556e-17,0,512,512
257.405,-2.77556e-17,0,512,512
257.452,-2.77556e-17,0,512,512
257.511,-2.77556e-17,0,512,512
257.557,0,0,512,512
257.604,-2.77556e-17,0,512,512
257.651,0,0,512,512
257.71,0,0,512,512
257.757,0,0,512,512
257.804,0,0,512,512
257.85,-2.77556e-17,0,512,512
257.909,-2.77556e-17,0,512,512
257.956,0,0,512,512
258.003,0,0,512,512
258.061,0,0,512,512
258.108,0,0,512,512
258.155,0,0,512,512
258.202,0,0,512,512
258.261,2.77556e-17,0,512,512
258.307,0,0,512,512
258.354,0,0,512,512
258.401,0,0,512,512
258.46,0,0,512,512
258.507,0,0,512,512
258.553,0,0,512,512
258.6,-2.77556e-17,0,512,512
258.659,2.77556e-17,0,512,512
258.706,5.55112e-17,0,512,512
258.753,2.77556e-17,0,512,512
258.811,2.77556e-17,0,512,512
258.858,5.55112e-17,0,512,512
258.905,2.77556e-17,0,512,512
258.952,2.77556e-17,0,512,512
259.01,2.77556e-17,0,512,512
259.057,2.77556e-17,0,512,512
259.104,2.77556e-17,0,512,512
259.151,2.77556e-17,0,512,512
259.21,0,0,512,512
259.256,0,0,512,512
259.303,0,0,512,512
259.35,0,0,512,512
259.409,0,0,512,512
259.456,0,0,512,512
259.503,0,0,512,512
259.561,0,0,512,512
259.608,0,0,512,512
259.655,0,0,512,512
259.702,0,0,512,512
259.76,0,0,512,512
259.807,0,0,512,512
259.854,0,0,512,512
259.901,2.77556e-17,0,512,512
259.959,0,0,512,512
260.006,2.77556e-17,0,512,512
260.053,2.77556e-17,0,512,512
260.1,2.77556e-17,0,512,512
260.159,2.77556e-17,0,512,512
260.206,2.77556e-17,0,512,512
260.252,2.77556e-17,0,512,512
260.311,2.77556e-17,0,512,512
260.358,2.77556e-17,0,512,512
260.405,2.77556e-17,0,512,512
260.452,2.77556e-17,0,512,512
260.51,2.77556e-17,0,512,512
260.557,5.55112e-17,0,512,512
260.604,5.55112e-17,0,512,512
260.651,5.55112e-17,0,512,512
260.709,2.77556e-17,0,512,512
260.756,0,0,512,512
260.803,0,0,512,512
260.862,0,0,512,512
260.909,0,0,512,512
260.955,0,0,512,512
261.002,0,0,512,512
261.061,2.77556e-17,0,512,512
261.108,2.77556e-17,0,512,512
261.155,0,0,512,512
261.201,2.77556e-17,0,512,512
261.26,-2.77556e-17,0,512,512
261.307,0,0,512,512
261.354,0,0,512,512
261.401,0,0,512,512
261.459,0,0,512,512
261.506,2.77556e-17,0,512,512
261.553,2.77556e-17,0,512,512
261.612,0,0,512,512
261.658,-2.77556e-17,0,512,512
261.705,0,0,512,512
261.752,2.77556e-17,0,512,512
261.811,2.77556e-17,0,512,512
261.858,0,0,512,512
261.905,2.77556e-17,0,512,512
261.951,2.77556e-17,0,512,512
262.01,-5.55112e-17,0,512,512
262.057,-2.77556e-17,0,512,512
262.104,0,0,512,512
262.151,0,0,512,512
262.209,-2.77556e-17,0,512,512
262.256,-2.77556e-17,0,512,512
262.303,-2.77556e-17,0,512,512
262.361,-2.77556e-17,0,512,512
262.408,0,0,512,512
262.455,0,0,512,512
262.502,0,0,512,512
262.561,0,0,512,512
262.608,0,0,512,512
262.654,2.77556e-17,0,512,512
262.701,2.77556e-17,0,512,512
262.76,0,0,512,512
262.807,0,0,512,512
262.854,0,0,512,512
262.9,0,0,512,512
262.959,0,0,512,512
263.006,0,0,512,512
263.053,0,0,512,512
263.111,0,0,512,512
263.158,-2.77556e-17,0,512,512
263.205,0,0,512,512
263.252,0,0,512,512
263.311,0,0,512,512
263.357,0,0,512,512
263.404,0,0,512,512
263.451,2.77556e-17,0,512,512
263.51,2.77556e-17,0,512,512
263.557,0,0,512,512
263.603,-2.77556e-17,0,512,512
263.65,-2.77556e-17,0,512,512
263.709,-2.77556e-17,0,512,512
263.756,0,0,512,512
263.803,0,0,512,512
263.861,0,0,512,512
263.908,0,0,512,512
263.955,-2.77556e-17,0,512,512
264.002,-2.77556e-17,0,512,512
264.06,-2.77556e-17,0,512,512
264.107,-2.77556e-17,0,512,512
264.154,0,0,512,512
264.201,-2.77556e-17,0,512,512
264.26,0,0,512,512
264.306,0,0,512,512
264.353,-5.55112e-17,0,512,512
264.4,-2.77556e-17,0,512,512
264.459,-2.77556e-17,0,512,512
264.506,-2.77556e-17,0,512,512
264.553,-2.77556e-17,0,512,512
264.611,-2.77556e-17,0,512,512
264.658,-2.77556e-17,0,512,512
264.705,0,0,512,512
264.752,0,0,512,512
264.81,-2.77556e-17,0,512,512
264.857,-2.77556e-17,0,512,512
264.904,0,0,512,512
264.951,0,0,512,512
265.01,0,0,512,512
265.056,0,0,512,512
265.103,0,0,512,512
265.15,0,0,512,512
265.209,0,0,512,512
265.256,0,0,512,512
265.302,0,0,512,512
265.361,0,0,512,512
265.408,0,0,512,512
265.455,0,0,512,512
265.502,0,0,512,512
265.56,0,0,512,512
265.607,0,0,512,512
265.654,0,0,512,512
265.701,0,0,512,512
265.759,0,0,512,512
265.806,0,0,512,512
265.853,0,0,512,512
265.9,0,0,512,512
265.959,0,0,512,512
266.005,0,0,512,512
266.052,2.77556e-17,0,512,512
266.111,2.77556e-17,0,512,512
266.158,2.77556e-17,0,512,512
266.205,0,0,512,512
266.252,0,0,512,512
266.31,2.77556e-17,0,512,512
266.357,2.77556e-17,0,512,512
266.404,2.77556e-17,0,512,512
266.451,2.77556e-17,0,512,512
266.509,2.77556e-17,0,512,512
266.556,2.77556e-17,0,512,512
266.603,2.77556e-17,0,512,512
266.662,2.77556e-17,0,512,512
266.708,2.77556e-17,0,512,512
266.755,2.77556e-17,0,512,512
266.802,2.77556e-17,0,512,512
266.861,2.77556e-17,0,512,512
266.908,2.77556e-17,0,512,512
266.955,2.77556e-17,0,512,512
267.001,2.77556e-17,0,512,512
267.06,2.77556e-17,0,512,512
267.107,2.77556e-17,0,512,512
267.154,2.77556e-17,0,512,512
267.201,2.77556e-17,0,512,512
267.259,2.77556e-17,0,512,512
267.306,2.77556e-17,0,512,512
267.353,2.77556e-17,0,512,512
267.412,2.77556e-17,0,512,512
267.458,2.77556e-17,0,512,512
267.505,2.77556e-17,0,512,512
267.552,2.77556e-17,0,512,512
267.611,2.77556e-17,0,512,512
267.658,2.77556e-17,0,512,512
267.704,2.77556e-17,0,512,512
267.751,5.55112e-17,0,512,512
267.81,5.55112e-17,0,512,512
267.857,5.55112e-17,0,512,512
267.904,8.32667e-17,0,512,512
267.95,8.32667e-17,0,512,512
268.009,5.55112e-17,0,512,512
268.056,5.55112e-17,0,512,512
268.101,5.55112e-17,0,675,675
268.151,5.55112e-17,0,819,819
268.201,5.55112e-17,0,871,871
268.251,5.55112e-17,0,951,951
268.3,5.55112e-17,0,1097,1097
268.35,5.55112e-17,0,1167,1167
268.401,5.55112e-17,0,1191,1191
268.451,5.55112e-17,0,1211,1211
268.501,5.55112e-17,0,1201,1201
268.551,5.55112e-17,0,1271,1271
268.601,5.55112e-17,0,1193,1193
268.65,5.55112e-17,0,1219,1219
268.7,5.55112e-17,0,1323,1323
268.751,5.55112e-17,0,1359,1359
268.8,5.55112e-17,0,1415,1415
268.85,5.55112e-17,0,1427,1427
268.902,5.55112e-17,0,1517,1517
268.952,5.55112e-17,0,1561,1561
269.001,5.55112e-17,0,1577,1577
269.051,2.498e-16,0,1601,1601
269.101,1.05471e-15,0,1641,1641
269.15,3.94129e-15,0,1639,1639
269.2,1.35447e-14,0,1667,1667
269.252,3.41949e-14,0,1655,1655
269.302,4.14668e-14,0,1707,1707
269.351,-8.8457e-14,0,1751,1751
269.401,-7.28639e-13,0,1771,1771
269.451,-2.73137e-12,0,1869,1869
269.501,-7.47163e-12,0,1963,1963
269.551,-1.68441e-11,0,1939,1939
269.601,-3.29922e-11,0,2023,2023
269.65,-5.87505e-11,0,2155,2155
269.7,-1.27686e-10,0,2257,2257
269.751,-2.89783e-10,0,2463,2463
269.801,-3.46305e-10,0,2691,2691
269.851,-2.69642e-10,0,2843,2843
269.901,-1.30535e-11,0,2983,2983
269.951,1.80578e-10,0,3127,3127
270,2.16434e-10,0,3337,3337
270.05,1.38567e-10,0,3489,3489
270.1,2.77044e-11,0,3645,3645
270.151,-1.80845e-11,0,3737,3737
270.201,1.64744e-11,0,3909,3909
270.251,1.00816e-10,0,4117,4117
270.301,1.64246e-10,0,4329,4329
270.35,1.49905e-10,0,4501,4501
270.4,9.00095e-11,0,4697,4697
270.45,4.28986e-11,0,4865,4865
270.501,4.77407e-11,0,5053,5053
270.551,9.14761e-11,0,5235,5235
270.601,1.32297e-10,0,5435,5435
270.651,1.32998e-10,0,5631,5631
270.701,1.09972e-10,0,5825,5825
270.75,8.18146e-11,0,6025,6025
270.8,7.16365e-11,0,6225,6225
270.851,9.04027e-11,0,6409,6409
270.901,1.34084e-10,0,6605,6605
270.951,1.7739e-10,0,6787,6787
271.001,1.78288e-10,0,7029,7029
271.051,1.20807e-10,0,7177,7177
271.1,-8.68389e-11,0,7413,7413
271.15,-1.79674e-10,0,7581,7581
271.201,-6.31014e-11,0,7771,7771
271.251,6.47321e-10,0,7973,7973
271.301,9.82172e-10,0,8207,8207
271.351,4.16317e-10,0,8405,8405
271.401,-1.18406e-09,0,8605,8605
271.45,-1.82227e-09,0,8797,8797
271.5,-3.23136e-11,0,8997,8997
271.551,5.02464e-09,0,9167,9167
271.601,1.15766e-08,0,9343,9343
271.651,1.80009e-08,0,9541,9541
271.701,2.31153e-08,0,9735,9735
271.751,2.65207e-08,0,9935,9935
271.8,2.83906e-08,0,10101,10101
271.85,2.9679e-08,0,10301,10301
271.9,3.20888e-08,0,10531,10531
271.951,3.74504e-08,0,10721,10721
272.001,4.59002e-08,0,10931,10931
272.051,5.66934e-08,0,11127,11127
272.101,6.88512e-08,0,11299,11299
272.15,8.24989e-08,0,11489,11489
272.2,9.89948e-08,0,11717,11717
272.25,1.20041e-07,0,11881,11881
272.301,1.47807e-07,0,12047,12047
272.351,1.81439e-07,0,12277,12277
272.401,2.21632e-07,0,12449,12449
272.451,2.66979e-07,0,12655,12655
272.501,3.14791e-07,0,12877,12877
272.55,3.62726e-07,0,13057,13057
272.6,4.10833e-07,0,13263,13263
272.651,4.63055e-07,0,13475,13475
272.701,5.18531e-07,0,13655,13655
272.751,5.77542e-07,0,13861,13861
272.801,6.35824e-07,0,14061,14061
272.851,6.88614e-07,0,14227,14227
272.9,7.32691e-07,0,14437,14437
272.95,7.66561e-07,0,14655,14655
273.001,7.90451e-07,0,14807,14807
273.051,8.0433e-07,0,15005,15005
273.101,8.11664e-07,0,15195,15195
273.151,8.15013e-07,0,15403,15403
273.201,8.15832e-07,0,15571,15571
273.25,8.14103e-07,0,15787,15787
273.3,8.09278e-07,0,15977,15977
273.35,8.00612e-07,0,16161,16161
273.401,7.86467e-07,0,16351,16351
273.451,7.66485e-07,0,16531,16531
273.501,7.39414e-07,0,16657,16657
273.551,7.04627e-07,0,16823,16823
273.6,6.62252e-07,0,16975,16975
273.65,6.14073e-07,0,17131,17131
273.7,5.6328e-07,0,17083,17083
273.751,5.11619e-07,0,17065,17065
273.801,4.64059e-07,0,17147,17147
273.851,4.19938e-07,0,17205,17205
273.901,3.79541e-07,0,17335,17335
273.951,3.42638e-07,0,17507,17507
274,3.08604e-07,0,17731,17731
274.05,2.76729e-07,0,18023,18023
274.101,2.45551e-07,0,18315,18315
274.151,2.16449e-07,0,18545,18545
274.201,1.88673e-07,0,18685,18685
274.251,1.63523e-07,0,18759,18759
274.301,1.43027e-07,0,18801,18801
274.35,1.283e-07,0,18843,18843
274.4,1.17851e-07,0,18931,18931
274.451,1.07972e-07,0,19027,19027
274.501,9.64682e-08,0,19069,19069
274.551,8.32014e-08,0,19097,19097
274.601,7.04177e-08,0,19141,19141
274.651,6.02674e-08,0,19169,19169
274.7,5.33891e-08,0,19279,19279
274.75,4.91796e-08,0,19247,19247
274.801,4.64681e-08,0,19131,19131
274.851,4.39781e-08,0,19063,19063
274.901,4.01696e-08,0,18923,18923
274.951,3.43861e-08,0,18791,18791
275.001,2.76113e-08,0,18723,18723
275.05,2.18976e-08,0,18637,18637
275.1,1.87969e-08,0,18585,18585
275.15,1.82433e-08,0,18537,18537
275.201,1.87851e-08,0,18441,18441
275.251,1.95483e-08,0,18399,18399
275.301,1.98432e-08,0,18347,18347
275.351,1.99209e-08,0,18249,18249
275.4,1.99866e-08,0,18111,18111
275.45,2.00856e-08,0,17953,17953
275.5,2.01781e-08,0,17773,17773
275.551,2.02041e-08,0,17635,17635
275.601,2.0159e-08,0,17537,17537
275.651,1.98439e-08,0,17457,17457
275.701,1.93004e-08,0,17313,17313
275.751,1.91376e-08,0,17185,17185
275.8,1.91541e-08,0,17035,17035
275.851,1.91856e-08,0,16959,16959
275.901,1.92173e-08,0,16837,16837
275.951,1.92502e-08,0,16691,16691
276,1.92826e-08,0,16607,16607
276.051,1.93158e-08,0,16503,16503
276.101,1.93483e-08,0,16401,16401
276.15,1.93812e-08,0,16253,16253
276.201,1.94152e-08,0,16221,16221
276.251,1.94486e-08,0,16147,16147
276.301,1.9482e-08,0,16077,16077
276.35,1.95146e-08,0,16055,16055
276.4,1.95485e-08,0,15931,15931
276.451,1.95826e-08,0,15875,15875
276.5,1.96156e-08,0,15807,15807
276.551,1.96499e-08,0,15789,15789
276.601,1.96835e-08,0,15755,15755
276.65,1.97171e-08,0,15657,15657
276.701,1.97519e-08,0,15685,15685
276.751,1.97858e-08,0,15607,15607
276.801,1.982e-08,0,15643,15643
276.852,1.98544e-08,0,15591,15591
276.9,1.9888e-08,0,15577,15577
276.95,1.99224e-08,0,15489,15489
277.001,1.99576e-08,0,15451,15451
277.051,1.99923e-08,0,15393,15393
277.101,2.00267e-08,0,15369,15369
277.151,2.00613e-08,0,15339,15339
277.201,2.0096e-08,0,15295,15295
277.251,2.01311e-08,0,15223,15223
277.301,2.01664e-08,0,15275,15275
277.352,2.02019e-08,0,15425,15425
277.401,2.02369e-08,0,15547,15547
277.451,2.02732e-08,0,15733,15733
277.501,2.03082e-08,0,15911,15911
277.551,2.03438e-08,0,16295,16295
277.601,2.03793e-08,0,16407,16407
277.651,2.04152e-08,0,16501,16501
277.701,2.04516e-08,0,16559,16559
277.751,2.04881e-08,0,16603,16603
277.801,2.05247e-08,0,16649,16649
277.851,2.05611e-08,0,16661,16661
277.901,2.05978e-08,0,16693,16693
277.95,2.0634e-08,0,16819,16819
278.001,2.06714e-08,0,16927,16927
278.051,2.07082e-08,0,17083,17083
278.102,2.07441e-08,0,17199,17199
278.15,2.07776e-08,0,17288,17288
278.202,2.08115e-08,0,17420,17420
278.251,2.08421e-08,0,17490,17490
278.301,2.08702e-08,0,17596,17596
278.35,2.08958e-08,0,17676,17676
278.401,2.09194e-08,0,17712,17712
278.45,2.09398e-08,0,17612,17612
278.501,2.09589e-08,0,17544,17544
278.551,2.09761e-08,0,17400,17400
278.6,2.09815e-08,0,17298,17298
278.65,2.09836e-08,0,17136,17136
278.7,2.09834e-08,0,16948,16948
278.751,2.09789e-08,0,16784,16784
278.801,2.09678e-08,0,16662,16662
278.85,2.09325e-08,0,16522,16522
278.901,2.08894e-08,0,16344,16344
278.95,2.08364e-08,0,16194,16194
279.001,2.07685e-08,0,16006,16006
279.051,2.06886e-08,0,15788,15788
279.101,2.06029e-08,0,15618,15618
279.151,2.04314e-08,0,15428,15428
279.201,2.02552e-08,0,15266,15266
279.251,2.00675e-08,0,15088,15088
279.3,1.98124e-08,0,14886,14886
279.351,1.9517e-08,0,14698,14698
279.4,1.92053e-08,0,14500,14500
279.451,1.88571e-08,0,14318,14318
279.501,1.84839e-08,0,14182,14182
279.55,1.81076e-08,0,14042,14042
279.6,1.77137e-08,0,13884,13884
279.65,1.73166e-08,0,13734,13734
279.7,1.67682e-08,0,13528,13528
279.751,1.62497e-08,0,13494,13494
279.801,1.57592e-08,0,13746,13746
279.851,1.52668e-08,0,13842,13842
279.901,1.47732e-08,0,13960,13960
279.95,1.4281e-08,0,14044,14044
280,1.3793e-08,0,14252,14252
280.05,1.33119e-08,0,14406,14406
280.101,1.2828e-08,0,14692,14692
280.151,1.23726e-08,0,14892,14892
280.201,1.19354e-08,0,15075,15075
280.251,1.15201e-08,0,15261,15261
280.301,1.11305e-08,0,15417,15417
280.35,1.07693e-08,0,15609,15609
280.4,1.04374e-08,0,15773,15773
280.451,1.01262e-08,0,15977,15977
280.501,9.85226e-09,0,16111,16111
280.551,9.60508e-09,0,16304,16304
280.601,9.38228e-09,0,16494,16494
280.651,9.17924e-09,0,16690,16690
280.7,9.00122e-09,0,16862,16862
280.75,8.85678e-09,0,17036,17036
280.801,8.71872e-09,0,17206,17206
280.851,8.59567e-09,0,17340,17340
280.901,8.48002e-09,0,17500,17500
280.951,8.39336e-09,0,17612,17612
281.001,8.32845e-09,0,17724,17724
281.05,8.26572e-09,0,17904,17904
281.1,8.20615e-09,0,17966,17966
281.15,8.15068e-09,0,18082,18082
281.201,8.09953e-09,0,18176,18176
281.251,8.0645e-09,0,18304,18304
281.301,8.04401e-09,0,18418,18418
281.351,8.02454e-09,0,18528,18528
281.4,8.01822e-09,0,18574,18574
281.45,8.00782e-09,0,18542,18542
281.5,7.99958e-09,0,18596,18596
281.551,7.99385e-09,0,18602,18602
281.601,7.99062e-09,0,18658,18658
281.651,7.98805e-09,0,18690,18690
281.701,7.98667e-09,0,18718,18718
281.751,7.98638e-09,0,18758,18758
281.8,7.98722e-09,0,18782,18782
281.85,7.98901e-09,0,18800,18800
281.901,7.99168e-09,0,18814,18814
281.951,7.99496e-09,0,18728,18728
282.001,7.99879e-09,0,18772,18772
282.051,8.00305e-09,0,18870,18870
282.101,8.00767e-09,0,18900,18900
282.15,8.01254e-09,0,18920,18920
282.2,8.0176e-09,0,18922,18922
282.251,8.02296e-09,0,18942,18942
282.301,8.0283e-09,0,18992,18992
282.352,8.03378e-09,0,18998,18998
282.401,8.03923e-09,0,19092,19092
282.451,8.04465e-09,0,19116,19116
282.501,8.05019e-09,0,19216,19216
282.55,8.05549e-09,0,19238,19238
282.601,8.06092e-09,0,19322,19322
282.651,8.0663e-09,0,19480,19480
282.702,8.07167e-09,0,19694,19694
282.752,8.07706e-09,0,19756,19756
282.801,8.08252e-09,0,19884,19884
282.851,8.08814e-09,0,20032,20032
282.901,8.09403e-09,0,20144,20144
282.951,8.10054e-09,0,20404,20404
283.001,8.10743e-09,0,20546,20546
283.051,8.11535e-09,0,20722,20722
283.1,8.12405e-09,0,20894,20894
283.15,8.1344e-09,0,21147,21147
283.2,8.1465e-09,0,21331,21331
283.25,8.16075e-09,0,21531,21531
283.302,8.1781e-09,0,21723,21723
283.351,8.1978e-09,0,21979,21979
283.401,8.22041e-09,0,22011,22011
283.451,8.24902e-09,0,21993,21993
283.5,8.29225e-09,0,22161,22161
283.551,8.3397e-09,0,22357,22357
283.601,8.41722e-09,0,22441,22441
283.651,8.50231e-09,0,22693,22693
283.701,8.59311e-09,0,22869,22869
283.751,8.68205e-09,0,23027,23027
283.801,8.85068e-09,0,23127,23127
283.85,9.03349e-09,0,23285,23285
283.901,9.23156e-09,0,23447,23447
283.95,9.46304e-09,0,23509,23509
284.001,9.75699e-09,0,23629,23629
284.051,1.00732e-08,0,23725,23725
284.101,1.04137e-08,0,23861,23861
284.151,1.07837e-08,0,23937,23937
284.201,1.12358e-08,0,24031,24031
284.251,1.20507e-08,0,24187,24187
284.301,1.28205e-08,0,24335,24335
284.351,1.38587e-08,0,24435,24435
284.4,1.50679e-08,0,24505,24505
284.45,1.64148e-08,0,24657,24657
284.501,1.79934e-08,0,24761,24761
284.551,1.97345e-08,0,24891,24891
284.601,2.16931e-08,0,25029,25029
284.651,2.38748e-08,0,25089,25089
284.701,2.62809e-08,0,25119,25119
284.75,2.89059e-08,0,25159,25159
284.8,3.17374e-08,0,25127,25127
284.851,3.48492e-08,0,25154,25154
284.901,3.80396e-08,0,25192,25192
284.951,4.13702e-08,0,25184,25184
285.001,4.48153e-08,0,25073,25073
285.051,4.83522e-08,0,25127,25127
285.1,5.19623e-08,0,25282,25282
285.15,5.56353e-08,0,25294,25294
285.2,5.93751e-08,0,25320,25320
285.251,6.33253e-08,0,25744,25744
285.301,6.73292e-08,0,26088,26088
285.351,7.1605e-08,0,26288,26288
285.401,7.62798e-08,0,26554,26554
285.45,8.14568e-08,0,26666,26666
285.5,8.71665e-08,0,26784,26784
285.55,9.33383e-08,0,26794,26794
285.601,1.0001e-07,0,26880,26880
285.651,1.06613e-07,0,26909,26909
285.701,1.13199e-07,0,27031,27031
285.751,1.19755e-07,0,27065,27065
285.801,1.26413e-07,0,27150,27150
285.85,1.33444e-07,0,27248,27248
285.9,1.41212e-07,0,27264,27264
285.951,1.50401e-07,0,27272,27272
286.001,1.609e-07,0,27260,27260
286.051,1.73352e-07,0,27252,27252
286.101,1.88152e-07,0,27208,27208
286.151,2.05706e-07,0,27194,27194
286.2,2.26399e-07,0,27152,27152
286.25,2.50546e-07,0,27144,27144
286.301,2.79196e-07,0,27078,27078
286.351,3.10695e-07,0,27026,27026
286.401,3.45581e-07,0,26890,26890
286.451,3.83459e-07,0,26662,26662
286.501,4.23813e-07,0,26666,26666
286.55,4.66048e-07,0,26512,26512
286.6,5.09479e-07,0,26154,26154
286.65,5.5329e-07,0,25844,25844
286.701,5.97724e-07,0,25682,25682
286.751,6.39005e-07,0,25476,25476
286.801,6.77081e-07,0,25196,25196
286.851,7.10635e-07,0,24924,24924
286.9,7.38554e-07,0,24742,24742
286.95,7.60092e-07,0,24574,24574
287,7.74952e-07,0,24360,24360
287.051,7.8341e-07,0,24588,24588
287.101,7.85425e-07,0,24396,24396
287.151,7.81895e-07,0,24218,24218
287.201,7.73331e-07,0,24044,24044
287.251,7.60078e-07,0,23776,23776
287.3,7.42274e-07,0,23578,23578
287.35,7.19881e-07,0,23312,23312
287.401,6.91916e-07,0,23126,23126
287.451,6.59919e-07,0,22912,22912
287.501,6.23289e-07,0,22656,22656
287.551,5.82437e-07,0,22588,22588
287.601,5.3809e-07,0,22362,22362
287.65,4.91254e-07,0,22246,22246
287.7,4.43107e-07,0,21974,21974
287.751,3.93452e-07,0,21790,21790
287.801,3.46248e-07,0,21578,21578
287.851,3.00934e-07,0,21912,21912
287.901,2.58103e-07,0,21532,21532
287.951,2.18087e-07,0,21366,21366
288,1.81024e-07,0,21326,21326
288.05,1.46947e-07,0,21148,21148
288.101,1.14995e-07,0,21160,21160
288.151,8.70126e-08,0,20964,20964
288.201,6.20754e-08,0,20854,20854
288.251,4.01782e-08,0,20510,20510
288.301,2.12267e-08,0,20264,20264
288.35,5.00862e-09,0,19928,19928
288.4,-8.7855e-09,0,19872,19872
288.45,-2.04977e-08,0,19644,19644
288.501,-3.06917e-08,0,19438,19438
288.551,-3.89885e-08,0,19110,19110
288.601,-4.58074e-08,0,19602,19602
288.651,-5.1207e-08,0,19706,19706
288.7,-5.52664e-08,0,19340,19340
288.75,-5.81277e-08,0,19304,19304
288.8,-6.00021e-08,0,19408,19408
288.851,-6.11486e-08,0,19632,19632
288.901,-6.14364e-08,0,19566,19566
288.951,-6.13757e-08,0,19652,19652
289.001,-6.10793e-08,0,19622,19622
289.051,-5.99737e-08,0,19734,19734
289.1,-5.81846e-08,0,20052,20052
289.15,-5.57527e-08,0,20390,20390
289.201,-5.26882e-08,0,20216,20216
289.251,-4.93096e-08,0,19600,19600
289.301,-4.56961e-08,0,19218,19218
289.351,-4.19989e-08,0,18506,18506
289.401,-3.83431e-08,0,18340,18340
289.45,-3.48186e-08,0,18178,18178
289.5,-3.14837e-08,0,17882,17882
289.551,-2.82852e-08,0,17726,17726
289.601,-2.54259e-08,0,17562,17562
289.651,-2.28149e-08,0,17386,17386
289.701,-2.04526e-08,0,17334,17334
289.751,-1.83316e-08,0,17570,17570
289.8,-1.64425e-08,0,17248,17248
289.85,-1.4774e-08,0,17016,17016
289.9,-1.33144e-08,0,16766,16766
289.951,-1.20183e-08,0,16462,16462
290.001,-1.09466e-08,0,16178,16178
290.051,-1.0045e-08,0,15846,15846
290.101,-9.30329e-09,0,15570,15570
290.15,-8.71622e-09,0,15286,15286
290.2,-8.2842e-09,0,14978,14978
290.25,-7.99712e-09,0,14612,14612
290.301,-7.80069e-09,0,14230,14230
290.351,-7.79405e-09,0,13848,13848
290.401,-7.82594e-09,0,13960,13960
290.451,-7.86968e-09,0,13172,13172
290.501,-7.92751e-09,0,12640,12640
290.55,-8.00592e-09,0,12434,12434
290.6,-8.10151e-09,0,12156,12156
290.651,-8.23552e-09,0,12044,12044
290.701,-8.40615e-09,0,11458,11458
290.751,-8.59488e-09,0,11012,11012
290.801,-8.79109e-09,0,10990,10990
290.851,-9.01159e-09,0,10288,10288
290.9,-9.24931e-09,0,10612,10612
290.95,-9.4704e-09,0,10348,10348
291.001,-9.68498e-09,0,10718,10718
291.051,-9.88024e-09,0,10880,10880
291.101,-1.00631e-08,0,10950,10950
291.151,-1.02324e-08,0,10718,10718
291.201,-1.03839e-08,0,10654,10654
291.25,-1.05227e-08,0,10336,10336
291.3,-1.06463e-08,0,10234,10234
291.351,-1.0758e-08,0,10326,10326
291.401,-1.08516e-08,0,10144,10144
291.451,-1.09292e-08,0,10012,10012
291.501,-1.09907e-08,0,9894,9894
291.551,-1.10452e-08,0,9814,9814
291.6,-1.10801e-08,0,9760,9760
291.65,-1.1097e-08,0,9782,9782
291.7,-1.11027e-08,0,9732,9732
291.751,-1.11024e-08,0,9690,9690
291.801,-1.10997e-08,0,9674,9674
291.851,-1.10961e-08,0,9622,9622
291.901,-1.10901e-08,0,9548,9548
291.95,-1.10833e-08,0,9504,9504
292.001,-1.10754e-08,0,9659,9659
292.051,-1.10679e-08,0,9801,9801
292.1,-1.1061e-08,0,9925,9925
292.151,-1.1055e-08,0,10060,10060
292.201,-1.10504e-08,0,10030,10030
292.25,-1.10478e-08,0,9968,9968
292.3,-1.10472e-08,0,10002,10002
292.35,-1.10491e-08,0,10072,10072
292.4,-1.10539e-08,0,10098,10098
292.45,-1.1062e-08,0,10116,10116
292.501,-1.10743e-08,0,10230,10230
292.551,-1.10904e-08,0,10272,10272
292.602,-1.11113e-08,0,10332,10332
292.651,-1.11357e-08,0,10394,10394
292.701,-1.11637e-08,0,10138,10138
292.751,-1.11923e-08,0,10022,10022
292.8,-1.12285e-08,0,9982,9982
292.85,-1.12757e-08,0,9998,9998
292.9,-1.13357e-08,0,9972,9972
292.951,-1.1403e-08,0,9938,9938
293.001,-1.14703e-08,0,9776,9776
293.05,-1.15426e-08,0,9730,9730
293.101,-1.16234e-08,0,9678,9678
293.15,-1.17089e-08,0,9618,9618
293.201,-1.18031e-08,0,9526,9526
293.251,-1.19035e-08,0,9696,9696
293.301,-1.2008e-08,0,9920,9920
293.351,-1.21145e-08,0,10092,10092
293.401,-1.22195e-08,0,10162,10162
293.451,-1.23169e-08,0,10321,10321
293.5,-1.2495e-08,0,10589,10589
293.551,-1.26656e-08,0,10635,10635
293.6,-1.2835e-08,0,10645,10645
293.651,-1.30234e-08,0,10683,10683
293.701,-1.32234e-08,0,10697,10697
293.75,-1.34843e-08,0,10705,10705
293.8,-1.37588e-08,0,10707,10707
293.85,-1.40413e-08,0,10697,10697
293.901,-1.43456e-08,0,10663,10663
293.951,-1.46569e-08,0,10663,10663
294.001,-1.49834e-08,0,10721,10721
294.051,-1.53342e-08,0,10743,10743
294.101,-1.5685e-08,0,10767,10767
294.151,-1.60537e-08,0,10827,10827
294.201,-1.64286e-08,0,10867,10867
294.25,-1.67977e-08,0,10871,10871
294.3,-1.71821e-08,0,10929,10929
294.35,-1.75798e-08,0,10927,10927
294.401,-1.81636e-08,0,10984,10984
294.451,-1.85966e-08,0,10988,10988
294.501,-1.90111e-08,0,11042,11042
294.551,-1.94142e-08,0,11052,11052
294.6,-1.98032e-08,0,11068,11068
294.65,-2.01757e-08,0,11088,11088
294.7,-2.0528e-08,0,11110,11110
294.751,-2.08662e-08,0,11118,11118
294.801,-2.11693e-08,0,11108,11108
294.851,-2.14483e-08,0,11150,11150
294.901,-2.17035e-08,0,11190,11190
294.951,-2.19342e-08,0,11176,11176
295,-2.21395e-08,0,11226,11226
295.05,-2.23049e-08,0,11054,11054
295.101,-2.24244e-08,0,10876,10876
295.151,-2.24791e-08,0,10690,10690
295.201,-2.25007e-08,0,10512,10512
295.251,-2.2501e-08,0,10442,10442
295.301,-2.24941e-08,0,10378,10378
295.35,-2.24838e-08,0,10350,10350
295.4,-2.24448e-08,0,10326,10326
295.451,-2.24003e-08,0,10214,10214
295.501,-2.23447e-08,0,10146,10146
295.551,-2.22765e-08,0,10134,10134
295.601,-2.21989e-08,0,10074,10074
295.651,-2.21132e-08,0,10036,10036
295.7,-2.2022e-08,0,9968,9968
295.75,-2.1906e-08,0,9870,9870
295.8,-2.17655e-08,0,9810,9810
295.851,-2.16282e-08,0,9716,9716
295.901,-2.14926e-08,0,9642,9642
295.951,-2.13563e-08,0,9524,9524
296.001,-2.12191e-08,0,9436,9436
296.05,-2.10818e-08,0,9370,9370
296.1,-2.09458e-08,0,9172,9172
296.15,-2.08107e-08,0,9022,9022
296.201,-2.06744e-08,0,8914,8914
296.251,-2.0544e-08,0,8806,8806
296.301,-2.04168e-08,0,8694,8694
296.351,-2.02926e-08,0,8614,8614
296.401,-2.01717e-08,0,8566,8566
296.45,-2.00545e-08,0,8468,8468
296.5,-1.99412e-08,0,8408,8408
296.551,-1.98289e-08,0,8316,8316
296.601,-1.97241e-08,0,8208,8208
296.651,-1.96237e-08,0,8133,8133
296.701,-1.95268e-08,0,8081,8081
296.75,-1.94365e-08,0,8069,8069
296.801,-1.9347e-08,0,8111,8111
296.852,-1.92616e-08,0,8164,8164
296.9,-1.9183e-08,0,8160,8160
296.951,-1.91049e-08,0,8202,8202
297.001,-1.90299e-08,0,8206,8206
297.052,-1.8958e-08,0,8176,8176
297.1,-1.88911e-08,0,8205,8205
297.151,-1.8824e-08,0,8246,8246
297.201,-1.87588e-08,0,8188,8188
297.251,-1.86953e-08,0,8190,8190
297.301,-1.86333e-08,0,8172,8172
297.351,-1.85725e-08,0,8160,8160
297.4,-1.85128e-08,0,8158,8158
297.452,-1.84516e-08,0,8146,8146
297.501,-1.83932e-08,0,8120,8120
297.552,-1.83331e-08,0,8078,8078
297.6,-1.82752e-08,0,8042,8042
297.651,-1.82153e-08,0,8024,8024
297.701,-1.81551e-08,0,7954,7954
297.751,-1.80946e-08,0,7928,7928
297.801,-1.80337e-08,0,7880,7880
297.851,-1.79723e-08,0,7834,7834
297.9,-1.79103e-08,0,7800,7800
297.951,-1.78453e-08,0,7765,7765
298,-1.77816e-08,0,7713,7713
298.051,-1.77147e-08,0,7653,7653
298.102,-1.76465e-08,0,7607,7607
298.15,-1.75795e-08,0,7563,7563
298.2,-1.75087e-08,0,7501,7501
298.25,-1.74363e-08,0,7469,7469
298.302,-1.73596e-08,0,7441,7441
298.351,-1.72835e-08,0,7430,7430
298.401,-1.72052e-08,0,7398,7398
298.452,-1.71219e-08,0,7386,7386
298.501,-1.70387e-08,0,7378,7378
298.551,-1.69499e-08,0,7374,7374
298.602,-1.68581e-08,0,7378,7378
298.65,-1.67664e-08,0,7366,7366
298.7,-1.66682e-08,0,7380,7380
298.75,-1.65665e-08,0,7380,7380
298.801,-1.64575e-08,0,7378,7378
298.851,-1.63481e-08,0,7364,7364
298.9,-1.62348e-08,0,7350,7350
298.951,-1.61134e-08,0,7330,7330
299.002,-1.59877e-08,0,7338,7338
299.05,-1.58618e-08,0,7334,7334
299.101,-1.57273e-08,0,7310,7310
299.151,-1.55884e-08,0,7319,7319
299.201,-1.54449e-08,0,7311,7311
299.25,-1.5297e-08,0,7343,7343
299.3,-1.51447e-08,0,7325,7325
299.351,-1.49832e-08,0,7347,7347
299.4,-1.48228e-08,0,7333,7333
299.451,-1.46539e-08,0,7339,7339
299.502,-1.44823e-08,0,7329,7329
299.55,-1.43141e-08,0,7319,7319
299.6,-1.41386e-08,0,7305,7305
299.65,-1.39612e-08,0,7283,7283
299.7,-1.37809e-08,0,7273,7273
299.752,-1.35896e-08,0,7319,7319
299.801,-1.3398e-08,0,7283,7283
299.85,-1.31393e-08,0,7267,7267
299.901,-1.28879e-08,0,7249,7249
299.95,-1.26497e-08,0,7239,7239
300.001,-1.24017e-08,0,7183,7183
300.051,-1.21473e-08,0,7171,7171
300.101,-1.18843e-08,0,7143,7143
300.151,-1.16114e-08,0,7093,7093
300.201,-1.13271e-08,0,7087,7087
300.25,-1.10305e-08,0,7049,7049
300.301,-1.07115e-08,0,7057,7057
300.35,-1.03897e-08,0,7043,7043
300.401,-1.00467e-08,0,7015,7015
300.451,-9.69299e-09,0,7007,7007
300.5,-9.33928e-09,0,6995,6995
300.55,-8.96285e-09,0,7001,7001
300.6,-8.57467e-09,0,6973,6973
300.65,-8.02911e-09,0,6977,6977
300.701,-7.40896e-09,0,6997,6997
300.751,-6.85226e-09,0,6989,6989
300.801,-6.29178e-09,0,6987,6987
300.851,-5.71841e-09,0,6979,6979
300.901,-5.13286e-09,0,6995,6995
300.95,-4.53848e-09,0,6966,6966
301,-3.93944e-09,0,6970,6970
301.05,-3.33995e-09,0,6954,6954
301.101,-2.72658e-09,0,6950,6950
301.151,-2.13858e-09,0,6910,6910
301.201,-1.56213e-09,0,6886,6886
301.251,-1.00089e-09,0,6858,6858
301.3,-4.58449e-10,0,6842,6842
301.35,6.18302e-11,0,6804,6804
301.4,5.56513e-10,0,6772,6772
301.451,1.03613e-09,0,6740,6740
301.501,1.47054e-09,0,6666,6666
301.551,1.87183e-09,0,6602,6602
301.601,2.23843e-09,0,6536,6536
301.651,2.56982e-09,0,6476,6476
301.7,2.86614e-09,0,6394,6394
301.75,3.12859e-09,0,6338,6338
301.801,3.3657e-09,0,6260,6260
301.851,3.56552e-09,0,6202,6202
301.901,3.71329e-09,0,6124,6124
301.951,3.80383e-09,0,6062,6062
302.001,3.8332e-09,0,5998,5998
302.05,3.83276e-09,0,5958,5958
302.1,3.82939e-09,0,5892,5892
302.151,3.82053e-09,0,5844,5844
302.201,3.807e-09,0,5748,5748
302.251,3.78893e-09,0,5724,5724
302.301,3.76644e-09,0,5642,5642
302.351,3.72475e-09,0,5504,5504
302.4,3.67775e-09,0,5338,5338
302.45,3.62153e-09,0,5188,5188
302.501,3.5542e-09,0,5018,5018
302.551,3.48785e-09,0,4854,4854
302.601,3.41852e-09,0,4662,4662
302.651,3.34828e-09,0,4506,4506
302.701,3.27567e-09,0,4338,4338
302.75,3.2026e-09,0,4154,4154
302.8,3.12926e-09,0,3980,3980
302.85,3.05673e-09,0,3790,3790
302.901,2.98385e-09,0,3624,3624
302.951,2.91547e-09,0,3432,3432
303.001,2.85044e-09,0,3258,3258
303.051,2.78915e-09,0,3082,3082
303.1,2.73223e-09,0,2906,2906
303.15,2.67984e-09,0,2722,2722
303.2,2.63223e-09,0,2540,2540
303.251,2.58822e-09,0,2372,2372
303.301,2.55031e-09,0,2192,2192
303.351,2.51702e-09,0,2034,2034
303.401,2.48794e-09,0,1866,1866
303.451,2.46252e-09,0,1700,1700
303.501,2.44158e-09,0,1536,1536
303.551,2.42366e-09,0,1424,1424
303.601,2.40812e-09,0,1360,1360
303.654,2.39327e-09,0,1332,1332
303.704,2.3809e-09,0,1329,1329
303.753,2.37073e-09,0,1327,1327
303.803,2.36087e-09,0,1333,1333
303.853,2.35304e-09,0,1337,1337
303.902,2.34362e-09,0,1335,1335
303.952,2.334e-09,0,1335,1335
304.002,2.32358e-09,0,1330,1330
304.051,2.31265e-09,0,1322,1322
304.101,2.30136e-09,0,1318,1318
304.151,2.28934e-09,0,1312,1312
304.201,2.2769e-09,0,1300,1300
304.25,2.26413e-09,0,1280,1280
304.3,2.25105e-09,0,1270,1270
304.354,2.23668e-09,0,1258,1258
304.404,2.22345e-09,0,1246,1246
304.453,2.21036e-09,0,1230,1230
304.503,2.19766e-09,0,1220,1220
304.553,2.18561e-09,0,1204,1204
304.602,2.17437e-09,0,1192,1192
304.652,2.1641e-09,0,1172,1172
304.702,2.15494e-09,0,1162,1162
304.752,2.14705e-09,0,1150,1150
304.801,2.14138e-09,0,1138,1138
304.851,2.13833e-09,0,1120,1120
304.901,2.13588e-09,0,1108,1108
304.95,2.1345e-09,0,1096,1096
