250,0,0,2048,2048
250.006,0,0,2048,2048
250.053,0,0,2048,2048
250.105,0,0,2048,2048
250.152,0,0,2048,2048
250.205,0,0,2048,2048
250.252,0,0,2048,2048
250.305,0,0,2048,2048
250.352,0,0,2048,2048
250.404,0,0,2048,2048
250.451,0,0,2048,2048
250.504,0,0,2048,2048
250.551,0,0,2048,2048
250.603,0,0,2048,2048
250.65,0,0,2048,2048
250.703,0,0,2048,2048
250.756,0,0,2048,2048
250.803,0,0,2048,2048
250.855,0,0,2048,2048
250.902,0,0,2048,2048
250.955,0,0,2048,2048
251.002,0,0,2048,2048
251.055,0,0,2048,2048
251.101,0,0,2048,2048
251.154,0,0,2048,2048
251.201,0,0,2048,2048
251.254,0,0,2048,2048
251.301,0,0,2048,2048
251.353,0,0,2048,2048
251.4,0,0,2048,2048
251.453,0,0,2048,2048
251.506,0,0,2048,2048
251.553,0,0,2048,2048
251.605,0,0,2048,2048
251.652,0,0,2048,2048
251.705,0,0,2048,2048
251.752,0,0,2048,2048
251.804,0,0,2048,2048
251.851,0,0,2048,2048
251.904,0,0,2048,2048
251.951,0,0,2048,2048
252.004,0,0,2048,2048
252.05,0,0,2048,2048
252.103,0,0,2048,2048
252.15,0,0,2048,2048
252.203,0,0,2048,2048
252.256,0,0,2048,2048
252.302,0,0,2048,2048
252.355,0,0,2048,2048
252.402,0,0,2048,2048
252.455,0,0,2048,2048
252.502,0,0,2048,2048
252.554,0,0,2048,2048
252.601,0,0,2048,2048
252.654,0,0,2048,2048
252.701,0,0,2048,2048
252.754,0,0,2048,2048
252.8,0,0,2048,2048
252.853,0,0,2048,2048
252.906,0,0,2048,2048
252.953,0,0,2048,2048
253.005,0,0,2048,2048
253.052,0,0,2048,2048
253.105,0,0,2048,2048
253.152,0,0,2048,2048
253.205,0,0,2048,2048
253.251,0,0,2048,2048
253.304,0,0,2048,2048
253.351,0,0,2048,2048
253.404,0,0,2048,2048
253.451,0,0,2048,2048
253.503,0,0,2048,2048
253.55,0,0,2048,2048
253.603,0,0,2048,2048
253.656,0,0,2048,2048
253.703,0,0,2048,2048
253.755,0,0,2048,2048
253.802,0,0,2048,2048
253.855,0,0,2048,2048
253.902,0,0,2048,2048
253.954,0,0,2048,2048
254.001,0,0,2048,2048
254.054,0,0,2048,2048
254.101,0,0,2048,2048
254.154,0,0,2048,2048
254.201,0,0,2048,2048
254.253,0,0,2048,2048
254.3,0,0,2048,2048
254.353,0,0,2048,2048
254.406,0,0,2048,2048
254.452,0,0,2048,2048
254.505,0,0,2048,2048
254.552,0,0,2048,2048
254.605,0,0,2048,2048
254.652,0,0,2048,2048
254.704,0,0,2048,2048
254.751,0,0,2048,2048
254.804,0,0,2048,2048
254.851,0,0,2048,2048
254.904,0,0,2048,2048
254.95,0,0,2048,2048
255.003,0,0,2048,2048
255.05,0,0,2048,2048
255.103,0,0,2048,2048
255.155,0,0,2048,2048
255.202,0,0,2048,2048
255.255,0,0,2048,2048
255.302,0,0,2048,2048
255.355,0,0,2048,2048
255.402,0,0,2048,2048
255.454,0,0,2048,2048
255.501,0,0,2048,2048
255.554,0,0,2048,2048
255.601,0,0,2048,2048
255.653,0,0,2048,2048
255.7,0,0,2048,2048
255.753,0,0,2048,2048
255.806,0,0,2048,2048
255.853,0,0,2048,2048
255.905,0,0,2048,2048
255.952,0,0,2048,2048
256.005,0,0,2048,2048
256.052,0,0,2048,2048
256.105,0,0,2048,2048
256.151,0,0,2048,2048
256.204,0,0,2048,2048
256.251,0,0,2048,2048
256.304,0,0,2048,2048
256.351,0,0,2048,2048
256.403,0,0,2048,2048
256.45,0,0,2048,2048
256.503,0,0,2048,2048
256.556,0,0,2048,2048
256.603,0,0,2048,2048
256.655,0,0,2048,2048
256.702,0,0,2048,2048
256.755,0,0,2048,2048
256.802,0,0,2048,2048
256.854,-1.38778e-17,0,2048,2048
256.901,-1.38778e-17,0,2048,2048
256.954,-1.38778e-17,0,2048,2048
257.001,0,0,2048,2048
257.054,0,0,2048,2048
257.101,0,0,2048,2048
257.153,0,0,2048,2048
257.2,0,0,2048,2048
257.253,0,0,2048,2048
257.306,0,0,2048,2048
257.352,0,0,2048,2048
257.405,0,0,2048,2048
257.452,0,0,2048,2048
257.505,0,0,2048,2048
257.552,0,0,2048,2048
257.604,0,0,2048,2048
257.651,0,0,2048,2048
257.704,0,0,2048,2048
257.751,0,0,2048,2048
257.804,0,0,2048,2048
257.85,0,0,2048,2048
257.903,0,0,2048,2048
257.95,0,0,2048,2048
258.003,0,0,2048,2048
258.055,0,0,2048,2048
258.102,0,0,2048,2048
258.155,-1.38778e-17,0,2048,2048
258.202,-1.38778e-17,0,2048,2048
258.255,-1.38778e-17,0,2048,2048
258.302,-1.38778e-17,0,2048,2048
258.354,-1.38778e-17,0,2048,2048
258.401,-1.38778e-17,0,2048,2048
258.454,-1.38778e-17,0,2048,2048
258.501,-1.38778e-17,0,2048,2048
258.553,-1.38778e-17,0,2048,2048
258.6,-1.38778e-17,0,2048,2048
258.653,-1.38778e-17,0,2048,2048
258.706,-1.38778e-17,0,2048,2048
258.753,-1.38778e-17,0,2048,2048
258.805,-1.38778e-17,0,2048,2048
258.852,-1.38778e-17,0,2048,2048
258.905,-1.38778e-17,0,2048,2048
258.952,-1.38778e-17,0,2048,2048
259.005,-1.38778e-17,0,2048,2048
259.051,-2.77556e-17,0,2048,2048
259.104,-2.77556e-17,0,2048,2048
259.151,-2.77556e-17,0,2048,2048
259.204,-2.77556e-17,0,2048,2048
259.251,-2.77556e-17,0,2048,2048
259.303,-2.77556e-17,0,2048,2048
259.35,-2.77556e-17,0,2048,2048
259.403,-2.77556e-17,0,2048,2048
259.456,-2.77556e-17,0,2048,2048
259.503,-2.77556e-17,0,2048,2048
259.555,-2.77556e-17,0,2048,2048
259.602,-2.77556e-17,0,2048,2048
259.655,-2.77556e-17,0,2048,2048
259.702,-1.38778e-17,0,2048,2048
259.754,-1.38778e-17,0,2048,2048
259.801,-1.38778e-17,0,2048,2048
259.854,-1.38778e-17,0,2048,2048
259.901,-1.38778e-17,0,2048,2048
259.954,-1.38778e-17,0,2048,2048
260,-1.38778e-17,0,2048,2048
260.053,-1.38778e-17,0,2048,2048
260.1,-1.38778e-17,0,2048,2048
260.153,-1.38778e-17,0,2048,2048
260.206,-1.38778e-17,0,2048,2048
260.252,-1.38778e-17,0,2048,2048
260.305,-1.38778e-17,0,2048,2048
260.352,-1.38778e-17,0,2048,2048
260.405,-1.38778e-17,0,2048,2048
260.452,-1.38778e-17,0,2048,2048
260.504,-1.38778e-17,0,2048,2048
260.551,-1.38778e-17,0,2048,2048
260.604,-1.38778e-17,0,2048,2048
260.651,-1.38778e-17,0,2048,2048
260.704,-1.38778e-17,0,2048,2048
260.75,-1.38778e-17,0,2048,2048
260.803,-1.38778e-17,0,2048,2048
260.856,-1.38778e-17,0,2048,2048
260.903,-1.38778e-17,0,2048,2048
260.955,-1.38778e-17,0,2048,2048
261.002,-1.38778e-17,0,2048,2048
261.055,-1.38778e-17,0,2048,2048
261.102,-1.38778e-17,0,2048,2048
261.155,-1.38778e-17,0,2048,2048
261.201,-1.38778e-17,0,2048,2048
261.254,-1.38778e-17,0,2048,2048
261.301,-1.38778e-17,0,2048,2048
261.354,-1.38778e-17,0,2048,2048
261.401,-1.38778e-17,0,2048,2048
261.453,0,0,2048,2048
261.5,0,0,2048,2048
261.553,0,0,2048,2048
261.606,0,0,2048,2048
261.653,0,0,2048,2048
261.705,0,0,2048,2048
261.752,0,0,2048,2048
261.805,0,0,2048,2048
261.852,0,0,2048,2048
261.905,0,0,2048,2048
261.951,0,0,2048,2048
262.004,0,0,2048,2048
262.051,0,0,2048,2048
262.104,0,0,2048,2048
262.151,-1.38778e-17,0,2048,2048
262.203,-1.38778e-17,0,2048,2048
262.25,-1.38778e-17,0,2048,2048
262.303,-1.38778e-17,0,2048,2048
262.356,-1.38778e-17,0,2048,2048
262.402,-1.38778e-17,0,2048,2048
262.455,-1.38778e-17,0,2048,2048
262.502,-1.38778e-17,0,2048,2048
262.555,-1.38778e-17,0,2048,2048
262.602,-1.38778e-17,0,2048,2048
262.654,-1.38778e-17,0,2048,2048
262.701,-1.38778e-17,0,2048,2048
262.754,-1.38778e-17,0,2048,2048
262.801,-1.38778e-17,0,2048,2048
262.854,-1.38778e-17,0,2048,2048
262.9,-1.38778e-17,0,2048,2048
262.953,-1.38778e-17,0,2048,2048
263,-1.38778e-17,0,2048,2048
263.053,-1.38778e-17,0,2048,2048
263.105,-2.77556e-17,0,2048,2048
263.152,-2.77556e-17,0,2048,2048
263.205,-2.77556e-17,0,2048,2048
263.252,-2.77556e-17,0,2048,2048
263.305,-2.77556e-17,0,2048,2048
263.352,-2.77556e-17,0,2048,2048
263.404,-2.77556e-17,0,2048,2048
263.451,-2.77556e-17,0,2048,2048
263.504,-2.77556e-17,0,2048,2048
263.551,-2.77556e-17,0,2048,2048
263.603,-2.77556e-17,0,2048,2048
263.65,-2.77556e-17,0,2048,2048
263.703,-2.77556e-17,0,2048,2048
263.756,-2.77556e-17,0,2048,2048
263.803,-2.77556e-17,0,2048,2048
263.855,-2.77556e-17,0,2048,2048
263.902,-2.77556e-17,0,2048,2048
263.955,-2.77556e-17,0,2048,2048
264.002,-2.77556e-17,0,2048,2048
264.055,-2.77556e-17,0,2048,2048
264.101,-2.77556e-17,0,2048,2048
264.154,-2.77556e-17,0,2048,2048
264.201,-2.77556e-17,0,2048,2048
264.254,-2.77556e-17,0,2048,2048
264.301,-2.77556e-17,0,2048,2048
264.353,-2.77556e-17,0,2048,2048
264.4,-2.77556e-17,0,2048,2048
264.453,-2.77556e-17,0,2048,2048
264.506,-2.77556e-17,0,2048,2048
264.553,-2.77556e-17,0,2048,2048
264.605,-2.77556e-17,0,2048,2048
264.652,-2.77556e-17,0,2048,2048
264.705,-2.77556e-17,0,2048,2048
264.752,-2.77556e-17,0,2048,2048
264.804,-2.77556e-17,0,2048,2048
264.851,-2.77556e-17,0,2048,2048
264.904,-2.77556e-17,0,2048,2048
264.951,-2.77556e-17,0,2048,2048
265.004,-2.77556e-17,0,2048,2048
265.051,-2.77556e-17,0,2048,2048
265.103,-2.77556e-17,0,2048,2048
265.15,-2.77556e-17,0,2048,2048
265.203,-2.77556e-17,0,2048,2048
265.256,-2.77556e-17,0,2048,2048
265.302,-2.77556e-17,0,2048,2048
265.355,-2.77556e-17,0,2048,2048
265.402,-2.77556e-17,0,2048,2048
265.455,-2.77556e-17,0,2048,2048
265.502,-2.77556e-17,0,2048,2048
265.554,-2.77556e-17,0,2048,2048
265.601,-2.77556e-17,0,2048,2048
265.654,-2.77556e-17,0,2048,2048
265.701,-2.77556e-17,0,2048,2048
265.754,-2.77556e-17,0,2048,2048
265.8,-2.77556e-17,0,2048,2048
265.853,-2.77556e-17,0,2048,2048
265.9,-2.77556e-17,0,2048,2048
265.953,-2.77556e-17,0,2048,2048
266.005,-2.77556e-17,0,2048,2048
266.052,-2.77556e-17,0,2048,2048
266.105,-2.77556e-17,0,2048,2048
266.152,-2.77556e-17,0,2048,2048
266.205,-2.77556e-17,0,2048,2048
266.252,-2.77556e-17,0,2048,2048
266.304,-2.77556e-17,0,2048,2048
266.351,-2.77556e-17,0,2048,2048
266.404,-2.77556e-17,0,2048,2048
266.451,-2.77556e-17,0,2048,2048
266.503,-2.77556e-17,0,2048,2048
266.55,-2.77556e-17,0,2048,2048
266.603,-2.77556e-17,0,2048,2048
266.656,-2.77556e-17,0,2048,2048
266.703,-2.77556e-17,0,2048,2048
266.755,-2.77556e-17,0,2048,2048
266.802,-2.77556e-17,0,2048,2048
266.855,-2.77556e-17,0,2048,2048
266.902,-2.77556e-17,0,2048,2048
266.955,-2.77556e-17,0,2048,2048
267.001,-2.77556e-17,0,2048,2048
267.054,-2.77556e-17,0,2048,2048
267.101,-2.77556e-17,0,2048,2048
267.154,-2.77556e-17,0,2048,2048
267.201,-1.38778e-17,0,2048,2048
267.253,-1.38778e-17,0,2048,2048
267.3,-1.38778e-17,0,2048,2048
267.353,-1.38778e-17,0,2048,2048
267.406,-1.38778e-17,0,2048,2048
267.453,-1.38778e-17,0,2048,2048
267.505,-1.38778e-17,0,2048,2048
267.552,-1.38778e-17,0,2048,2048
267.605,-1.38778e-17,0,2048,2048
267.652,-1.38778e-17,0,2048,2048
267.704,-1.38778e-17,0,2048,2048
267.751,-1.38778e-17,0,2048,2048
267.804,-1.38778e-17,0,2048,2048
267.851,-1.38778e-17,0,2048,2048
267.904,-1.38778e-17,0,2048,2048
267.95,-1.38778e-17,0,2048,2048
268.003,-2.77556e-17,0,2048,2048
268.05,-2.77556e-17,0,2048,2048
268.101,-2.77556e-17,0,2098,2098
268.151,-2.77556e-17,0,2134,2134
268.201,-2.77556e-17,0,2158,2158
268.25,-2.77556e-17,0,2206,2206
268.3,-2.77556e-17,0,2242,2242
268.35,-2.77556e-17,0,2290,2290
268.403,-2.77556e-17,0,2338,2338
268.453,-2.77556e-17,0,2374,2374
268.502,-2.77556e-17,0,2422,2422
268.552,-2.77556e-17,0,2470,2470
268.602,-2.77556e-17,0,2506,2506
268.652,-2.77556e-17,0,2554,2554
268.702,-2.77556e-17,0,2590,2590
268.751,-2.77556e-17,0,2638,2638
268.801,-2.77556e-17,0,2686,2686
268.851,-2.77556e-17,0,2722,2722
268.901,-2.77556e-17,0,2770,2770
268.951,-2.77556e-17,0,2806,2806
269,-2.77556e-17,0,2854,2854
269.05,-2.77556e-17,0,2890,2890
269.103,-2.77556e-17,0,2938,2938
269.153,-2.77556e-17,0,2986,2986
269.202,-2.77556e-17,0,3022,3022
269.252,-2.77556e-17,0,3070,3070
269.302,-2.77556e-17,0,3118,3118
269.352,-2.77556e-17,0,3154,3154
269.402,-2.77556e-17,0,3202,3202
269.451,-2.77556e-17,0,3238,3238
269.501,-2.77556e-17,0,3286,3286
269.551,-2.77556e-17,0,3322,3322
269.601,-2.77556e-17,0,3370,3370
269.651,-2.77556e-17,0,3418,3418
269.7,-2.77556e-17,0,3454,3454
269.75,-2.77556e-17,0,3502,3502
269.8,-2.77556e-17,0,3538,3538
269.853,-2.77556e-17,0,3586,3586
269.903,-2.77556e-17,0,3634,3634
269.952,-2.77556e-17,0,3670,3670
270.002,-2.77556e-17,0,3718,3718
270.052,-2.77556e-17,0,3754,3754
270.102,-2.77556e-17,0,3802,3802
270.152,-2.77556e-17,0,3838,3838
270.201,-2.77556e-17,0,3886,3886
270.251,-2.77556e-17,0,3922,3922
270.301,-2.77556e-17,0,3958,3958
270.351,-2.77556e-17,0,4006,4006
270.401,-2.77556e-17,0,4042,4042
270.45,-2.77556e-17,0,4090,4090
270.5,-2.77556e-17,0,4126,4126
270.553,-2.77556e-17,0,4174,4174
270.603,-2.77556e-17,0,4202,4202
270.652,-2.77556e-17,0,4230,4230
270.702,-2.77556e-17,0,4274,4274
270.752,-2.77556e-17,0,4298,4298
270.802,-2.77556e-17,0,4310,4310
270.852,-2.77556e-17,0,4326,4326
270.901,-2.77556e-17,0,4370,4370
270.951,-2.77556e-17,0,4398,4398
271.001,-2.77556e-17,0,4434,4434
271.051,-2.77556e-17,0,4478,4478
271.101,-2.77556e-17,0,4498,4498
271.15,-2.77556e-17,0,4506,4506
271.2,-2.77556e-17,0,4514,4514
271.25,-2.77556e-17,0,4538,4538
271.303,-2.77556e-17,0,4578,4578
271.353,-2.77556e-17,0,4614,4614
271.402,-2.77556e-17,0,4666,4666
271.452,-2.77556e-17,0,4746,4746
271.502,-2.77556e-17,0,4814,4814
271.552,-2.77556e-17,0,4850,4850
271.602,-2.77556e-17,0,4890,4890
271.651,-2.77556e-17,0,4942,4942
271.701,-2.77556e-17,0,4990,4990
271.751,-2.77556e-17,0,5018,5018
271.801,-2.77556e-17,0,5054,5054
271.851,-2.77556e-17,0,5090,5090
271.9,-2.77556e-17,0,5126,5126
271.95,-2.77556e-17,0,5166,5166
272.003,-2.77556e-17,0,5210,5210
272.053,-2.77556e-17,0,5262,5262
272.102,-2.77556e-17,0,5334,5334
272.152,-2.77556e-17,0,5398,5398
272.202,-2.77556e-17,0,5434,5434
272.252,-2.77556e-17,0,5470,5470
272.302,-2.77556e-17,0,5506,5506
272.351,-2.77556e-17,0,5542,5542
272.401,-2.77556e-17,0,5578,5578
272.451,-2.77556e-17,0,5614,5614
272.501,-2.77556e-17,0,5650,5650
272.551,-2.77556e-17,0,5686,5686
272.6,-2.77556e-17,0,5710,5710
272.65,-2.77556e-17,0,5746,5746
272.7,-2.77556e-17,0,5782,5782
272.753,-2.77556e-17,0,5818,5818
272.803,-2.77556e-17,0,5854,5854
272.852,-2.77556e-17,0,5890,5890
272.902,-2.77556e-17,0,5926,5926
272.952,-2.77556e-17,0,5962,5962
273.002,-2.77556e-17,0,5986,5986
273.052,-2.77556e-17,0,6022,6022
273.101,-2.77556e-17,0,6058,6058
273.151,-2.77556e-17,0,6086,6086
273.201,-2.77556e-17,0,6098,6098
273.251,-2.77556e-17,0,6094,6094
273.301,-2.77556e-17,0,6122,6122
273.35,-2.77556e-17,0,6158,6158
273.4,-2.77556e-17,0,6206,6206
273.453,-2.77556e-17,0,6270,6270
273.503,-2.77556e-17,0,6322,6322
273.552,-2.77556e-17,0,6358,6358
273.602,-2.77556e-17,0,6394,6394
273.652,-2.77556e-17,0,6430,6430
273.702,-2.77556e-17,0,6454,6454
273.752,-2.77556e-17,0,6490,6490
273.801,-2.77556e-17,0,6526,6526
273.851,-2.77556e-17,0,6550,6550
273.901,-2.77556e-17,0,6586,6586
273.951,-2.77556e-17,0,6622,6622
274.001,-2.77556e-17,0,6638,6638
274.05,-2.77556e-17,0,6682,6682
274.1,-2.77556e-17,0,6718,6718
274.153,-2.77556e-17,0,6754,6754
274.203,-2.77556e-17,0,6790,6790
274.253,-2.77556e-17,0,6814,6814
274.302,-2.77556e-17,0,6850,6850
274.352,-2.77556e-17,0,6886,6886
274.402,-2.77556e-17,0,6910,6910
274.452,-2.77556e-17,0,6930,6930
274.502,-2.77556e-17,0,6966,6966
274.551,-2.77556e-17,0,6990,6990
274.601,-2.77556e-17,0,7010,7010
274.651,-2.77556e-17,0,7030,7030
274.701,-2.77556e-17,0,7046,7046
274.75,-2.77556e-17,0,7066,7066
274.8,-2.77556e-17,0,7074,7074
274.85,-6.93889e-17,0,7094,7094
274.903,-2.77556e-16,0,7114,7114
274.953,-5.13478e-16,0,7142,7142
275.002,-7.49401e-16,0,7158,7158
275.052,-1.17961e-15,0,7194,7194
275.102,-2.33147e-15,0,7218,7218
275.152,-5.48173e-15,0,7254,7254
275.202,-1.35586e-14,0,7290,7290
275.251,-3.26961e-14,0,7314,7314
275.301,-7.56062e-14,0,7350,7350
275.351,-1.66547e-13,0,7374,7374
275.401,-3.49026e-13,0,7410,7410
275.451,-6.96568e-13,0,7446,7446
275.5,-1.32548e-12,0,7470,7470
275.55,-2.40817e-12,0,7506,7506
275.603,-4.31528e-12,0,7530,7530
275.653,-7.15772e-12,0,7566,7566
275.703,-1.13803e-11,0,7598,7598
275.752,-1.73632e-11,0,7618,7618
275.802,-2.54477e-11,0,7646,7646
275.852,-3.58587e-11,0,7662,7662
275.902,-4.8615e-11,0,7698,7698
275.951,-6.33987e-11,0,7710,7710
276.001,-7.92714e-11,0,7738,7738
276.051,-9.46303e-11,0,7774,7774
276.101,-1.15499e-10,0,7802,7802
276.151,-1.46175e-10,0,7830,7830
276.2,-1.57617e-10,0,7866,7866
276.25,-1.41969e-10,0,7898,7898
276.3,-9.93186e-11,0,7922,7922
276.353,-3.69213e-11,0,7974,7974
276.403,8.64016e-12,0,8010,8010
276.452,3.67867e-11,0,8080,8080
276.502,5.81793e-11,0,8088,8088
276.552,7.35681e-11,0,8088,8088
276.602,8.44847e-11,0,8096,8096
276.652,9.19125e-11,0,8096,8096
276.701,9.64898e-11,0,8112,8112
276.751,9.95156e-11,0,8104,8104
276.801,9.81923e-11,0,8096,8096
276.851,9.33809e-11,0,8096,8096
276.901,8.80204e-11,0,8092,8092
276.95,8.38341e-11,0,8050,8050
277,7.96989e-11,0,8010,8010
277.053,7.19255e-11,0,8036,8036
277.103,5.89873e-11,0,8052,8052
277.152,4.19262e-11,0,8076,8076
277.202,2.77172e-11,0,8100,8100
277.252,2.54135e-11,0,8124,8124
277.302,3.89433e-11,0,8144,8144
277.352,6.38443e-11,0,8168,8168
277.401,8.98634e-11,0,8184,8184
277.451,1.2524e-10,0,8192,8192
277.501,1.63038e-10,0,8192,8192
277.551,2.00103e-10,0,8192,8192
277.601,2.4472e-10,0,8192,8192
277.65,3.15543e-10,0,8192,8192
277.7,4.61914e-10,0,8192,8192
277.75,7.88855e-10,0,8192,8192
277.803,1.52258e-09,0,8192,8192
277.853,2.8065e-09,0,8192,8192
277.902,4.86511e-09,0,8192,8192
277.952,7.80297e-09,0,8192,8192
278.002,1.1584e-08,0,8192,8192
278.052,1.60377e-08,0,8192,8192
278.102,2.09275e-08,0,8192,8192
278.151,2.60575e-08,0,8192,8192
278.201,3.13752e-08,0,8192,8192
278.251,3.70278e-08,0,8192,8192
278.301,4.3355e-08,0,8192,8192
278.351,5.08311e-08,0,8192,8192
278.4,5.99907e-08,0,8192,8192
278.45,7.13784e-08,0,8192,8192
278.503,8.64689e-08,0,8192,8192
278.553,1.04177e-07,0,8192,8192
278.602,1.25853e-07,0,8192,8192
278.652,1.52109e-07,0,8192,8192
278.702,1.83507e-07,0,8192,8192
278.752,2.20463e-07,0,8192,8192
278.802,2.6318e-07,0,8192,8192
278.851,3.11614e-07,0,8192,8192
278.901,3.65505e-07,0,8192,8192
278.951,4.24425e-07,0,8192,8192
279.001,4.878e-07,0,8192,8192
279.051,5.54877e-07,0,8192,8192
279.1,6.24642e-07,0,8192,8192
279.15,6.95747e-07,0,8192,8192
279.2,7.66515e-07,0,8192,8192
279.253,8.38992e-07,0,8192,8192
279.303,9.03213e-07,0,8192,8192
279.352,9.61815e-07,0,8192,8192
279.402,1.0139e-06,0,8192,8192
279.452,1.05924e-06,0,8192,8192
279.502,1.09825e-06,0,8192,8192
279.552,1.1318e-06,0,8192,8192
279.601,1.16097e-06,0,8192,8192
279.651,1.18681e-06,0,8192,8192
279.701,1.21016e-06,0,8192,8192
279.751,1.2315e-06,0,8192,8192
279.801,1.25092e-06,0,8192,8192
279.85,1.26821e-06,0,8192,8192
279.9,1.28299e-06,0,8192,8192
279.953,1.29549e-06,0,8192,8192
280.003,1.30414e-06,0,8192,8192
280.052,1.30983e-06,0,8192,8192
280.102,1.31295e-06,0,8192,8192
280.152,1.31403e-06,0,8192,8192
280.202,1.31351e-06,0,8192,8192
280.252,1.31151e-06,0,8192,8192
280.301,1.30777e-06,0,8192,8192
280.351,1.30161e-06,0,8192,8192
280.401,1.29214e-06,0,8192,8192
280.451,1.27846e-06,0,8192,8192
280.501,1.25992e-06,0,8192,8192
280.55,1.23629e-06,0,8192,8192
280.6,1.2078e-06,0,8192,8192
280.65,1.17495e-06,0,8192,8192
280.703,1.13614e-06,0,8192,8192
280.753,1.09618e-06,0,8192,8192
280.802,1.0532e-06,0,8192,8192
280.852,1.00705e-06,0,8192,8192
280.902,9.57388e-07,0,8192,8192
280.952,9.0391e-07,0,8192,8192
281.002,8.46531e-07,0,8192,8192
281.051,7.8552e-07,0,8192,8192
281.101,7.21509e-07,0,8192,8192
281.151,6.55405e-07,0,8192,8192
281.201,5.88273e-07,0,8192,8192
281.251,5.21219e-07,0,8192,8192
281.3,4.55318e-07,0,8192,8192
281.35,3.91566e-07,0,8192,8192
281.403,3.27393e-07,0,8192,8192
281.453,2.70713e-07,0,8192,8192
281.502,2.18422e-07,0,8192,8192
281.552,1.70874e-07,0,8192,8192
281.602,1.28217e-07,0,8192,8192
281.652,9.04236e-08,0,8192,8192
281.702,5.73424e-08,0,8192,8192
281.751,2.87345e-08,0,8192,8192
281.801,4.29462e-09,0,8192,8192
281.851,-1.63437e-08,0,8192,8192
281.901,-3.35978e-08,0,8192,8192
281.951,-4.79067e-08,0,8192,8192
282,-5.9684e-08,0,8192,8192
282.05,-6.92724e-08,0,8192,8192
282.1,-7.69236e-08,0,8192,8192
282.153,-8.31095e-08,0,8192,8192
282.203,-8.72959e-08,0,8192,8192
282.252,-9.00384e-08,0,8192,8192
282.302,-9.15369e-08,0,8192,8192
282.352,-9.2016e-08,0,8192,8192
282.402,-9.1687e-08,0,8192,8192
282.452,-9.07068e-08,0,8192,8192
282.501,-8.91548e-08,0,8192,8192
282.551,-8.70426e-08,0,8192,8192
282.601,-8.43474e-08,0,8192,8192
282.651,-8.10563e-08,0,8192,8192
282.7,-7.72005e-08,0,8192,8192
282.75,-7.28686e-08,0,8192,8192
282.8,-6.81974e-08,0,8192,8192
282.853,-6.30611e-08,0,8192,8192
282.903,-5.81986e-08,0,8192,8192
282.952,-5.34655e-08,0,8192,8192
283.002,-4.89664e-08,0,8192,8192
283.052,-4.47713e-08,0,8192,8192
283.102,-4.09184e-08,0,8192,8192
283.152,-3.74209e-08,0,8192,8192
283.201,-3.42739e-08,0,8192,8192
283.251,-3.14619e-08,0,8192,8192
283.301,-2.89653e-08,0,8192,8192
283.351,-2.67642e-08,0,8192,8192
283.401,-2.48411e-08,0,8192,8192
283.45,-2.31806e-08,0,8192,8192
283.5,-2.17685e-08,0,8192,8192
283.553,-2.05278e-08,0,8192,8192
283.603,-1.95792e-08,0,8192,8192
283.653,-1.88291e-08,0,8192,8192
283.702,-1.82582e-08,0,8192,8192
283.752,-1.78461e-08,0,8192,8192
283.802,-1.75726e-08,0,8192,8192
283.852,-1.74183e-08,0,8192,8192
283.901,-1.73647e-08,0,8192,8192
283.951,-1.73953e-08,0,8192,8192
284.001,-1.74951e-08,0,8192,8192
284.051,-1.76509e-08,0,8192,8192
284.101,-1.7851e-08,0,8192,8192
284.15,-1.80855e-08,0,8192,8192
284.2,-1.83457e-08,0,8192,8192
284.25,-1.86238e-08,0,8192,8192
284.303,-1.89306e-08,0,8192,8192
284.353,-1.92261e-08,0,8192,8192
284.402,-1.95223e-08,0,8192,8192
284.452,-1.98154e-08,0,8192,8192
284.502,-2.0102e-08,0,8192,8192
284.552,-2.03796e-08,0,8192,8192
284.602,-2.0646e-08,0,8192,8192
284.651,-2.0899e-08,0,8192,8192
284.701,-2.1137e-08,0,8192,8192
284.751,-2.13585e-08,0,8192,8192
284.801,-2.15621e-08,0,8192,8192
284.851,-2.17472e-08,0,8192,8192
284.9,-2.19132e-08,0,8192,8192
284.95,-2.20604e-08,0,8192,8192
285.003,-2.21964e-08,0,8192,8192
285.053,-2.23073e-08,0,8192,8192
285.102,-2.24027e-08,0,8192,8192
285.152,-2.24843e-08,0,8192,8192
285.202,-2.25542e-08,0,8192,8192
285.252,-2.26143e-08,0,8192,8192
285.302,-2.26667e-08,0,8192,8192
285.351,-2.27133e-08,0,8192,8192
285.401,-2.27562e-08,0,8192,8192
285.451,-2.2797e-08,0,8192,8192
285.501,-2.28375e-08,0,8192,8192
285.551,-2.28796e-08,0,8192,8192
285.6,-2.29249e-08,0,8192,8192
285.65,-2.29753e-08,0,8192,8192
285.7,-2.30324e-08,0,8192,8192
285.753,-2.31027e-08,0,8192,8192
285.803,-2.31803e-08,0,8192,8192
285.852,-2.32713e-08,0,8192,8192
285.902,-2.33781e-08,0,8192,8192
285.952,-2.35032e-08,0,8192,8192
286.002,-2.36494e-08,0,8192,8192
286.052,-2.38193e-08,0,8192,8192
286.101,-2.40157e-08,0,8192,8192
286.151,-2.42415e-08,0,8192,8192
286.201,-2.4499e-08,0,8192,8192
286.251,-2.47907e-08,0,8192,8192
286.301,-2.51185e-08,0,8192,8192
286.35,-2.54838e-08,0,8192,8192
286.4,-2.58878e-08,0,8192,8192
286.453,-2.63578e-08,0,8192,8192
286.503,-2.68414e-08,0,8192,8192
286.552,-2.73623e-08,0,8192,8192
286.602,-2.79189e-08,0,8192,8192
286.652,-2.85085e-08,0,8192,8192
286.702,-2.91285e-08,0,8192,8192
286.752,-2.97754e-08,0,8192,8192
286.801,-3.04459e-08,0,8192,8192
286.851,-3.11364e-08,0,8192,8192
286.901,-3.18436e-08,0,8192,8192
286.951,-3.25642e-08,0,8192,8192
287.001,-3.32953e-08,0,8192,8192
287.05,-3.40343e-08,0,8192,8192
287.1,-3.47785e-08,0,8192,8192
287.15,-3.55259e-08,0,8192,8192
287.203,-3.63184e-08,0,8192,8192
287.253,-3.70658e-08,0,8192,8192
287.302,-3.78104e-08,0,8192,8192
287.352,-3.85504e-08,0,8192,8192
287.402,-3.92842e-08,0,8192,8192
287.452,-4.00101e-08,0,8192,8192
287.502,-4.07265e-08,0,8192,8192
287.551,-4.14319e-08,0,8192,8192
287.601,-4.21247e-08,0,8192,8192
287.651,-4.28033e-08,0,8192,8192
287.701,-4.34659e-08,0,8192,8192
287.751,-4.41105e-08,0,8192,8192
287.8,-4.47353e-08,0,8192,8192
287.85,-4.53381e-08,0,8192,8192
287.903,-4.595e-08,0,8192,8192
287.953,-4.65009e-08,0,8192,8192
288.002,-4.70233e-08,0,8192,8192
288.052,-4.75152e-08,0,8192,8192
288.102,-4.79749e-08,0,8192,8192
288.152,-4.84004e-08,0,8192,8192
288.202,-4.87902e-08,0,8192,8192
288.251,-4.91428e-08,0,8192,8192
288.301,-4.94568e-08,0,8192,8192
288.351,-4.97312e-08,0,8192,8192
288.401,-4.99651e-08,0,8192,8192
288.451,-5.0158e-08,0,8192,8192
288.5,-5.03098e-08,0,8192,8192
288.55,-5.04208e-08,0,8192,8192
288.6,-5.04917e-08,0,8192,8192
288.653,-5.05246e-08,0,8192,8192
288.703,-5.05176e-08,0,8192,8192
288.752,-5.04758e-08,0,8192,8192
288.802,-5.04016e-08,0,8192,8192
288.852,-5.02978e-08,0,8192,8192
288.902,-5.01674e-08,0,8192,8192
288.952,-5.00133e-08,0,8192,8192
289.001,-4.98387e-08,0,8192,8192
289.051,-4.96466e-08,0,8192,8192
289.101,-4.94398e-08,0,8192,8192
289.151,-4.92211e-08,0,8192,8192
289.201,-4.8993e-08,0,8192,8192
289.25,-4.87579e-08,0,8192,8192
289.3,-4.85178e-08,0,8192,8192
289.353,-4.82602e-08,0,8192,8192
289.403,-4.80155e-08,0,8192,8192
289.452,-4.77708e-08,0,8192,8192
289.502,-4.75274e-08,0,8192,8192
289.552,-4.72863e-08,0,8192,8192
289.602,-4.70484e-08,0,8192,8192
289.652,-4.68145e-08,0,8192,8192
289.701,-4.65852e-08,0,8192,8192
289.751,-4.63609e-08,0,8192,8192
289.801,-4.61421e-08,0,8192,8192
289.851,-4.59292e-08,0,8192,8192
289.901,-4.57222e-08,0,8192,8192
289.95,-4.55215e-08,0,8192,8192
290,-4.53271e-08,0,8192,8192
290.053,-4.51281e-08,0,8192,8192
290.103,-4.49468e-08,0,8192,8192
290.153,-4.47716e-08,0,8192,8192
290.202,-4.46026e-08,0,8192,8192
290.252,-4.44393e-08,0,8192,8192
290.302,-4.42816e-08,0,8192,8192
290.352,-4.41291e-08,0,8192,8192
290.402,-4.39814e-08,0,8192,8192
290.451,-4.38381e-08,0,8192,8192
290.501,-4.36986e-08,0,8192,8192
290.551,-4.35625e-08,0,8192,8192
290.601,-4.34293e-08,0,8192,8192
290.65,-4.32985e-08,0,8192,8192
290.7,-4.31696e-08,0,8192,8192
290.75,-4.30421e-08,0,8192,8192
290.803,-4.29081e-08,0,8192,8192
290.853,-4.27819e-08,0,8192,8192
290.902,-4.26556e-08,0,8192,8192
290.952,-4.25287e-08,0,8192,8192
291.002,-4.24009e-08,0,8192,8192
291.052,-4.22717e-08,0,8192,8192
291.102,-4.21406e-08,0,8192,8192
291.151,-4.20074e-08,0,8192,8192
291.201,-4.18717e-08,0,8192,8192
291.251,-4.17331e-08,0,8192,8192
291.301,-4.15913e-08,0,8192,8192
291.351,-4.14461e-08,0,8192,8192
291.4,-4.12973e-08,0,8192,8192
291.45,-4.11445e-08,0,8192,8192
291.503,-4.09781e-08,0,8192,8192
291.553,-4.08165e-08,0,8192,8192
291.602,-4.06502e-08,0,8192,8192
291.652,-4.0479e-08,0,8192,8192
291.702,-4.03027e-08,0,8192,8192
291.752,-4.01209e-08,0,8192,8192
291.802,-3.99333e-08,0,8192,8192
291.851,-3.97396e-08,0,8192,8192
291.901,-3.95394e-08,0,8192,8192
291.951,-3.93322e-08,0,8192,8192
292.001,-3.91177e-08,0,8192,8192
292.051,-3.88954e-08,0,8192,8192
292.1,-3.86648e-08,0,8192,8192
292.15,-3.84253e-08,0,8192,8192
292.2,-3.81763e-08,0,8192,8192
292.253,-3.79013e-08,0,8192,8192
292.303,-3.763e-08,0,8192,8192
292.352,-3.73462e-08,0,8192,8192
292.402,-3.70487e-08,0,8192,8192
292.452,-3.67357e-08,0,8192,8192
292.502,-3.64056e-08,0,8192,8192
292.552,-3.60563e-08,0,8192,8192
292.601,-3.56853e-08,0,8192,8192
292.651,-3.52903e-08,0,8192,8192
292.701,-3.48685e-08,0,8192,8192
292.751,-3.44173e-08,0,8192,8192
292.801,-3.39341e-08,0,8192,8192
292.85,-3.34161e-08,0,8192,8192
292.9,-3.2861e-08,0,8192,8192
292.953,-3.22307e-08,0,8192,8192
293.003,-3.15934e-08,0,8192,8192
293.052,-3.09144e-08,0,8192,8192
293.102,-3.01932e-08,0,8192,8192
293.152,-2.943e-08,0,8192,8192
293.202,-2.86257e-08,0,8192,8192
293.252,-2.77821e-08,0,8192,8192
293.301,-2.69013e-08,0,8192,8192
293.351,-2.59859e-08,0,8192,8192
293.401,-2.50393e-08,0,8192,8192
293.451,-2.40647e-08,0,8192,8192
293.501,-2.30657e-08,0,8192,8192
293.55,-2.2046e-08,0,8192,8192
293.6,-2.1009e-08,0,8192,8192
293.65,-1.99581e-08,0,8192,8192
293.703,-1.88338e-08,0,8192,8192
293.753,-1.77641e-08,0,8192,8192
293.802,-1.66896e-08,0,8192,8192
293.852,-1.56128e-08,0,8192,8192
293.902,-1.45361e-08,0,8192,8192
293.952,-1.34617e-08,0,8192,8192
294.002,-1.23918e-08,0,8192,8192
294.051,-1.13284e-08,0,8192,8192
294.101,-1.02735e-08,0,8192,8192
294.151,-9.22909e-09,0,8192,8192
294.201,-8.19715e-09,0,8192,8192
294.251,-7.17971e-09,0,8192,8192
294.3,-6.17884e-09,0,8192,8192
294.35,-5.19672e-09,0,8192,8192
294.403,-4.17974e-09,0,8192,8192
294.453,-3.24338e-09,0,8192,8192
294.502,-2.33289e-09,0,8192,8192
294.552,-1.4507e-09,0,8192,8192
294.602,-5.99255e-10,0,8192,8192
294.652,2.19053e-10,0,8192,8192
294.702,1.00191e-09,0,8192,8192
294.751,1.7471e-09,0,8192,8192
294.801,2.45255e-09,0,8192,8192
294.851,3.11635e-09,0,8192,8192
294.901,3.73677e-09,0,8192,8192
294.951,4.31229e-09,0,8192,8192
295,4.84167e-09,0,8192,8192
295.05,5.32395e-09,0,8192,8192
295.1,5.75852e-09,0,8192,8192
295.153,6.16647e-09,0,8192,8192
295.203,6.50279e-09,0,8192,8192
295.252,6.7924e-09,0,8192,8192
295.302,7.03668e-09,0,8192,8192
295.352,7.23755e-09,0,8192,8192
295.402,7.39747e-09,0,8192,8192
295.452,7.51933e-09,0,8192,8192
295.501,7.60639e-09,0,8192,8192
295.551,7.66219e-09,0,8192,8192
295.601,7.69038e-09,0,8192,8192
295.651,7.69467e-09,0,8192,8192
295.701,7.67862e-09,0,8192,8192
295.75,7.64561e-09,0,8192,8192
295.8,7.59872e-09,0,8192,8192
295.853,7.53691e-09,0,8192,8192
295.903,7.46945e-09,0,8192,8192
295.952,7.39499e-09,0,8192,8192
296.002,7.31491e-09,0,8192,8192
296.052,7.23015e-09,0,8192,8192
296.102,7.14128e-09,0,8192,8192
296.152,7.04858e-09,0,8192,8192
296.201,6.95211e-09,0,8192,8192
296.251,6.85182e-09,0,8192,8192
296.301,6.74765e-09,0,8192,8192
296.351,6.63964e-09,0,8192,8192
296.401,6.52805e-09,0,8192,8192
296.45,6.41339e-09,0,8192,8192
296.5,6.29652e-09,0,8192,8192
296.55,6.17857e-09,0,8192,8192
296.603,6.05409e-09,0,8192,8192
296.653,5.93856e-09,0,8192,8192
296.702,5.82667e-09,0,8192,8192
296.752,5.71996e-09,0,8192,8192
296.802,5.61974e-09,0,8192,8192
296.852,5.52702e-09,0,8192,8192
296.902,5.44246e-09,0,8192,8192
296.951,5.36632e-09,0,8192,8192
297.001,5.29853e-09,0,8192,8192
297.051,5.23875e-09,0,8192,8192
297.101,5.1864e-09,0,8192,8192
297.151,5.14079e-09,0,8192,8192
297.2,5.10115e-09,0,8192,8192
297.25,5.06667e-09,0,8192,8192
297.303,5.03487e-09,0,8192,8192
297.353,5.00842e-09,0,8192,8192
297.402,4.98461e-09,0,8192,8192
297.452,4.96266e-09,0,8192,8192
297.502,4.94184e-09,0,8192,8192
297.552,4.92151e-09,0,8192,8192
297.602,4.90115e-09,0,8192,8192
297.651,4.88039e-09,0,8192,8192
297.701,4.85905e-09,0,8192,8192
297.751,4.83709e-09,0,8192,8192
297.801,4.81461e-09,0,8192,8192
297.851,4.79183e-09,0,8192,8192
297.9,4.76902e-09,0,8192,8192
297.95,4.74649e-09,0,8192,8192
298.003,4.72332e-09,0,8192,8192
298.053,4.70246e-09,0,8192,8192
298.103,4.68301e-09,0,8192,8192
298.152,4.66543e-09,0,8192,8192
298.202,4.65023e-09,0,8192,8192
298.252,4.63799e-09,0,8192,8192
298.302,4.62931e-09,0,8192,8192
298.352,4.62477e-09,0,8192,8192
298.401,4.62491e-09,0,8192,8192
298.451,4.63013e-09,0,8192,8192
298.501,4.64066e-09,0,8192,8192
298.551,4.65651e-09,0,8192,8192
298.6,4.67746e-09,0,8192,8192
298.65,4.70309e-09,0,8192,8192
298.7,4.73275e-09,0,8192,8192
298.753,4.76765e-09,0,8192,8192
298.803,4.80298e-09,0,8192,8192
298.852,4.83961e-09,0,8192,8192
298.902,4.87658e-09,0,8192,8192
298.952,4.913e-09,0,8192,8192
299.002,4.94806e-09,0,8192,8192
299.052,4.98107e-09,0,8192,8192
299.101,5.0115e-09,0,8192,8192
299.151,5.03896e-09,0,8192,8192
299.201,5.06319e-09,0,8192,8192
299.251,5.08407e-09,0,8192,8192
299.301,5.10159e-09,0,8192,8192
299.35,5.11581e-09,0,8192,8192
299.4,5.12688e-09,0,8192,8192
299.453,5.13535e-09,0,8192,8192
299.503,5.1405e-09,0,8192,8192
299.553,5.14309e-09,0,8192,8192
299.602,5.14333e-09,0,8192,8192
299.652,5.14142e-09,0,8192,8192
299.702,5.13753e-09,0,8192,8192
299.752,5.13182e-09,0,8192,8192
299.801,5.12441e-09,0,8192,8192
299.851,5.11539e-09,0,8192,8192
299.901,5.10481e-09,0,8192,8192
299.951,5.09272e-09,0,8192,8192
300.001,5.07913e-09,0,8192,8192
300.05,5.06405e-09,0,8192,8192
300.1,5.04748e-09,0,8192,8192
300.15,5.02945e-09,0,8192,8192
300.203,5.00879e-09,0,8192,8192
300.253,4.98786e-09,0,8192,8192
300.302,4.96561e-09,0,8192,8192
300.352,4.94211e-09,0,8192,8192
300.402,4.91744e-09,0,8192,8192
300.452,4.8917e-09,0,8192,8192
300.502,4.86495e-09,0,8192,8192
300.551,4.83726e-09,0,8192,8192
300.601,4.80869e-09,0,8192,8192
300.651,4.77929e-09,0,8192,8192
300.701,4.74909e-09,0,8192,8192
300.751,4.7181e-09,0,8192,8192
300.8,4.68636e-09,0,8192,8192
300.85,4.65385e-09,0,8192,8192
300.903,4.6186e-09,0,8192,8192
300.953,4.58452e-09,0,8192,8192
301.002,4.54968e-09,0,8192,8192
301.052,4.51405e-09,0,8192,8192
301.102,4.47763e-09,0,8192,8192
301.152,4.44041e-09,0,8192,8192
301.202,4.40237e-09,0,8192,8192
301.251,4.36351e-09,0,8192,8192
301.301,4.32381e-09,0,8192,8192
301.351,4.28328e-09,0,8192,8192
301.401,4.2419e-09,0,8192,8192
301.451,4.19967e-09,0,8192,8192
301.5,4.1566e-09,0,8192,8192
301.55,4.11269e-09,0,8192,8192
301.6,4.06796e-09,0,8192,8192
301.653,4.01971e-09,0,8192,8192
301.703,3.97333e-09,0,8192,8192
301.752,3.92619e-09,0,8192,8192
301.802,3.87831e-09,0,8192,8192
301.852,3.82972e-09,0,8192,8192
301.902,3.78046e-09,0,8192,8192
301.952,3.73057e-09,0,8192,8192
302.001,3.6801e-09,0,8192,8192
302.051,3.62908e-09,0,8192,8192
302.101,3.57756e-09,0,8192,8192
302.151,3.52559e-09,0,8192,8192
302.201,3.47323e-09,0,8192,8192
302.25,3.42052e-09,0,8192,8192
302.3,3.36752e-09,0,8192,8192
302.353,3.31115e-09,0,8192,8192
302.403,3.25773e-09,0,8192,8192
302.452,3.20419e-09,0,8192,8192
302.502,3.15058e-09,0,8192,8192
302.552,3.09697e-09,0,8192,8192
302.602,3.0434e-09,0,8192,8192
302.652,2.98992e-09,0,8192,8192
302.701,2.9366e-09,0,8192,8192
302.751,2.88346e-09,0,8192,8192
302.801,2.83057e-09,0,8192,8192
302.851,2.77794e-09,0,8192,8192
302.901,2.72563e-09,0,8192,8192
302.95,2.67365e-09,0,8192,8192
303,2.62205e-09,0,8192,8192
303.05,2.57082e-09,0,8192,8192
303.103,2.51703e-09,0,8192,8192
303.153,2.46666e-09,0,8192,8192
303.202,2.41672e-09,0,8192,8192
303.252,2.36722e-09,0,8192,8192
303.302,2.31815e-09,0,8192,8192
303.352,2.26954e-09,0,8192,8192
303.402,2.22136e-09,0,8192,8192
303.451,2.17363e-09,0,8192,8192
303.501,2.12634e-09,0,8192,8192
303.551,2.07949e-09,0,8192,8192
303.601,2.03308e-09,0,8192,8192
303.651,1.98709e-09,0,8192,8192
303.7,1.94154e-09,0,8192,8192
303.75,1.89641e-09,0,8192,8192
303.803,1.84907e-09,0,8192,8192
303.853,1.80479e-09,0,8192,8192
303.902,1.76091e-09,0,8192,8192
303.952,1.71742e-09,0,8192,8192
304.002,1.67432e-09,0,8192,8192
304.052,1.63159e-09,0,8192,8192
304.102,1.58923e-09,0,8192,8192
304.151,1.54721e-09,0,8192,8192
304.201,1.50553e-09,0,8192,8192
304.251,1.46417e-09,0,8192,8192
304.301,1.42312e-09,0,8192,8192
304.351,1.38237e-09,0,8192,8192
304.4,1.34191e-09,0,8192,8192
304.45,1.30171e-09,0,8192,8192
304.5,1.26178e-09,0,8192,8192
304.553,1.21978e-09,0,8192,8192
304.603,1.18037e-09,0,8192,8192
304.652,1.14119e-09,0,8192,8192
304.702,1.10224e-09,0,8192,8192
304.752,1.06353e-09,0,8192,8192
304.802,1.02505e-09,0,8192,8192
304.852,9.86786e-10,0,8192,8192
304.901,9.48753e-10,0,8192,8192
304.951,9.10948e-10,0,8192,8192
